[ T-Cross ]
    title = [t-cross] in region mesh
     mesh =  reg            # mesh type is region-wise
      reg =    1            # number of crossing regions
      non     r-from    r-to       area
      1       113       213        1.000000    
   e-type =    3            # e-mesh is log given by emin, emax and ne
     emin =  1.0000000E-02  # minimum value of e-mesh points
     emax =   150.0000      # maximum value of e-mesh points
#    edel =  2.4039514E-02  # mesh width of e-mesh points
       ne =    400          # number of e-mesh points
#    data = ( e(i), i = 1, ne + 1 )
#           1.00000E-02  1.02433E-02  1.04925E-02  1.07478E-02  1.10093E-02
#           1.12772E-02  1.15516E-02  1.18326E-02  1.21205E-02  1.24154E-02
#           1.27175E-02  1.30269E-02  1.33439E-02  1.36686E-02  1.40011E-02
#           1.43418E-02  1.46907E-02  1.50482E-02  1.54143E-02  1.57894E-02
#           1.61735E-02  1.65670E-02  1.69701E-02  1.73830E-02  1.78060E-02
#           1.82392E-02  1.86830E-02  1.91375E-02  1.96032E-02  2.00801E-02
#           2.05687E-02  2.10692E-02  2.15818E-02  2.21069E-02  2.26448E-02
#           2.31957E-02  2.37601E-02  2.43382E-02  2.49304E-02  2.55369E-02
#           2.61583E-02  2.67947E-02  2.74467E-02  2.81145E-02  2.87985E-02
#           2.94992E-02  3.02169E-02  3.09521E-02  3.17052E-02  3.24766E-02
#           3.32668E-02  3.40762E-02  3.49053E-02  3.57546E-02  3.66246E-02
#           3.75157E-02  3.84284E-02  3.93634E-02  4.03212E-02  4.13022E-02
#           4.23071E-02  4.33365E-02  4.43909E-02  4.54710E-02  4.65773E-02
#           4.77106E-02  4.88714E-02  5.00605E-02  5.12785E-02  5.25262E-02
#           5.38042E-02  5.51133E-02  5.64542E-02  5.78278E-02  5.92348E-02
#           6.06760E-02  6.21523E-02  6.36645E-02  6.52135E-02  6.68002E-02
#           6.84255E-02  7.00904E-02  7.17957E-02  7.35426E-02  7.53319E-02
#           7.71648E-02  7.90423E-02  8.09655E-02  8.29354E-02  8.49533E-02
#           8.70203E-02  8.91376E-02  9.13064E-02  9.35279E-02  9.58035E-02
#           9.81345E-02  1.00522E-01  1.02968E-01  1.05473E-01  1.08040E-01
#           1.10668E-01  1.13361E-01  1.16119E-01  1.18944E-01  1.21838E-01
#           1.24803E-01  1.27839E-01  1.30950E-01  1.34136E-01  1.37399E-01
#           1.40742E-01  1.44167E-01  1.47675E-01  1.51268E-01  1.54948E-01
#           1.58718E-01  1.62580E-01  1.66535E-01  1.70587E-01  1.74738E-01
#           1.78989E-01  1.83344E-01  1.87805E-01  1.92375E-01  1.97055E-01
#           2.01850E-01  2.06761E-01  2.11792E-01  2.16945E-01  2.22223E-01
#           2.27630E-01  2.33169E-01  2.38842E-01  2.44653E-01  2.50605E-01
#           2.56703E-01  2.62949E-01  2.69346E-01  2.75900E-01  2.82613E-01
#           2.89489E-01  2.96532E-01  3.03747E-01  3.11138E-01  3.18708E-01
#           3.26462E-01  3.34405E-01  3.42542E-01  3.50876E-01  3.59413E-01
#           3.68158E-01  3.77116E-01  3.86291E-01  3.95690E-01  4.05317E-01
#           4.15179E-01  4.25281E-01  4.35628E-01  4.46227E-01  4.57084E-01
#           4.68205E-01  4.79597E-01  4.91266E-01  5.03219E-01  5.15463E-01
#           5.28005E-01  5.40851E-01  5.54011E-01  5.67490E-01  5.81298E-01
#           5.95441E-01  6.09929E-01  6.24769E-01  6.39970E-01  6.55541E-01
#           6.71491E-01  6.87828E-01  7.04564E-01  7.21706E-01  7.39266E-01
#           7.57253E-01  7.75678E-01  7.94551E-01  8.13883E-01  8.33685E-01
#           8.53969E-01  8.74747E-01  8.96030E-01  9.17831E-01  9.40163E-01
#           9.63038E-01  9.86469E-01  1.01047E+00  1.03506E+00  1.06024E+00
#           1.08604E+00  1.11246E+00  1.13953E+00  1.16725E+00  1.19565E+00
#           1.22474E+00  1.25454E+00  1.28507E+00  1.31633E+00  1.34836E+00
#           1.38117E+00  1.41477E+00  1.44920E+00  1.48446E+00  1.52057E+00
#           1.55757E+00  1.59547E+00  1.63429E+00  1.67405E+00  1.71478E+00
#           1.75650E+00  1.79924E+00  1.84302E+00  1.88786E+00  1.93379E+00
#           1.98084E+00  2.02904E+00  2.07841E+00  2.12898E+00  2.18078E+00
#           2.23384E+00  2.28819E+00  2.34386E+00  2.40089E+00  2.45930E+00
#           2.51914E+00  2.58043E+00  2.64322E+00  2.70753E+00  2.77341E+00
#           2.84088E+00  2.91001E+00  2.98081E+00  3.05333E+00  3.12762E+00
#           3.20372E+00  3.28167E+00  3.36152E+00  3.44330E+00  3.52708E+00
#           3.61290E+00  3.70080E+00  3.79085E+00  3.88308E+00  3.97756E+00
#           4.07434E+00  4.17347E+00  4.27501E+00  4.37903E+00  4.48557E+00
#           4.59471E+00  4.70650E+00  4.82102E+00  4.93832E+00  5.05847E+00
#           5.18155E+00  5.30762E+00  5.43676E+00  5.56904E+00  5.70453E+00
#           5.84333E+00  5.98550E+00  6.13114E+00  6.28031E+00  6.43312E+00
#           6.58964E+00  6.74997E+00  6.91420E+00  7.08243E+00  7.25475E+00
#           7.43126E+00  7.61207E+00  7.79728E+00  7.98700E+00  8.18133E+00
#           8.38038E+00  8.58428E+00  8.79315E+00  9.00709E+00  9.22624E+00
#           9.45072E+00  9.68067E+00  9.91620E+00  1.01575E+01  1.04046E+01
#           1.06578E+01  1.09171E+01  1.11827E+01  1.14548E+01  1.17335E+01
#           1.20190E+01  1.23114E+01  1.26109E+01  1.29178E+01  1.32321E+01
#           1.35540E+01  1.38838E+01  1.42216E+01  1.45676E+01  1.49221E+01
#           1.52851E+01  1.56570E+01  1.60380E+01  1.64282E+01  1.68279E+01
#           1.72374E+01  1.76568E+01  1.80864E+01  1.85264E+01  1.89772E+01
#           1.94389E+01  1.99119E+01  2.03963E+01  2.08926E+01  2.14009E+01
#           2.19216E+01  2.24550E+01  2.30014E+01  2.35610E+01  2.41343E+01
#           2.47215E+01  2.53230E+01  2.59391E+01  2.65702E+01  2.72167E+01
#           2.78789E+01  2.85572E+01  2.92520E+01  2.99637E+01  3.06928E+01
#           3.14396E+01  3.22045E+01  3.29881E+01  3.37907E+01  3.46128E+01
#           3.54550E+01  3.63177E+01  3.72013E+01  3.81064E+01  3.90336E+01
#           3.99833E+01  4.09561E+01  4.19526E+01  4.29734E+01  4.40189E+01
#           4.50900E+01  4.61870E+01  4.73108E+01  4.84619E+01  4.96410E+01
#           5.08488E+01  5.20860E+01  5.33533E+01  5.46514E+01  5.59812E+01
#           5.73432E+01  5.87384E+01  6.01676E+01  6.16315E+01  6.31311E+01
#           6.46671E+01  6.62405E+01  6.78522E+01  6.95031E+01  7.11941E+01
#           7.29263E+01  7.47007E+01  7.65182E+01  7.83800E+01  8.02870E+01
#           8.22405E+01  8.42414E+01  8.62911E+01  8.83906E+01  9.05412E+01
#           9.27442E+01  9.50007E+01  9.73122E+01  9.96799E+01  1.02105E+02
#           1.04589E+02  1.07134E+02  1.09741E+02  1.12411E+02  1.15146E+02
#           1.17948E+02  1.20817E+02  1.23757E+02  1.26768E+02  1.29852E+02
#           1.33012E+02  1.36248E+02  1.39563E+02  1.42959E+02  1.46437E+02
#           1.50000E+02
     unit =    2            # unit is [1/cm^2/(MeV/n)/source]
     axis =  eng            # axis of output
     file = detector-14.out  # file name of output for the above axis
   output = f-curr          # surface crossing forward current spectrum
     part =  neutron  
# kf/name :  2112     
#    used :        main (  %)        temp (  %)       total (  %)
#  memory :         414 (  0)           0 (  0)         414 (  0)

#------------------------------------------------------------------------------
#newpage:
#   no. =    1   reg = 113 - 213

x: Energy [MeV/n]
y:  F-Curr [1/cm^2/(MeV/n)/source]         
p: xlog ylog afac(0.8) form(0.9)
h: n            x            y(neutron ),hh0l   n 
#  e-lower      e-upper      neutron     r.err 
   1.0000E-02   1.0243E-02   6.7766E-05  0.1089
   1.0243E-02   1.0493E-02   6.3915E-05  0.1114
   1.0493E-02   1.0748E-02   5.4969E-05  0.1188
   1.0748E-02   1.1009E-02   7.1483E-05  0.1032
   1.1009E-02   1.1277E-02   5.8345E-05  0.1123
   1.1277E-02   1.1552E-02   5.1738E-05  0.1181
   1.1552E-02   1.1833E-02   4.5869E-05  0.1242
   1.1833E-02   1.2121E-02   5.3711E-05  0.1135
   1.2121E-02   1.2415E-02   5.3577E-05  0.1125
   1.2415E-02   1.2718E-02   4.8857E-05  0.1160
   1.2718E-02   1.3027E-02   5.7307E-05  0.1060
   1.3027E-02   1.3344E-02   4.1015E-05  0.1236
   1.3344E-02   1.3669E-02   4.7535E-05  0.1130
   1.3669E-02   1.4001E-02   5.6395E-05  0.1030
   1.4001E-02   1.4342E-02   4.0216E-05  0.1206
   1.4342E-02   1.4691E-02   4.8891E-05  0.1078
   1.4691E-02   1.5048E-02   3.3572E-05  0.1286
   1.5048E-02   1.5414E-02   5.2681E-05  0.1014
   1.5414E-02   1.5789E-02   4.3350E-05  0.1101
   1.5789E-02   1.6174E-02   4.3181E-05  0.1094
   1.6174E-02   1.6567E-02   3.9791E-05  0.1128
   1.6567E-02   1.6970E-02   4.0856E-05  0.1097
   1.6970E-02   1.7383E-02   3.8157E-05  0.1123
   1.7383E-02   1.7806E-02   3.8693E-05  0.1099
   1.7806E-02   1.8239E-02   3.7690E-05  0.1103
   1.8239E-02   1.8683E-02   3.1398E-05  0.1190
   1.8683E-02   1.9138E-02   3.5779E-05  0.1099
   1.9138E-02   1.9603E-02   3.4548E-05  0.1112
   1.9603E-02   2.0080E-02   3.9953E-05  0.1017
   2.0080E-02   2.0569E-02   3.1480E-05  0.1136
   2.0569E-02   2.1069E-02   2.6694E-05  0.1219
   2.1069E-02   2.1582E-02   4.1343E-05  0.0966
   2.1582E-02   2.2107E-02   3.2619E-05  0.1077
   2.2107E-02   2.2645E-02   3.0597E-05  0.1101
   2.2645E-02   2.3196E-02   2.8970E-05  0.1112
   2.3196E-02   2.3760E-02   2.7996E-05  0.1122
   2.3760E-02   2.4338E-02   3.1245E-05  0.1048
   2.4338E-02   2.4930E-02   2.9071E-05  0.1073
   2.4930E-02   2.5537E-02   2.7426E-05  0.1095
   2.5537E-02   2.6158E-02   2.9062E-05  0.1045
   2.6158E-02   2.6795E-02   3.0836E-05  0.1006
   2.6795E-02   2.7447E-02   2.0743E-05  0.1207
   2.7447E-02   2.8114E-02   2.2101E-05  0.1160
   2.8114E-02   2.8799E-02   2.5849E-05  0.1058
   2.8799E-02   2.9499E-02   2.8912E-05  0.0992
   2.9499E-02   3.0217E-02   2.1649E-05  0.1132
   3.0217E-02   3.0952E-02   2.3479E-05  0.1069
   3.0952E-02   3.1705E-02   2.4411E-05  0.1040
   3.1705E-02   3.2477E-02   2.3889E-05  0.1038
   3.2477E-02   3.3267E-02   1.9989E-05  0.1121
   3.3267E-02   3.4076E-02   2.2854E-05  0.1032
   3.4076E-02   3.4905E-02   1.9477E-05  0.1102
   3.4905E-02   3.5755E-02   2.2254E-05  0.1025
   3.5755E-02   3.6625E-02   1.8692E-05  0.1103
   3.6625E-02   3.7516E-02   1.7301E-05  0.1133
   3.7516E-02   3.8428E-02   2.3623E-05  0.0961
   3.8428E-02   3.9363E-02   2.2398E-05  0.0974
   3.9363E-02   4.0321E-02   1.9155E-05  0.1035
   4.0321E-02   4.1302E-02   2.3470E-05  0.0930
   4.1302E-02   4.2307E-02   1.7315E-05  0.1072
   4.2307E-02   4.3337E-02   2.0069E-05  0.0980
   4.3337E-02   4.4391E-02   2.0476E-05  0.0957
   4.4391E-02   4.5471E-02   1.6982E-05  0.1038
   4.5471E-02   4.6577E-02   1.6935E-05  0.1028
   4.6577E-02   4.7711E-02   1.8052E-05  0.0982
   4.7711E-02   4.8871E-02   1.8810E-05  0.0952
   4.8871E-02   5.0061E-02   1.6962E-05  0.0991
   5.0061E-02   5.1279E-02   1.5593E-05  0.1020
   5.1279E-02   5.2526E-02   1.5040E-05  0.1027
   5.2526E-02   5.3804E-02   1.4986E-05  0.1016
   5.3804E-02   5.5113E-02   1.5549E-05  0.0986
   5.5113E-02   5.6454E-02   1.2825E-05  0.1074
   5.6454E-02   5.7828E-02   1.4845E-05  0.0982
   5.7828E-02   5.9235E-02   1.3341E-05  0.1029
   5.9235E-02   6.0676E-02   1.6621E-05  0.0908
   6.0676E-02   6.2152E-02   1.3002E-05  0.1017
   6.2152E-02   6.3665E-02   1.1892E-05  0.1047
   6.3665E-02   6.5214E-02   1.4004E-05  0.0958
   6.5214E-02   6.6800E-02   1.3630E-05  0.0957
   6.6800E-02   6.8426E-02   1.1400E-05  0.1030
   6.8426E-02   7.0090E-02   1.3108E-05  0.0954
   7.0090E-02   7.1796E-02   1.3232E-05  0.0936
   7.1796E-02   7.3543E-02   1.1098E-05  0.1012
   7.3543E-02   7.5332E-02   1.0690E-05  0.1021
   7.5332E-02   7.7165E-02   1.0870E-05  0.0999
   7.7165E-02   7.9042E-02   1.1497E-05  0.0955
   7.9042E-02   8.0965E-02   1.1592E-05  0.0945
   8.0965E-02   8.2935E-02   1.0371E-05  0.0989
   8.2935E-02   8.4953E-02   1.0451E-05  0.0972
   8.4953E-02   8.7020E-02   1.0399E-05  0.0961
   8.7020E-02   8.9138E-02   9.6660E-06  0.0985
   8.9138E-02   9.1306E-02   1.0604E-05  0.0930
   9.1306E-02   9.3528E-02   1.0198E-05  0.0937
   9.3528E-02   9.5804E-02   7.7342E-06  0.1057
   9.5804E-02   9.8134E-02   9.9773E-06  0.0924
   9.8134E-02   1.0052E-01   8.3903E-06  0.0996
   1.0052E-01   1.0297E-01   1.0207E-05  0.0891
   1.0297E-01   1.0547E-01   9.4306E-06  0.0918
   1.0547E-01   1.0804E-01   8.0129E-06  0.0984
   1.0804E-01   1.1067E-01   9.1137E-06  0.0910
   1.1067E-01   1.1336E-01   9.4331E-06  0.0884
   1.1336E-01   1.1612E-01   7.6555E-06  0.0971
   1.1612E-01   1.1894E-01   8.2617E-06  0.0921
   1.1894E-01   1.2184E-01   8.4265E-06  0.0901
   1.2184E-01   1.2480E-01   8.3272E-06  0.0895
   1.2480E-01   1.2784E-01   9.2822E-06  0.0838
   1.2784E-01   1.3095E-01   6.6430E-06  0.0980
   1.3095E-01   1.3414E-01   6.5041E-06  0.0975
   1.3414E-01   1.3740E-01   7.0270E-06  0.0928
   1.3740E-01   1.4074E-01   6.2069E-06  0.0976
   1.4074E-01   1.4417E-01   7.4055E-06  0.0882
   1.4417E-01   1.4767E-01   7.3882E-06  0.0875
   1.4767E-01   1.5127E-01   8.4151E-06  0.0812
   1.5127E-01   1.5495E-01   7.2897E-06  0.0858
   1.5495E-01   1.5872E-01   8.0069E-06  0.0812
   1.5872E-01   1.6258E-01   7.5626E-06  0.0824
   1.6258E-01   1.6654E-01   7.1183E-06  0.0840
   1.6654E-01   1.7059E-01   7.2043E-06  0.0825
   1.7059E-01   1.7474E-01   6.0365E-06  0.0890
   1.7474E-01   1.7899E-01   6.1841E-06  0.0869
   1.7899E-01   1.8334E-01   5.3482E-06  0.0923
   1.8334E-01   1.8781E-01   7.0469E-06  0.0795
   1.8781E-01   1.9237E-01   6.0441E-06  0.0847
   1.9237E-01   1.9706E-01   5.4118E-06  0.0885
   1.9706E-01   2.0185E-01   5.7543E-06  0.0846
   2.0185E-01   2.0676E-01   5.8273E-06  0.0832
   2.0676E-01   2.1179E-01   7.2077E-06  0.0737
   2.1179E-01   2.1694E-01   6.4108E-06  0.0774
   2.1694E-01   2.2222E-01   7.1542E-06  0.0724
   2.2222E-01   2.2763E-01   6.2517E-06  0.0763
   2.2763E-01   2.3317E-01   8.8299E-06  0.0638
   2.3317E-01   2.3884E-01   8.5715E-06  0.0637
   2.3884E-01   2.4465E-01   7.5559E-06  0.0671
   2.4465E-01   2.5061E-01   9.5755E-06  0.0590
   2.5061E-01   2.5670E-01   8.3607E-06  0.0624
   2.5670E-01   2.6295E-01   7.7479E-06  0.0639
   2.6295E-01   2.6935E-01   8.8454E-06  0.0592
   2.6935E-01   2.7590E-01   8.3811E-06  0.0601
   2.7590E-01   2.8261E-01   9.4499E-06  0.0559
   2.8261E-01   2.8949E-01   1.0742E-05  0.0519
   2.8949E-01   2.9653E-01   1.0178E-05  0.0526
   2.9653E-01   3.0375E-01   1.0446E-05  0.0513
   3.0375E-01   3.1114E-01   1.1058E-05  0.0493
   3.1114E-01   3.1871E-01   9.7654E-06  0.0518
   3.1871E-01   3.2646E-01   1.1736E-05  0.0467
   3.2646E-01   3.3441E-01   1.0869E-05  0.0479
   3.3441E-01   3.4254E-01   1.2036E-05  0.0451
   3.4254E-01   3.5088E-01   1.3525E-05  0.0420
   3.5088E-01   3.5941E-01   1.3088E-05  0.0421
   3.5941E-01   3.6816E-01   1.2757E-05  0.0421
   3.6816E-01   3.7712E-01   1.2458E-05  0.0422
   3.7712E-01   3.8629E-01   1.3494E-05  0.0400
   3.8629E-01   3.9569E-01   1.3428E-05  0.0397
   3.9569E-01   4.0532E-01   1.4504E-05  0.0376
   4.0532E-01   4.1518E-01   1.3974E-05  0.0380
   4.1518E-01   4.2528E-01   1.5452E-05  0.0357
   4.2528E-01   4.3563E-01   1.5240E-05  0.0354
   4.3563E-01   4.4623E-01   1.4678E-05  0.0357
   4.4623E-01   4.5708E-01   1.5690E-05  0.0341
   4.5708E-01   4.6821E-01   1.5355E-05  0.0341
   4.6821E-01   4.7960E-01   1.6664E-05  0.0323
   4.7960E-01   4.9127E-01   1.7276E-05  0.0314
   4.9127E-01   5.0322E-01   1.6084E-05  0.0321
   5.0322E-01   5.1546E-01   1.6744E-05  0.0311
   5.1546E-01   5.2800E-01   1.6958E-05  0.0305
   5.2800E-01   5.4085E-01   1.6747E-05  0.0304
   5.4085E-01   5.5401E-01   1.8069E-05  0.0289
   5.5401E-01   5.6749E-01   1.7597E-05  0.0289
   5.6749E-01   5.8130E-01   1.9205E-05  0.0273
   5.8130E-01   5.9544E-01   1.7753E-05  0.0281
   5.9544E-01   6.0993E-01   1.7843E-05  0.0277
   6.0993E-01   6.2477E-01   1.8481E-05  0.0268
   6.2477E-01   6.3997E-01   1.7898E-05  0.0270
   6.3997E-01   6.5554E-01   1.8299E-05  0.0264
   6.5554E-01   6.7149E-01   1.7451E-05  0.0267
   6.7149E-01   6.8783E-01   1.9262E-05  0.0251
   6.8783E-01   7.0456E-01   1.8099E-05  0.0256
   7.0456E-01   7.2171E-01   1.8339E-05  0.0251
   7.2171E-01   7.3927E-01   1.8140E-05  0.0250
   7.3927E-01   7.5725E-01   1.7479E-05  0.0251
   7.5725E-01   7.7568E-01   1.8062E-05  0.0244
   7.7568E-01   7.9455E-01   1.7990E-05  0.0242
   7.9455E-01   8.1388E-01   1.6566E-05  0.0249
   8.1388E-01   8.3368E-01   1.6888E-05  0.0243
   8.3368E-01   8.5397E-01   1.7327E-05  0.0237
   8.5397E-01   8.7475E-01   1.6646E-05  0.0239
   8.7475E-01   8.9603E-01   1.6666E-05  0.0236
   8.9603E-01   9.1783E-01   1.5794E-05  0.0240
   9.1783E-01   9.4016E-01   1.5562E-05  0.0239
   9.4016E-01   9.6304E-01   1.5654E-05  0.0235
   9.6304E-01   9.8647E-01   1.5518E-05  0.0233
   9.8647E-01   1.0105E+00   1.5263E-05  0.0232
   1.0105E+00   1.0351E+00   1.5821E-05  0.0226
   1.0351E+00   1.0602E+00   1.6167E-05  0.0221
   1.0602E+00   1.0860E+00   1.7743E-05  0.0208
   1.0860E+00   1.1125E+00   1.8201E-05  0.0203
   1.1125E+00   1.1395E+00   1.8826E-05  0.0197
   1.1395E+00   1.1673E+00   1.9846E-05  0.0190
   1.1673E+00   1.1957E+00   2.1024E-05  0.0182
   1.1957E+00   1.2247E+00   2.1199E-05  0.0179
   1.2247E+00   1.2545E+00   2.2388E-05  0.0172
   1.2545E+00   1.2851E+00   2.2683E-05  0.0169
   1.2851E+00   1.3163E+00   2.4063E-05  0.0162
   1.3163E+00   1.3484E+00   2.4404E-05  0.0159
   1.3484E+00   1.3812E+00   2.5868E-05  0.0153
   1.3812E+00   1.4148E+00   2.6022E-05  0.0151
   1.4148E+00   1.4492E+00   2.7443E-05  0.0145
   1.4492E+00   1.4845E+00   2.7207E-05  0.0144
   1.4845E+00   1.5206E+00   2.7973E-05  0.0140
   1.5206E+00   1.5576E+00   2.8729E-05  0.0137
   1.5576E+00   1.5955E+00   2.8848E-05  0.0135
   1.5955E+00   1.6343E+00   2.9893E-05  0.0131
   1.6343E+00   1.6741E+00   3.0438E-05  0.0128
   1.6741E+00   1.7148E+00   3.1146E-05  0.0125
   1.7148E+00   1.7565E+00   3.2213E-05  0.0121
   1.7565E+00   1.7992E+00   3.2641E-05  0.0119
   1.7992E+00   1.8430E+00   3.2617E-05  0.0118
   1.8430E+00   1.8879E+00   3.4037E-05  0.0114
   1.8879E+00   1.9338E+00   3.3781E-05  0.0113
   1.9338E+00   1.9808E+00   3.4396E-05  0.0111
   1.9808E+00   2.0290E+00   3.5703E-05  0.0107
   2.0290E+00   2.0784E+00   3.5072E-05  0.0107
   2.0784E+00   2.1290E+00   3.5388E-05  0.0105
   2.1290E+00   2.1808E+00   3.5721E-05  0.0103
   2.1808E+00   2.2338E+00   3.5297E-05  0.0103
   2.2338E+00   2.2882E+00   3.5440E-05  0.0101
   2.2882E+00   2.3439E+00   3.4903E-05  0.0101
   2.3439E+00   2.4009E+00   3.6601E-05  0.0097
   2.4009E+00   2.4593E+00   3.6324E-05  0.0097
   2.4593E+00   2.5191E+00   3.5924E-05  0.0096
   2.5191E+00   2.5804E+00   3.5913E-05  0.0095
   2.5804E+00   2.6432E+00   3.5924E-05  0.0094
   2.6432E+00   2.7075E+00   3.5012E-05  0.0094
   2.7075E+00   2.7734E+00   3.4920E-05  0.0093
   2.7734E+00   2.8409E+00   3.4646E-05  0.0092
   2.8409E+00   2.9100E+00   3.5041E-05  0.0090
   2.9100E+00   2.9808E+00   3.4556E-05  0.0090
   2.9808E+00   3.0533E+00   3.5234E-05  0.0088
   3.0533E+00   3.1276E+00   3.4716E-05  0.0088
   3.1276E+00   3.2037E+00   3.4161E-05  0.0087
   3.2037E+00   3.2817E+00   3.4065E-05  0.0086
   3.2817E+00   3.3615E+00   3.2619E-05  0.0087
   3.3615E+00   3.4433E+00   3.2617E-05  0.0086
   3.4433E+00   3.5271E+00   3.2513E-05  0.0085
   3.5271E+00   3.6129E+00   3.2225E-05  0.0085
   3.6129E+00   3.7008E+00   3.1657E-05  0.0084
   3.7008E+00   3.7908E+00   3.0995E-05  0.0084
   3.7908E+00   3.8831E+00   3.0394E-05  0.0084
   3.8831E+00   3.9776E+00   3.0075E-05  0.0083
   3.9776E+00   4.0743E+00   2.9622E-05  0.0083
   4.0743E+00   4.1735E+00   2.9230E-05  0.0083
   4.1735E+00   4.2750E+00   2.8045E-05  0.0083
   4.2750E+00   4.3790E+00   2.7060E-05  0.0084
   4.3790E+00   4.4856E+00   2.6388E-05  0.0084
   4.4856E+00   4.5947E+00   2.5014E-05  0.0085
   4.5947E+00   4.7065E+00   2.3864E-05  0.0086
   4.7065E+00   4.8210E+00   2.2584E-05  0.0088
   4.8210E+00   4.9383E+00   2.1127E-05  0.0089
   4.9383E+00   5.0585E+00   1.9923E-05  0.0091
   5.0585E+00   5.1815E+00   1.9019E-05  0.0092
   5.1815E+00   5.3076E+00   1.8123E-05  0.0093
   5.3076E+00   5.4368E+00   1.7303E-05  0.0094
   5.4368E+00   5.5690E+00   1.6375E-05  0.0096
   5.5690E+00   5.7045E+00   1.5725E-05  0.0096
   5.7045E+00   5.8433E+00   1.4944E-05  0.0098
   5.8433E+00   5.9855E+00   1.4463E-05  0.0098
   5.9855E+00   6.1311E+00   1.4286E-05  0.0098
   6.1311E+00   6.2803E+00   1.3349E-05  0.0100
   6.2803E+00   6.4331E+00   1.2963E-05  0.0100
   6.4331E+00   6.5896E+00   1.2232E-05  0.0102
   6.5896E+00   6.7500E+00   1.1698E-05  0.0103
   6.7500E+00   6.9142E+00   1.1433E-05  0.0103
   6.9142E+00   7.0824E+00   1.0865E-05  0.0104
   7.0824E+00   7.2548E+00   1.0520E-05  0.0105
   7.2548E+00   7.4313E+00   1.0269E-05  0.0105
   7.4313E+00   7.6121E+00   9.7744E-06  0.0106
   7.6121E+00   7.7973E+00   9.5003E-06  0.0106
   7.7973E+00   7.9870E+00   9.0153E-06  0.0108
   7.9870E+00   8.1813E+00   8.7640E-06  0.0108
   8.1813E+00   8.3804E+00   8.2662E-06  0.0110
   8.3804E+00   8.5843E+00   7.9804E-06  0.0111
   8.5843E+00   8.7931E+00   7.6706E-06  0.0111
   8.7931E+00   9.0071E+00   7.3694E-06  0.0112
   9.0071E+00   9.2262E+00   7.0771E-06  0.0113
   9.2262E+00   9.4507E+00   6.7277E-06  0.0115
   9.4507E+00   9.6807E+00   6.5153E-06  0.0115
   9.6807E+00   9.9162E+00   6.0202E-06  0.0119
   9.9162E+00   1.0157E+01   5.8782E-06  0.0119
   1.0157E+01   1.0405E+01   5.8549E-06  0.0117
   1.0405E+01   1.0658E+01   5.7348E-06  0.0117
   1.0658E+01   1.0917E+01   5.6136E-06  0.0117
   1.0917E+01   1.1183E+01   5.3477E-06  0.0118
   1.1183E+01   1.1455E+01   5.0883E-06  0.0120
   1.1455E+01   1.1733E+01   4.6104E-06  0.0125
   1.1733E+01   1.2019E+01   4.4437E-06  0.0125
   1.2019E+01   1.2311E+01   4.1182E-06  0.0129
   1.2311E+01   1.2611E+01   3.8903E-06  0.0131
   1.2611E+01   1.2918E+01   3.5834E-06  0.0135
   1.2918E+01   1.3232E+01   3.4909E-06  0.0135
   1.3232E+01   1.3554E+01   3.1465E-06  0.0140
   1.3554E+01   1.3884E+01   3.1444E-06  0.0139
   1.3884E+01   1.4222E+01   2.9329E-06  0.0142
   1.4222E+01   1.4568E+01   2.7171E-06  0.0146
   1.4568E+01   1.4922E+01   2.4641E-06  0.0151
   1.4922E+01   1.5285E+01   2.1871E-06  0.0159
   1.5285E+01   1.5657E+01   2.0432E-06  0.0162
   1.5657E+01   1.6038E+01   1.8165E-06  0.0170
   1.6038E+01   1.6428E+01   1.6964E-06  0.0174
   1.6428E+01   1.6828E+01   1.4735E-06  0.0184
   1.6828E+01   1.7237E+01   1.4091E-06  0.0186
   1.7237E+01   1.7657E+01   1.3334E-06  0.0189
   1.7657E+01   1.8086E+01   1.2525E-06  0.0193
   1.8086E+01   1.8526E+01   1.1166E-06  0.0202
   1.8526E+01   1.8977E+01   1.1161E-06  0.0199
   1.8977E+01   1.9439E+01   9.7690E-07  0.0211
   1.9439E+01   1.9912E+01   8.5898E-07  0.0222
   1.9912E+01   2.0396E+01   8.4876E-07  0.0221
   2.0396E+01   2.0893E+01   7.8628E-07  0.0226
   2.0893E+01   2.1401E+01   6.7161E-07  0.0242
   2.1401E+01   2.1922E+01   5.2352E-07  0.0271
   2.1922E+01   2.2455E+01   4.2784E-07  0.0296
   2.2455E+01   2.3001E+01   2.4270E-07  0.0388
   2.3001E+01   2.3561E+01   7.5763E-08  0.0687
   2.3561E+01   2.4134E+01   3.2795E-08  0.1031
   2.4134E+01   2.4721E+01   1.1240E-08  0.1741
   2.4721E+01   2.5323E+01   3.9901E-09  0.2887
   2.5323E+01   2.5939E+01   9.7382E-10  0.5774
   2.5939E+01   2.6570E+01   0.0000E+00  0.0000
   2.6570E+01   2.7217E+01   3.0937E-10  1.0000
   2.7217E+01   2.7879E+01   0.0000E+00  0.0000
   2.7879E+01   2.8557E+01   0.0000E+00  0.0000
   2.8557E+01   2.9252E+01   0.0000E+00  0.0000
   2.9252E+01   2.9964E+01   0.0000E+00  0.0000
   2.9964E+01   3.0693E+01   0.0000E+00  0.0000
   3.0693E+01   3.1440E+01   0.0000E+00  0.0000
   3.1440E+01   3.2205E+01   0.0000E+00  0.0000
   3.2205E+01   3.2988E+01   0.0000E+00  0.0000
   3.2988E+01   3.3791E+01   0.0000E+00  0.0000
   3.3791E+01   3.4613E+01   0.0000E+00  0.0000
   3.4613E+01   3.5455E+01   0.0000E+00  0.0000
   3.5455E+01   3.6318E+01   0.0000E+00  0.0000
   3.6318E+01   3.7201E+01   0.0000E+00  0.0000
   3.7201E+01   3.8106E+01   0.0000E+00  0.0000
   3.8106E+01   3.9034E+01   0.0000E+00  0.0000
   3.9034E+01   3.9983E+01   0.0000E+00  0.0000
   3.9983E+01   4.0956E+01   0.0000E+00  0.0000
   4.0956E+01   4.1953E+01   0.0000E+00  0.0000
   4.1953E+01   4.2973E+01   0.0000E+00  0.0000
   4.2973E+01   4.4019E+01   0.0000E+00  0.0000
   4.4019E+01   4.5090E+01   0.0000E+00  0.0000
   4.5090E+01   4.6187E+01   0.0000E+00  0.0000
   4.6187E+01   4.7311E+01   0.0000E+00  0.0000
   4.7311E+01   4.8462E+01   0.0000E+00  0.0000
   4.8462E+01   4.9641E+01   0.0000E+00  0.0000
   4.9641E+01   5.0849E+01   0.0000E+00  0.0000
   5.0849E+01   5.2086E+01   0.0000E+00  0.0000
   5.2086E+01   5.3353E+01   0.0000E+00  0.0000
   5.3353E+01   5.4651E+01   0.0000E+00  0.0000
   5.4651E+01   5.5981E+01   0.0000E+00  0.0000
   5.5981E+01   5.7343E+01   0.0000E+00  0.0000
   5.7343E+01   5.8738E+01   0.0000E+00  0.0000
   5.8738E+01   6.0168E+01   0.0000E+00  0.0000
   6.0168E+01   6.1632E+01   0.0000E+00  0.0000
   6.1632E+01   6.3131E+01   0.0000E+00  0.0000
   6.3131E+01   6.4667E+01   0.0000E+00  0.0000
   6.4667E+01   6.6240E+01   0.0000E+00  0.0000
   6.6240E+01   6.7852E+01   0.0000E+00  0.0000
   6.7852E+01   6.9503E+01   0.0000E+00  0.0000
   6.9503E+01   7.1194E+01   0.0000E+00  0.0000
   7.1194E+01   7.2926E+01   0.0000E+00  0.0000
   7.2926E+01   7.4701E+01   0.0000E+00  0.0000
   7.4701E+01   7.6518E+01   0.0000E+00  0.0000
   7.6518E+01   7.8380E+01   0.0000E+00  0.0000
   7.8380E+01   8.0287E+01   0.0000E+00  0.0000
   8.0287E+01   8.2240E+01   0.0000E+00  0.0000
   8.2240E+01   8.4241E+01   0.0000E+00  0.0000
   8.4241E+01   8.6291E+01   0.0000E+00  0.0000
   8.6291E+01   8.8391E+01   0.0000E+00  0.0000
   8.8391E+01   9.0541E+01   0.0000E+00  0.0000
   9.0541E+01   9.2744E+01   0.0000E+00  0.0000
   9.2744E+01   9.5001E+01   0.0000E+00  0.0000
   9.5001E+01   9.7312E+01   0.0000E+00  0.0000
   9.7312E+01   9.9680E+01   0.0000E+00  0.0000
   9.9680E+01   1.0211E+02   0.0000E+00  0.0000
   1.0211E+02   1.0459E+02   0.0000E+00  0.0000
   1.0459E+02   1.0713E+02   0.0000E+00  0.0000
   1.0713E+02   1.0974E+02   0.0000E+00  0.0000
   1.0974E+02   1.1241E+02   0.0000E+00  0.0000
   1.1241E+02   1.1515E+02   0.0000E+00  0.0000
   1.1515E+02   1.1795E+02   0.0000E+00  0.0000
   1.1795E+02   1.2082E+02   0.0000E+00  0.0000
   1.2082E+02   1.2376E+02   0.0000E+00  0.0000
   1.2376E+02   1.2677E+02   0.0000E+00  0.0000
   1.2677E+02   1.2985E+02   0.0000E+00  0.0000
   1.2985E+02   1.3301E+02   0.0000E+00  0.0000
   1.3301E+02   1.3625E+02   0.0000E+00  0.0000
   1.3625E+02   1.3956E+02   0.0000E+00  0.0000
   1.3956E+02   1.4296E+02   0.0000E+00  0.0000
   1.4296E+02   1.4644E+02   0.0000E+00  0.0000
   1.4644E+02   1.5000E+02   0.0000E+00  0.0000

#   sum over                 1.4479E-06
'no. =    1   reg = 113 - 213'
msuc: {\huge [t-cross] in region mesh}
msdr: {\it plotted by \ANGEL \version}
msdl: {\it calculated by \PHITS  3.28}
wt: s(0.7)
\vspace{-3}
  region surface crossing
  area  &=&   1.0000E+00 [cm^2]
e:
 
# Information for Restart Calculation
# This calculation was newly started
# istdev =  2 # 1:Batch variance, 2:History variance
# resc2  = 5.00000000000000000E+09 # Total source weight or Total source weight / maxcas
# resc3  = 5.00000000000000000E+09 # Total history number or Total batch number
# maxcas =   500000000 # History / Batch, only used for istdev=1
# bitrseed = 0110100000100010111000001110001111001110100100011111101000111001 # bit data of rseed
