[ T-Cross ]
    title = [t-cross] in region mesh
     mesh =  reg            # mesh type is region-wise
      reg =    1            # number of crossing regions
      non     r-from    r-to       area
      1       121       221        1.000000    
   e-type =    3            # e-mesh is log given by emin, emax and ne
     emin =  1.0000000E-02  # minimum value of e-mesh points
     emax =   150.0000      # maximum value of e-mesh points
#    edel =  2.4039514E-02  # mesh width of e-mesh points
       ne =    400          # number of e-mesh points
#    data = ( e(i), i = 1, ne + 1 )
#           1.00000E-02  1.02433E-02  1.04925E-02  1.07478E-02  1.10093E-02
#           1.12772E-02  1.15516E-02  1.18326E-02  1.21205E-02  1.24154E-02
#           1.27175E-02  1.30269E-02  1.33439E-02  1.36686E-02  1.40011E-02
#           1.43418E-02  1.46907E-02  1.50482E-02  1.54143E-02  1.57894E-02
#           1.61735E-02  1.65670E-02  1.69701E-02  1.73830E-02  1.78060E-02
#           1.82392E-02  1.86830E-02  1.91375E-02  1.96032E-02  2.00801E-02
#           2.05687E-02  2.10692E-02  2.15818E-02  2.21069E-02  2.26448E-02
#           2.31957E-02  2.37601E-02  2.43382E-02  2.49304E-02  2.55369E-02
#           2.61583E-02  2.67947E-02  2.74467E-02  2.81145E-02  2.87985E-02
#           2.94992E-02  3.02169E-02  3.09521E-02  3.17052E-02  3.24766E-02
#           3.32668E-02  3.40762E-02  3.49053E-02  3.57546E-02  3.66246E-02
#           3.75157E-02  3.84284E-02  3.93634E-02  4.03212E-02  4.13022E-02
#           4.23071E-02  4.33365E-02  4.43909E-02  4.54710E-02  4.65773E-02
#           4.77106E-02  4.88714E-02  5.00605E-02  5.12785E-02  5.25262E-02
#           5.38042E-02  5.51133E-02  5.64542E-02  5.78278E-02  5.92348E-02
#           6.06760E-02  6.21523E-02  6.36645E-02  6.52135E-02  6.68002E-02
#           6.84255E-02  7.00904E-02  7.17957E-02  7.35426E-02  7.53319E-02
#           7.71648E-02  7.90423E-02  8.09655E-02  8.29354E-02  8.49533E-02
#           8.70203E-02  8.91376E-02  9.13064E-02  9.35279E-02  9.58035E-02
#           9.81345E-02  1.00522E-01  1.02968E-01  1.05473E-01  1.08040E-01
#           1.10668E-01  1.13361E-01  1.16119E-01  1.18944E-01  1.21838E-01
#           1.24803E-01  1.27839E-01  1.30950E-01  1.34136E-01  1.37399E-01
#           1.40742E-01  1.44167E-01  1.47675E-01  1.51268E-01  1.54948E-01
#           1.58718E-01  1.62580E-01  1.66535E-01  1.70587E-01  1.74738E-01
#           1.78989E-01  1.83344E-01  1.87805E-01  1.92375E-01  1.97055E-01
#           2.01850E-01  2.06761E-01  2.11792E-01  2.16945E-01  2.22223E-01
#           2.27630E-01  2.33169E-01  2.38842E-01  2.44653E-01  2.50605E-01
#           2.56703E-01  2.62949E-01  2.69346E-01  2.75900E-01  2.82613E-01
#           2.89489E-01  2.96532E-01  3.03747E-01  3.11138E-01  3.18708E-01
#           3.26462E-01  3.34405E-01  3.42542E-01  3.50876E-01  3.59413E-01
#           3.68158E-01  3.77116E-01  3.86291E-01  3.95690E-01  4.05317E-01
#           4.15179E-01  4.25281E-01  4.35628E-01  4.46227E-01  4.57084E-01
#           4.68205E-01  4.79597E-01  4.91266E-01  5.03219E-01  5.15463E-01
#           5.28005E-01  5.40851E-01  5.54011E-01  5.67490E-01  5.81298E-01
#           5.95441E-01  6.09929E-01  6.24769E-01  6.39970E-01  6.55541E-01
#           6.71491E-01  6.87828E-01  7.04564E-01  7.21706E-01  7.39266E-01
#           7.57253E-01  7.75678E-01  7.94551E-01  8.13883E-01  8.33685E-01
#           8.53969E-01  8.74747E-01  8.96030E-01  9.17831E-01  9.40163E-01
#           9.63038E-01  9.86469E-01  1.01047E+00  1.03506E+00  1.06024E+00
#           1.08604E+00  1.11246E+00  1.13953E+00  1.16725E+00  1.19565E+00
#           1.22474E+00  1.25454E+00  1.28507E+00  1.31633E+00  1.34836E+00
#           1.38117E+00  1.41477E+00  1.44920E+00  1.48446E+00  1.52057E+00
#           1.55757E+00  1.59547E+00  1.63429E+00  1.67405E+00  1.71478E+00
#           1.75650E+00  1.79924E+00  1.84302E+00  1.88786E+00  1.93379E+00
#           1.98084E+00  2.02904E+00  2.07841E+00  2.12898E+00  2.18078E+00
#           2.23384E+00  2.28819E+00  2.34386E+00  2.40089E+00  2.45930E+00
#           2.51914E+00  2.58043E+00  2.64322E+00  2.70753E+00  2.77341E+00
#           2.84088E+00  2.91001E+00  2.98081E+00  3.05333E+00  3.12762E+00
#           3.20372E+00  3.28167E+00  3.36152E+00  3.44330E+00  3.52708E+00
#           3.61290E+00  3.70080E+00  3.79085E+00  3.88308E+00  3.97756E+00
#           4.07434E+00  4.17347E+00  4.27501E+00  4.37903E+00  4.48557E+00
#           4.59471E+00  4.70650E+00  4.82102E+00  4.93832E+00  5.05847E+00
#           5.18155E+00  5.30762E+00  5.43676E+00  5.56904E+00  5.70453E+00
#           5.84333E+00  5.98550E+00  6.13114E+00  6.28031E+00  6.43312E+00
#           6.58964E+00  6.74997E+00  6.91420E+00  7.08243E+00  7.25475E+00
#           7.43126E+00  7.61207E+00  7.79728E+00  7.98700E+00  8.18133E+00
#           8.38038E+00  8.58428E+00  8.79315E+00  9.00709E+00  9.22624E+00
#           9.45072E+00  9.68067E+00  9.91620E+00  1.01575E+01  1.04046E+01
#           1.06578E+01  1.09171E+01  1.11827E+01  1.14548E+01  1.17335E+01
#           1.20190E+01  1.23114E+01  1.26109E+01  1.29178E+01  1.32321E+01
#           1.35540E+01  1.38838E+01  1.42216E+01  1.45676E+01  1.49221E+01
#           1.52851E+01  1.56570E+01  1.60380E+01  1.64282E+01  1.68279E+01
#           1.72374E+01  1.76568E+01  1.80864E+01  1.85264E+01  1.89772E+01
#           1.94389E+01  1.99119E+01  2.03963E+01  2.08926E+01  2.14009E+01
#           2.19216E+01  2.24550E+01  2.30014E+01  2.35610E+01  2.41343E+01
#           2.47215E+01  2.53230E+01  2.59391E+01  2.65702E+01  2.72167E+01
#           2.78789E+01  2.85572E+01  2.92520E+01  2.99637E+01  3.06928E+01
#           3.14396E+01  3.22045E+01  3.29881E+01  3.37907E+01  3.46128E+01
#           3.54550E+01  3.63177E+01  3.72013E+01  3.81064E+01  3.90336E+01
#           3.99833E+01  4.09561E+01  4.19526E+01  4.29734E+01  4.40189E+01
#           4.50900E+01  4.61870E+01  4.73108E+01  4.84619E+01  4.96410E+01
#           5.08488E+01  5.20860E+01  5.33533E+01  5.46514E+01  5.59812E+01
#           5.73432E+01  5.87384E+01  6.01676E+01  6.16315E+01  6.31311E+01
#           6.46671E+01  6.62405E+01  6.78522E+01  6.95031E+01  7.11941E+01
#           7.29263E+01  7.47007E+01  7.65182E+01  7.83800E+01  8.02870E+01
#           8.22405E+01  8.42414E+01  8.62911E+01  8.83906E+01  9.05412E+01
#           9.27442E+01  9.50007E+01  9.73122E+01  9.96799E+01  1.02105E+02
#           1.04589E+02  1.07134E+02  1.09741E+02  1.12411E+02  1.15146E+02
#           1.17948E+02  1.20817E+02  1.23757E+02  1.26768E+02  1.29852E+02
#           1.33012E+02  1.36248E+02  1.39563E+02  1.42959E+02  1.46437E+02
#           1.50000E+02
     unit =    2            # unit is [1/cm^2/(MeV/n)/source]
     axis =  eng            # axis of output
     file = detector-22.out  # file name of output for the above axis
   output = f-curr          # surface crossing forward current spectrum
     part =  neutron  
# kf/name :  2112     
#    used :        main (  %)        temp (  %)       total (  %)
#  memory :         414 (  0)           0 (  0)         414 (  0)

#------------------------------------------------------------------------------
#newpage:
#   no. =    1   reg = 121 - 221

x: Energy [MeV/n]
y:  F-Curr [1/cm^2/(MeV/n)/source]         
p: xlog ylog afac(0.8) form(0.9)
h: n            x            y(neutron ),hh0l   n 
#  e-lower      e-upper      neutron     r.err 
   1.0000E-02   1.0243E-02   1.5112E-03  0.0735
   1.0243E-02   1.0493E-02   1.1527E-03  0.0833
   1.0493E-02   1.0748E-02   1.2691E-03  0.0786
   1.0748E-02   1.1009E-02   1.3546E-03  0.0748
   1.1009E-02   1.1277E-02   1.3229E-03  0.0750
   1.1277E-02   1.1552E-02   1.4410E-03  0.0710
   1.1552E-02   1.1833E-02   1.3078E-03  0.0735
   1.1833E-02   1.2121E-02   1.2435E-03  0.0747
   1.2121E-02   1.2415E-02   1.0518E-03  0.0801
   1.2415E-02   1.2718E-02   1.1135E-03  0.0770
   1.2718E-02   1.3027E-02   1.0998E-03  0.0765
   1.3027E-02   1.3344E-02   1.1335E-03  0.0745
   1.3344E-02   1.3669E-02   1.0461E-03  0.0765
   1.3669E-02   1.4001E-02   1.0813E-03  0.0745
   1.4001E-02   1.4342E-02   1.1663E-03  0.0708
   1.4342E-02   1.4691E-02   9.5149E-04  0.0775
   1.4691E-02   1.5048E-02   9.1123E-04  0.0781
   1.5048E-02   1.5414E-02   1.0331E-03  0.0725
   1.5414E-02   1.5789E-02   9.0230E-04  0.0767
   1.5789E-02   1.6174E-02   9.8138E-04  0.0727
   1.6174E-02   1.6567E-02   9.0373E-04  0.0749
   1.6567E-02   1.6970E-02   8.5507E-04  0.0760
   1.6970E-02   1.7383E-02   8.0984E-04  0.0771
   1.7383E-02   1.7806E-02   8.8985E-04  0.0726
   1.7806E-02   1.8239E-02   8.2357E-04  0.0747
   1.8239E-02   1.8683E-02   7.5864E-04  0.0770
   1.8683E-02   1.9138E-02   8.8566E-04  0.0704
   1.9138E-02   1.9603E-02   8.2571E-04  0.0719
   1.9603E-02   2.0080E-02   8.0442E-04  0.0721
   2.0080E-02   2.0569E-02   7.0110E-04  0.0762
   2.0569E-02   2.1069E-02   7.9643E-04  0.0705
   2.1069E-02   2.1582E-02   7.7531E-04  0.0706
   2.1582E-02   2.2107E-02   8.1127E-04  0.0685
   2.2107E-02   2.2645E-02   7.7576E-04  0.0691
   2.2645E-02   2.3196E-02   7.1306E-04  0.0711
   2.3196E-02   2.3760E-02   6.3376E-04  0.0746
   2.3760E-02   2.4338E-02   7.0090E-04  0.0701
   2.4338E-02   2.4930E-02   7.2050E-04  0.0683
   2.4930E-02   2.5537E-02   6.3454E-04  0.0719
   2.5537E-02   2.6158E-02   6.1360E-04  0.0724
   2.6158E-02   2.6795E-02   6.4052E-04  0.0700
   2.6795E-02   2.7447E-02   6.7605E-04  0.0672
   2.7447E-02   2.8114E-02   6.2036E-04  0.0693
   2.8114E-02   2.8799E-02   6.9165E-04  0.0649
   2.8799E-02   2.9499E-02   6.0785E-04  0.0684
   2.9499E-02   3.0217E-02   6.2411E-04  0.0666
   3.0217E-02   3.0952E-02   5.5156E-04  0.0700
   3.0952E-02   3.1705E-02   5.9795E-04  0.0666
   3.1705E-02   3.2477E-02   5.9840E-04  0.0657
   3.2477E-02   3.3267E-02   5.1797E-04  0.0698
   3.3267E-02   3.4076E-02   5.5307E-04  0.0667
   3.4076E-02   3.4905E-02   5.3591E-04  0.0670
   3.4905E-02   3.5755E-02   4.9362E-04  0.0689
   3.5755E-02   3.6625E-02   5.6031E-04  0.0639
   3.6625E-02   3.7516E-02   4.7021E-04  0.0690
   3.7516E-02   3.8428E-02   5.3611E-04  0.0639
   3.8428E-02   3.9363E-02   5.7932E-04  0.0606
   3.9363E-02   4.0321E-02   4.8752E-04  0.0653
   4.0321E-02   4.1302E-02   4.2328E-04  0.0693
   4.1302E-02   4.2307E-02   4.8260E-04  0.0641
   4.2307E-02   4.3337E-02   4.3531E-04  0.0666
   4.3337E-02   4.4391E-02   4.4776E-04  0.0649
   4.4391E-02   4.5471E-02   4.6387E-04  0.0631
   4.5471E-02   4.6577E-02   4.2342E-04  0.0652
   4.6577E-02   4.7711E-02   4.0356E-04  0.0660
   4.7711E-02   4.8871E-02   4.3583E-04  0.0628
   4.8871E-02   5.0061E-02   4.2186E-04  0.0630
   5.0061E-02   5.1279E-02   3.7055E-04  0.0664
   5.1279E-02   5.2526E-02   4.1627E-04  0.0620
   5.2526E-02   5.3804E-02   3.8286E-04  0.0638
   5.3804E-02   5.5113E-02   3.5698E-04  0.0652
   5.5113E-02   5.6454E-02   3.9157E-04  0.0616
   5.6454E-02   5.7828E-02   3.8372E-04  0.0614
   5.7828E-02   5.9235E-02   3.3019E-04  0.0654
   5.9235E-02   6.0676E-02   3.7415E-04  0.0608
   6.0676E-02   6.2152E-02   3.0729E-04  0.0662
   6.2152E-02   6.3665E-02   3.0146E-04  0.0661
   6.3665E-02   6.5214E-02   3.3589E-04  0.0620
   6.5214E-02   6.6800E-02   2.9953E-04  0.0647
   6.6800E-02   6.8426E-02   3.3050E-04  0.0609
   6.8426E-02   7.0090E-02   3.1933E-04  0.0611
   7.0090E-02   7.1796E-02   2.6049E-04  0.0670
   7.1796E-02   7.3543E-02   2.8005E-04  0.0636
   7.3543E-02   7.5332E-02   3.0179E-04  0.0607
   7.5332E-02   7.7165E-02   3.0512E-04  0.0596
   7.7165E-02   7.9042E-02   2.8333E-04  0.0612
   7.9042E-02   8.0965E-02   3.1228E-04  0.0575
   8.0965E-02   8.2935E-02   2.8228E-04  0.0598
   8.2935E-02   8.4953E-02   2.8043E-04  0.0593
   8.4953E-02   8.7020E-02   2.7706E-04  0.0589
   8.7020E-02   8.9138E-02   2.4617E-04  0.0617
   8.9138E-02   9.1306E-02   2.4442E-04  0.0613
   9.1306E-02   9.3528E-02   2.6092E-04  0.0586
   9.3528E-02   9.5804E-02   2.3382E-04  0.0611
   9.5804E-02   9.8134E-02   2.2108E-04  0.0621
   9.8134E-02   1.0052E-01   2.2466E-04  0.0610
   1.0052E-01   1.0297E-01   2.2854E-04  0.0596
   1.0297E-01   1.0547E-01   2.1288E-04  0.0611
   1.0547E-01   1.0804E-01   2.2048E-04  0.0593
   1.0804E-01   1.1067E-01   2.0601E-04  0.0606
   1.1067E-01   1.1336E-01   1.9720E-04  0.0613
   1.1336E-01   1.1612E-01   2.2300E-04  0.0569
   1.1612E-01   1.1894E-01   1.9619E-04  0.0601
   1.1894E-01   1.2184E-01   1.7697E-04  0.0623
   1.2184E-01   1.2480E-01   1.6631E-04  0.0634
   1.2480E-01   1.2784E-01   2.0310E-04  0.0568
   1.2784E-01   1.3095E-01   1.9417E-04  0.0575
   1.3095E-01   1.3414E-01   1.6536E-04  0.0615
   1.3414E-01   1.3740E-01   1.5973E-04  0.0617
   1.3740E-01   1.4074E-01   1.6408E-04  0.0602
   1.4074E-01   1.4417E-01   1.6636E-04  0.0591
   1.4417E-01   1.4767E-01   1.5857E-04  0.0598
   1.4767E-01   1.5127E-01   1.5859E-04  0.0590
   1.5127E-01   1.5495E-01   1.6316E-04  0.0575
   1.5495E-01   1.5872E-01   1.5871E-04  0.0577
   1.5872E-01   1.6258E-01   1.4802E-04  0.0590
   1.6258E-01   1.6654E-01   1.4117E-04  0.0597
   1.6654E-01   1.7059E-01   1.3778E-04  0.0598
   1.7059E-01   1.7474E-01   1.4271E-04  0.0580
   1.7474E-01   1.7899E-01   1.2515E-04  0.0612
   1.7899E-01   1.8334E-01   1.3881E-04  0.0573
   1.8334E-01   1.8781E-01   1.2349E-04  0.0602
   1.8781E-01   1.9237E-01   1.3007E-04  0.0579
   1.9237E-01   1.9706E-01   1.2869E-04  0.0575
   1.9706E-01   2.0185E-01   1.1614E-04  0.0598
   2.0185E-01   2.0676E-01   1.2378E-04  0.0572
   2.0676E-01   2.1179E-01   1.1788E-04  0.0579
   2.1179E-01   2.1694E-01   1.3238E-04  0.0540
   2.1694E-01   2.2222E-01   1.2814E-04  0.0542
   2.2222E-01   2.2763E-01   1.3310E-04  0.0525
   2.2763E-01   2.3317E-01   1.4138E-04  0.0505
   2.3317E-01   2.3884E-01   1.3678E-04  0.0507
   2.3884E-01   2.4465E-01   1.3671E-04  0.0500
   2.4465E-01   2.5061E-01   1.4043E-04  0.0488
   2.5061E-01   2.5670E-01   1.5118E-04  0.0465
   2.5670E-01   2.6295E-01   1.5108E-04  0.0459
   2.6295E-01   2.6935E-01   1.4667E-04  0.0460
   2.6935E-01   2.7590E-01   1.5878E-04  0.0437
   2.7590E-01   2.8261E-01   1.5191E-04  0.0442
   2.8261E-01   2.8949E-01   1.6432E-04  0.0419
   2.8949E-01   2.9653E-01   1.6984E-04  0.0408
   2.9653E-01   3.0375E-01   1.6380E-04  0.0410
   3.0375E-01   3.1114E-01   1.7152E-04  0.0396
   3.1114E-01   3.1871E-01   1.6157E-04  0.0403
   3.1871E-01   3.2646E-01   1.7348E-04  0.0384
   3.2646E-01   3.3441E-01   1.7401E-04  0.0379
   3.3441E-01   3.4254E-01   1.7245E-04  0.0377
   3.4254E-01   3.5088E-01   1.7885E-04  0.0365
   3.5088E-01   3.5941E-01   1.7737E-04  0.0362
   3.5941E-01   3.6816E-01   1.9520E-04  0.0342
   3.6816E-01   3.7712E-01   1.8616E-04  0.0345
   3.7712E-01   3.8629E-01   1.8253E-04  0.0344
   3.8629E-01   3.9569E-01   1.7697E-04  0.0346
   3.9569E-01   4.0532E-01   2.0702E-04  0.0316
   4.0532E-01   4.1518E-01   1.8611E-04  0.0329
   4.1518E-01   4.2528E-01   1.8955E-04  0.0322
   4.2528E-01   4.3563E-01   1.8008E-04  0.0327
   4.3563E-01   4.4623E-01   1.9321E-04  0.0312
   4.4623E-01   4.5708E-01   1.9944E-04  0.0303
   4.5708E-01   4.6821E-01   1.8842E-04  0.0308
   4.6821E-01   4.7960E-01   2.0761E-04  0.0290
   4.7960E-01   4.9127E-01   1.9698E-04  0.0294
   4.9127E-01   5.0322E-01   1.9869E-04  0.0289
   5.0322E-01   5.1546E-01   1.9048E-04  0.0292
   5.1546E-01   5.2800E-01   1.9018E-04  0.0289
   5.2800E-01   5.4085E-01   2.0535E-04  0.0274
   5.4085E-01   5.5401E-01   2.0429E-04  0.0272
   5.5401E-01   5.6749E-01   1.9577E-04  0.0274
   5.6749E-01   5.8130E-01   2.0571E-04  0.0265
   5.8130E-01   5.9544E-01   1.9329E-04  0.0269
   5.9544E-01   6.0993E-01   1.9969E-04  0.0262
   6.0993E-01   6.2477E-01   1.9734E-04  0.0260
   6.2477E-01   6.3997E-01   1.9793E-04  0.0257
   6.3997E-01   6.5554E-01   1.9275E-04  0.0257
   6.5554E-01   6.7149E-01   1.8907E-04  0.0257
   6.7149E-01   6.8783E-01   2.0052E-04  0.0246
   6.8783E-01   7.0456E-01   1.8133E-04  0.0256
   7.0456E-01   7.2171E-01   1.8870E-04  0.0248
   7.2171E-01   7.3927E-01   1.9310E-04  0.0242
   7.3927E-01   7.5725E-01   1.8672E-04  0.0243
   7.5725E-01   7.7568E-01   1.8521E-04  0.0241
   7.7568E-01   7.9455E-01   1.8629E-04  0.0238
   7.9455E-01   8.1388E-01   1.8130E-04  0.0238
   8.1388E-01   8.3368E-01   1.7798E-04  0.0237
   8.3368E-01   8.5397E-01   1.6761E-04  0.0241
   8.5397E-01   8.7475E-01   1.6907E-04  0.0238
   8.7475E-01   8.9603E-01   1.6846E-04  0.0235
   8.9603E-01   9.1783E-01   1.5814E-04  0.0240
   9.1783E-01   9.4016E-01   1.5398E-04  0.0240
   9.4016E-01   9.6304E-01   1.5164E-04  0.0239
   9.6304E-01   9.8647E-01   1.4885E-04  0.0238
   9.8647E-01   1.0105E+00   1.4278E-04  0.0240
   1.0105E+00   1.0351E+00   1.3189E-04  0.0247
   1.0351E+00   1.0602E+00   1.4175E-04  0.0236
   1.0602E+00   1.0860E+00   1.3104E-04  0.0242
   1.0860E+00   1.1125E+00   1.3463E-04  0.0236
   1.1125E+00   1.1395E+00   1.2996E-04  0.0237
   1.1395E+00   1.1673E+00   1.2319E-04  0.0241
   1.1673E+00   1.1957E+00   1.2356E-04  0.0237
   1.1957E+00   1.2247E+00   1.1625E-04  0.0242
   1.2247E+00   1.2545E+00   1.1901E-04  0.0236
   1.2545E+00   1.2851E+00   1.1146E-04  0.0241
   1.2851E+00   1.3163E+00   1.1421E-04  0.0235
   1.3163E+00   1.3484E+00   1.0746E-04  0.0240
   1.3484E+00   1.3812E+00   1.0536E-04  0.0239
   1.3812E+00   1.4148E+00   1.0264E-04  0.0239
   1.4148E+00   1.4492E+00   1.0072E-04  0.0239
   1.4492E+00   1.4845E+00   1.0362E-04  0.0233
   1.4845E+00   1.5206E+00   9.8261E-05  0.0236
   1.5206E+00   1.5576E+00   9.1789E-05  0.0241
   1.5576E+00   1.5955E+00   9.2663E-05  0.0238
   1.5955E+00   1.6343E+00   8.6133E-05  0.0243
   1.6343E+00   1.6741E+00   8.4657E-05  0.0242
   1.6741E+00   1.7148E+00   8.3078E-05  0.0242
   1.7148E+00   1.7565E+00   8.2108E-05  0.0240
   1.7565E+00   1.7992E+00   8.0025E-05  0.0240
   1.7992E+00   1.8430E+00   7.6104E-05  0.0243
   1.8430E+00   1.8879E+00   7.4964E-05  0.0242
   1.8879E+00   1.9338E+00   7.2674E-05  0.0243
   1.9338E+00   1.9808E+00   7.0381E-05  0.0244
   1.9808E+00   2.0290E+00   6.9501E-05  0.0242
   2.0290E+00   2.0784E+00   6.7182E-05  0.0244
   2.0784E+00   2.1290E+00   6.4711E-05  0.0246
   2.1290E+00   2.1808E+00   6.2367E-05  0.0247
   2.1808E+00   2.2338E+00   5.9742E-05  0.0249
   2.2338E+00   2.2882E+00   6.3013E-05  0.0240
   2.2882E+00   2.3439E+00   5.7763E-05  0.0247
   2.3439E+00   2.4009E+00   5.7163E-05  0.0246
   2.4009E+00   2.4593E+00   5.7899E-05  0.0241
   2.4593E+00   2.5191E+00   5.4207E-05  0.0246
   2.5191E+00   2.5804E+00   5.3706E-05  0.0244
   2.5804E+00   2.6432E+00   5.4245E-05  0.0241
   2.6432E+00   2.7075E+00   4.9725E-05  0.0248
   2.7075E+00   2.7734E+00   4.8541E-05  0.0248
   2.7734E+00   2.8409E+00   4.6683E-05  0.0250
   2.8409E+00   2.9100E+00   4.6316E-05  0.0248
   2.9100E+00   2.9808E+00   4.3632E-05  0.0252
   2.9808E+00   3.0533E+00   4.2698E-05  0.0252
   3.0533E+00   3.1276E+00   4.2786E-05  0.0249
   3.1276E+00   3.2037E+00   4.0023E-05  0.0254
   3.2037E+00   3.2817E+00   3.7910E-05  0.0258
   3.2817E+00   3.3615E+00   3.7982E-05  0.0255
   3.3615E+00   3.4433E+00   3.7289E-05  0.0255
   3.4433E+00   3.5271E+00   3.5850E-05  0.0256
   3.5271E+00   3.6129E+00   3.5703E-05  0.0254
   3.6129E+00   3.7008E+00   3.3969E-05  0.0257
   3.7008E+00   3.7908E+00   3.1557E-05  0.0263
   3.7908E+00   3.8831E+00   3.1853E-05  0.0259
   3.8831E+00   3.9776E+00   3.0412E-05  0.0262
   3.9776E+00   4.0743E+00   2.9730E-05  0.0262
   4.0743E+00   4.1735E+00   2.9247E-05  0.0261
   4.1735E+00   4.2750E+00   2.6791E-05  0.0269
   4.2750E+00   4.3790E+00   2.6443E-05  0.0268
   4.3790E+00   4.4856E+00   2.5740E-05  0.0268
   4.4856E+00   4.5947E+00   2.4837E-05  0.0270
   4.5947E+00   4.7065E+00   2.4136E-05  0.0270
   4.7065E+00   4.8210E+00   2.1888E-05  0.0281
   4.8210E+00   4.9383E+00   2.2037E-05  0.0276
   4.9383E+00   5.0585E+00   1.9887E-05  0.0288
   5.0585E+00   5.1815E+00   1.9249E-05  0.0289
   5.1815E+00   5.3076E+00   1.8646E-05  0.0290
   5.3076E+00   5.4368E+00   1.7479E-05  0.0296
   5.4368E+00   5.5690E+00   1.6475E-05  0.0302
   5.5690E+00   5.7045E+00   1.5164E-05  0.0310
   5.7045E+00   5.8433E+00   1.5277E-05  0.0306
   5.8433E+00   5.9855E+00   1.4664E-05  0.0308
   5.9855E+00   6.1311E+00   1.3557E-05  0.0317
   6.1311E+00   6.2803E+00   1.2649E-05  0.0324
   6.2803E+00   6.4331E+00   1.2112E-05  0.0328
   6.4331E+00   6.5896E+00   1.1823E-05  0.0328
   6.5896E+00   6.7500E+00   1.0421E-05  0.0344
   6.7500E+00   6.9142E+00   1.0353E-05  0.0341
   6.9142E+00   7.0824E+00   9.7920E-06  0.0347
   7.0824E+00   7.2548E+00   9.0730E-06  0.0356
   7.2548E+00   7.4313E+00   8.5201E-06  0.0363
   7.4313E+00   7.6121E+00   8.1893E-06  0.0366
   7.6121E+00   7.7973E+00   7.2486E-06  0.0385
   7.7973E+00   7.9870E+00   6.4327E-06  0.0404
   7.9870E+00   8.1813E+00   6.7422E-06  0.0390
   8.1813E+00   8.3804E+00   6.1585E-06  0.0403
   8.3804E+00   8.5843E+00   5.9067E-06  0.0406
   8.5843E+00   8.7931E+00   5.5469E-06  0.0414
   8.7931E+00   9.0071E+00   5.1948E-06  0.0423
   9.0071E+00   9.2262E+00   4.9056E-06  0.0430
   9.2262E+00   9.4507E+00   5.0630E-06  0.0419
   9.4507E+00   9.6807E+00   4.6988E-06  0.0429
   9.6807E+00   9.9162E+00   4.2316E-06  0.0447
   9.9162E+00   1.0157E+01   4.3519E-06  0.0435
   1.0157E+01   1.0405E+01   4.1873E-06  0.0439
   1.0405E+01   1.0658E+01   4.6735E-06  0.0410
   1.0658E+01   1.0917E+01   4.3012E-06  0.0423
   1.0917E+01   1.1183E+01   4.7008E-06  0.0400
   1.1183E+01   1.1455E+01   4.4845E-06  0.0404
   1.1455E+01   1.1733E+01   4.0081E-06  0.0423
   1.1733E+01   1.2019E+01   4.0158E-06  0.0417
   1.2019E+01   1.2311E+01   3.7218E-06  0.0428
   1.2311E+01   1.2611E+01   3.2602E-06  0.0452
   1.2611E+01   1.2918E+01   2.7397E-06  0.0487
   1.2918E+01   1.3232E+01   3.0232E-06  0.0458
   1.3232E+01   1.3554E+01   2.7121E-06  0.0478
   1.3554E+01   1.3884E+01   2.5534E-06  0.0487
   1.3884E+01   1.4222E+01   2.3604E-06  0.0500
   1.4222E+01   1.4568E+01   2.0343E-06  0.0532
   1.4568E+01   1.4922E+01   1.9740E-06  0.0534
   1.4922E+01   1.5285E+01   1.8820E-06  0.0540
   1.5285E+01   1.5657E+01   1.7191E-06  0.0559
   1.5657E+01   1.6038E+01   1.4588E-06  0.0599
   1.6038E+01   1.6428E+01   1.3494E-06  0.0615
   1.6428E+01   1.6828E+01   1.1258E-06  0.0667
   1.6828E+01   1.7237E+01   1.0991E-06  0.0667
   1.7237E+01   1.7657E+01   1.1230E-06  0.0651
   1.7657E+01   1.8086E+01   8.4729E-07  0.0741
   1.8086E+01   1.8526E+01   7.9687E-07  0.0755
   1.8526E+01   1.8977E+01   7.6380E-07  0.0762
   1.8977E+01   1.9439E+01   7.4936E-07  0.0760
   1.9439E+01   1.9912E+01   7.7384E-07  0.0739
   1.9912E+01   2.0396E+01   6.7703E-07  0.0781
   2.0396E+01   2.0893E+01   5.6825E-07  0.0842
   2.0893E+01   2.1401E+01   5.5082E-07  0.0845
   2.1401E+01   2.1922E+01   5.1085E-07  0.0867
   2.1922E+01   2.2455E+01   3.9747E-07  0.0971
   2.2455E+01   2.3001E+01   3.8071E-07  0.0981
   2.3001E+01   2.3561E+01   3.4308E-07  0.1021
   2.3561E+01   2.4134E+01   2.3375E-07  0.1222
   2.4134E+01   2.4721E+01   2.2479E-07  0.1231
   2.4721E+01   2.5323E+01   1.8620E-07  0.1336
   2.5323E+01   2.5939E+01   1.5581E-07  0.1443
   2.5939E+01   2.6570E+01   1.0141E-07  0.1768
   2.6570E+01   2.7217E+01   9.5905E-08  0.1796
   2.7217E+01   2.7879E+01   8.1546E-08  0.1925
   2.7879E+01   2.8557E+01   5.3073E-08  0.2357
   2.8557E+01   2.9252E+01   4.6055E-08  0.2500
   2.9252E+01   2.9964E+01   2.2481E-08  0.3536
   2.9964E+01   3.0693E+01   2.7433E-08  0.3162
   3.0693E+01   3.1440E+01   8.0345E-09  0.5774
   3.1440E+01   3.2205E+01   1.3073E-08  0.4472
   3.2205E+01   3.2988E+01   7.6573E-09  0.5774
   3.2988E+01   3.3791E+01   0.0000E+00  0.0000
   3.3791E+01   3.4613E+01   4.8653E-09  0.7071
   3.4613E+01   3.5455E+01   2.3749E-09  1.0000
   3.5455E+01   3.6318E+01   6.9553E-09  0.5774
   3.6318E+01   3.7201E+01   0.0000E+00  0.0000
   3.7201E+01   3.8106E+01   0.0000E+00  0.0000
   3.8106E+01   3.9034E+01   2.1571E-09  1.0000
   3.9034E+01   3.9983E+01   2.1059E-09  1.0000
   3.9983E+01   4.0956E+01   0.0000E+00  0.0000
   4.0956E+01   4.1953E+01   0.0000E+00  0.0000
   4.1953E+01   4.2973E+01   0.0000E+00  0.0000
   4.2973E+01   4.4019E+01   0.0000E+00  0.0000
   4.4019E+01   4.5090E+01   1.8674E-09  1.0000
   4.5090E+01   4.6187E+01   0.0000E+00  0.0000
   4.6187E+01   4.7311E+01   0.0000E+00  0.0000
   4.7311E+01   4.8462E+01   0.0000E+00  0.0000
   4.8462E+01   4.9641E+01   0.0000E+00  0.0000
   4.9641E+01   5.0849E+01   0.0000E+00  0.0000
   5.0849E+01   5.2086E+01   0.0000E+00  0.0000
   5.2086E+01   5.3353E+01   0.0000E+00  0.0000
   5.3353E+01   5.4651E+01   0.0000E+00  0.0000
   5.4651E+01   5.5981E+01   0.0000E+00  0.0000
   5.5981E+01   5.7343E+01   0.0000E+00  0.0000
   5.7343E+01   5.8738E+01   0.0000E+00  0.0000
   5.8738E+01   6.0168E+01   0.0000E+00  0.0000
   6.0168E+01   6.1632E+01   0.0000E+00  0.0000
   6.1632E+01   6.3131E+01   0.0000E+00  0.0000
   6.3131E+01   6.4667E+01   0.0000E+00  0.0000
   6.4667E+01   6.6240E+01   0.0000E+00  0.0000
   6.6240E+01   6.7852E+01   0.0000E+00  0.0000
   6.7852E+01   6.9503E+01   0.0000E+00  0.0000
   6.9503E+01   7.1194E+01   0.0000E+00  0.0000
   7.1194E+01   7.2926E+01   0.0000E+00  0.0000
   7.2926E+01   7.4701E+01   0.0000E+00  0.0000
   7.4701E+01   7.6518E+01   0.0000E+00  0.0000
   7.6518E+01   7.8380E+01   0.0000E+00  0.0000
   7.8380E+01   8.0287E+01   0.0000E+00  0.0000
   8.0287E+01   8.2240E+01   0.0000E+00  0.0000
   8.2240E+01   8.4241E+01   0.0000E+00  0.0000
   8.4241E+01   8.6291E+01   0.0000E+00  0.0000
   8.6291E+01   8.8391E+01   0.0000E+00  0.0000
   8.8391E+01   9.0541E+01   0.0000E+00  0.0000
   9.0541E+01   9.2744E+01   0.0000E+00  0.0000
   9.2744E+01   9.5001E+01   0.0000E+00  0.0000
   9.5001E+01   9.7312E+01   0.0000E+00  0.0000
   9.7312E+01   9.9680E+01   0.0000E+00  0.0000
   9.9680E+01   1.0211E+02   0.0000E+00  0.0000
   1.0211E+02   1.0459E+02   0.0000E+00  0.0000
   1.0459E+02   1.0713E+02   0.0000E+00  0.0000
   1.0713E+02   1.0974E+02   0.0000E+00  0.0000
   1.0974E+02   1.1241E+02   0.0000E+00  0.0000
   1.1241E+02   1.1515E+02   0.0000E+00  0.0000
   1.1515E+02   1.1795E+02   0.0000E+00  0.0000
   1.1795E+02   1.2082E+02   0.0000E+00  0.0000
   1.2082E+02   1.2376E+02   0.0000E+00  0.0000
   1.2376E+02   1.2677E+02   0.0000E+00  0.0000
   1.2677E+02   1.2985E+02   0.0000E+00  0.0000
   1.2985E+02   1.3301E+02   0.0000E+00  0.0000
   1.3301E+02   1.3625E+02   0.0000E+00  0.0000
   1.3625E+02   1.3956E+02   0.0000E+00  0.0000
   1.3956E+02   1.4296E+02   0.0000E+00  0.0000
   1.4296E+02   1.4644E+02   0.0000E+00  0.0000
   1.4644E+02   1.5000E+02   0.0000E+00  0.0000

#   sum over                 3.2442E-06
'no. =    1   reg = 121 - 221'
msuc: {\huge [t-cross] in region mesh}
msdr: {\it plotted by \ANGEL \version}
msdl: {\it calculated by \PHITS  3.26}
wt: s(0.7)
\vspace{-3}
  region surface crossing
  area  &=&   1.0000E+00 [cm^2]
e:
 
# Information for Restart Calculation
# This calculation was newly started
# istdev =  2 # 1:Batch variance, 2:History variance
# resc2  = 5.00000000000000000E+08 # Total source weight or Total source weight / maxcas
# resc3  = 5.00000000000000000E+08 # Total history number or Total batch number
# maxcas =   500000000 # History / Batch, only used for istdev=1
# bitrseed = 1101101111010011011000101101110001100110110010110001010100010001 # bit data of rseed
