[ T-Cross ]
    title = [t-cross] in region mesh
     mesh =  reg            # mesh type is region-wise
      reg =    1            # number of crossing regions
      non     r-from    r-to       area
      1       126       226        1.000000    
   e-type =    3            # e-mesh is log given by emin, emax and ne
     emin =  1.0000000E-02  # minimum value of e-mesh points
     emax =   150.0000      # maximum value of e-mesh points
#    edel =  2.4039514E-02  # mesh width of e-mesh points
       ne =    400          # number of e-mesh points
#    data = ( e(i), i = 1, ne + 1 )
#           1.00000E-02  1.02433E-02  1.04925E-02  1.07478E-02  1.10093E-02
#           1.12772E-02  1.15516E-02  1.18326E-02  1.21205E-02  1.24154E-02
#           1.27175E-02  1.30269E-02  1.33439E-02  1.36686E-02  1.40011E-02
#           1.43418E-02  1.46907E-02  1.50482E-02  1.54143E-02  1.57894E-02
#           1.61735E-02  1.65670E-02  1.69701E-02  1.73830E-02  1.78060E-02
#           1.82392E-02  1.86830E-02  1.91375E-02  1.96032E-02  2.00801E-02
#           2.05687E-02  2.10692E-02  2.15818E-02  2.21069E-02  2.26448E-02
#           2.31957E-02  2.37601E-02  2.43382E-02  2.49304E-02  2.55369E-02
#           2.61583E-02  2.67947E-02  2.74467E-02  2.81145E-02  2.87985E-02
#           2.94992E-02  3.02169E-02  3.09521E-02  3.17052E-02  3.24766E-02
#           3.32668E-02  3.40762E-02  3.49053E-02  3.57546E-02  3.66246E-02
#           3.75157E-02  3.84284E-02  3.93634E-02  4.03212E-02  4.13022E-02
#           4.23071E-02  4.33365E-02  4.43909E-02  4.54710E-02  4.65773E-02
#           4.77106E-02  4.88714E-02  5.00605E-02  5.12785E-02  5.25262E-02
#           5.38042E-02  5.51133E-02  5.64542E-02  5.78278E-02  5.92348E-02
#           6.06760E-02  6.21523E-02  6.36645E-02  6.52135E-02  6.68002E-02
#           6.84255E-02  7.00904E-02  7.17957E-02  7.35426E-02  7.53319E-02
#           7.71648E-02  7.90423E-02  8.09655E-02  8.29354E-02  8.49533E-02
#           8.70203E-02  8.91376E-02  9.13064E-02  9.35279E-02  9.58035E-02
#           9.81345E-02  1.00522E-01  1.02968E-01  1.05473E-01  1.08040E-01
#           1.10668E-01  1.13361E-01  1.16119E-01  1.18944E-01  1.21838E-01
#           1.24803E-01  1.27839E-01  1.30950E-01  1.34136E-01  1.37399E-01
#           1.40742E-01  1.44167E-01  1.47675E-01  1.51268E-01  1.54948E-01
#           1.58718E-01  1.62580E-01  1.66535E-01  1.70587E-01  1.74738E-01
#           1.78989E-01  1.83344E-01  1.87805E-01  1.92375E-01  1.97055E-01
#           2.01850E-01  2.06761E-01  2.11792E-01  2.16945E-01  2.22223E-01
#           2.27630E-01  2.33169E-01  2.38842E-01  2.44653E-01  2.50605E-01
#           2.56703E-01  2.62949E-01  2.69346E-01  2.75900E-01  2.82613E-01
#           2.89489E-01  2.96532E-01  3.03747E-01  3.11138E-01  3.18708E-01
#           3.26462E-01  3.34405E-01  3.42542E-01  3.50876E-01  3.59413E-01
#           3.68158E-01  3.77116E-01  3.86291E-01  3.95690E-01  4.05317E-01
#           4.15179E-01  4.25281E-01  4.35628E-01  4.46227E-01  4.57084E-01
#           4.68205E-01  4.79597E-01  4.91266E-01  5.03219E-01  5.15463E-01
#           5.28005E-01  5.40851E-01  5.54011E-01  5.67490E-01  5.81298E-01
#           5.95441E-01  6.09929E-01  6.24769E-01  6.39970E-01  6.55541E-01
#           6.71491E-01  6.87828E-01  7.04564E-01  7.21706E-01  7.39266E-01
#           7.57253E-01  7.75678E-01  7.94551E-01  8.13883E-01  8.33685E-01
#           8.53969E-01  8.74747E-01  8.96030E-01  9.17831E-01  9.40163E-01
#           9.63038E-01  9.86469E-01  1.01047E+00  1.03506E+00  1.06024E+00
#           1.08604E+00  1.11246E+00  1.13953E+00  1.16725E+00  1.19565E+00
#           1.22474E+00  1.25454E+00  1.28507E+00  1.31633E+00  1.34836E+00
#           1.38117E+00  1.41477E+00  1.44920E+00  1.48446E+00  1.52057E+00
#           1.55757E+00  1.59547E+00  1.63429E+00  1.67405E+00  1.71478E+00
#           1.75650E+00  1.79924E+00  1.84302E+00  1.88786E+00  1.93379E+00
#           1.98084E+00  2.02904E+00  2.07841E+00  2.12898E+00  2.18078E+00
#           2.23384E+00  2.28819E+00  2.34386E+00  2.40089E+00  2.45930E+00
#           2.51914E+00  2.58043E+00  2.64322E+00  2.70753E+00  2.77341E+00
#           2.84088E+00  2.91001E+00  2.98081E+00  3.05333E+00  3.12762E+00
#           3.20372E+00  3.28167E+00  3.36152E+00  3.44330E+00  3.52708E+00
#           3.61290E+00  3.70080E+00  3.79085E+00  3.88308E+00  3.97756E+00
#           4.07434E+00  4.17347E+00  4.27501E+00  4.37903E+00  4.48557E+00
#           4.59471E+00  4.70650E+00  4.82102E+00  4.93832E+00  5.05847E+00
#           5.18155E+00  5.30762E+00  5.43676E+00  5.56904E+00  5.70453E+00
#           5.84333E+00  5.98550E+00  6.13114E+00  6.28031E+00  6.43312E+00
#           6.58964E+00  6.74997E+00  6.91420E+00  7.08243E+00  7.25475E+00
#           7.43126E+00  7.61207E+00  7.79728E+00  7.98700E+00  8.18133E+00
#           8.38038E+00  8.58428E+00  8.79315E+00  9.00709E+00  9.22624E+00
#           9.45072E+00  9.68067E+00  9.91620E+00  1.01575E+01  1.04046E+01
#           1.06578E+01  1.09171E+01  1.11827E+01  1.14548E+01  1.17335E+01
#           1.20190E+01  1.23114E+01  1.26109E+01  1.29178E+01  1.32321E+01
#           1.35540E+01  1.38838E+01  1.42216E+01  1.45676E+01  1.49221E+01
#           1.52851E+01  1.56570E+01  1.60380E+01  1.64282E+01  1.68279E+01
#           1.72374E+01  1.76568E+01  1.80864E+01  1.85264E+01  1.89772E+01
#           1.94389E+01  1.99119E+01  2.03963E+01  2.08926E+01  2.14009E+01
#           2.19216E+01  2.24550E+01  2.30014E+01  2.35610E+01  2.41343E+01
#           2.47215E+01  2.53230E+01  2.59391E+01  2.65702E+01  2.72167E+01
#           2.78789E+01  2.85572E+01  2.92520E+01  2.99637E+01  3.06928E+01
#           3.14396E+01  3.22045E+01  3.29881E+01  3.37907E+01  3.46128E+01
#           3.54550E+01  3.63177E+01  3.72013E+01  3.81064E+01  3.90336E+01
#           3.99833E+01  4.09561E+01  4.19526E+01  4.29734E+01  4.40189E+01
#           4.50900E+01  4.61870E+01  4.73108E+01  4.84619E+01  4.96410E+01
#           5.08488E+01  5.20860E+01  5.33533E+01  5.46514E+01  5.59812E+01
#           5.73432E+01  5.87384E+01  6.01676E+01  6.16315E+01  6.31311E+01
#           6.46671E+01  6.62405E+01  6.78522E+01  6.95031E+01  7.11941E+01
#           7.29263E+01  7.47007E+01  7.65182E+01  7.83800E+01  8.02870E+01
#           8.22405E+01  8.42414E+01  8.62911E+01  8.83906E+01  9.05412E+01
#           9.27442E+01  9.50007E+01  9.73122E+01  9.96799E+01  1.02105E+02
#           1.04589E+02  1.07134E+02  1.09741E+02  1.12411E+02  1.15146E+02
#           1.17948E+02  1.20817E+02  1.23757E+02  1.26768E+02  1.29852E+02
#           1.33012E+02  1.36248E+02  1.39563E+02  1.42959E+02  1.46437E+02
#           1.50000E+02
     unit =    2            # unit is [1/cm^2/(MeV/n)/source]
     axis =  eng            # axis of output
     file = detector-27.out  # file name of output for the above axis
   output = f-curr          # surface crossing forward current spectrum
     part =  neutron  
# kf/name :  2112     
#    used :        main (  %)        temp (  %)       total (  %)
#  memory :         414 (  0)           0 (  0)         414 (  0)

#------------------------------------------------------------------------------
#newpage:
#   no. =    1   reg = 126 - 226

x: Energy [MeV/n]
y:  F-Curr [1/cm^2/(MeV/n)/source]         
p: xlog ylog afac(0.8) form(0.9)
h: n            x            y(neutron ),hh0l   n 
#  e-lower      e-upper      neutron     r.err 
   1.0000E-02   1.0243E-02   2.5619E-04  0.1787
   1.0243E-02   1.0493E-02   2.3272E-04  0.1857
   1.0493E-02   1.0748E-02   2.8203E-04  0.1667
   1.0748E-02   1.1009E-02   2.7659E-04  0.1660
   1.1009E-02   1.1277E-02   3.4346E-04  0.1474
   1.1277E-02   1.1552E-02   1.3120E-04  0.2357
   1.1552E-02   1.1833E-02   2.2999E-04  0.1752
   1.1833E-02   1.2121E-02   2.5356E-04  0.1650
   1.2121E-02   1.2415E-02   3.6283E-04  0.1364
   1.2415E-02   1.2718E-02   2.8594E-04  0.1519
   1.2718E-02   1.3027E-02   2.4238E-04  0.1628
   1.3027E-02   1.3344E-02   2.0305E-04  0.1759
   1.3344E-02   1.3669E-02   3.1725E-04  0.1390
   1.3669E-02   1.4001E-02   1.8041E-04  0.1826
   1.4001E-02   1.4342E-02   2.0842E-04  0.1672
   1.4342E-02   1.4691E-02   2.2442E-04  0.1595
   1.4691E-02   1.5048E-02   2.1973E-04  0.1591
   1.5048E-02   1.5414E-02   1.8026E-04  0.1741
   1.5414E-02   1.5789E-02   1.7598E-04  0.1741
   1.5789E-02   1.6174E-02   1.6139E-04  0.1796
   1.6174E-02   1.6567E-02   1.6264E-04  0.1768
   1.6567E-02   1.6970E-02   1.8432E-04  0.1638
   1.6970E-02   1.7383E-02   1.7746E-04  0.1644
   1.7383E-02   1.7806E-02   1.9388E-04  0.1562
   1.7806E-02   1.8239E-02   1.8697E-04  0.1566
   1.8239E-02   1.8683E-02   2.1182E-04  0.1459
   1.8683E-02   1.9138E-02   1.6799E-04  0.1615
   1.9138E-02   1.9603E-02   1.6474E-04  0.1609
   1.9603E-02   2.0080E-02   1.8660E-04  0.1495
   2.0080E-02   2.0569E-02   1.5760E-04  0.1606
   2.0569E-02   2.1069E-02   1.7303E-04  0.1515
   2.1069E-02   2.1582E-02   1.8406E-04  0.1454
   2.1582E-02   2.2107E-02   2.3096E-04  0.1280
   2.2107E-02   2.2645E-02   1.6232E-04  0.1507
   2.2645E-02   2.3196E-02   1.3431E-04  0.1644
   2.3196E-02   2.3760E-02   1.2464E-04  0.1683
   2.3760E-02   2.4338E-02   1.7084E-04  0.1419
   2.4338E-02   2.4930E-02   1.7563E-04  0.1387
   2.4930E-02   2.5537E-02   1.3457E-04  0.1555
   2.5537E-02   2.6158E-02   1.5129E-04  0.1459
   2.6158E-02   2.6795E-02   1.3827E-04  0.1508
   2.6795E-02   2.7447E-02   1.4312E-04  0.1458
   2.7447E-02   2.8114E-02   1.3327E-04  0.1495
   2.8114E-02   2.8799E-02   1.6373E-04  0.1336
   2.8799E-02   2.9499E-02   1.2455E-04  0.1507
   2.9499E-02   3.0217E-02   1.0589E-04  0.1622
   3.0217E-02   3.0952E-02   1.4472E-04  0.1369
   3.0952E-02   3.1705E-02   1.2747E-04  0.1436
   3.1705E-02   3.2477E-02   9.1199E-05  0.1683
   3.2477E-02   3.3267E-02   1.0757E-04  0.1529
   3.3267E-02   3.4076E-02   1.3628E-04  0.1339
   3.4076E-02   3.4905E-02   1.3026E-04  0.1361
   3.4905E-02   3.5755E-02   1.0833E-04  0.1474
   3.5755E-02   3.6625E-02   1.1718E-04  0.1392
   3.6625E-02   3.7516E-02   1.2605E-04  0.1333
   3.7516E-02   3.8428E-02   1.1941E-04  0.1351
   3.8428E-02   3.9363E-02   1.1551E-04  0.1361
   3.9363E-02   4.0321E-02   1.2588E-04  0.1285
   4.0321E-02   4.1302E-02   7.1738E-05  0.1682
   4.1302E-02   4.2307E-02   9.0188E-05  0.1481
   4.2307E-02   4.3337E-02   1.1172E-04  0.1316
   4.3337E-02   4.4391E-02   8.4749E-05  0.1489
   4.4391E-02   4.5471E-02   9.8142E-05  0.1374
   4.5471E-02   4.6577E-02   8.2636E-05  0.1472
   4.6577E-02   4.7711E-02   7.7652E-05  0.1508
   4.7711E-02   4.8871E-02   8.3025E-05  0.1431
   4.8871E-02   5.0061E-02   6.0819E-05  0.1660
   5.0061E-02   5.1279E-02   7.0607E-05  0.1525
   5.1279E-02   5.2526E-02   7.4802E-05  0.1458
   5.2526E-02   5.3804E-02   7.2989E-05  0.1458
   5.3804E-02   5.5113E-02   7.4097E-05  0.1432
   5.5113E-02   5.6454E-02   7.6065E-05  0.1400
   5.6454E-02   5.7828E-02   8.9547E-05  0.1273
   5.7828E-02   5.9235E-02   8.0535E-05  0.1324
   5.9235E-02   6.0676E-02   7.9099E-05  0.1319
   6.0676E-02   6.2152E-02   9.2579E-05  0.1207
   6.2152E-02   6.3665E-02   6.6128E-05  0.1414
   6.3665E-02   6.5214E-02   6.7785E-05  0.1377
   6.5214E-02   6.6800E-02   6.9519E-05  0.1345
   6.6800E-02   6.8426E-02   6.7680E-05  0.1348
   6.8426E-02   7.0090E-02   7.3440E-05  0.1278
   7.0090E-02   7.1796E-02   7.2126E-05  0.1273
   7.1796E-02   7.3543E-02   6.5445E-05  0.1321
   7.3543E-02   7.5332E-02   5.1415E-05  0.1474
   7.5332E-02   7.7165E-02   5.9288E-05  0.1353
   7.7165E-02   7.9042E-02   6.7454E-05  0.1254
   7.9042E-02   8.0965E-02   4.8878E-05  0.1459
   8.0965E-02   8.2935E-02   7.1575E-05  0.1189
   8.2935E-02   8.4953E-02   6.3433E-05  0.1250
   8.4953E-02   8.7020E-02   4.7412E-05  0.1429
   8.7020E-02   8.9138E-02   5.2109E-05  0.1345
   8.9138E-02   9.1306E-02   4.9797E-05  0.1361
   9.1306E-02   9.3528E-02   5.2923E-05  0.1299
   9.3528E-02   9.5804E-02   4.1858E-05  0.1444
   9.5804E-02   9.8134E-02   5.6200E-05  0.1233
   9.8134E-02   1.0052E-01   4.0344E-05  0.1439
   1.0052E-01   1.0297E-01   3.8149E-05  0.1458
   1.0297E-01   1.0547E-01   4.2842E-05  0.1360
   1.0547E-01   1.0804E-01   4.7391E-05  0.1277
   1.0804E-01   1.1067E-01   5.4780E-05  0.1179
   1.1067E-01   1.1336E-01   5.5336E-05  0.1157
   1.1336E-01   1.1612E-01   3.4806E-05  0.1443
   1.1612E-01   1.1894E-01   3.6406E-05  0.1389
   1.1894E-01   1.2184E-01   3.6771E-05  0.1369
   1.2184E-01   1.2480E-01   4.1928E-05  0.1267
   1.2480E-01   1.2784E-01   3.8201E-05  0.1307
   1.2784E-01   1.3095E-01   2.9578E-05  0.1474
   1.3095E-01   1.3414E-01   3.2328E-05  0.1390
   1.3414E-01   1.3740E-01   3.3992E-05  0.1338
   1.3740E-01   1.4074E-01   3.2306E-05  0.1361
   1.4074E-01   1.4417E-01   3.3875E-05  0.1307
   1.4417E-01   1.4767E-01   2.6780E-05  0.1449
   1.4767E-01   1.5127E-01   3.1450E-05  0.1327
   1.5127E-01   1.5495E-01   2.9712E-05  0.1347
   1.5495E-01   1.5872E-01   2.2618E-05  0.1516
   1.5872E-01   1.6258E-01   2.2594E-05  0.1508
   1.6258E-01   1.6654E-01   3.4708E-05  0.1204
   1.6654E-01   1.7059E-01   3.5539E-05  0.1179
   1.7059E-01   1.7474E-01   2.8912E-05  0.1286
   1.7474E-01   1.7899E-01   2.3286E-05  0.1418
   1.7899E-01   1.8334E-01   2.9770E-05  0.1237
   1.8334E-01   1.8781E-01   1.8382E-05  0.1562
   1.8781E-01   1.9237E-01   2.3416E-05  0.1364
   1.9237E-01   1.9706E-01   2.7133E-05  0.1252
   1.9706E-01   2.0185E-01   2.6757E-05  0.1247
   2.0185E-01   2.0676E-01   2.8981E-05  0.1184
   2.0676E-01   2.1179E-01   2.3522E-05  0.1299
   2.1179E-01   2.1694E-01   2.6902E-05  0.1199
   2.1694E-01   2.2222E-01   2.5955E-05  0.1206
   2.2222E-01   2.2763E-01   2.9407E-05  0.1120
   2.2763E-01   2.3317E-01   2.9838E-05  0.1098
   2.3317E-01   2.3884E-01   2.9847E-05  0.1084
   2.3884E-01   2.4465E-01   3.2062E-05  0.1035
   2.4465E-01   2.5061E-01   2.7775E-05  0.1097
   2.5061E-01   2.5670E-01   3.4331E-05  0.0976
   2.5670E-01   2.6295E-01   2.2575E-05  0.1189
   2.6295E-01   2.6935E-01   3.5373E-05  0.0940
   2.6935E-01   2.7590E-01   2.8429E-05  0.1033
   2.7590E-01   2.8261E-01   3.2377E-05  0.0955
   2.8261E-01   2.8949E-01   2.9086E-05  0.1000
   2.8949E-01   2.9653E-01   3.0933E-05  0.0955
   2.9653E-01   3.0375E-01   3.7465E-05  0.0860
   3.0375E-01   3.1114E-01   3.5931E-05  0.0866
   3.1114E-01   3.1871E-01   3.2225E-05  0.0901
   3.1871E-01   3.2646E-01   4.1825E-05  0.0784
   3.2646E-01   3.3441E-01   3.4750E-05  0.0846
   3.3441E-01   3.4254E-01   3.6523E-05  0.0818
   3.4254E-01   3.5088E-01   3.7091E-05  0.0799
   3.5088E-01   3.5941E-01   4.1349E-05  0.0752
   3.5941E-01   3.6816E-01   3.3749E-05  0.0820
   3.6816E-01   3.7712E-01   3.7548E-05  0.0771
   3.7712E-01   3.8629E-01   3.9450E-05  0.0740
   3.8629E-01   3.9569E-01   3.8339E-05  0.0742
   3.9569E-01   4.0532E-01   4.0051E-05  0.0719
   4.0532E-01   4.1518E-01   3.8784E-05  0.0721
   4.1518E-01   4.2528E-01   3.9275E-05  0.0708
   4.2528E-01   4.3563E-01   4.1979E-05  0.0676
   4.3563E-01   4.4623E-01   4.0528E-05  0.0680
   4.4623E-01   4.5708E-01   3.8379E-05  0.0690
   4.5708E-01   4.6821E-01   3.5545E-05  0.0708
   4.6821E-01   4.7960E-01   3.8432E-05  0.0675
   4.7960E-01   4.9127E-01   3.4876E-05  0.0698
   4.9127E-01   5.0322E-01   3.6256E-05  0.0678
   5.0322E-01   5.1546E-01   3.9662E-05  0.0639
   5.1546E-01   5.2800E-01   4.1527E-05  0.0617
   5.2800E-01   5.4085E-01   4.2408E-05  0.0601
   5.4085E-01   5.5401E-01   3.6680E-05  0.0641
   5.5401E-01   5.6749E-01   4.1906E-05  0.0593
   5.6749E-01   5.8130E-01   3.9261E-05  0.0602
   5.8130E-01   5.9544E-01   3.7622E-05  0.0610
   5.9544E-01   6.0993E-01   3.9926E-05  0.0585
   6.0993E-01   6.2477E-01   4.0127E-05  0.0578
   6.2477E-01   6.3997E-01   3.9307E-05  0.0577
   6.3997E-01   6.5554E-01   4.0591E-05  0.0561
   6.5554E-01   6.7149E-01   3.5285E-05  0.0594
   6.7149E-01   6.8783E-01   3.5656E-05  0.0583
   6.8783E-01   7.0456E-01   4.2578E-05  0.0528
   7.0456E-01   7.2171E-01   4.1084E-05  0.0531
   7.2171E-01   7.3927E-01   3.9562E-05  0.0534
   7.3927E-01   7.5725E-01   3.6783E-05  0.0547
   7.5725E-01   7.7568E-01   3.8011E-05  0.0531
   7.7568E-01   7.9455E-01   3.8328E-05  0.0524
   7.9455E-01   8.1388E-01   3.4962E-05  0.0543
   8.1388E-01   8.3368E-01   3.4029E-05  0.0543
   8.3368E-01   8.5397E-01   3.6783E-05  0.0515
   8.5397E-01   8.7475E-01   3.7115E-05  0.0508
   8.7475E-01   8.9603E-01   3.7758E-05  0.0497
   8.9603E-01   9.1783E-01   3.2714E-05  0.0527
   9.1783E-01   9.4016E-01   3.3195E-05  0.0517
   9.4016E-01   9.6304E-01   2.9313E-05  0.0544
   9.6304E-01   9.8647E-01   3.1167E-05  0.0521
   9.8647E-01   1.0105E+00   2.9742E-05  0.0528
   1.0105E+00   1.0351E+00   2.8773E-05  0.0529
   1.0351E+00   1.0602E+00   2.9564E-05  0.0515
   1.0602E+00   1.0860E+00   2.5385E-05  0.0550
   1.0860E+00   1.1125E+00   2.7449E-05  0.0523
   1.1125E+00   1.1395E+00   2.6872E-05  0.0522
   1.1395E+00   1.1673E+00   2.6228E-05  0.0522
   1.1673E+00   1.1957E+00   2.6350E-05  0.0513
   1.1957E+00   1.2247E+00   2.5774E-05  0.0514
   1.2247E+00   1.2545E+00   2.3612E-05  0.0530
   1.2545E+00   1.2851E+00   2.2684E-05  0.0535
   1.2851E+00   1.3163E+00   2.4338E-05  0.0510
   1.3163E+00   1.3484E+00   2.3711E-05  0.0510
   1.3484E+00   1.3812E+00   2.2203E-05  0.0522
   1.3812E+00   1.4148E+00   2.0127E-05  0.0540
   1.4148E+00   1.4492E+00   1.9864E-05  0.0536
   1.4492E+00   1.4845E+00   2.0350E-05  0.0525
   1.4845E+00   1.5206E+00   1.8217E-05  0.0546
   1.5206E+00   1.5576E+00   2.0485E-05  0.0510
   1.5576E+00   1.5955E+00   1.7363E-05  0.0546
   1.5955E+00   1.6343E+00   1.7127E-05  0.0546
   1.6343E+00   1.6741E+00   1.8509E-05  0.0516
   1.6741E+00   1.7148E+00   1.8716E-05  0.0510
   1.7148E+00   1.7565E+00   1.6203E-05  0.0541
   1.7565E+00   1.7992E+00   1.6454E-05  0.0528
   1.7992E+00   1.8430E+00   1.3433E-05  0.0580
   1.8430E+00   1.8879E+00   1.3202E-05  0.0575
   1.8879E+00   1.9338E+00   1.5138E-05  0.0532
   1.9338E+00   1.9808E+00   1.3944E-05  0.0548
   1.9808E+00   2.0290E+00   1.4086E-05  0.0538
   2.0290E+00   2.0784E+00   1.3648E-05  0.0541
   2.0784E+00   2.1290E+00   1.2450E-05  0.0557
   2.1290E+00   2.1808E+00   1.2075E-05  0.0562
   2.1808E+00   2.2338E+00   1.2302E-05  0.0549
   2.2338E+00   2.2882E+00   1.1414E-05  0.0564
   2.2882E+00   2.3439E+00   1.1423E-05  0.0555
   2.3439E+00   2.4009E+00   1.0665E-05  0.0568
   2.4009E+00   2.4593E+00   1.1576E-05  0.0540
   2.4593E+00   2.5191E+00   1.1420E-05  0.0537
   2.5191E+00   2.5804E+00   9.9810E-06  0.0566
   2.5804E+00   2.6432E+00   9.6927E-06  0.0567
   2.6432E+00   2.7075E+00   9.8229E-06  0.0559
   2.7075E+00   2.7734E+00   1.0119E-05  0.0543
   2.7734E+00   2.8409E+00   9.9189E-06  0.0543
   2.8409E+00   2.9100E+00   9.4080E-06  0.0548
   2.9100E+00   2.9808E+00   9.7553E-06  0.0535
   2.9808E+00   3.0533E+00   8.4873E-06  0.0567
   3.0533E+00   3.1276E+00   8.4259E-06  0.0561
   3.1276E+00   3.2037E+00   7.8112E-06  0.0576
   3.2037E+00   3.2817E+00   7.1043E-06  0.0595
   3.2817E+00   3.3615E+00   7.1990E-06  0.0587
   3.3615E+00   3.4433E+00   7.8809E-06  0.0555
   3.4433E+00   3.5271E+00   7.9705E-06  0.0543
   3.5271E+00   3.6129E+00   6.6882E-06  0.0585
   3.6129E+00   3.7008E+00   6.2290E-06  0.0599
   3.7008E+00   3.7908E+00   6.8717E-06  0.0565
   3.7908E+00   3.8831E+00   6.3270E-06  0.0581
   3.8831E+00   3.9776E+00   5.7749E-06  0.0600
   3.9776E+00   4.0743E+00   5.1310E-06  0.0628
   4.0743E+00   4.1735E+00   5.5609E-06  0.0599
   4.1735E+00   4.2750E+00   5.8796E-06  0.0574
   4.2750E+00   4.3790E+00   5.3313E-06  0.0598
   4.3790E+00   4.4856E+00   5.1517E-06  0.0600
   4.4856E+00   4.5947E+00   4.5172E-06  0.0633
   4.5947E+00   4.7065E+00   4.1593E-06  0.0652
   4.7065E+00   4.8210E+00   4.4873E-06  0.0621
   4.8210E+00   4.9383E+00   4.6437E-06  0.0603
   4.9383E+00   5.0585E+00   3.8852E-06  0.0650
   5.0585E+00   5.1815E+00   3.7710E-06  0.0652
   5.1815E+00   5.3076E+00   3.6126E-06  0.0658
   5.3076E+00   5.4368E+00   3.1210E-06  0.0700
   5.4368E+00   5.5690E+00   3.1408E-06  0.0686
   5.5690E+00   5.7045E+00   2.7936E-06  0.0722
   5.7045E+00   5.8433E+00   2.6588E-06  0.0732
   5.8433E+00   5.9855E+00   2.9380E-06  0.0688
   5.9855E+00   6.1311E+00   2.9102E-06  0.0684
   6.1311E+00   6.2803E+00   2.7201E-06  0.0699
   6.2803E+00   6.4331E+00   2.2343E-06  0.0761
   6.4331E+00   6.5896E+00   2.3723E-06  0.0733
   6.5896E+00   6.7500E+00   2.2179E-06  0.0748
   6.7500E+00   6.9142E+00   2.1304E-06  0.0753
   6.9142E+00   7.0824E+00   1.8684E-06  0.0796
   7.0824E+00   7.2548E+00   1.9652E-06  0.0766
   7.2548E+00   7.4313E+00   1.7659E-06  0.0798
   7.4313E+00   7.6121E+00   1.5452E-06  0.0842
   7.6121E+00   7.7973E+00   1.3890E-06  0.0878
   7.7973E+00   7.9870E+00   1.5413E-06  0.0825
   7.9870E+00   8.1813E+00   1.1989E-06  0.0922
   8.1813E+00   8.3804E+00   1.1686E-06  0.0922
   8.3804E+00   8.5843E+00   1.4271E-06  0.0826
   8.5843E+00   8.7931E+00   9.8010E-07  0.0987
   8.7931E+00   9.0071E+00   1.0564E-06  0.0937
   9.0071E+00   9.2262E+00   1.1395E-06  0.0893
   9.2262E+00   9.4507E+00   9.8975E-07  0.0946
   9.4507E+00   9.6807E+00   8.8283E-07  0.0991
   9.6807E+00   9.9162E+00   7.9817E-07  0.1031
   9.9162E+00   1.0157E+01   8.3624E-07  0.0993
   1.0157E+01   1.0405E+01   8.7805E-07  0.0959
   1.0405E+01   1.0658E+01   8.7833E-07  0.0948
   1.0658E+01   1.0917E+01   9.5638E-07  0.0898
   1.0917E+01   1.1183E+01   9.6118E-07  0.0882
   1.1183E+01   1.1455E+01   7.0674E-07  0.1016
   1.1455E+01   1.1733E+01   7.1402E-07  0.0999
   1.1733E+01   1.2019E+01   6.8194E-07  0.1009
   1.2019E+01   1.2311E+01   7.2269E-07  0.0971
   1.2311E+01   1.2611E+01   6.8856E-07  0.0984
   1.2611E+01   1.2918E+01   6.1271E-07  0.1029
   1.2918E+01   1.3232E+01   5.8356E-07  0.1042
   1.3232E+01   1.3554E+01   3.6753E-07  0.1299
   1.3554E+01   1.3884E+01   4.8737E-07  0.1113
   1.3884E+01   1.4222E+01   4.5698E-07  0.1137
   1.4222E+01   1.4568E+01   4.7685E-07  0.1096
   1.4568E+01   1.4922E+01   4.4013E-07  0.1132
   1.4922E+01   1.5285E+01   2.8094E-07  0.1400
   1.5285E+01   1.5657E+01   3.0116E-07  0.1336
   1.5657E+01   1.6038E+01   2.7563E-07  0.1377
   1.6038E+01   1.6428E+01   2.3666E-07  0.1469
   1.6428E+01   1.6828E+01   2.8521E-07  0.1325
   1.6828E+01   1.7237E+01   2.3447E-07  0.1443
   1.7237E+01   1.7657E+01   1.9630E-07  0.1556
   1.7657E+01   1.8086E+01   1.8622E-07  0.1581
   1.8086E+01   1.8526E+01   1.3180E-07  0.1857
   1.8526E+01   1.8977E+01   2.0854E-07  0.1459
   1.8977E+01   1.9439E+01   1.9492E-07  0.1491
   1.9439E+01   1.9912E+01   1.2263E-07  0.1857
   1.9912E+01   2.0396E+01   1.5274E-07  0.1644
   2.0396E+01   2.0893E+01   1.1284E-07  0.1890
   2.0893E+01   2.1401E+01   1.2984E-07  0.1741
   2.1401E+01   2.1922E+01   1.0755E-07  0.1890
   2.1922E+01   2.2455E+01   7.4995E-08  0.2236
   2.2455E+01   2.3001E+01   1.0250E-07  0.1890
   2.3001E+01   2.3561E+01   4.6458E-08  0.2774
   2.3561E+01   2.4134E+01   5.5821E-08  0.2500
   2.4134E+01   2.4721E+01   5.1089E-08  0.2582
   2.4721E+01   2.5323E+01   2.9926E-08  0.3333
   2.5323E+01   2.5939E+01   2.5969E-08  0.3536
   2.5939E+01   2.6570E+01   2.8521E-08  0.3333
   2.6570E+01   2.7217E+01   1.2375E-08  0.5000
   2.7217E+01   2.7879E+01   1.5101E-08  0.4472
   2.7879E+01   2.8557E+01   1.4742E-08  0.4472
   2.8557E+01   2.9252E+01   5.7569E-09  0.7071
   2.9252E+01   2.9964E+01   1.4050E-08  0.4472
   2.9964E+01   3.0693E+01   5.4867E-09  0.7071
   3.0693E+01   3.1440E+01   1.0713E-08  0.5000
   3.1440E+01   3.2205E+01   2.6146E-09  1.0000
   3.2205E+01   3.2988E+01   0.0000E+00  0.0000
   3.2988E+01   3.3791E+01   0.0000E+00  0.0000
   3.3791E+01   3.4613E+01   0.0000E+00  0.0000
   3.4613E+01   3.5455E+01   0.0000E+00  0.0000
   3.5455E+01   3.6318E+01   0.0000E+00  0.0000
   3.6318E+01   3.7201E+01   0.0000E+00  0.0000
   3.7201E+01   3.8106E+01   0.0000E+00  0.0000
   3.8106E+01   3.9034E+01   0.0000E+00  0.0000
   3.9034E+01   3.9983E+01   0.0000E+00  0.0000
   3.9983E+01   4.0956E+01   0.0000E+00  0.0000
   4.0956E+01   4.1953E+01   0.0000E+00  0.0000
   4.1953E+01   4.2973E+01   0.0000E+00  0.0000
   4.2973E+01   4.4019E+01   0.0000E+00  0.0000
   4.4019E+01   4.5090E+01   0.0000E+00  0.0000
   4.5090E+01   4.6187E+01   0.0000E+00  0.0000
   4.6187E+01   4.7311E+01   0.0000E+00  0.0000
   4.7311E+01   4.8462E+01   0.0000E+00  0.0000
   4.8462E+01   4.9641E+01   0.0000E+00  0.0000
   4.9641E+01   5.0849E+01   0.0000E+00  0.0000
   5.0849E+01   5.2086E+01   0.0000E+00  0.0000
   5.2086E+01   5.3353E+01   0.0000E+00  0.0000
   5.3353E+01   5.4651E+01   0.0000E+00  0.0000
   5.4651E+01   5.5981E+01   0.0000E+00  0.0000
   5.5981E+01   5.7343E+01   0.0000E+00  0.0000
   5.7343E+01   5.8738E+01   0.0000E+00  0.0000
   5.8738E+01   6.0168E+01   0.0000E+00  0.0000
   6.0168E+01   6.1632E+01   0.0000E+00  0.0000
   6.1632E+01   6.3131E+01   0.0000E+00  0.0000
   6.3131E+01   6.4667E+01   0.0000E+00  0.0000
   6.4667E+01   6.6240E+01   0.0000E+00  0.0000
   6.6240E+01   6.7852E+01   0.0000E+00  0.0000
   6.7852E+01   6.9503E+01   0.0000E+00  0.0000
   6.9503E+01   7.1194E+01   0.0000E+00  0.0000
   7.1194E+01   7.2926E+01   0.0000E+00  0.0000
   7.2926E+01   7.4701E+01   0.0000E+00  0.0000
   7.4701E+01   7.6518E+01   0.0000E+00  0.0000
   7.6518E+01   7.8380E+01   0.0000E+00  0.0000
   7.8380E+01   8.0287E+01   0.0000E+00  0.0000
   8.0287E+01   8.2240E+01   0.0000E+00  0.0000
   8.2240E+01   8.4241E+01   0.0000E+00  0.0000
   8.4241E+01   8.6291E+01   0.0000E+00  0.0000
   8.6291E+01   8.8391E+01   0.0000E+00  0.0000
   8.8391E+01   9.0541E+01   0.0000E+00  0.0000
   9.0541E+01   9.2744E+01   0.0000E+00  0.0000
   9.2744E+01   9.5001E+01   0.0000E+00  0.0000
   9.5001E+01   9.7312E+01   0.0000E+00  0.0000
   9.7312E+01   9.9680E+01   0.0000E+00  0.0000
   9.9680E+01   1.0211E+02   0.0000E+00  0.0000
   1.0211E+02   1.0459E+02   0.0000E+00  0.0000
   1.0459E+02   1.0713E+02   0.0000E+00  0.0000
   1.0713E+02   1.0974E+02   0.0000E+00  0.0000
   1.0974E+02   1.1241E+02   0.0000E+00  0.0000
   1.1241E+02   1.1515E+02   0.0000E+00  0.0000
   1.1515E+02   1.1795E+02   0.0000E+00  0.0000
   1.1795E+02   1.2082E+02   0.0000E+00  0.0000
   1.2082E+02   1.2376E+02   0.0000E+00  0.0000
   1.2376E+02   1.2677E+02   0.0000E+00  0.0000
   1.2677E+02   1.2985E+02   0.0000E+00  0.0000
   1.2985E+02   1.3301E+02   0.0000E+00  0.0000
   1.3301E+02   1.3625E+02   0.0000E+00  0.0000
   1.3625E+02   1.3956E+02   0.0000E+00  0.0000
   1.3956E+02   1.4296E+02   0.0000E+00  0.0000
   1.4296E+02   1.4644E+02   0.0000E+00  0.0000
   1.4644E+02   1.5000E+02   0.0000E+00  0.0000

#   sum over                 6.5584E-07
'no. =    1   reg = 126 - 226'
msuc: {\huge [t-cross] in region mesh}
msdr: {\it plotted by \ANGEL \version}
msdl: {\it calculated by \PHITS  3.26}
wt: s(0.7)
\vspace{-3}
  region surface crossing
  area  &=&   1.0000E+00 [cm^2]
e:
 
# Information for Restart Calculation
# This calculation was newly started
# istdev =  2 # 1:Batch variance, 2:History variance
# resc2  = 5.00000000000000000E+08 # Total source weight or Total source weight / maxcas
# resc3  = 5.00000000000000000E+08 # Total history number or Total batch number
# maxcas =   500000000 # History / Batch, only used for istdev=1
# bitrseed = 1101101111010011011000101101110001100110110010110001010100010001 # bit data of rseed
