[ T-Cross ]
    title = [t-cross] in region mesh
     mesh =  reg            # mesh type is region-wise
      reg =    1            # number of crossing regions
      non     r-from    r-to       area
      1       104       204        1.000000    
   e-type =    3            # e-mesh is log given by emin, emax and ne
     emin =  1.0000000E-02  # minimum value of e-mesh points
     emax =   150.0000      # maximum value of e-mesh points
#    edel =  2.4039514E-02  # mesh width of e-mesh points
       ne =    400          # number of e-mesh points
#    data = ( e(i), i = 1, ne + 1 )
#           1.00000E-02  1.02433E-02  1.04925E-02  1.07478E-02  1.10093E-02
#           1.12772E-02  1.15516E-02  1.18326E-02  1.21205E-02  1.24154E-02
#           1.27175E-02  1.30269E-02  1.33439E-02  1.36686E-02  1.40011E-02
#           1.43418E-02  1.46907E-02  1.50482E-02  1.54143E-02  1.57894E-02
#           1.61735E-02  1.65670E-02  1.69701E-02  1.73830E-02  1.78060E-02
#           1.82392E-02  1.86830E-02  1.91375E-02  1.96032E-02  2.00801E-02
#           2.05687E-02  2.10692E-02  2.15818E-02  2.21069E-02  2.26448E-02
#           2.31957E-02  2.37601E-02  2.43382E-02  2.49304E-02  2.55369E-02
#           2.61583E-02  2.67947E-02  2.74467E-02  2.81145E-02  2.87985E-02
#           2.94992E-02  3.02169E-02  3.09521E-02  3.17052E-02  3.24766E-02
#           3.32668E-02  3.40762E-02  3.49053E-02  3.57546E-02  3.66246E-02
#           3.75157E-02  3.84284E-02  3.93634E-02  4.03212E-02  4.13022E-02
#           4.23071E-02  4.33365E-02  4.43909E-02  4.54710E-02  4.65773E-02
#           4.77106E-02  4.88714E-02  5.00605E-02  5.12785E-02  5.25262E-02
#           5.38042E-02  5.51133E-02  5.64542E-02  5.78278E-02  5.92348E-02
#           6.06760E-02  6.21523E-02  6.36645E-02  6.52135E-02  6.68002E-02
#           6.84255E-02  7.00904E-02  7.17957E-02  7.35426E-02  7.53319E-02
#           7.71648E-02  7.90423E-02  8.09655E-02  8.29354E-02  8.49533E-02
#           8.70203E-02  8.91376E-02  9.13064E-02  9.35279E-02  9.58035E-02
#           9.81345E-02  1.00522E-01  1.02968E-01  1.05473E-01  1.08040E-01
#           1.10668E-01  1.13361E-01  1.16119E-01  1.18944E-01  1.21838E-01
#           1.24803E-01  1.27839E-01  1.30950E-01  1.34136E-01  1.37399E-01
#           1.40742E-01  1.44167E-01  1.47675E-01  1.51268E-01  1.54948E-01
#           1.58718E-01  1.62580E-01  1.66535E-01  1.70587E-01  1.74738E-01
#           1.78989E-01  1.83344E-01  1.87805E-01  1.92375E-01  1.97055E-01
#           2.01850E-01  2.06761E-01  2.11792E-01  2.16945E-01  2.22223E-01
#           2.27630E-01  2.33169E-01  2.38842E-01  2.44653E-01  2.50605E-01
#           2.56703E-01  2.62949E-01  2.69346E-01  2.75900E-01  2.82613E-01
#           2.89489E-01  2.96532E-01  3.03747E-01  3.11138E-01  3.18708E-01
#           3.26462E-01  3.34405E-01  3.42542E-01  3.50876E-01  3.59413E-01
#           3.68158E-01  3.77116E-01  3.86291E-01  3.95690E-01  4.05317E-01
#           4.15179E-01  4.25281E-01  4.35628E-01  4.46227E-01  4.57084E-01
#           4.68205E-01  4.79597E-01  4.91266E-01  5.03219E-01  5.15463E-01
#           5.28005E-01  5.40851E-01  5.54011E-01  5.67490E-01  5.81298E-01
#           5.95441E-01  6.09929E-01  6.24769E-01  6.39970E-01  6.55541E-01
#           6.71491E-01  6.87828E-01  7.04564E-01  7.21706E-01  7.39266E-01
#           7.57253E-01  7.75678E-01  7.94551E-01  8.13883E-01  8.33685E-01
#           8.53969E-01  8.74747E-01  8.96030E-01  9.17831E-01  9.40163E-01
#           9.63038E-01  9.86469E-01  1.01047E+00  1.03506E+00  1.06024E+00
#           1.08604E+00  1.11246E+00  1.13953E+00  1.16725E+00  1.19565E+00
#           1.22474E+00  1.25454E+00  1.28507E+00  1.31633E+00  1.34836E+00
#           1.38117E+00  1.41477E+00  1.44920E+00  1.48446E+00  1.52057E+00
#           1.55757E+00  1.59547E+00  1.63429E+00  1.67405E+00  1.71478E+00
#           1.75650E+00  1.79924E+00  1.84302E+00  1.88786E+00  1.93379E+00
#           1.98084E+00  2.02904E+00  2.07841E+00  2.12898E+00  2.18078E+00
#           2.23384E+00  2.28819E+00  2.34386E+00  2.40089E+00  2.45930E+00
#           2.51914E+00  2.58043E+00  2.64322E+00  2.70753E+00  2.77341E+00
#           2.84088E+00  2.91001E+00  2.98081E+00  3.05333E+00  3.12762E+00
#           3.20372E+00  3.28167E+00  3.36152E+00  3.44330E+00  3.52708E+00
#           3.61290E+00  3.70080E+00  3.79085E+00  3.88308E+00  3.97756E+00
#           4.07434E+00  4.17347E+00  4.27501E+00  4.37903E+00  4.48557E+00
#           4.59471E+00  4.70650E+00  4.82102E+00  4.93832E+00  5.05847E+00
#           5.18155E+00  5.30762E+00  5.43676E+00  5.56904E+00  5.70453E+00
#           5.84333E+00  5.98550E+00  6.13114E+00  6.28031E+00  6.43312E+00
#           6.58964E+00  6.74997E+00  6.91420E+00  7.08243E+00  7.25475E+00
#           7.43126E+00  7.61207E+00  7.79728E+00  7.98700E+00  8.18133E+00
#           8.38038E+00  8.58428E+00  8.79315E+00  9.00709E+00  9.22624E+00
#           9.45072E+00  9.68067E+00  9.91620E+00  1.01575E+01  1.04046E+01
#           1.06578E+01  1.09171E+01  1.11827E+01  1.14548E+01  1.17335E+01
#           1.20190E+01  1.23114E+01  1.26109E+01  1.29178E+01  1.32321E+01
#           1.35540E+01  1.38838E+01  1.42216E+01  1.45676E+01  1.49221E+01
#           1.52851E+01  1.56570E+01  1.60380E+01  1.64282E+01  1.68279E+01
#           1.72374E+01  1.76568E+01  1.80864E+01  1.85264E+01  1.89772E+01
#           1.94389E+01  1.99119E+01  2.03963E+01  2.08926E+01  2.14009E+01
#           2.19216E+01  2.24550E+01  2.30014E+01  2.35610E+01  2.41343E+01
#           2.47215E+01  2.53230E+01  2.59391E+01  2.65702E+01  2.72167E+01
#           2.78789E+01  2.85572E+01  2.92520E+01  2.99637E+01  3.06928E+01
#           3.14396E+01  3.22045E+01  3.29881E+01  3.37907E+01  3.46128E+01
#           3.54550E+01  3.63177E+01  3.72013E+01  3.81064E+01  3.90336E+01
#           3.99833E+01  4.09561E+01  4.19526E+01  4.29734E+01  4.40189E+01
#           4.50900E+01  4.61870E+01  4.73108E+01  4.84619E+01  4.96410E+01
#           5.08488E+01  5.20860E+01  5.33533E+01  5.46514E+01  5.59812E+01
#           5.73432E+01  5.87384E+01  6.01676E+01  6.16315E+01  6.31311E+01
#           6.46671E+01  6.62405E+01  6.78522E+01  6.95031E+01  7.11941E+01
#           7.29263E+01  7.47007E+01  7.65182E+01  7.83800E+01  8.02870E+01
#           8.22405E+01  8.42414E+01  8.62911E+01  8.83906E+01  9.05412E+01
#           9.27442E+01  9.50007E+01  9.73122E+01  9.96799E+01  1.02105E+02
#           1.04589E+02  1.07134E+02  1.09741E+02  1.12411E+02  1.15146E+02
#           1.17948E+02  1.20817E+02  1.23757E+02  1.26768E+02  1.29852E+02
#           1.33012E+02  1.36248E+02  1.39563E+02  1.42959E+02  1.46437E+02
#           1.50000E+02
     unit =    2            # unit is [1/cm^2/(MeV/n)/source]
     axis =  eng            # axis of output
     file = detector-05.out  # file name of output for the above axis
   output = f-curr          # surface crossing forward current spectrum
     part =  neutron  
# kf/name :  2112     
#    used :        main (  %)        temp (  %)       total (  %)
#  memory :         414 (  0)           0 (  0)         414 (  0)

#------------------------------------------------------------------------------
#newpage:
#   no. =    1   reg = 104 - 204

x: Energy [MeV/n]
y:  F-Curr [1/cm^2/(MeV/n)/source]         
p: xlog ylog afac(0.8) form(0.9)
h: n            x            y(neutron ),hh0l   n 
#  e-lower      e-upper      neutron     r.err 
   1.0000E-02   1.0243E-02   1.2988E-02  0.0252
   1.0243E-02   1.0493E-02   1.3313E-02  0.0246
   1.0493E-02   1.0748E-02   1.2660E-02  0.0249
   1.0748E-02   1.1009E-02   1.2008E-02  0.0252
   1.1009E-02   1.1277E-02   1.1946E-02  0.0250
   1.1277E-02   1.1552E-02   1.1407E-02  0.0253
   1.1552E-02   1.1833E-02   1.1912E-02  0.0244
   1.1833E-02   1.2121E-02   1.1587E-02  0.0245
   1.2121E-02   1.2415E-02   1.1489E-02  0.0243
   1.2415E-02   1.2718E-02   1.1222E-02  0.0243
   1.2718E-02   1.3027E-02   1.0852E-02  0.0244
   1.3027E-02   1.3344E-02   1.0954E-02  0.0240
   1.3344E-02   1.3669E-02   1.1051E-02  0.0236
   1.3669E-02   1.4001E-02   1.0272E-02  0.0242
   1.4001E-02   1.4342E-02   9.5462E-03  0.0248
   1.4342E-02   1.4691E-02   9.9901E-03  0.0240
   1.4691E-02   1.5048E-02   1.0144E-02  0.0235
   1.5048E-02   1.5414E-02   9.2917E-03  0.0242
   1.5414E-02   1.5789E-02   9.3803E-03  0.0238
   1.5789E-02   1.6174E-02   9.1210E-03  0.0239
   1.6174E-02   1.6567E-02   9.0721E-03  0.0237
   1.6567E-02   1.6970E-02   8.9013E-03  0.0236
   1.6970E-02   1.7383E-02   8.5251E-03  0.0238
   1.7383E-02   1.7806E-02   8.6773E-03  0.0233
   1.7806E-02   1.8239E-02   8.1804E-03  0.0238
   1.8239E-02   1.8683E-02   8.0086E-03  0.0237
   1.8683E-02   1.9138E-02   8.1615E-03  0.0232
   1.9138E-02   1.9603E-02   7.8345E-03  0.0234
   1.9603E-02   2.0080E-02   7.8287E-03  0.0231
   2.0080E-02   2.0569E-02   7.7001E-03  0.0231
   2.0569E-02   2.1069E-02   7.4572E-03  0.0231
   2.1069E-02   2.1582E-02   7.2216E-03  0.0232
   2.1582E-02   2.2107E-02   7.3205E-03  0.0228
   2.2107E-02   2.2645E-02   7.1801E-03  0.0228
   2.2645E-02   2.3196E-02   6.9224E-03  0.0229
   2.3196E-02   2.3760E-02   6.4497E-03  0.0234
   2.3760E-02   2.4338E-02   6.9296E-03  0.0223
   2.4338E-02   2.4930E-02   6.3681E-03  0.0230
   2.4930E-02   2.5537E-02   6.6076E-03  0.0223
   2.5537E-02   2.6158E-02   6.1706E-03  0.0228
   2.6158E-02   2.6795E-02   6.1309E-03  0.0226
   2.6795E-02   2.7447E-02   5.9576E-03  0.0227
   2.7447E-02   2.8114E-02   5.8790E-03  0.0226
   2.8114E-02   2.8799E-02   6.1487E-03  0.0218
   2.8799E-02   2.9499E-02   5.9456E-03  0.0219
   2.9499E-02   3.0217E-02   5.7124E-03  0.0221
   3.0217E-02   3.0952E-02   5.5685E-03  0.0221
   3.0952E-02   3.1705E-02   5.4655E-03  0.0220
   3.1705E-02   3.2477E-02   5.0168E-03  0.0227
   3.2477E-02   3.3267E-02   5.1482E-03  0.0222
   3.3267E-02   3.4076E-02   5.1198E-03  0.0220
   3.4076E-02   3.4905E-02   4.7015E-03  0.0227
   3.4905E-02   3.5755E-02   4.8512E-03  0.0220
   3.5755E-02   3.6625E-02   5.0923E-03  0.0212
   3.6625E-02   3.7516E-02   4.9287E-03  0.0213
   3.7516E-02   3.8428E-02   4.4764E-03  0.0221
   3.8428E-02   3.9363E-02   4.4150E-03  0.0220
   3.9363E-02   4.0321E-02   4.5503E-03  0.0214
   4.0321E-02   4.1302E-02   4.3933E-03  0.0215
   4.1302E-02   4.2307E-02   4.4223E-03  0.0212
   4.2307E-02   4.3337E-02   4.0880E-03  0.0218
   4.3337E-02   4.4391E-02   4.1388E-03  0.0214
   4.4391E-02   4.5471E-02   3.8387E-03  0.0220
   4.5471E-02   4.6577E-02   4.0385E-03  0.0212
   4.6577E-02   4.7711E-02   3.9214E-03  0.0212
   4.7711E-02   4.8871E-02   3.8128E-03  0.0213
   4.8871E-02   5.0061E-02   3.7239E-03  0.0213
   5.0061E-02   5.1279E-02   3.5550E-03  0.0215
   5.1279E-02   5.2526E-02   3.6324E-03  0.0210
   5.2526E-02   5.3804E-02   3.4742E-03  0.0212
   5.3804E-02   5.5113E-02   3.3366E-03  0.0214
   5.5113E-02   5.6454E-02   3.4394E-03  0.0208
   5.6454E-02   5.7828E-02   3.3591E-03  0.0208
   5.7828E-02   5.9235E-02   3.2083E-03  0.0211
   5.9235E-02   6.0676E-02   3.1334E-03  0.0210
   6.0676E-02   6.2152E-02   3.1342E-03  0.0208
   6.2152E-02   6.3665E-02   3.0637E-03  0.0208
   6.3665E-02   6.5214E-02   2.9051E-03  0.0211
   6.5214E-02   6.6800E-02   2.8840E-03  0.0209
   6.6800E-02   6.8426E-02   2.9176E-03  0.0205
   6.8426E-02   7.0090E-02   2.8315E-03  0.0206
   7.0090E-02   7.1796E-02   2.8147E-03  0.0204
   7.1796E-02   7.3543E-02   2.6677E-03  0.0207
   7.3543E-02   7.5332E-02   2.6211E-03  0.0207
   7.5332E-02   7.7165E-02   2.5446E-03  0.0207
   7.7165E-02   7.9042E-02   2.5470E-03  0.0205
   7.9042E-02   8.0965E-02   2.4865E-03  0.0205
   8.0965E-02   8.2935E-02   2.5107E-03  0.0201
   8.2935E-02   8.4953E-02   2.4967E-03  0.0199
   8.4953E-02   8.7020E-02   2.2922E-03  0.0205
   8.7020E-02   8.9138E-02   2.2151E-03  0.0207
   8.9138E-02   9.1306E-02   2.2768E-03  0.0201
   9.1306E-02   9.3528E-02   2.1426E-03  0.0205
   9.3528E-02   9.5804E-02   2.1515E-03  0.0202
   9.5804E-02   9.8134E-02   2.1279E-03  0.0201
   9.8134E-02   1.0052E-01   2.1602E-03  0.0197
   1.0052E-01   1.0297E-01   2.0288E-03  0.0201
   1.0297E-01   1.0547E-01   1.9391E-03  0.0203
   1.0547E-01   1.0804E-01   1.8993E-03  0.0203
   1.0804E-01   1.1067E-01   1.9097E-03  0.0200
   1.1067E-01   1.1336E-01   1.8272E-03  0.0202
   1.1336E-01   1.1612E-01   1.7954E-03  0.0201
   1.1612E-01   1.1894E-01   1.8214E-03  0.0197
   1.1894E-01   1.2184E-01   1.7581E-03  0.0198
   1.2184E-01   1.2480E-01   1.7083E-03  0.0199
   1.2480E-01   1.2784E-01   1.6703E-03  0.0199
   1.2784E-01   1.3095E-01   1.6699E-03  0.0196
   1.3095E-01   1.3414E-01   1.6151E-03  0.0197
   1.3414E-01   1.3740E-01   1.5222E-03  0.0201
   1.3740E-01   1.4074E-01   1.5591E-03  0.0196
   1.4074E-01   1.4417E-01   1.5904E-03  0.0192
   1.4417E-01   1.4767E-01   1.4129E-03  0.0201
   1.4767E-01   1.5127E-01   1.4667E-03  0.0195
   1.5127E-01   1.5495E-01   1.4161E-03  0.0196
   1.5495E-01   1.5872E-01   1.3793E-03  0.0196
   1.5872E-01   1.6258E-01   1.3144E-03  0.0198
   1.6258E-01   1.6654E-01   1.2999E-03  0.0197
   1.6654E-01   1.7059E-01   1.2616E-03  0.0198
   1.7059E-01   1.7474E-01   1.2186E-03  0.0199
   1.7474E-01   1.7899E-01   1.2038E-03  0.0198
   1.7899E-01   1.8334E-01   1.1660E-03  0.0198
   1.8334E-01   1.8781E-01   1.1616E-03  0.0196
   1.8781E-01   1.9237E-01   1.1323E-03  0.0197
   1.9237E-01   1.9706E-01   1.1199E-03  0.0195
   1.9706E-01   2.0185E-01   1.0812E-03  0.0196
   2.0185E-01   2.0676E-01   1.0625E-03  0.0196
   2.0676E-01   2.1179E-01   1.0659E-03  0.0193
   2.1179E-01   2.1694E-01   1.0204E-03  0.0195
   2.1694E-01   2.2222E-01   9.6013E-04  0.0199
   2.2222E-01   2.2763E-01   9.6581E-04  0.0196
   2.2763E-01   2.3317E-01   9.3565E-04  0.0196
   2.3317E-01   2.3884E-01   8.9192E-04  0.0199
   2.3884E-01   2.4465E-01   8.9173E-04  0.0196
   2.4465E-01   2.5061E-01   8.5442E-04  0.0198
   2.5061E-01   2.5670E-01   8.4691E-04  0.0197
   2.5670E-01   2.6295E-01   8.1879E-04  0.0198
   2.6295E-01   2.6935E-01   8.1716E-04  0.0196
   2.6935E-01   2.7590E-01   7.7181E-04  0.0199
   2.7590E-01   2.8261E-01   7.3233E-04  0.0202
   2.8261E-01   2.8949E-01   7.5245E-04  0.0197
   2.8949E-01   2.9653E-01   7.1357E-04  0.0200
   2.9653E-01   3.0375E-01   7.1630E-04  0.0197
   3.0375E-01   3.1114E-01   6.6221E-04  0.0202
   3.1114E-01   3.1871E-01   6.4410E-04  0.0203
   3.1871E-01   3.2646E-01   6.3525E-04  0.0201
   3.2646E-01   3.3441E-01   6.1550E-04  0.0202
   3.3441E-01   3.4254E-01   6.0986E-04  0.0201
   3.4254E-01   3.5088E-01   5.7953E-04  0.0203
   3.5088E-01   3.5941E-01   5.6764E-04  0.0203
   3.5941E-01   3.6816E-01   5.5507E-04  0.0203
   3.6816E-01   3.7712E-01   5.3497E-04  0.0204
   3.7712E-01   3.8629E-01   5.1092E-04  0.0207
   3.8629E-01   3.9569E-01   5.0815E-04  0.0205
   3.9569E-01   4.0532E-01   4.6180E-04  0.0212
   4.0532E-01   4.1518E-01   4.6118E-04  0.0210
   4.1518E-01   4.2528E-01   4.7200E-04  0.0205
   4.2528E-01   4.3563E-01   4.4262E-04  0.0209
   4.3563E-01   4.4623E-01   4.2135E-04  0.0212
   4.4623E-01   4.5708E-01   4.0729E-04  0.0213
   4.5708E-01   4.6821E-01   4.0769E-04  0.0210
   4.6821E-01   4.7960E-01   3.7764E-04  0.0216
   4.7960E-01   4.9127E-01   3.7553E-04  0.0214
   4.9127E-01   5.0322E-01   3.6209E-04  0.0215
   5.0322E-01   5.1546E-01   3.5496E-04  0.0215
   5.1546E-01   5.2800E-01   3.4079E-04  0.0216
   5.2800E-01   5.4085E-01   3.1992E-04  0.0221
   5.4085E-01   5.5401E-01   3.1172E-04  0.0221
   5.5401E-01   5.6749E-01   2.9586E-04  0.0224
   5.6749E-01   5.8130E-01   2.8202E-04  0.0227
   5.8130E-01   5.9544E-01   2.7850E-04  0.0225
   5.9544E-01   6.0993E-01   2.5995E-04  0.0230
   6.0993E-01   6.2477E-01   2.5445E-04  0.0230
   6.2477E-01   6.3997E-01   2.5603E-04  0.0227
   6.3997E-01   6.5554E-01   2.4276E-04  0.0230
   6.5554E-01   6.7149E-01   2.1731E-04  0.0240
   6.7149E-01   6.8783E-01   2.1839E-04  0.0237
   6.8783E-01   7.0456E-01   2.1248E-04  0.0237
   7.0456E-01   7.2171E-01   2.0615E-04  0.0238
   7.2171E-01   7.3927E-01   1.8878E-04  0.0246
   7.3927E-01   7.5725E-01   1.8380E-04  0.0246
   7.5725E-01   7.7568E-01   1.6728E-04  0.0255
   7.7568E-01   7.9455E-01   1.7125E-04  0.0249
   7.9455E-01   8.1388E-01   1.5767E-04  0.0256
   8.1388E-01   8.3368E-01   1.5220E-04  0.0258
   8.3368E-01   8.5397E-01   1.5490E-04  0.0252
   8.5397E-01   8.7475E-01   1.3880E-04  0.0263
   8.7475E-01   8.9603E-01   1.3146E-04  0.0267
   8.9603E-01   9.1783E-01   1.2660E-04  0.0269
   9.1783E-01   9.4016E-01   1.2377E-04  0.0269
   9.4016E-01   9.6304E-01   1.1436E-04  0.0277
   9.6304E-01   9.8647E-01   1.1015E-04  0.0278
   9.8647E-01   1.0105E+00   1.0674E-04  0.0279
   1.0105E+00   1.0351E+00   1.1405E-04  0.0267
   1.0351E+00   1.0602E+00   1.1142E-04  0.0267
   1.0602E+00   1.0860E+00   1.1707E-04  0.0257
   1.0860E+00   1.1125E+00   1.1739E-04  0.0254
   1.1125E+00   1.1395E+00   1.2547E-04  0.0243
   1.1395E+00   1.1673E+00   1.3893E-04  0.0228
   1.1673E+00   1.1957E+00   1.4359E-04  0.0221
   1.1957E+00   1.2247E+00   1.5180E-04  0.0213
   1.2247E+00   1.2545E+00   1.5266E-04  0.0210
   1.2545E+00   1.2851E+00   1.5529E-04  0.0205
   1.2851E+00   1.3163E+00   1.5889E-04  0.0201
   1.3163E+00   1.3484E+00   1.5868E-04  0.0198
   1.3484E+00   1.3812E+00   1.6704E-04  0.0191
   1.3812E+00   1.4148E+00   1.6777E-04  0.0188
   1.4148E+00   1.4492E+00   1.7425E-04  0.0183
   1.4492E+00   1.4845E+00   1.7516E-04  0.0180
   1.4845E+00   1.5206E+00   1.7515E-04  0.0178
   1.5206E+00   1.5576E+00   1.7688E-04  0.0175
   1.5576E+00   1.5955E+00   1.8260E-04  0.0170
   1.5955E+00   1.6343E+00   1.8542E-04  0.0167
   1.6343E+00   1.6741E+00   1.9359E-04  0.0161
   1.6741E+00   1.7148E+00   1.9337E-04  0.0159
   1.7148E+00   1.7565E+00   1.9913E-04  0.0155
   1.7565E+00   1.7992E+00   1.9842E-04  0.0154
   1.7992E+00   1.8430E+00   1.9969E-04  0.0151
   1.8430E+00   1.8879E+00   2.0053E-04  0.0149
   1.8879E+00   1.9338E+00   1.9811E-04  0.0148
   1.9338E+00   1.9808E+00   2.0123E-04  0.0145
   1.9808E+00   2.0290E+00   2.0956E-04  0.0141
   2.0290E+00   2.0784E+00   2.0211E-04  0.0142
   2.0784E+00   2.1290E+00   1.9842E-04  0.0141
   2.1290E+00   2.1808E+00   1.9371E-04  0.0141
   2.1808E+00   2.2338E+00   1.8703E-04  0.0142
   2.2338E+00   2.2882E+00   1.9058E-04  0.0139
   2.2882E+00   2.3439E+00   1.9381E-04  0.0136
   2.3439E+00   2.4009E+00   1.9208E-04  0.0135
   2.4009E+00   2.4593E+00   1.8608E-04  0.0136
   2.4593E+00   2.5191E+00   1.8076E-04  0.0136
   2.5191E+00   2.5804E+00   1.7348E-04  0.0137
   2.5804E+00   2.6432E+00   1.7317E-04  0.0136
   2.6432E+00   2.7075E+00   1.6610E-04  0.0137
   2.7075E+00   2.7734E+00   1.6429E-04  0.0136
   2.7734E+00   2.8409E+00   1.6369E-04  0.0135
   2.8409E+00   2.9100E+00   1.6177E-04  0.0134
   2.9100E+00   2.9808E+00   1.5932E-04  0.0133
   2.9808E+00   3.0533E+00   1.5443E-04  0.0134
   3.0533E+00   3.1276E+00   1.4839E-04  0.0135
   3.1276E+00   3.2037E+00   1.3644E-04  0.0139
   3.2037E+00   3.2817E+00   1.3254E-04  0.0139
   3.2817E+00   3.3615E+00   1.2721E-04  0.0140
   3.3615E+00   3.4433E+00   1.2051E-04  0.0142
   3.4433E+00   3.5271E+00   1.1920E-04  0.0142
   3.5271E+00   3.6129E+00   1.1322E-04  0.0143
   3.6129E+00   3.7008E+00   1.0966E-04  0.0144
   3.7008E+00   3.7908E+00   1.0599E-04  0.0145
   3.7908E+00   3.8831E+00   9.8770E-05  0.0148
   3.8831E+00   3.9776E+00   9.4180E-05  0.0150
   3.9776E+00   4.0743E+00   8.9773E-05  0.0152
   4.0743E+00   4.1735E+00   8.7197E-05  0.0152
   4.1735E+00   4.2750E+00   8.1443E-05  0.0156
   4.2750E+00   4.3790E+00   7.5566E-05  0.0160
   4.3790E+00   4.4856E+00   7.3340E-05  0.0160
   4.4856E+00   4.5947E+00   6.9124E-05  0.0163
   4.5947E+00   4.7065E+00   6.4351E-05  0.0167
   4.7065E+00   4.8210E+00   6.2159E-05  0.0168
   4.8210E+00   4.9383E+00   5.9404E-05  0.0169
   4.9383E+00   5.0585E+00   5.6245E-05  0.0172
   5.0585E+00   5.1815E+00   5.3926E-05  0.0174
   5.1815E+00   5.3076E+00   4.9781E-05  0.0179
   5.3076E+00   5.4368E+00   4.7298E-05  0.0181
   5.4368E+00   5.5690E+00   4.3347E-05  0.0187
   5.5690E+00   5.7045E+00   4.2517E-05  0.0186
   5.7045E+00   5.8433E+00   3.9670E-05  0.0191
   5.8433E+00   5.9855E+00   3.8979E-05  0.0190
   5.9855E+00   6.1311E+00   3.6256E-05  0.0195
   6.1311E+00   6.2803E+00   3.5549E-05  0.0194
   6.2803E+00   6.4331E+00   3.2119E-05  0.0202
   6.4331E+00   6.5896E+00   3.0521E-05  0.0205
   6.5896E+00   6.7500E+00   2.8235E-05  0.0210
   6.7500E+00   6.9142E+00   2.7863E-05  0.0209
   6.9142E+00   7.0824E+00   2.6896E-05  0.0210
   7.0824E+00   7.2548E+00   2.5461E-05  0.0214
   7.2548E+00   7.4313E+00   2.4869E-05  0.0213
   7.4313E+00   7.6121E+00   2.3518E-05  0.0217
   7.6121E+00   7.7973E+00   2.3060E-05  0.0216
   7.7973E+00   7.9870E+00   2.2766E-05  0.0215
   7.9870E+00   8.1813E+00   2.1618E-05  0.0218
   8.1813E+00   8.3804E+00   2.1153E-05  0.0218
   8.3804E+00   8.5843E+00   2.0159E-05  0.0221
   8.5843E+00   8.7931E+00   2.0603E-05  0.0216
   8.7931E+00   9.0071E+00   2.0524E-05  0.0213
   9.0071E+00   9.2262E+00   1.9243E-05  0.0218
   9.2262E+00   9.4507E+00   1.9231E-05  0.0215
   9.4507E+00   9.6807E+00   1.9118E-05  0.0213
   9.6807E+00   9.9162E+00   1.8952E-05  0.0212
   9.9162E+00   1.0157E+01   1.9418E-05  0.0207
   1.0157E+01   1.0405E+01   1.8953E-05  0.0207
   1.0405E+01   1.0658E+01   1.8894E-05  0.0204
   1.0658E+01   1.0917E+01   1.8225E-05  0.0206
   1.0917E+01   1.1183E+01   1.8500E-05  0.0202
   1.1183E+01   1.1455E+01   1.8660E-05  0.0198
   1.1455E+01   1.1733E+01   1.8988E-05  0.0194
   1.1733E+01   1.2019E+01   1.8579E-05  0.0194
   1.2019E+01   1.2311E+01   1.9034E-05  0.0190
   1.2311E+01   1.2611E+01   1.8057E-05  0.0192
   1.2611E+01   1.2918E+01   1.8059E-05  0.0190
   1.2918E+01   1.3232E+01   1.8291E-05  0.0186
   1.3232E+01   1.3554E+01   1.7935E-05  0.0186
   1.3554E+01   1.3884E+01   1.7415E-05  0.0187
   1.3884E+01   1.4222E+01   1.7815E-05  0.0182
   1.4222E+01   1.4568E+01   1.8481E-05  0.0177
   1.4568E+01   1.4922E+01   1.8102E-05  0.0177
   1.4922E+01   1.5285E+01   1.7754E-05  0.0176
   1.5285E+01   1.5657E+01   1.7717E-05  0.0174
   1.5657E+01   1.6038E+01   1.7556E-05  0.0173
   1.6038E+01   1.6428E+01   1.7759E-05  0.0170
   1.6428E+01   1.6828E+01   1.7393E-05  0.0170
   1.6828E+01   1.7237E+01   1.6975E-05  0.0170
   1.7237E+01   1.7657E+01   1.6972E-05  0.0168
   1.7657E+01   1.8086E+01   1.6962E-05  0.0166
   1.8086E+01   1.8526E+01   1.6748E-05  0.0165
   1.8526E+01   1.8977E+01   1.6840E-05  0.0162
   1.8977E+01   1.9439E+01   1.6731E-05  0.0161
   1.9439E+01   1.9912E+01   1.6741E-05  0.0159
   1.9912E+01   2.0396E+01   1.6308E-05  0.0159
   2.0396E+01   2.0893E+01   1.6028E-05  0.0159
   2.0893E+01   2.1401E+01   1.5757E-05  0.0158
   2.1401E+01   2.1922E+01   1.6128E-05  0.0154
   2.1922E+01   2.2455E+01   1.5738E-05  0.0154
   2.2455E+01   2.3001E+01   1.5357E-05  0.0154
   2.3001E+01   2.3561E+01   1.5238E-05  0.0153
   2.3561E+01   2.4134E+01   1.4981E-05  0.0153
   2.4134E+01   2.4721E+01   1.5119E-05  0.0150
   2.4721E+01   2.5323E+01   1.4876E-05  0.0150
   2.5323E+01   2.5939E+01   1.4328E-05  0.0151
   2.5939E+01   2.6570E+01   1.4267E-05  0.0149
   2.6570E+01   2.7217E+01   1.4166E-05  0.0148
   2.7217E+01   2.7879E+01   1.3851E-05  0.0148
   2.7879E+01   2.8557E+01   1.3071E-05  0.0150
   2.8557E+01   2.9252E+01   1.3039E-05  0.0149
   2.9252E+01   2.9964E+01   1.2988E-05  0.0147
   2.9964E+01   3.0693E+01   1.2534E-05  0.0148
   3.0693E+01   3.1440E+01   1.1977E-05  0.0150
   3.1440E+01   3.2205E+01   1.1925E-05  0.0148
   3.2205E+01   3.2988E+01   1.1744E-05  0.0147
   3.2988E+01   3.3791E+01   1.1315E-05  0.0148
   3.3791E+01   3.4613E+01   1.1032E-05  0.0148
   3.4613E+01   3.5455E+01   1.0770E-05  0.0148
   3.5455E+01   3.6318E+01   1.0391E-05  0.0149
   3.6318E+01   3.7201E+01   9.8955E-06  0.0151
   3.7201E+01   3.8106E+01   9.8593E-06  0.0150
   3.8106E+01   3.9034E+01   9.6877E-06  0.0149
   3.9034E+01   3.9983E+01   9.1353E-06  0.0152
   3.9983E+01   4.0956E+01   8.8711E-06  0.0152
   4.0956E+01   4.1953E+01   8.2710E-06  0.0156
   4.1953E+01   4.2973E+01   8.3312E-06  0.0153
   4.2973E+01   4.4019E+01   8.0358E-06  0.0154
   4.4019E+01   4.5090E+01   7.6283E-06  0.0156
   4.5090E+01   4.6187E+01   7.4507E-06  0.0156
   4.6187E+01   4.7311E+01   7.2364E-06  0.0157
   4.7311E+01   4.8462E+01   6.8595E-06  0.0159
   4.8462E+01   4.9641E+01   6.5727E-06  0.0161
   4.9641E+01   5.0849E+01   6.4067E-06  0.0161
   5.0849E+01   5.2086E+01   6.0750E-06  0.0163
   5.2086E+01   5.3353E+01   5.8155E-06  0.0165
   5.3353E+01   5.4651E+01   5.4047E-06  0.0169
   5.4651E+01   5.5981E+01   5.2508E-06  0.0169
   5.5981E+01   5.7343E+01   4.9440E-06  0.0172
   5.7343E+01   5.8738E+01   4.8251E-06  0.0172
   5.8738E+01   6.0168E+01   4.5230E-06  0.0176
   6.0168E+01   6.1632E+01   4.2407E-06  0.0179
   6.1632E+01   6.3131E+01   3.7531E-06  0.0189
   6.3131E+01   6.4667E+01   3.6171E-06  0.0190
   6.4667E+01   6.6240E+01   3.2325E-06  0.0198
   6.6240E+01   6.7852E+01   2.9497E-06  0.0205
   6.7852E+01   6.9503E+01   2.5635E-06  0.0217
   6.9503E+01   7.1194E+01   2.1418E-06  0.0235
   7.1194E+01   7.2926E+01   1.7885E-06  0.0254
   7.2926E+01   7.4701E+01   1.2207E-06  0.0304
   7.4701E+01   7.6518E+01   6.4043E-07  0.0415
   7.6518E+01   7.8380E+01   7.3050E-08  0.1213
   7.8380E+01   8.0287E+01   0.0000E+00  0.0000
   8.0287E+01   8.2240E+01   0.0000E+00  0.0000
   8.2240E+01   8.4241E+01   0.0000E+00  0.0000
   8.4241E+01   8.6291E+01   0.0000E+00  0.0000
   8.6291E+01   8.8391E+01   0.0000E+00  0.0000
   8.8391E+01   9.0541E+01   0.0000E+00  0.0000
   9.0541E+01   9.2744E+01   0.0000E+00  0.0000
   9.2744E+01   9.5001E+01   0.0000E+00  0.0000
   9.5001E+01   9.7312E+01   0.0000E+00  0.0000
   9.7312E+01   9.9680E+01   0.0000E+00  0.0000
   9.9680E+01   1.0211E+02   0.0000E+00  0.0000
   1.0211E+02   1.0459E+02   0.0000E+00  0.0000
   1.0459E+02   1.0713E+02   0.0000E+00  0.0000
   1.0713E+02   1.0974E+02   0.0000E+00  0.0000
   1.0974E+02   1.1241E+02   0.0000E+00  0.0000
   1.1241E+02   1.1515E+02   0.0000E+00  0.0000
   1.1515E+02   1.1795E+02   0.0000E+00  0.0000
   1.1795E+02   1.2082E+02   0.0000E+00  0.0000
   1.2082E+02   1.2376E+02   0.0000E+00  0.0000
   1.2376E+02   1.2677E+02   0.0000E+00  0.0000
   1.2677E+02   1.2985E+02   0.0000E+00  0.0000
   1.2985E+02   1.3301E+02   0.0000E+00  0.0000
   1.3301E+02   1.3625E+02   0.0000E+00  0.0000
   1.3625E+02   1.3956E+02   0.0000E+00  0.0000
   1.3956E+02   1.4296E+02   0.0000E+00  0.0000
   1.4296E+02   1.4644E+02   0.0000E+00  0.0000
   1.4644E+02   1.5000E+02   0.0000E+00  0.0000

#   sum over                 1.4049E-05
'no. =    1   reg = 104 - 204'
msuc: {\huge [t-cross] in region mesh}
msdr: {\it plotted by \ANGEL \version}
msdl: {\it calculated by \PHITS  3.26}
wt: s(0.7)
\vspace{-3}
  region surface crossing
  area  &=&   1.0000E+00 [cm^2]
e:
 
# Information for Restart Calculation
# This calculation was newly started
# istdev =  2 # 1:Batch variance, 2:History variance
# resc2  = 5.00000000000000000E+08 # Total source weight or Total source weight / maxcas
# resc3  = 5.00000000000000000E+08 # Total history number or Total batch number
# maxcas =   100000000 # History / Batch, only used for istdev=1
# bitrseed = 1101101111010011011000101101110001100110110010110001010100010001 # bit data of rseed
