[ T-Cross ]
    title = [t-cross] in region mesh
     mesh =  reg            # mesh type is region-wise
      reg =    1            # number of crossing regions
      non     r-from    r-to       area
      1       125       225        1.000000    
   e-type =    3            # e-mesh is log given by emin, emax and ne
     emin =  1.0000000E-02  # minimum value of e-mesh points
     emax =   150.0000      # maximum value of e-mesh points
#    edel =  2.4039514E-02  # mesh width of e-mesh points
       ne =    400          # number of e-mesh points
#    data = ( e(i), i = 1, ne + 1 )
#           1.00000E-02  1.02433E-02  1.04925E-02  1.07478E-02  1.10093E-02
#           1.12772E-02  1.15516E-02  1.18326E-02  1.21205E-02  1.24154E-02
#           1.27175E-02  1.30269E-02  1.33439E-02  1.36686E-02  1.40011E-02
#           1.43418E-02  1.46907E-02  1.50482E-02  1.54143E-02  1.57894E-02
#           1.61735E-02  1.65670E-02  1.69701E-02  1.73830E-02  1.78060E-02
#           1.82392E-02  1.86830E-02  1.91375E-02  1.96032E-02  2.00801E-02
#           2.05687E-02  2.10692E-02  2.15818E-02  2.21069E-02  2.26448E-02
#           2.31957E-02  2.37601E-02  2.43382E-02  2.49304E-02  2.55369E-02
#           2.61583E-02  2.67947E-02  2.74467E-02  2.81145E-02  2.87985E-02
#           2.94992E-02  3.02169E-02  3.09521E-02  3.17052E-02  3.24766E-02
#           3.32668E-02  3.40762E-02  3.49053E-02  3.57546E-02  3.66246E-02
#           3.75157E-02  3.84284E-02  3.93634E-02  4.03212E-02  4.13022E-02
#           4.23071E-02  4.33365E-02  4.43909E-02  4.54710E-02  4.65773E-02
#           4.77106E-02  4.88714E-02  5.00605E-02  5.12785E-02  5.25262E-02
#           5.38042E-02  5.51133E-02  5.64542E-02  5.78278E-02  5.92348E-02
#           6.06760E-02  6.21523E-02  6.36645E-02  6.52135E-02  6.68002E-02
#           6.84255E-02  7.00904E-02  7.17957E-02  7.35426E-02  7.53319E-02
#           7.71648E-02  7.90423E-02  8.09655E-02  8.29354E-02  8.49533E-02
#           8.70203E-02  8.91376E-02  9.13064E-02  9.35279E-02  9.58035E-02
#           9.81345E-02  1.00522E-01  1.02968E-01  1.05473E-01  1.08040E-01
#           1.10668E-01  1.13361E-01  1.16119E-01  1.18944E-01  1.21838E-01
#           1.24803E-01  1.27839E-01  1.30950E-01  1.34136E-01  1.37399E-01
#           1.40742E-01  1.44167E-01  1.47675E-01  1.51268E-01  1.54948E-01
#           1.58718E-01  1.62580E-01  1.66535E-01  1.70587E-01  1.74738E-01
#           1.78989E-01  1.83344E-01  1.87805E-01  1.92375E-01  1.97055E-01
#           2.01850E-01  2.06761E-01  2.11792E-01  2.16945E-01  2.22223E-01
#           2.27630E-01  2.33169E-01  2.38842E-01  2.44653E-01  2.50605E-01
#           2.56703E-01  2.62949E-01  2.69346E-01  2.75900E-01  2.82613E-01
#           2.89489E-01  2.96532E-01  3.03747E-01  3.11138E-01  3.18708E-01
#           3.26462E-01  3.34405E-01  3.42542E-01  3.50876E-01  3.59413E-01
#           3.68158E-01  3.77116E-01  3.86291E-01  3.95690E-01  4.05317E-01
#           4.15179E-01  4.25281E-01  4.35628E-01  4.46227E-01  4.57084E-01
#           4.68205E-01  4.79597E-01  4.91266E-01  5.03219E-01  5.15463E-01
#           5.28005E-01  5.40851E-01  5.54011E-01  5.67490E-01  5.81298E-01
#           5.95441E-01  6.09929E-01  6.24769E-01  6.39970E-01  6.55541E-01
#           6.71491E-01  6.87828E-01  7.04564E-01  7.21706E-01  7.39266E-01
#           7.57253E-01  7.75678E-01  7.94551E-01  8.13883E-01  8.33685E-01
#           8.53969E-01  8.74747E-01  8.96030E-01  9.17831E-01  9.40163E-01
#           9.63038E-01  9.86469E-01  1.01047E+00  1.03506E+00  1.06024E+00
#           1.08604E+00  1.11246E+00  1.13953E+00  1.16725E+00  1.19565E+00
#           1.22474E+00  1.25454E+00  1.28507E+00  1.31633E+00  1.34836E+00
#           1.38117E+00  1.41477E+00  1.44920E+00  1.48446E+00  1.52057E+00
#           1.55757E+00  1.59547E+00  1.63429E+00  1.67405E+00  1.71478E+00
#           1.75650E+00  1.79924E+00  1.84302E+00  1.88786E+00  1.93379E+00
#           1.98084E+00  2.02904E+00  2.07841E+00  2.12898E+00  2.18078E+00
#           2.23384E+00  2.28819E+00  2.34386E+00  2.40089E+00  2.45930E+00
#           2.51914E+00  2.58043E+00  2.64322E+00  2.70753E+00  2.77341E+00
#           2.84088E+00  2.91001E+00  2.98081E+00  3.05333E+00  3.12762E+00
#           3.20372E+00  3.28167E+00  3.36152E+00  3.44330E+00  3.52708E+00
#           3.61290E+00  3.70080E+00  3.79085E+00  3.88308E+00  3.97756E+00
#           4.07434E+00  4.17347E+00  4.27501E+00  4.37903E+00  4.48557E+00
#           4.59471E+00  4.70650E+00  4.82102E+00  4.93832E+00  5.05847E+00
#           5.18155E+00  5.30762E+00  5.43676E+00  5.56904E+00  5.70453E+00
#           5.84333E+00  5.98550E+00  6.13114E+00  6.28031E+00  6.43312E+00
#           6.58964E+00  6.74997E+00  6.91420E+00  7.08243E+00  7.25475E+00
#           7.43126E+00  7.61207E+00  7.79728E+00  7.98700E+00  8.18133E+00
#           8.38038E+00  8.58428E+00  8.79315E+00  9.00709E+00  9.22624E+00
#           9.45072E+00  9.68067E+00  9.91620E+00  1.01575E+01  1.04046E+01
#           1.06578E+01  1.09171E+01  1.11827E+01  1.14548E+01  1.17335E+01
#           1.20190E+01  1.23114E+01  1.26109E+01  1.29178E+01  1.32321E+01
#           1.35540E+01  1.38838E+01  1.42216E+01  1.45676E+01  1.49221E+01
#           1.52851E+01  1.56570E+01  1.60380E+01  1.64282E+01  1.68279E+01
#           1.72374E+01  1.76568E+01  1.80864E+01  1.85264E+01  1.89772E+01
#           1.94389E+01  1.99119E+01  2.03963E+01  2.08926E+01  2.14009E+01
#           2.19216E+01  2.24550E+01  2.30014E+01  2.35610E+01  2.41343E+01
#           2.47215E+01  2.53230E+01  2.59391E+01  2.65702E+01  2.72167E+01
#           2.78789E+01  2.85572E+01  2.92520E+01  2.99637E+01  3.06928E+01
#           3.14396E+01  3.22045E+01  3.29881E+01  3.37907E+01  3.46128E+01
#           3.54550E+01  3.63177E+01  3.72013E+01  3.81064E+01  3.90336E+01
#           3.99833E+01  4.09561E+01  4.19526E+01  4.29734E+01  4.40189E+01
#           4.50900E+01  4.61870E+01  4.73108E+01  4.84619E+01  4.96410E+01
#           5.08488E+01  5.20860E+01  5.33533E+01  5.46514E+01  5.59812E+01
#           5.73432E+01  5.87384E+01  6.01676E+01  6.16315E+01  6.31311E+01
#           6.46671E+01  6.62405E+01  6.78522E+01  6.95031E+01  7.11941E+01
#           7.29263E+01  7.47007E+01  7.65182E+01  7.83800E+01  8.02870E+01
#           8.22405E+01  8.42414E+01  8.62911E+01  8.83906E+01  9.05412E+01
#           9.27442E+01  9.50007E+01  9.73122E+01  9.96799E+01  1.02105E+02
#           1.04589E+02  1.07134E+02  1.09741E+02  1.12411E+02  1.15146E+02
#           1.17948E+02  1.20817E+02  1.23757E+02  1.26768E+02  1.29852E+02
#           1.33012E+02  1.36248E+02  1.39563E+02  1.42959E+02  1.46437E+02
#           1.50000E+02
     unit =    2            # unit is [1/cm^2/(MeV/n)/source]
     axis =  eng            # axis of output
     file = detector-26.out  # file name of output for the above axis
   output = f-curr          # surface crossing forward current spectrum
     part =  neutron  
# kf/name :  2112     
#    used :        main (  %)        temp (  %)       total (  %)
#  memory :         414 (  0)           0 (  0)         414 (  0)

#------------------------------------------------------------------------------
#newpage:
#   no. =    1   reg = 125 - 225

x: Energy [MeV/n]
y:  F-Curr [1/cm^2/(MeV/n)/source]         
p: xlog ylog afac(0.8) form(0.9)
h: n            x            y(neutron ),hh0l   n 
#  e-lower      e-upper      neutron     r.err 
   1.0000E-02   1.0243E-02   1.2248E-04  0.0819
   1.0243E-02   1.0493E-02   1.1957E-04  0.0819
   1.0493E-02   1.0748E-02   1.0576E-04  0.0861
   1.0748E-02   1.1009E-02   1.3155E-04  0.0762
   1.1009E-02   1.1277E-02   1.0528E-04  0.0842
   1.1277E-02   1.1552E-02   1.0642E-04  0.0828
   1.1552E-02   1.1833E-02   1.1386E-04  0.0791
   1.1833E-02   1.2121E-02   1.1810E-04  0.0767
   1.2121E-02   1.2415E-02   1.2614E-04  0.0733
   1.2415E-02   1.2718E-02   1.1785E-04  0.0750
   1.2718E-02   1.3027E-02   1.0568E-04  0.0781
   1.3027E-02   1.3344E-02   1.0979E-04  0.0758
   1.3344E-02   1.3669E-02   9.5482E-05  0.0803
   1.3669E-02   1.4001E-02   1.2629E-04  0.0690
   1.4001E-02   1.4342E-02   1.2270E-04  0.0692
   1.4342E-02   1.4691E-02   1.1291E-04  0.0712
   1.4691E-02   1.5048E-02   1.1638E-04  0.0693
   1.5048E-02   1.5414E-02   1.1417E-04  0.0692
   1.5414E-02   1.5789E-02   1.1252E-04  0.0688
   1.5789E-02   1.6174E-02   9.6312E-05  0.0735
   1.6174E-02   1.6567E-02   1.2249E-04  0.0644
   1.6567E-02   1.6970E-02   1.1213E-04  0.0665
   1.6970E-02   1.7383E-02   1.0705E-04  0.0673
   1.7383E-02   1.7806E-02   1.3193E-04  0.0599
   1.7806E-02   1.8239E-02   1.2280E-04  0.0613
   1.8239E-02   1.8683E-02   1.1582E-04  0.0624
   1.8683E-02   1.9138E-02   1.2231E-04  0.0600
   1.9138E-02   1.9603E-02   1.1554E-04  0.0610
   1.9603E-02   2.0080E-02   1.1070E-04  0.0615
   2.0080E-02   2.0569E-02   1.0111E-04  0.0636
   2.0569E-02   2.1069E-02   1.2988E-04  0.0555
   2.1069E-02   2.1582E-02   1.1548E-04  0.0581
   2.1582E-02   2.2107E-02   1.1655E-04  0.0572
   2.2107E-02   2.2645E-02   1.3126E-04  0.0532
   2.2645E-02   2.3196E-02   1.2015E-04  0.0550
   2.3196E-02   2.3760E-02   1.1021E-04  0.0567
   2.3760E-02   2.4338E-02   1.2178E-04  0.0533
   2.4338E-02   2.4930E-02   1.2632E-04  0.0517
   2.4930E-02   2.5537E-02   1.2167E-04  0.0521
   2.5537E-02   2.6158E-02   1.0944E-04  0.0542
   2.6158E-02   2.6795E-02   1.3292E-04  0.0486
   2.6795E-02   2.7447E-02   1.1013E-04  0.0528
   2.7447E-02   2.8114E-02   1.1860E-04  0.0503
   2.8114E-02   2.8799E-02   1.1052E-04  0.0514
   2.8799E-02   2.9499E-02   1.1589E-04  0.0496
   2.9499E-02   3.0217E-02   1.2428E-04  0.0474
   3.0217E-02   3.0952E-02   1.1697E-04  0.0482
   3.0952E-02   3.1705E-02   1.1712E-04  0.0476
   3.1705E-02   3.2477E-02   1.2782E-04  0.0450
   3.2477E-02   3.3267E-02   1.2503E-04  0.0450
   3.3267E-02   3.4076E-02   1.2330E-04  0.0448
   3.4076E-02   3.4905E-02   1.2206E-04  0.0445
   3.4905E-02   3.5755E-02   1.1704E-04  0.0449
   3.5755E-02   3.6625E-02   1.1725E-04  0.0443
   3.6625E-02   3.7516E-02   1.1985E-04  0.0433
   3.7516E-02   3.8428E-02   1.1339E-04  0.0439
   3.8428E-02   3.9363E-02   1.2513E-04  0.0413
   3.9363E-02   4.0321E-02   1.1423E-04  0.0428
   4.0321E-02   4.1302E-02   1.1579E-04  0.0420
   4.1302E-02   4.2307E-02   1.2021E-04  0.0407
   4.2307E-02   4.3337E-02   1.2066E-04  0.0401
   4.3337E-02   4.4391E-02   1.2367E-04  0.0392
   4.4391E-02   4.5471E-02   1.2203E-04  0.0390
   4.5471E-02   4.6577E-02   1.2455E-04  0.0381
   4.6577E-02   4.7711E-02   1.2080E-04  0.0382
   4.7711E-02   4.8871E-02   1.2612E-04  0.0370
   4.8871E-02   5.0061E-02   1.3086E-04  0.0359
   5.0061E-02   5.1279E-02   1.2052E-04  0.0369
   5.1279E-02   5.2526E-02   1.3017E-04  0.0351
   5.2526E-02   5.3804E-02   1.3427E-04  0.0341
   5.3804E-02   5.5113E-02   1.2742E-04  0.0346
   5.5113E-02   5.6454E-02   1.3065E-04  0.0338
   5.6454E-02   5.7828E-02   1.2711E-04  0.0338
   5.7828E-02   5.9235E-02   1.3539E-04  0.0324
   5.9235E-02   6.0676E-02   1.1976E-04  0.0340
   6.0676E-02   6.2152E-02   1.2613E-04  0.0328
   6.2152E-02   6.3665E-02   1.3107E-04  0.0318
   6.3665E-02   6.5214E-02   1.2924E-04  0.0316
   6.5214E-02   6.6800E-02   1.2353E-04  0.0319
   6.6800E-02   6.8426E-02   1.3358E-04  0.0303
   6.8426E-02   7.0090E-02   1.2878E-04  0.0305
   7.0090E-02   7.1796E-02   1.2244E-04  0.0309
   7.1796E-02   7.3543E-02   1.3029E-04  0.0296
   7.3543E-02   7.5332E-02   1.3279E-04  0.0290
   7.5332E-02   7.7165E-02   1.3291E-04  0.0287
   7.7165E-02   7.9042E-02   1.3230E-04  0.0284
   7.9042E-02   8.0965E-02   1.4091E-04  0.0272
   8.0965E-02   8.2935E-02   1.3787E-04  0.0271
   8.2935E-02   8.4953E-02   1.3291E-04  0.0273
   8.4953E-02   8.7020E-02   1.3246E-04  0.0270
   8.7020E-02   8.9138E-02   1.3102E-04  0.0269
   8.9138E-02   9.1306E-02   1.3275E-04  0.0264
   9.1306E-02   9.3528E-02   1.3333E-04  0.0260
   9.3528E-02   9.5804E-02   1.4097E-04  0.0250
   9.5804E-02   9.8134E-02   1.3574E-04  0.0251
   9.8134E-02   1.0052E-01   1.4139E-04  0.0243
   1.0052E-01   1.0297E-01   1.3673E-04  0.0245
   1.0297E-01   1.0547E-01   1.3883E-04  0.0240
   1.0547E-01   1.0804E-01   1.3833E-04  0.0237
   1.0804E-01   1.1067E-01   1.3961E-04  0.0233
   1.1067E-01   1.1336E-01   1.3964E-04  0.0231
   1.1336E-01   1.1612E-01   1.4002E-04  0.0228
   1.1612E-01   1.1894E-01   1.4296E-04  0.0223
   1.1894E-01   1.2184E-01   1.4575E-04  0.0218
   1.2184E-01   1.2480E-01   1.4310E-04  0.0217
   1.2480E-01   1.2784E-01   1.4378E-04  0.0214
   1.2784E-01   1.3095E-01   1.4390E-04  0.0211
   1.3095E-01   1.3414E-01   1.5203E-04  0.0203
   1.3414E-01   1.3740E-01   1.4358E-04  0.0207
   1.3740E-01   1.4074E-01   1.4592E-04  0.0202
   1.4074E-01   1.4417E-01   1.5066E-04  0.0197
   1.4417E-01   1.4767E-01   1.3924E-04  0.0202
   1.4767E-01   1.5127E-01   1.4695E-04  0.0195
   1.5127E-01   1.5495E-01   1.4854E-04  0.0191
   1.5495E-01   1.5872E-01   1.4398E-04  0.0192
   1.5872E-01   1.6258E-01   1.5356E-04  0.0184
   1.6258E-01   1.6654E-01   1.4379E-04  0.0188
   1.6654E-01   1.7059E-01   1.4823E-04  0.0182
   1.7059E-01   1.7474E-01   1.5160E-04  0.0178
   1.7474E-01   1.7899E-01   1.4992E-04  0.0177
   1.7899E-01   1.8334E-01   1.5183E-04  0.0174
   1.8334E-01   1.8781E-01   1.5190E-04  0.0172
   1.8781E-01   1.9237E-01   1.5604E-04  0.0167
   1.9237E-01   1.9706E-01   1.5498E-04  0.0166
   1.9706E-01   2.0185E-01   1.5839E-04  0.0162
   2.0185E-01   2.0676E-01   1.5799E-04  0.0161
   2.0676E-01   2.1179E-01   1.5785E-04  0.0159
   2.1179E-01   2.1694E-01   1.5245E-04  0.0160
   2.1694E-01   2.2222E-01   1.5997E-04  0.0154
   2.2222E-01   2.2763E-01   1.6109E-04  0.0152
   2.2763E-01   2.3317E-01   1.5770E-04  0.0151
   2.3317E-01   2.3884E-01   1.5452E-04  0.0151
   2.3884E-01   2.4465E-01   1.6114E-04  0.0146
   2.4465E-01   2.5061E-01   1.5781E-04  0.0146
   2.5061E-01   2.5670E-01   1.5675E-04  0.0145
   2.5670E-01   2.6295E-01   1.6376E-04  0.0140
   2.6295E-01   2.6935E-01   1.6020E-04  0.0140
   2.6935E-01   2.7590E-01   1.5912E-04  0.0138
   2.7590E-01   2.8261E-01   1.6558E-04  0.0134
   2.8261E-01   2.8949E-01   1.6532E-04  0.0133
   2.8949E-01   2.9653E-01   1.6299E-04  0.0132
   2.9653E-01   3.0375E-01   1.6618E-04  0.0129
   3.0375E-01   3.1114E-01   1.6743E-04  0.0127
   3.1114E-01   3.1871E-01   1.6414E-04  0.0127
   3.1871E-01   3.2646E-01   1.6472E-04  0.0125
   3.2646E-01   3.3441E-01   1.6769E-04  0.0123
   3.3441E-01   3.4254E-01   1.7064E-04  0.0120
   3.4254E-01   3.5088E-01   1.6839E-04  0.0119
   3.5088E-01   3.5941E-01   1.6668E-04  0.0119
   3.5941E-01   3.6816E-01   1.6696E-04  0.0117
   3.6816E-01   3.7712E-01   1.6913E-04  0.0115
   3.7712E-01   3.8629E-01   1.7274E-04  0.0112
   3.8629E-01   3.9569E-01   1.7104E-04  0.0112
   3.9569E-01   4.0532E-01   1.6929E-04  0.0111
   4.0532E-01   4.1518E-01   1.7189E-04  0.0109
   4.1518E-01   4.2528E-01   1.7360E-04  0.0107
   4.2528E-01   4.3563E-01   1.6921E-04  0.0107
   4.3563E-01   4.4623E-01   1.7018E-04  0.0105
   4.4623E-01   4.5708E-01   1.6972E-04  0.0104
   4.5708E-01   4.6821E-01   1.6969E-04  0.0103
   4.6821E-01   4.7960E-01   1.7135E-04  0.0101
   4.7960E-01   4.9127E-01   1.7283E-04  0.0100
   4.9127E-01   5.0322E-01   1.6918E-04  0.0099
   5.0322E-01   5.1546E-01   1.6957E-04  0.0098
   5.1546E-01   5.2800E-01   1.7178E-04  0.0096
   5.2800E-01   5.4085E-01   1.7124E-04  0.0095
   5.4085E-01   5.5401E-01   1.7083E-04  0.0094
   5.5401E-01   5.6749E-01   1.7041E-04  0.0093
   5.6749E-01   5.8130E-01   1.7124E-04  0.0092
   5.8130E-01   5.9544E-01   1.6474E-04  0.0093
   5.9544E-01   6.0993E-01   1.6685E-04  0.0091
   6.0993E-01   6.2477E-01   1.6777E-04  0.0090
   6.2477E-01   6.3997E-01   1.6662E-04  0.0089
   6.3997E-01   6.5554E-01   1.6556E-04  0.0088
   6.5554E-01   6.7149E-01   1.6079E-04  0.0088
   6.7149E-01   6.8783E-01   1.5990E-04  0.0087
   6.8783E-01   7.0456E-01   1.6088E-04  0.0086
   7.0456E-01   7.2171E-01   1.5711E-04  0.0086
   7.2171E-01   7.3927E-01   1.5593E-04  0.0085
   7.3927E-01   7.5725E-01   1.5489E-04  0.0085
   7.5725E-01   7.7568E-01   1.5366E-04  0.0084
   7.7568E-01   7.9455E-01   1.4751E-04  0.0085
   7.9455E-01   8.1388E-01   1.4743E-04  0.0084
   8.1388E-01   8.3368E-01   1.4481E-04  0.0084
   8.3368E-01   8.5397E-01   1.4197E-04  0.0083
   8.5397E-01   8.7475E-01   1.3806E-04  0.0084
   8.7475E-01   8.9603E-01   1.3388E-04  0.0084
   8.9603E-01   9.1783E-01   1.3176E-04  0.0083
   9.1783E-01   9.4016E-01   1.2721E-04  0.0084
   9.4016E-01   9.6304E-01   1.1989E-04  0.0085
   9.6304E-01   9.8647E-01   1.1543E-04  0.0086
   9.8647E-01   1.0105E+00   1.1121E-04  0.0087
   1.0105E+00   1.0351E+00   1.0795E-04  0.0087
   1.0351E+00   1.0602E+00   1.0585E-04  0.0087
   1.0602E+00   1.0860E+00   1.0693E-04  0.0085
   1.0860E+00   1.1125E+00   1.0458E-04  0.0085
   1.1125E+00   1.1395E+00   1.0365E-04  0.0084
   1.1395E+00   1.1673E+00   1.0395E-04  0.0083
   1.1673E+00   1.1957E+00   1.0278E-04  0.0083
   1.1957E+00   1.2247E+00   1.0395E-04  0.0081
   1.2247E+00   1.2545E+00   1.0050E-04  0.0082
   1.2545E+00   1.2851E+00   9.8893E-05  0.0081
   1.2851E+00   1.3163E+00   9.7497E-05  0.0081
   1.3163E+00   1.3484E+00   9.5630E-05  0.0081
   1.3484E+00   1.3812E+00   9.4383E-05  0.0080
   1.3812E+00   1.4148E+00   9.3385E-05  0.0080
   1.4148E+00   1.4492E+00   8.9284E-05  0.0081
   1.4492E+00   1.4845E+00   8.8848E-05  0.0080
   1.4845E+00   1.5206E+00   8.5265E-05  0.0081
   1.5206E+00   1.5576E+00   8.4142E-05  0.0080
   1.5576E+00   1.5955E+00   8.0022E-05  0.0081
   1.5955E+00   1.6343E+00   7.7181E-05  0.0082
   1.6343E+00   1.6741E+00   7.5753E-05  0.0081
   1.6741E+00   1.7148E+00   7.3195E-05  0.0082
   1.7148E+00   1.7565E+00   7.2161E-05  0.0082
   1.7565E+00   1.7992E+00   6.8116E-05  0.0083
   1.7992E+00   1.8430E+00   6.6642E-05  0.0083
   1.8430E+00   1.8879E+00   6.2970E-05  0.0084
   1.8879E+00   1.9338E+00   6.0338E-05  0.0085
   1.9338E+00   1.9808E+00   5.7855E-05  0.0086
   1.9808E+00   2.0290E+00   5.6094E-05  0.0086
   2.0290E+00   2.0784E+00   5.3820E-05  0.0087
   2.0784E+00   2.1290E+00   5.1950E-05  0.0087
   2.1290E+00   2.1808E+00   4.8282E-05  0.0089
   2.1808E+00   2.2338E+00   4.6432E-05  0.0090
   2.2338E+00   2.2882E+00   4.4174E-05  0.0091
   2.2882E+00   2.3439E+00   4.1481E-05  0.0093
   2.3439E+00   2.4009E+00   3.9991E-05  0.0094
   2.4009E+00   2.4593E+00   3.8476E-05  0.0094
   2.4593E+00   2.5191E+00   3.5801E-05  0.0097
   2.5191E+00   2.5804E+00   3.3942E-05  0.0098
   2.5804E+00   2.6432E+00   3.1941E-05  0.0100
   2.6432E+00   2.7075E+00   3.1165E-05  0.0100
   2.7075E+00   2.7734E+00   2.8983E-05  0.0102
   2.7734E+00   2.8409E+00   2.7065E-05  0.0105
   2.8409E+00   2.9100E+00   2.5201E-05  0.0107
   2.9100E+00   2.9808E+00   2.4441E-05  0.0108
   2.9808E+00   3.0533E+00   2.3131E-05  0.0109
   3.0533E+00   3.1276E+00   2.1436E-05  0.0112
   3.1276E+00   3.2037E+00   2.0321E-05  0.0114
   3.2037E+00   3.2817E+00   1.8675E-05  0.0117
   3.2817E+00   3.3615E+00   1.7793E-05  0.0119
   3.3615E+00   3.4433E+00   1.7170E-05  0.0119
   3.4433E+00   3.5271E+00   1.6227E-05  0.0121
   3.5271E+00   3.6129E+00   1.5073E-05  0.0124
   3.6129E+00   3.7008E+00   1.3962E-05  0.0128
   3.7008E+00   3.7908E+00   1.2929E-05  0.0131
   3.7908E+00   3.8831E+00   1.2170E-05  0.0133
   3.8831E+00   3.9776E+00   1.1578E-05  0.0135
   3.9776E+00   4.0743E+00   1.0930E-05  0.0137
   4.0743E+00   4.1735E+00   1.0305E-05  0.0140
   4.1735E+00   4.2750E+00   9.8036E-06  0.0142
   4.2750E+00   4.3790E+00   8.8853E-06  0.0147
   4.3790E+00   4.4856E+00   8.5532E-06  0.0148
   4.4856E+00   4.5947E+00   8.0834E-06  0.0151
   4.5947E+00   4.7065E+00   7.1928E-06  0.0158
   4.7065E+00   4.8210E+00   6.8315E-06  0.0160
   4.8210E+00   4.9383E+00   6.5457E-06  0.0161
   4.9383E+00   5.0585E+00   5.9416E-06  0.0167
   5.0585E+00   5.1815E+00   5.5900E-06  0.0170
   5.1815E+00   5.3076E+00   5.2597E-06  0.0174
   5.3076E+00   5.4368E+00   4.7716E-06  0.0180
   5.4368E+00   5.5690E+00   4.4942E-06  0.0183
   5.5690E+00   5.7045E+00   4.1314E-06  0.0189
   5.7045E+00   5.8433E+00   3.8301E-06  0.0194
   5.8433E+00   5.9855E+00   3.5133E-06  0.0200
   5.9855E+00   6.1311E+00   3.3145E-06  0.0203
   6.1311E+00   6.2803E+00   3.0233E-06  0.0211
   6.2803E+00   6.4331E+00   2.7866E-06  0.0217
   6.4331E+00   6.5896E+00   2.5159E-06  0.0225
   6.5896E+00   6.7500E+00   2.3545E-06  0.0230
   6.7500E+00   6.9142E+00   2.2231E-06  0.0234
   6.9142E+00   7.0824E+00   2.0758E-06  0.0239
   7.0824E+00   7.2548E+00   1.9702E-06  0.0243
   7.2548E+00   7.4313E+00   1.7489E-06  0.0254
   7.4313E+00   7.6121E+00   1.6061E-06  0.0262
   7.6121E+00   7.7973E+00   1.5178E-06  0.0267
   7.7973E+00   7.9870E+00   1.3056E-06  0.0284
   7.9870E+00   8.1813E+00   1.2577E-06  0.0286
   8.1813E+00   8.3804E+00   1.1298E-06  0.0298
   8.3804E+00   8.5843E+00   1.0843E-06  0.0301
   8.5843E+00   8.7931E+00   9.3219E-07  0.0320
   8.7931E+00   9.0071E+00   8.6378E-07  0.0329
   9.0071E+00   9.2262E+00   7.6112E-07  0.0346
   9.2262E+00   9.4507E+00   7.5062E-07  0.0344
   9.4507E+00   9.6807E+00   6.3624E-07  0.0370
   9.6807E+00   9.9162E+00   6.1943E-07  0.0370
   9.9162E+00   1.0157E+01   5.9601E-07  0.0373
   1.0157E+01   1.0405E+01   5.2926E-07  0.0391
   1.0405E+01   1.0658E+01   4.9298E-07  0.0400
   1.0658E+01   1.0917E+01   4.4965E-07  0.0414
   1.0917E+01   1.1183E+01   4.2466E-07  0.0421
   1.1183E+01   1.1455E+01   3.8775E-07  0.0435
   1.1455E+01   1.1733E+01   3.6490E-07  0.0443
   1.1733E+01   1.2019E+01   3.2821E-07  0.0462
   1.2019E+01   1.2311E+01   3.2213E-07  0.0461
   1.2311E+01   1.2611E+01   2.7241E-07  0.0495
   1.2611E+01   1.2918E+01   2.6138E-07  0.0499
   1.2918E+01   1.3232E+01   2.3990E-07  0.0515
   1.3232E+01   1.3554E+01   2.4352E-07  0.0505
   1.3554E+01   1.3884E+01   1.8558E-07  0.0571
   1.3884E+01   1.4222E+01   1.7229E-07  0.0586
   1.4222E+01   1.4568E+01   1.7918E-07  0.0568
   1.4568E+01   1.4922E+01   1.6279E-07  0.0588
   1.4922E+01   1.5285E+01   1.4102E-07  0.0625
   1.5285E+01   1.5657E+01   1.2960E-07  0.0644
   1.5657E+01   1.6038E+01   1.2390E-07  0.0651
   1.6038E+01   1.6428E+01   1.1968E-07  0.0654
   1.6428E+01   1.6828E+01   1.0207E-07  0.0700
   1.6828E+01   1.7237E+01   9.4764E-08  0.0718
   1.7237E+01   1.7657E+01   1.0014E-07  0.0690
   1.7657E+01   1.8086E+01   7.7281E-08  0.0776
   1.8086E+01   1.8526E+01   7.5900E-08  0.0774
   1.8526E+01   1.8977E+01   5.8124E-08  0.0874
   1.8977E+01   1.9439E+01   6.6706E-08  0.0806
   1.9439E+01   1.9912E+01   5.5395E-08  0.0874
   1.9912E+01   2.0396E+01   5.8208E-08  0.0842
   2.0396E+01   2.0893E+01   4.1108E-08  0.0990
   2.0893E+01   2.1401E+01   4.8787E-08  0.0898
   2.1401E+01   2.1922E+01   3.6873E-08  0.1021
   2.1922E+01   2.2455E+01   4.1622E-08  0.0949
   2.2455E+01   2.3001E+01   3.6241E-08  0.1005
   2.3001E+01   2.3561E+01   2.9662E-08  0.1098
   2.3561E+01   2.4134E+01   2.6864E-08  0.1140
   2.4134E+01   2.4721E+01   2.3842E-08  0.1195
   2.4721E+01   2.5323E+01   1.8288E-08  0.1348
   2.5323E+01   2.5939E+01   1.7529E-08  0.1361
   2.5939E+01   2.6570E+01   1.6796E-08  0.1374
   2.6570E+01   2.7217E+01   1.2994E-08  0.1543
   2.7217E+01   2.7879E+01   1.2685E-08  0.1543
   2.7879E+01   2.8557E+01   1.2678E-08  0.1525
   2.8557E+01   2.9252E+01   8.0597E-09  0.1890
   2.9252E+01   2.9964E+01   6.4632E-09  0.2085
   2.9964E+01   3.0693E+01   6.0353E-09  0.2132
   3.0693E+01   3.1440E+01   4.8207E-09  0.2357
   3.1440E+01   3.2205E+01   4.7062E-09  0.2357
   3.2205E+01   3.2988E+01   3.5734E-09  0.2673
   3.2988E+01   3.3791E+01   1.9935E-09  0.3536
   3.3791E+01   3.4613E+01   9.7305E-10  0.5000
   3.4613E+01   3.5455E+01   2.6123E-09  0.3015
   3.5455E+01   3.6318E+01   2.0866E-09  0.3333
   3.6318E+01   3.7201E+01   9.0535E-10  0.5000
   3.7201E+01   3.8106E+01   1.5467E-09  0.3780
   3.8106E+01   3.9034E+01   1.2943E-09  0.4082
   3.9034E+01   3.9983E+01   2.1059E-10  1.0000
   3.9983E+01   4.0956E+01   4.1117E-10  0.7071
   4.0956E+01   4.1953E+01   0.0000E+00  0.0000
   4.1953E+01   4.2973E+01   1.9594E-10  1.0000
   4.2973E+01   4.4019E+01   0.0000E+00  0.0000
   4.4019E+01   4.5090E+01   0.0000E+00  0.0000
   4.5090E+01   4.6187E+01   0.0000E+00  0.0000
   4.6187E+01   4.7311E+01   0.0000E+00  0.0000
   4.7311E+01   4.8462E+01   0.0000E+00  0.0000
   4.8462E+01   4.9641E+01   0.0000E+00  0.0000
   4.9641E+01   5.0849E+01   0.0000E+00  0.0000
   5.0849E+01   5.2086E+01   0.0000E+00  0.0000
   5.2086E+01   5.3353E+01   0.0000E+00  0.0000
   5.3353E+01   5.4651E+01   0.0000E+00  0.0000
   5.4651E+01   5.5981E+01   0.0000E+00  0.0000
   5.5981E+01   5.7343E+01   0.0000E+00  0.0000
   5.7343E+01   5.8738E+01   0.0000E+00  0.0000
   5.8738E+01   6.0168E+01   0.0000E+00  0.0000
   6.0168E+01   6.1632E+01   0.0000E+00  0.0000
   6.1632E+01   6.3131E+01   0.0000E+00  0.0000
   6.3131E+01   6.4667E+01   0.0000E+00  0.0000
   6.4667E+01   6.6240E+01   0.0000E+00  0.0000
   6.6240E+01   6.7852E+01   0.0000E+00  0.0000
   6.7852E+01   6.9503E+01   0.0000E+00  0.0000
   6.9503E+01   7.1194E+01   0.0000E+00  0.0000
   7.1194E+01   7.2926E+01   0.0000E+00  0.0000
   7.2926E+01   7.4701E+01   0.0000E+00  0.0000
   7.4701E+01   7.6518E+01   0.0000E+00  0.0000
   7.6518E+01   7.8380E+01   0.0000E+00  0.0000
   7.8380E+01   8.0287E+01   0.0000E+00  0.0000
   8.0287E+01   8.2240E+01   0.0000E+00  0.0000
   8.2240E+01   8.4241E+01   0.0000E+00  0.0000
   8.4241E+01   8.6291E+01   0.0000E+00  0.0000
   8.6291E+01   8.8391E+01   0.0000E+00  0.0000
   8.8391E+01   9.0541E+01   0.0000E+00  0.0000
   9.0541E+01   9.2744E+01   0.0000E+00  0.0000
   9.2744E+01   9.5001E+01   0.0000E+00  0.0000
   9.5001E+01   9.7312E+01   0.0000E+00  0.0000
   9.7312E+01   9.9680E+01   0.0000E+00  0.0000
   9.9680E+01   1.0211E+02   0.0000E+00  0.0000
   1.0211E+02   1.0459E+02   0.0000E+00  0.0000
   1.0459E+02   1.0713E+02   0.0000E+00  0.0000
   1.0713E+02   1.0974E+02   0.0000E+00  0.0000
   1.0974E+02   1.1241E+02   0.0000E+00  0.0000
   1.1241E+02   1.1515E+02   0.0000E+00  0.0000
   1.1515E+02   1.1795E+02   0.0000E+00  0.0000
   1.1795E+02   1.2082E+02   0.0000E+00  0.0000
   1.2082E+02   1.2376E+02   0.0000E+00  0.0000
   1.2376E+02   1.2677E+02   0.0000E+00  0.0000
   1.2677E+02   1.2985E+02   0.0000E+00  0.0000
   1.2985E+02   1.3301E+02   0.0000E+00  0.0000
   1.3301E+02   1.3625E+02   0.0000E+00  0.0000
   1.3625E+02   1.3956E+02   0.0000E+00  0.0000
   1.3956E+02   1.4296E+02   0.0000E+00  0.0000
   1.4296E+02   1.4644E+02   0.0000E+00  0.0000
   1.4644E+02   1.5000E+02   0.0000E+00  0.0000

#   sum over                 2.0655E-06
'no. =    1   reg = 125 - 225'
msuc: {\huge [t-cross] in region mesh}
msdr: {\it plotted by \ANGEL \version}
msdl: {\it calculated by \PHITS  3.26}
wt: s(0.7)
\vspace{-3}
  region surface crossing
  area  &=&   1.0000E+00 [cm^2]
e:
 
# Information for Restart Calculation
# This calculation was newly started
# istdev =  2 # 1:Batch variance, 2:History variance
# resc2  = 5.00000000000000000E+09 # Total source weight or Total source weight / maxcas
# resc3  = 5.00000000000000000E+09 # Total history number or Total batch number
# maxcas =   500000000 # History / Batch, only used for istdev=1
# bitrseed = 0110100000100010111000001110001111001110100100011111101000111001 # bit data of rseed
