[ T-Cross ]
    title = [t-cross] in region mesh
     mesh =  reg            # mesh type is region-wise
      reg =    1            # number of crossing regions
      non     r-from    r-to       area
      1       109       209        1.000000    
   e-type =    3            # e-mesh is log given by emin, emax and ne
     emin =  1.0000000E-02  # minimum value of e-mesh points
     emax =   150.0000      # maximum value of e-mesh points
#    edel =  2.4039514E-02  # mesh width of e-mesh points
       ne =    400          # number of e-mesh points
#    data = ( e(i), i = 1, ne + 1 )
#           1.00000E-02  1.02433E-02  1.04925E-02  1.07478E-02  1.10093E-02
#           1.12772E-02  1.15516E-02  1.18326E-02  1.21205E-02  1.24154E-02
#           1.27175E-02  1.30269E-02  1.33439E-02  1.36686E-02  1.40011E-02
#           1.43418E-02  1.46907E-02  1.50482E-02  1.54143E-02  1.57894E-02
#           1.61735E-02  1.65670E-02  1.69701E-02  1.73830E-02  1.78060E-02
#           1.82392E-02  1.86830E-02  1.91375E-02  1.96032E-02  2.00801E-02
#           2.05687E-02  2.10692E-02  2.15818E-02  2.21069E-02  2.26448E-02
#           2.31957E-02  2.37601E-02  2.43382E-02  2.49304E-02  2.55369E-02
#           2.61583E-02  2.67947E-02  2.74467E-02  2.81145E-02  2.87985E-02
#           2.94992E-02  3.02169E-02  3.09521E-02  3.17052E-02  3.24766E-02
#           3.32668E-02  3.40762E-02  3.49053E-02  3.57546E-02  3.66246E-02
#           3.75157E-02  3.84284E-02  3.93634E-02  4.03212E-02  4.13022E-02
#           4.23071E-02  4.33365E-02  4.43909E-02  4.54710E-02  4.65773E-02
#           4.77106E-02  4.88714E-02  5.00605E-02  5.12785E-02  5.25262E-02
#           5.38042E-02  5.51133E-02  5.64542E-02  5.78278E-02  5.92348E-02
#           6.06760E-02  6.21523E-02  6.36645E-02  6.52135E-02  6.68002E-02
#           6.84255E-02  7.00904E-02  7.17957E-02  7.35426E-02  7.53319E-02
#           7.71648E-02  7.90423E-02  8.09655E-02  8.29354E-02  8.49533E-02
#           8.70203E-02  8.91376E-02  9.13064E-02  9.35279E-02  9.58035E-02
#           9.81345E-02  1.00522E-01  1.02968E-01  1.05473E-01  1.08040E-01
#           1.10668E-01  1.13361E-01  1.16119E-01  1.18944E-01  1.21838E-01
#           1.24803E-01  1.27839E-01  1.30950E-01  1.34136E-01  1.37399E-01
#           1.40742E-01  1.44167E-01  1.47675E-01  1.51268E-01  1.54948E-01
#           1.58718E-01  1.62580E-01  1.66535E-01  1.70587E-01  1.74738E-01
#           1.78989E-01  1.83344E-01  1.87805E-01  1.92375E-01  1.97055E-01
#           2.01850E-01  2.06761E-01  2.11792E-01  2.16945E-01  2.22223E-01
#           2.27630E-01  2.33169E-01  2.38842E-01  2.44653E-01  2.50605E-01
#           2.56703E-01  2.62949E-01  2.69346E-01  2.75900E-01  2.82613E-01
#           2.89489E-01  2.96532E-01  3.03747E-01  3.11138E-01  3.18708E-01
#           3.26462E-01  3.34405E-01  3.42542E-01  3.50876E-01  3.59413E-01
#           3.68158E-01  3.77116E-01  3.86291E-01  3.95690E-01  4.05317E-01
#           4.15179E-01  4.25281E-01  4.35628E-01  4.46227E-01  4.57084E-01
#           4.68205E-01  4.79597E-01  4.91266E-01  5.03219E-01  5.15463E-01
#           5.28005E-01  5.40851E-01  5.54011E-01  5.67490E-01  5.81298E-01
#           5.95441E-01  6.09929E-01  6.24769E-01  6.39970E-01  6.55541E-01
#           6.71491E-01  6.87828E-01  7.04564E-01  7.21706E-01  7.39266E-01
#           7.57253E-01  7.75678E-01  7.94551E-01  8.13883E-01  8.33685E-01
#           8.53969E-01  8.74747E-01  8.96030E-01  9.17831E-01  9.40163E-01
#           9.63038E-01  9.86469E-01  1.01047E+00  1.03506E+00  1.06024E+00
#           1.08604E+00  1.11246E+00  1.13953E+00  1.16725E+00  1.19565E+00
#           1.22474E+00  1.25454E+00  1.28507E+00  1.31633E+00  1.34836E+00
#           1.38117E+00  1.41477E+00  1.44920E+00  1.48446E+00  1.52057E+00
#           1.55757E+00  1.59547E+00  1.63429E+00  1.67405E+00  1.71478E+00
#           1.75650E+00  1.79924E+00  1.84302E+00  1.88786E+00  1.93379E+00
#           1.98084E+00  2.02904E+00  2.07841E+00  2.12898E+00  2.18078E+00
#           2.23384E+00  2.28819E+00  2.34386E+00  2.40089E+00  2.45930E+00
#           2.51914E+00  2.58043E+00  2.64322E+00  2.70753E+00  2.77341E+00
#           2.84088E+00  2.91001E+00  2.98081E+00  3.05333E+00  3.12762E+00
#           3.20372E+00  3.28167E+00  3.36152E+00  3.44330E+00  3.52708E+00
#           3.61290E+00  3.70080E+00  3.79085E+00  3.88308E+00  3.97756E+00
#           4.07434E+00  4.17347E+00  4.27501E+00  4.37903E+00  4.48557E+00
#           4.59471E+00  4.70650E+00  4.82102E+00  4.93832E+00  5.05847E+00
#           5.18155E+00  5.30762E+00  5.43676E+00  5.56904E+00  5.70453E+00
#           5.84333E+00  5.98550E+00  6.13114E+00  6.28031E+00  6.43312E+00
#           6.58964E+00  6.74997E+00  6.91420E+00  7.08243E+00  7.25475E+00
#           7.43126E+00  7.61207E+00  7.79728E+00  7.98700E+00  8.18133E+00
#           8.38038E+00  8.58428E+00  8.79315E+00  9.00709E+00  9.22624E+00
#           9.45072E+00  9.68067E+00  9.91620E+00  1.01575E+01  1.04046E+01
#           1.06578E+01  1.09171E+01  1.11827E+01  1.14548E+01  1.17335E+01
#           1.20190E+01  1.23114E+01  1.26109E+01  1.29178E+01  1.32321E+01
#           1.35540E+01  1.38838E+01  1.42216E+01  1.45676E+01  1.49221E+01
#           1.52851E+01  1.56570E+01  1.60380E+01  1.64282E+01  1.68279E+01
#           1.72374E+01  1.76568E+01  1.80864E+01  1.85264E+01  1.89772E+01
#           1.94389E+01  1.99119E+01  2.03963E+01  2.08926E+01  2.14009E+01
#           2.19216E+01  2.24550E+01  2.30014E+01  2.35610E+01  2.41343E+01
#           2.47215E+01  2.53230E+01  2.59391E+01  2.65702E+01  2.72167E+01
#           2.78789E+01  2.85572E+01  2.92520E+01  2.99637E+01  3.06928E+01
#           3.14396E+01  3.22045E+01  3.29881E+01  3.37907E+01  3.46128E+01
#           3.54550E+01  3.63177E+01  3.72013E+01  3.81064E+01  3.90336E+01
#           3.99833E+01  4.09561E+01  4.19526E+01  4.29734E+01  4.40189E+01
#           4.50900E+01  4.61870E+01  4.73108E+01  4.84619E+01  4.96410E+01
#           5.08488E+01  5.20860E+01  5.33533E+01  5.46514E+01  5.59812E+01
#           5.73432E+01  5.87384E+01  6.01676E+01  6.16315E+01  6.31311E+01
#           6.46671E+01  6.62405E+01  6.78522E+01  6.95031E+01  7.11941E+01
#           7.29263E+01  7.47007E+01  7.65182E+01  7.83800E+01  8.02870E+01
#           8.22405E+01  8.42414E+01  8.62911E+01  8.83906E+01  9.05412E+01
#           9.27442E+01  9.50007E+01  9.73122E+01  9.96799E+01  1.02105E+02
#           1.04589E+02  1.07134E+02  1.09741E+02  1.12411E+02  1.15146E+02
#           1.17948E+02  1.20817E+02  1.23757E+02  1.26768E+02  1.29852E+02
#           1.33012E+02  1.36248E+02  1.39563E+02  1.42959E+02  1.46437E+02
#           1.50000E+02
     unit =    2            # unit is [1/cm^2/(MeV/n)/source]
     axis =  eng            # axis of output
     file = detector-10.out  # file name of output for the above axis
   output = f-curr          # surface crossing forward current spectrum
     part =  neutron  
# kf/name :  2112     
#    used :        main (  %)        temp (  %)       total (  %)
#  memory :         414 (  0)           0 (  0)         414 (  0)

#------------------------------------------------------------------------------
#newpage:
#   no. =    1   reg = 109 - 209

x: Energy [MeV/n]
y:  F-Curr [1/cm^2/(MeV/n)/source]         
p: xlog ylog afac(0.8) form(0.9)
h: n            x            y(neutron ),hh0l   n 
#  e-lower      e-upper      neutron     r.err 
   1.0000E-02   1.0243E-02   1.2072E-03  0.0821
   1.0243E-02   1.0493E-02   1.2571E-03  0.0796
   1.0493E-02   1.0748E-02   1.2174E-03  0.0798
   1.0748E-02   1.1009E-02   1.2940E-03  0.0765
   1.1009E-02   1.1277E-02   1.1593E-03  0.0800
   1.1277E-02   1.1552E-02   1.0895E-03  0.0816
   1.1552E-02   1.1833E-02   1.0554E-03  0.0820
   1.1833E-02   1.2121E-02   1.2576E-03  0.0739
   1.2121E-02   1.2415E-02   1.1009E-03  0.0783
   1.2415E-02   1.2718E-02   9.8991E-04  0.0814
   1.2718E-02   1.3027E-02   1.0219E-03  0.0792
   1.3027E-02   1.3344E-02   1.0641E-03  0.0769
   1.3344E-02   1.3669E-02   9.6257E-04  0.0796
   1.3669E-02   1.4001E-02   9.6296E-04  0.0788
   1.4001E-02   1.4342E-02   8.4493E-04  0.0832
   1.4342E-02   1.4691E-02   9.2161E-04  0.0787
   1.4691E-02   1.5048E-02   6.8403E-04  0.0899
   1.5048E-02   1.5414E-02   8.2748E-04  0.0811
   1.5414E-02   1.5789E-02   7.6721E-04  0.0832
   1.5789E-02   1.6174E-02   8.0130E-04  0.0802
   1.6174E-02   1.6567E-02   7.1728E-04  0.0839
   1.6567E-02   1.6970E-02   7.6972E-04  0.0801
   1.6970E-02   1.7383E-02   7.4235E-04  0.0804
   1.7383E-02   1.7806E-02   7.1681E-04  0.0810
   1.7806E-02   1.8239E-02   7.3764E-04  0.0788
   1.8239E-02   1.8683E-02   5.9840E-04  0.0864
   1.8683E-02   1.9138E-02   6.8280E-04  0.0801
   1.9138E-02   1.9603E-02   5.6484E-04  0.0867
   1.9603E-02   2.0080E-02   6.7583E-04  0.0784
   2.0080E-02   2.0569E-02   6.2950E-04  0.0803
   2.0569E-02   2.1069E-02   5.6137E-04  0.0840
   2.1069E-02   2.1582E-02   6.0263E-04  0.0802
   2.1582E-02   2.2107E-02   5.3946E-04  0.0837
   2.2107E-02   2.2645E-02   5.4369E-04  0.0825
   2.2645E-02   2.3196E-02   5.4802E-04  0.0809
   2.3196E-02   2.3760E-02   5.1666E-04  0.0825
   2.3760E-02   2.4338E-02   5.6852E-04  0.0778
   2.4338E-02   2.4930E-02   5.4482E-04  0.0783
   2.4930E-02   2.5537E-02   5.3345E-04  0.0783
   2.5537E-02   2.6158E-02   4.3375E-04  0.0856
   2.6158E-02   2.6795E-02   4.4663E-04  0.0835
   2.6795E-02   2.7447E-02   4.2119E-04  0.0850
   2.7447E-02   2.8114E-02   4.5805E-04  0.0804
   2.8114E-02   2.8799E-02   4.0877E-04  0.0844
   2.8799E-02   2.9499E-02   3.7731E-04  0.0865
   2.9499E-02   3.0217E-02   4.2158E-04  0.0811
   3.0217E-02   3.0952E-02   3.9950E-04  0.0820
   3.0952E-02   3.1705E-02   3.9893E-04  0.0812
   3.1705E-02   3.2477E-02   3.6653E-04  0.0835
   3.2477E-02   3.3267E-02   3.1549E-04  0.0894
   3.3267E-02   3.4076E-02   3.4771E-04  0.0839
   3.4076E-02   3.4905E-02   3.5096E-04  0.0825
   3.4905E-02   3.5755E-02   3.7518E-04  0.0789
   3.5755E-02   3.6625E-02   2.9148E-04  0.0881
   3.6625E-02   3.7516E-02   3.1645E-04  0.0838
   3.7516E-02   3.8428E-02   3.5610E-04  0.0781
   3.8428E-02   3.9363E-02   3.3668E-04  0.0792
   3.9363E-02   4.0321E-02   2.9259E-04  0.0843
   4.0321E-02   4.1302E-02   2.6671E-04  0.0872
   4.1302E-02   4.2307E-02   3.2466E-04  0.0779
   4.2307E-02   4.3337E-02   2.5481E-04  0.0869
   4.3337E-02   4.4391E-02   3.0493E-04  0.0787
   4.4391E-02   4.5471E-02   2.9160E-04  0.0795
   4.5471E-02   4.6577E-02   2.7895E-04  0.0801
   4.6577E-02   4.7711E-02   2.4728E-04  0.0840
   4.7711E-02   4.8871E-02   2.5401E-04  0.0821
   4.8871E-02   5.0061E-02   2.5383E-04  0.0809
   5.0061E-02   5.1279E-02   2.3546E-04  0.0828
   5.1279E-02   5.2526E-02   2.4382E-04  0.0807
   5.2526E-02   5.3804E-02   2.3055E-04  0.0820
   5.3804E-02   5.5113E-02   1.8429E-04  0.0909
   5.5113E-02   5.6454E-02   2.2321E-04  0.0813
   5.6454E-02   5.7828E-02   1.8905E-04  0.0876
   5.7828E-02   5.9235E-02   2.0934E-04  0.0821
   5.9235E-02   6.0676E-02   1.7664E-04  0.0882
   6.0676E-02   6.2152E-02   2.0614E-04  0.0805
   6.2152E-02   6.3665E-02   2.0964E-04  0.0790
   6.3665E-02   6.5214E-02   1.9431E-04  0.0814
   6.5214E-02   6.6800E-02   1.7966E-04  0.0833
   6.6800E-02   6.8426E-02   1.8064E-04  0.0822
   6.8426E-02   7.0090E-02   1.9738E-04  0.0778
   7.0090E-02   7.1796E-02   1.7725E-04  0.0806
   7.1796E-02   7.3543E-02   1.7460E-04  0.0809
   7.3543E-02   7.5332E-02   1.4048E-04  0.0888
   7.5332E-02   7.7165E-02   1.5459E-04  0.0836
   7.7165E-02   7.9042E-02   1.4285E-04  0.0859
   7.9042E-02   8.0965E-02   1.4767E-04  0.0837
   8.0965E-02   8.2935E-02   1.5491E-04  0.0806
   8.2935E-02   8.4953E-02   1.2394E-04  0.0889
   8.4953E-02   8.7020E-02   1.4214E-04  0.0823
   8.7020E-02   8.9138E-02   1.1948E-04  0.0885
   8.9138E-02   9.1306E-02   1.3421E-04  0.0824
   9.1306E-02   9.3528E-02   1.3172E-04  0.0820
   9.3528E-02   9.5804E-02   1.2199E-04  0.0844
   9.5804E-02   9.8134E-02   1.2939E-04  0.0813
   9.8134E-02   1.0052E-01   1.0992E-04  0.0870
   1.0052E-01   1.0297E-01   1.1112E-04  0.0850
   1.0297E-01   1.0547E-01   1.1429E-04  0.0831
   1.0547E-01   1.0804E-01   1.1902E-04  0.0806
   1.0804E-01   1.1067E-01   9.7413E-05  0.0877
   1.1067E-01   1.1336E-01   1.3109E-04  0.0750
   1.1336E-01   1.1612E-01   9.8742E-05  0.0853
   1.1612E-01   1.1894E-01   1.0911E-04  0.0801
   1.1894E-01   1.2184E-01   1.0662E-04  0.0803
   1.2184E-01   1.2480E-01   1.1073E-04  0.0775
   1.2480E-01   1.2784E-01   1.1426E-04  0.0756
   1.2784E-01   1.3095E-01   1.0220E-04  0.0790
   1.3095E-01   1.3414E-01   7.4344E-05  0.0913
   1.3414E-01   1.3740E-01   8.9659E-05  0.0825
   1.3740E-01   1.4074E-01   9.4611E-05  0.0789
   1.4074E-01   1.4417E-01   8.8172E-05  0.0808
   1.4417E-01   1.4767E-01   8.5707E-05  0.0810
   1.4767E-01   1.5127E-01   9.4346E-05  0.0761
   1.5127E-01   1.5495E-01   8.2354E-05  0.0810
   1.5495E-01   1.5872E-01   9.1260E-05  0.0761
   1.5872E-01   1.6258E-01   8.3589E-05  0.0782
   1.6258E-01   1.6654E-01   7.9515E-05  0.0795
   1.6654E-01   1.7059E-01   8.1507E-05  0.0775
   1.7059E-01   1.7474E-01   8.3794E-05  0.0754
   1.7474E-01   1.7899E-01   7.6864E-05  0.0778
   1.7899E-01   1.8334E-01   7.8883E-05  0.0759
   1.8334E-01   1.8781E-01   7.3539E-05  0.0776
   1.8781E-01   1.9237E-01   7.9993E-05  0.0737
   1.9237E-01   1.9706E-01   8.9526E-05  0.0688
   1.9706E-01   2.0185E-01   7.2837E-05  0.0753
   2.0185E-01   2.0676E-01   6.7450E-05  0.0772
   2.0676E-01   2.1179E-01   8.0220E-05  0.0700
   2.1179E-01   2.1694E-01   8.3254E-05  0.0680
   2.1694E-01   2.2222E-01   8.8605E-05  0.0650
   2.2222E-01   2.2763E-01   8.9059E-05  0.0644
   2.2763E-01   2.3317E-01   9.0375E-05  0.0629
   2.3317E-01   2.3884E-01   8.9205E-05  0.0626
   2.3884E-01   2.4465E-01   1.0076E-04  0.0582
   2.4465E-01   2.5061E-01   1.0098E-04  0.0574
   2.5061E-01   2.5670E-01   1.0620E-04  0.0554
   2.5670E-01   2.6295E-01   1.2045E-04  0.0514
   2.6295E-01   2.6935E-01   1.2048E-04  0.0508
   2.6935E-01   2.7590E-01   1.1733E-04  0.0508
   2.7590E-01   2.8261E-01   1.2413E-04  0.0488
   2.8261E-01   2.8949E-01   1.4359E-04  0.0448
   2.8949E-01   2.9653E-01   1.3018E-04  0.0465
   2.9653E-01   3.0375E-01   1.4063E-04  0.0441
   3.0375E-01   3.1114E-01   1.3942E-04  0.0438
   3.1114E-01   3.1871E-01   1.4878E-04  0.0419
   3.1871E-01   3.2646E-01   1.5865E-04  0.0402
   3.2646E-01   3.3441E-01   1.6219E-04  0.0392
   3.3441E-01   3.4254E-01   1.7241E-04  0.0375
   3.4254E-01   3.5088E-01   1.6745E-04  0.0377
   3.5088E-01   3.5941E-01   1.8596E-04  0.0354
   3.5941E-01   3.6816E-01   1.9359E-04  0.0342
   3.6816E-01   3.7712E-01   1.8573E-04  0.0345
   3.7712E-01   3.8629E-01   1.9834E-04  0.0330
   3.8629E-01   3.9569E-01   1.9031E-04  0.0333
   3.9569E-01   4.0532E-01   2.0067E-04  0.0320
   4.0532E-01   4.1518E-01   2.0849E-04  0.0311
   4.1518E-01   4.2528E-01   2.2712E-04  0.0294
   4.2528E-01   4.3563E-01   2.2564E-04  0.0292
   4.3563E-01   4.4623E-01   2.2732E-04  0.0287
   4.4623E-01   4.5708E-01   2.3009E-04  0.0282
   4.5708E-01   4.6821E-01   2.3823E-04  0.0274
   4.6821E-01   4.7960E-01   2.6100E-04  0.0258
   4.7960E-01   4.9127E-01   2.6372E-04  0.0254
   4.9127E-01   5.0322E-01   2.5775E-04  0.0254
   5.0322E-01   5.1546E-01   2.8587E-04  0.0238
   5.1546E-01   5.2800E-01   2.6816E-04  0.0243
   5.2800E-01   5.4085E-01   2.8650E-04  0.0232
   5.4085E-01   5.5401E-01   2.9448E-04  0.0226
   5.5401E-01   5.6749E-01   3.0076E-04  0.0221
   5.6749E-01   5.8130E-01   3.1636E-04  0.0213
   5.8130E-01   5.9544E-01   2.9882E-04  0.0217
   5.9544E-01   6.0993E-01   3.1688E-04  0.0208
   6.0993E-01   6.2477E-01   3.1407E-04  0.0206
   6.2477E-01   6.3997E-01   3.3163E-04  0.0198
   6.3997E-01   6.5554E-01   3.3040E-04  0.0196
   6.5554E-01   6.7149E-01   3.3608E-04  0.0192
   6.7149E-01   6.8783E-01   3.3637E-04  0.0190
   6.8783E-01   7.0456E-01   3.3817E-04  0.0187
   7.0456E-01   7.2171E-01   3.5776E-04  0.0180
   7.2171E-01   7.3927E-01   3.6067E-04  0.0177
   7.3927E-01   7.5725E-01   3.6072E-04  0.0175
   7.5725E-01   7.7568E-01   3.6184E-04  0.0173
   7.7568E-01   7.9455E-01   3.8295E-04  0.0166
   7.9455E-01   8.1388E-01   3.7965E-04  0.0165
   8.1388E-01   8.3368E-01   3.8980E-04  0.0160
   8.3368E-01   8.5397E-01   3.8251E-04  0.0160
   8.5397E-01   8.7475E-01   3.8834E-04  0.0157
   8.7475E-01   8.9603E-01   3.9102E-04  0.0154
   8.9603E-01   9.1783E-01   3.9281E-04  0.0152
   9.1783E-01   9.4016E-01   4.0120E-04  0.0149
   9.4016E-01   9.6304E-01   4.1501E-04  0.0145
   9.6304E-01   9.8647E-01   4.2286E-04  0.0141
   9.8647E-01   1.0105E+00   4.2509E-04  0.0139
   1.0105E+00   1.0351E+00   4.2170E-04  0.0138
   1.0351E+00   1.0602E+00   4.2148E-04  0.0137
   1.0602E+00   1.0860E+00   4.2795E-04  0.0134
   1.0860E+00   1.1125E+00   4.2286E-04  0.0133
   1.1125E+00   1.1395E+00   4.1711E-04  0.0132
   1.1395E+00   1.1673E+00   4.2742E-04  0.0129
   1.1673E+00   1.1957E+00   4.4865E-04  0.0125
   1.1957E+00   1.2247E+00   4.4759E-04  0.0123
   1.2247E+00   1.2545E+00   4.4816E-04  0.0122
   1.2545E+00   1.2851E+00   4.4973E-04  0.0120
   1.2851E+00   1.3163E+00   4.4474E-04  0.0119
   1.3163E+00   1.3484E+00   4.5178E-04  0.0117
   1.3484E+00   1.3812E+00   4.5247E-04  0.0116
   1.3812E+00   1.4148E+00   4.5271E-04  0.0114
   1.4148E+00   1.4492E+00   4.5734E-04  0.0112
   1.4492E+00   1.4845E+00   4.6815E-04  0.0110
   1.4845E+00   1.5206E+00   4.7169E-04  0.0108
   1.5206E+00   1.5576E+00   4.7115E-04  0.0107
   1.5576E+00   1.5955E+00   4.6922E-04  0.0106
   1.5955E+00   1.6343E+00   4.6458E-04  0.0105
   1.6343E+00   1.6741E+00   4.6464E-04  0.0104
   1.6741E+00   1.7148E+00   4.7325E-04  0.0101
   1.7148E+00   1.7565E+00   4.7037E-04  0.0101
   1.7565E+00   1.7992E+00   4.7569E-04  0.0099
   1.7992E+00   1.8430E+00   4.7377E-04  0.0098
   1.8430E+00   1.8879E+00   4.7102E-04  0.0097
   1.8879E+00   1.9338E+00   4.7161E-04  0.0096
   1.9338E+00   1.9808E+00   4.7685E-04  0.0094
   1.9808E+00   2.0290E+00   4.7528E-04  0.0093
   2.0290E+00   2.0784E+00   4.8060E-04  0.0091
   2.0784E+00   2.1290E+00   4.7764E-04  0.0091
   2.1290E+00   2.1808E+00   4.7166E-04  0.0090
   2.1808E+00   2.2338E+00   4.7245E-04  0.0089
   2.2338E+00   2.2882E+00   4.6547E-04  0.0089
   2.2882E+00   2.3439E+00   4.7127E-04  0.0087
   2.3439E+00   2.4009E+00   4.6682E-04  0.0086
   2.4009E+00   2.4593E+00   4.5804E-04  0.0086
   2.4593E+00   2.5191E+00   4.5756E-04  0.0085
   2.5191E+00   2.5804E+00   4.6571E-04  0.0083
   2.5804E+00   2.6432E+00   4.5505E-04  0.0083
   2.6432E+00   2.7075E+00   4.5225E-04  0.0083
   2.7075E+00   2.7734E+00   4.4228E-04  0.0083
   2.7734E+00   2.8409E+00   4.4268E-04  0.0081
   2.8409E+00   2.9100E+00   4.3653E-04  0.0081
   2.9100E+00   2.9808E+00   4.3925E-04  0.0080
   2.9808E+00   3.0533E+00   4.2880E-04  0.0080
   3.0533E+00   3.1276E+00   4.1861E-04  0.0080
   3.1276E+00   3.2037E+00   4.1541E-04  0.0079
   3.2037E+00   3.2817E+00   4.1321E-04  0.0078
   3.2817E+00   3.3615E+00   4.0986E-04  0.0078
   3.3615E+00   3.4433E+00   4.0490E-04  0.0077
   3.4433E+00   3.5271E+00   3.9610E-04  0.0077
   3.5271E+00   3.6129E+00   3.9323E-04  0.0077
   3.6129E+00   3.7008E+00   3.8908E-04  0.0076
   3.7008E+00   3.7908E+00   3.8039E-04  0.0076
   3.7908E+00   3.8831E+00   3.7843E-04  0.0075
   3.8831E+00   3.9776E+00   3.7173E-04  0.0075
   3.9776E+00   4.0743E+00   3.6611E-04  0.0075
   4.0743E+00   4.1735E+00   3.6472E-04  0.0074
   4.1735E+00   4.2750E+00   3.5917E-04  0.0074
   4.2750E+00   4.3790E+00   3.5143E-04  0.0074
   4.3790E+00   4.4856E+00   3.4781E-04  0.0073
   4.4856E+00   4.5947E+00   3.3762E-04  0.0073
   4.5947E+00   4.7065E+00   3.3498E-04  0.0073
   4.7065E+00   4.8210E+00   3.2663E-04  0.0073
   4.8210E+00   4.9383E+00   3.1695E-04  0.0073
   4.9383E+00   5.0585E+00   3.0760E-04  0.0073
   5.0585E+00   5.1815E+00   3.0059E-04  0.0073
   5.1815E+00   5.3076E+00   2.9518E-04  0.0073
   5.3076E+00   5.4368E+00   2.8851E-04  0.0073
   5.4368E+00   5.5690E+00   2.8226E-04  0.0073
   5.5690E+00   5.7045E+00   2.7288E-04  0.0073
   5.7045E+00   5.8433E+00   2.7473E-04  0.0072
   5.8433E+00   5.9855E+00   2.6475E-04  0.0073
   5.9855E+00   6.1311E+00   2.5540E-04  0.0073
   6.1311E+00   6.2803E+00   2.4708E-04  0.0073
   6.2803E+00   6.4331E+00   2.4100E-04  0.0073
   6.4331E+00   6.5896E+00   2.3074E-04  0.0074
   6.5896E+00   6.7500E+00   2.2335E-04  0.0074
   6.7500E+00   6.9142E+00   2.1745E-04  0.0075
   6.9142E+00   7.0824E+00   2.0941E-04  0.0075
   7.0824E+00   7.2548E+00   2.0403E-04  0.0075
   7.2548E+00   7.4313E+00   1.9530E-04  0.0076
   7.4313E+00   7.6121E+00   1.8781E-04  0.0077
   7.6121E+00   7.7973E+00   1.7761E-04  0.0078
   7.7973E+00   7.9870E+00   1.6951E-04  0.0079
   7.9870E+00   8.1813E+00   1.6402E-04  0.0079
   8.1813E+00   8.3804E+00   1.5742E-04  0.0080
   8.3804E+00   8.5843E+00   1.5065E-04  0.0081
   8.5843E+00   8.7931E+00   1.4334E-04  0.0082
   8.7931E+00   9.0071E+00   1.3722E-04  0.0082
   9.0071E+00   9.2262E+00   1.2821E-04  0.0084
   9.2262E+00   9.4507E+00   1.2289E-04  0.0085
   9.4507E+00   9.6807E+00   1.1689E-04  0.0086
   9.6807E+00   9.9162E+00   1.1173E-04  0.0087
   9.9162E+00   1.0157E+01   1.0566E-04  0.0088
   1.0157E+01   1.0405E+01   1.0268E-04  0.0089
   1.0405E+01   1.0658E+01   9.8337E-05  0.0089
   1.0658E+01   1.0917E+01   9.5434E-05  0.0090
   1.0917E+01   1.1183E+01   9.1958E-05  0.0090
   1.1183E+01   1.1455E+01   8.9350E-05  0.0091
   1.1455E+01   1.1733E+01   8.6370E-05  0.0091
   1.1733E+01   1.2019E+01   8.2625E-05  0.0092
   1.2019E+01   1.2311E+01   7.9389E-05  0.0093
   1.2311E+01   1.2611E+01   7.5697E-05  0.0094
   1.2611E+01   1.2918E+01   7.4188E-05  0.0094
   1.2918E+01   1.3232E+01   7.1243E-05  0.0094
   1.3232E+01   1.3554E+01   6.6178E-05  0.0097
   1.3554E+01   1.3884E+01   6.5300E-05  0.0096
   1.3884E+01   1.4222E+01   6.2989E-05  0.0097
   1.4222E+01   1.4568E+01   6.0399E-05  0.0098
   1.4568E+01   1.4922E+01   5.8108E-05  0.0098
   1.4922E+01   1.5285E+01   5.4488E-05  0.0101
   1.5285E+01   1.5657E+01   5.2112E-05  0.0102
   1.5657E+01   1.6038E+01   4.9152E-05  0.0103
   1.6038E+01   1.6428E+01   4.6623E-05  0.0105
   1.6428E+01   1.6828E+01   4.4482E-05  0.0106
   1.6828E+01   1.7237E+01   4.3124E-05  0.0106
   1.7237E+01   1.7657E+01   4.0370E-05  0.0109
   1.7657E+01   1.8086E+01   3.8147E-05  0.0110
   1.8086E+01   1.8526E+01   3.5829E-05  0.0113
   1.8526E+01   1.8977E+01   3.4651E-05  0.0113
   1.8977E+01   1.9439E+01   3.3342E-05  0.0114
   1.9439E+01   1.9912E+01   3.2211E-05  0.0115
   1.9912E+01   2.0396E+01   3.0809E-05  0.0116
   2.0396E+01   2.0893E+01   2.9686E-05  0.0117
   2.0893E+01   2.1401E+01   2.7773E-05  0.0119
   2.1401E+01   2.1922E+01   2.6925E-05  0.0119
   2.1922E+01   2.2455E+01   2.5112E-05  0.0122
   2.2455E+01   2.3001E+01   2.4453E-05  0.0122
   2.3001E+01   2.3561E+01   2.3708E-05  0.0123
   2.3561E+01   2.4134E+01   2.4188E-05  0.0120
   2.4134E+01   2.4721E+01   2.2840E-05  0.0122
   2.4721E+01   2.5323E+01   2.2331E-05  0.0122
   2.5323E+01   2.5939E+01   2.1619E-05  0.0123
   2.5939E+01   2.6570E+01   2.0823E-05  0.0123
   2.6570E+01   2.7217E+01   2.0279E-05  0.0124
   2.7217E+01   2.7879E+01   1.9033E-05  0.0126
   2.7879E+01   2.8557E+01   1.9018E-05  0.0125
   2.8557E+01   2.9252E+01   1.8508E-05  0.0125
   2.9252E+01   2.9964E+01   1.7878E-05  0.0125
   2.9964E+01   3.0693E+01   1.7363E-05  0.0126
   3.0693E+01   3.1440E+01   1.6714E-05  0.0127
   3.1440E+01   3.2205E+01   1.5711E-05  0.0129
   3.2205E+01   3.2988E+01   1.4763E-05  0.0131
   3.2988E+01   3.3791E+01   1.3752E-05  0.0135
   3.3791E+01   3.4613E+01   1.3399E-05  0.0135
   3.4613E+01   3.5455E+01   1.2494E-05  0.0138
   3.5455E+01   3.6318E+01   1.1901E-05  0.0140
   3.6318E+01   3.7201E+01   1.0663E-05  0.0146
   3.7201E+01   3.8106E+01   9.8504E-06  0.0150
   3.8106E+01   3.9034E+01   9.1937E-06  0.0153
   3.9034E+01   3.9983E+01   8.1266E-06  0.0161
   3.9983E+01   4.0956E+01   6.6692E-06  0.0176
   4.0956E+01   4.1953E+01   4.9253E-06  0.0202
   4.1953E+01   4.2973E+01   3.0938E-06  0.0252
   4.2973E+01   4.4019E+01   2.0582E-06  0.0305
   4.4019E+01   4.5090E+01   7.4509E-07  0.0501
   4.5090E+01   4.6187E+01   5.2868E-08  0.1857
   4.6187E+01   4.7311E+01   1.7797E-09  1.0000
   4.7311E+01   4.8462E+01   0.0000E+00  0.0000
   4.8462E+01   4.9641E+01   0.0000E+00  0.0000
   4.9641E+01   5.0849E+01   0.0000E+00  0.0000
   5.0849E+01   5.2086E+01   0.0000E+00  0.0000
   5.2086E+01   5.3353E+01   0.0000E+00  0.0000
   5.3353E+01   5.4651E+01   0.0000E+00  0.0000
   5.4651E+01   5.5981E+01   0.0000E+00  0.0000
   5.5981E+01   5.7343E+01   0.0000E+00  0.0000
   5.7343E+01   5.8738E+01   0.0000E+00  0.0000
   5.8738E+01   6.0168E+01   0.0000E+00  0.0000
   6.0168E+01   6.1632E+01   0.0000E+00  0.0000
   6.1632E+01   6.3131E+01   0.0000E+00  0.0000
   6.3131E+01   6.4667E+01   0.0000E+00  0.0000
   6.4667E+01   6.6240E+01   0.0000E+00  0.0000
   6.6240E+01   6.7852E+01   0.0000E+00  0.0000
   6.7852E+01   6.9503E+01   0.0000E+00  0.0000
   6.9503E+01   7.1194E+01   0.0000E+00  0.0000
   7.1194E+01   7.2926E+01   0.0000E+00  0.0000
   7.2926E+01   7.4701E+01   0.0000E+00  0.0000
   7.4701E+01   7.6518E+01   0.0000E+00  0.0000
   7.6518E+01   7.8380E+01   0.0000E+00  0.0000
   7.8380E+01   8.0287E+01   0.0000E+00  0.0000
   8.0287E+01   8.2240E+01   0.0000E+00  0.0000
   8.2240E+01   8.4241E+01   0.0000E+00  0.0000
   8.4241E+01   8.6291E+01   0.0000E+00  0.0000
   8.6291E+01   8.8391E+01   0.0000E+00  0.0000
   8.8391E+01   9.0541E+01   0.0000E+00  0.0000
   9.0541E+01   9.2744E+01   0.0000E+00  0.0000
   9.2744E+01   9.5001E+01   0.0000E+00  0.0000
   9.5001E+01   9.7312E+01   0.0000E+00  0.0000
   9.7312E+01   9.9680E+01   0.0000E+00  0.0000
   9.9680E+01   1.0211E+02   0.0000E+00  0.0000
   1.0211E+02   1.0459E+02   0.0000E+00  0.0000
   1.0459E+02   1.0713E+02   0.0000E+00  0.0000
   1.0713E+02   1.0974E+02   0.0000E+00  0.0000
   1.0974E+02   1.1241E+02   0.0000E+00  0.0000
   1.1241E+02   1.1515E+02   0.0000E+00  0.0000
   1.1515E+02   1.1795E+02   0.0000E+00  0.0000
   1.1795E+02   1.2082E+02   0.0000E+00  0.0000
   1.2082E+02   1.2376E+02   0.0000E+00  0.0000
   1.2376E+02   1.2677E+02   0.0000E+00  0.0000
   1.2677E+02   1.2985E+02   0.0000E+00  0.0000
   1.2985E+02   1.3301E+02   0.0000E+00  0.0000
   1.3301E+02   1.3625E+02   0.0000E+00  0.0000
   1.3625E+02   1.3956E+02   0.0000E+00  0.0000
   1.3956E+02   1.4296E+02   0.0000E+00  0.0000
   1.4296E+02   1.4644E+02   0.0000E+00  0.0000
   1.4644E+02   1.5000E+02   0.0000E+00  0.0000

#   sum over                 2.5729E-05
'no. =    1   reg = 109 - 209'
msuc: {\huge [t-cross] in region mesh}
msdr: {\it plotted by \ANGEL \version}
msdl: {\it calculated by \PHITS  3.26}
wt: s(0.7)
\vspace{-3}
  region surface crossing
  area  &=&   1.0000E+00 [cm^2]
e:
 
# Information for Restart Calculation
# This calculation was newly started
# istdev =  2 # 1:Batch variance, 2:History variance
# resc2  = 5.00000000000000000E+08 # Total source weight or Total source weight / maxcas
# resc3  = 5.00000000000000000E+08 # Total history number or Total batch number
# maxcas =   500000000 # History / Batch, only used for istdev=1
# bitrseed = 1011101111111101000111101101010011111001010110111001011111010111 # bit data of rseed
