[ T-Cross ]
    title = [t-cross] in region mesh
     mesh =  reg            # mesh type is region-wise
      reg =    1            # number of crossing regions
      non     r-from    r-to       area
      1       125       225        1.000000    
   e-type =    3            # e-mesh is log given by emin, emax and ne
     emin =  1.0000000E-02  # minimum value of e-mesh points
     emax =   150.0000      # maximum value of e-mesh points
#    edel =  2.4039514E-02  # mesh width of e-mesh points
       ne =    400          # number of e-mesh points
#    data = ( e(i), i = 1, ne + 1 )
#           1.00000E-02  1.02433E-02  1.04925E-02  1.07478E-02  1.10093E-02
#           1.12772E-02  1.15516E-02  1.18326E-02  1.21205E-02  1.24154E-02
#           1.27175E-02  1.30269E-02  1.33439E-02  1.36686E-02  1.40011E-02
#           1.43418E-02  1.46907E-02  1.50482E-02  1.54143E-02  1.57894E-02
#           1.61735E-02  1.65670E-02  1.69701E-02  1.73830E-02  1.78060E-02
#           1.82392E-02  1.86830E-02  1.91375E-02  1.96032E-02  2.00801E-02
#           2.05687E-02  2.10692E-02  2.15818E-02  2.21069E-02  2.26448E-02
#           2.31957E-02  2.37601E-02  2.43382E-02  2.49304E-02  2.55369E-02
#           2.61583E-02  2.67947E-02  2.74467E-02  2.81145E-02  2.87985E-02
#           2.94992E-02  3.02169E-02  3.09521E-02  3.17052E-02  3.24766E-02
#           3.32668E-02  3.40762E-02  3.49053E-02  3.57546E-02  3.66246E-02
#           3.75157E-02  3.84284E-02  3.93634E-02  4.03212E-02  4.13022E-02
#           4.23071E-02  4.33365E-02  4.43909E-02  4.54710E-02  4.65773E-02
#           4.77106E-02  4.88714E-02  5.00605E-02  5.12785E-02  5.25262E-02
#           5.38042E-02  5.51133E-02  5.64542E-02  5.78278E-02  5.92348E-02
#           6.06760E-02  6.21523E-02  6.36645E-02  6.52135E-02  6.68002E-02
#           6.84255E-02  7.00904E-02  7.17957E-02  7.35426E-02  7.53319E-02
#           7.71648E-02  7.90423E-02  8.09655E-02  8.29354E-02  8.49533E-02
#           8.70203E-02  8.91376E-02  9.13064E-02  9.35279E-02  9.58035E-02
#           9.81345E-02  1.00522E-01  1.02968E-01  1.05473E-01  1.08040E-01
#           1.10668E-01  1.13361E-01  1.16119E-01  1.18944E-01  1.21838E-01
#           1.24803E-01  1.27839E-01  1.30950E-01  1.34136E-01  1.37399E-01
#           1.40742E-01  1.44167E-01  1.47675E-01  1.51268E-01  1.54948E-01
#           1.58718E-01  1.62580E-01  1.66535E-01  1.70587E-01  1.74738E-01
#           1.78989E-01  1.83344E-01  1.87805E-01  1.92375E-01  1.97055E-01
#           2.01850E-01  2.06761E-01  2.11792E-01  2.16945E-01  2.22223E-01
#           2.27630E-01  2.33169E-01  2.38842E-01  2.44653E-01  2.50605E-01
#           2.56703E-01  2.62949E-01  2.69346E-01  2.75900E-01  2.82613E-01
#           2.89489E-01  2.96532E-01  3.03747E-01  3.11138E-01  3.18708E-01
#           3.26462E-01  3.34405E-01  3.42542E-01  3.50876E-01  3.59413E-01
#           3.68158E-01  3.77116E-01  3.86291E-01  3.95690E-01  4.05317E-01
#           4.15179E-01  4.25281E-01  4.35628E-01  4.46227E-01  4.57084E-01
#           4.68205E-01  4.79597E-01  4.91266E-01  5.03219E-01  5.15463E-01
#           5.28005E-01  5.40851E-01  5.54011E-01  5.67490E-01  5.81298E-01
#           5.95441E-01  6.09929E-01  6.24769E-01  6.39970E-01  6.55541E-01
#           6.71491E-01  6.87828E-01  7.04564E-01  7.21706E-01  7.39266E-01
#           7.57253E-01  7.75678E-01  7.94551E-01  8.13883E-01  8.33685E-01
#           8.53969E-01  8.74747E-01  8.96030E-01  9.17831E-01  9.40163E-01
#           9.63038E-01  9.86469E-01  1.01047E+00  1.03506E+00  1.06024E+00
#           1.08604E+00  1.11246E+00  1.13953E+00  1.16725E+00  1.19565E+00
#           1.22474E+00  1.25454E+00  1.28507E+00  1.31633E+00  1.34836E+00
#           1.38117E+00  1.41477E+00  1.44920E+00  1.48446E+00  1.52057E+00
#           1.55757E+00  1.59547E+00  1.63429E+00  1.67405E+00  1.71478E+00
#           1.75650E+00  1.79924E+00  1.84302E+00  1.88786E+00  1.93379E+00
#           1.98084E+00  2.02904E+00  2.07841E+00  2.12898E+00  2.18078E+00
#           2.23384E+00  2.28819E+00  2.34386E+00  2.40089E+00  2.45930E+00
#           2.51914E+00  2.58043E+00  2.64322E+00  2.70753E+00  2.77341E+00
#           2.84088E+00  2.91001E+00  2.98081E+00  3.05333E+00  3.12762E+00
#           3.20372E+00  3.28167E+00  3.36152E+00  3.44330E+00  3.52708E+00
#           3.61290E+00  3.70080E+00  3.79085E+00  3.88308E+00  3.97756E+00
#           4.07434E+00  4.17347E+00  4.27501E+00  4.37903E+00  4.48557E+00
#           4.59471E+00  4.70650E+00  4.82102E+00  4.93832E+00  5.05847E+00
#           5.18155E+00  5.30762E+00  5.43676E+00  5.56904E+00  5.70453E+00
#           5.84333E+00  5.98550E+00  6.13114E+00  6.28031E+00  6.43312E+00
#           6.58964E+00  6.74997E+00  6.91420E+00  7.08243E+00  7.25475E+00
#           7.43126E+00  7.61207E+00  7.79728E+00  7.98700E+00  8.18133E+00
#           8.38038E+00  8.58428E+00  8.79315E+00  9.00709E+00  9.22624E+00
#           9.45072E+00  9.68067E+00  9.91620E+00  1.01575E+01  1.04046E+01
#           1.06578E+01  1.09171E+01  1.11827E+01  1.14548E+01  1.17335E+01
#           1.20190E+01  1.23114E+01  1.26109E+01  1.29178E+01  1.32321E+01
#           1.35540E+01  1.38838E+01  1.42216E+01  1.45676E+01  1.49221E+01
#           1.52851E+01  1.56570E+01  1.60380E+01  1.64282E+01  1.68279E+01
#           1.72374E+01  1.76568E+01  1.80864E+01  1.85264E+01  1.89772E+01
#           1.94389E+01  1.99119E+01  2.03963E+01  2.08926E+01  2.14009E+01
#           2.19216E+01  2.24550E+01  2.30014E+01  2.35610E+01  2.41343E+01
#           2.47215E+01  2.53230E+01  2.59391E+01  2.65702E+01  2.72167E+01
#           2.78789E+01  2.85572E+01  2.92520E+01  2.99637E+01  3.06928E+01
#           3.14396E+01  3.22045E+01  3.29881E+01  3.37907E+01  3.46128E+01
#           3.54550E+01  3.63177E+01  3.72013E+01  3.81064E+01  3.90336E+01
#           3.99833E+01  4.09561E+01  4.19526E+01  4.29734E+01  4.40189E+01
#           4.50900E+01  4.61870E+01  4.73108E+01  4.84619E+01  4.96410E+01
#           5.08488E+01  5.20860E+01  5.33533E+01  5.46514E+01  5.59812E+01
#           5.73432E+01  5.87384E+01  6.01676E+01  6.16315E+01  6.31311E+01
#           6.46671E+01  6.62405E+01  6.78522E+01  6.95031E+01  7.11941E+01
#           7.29263E+01  7.47007E+01  7.65182E+01  7.83800E+01  8.02870E+01
#           8.22405E+01  8.42414E+01  8.62911E+01  8.83906E+01  9.05412E+01
#           9.27442E+01  9.50007E+01  9.73122E+01  9.96799E+01  1.02105E+02
#           1.04589E+02  1.07134E+02  1.09741E+02  1.12411E+02  1.15146E+02
#           1.17948E+02  1.20817E+02  1.23757E+02  1.26768E+02  1.29852E+02
#           1.33012E+02  1.36248E+02  1.39563E+02  1.42959E+02  1.46437E+02
#           1.50000E+02
     unit =    2            # unit is [1/cm^2/(MeV/n)/source]
     axis =  eng            # axis of output
     file = detector-26.out  # file name of output for the above axis
   output = f-curr          # surface crossing forward current spectrum
     part =  neutron  
# kf/name :  2112     
#    used :        main (  %)        temp (  %)       total (  %)
#  memory :         414 (  0)           0 (  0)         414 (  0)

#------------------------------------------------------------------------------
#newpage:
#   no. =    1   reg = 125 - 225

x: Energy [MeV/n]
y:  F-Curr [1/cm^2/(MeV/n)/source]         
p: xlog ylog afac(0.8) form(0.9)
h: n            x            y(neutron ),hh0l   n 
#  e-lower      e-upper      neutron     r.err 
   1.0000E-02   1.0243E-02   3.6168E-04  0.1508
   1.0243E-02   1.0493E-02   2.4877E-04  0.1796
   1.0493E-02   1.0748E-02   2.9872E-04  0.1617
   1.0748E-02   1.1009E-02   3.9005E-04  0.1400
   1.1009E-02   1.1277E-02   3.2479E-04  0.1512
   1.1277E-02   1.1552E-02   2.7334E-04  0.1628
   1.1552E-02   1.1833E-02   3.1310E-04  0.1508
   1.1833E-02   1.2121E-02   2.7788E-04  0.1581
   1.2121E-02   1.2415E-02   2.8484E-04  0.1534
   1.2415E-02   1.2718E-02   3.3085E-04  0.1405
   1.2718E-02   1.3027E-02   2.2716E-04  0.1684
   1.3027E-02   1.3344E-02   2.9657E-04  0.1459
   1.3344E-02   1.3669E-02   2.7721E-04  0.1491
   1.3669E-02   1.4001E-02   2.7062E-04  0.1491
   1.4001E-02   1.4342E-02   2.9024E-04  0.1417
   1.4342E-02   1.4691E-02   2.4646E-04  0.1525
   1.4691E-02   1.5048E-02   2.9465E-04  0.1373
   1.5048E-02   1.5414E-02   2.5401E-04  0.1463
   1.5414E-02   1.5789E-02   2.3731E-04  0.1495
   1.5789E-02   1.6174E-02   2.1174E-04  0.1560
   1.6174E-02   1.6567E-02   2.2358E-04  0.1496
   1.6567E-02   1.6970E-02   2.4312E-04  0.1429
   1.6970E-02   1.7383E-02   1.8891E-04  0.1601
   1.7383E-02   1.7806E-02   2.2698E-04  0.1443
   1.7806E-02   1.8239E-02   2.5390E-04  0.1348
   1.8239E-02   1.8683E-02   1.8992E-04  0.1538
   1.8683E-02   1.9138E-02   2.6398E-04  0.1291
   1.9138E-02   1.9603E-02   1.9758E-04  0.1474
   1.9603E-02   2.0080E-02   1.8529E-04  0.1502
   2.0080E-02   2.0569E-02   2.0956E-04  0.1396
   2.0569E-02   2.1069E-02   1.9982E-04  0.1414
   2.1069E-02   2.1582E-02   1.7626E-04  0.1485
   2.1582E-02   2.2107E-02   2.2531E-04  0.1299
   2.2107E-02   2.2645E-02   1.7723E-04  0.1443
   2.2645E-02   2.3196E-02   2.2982E-04  0.1254
   2.3196E-02   2.3760E-02   1.9904E-04  0.1333
   2.3760E-02   2.4338E-02   2.0758E-04  0.1291
   2.4338E-02   2.4930E-02   2.1619E-04  0.1243
   2.4930E-02   2.5537E-02   1.3189E-04  0.1581
   2.5537E-02   2.6158E-02   1.6461E-04  0.1397
   2.6158E-02   2.6795E-02   1.6543E-04  0.1373
   2.6795E-02   2.7447E-02   1.6008E-04  0.1382
   2.7447E-02   2.8114E-02   1.6472E-04  0.1348
   2.8114E-02   2.8799E-02   1.4911E-04  0.1400
   2.8799E-02   2.9499E-02   1.4604E-04  0.1396
   2.9499E-02   3.0217E-02   1.1703E-04  0.1543
   3.0217E-02   3.0952E-02   1.4629E-04  0.1357
   3.0952E-02   3.1705E-02   1.2785E-04  0.1439
   3.1705E-02   3.2477E-02   1.6593E-04  0.1250
   3.2477E-02   3.3267E-02   1.6118E-04  0.1249
   3.3267E-02   3.4076E-02   1.4326E-04  0.1306
   3.4076E-02   3.4905E-02   1.5275E-04  0.1254
   3.4905E-02   3.5755E-02   1.3188E-04  0.1336
   3.5755E-02   3.6625E-02   1.4254E-04  0.1270
   3.6625E-02   3.7516E-02   1.5150E-04  0.1215
   3.7516E-02   3.8428E-02   1.0298E-04  0.1459
   3.8428E-02   3.9363E-02   1.3476E-04  0.1255
   3.9363E-02   4.0321E-02   1.1903E-04  0.1325
   4.0321E-02   4.1302E-02   1.1246E-04  0.1345
   4.1302E-02   4.2307E-02   1.2140E-04  0.1280
   4.2307E-02   4.3337E-02   9.9090E-05  0.1400
   4.3337E-02   4.4391E-02   1.0628E-04  0.1328
   4.4391E-02   4.5471E-02   1.1636E-04  0.1256
   4.5471E-02   4.6577E-02   8.1349E-05  0.1491
   4.6577E-02   4.7711E-02   1.0589E-04  0.1291
   4.7711E-02   4.8871E-02   9.9328E-05  0.1313
   4.8871E-02   5.0061E-02   1.0092E-04  0.1291
   5.0061E-02   5.1279E-02   1.1931E-04  0.1170
   5.1279E-02   5.2526E-02   9.2975E-05  0.1313
   5.2526E-02   5.3804E-02   7.7896E-05  0.1410
   5.3804E-02   5.5113E-02   8.4027E-05  0.1348
   5.5113E-02   5.6454E-02   9.0980E-05  0.1275
   5.6454E-02   5.7828E-02   7.3203E-05  0.1407
   5.7828E-02   5.9235E-02   9.9707E-05  0.1193
   5.9235E-02   6.0676E-02   7.7711E-05  0.1336
   6.0676E-02   6.2152E-02   7.0447E-05  0.1387
   6.2152E-02   6.3665E-02   6.9022E-05  0.1382
   6.3665E-02   6.5214E-02   6.5203E-05  0.1404
   6.5214E-02   6.6800E-02   8.1301E-05  0.1243
   6.6800E-02   6.8426E-02   5.8050E-05  0.1454
   6.8426E-02   7.0090E-02   7.0516E-05  0.1301
   7.0090E-02   7.1796E-02   8.2337E-05  0.1192
   7.1796E-02   7.3543E-02   8.5869E-05  0.1155
   7.3543E-02   7.5332E-02   7.8241E-05  0.1195
   7.5332E-02   7.7165E-02   5.9066E-05  0.1358
   7.7165E-02   7.9042E-02   5.9450E-05  0.1332
   7.9042E-02   8.0965E-02   6.4682E-05  0.1266
   8.0965E-02   8.2935E-02   5.3808E-05  0.1374
   8.2935E-02   8.4953E-02   5.9760E-05  0.1285
   8.4953E-02   8.7020E-02   6.7385E-05  0.1195
   8.7020E-02   8.9138E-02   5.7621E-05  0.1280
   8.9138E-02   9.1306E-02   6.8381E-05  0.1160
   9.1306E-02   9.3528E-02   6.1500E-05  0.1208
   9.3528E-02   9.5804E-02   6.6300E-05  0.1149
   9.5804E-02   9.8134E-02   4.8049E-05  0.1336
   9.8134E-02   1.0052E-01   4.7043E-05  0.1333
   1.0052E-01   1.0297E-01   6.2148E-05  0.1147
   1.0297E-01   1.0547E-01   6.3593E-05  0.1118
   1.0547E-01   1.0804E-01   3.8691E-05  0.1414
   1.0804E-01   1.1067E-01   5.1111E-05  0.1219
   1.1067E-01   1.1336E-01   4.0852E-05  0.1348
   1.1336E-01   1.1612E-01   4.7363E-05  0.1235
   1.1612E-01   1.1894E-01   4.2474E-05  0.1291
   1.1894E-01   1.2184E-01   3.1099E-05  0.1491
   1.2184E-01   1.2480E-01   4.0578E-05  0.1288
   1.2480E-01   1.2784E-01   5.0057E-05  0.1147
   1.2784E-01   1.3095E-01   3.8457E-05  0.1288
   1.3095E-01   1.3414E-01   3.1386E-05  0.1414
   1.3414E-01   1.3740E-01   3.7461E-05  0.1278
   1.3740E-01   1.4074E-01   4.6362E-05  0.1129
   1.4074E-01   1.4417E-01   4.0883E-05  0.1195
   1.4417E-01   1.4767E-01   3.4293E-05  0.1288
   1.4767E-01   1.5127E-01   3.2563E-05  0.1305
   1.5127E-01   1.5495E-01   3.2061E-05  0.1296
   1.5495E-01   1.5872E-01   3.2179E-05  0.1280
   1.5872E-01   1.6258E-01   3.4699E-05  0.1222
   1.6258E-01   1.6654E-01   3.3370E-05  0.1231
   1.6654E-01   1.7059E-01   2.7147E-05  0.1348
   1.7059E-01   1.7474E-01   2.7466E-05  0.1325
   1.7474E-01   1.7899E-01   3.2224E-05  0.1205
   1.7899E-01   1.8334E-01   2.8324E-05  0.1269
   1.8334E-01   1.8781E-01   4.0417E-05  0.1052
   1.8781E-01   1.9237E-01   2.6543E-05  0.1275
   1.9237E-01   1.9706E-01   2.4356E-05  0.1319
   1.9706E-01   2.0185E-01   2.1691E-05  0.1387
   2.0185E-01   2.0676E-01   2.6401E-05  0.1237
   2.0676E-01   2.1179E-01   1.7952E-05  0.1486
   2.1179E-01   2.1694E-01   2.4766E-05  0.1247
   2.1694E-01   2.2222E-01   3.0372E-05  0.1113
   2.2222E-01   2.2763E-01   2.4180E-05  0.1234
   2.2763E-01   2.3317E-01   2.2129E-05  0.1270
   2.3317E-01   2.3884E-01   2.7396E-05  0.1131
   2.3884E-01   2.4465E-01   2.9082E-05  0.1083
   2.4465E-01   2.5061E-01   3.1583E-05  0.1031
   2.5061E-01   2.5670E-01   2.8697E-05  0.1067
   2.5670E-01   2.6295E-01   2.8767E-05  0.1052
   2.6295E-01   2.6935E-01   3.2407E-05  0.0980
   2.6935E-01   2.7590E-01   3.0307E-05  0.1000
   2.7590E-01   2.8261E-01   3.1730E-05  0.0966
   2.8261E-01   2.8949E-01   3.0242E-05  0.0978
   2.8949E-01   2.9653E-01   3.1136E-05  0.0951
   2.9653E-01   3.0375E-01   2.9014E-05  0.0973
   3.0375E-01   3.1114E-01   3.4593E-05  0.0882
   3.1114E-01   3.1871E-01   3.5642E-05  0.0858
   3.1871E-01   3.2646E-01   3.5884E-05  0.0847
   3.2646E-01   3.3441E-01   3.4621E-05  0.0852
   3.3441E-01   3.4254E-01   3.7641E-05  0.0806
   3.4254E-01   3.5088E-01   3.4387E-05  0.0833
   3.5088E-01   3.5941E-01   3.5522E-05  0.0811
   3.5941E-01   3.6816E-01   3.2924E-05  0.0830
   3.6816E-01   3.7712E-01   3.6454E-05  0.0780
   3.7712E-01   3.8629E-01   3.7564E-05  0.0761
   3.8629E-01   3.9569E-01   2.9337E-05  0.0850
   3.9569E-01   4.0532E-01   3.3585E-05  0.0784
   4.0532E-01   4.1518E-01   3.2149E-05  0.0792
   4.1518E-01   4.2528E-01   3.7152E-05  0.0727
   4.2528E-01   4.3563E-01   3.0979E-05  0.0788
   4.3563E-01   4.4623E-01   3.1743E-05  0.0769
   4.4623E-01   4.5708E-01   3.2268E-05  0.0753
   4.5708E-01   4.6821E-01   3.1682E-05  0.0750
   4.6821E-01   4.7960E-01   3.5107E-05  0.0706
   4.7960E-01   4.9127E-01   3.1168E-05  0.0739
   4.9127E-01   5.0322E-01   3.8143E-05  0.0660
   5.0322E-01   5.1546E-01   3.3812E-05  0.0693
   5.1546E-01   5.2800E-01   2.9776E-05  0.0730
   5.2800E-01   5.4085E-01   3.2998E-05  0.0685
   5.4085E-01   5.5401E-01   3.1218E-05  0.0693
   5.5401E-01   5.6749E-01   3.2383E-05  0.0674
   5.6749E-01   5.8130E-01   2.6966E-05  0.0730
   5.8130E-01   5.9544E-01   3.0314E-05  0.0681
   5.9544E-01   6.0993E-01   2.9760E-05  0.0678
   6.0993E-01   6.2477E-01   2.5650E-05  0.0720
   6.2477E-01   6.3997E-01   2.7576E-05  0.0689
   6.3997E-01   6.5554E-01   2.8763E-05  0.0666
   6.5554E-01   6.7149E-01   2.8315E-05  0.0664
   6.7149E-01   6.8783E-01   3.0104E-05  0.0633
   6.8783E-01   7.0456E-01   2.6306E-05  0.0670
   7.0456E-01   7.2171E-01   2.7902E-05  0.0644
   7.2171E-01   7.3927E-01   2.7031E-05  0.0647
   7.3927E-01   7.5725E-01   2.7669E-05  0.0629
   7.5725E-01   7.7568E-01   2.8343E-05  0.0615
   7.7568E-01   7.9455E-01   2.7565E-05  0.0616
   7.9455E-01   8.1388E-01   2.5282E-05  0.0637
   8.1388E-01   8.3368E-01   2.4380E-05  0.0641
   8.3368E-01   8.5397E-01   2.4472E-05  0.0632
   8.5397E-01   8.7475E-01   2.5174E-05  0.0613
   8.7475E-01   8.9603E-01   2.4503E-05  0.0615
   8.9603E-01   9.1783E-01   2.3183E-05  0.0624
   9.1783E-01   9.4016E-01   2.3356E-05  0.0616
   9.4016E-01   9.6304E-01   2.7320E-05  0.0562
   9.6304E-01   9.8647E-01   2.5580E-05  0.0574
   9.8647E-01   1.0105E+00   2.2649E-05  0.0603
   1.0105E+00   1.0351E+00   2.0799E-05  0.0621
   1.0351E+00   1.0602E+00   2.2788E-05  0.0588
   1.0602E+00   1.0860E+00   2.2967E-05  0.0577
   1.0860E+00   1.1125E+00   1.9922E-05  0.0613
   1.1125E+00   1.1395E+00   2.3036E-05  0.0564
   1.1395E+00   1.1673E+00   2.0289E-05  0.0593
   1.1673E+00   1.1957E+00   1.8585E-05  0.0609
   1.1957E+00   1.2247E+00   2.2742E-05  0.0546
   1.2247E+00   1.2545E+00   2.0243E-05  0.0572
   1.2545E+00   1.2851E+00   2.1612E-05  0.0546
   1.2851E+00   1.3163E+00   1.9520E-05  0.0568
   1.3163E+00   1.3484E+00   2.1959E-05  0.0529
   1.3484E+00   1.3812E+00   1.9271E-05  0.0559
   1.3812E+00   1.4148E+00   2.0232E-05  0.0539
   1.4148E+00   1.4492E+00   1.9476E-05  0.0543
   1.4492E+00   1.4845E+00   1.8256E-05  0.0552
   1.4845E+00   1.5206E+00   2.1192E-05  0.0508
   1.5206E+00   1.5576E+00   1.9648E-05  0.0520
   1.5576E+00   1.5955E+00   1.9420E-05  0.0518
   1.5955E+00   1.6343E+00   2.0206E-05  0.0501
   1.6343E+00   1.6741E+00   2.0531E-05  0.0492
   1.6741E+00   1.7148E+00   2.0255E-05  0.0489
   1.7148E+00   1.7565E+00   1.9123E-05  0.0498
   1.7565E+00   1.7992E+00   2.0000E-05  0.0481
   1.7992E+00   1.8430E+00   1.9224E-05  0.0484
   1.8430E+00   1.8879E+00   1.9977E-05  0.0470
   1.8879E+00   1.9338E+00   1.7479E-05  0.0496
   1.9338E+00   1.9808E+00   1.6583E-05  0.0503
   1.9808E+00   2.0290E+00   1.6954E-05  0.0491
   2.0290E+00   2.0784E+00   1.7268E-05  0.0481
   2.0784E+00   2.1290E+00   1.7929E-05  0.0467
   2.1290E+00   2.1808E+00   1.6955E-05  0.0474
   2.1808E+00   2.2338E+00   1.6254E-05  0.0478
   2.2338E+00   2.2882E+00   1.6629E-05  0.0468
   2.2882E+00   2.3439E+00   1.7062E-05  0.0456
   2.3439E+00   2.4009E+00   1.6294E-05  0.0461
   2.4009E+00   2.4593E+00   1.4738E-05  0.0479
   2.4593E+00   2.5191E+00   1.5838E-05  0.0457
   2.5191E+00   2.5804E+00   1.5702E-05  0.0454
   2.5804E+00   2.6432E+00   1.6415E-05  0.0438
   2.6432E+00   2.7075E+00   1.5458E-05  0.0446
   2.7075E+00   2.7734E+00   1.5528E-05  0.0440
   2.7734E+00   2.8409E+00   1.3808E-05  0.0462
   2.8409E+00   2.9100E+00   1.3920E-05  0.0453
   2.9100E+00   2.9808E+00   1.0735E-05  0.0511
   2.9808E+00   3.0533E+00   1.0586E-05  0.0508
   3.0533E+00   3.1276E+00   1.0330E-05  0.0507
   3.1276E+00   3.2037E+00   9.2279E-06  0.0530
   3.2037E+00   3.2817E+00   9.4608E-06  0.0518
   3.2817E+00   3.3615E+00   9.7713E-06  0.0504
   3.3615E+00   3.4433E+00   8.7298E-06  0.0527
   3.4433E+00   3.5271E+00   9.3663E-06  0.0501
   3.5271E+00   3.6129E+00   8.1364E-06  0.0531
   3.6129E+00   3.7008E+00   8.7282E-06  0.0508
   3.7008E+00   3.7908E+00   8.0381E-06  0.0523
   3.7908E+00   3.8831E+00   8.0857E-06  0.0515
   3.8831E+00   3.9776E+00   7.8373E-06  0.0518
   3.9776E+00   4.0743E+00   7.8245E-06  0.0512
   4.0743E+00   4.1735E+00   7.7634E-06  0.0508
   4.1735E+00   4.2750E+00   7.9446E-06  0.0496
   4.2750E+00   4.3790E+00   6.7992E-06  0.0529
   4.3790E+00   4.4856E+00   7.4665E-06  0.0500
   4.4856E+00   4.5947E+00   7.3141E-06  0.0499
   4.5947E+00   4.7065E+00   6.4990E-06  0.0523
   4.7065E+00   4.8210E+00   5.9805E-06  0.0538
   4.8210E+00   4.9383E+00   5.9413E-06  0.0534
   4.9383E+00   5.0585E+00   5.3662E-06  0.0555
   5.0585E+00   5.1815E+00   5.1703E-06  0.0559
   5.1815E+00   5.3076E+00   5.6389E-06  0.0529
   5.3076E+00   5.4368E+00   5.3459E-06  0.0537
   5.4368E+00   5.5690E+00   5.3327E-06  0.0531
   5.5690E+00   5.7045E+00   4.5288E-06  0.0569
   5.7045E+00   5.8433E+00   5.5298E-06  0.0509
   5.8433E+00   5.9855E+00   4.7312E-06  0.0543
   5.9855E+00   6.1311E+00   4.5161E-06  0.0551
   6.1311E+00   6.2803E+00   4.4403E-06  0.0548
   6.2803E+00   6.4331E+00   4.7332E-06  0.0525
   6.4331E+00   6.5896E+00   4.1355E-06  0.0555
   6.5896E+00   6.7500E+00   3.8017E-06  0.0571
   6.7500E+00   6.9142E+00   3.7259E-06  0.0571
   6.9142E+00   7.0824E+00   3.9271E-06  0.0549
   7.0824E+00   7.2548E+00   3.7011E-06  0.0559
   7.2548E+00   7.4313E+00   3.9576E-06  0.0534
   7.4313E+00   7.6121E+00   3.4289E-06  0.0567
   7.6121E+00   7.7973E+00   3.3118E-06  0.0570
   7.7973E+00   7.9870E+00   3.0615E-06  0.0586
   7.9870E+00   8.1813E+00   2.9038E-06  0.0594
   8.1813E+00   8.3804E+00   2.9206E-06  0.0586
   8.3804E+00   8.5843E+00   3.0356E-06  0.0568
   8.5843E+00   8.7931E+00   2.8353E-06  0.0580
   8.7931E+00   9.0071E+00   2.5992E-06  0.0599
   9.0071E+00   9.2262E+00   2.4871E-06  0.0605
   9.2262E+00   9.4507E+00   2.6066E-06  0.0584
   9.4507E+00   9.6807E+00   2.3500E-06  0.0608
   9.6807E+00   9.9162E+00   2.1195E-06  0.0632
   9.9162E+00   1.0157E+01   2.4288E-06  0.0584
   1.0157E+01   1.0405E+01   2.1632E-06  0.0611
   1.0405E+01   1.0658E+01   2.5450E-06  0.0557
   1.0658E+01   1.0917E+01   2.4412E-06  0.0562
   1.0917E+01   1.1183E+01   2.7885E-06  0.0519
   1.1183E+01   1.1455E+01   2.3451E-06  0.0559
   1.1455E+01   1.1733E+01   2.1244E-06  0.0581
   1.1733E+01   1.2019E+01   1.9766E-06  0.0595
   1.2019E+01   1.2311E+01   1.9423E-06  0.0593
   1.2311E+01   1.2611E+01   2.0744E-06  0.0567
   1.2611E+01   1.2918E+01   1.8815E-06  0.0588
   1.2918E+01   1.3232E+01   1.9000E-06  0.0578
   1.3232E+01   1.3554E+01   1.8036E-06  0.0587
   1.3554E+01   1.3884E+01   1.7526E-06  0.0588
   1.3884E+01   1.4222E+01   1.5125E-06  0.0625
   1.4222E+01   1.4568E+01   1.3860E-06  0.0645
   1.4568E+01   1.4922E+01   1.4276E-06  0.0629
   1.4922E+01   1.5285E+01   1.4385E-06  0.0619
   1.5285E+01   1.5657E+01   1.4055E-06  0.0618
   1.5657E+01   1.6038E+01   1.3556E-06  0.0622
   1.6038E+01   1.6428E+01   1.2516E-06  0.0640
   1.6428E+01   1.6828E+01   1.2759E-06  0.0626
   1.6828E+01   1.7237E+01   1.1040E-06  0.0665
   1.7237E+01   1.7657E+01   9.5375E-07  0.0707
   1.7657E+01   1.8086E+01   8.7988E-07  0.0727
   1.8086E+01   1.8526E+01   9.3625E-07  0.0697
   1.8526E+01   1.8977E+01   8.1639E-07  0.0737
   1.8977E+01   1.9439E+01   7.1904E-07  0.0776
   1.9439E+01   1.9912E+01   6.8504E-07  0.0786
   1.9912E+01   2.0396E+01   5.4905E-07  0.0867
   2.0396E+01   2.0893E+01   4.6750E-07  0.0928
   2.0893E+01   2.1401E+01   4.0131E-07  0.0990
   2.1401E+01   2.1922E+01   3.7257E-07  0.1015
   2.1922E+01   2.2455E+01   3.4123E-07  0.1048
   2.2455E+01   2.3001E+01   2.2330E-07  0.1280
   2.3001E+01   2.3561E+01   1.6796E-07  0.1459
   2.3561E+01   2.4134E+01   1.0466E-07  0.1826
   2.4134E+01   2.4721E+01   5.1089E-08  0.2582
   2.4721E+01   2.5323E+01   2.3275E-08  0.3780
   2.5323E+01   2.5939E+01   2.2723E-08  0.3780
   2.5939E+01   2.6570E+01   1.2676E-08  0.5000
   2.6570E+01   2.7217E+01   0.0000E+00  0.0000
   2.7217E+01   2.7879E+01   0.0000E+00  0.0000
   2.7879E+01   2.8557E+01   0.0000E+00  0.0000
   2.8557E+01   2.9252E+01   0.0000E+00  0.0000
   2.9252E+01   2.9964E+01   0.0000E+00  0.0000
   2.9964E+01   3.0693E+01   0.0000E+00  0.0000
   3.0693E+01   3.1440E+01   0.0000E+00  0.0000
   3.1440E+01   3.2205E+01   0.0000E+00  0.0000
   3.2205E+01   3.2988E+01   0.0000E+00  0.0000
   3.2988E+01   3.3791E+01   0.0000E+00  0.0000
   3.3791E+01   3.4613E+01   0.0000E+00  0.0000
   3.4613E+01   3.5455E+01   0.0000E+00  0.0000
   3.5455E+01   3.6318E+01   0.0000E+00  0.0000
   3.6318E+01   3.7201E+01   0.0000E+00  0.0000
   3.7201E+01   3.8106E+01   0.0000E+00  0.0000
   3.8106E+01   3.9034E+01   0.0000E+00  0.0000
   3.9034E+01   3.9983E+01   0.0000E+00  0.0000
   3.9983E+01   4.0956E+01   0.0000E+00  0.0000
   4.0956E+01   4.1953E+01   0.0000E+00  0.0000
   4.1953E+01   4.2973E+01   0.0000E+00  0.0000
   4.2973E+01   4.4019E+01   0.0000E+00  0.0000
   4.4019E+01   4.5090E+01   0.0000E+00  0.0000
   4.5090E+01   4.6187E+01   0.0000E+00  0.0000
   4.6187E+01   4.7311E+01   0.0000E+00  0.0000
   4.7311E+01   4.8462E+01   0.0000E+00  0.0000
   4.8462E+01   4.9641E+01   0.0000E+00  0.0000
   4.9641E+01   5.0849E+01   0.0000E+00  0.0000
   5.0849E+01   5.2086E+01   0.0000E+00  0.0000
   5.2086E+01   5.3353E+01   0.0000E+00  0.0000
   5.3353E+01   5.4651E+01   0.0000E+00  0.0000
   5.4651E+01   5.5981E+01   0.0000E+00  0.0000
   5.5981E+01   5.7343E+01   0.0000E+00  0.0000
   5.7343E+01   5.8738E+01   0.0000E+00  0.0000
   5.8738E+01   6.0168E+01   0.0000E+00  0.0000
   6.0168E+01   6.1632E+01   0.0000E+00  0.0000
   6.1632E+01   6.3131E+01   0.0000E+00  0.0000
   6.3131E+01   6.4667E+01   0.0000E+00  0.0000
   6.4667E+01   6.6240E+01   0.0000E+00  0.0000
   6.6240E+01   6.7852E+01   0.0000E+00  0.0000
   6.7852E+01   6.9503E+01   0.0000E+00  0.0000
   6.9503E+01   7.1194E+01   0.0000E+00  0.0000
   7.1194E+01   7.2926E+01   0.0000E+00  0.0000
   7.2926E+01   7.4701E+01   0.0000E+00  0.0000
   7.4701E+01   7.6518E+01   0.0000E+00  0.0000
   7.6518E+01   7.8380E+01   0.0000E+00  0.0000
   7.8380E+01   8.0287E+01   0.0000E+00  0.0000
   8.0287E+01   8.2240E+01   0.0000E+00  0.0000
   8.2240E+01   8.4241E+01   0.0000E+00  0.0000
   8.4241E+01   8.6291E+01   0.0000E+00  0.0000
   8.6291E+01   8.8391E+01   0.0000E+00  0.0000
   8.8391E+01   9.0541E+01   0.0000E+00  0.0000
   9.0541E+01   9.2744E+01   0.0000E+00  0.0000
   9.2744E+01   9.5001E+01   0.0000E+00  0.0000
   9.5001E+01   9.7312E+01   0.0000E+00  0.0000
   9.7312E+01   9.9680E+01   0.0000E+00  0.0000
   9.9680E+01   1.0211E+02   0.0000E+00  0.0000
   1.0211E+02   1.0459E+02   0.0000E+00  0.0000
   1.0459E+02   1.0713E+02   0.0000E+00  0.0000
   1.0713E+02   1.0974E+02   0.0000E+00  0.0000
   1.0974E+02   1.1241E+02   0.0000E+00  0.0000
   1.1241E+02   1.1515E+02   0.0000E+00  0.0000
   1.1515E+02   1.1795E+02   0.0000E+00  0.0000
   1.1795E+02   1.2082E+02   0.0000E+00  0.0000
   1.2082E+02   1.2376E+02   0.0000E+00  0.0000
   1.2376E+02   1.2677E+02   0.0000E+00  0.0000
   1.2677E+02   1.2985E+02   0.0000E+00  0.0000
   1.2985E+02   1.3301E+02   0.0000E+00  0.0000
   1.3301E+02   1.3625E+02   0.0000E+00  0.0000
   1.3625E+02   1.3956E+02   0.0000E+00  0.0000
   1.3956E+02   1.4296E+02   0.0000E+00  0.0000
   1.4296E+02   1.4644E+02   0.0000E+00  0.0000
   1.4644E+02   1.5000E+02   0.0000E+00  0.0000

#   sum over                 8.1927E-07
'no. =    1   reg = 125 - 225'
msuc: {\huge [t-cross] in region mesh}
msdr: {\it plotted by \ANGEL \version}
msdl: {\it calculated by \PHITS  3.26}
wt: s(0.7)
\vspace{-3}
  region surface crossing
  area  &=&   1.0000E+00 [cm^2]
e:
 
# Information for Restart Calculation
# This calculation was newly started
# istdev =  2 # 1:Batch variance, 2:History variance
# resc2  = 5.00000000000000000E+08 # Total source weight or Total source weight / maxcas
# resc3  = 5.00000000000000000E+08 # Total history number or Total batch number
# maxcas =   500000000 # History / Batch, only used for istdev=1
# bitrseed = 1011101111111101000111101101010011111001010110111001011111010111 # bit data of rseed
