[ T-Cross ]
    title = [t-cross] in region mesh
     mesh =  reg            # mesh type is region-wise
      reg =    1            # number of crossing regions
      non     r-from    r-to       area
      1       120       220        1.000000    
   e-type =    3            # e-mesh is log given by emin, emax and ne
     emin =  1.0000000E-02  # minimum value of e-mesh points
     emax =   150.0000      # maximum value of e-mesh points
#    edel =  2.4039514E-02  # mesh width of e-mesh points
       ne =    400          # number of e-mesh points
#    data = ( e(i), i = 1, ne + 1 )
#           1.00000E-02  1.02433E-02  1.04925E-02  1.07478E-02  1.10093E-02
#           1.12772E-02  1.15516E-02  1.18326E-02  1.21205E-02  1.24154E-02
#           1.27175E-02  1.30269E-02  1.33439E-02  1.36686E-02  1.40011E-02
#           1.43418E-02  1.46907E-02  1.50482E-02  1.54143E-02  1.57894E-02
#           1.61735E-02  1.65670E-02  1.69701E-02  1.73830E-02  1.78060E-02
#           1.82392E-02  1.86830E-02  1.91375E-02  1.96032E-02  2.00801E-02
#           2.05687E-02  2.10692E-02  2.15818E-02  2.21069E-02  2.26448E-02
#           2.31957E-02  2.37601E-02  2.43382E-02  2.49304E-02  2.55369E-02
#           2.61583E-02  2.67947E-02  2.74467E-02  2.81145E-02  2.87985E-02
#           2.94992E-02  3.02169E-02  3.09521E-02  3.17052E-02  3.24766E-02
#           3.32668E-02  3.40762E-02  3.49053E-02  3.57546E-02  3.66246E-02
#           3.75157E-02  3.84284E-02  3.93634E-02  4.03212E-02  4.13022E-02
#           4.23071E-02  4.33365E-02  4.43909E-02  4.54710E-02  4.65773E-02
#           4.77106E-02  4.88714E-02  5.00605E-02  5.12785E-02  5.25262E-02
#           5.38042E-02  5.51133E-02  5.64542E-02  5.78278E-02  5.92348E-02
#           6.06760E-02  6.21523E-02  6.36645E-02  6.52135E-02  6.68002E-02
#           6.84255E-02  7.00904E-02  7.17957E-02  7.35426E-02  7.53319E-02
#           7.71648E-02  7.90423E-02  8.09655E-02  8.29354E-02  8.49533E-02
#           8.70203E-02  8.91376E-02  9.13064E-02  9.35279E-02  9.58035E-02
#           9.81345E-02  1.00522E-01  1.02968E-01  1.05473E-01  1.08040E-01
#           1.10668E-01  1.13361E-01  1.16119E-01  1.18944E-01  1.21838E-01
#           1.24803E-01  1.27839E-01  1.30950E-01  1.34136E-01  1.37399E-01
#           1.40742E-01  1.44167E-01  1.47675E-01  1.51268E-01  1.54948E-01
#           1.58718E-01  1.62580E-01  1.66535E-01  1.70587E-01  1.74738E-01
#           1.78989E-01  1.83344E-01  1.87805E-01  1.92375E-01  1.97055E-01
#           2.01850E-01  2.06761E-01  2.11792E-01  2.16945E-01  2.22223E-01
#           2.27630E-01  2.33169E-01  2.38842E-01  2.44653E-01  2.50605E-01
#           2.56703E-01  2.62949E-01  2.69346E-01  2.75900E-01  2.82613E-01
#           2.89489E-01  2.96532E-01  3.03747E-01  3.11138E-01  3.18708E-01
#           3.26462E-01  3.34405E-01  3.42542E-01  3.50876E-01  3.59413E-01
#           3.68158E-01  3.77116E-01  3.86291E-01  3.95690E-01  4.05317E-01
#           4.15179E-01  4.25281E-01  4.35628E-01  4.46227E-01  4.57084E-01
#           4.68205E-01  4.79597E-01  4.91266E-01  5.03219E-01  5.15463E-01
#           5.28005E-01  5.40851E-01  5.54011E-01  5.67490E-01  5.81298E-01
#           5.95441E-01  6.09929E-01  6.24769E-01  6.39970E-01  6.55541E-01
#           6.71491E-01  6.87828E-01  7.04564E-01  7.21706E-01  7.39266E-01
#           7.57253E-01  7.75678E-01  7.94551E-01  8.13883E-01  8.33685E-01
#           8.53969E-01  8.74747E-01  8.96030E-01  9.17831E-01  9.40163E-01
#           9.63038E-01  9.86469E-01  1.01047E+00  1.03506E+00  1.06024E+00
#           1.08604E+00  1.11246E+00  1.13953E+00  1.16725E+00  1.19565E+00
#           1.22474E+00  1.25454E+00  1.28507E+00  1.31633E+00  1.34836E+00
#           1.38117E+00  1.41477E+00  1.44920E+00  1.48446E+00  1.52057E+00
#           1.55757E+00  1.59547E+00  1.63429E+00  1.67405E+00  1.71478E+00
#           1.75650E+00  1.79924E+00  1.84302E+00  1.88786E+00  1.93379E+00
#           1.98084E+00  2.02904E+00  2.07841E+00  2.12898E+00  2.18078E+00
#           2.23384E+00  2.28819E+00  2.34386E+00  2.40089E+00  2.45930E+00
#           2.51914E+00  2.58043E+00  2.64322E+00  2.70753E+00  2.77341E+00
#           2.84088E+00  2.91001E+00  2.98081E+00  3.05333E+00  3.12762E+00
#           3.20372E+00  3.28167E+00  3.36152E+00  3.44330E+00  3.52708E+00
#           3.61290E+00  3.70080E+00  3.79085E+00  3.88308E+00  3.97756E+00
#           4.07434E+00  4.17347E+00  4.27501E+00  4.37903E+00  4.48557E+00
#           4.59471E+00  4.70650E+00  4.82102E+00  4.93832E+00  5.05847E+00
#           5.18155E+00  5.30762E+00  5.43676E+00  5.56904E+00  5.70453E+00
#           5.84333E+00  5.98550E+00  6.13114E+00  6.28031E+00  6.43312E+00
#           6.58964E+00  6.74997E+00  6.91420E+00  7.08243E+00  7.25475E+00
#           7.43126E+00  7.61207E+00  7.79728E+00  7.98700E+00  8.18133E+00
#           8.38038E+00  8.58428E+00  8.79315E+00  9.00709E+00  9.22624E+00
#           9.45072E+00  9.68067E+00  9.91620E+00  1.01575E+01  1.04046E+01
#           1.06578E+01  1.09171E+01  1.11827E+01  1.14548E+01  1.17335E+01
#           1.20190E+01  1.23114E+01  1.26109E+01  1.29178E+01  1.32321E+01
#           1.35540E+01  1.38838E+01  1.42216E+01  1.45676E+01  1.49221E+01
#           1.52851E+01  1.56570E+01  1.60380E+01  1.64282E+01  1.68279E+01
#           1.72374E+01  1.76568E+01  1.80864E+01  1.85264E+01  1.89772E+01
#           1.94389E+01  1.99119E+01  2.03963E+01  2.08926E+01  2.14009E+01
#           2.19216E+01  2.24550E+01  2.30014E+01  2.35610E+01  2.41343E+01
#           2.47215E+01  2.53230E+01  2.59391E+01  2.65702E+01  2.72167E+01
#           2.78789E+01  2.85572E+01  2.92520E+01  2.99637E+01  3.06928E+01
#           3.14396E+01  3.22045E+01  3.29881E+01  3.37907E+01  3.46128E+01
#           3.54550E+01  3.63177E+01  3.72013E+01  3.81064E+01  3.90336E+01
#           3.99833E+01  4.09561E+01  4.19526E+01  4.29734E+01  4.40189E+01
#           4.50900E+01  4.61870E+01  4.73108E+01  4.84619E+01  4.96410E+01
#           5.08488E+01  5.20860E+01  5.33533E+01  5.46514E+01  5.59812E+01
#           5.73432E+01  5.87384E+01  6.01676E+01  6.16315E+01  6.31311E+01
#           6.46671E+01  6.62405E+01  6.78522E+01  6.95031E+01  7.11941E+01
#           7.29263E+01  7.47007E+01  7.65182E+01  7.83800E+01  8.02870E+01
#           8.22405E+01  8.42414E+01  8.62911E+01  8.83906E+01  9.05412E+01
#           9.27442E+01  9.50007E+01  9.73122E+01  9.96799E+01  1.02105E+02
#           1.04589E+02  1.07134E+02  1.09741E+02  1.12411E+02  1.15146E+02
#           1.17948E+02  1.20817E+02  1.23757E+02  1.26768E+02  1.29852E+02
#           1.33012E+02  1.36248E+02  1.39563E+02  1.42959E+02  1.46437E+02
#           1.50000E+02
     unit =    2            # unit is [1/cm^2/(MeV/n)/source]
     axis =  eng            # axis of output
     file = detector-21.out  # file name of output for the above axis
   output = f-curr          # surface crossing forward current spectrum
     part =  neutron  
# kf/name :  2112     
#    used :        main (  %)        temp (  %)       total (  %)
#  memory :         414 (  0)           0 (  0)         414 (  0)

#------------------------------------------------------------------------------
#newpage:
#   no. =    1   reg = 120 - 220

x: Energy [MeV/n]
y:  F-Curr [1/cm^2/(MeV/n)/source]         
p: xlog ylog afac(0.8) form(0.9)
h: n            x            y(neutron ),hh0l   n 
#  e-lower      e-upper      neutron     r.err 
   1.0000E-02   1.0243E-02   3.4311E-03  0.0488
   1.0243E-02   1.0493E-02   3.4822E-03  0.0479
   1.0493E-02   1.0748E-02   3.1065E-03  0.0501
   1.0748E-02   1.1009E-02   3.2669E-03  0.0483
   1.1009E-02   1.1277E-02   3.1302E-03  0.0487
   1.1277E-02   1.1552E-02   3.2500E-03  0.0472
   1.1552E-02   1.1833E-02   3.0800E-03  0.0480
   1.1833E-02   1.2121E-02   3.1541E-03  0.0468
   1.2121E-02   1.2415E-02   2.9605E-03  0.0477
   1.2415E-02   1.2718E-02   2.9773E-03  0.0470
   1.2718E-02   1.3027E-02   2.9774E-03  0.0465
   1.3027E-02   1.3344E-02   2.6462E-03  0.0487
   1.3344E-02   1.3669E-02   2.9694E-03  0.0455
   1.3669E-02   1.4001E-02   2.4513E-03  0.0494
   1.4001E-02   1.4342E-02   2.6634E-03  0.0469
   1.4342E-02   1.4691E-02   2.6767E-03  0.0462
   1.4691E-02   1.5048E-02   2.6892E-03  0.0455
   1.5048E-02   1.5414E-02   2.4623E-03  0.0470
   1.5414E-02   1.5789E-02   2.5174E-03  0.0459
   1.5789E-02   1.6174E-02   2.5680E-03  0.0449
   1.6174E-02   1.6567E-02   2.3261E-03  0.0466
   1.6567E-02   1.6970E-02   2.4544E-03  0.0449
   1.6970E-02   1.7383E-02   2.4036E-03  0.0447
   1.7383E-02   1.7806E-02   2.5137E-03  0.0433
   1.7806E-02   1.8239E-02   2.2140E-03  0.0455
   1.8239E-02   1.8683E-02   2.3127E-03  0.0441
   1.8683E-02   1.9138E-02   2.4346E-03  0.0424
   1.9138E-02   1.9603E-02   2.2161E-03  0.0439
   1.9603E-02   2.0080E-02   2.0866E-03  0.0447
   2.0080E-02   2.0569E-02   2.1406E-03  0.0436
   2.0569E-02   2.1069E-02   2.1091E-03  0.0434
   2.1069E-02   2.1582E-02   2.1291E-03  0.0427
   2.1582E-02   2.2107E-02   2.0965E-03  0.0425
   2.2107E-02   2.2645E-02   1.9253E-03  0.0438
   2.2645E-02   2.3196E-02   1.9587E-03  0.0430
   2.3196E-02   2.3760E-02   2.0276E-03  0.0417
   2.3760E-02   2.4338E-02   1.7366E-03  0.0445
   2.4338E-02   2.4930E-02   1.7144E-03  0.0443
   2.4930E-02   2.5537E-02   1.7620E-03  0.0431
   2.5537E-02   2.6158E-02   1.7201E-03  0.0432
   2.6158E-02   2.6795E-02   1.7186E-03  0.0427
   2.6795E-02   2.7447E-02   1.7126E-03  0.0422
   2.7447E-02   2.8114E-02   1.5143E-03  0.0443
   2.8114E-02   2.8799E-02   1.6963E-03  0.0414
   2.8799E-02   2.9499E-02   1.6298E-03  0.0418
   2.9499E-02   3.0217E-02   1.5803E-03  0.0419
   3.0217E-02   3.0952E-02   1.5020E-03  0.0424
   3.0952E-02   3.1705E-02   1.5596E-03  0.0412
   3.1705E-02   3.2477E-02   1.5066E-03  0.0414
   3.2477E-02   3.3267E-02   1.4426E-03  0.0418
   3.3267E-02   3.4076E-02   1.4807E-03  0.0408
   3.4076E-02   3.4905E-02   1.3195E-03  0.0426
   3.4905E-02   3.5755E-02   1.4913E-03  0.0397
   3.5755E-02   3.6625E-02   1.3345E-03  0.0414
   3.6625E-02   3.7516E-02   1.4231E-03  0.0396
   3.7516E-02   3.8428E-02   1.4295E-03  0.0391
   3.8428E-02   3.9363E-02   1.3376E-03  0.0399
   3.9363E-02   4.0321E-02   1.3772E-03  0.0388
   4.0321E-02   4.1302E-02   1.3003E-03  0.0395
   4.1302E-02   4.2307E-02   1.2676E-03  0.0395
   4.2307E-02   4.3337E-02   1.2863E-03  0.0388
   4.3337E-02   4.4391E-02   1.2472E-03  0.0390
   4.4391E-02   4.5471E-02   1.1853E-03  0.0394
   4.5471E-02   4.6577E-02   1.2064E-03  0.0386
   4.6577E-02   4.7711E-02   1.1623E-03  0.0389
   4.7711E-02   4.8871E-02   1.1976E-03  0.0379
   4.8871E-02   5.0061E-02   9.7414E-04  0.0415
   5.0061E-02   5.1279E-02   1.1134E-03  0.0384
   5.1279E-02   5.2526E-02   1.0748E-03  0.0385
   5.2526E-02   5.3804E-02   1.0282E-03  0.0389
   5.3804E-02   5.5113E-02   9.9853E-04  0.0390
   5.5113E-02   5.6454E-02   1.1032E-03  0.0367
   5.6454E-02   5.7828E-02   1.0023E-03  0.0380
   5.7828E-02   5.9235E-02   1.0364E-03  0.0370
   5.9235E-02   6.0676E-02   9.6938E-04  0.0377
   6.0676E-02   6.2152E-02   9.8477E-04  0.0370
   6.2152E-02   6.3665E-02   9.1752E-04  0.0379
   6.3665E-02   6.5214E-02   9.0263E-04  0.0378
   6.5214E-02   6.6800E-02   8.9023E-04  0.0376
   6.6800E-02   6.8426E-02   8.5514E-04  0.0379
   6.8426E-02   7.0090E-02   8.4901E-04  0.0375
   7.0090E-02   7.1796E-02   9.0325E-04  0.0360
   7.1796E-02   7.3543E-02   8.2431E-04  0.0372
   7.3543E-02   7.5332E-02   7.7076E-04  0.0380
   7.5332E-02   7.7165E-02   8.2098E-04  0.0363
   7.7165E-02   7.9042E-02   8.0199E-04  0.0363
   7.9042E-02   8.0965E-02   7.4146E-04  0.0374
   8.0965E-02   8.2935E-02   7.6261E-04  0.0364
   8.2935E-02   8.4953E-02   7.1967E-04  0.0370
   8.4953E-02   8.7020E-02   7.1298E-04  0.0367
   8.7020E-02   8.9138E-02   7.0972E-04  0.0364
   8.9138E-02   9.1306E-02   6.8604E-04  0.0366
   9.1306E-02   9.3528E-02   7.0184E-04  0.0357
   9.3528E-02   9.5804E-02   6.4023E-04  0.0370
   9.5804E-02   9.8134E-02   6.5648E-04  0.0361
   9.8134E-02   1.0052E-01   6.4434E-04  0.0360
   1.0052E-01   1.0297E-01   6.1896E-04  0.0363
   1.0297E-01   1.0547E-01   5.9876E-04  0.0364
   1.0547E-01   1.0804E-01   6.1463E-04  0.0356
   1.0804E-01   1.1067E-01   5.9928E-04  0.0356
   1.1067E-01   1.1336E-01   5.6989E-04  0.0360
   1.1336E-01   1.1612E-01   6.1338E-04  0.0343
   1.1612E-01   1.1894E-01   5.4762E-04  0.0359
   1.1894E-01   1.2184E-01   5.4485E-04  0.0355
   1.2184E-01   1.2480E-01   5.1836E-04  0.0360
   1.2480E-01   1.2784E-01   5.4079E-04  0.0348
   1.2784E-01   1.3095E-01   5.3907E-04  0.0345
   1.3095E-01   1.3414E-01   4.7275E-04  0.0364
   1.3414E-01   1.3740E-01   4.4970E-04  0.0368
   1.3740E-01   1.4074E-01   4.8692E-04  0.0350
   1.4074E-01   1.4417E-01   4.4451E-04  0.0362
   1.4417E-01   1.4767E-01   4.6845E-04  0.0348
   1.4767E-01   1.5127E-01   4.6376E-04  0.0346
   1.5127E-01   1.5495E-01   4.3941E-04  0.0351
   1.5495E-01   1.5872E-01   4.0570E-04  0.0361
   1.5872E-01   1.6258E-01   3.9562E-04  0.0361
   1.6258E-01   1.6654E-01   3.9562E-04  0.0357
   1.6654E-01   1.7059E-01   3.7303E-04  0.0363
   1.7059E-01   1.7474E-01   4.0284E-04  0.0345
   1.7474E-01   1.7899E-01   3.6409E-04  0.0359
   1.7899E-01   1.8334E-01   3.6265E-04  0.0355
   1.8334E-01   1.8781E-01   3.6565E-04  0.0349
   1.8781E-01   1.9237E-01   3.4137E-04  0.0358
   1.9237E-01   1.9706E-01   3.5063E-04  0.0348
   1.9706E-01   2.0185E-01   3.3487E-04  0.0353
   2.0185E-01   2.0676E-01   3.3293E-04  0.0349
   2.0676E-01   2.1179E-01   3.6882E-04  0.0328
   2.1179E-01   2.1694E-01   3.4168E-04  0.0336
   2.1694E-01   2.2222E-01   3.5748E-04  0.0325
   2.2222E-01   2.2763E-01   3.7802E-04  0.0312
   2.2763E-01   2.3317E-01   3.7742E-04  0.0309
   2.3317E-01   2.3884E-01   4.1036E-04  0.0292
   2.3884E-01   2.4465E-01   3.9408E-04  0.0295
   2.4465E-01   2.5061E-01   4.0613E-04  0.0287
   2.5061E-01   2.5670E-01   4.0222E-04  0.0285
   2.5670E-01   2.6295E-01   4.1648E-04  0.0277
   2.6295E-01   2.6935E-01   4.1842E-04  0.0272
   2.6935E-01   2.7590E-01   4.1085E-04  0.0272
   2.7590E-01   2.8261E-01   4.1664E-04  0.0267
   2.8261E-01   2.8949E-01   4.3922E-04  0.0257
   2.8949E-01   2.9653E-01   4.3345E-04  0.0255
   2.9653E-01   3.0375E-01   4.6079E-04  0.0245
   3.0375E-01   3.1114E-01   4.5786E-04  0.0243
   3.1114E-01   3.1871E-01   4.6593E-04  0.0238
   3.1871E-01   3.2646E-01   4.6119E-04  0.0236
   3.2646E-01   3.3441E-01   4.6819E-04  0.0231
   3.3441E-01   3.4254E-01   4.8744E-04  0.0224
   3.4254E-01   3.5088E-01   4.8069E-04  0.0223
   3.5088E-01   3.5941E-01   5.0080E-04  0.0216
   3.5941E-01   3.6816E-01   4.9246E-04  0.0215
   3.6816E-01   3.7712E-01   5.0979E-04  0.0209
   3.7712E-01   3.8629E-01   5.0186E-04  0.0208
   3.8629E-01   3.9569E-01   5.2568E-04  0.0201
   3.9569E-01   4.0532E-01   5.1085E-04  0.0201
   4.0532E-01   4.1518E-01   5.1259E-04  0.0198
   4.1518E-01   4.2528E-01   5.2239E-04  0.0194
   4.2528E-01   4.3563E-01   5.1038E-04  0.0194
   4.3563E-01   4.4623E-01   5.4736E-04  0.0185
   4.4623E-01   4.5708E-01   5.2003E-04  0.0188
   4.5708E-01   4.6821E-01   5.2648E-04  0.0184
   4.6821E-01   4.7960E-01   5.2901E-04  0.0182
   4.7960E-01   4.9127E-01   5.2358E-04  0.0180
   4.9127E-01   5.0322E-01   5.2200E-04  0.0178
   5.0322E-01   5.1546E-01   5.4919E-04  0.0172
   5.1546E-01   5.2800E-01   5.2805E-04  0.0173
   5.2800E-01   5.4085E-01   5.3382E-04  0.0170
   5.4085E-01   5.5401E-01   5.3643E-04  0.0168
   5.5401E-01   5.6749E-01   5.5679E-04  0.0163
   5.6749E-01   5.8130E-01   5.4234E-04  0.0163
   5.8130E-01   5.9544E-01   5.3657E-04  0.0162
   5.9544E-01   6.0993E-01   5.5047E-04  0.0158
   6.0993E-01   6.2477E-01   5.3254E-04  0.0159
   6.2477E-01   6.3997E-01   5.4105E-04  0.0155
   6.3997E-01   6.5554E-01   5.2195E-04  0.0156
   6.5554E-01   6.7149E-01   5.4149E-04  0.0152
   6.7149E-01   6.8783E-01   5.3076E-04  0.0151
   6.8783E-01   7.0456E-01   5.3909E-04  0.0148
   7.0456E-01   7.2171E-01   5.1223E-04  0.0150
   7.2171E-01   7.3927E-01   5.1571E-04  0.0148
   7.3927E-01   7.5725E-01   5.0310E-04  0.0148
   7.5725E-01   7.7568E-01   5.0690E-04  0.0146
   7.7568E-01   7.9455E-01   5.0085E-04  0.0145
   7.9455E-01   8.1388E-01   4.9066E-04  0.0145
   8.1388E-01   8.3368E-01   4.8833E-04  0.0143
   8.3368E-01   8.5397E-01   4.7626E-04  0.0143
   8.5397E-01   8.7475E-01   4.7096E-04  0.0142
   8.7475E-01   8.9603E-01   4.6454E-04  0.0142
   8.9603E-01   9.1783E-01   4.5626E-04  0.0141
   9.1783E-01   9.4016E-01   4.3542E-04  0.0143
   9.4016E-01   9.6304E-01   4.2553E-04  0.0143
   9.6304E-01   9.8647E-01   4.1139E-04  0.0143
   9.8647E-01   1.0105E+00   3.8635E-04  0.0146
   1.0105E+00   1.0351E+00   3.8386E-04  0.0145
   1.0351E+00   1.0602E+00   3.7741E-04  0.0144
   1.0602E+00   1.0860E+00   3.6475E-04  0.0145
   1.0860E+00   1.1125E+00   3.6683E-04  0.0143
   1.1125E+00   1.1395E+00   3.5078E-04  0.0144
   1.1395E+00   1.1673E+00   3.4719E-04  0.0143
   1.1673E+00   1.1957E+00   3.5324E-04  0.0141
   1.1957E+00   1.2247E+00   3.4101E-04  0.0141
   1.2247E+00   1.2545E+00   3.3714E-04  0.0140
   1.2545E+00   1.2851E+00   3.2590E-04  0.0141
   1.2851E+00   1.3163E+00   3.1032E-04  0.0143
   1.3163E+00   1.3484E+00   3.0154E-04  0.0143
   1.3484E+00   1.3812E+00   3.0836E-04  0.0140
   1.3812E+00   1.4148E+00   2.9272E-04  0.0142
   1.4148E+00   1.4492E+00   2.9455E-04  0.0140
   1.4492E+00   1.4845E+00   2.7909E-04  0.0142
   1.4845E+00   1.5206E+00   2.7615E-04  0.0141
   1.5206E+00   1.5576E+00   2.6490E-04  0.0142
   1.5576E+00   1.5955E+00   2.5723E-04  0.0142
   1.5955E+00   1.6343E+00   2.5206E-04  0.0142
   1.6343E+00   1.6741E+00   2.4473E-04  0.0142
   1.6741E+00   1.7148E+00   2.3868E-04  0.0142
   1.7148E+00   1.7565E+00   2.3105E-04  0.0143
   1.7565E+00   1.7992E+00   2.2588E-04  0.0143
   1.7992E+00   1.8430E+00   2.2320E-04  0.0142
   1.8430E+00   1.8879E+00   2.0878E-04  0.0145
   1.8879E+00   1.9338E+00   2.0774E-04  0.0144
   1.9338E+00   1.9808E+00   2.0211E-04  0.0144
   1.9808E+00   2.0290E+00   1.9229E-04  0.0146
   2.0290E+00   2.0784E+00   1.9173E-04  0.0144
   2.0784E+00   2.1290E+00   1.8682E-04  0.0144
   2.1290E+00   2.1808E+00   1.7940E-04  0.0145
   2.1808E+00   2.2338E+00   1.7839E-04  0.0144
   2.2338E+00   2.2882E+00   1.7192E-04  0.0145
   2.2882E+00   2.3439E+00   1.6942E-04  0.0145
   2.3439E+00   2.4009E+00   1.5910E-04  0.0147
   2.4009E+00   2.4593E+00   1.6382E-04  0.0143
   2.4593E+00   2.5191E+00   1.5615E-04  0.0145
   2.5191E+00   2.5804E+00   1.4862E-04  0.0147
   2.5804E+00   2.6432E+00   1.4754E-04  0.0146
   2.6432E+00   2.7075E+00   1.4447E-04  0.0146
   2.7075E+00   2.7734E+00   1.4081E-04  0.0146
   2.7734E+00   2.8409E+00   1.3887E-04  0.0145
   2.8409E+00   2.9100E+00   1.3307E-04  0.0146
   2.9100E+00   2.9808E+00   1.2729E-04  0.0148
   2.9808E+00   3.0533E+00   1.2478E-04  0.0148
   3.0533E+00   3.1276E+00   1.1716E-04  0.0150
   3.1276E+00   3.2037E+00   1.1401E-04  0.0151
   3.2037E+00   3.2817E+00   1.1263E-04  0.0150
   3.2817E+00   3.3615E+00   1.0729E-04  0.0152
   3.3615E+00   3.4433E+00   1.0370E-04  0.0152
   3.4433E+00   3.5271E+00   1.0073E-04  0.0153
   3.5271E+00   3.6129E+00   9.6662E-05  0.0154
   3.6129E+00   3.7008E+00   9.4144E-05  0.0154
   3.7008E+00   3.7908E+00   9.0381E-05  0.0156
   3.7908E+00   3.8831E+00   8.6890E-05  0.0157
   3.8831E+00   3.9776E+00   8.8344E-05  0.0154
   3.9776E+00   4.0743E+00   8.2860E-05  0.0157
   4.0743E+00   4.1735E+00   8.2964E-05  0.0155
   4.1735E+00   4.2750E+00   7.7547E-05  0.0158
   4.2750E+00   4.3790E+00   7.6625E-05  0.0157
   4.3790E+00   4.4856E+00   7.0876E-05  0.0162
   4.4856E+00   4.5947E+00   6.8636E-05  0.0162
   4.5947E+00   4.7065E+00   6.6232E-05  0.0164
   4.7065E+00   4.8210E+00   6.2185E-05  0.0167
   4.8210E+00   4.9383E+00   6.0771E-05  0.0167
   4.9383E+00   5.0585E+00   5.6286E-05  0.0171
   5.0585E+00   5.1815E+00   5.4057E-05  0.0172
   5.1815E+00   5.3076E+00   5.3037E-05  0.0172
   5.3076E+00   5.4368E+00   4.9437E-05  0.0176
   5.4368E+00   5.5690E+00   4.6919E-05  0.0179
   5.5690E+00   5.7045E+00   4.4146E-05  0.0182
   5.7045E+00   5.8433E+00   4.3178E-05  0.0182
   5.8433E+00   5.9855E+00   4.1305E-05  0.0184
   5.9855E+00   6.1311E+00   3.7751E-05  0.0190
   6.1311E+00   6.2803E+00   3.5539E-05  0.0193
   6.2803E+00   6.4331E+00   3.5091E-05  0.0192
   6.4331E+00   6.5896E+00   3.3162E-05  0.0195
   6.5896E+00   6.7500E+00   3.0397E-05  0.0202
   6.7500E+00   6.9142E+00   2.8204E-05  0.0207
   6.9142E+00   7.0824E+00   2.7586E-05  0.0207
   7.0824E+00   7.2548E+00   2.6418E-05  0.0209
   7.2548E+00   7.4313E+00   2.3523E-05  0.0219
   7.4313E+00   7.6121E+00   2.2865E-05  0.0219
   7.6121E+00   7.7973E+00   2.1123E-05  0.0225
   7.7973E+00   7.9870E+00   2.0121E-05  0.0228
   7.9870E+00   8.1813E+00   1.8578E-05  0.0235
   8.1813E+00   8.3804E+00   1.7657E-05  0.0238
   8.3804E+00   8.5843E+00   1.6789E-05  0.0241
   8.5843E+00   8.7931E+00   1.6534E-05  0.0240
   8.7931E+00   9.0071E+00   1.4894E-05  0.0250
   9.0071E+00   9.2262E+00   1.4398E-05  0.0251
   9.2262E+00   9.4507E+00   1.4115E-05  0.0251
   9.4507E+00   9.6807E+00   1.2090E-05  0.0268
   9.6807E+00   9.9162E+00   1.2373E-05  0.0262
   9.9162E+00   1.0157E+01   1.1910E-05  0.0263
   1.0157E+01   1.0405E+01   1.1585E-05  0.0264
   1.0405E+01   1.0658E+01   1.3400E-05  0.0242
   1.0658E+01   1.0917E+01   1.3357E-05  0.0240
   1.0917E+01   1.1183E+01   1.2399E-05  0.0246
   1.1183E+01   1.1455E+01   1.2283E-05  0.0244
   1.1455E+01   1.1733E+01   1.0992E-05  0.0255
   1.1733E+01   1.2019E+01   1.0383E-05  0.0259
   1.2019E+01   1.2311E+01   9.1119E-06  0.0273
   1.2311E+01   1.2611E+01   8.4858E-06  0.0280
   1.2611E+01   1.2918E+01   7.8514E-06  0.0288
   1.2918E+01   1.3232E+01   7.9997E-06  0.0282
   1.3232E+01   1.3554E+01   7.7245E-06  0.0283
   1.3554E+01   1.3884E+01   6.9767E-06  0.0294
   1.3884E+01   1.4222E+01   6.7695E-06  0.0295
   1.4222E+01   1.4568E+01   6.2035E-06  0.0305
   1.4568E+01   1.4922E+01   5.5392E-06  0.0319
   1.4922E+01   1.5285E+01   5.1929E-06  0.0325
   1.5285E+01   1.5657E+01   4.6486E-06  0.0340
   1.5657E+01   1.6038E+01   4.2459E-06  0.0351
   1.6038E+01   1.6428E+01   3.9937E-06  0.0358
   1.6428E+01   1.6828E+01   3.6277E-06  0.0371
   1.6828E+01   1.7237E+01   3.5115E-06  0.0373
   1.7237E+01   1.7657E+01   3.3638E-06  0.0376
   1.7657E+01   1.8086E+01   2.8350E-06  0.0405
   1.8086E+01   1.8526E+01   2.6792E-06  0.0412
   1.8526E+01   1.8977E+01   2.3258E-06  0.0437
   1.8977E+01   1.9439E+01   2.4010E-06  0.0425
   1.9439E+01   1.9912E+01   2.1270E-06  0.0446
   1.9912E+01   2.0396E+01   1.8082E-06  0.0478
   2.0396E+01   2.0893E+01   1.7491E-06  0.0480
   2.0893E+01   2.1401E+01   1.6564E-06  0.0487
   2.1401E+01   2.1922E+01   1.3674E-06  0.0530
   2.1922E+01   2.2455E+01   1.2524E-06  0.0547
   2.2455E+01   2.3001E+01   1.0323E-06  0.0595
   2.3001E+01   2.3561E+01   9.4346E-07  0.0615
   2.3561E+01   2.4134E+01   7.9196E-07  0.0664
   2.4134E+01   2.4721E+01   7.0503E-07  0.0695
   2.4721E+01   2.5323E+01   5.5861E-07  0.0772
   2.5323E+01   2.5939E+01   4.9990E-07  0.0806
   2.5939E+01   2.6570E+01   3.2007E-07  0.0995
   2.6570E+01   2.7217E+01   3.3103E-07  0.0967
   2.7217E+01   2.7879E+01   1.7517E-07  0.1313
   2.7879E+01   2.8557E+01   1.6806E-07  0.1325
   2.8557E+01   2.9252E+01   9.7867E-08  0.1715
   2.9252E+01   2.9964E+01   1.1240E-07  0.1581
   2.9964E+01   3.0693E+01   7.9557E-08  0.1857
   3.0693E+01   3.1440E+01   4.0172E-08  0.2582
   3.1440E+01   3.2205E+01   1.8302E-08  0.3780
   3.2205E+01   3.2988E+01   1.5315E-08  0.4082
   3.2988E+01   3.3791E+01   1.7443E-08  0.3780
   3.3791E+01   3.4613E+01   9.7305E-09  0.5000
   3.4613E+01   3.5455E+01   4.7497E-09  0.7071
   3.5455E+01   3.6318E+01   0.0000E+00  0.0000
   3.6318E+01   3.7201E+01   2.2634E-09  1.0000
   3.7201E+01   3.8106E+01   0.0000E+00  0.0000
   3.8106E+01   3.9034E+01   4.3143E-09  0.7071
   3.9034E+01   3.9983E+01   0.0000E+00  0.0000
   3.9983E+01   4.0956E+01   0.0000E+00  0.0000
   4.0956E+01   4.1953E+01   2.0070E-09  1.0000
   4.1953E+01   4.2973E+01   0.0000E+00  0.0000
   4.2973E+01   4.4019E+01   0.0000E+00  0.0000
   4.4019E+01   4.5090E+01   0.0000E+00  0.0000
   4.5090E+01   4.6187E+01   0.0000E+00  0.0000
   4.6187E+01   4.7311E+01   0.0000E+00  0.0000
   4.7311E+01   4.8462E+01   0.0000E+00  0.0000
   4.8462E+01   4.9641E+01   0.0000E+00  0.0000
   4.9641E+01   5.0849E+01   0.0000E+00  0.0000
   5.0849E+01   5.2086E+01   0.0000E+00  0.0000
   5.2086E+01   5.3353E+01   0.0000E+00  0.0000
   5.3353E+01   5.4651E+01   0.0000E+00  0.0000
   5.4651E+01   5.5981E+01   0.0000E+00  0.0000
   5.5981E+01   5.7343E+01   0.0000E+00  0.0000
   5.7343E+01   5.8738E+01   0.0000E+00  0.0000
   5.8738E+01   6.0168E+01   0.0000E+00  0.0000
   6.0168E+01   6.1632E+01   0.0000E+00  0.0000
   6.1632E+01   6.3131E+01   0.0000E+00  0.0000
   6.3131E+01   6.4667E+01   0.0000E+00  0.0000
   6.4667E+01   6.6240E+01   0.0000E+00  0.0000
   6.6240E+01   6.7852E+01   0.0000E+00  0.0000
   6.7852E+01   6.9503E+01   0.0000E+00  0.0000
   6.9503E+01   7.1194E+01   0.0000E+00  0.0000
   7.1194E+01   7.2926E+01   0.0000E+00  0.0000
   7.2926E+01   7.4701E+01   0.0000E+00  0.0000
   7.4701E+01   7.6518E+01   0.0000E+00  0.0000
   7.6518E+01   7.8380E+01   0.0000E+00  0.0000
   7.8380E+01   8.0287E+01   0.0000E+00  0.0000
   8.0287E+01   8.2240E+01   0.0000E+00  0.0000
   8.2240E+01   8.4241E+01   0.0000E+00  0.0000
   8.4241E+01   8.6291E+01   0.0000E+00  0.0000
   8.6291E+01   8.8391E+01   0.0000E+00  0.0000
   8.8391E+01   9.0541E+01   0.0000E+00  0.0000
   9.0541E+01   9.2744E+01   0.0000E+00  0.0000
   9.2744E+01   9.5001E+01   0.0000E+00  0.0000
   9.5001E+01   9.7312E+01   0.0000E+00  0.0000
   9.7312E+01   9.9680E+01   0.0000E+00  0.0000
   9.9680E+01   1.0211E+02   0.0000E+00  0.0000
   1.0211E+02   1.0459E+02   0.0000E+00  0.0000
   1.0459E+02   1.0713E+02   0.0000E+00  0.0000
   1.0713E+02   1.0974E+02   0.0000E+00  0.0000
   1.0974E+02   1.1241E+02   0.0000E+00  0.0000
   1.1241E+02   1.1515E+02   0.0000E+00  0.0000
   1.1515E+02   1.1795E+02   0.0000E+00  0.0000
   1.1795E+02   1.2082E+02   0.0000E+00  0.0000
   1.2082E+02   1.2376E+02   0.0000E+00  0.0000
   1.2376E+02   1.2677E+02   0.0000E+00  0.0000
   1.2677E+02   1.2985E+02   0.0000E+00  0.0000
   1.2985E+02   1.3301E+02   0.0000E+00  0.0000
   1.3301E+02   1.3625E+02   0.0000E+00  0.0000
   1.3625E+02   1.3956E+02   0.0000E+00  0.0000
   1.3956E+02   1.4296E+02   0.0000E+00  0.0000
   1.4296E+02   1.4644E+02   0.0000E+00  0.0000
   1.4644E+02   1.5000E+02   0.0000E+00  0.0000

#   sum over                 9.0659E-06
'no. =    1   reg = 120 - 220'
msuc: {\huge [t-cross] in region mesh}
msdr: {\it plotted by \ANGEL \version}
msdl: {\it calculated by \PHITS  3.26}
wt: s(0.7)
\vspace{-3}
  region surface crossing
  area  &=&   1.0000E+00 [cm^2]
e:
 
# Information for Restart Calculation
# This calculation was newly started
# istdev =  2 # 1:Batch variance, 2:History variance
# resc2  = 5.00000000000000000E+08 # Total source weight or Total source weight / maxcas
# resc3  = 5.00000000000000000E+08 # Total history number or Total batch number
# maxcas =   500000000 # History / Batch, only used for istdev=1
# bitrseed = 1101101111010011011000101101110001100110110010110001010100010001 # bit data of rseed
