[ T-Cross ]
    title = [t-cross] in region mesh
     mesh =  reg            # mesh type is region-wise
      reg =    1            # number of crossing regions
      non     r-from    r-to       area
      1       126       226        1.000000    
   e-type =    3            # e-mesh is log given by emin, emax and ne
     emin =  1.0000000E-02  # minimum value of e-mesh points
     emax =   150.0000      # maximum value of e-mesh points
#    edel =  2.4039514E-02  # mesh width of e-mesh points
       ne =    400          # number of e-mesh points
#    data = ( e(i), i = 1, ne + 1 )
#           1.00000E-02  1.02433E-02  1.04925E-02  1.07478E-02  1.10093E-02
#           1.12772E-02  1.15516E-02  1.18326E-02  1.21205E-02  1.24154E-02
#           1.27175E-02  1.30269E-02  1.33439E-02  1.36686E-02  1.40011E-02
#           1.43418E-02  1.46907E-02  1.50482E-02  1.54143E-02  1.57894E-02
#           1.61735E-02  1.65670E-02  1.69701E-02  1.73830E-02  1.78060E-02
#           1.82392E-02  1.86830E-02  1.91375E-02  1.96032E-02  2.00801E-02
#           2.05687E-02  2.10692E-02  2.15818E-02  2.21069E-02  2.26448E-02
#           2.31957E-02  2.37601E-02  2.43382E-02  2.49304E-02  2.55369E-02
#           2.61583E-02  2.67947E-02  2.74467E-02  2.81145E-02  2.87985E-02
#           2.94992E-02  3.02169E-02  3.09521E-02  3.17052E-02  3.24766E-02
#           3.32668E-02  3.40762E-02  3.49053E-02  3.57546E-02  3.66246E-02
#           3.75157E-02  3.84284E-02  3.93634E-02  4.03212E-02  4.13022E-02
#           4.23071E-02  4.33365E-02  4.43909E-02  4.54710E-02  4.65773E-02
#           4.77106E-02  4.88714E-02  5.00605E-02  5.12785E-02  5.25262E-02
#           5.38042E-02  5.51133E-02  5.64542E-02  5.78278E-02  5.92348E-02
#           6.06760E-02  6.21523E-02  6.36645E-02  6.52135E-02  6.68002E-02
#           6.84255E-02  7.00904E-02  7.17957E-02  7.35426E-02  7.53319E-02
#           7.71648E-02  7.90423E-02  8.09655E-02  8.29354E-02  8.49533E-02
#           8.70203E-02  8.91376E-02  9.13064E-02  9.35279E-02  9.58035E-02
#           9.81345E-02  1.00522E-01  1.02968E-01  1.05473E-01  1.08040E-01
#           1.10668E-01  1.13361E-01  1.16119E-01  1.18944E-01  1.21838E-01
#           1.24803E-01  1.27839E-01  1.30950E-01  1.34136E-01  1.37399E-01
#           1.40742E-01  1.44167E-01  1.47675E-01  1.51268E-01  1.54948E-01
#           1.58718E-01  1.62580E-01  1.66535E-01  1.70587E-01  1.74738E-01
#           1.78989E-01  1.83344E-01  1.87805E-01  1.92375E-01  1.97055E-01
#           2.01850E-01  2.06761E-01  2.11792E-01  2.16945E-01  2.22223E-01
#           2.27630E-01  2.33169E-01  2.38842E-01  2.44653E-01  2.50605E-01
#           2.56703E-01  2.62949E-01  2.69346E-01  2.75900E-01  2.82613E-01
#           2.89489E-01  2.96532E-01  3.03747E-01  3.11138E-01  3.18708E-01
#           3.26462E-01  3.34405E-01  3.42542E-01  3.50876E-01  3.59413E-01
#           3.68158E-01  3.77116E-01  3.86291E-01  3.95690E-01  4.05317E-01
#           4.15179E-01  4.25281E-01  4.35628E-01  4.46227E-01  4.57084E-01
#           4.68205E-01  4.79597E-01  4.91266E-01  5.03219E-01  5.15463E-01
#           5.28005E-01  5.40851E-01  5.54011E-01  5.67490E-01  5.81298E-01
#           5.95441E-01  6.09929E-01  6.24769E-01  6.39970E-01  6.55541E-01
#           6.71491E-01  6.87828E-01  7.04564E-01  7.21706E-01  7.39266E-01
#           7.57253E-01  7.75678E-01  7.94551E-01  8.13883E-01  8.33685E-01
#           8.53969E-01  8.74747E-01  8.96030E-01  9.17831E-01  9.40163E-01
#           9.63038E-01  9.86469E-01  1.01047E+00  1.03506E+00  1.06024E+00
#           1.08604E+00  1.11246E+00  1.13953E+00  1.16725E+00  1.19565E+00
#           1.22474E+00  1.25454E+00  1.28507E+00  1.31633E+00  1.34836E+00
#           1.38117E+00  1.41477E+00  1.44920E+00  1.48446E+00  1.52057E+00
#           1.55757E+00  1.59547E+00  1.63429E+00  1.67405E+00  1.71478E+00
#           1.75650E+00  1.79924E+00  1.84302E+00  1.88786E+00  1.93379E+00
#           1.98084E+00  2.02904E+00  2.07841E+00  2.12898E+00  2.18078E+00
#           2.23384E+00  2.28819E+00  2.34386E+00  2.40089E+00  2.45930E+00
#           2.51914E+00  2.58043E+00  2.64322E+00  2.70753E+00  2.77341E+00
#           2.84088E+00  2.91001E+00  2.98081E+00  3.05333E+00  3.12762E+00
#           3.20372E+00  3.28167E+00  3.36152E+00  3.44330E+00  3.52708E+00
#           3.61290E+00  3.70080E+00  3.79085E+00  3.88308E+00  3.97756E+00
#           4.07434E+00  4.17347E+00  4.27501E+00  4.37903E+00  4.48557E+00
#           4.59471E+00  4.70650E+00  4.82102E+00  4.93832E+00  5.05847E+00
#           5.18155E+00  5.30762E+00  5.43676E+00  5.56904E+00  5.70453E+00
#           5.84333E+00  5.98550E+00  6.13114E+00  6.28031E+00  6.43312E+00
#           6.58964E+00  6.74997E+00  6.91420E+00  7.08243E+00  7.25475E+00
#           7.43126E+00  7.61207E+00  7.79728E+00  7.98700E+00  8.18133E+00
#           8.38038E+00  8.58428E+00  8.79315E+00  9.00709E+00  9.22624E+00
#           9.45072E+00  9.68067E+00  9.91620E+00  1.01575E+01  1.04046E+01
#           1.06578E+01  1.09171E+01  1.11827E+01  1.14548E+01  1.17335E+01
#           1.20190E+01  1.23114E+01  1.26109E+01  1.29178E+01  1.32321E+01
#           1.35540E+01  1.38838E+01  1.42216E+01  1.45676E+01  1.49221E+01
#           1.52851E+01  1.56570E+01  1.60380E+01  1.64282E+01  1.68279E+01
#           1.72374E+01  1.76568E+01  1.80864E+01  1.85264E+01  1.89772E+01
#           1.94389E+01  1.99119E+01  2.03963E+01  2.08926E+01  2.14009E+01
#           2.19216E+01  2.24550E+01  2.30014E+01  2.35610E+01  2.41343E+01
#           2.47215E+01  2.53230E+01  2.59391E+01  2.65702E+01  2.72167E+01
#           2.78789E+01  2.85572E+01  2.92520E+01  2.99637E+01  3.06928E+01
#           3.14396E+01  3.22045E+01  3.29881E+01  3.37907E+01  3.46128E+01
#           3.54550E+01  3.63177E+01  3.72013E+01  3.81064E+01  3.90336E+01
#           3.99833E+01  4.09561E+01  4.19526E+01  4.29734E+01  4.40189E+01
#           4.50900E+01  4.61870E+01  4.73108E+01  4.84619E+01  4.96410E+01
#           5.08488E+01  5.20860E+01  5.33533E+01  5.46514E+01  5.59812E+01
#           5.73432E+01  5.87384E+01  6.01676E+01  6.16315E+01  6.31311E+01
#           6.46671E+01  6.62405E+01  6.78522E+01  6.95031E+01  7.11941E+01
#           7.29263E+01  7.47007E+01  7.65182E+01  7.83800E+01  8.02870E+01
#           8.22405E+01  8.42414E+01  8.62911E+01  8.83906E+01  9.05412E+01
#           9.27442E+01  9.50007E+01  9.73122E+01  9.96799E+01  1.02105E+02
#           1.04589E+02  1.07134E+02  1.09741E+02  1.12411E+02  1.15146E+02
#           1.17948E+02  1.20817E+02  1.23757E+02  1.26768E+02  1.29852E+02
#           1.33012E+02  1.36248E+02  1.39563E+02  1.42959E+02  1.46437E+02
#           1.50000E+02
     unit =    2            # unit is [1/cm^2/(MeV/n)/source]
     axis =  eng            # axis of output
     file = detector-27.out  # file name of output for the above axis
   output = f-curr          # surface crossing forward current spectrum
     part =  neutron  
# kf/name :  2112     
#    used :        main (  %)        temp (  %)       total (  %)
#  memory :         414 (  0)           0 (  0)         414 (  0)

#------------------------------------------------------------------------------
#newpage:
#   no. =    1   reg = 126 - 226

x: Energy [MeV/n]
y:  F-Curr [1/cm^2/(MeV/n)/source]         
p: xlog ylog afac(0.8) form(0.9)
h: n            x            y(neutron ),hh0l   n 
#  e-lower      e-upper      neutron     r.err 
   1.0000E-02   1.0243E-02   1.1941E-04  0.1070
   1.0243E-02   1.0493E-02   1.3442E-04  0.0996
   1.0493E-02   1.0748E-02   1.1162E-04  0.1075
   1.0748E-02   1.1009E-02   1.1982E-04  0.1031
   1.1009E-02   1.1277E-02   1.2373E-04  0.1001
   1.1277E-02   1.1552E-02   1.1784E-04  0.1015
   1.1552E-02   1.1833E-02   1.0646E-04  0.1053
   1.1833E-02   1.2121E-02   1.0675E-04  0.1041
   1.2121E-02   1.2415E-02   1.2760E-04  0.0939
   1.2415E-02   1.2718E-02   8.6369E-05  0.1129
   1.2718E-02   1.3027E-02   9.1567E-05  0.1085
   1.3027E-02   1.3344E-02   1.0740E-04  0.0989
   1.3344E-02   1.3669E-02   9.9589E-05  0.1015
   1.3669E-02   1.4001E-02   1.0314E-04  0.0983
   1.4001E-02   1.4342E-02   9.5306E-05  0.1012
   1.4342E-02   1.4691E-02   1.0529E-04  0.0952
   1.4691E-02   1.5048E-02   1.0281E-04  0.0952
   1.5048E-02   1.5414E-02   9.6731E-05  0.0969
   1.5414E-02   1.5789E-02   9.6673E-05  0.0957
   1.5789E-02   1.6174E-02   9.6312E-05  0.0949
   1.6174E-02   1.6567E-02   1.0018E-04  0.0919
   1.6567E-02   1.6970E-02   8.0432E-05  0.1013
   1.6970E-02   1.7383E-02   1.0656E-04  0.0870
   1.7383E-02   1.7806E-02   8.3673E-05  0.0970
   1.7806E-02   1.8239E-02   9.6384E-05  0.0893
   1.8239E-02   1.8683E-02   7.1158E-05  0.1025
   1.8683E-02   1.9138E-02   8.8876E-05  0.0908
   1.9138E-02   1.9603E-02   8.7340E-05  0.0902
   1.9603E-02   2.0080E-02   8.4745E-05  0.0907
   2.0080E-02   2.0569E-02   8.4740E-05  0.0897
   2.0569E-02   2.1069E-02   7.4734E-05  0.0943
   2.1069E-02   2.1582E-02   8.7891E-05  0.0860
   2.1582E-02   2.2107E-02   7.3002E-05  0.0933
   2.2107E-02   2.2645E-02   7.1541E-05  0.0929
   2.2645E-02   2.3196E-02   6.6499E-05  0.0951
   2.3196E-02   2.3760E-02   7.2066E-05  0.0903
   2.3760E-02   2.4338E-02   7.1498E-05  0.0898
   2.4338E-02   2.4930E-02   6.4526E-05  0.0932
   2.4930E-02   2.5537E-02   7.0968E-05  0.0880
   2.5537E-02   2.6158E-02   6.7596E-05  0.0891
   2.6158E-02   2.6795E-02   6.0963E-05  0.0926
   2.6795E-02   2.7447E-02   7.4649E-05  0.0828
   2.7447E-02   2.8114E-02   5.9351E-05  0.0915
   2.8114E-02   2.8799E-02   6.0668E-05  0.0895
   2.8799E-02   2.9499E-02   6.1488E-05  0.0879
   2.9499E-02   3.0217E-02   7.1878E-05  0.0803
   3.0217E-02   3.0952E-02   6.7961E-05  0.0815
   3.0952E-02   3.1705E-02   6.2479E-05  0.0841
   3.1705E-02   3.2477E-02   6.5680E-05  0.0811
   3.2477E-02   3.3267E-02   5.9902E-05  0.0839
   3.3267E-02   3.4076E-02   5.8249E-05  0.0838
   3.4076E-02   3.4905E-02   5.8394E-05  0.0829
   3.4905E-02   3.5755E-02   5.4658E-05  0.0847
   3.5755E-02   3.6625E-02   5.5943E-05  0.0828
   3.6625E-02   3.7516E-02   5.0363E-05  0.0860
   3.7516E-02   3.8428E-02   4.3184E-05  0.0919
   3.8428E-02   3.9363E-02   5.2490E-05  0.0824
   3.9363E-02   4.0321E-02   4.8726E-05  0.0845
   4.0321E-02   4.1302E-02   4.8797E-05  0.0833
   4.1302E-02   4.2307E-02   4.0660E-05  0.0902
   4.2307E-02   4.3337E-02   4.4739E-05  0.0850
   4.3337E-02   4.4391E-02   4.6902E-05  0.0820
   4.4391E-02   4.5471E-02   5.3967E-05  0.0755
   4.5471E-02   4.6577E-02   4.3085E-05  0.0836
   4.6577E-02   4.7711E-02   4.5804E-05  0.0800
   4.7711E-02   4.8871E-02   4.3739E-05  0.0810
   4.8871E-02   5.0061E-02   4.7201E-05  0.0770
   5.0061E-02   5.1279E-02   4.2275E-05  0.0804
   5.1279E-02   5.2526E-02   3.9938E-05  0.0817
   5.2526E-02   5.3804E-02   3.7386E-05  0.0833
   5.3804E-02   5.5113E-02   4.1469E-05  0.0782
   5.5113E-02   5.6454E-02   4.3412E-05  0.0756
   5.6454E-02   5.7828E-02   3.8026E-05  0.0798
   5.7828E-02   5.9235E-02   4.0258E-05  0.0766
   5.9235E-02   6.0676E-02   4.2240E-05  0.0739
   6.0676E-02   6.2152E-02   4.1142E-05  0.0740
   6.2152E-02   6.3665E-02   4.0745E-05  0.0734
   6.3665E-02   6.5214E-02   3.8997E-05  0.0741
   6.5214E-02   6.6800E-02   3.5326E-05  0.0771
   6.6800E-02   6.8426E-02   3.7184E-05  0.0742
   6.8426E-02   7.0090E-02   3.7040E-05  0.0735
   7.0090E-02   7.1796E-02   3.4614E-05  0.0750
   7.1796E-02   7.3543E-02   2.8453E-05  0.0817
   7.3543E-02   7.5332E-02   3.4581E-05  0.0733
   7.5332E-02   7.7165E-02   2.9041E-05  0.0790
   7.7165E-02   7.9042E-02   3.1396E-05  0.0751
   7.9042E-02   8.0965E-02   2.8204E-05  0.0783
   8.0965E-02   8.2935E-02   2.5770E-05  0.0810
   8.2935E-02   8.4953E-02   2.5770E-05  0.0801
   8.4953E-02   8.7020E-02   2.4873E-05  0.0805
   8.7020E-02   8.9138E-02   2.8454E-05  0.0743
   8.9138E-02   9.1306E-02   2.4977E-05  0.0784
   9.1306E-02   9.3528E-02   2.4819E-05  0.0777
   9.3528E-02   9.5804E-02   2.9463E-05  0.0705
   9.5804E-02   9.8134E-02   2.2490E-05  0.0797
   9.8134E-02   1.0052E-01   2.6702E-05  0.0723
   1.0052E-01   1.0297E-01   2.1796E-05  0.0787
   1.0297E-01   1.0547E-01   2.2672E-05  0.0764
   1.0547E-01   1.0804E-01   2.1115E-05  0.0783
   1.0804E-01   1.1067E-01   2.2190E-05  0.0755
   1.1067E-01   1.1336E-01   2.4102E-05  0.0716
   1.1336E-01   1.1612E-01   2.0937E-05  0.0758
   1.1612E-01   1.1894E-01   2.0647E-05  0.0756
   1.1894E-01   1.2184E-01   1.8886E-05  0.0779
   1.2184E-01   1.2480E-01   1.8756E-05  0.0773
   1.2480E-01   1.2784E-01   1.8639E-05  0.0764
   1.2784E-01   1.3095E-01   1.7381E-05  0.0785
   1.3095E-01   1.3414E-01   1.6389E-05  0.0796
   1.3414E-01   1.3740E-01   1.5596E-05  0.0808
   1.3740E-01   1.4074E-01   1.7811E-05  0.0747
   1.4074E-01   1.4417E-01   1.7553E-05  0.0743
   1.4417E-01   1.4767E-01   1.7742E-05  0.0731
   1.4767E-01   1.5127E-01   1.6387E-05  0.0752
   1.5127E-01   1.5495E-01   1.3790E-05  0.0810
   1.5495E-01   1.5872E-01   1.3413E-05  0.0811
   1.5872E-01   1.6258E-01   1.3469E-05  0.0799
   1.6258E-01   1.6654E-01   1.2882E-05  0.0807
   1.6654E-01   1.7059E-01   1.3121E-05  0.0791
   1.7059E-01   1.7474E-01   1.2255E-05  0.0808
   1.7474E-01   1.7899E-01   1.3570E-05  0.0759
   1.7899E-01   1.8334E-01   1.2074E-05  0.0793
   1.8334E-01   1.8781E-01   1.1407E-05  0.0808
   1.8781E-01   1.9237E-01   1.1558E-05  0.0794
   1.9237E-01   1.9706E-01   1.0678E-05  0.0815
   1.9706E-01   2.0185E-01   1.2494E-05  0.0745
   2.0185E-01   2.0676E-01   1.0547E-05  0.0801
   2.0676E-01   2.1179E-01   1.0647E-05  0.0787
   2.1179E-01   2.1694E-01   1.1267E-05  0.0757
   2.1694E-01   2.2222E-01   1.2659E-05  0.0706
   2.2222E-01   2.2763E-01   1.0852E-05  0.0752
   2.2763E-01   2.3317E-01   1.2398E-05  0.0697
   2.3317E-01   2.3884E-01   1.2854E-05  0.0675
   2.3884E-01   2.4465E-01   1.2151E-05  0.0686
   2.4465E-01   2.5061E-01   1.2041E-05  0.0681
   2.5061E-01   2.5670E-01   1.3182E-05  0.0643
   2.5670E-01   2.6295E-01   1.3637E-05  0.0624
   2.6295E-01   2.6935E-01   1.3745E-05  0.0614
   2.6935E-01   2.7590E-01   1.4515E-05  0.0591
   2.7590E-01   2.8261E-01   1.3741E-05  0.0601
   2.8261E-01   2.8949E-01   1.3942E-05  0.0589
   2.8949E-01   2.9653E-01   1.3329E-05  0.0594
   2.9653E-01   3.0375E-01   1.5513E-05  0.0544
   3.0375E-01   3.1114E-01   1.5633E-05  0.0536
   3.1114E-01   3.1871E-01   1.4334E-05  0.0553
   3.1871E-01   3.2646E-01   1.4822E-05  0.0538
   3.2646E-01   3.3441E-01   1.5983E-05  0.0511
   3.3441E-01   3.4254E-01   1.4607E-05  0.0529
   3.4254E-01   3.5088E-01   1.3607E-05  0.0540
   3.5088E-01   3.5941E-01   1.4263E-05  0.0522
   3.5941E-01   3.6816E-01   1.5698E-05  0.0492
   3.6816E-01   3.7712E-01   1.5728E-05  0.0486
   3.7712E-01   3.8629E-01   1.4817E-05  0.0494
   3.8629E-01   3.9569E-01   1.5171E-05  0.0482
   3.9569E-01   4.0532E-01   1.4764E-05  0.0483
   4.0532E-01   4.1518E-01   1.6100E-05  0.0457
   4.1518E-01   4.2528E-01   1.4633E-05  0.0474
   4.2528E-01   4.3563E-01   1.5680E-05  0.0452
   4.3563E-01   4.4623E-01   1.4015E-05  0.0473
   4.4623E-01   4.5708E-01   1.3229E-05  0.0480
   4.5708E-01   4.6821E-01   1.4654E-05  0.0451
   4.6821E-01   4.7960E-01   1.4495E-05  0.0449
   4.7960E-01   4.9127E-01   1.3742E-05  0.0455
   4.9127E-01   5.0322E-01   1.4552E-05  0.0437
   5.0322E-01   5.1546E-01   1.5205E-05  0.0422
   5.1546E-01   5.2800E-01   1.3811E-05  0.0438
   5.2800E-01   5.4085E-01   1.2626E-05  0.0451
   5.4085E-01   5.5401E-01   1.3668E-05  0.0429
   5.5401E-01   5.6749E-01   1.3623E-05  0.0425
   5.6749E-01   5.8130E-01   1.2026E-05  0.0447
   5.8130E-01   5.9544E-01   1.2581E-05  0.0432
   5.9544E-01   6.0993E-01   1.2042E-05  0.0436
   6.0993E-01   6.2477E-01   1.2356E-05  0.0425
   6.2477E-01   6.3997E-01   1.2162E-05  0.0423
   6.3997E-01   6.5554E-01   1.1809E-05  0.0424
   6.5554E-01   6.7149E-01   1.2270E-05  0.0412
   6.7149E-01   6.8783E-01   1.1085E-05  0.0428
   6.8783E-01   7.0456E-01   1.1881E-05  0.0408
   7.0456E-01   7.2171E-01   1.1312E-05  0.0413
   7.2171E-01   7.3927E-01   1.0881E-05  0.0416
   7.3927E-01   7.5725E-01   1.0546E-05  0.0418
   7.5725E-01   7.7568E-01   1.1009E-05  0.0404
   7.7568E-01   7.9455E-01   9.9587E-06  0.0420
   7.9455E-01   8.1388E-01   9.8882E-06  0.0416
   8.1388E-01   8.3368E-01   1.0104E-05  0.0407
   8.3368E-01   8.5397E-01   9.8998E-06  0.0406
   8.5397E-01   8.7475E-01   9.1244E-06  0.0419
   8.7475E-01   8.9603E-01   9.0837E-06  0.0414
   8.9603E-01   9.1783E-01   9.3717E-06  0.0402
   9.1783E-01   9.4016E-01   8.1819E-06  0.0426
   9.4016E-01   9.6304E-01   8.4195E-06  0.0415
   9.6304E-01   9.8647E-01   8.9163E-06  0.0398
   9.8647E-01   1.0105E+00   8.7046E-06  0.0398
   1.0105E+00   1.0351E+00   8.3774E-06  0.0401
   1.0351E+00   1.0602E+00   8.3878E-06  0.0396
   1.0602E+00   1.0860E+00   7.8347E-06  0.0405
   1.0860E+00   1.1125E+00   7.6993E-06  0.0403
   1.1125E+00   1.1395E+00   7.0384E-06  0.0417
   1.1395E+00   1.1673E+00   7.3138E-06  0.0404
   1.1673E+00   1.1957E+00   7.2622E-06  0.0401
   1.1957E+00   1.2247E+00   6.7094E-06  0.0412
   1.2247E+00   1.2545E+00   7.0164E-06  0.0398
   1.2545E+00   1.2851E+00   7.6339E-06  0.0377
   1.2851E+00   1.3163E+00   7.1201E-06  0.0386
   1.3163E+00   1.3484E+00   6.8164E-06  0.0389
   1.3484E+00   1.3812E+00   6.3389E-06  0.0399
   1.3812E+00   1.4148E+00   6.5361E-06  0.0388
   1.4148E+00   1.4492E+00   6.3203E-06  0.0390
   1.4492E+00   1.4845E+00   6.3035E-06  0.0386
   1.4845E+00   1.5206E+00   5.5749E-06  0.0406
   1.5206E+00   1.5576E+00   5.9091E-06  0.0389
   1.5576E+00   1.5955E+00   5.4323E-06  0.0401
   1.5955E+00   1.6343E+00   5.2569E-06  0.0402
   1.6343E+00   1.6741E+00   5.4936E-06  0.0389
   1.6741E+00   1.7148E+00   5.3590E-06  0.0389
   1.7148E+00   1.7565E+00   4.8727E-06  0.0404
   1.7565E+00   1.7992E+00   4.7038E-06  0.0406
   1.7992E+00   1.8430E+00   4.6909E-06  0.0401
   1.8430E+00   1.8879E+00   4.6101E-06  0.0400
   1.8879E+00   1.9338E+00   4.8490E-06  0.0385
   1.9338E+00   1.9808E+00   4.6103E-06  0.0391
   1.9808E+00   2.0290E+00   4.7046E-06  0.0382
   2.0290E+00   2.0784E+00   4.2615E-06  0.0396
   2.0784E+00   2.1290E+00   4.3006E-06  0.0390
   2.1290E+00   2.1808E+00   4.1168E-06  0.0394
   2.1808E+00   2.2338E+00   4.0293E-06  0.0393
   2.2338E+00   2.2882E+00   3.9942E-06  0.0390
   2.2882E+00   2.3439E+00   3.5061E-06  0.0411
   2.3439E+00   2.4009E+00   3.6963E-06  0.0396
   2.4009E+00   2.4593E+00   3.5250E-06  0.0401
   2.4593E+00   2.5191E+00   3.5321E-06  0.0395
   2.5191E+00   2.5804E+00   3.5337E-06  0.0391
   2.5804E+00   2.6432E+00   3.2778E-06  0.0400
   2.6432E+00   2.7075E+00   3.2628E-06  0.0397
   2.7075E+00   2.7734E+00   3.0450E-06  0.0406
   2.7734E+00   2.8409E+00   3.1240E-06  0.0396
   2.8409E+00   2.9100E+00   2.8974E-06  0.0406
   2.9100E+00   2.9808E+00   2.8272E-06  0.0406
   2.9808E+00   3.0533E+00   2.8028E-06  0.0403
   3.0533E+00   3.1276E+00   2.8036E-06  0.0399
   3.1276E+00   3.2037E+00   2.7551E-06  0.0397
   3.2037E+00   3.2817E+00   2.7199E-06  0.0395
   3.2817E+00   3.3615E+00   2.6387E-06  0.0396
   3.3615E+00   3.4433E+00   2.7030E-06  0.0387
   3.4433E+00   3.5271E+00   2.4286E-06  0.0403
   3.5271E+00   3.6129E+00   2.4784E-06  0.0394
   3.6129E+00   3.7008E+00   2.5679E-06  0.0383
   3.7008E+00   3.7908E+00   2.5157E-06  0.0382
   3.7908E+00   3.8831E+00   2.4779E-06  0.0381
   3.8831E+00   3.9776E+00   2.4125E-06  0.0381
   3.9776E+00   4.0743E+00   2.3534E-06  0.0382
   4.0743E+00   4.1735E+00   2.2060E-06  0.0388
   4.1735E+00   4.2750E+00   2.0923E-06  0.0395
   4.2750E+00   4.3790E+00   2.3304E-06  0.0369
   4.3790E+00   4.4856E+00   2.2293E-06  0.0374
   4.4856E+00   4.5947E+00   2.2036E-06  0.0371
   4.5947E+00   4.7065E+00   2.0962E-06  0.0377
   4.7065E+00   4.8210E+00   2.1624E-06  0.0366
   4.8210E+00   4.9383E+00   2.2045E-06  0.0358
   4.9383E+00   5.0585E+00   1.9215E-06  0.0379
   5.0585E+00   5.1815E+00   2.0129E-06  0.0366
   5.1815E+00   5.3076E+00   2.0077E-06  0.0362
   5.3076E+00   5.4368E+00   1.8909E-06  0.0369
   5.4368E+00   5.5690E+00   1.7986E-06  0.0373
   5.5690E+00   5.7045E+00   1.6893E-06  0.0381
   5.7045E+00   5.8433E+00   1.6749E-06  0.0378
   5.8433E+00   5.9855E+00   1.5808E-06  0.0384
   5.9855E+00   6.1311E+00   1.5320E-06  0.0386
   6.1311E+00   6.2803E+00   1.3941E-06  0.0400
   6.2803E+00   6.4331E+00   1.4577E-06  0.0386
   6.4331E+00   6.5896E+00   1.3960E-06  0.0390
   6.5896E+00   6.7500E+00   1.3563E-06  0.0391
   6.7500E+00   6.9142E+00   1.2987E-06  0.0395
   6.9142E+00   7.0824E+00   1.2424E-06  0.0399
   7.0824E+00   7.2548E+00   1.1878E-06  0.0403
   7.2548E+00   7.4313E+00   1.1754E-06  0.0401
   7.4313E+00   7.6121E+00   1.1029E-06  0.0409
   7.6121E+00   7.7973E+00   1.0272E-06  0.0418
   7.7973E+00   7.9870E+00   9.7385E-07  0.0424
   7.9870E+00   8.1813E+00   8.9435E-07  0.0437
   8.1813E+00   8.3804E+00   8.7364E-07  0.0438
   8.3804E+00   8.5843E+00   8.0232E-07  0.0451
   8.5843E+00   8.7931E+00   8.0081E-07  0.0446
   8.7931E+00   9.0071E+00   6.9636E-07  0.0473
   9.0071E+00   9.2262E+00   6.6522E-07  0.0478
   9.2262E+00   9.4507E+00   6.3180E-07  0.0485
   9.4507E+00   9.6807E+00   6.9292E-07  0.0457
   9.6807E+00   9.9162E+00   5.7174E-07  0.0498
   9.9162E+00   1.0157E+01   5.5159E-07  0.0500
   1.0157E+01   1.0405E+01   4.8825E-07  0.0526
   1.0405E+01   1.0658E+01   5.3887E-07  0.0494
   1.0658E+01   1.0917E+01   4.5505E-07  0.0531
   1.0917E+01   1.1183E+01   3.9313E-07  0.0565
   1.1183E+01   1.1455E+01   3.4058E-07  0.0600
   1.1455E+01   1.1733E+01   3.3728E-07  0.0595
   1.1733E+01   1.2019E+01   3.1642E-07  0.0607
   1.2019E+01   1.2311E+01   2.8155E-07  0.0636
   1.2311E+01   1.2611E+01   2.6818E-07  0.0644
   1.2611E+01   1.2918E+01   2.1619E-07  0.0709
   1.2918E+01   1.3232E+01   2.0363E-07  0.0722
   1.3232E+01   1.3554E+01   1.8222E-07  0.0754
   1.3554E+01   1.3884E+01   1.6806E-07  0.0775
   1.3884E+01   1.4222E+01   1.6972E-07  0.0762
   1.4222E+01   1.4568E+01   1.1849E-07  0.0902
   1.4568E+01   1.4922E+01   1.2508E-07  0.0867
   1.4922E+01   1.5285E+01   1.0834E-07  0.0921
   1.5285E+01   1.5657E+01   7.9771E-08  0.1060
   1.5657E+01   1.6038E+01   9.1001E-08  0.0981
   1.6038E+01   1.6428E+01   7.0046E-08  0.1104
   1.6428E+01   1.6828E+01   6.4213E-08  0.1140
   1.6828E+01   1.7237E+01   5.8617E-08  0.1179
   1.7237E+01   1.7657E+01   4.3713E-08  0.1348
   1.7657E+01   1.8086E+01   3.5692E-08  0.1474
   1.8086E+01   1.8526E+01   2.1209E-08  0.1890
   1.8526E+01   1.8977E+01   2.5143E-08  0.1715
   1.8977E+01   1.9439E+01   2.4545E-08  0.1715
   1.9439E+01   1.9912E+01   9.1621E-09  0.2774
   1.9912E+01   2.0396E+01   9.6325E-09  0.2673
   2.0396E+01   2.0893E+01   6.0452E-09  0.3333
   2.0893E+01   2.1401E+01   4.5902E-09  0.3780
   2.1401E+01   2.1922E+01   5.1213E-09  0.3536
   2.1922E+01   2.2455E+01   3.7497E-09  0.4082
   2.2455E+01   2.3001E+01   3.6607E-09  0.4082
   2.3001E+01   2.3561E+01   4.7650E-09  0.3536
   2.3561E+01   2.4134E+01   3.4888E-09  0.4082
   2.4134E+01   2.4721E+01   1.1353E-09  0.7071
   2.4721E+01   2.5323E+01   2.7709E-09  0.4472
   2.5323E+01   2.5939E+01   0.0000E+00  0.0000
   2.5939E+01   2.6570E+01   5.2816E-10  1.0000
   2.6570E+01   2.7217E+01   0.0000E+00  0.0000
   2.7217E+01   2.7879E+01   0.0000E+00  0.0000
   2.7879E+01   2.8557E+01   0.0000E+00  0.0000
   2.8557E+01   2.9252E+01   0.0000E+00  0.0000
   2.9252E+01   2.9964E+01   0.0000E+00  0.0000
   2.9964E+01   3.0693E+01   0.0000E+00  0.0000
   3.0693E+01   3.1440E+01   0.0000E+00  0.0000
   3.1440E+01   3.2205E+01   0.0000E+00  0.0000
   3.2205E+01   3.2988E+01   0.0000E+00  0.0000
   3.2988E+01   3.3791E+01   0.0000E+00  0.0000
   3.3791E+01   3.4613E+01   0.0000E+00  0.0000
   3.4613E+01   3.5455E+01   0.0000E+00  0.0000
   3.5455E+01   3.6318E+01   0.0000E+00  0.0000
   3.6318E+01   3.7201E+01   0.0000E+00  0.0000
   3.7201E+01   3.8106E+01   0.0000E+00  0.0000
   3.8106E+01   3.9034E+01   0.0000E+00  0.0000
   3.9034E+01   3.9983E+01   0.0000E+00  0.0000
   3.9983E+01   4.0956E+01   0.0000E+00  0.0000
   4.0956E+01   4.1953E+01   0.0000E+00  0.0000
   4.1953E+01   4.2973E+01   0.0000E+00  0.0000
   4.2973E+01   4.4019E+01   0.0000E+00  0.0000
   4.4019E+01   4.5090E+01   0.0000E+00  0.0000
   4.5090E+01   4.6187E+01   0.0000E+00  0.0000
   4.6187E+01   4.7311E+01   0.0000E+00  0.0000
   4.7311E+01   4.8462E+01   0.0000E+00  0.0000
   4.8462E+01   4.9641E+01   0.0000E+00  0.0000
   4.9641E+01   5.0849E+01   0.0000E+00  0.0000
   5.0849E+01   5.2086E+01   0.0000E+00  0.0000
   5.2086E+01   5.3353E+01   0.0000E+00  0.0000
   5.3353E+01   5.4651E+01   0.0000E+00  0.0000
   5.4651E+01   5.5981E+01   0.0000E+00  0.0000
   5.5981E+01   5.7343E+01   0.0000E+00  0.0000
   5.7343E+01   5.8738E+01   0.0000E+00  0.0000
   5.8738E+01   6.0168E+01   0.0000E+00  0.0000
   6.0168E+01   6.1632E+01   0.0000E+00  0.0000
   6.1632E+01   6.3131E+01   0.0000E+00  0.0000
   6.3131E+01   6.4667E+01   0.0000E+00  0.0000
   6.4667E+01   6.6240E+01   0.0000E+00  0.0000
   6.6240E+01   6.7852E+01   0.0000E+00  0.0000
   6.7852E+01   6.9503E+01   0.0000E+00  0.0000
   6.9503E+01   7.1194E+01   0.0000E+00  0.0000
   7.1194E+01   7.2926E+01   0.0000E+00  0.0000
   7.2926E+01   7.4701E+01   0.0000E+00  0.0000
   7.4701E+01   7.6518E+01   0.0000E+00  0.0000
   7.6518E+01   7.8380E+01   0.0000E+00  0.0000
   7.8380E+01   8.0287E+01   0.0000E+00  0.0000
   8.0287E+01   8.2240E+01   0.0000E+00  0.0000
   8.2240E+01   8.4241E+01   0.0000E+00  0.0000
   8.4241E+01   8.6291E+01   0.0000E+00  0.0000
   8.6291E+01   8.8391E+01   0.0000E+00  0.0000
   8.8391E+01   9.0541E+01   0.0000E+00  0.0000
   9.0541E+01   9.2744E+01   0.0000E+00  0.0000
   9.2744E+01   9.5001E+01   0.0000E+00  0.0000
   9.5001E+01   9.7312E+01   0.0000E+00  0.0000
   9.7312E+01   9.9680E+01   0.0000E+00  0.0000
   9.9680E+01   1.0211E+02   0.0000E+00  0.0000
   1.0211E+02   1.0459E+02   0.0000E+00  0.0000
   1.0459E+02   1.0713E+02   0.0000E+00  0.0000
   1.0713E+02   1.0974E+02   0.0000E+00  0.0000
   1.0974E+02   1.1241E+02   0.0000E+00  0.0000
   1.1241E+02   1.1515E+02   0.0000E+00  0.0000
   1.1515E+02   1.1795E+02   0.0000E+00  0.0000
   1.1795E+02   1.2082E+02   0.0000E+00  0.0000
   1.2082E+02   1.2376E+02   0.0000E+00  0.0000
   1.2376E+02   1.2677E+02   0.0000E+00  0.0000
   1.2677E+02   1.2985E+02   0.0000E+00  0.0000
   1.2985E+02   1.3301E+02   0.0000E+00  0.0000
   1.3301E+02   1.3625E+02   0.0000E+00  0.0000
   1.3625E+02   1.3956E+02   0.0000E+00  0.0000
   1.3956E+02   1.4296E+02   0.0000E+00  0.0000
   1.4296E+02   1.4644E+02   0.0000E+00  0.0000
   1.4644E+02   1.5000E+02   0.0000E+00  0.0000

#   sum over                 2.4918E-07
'no. =    1   reg = 126 - 226'
msuc: {\huge [t-cross] in region mesh}
msdr: {\it plotted by \ANGEL \version}
msdl: {\it calculated by \PHITS  3.26}
wt: s(0.7)
\vspace{-3}
  region surface crossing
  area  &=&   1.0000E+00 [cm^2]
e:
 
# Information for Restart Calculation
# This calculation was newly started
# istdev =  2 # 1:Batch variance, 2:History variance
# resc2  = 3.00000000000000000E+09 # Total source weight or Total source weight / maxcas
# resc3  = 3.00000000000000000E+09 # Total history number or Total batch number
# maxcas =   500000000 # History / Batch, only used for istdev=1
# bitrseed = 0110110011111001100110101011100000010010001000001101100100111101 # bit data of rseed
