[ T-Cross ]
    title = [t-cross] in region mesh
     mesh =  reg            # mesh type is region-wise
      reg =    1            # number of crossing regions
      non     r-from    r-to       area
      1       125       225        1.000000    
   e-type =    3            # e-mesh is log given by emin, emax and ne
     emin =  1.0000000E-02  # minimum value of e-mesh points
     emax =   150.0000      # maximum value of e-mesh points
#    edel =  2.4039514E-02  # mesh width of e-mesh points
       ne =    400          # number of e-mesh points
#    data = ( e(i), i = 1, ne + 1 )
#           1.00000E-02  1.02433E-02  1.04925E-02  1.07478E-02  1.10093E-02
#           1.12772E-02  1.15516E-02  1.18326E-02  1.21205E-02  1.24154E-02
#           1.27175E-02  1.30269E-02  1.33439E-02  1.36686E-02  1.40011E-02
#           1.43418E-02  1.46907E-02  1.50482E-02  1.54143E-02  1.57894E-02
#           1.61735E-02  1.65670E-02  1.69701E-02  1.73830E-02  1.78060E-02
#           1.82392E-02  1.86830E-02  1.91375E-02  1.96032E-02  2.00801E-02
#           2.05687E-02  2.10692E-02  2.15818E-02  2.21069E-02  2.26448E-02
#           2.31957E-02  2.37601E-02  2.43382E-02  2.49304E-02  2.55369E-02
#           2.61583E-02  2.67947E-02  2.74467E-02  2.81145E-02  2.87985E-02
#           2.94992E-02  3.02169E-02  3.09521E-02  3.17052E-02  3.24766E-02
#           3.32668E-02  3.40762E-02  3.49053E-02  3.57546E-02  3.66246E-02
#           3.75157E-02  3.84284E-02  3.93634E-02  4.03212E-02  4.13022E-02
#           4.23071E-02  4.33365E-02  4.43909E-02  4.54710E-02  4.65773E-02
#           4.77106E-02  4.88714E-02  5.00605E-02  5.12785E-02  5.25262E-02
#           5.38042E-02  5.51133E-02  5.64542E-02  5.78278E-02  5.92348E-02
#           6.06760E-02  6.21523E-02  6.36645E-02  6.52135E-02  6.68002E-02
#           6.84255E-02  7.00904E-02  7.17957E-02  7.35426E-02  7.53319E-02
#           7.71648E-02  7.90423E-02  8.09655E-02  8.29354E-02  8.49533E-02
#           8.70203E-02  8.91376E-02  9.13064E-02  9.35279E-02  9.58035E-02
#           9.81345E-02  1.00522E-01  1.02968E-01  1.05473E-01  1.08040E-01
#           1.10668E-01  1.13361E-01  1.16119E-01  1.18944E-01  1.21838E-01
#           1.24803E-01  1.27839E-01  1.30950E-01  1.34136E-01  1.37399E-01
#           1.40742E-01  1.44167E-01  1.47675E-01  1.51268E-01  1.54948E-01
#           1.58718E-01  1.62580E-01  1.66535E-01  1.70587E-01  1.74738E-01
#           1.78989E-01  1.83344E-01  1.87805E-01  1.92375E-01  1.97055E-01
#           2.01850E-01  2.06761E-01  2.11792E-01  2.16945E-01  2.22223E-01
#           2.27630E-01  2.33169E-01  2.38842E-01  2.44653E-01  2.50605E-01
#           2.56703E-01  2.62949E-01  2.69346E-01  2.75900E-01  2.82613E-01
#           2.89489E-01  2.96532E-01  3.03747E-01  3.11138E-01  3.18708E-01
#           3.26462E-01  3.34405E-01  3.42542E-01  3.50876E-01  3.59413E-01
#           3.68158E-01  3.77116E-01  3.86291E-01  3.95690E-01  4.05317E-01
#           4.15179E-01  4.25281E-01  4.35628E-01  4.46227E-01  4.57084E-01
#           4.68205E-01  4.79597E-01  4.91266E-01  5.03219E-01  5.15463E-01
#           5.28005E-01  5.40851E-01  5.54011E-01  5.67490E-01  5.81298E-01
#           5.95441E-01  6.09929E-01  6.24769E-01  6.39970E-01  6.55541E-01
#           6.71491E-01  6.87828E-01  7.04564E-01  7.21706E-01  7.39266E-01
#           7.57253E-01  7.75678E-01  7.94551E-01  8.13883E-01  8.33685E-01
#           8.53969E-01  8.74747E-01  8.96030E-01  9.17831E-01  9.40163E-01
#           9.63038E-01  9.86469E-01  1.01047E+00  1.03506E+00  1.06024E+00
#           1.08604E+00  1.11246E+00  1.13953E+00  1.16725E+00  1.19565E+00
#           1.22474E+00  1.25454E+00  1.28507E+00  1.31633E+00  1.34836E+00
#           1.38117E+00  1.41477E+00  1.44920E+00  1.48446E+00  1.52057E+00
#           1.55757E+00  1.59547E+00  1.63429E+00  1.67405E+00  1.71478E+00
#           1.75650E+00  1.79924E+00  1.84302E+00  1.88786E+00  1.93379E+00
#           1.98084E+00  2.02904E+00  2.07841E+00  2.12898E+00  2.18078E+00
#           2.23384E+00  2.28819E+00  2.34386E+00  2.40089E+00  2.45930E+00
#           2.51914E+00  2.58043E+00  2.64322E+00  2.70753E+00  2.77341E+00
#           2.84088E+00  2.91001E+00  2.98081E+00  3.05333E+00  3.12762E+00
#           3.20372E+00  3.28167E+00  3.36152E+00  3.44330E+00  3.52708E+00
#           3.61290E+00  3.70080E+00  3.79085E+00  3.88308E+00  3.97756E+00
#           4.07434E+00  4.17347E+00  4.27501E+00  4.37903E+00  4.48557E+00
#           4.59471E+00  4.70650E+00  4.82102E+00  4.93832E+00  5.05847E+00
#           5.18155E+00  5.30762E+00  5.43676E+00  5.56904E+00  5.70453E+00
#           5.84333E+00  5.98550E+00  6.13114E+00  6.28031E+00  6.43312E+00
#           6.58964E+00  6.74997E+00  6.91420E+00  7.08243E+00  7.25475E+00
#           7.43126E+00  7.61207E+00  7.79728E+00  7.98700E+00  8.18133E+00
#           8.38038E+00  8.58428E+00  8.79315E+00  9.00709E+00  9.22624E+00
#           9.45072E+00  9.68067E+00  9.91620E+00  1.01575E+01  1.04046E+01
#           1.06578E+01  1.09171E+01  1.11827E+01  1.14548E+01  1.17335E+01
#           1.20190E+01  1.23114E+01  1.26109E+01  1.29178E+01  1.32321E+01
#           1.35540E+01  1.38838E+01  1.42216E+01  1.45676E+01  1.49221E+01
#           1.52851E+01  1.56570E+01  1.60380E+01  1.64282E+01  1.68279E+01
#           1.72374E+01  1.76568E+01  1.80864E+01  1.85264E+01  1.89772E+01
#           1.94389E+01  1.99119E+01  2.03963E+01  2.08926E+01  2.14009E+01
#           2.19216E+01  2.24550E+01  2.30014E+01  2.35610E+01  2.41343E+01
#           2.47215E+01  2.53230E+01  2.59391E+01  2.65702E+01  2.72167E+01
#           2.78789E+01  2.85572E+01  2.92520E+01  2.99637E+01  3.06928E+01
#           3.14396E+01  3.22045E+01  3.29881E+01  3.37907E+01  3.46128E+01
#           3.54550E+01  3.63177E+01  3.72013E+01  3.81064E+01  3.90336E+01
#           3.99833E+01  4.09561E+01  4.19526E+01  4.29734E+01  4.40189E+01
#           4.50900E+01  4.61870E+01  4.73108E+01  4.84619E+01  4.96410E+01
#           5.08488E+01  5.20860E+01  5.33533E+01  5.46514E+01  5.59812E+01
#           5.73432E+01  5.87384E+01  6.01676E+01  6.16315E+01  6.31311E+01
#           6.46671E+01  6.62405E+01  6.78522E+01  6.95031E+01  7.11941E+01
#           7.29263E+01  7.47007E+01  7.65182E+01  7.83800E+01  8.02870E+01
#           8.22405E+01  8.42414E+01  8.62911E+01  8.83906E+01  9.05412E+01
#           9.27442E+01  9.50007E+01  9.73122E+01  9.96799E+01  1.02105E+02
#           1.04589E+02  1.07134E+02  1.09741E+02  1.12411E+02  1.15146E+02
#           1.17948E+02  1.20817E+02  1.23757E+02  1.26768E+02  1.29852E+02
#           1.33012E+02  1.36248E+02  1.39563E+02  1.42959E+02  1.46437E+02
#           1.50000E+02
     unit =    2            # unit is [1/cm^2/(MeV/n)/source]
     axis =  eng            # axis of output
     file = detector-26.out  # file name of output for the above axis
   output = f-curr          # surface crossing forward current spectrum
     part =  neutron  
# kf/name :  2112     
#    used :        main (  %)        temp (  %)       total (  %)
#  memory :         414 (  0)           0 (  0)         414 (  0)

#------------------------------------------------------------------------------
#newpage:
#   no. =    1   reg = 125 - 225

x: Energy [MeV/n]
y:  F-Curr [1/cm^2/(MeV/n)/source]         
p: xlog ylog afac(0.8) form(0.9)
h: n            x            y(neutron ),hh0l   n 
#  e-lower      e-upper      neutron     r.err 
   1.0000E-02   1.0243E-02   3.7153E-04  0.0606
   1.0243E-02   1.0493E-02   3.8606E-04  0.0588
   1.0493E-02   1.0748E-02   3.5548E-04  0.0606
   1.0748E-02   1.1009E-02   3.7611E-04  0.0581
   1.1009E-02   1.1277E-02   3.6182E-04  0.0586
   1.1277E-02   1.1552E-02   3.5124E-04  0.0587
   1.1552E-02   1.1833E-02   3.6187E-04  0.0572
   1.1833E-02   1.2121E-02   3.5375E-04  0.0571
   1.2121E-02   1.2415E-02   3.3391E-04  0.0582
   1.2415E-02   1.2718E-02   3.2411E-04  0.0582
   1.2718E-02   1.3027E-02   3.2737E-04  0.0573
   1.3027E-02   1.3344E-02   3.0337E-04  0.0588
   1.3344E-02   1.3669E-02   3.0457E-04  0.0580
   1.3669E-02   1.4001E-02   2.9369E-04  0.0584
   1.4001E-02   1.4342E-02   2.7077E-04  0.0601
   1.4342E-02   1.4691E-02   2.9183E-04  0.0572
   1.4691E-02   1.5048E-02   3.0755E-04  0.0550
   1.5048E-02   1.5414E-02   2.9189E-04  0.0558
   1.5414E-02   1.5789E-02   3.1416E-04  0.0532
   1.5789E-02   1.6174E-02   2.9843E-04  0.0538
   1.6174E-02   1.6567E-02   2.5430E-04  0.0577
   1.6567E-02   1.6970E-02   2.7821E-04  0.0545
   1.6970E-02   1.7383E-02   2.6516E-04  0.0551
   1.7383E-02   1.7806E-02   2.6025E-04  0.0550
   1.7806E-02   1.8239E-02   2.8248E-04  0.0522
   1.8239E-02   1.8683E-02   2.5112E-04  0.0546
   1.8683E-02   1.9138E-02   2.4948E-04  0.0542
   1.9138E-02   1.9603E-02   2.2580E-04  0.0562
   1.9603E-02   2.0080E-02   2.2783E-04  0.0553
   2.0080E-02   2.0569E-02   2.4127E-04  0.0531
   2.0569E-02   2.1069E-02   2.4329E-04  0.0523
   2.1069E-02   2.1582E-02   2.4476E-04  0.0515
   2.1582E-02   2.2107E-02   2.6203E-04  0.0491
   2.2107E-02   2.2645E-02   2.3854E-04  0.0509
   2.2645E-02   2.3196E-02   2.1459E-04  0.0531
   2.3196E-02   2.3760E-02   2.1425E-04  0.0525
   2.3760E-02   2.4338E-02   2.1264E-04  0.0520
   2.4338E-02   2.4930E-02   2.3408E-04  0.0490
   2.4930E-02   2.5537E-02   2.2582E-04  0.0493
   2.5537E-02   2.6158E-02   2.0949E-04  0.0505
   2.6158E-02   2.6795E-02   2.1144E-04  0.0497
   2.6795E-02   2.7447E-02   2.0664E-04  0.0496
   2.7447E-02   2.8114E-02   1.9216E-04  0.0509
   2.8114E-02   2.8799E-02   2.1620E-04  0.0474
   2.8799E-02   2.9499E-02   1.8147E-04  0.0511
   2.9499E-02   3.0217E-02   1.7443E-04  0.0515
   3.0217E-02   3.0952E-02   1.9331E-04  0.0484
   3.0952E-02   3.1705E-02   1.7729E-04  0.0499
   3.1705E-02   3.2477E-02   1.7258E-04  0.0499
   3.2477E-02   3.3267E-02   1.7245E-04  0.0494
   3.3267E-02   3.4076E-02   1.5875E-04  0.0508
   3.4076E-02   3.4905E-02   1.8092E-04  0.0471
   3.4905E-02   3.5755E-02   1.5093E-04  0.0510
   3.5755E-02   3.6625E-02   1.7870E-04  0.0462
   3.6625E-02   3.7516E-02   1.6259E-04  0.0479
   3.7516E-02   3.8428E-02   1.6451E-04  0.0471
   3.8428E-02   3.9363E-02   1.4980E-04  0.0487
   3.9363E-02   4.0321E-02   1.5793E-04  0.0469
   4.0321E-02   4.1302E-02   1.3953E-04  0.0493
   4.1302E-02   4.2307E-02   1.4890E-04  0.0471
   4.2307E-02   4.3337E-02   1.3133E-04  0.0496
   4.3337E-02   4.4391E-02   1.4259E-04  0.0470
   4.4391E-02   4.5471E-02   1.4039E-04  0.0468
   4.5471E-02   4.6577E-02   1.3752E-04  0.0467
   4.6577E-02   4.7711E-02   1.4603E-04  0.0448
   4.7711E-02   4.8871E-02   1.1640E-04  0.0496
   4.8871E-02   5.0061E-02   1.3288E-04  0.0459
   5.0061E-02   5.1279E-02   1.1764E-04  0.0481
   5.1279E-02   5.2526E-02   1.2459E-04  0.0462
   5.2526E-02   5.3804E-02   1.1981E-04  0.0466
   5.3804E-02   5.5113E-02   1.2134E-04  0.0457
   5.5113E-02   5.6454E-02   1.1648E-04  0.0462
   5.6454E-02   5.7828E-02   1.1339E-04  0.0462
   5.7828E-02   5.9235E-02   1.1244E-04  0.0459
   5.9235E-02   6.0676E-02   1.1064E-04  0.0457
   6.0676E-02   6.2152E-02   1.0545E-04  0.0462
   6.2152E-02   6.3665E-02   1.0228E-04  0.0463
   6.3665E-02   6.5214E-02   1.0399E-04  0.0455
   6.5214E-02   6.6800E-02   1.0788E-04  0.0441
   6.6800E-02   6.8426E-02   9.6297E-05  0.0461
   6.8426E-02   7.0090E-02   1.0627E-04  0.0434
   7.0090E-02   7.1796E-02   9.3999E-05  0.0455
   7.1796E-02   7.3543E-02   8.5547E-05  0.0471
   7.3543E-02   7.5332E-02   9.2135E-05  0.0449
   7.5332E-02   7.7165E-02   9.3827E-05  0.0440
   7.7165E-02   7.9042E-02   9.2972E-05  0.0437
   7.9042E-02   8.0965E-02   8.8985E-05  0.0441
   8.0965E-02   8.2935E-02   8.0669E-05  0.0457
   8.2935E-02   8.4953E-02   8.4797E-05  0.0441
   8.4953E-02   8.7020E-02   7.1982E-05  0.0473
   8.7020E-02   8.9138E-02   7.8735E-05  0.0447
   8.9138E-02   9.1306E-02   7.6379E-05  0.0448
   9.1306E-02   9.3528E-02   7.2335E-05  0.0455
   9.3528E-02   9.5804E-02   7.0143E-05  0.0456
   9.5804E-02   9.8134E-02   7.5456E-05  0.0435
   9.8134E-02   1.0052E-01   6.6680E-05  0.0457
   1.0052E-01   1.0297E-01   6.3678E-05  0.0462
   1.0297E-01   1.0547E-01   7.2876E-05  0.0427
   1.0547E-01   1.0804E-01   6.6107E-05  0.0443
   1.0804E-01   1.1067E-01   5.8515E-05  0.0465
   1.1067E-01   1.1336E-01   6.1165E-05  0.0449
   1.1336E-01   1.1612E-01   5.6255E-05  0.0463
   1.1612E-01   1.1894E-01   5.7693E-05  0.0451
   1.1894E-01   1.2184E-01   5.3682E-05  0.0463
   1.2184E-01   1.2480E-01   5.6659E-05  0.0445
   1.2480E-01   1.2784E-01   5.5980E-05  0.0442
   1.2784E-01   1.3095E-01   5.1643E-05  0.0455
   1.3095E-01   1.3414E-01   5.1516E-05  0.0450
   1.3414E-01   1.3740E-01   5.4435E-05  0.0433
   1.3740E-01   1.4074E-01   4.7353E-05  0.0458
   1.4074E-01   1.4417E-01   4.7992E-05  0.0450
   1.4417E-01   1.4767E-01   4.7275E-05  0.0448
   1.4767E-01   1.5127E-01   4.5621E-05  0.0450
   1.5127E-01   1.5495E-01   4.4715E-05  0.0449
   1.5495E-01   1.5872E-01   4.1309E-05  0.0462
   1.5872E-01   1.6258E-01   4.1865E-05  0.0453
   1.6258E-01   1.6654E-01   3.8492E-05  0.0467
   1.6654E-01   1.7059E-01   4.1378E-05  0.0445
   1.7059E-01   1.7474E-01   4.0491E-05  0.0445
   1.7474E-01   1.7899E-01   3.7236E-05  0.0458
   1.7899E-01   1.8334E-01   3.3913E-05  0.0475
   1.8334E-01   1.8781E-01   3.4977E-05  0.0462
   1.8781E-01   1.9237E-01   3.4902E-05  0.0456
   1.9237E-01   1.9706E-01   3.2750E-05  0.0465
   1.9706E-01   2.0185E-01   3.2785E-05  0.0460
   2.0185E-01   2.0676E-01   3.0755E-05  0.0469
   2.0676E-01   2.1179E-01   3.5116E-05  0.0434
   2.1179E-01   2.1694E-01   3.3414E-05  0.0439
   2.1694E-01   2.2222E-01   3.4174E-05  0.0429
   2.2222E-01   2.2763E-01   3.9255E-05  0.0395
   2.2763E-01   2.3317E-01   3.4917E-05  0.0415
   2.3317E-01   2.3884E-01   3.5853E-05  0.0404
   2.3884E-01   2.4465E-01   3.8221E-05  0.0387
   2.4465E-01   2.5061E-01   3.6729E-05  0.0390
   2.5061E-01   2.5670E-01   3.8715E-05  0.0375
   2.5670E-01   2.6295E-01   4.1380E-05  0.0358
   2.6295E-01   2.6935E-01   4.2757E-05  0.0349
   2.6935E-01   2.7590E-01   4.2864E-05  0.0344
   2.7590E-01   2.8261E-01   4.2468E-05  0.0341
   2.8261E-01   2.8949E-01   4.3655E-05  0.0333
   2.8949E-01   2.9653E-01   4.4226E-05  0.0327
   2.9653E-01   3.0375E-01   4.4952E-05  0.0320
   3.0375E-01   3.1114E-01   4.3884E-05  0.0320
   3.1114E-01   3.1871E-01   4.4592E-05  0.0314
   3.1871E-01   3.2646E-01   4.5009E-05  0.0309
   3.2646E-01   3.3441E-01   4.6347E-05  0.0300
   3.3441E-01   3.4254E-01   4.8911E-05  0.0289
   3.4254E-01   3.5088E-01   4.3906E-05  0.0301
   3.5088E-01   3.5941E-01   4.6654E-05  0.0289
   3.5941E-01   3.6816E-01   4.7722E-05  0.0282
   3.6816E-01   3.7712E-01   4.6398E-05  0.0283
   3.7712E-01   3.8629E-01   4.6980E-05  0.0278
   3.8629E-01   3.9569E-01   4.6991E-05  0.0274
   3.9569E-01   4.0532E-01   4.6377E-05  0.0273
   4.0532E-01   4.1518E-01   4.5478E-05  0.0272
   4.1518E-01   4.2528E-01   4.6285E-05  0.0267
   4.2528E-01   4.3563E-01   4.5621E-05  0.0265
   4.3563E-01   4.4623E-01   4.5329E-05  0.0263
   4.4623E-01   4.5708E-01   4.6574E-05  0.0256
   4.5708E-01   4.6821E-01   4.5932E-05  0.0255
   4.6821E-01   4.7960E-01   4.4534E-05  0.0256
   4.7960E-01   4.9127E-01   4.2723E-05  0.0258
   4.9127E-01   5.0322E-01   4.2950E-05  0.0254
   5.0322E-01   5.1546E-01   4.1883E-05  0.0254
   5.1546E-01   5.2800E-01   4.3206E-05  0.0247
   5.2800E-01   5.4085E-01   4.1456E-05  0.0249
   5.4085E-01   5.5401E-01   4.0899E-05  0.0248
   5.5401E-01   5.6749E-01   4.0157E-05  0.0248
   5.6749E-01   5.8130E-01   3.8984E-05  0.0248
   5.8130E-01   5.9544E-01   3.9313E-05  0.0244
   5.9544E-01   6.0993E-01   3.7902E-05  0.0246
   6.0993E-01   6.2477E-01   3.6822E-05  0.0246
   6.2477E-01   6.3997E-01   3.7372E-05  0.0242
   6.3997E-01   6.5554E-01   3.6288E-05  0.0242
   6.5554E-01   6.7149E-01   3.2748E-05  0.0252
   6.7149E-01   6.8783E-01   3.4306E-05  0.0243
   6.8783E-01   7.0456E-01   3.2779E-05  0.0246
   7.0456E-01   7.2171E-01   3.4082E-05  0.0238
   7.2171E-01   7.3927E-01   3.2469E-05  0.0241
   7.3927E-01   7.5725E-01   3.1987E-05  0.0240
   7.5725E-01   7.7568E-01   3.0919E-05  0.0241
   7.7568E-01   7.9455E-01   3.0293E-05  0.0241
   7.9455E-01   8.1388E-01   2.9729E-05  0.0240
   8.1388E-01   8.3368E-01   2.9964E-05  0.0236
   8.3368E-01   8.5397E-01   2.7518E-05  0.0244
   8.5397E-01   8.7475E-01   2.7647E-05  0.0240
   8.7475E-01   8.9603E-01   2.7812E-05  0.0236
   8.9603E-01   9.1783E-01   2.7586E-05  0.0235
   9.1783E-01   9.4016E-01   2.6378E-05  0.0237
   9.4016E-01   9.6304E-01   2.6679E-05  0.0233
   9.6304E-01   9.8647E-01   2.6212E-05  0.0232
   9.8647E-01   1.0105E+00   2.4814E-05  0.0236
   1.0105E+00   1.0351E+00   2.4980E-05  0.0232
   1.0351E+00   1.0602E+00   2.4499E-05  0.0232
   1.0602E+00   1.0860E+00   2.3980E-05  0.0231
   1.0860E+00   1.1125E+00   2.3266E-05  0.0232
   1.1125E+00   1.1395E+00   2.3858E-05  0.0226
   1.1395E+00   1.1673E+00   2.1971E-05  0.0233
   1.1673E+00   1.1957E+00   2.1803E-05  0.0231
   1.1957E+00   1.2247E+00   2.2338E-05  0.0226
   1.2247E+00   1.2545E+00   2.1604E-05  0.0227
   1.2545E+00   1.2851E+00   2.0677E-05  0.0229
   1.2851E+00   1.3163E+00   2.0530E-05  0.0227
   1.3163E+00   1.3484E+00   1.9485E-05  0.0230
   1.3484E+00   1.3812E+00   1.9906E-05  0.0225
   1.3812E+00   1.4148E+00   1.8440E-05  0.0231
   1.4148E+00   1.4492E+00   1.8727E-05  0.0227
   1.4492E+00   1.4845E+00   1.7935E-05  0.0229
   1.4845E+00   1.5206E+00   1.8373E-05  0.0223
   1.5206E+00   1.5576E+00   1.7503E-05  0.0226
   1.5576E+00   1.5955E+00   1.7653E-05  0.0222
   1.5955E+00   1.6343E+00   1.6619E-05  0.0226
   1.6343E+00   1.6741E+00   1.6525E-05  0.0224
   1.6741E+00   1.7148E+00   1.5629E-05  0.0228
   1.7148E+00   1.7565E+00   1.5171E-05  0.0229
   1.7565E+00   1.7992E+00   1.5475E-05  0.0224
   1.7992E+00   1.8430E+00   1.4491E-05  0.0228
   1.8430E+00   1.8879E+00   1.4252E-05  0.0228
   1.8879E+00   1.9338E+00   1.3340E-05  0.0232
   1.9338E+00   1.9808E+00   1.3464E-05  0.0228
   1.9808E+00   2.0290E+00   1.2844E-05  0.0231
   2.0290E+00   2.0784E+00   1.2902E-05  0.0228
   2.0784E+00   2.1290E+00   1.2485E-05  0.0229
   2.1290E+00   2.1808E+00   1.2016E-05  0.0231
   2.1808E+00   2.2338E+00   1.1721E-05  0.0230
   2.2338E+00   2.2882E+00   1.1896E-05  0.0226
   2.2882E+00   2.3439E+00   1.0866E-05  0.0234
   2.3439E+00   2.4009E+00   1.0643E-05  0.0233
   2.4009E+00   2.4593E+00   1.0676E-05  0.0230
   2.4593E+00   2.5191E+00   9.8975E-06  0.0236
   2.5191E+00   2.5804E+00   1.0387E-05  0.0228
   2.5804E+00   2.6432E+00   9.7564E-06  0.0232
   2.6432E+00   2.7075E+00   9.6134E-06  0.0231
   2.7075E+00   2.7734E+00   9.1754E-06  0.0234
   2.7734E+00   2.8409E+00   8.9011E-06  0.0235
   2.8409E+00   2.9100E+00   8.7743E-06  0.0233
   2.9100E+00   2.9808E+00   8.9674E-06  0.0228
   2.9808E+00   3.0533E+00   8.7946E-06  0.0228
   3.0533E+00   3.1276E+00   8.6213E-06  0.0227
   3.1276E+00   3.2037E+00   8.2560E-06  0.0229
   3.2037E+00   3.2817E+00   8.1183E-06  0.0228
   3.2817E+00   3.3615E+00   7.7456E-06  0.0231
   3.3615E+00   3.4433E+00   7.8666E-06  0.0227
   3.4433E+00   3.5271E+00   7.7243E-06  0.0226
   3.5271E+00   3.6129E+00   7.6724E-06  0.0224
   3.6129E+00   3.7008E+00   7.6085E-06  0.0222
   3.7008E+00   3.7908E+00   7.5707E-06  0.0220
   3.7908E+00   3.8831E+00   7.2110E-06  0.0223
   3.8831E+00   3.9776E+00   7.2989E-06  0.0219
   3.9776E+00   4.0743E+00   7.0434E-06  0.0220
   4.0743E+00   4.1735E+00   7.1492E-06  0.0216
   4.1735E+00   4.2750E+00   6.7313E-06  0.0220
   4.2750E+00   4.3790E+00   6.4014E-06  0.0223
   4.3790E+00   4.4856E+00   6.7099E-06  0.0215
   4.4856E+00   4.5947E+00   6.8262E-06  0.0211
   4.5947E+00   4.7065E+00   6.4977E-06  0.0214
   4.7065E+00   4.8210E+00   6.3125E-06  0.0214
   4.8210E+00   4.9383E+00   6.3653E-06  0.0211
   4.9383E+00   5.0585E+00   6.1421E-06  0.0212
   5.0585E+00   5.1815E+00   6.1101E-06  0.0210
   5.1815E+00   5.3076E+00   5.8396E-06  0.0212
   5.3076E+00   5.4368E+00   5.5566E-06  0.0215
   5.4368E+00   5.5690E+00   5.5005E-06  0.0214
   5.5690E+00   5.7045E+00   5.3293E-06  0.0214
   5.7045E+00   5.8433E+00   5.2828E-06  0.0213
   5.8433E+00   5.9855E+00   5.0970E-06  0.0214
   5.9855E+00   6.1311E+00   4.7060E-06  0.0220
   6.1311E+00   6.2803E+00   4.6043E-06  0.0220
   6.2803E+00   6.4331E+00   4.4280E-06  0.0222
   6.4331E+00   6.5896E+00   4.3524E-06  0.0221
   6.5896E+00   6.7500E+00   4.0302E-06  0.0227
   6.7500E+00   6.9142E+00   3.9439E-06  0.0227
   6.9142E+00   7.0824E+00   3.7317E-06  0.0230
   7.0824E+00   7.2548E+00   3.6864E-06  0.0229
   7.2548E+00   7.4313E+00   3.5094E-06  0.0232
   7.4313E+00   7.6121E+00   3.2390E-06  0.0238
   7.6121E+00   7.7973E+00   3.1222E-06  0.0240
   7.7973E+00   7.9870E+00   2.9425E-06  0.0244
   7.9870E+00   8.1813E+00   2.7518E-06  0.0249
   8.1813E+00   8.3804E+00   2.7126E-06  0.0248
   8.3804E+00   8.5843E+00   2.4913E-06  0.0256
   8.5843E+00   8.7931E+00   2.3134E-06  0.0262
   8.7931E+00   9.0071E+00   2.2098E-06  0.0265
   9.0071E+00   9.2262E+00   2.0846E-06  0.0270
   9.2262E+00   9.4507E+00   1.9692E-06  0.0275
   9.4507E+00   9.6807E+00   1.8411E-06  0.0281
   9.6807E+00   9.9162E+00   1.8728E-06  0.0275
   9.9162E+00   1.0157E+01   1.6539E-06  0.0289
   1.0157E+01   1.0405E+01   1.4776E-06  0.0302
   1.0405E+01   1.0658E+01   1.3870E-06  0.0308
   1.0658E+01   1.0917E+01   1.2942E-06  0.0315
   1.0917E+01   1.1183E+01   1.2032E-06  0.0323
   1.1183E+01   1.1455E+01   1.1216E-06  0.0330
   1.1455E+01   1.1733E+01   1.0663E-06  0.0335
   1.1733E+01   1.2019E+01   9.8226E-07  0.0345
   1.2019E+01   1.2311E+01   9.0790E-07  0.0354
   1.2311E+01   1.2611E+01   7.7065E-07  0.0380
   1.2611E+01   1.2918E+01   6.9527E-07  0.0395
   1.2918E+01   1.3232E+01   6.6052E-07  0.0401
   1.3232E+01   1.3554E+01   6.1087E-07  0.0412
   1.3554E+01   1.3884E+01   5.1145E-07  0.0445
   1.3884E+01   1.4222E+01   4.3812E-07  0.0475
   1.4222E+01   1.4568E+01   4.1905E-07  0.0479
   1.4568E+01   1.4922E+01   3.6113E-07  0.0510
   1.4922E+01   1.5285E+01   3.3144E-07  0.0526
   1.5285E+01   1.5657E+01   2.8144E-07  0.0564
   1.5657E+01   1.6038E+01   2.5025E-07  0.0591
   1.6038E+01   1.6428E+01   2.0672E-07  0.0643
   1.6428E+01   1.6828E+01   1.5511E-07  0.0733
   1.6828E+01   1.7237E+01   1.4247E-07  0.0756
   1.7237E+01   1.7657E+01   1.2399E-07  0.0801
   1.7657E+01   1.8086E+01   1.0320E-07  0.0867
   1.8086E+01   1.8526E+01   1.0908E-07  0.0833
   1.8526E+01   1.8977E+01   7.9125E-08  0.0967
   1.8977E+01   1.9439E+01   7.0027E-08  0.1015
   1.9439E+01   1.9912E+01   3.8763E-08  0.1348
   1.9912E+01   2.0396E+01   3.2338E-08  0.1459
   2.0396E+01   2.0893E+01   3.2913E-08  0.1429
   2.0893E+01   2.1401E+01   2.4262E-08  0.1644
   2.1401E+01   2.1922E+01   1.4084E-08  0.2132
   2.1922E+01   2.2455E+01   1.4374E-08  0.2085
   2.2455E+01   2.3001E+01   8.5416E-09  0.2673
   2.3001E+01   2.3561E+01   5.3606E-09  0.3333
   2.3561E+01   2.4134E+01   4.6518E-09  0.3536
   2.4134E+01   2.4721E+01   2.8383E-09  0.4472
   2.4721E+01   2.5323E+01   4.9876E-09  0.3333
   2.5323E+01   2.5939E+01   3.2461E-09  0.4082
   2.5939E+01   2.6570E+01   4.2253E-09  0.3536
   2.6570E+01   2.7217E+01   1.0312E-09  0.7071
   2.7217E+01   2.7879E+01   0.0000E+00  0.0000
   2.7879E+01   2.8557E+01   9.8283E-10  0.7071
   2.8557E+01   2.9252E+01   4.7974E-10  1.0000
   2.9252E+01   2.9964E+01   0.0000E+00  0.0000
   2.9964E+01   3.0693E+01   0.0000E+00  0.0000
   3.0693E+01   3.1440E+01   0.0000E+00  0.0000
   3.1440E+01   3.2205E+01   0.0000E+00  0.0000
   3.2205E+01   3.2988E+01   0.0000E+00  0.0000
   3.2988E+01   3.3791E+01   0.0000E+00  0.0000
   3.3791E+01   3.4613E+01   0.0000E+00  0.0000
   3.4613E+01   3.5455E+01   0.0000E+00  0.0000
   3.5455E+01   3.6318E+01   0.0000E+00  0.0000
   3.6318E+01   3.7201E+01   0.0000E+00  0.0000
   3.7201E+01   3.8106E+01   0.0000E+00  0.0000
   3.8106E+01   3.9034E+01   0.0000E+00  0.0000
   3.9034E+01   3.9983E+01   0.0000E+00  0.0000
   3.9983E+01   4.0956E+01   0.0000E+00  0.0000
   4.0956E+01   4.1953E+01   0.0000E+00  0.0000
   4.1953E+01   4.2973E+01   0.0000E+00  0.0000
   4.2973E+01   4.4019E+01   0.0000E+00  0.0000
   4.4019E+01   4.5090E+01   0.0000E+00  0.0000
   4.5090E+01   4.6187E+01   0.0000E+00  0.0000
   4.6187E+01   4.7311E+01   0.0000E+00  0.0000
   4.7311E+01   4.8462E+01   0.0000E+00  0.0000
   4.8462E+01   4.9641E+01   0.0000E+00  0.0000
   4.9641E+01   5.0849E+01   0.0000E+00  0.0000
   5.0849E+01   5.2086E+01   0.0000E+00  0.0000
   5.2086E+01   5.3353E+01   0.0000E+00  0.0000
   5.3353E+01   5.4651E+01   0.0000E+00  0.0000
   5.4651E+01   5.5981E+01   0.0000E+00  0.0000
   5.5981E+01   5.7343E+01   0.0000E+00  0.0000
   5.7343E+01   5.8738E+01   0.0000E+00  0.0000
   5.8738E+01   6.0168E+01   0.0000E+00  0.0000
   6.0168E+01   6.1632E+01   0.0000E+00  0.0000
   6.1632E+01   6.3131E+01   0.0000E+00  0.0000
   6.3131E+01   6.4667E+01   0.0000E+00  0.0000
   6.4667E+01   6.6240E+01   0.0000E+00  0.0000
   6.6240E+01   6.7852E+01   0.0000E+00  0.0000
   6.7852E+01   6.9503E+01   0.0000E+00  0.0000
   6.9503E+01   7.1194E+01   0.0000E+00  0.0000
   7.1194E+01   7.2926E+01   0.0000E+00  0.0000
   7.2926E+01   7.4701E+01   0.0000E+00  0.0000
   7.4701E+01   7.6518E+01   0.0000E+00  0.0000
   7.6518E+01   7.8380E+01   0.0000E+00  0.0000
   7.8380E+01   8.0287E+01   0.0000E+00  0.0000
   8.0287E+01   8.2240E+01   0.0000E+00  0.0000
   8.2240E+01   8.4241E+01   0.0000E+00  0.0000
   8.4241E+01   8.6291E+01   0.0000E+00  0.0000
   8.6291E+01   8.8391E+01   0.0000E+00  0.0000
   8.8391E+01   9.0541E+01   0.0000E+00  0.0000
   9.0541E+01   9.2744E+01   0.0000E+00  0.0000
   9.2744E+01   9.5001E+01   0.0000E+00  0.0000
   9.5001E+01   9.7312E+01   0.0000E+00  0.0000
   9.7312E+01   9.9680E+01   0.0000E+00  0.0000
   9.9680E+01   1.0211E+02   0.0000E+00  0.0000
   1.0211E+02   1.0459E+02   0.0000E+00  0.0000
   1.0459E+02   1.0713E+02   0.0000E+00  0.0000
   1.0713E+02   1.0974E+02   0.0000E+00  0.0000
   1.0974E+02   1.1241E+02   0.0000E+00  0.0000
   1.1241E+02   1.1515E+02   0.0000E+00  0.0000
   1.1515E+02   1.1795E+02   0.0000E+00  0.0000
   1.1795E+02   1.2082E+02   0.0000E+00  0.0000
   1.2082E+02   1.2376E+02   0.0000E+00  0.0000
   1.2376E+02   1.2677E+02   0.0000E+00  0.0000
   1.2677E+02   1.2985E+02   0.0000E+00  0.0000
   1.2985E+02   1.3301E+02   0.0000E+00  0.0000
   1.3301E+02   1.3625E+02   0.0000E+00  0.0000
   1.3625E+02   1.3956E+02   0.0000E+00  0.0000
   1.3956E+02   1.4296E+02   0.0000E+00  0.0000
   1.4296E+02   1.4644E+02   0.0000E+00  0.0000
   1.4644E+02   1.5000E+02   0.0000E+00  0.0000

#   sum over                 7.5070E-07
'no. =    1   reg = 125 - 225'
msuc: {\huge [t-cross] in region mesh}
msdr: {\it plotted by \ANGEL \version}
msdl: {\it calculated by \PHITS  3.26}
wt: s(0.7)
\vspace{-3}
  region surface crossing
  area  &=&   1.0000E+00 [cm^2]
e:
 
# Information for Restart Calculation
# This calculation was newly started
# istdev =  2 # 1:Batch variance, 2:History variance
# resc2  = 3.00000000000000000E+09 # Total source weight or Total source weight / maxcas
# resc3  = 3.00000000000000000E+09 # Total history number or Total batch number
# maxcas =   500000000 # History / Batch, only used for istdev=1
# bitrseed = 0110110011111001100110101011100000010010001000001101100100111101 # bit data of rseed
