[ T-Cross ]
    title = [t-cross] in region mesh
     mesh =  reg            # mesh type is region-wise
      reg =    1            # number of crossing regions
      non     r-from    r-to       area
      1       125       225        1.000000    
   e-type =    3            # e-mesh is log given by emin, emax and ne
     emin =  1.0000000E-02  # minimum value of e-mesh points
     emax =   150.0000      # maximum value of e-mesh points
#    edel =  2.4039514E-02  # mesh width of e-mesh points
       ne =    400          # number of e-mesh points
#    data = ( e(i), i = 1, ne + 1 )
#           1.00000E-02  1.02433E-02  1.04925E-02  1.07478E-02  1.10093E-02
#           1.12772E-02  1.15516E-02  1.18326E-02  1.21205E-02  1.24154E-02
#           1.27175E-02  1.30269E-02  1.33439E-02  1.36686E-02  1.40011E-02
#           1.43418E-02  1.46907E-02  1.50482E-02  1.54143E-02  1.57894E-02
#           1.61735E-02  1.65670E-02  1.69701E-02  1.73830E-02  1.78060E-02
#           1.82392E-02  1.86830E-02  1.91375E-02  1.96032E-02  2.00801E-02
#           2.05687E-02  2.10692E-02  2.15818E-02  2.21069E-02  2.26448E-02
#           2.31957E-02  2.37601E-02  2.43382E-02  2.49304E-02  2.55369E-02
#           2.61583E-02  2.67947E-02  2.74467E-02  2.81145E-02  2.87985E-02
#           2.94992E-02  3.02169E-02  3.09521E-02  3.17052E-02  3.24766E-02
#           3.32668E-02  3.40762E-02  3.49053E-02  3.57546E-02  3.66246E-02
#           3.75157E-02  3.84284E-02  3.93634E-02  4.03212E-02  4.13022E-02
#           4.23071E-02  4.33365E-02  4.43909E-02  4.54710E-02  4.65773E-02
#           4.77106E-02  4.88714E-02  5.00605E-02  5.12785E-02  5.25262E-02
#           5.38042E-02  5.51133E-02  5.64542E-02  5.78278E-02  5.92348E-02
#           6.06760E-02  6.21523E-02  6.36645E-02  6.52135E-02  6.68002E-02
#           6.84255E-02  7.00904E-02  7.17957E-02  7.35426E-02  7.53319E-02
#           7.71648E-02  7.90423E-02  8.09655E-02  8.29354E-02  8.49533E-02
#           8.70203E-02  8.91376E-02  9.13064E-02  9.35279E-02  9.58035E-02
#           9.81345E-02  1.00522E-01  1.02968E-01  1.05473E-01  1.08040E-01
#           1.10668E-01  1.13361E-01  1.16119E-01  1.18944E-01  1.21838E-01
#           1.24803E-01  1.27839E-01  1.30950E-01  1.34136E-01  1.37399E-01
#           1.40742E-01  1.44167E-01  1.47675E-01  1.51268E-01  1.54948E-01
#           1.58718E-01  1.62580E-01  1.66535E-01  1.70587E-01  1.74738E-01
#           1.78989E-01  1.83344E-01  1.87805E-01  1.92375E-01  1.97055E-01
#           2.01850E-01  2.06761E-01  2.11792E-01  2.16945E-01  2.22223E-01
#           2.27630E-01  2.33169E-01  2.38842E-01  2.44653E-01  2.50605E-01
#           2.56703E-01  2.62949E-01  2.69346E-01  2.75900E-01  2.82613E-01
#           2.89489E-01  2.96532E-01  3.03747E-01  3.11138E-01  3.18708E-01
#           3.26462E-01  3.34405E-01  3.42542E-01  3.50876E-01  3.59413E-01
#           3.68158E-01  3.77116E-01  3.86291E-01  3.95690E-01  4.05317E-01
#           4.15179E-01  4.25281E-01  4.35628E-01  4.46227E-01  4.57084E-01
#           4.68205E-01  4.79597E-01  4.91266E-01  5.03219E-01  5.15463E-01
#           5.28005E-01  5.40851E-01  5.54011E-01  5.67490E-01  5.81298E-01
#           5.95441E-01  6.09929E-01  6.24769E-01  6.39970E-01  6.55541E-01
#           6.71491E-01  6.87828E-01  7.04564E-01  7.21706E-01  7.39266E-01
#           7.57253E-01  7.75678E-01  7.94551E-01  8.13883E-01  8.33685E-01
#           8.53969E-01  8.74747E-01  8.96030E-01  9.17831E-01  9.40163E-01
#           9.63038E-01  9.86469E-01  1.01047E+00  1.03506E+00  1.06024E+00
#           1.08604E+00  1.11246E+00  1.13953E+00  1.16725E+00  1.19565E+00
#           1.22474E+00  1.25454E+00  1.28507E+00  1.31633E+00  1.34836E+00
#           1.38117E+00  1.41477E+00  1.44920E+00  1.48446E+00  1.52057E+00
#           1.55757E+00  1.59547E+00  1.63429E+00  1.67405E+00  1.71478E+00
#           1.75650E+00  1.79924E+00  1.84302E+00  1.88786E+00  1.93379E+00
#           1.98084E+00  2.02904E+00  2.07841E+00  2.12898E+00  2.18078E+00
#           2.23384E+00  2.28819E+00  2.34386E+00  2.40089E+00  2.45930E+00
#           2.51914E+00  2.58043E+00  2.64322E+00  2.70753E+00  2.77341E+00
#           2.84088E+00  2.91001E+00  2.98081E+00  3.05333E+00  3.12762E+00
#           3.20372E+00  3.28167E+00  3.36152E+00  3.44330E+00  3.52708E+00
#           3.61290E+00  3.70080E+00  3.79085E+00  3.88308E+00  3.97756E+00
#           4.07434E+00  4.17347E+00  4.27501E+00  4.37903E+00  4.48557E+00
#           4.59471E+00  4.70650E+00  4.82102E+00  4.93832E+00  5.05847E+00
#           5.18155E+00  5.30762E+00  5.43676E+00  5.56904E+00  5.70453E+00
#           5.84333E+00  5.98550E+00  6.13114E+00  6.28031E+00  6.43312E+00
#           6.58964E+00  6.74997E+00  6.91420E+00  7.08243E+00  7.25475E+00
#           7.43126E+00  7.61207E+00  7.79728E+00  7.98700E+00  8.18133E+00
#           8.38038E+00  8.58428E+00  8.79315E+00  9.00709E+00  9.22624E+00
#           9.45072E+00  9.68067E+00  9.91620E+00  1.01575E+01  1.04046E+01
#           1.06578E+01  1.09171E+01  1.11827E+01  1.14548E+01  1.17335E+01
#           1.20190E+01  1.23114E+01  1.26109E+01  1.29178E+01  1.32321E+01
#           1.35540E+01  1.38838E+01  1.42216E+01  1.45676E+01  1.49221E+01
#           1.52851E+01  1.56570E+01  1.60380E+01  1.64282E+01  1.68279E+01
#           1.72374E+01  1.76568E+01  1.80864E+01  1.85264E+01  1.89772E+01
#           1.94389E+01  1.99119E+01  2.03963E+01  2.08926E+01  2.14009E+01
#           2.19216E+01  2.24550E+01  2.30014E+01  2.35610E+01  2.41343E+01
#           2.47215E+01  2.53230E+01  2.59391E+01  2.65702E+01  2.72167E+01
#           2.78789E+01  2.85572E+01  2.92520E+01  2.99637E+01  3.06928E+01
#           3.14396E+01  3.22045E+01  3.29881E+01  3.37907E+01  3.46128E+01
#           3.54550E+01  3.63177E+01  3.72013E+01  3.81064E+01  3.90336E+01
#           3.99833E+01  4.09561E+01  4.19526E+01  4.29734E+01  4.40189E+01
#           4.50900E+01  4.61870E+01  4.73108E+01  4.84619E+01  4.96410E+01
#           5.08488E+01  5.20860E+01  5.33533E+01  5.46514E+01  5.59812E+01
#           5.73432E+01  5.87384E+01  6.01676E+01  6.16315E+01  6.31311E+01
#           6.46671E+01  6.62405E+01  6.78522E+01  6.95031E+01  7.11941E+01
#           7.29263E+01  7.47007E+01  7.65182E+01  7.83800E+01  8.02870E+01
#           8.22405E+01  8.42414E+01  8.62911E+01  8.83906E+01  9.05412E+01
#           9.27442E+01  9.50007E+01  9.73122E+01  9.96799E+01  1.02105E+02
#           1.04589E+02  1.07134E+02  1.09741E+02  1.12411E+02  1.15146E+02
#           1.17948E+02  1.20817E+02  1.23757E+02  1.26768E+02  1.29852E+02
#           1.33012E+02  1.36248E+02  1.39563E+02  1.42959E+02  1.46437E+02
#           1.50000E+02
     unit =    2            # unit is [1/cm^2/(MeV/n)/source]
     axis =  eng            # axis of output
     file = detector-26.out  # file name of output for the above axis
   output = f-curr          # surface crossing forward current spectrum
     part =  neutron  
# kf/name :  2112     
#    used :        main (  %)        temp (  %)       total (  %)
#  memory :         414 (  0)           0 (  0)         414 (  0)

#------------------------------------------------------------------------------
#newpage:
#   no. =    1   reg = 125 - 225

x: Energy [MeV/n]
y:  F-Curr [1/cm^2/(MeV/n)/source]         
p: xlog ylog afac(0.8) form(0.9)
h: n            x            y(neutron ),hh0l   n 
#  e-lower      e-upper      neutron     r.err 
   1.0000E-02   1.0243E-02   7.7423E-04  0.1025
   1.0243E-02   1.0493E-02   7.5075E-04  0.1028
   1.0493E-02   1.0748E-02   7.2676E-04  0.1031
   1.0748E-02   1.1009E-02   7.1386E-04  0.1034
   1.1009E-02   1.1277E-02   7.8177E-04  0.0975
   1.1277E-02   1.1552E-02   7.2617E-04  0.0999
   1.1552E-02   1.1833E-02   6.5175E-04  0.1036
   1.1833E-02   1.2121E-02   6.0705E-04  0.1068
   1.2121E-02   1.2415E-02   6.5841E-04  0.1011
   1.2415E-02   1.2718E-02   6.2040E-04  0.1027
   1.2718E-02   1.3027E-02   5.2312E-04  0.1107
   1.3027E-02   1.3344E-02   5.5967E-04  0.1059
   1.3344E-02   1.3669E-02   6.5290E-04  0.0965
   1.3669E-02   1.4001E-02   6.6216E-04  0.0949
   1.4001E-02   1.4342E-02   5.8338E-04  0.1002
   1.4342E-02   1.4691E-02   5.9991E-04  0.0975
   1.4691E-02   1.5048E-02   4.8467E-04  0.1071
   1.5048E-02   1.5414E-02   4.6044E-04  0.1084
   1.5414E-02   1.5789E-02   5.3274E-04  0.0995
   1.5789E-02   1.6174E-02   4.9109E-04  0.1028
   1.6174E-02   1.6567E-02   4.9218E-04  0.1013
   1.6567E-02   1.6970E-02   5.0559E-04  0.0987
   1.6970E-02   1.7383E-02   5.0023E-04  0.0979
   1.7383E-02   1.7806E-02   5.0122E-04  0.0968
   1.7806E-02   1.8239E-02   4.2235E-04  0.1041
   1.8239E-02   1.8683E-02   4.7051E-04  0.0977
   1.8683E-02   1.9138E-02   4.6260E-04  0.0972
   1.9138E-02   1.9603E-02   4.3231E-04  0.0994
   1.9603E-02   2.0080E-02   4.8992E-04  0.0920
   2.0080E-02   2.0569E-02   4.3100E-04  0.0970
   2.0569E-02   2.1069E-02   4.1829E-04  0.0975
   2.1069E-02   2.1582E-02   4.4713E-04  0.0930
   2.1582E-02   2.2107E-02   3.6854E-04  0.1011
   2.2107E-02   2.2645E-02   4.5117E-04  0.0904
   2.2645E-02   2.3196E-02   3.3646E-04  0.1036
   2.3196E-02   2.3760E-02   3.3502E-04  0.1022
   2.3760E-02   2.4338E-02   3.8114E-04  0.0947
   2.4338E-02   2.4930E-02   3.0431E-04  0.1049
   2.4930E-02   2.5537E-02   2.9421E-04  0.1054
   2.5537E-02   2.6158E-02   2.5590E-04  0.1120
   2.6158E-02   2.6795E-02   3.1614E-04  0.0991
   2.6795E-02   2.7447E-02   3.8273E-04  0.0893
   2.7447E-02   2.8114E-02   3.1112E-04  0.0978
   2.8114E-02   2.8799E-02   3.1623E-04  0.0959
   2.8799E-02   2.9499E-02   2.8118E-04  0.1002
   2.9499E-02   3.0217E-02   2.7085E-04  0.1010
   3.0217E-02   3.0952E-02   3.3973E-04  0.0893
   3.0952E-02   3.1705E-02   2.5907E-04  0.1007
   3.1705E-02   3.2477E-02   3.1890E-04  0.0902
   3.2477E-02   3.3267E-02   2.8760E-04  0.0936
   3.3267E-02   3.4076E-02   2.4784E-04  0.0994
   3.4076E-02   3.4905E-02   2.8747E-04  0.0910
   3.4905E-02   3.5755E-02   2.8086E-04  0.0915
   3.5755E-02   3.6625E-02   2.2767E-04  0.1001
   3.6625E-02   3.7516E-02   2.5387E-04  0.0937
   3.7516E-02   3.8428E-02   2.4479E-04  0.0944
   3.8428E-02   3.9363E-02   2.6655E-04  0.0892
   3.9363E-02   4.0321E-02   2.2708E-04  0.0954
   4.0321E-02   4.1302E-02   2.4287E-04  0.0913
   4.1302E-02   4.2307E-02   2.1298E-04  0.0964
   4.2307E-02   4.3337E-02   2.0126E-04  0.0980
   4.3337E-02   4.4391E-02   1.9612E-04  0.0982
   4.4391E-02   4.5471E-02   1.8722E-04  0.0987
   4.5471E-02   4.6577E-02   2.3178E-04  0.0880
   4.6577E-02   4.7711E-02   1.7818E-04  0.0992
   4.7711E-02   4.8871E-02   1.7541E-04  0.0988
   4.8871E-02   5.0061E-02   1.7365E-04  0.0983
   5.0061E-02   5.1279E-02   1.6339E-04  0.0997
   5.1279E-02   5.2526E-02   1.5555E-04  0.1011
   5.2526E-02   5.3804E-02   2.1283E-04  0.0853
   5.3804E-02   5.5113E-02   1.5745E-04  0.0981
   5.5113E-02   5.6454E-02   1.7962E-04  0.0908
   5.6454E-02   5.7828E-02   1.7574E-04  0.0908
   5.7828E-02   5.9235E-02   1.3997E-04  0.1002
   5.9235E-02   6.0676E-02   1.5784E-04  0.0935
   6.0676E-02   6.2152E-02   1.5173E-04  0.0941
   6.2152E-02   6.3665E-02   1.4056E-04  0.0966
   6.3665E-02   6.5214E-02   1.3347E-04  0.0973
   6.5214E-02   6.6800E-02   1.6174E-04  0.0878
   6.6800E-02   6.8426E-02   1.2862E-04  0.0973
   6.8426E-02   7.0090E-02   1.2118E-04  0.0993
   7.0090E-02   7.1796E-02   1.3035E-04  0.0945
   7.1796E-02   7.3543E-02   1.1833E-04  0.0982
   7.3543E-02   7.5332E-02   1.1700E-04  0.0975
   7.5332E-02   7.7165E-02   1.3593E-04  0.0890
   7.7165E-02   7.9042E-02   1.2783E-04  0.0913
   7.9042E-02   8.0965E-02   1.2527E-04  0.0910
   8.0965E-02   8.2935E-02   1.1739E-04  0.0928
   8.2935E-02   8.4953E-02   1.0722E-04  0.0961
   8.4953E-02   8.7020E-02   1.2598E-04  0.0874
   8.7020E-02   8.9138E-02   1.1563E-04  0.0898
   8.9138E-02   9.1306E-02   1.1675E-04  0.0883
   9.1306E-02   9.3528E-02   9.8424E-05  0.0955
   9.3528E-02   9.5804E-02   1.1860E-04  0.0857
   9.5804E-02   9.8134E-02   9.7920E-05  0.0932
   9.8134E-02   1.0052E-01   1.0881E-04  0.0873
   1.0052E-01   1.0297E-01   8.9956E-05  0.0950
   1.0297E-01   1.0547E-01   8.6889E-05  0.0953
   1.0547E-01   1.0804E-01   8.9810E-05  0.0929
   1.0804E-01   1.1067E-01   9.0984E-05  0.0910
   1.1067E-01   1.1336E-01   7.4899E-05  0.0989
   1.1336E-01   1.1612E-01   8.2912E-05  0.0931
   1.1612E-01   1.1894E-01   8.3668E-05  0.0914
   1.1894E-01   1.2184E-01   8.4671E-05  0.0897
   1.2184E-01   1.2480E-01   6.5468E-05  0.1011
   1.2480E-01   1.2784E-01   7.8496E-05  0.0913
   1.2784E-01   1.3095E-01   7.1887E-05  0.0943
   1.3095E-01   1.3414E-01   7.3657E-05  0.0920
   1.3414E-01   1.3740E-01   7.4512E-05  0.0902
   1.3740E-01   1.4074E-01   7.0069E-05  0.0920
   1.4074E-01   1.4417E-01   6.3951E-05  0.0954
   1.4417E-01   1.4767E-01   6.7512E-05  0.0912
   1.4767E-01   1.5127E-01   6.3646E-05  0.0931
   1.5127E-01   1.5495E-01   7.3125E-05  0.0858
   1.5495E-01   1.5872E-01   7.0973E-05  0.0863
   1.5872E-01   1.6258E-01   5.4773E-05  0.0970
   1.6258E-01   1.6654E-01   5.9177E-05  0.0918
   1.6654E-01   1.7059E-01   5.7976E-05  0.0919
   1.7059E-01   1.7474E-01   5.3053E-05  0.0947
   1.7474E-01   1.7899E-01   6.1614E-05  0.0867
   1.7899E-01   1.8334E-01   5.0984E-05  0.0946
   1.8334E-01   1.8781E-01   5.1998E-05  0.0922
   1.8781E-01   1.9237E-01   4.4183E-05  0.0990
   1.9237E-01   1.9706E-01   5.0380E-05  0.0918
   1.9706E-01   2.0185E-01   4.7869E-05  0.0929
   2.0185E-01   2.0676E-01   4.5374E-05  0.0943
   2.0676E-01   2.1179E-01   6.0892E-05  0.0808
   2.1179E-01   2.1694E-01   5.3443E-05  0.0849
   2.1694E-01   2.2222E-01   6.3728E-05  0.0768
   2.2222E-01   2.2763E-01   5.8653E-05  0.0793
   2.2763E-01   2.3317E-01   6.1833E-05  0.0761
   2.3317E-01   2.3884E-01   6.1418E-05  0.0754
   2.3884E-01   2.4465E-01   6.0657E-05  0.0750
   2.4465E-01   2.5061E-01   7.0066E-05  0.0691
   2.5061E-01   2.5670E-01   6.7317E-05  0.0696
   2.5670E-01   2.6295E-01   8.0740E-05  0.0627
   2.6295E-01   2.6935E-01   7.3808E-05  0.0648
   2.6935E-01   2.7590E-01   7.9619E-05  0.0617
   2.7590E-01   2.8261E-01   8.1540E-05  0.0600
   2.8261E-01   2.8949E-01   7.7462E-05  0.0610
   2.8949E-01   2.9653E-01   9.1011E-05  0.0557
   2.9653E-01   3.0375E-01   9.9981E-05  0.0524
   3.0375E-01   3.1114E-01   9.0887E-05  0.0543
   3.1114E-01   3.1871E-01   8.5921E-05  0.0552
   3.1871E-01   3.2646E-01   9.7260E-05  0.0513
   3.2646E-01   3.3441E-01   9.4284E-05  0.0514
   3.3441E-01   3.4254E-01   1.0291E-04  0.0487
   3.4254E-01   3.5088E-01   1.0841E-04  0.0468
   3.5088E-01   3.5941E-01   1.0244E-04  0.0475
   3.5941E-01   3.6816E-01   1.2099E-04  0.0432
   3.6816E-01   3.7712E-01   1.0652E-04  0.0455
   3.7712E-01   3.8629E-01   1.2015E-04  0.0423
   3.8629E-01   3.9569E-01   1.0811E-04  0.0440
   3.9569E-01   4.0532E-01   1.1611E-04  0.0420
   4.0532E-01   4.1518E-01   1.2423E-04  0.0403
   4.1518E-01   4.2528E-01   1.2416E-04  0.0398
   4.2528E-01   4.3563E-01   1.2344E-04  0.0392
   4.3563E-01   4.4623E-01   1.2957E-04  0.0380
   4.4623E-01   4.5708E-01   1.2165E-04  0.0387
   4.5708E-01   4.6821E-01   1.3261E-04  0.0366
   4.6821E-01   4.7960E-01   1.3754E-04  0.0355
   4.7960E-01   4.9127E-01   1.3357E-04  0.0356
   4.9127E-01   5.0322E-01   1.3663E-04  0.0348
   5.0322E-01   5.1546E-01   1.3172E-04  0.0350
   5.1546E-01   5.2800E-01   1.3402E-04  0.0343
   5.2800E-01   5.4085E-01   1.3945E-04  0.0332
   5.4085E-01   5.5401E-01   1.5154E-04  0.0315
   5.5401E-01   5.6749E-01   1.4551E-04  0.0318
   5.6749E-01   5.8130E-01   1.4977E-04  0.0309
   5.8130E-01   5.9544E-01   1.4150E-04  0.0314
   5.9544E-01   6.0993E-01   1.4680E-04  0.0304
   6.0993E-01   6.2477E-01   1.4626E-04  0.0302
   6.2477E-01   6.3997E-01   1.4286E-04  0.0301
   6.3997E-01   6.5554E-01   1.5150E-04  0.0289
   6.5554E-01   6.7149E-01   1.4558E-04  0.0291
   6.7149E-01   6.8783E-01   1.5370E-04  0.0280
   6.8783E-01   7.0456E-01   1.4630E-04  0.0284
   7.0456E-01   7.2171E-01   1.4531E-04  0.0282
   7.2171E-01   7.3927E-01   1.5269E-04  0.0271
   7.3927E-01   7.5725E-01   1.4930E-04  0.0271
   7.5725E-01   7.7568E-01   1.4835E-04  0.0268
   7.7568E-01   7.9455E-01   1.4662E-04  0.0267
   7.9455E-01   8.1388E-01   1.4919E-04  0.0262
   8.1388E-01   8.3368E-01   1.4289E-04  0.0264
   8.3368E-01   8.5397E-01   1.3833E-04  0.0265
   8.5397E-01   8.7475E-01   1.4533E-04  0.0255
   8.7475E-01   8.9603E-01   1.3899E-04  0.0258
   8.9603E-01   9.1783E-01   1.4683E-04  0.0248
   9.1783E-01   9.4016E-01   1.3928E-04  0.0252
   9.4016E-01   9.6304E-01   1.4205E-04  0.0246
   9.6304E-01   9.8647E-01   1.3395E-04  0.0251
   9.8647E-01   1.0105E+00   1.2839E-04  0.0253
   1.0105E+00   1.0351E+00   1.2690E-04  0.0251
   1.0351E+00   1.0602E+00   1.1944E-04  0.0256
   1.0602E+00   1.0860E+00   1.2603E-04  0.0246
   1.0860E+00   1.1125E+00   1.1761E-04  0.0251
   1.1125E+00   1.1395E+00   1.1509E-04  0.0251
   1.1395E+00   1.1673E+00   1.1649E-04  0.0247
   1.1673E+00   1.1957E+00   1.1453E-04  0.0246
   1.1957E+00   1.2247E+00   1.0973E-04  0.0248
   1.2247E+00   1.2545E+00   1.0541E-04  0.0250
   1.2545E+00   1.2851E+00   1.0201E-04  0.0251
   1.2851E+00   1.3163E+00   9.8637E-05  0.0253
   1.3163E+00   1.3484E+00   9.7173E-05  0.0251
   1.3484E+00   1.3812E+00   9.3680E-05  0.0253
   1.3812E+00   1.4148E+00   9.3824E-05  0.0250
   1.4148E+00   1.4492E+00   9.3649E-05  0.0247
   1.4492E+00   1.4845E+00   9.3629E-05  0.0244
   1.4845E+00   1.5206E+00   8.4643E-05  0.0253
   1.5206E+00   1.5576E+00   8.4758E-05  0.0250
   1.5576E+00   1.5955E+00   8.2181E-05  0.0251
   1.5955E+00   1.6343E+00   7.8619E-05  0.0253
   1.6343E+00   1.6741E+00   7.2750E-05  0.0261
   1.6741E+00   1.7148E+00   7.5906E-05  0.0252
   1.7148E+00   1.7565E+00   7.1132E-05  0.0257
   1.7565E+00   1.7992E+00   6.9451E-05  0.0257
   1.7992E+00   1.8430E+00   7.1306E-05  0.0251
   1.8430E+00   1.8879E+00   6.6289E-05  0.0257
   1.8879E+00   1.9338E+00   6.5415E-05  0.0256
   1.9338E+00   1.9808E+00   6.0392E-05  0.0263
   1.9808E+00   2.0290E+00   6.2844E-05  0.0255
   2.0290E+00   2.0784E+00   5.8990E-05  0.0259
   2.0784E+00   2.1290E+00   5.3490E-05  0.0269
   2.1290E+00   2.1808E+00   5.3782E-05  0.0265
   2.1808E+00   2.2338E+00   5.3471E-05  0.0263
   2.2338E+00   2.2882E+00   5.0828E-05  0.0266
   2.2882E+00   2.3439E+00   4.8878E-05  0.0268
   2.3439E+00   2.4009E+00   4.7764E-05  0.0268
   2.4009E+00   2.4593E+00   4.9143E-05  0.0261
   2.4593E+00   2.5191E+00   4.7770E-05  0.0262
   2.5191E+00   2.5804E+00   4.7083E-05  0.0260
   2.5804E+00   2.6432E+00   4.3877E-05  0.0267
   2.6432E+00   2.7075E+00   4.3921E-05  0.0263
   2.7075E+00   2.7734E+00   4.0633E-05  0.0270
   2.7734E+00   2.8409E+00   4.0934E-05  0.0267
   2.8409E+00   2.9100E+00   3.9700E-05  0.0267
   2.9100E+00   2.9808E+00   3.7120E-05  0.0273
   2.9808E+00   3.0533E+00   3.6721E-05  0.0271
   3.0533E+00   3.1276E+00   3.5918E-05  0.0271
   3.1276E+00   3.2037E+00   3.6536E-05  0.0266
   3.2037E+00   3.2817E+00   3.4959E-05  0.0268
   3.2817E+00   3.3615E+00   3.4275E-05  0.0268
   3.3615E+00   3.4433E+00   3.2938E-05  0.0269
   3.4433E+00   3.5271E+00   3.2689E-05  0.0268
   3.5271E+00   3.6129E+00   3.3442E-05  0.0262
   3.6129E+00   3.7008E+00   3.1264E-05  0.0267
   3.7008E+00   3.7908E+00   3.0523E-05  0.0267
   3.7908E+00   3.8831E+00   3.1212E-05  0.0261
   3.8831E+00   3.9776E+00   2.9486E-05  0.0265
   3.9776E+00   4.0743E+00   3.0028E-05  0.0260
   4.0743E+00   4.1735E+00   2.9070E-05  0.0261
   4.1735E+00   4.2750E+00   2.7800E-05  0.0264
   4.2750E+00   4.3790E+00   2.8132E-05  0.0259
   4.3790E+00   4.4856E+00   2.7498E-05  0.0259
   4.4856E+00   4.5947E+00   2.6615E-05  0.0260
   4.5947E+00   4.7065E+00   2.7439E-05  0.0253
   4.7065E+00   4.8210E+00   2.7678E-05  0.0250
   4.8210E+00   4.9383E+00   2.4407E-05  0.0263
   4.9383E+00   5.0585E+00   2.4588E-05  0.0259
   5.0585E+00   5.1815E+00   2.3198E-05  0.0263
   5.1815E+00   5.3076E+00   2.3218E-05  0.0260
   5.3076E+00   5.4368E+00   2.1760E-05  0.0265
   5.4368E+00   5.5690E+00   2.0999E-05  0.0267
   5.5690E+00   5.7045E+00   1.9912E-05  0.0271
   5.7045E+00   5.8433E+00   1.9851E-05  0.0267
   5.8433E+00   5.9855E+00   1.7730E-05  0.0280
   5.9855E+00   6.1311E+00   1.6665E-05  0.0286
   6.1311E+00   6.2803E+00   1.7938E-05  0.0272
   6.2803E+00   6.4331E+00   1.6701E-05  0.0279
   6.4331E+00   6.5896E+00   1.5459E-05  0.0286
   6.5896E+00   6.7500E+00   1.5338E-05  0.0284
   6.7500E+00   6.9142E+00   1.3964E-05  0.0294
   6.9142E+00   7.0824E+00   1.2863E-05  0.0303
   7.0824E+00   7.2548E+00   1.2938E-05  0.0299
   7.2548E+00   7.4313E+00   1.2297E-05  0.0302
   7.4313E+00   7.6121E+00   1.1339E-05  0.0312
   7.6121E+00   7.7973E+00   1.0667E-05  0.0317
   7.7973E+00   7.9870E+00   1.0583E-05  0.0315
   7.9870E+00   8.1813E+00   9.3008E-06  0.0332
   8.1813E+00   8.3804E+00   9.4396E-06  0.0326
   8.3804E+00   8.5843E+00   9.0955E-06  0.0328
   8.5843E+00   8.7931E+00   7.8617E-06  0.0348
   8.7931E+00   9.0071E+00   7.6288E-06  0.0350
   9.0071E+00   9.2262E+00   7.5764E-06  0.0347
   9.2262E+00   9.4507E+00   7.1683E-06  0.0352
   9.4507E+00   9.6807E+00   6.1802E-06  0.0375
   9.6807E+00   9.9162E+00   5.9550E-06  0.0377
   9.9162E+00   1.0157E+01   5.7410E-06  0.0380
   1.0157E+01   1.0405E+01   4.9935E-06  0.0402
   1.0405E+01   1.0658E+01   4.7802E-06  0.0406
   1.0658E+01   1.0917E+01   4.2826E-06  0.0424
   1.0917E+01   1.1183E+01   4.1227E-06  0.0427
   1.1183E+01   1.1455E+01   3.8671E-06  0.0436
   1.1455E+01   1.1733E+01   3.3746E-06  0.0461
   1.1733E+01   1.2019E+01   3.3786E-06  0.0455
   1.2019E+01   1.2311E+01   3.4008E-06  0.0448
   1.2311E+01   1.2611E+01   2.5808E-06  0.0508
   1.2611E+01   1.2918E+01   2.4117E-06  0.0520
   1.2918E+01   1.3232E+01   2.3672E-06  0.0518
   1.3232E+01   1.3554E+01   2.0003E-06  0.0557
   1.3554E+01   1.3884E+01   1.9302E-06  0.0560
   1.3884E+01   1.4222E+01   1.8192E-06  0.0570
   1.4222E+01   1.4568E+01   1.6184E-06  0.0598
   1.4568E+01   1.4922E+01   1.3881E-06  0.0638
   1.4922E+01   1.5285E+01   1.1954E-06  0.0679
   1.5285E+01   1.5657E+01   1.0433E-06  0.0718
   1.5657E+01   1.6038E+01   1.0605E-06  0.0704
   1.6038E+01   1.6428E+01   8.8156E-07  0.0762
   1.6428E+01   1.6828E+01   8.4561E-07  0.0769
   1.6828E+01   1.7237E+01   6.7410E-07  0.0851
   1.7237E+01   1.7657E+01   6.2470E-07  0.0874
   1.7657E+01   1.8086E+01   5.9124E-07  0.0887
   1.8086E+01   1.8526E+01   4.8176E-07  0.0971
   1.8526E+01   1.8977E+01   4.4369E-07  0.1000
   1.8977E+01   1.9439E+01   3.1187E-07  0.1179
   1.9439E+01   1.9912E+01   2.7063E-07  0.1250
   1.9912E+01   2.0396E+01   2.6008E-07  0.1260
   2.0396E+01   2.0893E+01   2.1763E-07  0.1361
   2.0893E+01   2.1401E+01   2.2033E-07  0.1336
   2.1401E+01   2.1922E+01   1.3827E-07  0.1667
   2.1922E+01   2.2455E+01   1.4249E-07  0.1622
   2.2455E+01   2.3001E+01   1.2446E-07  0.1715
   2.3001E+01   2.3561E+01   9.6490E-08  0.1925
   2.3561E+01   2.4134E+01   6.6288E-08  0.2294
   2.4134E+01   2.4721E+01   6.1307E-08  0.2357
   2.4721E+01   2.5323E+01   3.9901E-08  0.2887
   2.5323E+01   2.5939E+01   3.5707E-08  0.3015
   2.5939E+01   2.6570E+01   4.1197E-08  0.2774
   2.6570E+01   2.7217E+01   9.2811E-09  0.5774
   2.7217E+01   2.7879E+01   3.0202E-08  0.3162
   2.7879E+01   2.8557E+01   8.8454E-09  0.5774
   2.8557E+01   2.9252E+01   1.4392E-08  0.4472
   2.9252E+01   2.9964E+01   5.6202E-09  0.7071
   2.9964E+01   3.0693E+01   8.2300E-09  0.5774
   3.0693E+01   3.1440E+01   2.6782E-09  1.0000
   3.1440E+01   3.2205E+01   7.8437E-09  0.5774
   3.2205E+01   3.2988E+01   5.1049E-09  0.7071
   3.2988E+01   3.3791E+01   0.0000E+00  0.0000
   3.3791E+01   3.4613E+01   0.0000E+00  0.0000
   3.4613E+01   3.5455E+01   0.0000E+00  0.0000
   3.5455E+01   3.6318E+01   0.0000E+00  0.0000
   3.6318E+01   3.7201E+01   0.0000E+00  0.0000
   3.7201E+01   3.8106E+01   0.0000E+00  0.0000
   3.8106E+01   3.9034E+01   0.0000E+00  0.0000
   3.9034E+01   3.9983E+01   0.0000E+00  0.0000
   3.9983E+01   4.0956E+01   0.0000E+00  0.0000
   4.0956E+01   4.1953E+01   0.0000E+00  0.0000
   4.1953E+01   4.2973E+01   0.0000E+00  0.0000
   4.2973E+01   4.4019E+01   0.0000E+00  0.0000
   4.4019E+01   4.5090E+01   0.0000E+00  0.0000
   4.5090E+01   4.6187E+01   0.0000E+00  0.0000
   4.6187E+01   4.7311E+01   0.0000E+00  0.0000
   4.7311E+01   4.8462E+01   0.0000E+00  0.0000
   4.8462E+01   4.9641E+01   0.0000E+00  0.0000
   4.9641E+01   5.0849E+01   0.0000E+00  0.0000
   5.0849E+01   5.2086E+01   0.0000E+00  0.0000
   5.2086E+01   5.3353E+01   0.0000E+00  0.0000
   5.3353E+01   5.4651E+01   0.0000E+00  0.0000
   5.4651E+01   5.5981E+01   0.0000E+00  0.0000
   5.5981E+01   5.7343E+01   0.0000E+00  0.0000
   5.7343E+01   5.8738E+01   0.0000E+00  0.0000
   5.8738E+01   6.0168E+01   0.0000E+00  0.0000
   6.0168E+01   6.1632E+01   0.0000E+00  0.0000
   6.1632E+01   6.3131E+01   0.0000E+00  0.0000
   6.3131E+01   6.4667E+01   0.0000E+00  0.0000
   6.4667E+01   6.6240E+01   0.0000E+00  0.0000
   6.6240E+01   6.7852E+01   0.0000E+00  0.0000
   6.7852E+01   6.9503E+01   0.0000E+00  0.0000
   6.9503E+01   7.1194E+01   0.0000E+00  0.0000
   7.1194E+01   7.2926E+01   0.0000E+00  0.0000
   7.2926E+01   7.4701E+01   0.0000E+00  0.0000
   7.4701E+01   7.6518E+01   0.0000E+00  0.0000
   7.6518E+01   7.8380E+01   0.0000E+00  0.0000
   7.8380E+01   8.0287E+01   0.0000E+00  0.0000
   8.0287E+01   8.2240E+01   0.0000E+00  0.0000
   8.2240E+01   8.4241E+01   0.0000E+00  0.0000
   8.4241E+01   8.6291E+01   0.0000E+00  0.0000
   8.6291E+01   8.8391E+01   0.0000E+00  0.0000
   8.8391E+01   9.0541E+01   0.0000E+00  0.0000
   9.0541E+01   9.2744E+01   0.0000E+00  0.0000
   9.2744E+01   9.5001E+01   0.0000E+00  0.0000
   9.5001E+01   9.7312E+01   0.0000E+00  0.0000
   9.7312E+01   9.9680E+01   0.0000E+00  0.0000
   9.9680E+01   1.0211E+02   0.0000E+00  0.0000
   1.0211E+02   1.0459E+02   0.0000E+00  0.0000
   1.0459E+02   1.0713E+02   0.0000E+00  0.0000
   1.0713E+02   1.0974E+02   0.0000E+00  0.0000
   1.0974E+02   1.1241E+02   0.0000E+00  0.0000
   1.1241E+02   1.1515E+02   0.0000E+00  0.0000
   1.1515E+02   1.1795E+02   0.0000E+00  0.0000
   1.1795E+02   1.2082E+02   0.0000E+00  0.0000
   1.2082E+02   1.2376E+02   0.0000E+00  0.0000
   1.2376E+02   1.2677E+02   0.0000E+00  0.0000
   1.2677E+02   1.2985E+02   0.0000E+00  0.0000
   1.2985E+02   1.3301E+02   0.0000E+00  0.0000
   1.3301E+02   1.3625E+02   0.0000E+00  0.0000
   1.3625E+02   1.3956E+02   0.0000E+00  0.0000
   1.3956E+02   1.4296E+02   0.0000E+00  0.0000
   1.4296E+02   1.4644E+02   0.0000E+00  0.0000
   1.4644E+02   1.5000E+02   0.0000E+00  0.0000

#   sum over                 2.7223E-06
'no. =    1   reg = 125 - 225'
msuc: {\huge [t-cross] in region mesh}
msdr: {\it plotted by \ANGEL \version}
msdl: {\it calculated by \PHITS  3.26}
wt: s(0.7)
\vspace{-3}
  region surface crossing
  area  &=&   1.0000E+00 [cm^2]
e:
 
# Information for Restart Calculation
# This calculation was newly started
# istdev =  2 # 1:Batch variance, 2:History variance
# resc2  = 5.00000000000000000E+08 # Total source weight or Total source weight / maxcas
# resc3  = 5.00000000000000000E+08 # Total history number or Total batch number
# maxcas =   500000000 # History / Batch, only used for istdev=1
# bitrseed = 1101101111010011011000101101110001100110110010110001010100010001 # bit data of rseed
