[ T-Cross ]
    title = [t-cross] in region mesh
     mesh =  reg            # mesh type is region-wise
      reg =    1            # number of crossing regions
      non     r-from    r-to       area
      1       126       226        1.000000    
   e-type =    3            # e-mesh is log given by emin, emax and ne
     emin =  1.0000000E-02  # minimum value of e-mesh points
     emax =   150.0000      # maximum value of e-mesh points
#    edel =  2.4039514E-02  # mesh width of e-mesh points
       ne =    400          # number of e-mesh points
#    data = ( e(i), i = 1, ne + 1 )
#           1.00000E-02  1.02433E-02  1.04925E-02  1.07478E-02  1.10093E-02
#           1.12772E-02  1.15516E-02  1.18326E-02  1.21205E-02  1.24154E-02
#           1.27175E-02  1.30269E-02  1.33439E-02  1.36686E-02  1.40011E-02
#           1.43418E-02  1.46907E-02  1.50482E-02  1.54143E-02  1.57894E-02
#           1.61735E-02  1.65670E-02  1.69701E-02  1.73830E-02  1.78060E-02
#           1.82392E-02  1.86830E-02  1.91375E-02  1.96032E-02  2.00801E-02
#           2.05687E-02  2.10692E-02  2.15818E-02  2.21069E-02  2.26448E-02
#           2.31957E-02  2.37601E-02  2.43382E-02  2.49304E-02  2.55369E-02
#           2.61583E-02  2.67947E-02  2.74467E-02  2.81145E-02  2.87985E-02
#           2.94992E-02  3.02169E-02  3.09521E-02  3.17052E-02  3.24766E-02
#           3.32668E-02  3.40762E-02  3.49053E-02  3.57546E-02  3.66246E-02
#           3.75157E-02  3.84284E-02  3.93634E-02  4.03212E-02  4.13022E-02
#           4.23071E-02  4.33365E-02  4.43909E-02  4.54710E-02  4.65773E-02
#           4.77106E-02  4.88714E-02  5.00605E-02  5.12785E-02  5.25262E-02
#           5.38042E-02  5.51133E-02  5.64542E-02  5.78278E-02  5.92348E-02
#           6.06760E-02  6.21523E-02  6.36645E-02  6.52135E-02  6.68002E-02
#           6.84255E-02  7.00904E-02  7.17957E-02  7.35426E-02  7.53319E-02
#           7.71648E-02  7.90423E-02  8.09655E-02  8.29354E-02  8.49533E-02
#           8.70203E-02  8.91376E-02  9.13064E-02  9.35279E-02  9.58035E-02
#           9.81345E-02  1.00522E-01  1.02968E-01  1.05473E-01  1.08040E-01
#           1.10668E-01  1.13361E-01  1.16119E-01  1.18944E-01  1.21838E-01
#           1.24803E-01  1.27839E-01  1.30950E-01  1.34136E-01  1.37399E-01
#           1.40742E-01  1.44167E-01  1.47675E-01  1.51268E-01  1.54948E-01
#           1.58718E-01  1.62580E-01  1.66535E-01  1.70587E-01  1.74738E-01
#           1.78989E-01  1.83344E-01  1.87805E-01  1.92375E-01  1.97055E-01
#           2.01850E-01  2.06761E-01  2.11792E-01  2.16945E-01  2.22223E-01
#           2.27630E-01  2.33169E-01  2.38842E-01  2.44653E-01  2.50605E-01
#           2.56703E-01  2.62949E-01  2.69346E-01  2.75900E-01  2.82613E-01
#           2.89489E-01  2.96532E-01  3.03747E-01  3.11138E-01  3.18708E-01
#           3.26462E-01  3.34405E-01  3.42542E-01  3.50876E-01  3.59413E-01
#           3.68158E-01  3.77116E-01  3.86291E-01  3.95690E-01  4.05317E-01
#           4.15179E-01  4.25281E-01  4.35628E-01  4.46227E-01  4.57084E-01
#           4.68205E-01  4.79597E-01  4.91266E-01  5.03219E-01  5.15463E-01
#           5.28005E-01  5.40851E-01  5.54011E-01  5.67490E-01  5.81298E-01
#           5.95441E-01  6.09929E-01  6.24769E-01  6.39970E-01  6.55541E-01
#           6.71491E-01  6.87828E-01  7.04564E-01  7.21706E-01  7.39266E-01
#           7.57253E-01  7.75678E-01  7.94551E-01  8.13883E-01  8.33685E-01
#           8.53969E-01  8.74747E-01  8.96030E-01  9.17831E-01  9.40163E-01
#           9.63038E-01  9.86469E-01  1.01047E+00  1.03506E+00  1.06024E+00
#           1.08604E+00  1.11246E+00  1.13953E+00  1.16725E+00  1.19565E+00
#           1.22474E+00  1.25454E+00  1.28507E+00  1.31633E+00  1.34836E+00
#           1.38117E+00  1.41477E+00  1.44920E+00  1.48446E+00  1.52057E+00
#           1.55757E+00  1.59547E+00  1.63429E+00  1.67405E+00  1.71478E+00
#           1.75650E+00  1.79924E+00  1.84302E+00  1.88786E+00  1.93379E+00
#           1.98084E+00  2.02904E+00  2.07841E+00  2.12898E+00  2.18078E+00
#           2.23384E+00  2.28819E+00  2.34386E+00  2.40089E+00  2.45930E+00
#           2.51914E+00  2.58043E+00  2.64322E+00  2.70753E+00  2.77341E+00
#           2.84088E+00  2.91001E+00  2.98081E+00  3.05333E+00  3.12762E+00
#           3.20372E+00  3.28167E+00  3.36152E+00  3.44330E+00  3.52708E+00
#           3.61290E+00  3.70080E+00  3.79085E+00  3.88308E+00  3.97756E+00
#           4.07434E+00  4.17347E+00  4.27501E+00  4.37903E+00  4.48557E+00
#           4.59471E+00  4.70650E+00  4.82102E+00  4.93832E+00  5.05847E+00
#           5.18155E+00  5.30762E+00  5.43676E+00  5.56904E+00  5.70453E+00
#           5.84333E+00  5.98550E+00  6.13114E+00  6.28031E+00  6.43312E+00
#           6.58964E+00  6.74997E+00  6.91420E+00  7.08243E+00  7.25475E+00
#           7.43126E+00  7.61207E+00  7.79728E+00  7.98700E+00  8.18133E+00
#           8.38038E+00  8.58428E+00  8.79315E+00  9.00709E+00  9.22624E+00
#           9.45072E+00  9.68067E+00  9.91620E+00  1.01575E+01  1.04046E+01
#           1.06578E+01  1.09171E+01  1.11827E+01  1.14548E+01  1.17335E+01
#           1.20190E+01  1.23114E+01  1.26109E+01  1.29178E+01  1.32321E+01
#           1.35540E+01  1.38838E+01  1.42216E+01  1.45676E+01  1.49221E+01
#           1.52851E+01  1.56570E+01  1.60380E+01  1.64282E+01  1.68279E+01
#           1.72374E+01  1.76568E+01  1.80864E+01  1.85264E+01  1.89772E+01
#           1.94389E+01  1.99119E+01  2.03963E+01  2.08926E+01  2.14009E+01
#           2.19216E+01  2.24550E+01  2.30014E+01  2.35610E+01  2.41343E+01
#           2.47215E+01  2.53230E+01  2.59391E+01  2.65702E+01  2.72167E+01
#           2.78789E+01  2.85572E+01  2.92520E+01  2.99637E+01  3.06928E+01
#           3.14396E+01  3.22045E+01  3.29881E+01  3.37907E+01  3.46128E+01
#           3.54550E+01  3.63177E+01  3.72013E+01  3.81064E+01  3.90336E+01
#           3.99833E+01  4.09561E+01  4.19526E+01  4.29734E+01  4.40189E+01
#           4.50900E+01  4.61870E+01  4.73108E+01  4.84619E+01  4.96410E+01
#           5.08488E+01  5.20860E+01  5.33533E+01  5.46514E+01  5.59812E+01
#           5.73432E+01  5.87384E+01  6.01676E+01  6.16315E+01  6.31311E+01
#           6.46671E+01  6.62405E+01  6.78522E+01  6.95031E+01  7.11941E+01
#           7.29263E+01  7.47007E+01  7.65182E+01  7.83800E+01  8.02870E+01
#           8.22405E+01  8.42414E+01  8.62911E+01  8.83906E+01  9.05412E+01
#           9.27442E+01  9.50007E+01  9.73122E+01  9.96799E+01  1.02105E+02
#           1.04589E+02  1.07134E+02  1.09741E+02  1.12411E+02  1.15146E+02
#           1.17948E+02  1.20817E+02  1.23757E+02  1.26768E+02  1.29852E+02
#           1.33012E+02  1.36248E+02  1.39563E+02  1.42959E+02  1.46437E+02
#           1.50000E+02
     unit =    2            # unit is [1/cm^2/(MeV/n)/source]
     axis =  eng            # axis of output
     file = detector-27.out  # file name of output for the above axis
   output = f-curr          # surface crossing forward current spectrum
     part =  neutron  
# kf/name :  2112     
#    used :        main (  %)        temp (  %)       total (  %)
#  memory :         414 (  0)           0 (  0)         414 (  0)

#------------------------------------------------------------------------------
#newpage:
#   no. =    1   reg = 126 - 226

x: Energy [MeV/n]
y:  F-Curr [1/cm^2/(MeV/n)/source]         
p: xlog ylog afac(0.8) form(0.9)
h: n            x            y(neutron ),hh0l   n 
#  e-lower      e-upper      neutron     r.err 
   1.0000E-02   1.0243E-02   1.9477E-04  0.2037
   1.0243E-02   1.0493E-02   2.9948E-04  0.1631
   1.0493E-02   1.0748E-02   2.9403E-04  0.1623
   1.0748E-02   1.1009E-02   1.7208E-04  0.2096
   1.1009E-02   1.1277E-02   2.7395E-04  0.1642
   1.1277E-02   1.1552E-02   3.0614E-04  0.1543
   1.1552E-02   1.1833E-02   2.1348E-04  0.1826
   1.1833E-02   1.2121E-02   1.9799E-04  0.1865
   1.2121E-02   1.2415E-02   1.9797E-04  0.1846
   1.2415E-02   1.2718E-02   2.2277E-04  0.1714
   1.2718E-02   1.3027E-02   2.1976E-04  0.1715
   1.3027E-02   1.3344E-02   1.9561E-04  0.1796
   1.3344E-02   1.3669E-02   1.6632E-04  0.1925
   1.3669E-02   1.4001E-02   1.8906E-04  0.1774
   1.4001E-02   1.4342E-02   2.3642E-04  0.1572
   1.4342E-02   1.4691E-02   1.5089E-04  0.1939
   1.4691E-02   1.5048E-02   1.6227E-04  0.1857
   1.5048E-02   1.5414E-02   1.7694E-04  0.1749
   1.5414E-02   1.5789E-02   1.8089E-04  0.1702
   1.5789E-02   1.6174E-02   1.9921E-04  0.1612
   1.6174E-02   1.6567E-02   1.6514E-04  0.1743
   1.6567E-02   1.6970E-02   1.7500E-04  0.1679
   1.6970E-02   1.7383E-02   1.6103E-04  0.1716
   1.7383E-02   1.7806E-02   1.1257E-04  0.2024
   1.7806E-02   1.8239E-02   1.2324E-04  0.1921
   1.8239E-02   1.8683E-02   1.6224E-04  0.1667
   1.8683E-02   1.9138E-02   1.5904E-04  0.1660
   1.9138E-02   1.9603E-02   1.5176E-04  0.1676
   1.9603E-02   2.0080E-02   1.2160E-04  0.1857
   2.0080E-02   2.0569E-02   1.0643E-04  0.1961
   2.0569E-02   2.1069E-02   1.4404E-04  0.1651
   2.1069E-02   2.1582E-02   9.8028E-05  0.1991
   2.1582E-02   2.2107E-02   1.4267E-04  0.1626
   2.2107E-02   2.2645E-02   1.2031E-04  0.1730
   2.2645E-02   2.3196E-02   1.4764E-04  0.1560
   2.3196E-02   2.3760E-02   1.3186E-04  0.1636
   2.3760E-02   2.4338E-02   1.3146E-04  0.1622
   2.4338E-02   2.4930E-02   1.1055E-04  0.1736
   2.4930E-02   2.5537E-02   1.1870E-04  0.1655
   2.5537E-02   2.6158E-02   1.0956E-04  0.1698
   2.6158E-02   2.6795E-02   9.9509E-05  0.1766
   2.6795E-02   2.7447E-02   1.1842E-04  0.1600
   2.7447E-02   2.8114E-02   7.8447E-05  0.1948
   2.8114E-02   2.8799E-02   1.0895E-04  0.1634
   2.8799E-02   2.9499E-02   1.0915E-04  0.1613
   2.9499E-02   3.0217E-02   8.9926E-05  0.1755
   3.0217E-02   3.0952E-02   9.5101E-05  0.1677
   3.0952E-02   3.1705E-02   1.0357E-04  0.1601
   3.1705E-02   3.2477E-02   8.6396E-05  0.1725
   3.2477E-02   3.3267E-02   5.8572E-05  0.2073
   3.3267E-02   3.4076E-02   1.1777E-04  0.1441
   3.4076E-02   3.4905E-02   5.9100E-05  0.2010
   3.4905E-02   3.5755E-02   9.0100E-05  0.1613
   3.5755E-02   3.6625E-02   1.1534E-04  0.1410
   3.6625E-02   3.7516E-02   7.8908E-05  0.1683
   3.7516E-02   3.8428E-02   8.3604E-05  0.1616
   3.8428E-02   3.9363E-02   5.7754E-05  0.1925
   3.9363E-02   4.0321E-02   5.9164E-05  0.1870
   4.0321E-02   4.1302E-02   7.5477E-05  0.1629
   4.1302E-02   4.2307E-02   8.2467E-05  0.1547
   4.2307E-02   4.3337E-02   6.6391E-05  0.1707
   4.3337E-02   4.4391E-02   5.3465E-05  0.1878
   4.4391E-02   4.5471E-02   8.1907E-05  0.1501
   4.5471E-02   4.6577E-02   6.8950E-05  0.1617
   4.6577E-02   4.7711E-02   7.3221E-05  0.1546
   4.7711E-02   4.8871E-02   5.7945E-05  0.1715
   4.8871E-02   5.0061E-02   6.2233E-05  0.1644
   5.0061E-02   5.1279E-02   6.7766E-05  0.1553
   5.1279E-02   5.2526E-02   4.6488E-05  0.1857
   5.2526E-02   5.3804E-02   6.6737E-05  0.1522
   5.3804E-02   5.5113E-02   5.7548E-05  0.1618
   5.5113E-02   5.6454E-02   5.6676E-05  0.1612
   5.6454E-02   5.7828E-02   6.3488E-05  0.1506
   5.7828E-02   5.9235E-02   5.6531E-05  0.1577
   5.9235E-02   6.0676E-02   4.2303E-05  0.1800
   6.0676E-02   6.2152E-02   5.3058E-05  0.1595
   6.2152E-02   6.3665E-02   5.7395E-05  0.1513
   6.3665E-02   6.5214E-02   4.0357E-05  0.1769
   6.5214E-02   6.6800E-02   5.1764E-05  0.1545
   6.6800E-02   6.8426E-02   5.0665E-05  0.1556
   6.8426E-02   7.0090E-02   5.0779E-05  0.1535
   7.0090E-02   7.1796E-02   4.6325E-05  0.1586
   7.1796E-02   7.3543E-02   4.3507E-05  0.1622
   7.3543E-02   7.5332E-02   4.3889E-05  0.1592
   7.5332E-02   7.7165E-02   3.8470E-05  0.1680
   7.7165E-02   7.9042E-02   2.9827E-05  0.1890
   7.9042E-02   8.0965E-02   4.9333E-05  0.1447
   8.0965E-02   8.2935E-02   4.1756E-05  0.1557
   8.2935E-02   8.4953E-02   4.9061E-05  0.1418
   8.4953E-02   8.7020E-02   3.6967E-05  0.1614
   8.7020E-02   8.9138E-02   3.1172E-05  0.1741
   8.9138E-02   9.1306E-02   4.4206E-05  0.1434
   9.1306E-02   9.3528E-02   3.5111E-05  0.1601
   9.3528E-02   9.5804E-02   3.9916E-05  0.1479
   9.5804E-02   9.8134E-02   3.5175E-05  0.1550
   9.8134E-02   1.0052E-01   3.0566E-05  0.1646
   1.0052E-01   1.0297E-01   3.6266E-05  0.1497
   1.0297E-01   1.0547E-01   2.9720E-05  0.1635
   1.0547E-01   1.0804E-01   3.1341E-05  0.1574
   1.0804E-01   1.1067E-01   3.2278E-05  0.1529
   1.1067E-01   1.1336E-01   3.2310E-05  0.1512
   1.1336E-01   1.1612E-01   2.8454E-05  0.1593
   1.1612E-01   1.1894E-01   3.2655E-05  0.1471
   1.1894E-01   1.2184E-01   1.4620E-05  0.2167
   1.2184E-01   1.2480E-01   3.5757E-05  0.1374
   1.2480E-01   1.2784E-01   2.2539E-05  0.1705
   1.2784E-01   1.3095E-01   2.4547E-05  0.1615
   1.3095E-01   1.3414E-01   2.3709E-05  0.1618
   1.3414E-01   1.3740E-01   2.7363E-05  0.1482
   1.3740E-01   1.4074E-01   2.2136E-05  0.1644
   1.4074E-01   1.4417E-01   1.6341E-05  0.1870
   1.4417E-01   1.4767E-01   2.3222E-05  0.1559
   1.4767E-01   1.5127E-01   2.0723E-05  0.1635
   1.5127E-01   1.5495E-01   1.4945E-05  0.1866
   1.5495E-01   1.5872E-01   2.0271E-05  0.1601
   1.5872E-01   1.6258E-01   1.8739E-05  0.1645
   1.6258E-01   1.6654E-01   1.3577E-05  0.1888
   1.6654E-01   1.7059E-01   2.0944E-05  0.1529
   1.7059E-01   1.7474E-01   1.7477E-05  0.1656
   1.7474E-01   1.7899E-01   1.8912E-05  0.1574
   1.7899E-01   1.8334E-01   1.7877E-05  0.1590
   1.8334E-01   1.8781E-01   1.9598E-05  0.1505
   1.8781E-01   1.9237E-01   1.8595E-05  0.1527
   1.9237E-01   1.9706E-01   1.7430E-05  0.1554
   1.9706E-01   2.0185E-01   1.7547E-05  0.1527
   2.0185E-01   2.0676E-01   1.0687E-05  0.1945
   2.0676E-01   2.1179E-01   2.9006E-05  0.1166
   2.1179E-01   2.1694E-01   1.7077E-05  0.1508
   2.1694E-01   2.2222E-01   1.7909E-05  0.1452
   2.2222E-01   2.2763E-01   2.3030E-05  0.1260
   2.2763E-01   2.3317E-01   1.8407E-05  0.1392
   2.3317E-01   2.3884E-01   1.6569E-05  0.1459
   2.3884E-01   2.4465E-01   2.2221E-05  0.1240
   2.4465E-01   2.5061E-01   2.8957E-05  0.1072
   2.5061E-01   2.5670E-01   2.4186E-05  0.1161
   2.5670E-01   2.6295E-01   2.6392E-05  0.1099
   2.6295E-01   2.6935E-01   2.8060E-05  0.1053
   2.6935E-01   2.7590E-01   3.0103E-05  0.1004
   2.7590E-01   2.8261E-01   2.7982E-05  0.1028
   2.8261E-01   2.8949E-01   2.7892E-05  0.1018
   2.8949E-01   2.9653E-01   2.3404E-05  0.1095
   2.9653E-01   3.0375E-01   3.3443E-05  0.0909
   3.0375E-01   3.1114E-01   3.0352E-05  0.0938
   3.1114E-01   3.1871E-01   3.1914E-05  0.0905
   3.1871E-01   3.2646E-01   3.4183E-05  0.0865
   3.2646E-01   3.3441E-01   2.7765E-05  0.0951
   3.3441E-01   3.4254E-01   3.4849E-05  0.0834
   3.4254E-01   3.5088E-01   3.5193E-05  0.0823
   3.5088E-01   3.5941E-01   3.3333E-05  0.0832
   3.5941E-01   3.6816E-01   2.9099E-05  0.0880
   3.6816E-01   3.7712E-01   3.0554E-05  0.0851
   3.7712E-01   3.8629E-01   4.0330E-05  0.0731
   3.8629E-01   3.9569E-01   3.8438E-05  0.0740
   3.9569E-01   4.0532E-01   3.7414E-05  0.0742
   4.0532E-01   4.1518E-01   3.3247E-05  0.0779
   4.1518E-01   4.2528E-01   3.6377E-05  0.0733
   4.2528E-01   4.3563E-01   3.9101E-05  0.0699
   4.3563E-01   4.4623E-01   4.2759E-05  0.0661
   4.4623E-01   4.5708E-01   3.9768E-05  0.0674
   4.5708E-01   4.6821E-01   4.3997E-05  0.0634
   4.6821E-01   4.7960E-01   4.5437E-05  0.0618
   4.7960E-01   4.9127E-01   4.9132E-05  0.0586
   4.9127E-01   5.0322E-01   4.6445E-05  0.0597
   5.0322E-01   5.1546E-01   4.4828E-05  0.0599
   5.1546E-01   5.2800E-01   4.9669E-05  0.0564
   5.2800E-01   5.4085E-01   4.6129E-05  0.0578
   5.4085E-01   5.5401E-01   5.0224E-05  0.0547
   5.5401E-01   5.6749E-01   4.6697E-05  0.0559
   5.6749E-01   5.8130E-01   5.0723E-05  0.0533
   5.8130E-01   5.9544E-01   5.0228E-05  0.0527
   5.9544E-01   6.0993E-01   4.7920E-05  0.0532
   6.0993E-01   6.2477E-01   5.0753E-05  0.0512
   6.2477E-01   6.3997E-01   4.9809E-05  0.0511
   6.3997E-01   6.5554E-01   4.9555E-05  0.0505
   6.5554E-01   6.7149E-01   5.2976E-05  0.0484
   6.7149E-01   6.8783E-01   4.9221E-05  0.0495
   6.8783E-01   7.0456E-01   4.8182E-05  0.0495
   7.0456E-01   7.2171E-01   4.9942E-05  0.0480
   7.2171E-01   7.3927E-01   5.0645E-05  0.0472
   7.3927E-01   7.5725E-01   5.4140E-05  0.0450
   7.5725E-01   7.7568E-01   4.8610E-05  0.0469
   7.7568E-01   7.9455E-01   4.6292E-05  0.0475
   7.9455E-01   8.1388E-01   4.6802E-05  0.0466
   8.1388E-01   8.3368E-01   5.2336E-05  0.0437
   8.3368E-01   8.5397E-01   4.5982E-05  0.0459
   8.5397E-01   8.7475E-01   4.8156E-05  0.0444
   8.7475E-01   8.9603E-01   4.9713E-05  0.0431
   8.9603E-01   9.1783E-01   4.9154E-05  0.0428
   9.1783E-01   9.4016E-01   4.4616E-05  0.0445
   9.4016E-01   9.6304E-01   4.6551E-05  0.0430
   9.6304E-01   9.8647E-01   4.1896E-05  0.0448
   9.8647E-01   1.0105E+00   4.3000E-05  0.0437
   1.0105E+00   1.0351E+00   4.2910E-05  0.0432
   1.0351E+00   1.0602E+00   4.3874E-05  0.0422
   1.0602E+00   1.0860E+00   4.3168E-05  0.0420
   1.0860E+00   1.1125E+00   4.0857E-05  0.0427
   1.1125E+00   1.1395E+00   4.2043E-05  0.0417
   1.1395E+00   1.1673E+00   3.7900E-05  0.0433
   1.1673E+00   1.1957E+00   3.9811E-05  0.0417
   1.1957E+00   1.2247E+00   3.7772E-05  0.0423
   1.2247E+00   1.2545E+00   3.6044E-05  0.0429
   1.2545E+00   1.2851E+00   3.1780E-05  0.0450
   1.2851E+00   1.3163E+00   3.4829E-05  0.0426
   1.3163E+00   1.3484E+00   3.2631E-05  0.0434
   1.3484E+00   1.3812E+00   3.1351E-05  0.0437
   1.3812E+00   1.4148E+00   3.3309E-05  0.0420
   1.4148E+00   1.4492E+00   2.9824E-05  0.0438
   1.4492E+00   1.4845E+00   2.8112E-05  0.0445
   1.4845E+00   1.5206E+00   3.0129E-05  0.0425
   1.5206E+00   1.5576E+00   2.7395E-05  0.0440
   1.5576E+00   1.5955E+00   2.7362E-05  0.0434
   1.5955E+00   1.6343E+00   2.4919E-05  0.0450
   1.6343E+00   1.6741E+00   2.3803E-05  0.0455
   1.6741E+00   1.7148E+00   2.4124E-05  0.0446
   1.7148E+00   1.7565E+00   2.5851E-05  0.0427
   1.7565E+00   1.7992E+00   2.2779E-05  0.0449
   1.7992E+00   1.8430E+00   2.2563E-05  0.0446
   1.8430E+00   1.8879E+00   2.1820E-05  0.0448
   1.8879E+00   1.9338E+00   2.0574E-05  0.0455
   1.9338E+00   1.9808E+00   2.0410E-05  0.0452
   1.9808E+00   2.0290E+00   2.0579E-05  0.0445
   2.0290E+00   2.0784E+00   1.8742E-05  0.0460
   2.0784E+00   2.1290E+00   1.7858E-05  0.0466
   2.1290E+00   2.1808E+00   1.9029E-05  0.0446
   2.1808E+00   2.2338E+00   1.6996E-05  0.0466
   2.2338E+00   2.2882E+00   1.5912E-05  0.0475
   2.2882E+00   2.3439E+00   1.4438E-05  0.0493
   2.3439E+00   2.4009E+00   1.7907E-05  0.0438
   2.4009E+00   2.4593E+00   1.4974E-05  0.0472
   2.4593E+00   2.5191E+00   1.5049E-05  0.0466
   2.5191E+00   2.5804E+00   1.4438E-05  0.0470
   2.5804E+00   2.6432E+00   1.5636E-05  0.0447
   2.6432E+00   2.7075E+00   1.4889E-05  0.0452
   2.7075E+00   2.7734E+00   1.3492E-05  0.0469
   2.7734E+00   2.8409E+00   1.4186E-05  0.0452
   2.8409E+00   2.9100E+00   1.2817E-05  0.0470
   2.9100E+00   2.9808E+00   1.2566E-05  0.0469
   2.9808E+00   3.0533E+00   1.3068E-05  0.0454
   3.0533E+00   3.1276E+00   1.2417E-05  0.0460
   3.1276E+00   3.2037E+00   1.1010E-05  0.0483
   3.2037E+00   3.2817E+00   1.1458E-05  0.0469
   3.2817E+00   3.3615E+00   1.1666E-05  0.0459
   3.3615E+00   3.4433E+00   1.1277E-05  0.0460
   3.4433E+00   3.5271E+00   1.0716E-05  0.0466
   3.5271E+00   3.6129E+00   1.0482E-05  0.0465
   3.6129E+00   3.7008E+00   9.9709E-06  0.0472
   3.7008E+00   3.7908E+00   1.1081E-05  0.0444
   3.7908E+00   3.8831E+00   9.9602E-06  0.0462
   3.8831E+00   3.9776E+00   1.0019E-05  0.0456
   3.9776E+00   4.0743E+00   9.3068E-06  0.0467
   4.0743E+00   4.1735E+00   9.9669E-06  0.0447
   4.1735E+00   4.2750E+00   9.7921E-06  0.0445
   4.2750E+00   4.3790E+00   9.5192E-06  0.0446
   4.3790E+00   4.4856E+00   8.4412E-06  0.0467
   4.4856E+00   4.5947E+00   9.0976E-06  0.0445
   4.5947E+00   4.7065E+00   9.1575E-06  0.0439
   4.7065E+00   4.8210E+00   8.7863E-06  0.0443
   4.8210E+00   4.9383E+00   8.6816E-06  0.0440
   4.9383E+00   5.0585E+00   8.4369E-06  0.0442
   5.0585E+00   5.1815E+00   7.7392E-06  0.0455
   5.1815E+00   5.3076E+00   7.8937E-06  0.0446
   5.3076E+00   5.4368E+00   7.1394E-06  0.0463
   5.4368E+00   5.5690E+00   6.1532E-06  0.0493
   5.5690E+00   5.7045E+00   6.7968E-06  0.0462
   5.7045E+00   5.8433E+00   7.0796E-06  0.0448
   5.8433E+00   5.9855E+00   6.5476E-06  0.0462
   5.9855E+00   6.1311E+00   5.7636E-06  0.0486
   6.1311E+00   6.2803E+00   5.7793E-06  0.0480
   6.2803E+00   6.4331E+00   4.9523E-06  0.0512
   6.4331E+00   6.5896E+00   4.8262E-06  0.0512
   6.5896E+00   6.7500E+00   4.9462E-06  0.0500
   6.7500E+00   6.9142E+00   4.3941E-06  0.0525
   6.9142E+00   7.0824E+00   4.4739E-06  0.0514
   7.0824E+00   7.2548E+00   4.0438E-06  0.0534
   7.2548E+00   7.4313E+00   3.9814E-06  0.0532
   7.4313E+00   7.6121E+00   3.7215E-06  0.0544
   7.6121E+00   7.7973E+00   3.4864E-06  0.0555
   7.7973E+00   7.9870E+00   3.5689E-06  0.0543
   7.9870E+00   8.1813E+00   3.4367E-06  0.0546
   8.1813E+00   8.3804E+00   3.0895E-06  0.0569
   8.3804E+00   8.5843E+00   3.0440E-06  0.0567
   8.5843E+00   8.7931E+00   2.7574E-06  0.0589
   8.7931E+00   9.0071E+00   2.6748E-06  0.0590
   9.0071E+00   9.2262E+00   2.2750E-06  0.0632
   9.2262E+00   9.4507E+00   2.1512E-06  0.0643
   9.4507E+00   9.6807E+00   2.1356E-06  0.0638
   9.6807E+00   9.9162E+00   1.9358E-06  0.0661
   9.9162E+00   1.0157E+01   2.0105E-06  0.0642
   1.0157E+01   1.0405E+01   1.8589E-06  0.0659
   1.0405E+01   1.0658E+01   1.6670E-06  0.0688
   1.0658E+01   1.0917E+01   1.4269E-06  0.0735
   1.0917E+01   1.1183E+01   1.2594E-06  0.0773
   1.1183E+01   1.1455E+01   1.1781E-06  0.0789
   1.1455E+01   1.1733E+01   1.2271E-06  0.0765
   1.1733E+01   1.2019E+01   1.0859E-06  0.0803
   1.2019E+01   1.2311E+01   1.0874E-06  0.0793
   1.2311E+01   1.2611E+01   8.8801E-07  0.0867
   1.2611E+01   1.2918E+01   8.4084E-07  0.0880
   1.2918E+01   1.3232E+01   7.9542E-07  0.0894
   1.3232E+01   1.3554E+01   6.8955E-07  0.0949
   1.3554E+01   1.3884E+01   5.7008E-07  0.1031
   1.3884E+01   1.4222E+01   5.5654E-07  0.1031
   1.4222E+01   1.4568E+01   5.1442E-07  0.1060
   1.4568E+01   1.4922E+01   5.1913E-07  0.1043
   1.4922E+01   1.5285E+01   4.2565E-07  0.1136
   1.5285E+01   1.5657E+01   3.7645E-07  0.1195
   1.5657E+01   1.6038E+01   2.9925E-07  0.1325
   1.6038E+01   1.6428E+01   2.4602E-07  0.1443
   1.6428E+01   1.6828E+01   2.9521E-07  0.1302
   1.6828E+01   1.7237E+01   1.9539E-07  0.1581
   1.7237E+01   1.7657E+01   1.5737E-07  0.1741
   1.7657E+01   1.8086E+01   1.7225E-07  0.1644
   1.8086E+01   1.8526E+01   1.7271E-07  0.1622
   1.8526E+01   1.8977E+01   1.4198E-07  0.1768
   1.8977E+01   1.9439E+01   1.2561E-07  0.1857
   1.9439E+01   1.9912E+01   7.1887E-08  0.2425
   1.9912E+01   2.0396E+01   8.6692E-08  0.2182
   2.0396E+01   2.0893E+01   4.8362E-08  0.2887
   2.0893E+01   2.1401E+01   5.1148E-08  0.2774
   2.1401E+01   2.1922E+01   4.9933E-08  0.2774
   2.1922E+01   2.2455E+01   3.7497E-08  0.3162
   2.2455E+01   2.3001E+01   4.0267E-08  0.3015
   2.3001E+01   2.3561E+01   1.4295E-08  0.5000
   2.3561E+01   2.4134E+01   2.7911E-08  0.3536
   2.4134E+01   2.4721E+01   2.7248E-08  0.3536
   2.4721E+01   2.5323E+01   1.6625E-08  0.4472
   2.5323E+01   2.5939E+01   9.7382E-09  0.5774
   2.5939E+01   2.6570E+01   6.3380E-09  0.7071
   2.6570E+01   2.7217E+01   9.2811E-09  0.5774
   2.7217E+01   2.7879E+01   3.0202E-09  1.0000
   2.7879E+01   2.8557E+01   2.9485E-09  1.0000
   2.8557E+01   2.9252E+01   2.8784E-09  1.0000
   2.9252E+01   2.9964E+01   8.4302E-09  0.5774
   2.9964E+01   3.0693E+01   0.0000E+00  0.0000
   3.0693E+01   3.1440E+01   0.0000E+00  0.0000
   3.1440E+01   3.2205E+01   2.6146E-09  1.0000
   3.2205E+01   3.2988E+01   0.0000E+00  0.0000
   3.2988E+01   3.3791E+01   0.0000E+00  0.0000
   3.3791E+01   3.4613E+01   0.0000E+00  0.0000
   3.4613E+01   3.5455E+01   0.0000E+00  0.0000
   3.5455E+01   3.6318E+01   0.0000E+00  0.0000
   3.6318E+01   3.7201E+01   0.0000E+00  0.0000
   3.7201E+01   3.8106E+01   0.0000E+00  0.0000
   3.8106E+01   3.9034E+01   0.0000E+00  0.0000
   3.9034E+01   3.9983E+01   0.0000E+00  0.0000
   3.9983E+01   4.0956E+01   0.0000E+00  0.0000
   4.0956E+01   4.1953E+01   0.0000E+00  0.0000
   4.1953E+01   4.2973E+01   0.0000E+00  0.0000
   4.2973E+01   4.4019E+01   0.0000E+00  0.0000
   4.4019E+01   4.5090E+01   0.0000E+00  0.0000
   4.5090E+01   4.6187E+01   0.0000E+00  0.0000
   4.6187E+01   4.7311E+01   0.0000E+00  0.0000
   4.7311E+01   4.8462E+01   0.0000E+00  0.0000
   4.8462E+01   4.9641E+01   0.0000E+00  0.0000
   4.9641E+01   5.0849E+01   0.0000E+00  0.0000
   5.0849E+01   5.2086E+01   0.0000E+00  0.0000
   5.2086E+01   5.3353E+01   0.0000E+00  0.0000
   5.3353E+01   5.4651E+01   0.0000E+00  0.0000
   5.4651E+01   5.5981E+01   0.0000E+00  0.0000
   5.5981E+01   5.7343E+01   0.0000E+00  0.0000
   5.7343E+01   5.8738E+01   0.0000E+00  0.0000
   5.8738E+01   6.0168E+01   0.0000E+00  0.0000
   6.0168E+01   6.1632E+01   0.0000E+00  0.0000
   6.1632E+01   6.3131E+01   0.0000E+00  0.0000
   6.3131E+01   6.4667E+01   0.0000E+00  0.0000
   6.4667E+01   6.6240E+01   0.0000E+00  0.0000
   6.6240E+01   6.7852E+01   0.0000E+00  0.0000
   6.7852E+01   6.9503E+01   0.0000E+00  0.0000
   6.9503E+01   7.1194E+01   0.0000E+00  0.0000
   7.1194E+01   7.2926E+01   0.0000E+00  0.0000
   7.2926E+01   7.4701E+01   0.0000E+00  0.0000
   7.4701E+01   7.6518E+01   0.0000E+00  0.0000
   7.6518E+01   7.8380E+01   0.0000E+00  0.0000
   7.8380E+01   8.0287E+01   0.0000E+00  0.0000
   8.0287E+01   8.2240E+01   0.0000E+00  0.0000
   8.2240E+01   8.4241E+01   0.0000E+00  0.0000
   8.4241E+01   8.6291E+01   0.0000E+00  0.0000
   8.6291E+01   8.8391E+01   0.0000E+00  0.0000
   8.8391E+01   9.0541E+01   0.0000E+00  0.0000
   9.0541E+01   9.2744E+01   0.0000E+00  0.0000
   9.2744E+01   9.5001E+01   0.0000E+00  0.0000
   9.5001E+01   9.7312E+01   0.0000E+00  0.0000
   9.7312E+01   9.9680E+01   0.0000E+00  0.0000
   9.9680E+01   1.0211E+02   0.0000E+00  0.0000
   1.0211E+02   1.0459E+02   0.0000E+00  0.0000
   1.0459E+02   1.0713E+02   0.0000E+00  0.0000
   1.0713E+02   1.0974E+02   0.0000E+00  0.0000
   1.0974E+02   1.1241E+02   0.0000E+00  0.0000
   1.1241E+02   1.1515E+02   0.0000E+00  0.0000
   1.1515E+02   1.1795E+02   0.0000E+00  0.0000
   1.1795E+02   1.2082E+02   0.0000E+00  0.0000
   1.2082E+02   1.2376E+02   0.0000E+00  0.0000
   1.2376E+02   1.2677E+02   0.0000E+00  0.0000
   1.2677E+02   1.2985E+02   0.0000E+00  0.0000
   1.2985E+02   1.3301E+02   0.0000E+00  0.0000
   1.3301E+02   1.3625E+02   0.0000E+00  0.0000
   1.3625E+02   1.3956E+02   0.0000E+00  0.0000
   1.3956E+02   1.4296E+02   0.0000E+00  0.0000
   1.4296E+02   1.4644E+02   0.0000E+00  0.0000
   1.4644E+02   1.5000E+02   0.0000E+00  0.0000

#   sum over                 9.0571E-07
'no. =    1   reg = 126 - 226'
msuc: {\huge [t-cross] in region mesh}
msdr: {\it plotted by \ANGEL \version}
msdl: {\it calculated by \PHITS  3.26}
wt: s(0.7)
\vspace{-3}
  region surface crossing
  area  &=&   1.0000E+00 [cm^2]
e:
 
# Information for Restart Calculation
# This calculation was newly started
# istdev =  2 # 1:Batch variance, 2:History variance
# resc2  = 5.00000000000000000E+08 # Total source weight or Total source weight / maxcas
# resc3  = 5.00000000000000000E+08 # Total history number or Total batch number
# maxcas =   500000000 # History / Batch, only used for istdev=1
# bitrseed = 1101101111010011011000101101110001100110110010110001010100010001 # bit data of rseed
