0 <--- number of remaining batches 

-------------------------------------------------------------------------------
bat[      50] ncas =     5000000000.
 bitrseed = 1010100001101100001010110100011000011010110011110100001101011000
          cpu time =   1 h. 36 m. 12.92 s.

 date = 2022-04-26
 time = 06h 38m 42s

