[ T-Cross ]
    title = [t-cross] in region mesh
     mesh =  reg            # mesh type is region-wise
      reg =    1            # number of crossing regions
      non     r-from    r-to       area
      1       113       213        1.000000    
   e-type =    3            # e-mesh is log given by emin, emax and ne
     emin =  1.0000000E-02  # minimum value of e-mesh points
     emax =   150.0000      # maximum value of e-mesh points
#    edel =  2.4039514E-02  # mesh width of e-mesh points
       ne =    400          # number of e-mesh points
#    data = ( e(i), i = 1, ne + 1 )
#           1.00000E-02  1.02433E-02  1.04925E-02  1.07478E-02  1.10093E-02
#           1.12772E-02  1.15516E-02  1.18326E-02  1.21205E-02  1.24154E-02
#           1.27175E-02  1.30269E-02  1.33439E-02  1.36686E-02  1.40011E-02
#           1.43418E-02  1.46907E-02  1.50482E-02  1.54143E-02  1.57894E-02
#           1.61735E-02  1.65670E-02  1.69701E-02  1.73830E-02  1.78060E-02
#           1.82392E-02  1.86830E-02  1.91375E-02  1.96032E-02  2.00801E-02
#           2.05687E-02  2.10692E-02  2.15818E-02  2.21069E-02  2.26448E-02
#           2.31957E-02  2.37601E-02  2.43382E-02  2.49304E-02  2.55369E-02
#           2.61583E-02  2.67947E-02  2.74467E-02  2.81145E-02  2.87985E-02
#           2.94992E-02  3.02169E-02  3.09521E-02  3.17052E-02  3.24766E-02
#           3.32668E-02  3.40762E-02  3.49053E-02  3.57546E-02  3.66246E-02
#           3.75157E-02  3.84284E-02  3.93634E-02  4.03212E-02  4.13022E-02
#           4.23071E-02  4.33365E-02  4.43909E-02  4.54710E-02  4.65773E-02
#           4.77106E-02  4.88714E-02  5.00605E-02  5.12785E-02  5.25262E-02
#           5.38042E-02  5.51133E-02  5.64542E-02  5.78278E-02  5.92348E-02
#           6.06760E-02  6.21523E-02  6.36645E-02  6.52135E-02  6.68002E-02
#           6.84255E-02  7.00904E-02  7.17957E-02  7.35426E-02  7.53319E-02
#           7.71648E-02  7.90423E-02  8.09655E-02  8.29354E-02  8.49533E-02
#           8.70203E-02  8.91376E-02  9.13064E-02  9.35279E-02  9.58035E-02
#           9.81345E-02  1.00522E-01  1.02968E-01  1.05473E-01  1.08040E-01
#           1.10668E-01  1.13361E-01  1.16119E-01  1.18944E-01  1.21838E-01
#           1.24803E-01  1.27839E-01  1.30950E-01  1.34136E-01  1.37399E-01
#           1.40742E-01  1.44167E-01  1.47675E-01  1.51268E-01  1.54948E-01
#           1.58718E-01  1.62580E-01  1.66535E-01  1.70587E-01  1.74738E-01
#           1.78989E-01  1.83344E-01  1.87805E-01  1.92375E-01  1.97055E-01
#           2.01850E-01  2.06761E-01  2.11792E-01  2.16945E-01  2.22223E-01
#           2.27630E-01  2.33169E-01  2.38842E-01  2.44653E-01  2.50605E-01
#           2.56703E-01  2.62949E-01  2.69346E-01  2.75900E-01  2.82613E-01
#           2.89489E-01  2.96532E-01  3.03747E-01  3.11138E-01  3.18708E-01
#           3.26462E-01  3.34405E-01  3.42542E-01  3.50876E-01  3.59413E-01
#           3.68158E-01  3.77116E-01  3.86291E-01  3.95690E-01  4.05317E-01
#           4.15179E-01  4.25281E-01  4.35628E-01  4.46227E-01  4.57084E-01
#           4.68205E-01  4.79597E-01  4.91266E-01  5.03219E-01  5.15463E-01
#           5.28005E-01  5.40851E-01  5.54011E-01  5.67490E-01  5.81298E-01
#           5.95441E-01  6.09929E-01  6.24769E-01  6.39970E-01  6.55541E-01
#           6.71491E-01  6.87828E-01  7.04564E-01  7.21706E-01  7.39266E-01
#           7.57253E-01  7.75678E-01  7.94551E-01  8.13883E-01  8.33685E-01
#           8.53969E-01  8.74747E-01  8.96030E-01  9.17831E-01  9.40163E-01
#           9.63038E-01  9.86469E-01  1.01047E+00  1.03506E+00  1.06024E+00
#           1.08604E+00  1.11246E+00  1.13953E+00  1.16725E+00  1.19565E+00
#           1.22474E+00  1.25454E+00  1.28507E+00  1.31633E+00  1.34836E+00
#           1.38117E+00  1.41477E+00  1.44920E+00  1.48446E+00  1.52057E+00
#           1.55757E+00  1.59547E+00  1.63429E+00  1.67405E+00  1.71478E+00
#           1.75650E+00  1.79924E+00  1.84302E+00  1.88786E+00  1.93379E+00
#           1.98084E+00  2.02904E+00  2.07841E+00  2.12898E+00  2.18078E+00
#           2.23384E+00  2.28819E+00  2.34386E+00  2.40089E+00  2.45930E+00
#           2.51914E+00  2.58043E+00  2.64322E+00  2.70753E+00  2.77341E+00
#           2.84088E+00  2.91001E+00  2.98081E+00  3.05333E+00  3.12762E+00
#           3.20372E+00  3.28167E+00  3.36152E+00  3.44330E+00  3.52708E+00
#           3.61290E+00  3.70080E+00  3.79085E+00  3.88308E+00  3.97756E+00
#           4.07434E+00  4.17347E+00  4.27501E+00  4.37903E+00  4.48557E+00
#           4.59471E+00  4.70650E+00  4.82102E+00  4.93832E+00  5.05847E+00
#           5.18155E+00  5.30762E+00  5.43676E+00  5.56904E+00  5.70453E+00
#           5.84333E+00  5.98550E+00  6.13114E+00  6.28031E+00  6.43312E+00
#           6.58964E+00  6.74997E+00  6.91420E+00  7.08243E+00  7.25475E+00
#           7.43126E+00  7.61207E+00  7.79728E+00  7.98700E+00  8.18133E+00
#           8.38038E+00  8.58428E+00  8.79315E+00  9.00709E+00  9.22624E+00
#           9.45072E+00  9.68067E+00  9.91620E+00  1.01575E+01  1.04046E+01
#           1.06578E+01  1.09171E+01  1.11827E+01  1.14548E+01  1.17335E+01
#           1.20190E+01  1.23114E+01  1.26109E+01  1.29178E+01  1.32321E+01
#           1.35540E+01  1.38838E+01  1.42216E+01  1.45676E+01  1.49221E+01
#           1.52851E+01  1.56570E+01  1.60380E+01  1.64282E+01  1.68279E+01
#           1.72374E+01  1.76568E+01  1.80864E+01  1.85264E+01  1.89772E+01
#           1.94389E+01  1.99119E+01  2.03963E+01  2.08926E+01  2.14009E+01
#           2.19216E+01  2.24550E+01  2.30014E+01  2.35610E+01  2.41343E+01
#           2.47215E+01  2.53230E+01  2.59391E+01  2.65702E+01  2.72167E+01
#           2.78789E+01  2.85572E+01  2.92520E+01  2.99637E+01  3.06928E+01
#           3.14396E+01  3.22045E+01  3.29881E+01  3.37907E+01  3.46128E+01
#           3.54550E+01  3.63177E+01  3.72013E+01  3.81064E+01  3.90336E+01
#           3.99833E+01  4.09561E+01  4.19526E+01  4.29734E+01  4.40189E+01
#           4.50900E+01  4.61870E+01  4.73108E+01  4.84619E+01  4.96410E+01
#           5.08488E+01  5.20860E+01  5.33533E+01  5.46514E+01  5.59812E+01
#           5.73432E+01  5.87384E+01  6.01676E+01  6.16315E+01  6.31311E+01
#           6.46671E+01  6.62405E+01  6.78522E+01  6.95031E+01  7.11941E+01
#           7.29263E+01  7.47007E+01  7.65182E+01  7.83800E+01  8.02870E+01
#           8.22405E+01  8.42414E+01  8.62911E+01  8.83906E+01  9.05412E+01
#           9.27442E+01  9.50007E+01  9.73122E+01  9.96799E+01  1.02105E+02
#           1.04589E+02  1.07134E+02  1.09741E+02  1.12411E+02  1.15146E+02
#           1.17948E+02  1.20817E+02  1.23757E+02  1.26768E+02  1.29852E+02
#           1.33012E+02  1.36248E+02  1.39563E+02  1.42959E+02  1.46437E+02
#           1.50000E+02
     unit =    2            # unit is [1/cm^2/(MeV/n)/source]
     axis =  eng            # axis of output
     file = detector-14.out  # file name of output for the above axis
   output = f-curr          # surface crossing forward current spectrum
     part =  neutron  
# kf/name :  2112     
#    used :        main (  %)        temp (  %)       total (  %)
#  memory :         414 (  0)           0 (  0)         414 (  0)

#------------------------------------------------------------------------------
#newpage:
#   no. =    1   reg = 113 - 213

x: Energy [MeV/n]
y:  F-Curr [1/cm^2/(MeV/n)/source]         
p: xlog ylog afac(0.8) form(0.9)
h: n            x            y(neutron ),hh0l   n 
#  e-lower      e-upper      neutron     r.err 
   1.0000E-02   1.0243E-02   1.0805E-03  0.0286
   1.0243E-02   1.0493E-02   1.0611E-03  0.0286
   1.0493E-02   1.0748E-02   1.0801E-03  0.0279
   1.0748E-02   1.1009E-02   1.0268E-03  0.0283
   1.1009E-02   1.1277E-02   1.0354E-03  0.0278
   1.1277E-02   1.1552E-02   9.9548E-04  0.0281
   1.1552E-02   1.1833E-02   9.1825E-04  0.0289
   1.1833E-02   1.2121E-02   9.7347E-04  0.0277
   1.2121E-02   1.2415E-02   9.6497E-04  0.0275
   1.2415E-02   1.2718E-02   8.3928E-04  0.0291
   1.2718E-02   1.3027E-02   8.9550E-04  0.0279
   1.3027E-02   1.3344E-02   8.7142E-04  0.0279
   1.3344E-02   1.3669E-02   8.4626E-04  0.0279
   1.3669E-02   1.4001E-02   7.8686E-04  0.0286
   1.4001E-02   1.4342E-02   8.0739E-04  0.0280
   1.4342E-02   1.4691E-02   8.1684E-04  0.0275
   1.4691E-02   1.5048E-02   7.6750E-04  0.0280
   1.5048E-02   1.5414E-02   7.4831E-04  0.0280
   1.5414E-02   1.5789E-02   7.6626E-04  0.0274
   1.5789E-02   1.6174E-02   7.1401E-04  0.0281
   1.6174E-02   1.6567E-02   6.8249E-04  0.0283
   1.6567E-02   1.6970E-02   7.0235E-04  0.0276
   1.6970E-02   1.7383E-02   6.5366E-04  0.0282
   1.7383E-02   1.7806E-02   6.9050E-04  0.0272
   1.7806E-02   1.8239E-02   6.4078E-04  0.0278
   1.8239E-02   1.8683E-02   6.1296E-04  0.0281
   1.8683E-02   1.9138E-02   5.8009E-04  0.0286
   1.9138E-02   1.9603E-02   6.2921E-04  0.0271
   1.9603E-02   2.0080E-02   5.6196E-04  0.0284
   2.0080E-02   2.0569E-02   5.9262E-04  0.0272
   2.0569E-02   2.1069E-02   5.4902E-04  0.0280
   2.1069E-02   2.1582E-02   5.4366E-04  0.0278
   2.1582E-02   2.2107E-02   5.1961E-04  0.0280
   2.2107E-02   2.2645E-02   5.6644E-04  0.0266
   2.2645E-02   2.3196E-02   5.3541E-04  0.0270
   2.3196E-02   2.3760E-02   5.1485E-04  0.0272
   2.3760E-02   2.4338E-02   5.0397E-04  0.0272
   2.4338E-02   2.4930E-02   4.9147E-04  0.0272
   2.4930E-02   2.5537E-02   4.7877E-04  0.0273
   2.5537E-02   2.6158E-02   4.7712E-04  0.0269
   2.6158E-02   2.6795E-02   4.6540E-04  0.0269
   2.6795E-02   2.7447E-02   4.8456E-04  0.0261
   2.7447E-02   2.8114E-02   4.4274E-04  0.0270
   2.8114E-02   2.8799E-02   4.1630E-04  0.0274
   2.8799E-02   2.9499E-02   4.1084E-04  0.0273
   2.9499E-02   3.0217E-02   4.2251E-04  0.0267
   3.0217E-02   3.0952E-02   4.0110E-04  0.0270
   3.0952E-02   3.1705E-02   4.1188E-04  0.0263
   3.1705E-02   3.2477E-02   3.8703E-04  0.0268
   3.2477E-02   3.3267E-02   3.6405E-04  0.0273
   3.3267E-02   3.4076E-02   3.6465E-04  0.0270
   3.4076E-02   3.4905E-02   3.6535E-04  0.0267
   3.4905E-02   3.5755E-02   3.4952E-04  0.0269
   3.5755E-02   3.6625E-02   3.4712E-04  0.0267
   3.6625E-02   3.7516E-02   3.2735E-04  0.0272
   3.7516E-02   3.8428E-02   3.1704E-04  0.0273
   3.8428E-02   3.9363E-02   3.0327E-04  0.0275
   3.9363E-02   4.0321E-02   3.1565E-04  0.0266
   4.0321E-02   4.1302E-02   3.1116E-04  0.0266
   4.1302E-02   4.2307E-02   3.0853E-04  0.0264
   4.2307E-02   4.3337E-02   3.0234E-04  0.0263
   4.3337E-02   4.4391E-02   2.8929E-04  0.0266
   4.4391E-02   4.5471E-02   2.8077E-04  0.0266
   4.5471E-02   4.6577E-02   2.8511E-04  0.0262
   4.6577E-02   4.7711E-02   2.6669E-04  0.0267
   4.7711E-02   4.8871E-02   2.7093E-04  0.0262
   4.8871E-02   5.0061E-02   2.6592E-04  0.0261
   5.0061E-02   5.1279E-02   2.5445E-04  0.0263
   5.1279E-02   5.2526E-02   2.5866E-04  0.0258
   5.2526E-02   5.3804E-02   2.4412E-04  0.0263
   5.3804E-02   5.5113E-02   2.4618E-04  0.0258
   5.5113E-02   5.6454E-02   2.2556E-04  0.0267
   5.6454E-02   5.7828E-02   2.2553E-04  0.0263
   5.7828E-02   5.9235E-02   2.2722E-04  0.0260
   5.9235E-02   6.0676E-02   2.2768E-04  0.0256
   6.0676E-02   6.2152E-02   2.1964E-04  0.0257
   6.2152E-02   6.3665E-02   2.1096E-04  0.0260
   6.3665E-02   6.5214E-02   2.1379E-04  0.0255
   6.5214E-02   6.6800E-02   2.0001E-04  0.0260
   6.6800E-02   6.8426E-02   2.0096E-04  0.0257
   6.8426E-02   7.0090E-02   2.0453E-04  0.0252
   7.0090E-02   7.1796E-02   1.9433E-04  0.0255
   7.1796E-02   7.3543E-02   1.8003E-04  0.0261
   7.3543E-02   7.5332E-02   1.9553E-04  0.0248
   7.5332E-02   7.7165E-02   1.8240E-04  0.0253
   7.7165E-02   7.9042E-02   1.7770E-04  0.0254
   7.9042E-02   8.0965E-02   1.7852E-04  0.0251
   8.0965E-02   8.2935E-02   1.7302E-04  0.0251
   8.2935E-02   8.4953E-02   1.6315E-04  0.0256
   8.4953E-02   8.7020E-02   1.6035E-04  0.0255
   8.7020E-02   8.9138E-02   1.6340E-04  0.0250
   8.9138E-02   9.1306E-02   1.4867E-04  0.0259
   9.1306E-02   9.3528E-02   1.5687E-04  0.0249
   9.3528E-02   9.5804E-02   1.4937E-04  0.0251
   9.5804E-02   9.8134E-02   1.4617E-04  0.0251
   9.8134E-02   1.0052E-01   1.3798E-04  0.0256
   1.0052E-01   1.0297E-01   1.3872E-04  0.0252
   1.0297E-01   1.0547E-01   1.3956E-04  0.0247
   1.0547E-01   1.0804E-01   1.4179E-04  0.0243
   1.0804E-01   1.1067E-01   1.3261E-04  0.0249
   1.1067E-01   1.1336E-01   1.3158E-04  0.0247
   1.1336E-01   1.1612E-01   1.2391E-04  0.0251
   1.1612E-01   1.1894E-01   1.2022E-04  0.0252
   1.1894E-01   1.2184E-01   1.2300E-04  0.0246
   1.2184E-01   1.2480E-01   1.2062E-04  0.0245
   1.2480E-01   1.2784E-01   1.2098E-04  0.0242
   1.2784E-01   1.3095E-01   1.1596E-04  0.0244
   1.3095E-01   1.3414E-01   1.1512E-04  0.0242
   1.3414E-01   1.3740E-01   1.1274E-04  0.0242
   1.3740E-01   1.4074E-01   1.1194E-04  0.0240
   1.4074E-01   1.4417E-01   1.0909E-04  0.0241
   1.4417E-01   1.4767E-01   1.0777E-04  0.0239
   1.4767E-01   1.5127E-01   1.0529E-04  0.0238
   1.5127E-01   1.5495E-01   1.0164E-04  0.0239
   1.5495E-01   1.5872E-01   1.0237E-04  0.0236
   1.5872E-01   1.6258E-01   9.9731E-05  0.0236
   1.6258E-01   1.6654E-01   9.7172E-05  0.0237
   1.6654E-01   1.7059E-01   9.4904E-05  0.0237
   1.7059E-01   1.7474E-01   9.5620E-05  0.0233
   1.7474E-01   1.7899E-01   9.6535E-05  0.0229
   1.7899E-01   1.8334E-01   9.7100E-05  0.0226
   1.8334E-01   1.8781E-01   9.1885E-05  0.0229
   1.8781E-01   1.9237E-01   9.2140E-05  0.0226
   1.9237E-01   1.9706E-01   8.7945E-05  0.0229
   1.9706E-01   2.0185E-01   9.1550E-05  0.0221
   2.0185E-01   2.0676E-01   9.0957E-05  0.0219
   2.0676E-01   2.1179E-01   9.5581E-05  0.0212
   2.1179E-01   2.1694E-01   9.9930E-05  0.0204
   2.1694E-01   2.2222E-01   1.0316E-04  0.0199
   2.2222E-01   2.2763E-01   1.0605E-04  0.0193
   2.2763E-01   2.3317E-01   1.1361E-04  0.0185
   2.3317E-01   2.3884E-01   1.2193E-04  0.0176
   2.3884E-01   2.4465E-01   1.2539E-04  0.0172
   2.4465E-01   2.5061E-01   1.2801E-04  0.0168
   2.5061E-01   2.5670E-01   1.3908E-04  0.0160
   2.5670E-01   2.6295E-01   1.4523E-04  0.0154
   2.6295E-01   2.6935E-01   1.4732E-04  0.0151
   2.6935E-01   2.7590E-01   1.5737E-04  0.0145
   2.7590E-01   2.8261E-01   1.6348E-04  0.0140
   2.8261E-01   2.8949E-01   1.6549E-04  0.0138
   2.8949E-01   2.9653E-01   1.7689E-04  0.0132
   2.9653E-01   3.0375E-01   1.8395E-04  0.0128
   3.0375E-01   3.1114E-01   1.8695E-04  0.0125
   3.1114E-01   3.1871E-01   1.9566E-04  0.0121
   3.1871E-01   3.2646E-01   2.1318E-04  0.0114
   3.2646E-01   3.3441E-01   2.1833E-04  0.0112
   3.3441E-01   3.4254E-01   2.2917E-04  0.0108
   3.4254E-01   3.5088E-01   2.3712E-04  0.0105
   3.5088E-01   3.5941E-01   2.4097E-04  0.0102
   3.5941E-01   3.6816E-01   2.6202E-04  0.0097
   3.6816E-01   3.7712E-01   2.6342E-04  0.0096
   3.7712E-01   3.8629E-01   2.8154E-04  0.0091
   3.8629E-01   3.9569E-01   2.8759E-04  0.0089
   3.9569E-01   4.0532E-01   3.0326E-04  0.0086
   4.0532E-01   4.1518E-01   3.1355E-04  0.0084
   4.1518E-01   4.2528E-01   3.3794E-04  0.0080
   4.2528E-01   4.3563E-01   3.4574E-04  0.0078
   4.3563E-01   4.4623E-01   3.5869E-04  0.0075
   4.4623E-01   4.5708E-01   3.7047E-04  0.0073
   4.5708E-01   4.6821E-01   3.9392E-04  0.0070
   4.6821E-01   4.7960E-01   4.0988E-04  0.0068
   4.7960E-01   4.9127E-01   4.2064E-04  0.0066
   4.9127E-01   5.0322E-01   4.4062E-04  0.0064
   5.0322E-01   5.1546E-01   4.5597E-04  0.0062
   5.1546E-01   5.2800E-01   4.7483E-04  0.0060
   5.2800E-01   5.4085E-01   4.9008E-04  0.0059
   5.4085E-01   5.5401E-01   5.1114E-04  0.0057
   5.5401E-01   5.6749E-01   5.3033E-04  0.0055
   5.6749E-01   5.8130E-01   5.4752E-04  0.0054
   5.8130E-01   5.9544E-01   5.6928E-04  0.0052
   5.9544E-01   6.0993E-01   5.9160E-04  0.0050
   6.0993E-01   6.2477E-01   6.1042E-04  0.0049
   6.2477E-01   6.3997E-01   6.3365E-04  0.0047
   6.3997E-01   6.5554E-01   6.5979E-04  0.0046
   6.5554E-01   6.7149E-01   6.7801E-04  0.0045
   6.7149E-01   6.8783E-01   6.9977E-04  0.0044
   6.8783E-01   7.0456E-01   7.2735E-04  0.0042
   7.0456E-01   7.2171E-01   7.4967E-04  0.0041
   7.2171E-01   7.3927E-01   7.7330E-04  0.0040
   7.3927E-01   7.5725E-01   7.9602E-04  0.0039
   7.5725E-01   7.7568E-01   8.2745E-04  0.0038
   7.7568E-01   7.9455E-01   8.5305E-04  0.0037
   7.9455E-01   8.1388E-01   8.7439E-04  0.0036
   8.1388E-01   8.3368E-01   8.9520E-04  0.0035
   8.3368E-01   8.5397E-01   9.3526E-04  0.0034
   8.5397E-01   8.7475E-01   9.5148E-04  0.0033
   8.7475E-01   8.9603E-01   9.9055E-04  0.0032
   8.9603E-01   9.1783E-01   1.0196E-03  0.0031
   9.1783E-01   9.4016E-01   1.0358E-03  0.0031
   9.4016E-01   9.6304E-01   1.0628E-03  0.0030
   9.6304E-01   9.8647E-01   1.0868E-03  0.0029
   9.8647E-01   1.0105E+00   1.1024E-03  0.0029
   1.0105E+00   1.0351E+00   1.1078E-03  0.0028
   1.0351E+00   1.0602E+00   1.1169E-03  0.0028
   1.0602E+00   1.0860E+00   1.1300E-03  0.0027
   1.0860E+00   1.1125E+00   1.1408E-03  0.0027
   1.1125E+00   1.1395E+00   1.1597E-03  0.0026
   1.1395E+00   1.1673E+00   1.1884E-03  0.0026
   1.1673E+00   1.1957E+00   1.2180E-03  0.0025
   1.1957E+00   1.2247E+00   1.2295E-03  0.0025
   1.2247E+00   1.2545E+00   1.2303E-03  0.0024
   1.2545E+00   1.2851E+00   1.2307E-03  0.0024
   1.2851E+00   1.3163E+00   1.2448E-03  0.0024
   1.3163E+00   1.3484E+00   1.2586E-03  0.0023
   1.3484E+00   1.3812E+00   1.2804E-03  0.0023
   1.3812E+00   1.4148E+00   1.3073E-03  0.0022
   1.4148E+00   1.4492E+00   1.3244E-03  0.0022
   1.4492E+00   1.4845E+00   1.3358E-03  0.0021
   1.4845E+00   1.5206E+00   1.3515E-03  0.0021
   1.5206E+00   1.5576E+00   1.3365E-03  0.0021
   1.5576E+00   1.5955E+00   1.3236E-03  0.0021
   1.5955E+00   1.6343E+00   1.3157E-03  0.0021
   1.6343E+00   1.6741E+00   1.3029E-03  0.0020
   1.6741E+00   1.7148E+00   1.2940E-03  0.0020
   1.7148E+00   1.7565E+00   1.2908E-03  0.0020
   1.7565E+00   1.7992E+00   1.2981E-03  0.0020
   1.7992E+00   1.8430E+00   1.3036E-03  0.0019
   1.8430E+00   1.8879E+00   1.3002E-03  0.0019
   1.8879E+00   1.9338E+00   1.2940E-03  0.0019
   1.9338E+00   1.9808E+00   1.2941E-03  0.0019
   1.9808E+00   2.0290E+00   1.2995E-03  0.0019
   2.0290E+00   2.0784E+00   1.2865E-03  0.0018
   2.0784E+00   2.1290E+00   1.2639E-03  0.0018
   2.1290E+00   2.1808E+00   1.2419E-03  0.0018
   2.1808E+00   2.2338E+00   1.2179E-03  0.0018
   2.2338E+00   2.2882E+00   1.2010E-03  0.0018
   2.2882E+00   2.3439E+00   1.1872E-03  0.0018
   2.3439E+00   2.4009E+00   1.1883E-03  0.0018
   2.4009E+00   2.4593E+00   1.1882E-03  0.0018
   2.4593E+00   2.5191E+00   1.1822E-03  0.0017
   2.5191E+00   2.5804E+00   1.1704E-03  0.0017
   2.5804E+00   2.6432E+00   1.1446E-03  0.0017
   2.6432E+00   2.7075E+00   1.1272E-03  0.0017
   2.7075E+00   2.7734E+00   1.1050E-03  0.0017
   2.7734E+00   2.8409E+00   1.0880E-03  0.0017
   2.8409E+00   2.9100E+00   1.0727E-03  0.0017
   2.9100E+00   2.9808E+00   1.0615E-03  0.0017
   2.9808E+00   3.0533E+00   1.0549E-03  0.0017
   3.0533E+00   3.1276E+00   1.0363E-03  0.0017
   3.1276E+00   3.2037E+00   1.0116E-03  0.0017
   3.2037E+00   3.2817E+00   9.8634E-04  0.0017
   3.2817E+00   3.3615E+00   9.6709E-04  0.0017
   3.3615E+00   3.4433E+00   9.5568E-04  0.0017
   3.4433E+00   3.5271E+00   9.4559E-04  0.0017
   3.5271E+00   3.6129E+00   9.2883E-04  0.0016
   3.6129E+00   3.7008E+00   9.0860E-04  0.0016
   3.7008E+00   3.7908E+00   8.8551E-04  0.0016
   3.7908E+00   3.8831E+00   8.6746E-04  0.0016
   3.8831E+00   3.9776E+00   8.5703E-04  0.0016
   3.9776E+00   4.0743E+00   8.4565E-04  0.0016
   4.0743E+00   4.1735E+00   8.2448E-04  0.0016
   4.1735E+00   4.2750E+00   8.0843E-04  0.0016
   4.2750E+00   4.3790E+00   7.9460E-04  0.0016
   4.3790E+00   4.4856E+00   7.8505E-04  0.0016
   4.4856E+00   4.5947E+00   7.7348E-04  0.0016
   4.5947E+00   4.7065E+00   7.5746E-04  0.0016
   4.7065E+00   4.8210E+00   7.4325E-04  0.0016
   4.8210E+00   4.9383E+00   7.3093E-04  0.0016
   4.9383E+00   5.0585E+00   7.2654E-04  0.0016
   5.0585E+00   5.1815E+00   7.2430E-04  0.0016
   5.1815E+00   5.3076E+00   7.1410E-04  0.0016
   5.3076E+00   5.4368E+00   6.9901E-04  0.0016
   5.4368E+00   5.5690E+00   6.8154E-04  0.0016
   5.5690E+00   5.7045E+00   6.6175E-04  0.0016
   5.7045E+00   5.8433E+00   6.4222E-04  0.0016
   5.8433E+00   5.9855E+00   6.2784E-04  0.0016
   5.9855E+00   6.1311E+00   6.1285E-04  0.0016
   6.1311E+00   6.2803E+00   5.9480E-04  0.0016
   6.2803E+00   6.4331E+00   5.7759E-04  0.0016
   6.4331E+00   6.5896E+00   5.6302E-04  0.0016
   6.5896E+00   6.7500E+00   5.4680E-04  0.0016
   6.7500E+00   6.9142E+00   5.3253E-04  0.0016
   6.9142E+00   7.0824E+00   5.1795E-04  0.0016
   7.0824E+00   7.2548E+00   5.0463E-04  0.0016
   7.2548E+00   7.4313E+00   4.9018E-04  0.0016
   7.4313E+00   7.6121E+00   4.7753E-04  0.0016
   7.6121E+00   7.7973E+00   4.6417E-04  0.0016
   7.7973E+00   7.9870E+00   4.5174E-04  0.0016
   7.9870E+00   8.1813E+00   4.3985E-04  0.0016
   8.1813E+00   8.3804E+00   4.2710E-04  0.0016
   8.3804E+00   8.5843E+00   4.1642E-04  0.0016
   8.5843E+00   8.7931E+00   4.0589E-04  0.0016
   8.7931E+00   9.0071E+00   3.9443E-04  0.0016
   9.0071E+00   9.2262E+00   3.8381E-04  0.0016
   9.2262E+00   9.4507E+00   3.7333E-04  0.0016
   9.4507E+00   9.6807E+00   3.6358E-04  0.0016
   9.6807E+00   9.9162E+00   3.5236E-04  0.0016
   9.9162E+00   1.0157E+01   3.4347E-04  0.0016
   1.0157E+01   1.0405E+01   3.3365E-04  0.0016
   1.0405E+01   1.0658E+01   3.2292E-04  0.0016
   1.0658E+01   1.0917E+01   3.1496E-04  0.0016
   1.0917E+01   1.1183E+01   3.0523E-04  0.0017
   1.1183E+01   1.1455E+01   2.9581E-04  0.0017
   1.1455E+01   1.1733E+01   2.8724E-04  0.0017
   1.1733E+01   1.2019E+01   2.7872E-04  0.0017
   1.2019E+01   1.2311E+01   2.7043E-04  0.0017
   1.2311E+01   1.2611E+01   2.6223E-04  0.0017
   1.2611E+01   1.2918E+01   2.5412E-04  0.0017
   1.2918E+01   1.3232E+01   2.4655E-04  0.0017
   1.3232E+01   1.3554E+01   2.3864E-04  0.0017
   1.3554E+01   1.3884E+01   2.3079E-04  0.0017
   1.3884E+01   1.4222E+01   2.2288E-04  0.0017
   1.4222E+01   1.4568E+01   2.1549E-04  0.0017
   1.4568E+01   1.4922E+01   2.0879E-04  0.0017
   1.4922E+01   1.5285E+01   2.0182E-04  0.0017
   1.5285E+01   1.5657E+01   1.9480E-04  0.0018
   1.5657E+01   1.6038E+01   1.8753E-04  0.0018
   1.6038E+01   1.6428E+01   1.8181E-04  0.0018
   1.6428E+01   1.6828E+01   1.7452E-04  0.0018
   1.6828E+01   1.7237E+01   1.6859E-04  0.0018
   1.7237E+01   1.7657E+01   1.6299E-04  0.0018
   1.7657E+01   1.8086E+01   1.5645E-04  0.0018
   1.8086E+01   1.8526E+01   1.5053E-04  0.0018
   1.8526E+01   1.8977E+01   1.4528E-04  0.0018
   1.8977E+01   1.9439E+01   1.4435E-04  0.0018
   1.9439E+01   1.9912E+01   1.4708E-04  0.0018
   1.9912E+01   2.0396E+01   1.4620E-04  0.0018
   2.0396E+01   2.0893E+01   1.4178E-04  0.0018
   2.0893E+01   2.1401E+01   1.3651E-04  0.0018
   2.1401E+01   2.1922E+01   1.3031E-04  0.0018
   2.1922E+01   2.2455E+01   1.2483E-04  0.0018
   2.2455E+01   2.3001E+01   1.1975E-04  0.0018
   2.3001E+01   2.3561E+01   1.1443E-04  0.0019
   2.3561E+01   2.4134E+01   1.0959E-04  0.0019
   2.4134E+01   2.4721E+01   1.0426E-04  0.0019
   2.4721E+01   2.5323E+01   9.9411E-05  0.0019
   2.5323E+01   2.5939E+01   9.4549E-05  0.0020
   2.5939E+01   2.6570E+01   8.9891E-05  0.0020
   2.6570E+01   2.7217E+01   8.5745E-05  0.0020
   2.7217E+01   2.7879E+01   8.1077E-05  0.0020
   2.7879E+01   2.8557E+01   7.6589E-05  0.0021
   2.8557E+01   2.9252E+01   7.2118E-05  0.0021
   2.9252E+01   2.9964E+01   6.8513E-05  0.0021
   2.9964E+01   3.0693E+01   6.4223E-05  0.0022
   3.0693E+01   3.1440E+01   6.0657E-05  0.0022
   3.1440E+01   3.2205E+01   5.6813E-05  0.0023
   3.2205E+01   3.2988E+01   5.3286E-05  0.0023
   3.2988E+01   3.3791E+01   4.9709E-05  0.0024
   3.3791E+01   3.4613E+01   4.6421E-05  0.0024
   3.4613E+01   3.5455E+01   4.3394E-05  0.0025
   3.5455E+01   3.6318E+01   4.0396E-05  0.0025
   3.6318E+01   3.7201E+01   3.7638E-05  0.0026
   3.7201E+01   3.8106E+01   3.4937E-05  0.0027
   3.8106E+01   3.9034E+01   3.2475E-05  0.0027
   3.9034E+01   3.9983E+01   2.9917E-05  0.0028
   3.9983E+01   4.0956E+01   2.7523E-05  0.0029
   4.0956E+01   4.1953E+01   2.5052E-05  0.0030
   4.1953E+01   4.2973E+01   2.3320E-05  0.0031
   4.2973E+01   4.4019E+01   2.1371E-05  0.0032
   4.4019E+01   4.5090E+01   1.9421E-05  0.0033
   4.5090E+01   4.6187E+01   1.7749E-05  0.0034
   4.6187E+01   4.7311E+01   1.6207E-05  0.0035
   4.7311E+01   4.8462E+01   1.4580E-05  0.0036
   4.8462E+01   4.9641E+01   1.3211E-05  0.0038
   4.9641E+01   5.0849E+01   1.1892E-05  0.0039
   5.0849E+01   5.2086E+01   1.0665E-05  0.0041
   5.2086E+01   5.3353E+01   9.5600E-06  0.0043
   5.3353E+01   5.4651E+01   8.4599E-06  0.0045
   5.4651E+01   5.5981E+01   7.5570E-06  0.0047
   5.5981E+01   5.7343E+01   6.7487E-06  0.0049
   5.7343E+01   5.8738E+01   5.8857E-06  0.0052
   5.8738E+01   6.0168E+01   5.2085E-06  0.0055
   6.0168E+01   6.1632E+01   4.5485E-06  0.0058
   6.1632E+01   6.3131E+01   3.9439E-06  0.0061
   6.3131E+01   6.4667E+01   3.4312E-06  0.0065
   6.4667E+01   6.6240E+01   2.9271E-06  0.0069
   6.6240E+01   6.7852E+01   2.5100E-06  0.0074
   6.7852E+01   6.9503E+01   2.1555E-06  0.0079
   6.9503E+01   7.1194E+01   1.8036E-06  0.0085
   7.1194E+01   7.2926E+01   1.5239E-06  0.0092
   7.2926E+01   7.4701E+01   1.2524E-06  0.0100
   7.4701E+01   7.6518E+01   1.0428E-06  0.0108
   7.6518E+01   7.8380E+01   8.5797E-07  0.0118
   7.8380E+01   8.0287E+01   6.9811E-07  0.0129
   8.0287E+01   8.2240E+01   5.4889E-07  0.0144
   8.2240E+01   8.4241E+01   4.4700E-07  0.0158
   8.4241E+01   8.6291E+01   3.5767E-07  0.0174
   8.6291E+01   8.8391E+01   2.7922E-07  0.0195
   8.8391E+01   9.0541E+01   2.0666E-07  0.0224
   9.0541E+01   9.2744E+01   1.4728E-07  0.0262
   9.2744E+01   9.5001E+01   1.1187E-07  0.0297
   9.5001E+01   9.7312E+01   7.2682E-08  0.0364
   9.7312E+01   9.9680E+01   4.7867E-08  0.0443
   9.9680E+01   1.0211E+02   2.8496E-08  0.0567
   1.0211E+02   1.0459E+02   1.9590E-08  0.0676
   1.0459E+02   1.0713E+02   1.0566E-08  0.0909
   1.0713E+02   1.0974E+02   6.4791E-09  0.1147
   1.0974E+02   1.1241E+02   3.4123E-09  0.1562
   1.1241E+02   1.1515E+02   1.4625E-09  0.2357
   1.1515E+02   1.1795E+02   7.1388E-10  0.3333
   1.1795E+02   1.2082E+02   3.8718E-10  0.4472
   1.2082E+02   1.2376E+02   3.7798E-10  0.4472
   1.2376E+02   1.2677E+02   7.3801E-11  1.0000
   1.2677E+02   1.2985E+02   0.0000E+00  0.0000
   1.2985E+02   1.3301E+02   0.0000E+00  0.0000
   1.3301E+02   1.3625E+02   0.0000E+00  0.0000
   1.3625E+02   1.3956E+02   0.0000E+00  0.0000
   1.3956E+02   1.4296E+02   0.0000E+00  0.0000
   1.4296E+02   1.4644E+02   0.0000E+00  0.0000
   1.4644E+02   1.5000E+02   0.0000E+00  0.0000

#   sum over                 7.4107E-05
'no. =    1   reg = 113 - 213'
msuc: {\huge [t-cross] in region mesh}
msdr: {\it plotted by \ANGEL \version}
msdl: {\it calculated by \PHITS  3.28}
wt: s(0.7)
\vspace{-3}
  region surface crossing
  area  &=&   1.0000E+00 [cm^2]
e:
 
# Information for Restart Calculation
# This calculation was newly started
# istdev =  2 # 1:Batch variance, 2:History variance
# resc2  = 4.50000000000000000E+09 # Total source weight or Total source weight / maxcas
# resc3  = 4.50000000000000000E+09 # Total history number or Total batch number
# maxcas =   500000000 # History / Batch, only used for istdev=1
# bitrseed = 0100111111101111000100100111100101111100111000110000100001000100 # bit data of rseed
