[ T-Cross ]
    title = [t-cross] in region mesh
     mesh =  reg            # mesh type is region-wise
      reg =    1            # number of crossing regions
      non     r-from    r-to       area
      1       105       205        1.000000    
   e-type =    3            # e-mesh is log given by emin, emax and ne
     emin =  1.0000000E-02  # minimum value of e-mesh points
     emax =   150.0000      # maximum value of e-mesh points
#    edel =  2.4039514E-02  # mesh width of e-mesh points
       ne =    400          # number of e-mesh points
#    data = ( e(i), i = 1, ne + 1 )
#           1.00000E-02  1.02433E-02  1.04925E-02  1.07478E-02  1.10093E-02
#           1.12772E-02  1.15516E-02  1.18326E-02  1.21205E-02  1.24154E-02
#           1.27175E-02  1.30269E-02  1.33439E-02  1.36686E-02  1.40011E-02
#           1.43418E-02  1.46907E-02  1.50482E-02  1.54143E-02  1.57894E-02
#           1.61735E-02  1.65670E-02  1.69701E-02  1.73830E-02  1.78060E-02
#           1.82392E-02  1.86830E-02  1.91375E-02  1.96032E-02  2.00801E-02
#           2.05687E-02  2.10692E-02  2.15818E-02  2.21069E-02  2.26448E-02
#           2.31957E-02  2.37601E-02  2.43382E-02  2.49304E-02  2.55369E-02
#           2.61583E-02  2.67947E-02  2.74467E-02  2.81145E-02  2.87985E-02
#           2.94992E-02  3.02169E-02  3.09521E-02  3.17052E-02  3.24766E-02
#           3.32668E-02  3.40762E-02  3.49053E-02  3.57546E-02  3.66246E-02
#           3.75157E-02  3.84284E-02  3.93634E-02  4.03212E-02  4.13022E-02
#           4.23071E-02  4.33365E-02  4.43909E-02  4.54710E-02  4.65773E-02
#           4.77106E-02  4.88714E-02  5.00605E-02  5.12785E-02  5.25262E-02
#           5.38042E-02  5.51133E-02  5.64542E-02  5.78278E-02  5.92348E-02
#           6.06760E-02  6.21523E-02  6.36645E-02  6.52135E-02  6.68002E-02
#           6.84255E-02  7.00904E-02  7.17957E-02  7.35426E-02  7.53319E-02
#           7.71648E-02  7.90423E-02  8.09655E-02  8.29354E-02  8.49533E-02
#           8.70203E-02  8.91376E-02  9.13064E-02  9.35279E-02  9.58035E-02
#           9.81345E-02  1.00522E-01  1.02968E-01  1.05473E-01  1.08040E-01
#           1.10668E-01  1.13361E-01  1.16119E-01  1.18944E-01  1.21838E-01
#           1.24803E-01  1.27839E-01  1.30950E-01  1.34136E-01  1.37399E-01
#           1.40742E-01  1.44167E-01  1.47675E-01  1.51268E-01  1.54948E-01
#           1.58718E-01  1.62580E-01  1.66535E-01  1.70587E-01  1.74738E-01
#           1.78989E-01  1.83344E-01  1.87805E-01  1.92375E-01  1.97055E-01
#           2.01850E-01  2.06761E-01  2.11792E-01  2.16945E-01  2.22223E-01
#           2.27630E-01  2.33169E-01  2.38842E-01  2.44653E-01  2.50605E-01
#           2.56703E-01  2.62949E-01  2.69346E-01  2.75900E-01  2.82613E-01
#           2.89489E-01  2.96532E-01  3.03747E-01  3.11138E-01  3.18708E-01
#           3.26462E-01  3.34405E-01  3.42542E-01  3.50876E-01  3.59413E-01
#           3.68158E-01  3.77116E-01  3.86291E-01  3.95690E-01  4.05317E-01
#           4.15179E-01  4.25281E-01  4.35628E-01  4.46227E-01  4.57084E-01
#           4.68205E-01  4.79597E-01  4.91266E-01  5.03219E-01  5.15463E-01
#           5.28005E-01  5.40851E-01  5.54011E-01  5.67490E-01  5.81298E-01
#           5.95441E-01  6.09929E-01  6.24769E-01  6.39970E-01  6.55541E-01
#           6.71491E-01  6.87828E-01  7.04564E-01  7.21706E-01  7.39266E-01
#           7.57253E-01  7.75678E-01  7.94551E-01  8.13883E-01  8.33685E-01
#           8.53969E-01  8.74747E-01  8.96030E-01  9.17831E-01  9.40163E-01
#           9.63038E-01  9.86469E-01  1.01047E+00  1.03506E+00  1.06024E+00
#           1.08604E+00  1.11246E+00  1.13953E+00  1.16725E+00  1.19565E+00
#           1.22474E+00  1.25454E+00  1.28507E+00  1.31633E+00  1.34836E+00
#           1.38117E+00  1.41477E+00  1.44920E+00  1.48446E+00  1.52057E+00
#           1.55757E+00  1.59547E+00  1.63429E+00  1.67405E+00  1.71478E+00
#           1.75650E+00  1.79924E+00  1.84302E+00  1.88786E+00  1.93379E+00
#           1.98084E+00  2.02904E+00  2.07841E+00  2.12898E+00  2.18078E+00
#           2.23384E+00  2.28819E+00  2.34386E+00  2.40089E+00  2.45930E+00
#           2.51914E+00  2.58043E+00  2.64322E+00  2.70753E+00  2.77341E+00
#           2.84088E+00  2.91001E+00  2.98081E+00  3.05333E+00  3.12762E+00
#           3.20372E+00  3.28167E+00  3.36152E+00  3.44330E+00  3.52708E+00
#           3.61290E+00  3.70080E+00  3.79085E+00  3.88308E+00  3.97756E+00
#           4.07434E+00  4.17347E+00  4.27501E+00  4.37903E+00  4.48557E+00
#           4.59471E+00  4.70650E+00  4.82102E+00  4.93832E+00  5.05847E+00
#           5.18155E+00  5.30762E+00  5.43676E+00  5.56904E+00  5.70453E+00
#           5.84333E+00  5.98550E+00  6.13114E+00  6.28031E+00  6.43312E+00
#           6.58964E+00  6.74997E+00  6.91420E+00  7.08243E+00  7.25475E+00
#           7.43126E+00  7.61207E+00  7.79728E+00  7.98700E+00  8.18133E+00
#           8.38038E+00  8.58428E+00  8.79315E+00  9.00709E+00  9.22624E+00
#           9.45072E+00  9.68067E+00  9.91620E+00  1.01575E+01  1.04046E+01
#           1.06578E+01  1.09171E+01  1.11827E+01  1.14548E+01  1.17335E+01
#           1.20190E+01  1.23114E+01  1.26109E+01  1.29178E+01  1.32321E+01
#           1.35540E+01  1.38838E+01  1.42216E+01  1.45676E+01  1.49221E+01
#           1.52851E+01  1.56570E+01  1.60380E+01  1.64282E+01  1.68279E+01
#           1.72374E+01  1.76568E+01  1.80864E+01  1.85264E+01  1.89772E+01
#           1.94389E+01  1.99119E+01  2.03963E+01  2.08926E+01  2.14009E+01
#           2.19216E+01  2.24550E+01  2.30014E+01  2.35610E+01  2.41343E+01
#           2.47215E+01  2.53230E+01  2.59391E+01  2.65702E+01  2.72167E+01
#           2.78789E+01  2.85572E+01  2.92520E+01  2.99637E+01  3.06928E+01
#           3.14396E+01  3.22045E+01  3.29881E+01  3.37907E+01  3.46128E+01
#           3.54550E+01  3.63177E+01  3.72013E+01  3.81064E+01  3.90336E+01
#           3.99833E+01  4.09561E+01  4.19526E+01  4.29734E+01  4.40189E+01
#           4.50900E+01  4.61870E+01  4.73108E+01  4.84619E+01  4.96410E+01
#           5.08488E+01  5.20860E+01  5.33533E+01  5.46514E+01  5.59812E+01
#           5.73432E+01  5.87384E+01  6.01676E+01  6.16315E+01  6.31311E+01
#           6.46671E+01  6.62405E+01  6.78522E+01  6.95031E+01  7.11941E+01
#           7.29263E+01  7.47007E+01  7.65182E+01  7.83800E+01  8.02870E+01
#           8.22405E+01  8.42414E+01  8.62911E+01  8.83906E+01  9.05412E+01
#           9.27442E+01  9.50007E+01  9.73122E+01  9.96799E+01  1.02105E+02
#           1.04589E+02  1.07134E+02  1.09741E+02  1.12411E+02  1.15146E+02
#           1.17948E+02  1.20817E+02  1.23757E+02  1.26768E+02  1.29852E+02
#           1.33012E+02  1.36248E+02  1.39563E+02  1.42959E+02  1.46437E+02
#           1.50000E+02
     unit =    2            # unit is [1/cm^2/(MeV/n)/source]
     axis =  eng            # axis of output
     file = detector-06.out  # file name of output for the above axis
   output = f-curr          # surface crossing forward current spectrum
     part =  neutron  
# kf/name :  2112     
#    used :        main (  %)        temp (  %)       total (  %)
#  memory :         414 (  0)           0 (  0)         414 (  0)

#------------------------------------------------------------------------------
#newpage:
#   no. =    1   reg = 105 - 205

x: Energy [MeV/n]
y:  F-Curr [1/cm^2/(MeV/n)/source]         
p: xlog ylog afac(0.8) form(0.9)
h: n            x            y(neutron ),hh0l   n 
#  e-lower      e-upper      neutron     r.err 
   1.0000E-02   1.0243E-02   1.0149E-03  0.0297
   1.0243E-02   1.0493E-02   9.9145E-04  0.0297
   1.0493E-02   1.0748E-02   9.1266E-04  0.0307
   1.0748E-02   1.1009E-02   9.7631E-04  0.0293
   1.1009E-02   1.1277E-02   9.2198E-04  0.0298
   1.1277E-02   1.1552E-02   9.4058E-04  0.0291
   1.1552E-02   1.1833E-02   9.2219E-04  0.0291
   1.1833E-02   1.2121E-02   8.6773E-04  0.0296
   1.2121E-02   1.2415E-02   8.6450E-04  0.0293
   1.2415E-02   1.2718E-02   8.6858E-04  0.0289
   1.2718E-02   1.3027E-02   8.4473E-04  0.0290
   1.3027E-02   1.3344E-02   7.9878E-04  0.0294
   1.3344E-02   1.3669E-02   8.2525E-04  0.0286
   1.3669E-02   1.4001E-02   7.5815E-04  0.0294
   1.4001E-02   1.4342E-02   7.7322E-04  0.0288
   1.4342E-02   1.4691E-02   7.3657E-04  0.0292
   1.4691E-02   1.5048E-02   7.0151E-04  0.0296
   1.5048E-02   1.5414E-02   7.1402E-04  0.0289
   1.5414E-02   1.5789E-02   6.9604E-04  0.0289
   1.5789E-02   1.6174E-02   6.6448E-04  0.0293
   1.6174E-02   1.6567E-02   6.6528E-04  0.0289
   1.6567E-02   1.6970E-02   6.3363E-04  0.0293
   1.6970E-02   1.7383E-02   6.4315E-04  0.0287
   1.7383E-02   1.7806E-02   6.2888E-04  0.0287
   1.7806E-02   1.8239E-02   6.0463E-04  0.0289
   1.8239E-02   1.8683E-02   5.9183E-04  0.0289
   1.8683E-02   1.9138E-02   5.9667E-04  0.0284
   1.9138E-02   1.9603E-02   6.0011E-04  0.0280
   1.9603E-02   2.0080E-02   5.6615E-04  0.0284
   2.0080E-02   2.0569E-02   5.7960E-04  0.0278
   2.0569E-02   2.1069E-02   5.3910E-04  0.0285
   2.1069E-02   2.1582E-02   5.2485E-04  0.0285
   2.1582E-02   2.2107E-02   5.1846E-04  0.0283
   2.2107E-02   2.2645E-02   5.1663E-04  0.0281
   2.2645E-02   2.3196E-02   4.9900E-04  0.0282
   2.3196E-02   2.3760E-02   5.0377E-04  0.0277
   2.3760E-02   2.4338E-02   4.8917E-04  0.0278
   2.4338E-02   2.4930E-02   4.8304E-04  0.0277
   2.4930E-02   2.5537E-02   4.3916E-04  0.0287
   2.5537E-02   2.6158E-02   4.8638E-04  0.0269
   2.6158E-02   2.6795E-02   4.3317E-04  0.0282
   2.6795E-02   2.7447E-02   4.4041E-04  0.0276
   2.7447E-02   2.8114E-02   4.2343E-04  0.0279
   2.8114E-02   2.8799E-02   4.1544E-04  0.0277
   2.8799E-02   2.9499E-02   4.1892E-04  0.0273
   2.9499E-02   3.0217E-02   4.0613E-04  0.0274
   3.0217E-02   3.0952E-02   3.8469E-04  0.0278
   3.0952E-02   3.1705E-02   3.9711E-04  0.0271
   3.1705E-02   3.2477E-02   3.8147E-04  0.0273
   3.2477E-02   3.3267E-02   3.7499E-04  0.0272
   3.3267E-02   3.4076E-02   3.7521E-04  0.0268
   3.4076E-02   3.4905E-02   3.4150E-04  0.0279
   3.4905E-02   3.5755E-02   3.3790E-04  0.0276
   3.5755E-02   3.6625E-02   3.2331E-04  0.0279
   3.6625E-02   3.7516E-02   3.2588E-04  0.0275
   3.7516E-02   3.8428E-02   3.1999E-04  0.0274
   3.8428E-02   3.9363E-02   3.1605E-04  0.0272
   3.9363E-02   4.0321E-02   3.2239E-04  0.0266
   4.0321E-02   4.1302E-02   2.7654E-04  0.0284
   4.1302E-02   4.2307E-02   3.1079E-04  0.0264
   4.2307E-02   4.3337E-02   2.8858E-04  0.0271
   4.3337E-02   4.4391E-02   2.9135E-04  0.0267
   4.4391E-02   4.5471E-02   2.9596E-04  0.0262
   4.5471E-02   4.6577E-02   2.6987E-04  0.0271
   4.6577E-02   4.7711E-02   2.7672E-04  0.0264
   4.7711E-02   4.8871E-02   2.5580E-04  0.0271
   4.8871E-02   5.0061E-02   2.5091E-04  0.0270
   5.0061E-02   5.1279E-02   2.6920E-04  0.0259
   5.1279E-02   5.2526E-02   2.4522E-04  0.0268
   5.2526E-02   5.3804E-02   2.4895E-04  0.0262
   5.3804E-02   5.5113E-02   2.4257E-04  0.0263
   5.5113E-02   5.6454E-02   2.4145E-04  0.0260
   5.6454E-02   5.7828E-02   2.3082E-04  0.0263
   5.7828E-02   5.9235E-02   2.3369E-04  0.0258
   5.9235E-02   6.0676E-02   2.1822E-04  0.0264
   6.0676E-02   6.2152E-02   2.2355E-04  0.0258
   6.2152E-02   6.3665E-02   2.1367E-04  0.0261
   6.3665E-02   6.5214E-02   2.1578E-04  0.0256
   6.5214E-02   6.6800E-02   2.0156E-04  0.0262
   6.6800E-02   6.8426E-02   2.0069E-04  0.0259
   6.8426E-02   7.0090E-02   2.0034E-04  0.0256
   7.0090E-02   7.1796E-02   1.8840E-04  0.0261
   7.1796E-02   7.3543E-02   1.9935E-04  0.0251
   7.3543E-02   7.5332E-02   1.7831E-04  0.0262
   7.5332E-02   7.7165E-02   1.7496E-04  0.0262
   7.7165E-02   7.9042E-02   1.6825E-04  0.0264
   7.9042E-02   8.0965E-02   1.6914E-04  0.0259
   8.0965E-02   8.2935E-02   1.7435E-04  0.0252
   8.2935E-02   8.4953E-02   1.7144E-04  0.0252
   8.4953E-02   8.7020E-02   1.6209E-04  0.0256
   8.7020E-02   8.9138E-02   1.6271E-04  0.0252
   8.9138E-02   9.1306E-02   1.5891E-04  0.0252
   9.1306E-02   9.3528E-02   1.5611E-04  0.0251
   9.3528E-02   9.5804E-02   1.4759E-04  0.0255
   9.5804E-02   9.8134E-02   1.4790E-04  0.0252
   9.8134E-02   1.0052E-01   1.4343E-04  0.0253
   1.0052E-01   1.0297E-01   1.4180E-04  0.0251
   1.0297E-01   1.0547E-01   1.3291E-04  0.0256
   1.0547E-01   1.0804E-01   1.3496E-04  0.0252
   1.0804E-01   1.1067E-01   1.3077E-04  0.0253
   1.1067E-01   1.1336E-01   1.2837E-04  0.0252
   1.1336E-01   1.1612E-01   1.2643E-04  0.0251
   1.1612E-01   1.1894E-01   1.2582E-04  0.0248
   1.1894E-01   1.2184E-01   1.2635E-04  0.0244
   1.2184E-01   1.2480E-01   1.1759E-04  0.0251
   1.2480E-01   1.2784E-01   1.1785E-04  0.0247
   1.2784E-01   1.3095E-01   1.1776E-04  0.0245
   1.3095E-01   1.3414E-01   1.0934E-04  0.0251
   1.3414E-01   1.3740E-01   1.0861E-04  0.0249
   1.3740E-01   1.4074E-01   1.0769E-04  0.0247
   1.4074E-01   1.4417E-01   1.0169E-04  0.0250
   1.4417E-01   1.4767E-01   9.8794E-05  0.0251
   1.4767E-01   1.5127E-01   9.9697E-05  0.0247
   1.5127E-01   1.5495E-01   9.9604E-05  0.0245
   1.5495E-01   1.5872E-01   9.2805E-05  0.0250
   1.5872E-01   1.6258E-01   9.5014E-05  0.0244
   1.6258E-01   1.6654E-01   9.2910E-05  0.0244
   1.6654E-01   1.7059E-01   9.3395E-05  0.0241
   1.7059E-01   1.7474E-01   8.6302E-05  0.0247
   1.7474E-01   1.7899E-01   8.6964E-05  0.0243
   1.7899E-01   1.8334E-01   8.7081E-05  0.0240
   1.8334E-01   1.8781E-01   8.2403E-05  0.0244
   1.8781E-01   1.9237E-01   8.1279E-05  0.0243
   1.9237E-01   1.9706E-01   7.9919E-05  0.0242
   1.9706E-01   2.0185E-01   8.0227E-05  0.0239
   2.0185E-01   2.0676E-01   8.0938E-05  0.0235
   2.0676E-01   2.1179E-01   8.2888E-05  0.0229
   2.1179E-01   2.1694E-01   8.6318E-05  0.0222
   2.1694E-01   2.2222E-01   8.9605E-05  0.0215
   2.2222E-01   2.2763E-01   8.9621E-05  0.0213
   2.2763E-01   2.3317E-01   9.6021E-05  0.0203
   2.3317E-01   2.3884E-01   9.9053E-05  0.0197
   2.3884E-01   2.4465E-01   1.0278E-04  0.0191
   2.4465E-01   2.5061E-01   1.0416E-04  0.0188
   2.5061E-01   2.5670E-01   1.1072E-04  0.0180
   2.5670E-01   2.6295E-01   1.1244E-04  0.0177
   2.6295E-01   2.6935E-01   1.1171E-04  0.0175
   2.6935E-01   2.7590E-01   1.2196E-04  0.0166
   2.7590E-01   2.8261E-01   1.2266E-04  0.0163
   2.8261E-01   2.8949E-01   1.2702E-04  0.0158
   2.8949E-01   2.9653E-01   1.3042E-04  0.0154
   2.9653E-01   3.0375E-01   1.3286E-04  0.0151
   3.0375E-01   3.1114E-01   1.3914E-04  0.0146
   3.1114E-01   3.1871E-01   1.4723E-04  0.0140
   3.1871E-01   3.2646E-01   1.4473E-04  0.0140
   3.2646E-01   3.3441E-01   1.5088E-04  0.0135
   3.3441E-01   3.4254E-01   1.5691E-04  0.0131
   3.4254E-01   3.5088E-01   1.6102E-04  0.0128
   3.5088E-01   3.5941E-01   1.6328E-04  0.0125
   3.5941E-01   3.6816E-01   1.6813E-04  0.0122
   3.6816E-01   3.7712E-01   1.7276E-04  0.0119
   3.7712E-01   3.8629E-01   1.7647E-04  0.0116
   3.8629E-01   3.9569E-01   1.8643E-04  0.0112
   3.9569E-01   4.0532E-01   1.8751E-04  0.0110
   4.0532E-01   4.1518E-01   1.9062E-04  0.0108
   4.1518E-01   4.2528E-01   1.9483E-04  0.0105
   4.2528E-01   4.3563E-01   1.9862E-04  0.0103
   4.3563E-01   4.4623E-01   2.0662E-04  0.0100
   4.4623E-01   4.5708E-01   2.1469E-04  0.0097
   4.5708E-01   4.6821E-01   2.1331E-04  0.0096
   4.6821E-01   4.7960E-01   2.1909E-04  0.0094
   4.7960E-01   4.9127E-01   2.2339E-04  0.0092
   4.9127E-01   5.0322E-01   2.2948E-04  0.0089
   5.0322E-01   5.1546E-01   2.3162E-04  0.0088
   5.1546E-01   5.2800E-01   2.3643E-04  0.0086
   5.2800E-01   5.4085E-01   2.4139E-04  0.0084
   5.4085E-01   5.5401E-01   2.4891E-04  0.0082
   5.5401E-01   5.6749E-01   2.5169E-04  0.0080
   5.6749E-01   5.8130E-01   2.5297E-04  0.0079
   5.8130E-01   5.9544E-01   2.6066E-04  0.0077
   5.9544E-01   6.0993E-01   2.6136E-04  0.0076
   6.0993E-01   6.2477E-01   2.6694E-04  0.0074
   6.2477E-01   6.3997E-01   2.6804E-04  0.0073
   6.3997E-01   6.5554E-01   2.7510E-04  0.0071
   6.5554E-01   6.7149E-01   2.7965E-04  0.0070
   6.7149E-01   6.8783E-01   2.7820E-04  0.0069
   6.8783E-01   7.0456E-01   2.8408E-04  0.0068
   7.0456E-01   7.2171E-01   2.8906E-04  0.0066
   7.2171E-01   7.3927E-01   2.9019E-04  0.0065
   7.3927E-01   7.5725E-01   2.9159E-04  0.0065
   7.5725E-01   7.7568E-01   2.9708E-04  0.0063
   7.7568E-01   7.9455E-01   2.9849E-04  0.0062
   7.9455E-01   8.1388E-01   3.0113E-04  0.0061
   8.1388E-01   8.3368E-01   3.0525E-04  0.0060
   8.3368E-01   8.5397E-01   3.0720E-04  0.0059
   8.5397E-01   8.7475E-01   3.1455E-04  0.0058
   8.7475E-01   8.9603E-01   3.1474E-04  0.0057
   8.9603E-01   9.1783E-01   3.1937E-04  0.0056
   9.1783E-01   9.4016E-01   3.2312E-04  0.0055
   9.4016E-01   9.6304E-01   3.2298E-04  0.0054
   9.6304E-01   9.8647E-01   3.2505E-04  0.0054
   9.8647E-01   1.0105E+00   3.2641E-04  0.0053
   1.0105E+00   1.0351E+00   3.2695E-04  0.0052
   1.0351E+00   1.0602E+00   3.2687E-04  0.0051
   1.0602E+00   1.0860E+00   3.2346E-04  0.0051
   1.0860E+00   1.1125E+00   3.2416E-04  0.0050
   1.1125E+00   1.1395E+00   3.2459E-04  0.0050
   1.1395E+00   1.1673E+00   3.2443E-04  0.0049
   1.1673E+00   1.1957E+00   3.2545E-04  0.0049
   1.1957E+00   1.2247E+00   3.3232E-04  0.0047
   1.2247E+00   1.2545E+00   3.3028E-04  0.0047
   1.2545E+00   1.2851E+00   3.2895E-04  0.0047
   1.2851E+00   1.3163E+00   3.2802E-04  0.0046
   1.3163E+00   1.3484E+00   3.2760E-04  0.0046
   1.3484E+00   1.3812E+00   3.2994E-04  0.0045
   1.3812E+00   1.4148E+00   3.3168E-04  0.0044
   1.4148E+00   1.4492E+00   3.3344E-04  0.0044
   1.4492E+00   1.4845E+00   3.3400E-04  0.0043
   1.4845E+00   1.5206E+00   3.3799E-04  0.0042
   1.5206E+00   1.5576E+00   3.3551E-04  0.0042
   1.5576E+00   1.5955E+00   3.2926E-04  0.0042
   1.5955E+00   1.6343E+00   3.2734E-04  0.0041
   1.6343E+00   1.6741E+00   3.2609E-04  0.0041
   1.6741E+00   1.7148E+00   3.2119E-04  0.0041
   1.7148E+00   1.7565E+00   3.2033E-04  0.0040
   1.7565E+00   1.7992E+00   3.2208E-04  0.0040
   1.7992E+00   1.8430E+00   3.2171E-04  0.0039
   1.8430E+00   1.8879E+00   3.1713E-04  0.0039
   1.8879E+00   1.9338E+00   3.1806E-04  0.0039
   1.9338E+00   1.9808E+00   3.1744E-04  0.0038
   1.9808E+00   2.0290E+00   3.1686E-04  0.0038
   2.0290E+00   2.0784E+00   3.1355E-04  0.0038
   2.0784E+00   2.1290E+00   3.0859E-04  0.0037
   2.1290E+00   2.1808E+00   3.0624E-04  0.0037
   2.1808E+00   2.2338E+00   3.0318E-04  0.0037
   2.2338E+00   2.2882E+00   2.9869E-04  0.0037
   2.2882E+00   2.3439E+00   2.9620E-04  0.0036
   2.3439E+00   2.4009E+00   2.9432E-04  0.0036
   2.4009E+00   2.4593E+00   2.9464E-04  0.0036
   2.4593E+00   2.5191E+00   2.9425E-04  0.0035
   2.5191E+00   2.5804E+00   2.9143E-04  0.0035
   2.5804E+00   2.6432E+00   2.8791E-04  0.0035
   2.6432E+00   2.7075E+00   2.8325E-04  0.0035
   2.7075E+00   2.7734E+00   2.8172E-04  0.0034
   2.7734E+00   2.8409E+00   2.7660E-04  0.0034
   2.8409E+00   2.9100E+00   2.7371E-04  0.0034
   2.9100E+00   2.9808E+00   2.7172E-04  0.0034
   2.9808E+00   3.0533E+00   2.6992E-04  0.0033
   3.0533E+00   3.1276E+00   2.6616E-04  0.0033
   3.1276E+00   3.2037E+00   2.6115E-04  0.0033
   3.2037E+00   3.2817E+00   2.5769E-04  0.0033
   3.2817E+00   3.3615E+00   2.5397E-04  0.0033
   3.3615E+00   3.4433E+00   2.5083E-04  0.0033
   3.4433E+00   3.5271E+00   2.4813E-04  0.0032
   3.5271E+00   3.6129E+00   2.4501E-04  0.0032
   3.6129E+00   3.7008E+00   2.4057E-04  0.0032
   3.7008E+00   3.7908E+00   2.3574E-04  0.0032
   3.7908E+00   3.8831E+00   2.3155E-04  0.0032
   3.8831E+00   3.9776E+00   2.2898E-04  0.0032
   3.9776E+00   4.0743E+00   2.2669E-04  0.0032
   4.0743E+00   4.1735E+00   2.2474E-04  0.0031
   4.1735E+00   4.2750E+00   2.1798E-04  0.0031
   4.2750E+00   4.3790E+00   2.1525E-04  0.0031
   4.3790E+00   4.4856E+00   2.1125E-04  0.0031
   4.4856E+00   4.5947E+00   2.0996E-04  0.0031
   4.5947E+00   4.7065E+00   2.0668E-04  0.0031
   4.7065E+00   4.8210E+00   2.0277E-04  0.0031
   4.8210E+00   4.9383E+00   2.0007E-04  0.0031
   4.9383E+00   5.0585E+00   1.9807E-04  0.0030
   5.0585E+00   5.1815E+00   1.9707E-04  0.0030
   5.1815E+00   5.3076E+00   1.9500E-04  0.0030
   5.3076E+00   5.4368E+00   1.9072E-04  0.0030
   5.4368E+00   5.5690E+00   1.8758E-04  0.0030
   5.5690E+00   5.7045E+00   1.8369E-04  0.0030
   5.7045E+00   5.8433E+00   1.7844E-04  0.0030
   5.8433E+00   5.9855E+00   1.7540E-04  0.0030
   5.9855E+00   6.1311E+00   1.7200E-04  0.0030
   6.1311E+00   6.2803E+00   1.6758E-04  0.0030
   6.2803E+00   6.4331E+00   1.6346E-04  0.0030
   6.4331E+00   6.5896E+00   1.5960E-04  0.0030
   6.5896E+00   6.7500E+00   1.5720E-04  0.0030
   6.7500E+00   6.9142E+00   1.5312E-04  0.0030
   6.9142E+00   7.0824E+00   1.4930E-04  0.0030
   7.0824E+00   7.2548E+00   1.4680E-04  0.0030
   7.2548E+00   7.4313E+00   1.4285E-04  0.0030
   7.4313E+00   7.6121E+00   1.3966E-04  0.0030
   7.6121E+00   7.7973E+00   1.3625E-04  0.0030
   7.7973E+00   7.9870E+00   1.3435E-04  0.0029
   7.9870E+00   8.1813E+00   1.3075E-04  0.0029
   8.1813E+00   8.3804E+00   1.2823E-04  0.0029
   8.3804E+00   8.5843E+00   1.2593E-04  0.0029
   8.5843E+00   8.7931E+00   1.2295E-04  0.0029
   8.7931E+00   9.0071E+00   1.2118E-04  0.0029
   9.0071E+00   9.2262E+00   1.1836E-04  0.0029
   9.2262E+00   9.4507E+00   1.1598E-04  0.0029
   9.4507E+00   9.6807E+00   1.1400E-04  0.0029
   9.6807E+00   9.9162E+00   1.1210E-04  0.0029
   9.9162E+00   1.0157E+01   1.0970E-04  0.0029
   1.0157E+01   1.0405E+01   1.0724E-04  0.0029
   1.0405E+01   1.0658E+01   1.0599E-04  0.0029
   1.0658E+01   1.0917E+01   1.0409E-04  0.0029
   1.0917E+01   1.1183E+01   1.0225E-04  0.0029
   1.1183E+01   1.1455E+01   1.0091E-04  0.0028
   1.1455E+01   1.1733E+01   9.9064E-05  0.0028
   1.1733E+01   1.2019E+01   9.7782E-05  0.0028
   1.2019E+01   1.2311E+01   9.6357E-05  0.0028
   1.2311E+01   1.2611E+01   9.4676E-05  0.0028
   1.2611E+01   1.2918E+01   9.3236E-05  0.0028
   1.2918E+01   1.3232E+01   9.1822E-05  0.0028
   1.3232E+01   1.3554E+01   9.1040E-05  0.0028
   1.3554E+01   1.3884E+01   8.9861E-05  0.0027
   1.3884E+01   1.4222E+01   8.8541E-05  0.0027
   1.4222E+01   1.4568E+01   8.7147E-05  0.0027
   1.4568E+01   1.4922E+01   8.7106E-05  0.0027
   1.4922E+01   1.5285E+01   8.5514E-05  0.0027
   1.5285E+01   1.5657E+01   8.5046E-05  0.0027
   1.5657E+01   1.6038E+01   8.3802E-05  0.0026
   1.6038E+01   1.6428E+01   8.2839E-05  0.0026
   1.6428E+01   1.6828E+01   8.2421E-05  0.0026
   1.6828E+01   1.7237E+01   8.1260E-05  0.0026
   1.7237E+01   1.7657E+01   8.1249E-05  0.0026
   1.7657E+01   1.8086E+01   7.9858E-05  0.0025
   1.8086E+01   1.8526E+01   7.9578E-05  0.0025
   1.8526E+01   1.8977E+01   7.9365E-05  0.0025
   1.8977E+01   1.9439E+01   8.0240E-05  0.0024
   1.9439E+01   1.9912E+01   8.2135E-05  0.0024
   1.9912E+01   2.0396E+01   8.4157E-05  0.0023
   2.0396E+01   2.0893E+01   8.3667E-05  0.0023
   2.0893E+01   2.1401E+01   8.3690E-05  0.0023
   2.1401E+01   2.1922E+01   8.3626E-05  0.0023
   2.1922E+01   2.2455E+01   8.3357E-05  0.0022
   2.2455E+01   2.3001E+01   8.3269E-05  0.0022
   2.3001E+01   2.3561E+01   8.3806E-05  0.0022
   2.3561E+01   2.4134E+01   8.3556E-05  0.0022
   2.4134E+01   2.4721E+01   8.3979E-05  0.0021
   2.4721E+01   2.5323E+01   8.4472E-05  0.0021
   2.5323E+01   2.5939E+01   8.4624E-05  0.0021
   2.5939E+01   2.6570E+01   8.5371E-05  0.0020
   2.6570E+01   2.7217E+01   8.6137E-05  0.0020
   2.7217E+01   2.7879E+01   8.6797E-05  0.0020
   2.7879E+01   2.8557E+01   8.7654E-05  0.0019
   2.8557E+01   2.9252E+01   8.8501E-05  0.0019
   2.9252E+01   2.9964E+01   8.9637E-05  0.0019
   2.9964E+01   3.0693E+01   9.1090E-05  0.0018
   3.0693E+01   3.1440E+01   9.2407E-05  0.0018
   3.1440E+01   3.2205E+01   9.4194E-05  0.0018
   3.2205E+01   3.2988E+01   9.6099E-05  0.0017
   3.2988E+01   3.3791E+01   9.8324E-05  0.0017
   3.3791E+01   3.4613E+01   1.0037E-04  0.0016
   3.4613E+01   3.5455E+01   1.0298E-04  0.0016
   3.5455E+01   3.6318E+01   1.0622E-04  0.0016
   3.6318E+01   3.7201E+01   1.0928E-04  0.0015
   3.7201E+01   3.8106E+01   1.1249E-04  0.0015
   3.8106E+01   3.9034E+01   1.1668E-04  0.0014
   3.9034E+01   3.9983E+01   1.2090E-04  0.0014
   3.9983E+01   4.0956E+01   1.2518E-04  0.0014
   4.0956E+01   4.1953E+01   1.2970E-04  0.0013
   4.1953E+01   4.2973E+01   1.3558E-04  0.0013
   4.2973E+01   4.4019E+01   1.4102E-04  0.0012
   4.4019E+01   4.5090E+01   1.4718E-04  0.0012
   4.5090E+01   4.6187E+01   1.5323E-04  0.0011
   4.6187E+01   4.7311E+01   1.5979E-04  0.0011
   4.7311E+01   4.8462E+01   1.6724E-04  0.0011
   4.8462E+01   4.9641E+01   1.7409E-04  0.0010
   4.9641E+01   5.0849E+01   1.8161E-04  0.0010
   5.0849E+01   5.2086E+01   1.8924E-04  0.0010
   5.2086E+01   5.3353E+01   1.9687E-04  0.0009
   5.3353E+01   5.4651E+01   2.0479E-04  0.0009
   5.4651E+01   5.5981E+01   2.1196E-04  0.0009
   5.5981E+01   5.7343E+01   2.1917E-04  0.0009
   5.7343E+01   5.8738E+01   2.2549E-04  0.0008
   5.8738E+01   6.0168E+01   2.3152E-04  0.0008
   6.0168E+01   6.1632E+01   2.3648E-04  0.0008
   6.1632E+01   6.3131E+01   2.4039E-04  0.0008
   6.3131E+01   6.4667E+01   2.4321E-04  0.0008
   6.4667E+01   6.6240E+01   2.4481E-04  0.0008
   6.6240E+01   6.7852E+01   2.4499E-04  0.0008
   6.7852E+01   6.9503E+01   2.4364E-04  0.0007
   6.9503E+01   7.1194E+01   2.4049E-04  0.0007
   7.1194E+01   7.2926E+01   2.3590E-04  0.0007
   7.2926E+01   7.4701E+01   2.3006E-04  0.0007
   7.4701E+01   7.6518E+01   2.2267E-04  0.0007
   7.6518E+01   7.8380E+01   2.1385E-04  0.0007
   7.8380E+01   8.0287E+01   2.0371E-04  0.0008
   8.0287E+01   8.2240E+01   1.9325E-04  0.0008
   8.2240E+01   8.4241E+01   1.8176E-04  0.0008
   8.4241E+01   8.6291E+01   1.7006E-04  0.0008
   8.6291E+01   8.8391E+01   1.5780E-04  0.0008
   8.8391E+01   9.0541E+01   1.4571E-04  0.0008
   9.0541E+01   9.2744E+01   1.3377E-04  0.0009
   9.2744E+01   9.5001E+01   1.2221E-04  0.0009
   9.5001E+01   9.7312E+01   1.1103E-04  0.0009
   9.7312E+01   9.9680E+01   1.0009E-04  0.0010
   9.9680E+01   1.0211E+02   9.0056E-05  0.0010
   1.0211E+02   1.0459E+02   8.0345E-05  0.0011
   1.0459E+02   1.0713E+02   7.1263E-05  0.0011
   1.0713E+02   1.0974E+02   6.2814E-05  0.0012
   1.0974E+02   1.1241E+02   5.5053E-05  0.0012
   1.1241E+02   1.1515E+02   4.8160E-05  0.0013
   1.1515E+02   1.1795E+02   4.3196E-05  0.0014
   1.1795E+02   1.2082E+02   3.8574E-05  0.0014
   1.2082E+02   1.2376E+02   3.3463E-05  0.0015
   1.2376E+02   1.2677E+02   2.8228E-05  0.0016
   1.2677E+02   1.2985E+02   2.3441E-05  0.0018
   1.2985E+02   1.3301E+02   1.9324E-05  0.0019
   1.3301E+02   1.3625E+02   1.5758E-05  0.0021
   1.3625E+02   1.3956E+02   1.2675E-05  0.0023
   1.3956E+02   1.4296E+02   1.0123E-05  0.0025
   1.4296E+02   1.4644E+02   7.9873E-06  0.0028
   1.4644E+02   1.5000E+02   6.2968E-06  0.0031

#   sum over                 1.1797E-04
'no. =    1   reg = 105 - 205'
msuc: {\huge [t-cross] in region mesh}
msdr: {\it plotted by \ANGEL \version}
msdl: {\it calculated by \PHITS  3.28}
wt: s(0.7)
\vspace{-3}
  region surface crossing
  area  &=&   1.0000E+00 [cm^2]
e:
 
# Information for Restart Calculation
# This calculation was newly started
# istdev =  2 # 1:Batch variance, 2:History variance
# resc2  = 4.50000000000000000E+09 # Total source weight or Total source weight / maxcas
# resc3  = 4.50000000000000000E+09 # Total history number or Total batch number
# maxcas =   500000000 # History / Batch, only used for istdev=1
# bitrseed = 0100111111101111000100100111100101111100111000110000100001000100 # bit data of rseed
