[ T-Cross ]
    title = [t-cross] in region mesh
     mesh =  reg            # mesh type is region-wise
      reg =    1            # number of crossing regions
      non     r-from    r-to       area
      1       126       226        1.000000    
   e-type =    3            # e-mesh is log given by emin, emax and ne
     emin =  1.0000000E-02  # minimum value of e-mesh points
     emax =   150.0000      # maximum value of e-mesh points
#    edel =  2.4039514E-02  # mesh width of e-mesh points
       ne =    400          # number of e-mesh points
#    data = ( e(i), i = 1, ne + 1 )
#           1.00000E-02  1.02433E-02  1.04925E-02  1.07478E-02  1.10093E-02
#           1.12772E-02  1.15516E-02  1.18326E-02  1.21205E-02  1.24154E-02
#           1.27175E-02  1.30269E-02  1.33439E-02  1.36686E-02  1.40011E-02
#           1.43418E-02  1.46907E-02  1.50482E-02  1.54143E-02  1.57894E-02
#           1.61735E-02  1.65670E-02  1.69701E-02  1.73830E-02  1.78060E-02
#           1.82392E-02  1.86830E-02  1.91375E-02  1.96032E-02  2.00801E-02
#           2.05687E-02  2.10692E-02  2.15818E-02  2.21069E-02  2.26448E-02
#           2.31957E-02  2.37601E-02  2.43382E-02  2.49304E-02  2.55369E-02
#           2.61583E-02  2.67947E-02  2.74467E-02  2.81145E-02  2.87985E-02
#           2.94992E-02  3.02169E-02  3.09521E-02  3.17052E-02  3.24766E-02
#           3.32668E-02  3.40762E-02  3.49053E-02  3.57546E-02  3.66246E-02
#           3.75157E-02  3.84284E-02  3.93634E-02  4.03212E-02  4.13022E-02
#           4.23071E-02  4.33365E-02  4.43909E-02  4.54710E-02  4.65773E-02
#           4.77106E-02  4.88714E-02  5.00605E-02  5.12785E-02  5.25262E-02
#           5.38042E-02  5.51133E-02  5.64542E-02  5.78278E-02  5.92348E-02
#           6.06760E-02  6.21523E-02  6.36645E-02  6.52135E-02  6.68002E-02
#           6.84255E-02  7.00904E-02  7.17957E-02  7.35426E-02  7.53319E-02
#           7.71648E-02  7.90423E-02  8.09655E-02  8.29354E-02  8.49533E-02
#           8.70203E-02  8.91376E-02  9.13064E-02  9.35279E-02  9.58035E-02
#           9.81345E-02  1.00522E-01  1.02968E-01  1.05473E-01  1.08040E-01
#           1.10668E-01  1.13361E-01  1.16119E-01  1.18944E-01  1.21838E-01
#           1.24803E-01  1.27839E-01  1.30950E-01  1.34136E-01  1.37399E-01
#           1.40742E-01  1.44167E-01  1.47675E-01  1.51268E-01  1.54948E-01
#           1.58718E-01  1.62580E-01  1.66535E-01  1.70587E-01  1.74738E-01
#           1.78989E-01  1.83344E-01  1.87805E-01  1.92375E-01  1.97055E-01
#           2.01850E-01  2.06761E-01  2.11792E-01  2.16945E-01  2.22223E-01
#           2.27630E-01  2.33169E-01  2.38842E-01  2.44653E-01  2.50605E-01
#           2.56703E-01  2.62949E-01  2.69346E-01  2.75900E-01  2.82613E-01
#           2.89489E-01  2.96532E-01  3.03747E-01  3.11138E-01  3.18708E-01
#           3.26462E-01  3.34405E-01  3.42542E-01  3.50876E-01  3.59413E-01
#           3.68158E-01  3.77116E-01  3.86291E-01  3.95690E-01  4.05317E-01
#           4.15179E-01  4.25281E-01  4.35628E-01  4.46227E-01  4.57084E-01
#           4.68205E-01  4.79597E-01  4.91266E-01  5.03219E-01  5.15463E-01
#           5.28005E-01  5.40851E-01  5.54011E-01  5.67490E-01  5.81298E-01
#           5.95441E-01  6.09929E-01  6.24769E-01  6.39970E-01  6.55541E-01
#           6.71491E-01  6.87828E-01  7.04564E-01  7.21706E-01  7.39266E-01
#           7.57253E-01  7.75678E-01  7.94551E-01  8.13883E-01  8.33685E-01
#           8.53969E-01  8.74747E-01  8.96030E-01  9.17831E-01  9.40163E-01
#           9.63038E-01  9.86469E-01  1.01047E+00  1.03506E+00  1.06024E+00
#           1.08604E+00  1.11246E+00  1.13953E+00  1.16725E+00  1.19565E+00
#           1.22474E+00  1.25454E+00  1.28507E+00  1.31633E+00  1.34836E+00
#           1.38117E+00  1.41477E+00  1.44920E+00  1.48446E+00  1.52057E+00
#           1.55757E+00  1.59547E+00  1.63429E+00  1.67405E+00  1.71478E+00
#           1.75650E+00  1.79924E+00  1.84302E+00  1.88786E+00  1.93379E+00
#           1.98084E+00  2.02904E+00  2.07841E+00  2.12898E+00  2.18078E+00
#           2.23384E+00  2.28819E+00  2.34386E+00  2.40089E+00  2.45930E+00
#           2.51914E+00  2.58043E+00  2.64322E+00  2.70753E+00  2.77341E+00
#           2.84088E+00  2.91001E+00  2.98081E+00  3.05333E+00  3.12762E+00
#           3.20372E+00  3.28167E+00  3.36152E+00  3.44330E+00  3.52708E+00
#           3.61290E+00  3.70080E+00  3.79085E+00  3.88308E+00  3.97756E+00
#           4.07434E+00  4.17347E+00  4.27501E+00  4.37903E+00  4.48557E+00
#           4.59471E+00  4.70650E+00  4.82102E+00  4.93832E+00  5.05847E+00
#           5.18155E+00  5.30762E+00  5.43676E+00  5.56904E+00  5.70453E+00
#           5.84333E+00  5.98550E+00  6.13114E+00  6.28031E+00  6.43312E+00
#           6.58964E+00  6.74997E+00  6.91420E+00  7.08243E+00  7.25475E+00
#           7.43126E+00  7.61207E+00  7.79728E+00  7.98700E+00  8.18133E+00
#           8.38038E+00  8.58428E+00  8.79315E+00  9.00709E+00  9.22624E+00
#           9.45072E+00  9.68067E+00  9.91620E+00  1.01575E+01  1.04046E+01
#           1.06578E+01  1.09171E+01  1.11827E+01  1.14548E+01  1.17335E+01
#           1.20190E+01  1.23114E+01  1.26109E+01  1.29178E+01  1.32321E+01
#           1.35540E+01  1.38838E+01  1.42216E+01  1.45676E+01  1.49221E+01
#           1.52851E+01  1.56570E+01  1.60380E+01  1.64282E+01  1.68279E+01
#           1.72374E+01  1.76568E+01  1.80864E+01  1.85264E+01  1.89772E+01
#           1.94389E+01  1.99119E+01  2.03963E+01  2.08926E+01  2.14009E+01
#           2.19216E+01  2.24550E+01  2.30014E+01  2.35610E+01  2.41343E+01
#           2.47215E+01  2.53230E+01  2.59391E+01  2.65702E+01  2.72167E+01
#           2.78789E+01  2.85572E+01  2.92520E+01  2.99637E+01  3.06928E+01
#           3.14396E+01  3.22045E+01  3.29881E+01  3.37907E+01  3.46128E+01
#           3.54550E+01  3.63177E+01  3.72013E+01  3.81064E+01  3.90336E+01
#           3.99833E+01  4.09561E+01  4.19526E+01  4.29734E+01  4.40189E+01
#           4.50900E+01  4.61870E+01  4.73108E+01  4.84619E+01  4.96410E+01
#           5.08488E+01  5.20860E+01  5.33533E+01  5.46514E+01  5.59812E+01
#           5.73432E+01  5.87384E+01  6.01676E+01  6.16315E+01  6.31311E+01
#           6.46671E+01  6.62405E+01  6.78522E+01  6.95031E+01  7.11941E+01
#           7.29263E+01  7.47007E+01  7.65182E+01  7.83800E+01  8.02870E+01
#           8.22405E+01  8.42414E+01  8.62911E+01  8.83906E+01  9.05412E+01
#           9.27442E+01  9.50007E+01  9.73122E+01  9.96799E+01  1.02105E+02
#           1.04589E+02  1.07134E+02  1.09741E+02  1.12411E+02  1.15146E+02
#           1.17948E+02  1.20817E+02  1.23757E+02  1.26768E+02  1.29852E+02
#           1.33012E+02  1.36248E+02  1.39563E+02  1.42959E+02  1.46437E+02
#           1.50000E+02
     unit =    2            # unit is [1/cm^2/(MeV/n)/source]
     axis =  eng            # axis of output
     file = detector-27.out  # file name of output for the above axis
   output = f-curr          # surface crossing forward current spectrum
     part =  neutron  
# kf/name :  2112     
#    used :        main (  %)        temp (  %)       total (  %)
#  memory :         414 (  0)           0 (  0)         414 (  0)

#------------------------------------------------------------------------------
#newpage:
#   no. =    1   reg = 126 - 226

x: Energy [MeV/n]
y:  F-Curr [1/cm^2/(MeV/n)/source]         
p: xlog ylog afac(0.8) form(0.9)
h: n            x            y(neutron ),hh0l   n 
#  e-lower      e-upper      neutron     r.err 
   1.0000E-02   1.0243E-02   1.3563E-04  0.1741
   1.0243E-02   1.0493E-02   1.2438E-04  0.1796
   1.0493E-02   1.0748E-02   1.4102E-04  0.1667
   1.0748E-02   1.1009E-02   1.6061E-04  0.1543
   1.1009E-02   1.1277E-02   1.1946E-04  0.1768
   1.1277E-02   1.1552E-02   1.4578E-04  0.1581
   1.1552E-02   1.1833E-02   1.6722E-04  0.1459
   1.1833E-02   1.2121E-02   1.9451E-04  0.1336
   1.2121E-02   1.2415E-02   1.6955E-04  0.1414
   1.2415E-02   1.2718E-02   1.6552E-04  0.1414
   1.2718E-02   1.3027E-02   1.6159E-04  0.1414
   1.3027E-02   1.3344E-02   1.6091E-04  0.1400
   1.3344E-02   1.3669E-02   1.6016E-04  0.1387
   1.3669E-02   1.4001E-02   1.6237E-04  0.1361
   1.4001E-02   1.4342E-02   1.4677E-04  0.1414
   1.4342E-02   1.4691E-02   1.5189E-04  0.1374
   1.4691E-02   1.5048E-02   1.7346E-04  0.1270
   1.5048E-02   1.5414E-02   1.8026E-04  0.1231
   1.5414E-02   1.5789E-02   1.5732E-04  0.1302
   1.5789E-02   1.6174E-02   1.6659E-04  0.1250
   1.6174E-02   1.6567E-02   1.1690E-04  0.1474
   1.6567E-02   1.6970E-02   1.7118E-04  0.1204
   1.6970E-02   1.7383E-02   1.7680E-04  0.1170
   1.7383E-02   1.7806E-02   1.5132E-04  0.1250
   1.7806E-02   1.8239E-02   1.5234E-04  0.1231
   1.8239E-02   1.8683E-02   1.6450E-04  0.1170
   1.8683E-02   1.9138E-02   1.3199E-04  0.1291
   1.9138E-02   1.9603E-02   1.7825E-04  0.1098
   1.9603E-02   2.0080E-02   1.7612E-04  0.1091
   2.0080E-02   2.0569E-02   1.5965E-04  0.1132
   2.0569E-02   2.1069E-02   1.6385E-04  0.1104
   2.1069E-02   2.1582E-02   1.6971E-04  0.1072
   2.1582E-02   2.2107E-02   1.5045E-04  0.1125
   2.2107E-02   2.2645E-02   1.8963E-04  0.0990
   2.2645E-02   2.3196E-02   2.1961E-04  0.0909
   2.3196E-02   2.3760E-02   2.0199E-04  0.0937
   2.3760E-02   2.4338E-02   1.6087E-04  0.1037
   2.4338E-02   2.4930E-02   2.0433E-04  0.0909
   2.4930E-02   2.5537E-02   1.9289E-04  0.0925
   2.5537E-02   2.6158E-02   1.8991E-04  0.0921
   2.6158E-02   2.6795E-02   1.8226E-04  0.0928
   2.6795E-02   2.7447E-02   2.0094E-04  0.0874
   2.7447E-02   2.8114E-02   1.9018E-04  0.0887
   2.8114E-02   2.8799E-02   1.7250E-04  0.0921
   2.8799E-02   2.9499E-02   1.9695E-04  0.0851
   2.9499E-02   3.0217E-02   1.9924E-04  0.0836
   3.0217E-02   3.0952E-02   2.3259E-04  0.0765
   3.0952E-02   3.1705E-02   1.8457E-04  0.0848
   3.1705E-02   3.2477E-02   2.4241E-04  0.0731
   3.2477E-02   3.3267E-02   2.1134E-04  0.0774
   3.3267E-02   3.4076E-02   2.2238E-04  0.0745
   3.4076E-02   3.4905E-02   2.1831E-04  0.0743
   3.4905E-02   3.5755E-02   1.9664E-04  0.0774
   3.5755E-02   3.6625E-02   1.9542E-04  0.0767
   3.6625E-02   3.7516E-02   2.2444E-04  0.0707
   3.7516E-02   3.8428E-02   2.4321E-04  0.0671
   3.8428E-02   3.9363E-02   2.4599E-04  0.0659
   3.9363E-02   4.0321E-02   1.8794E-04  0.0745
   4.0321E-02   4.1302E-02   1.9469E-04  0.0724
   4.1302E-02   4.2307E-02   2.1892E-04  0.0674
   4.2307E-02   4.3337E-02   2.2150E-04  0.0662
   4.3337E-02   4.4391E-02   2.1054E-04  0.0671
   4.4391E-02   4.5471E-02   2.3610E-04  0.0626
   4.5471E-02   4.6577E-02   2.1783E-04  0.0644
   4.6577E-02   4.7711E-02   2.0207E-04  0.0661
   4.7711E-02   4.8871E-02   2.3087E-04  0.0611
   4.8871E-02   5.0061E-02   2.3548E-04  0.0598
   5.0061E-02   5.1279E-02   2.3317E-04  0.0593
   5.1279E-02   5.2526E-02   2.0919E-04  0.0619
   5.2526E-02   5.3804E-02   2.0579E-04  0.0617
   5.3804E-02   5.5113E-02   2.4444E-04  0.0559
   5.5113E-02   5.6454E-02   2.4460E-04  0.0552
   5.6454E-02   5.7828E-02   2.5918E-04  0.0530
   5.7828E-02   5.9235E-02   2.2033E-04  0.0568
   5.9235E-02   6.0676E-02   2.3869E-04  0.0539
   6.0676E-02   6.2152E-02   2.5808E-04  0.0512
   6.2152E-02   6.3665E-02   2.6121E-04  0.0503
   6.3665E-02   6.5214E-02   2.4596E-04  0.0512
   6.5214E-02   6.6800E-02   2.6470E-04  0.0488
   6.6800E-02   6.8426E-02   2.5288E-04  0.0493
   6.8426E-02   7.0090E-02   2.8771E-04  0.0457
   7.0090E-02   7.1796E-02   2.2752E-04  0.0508
   7.1796E-02   7.3543E-02   2.6276E-04  0.0467
   7.3543E-02   7.5332E-02   2.6714E-04  0.0457
   7.5332E-02   7.7165E-02   2.4879E-04  0.0468
   7.7165E-02   7.9042E-02   2.6791E-04  0.0446
   7.9042E-02   8.0965E-02   2.5063E-04  0.0455
   8.0965E-02   8.2935E-02   2.5635E-04  0.0445
   8.2935E-02   8.4953E-02   2.5670E-04  0.0439
   8.4953E-02   8.7020E-02   2.6464E-04  0.0428
   8.7020E-02   8.9138E-02   2.5693E-04  0.0429
   8.9138E-02   9.1306E-02   2.5498E-04  0.0425
   9.1306E-02   9.3528E-02   2.6018E-04  0.0416
   9.3528E-02   9.5804E-02   2.6191E-04  0.0410
   9.5804E-02   9.8134E-02   2.7371E-04  0.0396
   9.8134E-02   1.0052E-01   2.6930E-04  0.0394
   1.0052E-01   1.0297E-01   2.6535E-04  0.0393
   1.0297E-01   1.0547E-01   2.8500E-04  0.0374
   1.0547E-01   1.0804E-01   2.7394E-04  0.0377
   1.0804E-01   1.1067E-01   2.5678E-04  0.0385
   1.1067E-01   1.1336E-01   2.7148E-04  0.0370
   1.1336E-01   1.1612E-01   2.9984E-04  0.0348
   1.1612E-01   1.1894E-01   2.7219E-04  0.0361
   1.1894E-01   1.2184E-01   2.9267E-04  0.0344
   1.2184E-01   1.2480E-01   2.7122E-04  0.0353
   1.2480E-01   1.2784E-01   2.9079E-04  0.0337
   1.2784E-01   1.3095E-01   2.7552E-04  0.0342
   1.3095E-01   1.3414E-01   2.8122E-04  0.0334
   1.3414E-01   1.3740E-01   2.6688E-04  0.0339
   1.3740E-01   1.4074E-01   2.8088E-04  0.0326
   1.4074E-01   1.4417E-01   2.8180E-04  0.0322
   1.4417E-01   1.4767E-01   2.8765E-04  0.0315
   1.4767E-01   1.5127E-01   2.9335E-04  0.0308
   1.5127E-01   1.5495E-01   2.9344E-04  0.0304
   1.5495E-01   1.5872E-01   2.8992E-04  0.0302
   1.5872E-01   1.6258E-01   2.9417E-04  0.0297
   1.6258E-01   1.6654E-01   2.7859E-04  0.0301
   1.6654E-01   1.7059E-01   3.0775E-04  0.0283
   1.7059E-01   1.7474E-01   2.9466E-04  0.0286
   1.7474E-01   1.7899E-01   2.8296E-04  0.0288
   1.7899E-01   1.8334E-01   2.7371E-04  0.0290
   1.8334E-01   1.8781E-01   2.9523E-04  0.0276
   1.8781E-01   1.9237E-01   3.0025E-04  0.0270
   1.9237E-01   1.9706E-01   2.9996E-04  0.0267
   1.9706E-01   2.0185E-01   3.0702E-04  0.0261
   2.0185E-01   2.0676E-01   3.0380E-04  0.0259
   2.0676E-01   2.1179E-01   2.8565E-04  0.0264
   2.1179E-01   2.1694E-01   2.8042E-04  0.0263
   2.1694E-01   2.2222E-01   2.8759E-04  0.0257
   2.2222E-01   2.2763E-01   2.9278E-04  0.0251
   2.2763E-01   2.3317E-01   2.9647E-04  0.0247
   2.3317E-01   2.3884E-01   2.9331E-04  0.0245
   2.3884E-01   2.4465E-01   2.8376E-04  0.0246
   2.4465E-01   2.5061E-01   2.8794E-04  0.0242
   2.5061E-01   2.5670E-01   2.9209E-04  0.0237
   2.5670E-01   2.6295E-01   2.7603E-04  0.0241
   2.6295E-01   2.6935E-01   2.7963E-04  0.0236
   2.6935E-01   2.7590E-01   2.7909E-04  0.0234
   2.7590E-01   2.8261E-01   2.7961E-04  0.0231
   2.8261E-01   2.8949E-01   2.9333E-04  0.0223
   2.8949E-01   2.9653E-01   2.8828E-04  0.0222
   2.9653E-01   3.0375E-01   2.8012E-04  0.0222
   3.0375E-01   3.1114E-01   2.6994E-04  0.0224
   3.1114E-01   3.1871E-01   2.8137E-04  0.0217
   3.1871E-01   3.2646E-01   2.7094E-04  0.0218
   3.2646E-01   3.3441E-01   2.8037E-04  0.0212
   3.3441E-01   3.4254E-01   2.6228E-04  0.0216
   3.4254E-01   3.5088E-01   2.7561E-04  0.0209
   3.5088E-01   3.5941E-01   2.6110E-04  0.0212
   3.5941E-01   3.6816E-01   2.6679E-04  0.0207
   3.6816E-01   3.7712E-01   2.6168E-04  0.0207
   3.7712E-01   3.8629E-01   2.5394E-04  0.0207
   3.8629E-01   3.9569E-01   2.5844E-04  0.0203
   3.9569E-01   4.0532E-01   2.6009E-04  0.0200
   4.0532E-01   4.1518E-01   2.5503E-04  0.0199
   4.1518E-01   4.2528E-01   2.4580E-04  0.0201
   4.2528E-01   4.3563E-01   2.5562E-04  0.0194
   4.3563E-01   4.4623E-01   2.4653E-04  0.0196
   4.4623E-01   4.5708E-01   2.3450E-04  0.0198
   4.5708E-01   4.6821E-01   2.4215E-04  0.0193
   4.6821E-01   4.7960E-01   2.2788E-04  0.0196
   4.7960E-01   4.9127E-01   2.3181E-04  0.0192
   4.9127E-01   5.0322E-01   2.3224E-04  0.0190
   5.0322E-01   5.1546E-01   2.2395E-04  0.0191
   5.1546E-01   5.2800E-01   2.2134E-04  0.0190
   5.2800E-01   5.4085E-01   2.1040E-04  0.0192
   5.4085E-01   5.5401E-01   2.1392E-04  0.0188
   5.5401E-01   5.6749E-01   2.1099E-04  0.0188
   5.6749E-01   5.8130E-01   2.0460E-04  0.0188
   5.8130E-01   5.9544E-01   2.0137E-04  0.0187
   5.9544E-01   6.0993E-01   2.0915E-04  0.0182
   6.0993E-01   6.2477E-01   1.9063E-04  0.0188
   6.2477E-01   6.3997E-01   1.8887E-04  0.0187
   6.3997E-01   6.5554E-01   1.9074E-04  0.0184
   6.5554E-01   6.7149E-01   1.8477E-04  0.0184
   6.7149E-01   6.8783E-01   1.7756E-04  0.0186
   6.8783E-01   7.0456E-01   1.7597E-04  0.0184
   7.0456E-01   7.2171E-01   1.6619E-04  0.0187
   7.2171E-01   7.3927E-01   1.6316E-04  0.0187
   7.3927E-01   7.5725E-01   1.5750E-04  0.0188
   7.5725E-01   7.7568E-01   1.5392E-04  0.0188
   7.7568E-01   7.9455E-01   1.5207E-04  0.0187
   7.9455E-01   8.1388E-01   1.4298E-04  0.0190
   8.1388E-01   8.3368E-01   1.3867E-04  0.0191
   8.3368E-01   8.5397E-01   1.3641E-04  0.0190
   8.5397E-01   8.7475E-01   1.2518E-04  0.0196
   8.7475E-01   8.9603E-01   1.2179E-04  0.0196
   8.9603E-01   9.1783E-01   1.1747E-04  0.0198
   9.1783E-01   9.4016E-01   1.1374E-04  0.0198
   9.4016E-01   9.6304E-01   1.1152E-04  0.0198
   9.6304E-01   9.8647E-01   9.9140E-05  0.0207
   9.8647E-01   1.0105E+00   9.6535E-05  0.0208
   1.0105E+00   1.0351E+00   9.7496E-05  0.0204
   1.0351E+00   1.0602E+00   1.0046E-04  0.0199
   1.0602E+00   1.0860E+00   9.9393E-05  0.0197
   1.0860E+00   1.1125E+00   9.5519E-05  0.0199
   1.1125E+00   1.1395E+00   9.8829E-05  0.0193
   1.1395E+00   1.1673E+00   1.0103E-04  0.0189
   1.1673E+00   1.1957E+00   1.0127E-04  0.0186
   1.1957E+00   1.2247E+00   1.0175E-04  0.0184
   1.2247E+00   1.2545E+00   9.8393E-05  0.0185
   1.2545E+00   1.2851E+00   9.5793E-05  0.0185
   1.2851E+00   1.3163E+00   9.5213E-05  0.0183
   1.3163E+00   1.3484E+00   9.9040E-05  0.0178
   1.3484E+00   1.3812E+00   9.7419E-05  0.0177
   1.3812E+00   1.4148E+00   1.0040E-04  0.0172
   1.4148E+00   1.4492E+00   9.6274E-05  0.0174
   1.4492E+00   1.4845E+00   9.5689E-05  0.0172
   1.4845E+00   1.5206E+00   9.2142E-05  0.0173
   1.5206E+00   1.5576E+00   9.2008E-05  0.0171
   1.5576E+00   1.5955E+00   9.1353E-05  0.0170
   1.5955E+00   1.6343E+00   8.8127E-05  0.0171
   1.6343E+00   1.6741E+00   8.8875E-05  0.0168
   1.6741E+00   1.7148E+00   8.9097E-05  0.0166
   1.7148E+00   1.7565E+00   8.6525E-05  0.0166
   1.7565E+00   1.7992E+00   8.6225E-05  0.0165
   1.7992E+00   1.8430E+00   8.0339E-05  0.0169
   1.8430E+00   1.8879E+00   8.1018E-05  0.0166
   1.8879E+00   1.9338E+00   7.8963E-05  0.0166
   1.9338E+00   1.9808E+00   7.7300E-05  0.0166
   1.9808E+00   2.0290E+00   7.6625E-05  0.0165
   2.0290E+00   2.0784E+00   7.2739E-05  0.0167
   2.0784E+00   2.1290E+00   7.0517E-05  0.0167
   2.1290E+00   2.1808E+00   6.7722E-05  0.0169
   2.1808E+00   2.2338E+00   6.7320E-05  0.0167
   2.2338E+00   2.2882E+00   6.3035E-05  0.0171
   2.2882E+00   2.3439E+00   5.9526E-05  0.0174
   2.3439E+00   2.4009E+00   5.9813E-05  0.0171
   2.4009E+00   2.4593E+00   5.6304E-05  0.0174
   2.4593E+00   2.5191E+00   5.3579E-05  0.0177
   2.5191E+00   2.5804E+00   5.2078E-05  0.0177
   2.5804E+00   2.6432E+00   5.0729E-05  0.0177
   2.6432E+00   2.7075E+00   4.6850E-05  0.0182
   2.7075E+00   2.7734E+00   4.5206E-05  0.0183
   2.7734E+00   2.8409E+00   4.2798E-05  0.0186
   2.8409E+00   2.9100E+00   4.0769E-05  0.0188
   2.9100E+00   2.9808E+00   3.8925E-05  0.0191
   2.9808E+00   3.0533E+00   3.5974E-05  0.0196
   3.0533E+00   3.1276E+00   3.4635E-05  0.0197
   3.1276E+00   3.2037E+00   3.1985E-05  0.0203
   3.2037E+00   3.2817E+00   3.1136E-05  0.0203
   3.2817E+00   3.3615E+00   2.9770E-05  0.0205
   3.3615E+00   3.4433E+00   2.7021E-05  0.0213
   3.4433E+00   3.5271E+00   2.5914E-05  0.0215
   3.5271E+00   3.6129E+00   2.3562E-05  0.0222
   3.6129E+00   3.7008E+00   2.2536E-05  0.0225
   3.7008E+00   3.7908E+00   2.1223E-05  0.0229
   3.7908E+00   3.8831E+00   1.9364E-05  0.0237
   3.8831E+00   3.9776E+00   1.7803E-05  0.0244
   3.9776E+00   4.0743E+00   1.6398E-05  0.0251
   4.0743E+00   4.1735E+00   1.5535E-05  0.0255
   4.1735E+00   4.2750E+00   1.4161E-05  0.0264
   4.2750E+00   4.3790E+00   1.2767E-05  0.0274
   4.3790E+00   4.4856E+00   1.2671E-05  0.0272
   4.4856E+00   4.5947E+00   1.0913E-05  0.0290
   4.5947E+00   4.7065E+00   1.0135E-05  0.0297
   4.7065E+00   4.8210E+00   9.4138E-06  0.0305
   4.8210E+00   4.9383E+00   8.2183E-06  0.0322
   4.9383E+00   5.0585E+00   8.0814E-06  0.0321
   5.0585E+00   5.1815E+00   6.7194E-06  0.0348
   5.1815E+00   5.3076E+00   6.1791E-06  0.0358
   5.3076E+00   5.4368E+00   6.4659E-06  0.0346
   5.4368E+00   5.5690E+00   5.1179E-06  0.0384
   5.5690E+00   5.7045E+00   4.7749E-06  0.0393
   5.7045E+00   5.8433E+00   4.7408E-06  0.0390
   5.8433E+00   5.9855E+00   4.1991E-06  0.0409
   5.9855E+00   6.1311E+00   3.6324E-06  0.0435
   6.1311E+00   6.2803E+00   3.1909E-06  0.0458
   6.2803E+00   6.4331E+00   2.6635E-06  0.0496
   6.4331E+00   6.5896E+00   3.0155E-06  0.0460
   6.5896E+00   6.7500E+00   2.5011E-06  0.0499
   6.7500E+00   6.9142E+00   2.3077E-06  0.0514
   6.9142E+00   7.0824E+00   2.0983E-06  0.0532
   7.0824E+00   7.2548E+00   1.6771E-06  0.0588
   7.2548E+00   7.4313E+00   1.6259E-06  0.0590
   7.4313E+00   7.6121E+00   1.3440E-06  0.0642
   7.6121E+00   7.7973E+00   1.2823E-06  0.0649
   7.7973E+00   7.9870E+00   1.0569E-06  0.0706
   7.9870E+00   8.1813E+00   1.1372E-06  0.0673
   8.1813E+00   8.3804E+00   9.6705E-07  0.0720
   8.3804E+00   8.5843E+00   9.3673E-07  0.0724
   8.5843E+00   8.7931E+00   7.3015E-07  0.0809
   8.7931E+00   9.0071E+00   6.6840E-07  0.0836
   9.0071E+00   9.2262E+00   6.7077E-07  0.0825
   9.2262E+00   9.4507E+00   5.5016E-07  0.0899
   9.4507E+00   9.6807E+00   4.7620E-07  0.0955
   9.6807E+00   9.9162E+00   3.9484E-07  0.1037
   9.9162E+00   1.0157E+01   4.6836E-07  0.0939
   1.0157E+01   1.0405E+01   4.0463E-07  0.1000
   1.0405E+01   1.0658E+01   3.6934E-07  0.1033
   1.0658E+01   1.0917E+01   3.1429E-07  0.1106
   1.0917E+01   1.1183E+01   2.8800E-07  0.1138
   1.1183E+01   1.1455E+01   2.7381E-07  0.1157
   1.1455E+01   1.1733E+01   2.5654E-07  0.1181
   1.1733E+01   1.2019E+01   1.8039E-07  0.1383
   1.2019E+01   1.2311E+01   2.3766E-07  0.1197
   1.2311E+01   1.2611E+01   1.8528E-07  0.1339
   1.2611E+01   1.2918E+01   2.0858E-07  0.1245
   1.2918E+01   1.3232E+01   1.5272E-07  0.1428
   1.3232E+01   1.3554E+01   1.8792E-07  0.1283
   1.3554E+01   1.3884E+01   1.3494E-07  0.1495
   1.3884E+01   1.4222E+01   1.6430E-07  0.1333
   1.4222E+01   1.4568E+01   1.2571E-07  0.1512
   1.4568E+01   1.4922E+01   1.2273E-07  0.1503
   1.4922E+01   1.5285E+01   9.9156E-08  0.1667
   1.5285E+01   1.5657E+01   1.0487E-07  0.1601
   1.5657E+01   1.6038E+01   1.0500E-07  0.1581
   1.6038E+01   1.6428E+01   9.7382E-08  0.1622
   1.6428E+01   1.6828E+01   1.1884E-07  0.1447
   1.6828E+01   1.7237E+01   1.1235E-07  0.1474
   1.7237E+01   1.7657E+01   6.4378E-08  0.1907
   1.7657E+01   1.8086E+01   9.3109E-08  0.1581
   1.8086E+01   1.8526E+01   6.8173E-08  0.1826
   1.8526E+01   1.8977E+01   9.9831E-08  0.1491
   1.8977E+01   1.9439E+01   7.0387E-08  0.1747
   1.9439E+01   1.9912E+01   7.4001E-08  0.1690
   1.9912E+01   2.0396E+01   1.0114E-07  0.1429
   2.0396E+01   2.0893E+01   7.8588E-08  0.1601
   2.0893E+01   2.1401E+01   7.4754E-08  0.1622
   2.1401E+01   2.1922E+01   5.7615E-08  0.1826
   2.1922E+01   2.2455E+01   6.9370E-08  0.1644
   2.2455E+01   2.3001E+01   4.9419E-08  0.1925
   2.3001E+01   2.3561E+01   5.8966E-08  0.1741
   2.3561E+01   2.4134E+01   5.0588E-08  0.1857
   2.4134E+01   2.4721E+01   6.6416E-08  0.1601
   2.4721E+01   2.5323E+01   3.4913E-08  0.2182
   2.5323E+01   2.5939E+01   3.0838E-08  0.2294
   2.5939E+01   2.6570E+01   3.6443E-08  0.2085
   2.6570E+01   2.7217E+01   5.5687E-08  0.1667
   2.7217E+01   2.7879E+01   3.1712E-08  0.2182
   2.7879E+01   2.8557E+01   4.1279E-08  0.1890
   2.8557E+01   2.9252E+01   3.8859E-08  0.1925
   2.9252E+01   2.9964E+01   3.5126E-08  0.2000
   2.9964E+01   3.0693E+01   3.0177E-08  0.2132
   3.0693E+01   3.1440E+01   2.9460E-08  0.2132
   3.1440E+01   3.2205E+01   3.1375E-08  0.2041
   3.2205E+01   3.2988E+01   2.5524E-08  0.2236
   3.2988E+01   3.3791E+01   2.6164E-08  0.2182
   3.3791E+01   3.4613E+01   2.3110E-08  0.2294
   3.4613E+01   3.5455E+01   2.3749E-08  0.2236
   3.5455E+01   3.6318E+01   1.3911E-08  0.2887
   3.6318E+01   3.7201E+01   1.0185E-08  0.3333
   3.7201E+01   3.8106E+01   1.8782E-08  0.2425
   3.8106E+01   3.9034E+01   1.1864E-08  0.3015
   3.9034E+01   3.9983E+01   9.4765E-09  0.3333
   3.9983E+01   4.0956E+01   5.1397E-09  0.4472
   4.0956E+01   4.1953E+01   8.0281E-09  0.3536
   4.1953E+01   4.2973E+01   5.8781E-09  0.4082
   4.2973E+01   4.4019E+01   5.7385E-09  0.4082
   4.4019E+01   4.5090E+01   2.8011E-09  0.5774
   4.5090E+01   4.6187E+01   3.6461E-09  0.5000
   4.6187E+01   4.7311E+01   8.8986E-09  0.3162
   4.7311E+01   4.8462E+01   3.4749E-09  0.5000
   4.8462E+01   4.9641E+01   3.3924E-09  0.5000
   4.9641E+01   5.0849E+01   8.2795E-10  1.0000
   5.0849E+01   5.2086E+01   2.4248E-09  0.5774
   5.2086E+01   5.3353E+01   7.8908E-10  1.0000
   5.3353E+01   5.4651E+01   2.3110E-09  0.5774
   5.4651E+01   5.5981E+01   7.5204E-10  1.0000
   5.5981E+01   5.7343E+01   0.0000E+00  0.0000
   5.7343E+01   5.8738E+01   7.1674E-10  1.0000
   5.8738E+01   6.0168E+01   1.3994E-09  0.7071
   6.0168E+01   6.1632E+01   0.0000E+00  0.0000
   6.1632E+01   6.3131E+01   0.0000E+00  0.0000
   6.3131E+01   6.4667E+01   0.0000E+00  0.0000
   6.4667E+01   6.6240E+01   0.0000E+00  0.0000
   6.6240E+01   6.7852E+01   6.2047E-10  1.0000
   6.7852E+01   6.9503E+01   0.0000E+00  0.0000
   6.9503E+01   7.1194E+01   0.0000E+00  0.0000
   7.1194E+01   7.2926E+01   0.0000E+00  0.0000
   7.2926E+01   7.4701E+01   0.0000E+00  0.0000
   7.4701E+01   7.6518E+01   0.0000E+00  0.0000
   7.6518E+01   7.8380E+01   0.0000E+00  0.0000
   7.8380E+01   8.0287E+01   0.0000E+00  0.0000
   8.0287E+01   8.2240E+01   0.0000E+00  0.0000
   8.2240E+01   8.4241E+01   0.0000E+00  0.0000
   8.4241E+01   8.6291E+01   0.0000E+00  0.0000
   8.6291E+01   8.8391E+01   0.0000E+00  0.0000
   8.8391E+01   9.0541E+01   0.0000E+00  0.0000
   9.0541E+01   9.2744E+01   0.0000E+00  0.0000
   9.2744E+01   9.5001E+01   0.0000E+00  0.0000
   9.5001E+01   9.7312E+01   0.0000E+00  0.0000
   9.7312E+01   9.9680E+01   0.0000E+00  0.0000
   9.9680E+01   1.0211E+02   0.0000E+00  0.0000
   1.0211E+02   1.0459E+02   0.0000E+00  0.0000
   1.0459E+02   1.0713E+02   0.0000E+00  0.0000
   1.0713E+02   1.0974E+02   0.0000E+00  0.0000
   1.0974E+02   1.1241E+02   0.0000E+00  0.0000
   1.1241E+02   1.1515E+02   0.0000E+00  0.0000
   1.1515E+02   1.1795E+02   0.0000E+00  0.0000
   1.1795E+02   1.2082E+02   0.0000E+00  0.0000
   1.2082E+02   1.2376E+02   0.0000E+00  0.0000
   1.2376E+02   1.2677E+02   0.0000E+00  0.0000
   1.2677E+02   1.2985E+02   0.0000E+00  0.0000
   1.2985E+02   1.3301E+02   0.0000E+00  0.0000
   1.3301E+02   1.3625E+02   0.0000E+00  0.0000
   1.3625E+02   1.3956E+02   0.0000E+00  0.0000
   1.3956E+02   1.4296E+02   0.0000E+00  0.0000
   1.4296E+02   1.4644E+02   0.0000E+00  0.0000
   1.4644E+02   1.5000E+02   0.0000E+00  0.0000

#   sum over                 2.7060E-06
'no. =    1   reg = 126 - 226'
msuc: {\huge [t-cross] in region mesh}
msdr: {\it plotted by \ANGEL \version}
msdl: {\it calculated by \PHITS  3.26}
wt: s(0.7)
\vspace{-3}
  region surface crossing
  area  &=&   1.0000E+00 [cm^2]
e:
 
# Information for Restart Calculation
# This calculation was newly started
# istdev =  2 # 1:Batch variance, 2:History variance
# resc2  = 1.00000000000000000E+09 # Total source weight or Total source weight / maxcas
# resc3  = 1.00000000000000000E+09 # Total history number or Total batch number
# maxcas =   500000000 # History / Batch, only used for istdev=1
# bitrseed = 0001001110011001001001110000100100110111001111011100001000101100 # bit data of rseed
