[ T-Cross ]
    title = [t-cross] in region mesh
     mesh =  reg            # mesh type is region-wise
      reg =    1            # number of crossing regions
      non     r-from    r-to       area
      1       105       205        1.000000    
   e-type =    3            # e-mesh is log given by emin, emax and ne
     emin =  1.0000000E-02  # minimum value of e-mesh points
     emax =   150.0000      # maximum value of e-mesh points
#    edel =  2.4039514E-02  # mesh width of e-mesh points
       ne =    400          # number of e-mesh points
#    data = ( e(i), i = 1, ne + 1 )
#           1.00000E-02  1.02433E-02  1.04925E-02  1.07478E-02  1.10093E-02
#           1.12772E-02  1.15516E-02  1.18326E-02  1.21205E-02  1.24154E-02
#           1.27175E-02  1.30269E-02  1.33439E-02  1.36686E-02  1.40011E-02
#           1.43418E-02  1.46907E-02  1.50482E-02  1.54143E-02  1.57894E-02
#           1.61735E-02  1.65670E-02  1.69701E-02  1.73830E-02  1.78060E-02
#           1.82392E-02  1.86830E-02  1.91375E-02  1.96032E-02  2.00801E-02
#           2.05687E-02  2.10692E-02  2.15818E-02  2.21069E-02  2.26448E-02
#           2.31957E-02  2.37601E-02  2.43382E-02  2.49304E-02  2.55369E-02
#           2.61583E-02  2.67947E-02  2.74467E-02  2.81145E-02  2.87985E-02
#           2.94992E-02  3.02169E-02  3.09521E-02  3.17052E-02  3.24766E-02
#           3.32668E-02  3.40762E-02  3.49053E-02  3.57546E-02  3.66246E-02
#           3.75157E-02  3.84284E-02  3.93634E-02  4.03212E-02  4.13022E-02
#           4.23071E-02  4.33365E-02  4.43909E-02  4.54710E-02  4.65773E-02
#           4.77106E-02  4.88714E-02  5.00605E-02  5.12785E-02  5.25262E-02
#           5.38042E-02  5.51133E-02  5.64542E-02  5.78278E-02  5.92348E-02
#           6.06760E-02  6.21523E-02  6.36645E-02  6.52135E-02  6.68002E-02
#           6.84255E-02  7.00904E-02  7.17957E-02  7.35426E-02  7.53319E-02
#           7.71648E-02  7.90423E-02  8.09655E-02  8.29354E-02  8.49533E-02
#           8.70203E-02  8.91376E-02  9.13064E-02  9.35279E-02  9.58035E-02
#           9.81345E-02  1.00522E-01  1.02968E-01  1.05473E-01  1.08040E-01
#           1.10668E-01  1.13361E-01  1.16119E-01  1.18944E-01  1.21838E-01
#           1.24803E-01  1.27839E-01  1.30950E-01  1.34136E-01  1.37399E-01
#           1.40742E-01  1.44167E-01  1.47675E-01  1.51268E-01  1.54948E-01
#           1.58718E-01  1.62580E-01  1.66535E-01  1.70587E-01  1.74738E-01
#           1.78989E-01  1.83344E-01  1.87805E-01  1.92375E-01  1.97055E-01
#           2.01850E-01  2.06761E-01  2.11792E-01  2.16945E-01  2.22223E-01
#           2.27630E-01  2.33169E-01  2.38842E-01  2.44653E-01  2.50605E-01
#           2.56703E-01  2.62949E-01  2.69346E-01  2.75900E-01  2.82613E-01
#           2.89489E-01  2.96532E-01  3.03747E-01  3.11138E-01  3.18708E-01
#           3.26462E-01  3.34405E-01  3.42542E-01  3.50876E-01  3.59413E-01
#           3.68158E-01  3.77116E-01  3.86291E-01  3.95690E-01  4.05317E-01
#           4.15179E-01  4.25281E-01  4.35628E-01  4.46227E-01  4.57084E-01
#           4.68205E-01  4.79597E-01  4.91266E-01  5.03219E-01  5.15463E-01
#           5.28005E-01  5.40851E-01  5.54011E-01  5.67490E-01  5.81298E-01
#           5.95441E-01  6.09929E-01  6.24769E-01  6.39970E-01  6.55541E-01
#           6.71491E-01  6.87828E-01  7.04564E-01  7.21706E-01  7.39266E-01
#           7.57253E-01  7.75678E-01  7.94551E-01  8.13883E-01  8.33685E-01
#           8.53969E-01  8.74747E-01  8.96030E-01  9.17831E-01  9.40163E-01
#           9.63038E-01  9.86469E-01  1.01047E+00  1.03506E+00  1.06024E+00
#           1.08604E+00  1.11246E+00  1.13953E+00  1.16725E+00  1.19565E+00
#           1.22474E+00  1.25454E+00  1.28507E+00  1.31633E+00  1.34836E+00
#           1.38117E+00  1.41477E+00  1.44920E+00  1.48446E+00  1.52057E+00
#           1.55757E+00  1.59547E+00  1.63429E+00  1.67405E+00  1.71478E+00
#           1.75650E+00  1.79924E+00  1.84302E+00  1.88786E+00  1.93379E+00
#           1.98084E+00  2.02904E+00  2.07841E+00  2.12898E+00  2.18078E+00
#           2.23384E+00  2.28819E+00  2.34386E+00  2.40089E+00  2.45930E+00
#           2.51914E+00  2.58043E+00  2.64322E+00  2.70753E+00  2.77341E+00
#           2.84088E+00  2.91001E+00  2.98081E+00  3.05333E+00  3.12762E+00
#           3.20372E+00  3.28167E+00  3.36152E+00  3.44330E+00  3.52708E+00
#           3.61290E+00  3.70080E+00  3.79085E+00  3.88308E+00  3.97756E+00
#           4.07434E+00  4.17347E+00  4.27501E+00  4.37903E+00  4.48557E+00
#           4.59471E+00  4.70650E+00  4.82102E+00  4.93832E+00  5.05847E+00
#           5.18155E+00  5.30762E+00  5.43676E+00  5.56904E+00  5.70453E+00
#           5.84333E+00  5.98550E+00  6.13114E+00  6.28031E+00  6.43312E+00
#           6.58964E+00  6.74997E+00  6.91420E+00  7.08243E+00  7.25475E+00
#           7.43126E+00  7.61207E+00  7.79728E+00  7.98700E+00  8.18133E+00
#           8.38038E+00  8.58428E+00  8.79315E+00  9.00709E+00  9.22624E+00
#           9.45072E+00  9.68067E+00  9.91620E+00  1.01575E+01  1.04046E+01
#           1.06578E+01  1.09171E+01  1.11827E+01  1.14548E+01  1.17335E+01
#           1.20190E+01  1.23114E+01  1.26109E+01  1.29178E+01  1.32321E+01
#           1.35540E+01  1.38838E+01  1.42216E+01  1.45676E+01  1.49221E+01
#           1.52851E+01  1.56570E+01  1.60380E+01  1.64282E+01  1.68279E+01
#           1.72374E+01  1.76568E+01  1.80864E+01  1.85264E+01  1.89772E+01
#           1.94389E+01  1.99119E+01  2.03963E+01  2.08926E+01  2.14009E+01
#           2.19216E+01  2.24550E+01  2.30014E+01  2.35610E+01  2.41343E+01
#           2.47215E+01  2.53230E+01  2.59391E+01  2.65702E+01  2.72167E+01
#           2.78789E+01  2.85572E+01  2.92520E+01  2.99637E+01  3.06928E+01
#           3.14396E+01  3.22045E+01  3.29881E+01  3.37907E+01  3.46128E+01
#           3.54550E+01  3.63177E+01  3.72013E+01  3.81064E+01  3.90336E+01
#           3.99833E+01  4.09561E+01  4.19526E+01  4.29734E+01  4.40189E+01
#           4.50900E+01  4.61870E+01  4.73108E+01  4.84619E+01  4.96410E+01
#           5.08488E+01  5.20860E+01  5.33533E+01  5.46514E+01  5.59812E+01
#           5.73432E+01  5.87384E+01  6.01676E+01  6.16315E+01  6.31311E+01
#           6.46671E+01  6.62405E+01  6.78522E+01  6.95031E+01  7.11941E+01
#           7.29263E+01  7.47007E+01  7.65182E+01  7.83800E+01  8.02870E+01
#           8.22405E+01  8.42414E+01  8.62911E+01  8.83906E+01  9.05412E+01
#           9.27442E+01  9.50007E+01  9.73122E+01  9.96799E+01  1.02105E+02
#           1.04589E+02  1.07134E+02  1.09741E+02  1.12411E+02  1.15146E+02
#           1.17948E+02  1.20817E+02  1.23757E+02  1.26768E+02  1.29852E+02
#           1.33012E+02  1.36248E+02  1.39563E+02  1.42959E+02  1.46437E+02
#           1.50000E+02
     unit =    2            # unit is [1/cm^2/(MeV/n)/source]
     axis =  eng            # axis of output
     file = detector-06.out  # file name of output for the above axis
   output = f-curr          # surface crossing forward current spectrum
     part =  neutron  
# kf/name :  2112     
#    used :        main (  %)        temp (  %)       total (  %)
#  memory :         414 (  0)           0 (  0)         414 (  0)

#------------------------------------------------------------------------------
#newpage:
#   no. =    1   reg = 105 - 205

x: Energy [MeV/n]
y:  F-Curr [1/cm^2/(MeV/n)/source]         
p: xlog ylog afac(0.8) form(0.9)
h: n            x            y(neutron ),hh0l   n 
#  e-lower      e-upper      neutron     r.err 
   1.0000E-02   1.0243E-02   1.1464E-05  0.2673
   1.0243E-02   1.0493E-02   1.3982E-05  0.2360
   1.0493E-02   1.0748E-02   1.4840E-05  0.2294
   1.0748E-02   1.1009E-02   9.6848E-06  0.2778
   1.1009E-02   1.1277E-02   1.1884E-05  0.2500
   1.1277E-02   1.1552E-02   1.0880E-05  0.2582
   1.1552E-02   1.1833E-02   1.1143E-05  0.2505
   1.1833E-02   1.2121E-02   9.4701E-06  0.2681
   1.2121E-02   1.2415E-02   6.0176E-06  0.3335
   1.2415E-02   1.2718E-02   1.2522E-05  0.2294
   1.2718E-02   1.3027E-02   6.9479E-06  0.3019
   1.3027E-02   1.3344E-02   1.0679E-05  0.2425
   1.3344E-02   1.3669E-02   6.8910E-06  0.2964
   1.3669E-02   1.4001E-02   4.1801E-06  0.3780
   1.4001E-02   1.4342E-02   7.5379E-06  0.2775
   1.4342E-02   1.4691E-02   5.1298E-06  0.3333
   1.4691E-02   1.5048E-02   9.4708E-06  0.2425
   1.5048E-02   1.5414E-02   7.5124E-06  0.2677
   1.5414E-02   1.5789E-02   5.1198E-06  0.3130
   1.5789E-02   1.6174E-02   6.1795E-06  0.2887
   1.6174E-02   1.6567E-02   5.5733E-06  0.3015
   1.6567E-02   1.6970E-02   5.9250E-06  0.2887
   1.6970E-02   1.7383E-02   8.2085E-06  0.2425
   1.7383E-02   1.7806E-02   4.2500E-06  0.3333
   1.7806E-02   1.8239E-02   1.0525E-05  0.2086
   1.8239E-02   1.8683E-02   4.9327E-06  0.3015
   1.8683E-02   1.9138E-02   6.0410E-06  0.2675
   1.9138E-02   1.9603E-02   7.2868E-06  0.2425
   1.9603E-02   2.0080E-02   3.3394E-06  0.3536
   2.0080E-02   2.0569E-02   6.4952E-06  0.2476
   2.0569E-02   2.1069E-02   6.3065E-06  0.2502
   2.1069E-02   2.1582E-02   5.1072E-06  0.2746
   2.1582E-02   2.2107E-02   7.1972E-06  0.2294
   2.2107E-02   2.2645E-02   2.2154E-06  0.4083
   2.2645E-02   2.3196E-02   6.8629E-06  0.2294
   2.3196E-02   2.3760E-02   5.3030E-06  0.2582
   2.3760E-02   2.4338E-02   6.1957E-06  0.2357
   2.4338E-02   2.4930E-02   4.1122E-06  0.2835
   2.4930E-02   2.5537E-02   5.5795E-06  0.2425
   2.5537E-02   2.6158E-02   6.1004E-06  0.2294
   2.6158E-02   2.6795E-02   3.6969E-06  0.2891
   2.6795E-02   2.7447E-02   3.9657E-06  0.2774
   2.7447E-02   2.8114E-02   6.6305E-06  0.2109
   2.8114E-02   2.8799E-02   5.2452E-06  0.2357
   2.8799E-02   2.9499E-02   2.8348E-06  0.3162
   2.9499E-02   3.0217E-02   4.4445E-06  0.2500
   3.0217E-02   3.0952E-02   4.0682E-06  0.2582
   3.0952E-02   3.1705E-02   2.4710E-06  0.3229
   3.1705E-02   3.2477E-02   4.5418E-06  0.2362
   3.2477E-02   3.3267E-02   3.7873E-06  0.2582
   3.3267E-02   3.4076E-02   5.3224E-06  0.2137
   3.4076E-02   3.4905E-02   3.8371E-06  0.2500
   3.4905E-02   3.5755E-02   4.4467E-06  0.2294
   3.5755E-02   3.6625E-02   2.9761E-06  0.2774
   3.6625E-02   3.7516E-02   3.7909E-06  0.2425
   3.7516E-02   3.8428E-02   3.0486E-06  0.2673
   3.8428E-02   3.9363E-02   3.3640E-06  0.2503
   3.9363E-02   4.0321E-02   3.3232E-06  0.2500
   4.0321E-02   4.1302E-02   2.8366E-06  0.2673
   4.1302E-02   4.2307E-02   3.1046E-06  0.2509
   4.2307E-02   4.3337E-02   1.4214E-06  0.3629
   4.3337E-02   4.4391E-02   3.1803E-06  0.2427
   4.4391E-02   4.5471E-02   3.4065E-06  0.2304
   4.5471E-02   4.6577E-02   2.4562E-06  0.2686
   4.6577E-02   4.7711E-02   2.8068E-06  0.2500
   4.7711E-02   4.8871E-02   2.0586E-06  0.2887
   4.8871E-02   5.0061E-02   3.0152E-06  0.2357
   5.0061E-02   5.1279E-02   2.6166E-06  0.2500
   5.1279E-02   5.2526E-02   2.5572E-06  0.2500
   5.2526E-02   5.3804E-02   2.4952E-06  0.2500
   5.3804E-02   5.5113E-02   2.1308E-06  0.2673
   5.5113E-02   5.6454E-02   3.0957E-06  0.2183
   5.6454E-02   5.7828E-02   1.4449E-06  0.3162
   5.7828E-02   5.9235E-02   3.1112E-06  0.2132
   5.9235E-02   6.0676E-02   2.4596E-06  0.2360
   6.0676E-02   6.2152E-02   1.6168E-06  0.2851
   6.2152E-02   6.3665E-02   2.5987E-06  0.2238
   6.3665E-02   6.5214E-02   2.5494E-06  0.2238
   6.5214E-02   6.6800E-02   2.3850E-06  0.2294
   6.6800E-02   6.8426E-02   2.6959E-06  0.2132
   6.8426E-02   7.0090E-02   2.1547E-06  0.2357
   7.0090E-02   7.1796E-02   1.6342E-06  0.2673
   7.1796E-02   7.3543E-02   1.4924E-06  0.2738
   7.3543E-02   7.5332E-02   2.0834E-06  0.2297
   7.5332E-02   7.7165E-02   1.5390E-06  0.2644
   7.7165E-02   7.9042E-02   1.6964E-06  0.2500
   7.9042E-02   8.0965E-02   1.5492E-06  0.2582
   8.0965E-02   8.2935E-02   1.9205E-06  0.2294
   8.2935E-02   8.4953E-02   2.4237E-06  0.2004
   8.4953E-02   8.7020E-02   1.4415E-06  0.2582
   8.7020E-02   8.9138E-02   1.8660E-06  0.2238
   8.9138E-02   9.1306E-02   1.9232E-06  0.2182
   9.1306E-02   9.3528E-02   2.2500E-06  0.1987
   9.3528E-02   9.5804E-02   1.6811E-06  0.2272
   9.5804E-02   9.8134E-02   1.3538E-06  0.2502
   9.8134E-02   1.0052E-01   1.6861E-06  0.2216
   1.0052E-01   1.0297E-01   2.2815E-06  0.1890
   1.0297E-01   1.0547E-01   1.7914E-06  0.2091
   1.0547E-01   1.0804E-01   2.0156E-06  0.1948
   1.0804E-01   1.1067E-01   1.6641E-06  0.2132
   1.1067E-01   1.1336E-01   1.7643E-06  0.2042
   1.1336E-01   1.1612E-01   2.1028E-06  0.1844
   1.1612E-01   1.1894E-01   3.5084E-06  0.1415
   1.1894E-01   1.2184E-01   2.3367E-06  0.1715
   1.2184E-01   1.2480E-01   3.1565E-06  0.1459
   1.2480E-01   1.2784E-01   1.7713E-06  0.1925
   1.2784E-01   1.3095E-01   2.4370E-06  0.1616
   1.3095E-01   1.3414E-01   2.5230E-06  0.1564
   1.3414E-01   1.3740E-01   2.4855E-06  0.1551
   1.3740E-01   1.4074E-01   2.5954E-06  0.1509
   1.4074E-01   1.4417E-01   2.9453E-06  0.1402
   1.4417E-01   1.4767E-01   2.4953E-06  0.1508
   1.4767E-01   1.5127E-01   3.8097E-06  0.1204
   1.5127E-01   1.5495E-01   3.4983E-06  0.1241
   1.5495E-01   1.5872E-01   4.8276E-06  0.1043
   1.5872E-01   1.6258E-01   3.4031E-06  0.1231
   1.6258E-01   1.6654E-01   4.4728E-06  0.1058
   1.6654E-01   1.7059E-01   4.1047E-06  0.1087
   1.7059E-01   1.7474E-01   4.0236E-06  0.1091
   1.7474E-01   1.7899E-01   3.5983E-06  0.1140
   1.7899E-01   1.8334E-01   5.2133E-06  0.0935
   1.8334E-01   1.8781E-01   5.1576E-06  0.0929
   1.8781E-01   1.9237E-01   3.7390E-06  0.1079
   1.9237E-01   1.9706E-01   4.8428E-06  0.0933
   1.9706E-01   2.0185E-01   4.5372E-06  0.0953
   2.0185E-01   2.0676E-01   5.3024E-06  0.0871
   2.0676E-01   2.1179E-01   5.2577E-06  0.0864
   2.1179E-01   2.1694E-01   5.9969E-06  0.0802
   2.1694E-01   2.2222E-01   6.3128E-06  0.0771
   2.2222E-01   2.2763E-01   5.8224E-06  0.0792
   2.2763E-01   2.3317E-01   6.4029E-06  0.0747
   2.3317E-01   2.3884E-01   6.6885E-06  0.0724
   2.3884E-01   2.4465E-01   6.1526E-06  0.0743
   2.4465E-01   2.5061E-01   7.6144E-06  0.0660
   2.5061E-01   2.5670E-01   6.9070E-06  0.0687
   2.5670E-01   2.6295E-01   6.4726E-06  0.0699
   2.6295E-01   2.6935E-01   7.4155E-06  0.0647
   2.6935E-01   2.7590E-01   7.2111E-06  0.0647
   2.7590E-01   2.8261E-01   7.8767E-06  0.0613
   2.8261E-01   2.8949E-01   8.3122E-06  0.0588
   2.8949E-01   2.9653E-01   7.4800E-06  0.0612
   2.9653E-01   3.0375E-01   8.4862E-06  0.0569
   3.0375E-01   3.1114E-01   8.9038E-06  0.0548
   3.1114E-01   3.1871E-01   9.5267E-06  0.0524
   3.1871E-01   3.2646E-01   8.9265E-06  0.0535
   3.2646E-01   3.3441E-01   1.0062E-05  0.0498
   3.3441E-01   3.4254E-01   1.0368E-05  0.0485
   3.4254E-01   3.5088E-01   9.8558E-06  0.0491
   3.5088E-01   3.5941E-01   1.0599E-05  0.0468
   3.5941E-01   3.6816E-01   9.9263E-06  0.0478
   3.6816E-01   3.7712E-01   1.1976E-05  0.0429
   3.7712E-01   3.8629E-01   1.0090E-05  0.0462
   3.8629E-01   3.9569E-01   1.1639E-05  0.0425
   3.9569E-01   4.0532E-01   1.2021E-05  0.0413
   4.0532E-01   4.1518E-01   1.1551E-05  0.0417
   4.1518E-01   4.2528E-01   1.2035E-05  0.0403
   4.2528E-01   4.3563E-01   1.2338E-05  0.0394
   4.3563E-01   4.4623E-01   1.3108E-05  0.0377
   4.4623E-01   4.5708E-01   1.2882E-05  0.0376
   4.5708E-01   4.6821E-01   1.3040E-05  0.0369
   4.6821E-01   4.7960E-01   1.2844E-05  0.0368
   4.7960E-01   4.9127E-01   1.3709E-05  0.0352
   4.9127E-01   5.0322E-01   1.2883E-05  0.0358
   5.0322E-01   5.1546E-01   1.3360E-05  0.0348
   5.1546E-01   5.2800E-01   1.3412E-05  0.0343
   5.2800E-01   5.4085E-01   1.5182E-05  0.0318
   5.4085E-01   5.5401E-01   1.4282E-05  0.0324
   5.5401E-01   5.6749E-01   1.3854E-05  0.0325
   5.6749E-01   5.8130E-01   1.4212E-05  0.0317
   5.8130E-01   5.9544E-01   1.4978E-05  0.0305
   5.9544E-01   6.0993E-01   1.4458E-05  0.0307
   6.0993E-01   6.2477E-01   1.4049E-05  0.0308
   6.2477E-01   6.3997E-01   1.5175E-05  0.0292
   6.3997E-01   6.5554E-01   1.4352E-05  0.0297
   6.5554E-01   6.7149E-01   1.4851E-05  0.0289
   6.7149E-01   6.8783E-01   1.4439E-05  0.0289
   6.8783E-01   7.0456E-01   1.5028E-05  0.0280
   7.0456E-01   7.2171E-01   1.4557E-05  0.0281
   7.2171E-01   7.3927E-01   1.4309E-05  0.0280
   7.3927E-01   7.5725E-01   1.4940E-05  0.0271
   7.5725E-01   7.7568E-01   1.4309E-05  0.0273
   7.7568E-01   7.9455E-01   1.4083E-05  0.0272
   7.9455E-01   8.1388E-01   1.4298E-05  0.0267
   8.1388E-01   8.3368E-01   1.4048E-05  0.0266
   8.3368E-01   8.5397E-01   1.3728E-05  0.0266
   8.5397E-01   8.7475E-01   1.3639E-05  0.0264
   8.7475E-01   8.9603E-01   1.3151E-05  0.0265
   8.9603E-01   9.1783E-01   1.1848E-05  0.0276
   9.1783E-01   9.4016E-01   1.2153E-05  0.0269
   9.4016E-01   9.6304E-01   1.2043E-05  0.0267
   9.6304E-01   9.8647E-01   1.1549E-05  0.0269
   9.8647E-01   1.0105E+00   1.1551E-05  0.0266
   1.0105E+00   1.0351E+00   1.1322E-05  0.0266
   1.0351E+00   1.0602E+00   1.1499E-05  0.0260
   1.0602E+00   1.0860E+00   1.1569E-05  0.0256
   1.0860E+00   1.1125E+00   1.1988E-05  0.0249
   1.1125E+00   1.1395E+00   1.2846E-05  0.0237
   1.1395E+00   1.1673E+00   1.3322E-05  0.0230
   1.1673E+00   1.1957E+00   1.2971E-05  0.0231
   1.1957E+00   1.2247E+00   1.4174E-05  0.0218
   1.2247E+00   1.2545E+00   1.4863E-05  0.0210
   1.2545E+00   1.2851E+00   1.4580E-05  0.0210
   1.2851E+00   1.3163E+00   1.5273E-05  0.0203
   1.3163E+00   1.3484E+00   1.5751E-05  0.0197
   1.3484E+00   1.3812E+00   1.6346E-05  0.0191
   1.3812E+00   1.4148E+00   1.6290E-05  0.0189
   1.4148E+00   1.4492E+00   1.7018E-05  0.0183
   1.4492E+00   1.4845E+00   1.6300E-05  0.0184
   1.4845E+00   1.5206E+00   1.7598E-05  0.0175
   1.5206E+00   1.5576E+00   1.7482E-05  0.0174
   1.5576E+00   1.5955E+00   1.7967E-05  0.0169
   1.5955E+00   1.6343E+00   1.8164E-05  0.0166
   1.6343E+00   1.6741E+00   1.7759E-05  0.0166
   1.6741E+00   1.7148E+00   1.8843E-05  0.0159
   1.7148E+00   1.7565E+00   1.7814E-05  0.0162
   1.7565E+00   1.7992E+00   1.7395E-05  0.0161
   1.7992E+00   1.8430E+00   1.7447E-05  0.0159
   1.8430E+00   1.8879E+00   1.6616E-05  0.0160
   1.8879E+00   1.9338E+00   1.6282E-05  0.0160
   1.9338E+00   1.9808E+00   1.6487E-05  0.0157
   1.9808E+00   2.0290E+00   1.6978E-05  0.0153
   2.0290E+00   2.0784E+00   1.7686E-05  0.0148
   2.0784E+00   2.1290E+00   1.8142E-05  0.0144
   2.1290E+00   2.1808E+00   1.8137E-05  0.0142
   2.1808E+00   2.2338E+00   1.8256E-05  0.0140
   2.2338E+00   2.2882E+00   1.8159E-05  0.0139
   2.2882E+00   2.3439E+00   1.7661E-05  0.0139
   2.3439E+00   2.4009E+00   1.7757E-05  0.0138
   2.4009E+00   2.4593E+00   1.8641E-05  0.0133
   2.4593E+00   2.5191E+00   1.7920E-05  0.0134
   2.5191E+00   2.5804E+00   1.8470E-05  0.0130
   2.5804E+00   2.6432E+00   1.8046E-05  0.0130
   2.6432E+00   2.7075E+00   1.8270E-05  0.0128
   2.7075E+00   2.7734E+00   1.8367E-05  0.0126
   2.7734E+00   2.8409E+00   1.8622E-05  0.0123
   2.8409E+00   2.9100E+00   1.8459E-05  0.0123
   2.9100E+00   2.9808E+00   1.8498E-05  0.0121
   2.9808E+00   3.0533E+00   1.7912E-05  0.0122
   3.0533E+00   3.1276E+00   1.8635E-05  0.0118
   3.1276E+00   3.2037E+00   1.8083E-05  0.0118
   3.2037E+00   3.2817E+00   1.8165E-05  0.0117
   3.2817E+00   3.3615E+00   1.8443E-05  0.0115
   3.3615E+00   3.4433E+00   1.7847E-05  0.0115
   3.4433E+00   3.5271E+00   1.8014E-05  0.0113
   3.5271E+00   3.6129E+00   1.7912E-05  0.0112
   3.6129E+00   3.7008E+00   1.8120E-05  0.0110
   3.7008E+00   3.7908E+00   1.7944E-05  0.0110
   3.7908E+00   3.8831E+00   1.7650E-05  0.0109
   3.8831E+00   3.9776E+00   1.7603E-05  0.0108
   3.9776E+00   4.0743E+00   1.7636E-05  0.0107
   4.0743E+00   4.1735E+00   1.7422E-05  0.0106
   4.1735E+00   4.2750E+00   1.6927E-05  0.0106
   4.2750E+00   4.3790E+00   1.6712E-05  0.0106
   4.3790E+00   4.4856E+00   1.6651E-05  0.0105
   4.4856E+00   4.5947E+00   1.6734E-05  0.0103
   4.5947E+00   4.7065E+00   1.6198E-05  0.0104
   4.7065E+00   4.8210E+00   1.6128E-05  0.0103
   4.8210E+00   4.9383E+00   1.5941E-05  0.0102
   4.9383E+00   5.0585E+00   1.6095E-05  0.0100
   5.0585E+00   5.1815E+00   1.5609E-05  0.0101
   5.1815E+00   5.3076E+00   1.5547E-05  0.0100
   5.3076E+00   5.4368E+00   1.5491E-05  0.0099
   5.4368E+00   5.5690E+00   1.5503E-05  0.0098
   5.5690E+00   5.7045E+00   1.5150E-05  0.0098
   5.7045E+00   5.8433E+00   1.5168E-05  0.0096
   5.8433E+00   5.9855E+00   1.5012E-05  0.0096
   5.9855E+00   6.1311E+00   1.4819E-05  0.0095
   6.1311E+00   6.2803E+00   1.4565E-05  0.0095
   6.2803E+00   6.4331E+00   1.4760E-05  0.0093
   6.4331E+00   6.5896E+00   1.4517E-05  0.0093
   6.5896E+00   6.7500E+00   1.4275E-05  0.0093
   6.7500E+00   6.9142E+00   1.4251E-05  0.0092
   6.9142E+00   7.0824E+00   1.4029E-05  0.0091
   7.0824E+00   7.2548E+00   1.4002E-05  0.0090
   7.2548E+00   7.4313E+00   1.3884E-05  0.0090
   7.4313E+00   7.6121E+00   1.3956E-05  0.0088
   7.6121E+00   7.7973E+00   1.3386E-05  0.0089
   7.7973E+00   7.9870E+00   1.3312E-05  0.0088
   7.9870E+00   8.1813E+00   1.3035E-05  0.0088
   8.1813E+00   8.3804E+00   1.3089E-05  0.0087
   8.3804E+00   8.5843E+00   1.2714E-05  0.0087
   8.5843E+00   8.7931E+00   1.2622E-05  0.0087
   8.7931E+00   9.0071E+00   1.2485E-05  0.0086
   9.0071E+00   9.2262E+00   1.2222E-05  0.0086
   9.2262E+00   9.4507E+00   1.1877E-05  0.0086
   9.4507E+00   9.6807E+00   1.1554E-05  0.0086
   9.6807E+00   9.9162E+00   1.1421E-05  0.0086
   9.9162E+00   1.0157E+01   1.1655E-05  0.0084
   1.0157E+01   1.0405E+01   1.1549E-05  0.0084
   1.0405E+01   1.0658E+01   1.1228E-05  0.0084
   1.0658E+01   1.0917E+01   1.0791E-05  0.0084
   1.0917E+01   1.1183E+01   1.0503E-05  0.0085
   1.1183E+01   1.1455E+01   1.0164E-05  0.0085
   1.1455E+01   1.1733E+01   1.0305E-05  0.0083
   1.1733E+01   1.2019E+01   9.9787E-06  0.0084
   1.2019E+01   1.2311E+01   9.9162E-06  0.0083
   1.2311E+01   1.2611E+01   9.5730E-06  0.0083
   1.2611E+01   1.2918E+01   9.3506E-06  0.0083
   1.2918E+01   1.3232E+01   9.1972E-06  0.0083
   1.3232E+01   1.3554E+01   8.9837E-06  0.0083
   1.3554E+01   1.3884E+01   8.8755E-06  0.0083
   1.3884E+01   1.4222E+01   8.5380E-06  0.0083
   1.4222E+01   1.4568E+01   8.3030E-06  0.0083
   1.4568E+01   1.4922E+01   7.9921E-06  0.0084
   1.4922E+01   1.5285E+01   7.9440E-06  0.0083
   1.5285E+01   1.5657E+01   7.6634E-06  0.0084
   1.5657E+01   1.6038E+01   7.2960E-06  0.0085
   1.6038E+01   1.6428E+01   7.0518E-06  0.0085
   1.6428E+01   1.6828E+01   6.8545E-06  0.0085
   1.6828E+01   1.7237E+01   6.5868E-06  0.0086
   1.7237E+01   1.7657E+01   6.3039E-06  0.0087
   1.7657E+01   1.8086E+01   6.0308E-06  0.0088
   1.8086E+01   1.8526E+01   5.6885E-06  0.0089
   1.8526E+01   1.8977E+01   5.4304E-06  0.0090
   1.8977E+01   1.9439E+01   5.1792E-06  0.0091
   1.9439E+01   1.9912E+01   4.8237E-06  0.0094
   1.9912E+01   2.0396E+01   4.6240E-06  0.0094
   2.0396E+01   2.0893E+01   4.2180E-06  0.0098
   2.0893E+01   2.1401E+01   3.8652E-06  0.0101
   2.1401E+01   2.1922E+01   3.4953E-06  0.0105
   2.1922E+01   2.2455E+01   3.1715E-06  0.0109
   2.2455E+01   2.3001E+01   2.7810E-06  0.0115
   2.3001E+01   2.3561E+01   2.3780E-06  0.0123
   2.3561E+01   2.4134E+01   1.8930E-06  0.0136
   2.4134E+01   2.4721E+01   1.5078E-06  0.0150
   2.4721E+01   2.5323E+01   1.0544E-06  0.0178
   2.5323E+01   2.5939E+01   6.6090E-07  0.0222
   2.5939E+01   2.6570E+01   3.8281E-07  0.0288
   2.6570E+01   2.7217E+01   2.2120E-07  0.0374
   2.7217E+01   2.7879E+01   3.9233E-07  0.0277
   2.7879E+01   2.8557E+01   2.1969E-06  0.0116
   2.8557E+01   2.9252E+01   1.9510E-06  0.0121
   2.9252E+01   2.9964E+01   8.4302E-10  0.5774
   2.9964E+01   3.0693E+01   0.0000E+00  0.0000
   3.0693E+01   3.1440E+01   0.0000E+00  0.0000
   3.1440E+01   3.2205E+01   2.6146E-10  1.0000
   3.2205E+01   3.2988E+01   0.0000E+00  0.0000
   3.2988E+01   3.3791E+01   0.0000E+00  0.0000
   3.3791E+01   3.4613E+01   0.0000E+00  0.0000
   3.4613E+01   3.5455E+01   0.0000E+00  0.0000
   3.5455E+01   3.6318E+01   0.0000E+00  0.0000
   3.6318E+01   3.7201E+01   0.0000E+00  0.0000
   3.7201E+01   3.8106E+01   0.0000E+00  0.0000
   3.8106E+01   3.9034E+01   0.0000E+00  0.0000
   3.9034E+01   3.9983E+01   0.0000E+00  0.0000
   3.9983E+01   4.0956E+01   0.0000E+00  0.0000
   4.0956E+01   4.1953E+01   0.0000E+00  0.0000
   4.1953E+01   4.2973E+01   0.0000E+00  0.0000
   4.2973E+01   4.4019E+01   0.0000E+00  0.0000
   4.4019E+01   4.5090E+01   0.0000E+00  0.0000
   4.5090E+01   4.6187E+01   0.0000E+00  0.0000
   4.6187E+01   4.7311E+01   0.0000E+00  0.0000
   4.7311E+01   4.8462E+01   0.0000E+00  0.0000
   4.8462E+01   4.9641E+01   0.0000E+00  0.0000
   4.9641E+01   5.0849E+01   0.0000E+00  0.0000
   5.0849E+01   5.2086E+01   0.0000E+00  0.0000
   5.2086E+01   5.3353E+01   0.0000E+00  0.0000
   5.3353E+01   5.4651E+01   0.0000E+00  0.0000
   5.4651E+01   5.5981E+01   0.0000E+00  0.0000
   5.5981E+01   5.7343E+01   0.0000E+00  0.0000
   5.7343E+01   5.8738E+01   0.0000E+00  0.0000
   5.8738E+01   6.0168E+01   0.0000E+00  0.0000
   6.0168E+01   6.1632E+01   0.0000E+00  0.0000
   6.1632E+01   6.3131E+01   0.0000E+00  0.0000
   6.3131E+01   6.4667E+01   0.0000E+00  0.0000
   6.4667E+01   6.6240E+01   0.0000E+00  0.0000
   6.6240E+01   6.7852E+01   0.0000E+00  0.0000
   6.7852E+01   6.9503E+01   0.0000E+00  0.0000
   6.9503E+01   7.1194E+01   0.0000E+00  0.0000
   7.1194E+01   7.2926E+01   0.0000E+00  0.0000
   7.2926E+01   7.4701E+01   0.0000E+00  0.0000
   7.4701E+01   7.6518E+01   0.0000E+00  0.0000
   7.6518E+01   7.8380E+01   0.0000E+00  0.0000
   7.8380E+01   8.0287E+01   0.0000E+00  0.0000
   8.0287E+01   8.2240E+01   0.0000E+00  0.0000
   8.2240E+01   8.4241E+01   0.0000E+00  0.0000
   8.4241E+01   8.6291E+01   0.0000E+00  0.0000
   8.6291E+01   8.8391E+01   0.0000E+00  0.0000
   8.8391E+01   9.0541E+01   0.0000E+00  0.0000
   9.0541E+01   9.2744E+01   0.0000E+00  0.0000
   9.2744E+01   9.5001E+01   0.0000E+00  0.0000
   9.5001E+01   9.7312E+01   0.0000E+00  0.0000
   9.7312E+01   9.9680E+01   0.0000E+00  0.0000
   9.9680E+01   1.0211E+02   0.0000E+00  0.0000
   1.0211E+02   1.0459E+02   0.0000E+00  0.0000
   1.0459E+02   1.0713E+02   0.0000E+00  0.0000
   1.0713E+02   1.0974E+02   0.0000E+00  0.0000
   1.0974E+02   1.1241E+02   0.0000E+00  0.0000
   1.1241E+02   1.1515E+02   0.0000E+00  0.0000
   1.1515E+02   1.1795E+02   0.0000E+00  0.0000
   1.1795E+02   1.2082E+02   0.0000E+00  0.0000
   1.2082E+02   1.2376E+02   0.0000E+00  0.0000
   1.2376E+02   1.2677E+02   0.0000E+00  0.0000
   1.2677E+02   1.2985E+02   0.0000E+00  0.0000
   1.2985E+02   1.3301E+02   0.0000E+00  0.0000
   1.3301E+02   1.3625E+02   0.0000E+00  0.0000
   1.3625E+02   1.3956E+02   0.0000E+00  0.0000
   1.3956E+02   1.4296E+02   0.0000E+00  0.0000
   1.4296E+02   1.4644E+02   0.0000E+00  0.0000
   1.4644E+02   1.5000E+02   0.0000E+00  0.0000

#   sum over                 1.6371E-06
'no. =    1   reg = 105 - 205'
msuc: {\huge [t-cross] in region mesh}
msdr: {\it plotted by \ANGEL \version}
msdl: {\it calculated by \PHITS  3.26}
wt: s(0.7)
\vspace{-3}
  region surface crossing
  area  &=&   1.0000E+00 [cm^2]
e:
 
# Information for Restart Calculation
# This calculation was newly started
# istdev =  2 # 1:Batch variance, 2:History variance
# resc2  = 5.00000000000000000E+09 # Total source weight or Total source weight / maxcas
# resc3  = 5.00000000000000000E+09 # Total history number or Total batch number
# maxcas =   100000000 # History / Batch, only used for istdev=1
# bitrseed = 0110100000100010111000001110001111001110100100011111101000111001 # bit data of rseed
