[ T-Cross ]
    title = [t-cross] in region mesh
     mesh =  reg            # mesh type is region-wise
      reg =    1            # number of crossing regions
      non     r-from    r-to       area
      1       113       213        1.000000    
   e-type =    3            # e-mesh is log given by emin, emax and ne
     emin =  1.0000000E-02  # minimum value of e-mesh points
     emax =   150.0000      # maximum value of e-mesh points
#    edel =  2.4039514E-02  # mesh width of e-mesh points
       ne =    400          # number of e-mesh points
#    data = ( e(i), i = 1, ne + 1 )
#           1.00000E-02  1.02433E-02  1.04925E-02  1.07478E-02  1.10093E-02
#           1.12772E-02  1.15516E-02  1.18326E-02  1.21205E-02  1.24154E-02
#           1.27175E-02  1.30269E-02  1.33439E-02  1.36686E-02  1.40011E-02
#           1.43418E-02  1.46907E-02  1.50482E-02  1.54143E-02  1.57894E-02
#           1.61735E-02  1.65670E-02  1.69701E-02  1.73830E-02  1.78060E-02
#           1.82392E-02  1.86830E-02  1.91375E-02  1.96032E-02  2.00801E-02
#           2.05687E-02  2.10692E-02  2.15818E-02  2.21069E-02  2.26448E-02
#           2.31957E-02  2.37601E-02  2.43382E-02  2.49304E-02  2.55369E-02
#           2.61583E-02  2.67947E-02  2.74467E-02  2.81145E-02  2.87985E-02
#           2.94992E-02  3.02169E-02  3.09521E-02  3.17052E-02  3.24766E-02
#           3.32668E-02  3.40762E-02  3.49053E-02  3.57546E-02  3.66246E-02
#           3.75157E-02  3.84284E-02  3.93634E-02  4.03212E-02  4.13022E-02
#           4.23071E-02  4.33365E-02  4.43909E-02  4.54710E-02  4.65773E-02
#           4.77106E-02  4.88714E-02  5.00605E-02  5.12785E-02  5.25262E-02
#           5.38042E-02  5.51133E-02  5.64542E-02  5.78278E-02  5.92348E-02
#           6.06760E-02  6.21523E-02  6.36645E-02  6.52135E-02  6.68002E-02
#           6.84255E-02  7.00904E-02  7.17957E-02  7.35426E-02  7.53319E-02
#           7.71648E-02  7.90423E-02  8.09655E-02  8.29354E-02  8.49533E-02
#           8.70203E-02  8.91376E-02  9.13064E-02  9.35279E-02  9.58035E-02
#           9.81345E-02  1.00522E-01  1.02968E-01  1.05473E-01  1.08040E-01
#           1.10668E-01  1.13361E-01  1.16119E-01  1.18944E-01  1.21838E-01
#           1.24803E-01  1.27839E-01  1.30950E-01  1.34136E-01  1.37399E-01
#           1.40742E-01  1.44167E-01  1.47675E-01  1.51268E-01  1.54948E-01
#           1.58718E-01  1.62580E-01  1.66535E-01  1.70587E-01  1.74738E-01
#           1.78989E-01  1.83344E-01  1.87805E-01  1.92375E-01  1.97055E-01
#           2.01850E-01  2.06761E-01  2.11792E-01  2.16945E-01  2.22223E-01
#           2.27630E-01  2.33169E-01  2.38842E-01  2.44653E-01  2.50605E-01
#           2.56703E-01  2.62949E-01  2.69346E-01  2.75900E-01  2.82613E-01
#           2.89489E-01  2.96532E-01  3.03747E-01  3.11138E-01  3.18708E-01
#           3.26462E-01  3.34405E-01  3.42542E-01  3.50876E-01  3.59413E-01
#           3.68158E-01  3.77116E-01  3.86291E-01  3.95690E-01  4.05317E-01
#           4.15179E-01  4.25281E-01  4.35628E-01  4.46227E-01  4.57084E-01
#           4.68205E-01  4.79597E-01  4.91266E-01  5.03219E-01  5.15463E-01
#           5.28005E-01  5.40851E-01  5.54011E-01  5.67490E-01  5.81298E-01
#           5.95441E-01  6.09929E-01  6.24769E-01  6.39970E-01  6.55541E-01
#           6.71491E-01  6.87828E-01  7.04564E-01  7.21706E-01  7.39266E-01
#           7.57253E-01  7.75678E-01  7.94551E-01  8.13883E-01  8.33685E-01
#           8.53969E-01  8.74747E-01  8.96030E-01  9.17831E-01  9.40163E-01
#           9.63038E-01  9.86469E-01  1.01047E+00  1.03506E+00  1.06024E+00
#           1.08604E+00  1.11246E+00  1.13953E+00  1.16725E+00  1.19565E+00
#           1.22474E+00  1.25454E+00  1.28507E+00  1.31633E+00  1.34836E+00
#           1.38117E+00  1.41477E+00  1.44920E+00  1.48446E+00  1.52057E+00
#           1.55757E+00  1.59547E+00  1.63429E+00  1.67405E+00  1.71478E+00
#           1.75650E+00  1.79924E+00  1.84302E+00  1.88786E+00  1.93379E+00
#           1.98084E+00  2.02904E+00  2.07841E+00  2.12898E+00  2.18078E+00
#           2.23384E+00  2.28819E+00  2.34386E+00  2.40089E+00  2.45930E+00
#           2.51914E+00  2.58043E+00  2.64322E+00  2.70753E+00  2.77341E+00
#           2.84088E+00  2.91001E+00  2.98081E+00  3.05333E+00  3.12762E+00
#           3.20372E+00  3.28167E+00  3.36152E+00  3.44330E+00  3.52708E+00
#           3.61290E+00  3.70080E+00  3.79085E+00  3.88308E+00  3.97756E+00
#           4.07434E+00  4.17347E+00  4.27501E+00  4.37903E+00  4.48557E+00
#           4.59471E+00  4.70650E+00  4.82102E+00  4.93832E+00  5.05847E+00
#           5.18155E+00  5.30762E+00  5.43676E+00  5.56904E+00  5.70453E+00
#           5.84333E+00  5.98550E+00  6.13114E+00  6.28031E+00  6.43312E+00
#           6.58964E+00  6.74997E+00  6.91420E+00  7.08243E+00  7.25475E+00
#           7.43126E+00  7.61207E+00  7.79728E+00  7.98700E+00  8.18133E+00
#           8.38038E+00  8.58428E+00  8.79315E+00  9.00709E+00  9.22624E+00
#           9.45072E+00  9.68067E+00  9.91620E+00  1.01575E+01  1.04046E+01
#           1.06578E+01  1.09171E+01  1.11827E+01  1.14548E+01  1.17335E+01
#           1.20190E+01  1.23114E+01  1.26109E+01  1.29178E+01  1.32321E+01
#           1.35540E+01  1.38838E+01  1.42216E+01  1.45676E+01  1.49221E+01
#           1.52851E+01  1.56570E+01  1.60380E+01  1.64282E+01  1.68279E+01
#           1.72374E+01  1.76568E+01  1.80864E+01  1.85264E+01  1.89772E+01
#           1.94389E+01  1.99119E+01  2.03963E+01  2.08926E+01  2.14009E+01
#           2.19216E+01  2.24550E+01  2.30014E+01  2.35610E+01  2.41343E+01
#           2.47215E+01  2.53230E+01  2.59391E+01  2.65702E+01  2.72167E+01
#           2.78789E+01  2.85572E+01  2.92520E+01  2.99637E+01  3.06928E+01
#           3.14396E+01  3.22045E+01  3.29881E+01  3.37907E+01  3.46128E+01
#           3.54550E+01  3.63177E+01  3.72013E+01  3.81064E+01  3.90336E+01
#           3.99833E+01  4.09561E+01  4.19526E+01  4.29734E+01  4.40189E+01
#           4.50900E+01  4.61870E+01  4.73108E+01  4.84619E+01  4.96410E+01
#           5.08488E+01  5.20860E+01  5.33533E+01  5.46514E+01  5.59812E+01
#           5.73432E+01  5.87384E+01  6.01676E+01  6.16315E+01  6.31311E+01
#           6.46671E+01  6.62405E+01  6.78522E+01  6.95031E+01  7.11941E+01
#           7.29263E+01  7.47007E+01  7.65182E+01  7.83800E+01  8.02870E+01
#           8.22405E+01  8.42414E+01  8.62911E+01  8.83906E+01  9.05412E+01
#           9.27442E+01  9.50007E+01  9.73122E+01  9.96799E+01  1.02105E+02
#           1.04589E+02  1.07134E+02  1.09741E+02  1.12411E+02  1.15146E+02
#           1.17948E+02  1.20817E+02  1.23757E+02  1.26768E+02  1.29852E+02
#           1.33012E+02  1.36248E+02  1.39563E+02  1.42959E+02  1.46437E+02
#           1.50000E+02
     unit =    2            # unit is [1/cm^2/(MeV/n)/source]
     axis =  eng            # axis of output
     file = detector-14.out  # file name of output for the above axis
   output = f-curr          # surface crossing forward current spectrum
     part =  neutron  
# kf/name :  2112     
#    used :        main (  %)        temp (  %)       total (  %)
#  memory :         414 (  0)           0 (  0)         414 (  0)

#------------------------------------------------------------------------------
#newpage:
#   no. =    1   reg = 113 - 213

x: Energy [MeV/n]
y:  F-Curr [1/cm^2/(MeV/n)/source]         
p: xlog ylog afac(0.8) form(0.9)
h: n            x            y(neutron ),hh0l   n 
#  e-lower      e-upper      neutron     r.err 
   1.0000E-02   1.0243E-02   9.5484E-04  0.0922
   1.0243E-02   1.0493E-02   1.0779E-03  0.0862
   1.0493E-02   1.0748E-02   9.3876E-04  0.0912
   1.0748E-02   1.1009E-02   9.5503E-04  0.0893
   1.1009E-02   1.1277E-02   1.0205E-03  0.0854
   1.1277E-02   1.1552E-02   9.2687E-04  0.0886
   1.1552E-02   1.1833E-02   9.0346E-04  0.0885
   1.1833E-02   1.2121E-02   9.6079E-04  0.0850
   1.2121E-02   1.2415E-02   9.1331E-04  0.0860
   1.2415E-02   1.2718E-02   1.0029E-03  0.0808
   1.2718E-02   1.3027E-02   8.6729E-04  0.0863
   1.3027E-02   1.3344E-02   9.3286E-04  0.0819
   1.3344E-02   1.3669E-02   8.4608E-04  0.0851
   1.3669E-02   1.4001E-02   7.6862E-04  0.0883
   1.4001E-02   1.4342E-02   7.3185E-04  0.0894
   1.4342E-02   1.4691E-02   7.8331E-04  0.0854
   1.4691E-02   1.5048E-02   6.2301E-04  0.0946
   1.5048E-02   1.5414E-02   7.1541E-04  0.0872
   1.5414E-02   1.5789E-02   6.6938E-04  0.0889
   1.5789E-02   1.6174E-02   5.7701E-04  0.0947
   1.6174E-02   1.6567E-02   7.7065E-04  0.0811
   1.6567E-02   1.6970E-02   6.1940E-04  0.0893
   1.6970E-02   1.7383E-02   7.3068E-04  0.0812
   1.7383E-02   1.7806E-02   7.6035E-04  0.0787
   1.7806E-02   1.8239E-02   6.1384E-04  0.0865
   1.8239E-02   1.8683E-02   6.4254E-04  0.0836
   1.8683E-02   1.9138E-02   5.5058E-04  0.0892
   1.9138E-02   1.9603E-02   5.9231E-04  0.0850
   1.9603E-02   2.0080E-02   5.6387E-04  0.0857
   2.0080E-02   2.0569E-02   5.5137E-04  0.0860
   2.0569E-02   2.1069E-02   5.1841E-04  0.0874
   2.1069E-02   2.1582E-02   5.3648E-04  0.0850
   2.1582E-02   2.2107E-02   5.3877E-04  0.0838
   2.2107E-02   2.2645E-02   4.9764E-04  0.0858
   2.2645E-02   2.3196E-02   4.7122E-04  0.0874
   2.3196E-02   2.3760E-02   4.1955E-04  0.0918
   2.3760E-02   2.4338E-02   4.6782E-04  0.0857
   2.4338E-02   2.4930E-02   4.1433E-04  0.0901
   2.4930E-02   2.5537E-02   3.9278E-04  0.0916
   2.5537E-02   2.6158E-02   4.4080E-04  0.0850
   2.6158E-02   2.6795E-02   4.6335E-04  0.0820
   2.6795E-02   2.7447E-02   3.8086E-04  0.0891
   2.7447E-02   2.8114E-02   3.6272E-04  0.0906
   2.8114E-02   2.8799E-02   3.5501E-04  0.0906
   2.8799E-02   2.9499E-02   3.8239E-04  0.0862
   2.9499E-02   3.0217E-02   3.8142E-04  0.0853
   3.0217E-02   3.0952E-02   3.3491E-04  0.0898
   3.0952E-02   3.1705E-02   3.0600E-04  0.0928
   3.1705E-02   3.2477E-02   2.8173E-04  0.0958
   3.2477E-02   3.3267E-02   3.1043E-04  0.0902
   3.3267E-02   3.4076E-02   3.0217E-04  0.0900
   3.4076E-02   3.4905E-02   2.8985E-04  0.0909
   3.4905E-02   3.5755E-02   2.7576E-04  0.0918
   3.5755E-02   3.6625E-02   3.0062E-04  0.0872
   3.6625E-02   3.7516E-02   2.6638E-04  0.0914
   3.7516E-02   3.8428E-02   2.3002E-04  0.0973
   3.8428E-02   3.9363E-02   2.5348E-04  0.0918
   3.9363E-02   4.0321E-02   2.5886E-04  0.0896
   4.0321E-02   4.1302E-02   2.4493E-04  0.0907
   4.1302E-02   4.2307E-02   2.4743E-04  0.0896
   4.2307E-02   4.3337E-02   2.6098E-04  0.0860
   4.3337E-02   4.4391E-02   1.9412E-04  0.0984
   4.4391E-02   4.5471E-02   2.3258E-04  0.0889
   4.5471E-02   4.6577E-02   2.2469E-04  0.0894
   4.6577E-02   4.7711E-02   1.7563E-04  0.0998
   4.7711E-02   4.8871E-02   1.6653E-04  0.1015
   4.8871E-02   5.0061E-02   2.0350E-04  0.0905
   5.0061E-02   5.1279E-02   1.9508E-04  0.0913
   5.1279E-02   5.2526E-02   1.8007E-04  0.0937
   5.2526E-02   5.3804E-02   2.1424E-04  0.0853
   5.3804E-02   5.5113E-02   2.0189E-04  0.0868
   5.5113E-02   5.6454E-02   1.9205E-04  0.0879
   5.6454E-02   5.7828E-02   1.6856E-04  0.0925
   5.7828E-02   5.9235E-02   1.5475E-04  0.0955
   5.9235E-02   6.0676E-02   1.5418E-04  0.0945
   6.0676E-02   6.2152E-02   1.6594E-04  0.0900
   6.2152E-02   6.3665E-02   1.4874E-04  0.0939
   6.3665E-02   6.5214E-02   1.3709E-04  0.0968
   6.5214E-02   6.6800E-02   1.3283E-04  0.0967
   6.6800E-02   6.8426E-02   1.6650E-04  0.0855
   6.8426E-02   7.0090E-02   1.2969E-04  0.0960
   7.0090E-02   7.1796E-02   1.5125E-04  0.0878
   7.1796E-02   7.3543E-02   1.3770E-04  0.0908
   7.3543E-02   7.5332E-02   1.2746E-04  0.0933
   7.5332E-02   7.7165E-02   1.0946E-04  0.0992
   7.7165E-02   7.9042E-02   1.3443E-04  0.0887
   7.9042E-02   8.0965E-02   1.1755E-04  0.0938
   8.0965E-02   8.2935E-02   1.1150E-04  0.0952
   8.2935E-02   8.4953E-02   1.2112E-04  0.0901
   8.4953E-02   8.7020E-02   1.1722E-04  0.0908
   8.7020E-02   8.9138E-02   1.1840E-04  0.0890
   8.9138E-02   9.1306E-02   1.1709E-04  0.0885
   9.1306E-02   9.3528E-02   1.0218E-04  0.0937
   9.3528E-02   9.5804E-02   1.0718E-04  0.0903
   9.5804E-02   9.8134E-02   1.1356E-04  0.0868
   9.8134E-02   1.0052E-01   1.0737E-04  0.0880
   1.0052E-01   1.0297E-01   9.4770E-05  0.0925
   1.0297E-01   1.0547E-01   9.7793E-05  0.0903
   1.0547E-01   1.0804E-01   7.5944E-05  0.1011
   1.0804E-01   1.1067E-01   9.0269E-05  0.0917
   1.1067E-01   1.1336E-01   9.1427E-05  0.0898
   1.1336E-01   1.1612E-01   8.9410E-05  0.0900
   1.1612E-01   1.1894E-01   9.4469E-05  0.0864
   1.1894E-01   1.2184E-01   1.0572E-04  0.0806
   1.2184E-01   1.2480E-01   8.6261E-05  0.0882
   1.2480E-01   1.2784E-01   9.0804E-05  0.0850
   1.2784E-01   1.3095E-01   7.7028E-05  0.0910
   1.3095E-01   1.3414E-01   8.5888E-05  0.0852
   1.3414E-01   1.3740E-01   7.7639E-05  0.0886
   1.3740E-01   1.4074E-01   7.2346E-05  0.0906
   1.4074E-01   1.4417E-01   7.8921E-05  0.0857
   1.4417E-01   1.4767E-01   7.6404E-05  0.0860
   1.4767E-01   1.5127E-01   6.2827E-05  0.0938
   1.5127E-01   1.5495E-01   7.2799E-05  0.0862
   1.5495E-01   1.5872E-01   7.5554E-05  0.0835
   1.5872E-01   1.6258E-01   7.3634E-05  0.0836
   1.6258E-01   1.6654E-01   6.2284E-05  0.0896
   1.6654E-01   1.7059E-01   6.8524E-05  0.0847
   1.7059E-01   1.7474E-01   5.4006E-05  0.0939
   1.7474E-01   1.7899E-01   7.2277E-05  0.0804
   1.7899E-01   1.8334E-01   6.3200E-05  0.0849
   1.8334E-01   1.8781E-01   7.4002E-05  0.0776
   1.8781E-01   1.9237E-01   6.7127E-05  0.0805
   1.9237E-01   1.9706E-01   6.3358E-05  0.0818
   1.9706E-01   2.0185E-01   6.2773E-05  0.0812
   2.0185E-01   2.0676E-01   5.7533E-05  0.0839
   2.0676E-01   2.1179E-01   7.0081E-05  0.0753
   2.1179E-01   2.1694E-01   7.9089E-05  0.0699
   2.1694E-01   2.2222E-01   7.6950E-05  0.0699
   2.2222E-01   2.2763E-01   7.5973E-05  0.0695
   2.2763E-01   2.3317E-01   8.1040E-05  0.0666
   2.3317E-01   2.3884E-01   8.3944E-05  0.0645
   2.3884E-01   2.4465E-01   9.7088E-05  0.0594
   2.4465E-01   2.5061E-01   8.7495E-05  0.0617
   2.5061E-01   2.5670E-01   1.0044E-04  0.0570
   2.5670E-01   2.6295E-01   1.0611E-04  0.0547
   2.6295E-01   2.6935E-01   1.0886E-04  0.0534
   2.6935E-01   2.7590E-01   1.0593E-04  0.0535
   2.7590E-01   2.8261E-01   1.1280E-04  0.0512
   2.8261E-01   2.8949E-01   1.2420E-04  0.0482
   2.8949E-01   2.9653E-01   1.3042E-04  0.0466
   2.9653E-01   3.0375E-01   1.3359E-04  0.0454
   3.0375E-01   3.1114E-01   1.5120E-04  0.0422
   3.1114E-01   3.1871E-01   1.5475E-04  0.0412
   3.1871E-01   3.2646E-01   1.4705E-04  0.0417
   3.2646E-01   3.3441E-01   1.6169E-04  0.0393
   3.3441E-01   3.4254E-01   1.6308E-04  0.0387
   3.4254E-01   3.5088E-01   1.6977E-04  0.0374
   3.5088E-01   3.5941E-01   1.7500E-04  0.0365
   3.5941E-01   3.6816E-01   1.7632E-04  0.0359
   3.6816E-01   3.7712E-01   1.9745E-04  0.0336
   3.7712E-01   3.8629E-01   2.0342E-04  0.0327
   3.8629E-01   3.9569E-01   2.1217E-04  0.0316
   3.9569E-01   4.0532E-01   2.2274E-04  0.0304
   4.0532E-01   4.1518E-01   2.2657E-04  0.0298
   4.1518E-01   4.2528E-01   2.3606E-04  0.0289
   4.2528E-01   4.3563E-01   2.4693E-04  0.0279
   4.3563E-01   4.4623E-01   2.5312E-04  0.0273
   4.4623E-01   4.5708E-01   2.4366E-04  0.0274
   4.5708E-01   4.6821E-01   2.7460E-04  0.0255
   4.6821E-01   4.7960E-01   2.8932E-04  0.0246
   4.7960E-01   4.9127E-01   2.9330E-04  0.0241
   4.9127E-01   5.0322E-01   3.0600E-04  0.0233
   5.0322E-01   5.1546E-01   3.0233E-04  0.0232
   5.1546E-01   5.2800E-01   3.1080E-04  0.0226
   5.2800E-01   5.4085E-01   3.1068E-04  0.0223
   5.4085E-01   5.5401E-01   3.2840E-04  0.0215
   5.5401E-01   5.6749E-01   3.3717E-04  0.0209
   5.6749E-01   5.8130E-01   3.3588E-04  0.0207
   5.8130E-01   5.9544E-01   3.5872E-04  0.0198
   5.9544E-01   6.0993E-01   3.6423E-04  0.0194
   6.0993E-01   6.2477E-01   3.6600E-04  0.0191
   6.2477E-01   6.3997E-01   3.7048E-04  0.0188
   6.3997E-01   6.5554E-01   3.7043E-04  0.0186
   6.5554E-01   6.7149E-01   3.9459E-04  0.0178
   6.7149E-01   6.8783E-01   3.9258E-04  0.0176
   6.8783E-01   7.0456E-01   4.1598E-04  0.0169
   7.0456E-01   7.2171E-01   4.0651E-04  0.0169
   7.2171E-01   7.3927E-01   4.1438E-04  0.0165
   7.3927E-01   7.5725E-01   4.2712E-04  0.0161
   7.5725E-01   7.7568E-01   4.1805E-04  0.0161
   7.7568E-01   7.9455E-01   4.2341E-04  0.0158
   7.9455E-01   8.1388E-01   4.3725E-04  0.0153
   8.1388E-01   8.3368E-01   4.4276E-04  0.0151
   8.3368E-01   8.5397E-01   4.2810E-04  0.0151
   8.5397E-01   8.7475E-01   4.3393E-04  0.0149
   8.7475E-01   8.9603E-01   4.4821E-04  0.0144
   8.9603E-01   9.1783E-01   4.4205E-04  0.0144
   9.1783E-01   9.4016E-01   4.4624E-04  0.0141
   9.4016E-01   9.6304E-01   4.5698E-04  0.0138
   9.6304E-01   9.8647E-01   4.5450E-04  0.0137
   9.8647E-01   1.0105E+00   4.5948E-04  0.0134
   1.0105E+00   1.0351E+00   4.5005E-04  0.0134
   1.0351E+00   1.0602E+00   4.5178E-04  0.0132
   1.0602E+00   1.0860E+00   4.4865E-04  0.0131
   1.0860E+00   1.1125E+00   4.5495E-04  0.0129
   1.1125E+00   1.1395E+00   4.4699E-04  0.0128
   1.1395E+00   1.1673E+00   4.2881E-04  0.0129
   1.1673E+00   1.1957E+00   4.3960E-04  0.0126
   1.1957E+00   1.2247E+00   4.3929E-04  0.0125
   1.2247E+00   1.2545E+00   4.3354E-04  0.0124
   1.2545E+00   1.2851E+00   4.4030E-04  0.0122
   1.2851E+00   1.3163E+00   4.2213E-04  0.0123
   1.3163E+00   1.3484E+00   4.2891E-04  0.0120
   1.3484E+00   1.3812E+00   4.2043E-04  0.0120
   1.3812E+00   1.4148E+00   4.2384E-04  0.0118
   1.4148E+00   1.4492E+00   4.1390E-04  0.0118
   1.4492E+00   1.4845E+00   4.1561E-04  0.0116
   1.4845E+00   1.5206E+00   4.1118E-04  0.0115
   1.5206E+00   1.5576E+00   4.0842E-04  0.0115
   1.5576E+00   1.5955E+00   3.9740E-04  0.0115
   1.5955E+00   1.6343E+00   3.9554E-04  0.0114
   1.6343E+00   1.6741E+00   3.8046E-04  0.0114
   1.6741E+00   1.7148E+00   3.8075E-04  0.0113
   1.7148E+00   1.7565E+00   3.8214E-04  0.0111
   1.7565E+00   1.7992E+00   3.7030E-04  0.0112
   1.7992E+00   1.8430E+00   3.7065E-04  0.0110
   1.8430E+00   1.8879E+00   3.5941E-04  0.0111
   1.8879E+00   1.9338E+00   3.5351E-04  0.0110
   1.9338E+00   1.9808E+00   3.5025E-04  0.0110
   1.9808E+00   2.0290E+00   3.5748E-04  0.0107
   2.0290E+00   2.0784E+00   3.4063E-04  0.0108
   2.0784E+00   2.1290E+00   3.3075E-04  0.0109
   2.1290E+00   2.1808E+00   3.2862E-04  0.0108
   2.1808E+00   2.2338E+00   3.2444E-04  0.0107
   2.2338E+00   2.2882E+00   3.1576E-04  0.0107
   2.2882E+00   2.3439E+00   3.1119E-04  0.0107
   2.3439E+00   2.4009E+00   3.1295E-04  0.0105
   2.4009E+00   2.4593E+00   3.0279E-04  0.0106
   2.4593E+00   2.5191E+00   2.9705E-04  0.0105
   2.5191E+00   2.5804E+00   3.0311E-04  0.0103
   2.5804E+00   2.6432E+00   2.8923E-04  0.0104
   2.6432E+00   2.7075E+00   2.8452E-04  0.0104
   2.7075E+00   2.7734E+00   2.7997E-04  0.0103
   2.7734E+00   2.8409E+00   2.7224E-04  0.0104
   2.8409E+00   2.9100E+00   2.7113E-04  0.0103
   2.9100E+00   2.9808E+00   2.6577E-04  0.0102
   2.9808E+00   3.0533E+00   2.6426E-04  0.0101
   3.0533E+00   3.1276E+00   2.5989E-04  0.0101
   3.1276E+00   3.2037E+00   2.5619E-04  0.0101
   3.2037E+00   3.2817E+00   2.4915E-04  0.0101
   3.2817E+00   3.3615E+00   2.4689E-04  0.0100
   3.3615E+00   3.4433E+00   2.4094E-04  0.0100
   3.4433E+00   3.5271E+00   2.3975E-04  0.0099
   3.5271E+00   3.6129E+00   2.3567E-04  0.0099
   3.6129E+00   3.7008E+00   2.3820E-04  0.0097
   3.7008E+00   3.7908E+00   2.2976E-04  0.0098
   3.7908E+00   3.8831E+00   2.2539E-04  0.0097
   3.8831E+00   3.9776E+00   2.2752E-04  0.0096
   3.9776E+00   4.0743E+00   2.2501E-04  0.0095
   4.0743E+00   4.1735E+00   2.2072E-04  0.0095
   4.1735E+00   4.2750E+00   2.1930E-04  0.0094
   4.2750E+00   4.3790E+00   2.1945E-04  0.0093
   4.3790E+00   4.4856E+00   2.2004E-04  0.0092
   4.4856E+00   4.5947E+00   2.2102E-04  0.0091
   4.5947E+00   4.7065E+00   2.1640E-04  0.0090
   4.7065E+00   4.8210E+00   2.2005E-04  0.0089
   4.8210E+00   4.9383E+00   2.1523E-04  0.0089
   4.9383E+00   5.0585E+00   2.1378E-04  0.0088
   5.0585E+00   5.1815E+00   2.1058E-04  0.0087
   5.1815E+00   5.3076E+00   2.0972E-04  0.0087
   5.3076E+00   5.4368E+00   2.0727E-04  0.0086
   5.4368E+00   5.5690E+00   2.0159E-04  0.0086
   5.5690E+00   5.7045E+00   1.9719E-04  0.0086
   5.7045E+00   5.8433E+00   1.9636E-04  0.0085
   5.8433E+00   5.9855E+00   1.9309E-04  0.0085
   5.9855E+00   6.1311E+00   1.8945E-04  0.0085
   6.1311E+00   6.2803E+00   1.8821E-04  0.0084
   6.2803E+00   6.4331E+00   1.8353E-04  0.0084
   6.4331E+00   6.5896E+00   1.8317E-04  0.0083
   6.5896E+00   6.7500E+00   1.8150E-04  0.0083
   6.7500E+00   6.9142E+00   1.7593E-04  0.0083
   6.9142E+00   7.0824E+00   1.7355E-04  0.0083
   7.0824E+00   7.2548E+00   1.7217E-04  0.0082
   7.2548E+00   7.4313E+00   1.6909E-04  0.0082
   7.4313E+00   7.6121E+00   1.6376E-04  0.0082
   7.6121E+00   7.7973E+00   1.6140E-04  0.0082
   7.7973E+00   7.9870E+00   1.5599E-04  0.0082
   7.9870E+00   8.1813E+00   1.5290E-04  0.0082
   8.1813E+00   8.3804E+00   1.4913E-04  0.0082
   8.3804E+00   8.5843E+00   1.4510E-04  0.0082
   8.5843E+00   8.7931E+00   1.4345E-04  0.0082
   8.7931E+00   9.0071E+00   1.3636E-04  0.0083
   9.0071E+00   9.2262E+00   1.3385E-04  0.0082
   9.2262E+00   9.4507E+00   1.3184E-04  0.0082
   9.4507E+00   9.6807E+00   1.2632E-04  0.0083
   9.6807E+00   9.9162E+00   1.2329E-04  0.0083
   9.9162E+00   1.0157E+01   1.1893E-04  0.0083
   1.0157E+01   1.0405E+01   1.1592E-04  0.0083
   1.0405E+01   1.0658E+01   1.1359E-04  0.0083
   1.0658E+01   1.0917E+01   1.1226E-04  0.0083
   1.0917E+01   1.1183E+01   1.0776E-04  0.0083
   1.1183E+01   1.1455E+01   1.0438E-04  0.0084
   1.1455E+01   1.1733E+01   1.0073E-04  0.0084
   1.1733E+01   1.2019E+01   9.6409E-05  0.0085
   1.2019E+01   1.2311E+01   9.3675E-05  0.0085
   1.2311E+01   1.2611E+01   8.8628E-05  0.0087
   1.2611E+01   1.2918E+01   8.5912E-05  0.0087
   1.2918E+01   1.3232E+01   8.2172E-05  0.0088
   1.3232E+01   1.3554E+01   7.9897E-05  0.0088
   1.3554E+01   1.3884E+01   7.5245E-05  0.0090
   1.3884E+01   1.4222E+01   7.1687E-05  0.0091
   1.4222E+01   1.4568E+01   7.0197E-05  0.0091
   1.4568E+01   1.4922E+01   6.6029E-05  0.0092
   1.4922E+01   1.5285E+01   6.3802E-05  0.0093
   1.5285E+01   1.5657E+01   6.0067E-05  0.0095
   1.5657E+01   1.6038E+01   5.6209E-05  0.0097
   1.6038E+01   1.6428E+01   5.3643E-05  0.0098
   1.6428E+01   1.6828E+01   5.1647E-05  0.0098
   1.6828E+01   1.7237E+01   4.8652E-05  0.0100
   1.7237E+01   1.7657E+01   4.6012E-05  0.0102
   1.7657E+01   1.8086E+01   4.4123E-05  0.0103
   1.8086E+01   1.8526E+01   4.0959E-05  0.0105
   1.8526E+01   1.8977E+01   3.8893E-05  0.0107
   1.8977E+01   1.9439E+01   3.6934E-05  0.0108
   1.9439E+01   1.9912E+01   3.5575E-05  0.0109
   1.9912E+01   2.0396E+01   3.2543E-05  0.0113
   2.0396E+01   2.0893E+01   3.0996E-05  0.0114
   2.0893E+01   2.1401E+01   2.9563E-05  0.0115
   2.1401E+01   2.1922E+01   2.7213E-05  0.0119
   2.1922E+01   2.2455E+01   2.5089E-05  0.0122
   2.2455E+01   2.3001E+01   2.2663E-05  0.0127
   2.3001E+01   2.3561E+01   2.1482E-05  0.0129
   2.3561E+01   2.4134E+01   1.8885E-05  0.0136
   2.4134E+01   2.4721E+01   1.7830E-05  0.0138
   2.4721E+01   2.5323E+01   1.6336E-05  0.0143
   2.5323E+01   2.5939E+01   1.4536E-05  0.0149
   2.5939E+01   2.6570E+01   1.3126E-05  0.0155
   2.6570E+01   2.7217E+01   1.1639E-05  0.0163
   2.7217E+01   2.7879E+01   1.0329E-05  0.0171
   2.7879E+01   2.8557E+01   9.0489E-06  0.0181
   2.8557E+01   2.9252E+01   8.0280E-06  0.0189
   2.9252E+01   2.9964E+01   7.1292E-06  0.0199
   2.9964E+01   3.0693E+01   6.2685E-06  0.0209
   3.0693E+01   3.1440E+01   5.3885E-06  0.0223
   3.1440E+01   3.2205E+01   4.6356E-06  0.0237
   3.2205E+01   3.2988E+01   3.9384E-06  0.0255
   3.2988E+01   3.3791E+01   3.5359E-06  0.0265
   3.3791E+01   3.4613E+01   2.8705E-06  0.0291
   3.4613E+01   3.5455E+01   2.3677E-06  0.0317
   3.5455E+01   3.6318E+01   2.0495E-06  0.0336
   3.6318E+01   3.7201E+01   1.7043E-06  0.0364
   3.7201E+01   3.8106E+01   1.3965E-06  0.0398
   3.8106E+01   3.9034E+01   1.0721E-06  0.0449
   3.9034E+01   3.9983E+01   8.9290E-07  0.0486
   3.9983E+01   4.0956E+01   8.0590E-07  0.0505
   4.0956E+01   4.1953E+01   6.1616E-07  0.0571
   4.1953E+01   4.2973E+01   4.9964E-07  0.0626
   4.2973E+01   4.4019E+01   4.2082E-07  0.0674
   4.4019E+01   4.5090E+01   3.6227E-07  0.0718
   4.5090E+01   4.6187E+01   3.4455E-07  0.0727
   4.6187E+01   4.7311E+01   2.4382E-07  0.0854
   4.7311E+01   4.8462E+01   1.8591E-07  0.0967
   4.8462E+01   4.9641E+01   1.6283E-07  0.1021
   4.9641E+01   5.0849E+01   1.7718E-07  0.0967
   5.0849E+01   5.2086E+01   1.5357E-07  0.1026
   5.2086E+01   5.3353E+01   9.3112E-08  0.1302
   5.3353E+01   5.4651E+01   1.0168E-07  0.1231
   5.4651E+01   5.5981E+01   7.0692E-08  0.1459
   5.5981E+01   5.7343E+01   5.5798E-08  0.1622
   5.7343E+01   5.8738E+01   4.8738E-08  0.1715
   5.8738E+01   6.0168E+01   3.6385E-08  0.1961
   6.0168E+01   6.1632E+01   2.3225E-08  0.2425
   6.1632E+01   6.3131E+01   1.8672E-08  0.2673
   6.3131E+01   6.4667E+01   9.1144E-09  0.3780
   6.4667E+01   6.6240E+01   2.5423E-09  0.7071
   6.6240E+01   6.7852E+01   0.0000E+00  0.0000
   6.7852E+01   6.9503E+01   0.0000E+00  0.0000
   6.9503E+01   7.1194E+01   1.1827E-09  1.0000
   7.1194E+01   7.2926E+01   0.0000E+00  0.0000
   7.2926E+01   7.4701E+01   1.1272E-09  1.0000
   7.4701E+01   7.6518E+01   0.0000E+00  0.0000
   7.6518E+01   7.8380E+01   0.0000E+00  0.0000
   7.8380E+01   8.0287E+01   0.0000E+00  0.0000
   8.0287E+01   8.2240E+01   0.0000E+00  0.0000
   8.2240E+01   8.4241E+01   0.0000E+00  0.0000
   8.4241E+01   8.6291E+01   0.0000E+00  0.0000
   8.6291E+01   8.8391E+01   0.0000E+00  0.0000
   8.8391E+01   9.0541E+01   0.0000E+00  0.0000
   9.0541E+01   9.2744E+01   0.0000E+00  0.0000
   9.2744E+01   9.5001E+01   0.0000E+00  0.0000
   9.5001E+01   9.7312E+01   0.0000E+00  0.0000
   9.7312E+01   9.9680E+01   0.0000E+00  0.0000
   9.9680E+01   1.0211E+02   0.0000E+00  0.0000
   1.0211E+02   1.0459E+02   0.0000E+00  0.0000
   1.0459E+02   1.0713E+02   0.0000E+00  0.0000
   1.0713E+02   1.0974E+02   0.0000E+00  0.0000
   1.0974E+02   1.1241E+02   0.0000E+00  0.0000
   1.1241E+02   1.1515E+02   0.0000E+00  0.0000
   1.1515E+02   1.1795E+02   0.0000E+00  0.0000
   1.1795E+02   1.2082E+02   0.0000E+00  0.0000
   1.2082E+02   1.2376E+02   0.0000E+00  0.0000
   1.2376E+02   1.2677E+02   0.0000E+00  0.0000
   1.2677E+02   1.2985E+02   0.0000E+00  0.0000
   1.2985E+02   1.3301E+02   0.0000E+00  0.0000
   1.3301E+02   1.3625E+02   0.0000E+00  0.0000
   1.3625E+02   1.3956E+02   0.0000E+00  0.0000
   1.3956E+02   1.4296E+02   0.0000E+00  0.0000
   1.4296E+02   1.4644E+02   0.0000E+00  0.0000
   1.4644E+02   1.5000E+02   0.0000E+00  0.0000

#   sum over                 2.1130E-05
'no. =    1   reg = 113 - 213'
msuc: {\huge [t-cross] in region mesh}
msdr: {\it plotted by \ANGEL \version}
msdl: {\it calculated by \PHITS  3.26}
wt: s(0.7)
\vspace{-3}
  region surface crossing
  area  &=&   1.0000E+00 [cm^2]
e:
 
# Information for Restart Calculation
# This calculation was newly started
# istdev =  2 # 1:Batch variance, 2:History variance
# resc2  = 5.00000000000000000E+08 # Total source weight or Total source weight / maxcas
# resc3  = 5.00000000000000000E+08 # Total history number or Total batch number
# maxcas =   500000000 # History / Batch, only used for istdev=1
# bitrseed = 1101101111010011011000101101110001100110110010110001010100010001 # bit data of rseed
