[ T-Cross ]
    title = [t-cross] in region mesh
     mesh =  reg            # mesh type is region-wise
      reg =    1            # number of crossing regions
      non     r-from    r-to       area
      1       117       217        1.000000    
   e-type =    3            # e-mesh is log given by emin, emax and ne
     emin =  1.0000000E-02  # minimum value of e-mesh points
     emax =   150.0000      # maximum value of e-mesh points
#    edel =  2.4039514E-02  # mesh width of e-mesh points
       ne =    400          # number of e-mesh points
#    data = ( e(i), i = 1, ne + 1 )
#           1.00000E-02  1.02433E-02  1.04925E-02  1.07478E-02  1.10093E-02
#           1.12772E-02  1.15516E-02  1.18326E-02  1.21205E-02  1.24154E-02
#           1.27175E-02  1.30269E-02  1.33439E-02  1.36686E-02  1.40011E-02
#           1.43418E-02  1.46907E-02  1.50482E-02  1.54143E-02  1.57894E-02
#           1.61735E-02  1.65670E-02  1.69701E-02  1.73830E-02  1.78060E-02
#           1.82392E-02  1.86830E-02  1.91375E-02  1.96032E-02  2.00801E-02
#           2.05687E-02  2.10692E-02  2.15818E-02  2.21069E-02  2.26448E-02
#           2.31957E-02  2.37601E-02  2.43382E-02  2.49304E-02  2.55369E-02
#           2.61583E-02  2.67947E-02  2.74467E-02  2.81145E-02  2.87985E-02
#           2.94992E-02  3.02169E-02  3.09521E-02  3.17052E-02  3.24766E-02
#           3.32668E-02  3.40762E-02  3.49053E-02  3.57546E-02  3.66246E-02
#           3.75157E-02  3.84284E-02  3.93634E-02  4.03212E-02  4.13022E-02
#           4.23071E-02  4.33365E-02  4.43909E-02  4.54710E-02  4.65773E-02
#           4.77106E-02  4.88714E-02  5.00605E-02  5.12785E-02  5.25262E-02
#           5.38042E-02  5.51133E-02  5.64542E-02  5.78278E-02  5.92348E-02
#           6.06760E-02  6.21523E-02  6.36645E-02  6.52135E-02  6.68002E-02
#           6.84255E-02  7.00904E-02  7.17957E-02  7.35426E-02  7.53319E-02
#           7.71648E-02  7.90423E-02  8.09655E-02  8.29354E-02  8.49533E-02
#           8.70203E-02  8.91376E-02  9.13064E-02  9.35279E-02  9.58035E-02
#           9.81345E-02  1.00522E-01  1.02968E-01  1.05473E-01  1.08040E-01
#           1.10668E-01  1.13361E-01  1.16119E-01  1.18944E-01  1.21838E-01
#           1.24803E-01  1.27839E-01  1.30950E-01  1.34136E-01  1.37399E-01
#           1.40742E-01  1.44167E-01  1.47675E-01  1.51268E-01  1.54948E-01
#           1.58718E-01  1.62580E-01  1.66535E-01  1.70587E-01  1.74738E-01
#           1.78989E-01  1.83344E-01  1.87805E-01  1.92375E-01  1.97055E-01
#           2.01850E-01  2.06761E-01  2.11792E-01  2.16945E-01  2.22223E-01
#           2.27630E-01  2.33169E-01  2.38842E-01  2.44653E-01  2.50605E-01
#           2.56703E-01  2.62949E-01  2.69346E-01  2.75900E-01  2.82613E-01
#           2.89489E-01  2.96532E-01  3.03747E-01  3.11138E-01  3.18708E-01
#           3.26462E-01  3.34405E-01  3.42542E-01  3.50876E-01  3.59413E-01
#           3.68158E-01  3.77116E-01  3.86291E-01  3.95690E-01  4.05317E-01
#           4.15179E-01  4.25281E-01  4.35628E-01  4.46227E-01  4.57084E-01
#           4.68205E-01  4.79597E-01  4.91266E-01  5.03219E-01  5.15463E-01
#           5.28005E-01  5.40851E-01  5.54011E-01  5.67490E-01  5.81298E-01
#           5.95441E-01  6.09929E-01  6.24769E-01  6.39970E-01  6.55541E-01
#           6.71491E-01  6.87828E-01  7.04564E-01  7.21706E-01  7.39266E-01
#           7.57253E-01  7.75678E-01  7.94551E-01  8.13883E-01  8.33685E-01
#           8.53969E-01  8.74747E-01  8.96030E-01  9.17831E-01  9.40163E-01
#           9.63038E-01  9.86469E-01  1.01047E+00  1.03506E+00  1.06024E+00
#           1.08604E+00  1.11246E+00  1.13953E+00  1.16725E+00  1.19565E+00
#           1.22474E+00  1.25454E+00  1.28507E+00  1.31633E+00  1.34836E+00
#           1.38117E+00  1.41477E+00  1.44920E+00  1.48446E+00  1.52057E+00
#           1.55757E+00  1.59547E+00  1.63429E+00  1.67405E+00  1.71478E+00
#           1.75650E+00  1.79924E+00  1.84302E+00  1.88786E+00  1.93379E+00
#           1.98084E+00  2.02904E+00  2.07841E+00  2.12898E+00  2.18078E+00
#           2.23384E+00  2.28819E+00  2.34386E+00  2.40089E+00  2.45930E+00
#           2.51914E+00  2.58043E+00  2.64322E+00  2.70753E+00  2.77341E+00
#           2.84088E+00  2.91001E+00  2.98081E+00  3.05333E+00  3.12762E+00
#           3.20372E+00  3.28167E+00  3.36152E+00  3.44330E+00  3.52708E+00
#           3.61290E+00  3.70080E+00  3.79085E+00  3.88308E+00  3.97756E+00
#           4.07434E+00  4.17347E+00  4.27501E+00  4.37903E+00  4.48557E+00
#           4.59471E+00  4.70650E+00  4.82102E+00  4.93832E+00  5.05847E+00
#           5.18155E+00  5.30762E+00  5.43676E+00  5.56904E+00  5.70453E+00
#           5.84333E+00  5.98550E+00  6.13114E+00  6.28031E+00  6.43312E+00
#           6.58964E+00  6.74997E+00  6.91420E+00  7.08243E+00  7.25475E+00
#           7.43126E+00  7.61207E+00  7.79728E+00  7.98700E+00  8.18133E+00
#           8.38038E+00  8.58428E+00  8.79315E+00  9.00709E+00  9.22624E+00
#           9.45072E+00  9.68067E+00  9.91620E+00  1.01575E+01  1.04046E+01
#           1.06578E+01  1.09171E+01  1.11827E+01  1.14548E+01  1.17335E+01
#           1.20190E+01  1.23114E+01  1.26109E+01  1.29178E+01  1.32321E+01
#           1.35540E+01  1.38838E+01  1.42216E+01  1.45676E+01  1.49221E+01
#           1.52851E+01  1.56570E+01  1.60380E+01  1.64282E+01  1.68279E+01
#           1.72374E+01  1.76568E+01  1.80864E+01  1.85264E+01  1.89772E+01
#           1.94389E+01  1.99119E+01  2.03963E+01  2.08926E+01  2.14009E+01
#           2.19216E+01  2.24550E+01  2.30014E+01  2.35610E+01  2.41343E+01
#           2.47215E+01  2.53230E+01  2.59391E+01  2.65702E+01  2.72167E+01
#           2.78789E+01  2.85572E+01  2.92520E+01  2.99637E+01  3.06928E+01
#           3.14396E+01  3.22045E+01  3.29881E+01  3.37907E+01  3.46128E+01
#           3.54550E+01  3.63177E+01  3.72013E+01  3.81064E+01  3.90336E+01
#           3.99833E+01  4.09561E+01  4.19526E+01  4.29734E+01  4.40189E+01
#           4.50900E+01  4.61870E+01  4.73108E+01  4.84619E+01  4.96410E+01
#           5.08488E+01  5.20860E+01  5.33533E+01  5.46514E+01  5.59812E+01
#           5.73432E+01  5.87384E+01  6.01676E+01  6.16315E+01  6.31311E+01
#           6.46671E+01  6.62405E+01  6.78522E+01  6.95031E+01  7.11941E+01
#           7.29263E+01  7.47007E+01  7.65182E+01  7.83800E+01  8.02870E+01
#           8.22405E+01  8.42414E+01  8.62911E+01  8.83906E+01  9.05412E+01
#           9.27442E+01  9.50007E+01  9.73122E+01  9.96799E+01  1.02105E+02
#           1.04589E+02  1.07134E+02  1.09741E+02  1.12411E+02  1.15146E+02
#           1.17948E+02  1.20817E+02  1.23757E+02  1.26768E+02  1.29852E+02
#           1.33012E+02  1.36248E+02  1.39563E+02  1.42959E+02  1.46437E+02
#           1.50000E+02
     unit =    2            # unit is [1/cm^2/(MeV/n)/source]
     axis =  eng            # axis of output
     file = detector-18.out  # file name of output for the above axis
   output = f-curr          # surface crossing forward current spectrum
     part =  neutron  
# kf/name :  2112     
#    used :        main (  %)        temp (  %)       total (  %)
#  memory :         414 (  0)           0 (  0)         414 (  0)

#------------------------------------------------------------------------------
#newpage:
#   no. =    1   reg = 117 - 217

x: Energy [MeV/n]
y:  F-Curr [1/cm^2/(MeV/n)/source]         
p: xlog ylog afac(0.8) form(0.9)
h: n            x            y(neutron ),hh0l   n 
#  e-lower      e-upper      neutron     r.err 
   1.0000E-02   1.0243E-02   3.6990E-04  0.1491
   1.0243E-02   1.0493E-02   3.3704E-04  0.1543
   1.0493E-02   1.0748E-02   3.2512E-04  0.1548
   1.0748E-02   1.1009E-02   2.9828E-04  0.1601
   1.1009E-02   1.1277E-02   3.4346E-04  0.1474
   1.1277E-02   1.1552E-02   3.3530E-04  0.1474
   1.1552E-02   1.1833E-02   3.4868E-04  0.1429
   1.1833E-02   1.2121E-02   3.7513E-04  0.1361
   1.2121E-02   1.2415E-02   3.6622E-04  0.1361
   1.2415E-02   1.2718E-02   3.0456E-04  0.1474
   1.2718E-02   1.3027E-02   4.1367E-04  0.1250
   1.3027E-02   1.3344E-02   3.7229E-04  0.1302
   1.3344E-02   1.3669E-02   3.3265E-04  0.1361
   1.3669E-02   1.4001E-02   3.3677E-04  0.1336
   1.4001E-02   1.4342E-02   3.6987E-04  0.1260
   1.4342E-02   1.4691E-02   4.1912E-04  0.1169
   1.4691E-02   1.5048E-02   2.9656E-04  0.1374
   1.5048E-02   1.5414E-02   3.1682E-04  0.1313
   1.5414E-02   1.5789E-02   4.2662E-04  0.1118
   1.5789E-02   1.6174E-02   3.4881E-04  0.1222
   1.6174E-02   1.6567E-02   4.2286E-04  0.1095
   1.6567E-02   1.6970E-02   3.4732E-04  0.1195
   1.6970E-02   1.7383E-02   4.0688E-04  0.1091
   1.7383E-02   1.7806E-02   3.6412E-04  0.1140
   1.7806E-02   1.8239E-02   4.0163E-04  0.1072
   1.8239E-02   1.8683E-02   3.2973E-04  0.1168
   1.8683E-02   1.9138E-02   3.5638E-04  0.1111
   1.9138E-02   1.9603E-02   3.9087E-04  0.1048
   1.9603E-02   2.0080E-02   3.4384E-04  0.1104
   2.0080E-02   2.0569E-02   3.6024E-04  0.1066
   2.0569E-02   2.1069E-02   3.5967E-04  0.1054
   2.1069E-02   2.1582E-02   3.0626E-04  0.1127
   2.1582E-02   2.2107E-02   3.3898E-04  0.1060
   2.2107E-02   2.2645E-02   3.4580E-04  0.1037
   2.2645E-02   2.3196E-02   3.5574E-04  0.1010
   2.3196E-02   2.3760E-02   2.8705E-04  0.1111
   2.3760E-02   2.4338E-02   4.0694E-04  0.0921
   2.4338E-02   2.4930E-02   3.9917E-04  0.0919
   2.4930E-02   2.5537E-02   3.5939E-04  0.0958
   2.5537E-02   2.6158E-02   4.2535E-04  0.0870
   2.6158E-02   2.6795E-02   3.2367E-04  0.0985
   2.6795E-02   2.7447E-02   3.9881E-04  0.0877
   2.7447E-02   2.8114E-02   3.3093E-04  0.0950
   2.8114E-02   2.8799E-02   3.3623E-04  0.0933
   2.8799E-02   2.9499E-02   3.9818E-04  0.0846
   2.9499E-02   3.0217E-02   3.5250E-04  0.0888
   3.0217E-02   3.0952E-02   4.0261E-04  0.0822
   3.0952E-02   3.1705E-02   3.1869E-04  0.0913
   3.1705E-02   3.2477E-02   3.5039E-04  0.0860
   3.2477E-02   3.3267E-02   3.3537E-04  0.0868
   3.3267E-02   3.4076E-02   4.1141E-04  0.0774
   3.4076E-02   3.4905E-02   4.3460E-04  0.0745
   3.4905E-02   3.5755E-02   3.6078E-04  0.0808
   3.5755E-02   3.6625E-02   3.7965E-04  0.0778
   3.6625E-02   3.7516E-02   3.7443E-04  0.0773
   3.7516E-02   3.8428E-02   3.4181E-04  0.0801
   3.8428E-02   3.9363E-02   3.5041E-04  0.0780
   3.9363E-02   4.0321E-02   4.2240E-04  0.0703
   4.0321E-02   4.1302E-02   3.2414E-04  0.0793
   4.1302E-02   4.2307E-02   3.3237E-04  0.0774
   4.2307E-02   4.3337E-02   3.5296E-04  0.0741
   4.3337E-02   4.4391E-02   3.5849E-04  0.0727
   4.4391E-02   4.5471E-02   3.5368E-04  0.0724
   4.5471E-02   4.6577E-02   3.6759E-04  0.0701
   4.6577E-02   4.7711E-02   3.4173E-04  0.0718
   4.7711E-02   4.8871E-02   3.4802E-04  0.0704
   4.8871E-02   5.0061E-02   3.5321E-04  0.0690
   5.0061E-02   5.1279E-02   3.8333E-04  0.0654
   5.1279E-02   5.2526E-02   3.4785E-04  0.0679
   5.2526E-02   5.3804E-02   3.5837E-04  0.0661
   5.3804E-02   5.5113E-02   3.4986E-04  0.0661
   5.5113E-02   5.6454E-02   3.3707E-04  0.0665
   5.6454E-02   5.7828E-02   3.6057E-04  0.0635
   5.7828E-02   5.9235E-02   3.8380E-04  0.0609
   5.9235E-02   6.0676E-02   3.3652E-04  0.0642
   6.0676E-02   6.2152E-02   3.2920E-04  0.0642
   6.2152E-02   6.3665E-02   3.1411E-04  0.0649
   6.3665E-02   6.5214E-02   3.0536E-04  0.0649
   6.5214E-02   6.6800E-02   3.3632E-04  0.0612
   6.6800E-02   6.8426E-02   3.4352E-04  0.0598
   6.8426E-02   7.0090E-02   3.8142E-04  0.0561
   7.0090E-02   7.1796E-02   3.3234E-04  0.0593
   7.1796E-02   7.3543E-02   3.0413E-04  0.0613
   7.3543E-02   7.5332E-02   3.5335E-04  0.0562
   7.5332E-02   7.7165E-02   3.2953E-04  0.0575
   7.7165E-02   7.9042E-02   3.3365E-04  0.0564
   7.9042E-02   8.0965E-02   3.2897E-04  0.0561
   8.0965E-02   8.2935E-02   3.2488E-04  0.0559
   8.2935E-02   8.4953E-02   3.1036E-04  0.0565
   8.4953E-02   8.7020E-02   3.3753E-04  0.0535
   8.7020E-02   8.9138E-02   3.6320E-04  0.0510
   8.9138E-02   9.1306E-02   3.0425E-04  0.0550
   9.1306E-02   9.3528E-02   3.0716E-04  0.0541
   9.3528E-02   9.5804E-02   3.3498E-04  0.0512
   9.5804E-02   9.8134E-02   3.0858E-04  0.0527
   9.8134E-02   1.0052E-01   2.7583E-04  0.0551
   1.0052E-01   1.0297E-01   3.3008E-04  0.0498
   1.0297E-01   1.0547E-01   3.0711E-04  0.0509
   1.0547E-01   1.0804E-01   2.9338E-04  0.0515
   1.0804E-01   1.1067E-01   3.3676E-04  0.0475
   1.1067E-01   1.1336E-01   3.0932E-04  0.0490
   1.1336E-01   1.1612E-01   3.0130E-04  0.0490
   1.1612E-01   1.1894E-01   2.8997E-04  0.0495
   1.1894E-01   1.2184E-01   2.9361E-04  0.0485
   1.2184E-01   1.2480E-01   3.1527E-04  0.0462
   1.2480E-01   1.2784E-01   2.7674E-04  0.0488
   1.2784E-01   1.3095E-01   2.6876E-04  0.0489
   1.3095E-01   1.3414E-01   2.7615E-04  0.0476
   1.3414E-01   1.3740E-01   2.7480E-04  0.0472
   1.3740E-01   1.4074E-01   2.7418E-04  0.0467
   1.4074E-01   1.4417E-01   2.4968E-04  0.0483
   1.4417E-01   1.4767E-01   2.3536E-04  0.0492
   1.4767E-01   1.5127E-01   2.4881E-04  0.0473
   1.5127E-01   1.5495E-01   2.2859E-04  0.0487
   1.5495E-01   1.5872E-01   2.3740E-04  0.0473
   1.5872E-01   1.6258E-01   2.3479E-04  0.0469
   1.6258E-01   1.6654E-01   2.2929E-04  0.0469
   1.6654E-01   1.7059E-01   2.2713E-04  0.0466
   1.7059E-01   1.7474E-01   2.3970E-04  0.0448
   1.7474E-01   1.7899E-01   2.1661E-04  0.0466
   1.7899E-01   1.8334E-01   2.0560E-04  0.0472
   1.8334E-01   1.8781E-01   2.0491E-04  0.0467
   1.8781E-01   1.9237E-01   2.0131E-04  0.0466
   1.9237E-01   1.9706E-01   1.7834E-04  0.0489
   1.9706E-01   2.0185E-01   1.8576E-04  0.0473
   2.0185E-01   2.0676E-01   1.8261E-04  0.0472
   2.0676E-01   2.1179E-01   1.8403E-04  0.0464
   2.1179E-01   2.1694E-01   1.8001E-04  0.0464
   2.1694E-01   2.2222E-01   1.9223E-04  0.0444
   2.2222E-01   2.2763E-01   2.2541E-04  0.0405
   2.2763E-01   2.3317E-01   1.9493E-04  0.0430
   2.3317E-01   2.3884E-01   2.0410E-04  0.0415
   2.3884E-01   2.4465E-01   1.9751E-04  0.0417
   2.4465E-01   2.5061E-01   2.1021E-04  0.0400
   2.5061E-01   2.5670E-01   2.1764E-04  0.0388
   2.5670E-01   2.6295E-01   2.1645E-04  0.0384
   2.6295E-01   2.6935E-01   2.1360E-04  0.0382
   2.6935E-01   2.7590E-01   2.2060E-04  0.0372
   2.7590E-01   2.8261E-01   2.2008E-04  0.0368
   2.8261E-01   2.8949E-01   2.2463E-04  0.0360
   2.8949E-01   2.9653E-01   2.2841E-04  0.0352
   2.9653E-01   3.0375E-01   2.3558E-04  0.0343
   3.0375E-01   3.1114E-01   2.2461E-04  0.0347
   3.1114E-01   3.1871E-01   2.3543E-04  0.0335
   3.1871E-01   3.2646E-01   2.4152E-04  0.0327
   3.2646E-01   3.3441E-01   2.4827E-04  0.0318
   3.3441E-01   3.4254E-01   2.4302E-04  0.0318
   3.4254E-01   3.5088E-01   2.4414E-04  0.0313
   3.5088E-01   3.5941E-01   2.5145E-04  0.0305
   3.5941E-01   3.6816E-01   2.5469E-04  0.0299
   3.6816E-01   3.7712E-01   2.6175E-04  0.0292
   3.7712E-01   3.8629E-01   2.4829E-04  0.0296
   3.8629E-01   3.9569E-01   2.5658E-04  0.0288
   3.9569E-01   4.0532E-01   2.5547E-04  0.0285
   4.0532E-01   4.1518E-01   2.7308E-04  0.0272
   4.1518E-01   4.2528E-01   2.6216E-04  0.0274
   4.2528E-01   4.3563E-01   2.5680E-04  0.0274
   4.3563E-01   4.4623E-01   2.7278E-04  0.0263
   4.4623E-01   4.5708E-01   2.6825E-04  0.0262
   4.5708E-01   4.6821E-01   2.8488E-04  0.0251
   4.6821E-01   4.7960E-01   2.6430E-04  0.0258
   4.7960E-01   4.9127E-01   2.9044E-04  0.0243
   4.9127E-01   5.0322E-01   2.7637E-04  0.0246
   5.0322E-01   5.1546E-01   2.7643E-04  0.0243
   5.1546E-01   5.2800E-01   2.6828E-04  0.0244
   5.2800E-01   5.4085E-01   2.8811E-04  0.0232
   5.4085E-01   5.5401E-01   2.7087E-04  0.0237
   5.5401E-01   5.6749E-01   2.8085E-04  0.0230
   5.6749E-01   5.8130E-01   2.8515E-04  0.0225
   5.8130E-01   5.9544E-01   2.7433E-04  0.0227
   5.9544E-01   6.0993E-01   2.7778E-04  0.0223
   6.0993E-01   6.2477E-01   2.8503E-04  0.0217
   6.2477E-01   6.3997E-01   2.9418E-04  0.0211
   6.3997E-01   6.5554E-01   2.8756E-04  0.0211
   6.5554E-01   6.7149E-01   2.8896E-04  0.0208
   6.7149E-01   6.8783E-01   2.8093E-04  0.0209
   6.8783E-01   7.0456E-01   2.9092E-04  0.0202
   7.0456E-01   7.2171E-01   2.8687E-04  0.0201
   7.2171E-01   7.3927E-01   2.9058E-04  0.0198
   7.3927E-01   7.5725E-01   2.9351E-04  0.0194
   7.5725E-01   7.7568E-01   2.9129E-04  0.0193
   7.7568E-01   7.9455E-01   2.8237E-04  0.0193
   7.9455E-01   8.1388E-01   2.7304E-04  0.0194
   8.1388E-01   8.3368E-01   2.8239E-04  0.0189
   8.3368E-01   8.5397E-01   2.8085E-04  0.0187
   8.5397E-01   8.7475E-01   2.8316E-04  0.0184
   8.7475E-01   8.9603E-01   2.7250E-04  0.0186
   8.9603E-01   9.1783E-01   2.7588E-04  0.0182
   9.1783E-01   9.4016E-01   2.7521E-04  0.0180
   9.4016E-01   9.6304E-01   2.6207E-04  0.0182
   9.6304E-01   9.8647E-01   2.6774E-04  0.0178
   9.8647E-01   1.0105E+00   2.5431E-04  0.0181
   1.0105E+00   1.0351E+00   2.6451E-04  0.0175
   1.0351E+00   1.0602E+00   2.5899E-04  0.0175
   1.0602E+00   1.0860E+00   2.5116E-04  0.0175
   1.0860E+00   1.1125E+00   2.5020E-04  0.0174
   1.1125E+00   1.1395E+00   2.5055E-04  0.0172
   1.1395E+00   1.1673E+00   2.4630E-04  0.0171
   1.1673E+00   1.1957E+00   2.4411E-04  0.0169
   1.1957E+00   1.2247E+00   2.4752E-04  0.0166
   1.2247E+00   1.2545E+00   2.4472E-04  0.0165
   1.2545E+00   1.2851E+00   2.3675E-04  0.0166
   1.2851E+00   1.3163E+00   2.3402E-04  0.0165
   1.3163E+00   1.3484E+00   2.3151E-04  0.0164
   1.3484E+00   1.3812E+00   2.2235E-04  0.0165
   1.3812E+00   1.4148E+00   2.3326E-04  0.0159
   1.4148E+00   1.4492E+00   2.2996E-04  0.0159
   1.4492E+00   1.4845E+00   2.2430E-04  0.0159
   1.4845E+00   1.5206E+00   2.3175E-04  0.0154
   1.5206E+00   1.5576E+00   2.2275E-04  0.0155
   1.5576E+00   1.5955E+00   2.1676E-04  0.0156
   1.5955E+00   1.6343E+00   2.0804E-04  0.0157
   1.6343E+00   1.6741E+00   2.0483E-04  0.0156
   1.6741E+00   1.7148E+00   2.0565E-04  0.0154
   1.7148E+00   1.7565E+00   1.9628E-04  0.0156
   1.7565E+00   1.7992E+00   1.9820E-04  0.0153
   1.7992E+00   1.8430E+00   1.9324E-04  0.0153
   1.8430E+00   1.8879E+00   1.8804E-04  0.0154
   1.8879E+00   1.9338E+00   1.9200E-04  0.0150
   1.9338E+00   1.9808E+00   1.7966E-04  0.0153
   1.9808E+00   2.0290E+00   1.7863E-04  0.0152
   2.0290E+00   2.0784E+00   1.7867E-04  0.0150
   2.0784E+00   2.1290E+00   1.7015E-04  0.0152
   2.1290E+00   2.1808E+00   1.6964E-04  0.0150
   2.1808E+00   2.2338E+00   1.6389E-04  0.0151
   2.2338E+00   2.2882E+00   1.6235E-04  0.0150
   2.2882E+00   2.3439E+00   1.5602E-04  0.0151
   2.3439E+00   2.4009E+00   1.5661E-04  0.0149
   2.4009E+00   2.4593E+00   1.4933E-04  0.0151
   2.4593E+00   2.5191E+00   1.4747E-04  0.0150
   2.5191E+00   2.5804E+00   1.4651E-04  0.0149
   2.5804E+00   2.6432E+00   1.4133E-04  0.0150
   2.6432E+00   2.7075E+00   1.3783E-04  0.0150
   2.7075E+00   2.7734E+00   1.3460E-04  0.0150
   2.7734E+00   2.8409E+00   1.2974E-04  0.0151
   2.8409E+00   2.9100E+00   1.2959E-04  0.0149
   2.9100E+00   2.9808E+00   1.2239E-04  0.0151
   2.9808E+00   3.0533E+00   1.2158E-04  0.0150
   3.0533E+00   3.1276E+00   1.1916E-04  0.0150
   3.1276E+00   3.2037E+00   1.1843E-04  0.0149
   3.2037E+00   3.2817E+00   1.1423E-04  0.0150
   3.2817E+00   3.3615E+00   1.1237E-04  0.0149
   3.3615E+00   3.4433E+00   1.1058E-04  0.0148
   3.4433E+00   3.5271E+00   1.0469E-04  0.0151
   3.5271E+00   3.6129E+00   1.0232E-04  0.0151
   3.6129E+00   3.7008E+00   1.0264E-04  0.0149
   3.7008E+00   3.7908E+00   9.8567E-05  0.0150
   3.7908E+00   3.8831E+00   9.5103E-05  0.0151
   3.8831E+00   3.9776E+00   9.1776E-05  0.0152
   3.9776E+00   4.0743E+00   8.9695E-05  0.0151
   4.0743E+00   4.1735E+00   8.7675E-05  0.0151
   4.1735E+00   4.2750E+00   8.6674E-05  0.0150
   4.2750E+00   4.3790E+00   8.5113E-05  0.0150
   4.3790E+00   4.4856E+00   8.2031E-05  0.0151
   4.4856E+00   4.5947E+00   7.9507E-05  0.0152
   4.5947E+00   4.7065E+00   7.6694E-05  0.0152
   4.7065E+00   4.8210E+00   7.4811E-05  0.0152
   4.8210E+00   4.9383E+00   7.4337E-05  0.0151
   4.9383E+00   5.0585E+00   6.7677E-05  0.0156
   5.0585E+00   5.1815E+00   6.7248E-05  0.0155
   5.1815E+00   5.3076E+00   6.3999E-05  0.0157
   5.3076E+00   5.4368E+00   6.2415E-05  0.0157
   5.4368E+00   5.5690E+00   5.9486E-05  0.0159
   5.5690E+00   5.7045E+00   5.7403E-05  0.0160
   5.7045E+00   5.8433E+00   5.4474E-05  0.0162
   5.8433E+00   5.9855E+00   5.4598E-05  0.0160
   5.9855E+00   6.1311E+00   5.0687E-05  0.0164
   6.1311E+00   6.2803E+00   4.7820E-05  0.0167
   6.2803E+00   6.4331E+00   4.4861E-05  0.0171
   6.4331E+00   6.5896E+00   4.3440E-05  0.0171
   6.5896E+00   6.7500E+00   4.1217E-05  0.0174
   6.7500E+00   6.9142E+00   3.9235E-05  0.0176
   6.9142E+00   7.0824E+00   3.7099E-05  0.0179
   7.0824E+00   7.2548E+00   3.4909E-05  0.0182
   7.2548E+00   7.4313E+00   3.3528E-05  0.0184
   7.4313E+00   7.6121E+00   3.1134E-05  0.0188
   7.6121E+00   7.7973E+00   2.9549E-05  0.0191
   7.7973E+00   7.9870E+00   2.8848E-05  0.0191
   7.9870E+00   8.1813E+00   2.6265E-05  0.0198
   8.1813E+00   8.3804E+00   2.4779E-05  0.0201
   8.3804E+00   8.5843E+00   2.3922E-05  0.0202
   8.5843E+00   8.7931E+00   2.2751E-05  0.0205
   8.7931E+00   9.0071E+00   2.1106E-05  0.0210
   9.0071E+00   9.2262E+00   2.0214E-05  0.0212
   9.2262E+00   9.4507E+00   1.9580E-05  0.0213
   9.4507E+00   9.6807E+00   1.7752E-05  0.0221
   9.6807E+00   9.9162E+00   1.5813E-05  0.0232
   9.9162E+00   1.0157E+01   1.5641E-05  0.0230
   1.0157E+01   1.0405E+01   1.5170E-05  0.0231
   1.0405E+01   1.0658E+01   1.3540E-05  0.0241
   1.0658E+01   1.0917E+01   1.3394E-05  0.0240
   1.0917E+01   1.1183E+01   1.2982E-05  0.0241
   1.1183E+01   1.1455E+01   1.2266E-05  0.0245
   1.1455E+01   1.1733E+01   1.1186E-05  0.0253
   1.1733E+01   1.2019E+01   1.0555E-05  0.0257
   1.2019E+01   1.2311E+01   9.7975E-06  0.0264
   1.2311E+01   1.2611E+01   9.4484E-06  0.0266
   1.2611E+01   1.2918E+01   8.7375E-06  0.0273
   1.2918E+01   1.3232E+01   8.5503E-06  0.0273
   1.3232E+01   1.3554E+01   7.8098E-06  0.0282
   1.3554E+01   1.3884E+01   7.3938E-06  0.0286
   1.3884E+01   1.4222E+01   6.4949E-06  0.0302
   1.4222E+01   1.4568E+01   6.7927E-06  0.0292
   1.4568E+01   1.4922E+01   5.9203E-06  0.0309
   1.4922E+01   1.5285E+01   5.1788E-06  0.0326
   1.5285E+01   1.5657E+01   4.7712E-06  0.0336
   1.5657E+01   1.6038E+01   4.9876E-06  0.0324
   1.6038E+01   1.6428E+01   4.3627E-06  0.0343
   1.6428E+01   1.6828E+01   3.8688E-06  0.0360
   1.6828E+01   1.7237E+01   3.5854E-06  0.0369
   1.7237E+01   1.7657E+01   3.6338E-06  0.0362
   1.7657E+01   1.8086E+01   3.0307E-06  0.0392
   1.8086E+01   1.8526E+01   2.6815E-06  0.0412
   1.8526E+01   1.8977E+01   2.5734E-06  0.0415
   1.8977E+01   1.9439E+01   2.4820E-06  0.0418
   1.9439E+01   1.9912E+01   2.0805E-06  0.0451
   1.9912E+01   2.0396E+01   1.7759E-06  0.0482
   2.0396E+01   2.0893E+01   1.7733E-06  0.0477
   2.0893E+01   2.1401E+01   1.5502E-06  0.0504
   2.1401E+01   2.1922E+01   1.4020E-06  0.0523
   2.1922E+01   2.2455E+01   1.2787E-06  0.0542
   2.2455E+01   2.3001E+01   1.1019E-06  0.0576
   2.3001E+01   2.3561E+01   9.2917E-07  0.0620
   2.3561E+01   2.4134E+01   8.4779E-07  0.0642
   2.4134E+01   2.4721E+01   7.0844E-07  0.0693
   2.4721E+01   2.5323E+01   7.3816E-07  0.0671
   2.5323E+01   2.5939E+01   5.3885E-07  0.0776
   2.5939E+01   2.6570E+01   5.0704E-07  0.0791
   2.6570E+01   2.7217E+01   4.6096E-07  0.0819
   2.7217E+01   2.7879E+01   4.0773E-07  0.0861
   2.7879E+01   2.8557E+01   3.5382E-07  0.0913
   2.8557E+01   2.9252E+01   3.1087E-07  0.0962
   2.9252E+01   2.9964E+01   2.9506E-07  0.0976
   2.9964E+01   3.0693E+01   2.3593E-07  0.1078
   3.0693E+01   3.1440E+01   2.1158E-07  0.1125
   3.1440E+01   3.2205E+01   1.6995E-07  0.1240
   3.2205E+01   3.2988E+01   1.6846E-07  0.1231
   3.2988E+01   3.3791E+01   1.2708E-07  0.1400
   3.3791E+01   3.4613E+01   1.5082E-07  0.1270
   3.4613E+01   3.5455E+01   9.7369E-08  0.1562
   3.5455E+01   3.6318E+01   1.0665E-07  0.1474
   3.6318E+01   3.7201E+01   8.8272E-08  0.1601
   3.7201E+01   3.8106E+01   7.9546E-08  0.1667
   3.8106E+01   3.9034E+01   5.1771E-08  0.2041
   3.9034E+01   3.9983E+01   5.4753E-08  0.1961
   3.9983E+01   4.0956E+01   6.1676E-08  0.1826
   4.0956E+01   4.1953E+01   5.2183E-08  0.1961
   4.1953E+01   4.2973E+01   5.6821E-08  0.1857
   4.2973E+01   4.4019E+01   3.4431E-08  0.2357
   4.4019E+01   4.5090E+01   1.8674E-08  0.3162
   4.5090E+01   4.6187E+01   1.6407E-08  0.3333
   4.6187E+01   4.7311E+01   3.5595E-09  0.7071
   4.7311E+01   4.8462E+01   3.4749E-09  0.7071
   4.8462E+01   4.9641E+01   1.1873E-08  0.3780
   4.9641E+01   5.0849E+01   3.3118E-09  0.7071
   5.0849E+01   5.2086E+01   3.2331E-09  0.7071
   5.2086E+01   5.3353E+01   3.1563E-09  0.7071
   5.3353E+01   5.4651E+01   1.5407E-09  1.0000
   5.4651E+01   5.5981E+01   0.0000E+00  0.0000
   5.5981E+01   5.7343E+01   0.0000E+00  0.0000
   5.7343E+01   5.8738E+01   0.0000E+00  0.0000
   5.8738E+01   6.0168E+01   0.0000E+00  0.0000
   6.0168E+01   6.1632E+01   0.0000E+00  0.0000
   6.1632E+01   6.3131E+01   0.0000E+00  0.0000
   6.3131E+01   6.4667E+01   0.0000E+00  0.0000
   6.4667E+01   6.6240E+01   0.0000E+00  0.0000
   6.6240E+01   6.7852E+01   0.0000E+00  0.0000
   6.7852E+01   6.9503E+01   0.0000E+00  0.0000
   6.9503E+01   7.1194E+01   0.0000E+00  0.0000
   7.1194E+01   7.2926E+01   0.0000E+00  0.0000
   7.2926E+01   7.4701E+01   0.0000E+00  0.0000
   7.4701E+01   7.6518E+01   0.0000E+00  0.0000
   7.6518E+01   7.8380E+01   0.0000E+00  0.0000
   7.8380E+01   8.0287E+01   0.0000E+00  0.0000
   8.0287E+01   8.2240E+01   0.0000E+00  0.0000
   8.2240E+01   8.4241E+01   0.0000E+00  0.0000
   8.4241E+01   8.6291E+01   0.0000E+00  0.0000
   8.6291E+01   8.8391E+01   0.0000E+00  0.0000
   8.8391E+01   9.0541E+01   0.0000E+00  0.0000
   9.0541E+01   9.2744E+01   0.0000E+00  0.0000
   9.2744E+01   9.5001E+01   0.0000E+00  0.0000
   9.5001E+01   9.7312E+01   0.0000E+00  0.0000
   9.7312E+01   9.9680E+01   0.0000E+00  0.0000
   9.9680E+01   1.0211E+02   0.0000E+00  0.0000
   1.0211E+02   1.0459E+02   0.0000E+00  0.0000
   1.0459E+02   1.0713E+02   0.0000E+00  0.0000
   1.0713E+02   1.0974E+02   0.0000E+00  0.0000
   1.0974E+02   1.1241E+02   0.0000E+00  0.0000
   1.1241E+02   1.1515E+02   0.0000E+00  0.0000
   1.1515E+02   1.1795E+02   0.0000E+00  0.0000
   1.1795E+02   1.2082E+02   0.0000E+00  0.0000
   1.2082E+02   1.2376E+02   0.0000E+00  0.0000
   1.2376E+02   1.2677E+02   0.0000E+00  0.0000
   1.2677E+02   1.2985E+02   0.0000E+00  0.0000
   1.2985E+02   1.3301E+02   0.0000E+00  0.0000
   1.3301E+02   1.3625E+02   0.0000E+00  0.0000
   1.3625E+02   1.3956E+02   0.0000E+00  0.0000
   1.3956E+02   1.4296E+02   0.0000E+00  0.0000
   1.4296E+02   1.4644E+02   0.0000E+00  0.0000
   1.4644E+02   1.5000E+02   0.0000E+00  0.0000

#   sum over                 7.1850E-06
'no. =    1   reg = 117 - 217'
msuc: {\huge [t-cross] in region mesh}
msdr: {\it plotted by \ANGEL \version}
msdl: {\it calculated by \PHITS  3.26}
wt: s(0.7)
\vspace{-3}
  region surface crossing
  area  &=&   1.0000E+00 [cm^2]
e:
 
# Information for Restart Calculation
# This calculation was newly started
# istdev =  2 # 1:Batch variance, 2:History variance
# resc2  = 5.00000000000000000E+08 # Total source weight or Total source weight / maxcas
# resc3  = 5.00000000000000000E+08 # Total history number or Total batch number
# maxcas =   500000000 # History / Batch, only used for istdev=1
# bitrseed = 1101101111010011011000101101110001100110110010110001010100010001 # bit data of rseed
