[ T-Cross ]
    title = [t-cross] in region mesh
     mesh =  reg            # mesh type is region-wise
      reg =    1            # number of crossing regions
      non     r-from    r-to       area
      1       107       207        1.000000    
   e-type =    3            # e-mesh is log given by emin, emax and ne
     emin =  1.0000000E-02  # minimum value of e-mesh points
     emax =   150.0000      # maximum value of e-mesh points
#    edel =  2.4039514E-02  # mesh width of e-mesh points
       ne =    400          # number of e-mesh points
#    data = ( e(i), i = 1, ne + 1 )
#           1.00000E-02  1.02433E-02  1.04925E-02  1.07478E-02  1.10093E-02
#           1.12772E-02  1.15516E-02  1.18326E-02  1.21205E-02  1.24154E-02
#           1.27175E-02  1.30269E-02  1.33439E-02  1.36686E-02  1.40011E-02
#           1.43418E-02  1.46907E-02  1.50482E-02  1.54143E-02  1.57894E-02
#           1.61735E-02  1.65670E-02  1.69701E-02  1.73830E-02  1.78060E-02
#           1.82392E-02  1.86830E-02  1.91375E-02  1.96032E-02  2.00801E-02
#           2.05687E-02  2.10692E-02  2.15818E-02  2.21069E-02  2.26448E-02
#           2.31957E-02  2.37601E-02  2.43382E-02  2.49304E-02  2.55369E-02
#           2.61583E-02  2.67947E-02  2.74467E-02  2.81145E-02  2.87985E-02
#           2.94992E-02  3.02169E-02  3.09521E-02  3.17052E-02  3.24766E-02
#           3.32668E-02  3.40762E-02  3.49053E-02  3.57546E-02  3.66246E-02
#           3.75157E-02  3.84284E-02  3.93634E-02  4.03212E-02  4.13022E-02
#           4.23071E-02  4.33365E-02  4.43909E-02  4.54710E-02  4.65773E-02
#           4.77106E-02  4.88714E-02  5.00605E-02  5.12785E-02  5.25262E-02
#           5.38042E-02  5.51133E-02  5.64542E-02  5.78278E-02  5.92348E-02
#           6.06760E-02  6.21523E-02  6.36645E-02  6.52135E-02  6.68002E-02
#           6.84255E-02  7.00904E-02  7.17957E-02  7.35426E-02  7.53319E-02
#           7.71648E-02  7.90423E-02  8.09655E-02  8.29354E-02  8.49533E-02
#           8.70203E-02  8.91376E-02  9.13064E-02  9.35279E-02  9.58035E-02
#           9.81345E-02  1.00522E-01  1.02968E-01  1.05473E-01  1.08040E-01
#           1.10668E-01  1.13361E-01  1.16119E-01  1.18944E-01  1.21838E-01
#           1.24803E-01  1.27839E-01  1.30950E-01  1.34136E-01  1.37399E-01
#           1.40742E-01  1.44167E-01  1.47675E-01  1.51268E-01  1.54948E-01
#           1.58718E-01  1.62580E-01  1.66535E-01  1.70587E-01  1.74738E-01
#           1.78989E-01  1.83344E-01  1.87805E-01  1.92375E-01  1.97055E-01
#           2.01850E-01  2.06761E-01  2.11792E-01  2.16945E-01  2.22223E-01
#           2.27630E-01  2.33169E-01  2.38842E-01  2.44653E-01  2.50605E-01
#           2.56703E-01  2.62949E-01  2.69346E-01  2.75900E-01  2.82613E-01
#           2.89489E-01  2.96532E-01  3.03747E-01  3.11138E-01  3.18708E-01
#           3.26462E-01  3.34405E-01  3.42542E-01  3.50876E-01  3.59413E-01
#           3.68158E-01  3.77116E-01  3.86291E-01  3.95690E-01  4.05317E-01
#           4.15179E-01  4.25281E-01  4.35628E-01  4.46227E-01  4.57084E-01
#           4.68205E-01  4.79597E-01  4.91266E-01  5.03219E-01  5.15463E-01
#           5.28005E-01  5.40851E-01  5.54011E-01  5.67490E-01  5.81298E-01
#           5.95441E-01  6.09929E-01  6.24769E-01  6.39970E-01  6.55541E-01
#           6.71491E-01  6.87828E-01  7.04564E-01  7.21706E-01  7.39266E-01
#           7.57253E-01  7.75678E-01  7.94551E-01  8.13883E-01  8.33685E-01
#           8.53969E-01  8.74747E-01  8.96030E-01  9.17831E-01  9.40163E-01
#           9.63038E-01  9.86469E-01  1.01047E+00  1.03506E+00  1.06024E+00
#           1.08604E+00  1.11246E+00  1.13953E+00  1.16725E+00  1.19565E+00
#           1.22474E+00  1.25454E+00  1.28507E+00  1.31633E+00  1.34836E+00
#           1.38117E+00  1.41477E+00  1.44920E+00  1.48446E+00  1.52057E+00
#           1.55757E+00  1.59547E+00  1.63429E+00  1.67405E+00  1.71478E+00
#           1.75650E+00  1.79924E+00  1.84302E+00  1.88786E+00  1.93379E+00
#           1.98084E+00  2.02904E+00  2.07841E+00  2.12898E+00  2.18078E+00
#           2.23384E+00  2.28819E+00  2.34386E+00  2.40089E+00  2.45930E+00
#           2.51914E+00  2.58043E+00  2.64322E+00  2.70753E+00  2.77341E+00
#           2.84088E+00  2.91001E+00  2.98081E+00  3.05333E+00  3.12762E+00
#           3.20372E+00  3.28167E+00  3.36152E+00  3.44330E+00  3.52708E+00
#           3.61290E+00  3.70080E+00  3.79085E+00  3.88308E+00  3.97756E+00
#           4.07434E+00  4.17347E+00  4.27501E+00  4.37903E+00  4.48557E+00
#           4.59471E+00  4.70650E+00  4.82102E+00  4.93832E+00  5.05847E+00
#           5.18155E+00  5.30762E+00  5.43676E+00  5.56904E+00  5.70453E+00
#           5.84333E+00  5.98550E+00  6.13114E+00  6.28031E+00  6.43312E+00
#           6.58964E+00  6.74997E+00  6.91420E+00  7.08243E+00  7.25475E+00
#           7.43126E+00  7.61207E+00  7.79728E+00  7.98700E+00  8.18133E+00
#           8.38038E+00  8.58428E+00  8.79315E+00  9.00709E+00  9.22624E+00
#           9.45072E+00  9.68067E+00  9.91620E+00  1.01575E+01  1.04046E+01
#           1.06578E+01  1.09171E+01  1.11827E+01  1.14548E+01  1.17335E+01
#           1.20190E+01  1.23114E+01  1.26109E+01  1.29178E+01  1.32321E+01
#           1.35540E+01  1.38838E+01  1.42216E+01  1.45676E+01  1.49221E+01
#           1.52851E+01  1.56570E+01  1.60380E+01  1.64282E+01  1.68279E+01
#           1.72374E+01  1.76568E+01  1.80864E+01  1.85264E+01  1.89772E+01
#           1.94389E+01  1.99119E+01  2.03963E+01  2.08926E+01  2.14009E+01
#           2.19216E+01  2.24550E+01  2.30014E+01  2.35610E+01  2.41343E+01
#           2.47215E+01  2.53230E+01  2.59391E+01  2.65702E+01  2.72167E+01
#           2.78789E+01  2.85572E+01  2.92520E+01  2.99637E+01  3.06928E+01
#           3.14396E+01  3.22045E+01  3.29881E+01  3.37907E+01  3.46128E+01
#           3.54550E+01  3.63177E+01  3.72013E+01  3.81064E+01  3.90336E+01
#           3.99833E+01  4.09561E+01  4.19526E+01  4.29734E+01  4.40189E+01
#           4.50900E+01  4.61870E+01  4.73108E+01  4.84619E+01  4.96410E+01
#           5.08488E+01  5.20860E+01  5.33533E+01  5.46514E+01  5.59812E+01
#           5.73432E+01  5.87384E+01  6.01676E+01  6.16315E+01  6.31311E+01
#           6.46671E+01  6.62405E+01  6.78522E+01  6.95031E+01  7.11941E+01
#           7.29263E+01  7.47007E+01  7.65182E+01  7.83800E+01  8.02870E+01
#           8.22405E+01  8.42414E+01  8.62911E+01  8.83906E+01  9.05412E+01
#           9.27442E+01  9.50007E+01  9.73122E+01  9.96799E+01  1.02105E+02
#           1.04589E+02  1.07134E+02  1.09741E+02  1.12411E+02  1.15146E+02
#           1.17948E+02  1.20817E+02  1.23757E+02  1.26768E+02  1.29852E+02
#           1.33012E+02  1.36248E+02  1.39563E+02  1.42959E+02  1.46437E+02
#           1.50000E+02
     unit =    2            # unit is [1/cm^2/(MeV/n)/source]
     axis =  eng            # axis of output
     file = detector-08.out  # file name of output for the above axis
   output = f-curr          # surface crossing forward current spectrum
     part =  neutron  
# kf/name :  2112     
#    used :        main (  %)        temp (  %)       total (  %)
#  memory :         414 (  0)           0 (  0)         414 (  0)

#------------------------------------------------------------------------------
#newpage:
#   no. =    1   reg = 107 - 207

x: Energy [MeV/n]
y:  F-Curr [1/cm^2/(MeV/n)/source]         
p: xlog ylog afac(0.8) form(0.9)
h: n            x            y(neutron ),hh0l   n 
#  e-lower      e-upper      neutron     r.err 
   1.0000E-02   1.0243E-02   3.6168E-04  0.1508
   1.0243E-02   1.0493E-02   4.4939E-04  0.1336
   1.0493E-02   1.0748E-02   3.8387E-04  0.1429
   1.0748E-02   1.1009E-02   4.4741E-04  0.1305
   1.1009E-02   1.1277E-02   3.8079E-04  0.1400
   1.1277E-02   1.1552E-02   4.3734E-04  0.1291
   1.1552E-02   1.1833E-02   3.4868E-04  0.1429
   1.1833E-02   1.2121E-02   3.5429E-04  0.1400
   1.2121E-02   1.2415E-02   4.4761E-04  0.1231
   1.2415E-02   1.2718E-02   3.6415E-04  0.1348
   1.2718E-02   1.3027E-02   4.3306E-04  0.1222
   1.3027E-02   1.3344E-02   4.6694E-04  0.1162
   1.3344E-02   1.3669E-02   3.5190E-04  0.1322
   1.3669E-02   1.4001E-02   5.2922E-04  0.1066
   1.4001E-02   1.4342E-02   4.2858E-04  0.1170
   1.4342E-02   1.4691E-02   3.9548E-04  0.1204
   1.4691E-02   1.5048E-02   3.7489E-04  0.1222
   1.5048E-02   1.5414E-02   4.4792E-04  0.1104
   1.5414E-02   1.5789E-02   3.9462E-04  0.1162
   1.5789E-02   1.6174E-02   4.2169E-04  0.1111
   1.6174E-02   1.6567E-02   4.0151E-04  0.1125
   1.6567E-02   1.6970E-02   3.9197E-04  0.1125
   1.6970E-02   1.7383E-02   4.6501E-04  0.1021
   1.7383E-02   1.7806E-02   4.7288E-04  0.1000
   1.7806E-02   1.8239E-02   4.8934E-04  0.0971
   1.8239E-02   1.8683E-02   4.8673E-04  0.0962
   1.8683E-02   1.9138E-02   4.8397E-04  0.0953
   1.9138E-02   1.9603E-02   4.2523E-04  0.1005
   1.9603E-02   2.0080E-02   5.1367E-04  0.0903
   2.0080E-02   2.0569E-02   3.6715E-04  0.1054
   2.0569E-02   2.1069E-02   4.1562E-04  0.0981
   2.1069E-02   2.1582E-02   4.2916E-04  0.0953
   2.1582E-02   2.2107E-02   4.9895E-04  0.0874
   2.2107E-02   2.2645E-02   3.6872E-04  0.1004
   2.2645E-02   2.3196E-02   4.2471E-04  0.0925
   2.3196E-02   2.3760E-02   4.1462E-04  0.0925
   2.3760E-02   2.4338E-02   4.2899E-04  0.0898
   2.4338E-02   2.4930E-02   4.8297E-04  0.0836
   2.4930E-02   2.5537E-02   4.6655E-04  0.0840
   2.5537E-02   2.6158E-02   3.6695E-04  0.0937
   2.6158E-02   2.6795E-02   4.9022E-04  0.0801
   2.6795E-02   2.7447E-02   3.9421E-04  0.0881
   2.7447E-02   2.8114E-02   4.3466E-04  0.0830
   2.8114E-02   2.8799E-02   3.9865E-04  0.0855
   2.8799E-02   2.9499E-02   4.1388E-04  0.0830
   2.9499E-02   3.0217E-02   4.3231E-04  0.0803
   3.0217E-02   3.0952E-02   4.4070E-04  0.0786
   3.0952E-02   3.1705E-02   4.4351E-04  0.0774
   3.1705E-02   3.2477E-02   4.0611E-04  0.0798
   3.2477E-02   3.3267E-02   4.1383E-04  0.0781
   3.3267E-02   3.4076E-02   4.0935E-04  0.0776
   3.4076E-02   3.4905E-02   4.1403E-04  0.0762
   3.4905E-02   3.5755E-02   3.8032E-04  0.0786
   3.5755E-02   3.6625E-02   4.3221E-04  0.0729
   3.6625E-02   3.7516E-02   4.1297E-04  0.0737
   3.7516E-02   3.8428E-02   4.2069E-04  0.0722
   3.8428E-02   3.9363E-02   4.1026E-04  0.0721
   3.9363E-02   4.0321E-02   4.2078E-04  0.0704
   4.0321E-02   4.1302E-02   3.9480E-04  0.0718
   4.1302E-02   4.2307E-02   3.9406E-04  0.0711
   4.2307E-02   4.3337E-02   3.8139E-04  0.0713
   4.3337E-02   4.4391E-02   4.2298E-04  0.0670
   4.4391E-02   4.5471E-02   3.8917E-04  0.0690
   4.5471E-02   4.6577E-02   4.0494E-04  0.0668
   4.6577E-02   4.7711E-02   4.2882E-04  0.0641
   4.7711E-02   4.8871E-02   3.8942E-04  0.0664
   4.8871E-02   5.0061E-02   4.3618E-04  0.0621
   5.0061E-02   5.1279E-02   3.9109E-04  0.0648
   5.1279E-02   5.2526E-02   4.0097E-04  0.0632
   5.2526E-02   5.3804E-02   3.8679E-04  0.0636
   5.3804E-02   5.5113E-02   4.3951E-04  0.0589
   5.5113E-02   5.6454E-02   4.0941E-04  0.0603
   5.6454E-02   5.7828E-02   3.3635E-04  0.0658
   5.7828E-02   5.9235E-02   4.8046E-04  0.0544
   5.9235E-02   6.0676E-02   3.8417E-04  0.0600
   6.0676E-02   6.2152E-02   4.2170E-04  0.0567
   6.2152E-02   6.3665E-02   3.6983E-04  0.0598
   6.3665E-02   6.5214E-02   3.9445E-04  0.0572
   6.5214E-02   6.6800E-02   3.7518E-04  0.0579
   6.6800E-02   6.8426E-02   3.7835E-04  0.0570
   6.8426E-02   7.0090E-02   4.2126E-04  0.0534
   7.0090E-02   7.1796E-02   3.8936E-04  0.0549
   7.1796E-02   7.3543E-02   3.9671E-04  0.0537
   7.3543E-02   7.5332E-02   4.0294E-04  0.0526
   7.5332E-02   7.7165E-02   3.6952E-04  0.0543
   7.7165E-02   7.9042E-02   4.1351E-04  0.0507
   7.9042E-02   8.0965E-02   4.0659E-04  0.0505
   8.0965E-02   8.2935E-02   3.6617E-04  0.0526
   8.2935E-02   8.4953E-02   3.9621E-04  0.0500
   8.4953E-02   8.7020E-02   3.4821E-04  0.0527
   8.7020E-02   8.9138E-02   3.8838E-04  0.0493
   8.9138E-02   9.1306E-02   4.0774E-04  0.0475
   9.1306E-02   9.3528E-02   3.7285E-04  0.0491
   9.3528E-02   9.5804E-02   3.7117E-04  0.0486
   9.5804E-02   9.8134E-02   3.5931E-04  0.0488
   9.8134E-02   1.0052E-01   3.4929E-04  0.0490
   1.0052E-01   1.0297E-01   3.4946E-04  0.0484
   1.0297E-01   1.0547E-01   3.0731E-04  0.0509
   1.0547E-01   1.0804E-01   3.1910E-04  0.0494
   1.0804E-01   1.1067E-01   3.6267E-04  0.0458
   1.1067E-01   1.1336E-01   3.4279E-04  0.0465
   1.1336E-01   1.1612E-01   3.4513E-04  0.0458
   1.1612E-01   1.1894E-01   3.4464E-04  0.0453
   1.1894E-01   1.2184E-01   3.3945E-04  0.0451
   1.2184E-01   1.2480E-01   3.2519E-04  0.0455
   1.2480E-01   1.2784E-01   3.0846E-04  0.0462
   1.2784E-01   1.3095E-01   3.3738E-04  0.0436
   1.3095E-01   1.3414E-01   3.1898E-04  0.0443
   1.3414E-01   1.3740E-01   3.1836E-04  0.0439
   1.3740E-01   1.4074E-01   2.9574E-04  0.0450
   1.4074E-01   1.4417E-01   2.9542E-04  0.0444
   1.4417E-01   1.4767E-01   2.9119E-04  0.0442
   1.4767E-01   1.5127E-01   2.9424E-04  0.0435
   1.5127E-01   1.5495E-01   2.9162E-04  0.0431
   1.5495E-01   1.5872E-01   2.8336E-04  0.0432
   1.5872E-01   1.6258E-01   2.9095E-04  0.0421
   1.6258E-01   1.6654E-01   2.7343E-04  0.0430
   1.6654E-01   1.7059E-01   2.6636E-04  0.0430
   1.7059E-01   1.7474E-01   2.6037E-04  0.0430
   1.7474E-01   1.7899E-01   2.5393E-04  0.0430
   1.7899E-01   1.8334E-01   2.4362E-04  0.0434
   1.8334E-01   1.8781E-01   2.6099E-04  0.0414
   1.8781E-01   1.9237E-01   2.2782E-04  0.0438
   1.9237E-01   1.9706E-01   2.3732E-04  0.0424
   1.9706E-01   2.0185E-01   2.3102E-04  0.0425
   2.0185E-01   2.0676E-01   2.3693E-04  0.0414
   2.0676E-01   2.1179E-01   2.2883E-04  0.0416
   2.1179E-01   2.1694E-01   2.3092E-04  0.0410
   2.1694E-01   2.2222E-01   2.4204E-04  0.0395
   2.2222E-01   2.2763E-01   2.3531E-04  0.0396
   2.2763E-01   2.3317E-01   2.6060E-04  0.0373
   2.3317E-01   2.3884E-01   2.5647E-04  0.0371
   2.3884E-01   2.4465E-01   2.5656E-04  0.0366
   2.4465E-01   2.5061E-01   2.5298E-04  0.0364
   2.5061E-01   2.5670E-01   2.5890E-04  0.0356
   2.5670E-01   2.6295E-01   2.6063E-04  0.0350
   2.6295E-01   2.6935E-01   2.6556E-04  0.0343
   2.6935E-01   2.7590E-01   2.7458E-04  0.0333
   2.7590E-01   2.8261E-01   2.5750E-04  0.0340
   2.8261E-01   2.8949E-01   2.6441E-04  0.0332
   2.8949E-01   2.9653E-01   2.6368E-04  0.0328
   2.9653E-01   3.0375E-01   2.7350E-04  0.0318
   3.0375E-01   3.1114E-01   2.8374E-04  0.0309
   3.1114E-01   3.1871E-01   2.7238E-04  0.0311
   3.1871E-01   3.2646E-01   2.7122E-04  0.0308
   3.2646E-01   3.3441E-01   2.8904E-04  0.0295
   3.3441E-01   3.4254E-01   2.8024E-04  0.0296
   3.4254E-01   3.5088E-01   2.7877E-04  0.0293
   3.5088E-01   3.5941E-01   2.8655E-04  0.0286
   3.5941E-01   3.6816E-01   2.8589E-04  0.0283
   3.6816E-01   3.7712E-01   2.8140E-04  0.0281
   3.7712E-01   3.8629E-01   3.0767E-04  0.0266
   3.8629E-01   3.9569E-01   2.9927E-04  0.0267
   3.9569E-01   4.0532E-01   2.9880E-04  0.0264
   4.0532E-01   4.1518E-01   2.9068E-04  0.0264
   4.1518E-01   4.2528E-01   2.9300E-04  0.0260
   4.2528E-01   4.3563E-01   2.8831E-04  0.0259
   4.3563E-01   4.4623E-01   3.0133E-04  0.0250
   4.4623E-01   4.5708E-01   2.8992E-04  0.0252
   4.5708E-01   4.6821E-01   3.0188E-04  0.0244
   4.6821E-01   4.7960E-01   3.0429E-04  0.0240
   4.7960E-01   4.9127E-01   3.0479E-04  0.0237
   4.9127E-01   5.0322E-01   3.1620E-04  0.0230
   5.0322E-01   5.1546E-01   2.9723E-04  0.0234
   5.1546E-01   5.2800E-01   3.1070E-04  0.0226
   5.2800E-01   5.4085E-01   3.0269E-04  0.0227
   5.4085E-01   5.5401E-01   3.2339E-04  0.0217
   5.5401E-01   5.6749E-01   3.1633E-04  0.0216
   5.6749E-01   5.8130E-01   3.1567E-04  0.0214
   5.8130E-01   5.9544E-01   3.1874E-04  0.0210
   5.9544E-01   6.0993E-01   3.2604E-04  0.0206
   6.0993E-01   6.2477E-01   3.2277E-04  0.0204
   6.2477E-01   6.3997E-01   3.1372E-04  0.0205
   6.3997E-01   6.5554E-01   3.2238E-04  0.0199
   6.5554E-01   6.7149E-01   3.3374E-04  0.0194
   6.7149E-01   6.8783E-01   3.3618E-04  0.0191
   6.8783E-01   7.0456E-01   3.2035E-04  0.0193
   7.0456E-01   7.2171E-01   3.1862E-04  0.0191
   7.2171E-01   7.3927E-01   3.2316E-04  0.0187
   7.3927E-01   7.5725E-01   3.2356E-04  0.0185
   7.5725E-01   7.7568E-01   3.2043E-04  0.0184
   7.7568E-01   7.9455E-01   3.2915E-04  0.0179
   7.9455E-01   8.1388E-01   3.2849E-04  0.0177
   8.1388E-01   8.3368E-01   3.3306E-04  0.0174
   8.3368E-01   8.5397E-01   3.3342E-04  0.0172
   8.5397E-01   8.7475E-01   3.3035E-04  0.0171
   8.7475E-01   8.9603E-01   3.3414E-04  0.0168
   8.9603E-01   9.1783E-01   3.2922E-04  0.0167
   9.1783E-01   9.4016E-01   3.2212E-04  0.0167
   9.4016E-01   9.6304E-01   3.3161E-04  0.0162
   9.6304E-01   9.8647E-01   3.2133E-04  0.0163
   9.8647E-01   1.0105E+00   3.1583E-04  0.0162
   1.0105E+00   1.0351E+00   3.0873E-04  0.0162
   1.0351E+00   1.0602E+00   3.0839E-04  0.0160
   1.0602E+00   1.0860E+00   3.1231E-04  0.0157
   1.0860E+00   1.1125E+00   3.0905E-04  0.0156
   1.1125E+00   1.1395E+00   3.0093E-04  0.0157
   1.1395E+00   1.1673E+00   3.0535E-04  0.0154
   1.1673E+00   1.1957E+00   3.0030E-04  0.0153
   1.1957E+00   1.2247E+00   3.1389E-04  0.0148
   1.2247E+00   1.2545E+00   3.0535E-04  0.0148
   1.2545E+00   1.2851E+00   3.0135E-04  0.0147
   1.2851E+00   1.3163E+00   2.9569E-04  0.0147
   1.3163E+00   1.3484E+00   3.0188E-04  0.0144
   1.3484E+00   1.3812E+00   2.9680E-04  0.0143
   1.3812E+00   1.4148E+00   2.9746E-04  0.0141
   1.4148E+00   1.4492E+00   2.9533E-04  0.0140
   1.4492E+00   1.4845E+00   2.9302E-04  0.0139
   1.4845E+00   1.5206E+00   3.0164E-04  0.0135
   1.5206E+00   1.5576E+00   2.8779E-04  0.0137
   1.5576E+00   1.5955E+00   2.9544E-04  0.0134
   1.5955E+00   1.6343E+00   2.8658E-04  0.0134
   1.6343E+00   1.6741E+00   2.8564E-04  0.0133
   1.6741E+00   1.7148E+00   2.8397E-04  0.0131
   1.7148E+00   1.7565E+00   2.8639E-04  0.0129
   1.7565E+00   1.7992E+00   2.7316E-04  0.0131
   1.7992E+00   1.8430E+00   2.8167E-04  0.0127
   1.8430E+00   1.8879E+00   2.7596E-04  0.0127
   1.8879E+00   1.9338E+00   2.7541E-04  0.0126
   1.9338E+00   1.9808E+00   2.7253E-04  0.0125
   1.9808E+00   2.0290E+00   2.7794E-04  0.0122
   2.0290E+00   2.0784E+00   2.6856E-04  0.0123
   2.0784E+00   2.1290E+00   2.6356E-04  0.0122
   2.1290E+00   2.1808E+00   2.6353E-04  0.0121
   2.1808E+00   2.2338E+00   2.6698E-04  0.0119
   2.2338E+00   2.2882E+00   2.6211E-04  0.0118
   2.2882E+00   2.3439E+00   2.6265E-04  0.0117
   2.3439E+00   2.4009E+00   2.6503E-04  0.0115
   2.4009E+00   2.4593E+00   2.5599E-04  0.0116
   2.4593E+00   2.5191E+00   2.5483E-04  0.0114
   2.5191E+00   2.5804E+00   2.5586E-04  0.0113
   2.5804E+00   2.6432E+00   2.5239E-04  0.0112
   2.6432E+00   2.7075E+00   2.5232E-04  0.0111
   2.7075E+00   2.7734E+00   2.4899E-04  0.0110
   2.7734E+00   2.8409E+00   2.4677E-04  0.0109
   2.8409E+00   2.9100E+00   2.4625E-04  0.0108
   2.9100E+00   2.9808E+00   2.4608E-04  0.0107
   2.9808E+00   3.0533E+00   2.4080E-04  0.0107
   3.0533E+00   3.1276E+00   2.3959E-04  0.0106
   3.1276E+00   3.2037E+00   2.3712E-04  0.0105
   3.2037E+00   3.2817E+00   2.3472E-04  0.0104
   3.2817E+00   3.3615E+00   2.3156E-04  0.0104
   3.3615E+00   3.4433E+00   2.3180E-04  0.0103
   3.4433E+00   3.5271E+00   2.2758E-04  0.0102
   3.5271E+00   3.6129E+00   2.2353E-04  0.0102
   3.6129E+00   3.7008E+00   2.2234E-04  0.0101
   3.7008E+00   3.7908E+00   2.2037E-04  0.0100
   3.7908E+00   3.8831E+00   2.1744E-04  0.0100
   3.8831E+00   3.9776E+00   2.1846E-04  0.0098
   3.9776E+00   4.0743E+00   2.1350E-04  0.0098
   4.0743E+00   4.1735E+00   2.1165E-04  0.0098
   4.1735E+00   4.2750E+00   2.1213E-04  0.0096
   4.2750E+00   4.3790E+00   2.0943E-04  0.0096
   4.3790E+00   4.4856E+00   2.1257E-04  0.0094
   4.4856E+00   4.5947E+00   2.0809E-04  0.0094
   4.5947E+00   4.7065E+00   2.0958E-04  0.0092
   4.7065E+00   4.8210E+00   2.1014E-04  0.0091
   4.8210E+00   4.9383E+00   2.1004E-04  0.0090
   4.9383E+00   5.0585E+00   2.0562E-04  0.0090
   5.0585E+00   5.1815E+00   2.0852E-04  0.0088
   5.1815E+00   5.3076E+00   2.0972E-04  0.0087
   5.3076E+00   5.4368E+00   2.0144E-04  0.0088
   5.4368E+00   5.5690E+00   2.0229E-04  0.0086
   5.5690E+00   5.7045E+00   1.9934E-04  0.0086
   5.7045E+00   5.8433E+00   1.9487E-04  0.0086
   5.8433E+00   5.9855E+00   1.9628E-04  0.0085
   5.9855E+00   6.1311E+00   1.9273E-04  0.0084
   6.1311E+00   6.2803E+00   1.8837E-04  0.0084
   6.2803E+00   6.4331E+00   1.8562E-04  0.0084
   6.4331E+00   6.5896E+00   1.8425E-04  0.0083
   6.5896E+00   6.7500E+00   1.8038E-04  0.0083
   6.7500E+00   6.9142E+00   1.7891E-04  0.0082
   6.9142E+00   7.0824E+00   1.7885E-04  0.0082
   7.0824E+00   7.2548E+00   1.7534E-04  0.0081
   7.2548E+00   7.4313E+00   1.7409E-04  0.0081
   7.4313E+00   7.6121E+00   1.7320E-04  0.0080
   7.6121E+00   7.7973E+00   1.6677E-04  0.0080
   7.7973E+00   7.9870E+00   1.6744E-04  0.0079
   7.9870E+00   8.1813E+00   1.6425E-04  0.0079
   8.1813E+00   8.3804E+00   1.6533E-04  0.0078
   8.3804E+00   8.5843E+00   1.5923E-04  0.0078
   8.5843E+00   8.7931E+00   1.6072E-04  0.0077
   8.7931E+00   9.0071E+00   1.6035E-04  0.0076
   9.0071E+00   9.2262E+00   1.5392E-04  0.0077
   9.2262E+00   9.4507E+00   1.5338E-04  0.0076
   9.4507E+00   9.6807E+00   1.5106E-04  0.0076
   9.6807E+00   9.9162E+00   1.4883E-04  0.0076
   9.9162E+00   1.0157E+01   1.4787E-04  0.0075
   1.0157E+01   1.0405E+01   1.4693E-04  0.0074
   1.0405E+01   1.0658E+01   1.4748E-04  0.0073
   1.0658E+01   1.0917E+01   1.4455E-04  0.0073
   1.0917E+01   1.1183E+01   1.4162E-04  0.0073
   1.1183E+01   1.1455E+01   1.3942E-04  0.0073
   1.1455E+01   1.1733E+01   1.3905E-04  0.0072
   1.1733E+01   1.2019E+01   1.3929E-04  0.0071
   1.2019E+01   1.2311E+01   1.3798E-04  0.0070
   1.2311E+01   1.2611E+01   1.3484E-04  0.0070
   1.2611E+01   1.2918E+01   1.3469E-04  0.0070
   1.2918E+01   1.3232E+01   1.3378E-04  0.0069
   1.3232E+01   1.3554E+01   1.3307E-04  0.0068
   1.3554E+01   1.3884E+01   1.3228E-04  0.0068
   1.3884E+01   1.4222E+01   1.2915E-04  0.0068
   1.4222E+01   1.4568E+01   1.2815E-04  0.0067
   1.4568E+01   1.4922E+01   1.2650E-04  0.0067
   1.4922E+01   1.5285E+01   1.2337E-04  0.0067
   1.5285E+01   1.5657E+01   1.2345E-04  0.0066
   1.5657E+01   1.6038E+01   1.2120E-04  0.0066
   1.6038E+01   1.6428E+01   1.1962E-04  0.0065
   1.6428E+01   1.6828E+01   1.1913E-04  0.0065
   1.6828E+01   1.7237E+01   1.1629E-04  0.0065
   1.7237E+01   1.7657E+01   1.1348E-04  0.0065
   1.7657E+01   1.8086E+01   1.1373E-04  0.0064
   1.8086E+01   1.8526E+01   1.0987E-04  0.0064
   1.8526E+01   1.8977E+01   1.0909E-04  0.0064
   1.8977E+01   1.9439E+01   1.0629E-04  0.0064
   1.9439E+01   1.9912E+01   1.0434E-04  0.0064
   1.9912E+01   2.0396E+01   1.0139E-04  0.0064
   2.0396E+01   2.0893E+01   9.9871E-05  0.0064
   2.0893E+01   2.1401E+01   9.7047E-05  0.0064
   2.1401E+01   2.1922E+01   9.5245E-05  0.0064
   2.1922E+01   2.2455E+01   9.2442E-05  0.0064
   2.2455E+01   2.3001E+01   8.9624E-05  0.0064
   2.3001E+01   2.3561E+01   8.6298E-05  0.0064
   2.3561E+01   2.4134E+01   8.3292E-05  0.0065
   2.4134E+01   2.4721E+01   8.0302E-05  0.0065
   2.4721E+01   2.5323E+01   7.7564E-05  0.0065
   2.5323E+01   2.5939E+01   7.3319E-05  0.0067
   2.5939E+01   2.6570E+01   7.0272E-05  0.0067
   2.6570E+01   2.7217E+01   6.7567E-05  0.0068
   2.7217E+01   2.7879E+01   6.5327E-05  0.0068
   2.7879E+01   2.8557E+01   6.1152E-05  0.0069
   2.8557E+01   2.9252E+01   5.8692E-05  0.0070
   2.9252E+01   2.9964E+01   5.5083E-05  0.0071
   2.9964E+01   3.0693E+01   5.2463E-05  0.0072
   3.0693E+01   3.1440E+01   4.9364E-05  0.0074
   3.1440E+01   3.2205E+01   4.6398E-05  0.0075
   3.2205E+01   3.2988E+01   4.3415E-05  0.0077
   3.2988E+01   3.3791E+01   4.0993E-05  0.0078
   3.3791E+01   3.4613E+01   3.8993E-05  0.0079
   3.4613E+01   3.5455E+01   3.5680E-05  0.0082
   3.5455E+01   3.6318E+01   3.3592E-05  0.0083
   3.6318E+01   3.7201E+01   3.1144E-05  0.0085
   3.7201E+01   3.8106E+01   2.9112E-05  0.0087
   3.8106E+01   3.9034E+01   2.6979E-05  0.0089
   3.9034E+01   3.9983E+01   2.5182E-05  0.0091
   3.9983E+01   4.0956E+01   2.3274E-05  0.0094
   4.0956E+01   4.1953E+01   2.1273E-05  0.0097
   4.1953E+01   4.2973E+01   1.9856E-05  0.0099
   4.2973E+01   4.4019E+01   1.7858E-05  0.0103
   4.4019E+01   4.5090E+01   1.6812E-05  0.0105
   4.5090E+01   4.6187E+01   1.5295E-05  0.0109
   4.6187E+01   4.7311E+01   1.4240E-05  0.0112
   4.7311E+01   4.8462E+01   1.3210E-05  0.0115
   4.8462E+01   4.9641E+01   1.2598E-05  0.0116
   4.9641E+01   5.0849E+01   1.1830E-05  0.0118
   5.0849E+01   5.2086E+01   1.1238E-05  0.0120
   5.2086E+01   5.3353E+01   1.0574E-05  0.0122
   5.3353E+01   5.4651E+01   9.8912E-06  0.0125
   5.4651E+01   5.5981E+01   9.2862E-06  0.0127
   5.5981E+01   5.7343E+01   8.8160E-06  0.0129
   5.7343E+01   5.8738E+01   8.6912E-06  0.0128
   5.8738E+01   6.0168E+01   8.4708E-06  0.0129
   6.0168E+01   6.1632E+01   8.1193E-06  0.0130
   6.1632E+01   6.3131E+01   7.7490E-06  0.0131
   6.3131E+01   6.4667E+01   6.7954E-06  0.0138
   6.4667E+01   6.6240E+01   5.7824E-06  0.0148
   6.6240E+01   6.7852E+01   4.9414E-06  0.0158
   6.7852E+01   6.9503E+01   4.0911E-06  0.0172
   6.9503E+01   7.1194E+01   2.7994E-06  0.0206
   7.1194E+01   7.2926E+01   1.5726E-06  0.0271
   7.2926E+01   7.4701E+01   6.4700E-07  0.0417
   7.4701E+01   7.6518E+01   1.4195E-07  0.0880
   7.6518E+01   7.8380E+01   1.2891E-08  0.2887
   7.8380E+01   8.0287E+01   0.0000E+00  0.0000
   8.0287E+01   8.2240E+01   0.0000E+00  0.0000
   8.2240E+01   8.4241E+01   0.0000E+00  0.0000
   8.4241E+01   8.6291E+01   0.0000E+00  0.0000
   8.6291E+01   8.8391E+01   0.0000E+00  0.0000
   8.8391E+01   9.0541E+01   0.0000E+00  0.0000
   9.0541E+01   9.2744E+01   0.0000E+00  0.0000
   9.2744E+01   9.5001E+01   0.0000E+00  0.0000
   9.5001E+01   9.7312E+01   0.0000E+00  0.0000
   9.7312E+01   9.9680E+01   0.0000E+00  0.0000
   9.9680E+01   1.0211E+02   0.0000E+00  0.0000
   1.0211E+02   1.0459E+02   0.0000E+00  0.0000
   1.0459E+02   1.0713E+02   0.0000E+00  0.0000
   1.0713E+02   1.0974E+02   0.0000E+00  0.0000
   1.0974E+02   1.1241E+02   0.0000E+00  0.0000
   1.1241E+02   1.1515E+02   0.0000E+00  0.0000
   1.1515E+02   1.1795E+02   0.0000E+00  0.0000
   1.1795E+02   1.2082E+02   0.0000E+00  0.0000
   1.2082E+02   1.2376E+02   0.0000E+00  0.0000
   1.2376E+02   1.2677E+02   0.0000E+00  0.0000
   1.2677E+02   1.2985E+02   0.0000E+00  0.0000
   1.2985E+02   1.3301E+02   0.0000E+00  0.0000
   1.3301E+02   1.3625E+02   0.0000E+00  0.0000
   1.3625E+02   1.3956E+02   0.0000E+00  0.0000
   1.3956E+02   1.4296E+02   0.0000E+00  0.0000
   1.4296E+02   1.4644E+02   0.0000E+00  0.0000
   1.4644E+02   1.5000E+02   0.0000E+00  0.0000

#   sum over                 3.2672E-05
'no. =    1   reg = 107 - 207'
msuc: {\huge [t-cross] in region mesh}
msdr: {\it plotted by \ANGEL \version}
msdl: {\it calculated by \PHITS  3.26}
wt: s(0.7)
\vspace{-3}
  region surface crossing
  area  &=&   1.0000E+00 [cm^2]
e:
 
# Information for Restart Calculation
# This calculation was newly started
# istdev =  2 # 1:Batch variance, 2:History variance
# resc2  = 5.00000000000000000E+08 # Total source weight or Total source weight / maxcas
# resc3  = 5.00000000000000000E+08 # Total history number or Total batch number
# maxcas =   500000000 # History / Batch, only used for istdev=1
# bitrseed = 1101101111010011011000101101110001100110110010110001010100010001 # bit data of rseed
