[ T-Cross ]
    title = [t-cross] in region mesh
     mesh =  reg            # mesh type is region-wise
      reg =    1            # number of crossing regions
      non     r-from    r-to       area
      1       118       218        1.000000    
   e-type =    3            # e-mesh is log given by emin, emax and ne
     emin =  1.0000000E-02  # minimum value of e-mesh points
     emax =   150.0000      # maximum value of e-mesh points
#    edel =  2.4039514E-02  # mesh width of e-mesh points
       ne =    400          # number of e-mesh points
#    data = ( e(i), i = 1, ne + 1 )
#           1.00000E-02  1.02433E-02  1.04925E-02  1.07478E-02  1.10093E-02
#           1.12772E-02  1.15516E-02  1.18326E-02  1.21205E-02  1.24154E-02
#           1.27175E-02  1.30269E-02  1.33439E-02  1.36686E-02  1.40011E-02
#           1.43418E-02  1.46907E-02  1.50482E-02  1.54143E-02  1.57894E-02
#           1.61735E-02  1.65670E-02  1.69701E-02  1.73830E-02  1.78060E-02
#           1.82392E-02  1.86830E-02  1.91375E-02  1.96032E-02  2.00801E-02
#           2.05687E-02  2.10692E-02  2.15818E-02  2.21069E-02  2.26448E-02
#           2.31957E-02  2.37601E-02  2.43382E-02  2.49304E-02  2.55369E-02
#           2.61583E-02  2.67947E-02  2.74467E-02  2.81145E-02  2.87985E-02
#           2.94992E-02  3.02169E-02  3.09521E-02  3.17052E-02  3.24766E-02
#           3.32668E-02  3.40762E-02  3.49053E-02  3.57546E-02  3.66246E-02
#           3.75157E-02  3.84284E-02  3.93634E-02  4.03212E-02  4.13022E-02
#           4.23071E-02  4.33365E-02  4.43909E-02  4.54710E-02  4.65773E-02
#           4.77106E-02  4.88714E-02  5.00605E-02  5.12785E-02  5.25262E-02
#           5.38042E-02  5.51133E-02  5.64542E-02  5.78278E-02  5.92348E-02
#           6.06760E-02  6.21523E-02  6.36645E-02  6.52135E-02  6.68002E-02
#           6.84255E-02  7.00904E-02  7.17957E-02  7.35426E-02  7.53319E-02
#           7.71648E-02  7.90423E-02  8.09655E-02  8.29354E-02  8.49533E-02
#           8.70203E-02  8.91376E-02  9.13064E-02  9.35279E-02  9.58035E-02
#           9.81345E-02  1.00522E-01  1.02968E-01  1.05473E-01  1.08040E-01
#           1.10668E-01  1.13361E-01  1.16119E-01  1.18944E-01  1.21838E-01
#           1.24803E-01  1.27839E-01  1.30950E-01  1.34136E-01  1.37399E-01
#           1.40742E-01  1.44167E-01  1.47675E-01  1.51268E-01  1.54948E-01
#           1.58718E-01  1.62580E-01  1.66535E-01  1.70587E-01  1.74738E-01
#           1.78989E-01  1.83344E-01  1.87805E-01  1.92375E-01  1.97055E-01
#           2.01850E-01  2.06761E-01  2.11792E-01  2.16945E-01  2.22223E-01
#           2.27630E-01  2.33169E-01  2.38842E-01  2.44653E-01  2.50605E-01
#           2.56703E-01  2.62949E-01  2.69346E-01  2.75900E-01  2.82613E-01
#           2.89489E-01  2.96532E-01  3.03747E-01  3.11138E-01  3.18708E-01
#           3.26462E-01  3.34405E-01  3.42542E-01  3.50876E-01  3.59413E-01
#           3.68158E-01  3.77116E-01  3.86291E-01  3.95690E-01  4.05317E-01
#           4.15179E-01  4.25281E-01  4.35628E-01  4.46227E-01  4.57084E-01
#           4.68205E-01  4.79597E-01  4.91266E-01  5.03219E-01  5.15463E-01
#           5.28005E-01  5.40851E-01  5.54011E-01  5.67490E-01  5.81298E-01
#           5.95441E-01  6.09929E-01  6.24769E-01  6.39970E-01  6.55541E-01
#           6.71491E-01  6.87828E-01  7.04564E-01  7.21706E-01  7.39266E-01
#           7.57253E-01  7.75678E-01  7.94551E-01  8.13883E-01  8.33685E-01
#           8.53969E-01  8.74747E-01  8.96030E-01  9.17831E-01  9.40163E-01
#           9.63038E-01  9.86469E-01  1.01047E+00  1.03506E+00  1.06024E+00
#           1.08604E+00  1.11246E+00  1.13953E+00  1.16725E+00  1.19565E+00
#           1.22474E+00  1.25454E+00  1.28507E+00  1.31633E+00  1.34836E+00
#           1.38117E+00  1.41477E+00  1.44920E+00  1.48446E+00  1.52057E+00
#           1.55757E+00  1.59547E+00  1.63429E+00  1.67405E+00  1.71478E+00
#           1.75650E+00  1.79924E+00  1.84302E+00  1.88786E+00  1.93379E+00
#           1.98084E+00  2.02904E+00  2.07841E+00  2.12898E+00  2.18078E+00
#           2.23384E+00  2.28819E+00  2.34386E+00  2.40089E+00  2.45930E+00
#           2.51914E+00  2.58043E+00  2.64322E+00  2.70753E+00  2.77341E+00
#           2.84088E+00  2.91001E+00  2.98081E+00  3.05333E+00  3.12762E+00
#           3.20372E+00  3.28167E+00  3.36152E+00  3.44330E+00  3.52708E+00
#           3.61290E+00  3.70080E+00  3.79085E+00  3.88308E+00  3.97756E+00
#           4.07434E+00  4.17347E+00  4.27501E+00  4.37903E+00  4.48557E+00
#           4.59471E+00  4.70650E+00  4.82102E+00  4.93832E+00  5.05847E+00
#           5.18155E+00  5.30762E+00  5.43676E+00  5.56904E+00  5.70453E+00
#           5.84333E+00  5.98550E+00  6.13114E+00  6.28031E+00  6.43312E+00
#           6.58964E+00  6.74997E+00  6.91420E+00  7.08243E+00  7.25475E+00
#           7.43126E+00  7.61207E+00  7.79728E+00  7.98700E+00  8.18133E+00
#           8.38038E+00  8.58428E+00  8.79315E+00  9.00709E+00  9.22624E+00
#           9.45072E+00  9.68067E+00  9.91620E+00  1.01575E+01  1.04046E+01
#           1.06578E+01  1.09171E+01  1.11827E+01  1.14548E+01  1.17335E+01
#           1.20190E+01  1.23114E+01  1.26109E+01  1.29178E+01  1.32321E+01
#           1.35540E+01  1.38838E+01  1.42216E+01  1.45676E+01  1.49221E+01
#           1.52851E+01  1.56570E+01  1.60380E+01  1.64282E+01  1.68279E+01
#           1.72374E+01  1.76568E+01  1.80864E+01  1.85264E+01  1.89772E+01
#           1.94389E+01  1.99119E+01  2.03963E+01  2.08926E+01  2.14009E+01
#           2.19216E+01  2.24550E+01  2.30014E+01  2.35610E+01  2.41343E+01
#           2.47215E+01  2.53230E+01  2.59391E+01  2.65702E+01  2.72167E+01
#           2.78789E+01  2.85572E+01  2.92520E+01  2.99637E+01  3.06928E+01
#           3.14396E+01  3.22045E+01  3.29881E+01  3.37907E+01  3.46128E+01
#           3.54550E+01  3.63177E+01  3.72013E+01  3.81064E+01  3.90336E+01
#           3.99833E+01  4.09561E+01  4.19526E+01  4.29734E+01  4.40189E+01
#           4.50900E+01  4.61870E+01  4.73108E+01  4.84619E+01  4.96410E+01
#           5.08488E+01  5.20860E+01  5.33533E+01  5.46514E+01  5.59812E+01
#           5.73432E+01  5.87384E+01  6.01676E+01  6.16315E+01  6.31311E+01
#           6.46671E+01  6.62405E+01  6.78522E+01  6.95031E+01  7.11941E+01
#           7.29263E+01  7.47007E+01  7.65182E+01  7.83800E+01  8.02870E+01
#           8.22405E+01  8.42414E+01  8.62911E+01  8.83906E+01  9.05412E+01
#           9.27442E+01  9.50007E+01  9.73122E+01  9.96799E+01  1.02105E+02
#           1.04589E+02  1.07134E+02  1.09741E+02  1.12411E+02  1.15146E+02
#           1.17948E+02  1.20817E+02  1.23757E+02  1.26768E+02  1.29852E+02
#           1.33012E+02  1.36248E+02  1.39563E+02  1.42959E+02  1.46437E+02
#           1.50000E+02
     unit =    2            # unit is [1/cm^2/(MeV/n)/source]
     axis =  eng            # axis of output
     file = detector-19.out  # file name of output for the above axis
   output = f-curr          # surface crossing forward current spectrum
     part =  neutron  
# kf/name :  2112     
#    used :        main (  %)        temp (  %)       total (  %)
#  memory :         414 (  0)           0 (  0)         414 (  0)

#------------------------------------------------------------------------------
#newpage:
#   no. =    1   reg = 118 - 218

x: Energy [MeV/n]
y:  F-Curr [1/cm^2/(MeV/n)/source]         
p: xlog ylog afac(0.8) form(0.9)
h: n            x            y(neutron ),hh0l   n 
#  e-lower      e-upper      neutron     r.err 
   1.0000E-02   1.0243E-02   3.2958E-03  0.0499
   1.0243E-02   1.0493E-02   3.4428E-03  0.0482
   1.0493E-02   1.0748E-02   3.3063E-03  0.0485
   1.0748E-02   1.1009E-02   3.3065E-03  0.0481
   1.1009E-02   1.1277E-02   3.1231E-03  0.0488
   1.1277E-02   1.1552E-02   3.1439E-03  0.0481
   1.1552E-02   1.1833E-02   3.1661E-03  0.0473
   1.1833E-02   1.2121E-02   2.9260E-03  0.0487
   1.2121E-02   1.2415E-02   3.1857E-03  0.0460
   1.2415E-02   1.2718E-02   3.2188E-03  0.0453
   1.2718E-02   1.3027E-02   2.9520E-03  0.0467
   1.3027E-02   1.3344E-02   2.8549E-03  0.0469
   1.3344E-02   1.3669E-02   2.7815E-03  0.0470
   1.3669E-02   1.4001E-02   2.9707E-03  0.0449
   1.4001E-02   1.4342E-02   2.8714E-03  0.0452
   1.4342E-02   1.4691E-02   2.7690E-03  0.0454
   1.4691E-02   1.5048E-02   2.8330E-03  0.0444
   1.5048E-02   1.5414E-02   2.8175E-03  0.0440
   1.5414E-02   1.5789E-02   2.7234E-03  0.0442
   1.5789E-02   1.6174E-02   2.6975E-03  0.0439
   1.6174E-02   1.6567E-02   2.6156E-03  0.0440
   1.6567E-02   1.6970E-02   2.5878E-03  0.0437
   1.6970E-02   1.7383E-02   2.5142E-03  0.0438
   1.7383E-02   1.7806E-02   2.3825E-03  0.0445
   1.7806E-02   1.8239E-02   2.4397E-03  0.0435
   1.8239E-02   1.8683E-02   2.4675E-03  0.0427
   1.8683E-02   1.9138E-02   2.4204E-03  0.0426
   1.9138E-02   1.9603E-02   2.3156E-03  0.0430
   1.9603E-02   2.0080E-02   2.2676E-03  0.0429
   2.0080E-02   2.0569E-02   2.3294E-03  0.0419
   2.0569E-02   2.1069E-02   2.2204E-03  0.0424
   2.1069E-02   2.1582E-02   2.1710E-03  0.0423
   2.1582E-02   2.2107E-02   2.3099E-03  0.0406
   2.2107E-02   2.2645E-02   2.0491E-03  0.0426
   2.2645E-02   2.3196E-02   1.9611E-03  0.0429
   2.3196E-02   2.3760E-02   2.0863E-03  0.0412
   2.3760E-02   2.4338E-02   2.0177E-03  0.0413
   2.4338E-02   2.4930E-02   1.9647E-03  0.0414
   2.4930E-02   2.5537E-02   1.9928E-03  0.0406
   2.5537E-02   2.6158E-02   1.9721E-03  0.0404
   2.6158E-02   2.6795E-02   1.9571E-03  0.0400
   2.6795E-02   2.7447E-02   1.8278E-03  0.0409
   2.7447E-02   2.8114E-02   1.7746E-03  0.0410
   2.8114E-02   2.8799E-02   1.7609E-03  0.0407
   2.8799E-02   2.9499E-02   1.7584E-03  0.0402
   2.9499E-02   3.0217E-02   1.7552E-03  0.0398
   3.0217E-02   3.0952E-02   1.7059E-03  0.0399
   3.0952E-02   3.1705E-02   1.7277E-03  0.0392
   3.1705E-02   3.2477E-02   1.7175E-03  0.0387
   3.2477E-02   3.3267E-02   1.7776E-03  0.0377
   3.3267E-02   3.4076E-02   1.5821E-03  0.0395
   3.4076E-02   3.4905E-02   1.5852E-03  0.0390
   3.4905E-02   3.5755E-02   1.7632E-03  0.0365
   3.5755E-02   3.6625E-02   1.5213E-03  0.0388
   3.6625E-02   3.7516E-02   1.5956E-03  0.0375
   3.7516E-02   3.8428E-02   1.4757E-03  0.0385
   3.8428E-02   3.9363E-02   1.5262E-03  0.0374
   3.9363E-02   4.0321E-02   1.4073E-03  0.0385
   4.0321E-02   4.1302E-02   1.3918E-03  0.0382
   4.1302E-02   4.2307E-02   1.4368E-03  0.0372
   4.2307E-02   4.3337E-02   1.4096E-03  0.0371
   4.3337E-02   4.4391E-02   1.4499E-03  0.0361
   4.4391E-02   4.5471E-02   1.4210E-03  0.0360
   4.5471E-02   4.6577E-02   1.3129E-03  0.0371
   4.6577E-02   4.7711E-02   1.3110E-03  0.0366
   4.7711E-02   4.8871E-02   1.3462E-03  0.0357
   4.8871E-02   5.0061E-02   1.2996E-03  0.0359
   5.0061E-02   5.1279E-02   1.2780E-03  0.0358
   5.1279E-02   5.2526E-02   1.3073E-03  0.0350
   5.2526E-02   5.3804E-02   1.1734E-03  0.0364
   5.3804E-02   5.5113E-02   1.1763E-03  0.0360
   5.5113E-02   5.6454E-02   1.1590E-03  0.0358
   5.6454E-02   5.7828E-02   1.1343E-03  0.0358
   5.7828E-02   5.9235E-02   1.1272E-03  0.0355
   5.9235E-02   6.0676E-02   1.1066E-03  0.0354
   6.0676E-02   6.2152E-02   1.0760E-03  0.0354
   6.2152E-02   6.3665E-02   1.0925E-03  0.0347
   6.3665E-02   6.5214E-02   1.1589E-03  0.0333
   6.5214E-02   6.6800E-02   1.0552E-03  0.0345
   6.6800E-02   6.8426E-02   1.0865E-03  0.0336
   6.8426E-02   7.0090E-02   1.0472E-03  0.0338
   7.0090E-02   7.1796E-02   1.0047E-03  0.0341
   7.1796E-02   7.3543E-02   9.6496E-04  0.0344
   7.3543E-02   7.5332E-02   9.1568E-04  0.0349
   7.5332E-02   7.7165E-02   9.4511E-04  0.0339
   7.7165E-02   7.9042E-02   8.8601E-04  0.0346
   7.9042E-02   8.0965E-02   9.1792E-04  0.0336
   8.0965E-02   8.2935E-02   9.1103E-04  0.0333
   8.2935E-02   8.4953E-02   9.3339E-04  0.0325
   8.4953E-02   8.7020E-02   8.8773E-04  0.0330
   8.7020E-02   8.9138E-02   8.5461E-04  0.0332
   8.9138E-02   9.1306E-02   8.3565E-04  0.0332
   9.1306E-02   9.3528E-02   7.9100E-04  0.0337
   9.3528E-02   9.5804E-02   8.1469E-04  0.0328
   9.5804E-02   9.8134E-02   7.7720E-04  0.0332
   9.8134E-02   1.0052E-01   7.2828E-04  0.0339
   1.0052E-01   1.0297E-01   7.9914E-04  0.0320
   1.0297E-01   1.0547E-01   7.3479E-04  0.0329
   1.0547E-01   1.0804E-01   7.6055E-04  0.0320
   1.0804E-01   1.1067E-01   6.4960E-04  0.0342
   1.1067E-01   1.1336E-01   7.4775E-04  0.0315
   1.1336E-01   1.1612E-01   6.5005E-04  0.0333
   1.1612E-01   1.1894E-01   6.6089E-04  0.0327
   1.1894E-01   1.2184E-01   6.5676E-04  0.0324
   1.2184E-01   1.2480E-01   6.2430E-04  0.0328
   1.2480E-01   1.2784E-01   6.1375E-04  0.0327
   1.2784E-01   1.3095E-01   6.1480E-04  0.0323
   1.3095E-01   1.3414E-01   5.9424E-04  0.0324
   1.3414E-01   1.3740E-01   5.7164E-04  0.0327
   1.3740E-01   1.4074E-01   5.5867E-04  0.0327
   1.4074E-01   1.4417E-01   5.6811E-04  0.0320
   1.4417E-01   1.4767E-01   5.4714E-04  0.0322
   1.4767E-01   1.5127E-01   5.2076E-04  0.0326
   1.5127E-01   1.5495E-01   5.0663E-04  0.0327
   1.5495E-01   1.5872E-01   5.0405E-04  0.0324
   1.5872E-01   1.6258E-01   4.8247E-04  0.0327
   1.6258E-01   1.6654E-01   4.7296E-04  0.0327
   1.6654E-01   1.7059E-01   4.8407E-04  0.0319
   1.7059E-01   1.7474E-01   4.8258E-04  0.0316
   1.7474E-01   1.7899E-01   4.6101E-04  0.0319
   1.7899E-01   1.8334E-01   4.5963E-04  0.0316
   1.8334E-01   1.8781E-01   4.0544E-04  0.0332
   1.8781E-01   1.9237E-01   3.9193E-04  0.0334
   1.9237E-01   1.9706E-01   3.9519E-04  0.0328
   1.9706E-01   2.0185E-01   3.6810E-04  0.0336
   2.0185E-01   2.0676E-01   3.9720E-04  0.0319
   2.0676E-01   2.1179E-01   4.0987E-04  0.0311
   2.1179E-01   2.1694E-01   4.2076E-04  0.0303
   2.1694E-01   2.2222E-01   4.3360E-04  0.0295
   2.2222E-01   2.2763E-01   4.3805E-04  0.0290
   2.2763E-01   2.3317E-01   4.4998E-04  0.0283
   2.3317E-01   2.3884E-01   4.7601E-04  0.0272
   2.3884E-01   2.4465E-01   4.6156E-04  0.0273
   2.4465E-01   2.5061E-01   4.7458E-04  0.0266
   2.5061E-01   2.5670E-01   5.0173E-04  0.0255
   2.5670E-01   2.6295E-01   4.9979E-04  0.0253
   2.6295E-01   2.6935E-01   5.0553E-04  0.0248
   2.6935E-01   2.7590E-01   5.0641E-04  0.0245
   2.7590E-01   2.8261E-01   5.1856E-04  0.0239
   2.8261E-01   2.8949E-01   5.2388E-04  0.0235
   2.8949E-01   2.9653E-01   5.4142E-04  0.0229
   2.9653E-01   3.0375E-01   5.3335E-04  0.0228
   3.0375E-01   3.1114E-01   5.4159E-04  0.0223
   3.1114E-01   3.1871E-01   5.2338E-04  0.0224
   3.1871E-01   3.2646E-01   5.5855E-04  0.0215
   3.2646E-01   3.3441E-01   5.7848E-04  0.0208
   3.3441E-01   3.4254E-01   5.7295E-04  0.0207
   3.4254E-01   3.5088E-01   5.6514E-04  0.0206
   3.5088E-01   3.5941E-01   5.8506E-04  0.0200
   3.5941E-01   3.6816E-01   5.9889E-04  0.0195
   3.6816E-01   3.7712E-01   6.0938E-04  0.0191
   3.7712E-01   3.8629E-01   6.2067E-04  0.0187
   3.8629E-01   3.9569E-01   6.2021E-04  0.0185
   3.9569E-01   4.0532E-01   6.4032E-04  0.0180
   4.0532E-01   4.1518E-01   6.1719E-04  0.0181
   4.1518E-01   4.2528E-01   6.4683E-04  0.0175
   4.2528E-01   4.3563E-01   6.4461E-04  0.0173
   4.3563E-01   4.4623E-01   6.2818E-04  0.0173
   4.4623E-01   4.5708E-01   6.5793E-04  0.0167
   4.5708E-01   4.6821E-01   6.5776E-04  0.0165
   4.6821E-01   4.7960E-01   6.6681E-04  0.0162
   4.7960E-01   4.9127E-01   6.6735E-04  0.0160
   4.9127E-01   5.0322E-01   6.5591E-04  0.0159
   5.0322E-01   5.1546E-01   6.5705E-04  0.0157
   5.1546E-01   5.2800E-01   6.9104E-04  0.0152
   5.2800E-01   5.4085E-01   6.8503E-04  0.0150
   5.4085E-01   5.5401E-01   6.7156E-04  0.0150
   5.5401E-01   5.6749E-01   6.9863E-04  0.0145
   5.6749E-01   5.8130E-01   6.8990E-04  0.0145
   5.8130E-01   5.9544E-01   6.8878E-04  0.0143
   5.9544E-01   6.0993E-01   6.7707E-04  0.0142
   6.0993E-01   6.2477E-01   6.7404E-04  0.0141
   6.2477E-01   6.3997E-01   6.9117E-04  0.0138
   6.3997E-01   6.5554E-01   7.0555E-04  0.0135
   6.5554E-01   6.7149E-01   6.8230E-04  0.0135
   6.7149E-01   6.8783E-01   6.7831E-04  0.0134
   6.8783E-01   7.0456E-01   6.8527E-04  0.0132
   7.0456E-01   7.2171E-01   6.9238E-04  0.0129
   7.2171E-01   7.3927E-01   6.7389E-04  0.0130
   7.3927E-01   7.5725E-01   6.8527E-04  0.0127
   7.5725E-01   7.7568E-01   6.8384E-04  0.0126
   7.7568E-01   7.9455E-01   6.6641E-04  0.0126
   7.9455E-01   8.1388E-01   6.7205E-04  0.0124
   8.1388E-01   8.3368E-01   6.5813E-04  0.0124
   8.3368E-01   8.5397E-01   6.5798E-04  0.0122
   8.5397E-01   8.7475E-01   6.4254E-04  0.0122
   8.7475E-01   8.9603E-01   6.1114E-04  0.0124
   8.9603E-01   9.1783E-01   6.0912E-04  0.0122
   9.1783E-01   9.4016E-01   6.0883E-04  0.0121
   9.4016E-01   9.6304E-01   5.8450E-04  0.0122
   9.6304E-01   9.8647E-01   5.8788E-04  0.0120
   9.8647E-01   1.0105E+00   5.6438E-04  0.0121
   1.0105E+00   1.0351E+00   5.5306E-04  0.0121
   1.0351E+00   1.0602E+00   5.3778E-04  0.0121
   1.0602E+00   1.0860E+00   5.4194E-04  0.0119
   1.0860E+00   1.1125E+00   5.2968E-04  0.0119
   1.1125E+00   1.1395E+00   5.3505E-04  0.0117
   1.1395E+00   1.1673E+00   5.3093E-04  0.0116
   1.1673E+00   1.1957E+00   5.2387E-04  0.0116
   1.1957E+00   1.2247E+00   5.1856E-04  0.0115
   1.2247E+00   1.2545E+00   5.1722E-04  0.0114
   1.2545E+00   1.2851E+00   5.0578E-04  0.0113
   1.2851E+00   1.3163E+00   4.9713E-04  0.0113
   1.3163E+00   1.3484E+00   4.9377E-04  0.0112
   1.3484E+00   1.3812E+00   4.9116E-04  0.0111
   1.3812E+00   1.4148E+00   4.9232E-04  0.0110
   1.4148E+00   1.4492E+00   4.7014E-04  0.0111
   1.4492E+00   1.4845E+00   4.6840E-04  0.0110
   1.4845E+00   1.5206E+00   4.6260E-04  0.0109
   1.5206E+00   1.5576E+00   4.4294E-04  0.0110
   1.5576E+00   1.5955E+00   4.3460E-04  0.0110
   1.5955E+00   1.6343E+00   4.2460E-04  0.0110
   1.6343E+00   1.6741E+00   4.1657E-04  0.0109
   1.6741E+00   1.7148E+00   4.1396E-04  0.0109
   1.7148E+00   1.7565E+00   4.0170E-04  0.0109
   1.7565E+00   1.7992E+00   3.9212E-04  0.0109
   1.7992E+00   1.8430E+00   3.8668E-04  0.0108
   1.8430E+00   1.8879E+00   3.7828E-04  0.0108
   1.8879E+00   1.9338E+00   3.7055E-04  0.0108
   1.9338E+00   1.9808E+00   3.6222E-04  0.0108
   1.9808E+00   2.0290E+00   3.5209E-04  0.0108
   2.0290E+00   2.0784E+00   3.4318E-04  0.0108
   2.0784E+00   2.1290E+00   3.3323E-04  0.0108
   2.1290E+00   2.1808E+00   3.1907E-04  0.0110
   2.1808E+00   2.2338E+00   3.1365E-04  0.0109
   2.2338E+00   2.2882E+00   3.0191E-04  0.0110
   2.2882E+00   2.3439E+00   2.9889E-04  0.0109
   2.3439E+00   2.4009E+00   2.8942E-04  0.0110
   2.4009E+00   2.4593E+00   2.8639E-04  0.0109
   2.4593E+00   2.5191E+00   2.8053E-04  0.0109
   2.5191E+00   2.5804E+00   2.7368E-04  0.0109
   2.5804E+00   2.6432E+00   2.5942E-04  0.0110
   2.6432E+00   2.7075E+00   2.5950E-04  0.0109
   2.7075E+00   2.7734E+00   2.5409E-04  0.0109
   2.7734E+00   2.8409E+00   2.4204E-04  0.0110
   2.8409E+00   2.9100E+00   2.3616E-04  0.0110
   2.9100E+00   2.9808E+00   2.2971E-04  0.0110
   2.9808E+00   3.0533E+00   2.2932E-04  0.0109
   3.0533E+00   3.1276E+00   2.1103E-04  0.0112
   3.1276E+00   3.2037E+00   2.0779E-04  0.0112
   3.2037E+00   3.2817E+00   1.9823E-04  0.0113
   3.2817E+00   3.3615E+00   1.9520E-04  0.0113
   3.3615E+00   3.4433E+00   1.8905E-04  0.0113
   3.4433E+00   3.5271E+00   1.7871E-04  0.0115
   3.5271E+00   3.6129E+00   1.7513E-04  0.0115
   3.6129E+00   3.7008E+00   1.7035E-04  0.0115
   3.7008E+00   3.7908E+00   1.6118E-04  0.0117
   3.7908E+00   3.8831E+00   1.5164E-04  0.0119
   3.8831E+00   3.9776E+00   1.5081E-04  0.0118
   3.9776E+00   4.0743E+00   1.4680E-04  0.0118
   4.0743E+00   4.1735E+00   1.4319E-04  0.0118
   4.1735E+00   4.2750E+00   1.3118E-04  0.0122
   4.2750E+00   4.3790E+00   1.3117E-04  0.0121
   4.3790E+00   4.4856E+00   1.2653E-04  0.0121
   4.4856E+00   4.5947E+00   1.2229E-04  0.0122
   4.5947E+00   4.7065E+00   1.1859E-04  0.0122
   4.7065E+00   4.8210E+00   1.1169E-04  0.0125
   4.8210E+00   4.9383E+00   1.0792E-04  0.0125
   4.9383E+00   5.0585E+00   1.0217E-04  0.0127
   5.0585E+00   5.1815E+00   9.8536E-05  0.0128
   5.1815E+00   5.3076E+00   9.6134E-05  0.0128
   5.3076E+00   5.4368E+00   9.0393E-05  0.0130
   5.4368E+00   5.5690E+00   8.5013E-05  0.0133
   5.5690E+00   5.7045E+00   8.2257E-05  0.0134
   5.7045E+00   5.8433E+00   7.8695E-05  0.0135
   5.8433E+00   5.9855E+00   7.5528E-05  0.0136
   5.9855E+00   6.1311E+00   7.0254E-05  0.0139
   6.1311E+00   6.2803E+00   6.7014E-05  0.0141
   6.2803E+00   6.4331E+00   6.3457E-05  0.0143
   6.4331E+00   6.5896E+00   6.1809E-05  0.0143
   6.5896E+00   6.7500E+00   5.7009E-05  0.0148
   6.7500E+00   6.9142E+00   5.3003E-05  0.0151
   6.9142E+00   7.0824E+00   5.0773E-05  0.0153
   7.0824E+00   7.2548E+00   4.7734E-05  0.0155
   7.2548E+00   7.4313E+00   4.5832E-05  0.0157
   7.4313E+00   7.6121E+00   4.2950E-05  0.0160
   7.6121E+00   7.7973E+00   4.0909E-05  0.0162
   7.7973E+00   7.9870E+00   3.9143E-05  0.0164
   7.9870E+00   8.1813E+00   3.5219E-05  0.0171
   8.1813E+00   8.3804E+00   3.4576E-05  0.0170
   8.3804E+00   8.5843E+00   3.2112E-05  0.0174
   8.5843E+00   8.7931E+00   3.1167E-05  0.0175
   8.7931E+00   9.0071E+00   2.9744E-05  0.0177
   9.0071E+00   9.2262E+00   2.8111E-05  0.0180
   9.2262E+00   9.4507E+00   2.6259E-05  0.0184
   9.4507E+00   9.6807E+00   2.6024E-05  0.0182
   9.6807E+00   9.9162E+00   2.3108E-05  0.0191
   9.9162E+00   1.0157E+01   2.2409E-05  0.0192
   1.0157E+01   1.0405E+01   2.2565E-05  0.0189
   1.0405E+01   1.0658E+01   2.2957E-05  0.0185
   1.0658E+01   1.0917E+01   2.2691E-05  0.0184
   1.0917E+01   1.1183E+01   2.2467E-05  0.0183
   1.1183E+01   1.1455E+01   2.0217E-05  0.0190
   1.1455E+01   1.1733E+01   1.8968E-05  0.0194
   1.1733E+01   1.2019E+01   1.8609E-05  0.0194
   1.2019E+01   1.2311E+01   1.7072E-05  0.0200
   1.2311E+01   1.2611E+01   1.6132E-05  0.0203
   1.2611E+01   1.2918E+01   1.5198E-05  0.0207
   1.2918E+01   1.3232E+01   1.4674E-05  0.0208
   1.3232E+01   1.3554E+01   1.3616E-05  0.0213
   1.3554E+01   1.3884E+01   1.2834E-05  0.0217
   1.3884E+01   1.4222E+01   1.2619E-05  0.0217
   1.4222E+01   1.4568E+01   1.1738E-05  0.0222
   1.4568E+01   1.4922E+01   1.0724E-05  0.0229
   1.4922E+01   1.5285E+01   9.7369E-06  0.0238
   1.5285E+01   1.5657E+01   8.7449E-06  0.0248
   1.5657E+01   1.6038E+01   8.3843E-06  0.0250
   1.6038E+01   1.6428E+01   8.0920E-06  0.0252
   1.6428E+01   1.6828E+01   7.2336E-06  0.0263
   1.6828E+01   1.7237E+01   7.1285E-06  0.0262
   1.7237E+01   1.7657E+01   6.5525E-06  0.0270
   1.7657E+01   1.8086E+01   6.2072E-06  0.0274
   1.8086E+01   1.8526E+01   5.9723E-06  0.0276
   1.8526E+01   1.8977E+01   5.1868E-06  0.0292
   1.8977E+01   1.9439E+01   5.1329E-06  0.0290
   1.9439E+01   1.9912E+01   4.7023E-06  0.0300
   1.9912E+01   2.0396E+01   4.2108E-06  0.0313
   2.0396E+01   2.0893E+01   3.9052E-06  0.0321
   2.0893E+01   2.1401E+01   3.4780E-06  0.0336
   2.1401E+01   2.1922E+01   3.2111E-06  0.0346
   2.1922E+01   2.2455E+01   2.9473E-06  0.0357
   2.2455E+01   2.3001E+01   2.6979E-06  0.0368
   2.3001E+01   2.3561E+01   2.3515E-06  0.0390
   2.3561E+01   2.4134E+01   1.9503E-06  0.0423
   2.4134E+01   2.4721E+01   1.7439E-06  0.0442
   2.4721E+01   2.5323E+01   1.6991E-06  0.0442
   2.5323E+01   2.5939E+01   1.3309E-06  0.0494
   2.5939E+01   2.6570E+01   1.2105E-06  0.0512
   2.6570E+01   2.7217E+01   9.6214E-07  0.0567
   2.7217E+01   2.7879E+01   8.2150E-07  0.0606
   2.7879E+01   2.8557E+01   5.6316E-07  0.0724
   2.8557E+01   2.9252E+01   4.3177E-07  0.0816
   2.9252E+01   2.9964E+01   3.9060E-07  0.0848
   2.9964E+01   3.0693E+01   2.2221E-07  0.1111
   3.0693E+01   3.1440E+01   1.9015E-07  0.1187
   3.1440E+01   3.2205E+01   1.3596E-07  0.1387
   3.2205E+01   3.2988E+01   9.4441E-08  0.1644
   3.2988E+01   3.3791E+01   4.4853E-08  0.2357
   3.3791E+01   3.4613E+01   3.8922E-08  0.2500
   3.4613E+01   3.5455E+01   1.4249E-08  0.4082
   3.5455E+01   3.6318E+01   1.6229E-08  0.3780
   3.6318E+01   3.7201E+01   2.2634E-08  0.3162
   3.7201E+01   3.8106E+01   8.8384E-09  0.5000
   3.8106E+01   3.9034E+01   6.4714E-09  0.5774
   3.9034E+01   3.9983E+01   6.3177E-09  0.5774
   3.9983E+01   4.0956E+01   4.1117E-09  0.7071
   4.0956E+01   4.1953E+01   4.0141E-09  0.7071
   4.1953E+01   4.2973E+01   0.0000E+00  0.0000
   4.2973E+01   4.4019E+01   0.0000E+00  0.0000
   4.4019E+01   4.5090E+01   0.0000E+00  0.0000
   4.5090E+01   4.6187E+01   0.0000E+00  0.0000
   4.6187E+01   4.7311E+01   0.0000E+00  0.0000
   4.7311E+01   4.8462E+01   0.0000E+00  0.0000
   4.8462E+01   4.9641E+01   0.0000E+00  0.0000
   4.9641E+01   5.0849E+01   0.0000E+00  0.0000
   5.0849E+01   5.2086E+01   0.0000E+00  0.0000
   5.2086E+01   5.3353E+01   0.0000E+00  0.0000
   5.3353E+01   5.4651E+01   0.0000E+00  0.0000
   5.4651E+01   5.5981E+01   0.0000E+00  0.0000
   5.5981E+01   5.7343E+01   0.0000E+00  0.0000
   5.7343E+01   5.8738E+01   0.0000E+00  0.0000
   5.8738E+01   6.0168E+01   0.0000E+00  0.0000
   6.0168E+01   6.1632E+01   0.0000E+00  0.0000
   6.1632E+01   6.3131E+01   0.0000E+00  0.0000
   6.3131E+01   6.4667E+01   0.0000E+00  0.0000
   6.4667E+01   6.6240E+01   0.0000E+00  0.0000
   6.6240E+01   6.7852E+01   0.0000E+00  0.0000
   6.7852E+01   6.9503E+01   0.0000E+00  0.0000
   6.9503E+01   7.1194E+01   0.0000E+00  0.0000
   7.1194E+01   7.2926E+01   0.0000E+00  0.0000
   7.2926E+01   7.4701E+01   0.0000E+00  0.0000
   7.4701E+01   7.6518E+01   0.0000E+00  0.0000
   7.6518E+01   7.8380E+01   0.0000E+00  0.0000
   7.8380E+01   8.0287E+01   0.0000E+00  0.0000
   8.0287E+01   8.2240E+01   0.0000E+00  0.0000
   8.2240E+01   8.4241E+01   0.0000E+00  0.0000
   8.4241E+01   8.6291E+01   0.0000E+00  0.0000
   8.6291E+01   8.8391E+01   0.0000E+00  0.0000
   8.8391E+01   9.0541E+01   0.0000E+00  0.0000
   9.0541E+01   9.2744E+01   0.0000E+00  0.0000
   9.2744E+01   9.5001E+01   0.0000E+00  0.0000
   9.5001E+01   9.7312E+01   0.0000E+00  0.0000
   9.7312E+01   9.9680E+01   0.0000E+00  0.0000
   9.9680E+01   1.0211E+02   0.0000E+00  0.0000
   1.0211E+02   1.0459E+02   0.0000E+00  0.0000
   1.0459E+02   1.0713E+02   0.0000E+00  0.0000
   1.0713E+02   1.0974E+02   0.0000E+00  0.0000
   1.0974E+02   1.1241E+02   0.0000E+00  0.0000
   1.1241E+02   1.1515E+02   0.0000E+00  0.0000
   1.1515E+02   1.1795E+02   0.0000E+00  0.0000
   1.1795E+02   1.2082E+02   0.0000E+00  0.0000
   1.2082E+02   1.2376E+02   0.0000E+00  0.0000
   1.2376E+02   1.2677E+02   0.0000E+00  0.0000
   1.2677E+02   1.2985E+02   0.0000E+00  0.0000
   1.2985E+02   1.3301E+02   0.0000E+00  0.0000
   1.3301E+02   1.3625E+02   0.0000E+00  0.0000
   1.3625E+02   1.3956E+02   0.0000E+00  0.0000
   1.3956E+02   1.4296E+02   0.0000E+00  0.0000
   1.4296E+02   1.4644E+02   0.0000E+00  0.0000
   1.4644E+02   1.5000E+02   0.0000E+00  0.0000

#   sum over                 1.4043E-05
'no. =    1   reg = 118 - 218'
msuc: {\huge [t-cross] in region mesh}
msdr: {\it plotted by \ANGEL \version}
msdl: {\it calculated by \PHITS  3.26}
wt: s(0.7)
\vspace{-3}
  region surface crossing
  area  &=&   1.0000E+00 [cm^2]
e:
 
# Information for Restart Calculation
# This calculation was newly started
# istdev =  2 # 1:Batch variance, 2:History variance
# resc2  = 5.00000000000000000E+08 # Total source weight or Total source weight / maxcas
# resc3  = 5.00000000000000000E+08 # Total history number or Total batch number
# maxcas =   500000000 # History / Batch, only used for istdev=1
# bitrseed = 1101101111010011011000101101110001100110110010110001010100010001 # bit data of rseed
