[ T-Cross ]
    title = [t-cross] in region mesh
     mesh =  reg            # mesh type is region-wise
      reg =    1            # number of crossing regions
      non     r-from    r-to       area
      1       107       207        1.000000    
   e-type =    3            # e-mesh is log given by emin, emax and ne
     emin =  1.0000000E-02  # minimum value of e-mesh points
     emax =   150.0000      # maximum value of e-mesh points
#    edel =  2.4039514E-02  # mesh width of e-mesh points
       ne =    400          # number of e-mesh points
#    data = ( e(i), i = 1, ne + 1 )
#           1.00000E-02  1.02433E-02  1.04925E-02  1.07478E-02  1.10093E-02
#           1.12772E-02  1.15516E-02  1.18326E-02  1.21205E-02  1.24154E-02
#           1.27175E-02  1.30269E-02  1.33439E-02  1.36686E-02  1.40011E-02
#           1.43418E-02  1.46907E-02  1.50482E-02  1.54143E-02  1.57894E-02
#           1.61735E-02  1.65670E-02  1.69701E-02  1.73830E-02  1.78060E-02
#           1.82392E-02  1.86830E-02  1.91375E-02  1.96032E-02  2.00801E-02
#           2.05687E-02  2.10692E-02  2.15818E-02  2.21069E-02  2.26448E-02
#           2.31957E-02  2.37601E-02  2.43382E-02  2.49304E-02  2.55369E-02
#           2.61583E-02  2.67947E-02  2.74467E-02  2.81145E-02  2.87985E-02
#           2.94992E-02  3.02169E-02  3.09521E-02  3.17052E-02  3.24766E-02
#           3.32668E-02  3.40762E-02  3.49053E-02  3.57546E-02  3.66246E-02
#           3.75157E-02  3.84284E-02  3.93634E-02  4.03212E-02  4.13022E-02
#           4.23071E-02  4.33365E-02  4.43909E-02  4.54710E-02  4.65773E-02
#           4.77106E-02  4.88714E-02  5.00605E-02  5.12785E-02  5.25262E-02
#           5.38042E-02  5.51133E-02  5.64542E-02  5.78278E-02  5.92348E-02
#           6.06760E-02  6.21523E-02  6.36645E-02  6.52135E-02  6.68002E-02
#           6.84255E-02  7.00904E-02  7.17957E-02  7.35426E-02  7.53319E-02
#           7.71648E-02  7.90423E-02  8.09655E-02  8.29354E-02  8.49533E-02
#           8.70203E-02  8.91376E-02  9.13064E-02  9.35279E-02  9.58035E-02
#           9.81345E-02  1.00522E-01  1.02968E-01  1.05473E-01  1.08040E-01
#           1.10668E-01  1.13361E-01  1.16119E-01  1.18944E-01  1.21838E-01
#           1.24803E-01  1.27839E-01  1.30950E-01  1.34136E-01  1.37399E-01
#           1.40742E-01  1.44167E-01  1.47675E-01  1.51268E-01  1.54948E-01
#           1.58718E-01  1.62580E-01  1.66535E-01  1.70587E-01  1.74738E-01
#           1.78989E-01  1.83344E-01  1.87805E-01  1.92375E-01  1.97055E-01
#           2.01850E-01  2.06761E-01  2.11792E-01  2.16945E-01  2.22223E-01
#           2.27630E-01  2.33169E-01  2.38842E-01  2.44653E-01  2.50605E-01
#           2.56703E-01  2.62949E-01  2.69346E-01  2.75900E-01  2.82613E-01
#           2.89489E-01  2.96532E-01  3.03747E-01  3.11138E-01  3.18708E-01
#           3.26462E-01  3.34405E-01  3.42542E-01  3.50876E-01  3.59413E-01
#           3.68158E-01  3.77116E-01  3.86291E-01  3.95690E-01  4.05317E-01
#           4.15179E-01  4.25281E-01  4.35628E-01  4.46227E-01  4.57084E-01
#           4.68205E-01  4.79597E-01  4.91266E-01  5.03219E-01  5.15463E-01
#           5.28005E-01  5.40851E-01  5.54011E-01  5.67490E-01  5.81298E-01
#           5.95441E-01  6.09929E-01  6.24769E-01  6.39970E-01  6.55541E-01
#           6.71491E-01  6.87828E-01  7.04564E-01  7.21706E-01  7.39266E-01
#           7.57253E-01  7.75678E-01  7.94551E-01  8.13883E-01  8.33685E-01
#           8.53969E-01  8.74747E-01  8.96030E-01  9.17831E-01  9.40163E-01
#           9.63038E-01  9.86469E-01  1.01047E+00  1.03506E+00  1.06024E+00
#           1.08604E+00  1.11246E+00  1.13953E+00  1.16725E+00  1.19565E+00
#           1.22474E+00  1.25454E+00  1.28507E+00  1.31633E+00  1.34836E+00
#           1.38117E+00  1.41477E+00  1.44920E+00  1.48446E+00  1.52057E+00
#           1.55757E+00  1.59547E+00  1.63429E+00  1.67405E+00  1.71478E+00
#           1.75650E+00  1.79924E+00  1.84302E+00  1.88786E+00  1.93379E+00
#           1.98084E+00  2.02904E+00  2.07841E+00  2.12898E+00  2.18078E+00
#           2.23384E+00  2.28819E+00  2.34386E+00  2.40089E+00  2.45930E+00
#           2.51914E+00  2.58043E+00  2.64322E+00  2.70753E+00  2.77341E+00
#           2.84088E+00  2.91001E+00  2.98081E+00  3.05333E+00  3.12762E+00
#           3.20372E+00  3.28167E+00  3.36152E+00  3.44330E+00  3.52708E+00
#           3.61290E+00  3.70080E+00  3.79085E+00  3.88308E+00  3.97756E+00
#           4.07434E+00  4.17347E+00  4.27501E+00  4.37903E+00  4.48557E+00
#           4.59471E+00  4.70650E+00  4.82102E+00  4.93832E+00  5.05847E+00
#           5.18155E+00  5.30762E+00  5.43676E+00  5.56904E+00  5.70453E+00
#           5.84333E+00  5.98550E+00  6.13114E+00  6.28031E+00  6.43312E+00
#           6.58964E+00  6.74997E+00  6.91420E+00  7.08243E+00  7.25475E+00
#           7.43126E+00  7.61207E+00  7.79728E+00  7.98700E+00  8.18133E+00
#           8.38038E+00  8.58428E+00  8.79315E+00  9.00709E+00  9.22624E+00
#           9.45072E+00  9.68067E+00  9.91620E+00  1.01575E+01  1.04046E+01
#           1.06578E+01  1.09171E+01  1.11827E+01  1.14548E+01  1.17335E+01
#           1.20190E+01  1.23114E+01  1.26109E+01  1.29178E+01  1.32321E+01
#           1.35540E+01  1.38838E+01  1.42216E+01  1.45676E+01  1.49221E+01
#           1.52851E+01  1.56570E+01  1.60380E+01  1.64282E+01  1.68279E+01
#           1.72374E+01  1.76568E+01  1.80864E+01  1.85264E+01  1.89772E+01
#           1.94389E+01  1.99119E+01  2.03963E+01  2.08926E+01  2.14009E+01
#           2.19216E+01  2.24550E+01  2.30014E+01  2.35610E+01  2.41343E+01
#           2.47215E+01  2.53230E+01  2.59391E+01  2.65702E+01  2.72167E+01
#           2.78789E+01  2.85572E+01  2.92520E+01  2.99637E+01  3.06928E+01
#           3.14396E+01  3.22045E+01  3.29881E+01  3.37907E+01  3.46128E+01
#           3.54550E+01  3.63177E+01  3.72013E+01  3.81064E+01  3.90336E+01
#           3.99833E+01  4.09561E+01  4.19526E+01  4.29734E+01  4.40189E+01
#           4.50900E+01  4.61870E+01  4.73108E+01  4.84619E+01  4.96410E+01
#           5.08488E+01  5.20860E+01  5.33533E+01  5.46514E+01  5.59812E+01
#           5.73432E+01  5.87384E+01  6.01676E+01  6.16315E+01  6.31311E+01
#           6.46671E+01  6.62405E+01  6.78522E+01  6.95031E+01  7.11941E+01
#           7.29263E+01  7.47007E+01  7.65182E+01  7.83800E+01  8.02870E+01
#           8.22405E+01  8.42414E+01  8.62911E+01  8.83906E+01  9.05412E+01
#           9.27442E+01  9.50007E+01  9.73122E+01  9.96799E+01  1.02105E+02
#           1.04589E+02  1.07134E+02  1.09741E+02  1.12411E+02  1.15146E+02
#           1.17948E+02  1.20817E+02  1.23757E+02  1.26768E+02  1.29852E+02
#           1.33012E+02  1.36248E+02  1.39563E+02  1.42959E+02  1.46437E+02
#           1.50000E+02
     unit =    2            # unit is [1/cm^2/(MeV/n)/source]
     axis =  eng            # axis of output
     file = detector-08.out  # file name of output for the above axis
   output = f-curr          # surface crossing forward current spectrum
     part =  neutron  
# kf/name :  2112     
#    used :        main (  %)        temp (  %)       total (  %)
#  memory :         414 (  0)           0 (  0)         414 (  0)

#------------------------------------------------------------------------------
#newpage:
#   no. =    1   reg = 107 - 207

x: Energy [MeV/n]
y:  F-Curr [1/cm^2/(MeV/n)/source]         
p: xlog ylog afac(0.8) form(0.9)
h: n            x            y(neutron ),hh0l   n 
#  e-lower      e-upper      neutron     r.err 
   1.0000E-02   1.0243E-02   3.2880E-04  0.1118
   1.0243E-02   1.0493E-02   3.2099E-04  0.1118
   1.0493E-02   1.0748E-02   2.9378E-04  0.1155
   1.0748E-02   1.1009E-02   3.5236E-04  0.1041
   1.1009E-02   1.1277E-02   3.1359E-04  0.1091
   1.1277E-02   1.1552E-02   3.0250E-04  0.1098
   1.1552E-02   1.1833E-02   3.0243E-04  0.1085
   1.1833E-02   1.2121E-02   3.8208E-04  0.0953
   1.2121E-02   1.2415E-02   3.3570E-04  0.1005
   1.2415E-02   1.2718E-02   4.2373E-04  0.0884
   1.2718E-02   1.3027E-02   3.0702E-04  0.1026
   1.3027E-02   1.3344E-02   3.3128E-04  0.0976
   1.3344E-02   1.3669E-02   3.0493E-04  0.1005
   1.3669E-02   1.4001E-02   3.3226E-04  0.0950
   1.4001E-02   1.4342E-02   3.1410E-04  0.0967
   1.4342E-02   1.4691E-02   3.5249E-04  0.0902
   1.4691E-02   1.5048E-02   3.2733E-04  0.0925
   1.5048E-02   1.5414E-02   3.4414E-04  0.0891
   1.5414E-02   1.5789E-02   3.4129E-04  0.0884
   1.5789E-02   1.6174E-02   3.1757E-04  0.0905
   1.6174E-02   1.6567E-02   3.7610E-04  0.0822
   1.6567E-02   1.6970E-02   3.5972E-04  0.0830
   1.6970E-02   1.7383E-02   3.9268E-04  0.0785
   1.7383E-02   1.7806E-02   3.5939E-04  0.0811
   1.7806E-02   1.8239E-02   3.7432E-04  0.0785
   1.8239E-02   1.8683E-02   3.1133E-04  0.0850
   1.8683E-02   1.9138E-02   3.7178E-04  0.0769
   1.9138E-02   1.9603E-02   3.3396E-04  0.0801
   1.9603E-02   2.0080E-02   3.5433E-04  0.0769
   2.0080E-02   2.0569E-02   3.6667E-04  0.0747
   2.0569E-02   2.1069E-02   3.3670E-04  0.0770
   2.1069E-02   2.1582E-02   3.1992E-04  0.0781
   2.1582E-02   2.2107E-02   3.2946E-04  0.0760
   2.2107E-02   2.2645E-02   3.5696E-04  0.0722
   2.2645E-02   2.3196E-02   3.4031E-04  0.0730
   2.3196E-02   2.3760E-02   3.3932E-04  0.0722
   2.3760E-02   2.4338E-02   3.6499E-04  0.0688
   2.4338E-02   2.4930E-02   3.6425E-04  0.0680
   2.4930E-02   2.5537E-02   3.9566E-04  0.0645
   2.5537E-02   2.6158E-02   3.1412E-04  0.0716
   2.6158E-02   2.6795E-02   3.4429E-04  0.0675
   2.6795E-02   2.7447E-02   3.7197E-04  0.0642
   2.7447E-02   2.8114E-02   2.9226E-04  0.0716
   2.8114E-02   2.8799E-02   3.5158E-04  0.0644
   2.8799E-02   2.9499E-02   3.3681E-04  0.0651
   2.9499E-02   3.0217E-02   3.5389E-04  0.0627
   3.0217E-02   3.0952E-02   3.6725E-04  0.0609
   3.0952E-02   3.1705E-02   3.7047E-04  0.0599
   3.1705E-02   3.2477E-02   3.7464E-04  0.0588
   3.2477E-02   3.3267E-02   3.5959E-04  0.0593
   3.3267E-02   3.4076E-02   4.0713E-04  0.0550
   3.4076E-02   3.4905E-02   3.6003E-04  0.0579
   3.4905E-02   3.5755E-02   3.5089E-04  0.0579
   3.5755E-02   3.6625E-02   3.8317E-04  0.0547
   3.6625E-02   3.7516E-02   3.7033E-04  0.0550
   3.7516E-02   3.8428E-02   3.3633E-04  0.0571
   3.8428E-02   3.9363E-02   3.8536E-04  0.0527
   3.9363E-02   4.0321E-02   3.4874E-04  0.0547
   4.0321E-02   4.1302E-02   4.1181E-04  0.0498
   4.1302E-02   4.2307E-02   3.5028E-04  0.0533
   4.2307E-02   4.3337E-02   3.7596E-04  0.0508
   4.3337E-02   4.4391E-02   3.7666E-04  0.0502
   4.4391E-02   4.5471E-02   3.9937E-04  0.0481
   4.5471E-02   4.6577E-02   3.5222E-04  0.0506
   4.6577E-02   4.7711E-02   4.1018E-04  0.0464
   4.7711E-02   4.8871E-02   3.6795E-04  0.0484
   4.8871E-02   5.0061E-02   3.6680E-04  0.0479
   5.0061E-02   5.1279E-02   3.8109E-04  0.0464
   5.1279E-02   5.2526E-02   3.7911E-04  0.0460
   5.2526E-02   5.3804E-02   3.9828E-04  0.0443
   5.3804E-02   5.5113E-02   3.6132E-04  0.0460
   5.5113E-02   5.6454E-02   3.7671E-04  0.0445
   5.6454E-02   5.7828E-02   3.6870E-04  0.0444
   5.7828E-02   5.9235E-02   3.7823E-04  0.0433
   5.9235E-02   6.0676E-02   3.5466E-04  0.0442
   6.0676E-02   6.2152E-02   3.5731E-04  0.0435
   6.2152E-02   6.3665E-02   3.8927E-04  0.0412
   6.3665E-02   6.5214E-02   3.8541E-04  0.0409
   6.5214E-02   6.6800E-02   3.6633E-04  0.0415
   6.6800E-02   6.8426E-02   3.6310E-04  0.0411
   6.8426E-02   7.0090E-02   3.6379E-04  0.0406
   7.0090E-02   7.1796E-02   3.6676E-04  0.0400
   7.1796E-02   7.3543E-02   3.9202E-04  0.0382
   7.3543E-02   7.5332E-02   3.5104E-04  0.0399
   7.5332E-02   7.7165E-02   3.6747E-04  0.0385
   7.7165E-02   7.9042E-02   3.6234E-04  0.0383
   7.9042E-02   8.0965E-02   3.6935E-04  0.0375
   8.0965E-02   8.2935E-02   3.4668E-04  0.0382
   8.2935E-02   8.4953E-02   3.6812E-04  0.0367
   8.4953E-02   8.7020E-02   3.5366E-04  0.0370
   8.7020E-02   8.9138E-02   3.4731E-04  0.0369
   8.9138E-02   9.1306E-02   3.5741E-04  0.0359
   9.1306E-02   9.3528E-02   3.6031E-04  0.0353
   9.3528E-02   9.5804E-02   3.4983E-04  0.0354
   9.5804E-02   9.8134E-02   3.4091E-04  0.0355
   9.8134E-02   1.0052E-01   3.3365E-04  0.0354
   1.0052E-01   1.0297E-01   3.5024E-04  0.0341
   1.0297E-01   1.0547E-01   3.3741E-04  0.0344
   1.0547E-01   1.0804E-01   3.3505E-04  0.0341
   1.0804E-01   1.1067E-01   3.4464E-04  0.0332
   1.1067E-01   1.1336E-01   3.1944E-04  0.0341
   1.1336E-01   1.1612E-01   3.5990E-04  0.0317
   1.1612E-01   1.1894E-01   3.3977E-04  0.0323
   1.1894E-01   1.2184E-01   3.4246E-04  0.0318
   1.2184E-01   1.2480E-01   3.2766E-04  0.0321
   1.2480E-01   1.2784E-01   3.3678E-04  0.0313
   1.2784E-01   1.3095E-01   3.3576E-04  0.0309
   1.3095E-01   1.3414E-01   3.2096E-04  0.0313
   1.3414E-01   1.3740E-01   3.1730E-04  0.0311
   1.3740E-01   1.4074E-01   3.2169E-04  0.0305
   1.4074E-01   1.4417E-01   3.3455E-04  0.0295
   1.4417E-01   1.4767E-01   3.2090E-04  0.0298
   1.4767E-01   1.5127E-01   3.0457E-04  0.0302
   1.5127E-01   1.5495E-01   2.9651E-04  0.0303
   1.5495E-01   1.5872E-01   3.2095E-04  0.0287
   1.5872E-01   1.6258E-01   2.8247E-04  0.0303
   1.6258E-01   1.6654E-01   2.8238E-04  0.0299
   1.6654E-01   1.7059E-01   2.8333E-04  0.0295
   1.7059E-01   1.7474E-01   2.7608E-04  0.0295
   1.7474E-01   1.7899E-01   2.8225E-04  0.0289
   1.7899E-01   1.8334E-01   2.6264E-04  0.0296
   1.8334E-01   1.8781E-01   2.6075E-04  0.0293
   1.8781E-01   1.9237E-01   2.6340E-04  0.0288
   1.9237E-01   1.9706E-01   2.4654E-04  0.0294
   1.9706E-01   2.0185E-01   2.5551E-04  0.0286
   2.0185E-01   2.0676E-01   2.5168E-04  0.0284
   2.0676E-01   2.1179E-01   2.6040E-04  0.0276
   2.1179E-01   2.1694E-01   2.4518E-04  0.0281
   2.1694E-01   2.2222E-01   2.6236E-04  0.0269
   2.2222E-01   2.2763E-01   2.6659E-04  0.0263
   2.2763E-01   2.3317E-01   2.6891E-04  0.0259
   2.3317E-01   2.3884E-01   2.7130E-04  0.0255
   2.3884E-01   2.4465E-01   2.5892E-04  0.0258
   2.4465E-01   2.5061E-01   2.7998E-04  0.0245
   2.5061E-01   2.5670E-01   2.5812E-04  0.0252
   2.5670E-01   2.6295E-01   2.8570E-04  0.0237
   2.6295E-01   2.6935E-01   2.8299E-04  0.0235
   2.6935E-01   2.7590E-01   2.8000E-04  0.0233
   2.7590E-01   2.8261E-01   2.8736E-04  0.0228
   2.8261E-01   2.8949E-01   2.8387E-04  0.0226
   2.8949E-01   2.9653E-01   2.9369E-04  0.0220
   2.9653E-01   3.0375E-01   2.8434E-04  0.0221
   3.0375E-01   3.1114E-01   2.8171E-04  0.0219
   3.1114E-01   3.1871E-01   2.8808E-04  0.0214
   3.1871E-01   3.2646E-01   2.9436E-04  0.0209
   3.2646E-01   3.3441E-01   3.0292E-04  0.0204
   3.3441E-01   3.4254E-01   3.0226E-04  0.0202
   3.4254E-01   3.5088E-01   3.0946E-04  0.0197
   3.5088E-01   3.5941E-01   3.0622E-04  0.0196
   3.5941E-01   3.6816E-01   3.0517E-04  0.0194
   3.6816E-01   3.7712E-01   3.2011E-04  0.0187
   3.7712E-01   3.8629E-01   3.0235E-04  0.0190
   3.8629E-01   3.9569E-01   3.0547E-04  0.0186
   3.9569E-01   4.0532E-01   3.1033E-04  0.0183
   4.0532E-01   4.1518E-01   3.0288E-04  0.0183
   4.1518E-01   4.2528E-01   3.0680E-04  0.0180
   4.2528E-01   4.3563E-01   3.1897E-04  0.0174
   4.3563E-01   4.4623E-01   3.2052E-04  0.0171
   4.4623E-01   4.5708E-01   3.1312E-04  0.0171
   4.5708E-01   4.6821E-01   3.1903E-04  0.0168
   4.6821E-01   4.7960E-01   3.1421E-04  0.0167
   4.7960E-01   4.9127E-01   3.1752E-04  0.0164
   4.9127E-01   5.0322E-01   3.1596E-04  0.0163
   5.0322E-01   5.1546E-01   3.2707E-04  0.0158
   5.1546E-01   5.2800E-01   3.2498E-04  0.0157
   5.2800E-01   5.4085E-01   3.3271E-04  0.0153
   5.4085E-01   5.5401E-01   3.2010E-04  0.0154
   5.5401E-01   5.6749E-01   3.2669E-04  0.0151
   5.6749E-01   5.8130E-01   3.3185E-04  0.0148
   5.8130E-01   5.9544E-01   3.2695E-04  0.0147
   5.9544E-01   6.0993E-01   3.3449E-04  0.0144
   6.0993E-01   6.2477E-01   3.4247E-04  0.0140
   6.2477E-01   6.3997E-01   3.3175E-04  0.0141
   6.3997E-01   6.5554E-01   3.3481E-04  0.0138
   6.5554E-01   6.7149E-01   3.3463E-04  0.0137
   6.7149E-01   6.8783E-01   3.4813E-04  0.0133
   6.8783E-01   7.0456E-01   3.4331E-04  0.0132
   7.0456E-01   7.2171E-01   3.4098E-04  0.0131
   7.2171E-01   7.3927E-01   3.3964E-04  0.0129
   7.3927E-01   7.5725E-01   3.4624E-04  0.0127
   7.5725E-01   7.7568E-01   3.4403E-04  0.0126
   7.7568E-01   7.9455E-01   3.4950E-04  0.0123
   7.9455E-01   8.1388E-01   3.4044E-04  0.0123
   8.1388E-01   8.3368E-01   3.4890E-04  0.0120
   8.3368E-01   8.5397E-01   3.4716E-04  0.0119
   8.5397E-01   8.7475E-01   3.4564E-04  0.0118
   8.7475E-01   8.9603E-01   3.5198E-04  0.0115
   8.9603E-01   9.1783E-01   3.4897E-04  0.0115
   9.1783E-01   9.4016E-01   3.5053E-04  0.0113
   9.4016E-01   9.6304E-01   3.4997E-04  0.0112
   9.6304E-01   9.8647E-01   3.4864E-04  0.0111
   9.8647E-01   1.0105E+00   3.4089E-04  0.0110
   1.0105E+00   1.0351E+00   3.4240E-04  0.0109
   1.0351E+00   1.0602E+00   3.3605E-04  0.0109
   1.0602E+00   1.0860E+00   3.3351E-04  0.0108
   1.0860E+00   1.1125E+00   3.3708E-04  0.0106
   1.1125E+00   1.1395E+00   3.2658E-04  0.0106
   1.1395E+00   1.1673E+00   3.2971E-04  0.0105
   1.1673E+00   1.1957E+00   3.3139E-04  0.0103
   1.1957E+00   1.2247E+00   3.3979E-04  0.0101
   1.2247E+00   1.2545E+00   3.3810E-04  0.0100
   1.2545E+00   1.2851E+00   3.3670E-04  0.0099
   1.2851E+00   1.3163E+00   3.3558E-04  0.0098
   1.3163E+00   1.3484E+00   3.3387E-04  0.0097
   1.3484E+00   1.3812E+00   3.3236E-04  0.0096
   1.3812E+00   1.4148E+00   3.3725E-04  0.0094
   1.4148E+00   1.4492E+00   3.3429E-04  0.0093
   1.4492E+00   1.4845E+00   3.3721E-04  0.0092
   1.4845E+00   1.5206E+00   3.3365E-04  0.0091
   1.5206E+00   1.5576E+00   3.3433E-04  0.0090
   1.5576E+00   1.5955E+00   3.3284E-04  0.0089
   1.5955E+00   1.6343E+00   3.2603E-04  0.0089
   1.6343E+00   1.6741E+00   3.2865E-04  0.0087
   1.6741E+00   1.7148E+00   3.3063E-04  0.0086
   1.7148E+00   1.7565E+00   3.3028E-04  0.0085
   1.7565E+00   1.7992E+00   3.2466E-04  0.0085
   1.7992E+00   1.8430E+00   3.3440E-04  0.0083
   1.8430E+00   1.8879E+00   3.2960E-04  0.0082
   1.8879E+00   1.9338E+00   3.2598E-04  0.0082
   1.9338E+00   1.9808E+00   3.2557E-04  0.0081
   1.9808E+00   2.0290E+00   3.2769E-04  0.0080
   2.0290E+00   2.0784E+00   3.2864E-04  0.0078
   2.0784E+00   2.1290E+00   3.2941E-04  0.0077
   2.1290E+00   2.1808E+00   3.2904E-04  0.0077
   2.1808E+00   2.2338E+00   3.2790E-04  0.0076
   2.2338E+00   2.2882E+00   3.2695E-04  0.0075
   2.2882E+00   2.3439E+00   3.2456E-04  0.0074
   2.3439E+00   2.4009E+00   3.2460E-04  0.0073
   2.4009E+00   2.4593E+00   3.2328E-04  0.0073
   2.4593E+00   2.5191E+00   3.2352E-04  0.0072
   2.5191E+00   2.5804E+00   3.2148E-04  0.0071
   2.5804E+00   2.6432E+00   3.2018E-04  0.0070
   2.6432E+00   2.7075E+00   3.2284E-04  0.0069
   2.7075E+00   2.7734E+00   3.1382E-04  0.0070
   2.7734E+00   2.8409E+00   3.1531E-04  0.0069
   2.8409E+00   2.9100E+00   3.1090E-04  0.0068
   2.9100E+00   2.9808E+00   3.1650E-04  0.0067
   2.9808E+00   3.0533E+00   3.1078E-04  0.0067
   3.0533E+00   3.1276E+00   3.1027E-04  0.0066
   3.1276E+00   3.2037E+00   3.0417E-04  0.0066
   3.2037E+00   3.2817E+00   3.0941E-04  0.0064
   3.2817E+00   3.3615E+00   3.0327E-04  0.0064
   3.3615E+00   3.4433E+00   3.0169E-04  0.0064
   3.4433E+00   3.5271E+00   2.9701E-04  0.0063
   3.5271E+00   3.6129E+00   2.9781E-04  0.0063
   3.6129E+00   3.7008E+00   2.9241E-04  0.0062
   3.7008E+00   3.7908E+00   2.9179E-04  0.0062
   3.7908E+00   3.8831E+00   2.8818E-04  0.0061
   3.8831E+00   3.9776E+00   2.8358E-04  0.0061
   3.9776E+00   4.0743E+00   2.8555E-04  0.0060
   4.0743E+00   4.1735E+00   2.7711E-04  0.0060
   4.1735E+00   4.2750E+00   2.7762E-04  0.0060
   4.2750E+00   4.3790E+00   2.7705E-04  0.0059
   4.3790E+00   4.4856E+00   2.7023E-04  0.0059
   4.4856E+00   4.5947E+00   2.6821E-04  0.0058
   4.5947E+00   4.7065E+00   2.6472E-04  0.0058
   4.7065E+00   4.8210E+00   2.6011E-04  0.0058
   4.8210E+00   4.9383E+00   2.5548E-04  0.0058
   4.9383E+00   5.0585E+00   2.5584E-04  0.0057
   5.0585E+00   5.1815E+00   2.5026E-04  0.0057
   5.1815E+00   5.3076E+00   2.4870E-04  0.0056
   5.3076E+00   5.4368E+00   2.4390E-04  0.0056
   5.4368E+00   5.5690E+00   2.3982E-04  0.0056
   5.5690E+00   5.7045E+00   2.3653E-04  0.0056
   5.7045E+00   5.8433E+00   2.3220E-04  0.0056
   5.8433E+00   5.9855E+00   2.2824E-04  0.0055
   5.9855E+00   6.1311E+00   2.2566E-04  0.0055
   6.1311E+00   6.2803E+00   2.2094E-04  0.0055
   6.2803E+00   6.4331E+00   2.1733E-04  0.0055
   6.4331E+00   6.5896E+00   2.1427E-04  0.0055
   6.5896E+00   6.7500E+00   2.1081E-04  0.0054
   6.7500E+00   6.9142E+00   2.0827E-04  0.0054
   6.9142E+00   7.0824E+00   2.0466E-04  0.0054
   7.0824E+00   7.2548E+00   1.9936E-04  0.0054
   7.2548E+00   7.4313E+00   1.9565E-04  0.0054
   7.4313E+00   7.6121E+00   1.9171E-04  0.0054
   7.6121E+00   7.7973E+00   1.8569E-04  0.0054
   7.7973E+00   7.9870E+00   1.8079E-04  0.0054
   7.9870E+00   8.1813E+00   1.7866E-04  0.0054
   8.1813E+00   8.3804E+00   1.7296E-04  0.0054
   8.3804E+00   8.5843E+00   1.6780E-04  0.0054
   8.5843E+00   8.7931E+00   1.6498E-04  0.0054
   8.7931E+00   9.0071E+00   1.6060E-04  0.0054
   9.0071E+00   9.2262E+00   1.5638E-04  0.0054
   9.2262E+00   9.4507E+00   1.5056E-04  0.0054
   9.4507E+00   9.6807E+00   1.4764E-04  0.0054
   9.6807E+00   9.9162E+00   1.4124E-04  0.0055
   9.9162E+00   1.0157E+01   1.3745E-04  0.0055
   1.0157E+01   1.0405E+01   1.3274E-04  0.0055
   1.0405E+01   1.0658E+01   1.2914E-04  0.0055
   1.0658E+01   1.0917E+01   1.2483E-04  0.0056
   1.0917E+01   1.1183E+01   1.2198E-04  0.0056
   1.1183E+01   1.1455E+01   1.1695E-04  0.0056
   1.1455E+01   1.1733E+01   1.1317E-04  0.0056
   1.1733E+01   1.2019E+01   1.0913E-04  0.0057
   1.2019E+01   1.2311E+01   1.0549E-04  0.0057
   1.2311E+01   1.2611E+01   1.0254E-04  0.0057
   1.2611E+01   1.2918E+01   9.8047E-05  0.0058
   1.2918E+01   1.3232E+01   9.4264E-05  0.0058
   1.3232E+01   1.3554E+01   9.1570E-05  0.0058
   1.3554E+01   1.3884E+01   8.8173E-05  0.0059
   1.3884E+01   1.4222E+01   8.4325E-05  0.0059
   1.4222E+01   1.4568E+01   8.2004E-05  0.0059
   1.4568E+01   1.4922E+01   7.8808E-05  0.0060
   1.4922E+01   1.5285E+01   7.5142E-05  0.0061
   1.5285E+01   1.5657E+01   7.1281E-05  0.0061
   1.5657E+01   1.6038E+01   6.8718E-05  0.0062
   1.6038E+01   1.6428E+01   6.5869E-05  0.0062
   1.6428E+01   1.6828E+01   6.2160E-05  0.0063
   1.6828E+01   1.7237E+01   5.9368E-05  0.0064
   1.7237E+01   1.7657E+01   5.6494E-05  0.0065
   1.7657E+01   1.8086E+01   5.3854E-05  0.0066
   1.8086E+01   1.8526E+01   5.0705E-05  0.0067
   1.8526E+01   1.8977E+01   4.8576E-05  0.0068
   1.8977E+01   1.9439E+01   4.6477E-05  0.0068
   1.9439E+01   1.9912E+01   4.4107E-05  0.0069
   1.9912E+01   2.0396E+01   4.2327E-05  0.0070
   2.0396E+01   2.0893E+01   3.9645E-05  0.0071
   2.0893E+01   2.1401E+01   3.7536E-05  0.0072
   2.1401E+01   2.1922E+01   3.5934E-05  0.0073
   2.1922E+01   2.2455E+01   3.3260E-05  0.0075
   2.2455E+01   2.3001E+01   3.1672E-05  0.0076
   2.3001E+01   2.3561E+01   2.9344E-05  0.0078
   2.3561E+01   2.4134E+01   2.7832E-05  0.0079
   2.4134E+01   2.4721E+01   2.6200E-05  0.0081
   2.4721E+01   2.5323E+01   2.5251E-05  0.0081
   2.5323E+01   2.5939E+01   2.2895E-05  0.0084
   2.5939E+01   2.6570E+01   2.1963E-05  0.0085
   2.6570E+01   2.7217E+01   2.0284E-05  0.0087
   2.7217E+01   2.7879E+01   1.9177E-05  0.0089
   2.7879E+01   2.8557E+01   1.8129E-05  0.0090
   2.8557E+01   2.9252E+01   1.6938E-05  0.0092
   2.9252E+01   2.9964E+01   1.6002E-05  0.0094
   2.9964E+01   3.0693E+01   1.4802E-05  0.0096
   3.0693E+01   3.1440E+01   1.3503E-05  0.0100
   3.1440E+01   3.2205E+01   1.2615E-05  0.0102
   3.2205E+01   3.2988E+01   1.1589E-05  0.0105
   3.2988E+01   3.3791E+01   1.0726E-05  0.0108
   3.3791E+01   3.4613E+01   9.9239E-06  0.0111
   3.4613E+01   3.5455E+01   9.1919E-06  0.0114
   3.5455E+01   3.6318E+01   8.3835E-06  0.0118
   3.6318E+01   3.7201E+01   7.9490E-06  0.0119
   3.7201E+01   3.8106E+01   6.9194E-06  0.0126
   3.8106E+01   3.9034E+01   6.0141E-06  0.0134
   3.9034E+01   3.9983E+01   5.2742E-06  0.0141
   3.9983E+01   4.0956E+01   4.5106E-06  0.0151
   4.0956E+01   4.1953E+01   3.6779E-06  0.0165
   4.1953E+01   4.2973E+01   2.8567E-06  0.0185
   4.2973E+01   4.4019E+01   1.9979E-06  0.0219
   4.4019E+01   4.5090E+01   1.1998E-06  0.0279
   4.5090E+01   4.6187E+01   8.1125E-07  0.0335
   4.6187E+01   4.7311E+01   4.4493E-07  0.0447
   4.7311E+01   4.8462E+01   1.4768E-08  0.2425
   4.8462E+01   4.9641E+01   0.0000E+00  0.0000
   4.9641E+01   5.0849E+01   0.0000E+00  0.0000
   5.0849E+01   5.2086E+01   0.0000E+00  0.0000
   5.2086E+01   5.3353E+01   0.0000E+00  0.0000
   5.3353E+01   5.4651E+01   0.0000E+00  0.0000
   5.4651E+01   5.5981E+01   0.0000E+00  0.0000
   5.5981E+01   5.7343E+01   0.0000E+00  0.0000
   5.7343E+01   5.8738E+01   0.0000E+00  0.0000
   5.8738E+01   6.0168E+01   0.0000E+00  0.0000
   6.0168E+01   6.1632E+01   0.0000E+00  0.0000
   6.1632E+01   6.3131E+01   0.0000E+00  0.0000
   6.3131E+01   6.4667E+01   0.0000E+00  0.0000
   6.4667E+01   6.6240E+01   0.0000E+00  0.0000
   6.6240E+01   6.7852E+01   0.0000E+00  0.0000
   6.7852E+01   6.9503E+01   0.0000E+00  0.0000
   6.9503E+01   7.1194E+01   0.0000E+00  0.0000
   7.1194E+01   7.2926E+01   0.0000E+00  0.0000
   7.2926E+01   7.4701E+01   0.0000E+00  0.0000
   7.4701E+01   7.6518E+01   0.0000E+00  0.0000
   7.6518E+01   7.8380E+01   0.0000E+00  0.0000
   7.8380E+01   8.0287E+01   0.0000E+00  0.0000
   8.0287E+01   8.2240E+01   0.0000E+00  0.0000
   8.2240E+01   8.4241E+01   0.0000E+00  0.0000
   8.4241E+01   8.6291E+01   0.0000E+00  0.0000
   8.6291E+01   8.8391E+01   0.0000E+00  0.0000
   8.8391E+01   9.0541E+01   0.0000E+00  0.0000
   9.0541E+01   9.2744E+01   0.0000E+00  0.0000
   9.2744E+01   9.5001E+01   0.0000E+00  0.0000
   9.5001E+01   9.7312E+01   0.0000E+00  0.0000
   9.7312E+01   9.9680E+01   0.0000E+00  0.0000
   9.9680E+01   1.0211E+02   0.0000E+00  0.0000
   1.0211E+02   1.0459E+02   0.0000E+00  0.0000
   1.0459E+02   1.0713E+02   0.0000E+00  0.0000
   1.0713E+02   1.0974E+02   0.0000E+00  0.0000
   1.0974E+02   1.1241E+02   0.0000E+00  0.0000
   1.1241E+02   1.1515E+02   0.0000E+00  0.0000
   1.1515E+02   1.1795E+02   0.0000E+00  0.0000
   1.1795E+02   1.2082E+02   0.0000E+00  0.0000
   1.2082E+02   1.2376E+02   0.0000E+00  0.0000
   1.2376E+02   1.2677E+02   0.0000E+00  0.0000
   1.2677E+02   1.2985E+02   0.0000E+00  0.0000
   1.2985E+02   1.3301E+02   0.0000E+00  0.0000
   1.3301E+02   1.3625E+02   0.0000E+00  0.0000
   1.3625E+02   1.3956E+02   0.0000E+00  0.0000
   1.3956E+02   1.4296E+02   0.0000E+00  0.0000
   1.4296E+02   1.4644E+02   0.0000E+00  0.0000
   1.4644E+02   1.5000E+02   0.0000E+00  0.0000

#   sum over                 2.4548E-05
'no. =    1   reg = 107 - 207'
msuc: {\huge [t-cross] in region mesh}
msdr: {\it plotted by \ANGEL \version}
msdl: {\it calculated by \PHITS  3.26}
wt: s(0.7)
\vspace{-3}
  region surface crossing
  area  &=&   1.0000E+00 [cm^2]
e:
 
# Information for Restart Calculation
# This calculation was newly started
# istdev =  2 # 1:Batch variance, 2:History variance
# resc2  = 1.00000000000000000E+09 # Total source weight or Total source weight / maxcas
# resc3  = 1.00000000000000000E+09 # Total history number or Total batch number
# maxcas =   500000000 # History / Batch, only used for istdev=1
# bitrseed = 0001001110011001001001110000100100110111001111011100001000101100 # bit data of rseed
