[ T-Cross ]
    title = [t-cross] in region mesh
     mesh =  reg            # mesh type is region-wise
      reg =    1            # number of crossing regions
      non     r-from    r-to       area
      1       120       220        1.000000    
   e-type =    3            # e-mesh is log given by emin, emax and ne
     emin =  1.0000000E-02  # minimum value of e-mesh points
     emax =   150.0000      # maximum value of e-mesh points
#    edel =  2.4039514E-02  # mesh width of e-mesh points
       ne =    400          # number of e-mesh points
#    data = ( e(i), i = 1, ne + 1 )
#           1.00000E-02  1.02433E-02  1.04925E-02  1.07478E-02  1.10093E-02
#           1.12772E-02  1.15516E-02  1.18326E-02  1.21205E-02  1.24154E-02
#           1.27175E-02  1.30269E-02  1.33439E-02  1.36686E-02  1.40011E-02
#           1.43418E-02  1.46907E-02  1.50482E-02  1.54143E-02  1.57894E-02
#           1.61735E-02  1.65670E-02  1.69701E-02  1.73830E-02  1.78060E-02
#           1.82392E-02  1.86830E-02  1.91375E-02  1.96032E-02  2.00801E-02
#           2.05687E-02  2.10692E-02  2.15818E-02  2.21069E-02  2.26448E-02
#           2.31957E-02  2.37601E-02  2.43382E-02  2.49304E-02  2.55369E-02
#           2.61583E-02  2.67947E-02  2.74467E-02  2.81145E-02  2.87985E-02
#           2.94992E-02  3.02169E-02  3.09521E-02  3.17052E-02  3.24766E-02
#           3.32668E-02  3.40762E-02  3.49053E-02  3.57546E-02  3.66246E-02
#           3.75157E-02  3.84284E-02  3.93634E-02  4.03212E-02  4.13022E-02
#           4.23071E-02  4.33365E-02  4.43909E-02  4.54710E-02  4.65773E-02
#           4.77106E-02  4.88714E-02  5.00605E-02  5.12785E-02  5.25262E-02
#           5.38042E-02  5.51133E-02  5.64542E-02  5.78278E-02  5.92348E-02
#           6.06760E-02  6.21523E-02  6.36645E-02  6.52135E-02  6.68002E-02
#           6.84255E-02  7.00904E-02  7.17957E-02  7.35426E-02  7.53319E-02
#           7.71648E-02  7.90423E-02  8.09655E-02  8.29354E-02  8.49533E-02
#           8.70203E-02  8.91376E-02  9.13064E-02  9.35279E-02  9.58035E-02
#           9.81345E-02  1.00522E-01  1.02968E-01  1.05473E-01  1.08040E-01
#           1.10668E-01  1.13361E-01  1.16119E-01  1.18944E-01  1.21838E-01
#           1.24803E-01  1.27839E-01  1.30950E-01  1.34136E-01  1.37399E-01
#           1.40742E-01  1.44167E-01  1.47675E-01  1.51268E-01  1.54948E-01
#           1.58718E-01  1.62580E-01  1.66535E-01  1.70587E-01  1.74738E-01
#           1.78989E-01  1.83344E-01  1.87805E-01  1.92375E-01  1.97055E-01
#           2.01850E-01  2.06761E-01  2.11792E-01  2.16945E-01  2.22223E-01
#           2.27630E-01  2.33169E-01  2.38842E-01  2.44653E-01  2.50605E-01
#           2.56703E-01  2.62949E-01  2.69346E-01  2.75900E-01  2.82613E-01
#           2.89489E-01  2.96532E-01  3.03747E-01  3.11138E-01  3.18708E-01
#           3.26462E-01  3.34405E-01  3.42542E-01  3.50876E-01  3.59413E-01
#           3.68158E-01  3.77116E-01  3.86291E-01  3.95690E-01  4.05317E-01
#           4.15179E-01  4.25281E-01  4.35628E-01  4.46227E-01  4.57084E-01
#           4.68205E-01  4.79597E-01  4.91266E-01  5.03219E-01  5.15463E-01
#           5.28005E-01  5.40851E-01  5.54011E-01  5.67490E-01  5.81298E-01
#           5.95441E-01  6.09929E-01  6.24769E-01  6.39970E-01  6.55541E-01
#           6.71491E-01  6.87828E-01  7.04564E-01  7.21706E-01  7.39266E-01
#           7.57253E-01  7.75678E-01  7.94551E-01  8.13883E-01  8.33685E-01
#           8.53969E-01  8.74747E-01  8.96030E-01  9.17831E-01  9.40163E-01
#           9.63038E-01  9.86469E-01  1.01047E+00  1.03506E+00  1.06024E+00
#           1.08604E+00  1.11246E+00  1.13953E+00  1.16725E+00  1.19565E+00
#           1.22474E+00  1.25454E+00  1.28507E+00  1.31633E+00  1.34836E+00
#           1.38117E+00  1.41477E+00  1.44920E+00  1.48446E+00  1.52057E+00
#           1.55757E+00  1.59547E+00  1.63429E+00  1.67405E+00  1.71478E+00
#           1.75650E+00  1.79924E+00  1.84302E+00  1.88786E+00  1.93379E+00
#           1.98084E+00  2.02904E+00  2.07841E+00  2.12898E+00  2.18078E+00
#           2.23384E+00  2.28819E+00  2.34386E+00  2.40089E+00  2.45930E+00
#           2.51914E+00  2.58043E+00  2.64322E+00  2.70753E+00  2.77341E+00
#           2.84088E+00  2.91001E+00  2.98081E+00  3.05333E+00  3.12762E+00
#           3.20372E+00  3.28167E+00  3.36152E+00  3.44330E+00  3.52708E+00
#           3.61290E+00  3.70080E+00  3.79085E+00  3.88308E+00  3.97756E+00
#           4.07434E+00  4.17347E+00  4.27501E+00  4.37903E+00  4.48557E+00
#           4.59471E+00  4.70650E+00  4.82102E+00  4.93832E+00  5.05847E+00
#           5.18155E+00  5.30762E+00  5.43676E+00  5.56904E+00  5.70453E+00
#           5.84333E+00  5.98550E+00  6.13114E+00  6.28031E+00  6.43312E+00
#           6.58964E+00  6.74997E+00  6.91420E+00  7.08243E+00  7.25475E+00
#           7.43126E+00  7.61207E+00  7.79728E+00  7.98700E+00  8.18133E+00
#           8.38038E+00  8.58428E+00  8.79315E+00  9.00709E+00  9.22624E+00
#           9.45072E+00  9.68067E+00  9.91620E+00  1.01575E+01  1.04046E+01
#           1.06578E+01  1.09171E+01  1.11827E+01  1.14548E+01  1.17335E+01
#           1.20190E+01  1.23114E+01  1.26109E+01  1.29178E+01  1.32321E+01
#           1.35540E+01  1.38838E+01  1.42216E+01  1.45676E+01  1.49221E+01
#           1.52851E+01  1.56570E+01  1.60380E+01  1.64282E+01  1.68279E+01
#           1.72374E+01  1.76568E+01  1.80864E+01  1.85264E+01  1.89772E+01
#           1.94389E+01  1.99119E+01  2.03963E+01  2.08926E+01  2.14009E+01
#           2.19216E+01  2.24550E+01  2.30014E+01  2.35610E+01  2.41343E+01
#           2.47215E+01  2.53230E+01  2.59391E+01  2.65702E+01  2.72167E+01
#           2.78789E+01  2.85572E+01  2.92520E+01  2.99637E+01  3.06928E+01
#           3.14396E+01  3.22045E+01  3.29881E+01  3.37907E+01  3.46128E+01
#           3.54550E+01  3.63177E+01  3.72013E+01  3.81064E+01  3.90336E+01
#           3.99833E+01  4.09561E+01  4.19526E+01  4.29734E+01  4.40189E+01
#           4.50900E+01  4.61870E+01  4.73108E+01  4.84619E+01  4.96410E+01
#           5.08488E+01  5.20860E+01  5.33533E+01  5.46514E+01  5.59812E+01
#           5.73432E+01  5.87384E+01  6.01676E+01  6.16315E+01  6.31311E+01
#           6.46671E+01  6.62405E+01  6.78522E+01  6.95031E+01  7.11941E+01
#           7.29263E+01  7.47007E+01  7.65182E+01  7.83800E+01  8.02870E+01
#           8.22405E+01  8.42414E+01  8.62911E+01  8.83906E+01  9.05412E+01
#           9.27442E+01  9.50007E+01  9.73122E+01  9.96799E+01  1.02105E+02
#           1.04589E+02  1.07134E+02  1.09741E+02  1.12411E+02  1.15146E+02
#           1.17948E+02  1.20817E+02  1.23757E+02  1.26768E+02  1.29852E+02
#           1.33012E+02  1.36248E+02  1.39563E+02  1.42959E+02  1.46437E+02
#           1.50000E+02
     unit =    2            # unit is [1/cm^2/(MeV/n)/source]
     axis =  eng            # axis of output
     file = detector-21.out  # file name of output for the above axis
   output = f-curr          # surface crossing forward current spectrum
     part =  neutron  
# kf/name :  2112     
#    used :        main (  %)        temp (  %)       total (  %)
#  memory :         414 (  0)           0 (  0)         414 (  0)

#------------------------------------------------------------------------------
#newpage:
#   no. =    1   reg = 120 - 220

x: Energy [MeV/n]
y:  F-Curr [1/cm^2/(MeV/n)/source]         
p: xlog ylog afac(0.8) form(0.9)
h: n            x            y(neutron ),hh0l   n 
#  e-lower      e-upper      neutron     r.err 
   1.0000E-02   1.0243E-02   1.6851E-04  0.1562
   1.0243E-02   1.0493E-02   2.3673E-04  0.1302
   1.0493E-02   1.0748E-02   1.4102E-04  0.1667
   1.0748E-02   1.1009E-02   1.9565E-04  0.1396
   1.1009E-02   1.1277E-02   1.4933E-04  0.1581
   1.1277E-02   1.1552E-02   1.8952E-04  0.1387
   1.1552E-02   1.1833E-02   1.6011E-04  0.1491
   1.1833E-02   1.2121E-02   1.7367E-04  0.1414
   1.2121E-02   1.2415E-02   1.4920E-04  0.1508
   1.2415E-02   1.2718E-02   1.6883E-04  0.1400
   1.2718E-02   1.3027E-02   1.8421E-04  0.1325
   1.3027E-02   1.3344E-02   1.8615E-04  0.1302
   1.3344E-02   1.3669E-02   1.5400E-04  0.1414
   1.3669E-02   1.4001E-02   1.8643E-04  0.1270
   1.4001E-02   1.4342E-02   1.9668E-04  0.1222
   1.4342E-02   1.4691E-02   1.8914E-04  0.1231
   1.4691E-02   1.5048E-02   2.0703E-04  0.1162
   1.5048E-02   1.5414E-02   1.5022E-04  0.1348
   1.5414E-02   1.5789E-02   1.6531E-04  0.1270
   1.5789E-02   1.6174E-02   1.8011E-04  0.1201
   1.6174E-02   1.6567E-02   2.2617E-04  0.1060
   1.6567E-02   1.6970E-02   2.0591E-04  0.1098
   1.6970E-02   1.7383E-02   2.0828E-04  0.1078
   1.7383E-02   1.7806E-02   1.6355E-04  0.1201
   1.7806E-02   1.8239E-02   1.8466E-04  0.1118
   1.8239E-02   1.8683E-02   1.9379E-04  0.1078
   1.8683E-02   1.9138E-02   2.1779E-04  0.1005
   1.9138E-02   1.9603E-02   1.6322E-04  0.1147
   1.9603E-02   2.0080E-02   1.9289E-04  0.1043
   2.0080E-02   2.0569E-02   2.1082E-04  0.0985
   2.0569E-02   2.1069E-02   1.7984E-04  0.1054
   2.1069E-02   2.1582E-02   2.0190E-04  0.0982
   2.1582E-02   2.2107E-02   2.0377E-04  0.0967
   2.2107E-02   2.2645E-02   2.1566E-04  0.0928
   2.2645E-02   2.3196E-02   1.9447E-04  0.0966
   2.3196E-02   2.3760E-02   2.0731E-04  0.0925
   2.3760E-02   2.4338E-02   2.1298E-04  0.0901
   2.4338E-02   2.4930E-02   1.7674E-04  0.0976
   2.4930E-02   2.5537E-02   2.0772E-04  0.0891
   2.5537E-02   2.6158E-02   1.9233E-04  0.0914
   2.6158E-02   2.6795E-02   2.0269E-04  0.0880
   2.6795E-02   2.7447E-02   2.0708E-04  0.0861
   2.7447E-02   2.8114E-02   2.2462E-04  0.0816
   2.8114E-02   2.8799E-02   1.9618E-04  0.0863
   2.8799E-02   2.9499E-02   1.9695E-04  0.0851
   2.9499E-02   3.0217E-02   1.9249E-04  0.0850
   3.0217E-02   3.0952E-02   1.8566E-04  0.0855
   3.0952E-02   3.1705E-02   2.2706E-04  0.0765
   3.1705E-02   3.2477E-02   1.8149E-04  0.0845
   3.2477E-02   3.3267E-02   2.0628E-04  0.0783
   3.3267E-02   3.4076E-02   1.7297E-04  0.0845
   3.4076E-02   3.4905E-02   2.1849E-04  0.0743
   3.4905E-02   3.5755E-02   2.2784E-04  0.0718
   3.5755E-02   3.6625E-02   2.1496E-04  0.0731
   3.6625E-02   3.7516E-02   2.2669E-04  0.0704
   3.7516E-02   3.8428E-02   2.1144E-04  0.0720
   3.8428E-02   3.9363E-02   2.2688E-04  0.0686
   3.9363E-02   4.0321E-02   2.2149E-04  0.0686
   4.0321E-02   4.1302E-02   2.0488E-04  0.0705
   4.1302E-02   4.2307E-02   2.0002E-04  0.0705
   4.2307E-02   4.3337E-02   1.7406E-04  0.0747
   4.3337E-02   4.4391E-02   2.2572E-04  0.0648
   4.4391E-02   4.5471E-02   1.9443E-04  0.0690
   4.5471E-02   4.6577E-02   2.1603E-04  0.0647
   4.6577E-02   4.7711E-02   2.1605E-04  0.0638
   4.7711E-02   4.8871E-02   2.3015E-04  0.0612
   4.8871E-02   5.0061E-02   2.0534E-04  0.0640
   5.0061E-02   5.1279E-02   2.2742E-04  0.0601
   5.1279E-02   5.2526E-02   2.0969E-04  0.0618
   5.2526E-02   5.3804E-02   2.1753E-04  0.0600
   5.3804E-02   5.5113E-02   1.9680E-04  0.0623
   5.5113E-02   5.6454E-02   2.1714E-04  0.0586
   5.6454E-02   5.7828E-02   2.1695E-04  0.0579
   5.7828E-02   5.9235E-02   2.0268E-04  0.0592
   5.9235E-02   6.0676E-02   2.1524E-04  0.0568
   6.0676E-02   6.2152E-02   2.2184E-04  0.0552
   6.2152E-02   6.3665E-02   2.0191E-04  0.0572
   6.3665E-02   6.5214E-02   1.9400E-04  0.0577
   6.5214E-02   6.6800E-02   2.0672E-04  0.0552
   6.6800E-02   6.8426E-02   2.0047E-04  0.0554
   6.8426E-02   7.0090E-02   1.9350E-04  0.0557
   7.0090E-02   7.1796E-02   2.0533E-04  0.0534
   7.1796E-02   7.3543E-02   1.8900E-04  0.0550
   7.3543E-02   7.5332E-02   2.0743E-04  0.0519
   7.5332E-02   7.7165E-02   2.2057E-04  0.0497
   7.7165E-02   7.9042E-02   2.1369E-04  0.0499
   7.9042E-02   8.0965E-02   2.0773E-04  0.0500
   8.0965E-02   8.2935E-02   2.0668E-04  0.0496
   8.2935E-02   8.4953E-02   2.1904E-04  0.0476
   8.4953E-02   8.7020E-02   2.1698E-04  0.0472
   8.7020E-02   8.9138E-02   2.1982E-04  0.0463
   8.9138E-02   9.1306E-02   1.9988E-04  0.0480
   9.1306E-02   9.3528E-02   2.0385E-04  0.0469
   9.3528E-02   9.5804E-02   1.9006E-04  0.0481
   9.5804E-02   9.8134E-02   2.0177E-04  0.0461
   9.8134E-02   1.0052E-01   1.9588E-04  0.0462
   1.0052E-01   1.0297E-01   2.0178E-04  0.0450
   1.0297E-01   1.0547E-01   2.1013E-04  0.0436
   1.0547E-01   1.0804E-01   1.9459E-04  0.0447
   1.0804E-01   1.1067E-01   1.7526E-04  0.0466
   1.1067E-01   1.1336E-01   1.8823E-04  0.0444
   1.1336E-01   1.1612E-01   1.7898E-04  0.0450
   1.1612E-01   1.1894E-01   1.8695E-04  0.0435
   1.1894E-01   1.2184E-01   1.8577E-04  0.0431
   1.2184E-01   1.2480E-01   1.8418E-04  0.0428
   1.2480E-01   1.2784E-01   1.7020E-04  0.0440
   1.2784E-01   1.3095E-01   1.7917E-04  0.0423
   1.3095E-01   1.3414E-01   1.8869E-04  0.0408
   1.3414E-01   1.3740E-01   1.6918E-04  0.0426
   1.3740E-01   1.4074E-01   1.7552E-04  0.0412
   1.4074E-01   1.4417E-01   1.7059E-04  0.0414
   1.4417E-01   1.4767E-01   1.7380E-04  0.0405
   1.4767E-01   1.5127E-01   1.6805E-04  0.0407
   1.5127E-01   1.5495E-01   1.6867E-04  0.0401
   1.5495E-01   1.5872E-01   1.6032E-04  0.0407
   1.5872E-01   1.6258E-01   1.5917E-04  0.0403
   1.6258E-01   1.6654E-01   1.5627E-04  0.0402
   1.6654E-01   1.7059E-01   1.5075E-04  0.0404
   1.7059E-01   1.7474E-01   1.4982E-04  0.0401
   1.7474E-01   1.7899E-01   1.3802E-04  0.0413
   1.7899E-01   1.8334E-01   1.5312E-04  0.0387
   1.8334E-01   1.8781E-01   1.3456E-04  0.0408
   1.8781E-01   1.9237E-01   1.2773E-04  0.0414
   1.9237E-01   1.9706E-01   1.2140E-04  0.0419
   1.9706E-01   2.0185E-01   1.2023E-04  0.0416
   2.0185E-01   2.0676E-01   1.3276E-04  0.0391
   2.0676E-01   2.1179E-01   1.2976E-04  0.0391
   2.1179E-01   2.1694E-01   1.3708E-04  0.0376
   2.1694E-01   2.2222E-01   1.2685E-04  0.0386
   2.2222E-01   2.2763E-01   1.3076E-04  0.0376
   2.2763E-01   2.3317E-01   1.2636E-04  0.0378
   2.3317E-01   2.3884E-01   1.1824E-04  0.0386
   2.3884E-01   2.4465E-01   1.3128E-04  0.0362
   2.4465E-01   2.5061E-01   1.3397E-04  0.0354
   2.5061E-01   2.5670E-01   1.3573E-04  0.0348
   2.5670E-01   2.6295E-01   1.3688E-04  0.0342
   2.6295E-01   2.6935E-01   1.2757E-04  0.0350
   2.6935E-01   2.7590E-01   1.3224E-04  0.0339
   2.7590E-01   2.8261E-01   1.3158E-04  0.0336
   2.8261E-01   2.8949E-01   1.3207E-04  0.0332
   2.8949E-01   2.9653E-01   1.3042E-04  0.0330
   2.9653E-01   3.0375E-01   1.3364E-04  0.0322
   3.0375E-01   3.1114E-01   1.3624E-04  0.0315
   3.1114E-01   3.1871E-01   1.3788E-04  0.0309
   3.1871E-01   3.2646E-01   1.3424E-04  0.0310
   3.2646E-01   3.3441E-01   1.3440E-04  0.0306
   3.3441E-01   3.4254E-01   1.2791E-04  0.0310
   3.4254E-01   3.5088E-01   1.2846E-04  0.0305
   3.5088E-01   3.5941E-01   1.3580E-04  0.0293
   3.5941E-01   3.6816E-01   1.3726E-04  0.0288
   3.6816E-01   3.7712E-01   1.4100E-04  0.0281
   3.7712E-01   3.8629E-01   1.3729E-04  0.0282
   3.8629E-01   3.9569E-01   1.3873E-04  0.0277
   3.9569E-01   4.0532E-01   1.3658E-04  0.0276
   4.0532E-01   4.1518E-01   1.3413E-04  0.0275
   4.1518E-01   4.2528E-01   1.3860E-04  0.0267
   4.2528E-01   4.3563E-01   1.2978E-04  0.0273
   4.3563E-01   4.4623E-01   1.4001E-04  0.0259
   4.4623E-01   4.5708E-01   1.3475E-04  0.0261
   4.5708E-01   4.6821E-01   1.3383E-04  0.0259
   4.6821E-01   4.7960E-01   1.2325E-04  0.0267
   4.7960E-01   4.9127E-01   1.3035E-04  0.0256
   4.9127E-01   5.0322E-01   1.3313E-04  0.0251
   5.0322E-01   5.1546E-01   1.3248E-04  0.0248
   5.1546E-01   5.2800E-01   1.3469E-04  0.0243
   5.2800E-01   5.4085E-01   1.3389E-04  0.0241
   5.4085E-01   5.5401E-01   1.3323E-04  0.0239
   5.5401E-01   5.6749E-01   1.3398E-04  0.0235
   5.6749E-01   5.8130E-01   1.2803E-04  0.0238
   5.8130E-01   5.9544E-01   1.3537E-04  0.0228
   5.9544E-01   6.0993E-01   1.3229E-04  0.0228
   6.0993E-01   6.2477E-01   1.3509E-04  0.0223
   6.2477E-01   6.3997E-01   1.3079E-04  0.0224
   6.3997E-01   6.5554E-01   1.3690E-04  0.0216
   6.5554E-01   6.7149E-01   1.3509E-04  0.0215
   6.7149E-01   6.8783E-01   1.3214E-04  0.0215
   6.8783E-01   7.0456E-01   1.3409E-04  0.0211
   7.0456E-01   7.2171E-01   1.2829E-04  0.0213
   7.2171E-01   7.3927E-01   1.3451E-04  0.0206
   7.3927E-01   7.5725E-01   1.2994E-04  0.0207
   7.5725E-01   7.7568E-01   1.3152E-04  0.0203
   7.7568E-01   7.9455E-01   1.2770E-04  0.0203
   7.9455E-01   8.1388E-01   1.2643E-04  0.0202
   8.1388E-01   8.3368E-01   1.3434E-04  0.0194
   8.3368E-01   8.5397E-01   1.2967E-04  0.0195
   8.5397E-01   8.7475E-01   1.2701E-04  0.0194
   8.7475E-01   8.9603E-01   1.2460E-04  0.0194
   8.9603E-01   9.1783E-01   1.2323E-04  0.0193
   9.1783E-01   9.4016E-01   1.2890E-04  0.0186
   9.4016E-01   9.6304E-01   1.2083E-04  0.0190
   9.6304E-01   9.8647E-01   1.2065E-04  0.0188
   9.8647E-01   1.0105E+00   1.1671E-04  0.0189
   1.0105E+00   1.0351E+00   1.1140E-04  0.0191
   1.0351E+00   1.0602E+00   1.0796E-04  0.0192
   1.0602E+00   1.0860E+00   1.0974E-04  0.0188
   1.0860E+00   1.1125E+00   1.0875E-04  0.0186
   1.1125E+00   1.1395E+00   1.0437E-04  0.0188
   1.1395E+00   1.1673E+00   1.0231E-04  0.0188
   1.1673E+00   1.1957E+00   9.9356E-05  0.0188
   1.1957E+00   1.2247E+00   9.7965E-05  0.0187
   1.2247E+00   1.2545E+00   9.9398E-05  0.0183
   1.2545E+00   1.2851E+00   9.6771E-05  0.0184
   1.2851E+00   1.3163E+00   9.3208E-05  0.0185
   1.3163E+00   1.3484E+00   8.9935E-05  0.0186
   1.3484E+00   1.3812E+00   9.0886E-05  0.0183
   1.3812E+00   1.4148E+00   8.8973E-05  0.0183
   1.4148E+00   1.4492E+00   8.6336E-05  0.0183
   1.4492E+00   1.4845E+00   8.4411E-05  0.0183
   1.4845E+00   1.5206E+00   8.1476E-05  0.0184
   1.5206E+00   1.5576E+00   8.3901E-05  0.0179
   1.5576E+00   1.5955E+00   8.0232E-05  0.0181
   1.5955E+00   1.6343E+00   7.8077E-05  0.0181
   1.6343E+00   1.6741E+00   7.8483E-05  0.0179
   1.6741E+00   1.7148E+00   7.9106E-05  0.0176
   1.7148E+00   1.7565E+00   7.6633E-05  0.0177
   1.7565E+00   1.7992E+00   7.3166E-05  0.0179
   1.7992E+00   1.8430E+00   7.3911E-05  0.0175
   1.8430E+00   1.8879E+00   7.4919E-05  0.0172
   1.8879E+00   1.9338E+00   7.1015E-05  0.0175
   1.9338E+00   1.9808E+00   7.0188E-05  0.0174
   1.9808E+00   2.0290E+00   7.2530E-05  0.0169
   2.0290E+00   2.0784E+00   6.8093E-05  0.0172
   2.0784E+00   2.1290E+00   6.7936E-05  0.0170
   2.1290E+00   2.1808E+00   6.6401E-05  0.0170
   2.1808E+00   2.2338E+00   6.4052E-05  0.0171
   2.2338E+00   2.2882E+00   6.3380E-05  0.0170
   2.2882E+00   2.3439E+00   6.2602E-05  0.0169
   2.3439E+00   2.4009E+00   6.0728E-05  0.0170
   2.4009E+00   2.4593E+00   6.0883E-05  0.0167
   2.4593E+00   2.5191E+00   6.0237E-05  0.0166
   2.5191E+00   2.5804E+00   5.8479E-05  0.0167
   2.5804E+00   2.6432E+00   5.6377E-05  0.0168
   2.6432E+00   2.7075E+00   5.5149E-05  0.0168
   2.7075E+00   2.7734E+00   5.4324E-05  0.0167
   2.7734E+00   2.8409E+00   5.4506E-05  0.0165
   2.8409E+00   2.9100E+00   5.2241E-05  0.0166
   2.9100E+00   2.9808E+00   4.8224E-05  0.0171
   2.9808E+00   3.0533E+00   4.7833E-05  0.0169
   3.0533E+00   3.1276E+00   4.6462E-05  0.0170
   3.1276E+00   3.2037E+00   4.1987E-05  0.0177
   3.2037E+00   3.2817E+00   4.1166E-05  0.0176
   3.2817E+00   3.3615E+00   4.0032E-05  0.0177
   3.3615E+00   3.4433E+00   3.8953E-05  0.0177
   3.4433E+00   3.5271E+00   3.7513E-05  0.0178
   3.5271E+00   3.6129E+00   3.6551E-05  0.0178
   3.6129E+00   3.7008E+00   3.5474E-05  0.0179
   3.7008E+00   3.7908E+00   3.4610E-05  0.0179
   3.7908E+00   3.8831E+00   3.3768E-05  0.0179
   3.8831E+00   3.9776E+00   3.2392E-05  0.0180
   3.9776E+00   4.0743E+00   3.0778E-05  0.0183
   4.0743E+00   4.1735E+00   3.1144E-05  0.0180
   4.1735E+00   4.2750E+00   2.8683E-05  0.0185
   4.2750E+00   4.3790E+00   2.8490E-05  0.0183
   4.3790E+00   4.4856E+00   2.6962E-05  0.0186
   4.4856E+00   4.5947E+00   2.6525E-05  0.0186
   4.5947E+00   4.7065E+00   2.4889E-05  0.0189
   4.7065E+00   4.8210E+00   2.4826E-05  0.0187
   4.8210E+00   4.9383E+00   2.3451E-05  0.0190
   4.9383E+00   5.0585E+00   2.2013E-05  0.0194
   5.0585E+00   5.1815E+00   2.0912E-05  0.0197
   5.1815E+00   5.3076E+00   2.0263E-05  0.0198
   5.3076E+00   5.4368E+00   1.9605E-05  0.0199
   5.4368E+00   5.5690E+00   1.7763E-05  0.0206
   5.5690E+00   5.7045E+00   1.6959E-05  0.0208
   5.7045E+00   5.8433E+00   1.6412E-05  0.0209
   5.8433E+00   5.9855E+00   1.5543E-05  0.0212
   5.9855E+00   6.1311E+00   1.4786E-05  0.0215
   6.1311E+00   6.2803E+00   1.3588E-05  0.0222
   6.2803E+00   6.4331E+00   1.3084E-05  0.0223
   6.4331E+00   6.5896E+00   1.2317E-05  0.0227
   6.5896E+00   6.7500E+00   1.2133E-05  0.0226
   6.7500E+00   6.9142E+00   1.1346E-05  0.0232
   6.9142E+00   7.0824E+00   1.0796E-05  0.0234
   7.0824E+00   7.2548E+00   1.0072E-05  0.0240
   7.2548E+00   7.4313E+00   9.1283E-06  0.0249
   7.4313E+00   7.6121E+00   8.5280E-06  0.0254
   7.6121E+00   7.7973E+00   7.7263E-06  0.0264
   7.7973E+00   7.9870E+00   7.8610E-06  0.0259
   7.9870E+00   8.1813E+00   7.2798E-06  0.0266
   8.1813E+00   8.3804E+00   6.6647E-06  0.0274
   8.3804E+00   8.5843E+00   6.8109E-06  0.0268
   8.5843E+00   8.7931E+00   6.2255E-06  0.0277
   8.7931E+00   9.0071E+00   6.1706E-06  0.0275
   9.0071E+00   9.2262E+00   6.1503E-06  0.0272
   9.2262E+00   9.4507E+00   5.6719E-06  0.0280
   9.4507E+00   9.6807E+00   5.6521E-06  0.0277
   9.6807E+00   9.9162E+00   5.0267E-06  0.0290
   9.9162E+00   1.0157E+01   4.7303E-06  0.0296
   1.0157E+01   1.0405E+01   4.8875E-06  0.0288
   1.0405E+01   1.0658E+01   4.4099E-06  0.0299
   1.0658E+01   1.0917E+01   4.3661E-06  0.0297
   1.0917E+01   1.1183E+01   4.2666E-06  0.0297
   1.1183E+01   1.1455E+01   4.0338E-06  0.0302
   1.1455E+01   1.1733E+01   4.0299E-06  0.0298
   1.1733E+01   1.2019E+01   3.9446E-06  0.0298
   1.2019E+01   1.2311E+01   3.4893E-06  0.0313
   1.2311E+01   1.2611E+01   3.5203E-06  0.0308
   1.2611E+01   1.2918E+01   3.0349E-06  0.0328
   1.2918E+01   1.3232E+01   3.2840E-06  0.0311
   1.3232E+01   1.3554E+01   3.0600E-06  0.0319
   1.3554E+01   1.3884E+01   2.8110E-06  0.0328
   1.3884E+01   1.4222E+01   2.8098E-06  0.0325
   1.4222E+01   1.4568E+01   2.5726E-06  0.0335
   1.4568E+01   1.4922E+01   2.4941E-06  0.0336
   1.4922E+01   1.5285E+01   2.2668E-06  0.0349
   1.5285E+01   1.5657E+01   2.1381E-06  0.0355
   1.5657E+01   1.6038E+01   2.0297E-06  0.0360
   1.6038E+01   1.6428E+01   2.1052E-06  0.0349
   1.6428E+01   1.6828E+01   1.9176E-06  0.0361
   1.6828E+01   1.7237E+01   1.7390E-06  0.0375
   1.7237E+01   1.7657E+01   1.6881E-06  0.0376
   1.7657E+01   1.8086E+01   1.5712E-06  0.0385
   1.8086E+01   1.8526E+01   1.4884E-06  0.0391
   1.8526E+01   1.8977E+01   1.3333E-06  0.0408
   1.8977E+01   1.9439E+01   1.3688E-06  0.0398
   1.9439E+01   1.9912E+01   1.1375E-06  0.0431
   1.9912E+01   2.0396E+01   9.3917E-07  0.0469
   2.0396E+01   2.0893E+01   8.6044E-07  0.0484
   2.0893E+01   2.1401E+01   7.6525E-07  0.0507
   2.1401E+01   2.1922E+01   6.1648E-07  0.0558
   2.1922E+01   2.2455E+01   4.8184E-07  0.0624
   2.2455E+01   2.3001E+01   3.9901E-07  0.0677
   2.3001E+01   2.3561E+01   3.2342E-07  0.0743
   2.3561E+01   2.4134E+01   2.6166E-07  0.0816
   2.4134E+01   2.4721E+01   1.9244E-07  0.0941
   2.4721E+01   2.5323E+01   1.1471E-07  0.1204
   2.5323E+01   2.5939E+01   7.6283E-08  0.1459
   2.5939E+01   2.6570E+01   4.7535E-08  0.1826
   2.6570E+01   2.7217E+01   2.0109E-08  0.2774
   2.7217E+01   2.7879E+01   1.5101E-08  0.3162
   2.7879E+01   2.8557E+01   1.1794E-08  0.3536
   2.8557E+01   2.9252E+01   1.4392E-08  0.3162
   2.9252E+01   2.9964E+01   1.1240E-08  0.3536
   2.9964E+01   3.0693E+01   5.4867E-09  0.5000
   3.0693E+01   3.1440E+01   0.0000E+00  0.0000
   3.1440E+01   3.2205E+01   2.6146E-09  0.7071
   3.2205E+01   3.2988E+01   0.0000E+00  0.0000
   3.2988E+01   3.3791E+01   0.0000E+00  0.0000
   3.3791E+01   3.4613E+01   1.2163E-09  1.0000
   3.4613E+01   3.5455E+01   0.0000E+00  0.0000
   3.5455E+01   3.6318E+01   0.0000E+00  0.0000
   3.6318E+01   3.7201E+01   0.0000E+00  0.0000
   3.7201E+01   3.8106E+01   0.0000E+00  0.0000
   3.8106E+01   3.9034E+01   0.0000E+00  0.0000
   3.9034E+01   3.9983E+01   0.0000E+00  0.0000
   3.9983E+01   4.0956E+01   0.0000E+00  0.0000
   4.0956E+01   4.1953E+01   0.0000E+00  0.0000
   4.1953E+01   4.2973E+01   0.0000E+00  0.0000
   4.2973E+01   4.4019E+01   0.0000E+00  0.0000
   4.4019E+01   4.5090E+01   0.0000E+00  0.0000
   4.5090E+01   4.6187E+01   0.0000E+00  0.0000
   4.6187E+01   4.7311E+01   0.0000E+00  0.0000
   4.7311E+01   4.8462E+01   0.0000E+00  0.0000
   4.8462E+01   4.9641E+01   0.0000E+00  0.0000
   4.9641E+01   5.0849E+01   0.0000E+00  0.0000
   5.0849E+01   5.2086E+01   0.0000E+00  0.0000
   5.2086E+01   5.3353E+01   0.0000E+00  0.0000
   5.3353E+01   5.4651E+01   0.0000E+00  0.0000
   5.4651E+01   5.5981E+01   0.0000E+00  0.0000
   5.5981E+01   5.7343E+01   0.0000E+00  0.0000
   5.7343E+01   5.8738E+01   0.0000E+00  0.0000
   5.8738E+01   6.0168E+01   0.0000E+00  0.0000
   6.0168E+01   6.1632E+01   0.0000E+00  0.0000
   6.1632E+01   6.3131E+01   0.0000E+00  0.0000
   6.3131E+01   6.4667E+01   0.0000E+00  0.0000
   6.4667E+01   6.6240E+01   0.0000E+00  0.0000
   6.6240E+01   6.7852E+01   0.0000E+00  0.0000
   6.7852E+01   6.9503E+01   0.0000E+00  0.0000
   6.9503E+01   7.1194E+01   0.0000E+00  0.0000
   7.1194E+01   7.2926E+01   0.0000E+00  0.0000
   7.2926E+01   7.4701E+01   0.0000E+00  0.0000
   7.4701E+01   7.6518E+01   0.0000E+00  0.0000
   7.6518E+01   7.8380E+01   0.0000E+00  0.0000
   7.8380E+01   8.0287E+01   0.0000E+00  0.0000
   8.0287E+01   8.2240E+01   0.0000E+00  0.0000
   8.2240E+01   8.4241E+01   0.0000E+00  0.0000
   8.4241E+01   8.6291E+01   0.0000E+00  0.0000
   8.6291E+01   8.8391E+01   0.0000E+00  0.0000
   8.8391E+01   9.0541E+01   0.0000E+00  0.0000
   9.0541E+01   9.2744E+01   0.0000E+00  0.0000
   9.2744E+01   9.5001E+01   0.0000E+00  0.0000
   9.5001E+01   9.7312E+01   0.0000E+00  0.0000
   9.7312E+01   9.9680E+01   0.0000E+00  0.0000
   9.9680E+01   1.0211E+02   0.0000E+00  0.0000
   1.0211E+02   1.0459E+02   0.0000E+00  0.0000
   1.0459E+02   1.0713E+02   0.0000E+00  0.0000
   1.0713E+02   1.0974E+02   0.0000E+00  0.0000
   1.0974E+02   1.1241E+02   0.0000E+00  0.0000
   1.1241E+02   1.1515E+02   0.0000E+00  0.0000
   1.1515E+02   1.1795E+02   0.0000E+00  0.0000
   1.1795E+02   1.2082E+02   0.0000E+00  0.0000
   1.2082E+02   1.2376E+02   0.0000E+00  0.0000
   1.2376E+02   1.2677E+02   0.0000E+00  0.0000
   1.2677E+02   1.2985E+02   0.0000E+00  0.0000
   1.2985E+02   1.3301E+02   0.0000E+00  0.0000
   1.3301E+02   1.3625E+02   0.0000E+00  0.0000
   1.3625E+02   1.3956E+02   0.0000E+00  0.0000
   1.3956E+02   1.4296E+02   0.0000E+00  0.0000
   1.4296E+02   1.4644E+02   0.0000E+00  0.0000
   1.4644E+02   1.5000E+02   0.0000E+00  0.0000

#   sum over                 2.8715E-06
'no. =    1   reg = 120 - 220'
msuc: {\huge [t-cross] in region mesh}
msdr: {\it plotted by \ANGEL \version}
msdl: {\it calculated by \PHITS  3.26}
wt: s(0.7)
\vspace{-3}
  region surface crossing
  area  &=&   1.0000E+00 [cm^2]
e:
 
# Information for Restart Calculation
# This calculation was newly started
# istdev =  2 # 1:Batch variance, 2:History variance
# resc2  = 1.00000000000000000E+09 # Total source weight or Total source weight / maxcas
# resc3  = 1.00000000000000000E+09 # Total history number or Total batch number
# maxcas =   500000000 # History / Batch, only used for istdev=1
# bitrseed = 0001001110011001001001110000100100110111001111011100001000101100 # bit data of rseed
