[ T-Cross ]
    title = [t-cross] in region mesh
     mesh =  reg            # mesh type is region-wise
      reg =    1            # number of crossing regions
      non     r-from    r-to       area
      1       125       225        1.000000    
   e-type =    3            # e-mesh is log given by emin, emax and ne
     emin =  1.0000000E-02  # minimum value of e-mesh points
     emax =   150.0000      # maximum value of e-mesh points
#    edel =  2.4039514E-02  # mesh width of e-mesh points
       ne =    400          # number of e-mesh points
#    data = ( e(i), i = 1, ne + 1 )
#           1.00000E-02  1.02433E-02  1.04925E-02  1.07478E-02  1.10093E-02
#           1.12772E-02  1.15516E-02  1.18326E-02  1.21205E-02  1.24154E-02
#           1.27175E-02  1.30269E-02  1.33439E-02  1.36686E-02  1.40011E-02
#           1.43418E-02  1.46907E-02  1.50482E-02  1.54143E-02  1.57894E-02
#           1.61735E-02  1.65670E-02  1.69701E-02  1.73830E-02  1.78060E-02
#           1.82392E-02  1.86830E-02  1.91375E-02  1.96032E-02  2.00801E-02
#           2.05687E-02  2.10692E-02  2.15818E-02  2.21069E-02  2.26448E-02
#           2.31957E-02  2.37601E-02  2.43382E-02  2.49304E-02  2.55369E-02
#           2.61583E-02  2.67947E-02  2.74467E-02  2.81145E-02  2.87985E-02
#           2.94992E-02  3.02169E-02  3.09521E-02  3.17052E-02  3.24766E-02
#           3.32668E-02  3.40762E-02  3.49053E-02  3.57546E-02  3.66246E-02
#           3.75157E-02  3.84284E-02  3.93634E-02  4.03212E-02  4.13022E-02
#           4.23071E-02  4.33365E-02  4.43909E-02  4.54710E-02  4.65773E-02
#           4.77106E-02  4.88714E-02  5.00605E-02  5.12785E-02  5.25262E-02
#           5.38042E-02  5.51133E-02  5.64542E-02  5.78278E-02  5.92348E-02
#           6.06760E-02  6.21523E-02  6.36645E-02  6.52135E-02  6.68002E-02
#           6.84255E-02  7.00904E-02  7.17957E-02  7.35426E-02  7.53319E-02
#           7.71648E-02  7.90423E-02  8.09655E-02  8.29354E-02  8.49533E-02
#           8.70203E-02  8.91376E-02  9.13064E-02  9.35279E-02  9.58035E-02
#           9.81345E-02  1.00522E-01  1.02968E-01  1.05473E-01  1.08040E-01
#           1.10668E-01  1.13361E-01  1.16119E-01  1.18944E-01  1.21838E-01
#           1.24803E-01  1.27839E-01  1.30950E-01  1.34136E-01  1.37399E-01
#           1.40742E-01  1.44167E-01  1.47675E-01  1.51268E-01  1.54948E-01
#           1.58718E-01  1.62580E-01  1.66535E-01  1.70587E-01  1.74738E-01
#           1.78989E-01  1.83344E-01  1.87805E-01  1.92375E-01  1.97055E-01
#           2.01850E-01  2.06761E-01  2.11792E-01  2.16945E-01  2.22223E-01
#           2.27630E-01  2.33169E-01  2.38842E-01  2.44653E-01  2.50605E-01
#           2.56703E-01  2.62949E-01  2.69346E-01  2.75900E-01  2.82613E-01
#           2.89489E-01  2.96532E-01  3.03747E-01  3.11138E-01  3.18708E-01
#           3.26462E-01  3.34405E-01  3.42542E-01  3.50876E-01  3.59413E-01
#           3.68158E-01  3.77116E-01  3.86291E-01  3.95690E-01  4.05317E-01
#           4.15179E-01  4.25281E-01  4.35628E-01  4.46227E-01  4.57084E-01
#           4.68205E-01  4.79597E-01  4.91266E-01  5.03219E-01  5.15463E-01
#           5.28005E-01  5.40851E-01  5.54011E-01  5.67490E-01  5.81298E-01
#           5.95441E-01  6.09929E-01  6.24769E-01  6.39970E-01  6.55541E-01
#           6.71491E-01  6.87828E-01  7.04564E-01  7.21706E-01  7.39266E-01
#           7.57253E-01  7.75678E-01  7.94551E-01  8.13883E-01  8.33685E-01
#           8.53969E-01  8.74747E-01  8.96030E-01  9.17831E-01  9.40163E-01
#           9.63038E-01  9.86469E-01  1.01047E+00  1.03506E+00  1.06024E+00
#           1.08604E+00  1.11246E+00  1.13953E+00  1.16725E+00  1.19565E+00
#           1.22474E+00  1.25454E+00  1.28507E+00  1.31633E+00  1.34836E+00
#           1.38117E+00  1.41477E+00  1.44920E+00  1.48446E+00  1.52057E+00
#           1.55757E+00  1.59547E+00  1.63429E+00  1.67405E+00  1.71478E+00
#           1.75650E+00  1.79924E+00  1.84302E+00  1.88786E+00  1.93379E+00
#           1.98084E+00  2.02904E+00  2.07841E+00  2.12898E+00  2.18078E+00
#           2.23384E+00  2.28819E+00  2.34386E+00  2.40089E+00  2.45930E+00
#           2.51914E+00  2.58043E+00  2.64322E+00  2.70753E+00  2.77341E+00
#           2.84088E+00  2.91001E+00  2.98081E+00  3.05333E+00  3.12762E+00
#           3.20372E+00  3.28167E+00  3.36152E+00  3.44330E+00  3.52708E+00
#           3.61290E+00  3.70080E+00  3.79085E+00  3.88308E+00  3.97756E+00
#           4.07434E+00  4.17347E+00  4.27501E+00  4.37903E+00  4.48557E+00
#           4.59471E+00  4.70650E+00  4.82102E+00  4.93832E+00  5.05847E+00
#           5.18155E+00  5.30762E+00  5.43676E+00  5.56904E+00  5.70453E+00
#           5.84333E+00  5.98550E+00  6.13114E+00  6.28031E+00  6.43312E+00
#           6.58964E+00  6.74997E+00  6.91420E+00  7.08243E+00  7.25475E+00
#           7.43126E+00  7.61207E+00  7.79728E+00  7.98700E+00  8.18133E+00
#           8.38038E+00  8.58428E+00  8.79315E+00  9.00709E+00  9.22624E+00
#           9.45072E+00  9.68067E+00  9.91620E+00  1.01575E+01  1.04046E+01
#           1.06578E+01  1.09171E+01  1.11827E+01  1.14548E+01  1.17335E+01
#           1.20190E+01  1.23114E+01  1.26109E+01  1.29178E+01  1.32321E+01
#           1.35540E+01  1.38838E+01  1.42216E+01  1.45676E+01  1.49221E+01
#           1.52851E+01  1.56570E+01  1.60380E+01  1.64282E+01  1.68279E+01
#           1.72374E+01  1.76568E+01  1.80864E+01  1.85264E+01  1.89772E+01
#           1.94389E+01  1.99119E+01  2.03963E+01  2.08926E+01  2.14009E+01
#           2.19216E+01  2.24550E+01  2.30014E+01  2.35610E+01  2.41343E+01
#           2.47215E+01  2.53230E+01  2.59391E+01  2.65702E+01  2.72167E+01
#           2.78789E+01  2.85572E+01  2.92520E+01  2.99637E+01  3.06928E+01
#           3.14396E+01  3.22045E+01  3.29881E+01  3.37907E+01  3.46128E+01
#           3.54550E+01  3.63177E+01  3.72013E+01  3.81064E+01  3.90336E+01
#           3.99833E+01  4.09561E+01  4.19526E+01  4.29734E+01  4.40189E+01
#           4.50900E+01  4.61870E+01  4.73108E+01  4.84619E+01  4.96410E+01
#           5.08488E+01  5.20860E+01  5.33533E+01  5.46514E+01  5.59812E+01
#           5.73432E+01  5.87384E+01  6.01676E+01  6.16315E+01  6.31311E+01
#           6.46671E+01  6.62405E+01  6.78522E+01  6.95031E+01  7.11941E+01
#           7.29263E+01  7.47007E+01  7.65182E+01  7.83800E+01  8.02870E+01
#           8.22405E+01  8.42414E+01  8.62911E+01  8.83906E+01  9.05412E+01
#           9.27442E+01  9.50007E+01  9.73122E+01  9.96799E+01  1.02105E+02
#           1.04589E+02  1.07134E+02  1.09741E+02  1.12411E+02  1.15146E+02
#           1.17948E+02  1.20817E+02  1.23757E+02  1.26768E+02  1.29852E+02
#           1.33012E+02  1.36248E+02  1.39563E+02  1.42959E+02  1.46437E+02
#           1.50000E+02
     unit =    2            # unit is [1/cm^2/(MeV/n)/source]
     axis =  eng            # axis of output
     file = detector-26.out  # file name of output for the above axis
   output = f-curr          # surface crossing forward current spectrum
     part =  neutron  
# kf/name :  2112     
#    used :        main (  %)        temp (  %)       total (  %)
#  memory :         414 (  0)           0 (  0)         414 (  0)

#------------------------------------------------------------------------------
#newpage:
#   no. =    1   reg = 125 - 225

x: Energy [MeV/n]
y:  F-Curr [1/cm^2/(MeV/n)/source]         
p: xlog ylog afac(0.8) form(0.9)
h: n            x            y(neutron ),hh0l   n 
#  e-lower      e-upper      neutron     r.err 
   1.0000E-02   1.0243E-02   1.1298E-02  0.0191
   1.0243E-02   1.0493E-02   1.1756E-02  0.0185
   1.0493E-02   1.0748E-02   1.1520E-02  0.0184
   1.0748E-02   1.1009E-02   1.1074E-02  0.0186
   1.1009E-02   1.1277E-02   1.0867E-02  0.0185
   1.1277E-02   1.1552E-02   1.0832E-02  0.0183
   1.1552E-02   1.1833E-02   1.0715E-02  0.0182
   1.1833E-02   1.2121E-02   1.0514E-02  0.0182
   1.2121E-02   1.2415E-02   1.0654E-02  0.0178
   1.2415E-02   1.2718E-02   1.0232E-02  0.0180
   1.2718E-02   1.3027E-02   1.0332E-02  0.0177
   1.3027E-02   1.3344E-02   9.9036E-03  0.0178
   1.3344E-02   1.3669E-02   1.0041E-02  0.0175
   1.3669E-02   1.4001E-02   9.5139E-03  0.0178
   1.4001E-02   1.4342E-02   9.6343E-03  0.0175
   1.4342E-02   1.4691E-02   9.2034E-03  0.0176
   1.4691E-02   1.5048E-02   8.9862E-03  0.0176
   1.5048E-02   1.5414E-02   9.2207E-03  0.0172
   1.5414E-02   1.5789E-02   9.0376E-03  0.0172
   1.5789E-02   1.6174E-02   9.0143E-03  0.0170
   1.6174E-02   1.6567E-02   8.8205E-03  0.0170
   1.6567E-02   1.6970E-02   8.8057E-03  0.0168
   1.6970E-02   1.7383E-02   8.7044E-03  0.0167
   1.7383E-02   1.7806E-02   8.4172E-03  0.0168
   1.7806E-02   1.8239E-02   8.0996E-03  0.0169
   1.8239E-02   1.8683E-02   8.1066E-03  0.0167
   1.8683E-02   1.9138E-02   8.2429E-03  0.0163
   1.9138E-02   1.9603E-02   7.8818E-03  0.0165
   1.9603E-02   2.0080E-02   7.7805E-03  0.0164
   2.0080E-02   2.0569E-02   7.6878E-03  0.0163
   2.0569E-02   2.1069E-02   7.7230E-03  0.0161
   2.1069E-02   2.1582E-02   7.4791E-03  0.0162
   2.1582E-02   2.2107E-02   7.2157E-03  0.0162
   2.2107E-02   2.2645E-02   7.3083E-03  0.0159
   2.2645E-02   2.3196E-02   6.9732E-03  0.0161
   2.3196E-02   2.3760E-02   7.1620E-03  0.0157
   2.3760E-02   2.4338E-02   6.9849E-03  0.0157
   2.4338E-02   2.4930E-02   6.9254E-03  0.0156
   2.4930E-02   2.5537E-02   6.7560E-03  0.0156
   2.5537E-02   2.6158E-02   6.3621E-03  0.0159
   2.6158E-02   2.6795E-02   6.6635E-03  0.0154
   2.6795E-02   2.7447E-02   6.3089E-03  0.0156
   2.7447E-02   2.8114E-02   6.3911E-03  0.0153
   2.8114E-02   2.8799E-02   6.3563E-03  0.0152
   2.8799E-02   2.9499E-02   6.2096E-03  0.0152
   2.9499E-02   3.0217E-02   6.0259E-03  0.0152
   3.0217E-02   3.0952E-02   5.9915E-03  0.0151
   3.0952E-02   3.1705E-02   6.0345E-03  0.0148
   3.1705E-02   3.2477E-02   5.7453E-03  0.0150
   3.2477E-02   3.3267E-02   5.7651E-03  0.0148
   3.3267E-02   3.4076E-02   5.6029E-03  0.0149
   3.4076E-02   3.4905E-02   5.4999E-03  0.0148
   3.4905E-02   3.5755E-02   5.6660E-03  0.0144
   3.5755E-02   3.6625E-02   5.4372E-03  0.0145
   3.6625E-02   3.7516E-02   5.4073E-03  0.0144
   3.7516E-02   3.8428E-02   5.2312E-03  0.0145
   3.8428E-02   3.9363E-02   5.3760E-03  0.0141
   3.9363E-02   4.0321E-02   5.1073E-03  0.0143
   4.0321E-02   4.1302E-02   4.9763E-03  0.0143
   4.1302E-02   4.2307E-02   4.9362E-03  0.0142
   4.2307E-02   4.3337E-02   4.8933E-03  0.0141
   4.3337E-02   4.4391E-02   4.9136E-03  0.0139
   4.4391E-02   4.5471E-02   4.7562E-03  0.0140
   4.5471E-02   4.6577E-02   4.7336E-03  0.0138
   4.6577E-02   4.7711E-02   4.5038E-03  0.0140
   4.7711E-02   4.8871E-02   4.5441E-03  0.0138
   4.8871E-02   5.0061E-02   4.4682E-03  0.0137
   5.0061E-02   5.1279E-02   4.5147E-03  0.0135
   5.1279E-02   5.2526E-02   4.4596E-03  0.0134
   5.2526E-02   5.3804E-02   4.3689E-03  0.0134
   5.3804E-02   5.5113E-02   4.3053E-03  0.0133
   5.5113E-02   5.6454E-02   4.2619E-03  0.0132
   5.6454E-02   5.7828E-02   4.1508E-03  0.0132
   5.7828E-02   5.9235E-02   4.1016E-03  0.0132
   5.9235E-02   6.0676E-02   4.0875E-03  0.0130
   6.0676E-02   6.2152E-02   4.0182E-03  0.0130
   6.2152E-02   6.3665E-02   3.9399E-03  0.0130
   6.3665E-02   6.5214E-02   3.8870E-03  0.0129
   6.5214E-02   6.6800E-02   3.8098E-03  0.0129
   6.6800E-02   6.8426E-02   3.7550E-03  0.0128
   6.8426E-02   7.0090E-02   3.6550E-03  0.0128
   7.0090E-02   7.1796E-02   3.6198E-03  0.0127
   7.1796E-02   7.3543E-02   3.5687E-03  0.0127
   7.3543E-02   7.5332E-02   3.4957E-03  0.0126
   7.5332E-02   7.7165E-02   3.4656E-03  0.0125
   7.7165E-02   7.9042E-02   3.4261E-03  0.0125
   7.9042E-02   8.0965E-02   3.3554E-03  0.0124
   8.0965E-02   8.2935E-02   3.3823E-03  0.0123
   8.2935E-02   8.4953E-02   3.3258E-03  0.0122
   8.4953E-02   8.7020E-02   3.2395E-03  0.0122
   8.7020E-02   8.9138E-02   3.2629E-03  0.0120
   8.9138E-02   9.1306E-02   3.1501E-03  0.0121
   9.1306E-02   9.3528E-02   3.1172E-03  0.0120
   9.3528E-02   9.5804E-02   3.0651E-03  0.0120
   9.5804E-02   9.8134E-02   2.9979E-03  0.0120
   9.8134E-02   1.0052E-01   2.8932E-03  0.0120
   1.0052E-01   1.0297E-01   2.9412E-03  0.0118
   1.0297E-01   1.0547E-01   2.8508E-03  0.0118
   1.0547E-01   1.0804E-01   2.8676E-03  0.0117
   1.0804E-01   1.1067E-01   2.8351E-03  0.0116
   1.1067E-01   1.1336E-01   2.7453E-03  0.0116
   1.1336E-01   1.1612E-01   2.7348E-03  0.0115
   1.1612E-01   1.1894E-01   2.6843E-03  0.0115
   1.1894E-01   1.2184E-01   2.6240E-03  0.0115
   1.2184E-01   1.2480E-01   2.5730E-03  0.0114
   1.2480E-01   1.2784E-01   2.5858E-03  0.0113
   1.2784E-01   1.3095E-01   2.4884E-03  0.0114
   1.3095E-01   1.3414E-01   2.4757E-03  0.0113
   1.3414E-01   1.3740E-01   2.4321E-03  0.0112
   1.3740E-01   1.4074E-01   2.4514E-03  0.0110
   1.4074E-01   1.4417E-01   2.3596E-03  0.0111
   1.4417E-01   1.4767E-01   2.3406E-03  0.0110
   1.4767E-01   1.5127E-01   2.3335E-03  0.0109
   1.5127E-01   1.5495E-01   2.2478E-03  0.0110
   1.5495E-01   1.5872E-01   2.2371E-03  0.0109
   1.5872E-01   1.6258E-01   2.2389E-03  0.0108
   1.6258E-01   1.6654E-01   2.1991E-03  0.0107
   1.6654E-01   1.7059E-01   2.1538E-03  0.0107
   1.7059E-01   1.7474E-01   2.1466E-03  0.0106
   1.7474E-01   1.7899E-01   2.0770E-03  0.0106
   1.7899E-01   1.8334E-01   2.0923E-03  0.0105
   1.8334E-01   1.8781E-01   2.0115E-03  0.0106
   1.8781E-01   1.9237E-01   2.0370E-03  0.0104
   1.9237E-01   1.9706E-01   1.9170E-03  0.0106
   1.9706E-01   2.0185E-01   1.9068E-03  0.0105
   2.0185E-01   2.0676E-01   1.9281E-03  0.0103
   2.0676E-01   2.1179E-01   1.8869E-03  0.0103
   2.1179E-01   2.1694E-01   1.8056E-03  0.0104
   2.1694E-01   2.2222E-01   1.8089E-03  0.0102
   2.2222E-01   2.2763E-01   1.7841E-03  0.0102
   2.2763E-01   2.3317E-01   1.7417E-03  0.0102
   2.3317E-01   2.3884E-01   1.7380E-03  0.0101
   2.3884E-01   2.4465E-01   1.7236E-03  0.0100
   2.4465E-01   2.5061E-01   1.6738E-03  0.0100
   2.5061E-01   2.5670E-01   1.6484E-03  0.0100
   2.5670E-01   2.6295E-01   1.6216E-03  0.0099
   2.6295E-01   2.6935E-01   1.5791E-03  0.0100
   2.6935E-01   2.7590E-01   1.5725E-03  0.0099
   2.7590E-01   2.8261E-01   1.5330E-03  0.0099
   2.8261E-01   2.8949E-01   1.5030E-03  0.0098
   2.8949E-01   2.9653E-01   1.4875E-03  0.0098
   2.9653E-01   3.0375E-01   1.4535E-03  0.0098
   3.0375E-01   3.1114E-01   1.4367E-03  0.0097
   3.1114E-01   3.1871E-01   1.4048E-03  0.0097
   3.1871E-01   3.2646E-01   1.3949E-03  0.0096
   3.2646E-01   3.3441E-01   1.3436E-03  0.0097
   3.3441E-01   3.4254E-01   1.3316E-03  0.0096
   3.4254E-01   3.5088E-01   1.3101E-03  0.0096
   3.5088E-01   3.5941E-01   1.2667E-03  0.0096
   3.5941E-01   3.6816E-01   1.2457E-03  0.0096
   3.6816E-01   3.7712E-01   1.2329E-03  0.0095
   3.7712E-01   3.8629E-01   1.2094E-03  0.0095
   3.8629E-01   3.9569E-01   1.2008E-03  0.0094
   3.9569E-01   4.0532E-01   1.1498E-03  0.0095
   4.0532E-01   4.1518E-01   1.1413E-03  0.0094
   4.1518E-01   4.2528E-01   1.1205E-03  0.0094
   4.2528E-01   4.3563E-01   1.0966E-03  0.0094
   4.3563E-01   4.4623E-01   1.0592E-03  0.0094
   4.4623E-01   4.5708E-01   1.0636E-03  0.0093
   4.5708E-01   4.6821E-01   1.0148E-03  0.0094
   4.6821E-01   4.7960E-01   1.0027E-03  0.0094
   4.7960E-01   4.9127E-01   9.8213E-04  0.0093
   4.9127E-01   5.0322E-01   9.6830E-04  0.0093
   5.0322E-01   5.1546E-01   9.4857E-04  0.0093
   5.1546E-01   5.2800E-01   9.1998E-04  0.0093
   5.2800E-01   5.4085E-01   9.1058E-04  0.0092
   5.4085E-01   5.5401E-01   8.6365E-04  0.0094
   5.5401E-01   5.6749E-01   8.5975E-04  0.0093
   5.6749E-01   5.8130E-01   8.3013E-04  0.0093
   5.8130E-01   5.9544E-01   8.1596E-04  0.0093
   5.9544E-01   6.0993E-01   8.0048E-04  0.0093
   6.0993E-01   6.2477E-01   7.8076E-04  0.0093
   6.2477E-01   6.3997E-01   7.5376E-04  0.0093
   6.3997E-01   6.5554E-01   7.3136E-04  0.0094
   6.5554E-01   6.7149E-01   7.0788E-04  0.0094
   6.7149E-01   6.8783E-01   6.8381E-04  0.0095
   6.8783E-01   7.0456E-01   6.7043E-04  0.0094
   7.0456E-01   7.2171E-01   6.5673E-04  0.0094
   7.2171E-01   7.3927E-01   6.3851E-04  0.0094
   7.3927E-01   7.5725E-01   6.2006E-04  0.0095
   7.5725E-01   7.7568E-01   5.9079E-04  0.0096
   7.7568E-01   7.9455E-01   5.7540E-04  0.0096
   7.9455E-01   8.1388E-01   5.4179E-04  0.0098
   8.1388E-01   8.3368E-01   5.3130E-04  0.0098
   8.3368E-01   8.5397E-01   5.1419E-04  0.0098
   8.5397E-01   8.7475E-01   5.0049E-04  0.0098
   8.7475E-01   8.9603E-01   4.8165E-04  0.0099
   8.9603E-01   9.1783E-01   4.5920E-04  0.0100
   9.1783E-01   9.4016E-01   4.3947E-04  0.0101
   9.4016E-01   9.6304E-01   4.2907E-04  0.0101
   9.6304E-01   9.8647E-01   4.0166E-04  0.0103
   9.8647E-01   1.0105E+00   3.8381E-04  0.0104
   1.0105E+00   1.0351E+00   3.8836E-04  0.0102
   1.0351E+00   1.0602E+00   3.8696E-04  0.0101
   1.0602E+00   1.0860E+00   3.8373E-04  0.0101
   1.0860E+00   1.1125E+00   3.9846E-04  0.0097
   1.1125E+00   1.1395E+00   4.0573E-04  0.0095
   1.1395E+00   1.1673E+00   4.1200E-04  0.0094
   1.1673E+00   1.1957E+00   4.2408E-04  0.0091
   1.1957E+00   1.2247E+00   4.3278E-04  0.0089
   1.2247E+00   1.2545E+00   4.2704E-04  0.0089
   1.2545E+00   1.2851E+00   4.2950E-04  0.0087
   1.2851E+00   1.3163E+00   4.3166E-04  0.0086
   1.3163E+00   1.3484E+00   4.3400E-04  0.0085
   1.3484E+00   1.3812E+00   4.4009E-04  0.0083
   1.3812E+00   1.4148E+00   4.5291E-04  0.0081
   1.4148E+00   1.4492E+00   4.4445E-04  0.0081
   1.4492E+00   1.4845E+00   4.4169E-04  0.0080
   1.4845E+00   1.5206E+00   4.3804E-04  0.0080
   1.5206E+00   1.5576E+00   4.4298E-04  0.0078
   1.5576E+00   1.5955E+00   4.3975E-04  0.0077
   1.5955E+00   1.6343E+00   4.3404E-04  0.0077
   1.6343E+00   1.6741E+00   4.3827E-04  0.0076
   1.6741E+00   1.7148E+00   4.4897E-04  0.0074
   1.7148E+00   1.7565E+00   4.4065E-04  0.0074
   1.7565E+00   1.7992E+00   4.3353E-04  0.0074
   1.7992E+00   1.8430E+00   4.3171E-04  0.0073
   1.8430E+00   1.8879E+00   4.2054E-04  0.0073
   1.8879E+00   1.9338E+00   4.2037E-04  0.0072
   1.9338E+00   1.9808E+00   4.1710E-04  0.0071
   1.9808E+00   2.0290E+00   4.1156E-04  0.0071
   2.0290E+00   2.0784E+00   4.0323E-04  0.0071
   2.0784E+00   2.1290E+00   3.9342E-04  0.0071
   2.1290E+00   2.1808E+00   3.7821E-04  0.0071
   2.1808E+00   2.2338E+00   3.7488E-04  0.0071
   2.2338E+00   2.2882E+00   3.6055E-04  0.0071
   2.2882E+00   2.3439E+00   3.5733E-04  0.0071
   2.3439E+00   2.4009E+00   3.5282E-04  0.0071
   2.4009E+00   2.4593E+00   3.4404E-04  0.0071
   2.4593E+00   2.5191E+00   3.2546E-04  0.0072
   2.5191E+00   2.5804E+00   3.1753E-04  0.0072
   2.5804E+00   2.6432E+00   3.0591E-04  0.0072
   2.6432E+00   2.7075E+00   2.9239E-04  0.0073
   2.7075E+00   2.7734E+00   2.7937E-04  0.0074
   2.7734E+00   2.8409E+00   2.7471E-04  0.0073
   2.8409E+00   2.9100E+00   2.6786E-04  0.0073
   2.9100E+00   2.9808E+00   2.5917E-04  0.0074
   2.9808E+00   3.0533E+00   2.4779E-04  0.0075
   3.0533E+00   3.1276E+00   2.3414E-04  0.0076
   3.1276E+00   3.2037E+00   2.2461E-04  0.0077
   3.2037E+00   3.2817E+00   2.1039E-04  0.0078
   3.2817E+00   3.3615E+00   1.9840E-04  0.0079
   3.3615E+00   3.4433E+00   1.8941E-04  0.0080
   3.4433E+00   3.5271E+00   1.8193E-04  0.0081
   3.5271E+00   3.6129E+00   1.7272E-04  0.0082
   3.6129E+00   3.7008E+00   1.6319E-04  0.0084
   3.7008E+00   3.7908E+00   1.5431E-04  0.0085
   3.7908E+00   3.8831E+00   1.4445E-04  0.0087
   3.8831E+00   3.9776E+00   1.3634E-04  0.0088
   3.9776E+00   4.0743E+00   1.2788E-04  0.0090
   4.0743E+00   4.1735E+00   1.2028E-04  0.0092
   4.1735E+00   4.2750E+00   1.1153E-04  0.0094
   4.2750E+00   4.3790E+00   1.0445E-04  0.0096
   4.3790E+00   4.4856E+00   9.6729E-05  0.0099
   4.4856E+00   4.5947E+00   9.1050E-05  0.0100
   4.5947E+00   4.7065E+00   8.3520E-05  0.0104
   4.7065E+00   4.8210E+00   7.7546E-05  0.0106
   4.8210E+00   4.9383E+00   7.3010E-05  0.0108
   4.9383E+00   5.0585E+00   6.8146E-05  0.0111
   5.0585E+00   5.1815E+00   6.3253E-05  0.0113
   5.1815E+00   5.3076E+00   5.7242E-05  0.0118
   5.3076E+00   5.4368E+00   5.3199E-05  0.0121
   5.4368E+00   5.5690E+00   4.8170E-05  0.0125
   5.5690E+00   5.7045E+00   4.4532E-05  0.0129
   5.7045E+00   5.8433E+00   4.0077E-05  0.0134
   5.8433E+00   5.9855E+00   3.7272E-05  0.0137
   5.9855E+00   6.1311E+00   3.4422E-05  0.0141
   6.1311E+00   6.2803E+00   3.0796E-05  0.0148
   6.2803E+00   6.4331E+00   2.7650E-05  0.0154
   6.4331E+00   6.5896E+00   2.5469E-05  0.0158
   6.5896E+00   6.7500E+00   2.3252E-05  0.0164
   6.7500E+00   6.9142E+00   2.1098E-05  0.0170
   6.9142E+00   7.0824E+00   1.8864E-05  0.0178
   7.0824E+00   7.2548E+00   1.6765E-05  0.0186
   7.2548E+00   7.4313E+00   1.5715E-05  0.0190
   7.4313E+00   7.6121E+00   1.3783E-05  0.0200
   7.6121E+00   7.7973E+00   1.2848E-05  0.0205
   7.7973E+00   7.9870E+00   1.1531E-05  0.0214
   7.9870E+00   8.1813E+00   9.8801E-06  0.0228
   8.1813E+00   8.3804E+00   8.8743E-06  0.0238
   8.3804E+00   8.5843E+00   8.0333E-06  0.0247
   8.5843E+00   8.7931E+00   7.4188E-06  0.0254
   8.7931E+00   9.0071E+00   6.6069E-06  0.0266
   9.0071E+00   9.2262E+00   5.7358E-06  0.0282
   9.2262E+00   9.4507E+00   5.3434E-06  0.0288
   9.4507E+00   9.6807E+00   5.0404E-06  0.0293
   9.6807E+00   9.9162E+00   4.3942E-06  0.0310
   9.9162E+00   1.0157E+01   3.9064E-06  0.0325
   1.0157E+01   1.0405E+01   3.5486E-06  0.0337
   1.0405E+01   1.0658E+01   3.1187E-06  0.0355
   1.0658E+01   1.0917E+01   2.8961E-06  0.0364
   1.0917E+01   1.1183E+01   2.4584E-06  0.0390
   1.1183E+01   1.1455E+01   2.2034E-06  0.0406
   1.1455E+01   1.1733E+01   2.1797E-06  0.0404
   1.1733E+01   1.2019E+01   1.9721E-06  0.0419
   1.2019E+01   1.2311E+01   1.7269E-06  0.0443
   1.2311E+01   1.2611E+01   1.6825E-06  0.0443
   1.2611E+01   1.2918E+01   1.3851E-06  0.0483
   1.2918E+01   1.3232E+01   1.2584E-06  0.0499
   1.3232E+01   1.3554E+01   1.2191E-06  0.0505
   1.3554E+01   1.3884E+01   1.1493E-06  0.0512
   1.3884E+01   1.4222E+01   1.1619E-06  0.0504
   1.4222E+01   1.4568E+01   9.8404E-07  0.0539
   1.4568E+01   1.4922E+01   1.0270E-06  0.0522
   1.4922E+01   1.5285E+01   9.3096E-07  0.0543
   1.5285E+01   1.5657E+01   8.7658E-07  0.0552
   1.5657E+01   1.6038E+01   6.6807E-07  0.0625
   1.6038E+01   1.6428E+01   7.7393E-07  0.0574
   1.6428E+01   1.6828E+01   6.7674E-07  0.0607
   1.6828E+01   1.7237E+01   6.8997E-07  0.0594
   1.7237E+01   1.7657E+01   6.5212E-07  0.0604
   1.7657E+01   1.8086E+01   5.9474E-07  0.0625
   1.8086E+01   1.8526E+01   5.8288E-07  0.0623
   1.8526E+01   1.8977E+01   5.2023E-07  0.0651
   1.8977E+01   1.9439E+01   4.9271E-07  0.0661
   1.9439E+01   1.9912E+01   4.9052E-07  0.0657
   1.9912E+01   2.0396E+01   4.6958E-07  0.0663
   2.0396E+01   2.0893E+01   4.8362E-07  0.0645
   2.0893E+01   2.1401E+01   4.5443E-07  0.0658
   2.1401E+01   2.1922E+01   4.6476E-07  0.0643
   2.1922E+01   2.2455E+01   3.1873E-07  0.0767
   2.2455E+01   2.3001E+01   3.4227E-07  0.0731
   2.3001E+01   2.3561E+01   3.4308E-07  0.0722
   2.3561E+01   2.4134E+01   3.0702E-07  0.0754
   2.4134E+01   2.4721E+01   2.8951E-07  0.0767
   2.4721E+01   2.5323E+01   2.8097E-07  0.0769
   2.5323E+01   2.5939E+01   2.8728E-07  0.0752
   2.5939E+01   2.6570E+01   3.0422E-07  0.0722
   2.6570E+01   2.7217E+01   2.9545E-07  0.0724
   2.7217E+01   2.7879E+01   2.3709E-07  0.0798
   2.7879E+01   2.8557E+01   2.4325E-07  0.0778
   2.8557E+01   2.9252E+01   2.0005E-07  0.0848
   2.9252E+01   2.9964E+01   1.6720E-07  0.0917
   2.9964E+01   3.0693E+01   1.5774E-07  0.0933
   3.0693E+01   3.1440E+01   1.4998E-07  0.0945
   3.1440E+01   3.2205E+01   1.6079E-07  0.0902
   3.2205E+01   3.2988E+01   1.1741E-07  0.1043
   3.2988E+01   3.3791E+01   1.5076E-07  0.0909
   3.3791E+01   3.4613E+01   1.2650E-07  0.0981
   3.4613E+01   3.5455E+01   9.8556E-08  0.1098
   3.5455E+01   3.6318E+01   1.0201E-07  0.1066
   3.6318E+01   3.7201E+01   7.6955E-08  0.1213
   3.7201E+01   3.8106E+01   8.6175E-08  0.1132
   3.8106E+01   3.9034E+01   7.2264E-08  0.1222
   3.9034E+01   3.9983E+01   6.9494E-08  0.1231
   3.9983E+01   4.0956E+01   6.2704E-08  0.1280
   4.0956E+01   4.1953E+01   5.8204E-08  0.1313
   4.1953E+01   4.2973E+01   4.4086E-08  0.1491
   4.2973E+01   4.4019E+01   3.7300E-08  0.1601
   4.4019E+01   4.5090E+01   3.4547E-08  0.1644
   4.5090E+01   4.6187E+01   2.9168E-08  0.1768
   4.6187E+01   4.7311E+01   2.2247E-08  0.2000
   4.7311E+01   4.8462E+01   3.0405E-08  0.1690
   4.8462E+01   4.9641E+01   3.3076E-08  0.1601
   4.9641E+01   5.0849E+01   1.5731E-08  0.2294
   5.0849E+01   5.2086E+01   1.5357E-08  0.2294
   5.2086E+01   5.3353E+01   1.3414E-08  0.2425
   5.3353E+01   5.4651E+01   1.2325E-08  0.2500
   5.4651E+01   5.5981E+01   7.5204E-09  0.3162
   5.5981E+01   5.7343E+01   5.1393E-09  0.3780
   5.7343E+01   5.8738E+01   4.3004E-09  0.4082
   5.8738E+01   6.0168E+01   5.5977E-09  0.3536
   6.0168E+01   6.1632E+01   4.0986E-09  0.4082
   6.1632E+01   6.3131E+01   5.3350E-09  0.3536
   6.3131E+01   6.4667E+01   1.3021E-09  0.7071
   6.4667E+01   6.6240E+01   6.3557E-10  1.0000
   6.6240E+01   6.7852E+01   6.2047E-10  1.0000
   6.7852E+01   6.9503E+01   6.0573E-10  1.0000
   6.9503E+01   7.1194E+01   0.0000E+00  0.0000
   7.1194E+01   7.2926E+01   0.0000E+00  0.0000
   7.2926E+01   7.4701E+01   5.6358E-10  1.0000
   7.4701E+01   7.6518E+01   0.0000E+00  0.0000
   7.6518E+01   7.8380E+01   0.0000E+00  0.0000
   7.8380E+01   8.0287E+01   5.2437E-10  1.0000
   8.0287E+01   8.2240E+01   0.0000E+00  0.0000
   8.2240E+01   8.4241E+01   0.0000E+00  0.0000
   8.4241E+01   8.6291E+01   0.0000E+00  0.0000
   8.6291E+01   8.8391E+01   0.0000E+00  0.0000
   8.8391E+01   9.0541E+01   0.0000E+00  0.0000
   9.0541E+01   9.2744E+01   0.0000E+00  0.0000
   9.2744E+01   9.5001E+01   4.4316E-10  1.0000
   9.5001E+01   9.7312E+01   0.0000E+00  0.0000
   9.7312E+01   9.9680E+01   0.0000E+00  0.0000
   9.9680E+01   1.0211E+02   0.0000E+00  0.0000
   1.0211E+02   1.0459E+02   0.0000E+00  0.0000
   1.0459E+02   1.0713E+02   0.0000E+00  0.0000
   1.0713E+02   1.0974E+02   0.0000E+00  0.0000
   1.0974E+02   1.1241E+02   0.0000E+00  0.0000
   1.1241E+02   1.1515E+02   0.0000E+00  0.0000
   1.1515E+02   1.1795E+02   0.0000E+00  0.0000
   1.1795E+02   1.2082E+02   0.0000E+00  0.0000
   1.2082E+02   1.2376E+02   0.0000E+00  0.0000
   1.2376E+02   1.2677E+02   0.0000E+00  0.0000
   1.2677E+02   1.2985E+02   0.0000E+00  0.0000
   1.2985E+02   1.3301E+02   0.0000E+00  0.0000
   1.3301E+02   1.3625E+02   0.0000E+00  0.0000
   1.3625E+02   1.3956E+02   0.0000E+00  0.0000
   1.3956E+02   1.4296E+02   0.0000E+00  0.0000
   1.4296E+02   1.4644E+02   0.0000E+00  0.0000
   1.4644E+02   1.5000E+02   0.0000E+00  0.0000

#   sum over                 1.7005E-05
'no. =    1   reg = 125 - 225'
msuc: {\huge [t-cross] in region mesh}
msdr: {\it plotted by \ANGEL \version}
msdl: {\it calculated by \PHITS  3.26}
wt: s(0.7)
\vspace{-3}
  region surface crossing
  area  &=&   1.0000E+00 [cm^2]
e:
 
# Information for Restart Calculation
# This calculation was newly started
# istdev =  2 # 1:Batch variance, 2:History variance
# resc2  = 1.00000000000000000E+09 # Total source weight or Total source weight / maxcas
# resc3  = 1.00000000000000000E+09 # Total history number or Total batch number
# maxcas =   500000000 # History / Batch, only used for istdev=1
# bitrseed = 0001001110011001001001110000100100110111001111011100001000101100 # bit data of rseed
