[ T-Cross ]
    title = [t-cross] in region mesh
     mesh =  reg            # mesh type is region-wise
      reg =    1            # number of crossing regions
      non     r-from    r-to       area
      1       119       219        1.000000    
   e-type =    3            # e-mesh is log given by emin, emax and ne
     emin =  1.0000000E-02  # minimum value of e-mesh points
     emax =   150.0000      # maximum value of e-mesh points
#    edel =  2.4039514E-02  # mesh width of e-mesh points
       ne =    400          # number of e-mesh points
#    data = ( e(i), i = 1, ne + 1 )
#           1.00000E-02  1.02433E-02  1.04925E-02  1.07478E-02  1.10093E-02
#           1.12772E-02  1.15516E-02  1.18326E-02  1.21205E-02  1.24154E-02
#           1.27175E-02  1.30269E-02  1.33439E-02  1.36686E-02  1.40011E-02
#           1.43418E-02  1.46907E-02  1.50482E-02  1.54143E-02  1.57894E-02
#           1.61735E-02  1.65670E-02  1.69701E-02  1.73830E-02  1.78060E-02
#           1.82392E-02  1.86830E-02  1.91375E-02  1.96032E-02  2.00801E-02
#           2.05687E-02  2.10692E-02  2.15818E-02  2.21069E-02  2.26448E-02
#           2.31957E-02  2.37601E-02  2.43382E-02  2.49304E-02  2.55369E-02
#           2.61583E-02  2.67947E-02  2.74467E-02  2.81145E-02  2.87985E-02
#           2.94992E-02  3.02169E-02  3.09521E-02  3.17052E-02  3.24766E-02
#           3.32668E-02  3.40762E-02  3.49053E-02  3.57546E-02  3.66246E-02
#           3.75157E-02  3.84284E-02  3.93634E-02  4.03212E-02  4.13022E-02
#           4.23071E-02  4.33365E-02  4.43909E-02  4.54710E-02  4.65773E-02
#           4.77106E-02  4.88714E-02  5.00605E-02  5.12785E-02  5.25262E-02
#           5.38042E-02  5.51133E-02  5.64542E-02  5.78278E-02  5.92348E-02
#           6.06760E-02  6.21523E-02  6.36645E-02  6.52135E-02  6.68002E-02
#           6.84255E-02  7.00904E-02  7.17957E-02  7.35426E-02  7.53319E-02
#           7.71648E-02  7.90423E-02  8.09655E-02  8.29354E-02  8.49533E-02
#           8.70203E-02  8.91376E-02  9.13064E-02  9.35279E-02  9.58035E-02
#           9.81345E-02  1.00522E-01  1.02968E-01  1.05473E-01  1.08040E-01
#           1.10668E-01  1.13361E-01  1.16119E-01  1.18944E-01  1.21838E-01
#           1.24803E-01  1.27839E-01  1.30950E-01  1.34136E-01  1.37399E-01
#           1.40742E-01  1.44167E-01  1.47675E-01  1.51268E-01  1.54948E-01
#           1.58718E-01  1.62580E-01  1.66535E-01  1.70587E-01  1.74738E-01
#           1.78989E-01  1.83344E-01  1.87805E-01  1.92375E-01  1.97055E-01
#           2.01850E-01  2.06761E-01  2.11792E-01  2.16945E-01  2.22223E-01
#           2.27630E-01  2.33169E-01  2.38842E-01  2.44653E-01  2.50605E-01
#           2.56703E-01  2.62949E-01  2.69346E-01  2.75900E-01  2.82613E-01
#           2.89489E-01  2.96532E-01  3.03747E-01  3.11138E-01  3.18708E-01
#           3.26462E-01  3.34405E-01  3.42542E-01  3.50876E-01  3.59413E-01
#           3.68158E-01  3.77116E-01  3.86291E-01  3.95690E-01  4.05317E-01
#           4.15179E-01  4.25281E-01  4.35628E-01  4.46227E-01  4.57084E-01
#           4.68205E-01  4.79597E-01  4.91266E-01  5.03219E-01  5.15463E-01
#           5.28005E-01  5.40851E-01  5.54011E-01  5.67490E-01  5.81298E-01
#           5.95441E-01  6.09929E-01  6.24769E-01  6.39970E-01  6.55541E-01
#           6.71491E-01  6.87828E-01  7.04564E-01  7.21706E-01  7.39266E-01
#           7.57253E-01  7.75678E-01  7.94551E-01  8.13883E-01  8.33685E-01
#           8.53969E-01  8.74747E-01  8.96030E-01  9.17831E-01  9.40163E-01
#           9.63038E-01  9.86469E-01  1.01047E+00  1.03506E+00  1.06024E+00
#           1.08604E+00  1.11246E+00  1.13953E+00  1.16725E+00  1.19565E+00
#           1.22474E+00  1.25454E+00  1.28507E+00  1.31633E+00  1.34836E+00
#           1.38117E+00  1.41477E+00  1.44920E+00  1.48446E+00  1.52057E+00
#           1.55757E+00  1.59547E+00  1.63429E+00  1.67405E+00  1.71478E+00
#           1.75650E+00  1.79924E+00  1.84302E+00  1.88786E+00  1.93379E+00
#           1.98084E+00  2.02904E+00  2.07841E+00  2.12898E+00  2.18078E+00
#           2.23384E+00  2.28819E+00  2.34386E+00  2.40089E+00  2.45930E+00
#           2.51914E+00  2.58043E+00  2.64322E+00  2.70753E+00  2.77341E+00
#           2.84088E+00  2.91001E+00  2.98081E+00  3.05333E+00  3.12762E+00
#           3.20372E+00  3.28167E+00  3.36152E+00  3.44330E+00  3.52708E+00
#           3.61290E+00  3.70080E+00  3.79085E+00  3.88308E+00  3.97756E+00
#           4.07434E+00  4.17347E+00  4.27501E+00  4.37903E+00  4.48557E+00
#           4.59471E+00  4.70650E+00  4.82102E+00  4.93832E+00  5.05847E+00
#           5.18155E+00  5.30762E+00  5.43676E+00  5.56904E+00  5.70453E+00
#           5.84333E+00  5.98550E+00  6.13114E+00  6.28031E+00  6.43312E+00
#           6.58964E+00  6.74997E+00  6.91420E+00  7.08243E+00  7.25475E+00
#           7.43126E+00  7.61207E+00  7.79728E+00  7.98700E+00  8.18133E+00
#           8.38038E+00  8.58428E+00  8.79315E+00  9.00709E+00  9.22624E+00
#           9.45072E+00  9.68067E+00  9.91620E+00  1.01575E+01  1.04046E+01
#           1.06578E+01  1.09171E+01  1.11827E+01  1.14548E+01  1.17335E+01
#           1.20190E+01  1.23114E+01  1.26109E+01  1.29178E+01  1.32321E+01
#           1.35540E+01  1.38838E+01  1.42216E+01  1.45676E+01  1.49221E+01
#           1.52851E+01  1.56570E+01  1.60380E+01  1.64282E+01  1.68279E+01
#           1.72374E+01  1.76568E+01  1.80864E+01  1.85264E+01  1.89772E+01
#           1.94389E+01  1.99119E+01  2.03963E+01  2.08926E+01  2.14009E+01
#           2.19216E+01  2.24550E+01  2.30014E+01  2.35610E+01  2.41343E+01
#           2.47215E+01  2.53230E+01  2.59391E+01  2.65702E+01  2.72167E+01
#           2.78789E+01  2.85572E+01  2.92520E+01  2.99637E+01  3.06928E+01
#           3.14396E+01  3.22045E+01  3.29881E+01  3.37907E+01  3.46128E+01
#           3.54550E+01  3.63177E+01  3.72013E+01  3.81064E+01  3.90336E+01
#           3.99833E+01  4.09561E+01  4.19526E+01  4.29734E+01  4.40189E+01
#           4.50900E+01  4.61870E+01  4.73108E+01  4.84619E+01  4.96410E+01
#           5.08488E+01  5.20860E+01  5.33533E+01  5.46514E+01  5.59812E+01
#           5.73432E+01  5.87384E+01  6.01676E+01  6.16315E+01  6.31311E+01
#           6.46671E+01  6.62405E+01  6.78522E+01  6.95031E+01  7.11941E+01
#           7.29263E+01  7.47007E+01  7.65182E+01  7.83800E+01  8.02870E+01
#           8.22405E+01  8.42414E+01  8.62911E+01  8.83906E+01  9.05412E+01
#           9.27442E+01  9.50007E+01  9.73122E+01  9.96799E+01  1.02105E+02
#           1.04589E+02  1.07134E+02  1.09741E+02  1.12411E+02  1.15146E+02
#           1.17948E+02  1.20817E+02  1.23757E+02  1.26768E+02  1.29852E+02
#           1.33012E+02  1.36248E+02  1.39563E+02  1.42959E+02  1.46437E+02
#           1.50000E+02
     unit =    2            # unit is [1/cm^2/(MeV/n)/source]
     axis =  eng            # axis of output
     file = detector-20.out  # file name of output for the above axis
   output = f-curr          # surface crossing forward current spectrum
     part =  neutron  
# kf/name :  2112     
#    used :        main (  %)        temp (  %)       total (  %)
#  memory :         414 (  0)           0 (  0)         414 (  0)

#------------------------------------------------------------------------------
#newpage:
#   no. =    1   reg = 119 - 219

x: Energy [MeV/n]
y:  F-Curr [1/cm^2/(MeV/n)/source]         
p: xlog ylog afac(0.8) form(0.9)
h: n            x            y(neutron ),hh0l   n 
#  e-lower      e-upper      neutron     r.err 
   1.0000E-02   1.0243E-02   3.9912E-03  0.0143
   1.0243E-02   1.0493E-02   3.8910E-03  0.0143
   1.0493E-02   1.0748E-02   3.9281E-03  0.0141
   1.0748E-02   1.1009E-02   3.7808E-03  0.0142
   1.1009E-02   1.1277E-02   3.7160E-03  0.0142
   1.1277E-02   1.1552E-02   3.7461E-03  0.0139
   1.1552E-02   1.1833E-02   3.7056E-03  0.0138
   1.1833E-02   1.2121E-02   3.5749E-03  0.0139
   1.2121E-02   1.2415E-02   3.5765E-03  0.0138
   1.2415E-02   1.2718E-02   3.4733E-03  0.0138
   1.2718E-02   1.3027E-02   3.4768E-03  0.0136
   1.3027E-02   1.3344E-02   3.3475E-03  0.0137
   1.3344E-02   1.3669E-02   3.3820E-03  0.0135
   1.3669E-02   1.4001E-02   3.2351E-03  0.0136
   1.4001E-02   1.4342E-02   3.2406E-03  0.0134
   1.4342E-02   1.4691E-02   3.2072E-03  0.0133
   1.4691E-02   1.5048E-02   3.1933E-03  0.0132
   1.5048E-02   1.5414E-02   3.1292E-03  0.0132
   1.5414E-02   1.5789E-02   3.0086E-03  0.0133
   1.5789E-02   1.6174E-02   2.9565E-03  0.0133
   1.6174E-02   1.6567E-02   2.9377E-03  0.0131
   1.6567E-02   1.6970E-02   2.8403E-03  0.0132
   1.6970E-02   1.7383E-02   2.9389E-03  0.0128
   1.7383E-02   1.7806E-02   2.8457E-03  0.0129
   1.7806E-02   1.8239E-02   2.7528E-03  0.0129
   1.8239E-02   1.8683E-02   2.7719E-03  0.0127
   1.8683E-02   1.9138E-02   2.6699E-03  0.0128
   1.9138E-02   1.9603E-02   2.6558E-03  0.0127
   1.9603E-02   2.0080E-02   2.6258E-03  0.0126
   2.0080E-02   2.0569E-02   2.5358E-03  0.0127
   2.0569E-02   2.1069E-02   2.5562E-03  0.0125
   2.1069E-02   2.1582E-02   2.4978E-03  0.0125
   2.1582E-02   2.2107E-02   2.4824E-03  0.0124
   2.2107E-02   2.2645E-02   2.4498E-03  0.0123
   2.2645E-02   2.3196E-02   2.2818E-03  0.0126
   2.3196E-02   2.3760E-02   2.3524E-03  0.0123
   2.3760E-02   2.4338E-02   2.2648E-03  0.0123
   2.4338E-02   2.4930E-02   2.2292E-03  0.0123
   2.4930E-02   2.5537E-02   2.2253E-03  0.0122
   2.5537E-02   2.6158E-02   2.2204E-03  0.0120
   2.6158E-02   2.6795E-02   2.1258E-03  0.0121
   2.6795E-02   2.7447E-02   2.1639E-03  0.0119
   2.7447E-02   2.8114E-02   2.0669E-03  0.0120
   2.8114E-02   2.8799E-02   2.0416E-03  0.0119
   2.8799E-02   2.9499E-02   2.0128E-03  0.0119
   2.9499E-02   3.0217E-02   1.9588E-03  0.0119
   3.0217E-02   3.0952E-02   1.9489E-03  0.0118
   3.0952E-02   3.1705E-02   1.9196E-03  0.0117
   3.1705E-02   3.2477E-02   1.8871E-03  0.0117
   3.2477E-02   3.3267E-02   1.8543E-03  0.0117
   3.3267E-02   3.4076E-02   1.8023E-03  0.0117
   3.4076E-02   3.4905E-02   1.7534E-03  0.0117
   3.4905E-02   3.5755E-02   1.7462E-03  0.0116
   3.5755E-02   3.6625E-02   1.7118E-03  0.0116
   3.6625E-02   3.7516E-02   1.6791E-03  0.0115
   3.7516E-02   3.8428E-02   1.6536E-03  0.0115
   3.8428E-02   3.9363E-02   1.6575E-03  0.0113
   3.9363E-02   4.0321E-02   1.6102E-03  0.0114
   4.0321E-02   4.1302E-02   1.5954E-03  0.0113
   4.1302E-02   4.2307E-02   1.5557E-03  0.0113
   4.2307E-02   4.3337E-02   1.5353E-03  0.0112
   4.3337E-02   4.4391E-02   1.5006E-03  0.0112
   4.4391E-02   4.5471E-02   1.4981E-03  0.0111
   4.5471E-02   4.6577E-02   1.4225E-03  0.0113
   4.6577E-02   4.7711E-02   1.4444E-03  0.0110
   4.7711E-02   4.8871E-02   1.3600E-03  0.0112
   4.8871E-02   5.0061E-02   1.3904E-03  0.0110
   5.0061E-02   5.1279E-02   1.3618E-03  0.0110
   5.1279E-02   5.2526E-02   1.3065E-03  0.0111
   5.2526E-02   5.3804E-02   1.3126E-03  0.0109
   5.3804E-02   5.5113E-02   1.2865E-03  0.0109
   5.5113E-02   5.6454E-02   1.2770E-03  0.0108
   5.6454E-02   5.7828E-02   1.2331E-03  0.0108
   5.7828E-02   5.9235E-02   1.2098E-03  0.0108
   5.9235E-02   6.0676E-02   1.1857E-03  0.0108
   6.0676E-02   6.2152E-02   1.1805E-03  0.0107
   6.2152E-02   6.3665E-02   1.1311E-03  0.0108
   6.3665E-02   6.5214E-02   1.1238E-03  0.0107
   6.5214E-02   6.6800E-02   1.1033E-03  0.0107
   6.6800E-02   6.8426E-02   1.0571E-03  0.0108
   6.8426E-02   7.0090E-02   1.0562E-03  0.0106
   7.0090E-02   7.1796E-02   1.0344E-03  0.0106
   7.1796E-02   7.3543E-02   1.0275E-03  0.0105
   7.3543E-02   7.5332E-02   9.9990E-04  0.0106
   7.5332E-02   7.7165E-02   9.6827E-04  0.0106
   7.7165E-02   7.9042E-02   9.4673E-04  0.0106
   7.9042E-02   8.0965E-02   9.3082E-04  0.0106
   8.0965E-02   8.2935E-02   9.3843E-04  0.0104
   8.2935E-02   8.4953E-02   9.0921E-04  0.0104
   8.4953E-02   8.7020E-02   8.8127E-04  0.0105
   8.7020E-02   8.9138E-02   8.7825E-04  0.0104
   8.9138E-02   9.1306E-02   8.4623E-04  0.0104
   9.1306E-02   9.3528E-02   8.3437E-04  0.0104
   9.3528E-02   9.5804E-02   8.3025E-04  0.0103
   9.5804E-02   9.8134E-02   8.1249E-04  0.0103
   9.8134E-02   1.0052E-01   7.9157E-04  0.0103
   1.0052E-01   1.0297E-01   7.5513E-04  0.0104
   1.0297E-01   1.0547E-01   7.5947E-04  0.0102
   1.0547E-01   1.0804E-01   7.3015E-04  0.0103
   1.0804E-01   1.1067E-01   7.0211E-04  0.0104
   1.1067E-01   1.1336E-01   7.1132E-04  0.0102
   1.1336E-01   1.1612E-01   7.0742E-04  0.0101
   1.1612E-01   1.1894E-01   6.8114E-04  0.0102
   1.1894E-01   1.2184E-01   6.5837E-04  0.0102
   1.2184E-01   1.2480E-01   6.2947E-04  0.0103
   1.2480E-01   1.2784E-01   6.2673E-04  0.0102
   1.2784E-01   1.3095E-01   6.2098E-04  0.0102
   1.3095E-01   1.3414E-01   5.9444E-04  0.0103
   1.3414E-01   1.3740E-01   5.8233E-04  0.0102
   1.3740E-01   1.4074E-01   5.7947E-04  0.0101
   1.4074E-01   1.4417E-01   5.5827E-04  0.0102
   1.4417E-01   1.4767E-01   5.4905E-04  0.0102
   1.4767E-01   1.5127E-01   5.3862E-04  0.0101
   1.5127E-01   1.5495E-01   5.1402E-04  0.0103
   1.5495E-01   1.5872E-01   5.1385E-04  0.0101
   1.5872E-01   1.6258E-01   4.9887E-04  0.0102
   1.6258E-01   1.6654E-01   4.9038E-04  0.0101
   1.6654E-01   1.7059E-01   4.7004E-04  0.0102
   1.7059E-01   1.7474E-01   4.6103E-04  0.0102
   1.7474E-01   1.7899E-01   4.6449E-04  0.0100
   1.7899E-01   1.8334E-01   4.3927E-04  0.0102
   1.8334E-01   1.8781E-01   4.3528E-04  0.0101
   1.8781E-01   1.9237E-01   4.3779E-04  0.0100
   1.9237E-01   1.9706E-01   4.1909E-04  0.0101
   1.9706E-01   2.0185E-01   4.0435E-04  0.0101
   2.0185E-01   2.0676E-01   4.0465E-04  0.0100
   2.0676E-01   2.1179E-01   4.2617E-04  0.0096
   2.1179E-01   2.1694E-01   4.3376E-04  0.0094
   2.1694E-01   2.2222E-01   4.3967E-04  0.0093
   2.2222E-01   2.2763E-01   4.5783E-04  0.0090
   2.2763E-01   2.3317E-01   4.6296E-04  0.0088
   2.3317E-01   2.3884E-01   4.6743E-04  0.0087
   2.3884E-01   2.4465E-01   4.8441E-04  0.0084
   2.4465E-01   2.5061E-01   4.9119E-04  0.0083
   2.5061E-01   2.5670E-01   4.9583E-04  0.0081
   2.5670E-01   2.6295E-01   5.0439E-04  0.0080
   2.6295E-01   2.6935E-01   5.1473E-04  0.0078
   2.6935E-01   2.7590E-01   5.2732E-04  0.0076
   2.7590E-01   2.8261E-01   5.3366E-04  0.0075
   2.8261E-01   2.8949E-01   5.4912E-04  0.0073
   2.8949E-01   2.9653E-01   5.4790E-04  0.0072
   2.9653E-01   3.0375E-01   5.5324E-04  0.0071
   3.0375E-01   3.1114E-01   5.6177E-04  0.0069
   3.1114E-01   3.1871E-01   5.7588E-04  0.0068
   3.1871E-01   3.2646E-01   5.9118E-04  0.0066
   3.2646E-01   3.3441E-01   5.9682E-04  0.0065
   3.3441E-01   3.4254E-01   6.0196E-04  0.0064
   3.4254E-01   3.5088E-01   5.9961E-04  0.0063
   3.5088E-01   3.5941E-01   6.1212E-04  0.0062
   3.5941E-01   3.6816E-01   6.1858E-04  0.0061
   3.6816E-01   3.7712E-01   6.2169E-04  0.0060
   3.7712E-01   3.8629E-01   6.2981E-04  0.0059
   3.8629E-01   3.9569E-01   6.4257E-04  0.0057
   3.9569E-01   4.0532E-01   6.4682E-04  0.0057
   4.0532E-01   4.1518E-01   6.4646E-04  0.0056
   4.1518E-01   4.2528E-01   6.4955E-04  0.0055
   4.2528E-01   4.3563E-01   6.5751E-04  0.0054
   4.3563E-01   4.4623E-01   6.5885E-04  0.0053
   4.4623E-01   4.5708E-01   6.6491E-04  0.0053
   4.5708E-01   4.6821E-01   6.6838E-04  0.0052
   4.6821E-01   4.7960E-01   6.7371E-04  0.0051
   4.7960E-01   4.9127E-01   6.7473E-04  0.0050
   4.9127E-01   5.0322E-01   6.7297E-04  0.0050
   5.0322E-01   5.1546E-01   6.8457E-04  0.0049
   5.1546E-01   5.2800E-01   6.8577E-04  0.0048
   5.2800E-01   5.4085E-01   6.7777E-04  0.0048
   5.4085E-01   5.5401E-01   6.8952E-04  0.0047
   5.5401E-01   5.6749E-01   6.9121E-04  0.0046
   5.6749E-01   5.8130E-01   6.8908E-04  0.0046
   5.8130E-01   5.9544E-01   6.8635E-04  0.0045
   5.9544E-01   6.0993E-01   6.9035E-04  0.0045
   6.0993E-01   6.2477E-01   6.8572E-04  0.0044
   6.2477E-01   6.3997E-01   6.8852E-04  0.0044
   6.3997E-01   6.5554E-01   6.8101E-04  0.0043
   6.5554E-01   6.7149E-01   6.8434E-04  0.0043
   6.7149E-01   6.8783E-01   6.8249E-04  0.0042
   6.8783E-01   7.0456E-01   6.7893E-04  0.0042
   7.0456E-01   7.2171E-01   6.7416E-04  0.0041
   7.2171E-01   7.3927E-01   6.7068E-04  0.0041
   7.3927E-01   7.5725E-01   6.6529E-04  0.0041
   7.5725E-01   7.7568E-01   6.5730E-04  0.0041
   7.7568E-01   7.9455E-01   6.4681E-04  0.0040
   7.9455E-01   8.1388E-01   6.4185E-04  0.0040
   8.1388E-01   8.3368E-01   6.3075E-04  0.0040
   8.3368E-01   8.5397E-01   6.2664E-04  0.0040
   8.5397E-01   8.7475E-01   6.1368E-04  0.0039
   8.7475E-01   8.9603E-01   6.0054E-04  0.0039
   8.9603E-01   9.1783E-01   5.8546E-04  0.0039
   9.1783E-01   9.4016E-01   5.6955E-04  0.0040
   9.4016E-01   9.6304E-01   5.5197E-04  0.0040
   9.6304E-01   9.8647E-01   5.3521E-04  0.0040
   9.8647E-01   1.0105E+00   5.1848E-04  0.0040
   1.0105E+00   1.0351E+00   5.0366E-04  0.0040
   1.0351E+00   1.0602E+00   4.9716E-04  0.0040
   1.0602E+00   1.0860E+00   4.9163E-04  0.0040
   1.0860E+00   1.1125E+00   4.8451E-04  0.0039
   1.1125E+00   1.1395E+00   4.7938E-04  0.0039
   1.1395E+00   1.1673E+00   4.7827E-04  0.0039
   1.1673E+00   1.1957E+00   4.7747E-04  0.0038
   1.1957E+00   1.2247E+00   4.7130E-04  0.0038
   1.2247E+00   1.2545E+00   4.6395E-04  0.0038
   1.2545E+00   1.2851E+00   4.5457E-04  0.0038
   1.2851E+00   1.3163E+00   4.4834E-04  0.0038
   1.3163E+00   1.3484E+00   4.4390E-04  0.0037
   1.3484E+00   1.3812E+00   4.3371E-04  0.0037
   1.3812E+00   1.4148E+00   4.3212E-04  0.0037
   1.4148E+00   1.4492E+00   4.2402E-04  0.0037
   1.4492E+00   1.4845E+00   4.1533E-04  0.0037
   1.4845E+00   1.5206E+00   4.0632E-04  0.0037
   1.5206E+00   1.5576E+00   3.9869E-04  0.0037
   1.5576E+00   1.5955E+00   3.8841E-04  0.0037
   1.5955E+00   1.6343E+00   3.7843E-04  0.0037
   1.6343E+00   1.6741E+00   3.7338E-04  0.0037
   1.6741E+00   1.7148E+00   3.6555E-04  0.0036
   1.7148E+00   1.7565E+00   3.5959E-04  0.0036
   1.7565E+00   1.7992E+00   3.5271E-04  0.0036
   1.7992E+00   1.8430E+00   3.4384E-04  0.0036
   1.8430E+00   1.8879E+00   3.3367E-04  0.0036
   1.8879E+00   1.9338E+00   3.2717E-04  0.0036
   1.9338E+00   1.9808E+00   3.1855E-04  0.0036
   1.9808E+00   2.0290E+00   3.1446E-04  0.0036
   2.0290E+00   2.0784E+00   3.0398E-04  0.0036
   2.0784E+00   2.1290E+00   2.9767E-04  0.0036
   2.1290E+00   2.1808E+00   2.9084E-04  0.0036
   2.1808E+00   2.2338E+00   2.8300E-04  0.0036
   2.2338E+00   2.2882E+00   2.7635E-04  0.0036
   2.2882E+00   2.3439E+00   2.6939E-04  0.0036
   2.3439E+00   2.4009E+00   2.6235E-04  0.0036
   2.4009E+00   2.4593E+00   2.5843E-04  0.0036
   2.4593E+00   2.5191E+00   2.5339E-04  0.0036
   2.5191E+00   2.5804E+00   2.4667E-04  0.0036
   2.5804E+00   2.6432E+00   2.4038E-04  0.0036
   2.6432E+00   2.7075E+00   2.3453E-04  0.0036
   2.7075E+00   2.7734E+00   2.2842E-04  0.0036
   2.7734E+00   2.8409E+00   2.2422E-04  0.0036
   2.8409E+00   2.9100E+00   2.1836E-04  0.0036
   2.9100E+00   2.9808E+00   2.1262E-04  0.0036
   2.9808E+00   3.0533E+00   2.1043E-04  0.0036
   3.0533E+00   3.1276E+00   2.0441E-04  0.0036
   3.1276E+00   3.2037E+00   1.9912E-04  0.0036
   3.2037E+00   3.2817E+00   1.9538E-04  0.0036
   3.2817E+00   3.3615E+00   1.8998E-04  0.0036
   3.3615E+00   3.4433E+00   1.8644E-04  0.0036
   3.4433E+00   3.5271E+00   1.8087E-04  0.0036
   3.5271E+00   3.6129E+00   1.7667E-04  0.0036
   3.6129E+00   3.7008E+00   1.7246E-04  0.0036
   3.7008E+00   3.7908E+00   1.6887E-04  0.0036
   3.7908E+00   3.8831E+00   1.6525E-04  0.0036
   3.8831E+00   3.9776E+00   1.6047E-04  0.0036
   3.9776E+00   4.0743E+00   1.5702E-04  0.0036
   4.0743E+00   4.1735E+00   1.5319E-04  0.0036
   4.1735E+00   4.2750E+00   1.4847E-04  0.0036
   4.2750E+00   4.3790E+00   1.4333E-04  0.0036
   4.3790E+00   4.4856E+00   1.3908E-04  0.0037
   4.4856E+00   4.5947E+00   1.3623E-04  0.0037
   4.5947E+00   4.7065E+00   1.3156E-04  0.0037
   4.7065E+00   4.8210E+00   1.2799E-04  0.0037
   4.8210E+00   4.9383E+00   1.2304E-04  0.0037
   4.9383E+00   5.0585E+00   1.1827E-04  0.0037
   5.0585E+00   5.1815E+00   1.1357E-04  0.0038
   5.1815E+00   5.3076E+00   1.1045E-04  0.0038
   5.3076E+00   5.4368E+00   1.0612E-04  0.0038
   5.4368E+00   5.5690E+00   1.0196E-04  0.0038
   5.5690E+00   5.7045E+00   9.8485E-05  0.0039
   5.7045E+00   5.8433E+00   9.5598E-05  0.0039
   5.8433E+00   5.9855E+00   9.1775E-05  0.0039
   5.9855E+00   6.1311E+00   8.7963E-05  0.0039
   6.1311E+00   6.2803E+00   8.4944E-05  0.0040
   6.2803E+00   6.4331E+00   8.1197E-05  0.0040
   6.4331E+00   6.5896E+00   7.7696E-05  0.0040
   6.5896E+00   6.7500E+00   7.4518E-05  0.0041
   6.7500E+00   6.9142E+00   7.1147E-05  0.0041
   6.9142E+00   7.0824E+00   6.7710E-05  0.0042
   7.0824E+00   7.2548E+00   6.4521E-05  0.0042
   7.2548E+00   7.4313E+00   6.1578E-05  0.0043
   7.4313E+00   7.6121E+00   5.8578E-05  0.0043
   7.6121E+00   7.7973E+00   5.5713E-05  0.0044
   7.7973E+00   7.9870E+00   5.2883E-05  0.0045
   7.9870E+00   8.1813E+00   5.0076E-05  0.0045
   8.1813E+00   8.3804E+00   4.7344E-05  0.0046
   8.3804E+00   8.5843E+00   4.5143E-05  0.0047
   8.5843E+00   8.7931E+00   4.3027E-05  0.0047
   8.7931E+00   9.0071E+00   4.0851E-05  0.0048
   9.0071E+00   9.2262E+00   3.8774E-05  0.0048
   9.2262E+00   9.4507E+00   3.6461E-05  0.0049
   9.4507E+00   9.6807E+00   3.4522E-05  0.0050
   9.6807E+00   9.9162E+00   3.2783E-05  0.0051
   9.9162E+00   1.0157E+01   3.1378E-05  0.0051
   1.0157E+01   1.0405E+01   3.0583E-05  0.0051
   1.0405E+01   1.0658E+01   2.9682E-05  0.0052
   1.0658E+01   1.0917E+01   2.8575E-05  0.0052
   1.0917E+01   1.1183E+01   2.7063E-05  0.0053
   1.1183E+01   1.1455E+01   2.5764E-05  0.0053
   1.1455E+01   1.1733E+01   2.4543E-05  0.0054
   1.1733E+01   1.2019E+01   2.2940E-05  0.0055
   1.2019E+01   1.2311E+01   2.1441E-05  0.0056
   1.2311E+01   1.2611E+01   1.9841E-05  0.0058
   1.2611E+01   1.2918E+01   1.8429E-05  0.0059
   1.2918E+01   1.3232E+01   1.7587E-05  0.0060
   1.3232E+01   1.3554E+01   1.6572E-05  0.0061
   1.3554E+01   1.3884E+01   1.5197E-05  0.0063
   1.3884E+01   1.4222E+01   1.4358E-05  0.0064
   1.4222E+01   1.4568E+01   1.3359E-05  0.0066
   1.4568E+01   1.4922E+01   1.2182E-05  0.0068
   1.4922E+01   1.5285E+01   1.1468E-05  0.0069
   1.5285E+01   1.5657E+01   1.0341E-05  0.0072
   1.5657E+01   1.6038E+01   9.5805E-06  0.0074
   1.6038E+01   1.6428E+01   8.8947E-06  0.0076
   1.6428E+01   1.6828E+01   8.1497E-06  0.0078
   1.6828E+01   1.7237E+01   7.6341E-06  0.0080
   1.7237E+01   1.7657E+01   6.9957E-06  0.0083
   1.7657E+01   1.8086E+01   6.3259E-06  0.0086
   1.8086E+01   1.8526E+01   5.7982E-06  0.0089
   1.8526E+01   1.8977E+01   5.3395E-06  0.0091
   1.8977E+01   1.9439E+01   4.9092E-06  0.0094
   1.9439E+01   1.9912E+01   4.5794E-06  0.0096
   1.9912E+01   2.0396E+01   4.0318E-06  0.0101
   2.0396E+01   2.0893E+01   3.6058E-06  0.0106
   2.0893E+01   2.1401E+01   3.2967E-06  0.0109
   2.1401E+01   2.1922E+01   3.0355E-06  0.0112
   2.1922E+01   2.2455E+01   2.7744E-06  0.0116
   2.2455E+01   2.3001E+01   2.5262E-06  0.0120
   2.3001E+01   2.3561E+01   2.2332E-06  0.0127
   2.3561E+01   2.4134E+01   2.0235E-06  0.0131
   2.4134E+01   2.4721E+01   1.8726E-06  0.0135
   2.4721E+01   2.5323E+01   1.6196E-06  0.0143
   2.5323E+01   2.5939E+01   1.5214E-06  0.0146
   2.5939E+01   2.6570E+01   1.3373E-06  0.0154
   2.6570E+01   2.7217E+01   1.1926E-06  0.0161
   2.7217E+01   2.7879E+01   1.0824E-06  0.0167
   2.7879E+01   2.8557E+01   9.5089E-07  0.0176
   2.8557E+01   2.9252E+01   8.3245E-07  0.0186
   2.9252E+01   2.9964E+01   7.2978E-07  0.0196
   2.9964E+01   3.0693E+01   6.3508E-07  0.0208
   3.0693E+01   3.1440E+01   5.7099E-07  0.0217
   3.1440E+01   3.2205E+01   4.9912E-07  0.0229
   3.2205E+01   3.2988E+01   4.2702E-07  0.0244
   3.2988E+01   3.3791E+01   3.6406E-07  0.0262
   3.3791E+01   3.4613E+01   3.0165E-07  0.0284
   3.4613E+01   3.5455E+01   2.8237E-07  0.0290
   3.5455E+01   3.6318E+01   2.2837E-07  0.0319
   3.6318E+01   3.7201E+01   2.0778E-07  0.0330
   3.7201E+01   3.8106E+01   1.7611E-07  0.0354
   3.8106E+01   3.9034E+01   1.4388E-07  0.0387
   3.9034E+01   3.9983E+01   1.2783E-07  0.0406
   3.9983E+01   4.0956E+01   1.0197E-07  0.0449
   4.0956E+01   4.1953E+01   9.1721E-08  0.0468
   4.1953E+01   4.2973E+01   8.2293E-08  0.0488
   4.2973E+01   4.4019E+01   6.2932E-08  0.0551
   4.4019E+01   4.5090E+01   5.3407E-08  0.0591
   4.5090E+01   4.6187E+01   4.9586E-08  0.0606
   4.6187E+01   4.7311E+01   4.2358E-08  0.0648
   4.7311E+01   4.8462E+01   3.4228E-08  0.0712
   4.8462E+01   4.9641E+01   2.9005E-08  0.0765
   4.9641E+01   5.0849E+01   2.3845E-08  0.0833
   5.0849E+01   5.2086E+01   1.6166E-08  0.1000
   5.2086E+01   5.3353E+01   1.8307E-08  0.0928
   5.3353E+01   5.4651E+01   1.0631E-08  0.1204
   5.4651E+01   5.5981E+01   8.5733E-09  0.1325
   5.5981E+01   5.7343E+01   7.4886E-09  0.1400
   5.7343E+01   5.8738E+01   5.8773E-09  0.1562
   5.8738E+01   6.0168E+01   2.9388E-09  0.2182
   6.0168E+01   6.1632E+01   3.1422E-09  0.2085
   6.1632E+01   6.3131E+01   2.1340E-09  0.2500
   6.3131E+01   6.4667E+01   1.9531E-09  0.2582
   6.4667E+01   6.6240E+01   1.2711E-09  0.3162
   6.6240E+01   6.7852E+01   2.4819E-10  0.7071
   6.7852E+01   6.9503E+01   6.0573E-10  0.4472
   6.9503E+01   7.1194E+01   4.7307E-10  0.5000
   7.1194E+01   7.2926E+01   1.1546E-10  1.0000
   7.2926E+01   7.4701E+01   1.1272E-10  1.0000
   7.4701E+01   7.6518E+01   6.6024E-10  0.4082
   7.6518E+01   7.8380E+01   0.0000E+00  0.0000
   7.8380E+01   8.0287E+01   0.0000E+00  0.0000
   8.0287E+01   8.2240E+01   0.0000E+00  0.0000
   8.2240E+01   8.4241E+01   0.0000E+00  0.0000
   8.4241E+01   8.6291E+01   0.0000E+00  0.0000
   8.6291E+01   8.8391E+01   9.5259E-11  1.0000
   8.8391E+01   9.0541E+01   0.0000E+00  0.0000
   9.0541E+01   9.2744E+01   0.0000E+00  0.0000
   9.2744E+01   9.5001E+01   0.0000E+00  0.0000
   9.5001E+01   9.7312E+01   0.0000E+00  0.0000
   9.7312E+01   9.9680E+01   0.0000E+00  0.0000
   9.9680E+01   1.0211E+02   0.0000E+00  0.0000
   1.0211E+02   1.0459E+02   0.0000E+00  0.0000
   1.0459E+02   1.0713E+02   0.0000E+00  0.0000
   1.0713E+02   1.0974E+02   0.0000E+00  0.0000
   1.0974E+02   1.1241E+02   0.0000E+00  0.0000
   1.1241E+02   1.1515E+02   0.0000E+00  0.0000
   1.1515E+02   1.1795E+02   0.0000E+00  0.0000
   1.1795E+02   1.2082E+02   0.0000E+00  0.0000
   1.2082E+02   1.2376E+02   0.0000E+00  0.0000
   1.2376E+02   1.2677E+02   0.0000E+00  0.0000
   1.2677E+02   1.2985E+02   0.0000E+00  0.0000
   1.2985E+02   1.3301E+02   0.0000E+00  0.0000
   1.3301E+02   1.3625E+02   0.0000E+00  0.0000
   1.3625E+02   1.3956E+02   0.0000E+00  0.0000
   1.3956E+02   1.4296E+02   0.0000E+00  0.0000
   1.4296E+02   1.4644E+02   0.0000E+00  0.0000
   1.4644E+02   1.5000E+02   0.0000E+00  0.0000

#   sum over                 1.4361E-05
'no. =    1   reg = 119 - 219'
msuc: {\huge [t-cross] in region mesh}
msdr: {\it plotted by \ANGEL \version}
msdl: {\it calculated by \PHITS  3.28}
wt: s(0.7)
\vspace{-3}
  region surface crossing
  area  &=&   1.0000E+00 [cm^2]
e:
 
# Information for Restart Calculation
# This calculation was newly started
# istdev =  2 # 1:Batch variance, 2:History variance
# resc2  = 5.00000000000000000E+09 # Total source weight or Total source weight / maxcas
# resc3  = 5.00000000000000000E+09 # Total history number or Total batch number
# maxcas =   500000000 # History / Batch, only used for istdev=1
# bitrseed = 0110100000100010111000001110001111001110100100011111101000111001 # bit data of rseed
