[ T-Cross ]
    title = [t-cross] in region mesh
     mesh =  reg            # mesh type is region-wise
      reg =    1            # number of crossing regions
      non     r-from    r-to       area
      1       114       214        1.000000    
   e-type =    3            # e-mesh is log given by emin, emax and ne
     emin =  1.0000000E-02  # minimum value of e-mesh points
     emax =   150.0000      # maximum value of e-mesh points
#    edel =  2.4039514E-02  # mesh width of e-mesh points
       ne =    400          # number of e-mesh points
#    data = ( e(i), i = 1, ne + 1 )
#           1.00000E-02  1.02433E-02  1.04925E-02  1.07478E-02  1.10093E-02
#           1.12772E-02  1.15516E-02  1.18326E-02  1.21205E-02  1.24154E-02
#           1.27175E-02  1.30269E-02  1.33439E-02  1.36686E-02  1.40011E-02
#           1.43418E-02  1.46907E-02  1.50482E-02  1.54143E-02  1.57894E-02
#           1.61735E-02  1.65670E-02  1.69701E-02  1.73830E-02  1.78060E-02
#           1.82392E-02  1.86830E-02  1.91375E-02  1.96032E-02  2.00801E-02
#           2.05687E-02  2.10692E-02  2.15818E-02  2.21069E-02  2.26448E-02
#           2.31957E-02  2.37601E-02  2.43382E-02  2.49304E-02  2.55369E-02
#           2.61583E-02  2.67947E-02  2.74467E-02  2.81145E-02  2.87985E-02
#           2.94992E-02  3.02169E-02  3.09521E-02  3.17052E-02  3.24766E-02
#           3.32668E-02  3.40762E-02  3.49053E-02  3.57546E-02  3.66246E-02
#           3.75157E-02  3.84284E-02  3.93634E-02  4.03212E-02  4.13022E-02
#           4.23071E-02  4.33365E-02  4.43909E-02  4.54710E-02  4.65773E-02
#           4.77106E-02  4.88714E-02  5.00605E-02  5.12785E-02  5.25262E-02
#           5.38042E-02  5.51133E-02  5.64542E-02  5.78278E-02  5.92348E-02
#           6.06760E-02  6.21523E-02  6.36645E-02  6.52135E-02  6.68002E-02
#           6.84255E-02  7.00904E-02  7.17957E-02  7.35426E-02  7.53319E-02
#           7.71648E-02  7.90423E-02  8.09655E-02  8.29354E-02  8.49533E-02
#           8.70203E-02  8.91376E-02  9.13064E-02  9.35279E-02  9.58035E-02
#           9.81345E-02  1.00522E-01  1.02968E-01  1.05473E-01  1.08040E-01
#           1.10668E-01  1.13361E-01  1.16119E-01  1.18944E-01  1.21838E-01
#           1.24803E-01  1.27839E-01  1.30950E-01  1.34136E-01  1.37399E-01
#           1.40742E-01  1.44167E-01  1.47675E-01  1.51268E-01  1.54948E-01
#           1.58718E-01  1.62580E-01  1.66535E-01  1.70587E-01  1.74738E-01
#           1.78989E-01  1.83344E-01  1.87805E-01  1.92375E-01  1.97055E-01
#           2.01850E-01  2.06761E-01  2.11792E-01  2.16945E-01  2.22223E-01
#           2.27630E-01  2.33169E-01  2.38842E-01  2.44653E-01  2.50605E-01
#           2.56703E-01  2.62949E-01  2.69346E-01  2.75900E-01  2.82613E-01
#           2.89489E-01  2.96532E-01  3.03747E-01  3.11138E-01  3.18708E-01
#           3.26462E-01  3.34405E-01  3.42542E-01  3.50876E-01  3.59413E-01
#           3.68158E-01  3.77116E-01  3.86291E-01  3.95690E-01  4.05317E-01
#           4.15179E-01  4.25281E-01  4.35628E-01  4.46227E-01  4.57084E-01
#           4.68205E-01  4.79597E-01  4.91266E-01  5.03219E-01  5.15463E-01
#           5.28005E-01  5.40851E-01  5.54011E-01  5.67490E-01  5.81298E-01
#           5.95441E-01  6.09929E-01  6.24769E-01  6.39970E-01  6.55541E-01
#           6.71491E-01  6.87828E-01  7.04564E-01  7.21706E-01  7.39266E-01
#           7.57253E-01  7.75678E-01  7.94551E-01  8.13883E-01  8.33685E-01
#           8.53969E-01  8.74747E-01  8.96030E-01  9.17831E-01  9.40163E-01
#           9.63038E-01  9.86469E-01  1.01047E+00  1.03506E+00  1.06024E+00
#           1.08604E+00  1.11246E+00  1.13953E+00  1.16725E+00  1.19565E+00
#           1.22474E+00  1.25454E+00  1.28507E+00  1.31633E+00  1.34836E+00
#           1.38117E+00  1.41477E+00  1.44920E+00  1.48446E+00  1.52057E+00
#           1.55757E+00  1.59547E+00  1.63429E+00  1.67405E+00  1.71478E+00
#           1.75650E+00  1.79924E+00  1.84302E+00  1.88786E+00  1.93379E+00
#           1.98084E+00  2.02904E+00  2.07841E+00  2.12898E+00  2.18078E+00
#           2.23384E+00  2.28819E+00  2.34386E+00  2.40089E+00  2.45930E+00
#           2.51914E+00  2.58043E+00  2.64322E+00  2.70753E+00  2.77341E+00
#           2.84088E+00  2.91001E+00  2.98081E+00  3.05333E+00  3.12762E+00
#           3.20372E+00  3.28167E+00  3.36152E+00  3.44330E+00  3.52708E+00
#           3.61290E+00  3.70080E+00  3.79085E+00  3.88308E+00  3.97756E+00
#           4.07434E+00  4.17347E+00  4.27501E+00  4.37903E+00  4.48557E+00
#           4.59471E+00  4.70650E+00  4.82102E+00  4.93832E+00  5.05847E+00
#           5.18155E+00  5.30762E+00  5.43676E+00  5.56904E+00  5.70453E+00
#           5.84333E+00  5.98550E+00  6.13114E+00  6.28031E+00  6.43312E+00
#           6.58964E+00  6.74997E+00  6.91420E+00  7.08243E+00  7.25475E+00
#           7.43126E+00  7.61207E+00  7.79728E+00  7.98700E+00  8.18133E+00
#           8.38038E+00  8.58428E+00  8.79315E+00  9.00709E+00  9.22624E+00
#           9.45072E+00  9.68067E+00  9.91620E+00  1.01575E+01  1.04046E+01
#           1.06578E+01  1.09171E+01  1.11827E+01  1.14548E+01  1.17335E+01
#           1.20190E+01  1.23114E+01  1.26109E+01  1.29178E+01  1.32321E+01
#           1.35540E+01  1.38838E+01  1.42216E+01  1.45676E+01  1.49221E+01
#           1.52851E+01  1.56570E+01  1.60380E+01  1.64282E+01  1.68279E+01
#           1.72374E+01  1.76568E+01  1.80864E+01  1.85264E+01  1.89772E+01
#           1.94389E+01  1.99119E+01  2.03963E+01  2.08926E+01  2.14009E+01
#           2.19216E+01  2.24550E+01  2.30014E+01  2.35610E+01  2.41343E+01
#           2.47215E+01  2.53230E+01  2.59391E+01  2.65702E+01  2.72167E+01
#           2.78789E+01  2.85572E+01  2.92520E+01  2.99637E+01  3.06928E+01
#           3.14396E+01  3.22045E+01  3.29881E+01  3.37907E+01  3.46128E+01
#           3.54550E+01  3.63177E+01  3.72013E+01  3.81064E+01  3.90336E+01
#           3.99833E+01  4.09561E+01  4.19526E+01  4.29734E+01  4.40189E+01
#           4.50900E+01  4.61870E+01  4.73108E+01  4.84619E+01  4.96410E+01
#           5.08488E+01  5.20860E+01  5.33533E+01  5.46514E+01  5.59812E+01
#           5.73432E+01  5.87384E+01  6.01676E+01  6.16315E+01  6.31311E+01
#           6.46671E+01  6.62405E+01  6.78522E+01  6.95031E+01  7.11941E+01
#           7.29263E+01  7.47007E+01  7.65182E+01  7.83800E+01  8.02870E+01
#           8.22405E+01  8.42414E+01  8.62911E+01  8.83906E+01  9.05412E+01
#           9.27442E+01  9.50007E+01  9.73122E+01  9.96799E+01  1.02105E+02
#           1.04589E+02  1.07134E+02  1.09741E+02  1.12411E+02  1.15146E+02
#           1.17948E+02  1.20817E+02  1.23757E+02  1.26768E+02  1.29852E+02
#           1.33012E+02  1.36248E+02  1.39563E+02  1.42959E+02  1.46437E+02
#           1.50000E+02
     unit =    2            # unit is [1/cm^2/(MeV/n)/source]
     axis =  eng            # axis of output
     file = detector-15.out  # file name of output for the above axis
   output = f-curr          # surface crossing forward current spectrum
     part =  neutron  
# kf/name :  2112     
#    used :        main (  %)        temp (  %)       total (  %)
#  memory :         414 (  0)           0 (  0)         414 (  0)

#------------------------------------------------------------------------------
#newpage:
#   no. =    1   reg = 114 - 214

x: Energy [MeV/n]
y:  F-Curr [1/cm^2/(MeV/n)/source]         
p: xlog ylog afac(0.8) form(0.9)
h: n            x            y(neutron ),hh0l   n 
#  e-lower      e-upper      neutron     r.err 
   1.0000E-02   1.0243E-02   3.9867E-03  0.0454
   1.0243E-02   1.0493E-02   4.1087E-03  0.0442
   1.0493E-02   1.0748E-02   3.8779E-03  0.0449
   1.0748E-02   1.1009E-02   4.1606E-03  0.0429
   1.1009E-02   1.1277E-02   3.9796E-03  0.0433
   1.1277E-02   1.1552E-02   4.0454E-03  0.0424
   1.1552E-02   1.1833E-02   4.0490E-03  0.0419
   1.1833E-02   1.2121E-02   4.1612E-03  0.0409
   1.2121E-02   1.2415E-02   4.0556E-03  0.0409
   1.2415E-02   1.2718E-02   4.0519E-03  0.0404
   1.2718E-02   1.3027E-02   3.9298E-03  0.0406
   1.3027E-02   1.3344E-02   3.9185E-03  0.0401
   1.3344E-02   1.3669E-02   4.0164E-03  0.0392
   1.3669E-02   1.4001E-02   3.8368E-03  0.0396
   1.4001E-02   1.4342E-02   3.7809E-03  0.0394
   1.4342E-02   1.4691E-02   3.7484E-03  0.0391
   1.4691E-02   1.5048E-02   3.9168E-03  0.0378
   1.5048E-02   1.5414E-02   3.7800E-03  0.0380
   1.5414E-02   1.5789E-02   3.9835E-03  0.0366
   1.5789E-02   1.6174E-02   3.9254E-03  0.0364
   1.6174E-02   1.6567E-02   3.7813E-03  0.0367
   1.6567E-02   1.6970E-02   3.5873E-03  0.0372
   1.6970E-02   1.7383E-02   3.5651E-03  0.0369
   1.7383E-02   1.7806E-02   3.8540E-03  0.0350
   1.7806E-02   1.8239E-02   3.6193E-03  0.0357
   1.8239E-02   1.8683E-02   3.4792E-03  0.0360
   1.8683E-02   1.9138E-02   3.6958E-03  0.0345
   1.9138E-02   1.9603E-02   3.3889E-03  0.0356
   1.9603E-02   2.0080E-02   3.4552E-03  0.0348
   2.0080E-02   2.0569E-02   3.5737E-03  0.0338
   2.0569E-02   2.1069E-02   3.3809E-03  0.0344
   2.1069E-02   2.1582E-02   3.4060E-03  0.0338
   2.1582E-02   2.2107E-02   3.4698E-03  0.0331
   2.2107E-02   2.2645E-02   3.3725E-03  0.0332
   2.2645E-02   2.3196E-02   3.3832E-03  0.0328
   2.3196E-02   2.3760E-02   3.4445E-03  0.0321
   2.3760E-02   2.4338E-02   3.2676E-03  0.0325
   2.4338E-02   2.4930E-02   3.2086E-03  0.0324
   2.4930E-02   2.5537E-02   3.2873E-03  0.0317
   2.5537E-02   2.6158E-02   3.4506E-03  0.0305
   2.6158E-02   2.6795E-02   3.3781E-03  0.0305
   2.6795E-02   2.7447E-02   3.4022E-03  0.0300
   2.7447E-02   2.8114E-02   3.3753E-03  0.0298
   2.8114E-02   2.8799E-02   3.1898E-03  0.0303
   2.8799E-02   2.9499E-02   3.3281E-03  0.0293
   2.9499E-02   3.0217E-02   3.2212E-03  0.0294
   3.0217E-02   3.0952E-02   3.1610E-03  0.0293
   3.0952E-02   3.1705E-02   3.2745E-03  0.0285
   3.1705E-02   3.2477E-02   3.0334E-03  0.0292
   3.2477E-02   3.3267E-02   3.1638E-03  0.0283
   3.3267E-02   3.4076E-02   3.0763E-03  0.0283
   3.4076E-02   3.4905E-02   3.2710E-03  0.0272
   3.4905E-02   3.5755E-02   2.8825E-03  0.0286
   3.5755E-02   3.6625E-02   3.0232E-03  0.0276
   3.6625E-02   3.7516E-02   2.9873E-03  0.0274
   3.7516E-02   3.8428E-02   3.1026E-03  0.0266
   3.8428E-02   3.9363E-02   2.9883E-03  0.0268
   3.9363E-02   4.0321E-02   2.9214E-03  0.0267
   4.0321E-02   4.1302E-02   2.9234E-03  0.0264
   4.1302E-02   4.2307E-02   2.9634E-03  0.0259
   4.2307E-02   4.3337E-02   3.0018E-03  0.0254
   4.3337E-02   4.4391E-02   2.9192E-03  0.0255
   4.4391E-02   4.5471E-02   2.9294E-03  0.0251
   4.5471E-02   4.6577E-02   2.9376E-03  0.0248
   4.6577E-02   4.7711E-02   2.7461E-03  0.0254
   4.7711E-02   4.8871E-02   2.8479E-03  0.0246
   4.8871E-02   5.0061E-02   2.7534E-03  0.0247
   5.0061E-02   5.1279E-02   2.8489E-03  0.0240
   5.1279E-02   5.2526E-02   2.8149E-03  0.0239
   5.2526E-02   5.3804E-02   2.7355E-03  0.0239
   5.3804E-02   5.5113E-02   2.7240E-03  0.0237
   5.5113E-02   5.6454E-02   2.7876E-03  0.0231
   5.6454E-02   5.7828E-02   2.7636E-03  0.0230
   5.7828E-02   5.9235E-02   2.6823E-03  0.0230
   5.9235E-02   6.0676E-02   2.6075E-03  0.0231
   6.0676E-02   6.2152E-02   2.7081E-03  0.0224
   6.2152E-02   6.3665E-02   2.7060E-03  0.0221
   6.3665E-02   6.5214E-02   2.5797E-03  0.0224
   6.5214E-02   6.6800E-02   2.4932E-03  0.0225
   6.6800E-02   6.8426E-02   2.6752E-03  0.0214
   6.8426E-02   7.0090E-02   2.6309E-03  0.0214
   7.0090E-02   7.1796E-02   2.6047E-03  0.0212
   7.1796E-02   7.3543E-02   2.4833E-03  0.0215
   7.3543E-02   7.5332E-02   2.5216E-03  0.0211
   7.5332E-02   7.7165E-02   2.4475E-03  0.0211
   7.7165E-02   7.9042E-02   2.5321E-03  0.0205
   7.9042E-02   8.0965E-02   2.4741E-03  0.0205
   8.0965E-02   8.2935E-02   2.5046E-03  0.0201
   8.2935E-02   8.4953E-02   2.4253E-03  0.0202
   8.4953E-02   8.7020E-02   2.3237E-03  0.0204
   8.7020E-02   8.9138E-02   2.4362E-03  0.0197
   8.9138E-02   9.1306E-02   2.2492E-03  0.0202
   9.1306E-02   9.3528E-02   2.3069E-03  0.0198
   9.3528E-02   9.5804E-02   2.3554E-03  0.0193
   9.5804E-02   9.8134E-02   2.3338E-03  0.0192
   9.8134E-02   1.0052E-01   2.2331E-03  0.0194
   1.0052E-01   1.0297E-01   2.2561E-03  0.0190
   1.0297E-01   1.0547E-01   2.2177E-03  0.0190
   1.0547E-01   1.0804E-01   2.1978E-03  0.0188
   1.0804E-01   1.1067E-01   2.2209E-03  0.0185
   1.1067E-01   1.1336E-01   2.2528E-03  0.0182
   1.1336E-01   1.1612E-01   2.2029E-03  0.0181
   1.1612E-01   1.1894E-01   2.1421E-03  0.0182
   1.1894E-01   1.2184E-01   2.1140E-03  0.0181
   1.2184E-01   1.2480E-01   2.1481E-03  0.0177
   1.2480E-01   1.2784E-01   2.1860E-03  0.0174
   1.2784E-01   1.3095E-01   1.9962E-03  0.0179
   1.3095E-01   1.3414E-01   2.0790E-03  0.0174
   1.3414E-01   1.3740E-01   2.0719E-03  0.0172
   1.3740E-01   1.4074E-01   2.0795E-03  0.0170
   1.4074E-01   1.4417E-01   2.0080E-03  0.0171
   1.4417E-01   1.4767E-01   2.0161E-03  0.0168
   1.4767E-01   1.5127E-01   1.9939E-03  0.0167
   1.5127E-01   1.5495E-01   1.9894E-03  0.0165
   1.5495E-01   1.5872E-01   1.9501E-03  0.0165
   1.5872E-01   1.6258E-01   1.8950E-03  0.0165
   1.6258E-01   1.6654E-01   1.9516E-03  0.0161
   1.6654E-01   1.7059E-01   1.8756E-03  0.0162
   1.7059E-01   1.7474E-01   1.8952E-03  0.0159
   1.7474E-01   1.7899E-01   1.8408E-03  0.0160
   1.7899E-01   1.8334E-01   1.8361E-03  0.0158
   1.8334E-01   1.8781E-01   1.8350E-03  0.0156
   1.8781E-01   1.9237E-01   1.7324E-03  0.0159
   1.9237E-01   1.9706E-01   1.7694E-03  0.0155
   1.9706E-01   2.0185E-01   1.7687E-03  0.0154
   2.0185E-01   2.0676E-01   1.7910E-03  0.0151
   2.0676E-01   2.1179E-01   1.7521E-03  0.0151
   2.1179E-01   2.1694E-01   1.6887E-03  0.0152
   2.1694E-01   2.2222E-01   1.7126E-03  0.0149
   2.2222E-01   2.2763E-01   1.6638E-03  0.0149
   2.2763E-01   2.3317E-01   1.6232E-03  0.0149
   2.3317E-01   2.3884E-01   1.6389E-03  0.0147
   2.3884E-01   2.4465E-01   1.6534E-03  0.0144
   2.4465E-01   2.5061E-01   1.6191E-03  0.0144
   2.5061E-01   2.5670E-01   1.5777E-03  0.0144
   2.5670E-01   2.6295E-01   1.5579E-03  0.0143
   2.6295E-01   2.6935E-01   1.5702E-03  0.0141
   2.6935E-01   2.7590E-01   1.5055E-03  0.0142
   2.7590E-01   2.8261E-01   1.4959E-03  0.0141
   2.8261E-01   2.8949E-01   1.4872E-03  0.0140
   2.8949E-01   2.9653E-01   1.4933E-03  0.0138
   2.9653E-01   3.0375E-01   1.4234E-03  0.0140
   3.0375E-01   3.1114E-01   1.3915E-03  0.0139
   3.1114E-01   3.1871E-01   1.4288E-03  0.0136
   3.1871E-01   3.2646E-01   1.3634E-03  0.0138
   3.2646E-01   3.3441E-01   1.3521E-03  0.0136
   3.3441E-01   3.4254E-01   1.3566E-03  0.0135
   3.4254E-01   3.5088E-01   1.3536E-03  0.0133
   3.5088E-01   3.5941E-01   1.3068E-03  0.0134
   3.5941E-01   3.6816E-01   1.2804E-03  0.0134
   3.6816E-01   3.7712E-01   1.2700E-03  0.0133
   3.7712E-01   3.8629E-01   1.2754E-03  0.0131
   3.8629E-01   3.9569E-01   1.2314E-03  0.0131
   3.9569E-01   4.0532E-01   1.2084E-03  0.0131
   4.0532E-01   4.1518E-01   1.1982E-03  0.0130
   4.1518E-01   4.2528E-01   1.1497E-03  0.0131
   4.2528E-01   4.3563E-01   1.1355E-03  0.0130
   4.3563E-01   4.4623E-01   1.1309E-03  0.0129
   4.4623E-01   4.5708E-01   1.0994E-03  0.0129
   4.5708E-01   4.6821E-01   1.0743E-03  0.0129
   4.6821E-01   4.7960E-01   1.0490E-03  0.0129
   4.7960E-01   4.9127E-01   1.0352E-03  0.0129
   4.9127E-01   5.0322E-01   1.0381E-03  0.0127
   5.0322E-01   5.1546E-01   1.0016E-03  0.0128
   5.1546E-01   5.2800E-01   1.0094E-03  0.0126
   5.2800E-01   5.4085E-01   9.6849E-04  0.0127
   5.4085E-01   5.5401E-01   9.7467E-04  0.0125
   5.5401E-01   5.6749E-01   9.3253E-04  0.0126
   5.6749E-01   5.8130E-01   9.1863E-04  0.0126
   5.8130E-01   5.9544E-01   8.8013E-04  0.0127
   5.9544E-01   6.0993E-01   8.5356E-04  0.0127
   6.0993E-01   6.2477E-01   8.3342E-04  0.0127
   6.2477E-01   6.3997E-01   8.1172E-04  0.0127
   6.3997E-01   6.5554E-01   7.9237E-04  0.0127
   6.5554E-01   6.7149E-01   7.7280E-04  0.0127
   6.7149E-01   6.8783E-01   7.6558E-04  0.0126
   6.8783E-01   7.0456E-01   7.3138E-04  0.0128
   7.0456E-01   7.2171E-01   7.1168E-04  0.0128
   7.2171E-01   7.3927E-01   6.9990E-04  0.0128
   7.3927E-01   7.5725E-01   6.5903E-04  0.0130
   7.5725E-01   7.7568E-01   6.6965E-04  0.0127
   7.7568E-01   7.9455E-01   6.2524E-04  0.0130
   7.9455E-01   8.1388E-01   6.2683E-04  0.0129
   8.1388E-01   8.3368E-01   5.8488E-04  0.0131
   8.3368E-01   8.5397E-01   5.6980E-04  0.0132
   8.5397E-01   8.7475E-01   5.4741E-04  0.0133
   8.7475E-01   8.9603E-01   5.2642E-04  0.0134
   8.9603E-01   9.1783E-01   5.1649E-04  0.0133
   9.1783E-01   9.4016E-01   4.9526E-04  0.0134
   9.4016E-01   9.6304E-01   4.6925E-04  0.0137
   9.6304E-01   9.8647E-01   4.4794E-04  0.0138
   9.8647E-01   1.0105E+00   4.3722E-04  0.0138
   1.0105E+00   1.0351E+00   4.3147E-04  0.0137
   1.0351E+00   1.0602E+00   4.3727E-04  0.0135
   1.0602E+00   1.0860E+00   4.4231E-04  0.0132
   1.0860E+00   1.1125E+00   4.4232E-04  0.0131
   1.1125E+00   1.1395E+00   4.4704E-04  0.0129
   1.1395E+00   1.1673E+00   4.6268E-04  0.0125
   1.1673E+00   1.1957E+00   4.6887E-04  0.0123
   1.1957E+00   1.2247E+00   4.7520E-04  0.0120
   1.2247E+00   1.2545E+00   4.8820E-04  0.0117
   1.2545E+00   1.2851E+00   4.9364E-04  0.0115
   1.2851E+00   1.3163E+00   4.8876E-04  0.0114
   1.3163E+00   1.3484E+00   4.8977E-04  0.0113
   1.3484E+00   1.3812E+00   4.9734E-04  0.0111
   1.3812E+00   1.4148E+00   5.0362E-04  0.0109
   1.4148E+00   1.4492E+00   5.1309E-04  0.0106
   1.4492E+00   1.4845E+00   4.9830E-04  0.0107
   1.4845E+00   1.5206E+00   4.8718E-04  0.0107
   1.5206E+00   1.5576E+00   4.9518E-04  0.0105
   1.5576E+00   1.5955E+00   4.9877E-04  0.0103
   1.5955E+00   1.6343E+00   4.8961E-04  0.0103
   1.6343E+00   1.6741E+00   4.9965E-04  0.0100
   1.6741E+00   1.7148E+00   5.0676E-04  0.0098
   1.7148E+00   1.7565E+00   4.9978E-04  0.0098
   1.7565E+00   1.7992E+00   4.9713E-04  0.0097
   1.7992E+00   1.8430E+00   4.8688E-04  0.0097
   1.8430E+00   1.8879E+00   4.8468E-04  0.0096
   1.8879E+00   1.9338E+00   4.7974E-04  0.0095
   1.9338E+00   1.9808E+00   4.7153E-04  0.0095
   1.9808E+00   2.0290E+00   4.7187E-04  0.0094
   2.0290E+00   2.0784E+00   4.7049E-04  0.0093
   2.0784E+00   2.1290E+00   4.5106E-04  0.0094
   2.1290E+00   2.1808E+00   4.4857E-04  0.0093
   2.1808E+00   2.2338E+00   4.3615E-04  0.0093
   2.2338E+00   2.2882E+00   4.3212E-04  0.0092
   2.2882E+00   2.3439E+00   4.2092E-04  0.0092
   2.3439E+00   2.4009E+00   4.1111E-04  0.0092
   2.4009E+00   2.4593E+00   4.1342E-04  0.0091
   2.4593E+00   2.5191E+00   3.9665E-04  0.0092
   2.5191E+00   2.5804E+00   3.9204E-04  0.0091
   2.5804E+00   2.6432E+00   3.7664E-04  0.0092
   2.6432E+00   2.7075E+00   3.6166E-04  0.0093
   2.7075E+00   2.7734E+00   3.5922E-04  0.0092
   2.7734E+00   2.8409E+00   3.5362E-04  0.0092
   2.8409E+00   2.9100E+00   3.4322E-04  0.0092
   2.9100E+00   2.9808E+00   3.4041E-04  0.0091
   2.9808E+00   3.0533E+00   3.2546E-04  0.0092
   3.0533E+00   3.1276E+00   3.1856E-04  0.0092
   3.1276E+00   3.2037E+00   3.0766E-04  0.0093
   3.2037E+00   3.2817E+00   2.9101E-04  0.0094
   3.2817E+00   3.3615E+00   2.8833E-04  0.0093
   3.3615E+00   3.4433E+00   2.7532E-04  0.0094
   3.4433E+00   3.5271E+00   2.6439E-04  0.0095
   3.5271E+00   3.6129E+00   2.5834E-04  0.0095
   3.6129E+00   3.7008E+00   2.5059E-04  0.0095
   3.7008E+00   3.7908E+00   2.4066E-04  0.0096
   3.7908E+00   3.8831E+00   2.2996E-04  0.0097
   3.8831E+00   3.9776E+00   2.2517E-04  0.0097
   3.9776E+00   4.0743E+00   2.1763E-04  0.0098
   4.0743E+00   4.1735E+00   2.0832E-04  0.0098
   4.1735E+00   4.2750E+00   2.0180E-04  0.0099
   4.2750E+00   4.3790E+00   1.9268E-04  0.0100
   4.3790E+00   4.4856E+00   1.8372E-04  0.0101
   4.4856E+00   4.5947E+00   1.8159E-04  0.0101
   4.5947E+00   4.7065E+00   1.6881E-04  0.0103
   4.7065E+00   4.8210E+00   1.6349E-04  0.0103
   4.8210E+00   4.9383E+00   1.5506E-04  0.0105
   4.9383E+00   5.0585E+00   1.5107E-04  0.0105
   5.0585E+00   5.1815E+00   1.4375E-04  0.0106
   5.1815E+00   5.3076E+00   1.3649E-04  0.0108
   5.3076E+00   5.4368E+00   1.2989E-04  0.0109
   5.4368E+00   5.5690E+00   1.2345E-04  0.0111
   5.5690E+00   5.7045E+00   1.1816E-04  0.0112
   5.7045E+00   5.8433E+00   1.1297E-04  0.0113
   5.8433E+00   5.9855E+00   1.1001E-04  0.0113
   5.9855E+00   6.1311E+00   1.0652E-04  0.0114
   6.1311E+00   6.2803E+00   1.0029E-04  0.0116
   6.2803E+00   6.4331E+00   9.5874E-05  0.0117
   6.4331E+00   6.5896E+00   9.1092E-05  0.0118
   6.5896E+00   6.7500E+00   8.7057E-05  0.0120
   6.7500E+00   6.9142E+00   8.3540E-05  0.0121
   6.9142E+00   7.0824E+00   8.1015E-05  0.0121
   7.0824E+00   7.2548E+00   7.5058E-05  0.0124
   7.2548E+00   7.4313E+00   7.0929E-05  0.0126
   7.4313E+00   7.6121E+00   6.9200E-05  0.0127
   7.6121E+00   7.7973E+00   6.5931E-05  0.0128
   7.7973E+00   7.9870E+00   6.4376E-05  0.0128
   7.9870E+00   8.1813E+00   5.9492E-05  0.0132
   8.1813E+00   8.3804E+00   5.7576E-05  0.0132
   8.3804E+00   8.5843E+00   5.5399E-05  0.0133
   8.5843E+00   8.7931E+00   5.3954E-05  0.0133
   8.7931E+00   9.0071E+00   5.1700E-05  0.0134
   9.0071E+00   9.2262E+00   4.8647E-05  0.0137
   9.2262E+00   9.4507E+00   4.8650E-05  0.0135
   9.4507E+00   9.6807E+00   4.6081E-05  0.0137
   9.6807E+00   9.9162E+00   4.4307E-05  0.0138
   9.9162E+00   1.0157E+01   4.3793E-05  0.0137
   1.0157E+01   1.0405E+01   4.3077E-05  0.0137
   1.0405E+01   1.0658E+01   4.1595E-05  0.0138
   1.0658E+01   1.0917E+01   4.0372E-05  0.0138
   1.0917E+01   1.1183E+01   3.9861E-05  0.0137
   1.1183E+01   1.1455E+01   3.8665E-05  0.0138
   1.1455E+01   1.1733E+01   3.8812E-05  0.0136
   1.1733E+01   1.2019E+01   3.7196E-05  0.0137
   1.2019E+01   1.2311E+01   3.8040E-05  0.0134
   1.2311E+01   1.2611E+01   3.7543E-05  0.0133
   1.2611E+01   1.2918E+01   3.7183E-05  0.0132
   1.2918E+01   1.3232E+01   3.6672E-05  0.0132
   1.3232E+01   1.3554E+01   3.6751E-05  0.0130
   1.3554E+01   1.3884E+01   3.7125E-05  0.0128
   1.3884E+01   1.4222E+01   3.6305E-05  0.0128
   1.4222E+01   1.4568E+01   3.5850E-05  0.0127
   1.4568E+01   1.4922E+01   3.5704E-05  0.0126
   1.4922E+01   1.5285E+01   3.5123E-05  0.0125
   1.5285E+01   1.5657E+01   3.5889E-05  0.0122
   1.5657E+01   1.6038E+01   3.5146E-05  0.0122
   1.6038E+01   1.6428E+01   3.4040E-05  0.0123
   1.6428E+01   1.6828E+01   3.4577E-05  0.0120
   1.6828E+01   1.7237E+01   3.5847E-05  0.0117
   1.7237E+01   1.7657E+01   3.3996E-05  0.0118
   1.7657E+01   1.8086E+01   3.5053E-05  0.0115
   1.8086E+01   1.8526E+01   3.4623E-05  0.0115
   1.8526E+01   1.8977E+01   3.3803E-05  0.0115
   1.8977E+01   1.9439E+01   3.3814E-05  0.0113
   1.9439E+01   1.9912E+01   3.3258E-05  0.0113
   1.9912E+01   2.0396E+01   3.2650E-05  0.0112
   2.0396E+01   2.0893E+01   3.2882E-05  0.0111
   2.0893E+01   2.1401E+01   3.1558E-05  0.0112
   2.1401E+01   2.1922E+01   3.1388E-05  0.0111
   2.1922E+01   2.2455E+01   3.0602E-05  0.0111
   2.2455E+01   2.3001E+01   2.8846E-05  0.0113
   2.3001E+01   2.3561E+01   2.8622E-05  0.0112
   2.3561E+01   2.4134E+01   2.7830E-05  0.0112
   2.4134E+01   2.4721E+01   2.6737E-05  0.0113
   2.4721E+01   2.5323E+01   2.5443E-05  0.0114
   2.5323E+01   2.5939E+01   2.5404E-05  0.0113
   2.5939E+01   2.6570E+01   2.3770E-05  0.0115
   2.6570E+01   2.7217E+01   2.3525E-05  0.0115
   2.7217E+01   2.7879E+01   2.2344E-05  0.0116
   2.7879E+01   2.8557E+01   2.2078E-05  0.0116
   2.8557E+01   2.9252E+01   2.0636E-05  0.0118
   2.9252E+01   2.9964E+01   1.9707E-05  0.0119
   2.9964E+01   3.0693E+01   1.9247E-05  0.0119
   3.0693E+01   3.1440E+01   1.7954E-05  0.0122
   3.1440E+01   3.2205E+01   1.7110E-05  0.0124
   3.2205E+01   3.2988E+01   1.6593E-05  0.0124
   3.2988E+01   3.3791E+01   1.5684E-05  0.0126
   3.3791E+01   3.4613E+01   1.4391E-05  0.0130
   3.4613E+01   3.5455E+01   1.3902E-05  0.0131
   3.5455E+01   3.6318E+01   1.3055E-05  0.0133
   3.6318E+01   3.7201E+01   1.2249E-05  0.0136
   3.7201E+01   3.8106E+01   1.1402E-05  0.0139
   3.8106E+01   3.9034E+01   1.0902E-05  0.0141
   3.9034E+01   3.9983E+01   1.0001E-05  0.0145
   3.9983E+01   4.0956E+01   9.4632E-06  0.0147
   4.0956E+01   4.1953E+01   8.5460E-06  0.0153
   4.1953E+01   4.2973E+01   7.9883E-06  0.0157
   4.2973E+01   4.4019E+01   7.4390E-06  0.0160
   4.4019E+01   4.5090E+01   6.7543E-06  0.0166
   4.5090E+01   4.6187E+01   6.2603E-06  0.0171
   4.6187E+01   4.7311E+01   5.9354E-06  0.0173
   4.7311E+01   4.8462E+01   5.1151E-06  0.0184
   4.8462E+01   4.9641E+01   4.7171E-06  0.0190
   4.9641E+01   5.0849E+01   4.2739E-06  0.0197
   5.0849E+01   5.2086E+01   3.7601E-06  0.0207
   5.2086E+01   5.3353E+01   3.4877E-06  0.0213
   5.3353E+01   5.4651E+01   3.2847E-06  0.0217
   5.4651E+01   5.5981E+01   2.7780E-06  0.0233
   5.5981E+01   5.7343E+01   2.5476E-06  0.0240
   5.7343E+01   5.8738E+01   2.3022E-06  0.0250
   5.8738E+01   6.0168E+01   1.9900E-06  0.0265
   6.0168E+01   6.1632E+01   1.7993E-06  0.0276
   6.1632E+01   6.3131E+01   1.5298E-06  0.0295
   6.3131E+01   6.4667E+01   1.3893E-06  0.0306
   6.4667E+01   6.6240E+01   1.1211E-06  0.0337
   6.6240E+01   6.7852E+01   1.0362E-06  0.0346
   6.7852E+01   6.9503E+01   8.3712E-07  0.0380
   6.9503E+01   7.1194E+01   7.4509E-07  0.0398
   7.1194E+01   7.2926E+01   5.8769E-07  0.0443
   7.2926E+01   7.4701E+01   5.3202E-07  0.0460
   7.4701E+01   7.6518E+01   4.5446E-07  0.0492
   7.6518E+01   7.8380E+01   3.5236E-07  0.0552
   7.8380E+01   8.0287E+01   2.9889E-07  0.0592
   8.0287E+01   8.2240E+01   2.1296E-07  0.0693
   8.2240E+01   8.4241E+01   2.1989E-07  0.0674
   8.4241E+01   8.6291E+01   1.6198E-07  0.0776
   8.6291E+01   8.8391E+01   1.2288E-07  0.0880
   8.8391E+01   9.0541E+01   9.3927E-08  0.0995
   9.0541E+01   9.2744E+01   9.8051E-08  0.0962
   9.2744E+01   9.5001E+01   4.9634E-08  0.1336
   9.5001E+01   9.7312E+01   4.4994E-08  0.1387
   9.7312E+01   9.9680E+01   3.3788E-08  0.1581
   9.9680E+01   1.0211E+02   2.3915E-08  0.1857
   1.0211E+02   1.0459E+02   1.4491E-08  0.2357
   1.0459E+02   1.0713E+02   1.1789E-08  0.2582
   1.0713E+02   1.0974E+02   7.6727E-09  0.3162
   1.0974E+02   1.1241E+02   7.4904E-09  0.3162
   1.1241E+02   1.1515E+02   5.1187E-09  0.3780
   1.1515E+02   1.1795E+02   2.1416E-09  0.5774
   1.1795E+02   1.2082E+02   2.0908E-09  0.5774
   1.2082E+02   1.2376E+02   6.8037E-10  1.0000
   1.2376E+02   1.2677E+02   0.0000E+00  0.0000
   1.2677E+02   1.2985E+02   0.0000E+00  0.0000
   1.2985E+02   1.3301E+02   0.0000E+00  0.0000
   1.3301E+02   1.3625E+02   0.0000E+00  0.0000
   1.3625E+02   1.3956E+02   0.0000E+00  0.0000
   1.3956E+02   1.4296E+02   0.0000E+00  0.0000
   1.4296E+02   1.4644E+02   0.0000E+00  0.0000
   1.4644E+02   1.5000E+02   0.0000E+00  0.0000

#   sum over                 2.5388E-05
'no. =    1   reg = 114 - 214'
msuc: {\huge [t-cross] in region mesh}
msdr: {\it plotted by \ANGEL \version}
msdl: {\it calculated by \PHITS  3.26}
wt: s(0.7)
\vspace{-3}
  region surface crossing
  area  &=&   1.0000E+00 [cm^2]
e:
 
# Information for Restart Calculation
# This calculation was newly started
# istdev =  2 # 1:Batch variance, 2:History variance
# resc2  = 5.00000000000000000E+08 # Total source weight or Total source weight / maxcas
# resc3  = 5.00000000000000000E+08 # Total history number or Total batch number
# maxcas =   500000000 # History / Batch, only used for istdev=1
# bitrseed = 1101101111010011011000101101110001100110110010110001010100010001 # bit data of rseed
