[ T-Cross ]
    title = [t-cross] in region mesh
     mesh =  reg            # mesh type is region-wise
      reg =    1            # number of crossing regions
      non     r-from    r-to       area
      1       107       207        1.000000    
   e-type =    3            # e-mesh is log given by emin, emax and ne
     emin =  1.0000000E-02  # minimum value of e-mesh points
     emax =   150.0000      # maximum value of e-mesh points
#    edel =  2.4039514E-02  # mesh width of e-mesh points
       ne =    400          # number of e-mesh points
#    data = ( e(i), i = 1, ne + 1 )
#           1.00000E-02  1.02433E-02  1.04925E-02  1.07478E-02  1.10093E-02
#           1.12772E-02  1.15516E-02  1.18326E-02  1.21205E-02  1.24154E-02
#           1.27175E-02  1.30269E-02  1.33439E-02  1.36686E-02  1.40011E-02
#           1.43418E-02  1.46907E-02  1.50482E-02  1.54143E-02  1.57894E-02
#           1.61735E-02  1.65670E-02  1.69701E-02  1.73830E-02  1.78060E-02
#           1.82392E-02  1.86830E-02  1.91375E-02  1.96032E-02  2.00801E-02
#           2.05687E-02  2.10692E-02  2.15818E-02  2.21069E-02  2.26448E-02
#           2.31957E-02  2.37601E-02  2.43382E-02  2.49304E-02  2.55369E-02
#           2.61583E-02  2.67947E-02  2.74467E-02  2.81145E-02  2.87985E-02
#           2.94992E-02  3.02169E-02  3.09521E-02  3.17052E-02  3.24766E-02
#           3.32668E-02  3.40762E-02  3.49053E-02  3.57546E-02  3.66246E-02
#           3.75157E-02  3.84284E-02  3.93634E-02  4.03212E-02  4.13022E-02
#           4.23071E-02  4.33365E-02  4.43909E-02  4.54710E-02  4.65773E-02
#           4.77106E-02  4.88714E-02  5.00605E-02  5.12785E-02  5.25262E-02
#           5.38042E-02  5.51133E-02  5.64542E-02  5.78278E-02  5.92348E-02
#           6.06760E-02  6.21523E-02  6.36645E-02  6.52135E-02  6.68002E-02
#           6.84255E-02  7.00904E-02  7.17957E-02  7.35426E-02  7.53319E-02
#           7.71648E-02  7.90423E-02  8.09655E-02  8.29354E-02  8.49533E-02
#           8.70203E-02  8.91376E-02  9.13064E-02  9.35279E-02  9.58035E-02
#           9.81345E-02  1.00522E-01  1.02968E-01  1.05473E-01  1.08040E-01
#           1.10668E-01  1.13361E-01  1.16119E-01  1.18944E-01  1.21838E-01
#           1.24803E-01  1.27839E-01  1.30950E-01  1.34136E-01  1.37399E-01
#           1.40742E-01  1.44167E-01  1.47675E-01  1.51268E-01  1.54948E-01
#           1.58718E-01  1.62580E-01  1.66535E-01  1.70587E-01  1.74738E-01
#           1.78989E-01  1.83344E-01  1.87805E-01  1.92375E-01  1.97055E-01
#           2.01850E-01  2.06761E-01  2.11792E-01  2.16945E-01  2.22223E-01
#           2.27630E-01  2.33169E-01  2.38842E-01  2.44653E-01  2.50605E-01
#           2.56703E-01  2.62949E-01  2.69346E-01  2.75900E-01  2.82613E-01
#           2.89489E-01  2.96532E-01  3.03747E-01  3.11138E-01  3.18708E-01
#           3.26462E-01  3.34405E-01  3.42542E-01  3.50876E-01  3.59413E-01
#           3.68158E-01  3.77116E-01  3.86291E-01  3.95690E-01  4.05317E-01
#           4.15179E-01  4.25281E-01  4.35628E-01  4.46227E-01  4.57084E-01
#           4.68205E-01  4.79597E-01  4.91266E-01  5.03219E-01  5.15463E-01
#           5.28005E-01  5.40851E-01  5.54011E-01  5.67490E-01  5.81298E-01
#           5.95441E-01  6.09929E-01  6.24769E-01  6.39970E-01  6.55541E-01
#           6.71491E-01  6.87828E-01  7.04564E-01  7.21706E-01  7.39266E-01
#           7.57253E-01  7.75678E-01  7.94551E-01  8.13883E-01  8.33685E-01
#           8.53969E-01  8.74747E-01  8.96030E-01  9.17831E-01  9.40163E-01
#           9.63038E-01  9.86469E-01  1.01047E+00  1.03506E+00  1.06024E+00
#           1.08604E+00  1.11246E+00  1.13953E+00  1.16725E+00  1.19565E+00
#           1.22474E+00  1.25454E+00  1.28507E+00  1.31633E+00  1.34836E+00
#           1.38117E+00  1.41477E+00  1.44920E+00  1.48446E+00  1.52057E+00
#           1.55757E+00  1.59547E+00  1.63429E+00  1.67405E+00  1.71478E+00
#           1.75650E+00  1.79924E+00  1.84302E+00  1.88786E+00  1.93379E+00
#           1.98084E+00  2.02904E+00  2.07841E+00  2.12898E+00  2.18078E+00
#           2.23384E+00  2.28819E+00  2.34386E+00  2.40089E+00  2.45930E+00
#           2.51914E+00  2.58043E+00  2.64322E+00  2.70753E+00  2.77341E+00
#           2.84088E+00  2.91001E+00  2.98081E+00  3.05333E+00  3.12762E+00
#           3.20372E+00  3.28167E+00  3.36152E+00  3.44330E+00  3.52708E+00
#           3.61290E+00  3.70080E+00  3.79085E+00  3.88308E+00  3.97756E+00
#           4.07434E+00  4.17347E+00  4.27501E+00  4.37903E+00  4.48557E+00
#           4.59471E+00  4.70650E+00  4.82102E+00  4.93832E+00  5.05847E+00
#           5.18155E+00  5.30762E+00  5.43676E+00  5.56904E+00  5.70453E+00
#           5.84333E+00  5.98550E+00  6.13114E+00  6.28031E+00  6.43312E+00
#           6.58964E+00  6.74997E+00  6.91420E+00  7.08243E+00  7.25475E+00
#           7.43126E+00  7.61207E+00  7.79728E+00  7.98700E+00  8.18133E+00
#           8.38038E+00  8.58428E+00  8.79315E+00  9.00709E+00  9.22624E+00
#           9.45072E+00  9.68067E+00  9.91620E+00  1.01575E+01  1.04046E+01
#           1.06578E+01  1.09171E+01  1.11827E+01  1.14548E+01  1.17335E+01
#           1.20190E+01  1.23114E+01  1.26109E+01  1.29178E+01  1.32321E+01
#           1.35540E+01  1.38838E+01  1.42216E+01  1.45676E+01  1.49221E+01
#           1.52851E+01  1.56570E+01  1.60380E+01  1.64282E+01  1.68279E+01
#           1.72374E+01  1.76568E+01  1.80864E+01  1.85264E+01  1.89772E+01
#           1.94389E+01  1.99119E+01  2.03963E+01  2.08926E+01  2.14009E+01
#           2.19216E+01  2.24550E+01  2.30014E+01  2.35610E+01  2.41343E+01
#           2.47215E+01  2.53230E+01  2.59391E+01  2.65702E+01  2.72167E+01
#           2.78789E+01  2.85572E+01  2.92520E+01  2.99637E+01  3.06928E+01
#           3.14396E+01  3.22045E+01  3.29881E+01  3.37907E+01  3.46128E+01
#           3.54550E+01  3.63177E+01  3.72013E+01  3.81064E+01  3.90336E+01
#           3.99833E+01  4.09561E+01  4.19526E+01  4.29734E+01  4.40189E+01
#           4.50900E+01  4.61870E+01  4.73108E+01  4.84619E+01  4.96410E+01
#           5.08488E+01  5.20860E+01  5.33533E+01  5.46514E+01  5.59812E+01
#           5.73432E+01  5.87384E+01  6.01676E+01  6.16315E+01  6.31311E+01
#           6.46671E+01  6.62405E+01  6.78522E+01  6.95031E+01  7.11941E+01
#           7.29263E+01  7.47007E+01  7.65182E+01  7.83800E+01  8.02870E+01
#           8.22405E+01  8.42414E+01  8.62911E+01  8.83906E+01  9.05412E+01
#           9.27442E+01  9.50007E+01  9.73122E+01  9.96799E+01  1.02105E+02
#           1.04589E+02  1.07134E+02  1.09741E+02  1.12411E+02  1.15146E+02
#           1.17948E+02  1.20817E+02  1.23757E+02  1.26768E+02  1.29852E+02
#           1.33012E+02  1.36248E+02  1.39563E+02  1.42959E+02  1.46437E+02
#           1.50000E+02
     unit =    2            # unit is [1/cm^2/(MeV/n)/source]
     axis =  eng            # axis of output
     file = detector-08.out  # file name of output for the above axis
   output = f-curr          # surface crossing forward current spectrum
     part =  neutron  
# kf/name :  2112     
#    used :        main (  %)        temp (  %)       total (  %)
#  memory :         414 (  0)           0 (  0)         414 (  0)

#------------------------------------------------------------------------------
#newpage:
#   no. =    1   reg = 107 - 207

x: Energy [MeV/n]
y:  F-Curr [1/cm^2/(MeV/n)/source]         
p: xlog ylog afac(0.8) form(0.9)
h: n            x            y(neutron ),hh0l   n 
#  e-lower      e-upper      neutron     r.err 
   1.0000E-02   1.0243E-02   7.2813E-06  0.3335
   1.0243E-02   1.0493E-02   8.6148E-06  0.3018
   1.0493E-02   1.0748E-02   1.3046E-05  0.2429
   1.0748E-02   1.1009E-02   6.6012E-06  0.3344
   1.1009E-02   1.1277E-02   7.4795E-06  0.3093
   1.1277E-02   1.1552E-02   7.7299E-06  0.3026
   1.1552E-02   1.1833E-02   8.9999E-06  0.2776
   1.1833E-02   1.2121E-02   7.3590E-06  0.3030
   1.2121E-02   1.2415E-02   7.4414E-06  0.3015
   1.2415E-02   1.2718E-02   1.3065E-05  0.2238
   1.2718E-02   1.3027E-02   7.7294E-06  0.2887
   1.3027E-02   1.3344E-02   4.4039E-06  0.3780
   1.3344E-02   1.3669E-02   6.1460E-06  0.3162
   1.3669E-02   1.4001E-02   5.9028E-06  0.3102
   1.4001E-02   1.4342E-02   8.1989E-06  0.2673
   1.4342E-02   1.4691E-02   5.7803E-06  0.3050
   1.4691E-02   1.5048E-02   6.7901E-06  0.2851
   1.5048E-02   1.5414E-02   5.8832E-06  0.3021
   1.5414E-02   1.5789E-02   8.3262E-06  0.2504
   1.5789E-02   1.6174E-02   8.7918E-06  0.2426
   1.6174E-02   1.6567E-02   3.9757E-06  0.3541
   1.6567E-02   1.6970E-02   4.9425E-06  0.3162
   1.6970E-02   1.7383E-02   5.6880E-06  0.2858
   1.7383E-02   1.7806E-02   4.6180E-06  0.3169
   1.7806E-02   1.8239E-02   5.4516E-06  0.2888
   1.8239E-02   1.8683E-02   4.8134E-06  0.3027
   1.8683E-02   1.9138E-02   4.6730E-06  0.2976
   1.9138E-02   1.9603E-02   5.2939E-06  0.2772
   1.9603E-02   2.0080E-02   7.0057E-06  0.2428
   2.0080E-02   2.0569E-02   6.1775E-06  0.2528
   2.0569E-02   2.1069E-02   3.4299E-06  0.3345
   2.1069E-02   2.1582E-02   5.8392E-06  0.2582
   2.1582E-02   2.2107E-02   4.1730E-06  0.3015
   2.2107E-02   2.2645E-02   7.1381E-06  0.2227
   2.2645E-02   2.3196E-02   2.4641E-06  0.3787
   2.3196E-02   2.3760E-02   7.3523E-06  0.2183
   2.3760E-02   2.4338E-02   5.8326E-06  0.2426
   2.4338E-02   2.4930E-02   6.6654E-06  0.2238
   2.4930E-02   2.5537E-02   4.8700E-06  0.2585
   2.5537E-02   2.6158E-02   5.0343E-06  0.2504
   2.6158E-02   2.6795E-02   3.6901E-06  0.2893
   2.6795E-02   2.7447E-02   4.4466E-06  0.2598
   2.7447E-02   2.8114E-02   4.7050E-06  0.2503
   2.8114E-02   2.8799E-02   2.8728E-06  0.3166
   2.8799E-02   2.9499E-02   2.8138E-06  0.3164
   2.9499E-02   3.0217E-02   4.1022E-06  0.2584
   3.0217E-02   3.0952E-02   3.7963E-06  0.2673
   3.0952E-02   3.1705E-02   5.4483E-06  0.2186
   3.1705E-02   3.2477E-02   4.0736E-06  0.2502
   3.2477E-02   3.3267E-02   1.9951E-06  0.3538
   3.3267E-02   3.4076E-02   1.6979E-06  0.3783
   3.4076E-02   3.4905E-02   3.2363E-06  0.2687
   3.4905E-02   3.5755E-02   4.4592E-06  0.2294
   3.5755E-02   3.6625E-02   1.7148E-06  0.3552
   3.6625E-02   3.7516E-02   1.5480E-06  0.3781
   3.7516E-02   3.8428E-02   2.4016E-06  0.3015
   3.8428E-02   3.9363E-02   2.9308E-06  0.2679
   3.9363E-02   4.0321E-02   3.2845E-06  0.2504
   4.0321E-02   4.1302E-02   2.6450E-06  0.2774
   4.1302E-02   4.2307E-02   2.8309E-06  0.2607
   4.2307E-02   4.3337E-02   2.7981E-06  0.2590
   4.3337E-02   4.4391E-02   2.9854E-06  0.2503
   4.4391E-02   4.5471E-02   1.8037E-06  0.3167
   4.5471E-02   4.6577E-02   3.0308E-06  0.2428
   4.6577E-02   4.7711E-02   3.5237E-06  0.2236
   4.7711E-02   4.8871E-02   2.3138E-06  0.2681
   4.8871E-02   5.0061E-02   2.5545E-06  0.2547
   5.0061E-02   5.1279E-02   2.4732E-06  0.2552
   5.1279E-02   5.2526E-02   1.7252E-06  0.3019
   5.2526E-02   5.3804E-02   1.6805E-06  0.3017
   5.3804E-02   5.5113E-02   2.7224E-06  0.2358
   5.5113E-02   5.6454E-02   3.0455E-06  0.2184
   5.6454E-02   5.7828E-02   2.1577E-06  0.2584
   5.7828E-02   5.9235E-02   2.1282E-06  0.2582
   5.9235E-02   6.0676E-02   1.3610E-06  0.3167
   6.0676E-02   6.2152E-02   1.6641E-06  0.2825
   6.2152E-02   6.3665E-02   2.3078E-06  0.2363
   6.3665E-02   6.5214E-02   2.1898E-06  0.2406
   6.5214E-02   6.6800E-02   1.8072E-06  0.2601
   6.6800E-02   6.8426E-02   2.3921E-06  0.2244
   6.8426E-02   7.0090E-02   1.7966E-06  0.2582
   7.0090E-02   7.1796E-02   3.0748E-06  0.1929
   7.1796E-02   7.3543E-02   1.5639E-06  0.2677
   7.3543E-02   7.5332E-02   1.3173E-06  0.2891
   7.5332E-02   7.7165E-02   2.5189E-06  0.2069
   7.7165E-02   7.9042E-02   1.0028E-06  0.3186
   7.9042E-02   8.0965E-02   2.0606E-06  0.2237
   8.0965E-02   8.2935E-02   2.2309E-06  0.2120
   8.2935E-02   8.4953E-02   1.7779E-06  0.2357
   8.4953E-02   8.7020E-02   2.0868E-06  0.2135
   8.7020E-02   8.9138E-02   1.9766E-06  0.2182
   8.9138E-02   9.1306E-02   1.4930E-06  0.2412
   9.1306E-02   9.3528E-02   1.4215E-06  0.2501
   9.3528E-02   9.5804E-02   1.6475E-06  0.2297
   9.5804E-02   9.8134E-02   1.2844E-06  0.2582
   9.8134E-02   1.0052E-01   1.2534E-06  0.2555
   1.0052E-01   1.0297E-01   1.1170E-06  0.2676
   1.0297E-01   1.0547E-01   1.2153E-06  0.2541
   1.0547E-01   1.0804E-01   2.2699E-06  0.1844
   1.0804E-01   1.1067E-01   1.1852E-06  0.2507
   1.1067E-01   1.1336E-01   2.2154E-06  0.1826
   1.1336E-01   1.1612E-01   2.3865E-06  0.1741
   1.1612E-01   1.1894E-01   2.3651E-06  0.1718
   1.1894E-01   1.2184E-01   1.8050E-06  0.1949
   1.2184E-01   1.2480E-01   2.8115E-06  0.1544
   1.2480E-01   1.2784E-01   2.1966E-06  0.1718
   1.2784E-01   1.3095E-01   1.7669E-06  0.1882
   1.3095E-01   1.3414E-01   2.7051E-06  0.1510
   1.3414E-01   1.3740E-01   2.7278E-06  0.1484
   1.3740E-01   1.4074E-01   2.8858E-06  0.1430
   1.4074E-01   1.4417E-01   3.2093E-06  0.1340
   1.4417E-01   1.4767E-01   3.2169E-06  0.1325
   1.4767E-01   1.5127E-01   2.9628E-06  0.1363
   1.5127E-01   1.5495E-01   3.1858E-06  0.1295
   1.5495E-01   1.5872E-01   3.6759E-06  0.1194
   1.5872E-01   1.6258E-01   3.9220E-06  0.1144
   1.6258E-01   1.6654E-01   4.0459E-06  0.1108
   1.6654E-01   1.7059E-01   3.8602E-06  0.1124
   1.7059E-01   1.7474E-01   4.4370E-06  0.1034
   1.7474E-01   1.7899E-01   4.6277E-06  0.1005
   1.7899E-01   1.8334E-01   4.4211E-06  0.1016
   1.8334E-01   1.8781E-01   5.2861E-06  0.0917
   1.8781E-01   1.9237E-01   5.0222E-06  0.0930
   1.9237E-01   1.9706E-01   5.7619E-06  0.0858
   1.9706E-01   2.0185E-01   5.1249E-06  0.0896
   2.0185E-01   2.0676E-01   5.6767E-06  0.0845
   2.0676E-01   2.1179E-01   6.1392E-06  0.0801
   2.1179E-01   2.1694E-01   7.2893E-06  0.0727
   2.1694E-01   2.2222E-01   7.2215E-06  0.0721
   2.2222E-01   2.2763E-01   7.6502E-06  0.0690
   2.2763E-01   2.3317E-01   8.1627E-06  0.0662
   2.3317E-01   2.3884E-01   7.0424E-06  0.0706
   2.3884E-01   2.4465E-01   9.5963E-06  0.0596
   2.4465E-01   2.5061E-01   9.7751E-06  0.0584
   2.5061E-01   2.5670E-01   8.8112E-06  0.0607
   2.5670E-01   2.6295E-01   1.1356E-05  0.0528
   2.6295E-01   2.6935E-01   1.0909E-05  0.0532
   2.6935E-01   2.7590E-01   1.0930E-05  0.0526
   2.7590E-01   2.8261E-01   1.1148E-05  0.0515
   2.8261E-01   2.8949E-01   1.2260E-05  0.0485
   2.8949E-01   2.9653E-01   1.1915E-05  0.0485
   2.9653E-01   3.0375E-01   1.2680E-05  0.0465
   3.0375E-01   3.1114E-01   1.2867E-05  0.0456
   3.1114E-01   3.1871E-01   1.4820E-05  0.0420
   3.1871E-01   3.2646E-01   1.3984E-05  0.0427
   3.2646E-01   3.3441E-01   1.6703E-05  0.0387
   3.3441E-01   3.4254E-01   1.6987E-05  0.0379
   3.4254E-01   3.5088E-01   1.6753E-05  0.0377
   3.5088E-01   3.5941E-01   1.7081E-05  0.0368
   3.5941E-01   3.6816E-01   1.9778E-05  0.0338
   3.6816E-01   3.7712E-01   2.0761E-05  0.0326
   3.7712E-01   3.8629E-01   2.0643E-05  0.0323
   3.8629E-01   3.9569E-01   2.2564E-05  0.0306
   3.9569E-01   4.0532E-01   2.3207E-05  0.0298
   4.0532E-01   4.1518E-01   2.3918E-05  0.0290
   4.1518E-01   4.2528E-01   2.5537E-05  0.0277
   4.2528E-01   4.3563E-01   2.5298E-05  0.0275
   4.3563E-01   4.4623E-01   2.6395E-05  0.0266
   4.4623E-01   4.5708E-01   2.7713E-05  0.0257
   4.5708E-01   4.6821E-01   2.8825E-05  0.0249
   4.6821E-01   4.7960E-01   2.9626E-05  0.0242
   4.7960E-01   4.9127E-01   2.9934E-05  0.0238
   4.9127E-01   5.0322E-01   3.1539E-05  0.0229
   5.0322E-01   5.1546E-01   3.2791E-05  0.0222
   5.1546E-01   5.2800E-01   3.3595E-05  0.0217
   5.2800E-01   5.4085E-01   3.6107E-05  0.0207
   5.4085E-01   5.5401E-01   3.7938E-05  0.0199
   5.5401E-01   5.6749E-01   3.9004E-05  0.0194
   5.6749E-01   5.8130E-01   3.8696E-05  0.0193
   5.8130E-01   5.9544E-01   3.9389E-05  0.0189
   5.9544E-01   6.0993E-01   4.1656E-05  0.0181
   6.0993E-01   6.2477E-01   4.3592E-05  0.0175
   6.2477E-01   6.3997E-01   4.5063E-05  0.0170
   6.3997E-01   6.5554E-01   4.6784E-05  0.0165
   6.5554E-01   6.7149E-01   4.8426E-05  0.0160
   6.7149E-01   6.8783E-01   4.8049E-05  0.0159
   6.8783E-01   7.0456E-01   4.9635E-05  0.0154
   7.0456E-01   7.2171E-01   5.2096E-05  0.0149
   7.2171E-01   7.3927E-01   5.3175E-05  0.0146
   7.3927E-01   7.5725E-01   5.4313E-05  0.0142
   7.5725E-01   7.7568E-01   5.6248E-05  0.0138
   7.7568E-01   7.9455E-01   6.0125E-05  0.0132
   7.9455E-01   8.1388E-01   5.8987E-05  0.0132
   8.1388E-01   8.3368E-01   6.0254E-05  0.0129
   8.3368E-01   8.5397E-01   6.2488E-05  0.0125
   8.5397E-01   8.7475E-01   6.1929E-05  0.0124
   8.7475E-01   8.9603E-01   6.5541E-05  0.0119
   8.9603E-01   9.1783E-01   6.4394E-05  0.0119
   9.1783E-01   9.4016E-01   6.7168E-05  0.0115
   9.4016E-01   9.6304E-01   6.7128E-05  0.0113
   9.6304E-01   9.8647E-01   6.6550E-05  0.0113
   9.8647E-01   1.0105E+00   6.6919E-05  0.0111
   1.0105E+00   1.0351E+00   6.6491E-05  0.0110
   1.0351E+00   1.0602E+00   6.7847E-05  0.0107
   1.0602E+00   1.0860E+00   6.8487E-05  0.0106
   1.0860E+00   1.1125E+00   6.9634E-05  0.0104
   1.1125E+00   1.1395E+00   7.0817E-05  0.0101
   1.1395E+00   1.1673E+00   7.4095E-05  0.0098
   1.1673E+00   1.1957E+00   7.7107E-05  0.0095
   1.1957E+00   1.2247E+00   7.6600E-05  0.0094
   1.2247E+00   1.2545E+00   7.9817E-05  0.0091
   1.2545E+00   1.2851E+00   8.0665E-05  0.0089
   1.2851E+00   1.3163E+00   8.2182E-05  0.0087
   1.3163E+00   1.3484E+00   8.4338E-05  0.0085
   1.3484E+00   1.3812E+00   8.5501E-05  0.0084
   1.3812E+00   1.4148E+00   8.6563E-05  0.0082
   1.4148E+00   1.4492E+00   8.8184E-05  0.0080
   1.4492E+00   1.4845E+00   8.9368E-05  0.0079
   1.4845E+00   1.5206E+00   9.0322E-05  0.0077
   1.5206E+00   1.5576E+00   9.0600E-05  0.0076
   1.5576E+00   1.5955E+00   9.0093E-05  0.0076
   1.5955E+00   1.6343E+00   9.1236E-05  0.0074
   1.6343E+00   1.6741E+00   9.0123E-05  0.0074
   1.6741E+00   1.7148E+00   8.9588E-05  0.0073
   1.7148E+00   1.7565E+00   9.0146E-05  0.0072
   1.7565E+00   1.7992E+00   8.5270E-05  0.0073
   1.7992E+00   1.8430E+00   7.7160E-05  0.0076
   1.8430E+00   1.8879E+00   7.1927E-05  0.0077
   1.8879E+00   1.9338E+00   7.0391E-05  0.0077
   1.9338E+00   1.9808E+00   6.9794E-05  0.0076
   1.9808E+00   2.0290E+00   6.8421E-05  0.0076
   2.0290E+00   2.0784E+00   7.0066E-05  0.0074
   2.0784E+00   2.1290E+00   7.2990E-05  0.0071
   2.1290E+00   2.1808E+00   7.7143E-05  0.0068
   2.1808E+00   2.2338E+00   8.0476E-05  0.0066
   2.2338E+00   2.2882E+00   7.9812E-05  0.0066
   2.2882E+00   2.3439E+00   7.5243E-05  0.0067
   2.3439E+00   2.4009E+00   7.4965E-05  0.0066
   2.4009E+00   2.4593E+00   7.4891E-05  0.0066
   2.4593E+00   2.5191E+00   7.4509E-05  0.0065
   2.5191E+00   2.5804E+00   7.5599E-05  0.0064
   2.5804E+00   2.6432E+00   7.5632E-05  0.0063
   2.6432E+00   2.7075E+00   7.5662E-05  0.0062
   2.7075E+00   2.7734E+00   7.4671E-05  0.0062
   2.7734E+00   2.8409E+00   7.4690E-05  0.0061
   2.8409E+00   2.9100E+00   7.5451E-05  0.0060
   2.9100E+00   2.9808E+00   7.4641E-05  0.0060
   2.9808E+00   3.0533E+00   7.6216E-05  0.0059
   3.0533E+00   3.1276E+00   7.4599E-05  0.0059
   3.1276E+00   3.2037E+00   7.4242E-05  0.0058
   3.2037E+00   3.2817E+00   7.4591E-05  0.0057
   3.2817E+00   3.3615E+00   7.3971E-05  0.0057
   3.3615E+00   3.4433E+00   7.5000E-05  0.0056
   3.4433E+00   3.5271E+00   7.4021E-05  0.0056
   3.5271E+00   3.6129E+00   7.4776E-05  0.0055
   3.6129E+00   3.7008E+00   7.4741E-05  0.0054
   3.7008E+00   3.7908E+00   7.2984E-05  0.0054
   3.7908E+00   3.8831E+00   7.3502E-05  0.0053
   3.8831E+00   3.9776E+00   7.3689E-05  0.0053
   3.9776E+00   4.0743E+00   7.2426E-05  0.0053
   4.0743E+00   4.1735E+00   7.1552E-05  0.0052
   4.1735E+00   4.2750E+00   7.1119E-05  0.0052
   4.2750E+00   4.3790E+00   7.0225E-05  0.0051
   4.3790E+00   4.4856E+00   6.8767E-05  0.0051
   4.4856E+00   4.5947E+00   6.7064E-05  0.0051
   4.5947E+00   4.7065E+00   6.6208E-05  0.0051
   4.7065E+00   4.8210E+00   6.5824E-05  0.0051
   4.8210E+00   4.9383E+00   6.5286E-05  0.0050
   4.9383E+00   5.0585E+00   6.5216E-05  0.0050
   5.0585E+00   5.1815E+00   6.4862E-05  0.0049
   5.1815E+00   5.3076E+00   6.4052E-05  0.0049
   5.3076E+00   5.4368E+00   6.3996E-05  0.0048
   5.4368E+00   5.5690E+00   6.3449E-05  0.0048
   5.5690E+00   5.7045E+00   6.2866E-05  0.0048
   5.7045E+00   5.8433E+00   6.2152E-05  0.0047
   5.8433E+00   5.9855E+00   6.2470E-05  0.0047
   5.9855E+00   6.1311E+00   6.1832E-05  0.0046
   6.1311E+00   6.2803E+00   6.1636E-05  0.0046
   6.2803E+00   6.4331E+00   6.1290E-05  0.0046
   6.4331E+00   6.5896E+00   6.1335E-05  0.0045
   6.5896E+00   6.7500E+00   6.0258E-05  0.0045
   6.7500E+00   6.9142E+00   6.0109E-05  0.0044
   6.9142E+00   7.0824E+00   5.9828E-05  0.0044
   7.0824E+00   7.2548E+00   5.9080E-05  0.0044
   7.2548E+00   7.4313E+00   5.8443E-05  0.0044
   7.4313E+00   7.6121E+00   5.8815E-05  0.0043
   7.6121E+00   7.7973E+00   5.7752E-05  0.0043
   7.7973E+00   7.9870E+00   5.7974E-05  0.0042
   7.9870E+00   8.1813E+00   5.6925E-05  0.0042
   8.1813E+00   8.3804E+00   5.5941E-05  0.0042
   8.3804E+00   8.5843E+00   5.5835E-05  0.0041
   8.5843E+00   8.7931E+00   5.4958E-05  0.0041
   8.7931E+00   9.0071E+00   5.4034E-05  0.0041
   9.0071E+00   9.2262E+00   5.3207E-05  0.0041
   9.2262E+00   9.4507E+00   5.1476E-05  0.0041
   9.4507E+00   9.6807E+00   5.0504E-05  0.0041
   9.6807E+00   9.9162E+00   5.0445E-05  0.0041
   9.9162E+00   1.0157E+01   5.3191E-05  0.0039
   1.0157E+01   1.0405E+01   5.0748E-05  0.0040
   1.0405E+01   1.0658E+01   4.8829E-05  0.0040
   1.0658E+01   1.0917E+01   4.5983E-05  0.0041
   1.0917E+01   1.1183E+01   4.4097E-05  0.0041
   1.1183E+01   1.1455E+01   4.2772E-05  0.0041
   1.1455E+01   1.1733E+01   4.1537E-05  0.0042
   1.1733E+01   1.2019E+01   4.0478E-05  0.0042
   1.2019E+01   1.2311E+01   3.8418E-05  0.0042
   1.2311E+01   1.2611E+01   3.7603E-05  0.0042
   1.2611E+01   1.2918E+01   3.5996E-05  0.0043
   1.2918E+01   1.3232E+01   3.4745E-05  0.0043
   1.3232E+01   1.3554E+01   3.3103E-05  0.0043
   1.3554E+01   1.3884E+01   3.1444E-05  0.0044
   1.3884E+01   1.4222E+01   2.9854E-05  0.0045
   1.4222E+01   1.4568E+01   2.8391E-05  0.0045
   1.4568E+01   1.4922E+01   2.6560E-05  0.0046
   1.4922E+01   1.5285E+01   2.5097E-05  0.0047
   1.5285E+01   1.5657E+01   2.3207E-05  0.0048
   1.5657E+01   1.6038E+01   2.1729E-05  0.0049
   1.6038E+01   1.6428E+01   1.9990E-05  0.0051
   1.6428E+01   1.6828E+01   1.8326E-05  0.0052
   1.6828E+01   1.7237E+01   1.6639E-05  0.0054
   1.7237E+01   1.7657E+01   1.4954E-05  0.0056
   1.7657E+01   1.8086E+01   1.3310E-05  0.0059
   1.8086E+01   1.8526E+01   1.1627E-05  0.0063
   1.8526E+01   1.8977E+01   1.0185E-05  0.0066
   1.8977E+01   1.9439E+01   8.7848E-06  0.0070
   1.9439E+01   1.9912E+01   7.5215E-06  0.0075
   1.9912E+01   2.0396E+01   6.5110E-06  0.0080
   2.0396E+01   2.0893E+01   5.3404E-06  0.0087
   2.0893E+01   2.1401E+01   4.3452E-06  0.0095
   2.1401E+01   2.1922E+01   3.4119E-06  0.0106
   2.1922E+01   2.2455E+01   2.6987E-06  0.0118
   2.2455E+01   2.3001E+01   1.9629E-06  0.0137
   2.3001E+01   2.3561E+01   1.4005E-06  0.0160
   2.3561E+01   2.4134E+01   9.4303E-07  0.0192
   2.4134E+01   2.4721E+01   5.8480E-07  0.0241
   2.4721E+01   2.5323E+01   2.8596E-07  0.0341
   2.5323E+01   2.5939E+01   9.6733E-08  0.0579
   2.5939E+01   2.6570E+01   1.1408E-08  0.1667
   2.6570E+01   2.7217E+01   1.8562E-09  0.4082
   2.7217E+01   2.7879E+01   1.8121E-09  0.4082
   2.7879E+01   2.8557E+01   8.8454E-10  0.5774
   2.8557E+01   2.9252E+01   1.1514E-09  0.5000
   2.9252E+01   2.9964E+01   1.1240E-09  0.5000
   2.9964E+01   3.0693E+01   2.7433E-10  1.0000
   3.0693E+01   3.1440E+01   2.6782E-10  1.0000
   3.1440E+01   3.2205E+01   0.0000E+00  0.0000
   3.2205E+01   3.2988E+01   5.1049E-10  0.7071
   3.2988E+01   3.3791E+01   2.4918E-10  1.0000
   3.3791E+01   3.4613E+01   0.0000E+00  0.0000
   3.4613E+01   3.5455E+01   0.0000E+00  0.0000
   3.5455E+01   3.6318E+01   0.0000E+00  0.0000
   3.6318E+01   3.7201E+01   0.0000E+00  0.0000
   3.7201E+01   3.8106E+01   0.0000E+00  0.0000
   3.8106E+01   3.9034E+01   0.0000E+00  0.0000
   3.9034E+01   3.9983E+01   0.0000E+00  0.0000
   3.9983E+01   4.0956E+01   0.0000E+00  0.0000
   4.0956E+01   4.1953E+01   0.0000E+00  0.0000
   4.1953E+01   4.2973E+01   0.0000E+00  0.0000
   4.2973E+01   4.4019E+01   0.0000E+00  0.0000
   4.4019E+01   4.5090E+01   0.0000E+00  0.0000
   4.5090E+01   4.6187E+01   0.0000E+00  0.0000
   4.6187E+01   4.7311E+01   0.0000E+00  0.0000
   4.7311E+01   4.8462E+01   0.0000E+00  0.0000
   4.8462E+01   4.9641E+01   0.0000E+00  0.0000
   4.9641E+01   5.0849E+01   0.0000E+00  0.0000
   5.0849E+01   5.2086E+01   0.0000E+00  0.0000
   5.2086E+01   5.3353E+01   0.0000E+00  0.0000
   5.3353E+01   5.4651E+01   0.0000E+00  0.0000
   5.4651E+01   5.5981E+01   0.0000E+00  0.0000
   5.5981E+01   5.7343E+01   0.0000E+00  0.0000
   5.7343E+01   5.8738E+01   0.0000E+00  0.0000
   5.8738E+01   6.0168E+01   0.0000E+00  0.0000
   6.0168E+01   6.1632E+01   0.0000E+00  0.0000
   6.1632E+01   6.3131E+01   0.0000E+00  0.0000
   6.3131E+01   6.4667E+01   0.0000E+00  0.0000
   6.4667E+01   6.6240E+01   0.0000E+00  0.0000
   6.6240E+01   6.7852E+01   0.0000E+00  0.0000
   6.7852E+01   6.9503E+01   0.0000E+00  0.0000
   6.9503E+01   7.1194E+01   0.0000E+00  0.0000
   7.1194E+01   7.2926E+01   0.0000E+00  0.0000
   7.2926E+01   7.4701E+01   0.0000E+00  0.0000
   7.4701E+01   7.6518E+01   0.0000E+00  0.0000
   7.6518E+01   7.8380E+01   0.0000E+00  0.0000
   7.8380E+01   8.0287E+01   0.0000E+00  0.0000
   8.0287E+01   8.2240E+01   0.0000E+00  0.0000
   8.2240E+01   8.4241E+01   0.0000E+00  0.0000
   8.4241E+01   8.6291E+01   0.0000E+00  0.0000
   8.6291E+01   8.8391E+01   0.0000E+00  0.0000
   8.8391E+01   9.0541E+01   0.0000E+00  0.0000
   9.0541E+01   9.2744E+01   0.0000E+00  0.0000
   9.2744E+01   9.5001E+01   0.0000E+00  0.0000
   9.5001E+01   9.7312E+01   0.0000E+00  0.0000
   9.7312E+01   9.9680E+01   0.0000E+00  0.0000
   9.9680E+01   1.0211E+02   0.0000E+00  0.0000
   1.0211E+02   1.0459E+02   0.0000E+00  0.0000
   1.0459E+02   1.0713E+02   0.0000E+00  0.0000
   1.0713E+02   1.0974E+02   0.0000E+00  0.0000
   1.0974E+02   1.1241E+02   0.0000E+00  0.0000
   1.1241E+02   1.1515E+02   0.0000E+00  0.0000
   1.1515E+02   1.1795E+02   0.0000E+00  0.0000
   1.1795E+02   1.2082E+02   0.0000E+00  0.0000
   1.2082E+02   1.2376E+02   0.0000E+00  0.0000
   1.2376E+02   1.2677E+02   0.0000E+00  0.0000
   1.2677E+02   1.2985E+02   0.0000E+00  0.0000
   1.2985E+02   1.3301E+02   0.0000E+00  0.0000
   1.3301E+02   1.3625E+02   0.0000E+00  0.0000
   1.3625E+02   1.3956E+02   0.0000E+00  0.0000
   1.3956E+02   1.4296E+02   0.0000E+00  0.0000
   1.4296E+02   1.4644E+02   0.0000E+00  0.0000
   1.4644E+02   1.5000E+02   0.0000E+00  0.0000

#   sum over                 5.9944E-06
'no. =    1   reg = 107 - 207'
msuc: {\huge [t-cross] in region mesh}
msdr: {\it plotted by \ANGEL \version}
msdl: {\it calculated by \PHITS  3.26}
wt: s(0.7)
\vspace{-3}
  region surface crossing
  area  &=&   1.0000E+00 [cm^2]
e:
 
# Information for Restart Calculation
# This calculation was newly started
# istdev =  2 # 1:Batch variance, 2:History variance
# resc2  = 5.00000000000000000E+09 # Total source weight or Total source weight / maxcas
# resc3  = 5.00000000000000000E+09 # Total history number or Total batch number
# maxcas =   100000000 # History / Batch, only used for istdev=1
# bitrseed = 0110100000100010111000001110001111001110100100011111101000111001 # bit data of rseed
