0 <--- number of remaining batches 

-------------------------------------------------------------------------------
bat[      50] ncas =     5000000000.
 bitrseed = 1010100001101100001010110100011000011010110011110100001101011000
          cpu time =  27 m. 10.08 s.

 date = 2022-04-21
 time = 12h 15m 49s

