[ T-Cross ]
    title = [t-cross] in region mesh
     mesh =  reg            # mesh type is region-wise
      reg =    1            # number of crossing regions
      non     r-from    r-to       area
      1       119       219        1.000000    
   e-type =    3            # e-mesh is log given by emin, emax and ne
     emin =  1.0000000E-02  # minimum value of e-mesh points
     emax =   150.0000      # maximum value of e-mesh points
#    edel =  2.4039514E-02  # mesh width of e-mesh points
       ne =    400          # number of e-mesh points
#    data = ( e(i), i = 1, ne + 1 )
#           1.00000E-02  1.02433E-02  1.04925E-02  1.07478E-02  1.10093E-02
#           1.12772E-02  1.15516E-02  1.18326E-02  1.21205E-02  1.24154E-02
#           1.27175E-02  1.30269E-02  1.33439E-02  1.36686E-02  1.40011E-02
#           1.43418E-02  1.46907E-02  1.50482E-02  1.54143E-02  1.57894E-02
#           1.61735E-02  1.65670E-02  1.69701E-02  1.73830E-02  1.78060E-02
#           1.82392E-02  1.86830E-02  1.91375E-02  1.96032E-02  2.00801E-02
#           2.05687E-02  2.10692E-02  2.15818E-02  2.21069E-02  2.26448E-02
#           2.31957E-02  2.37601E-02  2.43382E-02  2.49304E-02  2.55369E-02
#           2.61583E-02  2.67947E-02  2.74467E-02  2.81145E-02  2.87985E-02
#           2.94992E-02  3.02169E-02  3.09521E-02  3.17052E-02  3.24766E-02
#           3.32668E-02  3.40762E-02  3.49053E-02  3.57546E-02  3.66246E-02
#           3.75157E-02  3.84284E-02  3.93634E-02  4.03212E-02  4.13022E-02
#           4.23071E-02  4.33365E-02  4.43909E-02  4.54710E-02  4.65773E-02
#           4.77106E-02  4.88714E-02  5.00605E-02  5.12785E-02  5.25262E-02
#           5.38042E-02  5.51133E-02  5.64542E-02  5.78278E-02  5.92348E-02
#           6.06760E-02  6.21523E-02  6.36645E-02  6.52135E-02  6.68002E-02
#           6.84255E-02  7.00904E-02  7.17957E-02  7.35426E-02  7.53319E-02
#           7.71648E-02  7.90423E-02  8.09655E-02  8.29354E-02  8.49533E-02
#           8.70203E-02  8.91376E-02  9.13064E-02  9.35279E-02  9.58035E-02
#           9.81345E-02  1.00522E-01  1.02968E-01  1.05473E-01  1.08040E-01
#           1.10668E-01  1.13361E-01  1.16119E-01  1.18944E-01  1.21838E-01
#           1.24803E-01  1.27839E-01  1.30950E-01  1.34136E-01  1.37399E-01
#           1.40742E-01  1.44167E-01  1.47675E-01  1.51268E-01  1.54948E-01
#           1.58718E-01  1.62580E-01  1.66535E-01  1.70587E-01  1.74738E-01
#           1.78989E-01  1.83344E-01  1.87805E-01  1.92375E-01  1.97055E-01
#           2.01850E-01  2.06761E-01  2.11792E-01  2.16945E-01  2.22223E-01
#           2.27630E-01  2.33169E-01  2.38842E-01  2.44653E-01  2.50605E-01
#           2.56703E-01  2.62949E-01  2.69346E-01  2.75900E-01  2.82613E-01
#           2.89489E-01  2.96532E-01  3.03747E-01  3.11138E-01  3.18708E-01
#           3.26462E-01  3.34405E-01  3.42542E-01  3.50876E-01  3.59413E-01
#           3.68158E-01  3.77116E-01  3.86291E-01  3.95690E-01  4.05317E-01
#           4.15179E-01  4.25281E-01  4.35628E-01  4.46227E-01  4.57084E-01
#           4.68205E-01  4.79597E-01  4.91266E-01  5.03219E-01  5.15463E-01
#           5.28005E-01  5.40851E-01  5.54011E-01  5.67490E-01  5.81298E-01
#           5.95441E-01  6.09929E-01  6.24769E-01  6.39970E-01  6.55541E-01
#           6.71491E-01  6.87828E-01  7.04564E-01  7.21706E-01  7.39266E-01
#           7.57253E-01  7.75678E-01  7.94551E-01  8.13883E-01  8.33685E-01
#           8.53969E-01  8.74747E-01  8.96030E-01  9.17831E-01  9.40163E-01
#           9.63038E-01  9.86469E-01  1.01047E+00  1.03506E+00  1.06024E+00
#           1.08604E+00  1.11246E+00  1.13953E+00  1.16725E+00  1.19565E+00
#           1.22474E+00  1.25454E+00  1.28507E+00  1.31633E+00  1.34836E+00
#           1.38117E+00  1.41477E+00  1.44920E+00  1.48446E+00  1.52057E+00
#           1.55757E+00  1.59547E+00  1.63429E+00  1.67405E+00  1.71478E+00
#           1.75650E+00  1.79924E+00  1.84302E+00  1.88786E+00  1.93379E+00
#           1.98084E+00  2.02904E+00  2.07841E+00  2.12898E+00  2.18078E+00
#           2.23384E+00  2.28819E+00  2.34386E+00  2.40089E+00  2.45930E+00
#           2.51914E+00  2.58043E+00  2.64322E+00  2.70753E+00  2.77341E+00
#           2.84088E+00  2.91001E+00  2.98081E+00  3.05333E+00  3.12762E+00
#           3.20372E+00  3.28167E+00  3.36152E+00  3.44330E+00  3.52708E+00
#           3.61290E+00  3.70080E+00  3.79085E+00  3.88308E+00  3.97756E+00
#           4.07434E+00  4.17347E+00  4.27501E+00  4.37903E+00  4.48557E+00
#           4.59471E+00  4.70650E+00  4.82102E+00  4.93832E+00  5.05847E+00
#           5.18155E+00  5.30762E+00  5.43676E+00  5.56904E+00  5.70453E+00
#           5.84333E+00  5.98550E+00  6.13114E+00  6.28031E+00  6.43312E+00
#           6.58964E+00  6.74997E+00  6.91420E+00  7.08243E+00  7.25475E+00
#           7.43126E+00  7.61207E+00  7.79728E+00  7.98700E+00  8.18133E+00
#           8.38038E+00  8.58428E+00  8.79315E+00  9.00709E+00  9.22624E+00
#           9.45072E+00  9.68067E+00  9.91620E+00  1.01575E+01  1.04046E+01
#           1.06578E+01  1.09171E+01  1.11827E+01  1.14548E+01  1.17335E+01
#           1.20190E+01  1.23114E+01  1.26109E+01  1.29178E+01  1.32321E+01
#           1.35540E+01  1.38838E+01  1.42216E+01  1.45676E+01  1.49221E+01
#           1.52851E+01  1.56570E+01  1.60380E+01  1.64282E+01  1.68279E+01
#           1.72374E+01  1.76568E+01  1.80864E+01  1.85264E+01  1.89772E+01
#           1.94389E+01  1.99119E+01  2.03963E+01  2.08926E+01  2.14009E+01
#           2.19216E+01  2.24550E+01  2.30014E+01  2.35610E+01  2.41343E+01
#           2.47215E+01  2.53230E+01  2.59391E+01  2.65702E+01  2.72167E+01
#           2.78789E+01  2.85572E+01  2.92520E+01  2.99637E+01  3.06928E+01
#           3.14396E+01  3.22045E+01  3.29881E+01  3.37907E+01  3.46128E+01
#           3.54550E+01  3.63177E+01  3.72013E+01  3.81064E+01  3.90336E+01
#           3.99833E+01  4.09561E+01  4.19526E+01  4.29734E+01  4.40189E+01
#           4.50900E+01  4.61870E+01  4.73108E+01  4.84619E+01  4.96410E+01
#           5.08488E+01  5.20860E+01  5.33533E+01  5.46514E+01  5.59812E+01
#           5.73432E+01  5.87384E+01  6.01676E+01  6.16315E+01  6.31311E+01
#           6.46671E+01  6.62405E+01  6.78522E+01  6.95031E+01  7.11941E+01
#           7.29263E+01  7.47007E+01  7.65182E+01  7.83800E+01  8.02870E+01
#           8.22405E+01  8.42414E+01  8.62911E+01  8.83906E+01  9.05412E+01
#           9.27442E+01  9.50007E+01  9.73122E+01  9.96799E+01  1.02105E+02
#           1.04589E+02  1.07134E+02  1.09741E+02  1.12411E+02  1.15146E+02
#           1.17948E+02  1.20817E+02  1.23757E+02  1.26768E+02  1.29852E+02
#           1.33012E+02  1.36248E+02  1.39563E+02  1.42959E+02  1.46437E+02
#           1.50000E+02
     unit =    2            # unit is [1/cm^2/(MeV/n)/source]
     axis =  eng            # axis of output
     file = detector-20.out  # file name of output for the above axis
   output = f-curr          # surface crossing forward current spectrum
     part =  neutron  
# kf/name :  2112     
#    used :        main (  %)        temp (  %)       total (  %)
#  memory :         414 (  0)           0 (  0)         414 (  0)

#------------------------------------------------------------------------------
#newpage:
#   no. =    1   reg = 119 - 219

x: Energy [MeV/n]
y:  F-Curr [1/cm^2/(MeV/n)/source]         
p: xlog ylog afac(0.8) form(0.9)
h: n            x            y(neutron ),hh0l   n 
#  e-lower      e-upper      neutron     r.err 
   1.0000E-02   1.0243E-02   8.2826E-03  0.0099
   1.0243E-02   1.0493E-02   8.1079E-03  0.0099
   1.0493E-02   1.0748E-02   8.0247E-03  0.0099
   1.0748E-02   1.1009E-02   7.7997E-03  0.0099
   1.1009E-02   1.1277E-02   7.5413E-03  0.0099
   1.1277E-02   1.1552E-02   7.4217E-03  0.0099
   1.1552E-02   1.1833E-02   7.4283E-03  0.0098
   1.1833E-02   1.2121E-02   7.1743E-03  0.0098
   1.2121E-02   1.2415E-02   7.0740E-03  0.0098
   1.2415E-02   1.2718E-02   6.9549E-03  0.0097
   1.2718E-02   1.3027E-02   6.7918E-03  0.0097
   1.3027E-02   1.3344E-02   6.6826E-03  0.0097
   1.3344E-02   1.3669E-02   6.3550E-03  0.0098
   1.3669E-02   1.4001E-02   6.3593E-03  0.0097
   1.4001E-02   1.4342E-02   6.2228E-03  0.0097
   1.4342E-02   1.4691E-02   6.0118E-03  0.0097
   1.4691E-02   1.5048E-02   5.9090E-03  0.0097
   1.5048E-02   1.5414E-02   5.8909E-03  0.0096
   1.5414E-02   1.5789E-02   5.6831E-03  0.0097
   1.5789E-02   1.6174E-02   5.6962E-03  0.0095
   1.6174E-02   1.6567E-02   5.4543E-03  0.0096
   1.6567E-02   1.6970E-02   5.4301E-03  0.0095
   1.6970E-02   1.7383E-02   5.3122E-03  0.0095
   1.7383E-02   1.7806E-02   5.0403E-03  0.0097
   1.7806E-02   1.8239E-02   5.0058E-03  0.0096
   1.8239E-02   1.8683E-02   4.8702E-03  0.0096
   1.8683E-02   1.9138E-02   4.8072E-03  0.0095
   1.9138E-02   1.9603E-02   4.7063E-03  0.0095
   1.9603E-02   2.0080E-02   4.6186E-03  0.0095
   2.0080E-02   2.0569E-02   4.4809E-03  0.0095
   2.0569E-02   2.1069E-02   4.5040E-03  0.0094
   2.1069E-02   2.1582E-02   4.3351E-03  0.0095
   2.1582E-02   2.2107E-02   4.3300E-03  0.0094
   2.2107E-02   2.2645E-02   4.1794E-03  0.0094
   2.2645E-02   2.3196E-02   4.0818E-03  0.0094
   2.3196E-02   2.3760E-02   4.0144E-03  0.0094
   2.3760E-02   2.4338E-02   3.8818E-03  0.0094
   2.4338E-02   2.4930E-02   3.8782E-03  0.0093
   2.4930E-02   2.5537E-02   3.7435E-03  0.0094
   2.5537E-02   2.6158E-02   3.7038E-03  0.0093
   2.6158E-02   2.6795E-02   3.6859E-03  0.0092
   2.6795E-02   2.7447E-02   3.5892E-03  0.0092
   2.7447E-02   2.8114E-02   3.5104E-03  0.0092
   2.8114E-02   2.8799E-02   3.4479E-03  0.0092
   2.8799E-02   2.9499E-02   3.3524E-03  0.0092
   2.9499E-02   3.0217E-02   3.3239E-03  0.0091
   3.0217E-02   3.0952E-02   3.2815E-03  0.0091
   3.0952E-02   3.1705E-02   3.0979E-03  0.0092
   3.1705E-02   3.2477E-02   3.0712E-03  0.0092
   3.2477E-02   3.3267E-02   2.9809E-03  0.0092
   3.3267E-02   3.4076E-02   2.9172E-03  0.0092
   3.4076E-02   3.4905E-02   2.9003E-03  0.0091
   3.4905E-02   3.5755E-02   2.8355E-03  0.0091
   3.5755E-02   3.6625E-02   2.7590E-03  0.0091
   3.6625E-02   3.7516E-02   2.7660E-03  0.0090
   3.7516E-02   3.8428E-02   2.6888E-03  0.0090
   3.8428E-02   3.9363E-02   2.6277E-03  0.0090
   3.9363E-02   4.0321E-02   2.5364E-03  0.0090
   4.0321E-02   4.1302E-02   2.5013E-03  0.0090
   4.1302E-02   4.2307E-02   2.4687E-03  0.0090
   4.2307E-02   4.3337E-02   2.3733E-03  0.0090
   4.3337E-02   4.4391E-02   2.3790E-03  0.0089
   4.4391E-02   4.5471E-02   2.3294E-03  0.0089
   4.5471E-02   4.6577E-02   2.2633E-03  0.0089
   4.6577E-02   4.7711E-02   2.1823E-03  0.0090
   4.7711E-02   4.8871E-02   2.1553E-03  0.0089
   4.8871E-02   5.0061E-02   2.1524E-03  0.0088
   5.0061E-02   5.1279E-02   2.0628E-03  0.0089
   5.1279E-02   5.2526E-02   2.0508E-03  0.0088
   5.2526E-02   5.3804E-02   1.9674E-03  0.0089
   5.3804E-02   5.5113E-02   1.9688E-03  0.0088
   5.5113E-02   5.6454E-02   1.9018E-03  0.0088
   5.6454E-02   5.7828E-02   1.8866E-03  0.0088
   5.7828E-02   5.9235E-02   1.8376E-03  0.0088
   5.9235E-02   6.0676E-02   1.7834E-03  0.0088
   6.0676E-02   6.2152E-02   1.7426E-03  0.0088
   6.2152E-02   6.3665E-02   1.7070E-03  0.0088
   6.3665E-02   6.5214E-02   1.6966E-03  0.0087
   6.5214E-02   6.6800E-02   1.6665E-03  0.0087
   6.6800E-02   6.8426E-02   1.6152E-03  0.0087
   6.8426E-02   7.0090E-02   1.5771E-03  0.0087
   7.0090E-02   7.1796E-02   1.5490E-03  0.0087
   7.1796E-02   7.3543E-02   1.4926E-03  0.0087
   7.3543E-02   7.5332E-02   1.4934E-03  0.0086
   7.5332E-02   7.7165E-02   1.4634E-03  0.0086
   7.7165E-02   7.9042E-02   1.4337E-03  0.0086
   7.9042E-02   8.0965E-02   1.3941E-03  0.0086
   8.0965E-02   8.2935E-02   1.3738E-03  0.0086
   8.2935E-02   8.4953E-02   1.3479E-03  0.0086
   8.4953E-02   8.7020E-02   1.3188E-03  0.0085
   8.7020E-02   8.9138E-02   1.2659E-03  0.0086
   8.9138E-02   9.1306E-02   1.2696E-03  0.0085
   9.1306E-02   9.3528E-02   1.2131E-03  0.0086
   9.3528E-02   9.5804E-02   1.1999E-03  0.0085
   9.5804E-02   9.8134E-02   1.1791E-03  0.0085
   9.8134E-02   1.0052E-01   1.1308E-03  0.0086
   1.0052E-01   1.0297E-01   1.1266E-03  0.0085
   1.0297E-01   1.0547E-01   1.1150E-03  0.0084
   1.0547E-01   1.0804E-01   1.0844E-03  0.0085
   1.0804E-01   1.1067E-01   1.0524E-03  0.0085
   1.1067E-01   1.1336E-01   1.0246E-03  0.0085
   1.1336E-01   1.1612E-01   1.0056E-03  0.0085
   1.1612E-01   1.1894E-01   9.6828E-04  0.0085
   1.1894E-01   1.2184E-01   9.6951E-04  0.0084
   1.2184E-01   1.2480E-01   9.4860E-04  0.0084
   1.2480E-01   1.2784E-01   9.2030E-04  0.0084
   1.2784E-01   1.3095E-01   9.0269E-04  0.0084
   1.3095E-01   1.3414E-01   8.8413E-04  0.0084
   1.3414E-01   1.3740E-01   8.7298E-04  0.0084
   1.3740E-01   1.4074E-01   8.5027E-04  0.0084
   1.4074E-01   1.4417E-01   8.2258E-04  0.0084
   1.4417E-01   1.4767E-01   8.1106E-04  0.0084
   1.4767E-01   1.5127E-01   7.8700E-04  0.0084
   1.5127E-01   1.5495E-01   7.7099E-04  0.0084
   1.5495E-01   1.5872E-01   7.5446E-04  0.0084
   1.5872E-01   1.6258E-01   7.4396E-04  0.0083
   1.6258E-01   1.6654E-01   7.3200E-04  0.0083
   1.6654E-01   1.7059E-01   7.0762E-04  0.0083
   1.7059E-01   1.7474E-01   6.9384E-04  0.0083
   1.7474E-01   1.7899E-01   6.8030E-04  0.0083
   1.7899E-01   1.8334E-01   6.6866E-04  0.0083
   1.8334E-01   1.8781E-01   6.5731E-04  0.0082
   1.8781E-01   1.9237E-01   6.4031E-04  0.0082
   1.9237E-01   1.9706E-01   6.2529E-04  0.0082
   1.9706E-01   2.0185E-01   6.1926E-04  0.0082
   2.0185E-01   2.0676E-01   6.3895E-04  0.0080
   2.0676E-01   2.1179E-01   6.6348E-04  0.0077
   2.1179E-01   2.1694E-01   6.6599E-04  0.0076
   2.1694E-01   2.2222E-01   6.8484E-04  0.0074
   2.2222E-01   2.2763E-01   7.1530E-04  0.0072
   2.2763E-01   2.3317E-01   7.1255E-04  0.0071
   2.3317E-01   2.3884E-01   7.3975E-04  0.0069
   2.3884E-01   2.4465E-01   7.5149E-04  0.0067
   2.4465E-01   2.5061E-01   7.7528E-04  0.0066
   2.5061E-01   2.5670E-01   7.9930E-04  0.0064
   2.5670E-01   2.6295E-01   8.1534E-04  0.0062
   2.6295E-01   2.6935E-01   8.2908E-04  0.0061
   2.6935E-01   2.7590E-01   8.6424E-04  0.0059
   2.7590E-01   2.8261E-01   8.6792E-04  0.0058
   2.8261E-01   2.8949E-01   8.9209E-04  0.0057
   2.8949E-01   2.9653E-01   9.0459E-04  0.0056
   2.9653E-01   3.0375E-01   9.3006E-04  0.0054
   3.0375E-01   3.1114E-01   9.5002E-04  0.0053
   3.1114E-01   3.1871E-01   9.6600E-04  0.0052
   3.1871E-01   3.2646E-01   9.7762E-04  0.0051
   3.2646E-01   3.3441E-01   9.9098E-04  0.0050
   3.3441E-01   3.4254E-01   1.0074E-03  0.0049
   3.4254E-01   3.5088E-01   1.0221E-03  0.0048
   3.5088E-01   3.5941E-01   1.0329E-03  0.0047
   3.5941E-01   3.6816E-01   1.0562E-03  0.0046
   3.6816E-01   3.7712E-01   1.0669E-03  0.0046
   3.7712E-01   3.8629E-01   1.0753E-03  0.0045
   3.8629E-01   3.9569E-01   1.0991E-03  0.0044
   3.9569E-01   4.0532E-01   1.1070E-03  0.0043
   4.0532E-01   4.1518E-01   1.1180E-03  0.0042
   4.1518E-01   4.2528E-01   1.1299E-03  0.0042
   4.2528E-01   4.3563E-01   1.1491E-03  0.0041
   4.3563E-01   4.4623E-01   1.1490E-03  0.0040
   4.4623E-01   4.5708E-01   1.1568E-03  0.0040
   4.5708E-01   4.6821E-01   1.1667E-03  0.0039
   4.6821E-01   4.7960E-01   1.1747E-03  0.0039
   4.7960E-01   4.9127E-01   1.1818E-03  0.0038
   4.9127E-01   5.0322E-01   1.1921E-03  0.0037
   5.0322E-01   5.1546E-01   1.1917E-03  0.0037
   5.1546E-01   5.2800E-01   1.1990E-03  0.0036
   5.2800E-01   5.4085E-01   1.2026E-03  0.0036
   5.4085E-01   5.5401E-01   1.2044E-03  0.0035
   5.5401E-01   5.6749E-01   1.2053E-03  0.0035
   5.6749E-01   5.8130E-01   1.2039E-03  0.0035
   5.8130E-01   5.9544E-01   1.1954E-03  0.0034
   5.9544E-01   6.0993E-01   1.2014E-03  0.0034
   6.0993E-01   6.2477E-01   1.1986E-03  0.0033
   6.2477E-01   6.3997E-01   1.1850E-03  0.0033
   6.3997E-01   6.5554E-01   1.1854E-03  0.0033
   6.5554E-01   6.7149E-01   1.1754E-03  0.0033
   6.7149E-01   6.8783E-01   1.1665E-03  0.0032
   6.8783E-01   7.0456E-01   1.1564E-03  0.0032
   7.0456E-01   7.2171E-01   1.1409E-03  0.0032
   7.2171E-01   7.3927E-01   1.1280E-03  0.0032
   7.3927E-01   7.5725E-01   1.1191E-03  0.0031
   7.5725E-01   7.7568E-01   1.0951E-03  0.0031
   7.7568E-01   7.9455E-01   1.0749E-03  0.0031
   7.9455E-01   8.1388E-01   1.0551E-03  0.0031
   8.1388E-01   8.3368E-01   1.0342E-03  0.0031
   8.3368E-01   8.5397E-01   1.0165E-03  0.0031
   8.5397E-01   8.7475E-01   9.9238E-04  0.0031
   8.7475E-01   8.9603E-01   9.6480E-04  0.0031
   8.9603E-01   9.1783E-01   9.4128E-04  0.0031
   9.1783E-01   9.4016E-01   9.0565E-04  0.0031
   9.4016E-01   9.6304E-01   8.8258E-04  0.0031
   9.6304E-01   9.8647E-01   8.5488E-04  0.0031
   9.8647E-01   1.0105E+00   8.2872E-04  0.0032
   1.0105E+00   1.0351E+00   8.1731E-04  0.0031
   1.0351E+00   1.0602E+00   8.0882E-04  0.0031
   1.0602E+00   1.0860E+00   8.1238E-04  0.0031
   1.0860E+00   1.1125E+00   8.0575E-04  0.0030
   1.1125E+00   1.1395E+00   8.0905E-04  0.0030
   1.1395E+00   1.1673E+00   8.0793E-04  0.0030
   1.1673E+00   1.1957E+00   8.2099E-04  0.0029
   1.1957E+00   1.2247E+00   8.2180E-04  0.0029
   1.2247E+00   1.2545E+00   8.1411E-04  0.0029
   1.2545E+00   1.2851E+00   8.0411E-04  0.0028
   1.2851E+00   1.3163E+00   8.0305E-04  0.0028
   1.3163E+00   1.3484E+00   7.9866E-04  0.0028
   1.3484E+00   1.3812E+00   7.9725E-04  0.0027
   1.3812E+00   1.4148E+00   7.9296E-04  0.0027
   1.4148E+00   1.4492E+00   7.8874E-04  0.0027
   1.4492E+00   1.4845E+00   7.7387E-04  0.0027
   1.4845E+00   1.5206E+00   7.5802E-04  0.0027
   1.5206E+00   1.5576E+00   7.4950E-04  0.0027
   1.5576E+00   1.5955E+00   7.3885E-04  0.0027
   1.5955E+00   1.6343E+00   7.2724E-04  0.0026
   1.6343E+00   1.6741E+00   7.2311E-04  0.0026
   1.6741E+00   1.7148E+00   7.1894E-04  0.0026
   1.7148E+00   1.7565E+00   7.0994E-04  0.0026
   1.7565E+00   1.7992E+00   6.9668E-04  0.0026
   1.7992E+00   1.8430E+00   6.8132E-04  0.0026
   1.8430E+00   1.8879E+00   6.6922E-04  0.0026
   1.8879E+00   1.9338E+00   6.5658E-04  0.0026
   1.9338E+00   1.9808E+00   6.5152E-04  0.0025
   1.9808E+00   2.0290E+00   6.4404E-04  0.0025
   2.0290E+00   2.0784E+00   6.3128E-04  0.0025
   2.0784E+00   2.1290E+00   6.2064E-04  0.0025
   2.1290E+00   2.1808E+00   6.0249E-04  0.0025
   2.1808E+00   2.2338E+00   5.8789E-04  0.0025
   2.2338E+00   2.2882E+00   5.7448E-04  0.0025
   2.2882E+00   2.3439E+00   5.6475E-04  0.0025
   2.3439E+00   2.4009E+00   5.5654E-04  0.0025
   2.4009E+00   2.4593E+00   5.5119E-04  0.0025
   2.4593E+00   2.5191E+00   5.3925E-04  0.0025
   2.5191E+00   2.5804E+00   5.2851E-04  0.0025
   2.5804E+00   2.6432E+00   5.1601E-04  0.0025
   2.6432E+00   2.7075E+00   5.0113E-04  0.0025
   2.7075E+00   2.7734E+00   4.9017E-04  0.0025
   2.7734E+00   2.8409E+00   4.7973E-04  0.0025
   2.8409E+00   2.9100E+00   4.6897E-04  0.0025
   2.9100E+00   2.9808E+00   4.6407E-04  0.0024
   2.9808E+00   3.0533E+00   4.5721E-04  0.0024
   3.0533E+00   3.1276E+00   4.4334E-04  0.0024
   3.1276E+00   3.2037E+00   4.3633E-04  0.0024
   3.2037E+00   3.2817E+00   4.2527E-04  0.0024
   3.2817E+00   3.3615E+00   4.1395E-04  0.0024
   3.3615E+00   3.4433E+00   4.0413E-04  0.0024
   3.4433E+00   3.5271E+00   3.9668E-04  0.0024
   3.5271E+00   3.6129E+00   3.8892E-04  0.0024
   3.6129E+00   3.7008E+00   3.7782E-04  0.0024
   3.7008E+00   3.7908E+00   3.7076E-04  0.0024
   3.7908E+00   3.8831E+00   3.6056E-04  0.0024
   3.8831E+00   3.9776E+00   3.5134E-04  0.0024
   3.9776E+00   4.0743E+00   3.4339E-04  0.0024
   4.0743E+00   4.1735E+00   3.3451E-04  0.0024
   4.1735E+00   4.2750E+00   3.2513E-04  0.0024
   4.2750E+00   4.3790E+00   3.1597E-04  0.0025
   4.3790E+00   4.4856E+00   3.0761E-04  0.0025
   4.4856E+00   4.5947E+00   2.9798E-04  0.0025
   4.5947E+00   4.7065E+00   2.8795E-04  0.0025
   4.7065E+00   4.8210E+00   2.7932E-04  0.0025
   4.8210E+00   4.9383E+00   2.6841E-04  0.0025
   4.9383E+00   5.0585E+00   2.5783E-04  0.0025
   5.0585E+00   5.1815E+00   2.4970E-04  0.0025
   5.1815E+00   5.3076E+00   2.3898E-04  0.0026
   5.3076E+00   5.4368E+00   2.3173E-04  0.0026
   5.4368E+00   5.5690E+00   2.2412E-04  0.0026
   5.5690E+00   5.7045E+00   2.1652E-04  0.0026
   5.7045E+00   5.8433E+00   2.0795E-04  0.0026
   5.8433E+00   5.9855E+00   2.0066E-04  0.0026
   5.9855E+00   6.1311E+00   1.9331E-04  0.0027
   6.1311E+00   6.2803E+00   1.8740E-04  0.0027
   6.2803E+00   6.4331E+00   1.7971E-04  0.0027
   6.4331E+00   6.5896E+00   1.7111E-04  0.0027
   6.5896E+00   6.7500E+00   1.6529E-04  0.0027
   6.7500E+00   6.9142E+00   1.5786E-04  0.0028
   6.9142E+00   7.0824E+00   1.5212E-04  0.0028
   7.0824E+00   7.2548E+00   1.4492E-04  0.0028
   7.2548E+00   7.4313E+00   1.3823E-04  0.0029
   7.4313E+00   7.6121E+00   1.3225E-04  0.0029
   7.6121E+00   7.7973E+00   1.2581E-04  0.0029
   7.7973E+00   7.9870E+00   1.2071E-04  0.0029
   7.9870E+00   8.1813E+00   1.1476E-04  0.0030
   8.1813E+00   8.3804E+00   1.0990E-04  0.0030
   8.3804E+00   8.5843E+00   1.0411E-04  0.0031
   8.5843E+00   8.7931E+00   9.8875E-05  0.0031
   8.7931E+00   9.0071E+00   9.4768E-05  0.0031
   9.0071E+00   9.2262E+00   8.9735E-05  0.0032
   9.2262E+00   9.4507E+00   8.5435E-05  0.0032
   9.4507E+00   9.6807E+00   8.1122E-05  0.0033
   9.6807E+00   9.9162E+00   7.7011E-05  0.0033
   9.9162E+00   1.0157E+01   7.3847E-05  0.0033
   1.0157E+01   1.0405E+01   7.2152E-05  0.0033
   1.0405E+01   1.0658E+01   7.3059E-05  0.0033
   1.0658E+01   1.0917E+01   7.1036E-05  0.0033
   1.0917E+01   1.1183E+01   6.8518E-05  0.0033
   1.1183E+01   1.1455E+01   6.5239E-05  0.0034
   1.1455E+01   1.1733E+01   6.1940E-05  0.0034
   1.1733E+01   1.2019E+01   5.8035E-05  0.0035
   1.2019E+01   1.2311E+01   5.3813E-05  0.0036
   1.2311E+01   1.2611E+01   4.9900E-05  0.0037
   1.2611E+01   1.2918E+01   4.6757E-05  0.0037
   1.2918E+01   1.3232E+01   4.5032E-05  0.0038
   1.3232E+01   1.3554E+01   4.2693E-05  0.0038
   1.3554E+01   1.3884E+01   4.0040E-05  0.0039
   1.3884E+01   1.4222E+01   3.6886E-05  0.0040
   1.4222E+01   1.4568E+01   3.4506E-05  0.0041
   1.4568E+01   1.4922E+01   3.1854E-05  0.0042
   1.4922E+01   1.5285E+01   2.9679E-05  0.0043
   1.5285E+01   1.5657E+01   2.7197E-05  0.0044
   1.5657E+01   1.6038E+01   2.5165E-05  0.0046
   1.6038E+01   1.6428E+01   2.3103E-05  0.0047
   1.6428E+01   1.6828E+01   2.1390E-05  0.0048
   1.6828E+01   1.7237E+01   1.9955E-05  0.0049
   1.7237E+01   1.7657E+01   1.8495E-05  0.0051
   1.7657E+01   1.8086E+01   1.7034E-05  0.0052
   1.8086E+01   1.8526E+01   1.5707E-05  0.0054
   1.8526E+01   1.8977E+01   1.4677E-05  0.0055
   1.8977E+01   1.9439E+01   1.3570E-05  0.0056
   1.9439E+01   1.9912E+01   1.2657E-05  0.0058
   1.9912E+01   2.0396E+01   1.1437E-05  0.0060
   2.0396E+01   2.0893E+01   1.0428E-05  0.0062
   2.0893E+01   2.1401E+01   9.4867E-06  0.0064
   2.1401E+01   2.1922E+01   8.7493E-06  0.0066
   2.1922E+01   2.2455E+01   7.9986E-06  0.0068
   2.2455E+01   2.3001E+01   7.2254E-06  0.0071
   2.3001E+01   2.3561E+01   6.7075E-06  0.0073
   2.3561E+01   2.4134E+01   6.0413E-06  0.0076
   2.4134E+01   2.4721E+01   5.5572E-06  0.0078
   2.4721E+01   2.5323E+01   5.0282E-06  0.0081
   2.5323E+01   2.5939E+01   4.5565E-06  0.0084
   2.5939E+01   2.6570E+01   4.1561E-06  0.0087
   2.6570E+01   2.7217E+01   3.7242E-06  0.0091
   2.7217E+01   2.7879E+01   3.3002E-06  0.0096
   2.7879E+01   2.8557E+01   3.0567E-06  0.0098
   2.8557E+01   2.9252E+01   2.7060E-06  0.0103
   2.9252E+01   2.9964E+01   2.4257E-06  0.0108
   2.9964E+01   3.0693E+01   2.1840E-06  0.0112
   3.0693E+01   3.1440E+01   1.9208E-06  0.0118
   3.1440E+01   3.2205E+01   1.7423E-06  0.0122
   3.2205E+01   3.2988E+01   1.5274E-06  0.0129
   3.2988E+01   3.3791E+01   1.3745E-06  0.0135
   3.3791E+01   3.4613E+01   1.2132E-06  0.0142
   3.4613E+01   3.5455E+01   1.0701E-06  0.0149
   3.5455E+01   3.6318E+01   9.3526E-07  0.0157
   3.6318E+01   3.7201E+01   8.2590E-07  0.0166
   3.7201E+01   3.8106E+01   7.2630E-07  0.0174
   3.8106E+01   3.9034E+01   6.3959E-07  0.0184
   3.9034E+01   3.9983E+01   5.4690E-07  0.0196
   3.9983E+01   4.0956E+01   4.8333E-07  0.0206
   4.0956E+01   4.1953E+01   3.9820E-07  0.0225
   4.1953E+01   4.2973E+01   3.4994E-07  0.0237
   4.2973E+01   4.4019E+01   2.9515E-07  0.0255
   4.4019E+01   4.5090E+01   2.4836E-07  0.0274
   4.5090E+01   4.6187E+01   2.2387E-07  0.0285
   4.6187E+01   4.7311E+01   1.8509E-07  0.0310
   4.7311E+01   4.8462E+01   1.5029E-07  0.0340
   4.8462E+01   4.9641E+01   1.3569E-07  0.0354
   4.9641E+01   5.0849E+01   1.0068E-07  0.0406
   5.0849E+01   5.2086E+01   9.9904E-08  0.0402
   5.2086E+01   5.3353E+01   7.5752E-08  0.0456
   5.3353E+01   5.4651E+01   6.1011E-08  0.0503
   5.4651E+01   5.5981E+01   4.9785E-08  0.0550
   5.5981E+01   5.7343E+01   3.8471E-08  0.0618
   5.7343E+01   5.8738E+01   3.2253E-08  0.0667
   5.8738E+01   6.0168E+01   2.9948E-08  0.0684
   6.0168E+01   6.1632E+01   2.4455E-08  0.0747
   6.1632E+01   6.3131E+01   1.8806E-08  0.0842
   6.3131E+01   6.4667E+01   1.1849E-08  0.1048
   6.4667E+01   6.6240E+01   1.0042E-08  0.1125
   6.6240E+01   6.7852E+01   1.0424E-08  0.1091
   6.7852E+01   6.9503E+01   6.2996E-09  0.1387
   6.9503E+01   7.1194E+01   4.8490E-09  0.1562
   7.1194E+01   7.2926E+01   4.2720E-09  0.1644
   7.2926E+01   7.4701E+01   2.4798E-09  0.2132
   7.4701E+01   7.6518E+01   1.9807E-09  0.2357
   7.6518E+01   7.8380E+01   1.7188E-09  0.2500
   7.8380E+01   8.0287E+01   1.0487E-09  0.3162
   8.0287E+01   8.2240E+01   3.0715E-10  0.5774
   8.2240E+01   8.4241E+01   3.9980E-10  0.5000
   8.4241E+01   8.6291E+01   3.9031E-10  0.5000
   8.6291E+01   8.8391E+01   1.9052E-10  0.7071
   8.8391E+01   9.0541E+01   1.8599E-10  0.7071
   9.0541E+01   9.2744E+01   2.7236E-10  0.5774
   9.2744E+01   9.5001E+01   0.0000E+00  0.0000
   9.5001E+01   9.7312E+01   8.6526E-11  1.0000
   9.7312E+01   9.9680E+01   8.4471E-11  1.0000
   9.9680E+01   1.0211E+02   0.0000E+00  0.0000
   1.0211E+02   1.0459E+02   0.0000E+00  0.0000
   1.0459E+02   1.0713E+02   0.0000E+00  0.0000
   1.0713E+02   1.0974E+02   0.0000E+00  0.0000
   1.0974E+02   1.1241E+02   0.0000E+00  0.0000
   1.1241E+02   1.1515E+02   0.0000E+00  0.0000
   1.1515E+02   1.1795E+02   0.0000E+00  0.0000
   1.1795E+02   1.2082E+02   0.0000E+00  0.0000
   1.2082E+02   1.2376E+02   0.0000E+00  0.0000
   1.2376E+02   1.2677E+02   0.0000E+00  0.0000
   1.2677E+02   1.2985E+02   0.0000E+00  0.0000
   1.2985E+02   1.3301E+02   0.0000E+00  0.0000
   1.3301E+02   1.3625E+02   0.0000E+00  0.0000
   1.3625E+02   1.3956E+02   0.0000E+00  0.0000
   1.3956E+02   1.4296E+02   0.0000E+00  0.0000
   1.4296E+02   1.4644E+02   0.0000E+00  0.0000
   1.4644E+02   1.5000E+02   0.0000E+00  0.0000

#   sum over                 2.8521E-05
'no. =    1   reg = 119 - 219'
msuc: {\huge [t-cross] in region mesh}
msdr: {\it plotted by \ANGEL \version}
msdl: {\it calculated by \PHITS  3.28}
wt: s(0.7)
\vspace{-3}
  region surface crossing
  area  &=&   1.0000E+00 [cm^2]
e:
 
# Information for Restart Calculation
# This calculation was newly started
# istdev =  2 # 1:Batch variance, 2:History variance
# resc2  = 5.00000000000000000E+09 # Total source weight or Total source weight / maxcas
# resc3  = 5.00000000000000000E+09 # Total history number or Total batch number
# maxcas =   500000000 # History / Batch, only used for istdev=1
# bitrseed = 0110100000100010111000001110001111001110100100011111101000111001 # bit data of rseed
