[ T-Cross ]
    title = [t-cross] in region mesh
     mesh =  reg            # mesh type is region-wise
      reg =    1            # number of crossing regions
      non     r-from    r-to       area
      1       121       221        1.000000    
   e-type =    3            # e-mesh is log given by emin, emax and ne
     emin =  1.0000000E-02  # minimum value of e-mesh points
     emax =   150.0000      # maximum value of e-mesh points
#    edel =  2.4039514E-02  # mesh width of e-mesh points
       ne =    400          # number of e-mesh points
#    data = ( e(i), i = 1, ne + 1 )
#           1.00000E-02  1.02433E-02  1.04925E-02  1.07478E-02  1.10093E-02
#           1.12772E-02  1.15516E-02  1.18326E-02  1.21205E-02  1.24154E-02
#           1.27175E-02  1.30269E-02  1.33439E-02  1.36686E-02  1.40011E-02
#           1.43418E-02  1.46907E-02  1.50482E-02  1.54143E-02  1.57894E-02
#           1.61735E-02  1.65670E-02  1.69701E-02  1.73830E-02  1.78060E-02
#           1.82392E-02  1.86830E-02  1.91375E-02  1.96032E-02  2.00801E-02
#           2.05687E-02  2.10692E-02  2.15818E-02  2.21069E-02  2.26448E-02
#           2.31957E-02  2.37601E-02  2.43382E-02  2.49304E-02  2.55369E-02
#           2.61583E-02  2.67947E-02  2.74467E-02  2.81145E-02  2.87985E-02
#           2.94992E-02  3.02169E-02  3.09521E-02  3.17052E-02  3.24766E-02
#           3.32668E-02  3.40762E-02  3.49053E-02  3.57546E-02  3.66246E-02
#           3.75157E-02  3.84284E-02  3.93634E-02  4.03212E-02  4.13022E-02
#           4.23071E-02  4.33365E-02  4.43909E-02  4.54710E-02  4.65773E-02
#           4.77106E-02  4.88714E-02  5.00605E-02  5.12785E-02  5.25262E-02
#           5.38042E-02  5.51133E-02  5.64542E-02  5.78278E-02  5.92348E-02
#           6.06760E-02  6.21523E-02  6.36645E-02  6.52135E-02  6.68002E-02
#           6.84255E-02  7.00904E-02  7.17957E-02  7.35426E-02  7.53319E-02
#           7.71648E-02  7.90423E-02  8.09655E-02  8.29354E-02  8.49533E-02
#           8.70203E-02  8.91376E-02  9.13064E-02  9.35279E-02  9.58035E-02
#           9.81345E-02  1.00522E-01  1.02968E-01  1.05473E-01  1.08040E-01
#           1.10668E-01  1.13361E-01  1.16119E-01  1.18944E-01  1.21838E-01
#           1.24803E-01  1.27839E-01  1.30950E-01  1.34136E-01  1.37399E-01
#           1.40742E-01  1.44167E-01  1.47675E-01  1.51268E-01  1.54948E-01
#           1.58718E-01  1.62580E-01  1.66535E-01  1.70587E-01  1.74738E-01
#           1.78989E-01  1.83344E-01  1.87805E-01  1.92375E-01  1.97055E-01
#           2.01850E-01  2.06761E-01  2.11792E-01  2.16945E-01  2.22223E-01
#           2.27630E-01  2.33169E-01  2.38842E-01  2.44653E-01  2.50605E-01
#           2.56703E-01  2.62949E-01  2.69346E-01  2.75900E-01  2.82613E-01
#           2.89489E-01  2.96532E-01  3.03747E-01  3.11138E-01  3.18708E-01
#           3.26462E-01  3.34405E-01  3.42542E-01  3.50876E-01  3.59413E-01
#           3.68158E-01  3.77116E-01  3.86291E-01  3.95690E-01  4.05317E-01
#           4.15179E-01  4.25281E-01  4.35628E-01  4.46227E-01  4.57084E-01
#           4.68205E-01  4.79597E-01  4.91266E-01  5.03219E-01  5.15463E-01
#           5.28005E-01  5.40851E-01  5.54011E-01  5.67490E-01  5.81298E-01
#           5.95441E-01  6.09929E-01  6.24769E-01  6.39970E-01  6.55541E-01
#           6.71491E-01  6.87828E-01  7.04564E-01  7.21706E-01  7.39266E-01
#           7.57253E-01  7.75678E-01  7.94551E-01  8.13883E-01  8.33685E-01
#           8.53969E-01  8.74747E-01  8.96030E-01  9.17831E-01  9.40163E-01
#           9.63038E-01  9.86469E-01  1.01047E+00  1.03506E+00  1.06024E+00
#           1.08604E+00  1.11246E+00  1.13953E+00  1.16725E+00  1.19565E+00
#           1.22474E+00  1.25454E+00  1.28507E+00  1.31633E+00  1.34836E+00
#           1.38117E+00  1.41477E+00  1.44920E+00  1.48446E+00  1.52057E+00
#           1.55757E+00  1.59547E+00  1.63429E+00  1.67405E+00  1.71478E+00
#           1.75650E+00  1.79924E+00  1.84302E+00  1.88786E+00  1.93379E+00
#           1.98084E+00  2.02904E+00  2.07841E+00  2.12898E+00  2.18078E+00
#           2.23384E+00  2.28819E+00  2.34386E+00  2.40089E+00  2.45930E+00
#           2.51914E+00  2.58043E+00  2.64322E+00  2.70753E+00  2.77341E+00
#           2.84088E+00  2.91001E+00  2.98081E+00  3.05333E+00  3.12762E+00
#           3.20372E+00  3.28167E+00  3.36152E+00  3.44330E+00  3.52708E+00
#           3.61290E+00  3.70080E+00  3.79085E+00  3.88308E+00  3.97756E+00
#           4.07434E+00  4.17347E+00  4.27501E+00  4.37903E+00  4.48557E+00
#           4.59471E+00  4.70650E+00  4.82102E+00  4.93832E+00  5.05847E+00
#           5.18155E+00  5.30762E+00  5.43676E+00  5.56904E+00  5.70453E+00
#           5.84333E+00  5.98550E+00  6.13114E+00  6.28031E+00  6.43312E+00
#           6.58964E+00  6.74997E+00  6.91420E+00  7.08243E+00  7.25475E+00
#           7.43126E+00  7.61207E+00  7.79728E+00  7.98700E+00  8.18133E+00
#           8.38038E+00  8.58428E+00  8.79315E+00  9.00709E+00  9.22624E+00
#           9.45072E+00  9.68067E+00  9.91620E+00  1.01575E+01  1.04046E+01
#           1.06578E+01  1.09171E+01  1.11827E+01  1.14548E+01  1.17335E+01
#           1.20190E+01  1.23114E+01  1.26109E+01  1.29178E+01  1.32321E+01
#           1.35540E+01  1.38838E+01  1.42216E+01  1.45676E+01  1.49221E+01
#           1.52851E+01  1.56570E+01  1.60380E+01  1.64282E+01  1.68279E+01
#           1.72374E+01  1.76568E+01  1.80864E+01  1.85264E+01  1.89772E+01
#           1.94389E+01  1.99119E+01  2.03963E+01  2.08926E+01  2.14009E+01
#           2.19216E+01  2.24550E+01  2.30014E+01  2.35610E+01  2.41343E+01
#           2.47215E+01  2.53230E+01  2.59391E+01  2.65702E+01  2.72167E+01
#           2.78789E+01  2.85572E+01  2.92520E+01  2.99637E+01  3.06928E+01
#           3.14396E+01  3.22045E+01  3.29881E+01  3.37907E+01  3.46128E+01
#           3.54550E+01  3.63177E+01  3.72013E+01  3.81064E+01  3.90336E+01
#           3.99833E+01  4.09561E+01  4.19526E+01  4.29734E+01  4.40189E+01
#           4.50900E+01  4.61870E+01  4.73108E+01  4.84619E+01  4.96410E+01
#           5.08488E+01  5.20860E+01  5.33533E+01  5.46514E+01  5.59812E+01
#           5.73432E+01  5.87384E+01  6.01676E+01  6.16315E+01  6.31311E+01
#           6.46671E+01  6.62405E+01  6.78522E+01  6.95031E+01  7.11941E+01
#           7.29263E+01  7.47007E+01  7.65182E+01  7.83800E+01  8.02870E+01
#           8.22405E+01  8.42414E+01  8.62911E+01  8.83906E+01  9.05412E+01
#           9.27442E+01  9.50007E+01  9.73122E+01  9.96799E+01  1.02105E+02
#           1.04589E+02  1.07134E+02  1.09741E+02  1.12411E+02  1.15146E+02
#           1.17948E+02  1.20817E+02  1.23757E+02  1.26768E+02  1.29852E+02
#           1.33012E+02  1.36248E+02  1.39563E+02  1.42959E+02  1.46437E+02
#           1.50000E+02
     unit =    2            # unit is [1/cm^2/(MeV/n)/source]
     axis =  eng            # axis of output
     file = detector-22.out  # file name of output for the above axis
   output = f-curr          # surface crossing forward current spectrum
     part =  neutron  
# kf/name :  2112     
#    used :        main (  %)        temp (  %)       total (  %)
#  memory :         414 (  0)           0 (  0)         414 (  0)

#------------------------------------------------------------------------------
#newpage:
#   no. =    1   reg = 121 - 221

x: Energy [MeV/n]
y:  F-Curr [1/cm^2/(MeV/n)/source]         
p: xlog ylog afac(0.8) form(0.9)
h: n            x            y(neutron ),hh0l   n 
#  e-lower      e-upper      neutron     r.err 
   1.0000E-02   1.0243E-02   0.0000E+00  0.0000
   1.0243E-02   1.0493E-02   0.0000E+00  0.0000
   1.0493E-02   1.0748E-02   0.0000E+00  0.0000
   1.0748E-02   1.1009E-02   0.0000E+00  0.0000
   1.1009E-02   1.1277E-02   0.0000E+00  0.0000
   1.1277E-02   1.1552E-02   0.0000E+00  0.0000
   1.1552E-02   1.1833E-02   0.0000E+00  0.0000
   1.1833E-02   1.2121E-02   0.0000E+00  0.0000
   1.2121E-02   1.2415E-02   0.0000E+00  0.0000
   1.2415E-02   1.2718E-02   0.0000E+00  0.0000
   1.2718E-02   1.3027E-02   0.0000E+00  0.0000
   1.3027E-02   1.3344E-02   1.2620E-06  0.7071
   1.3344E-02   1.3669E-02   0.0000E+00  0.0000
   1.3669E-02   1.4001E-02   0.0000E+00  0.0000
   1.4001E-02   1.4342E-02   5.8710E-07  1.0000
   1.4342E-02   1.4691E-02   5.7315E-07  1.0000
   1.4691E-02   1.5048E-02   0.0000E+00  0.0000
   1.5048E-02   1.5414E-02   0.0000E+00  0.0000
   1.5414E-02   1.5789E-02   1.0665E-06  0.7071
   1.5789E-02   1.6174E-02   0.0000E+00  0.0000
   1.6174E-02   1.6567E-02   0.0000E+00  0.0000
   1.6567E-02   1.6970E-02   4.9617E-07  1.0000
   1.6970E-02   1.7383E-02   4.8438E-07  1.0000
   1.7383E-02   1.7806E-02   0.0000E+00  0.0000
   1.7806E-02   1.8239E-02   4.6165E-07  1.0000
   1.8239E-02   1.8683E-02   0.0000E+00  0.0000
   1.8683E-02   1.9138E-02   0.0000E+00  0.0000
   1.9138E-02   1.9603E-02   0.0000E+00  0.0000
   1.9603E-02   2.0080E-02   4.1932E-07  1.0000
   2.0080E-02   2.0569E-02   0.0000E+00  0.0000
   2.0569E-02   2.1069E-02   7.9928E-07  0.7071
   2.1069E-02   2.1582E-02   5.5655E-07  0.7621
   2.1582E-02   2.2107E-02   8.5132E-07  0.6414
   2.2107E-02   2.2645E-02   0.0000E+00  0.0000
   2.2645E-02   2.3196E-02   3.6300E-07  1.0000
   2.3196E-02   2.3760E-02   3.5438E-07  1.0000
   2.3760E-02   2.4338E-02   3.4596E-07  1.0000
   2.4338E-02   2.4930E-02   3.3774E-07  1.0000
   2.4930E-02   2.5537E-02   6.5944E-07  0.7071
   2.5537E-02   2.6158E-02   6.4378E-07  0.7071
   2.6158E-02   2.6795E-02   3.1424E-07  1.0000
   2.6795E-02   2.7447E-02   6.5976E-07  0.6613
   2.7447E-02   2.8114E-02   2.9949E-07  1.0000
   2.8114E-02   2.8799E-02   0.0000E+00  0.0000
   2.8799E-02   2.9499E-02   7.1358E-07  0.6000
   2.9499E-02   3.0217E-02   6.1365E-07  0.6487
   3.0217E-02   3.0952E-02   0.0000E+00  0.0000
   3.0952E-02   3.1705E-02   7.9672E-07  0.5774
   3.1705E-02   3.2477E-02   2.5926E-07  1.0000
   3.2477E-02   3.3267E-02   2.5311E-07  1.0000
   3.3267E-02   3.4076E-02   4.9419E-07  0.7071
   3.4076E-02   3.4905E-02   7.2367E-07  0.5774
   3.4905E-02   3.5755E-02   7.0649E-07  0.5774
   3.5755E-02   3.6625E-02   9.1961E-07  0.5000
   3.6625E-02   3.7516E-02   7.2436E-07  0.5413
   3.7516E-02   3.8428E-02   4.3822E-07  0.7071
   3.8428E-02   3.9363E-02   9.5741E-07  0.4593
   3.9363E-02   4.0321E-02   8.3530E-07  0.5000
   4.0321E-02   4.1302E-02   1.6309E-06  0.3536
   4.1302E-02   4.2307E-02   9.9511E-07  0.4472
   4.2307E-02   4.3337E-02   1.2389E-06  0.3886
   4.3337E-02   4.4391E-02   1.2686E-06  0.3748
   4.4391E-02   4.5471E-02   1.5224E-06  0.3451
   4.5471E-02   4.6577E-02   9.4710E-07  0.4292
   4.6577E-02   4.7711E-02   1.4937E-06  0.3364
   4.7711E-02   4.8871E-02   5.7755E-07  0.5273
   4.8871E-02   5.0061E-02   8.4099E-07  0.4472
   5.0061E-02   5.1279E-02   1.5599E-06  0.3201
   5.1279E-02   5.2526E-02   1.9239E-06  0.2802
   5.2526E-02   5.3804E-02   9.6969E-07  0.3966
   5.3804E-02   5.5113E-02   2.1352E-06  0.2673
   5.5113E-02   5.6454E-02   2.2178E-06  0.2545
   5.6454E-02   5.7828E-02   1.6360E-06  0.2959
   5.7828E-02   5.9235E-02   2.0502E-06  0.2603
   5.9235E-02   6.0676E-02   1.8763E-06  0.2676
   6.0676E-02   6.2152E-02   2.9257E-06  0.2133
   6.2152E-02   6.3665E-02   2.3086E-06  0.2356
   6.3665E-02   6.5214E-02   2.3547E-06  0.2329
   6.5214E-02   6.6800E-02   2.3883E-06  0.2204
   6.6800E-02   6.8426E-02   2.6460E-06  0.2138
   6.8426E-02   7.0090E-02   1.9100E-06  0.2463
   7.0090E-02   7.1796E-02   3.4546E-06  0.1831
   7.1796E-02   7.3543E-02   2.7961E-06  0.1985
   7.3543E-02   7.5332E-02   3.0581E-06  0.1889
   7.5332E-02   7.7165E-02   2.3566E-06  0.2131
   7.7165E-02   7.9042E-02   2.4876E-06  0.1968
   7.9042E-02   8.0965E-02   2.8640E-06  0.1890
   8.0965E-02   8.2935E-02   3.3727E-06  0.1698
   8.2935E-02   8.4953E-02   3.4979E-06  0.1630
   8.4953E-02   8.7020E-02   3.8595E-06  0.1542
   8.7020E-02   8.9138E-02   4.0379E-06  0.1501
   8.9138E-02   9.1306E-02   3.9248E-06  0.1507
   9.1306E-02   9.3528E-02   4.2291E-06  0.1423
   9.3528E-02   9.5804E-02   5.1816E-06  0.1285
   9.5804E-02   9.8134E-02   4.7459E-06  0.1326
   9.8134E-02   1.0052E-01   4.3500E-06  0.1354
   1.0052E-01   1.0297E-01   5.8127E-06  0.1169
   1.0297E-01   1.0547E-01   4.9236E-06  0.1248
   1.0547E-01   1.0804E-01   6.8220E-06  0.1052
   1.0804E-01   1.1067E-01   6.2943E-06  0.1089
   1.1067E-01   1.1336E-01   5.0787E-06  0.1193
   1.1336E-01   1.1612E-01   5.8760E-06  0.1093
   1.1612E-01   1.1894E-01   6.6893E-06  0.1013
   1.1894E-01   1.2184E-01   7.4620E-06  0.0953
   1.2184E-01   1.2480E-01   6.5006E-06  0.1006
   1.2480E-01   1.2784E-01   6.9584E-06  0.0958
   1.2784E-01   1.3095E-01   7.7008E-06  0.0902
   1.3095E-01   1.3414E-01   8.6050E-06  0.0845
   1.3414E-01   1.3740E-01   7.4610E-06  0.0894
   1.3740E-01   1.4074E-01   8.6095E-06  0.0819
   1.4074E-01   1.4417E-01   8.6192E-06  0.0815
   1.4417E-01   1.4767E-01   8.8623E-06  0.0790
   1.4767E-01   1.5127E-01   7.9015E-06  0.0828
   1.5127E-01   1.5495E-01   1.0708E-05  0.0703
   1.5495E-01   1.5872E-01   1.0142E-05  0.0714
   1.5872E-01   1.6258E-01   1.0642E-05  0.0688
   1.6258E-01   1.6654E-01   1.0834E-05  0.0675
   1.6654E-01   1.7059E-01   1.0934E-05  0.0662
   1.7059E-01   1.7474E-01   1.1556E-05  0.0636
   1.7474E-01   1.7899E-01   1.3069E-05  0.0592
   1.7899E-01   1.8334E-01   1.1651E-05  0.0618
   1.8334E-01   1.8781E-01   1.2847E-05  0.0582
   1.8781E-01   1.9237E-01   1.4167E-05  0.0550
   1.9237E-01   1.9706E-01   1.4377E-05  0.0537
   1.9706E-01   2.0185E-01   1.4720E-05  0.0523
   2.0185E-01   2.0676E-01   1.4270E-05  0.0527
   2.0676E-01   2.1179E-01   1.5856E-05  0.0493
   2.1179E-01   2.1694E-01   1.6754E-05  0.0476
   2.1694E-01   2.2222E-01   1.7506E-05  0.0458
   2.2222E-01   2.2763E-01   1.7844E-05  0.0449
   2.2763E-01   2.3317E-01   1.8704E-05  0.0435
   2.3317E-01   2.3884E-01   1.9128E-05  0.0423
   2.3884E-01   2.4465E-01   1.8827E-05  0.0422
   2.4465E-01   2.5061E-01   2.0479E-05  0.0400
   2.5061E-01   2.5670E-01   2.0446E-05  0.0395
   2.5670E-01   2.6295E-01   2.1960E-05  0.0377
   2.6295E-01   2.6935E-01   2.0337E-05  0.0387
   2.6935E-01   2.7590E-01   2.1933E-05  0.0367
   2.7590E-01   2.8261E-01   2.2246E-05  0.0362
   2.8261E-01   2.8949E-01   2.2859E-05  0.0351
   2.8949E-01   2.9653E-01   2.5281E-05  0.0332
   2.9653E-01   3.0375E-01   2.4936E-05  0.0330
   3.0375E-01   3.1114E-01   2.5513E-05  0.0322
   3.1114E-01   3.1871E-01   2.5774E-05  0.0317
   3.1871E-01   3.2646E-01   2.8878E-05  0.0296
   3.2646E-01   3.3441E-01   2.8884E-05  0.0292
   3.3441E-01   3.4254E-01   2.8409E-05  0.0291
   3.4254E-01   3.5088E-01   3.0692E-05  0.0277
   3.5088E-01   3.5941E-01   3.0570E-05  0.0274
   3.5941E-01   3.6816E-01   3.1284E-05  0.0268
   3.6816E-01   3.7712E-01   3.1925E-05  0.0262
   3.7712E-01   3.8629E-01   3.3377E-05  0.0253
   3.8629E-01   3.9569E-01   3.3411E-05  0.0250
   3.9569E-01   4.0532E-01   3.4410E-05  0.0243
   4.0532E-01   4.1518E-01   3.4228E-05  0.0242
   4.1518E-01   4.2528E-01   3.5644E-05  0.0234
   4.2528E-01   4.3563E-01   3.4897E-05  0.0233
   4.3563E-01   4.4623E-01   3.6731E-05  0.0224
   4.4623E-01   4.5708E-01   3.7285E-05  0.0220
   4.5708E-01   4.6821E-01   3.6713E-05  0.0220
   4.6821E-01   4.7960E-01   3.9028E-05  0.0210
   4.7960E-01   4.9127E-01   3.8826E-05  0.0208
   4.9127E-01   5.0322E-01   4.0169E-05  0.0202
   5.0322E-01   5.1546E-01   4.0326E-05  0.0199
   5.1546E-01   5.2800E-01   4.0197E-05  0.0198
   5.2800E-01   5.4085E-01   4.1740E-05  0.0191
   5.4085E-01   5.5401E-01   4.0546E-05  0.0192
   5.5401E-01   5.6749E-01   4.1454E-05  0.0187
   5.6749E-01   5.8130E-01   4.1752E-05  0.0184
   5.8130E-01   5.9544E-01   4.3600E-05  0.0178
   5.9544E-01   6.0993E-01   4.4766E-05  0.0174
   6.0993E-01   6.2477E-01   4.6487E-05  0.0169
   6.2477E-01   6.3997E-01   4.5207E-05  0.0169
   6.3997E-01   6.5554E-01   4.4538E-05  0.0168
   6.5554E-01   6.7149E-01   4.6490E-05  0.0163
   6.7149E-01   6.8783E-01   4.6738E-05  0.0160
   6.8783E-01   7.0456E-01   4.7166E-05  0.0158
   7.0456E-01   7.2171E-01   4.7729E-05  0.0155
   7.2171E-01   7.3927E-01   4.8009E-05  0.0152
   7.3927E-01   7.5725E-01   4.8634E-05  0.0150
   7.5725E-01   7.7568E-01   4.7497E-05  0.0149
   7.7568E-01   7.9455E-01   4.8034E-05  0.0147
   7.9455E-01   8.1388E-01   4.8561E-05  0.0144
   8.1388E-01   8.3368E-01   4.9682E-05  0.0141
   8.3368E-01   8.5397E-01   5.0448E-05  0.0138
   8.5397E-01   8.7475E-01   5.0460E-05  0.0136
   8.7475E-01   8.9603E-01   5.0687E-05  0.0134
   8.9603E-01   9.1783E-01   5.0970E-05  0.0132
   9.1783E-01   9.4016E-01   5.1507E-05  0.0130
   9.4016E-01   9.6304E-01   5.0566E-05  0.0130
   9.6304E-01   9.8647E-01   5.1856E-05  0.0126
   9.8647E-01   1.0105E+00   5.0408E-05  0.0127
   1.0105E+00   1.0351E+00   4.9584E-05  0.0126
   1.0351E+00   1.0602E+00   4.7908E-05  0.0127
   1.0602E+00   1.0860E+00   4.7509E-05  0.0126
   1.0860E+00   1.1125E+00   4.8346E-05  0.0123
   1.1125E+00   1.1395E+00   4.6372E-05  0.0124
   1.1395E+00   1.1673E+00   4.6322E-05  0.0123
   1.1673E+00   1.1957E+00   4.6375E-05  0.0121
   1.1957E+00   1.2247E+00   4.5818E-05  0.0120
   1.2247E+00   1.2545E+00   4.3971E-05  0.0121
   1.2545E+00   1.2851E+00   4.4671E-05  0.0119
   1.2851E+00   1.3163E+00   4.3380E-05  0.0119
   1.3163E+00   1.3484E+00   4.1959E-05  0.0120
   1.3484E+00   1.3812E+00   4.1763E-05  0.0119
   1.3812E+00   1.4148E+00   4.1560E-05  0.0117
   1.4148E+00   1.4492E+00   4.1424E-05  0.0116
   1.4492E+00   1.4845E+00   4.0462E-05  0.0116
   1.4845E+00   1.5206E+00   4.0456E-05  0.0115
   1.5206E+00   1.5576E+00   3.9369E-05  0.0115
   1.5576E+00   1.5955E+00   3.8532E-05  0.0115
   1.5955E+00   1.6343E+00   3.8216E-05  0.0114
   1.6343E+00   1.6741E+00   3.6819E-05  0.0114
   1.6741E+00   1.7148E+00   3.5893E-05  0.0114
   1.7148E+00   1.7565E+00   3.5090E-05  0.0114
   1.7565E+00   1.7992E+00   3.5308E-05  0.0113
   1.7992E+00   1.8430E+00   3.4778E-05  0.0112
   1.8430E+00   1.8879E+00   3.4345E-05  0.0111
   1.8879E+00   1.9338E+00   3.2748E-05  0.0113
   1.9338E+00   1.9808E+00   3.2167E-05  0.0112
   1.9808E+00   2.0290E+00   3.1612E-05  0.0112
   2.0290E+00   2.0784E+00   3.1080E-05  0.0111
   2.0784E+00   2.1290E+00   3.0673E-05  0.0110
   2.1290E+00   2.1808E+00   3.0102E-05  0.0110
   2.1808E+00   2.2338E+00   2.8687E-05  0.0111
   2.2338E+00   2.2882E+00   2.8472E-05  0.0110
   2.2882E+00   2.3439E+00   2.7566E-05  0.0111
   2.3439E+00   2.4009E+00   2.6577E-05  0.0111
   2.4009E+00   2.4593E+00   2.6210E-05  0.0110
   2.4593E+00   2.5191E+00   2.5207E-05  0.0111
   2.5191E+00   2.5804E+00   2.4551E-05  0.0111
   2.5804E+00   2.6432E+00   2.3139E-05  0.0113
   2.6432E+00   2.7075E+00   2.2784E-05  0.0112
   2.7075E+00   2.7734E+00   2.2690E-05  0.0111
   2.7734E+00   2.8409E+00   2.1748E-05  0.0112
   2.8409E+00   2.9100E+00   2.0994E-05  0.0113
   2.9100E+00   2.9808E+00   2.0117E-05  0.0114
   2.9808E+00   3.0533E+00   1.9483E-05  0.0114
   3.0533E+00   3.1276E+00   1.8856E-05  0.0115
   3.1276E+00   3.2037E+00   1.8275E-05  0.0115
   3.2037E+00   3.2817E+00   1.7171E-05  0.0117
   3.2817E+00   3.3615E+00   1.6785E-05  0.0118
   3.3615E+00   3.4433E+00   1.6067E-05  0.0119
   3.4433E+00   3.5271E+00   1.6052E-05  0.0117
   3.5271E+00   3.6129E+00   1.5119E-05  0.0119
   3.6129E+00   3.7008E+00   1.4592E-05  0.0120
   3.7008E+00   3.7908E+00   1.3872E-05  0.0121
   3.7908E+00   3.8831E+00   1.3736E-05  0.0121
   3.8831E+00   3.9776E+00   1.3259E-05  0.0121
   3.9776E+00   4.0743E+00   1.2634E-05  0.0122
   4.0743E+00   4.1735E+00   1.2249E-05  0.0123
   4.1735E+00   4.2750E+00   1.1728E-05  0.0124
   4.2750E+00   4.3790E+00   1.1317E-05  0.0125
   4.3790E+00   4.4856E+00   1.0966E-05  0.0125
   4.4856E+00   4.5947E+00   1.0876E-05  0.0125
   4.5947E+00   4.7065E+00   1.0481E-05  0.0125
   4.7065E+00   4.8210E+00   1.0147E-05  0.0126
   4.8210E+00   4.9383E+00   9.8239E-06  0.0127
   4.9383E+00   5.0585E+00   9.5157E-06  0.0127
   5.0585E+00   5.1815E+00   9.3570E-06  0.0127
   5.1815E+00   5.3076E+00   9.3819E-06  0.0125
   5.3076E+00   5.4368E+00   8.9815E-06  0.0126
   5.4368E+00   5.5690E+00   8.5942E-06  0.0128
   5.5690E+00   5.7045E+00   8.5071E-06  0.0127
   5.7045E+00   5.8433E+00   8.3464E-06  0.0127
   5.8433E+00   5.9855E+00   8.0798E-06  0.0127
   5.9855E+00   6.1311E+00   7.7650E-06  0.0129
   6.1311E+00   6.2803E+00   7.6026E-06  0.0129
   6.2803E+00   6.4331E+00   7.5628E-06  0.0128
   6.4331E+00   6.5896E+00   7.0902E-06  0.0130
   6.5896E+00   6.7500E+00   7.0996E-06  0.0129
   6.7500E+00   6.9142E+00   6.9866E-06  0.0128
   6.9142E+00   7.0824E+00   6.8868E-06  0.0128
   7.0824E+00   7.2548E+00   6.4673E-06  0.0130
   7.2548E+00   7.4313E+00   6.3243E-06  0.0130
   7.4313E+00   7.6121E+00   6.1376E-06  0.0131
   7.6121E+00   7.7973E+00   5.9654E-06  0.0131
   7.7973E+00   7.9870E+00   5.8799E-06  0.0131
   7.9870E+00   8.1813E+00   5.6794E-06  0.0132
   8.1813E+00   8.3804E+00   5.3710E-06  0.0134
   8.3804E+00   8.5843E+00   5.1892E-06  0.0134
   8.5843E+00   8.7931E+00   5.1971E-06  0.0133
   8.7931E+00   9.0071E+00   4.8652E-06  0.0136
   9.0071E+00   9.2262E+00   4.7707E-06  0.0136
   9.2262E+00   9.4507E+00   4.3849E-06  0.0140
   9.4507E+00   9.6807E+00   4.2872E-06  0.0140
   9.6807E+00   9.9162E+00   4.0708E-06  0.0142
   9.9162E+00   1.0157E+01   3.9838E-06  0.0142
   1.0157E+01   1.0405E+01   3.7521E-06  0.0144
   1.0405E+01   1.0658E+01   3.6053E-06  0.0146
   1.0658E+01   1.0917E+01   3.4291E-06  0.0148
   1.0917E+01   1.1183E+01   3.2477E-06  0.0150
   1.1183E+01   1.1455E+01   3.1789E-06  0.0150
   1.1455E+01   1.1733E+01   2.9667E-06  0.0153
   1.1733E+01   1.2019E+01   2.7366E-06  0.0158
   1.2019E+01   1.2311E+01   2.6660E-06  0.0158
   1.2311E+01   1.2611E+01   2.5331E-06  0.0160
   1.2611E+01   1.2918E+01   2.4558E-06  0.0161
   1.2918E+01   1.3232E+01   2.1359E-06  0.0170
   1.3232E+01   1.3554E+01   1.9675E-06  0.0176
   1.3554E+01   1.3884E+01   1.9687E-06  0.0174
   1.3884E+01   1.4222E+01   1.7534E-06  0.0182
   1.4222E+01   1.4568E+01   1.6891E-06  0.0183
   1.4568E+01   1.4922E+01   1.5126E-06  0.0191
   1.4922E+01   1.5285E+01   1.3816E-06  0.0198
   1.5285E+01   1.5657E+01   1.3262E-06  0.0200
   1.5657E+01   1.6038E+01   1.2481E-06  0.0204
   1.6038E+01   1.6428E+01   1.1208E-06  0.0212
   1.6428E+01   1.6828E+01   1.0365E-06  0.0218
   1.6828E+01   1.7237E+01   9.5786E-07  0.0225
   1.7237E+01   1.7657E+01   8.8203E-07  0.0231
   1.7657E+01   1.8086E+01   8.0285E-07  0.0240
   1.8086E+01   1.8526E+01   7.4815E-07  0.0245
   1.8526E+01   1.8977E+01   6.7344E-07  0.0256
   1.8977E+01   1.9439E+01   6.4978E-07  0.0257
   1.9439E+01   1.9912E+01   5.6968E-07  0.0272
   1.9912E+01   2.0396E+01   5.4905E-07  0.0274
   2.0396E+01   2.0893E+01   4.8966E-07  0.0287
   2.0893E+01   2.1401E+01   4.7410E-07  0.0288
   2.1401E+01   2.1922E+01   4.2788E-07  0.0300
   2.1922E+01   2.2455E+01   3.8435E-07  0.0312
   2.2455E+01   2.3001E+01   3.4264E-07  0.0327
   2.3001E+01   2.3561E+01   3.2485E-07  0.0332
   2.3561E+01   2.4134E+01   2.6690E-07  0.0362
   2.4134E+01   2.4721E+01   2.2309E-07  0.0391
   2.4721E+01   2.5323E+01   2.0715E-07  0.0401
   2.5323E+01   2.5939E+01   1.7269E-07  0.0434
   2.5939E+01   2.6570E+01   1.4672E-07  0.0465
   2.6570E+01   2.7217E+01   1.2777E-07  0.0492
   2.7217E+01   2.7879E+01   1.2232E-07  0.0497
   2.7879E+01   2.8557E+01   9.6415E-08  0.0553
   2.8557E+01   2.9252E+01   7.1961E-08  0.0632
   2.9252E+01   2.9964E+01   6.8847E-08  0.0639
   2.9964E+01   3.0693E+01   5.0203E-08  0.0739
   3.0693E+01   3.1440E+01   4.3922E-08  0.0781
   3.1440E+01   3.2205E+01   3.1375E-08  0.0913
   3.2205E+01   3.2988E+01   2.8332E-08  0.0949
   3.2988E+01   3.3791E+01   2.6662E-08  0.0967
   3.3791E+01   3.4613E+01   1.8488E-08  0.1147
   3.4613E+01   3.5455E+01   1.5912E-08  0.1222
   3.5455E+01   3.6318E+01   1.1129E-08  0.1443
   3.6318E+01   3.7201E+01   1.1091E-08  0.1429
   3.7201E+01   3.8106E+01   8.6175E-09  0.1601
   3.8106E+01   3.9034E+01   5.1771E-09  0.2041
   3.9034E+01   3.9983E+01   5.4753E-09  0.1961
   3.9983E+01   4.0956E+01   2.8782E-09  0.2673
   4.0956E+01   4.1953E+01   3.0106E-09  0.2582
   4.1953E+01   4.2973E+01   1.9594E-09  0.3162
   4.2973E+01   4.4019E+01   1.9128E-09  0.3162
   4.4019E+01   4.5090E+01   9.3369E-10  0.4472
   4.5090E+01   4.6187E+01   3.6461E-10  0.7071
   4.6187E+01   4.7311E+01   3.5595E-10  0.7071
   4.7311E+01   4.8462E+01   3.4749E-10  0.7071
   4.8462E+01   4.9641E+01   0.0000E+00  0.0000
   4.9641E+01   5.0849E+01   0.0000E+00  0.0000
   5.0849E+01   5.2086E+01   0.0000E+00  0.0000
   5.2086E+01   5.3353E+01   0.0000E+00  0.0000
   5.3353E+01   5.4651E+01   0.0000E+00  0.0000
   5.4651E+01   5.5981E+01   0.0000E+00  0.0000
   5.5981E+01   5.7343E+01   0.0000E+00  0.0000
   5.7343E+01   5.8738E+01   0.0000E+00  0.0000
   5.8738E+01   6.0168E+01   0.0000E+00  0.0000
   6.0168E+01   6.1632E+01   0.0000E+00  0.0000
   6.1632E+01   6.3131E+01   0.0000E+00  0.0000
   6.3131E+01   6.4667E+01   0.0000E+00  0.0000
   6.4667E+01   6.6240E+01   0.0000E+00  0.0000
   6.6240E+01   6.7852E+01   0.0000E+00  0.0000
   6.7852E+01   6.9503E+01   0.0000E+00  0.0000
   6.9503E+01   7.1194E+01   0.0000E+00  0.0000
   7.1194E+01   7.2926E+01   0.0000E+00  0.0000
   7.2926E+01   7.4701E+01   0.0000E+00  0.0000
   7.4701E+01   7.6518E+01   0.0000E+00  0.0000
   7.6518E+01   7.8380E+01   0.0000E+00  0.0000
   7.8380E+01   8.0287E+01   0.0000E+00  0.0000
   8.0287E+01   8.2240E+01   0.0000E+00  0.0000
   8.2240E+01   8.4241E+01   0.0000E+00  0.0000
   8.4241E+01   8.6291E+01   0.0000E+00  0.0000
   8.6291E+01   8.8391E+01   0.0000E+00  0.0000
   8.8391E+01   9.0541E+01   0.0000E+00  0.0000
   9.0541E+01   9.2744E+01   0.0000E+00  0.0000
   9.2744E+01   9.5001E+01   0.0000E+00  0.0000
   9.5001E+01   9.7312E+01   0.0000E+00  0.0000
   9.7312E+01   9.9680E+01   0.0000E+00  0.0000
   9.9680E+01   1.0211E+02   0.0000E+00  0.0000
   1.0211E+02   1.0459E+02   0.0000E+00  0.0000
   1.0459E+02   1.0713E+02   0.0000E+00  0.0000
   1.0713E+02   1.0974E+02   0.0000E+00  0.0000
   1.0974E+02   1.1241E+02   0.0000E+00  0.0000
   1.1241E+02   1.1515E+02   0.0000E+00  0.0000
   1.1515E+02   1.1795E+02   0.0000E+00  0.0000
   1.1795E+02   1.2082E+02   0.0000E+00  0.0000
   1.2082E+02   1.2376E+02   0.0000E+00  0.0000
   1.2376E+02   1.2677E+02   0.0000E+00  0.0000
   1.2677E+02   1.2985E+02   0.0000E+00  0.0000
   1.2985E+02   1.3301E+02   0.0000E+00  0.0000
   1.3301E+02   1.3625E+02   0.0000E+00  0.0000
   1.3625E+02   1.3956E+02   0.0000E+00  0.0000
   1.3956E+02   1.4296E+02   0.0000E+00  0.0000
   1.4296E+02   1.4644E+02   0.0000E+00  0.0000
   1.4644E+02   1.5000E+02   0.0000E+00  0.0000

#   sum over                 1.1836E-06
'no. =    1   reg = 121 - 221'
msuc: {\huge [t-cross] in region mesh}
msdr: {\it plotted by \ANGEL \version}
msdl: {\it calculated by \PHITS  3.26}
wt: s(0.7)
\vspace{-3}
  region surface crossing
  area  &=&   1.0000E+00 [cm^2]
e:
 
# Information for Restart Calculation
# This calculation was newly started
# istdev =  2 # 1:Batch variance, 2:History variance
# resc2  = 5.00000000000000000E+09 # Total source weight or Total source weight / maxcas
# resc3  = 5.00000000000000000E+09 # Total history number or Total batch number
# maxcas =   100000000 # History / Batch, only used for istdev=1
# bitrseed = 0110100000100010111000001110001111001110100100011111101000111001 # bit data of rseed
