[ T-Cross ]
    title = [t-cross] in region mesh
     mesh =  reg            # mesh type is region-wise
      reg =    1            # number of crossing regions
      non     r-from    r-to       area
      1       105       205        1.000000    
   e-type =    3            # e-mesh is log given by emin, emax and ne
     emin =  1.0000000E-02  # minimum value of e-mesh points
     emax =   150.0000      # maximum value of e-mesh points
#    edel =  2.4039514E-02  # mesh width of e-mesh points
       ne =    400          # number of e-mesh points
#    data = ( e(i), i = 1, ne + 1 )
#           1.00000E-02  1.02433E-02  1.04925E-02  1.07478E-02  1.10093E-02
#           1.12772E-02  1.15516E-02  1.18326E-02  1.21205E-02  1.24154E-02
#           1.27175E-02  1.30269E-02  1.33439E-02  1.36686E-02  1.40011E-02
#           1.43418E-02  1.46907E-02  1.50482E-02  1.54143E-02  1.57894E-02
#           1.61735E-02  1.65670E-02  1.69701E-02  1.73830E-02  1.78060E-02
#           1.82392E-02  1.86830E-02  1.91375E-02  1.96032E-02  2.00801E-02
#           2.05687E-02  2.10692E-02  2.15818E-02  2.21069E-02  2.26448E-02
#           2.31957E-02  2.37601E-02  2.43382E-02  2.49304E-02  2.55369E-02
#           2.61583E-02  2.67947E-02  2.74467E-02  2.81145E-02  2.87985E-02
#           2.94992E-02  3.02169E-02  3.09521E-02  3.17052E-02  3.24766E-02
#           3.32668E-02  3.40762E-02  3.49053E-02  3.57546E-02  3.66246E-02
#           3.75157E-02  3.84284E-02  3.93634E-02  4.03212E-02  4.13022E-02
#           4.23071E-02  4.33365E-02  4.43909E-02  4.54710E-02  4.65773E-02
#           4.77106E-02  4.88714E-02  5.00605E-02  5.12785E-02  5.25262E-02
#           5.38042E-02  5.51133E-02  5.64542E-02  5.78278E-02  5.92348E-02
#           6.06760E-02  6.21523E-02  6.36645E-02  6.52135E-02  6.68002E-02
#           6.84255E-02  7.00904E-02  7.17957E-02  7.35426E-02  7.53319E-02
#           7.71648E-02  7.90423E-02  8.09655E-02  8.29354E-02  8.49533E-02
#           8.70203E-02  8.91376E-02  9.13064E-02  9.35279E-02  9.58035E-02
#           9.81345E-02  1.00522E-01  1.02968E-01  1.05473E-01  1.08040E-01
#           1.10668E-01  1.13361E-01  1.16119E-01  1.18944E-01  1.21838E-01
#           1.24803E-01  1.27839E-01  1.30950E-01  1.34136E-01  1.37399E-01
#           1.40742E-01  1.44167E-01  1.47675E-01  1.51268E-01  1.54948E-01
#           1.58718E-01  1.62580E-01  1.66535E-01  1.70587E-01  1.74738E-01
#           1.78989E-01  1.83344E-01  1.87805E-01  1.92375E-01  1.97055E-01
#           2.01850E-01  2.06761E-01  2.11792E-01  2.16945E-01  2.22223E-01
#           2.27630E-01  2.33169E-01  2.38842E-01  2.44653E-01  2.50605E-01
#           2.56703E-01  2.62949E-01  2.69346E-01  2.75900E-01  2.82613E-01
#           2.89489E-01  2.96532E-01  3.03747E-01  3.11138E-01  3.18708E-01
#           3.26462E-01  3.34405E-01  3.42542E-01  3.50876E-01  3.59413E-01
#           3.68158E-01  3.77116E-01  3.86291E-01  3.95690E-01  4.05317E-01
#           4.15179E-01  4.25281E-01  4.35628E-01  4.46227E-01  4.57084E-01
#           4.68205E-01  4.79597E-01  4.91266E-01  5.03219E-01  5.15463E-01
#           5.28005E-01  5.40851E-01  5.54011E-01  5.67490E-01  5.81298E-01
#           5.95441E-01  6.09929E-01  6.24769E-01  6.39970E-01  6.55541E-01
#           6.71491E-01  6.87828E-01  7.04564E-01  7.21706E-01  7.39266E-01
#           7.57253E-01  7.75678E-01  7.94551E-01  8.13883E-01  8.33685E-01
#           8.53969E-01  8.74747E-01  8.96030E-01  9.17831E-01  9.40163E-01
#           9.63038E-01  9.86469E-01  1.01047E+00  1.03506E+00  1.06024E+00
#           1.08604E+00  1.11246E+00  1.13953E+00  1.16725E+00  1.19565E+00
#           1.22474E+00  1.25454E+00  1.28507E+00  1.31633E+00  1.34836E+00
#           1.38117E+00  1.41477E+00  1.44920E+00  1.48446E+00  1.52057E+00
#           1.55757E+00  1.59547E+00  1.63429E+00  1.67405E+00  1.71478E+00
#           1.75650E+00  1.79924E+00  1.84302E+00  1.88786E+00  1.93379E+00
#           1.98084E+00  2.02904E+00  2.07841E+00  2.12898E+00  2.18078E+00
#           2.23384E+00  2.28819E+00  2.34386E+00  2.40089E+00  2.45930E+00
#           2.51914E+00  2.58043E+00  2.64322E+00  2.70753E+00  2.77341E+00
#           2.84088E+00  2.91001E+00  2.98081E+00  3.05333E+00  3.12762E+00
#           3.20372E+00  3.28167E+00  3.36152E+00  3.44330E+00  3.52708E+00
#           3.61290E+00  3.70080E+00  3.79085E+00  3.88308E+00  3.97756E+00
#           4.07434E+00  4.17347E+00  4.27501E+00  4.37903E+00  4.48557E+00
#           4.59471E+00  4.70650E+00  4.82102E+00  4.93832E+00  5.05847E+00
#           5.18155E+00  5.30762E+00  5.43676E+00  5.56904E+00  5.70453E+00
#           5.84333E+00  5.98550E+00  6.13114E+00  6.28031E+00  6.43312E+00
#           6.58964E+00  6.74997E+00  6.91420E+00  7.08243E+00  7.25475E+00
#           7.43126E+00  7.61207E+00  7.79728E+00  7.98700E+00  8.18133E+00
#           8.38038E+00  8.58428E+00  8.79315E+00  9.00709E+00  9.22624E+00
#           9.45072E+00  9.68067E+00  9.91620E+00  1.01575E+01  1.04046E+01
#           1.06578E+01  1.09171E+01  1.11827E+01  1.14548E+01  1.17335E+01
#           1.20190E+01  1.23114E+01  1.26109E+01  1.29178E+01  1.32321E+01
#           1.35540E+01  1.38838E+01  1.42216E+01  1.45676E+01  1.49221E+01
#           1.52851E+01  1.56570E+01  1.60380E+01  1.64282E+01  1.68279E+01
#           1.72374E+01  1.76568E+01  1.80864E+01  1.85264E+01  1.89772E+01
#           1.94389E+01  1.99119E+01  2.03963E+01  2.08926E+01  2.14009E+01
#           2.19216E+01  2.24550E+01  2.30014E+01  2.35610E+01  2.41343E+01
#           2.47215E+01  2.53230E+01  2.59391E+01  2.65702E+01  2.72167E+01
#           2.78789E+01  2.85572E+01  2.92520E+01  2.99637E+01  3.06928E+01
#           3.14396E+01  3.22045E+01  3.29881E+01  3.37907E+01  3.46128E+01
#           3.54550E+01  3.63177E+01  3.72013E+01  3.81064E+01  3.90336E+01
#           3.99833E+01  4.09561E+01  4.19526E+01  4.29734E+01  4.40189E+01
#           4.50900E+01  4.61870E+01  4.73108E+01  4.84619E+01  4.96410E+01
#           5.08488E+01  5.20860E+01  5.33533E+01  5.46514E+01  5.59812E+01
#           5.73432E+01  5.87384E+01  6.01676E+01  6.16315E+01  6.31311E+01
#           6.46671E+01  6.62405E+01  6.78522E+01  6.95031E+01  7.11941E+01
#           7.29263E+01  7.47007E+01  7.65182E+01  7.83800E+01  8.02870E+01
#           8.22405E+01  8.42414E+01  8.62911E+01  8.83906E+01  9.05412E+01
#           9.27442E+01  9.50007E+01  9.73122E+01  9.96799E+01  1.02105E+02
#           1.04589E+02  1.07134E+02  1.09741E+02  1.12411E+02  1.15146E+02
#           1.17948E+02  1.20817E+02  1.23757E+02  1.26768E+02  1.29852E+02
#           1.33012E+02  1.36248E+02  1.39563E+02  1.42959E+02  1.46437E+02
#           1.50000E+02
     unit =    2            # unit is [1/cm^2/(MeV/n)/source]
     axis =  eng            # axis of output
     file = detector-06.out  # file name of output for the above axis
   output = f-curr          # surface crossing forward current spectrum
     part =  neutron  
# kf/name :  2112     
#    used :        main (  %)        temp (  %)       total (  %)
#  memory :         414 (  0)           0 (  0)         414 (  0)

#------------------------------------------------------------------------------
#newpage:
#   no. =    1   reg = 105 - 205

x: Energy [MeV/n]
y:  F-Curr [1/cm^2/(MeV/n)/source]         
p: xlog ylog afac(0.8) form(0.9)
h: n            x            y(neutron ),hh0l   n 
#  e-lower      e-upper      neutron     r.err 
   1.0000E-02   1.0243E-02   3.1401E-03  0.0512
   1.0243E-02   1.0493E-02   3.0976E-03  0.0509
   1.0493E-02   1.0748E-02   3.1493E-03  0.0499
   1.0748E-02   1.1009E-02   3.3881E-03  0.0475
   1.1009E-02   1.1277E-02   2.8148E-03  0.0515
   1.1277E-02   1.1552E-02   2.9302E-03  0.0499
   1.1552E-02   1.1833E-02   3.3018E-03  0.0464
   1.1833E-02   1.2121E-02   3.2095E-03  0.0465
   1.2121E-02   1.2415E-02   3.0315E-03  0.0473
   1.2415E-02   1.2718E-02   2.9727E-03  0.0472
   1.2718E-02   1.3027E-02   3.3481E-03  0.0439
   1.3027E-02   1.3344E-02   2.9720E-03  0.0461
   1.3344E-02   1.3669E-02   3.1232E-03  0.0444
   1.3669E-02   1.4001E-02   2.9889E-03  0.0449
   1.4001E-02   1.4342E-02   2.9648E-03  0.0445
   1.4342E-02   1.4691E-02   3.0033E-03  0.0437
   1.4691E-02   1.5048E-02   3.1222E-03  0.0423
   1.5048E-02   1.5414E-02   3.0972E-03  0.0420
   1.5414E-02   1.5789E-02   3.1570E-03  0.0411
   1.5789E-02   1.6174E-02   3.1080E-03  0.0409
   1.6174E-02   1.6567E-02   3.1409E-03  0.0402
   1.6567E-02   1.6970E-02   3.1209E-03  0.0399
   1.6970E-02   1.7383E-02   3.1291E-03  0.0393
   1.7383E-02   1.7806E-02   3.0642E-03  0.0393
   1.7806E-02   1.8239E-02   2.8922E-03  0.0399
   1.8239E-02   1.8683E-02   2.9474E-03  0.0391
   1.8683E-02   1.9138E-02   2.9214E-03  0.0388
   1.9138E-02   1.9603E-02   2.8048E-03  0.0391
   1.9603E-02   2.0080E-02   2.9646E-03  0.0376
   2.0080E-02   2.0569E-02   2.9106E-03  0.0375
   2.0569E-02   2.1069E-02   3.1412E-03  0.0357
   2.1069E-02   2.1582E-02   2.9183E-03  0.0366
   2.1582E-02   2.2107E-02   2.9975E-03  0.0356
   2.2107E-02   2.2645E-02   3.0639E-03  0.0348
   2.2645E-02   2.3196E-02   3.1291E-03  0.0341
   2.3196E-02   2.3760E-02   3.1008E-03  0.0338
   2.3760E-02   2.4338E-02   3.0721E-03  0.0336
   2.4338E-02   2.4930E-02   2.9147E-03  0.0340
   2.4930E-02   2.5537E-02   2.9279E-03  0.0336
   2.5537E-02   2.6158E-02   2.9968E-03  0.0328
   2.6158E-02   2.6795E-02   2.9822E-03  0.0325
   2.6795E-02   2.7447E-02   3.0034E-03  0.0320
   2.7447E-02   2.8114E-02   2.9500E-03  0.0319
   2.8114E-02   2.8799E-02   3.0495E-03  0.0310
   2.8799E-02   2.9499E-02   2.9314E-03  0.0312
   2.9499E-02   3.0217E-02   2.9454E-03  0.0308
   3.0217E-02   3.0952E-02   2.9189E-03  0.0305
   3.0952E-02   3.1705E-02   2.9505E-03  0.0300
   3.1705E-02   3.2477E-02   3.0567E-03  0.0291
   3.2477E-02   3.3267E-02   2.8652E-03  0.0297
   3.3267E-02   3.4076E-02   2.8663E-03  0.0294
   3.4076E-02   3.4905E-02   2.9212E-03  0.0287
   3.4905E-02   3.5755E-02   2.8330E-03  0.0288
   3.5755E-02   3.6625E-02   2.8945E-03  0.0282
   3.6625E-02   3.7516E-02   2.9088E-03  0.0278
   3.7516E-02   3.8428E-02   2.8419E-03  0.0278
   3.8428E-02   3.9363E-02   2.8129E-03  0.0276
   3.9363E-02   4.0321E-02   2.7544E-03  0.0275
   4.0321E-02   4.1302E-02   2.8439E-03  0.0268
   4.1302E-02   4.2307E-02   2.8142E-03  0.0266
   4.2307E-02   4.3337E-02   2.8600E-03  0.0261
   4.3337E-02   4.4391E-02   2.7503E-03  0.0263
   4.4391E-02   4.5471E-02   2.7109E-03  0.0261
   4.5471E-02   4.6577E-02   2.7641E-03  0.0256
   4.6577E-02   4.7711E-02   2.7813E-03  0.0252
   4.7711E-02   4.8871E-02   2.7291E-03  0.0251
   4.8871E-02   5.0061E-02   2.7231E-03  0.0249
   5.0061E-02   5.1279E-02   2.6896E-03  0.0247
   5.1279E-02   5.2526E-02   2.8694E-03  0.0236
   5.2526E-02   5.3804E-02   2.6823E-03  0.0242
   5.3804E-02   5.5113E-02   2.7790E-03  0.0235
   5.5113E-02   5.6454E-02   2.7160E-03  0.0234
   5.6454E-02   5.7828E-02   2.8568E-03  0.0226
   5.7828E-02   5.9235E-02   2.6368E-03  0.0232
   5.9235E-02   6.0676E-02   2.7213E-03  0.0226
   6.0676E-02   6.2152E-02   2.7691E-03  0.0221
   6.2152E-02   6.3665E-02   2.6094E-03  0.0225
   6.3665E-02   6.5214E-02   2.6184E-03  0.0222
   6.5214E-02   6.6800E-02   2.6861E-03  0.0217
   6.6800E-02   6.8426E-02   2.6186E-03  0.0217
   6.8426E-02   7.0090E-02   2.5360E-03  0.0218
   7.0090E-02   7.1796E-02   2.6751E-03  0.0209
   7.1796E-02   7.3543E-02   2.5749E-03  0.0211
   7.3543E-02   7.5332E-02   2.4936E-03  0.0212
   7.5332E-02   7.7165E-02   2.5675E-03  0.0206
   7.7165E-02   7.9042E-02   2.6227E-03  0.0202
   7.9042E-02   8.0965E-02   2.6061E-03  0.0200
   8.0965E-02   8.2935E-02   2.6457E-03  0.0196
   8.2935E-02   8.4953E-02   2.5879E-03  0.0196
   8.4953E-02   8.7020E-02   2.5622E-03  0.0194
   8.7020E-02   8.9138E-02   2.5079E-03  0.0194
   8.9138E-02   9.1306E-02   2.6420E-03  0.0187
   9.1306E-02   9.3528E-02   2.4361E-03  0.0192
   9.3528E-02   9.5804E-02   2.4468E-03  0.0190
   9.5804E-02   9.8134E-02   2.4925E-03  0.0186
   9.8134E-02   1.0052E-01   2.5087E-03  0.0183
   1.0052E-01   1.0297E-01   2.4565E-03  0.0182
   1.0297E-01   1.0547E-01   2.4588E-03  0.0180
   1.0547E-01   1.0804E-01   2.4394E-03  0.0179
   1.0804E-01   1.1067E-01   2.4012E-03  0.0178
   1.1067E-01   1.1336E-01   2.4043E-03  0.0176
   1.1336E-01   1.1612E-01   2.4284E-03  0.0173
   1.1612E-01   1.1894E-01   2.3729E-03  0.0173
   1.1894E-01   1.2184E-01   2.4298E-03  0.0169
   1.2184E-01   1.2480E-01   2.3445E-03  0.0170
   1.2480E-01   1.2784E-01   2.3072E-03  0.0169
   1.2784E-01   1.3095E-01   2.3405E-03  0.0166
   1.3095E-01   1.3414E-01   2.3891E-03  0.0162
   1.3414E-01   1.3740E-01   2.3367E-03  0.0162
   1.3740E-01   1.4074E-01   2.2429E-03  0.0163
   1.4074E-01   1.4417E-01   2.3321E-03  0.0158
   1.4417E-01   1.4767E-01   2.2967E-03  0.0158
   1.4767E-01   1.5127E-01   2.2020E-03  0.0159
   1.5127E-01   1.5495E-01   2.2763E-03  0.0155
   1.5495E-01   1.5872E-01   2.2377E-03  0.0154
   1.5872E-01   1.6258E-01   2.1964E-03  0.0154
   1.6258E-01   1.6654E-01   2.2196E-03  0.0151
   1.6654E-01   1.7059E-01   2.1338E-03  0.0152
   1.7059E-01   1.7474E-01   2.1212E-03  0.0151
   1.7474E-01   1.7899E-01   2.1404E-03  0.0148
   1.7899E-01   1.8334E-01   2.1190E-03  0.0147
   1.8334E-01   1.8781E-01   2.1484E-03  0.0144
   1.8781E-01   1.9237E-01   2.1898E-03  0.0141
   1.9237E-01   1.9706E-01   2.1177E-03  0.0142
   1.9706E-01   2.0185E-01   2.1253E-03  0.0140
   2.0185E-01   2.0676E-01   2.0398E-03  0.0141
   2.0676E-01   2.1179E-01   2.0200E-03  0.0140
   2.1179E-01   2.1694E-01   1.9802E-03  0.0140
   2.1694E-01   2.2222E-01   1.9960E-03  0.0138
   2.2222E-01   2.2763E-01   1.9005E-03  0.0140
   2.2763E-01   2.3317E-01   1.9605E-03  0.0136
   2.3317E-01   2.3884E-01   1.8808E-03  0.0137
   2.3884E-01   2.4465E-01   1.8891E-03  0.0135
   2.4465E-01   2.5061E-01   1.8795E-03  0.0134
   2.5061E-01   2.5670E-01   1.8860E-03  0.0132
   2.5670E-01   2.6295E-01   1.8571E-03  0.0131
   2.6295E-01   2.6935E-01   1.8491E-03  0.0130
   2.6935E-01   2.7590E-01   1.8253E-03  0.0129
   2.7590E-01   2.8261E-01   1.8050E-03  0.0129
   2.8261E-01   2.8949E-01   1.7431E-03  0.0129
   2.8949E-01   2.9653E-01   1.7026E-03  0.0129
   2.9653E-01   3.0375E-01   1.7506E-03  0.0126
   3.0375E-01   3.1114E-01   1.6987E-03  0.0126
   3.1114E-01   3.1871E-01   1.6808E-03  0.0125
   3.1871E-01   3.2646E-01   1.6901E-03  0.0124
   3.2646E-01   3.3441E-01   1.6626E-03  0.0123
   3.3441E-01   3.4254E-01   1.6494E-03  0.0122
   3.4254E-01   3.5088E-01   1.5802E-03  0.0123
   3.5088E-01   3.5941E-01   1.5581E-03  0.0123
   3.5941E-01   3.6816E-01   1.5327E-03  0.0122
   3.6816E-01   3.7712E-01   1.5464E-03  0.0120
   3.7712E-01   3.8629E-01   1.4986E-03  0.0121
   3.8629E-01   3.9569E-01   1.4472E-03  0.0121
   3.9569E-01   4.0532E-01   1.4735E-03  0.0119
   4.0532E-01   4.1518E-01   1.4111E-03  0.0120
   4.1518E-01   4.2528E-01   1.3681E-03  0.0120
   4.2528E-01   4.3563E-01   1.3499E-03  0.0120
   4.3563E-01   4.4623E-01   1.3605E-03  0.0118
   4.4623E-01   4.5708E-01   1.3174E-03  0.0118
   4.5708E-01   4.6821E-01   1.3051E-03  0.0117
   4.6821E-01   4.7960E-01   1.2713E-03  0.0118
   4.7960E-01   4.9127E-01   1.2531E-03  0.0117
   4.9127E-01   5.0322E-01   1.2161E-03  0.0117
   5.0322E-01   5.1546E-01   1.1828E-03  0.0118
   5.1546E-01   5.2800E-01   1.1842E-03  0.0116
   5.2800E-01   5.4085E-01   1.1407E-03  0.0117
   5.4085E-01   5.5401E-01   1.1259E-03  0.0116
   5.5401E-01   5.6749E-01   1.1122E-03  0.0116
   5.6749E-01   5.8130E-01   1.0733E-03  0.0116
   5.8130E-01   5.9544E-01   1.0693E-03  0.0115
   5.9544E-01   6.0993E-01   1.0271E-03  0.0116
   6.0993E-01   6.2477E-01   9.9676E-04  0.0116
   6.2477E-01   6.3997E-01   9.5809E-04  0.0117
   6.3997E-01   6.5554E-01   9.3751E-04  0.0117
   6.5554E-01   6.7149E-01   9.2484E-04  0.0117
   6.7149E-01   6.8783E-01   8.9516E-04  0.0117
   6.8783E-01   7.0456E-01   8.5101E-04  0.0119
   7.0456E-01   7.2171E-01   8.3325E-04  0.0118
   7.2171E-01   7.3927E-01   8.0343E-04  0.0119
   7.3927E-01   7.5725E-01   7.9513E-04  0.0118
   7.5725E-01   7.7568E-01   7.5638E-04  0.0120
   7.7568E-01   7.9455E-01   7.3465E-04  0.0120
   7.9455E-01   8.1388E-01   7.1063E-04  0.0121
   8.1388E-01   8.3368E-01   6.7770E-04  0.0122
   8.3368E-01   8.5397E-01   6.4996E-04  0.0123
   8.5397E-01   8.7475E-01   6.4569E-04  0.0122
   8.7475E-01   8.9603E-01   6.1118E-04  0.0124
   8.9603E-01   9.1783E-01   5.7942E-04  0.0126
   9.1783E-01   9.4016E-01   5.5966E-04  0.0127
   9.4016E-01   9.6304E-01   5.2346E-04  0.0129
   9.6304E-01   9.8647E-01   5.0027E-04  0.0131
   9.8647E-01   1.0105E+00   4.8997E-04  0.0130
   1.0105E+00   1.0351E+00   4.7548E-04  0.0131
   1.0351E+00   1.0602E+00   4.7956E-04  0.0129
   1.0602E+00   1.0860E+00   4.6867E-04  0.0129
   1.0860E+00   1.1125E+00   4.8130E-04  0.0125
   1.1125E+00   1.1395E+00   4.9226E-04  0.0123
   1.1395E+00   1.1673E+00   4.9492E-04  0.0121
   1.1673E+00   1.1957E+00   5.0655E-04  0.0118
   1.1957E+00   1.2247E+00   5.0469E-04  0.0117
   1.2247E+00   1.2545E+00   5.0565E-04  0.0115
   1.2545E+00   1.2851E+00   5.1382E-04  0.0113
   1.2851E+00   1.3163E+00   5.0386E-04  0.0113
   1.3163E+00   1.3484E+00   5.0382E-04  0.0111
   1.3484E+00   1.3812E+00   5.1880E-04  0.0108
   1.3812E+00   1.4148E+00   5.2498E-04  0.0107
   1.4148E+00   1.4492E+00   5.1704E-04  0.0106
   1.4492E+00   1.4845E+00   5.0476E-04  0.0106
   1.4845E+00   1.5206E+00   5.0568E-04  0.0105
   1.5206E+00   1.5576E+00   4.9610E-04  0.0104
   1.5576E+00   1.5955E+00   4.9207E-04  0.0104
   1.5955E+00   1.6343E+00   4.8873E-04  0.0103
   1.6343E+00   1.6741E+00   4.9231E-04  0.0101
   1.6741E+00   1.7148E+00   4.8801E-04  0.0100
   1.7148E+00   1.7565E+00   4.8583E-04  0.0099
   1.7565E+00   1.7992E+00   4.7518E-04  0.0099
   1.7992E+00   1.8430E+00   4.6920E-04  0.0099
   1.8430E+00   1.8879E+00   4.5596E-04  0.0099
   1.8879E+00   1.9338E+00   4.5867E-04  0.0097
   1.9338E+00   1.9808E+00   4.3557E-04  0.0099
   1.9808E+00   2.0290E+00   4.3413E-04  0.0098
   2.0290E+00   2.0784E+00   4.2396E-04  0.0098
   2.0784E+00   2.1290E+00   4.1428E-04  0.0098
   2.1290E+00   2.1808E+00   3.9993E-04  0.0098
   2.1808E+00   2.2338E+00   3.8560E-04  0.0099
   2.2338E+00   2.2882E+00   3.7457E-04  0.0099
   2.2882E+00   2.3439E+00   3.6107E-04  0.0100
   2.3439E+00   2.4009E+00   3.5551E-04  0.0099
   2.4009E+00   2.4593E+00   3.4915E-04  0.0099
   2.4593E+00   2.5191E+00   3.4126E-04  0.0099
   2.5191E+00   2.5804E+00   3.2134E-04  0.0101
   2.5804E+00   2.6432E+00   3.0521E-04  0.0102
   2.6432E+00   2.7075E+00   2.9668E-04  0.0102
   2.7075E+00   2.7734E+00   2.8537E-04  0.0103
   2.7734E+00   2.8409E+00   2.8172E-04  0.0103
   2.8409E+00   2.9100E+00   2.6195E-04  0.0105
   2.9100E+00   2.9808E+00   2.5839E-04  0.0105
   2.9808E+00   3.0533E+00   2.4568E-04  0.0106
   3.0533E+00   3.1276E+00   2.4153E-04  0.0106
   3.1276E+00   3.2037E+00   2.2944E-04  0.0107
   3.2037E+00   3.2817E+00   2.1399E-04  0.0110
   3.2817E+00   3.3615E+00   2.0765E-04  0.0110
   3.3615E+00   3.4433E+00   1.9411E-04  0.0112
   3.4433E+00   3.5271E+00   1.8613E-04  0.0113
   3.5271E+00   3.6129E+00   1.7577E-04  0.0115
   3.6129E+00   3.7008E+00   1.7189E-04  0.0115
   3.7008E+00   3.7908E+00   1.6290E-04  0.0117
   3.7908E+00   3.8831E+00   1.5261E-04  0.0119
   3.8831E+00   3.9776E+00   1.4473E-04  0.0121
   3.9776E+00   4.0743E+00   1.4003E-04  0.0122
   4.0743E+00   4.1735E+00   1.3069E-04  0.0124
   4.1735E+00   4.2750E+00   1.2343E-04  0.0126
   4.2750E+00   4.3790E+00   1.1789E-04  0.0128
   4.3790E+00   4.4856E+00   1.0961E-04  0.0131
   4.4856E+00   4.5947E+00   1.0570E-04  0.0132
   4.5947E+00   4.7065E+00   9.8772E-05  0.0135
   4.7065E+00   4.8210E+00   9.6688E-05  0.0134
   4.8210E+00   4.9383E+00   9.2396E-05  0.0136
   4.9383E+00   5.0585E+00   8.7738E-05  0.0138
   5.0585E+00   5.1815E+00   8.1299E-05  0.0141
   5.1815E+00   5.3076E+00   7.7845E-05  0.0143
   5.3076E+00   5.4368E+00   7.4494E-05  0.0144
   5.4368E+00   5.5690E+00   7.2376E-05  0.0145
   5.5690E+00   5.7045E+00   6.5890E-05  0.0150
   5.7045E+00   5.8433E+00   6.2740E-05  0.0152
   5.8433E+00   5.9855E+00   5.9646E-05  0.0154
   5.9855E+00   6.1311E+00   5.6924E-05  0.0155
   6.1311E+00   6.2803E+00   5.5237E-05  0.0156
   6.2803E+00   6.4331E+00   5.3990E-05  0.0156
   6.4331E+00   6.5896E+00   5.3225E-05  0.0155
   6.5896E+00   6.7500E+00   4.9360E-05  0.0159
   6.7500E+00   6.9142E+00   4.8967E-05  0.0158
   6.9142E+00   7.0824E+00   4.7875E-05  0.0158
   7.0824E+00   7.2548E+00   4.5334E-05  0.0160
   7.2548E+00   7.4313E+00   4.5821E-05  0.0157
   7.4313E+00   7.6121E+00   4.4085E-05  0.0158
   7.6121E+00   7.7973E+00   4.3411E-05  0.0158
   7.7973E+00   7.9870E+00   4.3624E-05  0.0155
   7.9870E+00   8.1813E+00   4.2171E-05  0.0156
   8.1813E+00   8.3804E+00   4.1249E-05  0.0156
   8.3804E+00   8.5843E+00   4.0833E-05  0.0155
   8.5843E+00   8.7931E+00   3.9313E-05  0.0156
   8.7931E+00   9.0071E+00   3.9253E-05  0.0154
   9.0071E+00   9.2262E+00   3.9667E-05  0.0152
   9.2262E+00   9.4507E+00   4.0542E-05  0.0148
   9.4507E+00   9.6807E+00   3.8562E-05  0.0150
   9.6807E+00   9.9162E+00   3.9335E-05  0.0147
   9.9162E+00   1.0157E+01   3.8720E-05  0.0146
   1.0157E+01   1.0405E+01   3.8262E-05  0.0145
   1.0405E+01   1.0658E+01   3.8483E-05  0.0143
   1.0658E+01   1.0917E+01   3.9809E-05  0.0139
   1.0917E+01   1.1183E+01   3.8969E-05  0.0139
   1.1183E+01   1.1455E+01   3.8793E-05  0.0138
   1.1455E+01   1.1733E+01   3.8195E-05  0.0137
   1.1733E+01   1.2019E+01   3.9533E-05  0.0133
   1.2019E+01   1.2311E+01   4.0013E-05  0.0131
   1.2311E+01   1.2611E+01   3.9082E-05  0.0131
   1.2611E+01   1.2918E+01   3.9089E-05  0.0129
   1.2918E+01   1.3232E+01   3.9453E-05  0.0127
   1.3232E+01   1.3554E+01   4.0479E-05  0.0124
   1.3554E+01   1.3884E+01   4.0854E-05  0.0122
   1.3884E+01   1.4222E+01   4.0621E-05  0.0121
   1.4222E+01   1.4568E+01   4.1136E-05  0.0119
   1.4568E+01   1.4922E+01   4.2227E-05  0.0116
   1.4922E+01   1.5285E+01   4.2221E-05  0.0114
   1.5285E+01   1.5657E+01   4.1541E-05  0.0114
   1.5657E+01   1.6038E+01   4.2531E-05  0.0111
   1.6038E+01   1.6428E+01   4.2676E-05  0.0110
   1.6428E+01   1.6828E+01   4.3616E-05  0.0107
   1.6828E+01   1.7237E+01   4.4122E-05  0.0105
   1.7237E+01   1.7657E+01   4.4826E-05  0.0103
   1.7657E+01   1.8086E+01   4.5102E-05  0.0102
   1.8086E+01   1.8526E+01   4.5890E-05  0.0100
   1.8526E+01   1.8977E+01   4.6696E-05  0.0097
   1.8977E+01   1.9439E+01   4.7744E-05  0.0095
   1.9439E+01   1.9912E+01   4.9103E-05  0.0093
   1.9912E+01   2.0396E+01   4.9861E-05  0.0091
   2.0396E+01   2.0893E+01   5.0804E-05  0.0089
   2.0893E+01   2.1401E+01   5.1805E-05  0.0087
   2.1401E+01   2.1922E+01   5.2471E-05  0.0086
   2.1922E+01   2.2455E+01   5.4480E-05  0.0083
   2.2455E+01   2.3001E+01   5.6067E-05  0.0081
   2.3001E+01   2.3561E+01   5.6615E-05  0.0079
   2.3561E+01   2.4134E+01   5.7458E-05  0.0078
   2.4134E+01   2.4721E+01   5.7486E-05  0.0077
   2.4721E+01   2.5323E+01   5.8754E-05  0.0075
   2.5323E+01   2.5939E+01   6.0192E-05  0.0073
   2.5939E+01   2.6570E+01   6.0822E-05  0.0072
   2.6570E+01   2.7217E+01   6.1354E-05  0.0071
   2.7217E+01   2.7879E+01   6.2667E-05  0.0069
   2.7879E+01   2.8557E+01   6.3168E-05  0.0068
   2.8557E+01   2.9252E+01   6.1645E-05  0.0068
   2.9252E+01   2.9964E+01   6.2682E-05  0.0067
   2.9964E+01   3.0693E+01   6.2416E-05  0.0066
   3.0693E+01   3.1440E+01   6.3475E-05  0.0065
   3.1440E+01   3.2205E+01   6.2603E-05  0.0065
   3.2205E+01   3.2988E+01   6.1335E-05  0.0065
   3.2988E+01   3.3791E+01   6.0923E-05  0.0064
   3.3791E+01   3.4613E+01   5.8770E-05  0.0064
   3.4613E+01   3.5455E+01   5.7593E-05  0.0064
   3.5455E+01   3.6318E+01   5.6331E-05  0.0064
   3.6318E+01   3.7201E+01   5.4353E-05  0.0065
   3.7201E+01   3.8106E+01   5.3013E-05  0.0065
   3.8106E+01   3.9034E+01   5.0999E-05  0.0065
   3.9034E+01   3.9983E+01   4.8943E-05  0.0066
   3.9983E+01   4.0956E+01   4.5796E-05  0.0067
   4.0956E+01   4.1953E+01   4.4171E-05  0.0067
   4.1953E+01   4.2973E+01   4.1662E-05  0.0069
   4.2973E+01   4.4019E+01   3.9108E-05  0.0070
   4.4019E+01   4.5090E+01   3.7000E-05  0.0071
   4.5090E+01   4.6187E+01   3.4475E-05  0.0073
   4.6187E+01   4.7311E+01   3.2153E-05  0.0074
   4.7311E+01   4.8462E+01   2.9945E-05  0.0076
   4.8462E+01   4.9641E+01   2.7571E-05  0.0078
   4.9641E+01   5.0849E+01   2.5550E-05  0.0081
   5.0849E+01   5.2086E+01   2.3312E-05  0.0083
   5.2086E+01   5.3353E+01   2.1536E-05  0.0086
   5.3353E+01   5.4651E+01   1.9670E-05  0.0089
   5.4651E+01   5.5981E+01   1.7452E-05  0.0093
   5.5981E+01   5.7343E+01   1.5930E-05  0.0096
   5.7343E+01   5.8738E+01   1.4209E-05  0.0100
   5.8738E+01   6.0168E+01   1.2714E-05  0.0105
   6.0168E+01   6.1632E+01   1.1334E-05  0.0110
   6.1632E+01   6.3131E+01   1.0039E-05  0.0115
   6.3131E+01   6.4667E+01   9.0740E-06  0.0120
   6.4667E+01   6.6240E+01   7.8111E-06  0.0128
   6.6240E+01   6.7852E+01   7.1900E-06  0.0131
   6.7852E+01   6.9503E+01   6.0428E-06  0.0142
   6.9503E+01   7.1194E+01   5.4297E-06  0.0148
   7.1194E+01   7.2926E+01   4.4798E-06  0.0161
   7.2926E+01   7.4701E+01   3.7828E-06  0.0173
   7.4701E+01   7.6518E+01   3.2099E-06  0.0185
   7.6518E+01   7.8380E+01   2.5170E-06  0.0207
   7.8380E+01   8.0287E+01   2.0859E-06  0.0224
   8.0287E+01   8.2240E+01   1.5255E-06  0.0259
   8.2240E+01   8.4241E+01   1.1524E-06  0.0294
   8.4241E+01   8.6291E+01   7.9721E-07  0.0350
   8.6291E+01   8.8391E+01   4.4581E-07  0.0462
   8.8391E+01   9.0541E+01   1.7576E-07  0.0727
   9.0541E+01   9.2744E+01   9.0788E-10  1.0000
   9.2744E+01   9.5001E+01   0.0000E+00  0.0000
   9.5001E+01   9.7312E+01   0.0000E+00  0.0000
   9.7312E+01   9.9680E+01   0.0000E+00  0.0000
   9.9680E+01   1.0211E+02   0.0000E+00  0.0000
   1.0211E+02   1.0459E+02   0.0000E+00  0.0000
   1.0459E+02   1.0713E+02   0.0000E+00  0.0000
   1.0713E+02   1.0974E+02   0.0000E+00  0.0000
   1.0974E+02   1.1241E+02   0.0000E+00  0.0000
   1.1241E+02   1.1515E+02   0.0000E+00  0.0000
   1.1515E+02   1.1795E+02   0.0000E+00  0.0000
   1.1795E+02   1.2082E+02   0.0000E+00  0.0000
   1.2082E+02   1.2376E+02   0.0000E+00  0.0000
   1.2376E+02   1.2677E+02   0.0000E+00  0.0000
   1.2677E+02   1.2985E+02   0.0000E+00  0.0000
   1.2985E+02   1.3301E+02   0.0000E+00  0.0000
   1.3301E+02   1.3625E+02   0.0000E+00  0.0000
   1.3625E+02   1.3956E+02   0.0000E+00  0.0000
   1.3956E+02   1.4296E+02   0.0000E+00  0.0000
   1.4296E+02   1.4644E+02   0.0000E+00  0.0000
   1.4644E+02   1.5000E+02   0.0000E+00  0.0000

#   sum over                 3.3167E-05
'no. =    1   reg = 105 - 205'
msuc: {\huge [t-cross] in region mesh}
msdr: {\it plotted by \ANGEL \version}
msdl: {\it calculated by \PHITS  3.26}
wt: s(0.7)
\vspace{-3}
  region surface crossing
  area  &=&   1.0000E+00 [cm^2]
e:
 
# Information for Restart Calculation
# This calculation was newly started
# istdev =  2 # 1:Batch variance, 2:History variance
# resc2  = 5.00000000000000000E+08 # Total source weight or Total source weight / maxcas
# resc3  = 5.00000000000000000E+08 # Total history number or Total batch number
# maxcas =   500000000 # History / Batch, only used for istdev=1
# bitrseed = 1101101111010011011000101101110001100110110010110001010100010001 # bit data of rseed
