[ T-Cross ]
    title = [t-cross] in region mesh
     mesh =  reg            # mesh type is region-wise
      reg =    1            # number of crossing regions
      non     r-from    r-to       area
      1       126       226        1.000000    
   e-type =    3            # e-mesh is log given by emin, emax and ne
     emin =  1.0000000E-02  # minimum value of e-mesh points
     emax =   150.0000      # maximum value of e-mesh points
#    edel =  2.4039514E-02  # mesh width of e-mesh points
       ne =    400          # number of e-mesh points
#    data = ( e(i), i = 1, ne + 1 )
#           1.00000E-02  1.02433E-02  1.04925E-02  1.07478E-02  1.10093E-02
#           1.12772E-02  1.15516E-02  1.18326E-02  1.21205E-02  1.24154E-02
#           1.27175E-02  1.30269E-02  1.33439E-02  1.36686E-02  1.40011E-02
#           1.43418E-02  1.46907E-02  1.50482E-02  1.54143E-02  1.57894E-02
#           1.61735E-02  1.65670E-02  1.69701E-02  1.73830E-02  1.78060E-02
#           1.82392E-02  1.86830E-02  1.91375E-02  1.96032E-02  2.00801E-02
#           2.05687E-02  2.10692E-02  2.15818E-02  2.21069E-02  2.26448E-02
#           2.31957E-02  2.37601E-02  2.43382E-02  2.49304E-02  2.55369E-02
#           2.61583E-02  2.67947E-02  2.74467E-02  2.81145E-02  2.87985E-02
#           2.94992E-02  3.02169E-02  3.09521E-02  3.17052E-02  3.24766E-02
#           3.32668E-02  3.40762E-02  3.49053E-02  3.57546E-02  3.66246E-02
#           3.75157E-02  3.84284E-02  3.93634E-02  4.03212E-02  4.13022E-02
#           4.23071E-02  4.33365E-02  4.43909E-02  4.54710E-02  4.65773E-02
#           4.77106E-02  4.88714E-02  5.00605E-02  5.12785E-02  5.25262E-02
#           5.38042E-02  5.51133E-02  5.64542E-02  5.78278E-02  5.92348E-02
#           6.06760E-02  6.21523E-02  6.36645E-02  6.52135E-02  6.68002E-02
#           6.84255E-02  7.00904E-02  7.17957E-02  7.35426E-02  7.53319E-02
#           7.71648E-02  7.90423E-02  8.09655E-02  8.29354E-02  8.49533E-02
#           8.70203E-02  8.91376E-02  9.13064E-02  9.35279E-02  9.58035E-02
#           9.81345E-02  1.00522E-01  1.02968E-01  1.05473E-01  1.08040E-01
#           1.10668E-01  1.13361E-01  1.16119E-01  1.18944E-01  1.21838E-01
#           1.24803E-01  1.27839E-01  1.30950E-01  1.34136E-01  1.37399E-01
#           1.40742E-01  1.44167E-01  1.47675E-01  1.51268E-01  1.54948E-01
#           1.58718E-01  1.62580E-01  1.66535E-01  1.70587E-01  1.74738E-01
#           1.78989E-01  1.83344E-01  1.87805E-01  1.92375E-01  1.97055E-01
#           2.01850E-01  2.06761E-01  2.11792E-01  2.16945E-01  2.22223E-01
#           2.27630E-01  2.33169E-01  2.38842E-01  2.44653E-01  2.50605E-01
#           2.56703E-01  2.62949E-01  2.69346E-01  2.75900E-01  2.82613E-01
#           2.89489E-01  2.96532E-01  3.03747E-01  3.11138E-01  3.18708E-01
#           3.26462E-01  3.34405E-01  3.42542E-01  3.50876E-01  3.59413E-01
#           3.68158E-01  3.77116E-01  3.86291E-01  3.95690E-01  4.05317E-01
#           4.15179E-01  4.25281E-01  4.35628E-01  4.46227E-01  4.57084E-01
#           4.68205E-01  4.79597E-01  4.91266E-01  5.03219E-01  5.15463E-01
#           5.28005E-01  5.40851E-01  5.54011E-01  5.67490E-01  5.81298E-01
#           5.95441E-01  6.09929E-01  6.24769E-01  6.39970E-01  6.55541E-01
#           6.71491E-01  6.87828E-01  7.04564E-01  7.21706E-01  7.39266E-01
#           7.57253E-01  7.75678E-01  7.94551E-01  8.13883E-01  8.33685E-01
#           8.53969E-01  8.74747E-01  8.96030E-01  9.17831E-01  9.40163E-01
#           9.63038E-01  9.86469E-01  1.01047E+00  1.03506E+00  1.06024E+00
#           1.08604E+00  1.11246E+00  1.13953E+00  1.16725E+00  1.19565E+00
#           1.22474E+00  1.25454E+00  1.28507E+00  1.31633E+00  1.34836E+00
#           1.38117E+00  1.41477E+00  1.44920E+00  1.48446E+00  1.52057E+00
#           1.55757E+00  1.59547E+00  1.63429E+00  1.67405E+00  1.71478E+00
#           1.75650E+00  1.79924E+00  1.84302E+00  1.88786E+00  1.93379E+00
#           1.98084E+00  2.02904E+00  2.07841E+00  2.12898E+00  2.18078E+00
#           2.23384E+00  2.28819E+00  2.34386E+00  2.40089E+00  2.45930E+00
#           2.51914E+00  2.58043E+00  2.64322E+00  2.70753E+00  2.77341E+00
#           2.84088E+00  2.91001E+00  2.98081E+00  3.05333E+00  3.12762E+00
#           3.20372E+00  3.28167E+00  3.36152E+00  3.44330E+00  3.52708E+00
#           3.61290E+00  3.70080E+00  3.79085E+00  3.88308E+00  3.97756E+00
#           4.07434E+00  4.17347E+00  4.27501E+00  4.37903E+00  4.48557E+00
#           4.59471E+00  4.70650E+00  4.82102E+00  4.93832E+00  5.05847E+00
#           5.18155E+00  5.30762E+00  5.43676E+00  5.56904E+00  5.70453E+00
#           5.84333E+00  5.98550E+00  6.13114E+00  6.28031E+00  6.43312E+00
#           6.58964E+00  6.74997E+00  6.91420E+00  7.08243E+00  7.25475E+00
#           7.43126E+00  7.61207E+00  7.79728E+00  7.98700E+00  8.18133E+00
#           8.38038E+00  8.58428E+00  8.79315E+00  9.00709E+00  9.22624E+00
#           9.45072E+00  9.68067E+00  9.91620E+00  1.01575E+01  1.04046E+01
#           1.06578E+01  1.09171E+01  1.11827E+01  1.14548E+01  1.17335E+01
#           1.20190E+01  1.23114E+01  1.26109E+01  1.29178E+01  1.32321E+01
#           1.35540E+01  1.38838E+01  1.42216E+01  1.45676E+01  1.49221E+01
#           1.52851E+01  1.56570E+01  1.60380E+01  1.64282E+01  1.68279E+01
#           1.72374E+01  1.76568E+01  1.80864E+01  1.85264E+01  1.89772E+01
#           1.94389E+01  1.99119E+01  2.03963E+01  2.08926E+01  2.14009E+01
#           2.19216E+01  2.24550E+01  2.30014E+01  2.35610E+01  2.41343E+01
#           2.47215E+01  2.53230E+01  2.59391E+01  2.65702E+01  2.72167E+01
#           2.78789E+01  2.85572E+01  2.92520E+01  2.99637E+01  3.06928E+01
#           3.14396E+01  3.22045E+01  3.29881E+01  3.37907E+01  3.46128E+01
#           3.54550E+01  3.63177E+01  3.72013E+01  3.81064E+01  3.90336E+01
#           3.99833E+01  4.09561E+01  4.19526E+01  4.29734E+01  4.40189E+01
#           4.50900E+01  4.61870E+01  4.73108E+01  4.84619E+01  4.96410E+01
#           5.08488E+01  5.20860E+01  5.33533E+01  5.46514E+01  5.59812E+01
#           5.73432E+01  5.87384E+01  6.01676E+01  6.16315E+01  6.31311E+01
#           6.46671E+01  6.62405E+01  6.78522E+01  6.95031E+01  7.11941E+01
#           7.29263E+01  7.47007E+01  7.65182E+01  7.83800E+01  8.02870E+01
#           8.22405E+01  8.42414E+01  8.62911E+01  8.83906E+01  9.05412E+01
#           9.27442E+01  9.50007E+01  9.73122E+01  9.96799E+01  1.02105E+02
#           1.04589E+02  1.07134E+02  1.09741E+02  1.12411E+02  1.15146E+02
#           1.17948E+02  1.20817E+02  1.23757E+02  1.26768E+02  1.29852E+02
#           1.33012E+02  1.36248E+02  1.39563E+02  1.42959E+02  1.46437E+02
#           1.50000E+02
     unit =    2            # unit is [1/cm^2/(MeV/n)/source]
     axis =  eng            # axis of output
     file = detector-27.out  # file name of output for the above axis
   output = f-curr          # surface crossing forward current spectrum
     part =  neutron  
# kf/name :  2112     
#    used :        main (  %)        temp (  %)       total (  %)
#  memory :         414 (  0)           0 (  0)         414 (  0)

#------------------------------------------------------------------------------
#newpage:
#   no. =    1   reg = 126 - 226

x: Energy [MeV/n]
y:  F-Curr [1/cm^2/(MeV/n)/source]         
p: xlog ylog afac(0.8) form(0.9)
h: n            x            y(neutron ),hh0l   n 
#  e-lower      e-upper      neutron     r.err 
   1.0000E-02   1.0243E-02   6.9048E-04  0.1091
   1.0243E-02   1.0493E-02   6.5001E-04  0.1111
   1.0493E-02   1.0748E-02   6.8157E-04  0.1072
   1.0748E-02   1.1009E-02   6.2714E-04  0.1104
   1.1009E-02   1.1277E-02   5.3758E-04  0.1179
   1.1277E-02   1.1552E-02   5.8313E-04  0.1118
   1.1552E-02   1.1833E-02   6.1197E-04  0.1078
   1.1833E-02   1.2121E-02   5.9049E-04  0.1085
   1.2121E-02   1.2415E-02   7.0532E-04  0.0981
   1.2415E-02   1.2718E-02   6.0912E-04  0.1043
   1.2718E-02   1.3027E-02   6.5928E-04  0.0990
   1.3027E-02   1.3344E-02   7.0041E-04  0.0949
   1.3344E-02   1.3669E-02   6.6530E-04  0.0962
   1.3669E-02   1.4001E-02   8.4194E-04  0.0845
   1.4001E-02   1.4342E-02   6.6929E-04  0.0937
   1.4342E-02   1.4691E-02   5.8462E-04  0.0990
   1.4691E-02   1.5048E-02   6.6585E-04  0.0917
   1.5048E-02   1.5414E-02   6.1726E-04  0.0941
   1.5414E-02   1.5789E-02   6.6659E-04  0.0894
   1.5789E-02   1.6174E-02   5.8308E-04  0.0945
   1.6174E-02   1.6567E-02   5.6923E-04  0.0945
   1.6567E-02   1.6970E-02   6.4998E-04  0.0874
   1.6970E-02   1.7383E-02   6.0548E-04  0.0894
   1.7383E-02   1.7806E-02   6.4311E-04  0.0857
   1.7806E-02   1.8239E-02   5.2166E-04  0.0941
   1.8239E-02   1.8683E-02   6.2194E-04  0.0851
   1.8683E-02   1.9138E-02   6.4676E-04  0.0825
   1.9138E-02   1.9603E-02   6.5717E-04  0.0808
   1.9603E-02   2.0080E-02   6.7930E-04  0.0786
   2.0080E-02   2.0569E-02   5.9767E-04  0.0828
   2.0569E-02   2.1069E-02   6.4741E-04  0.0786
   2.1069E-02   2.1582E-02   6.1643E-04  0.0796
   2.1582E-02   2.2107E-02   5.4466E-04  0.0836
   2.2107E-02   2.2645E-02   6.0237E-04  0.0786
   2.2645E-02   2.3196E-02   6.9696E-04  0.0722
   2.3196E-02   2.3760E-02   6.3434E-04  0.0747
   2.3760E-02   2.4338E-02   6.9192E-04  0.0707
   2.4338E-02   2.4930E-02   5.6403E-04  0.0774
   2.4930E-02   2.5537E-02   6.2317E-04  0.0727
   2.5537E-02   2.6158E-02   5.7296E-04  0.0750
   2.6158E-02   2.6795E-02   6.4105E-04  0.0700
   2.6795E-02   2.7447E-02   6.1969E-04  0.0704
   2.7447E-02   2.8114E-02   6.0797E-04  0.0702
   2.8114E-02   2.8799E-02   5.9060E-04  0.0704
   2.8799E-02   2.9499E-02   5.1663E-04  0.0743
   2.9499E-02   3.0217E-02   5.3501E-04  0.0722
   3.0217E-02   3.0952E-02   6.5016E-04  0.0647
   3.0952E-02   3.1705E-02   5.8426E-04  0.0674
   3.1705E-02   3.2477E-02   6.2742E-04  0.0643
   3.2477E-02   3.3267E-02   6.0745E-04  0.0645
   3.3267E-02   3.4076E-02   6.1279E-04  0.0635
   3.4076E-02   3.4905E-02   5.6205E-04  0.0655
   3.4905E-02   3.5755E-02   5.5106E-04  0.0654
   3.5755E-02   3.6625E-02   6.2763E-04  0.0605
   3.6625E-02   3.7516E-02   6.0375E-04  0.0610
   3.7516E-02   3.8428E-02   6.1132E-04  0.0599
   3.8428E-02   3.9363E-02   5.3690E-04  0.0631
   3.9363E-02   4.0321E-02   5.3250E-04  0.0626
   4.0321E-02   4.1302E-02   5.4839E-04  0.0610
   4.1302E-02   4.2307E-02   6.4085E-04  0.0557
   4.2307E-02   4.3337E-02   6.5866E-04  0.0543
   4.3337E-02   4.4391E-02   5.7283E-04  0.0575
   4.4391E-02   4.5471E-02   5.6108E-04  0.0574
   4.5471E-02   4.6577E-02   5.7487E-04  0.0561
   4.6577E-02   4.7711E-02   5.9651E-04  0.0544
   4.7711E-02   4.8871E-02   5.9009E-04  0.0540
   4.8871E-02   5.0061E-02   5.1468E-04  0.0572
   5.0061E-02   5.1279E-02   5.7799E-04  0.0533
   5.1279E-02   5.2526E-02   6.0113E-04  0.0516
   5.2526E-02   5.3804E-02   6.3380E-04  0.0497
   5.3804E-02   5.5113E-02   5.6222E-04  0.0521
   5.5113E-02   5.6454E-02   5.8168E-04  0.0506
   5.6454E-02   5.7828E-02   5.5912E-04  0.0510
   5.7828E-02   5.9235E-02   6.0270E-04  0.0486
   5.9235E-02   6.0676E-02   5.8700E-04  0.0486
   6.0676E-02   6.2152E-02   5.2429E-04  0.0508
   6.2152E-02   6.3665E-02   6.0309E-04  0.0468
   6.3665E-02   6.5214E-02   5.1129E-04  0.0503
   6.5214E-02   6.6800E-02   5.8612E-04  0.0464
   6.6800E-02   6.8426E-02   5.1929E-04  0.0487
   6.8426E-02   7.0090E-02   5.1536E-04  0.0483
   7.0090E-02   7.1796E-02   5.5120E-04  0.0461
   7.1796E-02   7.3543E-02   5.4498E-04  0.0458
   7.3543E-02   7.5332E-02   5.3763E-04  0.0456
   7.5332E-02   7.7165E-02   5.6523E-04  0.0439
   7.7165E-02   7.9042E-02   5.2517E-04  0.0450
   7.9042E-02   8.0965E-02   5.2518E-04  0.0445
   8.0965E-02   8.2935E-02   5.1981E-04  0.0442
   8.2935E-02   8.4953E-02   5.4314E-04  0.0427
   8.4953E-02   8.7020E-02   5.3024E-04  0.0427
   8.7020E-02   8.9138E-02   5.5165E-04  0.0414
   8.9138E-02   9.1306E-02   5.4039E-04  0.0413
   9.1306E-02   9.3528E-02   5.0145E-04  0.0424
   9.3528E-02   9.5804E-02   5.0975E-04  0.0415
   9.5804E-02   9.8134E-02   5.1481E-04  0.0408
   9.8134E-02   1.0052E-01   4.8918E-04  0.0414
   1.0052E-01   1.0297E-01   5.2008E-04  0.0397
   1.0297E-01   1.0547E-01   4.9495E-04  0.0402
   1.0547E-01   1.0804E-01   4.8320E-04  0.0402
   1.0804E-01   1.1067E-01   4.8541E-04  0.0396
   1.1067E-01   1.1336E-01   4.9468E-04  0.0387
   1.1336E-01   1.1612E-01   4.9308E-04  0.0383
   1.1612E-01   1.1894E-01   4.6509E-04  0.0390
   1.1894E-01   1.2184E-01   5.0933E-04  0.0368
   1.2184E-01   1.2480E-01   5.1275E-04  0.0363
   1.2480E-01   1.2784E-01   5.0386E-04  0.0362
   1.2784E-01   1.3095E-01   4.9575E-04  0.0360
   1.3095E-01   1.3414E-01   5.1034E-04  0.0351
   1.3414E-01   1.3740E-01   4.7983E-04  0.0357
   1.3740E-01   1.4074E-01   5.0314E-04  0.0345
   1.4074E-01   1.4417E-01   4.8476E-04  0.0347
   1.4417E-01   1.4767E-01   4.8636E-04  0.0342
   1.4767E-01   1.5127E-01   4.9262E-04  0.0336
   1.5127E-01   1.5495E-01   4.3527E-04  0.0353
   1.5495E-01   1.5872E-01   4.5942E-04  0.0340
   1.5872E-01   1.6258E-01   4.8372E-04  0.0327
   1.6258E-01   1.6654E-01   4.4796E-04  0.0336
   1.6654E-01   1.7059E-01   4.3387E-04  0.0337
   1.7059E-01   1.7474E-01   4.8090E-04  0.0317
   1.7474E-01   1.7899E-01   4.4267E-04  0.0326
   1.7899E-01   1.8334E-01   4.4960E-04  0.0320
   1.8334E-01   1.8781E-01   4.4632E-04  0.0317
   1.8781E-01   1.9237E-01   4.5126E-04  0.0311
   1.9237E-01   1.9706E-01   4.1576E-04  0.0321
   1.9706E-01   2.0185E-01   4.4009E-04  0.0308
   2.0185E-01   2.0676E-01   4.3126E-04  0.0307
   2.0676E-01   2.1179E-01   4.3135E-04  0.0304
   2.1179E-01   2.1694E-01   4.2848E-04  0.0301
   2.1694E-01   2.2222E-01   4.2209E-04  0.0300
   2.2222E-01   2.2763E-01   3.9875E-04  0.0305
   2.2763E-01   2.3317E-01   4.1131E-04  0.0296
   2.3317E-01   2.3884E-01   3.9942E-04  0.0297
   2.3884E-01   2.4465E-01   3.8649E-04  0.0298
   2.4465E-01   2.5061E-01   4.1595E-04  0.0284
   2.5061E-01   2.5670E-01   3.8606E-04  0.0291
   2.5670E-01   2.6295E-01   3.9675E-04  0.0284
   2.6295E-01   2.6935E-01   3.8420E-04  0.0285
   2.6935E-01   2.7590E-01   3.9735E-04  0.0277
   2.7590E-01   2.8261E-01   3.7421E-04  0.0282
   2.8261E-01   2.8949E-01   3.6561E-04  0.0282
   2.8949E-01   2.9653E-01   3.8163E-04  0.0273
   2.9653E-01   3.0375E-01   3.7035E-04  0.0274
   3.0375E-01   3.1114E-01   3.7887E-04  0.0267
   3.1114E-01   3.1871E-01   3.4689E-04  0.0276
   3.1871E-01   3.2646E-01   3.5567E-04  0.0269
   3.2646E-01   3.3441E-01   3.6082E-04  0.0264
   3.3441E-01   3.4254E-01   3.5003E-04  0.0265
   3.4254E-01   3.5088E-01   3.3596E-04  0.0267
   3.5088E-01   3.5941E-01   3.2447E-04  0.0269
   3.5941E-01   3.6816E-01   3.1516E-04  0.0269
   3.6816E-01   3.7712E-01   3.3759E-04  0.0257
   3.7712E-01   3.8629E-01   3.0799E-04  0.0266
   3.8629E-01   3.9569E-01   3.2834E-04  0.0255
   3.9569E-01   4.0532E-01   3.1431E-04  0.0257
   4.0532E-01   4.1518E-01   3.1962E-04  0.0252
   4.1518E-01   4.2528E-01   3.0332E-04  0.0255
   4.2528E-01   4.3563E-01   2.9940E-04  0.0254
   4.3563E-01   4.4623E-01   2.9663E-04  0.0252
   4.4623E-01   4.5708E-01   2.8387E-04  0.0255
   4.5708E-01   4.6821E-01   2.7947E-04  0.0254
   4.6821E-01   4.7960E-01   2.8178E-04  0.0250
   4.7960E-01   4.9127E-01   2.6275E-04  0.0255
   4.9127E-01   5.0322E-01   2.5918E-04  0.0254
   5.0322E-01   5.1546E-01   2.5662E-04  0.0252
   5.1546E-01   5.2800E-01   2.5164E-04  0.0252
   5.2800E-01   5.4085E-01   2.5501E-04  0.0247
   5.4085E-01   5.5401E-01   2.3512E-04  0.0254
   5.5401E-01   5.6749E-01   2.3591E-04  0.0251
   5.6749E-01   5.8130E-01   2.3031E-04  0.0251
   5.8130E-01   5.9544E-01   2.2993E-04  0.0248
   5.9544E-01   6.0993E-01   2.3524E-04  0.0242
   6.0993E-01   6.2477E-01   2.1698E-04  0.0249
   6.2477E-01   6.3997E-01   2.1551E-04  0.0247
   6.3997E-01   6.5554E-01   2.1039E-04  0.0247
   6.5554E-01   6.7149E-01   2.0665E-04  0.0246
   6.7149E-01   6.8783E-01   1.9819E-04  0.0249
   6.8783E-01   7.0456E-01   1.8476E-04  0.0254
   7.0456E-01   7.2171E-01   1.8189E-04  0.0253
   7.2171E-01   7.3927E-01   1.7745E-04  0.0253
   7.3927E-01   7.5725E-01   1.6790E-04  0.0257
   7.5725E-01   7.7568E-01   1.6597E-04  0.0256
   7.7568E-01   7.9455E-01   1.6065E-04  0.0257
   7.9455E-01   8.1388E-01   1.5963E-04  0.0255
   8.1388E-01   8.3368E-01   1.5432E-04  0.0256
   8.3368E-01   8.5397E-01   1.4543E-04  0.0260
   8.5397E-01   8.7475E-01   1.4285E-04  0.0260
   8.7475E-01   8.9603E-01   1.3541E-04  0.0263
   8.9603E-01   9.1783E-01   1.3302E-04  0.0263
   9.1783E-01   9.4016E-01   1.2082E-04  0.0272
   9.4016E-01   9.6304E-01   1.1454E-04  0.0276
   9.6304E-01   9.8647E-01   1.1352E-04  0.0274
   9.8647E-01   1.0105E+00   1.0233E-04  0.0285
   1.0105E+00   1.0351E+00   1.0827E-04  0.0274
   1.0351E+00   1.0602E+00   1.0785E-04  0.0271
   1.0602E+00   1.0860E+00   1.1133E-04  0.0264
   1.0860E+00   1.1125E+00   1.0566E-04  0.0268
   1.1125E+00   1.1395E+00   1.0729E-04  0.0262
   1.1395E+00   1.1673E+00   1.1073E-04  0.0255
   1.1673E+00   1.1957E+00   1.0965E-04  0.0253
   1.1957E+00   1.2247E+00   1.1254E-04  0.0247
   1.2247E+00   1.2545E+00   1.1034E-04  0.0247
   1.2545E+00   1.2851E+00   1.0949E-04  0.0245
   1.2851E+00   1.3163E+00   1.1284E-04  0.0238
   1.3163E+00   1.3484E+00   1.1437E-04  0.0234
   1.3484E+00   1.3812E+00   1.1351E-04  0.0232
   1.3812E+00   1.4148E+00   1.1159E-04  0.0231
   1.4148E+00   1.4492E+00   1.1800E-04  0.0222
   1.4492E+00   1.4845E+00   1.0936E-04  0.0228
   1.4845E+00   1.5206E+00   1.0693E-04  0.0228
   1.5206E+00   1.5576E+00   1.0493E-04  0.0227
   1.5576E+00   1.5955E+00   1.0808E-04  0.0221
   1.5955E+00   1.6343E+00   1.0443E-04  0.0222
   1.6343E+00   1.6741E+00   1.0477E-04  0.0219
   1.6741E+00   1.7148E+00   1.0621E-04  0.0215
   1.7148E+00   1.7565E+00   1.0263E-04  0.0216
   1.7565E+00   1.7992E+00   1.0094E-04  0.0215
   1.7992E+00   1.8430E+00   9.4844E-05  0.0220
   1.8430E+00   1.8879E+00   9.6873E-05  0.0215
   1.8879E+00   1.9338E+00   9.4703E-05  0.0214
   1.9338E+00   1.9808E+00   9.2071E-05  0.0215
   1.9808E+00   2.0290E+00   9.0880E-05  0.0214
   2.0290E+00   2.0784E+00   8.6574E-05  0.0216
   2.0784E+00   2.1290E+00   8.2540E-05  0.0219
   2.1290E+00   2.1808E+00   8.2317E-05  0.0217
   2.1808E+00   2.2338E+00   8.1794E-05  0.0215
   2.2338E+00   2.2882E+00   7.8085E-05  0.0217
   2.2882E+00   2.3439E+00   7.5045E-05  0.0219
   2.3439E+00   2.4009E+00   7.3858E-05  0.0218
   2.4009E+00   2.4593E+00   7.0906E-05  0.0220
   2.4593E+00   2.5191E+00   6.6280E-05  0.0225
   2.5191E+00   2.5804E+00   6.5489E-05  0.0223
   2.5804E+00   2.6432E+00   6.3519E-05  0.0224
   2.6432E+00   2.7075E+00   5.8870E-05  0.0230
   2.7075E+00   2.7734E+00   5.6318E-05  0.0232
   2.7734E+00   2.8409E+00   5.4298E-05  0.0234
   2.8409E+00   2.9100E+00   5.2748E-05  0.0234
   2.9100E+00   2.9808E+00   5.1156E-05  0.0235
   2.9808E+00   3.0533E+00   4.9914E-05  0.0235
   3.0533E+00   3.1276E+00   4.4582E-05  0.0246
   3.1276E+00   3.2037E+00   4.2892E-05  0.0248
   3.2037E+00   3.2817E+00   3.8538E-05  0.0258
   3.2817E+00   3.3615E+00   3.5443E-05  0.0266
   3.3615E+00   3.4433E+00   3.6509E-05  0.0259
   3.4433E+00   3.5271E+00   3.3493E-05  0.0267
   3.5271E+00   3.6129E+00   3.0717E-05  0.0275
   3.6129E+00   3.7008E+00   2.8440E-05  0.0283
   3.7008E+00   3.7908E+00   2.7898E-05  0.0282
   3.7908E+00   3.8831E+00   2.6736E-05  0.0285
   3.8831E+00   3.9776E+00   2.3307E-05  0.0301
   3.9776E+00   4.0743E+00   2.2857E-05  0.0301
   4.0743E+00   4.1735E+00   1.9731E-05  0.0320
   4.1735E+00   4.2750E+00   1.9016E-05  0.0322
   4.2750E+00   4.3790E+00   1.6978E-05  0.0337
   4.3790E+00   4.4856E+00   1.7326E-05  0.0329
   4.4856E+00   4.5947E+00   1.4477E-05  0.0356
   4.5947E+00   4.7065E+00   1.3561E-05  0.0363
   4.7065E+00   4.8210E+00   1.2138E-05  0.0379
   4.8210E+00   4.9383E+00   1.0963E-05  0.0394
   4.9383E+00   5.0585E+00   1.0237E-05  0.0403
   5.0585E+00   5.1815E+00   9.8800E-06  0.0406
   5.1815E+00   5.3076E+00   8.9315E-06  0.0421
   5.3076E+00   5.4368E+00   7.6197E-06  0.0451
   5.4368E+00   5.5690E+00   7.3329E-06  0.0454
   5.5690E+00   5.7045E+00   6.3764E-06  0.0481
   5.7045E+00   5.8433E+00   6.0953E-06  0.0486
   5.8433E+00   5.9855E+00   5.5003E-06  0.0506
   5.9855E+00   6.1311E+00   4.7105E-06  0.0540
   6.1311E+00   6.2803E+00   4.5986E-06  0.0540
   6.2803E+00   6.4331E+00   3.8873E-06  0.0580
   6.4331E+00   6.5896E+00   3.6161E-06  0.0594
   6.5896E+00   6.7500E+00   3.3805E-06  0.0607
   6.7500E+00   6.9142E+00   2.8009E-06  0.0659
   6.9142E+00   7.0824E+00   2.3777E-06  0.0707
   7.0824E+00   7.2548E+00   2.3561E-06  0.0702
   7.2548E+00   7.4313E+00   1.9602E-06  0.0760
   7.4313E+00   7.6121E+00   1.7698E-06  0.0791
   7.6121E+00   7.7973E+00   1.6414E-06  0.0811
   7.7973E+00   7.9870E+00   1.5392E-06  0.0828
   7.9870E+00   8.1813E+00   1.3791E-06  0.0864
   8.1813E+00   8.3804E+00   1.3062E-06  0.0877
   8.3804E+00   8.5843E+00   1.0888E-06  0.0949
   8.5843E+00   8.7931E+00   1.1778E-06  0.0902
   8.7931E+00   9.0071E+00   7.3384E-07  0.1127
   9.0071E+00   9.2262E+00   8.2592E-07  0.1050
   9.2262E+00   9.4507E+00   6.5930E-07  0.1162
   9.4507E+00   9.6807E+00   5.8710E-07  0.1215
   9.6807E+00   9.9162E+00   4.3305E-07  0.1393
   9.9162E+00   1.0157E+01   5.8026E-07  0.1195
   1.0157E+01   1.0405E+01   4.4914E-07  0.1333
   1.0405E+01   1.0658E+01   4.3057E-07  0.1351
   1.0658E+01   1.0917E+01   4.2034E-07  0.1351
   1.0917E+01   1.1183E+01   4.2165E-07  0.1330
   1.1183E+01   1.1455E+01   3.6018E-07  0.1421
   1.1455E+01   1.1733E+01   2.4757E-07  0.1696
   1.1733E+01   1.2019E+01   2.2418E-07  0.1740
   1.2019E+01   1.2311E+01   2.6673E-07  0.1591
   1.2311E+01   1.2611E+01   1.9696E-07  0.1833
   1.2611E+01   1.2918E+01   2.5421E-07  0.1601
   1.2918E+01   1.3232E+01   2.3226E-07  0.1650
   1.3232E+01   1.3554E+01   1.9879E-07  0.1768
   1.3554E+01   1.3884E+01   1.2129E-07  0.2236
   1.3884E+01   1.4222E+01   1.6282E-07  0.1898
   1.4222E+01   1.4568E+01   2.1964E-07  0.1612
   1.4568E+01   1.4922E+01   1.5799E-07  0.1890
   1.4922E+01   1.5285E+01   1.3496E-07  0.2010
   1.5285E+01   1.5657E+01   1.4520E-07  0.1925
   1.5657E+01   1.6038E+01   1.2600E-07  0.2041
   1.6038E+01   1.6428E+01   1.2045E-07  0.2052
   1.6428E+01   1.6828E+01   9.5069E-08  0.2294
   1.6828E+01   1.7237E+01   1.2700E-07  0.1961
   1.7237E+01   1.7657E+01   7.1531E-08  0.2582
   1.7657E+01   1.8086E+01   1.2104E-07  0.1961
   1.8086E+01   1.8526E+01   1.1362E-07  0.2000
   1.8526E+01   1.8977E+01   6.8772E-08  0.2519
   1.8977E+01   1.9439E+01   9.0962E-08  0.2182
   1.9439E+01   1.9912E+01   8.0344E-08  0.2294
   1.9912E+01   2.0396E+01   7.4308E-08  0.2357
   2.0396E+01   2.0893E+01   7.2543E-08  0.2357
   2.0893E+01   2.1401E+01   6.6885E-08  0.2425
   2.1401E+01   2.1922E+01   8.8342E-08  0.2085
   2.1922E+01   2.2455E+01   1.0874E-07  0.1857
   2.2455E+01   2.3001E+01   6.2231E-08  0.2425
   2.3001E+01   2.3561E+01   6.4327E-08  0.2357
   2.3561E+01   2.4134E+01   4.1866E-08  0.2887
   2.4134E+01   2.4721E+01   7.4931E-08  0.2132
   2.4721E+01   2.5323E+01   3.6576E-08  0.3015
   2.5323E+01   2.5939E+01   4.2199E-08  0.2774
   2.5939E+01   2.6570E+01   6.3380E-08  0.2236
   2.6570E+01   2.7217E+01   4.9499E-08  0.2500
   2.7217E+01   2.7879E+01   5.1344E-08  0.2425
   2.7879E+01   2.8557E+01   3.5382E-08  0.2887
   2.8557E+01   2.9252E+01   3.4541E-08  0.2887
   2.9252E+01   2.9964E+01   3.0911E-08  0.3015
   2.9964E+01   3.0693E+01   3.5663E-08  0.2774
   3.0693E+01   3.1440E+01   1.0713E-08  0.5000
   3.1440E+01   3.2205E+01   2.8760E-08  0.3015
   3.2205E+01   3.2988E+01   2.2972E-08  0.3333
   3.2988E+01   3.3791E+01   1.2459E-08  0.4472
   3.3791E+01   3.4613E+01   1.9461E-08  0.3536
   3.4613E+01   3.5455E+01   2.3749E-08  0.3162
   3.5455E+01   3.6318E+01   2.3184E-08  0.3162
   3.6318E+01   3.7201E+01   1.3580E-08  0.4082
   3.7201E+01   3.8106E+01   1.7677E-08  0.3536
   3.8106E+01   3.9034E+01   1.2943E-08  0.4082
   3.9034E+01   3.9983E+01   1.0529E-08  0.4472
   3.9983E+01   4.0956E+01   8.2235E-09  0.5000
   4.0956E+01   4.1953E+01   0.0000E+00  0.0000
   4.1953E+01   4.2973E+01   3.9187E-09  0.7071
   4.2973E+01   4.4019E+01   3.8256E-09  0.7071
   4.4019E+01   4.5090E+01   3.7348E-09  0.7071
   4.5090E+01   4.6187E+01   0.0000E+00  0.0000
   4.6187E+01   4.7311E+01   1.7797E-09  1.0000
   4.7311E+01   4.8462E+01   6.9498E-09  0.5000
   4.8462E+01   4.9641E+01   1.6962E-09  1.0000
   4.9641E+01   5.0849E+01   0.0000E+00  0.0000
   5.0849E+01   5.2086E+01   1.6166E-09  1.0000
   5.2086E+01   5.3353E+01   1.5782E-09  1.0000
   5.3353E+01   5.4651E+01   0.0000E+00  0.0000
   5.4651E+01   5.5981E+01   0.0000E+00  0.0000
   5.5981E+01   5.7343E+01   0.0000E+00  0.0000
   5.7343E+01   5.8738E+01   1.4335E-09  1.0000
   5.8738E+01   6.0168E+01   0.0000E+00  0.0000
   6.0168E+01   6.1632E+01   0.0000E+00  0.0000
   6.1632E+01   6.3131E+01   0.0000E+00  0.0000
   6.3131E+01   6.4667E+01   0.0000E+00  0.0000
   6.4667E+01   6.6240E+01   1.2711E-09  1.0000
   6.6240E+01   6.7852E+01   0.0000E+00  0.0000
   6.7852E+01   6.9503E+01   0.0000E+00  0.0000
   6.9503E+01   7.1194E+01   0.0000E+00  0.0000
   7.1194E+01   7.2926E+01   0.0000E+00  0.0000
   7.2926E+01   7.4701E+01   0.0000E+00  0.0000
   7.4701E+01   7.6518E+01   0.0000E+00  0.0000
   7.6518E+01   7.8380E+01   0.0000E+00  0.0000
   7.8380E+01   8.0287E+01   0.0000E+00  0.0000
   8.0287E+01   8.2240E+01   0.0000E+00  0.0000
   8.2240E+01   8.4241E+01   0.0000E+00  0.0000
   8.4241E+01   8.6291E+01   0.0000E+00  0.0000
   8.6291E+01   8.8391E+01   0.0000E+00  0.0000
   8.8391E+01   9.0541E+01   0.0000E+00  0.0000
   9.0541E+01   9.2744E+01   0.0000E+00  0.0000
   9.2744E+01   9.5001E+01   0.0000E+00  0.0000
   9.5001E+01   9.7312E+01   0.0000E+00  0.0000
   9.7312E+01   9.9680E+01   0.0000E+00  0.0000
   9.9680E+01   1.0211E+02   0.0000E+00  0.0000
   1.0211E+02   1.0459E+02   0.0000E+00  0.0000
   1.0459E+02   1.0713E+02   0.0000E+00  0.0000
   1.0713E+02   1.0974E+02   0.0000E+00  0.0000
   1.0974E+02   1.1241E+02   0.0000E+00  0.0000
   1.1241E+02   1.1515E+02   0.0000E+00  0.0000
   1.1515E+02   1.1795E+02   0.0000E+00  0.0000
   1.1795E+02   1.2082E+02   0.0000E+00  0.0000
   1.2082E+02   1.2376E+02   0.0000E+00  0.0000
   1.2376E+02   1.2677E+02   0.0000E+00  0.0000
   1.2677E+02   1.2985E+02   0.0000E+00  0.0000
   1.2985E+02   1.3301E+02   0.0000E+00  0.0000
   1.3301E+02   1.3625E+02   0.0000E+00  0.0000
   1.3625E+02   1.3956E+02   0.0000E+00  0.0000
   1.3956E+02   1.4296E+02   0.0000E+00  0.0000
   1.4296E+02   1.4644E+02   0.0000E+00  0.0000
   1.4644E+02   1.5000E+02   0.0000E+00  0.0000

#   sum over                 3.5324E-06
'no. =    1   reg = 126 - 226'
msuc: {\huge [t-cross] in region mesh}
msdr: {\it plotted by \ANGEL \version}
msdl: {\it calculated by \PHITS  3.26}
wt: s(0.7)
\vspace{-3}
  region surface crossing
  area  &=&   1.0000E+00 [cm^2]
e:
 
# Information for Restart Calculation
# This calculation was newly started
# istdev =  2 # 1:Batch variance, 2:History variance
# resc2  = 5.00000000000000000E+08 # Total source weight or Total source weight / maxcas
# resc3  = 5.00000000000000000E+08 # Total history number or Total batch number
# maxcas =   500000000 # History / Batch, only used for istdev=1
# bitrseed = 1101101111010011011000101101110001100110110010110001010100010001 # bit data of rseed
