[ T-Cross ]
    title = [t-cross] in region mesh
     mesh =  reg            # mesh type is region-wise
      reg =    1            # number of crossing regions
      non     r-from    r-to       area
      1       108       208        1.000000    
   e-type =    3            # e-mesh is log given by emin, emax and ne
     emin =  1.0000000E-02  # minimum value of e-mesh points
     emax =   150.0000      # maximum value of e-mesh points
#    edel =  2.4039514E-02  # mesh width of e-mesh points
       ne =    400          # number of e-mesh points
#    data = ( e(i), i = 1, ne + 1 )
#           1.00000E-02  1.02433E-02  1.04925E-02  1.07478E-02  1.10093E-02
#           1.12772E-02  1.15516E-02  1.18326E-02  1.21205E-02  1.24154E-02
#           1.27175E-02  1.30269E-02  1.33439E-02  1.36686E-02  1.40011E-02
#           1.43418E-02  1.46907E-02  1.50482E-02  1.54143E-02  1.57894E-02
#           1.61735E-02  1.65670E-02  1.69701E-02  1.73830E-02  1.78060E-02
#           1.82392E-02  1.86830E-02  1.91375E-02  1.96032E-02  2.00801E-02
#           2.05687E-02  2.10692E-02  2.15818E-02  2.21069E-02  2.26448E-02
#           2.31957E-02  2.37601E-02  2.43382E-02  2.49304E-02  2.55369E-02
#           2.61583E-02  2.67947E-02  2.74467E-02  2.81145E-02  2.87985E-02
#           2.94992E-02  3.02169E-02  3.09521E-02  3.17052E-02  3.24766E-02
#           3.32668E-02  3.40762E-02  3.49053E-02  3.57546E-02  3.66246E-02
#           3.75157E-02  3.84284E-02  3.93634E-02  4.03212E-02  4.13022E-02
#           4.23071E-02  4.33365E-02  4.43909E-02  4.54710E-02  4.65773E-02
#           4.77106E-02  4.88714E-02  5.00605E-02  5.12785E-02  5.25262E-02
#           5.38042E-02  5.51133E-02  5.64542E-02  5.78278E-02  5.92348E-02
#           6.06760E-02  6.21523E-02  6.36645E-02  6.52135E-02  6.68002E-02
#           6.84255E-02  7.00904E-02  7.17957E-02  7.35426E-02  7.53319E-02
#           7.71648E-02  7.90423E-02  8.09655E-02  8.29354E-02  8.49533E-02
#           8.70203E-02  8.91376E-02  9.13064E-02  9.35279E-02  9.58035E-02
#           9.81345E-02  1.00522E-01  1.02968E-01  1.05473E-01  1.08040E-01
#           1.10668E-01  1.13361E-01  1.16119E-01  1.18944E-01  1.21838E-01
#           1.24803E-01  1.27839E-01  1.30950E-01  1.34136E-01  1.37399E-01
#           1.40742E-01  1.44167E-01  1.47675E-01  1.51268E-01  1.54948E-01
#           1.58718E-01  1.62580E-01  1.66535E-01  1.70587E-01  1.74738E-01
#           1.78989E-01  1.83344E-01  1.87805E-01  1.92375E-01  1.97055E-01
#           2.01850E-01  2.06761E-01  2.11792E-01  2.16945E-01  2.22223E-01
#           2.27630E-01  2.33169E-01  2.38842E-01  2.44653E-01  2.50605E-01
#           2.56703E-01  2.62949E-01  2.69346E-01  2.75900E-01  2.82613E-01
#           2.89489E-01  2.96532E-01  3.03747E-01  3.11138E-01  3.18708E-01
#           3.26462E-01  3.34405E-01  3.42542E-01  3.50876E-01  3.59413E-01
#           3.68158E-01  3.77116E-01  3.86291E-01  3.95690E-01  4.05317E-01
#           4.15179E-01  4.25281E-01  4.35628E-01  4.46227E-01  4.57084E-01
#           4.68205E-01  4.79597E-01  4.91266E-01  5.03219E-01  5.15463E-01
#           5.28005E-01  5.40851E-01  5.54011E-01  5.67490E-01  5.81298E-01
#           5.95441E-01  6.09929E-01  6.24769E-01  6.39970E-01  6.55541E-01
#           6.71491E-01  6.87828E-01  7.04564E-01  7.21706E-01  7.39266E-01
#           7.57253E-01  7.75678E-01  7.94551E-01  8.13883E-01  8.33685E-01
#           8.53969E-01  8.74747E-01  8.96030E-01  9.17831E-01  9.40163E-01
#           9.63038E-01  9.86469E-01  1.01047E+00  1.03506E+00  1.06024E+00
#           1.08604E+00  1.11246E+00  1.13953E+00  1.16725E+00  1.19565E+00
#           1.22474E+00  1.25454E+00  1.28507E+00  1.31633E+00  1.34836E+00
#           1.38117E+00  1.41477E+00  1.44920E+00  1.48446E+00  1.52057E+00
#           1.55757E+00  1.59547E+00  1.63429E+00  1.67405E+00  1.71478E+00
#           1.75650E+00  1.79924E+00  1.84302E+00  1.88786E+00  1.93379E+00
#           1.98084E+00  2.02904E+00  2.07841E+00  2.12898E+00  2.18078E+00
#           2.23384E+00  2.28819E+00  2.34386E+00  2.40089E+00  2.45930E+00
#           2.51914E+00  2.58043E+00  2.64322E+00  2.70753E+00  2.77341E+00
#           2.84088E+00  2.91001E+00  2.98081E+00  3.05333E+00  3.12762E+00
#           3.20372E+00  3.28167E+00  3.36152E+00  3.44330E+00  3.52708E+00
#           3.61290E+00  3.70080E+00  3.79085E+00  3.88308E+00  3.97756E+00
#           4.07434E+00  4.17347E+00  4.27501E+00  4.37903E+00  4.48557E+00
#           4.59471E+00  4.70650E+00  4.82102E+00  4.93832E+00  5.05847E+00
#           5.18155E+00  5.30762E+00  5.43676E+00  5.56904E+00  5.70453E+00
#           5.84333E+00  5.98550E+00  6.13114E+00  6.28031E+00  6.43312E+00
#           6.58964E+00  6.74997E+00  6.91420E+00  7.08243E+00  7.25475E+00
#           7.43126E+00  7.61207E+00  7.79728E+00  7.98700E+00  8.18133E+00
#           8.38038E+00  8.58428E+00  8.79315E+00  9.00709E+00  9.22624E+00
#           9.45072E+00  9.68067E+00  9.91620E+00  1.01575E+01  1.04046E+01
#           1.06578E+01  1.09171E+01  1.11827E+01  1.14548E+01  1.17335E+01
#           1.20190E+01  1.23114E+01  1.26109E+01  1.29178E+01  1.32321E+01
#           1.35540E+01  1.38838E+01  1.42216E+01  1.45676E+01  1.49221E+01
#           1.52851E+01  1.56570E+01  1.60380E+01  1.64282E+01  1.68279E+01
#           1.72374E+01  1.76568E+01  1.80864E+01  1.85264E+01  1.89772E+01
#           1.94389E+01  1.99119E+01  2.03963E+01  2.08926E+01  2.14009E+01
#           2.19216E+01  2.24550E+01  2.30014E+01  2.35610E+01  2.41343E+01
#           2.47215E+01  2.53230E+01  2.59391E+01  2.65702E+01  2.72167E+01
#           2.78789E+01  2.85572E+01  2.92520E+01  2.99637E+01  3.06928E+01
#           3.14396E+01  3.22045E+01  3.29881E+01  3.37907E+01  3.46128E+01
#           3.54550E+01  3.63177E+01  3.72013E+01  3.81064E+01  3.90336E+01
#           3.99833E+01  4.09561E+01  4.19526E+01  4.29734E+01  4.40189E+01
#           4.50900E+01  4.61870E+01  4.73108E+01  4.84619E+01  4.96410E+01
#           5.08488E+01  5.20860E+01  5.33533E+01  5.46514E+01  5.59812E+01
#           5.73432E+01  5.87384E+01  6.01676E+01  6.16315E+01  6.31311E+01
#           6.46671E+01  6.62405E+01  6.78522E+01  6.95031E+01  7.11941E+01
#           7.29263E+01  7.47007E+01  7.65182E+01  7.83800E+01  8.02870E+01
#           8.22405E+01  8.42414E+01  8.62911E+01  8.83906E+01  9.05412E+01
#           9.27442E+01  9.50007E+01  9.73122E+01  9.96799E+01  1.02105E+02
#           1.04589E+02  1.07134E+02  1.09741E+02  1.12411E+02  1.15146E+02
#           1.17948E+02  1.20817E+02  1.23757E+02  1.26768E+02  1.29852E+02
#           1.33012E+02  1.36248E+02  1.39563E+02  1.42959E+02  1.46437E+02
#           1.50000E+02
     unit =    2            # unit is [1/cm^2/(MeV/n)/source]
     axis =  eng            # axis of output
     file = detector-09.out  # file name of output for the above axis
   output = f-curr          # surface crossing forward current spectrum
     part =  neutron  
# kf/name :  2112     
#    used :        main (  %)        temp (  %)       total (  %)
#  memory :         414 (  0)           0 (  0)         414 (  0)

#------------------------------------------------------------------------------
#newpage:
#   no. =    1   reg = 108 - 208

x: Energy [MeV/n]
y:  F-Curr [1/cm^2/(MeV/n)/source]         
p: xlog ylog afac(0.8) form(0.9)
h: n            x            y(neutron ),hh0l   n 
#  e-lower      e-upper      neutron     r.err 
   1.0000E-02   1.0243E-02   4.6175E-03  0.0421
   1.0243E-02   1.0493E-02   4.6728E-03  0.0413
   1.0493E-02   1.0748E-02   4.5355E-03  0.0415
   1.0748E-02   1.1009E-02   4.3911E-03  0.0416
   1.1009E-02   1.1277E-02   4.2531E-03  0.0418
   1.1277E-02   1.1552E-02   4.3435E-03  0.0408
   1.1552E-02   1.1833E-02   4.4747E-03  0.0398
   1.1833E-02   1.2121E-02   4.2287E-03  0.0404
   1.2121E-02   1.2415E-02   3.8670E-03  0.0417
   1.2415E-02   1.2718E-02   3.9978E-03  0.0406
   1.2718E-02   1.3027E-02   3.7213E-03  0.0415
   1.3027E-02   1.3344E-02   3.4618E-03  0.0426
   1.3344E-02   1.3669E-02   3.5021E-03  0.0418
   1.3669E-02   1.4001E-02   3.6442E-03  0.0405
   1.4001E-02   1.4342E-02   3.5709E-03  0.0405
   1.4342E-02   1.4691E-02   3.3275E-03  0.0414
   1.4691E-02   1.5048E-02   3.4066E-03  0.0404
   1.5048E-02   1.5414E-02   3.3255E-03  0.0404
   1.5414E-02   1.5789E-02   2.9604E-03  0.0423
   1.5789E-02   1.6174E-02   3.1099E-03  0.0408
   1.6174E-02   1.6567E-02   3.2235E-03  0.0396
   1.6567E-02   1.6970E-02   3.1943E-03  0.0393
   1.6970E-02   1.7383E-02   3.0057E-03  0.0401
   1.7383E-02   1.7806E-02   2.9190E-03  0.0401
   1.7806E-02   1.8239E-02   2.7853E-03  0.0406
   1.8239E-02   1.8683E-02   2.8337E-03  0.0398
   1.8683E-02   1.9138E-02   2.7456E-03  0.0399
   1.9138E-02   1.9603E-02   2.6009E-03  0.0406
   1.9603E-02   2.0080E-02   2.6208E-03  0.0399
   2.0080E-02   2.0569E-02   2.5670E-03  0.0398
   2.0569E-02   2.1069E-02   2.5777E-03  0.0393
   2.1069E-02   2.1582E-02   2.5767E-03  0.0388
   2.1582E-02   2.2107E-02   2.3702E-03  0.0400
   2.2107E-02   2.2645E-02   2.5810E-03  0.0379
   2.2645E-02   2.3196E-02   2.1266E-03  0.0411
   2.3196E-02   2.3760E-02   2.3203E-03  0.0390
   2.3760E-02   2.4338E-02   2.1383E-03  0.0401
   2.4338E-02   2.4930E-02   2.1873E-03  0.0392
   2.4930E-02   2.5537E-02   2.2174E-03  0.0385
   2.5537E-02   2.6158E-02   2.0618E-03  0.0394
   2.6158E-02   2.6795E-02   1.8879E-03  0.0407
   2.6795E-02   2.7447E-02   2.1305E-03  0.0378
   2.7447E-02   2.8114E-02   1.8876E-03  0.0397
   2.8114E-02   2.8799E-02   1.9785E-03  0.0383
   2.8799E-02   2.9499E-02   1.7573E-03  0.0402
   2.9499E-02   3.0217E-02   1.8927E-03  0.0383
   3.0217E-02   3.0952E-02   1.7869E-03  0.0389
   3.0952E-02   3.1705E-02   1.7534E-03  0.0388
   3.1705E-02   3.2477E-02   1.6139E-03  0.0399
   3.2477E-02   3.3267E-02   1.6041E-03  0.0396
   3.3267E-02   3.4076E-02   1.7227E-03  0.0378
   3.4076E-02   3.4905E-02   1.5753E-03  0.0390
   3.4905E-02   3.5755E-02   1.6542E-03  0.0376
   3.5755E-02   3.6625E-02   1.5539E-03  0.0383
   3.6625E-02   3.7516E-02   1.5273E-03  0.0382
   3.7516E-02   3.8428E-02   1.3837E-03  0.0397
   3.8428E-02   3.9363E-02   1.3845E-03  0.0392
   3.9363E-02   4.0321E-02   1.4295E-03  0.0382
   4.0321E-02   4.1302E-02   1.4905E-03  0.0369
   4.1302E-02   4.2307E-02   1.3536E-03  0.0382
   4.2307E-02   4.3337E-02   1.3381E-03  0.0380
   4.3337E-02   4.4391E-02   1.3298E-03  0.0376
   4.4391E-02   4.5471E-02   1.3435E-03  0.0370
   4.5471E-02   4.6577E-02   1.2761E-03  0.0375
   4.6577E-02   4.7711E-02   1.2244E-03  0.0378
   4.7711E-02   4.8871E-02   1.1786E-03  0.0381
   4.8871E-02   5.0061E-02   1.1684E-03  0.0378
   5.0061E-02   5.1279E-02   1.1614E-03  0.0375
   5.1279E-02   5.2526E-02   1.1202E-03  0.0377
   5.2526E-02   5.3804E-02   1.1214E-03  0.0372
   5.3804E-02   5.5113E-02   1.0712E-03  0.0377
   5.5113E-02   5.6454E-02   1.1036E-03  0.0366
   5.6454E-02   5.7828E-02   9.7280E-04  0.0386
   5.7828E-02   5.9235E-02   1.1597E-03  0.0349
   5.9235E-02   6.0676E-02   1.0329E-03  0.0366
   6.0676E-02   6.2152E-02   1.0419E-03  0.0360
   6.2152E-02   6.3665E-02   8.5841E-04  0.0391
   6.3665E-02   6.5214E-02   9.6572E-04  0.0365
   6.5214E-02   6.6800E-02   9.5586E-04  0.0362
   6.6800E-02   6.8426E-02   9.1492E-04  0.0366
   6.8426E-02   7.0090E-02   9.2705E-04  0.0359
   7.0090E-02   7.1796E-02   8.4677E-04  0.0371
   7.1796E-02   7.3543E-02   8.0629E-04  0.0376
   7.3543E-02   7.5332E-02   7.8964E-04  0.0375
   7.5332E-02   7.7165E-02   8.3311E-04  0.0361
   7.7165E-02   7.9042E-02   8.0416E-04  0.0363
   7.9042E-02   8.0965E-02   8.0155E-04  0.0359
   8.0965E-02   8.2935E-02   7.5512E-04  0.0366
   8.2935E-02   8.4953E-02   7.2149E-04  0.0370
   8.4953E-02   8.7020E-02   7.7226E-04  0.0353
   8.7020E-02   8.9138E-02   7.2430E-04  0.0360
   8.9138E-02   9.1306E-02   6.7408E-04  0.0369
   9.1306E-02   9.3528E-02   6.8969E-04  0.0360
   9.3528E-02   9.5804E-02   7.2566E-04  0.0347
   9.5804E-02   9.8134E-02   6.5251E-04  0.0362
   9.8134E-02   1.0052E-01   6.1161E-04  0.0369
   1.0052E-01   1.0297E-01   6.6625E-04  0.0349
   1.0297E-01   1.0547E-01   6.1918E-04  0.0358
   1.0547E-01   1.0804E-01   5.8969E-04  0.0362
   1.0804E-01   1.1067E-01   6.2324E-04  0.0348
   1.1067E-01   1.1336E-01   6.2265E-04  0.0345
   1.1336E-01   1.1612E-01   5.8341E-04  0.0352
   1.1612E-01   1.1894E-01   5.5015E-04  0.0358
   1.1894E-01   1.2184E-01   5.2165E-04  0.0363
   1.2184E-01   1.2480E-01   5.3670E-04  0.0354
   1.2480E-01   1.2784E-01   5.1599E-04  0.0356
   1.2784E-01   1.3095E-01   5.4964E-04  0.0341
   1.3095E-01   1.3414E-01   4.9140E-04  0.0356
   1.3414E-01   1.3740E-01   4.9998E-04  0.0349
   1.3740E-01   1.4074E-01   5.1054E-04  0.0341
   1.4074E-01   1.4417E-01   4.7146E-04  0.0351
   1.4417E-01   1.4767E-01   4.6642E-04  0.0349
   1.4767E-01   1.5127E-01   4.5501E-04  0.0349
   1.5127E-01   1.5495E-01   4.7092E-04  0.0339
   1.5495E-01   1.5872E-01   4.5852E-04  0.0339
   1.5872E-01   1.6258E-01   4.6888E-04  0.0331
   1.6258E-01   1.6654E-01   4.0512E-04  0.0352
   1.6654E-01   1.7059E-01   4.4114E-04  0.0334
   1.7059E-01   1.7474E-01   4.1826E-04  0.0338
   1.7474E-01   1.7899E-01   4.3299E-04  0.0329
   1.7899E-01   1.8334E-01   3.7726E-04  0.0348
   1.8334E-01   1.8781E-01   3.7667E-04  0.0344
   1.8781E-01   1.9237E-01   4.0237E-04  0.0329
   1.9237E-01   1.9706E-01   3.7007E-04  0.0338
   1.9706E-01   2.0185E-01   3.7405E-04  0.0333
   2.0185E-01   2.0676E-01   4.0660E-04  0.0316
   2.0676E-01   2.1179E-01   3.8408E-04  0.0321
   2.1179E-01   2.1694E-01   4.0476E-04  0.0309
   2.1694E-01   2.2222E-01   4.0672E-04  0.0304
   2.2222E-01   2.2763E-01   4.3094E-04  0.0292
   2.2763E-01   2.3317E-01   4.2599E-04  0.0290
   2.3317E-01   2.3884E-01   4.6453E-04  0.0275
   2.3884E-01   2.4465E-01   4.8513E-04  0.0266
   2.4465E-01   2.5061E-01   4.8940E-04  0.0261
   2.5061E-01   2.5670E-01   5.0944E-04  0.0253
   2.5670E-01   2.6295E-01   5.1826E-04  0.0248
   2.6295E-01   2.6935E-01   5.3322E-04  0.0241
   2.6935E-01   2.7590E-01   5.3838E-04  0.0237
   2.7590E-01   2.8261E-01   5.5013E-04  0.0232
   2.8261E-01   2.8949E-01   5.8128E-04  0.0223
   2.8949E-01   2.9653E-01   5.6792E-04  0.0223
   2.9653E-01   3.0375E-01   6.0847E-04  0.0213
   3.0375E-01   3.1114E-01   6.1662E-04  0.0209
   3.1114E-01   3.1871E-01   6.4887E-04  0.0201
   3.1871E-01   3.2646E-01   6.2921E-04  0.0202
   3.2646E-01   3.3441E-01   6.8386E-04  0.0191
   3.3441E-01   3.4254E-01   6.8855E-04  0.0188
   3.4254E-01   3.5088E-01   6.9926E-04  0.0185
   3.5088E-01   3.5941E-01   7.3236E-04  0.0178
   3.5941E-01   3.6816E-01   7.1443E-04  0.0179
   3.6816E-01   3.7712E-01   7.7365E-04  0.0169
   3.7712E-01   3.8629E-01   7.7623E-04  0.0167
   3.8629E-01   3.9569E-01   7.6461E-04  0.0166
   3.9569E-01   4.0532E-01   7.8301E-04  0.0162
   4.0532E-01   4.1518E-01   8.1447E-04  0.0157
   4.1518E-01   4.2528E-01   8.1607E-04  0.0155
   4.2528E-01   4.3563E-01   8.5146E-04  0.0150
   4.3563E-01   4.4623E-01   8.7446E-04  0.0146
   4.4623E-01   4.5708E-01   8.8333E-04  0.0144
   4.5708E-01   4.6821E-01   9.1246E-04  0.0140
   4.6821E-01   4.7960E-01   9.2815E-04  0.0137
   4.7960E-01   4.9127E-01   9.2087E-04  0.0136
   4.9127E-01   5.0322E-01   9.5592E-04  0.0132
   5.0322E-01   5.1546E-01   9.8352E-04  0.0128
   5.1546E-01   5.2800E-01   9.7945E-04  0.0127
   5.2800E-01   5.4085E-01   1.0247E-03  0.0123
   5.4085E-01   5.5401E-01   1.0336E-03  0.0121
   5.5401E-01   5.6749E-01   1.0571E-03  0.0118
   5.6749E-01   5.8130E-01   1.0846E-03  0.0115
   5.8130E-01   5.9544E-01   1.0831E-03  0.0114
   5.9544E-01   6.0993E-01   1.0913E-03  0.0112
   6.0993E-01   6.2477E-01   1.0888E-03  0.0111
   6.2477E-01   6.3997E-01   1.1193E-03  0.0108
   6.3997E-01   6.5554E-01   1.1437E-03  0.0106
   6.5554E-01   6.7149E-01   1.1402E-03  0.0105
   6.7149E-01   6.8783E-01   1.1730E-03  0.0102
   6.8783E-01   7.0456E-01   1.1899E-03  0.0100
   7.0456E-01   7.2171E-01   1.2109E-03  0.0098
   7.2171E-01   7.3927E-01   1.2204E-03  0.0096
   7.3927E-01   7.5725E-01   1.2309E-03  0.0095
   7.5725E-01   7.7568E-01   1.2491E-03  0.0093
   7.7568E-01   7.9455E-01   1.2513E-03  0.0092
   7.9455E-01   8.1388E-01   1.2448E-03  0.0091
   8.1388E-01   8.3368E-01   1.2721E-03  0.0089
   8.3368E-01   8.5397E-01   1.2834E-03  0.0087
   8.5397E-01   8.7475E-01   1.2891E-03  0.0086
   8.7475E-01   8.9603E-01   1.3164E-03  0.0084
   8.9603E-01   9.1783E-01   1.3042E-03  0.0084
   9.1783E-01   9.4016E-01   1.3193E-03  0.0082
   9.4016E-01   9.6304E-01   1.3180E-03  0.0081
   9.6304E-01   9.8647E-01   1.3333E-03  0.0080
   9.8647E-01   1.0105E+00   1.3649E-03  0.0078
   1.0105E+00   1.0351E+00   1.3510E-03  0.0077
   1.0351E+00   1.0602E+00   1.3493E-03  0.0076
   1.0602E+00   1.0860E+00   1.3551E-03  0.0075
   1.0860E+00   1.1125E+00   1.3690E-03  0.0074
   1.1125E+00   1.1395E+00   1.3467E-03  0.0074
   1.1395E+00   1.1673E+00   1.3659E-03  0.0072
   1.1673E+00   1.1957E+00   1.3549E-03  0.0072
   1.1957E+00   1.2247E+00   1.3940E-03  0.0070
   1.2247E+00   1.2545E+00   1.3718E-03  0.0070
   1.2545E+00   1.2851E+00   1.3580E-03  0.0069
   1.2851E+00   1.3163E+00   1.3675E-03  0.0068
   1.3163E+00   1.3484E+00   1.3635E-03  0.0067
   1.3484E+00   1.3812E+00   1.3486E-03  0.0067
   1.3812E+00   1.4148E+00   1.3417E-03  0.0066
   1.4148E+00   1.4492E+00   1.3643E-03  0.0065
   1.4492E+00   1.4845E+00   1.3468E-03  0.0065
   1.4845E+00   1.5206E+00   1.3709E-03  0.0063
   1.5206E+00   1.5576E+00   1.3444E-03  0.0063
   1.5576E+00   1.5955E+00   1.3233E-03  0.0063
   1.5955E+00   1.6343E+00   1.3234E-03  0.0062
   1.6343E+00   1.6741E+00   1.3002E-03  0.0062
   1.6741E+00   1.7148E+00   1.2815E-03  0.0062
   1.7148E+00   1.7565E+00   1.2746E-03  0.0061
   1.7565E+00   1.7992E+00   1.2781E-03  0.0060
   1.7992E+00   1.8430E+00   1.2635E-03  0.0060
   1.8430E+00   1.8879E+00   1.2565E-03  0.0059
   1.8879E+00   1.9338E+00   1.2549E-03  0.0059
   1.9338E+00   1.9808E+00   1.2226E-03  0.0059
   1.9808E+00   2.0290E+00   1.2319E-03  0.0058
   2.0290E+00   2.0784E+00   1.2134E-03  0.0058
   2.0784E+00   2.1290E+00   1.1810E-03  0.0058
   2.1290E+00   2.1808E+00   1.1765E-03  0.0057
   2.1808E+00   2.2338E+00   1.1674E-03  0.0057
   2.2338E+00   2.2882E+00   1.1521E-03  0.0056
   2.2882E+00   2.3439E+00   1.1273E-03  0.0056
   2.3439E+00   2.4009E+00   1.1234E-03  0.0056
   2.4009E+00   2.4593E+00   1.1137E-03  0.0055
   2.4593E+00   2.5191E+00   1.0862E-03  0.0055
   2.5191E+00   2.5804E+00   1.0748E-03  0.0055
   2.5804E+00   2.6432E+00   1.0579E-03  0.0055
   2.6432E+00   2.7075E+00   1.0528E-03  0.0054
   2.7075E+00   2.7734E+00   1.0158E-03  0.0054
   2.7734E+00   2.8409E+00   1.0037E-03  0.0054
   2.8409E+00   2.9100E+00   1.0045E-03  0.0053
   2.9100E+00   2.9808E+00   9.8755E-04  0.0053
   2.9808E+00   3.0533E+00   9.7189E-04  0.0053
   3.0533E+00   3.1276E+00   9.5104E-04  0.0053
   3.1276E+00   3.2037E+00   9.5166E-04  0.0052
   3.2037E+00   3.2817E+00   9.2710E-04  0.0052
   3.2817E+00   3.3615E+00   9.2013E-04  0.0052
   3.3615E+00   3.4433E+00   9.0218E-04  0.0052
   3.4433E+00   3.5271E+00   8.8676E-04  0.0052
   3.5271E+00   3.6129E+00   8.7284E-04  0.0051
   3.6129E+00   3.7008E+00   8.5817E-04  0.0051
   3.7008E+00   3.7908E+00   8.3394E-04  0.0051
   3.7908E+00   3.8831E+00   8.2625E-04  0.0051
   3.8831E+00   3.9776E+00   8.2076E-04  0.0051
   3.9776E+00   4.0743E+00   8.0491E-04  0.0050
   4.0743E+00   4.1735E+00   7.9191E-04  0.0050
   4.1735E+00   4.2750E+00   7.8472E-04  0.0050
   4.2750E+00   4.3790E+00   7.7836E-04  0.0049
   4.3790E+00   4.4856E+00   7.7371E-04  0.0049
   4.4856E+00   4.5947E+00   7.7806E-04  0.0048
   4.5947E+00   4.7065E+00   7.8339E-04  0.0048
   4.7065E+00   4.8210E+00   7.9040E-04  0.0047
   4.8210E+00   4.9383E+00   8.0018E-04  0.0046
   4.9383E+00   5.0585E+00   7.9066E-04  0.0046
   5.0585E+00   5.1815E+00   7.8140E-04  0.0045
   5.1815E+00   5.3076E+00   7.8433E-04  0.0045
   5.3076E+00   5.4368E+00   7.7558E-04  0.0045
   5.4368E+00   5.5690E+00   7.6177E-04  0.0044
   5.5690E+00   5.7045E+00   7.5185E-04  0.0044
   5.7045E+00   5.8433E+00   7.4257E-04  0.0044
   5.8433E+00   5.9855E+00   7.2941E-04  0.0044
   5.9855E+00   6.1311E+00   7.2142E-04  0.0043
   6.1311E+00   6.2803E+00   7.1696E-04  0.0043
   6.2803E+00   6.4331E+00   7.0642E-04  0.0043
   6.4331E+00   6.5896E+00   7.0645E-04  0.0042
   6.5896E+00   6.7500E+00   6.9569E-04  0.0042
   6.7500E+00   6.9142E+00   6.8162E-04  0.0042
   6.9142E+00   7.0824E+00   6.8149E-04  0.0042
   7.0824E+00   7.2548E+00   6.7661E-04  0.0041
   7.2548E+00   7.4313E+00   6.8379E-04  0.0041
   7.4313E+00   7.6121E+00   6.7006E-04  0.0041
   7.6121E+00   7.7973E+00   6.6407E-04  0.0040
   7.7973E+00   7.9870E+00   6.5781E-04  0.0040
   7.9870E+00   8.1813E+00   6.5146E-04  0.0040
   8.1813E+00   8.3804E+00   6.4380E-04  0.0039
   8.3804E+00   8.5843E+00   6.3678E-04  0.0039
   8.5843E+00   8.7931E+00   6.3272E-04  0.0039
   8.7931E+00   9.0071E+00   6.2780E-04  0.0039
   9.0071E+00   9.2262E+00   6.2147E-04  0.0038
   9.2262E+00   9.4507E+00   6.1127E-04  0.0038
   9.4507E+00   9.6807E+00   6.0770E-04  0.0038
   9.6807E+00   9.9162E+00   6.0346E-04  0.0037
   9.9162E+00   1.0157E+01   5.9487E-04  0.0037
   1.0157E+01   1.0405E+01   5.9219E-04  0.0037
   1.0405E+01   1.0658E+01   5.9029E-04  0.0037
   1.0658E+01   1.0917E+01   5.8821E-04  0.0036
   1.0917E+01   1.1183E+01   5.8299E-04  0.0036
   1.1183E+01   1.1455E+01   5.7716E-04  0.0036
   1.1455E+01   1.1733E+01   5.7132E-04  0.0035
   1.1733E+01   1.2019E+01   5.7020E-04  0.0035
   1.2019E+01   1.2311E+01   5.6351E-04  0.0035
   1.2311E+01   1.2611E+01   5.5373E-04  0.0035
   1.2611E+01   1.2918E+01   5.4650E-04  0.0035
   1.2918E+01   1.3232E+01   5.4544E-04  0.0034
   1.3232E+01   1.3554E+01   5.3771E-04  0.0034
   1.3554E+01   1.3884E+01   5.3310E-04  0.0034
   1.3884E+01   1.4222E+01   5.2742E-04  0.0034
   1.4222E+01   1.4568E+01   5.2470E-04  0.0033
   1.4568E+01   1.4922E+01   5.1487E-04  0.0033
   1.4922E+01   1.5285E+01   5.1172E-04  0.0033
   1.5285E+01   1.5657E+01   5.0348E-04  0.0033
   1.5657E+01   1.6038E+01   4.9930E-04  0.0032
   1.6038E+01   1.6428E+01   4.9452E-04  0.0032
   1.6428E+01   1.6828E+01   4.8552E-04  0.0032
   1.6828E+01   1.7237E+01   4.8130E-04  0.0032
   1.7237E+01   1.7657E+01   4.7606E-04  0.0032
   1.7657E+01   1.8086E+01   4.7174E-04  0.0031
   1.8086E+01   1.8526E+01   4.6409E-04  0.0031
   1.8526E+01   1.8977E+01   4.5892E-04  0.0031
   1.8977E+01   1.9439E+01   4.6009E-04  0.0031
   1.9439E+01   1.9912E+01   4.6066E-04  0.0030
   1.9912E+01   2.0396E+01   4.6019E-04  0.0030
   2.0396E+01   2.0893E+01   4.5597E-04  0.0030
   2.0893E+01   2.1401E+01   4.5129E-04  0.0030
   2.1401E+01   2.1922E+01   4.4349E-04  0.0029
   2.1922E+01   2.2455E+01   4.3828E-04  0.0029
   2.2455E+01   2.3001E+01   4.3051E-04  0.0029
   2.3001E+01   2.3561E+01   4.2190E-04  0.0029
   2.3561E+01   2.4134E+01   4.0976E-04  0.0029
   2.4134E+01   2.4721E+01   4.0630E-04  0.0029
   2.4721E+01   2.5323E+01   3.9817E-04  0.0029
   2.5323E+01   2.5939E+01   3.8741E-04  0.0029
   2.5939E+01   2.6570E+01   3.8163E-04  0.0029
   2.6570E+01   2.7217E+01   3.7051E-04  0.0029
   2.7217E+01   2.7879E+01   3.6029E-04  0.0029
   2.7879E+01   2.8557E+01   3.4914E-04  0.0029
   2.8557E+01   2.9252E+01   3.4171E-04  0.0029
   2.9252E+01   2.9964E+01   3.3093E-04  0.0029
   2.9964E+01   3.0693E+01   3.2014E-04  0.0029
   3.0693E+01   3.1440E+01   3.1043E-04  0.0029
   3.1440E+01   3.2205E+01   2.9998E-04  0.0030
   3.2205E+01   3.2988E+01   2.8633E-04  0.0030
   3.2988E+01   3.3791E+01   2.7609E-04  0.0030
   3.3791E+01   3.4613E+01   2.6361E-04  0.0030
   3.4613E+01   3.5455E+01   2.5257E-04  0.0031
   3.5455E+01   3.6318E+01   2.4078E-04  0.0031
   3.6318E+01   3.7201E+01   2.2909E-04  0.0031
   3.7201E+01   3.8106E+01   2.1688E-04  0.0032
   3.8106E+01   3.9034E+01   2.0482E-04  0.0032
   3.9034E+01   3.9983E+01   1.9416E-04  0.0033
   3.9983E+01   4.0956E+01   1.8242E-04  0.0034
   4.0956E+01   4.1953E+01   1.7314E-04  0.0034
   4.1953E+01   4.2973E+01   1.6086E-04  0.0035
   4.2973E+01   4.4019E+01   1.5095E-04  0.0036
   4.4019E+01   4.5090E+01   1.4195E-04  0.0036
   4.5090E+01   4.6187E+01   1.3109E-04  0.0037
   4.6187E+01   4.7311E+01   1.2224E-04  0.0038
   4.7311E+01   4.8462E+01   1.1113E-04  0.0040
   4.8462E+01   4.9641E+01   1.0281E-04  0.0041
   4.9641E+01   5.0849E+01   9.5121E-05  0.0042
   5.0849E+01   5.2086E+01   8.7731E-05  0.0043
   5.2086E+01   5.3353E+01   8.0078E-05  0.0044
   5.3353E+01   5.4651E+01   7.3592E-05  0.0046
   5.4651E+01   5.5981E+01   6.6796E-05  0.0047
   5.5981E+01   5.7343E+01   6.1100E-05  0.0049
   5.7343E+01   5.8738E+01   5.6255E-05  0.0050
   5.8738E+01   6.0168E+01   5.1099E-05  0.0052
   6.0168E+01   6.1632E+01   4.5980E-05  0.0055
   6.1632E+01   6.3131E+01   4.1922E-05  0.0056
   6.3131E+01   6.4667E+01   3.8158E-05  0.0058
   6.4667E+01   6.6240E+01   3.4309E-05  0.0061
   6.6240E+01   6.7852E+01   3.1143E-05  0.0063
   6.7852E+01   6.9503E+01   2.7761E-05  0.0066
   6.9503E+01   7.1194E+01   2.5455E-05  0.0068
   7.1194E+01   7.2926E+01   2.2714E-05  0.0071
   7.2926E+01   7.4701E+01   2.0418E-05  0.0074
   7.4701E+01   7.6518E+01   1.8446E-05  0.0077
   7.6518E+01   7.8380E+01   1.6641E-05  0.0080
   7.8380E+01   8.0287E+01   1.4931E-05  0.0084
   8.0287E+01   8.2240E+01   1.3287E-05  0.0088
   8.2240E+01   8.4241E+01   1.1874E-05  0.0092
   8.4241E+01   8.6291E+01   1.0506E-05  0.0096
   8.6291E+01   8.8391E+01   9.3564E-06  0.0101
   8.8391E+01   9.0541E+01   8.2330E-06  0.0106
   9.0541E+01   9.2744E+01   7.2122E-06  0.0112
   9.2744E+01   9.5001E+01   6.1262E-06  0.0120
   9.5001E+01   9.7312E+01   5.3707E-06  0.0127
   9.7312E+01   9.9680E+01   4.5344E-06  0.0136
   9.9680E+01   1.0211E+02   3.8156E-06  0.0147
   1.0211E+02   1.0459E+02   3.1840E-06  0.0159
   1.0459E+02   1.0713E+02   2.5480E-06  0.0176
   1.0713E+02   1.0974E+02   2.0333E-06  0.0194
   1.0974E+02   1.1241E+02   1.6037E-06  0.0216
   1.1241E+02   1.1515E+02   1.3272E-06  0.0235
   1.1515E+02   1.1795E+02   9.9158E-07  0.0268
   1.1795E+02   1.2082E+02   4.9203E-07  0.0376
   1.2082E+02   1.2376E+02   1.3199E-07  0.0718
   1.2376E+02   1.2677E+02   1.3284E-09  0.7071
   1.2677E+02   1.2985E+02   0.0000E+00  0.0000
   1.2985E+02   1.3301E+02   0.0000E+00  0.0000
   1.3301E+02   1.3625E+02   0.0000E+00  0.0000
   1.3625E+02   1.3956E+02   0.0000E+00  0.0000
   1.3956E+02   1.4296E+02   0.0000E+00  0.0000
   1.4296E+02   1.4644E+02   0.0000E+00  0.0000
   1.4644E+02   1.5000E+02   0.0000E+00  0.0000

#   sum over                 1.5319E-04
'no. =    1   reg = 108 - 208'
msuc: {\huge [t-cross] in region mesh}
msdr: {\it plotted by \ANGEL \version}
msdl: {\it calculated by \PHITS  3.26}
wt: s(0.7)
\vspace{-3}
  region surface crossing
  area  &=&   1.0000E+00 [cm^2]
e:
 
# Information for Restart Calculation
# This calculation was newly started
# istdev =  2 # 1:Batch variance, 2:History variance
# resc2  = 5.00000000000000000E+08 # Total source weight or Total source weight / maxcas
# resc3  = 5.00000000000000000E+08 # Total history number or Total batch number
# maxcas =   500000000 # History / Batch, only used for istdev=1
# bitrseed = 1101101111010011011000101101110001100110110010110001010100010001 # bit data of rseed
