[ T-Cross ]
    title = [t-cross] in region mesh
     mesh =  reg            # mesh type is region-wise
      reg =    1            # number of crossing regions
      non     r-from    r-to       area
      1       118       218        1.000000    
   e-type =    3            # e-mesh is log given by emin, emax and ne
     emin =  1.0000000E-02  # minimum value of e-mesh points
     emax =   150.0000      # maximum value of e-mesh points
#    edel =  2.4039514E-02  # mesh width of e-mesh points
       ne =    400          # number of e-mesh points
#    data = ( e(i), i = 1, ne + 1 )
#           1.00000E-02  1.02433E-02  1.04925E-02  1.07478E-02  1.10093E-02
#           1.12772E-02  1.15516E-02  1.18326E-02  1.21205E-02  1.24154E-02
#           1.27175E-02  1.30269E-02  1.33439E-02  1.36686E-02  1.40011E-02
#           1.43418E-02  1.46907E-02  1.50482E-02  1.54143E-02  1.57894E-02
#           1.61735E-02  1.65670E-02  1.69701E-02  1.73830E-02  1.78060E-02
#           1.82392E-02  1.86830E-02  1.91375E-02  1.96032E-02  2.00801E-02
#           2.05687E-02  2.10692E-02  2.15818E-02  2.21069E-02  2.26448E-02
#           2.31957E-02  2.37601E-02  2.43382E-02  2.49304E-02  2.55369E-02
#           2.61583E-02  2.67947E-02  2.74467E-02  2.81145E-02  2.87985E-02
#           2.94992E-02  3.02169E-02  3.09521E-02  3.17052E-02  3.24766E-02
#           3.32668E-02  3.40762E-02  3.49053E-02  3.57546E-02  3.66246E-02
#           3.75157E-02  3.84284E-02  3.93634E-02  4.03212E-02  4.13022E-02
#           4.23071E-02  4.33365E-02  4.43909E-02  4.54710E-02  4.65773E-02
#           4.77106E-02  4.88714E-02  5.00605E-02  5.12785E-02  5.25262E-02
#           5.38042E-02  5.51133E-02  5.64542E-02  5.78278E-02  5.92348E-02
#           6.06760E-02  6.21523E-02  6.36645E-02  6.52135E-02  6.68002E-02
#           6.84255E-02  7.00904E-02  7.17957E-02  7.35426E-02  7.53319E-02
#           7.71648E-02  7.90423E-02  8.09655E-02  8.29354E-02  8.49533E-02
#           8.70203E-02  8.91376E-02  9.13064E-02  9.35279E-02  9.58035E-02
#           9.81345E-02  1.00522E-01  1.02968E-01  1.05473E-01  1.08040E-01
#           1.10668E-01  1.13361E-01  1.16119E-01  1.18944E-01  1.21838E-01
#           1.24803E-01  1.27839E-01  1.30950E-01  1.34136E-01  1.37399E-01
#           1.40742E-01  1.44167E-01  1.47675E-01  1.51268E-01  1.54948E-01
#           1.58718E-01  1.62580E-01  1.66535E-01  1.70587E-01  1.74738E-01
#           1.78989E-01  1.83344E-01  1.87805E-01  1.92375E-01  1.97055E-01
#           2.01850E-01  2.06761E-01  2.11792E-01  2.16945E-01  2.22223E-01
#           2.27630E-01  2.33169E-01  2.38842E-01  2.44653E-01  2.50605E-01
#           2.56703E-01  2.62949E-01  2.69346E-01  2.75900E-01  2.82613E-01
#           2.89489E-01  2.96532E-01  3.03747E-01  3.11138E-01  3.18708E-01
#           3.26462E-01  3.34405E-01  3.42542E-01  3.50876E-01  3.59413E-01
#           3.68158E-01  3.77116E-01  3.86291E-01  3.95690E-01  4.05317E-01
#           4.15179E-01  4.25281E-01  4.35628E-01  4.46227E-01  4.57084E-01
#           4.68205E-01  4.79597E-01  4.91266E-01  5.03219E-01  5.15463E-01
#           5.28005E-01  5.40851E-01  5.54011E-01  5.67490E-01  5.81298E-01
#           5.95441E-01  6.09929E-01  6.24769E-01  6.39970E-01  6.55541E-01
#           6.71491E-01  6.87828E-01  7.04564E-01  7.21706E-01  7.39266E-01
#           7.57253E-01  7.75678E-01  7.94551E-01  8.13883E-01  8.33685E-01
#           8.53969E-01  8.74747E-01  8.96030E-01  9.17831E-01  9.40163E-01
#           9.63038E-01  9.86469E-01  1.01047E+00  1.03506E+00  1.06024E+00
#           1.08604E+00  1.11246E+00  1.13953E+00  1.16725E+00  1.19565E+00
#           1.22474E+00  1.25454E+00  1.28507E+00  1.31633E+00  1.34836E+00
#           1.38117E+00  1.41477E+00  1.44920E+00  1.48446E+00  1.52057E+00
#           1.55757E+00  1.59547E+00  1.63429E+00  1.67405E+00  1.71478E+00
#           1.75650E+00  1.79924E+00  1.84302E+00  1.88786E+00  1.93379E+00
#           1.98084E+00  2.02904E+00  2.07841E+00  2.12898E+00  2.18078E+00
#           2.23384E+00  2.28819E+00  2.34386E+00  2.40089E+00  2.45930E+00
#           2.51914E+00  2.58043E+00  2.64322E+00  2.70753E+00  2.77341E+00
#           2.84088E+00  2.91001E+00  2.98081E+00  3.05333E+00  3.12762E+00
#           3.20372E+00  3.28167E+00  3.36152E+00  3.44330E+00  3.52708E+00
#           3.61290E+00  3.70080E+00  3.79085E+00  3.88308E+00  3.97756E+00
#           4.07434E+00  4.17347E+00  4.27501E+00  4.37903E+00  4.48557E+00
#           4.59471E+00  4.70650E+00  4.82102E+00  4.93832E+00  5.05847E+00
#           5.18155E+00  5.30762E+00  5.43676E+00  5.56904E+00  5.70453E+00
#           5.84333E+00  5.98550E+00  6.13114E+00  6.28031E+00  6.43312E+00
#           6.58964E+00  6.74997E+00  6.91420E+00  7.08243E+00  7.25475E+00
#           7.43126E+00  7.61207E+00  7.79728E+00  7.98700E+00  8.18133E+00
#           8.38038E+00  8.58428E+00  8.79315E+00  9.00709E+00  9.22624E+00
#           9.45072E+00  9.68067E+00  9.91620E+00  1.01575E+01  1.04046E+01
#           1.06578E+01  1.09171E+01  1.11827E+01  1.14548E+01  1.17335E+01
#           1.20190E+01  1.23114E+01  1.26109E+01  1.29178E+01  1.32321E+01
#           1.35540E+01  1.38838E+01  1.42216E+01  1.45676E+01  1.49221E+01
#           1.52851E+01  1.56570E+01  1.60380E+01  1.64282E+01  1.68279E+01
#           1.72374E+01  1.76568E+01  1.80864E+01  1.85264E+01  1.89772E+01
#           1.94389E+01  1.99119E+01  2.03963E+01  2.08926E+01  2.14009E+01
#           2.19216E+01  2.24550E+01  2.30014E+01  2.35610E+01  2.41343E+01
#           2.47215E+01  2.53230E+01  2.59391E+01  2.65702E+01  2.72167E+01
#           2.78789E+01  2.85572E+01  2.92520E+01  2.99637E+01  3.06928E+01
#           3.14396E+01  3.22045E+01  3.29881E+01  3.37907E+01  3.46128E+01
#           3.54550E+01  3.63177E+01  3.72013E+01  3.81064E+01  3.90336E+01
#           3.99833E+01  4.09561E+01  4.19526E+01  4.29734E+01  4.40189E+01
#           4.50900E+01  4.61870E+01  4.73108E+01  4.84619E+01  4.96410E+01
#           5.08488E+01  5.20860E+01  5.33533E+01  5.46514E+01  5.59812E+01
#           5.73432E+01  5.87384E+01  6.01676E+01  6.16315E+01  6.31311E+01
#           6.46671E+01  6.62405E+01  6.78522E+01  6.95031E+01  7.11941E+01
#           7.29263E+01  7.47007E+01  7.65182E+01  7.83800E+01  8.02870E+01
#           8.22405E+01  8.42414E+01  8.62911E+01  8.83906E+01  9.05412E+01
#           9.27442E+01  9.50007E+01  9.73122E+01  9.96799E+01  1.02105E+02
#           1.04589E+02  1.07134E+02  1.09741E+02  1.12411E+02  1.15146E+02
#           1.17948E+02  1.20817E+02  1.23757E+02  1.26768E+02  1.29852E+02
#           1.33012E+02  1.36248E+02  1.39563E+02  1.42959E+02  1.46437E+02
#           1.50000E+02
     unit =    2            # unit is [1/cm^2/(MeV/n)/source]
     axis =  eng            # axis of output
     file = detector-19.out  # file name of output for the above axis
   output = f-curr          # surface crossing forward current spectrum
     part =  neutron  
# kf/name :  2112     
#    used :        main (  %)        temp (  %)       total (  %)
#  memory :         414 (  0)           0 (  0)         414 (  0)

#------------------------------------------------------------------------------
#newpage:
#   no. =    1   reg = 118 - 218

x: Energy [MeV/n]
y:  F-Curr [1/cm^2/(MeV/n)/source]         
p: xlog ylog afac(0.8) form(0.9)
h: n            x            y(neutron ),hh0l   n 
#  e-lower      e-upper      neutron     r.err 
   1.0000E-02   1.0243E-02   4.3340E-03  0.0435
   1.0243E-02   1.0493E-02   4.4612E-03  0.0423
   1.0493E-02   1.0748E-02   4.3132E-03  0.0426
   1.0748E-02   1.1009E-02   4.3514E-03  0.0418
   1.1009E-02   1.1277E-02   4.3340E-03  0.0414
   1.1277E-02   1.1552E-02   4.1550E-03  0.0418
   1.1552E-02   1.1833E-02   4.2045E-03  0.0410
   1.1833E-02   1.2121E-02   3.9810E-03  0.0417
   1.2121E-02   1.2415E-02   4.1363E-03  0.0404
   1.2415E-02   1.2718E-02   3.9678E-03  0.0407
   1.2718E-02   1.3027E-02   4.0913E-03  0.0397
   1.3027E-02   1.3344E-02   3.8128E-03  0.0406
   1.3344E-02   1.3669E-02   3.5312E-03  0.0417
   1.3669E-02   1.4001E-02   3.9627E-03  0.0389
   1.4001E-02   1.4342E-02   3.5834E-03  0.0404
   1.4342E-02   1.4691E-02   3.5735E-03  0.0400
   1.4691E-02   1.5048E-02   3.7183E-03  0.0387
   1.5048E-02   1.5414E-02   3.5386E-03  0.0392
   1.5414E-02   1.5789E-02   3.5266E-03  0.0388
   1.5789E-02   1.6174E-02   3.1737E-03  0.0404
   1.6174E-02   1.6567E-02   3.3736E-03  0.0388
   1.6567E-02   1.6970E-02   3.2525E-03  0.0390
   1.6970E-02   1.7383E-02   3.0846E-03  0.0395
   1.7383E-02   1.7806E-02   3.1421E-03  0.0387
   1.7806E-02   1.8239E-02   3.2537E-03  0.0376
   1.8239E-02   1.8683E-02   3.0278E-03  0.0385
   1.8683E-02   1.9138E-02   2.9199E-03  0.0388
   1.9138E-02   1.9603E-02   2.8438E-03  0.0388
   1.9603E-02   2.0080E-02   2.8999E-03  0.0380
   2.0080E-02   2.0569E-02   2.9361E-03  0.0373
   2.0569E-02   2.1069E-02   2.8370E-03  0.0375
   2.1069E-02   2.1582E-02   2.7421E-03  0.0376
   2.1582E-02   2.2107E-02   2.8384E-03  0.0366
   2.2107E-02   2.2645E-02   2.7317E-03  0.0368
   2.2645E-02   2.3196E-02   2.6221E-03  0.0371
   2.3196E-02   2.3760E-02   2.4790E-03  0.0377
   2.3760E-02   2.4338E-02   2.6865E-03  0.0358
   2.4338E-02   2.4930E-02   2.5394E-03  0.0364
   2.4930E-02   2.5537E-02   2.4384E-03  0.0367
   2.5537E-02   2.6158E-02   2.4826E-03  0.0360
   2.6158E-02   2.6795E-02   2.3514E-03  0.0365
   2.6795E-02   2.7447E-02   2.4525E-03  0.0353
   2.7447E-02   2.8114E-02   2.2680E-03  0.0363
   2.8114E-02   2.8799E-02   2.2876E-03  0.0357
   2.8799E-02   2.9499E-02   2.1189E-03  0.0366
   2.9499E-02   3.0217E-02   2.2696E-03  0.0350
   3.0217E-02   3.0952E-02   2.1013E-03  0.0359
   3.0952E-02   3.1705E-02   1.9590E-03  0.0368
   3.1705E-02   3.2477E-02   2.0187E-03  0.0358
   3.2477E-02   3.3267E-02   2.0761E-03  0.0349
   3.3267E-02   3.4076E-02   2.1230E-03  0.0341
   3.4076E-02   3.4905E-02   1.9198E-03  0.0354
   3.4905E-02   3.5755E-02   1.9892E-03  0.0343
   3.5755E-02   3.6625E-02   2.0081E-03  0.0338
   3.6625E-02   3.7516E-02   1.8507E-03  0.0347
   3.7516E-02   3.8428E-02   1.6817E-03  0.0360
   3.8428E-02   3.9363E-02   1.8231E-03  0.0342
   3.9363E-02   4.0321E-02   1.7406E-03  0.0346
   4.0321E-02   4.1302E-02   1.6742E-03  0.0349
   4.1302E-02   4.2307E-02   1.7002E-03  0.0341
   4.2307E-02   4.3337E-02   1.6639E-03  0.0341
   4.3337E-02   4.4391E-02   1.7275E-03  0.0331
   4.4391E-02   4.5471E-02   1.6794E-03  0.0331
   4.5471E-02   4.6577E-02   1.6918E-03  0.0327
   4.6577E-02   4.7711E-02   1.4763E-03  0.0345
   4.7711E-02   4.8871E-02   1.5381E-03  0.0334
   4.8871E-02   5.0061E-02   1.4862E-03  0.0335
   5.0061E-02   5.1279E-02   1.4627E-03  0.0334
   5.1279E-02   5.2526E-02   1.5269E-03  0.0323
   5.2526E-02   5.3804E-02   1.4597E-03  0.0327
   5.3804E-02   5.5113E-02   1.3203E-03  0.0339
   5.5113E-02   5.6454E-02   1.3643E-03  0.0330
   5.6454E-02   5.7828E-02   1.2373E-03  0.0342
   5.7828E-02   5.9235E-02   1.3898E-03  0.0319
   5.9235E-02   6.0676E-02   1.2968E-03  0.0326
   6.0676E-02   6.2152E-02   1.2896E-03  0.0323
   6.2152E-02   6.3665E-02   1.2516E-03  0.0324
   6.3665E-02   6.5214E-02   1.1717E-03  0.0332
   6.5214E-02   6.6800E-02   1.1865E-03  0.0325
   6.6800E-02   6.8426E-02   1.1432E-03  0.0327
   6.8426E-02   7.0090E-02   1.1678E-03  0.0321
   7.0090E-02   7.1796E-02   1.1792E-03  0.0315
   7.1796E-02   7.3543E-02   1.1640E-03  0.0313
   7.3543E-02   7.5332E-02   1.0984E-03  0.0319
   7.5332E-02   7.7165E-02   1.0628E-03  0.0320
   7.7165E-02   7.9042E-02   1.1276E-03  0.0307
   7.9042E-02   8.0965E-02   1.0649E-03  0.0312
   8.0965E-02   8.2935E-02   9.9973E-04  0.0318
   8.2935E-02   8.4953E-02   1.0201E-03  0.0311
   8.4953E-02   8.7020E-02   1.0015E-03  0.0310
   8.7020E-02   8.9138E-02   9.7603E-04  0.0311
   8.9138E-02   9.1306E-02   9.8615E-04  0.0305
   9.1306E-02   9.3528E-02   8.6244E-04  0.0322
   9.3528E-02   9.5804E-02   9.5750E-04  0.0302
   9.5804E-02   9.8134E-02   8.9000E-04  0.0310
   9.8134E-02   1.0052E-01   8.7567E-04  0.0308
   1.0052E-01   1.0297E-01   8.5620E-04  0.0308
   1.0297E-01   1.0547E-01   8.3990E-04  0.0308
   1.0547E-01   1.0804E-01   8.0466E-04  0.0311
   1.0804E-01   1.1067E-01   7.8650E-04  0.0311
   1.1067E-01   1.1336E-01   8.1661E-04  0.0301
   1.1336E-01   1.1612E-01   7.3528E-04  0.0313
   1.1612E-01   1.1894E-01   7.8445E-04  0.0300
   1.1894E-01   1.2184E-01   7.0862E-04  0.0312
   1.2184E-01   1.2480E-01   7.3860E-04  0.0302
   1.2480E-01   1.2784E-01   7.2002E-04  0.0302
   1.2784E-01   1.3095E-01   6.8373E-04  0.0306
   1.3095E-01   1.3414E-01   6.7992E-04  0.0303
   1.3414E-01   1.3740E-01   6.4688E-04  0.0307
   1.3740E-01   1.4074E-01   6.2925E-04  0.0308
   1.4074E-01   1.4417E-01   6.1469E-04  0.0308
   1.4417E-01   1.4767E-01   6.0936E-04  0.0305
   1.4767E-01   1.5127E-01   5.9090E-04  0.0306
   1.5127E-01   1.5495E-01   5.8764E-04  0.0304
   1.5495E-01   1.5872E-01   5.4838E-04  0.0310
   1.5872E-01   1.6258E-01   5.3883E-04  0.0309
   1.6258E-01   1.6654E-01   5.5710E-04  0.0301
   1.6654E-01   1.7059E-01   5.2372E-04  0.0306
   1.7059E-01   1.7474E-01   5.0764E-04  0.0307
   1.7474E-01   1.7899E-01   5.0054E-04  0.0306
   1.7899E-01   1.8334E-01   5.1414E-04  0.0298
   1.8334E-01   1.8781E-01   4.9242E-04  0.0301
   1.8781E-01   1.9237E-01   5.0586E-04  0.0293
   1.9237E-01   1.9706E-01   4.5296E-04  0.0307
   1.9706E-01   2.0185E-01   4.5152E-04  0.0303
   2.0185E-01   2.0676E-01   4.6835E-04  0.0294
   2.0676E-01   2.1179E-01   4.6084E-04  0.0293
   2.1179E-01   2.1694E-01   4.4805E-04  0.0294
   2.1694E-01   2.2222E-01   4.9574E-04  0.0276
   2.2222E-01   2.2763E-01   4.9406E-04  0.0273
   2.2763E-01   2.3317E-01   5.1781E-04  0.0264
   2.3317E-01   2.3884E-01   5.2032E-04  0.0260
   2.3884E-01   2.4465E-01   5.2296E-04  0.0256
   2.4465E-01   2.5061E-01   5.5644E-04  0.0245
   2.5061E-01   2.5670E-01   5.5632E-04  0.0242
   2.5670E-01   2.6295E-01   5.5988E-04  0.0239
   2.6295E-01   2.6935E-01   5.8453E-04  0.0231
   2.6935E-01   2.7590E-01   5.9683E-04  0.0226
   2.7590E-01   2.8261E-01   5.8158E-04  0.0226
   2.8261E-01   2.8949E-01   6.1418E-04  0.0217
   2.8949E-01   2.9653E-01   6.1288E-04  0.0215
   2.9653E-01   3.0375E-01   6.5216E-04  0.0206
   3.0375E-01   3.1114E-01   6.5975E-04  0.0202
   3.1114E-01   3.1871E-01   6.4714E-04  0.0202
   3.1871E-01   3.2646E-01   6.4648E-04  0.0199
   3.2646E-01   3.3441E-01   6.7224E-04  0.0193
   3.3441E-01   3.4254E-01   6.9763E-04  0.0187
   3.4254E-01   3.5088E-01   6.9672E-04  0.0185
   3.5088E-01   3.5941E-01   7.0307E-04  0.0182
   3.5941E-01   3.6816E-01   6.9975E-04  0.0180
   3.6816E-01   3.7712E-01   7.1206E-04  0.0177
   3.7712E-01   3.8629E-01   7.4223E-04  0.0171
   3.8629E-01   3.9569E-01   7.2650E-04  0.0171
   3.9569E-01   4.0532E-01   7.3522E-04  0.0168
   4.0532E-01   4.1518E-01   7.4758E-04  0.0164
   4.1518E-01   4.2528E-01   7.5409E-04  0.0162
   4.2528E-01   4.3563E-01   7.7622E-04  0.0157
   4.3563E-01   4.4623E-01   7.7865E-04  0.0155
   4.4623E-01   4.5708E-01   7.6715E-04  0.0155
   4.5708E-01   4.6821E-01   7.6628E-04  0.0153
   4.6821E-01   4.7960E-01   7.7867E-04  0.0150
   4.7960E-01   4.9127E-01   7.7758E-04  0.0148
   4.9127E-01   5.0322E-01   7.9766E-04  0.0144
   5.0322E-01   5.1546E-01   7.9031E-04  0.0143
   5.1546E-01   5.2800E-01   7.9679E-04  0.0141
   5.2800E-01   5.4085E-01   8.1062E-04  0.0138
   5.4085E-01   5.5401E-01   8.0845E-04  0.0137
   5.5401E-01   5.6749E-01   8.1268E-04  0.0135
   5.6749E-01   5.8130E-01   7.9964E-04  0.0134
   5.8130E-01   5.9544E-01   8.0659E-04  0.0132
   5.9544E-01   6.0993E-01   8.3254E-04  0.0128
   6.0993E-01   6.2477E-01   8.3936E-04  0.0126
   6.2477E-01   6.3997E-01   8.1122E-04  0.0127
   6.3997E-01   6.5554E-01   8.1395E-04  0.0125
   6.5554E-01   6.7149E-01   8.1121E-04  0.0124
   6.7149E-01   6.8783E-01   8.1325E-04  0.0122
   6.8783E-01   7.0456E-01   8.0856E-04  0.0121
   7.0456E-01   7.2171E-01   7.9770E-04  0.0121
   7.2171E-01   7.3927E-01   8.0946E-04  0.0118
   7.3927E-01   7.5725E-01   8.1002E-04  0.0117
   7.5725E-01   7.7568E-01   7.8702E-04  0.0117
   7.7568E-01   7.9455E-01   7.9529E-04  0.0115
   7.9455E-01   8.1388E-01   7.8809E-04  0.0114
   8.1388E-01   8.3368E-01   7.8912E-04  0.0113
   8.3368E-01   8.5397E-01   7.5576E-04  0.0114
   8.5397E-01   8.7475E-01   7.4840E-04  0.0113
   8.7475E-01   8.9603E-01   7.4775E-04  0.0112
   8.9603E-01   9.1783E-01   7.1703E-04  0.0113
   9.1783E-01   9.4016E-01   7.0680E-04  0.0112
   9.4016E-01   9.6304E-01   6.8843E-04  0.0112
   9.6304E-01   9.8647E-01   6.5813E-04  0.0114
   9.8647E-01   1.0105E+00   6.3787E-04  0.0114
   1.0105E+00   1.0351E+00   6.2951E-04  0.0113
   1.0351E+00   1.0602E+00   6.3544E-04  0.0111
   1.0602E+00   1.0860E+00   6.2646E-04  0.0111
   1.0860E+00   1.1125E+00   6.1702E-04  0.0110
   1.1125E+00   1.1395E+00   6.1307E-04  0.0109
   1.1395E+00   1.1673E+00   6.1520E-04  0.0108
   1.1673E+00   1.1957E+00   6.2343E-04  0.0106
   1.1957E+00   1.2247E+00   6.0830E-04  0.0106
   1.2247E+00   1.2545E+00   6.1952E-04  0.0104
   1.2545E+00   1.2851E+00   5.9340E-04  0.0105
   1.2851E+00   1.3163E+00   5.8959E-04  0.0104
   1.3163E+00   1.3484E+00   5.8039E-04  0.0103
   1.3484E+00   1.3812E+00   5.6844E-04  0.0103
   1.3812E+00   1.4148E+00   5.6821E-04  0.0102
   1.4148E+00   1.4492E+00   5.6789E-04  0.0101
   1.4492E+00   1.4845E+00   5.5315E-04  0.0101
   1.4845E+00   1.5206E+00   5.4401E-04  0.0100
   1.5206E+00   1.5576E+00   5.3743E-04  0.0100
   1.5576E+00   1.5955E+00   5.2176E-04  0.0100
   1.5955E+00   1.6343E+00   5.1374E-04  0.0100
   1.6343E+00   1.6741E+00   5.0895E-04  0.0099
   1.6741E+00   1.7148E+00   5.0245E-04  0.0098
   1.7148E+00   1.7565E+00   4.8856E-04  0.0099
   1.7565E+00   1.7992E+00   4.7438E-04  0.0099
   1.7992E+00   1.8430E+00   4.6591E-04  0.0099
   1.8430E+00   1.8879E+00   4.5032E-04  0.0099
   1.8879E+00   1.9338E+00   4.3659E-04  0.0099
   1.9338E+00   1.9808E+00   4.3502E-04  0.0098
   1.9808E+00   2.0290E+00   4.2354E-04  0.0099
   2.0290E+00   2.0784E+00   4.1479E-04  0.0098
   2.0784E+00   2.1290E+00   4.0571E-04  0.0098
   2.1290E+00   2.1808E+00   3.9026E-04  0.0099
   2.1808E+00   2.2338E+00   3.8464E-04  0.0098
   2.2338E+00   2.2882E+00   3.6839E-04  0.0099
   2.2882E+00   2.3439E+00   3.6234E-04  0.0099
   2.3439E+00   2.4009E+00   3.5122E-04  0.0099
   2.4009E+00   2.4593E+00   3.4386E-04  0.0099
   2.4593E+00   2.5191E+00   3.3120E-04  0.0100
   2.5191E+00   2.5804E+00   3.1407E-04  0.0101
   2.5804E+00   2.6432E+00   3.1532E-04  0.0100
   2.6432E+00   2.7075E+00   3.1279E-04  0.0099
   2.7075E+00   2.7734E+00   3.0115E-04  0.0100
   2.7734E+00   2.8409E+00   2.8834E-04  0.0101
   2.8409E+00   2.9100E+00   2.8171E-04  0.0101
   2.9100E+00   2.9808E+00   2.7355E-04  0.0101
   2.9808E+00   3.0533E+00   2.7193E-04  0.0100
   3.0533E+00   3.1276E+00   2.6499E-04  0.0100
   3.1276E+00   3.2037E+00   2.5279E-04  0.0101
   3.2037E+00   3.2817E+00   2.4259E-04  0.0102
   3.2817E+00   3.3615E+00   2.3311E-04  0.0103
   3.3615E+00   3.4433E+00   2.2245E-04  0.0104
   3.4433E+00   3.5271E+00   2.1923E-04  0.0104
   3.5271E+00   3.6129E+00   2.1071E-04  0.0105
   3.6129E+00   3.7008E+00   2.0710E-04  0.0104
   3.7008E+00   3.7908E+00   1.9736E-04  0.0106
   3.7908E+00   3.8831E+00   1.8937E-04  0.0106
   3.8831E+00   3.9776E+00   1.8510E-04  0.0106
   3.9776E+00   4.0743E+00   1.7948E-04  0.0107
   4.0743E+00   4.1735E+00   1.7154E-04  0.0108
   4.1735E+00   4.2750E+00   1.6531E-04  0.0109
   4.2750E+00   4.3790E+00   1.5923E-04  0.0109
   4.3790E+00   4.4856E+00   1.5268E-04  0.0110
   4.4856E+00   4.5947E+00   1.4672E-04  0.0111
   4.5947E+00   4.7065E+00   1.4469E-04  0.0111
   4.7065E+00   4.8210E+00   1.3426E-04  0.0113
   4.8210E+00   4.9383E+00   1.2911E-04  0.0114
   4.9383E+00   5.0585E+00   1.2023E-04  0.0117
   5.0585E+00   5.1815E+00   1.1747E-04  0.0117
   5.1815E+00   5.3076E+00   1.1269E-04  0.0118
   5.3076E+00   5.4368E+00   1.0704E-04  0.0120
   5.4368E+00   5.5690E+00   1.0422E-04  0.0120
   5.5690E+00   5.7045E+00   9.9302E-05  0.0121
   5.7045E+00   5.8433E+00   9.4611E-05  0.0123
   5.8433E+00   5.9855E+00   9.2381E-05  0.0123
   5.9855E+00   6.1311E+00   8.4404E-05  0.0127
   6.1311E+00   6.2803E+00   8.2602E-05  0.0127
   6.2803E+00   6.4331E+00   7.5780E-05  0.0131
   6.4331E+00   6.5896E+00   7.4062E-05  0.0131
   6.5896E+00   6.7500E+00   6.9644E-05  0.0133
   6.7500E+00   6.9142E+00   6.8350E-05  0.0133
   6.9142E+00   7.0824E+00   6.2528E-05  0.0138
   7.0824E+00   7.2548E+00   5.9103E-05  0.0140
   7.2548E+00   7.4313E+00   5.5837E-05  0.0142
   7.4313E+00   7.6121E+00   5.2436E-05  0.0145
   7.6121E+00   7.7973E+00   4.9124E-05  0.0148
   7.7973E+00   7.9870E+00   4.5385E-05  0.0152
   7.9870E+00   8.1813E+00   4.3240E-05  0.0154
   8.1813E+00   8.3804E+00   4.2067E-05  0.0154
   8.3804E+00   8.5843E+00   3.9015E-05  0.0158
   8.5843E+00   8.7931E+00   3.6801E-05  0.0161
   8.7931E+00   9.0071E+00   3.5287E-05  0.0162
   9.0071E+00   9.2262E+00   3.4453E-05  0.0162
   9.2262E+00   9.4507E+00   3.3190E-05  0.0163
   9.4507E+00   9.6807E+00   3.0198E-05  0.0169
   9.6807E+00   9.9162E+00   2.9920E-05  0.0168
   9.9162E+00   1.0157E+01   2.7724E-05  0.0173
   1.0157E+01   1.0405E+01   2.7159E-05  0.0172
   1.0405E+01   1.0658E+01   2.8130E-05  0.0167
   1.0658E+01   1.0917E+01   2.8194E-05  0.0165
   1.0917E+01   1.1183E+01   2.6440E-05  0.0169
   1.1183E+01   1.1455E+01   2.5542E-05  0.0169
   1.1455E+01   1.1733E+01   2.3760E-05  0.0174
   1.1733E+01   1.2019E+01   2.3174E-05  0.0174
   1.2019E+01   1.2311E+01   2.1526E-05  0.0178
   1.2311E+01   1.2611E+01   1.9314E-05  0.0186
   1.2611E+01   1.2918E+01   1.8402E-05  0.0188
   1.2918E+01   1.3232E+01   1.8418E-05  0.0186
   1.3232E+01   1.3554E+01   1.6902E-05  0.0192
   1.3554E+01   1.3884E+01   1.5792E-05  0.0196
   1.3884E+01   1.4222E+01   1.5987E-05  0.0192
   1.4222E+01   1.4568E+01   1.3811E-05  0.0204
   1.4568E+01   1.4922E+01   1.3104E-05  0.0207
   1.4922E+01   1.5285E+01   1.1968E-05  0.0214
   1.5285E+01   1.5657E+01   1.1001E-05  0.0221
   1.5657E+01   1.6038E+01   1.0063E-05  0.0228
   1.6038E+01   1.6428E+01   9.2805E-06  0.0235
   1.6428E+01   1.6828E+01   8.6109E-06  0.0241
   1.6828E+01   1.7237E+01   8.4816E-06  0.0240
   1.7237E+01   1.7657E+01   7.5077E-06  0.0252
   1.7657E+01   1.8086E+01   7.3517E-06  0.0252
   1.8086E+01   1.8526E+01   6.4645E-06  0.0265
   1.8526E+01   1.8977E+01   6.0919E-06  0.0270
   1.8977E+01   1.9439E+01   5.7306E-06  0.0275
   1.9439E+01   1.9912E+01   5.5749E-06  0.0275
   1.9912E+01   2.0396E+01   4.7454E-06  0.0295
   2.0396E+01   2.0893E+01   4.3002E-06  0.0306
   2.0893E+01   2.1401E+01   3.8754E-06  0.0319
   2.1401E+01   2.1922E+01   3.7334E-06  0.0321
   2.1922E+01   2.2455E+01   3.4648E-06  0.0329
   2.2455E+01   2.3001E+01   3.0054E-06  0.0349
   2.3001E+01   2.3561E+01   2.8268E-06  0.0356
   2.3561E+01   2.4134E+01   2.4212E-06  0.0380
   2.4134E+01   2.4721E+01   2.2003E-06  0.0393
   2.4721E+01   2.5323E+01   1.9684E-06  0.0411
   2.5323E+01   2.5939E+01   1.6717E-06  0.0441
   2.5939E+01   2.6570E+01   1.4387E-06  0.0469
   2.6570E+01   2.7217E+01   1.2963E-06  0.0489
   2.7217E+01   2.7879E+01   1.0450E-06  0.0538
   2.7879E+01   2.8557E+01   8.0199E-07  0.0606
   2.8557E+01   2.9252E+01   6.0160E-07  0.0692
   2.9252E+01   2.9964E+01   3.9341E-07  0.0845
   2.9964E+01   3.0693E+01   3.4840E-07  0.0887
   3.0693E+01   3.1440E+01   2.7317E-07  0.0990
   3.1440E+01   3.2205E+01   2.0394E-07  0.1132
   3.2205E+01   3.2988E+01   1.6336E-07  0.1250
   3.2988E+01   3.3791E+01   1.3954E-07  0.1336
   3.3791E+01   3.4613E+01   9.7305E-08  0.1581
   3.4613E+01   3.5455E+01   6.4121E-08  0.1925
   3.5455E+01   3.6318E+01   3.2458E-08  0.2673
   3.6318E+01   3.7201E+01   2.0370E-08  0.3333
   3.7201E+01   3.8106E+01   1.7677E-08  0.3536
   3.8106E+01   3.9034E+01   1.2943E-08  0.4082
   3.9034E+01   3.9983E+01   6.3177E-09  0.5774
   3.9983E+01   4.0956E+01   1.6447E-08  0.3536
   4.0956E+01   4.1953E+01   2.0070E-09  1.0000
   4.1953E+01   4.2973E+01   1.9594E-09  1.0000
   4.2973E+01   4.4019E+01   0.0000E+00  0.0000
   4.4019E+01   4.5090E+01   1.8674E-09  1.0000
   4.5090E+01   4.6187E+01   0.0000E+00  0.0000
   4.6187E+01   4.7311E+01   0.0000E+00  0.0000
   4.7311E+01   4.8462E+01   0.0000E+00  0.0000
   4.8462E+01   4.9641E+01   0.0000E+00  0.0000
   4.9641E+01   5.0849E+01   0.0000E+00  0.0000
   5.0849E+01   5.2086E+01   0.0000E+00  0.0000
   5.2086E+01   5.3353E+01   0.0000E+00  0.0000
   5.3353E+01   5.4651E+01   0.0000E+00  0.0000
   5.4651E+01   5.5981E+01   0.0000E+00  0.0000
   5.5981E+01   5.7343E+01   0.0000E+00  0.0000
   5.7343E+01   5.8738E+01   0.0000E+00  0.0000
   5.8738E+01   6.0168E+01   0.0000E+00  0.0000
   6.0168E+01   6.1632E+01   0.0000E+00  0.0000
   6.1632E+01   6.3131E+01   0.0000E+00  0.0000
   6.3131E+01   6.4667E+01   0.0000E+00  0.0000
   6.4667E+01   6.6240E+01   0.0000E+00  0.0000
   6.6240E+01   6.7852E+01   0.0000E+00  0.0000
   6.7852E+01   6.9503E+01   0.0000E+00  0.0000
   6.9503E+01   7.1194E+01   0.0000E+00  0.0000
   7.1194E+01   7.2926E+01   0.0000E+00  0.0000
   7.2926E+01   7.4701E+01   0.0000E+00  0.0000
   7.4701E+01   7.6518E+01   0.0000E+00  0.0000
   7.6518E+01   7.8380E+01   0.0000E+00  0.0000
   7.8380E+01   8.0287E+01   0.0000E+00  0.0000
   8.0287E+01   8.2240E+01   0.0000E+00  0.0000
   8.2240E+01   8.4241E+01   0.0000E+00  0.0000
   8.4241E+01   8.6291E+01   0.0000E+00  0.0000
   8.6291E+01   8.8391E+01   0.0000E+00  0.0000
   8.8391E+01   9.0541E+01   0.0000E+00  0.0000
   9.0541E+01   9.2744E+01   0.0000E+00  0.0000
   9.2744E+01   9.5001E+01   0.0000E+00  0.0000
   9.5001E+01   9.7312E+01   0.0000E+00  0.0000
   9.7312E+01   9.9680E+01   0.0000E+00  0.0000
   9.9680E+01   1.0211E+02   0.0000E+00  0.0000
   1.0211E+02   1.0459E+02   0.0000E+00  0.0000
   1.0459E+02   1.0713E+02   0.0000E+00  0.0000
   1.0713E+02   1.0974E+02   0.0000E+00  0.0000
   1.0974E+02   1.1241E+02   0.0000E+00  0.0000
   1.1241E+02   1.1515E+02   0.0000E+00  0.0000
   1.1515E+02   1.1795E+02   0.0000E+00  0.0000
   1.1795E+02   1.2082E+02   0.0000E+00  0.0000
   1.2082E+02   1.2376E+02   0.0000E+00  0.0000
   1.2376E+02   1.2677E+02   0.0000E+00  0.0000
   1.2677E+02   1.2985E+02   0.0000E+00  0.0000
   1.2985E+02   1.3301E+02   0.0000E+00  0.0000
   1.3301E+02   1.3625E+02   0.0000E+00  0.0000
   1.3625E+02   1.3956E+02   0.0000E+00  0.0000
   1.3956E+02   1.4296E+02   0.0000E+00  0.0000
   1.4296E+02   1.4644E+02   0.0000E+00  0.0000
   1.4644E+02   1.5000E+02   0.0000E+00  0.0000

#   sum over                 1.6776E-05
'no. =    1   reg = 118 - 218'
msuc: {\huge [t-cross] in region mesh}
msdr: {\it plotted by \ANGEL \version}
msdl: {\it calculated by \PHITS  3.26}
wt: s(0.7)
\vspace{-3}
  region surface crossing
  area  &=&   1.0000E+00 [cm^2]
e:
 
# Information for Restart Calculation
# This calculation was newly started
# istdev =  2 # 1:Batch variance, 2:History variance
# resc2  = 5.00000000000000000E+08 # Total source weight or Total source weight / maxcas
# resc3  = 5.00000000000000000E+08 # Total history number or Total batch number
# maxcas =   500000000 # History / Batch, only used for istdev=1
# bitrseed = 1101101111010011011000101101110001100110110010110001010100010001 # bit data of rseed
