[ T-Cross ]
    title = [t-cross] in region mesh
     mesh =  reg            # mesh type is region-wise
      reg =    1            # number of crossing regions
      non     r-from    r-to       area
      1       112       212        1.000000    
   e-type =    3            # e-mesh is log given by emin, emax and ne
     emin =  1.0000000E-02  # minimum value of e-mesh points
     emax =   150.0000      # maximum value of e-mesh points
#    edel =  2.4039514E-02  # mesh width of e-mesh points
       ne =    400          # number of e-mesh points
#    data = ( e(i), i = 1, ne + 1 )
#           1.00000E-02  1.02433E-02  1.04925E-02  1.07478E-02  1.10093E-02
#           1.12772E-02  1.15516E-02  1.18326E-02  1.21205E-02  1.24154E-02
#           1.27175E-02  1.30269E-02  1.33439E-02  1.36686E-02  1.40011E-02
#           1.43418E-02  1.46907E-02  1.50482E-02  1.54143E-02  1.57894E-02
#           1.61735E-02  1.65670E-02  1.69701E-02  1.73830E-02  1.78060E-02
#           1.82392E-02  1.86830E-02  1.91375E-02  1.96032E-02  2.00801E-02
#           2.05687E-02  2.10692E-02  2.15818E-02  2.21069E-02  2.26448E-02
#           2.31957E-02  2.37601E-02  2.43382E-02  2.49304E-02  2.55369E-02
#           2.61583E-02  2.67947E-02  2.74467E-02  2.81145E-02  2.87985E-02
#           2.94992E-02  3.02169E-02  3.09521E-02  3.17052E-02  3.24766E-02
#           3.32668E-02  3.40762E-02  3.49053E-02  3.57546E-02  3.66246E-02
#           3.75157E-02  3.84284E-02  3.93634E-02  4.03212E-02  4.13022E-02
#           4.23071E-02  4.33365E-02  4.43909E-02  4.54710E-02  4.65773E-02
#           4.77106E-02  4.88714E-02  5.00605E-02  5.12785E-02  5.25262E-02
#           5.38042E-02  5.51133E-02  5.64542E-02  5.78278E-02  5.92348E-02
#           6.06760E-02  6.21523E-02  6.36645E-02  6.52135E-02  6.68002E-02
#           6.84255E-02  7.00904E-02  7.17957E-02  7.35426E-02  7.53319E-02
#           7.71648E-02  7.90423E-02  8.09655E-02  8.29354E-02  8.49533E-02
#           8.70203E-02  8.91376E-02  9.13064E-02  9.35279E-02  9.58035E-02
#           9.81345E-02  1.00522E-01  1.02968E-01  1.05473E-01  1.08040E-01
#           1.10668E-01  1.13361E-01  1.16119E-01  1.18944E-01  1.21838E-01
#           1.24803E-01  1.27839E-01  1.30950E-01  1.34136E-01  1.37399E-01
#           1.40742E-01  1.44167E-01  1.47675E-01  1.51268E-01  1.54948E-01
#           1.58718E-01  1.62580E-01  1.66535E-01  1.70587E-01  1.74738E-01
#           1.78989E-01  1.83344E-01  1.87805E-01  1.92375E-01  1.97055E-01
#           2.01850E-01  2.06761E-01  2.11792E-01  2.16945E-01  2.22223E-01
#           2.27630E-01  2.33169E-01  2.38842E-01  2.44653E-01  2.50605E-01
#           2.56703E-01  2.62949E-01  2.69346E-01  2.75900E-01  2.82613E-01
#           2.89489E-01  2.96532E-01  3.03747E-01  3.11138E-01  3.18708E-01
#           3.26462E-01  3.34405E-01  3.42542E-01  3.50876E-01  3.59413E-01
#           3.68158E-01  3.77116E-01  3.86291E-01  3.95690E-01  4.05317E-01
#           4.15179E-01  4.25281E-01  4.35628E-01  4.46227E-01  4.57084E-01
#           4.68205E-01  4.79597E-01  4.91266E-01  5.03219E-01  5.15463E-01
#           5.28005E-01  5.40851E-01  5.54011E-01  5.67490E-01  5.81298E-01
#           5.95441E-01  6.09929E-01  6.24769E-01  6.39970E-01  6.55541E-01
#           6.71491E-01  6.87828E-01  7.04564E-01  7.21706E-01  7.39266E-01
#           7.57253E-01  7.75678E-01  7.94551E-01  8.13883E-01  8.33685E-01
#           8.53969E-01  8.74747E-01  8.96030E-01  9.17831E-01  9.40163E-01
#           9.63038E-01  9.86469E-01  1.01047E+00  1.03506E+00  1.06024E+00
#           1.08604E+00  1.11246E+00  1.13953E+00  1.16725E+00  1.19565E+00
#           1.22474E+00  1.25454E+00  1.28507E+00  1.31633E+00  1.34836E+00
#           1.38117E+00  1.41477E+00  1.44920E+00  1.48446E+00  1.52057E+00
#           1.55757E+00  1.59547E+00  1.63429E+00  1.67405E+00  1.71478E+00
#           1.75650E+00  1.79924E+00  1.84302E+00  1.88786E+00  1.93379E+00
#           1.98084E+00  2.02904E+00  2.07841E+00  2.12898E+00  2.18078E+00
#           2.23384E+00  2.28819E+00  2.34386E+00  2.40089E+00  2.45930E+00
#           2.51914E+00  2.58043E+00  2.64322E+00  2.70753E+00  2.77341E+00
#           2.84088E+00  2.91001E+00  2.98081E+00  3.05333E+00  3.12762E+00
#           3.20372E+00  3.28167E+00  3.36152E+00  3.44330E+00  3.52708E+00
#           3.61290E+00  3.70080E+00  3.79085E+00  3.88308E+00  3.97756E+00
#           4.07434E+00  4.17347E+00  4.27501E+00  4.37903E+00  4.48557E+00
#           4.59471E+00  4.70650E+00  4.82102E+00  4.93832E+00  5.05847E+00
#           5.18155E+00  5.30762E+00  5.43676E+00  5.56904E+00  5.70453E+00
#           5.84333E+00  5.98550E+00  6.13114E+00  6.28031E+00  6.43312E+00
#           6.58964E+00  6.74997E+00  6.91420E+00  7.08243E+00  7.25475E+00
#           7.43126E+00  7.61207E+00  7.79728E+00  7.98700E+00  8.18133E+00
#           8.38038E+00  8.58428E+00  8.79315E+00  9.00709E+00  9.22624E+00
#           9.45072E+00  9.68067E+00  9.91620E+00  1.01575E+01  1.04046E+01
#           1.06578E+01  1.09171E+01  1.11827E+01  1.14548E+01  1.17335E+01
#           1.20190E+01  1.23114E+01  1.26109E+01  1.29178E+01  1.32321E+01
#           1.35540E+01  1.38838E+01  1.42216E+01  1.45676E+01  1.49221E+01
#           1.52851E+01  1.56570E+01  1.60380E+01  1.64282E+01  1.68279E+01
#           1.72374E+01  1.76568E+01  1.80864E+01  1.85264E+01  1.89772E+01
#           1.94389E+01  1.99119E+01  2.03963E+01  2.08926E+01  2.14009E+01
#           2.19216E+01  2.24550E+01  2.30014E+01  2.35610E+01  2.41343E+01
#           2.47215E+01  2.53230E+01  2.59391E+01  2.65702E+01  2.72167E+01
#           2.78789E+01  2.85572E+01  2.92520E+01  2.99637E+01  3.06928E+01
#           3.14396E+01  3.22045E+01  3.29881E+01  3.37907E+01  3.46128E+01
#           3.54550E+01  3.63177E+01  3.72013E+01  3.81064E+01  3.90336E+01
#           3.99833E+01  4.09561E+01  4.19526E+01  4.29734E+01  4.40189E+01
#           4.50900E+01  4.61870E+01  4.73108E+01  4.84619E+01  4.96410E+01
#           5.08488E+01  5.20860E+01  5.33533E+01  5.46514E+01  5.59812E+01
#           5.73432E+01  5.87384E+01  6.01676E+01  6.16315E+01  6.31311E+01
#           6.46671E+01  6.62405E+01  6.78522E+01  6.95031E+01  7.11941E+01
#           7.29263E+01  7.47007E+01  7.65182E+01  7.83800E+01  8.02870E+01
#           8.22405E+01  8.42414E+01  8.62911E+01  8.83906E+01  9.05412E+01
#           9.27442E+01  9.50007E+01  9.73122E+01  9.96799E+01  1.02105E+02
#           1.04589E+02  1.07134E+02  1.09741E+02  1.12411E+02  1.15146E+02
#           1.17948E+02  1.20817E+02  1.23757E+02  1.26768E+02  1.29852E+02
#           1.33012E+02  1.36248E+02  1.39563E+02  1.42959E+02  1.46437E+02
#           1.50000E+02
     unit =    2            # unit is [1/cm^2/(MeV/n)/source]
     axis =  eng            # axis of output
     file = detector-13.out  # file name of output for the above axis
   output = f-curr          # surface crossing forward current spectrum
     part =  neutron  
# kf/name :  2112     
#    used :        main (  %)        temp (  %)       total (  %)
#  memory :         414 (  0)           0 (  0)         414 (  0)

#------------------------------------------------------------------------------
#newpage:
#   no. =    1   reg = 112 - 212

x: Energy [MeV/n]
y:  F-Curr [1/cm^2/(MeV/n)/source]         
p: xlog ylog afac(0.8) form(0.9)
h: n            x            y(neutron ),hh0l   n 
#  e-lower      e-upper      neutron     r.err 
   1.0000E-02   1.0243E-02   1.0025E-03  0.0903
   1.0243E-02   1.0493E-02   1.0382E-03  0.0878
   1.0493E-02   1.0748E-02   9.5980E-04  0.0900
   1.0748E-02   1.1009E-02   8.3981E-04  0.0950
   1.1009E-02   1.1277E-02   7.8269E-04  0.0974
   1.1277E-02   1.1552E-02   6.8473E-04  0.1028
   1.1552E-02   1.1833E-02   8.1223E-04  0.0936
   1.1833E-02   1.2121E-02   7.6534E-04  0.0952
   1.2121E-02   1.2415E-02   7.6496E-04  0.0939
   1.2415E-02   1.2718E-02   6.2988E-04  0.1022
   1.2718E-02   1.3027E-02   6.2240E-04  0.1018
   1.3027E-02   1.3344E-02   6.8778E-04  0.0955
   1.3344E-02   1.3669E-02   7.0480E-04  0.0929
   1.3669E-02   1.4001E-02   6.0053E-04  0.0998
   1.4001E-02   1.4342E-02   5.4688E-04  0.1035
   1.4342E-02   1.4691E-02   6.0846E-04  0.0970
   1.4691E-02   1.5048E-02   6.7468E-04  0.0909
   1.5048E-02   1.5414E-02   6.4261E-04  0.0921
   1.5414E-02   1.5789E-02   5.5290E-04  0.0977
   1.5789E-02   1.6174E-02   6.2618E-04  0.0909
   1.6174E-02   1.6567E-02   6.1181E-04  0.0908
   1.6567E-02   1.6970E-02   5.5889E-04  0.0938
   1.6970E-02   1.7383E-02   4.8920E-04  0.0992
   1.7383E-02   1.7806E-02   5.9976E-04  0.0884
   1.7806E-02   1.8239E-02   6.5328E-04  0.0839
   1.8239E-02   1.8683E-02   4.9876E-04  0.0948
   1.8683E-02   1.9138E-02   4.5514E-04  0.0979
   1.9138E-02   1.9603E-02   4.8513E-04  0.0936
   1.9603E-02   2.0080E-02   4.3262E-04  0.0981
   2.0080E-02   2.0569E-02   5.3709E-04  0.0869
   2.0569E-02   2.1069E-02   4.9004E-04  0.0897
   2.1069E-02   2.1582E-02   3.8122E-04  0.1009
   2.1582E-02   2.2107E-02   4.5705E-04  0.0911
   2.2107E-02   2.2645E-02   4.6727E-04  0.0888
   2.2645E-02   2.3196E-02   4.3975E-04  0.0906
   2.3196E-02   2.3760E-02   3.6678E-04  0.0982
   2.3760E-02   2.4338E-02   4.1855E-04  0.0905
   2.4338E-02   2.4930E-02   3.5959E-04  0.0967
   2.4930E-02   2.5537E-02   3.2926E-04  0.0995
   2.5537E-02   2.6158E-02   3.7222E-04  0.0925
   2.6158E-02   2.6795E-02   3.3560E-04  0.0965
   2.6795E-02   2.7447E-02   3.6867E-04  0.0910
   2.7447E-02   2.8114E-02   3.2190E-04  0.0960
   2.8114E-02   2.8799E-02   3.2841E-04  0.0940
   2.8799E-02   2.9499E-02   3.8530E-04  0.0857
   2.9499E-02   3.0217E-02   3.6408E-04  0.0871
   3.0217E-02   3.0952E-02   3.3814E-04  0.0896
   3.0952E-02   3.1705E-02   3.8260E-04  0.0831
   3.1705E-02   3.2477E-02   3.0871E-04  0.0914
   3.2477E-02   3.3267E-02   2.9604E-04  0.0920
   3.3267E-02   3.4076E-02   2.9577E-04  0.0910
   3.4076E-02   3.4905E-02   3.4539E-04  0.0833
   3.4905E-02   3.5755E-02   3.0880E-04  0.0868
   3.5755E-02   3.6625E-02   2.8883E-04  0.0889
   3.6625E-02   3.7516E-02   2.2974E-04  0.0984
   3.7516E-02   3.8428E-02   2.7187E-04  0.0895
   3.8428E-02   3.9363E-02   2.5232E-04  0.0918
   3.9363E-02   4.0321E-02   2.6137E-04  0.0891
   4.0321E-02   4.1302E-02   2.7080E-04  0.0864
   4.1302E-02   4.2307E-02   2.3513E-04  0.0918
   4.2307E-02   4.3337E-02   2.3611E-04  0.0904
   4.3337E-02   4.4391E-02   2.1901E-04  0.0927
   4.4391E-02   4.5471E-02   2.3133E-04  0.0892
   4.5471E-02   4.6577E-02   2.2664E-04  0.0885
   4.6577E-02   4.7711E-02   1.9504E-04  0.0945
   4.7711E-02   4.8871E-02   1.9754E-04  0.0932
   4.8871E-02   5.0061E-02   1.8698E-04  0.0946
   5.0061E-02   5.1279E-02   2.0938E-04  0.0878
   5.1279E-02   5.2526E-02   1.9336E-04  0.0909
   5.2526E-02   5.3804E-02   1.9561E-04  0.0892
   5.3804E-02   5.5113E-02   2.0896E-04  0.0851
   5.5113E-02   5.6454E-02   1.9016E-04  0.0883
   5.6454E-02   5.7828E-02   1.9656E-04  0.0855
   5.7828E-02   5.9235E-02   1.8248E-04  0.0879
   5.9235E-02   6.0676E-02   1.6145E-04  0.0923
   6.0676E-02   6.2152E-02   1.7003E-04  0.0891
   6.2152E-02   6.3665E-02   1.5934E-04  0.0907
   6.3665E-02   6.5214E-02   1.7240E-04  0.0862
   6.5214E-02   6.6800E-02   1.7006E-04  0.0859
   6.6800E-02   6.8426E-02   1.5765E-04  0.0881
   6.8426E-02   7.0090E-02   1.2592E-04  0.0972
   7.0090E-02   7.1796E-02   1.4679E-04  0.0893
   7.1796E-02   7.3543E-02   1.5326E-04  0.0863
   7.3543E-02   7.5332E-02   1.4800E-04  0.0865
   7.5332E-02   7.7165E-02   1.2950E-04  0.0912
   7.7165E-02   7.9042E-02   1.3562E-04  0.0883
   7.9042E-02   8.0965E-02   1.5326E-04  0.0820
   8.0965E-02   8.2935E-02   1.3046E-04  0.0881
   8.2935E-02   8.4953E-02   1.3554E-04  0.0853
   8.4953E-02   8.7020E-02   1.2366E-04  0.0883
   8.7020E-02   8.9138E-02   1.1666E-04  0.0895
   8.9138E-02   9.1306E-02   1.3614E-04  0.0819
   9.1306E-02   9.3528E-02   1.1311E-04  0.0886
   9.3528E-02   9.5804E-02   1.1900E-04  0.0855
   9.5804E-02   9.8134E-02   1.3479E-04  0.0796
   9.8134E-02   1.0052E-01   1.1152E-04  0.0861
   1.0052E-01   1.0297E-01   1.0463E-04  0.0882
   1.0297E-01   1.0547E-01   8.8624E-05  0.0943
   1.0547E-01   1.0804E-01   1.0129E-04  0.0873
   1.0804E-01   1.1067E-01   9.8042E-05  0.0877
   1.1067E-01   1.1336E-01   1.0174E-04  0.0850
   1.1336E-01   1.1612E-01   1.0716E-04  0.0819
   1.1612E-01   1.1894E-01   8.4113E-05  0.0915
   1.1894E-01   1.2184E-01   9.9509E-05  0.0831
   1.2184E-01   1.2480E-01   9.4219E-05  0.0843
   1.2480E-01   1.2784E-01   8.2913E-05  0.0889
   1.2784E-01   1.3095E-01   8.3603E-05  0.0875
   1.3095E-01   1.3414E-01   9.0309E-05  0.0831
   1.3414E-01   1.3740E-01   8.5795E-05  0.0842
   1.3740E-01   1.4074E-01   7.7902E-05  0.0874
   1.4074E-01   1.4417E-01   7.7202E-05  0.0865
   1.4417E-01   1.4767E-01   7.5626E-05  0.0864
   1.4767E-01   1.5127E-01   7.8890E-05  0.0837
   1.5127E-01   1.5495E-01   7.5231E-05  0.0845
   1.5495E-01   1.5872E-01   8.2467E-05  0.0800
   1.5872E-01   1.6258E-01   7.4390E-05  0.0830
   1.6258E-01   1.6654E-01   7.4722E-05  0.0819
   1.6654E-01   1.7059E-01   7.2550E-05  0.0820
   1.7059E-01   1.7474E-01   7.8284E-05  0.0782
   1.7474E-01   1.7899E-01   7.3681E-05  0.0795
   1.7899E-01   1.8334E-01   6.6142E-05  0.0831
   1.8334E-01   1.8781E-01   6.6281E-05  0.0816
   1.8781E-01   1.9237E-01   6.4937E-05  0.0818
   1.9237E-01   1.9706E-01   6.9933E-05  0.0779
   1.9706E-01   2.0185E-01   6.6728E-05  0.0788
   2.0185E-01   2.0676E-01   7.8066E-05  0.0719
   2.0676E-01   2.1179E-01   6.7358E-05  0.0766
   2.1179E-01   2.1694E-01   7.0365E-05  0.0740
   2.1694E-01   2.2222E-01   7.8571E-05  0.0692
   2.2222E-01   2.2763E-01   7.6654E-05  0.0692
   2.2763E-01   2.3317E-01   7.9915E-05  0.0668
   2.3317E-01   2.3884E-01   7.9833E-05  0.0662
   2.3884E-01   2.4465E-01   8.6342E-05  0.0629
   2.4465E-01   2.5061E-01   8.6870E-05  0.0620
   2.5061E-01   2.5670E-01   8.9987E-05  0.0601
   2.5670E-01   2.6295E-01   7.8551E-05  0.0636
   2.6295E-01   2.6935E-01   9.1502E-05  0.0583
   2.6935E-01   2.7590E-01   9.8499E-05  0.0554
   2.7590E-01   2.8261E-01   1.0873E-04  0.0522
   2.8261E-01   2.8949E-01   1.0941E-04  0.0514
   2.8949E-01   2.9653E-01   1.1349E-04  0.0497
   2.9653E-01   3.0375E-01   1.1872E-04  0.0481
   3.0375E-01   3.1114E-01   1.1523E-04  0.0483
   3.1114E-01   3.1871E-01   1.2083E-04  0.0466
   3.1871E-01   3.2646E-01   1.2239E-04  0.0456
   3.2646E-01   3.3441E-01   1.1222E-04  0.0472
   3.3441E-01   3.4254E-01   1.2329E-04  0.0444
   3.4254E-01   3.5088E-01   1.3311E-04  0.0422
   3.5088E-01   3.5941E-01   1.2935E-04  0.0424
   3.5941E-01   3.6816E-01   1.3646E-04  0.0407
   3.6816E-01   3.7712E-01   1.3840E-04  0.0400
   3.7712E-01   3.8629E-01   1.4493E-04  0.0386
   3.8629E-01   3.9569E-01   1.5021E-04  0.0374
   3.9569E-01   4.0532E-01   1.5169E-04  0.0369
   4.0532E-01   4.1518E-01   1.4468E-04  0.0373
   4.1518E-01   4.2528E-01   1.5842E-04  0.0352
   4.2528E-01   4.3563E-01   1.5102E-04  0.0356
   4.3563E-01   4.4623E-01   1.7000E-04  0.0332
   4.4623E-01   4.5708E-01   1.6326E-04  0.0335
   4.5708E-01   4.6821E-01   1.7504E-04  0.0319
   4.6821E-01   4.7960E-01   1.7646E-04  0.0314
   4.7960E-01   4.9127E-01   1.6461E-04  0.0321
   4.9127E-01   5.0322E-01   1.7207E-04  0.0311
   5.0322E-01   5.1546E-01   1.7712E-04  0.0302
   5.1546E-01   5.2800E-01   1.7781E-04  0.0298
   5.2800E-01   5.4085E-01   1.8224E-04  0.0291
   5.4085E-01   5.5401E-01   1.8180E-04  0.0288
   5.5401E-01   5.6749E-01   1.8645E-04  0.0281
   5.6749E-01   5.8130E-01   1.7845E-04  0.0284
   5.8130E-01   5.9544E-01   1.8651E-04  0.0274
   5.9544E-01   6.0993E-01   1.8368E-04  0.0273
   6.0993E-01   6.2477E-01   1.8265E-04  0.0271
   6.2477E-01   6.3997E-01   1.8236E-04  0.0267
   6.3997E-01   6.5554E-01   1.8946E-04  0.0259
   6.5554E-01   6.7149E-01   1.8990E-04  0.0256
   6.7149E-01   6.8783E-01   1.8698E-04  0.0255
   6.8783E-01   7.0456E-01   1.8957E-04  0.0250
   7.0456E-01   7.2171E-01   1.8896E-04  0.0247
   7.2171E-01   7.3927E-01   1.9631E-04  0.0240
   7.3927E-01   7.5725E-01   1.9314E-04  0.0239
   7.5725E-01   7.7568E-01   1.8735E-04  0.0239
   7.7568E-01   7.9455E-01   1.8344E-04  0.0239
   7.9455E-01   8.1388E-01   1.8228E-04  0.0237
   8.1388E-01   8.3368E-01   1.7448E-04  0.0240
   8.3368E-01   8.5397E-01   1.7464E-04  0.0236
   8.5397E-01   8.7475E-01   1.6945E-04  0.0237
   8.7475E-01   8.9603E-01   1.6677E-04  0.0236
   8.9603E-01   9.1783E-01   1.6802E-04  0.0232
   9.1783E-01   9.4016E-01   1.6306E-04  0.0233
   9.4016E-01   9.6304E-01   1.5859E-04  0.0234
   9.6304E-01   9.8647E-01   1.5707E-04  0.0232
   9.8647E-01   1.0105E+00   1.5611E-04  0.0230
   1.0105E+00   1.0351E+00   1.5949E-04  0.0224
   1.0351E+00   1.0602E+00   1.6494E-04  0.0218
   1.0602E+00   1.0860E+00   1.6467E-04  0.0216
   1.0860E+00   1.1125E+00   1.7058E-04  0.0209
   1.1125E+00   1.1395E+00   1.7542E-04  0.0204
   1.1395E+00   1.1673E+00   1.8828E-04  0.0195
   1.1673E+00   1.1957E+00   1.8586E-04  0.0194
   1.1957E+00   1.2247E+00   2.0630E-04  0.0182
   1.2247E+00   1.2545E+00   2.1316E-04  0.0176
   1.2545E+00   1.2851E+00   2.1521E-04  0.0174
   1.2851E+00   1.3163E+00   2.2160E-04  0.0169
   1.3163E+00   1.3484E+00   2.1986E-04  0.0168
   1.3484E+00   1.3812E+00   2.3006E-04  0.0162
   1.3812E+00   1.4148E+00   2.3658E-04  0.0158
   1.4148E+00   1.4492E+00   2.3736E-04  0.0156
   1.4492E+00   1.4845E+00   2.3968E-04  0.0153
   1.4845E+00   1.5206E+00   2.4852E-04  0.0148
   1.5206E+00   1.5576E+00   2.5356E-04  0.0145
   1.5576E+00   1.5955E+00   2.5063E-04  0.0144
   1.5955E+00   1.6343E+00   2.6183E-04  0.0139
   1.6343E+00   1.6741E+00   2.7813E-04  0.0134
   1.6741E+00   1.7148E+00   2.7966E-04  0.0132
   1.7148E+00   1.7565E+00   2.8721E-04  0.0128
   1.7565E+00   1.7992E+00   2.9277E-04  0.0126
   1.7992E+00   1.8430E+00   2.8482E-04  0.0126
   1.8430E+00   1.8879E+00   2.9647E-04  0.0122
   1.8879E+00   1.9338E+00   2.9742E-04  0.0120
   1.9338E+00   1.9808E+00   3.1028E-04  0.0116
   1.9808E+00   2.0290E+00   3.1189E-04  0.0115
   2.0290E+00   2.0784E+00   3.1528E-04  0.0113
   2.0784E+00   2.1290E+00   3.1498E-04  0.0111
   2.1290E+00   2.1808E+00   3.1033E-04  0.0111
   2.1808E+00   2.2338E+00   3.1409E-04  0.0109
   2.2338E+00   2.2882E+00   3.1392E-04  0.0108
   2.2882E+00   2.3439E+00   3.1912E-04  0.0105
   2.3439E+00   2.4009E+00   3.3123E-04  0.0102
   2.4009E+00   2.4593E+00   3.3237E-04  0.0101
   2.4593E+00   2.5191E+00   3.3884E-04  0.0099
   2.5191E+00   2.5804E+00   3.3690E-04  0.0098
   2.5804E+00   2.6432E+00   3.3612E-04  0.0097
   2.6432E+00   2.7075E+00   3.4289E-04  0.0095
   2.7075E+00   2.7734E+00   3.2980E-04  0.0095
   2.7734E+00   2.8409E+00   3.2958E-04  0.0094
   2.8409E+00   2.9100E+00   3.3734E-04  0.0092
   2.9100E+00   2.9808E+00   3.3998E-04  0.0091
   2.9808E+00   3.0533E+00   3.3941E-04  0.0090
   3.0533E+00   3.1276E+00   3.3568E-04  0.0089
   3.1276E+00   3.2037E+00   3.2926E-04  0.0089
   3.2037E+00   3.2817E+00   3.3336E-04  0.0087
   3.2817E+00   3.3615E+00   3.2995E-04  0.0087
   3.3615E+00   3.4433E+00   3.2824E-04  0.0086
   3.4433E+00   3.5271E+00   3.2752E-04  0.0085
   3.5271E+00   3.6129E+00   3.2036E-04  0.0085
   3.6129E+00   3.7008E+00   3.2158E-04  0.0084
   3.7008E+00   3.7908E+00   3.1934E-04  0.0083
   3.7908E+00   3.8831E+00   3.1835E-04  0.0082
   3.8831E+00   3.9776E+00   3.1146E-04  0.0082
   3.9776E+00   4.0743E+00   3.0856E-04  0.0081
   4.0743E+00   4.1735E+00   3.0492E-04  0.0081
   4.1735E+00   4.2750E+00   2.9576E-04  0.0081
   4.2750E+00   4.3790E+00   2.9381E-04  0.0080
   4.3790E+00   4.4856E+00   2.8455E-04  0.0081
   4.4856E+00   4.5947E+00   2.7695E-04  0.0081
   4.5947E+00   4.7065E+00   2.7611E-04  0.0080
   4.7065E+00   4.8210E+00   2.6988E-04  0.0080
   4.8210E+00   4.9383E+00   2.6499E-04  0.0080
   4.9383E+00   5.0585E+00   2.5823E-04  0.0080
   5.0585E+00   5.1815E+00   2.4858E-04  0.0080
   5.1815E+00   5.3076E+00   2.3974E-04  0.0081
   5.3076E+00   5.4368E+00   2.3440E-04  0.0081
   5.4368E+00   5.5690E+00   2.2862E-04  0.0081
   5.5690E+00   5.7045E+00   2.2139E-04  0.0081
   5.7045E+00   5.8433E+00   2.1552E-04  0.0081
   5.8433E+00   5.9855E+00   2.0588E-04  0.0082
   5.9855E+00   6.1311E+00   2.0126E-04  0.0082
   6.1311E+00   6.2803E+00   1.9715E-04  0.0082
   6.2803E+00   6.4331E+00   1.8623E-04  0.0083
   6.4331E+00   6.5896E+00   1.8122E-04  0.0084
   6.5896E+00   6.7500E+00   1.7355E-04  0.0084
   6.7500E+00   6.9142E+00   1.6649E-04  0.0085
   6.9142E+00   7.0824E+00   1.6266E-04  0.0085
   7.0824E+00   7.2548E+00   1.5521E-04  0.0086
   7.2548E+00   7.4313E+00   1.4816E-04  0.0087
   7.4313E+00   7.6121E+00   1.4500E-04  0.0087
   7.6121E+00   7.7973E+00   1.3747E-04  0.0088
   7.7973E+00   7.9870E+00   1.3123E-04  0.0089
   7.9870E+00   8.1813E+00   1.2570E-04  0.0090
   8.1813E+00   8.3804E+00   1.1925E-04  0.0091
   8.3804E+00   8.5843E+00   1.1474E-04  0.0092
   8.5843E+00   8.7931E+00   1.1162E-04  0.0092
   8.7931E+00   9.0071E+00   1.0604E-04  0.0094
   9.0071E+00   9.2262E+00   9.9974E-05  0.0095
   9.2262E+00   9.4507E+00   9.5551E-05  0.0096
   9.4507E+00   9.6807E+00   9.0214E-05  0.0098
   9.6807E+00   9.9162E+00   8.7856E-05  0.0098
   9.9162E+00   1.0157E+01   8.6026E-05  0.0098
   1.0157E+01   1.0405E+01   8.2869E-05  0.0099
   1.0405E+01   1.0658E+01   8.1261E-05  0.0098
   1.0658E+01   1.0917E+01   8.1135E-05  0.0097
   1.0917E+01   1.1183E+01   7.6916E-05  0.0099
   1.1183E+01   1.1455E+01   7.3762E-05  0.0100
   1.1455E+01   1.1733E+01   7.2547E-05  0.0099
   1.1733E+01   1.2019E+01   6.9449E-05  0.0100
   1.2019E+01   1.2311E+01   6.6212E-05  0.0102
   1.2311E+01   1.2611E+01   6.2404E-05  0.0103
   1.2611E+01   1.2918E+01   5.8810E-05  0.0105
   1.2918E+01   1.3232E+01   5.6944E-05  0.0106
   1.3232E+01   1.3554E+01   5.5783E-05  0.0105
   1.3554E+01   1.3884E+01   5.2821E-05  0.0107
   1.3884E+01   1.4222E+01   5.0251E-05  0.0108
   1.4222E+01   1.4568E+01   4.7926E-05  0.0110
   1.4568E+01   1.4922E+01   4.5220E-05  0.0112
   1.4922E+01   1.5285E+01   4.3185E-05  0.0113
   1.5285E+01   1.5657E+01   4.0682E-05  0.0115
   1.5657E+01   1.6038E+01   3.8738E-05  0.0116
   1.6038E+01   1.6428E+01   3.7207E-05  0.0117
   1.6428E+01   1.6828E+01   3.5131E-05  0.0119
   1.6828E+01   1.7237E+01   3.2863E-05  0.0122
   1.7237E+01   1.7657E+01   3.1683E-05  0.0123
   1.7657E+01   1.8086E+01   2.9412E-05  0.0126
   1.8086E+01   1.8526E+01   2.7878E-05  0.0128
   1.8526E+01   1.8977E+01   2.6840E-05  0.0129
   1.8977E+01   1.9439E+01   2.5823E-05  0.0130
   1.9439E+01   1.9912E+01   2.4847E-05  0.0130
   1.9912E+01   2.0396E+01   2.4308E-05  0.0130
   2.0396E+01   2.0893E+01   2.3298E-05  0.0132
   2.0893E+01   2.1401E+01   2.1620E-05  0.0135
   2.1401E+01   2.1922E+01   2.0430E-05  0.0137
   2.1922E+01   2.2455E+01   1.9371E-05  0.0139
   2.2455E+01   2.3001E+01   1.8230E-05  0.0142
   2.3001E+01   2.3561E+01   1.7147E-05  0.0144
   2.3561E+01   2.4134E+01   1.5745E-05  0.0149
   2.4134E+01   2.4721E+01   1.4591E-05  0.0153
   2.4721E+01   2.5323E+01   1.3752E-05  0.0155
   2.5323E+01   2.5939E+01   1.2689E-05  0.0160
   2.5939E+01   2.6570E+01   1.1636E-05  0.0165
   2.6570E+01   2.7217E+01   1.1048E-05  0.0167
   2.7217E+01   2.7879E+01   9.8187E-06  0.0175
   2.7879E+01   2.8557E+01   8.9811E-06  0.0181
   2.8557E+01   2.9252E+01   8.4079E-06  0.0185
   2.9252E+01   2.9964E+01   7.6912E-06  0.0191
   2.9964E+01   3.0693E+01   6.7239E-06  0.0202
   3.0693E+01   3.1440E+01   6.3660E-06  0.0205
   3.1440E+01   3.2205E+01   5.7233E-06  0.0214
   3.2205E+01   3.2988E+01   5.1585E-06  0.0222
   3.2988E+01   3.3791E+01   4.6821E-06  0.0231
   3.3791E+01   3.4613E+01   3.8995E-06  0.0250
   3.4613E+01   3.5455E+01   3.4768E-06  0.0261
   3.5455E+01   3.6318E+01   3.1392E-06  0.0272
   3.6318E+01   3.7201E+01   2.6957E-06  0.0290
   3.7201E+01   3.8106E+01   2.3135E-06  0.0309
   3.8106E+01   3.9034E+01   1.9522E-06  0.0332
   3.9034E+01   3.9983E+01   1.5647E-06  0.0367
   3.9983E+01   4.0956E+01   1.2623E-06  0.0404
   4.0956E+01   4.1953E+01   9.8144E-07  0.0452
   4.1953E+01   4.2973E+01   7.8766E-07  0.0499
   4.2973E+01   4.4019E+01   6.5036E-07  0.0542
   4.4019E+01   4.5090E+01   5.0419E-07  0.0609
   4.5090E+01   4.6187E+01   3.7554E-07  0.0697
   4.6187E+01   4.7311E+01   2.9010E-07  0.0783
   4.7311E+01   4.8462E+01   1.8591E-07  0.0967
   4.8462E+01   4.9641E+01   9.6683E-08  0.1325
   4.9641E+01   5.0849E+01   6.7892E-08  0.1562
   5.0849E+01   5.2086E+01   3.3948E-08  0.2182
   5.2086E+01   5.3353E+01   1.7360E-08  0.3015
   5.3353E+01   5.4651E+01   6.1627E-09  0.5000
   5.4651E+01   5.5981E+01   0.0000E+00  0.0000
   5.5981E+01   5.7343E+01   0.0000E+00  0.0000
   5.7343E+01   5.8738E+01   0.0000E+00  0.0000
   5.8738E+01   6.0168E+01   0.0000E+00  0.0000
   6.0168E+01   6.1632E+01   0.0000E+00  0.0000
   6.1632E+01   6.3131E+01   0.0000E+00  0.0000
   6.3131E+01   6.4667E+01   0.0000E+00  0.0000
   6.4667E+01   6.6240E+01   0.0000E+00  0.0000
   6.6240E+01   6.7852E+01   0.0000E+00  0.0000
   6.7852E+01   6.9503E+01   0.0000E+00  0.0000
   6.9503E+01   7.1194E+01   0.0000E+00  0.0000
   7.1194E+01   7.2926E+01   0.0000E+00  0.0000
   7.2926E+01   7.4701E+01   0.0000E+00  0.0000
   7.4701E+01   7.6518E+01   0.0000E+00  0.0000
   7.6518E+01   7.8380E+01   0.0000E+00  0.0000
   7.8380E+01   8.0287E+01   0.0000E+00  0.0000
   8.0287E+01   8.2240E+01   0.0000E+00  0.0000
   8.2240E+01   8.4241E+01   0.0000E+00  0.0000
   8.4241E+01   8.6291E+01   0.0000E+00  0.0000
   8.6291E+01   8.8391E+01   0.0000E+00  0.0000
   8.8391E+01   9.0541E+01   0.0000E+00  0.0000
   9.0541E+01   9.2744E+01   0.0000E+00  0.0000
   9.2744E+01   9.5001E+01   0.0000E+00  0.0000
   9.5001E+01   9.7312E+01   0.0000E+00  0.0000
   9.7312E+01   9.9680E+01   0.0000E+00  0.0000
   9.9680E+01   1.0211E+02   0.0000E+00  0.0000
   1.0211E+02   1.0459E+02   0.0000E+00  0.0000
   1.0459E+02   1.0713E+02   0.0000E+00  0.0000
   1.0713E+02   1.0974E+02   0.0000E+00  0.0000
   1.0974E+02   1.1241E+02   0.0000E+00  0.0000
   1.1241E+02   1.1515E+02   0.0000E+00  0.0000
   1.1515E+02   1.1795E+02   0.0000E+00  0.0000
   1.1795E+02   1.2082E+02   0.0000E+00  0.0000
   1.2082E+02   1.2376E+02   0.0000E+00  0.0000
   1.2376E+02   1.2677E+02   0.0000E+00  0.0000
   1.2677E+02   1.2985E+02   0.0000E+00  0.0000
   1.2985E+02   1.3301E+02   0.0000E+00  0.0000
   1.3301E+02   1.3625E+02   0.0000E+00  0.0000
   1.3625E+02   1.3956E+02   0.0000E+00  0.0000
   1.3956E+02   1.4296E+02   0.0000E+00  0.0000
   1.4296E+02   1.4644E+02   0.0000E+00  0.0000
   1.4644E+02   1.5000E+02   0.0000E+00  0.0000

#   sum over                 1.8460E-05
'no. =    1   reg = 112 - 212'
msuc: {\huge [t-cross] in region mesh}
msdr: {\it plotted by \ANGEL \version}
msdl: {\it calculated by \PHITS  3.26}
wt: s(0.7)
\vspace{-3}
  region surface crossing
  area  &=&   1.0000E+00 [cm^2]
e:
 
# Information for Restart Calculation
# This calculation was newly started
# istdev =  2 # 1:Batch variance, 2:History variance
# resc2  = 5.00000000000000000E+08 # Total source weight or Total source weight / maxcas
# resc3  = 5.00000000000000000E+08 # Total history number or Total batch number
# maxcas =   500000000 # History / Batch, only used for istdev=1
# bitrseed = 1101101111010011011000101101110001100110110010110001010100010001 # bit data of rseed
