[ T-Cross ]
    title = [t-cross] in region mesh
     mesh =  reg            # mesh type is region-wise
      reg =    1            # number of crossing regions
      non     r-from    r-to       area
      1       106       206        1.000000    
   e-type =    3            # e-mesh is log given by emin, emax and ne
     emin =  1.0000000E-02  # minimum value of e-mesh points
     emax =   150.0000      # maximum value of e-mesh points
#    edel =  2.4039514E-02  # mesh width of e-mesh points
       ne =    400          # number of e-mesh points
#    data = ( e(i), i = 1, ne + 1 )
#           1.00000E-02  1.02433E-02  1.04925E-02  1.07478E-02  1.10093E-02
#           1.12772E-02  1.15516E-02  1.18326E-02  1.21205E-02  1.24154E-02
#           1.27175E-02  1.30269E-02  1.33439E-02  1.36686E-02  1.40011E-02
#           1.43418E-02  1.46907E-02  1.50482E-02  1.54143E-02  1.57894E-02
#           1.61735E-02  1.65670E-02  1.69701E-02  1.73830E-02  1.78060E-02
#           1.82392E-02  1.86830E-02  1.91375E-02  1.96032E-02  2.00801E-02
#           2.05687E-02  2.10692E-02  2.15818E-02  2.21069E-02  2.26448E-02
#           2.31957E-02  2.37601E-02  2.43382E-02  2.49304E-02  2.55369E-02
#           2.61583E-02  2.67947E-02  2.74467E-02  2.81145E-02  2.87985E-02
#           2.94992E-02  3.02169E-02  3.09521E-02  3.17052E-02  3.24766E-02
#           3.32668E-02  3.40762E-02  3.49053E-02  3.57546E-02  3.66246E-02
#           3.75157E-02  3.84284E-02  3.93634E-02  4.03212E-02  4.13022E-02
#           4.23071E-02  4.33365E-02  4.43909E-02  4.54710E-02  4.65773E-02
#           4.77106E-02  4.88714E-02  5.00605E-02  5.12785E-02  5.25262E-02
#           5.38042E-02  5.51133E-02  5.64542E-02  5.78278E-02  5.92348E-02
#           6.06760E-02  6.21523E-02  6.36645E-02  6.52135E-02  6.68002E-02
#           6.84255E-02  7.00904E-02  7.17957E-02  7.35426E-02  7.53319E-02
#           7.71648E-02  7.90423E-02  8.09655E-02  8.29354E-02  8.49533E-02
#           8.70203E-02  8.91376E-02  9.13064E-02  9.35279E-02  9.58035E-02
#           9.81345E-02  1.00522E-01  1.02968E-01  1.05473E-01  1.08040E-01
#           1.10668E-01  1.13361E-01  1.16119E-01  1.18944E-01  1.21838E-01
#           1.24803E-01  1.27839E-01  1.30950E-01  1.34136E-01  1.37399E-01
#           1.40742E-01  1.44167E-01  1.47675E-01  1.51268E-01  1.54948E-01
#           1.58718E-01  1.62580E-01  1.66535E-01  1.70587E-01  1.74738E-01
#           1.78989E-01  1.83344E-01  1.87805E-01  1.92375E-01  1.97055E-01
#           2.01850E-01  2.06761E-01  2.11792E-01  2.16945E-01  2.22223E-01
#           2.27630E-01  2.33169E-01  2.38842E-01  2.44653E-01  2.50605E-01
#           2.56703E-01  2.62949E-01  2.69346E-01  2.75900E-01  2.82613E-01
#           2.89489E-01  2.96532E-01  3.03747E-01  3.11138E-01  3.18708E-01
#           3.26462E-01  3.34405E-01  3.42542E-01  3.50876E-01  3.59413E-01
#           3.68158E-01  3.77116E-01  3.86291E-01  3.95690E-01  4.05317E-01
#           4.15179E-01  4.25281E-01  4.35628E-01  4.46227E-01  4.57084E-01
#           4.68205E-01  4.79597E-01  4.91266E-01  5.03219E-01  5.15463E-01
#           5.28005E-01  5.40851E-01  5.54011E-01  5.67490E-01  5.81298E-01
#           5.95441E-01  6.09929E-01  6.24769E-01  6.39970E-01  6.55541E-01
#           6.71491E-01  6.87828E-01  7.04564E-01  7.21706E-01  7.39266E-01
#           7.57253E-01  7.75678E-01  7.94551E-01  8.13883E-01  8.33685E-01
#           8.53969E-01  8.74747E-01  8.96030E-01  9.17831E-01  9.40163E-01
#           9.63038E-01  9.86469E-01  1.01047E+00  1.03506E+00  1.06024E+00
#           1.08604E+00  1.11246E+00  1.13953E+00  1.16725E+00  1.19565E+00
#           1.22474E+00  1.25454E+00  1.28507E+00  1.31633E+00  1.34836E+00
#           1.38117E+00  1.41477E+00  1.44920E+00  1.48446E+00  1.52057E+00
#           1.55757E+00  1.59547E+00  1.63429E+00  1.67405E+00  1.71478E+00
#           1.75650E+00  1.79924E+00  1.84302E+00  1.88786E+00  1.93379E+00
#           1.98084E+00  2.02904E+00  2.07841E+00  2.12898E+00  2.18078E+00
#           2.23384E+00  2.28819E+00  2.34386E+00  2.40089E+00  2.45930E+00
#           2.51914E+00  2.58043E+00  2.64322E+00  2.70753E+00  2.77341E+00
#           2.84088E+00  2.91001E+00  2.98081E+00  3.05333E+00  3.12762E+00
#           3.20372E+00  3.28167E+00  3.36152E+00  3.44330E+00  3.52708E+00
#           3.61290E+00  3.70080E+00  3.79085E+00  3.88308E+00  3.97756E+00
#           4.07434E+00  4.17347E+00  4.27501E+00  4.37903E+00  4.48557E+00
#           4.59471E+00  4.70650E+00  4.82102E+00  4.93832E+00  5.05847E+00
#           5.18155E+00  5.30762E+00  5.43676E+00  5.56904E+00  5.70453E+00
#           5.84333E+00  5.98550E+00  6.13114E+00  6.28031E+00  6.43312E+00
#           6.58964E+00  6.74997E+00  6.91420E+00  7.08243E+00  7.25475E+00
#           7.43126E+00  7.61207E+00  7.79728E+00  7.98700E+00  8.18133E+00
#           8.38038E+00  8.58428E+00  8.79315E+00  9.00709E+00  9.22624E+00
#           9.45072E+00  9.68067E+00  9.91620E+00  1.01575E+01  1.04046E+01
#           1.06578E+01  1.09171E+01  1.11827E+01  1.14548E+01  1.17335E+01
#           1.20190E+01  1.23114E+01  1.26109E+01  1.29178E+01  1.32321E+01
#           1.35540E+01  1.38838E+01  1.42216E+01  1.45676E+01  1.49221E+01
#           1.52851E+01  1.56570E+01  1.60380E+01  1.64282E+01  1.68279E+01
#           1.72374E+01  1.76568E+01  1.80864E+01  1.85264E+01  1.89772E+01
#           1.94389E+01  1.99119E+01  2.03963E+01  2.08926E+01  2.14009E+01
#           2.19216E+01  2.24550E+01  2.30014E+01  2.35610E+01  2.41343E+01
#           2.47215E+01  2.53230E+01  2.59391E+01  2.65702E+01  2.72167E+01
#           2.78789E+01  2.85572E+01  2.92520E+01  2.99637E+01  3.06928E+01
#           3.14396E+01  3.22045E+01  3.29881E+01  3.37907E+01  3.46128E+01
#           3.54550E+01  3.63177E+01  3.72013E+01  3.81064E+01  3.90336E+01
#           3.99833E+01  4.09561E+01  4.19526E+01  4.29734E+01  4.40189E+01
#           4.50900E+01  4.61870E+01  4.73108E+01  4.84619E+01  4.96410E+01
#           5.08488E+01  5.20860E+01  5.33533E+01  5.46514E+01  5.59812E+01
#           5.73432E+01  5.87384E+01  6.01676E+01  6.16315E+01  6.31311E+01
#           6.46671E+01  6.62405E+01  6.78522E+01  6.95031E+01  7.11941E+01
#           7.29263E+01  7.47007E+01  7.65182E+01  7.83800E+01  8.02870E+01
#           8.22405E+01  8.42414E+01  8.62911E+01  8.83906E+01  9.05412E+01
#           9.27442E+01  9.50007E+01  9.73122E+01  9.96799E+01  1.02105E+02
#           1.04589E+02  1.07134E+02  1.09741E+02  1.12411E+02  1.15146E+02
#           1.17948E+02  1.20817E+02  1.23757E+02  1.26768E+02  1.29852E+02
#           1.33012E+02  1.36248E+02  1.39563E+02  1.42959E+02  1.46437E+02
#           1.50000E+02
     unit =    2            # unit is [1/cm^2/(MeV/n)/source]
     axis =  eng            # axis of output
     file = detector-07.out  # file name of output for the above axis
   output = f-curr          # surface crossing forward current spectrum
     part =  neutron  
# kf/name :  2112     
#    used :        main (  %)        temp (  %)       total (  %)
#  memory :         414 (  0)           0 (  0)         414 (  0)

#------------------------------------------------------------------------------
#newpage:
#   no. =    1   reg = 106 - 206

x: Energy [MeV/n]
y:  F-Curr [1/cm^2/(MeV/n)/source]         
p: xlog ylog afac(0.8) form(0.9)
h: n            x            y(neutron ),hh0l   n 
#  e-lower      e-upper      neutron     r.err 
   1.0000E-02   1.0243E-02   2.7207E-03  0.0549
   1.0243E-02   1.0493E-02   2.6786E-03  0.0546
   1.0493E-02   1.0748E-02   2.8715E-03  0.0521
   1.0748E-02   1.1009E-02   2.4628E-03  0.0555
   1.1009E-02   1.1277E-02   2.5243E-03  0.0542
   1.1277E-02   1.1552E-02   2.3978E-03  0.0549
   1.1552E-02   1.1833E-02   2.3919E-03  0.0545
   1.1833E-02   1.2121E-02   2.3952E-03  0.0538
   1.2121E-02   1.2415E-02   2.1354E-03  0.0563
   1.2415E-02   1.2718E-02   2.3668E-03  0.0527
   1.2718E-02   1.3027E-02   2.3390E-03  0.0524
   1.3027E-02   1.3344E-02   2.2844E-03  0.0525
   1.3344E-02   1.3669E-02   2.3616E-03  0.0509
   1.3669E-02   1.4001E-02   2.1077E-03  0.0533
   1.4001E-02   1.4342E-02   2.0789E-03  0.0530
   1.4342E-02   1.4691E-02   1.8571E-03  0.0555
   1.4691E-02   1.5048E-02   2.1196E-03  0.0513
   1.5048E-02   1.5414E-02   2.0101E-03  0.0519
   1.5414E-02   1.5789E-02   1.8847E-03  0.0530
   1.5789E-02   1.6174E-02   1.8518E-03  0.0529
   1.6174E-02   1.6567E-02   1.8284E-03  0.0527
   1.6567E-02   1.6970E-02   1.8666E-03  0.0515
   1.6970E-02   1.7383E-02   1.6955E-03  0.0533
   1.7383E-02   1.7806E-02   1.8177E-03  0.0509
   1.7806E-02   1.8239E-02   1.7140E-03  0.0517
   1.8239E-02   1.8683E-02   1.6449E-03  0.0522
   1.8683E-02   1.9138E-02   1.7809E-03  0.0496
   1.9138E-02   1.9603E-02   1.6620E-03  0.0507
   1.9603E-02   2.0080E-02   1.5731E-03  0.0515
   2.0080E-02   2.0569E-02   1.4172E-03  0.0536
   2.0569E-02   2.1069E-02   1.5213E-03  0.0511
   2.1069E-02   2.1582E-02   1.4352E-03  0.0520
   2.1582E-02   2.2107E-02   1.4128E-03  0.0517
   2.2107E-02   2.2645E-02   1.4873E-03  0.0499
   2.2645E-02   2.3196E-02   1.3645E-03  0.0514
   2.3196E-02   2.3760E-02   1.3465E-03  0.0511
   2.3760E-02   2.4338E-02   1.4627E-03  0.0485
   2.4338E-02   2.4930E-02   1.2587E-03  0.0517
   2.4930E-02   2.5537E-02   1.2396E-03  0.0514
   2.5537E-02   2.6158E-02   1.1699E-03  0.0523
   2.6158E-02   2.6795E-02   1.2973E-03  0.0491
   2.6795E-02   2.7447E-02   1.1821E-03  0.0508
   2.7447E-02   2.8114E-02   1.2127E-03  0.0496
   2.8114E-02   2.8799E-02   1.1182E-03  0.0510
   2.8799E-02   2.9499E-02   1.0537E-03  0.0519
   2.9499E-02   3.0217E-02   1.0912E-03  0.0504
   3.0217E-02   3.0952E-02   1.0267E-03  0.0514
   3.0952E-02   3.1705E-02   1.0697E-03  0.0497
   3.1705E-02   3.2477E-02   1.0212E-03  0.0503
   3.2477E-02   3.3267E-02   9.0686E-04  0.0527
   3.3267E-02   3.4076E-02   9.4659E-04  0.0510
   3.4076E-02   3.4905E-02   9.8773E-04  0.0493
   3.4905E-02   3.5755E-02   8.7641E-04  0.0516
   3.5755E-02   3.6625E-02   1.0010E-03  0.0478
   3.6625E-02   3.7516E-02   8.4282E-04  0.0515
   3.7516E-02   3.8428E-02   8.9876E-04  0.0492
   3.8428E-02   3.9363E-02   8.2883E-04  0.0507
   3.9363E-02   4.0321E-02   8.9217E-04  0.0482
   4.0321E-02   4.1302E-02   8.2130E-04  0.0497
   4.1302E-02   4.2307E-02   8.5076E-04  0.0483
   4.2307E-02   4.3337E-02   7.9925E-04  0.0492
   4.3337E-02   4.4391E-02   7.3076E-04  0.0508
   4.4391E-02   4.5471E-02   7.4539E-04  0.0497
   4.5471E-02   4.6577E-02   6.9954E-04  0.0507
   4.6577E-02   4.7711E-02   7.1782E-04  0.0494
   4.7711E-02   4.8871E-02   7.0496E-04  0.0493
   4.8871E-02   5.0061E-02   6.5863E-04  0.0504
   5.0061E-02   5.1279E-02   6.9531E-04  0.0485
   5.1279E-02   5.2526E-02   6.8952E-04  0.0481
   5.2526E-02   5.3804E-02   6.7417E-04  0.0481
   5.3804E-02   5.5113E-02   6.4347E-04  0.0486
   5.5113E-02   5.6454E-02   5.8487E-04  0.0502
   5.6454E-02   5.7828E-02   5.9829E-04  0.0492
   5.7828E-02   5.9235E-02   5.7965E-04  0.0494
   5.9235E-02   6.0676E-02   5.5462E-04  0.0499
   6.0676E-02   6.2152E-02   5.7486E-04  0.0484
   6.2152E-02   6.3665E-02   5.7570E-04  0.0478
   6.3665E-02   6.5214E-02   4.6981E-04  0.0523
   6.5214E-02   6.6800E-02   5.5156E-04  0.0476
   6.6800E-02   6.8426E-02   4.6409E-04  0.0513
   6.8426E-02   7.0090E-02   4.9391E-04  0.0491
   7.0090E-02   7.1796E-02   4.8915E-04  0.0488
   7.1796E-02   7.3543E-02   4.6774E-04  0.0493
   7.3543E-02   7.5332E-02   4.9152E-04  0.0476
   7.5332E-02   7.7165E-02   4.2425E-04  0.0505
   7.7165E-02   7.9042E-02   4.7382E-04  0.0473
   7.9042E-02   8.0965E-02   4.0714E-04  0.0504
   8.0965E-02   8.2935E-02   3.7438E-04  0.0520
   8.2935E-02   8.4953E-02   3.9513E-04  0.0499
   8.4953E-02   8.7020E-02   4.1585E-04  0.0480
   8.7020E-02   8.9138E-02   3.9738E-04  0.0486
   8.9138E-02   9.1306E-02   4.1542E-04  0.0469
   9.1306E-02   9.3528E-02   3.3654E-04  0.0514
   9.3528E-02   9.5804E-02   3.6801E-04  0.0487
   9.5804E-02   9.8134E-02   3.2134E-04  0.0515
   9.8134E-02   1.0052E-01   3.4135E-04  0.0494
   1.0052E-01   1.0297E-01   3.2833E-04  0.0498
   1.0297E-01   1.0547E-01   3.3214E-04  0.0489
   1.0547E-01   1.0804E-01   3.2896E-04  0.0485
   1.0804E-01   1.1067E-01   3.2028E-04  0.0485
   1.1067E-01   1.1336E-01   2.9960E-04  0.0497
   1.1336E-01   1.1612E-01   2.9985E-04  0.0490
   1.1612E-01   1.1894E-01   2.8037E-04  0.0501
   1.1894E-01   1.2184E-01   2.8449E-04  0.0491
   1.2184E-01   1.2480E-01   2.5310E-04  0.0515
   1.2480E-01   1.2784E-01   2.6893E-04  0.0493
   1.2784E-01   1.3095E-01   2.5415E-04  0.0501
   1.3095E-01   1.3414E-01   2.4894E-04  0.0501
   1.3414E-01   1.3740E-01   2.4940E-04  0.0494
   1.3740E-01   1.4074E-01   2.6488E-04  0.0474
   1.4074E-01   1.4417E-01   2.3524E-04  0.0496
   1.4417E-01   1.4767E-01   2.4690E-04  0.0480
   1.4767E-01   1.5127E-01   2.2192E-04  0.0498
   1.5127E-01   1.5495E-01   2.1917E-04  0.0496
   1.5495E-01   1.5872E-01   2.0434E-04  0.0507
   1.5872E-01   1.6258E-01   2.0538E-04  0.0500
   1.6258E-01   1.6654E-01   2.0500E-04  0.0495
   1.6654E-01   1.7059E-01   2.1277E-04  0.0481
   1.7059E-01   1.7474E-01   1.8847E-04  0.0503
   1.7474E-01   1.7899E-01   1.8305E-04  0.0506
   1.7899E-01   1.8334E-01   2.0007E-04  0.0478
   1.8334E-01   1.8781E-01   1.9225E-04  0.0482
   1.8781E-01   1.9237E-01   1.7592E-04  0.0497
   1.9237E-01   1.9706E-01   1.8982E-04  0.0473
   1.9706E-01   2.0185E-01   2.0019E-04  0.0456
   2.0185E-01   2.0676E-01   1.7580E-04  0.0479
   2.0676E-01   2.1179E-01   1.8845E-04  0.0457
   2.1179E-01   2.1694E-01   2.0031E-04  0.0439
   2.1694E-01   2.2222E-01   1.9864E-04  0.0435
   2.2222E-01   2.2763E-01   2.1886E-04  0.0410
   2.2763E-01   2.3317E-01   2.3843E-04  0.0388
   2.3317E-01   2.3884E-01   2.1823E-04  0.0401
   2.3884E-01   2.4465E-01   2.3662E-04  0.0381
   2.4465E-01   2.5061E-01   2.4425E-04  0.0370
   2.5061E-01   2.5670E-01   2.4387E-04  0.0366
   2.5670E-01   2.6295E-01   2.4958E-04  0.0357
   2.6295E-01   2.6935E-01   2.8053E-04  0.0333
   2.6935E-01   2.7590E-01   2.5292E-04  0.0346
   2.7590E-01   2.8261E-01   2.6857E-04  0.0332
   2.8261E-01   2.8949E-01   2.7549E-04  0.0324
   2.8949E-01   2.9653E-01   2.8833E-04  0.0313
   2.9653E-01   3.0375E-01   2.8991E-04  0.0308
   3.0375E-01   3.1114E-01   3.0956E-04  0.0295
   3.1114E-01   3.1871E-01   3.0030E-04  0.0296
   3.1871E-01   3.2646E-01   3.1293E-04  0.0286
   3.2646E-01   3.3441E-01   3.2766E-04  0.0276
   3.3441E-01   3.4254E-01   3.1522E-04  0.0279
   3.4254E-01   3.5088E-01   3.4377E-04  0.0264
   3.5088E-01   3.5941E-01   3.3777E-04  0.0263
   3.5941E-01   3.6816E-01   3.5133E-04  0.0254
   3.6816E-01   3.7712E-01   3.6169E-04  0.0248
   3.7712E-01   3.8629E-01   3.4462E-04  0.0251
   3.8629E-01   3.9569E-01   3.7688E-04  0.0237
   3.9569E-01   4.0532E-01   3.6881E-04  0.0237
   4.0532E-01   4.1518E-01   3.8432E-04  0.0229
   4.1518E-01   4.2528E-01   3.7666E-04  0.0228
   4.2528E-01   4.3563E-01   3.7899E-04  0.0225
   4.3563E-01   4.4623E-01   4.0643E-04  0.0215
   4.4623E-01   4.5708E-01   4.2461E-04  0.0208
   4.5708E-01   4.6821E-01   4.1122E-04  0.0209
   4.6821E-01   4.7960E-01   4.1756E-04  0.0205
   4.7960E-01   4.9127E-01   4.1869E-04  0.0202
   4.9127E-01   5.0322E-01   4.1619E-04  0.0200
   5.0322E-01   5.1546E-01   4.1467E-04  0.0198
   5.1546E-01   5.2800E-01   4.0932E-04  0.0197
   5.2800E-01   5.4085E-01   4.3425E-04  0.0189
   5.4085E-01   5.5401E-01   4.3500E-04  0.0186
   5.5401E-01   5.6749E-01   4.4402E-04  0.0182
   5.6749E-01   5.8130E-01   4.3659E-04  0.0182
   5.8130E-01   5.9544E-01   4.5473E-04  0.0176
   5.9544E-01   6.0993E-01   4.5267E-04  0.0174
   6.0993E-01   6.2477E-01   4.5094E-04  0.0172
   6.2477E-01   6.3997E-01   4.5727E-04  0.0169
   6.3997E-01   6.5554E-01   4.6618E-04  0.0166
   6.5554E-01   6.7149E-01   4.6422E-04  0.0164
   6.7149E-01   6.8783E-01   4.5194E-04  0.0164
   6.8783E-01   7.0456E-01   4.4703E-04  0.0163
   7.0456E-01   7.2171E-01   4.6358E-04  0.0158
   7.2171E-01   7.3927E-01   4.5656E-04  0.0157
   7.3927E-01   7.5725E-01   4.6105E-04  0.0155
   7.5725E-01   7.7568E-01   4.4561E-04  0.0155
   7.7568E-01   7.9455E-01   4.4851E-04  0.0153
   7.9455E-01   8.1388E-01   4.4527E-04  0.0152
   8.1388E-01   8.3368E-01   4.4450E-04  0.0150
   8.3368E-01   8.5397E-01   4.3258E-04  0.0150
   8.5397E-01   8.7475E-01   4.3184E-04  0.0149
   8.7475E-01   8.9603E-01   4.1370E-04  0.0150
   8.9603E-01   9.1783E-01   4.1676E-04  0.0148
   9.1783E-01   9.4016E-01   4.0184E-04  0.0149
   9.4016E-01   9.6304E-01   4.0025E-04  0.0147
   9.6304E-01   9.8647E-01   3.9382E-04  0.0147
   9.8647E-01   1.0105E+00   3.7819E-04  0.0148
   1.0105E+00   1.0351E+00   3.7843E-04  0.0146
   1.0351E+00   1.0602E+00   3.8562E-04  0.0143
   1.0602E+00   1.0860E+00   3.8036E-04  0.0142
   1.0860E+00   1.1125E+00   3.9365E-04  0.0138
   1.1125E+00   1.1395E+00   3.9195E-04  0.0137
   1.1395E+00   1.1673E+00   4.0435E-04  0.0133
   1.1673E+00   1.1957E+00   4.0970E-04  0.0131
   1.1957E+00   1.2247E+00   4.1843E-04  0.0128
   1.2247E+00   1.2545E+00   4.2552E-04  0.0125
   1.2545E+00   1.2851E+00   4.2350E-04  0.0124
   1.2851E+00   1.3163E+00   4.2120E-04  0.0123
   1.3163E+00   1.3484E+00   4.3840E-04  0.0119
   1.3484E+00   1.3812E+00   4.4677E-04  0.0116
   1.3812E+00   1.4148E+00   4.4572E-04  0.0115
   1.4148E+00   1.4492E+00   4.4462E-04  0.0114
   1.4492E+00   1.4845E+00   4.5834E-04  0.0111
   1.4845E+00   1.5206E+00   4.6656E-04  0.0109
   1.5206E+00   1.5576E+00   4.5930E-04  0.0108
   1.5576E+00   1.5955E+00   4.5469E-04  0.0107
   1.5955E+00   1.6343E+00   4.4558E-04  0.0107
   1.6343E+00   1.6741E+00   4.6091E-04  0.0104
   1.6741E+00   1.7148E+00   4.6870E-04  0.0102
   1.7148E+00   1.7565E+00   4.7125E-04  0.0101
   1.7565E+00   1.7992E+00   4.6782E-04  0.0100
   1.7992E+00   1.8430E+00   4.7126E-04  0.0098
   1.8430E+00   1.8879E+00   4.7535E-04  0.0097
   1.8879E+00   1.9338E+00   4.6869E-04  0.0096
   1.9338E+00   1.9808E+00   4.7223E-04  0.0095
   1.9808E+00   2.0290E+00   4.8626E-04  0.0092
   2.0290E+00   2.0784E+00   4.8196E-04  0.0091
   2.0784E+00   2.1290E+00   4.7653E-04  0.0091
   2.1290E+00   2.1808E+00   4.7617E-04  0.0090
   2.1808E+00   2.2338E+00   4.7710E-04  0.0089
   2.2338E+00   2.2882E+00   4.7039E-04  0.0088
   2.2882E+00   2.3439E+00   4.6421E-04  0.0088
   2.3439E+00   2.4009E+00   4.6496E-04  0.0087
   2.4009E+00   2.4593E+00   4.7380E-04  0.0085
   2.4593E+00   2.5191E+00   4.7722E-04  0.0083
   2.5191E+00   2.5804E+00   4.7931E-04  0.0082
   2.5804E+00   2.6432E+00   4.7298E-04  0.0082
   2.6432E+00   2.7075E+00   4.7735E-04  0.0080
   2.7075E+00   2.7734E+00   4.6847E-04  0.0080
   2.7734E+00   2.8409E+00   4.7160E-04  0.0079
   2.8409E+00   2.9100E+00   4.6218E-04  0.0079
   2.9100E+00   2.9808E+00   4.7783E-04  0.0077
   2.9808E+00   3.0533E+00   4.7445E-04  0.0076
   3.0533E+00   3.1276E+00   4.6732E-04  0.0076
   3.1276E+00   3.2037E+00   4.7006E-04  0.0075
   3.2037E+00   3.2817E+00   4.6987E-04  0.0074
   3.2817E+00   3.3615E+00   4.6755E-04  0.0073
   3.3615E+00   3.4433E+00   4.6338E-04  0.0072
   3.4433E+00   3.5271E+00   4.6799E-04  0.0071
   3.5271E+00   3.6129E+00   4.7029E-04  0.0070
   3.6129E+00   3.7008E+00   4.6238E-04  0.0070
   3.7008E+00   3.7908E+00   4.5927E-04  0.0069
   3.7908E+00   3.8831E+00   4.5995E-04  0.0068
   3.8831E+00   3.9776E+00   4.5950E-04  0.0068
   3.9776E+00   4.0743E+00   4.5677E-04  0.0067
   4.0743E+00   4.1735E+00   4.5097E-04  0.0067
   4.1735E+00   4.2750E+00   4.4999E-04  0.0066
   4.2750E+00   4.3790E+00   4.4725E-04  0.0065
   4.3790E+00   4.4856E+00   4.4551E-04  0.0065
   4.4856E+00   4.5947E+00   4.4543E-04  0.0064
   4.5947E+00   4.7065E+00   4.3787E-04  0.0064
   4.7065E+00   4.8210E+00   4.3831E-04  0.0063
   4.8210E+00   4.9383E+00   4.3700E-04  0.0062
   4.9383E+00   5.0585E+00   4.3372E-04  0.0062
   5.0585E+00   5.1815E+00   4.2859E-04  0.0061
   5.1815E+00   5.3076E+00   4.2592E-04  0.0061
   5.3076E+00   5.4368E+00   4.2518E-04  0.0060
   5.4368E+00   5.5690E+00   4.2389E-04  0.0060
   5.5690E+00   5.7045E+00   4.2028E-04  0.0059
   5.7045E+00   5.8433E+00   4.1294E-04  0.0059
   5.8433E+00   5.9855E+00   4.0650E-04  0.0059
   5.9855E+00   6.1311E+00   4.0869E-04  0.0058
   6.1311E+00   6.2803E+00   4.0284E-04  0.0058
   6.2803E+00   6.4331E+00   4.0260E-04  0.0057
   6.4331E+00   6.5896E+00   3.9891E-04  0.0057
   6.5896E+00   6.7500E+00   3.9462E-04  0.0056
   6.7500E+00   6.9142E+00   3.9066E-04  0.0056
   6.9142E+00   7.0824E+00   3.8730E-04  0.0055
   7.0824E+00   7.2548E+00   3.7990E-04  0.0055
   7.2548E+00   7.4313E+00   3.7458E-04  0.0055
   7.4313E+00   7.6121E+00   3.7091E-04  0.0055
   7.6121E+00   7.7973E+00   3.6704E-04  0.0054
   7.7973E+00   7.9870E+00   3.6259E-04  0.0054
   7.9870E+00   8.1813E+00   3.5675E-04  0.0054
   8.1813E+00   8.3804E+00   3.5769E-04  0.0053
   8.3804E+00   8.5843E+00   3.5018E-04  0.0053
   8.5843E+00   8.7931E+00   3.4476E-04  0.0053
   8.7931E+00   9.0071E+00   3.3859E-04  0.0053
   9.0071E+00   9.2262E+00   3.3707E-04  0.0052
   9.2262E+00   9.4507E+00   3.3074E-04  0.0052
   9.4507E+00   9.6807E+00   3.2607E-04  0.0052
   9.6807E+00   9.9162E+00   3.2376E-04  0.0051
   9.9162E+00   1.0157E+01   3.1820E-04  0.0051
   1.0157E+01   1.0405E+01   3.1249E-04  0.0051
   1.0405E+01   1.0658E+01   3.0974E-04  0.0050
   1.0658E+01   1.0917E+01   3.0553E-04  0.0050
   1.0917E+01   1.1183E+01   3.0318E-04  0.0050
   1.1183E+01   1.1455E+01   2.9809E-04  0.0050
   1.1455E+01   1.1733E+01   2.9496E-04  0.0049
   1.1733E+01   1.2019E+01   2.8975E-04  0.0049
   1.2019E+01   1.2311E+01   2.8565E-04  0.0049
   1.2311E+01   1.2611E+01   2.8040E-04  0.0049
   1.2611E+01   1.2918E+01   2.7608E-04  0.0049
   1.2918E+01   1.3232E+01   2.7011E-04  0.0049
   1.3232E+01   1.3554E+01   2.6682E-04  0.0048
   1.3554E+01   1.3884E+01   2.6117E-04  0.0048
   1.3884E+01   1.4222E+01   2.5738E-04  0.0048
   1.4222E+01   1.4568E+01   2.5131E-04  0.0048
   1.4568E+01   1.4922E+01   2.4609E-04  0.0048
   1.4922E+01   1.5285E+01   2.4072E-04  0.0048
   1.5285E+01   1.5657E+01   2.3450E-04  0.0048
   1.5657E+01   1.6038E+01   2.2990E-04  0.0048
   1.6038E+01   1.6428E+01   2.2614E-04  0.0048
   1.6428E+01   1.6828E+01   2.1933E-04  0.0048
   1.6828E+01   1.7237E+01   2.1366E-04  0.0048
   1.7237E+01   1.7657E+01   2.0848E-04  0.0048
   1.7657E+01   1.8086E+01   2.0188E-04  0.0048
   1.8086E+01   1.8526E+01   1.9556E-04  0.0048
   1.8526E+01   1.8977E+01   1.8964E-04  0.0048
   1.8977E+01   1.9439E+01   1.8323E-04  0.0049
   1.9439E+01   1.9912E+01   1.7873E-04  0.0049
   1.9912E+01   2.0396E+01   1.7545E-04  0.0049
   2.0396E+01   2.0893E+01   1.6967E-04  0.0049
   2.0893E+01   2.1401E+01   1.6460E-04  0.0049
   2.1401E+01   2.1922E+01   1.5815E-04  0.0049
   2.1922E+01   2.2455E+01   1.5058E-04  0.0050
   2.2455E+01   2.3001E+01   1.4290E-04  0.0051
   2.3001E+01   2.3561E+01   1.3557E-04  0.0051
   2.3561E+01   2.4134E+01   1.2987E-04  0.0052
   2.4134E+01   2.4721E+01   1.2347E-04  0.0053
   2.4721E+01   2.5323E+01   1.1549E-04  0.0054
   2.5323E+01   2.5939E+01   1.0993E-04  0.0054
   2.5939E+01   2.6570E+01   1.0293E-04  0.0055
   2.6570E+01   2.7217E+01   9.7198E-05  0.0056
   2.7217E+01   2.7879E+01   9.1936E-05  0.0057
   2.7879E+01   2.8557E+01   8.5285E-05  0.0059
   2.8557E+01   2.9252E+01   8.0277E-05  0.0060
   2.9252E+01   2.9964E+01   7.5285E-05  0.0061
   2.9964E+01   3.0693E+01   7.0224E-05  0.0063
   3.0693E+01   3.1440E+01   6.5725E-05  0.0064
   3.1440E+01   3.2205E+01   6.1039E-05  0.0065
   3.2205E+01   3.2988E+01   5.7009E-05  0.0067
   3.2988E+01   3.3791E+01   5.3021E-05  0.0069
   3.3791E+01   3.4613E+01   4.8183E-05  0.0071
   3.4613E+01   3.5455E+01   4.4799E-05  0.0073
   3.5455E+01   3.6318E+01   4.1240E-05  0.0075
   3.6318E+01   3.7201E+01   3.8036E-05  0.0077
   3.7201E+01   3.8106E+01   3.5447E-05  0.0079
   3.8106E+01   3.9034E+01   3.2432E-05  0.0082
   3.9034E+01   3.9983E+01   3.0032E-05  0.0084
   3.9983E+01   4.0956E+01   2.7744E-05  0.0086
   4.0956E+01   4.1953E+01   2.5875E-05  0.0088
   4.1953E+01   4.2973E+01   2.3354E-05  0.0092
   4.2973E+01   4.4019E+01   2.2020E-05  0.0093
   4.4019E+01   4.5090E+01   1.9998E-05  0.0097
   4.5090E+01   4.6187E+01   1.8103E-05  0.0100
   4.6187E+01   4.7311E+01   1.6311E-05  0.0104
   4.7311E+01   4.8462E+01   1.4914E-05  0.0108
   4.8462E+01   4.9641E+01   1.3488E-05  0.0112
   4.9641E+01   5.0849E+01   1.2065E-05  0.0117
   5.0849E+01   5.2086E+01   1.0994E-05  0.0121
   5.2086E+01   5.3353E+01   1.0102E-05  0.0125
   5.3353E+01   5.4651E+01   8.5877E-06  0.0134
   5.4651E+01   5.5981E+01   7.1143E-06  0.0145
   5.5981E+01   5.7343E+01   5.9865E-06  0.0157
   5.7343E+01   5.8738E+01   4.6961E-06  0.0175
   5.8738E+01   6.0168E+01   3.1067E-06  0.0212
   6.0168E+01   6.1632E+01   1.5493E-06  0.0297
   6.1632E+01   6.3131E+01   9.1361E-07  0.0382
   6.3131E+01   6.4667E+01   2.0052E-07  0.0806
   6.4667E+01   6.6240E+01   0.0000E+00  0.0000
   6.6240E+01   6.7852E+01   0.0000E+00  0.0000
   6.7852E+01   6.9503E+01   0.0000E+00  0.0000
   6.9503E+01   7.1194E+01   0.0000E+00  0.0000
   7.1194E+01   7.2926E+01   0.0000E+00  0.0000
   7.2926E+01   7.4701E+01   0.0000E+00  0.0000
   7.4701E+01   7.6518E+01   0.0000E+00  0.0000
   7.6518E+01   7.8380E+01   0.0000E+00  0.0000
   7.8380E+01   8.0287E+01   0.0000E+00  0.0000
   8.0287E+01   8.2240E+01   0.0000E+00  0.0000
   8.2240E+01   8.4241E+01   0.0000E+00  0.0000
   8.4241E+01   8.6291E+01   0.0000E+00  0.0000
   8.6291E+01   8.8391E+01   0.0000E+00  0.0000
   8.8391E+01   9.0541E+01   0.0000E+00  0.0000
   9.0541E+01   9.2744E+01   0.0000E+00  0.0000
   9.2744E+01   9.5001E+01   0.0000E+00  0.0000
   9.5001E+01   9.7312E+01   0.0000E+00  0.0000
   9.7312E+01   9.9680E+01   0.0000E+00  0.0000
   9.9680E+01   1.0211E+02   0.0000E+00  0.0000
   1.0211E+02   1.0459E+02   0.0000E+00  0.0000
   1.0459E+02   1.0713E+02   0.0000E+00  0.0000
   1.0713E+02   1.0974E+02   0.0000E+00  0.0000
   1.0974E+02   1.1241E+02   0.0000E+00  0.0000
   1.1241E+02   1.1515E+02   0.0000E+00  0.0000
   1.1515E+02   1.1795E+02   0.0000E+00  0.0000
   1.1795E+02   1.2082E+02   0.0000E+00  0.0000
   1.2082E+02   1.2376E+02   0.0000E+00  0.0000
   1.2376E+02   1.2677E+02   0.0000E+00  0.0000
   1.2677E+02   1.2985E+02   0.0000E+00  0.0000
   1.2985E+02   1.3301E+02   0.0000E+00  0.0000
   1.3301E+02   1.3625E+02   0.0000E+00  0.0000
   1.3625E+02   1.3956E+02   0.0000E+00  0.0000
   1.3956E+02   1.4296E+02   0.0000E+00  0.0000
   1.4296E+02   1.4644E+02   0.0000E+00  0.0000
   1.4644E+02   1.5000E+02   0.0000E+00  0.0000

#   sum over                 5.6591E-05
'no. =    1   reg = 106 - 206'
msuc: {\huge [t-cross] in region mesh}
msdr: {\it plotted by \ANGEL \version}
msdl: {\it calculated by \PHITS  3.26}
wt: s(0.7)
\vspace{-3}
  region surface crossing
  area  &=&   1.0000E+00 [cm^2]
e:
 
# Information for Restart Calculation
# This calculation was newly started
# istdev =  2 # 1:Batch variance, 2:History variance
# resc2  = 5.00000000000000000E+08 # Total source weight or Total source weight / maxcas
# resc3  = 5.00000000000000000E+08 # Total history number or Total batch number
# maxcas =   500000000 # History / Batch, only used for istdev=1
# bitrseed = 1101101111010011011000101101110001100110110010110001010100010001 # bit data of rseed
