[ T-Cross ]
    title = [t-cross] in region mesh
     mesh =  reg            # mesh type is region-wise
      reg =    1            # number of crossing regions
      non     r-from    r-to       area
      1       125       225        1.000000    
   e-type =    3            # e-mesh is log given by emin, emax and ne
     emin =  1.0000000E-02  # minimum value of e-mesh points
     emax =   150.0000      # maximum value of e-mesh points
#    edel =  2.4039514E-02  # mesh width of e-mesh points
       ne =    400          # number of e-mesh points
#    data = ( e(i), i = 1, ne + 1 )
#           1.00000E-02  1.02433E-02  1.04925E-02  1.07478E-02  1.10093E-02
#           1.12772E-02  1.15516E-02  1.18326E-02  1.21205E-02  1.24154E-02
#           1.27175E-02  1.30269E-02  1.33439E-02  1.36686E-02  1.40011E-02
#           1.43418E-02  1.46907E-02  1.50482E-02  1.54143E-02  1.57894E-02
#           1.61735E-02  1.65670E-02  1.69701E-02  1.73830E-02  1.78060E-02
#           1.82392E-02  1.86830E-02  1.91375E-02  1.96032E-02  2.00801E-02
#           2.05687E-02  2.10692E-02  2.15818E-02  2.21069E-02  2.26448E-02
#           2.31957E-02  2.37601E-02  2.43382E-02  2.49304E-02  2.55369E-02
#           2.61583E-02  2.67947E-02  2.74467E-02  2.81145E-02  2.87985E-02
#           2.94992E-02  3.02169E-02  3.09521E-02  3.17052E-02  3.24766E-02
#           3.32668E-02  3.40762E-02  3.49053E-02  3.57546E-02  3.66246E-02
#           3.75157E-02  3.84284E-02  3.93634E-02  4.03212E-02  4.13022E-02
#           4.23071E-02  4.33365E-02  4.43909E-02  4.54710E-02  4.65773E-02
#           4.77106E-02  4.88714E-02  5.00605E-02  5.12785E-02  5.25262E-02
#           5.38042E-02  5.51133E-02  5.64542E-02  5.78278E-02  5.92348E-02
#           6.06760E-02  6.21523E-02  6.36645E-02  6.52135E-02  6.68002E-02
#           6.84255E-02  7.00904E-02  7.17957E-02  7.35426E-02  7.53319E-02
#           7.71648E-02  7.90423E-02  8.09655E-02  8.29354E-02  8.49533E-02
#           8.70203E-02  8.91376E-02  9.13064E-02  9.35279E-02  9.58035E-02
#           9.81345E-02  1.00522E-01  1.02968E-01  1.05473E-01  1.08040E-01
#           1.10668E-01  1.13361E-01  1.16119E-01  1.18944E-01  1.21838E-01
#           1.24803E-01  1.27839E-01  1.30950E-01  1.34136E-01  1.37399E-01
#           1.40742E-01  1.44167E-01  1.47675E-01  1.51268E-01  1.54948E-01
#           1.58718E-01  1.62580E-01  1.66535E-01  1.70587E-01  1.74738E-01
#           1.78989E-01  1.83344E-01  1.87805E-01  1.92375E-01  1.97055E-01
#           2.01850E-01  2.06761E-01  2.11792E-01  2.16945E-01  2.22223E-01
#           2.27630E-01  2.33169E-01  2.38842E-01  2.44653E-01  2.50605E-01
#           2.56703E-01  2.62949E-01  2.69346E-01  2.75900E-01  2.82613E-01
#           2.89489E-01  2.96532E-01  3.03747E-01  3.11138E-01  3.18708E-01
#           3.26462E-01  3.34405E-01  3.42542E-01  3.50876E-01  3.59413E-01
#           3.68158E-01  3.77116E-01  3.86291E-01  3.95690E-01  4.05317E-01
#           4.15179E-01  4.25281E-01  4.35628E-01  4.46227E-01  4.57084E-01
#           4.68205E-01  4.79597E-01  4.91266E-01  5.03219E-01  5.15463E-01
#           5.28005E-01  5.40851E-01  5.54011E-01  5.67490E-01  5.81298E-01
#           5.95441E-01  6.09929E-01  6.24769E-01  6.39970E-01  6.55541E-01
#           6.71491E-01  6.87828E-01  7.04564E-01  7.21706E-01  7.39266E-01
#           7.57253E-01  7.75678E-01  7.94551E-01  8.13883E-01  8.33685E-01
#           8.53969E-01  8.74747E-01  8.96030E-01  9.17831E-01  9.40163E-01
#           9.63038E-01  9.86469E-01  1.01047E+00  1.03506E+00  1.06024E+00
#           1.08604E+00  1.11246E+00  1.13953E+00  1.16725E+00  1.19565E+00
#           1.22474E+00  1.25454E+00  1.28507E+00  1.31633E+00  1.34836E+00
#           1.38117E+00  1.41477E+00  1.44920E+00  1.48446E+00  1.52057E+00
#           1.55757E+00  1.59547E+00  1.63429E+00  1.67405E+00  1.71478E+00
#           1.75650E+00  1.79924E+00  1.84302E+00  1.88786E+00  1.93379E+00
#           1.98084E+00  2.02904E+00  2.07841E+00  2.12898E+00  2.18078E+00
#           2.23384E+00  2.28819E+00  2.34386E+00  2.40089E+00  2.45930E+00
#           2.51914E+00  2.58043E+00  2.64322E+00  2.70753E+00  2.77341E+00
#           2.84088E+00  2.91001E+00  2.98081E+00  3.05333E+00  3.12762E+00
#           3.20372E+00  3.28167E+00  3.36152E+00  3.44330E+00  3.52708E+00
#           3.61290E+00  3.70080E+00  3.79085E+00  3.88308E+00  3.97756E+00
#           4.07434E+00  4.17347E+00  4.27501E+00  4.37903E+00  4.48557E+00
#           4.59471E+00  4.70650E+00  4.82102E+00  4.93832E+00  5.05847E+00
#           5.18155E+00  5.30762E+00  5.43676E+00  5.56904E+00  5.70453E+00
#           5.84333E+00  5.98550E+00  6.13114E+00  6.28031E+00  6.43312E+00
#           6.58964E+00  6.74997E+00  6.91420E+00  7.08243E+00  7.25475E+00
#           7.43126E+00  7.61207E+00  7.79728E+00  7.98700E+00  8.18133E+00
#           8.38038E+00  8.58428E+00  8.79315E+00  9.00709E+00  9.22624E+00
#           9.45072E+00  9.68067E+00  9.91620E+00  1.01575E+01  1.04046E+01
#           1.06578E+01  1.09171E+01  1.11827E+01  1.14548E+01  1.17335E+01
#           1.20190E+01  1.23114E+01  1.26109E+01  1.29178E+01  1.32321E+01
#           1.35540E+01  1.38838E+01  1.42216E+01  1.45676E+01  1.49221E+01
#           1.52851E+01  1.56570E+01  1.60380E+01  1.64282E+01  1.68279E+01
#           1.72374E+01  1.76568E+01  1.80864E+01  1.85264E+01  1.89772E+01
#           1.94389E+01  1.99119E+01  2.03963E+01  2.08926E+01  2.14009E+01
#           2.19216E+01  2.24550E+01  2.30014E+01  2.35610E+01  2.41343E+01
#           2.47215E+01  2.53230E+01  2.59391E+01  2.65702E+01  2.72167E+01
#           2.78789E+01  2.85572E+01  2.92520E+01  2.99637E+01  3.06928E+01
#           3.14396E+01  3.22045E+01  3.29881E+01  3.37907E+01  3.46128E+01
#           3.54550E+01  3.63177E+01  3.72013E+01  3.81064E+01  3.90336E+01
#           3.99833E+01  4.09561E+01  4.19526E+01  4.29734E+01  4.40189E+01
#           4.50900E+01  4.61870E+01  4.73108E+01  4.84619E+01  4.96410E+01
#           5.08488E+01  5.20860E+01  5.33533E+01  5.46514E+01  5.59812E+01
#           5.73432E+01  5.87384E+01  6.01676E+01  6.16315E+01  6.31311E+01
#           6.46671E+01  6.62405E+01  6.78522E+01  6.95031E+01  7.11941E+01
#           7.29263E+01  7.47007E+01  7.65182E+01  7.83800E+01  8.02870E+01
#           8.22405E+01  8.42414E+01  8.62911E+01  8.83906E+01  9.05412E+01
#           9.27442E+01  9.50007E+01  9.73122E+01  9.96799E+01  1.02105E+02
#           1.04589E+02  1.07134E+02  1.09741E+02  1.12411E+02  1.15146E+02
#           1.17948E+02  1.20817E+02  1.23757E+02  1.26768E+02  1.29852E+02
#           1.33012E+02  1.36248E+02  1.39563E+02  1.42959E+02  1.46437E+02
#           1.50000E+02
     unit =    2            # unit is [1/cm^2/(MeV/n)/source]
     axis =  eng            # axis of output
     file = detector-26.out  # file name of output for the above axis
   output = f-curr          # surface crossing forward current spectrum
     part =  neutron  
# kf/name :  2112     
#    used :        main (  %)        temp (  %)       total (  %)
#  memory :         414 (  0)           0 (  0)         414 (  0)

#------------------------------------------------------------------------------
#newpage:
#   no. =    1   reg = 125 - 225

x: Energy [MeV/n]
y:  F-Curr [1/cm^2/(MeV/n)/source]         
p: xlog ylog afac(0.8) form(0.9)
h: n            x            y(neutron ),hh0l   n 
#  e-lower      e-upper      neutron     r.err 
   1.0000E-02   1.0243E-02   9.2927E-05  0.0939
   1.0243E-02   1.0493E-02   8.1787E-05  0.0990
   1.0493E-02   1.0748E-02   9.3075E-05  0.0917
   1.0748E-02   1.1009E-02   8.6366E-05  0.0941
   1.1009E-02   1.1277E-02   9.2966E-05  0.0895
   1.1277E-02   1.1552E-02   9.0898E-05  0.0894
   1.1552E-02   1.1833E-02   8.2543E-05  0.0927
   1.1833E-02   1.2121E-02   8.0381E-05  0.0927
   1.2121E-02   1.2415E-02   7.3121E-05  0.0962
   1.2415E-02   1.2718E-02   7.2530E-05  0.0954
   1.2718E-02   1.3027E-02   7.7305E-05  0.0913
   1.3027E-02   1.3344E-02   7.9785E-05  0.0888
   1.3344E-02   1.3669E-02   7.6953E-05  0.0894
   1.3669E-02   1.4001E-02   8.0547E-05  0.0864
   1.4001E-02   1.4342E-02   7.8018E-05  0.0867
   1.4342E-02   1.4691E-02   7.1022E-05  0.0898
   1.4691E-02   1.5048E-02   7.5445E-05  0.0861
   1.5048E-02   1.5414E-02   6.3108E-05  0.0929
   1.5414E-02   1.5789E-02   7.9863E-05  0.0816
   1.5789E-02   1.6174E-02   7.3205E-05  0.0839
   1.6174E-02   1.6567E-02   7.2063E-05  0.0839
   1.6567E-02   1.6970E-02   6.4019E-05  0.0879
   1.6970E-02   1.7383E-02   5.9035E-05  0.0904
   1.7383E-02   1.7806E-02   6.5586E-05  0.0848
   1.7806E-02   1.8239E-02   6.1627E-05  0.0864
   1.8239E-02   1.8683E-02   6.7011E-05  0.0819
   1.8683E-02   1.9138E-02   5.7127E-05  0.0877
   1.9138E-02   1.9603E-02   5.1104E-05  0.0914
   1.9603E-02   2.0080E-02   4.3214E-05  0.0983
   2.0080E-02   2.0569E-02   5.7149E-05  0.0845
   2.0569E-02   2.1069E-02   5.7872E-05  0.0830
   2.1069E-02   2.1582E-02   4.8694E-05  0.0894
   2.1582E-02   2.2107E-02   6.1091E-05  0.0788
   2.2107E-02   2.2645E-02   5.5201E-05  0.0819
   2.2645E-02   2.3196E-02   5.5587E-05  0.0806
   2.3196E-02   2.3760E-02   5.5933E-05  0.0796
   2.3760E-02   2.4338E-02   4.4730E-05  0.0878
   2.4338E-02   2.4930E-02   4.2817E-05  0.0887
   2.4930E-02   2.5537E-02   4.5578E-05  0.0849
   2.5537E-02   2.6158E-02   4.4067E-05  0.0854
   2.6158E-02   2.6795E-02   4.3695E-05  0.0847
   2.6795E-02   2.7447E-02   4.2898E-05  0.0845
   2.7447E-02   2.8114E-02   3.9406E-05  0.0871
   2.8114E-02   2.8799E-02   3.8790E-05  0.0867
   2.8799E-02   2.9499E-02   4.2363E-05  0.0819
   2.9499E-02   3.0217E-02   3.8983E-05  0.0845
   3.0217E-02   3.0952E-02   3.6151E-05  0.0867
   3.0952E-02   3.1705E-02   4.2724E-05  0.0788
   3.1705E-02   3.2477E-02   4.2484E-05  0.0781
   3.2477E-02   3.3267E-02   3.7868E-05  0.0817
   3.3267E-02   3.4076E-02   3.4805E-05  0.0842
   3.4076E-02   3.4905E-02   3.1288E-05  0.0877
   3.4905E-02   3.5755E-02   3.8125E-05  0.0786
   3.5755E-02   3.6625E-02   3.2112E-05  0.0845
   3.6625E-02   3.7516E-02   3.0656E-05  0.0853
   3.7516E-02   3.8428E-02   2.8564E-05  0.0875
   3.8428E-02   3.9363E-02   2.9356E-05  0.0852
   3.9363E-02   4.0321E-02   3.2173E-05  0.0805
   4.0321E-02   4.1302E-02   3.2837E-05  0.0787
   4.1302E-02   4.2307E-02   3.1536E-05  0.0793
   4.2307E-02   4.3337E-02   3.0631E-05  0.0796
   4.3337E-02   4.4391E-02   2.8275E-05  0.0818
   4.4391E-02   4.5471E-02   2.8825E-05  0.0800
   4.5471E-02   4.6577E-02   2.5608E-05  0.0839
   4.6577E-02   4.7711E-02   2.4377E-05  0.0850
   4.7711E-02   4.8871E-02   2.4989E-05  0.0829
   4.8871E-02   5.0061E-02   2.4147E-05  0.0834
   5.0061E-02   5.1279E-02   2.1976E-05  0.0864
   5.1279E-02   5.2526E-02   2.2479E-05  0.0843
   5.2526E-02   5.3804E-02   2.2204E-05  0.0839
   5.3804E-02   5.5113E-02   2.4974E-05  0.0781
   5.5113E-02   5.6454E-02   2.1999E-05  0.0822
   5.6454E-02   5.7828E-02   2.2837E-05  0.0798
   5.7828E-02   5.9235E-02   2.0352E-05  0.0834
   5.9235E-02   6.0676E-02   2.0763E-05  0.0817
   6.0676E-02   6.2152E-02   1.9484E-05  0.0833
   6.2152E-02   6.3665E-02   2.0173E-05  0.0809
   6.3665E-02   6.5214E-02   1.9099E-05  0.0819
   6.5214E-02   6.6800E-02   1.8963E-05  0.0814
   6.6800E-02   6.8426E-02   1.7748E-05  0.0832
   6.8426E-02   7.0090E-02   1.8261E-05  0.0810
   7.0090E-02   7.1796E-02   1.6948E-05  0.0831
   7.1796E-02   7.3543E-02   1.8626E-05  0.0782
   7.3543E-02   7.5332E-02   1.4931E-05  0.0864
   7.5332E-02   7.7165E-02   1.4606E-05  0.0864
   7.7165E-02   7.9042E-02   1.7942E-05  0.0769
   7.9042E-02   8.0965E-02   1.6261E-05  0.0798
   8.0965E-02   8.2935E-02   1.6235E-05  0.0789
   8.2935E-02   8.4953E-02   1.3850E-05  0.0845
   8.4953E-02   8.7020E-02   1.5823E-05  0.0781
   8.7020E-02   8.9138E-02   1.2617E-05  0.0864
   8.9138E-02   9.1306E-02   1.4075E-05  0.0809
   9.1306E-02   9.3528E-02   1.5092E-05  0.0771
   9.3528E-02   9.5804E-02   1.4526E-05  0.0776
   9.5804E-02   9.8134E-02   1.1312E-05  0.0870
   9.8134E-02   1.0052E-01   1.4369E-05  0.0763
   1.0052E-01   1.0297E-01   1.3942E-05  0.0764
   1.0297E-01   1.0547E-01   1.4579E-05  0.0739
   1.0547E-01   1.0804E-01   1.3965E-05  0.0746
   1.0804E-01   1.1067E-01   1.4901E-05  0.0713
   1.1067E-01   1.1336E-01   1.5740E-05  0.0685
   1.1336E-01   1.1612E-01   1.6502E-05  0.0662
   1.1612E-01   1.1894E-01   1.5707E-05  0.0670
   1.1894E-01   1.2184E-01   1.5296E-05  0.0671
   1.2184E-01   1.2480E-01   1.6958E-05  0.0630
   1.2480E-01   1.2784E-01   1.7045E-05  0.0620
   1.2784E-01   1.3095E-01   1.6789E-05  0.0618
   1.3095E-01   1.3414E-01   1.7118E-05  0.0605
   1.3414E-01   1.3740E-01   1.6858E-05  0.0602
   1.3740E-01   1.4074E-01   1.9262E-05  0.0556
   1.4074E-01   1.4417E-01   2.1471E-05  0.0521
   1.4417E-01   1.4767E-01   2.0172E-05  0.0531
   1.4767E-01   1.5127E-01   2.0620E-05  0.0519
   1.5127E-01   1.5495E-01   2.2532E-05  0.0490
   1.5495E-01   1.5872E-01   2.1808E-05  0.0492
   1.5872E-01   1.6258E-01   2.2028E-05  0.0484
   1.6258E-01   1.6654E-01   2.1382E-05  0.0486
   1.6654E-01   1.7059E-01   2.3397E-05  0.0459
   1.7059E-01   1.7474E-01   2.4837E-05  0.0440
   1.7474E-01   1.7899E-01   2.4379E-05  0.0438
   1.7899E-01   1.8334E-01   2.6695E-05  0.0414
   1.8334E-01   1.8781E-01   2.6655E-05  0.0409
   1.8781E-01   1.9237E-01   2.5229E-05  0.0416
   1.9237E-01   1.9706E-01   2.8121E-05  0.0389
   1.9706E-01   2.0185E-01   2.7459E-05  0.0389
   2.0185E-01   2.0676E-01   2.7106E-05  0.0387
   2.0676E-01   2.1179E-01   2.6745E-05  0.0385
   2.1179E-01   2.1694E-01   2.8517E-05  0.0368
   2.1694E-01   2.2222E-01   2.7925E-05  0.0368
   2.2222E-01   2.2763E-01   2.8541E-05  0.0359
   2.2763E-01   2.3317E-01   2.9689E-05  0.0348
   2.3317E-01   2.3884E-01   2.9579E-05  0.0345
   2.3884E-01   2.4465E-01   2.9418E-05  0.0341
   2.4465E-01   2.5061E-01   2.8506E-05  0.0343
   2.5061E-01   2.5670E-01   3.0501E-05  0.0327
   2.5670E-01   2.6295E-01   3.1187E-05  0.0320
   2.6295E-01   2.6935E-01   3.3466E-05  0.0305
   2.6935E-01   2.7590E-01   3.3710E-05  0.0300
   2.7590E-01   2.8261E-01   3.2488E-05  0.0302
   2.8261E-01   2.8949E-01   3.3971E-05  0.0292
   2.8949E-01   2.9653E-01   3.4672E-05  0.0285
   2.9653E-01   3.0375E-01   3.4577E-05  0.0282
   3.0375E-01   3.1114E-01   3.4053E-05  0.0281
   3.1114E-01   3.1871E-01   3.2403E-05  0.0285
   3.1871E-01   3.2646E-01   3.4863E-05  0.0271
   3.2646E-01   3.3441E-01   3.5370E-05  0.0266
   3.3441E-01   3.4254E-01   3.6255E-05  0.0260
   3.4254E-01   3.5088E-01   3.5330E-05  0.0260
   3.5088E-01   3.5941E-01   3.5471E-05  0.0256
   3.5941E-01   3.6816E-01   3.7529E-05  0.0246
   3.6816E-01   3.7712E-01   3.7141E-05  0.0244
   3.7712E-01   3.8629E-01   3.6390E-05  0.0244
   3.8629E-01   3.9569E-01   3.8388E-05  0.0235
   3.9569E-01   4.0532E-01   3.8131E-05  0.0233
   4.0532E-01   4.1518E-01   3.8697E-05  0.0228
   4.1518E-01   4.2528E-01   3.9372E-05  0.0224
   4.2528E-01   4.3563E-01   3.8709E-05  0.0223
   4.3563E-01   4.4623E-01   3.9331E-05  0.0218
   4.4623E-01   4.5708E-01   3.9053E-05  0.0217
   4.5708E-01   4.6821E-01   3.9836E-05  0.0212
   4.6821E-01   4.7960E-01   3.9471E-05  0.0210
   4.7960E-01   4.9127E-01   3.7964E-05  0.0212
   4.9127E-01   5.0322E-01   4.0842E-05  0.0202
   5.0322E-01   5.1546E-01   3.9879E-05  0.0202
   5.1546E-01   5.2800E-01   4.0234E-05  0.0198
   5.2800E-01   5.4085E-01   4.0728E-05  0.0195
   5.4085E-01   5.5401E-01   3.9944E-05  0.0194
   5.5401E-01   5.6749E-01   4.1044E-05  0.0189
   5.6749E-01   5.8130E-01   4.0294E-05  0.0189
   5.8130E-01   5.9544E-01   4.0313E-05  0.0187
   5.9544E-01   6.0993E-01   4.0525E-05  0.0184
   6.0993E-01   6.2477E-01   4.0729E-05  0.0181
   6.2477E-01   6.3997E-01   4.0135E-05  0.0180
   6.3997E-01   6.5554E-01   4.0594E-05  0.0177
   6.5554E-01   6.7149E-01   3.9871E-05  0.0177
   6.7149E-01   6.8783E-01   4.0581E-05  0.0173
   6.8783E-01   7.0456E-01   4.0710E-05  0.0171
   7.0456E-01   7.2171E-01   3.9023E-05  0.0172
   7.2171E-01   7.3927E-01   3.8634E-05  0.0171
   7.3927E-01   7.5725E-01   3.7614E-05  0.0171
   7.5725E-01   7.7568E-01   3.7239E-05  0.0170
   7.7568E-01   7.9455E-01   3.8940E-05  0.0164
   7.9455E-01   8.1388E-01   3.6980E-05  0.0166
   8.1388E-01   8.3368E-01   3.6628E-05  0.0165
   8.3368E-01   8.5397E-01   3.4911E-05  0.0167
   8.5397E-01   8.7475E-01   3.5196E-05  0.0164
   8.7475E-01   8.9603E-01   3.3564E-05  0.0166
   8.9603E-01   9.1783E-01   3.4115E-05  0.0163
   9.1783E-01   9.4016E-01   3.2829E-05  0.0164
   9.4016E-01   9.6304E-01   3.1875E-05  0.0165
   9.6304E-01   9.8647E-01   3.0211E-05  0.0167
   9.8647E-01   1.0105E+00   2.9346E-05  0.0167
   1.0105E+00   1.0351E+00   2.7491E-05  0.0171
   1.0351E+00   1.0602E+00   2.7423E-05  0.0169
   1.0602E+00   1.0860E+00   2.6927E-05  0.0168
   1.0860E+00   1.1125E+00   2.7057E-05  0.0166
   1.1125E+00   1.1395E+00   2.6794E-05  0.0165
   1.1395E+00   1.1673E+00   2.6124E-05  0.0165
   1.1673E+00   1.1957E+00   2.4683E-05  0.0167
   1.1957E+00   1.2247E+00   2.6265E-05  0.0160
   1.2247E+00   1.2545E+00   2.5462E-05  0.0161
   1.2545E+00   1.2851E+00   2.4994E-05  0.0160
   1.2851E+00   1.3163E+00   2.4081E-05  0.0161
   1.3163E+00   1.3484E+00   2.3358E-05  0.0161
   1.3484E+00   1.3812E+00   2.1843E-05  0.0165
   1.3812E+00   1.4148E+00   2.2156E-05  0.0161
   1.4148E+00   1.4492E+00   2.2010E-05  0.0160
   1.4492E+00   1.4845E+00   2.1614E-05  0.0159
   1.4845E+00   1.5206E+00   2.1754E-05  0.0157
   1.5206E+00   1.5576E+00   1.9907E-05  0.0162
   1.5576E+00   1.5955E+00   2.0155E-05  0.0159
   1.5955E+00   1.6343E+00   1.9156E-05  0.0161
   1.6343E+00   1.6741E+00   1.8720E-05  0.0161
   1.6741E+00   1.7148E+00   1.8936E-05  0.0157
   1.7148E+00   1.7565E+00   1.8268E-05  0.0158
   1.7565E+00   1.7992E+00   1.6827E-05  0.0163
   1.7992E+00   1.8430E+00   1.6680E-05  0.0161
   1.8430E+00   1.8879E+00   1.6265E-05  0.0161
   1.8879E+00   1.9338E+00   1.5340E-05  0.0164
   1.9338E+00   1.9808E+00   1.4801E-05  0.0165
   1.9808E+00   2.0290E+00   1.4951E-05  0.0162
   2.0290E+00   2.0784E+00   1.4466E-05  0.0163
   2.0784E+00   2.1290E+00   1.4453E-05  0.0161
   2.1290E+00   2.1808E+00   1.3579E-05  0.0164
   2.1808E+00   2.2338E+00   1.3952E-05  0.0160
   2.2338E+00   2.2882E+00   1.3075E-05  0.0163
   2.2882E+00   2.3439E+00   1.3269E-05  0.0160
   2.3439E+00   2.4009E+00   1.2920E-05  0.0161
   2.4009E+00   2.4593E+00   1.2519E-05  0.0161
   2.4593E+00   2.5191E+00   1.2210E-05  0.0162
   2.5191E+00   2.5804E+00   1.1663E-05  0.0163
   2.5804E+00   2.6432E+00   1.1581E-05  0.0162
   2.6432E+00   2.7075E+00   1.1300E-05  0.0162
   2.7075E+00   2.7734E+00   1.0805E-05  0.0164
   2.7734E+00   2.8409E+00   1.0562E-05  0.0164
   2.8409E+00   2.9100E+00   1.0286E-05  0.0164
   2.9100E+00   2.9808E+00   1.0037E-05  0.0164
   2.9808E+00   3.0533E+00   9.6337E-06  0.0166
   3.0533E+00   3.1276E+00   9.6469E-06  0.0164
   3.1276E+00   3.2037E+00   9.3791E-06  0.0164
   3.2037E+00   3.2817E+00   8.6170E-06  0.0169
   3.2817E+00   3.3615E+00   8.8271E-06  0.0165
   3.3615E+00   3.4433E+00   8.3046E-06  0.0168
   3.4433E+00   3.5271E+00   7.8131E-06  0.0172
   3.5271E+00   3.6129E+00   7.6938E-06  0.0171
   3.6129E+00   3.7008E+00   7.7034E-06  0.0169
   3.7008E+00   3.7908E+00   7.3563E-06  0.0171
   3.7908E+00   3.8831E+00   7.2696E-06  0.0170
   3.8831E+00   3.9776E+00   6.9768E-06  0.0171
   3.9776E+00   4.0743E+00   6.6118E-06  0.0174
   4.0743E+00   4.1735E+00   6.2736E-06  0.0176
   4.1735E+00   4.2750E+00   6.3904E-06  0.0173
   4.2750E+00   4.3790E+00   6.3040E-06  0.0172
   4.3790E+00   4.4856E+00   5.6356E-06  0.0180
   4.4856E+00   4.5947E+00   5.4893E-06  0.0180
   4.5947E+00   4.7065E+00   5.2598E-06  0.0181
   4.7065E+00   4.8210E+00   4.8442E-06  0.0187
   4.8210E+00   4.9383E+00   4.9623E-06  0.0183
   4.9383E+00   5.0585E+00   4.6822E-06  0.0185
   5.0585E+00   5.1815E+00   4.3504E-06  0.0190
   5.1815E+00   5.3076E+00   4.2088E-06  0.0191
   5.3076E+00   5.4368E+00   3.9744E-06  0.0194
   5.4368E+00   5.5690E+00   3.8899E-06  0.0194
   5.5690E+00   5.7045E+00   3.6927E-06  0.0197
   5.7045E+00   5.8433E+00   3.4897E-06  0.0200
   5.8433E+00   5.9855E+00   3.2017E-06  0.0207
   5.9855E+00   6.1311E+00   3.0793E-06  0.0209
   6.1311E+00   6.2803E+00   2.9137E-06  0.0212
   6.2803E+00   6.4331E+00   2.7072E-06  0.0217
   6.4331E+00   6.5896E+00   2.4720E-06  0.0225
   6.5896E+00   6.7500E+00   2.3168E-06  0.0230
   6.7500E+00   6.9142E+00   2.0313E-06  0.0242
   6.9142E+00   7.0824E+00   1.8038E-06  0.0254
   7.0824E+00   7.2548E+00   1.6431E-06  0.0263
   7.2548E+00   7.4313E+00   1.5188E-06  0.0270
   7.4313E+00   7.6121E+00   1.4366E-06  0.0274
   7.6121E+00   7.7973E+00   1.3215E-06  0.0283
   7.7973E+00   7.9870E+00   1.1976E-06  0.0294
   7.9870E+00   8.1813E+00   1.1290E-06  0.0299
   8.1813E+00   8.3804E+00   1.0416E-06  0.0308
   8.3804E+00   8.5843E+00   9.5163E-07  0.0318
   8.5843E+00   8.7931E+00   8.5254E-07  0.0332
   8.7931E+00   9.0071E+00   8.1156E-07  0.0337
   9.0071E+00   9.2262E+00   7.4447E-07  0.0347
   9.2262E+00   9.4507E+00   6.8308E-07  0.0358
   9.4507E+00   9.6807E+00   6.1777E-07  0.0372
   9.6807E+00   9.9162E+00   5.9392E-07  0.0375
   9.9162E+00   1.0157E+01   5.0698E-07  0.0401
   1.0157E+01   1.0405E+01   4.5824E-07  0.0418
   1.0405E+01   1.0658E+01   4.5587E-07  0.0414
   1.0658E+01   1.0917E+01   3.9285E-07  0.0440
   1.0917E+01   1.1183E+01   3.5882E-07  0.0454
   1.1183E+01   1.1455E+01   3.4247E-07  0.0462
   1.1455E+01   1.1733E+01   3.0120E-07  0.0485
   1.1733E+01   1.2019E+01   2.8759E-07  0.0491
   1.2019E+01   1.2311E+01   2.5998E-07  0.0511
   1.2311E+01   1.2611E+01   2.3661E-07  0.0529
   1.2611E+01   1.2918E+01   2.2835E-07  0.0532
   1.2918E+01   1.3232E+01   1.8738E-07  0.0580
   1.3232E+01   1.3554E+01   1.7221E-07  0.0599
   1.3554E+01   1.3884E+01   1.5767E-07  0.0617
   1.3884E+01   1.4222E+01   1.5304E-07  0.0620
   1.4222E+01   1.4568E+01   1.4789E-07  0.0622
   1.4568E+01   1.4922E+01   1.1292E-07  0.0703
   1.4922E+01   1.5285E+01   1.0794E-07  0.0713
   1.5285E+01   1.5657E+01   8.6825E-08  0.0786
   1.5657E+01   1.6038E+01   8.5506E-08  0.0780
   1.6038E+01   1.6428E+01   7.5855E-08  0.0822
   1.6428E+01   1.6828E+01   7.0285E-08  0.0842
   1.6828E+01   1.7237E+01   5.9594E-08  0.0905
   1.7237E+01   1.7657E+01   5.2456E-08  0.0953
   1.7657E+01   1.8086E+01   4.8417E-08  0.0981
   1.8086E+01   1.8526E+01   4.7721E-08  0.0976
   1.8526E+01   1.8977E+01   3.8601E-08  0.1072
   1.8977E+01   1.9439E+01   3.2053E-08  0.1162
   1.9439E+01   1.9912E+01   2.7909E-08  0.1231
   1.9912E+01   2.0396E+01   2.9310E-08  0.1187
   2.0396E+01   2.0893E+01   1.7330E-08  0.1525
   2.0893E+01   2.1401E+01   1.8492E-08  0.1459
   2.1401E+01   2.1922E+01   1.1907E-08  0.1796
   2.1922E+01   2.2455E+01   1.4999E-08  0.1581
   2.2455E+01   2.3001E+01   1.6107E-08  0.1508
   2.3001E+01   2.3561E+01   1.0364E-08  0.1857
   2.3561E+01   2.4134E+01   6.6288E-09  0.2294
   2.4134E+01   2.4721E+01   7.4931E-09  0.2132
   2.4721E+01   2.5323E+01   3.9901E-09  0.2887
   2.5323E+01   2.5939E+01   2.2723E-09  0.3780
   2.5939E+01   2.6570E+01   6.3380E-10  0.7071
   2.6570E+01   2.7217E+01   9.2811E-10  0.5774
   2.7217E+01   2.7879E+01   1.5101E-09  0.4472
   2.7879E+01   2.8557E+01   8.8454E-10  0.5774
   2.8557E+01   2.9252E+01   2.8784E-10  1.0000
   2.9252E+01   2.9964E+01   8.4302E-10  0.5774
   2.9964E+01   3.0693E+01   2.7433E-10  1.0000
   3.0693E+01   3.1440E+01   2.6782E-10  1.0000
   3.1440E+01   3.2205E+01   5.2291E-10  0.7071
   3.2205E+01   3.2988E+01   0.0000E+00  0.0000
   3.2988E+01   3.3791E+01   0.0000E+00  0.0000
   3.3791E+01   3.4613E+01   2.4326E-10  1.0000
   3.4613E+01   3.5455E+01   0.0000E+00  0.0000
   3.5455E+01   3.6318E+01   0.0000E+00  0.0000
   3.6318E+01   3.7201E+01   0.0000E+00  0.0000
   3.7201E+01   3.8106E+01   0.0000E+00  0.0000
   3.8106E+01   3.9034E+01   0.0000E+00  0.0000
   3.9034E+01   3.9983E+01   0.0000E+00  0.0000
   3.9983E+01   4.0956E+01   0.0000E+00  0.0000
   4.0956E+01   4.1953E+01   0.0000E+00  0.0000
   4.1953E+01   4.2973E+01   0.0000E+00  0.0000
   4.2973E+01   4.4019E+01   0.0000E+00  0.0000
   4.4019E+01   4.5090E+01   0.0000E+00  0.0000
   4.5090E+01   4.6187E+01   0.0000E+00  0.0000
   4.6187E+01   4.7311E+01   0.0000E+00  0.0000
   4.7311E+01   4.8462E+01   0.0000E+00  0.0000
   4.8462E+01   4.9641E+01   0.0000E+00  0.0000
   4.9641E+01   5.0849E+01   0.0000E+00  0.0000
   5.0849E+01   5.2086E+01   0.0000E+00  0.0000
   5.2086E+01   5.3353E+01   0.0000E+00  0.0000
   5.3353E+01   5.4651E+01   0.0000E+00  0.0000
   5.4651E+01   5.5981E+01   0.0000E+00  0.0000
   5.5981E+01   5.7343E+01   0.0000E+00  0.0000
   5.7343E+01   5.8738E+01   0.0000E+00  0.0000
   5.8738E+01   6.0168E+01   0.0000E+00  0.0000
   6.0168E+01   6.1632E+01   0.0000E+00  0.0000
   6.1632E+01   6.3131E+01   0.0000E+00  0.0000
   6.3131E+01   6.4667E+01   0.0000E+00  0.0000
   6.4667E+01   6.6240E+01   0.0000E+00  0.0000
   6.6240E+01   6.7852E+01   0.0000E+00  0.0000
   6.7852E+01   6.9503E+01   0.0000E+00  0.0000
   6.9503E+01   7.1194E+01   0.0000E+00  0.0000
   7.1194E+01   7.2926E+01   0.0000E+00  0.0000
   7.2926E+01   7.4701E+01   0.0000E+00  0.0000
   7.4701E+01   7.6518E+01   0.0000E+00  0.0000
   7.6518E+01   7.8380E+01   0.0000E+00  0.0000
   7.8380E+01   8.0287E+01   0.0000E+00  0.0000
   8.0287E+01   8.2240E+01   0.0000E+00  0.0000
   8.2240E+01   8.4241E+01   0.0000E+00  0.0000
   8.4241E+01   8.6291E+01   0.0000E+00  0.0000
   8.6291E+01   8.8391E+01   0.0000E+00  0.0000
   8.8391E+01   9.0541E+01   0.0000E+00  0.0000
   9.0541E+01   9.2744E+01   0.0000E+00  0.0000
   9.2744E+01   9.5001E+01   0.0000E+00  0.0000
   9.5001E+01   9.7312E+01   0.0000E+00  0.0000
   9.7312E+01   9.9680E+01   0.0000E+00  0.0000
   9.9680E+01   1.0211E+02   0.0000E+00  0.0000
   1.0211E+02   1.0459E+02   0.0000E+00  0.0000
   1.0459E+02   1.0713E+02   0.0000E+00  0.0000
   1.0713E+02   1.0974E+02   0.0000E+00  0.0000
   1.0974E+02   1.1241E+02   0.0000E+00  0.0000
   1.1241E+02   1.1515E+02   0.0000E+00  0.0000
   1.1515E+02   1.1795E+02   0.0000E+00  0.0000
   1.1795E+02   1.2082E+02   0.0000E+00  0.0000
   1.2082E+02   1.2376E+02   0.0000E+00  0.0000
   1.2376E+02   1.2677E+02   0.0000E+00  0.0000
   1.2677E+02   1.2985E+02   0.0000E+00  0.0000
   1.2985E+02   1.3301E+02   0.0000E+00  0.0000
   1.3301E+02   1.3625E+02   0.0000E+00  0.0000
   1.3625E+02   1.3956E+02   0.0000E+00  0.0000
   1.3956E+02   1.4296E+02   0.0000E+00  0.0000
   1.4296E+02   1.4644E+02   0.0000E+00  0.0000
   1.4644E+02   1.5000E+02   0.0000E+00  0.0000

#   sum over                 6.1418E-07
'no. =    1   reg = 125 - 225'
msuc: {\huge [t-cross] in region mesh}
msdr: {\it plotted by \ANGEL \version}
msdl: {\it calculated by \PHITS  3.26}
wt: s(0.7)
\vspace{-3}
  region surface crossing
  area  &=&   1.0000E+00 [cm^2]
e:
 
# Information for Restart Calculation
# This calculation was newly started
# istdev =  2 # 1:Batch variance, 2:History variance
# resc2  = 5.00000000000000000E+09 # Total source weight or Total source weight / maxcas
# resc3  = 5.00000000000000000E+09 # Total history number or Total batch number
# maxcas =   100000000 # History / Batch, only used for istdev=1
# bitrseed = 0110100000100010111000001110001111001110100100011111101000111001 # bit data of rseed
