3 <--- number of remaining batches 

-------------------------------------------------------------------------------
bat[       7] ncas =     3500000000.
 bitrseed = 0110110011111001100110101011100000010010001000001101100100111101
          cpu time =  13 h. 14 m.  7.48 s.

 date = 2022-06-08
 time = 12h 11m 49s

