[ T-Cross ]
    title = [t-cross] in region mesh
     mesh =  reg            # mesh type is region-wise
      reg =    1            # number of crossing regions
      non     r-from    r-to       area
      1       111       211        1.000000    
   e-type =    3            # e-mesh is log given by emin, emax and ne
     emin =  1.0000000E-02  # minimum value of e-mesh points
     emax =   150.0000      # maximum value of e-mesh points
#    edel =  2.4039514E-02  # mesh width of e-mesh points
       ne =    400          # number of e-mesh points
#    data = ( e(i), i = 1, ne + 1 )
#           1.00000E-02  1.02433E-02  1.04925E-02  1.07478E-02  1.10093E-02
#           1.12772E-02  1.15516E-02  1.18326E-02  1.21205E-02  1.24154E-02
#           1.27175E-02  1.30269E-02  1.33439E-02  1.36686E-02  1.40011E-02
#           1.43418E-02  1.46907E-02  1.50482E-02  1.54143E-02  1.57894E-02
#           1.61735E-02  1.65670E-02  1.69701E-02  1.73830E-02  1.78060E-02
#           1.82392E-02  1.86830E-02  1.91375E-02  1.96032E-02  2.00801E-02
#           2.05687E-02  2.10692E-02  2.15818E-02  2.21069E-02  2.26448E-02
#           2.31957E-02  2.37601E-02  2.43382E-02  2.49304E-02  2.55369E-02
#           2.61583E-02  2.67947E-02  2.74467E-02  2.81145E-02  2.87985E-02
#           2.94992E-02  3.02169E-02  3.09521E-02  3.17052E-02  3.24766E-02
#           3.32668E-02  3.40762E-02  3.49053E-02  3.57546E-02  3.66246E-02
#           3.75157E-02  3.84284E-02  3.93634E-02  4.03212E-02  4.13022E-02
#           4.23071E-02  4.33365E-02  4.43909E-02  4.54710E-02  4.65773E-02
#           4.77106E-02  4.88714E-02  5.00605E-02  5.12785E-02  5.25262E-02
#           5.38042E-02  5.51133E-02  5.64542E-02  5.78278E-02  5.92348E-02
#           6.06760E-02  6.21523E-02  6.36645E-02  6.52135E-02  6.68002E-02
#           6.84255E-02  7.00904E-02  7.17957E-02  7.35426E-02  7.53319E-02
#           7.71648E-02  7.90423E-02  8.09655E-02  8.29354E-02  8.49533E-02
#           8.70203E-02  8.91376E-02  9.13064E-02  9.35279E-02  9.58035E-02
#           9.81345E-02  1.00522E-01  1.02968E-01  1.05473E-01  1.08040E-01
#           1.10668E-01  1.13361E-01  1.16119E-01  1.18944E-01  1.21838E-01
#           1.24803E-01  1.27839E-01  1.30950E-01  1.34136E-01  1.37399E-01
#           1.40742E-01  1.44167E-01  1.47675E-01  1.51268E-01  1.54948E-01
#           1.58718E-01  1.62580E-01  1.66535E-01  1.70587E-01  1.74738E-01
#           1.78989E-01  1.83344E-01  1.87805E-01  1.92375E-01  1.97055E-01
#           2.01850E-01  2.06761E-01  2.11792E-01  2.16945E-01  2.22223E-01
#           2.27630E-01  2.33169E-01  2.38842E-01  2.44653E-01  2.50605E-01
#           2.56703E-01  2.62949E-01  2.69346E-01  2.75900E-01  2.82613E-01
#           2.89489E-01  2.96532E-01  3.03747E-01  3.11138E-01  3.18708E-01
#           3.26462E-01  3.34405E-01  3.42542E-01  3.50876E-01  3.59413E-01
#           3.68158E-01  3.77116E-01  3.86291E-01  3.95690E-01  4.05317E-01
#           4.15179E-01  4.25281E-01  4.35628E-01  4.46227E-01  4.57084E-01
#           4.68205E-01  4.79597E-01  4.91266E-01  5.03219E-01  5.15463E-01
#           5.28005E-01  5.40851E-01  5.54011E-01  5.67490E-01  5.81298E-01
#           5.95441E-01  6.09929E-01  6.24769E-01  6.39970E-01  6.55541E-01
#           6.71491E-01  6.87828E-01  7.04564E-01  7.21706E-01  7.39266E-01
#           7.57253E-01  7.75678E-01  7.94551E-01  8.13883E-01  8.33685E-01
#           8.53969E-01  8.74747E-01  8.96030E-01  9.17831E-01  9.40163E-01
#           9.63038E-01  9.86469E-01  1.01047E+00  1.03506E+00  1.06024E+00
#           1.08604E+00  1.11246E+00  1.13953E+00  1.16725E+00  1.19565E+00
#           1.22474E+00  1.25454E+00  1.28507E+00  1.31633E+00  1.34836E+00
#           1.38117E+00  1.41477E+00  1.44920E+00  1.48446E+00  1.52057E+00
#           1.55757E+00  1.59547E+00  1.63429E+00  1.67405E+00  1.71478E+00
#           1.75650E+00  1.79924E+00  1.84302E+00  1.88786E+00  1.93379E+00
#           1.98084E+00  2.02904E+00  2.07841E+00  2.12898E+00  2.18078E+00
#           2.23384E+00  2.28819E+00  2.34386E+00  2.40089E+00  2.45930E+00
#           2.51914E+00  2.58043E+00  2.64322E+00  2.70753E+00  2.77341E+00
#           2.84088E+00  2.91001E+00  2.98081E+00  3.05333E+00  3.12762E+00
#           3.20372E+00  3.28167E+00  3.36152E+00  3.44330E+00  3.52708E+00
#           3.61290E+00  3.70080E+00  3.79085E+00  3.88308E+00  3.97756E+00
#           4.07434E+00  4.17347E+00  4.27501E+00  4.37903E+00  4.48557E+00
#           4.59471E+00  4.70650E+00  4.82102E+00  4.93832E+00  5.05847E+00
#           5.18155E+00  5.30762E+00  5.43676E+00  5.56904E+00  5.70453E+00
#           5.84333E+00  5.98550E+00  6.13114E+00  6.28031E+00  6.43312E+00
#           6.58964E+00  6.74997E+00  6.91420E+00  7.08243E+00  7.25475E+00
#           7.43126E+00  7.61207E+00  7.79728E+00  7.98700E+00  8.18133E+00
#           8.38038E+00  8.58428E+00  8.79315E+00  9.00709E+00  9.22624E+00
#           9.45072E+00  9.68067E+00  9.91620E+00  1.01575E+01  1.04046E+01
#           1.06578E+01  1.09171E+01  1.11827E+01  1.14548E+01  1.17335E+01
#           1.20190E+01  1.23114E+01  1.26109E+01  1.29178E+01  1.32321E+01
#           1.35540E+01  1.38838E+01  1.42216E+01  1.45676E+01  1.49221E+01
#           1.52851E+01  1.56570E+01  1.60380E+01  1.64282E+01  1.68279E+01
#           1.72374E+01  1.76568E+01  1.80864E+01  1.85264E+01  1.89772E+01
#           1.94389E+01  1.99119E+01  2.03963E+01  2.08926E+01  2.14009E+01
#           2.19216E+01  2.24550E+01  2.30014E+01  2.35610E+01  2.41343E+01
#           2.47215E+01  2.53230E+01  2.59391E+01  2.65702E+01  2.72167E+01
#           2.78789E+01  2.85572E+01  2.92520E+01  2.99637E+01  3.06928E+01
#           3.14396E+01  3.22045E+01  3.29881E+01  3.37907E+01  3.46128E+01
#           3.54550E+01  3.63177E+01  3.72013E+01  3.81064E+01  3.90336E+01
#           3.99833E+01  4.09561E+01  4.19526E+01  4.29734E+01  4.40189E+01
#           4.50900E+01  4.61870E+01  4.73108E+01  4.84619E+01  4.96410E+01
#           5.08488E+01  5.20860E+01  5.33533E+01  5.46514E+01  5.59812E+01
#           5.73432E+01  5.87384E+01  6.01676E+01  6.16315E+01  6.31311E+01
#           6.46671E+01  6.62405E+01  6.78522E+01  6.95031E+01  7.11941E+01
#           7.29263E+01  7.47007E+01  7.65182E+01  7.83800E+01  8.02870E+01
#           8.22405E+01  8.42414E+01  8.62911E+01  8.83906E+01  9.05412E+01
#           9.27442E+01  9.50007E+01  9.73122E+01  9.96799E+01  1.02105E+02
#           1.04589E+02  1.07134E+02  1.09741E+02  1.12411E+02  1.15146E+02
#           1.17948E+02  1.20817E+02  1.23757E+02  1.26768E+02  1.29852E+02
#           1.33012E+02  1.36248E+02  1.39563E+02  1.42959E+02  1.46437E+02
#           1.50000E+02
     unit =    2            # unit is [1/cm^2/(MeV/n)/source]
     axis =  eng            # axis of output
     file = detector-12.out  # file name of output for the above axis
   output = f-curr          # surface crossing forward current spectrum
     part =  neutron  
# kf/name :  2112     
#    used :        main (  %)        temp (  %)       total (  %)
#  memory :         414 (  0)           0 (  0)         414 (  0)

#------------------------------------------------------------------------------
#newpage:
#   no. =    1   reg = 111 - 211

x: Energy [MeV/n]
y:  F-Curr [1/cm^2/(MeV/n)/source]         
p: xlog ylog afac(0.8) form(0.9)
h: n            x            y(neutron ),hh0l   n 
#  e-lower      e-upper      neutron     r.err 
   1.0000E-02   1.0243E-02   0.0000E+00  0.0000
   1.0243E-02   1.0493E-02   0.0000E+00  0.0000
   1.0493E-02   1.0748E-02   0.0000E+00  0.0000
   1.0748E-02   1.1009E-02   0.0000E+00  0.0000
   1.1009E-02   1.1277E-02   7.4664E-07  1.0000
   1.1277E-02   1.1552E-02   7.2891E-07  1.0000
   1.1552E-02   1.1833E-02   0.0000E+00  0.0000
   1.1833E-02   1.2121E-02   0.0000E+00  0.0000
   1.2121E-02   1.2415E-02   0.0000E+00  0.0000
   1.2415E-02   1.2718E-02   0.0000E+00  0.0000
   1.2718E-02   1.3027E-02   0.0000E+00  0.0000
   1.3027E-02   1.3344E-02   6.3100E-07  1.0000
   1.3344E-02   1.3669E-02   6.1601E-07  1.0000
   1.3669E-02   1.4001E-02   6.0138E-07  1.0000
   1.4001E-02   1.4342E-02   5.8710E-07  1.0000
   1.4342E-02   1.4691E-02   1.1463E-06  0.7071
   1.4691E-02   1.5048E-02   0.0000E+00  0.0000
   1.5048E-02   1.5414E-02   1.1790E-06  0.6593
   1.5414E-02   1.5789E-02   0.0000E+00  0.0000
   1.5789E-02   1.6174E-02   0.0000E+00  0.0000
   1.6174E-02   1.6567E-02   5.0824E-07  1.0000
   1.6567E-02   1.6970E-02   0.0000E+00  0.0000
   1.6970E-02   1.7383E-02   2.0564E-07  0.7236
   1.7383E-02   1.7806E-02   9.4575E-07  0.7071
   1.7806E-02   1.8239E-02   1.3849E-06  0.5774
   1.8239E-02   1.8683E-02   9.0136E-07  0.7071
   1.8683E-02   1.9138E-02   4.3997E-07  1.0000
   1.9138E-02   1.9603E-02   1.0345E-06  0.6112
   1.9603E-02   2.0080E-02   0.0000E+00  0.0000
   2.0080E-02   2.0569E-02   5.3044E-07  0.8048
   2.0569E-02   2.1069E-02   5.6008E-07  0.7689
   2.1069E-02   2.1582E-02   2.0916E-06  0.4225
   2.1582E-02   2.2107E-02   2.2447E-06  0.4086
   2.2107E-02   2.2645E-02   1.1155E-06  0.5774
   2.2645E-02   2.3196E-02   1.0890E-06  0.5774
   2.3196E-02   2.3760E-02   1.3055E-06  0.4919
   2.3760E-02   2.4338E-02   1.1637E-06  0.5211
   2.4338E-02   2.4930E-02   1.1440E-06  0.5180
   2.4930E-02   2.5537E-02   2.2516E-06  0.3707
   2.5537E-02   2.6158E-02   1.0648E-06  0.5078
   2.6158E-02   2.6795E-02   1.6850E-06  0.3898
   2.6795E-02   2.7447E-02   1.9921E-06  0.3783
   2.7447E-02   2.8114E-02   2.4293E-06  0.3349
   2.8114E-02   2.8799E-02   1.8194E-06  0.3953
   2.8799E-02   2.9499E-02   1.6522E-06  0.3889
   2.9499E-02   3.0217E-02   1.2647E-06  0.4505
   3.0217E-02   3.0952E-02   3.3892E-06  0.2793
   3.0952E-02   3.1705E-02   2.2574E-06  0.3379
   3.1705E-02   3.2477E-02   2.9994E-06  0.2808
   3.2477E-02   3.3267E-02   1.8282E-06  0.3499
   3.3267E-02   3.4076E-02   2.3827E-06  0.3137
   3.4076E-02   3.4905E-02   1.5043E-06  0.3946
   3.4905E-02   3.5755E-02   2.0414E-06  0.3301
   3.5755E-02   3.6625E-02   2.6004E-06  0.2933
   3.6625E-02   3.7516E-02   2.6047E-06  0.2874
   3.7516E-02   3.8428E-02   3.7293E-06  0.2371
   3.8428E-02   3.9363E-02   3.4105E-06  0.2457
   3.9363E-02   4.0321E-02   2.9771E-06  0.2561
   4.0321E-02   4.1302E-02   3.6568E-06  0.2319
   4.1302E-02   4.2307E-02   3.3200E-06  0.2389
   4.2307E-02   4.3337E-02   2.6250E-06  0.2590
   4.3337E-02   4.4391E-02   5.1542E-06  0.1885
   4.4391E-02   4.5471E-02   3.5414E-06  0.2236
   4.5471E-02   4.6577E-02   4.9477E-06  0.1878
   4.6577E-02   4.7711E-02   3.3243E-06  0.2247
   4.7711E-02   4.8871E-02   5.1919E-06  0.1773
   4.8871E-02   5.0061E-02   3.4109E-06  0.2135
   5.0061E-02   5.1279E-02   3.8539E-06  0.1984
   5.1279E-02   5.2526E-02   6.7493E-06  0.1505
   5.2526E-02   5.3804E-02   3.5507E-06  0.2008
   5.3804E-02   5.5113E-02   5.8529E-06  0.1607
   5.5113E-02   5.6454E-02   6.0437E-06  0.1511
   5.6454E-02   5.7828E-02   5.0922E-06  0.1625
   5.7828E-02   5.9235E-02   5.3362E-06  0.1577
   5.9235E-02   6.0676E-02   6.6867E-06  0.1387
   6.0676E-02   6.2152E-02   8.3135E-06  0.1239
   6.2152E-02   6.3665E-02   7.8735E-06  0.1271
   6.3665E-02   6.5214E-02   7.0169E-06  0.1341
   6.5214E-02   6.6800E-02   8.3814E-06  0.1174
   6.6800E-02   6.8426E-02   7.6989E-06  0.1242
   6.8426E-02   7.0090E-02   8.9052E-06  0.1117
   7.0090E-02   7.1796E-02   8.5116E-06  0.1137
   7.1796E-02   7.3543E-02   9.1571E-06  0.1089
   7.3543E-02   7.5332E-02   1.1647E-05  0.0951
   7.5332E-02   7.7165E-02   9.0986E-06  0.1061
   7.7165E-02   7.9042E-02   9.2382E-06  0.1030
   7.9042E-02   8.0965E-02   1.0681E-05  0.0958
   8.0965E-02   8.2935E-02   1.1936E-05  0.0898
   8.2935E-02   8.4953E-02   1.1762E-05  0.0888
   8.4953E-02   8.7020E-02   1.3992E-05  0.0810
   8.7020E-02   8.9138E-02   1.4396E-05  0.0791
   8.9138E-02   9.1306E-02   1.5701E-05  0.0752
   9.1306E-02   9.3528E-02   1.6437E-05  0.0724
   9.3528E-02   9.5804E-02   1.5190E-05  0.0739
   9.5804E-02   9.8134E-02   1.3648E-05  0.0770
   9.8134E-02   1.0052E-01   1.8587E-05  0.0655
   1.0052E-01   1.0297E-01   1.7702E-05  0.0659
   1.0297E-01   1.0547E-01   1.6734E-05  0.0671
   1.0547E-01   1.0804E-01   1.7547E-05  0.0646
   1.0804E-01   1.1067E-01   1.8638E-05  0.0621
   1.1067E-01   1.1336E-01   1.9246E-05  0.0600
   1.1336E-01   1.1612E-01   1.8754E-05  0.0606
   1.1612E-01   1.1894E-01   2.0575E-05  0.0566
   1.1894E-01   1.2184E-01   2.2373E-05  0.0541
   1.2184E-01   1.2480E-01   2.2561E-05  0.0532
   1.2480E-01   1.2784E-01   2.5424E-05  0.0495
   1.2784E-01   1.3095E-01   2.5359E-05  0.0491
   1.3095E-01   1.3414E-01   2.4184E-05  0.0493
   1.3414E-01   1.3740E-01   2.4626E-05  0.0486
   1.3740E-01   1.4074E-01   2.7526E-05  0.0453
   1.4074E-01   1.4417E-01   2.7242E-05  0.0451
   1.4417E-01   1.4767E-01   3.0203E-05  0.0423
   1.4767E-01   1.5127E-01   3.3242E-05  0.0398
   1.5127E-01   1.5495E-01   3.2132E-05  0.0401
   1.5495E-01   1.5872E-01   3.3671E-05  0.0386
   1.5872E-01   1.6258E-01   3.5424E-05  0.0372
   1.6258E-01   1.6654E-01   3.5401E-05  0.0369
   1.6654E-01   1.7059E-01   3.7680E-05  0.0353
   1.7059E-01   1.7474E-01   3.9753E-05  0.0339
   1.7474E-01   1.7899E-01   4.3008E-05  0.0321
   1.7899E-01   1.8334E-01   4.1464E-05  0.0325
   1.8334E-01   1.8781E-01   4.3268E-05  0.0314
   1.8781E-01   1.9237E-01   4.6085E-05  0.0300
   1.9237E-01   1.9706E-01   4.8261E-05  0.0290
   1.9706E-01   2.0185E-01   5.0238E-05  0.0281
   2.0185E-01   2.0676E-01   5.2331E-05  0.0272
   2.0676E-01   2.1179E-01   5.4211E-05  0.0264
   2.1179E-01   2.1694E-01   5.4816E-05  0.0260
   2.1694E-01   2.2222E-01   6.1203E-05  0.0243
   2.2222E-01   2.2763E-01   6.1473E-05  0.0239
   2.2763E-01   2.3317E-01   6.1200E-05  0.0237
   2.3317E-01   2.3884E-01   6.4076E-05  0.0229
   2.3884E-01   2.4465E-01   6.6144E-05  0.0223
   2.4465E-01   2.5061E-01   7.0035E-05  0.0213
   2.5061E-01   2.5670E-01   7.5000E-05  0.0204
   2.5670E-01   2.6295E-01   7.2975E-05  0.0205
   2.6295E-01   2.6935E-01   7.6478E-05  0.0198
   2.6935E-01   2.7590E-01   8.0501E-05  0.0190
   2.7590E-01   2.8261E-01   8.2761E-05  0.0186
   2.8261E-01   2.8949E-01   8.6904E-05  0.0179
   2.8949E-01   2.9653E-01   8.7013E-05  0.0177
   2.9653E-01   3.0375E-01   9.2609E-05  0.0170
   3.0375E-01   3.1114E-01   9.8139E-05  0.0163
   3.1114E-01   3.1871E-01   9.6236E-05  0.0162
   3.1871E-01   3.2646E-01   1.0111E-04  0.0157
   3.2646E-01   3.3441E-01   1.0596E-04  0.0151
   3.3441E-01   3.4254E-01   1.0723E-04  0.0149
   3.4254E-01   3.5088E-01   1.1320E-04  0.0143
   3.5088E-01   3.5941E-01   1.1812E-04  0.0139
   3.5941E-01   3.6816E-01   1.1762E-04  0.0137
   3.6816E-01   3.7712E-01   1.2360E-04  0.0132
   3.7712E-01   3.8629E-01   1.2837E-04  0.0128
   3.8629E-01   3.9569E-01   1.3004E-04  0.0126
   3.9569E-01   4.0532E-01   1.3530E-04  0.0122
   4.0532E-01   4.1518E-01   1.3954E-04  0.0119
   4.1518E-01   4.2528E-01   1.4643E-04  0.0115
   4.2528E-01   4.3563E-01   1.4845E-04  0.0113
   4.3563E-01   4.4623E-01   1.5083E-04  0.0110
   4.4623E-01   4.5708E-01   1.6107E-04  0.0106
   4.5708E-01   4.6821E-01   1.6101E-04  0.0104
   4.6821E-01   4.7960E-01   1.6543E-04  0.0102
   4.7960E-01   4.9127E-01   1.6846E-04  0.0100
   4.9127E-01   5.0322E-01   1.7643E-04  0.0096
   5.0322E-01   5.1546E-01   1.8264E-04  0.0094
   5.1546E-01   5.2800E-01   1.8967E-04  0.0091
   5.2800E-01   5.4085E-01   1.9336E-04  0.0089
   5.4085E-01   5.5401E-01   1.9976E-04  0.0086
   5.5401E-01   5.6749E-01   2.0595E-04  0.0084
   5.6749E-01   5.8130E-01   2.1063E-04  0.0082
   5.8130E-01   5.9544E-01   2.1464E-04  0.0080
   5.9544E-01   6.0993E-01   2.2515E-04  0.0078
   6.0993E-01   6.2477E-01   2.3069E-04  0.0076
   6.2477E-01   6.3997E-01   2.4118E-04  0.0073
   6.3997E-01   6.5554E-01   2.4238E-04  0.0072
   6.5554E-01   6.7149E-01   2.5174E-04  0.0070
   6.7149E-01   6.8783E-01   2.5846E-04  0.0068
   6.8783E-01   7.0456E-01   2.6618E-04  0.0066
   7.0456E-01   7.2171E-01   2.7482E-04  0.0065
   7.2171E-01   7.3927E-01   2.8167E-04  0.0063
   7.3927E-01   7.5725E-01   2.9157E-04  0.0061
   7.5725E-01   7.7568E-01   2.9282E-04  0.0060
   7.7568E-01   7.9455E-01   3.0441E-04  0.0058
   7.9455E-01   8.1388E-01   3.1219E-04  0.0057
   8.1388E-01   8.3368E-01   3.1889E-04  0.0056
   8.3368E-01   8.5397E-01   3.2990E-04  0.0054
   8.5397E-01   8.7475E-01   3.3583E-04  0.0053
   8.7475E-01   8.9603E-01   3.4343E-04  0.0052
   8.9603E-01   9.1783E-01   3.5197E-04  0.0051
   9.1783E-01   9.4016E-01   3.6159E-04  0.0049
   9.4016E-01   9.6304E-01   3.6596E-04  0.0048
   9.6304E-01   9.8647E-01   3.6998E-04  0.0048
   9.8647E-01   1.0105E+00   3.7451E-04  0.0047
   1.0105E+00   1.0351E+00   3.7306E-04  0.0046
   1.0351E+00   1.0602E+00   3.7203E-04  0.0046
   1.0602E+00   1.0860E+00   3.7237E-04  0.0045
   1.0860E+00   1.1125E+00   3.7236E-04  0.0045
   1.1125E+00   1.1395E+00   3.7490E-04  0.0044
   1.1395E+00   1.1673E+00   3.8093E-04  0.0043
   1.1673E+00   1.1957E+00   3.8764E-04  0.0042
   1.1957E+00   1.2247E+00   3.9017E-04  0.0041
   1.2247E+00   1.2545E+00   3.8735E-04  0.0041
   1.2545E+00   1.2851E+00   3.8499E-04  0.0041
   1.2851E+00   1.3163E+00   3.8202E-04  0.0040
   1.3163E+00   1.3484E+00   3.8597E-04  0.0040
   1.3484E+00   1.3812E+00   3.8680E-04  0.0039
   1.3812E+00   1.4148E+00   3.8652E-04  0.0039
   1.4148E+00   1.4492E+00   3.9029E-04  0.0038
   1.4492E+00   1.4845E+00   3.8746E-04  0.0038
   1.4845E+00   1.5206E+00   3.8907E-04  0.0037
   1.5206E+00   1.5576E+00   3.8470E-04  0.0037
   1.5576E+00   1.5955E+00   3.8337E-04  0.0037
   1.5955E+00   1.6343E+00   3.8113E-04  0.0036
   1.6343E+00   1.6741E+00   3.8139E-04  0.0036
   1.6741E+00   1.7148E+00   3.7608E-04  0.0036
   1.7148E+00   1.7565E+00   3.7611E-04  0.0035
   1.7565E+00   1.7992E+00   3.7626E-04  0.0035
   1.7992E+00   1.8430E+00   3.7738E-04  0.0034
   1.8430E+00   1.8879E+00   3.7357E-04  0.0034
   1.8879E+00   1.9338E+00   3.7014E-04  0.0034
   1.9338E+00   1.9808E+00   3.6850E-04  0.0033
   1.9808E+00   2.0290E+00   3.6818E-04  0.0033
   2.0290E+00   2.0784E+00   3.6849E-04  0.0033
   2.0784E+00   2.1290E+00   3.6354E-04  0.0032
   2.1290E+00   2.1808E+00   3.5929E-04  0.0032
   2.1808E+00   2.2338E+00   3.5932E-04  0.0032
   2.2338E+00   2.2882E+00   3.5528E-04  0.0032
   2.2882E+00   2.3439E+00   3.5154E-04  0.0031
   2.3439E+00   2.4009E+00   3.4820E-04  0.0031
   2.4009E+00   2.4593E+00   3.4451E-04  0.0031
   2.4593E+00   2.5191E+00   3.3979E-04  0.0031
   2.5191E+00   2.5804E+00   3.3150E-04  0.0031
   2.5804E+00   2.6432E+00   3.2733E-04  0.0030
   2.6432E+00   2.7075E+00   3.2167E-04  0.0030
   2.7075E+00   2.7734E+00   3.1814E-04  0.0030
   2.7734E+00   2.8409E+00   3.1703E-04  0.0030
   2.8409E+00   2.9100E+00   3.1281E-04  0.0030
   2.9100E+00   2.9808E+00   3.0740E-04  0.0030
   2.9808E+00   3.0533E+00   3.0299E-04  0.0029
   3.0533E+00   3.1276E+00   2.9854E-04  0.0029
   3.1276E+00   3.2037E+00   2.9329E-04  0.0029
   3.2037E+00   3.2817E+00   2.8722E-04  0.0029
   3.2817E+00   3.3615E+00   2.8188E-04  0.0029
   3.3615E+00   3.4433E+00   2.7665E-04  0.0029
   3.4433E+00   3.5271E+00   2.7355E-04  0.0029
   3.5271E+00   3.6129E+00   2.6923E-04  0.0029
   3.6129E+00   3.7008E+00   2.6314E-04  0.0029
   3.7008E+00   3.7908E+00   2.5716E-04  0.0029
   3.7908E+00   3.8831E+00   2.5250E-04  0.0029
   3.8831E+00   3.9776E+00   2.4389E-04  0.0029
   3.9776E+00   4.0743E+00   2.3747E-04  0.0029
   4.0743E+00   4.1735E+00   2.3069E-04  0.0029
   4.1735E+00   4.2750E+00   2.2329E-04  0.0029
   4.2750E+00   4.3790E+00   2.1694E-04  0.0029
   4.3790E+00   4.4856E+00   2.1211E-04  0.0029
   4.4856E+00   4.5947E+00   2.0818E-04  0.0029
   4.5947E+00   4.7065E+00   2.0355E-04  0.0029
   4.7065E+00   4.8210E+00   1.9870E-04  0.0029
   4.8210E+00   4.9383E+00   1.9478E-04  0.0029
   4.9383E+00   5.0585E+00   1.9317E-04  0.0028
   5.0585E+00   5.1815E+00   1.9850E-04  0.0028
   5.1815E+00   5.3076E+00   2.0035E-04  0.0027
   5.3076E+00   5.4368E+00   1.9663E-04  0.0027
   5.4368E+00   5.5690E+00   1.9025E-04  0.0027
   5.5690E+00   5.7045E+00   1.8482E-04  0.0027
   5.7045E+00   5.8433E+00   1.8163E-04  0.0027
   5.8433E+00   5.9855E+00   1.7655E-04  0.0028
   5.9855E+00   6.1311E+00   1.7323E-04  0.0027
   6.1311E+00   6.2803E+00   1.7088E-04  0.0027
   6.2803E+00   6.4331E+00   1.6557E-04  0.0027
   6.4331E+00   6.5896E+00   1.6271E-04  0.0027
   6.5896E+00   6.7500E+00   1.6013E-04  0.0027
   6.7500E+00   6.9142E+00   1.5651E-04  0.0027
   6.9142E+00   7.0824E+00   1.5390E-04  0.0027
   7.0824E+00   7.2548E+00   1.5037E-04  0.0027
   7.2548E+00   7.4313E+00   1.4801E-04  0.0027
   7.4313E+00   7.6121E+00   1.4619E-04  0.0027
   7.6121E+00   7.7973E+00   1.4253E-04  0.0027
   7.7973E+00   7.9870E+00   1.4076E-04  0.0027
   7.9870E+00   8.1813E+00   1.3849E-04  0.0027
   8.1813E+00   8.3804E+00   1.3576E-04  0.0027
   8.3804E+00   8.5843E+00   1.3325E-04  0.0027
   8.5843E+00   8.7931E+00   1.3008E-04  0.0027
   8.7931E+00   9.0071E+00   1.2692E-04  0.0027
   9.0071E+00   9.2262E+00   1.2426E-04  0.0027
   9.2262E+00   9.4507E+00   1.2053E-04  0.0027
   9.4507E+00   9.6807E+00   1.1787E-04  0.0027
   9.6807E+00   9.9162E+00   1.1554E-04  0.0027
   9.9162E+00   1.0157E+01   1.1441E-04  0.0027
   1.0157E+01   1.0405E+01   1.1140E-04  0.0027
   1.0405E+01   1.0658E+01   1.0962E-04  0.0027
   1.0658E+01   1.0917E+01   1.0754E-04  0.0026
   1.0917E+01   1.1183E+01   1.0566E-04  0.0026
   1.1183E+01   1.1455E+01   1.0306E-04  0.0026
   1.1455E+01   1.1733E+01   1.0072E-04  0.0026
   1.1733E+01   1.2019E+01   9.8685E-05  0.0026
   1.2019E+01   1.2311E+01   9.6425E-05  0.0026
   1.2311E+01   1.2611E+01   9.4650E-05  0.0026
   1.2611E+01   1.2918E+01   9.3064E-05  0.0026
   1.2918E+01   1.3232E+01   9.0648E-05  0.0026
   1.3232E+01   1.3554E+01   8.8924E-05  0.0026
   1.3554E+01   1.3884E+01   8.6388E-05  0.0026
   1.3884E+01   1.4222E+01   8.3942E-05  0.0026
   1.4222E+01   1.4568E+01   8.1620E-05  0.0026
   1.4568E+01   1.4922E+01   7.9917E-05  0.0026
   1.4922E+01   1.5285E+01   7.8054E-05  0.0026
   1.5285E+01   1.5657E+01   7.6093E-05  0.0026
   1.5657E+01   1.6038E+01   7.3635E-05  0.0026
   1.6038E+01   1.6428E+01   7.1512E-05  0.0027
   1.6428E+01   1.6828E+01   6.9157E-05  0.0027
   1.6828E+01   1.7237E+01   6.6712E-05  0.0027
   1.7237E+01   1.7657E+01   6.4355E-05  0.0027
   1.7657E+01   1.8086E+01   6.2141E-05  0.0027
   1.8086E+01   1.8526E+01   5.9992E-05  0.0027
   1.8526E+01   1.8977E+01   5.7932E-05  0.0027
   1.8977E+01   1.9439E+01   5.5878E-05  0.0028
   1.9439E+01   1.9912E+01   5.3752E-05  0.0028
   1.9912E+01   2.0396E+01   5.6189E-05  0.0027
   2.0396E+01   2.0893E+01   5.5321E-05  0.0027
   2.0893E+01   2.1401E+01   5.3003E-05  0.0027
   2.1401E+01   2.1922E+01   5.1107E-05  0.0027
   2.1922E+01   2.2455E+01   4.8763E-05  0.0028
   2.2455E+01   2.3001E+01   4.6704E-05  0.0028
   2.3001E+01   2.3561E+01   4.4519E-05  0.0028
   2.3561E+01   2.4134E+01   4.2846E-05  0.0029
   2.4134E+01   2.4721E+01   4.0694E-05  0.0029
   2.4721E+01   2.5323E+01   3.9037E-05  0.0029
   2.5323E+01   2.5939E+01   3.6782E-05  0.0030
   2.5939E+01   2.6570E+01   3.5071E-05  0.0030
   2.6570E+01   2.7217E+01   3.3051E-05  0.0031
   2.7217E+01   2.7879E+01   3.1338E-05  0.0031
   2.7879E+01   2.8557E+01   2.9387E-05  0.0032
   2.8557E+01   2.9252E+01   2.7881E-05  0.0032
   2.9252E+01   2.9964E+01   2.5952E-05  0.0033
   2.9964E+01   3.0693E+01   2.4374E-05  0.0034
   3.0693E+01   3.1440E+01   2.2904E-05  0.0034
   3.1440E+01   3.2205E+01   2.1433E-05  0.0035
   3.2205E+01   3.2988E+01   1.9646E-05  0.0036
   3.2988E+01   3.3791E+01   1.7985E-05  0.0037
   3.3791E+01   3.4613E+01   1.6569E-05  0.0038
   3.4613E+01   3.5455E+01   1.5171E-05  0.0040
   3.5455E+01   3.6318E+01   1.3940E-05  0.0041
   3.6318E+01   3.7201E+01   1.2672E-05  0.0042
   3.7201E+01   3.8106E+01   1.1459E-05  0.0044
   3.8106E+01   3.9034E+01   1.0388E-05  0.0046
   3.9034E+01   3.9983E+01   9.1650E-06  0.0048
   3.9983E+01   4.0956E+01   8.1268E-06  0.0050
   4.0956E+01   4.1953E+01   7.1475E-06  0.0053
   4.1953E+01   4.2973E+01   6.2333E-06  0.0056
   4.2973E+01   4.4019E+01   5.4012E-06  0.0060
   4.4019E+01   4.5090E+01   4.6868E-06  0.0063
   4.5090E+01   4.6187E+01   4.0533E-06  0.0067
   4.6187E+01   4.7311E+01   3.3872E-06  0.0072
   4.7311E+01   4.8462E+01   2.8647E-06  0.0078
   4.8462E+01   4.9641E+01   2.3509E-06  0.0085
   4.9641E+01   5.0849E+01   1.8881E-06  0.0094
   5.0849E+01   5.2086E+01   1.5256E-06  0.0103
   5.2086E+01   5.3353E+01   1.1787E-06  0.0116
   5.3353E+01   5.4651E+01   8.6401E-07  0.0134
   5.4651E+01   5.5981E+01   6.1472E-07  0.0156
   5.5981E+01   5.7343E+01   3.9073E-07  0.0194
   5.7343E+01   5.8738E+01   2.4699E-07  0.0241
   5.8738E+01   6.0168E+01   1.3728E-07  0.0319
   6.0168E+01   6.1632E+01   5.6424E-08  0.0492
   6.1632E+01   6.3131E+01   1.9873E-08  0.0819
   6.3131E+01   6.4667E+01   5.4686E-09  0.1543
   6.4667E+01   6.6240E+01   1.3982E-09  0.3015
   6.6240E+01   6.7852E+01   0.0000E+00  0.0000
   6.7852E+01   6.9503E+01   0.0000E+00  0.0000
   6.9503E+01   7.1194E+01   0.0000E+00  0.0000
   7.1194E+01   7.2926E+01   0.0000E+00  0.0000
   7.2926E+01   7.4701E+01   0.0000E+00  0.0000
   7.4701E+01   7.6518E+01   0.0000E+00  0.0000
   7.6518E+01   7.8380E+01   0.0000E+00  0.0000
   7.8380E+01   8.0287E+01   0.0000E+00  0.0000
   8.0287E+01   8.2240E+01   0.0000E+00  0.0000
   8.2240E+01   8.4241E+01   0.0000E+00  0.0000
   8.4241E+01   8.6291E+01   0.0000E+00  0.0000
   8.6291E+01   8.8391E+01   0.0000E+00  0.0000
   8.8391E+01   9.0541E+01   0.0000E+00  0.0000
   9.0541E+01   9.2744E+01   0.0000E+00  0.0000
   9.2744E+01   9.5001E+01   0.0000E+00  0.0000
   9.5001E+01   9.7312E+01   0.0000E+00  0.0000
   9.7312E+01   9.9680E+01   0.0000E+00  0.0000
   9.9680E+01   1.0211E+02   0.0000E+00  0.0000
   1.0211E+02   1.0459E+02   0.0000E+00  0.0000
   1.0459E+02   1.0713E+02   0.0000E+00  0.0000
   1.0713E+02   1.0974E+02   0.0000E+00  0.0000
   1.0974E+02   1.1241E+02   0.0000E+00  0.0000
   1.1241E+02   1.1515E+02   0.0000E+00  0.0000
   1.1515E+02   1.1795E+02   0.0000E+00  0.0000
   1.1795E+02   1.2082E+02   0.0000E+00  0.0000
   1.2082E+02   1.2376E+02   0.0000E+00  0.0000
   1.2376E+02   1.2677E+02   0.0000E+00  0.0000
   1.2677E+02   1.2985E+02   0.0000E+00  0.0000
   1.2985E+02   1.3301E+02   0.0000E+00  0.0000
   1.3301E+02   1.3625E+02   0.0000E+00  0.0000
   1.3625E+02   1.3956E+02   0.0000E+00  0.0000
   1.3956E+02   1.4296E+02   0.0000E+00  0.0000
   1.4296E+02   1.4644E+02   0.0000E+00  0.0000
   1.4644E+02   1.5000E+02   0.0000E+00  0.0000

#   sum over                 2.3618E-05
'no. =    1   reg = 111 - 211'
msuc: {\huge [t-cross] in region mesh}
msdr: {\it plotted by \ANGEL \version}
msdl: {\it calculated by \PHITS  3.26}
wt: s(0.7)
\vspace{-3}
  region surface crossing
  area  &=&   1.0000E+00 [cm^2]
e:
 
# Information for Restart Calculation
# This calculation was newly started
# istdev =  2 # 1:Batch variance, 2:History variance
# resc2  = 5.00000000000000000E+09 # Total source weight or Total source weight / maxcas
# resc3  = 5.00000000000000000E+09 # Total history number or Total batch number
# maxcas =   100000000 # History / Batch, only used for istdev=1
# bitrseed = 0110100000100010111000001110001111001110100100011111101000111001 # bit data of rseed
