[ T-Cross ]
    title = [t-cross] in region mesh
     mesh =  reg            # mesh type is region-wise
      reg =    1            # number of crossing regions
      non     r-from    r-to       area
      1       119       219        1.000000    
   e-type =    3            # e-mesh is log given by emin, emax and ne
     emin =  1.0000000E-02  # minimum value of e-mesh points
     emax =   150.0000      # maximum value of e-mesh points
#    edel =  2.4039514E-02  # mesh width of e-mesh points
       ne =    400          # number of e-mesh points
#    data = ( e(i), i = 1, ne + 1 )
#           1.00000E-02  1.02433E-02  1.04925E-02  1.07478E-02  1.10093E-02
#           1.12772E-02  1.15516E-02  1.18326E-02  1.21205E-02  1.24154E-02
#           1.27175E-02  1.30269E-02  1.33439E-02  1.36686E-02  1.40011E-02
#           1.43418E-02  1.46907E-02  1.50482E-02  1.54143E-02  1.57894E-02
#           1.61735E-02  1.65670E-02  1.69701E-02  1.73830E-02  1.78060E-02
#           1.82392E-02  1.86830E-02  1.91375E-02  1.96032E-02  2.00801E-02
#           2.05687E-02  2.10692E-02  2.15818E-02  2.21069E-02  2.26448E-02
#           2.31957E-02  2.37601E-02  2.43382E-02  2.49304E-02  2.55369E-02
#           2.61583E-02  2.67947E-02  2.74467E-02  2.81145E-02  2.87985E-02
#           2.94992E-02  3.02169E-02  3.09521E-02  3.17052E-02  3.24766E-02
#           3.32668E-02  3.40762E-02  3.49053E-02  3.57546E-02  3.66246E-02
#           3.75157E-02  3.84284E-02  3.93634E-02  4.03212E-02  4.13022E-02
#           4.23071E-02  4.33365E-02  4.43909E-02  4.54710E-02  4.65773E-02
#           4.77106E-02  4.88714E-02  5.00605E-02  5.12785E-02  5.25262E-02
#           5.38042E-02  5.51133E-02  5.64542E-02  5.78278E-02  5.92348E-02
#           6.06760E-02  6.21523E-02  6.36645E-02  6.52135E-02  6.68002E-02
#           6.84255E-02  7.00904E-02  7.17957E-02  7.35426E-02  7.53319E-02
#           7.71648E-02  7.90423E-02  8.09655E-02  8.29354E-02  8.49533E-02
#           8.70203E-02  8.91376E-02  9.13064E-02  9.35279E-02  9.58035E-02
#           9.81345E-02  1.00522E-01  1.02968E-01  1.05473E-01  1.08040E-01
#           1.10668E-01  1.13361E-01  1.16119E-01  1.18944E-01  1.21838E-01
#           1.24803E-01  1.27839E-01  1.30950E-01  1.34136E-01  1.37399E-01
#           1.40742E-01  1.44167E-01  1.47675E-01  1.51268E-01  1.54948E-01
#           1.58718E-01  1.62580E-01  1.66535E-01  1.70587E-01  1.74738E-01
#           1.78989E-01  1.83344E-01  1.87805E-01  1.92375E-01  1.97055E-01
#           2.01850E-01  2.06761E-01  2.11792E-01  2.16945E-01  2.22223E-01
#           2.27630E-01  2.33169E-01  2.38842E-01  2.44653E-01  2.50605E-01
#           2.56703E-01  2.62949E-01  2.69346E-01  2.75900E-01  2.82613E-01
#           2.89489E-01  2.96532E-01  3.03747E-01  3.11138E-01  3.18708E-01
#           3.26462E-01  3.34405E-01  3.42542E-01  3.50876E-01  3.59413E-01
#           3.68158E-01  3.77116E-01  3.86291E-01  3.95690E-01  4.05317E-01
#           4.15179E-01  4.25281E-01  4.35628E-01  4.46227E-01  4.57084E-01
#           4.68205E-01  4.79597E-01  4.91266E-01  5.03219E-01  5.15463E-01
#           5.28005E-01  5.40851E-01  5.54011E-01  5.67490E-01  5.81298E-01
#           5.95441E-01  6.09929E-01  6.24769E-01  6.39970E-01  6.55541E-01
#           6.71491E-01  6.87828E-01  7.04564E-01  7.21706E-01  7.39266E-01
#           7.57253E-01  7.75678E-01  7.94551E-01  8.13883E-01  8.33685E-01
#           8.53969E-01  8.74747E-01  8.96030E-01  9.17831E-01  9.40163E-01
#           9.63038E-01  9.86469E-01  1.01047E+00  1.03506E+00  1.06024E+00
#           1.08604E+00  1.11246E+00  1.13953E+00  1.16725E+00  1.19565E+00
#           1.22474E+00  1.25454E+00  1.28507E+00  1.31633E+00  1.34836E+00
#           1.38117E+00  1.41477E+00  1.44920E+00  1.48446E+00  1.52057E+00
#           1.55757E+00  1.59547E+00  1.63429E+00  1.67405E+00  1.71478E+00
#           1.75650E+00  1.79924E+00  1.84302E+00  1.88786E+00  1.93379E+00
#           1.98084E+00  2.02904E+00  2.07841E+00  2.12898E+00  2.18078E+00
#           2.23384E+00  2.28819E+00  2.34386E+00  2.40089E+00  2.45930E+00
#           2.51914E+00  2.58043E+00  2.64322E+00  2.70753E+00  2.77341E+00
#           2.84088E+00  2.91001E+00  2.98081E+00  3.05333E+00  3.12762E+00
#           3.20372E+00  3.28167E+00  3.36152E+00  3.44330E+00  3.52708E+00
#           3.61290E+00  3.70080E+00  3.79085E+00  3.88308E+00  3.97756E+00
#           4.07434E+00  4.17347E+00  4.27501E+00  4.37903E+00  4.48557E+00
#           4.59471E+00  4.70650E+00  4.82102E+00  4.93832E+00  5.05847E+00
#           5.18155E+00  5.30762E+00  5.43676E+00  5.56904E+00  5.70453E+00
#           5.84333E+00  5.98550E+00  6.13114E+00  6.28031E+00  6.43312E+00
#           6.58964E+00  6.74997E+00  6.91420E+00  7.08243E+00  7.25475E+00
#           7.43126E+00  7.61207E+00  7.79728E+00  7.98700E+00  8.18133E+00
#           8.38038E+00  8.58428E+00  8.79315E+00  9.00709E+00  9.22624E+00
#           9.45072E+00  9.68067E+00  9.91620E+00  1.01575E+01  1.04046E+01
#           1.06578E+01  1.09171E+01  1.11827E+01  1.14548E+01  1.17335E+01
#           1.20190E+01  1.23114E+01  1.26109E+01  1.29178E+01  1.32321E+01
#           1.35540E+01  1.38838E+01  1.42216E+01  1.45676E+01  1.49221E+01
#           1.52851E+01  1.56570E+01  1.60380E+01  1.64282E+01  1.68279E+01
#           1.72374E+01  1.76568E+01  1.80864E+01  1.85264E+01  1.89772E+01
#           1.94389E+01  1.99119E+01  2.03963E+01  2.08926E+01  2.14009E+01
#           2.19216E+01  2.24550E+01  2.30014E+01  2.35610E+01  2.41343E+01
#           2.47215E+01  2.53230E+01  2.59391E+01  2.65702E+01  2.72167E+01
#           2.78789E+01  2.85572E+01  2.92520E+01  2.99637E+01  3.06928E+01
#           3.14396E+01  3.22045E+01  3.29881E+01  3.37907E+01  3.46128E+01
#           3.54550E+01  3.63177E+01  3.72013E+01  3.81064E+01  3.90336E+01
#           3.99833E+01  4.09561E+01  4.19526E+01  4.29734E+01  4.40189E+01
#           4.50900E+01  4.61870E+01  4.73108E+01  4.84619E+01  4.96410E+01
#           5.08488E+01  5.20860E+01  5.33533E+01  5.46514E+01  5.59812E+01
#           5.73432E+01  5.87384E+01  6.01676E+01  6.16315E+01  6.31311E+01
#           6.46671E+01  6.62405E+01  6.78522E+01  6.95031E+01  7.11941E+01
#           7.29263E+01  7.47007E+01  7.65182E+01  7.83800E+01  8.02870E+01
#           8.22405E+01  8.42414E+01  8.62911E+01  8.83906E+01  9.05412E+01
#           9.27442E+01  9.50007E+01  9.73122E+01  9.96799E+01  1.02105E+02
#           1.04589E+02  1.07134E+02  1.09741E+02  1.12411E+02  1.15146E+02
#           1.17948E+02  1.20817E+02  1.23757E+02  1.26768E+02  1.29852E+02
#           1.33012E+02  1.36248E+02  1.39563E+02  1.42959E+02  1.46437E+02
#           1.50000E+02
     unit =    2            # unit is [1/cm^2/(MeV/n)/source]
     axis =  eng            # axis of output
     file = detector-20.out  # file name of output for the above axis
   output = f-curr          # surface crossing forward current spectrum
     part =  neutron  
# kf/name :  2112     
#    used :        main (  %)        temp (  %)       total (  %)
#  memory :         414 (  0)           0 (  0)         414 (  0)

#------------------------------------------------------------------------------
#newpage:
#   no. =    1   reg = 119 - 219

x: Energy [MeV/n]
y:  F-Curr [1/cm^2/(MeV/n)/source]         
p: xlog ylog afac(0.8) form(0.9)
h: n            x            y(neutron ),hh0l   n 
#  e-lower      e-upper      neutron     r.err 
   1.0000E-02   1.0243E-02   1.6425E-06  0.7071
   1.0243E-02   1.0493E-02   0.0000E+00  0.0000
   1.0493E-02   1.0748E-02   0.0000E+00  0.0000
   1.0748E-02   1.1009E-02   0.0000E+00  0.0000
   1.1009E-02   1.1277E-02   1.4933E-06  0.7071
   1.1277E-02   1.1552E-02   0.0000E+00  0.0000
   1.1552E-02   1.1833E-02   7.1159E-07  1.0000
   1.1833E-02   1.2121E-02   0.0000E+00  0.0000
   1.2121E-02   1.2415E-02   0.0000E+00  0.0000
   1.2415E-02   1.2718E-02   6.6208E-07  1.0000
   1.2718E-02   1.3027E-02   1.2927E-06  0.7071
   1.3027E-02   1.3344E-02   0.0000E+00  0.0000
   1.3344E-02   1.3669E-02   1.2320E-06  0.7071
   1.3669E-02   1.4001E-02   1.8041E-06  0.5774
   1.4001E-02   1.4342E-02   0.0000E+00  0.0000
   1.4342E-02   1.4691E-02   6.5685E-07  0.8818
   1.4691E-02   1.5048E-02   5.5954E-07  1.0000
   1.5048E-02   1.5414E-02   5.4625E-07  1.0000
   1.5414E-02   1.5789E-02   5.3327E-07  1.0000
   1.5789E-02   1.6174E-02   2.3427E-06  0.4581
   1.6174E-02   1.6567E-02   5.0824E-07  1.0000
   1.6567E-02   1.6970E-02   1.9766E-06  0.5000
   1.6970E-02   1.7383E-02   7.6400E-07  0.7321
   1.7383E-02   1.7806E-02   4.7288E-07  1.0000
   1.7806E-02   1.8239E-02   1.0322E-06  0.6413
   1.8239E-02   1.8683E-02   1.8027E-06  0.5000
   1.8683E-02   1.9138E-02   8.7995E-07  0.7071
   1.9138E-02   1.9603E-02   4.2952E-07  1.0000
   1.9603E-02   2.0080E-02   8.3864E-07  0.7071
   2.0080E-02   2.0569E-02   2.4562E-06  0.4082
   2.0569E-02   2.1069E-02   1.1989E-06  0.5774
   2.1069E-02   2.1582E-02   1.2637E-06  0.5398
   2.1582E-02   2.2107E-02   7.6176E-07  0.7071
   2.2107E-02   2.2645E-02   4.2844E-07  0.8779
   2.2645E-02   2.3196E-02   6.1451E-07  0.6690
   2.3196E-02   2.3760E-02   2.6264E-06  0.3591
   2.3760E-02   2.4338E-02   7.6862E-07  0.6443
   2.4338E-02   2.4930E-02   2.1053E-06  0.3947
   2.4930E-02   2.5537E-02   2.3080E-06  0.3780
   2.5537E-02   2.6158E-02   2.0796E-06  0.3858
   2.6158E-02   2.6795E-02   7.4775E-07  0.6056
   2.6795E-02   2.7447E-02   2.5251E-06  0.3448
   2.7447E-02   2.8114E-02   2.7577E-06  0.3266
   2.8114E-02   2.8799E-02   3.2162E-06  0.3015
   2.8799E-02   2.9499E-02   1.4272E-06  0.4472
   2.9499E-02   3.0217E-02   9.6374E-07  0.5095
   3.0217E-02   3.0952E-02   2.1763E-06  0.3536
   3.0952E-02   3.1705E-02   1.7817E-06  0.3702
   3.1705E-02   3.2477E-02   2.7815E-06  0.2911
   3.2477E-02   3.3267E-02   2.3701E-06  0.3189
   3.3267E-02   3.4076E-02   2.7635E-06  0.2970
   3.4076E-02   3.4905E-02   2.4481E-06  0.3119
   3.4905E-02   3.5755E-02   3.5306E-06  0.2512
   3.5755E-02   3.6625E-02   4.0325E-06  0.2362
   3.6625E-02   3.7516E-02   5.5408E-06  0.1991
   3.7516E-02   3.8428E-02   3.9957E-06  0.2330
   3.8428E-02   3.9363E-02   2.6102E-06  0.2843
   3.9363E-02   4.0321E-02   4.9200E-06  0.2036
   4.0321E-02   4.1302E-02   3.4623E-06  0.2382
   4.1302E-02   4.2307E-02   3.8417E-06  0.2261
   4.2307E-02   4.3337E-02   3.5042E-06  0.2310
   4.3337E-02   4.4391E-02   3.0722E-06  0.2424
   4.4391E-02   4.5471E-02   6.1072E-06  0.1722
   4.5471E-02   4.6577E-02   4.5810E-06  0.1970
   4.6577E-02   4.7711E-02   6.8014E-06  0.1592
   4.7711E-02   4.8871E-02   5.4088E-06  0.1737
   4.8871E-02   5.0061E-02   5.5570E-06  0.1705
   5.0061E-02   5.1279E-02   6.5115E-06  0.1565
   5.1279E-02   5.2526E-02   6.0940E-06  0.1591
   5.2526E-02   5.3804E-02   7.2074E-06  0.1462
   5.3804E-02   5.5113E-02   5.8102E-06  0.1575
   5.5113E-02   5.6454E-02   7.3795E-06  0.1398
   5.6454E-02   5.7828E-02   7.7089E-06  0.1345
   5.7828E-02   5.9235E-02   8.1871E-06  0.1303
   5.9235E-02   6.0676E-02   8.2422E-06  0.1278
   6.0676E-02   6.2152E-02   8.1961E-06  0.1267
   6.2152E-02   6.3665E-02   9.5741E-06  0.1159
   6.3665E-02   6.5214E-02   8.2849E-06  0.1233
   6.5214E-02   6.6800E-02   9.0032E-06  0.1170
   6.6800E-02   6.8426E-02   8.0056E-06  0.1216
   6.8426E-02   7.0090E-02   9.2788E-06  0.1109
   7.0090E-02   7.1796E-02   9.1987E-06  0.1104
   7.1796E-02   7.3543E-02   1.0125E-05  0.1037
   7.3543E-02   7.5332E-02   1.3367E-05  0.0895
   7.5332E-02   7.7165E-02   1.1126E-05  0.0975
   7.7165E-02   7.9042E-02   1.2733E-05  0.0907
   7.9042E-02   8.0965E-02   1.3944E-05  0.0851
   8.0965E-02   8.2935E-02   1.4896E-05  0.0814
   8.2935E-02   8.4953E-02   1.5235E-05  0.0796
   8.4953E-02   8.7020E-02   1.5614E-05  0.0776
   8.7020E-02   8.9138E-02   1.5116E-05  0.0781
   8.9138E-02   9.1306E-02   1.5671E-05  0.0755
   9.1306E-02   9.3528E-02   1.7685E-05  0.0701
   9.3528E-02   9.5804E-02   1.7668E-05  0.0694
   9.5804E-02   9.8134E-02   1.8637E-05  0.0667
   9.8134E-02   1.0052E-01   2.0824E-05  0.0621
   1.0052E-01   1.0297E-01   2.1413E-05  0.0610
   1.0297E-01   1.0547E-01   2.2788E-05  0.0585
   1.0547E-01   1.0804E-01   2.1892E-05  0.0587
   1.0804E-01   1.1067E-01   2.1762E-05  0.0582
   1.1067E-01   1.1336E-01   2.5025E-05  0.0538
   1.1336E-01   1.1612E-01   2.3047E-05  0.0550
   1.1612E-01   1.1894E-01   2.6789E-05  0.0507
   1.1894E-01   1.2184E-01   2.6575E-05  0.0502
   1.2184E-01   1.2480E-01   2.8261E-05  0.0481
   1.2480E-01   1.2784E-01   2.8455E-05  0.0473
   1.2784E-01   1.3095E-01   3.1818E-05  0.0443
   1.3095E-01   1.3414E-01   3.0604E-05  0.0445
   1.3414E-01   1.3740E-01   3.3725E-05  0.0421
   1.3740E-01   1.4074E-01   3.2678E-05  0.0422
   1.4074E-01   1.4417E-01   3.2626E-05  0.0416
   1.4417E-01   1.4767E-01   3.7367E-05  0.0385
   1.4767E-01   1.5127E-01   3.7874E-05  0.0378
   1.5127E-01   1.5495E-01   4.0724E-05  0.0360
   1.5495E-01   1.5872E-01   4.3119E-05  0.0347
   1.5872E-01   1.6258E-01   4.2020E-05  0.0346
   1.6258E-01   1.6654E-01   4.5256E-05  0.0329
   1.6654E-01   1.7059E-01   4.6430E-05  0.0321
   1.7059E-01   1.7474E-01   4.7829E-05  0.0312
   1.7474E-01   1.7899E-01   4.8145E-05  0.0308
   1.7899E-01   1.8334E-01   5.3275E-05  0.0289
   1.8334E-01   1.8781E-01   5.2856E-05  0.0287
   1.8781E-01   1.9237E-01   5.5094E-05  0.0278
   1.9237E-01   1.9706E-01   5.5944E-05  0.0273
   1.9706E-01   2.0185E-01   6.0960E-05  0.0258
   2.0185E-01   2.0676E-01   6.1551E-05  0.0253
   2.0676E-01   2.1179E-01   6.2674E-05  0.0249
   2.1179E-01   2.1694E-01   6.6300E-05  0.0239
   2.1694E-01   2.2222E-01   6.9018E-05  0.0231
   2.2222E-01   2.2763E-01   6.9420E-05  0.0228
   2.2763E-01   2.3317E-01   7.3761E-05  0.0219
   2.3317E-01   2.3884E-01   7.9926E-05  0.0207
   2.3884E-01   2.4465E-01   8.1106E-05  0.0203
   2.4465E-01   2.5061E-01   8.2731E-05  0.0199
   2.5061E-01   2.5670E-01   8.3336E-05  0.0196
   2.5670E-01   2.6295E-01   8.5924E-05  0.0190
   2.6295E-01   2.6935E-01   9.2341E-05  0.0182
   2.6935E-01   2.7590E-01   9.0571E-05  0.0181
   2.7590E-01   2.8261E-01   9.6329E-05  0.0174
   2.8261E-01   2.8949E-01   9.6621E-05  0.0171
   2.8949E-01   2.9653E-01   9.9062E-05  0.0167
   2.9653E-01   3.0375E-01   1.0695E-04  0.0159
   3.0375E-01   3.1114E-01   1.0890E-04  0.0156
   3.1114E-01   3.1871E-01   1.0734E-04  0.0155
   3.1871E-01   3.2646E-01   1.1558E-04  0.0148
   3.2646E-01   3.3441E-01   1.1541E-04  0.0146
   3.3441E-01   3.4254E-01   1.1810E-04  0.0143
   3.4254E-01   3.5088E-01   1.2102E-04  0.0139
   3.5088E-01   3.5941E-01   1.2719E-04  0.0134
   3.5941E-01   3.6816E-01   1.2829E-04  0.0132
   3.6816E-01   3.7712E-01   1.3203E-04  0.0129
   3.7712E-01   3.8629E-01   1.3300E-04  0.0127
   3.8629E-01   3.9569E-01   1.3867E-04  0.0123
   3.9569E-01   4.0532E-01   1.4338E-04  0.0119
   4.0532E-01   4.1518E-01   1.4287E-04  0.0118
   4.1518E-01   4.2528E-01   1.4542E-04  0.0116
   4.2528E-01   4.3563E-01   1.5059E-04  0.0112
   4.3563E-01   4.4623E-01   1.5062E-04  0.0111
   4.4623E-01   4.5708E-01   1.5113E-04  0.0109
   4.5708E-01   4.6821E-01   1.5779E-04  0.0106
   4.6821E-01   4.7960E-01   1.5824E-04  0.0104
   4.7960E-01   4.9127E-01   1.6429E-04  0.0101
   4.9127E-01   5.0322E-01   1.6538E-04  0.0100
   5.0322E-01   5.1546E-01   1.6952E-04  0.0097
   5.1546E-01   5.2800E-01   1.6943E-04  0.0096
   5.2800E-01   5.4085E-01   1.7475E-04  0.0094
   5.4085E-01   5.5401E-01   1.7525E-04  0.0092
   5.5401E-01   5.6749E-01   1.7908E-04  0.0090
   5.6749E-01   5.8130E-01   1.7959E-04  0.0089
   5.8130E-01   5.9544E-01   1.8269E-04  0.0087
   5.9544E-01   6.0993E-01   1.8628E-04  0.0085
   6.0993E-01   6.2477E-01   1.8689E-04  0.0084
   6.2477E-01   6.3997E-01   1.9046E-04  0.0082
   6.3997E-01   6.5554E-01   1.9265E-04  0.0081
   6.5554E-01   6.7149E-01   1.9456E-04  0.0080
   6.7149E-01   6.8783E-01   1.9760E-04  0.0078
   6.8783E-01   7.0456E-01   1.9953E-04  0.0077
   7.0456E-01   7.2171E-01   2.0155E-04  0.0075
   7.2171E-01   7.3927E-01   2.0192E-04  0.0074
   7.3927E-01   7.5725E-01   2.0362E-04  0.0073
   7.5725E-01   7.7568E-01   2.0397E-04  0.0072
   7.7568E-01   7.9455E-01   2.0813E-04  0.0071
   7.9455E-01   8.1388E-01   2.0619E-04  0.0070
   8.1388E-01   8.3368E-01   2.1120E-04  0.0068
   8.3368E-01   8.5397E-01   2.0935E-04  0.0068
   8.5397E-01   8.7475E-01   2.1199E-04  0.0067
   8.7475E-01   8.9603E-01   2.1255E-04  0.0066
   8.9603E-01   9.1783E-01   2.1301E-04  0.0065
   9.1783E-01   9.4016E-01   2.1482E-04  0.0064
   9.4016E-01   9.6304E-01   2.1476E-04  0.0063
   9.6304E-01   9.8647E-01   2.1659E-04  0.0062
   9.8647E-01   1.0105E+00   2.1629E-04  0.0061
   1.0105E+00   1.0351E+00   2.1193E-04  0.0061
   1.0351E+00   1.0602E+00   2.0949E-04  0.0061
   1.0602E+00   1.0860E+00   2.0587E-04  0.0060
   1.0860E+00   1.1125E+00   2.0219E-04  0.0060
   1.1125E+00   1.1395E+00   2.0024E-04  0.0060
   1.1395E+00   1.1673E+00   1.9798E-04  0.0059
   1.1673E+00   1.1957E+00   1.9564E-04  0.0059
   1.1957E+00   1.2247E+00   1.9709E-04  0.0058
   1.2247E+00   1.2545E+00   1.9584E-04  0.0058
   1.2545E+00   1.2851E+00   1.8942E-04  0.0058
   1.2851E+00   1.3163E+00   1.8888E-04  0.0057
   1.3163E+00   1.3484E+00   1.8461E-04  0.0057
   1.3484E+00   1.3812E+00   1.8281E-04  0.0057
   1.3812E+00   1.4148E+00   1.8222E-04  0.0056
   1.4148E+00   1.4492E+00   1.7922E-04  0.0056
   1.4492E+00   1.4845E+00   1.7818E-04  0.0055
   1.4845E+00   1.5206E+00   1.7375E-04  0.0055
   1.5206E+00   1.5576E+00   1.7249E-04  0.0055
   1.5576E+00   1.5955E+00   1.6902E-04  0.0055
   1.5955E+00   1.6343E+00   1.6628E-04  0.0055
   1.6343E+00   1.6741E+00   1.6285E-04  0.0055
   1.6741E+00   1.7148E+00   1.5968E-04  0.0054
   1.7148E+00   1.7565E+00   1.5598E-04  0.0054
   1.7565E+00   1.7992E+00   1.5438E-04  0.0054
   1.7992E+00   1.8430E+00   1.5218E-04  0.0054
   1.8430E+00   1.8879E+00   1.4978E-04  0.0053
   1.8879E+00   1.9338E+00   1.4706E-04  0.0053
   1.9338E+00   1.9808E+00   1.4230E-04  0.0053
   1.9808E+00   2.0290E+00   1.4172E-04  0.0053
   2.0290E+00   2.0784E+00   1.3796E-04  0.0053
   2.0784E+00   2.1290E+00   1.3482E-04  0.0053
   2.1290E+00   2.1808E+00   1.3287E-04  0.0053
   2.1808E+00   2.2338E+00   1.3003E-04  0.0052
   2.2338E+00   2.2882E+00   1.2556E-04  0.0053
   2.2882E+00   2.3439E+00   1.2270E-04  0.0053
   2.3439E+00   2.4009E+00   1.1998E-04  0.0053
   2.4009E+00   2.4593E+00   1.1799E-04  0.0052
   2.4593E+00   2.5191E+00   1.1351E-04  0.0053
   2.5191E+00   2.5804E+00   1.1010E-04  0.0053
   2.5804E+00   2.6432E+00   1.0592E-04  0.0053
   2.6432E+00   2.7075E+00   1.0279E-04  0.0053
   2.7075E+00   2.7734E+00   1.0001E-04  0.0053
   2.7734E+00   2.8409E+00   9.6364E-05  0.0054
   2.8409E+00   2.9100E+00   9.3205E-05  0.0054
   2.9100E+00   2.9808E+00   9.0886E-05  0.0054
   2.9808E+00   3.0533E+00   8.7221E-05  0.0054
   3.0533E+00   3.1276E+00   8.3957E-05  0.0055
   3.1276E+00   3.2037E+00   8.1424E-05  0.0055
   3.2037E+00   3.2817E+00   7.8120E-05  0.0055
   3.2817E+00   3.3615E+00   7.6138E-05  0.0055
   3.3615E+00   3.4433E+00   7.2504E-05  0.0056
   3.4433E+00   3.5271E+00   7.0078E-05  0.0056
   3.5271E+00   3.6129E+00   6.7304E-05  0.0057
   3.6129E+00   3.7008E+00   6.5035E-05  0.0057
   3.7008E+00   3.7908E+00   6.2841E-05  0.0057
   3.7908E+00   3.8831E+00   6.0014E-05  0.0058
   3.8831E+00   3.9776E+00   5.8064E-05  0.0058
   3.9776E+00   4.0743E+00   5.5866E-05  0.0058
   4.0743E+00   4.1735E+00   5.3914E-05  0.0059
   4.1735E+00   4.2750E+00   5.1352E-05  0.0059
   4.2750E+00   4.3790E+00   4.9752E-05  0.0060
   4.3790E+00   4.4856E+00   4.8153E-05  0.0060
   4.4856E+00   4.5947E+00   4.6998E-05  0.0060
   4.5947E+00   4.7065E+00   4.5780E-05  0.0060
   4.7065E+00   4.8210E+00   4.4354E-05  0.0060
   4.8210E+00   4.9383E+00   4.2813E-05  0.0061
   4.9383E+00   5.0585E+00   4.2220E-05  0.0060
   5.0585E+00   5.1815E+00   4.0618E-05  0.0061
   5.1815E+00   5.3076E+00   3.9528E-05  0.0061
   5.3076E+00   5.4368E+00   3.8294E-05  0.0061
   5.4368E+00   5.5690E+00   3.7987E-05  0.0061
   5.5690E+00   5.7045E+00   3.6818E-05  0.0061
   5.7045E+00   5.8433E+00   3.5864E-05  0.0061
   5.8433E+00   5.9855E+00   3.5105E-05  0.0061
   5.9855E+00   6.1311E+00   3.4409E-05  0.0061
   6.1311E+00   6.2803E+00   3.3255E-05  0.0062
   6.2803E+00   6.4331E+00   3.2630E-05  0.0061
   6.4331E+00   6.5896E+00   3.1728E-05  0.0062
   6.5896E+00   6.7500E+00   3.1068E-05  0.0062
   6.7500E+00   6.9142E+00   2.9969E-05  0.0062
   6.9142E+00   7.0824E+00   2.9345E-05  0.0062
   7.0824E+00   7.2548E+00   2.8715E-05  0.0062
   7.2548E+00   7.4313E+00   2.7778E-05  0.0062
   7.4313E+00   7.6121E+00   2.7020E-05  0.0062
   7.6121E+00   7.7973E+00   2.5987E-05  0.0063
   7.7973E+00   7.9870E+00   2.5611E-05  0.0063
   7.9870E+00   8.1813E+00   2.4677E-05  0.0063
   8.1813E+00   8.3804E+00   2.3755E-05  0.0064
   8.3804E+00   8.5843E+00   2.2971E-05  0.0064
   8.5843E+00   8.7931E+00   2.2000E-05  0.0065
   8.7931E+00   9.0071E+00   2.1353E-05  0.0065
   9.0071E+00   9.2262E+00   2.0395E-05  0.0066
   9.2262E+00   9.4507E+00   1.9508E-05  0.0066
   9.4507E+00   9.6807E+00   1.8561E-05  0.0067
   9.6807E+00   9.9162E+00   1.7973E-05  0.0068
   9.9162E+00   1.0157E+01   1.6952E-05  0.0069
   1.0157E+01   1.0405E+01   1.6486E-05  0.0069
   1.0405E+01   1.0658E+01   1.5715E-05  0.0070
   1.0658E+01   1.0917E+01   1.4859E-05  0.0071
   1.0917E+01   1.1183E+01   1.4297E-05  0.0071
   1.1183E+01   1.1455E+01   1.3539E-05  0.0073
   1.1455E+01   1.1733E+01   1.2868E-05  0.0074
   1.1733E+01   1.2019E+01   1.2155E-05  0.0075
   1.2019E+01   1.2311E+01   1.1625E-05  0.0076
   1.2311E+01   1.2611E+01   1.0877E-05  0.0077
   1.2611E+01   1.2918E+01   1.0292E-05  0.0078
   1.2918E+01   1.3232E+01   9.6616E-06  0.0080
   1.3232E+01   1.3554E+01   8.8513E-06  0.0083
   1.3554E+01   1.3884E+01   8.3620E-06  0.0084
   1.3884E+01   1.4222E+01   7.6991E-06  0.0087
   1.4222E+01   1.4568E+01   7.2404E-06  0.0088
   1.4568E+01   1.4922E+01   6.6843E-06  0.0091
   1.4922E+01   1.5285E+01   6.3171E-06  0.0093
   1.5285E+01   1.5657E+01   5.7785E-06  0.0096
   1.5657E+01   1.6038E+01   5.4019E-06  0.0098
   1.6038E+01   1.6428E+01   4.9991E-06  0.0101
   1.6428E+01   1.6828E+01   4.5241E-06  0.0104
   1.6828E+01   1.7237E+01   4.1824E-06  0.0107
   1.7237E+01   1.7657E+01   3.9015E-06  0.0110
   1.7657E+01   1.8086E+01   3.5415E-06  0.0114
   1.8086E+01   1.8526E+01   3.1819E-06  0.0119
   1.8526E+01   1.8977E+01   3.0241E-06  0.0121
   1.8977E+01   1.9439E+01   2.7464E-06  0.0125
   1.9439E+01   1.9912E+01   2.5298E-06  0.0129
   1.9912E+01   2.0396E+01   2.4001E-06  0.0131
   2.0396E+01   2.0893E+01   2.2351E-06  0.0134
   2.0893E+01   2.1401E+01   1.9877E-06  0.0141
   2.1401E+01   2.1922E+01   1.7991E-06  0.0146
   2.1922E+01   2.2455E+01   1.5614E-06  0.0155
   2.2455E+01   2.3001E+01   1.4324E-06  0.0160
   2.3001E+01   2.3561E+01   1.2669E-06  0.0168
   2.3561E+01   2.4134E+01   1.1684E-06  0.0173
   2.4134E+01   2.4721E+01   1.0092E-06  0.0184
   2.4721E+01   2.5323E+01   8.5055E-07  0.0198
   2.5323E+01   2.5939E+01   7.3654E-07  0.0210
   2.5939E+01   2.6570E+01   6.1605E-07  0.0227
   2.6570E+01   2.7217E+01   5.2005E-07  0.0244
   2.7217E+01   2.7879E+01   4.5907E-07  0.0256
   2.7879E+01   2.8557E+01   3.7210E-07  0.0281
   2.8557E+01   2.9252E+01   3.3102E-07  0.0295
   2.9252E+01   2.9964E+01   2.8073E-07  0.0316
   2.9964E+01   3.0693E+01   2.0657E-07  0.0364
   3.0693E+01   3.1440E+01   1.6551E-07  0.0402
   3.1440E+01   3.2205E+01   1.3517E-07  0.0440
   3.2205E+01   3.2988E+01   1.0261E-07  0.0499
   3.2988E+01   3.3791E+01   9.2197E-08  0.0520
   3.3791E+01   3.4613E+01   6.4708E-08  0.0613
   3.4613E+01   3.5455E+01   5.7234E-08  0.0644
   3.5455E+01   3.6318E+01   4.8455E-08  0.0692
   3.6318E+01   3.7201E+01   3.3498E-08  0.0822
   3.7201E+01   3.8106E+01   2.7399E-08  0.0898
   3.8106E+01   3.9034E+01   2.0493E-08  0.1026
   3.9034E+01   3.9983E+01   1.4952E-08  0.1187
   3.9983E+01   4.0956E+01   9.6626E-09  0.1459
   4.0956E+01   4.1953E+01   6.0211E-09  0.1826
   4.1953E+01   4.2973E+01   4.8984E-09  0.2000
   4.2973E+01   4.4019E+01   1.5303E-09  0.3536
   4.4019E+01   4.5090E+01   2.0541E-09  0.3015
   4.5090E+01   4.6187E+01   5.4691E-10  0.5774
   4.6187E+01   4.7311E+01   1.7797E-10  1.0000
   4.7311E+01   4.8462E+01   0.0000E+00  0.0000
   4.8462E+01   4.9641E+01   0.0000E+00  0.0000
   4.9641E+01   5.0849E+01   0.0000E+00  0.0000
   5.0849E+01   5.2086E+01   0.0000E+00  0.0000
   5.2086E+01   5.3353E+01   0.0000E+00  0.0000
   5.3353E+01   5.4651E+01   0.0000E+00  0.0000
   5.4651E+01   5.5981E+01   0.0000E+00  0.0000
   5.5981E+01   5.7343E+01   0.0000E+00  0.0000
   5.7343E+01   5.8738E+01   0.0000E+00  0.0000
   5.8738E+01   6.0168E+01   0.0000E+00  0.0000
   6.0168E+01   6.1632E+01   0.0000E+00  0.0000
   6.1632E+01   6.3131E+01   0.0000E+00  0.0000
   6.3131E+01   6.4667E+01   0.0000E+00  0.0000
   6.4667E+01   6.6240E+01   0.0000E+00  0.0000
   6.6240E+01   6.7852E+01   0.0000E+00  0.0000
   6.7852E+01   6.9503E+01   0.0000E+00  0.0000
   6.9503E+01   7.1194E+01   0.0000E+00  0.0000
   7.1194E+01   7.2926E+01   0.0000E+00  0.0000
   7.2926E+01   7.4701E+01   0.0000E+00  0.0000
   7.4701E+01   7.6518E+01   0.0000E+00  0.0000
   7.6518E+01   7.8380E+01   0.0000E+00  0.0000
   7.8380E+01   8.0287E+01   0.0000E+00  0.0000
   8.0287E+01   8.2240E+01   0.0000E+00  0.0000
   8.2240E+01   8.4241E+01   0.0000E+00  0.0000
   8.4241E+01   8.6291E+01   0.0000E+00  0.0000
   8.6291E+01   8.8391E+01   0.0000E+00  0.0000
   8.8391E+01   9.0541E+01   0.0000E+00  0.0000
   9.0541E+01   9.2744E+01   0.0000E+00  0.0000
   9.2744E+01   9.5001E+01   0.0000E+00  0.0000
   9.5001E+01   9.7312E+01   0.0000E+00  0.0000
   9.7312E+01   9.9680E+01   0.0000E+00  0.0000
   9.9680E+01   1.0211E+02   0.0000E+00  0.0000
   1.0211E+02   1.0459E+02   0.0000E+00  0.0000
   1.0459E+02   1.0713E+02   0.0000E+00  0.0000
   1.0713E+02   1.0974E+02   0.0000E+00  0.0000
   1.0974E+02   1.1241E+02   0.0000E+00  0.0000
   1.1241E+02   1.1515E+02   0.0000E+00  0.0000
   1.1515E+02   1.1795E+02   0.0000E+00  0.0000
   1.1795E+02   1.2082E+02   0.0000E+00  0.0000
   1.2082E+02   1.2376E+02   0.0000E+00  0.0000
   1.2376E+02   1.2677E+02   0.0000E+00  0.0000
   1.2677E+02   1.2985E+02   0.0000E+00  0.0000
   1.2985E+02   1.3301E+02   0.0000E+00  0.0000
   1.3301E+02   1.3625E+02   0.0000E+00  0.0000
   1.3625E+02   1.3956E+02   0.0000E+00  0.0000
   1.3956E+02   1.4296E+02   0.0000E+00  0.0000
   1.4296E+02   1.4644E+02   0.0000E+00  0.0000
   1.4644E+02   1.5000E+02   0.0000E+00  0.0000

#   sum over                 5.1491E-06
'no. =    1   reg = 119 - 219'
msuc: {\huge [t-cross] in region mesh}
msdr: {\it plotted by \ANGEL \version}
msdl: {\it calculated by \PHITS  3.26}
wt: s(0.7)
\vspace{-3}
  region surface crossing
  area  &=&   1.0000E+00 [cm^2]
e:
 
# Information for Restart Calculation
# This calculation was newly started
# istdev =  2 # 1:Batch variance, 2:History variance
# resc2  = 5.00000000000000000E+09 # Total source weight or Total source weight / maxcas
# resc3  = 5.00000000000000000E+09 # Total history number or Total batch number
# maxcas =   100000000 # History / Batch, only used for istdev=1
# bitrseed = 0110100000100010111000001110001111001110100100011111101000111001 # bit data of rseed
