9 <--- number of remaining batches 

-------------------------------------------------------------------------------
bat[       1] ncas =      500000000.
 bitrseed = 0100001010011000001011101100011110011000110110100110010000000000
          cpu time =  19 h. 17 m. 16.23 s.

 date = 2022-06-10
 time = 06h 10m 29s

