[ T-Cross ]
    title = [t-cross] in region mesh
     mesh =  reg            # mesh type is region-wise
      reg =    1            # number of crossing regions
      non     r-from    r-to       area
      1       120       220        1.000000    
   e-type =    3            # e-mesh is log given by emin, emax and ne
     emin =  1.0000000E-02  # minimum value of e-mesh points
     emax =   150.0000      # maximum value of e-mesh points
#    edel =  2.4039514E-02  # mesh width of e-mesh points
       ne =    400          # number of e-mesh points
#    data = ( e(i), i = 1, ne + 1 )
#           1.00000E-02  1.02433E-02  1.04925E-02  1.07478E-02  1.10093E-02
#           1.12772E-02  1.15516E-02  1.18326E-02  1.21205E-02  1.24154E-02
#           1.27175E-02  1.30269E-02  1.33439E-02  1.36686E-02  1.40011E-02
#           1.43418E-02  1.46907E-02  1.50482E-02  1.54143E-02  1.57894E-02
#           1.61735E-02  1.65670E-02  1.69701E-02  1.73830E-02  1.78060E-02
#           1.82392E-02  1.86830E-02  1.91375E-02  1.96032E-02  2.00801E-02
#           2.05687E-02  2.10692E-02  2.15818E-02  2.21069E-02  2.26448E-02
#           2.31957E-02  2.37601E-02  2.43382E-02  2.49304E-02  2.55369E-02
#           2.61583E-02  2.67947E-02  2.74467E-02  2.81145E-02  2.87985E-02
#           2.94992E-02  3.02169E-02  3.09521E-02  3.17052E-02  3.24766E-02
#           3.32668E-02  3.40762E-02  3.49053E-02  3.57546E-02  3.66246E-02
#           3.75157E-02  3.84284E-02  3.93634E-02  4.03212E-02  4.13022E-02
#           4.23071E-02  4.33365E-02  4.43909E-02  4.54710E-02  4.65773E-02
#           4.77106E-02  4.88714E-02  5.00605E-02  5.12785E-02  5.25262E-02
#           5.38042E-02  5.51133E-02  5.64542E-02  5.78278E-02  5.92348E-02
#           6.06760E-02  6.21523E-02  6.36645E-02  6.52135E-02  6.68002E-02
#           6.84255E-02  7.00904E-02  7.17957E-02  7.35426E-02  7.53319E-02
#           7.71648E-02  7.90423E-02  8.09655E-02  8.29354E-02  8.49533E-02
#           8.70203E-02  8.91376E-02  9.13064E-02  9.35279E-02  9.58035E-02
#           9.81345E-02  1.00522E-01  1.02968E-01  1.05473E-01  1.08040E-01
#           1.10668E-01  1.13361E-01  1.16119E-01  1.18944E-01  1.21838E-01
#           1.24803E-01  1.27839E-01  1.30950E-01  1.34136E-01  1.37399E-01
#           1.40742E-01  1.44167E-01  1.47675E-01  1.51268E-01  1.54948E-01
#           1.58718E-01  1.62580E-01  1.66535E-01  1.70587E-01  1.74738E-01
#           1.78989E-01  1.83344E-01  1.87805E-01  1.92375E-01  1.97055E-01
#           2.01850E-01  2.06761E-01  2.11792E-01  2.16945E-01  2.22223E-01
#           2.27630E-01  2.33169E-01  2.38842E-01  2.44653E-01  2.50605E-01
#           2.56703E-01  2.62949E-01  2.69346E-01  2.75900E-01  2.82613E-01
#           2.89489E-01  2.96532E-01  3.03747E-01  3.11138E-01  3.18708E-01
#           3.26462E-01  3.34405E-01  3.42542E-01  3.50876E-01  3.59413E-01
#           3.68158E-01  3.77116E-01  3.86291E-01  3.95690E-01  4.05317E-01
#           4.15179E-01  4.25281E-01  4.35628E-01  4.46227E-01  4.57084E-01
#           4.68205E-01  4.79597E-01  4.91266E-01  5.03219E-01  5.15463E-01
#           5.28005E-01  5.40851E-01  5.54011E-01  5.67490E-01  5.81298E-01
#           5.95441E-01  6.09929E-01  6.24769E-01  6.39970E-01  6.55541E-01
#           6.71491E-01  6.87828E-01  7.04564E-01  7.21706E-01  7.39266E-01
#           7.57253E-01  7.75678E-01  7.94551E-01  8.13883E-01  8.33685E-01
#           8.53969E-01  8.74747E-01  8.96030E-01  9.17831E-01  9.40163E-01
#           9.63038E-01  9.86469E-01  1.01047E+00  1.03506E+00  1.06024E+00
#           1.08604E+00  1.11246E+00  1.13953E+00  1.16725E+00  1.19565E+00
#           1.22474E+00  1.25454E+00  1.28507E+00  1.31633E+00  1.34836E+00
#           1.38117E+00  1.41477E+00  1.44920E+00  1.48446E+00  1.52057E+00
#           1.55757E+00  1.59547E+00  1.63429E+00  1.67405E+00  1.71478E+00
#           1.75650E+00  1.79924E+00  1.84302E+00  1.88786E+00  1.93379E+00
#           1.98084E+00  2.02904E+00  2.07841E+00  2.12898E+00  2.18078E+00
#           2.23384E+00  2.28819E+00  2.34386E+00  2.40089E+00  2.45930E+00
#           2.51914E+00  2.58043E+00  2.64322E+00  2.70753E+00  2.77341E+00
#           2.84088E+00  2.91001E+00  2.98081E+00  3.05333E+00  3.12762E+00
#           3.20372E+00  3.28167E+00  3.36152E+00  3.44330E+00  3.52708E+00
#           3.61290E+00  3.70080E+00  3.79085E+00  3.88308E+00  3.97756E+00
#           4.07434E+00  4.17347E+00  4.27501E+00  4.37903E+00  4.48557E+00
#           4.59471E+00  4.70650E+00  4.82102E+00  4.93832E+00  5.05847E+00
#           5.18155E+00  5.30762E+00  5.43676E+00  5.56904E+00  5.70453E+00
#           5.84333E+00  5.98550E+00  6.13114E+00  6.28031E+00  6.43312E+00
#           6.58964E+00  6.74997E+00  6.91420E+00  7.08243E+00  7.25475E+00
#           7.43126E+00  7.61207E+00  7.79728E+00  7.98700E+00  8.18133E+00
#           8.38038E+00  8.58428E+00  8.79315E+00  9.00709E+00  9.22624E+00
#           9.45072E+00  9.68067E+00  9.91620E+00  1.01575E+01  1.04046E+01
#           1.06578E+01  1.09171E+01  1.11827E+01  1.14548E+01  1.17335E+01
#           1.20190E+01  1.23114E+01  1.26109E+01  1.29178E+01  1.32321E+01
#           1.35540E+01  1.38838E+01  1.42216E+01  1.45676E+01  1.49221E+01
#           1.52851E+01  1.56570E+01  1.60380E+01  1.64282E+01  1.68279E+01
#           1.72374E+01  1.76568E+01  1.80864E+01  1.85264E+01  1.89772E+01
#           1.94389E+01  1.99119E+01  2.03963E+01  2.08926E+01  2.14009E+01
#           2.19216E+01  2.24550E+01  2.30014E+01  2.35610E+01  2.41343E+01
#           2.47215E+01  2.53230E+01  2.59391E+01  2.65702E+01  2.72167E+01
#           2.78789E+01  2.85572E+01  2.92520E+01  2.99637E+01  3.06928E+01
#           3.14396E+01  3.22045E+01  3.29881E+01  3.37907E+01  3.46128E+01
#           3.54550E+01  3.63177E+01  3.72013E+01  3.81064E+01  3.90336E+01
#           3.99833E+01  4.09561E+01  4.19526E+01  4.29734E+01  4.40189E+01
#           4.50900E+01  4.61870E+01  4.73108E+01  4.84619E+01  4.96410E+01
#           5.08488E+01  5.20860E+01  5.33533E+01  5.46514E+01  5.59812E+01
#           5.73432E+01  5.87384E+01  6.01676E+01  6.16315E+01  6.31311E+01
#           6.46671E+01  6.62405E+01  6.78522E+01  6.95031E+01  7.11941E+01
#           7.29263E+01  7.47007E+01  7.65182E+01  7.83800E+01  8.02870E+01
#           8.22405E+01  8.42414E+01  8.62911E+01  8.83906E+01  9.05412E+01
#           9.27442E+01  9.50007E+01  9.73122E+01  9.96799E+01  1.02105E+02
#           1.04589E+02  1.07134E+02  1.09741E+02  1.12411E+02  1.15146E+02
#           1.17948E+02  1.20817E+02  1.23757E+02  1.26768E+02  1.29852E+02
#           1.33012E+02  1.36248E+02  1.39563E+02  1.42959E+02  1.46437E+02
#           1.50000E+02
     unit =    2            # unit is [1/cm^2/(MeV/n)/source]
     axis =  eng            # axis of output
     file = detector-21.out  # file name of output for the above axis
   output = f-curr          # surface crossing forward current spectrum
     part =  neutron  
# kf/name :  2112     
#    used :        main (  %)        temp (  %)       total (  %)
#  memory :         414 (  0)           0 (  0)         414 (  0)

#------------------------------------------------------------------------------
#newpage:
#   no. =    1   reg = 120 - 220

x: Energy [MeV/n]
y:  F-Curr [1/cm^2/(MeV/n)/source]         
p: xlog ylog afac(0.8) form(0.9)
h: n            x            y(neutron ),hh0l   n 
#  e-lower      e-upper      neutron     r.err 
   1.0000E-02   1.0243E-02   1.4475E-02  0.0238
   1.0243E-02   1.0493E-02   1.4701E-02  0.0234
   1.0493E-02   1.0748E-02   1.4697E-02  0.0231
   1.0748E-02   1.1009E-02   1.4103E-02  0.0233
   1.1009E-02   1.1277E-02   1.4134E-02  0.0230
   1.1277E-02   1.1552E-02   1.3405E-02  0.0233
   1.1552E-02   1.1833E-02   1.3563E-02  0.0229
   1.1833E-02   1.2121E-02   1.3241E-02  0.0229
   1.2121E-02   1.2415E-02   1.3089E-02  0.0228
   1.2415E-02   1.2718E-02   1.3089E-02  0.0225
   1.2718E-02   1.3027E-02   1.2643E-02  0.0226
   1.3027E-02   1.3344E-02   1.2323E-02  0.0226
   1.3344E-02   1.3669E-02   1.2407E-02  0.0223
   1.3669E-02   1.4001E-02   1.1865E-02  0.0225
   1.4001E-02   1.4342E-02   1.1795E-02  0.0223
   1.4342E-02   1.4691E-02   1.2125E-02  0.0217
   1.4691E-02   1.5048E-02   1.1935E-02  0.0217
   1.5048E-02   1.5414E-02   1.1395E-02  0.0219
   1.5414E-02   1.5789E-02   1.1305E-02  0.0217
   1.5789E-02   1.6174E-02   1.1719E-02  0.0211
   1.6174E-02   1.6567E-02   1.1405E-02  0.0211
   1.6567E-02   1.6970E-02   1.0980E-02  0.0213
   1.6970E-02   1.7383E-02   1.0717E-02  0.0213
   1.7383E-02   1.7806E-02   1.0696E-02  0.0210
   1.7806E-02   1.8239E-02   1.0526E-02  0.0210
   1.8239E-02   1.8683E-02   1.0510E-02  0.0207
   1.8683E-02   1.9138E-02   1.0181E-02  0.0208
   1.9138E-02   1.9603E-02   9.5183E-03  0.0213
   1.9603E-02   2.0080E-02   9.8184E-03  0.0207
   2.0080E-02   2.0569E-02   9.9311E-03  0.0203
   2.0569E-02   2.1069E-02   9.5514E-03  0.0205
   2.1069E-02   2.1582E-02   9.6093E-03  0.0201
   2.1582E-02   2.2107E-02   9.4115E-03  0.0201
   2.2107E-02   2.2645E-02   9.5895E-03  0.0197
   2.2645E-02   2.3196E-02   9.2274E-03  0.0198
   2.3196E-02   2.3760E-02   9.3308E-03  0.0195
   2.3760E-02   2.4338E-02   8.9880E-03  0.0196
   2.4338E-02   2.4930E-02   8.7205E-03  0.0197
   2.4930E-02   2.5537E-02   8.8958E-03  0.0193
   2.5537E-02   2.6158E-02   8.3981E-03  0.0196
   2.6158E-02   2.6795E-02   8.6511E-03  0.0191
   2.6795E-02   2.7447E-02   8.4027E-03  0.0191
   2.7447E-02   2.8114E-02   7.9425E-03  0.0194
   2.8114E-02   2.8799E-02   8.0433E-03  0.0191
   2.8799E-02   2.9499E-02   8.1691E-03  0.0187
   2.9499E-02   3.0217E-02   7.9416E-03  0.0187
   3.0217E-02   3.0952E-02   7.8631E-03  0.0186
   3.0952E-02   3.1705E-02   7.6989E-03  0.0186
   3.1705E-02   3.2477E-02   7.7598E-03  0.0183
   3.2477E-02   3.3267E-02   7.7577E-03  0.0181
   3.3267E-02   3.4076E-02   7.2831E-03  0.0184
   3.4076E-02   3.4905E-02   7.3525E-03  0.0181
   3.4905E-02   3.5755E-02   7.4157E-03  0.0178
   3.5755E-02   3.6625E-02   7.1775E-03  0.0179
   3.6625E-02   3.7516E-02   7.0059E-03  0.0179
   3.7516E-02   3.8428E-02   7.1890E-03  0.0175
   3.8428E-02   3.9363E-02   7.0546E-03  0.0174
   3.9363E-02   4.0321E-02   7.0917E-03  0.0172
   4.0321E-02   4.1302E-02   6.9558E-03  0.0171
   4.1302E-02   4.2307E-02   6.7906E-03  0.0171
   4.2307E-02   4.3337E-02   6.6352E-03  0.0171
   4.3337E-02   4.4391E-02   6.6881E-03  0.0168
   4.4391E-02   4.5471E-02   6.6181E-03  0.0167
   4.5471E-02   4.6577E-02   6.7447E-03  0.0164
   4.6577E-02   4.7711E-02   6.3039E-03  0.0167
   4.7711E-02   4.8871E-02   6.3980E-03  0.0164
   4.8871E-02   5.0061E-02   6.3671E-03  0.0163
   5.0061E-02   5.1279E-02   6.3259E-03  0.0161
   5.1279E-02   5.2526E-02   6.3832E-03  0.0158
   5.2526E-02   5.3804E-02   6.1596E-03  0.0159
   5.3804E-02   5.5113E-02   6.0301E-03  0.0159
   5.5113E-02   5.6454E-02   6.0219E-03  0.0157
   5.6454E-02   5.7828E-02   5.9429E-03  0.0157
   5.7828E-02   5.9235E-02   5.9410E-03  0.0155
   5.9235E-02   6.0676E-02   5.8256E-03  0.0154
   6.0676E-02   6.2152E-02   5.8484E-03  0.0152
   6.2152E-02   6.3665E-02   5.7505E-03  0.0152
   6.3665E-02   6.5214E-02   5.8102E-03  0.0149
   6.5214E-02   6.6800E-02   5.6217E-03  0.0150
   6.6800E-02   6.8426E-02   5.5731E-03  0.0149
   6.8426E-02   7.0090E-02   5.5104E-03  0.0148
   7.0090E-02   7.1796E-02   5.4540E-03  0.0147
   7.1796E-02   7.3543E-02   5.4859E-03  0.0144
   7.3543E-02   7.5332E-02   5.4081E-03  0.0144
   7.5332E-02   7.7165E-02   5.2933E-03  0.0144
   7.7165E-02   7.9042E-02   5.2517E-03  0.0142
   7.9042E-02   8.0965E-02   5.2393E-03  0.0141
   8.0965E-02   8.2935E-02   5.1818E-03  0.0140
   8.2935E-02   8.4953E-02   5.1856E-03  0.0138
   8.4953E-02   8.7020E-02   5.1302E-03  0.0137
   8.7020E-02   8.9138E-02   5.0664E-03  0.0137
   8.9138E-02   9.1306E-02   5.0554E-03  0.0135
   9.1306E-02   9.3528E-02   4.9506E-03  0.0135
   9.3528E-02   9.5804E-02   4.9209E-03  0.0134
   9.5804E-02   9.8134E-02   4.9250E-03  0.0132
   9.8134E-02   1.0052E-01   4.8633E-03  0.0131
   1.0052E-01   1.0297E-01   4.8365E-03  0.0130
   1.0297E-01   1.0547E-01   4.7164E-03  0.0130
   1.0547E-01   1.0804E-01   4.7408E-03  0.0128
   1.0804E-01   1.1067E-01   4.6464E-03  0.0128
   1.1067E-01   1.1336E-01   4.5450E-03  0.0128
   1.1336E-01   1.1612E-01   4.5806E-03  0.0126
   1.1612E-01   1.1894E-01   4.6035E-03  0.0124
   1.1894E-01   1.2184E-01   4.5218E-03  0.0124
   1.2184E-01   1.2480E-01   4.5007E-03  0.0122
   1.2480E-01   1.2784E-01   4.4900E-03  0.0121
   1.2784E-01   1.3095E-01   4.5425E-03  0.0119
   1.3095E-01   1.3414E-01   4.4368E-03  0.0119
   1.3414E-01   1.3740E-01   4.3835E-03  0.0118
   1.3740E-01   1.4074E-01   4.4002E-03  0.0117
   1.4074E-01   1.4417E-01   4.3582E-03  0.0116
   1.4417E-01   1.4767E-01   4.2940E-03  0.0115
   1.4767E-01   1.5127E-01   4.2727E-03  0.0114
   1.5127E-01   1.5495E-01   4.2546E-03  0.0113
   1.5495E-01   1.5872E-01   4.1220E-03  0.0113
   1.5872E-01   1.6258E-01   4.1691E-03  0.0111
   1.6258E-01   1.6654E-01   4.1131E-03  0.0111
   1.6654E-01   1.7059E-01   4.0188E-03  0.0111
   1.7059E-01   1.7474E-01   4.0891E-03  0.0109
   1.7474E-01   1.7899E-01   3.9819E-03  0.0109
   1.7899E-01   1.8334E-01   4.0552E-03  0.0106
   1.8334E-01   1.8781E-01   4.0418E-03  0.0105
   1.8781E-01   1.9237E-01   3.9366E-03  0.0105
   1.9237E-01   1.9706E-01   3.9264E-03  0.0104
   1.9706E-01   2.0185E-01   3.8565E-03  0.0104
   2.0185E-01   2.0676E-01   3.8838E-03  0.0102
   2.0676E-01   2.1179E-01   3.7931E-03  0.0102
   2.1179E-01   2.1694E-01   3.7748E-03  0.0101
   2.1694E-01   2.2222E-01   3.7894E-03  0.0100
   2.2222E-01   2.2763E-01   3.7238E-03  0.0100
   2.2763E-01   2.3317E-01   3.6613E-03  0.0099
   2.3317E-01   2.3884E-01   3.6738E-03  0.0098
   2.3884E-01   2.4465E-01   3.6340E-03  0.0097
   2.4465E-01   2.5061E-01   3.5628E-03  0.0097
   2.5061E-01   2.5670E-01   3.5389E-03  0.0096
   2.5670E-01   2.6295E-01   3.5345E-03  0.0095
   2.6295E-01   2.6935E-01   3.4656E-03  0.0095
   2.6935E-01   2.7590E-01   3.4455E-03  0.0094
   2.7590E-01   2.8261E-01   3.3908E-03  0.0094
   2.8261E-01   2.8949E-01   3.3469E-03  0.0093
   2.8949E-01   2.9653E-01   3.3197E-03  0.0093
   2.9653E-01   3.0375E-01   3.3295E-03  0.0091
   3.0375E-01   3.1114E-01   3.3040E-03  0.0091
   3.1114E-01   3.1871E-01   3.2908E-03  0.0090
   3.1871E-01   3.2646E-01   3.2039E-03  0.0090
   3.2646E-01   3.3441E-01   3.1852E-03  0.0089
   3.3441E-01   3.4254E-01   3.1728E-03  0.0088
   3.4254E-01   3.5088E-01   3.0788E-03  0.0088
   3.5088E-01   3.5941E-01   3.0494E-03  0.0088
   3.5941E-01   3.6816E-01   3.0387E-03  0.0087
   3.6816E-01   3.7712E-01   2.9461E-03  0.0087
   3.7712E-01   3.8629E-01   2.9236E-03  0.0086
   3.8629E-01   3.9569E-01   2.9191E-03  0.0085
   3.9569E-01   4.0532E-01   2.8352E-03  0.0086
   4.0532E-01   4.1518E-01   2.8285E-03  0.0085
   4.1518E-01   4.2528E-01   2.7778E-03  0.0084
   4.2528E-01   4.3563E-01   2.7391E-03  0.0084
   4.3563E-01   4.4623E-01   2.7603E-03  0.0083
   4.4623E-01   4.5708E-01   2.7238E-03  0.0082
   4.5708E-01   4.6821E-01   2.6511E-03  0.0082
   4.6821E-01   4.7960E-01   2.5776E-03  0.0083
   4.7960E-01   4.9127E-01   2.5341E-03  0.0082
   4.9127E-01   5.0322E-01   2.5612E-03  0.0081
   5.0322E-01   5.1546E-01   2.4497E-03  0.0082
   5.1546E-01   5.2800E-01   2.3996E-03  0.0082
   5.2800E-01   5.4085E-01   2.3835E-03  0.0081
   5.4085E-01   5.5401E-01   2.3392E-03  0.0081
   5.5401E-01   5.6749E-01   2.2615E-03  0.0081
   5.6749E-01   5.8130E-01   2.2340E-03  0.0081
   5.8130E-01   5.9544E-01   2.1981E-03  0.0080
   5.9544E-01   6.0993E-01   2.1625E-03  0.0080
   6.0993E-01   6.2477E-01   2.1314E-03  0.0080
   6.2477E-01   6.3997E-01   2.0572E-03  0.0080
   6.3997E-01   6.5554E-01   2.0500E-03  0.0079
   6.5554E-01   6.7149E-01   1.9724E-03  0.0080
   6.7149E-01   6.8783E-01   1.9020E-03  0.0080
   6.8783E-01   7.0456E-01   1.8852E-03  0.0080
   7.0456E-01   7.2171E-01   1.8316E-03  0.0080
   7.2171E-01   7.3927E-01   1.7724E-03  0.0080
   7.3927E-01   7.5725E-01   1.6985E-03  0.0081
   7.5725E-01   7.7568E-01   1.6456E-03  0.0081
   7.7568E-01   7.9455E-01   1.6214E-03  0.0081
   7.9455E-01   8.1388E-01   1.5404E-03  0.0082
   8.1388E-01   8.3368E-01   1.4932E-03  0.0082
   8.3368E-01   8.5397E-01   1.4514E-03  0.0083
   8.5397E-01   8.7475E-01   1.4018E-03  0.0083
   8.7475E-01   8.9603E-01   1.3360E-03  0.0084
   8.9603E-01   9.1783E-01   1.2886E-03  0.0084
   9.1783E-01   9.4016E-01   1.2075E-03  0.0086
   9.4016E-01   9.6304E-01   1.1691E-03  0.0087
   9.6304E-01   9.8647E-01   1.0960E-03  0.0088
   9.8647E-01   1.0105E+00   1.0576E-03  0.0089
   1.0105E+00   1.0351E+00   1.0516E-03  0.0088
   1.0351E+00   1.0602E+00   1.0163E-03  0.0088
   1.0602E+00   1.0860E+00   1.0487E-03  0.0086
   1.0860E+00   1.1125E+00   1.0434E-03  0.0085
   1.1125E+00   1.1395E+00   1.0273E-03  0.0085
   1.1395E+00   1.1673E+00   1.0398E-03  0.0083
   1.1673E+00   1.1957E+00   1.0513E-03  0.0082
   1.1957E+00   1.2247E+00   1.0672E-03  0.0080
   1.2247E+00   1.2545E+00   1.0376E-03  0.0081
   1.2545E+00   1.2851E+00   1.0529E-03  0.0079
   1.2851E+00   1.3163E+00   1.0253E-03  0.0079
   1.3163E+00   1.3484E+00   1.0337E-03  0.0078
   1.3484E+00   1.3812E+00   1.0117E-03  0.0078
   1.3812E+00   1.4148E+00   1.0298E-03  0.0076
   1.4148E+00   1.4492E+00   1.0091E-03  0.0076
   1.4492E+00   1.4845E+00   9.8565E-04  0.0076
   1.4845E+00   1.5206E+00   9.6456E-04  0.0076
   1.5206E+00   1.5576E+00   9.3743E-04  0.0076
   1.5576E+00   1.5955E+00   9.3411E-04  0.0075
   1.5955E+00   1.6343E+00   9.4243E-04  0.0074
   1.6343E+00   1.6741E+00   9.0882E-04  0.0074
   1.6741E+00   1.7148E+00   9.0948E-04  0.0074
   1.7148E+00   1.7565E+00   8.8253E-04  0.0074
   1.7565E+00   1.7992E+00   8.5911E-04  0.0074
   1.7992E+00   1.8430E+00   8.3446E-04  0.0074
   1.8430E+00   1.8879E+00   8.0246E-04  0.0075
   1.8879E+00   1.9338E+00   7.7585E-04  0.0075
   1.9338E+00   1.9808E+00   7.7006E-04  0.0074
   1.9808E+00   2.0290E+00   7.4874E-04  0.0075
   2.0290E+00   2.0784E+00   7.3078E-04  0.0075
   2.0784E+00   2.1290E+00   6.8627E-04  0.0076
   2.1290E+00   2.1808E+00   6.7074E-04  0.0076
   2.1808E+00   2.2338E+00   6.3445E-04  0.0077
   2.2338E+00   2.2882E+00   6.1605E-04  0.0077
   2.2882E+00   2.3439E+00   5.8976E-04  0.0078
   2.3439E+00   2.4009E+00   5.7821E-04  0.0078
   2.4009E+00   2.4593E+00   5.5658E-04  0.0079
   2.4593E+00   2.5191E+00   5.2083E-04  0.0080
   2.5191E+00   2.5804E+00   5.0127E-04  0.0081
   2.5804E+00   2.6432E+00   4.7592E-04  0.0082
   2.6432E+00   2.7075E+00   4.5093E-04  0.0083
   2.7075E+00   2.7734E+00   4.2634E-04  0.0084
   2.7734E+00   2.8409E+00   4.0587E-04  0.0085
   2.8409E+00   2.9100E+00   3.9101E-04  0.0086
   2.9100E+00   2.9808E+00   3.7288E-04  0.0087
   2.9808E+00   3.0533E+00   3.5469E-04  0.0088
   3.0533E+00   3.1276E+00   3.3127E-04  0.0090
   3.1276E+00   3.2037E+00   3.0718E-04  0.0093
   3.2037E+00   3.2817E+00   2.9204E-04  0.0094
   3.2817E+00   3.3615E+00   2.6897E-04  0.0097
   3.3615E+00   3.4433E+00   2.5248E-04  0.0098
   3.4433E+00   3.5271E+00   2.3633E-04  0.0101
   3.5271E+00   3.6129E+00   2.2923E-04  0.0101
   3.6129E+00   3.7008E+00   2.0894E-04  0.0104
   3.7008E+00   3.7908E+00   1.9674E-04  0.0106
   3.7908E+00   3.8831E+00   1.7848E-04  0.0110
   3.8831E+00   3.9776E+00   1.6465E-04  0.0113
   3.9776E+00   4.0743E+00   1.5865E-04  0.0114
   4.0743E+00   4.1735E+00   1.4859E-04  0.0117
   4.1735E+00   4.2750E+00   1.3793E-04  0.0120
   4.2750E+00   4.3790E+00   1.2542E-04  0.0124
   4.3790E+00   4.4856E+00   1.1753E-04  0.0126
   4.4856E+00   4.5947E+00   1.0959E-04  0.0129
   4.5947E+00   4.7065E+00   9.8754E-05  0.0135
   4.7065E+00   4.8210E+00   9.3754E-05  0.0137
   4.8210E+00   4.9383E+00   8.8577E-05  0.0139
   4.9383E+00   5.0585E+00   7.9915E-05  0.0144
   5.0585E+00   5.1815E+00   7.3085E-05  0.0149
   5.1815E+00   5.3076E+00   6.6407E-05  0.0155
   5.3076E+00   5.4368E+00   6.2507E-05  0.0157
   5.4368E+00   5.5690E+00   5.9782E-05  0.0159
   5.5690E+00   5.7045E+00   5.2797E-05  0.0167
   5.7045E+00   5.8433E+00   4.8669E-05  0.0172
   5.8433E+00   5.9855E+00   4.4495E-05  0.0178
   5.9855E+00   6.1311E+00   4.0225E-05  0.0185
   6.1311E+00   6.2803E+00   3.8016E-05  0.0188
   6.2803E+00   6.4331E+00   3.5719E-05  0.0191
   6.4331E+00   6.5896E+00   3.2653E-05  0.0198
   6.5896E+00   6.7500E+00   2.9545E-05  0.0205
   6.7500E+00   6.9142E+00   2.6895E-05  0.0213
   6.9142E+00   7.0824E+00   2.3950E-05  0.0223
   7.0824E+00   7.2548E+00   2.1733E-05  0.0231
   7.2548E+00   7.4313E+00   2.0656E-05  0.0234
   7.4313E+00   7.6121E+00   1.9252E-05  0.0240
   7.6121E+00   7.7973E+00   1.7429E-05  0.0249
   7.7973E+00   7.9870E+00   1.5987E-05  0.0257
   7.9870E+00   8.1813E+00   1.4902E-05  0.0263
   8.1813E+00   8.3804E+00   1.2765E-05  0.0280
   8.3804E+00   8.5843E+00   1.2065E-05  0.0285
   8.5843E+00   8.7931E+00   1.0758E-05  0.0298
   8.7931E+00   9.0071E+00   9.4183E-06  0.0315
   9.0071E+00   9.2262E+00   8.4007E-06  0.0329
   9.2262E+00   9.4507E+00   7.8804E-06  0.0336
   9.4507E+00   9.6807E+00   7.3757E-06  0.0343
   9.6807E+00   9.9162E+00   6.4533E-06  0.0362
   9.9162E+00   1.0157E+01   5.5457E-06  0.0386
   1.0157E+01   1.0405E+01   5.3047E-06  0.0389
   1.0405E+01   1.0658E+01   4.4598E-06  0.0419
   1.0658E+01   1.0917E+01   4.0338E-06  0.0435
   1.0917E+01   1.1183E+01   3.3356E-06  0.0473
   1.1183E+01   1.1455E+01   3.0542E-06  0.0488
   1.1455E+01   1.1733E+01   2.8238E-06  0.0501
   1.1733E+01   1.2019E+01   2.6271E-06  0.0512
   1.2019E+01   1.2311E+01   2.4450E-06  0.0526
   1.2311E+01   1.2611E+01   2.0231E-06  0.0571
   1.2611E+01   1.2918E+01   1.6393E-06  0.0626
   1.2918E+01   1.3232E+01   1.6481E-06  0.0618
   1.3232E+01   1.3554E+01   1.3512E-06  0.0675
   1.3554E+01   1.3884E+01   1.2736E-06  0.0684
   1.3884E+01   1.4222E+01   1.1368E-06  0.0715
   1.4222E+01   1.4568E+01   1.1184E-06  0.0715
   1.4568E+01   1.4922E+01   9.3386E-07  0.0774
   1.4922E+01   1.5285E+01   9.3371E-07  0.0765
   1.5285E+01   1.5657E+01   6.5609E-07  0.0902
   1.5657E+01   1.6038E+01   7.0351E-07  0.0859
   1.6038E+01   1.6428E+01   8.0212E-07  0.0796
   1.6428E+01   1.6828E+01   6.1544E-07  0.0898
   1.6828E+01   1.7237E+01   6.0327E-07  0.0899
   1.7237E+01   1.7657E+01   4.4588E-07  0.1024
   1.7657E+01   1.8086E+01   4.9813E-07  0.0962
   1.8086E+01   1.8526E+01   4.9539E-07  0.0951
   1.8526E+01   1.8977E+01   4.3260E-07  0.1009
   1.8977E+01   1.9439E+01   3.7035E-07  0.1080
   1.9439E+01   1.9912E+01   4.2498E-07  0.0996
   1.9912E+01   2.0396E+01   3.1787E-07  0.1140
   2.0396E+01   2.0893E+01   2.4987E-07  0.1270
   2.0893E+01   2.1401E+01   3.1869E-07  0.1111
   2.1401E+01   2.1922E+01   2.9575E-07  0.1140
   2.1922E+01   2.2455E+01   2.3623E-07  0.1260
   2.2455E+01   2.3001E+01   2.1232E-07  0.1313
   2.3001E+01   2.3561E+01   2.0013E-07  0.1336
   2.3561E+01   2.4134E+01   1.7793E-07  0.1400
   2.4134E+01   2.4721E+01   1.6689E-07  0.1429
   2.4721E+01   2.5323E+01   1.6293E-07  0.1429
   2.5323E+01   2.5939E+01   1.2984E-07  0.1581
   2.5939E+01   2.6570E+01   1.1408E-07  0.1667
   2.6570E+01   2.7217E+01   1.0828E-07  0.1690
   2.7217E+01   2.7879E+01   8.7586E-08  0.1857
   2.7879E+01   2.8557E+01   6.4867E-08  0.2132
   2.8557E+01   2.9252E+01   7.7718E-08  0.1925
   2.9252E+01   2.9964E+01   7.8682E-08  0.1890
   2.9964E+01   3.0693E+01   4.3893E-08  0.2500
   3.0693E+01   3.1440E+01   3.7494E-08  0.2673
   3.1440E+01   3.2205E+01   3.9218E-08  0.2582
   3.2205E+01   3.2988E+01   2.5524E-08  0.3162
   3.2988E+01   3.3791E+01   3.2394E-08  0.2774
   3.3791E+01   3.4613E+01   3.8922E-08  0.2500
   3.4613E+01   3.5455E+01   2.8498E-08  0.2887
   3.5455E+01   3.6318E+01   2.3184E-08  0.3162
   3.6318E+01   3.7201E+01   6.7901E-09  0.5774
   3.7201E+01   3.8106E+01   8.8384E-09  0.5000
   3.8106E+01   3.9034E+01   8.6285E-09  0.5000
   3.9034E+01   3.9983E+01   8.4236E-09  0.5000
   3.9983E+01   4.0956E+01   2.0559E-09  1.0000
   4.0956E+01   4.1953E+01   8.0281E-09  0.5000
   4.1953E+01   4.2973E+01   3.9187E-09  0.7071
   4.2973E+01   4.4019E+01   3.8256E-09  0.7071
   4.4019E+01   4.5090E+01   1.8674E-09  1.0000
   4.5090E+01   4.6187E+01   3.6461E-09  0.7071
   4.6187E+01   4.7311E+01   1.7797E-09  1.0000
   4.7311E+01   4.8462E+01   0.0000E+00  0.0000
   4.8462E+01   4.9641E+01   0.0000E+00  0.0000
   4.9641E+01   5.0849E+01   0.0000E+00  0.0000
   5.0849E+01   5.2086E+01   0.0000E+00  0.0000
   5.2086E+01   5.3353E+01   0.0000E+00  0.0000
   5.3353E+01   5.4651E+01   0.0000E+00  0.0000
   5.4651E+01   5.5981E+01   0.0000E+00  0.0000
   5.5981E+01   5.7343E+01   0.0000E+00  0.0000
   5.7343E+01   5.8738E+01   0.0000E+00  0.0000
   5.8738E+01   6.0168E+01   0.0000E+00  0.0000
   6.0168E+01   6.1632E+01   0.0000E+00  0.0000
   6.1632E+01   6.3131E+01   0.0000E+00  0.0000
   6.3131E+01   6.4667E+01   0.0000E+00  0.0000
   6.4667E+01   6.6240E+01   0.0000E+00  0.0000
   6.6240E+01   6.7852E+01   0.0000E+00  0.0000
   6.7852E+01   6.9503E+01   0.0000E+00  0.0000
   6.9503E+01   7.1194E+01   0.0000E+00  0.0000
   7.1194E+01   7.2926E+01   0.0000E+00  0.0000
   7.2926E+01   7.4701E+01   0.0000E+00  0.0000
   7.4701E+01   7.6518E+01   0.0000E+00  0.0000
   7.6518E+01   7.8380E+01   0.0000E+00  0.0000
   7.8380E+01   8.0287E+01   0.0000E+00  0.0000
   8.0287E+01   8.2240E+01   0.0000E+00  0.0000
   8.2240E+01   8.4241E+01   0.0000E+00  0.0000
   8.4241E+01   8.6291E+01   0.0000E+00  0.0000
   8.6291E+01   8.8391E+01   0.0000E+00  0.0000
   8.8391E+01   9.0541E+01   0.0000E+00  0.0000
   9.0541E+01   9.2744E+01   0.0000E+00  0.0000
   9.2744E+01   9.5001E+01   0.0000E+00  0.0000
   9.5001E+01   9.7312E+01   0.0000E+00  0.0000
   9.7312E+01   9.9680E+01   0.0000E+00  0.0000
   9.9680E+01   1.0211E+02   0.0000E+00  0.0000
   1.0211E+02   1.0459E+02   0.0000E+00  0.0000
   1.0459E+02   1.0713E+02   0.0000E+00  0.0000
   1.0713E+02   1.0974E+02   0.0000E+00  0.0000
   1.0974E+02   1.1241E+02   0.0000E+00  0.0000
   1.1241E+02   1.1515E+02   0.0000E+00  0.0000
   1.1515E+02   1.1795E+02   0.0000E+00  0.0000
   1.1795E+02   1.2082E+02   0.0000E+00  0.0000
   1.2082E+02   1.2376E+02   0.0000E+00  0.0000
   1.2376E+02   1.2677E+02   0.0000E+00  0.0000
   1.2677E+02   1.2985E+02   0.0000E+00  0.0000
   1.2985E+02   1.3301E+02   0.0000E+00  0.0000
   1.3301E+02   1.3625E+02   0.0000E+00  0.0000
   1.3625E+02   1.3956E+02   0.0000E+00  0.0000
   1.3956E+02   1.4296E+02   0.0000E+00  0.0000
   1.4296E+02   1.4644E+02   0.0000E+00  0.0000
   1.4644E+02   1.5000E+02   0.0000E+00  0.0000

#   sum over                 3.2193E-05
'no. =    1   reg = 120 - 220'
msuc: {\huge [t-cross] in region mesh}
msdr: {\it plotted by \ANGEL \version}
msdl: {\it calculated by \PHITS  3.26}
wt: s(0.7)
\vspace{-3}
  region surface crossing
  area  &=&   1.0000E+00 [cm^2]
e:
 
# Information for Restart Calculation
# This calculation was newly started
# istdev =  2 # 1:Batch variance, 2:History variance
# resc2  = 5.00000000000000000E+08 # Total source weight or Total source weight / maxcas
# resc3  = 5.00000000000000000E+08 # Total history number or Total batch number
# maxcas =   500000000 # History / Batch, only used for istdev=1
# bitrseed = 1101101111010011011000101101110001100110110010110001010100010001 # bit data of rseed
