[ T-Cross ]
    title = [t-cross] in region mesh
     mesh =  reg            # mesh type is region-wise
      reg =    1            # number of crossing regions
      non     r-from    r-to       area
      1       107       207        1.000000    
   e-type =    3            # e-mesh is log given by emin, emax and ne
     emin =  1.0000000E-02  # minimum value of e-mesh points
     emax =   150.0000      # maximum value of e-mesh points
#    edel =  2.4039514E-02  # mesh width of e-mesh points
       ne =    400          # number of e-mesh points
#    data = ( e(i), i = 1, ne + 1 )
#           1.00000E-02  1.02433E-02  1.04925E-02  1.07478E-02  1.10093E-02
#           1.12772E-02  1.15516E-02  1.18326E-02  1.21205E-02  1.24154E-02
#           1.27175E-02  1.30269E-02  1.33439E-02  1.36686E-02  1.40011E-02
#           1.43418E-02  1.46907E-02  1.50482E-02  1.54143E-02  1.57894E-02
#           1.61735E-02  1.65670E-02  1.69701E-02  1.73830E-02  1.78060E-02
#           1.82392E-02  1.86830E-02  1.91375E-02  1.96032E-02  2.00801E-02
#           2.05687E-02  2.10692E-02  2.15818E-02  2.21069E-02  2.26448E-02
#           2.31957E-02  2.37601E-02  2.43382E-02  2.49304E-02  2.55369E-02
#           2.61583E-02  2.67947E-02  2.74467E-02  2.81145E-02  2.87985E-02
#           2.94992E-02  3.02169E-02  3.09521E-02  3.17052E-02  3.24766E-02
#           3.32668E-02  3.40762E-02  3.49053E-02  3.57546E-02  3.66246E-02
#           3.75157E-02  3.84284E-02  3.93634E-02  4.03212E-02  4.13022E-02
#           4.23071E-02  4.33365E-02  4.43909E-02  4.54710E-02  4.65773E-02
#           4.77106E-02  4.88714E-02  5.00605E-02  5.12785E-02  5.25262E-02
#           5.38042E-02  5.51133E-02  5.64542E-02  5.78278E-02  5.92348E-02
#           6.06760E-02  6.21523E-02  6.36645E-02  6.52135E-02  6.68002E-02
#           6.84255E-02  7.00904E-02  7.17957E-02  7.35426E-02  7.53319E-02
#           7.71648E-02  7.90423E-02  8.09655E-02  8.29354E-02  8.49533E-02
#           8.70203E-02  8.91376E-02  9.13064E-02  9.35279E-02  9.58035E-02
#           9.81345E-02  1.00522E-01  1.02968E-01  1.05473E-01  1.08040E-01
#           1.10668E-01  1.13361E-01  1.16119E-01  1.18944E-01  1.21838E-01
#           1.24803E-01  1.27839E-01  1.30950E-01  1.34136E-01  1.37399E-01
#           1.40742E-01  1.44167E-01  1.47675E-01  1.51268E-01  1.54948E-01
#           1.58718E-01  1.62580E-01  1.66535E-01  1.70587E-01  1.74738E-01
#           1.78989E-01  1.83344E-01  1.87805E-01  1.92375E-01  1.97055E-01
#           2.01850E-01  2.06761E-01  2.11792E-01  2.16945E-01  2.22223E-01
#           2.27630E-01  2.33169E-01  2.38842E-01  2.44653E-01  2.50605E-01
#           2.56703E-01  2.62949E-01  2.69346E-01  2.75900E-01  2.82613E-01
#           2.89489E-01  2.96532E-01  3.03747E-01  3.11138E-01  3.18708E-01
#           3.26462E-01  3.34405E-01  3.42542E-01  3.50876E-01  3.59413E-01
#           3.68158E-01  3.77116E-01  3.86291E-01  3.95690E-01  4.05317E-01
#           4.15179E-01  4.25281E-01  4.35628E-01  4.46227E-01  4.57084E-01
#           4.68205E-01  4.79597E-01  4.91266E-01  5.03219E-01  5.15463E-01
#           5.28005E-01  5.40851E-01  5.54011E-01  5.67490E-01  5.81298E-01
#           5.95441E-01  6.09929E-01  6.24769E-01  6.39970E-01  6.55541E-01
#           6.71491E-01  6.87828E-01  7.04564E-01  7.21706E-01  7.39266E-01
#           7.57253E-01  7.75678E-01  7.94551E-01  8.13883E-01  8.33685E-01
#           8.53969E-01  8.74747E-01  8.96030E-01  9.17831E-01  9.40163E-01
#           9.63038E-01  9.86469E-01  1.01047E+00  1.03506E+00  1.06024E+00
#           1.08604E+00  1.11246E+00  1.13953E+00  1.16725E+00  1.19565E+00
#           1.22474E+00  1.25454E+00  1.28507E+00  1.31633E+00  1.34836E+00
#           1.38117E+00  1.41477E+00  1.44920E+00  1.48446E+00  1.52057E+00
#           1.55757E+00  1.59547E+00  1.63429E+00  1.67405E+00  1.71478E+00
#           1.75650E+00  1.79924E+00  1.84302E+00  1.88786E+00  1.93379E+00
#           1.98084E+00  2.02904E+00  2.07841E+00  2.12898E+00  2.18078E+00
#           2.23384E+00  2.28819E+00  2.34386E+00  2.40089E+00  2.45930E+00
#           2.51914E+00  2.58043E+00  2.64322E+00  2.70753E+00  2.77341E+00
#           2.84088E+00  2.91001E+00  2.98081E+00  3.05333E+00  3.12762E+00
#           3.20372E+00  3.28167E+00  3.36152E+00  3.44330E+00  3.52708E+00
#           3.61290E+00  3.70080E+00  3.79085E+00  3.88308E+00  3.97756E+00
#           4.07434E+00  4.17347E+00  4.27501E+00  4.37903E+00  4.48557E+00
#           4.59471E+00  4.70650E+00  4.82102E+00  4.93832E+00  5.05847E+00
#           5.18155E+00  5.30762E+00  5.43676E+00  5.56904E+00  5.70453E+00
#           5.84333E+00  5.98550E+00  6.13114E+00  6.28031E+00  6.43312E+00
#           6.58964E+00  6.74997E+00  6.91420E+00  7.08243E+00  7.25475E+00
#           7.43126E+00  7.61207E+00  7.79728E+00  7.98700E+00  8.18133E+00
#           8.38038E+00  8.58428E+00  8.79315E+00  9.00709E+00  9.22624E+00
#           9.45072E+00  9.68067E+00  9.91620E+00  1.01575E+01  1.04046E+01
#           1.06578E+01  1.09171E+01  1.11827E+01  1.14548E+01  1.17335E+01
#           1.20190E+01  1.23114E+01  1.26109E+01  1.29178E+01  1.32321E+01
#           1.35540E+01  1.38838E+01  1.42216E+01  1.45676E+01  1.49221E+01
#           1.52851E+01  1.56570E+01  1.60380E+01  1.64282E+01  1.68279E+01
#           1.72374E+01  1.76568E+01  1.80864E+01  1.85264E+01  1.89772E+01
#           1.94389E+01  1.99119E+01  2.03963E+01  2.08926E+01  2.14009E+01
#           2.19216E+01  2.24550E+01  2.30014E+01  2.35610E+01  2.41343E+01
#           2.47215E+01  2.53230E+01  2.59391E+01  2.65702E+01  2.72167E+01
#           2.78789E+01  2.85572E+01  2.92520E+01  2.99637E+01  3.06928E+01
#           3.14396E+01  3.22045E+01  3.29881E+01  3.37907E+01  3.46128E+01
#           3.54550E+01  3.63177E+01  3.72013E+01  3.81064E+01  3.90336E+01
#           3.99833E+01  4.09561E+01  4.19526E+01  4.29734E+01  4.40189E+01
#           4.50900E+01  4.61870E+01  4.73108E+01  4.84619E+01  4.96410E+01
#           5.08488E+01  5.20860E+01  5.33533E+01  5.46514E+01  5.59812E+01
#           5.73432E+01  5.87384E+01  6.01676E+01  6.16315E+01  6.31311E+01
#           6.46671E+01  6.62405E+01  6.78522E+01  6.95031E+01  7.11941E+01
#           7.29263E+01  7.47007E+01  7.65182E+01  7.83800E+01  8.02870E+01
#           8.22405E+01  8.42414E+01  8.62911E+01  8.83906E+01  9.05412E+01
#           9.27442E+01  9.50007E+01  9.73122E+01  9.96799E+01  1.02105E+02
#           1.04589E+02  1.07134E+02  1.09741E+02  1.12411E+02  1.15146E+02
#           1.17948E+02  1.20817E+02  1.23757E+02  1.26768E+02  1.29852E+02
#           1.33012E+02  1.36248E+02  1.39563E+02  1.42959E+02  1.46437E+02
#           1.50000E+02
     unit =    2            # unit is [1/cm^2/(MeV/n)/source]
     axis =  eng            # axis of output
     file = detector-08.out  # file name of output for the above axis
   output = f-curr          # surface crossing forward current spectrum
     part =  neutron  
# kf/name :  2112     
#    used :        main (  %)        temp (  %)       total (  %)
#  memory :         414 (  0)           0 (  0)         414 (  0)

#------------------------------------------------------------------------------
#newpage:
#   no. =    1   reg = 107 - 207

x: Energy [MeV/n]
y:  F-Curr [1/cm^2/(MeV/n)/source]         
p: xlog ylog afac(0.8) form(0.9)
h: n            x            y(neutron ),hh0l   n 
#  e-lower      e-upper      neutron     r.err 
   1.0000E-02   1.0243E-02   1.7102E-04  0.1249
   1.0243E-02   1.0493E-02   1.6181E-04  0.1272
   1.0493E-02   1.0748E-02   2.0913E-04  0.1111
   1.0748E-02   1.1009E-02   2.1928E-04  0.1073
   1.1009E-02   1.1277E-02   1.5666E-04  0.1246
   1.1277E-02   1.1552E-02   1.9245E-04  0.1114
   1.1552E-02   1.1833E-02   1.7359E-04  0.1156
   1.1833E-02   1.2121E-02   1.6146E-04  0.1188
   1.2121E-02   1.2415E-02   2.0228E-04  0.1052
   1.2415E-02   1.2718E-02   1.5007E-04  0.1208
   1.2718E-02   1.3027E-02   1.5690E-04  0.1162
   1.3027E-02   1.3344E-02   1.5834E-04  0.1146
   1.3344E-02   1.3669E-02   1.4129E-04  0.1195
   1.3669E-02   1.4001E-02   1.5651E-04  0.1125
   1.4001E-02   1.4342E-02   1.3823E-04  0.1181
   1.4342E-02   1.4691E-02   1.6728E-04  0.1059
   1.4691E-02   1.5048E-02   1.5581E-04  0.1087
   1.5048E-02   1.5414E-02   1.6011E-04  0.1055
   1.5414E-02   1.5789E-02   1.6820E-04  0.1025
   1.5789E-02   1.6174E-02   1.2958E-04  0.1148
   1.6174E-02   1.6567E-02   1.2192E-04  0.1169
   1.6567E-02   1.6970E-02   1.1566E-04  0.1185
   1.6970E-02   1.7383E-02   1.2614E-04  0.1117
   1.7383E-02   1.7806E-02   1.1923E-04  0.1137
   1.7806E-02   1.8239E-02   1.1141E-04  0.1168
   1.8239E-02   1.8683E-02   1.0954E-04  0.1162
   1.8683E-02   1.9138E-02   9.5701E-05  0.1229
   1.9138E-02   1.9603E-02   1.2193E-04  0.1071
   1.9603E-02   2.0080E-02   1.2533E-04  0.1046
   2.0080E-02   2.0569E-02   1.2411E-04  0.1037
   2.0569E-02   2.1069E-02   1.1068E-04  0.1085
   2.1069E-02   2.1582E-02   1.0185E-04  0.1121
   2.1582E-02   2.2107E-02   7.3632E-05  0.1292
   2.2107E-02   2.2645E-02   1.1585E-04  0.1026
   2.2645E-02   2.3196E-02   7.7828E-05  0.1238
   2.3196E-02   2.3760E-02   8.8131E-05  0.1134
   2.3760E-02   2.4338E-02   9.5679E-05  0.1089
   2.4338E-02   2.4930E-02   9.5666E-05  0.1069
   2.4930E-02   2.5537E-02   1.0293E-04  0.1020
   2.5537E-02   2.6158E-02   8.0262E-05  0.1142
   2.6158E-02   2.6795E-02   8.3236E-05  0.1114
   2.6795E-02   2.7447E-02   9.5052E-05  0.1030
   2.7447E-02   2.8114E-02   7.6186E-05  0.1134
   2.8114E-02   2.8799E-02   8.3507E-05  0.1074
   2.8799E-02   2.9499E-02   7.2265E-05  0.1139
   2.9499E-02   3.0217E-02   6.8874E-05  0.1147
   3.0217E-02   3.0952E-02   7.4467E-05  0.1089
   3.0952E-02   3.1705E-02   5.8376E-05  0.1218
   3.1705E-02   3.2477E-02   5.7054E-05  0.1223
   3.2477E-02   3.3267E-02   5.5926E-05  0.1209
   3.3267E-02   3.4076E-02   6.4083E-05  0.1125
   3.4076E-02   3.4905E-02   6.7143E-05  0.1083
   3.4905E-02   3.5755E-02   5.8480E-05  0.1150
   3.5755E-02   3.6625E-02   5.5521E-05  0.1162
   3.6625E-02   3.7516E-02   5.2176E-05  0.1182
   3.7516E-02   3.8428E-02   5.6011E-05  0.1129
   3.8428E-02   3.9363E-02   5.0929E-05  0.1176
   3.9363E-02   4.0321E-02   4.5015E-05  0.1231
   4.0321E-02   4.1302E-02   4.5627E-05  0.1202
   4.1302E-02   4.2307E-02   4.8696E-05  0.1155
   4.2307E-02   4.3337E-02   5.6905E-05  0.1052
   4.3337E-02   4.4391E-02   4.2255E-05  0.1208
   4.4391E-02   4.5471E-02   4.1824E-05  0.1203
   4.5471E-02   4.6577E-02   4.7075E-05  0.1121
   4.6577E-02   4.7711E-02   4.7489E-05  0.1101
   4.7711E-02   4.8871E-02   3.8953E-05  0.1199
   4.8871E-02   5.0061E-02   4.8216E-05  0.1070
   5.0061E-02   5.1279E-02   4.1328E-05  0.1143
   5.1279E-02   5.2526E-02   4.7230E-05  0.1055
   5.2526E-02   5.3804E-02   4.6057E-05  0.1059
   5.3804E-02   5.5113E-02   3.8029E-05  0.1140
   5.5113E-02   5.6454E-02   4.3424E-05  0.1060
   5.6454E-02   5.7828E-02   4.0653E-05  0.1077
   5.7828E-02   5.9235E-02   3.7907E-05  0.1104
   5.9235E-02   6.0676E-02   3.3606E-05  0.1161
   6.0676E-02   6.2152E-02   4.1556E-05  0.1032
   6.2152E-02   6.3665E-02   3.6548E-05  0.1089
   6.3665E-02   6.5214E-02   3.0775E-05  0.1168
   6.5214E-02   6.6800E-02   3.6584E-05  0.1056
   6.6800E-02   6.8426E-02   3.5105E-05  0.1069
   6.8426E-02   7.0090E-02   3.4213E-05  0.1071
   7.0090E-02   7.1796E-02   2.5150E-05  0.1231
   7.1796E-02   7.3543E-02   2.9625E-05  0.1127
   7.3543E-02   7.5332E-02   3.5911E-05  0.1011
   7.5332E-02   7.7165E-02   2.7464E-05  0.1139
   7.7165E-02   7.9042E-02   2.8334E-05  0.1112
   7.9042E-02   8.0965E-02   2.7123E-05  0.1119
   8.0965E-02   8.2935E-02   2.5713E-05  0.1142
   8.2935E-02   8.4953E-02   2.1145E-05  0.1230
   8.4953E-02   8.7020E-02   2.9062E-05  0.1041
   8.7020E-02   8.9138E-02   2.5639E-05  0.1101
   8.9138E-02   9.1306E-02   2.1507E-05  0.1179
   9.1306E-02   9.3528E-02   2.6831E-05  0.1044
   9.3528E-02   9.5804E-02   2.3179E-05  0.1113
   9.5804E-02   9.8134E-02   2.3147E-05  0.1099
   9.8134E-02   1.0052E-01   2.0962E-05  0.1138
   1.0052E-01   1.0297E-01   2.3402E-05  0.1067
   1.0297E-01   1.0547E-01   2.1145E-05  0.1114
   1.0547E-01   1.0804E-01   2.0999E-05  0.1103
   1.0804E-01   1.1067E-01   2.3067E-05  0.1038
   1.1067E-01   1.1336E-01   2.1913E-05  0.1052
   1.1336E-01   1.1612E-01   1.9725E-05  0.1091
   1.1612E-01   1.1894E-01   2.0241E-05  0.1071
   1.1894E-01   1.2184E-01   2.0074E-05  0.1063
   1.2184E-01   1.2480E-01   2.2677E-05  0.0990
   1.2480E-01   1.2784E-01   1.7586E-05  0.1112
   1.2784E-01   1.3095E-01   1.9270E-05  0.1045
   1.3095E-01   1.3414E-01   1.6282E-05  0.1116
   1.3414E-01   1.3740E-01   1.8270E-05  0.1050
   1.3740E-01   1.4074E-01   1.7326E-05  0.1060
   1.4074E-01   1.4417E-01   1.8659E-05  0.1011
   1.4417E-01   1.4767E-01   1.7498E-05  0.1033
   1.4767E-01   1.5127E-01   2.0322E-05  0.0951
   1.5127E-01   1.5495E-01   1.3579E-05  0.1144
   1.5495E-01   1.5872E-01   1.6993E-05  0.1012
   1.5872E-01   1.6258E-01   1.4870E-05  0.1061
   1.6258E-01   1.6654E-01   1.5289E-05  0.1039
   1.6654E-01   1.7059E-01   1.3446E-05  0.1093
   1.7059E-01   1.7474E-01   1.5882E-05  0.0994
   1.7474E-01   1.7899E-01   1.1680E-05  0.1152
   1.7899E-01   1.8334E-01   1.3557E-05  0.1056
   1.8334E-01   1.8781E-01   1.2462E-05  0.1083
   1.8781E-01   1.9237E-01   1.4759E-05  0.0980
   1.9237E-01   1.9706E-01   1.3508E-05  0.1019
   1.9706E-01   2.0185E-01   1.4387E-05  0.0975
   2.0185E-01   2.0676E-01   1.4385E-05  0.0960
   2.0676E-01   2.1179E-01   1.4981E-05  0.0929
   2.1179E-01   2.1694E-01   1.5766E-05  0.0891
   2.1694E-01   2.2222E-01   1.6290E-05  0.0874
   2.2222E-01   2.2763E-01   1.5345E-05  0.0888
   2.2763E-01   2.3317E-01   1.9605E-05  0.0775
   2.3317E-01   2.3884E-01   2.1579E-05  0.0732
   2.3884E-01   2.4465E-01   1.7529E-05  0.0802
   2.4465E-01   2.5061E-01   2.1239E-05  0.0721
   2.5061E-01   2.5670E-01   2.0214E-05  0.0727
   2.5670E-01   2.6295E-01   2.0914E-05  0.0708
   2.6295E-01   2.6935E-01   2.2219E-05  0.0677
   2.6935E-01   2.7590E-01   2.1847E-05  0.0675
   2.7590E-01   2.8261E-01   2.5449E-05  0.0619
   2.8261E-01   2.8949E-01   2.3962E-05  0.0630
   2.8949E-01   2.9653E-01   2.6108E-05  0.0596
   2.9653E-01   3.0375E-01   2.4976E-05  0.0603
   3.0375E-01   3.1114E-01   3.0844E-05  0.0536
   3.1114E-01   3.1871E-01   2.8596E-05  0.0550
   3.1871E-01   3.2646E-01   2.8971E-05  0.0541
   3.2646E-01   3.3441E-01   2.9462E-05  0.0529
   3.3441E-01   3.4254E-01   3.0313E-05  0.0515
   3.4254E-01   3.5088E-01   3.5698E-05  0.0468
   3.5088E-01   3.5941E-01   3.6750E-05  0.0457
   3.5941E-01   3.6816E-01   3.6034E-05  0.0456
   3.6816E-01   3.7712E-01   4.0189E-05  0.0428
   3.7712E-01   3.8629E-01   3.9885E-05  0.0424
   3.8629E-01   3.9569E-01   4.4601E-05  0.0397
   3.9569E-01   4.0532E-01   3.8413E-05  0.0421
   4.0532E-01   4.1518E-01   4.4285E-05  0.0387
   4.1518E-01   4.2528E-01   4.9221E-05  0.0362
   4.2528E-01   4.3563E-01   5.1679E-05  0.0351
   4.3563E-01   4.4623E-01   5.0002E-05  0.0353
   4.4623E-01   4.5708E-01   5.0457E-05  0.0346
   4.5708E-01   4.6821E-01   5.4123E-05  0.0330
   4.6821E-01   4.7960E-01   5.4182E-05  0.0326
   4.7960E-01   4.9127E-01   6.1124E-05  0.0304
   4.9127E-01   5.0322E-01   6.0465E-05  0.0302
   5.0322E-01   5.1546E-01   6.6706E-05  0.0284
   5.1546E-01   5.2800E-01   6.6978E-05  0.0280
   5.2800E-01   5.4085E-01   6.5933E-05  0.0279
   5.4085E-01   5.5401E-01   7.3094E-05  0.0261
   5.5401E-01   5.6749E-01   7.1635E-05  0.0261
   5.6749E-01   5.8130E-01   7.9674E-05  0.0245
   5.8130E-01   5.9544E-01   7.7999E-05  0.0244
   5.9544E-01   6.0993E-01   8.2261E-05  0.0235
   6.0993E-01   6.2477E-01   8.6867E-05  0.0226
   6.2477E-01   6.3997E-01   8.5900E-05  0.0224
   6.3997E-01   6.5554E-01   8.7932E-05  0.0219
   6.5554E-01   6.7149E-01   9.6352E-05  0.0207
   6.7149E-01   6.8783E-01   9.9617E-05  0.0201
   6.8783E-01   7.0456E-01   1.0075E-04  0.0198
   7.0456E-01   7.2171E-01   1.0711E-04  0.0189
   7.2171E-01   7.3927E-01   1.1170E-04  0.0183
   7.3927E-01   7.5725E-01   1.1503E-04  0.0178
   7.5725E-01   7.7568E-01   1.1760E-04  0.0174
   7.7568E-01   7.9455E-01   1.2324E-04  0.0168
   7.9455E-01   8.1388E-01   1.2985E-04  0.0162
   8.1388E-01   8.3368E-01   1.3008E-04  0.0160
   8.3368E-01   8.5397E-01   1.3398E-04  0.0156
   8.5397E-01   8.7475E-01   1.4318E-04  0.0149
   8.7475E-01   8.9603E-01   1.4939E-04  0.0144
   8.9603E-01   9.1783E-01   1.5097E-04  0.0142
   9.1783E-01   9.4016E-01   1.5707E-04  0.0137
   9.4016E-01   9.6304E-01   1.6300E-04  0.0133
   9.6304E-01   9.8647E-01   1.7009E-04  0.0129
   9.8647E-01   1.0105E+00   1.7213E-04  0.0126
   1.0105E+00   1.0351E+00   1.8038E-04  0.0122
   1.0351E+00   1.0602E+00   1.7522E-04  0.0122
   1.0602E+00   1.0860E+00   1.8402E-04  0.0118
   1.0860E+00   1.1125E+00   1.8930E-04  0.0115
   1.1125E+00   1.1395E+00   1.9209E-04  0.0113
   1.1395E+00   1.1673E+00   1.9893E-04  0.0109
   1.1673E+00   1.1957E+00   2.0715E-04  0.0106
   1.1957E+00   1.2247E+00   2.1264E-04  0.0103
   1.2247E+00   1.2545E+00   2.1948E-04  0.0100
   1.2545E+00   1.2851E+00   2.2079E-04  0.0099
   1.2851E+00   1.3163E+00   2.2883E-04  0.0096
   1.3163E+00   1.3484E+00   2.3076E-04  0.0094
   1.3484E+00   1.3812E+00   2.3694E-04  0.0092
   1.3812E+00   1.4148E+00   2.4821E-04  0.0089
   1.4148E+00   1.4492E+00   2.5677E-04  0.0086
   1.4492E+00   1.4845E+00   2.6185E-04  0.0084
   1.4845E+00   1.5206E+00   2.7011E-04  0.0082
   1.5206E+00   1.5576E+00   2.7192E-04  0.0081
   1.5576E+00   1.5955E+00   2.7732E-04  0.0079
   1.5955E+00   1.6343E+00   2.7594E-04  0.0078
   1.6343E+00   1.6741E+00   2.8248E-04  0.0077
   1.6741E+00   1.7148E+00   2.8907E-04  0.0075
   1.7148E+00   1.7565E+00   2.9233E-04  0.0073
   1.7565E+00   1.7992E+00   3.0139E-04  0.0072
   1.7992E+00   1.8430E+00   3.0976E-04  0.0070
   1.8430E+00   1.8879E+00   3.1142E-04  0.0069
   1.8879E+00   1.9338E+00   3.1412E-04  0.0068
   1.9338E+00   1.9808E+00   3.2112E-04  0.0066
   1.9808E+00   2.0290E+00   3.2568E-04  0.0065
   2.0290E+00   2.0784E+00   3.2672E-04  0.0064
   2.0784E+00   2.1290E+00   3.2665E-04  0.0063
   2.1290E+00   2.1808E+00   3.3272E-04  0.0062
   2.1808E+00   2.2338E+00   3.3700E-04  0.0061
   2.2338E+00   2.2882E+00   3.2916E-04  0.0061
   2.2882E+00   2.3439E+00   3.3844E-04  0.0059
   2.3439E+00   2.4009E+00   3.4247E-04  0.0058
   2.4009E+00   2.4593E+00   3.4662E-04  0.0057
   2.4593E+00   2.5191E+00   3.4932E-04  0.0056
   2.5191E+00   2.5804E+00   3.5070E-04  0.0055
   2.5804E+00   2.6432E+00   3.5191E-04  0.0055
   2.6432E+00   2.7075E+00   3.5127E-04  0.0054
   2.7075E+00   2.7734E+00   3.5002E-04  0.0053
   2.7734E+00   2.8409E+00   3.5222E-04  0.0053
   2.8409E+00   2.9100E+00   3.5097E-04  0.0052
   2.9100E+00   2.9808E+00   3.5148E-04  0.0051
   2.9808E+00   3.0533E+00   3.5366E-04  0.0051
   3.0533E+00   3.1276E+00   3.5417E-04  0.0050
   3.1276E+00   3.2037E+00   3.5232E-04  0.0050
   3.2037E+00   3.2817E+00   3.4886E-04  0.0049
   3.2817E+00   3.3615E+00   3.5014E-04  0.0049
   3.3615E+00   3.4433E+00   3.4662E-04  0.0048
   3.4433E+00   3.5271E+00   3.4804E-04  0.0048
   3.5271E+00   3.6129E+00   3.4472E-04  0.0047
   3.6129E+00   3.7008E+00   3.4280E-04  0.0047
   3.7008E+00   3.7908E+00   3.3902E-04  0.0046
   3.7908E+00   3.8831E+00   3.4019E-04  0.0046
   3.8831E+00   3.9776E+00   3.3705E-04  0.0046
   3.9776E+00   4.0743E+00   3.3515E-04  0.0045
   4.0743E+00   4.1735E+00   3.3183E-04  0.0045
   4.1735E+00   4.2750E+00   3.2830E-04  0.0044
   4.2750E+00   4.3790E+00   3.2351E-04  0.0044
   4.3790E+00   4.4856E+00   3.2280E-04  0.0044
   4.4856E+00   4.5947E+00   3.2124E-04  0.0043
   4.5947E+00   4.7065E+00   3.1782E-04  0.0043
   4.7065E+00   4.8210E+00   3.1191E-04  0.0043
   4.8210E+00   4.9383E+00   3.0790E-04  0.0043
   4.9383E+00   5.0585E+00   3.0621E-04  0.0042
   5.0585E+00   5.1815E+00   3.0092E-04  0.0042
   5.1815E+00   5.3076E+00   2.9677E-04  0.0042
   5.3076E+00   5.4368E+00   2.9254E-04  0.0042
   5.4368E+00   5.5690E+00   2.8964E-04  0.0042
   5.5690E+00   5.7045E+00   2.8256E-04  0.0042
   5.7045E+00   5.8433E+00   2.7768E-04  0.0041
   5.8433E+00   5.9855E+00   2.7483E-04  0.0041
   5.9855E+00   6.1311E+00   2.7021E-04  0.0041
   6.1311E+00   6.2803E+00   2.6579E-04  0.0041
   6.2803E+00   6.4331E+00   2.6316E-04  0.0041
   6.4331E+00   6.5896E+00   2.5740E-04  0.0041
   6.5896E+00   6.7500E+00   2.5229E-04  0.0040
   6.7500E+00   6.9142E+00   2.4617E-04  0.0040
   6.9142E+00   7.0824E+00   2.3919E-04  0.0041
   7.0824E+00   7.2548E+00   2.3478E-04  0.0040
   7.2548E+00   7.4313E+00   2.2704E-04  0.0041
   7.4313E+00   7.6121E+00   2.2088E-04  0.0041
   7.6121E+00   7.7973E+00   2.1453E-04  0.0041
   7.7973E+00   7.9870E+00   2.0904E-04  0.0041
   7.9870E+00   8.1813E+00   2.0144E-04  0.0041
   8.1813E+00   8.3804E+00   1.9427E-04  0.0041
   8.3804E+00   8.5843E+00   1.8860E-04  0.0042
   8.5843E+00   8.7931E+00   1.8375E-04  0.0042
   8.7931E+00   9.0071E+00   1.7707E-04  0.0042
   9.0071E+00   9.2262E+00   1.7120E-04  0.0042
   9.2262E+00   9.4507E+00   1.6519E-04  0.0042
   9.4507E+00   9.6807E+00   1.5899E-04  0.0043
   9.6807E+00   9.9162E+00   1.5305E-04  0.0043
   9.9162E+00   1.0157E+01   1.4673E-04  0.0043
   1.0157E+01   1.0405E+01   1.4179E-04  0.0044
   1.0405E+01   1.0658E+01   1.3576E-04  0.0044
   1.0658E+01   1.0917E+01   1.3095E-04  0.0044
   1.0917E+01   1.1183E+01   1.2607E-04  0.0045
   1.1183E+01   1.1455E+01   1.1913E-04  0.0045
   1.1455E+01   1.1733E+01   1.1445E-04  0.0046
   1.1733E+01   1.2019E+01   1.1043E-04  0.0046
   1.2019E+01   1.2311E+01   1.0458E-04  0.0047
   1.2311E+01   1.2611E+01   1.0064E-04  0.0047
   1.2611E+01   1.2918E+01   9.6516E-05  0.0047
   1.2918E+01   1.3232E+01   9.2903E-05  0.0048
   1.3232E+01   1.3554E+01   8.8515E-05  0.0048
   1.3554E+01   1.3884E+01   8.4461E-05  0.0049
   1.3884E+01   1.4222E+01   8.1107E-05  0.0049
   1.4222E+01   1.4568E+01   7.6236E-05  0.0050
   1.4568E+01   1.4922E+01   7.2458E-05  0.0051
   1.4922E+01   1.5285E+01   6.8788E-05  0.0052
   1.5285E+01   1.5657E+01   6.4987E-05  0.0052
   1.5657E+01   1.6038E+01   6.2272E-05  0.0053
   1.6038E+01   1.6428E+01   5.8249E-05  0.0054
   1.6428E+01   1.6828E+01   5.5958E-05  0.0055
   1.6828E+01   1.7237E+01   5.2129E-05  0.0056
   1.7237E+01   1.7657E+01   4.8892E-05  0.0057
   1.7657E+01   1.8086E+01   4.5627E-05  0.0058
   1.8086E+01   1.8526E+01   4.2834E-05  0.0059
   1.8526E+01   1.8977E+01   4.0007E-05  0.0061
   1.8977E+01   1.9439E+01   3.8976E-05  0.0061
   1.9439E+01   1.9912E+01   3.7298E-05  0.0061
   1.9912E+01   2.0396E+01   3.5021E-05  0.0063
   2.0396E+01   2.0893E+01   3.2319E-05  0.0064
   2.0893E+01   2.1401E+01   3.0207E-05  0.0066
   2.1401E+01   2.1922E+01   2.8161E-05  0.0067
   2.1922E+01   2.2455E+01   2.5709E-05  0.0070
   2.2455E+01   2.3001E+01   2.3299E-05  0.0072
   2.3001E+01   2.3561E+01   2.1436E-05  0.0075
   2.3561E+01   2.4134E+01   1.9532E-05  0.0077
   2.4134E+01   2.4721E+01   1.8551E-05  0.0078
   2.4721E+01   2.5323E+01   1.7184E-05  0.0080
   2.5323E+01   2.5939E+01   1.5887E-05  0.0083
   2.5939E+01   2.6570E+01   1.5089E-05  0.0084
   2.6570E+01   2.7217E+01   1.4052E-05  0.0086
   2.7217E+01   2.7879E+01   1.3294E-05  0.0087
   2.7879E+01   2.8557E+01   1.2210E-05  0.0090
   2.8557E+01   2.9252E+01   1.1586E-05  0.0091
   2.9252E+01   2.9964E+01   1.1237E-05  0.0091
   2.9964E+01   3.0693E+01   1.0983E-05  0.0091
   3.0693E+01   3.1440E+01   1.0783E-05  0.0091
   3.1440E+01   3.2205E+01   1.0523E-05  0.0091
   3.2205E+01   3.2988E+01   1.0369E-05  0.0091
   3.2988E+01   3.3791E+01   1.0204E-05  0.0090
   3.3791E+01   3.4613E+01   9.9633E-06  0.0090
   3.4613E+01   3.5455E+01   9.6292E-06  0.0091
   3.5455E+01   3.6318E+01   9.3526E-06  0.0091
   3.6318E+01   3.7201E+01   8.8656E-06  0.0092
   3.7201E+01   3.8106E+01   8.9423E-06  0.0091
   3.8106E+01   3.9034E+01   8.8126E-06  0.0090
   3.9034E+01   3.9983E+01   8.6763E-06  0.0090
   3.9983E+01   4.0956E+01   8.3194E-06  0.0091
   4.0956E+01   4.1953E+01   8.0482E-06  0.0091
   4.1953E+01   4.2973E+01   7.5958E-06  0.0093
   4.2973E+01   4.4019E+01   6.6024E-06  0.0098
   4.4019E+01   4.5090E+01   4.5029E-06  0.0118
   4.5090E+01   4.6187E+01   2.6732E-06  0.0151
   4.6187E+01   4.7311E+01   1.8414E-06  0.0179
   4.7311E+01   4.8462E+01   3.6487E-07  0.0398
   4.8462E+01   4.9641E+01   2.2616E-09  0.5000
   4.9641E+01   5.0849E+01   0.0000E+00  0.0000
   5.0849E+01   5.2086E+01   0.0000E+00  0.0000
   5.2086E+01   5.3353E+01   0.0000E+00  0.0000
   5.3353E+01   5.4651E+01   0.0000E+00  0.0000
   5.4651E+01   5.5981E+01   0.0000E+00  0.0000
   5.5981E+01   5.7343E+01   0.0000E+00  0.0000
   5.7343E+01   5.8738E+01   0.0000E+00  0.0000
   5.8738E+01   6.0168E+01   0.0000E+00  0.0000
   6.0168E+01   6.1632E+01   0.0000E+00  0.0000
   6.1632E+01   6.3131E+01   0.0000E+00  0.0000
   6.3131E+01   6.4667E+01   0.0000E+00  0.0000
   6.4667E+01   6.6240E+01   0.0000E+00  0.0000
   6.6240E+01   6.7852E+01   0.0000E+00  0.0000
   6.7852E+01   6.9503E+01   0.0000E+00  0.0000
   6.9503E+01   7.1194E+01   0.0000E+00  0.0000
   7.1194E+01   7.2926E+01   0.0000E+00  0.0000
   7.2926E+01   7.4701E+01   0.0000E+00  0.0000
   7.4701E+01   7.6518E+01   0.0000E+00  0.0000
   7.6518E+01   7.8380E+01   0.0000E+00  0.0000
   7.8380E+01   8.0287E+01   0.0000E+00  0.0000
   8.0287E+01   8.2240E+01   0.0000E+00  0.0000
   8.2240E+01   8.4241E+01   0.0000E+00  0.0000
   8.4241E+01   8.6291E+01   0.0000E+00  0.0000
   8.6291E+01   8.8391E+01   0.0000E+00  0.0000
   8.8391E+01   9.0541E+01   0.0000E+00  0.0000
   9.0541E+01   9.2744E+01   0.0000E+00  0.0000
   9.2744E+01   9.5001E+01   0.0000E+00  0.0000
   9.5001E+01   9.7312E+01   0.0000E+00  0.0000
   9.7312E+01   9.9680E+01   0.0000E+00  0.0000
   9.9680E+01   1.0211E+02   0.0000E+00  0.0000
   1.0211E+02   1.0459E+02   0.0000E+00  0.0000
   1.0459E+02   1.0713E+02   0.0000E+00  0.0000
   1.0713E+02   1.0974E+02   0.0000E+00  0.0000
   1.0974E+02   1.1241E+02   0.0000E+00  0.0000
   1.1241E+02   1.1515E+02   0.0000E+00  0.0000
   1.1515E+02   1.1795E+02   0.0000E+00  0.0000
   1.1795E+02   1.2082E+02   0.0000E+00  0.0000
   1.2082E+02   1.2376E+02   0.0000E+00  0.0000
   1.2376E+02   1.2677E+02   0.0000E+00  0.0000
   1.2677E+02   1.2985E+02   0.0000E+00  0.0000
   1.2985E+02   1.3301E+02   0.0000E+00  0.0000
   1.3301E+02   1.3625E+02   0.0000E+00  0.0000
   1.3625E+02   1.3956E+02   0.0000E+00  0.0000
   1.3956E+02   1.4296E+02   0.0000E+00  0.0000
   1.4296E+02   1.4644E+02   0.0000E+00  0.0000
   1.4644E+02   1.5000E+02   0.0000E+00  0.0000

#   sum over                 2.3710E-05
'no. =    1   reg = 107 - 207'
msuc: {\huge [t-cross] in region mesh}
msdr: {\it plotted by \ANGEL \version}
msdl: {\it calculated by \PHITS  3.26}
wt: s(0.7)
\vspace{-3}
  region surface crossing
  area  &=&   1.0000E+00 [cm^2]
e:
 
# Information for Restart Calculation
# This calculation was newly started
# istdev =  2 # 1:Batch variance, 2:History variance
# resc2  = 1.50000000000000000E+09 # Total source weight or Total source weight / maxcas
# resc3  = 1.50000000000000000E+09 # Total history number or Total batch number
# maxcas =   500000000 # History / Batch, only used for istdev=1
# bitrseed = 1000110011010011011111111000000000010010000001001111010101100001 # bit data of rseed
