[ T-Cross ]
    title = [t-cross] in region mesh
     mesh =  reg            # mesh type is region-wise
      reg =    1            # number of crossing regions
      non     r-from    r-to       area
      1       113       213        1.000000    
   e-type =    3            # e-mesh is log given by emin, emax and ne
     emin =  1.0000000E-02  # minimum value of e-mesh points
     emax =   150.0000      # maximum value of e-mesh points
#    edel =  2.4039514E-02  # mesh width of e-mesh points
       ne =    400          # number of e-mesh points
#    data = ( e(i), i = 1, ne + 1 )
#           1.00000E-02  1.02433E-02  1.04925E-02  1.07478E-02  1.10093E-02
#           1.12772E-02  1.15516E-02  1.18326E-02  1.21205E-02  1.24154E-02
#           1.27175E-02  1.30269E-02  1.33439E-02  1.36686E-02  1.40011E-02
#           1.43418E-02  1.46907E-02  1.50482E-02  1.54143E-02  1.57894E-02
#           1.61735E-02  1.65670E-02  1.69701E-02  1.73830E-02  1.78060E-02
#           1.82392E-02  1.86830E-02  1.91375E-02  1.96032E-02  2.00801E-02
#           2.05687E-02  2.10692E-02  2.15818E-02  2.21069E-02  2.26448E-02
#           2.31957E-02  2.37601E-02  2.43382E-02  2.49304E-02  2.55369E-02
#           2.61583E-02  2.67947E-02  2.74467E-02  2.81145E-02  2.87985E-02
#           2.94992E-02  3.02169E-02  3.09521E-02  3.17052E-02  3.24766E-02
#           3.32668E-02  3.40762E-02  3.49053E-02  3.57546E-02  3.66246E-02
#           3.75157E-02  3.84284E-02  3.93634E-02  4.03212E-02  4.13022E-02
#           4.23071E-02  4.33365E-02  4.43909E-02  4.54710E-02  4.65773E-02
#           4.77106E-02  4.88714E-02  5.00605E-02  5.12785E-02  5.25262E-02
#           5.38042E-02  5.51133E-02  5.64542E-02  5.78278E-02  5.92348E-02
#           6.06760E-02  6.21523E-02  6.36645E-02  6.52135E-02  6.68002E-02
#           6.84255E-02  7.00904E-02  7.17957E-02  7.35426E-02  7.53319E-02
#           7.71648E-02  7.90423E-02  8.09655E-02  8.29354E-02  8.49533E-02
#           8.70203E-02  8.91376E-02  9.13064E-02  9.35279E-02  9.58035E-02
#           9.81345E-02  1.00522E-01  1.02968E-01  1.05473E-01  1.08040E-01
#           1.10668E-01  1.13361E-01  1.16119E-01  1.18944E-01  1.21838E-01
#           1.24803E-01  1.27839E-01  1.30950E-01  1.34136E-01  1.37399E-01
#           1.40742E-01  1.44167E-01  1.47675E-01  1.51268E-01  1.54948E-01
#           1.58718E-01  1.62580E-01  1.66535E-01  1.70587E-01  1.74738E-01
#           1.78989E-01  1.83344E-01  1.87805E-01  1.92375E-01  1.97055E-01
#           2.01850E-01  2.06761E-01  2.11792E-01  2.16945E-01  2.22223E-01
#           2.27630E-01  2.33169E-01  2.38842E-01  2.44653E-01  2.50605E-01
#           2.56703E-01  2.62949E-01  2.69346E-01  2.75900E-01  2.82613E-01
#           2.89489E-01  2.96532E-01  3.03747E-01  3.11138E-01  3.18708E-01
#           3.26462E-01  3.34405E-01  3.42542E-01  3.50876E-01  3.59413E-01
#           3.68158E-01  3.77116E-01  3.86291E-01  3.95690E-01  4.05317E-01
#           4.15179E-01  4.25281E-01  4.35628E-01  4.46227E-01  4.57084E-01
#           4.68205E-01  4.79597E-01  4.91266E-01  5.03219E-01  5.15463E-01
#           5.28005E-01  5.40851E-01  5.54011E-01  5.67490E-01  5.81298E-01
#           5.95441E-01  6.09929E-01  6.24769E-01  6.39970E-01  6.55541E-01
#           6.71491E-01  6.87828E-01  7.04564E-01  7.21706E-01  7.39266E-01
#           7.57253E-01  7.75678E-01  7.94551E-01  8.13883E-01  8.33685E-01
#           8.53969E-01  8.74747E-01  8.96030E-01  9.17831E-01  9.40163E-01
#           9.63038E-01  9.86469E-01  1.01047E+00  1.03506E+00  1.06024E+00
#           1.08604E+00  1.11246E+00  1.13953E+00  1.16725E+00  1.19565E+00
#           1.22474E+00  1.25454E+00  1.28507E+00  1.31633E+00  1.34836E+00
#           1.38117E+00  1.41477E+00  1.44920E+00  1.48446E+00  1.52057E+00
#           1.55757E+00  1.59547E+00  1.63429E+00  1.67405E+00  1.71478E+00
#           1.75650E+00  1.79924E+00  1.84302E+00  1.88786E+00  1.93379E+00
#           1.98084E+00  2.02904E+00  2.07841E+00  2.12898E+00  2.18078E+00
#           2.23384E+00  2.28819E+00  2.34386E+00  2.40089E+00  2.45930E+00
#           2.51914E+00  2.58043E+00  2.64322E+00  2.70753E+00  2.77341E+00
#           2.84088E+00  2.91001E+00  2.98081E+00  3.05333E+00  3.12762E+00
#           3.20372E+00  3.28167E+00  3.36152E+00  3.44330E+00  3.52708E+00
#           3.61290E+00  3.70080E+00  3.79085E+00  3.88308E+00  3.97756E+00
#           4.07434E+00  4.17347E+00  4.27501E+00  4.37903E+00  4.48557E+00
#           4.59471E+00  4.70650E+00  4.82102E+00  4.93832E+00  5.05847E+00
#           5.18155E+00  5.30762E+00  5.43676E+00  5.56904E+00  5.70453E+00
#           5.84333E+00  5.98550E+00  6.13114E+00  6.28031E+00  6.43312E+00
#           6.58964E+00  6.74997E+00  6.91420E+00  7.08243E+00  7.25475E+00
#           7.43126E+00  7.61207E+00  7.79728E+00  7.98700E+00  8.18133E+00
#           8.38038E+00  8.58428E+00  8.79315E+00  9.00709E+00  9.22624E+00
#           9.45072E+00  9.68067E+00  9.91620E+00  1.01575E+01  1.04046E+01
#           1.06578E+01  1.09171E+01  1.11827E+01  1.14548E+01  1.17335E+01
#           1.20190E+01  1.23114E+01  1.26109E+01  1.29178E+01  1.32321E+01
#           1.35540E+01  1.38838E+01  1.42216E+01  1.45676E+01  1.49221E+01
#           1.52851E+01  1.56570E+01  1.60380E+01  1.64282E+01  1.68279E+01
#           1.72374E+01  1.76568E+01  1.80864E+01  1.85264E+01  1.89772E+01
#           1.94389E+01  1.99119E+01  2.03963E+01  2.08926E+01  2.14009E+01
#           2.19216E+01  2.24550E+01  2.30014E+01  2.35610E+01  2.41343E+01
#           2.47215E+01  2.53230E+01  2.59391E+01  2.65702E+01  2.72167E+01
#           2.78789E+01  2.85572E+01  2.92520E+01  2.99637E+01  3.06928E+01
#           3.14396E+01  3.22045E+01  3.29881E+01  3.37907E+01  3.46128E+01
#           3.54550E+01  3.63177E+01  3.72013E+01  3.81064E+01  3.90336E+01
#           3.99833E+01  4.09561E+01  4.19526E+01  4.29734E+01  4.40189E+01
#           4.50900E+01  4.61870E+01  4.73108E+01  4.84619E+01  4.96410E+01
#           5.08488E+01  5.20860E+01  5.33533E+01  5.46514E+01  5.59812E+01
#           5.73432E+01  5.87384E+01  6.01676E+01  6.16315E+01  6.31311E+01
#           6.46671E+01  6.62405E+01  6.78522E+01  6.95031E+01  7.11941E+01
#           7.29263E+01  7.47007E+01  7.65182E+01  7.83800E+01  8.02870E+01
#           8.22405E+01  8.42414E+01  8.62911E+01  8.83906E+01  9.05412E+01
#           9.27442E+01  9.50007E+01  9.73122E+01  9.96799E+01  1.02105E+02
#           1.04589E+02  1.07134E+02  1.09741E+02  1.12411E+02  1.15146E+02
#           1.17948E+02  1.20817E+02  1.23757E+02  1.26768E+02  1.29852E+02
#           1.33012E+02  1.36248E+02  1.39563E+02  1.42959E+02  1.46437E+02
#           1.50000E+02
     unit =    2            # unit is [1/cm^2/(MeV/n)/source]
     axis =  eng            # axis of output
     file = detector-14.out  # file name of output for the above axis
   output = f-curr          # surface crossing forward current spectrum
     part =  neutron  
# kf/name :  2112     
#    used :        main (  %)        temp (  %)       total (  %)
#  memory :         414 (  0)           0 (  0)         414 (  0)

#------------------------------------------------------------------------------
#newpage:
#   no. =    1   reg = 113 - 213

x: Energy [MeV/n]
y:  F-Curr [1/cm^2/(MeV/n)/source]         
p: xlog ylog afac(0.8) form(0.9)
h: n            x            y(neutron ),hh0l   n 
#  e-lower      e-upper      neutron     r.err 
   1.0000E-02   1.0243E-02   1.3152E-05  0.2500
   1.0243E-02   1.0493E-02   1.6050E-05  0.2236
   1.0493E-02   1.0748E-02   1.5668E-05  0.2236
   1.0748E-02   1.1009E-02   1.3767E-05  0.2357
   1.1009E-02   1.1277E-02   1.8666E-05  0.2000
   1.1277E-02   1.1552E-02   2.1867E-05  0.1826
   1.1552E-02   1.1833E-02   9.9623E-06  0.2673
   1.1833E-02   1.2121E-02   1.3199E-05  0.2294
   1.2121E-02   1.2415E-02   1.3564E-05  0.2236
   1.2415E-02   1.2718E-02   1.2580E-05  0.2294
   1.2718E-02   1.3027E-02   1.5513E-05  0.2041
   1.3027E-02   1.3344E-02   1.7668E-05  0.1890
   1.3344E-02   1.3669E-02   1.3552E-05  0.2132
   1.3669E-02   1.4001E-02   1.5636E-05  0.1961
   1.4001E-02   1.4342E-02   1.9961E-05  0.1715
   1.4342E-02   1.4691E-02   1.2036E-05  0.2182
   1.4691E-02   1.5048E-02   1.3988E-05  0.2000
   1.5048E-02   1.5414E-02   1.8572E-05  0.1715
   1.5414E-02   1.5789E-02   1.5465E-05  0.1857
   1.5789E-02   1.6174E-02   1.8742E-05  0.1667
   1.6174E-02   1.6567E-02   1.1690E-05  0.2085
   1.6567E-02   1.6970E-02   1.0916E-05  0.2132
   1.6970E-02   1.7383E-02   1.6469E-05  0.1715
   1.7383E-02   1.7806E-02   1.3713E-05  0.1857
   1.7806E-02   1.8239E-02   1.3849E-05  0.1826
   1.8239E-02   1.8683E-02   1.7577E-05  0.1601
   1.8683E-02   1.9138E-02   1.6279E-05  0.1644
   1.9138E-02   1.9603E-02   1.8040E-05  0.1543
   1.9603E-02   2.0080E-02   1.3838E-05  0.1741
   2.0080E-02   2.0569E-02   1.5146E-05  0.1644
   2.0569E-02   2.1069E-02   1.7184E-05  0.1525
   2.1069E-02   2.1582E-02   2.1848E-05  0.1336
   2.1582E-02   2.2107E-02   1.5616E-05  0.1562
   2.2107E-02   2.2645E-02   1.7848E-05  0.1443
   2.2645E-02   2.3196E-02   1.6335E-05  0.1491
   2.3196E-02   2.3760E-02   1.9136E-05  0.1361
   2.3760E-02   2.4338E-02   1.9028E-05  0.1348
   2.4338E-02   2.4930E-02   1.6549E-05  0.1429
   2.4930E-02   2.5537E-02   1.2529E-05  0.1622
   2.5537E-02   2.6158E-02   1.6738E-05  0.1387
   2.6158E-02   2.6795E-02   1.6655E-05  0.1374
   2.6795E-02   2.7447E-02   1.4112E-05  0.1474
   2.7447E-02   2.8114E-02   1.8269E-05  0.1280
   2.8114E-02   2.8799E-02   1.5204E-05  0.1387
   2.8799E-02   2.9499E-02   1.9409E-05  0.1213
   2.9499E-02   3.0217E-02   1.7834E-05  0.1250
   3.0217E-02   3.0952E-02   2.0947E-05  0.1140
   3.0952E-02   3.1705E-02   1.5138E-05  0.1325
   3.1705E-02   3.2477E-02   1.9704E-05  0.1147
   3.2477E-02   3.3267E-02   1.9236E-05  0.1147
   3.3267E-02   3.4076E-02   1.7791E-05  0.1179
   3.4076E-02   3.4905E-02   1.8092E-05  0.1155
   3.4905E-02   3.5755E-02   1.7898E-05  0.1147
   3.5755E-02   3.6625E-02   1.7932E-05  0.1132
   3.6625E-02   3.7516E-02   1.7955E-05  0.1118
   3.7516E-02   3.8428E-02   1.4899E-05  0.1213
   3.8428E-02   3.9363E-02   1.8824E-05  0.1066
   3.9363E-02   4.0321E-02   1.5871E-05  0.1147
   4.0321E-02   4.1302E-02   2.1813E-05  0.0967
   4.1302E-02   4.2307E-02   1.7912E-05  0.1054
   4.2307E-02   4.3337E-02   1.7681E-05  0.1048
   4.3337E-02   4.4391E-02   1.7071E-05  0.1054
   4.4391E-02   4.5471E-02   2.0369E-05  0.0953
   4.5471E-02   4.6577E-02   1.1208E-05  0.1270
   4.6577E-02   4.7711E-02   1.9236E-05  0.0958
   4.7711E-02   4.8871E-02   1.9469E-05  0.0941
   4.8871E-02   5.0061E-02   1.8502E-05  0.0953
   5.0061E-02   5.1279E-02   1.5599E-05  0.1026
   5.1279E-02   5.2526E-02   1.7313E-05  0.0962
   5.2526E-02   5.3804E-02   1.8153E-05  0.0928
   5.3804E-02   5.5113E-02   1.8333E-05  0.0913
   5.5113E-02   5.6454E-02   1.7301E-05  0.0928
   5.6454E-02   5.7828E-02   1.8201E-05  0.0894
   5.7828E-02   5.9235E-02   1.7342E-05  0.0905
   5.9235E-02   6.0676E-02   2.0399E-05  0.0825
   6.0676E-02   6.2152E-02   2.0728E-05  0.0808
   6.2152E-02   6.3665E-02   1.9309E-05  0.0828
   6.3665E-02   6.5214E-02   2.0271E-05  0.0798
   6.5214E-02   6.6800E-02   1.9159E-05  0.0811
   6.6800E-02   6.8426E-02   1.7843E-05  0.0830
   6.8426E-02   7.0090E-02   1.5137E-05  0.0891
   7.0090E-02   7.1796E-02   1.5598E-05  0.0867
   7.1796E-02   7.3543E-02   2.0380E-05  0.0750
   7.3543E-02   7.5332E-02   1.9113E-05  0.0765
   7.5332E-02   7.7165E-02   1.7786E-05  0.0783
   7.7165E-02   7.9042E-02   1.9814E-05  0.0733
   7.9042E-02   8.0965E-02   2.1007E-05  0.0704
   8.0965E-02   8.2935E-02   1.8579E-05  0.0739
   8.2935E-02   8.4953E-02   1.8931E-05  0.0724
   8.4953E-02   8.7020E-02   1.8771E-05  0.0718
   8.7020E-02   8.9138E-02   1.9081E-05  0.0704
   8.9138E-02   9.1306E-02   1.7521E-05  0.0725
   9.1306E-02   9.3528E-02   1.8275E-05  0.0702
   9.3528E-02   9.5804E-02   1.8720E-05  0.0685
   9.5804E-02   9.8134E-02   1.8962E-05  0.0673
   9.8134E-02   1.0052E-01   1.8428E-05  0.0674
   1.0052E-01   1.0297E-01   1.9299E-05  0.0651
   1.0297E-01   1.0547E-01   2.2353E-05  0.0598
   1.0547E-01   1.0804E-01   1.9562E-05  0.0631
   1.0804E-01   1.1067E-01   1.9630E-05  0.0623
   1.1067E-01   1.1336E-01   2.0500E-05  0.0602
   1.1336E-01   1.1612E-01   1.9868E-05  0.0604
   1.1612E-01   1.1894E-01   1.9680E-05  0.0600
   1.1894E-01   1.2184E-01   2.0802E-05  0.0576
   1.2184E-01   1.2480E-01   2.0308E-05  0.0576
   1.2480E-01   1.2784E-01   2.1274E-05  0.0556
   1.2784E-01   1.3095E-01   1.9483E-05  0.0574
   1.3095E-01   1.3414E-01   2.0087E-05  0.0559
   1.3414E-01   1.3740E-01   1.9304E-05  0.0563
   1.3740E-01   1.4074E-01   2.2315E-05  0.0518
   1.4074E-01   1.4417E-01   2.2661E-05  0.0508
   1.4417E-01   1.4767E-01   2.3434E-05  0.0493
   1.4767E-01   1.5127E-01   2.1430E-05  0.0510
   1.5127E-01   1.5495E-01   2.0378E-05  0.0516
   1.5495E-01   1.5872E-01   2.2016E-05  0.0491
   1.5872E-01   1.6258E-01   2.3047E-05  0.0474
   1.6258E-01   1.6654E-01   2.0780E-05  0.0493
   1.6654E-01   1.7059E-01   2.3939E-05  0.0454
   1.7059E-01   1.7474E-01   2.3130E-05  0.0456
   1.7474E-01   1.7899E-01   2.2627E-05  0.0456
   1.7899E-01   1.8334E-01   2.0345E-05  0.0475
   1.8334E-01   1.8781E-01   2.3045E-05  0.0441
   1.8781E-01   1.9237E-01   2.2191E-05  0.0444
   1.9237E-01   1.9706E-01   2.3202E-05  0.0429
   1.9706E-01   2.0185E-01   2.4945E-05  0.0409
   2.0185E-01   2.0676E-01   2.1339E-05  0.0437
   2.0676E-01   2.1179E-01   2.2820E-05  0.0417
   2.1179E-01   2.1694E-01   2.2821E-05  0.0412
   2.1694E-01   2.2222E-01   2.1900E-05  0.0416
   2.2222E-01   2.2763E-01   2.4709E-05  0.0387
   2.2763E-01   2.3317E-01   2.3689E-05  0.0390
   2.3317E-01   2.3884E-01   2.3761E-05  0.0385
   2.3884E-01   2.4465E-01   2.3403E-05  0.0383
   2.4465E-01   2.5061E-01   2.5132E-05  0.0366
   2.5061E-01   2.5670E-01   2.5289E-05  0.0360
   2.5670E-01   2.6295E-01   2.4464E-05  0.0362
   2.6295E-01   2.6935E-01   2.4915E-05  0.0354
   2.6935E-01   2.7590E-01   2.3377E-05  0.0361
   2.7590E-01   2.8261E-01   2.4371E-05  0.0350
   2.8261E-01   2.8949E-01   2.5130E-05  0.0340
   2.8949E-01   2.9653E-01   2.4249E-05  0.0342
   2.9653E-01   3.0375E-01   2.5059E-05  0.0333
   3.0375E-01   3.1114E-01   2.5601E-05  0.0325
   3.1114E-01   3.1871E-01   2.6076E-05  0.0318
   3.1871E-01   3.2646E-01   2.5057E-05  0.0321
   3.2646E-01   3.3441E-01   2.6589E-05  0.0308
   3.3441E-01   3.4254E-01   2.5048E-05  0.0313
   3.4254E-01   3.5088E-01   2.5653E-05  0.0306
   3.5088E-01   3.5941E-01   2.6215E-05  0.0299
   3.5941E-01   3.6816E-01   2.5890E-05  0.0297
   3.6816E-01   3.7712E-01   2.6480E-05  0.0290
   3.7712E-01   3.8629E-01   2.5982E-05  0.0290
   3.8629E-01   3.9569E-01   2.6812E-05  0.0282
   3.9569E-01   4.0532E-01   2.5822E-05  0.0284
   4.0532E-01   4.1518E-01   2.7216E-05  0.0273
   4.1518E-01   4.2528E-01   2.7303E-05  0.0269
   4.2528E-01   4.3563E-01   2.7988E-05  0.0263
   4.3563E-01   4.4623E-01   2.7266E-05  0.0263
   4.4623E-01   4.5708E-01   2.7577E-05  0.0258
   4.5708E-01   4.6821E-01   2.6256E-05  0.0262
   4.6821E-01   4.7960E-01   2.6809E-05  0.0256
   4.7960E-01   4.9127E-01   2.6241E-05  0.0256
   4.9127E-01   5.0322E-01   2.7592E-05  0.0246
   5.0322E-01   5.1546E-01   2.7557E-05  0.0243
   5.1546E-01   5.2800E-01   2.7078E-05  0.0243
   5.2800E-01   5.4085E-01   2.6699E-05  0.0241
   5.4085E-01   5.5401E-01   2.7007E-05  0.0237
   5.5401E-01   5.6749E-01   2.7464E-05  0.0232
   5.6749E-01   5.8130E-01   2.7854E-05  0.0228
   5.8130E-01   5.9544E-01   2.8819E-05  0.0222
   5.9544E-01   6.0993E-01   2.7983E-05  0.0222
   6.0993E-01   6.2477E-01   2.7790E-05  0.0220
   6.2477E-01   6.3997E-01   2.7274E-05  0.0220
   6.3997E-01   6.5554E-01   2.7770E-05  0.0215
   6.5554E-01   6.7149E-01   2.9417E-05  0.0206
   6.7149E-01   6.8783E-01   2.7739E-05  0.0210
   6.8783E-01   7.0456E-01   2.8168E-05  0.0206
   7.0456E-01   7.2171E-01   2.8117E-05  0.0204
   7.2171E-01   7.3927E-01   2.6299E-05  0.0208
   7.3927E-01   7.5725E-01   2.7798E-05  0.0200
   7.5725E-01   7.7568E-01   2.7724E-05  0.0198
   7.7568E-01   7.9455E-01   2.7404E-05  0.0197
   7.9455E-01   8.1388E-01   2.6743E-05  0.0197
   8.1388E-01   8.3368E-01   2.6189E-05  0.0196
   8.3368E-01   8.5397E-01   2.7410E-05  0.0190
   8.5397E-01   8.7475E-01   2.6326E-05  0.0191
   8.7475E-01   8.9603E-01   2.5729E-05  0.0191
   8.9603E-01   9.1783E-01   2.4485E-05  0.0194
   9.1783E-01   9.4016E-01   2.3608E-05  0.0195
   9.4016E-01   9.6304E-01   2.3913E-05  0.0191
   9.6304E-01   9.8647E-01   2.2978E-05  0.0193
   9.8647E-01   1.0105E+00   2.2682E-05  0.0192
   1.0105E+00   1.0351E+00   2.2656E-05  0.0189
   1.0351E+00   1.0602E+00   2.2856E-05  0.0186
   1.0602E+00   1.0860E+00   2.2267E-05  0.0187
   1.0860E+00   1.1125E+00   2.2911E-05  0.0182
   1.1125E+00   1.1395E+00   2.3076E-05  0.0179
   1.1395E+00   1.1673E+00   2.2643E-05  0.0178
   1.1673E+00   1.1957E+00   2.4176E-05  0.0171
   1.1957E+00   1.2247E+00   2.3925E-05  0.0170
   1.2247E+00   1.2545E+00   2.5061E-05  0.0164
   1.2545E+00   1.2851E+00   2.4387E-05  0.0164
   1.2851E+00   1.3163E+00   2.4870E-05  0.0160
   1.3163E+00   1.3484E+00   2.4648E-05  0.0159
   1.3484E+00   1.3812E+00   2.5623E-05  0.0154
   1.3812E+00   1.4148E+00   2.5871E-05  0.0152
   1.4148E+00   1.4492E+00   2.6436E-05  0.0148
   1.4492E+00   1.4845E+00   2.6211E-05  0.0147
   1.4845E+00   1.5206E+00   2.6253E-05  0.0145
   1.5206E+00   1.5576E+00   2.6332E-05  0.0143
   1.5576E+00   1.5955E+00   2.6015E-05  0.0142
   1.5955E+00   1.6343E+00   2.6541E-05  0.0139
   1.6343E+00   1.6741E+00   2.7193E-05  0.0136
   1.6741E+00   1.7148E+00   2.7031E-05  0.0135
   1.7148E+00   1.7565E+00   2.7530E-05  0.0132
   1.7565E+00   1.7992E+00   2.7498E-05  0.0130
   1.7992E+00   1.8430E+00   2.7202E-05  0.0130
   1.8430E+00   1.8879E+00   2.7666E-05  0.0127
   1.8879E+00   1.9338E+00   2.7819E-05  0.0125
   1.9338E+00   1.9808E+00   2.8412E-05  0.0122
   1.9808E+00   2.0290E+00   2.8492E-05  0.0121
   2.0290E+00   2.0784E+00   2.9116E-05  0.0118
   2.0784E+00   2.1290E+00   2.8658E-05  0.0117
   2.1290E+00   2.1808E+00   2.9139E-05  0.0115
   2.1808E+00   2.2338E+00   2.8909E-05  0.0114
   2.2338E+00   2.2882E+00   2.8886E-05  0.0113
   2.2882E+00   2.3439E+00   2.8965E-05  0.0111
   2.3439E+00   2.4009E+00   2.9545E-05  0.0109
   2.4009E+00   2.4593E+00   2.9852E-05  0.0107
   2.4593E+00   2.5191E+00   2.9972E-05  0.0106
   2.5191E+00   2.5804E+00   2.9366E-05  0.0105
   2.5804E+00   2.6432E+00   2.9745E-05  0.0103
   2.6432E+00   2.7075E+00   2.9373E-05  0.0103
   2.7075E+00   2.7734E+00   2.9115E-05  0.0102
   2.7734E+00   2.8409E+00   2.9494E-05  0.0100
   2.8409E+00   2.9100E+00   2.9703E-05  0.0099
   2.9100E+00   2.9808E+00   3.0122E-05  0.0097
   2.9808E+00   3.0533E+00   2.9728E-05  0.0096
   3.0533E+00   3.1276E+00   2.9475E-05  0.0096
   3.1276E+00   3.2037E+00   2.9307E-05  0.0095
   3.2037E+00   3.2817E+00   2.9391E-05  0.0093
   3.2817E+00   3.3615E+00   2.9509E-05  0.0092
   3.3615E+00   3.4433E+00   2.9000E-05  0.0092
   3.4433E+00   3.5271E+00   2.8805E-05  0.0091
   3.5271E+00   3.6129E+00   2.9464E-05  0.0089
   3.6129E+00   3.7008E+00   2.9562E-05  0.0088
   3.7008E+00   3.7908E+00   2.8964E-05  0.0088
   3.7908E+00   3.8831E+00   2.9029E-05  0.0086
   3.8831E+00   3.9776E+00   2.8404E-05  0.0086
   3.9776E+00   4.0743E+00   2.8374E-05  0.0085
   4.0743E+00   4.1735E+00   2.8292E-05  0.0084
   4.1735E+00   4.2750E+00   2.7820E-05  0.0084
   4.2750E+00   4.3790E+00   2.6960E-05  0.0084
   4.3790E+00   4.4856E+00   2.6432E-05  0.0084
   4.4856E+00   4.5947E+00   2.6587E-05  0.0083
   4.5947E+00   4.7065E+00   2.6448E-05  0.0082
   4.7065E+00   4.8210E+00   2.6446E-05  0.0081
   4.8210E+00   4.9383E+00   2.6209E-05  0.0081
   4.9383E+00   5.0585E+00   2.6044E-05  0.0080
   5.0585E+00   5.1815E+00   2.5465E-05  0.0080
   5.1815E+00   5.3076E+00   2.5255E-05  0.0079
   5.3076E+00   5.4368E+00   2.4801E-05  0.0079
   5.4368E+00   5.5690E+00   2.4166E-05  0.0079
   5.5690E+00   5.7045E+00   2.3932E-05  0.0079
   5.7045E+00   5.8433E+00   2.3841E-05  0.0078
   5.8433E+00   5.9855E+00   2.3840E-05  0.0077
   5.9855E+00   6.1311E+00   2.3592E-05  0.0076
   6.1311E+00   6.2803E+00   2.2848E-05  0.0077
   6.2803E+00   6.4331E+00   2.2484E-05  0.0076
   6.4331E+00   6.5896E+00   2.1943E-05  0.0076
   6.5896E+00   6.7500E+00   2.1860E-05  0.0076
   6.7500E+00   6.9142E+00   2.1348E-05  0.0076
   6.9142E+00   7.0824E+00   2.1120E-05  0.0075
   7.0824E+00   7.2548E+00   2.0712E-05  0.0075
   7.2548E+00   7.4313E+00   2.0012E-05  0.0075
   7.4313E+00   7.6121E+00   1.9579E-05  0.0075
   7.6121E+00   7.7973E+00   1.9698E-05  0.0074
   7.7973E+00   7.9870E+00   1.8848E-05  0.0075
   7.9870E+00   8.1813E+00   1.8819E-05  0.0074
   8.1813E+00   8.3804E+00   1.8559E-05  0.0074
   8.3804E+00   8.5843E+00   1.7897E-05  0.0074
   8.5843E+00   8.7931E+00   1.7655E-05  0.0074
   8.7931E+00   9.0071E+00   1.7634E-05  0.0073
   9.0071E+00   9.2262E+00   1.7158E-05  0.0073
   9.2262E+00   9.4507E+00   1.6854E-05  0.0073
   9.4507E+00   9.6807E+00   1.6726E-05  0.0072
   9.6807E+00   9.9162E+00   1.6401E-05  0.0072
   9.9162E+00   1.0157E+01   1.6310E-05  0.0071
   1.0157E+01   1.0405E+01   1.5838E-05  0.0071
   1.0405E+01   1.0658E+01   1.5640E-05  0.0071
   1.0658E+01   1.0917E+01   1.5313E-05  0.0071
   1.0917E+01   1.1183E+01   1.5302E-05  0.0070
   1.1183E+01   1.1455E+01   1.5016E-05  0.0070
   1.1455E+01   1.1733E+01   1.5114E-05  0.0069
   1.1733E+01   1.2019E+01   1.4564E-05  0.0069
   1.2019E+01   1.2311E+01   1.4518E-05  0.0069
   1.2311E+01   1.2611E+01   1.4147E-05  0.0069
   1.2611E+01   1.2918E+01   1.4200E-05  0.0068
   1.2918E+01   1.3232E+01   1.3917E-05  0.0068
   1.3232E+01   1.3554E+01   1.3782E-05  0.0067
   1.3554E+01   1.3884E+01   1.3593E-05  0.0067
   1.3884E+01   1.4222E+01   1.3232E-05  0.0067
   1.4222E+01   1.4568E+01   1.3082E-05  0.0066
   1.4568E+01   1.4922E+01   1.2807E-05  0.0066
   1.4922E+01   1.5285E+01   1.2685E-05  0.0066
   1.5285E+01   1.5657E+01   1.2548E-05  0.0065
   1.5657E+01   1.6038E+01   1.2355E-05  0.0065
   1.6038E+01   1.6428E+01   1.1912E-05  0.0066
   1.6428E+01   1.6828E+01   1.1774E-05  0.0065
   1.6828E+01   1.7237E+01   1.1527E-05  0.0065
   1.7237E+01   1.7657E+01   1.1278E-05  0.0065
   1.7657E+01   1.8086E+01   1.1057E-05  0.0065
   1.8086E+01   1.8526E+01   1.0704E-05  0.0065
   1.8526E+01   1.8977E+01   1.0473E-05  0.0065
   1.8977E+01   1.9439E+01   1.0107E-05  0.0065
   1.9439E+01   1.9912E+01   9.9974E-06  0.0065
   1.9912E+01   2.0396E+01   1.1121E-05  0.0061
   2.0396E+01   2.0893E+01   1.0929E-05  0.0061
   2.0893E+01   2.1401E+01   1.0600E-05  0.0061
   2.1401E+01   2.1922E+01   1.0123E-05  0.0062
   2.1922E+01   2.2455E+01   9.7234E-06  0.0062
   2.2455E+01   2.3001E+01   9.2922E-06  0.0063
   2.3001E+01   2.3561E+01   8.7949E-06  0.0064
   2.3561E+01   2.4134E+01   8.2933E-06  0.0065
   2.4134E+01   2.4721E+01   7.7915E-06  0.0066
   2.4721E+01   2.5323E+01   7.4571E-06  0.0067
   2.5323E+01   2.5939E+01   7.0158E-06  0.0068
   2.5939E+01   2.6570E+01   6.5157E-06  0.0070
   2.6570E+01   2.7217E+01   6.1336E-06  0.0071
   2.7217E+01   2.7879E+01   5.8055E-06  0.0072
   2.7879E+01   2.8557E+01   5.4217E-06  0.0074
   2.8557E+01   2.9252E+01   5.0710E-06  0.0075
   2.9252E+01   2.9964E+01   4.7049E-06  0.0077
   2.9964E+01   3.0693E+01   4.3221E-06  0.0080
   3.0693E+01   3.1440E+01   4.0472E-06  0.0081
   3.1440E+01   3.2205E+01   3.6653E-06  0.0084
   3.2205E+01   3.2988E+01   3.3639E-06  0.0087
   3.2988E+01   3.3791E+01   3.0600E-06  0.0090
   3.3791E+01   3.4613E+01   2.7554E-06  0.0094
   3.4613E+01   3.5455E+01   2.4839E-06  0.0098
   3.5455E+01   3.6318E+01   2.2373E-06  0.0102
   3.6318E+01   3.7201E+01   2.0004E-06  0.0106
   3.7201E+01   3.8106E+01   1.8183E-06  0.0110
   3.8106E+01   3.9034E+01   1.6053E-06  0.0116
   3.9034E+01   3.9983E+01   1.4131E-06  0.0122
   3.9983E+01   4.0956E+01   1.2405E-06  0.0129
   4.0956E+01   4.1953E+01   1.1087E-06  0.0135
   4.1953E+01   4.2973E+01   9.8752E-07  0.0141
   4.2973E+01   4.4019E+01   8.6364E-07  0.0149
   4.4019E+01   4.5090E+01   7.4807E-07  0.0158
   4.5090E+01   4.6187E+01   6.6887E-07  0.0165
   4.6187E+01   4.7311E+01   5.8571E-07  0.0174
   4.7311E+01   4.8462E+01   5.1359E-07  0.0184
   4.8462E+01   4.9641E+01   4.3609E-07  0.0197
   4.9641E+01   5.0849E+01   3.8417E-07  0.0208
   5.0849E+01   5.2086E+01   3.3043E-07  0.0221
   5.2086E+01   5.3353E+01   2.8391E-07  0.0236
   5.3353E+01   5.4651E+01   2.4004E-07  0.0253
   5.4651E+01   5.5981E+01   1.9779E-07  0.0276
   5.5981E+01   5.7343E+01   1.6725E-07  0.0296
   5.7343E+01   5.8738E+01   1.4693E-07  0.0312
   5.8738E+01   6.0168E+01   1.1237E-07  0.0353
   6.0168E+01   6.1632E+01   9.8092E-08  0.0373
   6.1632E+01   6.3131E+01   7.4156E-08  0.0424
   6.3131E+01   6.4667E+01   5.4035E-08  0.0491
   6.4667E+01   6.6240E+01   4.0168E-08  0.0563
   6.6240E+01   6.7852E+01   2.8169E-08  0.0664
   6.7852E+01   6.9503E+01   1.4538E-08  0.0913
   6.9503E+01   7.1194E+01   4.0211E-09  0.1715
   7.1194E+01   7.2926E+01   1.3855E-09  0.2887
   7.2926E+01   7.4701E+01   3.3815E-10  0.5774
   7.4701E+01   7.6518E+01   0.0000E+00  0.0000
   7.6518E+01   7.8380E+01   0.0000E+00  0.0000
   7.8380E+01   8.0287E+01   0.0000E+00  0.0000
   8.0287E+01   8.2240E+01   0.0000E+00  0.0000
   8.2240E+01   8.4241E+01   0.0000E+00  0.0000
   8.4241E+01   8.6291E+01   0.0000E+00  0.0000
   8.6291E+01   8.8391E+01   0.0000E+00  0.0000
   8.8391E+01   9.0541E+01   0.0000E+00  0.0000
   9.0541E+01   9.2744E+01   0.0000E+00  0.0000
   9.2744E+01   9.5001E+01   0.0000E+00  0.0000
   9.5001E+01   9.7312E+01   0.0000E+00  0.0000
   9.7312E+01   9.9680E+01   0.0000E+00  0.0000
   9.9680E+01   1.0211E+02   0.0000E+00  0.0000
   1.0211E+02   1.0459E+02   0.0000E+00  0.0000
   1.0459E+02   1.0713E+02   0.0000E+00  0.0000
   1.0713E+02   1.0974E+02   0.0000E+00  0.0000
   1.0974E+02   1.1241E+02   0.0000E+00  0.0000
   1.1241E+02   1.1515E+02   0.0000E+00  0.0000
   1.1515E+02   1.1795E+02   0.0000E+00  0.0000
   1.1795E+02   1.2082E+02   0.0000E+00  0.0000
   1.2082E+02   1.2376E+02   0.0000E+00  0.0000
   1.2376E+02   1.2677E+02   0.0000E+00  0.0000
   1.2677E+02   1.2985E+02   0.0000E+00  0.0000
   1.2985E+02   1.3301E+02   0.0000E+00  0.0000
   1.3301E+02   1.3625E+02   0.0000E+00  0.0000
   1.3625E+02   1.3956E+02   0.0000E+00  0.0000
   1.3956E+02   1.4296E+02   0.0000E+00  0.0000
   1.4296E+02   1.4644E+02   0.0000E+00  0.0000
   1.4644E+02   1.5000E+02   0.0000E+00  0.0000

#   sum over                 3.1915E-06
'no. =    1   reg = 113 - 213'
msuc: {\huge [t-cross] in region mesh}
msdr: {\it plotted by \ANGEL \version}
msdl: {\it calculated by \PHITS  3.26}
wt: s(0.7)
\vspace{-3}
  region surface crossing
  area  &=&   1.0000E+00 [cm^2]
e:
 
# Information for Restart Calculation
# This calculation was newly started
# istdev =  2 # 1:Batch variance, 2:History variance
# resc2  = 5.00000000000000000E+09 # Total source weight or Total source weight / maxcas
# resc3  = 5.00000000000000000E+09 # Total history number or Total batch number
# maxcas =   500000000 # History / Batch, only used for istdev=1
# bitrseed = 0110100000100010111000001110001111001110100100011111101000111001 # bit data of rseed
