[ T-Cross ]
    title = [t-cross] in region mesh
     mesh =  reg            # mesh type is region-wise
      reg =    1            # number of crossing regions
      non     r-from    r-to       area
      1       115       215        1.000000    
   e-type =    3            # e-mesh is log given by emin, emax and ne
     emin =  1.0000000E-02  # minimum value of e-mesh points
     emax =   150.0000      # maximum value of e-mesh points
#    edel =  2.4039514E-02  # mesh width of e-mesh points
       ne =    400          # number of e-mesh points
#    data = ( e(i), i = 1, ne + 1 )
#           1.00000E-02  1.02433E-02  1.04925E-02  1.07478E-02  1.10093E-02
#           1.12772E-02  1.15516E-02  1.18326E-02  1.21205E-02  1.24154E-02
#           1.27175E-02  1.30269E-02  1.33439E-02  1.36686E-02  1.40011E-02
#           1.43418E-02  1.46907E-02  1.50482E-02  1.54143E-02  1.57894E-02
#           1.61735E-02  1.65670E-02  1.69701E-02  1.73830E-02  1.78060E-02
#           1.82392E-02  1.86830E-02  1.91375E-02  1.96032E-02  2.00801E-02
#           2.05687E-02  2.10692E-02  2.15818E-02  2.21069E-02  2.26448E-02
#           2.31957E-02  2.37601E-02  2.43382E-02  2.49304E-02  2.55369E-02
#           2.61583E-02  2.67947E-02  2.74467E-02  2.81145E-02  2.87985E-02
#           2.94992E-02  3.02169E-02  3.09521E-02  3.17052E-02  3.24766E-02
#           3.32668E-02  3.40762E-02  3.49053E-02  3.57546E-02  3.66246E-02
#           3.75157E-02  3.84284E-02  3.93634E-02  4.03212E-02  4.13022E-02
#           4.23071E-02  4.33365E-02  4.43909E-02  4.54710E-02  4.65773E-02
#           4.77106E-02  4.88714E-02  5.00605E-02  5.12785E-02  5.25262E-02
#           5.38042E-02  5.51133E-02  5.64542E-02  5.78278E-02  5.92348E-02
#           6.06760E-02  6.21523E-02  6.36645E-02  6.52135E-02  6.68002E-02
#           6.84255E-02  7.00904E-02  7.17957E-02  7.35426E-02  7.53319E-02
#           7.71648E-02  7.90423E-02  8.09655E-02  8.29354E-02  8.49533E-02
#           8.70203E-02  8.91376E-02  9.13064E-02  9.35279E-02  9.58035E-02
#           9.81345E-02  1.00522E-01  1.02968E-01  1.05473E-01  1.08040E-01
#           1.10668E-01  1.13361E-01  1.16119E-01  1.18944E-01  1.21838E-01
#           1.24803E-01  1.27839E-01  1.30950E-01  1.34136E-01  1.37399E-01
#           1.40742E-01  1.44167E-01  1.47675E-01  1.51268E-01  1.54948E-01
#           1.58718E-01  1.62580E-01  1.66535E-01  1.70587E-01  1.74738E-01
#           1.78989E-01  1.83344E-01  1.87805E-01  1.92375E-01  1.97055E-01
#           2.01850E-01  2.06761E-01  2.11792E-01  2.16945E-01  2.22223E-01
#           2.27630E-01  2.33169E-01  2.38842E-01  2.44653E-01  2.50605E-01
#           2.56703E-01  2.62949E-01  2.69346E-01  2.75900E-01  2.82613E-01
#           2.89489E-01  2.96532E-01  3.03747E-01  3.11138E-01  3.18708E-01
#           3.26462E-01  3.34405E-01  3.42542E-01  3.50876E-01  3.59413E-01
#           3.68158E-01  3.77116E-01  3.86291E-01  3.95690E-01  4.05317E-01
#           4.15179E-01  4.25281E-01  4.35628E-01  4.46227E-01  4.57084E-01
#           4.68205E-01  4.79597E-01  4.91266E-01  5.03219E-01  5.15463E-01
#           5.28005E-01  5.40851E-01  5.54011E-01  5.67490E-01  5.81298E-01
#           5.95441E-01  6.09929E-01  6.24769E-01  6.39970E-01  6.55541E-01
#           6.71491E-01  6.87828E-01  7.04564E-01  7.21706E-01  7.39266E-01
#           7.57253E-01  7.75678E-01  7.94551E-01  8.13883E-01  8.33685E-01
#           8.53969E-01  8.74747E-01  8.96030E-01  9.17831E-01  9.40163E-01
#           9.63038E-01  9.86469E-01  1.01047E+00  1.03506E+00  1.06024E+00
#           1.08604E+00  1.11246E+00  1.13953E+00  1.16725E+00  1.19565E+00
#           1.22474E+00  1.25454E+00  1.28507E+00  1.31633E+00  1.34836E+00
#           1.38117E+00  1.41477E+00  1.44920E+00  1.48446E+00  1.52057E+00
#           1.55757E+00  1.59547E+00  1.63429E+00  1.67405E+00  1.71478E+00
#           1.75650E+00  1.79924E+00  1.84302E+00  1.88786E+00  1.93379E+00
#           1.98084E+00  2.02904E+00  2.07841E+00  2.12898E+00  2.18078E+00
#           2.23384E+00  2.28819E+00  2.34386E+00  2.40089E+00  2.45930E+00
#           2.51914E+00  2.58043E+00  2.64322E+00  2.70753E+00  2.77341E+00
#           2.84088E+00  2.91001E+00  2.98081E+00  3.05333E+00  3.12762E+00
#           3.20372E+00  3.28167E+00  3.36152E+00  3.44330E+00  3.52708E+00
#           3.61290E+00  3.70080E+00  3.79085E+00  3.88308E+00  3.97756E+00
#           4.07434E+00  4.17347E+00  4.27501E+00  4.37903E+00  4.48557E+00
#           4.59471E+00  4.70650E+00  4.82102E+00  4.93832E+00  5.05847E+00
#           5.18155E+00  5.30762E+00  5.43676E+00  5.56904E+00  5.70453E+00
#           5.84333E+00  5.98550E+00  6.13114E+00  6.28031E+00  6.43312E+00
#           6.58964E+00  6.74997E+00  6.91420E+00  7.08243E+00  7.25475E+00
#           7.43126E+00  7.61207E+00  7.79728E+00  7.98700E+00  8.18133E+00
#           8.38038E+00  8.58428E+00  8.79315E+00  9.00709E+00  9.22624E+00
#           9.45072E+00  9.68067E+00  9.91620E+00  1.01575E+01  1.04046E+01
#           1.06578E+01  1.09171E+01  1.11827E+01  1.14548E+01  1.17335E+01
#           1.20190E+01  1.23114E+01  1.26109E+01  1.29178E+01  1.32321E+01
#           1.35540E+01  1.38838E+01  1.42216E+01  1.45676E+01  1.49221E+01
#           1.52851E+01  1.56570E+01  1.60380E+01  1.64282E+01  1.68279E+01
#           1.72374E+01  1.76568E+01  1.80864E+01  1.85264E+01  1.89772E+01
#           1.94389E+01  1.99119E+01  2.03963E+01  2.08926E+01  2.14009E+01
#           2.19216E+01  2.24550E+01  2.30014E+01  2.35610E+01  2.41343E+01
#           2.47215E+01  2.53230E+01  2.59391E+01  2.65702E+01  2.72167E+01
#           2.78789E+01  2.85572E+01  2.92520E+01  2.99637E+01  3.06928E+01
#           3.14396E+01  3.22045E+01  3.29881E+01  3.37907E+01  3.46128E+01
#           3.54550E+01  3.63177E+01  3.72013E+01  3.81064E+01  3.90336E+01
#           3.99833E+01  4.09561E+01  4.19526E+01  4.29734E+01  4.40189E+01
#           4.50900E+01  4.61870E+01  4.73108E+01  4.84619E+01  4.96410E+01
#           5.08488E+01  5.20860E+01  5.33533E+01  5.46514E+01  5.59812E+01
#           5.73432E+01  5.87384E+01  6.01676E+01  6.16315E+01  6.31311E+01
#           6.46671E+01  6.62405E+01  6.78522E+01  6.95031E+01  7.11941E+01
#           7.29263E+01  7.47007E+01  7.65182E+01  7.83800E+01  8.02870E+01
#           8.22405E+01  8.42414E+01  8.62911E+01  8.83906E+01  9.05412E+01
#           9.27442E+01  9.50007E+01  9.73122E+01  9.96799E+01  1.02105E+02
#           1.04589E+02  1.07134E+02  1.09741E+02  1.12411E+02  1.15146E+02
#           1.17948E+02  1.20817E+02  1.23757E+02  1.26768E+02  1.29852E+02
#           1.33012E+02  1.36248E+02  1.39563E+02  1.42959E+02  1.46437E+02
#           1.50000E+02
     unit =    2            # unit is [1/cm^2/(MeV/n)/source]
     axis =  eng            # axis of output
     file = detector-16.out  # file name of output for the above axis
   output = f-curr          # surface crossing forward current spectrum
     part =  neutron  
# kf/name :  2112     
#    used :        main (  %)        temp (  %)       total (  %)
#  memory :         414 (  0)           0 (  0)         414 (  0)

#------------------------------------------------------------------------------
#newpage:
#   no. =    1   reg = 115 - 215

x: Energy [MeV/n]
y:  F-Curr [1/cm^2/(MeV/n)/source]         
p: xlog ylog afac(0.8) form(0.9)
h: n            x            y(neutron ),hh0l   n 
#  e-lower      e-upper      neutron     r.err 
   1.0000E-02   1.0243E-02   8.2200E-07  1.0000
   1.0243E-02   1.0493E-02   8.0248E-07  1.0000
   1.0493E-02   1.0748E-02   0.0000E+00  0.0000
   1.0748E-02   1.1009E-02   0.0000E+00  0.0000
   1.1009E-02   1.1277E-02   0.0000E+00  0.0000
   1.1277E-02   1.1552E-02   8.9338E-07  0.8364
   1.1552E-02   1.1833E-02   0.0000E+00  0.0000
   1.1833E-02   1.2121E-02   5.0707E-07  0.7540
   1.2121E-02   1.2415E-02   0.0000E+00  0.0000
   1.2415E-02   1.2718E-02   6.6208E-07  1.0000
   1.2718E-02   1.3027E-02   0.0000E+00  0.0000
   1.3027E-02   1.3344E-02   0.0000E+00  0.0000
   1.3344E-02   1.3669E-02   1.8480E-06  0.5774
   1.3669E-02   1.4001E-02   8.3195E-08  1.0000
   1.4001E-02   1.4342E-02   5.8710E-07  1.0000
   1.4342E-02   1.4691E-02   6.6513E-07  0.8727
   1.4691E-02   1.5048E-02   0.0000E+00  0.0000
   1.5048E-02   1.5414E-02   0.0000E+00  0.0000
   1.5414E-02   1.5789E-02   2.3927E-07  1.0000
   1.5789E-02   1.6174E-02   1.0412E-06  0.7071
   1.6174E-02   1.6567E-02   1.0165E-06  0.7071
   1.6567E-02   1.6970E-02   0.0000E+00  0.0000
   1.6970E-02   1.7383E-02   4.8438E-07  1.0000
   1.7383E-02   1.7806E-02   1.4186E-06  0.5774
   1.7806E-02   1.8239E-02   1.3849E-06  0.5774
   1.8239E-02   1.8683E-02   1.2427E-06  0.5818
   1.8683E-02   1.9138E-02   4.3997E-07  1.0000
   1.9138E-02   1.9603E-02   1.3698E-06  0.5277
   1.9603E-02   2.0080E-02   0.0000E+00  0.0000
   2.0080E-02   2.0569E-02   1.7292E-06  0.4764
   2.0569E-02   2.1069E-02   3.9964E-07  1.0000
   2.1069E-02   2.1582E-02   7.8029E-07  0.7071
   2.1582E-02   2.2107E-02   2.6661E-06  0.3780
   2.2107E-02   2.2645E-02   7.4366E-07  0.7071
   2.2645E-02   2.3196E-02   0.0000E+00  0.0000
   2.3196E-02   2.3760E-02   3.9950E-07  0.8942
   2.3760E-02   2.4338E-02   1.1015E-06  0.5470
   2.4338E-02   2.4930E-02   2.1340E-06  0.3909
   2.4930E-02   2.5537E-02   1.3983E-06  0.4572
   2.5537E-02   2.6158E-02   1.5003E-06  0.4239
   2.6158E-02   2.6795E-02   1.6520E-06  0.4147
   2.6795E-02   2.7447E-02   9.8970E-07  0.5414
   2.7447E-02   2.8114E-02   1.6346E-06  0.4148
   2.8114E-02   2.8799E-02   2.1935E-06  0.3559
   2.8799E-02   2.9499E-02   1.7285E-06  0.3841
   2.9499E-02   3.0217E-02   1.5998E-06  0.4001
   3.0217E-02   3.0952E-02   1.8192E-06  0.3740
   3.0952E-02   3.1705E-02   2.5151E-06  0.3071
   3.1705E-02   3.2477E-02   1.9445E-06  0.3590
   3.2477E-02   3.3267E-02   1.3723E-06  0.4161
   3.3267E-02   3.4076E-02   2.7521E-06  0.2885
   3.4076E-02   3.4905E-02   2.6249E-06  0.2933
   3.4905E-02   3.5755E-02   2.4768E-06  0.2933
   3.5755E-02   3.6625E-02   1.2948E-06  0.4075
   3.6625E-02   3.7516E-02   1.6637E-06  0.3591
   3.7516E-02   3.8428E-02   1.6071E-06  0.3621
   3.8428E-02   3.9363E-02   2.0722E-06  0.3142
   3.9363E-02   4.0321E-02   2.7116E-06  0.2628
   4.0321E-02   4.1302E-02   3.9312E-06  0.2234
   4.1302E-02   4.2307E-02   3.3006E-06  0.2312
   4.2307E-02   4.3337E-02   4.2861E-06  0.2016
   4.3337E-02   4.4391E-02   3.1111E-06  0.2349
   4.4391E-02   4.5471E-02   2.2749E-06  0.2765
   4.5471E-02   4.6577E-02   5.7045E-06  0.1739
   4.6577E-02   4.7711E-02   5.6815E-06  0.1723
   4.7711E-02   4.8871E-02   3.2237E-06  0.2163
   4.8871E-02   5.0061E-02   3.7141E-06  0.2071
   5.0061E-02   5.1279E-02   5.0929E-06  0.1756
   5.1279E-02   5.2526E-02   4.5914E-06  0.1831
   5.2526E-02   5.3804E-02   4.1520E-06  0.1849
   5.3804E-02   5.5113E-02   5.8868E-06  0.1535
   5.5113E-02   5.6454E-02   6.0769E-06  0.1535
   5.6454E-02   5.7828E-02   5.5890E-06  0.1557
   5.7828E-02   5.9235E-02   5.8582E-06  0.1516
   5.9235E-02   6.0676E-02   5.8615E-06  0.1482
   6.0676E-02   6.2152E-02   7.0901E-06  0.1356
   6.2152E-02   6.3665E-02   6.8865E-06  0.1351
   6.3665E-02   6.5214E-02   5.9476E-06  0.1423
   6.5214E-02   6.6800E-02   5.7732E-06  0.1412
   6.6800E-02   6.8426E-02   7.6224E-06  0.1232
   6.8426E-02   7.0090E-02   8.5437E-06  0.1153
   7.0090E-02   7.1796E-02   7.6566E-06  0.1208
   7.1796E-02   7.3543E-02   9.0891E-06  0.1080
   7.3543E-02   7.5332E-02   7.8286E-06  0.1150
   7.5332E-02   7.7165E-02   9.3418E-06  0.1048
   7.7165E-02   7.9042E-02   1.0418E-05  0.0973
   7.9042E-02   8.0965E-02   1.0376E-05  0.0963
   8.0965E-02   8.2935E-02   9.1452E-06  0.1018
   8.2935E-02   8.4953E-02   9.8070E-06  0.0969
   8.4953E-02   8.7020E-02   1.1314E-05  0.0887
   8.7020E-02   8.9138E-02   1.3181E-05  0.0814
   8.9138E-02   9.1306E-02   1.2927E-05  0.0821
   9.1306E-02   9.3528E-02   1.3382E-05  0.0789
   9.3528E-02   9.5804E-02   1.3887E-05  0.0770
   9.5804E-02   9.8134E-02   1.2531E-05  0.0797
   9.8134E-02   1.0052E-01   1.5642E-05  0.0709
   1.0052E-01   1.0297E-01   1.4714E-05  0.0721
   1.0297E-01   1.0547E-01   1.7388E-05  0.0657
   1.0547E-01   1.0804E-01   1.6256E-05  0.0667
   1.0804E-01   1.1067E-01   2.0669E-05  0.0588
   1.1067E-01   1.1336E-01   1.7715E-05  0.0628
   1.1336E-01   1.1612E-01   1.9256E-05  0.0595
   1.1612E-01   1.1894E-01   1.9101E-05  0.0591
   1.1894E-01   1.2184E-01   1.9444E-05  0.0576
   1.2184E-01   1.2480E-01   2.1500E-05  0.0545
   1.2480E-01   1.2784E-01   2.4289E-05  0.0508
   1.2784E-01   1.3095E-01   2.3423E-05  0.0506
   1.3095E-01   1.3414E-01   2.5856E-05  0.0479
   1.3414E-01   1.3740E-01   2.4460E-05  0.0485
   1.3740E-01   1.4074E-01   2.4289E-05  0.0479
   1.4074E-01   1.4417E-01   2.8164E-05  0.0440
   1.4417E-01   1.4767E-01   2.8206E-05  0.0438
   1.4767E-01   1.5127E-01   3.1307E-05  0.0408
   1.5127E-01   1.5495E-01   3.2178E-05  0.0398
   1.5495E-01   1.5872E-01   3.2514E-05  0.0392
   1.5872E-01   1.6258E-01   3.5555E-05  0.0371
   1.6258E-01   1.6654E-01   3.7195E-05  0.0359
   1.6654E-01   1.7059E-01   3.9210E-05  0.0344
   1.7059E-01   1.7474E-01   4.0908E-05  0.0333
   1.7474E-01   1.7899E-01   4.3007E-05  0.0320
   1.7899E-01   1.8334E-01   4.2352E-05  0.0319
   1.8334E-01   1.8781E-01   4.6765E-05  0.0301
   1.8781E-01   1.9237E-01   4.4393E-05  0.0304
   1.9237E-01   1.9706E-01   4.8867E-05  0.0287
   1.9706E-01   2.0185E-01   4.9961E-05  0.0281
   2.0185E-01   2.0676E-01   5.3289E-05  0.0269
   2.0676E-01   2.1179E-01   5.4768E-05  0.0262
   2.1179E-01   2.1694E-01   5.8908E-05  0.0250
   2.1694E-01   2.2222E-01   6.0340E-05  0.0244
   2.2222E-01   2.2763E-01   6.6101E-05  0.0231
   2.2763E-01   2.3317E-01   6.7016E-05  0.0226
   2.3317E-01   2.3884E-01   7.0586E-05  0.0218
   2.3884E-01   2.4465E-01   7.2288E-05  0.0212
   2.4465E-01   2.5061E-01   7.4365E-05  0.0207
   2.5061E-01   2.5670E-01   8.1178E-05  0.0196
   2.5670E-01   2.6295E-01   8.1730E-05  0.0194
   2.6295E-01   2.6935E-01   8.4055E-05  0.0188
   2.6935E-01   2.7590E-01   9.0919E-05  0.0179
   2.7590E-01   2.8261E-01   9.2521E-05  0.0175
   2.8261E-01   2.8949E-01   9.7050E-05  0.0169
   2.8949E-01   2.9653E-01   9.8015E-05  0.0166
   2.9653E-01   3.0375E-01   1.0228E-04  0.0161
   3.0375E-01   3.1114E-01   1.0722E-04  0.0155
   3.1114E-01   3.1871E-01   1.0992E-04  0.0152
   3.1871E-01   3.2646E-01   1.1469E-04  0.0147
   3.2646E-01   3.3441E-01   1.1771E-04  0.0144
   3.3441E-01   3.4254E-01   1.2253E-04  0.0139
   3.4254E-01   3.5088E-01   1.2565E-04  0.0135
   3.5088E-01   3.5941E-01   1.3061E-04  0.0131
   3.5941E-01   3.6816E-01   1.3507E-04  0.0128
   3.6816E-01   3.7712E-01   1.4570E-04  0.0122
   3.7712E-01   3.8629E-01   1.5112E-04  0.0118
   3.8629E-01   3.9569E-01   1.5404E-04  0.0116
   3.9569E-01   4.0532E-01   1.6137E-04  0.0112
   4.0532E-01   4.1518E-01   1.6492E-04  0.0109
   4.1518E-01   4.2528E-01   1.7266E-04  0.0105
   4.2528E-01   4.3563E-01   1.8089E-04  0.0102
   4.3563E-01   4.4623E-01   1.8234E-04  0.0100
   4.4623E-01   4.5708E-01   1.8995E-04  0.0097
   4.5708E-01   4.6821E-01   1.9675E-04  0.0094
   4.6821E-01   4.7960E-01   2.0268E-04  0.0092
   4.7960E-01   4.9127E-01   2.0912E-04  0.0089
   4.9127E-01   5.0322E-01   2.2136E-04  0.0086
   5.0322E-01   5.1546E-01   2.2364E-04  0.0084
   5.1546E-01   5.2800E-01   2.3491E-04  0.0081
   5.2800E-01   5.4085E-01   2.4246E-04  0.0079
   5.4085E-01   5.5401E-01   2.5078E-04  0.0077
   5.5401E-01   5.6749E-01   2.5997E-04  0.0075
   5.6749E-01   5.8130E-01   2.6973E-04  0.0072
   5.8130E-01   5.9544E-01   2.8122E-04  0.0070
   5.9544E-01   6.0993E-01   2.8922E-04  0.0068
   6.0993E-01   6.2477E-01   2.9754E-04  0.0067
   6.2477E-01   6.3997E-01   3.0933E-04  0.0064
   6.3997E-01   6.5554E-01   3.2311E-04  0.0062
   6.5554E-01   6.7149E-01   3.2995E-04  0.0061
   6.7149E-01   6.8783E-01   3.3931E-04  0.0059
   6.8783E-01   7.0456E-01   3.5413E-04  0.0057
   7.0456E-01   7.2171E-01   3.6327E-04  0.0056
   7.2171E-01   7.3927E-01   3.7381E-04  0.0055
   7.3927E-01   7.5725E-01   3.8542E-04  0.0053
   7.5725E-01   7.7568E-01   3.9629E-04  0.0052
   7.7568E-01   7.9455E-01   4.1314E-04  0.0050
   7.9455E-01   8.1388E-01   4.2117E-04  0.0049
   8.1388E-01   8.3368E-01   4.3671E-04  0.0047
   8.3368E-01   8.5397E-01   4.4466E-04  0.0047
   8.5397E-01   8.7475E-01   4.5524E-04  0.0045
   8.7475E-01   8.9603E-01   4.6827E-04  0.0044
   8.9603E-01   9.1783E-01   4.8039E-04  0.0043
   9.1783E-01   9.4016E-01   4.9316E-04  0.0042
   9.4016E-01   9.6304E-01   4.9914E-04  0.0041
   9.6304E-01   9.8647E-01   5.0594E-04  0.0041
   9.8647E-01   1.0105E+00   5.0718E-04  0.0040
   1.0105E+00   1.0351E+00   5.0257E-04  0.0040
   1.0351E+00   1.0602E+00   4.9935E-04  0.0039
   1.0602E+00   1.0860E+00   4.9991E-04  0.0039
   1.0860E+00   1.1125E+00   4.9891E-04  0.0038
   1.1125E+00   1.1395E+00   4.9598E-04  0.0038
   1.1395E+00   1.1673E+00   4.9760E-04  0.0038
   1.1673E+00   1.1957E+00   5.0797E-04  0.0037
   1.1957E+00   1.2247E+00   5.0778E-04  0.0036
   1.2247E+00   1.2545E+00   5.0473E-04  0.0036
   1.2545E+00   1.2851E+00   5.0082E-04  0.0036
   1.2851E+00   1.3163E+00   4.9351E-04  0.0035
   1.3163E+00   1.3484E+00   4.9511E-04  0.0035
   1.3484E+00   1.3812E+00   4.9305E-04  0.0035
   1.3812E+00   1.4148E+00   4.9745E-04  0.0034
   1.4148E+00   1.4492E+00   4.9555E-04  0.0034
   1.4492E+00   1.4845E+00   4.9364E-04  0.0033
   1.4845E+00   1.5206E+00   4.9514E-04  0.0033
   1.5206E+00   1.5576E+00   4.9013E-04  0.0033
   1.5576E+00   1.5955E+00   4.8231E-04  0.0032
   1.5955E+00   1.6343E+00   4.7488E-04  0.0032
   1.6343E+00   1.6741E+00   4.6946E-04  0.0032
   1.6741E+00   1.7148E+00   4.6520E-04  0.0032
   1.7148E+00   1.7565E+00   4.6131E-04  0.0032
   1.7565E+00   1.7992E+00   4.6033E-04  0.0031
   1.7992E+00   1.8430E+00   4.5629E-04  0.0031
   1.8430E+00   1.8879E+00   4.5038E-04  0.0031
   1.8879E+00   1.9338E+00   4.4385E-04  0.0031
   1.9338E+00   1.9808E+00   4.3912E-04  0.0030
   1.9808E+00   2.0290E+00   4.3554E-04  0.0030
   2.0290E+00   2.0784E+00   4.3030E-04  0.0030
   2.0784E+00   2.1290E+00   4.2410E-04  0.0030
   2.1290E+00   2.1808E+00   4.1559E-04  0.0030
   2.1808E+00   2.2338E+00   4.0930E-04  0.0030
   2.2338E+00   2.2882E+00   4.0467E-04  0.0029
   2.2882E+00   2.3439E+00   3.9297E-04  0.0029
   2.3439E+00   2.4009E+00   3.8494E-04  0.0029
   2.4009E+00   2.4593E+00   3.7556E-04  0.0029
   2.4593E+00   2.5191E+00   3.6885E-04  0.0029
   2.5191E+00   2.5804E+00   3.5772E-04  0.0029
   2.5804E+00   2.6432E+00   3.4887E-04  0.0029
   2.6432E+00   2.7075E+00   3.3770E-04  0.0029
   2.7075E+00   2.7734E+00   3.3180E-04  0.0029
   2.7734E+00   2.8409E+00   3.2781E-04  0.0029
   2.8409E+00   2.9100E+00   3.1670E-04  0.0029
   2.9100E+00   2.9808E+00   3.0937E-04  0.0029
   2.9808E+00   3.0533E+00   3.0153E-04  0.0029
   3.0533E+00   3.1276E+00   2.9238E-04  0.0029
   3.1276E+00   3.2037E+00   2.8318E-04  0.0029
   3.2037E+00   3.2817E+00   2.7562E-04  0.0029
   3.2817E+00   3.3615E+00   2.6608E-04  0.0030
   3.3615E+00   3.4433E+00   2.5972E-04  0.0030
   3.4433E+00   3.5271E+00   2.5153E-04  0.0030
   3.5271E+00   3.6129E+00   2.4622E-04  0.0030
   3.6129E+00   3.7008E+00   2.3641E-04  0.0030
   3.7008E+00   3.7908E+00   2.2889E-04  0.0030
   3.7908E+00   3.8831E+00   2.2051E-04  0.0030
   3.8831E+00   3.9776E+00   2.1131E-04  0.0030
   3.9776E+00   4.0743E+00   2.0377E-04  0.0030
   4.0743E+00   4.1735E+00   1.9587E-04  0.0031
   4.1735E+00   4.2750E+00   1.8792E-04  0.0031
   4.2750E+00   4.3790E+00   1.8018E-04  0.0031
   4.3790E+00   4.4856E+00   1.7509E-04  0.0031
   4.4856E+00   4.5947E+00   1.6965E-04  0.0031
   4.5947E+00   4.7065E+00   1.6482E-04  0.0032
   4.7065E+00   4.8210E+00   1.5918E-04  0.0032
   4.8210E+00   4.9383E+00   1.5430E-04  0.0032
   4.9383E+00   5.0585E+00   1.4921E-04  0.0032
   5.0585E+00   5.1815E+00   1.4563E-04  0.0032
   5.1815E+00   5.3076E+00   1.4087E-04  0.0032
   5.3076E+00   5.4368E+00   1.3656E-04  0.0032
   5.4368E+00   5.5690E+00   1.3201E-04  0.0032
   5.5690E+00   5.7045E+00   1.2858E-04  0.0032
   5.7045E+00   5.8433E+00   1.2439E-04  0.0033
   5.8433E+00   5.9855E+00   1.2092E-04  0.0033
   5.9855E+00   6.1311E+00   1.1865E-04  0.0033
   6.1311E+00   6.2803E+00   1.1556E-04  0.0033
   6.2803E+00   6.4331E+00   1.1354E-04  0.0033
   6.4331E+00   6.5896E+00   1.1084E-04  0.0033
   6.5896E+00   6.7500E+00   1.0826E-04  0.0033
   6.7500E+00   6.9142E+00   1.0546E-04  0.0033
   6.9142E+00   7.0824E+00   1.0273E-04  0.0033
   7.0824E+00   7.2548E+00   1.0048E-04  0.0033
   7.2548E+00   7.4313E+00   9.7960E-05  0.0033
   7.4313E+00   7.6121E+00   9.5757E-05  0.0033
   7.6121E+00   7.7973E+00   9.3654E-05  0.0033
   7.7973E+00   7.9870E+00   9.1993E-05  0.0033
   7.9870E+00   8.1813E+00   8.9685E-05  0.0033
   8.1813E+00   8.3804E+00   8.6101E-05  0.0033
   8.3804E+00   8.5843E+00   8.4134E-05  0.0033
   8.5843E+00   8.7931E+00   8.1074E-05  0.0034
   8.7931E+00   9.0071E+00   7.7841E-05  0.0034
   9.0071E+00   9.2262E+00   7.4647E-05  0.0034
   9.2262E+00   9.4507E+00   7.2149E-05  0.0034
   9.4507E+00   9.6807E+00   6.9142E-05  0.0035
   9.6807E+00   9.9162E+00   6.6793E-05  0.0035
   9.9162E+00   1.0157E+01   6.4023E-05  0.0035
   1.0157E+01   1.0405E+01   6.1780E-05  0.0035
   1.0405E+01   1.0658E+01   5.9323E-05  0.0036
   1.0658E+01   1.0917E+01   5.7528E-05  0.0036
   1.0917E+01   1.1183E+01   5.5311E-05  0.0036
   1.1183E+01   1.1455E+01   5.2636E-05  0.0037
   1.1455E+01   1.1733E+01   5.0576E-05  0.0037
   1.1733E+01   1.2019E+01   4.8547E-05  0.0037
   1.2019E+01   1.2311E+01   4.6563E-05  0.0038
   1.2311E+01   1.2611E+01   4.4242E-05  0.0038
   1.2611E+01   1.2918E+01   4.2230E-05  0.0039
   1.2918E+01   1.3232E+01   3.9779E-05  0.0039
   1.3232E+01   1.3554E+01   3.7983E-05  0.0040
   1.3554E+01   1.3884E+01   3.6138E-05  0.0040
   1.3884E+01   1.4222E+01   3.4163E-05  0.0041
   1.4222E+01   1.4568E+01   3.2585E-05  0.0042
   1.4568E+01   1.4922E+01   3.0999E-05  0.0042
   1.4922E+01   1.5285E+01   2.9328E-05  0.0043
   1.5285E+01   1.5657E+01   2.7793E-05  0.0043
   1.5657E+01   1.6038E+01   2.6135E-05  0.0044
   1.6038E+01   1.6428E+01   2.4453E-05  0.0045
   1.6428E+01   1.6828E+01   2.2854E-05  0.0046
   1.6828E+01   1.7237E+01   2.0825E-05  0.0048
   1.7237E+01   1.7657E+01   1.9318E-05  0.0049
   1.7657E+01   1.8086E+01   1.7746E-05  0.0051
   1.8086E+01   1.8526E+01   1.6528E-05  0.0052
   1.8526E+01   1.8977E+01   1.5230E-05  0.0054
   1.8977E+01   1.9439E+01   1.4432E-05  0.0054
   1.9439E+01   1.9912E+01   1.3537E-05  0.0056
   1.9912E+01   2.0396E+01   1.3449E-05  0.0055
   2.0396E+01   2.0893E+01   1.2625E-05  0.0056
   2.0893E+01   2.1401E+01   1.1923E-05  0.0057
   2.1401E+01   2.1922E+01   1.1045E-05  0.0059
   2.1922E+01   2.2455E+01   1.0243E-05  0.0061
   2.2455E+01   2.3001E+01   9.3867E-06  0.0062
   2.3001E+01   2.3561E+01   8.7199E-06  0.0064
   2.3561E+01   2.4134E+01   7.9430E-06  0.0066
   2.4134E+01   2.4721E+01   7.2268E-06  0.0069
   2.4721E+01   2.5323E+01   6.5979E-06  0.0071
   2.5323E+01   2.5939E+01   5.9562E-06  0.0074
   2.5939E+01   2.6570E+01   5.3293E-06  0.0077
   2.6570E+01   2.7217E+01   4.8256E-06  0.0080
   2.7217E+01   2.7879E+01   4.2017E-06  0.0085
   2.7879E+01   2.8557E+01   3.7546E-06  0.0089
   2.8557E+01   2.9252E+01   3.3977E-06  0.0092
   2.9252E+01   2.9964E+01   2.9860E-06  0.0097
   2.9964E+01   3.0693E+01   2.6591E-06  0.0102
   3.0693E+01   3.1440E+01   2.3589E-06  0.0107
   3.1440E+01   3.2205E+01   2.0106E-06  0.0114
   3.2205E+01   3.2988E+01   1.7640E-06  0.0120
   3.2988E+01   3.3791E+01   1.5394E-06  0.0127
   3.3791E+01   3.4613E+01   1.3182E-06  0.0136
   3.4613E+01   3.5455E+01   1.1311E-06  0.0145
   3.5455E+01   3.6318E+01   9.5102E-07  0.0156
   3.6318E+01   3.7201E+01   8.2115E-07  0.0166
   3.7201E+01   3.8106E+01   6.5471E-07  0.0184
   3.8106E+01   3.9034E+01   5.4058E-07  0.0200
   3.9034E+01   3.9983E+01   4.6435E-07  0.0213
   3.9983E+01   4.0956E+01   3.6656E-07  0.0237
   4.0956E+01   4.1953E+01   3.0527E-07  0.0256
   4.1953E+01   4.2973E+01   2.3943E-07  0.0286
   4.2973E+01   4.4019E+01   1.9740E-07  0.0311
   4.4019E+01   4.5090E+01   1.3763E-07  0.0368
   4.5090E+01   4.6187E+01   1.0628E-07  0.0414
   4.6187E+01   4.7311E+01   7.6706E-08  0.0482
   4.7311E+01   4.8462E+01   5.5077E-08  0.0562
   4.8462E+01   4.9641E+01   3.6977E-08  0.0677
   4.9641E+01   5.0849E+01   1.9705E-08  0.0917
   5.0849E+01   5.2086E+01   1.2448E-08  0.1140
   5.2086E+01   5.3353E+01   5.3658E-09  0.1715
   5.3353E+01   5.4651E+01   1.3866E-09  0.3333
   5.4651E+01   5.5981E+01   7.5204E-10  0.4472
   5.5981E+01   5.7343E+01   1.4684E-10  1.0000
   5.7343E+01   5.8738E+01   0.0000E+00  0.0000
   5.8738E+01   6.0168E+01   0.0000E+00  0.0000
   6.0168E+01   6.1632E+01   0.0000E+00  0.0000
   6.1632E+01   6.3131E+01   0.0000E+00  0.0000
   6.3131E+01   6.4667E+01   0.0000E+00  0.0000
   6.4667E+01   6.6240E+01   0.0000E+00  0.0000
   6.6240E+01   6.7852E+01   0.0000E+00  0.0000
   6.7852E+01   6.9503E+01   0.0000E+00  0.0000
   6.9503E+01   7.1194E+01   0.0000E+00  0.0000
   7.1194E+01   7.2926E+01   0.0000E+00  0.0000
   7.2926E+01   7.4701E+01   0.0000E+00  0.0000
   7.4701E+01   7.6518E+01   0.0000E+00  0.0000
   7.6518E+01   7.8380E+01   0.0000E+00  0.0000
   7.8380E+01   8.0287E+01   0.0000E+00  0.0000
   8.0287E+01   8.2240E+01   0.0000E+00  0.0000
   8.2240E+01   8.4241E+01   0.0000E+00  0.0000
   8.4241E+01   8.6291E+01   0.0000E+00  0.0000
   8.6291E+01   8.8391E+01   0.0000E+00  0.0000
   8.8391E+01   9.0541E+01   0.0000E+00  0.0000
   9.0541E+01   9.2744E+01   0.0000E+00  0.0000
   9.2744E+01   9.5001E+01   0.0000E+00  0.0000
   9.5001E+01   9.7312E+01   0.0000E+00  0.0000
   9.7312E+01   9.9680E+01   0.0000E+00  0.0000
   9.9680E+01   1.0211E+02   0.0000E+00  0.0000
   1.0211E+02   1.0459E+02   0.0000E+00  0.0000
   1.0459E+02   1.0713E+02   0.0000E+00  0.0000
   1.0713E+02   1.0974E+02   0.0000E+00  0.0000
   1.0974E+02   1.1241E+02   0.0000E+00  0.0000
   1.1241E+02   1.1515E+02   0.0000E+00  0.0000
   1.1515E+02   1.1795E+02   0.0000E+00  0.0000
   1.1795E+02   1.2082E+02   0.0000E+00  0.0000
   1.2082E+02   1.2376E+02   0.0000E+00  0.0000
   1.2376E+02   1.2677E+02   0.0000E+00  0.0000
   1.2677E+02   1.2985E+02   0.0000E+00  0.0000
   1.2985E+02   1.3301E+02   0.0000E+00  0.0000
   1.3301E+02   1.3625E+02   0.0000E+00  0.0000
   1.3625E+02   1.3956E+02   0.0000E+00  0.0000
   1.3956E+02   1.4296E+02   0.0000E+00  0.0000
   1.4296E+02   1.4644E+02   0.0000E+00  0.0000
   1.4644E+02   1.5000E+02   0.0000E+00  0.0000

#   sum over                 1.6085E-05
'no. =    1   reg = 115 - 215'
msuc: {\huge [t-cross] in region mesh}
msdr: {\it plotted by \ANGEL \version}
msdl: {\it calculated by \PHITS  3.26}
wt: s(0.7)
\vspace{-3}
  region surface crossing
  area  &=&   1.0000E+00 [cm^2]
e:
 
# Information for Restart Calculation
# This calculation was newly started
# istdev =  2 # 1:Batch variance, 2:History variance
# resc2  = 5.00000000000000000E+09 # Total source weight or Total source weight / maxcas
# resc3  = 5.00000000000000000E+09 # Total history number or Total batch number
# maxcas =   100000000 # History / Batch, only used for istdev=1
# bitrseed = 0110100000100010111000001110001111001110100100011111101000111001 # bit data of rseed
