[ T-Cross ]
    title = [t-cross] in region mesh
     mesh =  reg            # mesh type is region-wise
      reg =    1            # number of crossing regions
      non     r-from    r-to       area
      1       113       213        1.000000    
   e-type =    3            # e-mesh is log given by emin, emax and ne
     emin =  1.0000000E-02  # minimum value of e-mesh points
     emax =   150.0000      # maximum value of e-mesh points
#    edel =  2.4039514E-02  # mesh width of e-mesh points
       ne =    400          # number of e-mesh points
#    data = ( e(i), i = 1, ne + 1 )
#           1.00000E-02  1.02433E-02  1.04925E-02  1.07478E-02  1.10093E-02
#           1.12772E-02  1.15516E-02  1.18326E-02  1.21205E-02  1.24154E-02
#           1.27175E-02  1.30269E-02  1.33439E-02  1.36686E-02  1.40011E-02
#           1.43418E-02  1.46907E-02  1.50482E-02  1.54143E-02  1.57894E-02
#           1.61735E-02  1.65670E-02  1.69701E-02  1.73830E-02  1.78060E-02
#           1.82392E-02  1.86830E-02  1.91375E-02  1.96032E-02  2.00801E-02
#           2.05687E-02  2.10692E-02  2.15818E-02  2.21069E-02  2.26448E-02
#           2.31957E-02  2.37601E-02  2.43382E-02  2.49304E-02  2.55369E-02
#           2.61583E-02  2.67947E-02  2.74467E-02  2.81145E-02  2.87985E-02
#           2.94992E-02  3.02169E-02  3.09521E-02  3.17052E-02  3.24766E-02
#           3.32668E-02  3.40762E-02  3.49053E-02  3.57546E-02  3.66246E-02
#           3.75157E-02  3.84284E-02  3.93634E-02  4.03212E-02  4.13022E-02
#           4.23071E-02  4.33365E-02  4.43909E-02  4.54710E-02  4.65773E-02
#           4.77106E-02  4.88714E-02  5.00605E-02  5.12785E-02  5.25262E-02
#           5.38042E-02  5.51133E-02  5.64542E-02  5.78278E-02  5.92348E-02
#           6.06760E-02  6.21523E-02  6.36645E-02  6.52135E-02  6.68002E-02
#           6.84255E-02  7.00904E-02  7.17957E-02  7.35426E-02  7.53319E-02
#           7.71648E-02  7.90423E-02  8.09655E-02  8.29354E-02  8.49533E-02
#           8.70203E-02  8.91376E-02  9.13064E-02  9.35279E-02  9.58035E-02
#           9.81345E-02  1.00522E-01  1.02968E-01  1.05473E-01  1.08040E-01
#           1.10668E-01  1.13361E-01  1.16119E-01  1.18944E-01  1.21838E-01
#           1.24803E-01  1.27839E-01  1.30950E-01  1.34136E-01  1.37399E-01
#           1.40742E-01  1.44167E-01  1.47675E-01  1.51268E-01  1.54948E-01
#           1.58718E-01  1.62580E-01  1.66535E-01  1.70587E-01  1.74738E-01
#           1.78989E-01  1.83344E-01  1.87805E-01  1.92375E-01  1.97055E-01
#           2.01850E-01  2.06761E-01  2.11792E-01  2.16945E-01  2.22223E-01
#           2.27630E-01  2.33169E-01  2.38842E-01  2.44653E-01  2.50605E-01
#           2.56703E-01  2.62949E-01  2.69346E-01  2.75900E-01  2.82613E-01
#           2.89489E-01  2.96532E-01  3.03747E-01  3.11138E-01  3.18708E-01
#           3.26462E-01  3.34405E-01  3.42542E-01  3.50876E-01  3.59413E-01
#           3.68158E-01  3.77116E-01  3.86291E-01  3.95690E-01  4.05317E-01
#           4.15179E-01  4.25281E-01  4.35628E-01  4.46227E-01  4.57084E-01
#           4.68205E-01  4.79597E-01  4.91266E-01  5.03219E-01  5.15463E-01
#           5.28005E-01  5.40851E-01  5.54011E-01  5.67490E-01  5.81298E-01
#           5.95441E-01  6.09929E-01  6.24769E-01  6.39970E-01  6.55541E-01
#           6.71491E-01  6.87828E-01  7.04564E-01  7.21706E-01  7.39266E-01
#           7.57253E-01  7.75678E-01  7.94551E-01  8.13883E-01  8.33685E-01
#           8.53969E-01  8.74747E-01  8.96030E-01  9.17831E-01  9.40163E-01
#           9.63038E-01  9.86469E-01  1.01047E+00  1.03506E+00  1.06024E+00
#           1.08604E+00  1.11246E+00  1.13953E+00  1.16725E+00  1.19565E+00
#           1.22474E+00  1.25454E+00  1.28507E+00  1.31633E+00  1.34836E+00
#           1.38117E+00  1.41477E+00  1.44920E+00  1.48446E+00  1.52057E+00
#           1.55757E+00  1.59547E+00  1.63429E+00  1.67405E+00  1.71478E+00
#           1.75650E+00  1.79924E+00  1.84302E+00  1.88786E+00  1.93379E+00
#           1.98084E+00  2.02904E+00  2.07841E+00  2.12898E+00  2.18078E+00
#           2.23384E+00  2.28819E+00  2.34386E+00  2.40089E+00  2.45930E+00
#           2.51914E+00  2.58043E+00  2.64322E+00  2.70753E+00  2.77341E+00
#           2.84088E+00  2.91001E+00  2.98081E+00  3.05333E+00  3.12762E+00
#           3.20372E+00  3.28167E+00  3.36152E+00  3.44330E+00  3.52708E+00
#           3.61290E+00  3.70080E+00  3.79085E+00  3.88308E+00  3.97756E+00
#           4.07434E+00  4.17347E+00  4.27501E+00  4.37903E+00  4.48557E+00
#           4.59471E+00  4.70650E+00  4.82102E+00  4.93832E+00  5.05847E+00
#           5.18155E+00  5.30762E+00  5.43676E+00  5.56904E+00  5.70453E+00
#           5.84333E+00  5.98550E+00  6.13114E+00  6.28031E+00  6.43312E+00
#           6.58964E+00  6.74997E+00  6.91420E+00  7.08243E+00  7.25475E+00
#           7.43126E+00  7.61207E+00  7.79728E+00  7.98700E+00  8.18133E+00
#           8.38038E+00  8.58428E+00  8.79315E+00  9.00709E+00  9.22624E+00
#           9.45072E+00  9.68067E+00  9.91620E+00  1.01575E+01  1.04046E+01
#           1.06578E+01  1.09171E+01  1.11827E+01  1.14548E+01  1.17335E+01
#           1.20190E+01  1.23114E+01  1.26109E+01  1.29178E+01  1.32321E+01
#           1.35540E+01  1.38838E+01  1.42216E+01  1.45676E+01  1.49221E+01
#           1.52851E+01  1.56570E+01  1.60380E+01  1.64282E+01  1.68279E+01
#           1.72374E+01  1.76568E+01  1.80864E+01  1.85264E+01  1.89772E+01
#           1.94389E+01  1.99119E+01  2.03963E+01  2.08926E+01  2.14009E+01
#           2.19216E+01  2.24550E+01  2.30014E+01  2.35610E+01  2.41343E+01
#           2.47215E+01  2.53230E+01  2.59391E+01  2.65702E+01  2.72167E+01
#           2.78789E+01  2.85572E+01  2.92520E+01  2.99637E+01  3.06928E+01
#           3.14396E+01  3.22045E+01  3.29881E+01  3.37907E+01  3.46128E+01
#           3.54550E+01  3.63177E+01  3.72013E+01  3.81064E+01  3.90336E+01
#           3.99833E+01  4.09561E+01  4.19526E+01  4.29734E+01  4.40189E+01
#           4.50900E+01  4.61870E+01  4.73108E+01  4.84619E+01  4.96410E+01
#           5.08488E+01  5.20860E+01  5.33533E+01  5.46514E+01  5.59812E+01
#           5.73432E+01  5.87384E+01  6.01676E+01  6.16315E+01  6.31311E+01
#           6.46671E+01  6.62405E+01  6.78522E+01  6.95031E+01  7.11941E+01
#           7.29263E+01  7.47007E+01  7.65182E+01  7.83800E+01  8.02870E+01
#           8.22405E+01  8.42414E+01  8.62911E+01  8.83906E+01  9.05412E+01
#           9.27442E+01  9.50007E+01  9.73122E+01  9.96799E+01  1.02105E+02
#           1.04589E+02  1.07134E+02  1.09741E+02  1.12411E+02  1.15146E+02
#           1.17948E+02  1.20817E+02  1.23757E+02  1.26768E+02  1.29852E+02
#           1.33012E+02  1.36248E+02  1.39563E+02  1.42959E+02  1.46437E+02
#           1.50000E+02
     unit =    2            # unit is [1/cm^2/(MeV/n)/source]
     axis =  eng            # axis of output
     file = detector-14.out  # file name of output for the above axis
   output = f-curr          # surface crossing forward current spectrum
     part =  neutron  
# kf/name :  2112     
#    used :        main (  %)        temp (  %)       total (  %)
#  memory :         414 (  0)           0 (  0)         414 (  0)

#------------------------------------------------------------------------------
#newpage:
#   no. =    1   reg = 113 - 213

x: Energy [MeV/n]
y:  F-Curr [1/cm^2/(MeV/n)/source]         
p: xlog ylog afac(0.8) form(0.9)
h: n            x            y(neutron ),hh0l   n 
#  e-lower      e-upper      neutron     r.err 
   1.0000E-02   1.0243E-02   7.3980E-06  0.3333
   1.0243E-02   1.0493E-02   1.0432E-05  0.2774
   1.0493E-02   1.0748E-02   5.4839E-06  0.3780
   1.0748E-02   1.1009E-02   9.9425E-06  0.2774
   1.1009E-02   1.1277E-02   7.4664E-06  0.3162
   1.1277E-02   1.1552E-02   4.3734E-06  0.4082
   1.1552E-02   1.1833E-02   5.6928E-06  0.3536
   1.1833E-02   1.2121E-02   4.1682E-06  0.4082
   1.2121E-02   1.2415E-02   8.1383E-06  0.2887
   1.2415E-02   1.2718E-02   1.0593E-05  0.2500
   1.2718E-02   1.3027E-02   6.4636E-06  0.3162
   1.3027E-02   1.3344E-02   5.6790E-06  0.3333
   1.3344E-02   1.3669E-02   4.9281E-06  0.3536
   1.3669E-02   1.4001E-02   7.8180E-06  0.2774
   1.4001E-02   1.4342E-02   7.0452E-06  0.2887
   1.4342E-02   1.4691E-02   7.4510E-06  0.2774
   1.4691E-02   1.5048E-02   4.4763E-06  0.3536
   1.5048E-02   1.5414E-02   1.1471E-05  0.2182
   1.5414E-02   1.5789E-02   9.0656E-06  0.2425
   1.5789E-02   1.6174E-02   8.8503E-06  0.2425
   1.6174E-02   1.6567E-02   7.1154E-06  0.2673
   1.6567E-02   1.6970E-02   6.4502E-06  0.2774
   1.6970E-02   1.7383E-02   7.7501E-06  0.2500
   1.7383E-02   1.7806E-02   8.5118E-06  0.2357
   1.7806E-02   1.8239E-02   8.8434E-06  0.2277
   1.8239E-02   1.8683E-02   9.0136E-06  0.2236
   1.8683E-02   1.9138E-02   7.0396E-06  0.2500
   1.9138E-02   1.9603E-02   9.4495E-06  0.2132
   1.9603E-02   2.0080E-02   9.2251E-06  0.2132
   2.0080E-02   2.0569E-02   7.7779E-06  0.2294
   2.0569E-02   2.1069E-02   9.5913E-06  0.2041
   2.1069E-02   2.1582E-02   1.2095E-05  0.1796
   2.1582E-02   2.2107E-02   9.9028E-06  0.1961
   2.2107E-02   2.2645E-02   9.6676E-06  0.1961
   2.2645E-02   2.3196E-02   1.1253E-05  0.1796
   2.3196E-02   2.3760E-02   8.1507E-06  0.2085
   2.3760E-02   2.4338E-02   1.3146E-05  0.1622
   2.4338E-02   2.4930E-02   7.7681E-06  0.2085
   2.4930E-02   2.5537E-02   7.9582E-06  0.2031
   2.5537E-02   2.6158E-02   1.0622E-05  0.1741
   2.6158E-02   2.6795E-02   9.4763E-06  0.1817
   2.6795E-02   2.7447E-02   9.2033E-06  0.1826
   2.7447E-02   2.8114E-02   9.2842E-06  0.1796
   2.8114E-02   2.8799E-02   1.0526E-05  0.1667
   2.8799E-02   2.9499E-02   1.0561E-05  0.1644
   2.9499E-02   3.0217E-02   9.4742E-06  0.1715
   3.0217E-02   3.0952E-02   1.0337E-05  0.1622
   3.0952E-02   3.1705E-02   8.2327E-06  0.1796
   3.1705E-02   3.2477E-02   8.8150E-06  0.1715
   3.2477E-02   3.3267E-02   9.7446E-06  0.1606
   3.3267E-02   3.4076E-02   9.1425E-06  0.1644
   3.4076E-02   3.4905E-02   8.0055E-06  0.1732
   3.4905E-02   3.5755E-02   1.0597E-05  0.1491
   3.5755E-02   3.6625E-02   1.0116E-05  0.1508
   3.6625E-02   3.7516E-02   1.0549E-05  0.1459
   3.7516E-02   3.8428E-02   1.1175E-05  0.1400
   3.8428E-02   3.9363E-02   7.7006E-06  0.1667
   3.9363E-02   4.0321E-02   1.0232E-05  0.1429
   4.0321E-02   4.1302E-02   9.3777E-06  0.1474
   4.1302E-02   4.2307E-02   1.1444E-05  0.1316
   4.2307E-02   4.3337E-02   9.6573E-06  0.1413
   4.3337E-02   4.4391E-02   9.8633E-06  0.1387
   4.4391E-02   4.5471E-02   9.8142E-06  0.1374
   4.5471E-02   4.6577E-02   1.2293E-05  0.1213
   4.6577E-02   4.7711E-02   8.1470E-06  0.1470
   4.7711E-02   4.8871E-02   8.0976E-06  0.1459
   4.8871E-02   5.0061E-02   1.0765E-05  0.1250
   5.0061E-02   5.1279E-02   7.2515E-06  0.1502
   5.1279E-02   5.2526E-02   1.0849E-05  0.1212
   5.2526E-02   5.3804E-02   8.9202E-06  0.1325
   5.3804E-02   5.5113E-02   8.8611E-06  0.1313
   5.5113E-02   5.6454E-02   9.0980E-06  0.1280
   5.6454E-02   5.7828E-02   1.1066E-05  0.1147
   5.7828E-02   5.9235E-02   1.0945E-05  0.1140
   5.9235E-02   6.0676E-02   8.3262E-06  0.1291
   6.0676E-02   6.2152E-02   9.0332E-06  0.1221
   6.2152E-02   6.3665E-02   9.8531E-06  0.1157
   6.3665E-02   6.5214E-02   1.0415E-05  0.1111
   6.5214E-02   6.6800E-02   8.4452E-06  0.1222
   6.6800E-02   6.8426E-02   9.5367E-06  0.1134
   6.8426E-02   7.0090E-02   1.0331E-05  0.1078
   7.0090E-02   7.1796E-02   9.0304E-06  0.1140
   7.1796E-02   7.3543E-02   1.0436E-05  0.1047
   7.3543E-02   7.5332E-02   8.7183E-06  0.1132
   7.5332E-02   7.7165E-02   9.1306E-06  0.1091
   7.7165E-02   7.9042E-02   1.1718E-05  0.0953
   7.9042E-02   8.0965E-02   9.5846E-06  0.1041
   8.0965E-02   8.2935E-02   9.8621E-06  0.1014
   8.2935E-02   8.4953E-02   8.8339E-06  0.1059
   8.4953E-02   8.7020E-02   9.8695E-06  0.0990
   8.7020E-02   8.9138E-02   1.0296E-05  0.0958
   8.9138E-02   9.1306E-02   9.4208E-06  0.0989
   9.1306E-02   9.3528E-02   9.2728E-06  0.0985
   9.3528E-02   9.5804E-02   8.7010E-06  0.1005
   9.5804E-02   9.8134E-02   9.1807E-06  0.0967
   9.8134E-02   1.0052E-01   9.0464E-06  0.0962
   1.0052E-01   1.0297E-01   8.7611E-06  0.0966
   1.0297E-01   1.0547E-01   9.4348E-06  0.0919
   1.0547E-01   1.0804E-01   8.8066E-06  0.0941
   1.0804E-01   1.1067E-01   8.4578E-06  0.0948
   1.1067E-01   1.1336E-01   9.9902E-06  0.0861
   1.1336E-01   1.1612E-01   9.5716E-06  0.0870
   1.1612E-01   1.1894E-01   7.4440E-06  0.0975
   1.1894E-01   1.2184E-01   8.7768E-06  0.0887
   1.2184E-01   1.2480E-01   8.0285E-06  0.0917
   1.2480E-01   1.2784E-01   8.0595E-06  0.0903
   1.2784E-01   1.3095E-01   7.7160E-06  0.0913
   1.3095E-01   1.3414E-01   8.1689E-06  0.0876
   1.3414E-01   1.3740E-01   7.9666E-06  0.0877
   1.3740E-01   1.4074E-01   7.7175E-06  0.0880
   1.4074E-01   1.4417E-01   9.3448E-06  0.0791
   1.4417E-01   1.4767E-01   6.6140E-06  0.0928
   1.4767E-01   1.5127E-01   8.7948E-06  0.0796
   1.5127E-01   1.5495E-01   6.9013E-06  0.0887
   1.5495E-01   1.5872E-01   8.0004E-06  0.0813
   1.5872E-01   1.6258E-01   6.9917E-06  0.0861
   1.6258E-01   1.6654E-01   7.6346E-06  0.0814
   1.6654E-01   1.7059E-01   6.3257E-06  0.0883
   1.7059E-01   1.7474E-01   6.7300E-06  0.0845
   1.7474E-01   1.7899E-01   7.1572E-06  0.0809
   1.7899E-01   1.8334E-01   6.6668E-06  0.0830
   1.8334E-01   1.8781E-01   5.4697E-06  0.0905
   1.8781E-01   1.9237E-01   5.2598E-06  0.0912
   1.9237E-01   1.9706E-01   6.1325E-06  0.0833
   1.9706E-01   2.0185E-01   5.4646E-06  0.0872
   2.0185E-01   2.0676E-01   7.1673E-06  0.0754
   2.0676E-01   2.1179E-01   6.5598E-06  0.0778
   2.1179E-01   2.1694E-01   7.0499E-06  0.0741
   2.1694E-01   2.2222E-01   6.6503E-06  0.0754
   2.2222E-01   2.2763E-01   6.9911E-06  0.0727
   2.2763E-01   2.3317E-01   7.0417E-06  0.0716
   2.3317E-01   2.3884E-01   6.7519E-06  0.0722
   2.3884E-01   2.4465E-01   7.0261E-06  0.0700
   2.4465E-01   2.5061E-01   7.8285E-06  0.0654
   2.5061E-01   2.5670E-01   8.3261E-06  0.0627
   2.5670E-01   2.6295E-01   7.0719E-06  0.0672
   2.6295E-01   2.6935E-01   7.2728E-06  0.0655
   2.6935E-01   2.7590E-01   7.6047E-06  0.0633
   2.7590E-01   2.8261E-01   8.3031E-06  0.0599
   2.8261E-01   2.8949E-01   8.6094E-06  0.0581
   2.8949E-01   2.9653E-01   8.2577E-06  0.0585
   2.9653E-01   3.0375E-01   9.1062E-06  0.0551
   3.0375E-01   3.1114E-01   8.5246E-06  0.0563
   3.1114E-01   3.1871E-01   8.1056E-06  0.0570
   3.1871E-01   3.2646E-01   8.6739E-06  0.0545
   3.2646E-01   3.3441E-01   9.5593E-06  0.0513
   3.3441E-01   3.4254E-01   9.4191E-06  0.0510
   3.4254E-01   3.5088E-01   9.7734E-06  0.0495
   3.5088E-01   3.5941E-01   1.0171E-05  0.0480
   3.5941E-01   3.6816E-01   9.1569E-06  0.0500
   3.6816E-01   3.7712E-01   1.1134E-05  0.0447
   3.7712E-01   3.8629E-01   1.1126E-05  0.0442
   3.8629E-01   3.9569E-01   1.0838E-05  0.0443
   3.9569E-01   4.0532E-01   9.7577E-06  0.0461
   4.0532E-01   4.1518E-01   1.1182E-05  0.0426
   4.1518E-01   4.2528E-01   1.1250E-05  0.0419
   4.2528E-01   4.3563E-01   1.1950E-05  0.0402
   4.3563E-01   4.4623E-01   1.1694E-05  0.0401
   4.4623E-01   4.5708E-01   1.1435E-05  0.0401
   4.5708E-01   4.6821E-01   1.1757E-05  0.0391
   4.6821E-01   4.7960E-01   1.2647E-05  0.0372
   4.7960E-01   4.9127E-01   1.2238E-05  0.0374
   4.9127E-01   5.0322E-01   1.1865E-05  0.0375
   5.0322E-01   5.1546E-01   1.3133E-05  0.0352
   5.1546E-01   5.2800E-01   1.3206E-05  0.0347
   5.2800E-01   5.4085E-01   1.3589E-05  0.0338
   5.4085E-01   5.5401E-01   1.3913E-05  0.0330
   5.5401E-01   5.6749E-01   1.3255E-05  0.0334
   5.6749E-01   5.8130E-01   1.3393E-05  0.0329
   5.8130E-01   5.9544E-01   1.4352E-05  0.0314
   5.9544E-01   6.0993E-01   1.4097E-05  0.0313
   6.0993E-01   6.2477E-01   1.3535E-05  0.0315
   6.2477E-01   6.3997E-01   1.3380E-05  0.0313
   6.3997E-01   6.5554E-01   1.5094E-05  0.0291
   6.5554E-01   6.7149E-01   1.3590E-05  0.0303
   6.7149E-01   6.8783E-01   1.4318E-05  0.0292
   6.8783E-01   7.0456E-01   1.5294E-05  0.0280
   7.0456E-01   7.2171E-01   1.5011E-05  0.0279
   7.2171E-01   7.3927E-01   1.5385E-05  0.0272
   7.3927E-01   7.5725E-01   1.4667E-05  0.0275
   7.5725E-01   7.7568E-01   1.5798E-05  0.0262
   7.7568E-01   7.9455E-01   1.5912E-05  0.0258
   7.9455E-01   8.1388E-01   1.5177E-05  0.0261
   8.1388E-01   8.3368E-01   1.5088E-05  0.0258
   8.3368E-01   8.5397E-01   1.4995E-05  0.0256
   8.5397E-01   8.7475E-01   1.4827E-05  0.0255
   8.7475E-01   8.9603E-01   1.5306E-05  0.0247
   8.9603E-01   9.1783E-01   1.5052E-05  0.0246
   9.1783E-01   9.4016E-01   1.5160E-05  0.0243
   9.4016E-01   9.6304E-01   1.4650E-05  0.0244
   9.6304E-01   9.8647E-01   1.4544E-05  0.0242
   9.8647E-01   1.0105E+00   1.4907E-05  0.0236
   1.0105E+00   1.0351E+00   1.4907E-05  0.0233
   1.0351E+00   1.0602E+00   1.4933E-05  0.0230
   1.0602E+00   1.0860E+00   1.5539E-05  0.0223
   1.0860E+00   1.1125E+00   1.5023E-05  0.0224
   1.1125E+00   1.1395E+00   1.6249E-05  0.0213
   1.1395E+00   1.1673E+00   1.7537E-05  0.0203
   1.1673E+00   1.1957E+00   1.7080E-05  0.0203
   1.1957E+00   1.2247E+00   1.8188E-05  0.0194
   1.2247E+00   1.2545E+00   1.8568E-05  0.0190
   1.2545E+00   1.2851E+00   1.8434E-05  0.0188
   1.2851E+00   1.3163E+00   1.9221E-05  0.0182
   1.3163E+00   1.3484E+00   1.9537E-05  0.0179
   1.3484E+00   1.3812E+00   2.0561E-05  0.0172
   1.3812E+00   1.4148E+00   2.0832E-05  0.0169
   1.4148E+00   1.4492E+00   2.2087E-05  0.0162
   1.4492E+00   1.4845E+00   2.1994E-05  0.0160
   1.4845E+00   1.5206E+00   2.3331E-05  0.0154
   1.5206E+00   1.5576E+00   2.2904E-05  0.0153
   1.5576E+00   1.5955E+00   2.3749E-05  0.0149
   1.5955E+00   1.6343E+00   2.4503E-05  0.0145
   1.6343E+00   1.6741E+00   2.5774E-05  0.0139
   1.6741E+00   1.7148E+00   2.6608E-05  0.0136
   1.7148E+00   1.7565E+00   2.6936E-05  0.0133
   1.7565E+00   1.7992E+00   2.7503E-05  0.0130
   1.7992E+00   1.8430E+00   2.7767E-05  0.0128
   1.8430E+00   1.8879E+00   2.8822E-05  0.0124
   1.8879E+00   1.9338E+00   2.9692E-05  0.0121
   1.9338E+00   1.9808E+00   3.0460E-05  0.0118
   1.9808E+00   2.0290E+00   3.1274E-05  0.0115
   2.0290E+00   2.0784E+00   3.2439E-05  0.0112
   2.0784E+00   2.1290E+00   3.3351E-05  0.0109
   2.1290E+00   2.1808E+00   3.4221E-05  0.0106
   2.1808E+00   2.2338E+00   3.4564E-05  0.0104
   2.2338E+00   2.2882E+00   3.5717E-05  0.0101
   2.2882E+00   2.3439E+00   3.6101E-05  0.0100
   2.3439E+00   2.4009E+00   3.7938E-05  0.0096
   2.4009E+00   2.4593E+00   3.8658E-05  0.0094
   2.4593E+00   2.5191E+00   3.9841E-05  0.0091
   2.5191E+00   2.5804E+00   3.9993E-05  0.0090
   2.5804E+00   2.6432E+00   4.0927E-05  0.0088
   2.6432E+00   2.7075E+00   4.2031E-05  0.0086
   2.7075E+00   2.7734E+00   4.2126E-05  0.0085
   2.7734E+00   2.8409E+00   4.3320E-05  0.0083
   2.8409E+00   2.9100E+00   4.4804E-05  0.0080
   2.9100E+00   2.9808E+00   4.6277E-05  0.0078
   2.9808E+00   3.0533E+00   4.6674E-05  0.0077
   3.0533E+00   3.1276E+00   4.7495E-05  0.0075
   3.1276E+00   3.2037E+00   4.8154E-05  0.0074
   3.2037E+00   3.2817E+00   4.7906E-05  0.0073
   3.2817E+00   3.3615E+00   4.9450E-05  0.0071
   3.3615E+00   3.4433E+00   4.9963E-05  0.0070
   3.4433E+00   3.5271E+00   5.0700E-05  0.0068
   3.5271E+00   3.6129E+00   5.1354E-05  0.0067
   3.6129E+00   3.7008E+00   5.2089E-05  0.0066
   3.7008E+00   3.7908E+00   5.3119E-05  0.0065
   3.7908E+00   3.8831E+00   5.3154E-05  0.0064
   3.8831E+00   3.9776E+00   5.3522E-05  0.0063
   3.9776E+00   4.0743E+00   5.3922E-05  0.0062
   4.0743E+00   4.1735E+00   5.4622E-05  0.0061
   4.1735E+00   4.2750E+00   5.4960E-05  0.0060
   4.2750E+00   4.3790E+00   5.5584E-05  0.0059
   4.3790E+00   4.4856E+00   5.6689E-05  0.0057
   4.4856E+00   4.5947E+00   5.5988E-05  0.0057
   4.5947E+00   4.7065E+00   5.6333E-05  0.0056
   4.7065E+00   4.8210E+00   5.7371E-05  0.0055
   4.8210E+00   4.9383E+00   5.6688E-05  0.0055
   4.9383E+00   5.0585E+00   5.7615E-05  0.0054
   5.0585E+00   5.1815E+00   5.7138E-05  0.0053
   5.1815E+00   5.3076E+00   5.6275E-05  0.0053
   5.3076E+00   5.4368E+00   5.6228E-05  0.0052
   5.4368E+00   5.5690E+00   5.5608E-05  0.0052
   5.5690E+00   5.7045E+00   5.4965E-05  0.0052
   5.7045E+00   5.8433E+00   5.4933E-05  0.0051
   5.8433E+00   5.9855E+00   5.4893E-05  0.0051
   5.9855E+00   6.1311E+00   5.4452E-05  0.0050
   6.1311E+00   6.2803E+00   5.2836E-05  0.0050
   6.2803E+00   6.4331E+00   5.2398E-05  0.0050
   6.4331E+00   6.5896E+00   5.1478E-05  0.0050
   6.5896E+00   6.7500E+00   5.0115E-05  0.0050
   6.7500E+00   6.9142E+00   4.9592E-05  0.0049
   6.9142E+00   7.0824E+00   4.8932E-05  0.0049
   7.0824E+00   7.2548E+00   4.7769E-05  0.0049
   7.2548E+00   7.4313E+00   4.6440E-05  0.0049
   7.4313E+00   7.6121E+00   4.4923E-05  0.0050
   7.6121E+00   7.7973E+00   4.3489E-05  0.0050
   7.7973E+00   7.9870E+00   4.2199E-05  0.0050
   7.9870E+00   8.1813E+00   4.1222E-05  0.0050
   8.1813E+00   8.3804E+00   3.9634E-05  0.0050
   8.3804E+00   8.5843E+00   3.8104E-05  0.0051
   8.5843E+00   8.7931E+00   3.6696E-05  0.0051
   8.7931E+00   9.0071E+00   3.5870E-05  0.0051
   9.0071E+00   9.2262E+00   3.4776E-05  0.0051
   9.2262E+00   9.4507E+00   3.3488E-05  0.0052
   9.4507E+00   9.6807E+00   3.1953E-05  0.0052
   9.6807E+00   9.9162E+00   3.0949E-05  0.0052
   9.9162E+00   1.0157E+01   3.0094E-05  0.0052
   1.0157E+01   1.0405E+01   2.9385E-05  0.0052
   1.0405E+01   1.0658E+01   2.8330E-05  0.0053
   1.0658E+01   1.0917E+01   2.7732E-05  0.0053
   1.0917E+01   1.1183E+01   2.6505E-05  0.0053
   1.1183E+01   1.1455E+01   2.5840E-05  0.0053
   1.1455E+01   1.1733E+01   2.4518E-05  0.0054
   1.1733E+01   1.2019E+01   2.3840E-05  0.0054
   1.2019E+01   1.2311E+01   2.2594E-05  0.0055
   1.2311E+01   1.2611E+01   2.1730E-05  0.0055
   1.2611E+01   1.2918E+01   2.1246E-05  0.0055
   1.2918E+01   1.3232E+01   2.0253E-05  0.0056
   1.3232E+01   1.3554E+01   1.9394E-05  0.0057
   1.3554E+01   1.3884E+01   1.8418E-05  0.0057
   1.3884E+01   1.4222E+01   1.7782E-05  0.0058
   1.4222E+01   1.4568E+01   1.7281E-05  0.0058
   1.4568E+01   1.4922E+01   1.6209E-05  0.0059
   1.4922E+01   1.5285E+01   1.5411E-05  0.0060
   1.5285E+01   1.5657E+01   1.4795E-05  0.0060
   1.5657E+01   1.6038E+01   1.4315E-05  0.0061
   1.6038E+01   1.6428E+01   1.3528E-05  0.0062
   1.6428E+01   1.6828E+01   1.2799E-05  0.0063
   1.6828E+01   1.7237E+01   1.2114E-05  0.0063
   1.7237E+01   1.7657E+01   1.1510E-05  0.0064
   1.7657E+01   1.8086E+01   1.0956E-05  0.0065
   1.8086E+01   1.8526E+01   1.0368E-05  0.0066
   1.8526E+01   1.8977E+01   9.7172E-06  0.0068
   1.8977E+01   1.9439E+01   9.1885E-06  0.0069
   1.9439E+01   1.9912E+01   8.5424E-06  0.0070
   1.9912E+01   2.0396E+01   8.4137E-06  0.0070
   2.0396E+01   2.0893E+01   7.8951E-06  0.0071
   2.0893E+01   2.1401E+01   7.3228E-06  0.0073
   2.1401E+01   2.1922E+01   6.8584E-06  0.0075
   2.1922E+01   2.2455E+01   6.1949E-06  0.0078
   2.2455E+01   2.3001E+01   5.8025E-06  0.0079
   2.3001E+01   2.3561E+01   5.2359E-06  0.0083
   2.3561E+01   2.4134E+01   4.8055E-06  0.0085
   2.4134E+01   2.4721E+01   4.3119E-06  0.0089
   2.4721E+01   2.5323E+01   4.0566E-06  0.0091
   2.5323E+01   2.5939E+01   3.5168E-06  0.0096
   2.5939E+01   2.6570E+01   3.2441E-06  0.0099
   2.6570E+01   2.7217E+01   2.9554E-06  0.0102
   2.7217E+01   2.7879E+01   2.6418E-06  0.0107
   2.7879E+01   2.8557E+01   2.4396E-06  0.0110
   2.8557E+01   2.9252E+01   2.2210E-06  0.0114
   2.9252E+01   2.9964E+01   1.9890E-06  0.0119
   2.9964E+01   3.0693E+01   1.7988E-06  0.0123
   3.0693E+01   3.1440E+01   1.6315E-06  0.0128
   3.1440E+01   3.2205E+01   1.4851E-06  0.0133
   3.2205E+01   3.2988E+01   1.3370E-06  0.0138
   3.2988E+01   3.3791E+01   1.2282E-06  0.0142
   3.3791E+01   3.4613E+01   1.0923E-06  0.0149
   3.4613E+01   3.5455E+01   1.0214E-06  0.0152
   3.5455E+01   3.6318E+01   8.7614E-07  0.0163
   3.6318E+01   3.7201E+01   7.6841E-07  0.0172
   3.7201E+01   3.8106E+01   6.9868E-07  0.0178
   3.8106E+01   3.9034E+01   5.8437E-07  0.0192
   3.9034E+01   3.9983E+01   5.1847E-07  0.0202
   3.9983E+01   4.0956E+01   4.6257E-07  0.0211
   4.0956E+01   4.1953E+01   4.0602E-07  0.0222
   4.1953E+01   4.2973E+01   3.7052E-07  0.0230
   4.2973E+01   4.4019E+01   3.2537E-07  0.0242
   4.4019E+01   4.5090E+01   2.6498E-07  0.0265
   4.5090E+01   4.6187E+01   2.1475E-07  0.0291
   4.6187E+01   4.7311E+01   1.5288E-07  0.0341
   4.7311E+01   4.8462E+01   1.0651E-07  0.0404
   4.8462E+01   4.9641E+01   7.9890E-08  0.0461
   4.9641E+01   5.0849E+01   5.3817E-08  0.0555
   5.0849E+01   5.2086E+01   4.1707E-08  0.0623
   5.2086E+01   5.3353E+01   2.9196E-08  0.0735
   5.3353E+01   5.4651E+01   1.9413E-08  0.0891
   5.4651E+01   5.5981E+01   1.0829E-08  0.1179
   5.5981E+01   5.7343E+01   5.1393E-09  0.1690
   5.7343E+01   5.8738E+01   3.0103E-09  0.2182
   5.8738E+01   6.0168E+01   2.7989E-10  0.7071
   6.0168E+01   6.1632E+01   0.0000E+00  0.0000
   6.1632E+01   6.3131E+01   0.0000E+00  0.0000
   6.3131E+01   6.4667E+01   0.0000E+00  0.0000
   6.4667E+01   6.6240E+01   0.0000E+00  0.0000
   6.6240E+01   6.7852E+01   0.0000E+00  0.0000
   6.7852E+01   6.9503E+01   0.0000E+00  0.0000
   6.9503E+01   7.1194E+01   0.0000E+00  0.0000
   7.1194E+01   7.2926E+01   0.0000E+00  0.0000
   7.2926E+01   7.4701E+01   0.0000E+00  0.0000
   7.4701E+01   7.6518E+01   0.0000E+00  0.0000
   7.6518E+01   7.8380E+01   0.0000E+00  0.0000
   7.8380E+01   8.0287E+01   0.0000E+00  0.0000
   8.0287E+01   8.2240E+01   0.0000E+00  0.0000
   8.2240E+01   8.4241E+01   0.0000E+00  0.0000
   8.4241E+01   8.6291E+01   0.0000E+00  0.0000
   8.6291E+01   8.8391E+01   0.0000E+00  0.0000
   8.8391E+01   9.0541E+01   0.0000E+00  0.0000
   9.0541E+01   9.2744E+01   0.0000E+00  0.0000
   9.2744E+01   9.5001E+01   0.0000E+00  0.0000
   9.5001E+01   9.7312E+01   0.0000E+00  0.0000
   9.7312E+01   9.9680E+01   0.0000E+00  0.0000
   9.9680E+01   1.0211E+02   0.0000E+00  0.0000
   1.0211E+02   1.0459E+02   0.0000E+00  0.0000
   1.0459E+02   1.0713E+02   0.0000E+00  0.0000
   1.0713E+02   1.0974E+02   0.0000E+00  0.0000
   1.0974E+02   1.1241E+02   0.0000E+00  0.0000
   1.1241E+02   1.1515E+02   0.0000E+00  0.0000
   1.1515E+02   1.1795E+02   0.0000E+00  0.0000
   1.1795E+02   1.2082E+02   0.0000E+00  0.0000
   1.2082E+02   1.2376E+02   0.0000E+00  0.0000
   1.2376E+02   1.2677E+02   0.0000E+00  0.0000
   1.2677E+02   1.2985E+02   0.0000E+00  0.0000
   1.2985E+02   1.3301E+02   0.0000E+00  0.0000
   1.3301E+02   1.3625E+02   0.0000E+00  0.0000
   1.3625E+02   1.3956E+02   0.0000E+00  0.0000
   1.3956E+02   1.4296E+02   0.0000E+00  0.0000
   1.4296E+02   1.4644E+02   0.0000E+00  0.0000
   1.4644E+02   1.5000E+02   0.0000E+00  0.0000

#   sum over                 4.2040E-06
'no. =    1   reg = 113 - 213'
msuc: {\huge [t-cross] in region mesh}
msdr: {\it plotted by \ANGEL \version}
msdl: {\it calculated by \PHITS  3.26}
wt: s(0.7)
\vspace{-3}
  region surface crossing
  area  &=&   1.0000E+00 [cm^2]
e:
 
# Information for Restart Calculation
# This calculation was newly started
# istdev =  2 # 1:Batch variance, 2:History variance
# resc2  = 5.00000000000000000E+09 # Total source weight or Total source weight / maxcas
# resc3  = 5.00000000000000000E+09 # Total history number or Total batch number
# maxcas =   500000000 # History / Batch, only used for istdev=1
# bitrseed = 0110100000100010111000001110001111001110100100011111101000111001 # bit data of rseed
