[ T-Cross ]
    title = [t-cross] in region mesh
     mesh =  reg            # mesh type is region-wise
      reg =    1            # number of crossing regions
      non     r-from    r-to       area
      1       108       208        1.000000    
   e-type =    3            # e-mesh is log given by emin, emax and ne
     emin =  1.0000000E-02  # minimum value of e-mesh points
     emax =   150.0000      # maximum value of e-mesh points
#    edel =  2.4039514E-02  # mesh width of e-mesh points
       ne =    400          # number of e-mesh points
#    data = ( e(i), i = 1, ne + 1 )
#           1.00000E-02  1.02433E-02  1.04925E-02  1.07478E-02  1.10093E-02
#           1.12772E-02  1.15516E-02  1.18326E-02  1.21205E-02  1.24154E-02
#           1.27175E-02  1.30269E-02  1.33439E-02  1.36686E-02  1.40011E-02
#           1.43418E-02  1.46907E-02  1.50482E-02  1.54143E-02  1.57894E-02
#           1.61735E-02  1.65670E-02  1.69701E-02  1.73830E-02  1.78060E-02
#           1.82392E-02  1.86830E-02  1.91375E-02  1.96032E-02  2.00801E-02
#           2.05687E-02  2.10692E-02  2.15818E-02  2.21069E-02  2.26448E-02
#           2.31957E-02  2.37601E-02  2.43382E-02  2.49304E-02  2.55369E-02
#           2.61583E-02  2.67947E-02  2.74467E-02  2.81145E-02  2.87985E-02
#           2.94992E-02  3.02169E-02  3.09521E-02  3.17052E-02  3.24766E-02
#           3.32668E-02  3.40762E-02  3.49053E-02  3.57546E-02  3.66246E-02
#           3.75157E-02  3.84284E-02  3.93634E-02  4.03212E-02  4.13022E-02
#           4.23071E-02  4.33365E-02  4.43909E-02  4.54710E-02  4.65773E-02
#           4.77106E-02  4.88714E-02  5.00605E-02  5.12785E-02  5.25262E-02
#           5.38042E-02  5.51133E-02  5.64542E-02  5.78278E-02  5.92348E-02
#           6.06760E-02  6.21523E-02  6.36645E-02  6.52135E-02  6.68002E-02
#           6.84255E-02  7.00904E-02  7.17957E-02  7.35426E-02  7.53319E-02
#           7.71648E-02  7.90423E-02  8.09655E-02  8.29354E-02  8.49533E-02
#           8.70203E-02  8.91376E-02  9.13064E-02  9.35279E-02  9.58035E-02
#           9.81345E-02  1.00522E-01  1.02968E-01  1.05473E-01  1.08040E-01
#           1.10668E-01  1.13361E-01  1.16119E-01  1.18944E-01  1.21838E-01
#           1.24803E-01  1.27839E-01  1.30950E-01  1.34136E-01  1.37399E-01
#           1.40742E-01  1.44167E-01  1.47675E-01  1.51268E-01  1.54948E-01
#           1.58718E-01  1.62580E-01  1.66535E-01  1.70587E-01  1.74738E-01
#           1.78989E-01  1.83344E-01  1.87805E-01  1.92375E-01  1.97055E-01
#           2.01850E-01  2.06761E-01  2.11792E-01  2.16945E-01  2.22223E-01
#           2.27630E-01  2.33169E-01  2.38842E-01  2.44653E-01  2.50605E-01
#           2.56703E-01  2.62949E-01  2.69346E-01  2.75900E-01  2.82613E-01
#           2.89489E-01  2.96532E-01  3.03747E-01  3.11138E-01  3.18708E-01
#           3.26462E-01  3.34405E-01  3.42542E-01  3.50876E-01  3.59413E-01
#           3.68158E-01  3.77116E-01  3.86291E-01  3.95690E-01  4.05317E-01
#           4.15179E-01  4.25281E-01  4.35628E-01  4.46227E-01  4.57084E-01
#           4.68205E-01  4.79597E-01  4.91266E-01  5.03219E-01  5.15463E-01
#           5.28005E-01  5.40851E-01  5.54011E-01  5.67490E-01  5.81298E-01
#           5.95441E-01  6.09929E-01  6.24769E-01  6.39970E-01  6.55541E-01
#           6.71491E-01  6.87828E-01  7.04564E-01  7.21706E-01  7.39266E-01
#           7.57253E-01  7.75678E-01  7.94551E-01  8.13883E-01  8.33685E-01
#           8.53969E-01  8.74747E-01  8.96030E-01  9.17831E-01  9.40163E-01
#           9.63038E-01  9.86469E-01  1.01047E+00  1.03506E+00  1.06024E+00
#           1.08604E+00  1.11246E+00  1.13953E+00  1.16725E+00  1.19565E+00
#           1.22474E+00  1.25454E+00  1.28507E+00  1.31633E+00  1.34836E+00
#           1.38117E+00  1.41477E+00  1.44920E+00  1.48446E+00  1.52057E+00
#           1.55757E+00  1.59547E+00  1.63429E+00  1.67405E+00  1.71478E+00
#           1.75650E+00  1.79924E+00  1.84302E+00  1.88786E+00  1.93379E+00
#           1.98084E+00  2.02904E+00  2.07841E+00  2.12898E+00  2.18078E+00
#           2.23384E+00  2.28819E+00  2.34386E+00  2.40089E+00  2.45930E+00
#           2.51914E+00  2.58043E+00  2.64322E+00  2.70753E+00  2.77341E+00
#           2.84088E+00  2.91001E+00  2.98081E+00  3.05333E+00  3.12762E+00
#           3.20372E+00  3.28167E+00  3.36152E+00  3.44330E+00  3.52708E+00
#           3.61290E+00  3.70080E+00  3.79085E+00  3.88308E+00  3.97756E+00
#           4.07434E+00  4.17347E+00  4.27501E+00  4.37903E+00  4.48557E+00
#           4.59471E+00  4.70650E+00  4.82102E+00  4.93832E+00  5.05847E+00
#           5.18155E+00  5.30762E+00  5.43676E+00  5.56904E+00  5.70453E+00
#           5.84333E+00  5.98550E+00  6.13114E+00  6.28031E+00  6.43312E+00
#           6.58964E+00  6.74997E+00  6.91420E+00  7.08243E+00  7.25475E+00
#           7.43126E+00  7.61207E+00  7.79728E+00  7.98700E+00  8.18133E+00
#           8.38038E+00  8.58428E+00  8.79315E+00  9.00709E+00  9.22624E+00
#           9.45072E+00  9.68067E+00  9.91620E+00  1.01575E+01  1.04046E+01
#           1.06578E+01  1.09171E+01  1.11827E+01  1.14548E+01  1.17335E+01
#           1.20190E+01  1.23114E+01  1.26109E+01  1.29178E+01  1.32321E+01
#           1.35540E+01  1.38838E+01  1.42216E+01  1.45676E+01  1.49221E+01
#           1.52851E+01  1.56570E+01  1.60380E+01  1.64282E+01  1.68279E+01
#           1.72374E+01  1.76568E+01  1.80864E+01  1.85264E+01  1.89772E+01
#           1.94389E+01  1.99119E+01  2.03963E+01  2.08926E+01  2.14009E+01
#           2.19216E+01  2.24550E+01  2.30014E+01  2.35610E+01  2.41343E+01
#           2.47215E+01  2.53230E+01  2.59391E+01  2.65702E+01  2.72167E+01
#           2.78789E+01  2.85572E+01  2.92520E+01  2.99637E+01  3.06928E+01
#           3.14396E+01  3.22045E+01  3.29881E+01  3.37907E+01  3.46128E+01
#           3.54550E+01  3.63177E+01  3.72013E+01  3.81064E+01  3.90336E+01
#           3.99833E+01  4.09561E+01  4.19526E+01  4.29734E+01  4.40189E+01
#           4.50900E+01  4.61870E+01  4.73108E+01  4.84619E+01  4.96410E+01
#           5.08488E+01  5.20860E+01  5.33533E+01  5.46514E+01  5.59812E+01
#           5.73432E+01  5.87384E+01  6.01676E+01  6.16315E+01  6.31311E+01
#           6.46671E+01  6.62405E+01  6.78522E+01  6.95031E+01  7.11941E+01
#           7.29263E+01  7.47007E+01  7.65182E+01  7.83800E+01  8.02870E+01
#           8.22405E+01  8.42414E+01  8.62911E+01  8.83906E+01  9.05412E+01
#           9.27442E+01  9.50007E+01  9.73122E+01  9.96799E+01  1.02105E+02
#           1.04589E+02  1.07134E+02  1.09741E+02  1.12411E+02  1.15146E+02
#           1.17948E+02  1.20817E+02  1.23757E+02  1.26768E+02  1.29852E+02
#           1.33012E+02  1.36248E+02  1.39563E+02  1.42959E+02  1.46437E+02
#           1.50000E+02
     unit =    2            # unit is [1/cm^2/(MeV/n)/source]
     axis =  eng            # axis of output
     file = detector-09.out  # file name of output for the above axis
   output = f-curr          # surface crossing forward current spectrum
     part =  neutron  
# kf/name :  2112     
#    used :        main (  %)        temp (  %)       total (  %)
#  memory :         414 (  0)           0 (  0)         414 (  0)

#------------------------------------------------------------------------------
#newpage:
#   no. =    1   reg = 108 - 208

x: Energy [MeV/n]
y:  F-Curr [1/cm^2/(MeV/n)/source]         
p: xlog ylog afac(0.8) form(0.9)
h: n            x            y(neutron ),hh0l   n 
#  e-lower      e-upper      neutron     r.err 
   1.0000E-02   1.0243E-02   1.2003E-03  0.0821
   1.0243E-02   1.0493E-02   1.3020E-03  0.0778
   1.0493E-02   1.0748E-02   1.1569E-03  0.0813
   1.0748E-02   1.1009E-02   1.2892E-03  0.0763
   1.1009E-02   1.1277E-02   1.2569E-03  0.0759
   1.1277E-02   1.1552E-02   1.2766E-03  0.0746
   1.1552E-02   1.1833E-02   1.1987E-03  0.0765
   1.1833E-02   1.2121E-02   1.2361E-03  0.0741
   1.2121E-02   1.2415E-02   1.2226E-03  0.0738
   1.2415E-02   1.2718E-02   1.0881E-03  0.0769
   1.2718E-02   1.3027E-02   1.2138E-03  0.0722
   1.3027E-02   1.3344E-02   1.1179E-03  0.0743
   1.3344E-02   1.3669E-02   9.9707E-04  0.0778
   1.3669E-02   1.4001E-02   1.0343E-03  0.0756
   1.4001E-02   1.4342E-02   1.1326E-03  0.0711
   1.4342E-02   1.4691E-02   9.4844E-04  0.0768
   1.4691E-02   1.5048E-02   9.5328E-04  0.0761
   1.5048E-02   1.5414E-02   9.1762E-04  0.0764
   1.5414E-02   1.5789E-02   9.2259E-04  0.0754
   1.5789E-02   1.6174E-02   8.9671E-04  0.0757
   1.6174E-02   1.6567E-02   8.3458E-04  0.0768
   1.6567E-02   1.6970E-02   1.0190E-03  0.0688
   1.6970E-02   1.7383E-02   8.1934E-04  0.0762
   1.7383E-02   1.7806E-02   7.6969E-04  0.0778
   1.7806E-02   1.8239E-02   8.6161E-04  0.0724
   1.8239E-02   1.8683E-02   7.6070E-04  0.0761
   1.8683E-02   1.9138E-02   7.5708E-04  0.0754
   1.9138E-02   1.9603E-02   7.0307E-04  0.0775
   1.9603E-02   2.0080E-02   7.4715E-04  0.0742
   2.0080E-02   2.0569E-02   7.2460E-04  0.0741
   2.0569E-02   2.1069E-02   7.4115E-04  0.0725
   2.1069E-02   2.1582E-02   7.5387E-04  0.0711
   2.1582E-02   2.2107E-02   6.1429E-04  0.0778
   2.2107E-02   2.2645E-02   6.6259E-04  0.0741
   2.2645E-02   2.3196E-02   7.2250E-04  0.0703
   2.3196E-02   2.3760E-02   5.5601E-04  0.0791
   2.3760E-02   2.4338E-02   6.6213E-04  0.0717
   2.4338E-02   2.4930E-02   5.8537E-04  0.0751
   2.4930E-02   2.5537E-02   5.5992E-04  0.0760
   2.5537E-02   2.6158E-02   6.4206E-04  0.0699
   2.6158E-02   2.6795E-02   5.2718E-04  0.0765
   2.6795E-02   2.7447E-02   6.1996E-04  0.0697
   2.7447E-02   2.8114E-02   5.0959E-04  0.0756
   2.8114E-02   2.8799E-02   5.3833E-04  0.0726
   2.8799E-02   2.9499E-02   5.5169E-04  0.0714
   2.9499E-02   3.0217E-02   4.8654E-04  0.0749
   3.0217E-02   3.0952E-02   4.9540E-04  0.0733
   3.0952E-02   3.1705E-02   4.8788E-04  0.0728
   3.1705E-02   3.2477E-02   4.4863E-04  0.0752
   3.2477E-02   3.3267E-02   4.5509E-04  0.0736
   3.3267E-02   3.4076E-02   4.9313E-04  0.0702
   3.4076E-02   3.4905E-02   4.4473E-04  0.0729
   3.4905E-02   3.5755E-02   4.2300E-04  0.0739
   3.5755E-02   3.6625E-02   4.3154E-04  0.0721
   3.6625E-02   3.7516E-02   4.4256E-04  0.0704
   3.7516E-02   3.8428E-02   3.7655E-04  0.0752
   3.8428E-02   3.9363E-02   4.0157E-04  0.0720
   3.9363E-02   4.0321E-02   4.0811E-04  0.0708
   4.0321E-02   4.1302E-02   4.5283E-04  0.0666
   4.1302E-02   4.2307E-02   3.4381E-04  0.0754
   4.2307E-02   4.3337E-02   3.4136E-04  0.0746
   4.3337E-02   4.4391E-02   3.8410E-04  0.0693
   4.4391E-02   4.5471E-02   3.2144E-04  0.0755
   4.5471E-02   4.6577E-02   3.7003E-04  0.0691
   4.6577E-02   4.7711E-02   3.5046E-04  0.0702
   4.7711E-02   4.8871E-02   3.1640E-04  0.0730
   4.8871E-02   5.0061E-02   3.1193E-04  0.0727
   5.0061E-02   5.1279E-02   3.0947E-04  0.0721
   5.1279E-02   5.2526E-02   3.0938E-04  0.0711
   5.2526E-02   5.3804E-02   3.3016E-04  0.0680
   5.3804E-02   5.5113E-02   2.8105E-04  0.0728
   5.5113E-02   5.6454E-02   2.8989E-04  0.0712
   5.6454E-02   5.7828E-02   2.8511E-04  0.0706
   5.7828E-02   5.9235E-02   2.9421E-04  0.0685
   5.9235E-02   6.0676E-02   3.0214E-04  0.0670
   6.0676E-02   6.2152E-02   2.7546E-04  0.0695
   6.2152E-02   6.3665E-02   2.3796E-04  0.0737
   6.3665E-02   6.5214E-02   2.2001E-04  0.0761
   6.5214E-02   6.6800E-02   2.5579E-04  0.0694
   6.6800E-02   6.8426E-02   2.6074E-04  0.0681
   6.8426E-02   7.0090E-02   2.4735E-04  0.0690
   7.0090E-02   7.1796E-02   2.5319E-04  0.0672
   7.1796E-02   7.3543E-02   2.6991E-04  0.0646
   7.3543E-02   7.5332E-02   2.4971E-04  0.0661
   7.5332E-02   7.7165E-02   2.2191E-04  0.0692
   7.7165E-02   7.9042E-02   2.0906E-04  0.0708
   7.9042E-02   8.0965E-02   2.0413E-04  0.0707
   8.0965E-02   8.2935E-02   1.7231E-04  0.0757
   8.2935E-02   8.4953E-02   2.0765E-04  0.0681
   8.4953E-02   8.7020E-02   1.8747E-04  0.0710
   8.7020E-02   8.9138E-02   2.1408E-04  0.0658
   8.9138E-02   9.1306E-02   1.9870E-04  0.0674
   9.1306E-02   9.3528E-02   1.8405E-04  0.0693
   9.3528E-02   9.5804E-02   1.7441E-04  0.0703
   9.5804E-02   9.8134E-02   1.6645E-04  0.0712
   9.8134E-02   1.0052E-01   1.6224E-04  0.0709
   1.0052E-01   1.0297E-01   1.8419E-04  0.0659
   1.0297E-01   1.0547E-01   1.6366E-04  0.0693
   1.0547E-01   1.0804E-01   1.6700E-04  0.0675
   1.0804E-01   1.1067E-01   1.8137E-04  0.0640
   1.1067E-01   1.1336E-01   1.7120E-04  0.0653
   1.1336E-01   1.1612E-01   1.7662E-04  0.0637
   1.1612E-01   1.1894E-01   1.5325E-04  0.0673
   1.1894E-01   1.2184E-01   1.3867E-04  0.0698
   1.2184E-01   1.2480E-01   1.5145E-04  0.0661
   1.2480E-01   1.2784E-01   1.4234E-04  0.0671
   1.2784E-01   1.3095E-01   1.4973E-04  0.0650
   1.3095E-01   1.3414E-01   1.4006E-04  0.0661
   1.3414E-01   1.3740E-01   1.4054E-04  0.0655
   1.3740E-01   1.4074E-01   1.3467E-04  0.0657
   1.4074E-01   1.4417E-01   1.4097E-04  0.0640
   1.4417E-01   1.4767E-01   1.2901E-04  0.0657
   1.4767E-01   1.5127E-01   1.1065E-04  0.0701
   1.5127E-01   1.5495E-01   1.3801E-04  0.0621
   1.5495E-01   1.5872E-01   1.0955E-04  0.0688
   1.5872E-01   1.6258E-01   1.1800E-04  0.0653
   1.6258E-01   1.6654E-01   1.1641E-04  0.0652
   1.6654E-01   1.7059E-01   1.1446E-04  0.0650
   1.7059E-01   1.7474E-01   1.2074E-04  0.0625
   1.7474E-01   1.7899E-01   1.1370E-04  0.0638
   1.7899E-01   1.8334E-01   1.1133E-04  0.0635
   1.8334E-01   1.8781E-01   1.1214E-04  0.0625
   1.8781E-01   1.9237E-01   1.2047E-04  0.0598
   1.9237E-01   1.9706E-01   1.0640E-04  0.0627
   1.9706E-01   2.0185E-01   1.1205E-04  0.0604
   2.0185E-01   2.0676E-01   1.1189E-04  0.0598
   2.0676E-01   2.1179E-01   1.1280E-04  0.0586
   2.1179E-01   2.1694E-01   1.2537E-04  0.0551
   2.1694E-01   2.2222E-01   1.2091E-04  0.0555
   2.2222E-01   2.2763E-01   1.3167E-04  0.0524
   2.2763E-01   2.3317E-01   1.2897E-04  0.0524
   2.3317E-01   2.3884E-01   1.5860E-04  0.0467
   2.3884E-01   2.4465E-01   1.4689E-04  0.0480
   2.4465E-01   2.5061E-01   1.6473E-04  0.0447
   2.5061E-01   2.5670E-01   1.4941E-04  0.0464
   2.5670E-01   2.6295E-01   1.6116E-04  0.0442
   2.6295E-01   2.6935E-01   1.8608E-04  0.0405
   2.6935E-01   2.7590E-01   1.8971E-04  0.0396
   2.7590E-01   2.8261E-01   1.8746E-04  0.0395
   2.8261E-01   2.8949E-01   2.0660E-04  0.0372
   2.8949E-01   2.9653E-01   2.0587E-04  0.0368
   2.9653E-01   3.0375E-01   2.1202E-04  0.0359
   3.0375E-01   3.1114E-01   2.2641E-04  0.0343
   3.1114E-01   3.1871E-01   2.5501E-04  0.0319
   3.1871E-01   3.2646E-01   2.4809E-04  0.0320
   3.2646E-01   3.3441E-01   2.4694E-04  0.0317
   3.3441E-01   3.4254E-01   2.5961E-04  0.0305
   3.4254E-01   3.5088E-01   2.7422E-04  0.0293
   3.5088E-01   3.5941E-01   2.9615E-04  0.0279
   3.5941E-01   3.6816E-01   3.0333E-04  0.0272
   3.6816E-01   3.7712E-01   3.1090E-04  0.0266
   3.7712E-01   3.8629E-01   3.2651E-04  0.0256
   3.8629E-01   3.9569E-01   3.3450E-04  0.0250
   3.9569E-01   4.0532E-01   3.4857E-04  0.0242
   4.0532E-01   4.1518E-01   3.5508E-04  0.0237
   4.1518E-01   4.2528E-01   3.5482E-04  0.0234
   4.2528E-01   4.3563E-01   3.9125E-04  0.0221
   4.3563E-01   4.4623E-01   4.0251E-04  0.0215
   4.4623E-01   4.5708E-01   4.3531E-04  0.0204
   4.5708E-01   4.6821E-01   4.2571E-04  0.0204
   4.6821E-01   4.7960E-01   4.6652E-04  0.0192
   4.7960E-01   4.9127E-01   4.6245E-04  0.0191
   4.9127E-01   5.0322E-01   4.7692E-04  0.0186
   5.0322E-01   5.1546E-01   5.0344E-04  0.0179
   5.1546E-01   5.2800E-01   5.2637E-04  0.0173
   5.2800E-01   5.4085E-01   5.1318E-04  0.0173
   5.4085E-01   5.5401E-01   5.6110E-04  0.0163
   5.5401E-01   5.6749E-01   5.7260E-04  0.0160
   5.6749E-01   5.8130E-01   5.7904E-04  0.0157
   5.8130E-01   5.9544E-01   5.9216E-04  0.0153
   5.9544E-01   6.0993E-01   6.1106E-04  0.0149
   6.0993E-01   6.2477E-01   6.1405E-04  0.0147
   6.2477E-01   6.3997E-01   6.3585E-04  0.0143
   6.3997E-01   6.5554E-01   6.4253E-04  0.0140
   6.5554E-01   6.7149E-01   6.7060E-04  0.0136
   6.7149E-01   6.8783E-01   6.8785E-04  0.0132
   6.8783E-01   7.0456E-01   6.6859E-04  0.0133
   7.0456E-01   7.2171E-01   7.1767E-04  0.0126
   7.2171E-01   7.3927E-01   7.3908E-04  0.0123
   7.3927E-01   7.5725E-01   7.5991E-04  0.0120
   7.5725E-01   7.7568E-01   7.7111E-04  0.0118
   7.7568E-01   7.9455E-01   7.9018E-04  0.0115
   7.9455E-01   8.1388E-01   7.7639E-04  0.0115
   8.1388E-01   8.3368E-01   7.9685E-04  0.0112
   8.3368E-01   8.5397E-01   8.1303E-04  0.0109
   8.5397E-01   8.7475E-01   8.4088E-04  0.0106
   8.7475E-01   8.9603E-01   8.4270E-04  0.0105
   8.9603E-01   9.1783E-01   8.5649E-04  0.0103
   9.1783E-01   9.4016E-01   8.7916E-04  0.0100
   9.4016E-01   9.6304E-01   9.1323E-04  0.0097
   9.6304E-01   9.8647E-01   9.0595E-04  0.0096
   9.8647E-01   1.0105E+00   9.1469E-04  0.0095
   1.0105E+00   1.0351E+00   9.3558E-04  0.0093
   1.0351E+00   1.0602E+00   9.3172E-04  0.0092
   1.0602E+00   1.0860E+00   9.2266E-04  0.0091
   1.0860E+00   1.1125E+00   9.2503E-04  0.0090
   1.1125E+00   1.1395E+00   9.3212E-04  0.0088
   1.1395E+00   1.1673E+00   9.3092E-04  0.0087
   1.1673E+00   1.1957E+00   9.4294E-04  0.0086
   1.1957E+00   1.2247E+00   9.8235E-04  0.0083
   1.2247E+00   1.2545E+00   9.7646E-04  0.0082
   1.2545E+00   1.2851E+00   9.6847E-04  0.0082
   1.2851E+00   1.3163E+00   9.6455E-04  0.0081
   1.3163E+00   1.3484E+00   9.7770E-04  0.0079
   1.3484E+00   1.3812E+00   9.8986E-04  0.0078
   1.3812E+00   1.4148E+00   1.0131E-03  0.0076
   1.4148E+00   1.4492E+00   1.0145E-03  0.0075
   1.4492E+00   1.4845E+00   1.0208E-03  0.0074
   1.4845E+00   1.5206E+00   1.0225E-03  0.0073
   1.5206E+00   1.5576E+00   1.0192E-03  0.0072
   1.5576E+00   1.5955E+00   1.0169E-03  0.0071
   1.5955E+00   1.6343E+00   1.0087E-03  0.0071
   1.6343E+00   1.6741E+00   9.9589E-04  0.0071
   1.6741E+00   1.7148E+00   9.8128E-04  0.0070
   1.7148E+00   1.7565E+00   9.9463E-04  0.0069
   1.7565E+00   1.7992E+00   1.0007E-03  0.0068
   1.7992E+00   1.8430E+00   1.0140E-03  0.0067
   1.8430E+00   1.8879E+00   9.9308E-04  0.0067
   1.8879E+00   1.9338E+00   1.0042E-03  0.0065
   1.9338E+00   1.9808E+00   9.8809E-04  0.0065
   1.9808E+00   2.0290E+00   9.8940E-04  0.0064
   2.0290E+00   2.0784E+00   9.9220E-04  0.0063
   2.0784E+00   2.1290E+00   9.7590E-04  0.0063
   2.1290E+00   2.1808E+00   9.6054E-04  0.0063
   2.1808E+00   2.2338E+00   9.5714E-04  0.0062
   2.2338E+00   2.2882E+00   9.3373E-04  0.0062
   2.2882E+00   2.3439E+00   9.2129E-04  0.0062
   2.3439E+00   2.4009E+00   9.1183E-04  0.0062
   2.4009E+00   2.4593E+00   9.2033E-04  0.0061
   2.4593E+00   2.5191E+00   9.2104E-04  0.0060
   2.5191E+00   2.5804E+00   9.0427E-04  0.0060
   2.5804E+00   2.6432E+00   8.9080E-04  0.0059
   2.6432E+00   2.7075E+00   8.7244E-04  0.0059
   2.7075E+00   2.7734E+00   8.6238E-04  0.0059
   2.7734E+00   2.8409E+00   8.4484E-04  0.0059
   2.8409E+00   2.9100E+00   8.3630E-04  0.0058
   2.9100E+00   2.9808E+00   8.3296E-04  0.0058
   2.9808E+00   3.0533E+00   8.2783E-04  0.0057
   3.0533E+00   3.1276E+00   8.1538E-04  0.0057
   3.1276E+00   3.2037E+00   8.0031E-04  0.0057
   3.2037E+00   3.2817E+00   7.8734E-04  0.0057
   3.2817E+00   3.3615E+00   7.7262E-04  0.0057
   3.3615E+00   3.4433E+00   7.5305E-04  0.0057
   3.4433E+00   3.5271E+00   7.5017E-04  0.0056
   3.5271E+00   3.6129E+00   7.3738E-04  0.0056
   3.6129E+00   3.7008E+00   7.1650E-04  0.0056
   3.7008E+00   3.7908E+00   7.0582E-04  0.0056
   3.7908E+00   3.8831E+00   6.9292E-04  0.0056
   3.8831E+00   3.9776E+00   6.8498E-04  0.0055
   3.9776E+00   4.0743E+00   6.6955E-04  0.0055
   4.0743E+00   4.1735E+00   6.5977E-04  0.0055
   4.1735E+00   4.2750E+00   6.4734E-04  0.0055
   4.2750E+00   4.3790E+00   6.3450E-04  0.0055
   4.3790E+00   4.4856E+00   6.2227E-04  0.0055
   4.4856E+00   4.5947E+00   6.1672E-04  0.0054
   4.5947E+00   4.7065E+00   6.0273E-04  0.0054
   4.7065E+00   4.8210E+00   5.9366E-04  0.0054
   4.8210E+00   4.9383E+00   5.7470E-04  0.0054
   4.9383E+00   5.0585E+00   5.7076E-04  0.0054
   5.0585E+00   5.1815E+00   5.6363E-04  0.0053
   5.1815E+00   5.3076E+00   5.5326E-04  0.0053
   5.3076E+00   5.4368E+00   5.5074E-04  0.0053
   5.4368E+00   5.5690E+00   5.3252E-04  0.0053
   5.5690E+00   5.7045E+00   5.2073E-04  0.0053
   5.7045E+00   5.8433E+00   5.0404E-04  0.0053
   5.8433E+00   5.9855E+00   4.9484E-04  0.0053
   5.9855E+00   6.1311E+00   4.8692E-04  0.0053
   6.1311E+00   6.2803E+00   4.6687E-04  0.0053
   6.2803E+00   6.4331E+00   4.5706E-04  0.0053
   6.4331E+00   6.5896E+00   4.4336E-04  0.0053
   6.5896E+00   6.7500E+00   4.2987E-04  0.0054
   6.7500E+00   6.9142E+00   4.1856E-04  0.0054
   6.9142E+00   7.0824E+00   4.1097E-04  0.0054
   7.0824E+00   7.2548E+00   3.9689E-04  0.0054
   7.2548E+00   7.4313E+00   3.8526E-04  0.0054
   7.4313E+00   7.6121E+00   3.7708E-04  0.0054
   7.6121E+00   7.7973E+00   3.6866E-04  0.0054
   7.7973E+00   7.9870E+00   3.5514E-04  0.0054
   7.9870E+00   8.1813E+00   3.4850E-04  0.0054
   8.1813E+00   8.3804E+00   3.4013E-04  0.0054
   8.3804E+00   8.5843E+00   3.2797E-04  0.0055
   8.5843E+00   8.7931E+00   3.1854E-04  0.0055
   8.7931E+00   9.0071E+00   3.1020E-04  0.0055
   9.0071E+00   9.2262E+00   3.0184E-04  0.0055
   9.2262E+00   9.4507E+00   2.9444E-04  0.0055
   9.4507E+00   9.6807E+00   2.8215E-04  0.0055
   9.6807E+00   9.9162E+00   2.7741E-04  0.0055
   9.9162E+00   1.0157E+01   2.6668E-04  0.0056
   1.0157E+01   1.0405E+01   2.5679E-04  0.0056
   1.0405E+01   1.0658E+01   2.4849E-04  0.0056
   1.0658E+01   1.0917E+01   2.3918E-04  0.0057
   1.0917E+01   1.1183E+01   2.3106E-04  0.0057
   1.1183E+01   1.1455E+01   2.2478E-04  0.0057
   1.1455E+01   1.1733E+01   2.1706E-04  0.0057
   1.1733E+01   1.2019E+01   2.0594E-04  0.0058
   1.2019E+01   1.2311E+01   1.9951E-04  0.0058
   1.2311E+01   1.2611E+01   1.8952E-04  0.0059
   1.2611E+01   1.2918E+01   1.8213E-04  0.0060
   1.2918E+01   1.3232E+01   1.7314E-04  0.0061
   1.3232E+01   1.3554E+01   1.6737E-04  0.0061
   1.3554E+01   1.3884E+01   1.5915E-04  0.0062
   1.3884E+01   1.4222E+01   1.5251E-04  0.0062
   1.4222E+01   1.4568E+01   1.4526E-04  0.0063
   1.4568E+01   1.4922E+01   1.3821E-04  0.0064
   1.4922E+01   1.5285E+01   1.3118E-04  0.0065
   1.5285E+01   1.5657E+01   1.2357E-04  0.0066
   1.5657E+01   1.6038E+01   1.1786E-04  0.0067
   1.6038E+01   1.6428E+01   1.1132E-04  0.0068
   1.6428E+01   1.6828E+01   1.0526E-04  0.0069
   1.6828E+01   1.7237E+01   9.8387E-05  0.0070
   1.7237E+01   1.7657E+01   9.3442E-05  0.0071
   1.7657E+01   1.8086E+01   8.7440E-05  0.0073
   1.8086E+01   1.8526E+01   8.2036E-05  0.0074
   1.8526E+01   1.8977E+01   7.8143E-05  0.0075
   1.8977E+01   1.9439E+01   7.5035E-05  0.0076
   1.9439E+01   1.9912E+01   7.7676E-05  0.0074
   1.9912E+01   2.0396E+01   7.3870E-05  0.0075
   2.0396E+01   2.0893E+01   7.0810E-05  0.0075
   2.0893E+01   2.1401E+01   6.5548E-05  0.0077
   2.1401E+01   2.1922E+01   6.0403E-05  0.0080
   2.1922E+01   2.2455E+01   5.6681E-05  0.0081
   2.2455E+01   2.3001E+01   5.2326E-05  0.0084
   2.3001E+01   2.3561E+01   4.9589E-05  0.0085
   2.3561E+01   2.4134E+01   4.6419E-05  0.0087
   2.4134E+01   2.4721E+01   4.3266E-05  0.0089
   2.4721E+01   2.5323E+01   4.1211E-05  0.0090
   2.5323E+01   2.5939E+01   3.8187E-05  0.0092
   2.5939E+01   2.6570E+01   3.5803E-05  0.0094
   2.6570E+01   2.7217E+01   3.2614E-05  0.0097
   2.7217E+01   2.7879E+01   2.8759E-05  0.0102
   2.7879E+01   2.8557E+01   2.5599E-05  0.0107
   2.8557E+01   2.9252E+01   2.3387E-05  0.0111
   2.9252E+01   2.9964E+01   2.1511E-05  0.0114
   2.9964E+01   3.0693E+01   1.9061E-05  0.0120
   3.0693E+01   3.1440E+01   1.7036E-05  0.0125
   3.1440E+01   3.2205E+01   1.5434E-05  0.0130
   3.2205E+01   3.2988E+01   1.4753E-05  0.0132
   3.2988E+01   3.3791E+01   1.2506E-05  0.0141
   3.3791E+01   3.4613E+01   1.1733E-05  0.0144
   3.4613E+01   3.5455E+01   1.0540E-05  0.0150
   3.5455E+01   3.6318E+01   9.4036E-06  0.0157
   3.6318E+01   3.7201E+01   8.3745E-06  0.0164
   3.7201E+01   3.8106E+01   7.7602E-06  0.0169
   3.8106E+01   3.9034E+01   6.7389E-06  0.0179
   3.9034E+01   3.9983E+01   6.0376E-06  0.0187
   3.9983E+01   4.0956E+01   4.7264E-06  0.0209
   4.0956E+01   4.1953E+01   3.6086E-06  0.0236
   4.1953E+01   4.2973E+01   2.4590E-06  0.0282
   4.2973E+01   4.4019E+01   1.4499E-06  0.0363
   4.4019E+01   4.5090E+01   9.2996E-07  0.0448
   4.5090E+01   4.6187E+01   4.5211E-07  0.0635
   4.6187E+01   4.7311E+01   1.1746E-07  0.1231
   4.7311E+01   4.8462E+01   6.9498E-09  0.5000
   4.8462E+01   4.9641E+01   0.0000E+00  0.0000
   4.9641E+01   5.0849E+01   0.0000E+00  0.0000
   5.0849E+01   5.2086E+01   0.0000E+00  0.0000
   5.2086E+01   5.3353E+01   0.0000E+00  0.0000
   5.3353E+01   5.4651E+01   0.0000E+00  0.0000
   5.4651E+01   5.5981E+01   0.0000E+00  0.0000
   5.5981E+01   5.7343E+01   0.0000E+00  0.0000
   5.7343E+01   5.8738E+01   0.0000E+00  0.0000
   5.8738E+01   6.0168E+01   0.0000E+00  0.0000
   6.0168E+01   6.1632E+01   0.0000E+00  0.0000
   6.1632E+01   6.3131E+01   0.0000E+00  0.0000
   6.3131E+01   6.4667E+01   0.0000E+00  0.0000
   6.4667E+01   6.6240E+01   0.0000E+00  0.0000
   6.6240E+01   6.7852E+01   0.0000E+00  0.0000
   6.7852E+01   6.9503E+01   0.0000E+00  0.0000
   6.9503E+01   7.1194E+01   0.0000E+00  0.0000
   7.1194E+01   7.2926E+01   0.0000E+00  0.0000
   7.2926E+01   7.4701E+01   0.0000E+00  0.0000
   7.4701E+01   7.6518E+01   0.0000E+00  0.0000
   7.6518E+01   7.8380E+01   0.0000E+00  0.0000
   7.8380E+01   8.0287E+01   0.0000E+00  0.0000
   8.0287E+01   8.2240E+01   0.0000E+00  0.0000
   8.2240E+01   8.4241E+01   0.0000E+00  0.0000
   8.4241E+01   8.6291E+01   0.0000E+00  0.0000
   8.6291E+01   8.8391E+01   0.0000E+00  0.0000
   8.8391E+01   9.0541E+01   0.0000E+00  0.0000
   9.0541E+01   9.2744E+01   0.0000E+00  0.0000
   9.2744E+01   9.5001E+01   0.0000E+00  0.0000
   9.5001E+01   9.7312E+01   0.0000E+00  0.0000
   9.7312E+01   9.9680E+01   0.0000E+00  0.0000
   9.9680E+01   1.0211E+02   0.0000E+00  0.0000
   1.0211E+02   1.0459E+02   0.0000E+00  0.0000
   1.0459E+02   1.0713E+02   0.0000E+00  0.0000
   1.0713E+02   1.0974E+02   0.0000E+00  0.0000
   1.0974E+02   1.1241E+02   0.0000E+00  0.0000
   1.1241E+02   1.1515E+02   0.0000E+00  0.0000
   1.1515E+02   1.1795E+02   0.0000E+00  0.0000
   1.1795E+02   1.2082E+02   0.0000E+00  0.0000
   1.2082E+02   1.2376E+02   0.0000E+00  0.0000
   1.2376E+02   1.2677E+02   0.0000E+00  0.0000
   1.2677E+02   1.2985E+02   0.0000E+00  0.0000
   1.2985E+02   1.3301E+02   0.0000E+00  0.0000
   1.3301E+02   1.3625E+02   0.0000E+00  0.0000
   1.3625E+02   1.3956E+02   0.0000E+00  0.0000
   1.3956E+02   1.4296E+02   0.0000E+00  0.0000
   1.4296E+02   1.4644E+02   0.0000E+00  0.0000
   1.4644E+02   1.5000E+02   0.0000E+00  0.0000

#   sum over                 5.1519E-05
'no. =    1   reg = 108 - 208'
msuc: {\huge [t-cross] in region mesh}
msdr: {\it plotted by \ANGEL \version}
msdl: {\it calculated by \PHITS  3.26}
wt: s(0.7)
\vspace{-3}
  region surface crossing
  area  &=&   1.0000E+00 [cm^2]
e:
 
# Information for Restart Calculation
# This calculation was newly started
# istdev =  2 # 1:Batch variance, 2:History variance
# resc2  = 5.00000000000000000E+08 # Total source weight or Total source weight / maxcas
# resc3  = 5.00000000000000000E+08 # Total history number or Total batch number
# maxcas =   500000000 # History / Batch, only used for istdev=1
# bitrseed = 1101101111010011011000101101110001100110110010110001010100010001 # bit data of rseed
