[ T-Cross ]
    title = [t-cross] in region mesh
     mesh =  reg            # mesh type is region-wise
      reg =    1            # number of crossing regions
      non     r-from    r-to       area
      1       113       213        1.000000    
   e-type =    3            # e-mesh is log given by emin, emax and ne
     emin =  1.0000000E-02  # minimum value of e-mesh points
     emax =   150.0000      # maximum value of e-mesh points
#    edel =  2.4039514E-02  # mesh width of e-mesh points
       ne =    400          # number of e-mesh points
#    data = ( e(i), i = 1, ne + 1 )
#           1.00000E-02  1.02433E-02  1.04925E-02  1.07478E-02  1.10093E-02
#           1.12772E-02  1.15516E-02  1.18326E-02  1.21205E-02  1.24154E-02
#           1.27175E-02  1.30269E-02  1.33439E-02  1.36686E-02  1.40011E-02
#           1.43418E-02  1.46907E-02  1.50482E-02  1.54143E-02  1.57894E-02
#           1.61735E-02  1.65670E-02  1.69701E-02  1.73830E-02  1.78060E-02
#           1.82392E-02  1.86830E-02  1.91375E-02  1.96032E-02  2.00801E-02
#           2.05687E-02  2.10692E-02  2.15818E-02  2.21069E-02  2.26448E-02
#           2.31957E-02  2.37601E-02  2.43382E-02  2.49304E-02  2.55369E-02
#           2.61583E-02  2.67947E-02  2.74467E-02  2.81145E-02  2.87985E-02
#           2.94992E-02  3.02169E-02  3.09521E-02  3.17052E-02  3.24766E-02
#           3.32668E-02  3.40762E-02  3.49053E-02  3.57546E-02  3.66246E-02
#           3.75157E-02  3.84284E-02  3.93634E-02  4.03212E-02  4.13022E-02
#           4.23071E-02  4.33365E-02  4.43909E-02  4.54710E-02  4.65773E-02
#           4.77106E-02  4.88714E-02  5.00605E-02  5.12785E-02  5.25262E-02
#           5.38042E-02  5.51133E-02  5.64542E-02  5.78278E-02  5.92348E-02
#           6.06760E-02  6.21523E-02  6.36645E-02  6.52135E-02  6.68002E-02
#           6.84255E-02  7.00904E-02  7.17957E-02  7.35426E-02  7.53319E-02
#           7.71648E-02  7.90423E-02  8.09655E-02  8.29354E-02  8.49533E-02
#           8.70203E-02  8.91376E-02  9.13064E-02  9.35279E-02  9.58035E-02
#           9.81345E-02  1.00522E-01  1.02968E-01  1.05473E-01  1.08040E-01
#           1.10668E-01  1.13361E-01  1.16119E-01  1.18944E-01  1.21838E-01
#           1.24803E-01  1.27839E-01  1.30950E-01  1.34136E-01  1.37399E-01
#           1.40742E-01  1.44167E-01  1.47675E-01  1.51268E-01  1.54948E-01
#           1.58718E-01  1.62580E-01  1.66535E-01  1.70587E-01  1.74738E-01
#           1.78989E-01  1.83344E-01  1.87805E-01  1.92375E-01  1.97055E-01
#           2.01850E-01  2.06761E-01  2.11792E-01  2.16945E-01  2.22223E-01
#           2.27630E-01  2.33169E-01  2.38842E-01  2.44653E-01  2.50605E-01
#           2.56703E-01  2.62949E-01  2.69346E-01  2.75900E-01  2.82613E-01
#           2.89489E-01  2.96532E-01  3.03747E-01  3.11138E-01  3.18708E-01
#           3.26462E-01  3.34405E-01  3.42542E-01  3.50876E-01  3.59413E-01
#           3.68158E-01  3.77116E-01  3.86291E-01  3.95690E-01  4.05317E-01
#           4.15179E-01  4.25281E-01  4.35628E-01  4.46227E-01  4.57084E-01
#           4.68205E-01  4.79597E-01  4.91266E-01  5.03219E-01  5.15463E-01
#           5.28005E-01  5.40851E-01  5.54011E-01  5.67490E-01  5.81298E-01
#           5.95441E-01  6.09929E-01  6.24769E-01  6.39970E-01  6.55541E-01
#           6.71491E-01  6.87828E-01  7.04564E-01  7.21706E-01  7.39266E-01
#           7.57253E-01  7.75678E-01  7.94551E-01  8.13883E-01  8.33685E-01
#           8.53969E-01  8.74747E-01  8.96030E-01  9.17831E-01  9.40163E-01
#           9.63038E-01  9.86469E-01  1.01047E+00  1.03506E+00  1.06024E+00
#           1.08604E+00  1.11246E+00  1.13953E+00  1.16725E+00  1.19565E+00
#           1.22474E+00  1.25454E+00  1.28507E+00  1.31633E+00  1.34836E+00
#           1.38117E+00  1.41477E+00  1.44920E+00  1.48446E+00  1.52057E+00
#           1.55757E+00  1.59547E+00  1.63429E+00  1.67405E+00  1.71478E+00
#           1.75650E+00  1.79924E+00  1.84302E+00  1.88786E+00  1.93379E+00
#           1.98084E+00  2.02904E+00  2.07841E+00  2.12898E+00  2.18078E+00
#           2.23384E+00  2.28819E+00  2.34386E+00  2.40089E+00  2.45930E+00
#           2.51914E+00  2.58043E+00  2.64322E+00  2.70753E+00  2.77341E+00
#           2.84088E+00  2.91001E+00  2.98081E+00  3.05333E+00  3.12762E+00
#           3.20372E+00  3.28167E+00  3.36152E+00  3.44330E+00  3.52708E+00
#           3.61290E+00  3.70080E+00  3.79085E+00  3.88308E+00  3.97756E+00
#           4.07434E+00  4.17347E+00  4.27501E+00  4.37903E+00  4.48557E+00
#           4.59471E+00  4.70650E+00  4.82102E+00  4.93832E+00  5.05847E+00
#           5.18155E+00  5.30762E+00  5.43676E+00  5.56904E+00  5.70453E+00
#           5.84333E+00  5.98550E+00  6.13114E+00  6.28031E+00  6.43312E+00
#           6.58964E+00  6.74997E+00  6.91420E+00  7.08243E+00  7.25475E+00
#           7.43126E+00  7.61207E+00  7.79728E+00  7.98700E+00  8.18133E+00
#           8.38038E+00  8.58428E+00  8.79315E+00  9.00709E+00  9.22624E+00
#           9.45072E+00  9.68067E+00  9.91620E+00  1.01575E+01  1.04046E+01
#           1.06578E+01  1.09171E+01  1.11827E+01  1.14548E+01  1.17335E+01
#           1.20190E+01  1.23114E+01  1.26109E+01  1.29178E+01  1.32321E+01
#           1.35540E+01  1.38838E+01  1.42216E+01  1.45676E+01  1.49221E+01
#           1.52851E+01  1.56570E+01  1.60380E+01  1.64282E+01  1.68279E+01
#           1.72374E+01  1.76568E+01  1.80864E+01  1.85264E+01  1.89772E+01
#           1.94389E+01  1.99119E+01  2.03963E+01  2.08926E+01  2.14009E+01
#           2.19216E+01  2.24550E+01  2.30014E+01  2.35610E+01  2.41343E+01
#           2.47215E+01  2.53230E+01  2.59391E+01  2.65702E+01  2.72167E+01
#           2.78789E+01  2.85572E+01  2.92520E+01  2.99637E+01  3.06928E+01
#           3.14396E+01  3.22045E+01  3.29881E+01  3.37907E+01  3.46128E+01
#           3.54550E+01  3.63177E+01  3.72013E+01  3.81064E+01  3.90336E+01
#           3.99833E+01  4.09561E+01  4.19526E+01  4.29734E+01  4.40189E+01
#           4.50900E+01  4.61870E+01  4.73108E+01  4.84619E+01  4.96410E+01
#           5.08488E+01  5.20860E+01  5.33533E+01  5.46514E+01  5.59812E+01
#           5.73432E+01  5.87384E+01  6.01676E+01  6.16315E+01  6.31311E+01
#           6.46671E+01  6.62405E+01  6.78522E+01  6.95031E+01  7.11941E+01
#           7.29263E+01  7.47007E+01  7.65182E+01  7.83800E+01  8.02870E+01
#           8.22405E+01  8.42414E+01  8.62911E+01  8.83906E+01  9.05412E+01
#           9.27442E+01  9.50007E+01  9.73122E+01  9.96799E+01  1.02105E+02
#           1.04589E+02  1.07134E+02  1.09741E+02  1.12411E+02  1.15146E+02
#           1.17948E+02  1.20817E+02  1.23757E+02  1.26768E+02  1.29852E+02
#           1.33012E+02  1.36248E+02  1.39563E+02  1.42959E+02  1.46437E+02
#           1.50000E+02
     unit =    2            # unit is [1/cm^2/(MeV/n)/source]
     axis =  eng            # axis of output
     file = detector-14.out  # file name of output for the above axis
   output = f-curr          # surface crossing forward current spectrum
     part =  neutron  
# kf/name :  2112     
#    used :        main (  %)        temp (  %)       total (  %)
#  memory :         414 (  0)           0 (  0)         414 (  0)

#------------------------------------------------------------------------------
#newpage:
#   no. =    1   reg = 113 - 213

x: Energy [MeV/n]
y:  F-Curr [1/cm^2/(MeV/n)/source]         
p: xlog ylog afac(0.8) form(0.9)
h: n            x            y(neutron ),hh0l   n 
#  e-lower      e-upper      neutron     r.err 
   1.0000E-02   1.0243E-02   3.7525E-04  0.1474
   1.0243E-02   1.0493E-02   3.8121E-04  0.1445
   1.0493E-02   1.0748E-02   2.9453E-04  0.1621
   1.0748E-02   1.1009E-02   3.4235E-04  0.1487
   1.1009E-02   1.1277E-02   2.7252E-04  0.1650
   1.1277E-02   1.1552E-02   2.6706E-04  0.1641
   1.1552E-02   1.1833E-02   3.7010E-04  0.1376
   1.1833E-02   1.2121E-02   3.0219E-04  0.1512
   1.2121E-02   1.2415E-02   2.7187E-04  0.1553
   1.2415E-02   1.2718E-02   2.4961E-04  0.1617
   1.2718E-02   1.3027E-02   2.1172E-04  0.1731
   1.3027E-02   1.3344E-02   2.7396E-04  0.1501
   1.3344E-02   1.3669E-02   2.5772E-04  0.1534
   1.3669E-02   1.4001E-02   2.7253E-04  0.1481
   1.4001E-02   1.4342E-02   2.5713E-04  0.1500
   1.4342E-02   1.4691E-02   2.0602E-04  0.1654
   1.4691E-02   1.5048E-02   3.0115E-04  0.1355
   1.5048E-02   1.5414E-02   2.6914E-04  0.1415
   1.5414E-02   1.5789E-02   2.3841E-04  0.1475
   1.5789E-02   1.6174E-02   2.3825E-04  0.1471
   1.6174E-02   1.6567E-02   2.4000E-04  0.1443
   1.6567E-02   1.6970E-02   2.4078E-04  0.1422
   1.6970E-02   1.7383E-02   2.0061E-04  0.1535
   1.7383E-02   1.7806E-02   2.0438E-04  0.1518
   1.7806E-02   1.8239E-02   2.2043E-04  0.1439
   1.8239E-02   1.8683E-02   1.4400E-04  0.1752
   1.8683E-02   1.9138E-02   1.9760E-04  0.1481
   1.9138E-02   1.9603E-02   1.5776E-04  0.1640
   1.9603E-02   2.0080E-02   2.0080E-04  0.1427
   2.0080E-02   2.0569E-02   2.3460E-04  0.1311
   2.0569E-02   2.1069E-02   1.5894E-04  0.1577
   2.1069E-02   2.1582E-02   1.5713E-04  0.1556
   2.1582E-02   2.2107E-02   1.6488E-04  0.1504
   2.2107E-02   2.2645E-02   2.2250E-04  0.1287
   2.2645E-02   2.3196E-02   1.6053E-04  0.1487
   2.3196E-02   2.3760E-02   1.7413E-04  0.1416
   2.3760E-02   2.4338E-02   1.3351E-04  0.1587
   2.4338E-02   2.4930E-02   1.8977E-04  0.1323
   2.4930E-02   2.5537E-02   1.5405E-04  0.1446
   2.5537E-02   2.6158E-02   1.2340E-04  0.1592
   2.6158E-02   2.6795E-02   1.8871E-04  0.1278
   2.6795E-02   2.7447E-02   1.3289E-04  0.1504
   2.7447E-02   2.8114E-02   1.4173E-04  0.1440
   2.8114E-02   2.8799E-02   1.2010E-04  0.1547
   2.8799E-02   2.9499E-02   1.3986E-04  0.1421
   2.9499E-02   3.0217E-02   1.3612E-04  0.1414
   3.0217E-02   3.0952E-02   1.2001E-04  0.1493
   3.0952E-02   3.1705E-02   1.4888E-04  0.1327
   3.1705E-02   3.2477E-02   1.5025E-04  0.1292
   3.2477E-02   3.3267E-02   1.2494E-04  0.1410
   3.3267E-02   3.4076E-02   1.1875E-04  0.1430
   3.4076E-02   3.4905E-02   1.0716E-04  0.1472
   3.4905E-02   3.5755E-02   1.3068E-04  0.1338
   3.5755E-02   3.6625E-02   9.7897E-05  0.1513
   3.6625E-02   3.7516E-02   1.0353E-04  0.1471
   3.7516E-02   3.8428E-02   1.1870E-04  0.1347
   3.8428E-02   3.9363E-02   9.4912E-05  0.1486
   3.9363E-02   4.0321E-02   1.0612E-04  0.1387
   4.0321E-02   4.1302E-02   7.2699E-05  0.1663
   4.1302E-02   4.2307E-02   9.0378E-05  0.1457
   4.2307E-02   4.3337E-02   9.7807E-05  0.1388
   4.3337E-02   4.4391E-02   9.6760E-05  0.1391
   4.4391E-02   4.5471E-02   9.0511E-05  0.1413
   4.5471E-02   4.6577E-02   9.0421E-05  0.1404
   4.6577E-02   4.7711E-02   8.9170E-05  0.1390
   4.7711E-02   4.8871E-02   7.2820E-05  0.1522
   4.8871E-02   5.0061E-02   7.4185E-05  0.1480
   5.0061E-02   5.1279E-02   7.4394E-05  0.1473
   5.1279E-02   5.2526E-02   9.0247E-05  0.1316
   5.2526E-02   5.3804E-02   8.0934E-05  0.1376
   5.3804E-02   5.5113E-02   1.0070E-04  0.1226
   5.5113E-02   5.6454E-02   6.3043E-05  0.1535
   5.6454E-02   5.7828E-02   8.6282E-05  0.1290
   5.7828E-02   5.9235E-02   7.2464E-05  0.1392
   5.9235E-02   6.0676E-02   7.2216E-05  0.1366
   6.0676E-02   6.2152E-02   6.2536E-05  0.1452
   6.2152E-02   6.3665E-02   7.2344E-05  0.1347
   6.3665E-02   6.5214E-02   5.6213E-05  0.1497
   6.5214E-02   6.6800E-02   5.8341E-05  0.1456
   6.6800E-02   6.8426E-02   7.5764E-05  0.1262
   6.8426E-02   7.0090E-02   6.6202E-05  0.1338
   7.0090E-02   7.1796E-02   7.1236E-05  0.1270
   7.1796E-02   7.3543E-02   4.8900E-05  0.1508
   7.3543E-02   7.5332E-02   5.5098E-05  0.1412
   7.5332E-02   7.7165E-02   5.4002E-05  0.1405
   7.7165E-02   7.9042E-02   6.2480E-05  0.1295
   7.9042E-02   8.0965E-02   4.0948E-05  0.1577
   8.0965E-02   8.2935E-02   6.0012E-05  0.1291
   8.2935E-02   8.4953E-02   6.0122E-05  0.1273
   8.4953E-02   8.7020E-02   4.8384E-05  0.1396
   8.7020E-02   8.9138E-02   5.7670E-05  0.1266
   8.9138E-02   9.1306E-02   5.5153E-05  0.1286
   9.1306E-02   9.3528E-02   4.8434E-05  0.1347
   9.3528E-02   9.5804E-02   4.2842E-05  0.1414
   9.5804E-02   9.8134E-02   4.5178E-05  0.1371
   9.8134E-02   1.0052E-01   4.3737E-05  0.1365
   1.0052E-01   1.0297E-01   3.7734E-05  0.1458
   1.0297E-01   1.0547E-01   4.3084E-05  0.1342
   1.0547E-01   1.0804E-01   4.4841E-05  0.1306
   1.0804E-01   1.1067E-01   4.2658E-05  0.1327
   1.1067E-01   1.1336E-01   4.1465E-05  0.1331
   1.1336E-01   1.1612E-01   4.8357E-05  0.1215
   1.1612E-01   1.1894E-01   4.1086E-05  0.1305
   1.1894E-01   1.2184E-01   4.1950E-05  0.1267
   1.2184E-01   1.2480E-01   3.9276E-05  0.1300
   1.2480E-01   1.2784E-01   2.9351E-05  0.1480
   1.2784E-01   1.3095E-01   3.8733E-05  0.1279
   1.3095E-01   1.3414E-01   3.4008E-05  0.1349
   1.3414E-01   1.3740E-01   2.9328E-05  0.1435
   1.3740E-01   1.4074E-01   3.2671E-05  0.1337
   1.4074E-01   1.4417E-01   3.6486E-05  0.1254
   1.4417E-01   1.4767E-01   2.8547E-05  0.1403
   1.4767E-01   1.5127E-01   3.3822E-05  0.1278
   1.5127E-01   1.5495E-01   3.0129E-05  0.1339
   1.5495E-01   1.5872E-01   3.9377E-05  0.1148
   1.5872E-01   1.6258E-01   3.5559E-05  0.1202
   1.6258E-01   1.6654E-01   3.7761E-05  0.1153
   1.6654E-01   1.7059E-01   2.6684E-05  0.1351
   1.7059E-01   1.7474E-01   3.5336E-05  0.1159
   1.7474E-01   1.7899E-01   3.1815E-05  0.1206
   1.7899E-01   1.8334E-01   2.9407E-05  0.1237
   1.8334E-01   1.8781E-01   3.5389E-05  0.1116
   1.8781E-01   1.9237E-01   2.8820E-05  0.1220
   1.9237E-01   1.9706E-01   2.5622E-05  0.1276
   1.9706E-01   2.0185E-01   2.9233E-05  0.1188
   2.0185E-01   2.0676E-01   3.4700E-05  0.1071
   2.0676E-01   2.1179E-01   2.6072E-05  0.1225
   2.1179E-01   2.1694E-01   3.1431E-05  0.1093
   2.1694E-01   2.2222E-01   4.0002E-05  0.0966
   2.2222E-01   2.2763E-01   3.4351E-05  0.1029
   2.2763E-01   2.3317E-01   4.0317E-05  0.0935
   2.3317E-01   2.3884E-01   4.0714E-05  0.0921
   2.3884E-01   2.4465E-01   3.9699E-05  0.0918
   2.4465E-01   2.5061E-01   4.5267E-05  0.0854
   2.5061E-01   2.5670E-01   4.9672E-05  0.0806
   2.5670E-01   2.6295E-01   5.5202E-05  0.0752
   2.6295E-01   2.6935E-01   5.5858E-05  0.0741
   2.6935E-01   2.7590E-01   5.0607E-05  0.0770
   2.7590E-01   2.8261E-01   5.1681E-05  0.0751
   2.8261E-01   2.8949E-01   5.8154E-05  0.0703
   2.8949E-01   2.9653E-01   6.6518E-05  0.0647
   2.9653E-01   3.0375E-01   5.8120E-05  0.0686
   3.0375E-01   3.1114E-01   6.0506E-05  0.0663
   3.1114E-01   3.1871E-01   6.8411E-05  0.0616
   3.1871E-01   3.2646E-01   7.0733E-05  0.0597
   3.2646E-01   3.3441E-01   8.1492E-05  0.0552
   3.3441E-01   3.4254E-01   6.5197E-05  0.0609
   3.4254E-01   3.5088E-01   8.8014E-05  0.0519
   3.5088E-01   3.5941E-01   9.1350E-05  0.0504
   3.5941E-01   3.6816E-01   8.3497E-05  0.0518
   3.6816E-01   3.7712E-01   9.2973E-05  0.0486
   3.7712E-01   3.8629E-01   1.0170E-04  0.0460
   3.8629E-01   3.9569E-01   1.0458E-04  0.0447
   3.9569E-01   4.0532E-01   1.0257E-04  0.0447
   4.0532E-01   4.1518E-01   1.1247E-04  0.0421
   4.1518E-01   4.2528E-01   1.0967E-04  0.0422
   4.2528E-01   4.3563E-01   1.2143E-04  0.0396
   4.3563E-01   4.4623E-01   1.2031E-04  0.0393
   4.4623E-01   4.5708E-01   1.3698E-04  0.0364
   4.5708E-01   4.6821E-01   1.4505E-04  0.0350
   4.6821E-01   4.7960E-01   1.4001E-04  0.0351
   4.7960E-01   4.9127E-01   1.5914E-04  0.0325
   4.9127E-01   5.0322E-01   1.6602E-04  0.0315
   5.0322E-01   5.1546E-01   1.7728E-04  0.0301
   5.1546E-01   5.2800E-01   1.8649E-04  0.0290
   5.2800E-01   5.4085E-01   1.7880E-04  0.0292
   5.4085E-01   5.5401E-01   1.8641E-04  0.0283
   5.5401E-01   5.6749E-01   2.0604E-04  0.0266
   5.6749E-01   5.8130E-01   2.0941E-04  0.0261
   5.8130E-01   5.9544E-01   2.1807E-04  0.0252
   5.9544E-01   6.0993E-01   2.2768E-04  0.0244
   6.0993E-01   6.2477E-01   2.3744E-04  0.0237
   6.2477E-01   6.3997E-01   2.4767E-04  0.0229
   6.3997E-01   6.5554E-01   2.4567E-04  0.0227
   6.5554E-01   6.7149E-01   2.6498E-04  0.0216
   6.7149E-01   6.8783E-01   2.7651E-04  0.0209
   6.8783E-01   7.0456E-01   2.8201E-04  0.0204
   7.0456E-01   7.2171E-01   2.9038E-04  0.0199
   7.2171E-01   7.3927E-01   3.1457E-04  0.0189
   7.3927E-01   7.5725E-01   3.3309E-04  0.0182
   7.5725E-01   7.7568E-01   3.3477E-04  0.0179
   7.7568E-01   7.9455E-01   3.4814E-04  0.0173
   7.9455E-01   8.1388E-01   3.7056E-04  0.0166
   8.1388E-01   8.3368E-01   3.7274E-04  0.0163
   8.3368E-01   8.5397E-01   3.9757E-04  0.0156
   8.5397E-01   8.7475E-01   3.9820E-04  0.0154
   8.7475E-01   8.9603E-01   4.1395E-04  0.0150
   8.9603E-01   9.1783E-01   4.2312E-04  0.0146
   9.1783E-01   9.4016E-01   4.3697E-04  0.0142
   9.4016E-01   9.6304E-01   4.6408E-04  0.0136
   9.6304E-01   9.8647E-01   4.7436E-04  0.0133
   9.8647E-01   1.0105E+00   4.7345E-04  0.0132
   1.0105E+00   1.0351E+00   4.9219E-04  0.0128
   1.0351E+00   1.0602E+00   4.8741E-04  0.0127
   1.0602E+00   1.0860E+00   5.0245E-04  0.0123
   1.0860E+00   1.1125E+00   4.9915E-04  0.0122
   1.1125E+00   1.1395E+00   5.1687E-04  0.0119
   1.1395E+00   1.1673E+00   5.1929E-04  0.0117
   1.1673E+00   1.1957E+00   5.4776E-04  0.0113
   1.1957E+00   1.2247E+00   5.5257E-04  0.0111
   1.2247E+00   1.2545E+00   5.5734E-04  0.0109
   1.2545E+00   1.2851E+00   5.6498E-04  0.0107
   1.2851E+00   1.3163E+00   5.6767E-04  0.0105
   1.3163E+00   1.3484E+00   5.8387E-04  0.0103
   1.3484E+00   1.3812E+00   5.9201E-04  0.0101
   1.3812E+00   1.4148E+00   6.0665E-04  0.0098
   1.4148E+00   1.4492E+00   6.2721E-04  0.0095
   1.4492E+00   1.4845E+00   6.1434E-04  0.0095
   1.4845E+00   1.5206E+00   6.2039E-04  0.0094
   1.5206E+00   1.5576E+00   6.3320E-04  0.0092
   1.5576E+00   1.5955E+00   6.2377E-04  0.0091
   1.5955E+00   1.6343E+00   6.1263E-04  0.0091
   1.6343E+00   1.6741E+00   6.1803E-04  0.0089
   1.6741E+00   1.7148E+00   6.0382E-04  0.0089
   1.7148E+00   1.7565E+00   6.1597E-04  0.0087
   1.7565E+00   1.7992E+00   6.1398E-04  0.0087
   1.7992E+00   1.8430E+00   6.2267E-04  0.0085
   1.8430E+00   1.8879E+00   6.1288E-04  0.0085
   1.8879E+00   1.9338E+00   6.1283E-04  0.0084
   1.9338E+00   1.9808E+00   6.2178E-04  0.0082
   1.9808E+00   2.0290E+00   6.1462E-04  0.0081
   2.0290E+00   2.0784E+00   5.9680E-04  0.0082
   2.0784E+00   2.1290E+00   5.9287E-04  0.0081
   2.1290E+00   2.1808E+00   5.9062E-04  0.0080
   2.1808E+00   2.2338E+00   5.7761E-04  0.0080
   2.2338E+00   2.2882E+00   5.6652E-04  0.0080
   2.2882E+00   2.3439E+00   5.5763E-04  0.0080
   2.3439E+00   2.4009E+00   5.5885E-04  0.0079
   2.4009E+00   2.4593E+00   5.5417E-04  0.0078
   2.4593E+00   2.5191E+00   5.6080E-04  0.0077
   2.5191E+00   2.5804E+00   5.4461E-04  0.0077
   2.5804E+00   2.6432E+00   5.2556E-04  0.0077
   2.6432E+00   2.7075E+00   5.1661E-04  0.0077
   2.7075E+00   2.7734E+00   5.0256E-04  0.0077
   2.7734E+00   2.8409E+00   4.8846E-04  0.0077
   2.8409E+00   2.9100E+00   4.8662E-04  0.0076
   2.9100E+00   2.9808E+00   4.7762E-04  0.0076
   2.9808E+00   3.0533E+00   4.7220E-04  0.0076
   3.0533E+00   3.1276E+00   4.6312E-04  0.0076
   3.1276E+00   3.2037E+00   4.5467E-04  0.0075
   3.2037E+00   3.2817E+00   4.4053E-04  0.0076
   3.2817E+00   3.3615E+00   4.2935E-04  0.0076
   3.3615E+00   3.4433E+00   4.1816E-04  0.0076
   3.4433E+00   3.5271E+00   4.1126E-04  0.0076
   3.5271E+00   3.6129E+00   4.0695E-04  0.0075
   3.6129E+00   3.7008E+00   4.0195E-04  0.0075
   3.7008E+00   3.7908E+00   3.8648E-04  0.0075
   3.7908E+00   3.8831E+00   3.7376E-04  0.0076
   3.8831E+00   3.9776E+00   3.6927E-04  0.0075
   3.9776E+00   4.0743E+00   3.6144E-04  0.0075
   4.0743E+00   4.1735E+00   3.5262E-04  0.0075
   4.1735E+00   4.2750E+00   3.3854E-04  0.0076
   4.2750E+00   4.3790E+00   3.4119E-04  0.0074
   4.3790E+00   4.4856E+00   3.3852E-04  0.0074
   4.4856E+00   4.5947E+00   3.3335E-04  0.0074
   4.5947E+00   4.7065E+00   3.2279E-04  0.0074
   4.7065E+00   4.8210E+00   3.1929E-04  0.0073
   4.8210E+00   4.9383E+00   3.1726E-04  0.0073
   4.9383E+00   5.0585E+00   3.1161E-04  0.0073
   5.0585E+00   5.1815E+00   3.0413E-04  0.0073
   5.1815E+00   5.3076E+00   2.9242E-04  0.0073
   5.3076E+00   5.4368E+00   2.8981E-04  0.0073
   5.4368E+00   5.5690E+00   2.7986E-04  0.0073
   5.5690E+00   5.7045E+00   2.7179E-04  0.0073
   5.7045E+00   5.8433E+00   2.6325E-04  0.0074
   5.8433E+00   5.9855E+00   2.5670E-04  0.0074
   5.9855E+00   6.1311E+00   2.4667E-04  0.0074
   6.1311E+00   6.2803E+00   2.3777E-04  0.0075
   6.2803E+00   6.4331E+00   2.3097E-04  0.0075
   6.4331E+00   6.5896E+00   2.2345E-04  0.0075
   6.5896E+00   6.7500E+00   2.1466E-04  0.0076
   6.7500E+00   6.9142E+00   2.0674E-04  0.0076
   6.9142E+00   7.0824E+00   1.9910E-04  0.0077
   7.0824E+00   7.2548E+00   1.9167E-04  0.0077
   7.2548E+00   7.4313E+00   1.8495E-04  0.0078
   7.4313E+00   7.6121E+00   1.7583E-04  0.0079
   7.6121E+00   7.7973E+00   1.6708E-04  0.0080
   7.7973E+00   7.9870E+00   1.6105E-04  0.0081
   7.9870E+00   8.1813E+00   1.5526E-04  0.0081
   8.1813E+00   8.3804E+00   1.5010E-04  0.0082
   8.3804E+00   8.5843E+00   1.4066E-04  0.0083
   8.5843E+00   8.7931E+00   1.3444E-04  0.0084
   8.7931E+00   9.0071E+00   1.2721E-04  0.0085
   9.0071E+00   9.2262E+00   1.1997E-04  0.0087
   9.2262E+00   9.4507E+00   1.1592E-04  0.0087
   9.4507E+00   9.6807E+00   1.0830E-04  0.0089
   9.6807E+00   9.9162E+00   1.0237E-04  0.0091
   9.9162E+00   1.0157E+01   9.7955E-05  0.0092
   1.0157E+01   1.0405E+01   9.2650E-05  0.0093
   1.0405E+01   1.0658E+01   8.7845E-05  0.0095
   1.0658E+01   1.0917E+01   8.1161E-05  0.0097
   1.0917E+01   1.1183E+01   7.8310E-05  0.0098
   1.1183E+01   1.1455E+01   7.3000E-05  0.0100
   1.1455E+01   1.1733E+01   6.9817E-05  0.0101
   1.1733E+01   1.2019E+01   6.4131E-05  0.0104
   1.2019E+01   1.2311E+01   5.9440E-05  0.0107
   1.2311E+01   1.2611E+01   5.7208E-05  0.0108
   1.2611E+01   1.2918E+01   5.2713E-05  0.0111
   1.2918E+01   1.3232E+01   4.8060E-05  0.0115
   1.3232E+01   1.3554E+01   4.4730E-05  0.0118
   1.3554E+01   1.3884E+01   4.0967E-05  0.0122
   1.3884E+01   1.4222E+01   3.8609E-05  0.0124
   1.4222E+01   1.4568E+01   3.5890E-05  0.0127
   1.4568E+01   1.4922E+01   3.2640E-05  0.0131
   1.4922E+01   1.5285E+01   3.0225E-05  0.0135
   1.5285E+01   1.5657E+01   2.7576E-05  0.0140
   1.5657E+01   1.6038E+01   2.4420E-05  0.0147
   1.6038E+01   1.6428E+01   2.3090E-05  0.0149
   1.6428E+01   1.6828E+01   2.0100E-05  0.0158
   1.6828E+01   1.7237E+01   1.8770E-05  0.0161
   1.7237E+01   1.7657E+01   1.6730E-05  0.0169
   1.7657E+01   1.8086E+01   1.4586E-05  0.0179
   1.8086E+01   1.8526E+01   1.3189E-05  0.0186
   1.8526E+01   1.8977E+01   1.1354E-05  0.0198
   1.8977E+01   1.9439E+01   1.0491E-05  0.0203
   1.9439E+01   1.9912E+01   1.0225E-05  0.0203
   1.9912E+01   2.0396E+01   9.0738E-06  0.0213
   2.0396E+01   2.0893E+01   8.0402E-06  0.0224
   2.0893E+01   2.1401E+01   6.7357E-06  0.0242
   2.1401E+01   2.1922E+01   5.9305E-06  0.0254
   2.1922E+01   2.2455E+01   4.9309E-06  0.0276
   2.2455E+01   2.3001E+01   3.8730E-06  0.0307
   2.3001E+01   2.3561E+01   3.5273E-06  0.0318
   2.3561E+01   2.4134E+01   2.8888E-06  0.0348
   2.4134E+01   2.4721E+01   2.5272E-06  0.0367
   2.4721E+01   2.5323E+01   1.9718E-06  0.0411
   2.5323E+01   2.5939E+01   1.6458E-06  0.0444
   2.5939E+01   2.6570E+01   1.4134E-06  0.0474
   2.6570E+01   2.7217E+01   1.1075E-06  0.0529
   2.7217E+01   2.7879E+01   8.8492E-07  0.0584
   2.7879E+01   2.8557E+01   8.8749E-07  0.0576
   2.8557E+01   2.9252E+01   6.2174E-07  0.0680
   2.9252E+01   2.9964E+01   5.0581E-07  0.0745
   2.9964E+01   3.0693E+01   4.4716E-07  0.0783
   3.0693E+01   3.1440E+01   3.4548E-07  0.0880
   3.1440E+01   3.2205E+01   2.2747E-07  0.1072
   3.2205E+01   3.2988E+01   2.3483E-07  0.1043
   3.2988E+01   3.3791E+01   1.8938E-07  0.1147
   3.3791E+01   3.4613E+01   1.1677E-07  0.1443
   3.4613E+01   3.5455E+01   1.0924E-07  0.1474
   3.5455E+01   3.6318E+01   3.9414E-08  0.2425
   3.6318E+01   3.7201E+01   4.5267E-08  0.2236
   3.7201E+01   3.8106E+01   1.3258E-08  0.4082
   3.8106E+01   3.9034E+01   1.7257E-08  0.3536
   3.9034E+01   3.9983E+01   4.2118E-09  0.7071
   3.9983E+01   4.0956E+01   2.0559E-09  1.0000
   4.0956E+01   4.1953E+01   8.0281E-09  0.5000
   4.1953E+01   4.2973E+01   0.0000E+00  0.0000
   4.2973E+01   4.4019E+01   0.0000E+00  0.0000
   4.4019E+01   4.5090E+01   0.0000E+00  0.0000
   4.5090E+01   4.6187E+01   0.0000E+00  0.0000
   4.6187E+01   4.7311E+01   0.0000E+00  0.0000
   4.7311E+01   4.8462E+01   0.0000E+00  0.0000
   4.8462E+01   4.9641E+01   0.0000E+00  0.0000
   4.9641E+01   5.0849E+01   0.0000E+00  0.0000
   5.0849E+01   5.2086E+01   0.0000E+00  0.0000
   5.2086E+01   5.3353E+01   0.0000E+00  0.0000
   5.3353E+01   5.4651E+01   0.0000E+00  0.0000
   5.4651E+01   5.5981E+01   0.0000E+00  0.0000
   5.5981E+01   5.7343E+01   0.0000E+00  0.0000
   5.7343E+01   5.8738E+01   0.0000E+00  0.0000
   5.8738E+01   6.0168E+01   0.0000E+00  0.0000
   6.0168E+01   6.1632E+01   0.0000E+00  0.0000
   6.1632E+01   6.3131E+01   0.0000E+00  0.0000
   6.3131E+01   6.4667E+01   0.0000E+00  0.0000
   6.4667E+01   6.6240E+01   0.0000E+00  0.0000
   6.6240E+01   6.7852E+01   0.0000E+00  0.0000
   6.7852E+01   6.9503E+01   0.0000E+00  0.0000
   6.9503E+01   7.1194E+01   0.0000E+00  0.0000
   7.1194E+01   7.2926E+01   0.0000E+00  0.0000
   7.2926E+01   7.4701E+01   0.0000E+00  0.0000
   7.4701E+01   7.6518E+01   0.0000E+00  0.0000
   7.6518E+01   7.8380E+01   0.0000E+00  0.0000
   7.8380E+01   8.0287E+01   0.0000E+00  0.0000
   8.0287E+01   8.2240E+01   0.0000E+00  0.0000
   8.2240E+01   8.4241E+01   0.0000E+00  0.0000
   8.4241E+01   8.6291E+01   0.0000E+00  0.0000
   8.6291E+01   8.8391E+01   0.0000E+00  0.0000
   8.8391E+01   9.0541E+01   0.0000E+00  0.0000
   9.0541E+01   9.2744E+01   0.0000E+00  0.0000
   9.2744E+01   9.5001E+01   0.0000E+00  0.0000
   9.5001E+01   9.7312E+01   0.0000E+00  0.0000
   9.7312E+01   9.9680E+01   0.0000E+00  0.0000
   9.9680E+01   1.0211E+02   0.0000E+00  0.0000
   1.0211E+02   1.0459E+02   0.0000E+00  0.0000
   1.0459E+02   1.0713E+02   0.0000E+00  0.0000
   1.0713E+02   1.0974E+02   0.0000E+00  0.0000
   1.0974E+02   1.1241E+02   0.0000E+00  0.0000
   1.1241E+02   1.1515E+02   0.0000E+00  0.0000
   1.1515E+02   1.1795E+02   0.0000E+00  0.0000
   1.1795E+02   1.2082E+02   0.0000E+00  0.0000
   1.2082E+02   1.2376E+02   0.0000E+00  0.0000
   1.2376E+02   1.2677E+02   0.0000E+00  0.0000
   1.2677E+02   1.2985E+02   0.0000E+00  0.0000
   1.2985E+02   1.3301E+02   0.0000E+00  0.0000
   1.3301E+02   1.3625E+02   0.0000E+00  0.0000
   1.3625E+02   1.3956E+02   0.0000E+00  0.0000
   1.3956E+02   1.4296E+02   0.0000E+00  0.0000
   1.4296E+02   1.4644E+02   0.0000E+00  0.0000
   1.4644E+02   1.5000E+02   0.0000E+00  0.0000

#   sum over                 2.2807E-05
'no. =    1   reg = 113 - 213'
msuc: {\huge [t-cross] in region mesh}
msdr: {\it plotted by \ANGEL \version}
msdl: {\it calculated by \PHITS  3.26}
wt: s(0.7)
\vspace{-3}
  region surface crossing
  area  &=&   1.0000E+00 [cm^2]
e:
 
# Information for Restart Calculation
# This calculation was newly started
# istdev =  2 # 1:Batch variance, 2:History variance
# resc2  = 5.00000000000000000E+08 # Total source weight or Total source weight / maxcas
# resc3  = 5.00000000000000000E+08 # Total history number or Total batch number
# maxcas =   500000000 # History / Batch, only used for istdev=1
# bitrseed = 1101101111010011011000101101110001100110110010110001010100010001 # bit data of rseed
