[ T-Cross ]
    title = [t-cross] in region mesh
     mesh =  reg            # mesh type is region-wise
      reg =    1            # number of crossing regions
      non     r-from    r-to       area
      1       109       209        1.000000    
   e-type =    3            # e-mesh is log given by emin, emax and ne
     emin =  1.0000000E-02  # minimum value of e-mesh points
     emax =   150.0000      # maximum value of e-mesh points
#    edel =  2.4039514E-02  # mesh width of e-mesh points
       ne =    400          # number of e-mesh points
#    data = ( e(i), i = 1, ne + 1 )
#           1.00000E-02  1.02433E-02  1.04925E-02  1.07478E-02  1.10093E-02
#           1.12772E-02  1.15516E-02  1.18326E-02  1.21205E-02  1.24154E-02
#           1.27175E-02  1.30269E-02  1.33439E-02  1.36686E-02  1.40011E-02
#           1.43418E-02  1.46907E-02  1.50482E-02  1.54143E-02  1.57894E-02
#           1.61735E-02  1.65670E-02  1.69701E-02  1.73830E-02  1.78060E-02
#           1.82392E-02  1.86830E-02  1.91375E-02  1.96032E-02  2.00801E-02
#           2.05687E-02  2.10692E-02  2.15818E-02  2.21069E-02  2.26448E-02
#           2.31957E-02  2.37601E-02  2.43382E-02  2.49304E-02  2.55369E-02
#           2.61583E-02  2.67947E-02  2.74467E-02  2.81145E-02  2.87985E-02
#           2.94992E-02  3.02169E-02  3.09521E-02  3.17052E-02  3.24766E-02
#           3.32668E-02  3.40762E-02  3.49053E-02  3.57546E-02  3.66246E-02
#           3.75157E-02  3.84284E-02  3.93634E-02  4.03212E-02  4.13022E-02
#           4.23071E-02  4.33365E-02  4.43909E-02  4.54710E-02  4.65773E-02
#           4.77106E-02  4.88714E-02  5.00605E-02  5.12785E-02  5.25262E-02
#           5.38042E-02  5.51133E-02  5.64542E-02  5.78278E-02  5.92348E-02
#           6.06760E-02  6.21523E-02  6.36645E-02  6.52135E-02  6.68002E-02
#           6.84255E-02  7.00904E-02  7.17957E-02  7.35426E-02  7.53319E-02
#           7.71648E-02  7.90423E-02  8.09655E-02  8.29354E-02  8.49533E-02
#           8.70203E-02  8.91376E-02  9.13064E-02  9.35279E-02  9.58035E-02
#           9.81345E-02  1.00522E-01  1.02968E-01  1.05473E-01  1.08040E-01
#           1.10668E-01  1.13361E-01  1.16119E-01  1.18944E-01  1.21838E-01
#           1.24803E-01  1.27839E-01  1.30950E-01  1.34136E-01  1.37399E-01
#           1.40742E-01  1.44167E-01  1.47675E-01  1.51268E-01  1.54948E-01
#           1.58718E-01  1.62580E-01  1.66535E-01  1.70587E-01  1.74738E-01
#           1.78989E-01  1.83344E-01  1.87805E-01  1.92375E-01  1.97055E-01
#           2.01850E-01  2.06761E-01  2.11792E-01  2.16945E-01  2.22223E-01
#           2.27630E-01  2.33169E-01  2.38842E-01  2.44653E-01  2.50605E-01
#           2.56703E-01  2.62949E-01  2.69346E-01  2.75900E-01  2.82613E-01
#           2.89489E-01  2.96532E-01  3.03747E-01  3.11138E-01  3.18708E-01
#           3.26462E-01  3.34405E-01  3.42542E-01  3.50876E-01  3.59413E-01
#           3.68158E-01  3.77116E-01  3.86291E-01  3.95690E-01  4.05317E-01
#           4.15179E-01  4.25281E-01  4.35628E-01  4.46227E-01  4.57084E-01
#           4.68205E-01  4.79597E-01  4.91266E-01  5.03219E-01  5.15463E-01
#           5.28005E-01  5.40851E-01  5.54011E-01  5.67490E-01  5.81298E-01
#           5.95441E-01  6.09929E-01  6.24769E-01  6.39970E-01  6.55541E-01
#           6.71491E-01  6.87828E-01  7.04564E-01  7.21706E-01  7.39266E-01
#           7.57253E-01  7.75678E-01  7.94551E-01  8.13883E-01  8.33685E-01
#           8.53969E-01  8.74747E-01  8.96030E-01  9.17831E-01  9.40163E-01
#           9.63038E-01  9.86469E-01  1.01047E+00  1.03506E+00  1.06024E+00
#           1.08604E+00  1.11246E+00  1.13953E+00  1.16725E+00  1.19565E+00
#           1.22474E+00  1.25454E+00  1.28507E+00  1.31633E+00  1.34836E+00
#           1.38117E+00  1.41477E+00  1.44920E+00  1.48446E+00  1.52057E+00
#           1.55757E+00  1.59547E+00  1.63429E+00  1.67405E+00  1.71478E+00
#           1.75650E+00  1.79924E+00  1.84302E+00  1.88786E+00  1.93379E+00
#           1.98084E+00  2.02904E+00  2.07841E+00  2.12898E+00  2.18078E+00
#           2.23384E+00  2.28819E+00  2.34386E+00  2.40089E+00  2.45930E+00
#           2.51914E+00  2.58043E+00  2.64322E+00  2.70753E+00  2.77341E+00
#           2.84088E+00  2.91001E+00  2.98081E+00  3.05333E+00  3.12762E+00
#           3.20372E+00  3.28167E+00  3.36152E+00  3.44330E+00  3.52708E+00
#           3.61290E+00  3.70080E+00  3.79085E+00  3.88308E+00  3.97756E+00
#           4.07434E+00  4.17347E+00  4.27501E+00  4.37903E+00  4.48557E+00
#           4.59471E+00  4.70650E+00  4.82102E+00  4.93832E+00  5.05847E+00
#           5.18155E+00  5.30762E+00  5.43676E+00  5.56904E+00  5.70453E+00
#           5.84333E+00  5.98550E+00  6.13114E+00  6.28031E+00  6.43312E+00
#           6.58964E+00  6.74997E+00  6.91420E+00  7.08243E+00  7.25475E+00
#           7.43126E+00  7.61207E+00  7.79728E+00  7.98700E+00  8.18133E+00
#           8.38038E+00  8.58428E+00  8.79315E+00  9.00709E+00  9.22624E+00
#           9.45072E+00  9.68067E+00  9.91620E+00  1.01575E+01  1.04046E+01
#           1.06578E+01  1.09171E+01  1.11827E+01  1.14548E+01  1.17335E+01
#           1.20190E+01  1.23114E+01  1.26109E+01  1.29178E+01  1.32321E+01
#           1.35540E+01  1.38838E+01  1.42216E+01  1.45676E+01  1.49221E+01
#           1.52851E+01  1.56570E+01  1.60380E+01  1.64282E+01  1.68279E+01
#           1.72374E+01  1.76568E+01  1.80864E+01  1.85264E+01  1.89772E+01
#           1.94389E+01  1.99119E+01  2.03963E+01  2.08926E+01  2.14009E+01
#           2.19216E+01  2.24550E+01  2.30014E+01  2.35610E+01  2.41343E+01
#           2.47215E+01  2.53230E+01  2.59391E+01  2.65702E+01  2.72167E+01
#           2.78789E+01  2.85572E+01  2.92520E+01  2.99637E+01  3.06928E+01
#           3.14396E+01  3.22045E+01  3.29881E+01  3.37907E+01  3.46128E+01
#           3.54550E+01  3.63177E+01  3.72013E+01  3.81064E+01  3.90336E+01
#           3.99833E+01  4.09561E+01  4.19526E+01  4.29734E+01  4.40189E+01
#           4.50900E+01  4.61870E+01  4.73108E+01  4.84619E+01  4.96410E+01
#           5.08488E+01  5.20860E+01  5.33533E+01  5.46514E+01  5.59812E+01
#           5.73432E+01  5.87384E+01  6.01676E+01  6.16315E+01  6.31311E+01
#           6.46671E+01  6.62405E+01  6.78522E+01  6.95031E+01  7.11941E+01
#           7.29263E+01  7.47007E+01  7.65182E+01  7.83800E+01  8.02870E+01
#           8.22405E+01  8.42414E+01  8.62911E+01  8.83906E+01  9.05412E+01
#           9.27442E+01  9.50007E+01  9.73122E+01  9.96799E+01  1.02105E+02
#           1.04589E+02  1.07134E+02  1.09741E+02  1.12411E+02  1.15146E+02
#           1.17948E+02  1.20817E+02  1.23757E+02  1.26768E+02  1.29852E+02
#           1.33012E+02  1.36248E+02  1.39563E+02  1.42959E+02  1.46437E+02
#           1.50000E+02
     unit =    2            # unit is [1/cm^2/(MeV/n)/source]
     axis =  eng            # axis of output
     file = detector-10.out  # file name of output for the above axis
   output = f-curr          # surface crossing forward current spectrum
     part =  neutron  
# kf/name :  2112     
#    used :        main (  %)        temp (  %)       total (  %)
#  memory :         414 (  0)           0 (  0)         414 (  0)

#------------------------------------------------------------------------------
#newpage:
#   no. =    1   reg = 109 - 209

x: Energy [MeV/n]
y:  F-Curr [1/cm^2/(MeV/n)/source]         
p: xlog ylog afac(0.8) form(0.9)
h: n            x            y(neutron ),hh0l   n 
#  e-lower      e-upper      neutron     r.err 
   1.0000E-02   1.0243E-02   4.6690E-03  0.0420
   1.0243E-02   1.0493E-02   4.6464E-03  0.0416
   1.0493E-02   1.0748E-02   4.7945E-03  0.0404
   1.0748E-02   1.1009E-02   4.6653E-03  0.0405
   1.1009E-02   1.1277E-02   4.8158E-03  0.0394
   1.1277E-02   1.1552E-02   4.7452E-03  0.0392
   1.1552E-02   1.1833E-02   4.2909E-03  0.0407
   1.1833E-02   1.2121E-02   4.4321E-03  0.0396
   1.2121E-02   1.2415E-02   4.4184E-03  0.0392
   1.2415E-02   1.2718E-02   4.3962E-03  0.0388
   1.2718E-02   1.3027E-02   4.7313E-03  0.0370
   1.3027E-02   1.3344E-02   4.8840E-03  0.0359
   1.3344E-02   1.3669E-02   4.5585E-03  0.0368
   1.3669E-02   1.4001E-02   4.5104E-03  0.0365
   1.4001E-02   1.4342E-02   4.5794E-03  0.0358
   1.4342E-02   1.4691E-02   5.0151E-03  0.0338
   1.4691E-02   1.5048E-02   4.6498E-03  0.0347
   1.5048E-02   1.5414E-02   4.6759E-03  0.0342
   1.5414E-02   1.5789E-02   4.5275E-03  0.0343
   1.5789E-02   1.6174E-02   4.4199E-03  0.0343
   1.6174E-02   1.6567E-02   4.6301E-03  0.0331
   1.6567E-02   1.6970E-02   4.7583E-03  0.0323
   1.6970E-02   1.7383E-02   4.4805E-03  0.0329
   1.7383E-02   1.7806E-02   4.5396E-03  0.0323
   1.7806E-02   1.8239E-02   4.6418E-03  0.0315
   1.8239E-02   1.8683E-02   4.6375E-03  0.0312
   1.8683E-02   1.9138E-02   4.5625E-03  0.0311
   1.9138E-02   1.9603E-02   4.6818E-03  0.0303
   1.9603E-02   2.0080E-02   4.7551E-03  0.0297
   2.0080E-02   2.0569E-02   4.9942E-03  0.0286
   2.0569E-02   2.1069E-02   4.5679E-03  0.0296
   2.1069E-02   2.1582E-02   4.6817E-03  0.0289
   2.1582E-02   2.2107E-02   4.6029E-03  0.0288
   2.2107E-02   2.2645E-02   4.8970E-03  0.0276
   2.2645E-02   2.3196E-02   4.5357E-03  0.0283
   2.3196E-02   2.3760E-02   4.6937E-03  0.0275
   2.3760E-02   2.4338E-02   4.5182E-03  0.0277
   2.4338E-02   2.4930E-02   4.6575E-03  0.0269
   2.4930E-02   2.5537E-02   4.4710E-03  0.0272
   2.5537E-02   2.6158E-02   4.6304E-03  0.0264
   2.6158E-02   2.6795E-02   4.4088E-03  0.0267
   2.6795E-02   2.7447E-02   4.6845E-03  0.0256
   2.7447E-02   2.8114E-02   4.5972E-03  0.0255
   2.8114E-02   2.8799E-02   4.5552E-03  0.0253
   2.8799E-02   2.9499E-02   4.8381E-03  0.0243
   2.9499E-02   3.0217E-02   4.5922E-03  0.0246
   3.0217E-02   3.0952E-02   4.4260E-03  0.0248
   3.0952E-02   3.1705E-02   4.6369E-03  0.0239
   3.1705E-02   3.2477E-02   4.5242E-03  0.0239
   3.2477E-02   3.3267E-02   4.6015E-03  0.0235
   3.3267E-02   3.4076E-02   4.5070E-03  0.0234
   3.4076E-02   3.4905E-02   4.7304E-03  0.0226
   3.4905E-02   3.5755E-02   4.6675E-03  0.0225
   3.5755E-02   3.6625E-02   4.4164E-03  0.0228
   3.6625E-02   3.7516E-02   4.7379E-03  0.0218
   3.7516E-02   3.8428E-02   4.5947E-03  0.0218
   3.8428E-02   3.9363E-02   4.3679E-03  0.0221
   3.9363E-02   4.0321E-02   4.6192E-03  0.0213
   4.0321E-02   4.1302E-02   4.5747E-03  0.0211
   4.1302E-02   4.2307E-02   4.5317E-03  0.0210
   4.2307E-02   4.3337E-02   4.7505E-03  0.0202
   4.3337E-02   4.4391E-02   4.5675E-03  0.0204
   4.4391E-02   4.5471E-02   4.4784E-03  0.0203
   4.5471E-02   4.6577E-02   4.4471E-03  0.0202
   4.6577E-02   4.7711E-02   4.4659E-03  0.0199
   4.7711E-02   4.8871E-02   4.4726E-03  0.0196
   4.8871E-02   5.0061E-02   4.4530E-03  0.0194
   5.0061E-02   5.1279E-02   4.3119E-03  0.0195
   5.1279E-02   5.2526E-02   4.3859E-03  0.0191
   5.2526E-02   5.3804E-02   4.3983E-03  0.0189
   5.3804E-02   5.5113E-02   4.3236E-03  0.0188
   5.5113E-02   5.6454E-02   4.4834E-03  0.0182
   5.6454E-02   5.7828E-02   4.4868E-03  0.0180
   5.7828E-02   5.9235E-02   4.4122E-03  0.0179
   5.9235E-02   6.0676E-02   4.4323E-03  0.0177
   6.0676E-02   6.2152E-02   4.3054E-03  0.0177
   6.2152E-02   6.3665E-02   4.4246E-03  0.0173
   6.3665E-02   6.5214E-02   4.2647E-03  0.0174
   6.5214E-02   6.6800E-02   4.4312E-03  0.0169
   6.6800E-02   6.8426E-02   4.2454E-03  0.0170
   6.8426E-02   7.0090E-02   4.4364E-03  0.0165
   7.0090E-02   7.1796E-02   4.3399E-03  0.0164
   7.1796E-02   7.3543E-02   4.2648E-03  0.0164
   7.3543E-02   7.5332E-02   4.1540E-03  0.0164
   7.5332E-02   7.7165E-02   4.3729E-03  0.0158
   7.7165E-02   7.9042E-02   4.2557E-03  0.0158
   7.9042E-02   8.0965E-02   4.3023E-03  0.0155
   8.0965E-02   8.2935E-02   4.3118E-03  0.0153
   8.2935E-02   8.4953E-02   4.1955E-03  0.0154
   8.4953E-02   8.7020E-02   4.1926E-03  0.0152
   8.7020E-02   8.9138E-02   4.2158E-03  0.0150
   8.9138E-02   9.1306E-02   4.2429E-03  0.0147
   9.1306E-02   9.3528E-02   4.2457E-03  0.0146
   9.3528E-02   9.5804E-02   4.1497E-03  0.0146
   9.5804E-02   9.8134E-02   4.0219E-03  0.0146
   9.8134E-02   1.0052E-01   4.1379E-03  0.0142
   1.0052E-01   1.0297E-01   4.0560E-03  0.0142
   1.0297E-01   1.0547E-01   4.1448E-03  0.0139
   1.0547E-01   1.0804E-01   4.1146E-03  0.0138
   1.0804E-01   1.1067E-01   4.0412E-03  0.0137
   1.1067E-01   1.1336E-01   4.1030E-03  0.0135
   1.1336E-01   1.1612E-01   4.1441E-03  0.0132
   1.1612E-01   1.1894E-01   4.0117E-03  0.0133
   1.1894E-01   1.2184E-01   3.9962E-03  0.0132
   1.2184E-01   1.2480E-01   4.0386E-03  0.0129
   1.2480E-01   1.2784E-01   4.0141E-03  0.0128
   1.2784E-01   1.3095E-01   3.9583E-03  0.0127
   1.3095E-01   1.3414E-01   3.9603E-03  0.0126
   1.3414E-01   1.3740E-01   3.9943E-03  0.0124
   1.3740E-01   1.4074E-01   3.9473E-03  0.0123
   1.4074E-01   1.4417E-01   3.7946E-03  0.0124
   1.4417E-01   1.4767E-01   3.8815E-03  0.0121
   1.4767E-01   1.5127E-01   3.9045E-03  0.0119
   1.5127E-01   1.5495E-01   3.8199E-03  0.0119
   1.5495E-01   1.5872E-01   3.8666E-03  0.0117
   1.5872E-01   1.6258E-01   3.7271E-03  0.0118
   1.6258E-01   1.6654E-01   3.7450E-03  0.0116
   1.6654E-01   1.7059E-01   3.7476E-03  0.0115
   1.7059E-01   1.7474E-01   3.7015E-03  0.0114
   1.7474E-01   1.7899E-01   3.7342E-03  0.0112
   1.7899E-01   1.8334E-01   3.6795E-03  0.0112
   1.8334E-01   1.8781E-01   3.6524E-03  0.0111
   1.8781E-01   1.9237E-01   3.5862E-03  0.0110
   1.9237E-01   1.9706E-01   3.5643E-03  0.0109
   1.9706E-01   2.0185E-01   3.5390E-03  0.0109
   2.0185E-01   2.0676E-01   3.5165E-03  0.0108
   2.0676E-01   2.1179E-01   3.5618E-03  0.0106
   2.1179E-01   2.1694E-01   3.4872E-03  0.0105
   2.1694E-01   2.2222E-01   3.5185E-03  0.0104
   2.2222E-01   2.2763E-01   3.4147E-03  0.0104
   2.2763E-01   2.3317E-01   3.3854E-03  0.0103
   2.3317E-01   2.3884E-01   3.3087E-03  0.0103
   2.3884E-01   2.4465E-01   3.3046E-03  0.0102
   2.4465E-01   2.5061E-01   3.2967E-03  0.0101
   2.5061E-01   2.5670E-01   3.2023E-03  0.0101
   2.5670E-01   2.6295E-01   3.3455E-03  0.0098
   2.6295E-01   2.6935E-01   3.2555E-03  0.0098
   2.6935E-01   2.7590E-01   3.2209E-03  0.0097
   2.7590E-01   2.8261E-01   3.1565E-03  0.0097
   2.8261E-01   2.8949E-01   3.0879E-03  0.0097
   2.8949E-01   2.9653E-01   3.0544E-03  0.0096
   2.9653E-01   3.0375E-01   3.0692E-03  0.0095
   3.0375E-01   3.1114E-01   3.0153E-03  0.0095
   3.1114E-01   3.1871E-01   2.9528E-03  0.0095
   3.1871E-01   3.2646E-01   2.9214E-03  0.0094
   3.2646E-01   3.3441E-01   2.8699E-03  0.0094
   3.3441E-01   3.4254E-01   2.8861E-03  0.0092
   3.4254E-01   3.5088E-01   2.8470E-03  0.0092
   3.5088E-01   3.5941E-01   2.7906E-03  0.0092
   3.5941E-01   3.6816E-01   2.7468E-03  0.0091
   3.6816E-01   3.7712E-01   2.7063E-03  0.0091
   3.7712E-01   3.8629E-01   2.6609E-03  0.0091
   3.8629E-01   3.9569E-01   2.6580E-03  0.0089
   3.9569E-01   4.0532E-01   2.6657E-03  0.0088
   4.0532E-01   4.1518E-01   2.5399E-03  0.0089
   4.1518E-01   4.2528E-01   2.5370E-03  0.0088
   4.2528E-01   4.3563E-01   2.4471E-03  0.0089
   4.3563E-01   4.4623E-01   2.4266E-03  0.0088
   4.4623E-01   4.5708E-01   2.3761E-03  0.0088
   4.5708E-01   4.6821E-01   2.3270E-03  0.0088
   4.6821E-01   4.7960E-01   2.3032E-03  0.0087
   4.7960E-01   4.9127E-01   2.2220E-03  0.0088
   4.9127E-01   5.0322E-01   2.1944E-03  0.0087
   5.0322E-01   5.1546E-01   2.1508E-03  0.0087
   5.1546E-01   5.2800E-01   2.1429E-03  0.0086
   5.2800E-01   5.4085E-01   2.0567E-03  0.0087
   5.4085E-01   5.5401E-01   2.0177E-03  0.0087
   5.5401E-01   5.6749E-01   1.9830E-03  0.0087
   5.6749E-01   5.8130E-01   1.8775E-03  0.0088
   5.8130E-01   5.9544E-01   1.8700E-03  0.0087
   5.9544E-01   6.0993E-01   1.8234E-03  0.0087
   6.0993E-01   6.2477E-01   1.7701E-03  0.0087
   6.2477E-01   6.3997E-01   1.7053E-03  0.0088
   6.3997E-01   6.5554E-01   1.6858E-03  0.0087
   6.5554E-01   6.7149E-01   1.6105E-03  0.0088
   6.7149E-01   6.8783E-01   1.5711E-03  0.0088
   6.8783E-01   7.0456E-01   1.5290E-03  0.0088
   7.0456E-01   7.2171E-01   1.4757E-03  0.0089
   7.2171E-01   7.3927E-01   1.4431E-03  0.0089
   7.3927E-01   7.5725E-01   1.3891E-03  0.0089
   7.5725E-01   7.7568E-01   1.3231E-03  0.0091
   7.7568E-01   7.9455E-01   1.2962E-03  0.0090
   7.9455E-01   8.1388E-01   1.2423E-03  0.0091
   8.1388E-01   8.3368E-01   1.1861E-03  0.0092
   8.3368E-01   8.5397E-01   1.1493E-03  0.0093
   8.5397E-01   8.7475E-01   1.0960E-03  0.0094
   8.7475E-01   8.9603E-01   1.0475E-03  0.0095
   8.9603E-01   9.1783E-01   1.0203E-03  0.0095
   9.1783E-01   9.4016E-01   9.8117E-04  0.0096
   9.4016E-01   9.6304E-01   9.0807E-04  0.0098
   9.6304E-01   9.8647E-01   8.9555E-04  0.0098
   9.8647E-01   1.0105E+00   8.6169E-04  0.0098
   1.0105E+00   1.0351E+00   8.7739E-04  0.0096
   1.0351E+00   1.0602E+00   8.7771E-04  0.0095
   1.0602E+00   1.0860E+00   9.2540E-04  0.0092
   1.0860E+00   1.1125E+00   9.2135E-04  0.0091
   1.1125E+00   1.1395E+00   9.5770E-04  0.0088
   1.1395E+00   1.1673E+00   9.8065E-04  0.0086
   1.1673E+00   1.1957E+00   1.0169E-03  0.0083
   1.1957E+00   1.2247E+00   1.0482E-03  0.0081
   1.2247E+00   1.2545E+00   1.0606E-03  0.0080
   1.2545E+00   1.2851E+00   1.0917E-03  0.0077
   1.2851E+00   1.3163E+00   1.1088E-03  0.0076
   1.3163E+00   1.3484E+00   1.1143E-03  0.0075
   1.3484E+00   1.3812E+00   1.1512E-03  0.0073
   1.3812E+00   1.4148E+00   1.1677E-03  0.0071
   1.4148E+00   1.4492E+00   1.1792E-03  0.0070
   1.4492E+00   1.4845E+00   1.1617E-03  0.0070
   1.4845E+00   1.5206E+00   1.1831E-03  0.0068
   1.5206E+00   1.5576E+00   1.1877E-03  0.0067
   1.5576E+00   1.5955E+00   1.2077E-03  0.0066
   1.5955E+00   1.6343E+00   1.2249E-03  0.0065
   1.6343E+00   1.6741E+00   1.2507E-03  0.0063
   1.6741E+00   1.7148E+00   1.2665E-03  0.0062
   1.7148E+00   1.7565E+00   1.2585E-03  0.0062
   1.7565E+00   1.7992E+00   1.2513E-03  0.0061
   1.7992E+00   1.8430E+00   1.2532E-03  0.0060
   1.8430E+00   1.8879E+00   1.2504E-03  0.0060
   1.8879E+00   1.9338E+00   1.2552E-03  0.0059
   1.9338E+00   1.9808E+00   1.2649E-03  0.0058
   1.9808E+00   2.0290E+00   1.2822E-03  0.0057
   2.0290E+00   2.0784E+00   1.2637E-03  0.0057
   2.0784E+00   2.1290E+00   1.2546E-03  0.0056
   2.1290E+00   2.1808E+00   1.2360E-03  0.0056
   2.1808E+00   2.2338E+00   1.2229E-03  0.0056
   2.2338E+00   2.2882E+00   1.2142E-03  0.0055
   2.2882E+00   2.3439E+00   1.2163E-03  0.0054
   2.3439E+00   2.4009E+00   1.2264E-03  0.0053
   2.4009E+00   2.4593E+00   1.2199E-03  0.0053
   2.4593E+00   2.5191E+00   1.2060E-03  0.0053
   2.5191E+00   2.5804E+00   1.1730E-03  0.0053
   2.5804E+00   2.6432E+00   1.1535E-03  0.0053
   2.6432E+00   2.7075E+00   1.1541E-03  0.0052
   2.7075E+00   2.7734E+00   1.1082E-03  0.0052
   2.7734E+00   2.8409E+00   1.1144E-03  0.0052
   2.8409E+00   2.9100E+00   1.1035E-03  0.0051
   2.9100E+00   2.9808E+00   1.0915E-03  0.0051
   2.9808E+00   3.0533E+00   1.0754E-03  0.0051
   3.0533E+00   3.1276E+00   1.0504E-03  0.0051
   3.1276E+00   3.2037E+00   1.0300E-03  0.0051
   3.2037E+00   3.2817E+00   1.0085E-03  0.0050
   3.2817E+00   3.3615E+00   9.8357E-04  0.0050
   3.3615E+00   3.4433E+00   9.5473E-04  0.0051
   3.4433E+00   3.5271E+00   9.4616E-04  0.0050
   3.5271E+00   3.6129E+00   9.3058E-04  0.0050
   3.6129E+00   3.7008E+00   9.0681E-04  0.0050
   3.7008E+00   3.7908E+00   8.7821E-04  0.0050
   3.7908E+00   3.8831E+00   8.5762E-04  0.0050
   3.8831E+00   3.9776E+00   8.3778E-04  0.0050
   3.9776E+00   4.0743E+00   8.1758E-04  0.0050
   4.0743E+00   4.1735E+00   7.9204E-04  0.0050
   4.1735E+00   4.2750E+00   7.7222E-04  0.0051
   4.2750E+00   4.3790E+00   7.4196E-04  0.0051
   4.3790E+00   4.4856E+00   7.1702E-04  0.0051
   4.4856E+00   4.5947E+00   7.0550E-04  0.0051
   4.5947E+00   4.7065E+00   6.7459E-04  0.0052
   4.7065E+00   4.8210E+00   6.5666E-04  0.0052
   4.8210E+00   4.9383E+00   6.4854E-04  0.0051
   4.9383E+00   5.0585E+00   6.2727E-04  0.0052
   5.0585E+00   5.1815E+00   6.0713E-04  0.0052
   5.1815E+00   5.3076E+00   5.8458E-04  0.0052
   5.3076E+00   5.4368E+00   5.6057E-04  0.0053
   5.4368E+00   5.5690E+00   5.4587E-04  0.0053
   5.5690E+00   5.7045E+00   5.2285E-04  0.0053
   5.7045E+00   5.8433E+00   5.1001E-04  0.0053
   5.8433E+00   5.9855E+00   4.8923E-04  0.0054
   5.9855E+00   6.1311E+00   4.8080E-04  0.0053
   6.1311E+00   6.2803E+00   4.5723E-04  0.0054
   6.2803E+00   6.4331E+00   4.4593E-04  0.0054
   6.4331E+00   6.5896E+00   4.2948E-04  0.0055
   6.5896E+00   6.7500E+00   4.1441E-04  0.0055
   6.7500E+00   6.9142E+00   4.0555E-04  0.0055
   6.9142E+00   7.0824E+00   3.9635E-04  0.0055
   7.0824E+00   7.2548E+00   3.7945E-04  0.0055
   7.2548E+00   7.4313E+00   3.6826E-04  0.0055
   7.4313E+00   7.6121E+00   3.5408E-04  0.0056
   7.6121E+00   7.7973E+00   3.4906E-04  0.0056
   7.7973E+00   7.9870E+00   3.3840E-04  0.0056
   7.9870E+00   8.1813E+00   3.2661E-04  0.0056
   8.1813E+00   8.3804E+00   3.1479E-04  0.0056
   8.3804E+00   8.5843E+00   3.1043E-04  0.0056
   8.5843E+00   8.7931E+00   3.0105E-04  0.0056
   8.7931E+00   9.0071E+00   2.9235E-04  0.0057
   9.0071E+00   9.2262E+00   2.8612E-04  0.0056
   9.2262E+00   9.4507E+00   2.7781E-04  0.0057
   9.4507E+00   9.6807E+00   2.6949E-04  0.0057
   9.6807E+00   9.9162E+00   2.6229E-04  0.0057
   9.9162E+00   1.0157E+01   2.5498E-04  0.0057
   1.0157E+01   1.0405E+01   2.5063E-04  0.0057
   1.0405E+01   1.0658E+01   2.4085E-04  0.0057
   1.0658E+01   1.0917E+01   2.3465E-04  0.0057
   1.0917E+01   1.1183E+01   2.2986E-04  0.0057
   1.1183E+01   1.1455E+01   2.2605E-04  0.0057
   1.1455E+01   1.1733E+01   2.1677E-04  0.0058
   1.1733E+01   1.2019E+01   2.1218E-04  0.0057
   1.2019E+01   1.2311E+01   2.0721E-04  0.0057
   1.2311E+01   1.2611E+01   1.9924E-04  0.0058
   1.2611E+01   1.2918E+01   1.9479E-04  0.0058
   1.2918E+01   1.3232E+01   1.8948E-04  0.0058
   1.3232E+01   1.3554E+01   1.8458E-04  0.0058
   1.3554E+01   1.3884E+01   1.7736E-04  0.0058
   1.3884E+01   1.4222E+01   1.7281E-04  0.0059
   1.4222E+01   1.4568E+01   1.6808E-04  0.0059
   1.4568E+01   1.4922E+01   1.6220E-04  0.0059
   1.4922E+01   1.5285E+01   1.5868E-04  0.0059
   1.5285E+01   1.5657E+01   1.5233E-04  0.0059
   1.5657E+01   1.6038E+01   1.4593E-04  0.0060
   1.6038E+01   1.6428E+01   1.4057E-04  0.0060
   1.6428E+01   1.6828E+01   1.3539E-04  0.0061
   1.6828E+01   1.7237E+01   1.3103E-04  0.0061
   1.7237E+01   1.7657E+01   1.2546E-04  0.0062
   1.7657E+01   1.8086E+01   1.2092E-04  0.0062
   1.8086E+01   1.8526E+01   1.1494E-04  0.0063
   1.8526E+01   1.8977E+01   1.1006E-04  0.0064
   1.8977E+01   1.9439E+01   1.0446E-04  0.0064
   1.9439E+01   1.9912E+01   1.0109E-04  0.0065
   1.9912E+01   2.0396E+01   9.7046E-05  0.0065
   2.0396E+01   2.0893E+01   9.2851E-05  0.0066
   2.0893E+01   2.1401E+01   8.9127E-05  0.0066
   2.1401E+01   2.1922E+01   8.5435E-05  0.0067
   2.1922E+01   2.2455E+01   7.9479E-05  0.0069
   2.2455E+01   2.3001E+01   7.5648E-05  0.0070
   2.3001E+01   2.3561E+01   7.1378E-05  0.0071
   2.3561E+01   2.4134E+01   6.7184E-05  0.0072
   2.4134E+01   2.4721E+01   6.4393E-05  0.0073
   2.4721E+01   2.5323E+01   6.0546E-05  0.0074
   2.5323E+01   2.5939E+01   5.7254E-05  0.0075
   2.5939E+01   2.6570E+01   5.4487E-05  0.0076
   2.6570E+01   2.7217E+01   5.1312E-05  0.0078
   2.7217E+01   2.7879E+01   4.7919E-05  0.0079
   2.7879E+01   2.8557E+01   4.5303E-05  0.0081
   2.8557E+01   2.9252E+01   4.2892E-05  0.0082
   2.9252E+01   2.9964E+01   4.0083E-05  0.0084
   2.9964E+01   3.0693E+01   3.7079E-05  0.0086
   3.0693E+01   3.1440E+01   3.4827E-05  0.0088
   3.1440E+01   3.2205E+01   3.2619E-05  0.0090
   3.2205E+01   3.2988E+01   3.0290E-05  0.0092
   3.2988E+01   3.3791E+01   2.8668E-05  0.0093
   3.3791E+01   3.4613E+01   2.5786E-05  0.0097
   3.4613E+01   3.5455E+01   2.4190E-05  0.0099
   3.5455E+01   3.6318E+01   2.2079E-05  0.0102
   3.6318E+01   3.7201E+01   2.1117E-05  0.0104
   3.7201E+01   3.8106E+01   1.8868E-05  0.0108
   3.8106E+01   3.9034E+01   1.7779E-05  0.0110
   3.9034E+01   3.9983E+01   1.6083E-05  0.0114
   3.9983E+01   4.0956E+01   1.5205E-05  0.0116
   4.0956E+01   4.1953E+01   1.3596E-05  0.0121
   4.1953E+01   4.2973E+01   1.2908E-05  0.0123
   4.2973E+01   4.4019E+01   1.1546E-05  0.0129
   4.4019E+01   4.5090E+01   1.0235E-05  0.0135
   4.5090E+01   4.6187E+01   9.4688E-06  0.0139
   4.6187E+01   4.7311E+01   8.6815E-06  0.0143
   4.7311E+01   4.8462E+01   7.7994E-06  0.0149
   4.8462E+01   4.9641E+01   7.0765E-06  0.0155
   4.9641E+01   5.0849E+01   6.3934E-06  0.0161
   5.0849E+01   5.2086E+01   5.6741E-06  0.0169
   5.2086E+01   5.3353E+01   4.9886E-06  0.0178
   5.3353E+01   5.4651E+01   4.4449E-06  0.0186
   5.4651E+01   5.5981E+01   4.0324E-06  0.0193
   5.5981E+01   5.7343E+01   3.5725E-06  0.0203
   5.7343E+01   5.8738E+01   3.0074E-06  0.0218
   5.8738E+01   6.0168E+01   2.7835E-06  0.0224
   6.0168E+01   6.1632E+01   2.2952E-06  0.0244
   6.1632E+01   6.3131E+01   2.0993E-06  0.0252
   6.3131E+01   6.4667E+01   1.6731E-06  0.0279
   6.4667E+01   6.6240E+01   1.4415E-06  0.0297
   6.6240E+01   6.7852E+01   1.2620E-06  0.0314
   6.7852E+01   6.9503E+01   9.8734E-07  0.0350
   6.9503E+01   7.1194E+01   8.5627E-07  0.0372
   7.1194E+01   7.2926E+01   6.3041E-07  0.0428
   7.2926E+01   7.4701E+01   4.3396E-07  0.0510
   7.4701E+01   7.6518E+01   3.5213E-07  0.0559
   7.6518E+01   7.8380E+01   1.7188E-07  0.0791
   7.8380E+01   8.0287E+01   4.8242E-08  0.1474
   8.0287E+01   8.2240E+01   0.0000E+00  0.0000
   8.2240E+01   8.4241E+01   0.0000E+00  0.0000
   8.4241E+01   8.6291E+01   0.0000E+00  0.0000
   8.6291E+01   8.8391E+01   0.0000E+00  0.0000
   8.8391E+01   9.0541E+01   0.0000E+00  0.0000
   9.0541E+01   9.2744E+01   0.0000E+00  0.0000
   9.2744E+01   9.5001E+01   0.0000E+00  0.0000
   9.5001E+01   9.7312E+01   0.0000E+00  0.0000
   9.7312E+01   9.9680E+01   0.0000E+00  0.0000
   9.9680E+01   1.0211E+02   0.0000E+00  0.0000
   1.0211E+02   1.0459E+02   0.0000E+00  0.0000
   1.0459E+02   1.0713E+02   0.0000E+00  0.0000
   1.0713E+02   1.0974E+02   0.0000E+00  0.0000
   1.0974E+02   1.1241E+02   0.0000E+00  0.0000
   1.1241E+02   1.1515E+02   0.0000E+00  0.0000
   1.1515E+02   1.1795E+02   0.0000E+00  0.0000
   1.1795E+02   1.2082E+02   0.0000E+00  0.0000
   1.2082E+02   1.2376E+02   0.0000E+00  0.0000
   1.2376E+02   1.2677E+02   0.0000E+00  0.0000
   1.2677E+02   1.2985E+02   0.0000E+00  0.0000
   1.2985E+02   1.3301E+02   0.0000E+00  0.0000
   1.3301E+02   1.3625E+02   0.0000E+00  0.0000
   1.3625E+02   1.3956E+02   0.0000E+00  0.0000
   1.3956E+02   1.4296E+02   0.0000E+00  0.0000
   1.4296E+02   1.4644E+02   0.0000E+00  0.0000
   1.4644E+02   1.5000E+02   0.0000E+00  0.0000

#   sum over                 7.2986E-05
'no. =    1   reg = 109 - 209'
msuc: {\huge [t-cross] in region mesh}
msdr: {\it plotted by \ANGEL \version}
msdl: {\it calculated by \PHITS  3.26}
wt: s(0.7)
\vspace{-3}
  region surface crossing
  area  &=&   1.0000E+00 [cm^2]
e:
 
# Information for Restart Calculation
# This calculation was newly started
# istdev =  2 # 1:Batch variance, 2:History variance
# resc2  = 5.00000000000000000E+08 # Total source weight or Total source weight / maxcas
# resc3  = 5.00000000000000000E+08 # Total history number or Total batch number
# maxcas =   500000000 # History / Batch, only used for istdev=1
# bitrseed = 1101101111010011011000101101110001100110110010110001010100010001 # bit data of rseed
