[ T-Cross ]
    title = [t-cross] in region mesh
     mesh =  reg            # mesh type is region-wise
      reg =    1            # number of crossing regions
      non     r-from    r-to       area
      1       105       205        1.000000    
   e-type =    3            # e-mesh is log given by emin, emax and ne
     emin =  1.0000000E-02  # minimum value of e-mesh points
     emax =   150.0000      # maximum value of e-mesh points
#    edel =  2.4039514E-02  # mesh width of e-mesh points
       ne =    400          # number of e-mesh points
#    data = ( e(i), i = 1, ne + 1 )
#           1.00000E-02  1.02433E-02  1.04925E-02  1.07478E-02  1.10093E-02
#           1.12772E-02  1.15516E-02  1.18326E-02  1.21205E-02  1.24154E-02
#           1.27175E-02  1.30269E-02  1.33439E-02  1.36686E-02  1.40011E-02
#           1.43418E-02  1.46907E-02  1.50482E-02  1.54143E-02  1.57894E-02
#           1.61735E-02  1.65670E-02  1.69701E-02  1.73830E-02  1.78060E-02
#           1.82392E-02  1.86830E-02  1.91375E-02  1.96032E-02  2.00801E-02
#           2.05687E-02  2.10692E-02  2.15818E-02  2.21069E-02  2.26448E-02
#           2.31957E-02  2.37601E-02  2.43382E-02  2.49304E-02  2.55369E-02
#           2.61583E-02  2.67947E-02  2.74467E-02  2.81145E-02  2.87985E-02
#           2.94992E-02  3.02169E-02  3.09521E-02  3.17052E-02  3.24766E-02
#           3.32668E-02  3.40762E-02  3.49053E-02  3.57546E-02  3.66246E-02
#           3.75157E-02  3.84284E-02  3.93634E-02  4.03212E-02  4.13022E-02
#           4.23071E-02  4.33365E-02  4.43909E-02  4.54710E-02  4.65773E-02
#           4.77106E-02  4.88714E-02  5.00605E-02  5.12785E-02  5.25262E-02
#           5.38042E-02  5.51133E-02  5.64542E-02  5.78278E-02  5.92348E-02
#           6.06760E-02  6.21523E-02  6.36645E-02  6.52135E-02  6.68002E-02
#           6.84255E-02  7.00904E-02  7.17957E-02  7.35426E-02  7.53319E-02
#           7.71648E-02  7.90423E-02  8.09655E-02  8.29354E-02  8.49533E-02
#           8.70203E-02  8.91376E-02  9.13064E-02  9.35279E-02  9.58035E-02
#           9.81345E-02  1.00522E-01  1.02968E-01  1.05473E-01  1.08040E-01
#           1.10668E-01  1.13361E-01  1.16119E-01  1.18944E-01  1.21838E-01
#           1.24803E-01  1.27839E-01  1.30950E-01  1.34136E-01  1.37399E-01
#           1.40742E-01  1.44167E-01  1.47675E-01  1.51268E-01  1.54948E-01
#           1.58718E-01  1.62580E-01  1.66535E-01  1.70587E-01  1.74738E-01
#           1.78989E-01  1.83344E-01  1.87805E-01  1.92375E-01  1.97055E-01
#           2.01850E-01  2.06761E-01  2.11792E-01  2.16945E-01  2.22223E-01
#           2.27630E-01  2.33169E-01  2.38842E-01  2.44653E-01  2.50605E-01
#           2.56703E-01  2.62949E-01  2.69346E-01  2.75900E-01  2.82613E-01
#           2.89489E-01  2.96532E-01  3.03747E-01  3.11138E-01  3.18708E-01
#           3.26462E-01  3.34405E-01  3.42542E-01  3.50876E-01  3.59413E-01
#           3.68158E-01  3.77116E-01  3.86291E-01  3.95690E-01  4.05317E-01
#           4.15179E-01  4.25281E-01  4.35628E-01  4.46227E-01  4.57084E-01
#           4.68205E-01  4.79597E-01  4.91266E-01  5.03219E-01  5.15463E-01
#           5.28005E-01  5.40851E-01  5.54011E-01  5.67490E-01  5.81298E-01
#           5.95441E-01  6.09929E-01  6.24769E-01  6.39970E-01  6.55541E-01
#           6.71491E-01  6.87828E-01  7.04564E-01  7.21706E-01  7.39266E-01
#           7.57253E-01  7.75678E-01  7.94551E-01  8.13883E-01  8.33685E-01
#           8.53969E-01  8.74747E-01  8.96030E-01  9.17831E-01  9.40163E-01
#           9.63038E-01  9.86469E-01  1.01047E+00  1.03506E+00  1.06024E+00
#           1.08604E+00  1.11246E+00  1.13953E+00  1.16725E+00  1.19565E+00
#           1.22474E+00  1.25454E+00  1.28507E+00  1.31633E+00  1.34836E+00
#           1.38117E+00  1.41477E+00  1.44920E+00  1.48446E+00  1.52057E+00
#           1.55757E+00  1.59547E+00  1.63429E+00  1.67405E+00  1.71478E+00
#           1.75650E+00  1.79924E+00  1.84302E+00  1.88786E+00  1.93379E+00
#           1.98084E+00  2.02904E+00  2.07841E+00  2.12898E+00  2.18078E+00
#           2.23384E+00  2.28819E+00  2.34386E+00  2.40089E+00  2.45930E+00
#           2.51914E+00  2.58043E+00  2.64322E+00  2.70753E+00  2.77341E+00
#           2.84088E+00  2.91001E+00  2.98081E+00  3.05333E+00  3.12762E+00
#           3.20372E+00  3.28167E+00  3.36152E+00  3.44330E+00  3.52708E+00
#           3.61290E+00  3.70080E+00  3.79085E+00  3.88308E+00  3.97756E+00
#           4.07434E+00  4.17347E+00  4.27501E+00  4.37903E+00  4.48557E+00
#           4.59471E+00  4.70650E+00  4.82102E+00  4.93832E+00  5.05847E+00
#           5.18155E+00  5.30762E+00  5.43676E+00  5.56904E+00  5.70453E+00
#           5.84333E+00  5.98550E+00  6.13114E+00  6.28031E+00  6.43312E+00
#           6.58964E+00  6.74997E+00  6.91420E+00  7.08243E+00  7.25475E+00
#           7.43126E+00  7.61207E+00  7.79728E+00  7.98700E+00  8.18133E+00
#           8.38038E+00  8.58428E+00  8.79315E+00  9.00709E+00  9.22624E+00
#           9.45072E+00  9.68067E+00  9.91620E+00  1.01575E+01  1.04046E+01
#           1.06578E+01  1.09171E+01  1.11827E+01  1.14548E+01  1.17335E+01
#           1.20190E+01  1.23114E+01  1.26109E+01  1.29178E+01  1.32321E+01
#           1.35540E+01  1.38838E+01  1.42216E+01  1.45676E+01  1.49221E+01
#           1.52851E+01  1.56570E+01  1.60380E+01  1.64282E+01  1.68279E+01
#           1.72374E+01  1.76568E+01  1.80864E+01  1.85264E+01  1.89772E+01
#           1.94389E+01  1.99119E+01  2.03963E+01  2.08926E+01  2.14009E+01
#           2.19216E+01  2.24550E+01  2.30014E+01  2.35610E+01  2.41343E+01
#           2.47215E+01  2.53230E+01  2.59391E+01  2.65702E+01  2.72167E+01
#           2.78789E+01  2.85572E+01  2.92520E+01  2.99637E+01  3.06928E+01
#           3.14396E+01  3.22045E+01  3.29881E+01  3.37907E+01  3.46128E+01
#           3.54550E+01  3.63177E+01  3.72013E+01  3.81064E+01  3.90336E+01
#           3.99833E+01  4.09561E+01  4.19526E+01  4.29734E+01  4.40189E+01
#           4.50900E+01  4.61870E+01  4.73108E+01  4.84619E+01  4.96410E+01
#           5.08488E+01  5.20860E+01  5.33533E+01  5.46514E+01  5.59812E+01
#           5.73432E+01  5.87384E+01  6.01676E+01  6.16315E+01  6.31311E+01
#           6.46671E+01  6.62405E+01  6.78522E+01  6.95031E+01  7.11941E+01
#           7.29263E+01  7.47007E+01  7.65182E+01  7.83800E+01  8.02870E+01
#           8.22405E+01  8.42414E+01  8.62911E+01  8.83906E+01  9.05412E+01
#           9.27442E+01  9.50007E+01  9.73122E+01  9.96799E+01  1.02105E+02
#           1.04589E+02  1.07134E+02  1.09741E+02  1.12411E+02  1.15146E+02
#           1.17948E+02  1.20817E+02  1.23757E+02  1.26768E+02  1.29852E+02
#           1.33012E+02  1.36248E+02  1.39563E+02  1.42959E+02  1.46437E+02
#           1.50000E+02
     unit =    2            # unit is [1/cm^2/(MeV/n)/source]
     axis =  eng            # axis of output
     file = detector-06.out  # file name of output for the above axis
   output = f-curr          # surface crossing forward current spectrum
     part =  neutron  
# kf/name :  2112     
#    used :        main (  %)        temp (  %)       total (  %)
#  memory :         414 (  0)           0 (  0)         414 (  0)

#------------------------------------------------------------------------------
#newpage:
#   no. =    1   reg = 105 - 205

x: Energy [MeV/n]
y:  F-Curr [1/cm^2/(MeV/n)/source]         
p: xlog ylog afac(0.8) form(0.9)
h: n            x            y(neutron ),hh0l   n 
#  e-lower      e-upper      neutron     r.err 
   1.0000E-02   1.0243E-02   1.1755E-03  0.0836
   1.0243E-02   1.0493E-02   1.4284E-03  0.0750
   1.0493E-02   1.0748E-02   1.2535E-03  0.0791
   1.0748E-02   1.1009E-02   1.2466E-03  0.0783
   1.1009E-02   1.1277E-02   1.2544E-03  0.0772
   1.1277E-02   1.1552E-02   1.2902E-03  0.0752
   1.1552E-02   1.1833E-02   1.3947E-03  0.0714
   1.1833E-02   1.2121E-02   1.1949E-03  0.0762
   1.2121E-02   1.2415E-02   1.2207E-03  0.0745
   1.2415E-02   1.2718E-02   1.2315E-03  0.0733
   1.2718E-02   1.3027E-02   1.2281E-03  0.0725
   1.3027E-02   1.3344E-02   1.1232E-03  0.0750
   1.3344E-02   1.3669E-02   1.2382E-03  0.0705
   1.3669E-02   1.4001E-02   1.3651E-03  0.0664
   1.4001E-02   1.4342E-02   1.2975E-03  0.0673
   1.4342E-02   1.4691E-02   1.0546E-03  0.0737
   1.4691E-02   1.5048E-02   1.2757E-03  0.0662
   1.5048E-02   1.5414E-02   1.0160E-03  0.0733
   1.5414E-02   1.5789E-02   1.3918E-03  0.0619
   1.5789E-02   1.6174E-02   1.3119E-03  0.0630
   1.6174E-02   1.6567E-02   1.2858E-03  0.0629
   1.6567E-02   1.6970E-02   1.3744E-03  0.0601
   1.6970E-02   1.7383E-02   1.2061E-03  0.0634
   1.7383E-02   1.7806E-02   1.2720E-03  0.0610
   1.7806E-02   1.8239E-02   1.3157E-03  0.0592
   1.8239E-02   1.8683E-02   1.2439E-03  0.0602
   1.8683E-02   1.9138E-02   1.3287E-03  0.0575
   1.9138E-02   1.9603E-02   1.3015E-03  0.0574
   1.9603E-02   2.0080E-02   1.2412E-03  0.0581
   2.0080E-02   2.0569E-02   1.3100E-03  0.0559
   2.0569E-02   2.1069E-02   1.1270E-03  0.0595
   2.1069E-02   2.1582E-02   1.2524E-03  0.0558
   2.1582E-02   2.2107E-02   1.2988E-03  0.0542
   2.2107E-02   2.2645E-02   1.1564E-03  0.0567
   2.2645E-02   2.3196E-02   1.2705E-03  0.0535
   2.3196E-02   2.3760E-02   1.2013E-03  0.0543
   2.3760E-02   2.4338E-02   1.2005E-03  0.0537
   2.4338E-02   2.4930E-02   1.4016E-03  0.0491
   2.4930E-02   2.5537E-02   1.3222E-03  0.0499
   2.5537E-02   2.6158E-02   1.2328E-03  0.0511
   2.6158E-02   2.6795E-02   1.2695E-03  0.0498
   2.6795E-02   2.7447E-02   1.3283E-03  0.0481
   2.7447E-02   2.8114E-02   1.1830E-03  0.0503
   2.8114E-02   2.8799E-02   1.3099E-03  0.0472
   2.8799E-02   2.9499E-02   1.2559E-03  0.0477
   2.9499E-02   3.0217E-02   1.3180E-03  0.0460
   3.0217E-02   3.0952E-02   1.2106E-03  0.0474
   3.0952E-02   3.1705E-02   1.1818E-03  0.0474
   3.1705E-02   3.2477E-02   1.2224E-03  0.0460
   3.2477E-02   3.3267E-02   1.3136E-03  0.0439
   3.3267E-02   3.4076E-02   1.2305E-03  0.0448
   3.4076E-02   3.4905E-02   1.1965E-03  0.0449
   3.4905E-02   3.5755E-02   1.2740E-03  0.0430
   3.5755E-02   3.6625E-02   1.2576E-03  0.0428
   3.6625E-02   3.7516E-02   1.2187E-03  0.0429
   3.7516E-02   3.8428E-02   1.2402E-03  0.0420
   3.8428E-02   3.9363E-02   1.3091E-03  0.0404
   3.9363E-02   4.0321E-02   1.1945E-03  0.0418
   4.0321E-02   4.1302E-02   1.2110E-03  0.0410
   4.1302E-02   4.2307E-02   1.3593E-03  0.0383
   4.2307E-02   4.3337E-02   1.2823E-03  0.0389
   4.3337E-02   4.4391E-02   1.2310E-03  0.0393
   4.4391E-02   4.5471E-02   1.1962E-03  0.0393
   4.5471E-02   4.6577E-02   1.1750E-03  0.0392
   4.6577E-02   4.7711E-02   1.1101E-03  0.0399
   4.7711E-02   4.8871E-02   1.1578E-03  0.0386
   4.8871E-02   5.0061E-02   1.1505E-03  0.0382
   5.0061E-02   5.1279E-02   1.2676E-03  0.0360
   5.1279E-02   5.2526E-02   1.1782E-03  0.0369
   5.2526E-02   5.3804E-02   1.2058E-03  0.0360
   5.3804E-02   5.5113E-02   1.1871E-03  0.0359
   5.5113E-02   5.6454E-02   1.2006E-03  0.0352
   5.6454E-02   5.7828E-02   1.1838E-03  0.0351
   5.7828E-02   5.9235E-02   1.3063E-03  0.0330
   5.9235E-02   6.0676E-02   1.2045E-03  0.0339
   6.0676E-02   6.2152E-02   1.2450E-03  0.0330
   6.2152E-02   6.3665E-02   1.2181E-03  0.0330
   6.3665E-02   6.5214E-02   1.1569E-03  0.0334
   6.5214E-02   6.6800E-02   1.1722E-03  0.0328
   6.6800E-02   6.8426E-02   1.1598E-03  0.0326
   6.8426E-02   7.0090E-02   1.1509E-03  0.0323
   7.0090E-02   7.1796E-02   1.1728E-03  0.0316
   7.1796E-02   7.3543E-02   1.1816E-03  0.0312
   7.3543E-02   7.5332E-02   1.2004E-03  0.0305
   7.5332E-02   7.7165E-02   1.1621E-03  0.0306
   7.7165E-02   7.9042E-02   1.1697E-03  0.0302
   7.9042E-02   8.0965E-02   1.1398E-03  0.0302
   8.0965E-02   8.2935E-02   1.1564E-03  0.0296
   8.2935E-02   8.4953E-02   1.1923E-03  0.0288
   8.4953E-02   8.7020E-02   1.1369E-03  0.0292
   8.7020E-02   8.9138E-02   1.1878E-03  0.0282
   8.9138E-02   9.1306E-02   1.1011E-03  0.0289
   9.1306E-02   9.3528E-02   1.1267E-03  0.0283
   9.3528E-02   9.5804E-02   1.1606E-03  0.0275
   9.5804E-02   9.8134E-02   1.1918E-03  0.0268
   9.8134E-02   1.0052E-01   1.1124E-03  0.0274
   1.0052E-01   1.0297E-01   1.1027E-03  0.0272
   1.0297E-01   1.0547E-01   1.0849E-03  0.0271
   1.0547E-01   1.0804E-01   1.1698E-03  0.0258
   1.0804E-01   1.1067E-01   1.1329E-03  0.0259
   1.1067E-01   1.1336E-01   1.1357E-03  0.0256
   1.1336E-01   1.1612E-01   1.0775E-03  0.0259
   1.1612E-01   1.1894E-01   1.1871E-03  0.0244
   1.1894E-01   1.2184E-01   1.1030E-03  0.0250
   1.2184E-01   1.2480E-01   1.1119E-03  0.0246
   1.2480E-01   1.2784E-01   1.0989E-03  0.0245
   1.2784E-01   1.3095E-01   1.1233E-03  0.0239
   1.3095E-01   1.3414E-01   1.1142E-03  0.0237
   1.3414E-01   1.3740E-01   1.0755E-03  0.0239
   1.3740E-01   1.4074E-01   1.0517E-03  0.0239
   1.4074E-01   1.4417E-01   1.0986E-03  0.0231
   1.4417E-01   1.4767E-01   1.0457E-03  0.0234
   1.4767E-01   1.5127E-01   1.0459E-03  0.0231
   1.5127E-01   1.5495E-01   1.0727E-03  0.0225
   1.5495E-01   1.5872E-01   1.0504E-03  0.0225
   1.5872E-01   1.6258E-01   1.0565E-03  0.0221
   1.6258E-01   1.6654E-01   1.0163E-03  0.0223
   1.6654E-01   1.7059E-01   1.0494E-03  0.0217
   1.7059E-01   1.7474E-01   1.0220E-03  0.0217
   1.7474E-01   1.7899E-01   1.0156E-03  0.0215
   1.7899E-01   1.8334E-01   1.0462E-03  0.0210
   1.8334E-01   1.8781E-01   1.0097E-03  0.0211
   1.8781E-01   1.9237E-01   1.0025E-03  0.0209
   1.9237E-01   1.9706E-01   1.0035E-03  0.0206
   1.9706E-01   2.0185E-01   9.4274E-04  0.0210
   2.0185E-01   2.0676E-01   9.5619E-04  0.0206
   2.0676E-01   2.1179E-01   9.3904E-04  0.0206
   2.1179E-01   2.1694E-01   9.6874E-04  0.0200
   2.1694E-01   2.2222E-01   9.4308E-04  0.0200
   2.2222E-01   2.2763E-01   9.3252E-04  0.0199
   2.2763E-01   2.3317E-01   8.8545E-04  0.0202
   2.3317E-01   2.3884E-01   9.4374E-04  0.0193
   2.3884E-01   2.4465E-01   9.0997E-04  0.0194
   2.4465E-01   2.5061E-01   9.0817E-04  0.0192
   2.5061E-01   2.5670E-01   9.2564E-04  0.0188
   2.5670E-01   2.6295E-01   9.1390E-04  0.0187
   2.6295E-01   2.6935E-01   8.5468E-04  0.0191
   2.6935E-01   2.7590E-01   8.6245E-04  0.0188
   2.7590E-01   2.8261E-01   8.7206E-04  0.0185
   2.8261E-01   2.8949E-01   8.4116E-04  0.0186
   2.8949E-01   2.9653E-01   8.4759E-04  0.0183
   2.9653E-01   3.0375E-01   8.4922E-04  0.0181
   3.0375E-01   3.1114E-01   8.1565E-04  0.0182
   3.1114E-01   3.1871E-01   8.4740E-04  0.0177
   3.1871E-01   3.2646E-01   8.2933E-04  0.0176
   3.2646E-01   3.3441E-01   7.9062E-04  0.0178
   3.3441E-01   3.4254E-01   8.0577E-04  0.0175
   3.4254E-01   3.5088E-01   7.8699E-04  0.0175
   3.5088E-01   3.5941E-01   7.5904E-04  0.0176
   3.5941E-01   3.6816E-01   7.6194E-04  0.0173
   3.6816E-01   3.7712E-01   7.4127E-04  0.0174
   3.7712E-01   3.8629E-01   7.2835E-04  0.0173
   3.8629E-01   3.9569E-01   7.1690E-04  0.0172
   3.9569E-01   4.0532E-01   7.0320E-04  0.0172
   4.0532E-01   4.1518E-01   6.8670E-04  0.0172
   4.1518E-01   4.2528E-01   7.0375E-04  0.0168
   4.2528E-01   4.3563E-01   6.9177E-04  0.0167
   4.3563E-01   4.4623E-01   6.6420E-04  0.0169
   4.4623E-01   4.5708E-01   6.6639E-04  0.0166
   4.5708E-01   4.6821E-01   6.4381E-04  0.0167
   4.6821E-01   4.7960E-01   6.6881E-04  0.0162
   4.7960E-01   4.9127E-01   6.2353E-04  0.0166
   4.9127E-01   5.0322E-01   6.2060E-04  0.0164
   5.0322E-01   5.1546E-01   5.9443E-04  0.0166
   5.1546E-01   5.2800E-01   5.7600E-04  0.0166
   5.2800E-01   5.4085E-01   5.7298E-04  0.0165
   5.4085E-01   5.5401E-01   5.6462E-04  0.0164
   5.5401E-01   5.6749E-01   5.4364E-04  0.0165
   5.6749E-01   5.8130E-01   5.2175E-04  0.0167
   5.8130E-01   5.9544E-01   5.2986E-04  0.0163
   5.9544E-01   6.0993E-01   5.1272E-04  0.0164
   6.0993E-01   6.2477E-01   4.9387E-04  0.0165
   6.2477E-01   6.3997E-01   4.8417E-04  0.0165
   6.3997E-01   6.5554E-01   4.8057E-04  0.0163
   6.5554E-01   6.7149E-01   4.5486E-04  0.0166
   6.7149E-01   6.8783E-01   4.5391E-04  0.0164
   6.8783E-01   7.0456E-01   4.3046E-04  0.0167
   7.0456E-01   7.2171E-01   4.1190E-04  0.0168
   7.2171E-01   7.3927E-01   4.0713E-04  0.0167
   7.3927E-01   7.5725E-01   3.7916E-04  0.0171
   7.5725E-01   7.7568E-01   3.8536E-04  0.0168
   7.7568E-01   7.9455E-01   3.6545E-04  0.0170
   7.9455E-01   8.1388E-01   3.3468E-04  0.0176
   8.1388E-01   8.3368E-01   3.3097E-04  0.0175
   8.3368E-01   8.5397E-01   3.1675E-04  0.0176
   8.5397E-01   8.7475E-01   3.0177E-04  0.0179
   8.7475E-01   8.9603E-01   2.9352E-04  0.0179
   8.9603E-01   9.1783E-01   2.8310E-04  0.0180
   9.1783E-01   9.4016E-01   2.7056E-04  0.0182
   9.4016E-01   9.6304E-01   2.6592E-04  0.0181
   9.6304E-01   9.8647E-01   2.4215E-04  0.0188
   9.8647E-01   1.0105E+00   2.3982E-04  0.0186
   1.0105E+00   1.0351E+00   2.4405E-04  0.0183
   1.0351E+00   1.0602E+00   2.5786E-04  0.0175
   1.0602E+00   1.0860E+00   2.6585E-04  0.0171
   1.0860E+00   1.1125E+00   2.6215E-04  0.0170
   1.1125E+00   1.1395E+00   2.6460E-04  0.0167
   1.1395E+00   1.1673E+00   2.8003E-04  0.0160
   1.1673E+00   1.1957E+00   2.9067E-04  0.0156
   1.1957E+00   1.2247E+00   2.9576E-04  0.0152
   1.2247E+00   1.2545E+00   2.9441E-04  0.0151
   1.2545E+00   1.2851E+00   2.9701E-04  0.0149
   1.2851E+00   1.3163E+00   3.0189E-04  0.0146
   1.3163E+00   1.3484E+00   3.0127E-04  0.0144
   1.3484E+00   1.3812E+00   3.1055E-04  0.0140
   1.3812E+00   1.4148E+00   3.2876E-04  0.0135
   1.4148E+00   1.4492E+00   3.2435E-04  0.0134
   1.4492E+00   1.4845E+00   3.2856E-04  0.0131
   1.4845E+00   1.5206E+00   3.2338E-04  0.0131
   1.5206E+00   1.5576E+00   3.2262E-04  0.0129
   1.5576E+00   1.5955E+00   3.2741E-04  0.0127
   1.5955E+00   1.6343E+00   3.2706E-04  0.0126
   1.6343E+00   1.6741E+00   3.3113E-04  0.0123
   1.6741E+00   1.7148E+00   3.3937E-04  0.0120
   1.7148E+00   1.7565E+00   3.4399E-04  0.0118
   1.7565E+00   1.7992E+00   3.3643E-04  0.0118
   1.7992E+00   1.8430E+00   3.3260E-04  0.0117
   1.8430E+00   1.8879E+00   3.2750E-04  0.0117
   1.8879E+00   1.9338E+00   3.3912E-04  0.0113
   1.9338E+00   1.9808E+00   3.3407E-04  0.0113
   1.9808E+00   2.0290E+00   3.3271E-04  0.0112
   2.0290E+00   2.0784E+00   3.3471E-04  0.0110
   2.0784E+00   2.1290E+00   3.2623E-04  0.0110
   2.1290E+00   2.1808E+00   3.2353E-04  0.0109
   2.1808E+00   2.2338E+00   3.0545E-04  0.0111
   2.2338E+00   2.2882E+00   3.1372E-04  0.0108
   2.2882E+00   2.3439E+00   3.0284E-04  0.0109
   2.3439E+00   2.4009E+00   3.1285E-04  0.0106
   2.4009E+00   2.4593E+00   3.1103E-04  0.0105
   2.4593E+00   2.5191E+00   2.9550E-04  0.0106
   2.5191E+00   2.5804E+00   2.8612E-04  0.0107
   2.5804E+00   2.6432E+00   2.7803E-04  0.0107
   2.6432E+00   2.7075E+00   2.7431E-04  0.0106
   2.7075E+00   2.7734E+00   2.7051E-04  0.0106
   2.7734E+00   2.8409E+00   2.6543E-04  0.0106
   2.8409E+00   2.9100E+00   2.5661E-04  0.0106
   2.9100E+00   2.9808E+00   2.4666E-04  0.0107
   2.9808E+00   3.0533E+00   2.4797E-04  0.0105
   3.0533E+00   3.1276E+00   2.3846E-04  0.0106
   3.1276E+00   3.2037E+00   2.3512E-04  0.0106
   3.2037E+00   3.2817E+00   2.2461E-04  0.0107
   3.2817E+00   3.3615E+00   2.1674E-04  0.0107
   3.3615E+00   3.4433E+00   2.1345E-04  0.0107
   3.4433E+00   3.5271E+00   2.0388E-04  0.0108
   3.5271E+00   3.6129E+00   2.0473E-04  0.0107
   3.6129E+00   3.7008E+00   2.0179E-04  0.0106
   3.7008E+00   3.7908E+00   1.8983E-04  0.0108
   3.7908E+00   3.8831E+00   1.8753E-04  0.0108
   3.8831E+00   3.9776E+00   1.8422E-04  0.0107
   3.9776E+00   4.0743E+00   1.8164E-04  0.0107
   4.0743E+00   4.1735E+00   1.7368E-04  0.0108
   4.1735E+00   4.2750E+00   1.6795E-04  0.0108
   4.2750E+00   4.3790E+00   1.6348E-04  0.0108
   4.3790E+00   4.4856E+00   1.6205E-04  0.0108
   4.4856E+00   4.5947E+00   1.5662E-04  0.0108
   4.5947E+00   4.7065E+00   1.5366E-04  0.0108
   4.7065E+00   4.8210E+00   1.5044E-04  0.0108
   4.8210E+00   4.9383E+00   1.4547E-04  0.0108
   4.9383E+00   5.0585E+00   1.4501E-04  0.0107
   5.0585E+00   5.1815E+00   1.4312E-04  0.0107
   5.1815E+00   5.3076E+00   1.4198E-04  0.0106
   5.3076E+00   5.4368E+00   1.3768E-04  0.0106
   5.4368E+00   5.5690E+00   1.3607E-04  0.0105
   5.5690E+00   5.7045E+00   1.3314E-04  0.0105
   5.7045E+00   5.8433E+00   1.3434E-04  0.0104
   5.8433E+00   5.9855E+00   1.3187E-04  0.0103
   5.9855E+00   6.1311E+00   1.3180E-04  0.0102
   6.1311E+00   6.2803E+00   1.2802E-04  0.0102
   6.2803E+00   6.4331E+00   1.2998E-04  0.0100
   6.4331E+00   6.5896E+00   1.2893E-04  0.0100
   6.5896E+00   6.7500E+00   1.2908E-04  0.0098
   6.7500E+00   6.9142E+00   1.2646E-04  0.0098
   6.9142E+00   7.0824E+00   1.2707E-04  0.0097
   7.0824E+00   7.2548E+00   1.2707E-04  0.0096
   7.2548E+00   7.4313E+00   1.2669E-04  0.0095
   7.4313E+00   7.6121E+00   1.2774E-04  0.0093
   7.6121E+00   7.7973E+00   1.2513E-04  0.0093
   7.7973E+00   7.9870E+00   1.2704E-04  0.0091
   7.9870E+00   8.1813E+00   1.2798E-04  0.0090
   8.1813E+00   8.3804E+00   1.3085E-04  0.0088
   8.3804E+00   8.5843E+00   1.2861E-04  0.0087
   8.5843E+00   8.7931E+00   1.3055E-04  0.0086
   8.7931E+00   9.0071E+00   1.3208E-04  0.0084
   9.0071E+00   9.2262E+00   1.3170E-04  0.0083
   9.2262E+00   9.4507E+00   1.3176E-04  0.0082
   9.4507E+00   9.6807E+00   1.3201E-04  0.0081
   9.6807E+00   9.9162E+00   1.3481E-04  0.0079
   9.9162E+00   1.0157E+01   1.3711E-04  0.0078
   1.0157E+01   1.0405E+01   1.3803E-04  0.0077
   1.0405E+01   1.0658E+01   1.4073E-04  0.0075
   1.0658E+01   1.0917E+01   1.4155E-04  0.0074
   1.0917E+01   1.1183E+01   1.4090E-04  0.0073
   1.1183E+01   1.1455E+01   1.4242E-04  0.0072
   1.1455E+01   1.1733E+01   1.4505E-04  0.0070
   1.1733E+01   1.2019E+01   1.4406E-04  0.0070
   1.2019E+01   1.2311E+01   1.4667E-04  0.0068
   1.2311E+01   1.2611E+01   1.4799E-04  0.0067
   1.2611E+01   1.2918E+01   1.5125E-04  0.0066
   1.2918E+01   1.3232E+01   1.5112E-04  0.0065
   1.3232E+01   1.3554E+01   1.5352E-04  0.0064
   1.3554E+01   1.3884E+01   1.5463E-04  0.0063
   1.3884E+01   1.4222E+01   1.5616E-04  0.0062
   1.4222E+01   1.4568E+01   1.5531E-04  0.0061
   1.4568E+01   1.4922E+01   1.5885E-04  0.0060
   1.4922E+01   1.5285E+01   1.5881E-04  0.0059
   1.5285E+01   1.5657E+01   1.5867E-04  0.0058
   1.5657E+01   1.6038E+01   1.6136E-04  0.0057
   1.6038E+01   1.6428E+01   1.6144E-04  0.0056
   1.6428E+01   1.6828E+01   1.6103E-04  0.0056
   1.6828E+01   1.7237E+01   1.6487E-04  0.0054
   1.7237E+01   1.7657E+01   1.6552E-04  0.0054
   1.7657E+01   1.8086E+01   1.6520E-04  0.0053
   1.8086E+01   1.8526E+01   1.6550E-04  0.0052
   1.8526E+01   1.8977E+01   1.6768E-04  0.0051
   1.8977E+01   1.9439E+01   1.6611E-04  0.0051
   1.9439E+01   1.9912E+01   1.6760E-04  0.0050
   1.9912E+01   2.0396E+01   1.6782E-04  0.0050
   2.0396E+01   2.0893E+01   1.6958E-04  0.0049
   2.0893E+01   2.1401E+01   1.6842E-04  0.0048
   2.1401E+01   2.1922E+01   1.6744E-04  0.0048
   2.1922E+01   2.2455E+01   1.6733E-04  0.0047
   2.2455E+01   2.3001E+01   1.6592E-04  0.0047
   2.3001E+01   2.3561E+01   1.6481E-04  0.0047
   2.3561E+01   2.4134E+01   1.6348E-04  0.0046
   2.4134E+01   2.4721E+01   1.6189E-04  0.0046
   2.4721E+01   2.5323E+01   1.6143E-04  0.0045
   2.5323E+01   2.5939E+01   1.5712E-04  0.0045
   2.5939E+01   2.6570E+01   1.5679E-04  0.0045
   2.6570E+01   2.7217E+01   1.5331E-04  0.0045
   2.7217E+01   2.7879E+01   1.5062E-04  0.0045
   2.7879E+01   2.8557E+01   1.4630E-04  0.0045
   2.8557E+01   2.9252E+01   1.4269E-04  0.0045
   2.9252E+01   2.9964E+01   1.3986E-04  0.0045
   2.9964E+01   3.0693E+01   1.3580E-04  0.0045
   3.0693E+01   3.1440E+01   1.2977E-04  0.0045
   3.1440E+01   3.2205E+01   1.2594E-04  0.0046
   3.2205E+01   3.2988E+01   1.2135E-04  0.0046
   3.2988E+01   3.3791E+01   1.1507E-04  0.0047
   3.3791E+01   3.4613E+01   1.0964E-04  0.0047
   3.4613E+01   3.5455E+01   1.0485E-04  0.0048
   3.5455E+01   3.6318E+01   9.9341E-05  0.0048
   3.6318E+01   3.7201E+01   9.3665E-05  0.0049
   3.7201E+01   3.8106E+01   8.7253E-05  0.0050
   3.8106E+01   3.9034E+01   8.1578E-05  0.0051
   3.9034E+01   3.9983E+01   7.6233E-05  0.0053
   3.9983E+01   4.0956E+01   7.1067E-05  0.0054
   4.0956E+01   4.1953E+01   6.5783E-05  0.0055
   4.1953E+01   4.2973E+01   5.9964E-05  0.0057
   4.2973E+01   4.4019E+01   5.5615E-05  0.0059
   4.4019E+01   4.5090E+01   5.0959E-05  0.0061
   4.5090E+01   4.6187E+01   4.6316E-05  0.0063
   4.6187E+01   4.7311E+01   4.1786E-05  0.0065
   4.7311E+01   4.8462E+01   3.8596E-05  0.0067
   4.8462E+01   4.9641E+01   3.4694E-05  0.0070
   4.9641E+01   5.0849E+01   3.1139E-05  0.0073
   5.0849E+01   5.2086E+01   2.8232E-05  0.0076
   5.2086E+01   5.3353E+01   2.5192E-05  0.0079
   5.3353E+01   5.4651E+01   2.2764E-05  0.0082
   5.4651E+01   5.5981E+01   2.0460E-05  0.0086
   5.5981E+01   5.7343E+01   1.8332E-05  0.0089
   5.7343E+01   5.8738E+01   1.6033E-05  0.0095
   5.8738E+01   6.0168E+01   1.4389E-05  0.0099
   6.0168E+01   6.1632E+01   1.2930E-05  0.0103
   6.1632E+01   6.3131E+01   1.1413E-05  0.0108
   6.3131E+01   6.4667E+01   1.0019E-05  0.0114
   6.4667E+01   6.6240E+01   8.6157E-06  0.0121
   6.6240E+01   6.7852E+01   7.5399E-06  0.0128
   6.7852E+01   6.9503E+01   6.2572E-06  0.0139
   6.9503E+01   7.1194E+01   5.4167E-06  0.0148
   7.1194E+01   7.2926E+01   4.3609E-06  0.0163
   7.2926E+01   7.4701E+01   3.5382E-06  0.0178
   7.4701E+01   7.6518E+01   2.6465E-06  0.0204
   7.6518E+01   7.8380E+01   1.7113E-06  0.0251
   7.8380E+01   8.0287E+01   9.0611E-07  0.0340
   8.0287E+01   8.2240E+01   2.3241E-07  0.0664
   8.2240E+01   8.4241E+01   0.0000E+00  0.0000
   8.4241E+01   8.6291E+01   0.0000E+00  0.0000
   8.6291E+01   8.8391E+01   0.0000E+00  0.0000
   8.8391E+01   9.0541E+01   0.0000E+00  0.0000
   9.0541E+01   9.2744E+01   0.0000E+00  0.0000
   9.2744E+01   9.5001E+01   0.0000E+00  0.0000
   9.5001E+01   9.7312E+01   0.0000E+00  0.0000
   9.7312E+01   9.9680E+01   0.0000E+00  0.0000
   9.9680E+01   1.0211E+02   0.0000E+00  0.0000
   1.0211E+02   1.0459E+02   0.0000E+00  0.0000
   1.0459E+02   1.0713E+02   0.0000E+00  0.0000
   1.0713E+02   1.0974E+02   0.0000E+00  0.0000
   1.0974E+02   1.1241E+02   0.0000E+00  0.0000
   1.1241E+02   1.1515E+02   0.0000E+00  0.0000
   1.1515E+02   1.1795E+02   0.0000E+00  0.0000
   1.1795E+02   1.2082E+02   0.0000E+00  0.0000
   1.2082E+02   1.2376E+02   0.0000E+00  0.0000
   1.2376E+02   1.2677E+02   0.0000E+00  0.0000
   1.2677E+02   1.2985E+02   0.0000E+00  0.0000
   1.2985E+02   1.3301E+02   0.0000E+00  0.0000
   1.3301E+02   1.3625E+02   0.0000E+00  0.0000
   1.3625E+02   1.3956E+02   0.0000E+00  0.0000
   1.3956E+02   1.4296E+02   0.0000E+00  0.0000
   1.4296E+02   1.4644E+02   0.0000E+00  0.0000
   1.4644E+02   1.5000E+02   0.0000E+00  0.0000

#   sum over                 4.8730E-05
'no. =    1   reg = 105 - 205'
msuc: {\huge [t-cross] in region mesh}
msdr: {\it plotted by \ANGEL \version}
msdl: {\it calculated by \PHITS  3.26}
wt: s(0.7)
\vspace{-3}
  region surface crossing
  area  &=&   1.0000E+00 [cm^2]
e:
 
# Information for Restart Calculation
# This calculation was newly started
# istdev =  2 # 1:Batch variance, 2:History variance
# resc2  = 5.00000000000000000E+08 # Total source weight or Total source weight / maxcas
# resc3  = 5.00000000000000000E+08 # Total history number or Total batch number
# maxcas =   500000000 # History / Batch, only used for istdev=1
# bitrseed = 1101101111010011011000101101110001100110110010110001010100010001 # bit data of rseed
