[ T-Cross ]
    title = [t-cross] in region mesh
     mesh =  reg            # mesh type is region-wise
      reg =    1            # number of crossing regions
      non     r-from    r-to       area
      1       114       214        1.000000    
   e-type =    3            # e-mesh is log given by emin, emax and ne
     emin =  1.0000000E-02  # minimum value of e-mesh points
     emax =   150.0000      # maximum value of e-mesh points
#    edel =  2.4039514E-02  # mesh width of e-mesh points
       ne =    400          # number of e-mesh points
#    data = ( e(i), i = 1, ne + 1 )
#           1.00000E-02  1.02433E-02  1.04925E-02  1.07478E-02  1.10093E-02
#           1.12772E-02  1.15516E-02  1.18326E-02  1.21205E-02  1.24154E-02
#           1.27175E-02  1.30269E-02  1.33439E-02  1.36686E-02  1.40011E-02
#           1.43418E-02  1.46907E-02  1.50482E-02  1.54143E-02  1.57894E-02
#           1.61735E-02  1.65670E-02  1.69701E-02  1.73830E-02  1.78060E-02
#           1.82392E-02  1.86830E-02  1.91375E-02  1.96032E-02  2.00801E-02
#           2.05687E-02  2.10692E-02  2.15818E-02  2.21069E-02  2.26448E-02
#           2.31957E-02  2.37601E-02  2.43382E-02  2.49304E-02  2.55369E-02
#           2.61583E-02  2.67947E-02  2.74467E-02  2.81145E-02  2.87985E-02
#           2.94992E-02  3.02169E-02  3.09521E-02  3.17052E-02  3.24766E-02
#           3.32668E-02  3.40762E-02  3.49053E-02  3.57546E-02  3.66246E-02
#           3.75157E-02  3.84284E-02  3.93634E-02  4.03212E-02  4.13022E-02
#           4.23071E-02  4.33365E-02  4.43909E-02  4.54710E-02  4.65773E-02
#           4.77106E-02  4.88714E-02  5.00605E-02  5.12785E-02  5.25262E-02
#           5.38042E-02  5.51133E-02  5.64542E-02  5.78278E-02  5.92348E-02
#           6.06760E-02  6.21523E-02  6.36645E-02  6.52135E-02  6.68002E-02
#           6.84255E-02  7.00904E-02  7.17957E-02  7.35426E-02  7.53319E-02
#           7.71648E-02  7.90423E-02  8.09655E-02  8.29354E-02  8.49533E-02
#           8.70203E-02  8.91376E-02  9.13064E-02  9.35279E-02  9.58035E-02
#           9.81345E-02  1.00522E-01  1.02968E-01  1.05473E-01  1.08040E-01
#           1.10668E-01  1.13361E-01  1.16119E-01  1.18944E-01  1.21838E-01
#           1.24803E-01  1.27839E-01  1.30950E-01  1.34136E-01  1.37399E-01
#           1.40742E-01  1.44167E-01  1.47675E-01  1.51268E-01  1.54948E-01
#           1.58718E-01  1.62580E-01  1.66535E-01  1.70587E-01  1.74738E-01
#           1.78989E-01  1.83344E-01  1.87805E-01  1.92375E-01  1.97055E-01
#           2.01850E-01  2.06761E-01  2.11792E-01  2.16945E-01  2.22223E-01
#           2.27630E-01  2.33169E-01  2.38842E-01  2.44653E-01  2.50605E-01
#           2.56703E-01  2.62949E-01  2.69346E-01  2.75900E-01  2.82613E-01
#           2.89489E-01  2.96532E-01  3.03747E-01  3.11138E-01  3.18708E-01
#           3.26462E-01  3.34405E-01  3.42542E-01  3.50876E-01  3.59413E-01
#           3.68158E-01  3.77116E-01  3.86291E-01  3.95690E-01  4.05317E-01
#           4.15179E-01  4.25281E-01  4.35628E-01  4.46227E-01  4.57084E-01
#           4.68205E-01  4.79597E-01  4.91266E-01  5.03219E-01  5.15463E-01
#           5.28005E-01  5.40851E-01  5.54011E-01  5.67490E-01  5.81298E-01
#           5.95441E-01  6.09929E-01  6.24769E-01  6.39970E-01  6.55541E-01
#           6.71491E-01  6.87828E-01  7.04564E-01  7.21706E-01  7.39266E-01
#           7.57253E-01  7.75678E-01  7.94551E-01  8.13883E-01  8.33685E-01
#           8.53969E-01  8.74747E-01  8.96030E-01  9.17831E-01  9.40163E-01
#           9.63038E-01  9.86469E-01  1.01047E+00  1.03506E+00  1.06024E+00
#           1.08604E+00  1.11246E+00  1.13953E+00  1.16725E+00  1.19565E+00
#           1.22474E+00  1.25454E+00  1.28507E+00  1.31633E+00  1.34836E+00
#           1.38117E+00  1.41477E+00  1.44920E+00  1.48446E+00  1.52057E+00
#           1.55757E+00  1.59547E+00  1.63429E+00  1.67405E+00  1.71478E+00
#           1.75650E+00  1.79924E+00  1.84302E+00  1.88786E+00  1.93379E+00
#           1.98084E+00  2.02904E+00  2.07841E+00  2.12898E+00  2.18078E+00
#           2.23384E+00  2.28819E+00  2.34386E+00  2.40089E+00  2.45930E+00
#           2.51914E+00  2.58043E+00  2.64322E+00  2.70753E+00  2.77341E+00
#           2.84088E+00  2.91001E+00  2.98081E+00  3.05333E+00  3.12762E+00
#           3.20372E+00  3.28167E+00  3.36152E+00  3.44330E+00  3.52708E+00
#           3.61290E+00  3.70080E+00  3.79085E+00  3.88308E+00  3.97756E+00
#           4.07434E+00  4.17347E+00  4.27501E+00  4.37903E+00  4.48557E+00
#           4.59471E+00  4.70650E+00  4.82102E+00  4.93832E+00  5.05847E+00
#           5.18155E+00  5.30762E+00  5.43676E+00  5.56904E+00  5.70453E+00
#           5.84333E+00  5.98550E+00  6.13114E+00  6.28031E+00  6.43312E+00
#           6.58964E+00  6.74997E+00  6.91420E+00  7.08243E+00  7.25475E+00
#           7.43126E+00  7.61207E+00  7.79728E+00  7.98700E+00  8.18133E+00
#           8.38038E+00  8.58428E+00  8.79315E+00  9.00709E+00  9.22624E+00
#           9.45072E+00  9.68067E+00  9.91620E+00  1.01575E+01  1.04046E+01
#           1.06578E+01  1.09171E+01  1.11827E+01  1.14548E+01  1.17335E+01
#           1.20190E+01  1.23114E+01  1.26109E+01  1.29178E+01  1.32321E+01
#           1.35540E+01  1.38838E+01  1.42216E+01  1.45676E+01  1.49221E+01
#           1.52851E+01  1.56570E+01  1.60380E+01  1.64282E+01  1.68279E+01
#           1.72374E+01  1.76568E+01  1.80864E+01  1.85264E+01  1.89772E+01
#           1.94389E+01  1.99119E+01  2.03963E+01  2.08926E+01  2.14009E+01
#           2.19216E+01  2.24550E+01  2.30014E+01  2.35610E+01  2.41343E+01
#           2.47215E+01  2.53230E+01  2.59391E+01  2.65702E+01  2.72167E+01
#           2.78789E+01  2.85572E+01  2.92520E+01  2.99637E+01  3.06928E+01
#           3.14396E+01  3.22045E+01  3.29881E+01  3.37907E+01  3.46128E+01
#           3.54550E+01  3.63177E+01  3.72013E+01  3.81064E+01  3.90336E+01
#           3.99833E+01  4.09561E+01  4.19526E+01  4.29734E+01  4.40189E+01
#           4.50900E+01  4.61870E+01  4.73108E+01  4.84619E+01  4.96410E+01
#           5.08488E+01  5.20860E+01  5.33533E+01  5.46514E+01  5.59812E+01
#           5.73432E+01  5.87384E+01  6.01676E+01  6.16315E+01  6.31311E+01
#           6.46671E+01  6.62405E+01  6.78522E+01  6.95031E+01  7.11941E+01
#           7.29263E+01  7.47007E+01  7.65182E+01  7.83800E+01  8.02870E+01
#           8.22405E+01  8.42414E+01  8.62911E+01  8.83906E+01  9.05412E+01
#           9.27442E+01  9.50007E+01  9.73122E+01  9.96799E+01  1.02105E+02
#           1.04589E+02  1.07134E+02  1.09741E+02  1.12411E+02  1.15146E+02
#           1.17948E+02  1.20817E+02  1.23757E+02  1.26768E+02  1.29852E+02
#           1.33012E+02  1.36248E+02  1.39563E+02  1.42959E+02  1.46437E+02
#           1.50000E+02
     unit =    2            # unit is [1/cm^2/(MeV/n)/source]
     axis =  eng            # axis of output
     file = detector-15.out  # file name of output for the above axis
   output = f-curr          # surface crossing forward current spectrum
     part =  neutron  
# kf/name :  2112     
#    used :        main (  %)        temp (  %)       total (  %)
#  memory :         414 (  0)           0 (  0)         414 (  0)

#------------------------------------------------------------------------------
#newpage:
#   no. =    1   reg = 114 - 214

x: Energy [MeV/n]
y:  F-Curr [1/cm^2/(MeV/n)/source]         
p: xlog ylog afac(0.8) form(0.9)
h: n            x            y(neutron ),hh0l   n 
#  e-lower      e-upper      neutron     r.err 
   1.0000E-02   1.0243E-02   8.9514E-05  0.0958
   1.0243E-02   1.0493E-02   9.7570E-05  0.0906
   1.0493E-02   1.0748E-02   9.6366E-05  0.0899
   1.0748E-02   1.1009E-02   9.4992E-05  0.0896
   1.1009E-02   1.1277E-02   1.1664E-04  0.0797
   1.1277E-02   1.1552E-02   8.9364E-05  0.0902
   1.1552E-02   1.1833E-02   8.9572E-05  0.0891
   1.1833E-02   1.2121E-02   1.0055E-04  0.0830
   1.2121E-02   1.2415E-02   8.3921E-05  0.0897
   1.2415E-02   1.2718E-02   7.9855E-05  0.0909
   1.2718E-02   1.3027E-02   8.1646E-05  0.0888
   1.3027E-02   1.3344E-02   7.6640E-05  0.0906
   1.3344E-02   1.3669E-02   8.2470E-05  0.0864
   1.3669E-02   1.4001E-02   8.0316E-05  0.0864
   1.4001E-02   1.4342E-02   7.9543E-05  0.0858
   1.4342E-02   1.4691E-02   6.9187E-05  0.0909
   1.4691E-02   1.5048E-02   7.6332E-05  0.0855
   1.5048E-02   1.5414E-02   7.3674E-05  0.0861
   1.5414E-02   1.5789E-02   7.0811E-05  0.0867
   1.5789E-02   1.6174E-02   7.6019E-05  0.0826
   1.6174E-02   1.6567E-02   7.6157E-05  0.0816
   1.6567E-02   1.6970E-02   7.0306E-05  0.0839
   1.6970E-02   1.7383E-02   7.3398E-05  0.0811
   1.7383E-02   1.7806E-02   6.3713E-05  0.0860
   1.7806E-02   1.8239E-02   5.2061E-05  0.0940
   1.8239E-02   1.8683E-02   6.1593E-05  0.0854
   1.8683E-02   1.9138E-02   6.2423E-05  0.0839
   1.9138E-02   1.9603E-02   6.1641E-05  0.0833
   1.9603E-02   2.0080E-02   6.0248E-05  0.0833
   2.0080E-02   2.0569E-02   5.3017E-05  0.0877
   2.0569E-02   2.1069E-02   5.3507E-05  0.0864
   2.1069E-02   2.1582E-02   5.8743E-05  0.0814
   2.1582E-02   2.2107E-02   4.9739E-05  0.0874
   2.2107E-02   2.2645E-02   5.1263E-05  0.0851
   2.2645E-02   2.3196E-02   5.2732E-05  0.0828
   2.3196E-02   2.3760E-02   4.9993E-05  0.0841
   2.3760E-02   2.4338E-02   4.8501E-05  0.0843
   2.4338E-02   2.4930E-02   5.1745E-05  0.0806
   2.4930E-02   2.5537E-02   4.8393E-05  0.0825
   2.5537E-02   2.6158E-02   4.7760E-05  0.0820
   2.6158E-02   2.6795E-02   4.7400E-05  0.0814
   2.6795E-02   2.7447E-02   4.7571E-05  0.0801
   2.7447E-02   2.8114E-02   4.4049E-05  0.0823
   2.8114E-02   2.8799E-02   4.1428E-05  0.0839
   2.8799E-02   2.9499E-02   4.3973E-05  0.0804
   2.9499E-02   3.0217E-02   3.7692E-05  0.0856
   3.0217E-02   3.0952E-02   3.3573E-05  0.0899
   3.0952E-02   3.1705E-02   4.4035E-05  0.0775
   3.1705E-02   3.2477E-02   4.1104E-05  0.0793
   3.2477E-02   3.3267E-02   3.9625E-05  0.0798
   3.3267E-02   3.4076E-02   3.3309E-05  0.0861
   3.4076E-02   3.4905E-02   3.4999E-05  0.0829
   3.4905E-02   3.5755E-02   4.3407E-05  0.0735
   3.5755E-02   3.6625E-02   3.5955E-05  0.0798
   3.6625E-02   3.7516E-02   3.6558E-05  0.0782
   3.7516E-02   3.8428E-02   3.3861E-05  0.0803
   3.8428E-02   3.9363E-02   2.8760E-05  0.0861
   3.9363E-02   4.0321E-02   3.1878E-05  0.0809
   4.0321E-02   4.1302E-02   3.2291E-05  0.0793
   4.1302E-02   4.2307E-02   2.7972E-05  0.0842
   4.2307E-02   4.3337E-02   2.5949E-05  0.0864
   4.3337E-02   4.4391E-02   3.0933E-05  0.0782
   4.4391E-02   4.5471E-02   3.0976E-05  0.0772
   4.5471E-02   4.6577E-02   3.2773E-05  0.0742
   4.6577E-02   4.7711E-02   2.9212E-05  0.0776
   4.7711E-02   4.8871E-02   2.6800E-05  0.0801
   4.8871E-02   5.0061E-02   2.8255E-05  0.0770
   5.0061E-02   5.1279E-02   2.5378E-05  0.0803
   5.1279E-02   5.2526E-02   2.3313E-05  0.0828
   5.2526E-02   5.3804E-02   2.3873E-05  0.0809
   5.3804E-02   5.5113E-02   2.4866E-05  0.0783
   5.5113E-02   5.6454E-02   2.4799E-05  0.0774
   5.6454E-02   5.7828E-02   2.4612E-05  0.0768
   5.7828E-02   5.9235E-02   2.5392E-05  0.0747
   5.9235E-02   6.0676E-02   2.5343E-05  0.0739
   6.0676E-02   6.2152E-02   2.2806E-05  0.0769
   6.2152E-02   6.3665E-02   2.0893E-05  0.0795
   6.3665E-02   6.5214E-02   2.0596E-05  0.0791
   6.5214E-02   6.6800E-02   2.1480E-05  0.0765
   6.6800E-02   6.8426E-02   2.1868E-05  0.0750
   6.8426E-02   7.0090E-02   2.2296E-05  0.0733
   7.0090E-02   7.1796E-02   2.3386E-05  0.0707
   7.1796E-02   7.3543E-02   1.8839E-05  0.0777
   7.3543E-02   7.5332E-02   2.0462E-05  0.0738
   7.5332E-02   7.7165E-02   1.7299E-05  0.0793
   7.7165E-02   7.9042E-02   1.8759E-05  0.0753
   7.9042E-02   8.0965E-02   2.0399E-05  0.0713
   8.0965E-02   8.2935E-02   1.8632E-05  0.0737
   8.2935E-02   8.4953E-02   1.6422E-05  0.0776
   8.4953E-02   8.7020E-02   1.5572E-05  0.0787
   8.7020E-02   8.9138E-02   1.5765E-05  0.0773
   8.9138E-02   9.1306E-02   1.7973E-05  0.0715
   9.1306E-02   9.3528E-02   1.4931E-05  0.0776
   9.3528E-02   9.5804E-02   1.6658E-05  0.0726
   9.5804E-02   9.8134E-02   1.3442E-05  0.0798
   9.8134E-02   1.0052E-01   1.5551E-05  0.0732
   1.0052E-01   1.0297E-01   1.6279E-05  0.0707
   1.0297E-01   1.0547E-01   1.8002E-05  0.0665
   1.0547E-01   1.0804E-01   1.6810E-05  0.0679
   1.0804E-01   1.1067E-01   1.6988E-05  0.0668
   1.1067E-01   1.1336E-01   1.9134E-05  0.0622
   1.1336E-01   1.1612E-01   1.7204E-05  0.0648
   1.1612E-01   1.1894E-01   1.7474E-05  0.0635
   1.1894E-01   1.2184E-01   1.9623E-05  0.0592
   1.2184E-01   1.2480E-01   2.2415E-05  0.0548
   1.2480E-01   1.2784E-01   2.0876E-05  0.0561
   1.2784E-01   1.3095E-01   2.5829E-05  0.0498
   1.3095E-01   1.3414E-01   2.2288E-05  0.0530
   1.3414E-01   1.3740E-01   2.2799E-05  0.0517
   1.3740E-01   1.4074E-01   2.3501E-05  0.0503
   1.4074E-01   1.4417E-01   2.6309E-05  0.0470
   1.4417E-01   1.4767E-01   2.4774E-05  0.0479
   1.4767E-01   1.5127E-01   2.7957E-05  0.0446
   1.5127E-01   1.5495E-01   2.9429E-05  0.0429
   1.5495E-01   1.5872E-01   2.6080E-05  0.0450
   1.5872E-01   1.6258E-01   2.9614E-05  0.0417
   1.6258E-01   1.6654E-01   3.0723E-05  0.0405
   1.6654E-01   1.7059E-01   2.8026E-05  0.0419
   1.7059E-01   1.7474E-01   3.2950E-05  0.0382
   1.7474E-01   1.7899E-01   3.4529E-05  0.0369
   1.7899E-01   1.8334E-01   3.7037E-05  0.0351
   1.8334E-01   1.8781E-01   3.4637E-05  0.0359
   1.8781E-01   1.9237E-01   3.5886E-05  0.0349
   1.9237E-01   1.9706E-01   3.5830E-05  0.0345
   1.9706E-01   2.0185E-01   4.0361E-05  0.0321
   2.0185E-01   2.0676E-01   3.8518E-05  0.0325
   2.0676E-01   2.1179E-01   3.9284E-05  0.0318
   2.1179E-01   2.1694E-01   4.0574E-05  0.0309
   2.1694E-01   2.2222E-01   4.3572E-05  0.0294
   2.2222E-01   2.2763E-01   4.3328E-05  0.0292
   2.2763E-01   2.3317E-01   4.6595E-05  0.0278
   2.3317E-01   2.3884E-01   4.6330E-05  0.0275
   2.3884E-01   2.4465E-01   4.9865E-05  0.0262
   2.4465E-01   2.5061E-01   4.9872E-05  0.0259
   2.5061E-01   2.5670E-01   5.1032E-05  0.0253
   2.5670E-01   2.6295E-01   5.3567E-05  0.0244
   2.6295E-01   2.6935E-01   5.5526E-05  0.0237
   2.6935E-01   2.7590E-01   5.3710E-05  0.0238
   2.7590E-01   2.8261E-01   5.6643E-05  0.0229
   2.8261E-01   2.8949E-01   5.8678E-05  0.0222
   2.8949E-01   2.9653E-01   5.9851E-05  0.0217
   2.9653E-01   3.0375E-01   5.9014E-05  0.0216
   3.0375E-01   3.1114E-01   6.1710E-05  0.0209
   3.1114E-01   3.1871E-01   6.4392E-05  0.0202
   3.1871E-01   3.2646E-01   6.4260E-05  0.0200
   3.2646E-01   3.3441E-01   6.5657E-05  0.0195
   3.3441E-01   3.4254E-01   6.6255E-05  0.0192
   3.4254E-01   3.5088E-01   6.8803E-05  0.0186
   3.5088E-01   3.5941E-01   7.2251E-05  0.0180
   3.5941E-01   3.6816E-01   7.0144E-05  0.0180
   3.6816E-01   3.7712E-01   7.6606E-05  0.0170
   3.7712E-01   3.8629E-01   7.7786E-05  0.0167
   3.8629E-01   3.9569E-01   7.8073E-05  0.0165
   3.9569E-01   4.0532E-01   8.0442E-05  0.0160
   4.0532E-01   4.1518E-01   8.0737E-05  0.0158
   4.1518E-01   4.2528E-01   8.2987E-05  0.0154
   4.2528E-01   4.3563E-01   8.3113E-05  0.0152
   4.3563E-01   4.4623E-01   8.4777E-05  0.0149
   4.4623E-01   4.5708E-01   8.5911E-05  0.0146
   4.5708E-01   4.6821E-01   8.5244E-05  0.0145
   4.6821E-01   4.7960E-01   8.9251E-05  0.0140
   4.7960E-01   4.9127E-01   9.1023E-05  0.0137
   4.9127E-01   5.0322E-01   8.9725E-05  0.0136
   5.0322E-01   5.1546E-01   9.2936E-05  0.0132
   5.1546E-01   5.2800E-01   9.4178E-05  0.0130
   5.2800E-01   5.4085E-01   9.7468E-05  0.0126
   5.4085E-01   5.5401E-01   9.6749E-05  0.0125
   5.5401E-01   5.6749E-01   9.6425E-05  0.0124
   5.6749E-01   5.8130E-01   9.8255E-05  0.0121
   5.8130E-01   5.9544E-01   9.8312E-05  0.0120
   5.9544E-01   6.0993E-01   1.0324E-04  0.0115
   6.0993E-01   6.2477E-01   1.0094E-04  0.0115
   6.2477E-01   6.3997E-01   9.9772E-05  0.0114
   6.3997E-01   6.5554E-01   1.0238E-04  0.0112
   6.5554E-01   6.7149E-01   1.0191E-04  0.0111
   6.7149E-01   6.8783E-01   1.0095E-04  0.0110
   6.8783E-01   7.0456E-01   1.0475E-04  0.0106
   7.0456E-01   7.2171E-01   1.0180E-04  0.0107
   7.2171E-01   7.3927E-01   1.0157E-04  0.0105
   7.3927E-01   7.5725E-01   1.0349E-04  0.0103
   7.5725E-01   7.7568E-01   1.0175E-04  0.0103
   7.7568E-01   7.9455E-01   1.0088E-04  0.0102
   7.9455E-01   8.1388E-01   9.8971E-05  0.0102
   8.1388E-01   8.3368E-01   9.8296E-05  0.0101
   8.3368E-01   8.5397E-01   9.7355E-05  0.0100
   8.5397E-01   8.7475E-01   9.6045E-05  0.0100
   8.7475E-01   8.9603E-01   9.3672E-05  0.0100
   8.9603E-01   9.1783E-01   9.1687E-05  0.0100
   9.1783E-01   9.4016E-01   8.9887E-05  0.0099
   9.4016E-01   9.6304E-01   8.6503E-05  0.0100
   9.6304E-01   9.8647E-01   8.4503E-05  0.0100
   9.8647E-01   1.0105E+00   8.4069E-05  0.0099
   1.0105E+00   1.0351E+00   8.4130E-05  0.0098
   1.0351E+00   1.0602E+00   8.6093E-05  0.0095
   1.0602E+00   1.0860E+00   8.6753E-05  0.0094
   1.0860E+00   1.1125E+00   9.0946E-05  0.0091
   1.1125E+00   1.1395E+00   9.1229E-05  0.0089
   1.1395E+00   1.1673E+00   9.4941E-05  0.0087
   1.1673E+00   1.1957E+00   9.9431E-05  0.0084
   1.1957E+00   1.2247E+00   1.0370E-04  0.0081
   1.2247E+00   1.2545E+00   1.0397E-04  0.0080
   1.2545E+00   1.2851E+00   1.0702E-04  0.0078
   1.2851E+00   1.3163E+00   1.1006E-04  0.0076
   1.3163E+00   1.3484E+00   1.1331E-04  0.0074
   1.3484E+00   1.3812E+00   1.1694E-04  0.0072
   1.3812E+00   1.4148E+00   1.1896E-04  0.0070
   1.4148E+00   1.4492E+00   1.2169E-04  0.0068
   1.4492E+00   1.4845E+00   1.2270E-04  0.0067
   1.4845E+00   1.5206E+00   1.2408E-04  0.0066
   1.5206E+00   1.5576E+00   1.2433E-04  0.0065
   1.5576E+00   1.5955E+00   1.2752E-04  0.0064
   1.5955E+00   1.6343E+00   1.2749E-04  0.0063
   1.6343E+00   1.6741E+00   1.2784E-04  0.0062
   1.6741E+00   1.7148E+00   1.3055E-04  0.0061
   1.7148E+00   1.7565E+00   1.3041E-04  0.0060
   1.7565E+00   1.7992E+00   1.2581E-04  0.0060
   1.7992E+00   1.8430E+00   1.2208E-04  0.0060
   1.8430E+00   1.8879E+00   1.2022E-04  0.0060
   1.8879E+00   1.9338E+00   1.1844E-04  0.0059
   1.9338E+00   1.9808E+00   1.2058E-04  0.0058
   1.9808E+00   2.0290E+00   1.2157E-04  0.0057
   2.0290E+00   2.0784E+00   1.2220E-04  0.0056
   2.0784E+00   2.1290E+00   1.2547E-04  0.0055
   2.1290E+00   2.1808E+00   1.2812E-04  0.0054
   2.1808E+00   2.2338E+00   1.2783E-04  0.0053
   2.2338E+00   2.2882E+00   1.2705E-04  0.0053
   2.2882E+00   2.3439E+00   1.2536E-04  0.0052
   2.3439E+00   2.4009E+00   1.2470E-04  0.0052
   2.4009E+00   2.4593E+00   1.2526E-04  0.0051
   2.4593E+00   2.5191E+00   1.2424E-04  0.0051
   2.5191E+00   2.5804E+00   1.2376E-04  0.0050
   2.5804E+00   2.6432E+00   1.2344E-04  0.0050
   2.6432E+00   2.7075E+00   1.2113E-04  0.0050
   2.7075E+00   2.7734E+00   1.1966E-04  0.0049
   2.7734E+00   2.8409E+00   1.1794E-04  0.0049
   2.8409E+00   2.9100E+00   1.1814E-04  0.0049
   2.9100E+00   2.9808E+00   1.1734E-04  0.0048
   2.9808E+00   3.0533E+00   1.1538E-04  0.0048
   3.0533E+00   3.1276E+00   1.1230E-04  0.0048
   3.1276E+00   3.2037E+00   1.1161E-04  0.0048
   3.2037E+00   3.2817E+00   1.1024E-04  0.0047
   3.2817E+00   3.3615E+00   1.0835E-04  0.0047
   3.3615E+00   3.4433E+00   1.0593E-04  0.0047
   3.4433E+00   3.5271E+00   1.0548E-04  0.0047
   3.5271E+00   3.6129E+00   1.0417E-04  0.0047
   3.6129E+00   3.7008E+00   1.0156E-04  0.0047
   3.7008E+00   3.7908E+00   9.9621E-05  0.0047
   3.7908E+00   3.8831E+00   9.7897E-05  0.0046
   3.8831E+00   3.9776E+00   9.4748E-05  0.0047
   3.9776E+00   4.0743E+00   9.3395E-05  0.0046
   4.0743E+00   4.1735E+00   9.1081E-05  0.0046
   4.1735E+00   4.2750E+00   8.8524E-05  0.0046
   4.2750E+00   4.3790E+00   8.5735E-05  0.0047
   4.3790E+00   4.4856E+00   8.3453E-05  0.0047
   4.4856E+00   4.5947E+00   7.9738E-05  0.0047
   4.5947E+00   4.7065E+00   7.8044E-05  0.0047
   4.7065E+00   4.8210E+00   7.6730E-05  0.0047
   4.8210E+00   4.9383E+00   7.3842E-05  0.0047
   4.9383E+00   5.0585E+00   7.1619E-05  0.0047
   5.0585E+00   5.1815E+00   7.0027E-05  0.0047
   5.1815E+00   5.3076E+00   6.7652E-05  0.0048
   5.3076E+00   5.4368E+00   6.5651E-05  0.0048
   5.4368E+00   5.5690E+00   6.2902E-05  0.0048
   5.5690E+00   5.7045E+00   6.1080E-05  0.0048
   5.7045E+00   5.8433E+00   5.8906E-05  0.0049
   5.8433E+00   5.9855E+00   5.7205E-05  0.0049
   5.9855E+00   6.1311E+00   5.5135E-05  0.0049
   6.1311E+00   6.2803E+00   5.2365E-05  0.0050
   6.2803E+00   6.4331E+00   5.0553E-05  0.0050
   6.4331E+00   6.5896E+00   4.8343E-05  0.0051
   6.5896E+00   6.7500E+00   4.6253E-05  0.0051
   6.7500E+00   6.9142E+00   4.4023E-05  0.0052
   6.9142E+00   7.0824E+00   4.1885E-05  0.0053
   7.0824E+00   7.2548E+00   3.9448E-05  0.0054
   7.2548E+00   7.4313E+00   3.7350E-05  0.0054
   7.4313E+00   7.6121E+00   3.4491E-05  0.0056
   7.6121E+00   7.7973E+00   3.1977E-05  0.0057
   7.7973E+00   7.9870E+00   2.9885E-05  0.0059
   7.9870E+00   8.1813E+00   2.7457E-05  0.0061
   8.1813E+00   8.3804E+00   2.5661E-05  0.0062
   8.3804E+00   8.5843E+00   2.4040E-05  0.0063
   8.5843E+00   8.7931E+00   2.2537E-05  0.0064
   8.7931E+00   9.0071E+00   2.1192E-05  0.0066
   9.0071E+00   9.2262E+00   1.9521E-05  0.0068
   9.2262E+00   9.4507E+00   1.8537E-05  0.0069
   9.4507E+00   9.6807E+00   1.7116E-05  0.0071
   9.6807E+00   9.9162E+00   1.6182E-05  0.0072
   9.9162E+00   1.0157E+01   1.5611E-05  0.0073
   1.0157E+01   1.0405E+01   1.4714E-05  0.0074
   1.0405E+01   1.0658E+01   1.3574E-05  0.0076
   1.0658E+01   1.0917E+01   1.2509E-05  0.0078
   1.0917E+01   1.1183E+01   1.1760E-05  0.0080
   1.1183E+01   1.1455E+01   1.0931E-05  0.0082
   1.1455E+01   1.1733E+01   1.0282E-05  0.0083
   1.1733E+01   1.2019E+01   9.7290E-06  0.0085
   1.2019E+01   1.2311E+01   9.0313E-06  0.0087
   1.2311E+01   1.2611E+01   8.4657E-06  0.0088
   1.2611E+01   1.2918E+01   7.9952E-06  0.0090
   1.2918E+01   1.3232E+01   7.3795E-06  0.0093
   1.3232E+01   1.3554E+01   7.0565E-06  0.0094
   1.3554E+01   1.3884E+01   6.5232E-06  0.0096
   1.3884E+01   1.4222E+01   6.1484E-06  0.0098
   1.4222E+01   1.4568E+01   5.7174E-06  0.0100
   1.4568E+01   1.4922E+01   5.3578E-06  0.0102
   1.4922E+01   1.5285E+01   5.0526E-06  0.0104
   1.5285E+01   1.5657E+01   4.7270E-06  0.0107
   1.5657E+01   1.6038E+01   4.4910E-06  0.0108
   1.6038E+01   1.6428E+01   4.0301E-06  0.0113
   1.6428E+01   1.6828E+01   3.7868E-06  0.0115
   1.6828E+01   1.7237E+01   3.4894E-06  0.0118
   1.7237E+01   1.7657E+01   3.2396E-06  0.0121
   1.7657E+01   1.8086E+01   2.9632E-06  0.0125
   1.8086E+01   1.8526E+01   2.6581E-06  0.0131
   1.8526E+01   1.8977E+01   2.3762E-06  0.0137
   1.8977E+01   1.9439E+01   2.1327E-06  0.0142
   1.9439E+01   1.9912E+01   2.0803E-06  0.0143
   1.9912E+01   2.0396E+01   1.9386E-06  0.0146
   2.0396E+01   2.0893E+01   1.7495E-06  0.0152
   2.0893E+01   2.1401E+01   1.5439E-06  0.0160
   2.1401E+01   2.1922E+01   1.4212E-06  0.0164
   2.1922E+01   2.2455E+01   1.3004E-06  0.0170
   2.2455E+01   2.3001E+01   1.1776E-06  0.0176
   2.3001E+01   2.3561E+01   1.0407E-06  0.0185
   2.3561E+01   2.4134E+01   9.0151E-07  0.0197
   2.4134E+01   2.4721E+01   8.4706E-07  0.0201
   2.4721E+01   2.5323E+01   7.6776E-07  0.0208
   2.5323E+01   2.5939E+01   6.8265E-07  0.0218
   2.5939E+01   2.6570E+01   5.7010E-07  0.0236
   2.6570E+01   2.7217E+01   5.1665E-07  0.0245
   2.7217E+01   2.7879E+01   4.5303E-07  0.0258
   2.7879E+01   2.8557E+01   3.8861E-07  0.0275
   2.8557E+01   2.9252E+01   3.3246E-07  0.0294
   2.9252E+01   2.9964E+01   2.9787E-07  0.0307
   2.9964E+01   3.0693E+01   2.1892E-07  0.0354
   3.0693E+01   3.1440E+01   1.0900E-07  0.0496
   3.1440E+01   3.2205E+01   4.8369E-08  0.0735
   3.2205E+01   3.2988E+01   3.2161E-08  0.0891
   3.2988E+01   3.3791E+01   2.0184E-08  0.1111
   3.3791E+01   3.4613E+01   1.6055E-08  0.1231
   3.4613E+01   3.5455E+01   9.4994E-09  0.1581
   3.5455E+01   3.6318E+01   6.7235E-09  0.1857
   3.6318E+01   3.7201E+01   2.7160E-09  0.2887
   3.7201E+01   3.8106E+01   1.3258E-09  0.4082
   3.8106E+01   3.9034E+01   2.1571E-10  1.0000
   3.9034E+01   3.9983E+01   0.0000E+00  0.0000
   3.9983E+01   4.0956E+01   0.0000E+00  0.0000
   4.0956E+01   4.1953E+01   0.0000E+00  0.0000
   4.1953E+01   4.2973E+01   0.0000E+00  0.0000
   4.2973E+01   4.4019E+01   0.0000E+00  0.0000
   4.4019E+01   4.5090E+01   0.0000E+00  0.0000
   4.5090E+01   4.6187E+01   0.0000E+00  0.0000
   4.6187E+01   4.7311E+01   0.0000E+00  0.0000
   4.7311E+01   4.8462E+01   0.0000E+00  0.0000
   4.8462E+01   4.9641E+01   0.0000E+00  0.0000
   4.9641E+01   5.0849E+01   0.0000E+00  0.0000
   5.0849E+01   5.2086E+01   0.0000E+00  0.0000
   5.2086E+01   5.3353E+01   0.0000E+00  0.0000
   5.3353E+01   5.4651E+01   0.0000E+00  0.0000
   5.4651E+01   5.5981E+01   0.0000E+00  0.0000
   5.5981E+01   5.7343E+01   0.0000E+00  0.0000
   5.7343E+01   5.8738E+01   0.0000E+00  0.0000
   5.8738E+01   6.0168E+01   0.0000E+00  0.0000
   6.0168E+01   6.1632E+01   0.0000E+00  0.0000
   6.1632E+01   6.3131E+01   0.0000E+00  0.0000
   6.3131E+01   6.4667E+01   0.0000E+00  0.0000
   6.4667E+01   6.6240E+01   0.0000E+00  0.0000
   6.6240E+01   6.7852E+01   0.0000E+00  0.0000
   6.7852E+01   6.9503E+01   0.0000E+00  0.0000
   6.9503E+01   7.1194E+01   0.0000E+00  0.0000
   7.1194E+01   7.2926E+01   0.0000E+00  0.0000
   7.2926E+01   7.4701E+01   0.0000E+00  0.0000
   7.4701E+01   7.6518E+01   0.0000E+00  0.0000
   7.6518E+01   7.8380E+01   0.0000E+00  0.0000
   7.8380E+01   8.0287E+01   0.0000E+00  0.0000
   8.0287E+01   8.2240E+01   0.0000E+00  0.0000
   8.2240E+01   8.4241E+01   0.0000E+00  0.0000
   8.4241E+01   8.6291E+01   0.0000E+00  0.0000
   8.6291E+01   8.8391E+01   0.0000E+00  0.0000
   8.8391E+01   9.0541E+01   0.0000E+00  0.0000
   9.0541E+01   9.2744E+01   0.0000E+00  0.0000
   9.2744E+01   9.5001E+01   0.0000E+00  0.0000
   9.5001E+01   9.7312E+01   0.0000E+00  0.0000
   9.7312E+01   9.9680E+01   0.0000E+00  0.0000
   9.9680E+01   1.0211E+02   0.0000E+00  0.0000
   1.0211E+02   1.0459E+02   0.0000E+00  0.0000
   1.0459E+02   1.0713E+02   0.0000E+00  0.0000
   1.0713E+02   1.0974E+02   0.0000E+00  0.0000
   1.0974E+02   1.1241E+02   0.0000E+00  0.0000
   1.1241E+02   1.1515E+02   0.0000E+00  0.0000
   1.1515E+02   1.1795E+02   0.0000E+00  0.0000
   1.1795E+02   1.2082E+02   0.0000E+00  0.0000
   1.2082E+02   1.2376E+02   0.0000E+00  0.0000
   1.2376E+02   1.2677E+02   0.0000E+00  0.0000
   1.2677E+02   1.2985E+02   0.0000E+00  0.0000
   1.2985E+02   1.3301E+02   0.0000E+00  0.0000
   1.3301E+02   1.3625E+02   0.0000E+00  0.0000
   1.3625E+02   1.3956E+02   0.0000E+00  0.0000
   1.3956E+02   1.4296E+02   0.0000E+00  0.0000
   1.4296E+02   1.4644E+02   0.0000E+00  0.0000
   1.4644E+02   1.5000E+02   0.0000E+00  0.0000

#   sum over                 5.0558E-06
'no. =    1   reg = 114 - 214'
msuc: {\huge [t-cross] in region mesh}
msdr: {\it plotted by \ANGEL \version}
msdl: {\it calculated by \PHITS  3.26}
wt: s(0.7)
\vspace{-3}
  region surface crossing
  area  &=&   1.0000E+00 [cm^2]
e:
 
# Information for Restart Calculation
# This calculation was newly started
# istdev =  2 # 1:Batch variance, 2:History variance
# resc2  = 5.00000000000000000E+09 # Total source weight or Total source weight / maxcas
# resc3  = 5.00000000000000000E+09 # Total history number or Total batch number
# maxcas =   100000000 # History / Batch, only used for istdev=1
# bitrseed = 0110100000100010111000001110001111001110100100011111101000111001 # bit data of rseed
