[ T-Cross ]
    title = [t-cross] in region mesh
     mesh =  reg            # mesh type is region-wise
      reg =    1            # number of crossing regions
      non     r-from    r-to       area
      1       114       214        1.000000    
   e-type =    3            # e-mesh is log given by emin, emax and ne
     emin =  1.0000000E-02  # minimum value of e-mesh points
     emax =   150.0000      # maximum value of e-mesh points
#    edel =  2.4039514E-02  # mesh width of e-mesh points
       ne =    400          # number of e-mesh points
#    data = ( e(i), i = 1, ne + 1 )
#           1.00000E-02  1.02433E-02  1.04925E-02  1.07478E-02  1.10093E-02
#           1.12772E-02  1.15516E-02  1.18326E-02  1.21205E-02  1.24154E-02
#           1.27175E-02  1.30269E-02  1.33439E-02  1.36686E-02  1.40011E-02
#           1.43418E-02  1.46907E-02  1.50482E-02  1.54143E-02  1.57894E-02
#           1.61735E-02  1.65670E-02  1.69701E-02  1.73830E-02  1.78060E-02
#           1.82392E-02  1.86830E-02  1.91375E-02  1.96032E-02  2.00801E-02
#           2.05687E-02  2.10692E-02  2.15818E-02  2.21069E-02  2.26448E-02
#           2.31957E-02  2.37601E-02  2.43382E-02  2.49304E-02  2.55369E-02
#           2.61583E-02  2.67947E-02  2.74467E-02  2.81145E-02  2.87985E-02
#           2.94992E-02  3.02169E-02  3.09521E-02  3.17052E-02  3.24766E-02
#           3.32668E-02  3.40762E-02  3.49053E-02  3.57546E-02  3.66246E-02
#           3.75157E-02  3.84284E-02  3.93634E-02  4.03212E-02  4.13022E-02
#           4.23071E-02  4.33365E-02  4.43909E-02  4.54710E-02  4.65773E-02
#           4.77106E-02  4.88714E-02  5.00605E-02  5.12785E-02  5.25262E-02
#           5.38042E-02  5.51133E-02  5.64542E-02  5.78278E-02  5.92348E-02
#           6.06760E-02  6.21523E-02  6.36645E-02  6.52135E-02  6.68002E-02
#           6.84255E-02  7.00904E-02  7.17957E-02  7.35426E-02  7.53319E-02
#           7.71648E-02  7.90423E-02  8.09655E-02  8.29354E-02  8.49533E-02
#           8.70203E-02  8.91376E-02  9.13064E-02  9.35279E-02  9.58035E-02
#           9.81345E-02  1.00522E-01  1.02968E-01  1.05473E-01  1.08040E-01
#           1.10668E-01  1.13361E-01  1.16119E-01  1.18944E-01  1.21838E-01
#           1.24803E-01  1.27839E-01  1.30950E-01  1.34136E-01  1.37399E-01
#           1.40742E-01  1.44167E-01  1.47675E-01  1.51268E-01  1.54948E-01
#           1.58718E-01  1.62580E-01  1.66535E-01  1.70587E-01  1.74738E-01
#           1.78989E-01  1.83344E-01  1.87805E-01  1.92375E-01  1.97055E-01
#           2.01850E-01  2.06761E-01  2.11792E-01  2.16945E-01  2.22223E-01
#           2.27630E-01  2.33169E-01  2.38842E-01  2.44653E-01  2.50605E-01
#           2.56703E-01  2.62949E-01  2.69346E-01  2.75900E-01  2.82613E-01
#           2.89489E-01  2.96532E-01  3.03747E-01  3.11138E-01  3.18708E-01
#           3.26462E-01  3.34405E-01  3.42542E-01  3.50876E-01  3.59413E-01
#           3.68158E-01  3.77116E-01  3.86291E-01  3.95690E-01  4.05317E-01
#           4.15179E-01  4.25281E-01  4.35628E-01  4.46227E-01  4.57084E-01
#           4.68205E-01  4.79597E-01  4.91266E-01  5.03219E-01  5.15463E-01
#           5.28005E-01  5.40851E-01  5.54011E-01  5.67490E-01  5.81298E-01
#           5.95441E-01  6.09929E-01  6.24769E-01  6.39970E-01  6.55541E-01
#           6.71491E-01  6.87828E-01  7.04564E-01  7.21706E-01  7.39266E-01
#           7.57253E-01  7.75678E-01  7.94551E-01  8.13883E-01  8.33685E-01
#           8.53969E-01  8.74747E-01  8.96030E-01  9.17831E-01  9.40163E-01
#           9.63038E-01  9.86469E-01  1.01047E+00  1.03506E+00  1.06024E+00
#           1.08604E+00  1.11246E+00  1.13953E+00  1.16725E+00  1.19565E+00
#           1.22474E+00  1.25454E+00  1.28507E+00  1.31633E+00  1.34836E+00
#           1.38117E+00  1.41477E+00  1.44920E+00  1.48446E+00  1.52057E+00
#           1.55757E+00  1.59547E+00  1.63429E+00  1.67405E+00  1.71478E+00
#           1.75650E+00  1.79924E+00  1.84302E+00  1.88786E+00  1.93379E+00
#           1.98084E+00  2.02904E+00  2.07841E+00  2.12898E+00  2.18078E+00
#           2.23384E+00  2.28819E+00  2.34386E+00  2.40089E+00  2.45930E+00
#           2.51914E+00  2.58043E+00  2.64322E+00  2.70753E+00  2.77341E+00
#           2.84088E+00  2.91001E+00  2.98081E+00  3.05333E+00  3.12762E+00
#           3.20372E+00  3.28167E+00  3.36152E+00  3.44330E+00  3.52708E+00
#           3.61290E+00  3.70080E+00  3.79085E+00  3.88308E+00  3.97756E+00
#           4.07434E+00  4.17347E+00  4.27501E+00  4.37903E+00  4.48557E+00
#           4.59471E+00  4.70650E+00  4.82102E+00  4.93832E+00  5.05847E+00
#           5.18155E+00  5.30762E+00  5.43676E+00  5.56904E+00  5.70453E+00
#           5.84333E+00  5.98550E+00  6.13114E+00  6.28031E+00  6.43312E+00
#           6.58964E+00  6.74997E+00  6.91420E+00  7.08243E+00  7.25475E+00
#           7.43126E+00  7.61207E+00  7.79728E+00  7.98700E+00  8.18133E+00
#           8.38038E+00  8.58428E+00  8.79315E+00  9.00709E+00  9.22624E+00
#           9.45072E+00  9.68067E+00  9.91620E+00  1.01575E+01  1.04046E+01
#           1.06578E+01  1.09171E+01  1.11827E+01  1.14548E+01  1.17335E+01
#           1.20190E+01  1.23114E+01  1.26109E+01  1.29178E+01  1.32321E+01
#           1.35540E+01  1.38838E+01  1.42216E+01  1.45676E+01  1.49221E+01
#           1.52851E+01  1.56570E+01  1.60380E+01  1.64282E+01  1.68279E+01
#           1.72374E+01  1.76568E+01  1.80864E+01  1.85264E+01  1.89772E+01
#           1.94389E+01  1.99119E+01  2.03963E+01  2.08926E+01  2.14009E+01
#           2.19216E+01  2.24550E+01  2.30014E+01  2.35610E+01  2.41343E+01
#           2.47215E+01  2.53230E+01  2.59391E+01  2.65702E+01  2.72167E+01
#           2.78789E+01  2.85572E+01  2.92520E+01  2.99637E+01  3.06928E+01
#           3.14396E+01  3.22045E+01  3.29881E+01  3.37907E+01  3.46128E+01
#           3.54550E+01  3.63177E+01  3.72013E+01  3.81064E+01  3.90336E+01
#           3.99833E+01  4.09561E+01  4.19526E+01  4.29734E+01  4.40189E+01
#           4.50900E+01  4.61870E+01  4.73108E+01  4.84619E+01  4.96410E+01
#           5.08488E+01  5.20860E+01  5.33533E+01  5.46514E+01  5.59812E+01
#           5.73432E+01  5.87384E+01  6.01676E+01  6.16315E+01  6.31311E+01
#           6.46671E+01  6.62405E+01  6.78522E+01  6.95031E+01  7.11941E+01
#           7.29263E+01  7.47007E+01  7.65182E+01  7.83800E+01  8.02870E+01
#           8.22405E+01  8.42414E+01  8.62911E+01  8.83906E+01  9.05412E+01
#           9.27442E+01  9.50007E+01  9.73122E+01  9.96799E+01  1.02105E+02
#           1.04589E+02  1.07134E+02  1.09741E+02  1.12411E+02  1.15146E+02
#           1.17948E+02  1.20817E+02  1.23757E+02  1.26768E+02  1.29852E+02
#           1.33012E+02  1.36248E+02  1.39563E+02  1.42959E+02  1.46437E+02
#           1.50000E+02
     unit =    2            # unit is [1/cm^2/(MeV/n)/source]
     axis =  eng            # axis of output
     file = detector-15.out  # file name of output for the above axis
   output = f-curr          # surface crossing forward current spectrum
     part =  neutron  
# kf/name :  2112     
#    used :        main (  %)        temp (  %)       total (  %)
#  memory :         414 (  0)           0 (  0)         414 (  0)

#------------------------------------------------------------------------------
#newpage:
#   no. =    1   reg = 114 - 214

x: Energy [MeV/n]
y:  F-Curr [1/cm^2/(MeV/n)/source]         
p: xlog ylog afac(0.8) form(0.9)
h: n            x            y(neutron ),hh0l   n 
#  e-lower      e-upper      neutron     r.err 
   1.0000E-02   1.0243E-02   3.2431E-04  0.0918
   1.0243E-02   1.0493E-02   3.1479E-04  0.0920
   1.0493E-02   1.0748E-02   4.0553E-04  0.0802
   1.0748E-02   1.1009E-02   3.2706E-04  0.0882
   1.1009E-02   1.1277E-02   3.1523E-04  0.0887
   1.1277E-02   1.1552E-02   2.9603E-04  0.0904
   1.1552E-02   1.1833E-02   2.8701E-04  0.0909
   1.1833E-02   1.2121E-02   2.8570E-04  0.0899
   1.2121E-02   1.2415E-02   2.6262E-04  0.0927
   1.2415E-02   1.2718E-02   2.4056E-04  0.0958
   1.2718E-02   1.3027E-02   2.4878E-04  0.0929
   1.3027E-02   1.3344E-02   2.9057E-04  0.0850
   1.3344E-02   1.3669E-02   2.3886E-04  0.0926
   1.3669E-02   1.4001E-02   2.4947E-04  0.0893
   1.4001E-02   1.4342E-02   2.3644E-04  0.0908
   1.4342E-02   1.4691E-02   2.6241E-04  0.0851
   1.4691E-02   1.5048E-02   2.4118E-04  0.0877
   1.5048E-02   1.5414E-02   2.0031E-04  0.0951
   1.5414E-02   1.5789E-02   2.2461E-04  0.0889
   1.5789E-02   1.6174E-02   2.2386E-04  0.0880
   1.6174E-02   1.6567E-02   2.4624E-04  0.0827
   1.6567E-02   1.6970E-02   2.4359E-04  0.0823
   1.6970E-02   1.7383E-02   2.2842E-04  0.0838
   1.7383E-02   1.7806E-02   2.1699E-04  0.0850
   1.7806E-02   1.8239E-02   1.9741E-04  0.0880
   1.8239E-02   1.8683E-02   2.0510E-04  0.0853
   1.8683E-02   1.9138E-02   2.2585E-04  0.0806
   1.9138E-02   1.9603E-02   2.0668E-04  0.0830
   1.9603E-02   2.0080E-02   1.9452E-04  0.0845
   2.0080E-02   2.0569E-02   2.0560E-04  0.0812
   2.0569E-02   2.1069E-02   1.9798E-04  0.0819
   2.1069E-02   2.1582E-02   1.8140E-04  0.0845
   2.1582E-02   2.2107E-02   1.6427E-04  0.0878
   2.2107E-02   2.2645E-02   1.8632E-04  0.0815
   2.2645E-02   2.3196E-02   1.7783E-04  0.0823
   2.3196E-02   2.3760E-02   1.6079E-04  0.0855
   2.3760E-02   2.4338E-02   1.5205E-04  0.0869
   2.4338E-02   2.4930E-02   1.7055E-04  0.0810
   2.4930E-02   2.5537E-02   1.5211E-04  0.0847
   2.5537E-02   2.6158E-02   1.8393E-04  0.0762
   2.6158E-02   2.6795E-02   1.7089E-04  0.0783
   2.6795E-02   2.7447E-02   1.5895E-04  0.0801
   2.7447E-02   2.8114E-02   1.8516E-04  0.0733
   2.8114E-02   2.8799E-02   1.3869E-04  0.0836
   2.8799E-02   2.9499E-02   1.6190E-04  0.0765
   2.9499E-02   3.0217E-02   1.4517E-04  0.0797
   3.0217E-02   3.0952E-02   1.5316E-04  0.0767
   3.0952E-02   3.1705E-02   1.4046E-04  0.0791
   3.1705E-02   3.2477E-02   1.5554E-04  0.0744
   3.2477E-02   3.3267E-02   1.4804E-04  0.0754
   3.3267E-02   3.4076E-02   1.4124E-04  0.0761
   3.4076E-02   3.4905E-02   1.3182E-04  0.0780
   3.4905E-02   3.5755E-02   1.1716E-04  0.0816
   3.5755E-02   3.6625E-02   1.4410E-04  0.0728
   3.6625E-02   3.7516E-02   1.2619E-04  0.0769
   3.7516E-02   3.8428E-02   1.3578E-04  0.0732
   3.8428E-02   3.9363E-02   1.0414E-04  0.0824
   3.9363E-02   4.0321E-02   1.3080E-04  0.0728
   4.0321E-02   4.1302E-02   1.2365E-04  0.0740
   4.1302E-02   4.2307E-02   1.1080E-04  0.0772
   4.2307E-02   4.3337E-02   1.1131E-04  0.0762
   4.3337E-02   4.4391E-02   1.1365E-04  0.0745
   4.4391E-02   4.5471E-02   1.2176E-04  0.0709
   4.5471E-02   4.6577E-02   1.1007E-04  0.0739
   4.6577E-02   4.7711E-02   1.1030E-04  0.0729
   4.7711E-02   4.8871E-02   9.2689E-05  0.0786
   4.8871E-02   5.0061E-02   9.6700E-05  0.0761
   5.0061E-02   5.1279E-02   9.9983E-05  0.0739
   5.1279E-02   5.2526E-02   9.3240E-05  0.0756
   5.2526E-02   5.3804E-02   9.7769E-05  0.0730
   5.3804E-02   5.5113E-02   8.8216E-05  0.0757
   5.5113E-02   5.6454E-02   9.0561E-05  0.0740
   5.6454E-02   5.7828E-02   8.1195E-05  0.0770
   5.7828E-02   5.9235E-02   7.8722E-05  0.0774
   5.9235E-02   6.0676E-02   8.7818E-05  0.0725
   6.0676E-02   6.2152E-02   8.4311E-05  0.0731
   6.2152E-02   6.3665E-02   7.9157E-05  0.0744
   6.3665E-02   6.5214E-02   7.7875E-05  0.0742
   6.5214E-02   6.6800E-02   7.5369E-05  0.0745
   6.6800E-02   6.8426E-02   7.2602E-05  0.0750
   6.8426E-02   7.0090E-02   6.6464E-05  0.0775
   7.0090E-02   7.1796E-02   7.3019E-05  0.0729
   7.1796E-02   7.3543E-02   7.3836E-05  0.0717
   7.3543E-02   7.5332E-02   8.1385E-05  0.0674
   7.5332E-02   7.7165E-02   5.3213E-05  0.0823
   7.7165E-02   7.9042E-02   6.0406E-05  0.0765
   7.9042E-02   8.0965E-02   7.6120E-05  0.0673
   8.0965E-02   8.2935E-02   7.2245E-05  0.0683
   8.2935E-02   8.4953E-02   6.6010E-05  0.0705
   8.4953E-02   8.7020E-02   5.8178E-05  0.0743
   8.7020E-02   8.9138E-02   6.1072E-05  0.0717
   8.9138E-02   9.1306E-02   5.8557E-05  0.0724
   9.1306E-02   9.3528E-02   5.0601E-05  0.0768
   9.3528E-02   9.5804E-02   5.2978E-05  0.0743
   9.5804E-02   9.8134E-02   5.6164E-05  0.0712
   9.8134E-02   1.0052E-01   5.0440E-05  0.0742
   1.0052E-01   1.0297E-01   5.6316E-05  0.0695
   1.0297E-01   1.0547E-01   5.6192E-05  0.0687
   1.0547E-01   1.0804E-01   5.6426E-05  0.0676
   1.0804E-01   1.1067E-01   5.3025E-05  0.0690
   1.1067E-01   1.1336E-01   4.6653E-05  0.0727
   1.1336E-01   1.1612E-01   4.8344E-05  0.0705
   1.1612E-01   1.1894E-01   4.6245E-05  0.0713
   1.1894E-01   1.2184E-01   4.9528E-05  0.0681
   1.2184E-01   1.2480E-01   4.5007E-05  0.0706
   1.2480E-01   1.2784E-01   4.5105E-05  0.0695
   1.2784E-01   1.3095E-01   3.9371E-05  0.0735
   1.3095E-01   1.3414E-01   4.6516E-05  0.0669
   1.3414E-01   1.3740E-01   4.3003E-05  0.0688
   1.3740E-01   1.4074E-01   3.8721E-05  0.0716
   1.4074E-01   1.4417E-01   3.8230E-05  0.0712
   1.4417E-01   1.4767E-01   4.3200E-05  0.0662
   1.4767E-01   1.5127E-01   4.0564E-05  0.0674
   1.5127E-01   1.5495E-01   3.8955E-05  0.0680
   1.5495E-01   1.5872E-01   4.2623E-05  0.0642
   1.5872E-01   1.6258E-01   3.6612E-05  0.0685
   1.6258E-01   1.6654E-01   3.3899E-05  0.0700
   1.6654E-01   1.7059E-01   3.6587E-05  0.0668
   1.7059E-01   1.7474E-01   3.1907E-05  0.0707
   1.7474E-01   1.7899E-01   3.1933E-05  0.0699
   1.7899E-01   1.8334E-01   3.6657E-05  0.0644
   1.8334E-01   1.8781E-01   3.3579E-05  0.0666
   1.8781E-01   1.9237E-01   2.9465E-05  0.0702
   1.9237E-01   1.9706E-01   3.0380E-05  0.0683
   1.9706E-01   2.0185E-01   3.5066E-05  0.0628
   2.0185E-01   2.0676E-01   3.1821E-05  0.0652
   2.0676E-01   2.1179E-01   3.4661E-05  0.0616
   2.1179E-01   2.1694E-01   3.2137E-05  0.0633
   2.1694E-01   2.2222E-01   3.4874E-05  0.0601
   2.2222E-01   2.2763E-01   4.0066E-05  0.0552
   2.2763E-01   2.3317E-01   4.0863E-05  0.0541
   2.3317E-01   2.3884E-01   3.9463E-05  0.0545
   2.3884E-01   2.4465E-01   4.3172E-05  0.0514
   2.4465E-01   2.5061E-01   4.3506E-05  0.0507
   2.5061E-01   2.5670E-01   4.8644E-05  0.0473
   2.5670E-01   2.6295E-01   4.6161E-05  0.0480
   2.6295E-01   2.6935E-01   4.4411E-05  0.0483
   2.6935E-01   2.7590E-01   5.3768E-05  0.0434
   2.7590E-01   2.8261E-01   5.2190E-05  0.0435
   2.8261E-01   2.8949E-01   5.2094E-05  0.0430
   2.8949E-01   2.9653E-01   5.5223E-05  0.0412
   2.9653E-01   3.0375E-01   6.4645E-05  0.0377
   3.0375E-01   3.1114E-01   6.1467E-05  0.0382
   3.1114E-01   3.1871E-01   6.3550E-05  0.0371
   3.1871E-01   3.2646E-01   6.3705E-05  0.0366
   3.2646E-01   3.3441E-01   6.8795E-05  0.0348
   3.3441E-01   3.4254E-01   6.4519E-05  0.0355
   3.4254E-01   3.5088E-01   7.3849E-05  0.0328
   3.5088E-01   3.5941E-01   7.5057E-05  0.0322
   3.5941E-01   3.6816E-01   8.1975E-05  0.0304
   3.6816E-01   3.7712E-01   8.4839E-05  0.0296
   3.7712E-01   3.8629E-01   8.5774E-05  0.0290
   3.8629E-01   3.9569E-01   8.9876E-05  0.0280
   3.9569E-01   4.0532E-01   9.5017E-05  0.0269
   4.0532E-01   4.1518E-01   9.3734E-05  0.0268
   4.1518E-01   4.2528E-01   9.8537E-05  0.0258
   4.2528E-01   4.3563E-01   1.0384E-04  0.0248
   4.3563E-01   4.4623E-01   1.0123E-04  0.0248
   4.4623E-01   4.5708E-01   1.1061E-04  0.0235
   4.5708E-01   4.6821E-01   1.1148E-04  0.0231
   4.6821E-01   4.7960E-01   1.1493E-04  0.0225
   4.7960E-01   4.9127E-01   1.1940E-04  0.0218
   4.9127E-01   5.0322E-01   1.1906E-04  0.0216
   5.0322E-01   5.1546E-01   1.2846E-04  0.0205
   5.1546E-01   5.2800E-01   1.3083E-04  0.0201
   5.2800E-01   5.4085E-01   1.3103E-04  0.0198
   5.4085E-01   5.5401E-01   1.3739E-04  0.0191
   5.5401E-01   5.6749E-01   1.3909E-04  0.0188
   5.6749E-01   5.8130E-01   1.4906E-04  0.0180
   5.8130E-01   5.9544E-01   1.4586E-04  0.0179
   5.9544E-01   6.0993E-01   1.5102E-04  0.0174
   6.0993E-01   6.2477E-01   1.5450E-04  0.0170
   6.2477E-01   6.3997E-01   1.5886E-04  0.0166
   6.3997E-01   6.5554E-01   1.6248E-04  0.0162
   6.5554E-01   6.7149E-01   1.6545E-04  0.0159
   6.7149E-01   6.8783E-01   1.7034E-04  0.0154
   6.8783E-01   7.0456E-01   1.7723E-04  0.0150
   7.0456E-01   7.2171E-01   1.7537E-04  0.0148
   7.2171E-01   7.3927E-01   1.8120E-04  0.0144
   7.3927E-01   7.5725E-01   1.8429E-04  0.0141
   7.5725E-01   7.7568E-01   1.9123E-04  0.0137
   7.7568E-01   7.9455E-01   1.9008E-04  0.0136
   7.9455E-01   8.1388E-01   1.9385E-04  0.0133
   8.1388E-01   8.3368E-01   1.9678E-04  0.0130
   8.3368E-01   8.5397E-01   1.9888E-04  0.0128
   8.5397E-01   8.7475E-01   2.0520E-04  0.0125
   8.7475E-01   8.9603E-01   2.0600E-04  0.0123
   8.9603E-01   9.1783E-01   2.1067E-04  0.0120
   9.1783E-01   9.4016E-01   2.1723E-04  0.0117
   9.4016E-01   9.6304E-01   2.1803E-04  0.0115
   9.6304E-01   9.8647E-01   2.1648E-04  0.0114
   9.8647E-01   1.0105E+00   2.1808E-04  0.0112
   1.0105E+00   1.0351E+00   2.2838E-04  0.0109
   1.0351E+00   1.0602E+00   2.2383E-04  0.0108
   1.0602E+00   1.0860E+00   2.2692E-04  0.0106
   1.0860E+00   1.1125E+00   2.2372E-04  0.0106
   1.1125E+00   1.1395E+00   2.2614E-04  0.0104
   1.1395E+00   1.1673E+00   2.2917E-04  0.0102
   1.1673E+00   1.1957E+00   2.3016E-04  0.0101
   1.1957E+00   1.2247E+00   2.3533E-04  0.0098
   1.2247E+00   1.2545E+00   2.3287E-04  0.0098
   1.2545E+00   1.2851E+00   2.3577E-04  0.0096
   1.2851E+00   1.3163E+00   2.3946E-04  0.0094
   1.3163E+00   1.3484E+00   2.3835E-04  0.0093
   1.3484E+00   1.3812E+00   2.4137E-04  0.0091
   1.3812E+00   1.4148E+00   2.3905E-04  0.0091
   1.4148E+00   1.4492E+00   2.3927E-04  0.0090
   1.4492E+00   1.4845E+00   2.4835E-04  0.0087
   1.4845E+00   1.5206E+00   2.4073E-04  0.0087
   1.5206E+00   1.5576E+00   2.3983E-04  0.0086
   1.5576E+00   1.5955E+00   2.4118E-04  0.0085
   1.5955E+00   1.6343E+00   2.3949E-04  0.0084
   1.6343E+00   1.6741E+00   2.3767E-04  0.0084
   1.6741E+00   1.7148E+00   2.3723E-04  0.0083
   1.7148E+00   1.7565E+00   2.3363E-04  0.0082
   1.7565E+00   1.7992E+00   2.3643E-04  0.0081
   1.7992E+00   1.8430E+00   2.3775E-04  0.0080
   1.8430E+00   1.8879E+00   2.3600E-04  0.0079
   1.8879E+00   1.9338E+00   2.3033E-04  0.0079
   1.9338E+00   1.9808E+00   2.3405E-04  0.0078
   1.9808E+00   2.0290E+00   2.2808E-04  0.0078
   2.0290E+00   2.0784E+00   2.3006E-04  0.0076
   2.0784E+00   2.1290E+00   2.2630E-04  0.0076
   2.1290E+00   2.1808E+00   2.2345E-04  0.0076
   2.1808E+00   2.2338E+00   2.2170E-04  0.0075
   2.2338E+00   2.2882E+00   2.1685E-04  0.0075
   2.2882E+00   2.3439E+00   2.1782E-04  0.0074
   2.3439E+00   2.4009E+00   2.0933E-04  0.0074
   2.4009E+00   2.4593E+00   2.0922E-04  0.0074
   2.4593E+00   2.5191E+00   2.0640E-04  0.0073
   2.5191E+00   2.5804E+00   2.0223E-04  0.0073
   2.5804E+00   2.6432E+00   2.0052E-04  0.0072
   2.6432E+00   2.7075E+00   1.9372E-04  0.0073
   2.7075E+00   2.7734E+00   1.9098E-04  0.0073
   2.7734E+00   2.8409E+00   1.8746E-04  0.0072
   2.8409E+00   2.9100E+00   1.8376E-04  0.0072
   2.9100E+00   2.9808E+00   1.8099E-04  0.0072
   2.9808E+00   3.0533E+00   1.7926E-04  0.0071
   3.0533E+00   3.1276E+00   1.7451E-04  0.0071
   3.1276E+00   3.2037E+00   1.7272E-04  0.0071
   3.2037E+00   3.2817E+00   1.6800E-04  0.0071
   3.2817E+00   3.3615E+00   1.6811E-04  0.0070
   3.3615E+00   3.4433E+00   1.6285E-04  0.0070
   3.4433E+00   3.5271E+00   1.6111E-04  0.0070
   3.5271E+00   3.6129E+00   1.5879E-04  0.0070
   3.6129E+00   3.7008E+00   1.5756E-04  0.0069
   3.7008E+00   3.7908E+00   1.5748E-04  0.0068
   3.7908E+00   3.8831E+00   1.5468E-04  0.0068
   3.8831E+00   3.9776E+00   1.5251E-04  0.0068
   3.9776E+00   4.0743E+00   1.5199E-04  0.0067
   4.0743E+00   4.1735E+00   1.5062E-04  0.0067
   4.1735E+00   4.2750E+00   1.4904E-04  0.0066
   4.2750E+00   4.3790E+00   1.4678E-04  0.0066
   4.3790E+00   4.4856E+00   1.4534E-04  0.0065
   4.4856E+00   4.5947E+00   1.4451E-04  0.0065
   4.5947E+00   4.7065E+00   1.4213E-04  0.0065
   4.7065E+00   4.8210E+00   1.4075E-04  0.0064
   4.8210E+00   4.9383E+00   1.4009E-04  0.0064
   4.9383E+00   5.0585E+00   1.3695E-04  0.0063
   5.0585E+00   5.1815E+00   1.3476E-04  0.0063
   5.1815E+00   5.3076E+00   1.3134E-04  0.0063
   5.3076E+00   5.4368E+00   1.2815E-04  0.0063
   5.4368E+00   5.5690E+00   1.2232E-04  0.0064
   5.5690E+00   5.7045E+00   1.2182E-04  0.0063
   5.7045E+00   5.8433E+00   1.1747E-04  0.0064
   5.8433E+00   5.9855E+00   1.1327E-04  0.0064
   5.9855E+00   6.1311E+00   1.1092E-04  0.0064
   6.1311E+00   6.2803E+00   1.0776E-04  0.0064
   6.2803E+00   6.4331E+00   1.0564E-04  0.0064
   6.4331E+00   6.5896E+00   1.0211E-04  0.0064
   6.5896E+00   6.7500E+00   9.9821E-05  0.0064
   6.7500E+00   6.9142E+00   9.8765E-05  0.0064
   6.9142E+00   7.0824E+00   9.7283E-05  0.0064
   7.0824E+00   7.2548E+00   9.5730E-05  0.0063
   7.2548E+00   7.4313E+00   9.4254E-05  0.0063
   7.4313E+00   7.6121E+00   9.1625E-05  0.0063
   7.6121E+00   7.7973E+00   9.0852E-05  0.0063
   7.7973E+00   7.9870E+00   8.9017E-05  0.0063
   7.9870E+00   8.1813E+00   8.7033E-05  0.0063
   8.1813E+00   8.3804E+00   8.4508E-05  0.0063
   8.3804E+00   8.5843E+00   8.2833E-05  0.0063
   8.5843E+00   8.7931E+00   8.2230E-05  0.0062
   8.7931E+00   9.0071E+00   7.9559E-05  0.0063
   9.0071E+00   9.2262E+00   7.6916E-05  0.0063
   9.2262E+00   9.4507E+00   7.5506E-05  0.0063
   9.4507E+00   9.6807E+00   7.3592E-05  0.0063
   9.6807E+00   9.9162E+00   7.1882E-05  0.0063
   9.9162E+00   1.0157E+01   6.9339E-05  0.0063
   1.0157E+01   1.0405E+01   6.8366E-05  0.0063
   1.0405E+01   1.0658E+01   6.6655E-05  0.0063
   1.0658E+01   1.0917E+01   6.4688E-05  0.0063
   1.0917E+01   1.1183E+01   6.3249E-05  0.0063
   1.1183E+01   1.1455E+01   6.1174E-05  0.0063
   1.1455E+01   1.1733E+01   5.8759E-05  0.0064
   1.1733E+01   1.2019E+01   5.7013E-05  0.0064
   1.2019E+01   1.2311E+01   5.4305E-05  0.0065
   1.2311E+01   1.2611E+01   5.2483E-05  0.0065
   1.2611E+01   1.2918E+01   4.9685E-05  0.0066
   1.2918E+01   1.3232E+01   4.8239E-05  0.0066
   1.3232E+01   1.3554E+01   4.5786E-05  0.0067
   1.3554E+01   1.3884E+01   4.4066E-05  0.0068
   1.3884E+01   1.4222E+01   4.1534E-05  0.0069
   1.4222E+01   1.4568E+01   4.0252E-05  0.0069
   1.4568E+01   1.4922E+01   3.7680E-05  0.0071
   1.4922E+01   1.5285E+01   3.5584E-05  0.0072
   1.5285E+01   1.5657E+01   3.3921E-05  0.0073
   1.5657E+01   1.6038E+01   3.1752E-05  0.0074
   1.6038E+01   1.6428E+01   2.9900E-05  0.0076
   1.6428E+01   1.6828E+01   2.7983E-05  0.0077
   1.6828E+01   1.7237E+01   2.6579E-05  0.0078
   1.7237E+01   1.7657E+01   2.4553E-05  0.0080
   1.7657E+01   1.8086E+01   2.3294E-05  0.0082
   1.8086E+01   1.8526E+01   2.1986E-05  0.0083
   1.8526E+01   1.8977E+01   2.0505E-05  0.0085
   1.8977E+01   1.9439E+01   1.9361E-05  0.0086
   1.9439E+01   1.9912E+01   1.8315E-05  0.0088
   1.9912E+01   2.0396E+01   1.7922E-05  0.0088
   2.0396E+01   2.0893E+01   1.6435E-05  0.0090
   2.0893E+01   2.1401E+01   1.5325E-05  0.0093
   2.1401E+01   2.1922E+01   1.4702E-05  0.0093
   2.1922E+01   2.2455E+01   1.3729E-05  0.0095
   2.2455E+01   2.3001E+01   1.2898E-05  0.0097
   2.3001E+01   2.3561E+01   1.2358E-05  0.0098
   2.3561E+01   2.4134E+01   1.1649E-05  0.0100
   2.4134E+01   2.4721E+01   1.1090E-05  0.0101
   2.4721E+01   2.5323E+01   1.0751E-05  0.0102
   2.5323E+01   2.5939E+01   1.0252E-05  0.0103
   2.5939E+01   2.6570E+01   9.7752E-06  0.0104
   2.6570E+01   2.7217E+01   9.2615E-06  0.0106
   2.7217E+01   2.7879E+01   8.8291E-06  0.0107
   2.7879E+01   2.8557E+01   8.4405E-06  0.0108
   2.8557E+01   2.9252E+01   7.8735E-06  0.0110
   2.9252E+01   2.9964E+01   7.0795E-06  0.0115
   2.9964E+01   3.0693E+01   6.5977E-06  0.0118
   3.0693E+01   3.1440E+01   5.9384E-06  0.0123
   3.1440E+01   3.2205E+01   5.2300E-06  0.0129
   3.2205E+01   3.2988E+01   4.5221E-06  0.0137
   3.2988E+01   3.3791E+01   3.6879E-06  0.0150
   3.3791E+01   3.4613E+01   2.8332E-06  0.0169
   3.4613E+01   3.5455E+01   2.1342E-06  0.0193
   3.5455E+01   3.6318E+01   1.4699E-06  0.0229
   3.6318E+01   3.7201E+01   1.1324E-06  0.0258
   3.7201E+01   3.8106E+01   8.3229E-07  0.0297
   3.8106E+01   3.9034E+01   6.1910E-07  0.0341
   3.9034E+01   3.9983E+01   4.0152E-07  0.0418
   3.9983E+01   4.0956E+01   2.3437E-07  0.0541
   4.0956E+01   4.1953E+01   1.2778E-07  0.0724
   4.1953E+01   4.2973E+01   2.5472E-08  0.1601
   4.2973E+01   4.4019E+01   9.5641E-09  0.2582
   4.4019E+01   4.5090E+01   6.2246E-09  0.3162
   4.5090E+01   4.6187E+01   2.4307E-09  0.5000
   4.6187E+01   4.7311E+01   0.0000E+00  0.0000
   4.7311E+01   4.8462E+01   0.0000E+00  0.0000
   4.8462E+01   4.9641E+01   0.0000E+00  0.0000
   4.9641E+01   5.0849E+01   0.0000E+00  0.0000
   5.0849E+01   5.2086E+01   0.0000E+00  0.0000
   5.2086E+01   5.3353E+01   0.0000E+00  0.0000
   5.3353E+01   5.4651E+01   0.0000E+00  0.0000
   5.4651E+01   5.5981E+01   0.0000E+00  0.0000
   5.5981E+01   5.7343E+01   0.0000E+00  0.0000
   5.7343E+01   5.8738E+01   0.0000E+00  0.0000
   5.8738E+01   6.0168E+01   0.0000E+00  0.0000
   6.0168E+01   6.1632E+01   0.0000E+00  0.0000
   6.1632E+01   6.3131E+01   0.0000E+00  0.0000
   6.3131E+01   6.4667E+01   0.0000E+00  0.0000
   6.4667E+01   6.6240E+01   0.0000E+00  0.0000
   6.6240E+01   6.7852E+01   0.0000E+00  0.0000
   6.7852E+01   6.9503E+01   0.0000E+00  0.0000
   6.9503E+01   7.1194E+01   0.0000E+00  0.0000
   7.1194E+01   7.2926E+01   0.0000E+00  0.0000
   7.2926E+01   7.4701E+01   0.0000E+00  0.0000
   7.4701E+01   7.6518E+01   0.0000E+00  0.0000
   7.6518E+01   7.8380E+01   0.0000E+00  0.0000
   7.8380E+01   8.0287E+01   0.0000E+00  0.0000
   8.0287E+01   8.2240E+01   0.0000E+00  0.0000
   8.2240E+01   8.4241E+01   0.0000E+00  0.0000
   8.4241E+01   8.6291E+01   0.0000E+00  0.0000
   8.6291E+01   8.8391E+01   0.0000E+00  0.0000
   8.8391E+01   9.0541E+01   0.0000E+00  0.0000
   9.0541E+01   9.2744E+01   0.0000E+00  0.0000
   9.2744E+01   9.5001E+01   0.0000E+00  0.0000
   9.5001E+01   9.7312E+01   0.0000E+00  0.0000
   9.7312E+01   9.9680E+01   0.0000E+00  0.0000
   9.9680E+01   1.0211E+02   0.0000E+00  0.0000
   1.0211E+02   1.0459E+02   0.0000E+00  0.0000
   1.0459E+02   1.0713E+02   0.0000E+00  0.0000
   1.0713E+02   1.0974E+02   0.0000E+00  0.0000
   1.0974E+02   1.1241E+02   0.0000E+00  0.0000
   1.1241E+02   1.1515E+02   0.0000E+00  0.0000
   1.1515E+02   1.1795E+02   0.0000E+00  0.0000
   1.1795E+02   1.2082E+02   0.0000E+00  0.0000
   1.2082E+02   1.2376E+02   0.0000E+00  0.0000
   1.2376E+02   1.2677E+02   0.0000E+00  0.0000
   1.2677E+02   1.2985E+02   0.0000E+00  0.0000
   1.2985E+02   1.3301E+02   0.0000E+00  0.0000
   1.3301E+02   1.3625E+02   0.0000E+00  0.0000
   1.3625E+02   1.3956E+02   0.0000E+00  0.0000
   1.3956E+02   1.4296E+02   0.0000E+00  0.0000
   1.4296E+02   1.4644E+02   0.0000E+00  0.0000
   1.4644E+02   1.5000E+02   0.0000E+00  0.0000

#   sum over                 1.2552E-05
'no. =    1   reg = 114 - 214'
msuc: {\huge [t-cross] in region mesh}
msdr: {\it plotted by \ANGEL \version}
msdl: {\it calculated by \PHITS  3.26}
wt: s(0.7)
\vspace{-3}
  region surface crossing
  area  &=&   1.0000E+00 [cm^2]
e:
 
# Information for Restart Calculation
# This calculation was newly started
# istdev =  2 # 1:Batch variance, 2:History variance
# resc2  = 1.50000000000000000E+09 # Total source weight or Total source weight / maxcas
# resc3  = 1.50000000000000000E+09 # Total history number or Total batch number
# maxcas =   500000000 # History / Batch, only used for istdev=1
# bitrseed = 0000010101110101110110100110011001100101000001100111100100101101 # bit data of rseed
