0 <--- number of remaining batches 

-------------------------------------------------------------------------------
bat[      50] ncas =     5000000000.
 bitrseed = 1010100001101100001010110100011000011010110011110100001101011000
          cpu time =   2 h.  2 m. 23.73 s.

 date = 2022-04-26
 time = 11h 57m 15s

