[ T-Cross ]
    title = [t-cross] in region mesh
     mesh =  reg            # mesh type is region-wise
      reg =    1            # number of crossing regions
      non     r-from    r-to       area
      1       121       221        1.000000    
   e-type =    3            # e-mesh is log given by emin, emax and ne
     emin =  1.0000000E-02  # minimum value of e-mesh points
     emax =   150.0000      # maximum value of e-mesh points
#    edel =  2.4039514E-02  # mesh width of e-mesh points
       ne =    400          # number of e-mesh points
#    data = ( e(i), i = 1, ne + 1 )
#           1.00000E-02  1.02433E-02  1.04925E-02  1.07478E-02  1.10093E-02
#           1.12772E-02  1.15516E-02  1.18326E-02  1.21205E-02  1.24154E-02
#           1.27175E-02  1.30269E-02  1.33439E-02  1.36686E-02  1.40011E-02
#           1.43418E-02  1.46907E-02  1.50482E-02  1.54143E-02  1.57894E-02
#           1.61735E-02  1.65670E-02  1.69701E-02  1.73830E-02  1.78060E-02
#           1.82392E-02  1.86830E-02  1.91375E-02  1.96032E-02  2.00801E-02
#           2.05687E-02  2.10692E-02  2.15818E-02  2.21069E-02  2.26448E-02
#           2.31957E-02  2.37601E-02  2.43382E-02  2.49304E-02  2.55369E-02
#           2.61583E-02  2.67947E-02  2.74467E-02  2.81145E-02  2.87985E-02
#           2.94992E-02  3.02169E-02  3.09521E-02  3.17052E-02  3.24766E-02
#           3.32668E-02  3.40762E-02  3.49053E-02  3.57546E-02  3.66246E-02
#           3.75157E-02  3.84284E-02  3.93634E-02  4.03212E-02  4.13022E-02
#           4.23071E-02  4.33365E-02  4.43909E-02  4.54710E-02  4.65773E-02
#           4.77106E-02  4.88714E-02  5.00605E-02  5.12785E-02  5.25262E-02
#           5.38042E-02  5.51133E-02  5.64542E-02  5.78278E-02  5.92348E-02
#           6.06760E-02  6.21523E-02  6.36645E-02  6.52135E-02  6.68002E-02
#           6.84255E-02  7.00904E-02  7.17957E-02  7.35426E-02  7.53319E-02
#           7.71648E-02  7.90423E-02  8.09655E-02  8.29354E-02  8.49533E-02
#           8.70203E-02  8.91376E-02  9.13064E-02  9.35279E-02  9.58035E-02
#           9.81345E-02  1.00522E-01  1.02968E-01  1.05473E-01  1.08040E-01
#           1.10668E-01  1.13361E-01  1.16119E-01  1.18944E-01  1.21838E-01
#           1.24803E-01  1.27839E-01  1.30950E-01  1.34136E-01  1.37399E-01
#           1.40742E-01  1.44167E-01  1.47675E-01  1.51268E-01  1.54948E-01
#           1.58718E-01  1.62580E-01  1.66535E-01  1.70587E-01  1.74738E-01
#           1.78989E-01  1.83344E-01  1.87805E-01  1.92375E-01  1.97055E-01
#           2.01850E-01  2.06761E-01  2.11792E-01  2.16945E-01  2.22223E-01
#           2.27630E-01  2.33169E-01  2.38842E-01  2.44653E-01  2.50605E-01
#           2.56703E-01  2.62949E-01  2.69346E-01  2.75900E-01  2.82613E-01
#           2.89489E-01  2.96532E-01  3.03747E-01  3.11138E-01  3.18708E-01
#           3.26462E-01  3.34405E-01  3.42542E-01  3.50876E-01  3.59413E-01
#           3.68158E-01  3.77116E-01  3.86291E-01  3.95690E-01  4.05317E-01
#           4.15179E-01  4.25281E-01  4.35628E-01  4.46227E-01  4.57084E-01
#           4.68205E-01  4.79597E-01  4.91266E-01  5.03219E-01  5.15463E-01
#           5.28005E-01  5.40851E-01  5.54011E-01  5.67490E-01  5.81298E-01
#           5.95441E-01  6.09929E-01  6.24769E-01  6.39970E-01  6.55541E-01
#           6.71491E-01  6.87828E-01  7.04564E-01  7.21706E-01  7.39266E-01
#           7.57253E-01  7.75678E-01  7.94551E-01  8.13883E-01  8.33685E-01
#           8.53969E-01  8.74747E-01  8.96030E-01  9.17831E-01  9.40163E-01
#           9.63038E-01  9.86469E-01  1.01047E+00  1.03506E+00  1.06024E+00
#           1.08604E+00  1.11246E+00  1.13953E+00  1.16725E+00  1.19565E+00
#           1.22474E+00  1.25454E+00  1.28507E+00  1.31633E+00  1.34836E+00
#           1.38117E+00  1.41477E+00  1.44920E+00  1.48446E+00  1.52057E+00
#           1.55757E+00  1.59547E+00  1.63429E+00  1.67405E+00  1.71478E+00
#           1.75650E+00  1.79924E+00  1.84302E+00  1.88786E+00  1.93379E+00
#           1.98084E+00  2.02904E+00  2.07841E+00  2.12898E+00  2.18078E+00
#           2.23384E+00  2.28819E+00  2.34386E+00  2.40089E+00  2.45930E+00
#           2.51914E+00  2.58043E+00  2.64322E+00  2.70753E+00  2.77341E+00
#           2.84088E+00  2.91001E+00  2.98081E+00  3.05333E+00  3.12762E+00
#           3.20372E+00  3.28167E+00  3.36152E+00  3.44330E+00  3.52708E+00
#           3.61290E+00  3.70080E+00  3.79085E+00  3.88308E+00  3.97756E+00
#           4.07434E+00  4.17347E+00  4.27501E+00  4.37903E+00  4.48557E+00
#           4.59471E+00  4.70650E+00  4.82102E+00  4.93832E+00  5.05847E+00
#           5.18155E+00  5.30762E+00  5.43676E+00  5.56904E+00  5.70453E+00
#           5.84333E+00  5.98550E+00  6.13114E+00  6.28031E+00  6.43312E+00
#           6.58964E+00  6.74997E+00  6.91420E+00  7.08243E+00  7.25475E+00
#           7.43126E+00  7.61207E+00  7.79728E+00  7.98700E+00  8.18133E+00
#           8.38038E+00  8.58428E+00  8.79315E+00  9.00709E+00  9.22624E+00
#           9.45072E+00  9.68067E+00  9.91620E+00  1.01575E+01  1.04046E+01
#           1.06578E+01  1.09171E+01  1.11827E+01  1.14548E+01  1.17335E+01
#           1.20190E+01  1.23114E+01  1.26109E+01  1.29178E+01  1.32321E+01
#           1.35540E+01  1.38838E+01  1.42216E+01  1.45676E+01  1.49221E+01
#           1.52851E+01  1.56570E+01  1.60380E+01  1.64282E+01  1.68279E+01
#           1.72374E+01  1.76568E+01  1.80864E+01  1.85264E+01  1.89772E+01
#           1.94389E+01  1.99119E+01  2.03963E+01  2.08926E+01  2.14009E+01
#           2.19216E+01  2.24550E+01  2.30014E+01  2.35610E+01  2.41343E+01
#           2.47215E+01  2.53230E+01  2.59391E+01  2.65702E+01  2.72167E+01
#           2.78789E+01  2.85572E+01  2.92520E+01  2.99637E+01  3.06928E+01
#           3.14396E+01  3.22045E+01  3.29881E+01  3.37907E+01  3.46128E+01
#           3.54550E+01  3.63177E+01  3.72013E+01  3.81064E+01  3.90336E+01
#           3.99833E+01  4.09561E+01  4.19526E+01  4.29734E+01  4.40189E+01
#           4.50900E+01  4.61870E+01  4.73108E+01  4.84619E+01  4.96410E+01
#           5.08488E+01  5.20860E+01  5.33533E+01  5.46514E+01  5.59812E+01
#           5.73432E+01  5.87384E+01  6.01676E+01  6.16315E+01  6.31311E+01
#           6.46671E+01  6.62405E+01  6.78522E+01  6.95031E+01  7.11941E+01
#           7.29263E+01  7.47007E+01  7.65182E+01  7.83800E+01  8.02870E+01
#           8.22405E+01  8.42414E+01  8.62911E+01  8.83906E+01  9.05412E+01
#           9.27442E+01  9.50007E+01  9.73122E+01  9.96799E+01  1.02105E+02
#           1.04589E+02  1.07134E+02  1.09741E+02  1.12411E+02  1.15146E+02
#           1.17948E+02  1.20817E+02  1.23757E+02  1.26768E+02  1.29852E+02
#           1.33012E+02  1.36248E+02  1.39563E+02  1.42959E+02  1.46437E+02
#           1.50000E+02
     unit =    2            # unit is [1/cm^2/(MeV/n)/source]
     axis =  eng            # axis of output
     file = detector-22.out  # file name of output for the above axis
   output = f-curr          # surface crossing forward current spectrum
     part =  neutron  
# kf/name :  2112     
#    used :        main (  %)        temp (  %)       total (  %)
#  memory :         414 (  0)           0 (  0)         414 (  0)

#------------------------------------------------------------------------------
#newpage:
#   no. =    1   reg = 121 - 221

x: Energy [MeV/n]
y:  F-Curr [1/cm^2/(MeV/n)/source]         
p: xlog ylog afac(0.8) form(0.9)
h: n            x            y(neutron ),hh0l   n 
#  e-lower      e-upper      neutron     r.err 
   1.0000E-02   1.0243E-02   3.7812E-04  0.1474
   1.0243E-02   1.0493E-02   3.0494E-04  0.1622
   1.0493E-02   1.0748E-02   3.5254E-04  0.1491
   1.0748E-02   1.1009E-02   3.3652E-04  0.1508
   1.1009E-02   1.1277E-02   2.3146E-04  0.1796
   1.1277E-02   1.1552E-02   2.6241E-04  0.1667
   1.1552E-02   1.1833E-02   2.7041E-04  0.1622
   1.1833E-02   1.2121E-02   3.4735E-04  0.1414
   1.2121E-02   1.2415E-02   2.7806E-04  0.1562
   1.2415E-02   1.2718E-02   3.5752E-04  0.1361
   1.2718E-02   1.3027E-02   4.2659E-04  0.1231
   1.3027E-02   1.3344E-02   3.1550E-04  0.1414
   1.3344E-02   1.3669E-02   2.5873E-04  0.1543
   1.3669E-02   1.4001E-02   3.7887E-04  0.1260
   1.4001E-02   1.4342E-02   2.2897E-04  0.1601
   1.4342E-02   1.4691E-02   3.0950E-04  0.1361
   1.4691E-02   1.5048E-02   2.7977E-04  0.1414
   1.5048E-02   1.5414E-02   3.5506E-04  0.1240
   1.5414E-02   1.5789E-02   3.3063E-04  0.1270
   1.5789E-02   1.6174E-02   2.7592E-04  0.1374
   1.6174E-02   1.6567E-02   3.3036E-04  0.1240
   1.6567E-02   1.6970E-02   3.3739E-04  0.1213
   1.6970E-02   1.7383E-02   2.9547E-04  0.1280
   1.7383E-02   1.7806E-02   3.3574E-04  0.1187
   1.7806E-02   1.8239E-02   3.0007E-04  0.1240
   1.8239E-02   1.8683E-02   3.1548E-04  0.1195
   1.8683E-02   1.9138E-02   2.9478E-04  0.1222
   1.9138E-02   1.9603E-02   2.5771E-04  0.1291
   1.9603E-02   2.0080E-02   3.0610E-04  0.1170
   2.0080E-02   2.0569E-02   3.4796E-04  0.1085
   2.0569E-02   2.1069E-02   3.2371E-04  0.1111
   2.1069E-02   2.1582E-02   3.0431E-04  0.1132
   2.1582E-02   2.2107E-02   3.5422E-04  0.1037
   2.2107E-02   2.2645E-02   2.7887E-04  0.1155
   2.2645E-02   2.3196E-02   3.8478E-04  0.0971
   2.3196E-02   2.3760E-02   4.0399E-04  0.0937
   2.3760E-02   2.4338E-02   3.4596E-04  0.1000
   2.4338E-02   2.4930E-02   3.3099E-04  0.1010
   2.4930E-02   2.5537E-02   3.6599E-04  0.0949
   2.5537E-02   2.6158E-02   3.2189E-04  0.1000
   2.6158E-02   2.6795E-02   3.3624E-04  0.0967
   2.6795E-02   2.7447E-02   3.1598E-04  0.0985
   2.7447E-02   2.8114E-02   3.8934E-04  0.0877
   2.8114E-02   2.8799E-02   3.5962E-04  0.0902
   2.8799E-02   2.9499E-02   3.5965E-04  0.0891
   2.9499E-02   3.0217E-02   3.1766E-04  0.0937
   3.0217E-02   3.0952E-02   3.1012E-04  0.0937
   3.0952E-02   3.1705E-02   4.2492E-04  0.0791
   3.1705E-02   3.2477E-02   3.0334E-04  0.0925
   3.2477E-02   3.3267E-02   3.2398E-04  0.0884
   3.3267E-02   3.4076E-02   3.3605E-04  0.0857
   3.4076E-02   3.4905E-02   3.2083E-04  0.0867
   3.4905E-02   3.5755E-02   2.8259E-04  0.0913
   3.5755E-02   3.6625E-02   3.4715E-04  0.0814
   3.6625E-02   3.7516E-02   3.6359E-04  0.0786
   3.7516E-02   3.8428E-02   3.7468E-04  0.0765
   3.8428E-02   3.9363E-02   3.2941E-04  0.0806
   3.9363E-02   4.0321E-02   3.4038E-04  0.0783
   4.0321E-02   4.1302E-02   3.7307E-04  0.0739
   4.1302E-02   4.2307E-02   4.0003E-04  0.0705
   4.2307E-02   4.3337E-02   3.3030E-04  0.0767
   4.3337E-02   4.4391E-02   3.8505E-04  0.0702
   4.4391E-02   4.5471E-02   3.7405E-04  0.0704
   4.5471E-02   4.6577E-02   4.0132E-04  0.0671
   4.6577E-02   4.7711E-02   3.6002E-04  0.0700
   4.7711E-02   4.8871E-02   3.4113E-04  0.0711
   4.8871E-02   5.0061E-02   3.5658E-04  0.0687
   5.0061E-02   5.1279E-02   4.2528E-04  0.0621
   5.1279E-02   5.2526E-02   3.8472E-04  0.0645
   5.2526E-02   5.3804E-02   3.3177E-04  0.0687
   5.3804E-02   5.5113E-02   3.4528E-04  0.0665
   5.5113E-02   5.6454E-02   3.5796E-04  0.0645
   5.6454E-02   5.7828E-02   3.7712E-04  0.0621
   5.7828E-02   5.9235E-02   3.8095E-04  0.0611
   5.9235E-02   6.0676E-02   3.4415E-04  0.0635
   6.0676E-02   6.2152E-02   3.8068E-04  0.0597
   6.2152E-02   6.3665E-02   4.1661E-04  0.0563
   6.3665E-02   6.5214E-02   3.8218E-04  0.0581
   6.5214E-02   6.6800E-02   4.0714E-04  0.0556
   6.6800E-02   6.8426E-02   3.9993E-04  0.0555
   6.8426E-02   7.0090E-02   3.7721E-04  0.0564
   7.0090E-02   7.1796E-02   3.7177E-04  0.0562
   7.1796E-02   7.3543E-02   3.7782E-04  0.0550
   7.3543E-02   7.5332E-02   4.1803E-04  0.0517
   7.5332E-02   7.7165E-02   4.2010E-04  0.0510
   7.7165E-02   7.9042E-02   4.2717E-04  0.0499
   7.9042E-02   8.0965E-02   4.3054E-04  0.0491
   8.0965E-02   8.2935E-02   3.8884E-04  0.0511
   8.2935E-02   8.4953E-02   3.7961E-04  0.0511
   8.4953E-02   8.7020E-02   3.9284E-04  0.0496
   8.7020E-02   8.9138E-02   3.7973E-04  0.0499
   8.9138E-02   9.1306E-02   4.2881E-04  0.0464
   9.1306E-02   9.3528E-02   4.0242E-04  0.0473
   9.3528E-02   9.5804E-02   4.2626E-04  0.0454
   9.5804E-02   9.8134E-02   4.5560E-04  0.0434
   9.8134E-02   1.0052E-01   4.1630E-04  0.0449
   1.0052E-01   1.0297E-01   4.3503E-04  0.0434
   1.0297E-01   1.0547E-01   4.5983E-04  0.0417
   1.0547E-01   1.0804E-01   4.5397E-04  0.0414
   1.0804E-01   1.1067E-01   4.4737E-04  0.0412
   1.1067E-01   1.1336E-01   4.2486E-04  0.0418
   1.1336E-01   1.1612E-01   4.2347E-04  0.0414
   1.1612E-01   1.1894E-01   4.4598E-04  0.0398
   1.1894E-01   1.2184E-01   4.5750E-04  0.0389
   1.2184E-01   1.2480E-01   4.4798E-04  0.0388
   1.2480E-01   1.2784E-01   4.2285E-04  0.0395
   1.2784E-01   1.3095E-01   4.2631E-04  0.0388
   1.3095E-01   1.3414E-01   4.4192E-04  0.0377
   1.3414E-01   1.3740E-01   4.5961E-04  0.0365
   1.3740E-01   1.4074E-01   4.3374E-04  0.0371
   1.4074E-01   1.4417E-01   4.7074E-04  0.0352
   1.4417E-01   1.4767E-01   4.6070E-04  0.0352
   1.4767E-01   1.5127E-01   4.4920E-04  0.0352
   1.5127E-01   1.5495E-01   4.6570E-04  0.0342
   1.5495E-01   1.5872E-01   4.5146E-04  0.0343
   1.5872E-01   1.6258E-01   4.7077E-04  0.0332
   1.6258E-01   1.6654E-01   4.9195E-04  0.0321
   1.6654E-01   1.7059E-01   4.6249E-04  0.0327
   1.7059E-01   1.7474E-01   4.5006E-04  0.0327
   1.7474E-01   1.7899E-01   4.8877E-04  0.0310
   1.7899E-01   1.8334E-01   4.6062E-04  0.0316
   1.8334E-01   1.8781E-01   4.6000E-04  0.0312
   1.8781E-01   1.9237E-01   4.5695E-04  0.0309
   1.9237E-01   1.9706E-01   4.8241E-04  0.0298
   1.9706E-01   2.0185E-01   4.8013E-04  0.0295
   2.0185E-01   2.0676E-01   5.0049E-04  0.0285
   2.0676E-01   2.1179E-01   4.6753E-04  0.0292
   2.1179E-01   2.1694E-01   4.7351E-04  0.0286
   2.1694E-01   2.2222E-01   4.9257E-04  0.0277
   2.2222E-01   2.2763E-01   4.9197E-04  0.0274
   2.2763E-01   2.3317E-01   5.1061E-04  0.0266
   2.3317E-01   2.3884E-01   5.0536E-04  0.0264
   2.3884E-01   2.4465E-01   5.2003E-04  0.0257
   2.4465E-01   2.5061E-01   5.1574E-04  0.0255
   2.5061E-01   2.5670E-01   4.9595E-04  0.0257
   2.5670E-01   2.6295E-01   4.9313E-04  0.0255
   2.6295E-01   2.6935E-01   5.0393E-04  0.0249
   2.6935E-01   2.7590E-01   4.8768E-04  0.0250
   2.7590E-01   2.8261E-01   4.9979E-04  0.0244
   2.8261E-01   2.8949E-01   4.9882E-04  0.0241
   2.8949E-01   2.9653E-01   4.7902E-04  0.0243
   2.9653E-01   3.0375E-01   5.1893E-04  0.0231
   3.0375E-01   3.1114E-01   5.1445E-04  0.0229
   3.1114E-01   3.1871E-01   5.0117E-04  0.0230
   3.1871E-01   3.2646E-01   5.1455E-04  0.0224
   3.2646E-01   3.3441E-01   5.0736E-04  0.0223
   3.3441E-01   3.4254E-01   5.0170E-04  0.0221
   3.4254E-01   3.5088E-01   5.0742E-04  0.0218
   3.5088E-01   3.5941E-01   5.1235E-04  0.0214
   3.5941E-01   3.6816E-01   5.1939E-04  0.0210
   3.6816E-01   3.7712E-01   5.3005E-04  0.0205
   3.7712E-01   3.8629E-01   5.0046E-04  0.0209
   3.8629E-01   3.9569E-01   5.2688E-04  0.0201
   3.9569E-01   4.0532E-01   5.2579E-04  0.0199
   4.0532E-01   4.1518E-01   5.2405E-04  0.0197
   4.1518E-01   4.2528E-01   5.1061E-04  0.0197
   4.2528E-01   4.3563E-01   4.9674E-04  0.0197
   4.3563E-01   4.4623E-01   5.1249E-04  0.0192
   4.4623E-01   4.5708E-01   5.1321E-04  0.0189
   4.5708E-01   4.6821E-01   5.0768E-04  0.0188
   4.6821E-01   4.7960E-01   5.0071E-04  0.0187
   4.7960E-01   4.9127E-01   4.9036E-04  0.0187
   4.9127E-01   5.0322E-01   4.9101E-04  0.0185
   5.0322E-01   5.1546E-01   4.9576E-04  0.0182
   5.1546E-01   5.2800E-01   5.0408E-04  0.0178
   5.2800E-01   5.4085E-01   5.0316E-04  0.0176
   5.4085E-01   5.5401E-01   4.7905E-04  0.0178
   5.5401E-01   5.6749E-01   4.9104E-04  0.0174
   5.6749E-01   5.8130E-01   4.7047E-04  0.0175
   5.8130E-01   5.9544E-01   4.7089E-04  0.0173
   5.9544E-01   6.0993E-01   4.6053E-04  0.0173
   6.0993E-01   6.2477E-01   4.7790E-04  0.0168
   6.2477E-01   6.3997E-01   4.7075E-04  0.0167
   6.3997E-01   6.5554E-01   4.6381E-04  0.0166
   6.5554E-01   6.7149E-01   4.5775E-04  0.0166
   6.7149E-01   6.8783E-01   4.2686E-04  0.0169
   6.8783E-01   7.0456E-01   4.2198E-04  0.0168
   7.0456E-01   7.2171E-01   4.1837E-04  0.0167
   7.2171E-01   7.3927E-01   4.2768E-04  0.0163
   7.3927E-01   7.5725E-01   4.1547E-04  0.0164
   7.5725E-01   7.7568E-01   4.1428E-04  0.0162
   7.7568E-01   7.9455E-01   4.0227E-04  0.0162
   7.9455E-01   8.1388E-01   3.8449E-04  0.0164
   8.1388E-01   8.3368E-01   3.6960E-04  0.0165
   8.3368E-01   8.5397E-01   3.7606E-04  0.0162
   8.5397E-01   8.7475E-01   3.5119E-04  0.0166
   8.7475E-01   8.9603E-01   3.3547E-04  0.0167
   8.9603E-01   9.1783E-01   3.3017E-04  0.0167
   9.1783E-01   9.4016E-01   3.1614E-04  0.0168
   9.4016E-01   9.6304E-01   3.0120E-04  0.0170
   9.6304E-01   9.8647E-01   3.0207E-04  0.0168
   9.8647E-01   1.0105E+00   2.7765E-04  0.0173
   1.0105E+00   1.0351E+00   2.7764E-04  0.0171
   1.0351E+00   1.0602E+00   2.8586E-04  0.0167
   1.0602E+00   1.0860E+00   2.7577E-04  0.0168
   1.0860E+00   1.1125E+00   2.7800E-04  0.0165
   1.1125E+00   1.1395E+00   2.8012E-04  0.0162
   1.1395E+00   1.1673E+00   2.8241E-04  0.0160
   1.1673E+00   1.1957E+00   2.8584E-04  0.0157
   1.1957E+00   1.2247E+00   2.9514E-04  0.0153
   1.2247E+00   1.2545E+00   2.9035E-04  0.0152
   1.2545E+00   1.2851E+00   2.8456E-04  0.0152
   1.2851E+00   1.3163E+00   2.8094E-04  0.0151
   1.3163E+00   1.3484E+00   2.8916E-04  0.0147
   1.3484E+00   1.3812E+00   2.9000E-04  0.0145
   1.3812E+00   1.4148E+00   2.9017E-04  0.0143
   1.4148E+00   1.4492E+00   2.9039E-04  0.0141
   1.4492E+00   1.4845E+00   2.7754E-04  0.0143
   1.4845E+00   1.5206E+00   2.7964E-04  0.0141
   1.5206E+00   1.5576E+00   2.7775E-04  0.0140
   1.5576E+00   1.5955E+00   2.6788E-04  0.0140
   1.5955E+00   1.6343E+00   2.7154E-04  0.0138
   1.6343E+00   1.6741E+00   2.6326E-04  0.0138
   1.6741E+00   1.7148E+00   2.7085E-04  0.0135
   1.7148E+00   1.7565E+00   2.5886E-04  0.0136
   1.7565E+00   1.7992E+00   2.5598E-04  0.0135
   1.7992E+00   1.8430E+00   2.4661E-04  0.0136
   1.8430E+00   1.8879E+00   2.4366E-04  0.0135
   1.8879E+00   1.9338E+00   2.3186E-04  0.0137
   1.9338E+00   1.9808E+00   2.3300E-04  0.0135
   1.9808E+00   2.0290E+00   2.2334E-04  0.0136
   2.0290E+00   2.0784E+00   2.2192E-04  0.0135
   2.0784E+00   2.1290E+00   2.0979E-04  0.0137
   2.1290E+00   2.1808E+00   2.0382E-04  0.0138
   2.1808E+00   2.2338E+00   1.9327E-04  0.0140
   2.2338E+00   2.2882E+00   1.9072E-04  0.0139
   2.2882E+00   2.3439E+00   1.8080E-04  0.0141
   2.3439E+00   2.4009E+00   1.7027E-04  0.0144
   2.4009E+00   2.4593E+00   1.6913E-04  0.0142
   2.4593E+00   2.5191E+00   1.6378E-04  0.0143
   2.5191E+00   2.5804E+00   1.5736E-04  0.0144
   2.5804E+00   2.6432E+00   1.4512E-04  0.0148
   2.6432E+00   2.7075E+00   1.4144E-04  0.0148
   2.7075E+00   2.7734E+00   1.3814E-04  0.0148
   2.7734E+00   2.8409E+00   1.3234E-04  0.0150
   2.8409E+00   2.9100E+00   1.2555E-04  0.0152
   2.9100E+00   2.9808E+00   1.1884E-04  0.0154
   2.9808E+00   3.0533E+00   1.1415E-04  0.0155
   3.0533E+00   3.1276E+00   1.0851E-04  0.0158
   3.1276E+00   3.2037E+00   1.0147E-04  0.0161
   3.2037E+00   3.2817E+00   9.3689E-05  0.0166
   3.2817E+00   3.3615E+00   9.2090E-05  0.0165
   3.3615E+00   3.4433E+00   8.5049E-05  0.0170
   3.4433E+00   3.5271E+00   7.9042E-05  0.0174
   3.5271E+00   3.6129E+00   7.8609E-05  0.0172
   3.6129E+00   3.7008E+00   7.2362E-05  0.0177
   3.7008E+00   3.7908E+00   6.7256E-05  0.0182
   3.7908E+00   3.8831E+00   6.4228E-05  0.0184
   3.8831E+00   3.9776E+00   6.0522E-05  0.0187
   3.9776E+00   4.0743E+00   5.5974E-05  0.0192
   4.0743E+00   4.1735E+00   5.1608E-05  0.0198
   4.1735E+00   4.2750E+00   4.8974E-05  0.0201
   4.2750E+00   4.3790E+00   4.8157E-05  0.0200
   4.3790E+00   4.4856E+00   4.2949E-05  0.0209
   4.4856E+00   4.5947E+00   4.0573E-05  0.0212
   4.5947E+00   4.7065E+00   3.8536E-05  0.0215
   4.7065E+00   4.8210E+00   3.8939E-05  0.0212
   4.8210E+00   4.9383E+00   3.2831E-05  0.0228
   4.9383E+00   5.0585E+00   3.0811E-05  0.0232
   5.0585E+00   5.1815E+00   3.0030E-05  0.0233
   5.1815E+00   5.3076E+00   2.8309E-05  0.0237
   5.3076E+00   5.4368E+00   2.5809E-05  0.0245
   5.4368E+00   5.5690E+00   2.4403E-05  0.0249
   5.5690E+00   5.7045E+00   2.2642E-05  0.0255
   5.7045E+00   5.8433E+00   2.0959E-05  0.0262
   5.8433E+00   5.9855E+00   1.9758E-05  0.0267
   5.9855E+00   6.1311E+00   1.8293E-05  0.0274
   6.1311E+00   6.2803E+00   1.7221E-05  0.0279
   6.2803E+00   6.4331E+00   1.5903E-05  0.0287
   6.4331E+00   6.5896E+00   1.4579E-05  0.0296
   6.5896E+00   6.7500E+00   1.2742E-05  0.0313
   6.7500E+00   6.9142E+00   1.2598E-05  0.0311
   6.9142E+00   7.0824E+00   1.1984E-05  0.0315
   7.0824E+00   7.2548E+00   1.0196E-05  0.0337
   7.2548E+00   7.4313E+00   9.6650E-06  0.0342
   7.4313E+00   7.6121E+00   8.7109E-06  0.0356
   7.6121E+00   7.7973E+00   8.2934E-06  0.0361
   7.7973E+00   7.9870E+00   8.3968E-06  0.0354
   7.9870E+00   8.1813E+00   7.2248E-06  0.0377
   8.1813E+00   8.3804E+00   6.8623E-06  0.0383
   8.3804E+00   8.5843E+00   6.2089E-06  0.0397
   8.5843E+00   8.7931E+00   5.8460E-06  0.0404
   8.7931E+00   9.0071E+00   5.4781E-06  0.0413
   9.0071E+00   9.2262E+00   4.3441E-06  0.0458
   9.2262E+00   9.4507E+00   4.2943E-06  0.0455
   9.4507E+00   9.6807E+00   3.9618E-06  0.0468
   9.6807E+00   9.9162E+00   3.6300E-06  0.0484
   9.9162E+00   1.0157E+01   3.7634E-06  0.0469
   1.0157E+01   1.0405E+01   2.7029E-06  0.0546
   1.0405E+01   1.0658E+01   2.9429E-06  0.0518
   1.0658E+01   1.0917E+01   2.6108E-06  0.0543
   1.0917E+01   1.1183E+01   2.3718E-06  0.0563
   1.1183E+01   1.1455E+01   2.3375E-06  0.0560
   1.1455E+01   1.1733E+01   2.0201E-06  0.0596
   1.1733E+01   1.2019E+01   1.9055E-06  0.0606
   1.2019E+01   1.2311E+01   1.6688E-06  0.0640
   1.2311E+01   1.2611E+01   1.6859E-06  0.0629
   1.2611E+01   1.2918E+01   1.5709E-06  0.0643
   1.2918E+01   1.3232E+01   1.4031E-06  0.0673
   1.3232E+01   1.3554E+01   1.1990E-06  0.0720
   1.3554E+01   1.3884E+01   9.9460E-07  0.0781
   1.3884E+01   1.4222E+01   1.0657E-06  0.0745
   1.4222E+01   1.4568E+01   9.4791E-07  0.0781
   1.4568E+01   1.4922E+01   9.7054E-07  0.0762
   1.4922E+01   1.5285E+01   8.9240E-07  0.0786
   1.5285E+01   1.5657E+01   8.2818E-07  0.0806
   1.5657E+01   1.6038E+01   7.2451E-07  0.0851
   1.6038E+01   1.6428E+01   6.4579E-07  0.0891
   1.6428E+01   1.6828E+01   6.7549E-07  0.0861
   1.6828E+01   1.7237E+01   6.3990E-07  0.0874
   1.7237E+01   1.7657E+01   5.8179E-07  0.0905
   1.7657E+01   1.8086E+01   5.1676E-07  0.0949
   1.8086E+01   1.8526E+01   4.9994E-07  0.0953
   1.8526E+01   1.8977E+01   4.0376E-07  0.1048
   1.8977E+01   1.9439E+01   4.3315E-07  0.1000
   1.9439E+01   1.9912E+01   4.6938E-07  0.0949
   1.9912E+01   2.0396E+01   3.5503E-07  0.1078
   2.0396E+01   2.0893E+01   3.9092E-07  0.1015
   2.0893E+01   2.1401E+01   4.2098E-07  0.0967
   2.1401E+01   2.1922E+01   3.2264E-07  0.1091
   2.1922E+01   2.2455E+01   2.7748E-07  0.1162
   2.2455E+01   2.3001E+01   3.2946E-07  0.1054
   2.3001E+01   2.3561E+01   2.7875E-07  0.1132
   2.3561E+01   2.4134E+01   2.8260E-07  0.1111
   2.4134E+01   2.4721E+01   2.0436E-07  0.1291
   2.4721E+01   2.5323E+01   2.4938E-07  0.1155
   2.5323E+01   2.5939E+01   2.6942E-07  0.1098
   2.5939E+01   2.6570E+01   2.2500E-07  0.1187
   2.6570E+01   2.7217E+01   1.7325E-07  0.1336
   2.7217E+01   2.7879E+01   1.5705E-07  0.1387
   2.7879E+01   2.8557E+01   1.1499E-07  0.1601
   2.8557E+01   2.9252E+01   1.3529E-07  0.1459
   2.9252E+01   2.9964E+01   1.2364E-07  0.1508
   2.9964E+01   3.0693E+01   1.2345E-07  0.1491
   3.0693E+01   3.1440E+01   1.0713E-07  0.1581
   3.1440E+01   3.2205E+01   8.6280E-08  0.1741
   3.2205E+01   3.2988E+01   6.1259E-08  0.2041
   3.2988E+01   3.3791E+01   7.9738E-08  0.1768
   3.3791E+01   3.4613E+01   9.2440E-08  0.1622
   3.4613E+01   3.5455E+01   6.4121E-08  0.1925
   3.5455E+01   3.6318E+01   6.9553E-08  0.1826
   3.6318E+01   3.7201E+01   8.1481E-08  0.1667
   3.7201E+01   3.8106E+01   6.4079E-08  0.1857
   3.8106E+01   3.9034E+01   5.6085E-08  0.1961
   3.9034E+01   3.9983E+01   4.0012E-08  0.2294
   3.9983E+01   4.0956E+01   4.9341E-08  0.2041
   4.0956E+01   4.1953E+01   3.0106E-08  0.2582
   4.1953E+01   4.2973E+01   3.9187E-08  0.2236
   4.2973E+01   4.4019E+01   2.1041E-08  0.3015
   4.4019E+01   4.5090E+01   1.6806E-08  0.3333
   4.5090E+01   4.6187E+01   1.0938E-08  0.4082
   4.6187E+01   4.7311E+01   1.9577E-08  0.3015
   4.7311E+01   4.8462E+01   1.7375E-08  0.3162
   4.8462E+01   4.9641E+01   1.3569E-08  0.3536
   4.9641E+01   5.0849E+01   1.9871E-08  0.2887
   5.0849E+01   5.2086E+01   6.4663E-09  0.5000
   5.2086E+01   5.3353E+01   4.7345E-09  0.5774
   5.3353E+01   5.4651E+01   4.6220E-09  0.5774
   5.4651E+01   5.5981E+01   1.5041E-09  1.0000
   5.5981E+01   5.7343E+01   4.4051E-09  0.5774
   5.7343E+01   5.8738E+01   0.0000E+00  0.0000
   5.8738E+01   6.0168E+01   0.0000E+00  0.0000
   6.0168E+01   6.1632E+01   0.0000E+00  0.0000
   6.1632E+01   6.3131E+01   2.6675E-09  0.7071
   6.3131E+01   6.4667E+01   0.0000E+00  0.0000
   6.4667E+01   6.6240E+01   1.2711E-09  1.0000
   6.6240E+01   6.7852E+01   0.0000E+00  0.0000
   6.7852E+01   6.9503E+01   0.0000E+00  0.0000
   6.9503E+01   7.1194E+01   0.0000E+00  0.0000
   7.1194E+01   7.2926E+01   0.0000E+00  0.0000
   7.2926E+01   7.4701E+01   1.1272E-09  1.0000
   7.4701E+01   7.6518E+01   0.0000E+00  0.0000
   7.6518E+01   7.8380E+01   0.0000E+00  0.0000
   7.8380E+01   8.0287E+01   0.0000E+00  0.0000
   8.0287E+01   8.2240E+01   0.0000E+00  0.0000
   8.2240E+01   8.4241E+01   0.0000E+00  0.0000
   8.4241E+01   8.6291E+01   0.0000E+00  0.0000
   8.6291E+01   8.8391E+01   0.0000E+00  0.0000
   8.8391E+01   9.0541E+01   0.0000E+00  0.0000
   9.0541E+01   9.2744E+01   0.0000E+00  0.0000
   9.2744E+01   9.5001E+01   0.0000E+00  0.0000
   9.5001E+01   9.7312E+01   0.0000E+00  0.0000
   9.7312E+01   9.9680E+01   0.0000E+00  0.0000
   9.9680E+01   1.0211E+02   0.0000E+00  0.0000
   1.0211E+02   1.0459E+02   0.0000E+00  0.0000
   1.0459E+02   1.0713E+02   0.0000E+00  0.0000
   1.0713E+02   1.0974E+02   0.0000E+00  0.0000
   1.0974E+02   1.1241E+02   0.0000E+00  0.0000
   1.1241E+02   1.1515E+02   0.0000E+00  0.0000
   1.1515E+02   1.1795E+02   0.0000E+00  0.0000
   1.1795E+02   1.2082E+02   0.0000E+00  0.0000
   1.2082E+02   1.2376E+02   0.0000E+00  0.0000
   1.2376E+02   1.2677E+02   0.0000E+00  0.0000
   1.2677E+02   1.2985E+02   0.0000E+00  0.0000
   1.2985E+02   1.3301E+02   0.0000E+00  0.0000
   1.3301E+02   1.3625E+02   0.0000E+00  0.0000
   1.3625E+02   1.3956E+02   0.0000E+00  0.0000
   1.3956E+02   1.4296E+02   0.0000E+00  0.0000
   1.4296E+02   1.4644E+02   0.0000E+00  0.0000
   1.4644E+02   1.5000E+02   0.0000E+00  0.0000

#   sum over                 7.1061E-06
'no. =    1   reg = 121 - 221'
msuc: {\huge [t-cross] in region mesh}
msdr: {\it plotted by \ANGEL \version}
msdl: {\it calculated by \PHITS  3.26}
wt: s(0.7)
\vspace{-3}
  region surface crossing
  area  &=&   1.0000E+00 [cm^2]
e:
 
# Information for Restart Calculation
# This calculation was newly started
# istdev =  2 # 1:Batch variance, 2:History variance
# resc2  = 5.00000000000000000E+08 # Total source weight or Total source weight / maxcas
# resc3  = 5.00000000000000000E+08 # Total history number or Total batch number
# maxcas =   500000000 # History / Batch, only used for istdev=1
# bitrseed = 1101101111010011011000101101110001100110110010110001010100010001 # bit data of rseed
