[ T-Cross ]
    title = [t-cross] in region mesh
     mesh =  reg            # mesh type is region-wise
      reg =    1            # number of crossing regions
      non     r-from    r-to       area
      1       100       200        1.000000    
   e-type =    3            # e-mesh is log given by emin, emax and ne
     emin =  1.0000000E-02  # minimum value of e-mesh points
     emax =   150.0000      # maximum value of e-mesh points
#    edel =  2.4039514E-02  # mesh width of e-mesh points
       ne =    400          # number of e-mesh points
#    data = ( e(i), i = 1, ne + 1 )
#           1.00000E-02  1.02433E-02  1.04925E-02  1.07478E-02  1.10093E-02
#           1.12772E-02  1.15516E-02  1.18326E-02  1.21205E-02  1.24154E-02
#           1.27175E-02  1.30269E-02  1.33439E-02  1.36686E-02  1.40011E-02
#           1.43418E-02  1.46907E-02  1.50482E-02  1.54143E-02  1.57894E-02
#           1.61735E-02  1.65670E-02  1.69701E-02  1.73830E-02  1.78060E-02
#           1.82392E-02  1.86830E-02  1.91375E-02  1.96032E-02  2.00801E-02
#           2.05687E-02  2.10692E-02  2.15818E-02  2.21069E-02  2.26448E-02
#           2.31957E-02  2.37601E-02  2.43382E-02  2.49304E-02  2.55369E-02
#           2.61583E-02  2.67947E-02  2.74467E-02  2.81145E-02  2.87985E-02
#           2.94992E-02  3.02169E-02  3.09521E-02  3.17052E-02  3.24766E-02
#           3.32668E-02  3.40762E-02  3.49053E-02  3.57546E-02  3.66246E-02
#           3.75157E-02  3.84284E-02  3.93634E-02  4.03212E-02  4.13022E-02
#           4.23071E-02  4.33365E-02  4.43909E-02  4.54710E-02  4.65773E-02
#           4.77106E-02  4.88714E-02  5.00605E-02  5.12785E-02  5.25262E-02
#           5.38042E-02  5.51133E-02  5.64542E-02  5.78278E-02  5.92348E-02
#           6.06760E-02  6.21523E-02  6.36645E-02  6.52135E-02  6.68002E-02
#           6.84255E-02  7.00904E-02  7.17957E-02  7.35426E-02  7.53319E-02
#           7.71648E-02  7.90423E-02  8.09655E-02  8.29354E-02  8.49533E-02
#           8.70203E-02  8.91376E-02  9.13064E-02  9.35279E-02  9.58035E-02
#           9.81345E-02  1.00522E-01  1.02968E-01  1.05473E-01  1.08040E-01
#           1.10668E-01  1.13361E-01  1.16119E-01  1.18944E-01  1.21838E-01
#           1.24803E-01  1.27839E-01  1.30950E-01  1.34136E-01  1.37399E-01
#           1.40742E-01  1.44167E-01  1.47675E-01  1.51268E-01  1.54948E-01
#           1.58718E-01  1.62580E-01  1.66535E-01  1.70587E-01  1.74738E-01
#           1.78989E-01  1.83344E-01  1.87805E-01  1.92375E-01  1.97055E-01
#           2.01850E-01  2.06761E-01  2.11792E-01  2.16945E-01  2.22223E-01
#           2.27630E-01  2.33169E-01  2.38842E-01  2.44653E-01  2.50605E-01
#           2.56703E-01  2.62949E-01  2.69346E-01  2.75900E-01  2.82613E-01
#           2.89489E-01  2.96532E-01  3.03747E-01  3.11138E-01  3.18708E-01
#           3.26462E-01  3.34405E-01  3.42542E-01  3.50876E-01  3.59413E-01
#           3.68158E-01  3.77116E-01  3.86291E-01  3.95690E-01  4.05317E-01
#           4.15179E-01  4.25281E-01  4.35628E-01  4.46227E-01  4.57084E-01
#           4.68205E-01  4.79597E-01  4.91266E-01  5.03219E-01  5.15463E-01
#           5.28005E-01  5.40851E-01  5.54011E-01  5.67490E-01  5.81298E-01
#           5.95441E-01  6.09929E-01  6.24769E-01  6.39970E-01  6.55541E-01
#           6.71491E-01  6.87828E-01  7.04564E-01  7.21706E-01  7.39266E-01
#           7.57253E-01  7.75678E-01  7.94551E-01  8.13883E-01  8.33685E-01
#           8.53969E-01  8.74747E-01  8.96030E-01  9.17831E-01  9.40163E-01
#           9.63038E-01  9.86469E-01  1.01047E+00  1.03506E+00  1.06024E+00
#           1.08604E+00  1.11246E+00  1.13953E+00  1.16725E+00  1.19565E+00
#           1.22474E+00  1.25454E+00  1.28507E+00  1.31633E+00  1.34836E+00
#           1.38117E+00  1.41477E+00  1.44920E+00  1.48446E+00  1.52057E+00
#           1.55757E+00  1.59547E+00  1.63429E+00  1.67405E+00  1.71478E+00
#           1.75650E+00  1.79924E+00  1.84302E+00  1.88786E+00  1.93379E+00
#           1.98084E+00  2.02904E+00  2.07841E+00  2.12898E+00  2.18078E+00
#           2.23384E+00  2.28819E+00  2.34386E+00  2.40089E+00  2.45930E+00
#           2.51914E+00  2.58043E+00  2.64322E+00  2.70753E+00  2.77341E+00
#           2.84088E+00  2.91001E+00  2.98081E+00  3.05333E+00  3.12762E+00
#           3.20372E+00  3.28167E+00  3.36152E+00  3.44330E+00  3.52708E+00
#           3.61290E+00  3.70080E+00  3.79085E+00  3.88308E+00  3.97756E+00
#           4.07434E+00  4.17347E+00  4.27501E+00  4.37903E+00  4.48557E+00
#           4.59471E+00  4.70650E+00  4.82102E+00  4.93832E+00  5.05847E+00
#           5.18155E+00  5.30762E+00  5.43676E+00  5.56904E+00  5.70453E+00
#           5.84333E+00  5.98550E+00  6.13114E+00  6.28031E+00  6.43312E+00
#           6.58964E+00  6.74997E+00  6.91420E+00  7.08243E+00  7.25475E+00
#           7.43126E+00  7.61207E+00  7.79728E+00  7.98700E+00  8.18133E+00
#           8.38038E+00  8.58428E+00  8.79315E+00  9.00709E+00  9.22624E+00
#           9.45072E+00  9.68067E+00  9.91620E+00  1.01575E+01  1.04046E+01
#           1.06578E+01  1.09171E+01  1.11827E+01  1.14548E+01  1.17335E+01
#           1.20190E+01  1.23114E+01  1.26109E+01  1.29178E+01  1.32321E+01
#           1.35540E+01  1.38838E+01  1.42216E+01  1.45676E+01  1.49221E+01
#           1.52851E+01  1.56570E+01  1.60380E+01  1.64282E+01  1.68279E+01
#           1.72374E+01  1.76568E+01  1.80864E+01  1.85264E+01  1.89772E+01
#           1.94389E+01  1.99119E+01  2.03963E+01  2.08926E+01  2.14009E+01
#           2.19216E+01  2.24550E+01  2.30014E+01  2.35610E+01  2.41343E+01
#           2.47215E+01  2.53230E+01  2.59391E+01  2.65702E+01  2.72167E+01
#           2.78789E+01  2.85572E+01  2.92520E+01  2.99637E+01  3.06928E+01
#           3.14396E+01  3.22045E+01  3.29881E+01  3.37907E+01  3.46128E+01
#           3.54550E+01  3.63177E+01  3.72013E+01  3.81064E+01  3.90336E+01
#           3.99833E+01  4.09561E+01  4.19526E+01  4.29734E+01  4.40189E+01
#           4.50900E+01  4.61870E+01  4.73108E+01  4.84619E+01  4.96410E+01
#           5.08488E+01  5.20860E+01  5.33533E+01  5.46514E+01  5.59812E+01
#           5.73432E+01  5.87384E+01  6.01676E+01  6.16315E+01  6.31311E+01
#           6.46671E+01  6.62405E+01  6.78522E+01  6.95031E+01  7.11941E+01
#           7.29263E+01  7.47007E+01  7.65182E+01  7.83800E+01  8.02870E+01
#           8.22405E+01  8.42414E+01  8.62911E+01  8.83906E+01  9.05412E+01
#           9.27442E+01  9.50007E+01  9.73122E+01  9.96799E+01  1.02105E+02
#           1.04589E+02  1.07134E+02  1.09741E+02  1.12411E+02  1.15146E+02
#           1.17948E+02  1.20817E+02  1.23757E+02  1.26768E+02  1.29852E+02
#           1.33012E+02  1.36248E+02  1.39563E+02  1.42959E+02  1.46437E+02
#           1.50000E+02
     unit =    2            # unit is [1/cm^2/(MeV/n)/source]
     axis =  eng            # axis of output
     file = detector-01.out  # file name of output for the above axis
   output = f-curr          # surface crossing forward current spectrum
     part =  neutron  
# kf/name :  2112     
#    used :        main (  %)        temp (  %)       total (  %)
#  memory :         414 (  0)           0 (  0)         414 (  0)

#------------------------------------------------------------------------------
#newpage:
#   no. =    1   reg = 100 - 200

x: Energy [MeV/n]
y:  F-Curr [1/cm^2/(MeV/n)/source]         
p: xlog ylog afac(0.8) form(0.9)
h: n            x            y(neutron ),hh0l   n 
#  e-lower      e-upper      neutron     r.err 
   1.0000E-02   1.0243E-02   8.1749E-06  0.5774
   1.0243E-02   1.0493E-02   1.8533E-05  0.3780
   1.0493E-02   1.0748E-02   1.5602E-05  0.4083
   1.0748E-02   1.1009E-02   2.2779E-05  0.3333
   1.1009E-02   1.1277E-02   1.4895E-05  0.4083
   1.1277E-02   1.1552E-02   4.8524E-06  0.7071
   1.1552E-02   1.1833E-02   1.4168E-05  0.4083
   1.1833E-02   1.2121E-02   9.2413E-06  0.5000
   1.2121E-02   1.2415E-02   1.1282E-05  0.4472
   1.2415E-02   1.2718E-02   1.3206E-05  0.4082
   1.2718E-02   1.3027E-02   1.7179E-05  0.3536
   1.3027E-02   1.3344E-02   8.3709E-06  0.5000
   1.3344E-02   1.3669E-02   1.6347E-05  0.3536
   1.3669E-02   1.4001E-02   1.6008E-05  0.3536
   1.4001E-02   1.4342E-02   7.8155E-06  0.5000
   1.4342E-02   1.4691E-02   1.1401E-05  0.4083
   1.4691E-02   1.5048E-02   3.7181E-06  0.7071
   1.5048E-02   1.5414E-02   3.6253E-06  0.7071
   1.5414E-02   1.5789E-02   1.0509E-05  0.4083
   1.5789E-02   1.6174E-02   1.0018E-05  0.4096
   1.6174E-02   1.6567E-02   8.4543E-06  0.4472
   1.6567E-02   1.6970E-02   1.3161E-05  0.3536
   1.6970E-02   1.7383E-02   8.0649E-06  0.4472
   1.7383E-02   1.7806E-02   3.0863E-06  0.7072
   1.7806E-02   1.8239E-02   6.1328E-06  0.5000
   1.8239E-02   1.8683E-02   1.1951E-05  0.3536
   1.8683E-02   1.9138E-02   5.8463E-06  0.5000
   1.9138E-02   1.9603E-02   5.7104E-06  0.5000
   1.9603E-02   2.0080E-02   1.3905E-05  0.3162
   2.0080E-02   2.0569E-02   1.0889E-05  0.3536
   2.0569E-02   2.1069E-02   7.8688E-06  0.4085
   2.1069E-02   2.1582E-02   5.1907E-06  0.5000
   2.1582E-02   2.2107E-02   5.0417E-06  0.5000
   2.2107E-02   2.2645E-02   7.4124E-06  0.4082
   2.2645E-02   2.3196E-02   1.2338E-05  0.3089
   2.3196E-02   2.3760E-02   8.2248E-06  0.3780
   2.3760E-02   2.4338E-02   8.0430E-06  0.3780
   2.4338E-02   2.4930E-02   9.9289E-06  0.3335
   2.4930E-02   2.5537E-02   8.7412E-06  0.3536
   2.5537E-02   2.6158E-02   3.2030E-06  0.5774
   2.6158E-02   2.6795E-02   4.1663E-06  0.5000
   2.6795E-02   2.7447E-02   8.1419E-06  0.3536
   2.7447E-02   2.8114E-02   9.9434E-06  0.3162
   2.8114E-02   2.8799E-02   7.7400E-06  0.3536
   2.8799E-02   2.9499E-02   3.7877E-06  0.5000
   2.9499E-02   3.0217E-02   8.3157E-06  0.3333
   3.0217E-02   3.0952E-02   4.5096E-06  0.4472
   3.0952E-02   3.1705E-02   6.8821E-06  0.3544
   3.1705E-02   3.2477E-02   3.9665E-06  0.4519
   3.2477E-02   3.3267E-02   3.9411E-06  0.4416
   3.3267E-02   3.4076E-02   9.8425E-06  0.2887
   3.4076E-02   3.4905E-02   3.8336E-06  0.4491
   3.4905E-02   3.5755E-02   4.5527E-06  0.4091
   3.5755E-02   3.6625E-02   3.8145E-06  0.4472
   3.6625E-02   3.7516E-02   6.1733E-06  0.3432
   3.7516E-02   3.8428E-02   5.1007E-06  0.3780
   3.8428E-02   3.9363E-02   7.8127E-06  0.3015
   3.9363E-02   4.0321E-02   5.4677E-06  0.3537
   4.0321E-02   4.1302E-02   2.0266E-06  0.5774
   4.1302E-02   4.2307E-02   3.3051E-06  0.4472
   4.2307E-02   4.3337E-02   5.7936E-06  0.3333
   4.3337E-02   4.4391E-02   1.2633E-06  0.7071
   4.4391E-02   4.5471E-02   2.8477E-06  0.4524
   4.5471E-02   4.6577E-02   1.2022E-06  0.7071
   4.6577E-02   4.7711E-02   5.7227E-06  0.3168
   4.7711E-02   4.8871E-02   3.4408E-06  0.4082
   4.8871E-02   5.0061E-02   2.7848E-06  0.4472
   5.0061E-02   5.1279E-02   5.4470E-06  0.3162
   5.1279E-02   5.2526E-02   3.6525E-06  0.3782
   5.2526E-02   5.3804E-02   3.1125E-06  0.4083
   5.3804E-02   5.5113E-02   1.5248E-06  0.5774
   5.5113E-02   5.6454E-02   5.7450E-06  0.2895
   5.6454E-02   5.7828E-02   3.8691E-06  0.3536
   5.7828E-02   5.9235E-02   2.8035E-06  0.4083
   5.9235E-02   6.0676E-02   3.2286E-06  0.3780
   6.0676E-02   6.2152E-02   3.5936E-06  0.3536
   6.2152E-02   6.3665E-02   3.0784E-06  0.3780
   6.3665E-02   6.5214E-02   2.5735E-06  0.4083
   6.5214E-02   6.6800E-02   2.7332E-06  0.3839
   6.6800E-02   6.8426E-02   2.8603E-06  0.3780
   6.8426E-02   7.0090E-02   3.1955E-06  0.3536
   7.0090E-02   7.1796E-02   2.3322E-06  0.4083
   7.1796E-02   7.3543E-02   1.4481E-06  0.5019
   7.3543E-02   7.5332E-02   2.9622E-06  0.3536
   7.5332E-02   7.7165E-02   2.1772E-06  0.4082
   7.7165E-02   7.9042E-02   2.4224E-06  0.3785
   7.9042E-02   8.0965E-02   2.4072E-06  0.3780
   8.0965E-02   8.2935E-02   1.9047E-06  0.4113
   8.2935E-02   8.4953E-02   9.9045E-07  0.5774
   8.4953E-02   8.7020E-02   1.9163E-06  0.4083
   8.7020E-02   8.9138E-02   3.4199E-06  0.3016
   8.9138E-02   9.1306E-02   2.7027E-06  0.3339
   9.1306E-02   9.3528E-02   2.0907E-06  0.3780
   9.3528E-02   9.5804E-02   2.2717E-06  0.3545
   9.5804E-02   9.8134E-02   1.9870E-06  0.3780
   9.8134E-02   1.0052E-01   1.8968E-06  0.3787
   1.0052E-01   1.0297E-01   2.2438E-06  0.3430
   1.0297E-01   1.0547E-01   1.5231E-06  0.4097
   1.0547E-01   1.0804E-01   3.4346E-06  0.2724
   1.0804E-01   1.1067E-01   2.0242E-06  0.3536
   1.1067E-01   1.1336E-01   3.9262E-06  0.2500
   1.1336E-01   1.1612E-01   2.8909E-06  0.2887
   1.1612E-01   1.1894E-01   3.8196E-06  0.2467
   1.1894E-01   1.2184E-01   2.2946E-06  0.3162
   1.2184E-01   1.2480E-01   4.2584E-06  0.2294
   1.2480E-01   1.2784E-01   3.5985E-06  0.2434
   1.2784E-01   1.3095E-01   3.2006E-06  0.2582
   1.3095E-01   1.3414E-01   3.1106E-06  0.2582
   1.3414E-01   1.3740E-01   4.0005E-06  0.2239
   1.3740E-01   1.4074E-01   3.9682E-06  0.2236
   1.4074E-01   1.4417E-01   4.7910E-06  0.2003
   1.4417E-01   1.4767E-01   5.8349E-06  0.1796
   1.4767E-01   1.5127E-01   3.8629E-06  0.2183
   1.5127E-01   1.5495E-01   3.3978E-06  0.2295
   1.5495E-01   1.5872E-01   4.0490E-06  0.2085
   1.5872E-01   1.6258E-01   5.6847E-06  0.1721
   1.6258E-01   1.6654E-01   5.0339E-06  0.1826
   1.6654E-01   1.7059E-01   4.1705E-06  0.1967
   1.7059E-01   1.7474E-01   5.1152E-06  0.1768
   1.7474E-01   1.7899E-01   4.9725E-06  0.1768
   1.7899E-01   1.8334E-01   6.5148E-06  0.1526
   1.8334E-01   1.8781E-01   4.4656E-06  0.1826
   1.8781E-01   1.9237E-01   6.4074E-06  0.1495
   1.9237E-01   1.9706E-01   6.7474E-06  0.1444
   1.9706E-01   2.0185E-01   6.1507E-06  0.1492
   2.0185E-01   2.0676E-01   6.4823E-06  0.1443
   2.0676E-01   2.1179E-01   8.9175E-06  0.1213
   2.1179E-01   2.1694E-01   7.4791E-06  0.1310
   2.1694E-01   2.2222E-01   7.6570E-06  0.1280
   2.2222E-01   2.2763E-01   6.5750E-06  0.1362
   2.2763E-01   2.3317E-01   8.7089E-06  0.1171
   2.3317E-01   2.3884E-01   1.0287E-05  0.1066
   2.3884E-01   2.4465E-01   8.0842E-06  0.1187
   2.4465E-01   2.5061E-01   7.7021E-06  0.1196
   2.5061E-01   2.5670E-01   9.2422E-06  0.1083
   2.5670E-01   2.6295E-01   9.9912E-06  0.1028
   2.6295E-01   2.6935E-01   9.0806E-06  0.1065
   2.6935E-01   2.7590E-01   8.6831E-06  0.1071
   2.7590E-01   2.8261E-01   9.9530E-06  0.0990
   2.8261E-01   2.8949E-01   9.2424E-06  0.1021
   2.8949E-01   2.9653E-01   1.1454E-05  0.0905
   2.9653E-01   3.0375E-01   1.0412E-05  0.0936
   3.0375E-01   3.1114E-01   1.1190E-05  0.0891
   3.1114E-01   3.1871E-01   1.0005E-05  0.0931
   3.1871E-01   3.2646E-01   1.2263E-05  0.0832
   3.2646E-01   3.3441E-01   1.4194E-05  0.0763
   3.3441E-01   3.4254E-01   1.0725E-05  0.0869
   3.4254E-01   3.5088E-01   1.2835E-05  0.0784
   3.5088E-01   3.5941E-01   1.3074E-05  0.0768
   3.5941E-01   3.6816E-01   1.1309E-05  0.0816
   3.6816E-01   3.7712E-01   1.2406E-05  0.0771
   3.7712E-01   3.8629E-01   1.3588E-05  0.0727
   3.8629E-01   3.9569E-01   1.3487E-05  0.0721
   3.9569E-01   4.0532E-01   1.2728E-05  0.0732
   4.0532E-01   4.1518E-01   1.3846E-05  0.0693
   4.1518E-01   4.2528E-01   1.4979E-05  0.0660
   4.2528E-01   4.3563E-01   1.6408E-05  0.0621
   4.3563E-01   4.4623E-01   1.5611E-05  0.0632
   4.4623E-01   4.5708E-01   1.4545E-05  0.0644
   4.5708E-01   4.6821E-01   1.4797E-05  0.0633
   4.6821E-01   4.7960E-01   1.5124E-05  0.0619
   4.7960E-01   4.9127E-01   1.6239E-05  0.0590
   4.9127E-01   5.0322E-01   1.6223E-05  0.0583
   5.0322E-01   5.1546E-01   1.5746E-05  0.0585
   5.1546E-01   5.2800E-01   1.6223E-05  0.0569
   5.2800E-01   5.4085E-01   1.5610E-05  0.0573
   5.4085E-01   5.5401E-01   1.3162E-05  0.0617
   5.5401E-01   5.6749E-01   1.6285E-05  0.0546
   5.6749E-01   5.8130E-01   1.5837E-05  0.0547
   5.8130E-01   5.9544E-01   1.7413E-05  0.0517
   5.9544E-01   6.0993E-01   1.7115E-05  0.0515
   6.0993E-01   6.2477E-01   1.6894E-05  0.0511
   6.2477E-01   6.3997E-01   1.6264E-05  0.0515
   6.3997E-01   6.5554E-01   1.6300E-05  0.0509
   6.5554E-01   6.7149E-01   1.7231E-05  0.0488
   6.7149E-01   6.8783E-01   1.6126E-05  0.0498
   6.8783E-01   7.0456E-01   1.6908E-05  0.0481
   7.0456E-01   7.2171E-01   1.5882E-05  0.0490
   7.2171E-01   7.3927E-01   1.4103E-05  0.0514
   7.3927E-01   7.5725E-01   1.5379E-05  0.0486
   7.5725E-01   7.7568E-01   1.4558E-05  0.0495
   7.7568E-01   7.9455E-01   1.5189E-05  0.0478
   7.9455E-01   8.1388E-01   1.5266E-05  0.0471
   8.1388E-01   8.3368E-01   1.5331E-05  0.0464
   8.3368E-01   8.5397E-01   1.4548E-05  0.0470
   8.5397E-01   8.7475E-01   1.3705E-05  0.0478
   8.7475E-01   8.9603E-01   1.3230E-05  0.0481
   8.9603E-01   9.1783E-01   1.3574E-05  0.0469
   9.1783E-01   9.4016E-01   1.2655E-05  0.0480
   9.4016E-01   9.6304E-01   1.1821E-05  0.0491
   9.6304E-01   9.8647E-01   1.2367E-05  0.0474
   9.8647E-01   1.0105E+00   1.1426E-05  0.0488
   1.0105E+00   1.0351E+00   1.1355E-05  0.0483
   1.0351E+00   1.0602E+00   1.1974E-05  0.0465
   1.0602E+00   1.0860E+00   1.3251E-05  0.0437
   1.0860E+00   1.1125E+00   1.2791E-05  0.0438
   1.1125E+00   1.1395E+00   1.2909E-05  0.0431
   1.1395E+00   1.1673E+00   1.2558E-05  0.0432
   1.1673E+00   1.1957E+00   1.2505E-05  0.0427
   1.1957E+00   1.2247E+00   1.4494E-05  0.0392
   1.2247E+00   1.2545E+00   1.4626E-05  0.0386
   1.2545E+00   1.2851E+00   1.6078E-05  0.0364
   1.2851E+00   1.3163E+00   1.5031E-05  0.0371
   1.3163E+00   1.3484E+00   1.5214E-05  0.0365
   1.3484E+00   1.3812E+00   1.5610E-05  0.0355
   1.3812E+00   1.4148E+00   1.6391E-05  0.0343
   1.4148E+00   1.4492E+00   1.6686E-05  0.0335
   1.4492E+00   1.4845E+00   1.6241E-05  0.0336
   1.4845E+00   1.5206E+00   1.7069E-05  0.0324
   1.5206E+00   1.5576E+00   1.6590E-05  0.0324
   1.5576E+00   1.5955E+00   1.6751E-05  0.0319
   1.5955E+00   1.6343E+00   1.7762E-05  0.0306
   1.6343E+00   1.6741E+00   1.7099E-05  0.0308
   1.6741E+00   1.7148E+00   1.6957E-05  0.0305
   1.7148E+00   1.7565E+00   1.6579E-05  0.0304
   1.7565E+00   1.7992E+00   1.6079E-05  0.0305
   1.7992E+00   1.8430E+00   1.5628E-05  0.0305
   1.8430E+00   1.8879E+00   1.4137E-05  0.0316
   1.8879E+00   1.9338E+00   1.4724E-05  0.0305
   1.9338E+00   1.9808E+00   1.5792E-05  0.0292
   1.9808E+00   2.0290E+00   1.6762E-05  0.0279
   2.0290E+00   2.0784E+00   1.5760E-05  0.0284
   2.0784E+00   2.1290E+00   1.5556E-05  0.0281
   2.1290E+00   2.1808E+00   1.6175E-05  0.0273
   2.1808E+00   2.2338E+00   1.6256E-05  0.0269
   2.2338E+00   2.2882E+00   1.6045E-05  0.0268
   2.2882E+00   2.3439E+00   1.6302E-05  0.0263
   2.3439E+00   2.4009E+00   1.5330E-05  0.0268
   2.4009E+00   2.4593E+00   1.6311E-05  0.0258
   2.4593E+00   2.5191E+00   1.5984E-05  0.0257
   2.5191E+00   2.5804E+00   1.5240E-05  0.0259
   2.5804E+00   2.6432E+00   1.5891E-05  0.0252
   2.6432E+00   2.7075E+00   1.5851E-05  0.0249
   2.7075E+00   2.7734E+00   1.6045E-05  0.0245
   2.7734E+00   2.8409E+00   1.5441E-05  0.0247
   2.8409E+00   2.9100E+00   1.5870E-05  0.0241
   2.9100E+00   2.9808E+00   1.5876E-05  0.0238
   2.9808E+00   3.0533E+00   1.5733E-05  0.0236
   3.0533E+00   3.1276E+00   1.6042E-05  0.0231
   3.1276E+00   3.2037E+00   1.4828E-05  0.0238
   3.2037E+00   3.2817E+00   1.5007E-05  0.0233
   3.2817E+00   3.3615E+00   1.5432E-05  0.0228
   3.3615E+00   3.4433E+00   1.5058E-05  0.0227
   3.4433E+00   3.5271E+00   1.4879E-05  0.0227
   3.5271E+00   3.6129E+00   1.5105E-05  0.0222
   3.6129E+00   3.7008E+00   1.4180E-05  0.0227
   3.7008E+00   3.7908E+00   1.4719E-05  0.0220
   3.7908E+00   3.8831E+00   1.4284E-05  0.0221
   3.8831E+00   3.9776E+00   1.4574E-05  0.0216
   3.9776E+00   4.0743E+00   1.4289E-05  0.0216
   4.0743E+00   4.1735E+00   1.4382E-05  0.0213
   4.1735E+00   4.2750E+00   1.3993E-05  0.0213
   4.2750E+00   4.3790E+00   1.3539E-05  0.0214
   4.3790E+00   4.4856E+00   1.3550E-05  0.0211
   4.4856E+00   4.5947E+00   1.2497E-05  0.0217
   4.5947E+00   4.7065E+00   1.3224E-05  0.0208
   4.7065E+00   4.8210E+00   1.2989E-05  0.0208
   4.8210E+00   4.9383E+00   1.2979E-05  0.0206
   4.9383E+00   5.0585E+00   1.2661E-05  0.0206
   5.0585E+00   5.1815E+00   1.2564E-05  0.0204
   5.1815E+00   5.3076E+00   1.2036E-05  0.0206
   5.3076E+00   5.4368E+00   1.2156E-05  0.0202
   5.4368E+00   5.5690E+00   1.2049E-05  0.0201
   5.5690E+00   5.7045E+00   1.1739E-05  0.0201
   5.7045E+00   5.8433E+00   1.0980E-05  0.0206
   5.8433E+00   5.9855E+00   1.1415E-05  0.0199
   5.9855E+00   6.1311E+00   1.1471E-05  0.0197
   6.1311E+00   6.2803E+00   1.1433E-05  0.0195
   6.2803E+00   6.4331E+00   1.1566E-05  0.0191
   6.4331E+00   6.5896E+00   1.1126E-05  0.0193
   6.5896E+00   6.7500E+00   1.0716E-05  0.0194
   6.7500E+00   6.9142E+00   1.1105E-05  0.0189
   6.9142E+00   7.0824E+00   1.0886E-05  0.0188
   7.0824E+00   7.2548E+00   1.0299E-05  0.0191
   7.2548E+00   7.4313E+00   1.0220E-05  0.0190
   7.4313E+00   7.6121E+00   1.0626E-05  0.0184
   7.6121E+00   7.7973E+00   1.0182E-05  0.0186
   7.7973E+00   7.9870E+00   9.9000E-06  0.0186
   7.9870E+00   8.1813E+00   9.4475E-06  0.0188
   8.1813E+00   8.3804E+00   9.4771E-06  0.0186
   8.3804E+00   8.5843E+00   9.5981E-06  0.0182
   8.5843E+00   8.7931E+00   9.5700E-06  0.0181
   8.7931E+00   9.0071E+00   8.9978E-06  0.0184
   9.0071E+00   9.2262E+00   8.8240E-06  0.0184
   9.2262E+00   9.4507E+00   8.4367E-06  0.0186
   9.4507E+00   9.6807E+00   8.2730E-06  0.0186
   9.6807E+00   9.9162E+00   8.1547E-06  0.0185
   9.9162E+00   1.0157E+01   8.5300E-06  0.0179
   1.0157E+01   1.0405E+01   8.5640E-06  0.0177
   1.0405E+01   1.0658E+01   8.3565E-06  0.0177
   1.0658E+01   1.0917E+01   8.2182E-06  0.0176
   1.0917E+01   1.1183E+01   7.9780E-06  0.0177
   1.1183E+01   1.1455E+01   7.7396E-06  0.0177
   1.1455E+01   1.1733E+01   7.5280E-06  0.0178
   1.1733E+01   1.2019E+01   7.6985E-06  0.0174
   1.2019E+01   1.2311E+01   7.6321E-06  0.0172
   1.2311E+01   1.2611E+01   7.2934E-06  0.0174
   1.2611E+01   1.2918E+01   7.3921E-06  0.0171
   1.2918E+01   1.3232E+01   7.0645E-06  0.0173
   1.3232E+01   1.3554E+01   7.2245E-06  0.0169
   1.3554E+01   1.3884E+01   7.1464E-06  0.0168
   1.3884E+01   1.4222E+01   6.9746E-06  0.0168
   1.4222E+01   1.4568E+01   6.8832E-06  0.0167
   1.4568E+01   1.4922E+01   6.6435E-06  0.0168
   1.4922E+01   1.5285E+01   6.5307E-06  0.0168
   1.5285E+01   1.5657E+01   6.5423E-06  0.0165
   1.5657E+01   1.6038E+01   6.3428E-06  0.0166
   1.6038E+01   1.6428E+01   6.5355E-06  0.0162
   1.6428E+01   1.6828E+01   6.3159E-06  0.0162
   1.6828E+01   1.7237E+01   6.1410E-06  0.0163
   1.7237E+01   1.7657E+01   6.0643E-06  0.0162
   1.7657E+01   1.8086E+01   6.0019E-06  0.0161
   1.8086E+01   1.8526E+01   6.0095E-06  0.0159
   1.8526E+01   1.8977E+01   5.8977E-06  0.0158
   1.8977E+01   1.9439E+01   5.7236E-06  0.0159
   1.9439E+01   1.9912E+01   5.6130E-06  0.0158
   1.9912E+01   2.0396E+01   5.5717E-06  0.0157
   2.0396E+01   2.0893E+01   5.6073E-06  0.0155
   2.0893E+01   2.1401E+01   5.6105E-06  0.0153
   2.1401E+01   2.1922E+01   5.3402E-06  0.0155
   2.1922E+01   2.2455E+01   5.2509E-06  0.0154
   2.2455E+01   2.3001E+01   5.3543E-06  0.0151
   2.3001E+01   2.3561E+01   5.0509E-06  0.0154
   2.3561E+01   2.4134E+01   5.0472E-06  0.0152
   2.4134E+01   2.4721E+01   4.8240E-06  0.0153
   2.4721E+01   2.5323E+01   4.8091E-06  0.0152
   2.5323E+01   2.5939E+01   4.6127E-06  0.0153
   2.5939E+01   2.6570E+01   4.5168E-06  0.0153
   2.6570E+01   2.7217E+01   4.4106E-06  0.0153
   2.7217E+01   2.7879E+01   4.3078E-06  0.0153
   2.7879E+01   2.8557E+01   4.7588E-06  0.0144
   2.8557E+01   2.9252E+01   5.0949E-06  0.0137
   2.9252E+01   2.9964E+01   5.0797E-06  0.0136
   2.9964E+01   3.0693E+01   4.8731E-06  0.0137
   3.0693E+01   3.1440E+01   4.7305E-06  0.0137
   3.1440E+01   3.2205E+01   4.7681E-06  0.0135
   3.2205E+01   3.2988E+01   4.6208E-06  0.0136
   3.2988E+01   3.3791E+01   4.5102E-06  0.0136
   3.3791E+01   3.4613E+01   4.6212E-06  0.0132
   3.4613E+01   3.5455E+01   4.5985E-06  0.0131
   3.5455E+01   3.6318E+01   4.4097E-06  0.0132
   3.6318E+01   3.7201E+01   4.2755E-06  0.0133
   3.7201E+01   3.8106E+01   4.2896E-06  0.0131
   3.8106E+01   3.9034E+01   4.1668E-06  0.0131
   3.9034E+01   3.9983E+01   4.1254E-06  0.0130
   3.9983E+01   4.0956E+01   4.0425E-06  0.0130
   4.0956E+01   4.1953E+01   4.0141E-06  0.0129
   4.1953E+01   4.2973E+01   3.9187E-06  0.0129
   4.2973E+01   4.4019E+01   3.8001E-06  0.0130
   4.4019E+01   4.5090E+01   3.8487E-06  0.0127
   4.5090E+01   4.6187E+01   3.7488E-06  0.0127
   4.6187E+01   4.7311E+01   3.7024E-06  0.0127
   4.7311E+01   4.8462E+01   3.4668E-06  0.0129
   4.8462E+01   4.9641E+01   2.6347E-06  0.0146
   4.9641E+01   5.0849E+01   2.6301E-06  0.0145
   5.0849E+01   5.2086E+01   2.5520E-06  0.0145
   5.2086E+01   5.3353E+01   2.4903E-06  0.0145
   5.3353E+01   5.4651E+01   2.3901E-06  0.0147
   5.4651E+01   5.5981E+01   2.3178E-06  0.0147
   5.5981E+01   5.7343E+01   2.2813E-06  0.0146
   5.7343E+01   5.8738E+01   2.1517E-06  0.0149
   5.8738E+01   6.0168E+01   2.0548E-06  0.0151
   6.0168E+01   6.1632E+01   2.0434E-06  0.0149
   6.1632E+01   6.3131E+01   1.9210E-06  0.0152
   6.3131E+01   6.4667E+01   1.8975E-06  0.0151
   6.4667E+01   6.6240E+01   1.7893E-06  0.0154
   6.6240E+01   6.7852E+01   1.6686E-06  0.0157
   6.7852E+01   6.9503E+01   1.5741E-06  0.0160
   6.9503E+01   7.1194E+01   1.4847E-06  0.0163
   7.1194E+01   7.2926E+01   1.3070E-06  0.0172
   7.2926E+01   7.4701E+01   1.1986E-06  0.0177
   7.4701E+01   7.6518E+01   1.0674E-06  0.0185
   7.6518E+01   7.8380E+01   9.1813E-07  0.0197
   7.8380E+01   8.0287E+01   3.7405E-07  0.0306
   8.0287E+01   8.2240E+01   0.0000E+00  0.0000
   8.2240E+01   8.4241E+01   0.0000E+00  0.0000
   8.4241E+01   8.6291E+01   0.0000E+00  0.0000
   8.6291E+01   8.8391E+01   0.0000E+00  0.0000
   8.8391E+01   9.0541E+01   0.0000E+00  0.0000
   9.0541E+01   9.2744E+01   0.0000E+00  0.0000
   9.2744E+01   9.5001E+01   0.0000E+00  0.0000
   9.5001E+01   9.7312E+01   0.0000E+00  0.0000
   9.7312E+01   9.9680E+01   0.0000E+00  0.0000
   9.9680E+01   1.0211E+02   0.0000E+00  0.0000
   1.0211E+02   1.0459E+02   0.0000E+00  0.0000
   1.0459E+02   1.0713E+02   0.0000E+00  0.0000
   1.0713E+02   1.0974E+02   0.0000E+00  0.0000
   1.0974E+02   1.1241E+02   0.0000E+00  0.0000
   1.1241E+02   1.1515E+02   0.0000E+00  0.0000
   1.1515E+02   1.1795E+02   0.0000E+00  0.0000
   1.1795E+02   1.2082E+02   0.0000E+00  0.0000
   1.2082E+02   1.2376E+02   0.0000E+00  0.0000
   1.2376E+02   1.2677E+02   0.0000E+00  0.0000
   1.2677E+02   1.2985E+02   0.0000E+00  0.0000
   1.2985E+02   1.3301E+02   0.0000E+00  0.0000
   1.3301E+02   1.3625E+02   0.0000E+00  0.0000
   1.3625E+02   1.3956E+02   0.0000E+00  0.0000
   1.3956E+02   1.4296E+02   0.0000E+00  0.0000
   1.4296E+02   1.4644E+02   0.0000E+00  0.0000
   1.4644E+02   1.5000E+02   0.0000E+00  0.0000

#   sum over                 2.4887E-06
'no. =    1   reg = 100 - 200'
msuc: {\huge [t-cross] in region mesh}
msdr: {\it plotted by \ANGEL \version}
msdl: {\it calculated by \PHITS  3.26}
wt: s(0.7)
\vspace{-3}
  region surface crossing
  area  &=&   1.0000E+00 [cm^2]
e:
 
# Information for Restart Calculation
# This calculation was newly started
# istdev =  2 # 1:Batch variance, 2:History variance
# resc2  = 1.50000000000000000E+09 # Total source weight or Total source weight / maxcas
# resc3  = 1.50000000000000000E+09 # Total history number or Total batch number
# maxcas =   100000000 # History / Batch, only used for istdev=1
# bitrseed = 0000010101110101110110100110011001100101000001100111100100101101 # bit data of rseed
