[ T-Cross ]
    title = [t-cross] in region mesh
     mesh =  reg            # mesh type is region-wise
      reg =    1            # number of crossing regions
      non     r-from    r-to       area
      1       104       204        1.000000    
   e-type =    3            # e-mesh is log given by emin, emax and ne
     emin =  1.0000000E-02  # minimum value of e-mesh points
     emax =   150.0000      # maximum value of e-mesh points
#    edel =  2.4039514E-02  # mesh width of e-mesh points
       ne =    400          # number of e-mesh points
#    data = ( e(i), i = 1, ne + 1 )
#           1.00000E-02  1.02433E-02  1.04925E-02  1.07478E-02  1.10093E-02
#           1.12772E-02  1.15516E-02  1.18326E-02  1.21205E-02  1.24154E-02
#           1.27175E-02  1.30269E-02  1.33439E-02  1.36686E-02  1.40011E-02
#           1.43418E-02  1.46907E-02  1.50482E-02  1.54143E-02  1.57894E-02
#           1.61735E-02  1.65670E-02  1.69701E-02  1.73830E-02  1.78060E-02
#           1.82392E-02  1.86830E-02  1.91375E-02  1.96032E-02  2.00801E-02
#           2.05687E-02  2.10692E-02  2.15818E-02  2.21069E-02  2.26448E-02
#           2.31957E-02  2.37601E-02  2.43382E-02  2.49304E-02  2.55369E-02
#           2.61583E-02  2.67947E-02  2.74467E-02  2.81145E-02  2.87985E-02
#           2.94992E-02  3.02169E-02  3.09521E-02  3.17052E-02  3.24766E-02
#           3.32668E-02  3.40762E-02  3.49053E-02  3.57546E-02  3.66246E-02
#           3.75157E-02  3.84284E-02  3.93634E-02  4.03212E-02  4.13022E-02
#           4.23071E-02  4.33365E-02  4.43909E-02  4.54710E-02  4.65773E-02
#           4.77106E-02  4.88714E-02  5.00605E-02  5.12785E-02  5.25262E-02
#           5.38042E-02  5.51133E-02  5.64542E-02  5.78278E-02  5.92348E-02
#           6.06760E-02  6.21523E-02  6.36645E-02  6.52135E-02  6.68002E-02
#           6.84255E-02  7.00904E-02  7.17957E-02  7.35426E-02  7.53319E-02
#           7.71648E-02  7.90423E-02  8.09655E-02  8.29354E-02  8.49533E-02
#           8.70203E-02  8.91376E-02  9.13064E-02  9.35279E-02  9.58035E-02
#           9.81345E-02  1.00522E-01  1.02968E-01  1.05473E-01  1.08040E-01
#           1.10668E-01  1.13361E-01  1.16119E-01  1.18944E-01  1.21838E-01
#           1.24803E-01  1.27839E-01  1.30950E-01  1.34136E-01  1.37399E-01
#           1.40742E-01  1.44167E-01  1.47675E-01  1.51268E-01  1.54948E-01
#           1.58718E-01  1.62580E-01  1.66535E-01  1.70587E-01  1.74738E-01
#           1.78989E-01  1.83344E-01  1.87805E-01  1.92375E-01  1.97055E-01
#           2.01850E-01  2.06761E-01  2.11792E-01  2.16945E-01  2.22223E-01
#           2.27630E-01  2.33169E-01  2.38842E-01  2.44653E-01  2.50605E-01
#           2.56703E-01  2.62949E-01  2.69346E-01  2.75900E-01  2.82613E-01
#           2.89489E-01  2.96532E-01  3.03747E-01  3.11138E-01  3.18708E-01
#           3.26462E-01  3.34405E-01  3.42542E-01  3.50876E-01  3.59413E-01
#           3.68158E-01  3.77116E-01  3.86291E-01  3.95690E-01  4.05317E-01
#           4.15179E-01  4.25281E-01  4.35628E-01  4.46227E-01  4.57084E-01
#           4.68205E-01  4.79597E-01  4.91266E-01  5.03219E-01  5.15463E-01
#           5.28005E-01  5.40851E-01  5.54011E-01  5.67490E-01  5.81298E-01
#           5.95441E-01  6.09929E-01  6.24769E-01  6.39970E-01  6.55541E-01
#           6.71491E-01  6.87828E-01  7.04564E-01  7.21706E-01  7.39266E-01
#           7.57253E-01  7.75678E-01  7.94551E-01  8.13883E-01  8.33685E-01
#           8.53969E-01  8.74747E-01  8.96030E-01  9.17831E-01  9.40163E-01
#           9.63038E-01  9.86469E-01  1.01047E+00  1.03506E+00  1.06024E+00
#           1.08604E+00  1.11246E+00  1.13953E+00  1.16725E+00  1.19565E+00
#           1.22474E+00  1.25454E+00  1.28507E+00  1.31633E+00  1.34836E+00
#           1.38117E+00  1.41477E+00  1.44920E+00  1.48446E+00  1.52057E+00
#           1.55757E+00  1.59547E+00  1.63429E+00  1.67405E+00  1.71478E+00
#           1.75650E+00  1.79924E+00  1.84302E+00  1.88786E+00  1.93379E+00
#           1.98084E+00  2.02904E+00  2.07841E+00  2.12898E+00  2.18078E+00
#           2.23384E+00  2.28819E+00  2.34386E+00  2.40089E+00  2.45930E+00
#           2.51914E+00  2.58043E+00  2.64322E+00  2.70753E+00  2.77341E+00
#           2.84088E+00  2.91001E+00  2.98081E+00  3.05333E+00  3.12762E+00
#           3.20372E+00  3.28167E+00  3.36152E+00  3.44330E+00  3.52708E+00
#           3.61290E+00  3.70080E+00  3.79085E+00  3.88308E+00  3.97756E+00
#           4.07434E+00  4.17347E+00  4.27501E+00  4.37903E+00  4.48557E+00
#           4.59471E+00  4.70650E+00  4.82102E+00  4.93832E+00  5.05847E+00
#           5.18155E+00  5.30762E+00  5.43676E+00  5.56904E+00  5.70453E+00
#           5.84333E+00  5.98550E+00  6.13114E+00  6.28031E+00  6.43312E+00
#           6.58964E+00  6.74997E+00  6.91420E+00  7.08243E+00  7.25475E+00
#           7.43126E+00  7.61207E+00  7.79728E+00  7.98700E+00  8.18133E+00
#           8.38038E+00  8.58428E+00  8.79315E+00  9.00709E+00  9.22624E+00
#           9.45072E+00  9.68067E+00  9.91620E+00  1.01575E+01  1.04046E+01
#           1.06578E+01  1.09171E+01  1.11827E+01  1.14548E+01  1.17335E+01
#           1.20190E+01  1.23114E+01  1.26109E+01  1.29178E+01  1.32321E+01
#           1.35540E+01  1.38838E+01  1.42216E+01  1.45676E+01  1.49221E+01
#           1.52851E+01  1.56570E+01  1.60380E+01  1.64282E+01  1.68279E+01
#           1.72374E+01  1.76568E+01  1.80864E+01  1.85264E+01  1.89772E+01
#           1.94389E+01  1.99119E+01  2.03963E+01  2.08926E+01  2.14009E+01
#           2.19216E+01  2.24550E+01  2.30014E+01  2.35610E+01  2.41343E+01
#           2.47215E+01  2.53230E+01  2.59391E+01  2.65702E+01  2.72167E+01
#           2.78789E+01  2.85572E+01  2.92520E+01  2.99637E+01  3.06928E+01
#           3.14396E+01  3.22045E+01  3.29881E+01  3.37907E+01  3.46128E+01
#           3.54550E+01  3.63177E+01  3.72013E+01  3.81064E+01  3.90336E+01
#           3.99833E+01  4.09561E+01  4.19526E+01  4.29734E+01  4.40189E+01
#           4.50900E+01  4.61870E+01  4.73108E+01  4.84619E+01  4.96410E+01
#           5.08488E+01  5.20860E+01  5.33533E+01  5.46514E+01  5.59812E+01
#           5.73432E+01  5.87384E+01  6.01676E+01  6.16315E+01  6.31311E+01
#           6.46671E+01  6.62405E+01  6.78522E+01  6.95031E+01  7.11941E+01
#           7.29263E+01  7.47007E+01  7.65182E+01  7.83800E+01  8.02870E+01
#           8.22405E+01  8.42414E+01  8.62911E+01  8.83906E+01  9.05412E+01
#           9.27442E+01  9.50007E+01  9.73122E+01  9.96799E+01  1.02105E+02
#           1.04589E+02  1.07134E+02  1.09741E+02  1.12411E+02  1.15146E+02
#           1.17948E+02  1.20817E+02  1.23757E+02  1.26768E+02  1.29852E+02
#           1.33012E+02  1.36248E+02  1.39563E+02  1.42959E+02  1.46437E+02
#           1.50000E+02
     unit =    2            # unit is [1/cm^2/(MeV/n)/source]
     axis =  eng            # axis of output
     file = detector-05.out  # file name of output for the above axis
   output = f-curr          # surface crossing forward current spectrum
     part =  neutron  
# kf/name :  2112     
#    used :        main (  %)        temp (  %)       total (  %)
#  memory :         414 (  0)           0 (  0)         414 (  0)

#------------------------------------------------------------------------------
#newpage:
#   no. =    1   reg = 104 - 204

x: Energy [MeV/n]
y:  F-Curr [1/cm^2/(MeV/n)/source]         
p: xlog ylog afac(0.8) form(0.9)
h: n            x            y(neutron ),hh0l   n 
#  e-lower      e-upper      neutron     r.err 
   1.0000E-02   1.0243E-02   0.0000E+00  0.0000
   1.0243E-02   1.0493E-02   0.0000E+00  0.0000
   1.0493E-02   1.0748E-02   0.0000E+00  0.0000
   1.0748E-02   1.1009E-02   0.0000E+00  0.0000
   1.1009E-02   1.1277E-02   0.0000E+00  0.0000
   1.1277E-02   1.1552E-02   0.0000E+00  0.0000
   1.1552E-02   1.1833E-02   7.1159E-07  1.0000
   1.1833E-02   1.2121E-02   6.9469E-07  1.0000
   1.2121E-02   1.2415E-02   0.0000E+00  0.0000
   1.2415E-02   1.2718E-02   6.6208E-07  1.0000
   1.2718E-02   1.3027E-02   0.0000E+00  0.0000
   1.3027E-02   1.3344E-02   0.0000E+00  0.0000
   1.3344E-02   1.3669E-02   0.0000E+00  0.0000
   1.3669E-02   1.4001E-02   0.0000E+00  0.0000
   1.4001E-02   1.4342E-02   5.8710E-07  1.0000
   1.4342E-02   1.4691E-02   0.0000E+00  0.0000
   1.4691E-02   1.5048E-02   5.5950E-07  1.0000
   1.5048E-02   1.5414E-02   0.0000E+00  0.0000
   1.5414E-02   1.5789E-02   0.0000E+00  0.0000
   1.5789E-02   1.6174E-02   1.0411E-06  0.7071
   1.6174E-02   1.6567E-02   0.0000E+00  0.0000
   1.6567E-02   1.6970E-02   0.0000E+00  0.0000
   1.6970E-02   1.7383E-02   1.9375E-06  0.5000
   1.7383E-02   1.7806E-02   9.4522E-07  0.7071
   1.7806E-02   1.8239E-02   0.0000E+00  0.0000
   1.8239E-02   1.8683E-02   0.0000E+00  0.0000
   1.8683E-02   1.9138E-02   0.0000E+00  0.0000
   1.9138E-02   1.9603E-02   8.5899E-07  0.7071
   1.9603E-02   2.0080E-02   0.0000E+00  0.0000
   2.0080E-02   2.0569E-02   0.0000E+00  0.0000
   2.0569E-02   2.1069E-02   1.1989E-06  0.5774
   2.1069E-02   2.1582E-02   3.9014E-07  1.0000
   2.1582E-02   2.2107E-02   0.0000E+00  0.0000
   2.2107E-02   2.2645E-02   3.7183E-07  1.0000
   2.2645E-02   2.3196E-02   1.0890E-06  0.5774
   2.3196E-02   2.3760E-02   3.5438E-07  1.0000
   2.3760E-02   2.4338E-02   6.9191E-07  0.7071
   2.4338E-02   2.4930E-02   6.7542E-07  0.7071
   2.4930E-02   2.5537E-02   1.3188E-06  0.5000
   2.5537E-02   2.6158E-02   1.9313E-06  0.4082
   2.6158E-02   2.6795E-02   6.2848E-07  0.7071
   2.6795E-02   2.7447E-02   3.0676E-07  1.0000
   2.7447E-02   2.8114E-02   5.9898E-07  0.7071
   2.8114E-02   2.8799E-02   1.4617E-06  0.4472
   2.8799E-02   2.9499E-02   5.7087E-07  0.7071
   2.9499E-02   3.0217E-02   8.3596E-07  0.5774
   3.0217E-02   3.0952E-02   5.4407E-07  0.7071
   3.0952E-02   3.1705E-02   1.5934E-06  0.4082
   3.1705E-02   3.2477E-02   1.2963E-06  0.4472
   3.2477E-02   3.3267E-02   1.5185E-06  0.4082
   3.3267E-02   3.4076E-02   2.2234E-06  0.3333
   3.4076E-02   3.4905E-02   1.4471E-06  0.4082
   3.4905E-02   3.5755E-02   2.3549E-06  0.3162
   3.5755E-02   3.6625E-02   6.8970E-07  0.5774
   3.6625E-02   3.7516E-02   1.7951E-06  0.3536
   3.7516E-02   3.8428E-02   1.9719E-06  0.3333
   3.8428E-02   3.9363E-02   1.7106E-06  0.3536
   3.9363E-02   4.0321E-02   1.2529E-06  0.4082
   4.0321E-02   4.1302E-02   1.8340E-06  0.3333
   4.1302E-02   4.2307E-02   2.1891E-06  0.3015
   4.2307E-02   4.3337E-02   3.1085E-06  0.2500
   4.3337E-02   4.4391E-02   2.0862E-06  0.3015
   4.4391E-02   4.5471E-02   2.7771E-06  0.2582
   4.5471E-02   4.6577E-02   1.9881E-06  0.3015
   4.6577E-02   4.7711E-02   2.9998E-06  0.2425
   4.7711E-02   4.8871E-02   4.1335E-06  0.2041
   4.8871E-02   5.0061E-02   2.5226E-06  0.2582
   5.0061E-02   5.1279E-02   1.8061E-06  0.3015
   5.1279E-02   5.2526E-02   3.5264E-06  0.2132
   5.2526E-02   5.3804E-02   2.3469E-06  0.2582
   5.3804E-02   5.5113E-02   2.4443E-06  0.2500
   5.5113E-02   5.6454E-02   2.6841E-06  0.2357
   5.6454E-02   5.7828E-02   3.4938E-06  0.2041
   5.7828E-02   5.9235E-02   2.2742E-06  0.2500
   5.9235E-02   6.0676E-02   3.1914E-06  0.2085
   6.0676E-02   6.2152E-02   2.9635E-06  0.2133
   6.2152E-02   6.3665E-02   3.5549E-06  0.1925
   6.3665E-02   6.5214E-02   4.6463E-06  0.1667
   6.5214E-02   6.6800E-02   3.9068E-06  0.1796
   6.6800E-02   6.8426E-02   4.3057E-06  0.1690
   6.8426E-02   7.0090E-02   3.4835E-06  0.1857
   7.0090E-02   7.1796E-02   2.9309E-06  0.2000
   7.1796E-02   7.3543E-02   4.9222E-06  0.1525
   7.3543E-02   7.5332E-02   5.1405E-06  0.1474
   7.5332E-02   7.7165E-02   4.6698E-06  0.1526
   7.7165E-02   7.9042E-02   5.0896E-06  0.1444
   7.9042E-02   8.0965E-02   4.3667E-06  0.1543
   8.0965E-02   8.2935E-02   5.6564E-06  0.1337
   8.2935E-02   8.4953E-02   5.9459E-06  0.1291
   8.4953E-02   8.7020E-02   5.2238E-06  0.1361
   8.7020E-02   8.9138E-02   7.1487E-06  0.1147
   8.9138E-02   9.1306E-02   5.2365E-06  0.1325
   9.1306E-02   9.3528E-02   4.2303E-06  0.1459
   9.3528E-02   9.5804E-02   6.5682E-06  0.1155
   9.5804E-02   9.8134E-02   6.6053E-06  0.1140
   9.8134E-02   1.0052E-01   6.0203E-06  0.1179
   1.0052E-01   1.0297E-01   6.0501E-06  0.1162
   1.0297E-01   1.0547E-01   7.0054E-06  0.1066
   1.0547E-01   1.0804E-01   6.0769E-06  0.1132
   1.0804E-01   1.1067E-01   7.1064E-06  0.1033
   1.1067E-01   1.1336E-01   8.2806E-06  0.0945
   1.1336E-01   1.1612E-01   8.1601E-06  0.0941
   1.1612E-01   1.1894E-01   8.6221E-06  0.0905
   1.1894E-01   1.2184E-01   8.6973E-06  0.0891
   1.2184E-01   1.2480E-01   7.6219E-06  0.0941
   1.2480E-01   1.2784E-01   8.4174E-06  0.0884
   1.2784E-01   1.3095E-01   9.3204E-06  0.0830
   1.3095E-01   1.3414E-01   8.9727E-06  0.0836
   1.3414E-01   1.3740E-01   9.5564E-06  0.0801
   1.3740E-01   1.4074E-01   1.1961E-05  0.0707
   1.4074E-01   1.4417E-01   1.0276E-05  0.0754
   1.4417E-01   1.4767E-01   9.8036E-06  0.0762
   1.4767E-01   1.5127E-01   1.1352E-05  0.0699
   1.5127E-01   1.5495E-01   1.1444E-05  0.0689
   1.5495E-01   1.5872E-01   1.2118E-05  0.0661
   1.5872E-01   1.6258E-01   1.1738E-05  0.0664
   1.6258E-01   1.6654E-01   1.1571E-05  0.0661
   1.6654E-01   1.7059E-01   1.3474E-05  0.0604
   1.7059E-01   1.7474E-01   1.2842E-05  0.0612
   1.7474E-01   1.7899E-01   1.1473E-05  0.0640
   1.7899E-01   1.8334E-01   1.3726E-05  0.0578
   1.8334E-01   1.8781E-01   1.4850E-05  0.0549
   1.8781E-01   1.9237E-01   1.4951E-05  0.0541
   1.9237E-01   1.9706E-01   1.3403E-05  0.0564
   1.9706E-01   2.0185E-01   1.4906E-05  0.0529
   2.0185E-01   2.0676E-01   1.6350E-05  0.0499
   2.0676E-01   2.1179E-01   1.6160E-05  0.0496
   2.1179E-01   2.1694E-01   1.6176E-05  0.0490
   2.1694E-01   2.2222E-01   1.6499E-05  0.0479
   2.2222E-01   2.2763E-01   1.7691E-05  0.0457
   2.2763E-01   2.3317E-01   1.7000E-05  0.0461
   2.3317E-01   2.3884E-01   1.8861E-05  0.0432
   2.3884E-01   2.4465E-01   1.8971E-05  0.0426
   2.4465E-01   2.5061E-01   1.9295E-05  0.0417
   2.5061E-01   2.5670E-01   1.8010E-05  0.0426
   2.5670E-01   2.6295E-01   1.9989E-05  0.0400
   2.6295E-01   2.6935E-01   1.9435E-05  0.0401
   2.6935E-01   2.7590E-01   1.8932E-05  0.0401
   2.7590E-01   2.8261E-01   2.2689E-05  0.0362
   2.8261E-01   2.8949E-01   2.3182E-05  0.0354
   2.8949E-01   2.9653E-01   2.0808E-05  0.0369
   2.9653E-01   3.0375E-01   2.3049E-05  0.0347
   3.0375E-01   3.1114E-01   2.1974E-05  0.0351
   3.1114E-01   3.1871E-01   2.3296E-05  0.0337
   3.1871E-01   3.2646E-01   2.3307E-05  0.0332
   3.2646E-01   3.3441E-01   2.3606E-05  0.0326
   3.3441E-01   3.4254E-01   2.4625E-05  0.0316
   3.4254E-01   3.5088E-01   2.4737E-05  0.0311
   3.5088E-01   3.5941E-01   2.6190E-05  0.0299
   3.5941E-01   3.6816E-01   2.6742E-05  0.0292
   3.6816E-01   3.7712E-01   2.7903E-05  0.0283
   3.7712E-01   3.8629E-01   2.7283E-05  0.0282
   3.8629E-01   3.9569E-01   2.8687E-05  0.0272
   3.9569E-01   4.0532E-01   2.9489E-05  0.0265
   4.0532E-01   4.1518E-01   2.9230E-05  0.0263
   4.1518E-01   4.2528E-01   3.0198E-05  0.0256
   4.2528E-01   4.3563E-01   3.0198E-05  0.0253
   4.3563E-01   4.4623E-01   3.0850E-05  0.0247
   4.4623E-01   4.5708E-01   3.2764E-05  0.0237
   4.5708E-01   4.6821E-01   3.2444E-05  0.0235
   4.6821E-01   4.7960E-01   3.3072E-05  0.0230
   4.7960E-01   4.9127E-01   3.3973E-05  0.0224
   4.9127E-01   5.0322E-01   3.6311E-05  0.0214
   5.0322E-01   5.1546E-01   3.4015E-05  0.0219
   5.1546E-01   5.2800E-01   3.4372E-05  0.0215
   5.2800E-01   5.4085E-01   3.7992E-05  0.0202
   5.4085E-01   5.5401E-01   3.7832E-05  0.0200
   5.5401E-01   5.6749E-01   3.7592E-05  0.0198
   5.6749E-01   5.8130E-01   3.8626E-05  0.0193
   5.8130E-01   5.9544E-01   3.8326E-05  0.0192
   5.9544E-01   6.0993E-01   4.1451E-05  0.0182
   6.0993E-01   6.2477E-01   3.9948E-05  0.0183
   6.2477E-01   6.3997E-01   4.2223E-05  0.0176
   6.3997E-01   6.5554E-01   4.1946E-05  0.0175
   6.5554E-01   6.7149E-01   4.2096E-05  0.0172
   6.7149E-01   6.8783E-01   4.2833E-05  0.0169
   6.8783E-01   7.0456E-01   4.4217E-05  0.0164
   7.0456E-01   7.2171E-01   4.4280E-05  0.0162
   7.2171E-01   7.3927E-01   4.4289E-05  0.0160
   7.3927E-01   7.5725E-01   4.5928E-05  0.0155
   7.5725E-01   7.7568E-01   4.6522E-05  0.0153
   7.7568E-01   7.9455E-01   4.7833E-05  0.0149
   7.9455E-01   8.1388E-01   4.8337E-05  0.0146
   8.1388E-01   8.3368E-01   4.8185E-05  0.0145
   8.3368E-01   8.5397E-01   4.7904E-05  0.0143
   8.5397E-01   8.7475E-01   4.9643E-05  0.0139
   8.7475E-01   8.9603E-01   4.9369E-05  0.0138
   8.9603E-01   9.1783E-01   4.9292E-05  0.0136
   9.1783E-01   9.4016E-01   5.0053E-05  0.0134
   9.4016E-01   9.6304E-01   5.0440E-05  0.0132
   9.6304E-01   9.8647E-01   5.2493E-05  0.0127
   9.8647E-01   1.0105E+00   5.1791E-05  0.0127
   1.0105E+00   1.0351E+00   5.1873E-05  0.0125
   1.0351E+00   1.0602E+00   5.2001E-05  0.0123
   1.0602E+00   1.0860E+00   5.2457E-05  0.0121
   1.0860E+00   1.1125E+00   5.2914E-05  0.0119
   1.1125E+00   1.1395E+00   5.4272E-05  0.0117
   1.1395E+00   1.1673E+00   5.2586E-05  0.0117
   1.1673E+00   1.1957E+00   5.3020E-05  0.0115
   1.1957E+00   1.2247E+00   5.4050E-05  0.0113
   1.2247E+00   1.2545E+00   5.3454E-05  0.0112
   1.2545E+00   1.2851E+00   5.2862E-05  0.0111
   1.2851E+00   1.3163E+00   5.4732E-05  0.0108
   1.3163E+00   1.3484E+00   5.3537E-05  0.0108
   1.3484E+00   1.3812E+00   5.4696E-05  0.0105
   1.3812E+00   1.4148E+00   5.4036E-05  0.0105
   1.4148E+00   1.4492E+00   5.2949E-05  0.0105
   1.4492E+00   1.4845E+00   5.4024E-05  0.0102
   1.4845E+00   1.5206E+00   5.3680E-05  0.0101
   1.5206E+00   1.5576E+00   5.4970E-05  0.0099
   1.5576E+00   1.5955E+00   5.3282E-05  0.0099
   1.5955E+00   1.6343E+00   5.3419E-05  0.0098
   1.6343E+00   1.6741E+00   5.3812E-05  0.0096
   1.6741E+00   1.7148E+00   5.2988E-05  0.0096
   1.7148E+00   1.7565E+00   5.3956E-05  0.0094
   1.7565E+00   1.7992E+00   5.3903E-05  0.0093
   1.7992E+00   1.8430E+00   5.2552E-05  0.0093
   1.8430E+00   1.8879E+00   5.2726E-05  0.0091
   1.8879E+00   1.9338E+00   5.1220E-05  0.0091
   1.9338E+00   1.9808E+00   5.1048E-05  0.0090
   1.9808E+00   2.0290E+00   5.0810E-05  0.0089
   2.0290E+00   2.0784E+00   5.0199E-05  0.0088
   2.0784E+00   2.1290E+00   5.0300E-05  0.0087
   2.1290E+00   2.1808E+00   4.9034E-05  0.0087
   2.1808E+00   2.2338E+00   4.8110E-05  0.0086
   2.2338E+00   2.2882E+00   4.7539E-05  0.0086
   2.2882E+00   2.3439E+00   4.7958E-05  0.0085
   2.3439E+00   2.4009E+00   4.8207E-05  0.0084
   2.4009E+00   2.4593E+00   4.8479E-05  0.0083
   2.4593E+00   2.5191E+00   4.8218E-05  0.0082
   2.5191E+00   2.5804E+00   4.8031E-05  0.0081
   2.5804E+00   2.6432E+00   4.8568E-05  0.0080
   2.6432E+00   2.7075E+00   4.6946E-05  0.0080
   2.7075E+00   2.7734E+00   4.6625E-05  0.0079
   2.7734E+00   2.8409E+00   4.5701E-05  0.0079
   2.8409E+00   2.9100E+00   4.6067E-05  0.0078
   2.9100E+00   2.9808E+00   4.6785E-05  0.0076
   2.9808E+00   3.0533E+00   4.4372E-05  0.0078
   3.0533E+00   3.1276E+00   4.4669E-05  0.0076
   3.1276E+00   3.2037E+00   4.5015E-05  0.0075
   3.2037E+00   3.2817E+00   4.3696E-05  0.0075
   3.2817E+00   3.3615E+00   4.3450E-05  0.0075
   3.3615E+00   3.4433E+00   4.3266E-05  0.0074
   3.4433E+00   3.5271E+00   4.2950E-05  0.0073
   3.5271E+00   3.6129E+00   4.2224E-05  0.0073
   3.6129E+00   3.7008E+00   4.1965E-05  0.0073
   3.7008E+00   3.7908E+00   4.1512E-05  0.0072
   3.7908E+00   3.8831E+00   4.1449E-05  0.0071
   3.8831E+00   3.9776E+00   4.0977E-05  0.0071
   3.9776E+00   4.0743E+00   4.0100E-05  0.0071
   4.0743E+00   4.1735E+00   3.9748E-05  0.0070
   4.1735E+00   4.2750E+00   3.9571E-05  0.0070
   4.2750E+00   4.3790E+00   3.8671E-05  0.0070
   4.3790E+00   4.4856E+00   3.8456E-05  0.0069
   4.4856E+00   4.5947E+00   3.7568E-05  0.0069
   4.5947E+00   4.7065E+00   3.7317E-05  0.0068
   4.7065E+00   4.8210E+00   3.6861E-05  0.0068
   4.8210E+00   4.9383E+00   3.6564E-05  0.0067
   4.9383E+00   5.0585E+00   3.5466E-05  0.0068
   5.0585E+00   5.1815E+00   3.5623E-05  0.0067
   5.1815E+00   5.3076E+00   3.5741E-05  0.0066
   5.3076E+00   5.4368E+00   3.4896E-05  0.0066
   5.4368E+00   5.5690E+00   3.5051E-05  0.0065
   5.5690E+00   5.7045E+00   3.4258E-05  0.0065
   5.7045E+00   5.8433E+00   3.3789E-05  0.0065
   5.8433E+00   5.9855E+00   3.3151E-05  0.0065
   5.9855E+00   6.1311E+00   3.3403E-05  0.0064
   6.1311E+00   6.2803E+00   3.2937E-05  0.0063
   6.2803E+00   6.4331E+00   3.2600E-05  0.0063
   6.4331E+00   6.5896E+00   3.2580E-05  0.0062
   6.5896E+00   6.7500E+00   3.2495E-05  0.0062
   6.7500E+00   6.9142E+00   3.1727E-05  0.0061
   6.9142E+00   7.0824E+00   3.1319E-05  0.0061
   7.0824E+00   7.2548E+00   3.0978E-05  0.0061
   7.2548E+00   7.4313E+00   3.1353E-05  0.0060
   7.4313E+00   7.6121E+00   3.1092E-05  0.0059
   7.6121E+00   7.7973E+00   3.0525E-05  0.0059
   7.7973E+00   7.9870E+00   3.0381E-05  0.0059
   7.9870E+00   8.1813E+00   3.0043E-05  0.0058
   8.1813E+00   8.3804E+00   2.9935E-05  0.0058
   8.3804E+00   8.5843E+00   2.9872E-05  0.0057
   8.5843E+00   8.7931E+00   2.9444E-05  0.0057
   8.7931E+00   9.0071E+00   2.9546E-05  0.0056
   9.0071E+00   9.2262E+00   2.9278E-05  0.0056
   9.2262E+00   9.4507E+00   2.9049E-05  0.0055
   9.4507E+00   9.6807E+00   2.8684E-05  0.0055
   9.6807E+00   9.9162E+00   2.8788E-05  0.0054
   9.9162E+00   1.0157E+01   2.8346E-05  0.0054
   1.0157E+01   1.0405E+01   2.8322E-05  0.0053
   1.0405E+01   1.0658E+01   2.8246E-05  0.0053
   1.0658E+01   1.0917E+01   2.7985E-05  0.0052
   1.0917E+01   1.1183E+01   2.7605E-05  0.0052
   1.1183E+01   1.1455E+01   2.7553E-05  0.0051
   1.1455E+01   1.1733E+01   2.7137E-05  0.0051
   1.1733E+01   1.2019E+01   2.7150E-05  0.0051
   1.2019E+01   1.2311E+01   2.7340E-05  0.0050
   1.2311E+01   1.2611E+01   2.6886E-05  0.0050
   1.2611E+01   1.2918E+01   2.6696E-05  0.0049
   1.2918E+01   1.3232E+01   2.6661E-05  0.0049
   1.3232E+01   1.3554E+01   2.6361E-05  0.0048
   1.3554E+01   1.3884E+01   2.5834E-05  0.0048
   1.3884E+01   1.4222E+01   2.5926E-05  0.0048
   1.4222E+01   1.4568E+01   2.5731E-05  0.0047
   1.4568E+01   1.4922E+01   2.5529E-05  0.0047
   1.4922E+01   1.5285E+01   2.5349E-05  0.0046
   1.5285E+01   1.5657E+01   2.5098E-05  0.0046
   1.5657E+01   1.6038E+01   2.4888E-05  0.0046
   1.6038E+01   1.6428E+01   2.4656E-05  0.0045
   1.6428E+01   1.6828E+01   2.4498E-05  0.0045
   1.6828E+01   1.7237E+01   2.4201E-05  0.0045
   1.7237E+01   1.7657E+01   2.3778E-05  0.0045
   1.7657E+01   1.8086E+01   2.3310E-05  0.0044
   1.8086E+01   1.8526E+01   2.2960E-05  0.0044
   1.8526E+01   1.8977E+01   2.2949E-05  0.0044
   1.8977E+01   1.9439E+01   2.2446E-05  0.0044
   1.9439E+01   1.9912E+01   2.2554E-05  0.0043
   1.9912E+01   2.0396E+01   2.1348E-05  0.0044
   2.0396E+01   2.0893E+01   2.0442E-05  0.0044
   2.0893E+01   2.1401E+01   2.0051E-05  0.0044
   2.1401E+01   2.1922E+01   1.9541E-05  0.0044
   2.1922E+01   2.2455E+01   1.9192E-05  0.0044
   2.2455E+01   2.3001E+01   1.8702E-05  0.0044
   2.3001E+01   2.3561E+01   1.8126E-05  0.0044
   2.3561E+01   2.4134E+01   1.7577E-05  0.0045
   2.4134E+01   2.4721E+01   1.7207E-05  0.0044
   2.4721E+01   2.5323E+01   1.6832E-05  0.0044
   2.5323E+01   2.5939E+01   1.6407E-05  0.0044
   2.5939E+01   2.6570E+01   1.6038E-05  0.0044
   2.6570E+01   2.7217E+01   1.5476E-05  0.0045
   2.7217E+01   2.7879E+01   1.5471E-05  0.0044
   2.7879E+01   2.8557E+01   2.1640E-05  0.0037
   2.8557E+01   2.9252E+01   2.5394E-05  0.0034
   2.9252E+01   2.9964E+01   2.5041E-05  0.0033
   2.9964E+01   3.0693E+01   2.4968E-05  0.0033
   3.0693E+01   3.1440E+01   2.4942E-05  0.0033
   3.1440E+01   3.2205E+01   2.4615E-05  0.0033
   3.2205E+01   3.2988E+01   2.4404E-05  0.0032
   3.2988E+01   3.3791E+01   2.4512E-05  0.0032
   3.3791E+01   3.4613E+01   2.4165E-05  0.0032
   3.4613E+01   3.5455E+01   2.4018E-05  0.0031
   3.5455E+01   3.6318E+01   2.4008E-05  0.0031
   3.6318E+01   3.7201E+01   2.3745E-05  0.0031
   3.7201E+01   3.8106E+01   2.3653E-05  0.0031
   3.8106E+01   3.9034E+01   2.3458E-05  0.0030
   3.9034E+01   3.9983E+01   2.3320E-05  0.0030
   3.9983E+01   4.0956E+01   2.2822E-05  0.0030
   4.0956E+01   4.1953E+01   2.2673E-05  0.0030
   4.1953E+01   4.2973E+01   2.2114E-05  0.0030
   4.2973E+01   4.4019E+01   2.1853E-05  0.0030
   4.4019E+01   4.5090E+01   2.1629E-05  0.0029
   4.5090E+01   4.6187E+01   2.1149E-05  0.0029
   4.6187E+01   4.7311E+01   2.0722E-05  0.0029
   4.7311E+01   4.8462E+01   1.7383E-05  0.0032
   4.8462E+01   4.9641E+01   1.1456E-05  0.0038
   4.9641E+01   5.0849E+01   1.1080E-05  0.0039
   5.0849E+01   5.2086E+01   1.0559E-05  0.0039
   5.2086E+01   5.3353E+01   1.0204E-05  0.0039
   5.3353E+01   5.4651E+01   9.6727E-06  0.0040
   5.4651E+01   5.5981E+01   9.2047E-06  0.0040
   5.5981E+01   5.7343E+01   8.6552E-06  0.0041
   5.7343E+01   5.8738E+01   8.1753E-06  0.0042
   5.8738E+01   6.0168E+01   7.5883E-06  0.0043
   6.0168E+01   6.1632E+01   7.0177E-06  0.0044
   6.1632E+01   6.3131E+01   6.4733E-06  0.0045
   6.3131E+01   6.4667E+01   5.8345E-06  0.0047
   6.4667E+01   6.6240E+01   1.4078E-06  0.0095
   6.6240E+01   6.7852E+01   3.7228E-10  0.5774
   6.7852E+01   6.9503E+01   2.4229E-10  0.7071
   6.9503E+01   7.1194E+01   0.0000E+00  0.0000
   7.1194E+01   7.2926E+01   0.0000E+00  0.0000
   7.2926E+01   7.4701E+01   0.0000E+00  0.0000
   7.4701E+01   7.6518E+01   0.0000E+00  0.0000
   7.6518E+01   7.8380E+01   0.0000E+00  0.0000
   7.8380E+01   8.0287E+01   0.0000E+00  0.0000
   8.0287E+01   8.2240E+01   0.0000E+00  0.0000
   8.2240E+01   8.4241E+01   0.0000E+00  0.0000
   8.4241E+01   8.6291E+01   0.0000E+00  0.0000
   8.6291E+01   8.8391E+01   0.0000E+00  0.0000
   8.8391E+01   9.0541E+01   0.0000E+00  0.0000
   9.0541E+01   9.2744E+01   0.0000E+00  0.0000
   9.2744E+01   9.5001E+01   0.0000E+00  0.0000
   9.5001E+01   9.7312E+01   0.0000E+00  0.0000
   9.7312E+01   9.9680E+01   0.0000E+00  0.0000
   9.9680E+01   1.0211E+02   0.0000E+00  0.0000
   1.0211E+02   1.0459E+02   0.0000E+00  0.0000
   1.0459E+02   1.0713E+02   0.0000E+00  0.0000
   1.0713E+02   1.0974E+02   0.0000E+00  0.0000
   1.0974E+02   1.1241E+02   0.0000E+00  0.0000
   1.1241E+02   1.1515E+02   0.0000E+00  0.0000
   1.1515E+02   1.1795E+02   0.0000E+00  0.0000
   1.1795E+02   1.2082E+02   0.0000E+00  0.0000
   1.2082E+02   1.2376E+02   0.0000E+00  0.0000
   1.2376E+02   1.2677E+02   0.0000E+00  0.0000
   1.2677E+02   1.2985E+02   0.0000E+00  0.0000
   1.2985E+02   1.3301E+02   0.0000E+00  0.0000
   1.3301E+02   1.3625E+02   0.0000E+00  0.0000
   1.3625E+02   1.3956E+02   0.0000E+00  0.0000
   1.3956E+02   1.4296E+02   0.0000E+00  0.0000
   1.4296E+02   1.4644E+02   0.0000E+00  0.0000
   1.4644E+02   1.5000E+02   0.0000E+00  0.0000

#   sum over                 9.1858E-06
'no. =    1   reg = 104 - 204'
msuc: {\huge [t-cross] in region mesh}
msdr: {\it plotted by \ANGEL \version}
msdl: {\it calculated by \PHITS  3.24}
wt: s(0.7)
\vspace{-3}
  region surface crossing
  area  &=&   1.0000E+00 [cm^2]
e:
 
# Information for Restart Calculation
# This calculation was newly started
# istdev =  2 # 1:Batch variance, 2:History variance
# resc2  = 5.00000000000000000E+09 # Total source weight or Total source weight / maxcas
# resc3  = 5.00000000000000000E+09 # Total history number or Total batch number
# maxcas =   100000000 # History / Batch, only used for istdev=1
# rijklst=   4.3065962982142690E+193 # Next initial random number
# bitrseed = 0110100000100010111000001110001111001110100100011111101000111001
