[ T-Cross ]
    title = [t-cross] in region mesh
     mesh =  reg            # mesh type is region-wise
      reg =    1            # number of crossing regions
      non     r-from    r-to       area
      1       119       219        1.000000    
   e-type =    3            # e-mesh is log given by emin, emax and ne
     emin =  1.0000000E-02  # minimum value of e-mesh points
     emax =   150.0000      # maximum value of e-mesh points
#    edel =  2.4039514E-02  # mesh width of e-mesh points
       ne =    400          # number of e-mesh points
#    data = ( e(i), i = 1, ne + 1 )
#           1.00000E-02  1.02433E-02  1.04925E-02  1.07478E-02  1.10093E-02
#           1.12772E-02  1.15516E-02  1.18326E-02  1.21205E-02  1.24154E-02
#           1.27175E-02  1.30269E-02  1.33439E-02  1.36686E-02  1.40011E-02
#           1.43418E-02  1.46907E-02  1.50482E-02  1.54143E-02  1.57894E-02
#           1.61735E-02  1.65670E-02  1.69701E-02  1.73830E-02  1.78060E-02
#           1.82392E-02  1.86830E-02  1.91375E-02  1.96032E-02  2.00801E-02
#           2.05687E-02  2.10692E-02  2.15818E-02  2.21069E-02  2.26448E-02
#           2.31957E-02  2.37601E-02  2.43382E-02  2.49304E-02  2.55369E-02
#           2.61583E-02  2.67947E-02  2.74467E-02  2.81145E-02  2.87985E-02
#           2.94992E-02  3.02169E-02  3.09521E-02  3.17052E-02  3.24766E-02
#           3.32668E-02  3.40762E-02  3.49053E-02  3.57546E-02  3.66246E-02
#           3.75157E-02  3.84284E-02  3.93634E-02  4.03212E-02  4.13022E-02
#           4.23071E-02  4.33365E-02  4.43909E-02  4.54710E-02  4.65773E-02
#           4.77106E-02  4.88714E-02  5.00605E-02  5.12785E-02  5.25262E-02
#           5.38042E-02  5.51133E-02  5.64542E-02  5.78278E-02  5.92348E-02
#           6.06760E-02  6.21523E-02  6.36645E-02  6.52135E-02  6.68002E-02
#           6.84255E-02  7.00904E-02  7.17957E-02  7.35426E-02  7.53319E-02
#           7.71648E-02  7.90423E-02  8.09655E-02  8.29354E-02  8.49533E-02
#           8.70203E-02  8.91376E-02  9.13064E-02  9.35279E-02  9.58035E-02
#           9.81345E-02  1.00522E-01  1.02968E-01  1.05473E-01  1.08040E-01
#           1.10668E-01  1.13361E-01  1.16119E-01  1.18944E-01  1.21838E-01
#           1.24803E-01  1.27839E-01  1.30950E-01  1.34136E-01  1.37399E-01
#           1.40742E-01  1.44167E-01  1.47675E-01  1.51268E-01  1.54948E-01
#           1.58718E-01  1.62580E-01  1.66535E-01  1.70587E-01  1.74738E-01
#           1.78989E-01  1.83344E-01  1.87805E-01  1.92375E-01  1.97055E-01
#           2.01850E-01  2.06761E-01  2.11792E-01  2.16945E-01  2.22223E-01
#           2.27630E-01  2.33169E-01  2.38842E-01  2.44653E-01  2.50605E-01
#           2.56703E-01  2.62949E-01  2.69346E-01  2.75900E-01  2.82613E-01
#           2.89489E-01  2.96532E-01  3.03747E-01  3.11138E-01  3.18708E-01
#           3.26462E-01  3.34405E-01  3.42542E-01  3.50876E-01  3.59413E-01
#           3.68158E-01  3.77116E-01  3.86291E-01  3.95690E-01  4.05317E-01
#           4.15179E-01  4.25281E-01  4.35628E-01  4.46227E-01  4.57084E-01
#           4.68205E-01  4.79597E-01  4.91266E-01  5.03219E-01  5.15463E-01
#           5.28005E-01  5.40851E-01  5.54011E-01  5.67490E-01  5.81298E-01
#           5.95441E-01  6.09929E-01  6.24769E-01  6.39970E-01  6.55541E-01
#           6.71491E-01  6.87828E-01  7.04564E-01  7.21706E-01  7.39266E-01
#           7.57253E-01  7.75678E-01  7.94551E-01  8.13883E-01  8.33685E-01
#           8.53969E-01  8.74747E-01  8.96030E-01  9.17831E-01  9.40163E-01
#           9.63038E-01  9.86469E-01  1.01047E+00  1.03506E+00  1.06024E+00
#           1.08604E+00  1.11246E+00  1.13953E+00  1.16725E+00  1.19565E+00
#           1.22474E+00  1.25454E+00  1.28507E+00  1.31633E+00  1.34836E+00
#           1.38117E+00  1.41477E+00  1.44920E+00  1.48446E+00  1.52057E+00
#           1.55757E+00  1.59547E+00  1.63429E+00  1.67405E+00  1.71478E+00
#           1.75650E+00  1.79924E+00  1.84302E+00  1.88786E+00  1.93379E+00
#           1.98084E+00  2.02904E+00  2.07841E+00  2.12898E+00  2.18078E+00
#           2.23384E+00  2.28819E+00  2.34386E+00  2.40089E+00  2.45930E+00
#           2.51914E+00  2.58043E+00  2.64322E+00  2.70753E+00  2.77341E+00
#           2.84088E+00  2.91001E+00  2.98081E+00  3.05333E+00  3.12762E+00
#           3.20372E+00  3.28167E+00  3.36152E+00  3.44330E+00  3.52708E+00
#           3.61290E+00  3.70080E+00  3.79085E+00  3.88308E+00  3.97756E+00
#           4.07434E+00  4.17347E+00  4.27501E+00  4.37903E+00  4.48557E+00
#           4.59471E+00  4.70650E+00  4.82102E+00  4.93832E+00  5.05847E+00
#           5.18155E+00  5.30762E+00  5.43676E+00  5.56904E+00  5.70453E+00
#           5.84333E+00  5.98550E+00  6.13114E+00  6.28031E+00  6.43312E+00
#           6.58964E+00  6.74997E+00  6.91420E+00  7.08243E+00  7.25475E+00
#           7.43126E+00  7.61207E+00  7.79728E+00  7.98700E+00  8.18133E+00
#           8.38038E+00  8.58428E+00  8.79315E+00  9.00709E+00  9.22624E+00
#           9.45072E+00  9.68067E+00  9.91620E+00  1.01575E+01  1.04046E+01
#           1.06578E+01  1.09171E+01  1.11827E+01  1.14548E+01  1.17335E+01
#           1.20190E+01  1.23114E+01  1.26109E+01  1.29178E+01  1.32321E+01
#           1.35540E+01  1.38838E+01  1.42216E+01  1.45676E+01  1.49221E+01
#           1.52851E+01  1.56570E+01  1.60380E+01  1.64282E+01  1.68279E+01
#           1.72374E+01  1.76568E+01  1.80864E+01  1.85264E+01  1.89772E+01
#           1.94389E+01  1.99119E+01  2.03963E+01  2.08926E+01  2.14009E+01
#           2.19216E+01  2.24550E+01  2.30014E+01  2.35610E+01  2.41343E+01
#           2.47215E+01  2.53230E+01  2.59391E+01  2.65702E+01  2.72167E+01
#           2.78789E+01  2.85572E+01  2.92520E+01  2.99637E+01  3.06928E+01
#           3.14396E+01  3.22045E+01  3.29881E+01  3.37907E+01  3.46128E+01
#           3.54550E+01  3.63177E+01  3.72013E+01  3.81064E+01  3.90336E+01
#           3.99833E+01  4.09561E+01  4.19526E+01  4.29734E+01  4.40189E+01
#           4.50900E+01  4.61870E+01  4.73108E+01  4.84619E+01  4.96410E+01
#           5.08488E+01  5.20860E+01  5.33533E+01  5.46514E+01  5.59812E+01
#           5.73432E+01  5.87384E+01  6.01676E+01  6.16315E+01  6.31311E+01
#           6.46671E+01  6.62405E+01  6.78522E+01  6.95031E+01  7.11941E+01
#           7.29263E+01  7.47007E+01  7.65182E+01  7.83800E+01  8.02870E+01
#           8.22405E+01  8.42414E+01  8.62911E+01  8.83906E+01  9.05412E+01
#           9.27442E+01  9.50007E+01  9.73122E+01  9.96799E+01  1.02105E+02
#           1.04589E+02  1.07134E+02  1.09741E+02  1.12411E+02  1.15146E+02
#           1.17948E+02  1.20817E+02  1.23757E+02  1.26768E+02  1.29852E+02
#           1.33012E+02  1.36248E+02  1.39563E+02  1.42959E+02  1.46437E+02
#           1.50000E+02
     unit =    2            # unit is [1/cm^2/(MeV/n)/source]
     axis =  eng            # axis of output
     file = detector-20.out  # file name of output for the above axis
   output = f-curr          # surface crossing forward current spectrum
     part =  neutron  
# kf/name :  2112     
#    used :        main (  %)        temp (  %)       total (  %)
#  memory :         414 (  0)           0 (  0)         414 (  0)

#------------------------------------------------------------------------------
#newpage:
#   no. =    1   reg = 119 - 219

x: Energy [MeV/n]
y:  F-Curr [1/cm^2/(MeV/n)/source]         
p: xlog ylog afac(0.8) form(0.9)
h: n            x            y(neutron ),hh0l   n 
#  e-lower      e-upper      neutron     r.err 
   1.0000E-02   1.0243E-02   6.1650E-06  0.5774
   1.0243E-02   1.0493E-02   6.0186E-06  0.5774
   1.0493E-02   1.0748E-02   7.8342E-06  0.5000
   1.0748E-02   1.1009E-02   3.8240E-06  0.7071
   1.1009E-02   1.1277E-02   1.8666E-06  1.0000
   1.1277E-02   1.1552E-02   9.1113E-06  0.4472
   1.1552E-02   1.1833E-02   7.1159E-06  0.5000
   1.1833E-02   1.2121E-02   1.7367E-06  1.0000
   1.2121E-02   1.2415E-02   1.6955E-06  1.0000
   1.2415E-02   1.2718E-02   1.6552E-06  1.0000
   1.2718E-02   1.3027E-02   1.2927E-05  0.3536
   1.3027E-02   1.3344E-02   9.4650E-06  0.4082
   1.3344E-02   1.3669E-02   4.6201E-06  0.5774
   1.3669E-02   1.4001E-02   6.0138E-06  0.5000
   1.4001E-02   1.4342E-02   5.8710E-06  0.5000
   1.4342E-02   1.4691E-02   2.8658E-06  0.7071
   1.4691E-02   1.5048E-02   1.1191E-05  0.3536
   1.5048E-02   1.5414E-02   5.4625E-06  0.5000
   1.5414E-02   1.5789E-02   3.9995E-06  0.5774
   1.5789E-02   1.6174E-02   6.5076E-06  0.4472
   1.6174E-02   1.6567E-02   7.6236E-06  0.4082
   1.6567E-02   1.6970E-02   1.1164E-05  0.3333
   1.6970E-02   1.7383E-02   7.2657E-06  0.4082
   1.7383E-02   1.7806E-02   8.2754E-06  0.3780
   1.7806E-02   1.8239E-02   4.6165E-06  0.5000
   1.8239E-02   1.8683E-02   1.1267E-06  1.0000
   1.8683E-02   1.9138E-02   9.8994E-06  0.3333
   1.9138E-02   1.9603E-02   3.2214E-06  0.5774
   1.9603E-02   2.0080E-02   4.1932E-06  0.5000
   2.0080E-02   2.0569E-02   8.1872E-06  0.3536
   2.0569E-02   2.1069E-02   5.9946E-06  0.4082
   2.1069E-02   2.1582E-02   2.9261E-06  0.5774
   2.1582E-02   2.2107E-02   1.0474E-05  0.3015
   2.2107E-02   2.2645E-02   6.5071E-06  0.3780
   2.2645E-02   2.3196E-02   1.8150E-06  0.7071
   2.3196E-02   2.3760E-02   5.3157E-06  0.4082
   2.3760E-02   2.4338E-02   1.0379E-05  0.2887
   2.4338E-02   2.4930E-02   5.9105E-06  0.3780
   2.4930E-02   2.5537E-02   8.2430E-06  0.3162
   2.5537E-02   2.6158E-02   5.6330E-06  0.3780
   2.6158E-02   2.6795E-02   1.0998E-05  0.2673
   2.6795E-02   2.7447E-02   9.9703E-06  0.2774
   2.7447E-02   2.8114E-02   7.4873E-06  0.3162
   2.8114E-02   2.8799E-02   1.1695E-05  0.2500
   2.8799E-02   2.9499E-02   8.5630E-06  0.2887
   2.9499E-02   3.0217E-02   7.6630E-06  0.3015
   3.0217E-02   3.0952E-02   1.0881E-05  0.2500
   3.0952E-02   3.1705E-02   8.6311E-06  0.2774
   3.1705E-02   3.2477E-02   5.8334E-06  0.3333
   3.2477E-02   3.3267E-02   6.9604E-06  0.3015
   3.3267E-02   3.4076E-02   1.2972E-05  0.2182
   3.4076E-02   3.4905E-02   8.4429E-06  0.2673
   3.4905E-02   3.5755E-02   8.2423E-06  0.2673
   3.5755E-02   3.6625E-02   9.1961E-06  0.2500
   3.6625E-02   3.7516E-02   4.4888E-06  0.3536
   3.7516E-02   3.8428E-02   8.7644E-06  0.2500
   3.8428E-02   3.9363E-02   1.1765E-05  0.2132
   3.9363E-02   4.0321E-02   8.3530E-06  0.2500
   4.0321E-02   4.1302E-02   9.6835E-06  0.2294
   4.1302E-02   4.2307E-02   9.4535E-06  0.2294
   4.2307E-02   4.3337E-02   6.8003E-06  0.2673
   4.3337E-02   4.4391E-02   8.5356E-06  0.2357
   4.4391E-02   4.5471E-02   7.8699E-06  0.2425
   4.5471E-02   4.6577E-02   1.1750E-05  0.1961
   4.6577E-02   4.7711E-02   1.3236E-05  0.1826
   4.7711E-02   4.8871E-02   1.0768E-05  0.2000
   4.8871E-02   5.0061E-02   1.3456E-05  0.1768
   5.0061E-02   5.1279E-02   9.4416E-06  0.2085
   5.1279E-02   5.2526E-02   1.6030E-05  0.1581
   5.2526E-02   5.3804E-02   9.4477E-06  0.2030
   5.3804E-02   5.5113E-02   1.0694E-05  0.1890
   5.5113E-02   5.6454E-02   1.1932E-05  0.1768
   5.6454E-02   5.7828E-02   1.0192E-05  0.1890
   5.7828E-02   5.9235E-02   1.1016E-05  0.1796
   5.9235E-02   6.0676E-02   7.2854E-06  0.2182
   6.0676E-02   6.2152E-02   9.1445E-06  0.1925
   6.2152E-02   6.3665E-02   8.5967E-06  0.1961
   6.3665E-02   6.5214E-02   8.3925E-06  0.1961
   6.5214E-02   6.6800E-02   1.4180E-05  0.1491
   6.6800E-02   6.8426E-02   1.0152E-05  0.1741
   6.8426E-02   7.0090E-02   1.0211E-05  0.1715
   7.0090E-02   7.1796E-02   1.0848E-05  0.1644
   7.1796E-02   7.3543E-02   1.1163E-05  0.1601
   7.3543E-02   7.5332E-02   1.2016E-05  0.1525
   7.5332E-02   7.7165E-02   1.1185E-05  0.1562
   7.7165E-02   7.9042E-02   1.1718E-05  0.1508
   7.9042E-02   8.0965E-02   1.2219E-05  0.1459
   8.0965E-02   8.2935E-02   9.1373E-06  0.1667
   8.2935E-02   8.4953E-02   1.1646E-05  0.1459
   8.4953E-02   8.7020E-02   1.4756E-05  0.1280
   8.7020E-02   8.9138E-02   1.0627E-05  0.1491
   8.9138E-02   9.1306E-02   1.0374E-05  0.1491
   9.1306E-02   9.3528E-02   1.4437E-05  0.1247
   9.3528E-02   9.5804E-02   1.2744E-05  0.1313
   9.5804E-02   9.8134E-02   9.4381E-06  0.1508
   9.8134E-02   1.0052E-01   1.0261E-05  0.1429
   1.0052E-01   1.0297E-01   8.6202E-06  0.1537
   1.0297E-01   1.0547E-01   1.1376E-05  0.1325
   1.0547E-01   1.0804E-01   1.1885E-05  0.1280
   1.0804E-01   1.1067E-01   1.0842E-05  0.1325
   1.1067E-01   1.1336E-01   8.5418E-06  0.1474
   1.1336E-01   1.1612E-01   1.0696E-05  0.1302
   1.1612E-01   1.1894E-01   1.1857E-05  0.1222
   1.1894E-01   1.2184E-01   1.2785E-05  0.1162
   1.2184E-01   1.2480E-01   1.2987E-05  0.1140
   1.2480E-01   1.2784E-01   1.1691E-05  0.1187
   1.2784E-01   1.3095E-01   1.1735E-05  0.1170
   1.3095E-01   1.3414E-01   9.7297E-06  0.1270
   1.3414E-01   1.3740E-01   1.2563E-05  0.1104
   1.3740E-01   1.4074E-01   1.1516E-05  0.1140
   1.4074E-01   1.4417E-01   1.0075E-05  0.1204
   1.4417E-01   1.4767E-01   1.1261E-05  0.1125
   1.4767E-01   1.5127E-01   1.1411E-05  0.1104
   1.5127E-01   1.5495E-01   1.4129E-05  0.0981
   1.5495E-01   1.5872E-01   1.2202E-05  0.1043
   1.5872E-01   1.6258E-01   1.0229E-05  0.1125
   1.6258E-01   1.6654E-01   1.4283E-05  0.0941
   1.6654E-01   1.7059E-01   1.3697E-05  0.0949
   1.7059E-01   1.7474E-01   1.0601E-05  0.1066
   1.7474E-01   1.7899E-01   1.2701E-05  0.0962
   1.7899E-01   1.8334E-01   1.0563E-05  0.1043
   1.8334E-01   1.8781E-01   1.4571E-05  0.0877
   1.8781E-01   1.9237E-01   1.1708E-05  0.0967
   1.9237E-01   1.9706E-01   1.0789E-05  0.0995
   1.9706E-01   2.0185E-01   1.1367E-05  0.0958
   2.0185E-01   2.0676E-01   1.1199E-05  0.0953
   2.0676E-01   2.1179E-01   1.0337E-05  0.0981
   2.1179E-01   2.1694E-01   9.4119E-06  0.1015
   2.1694E-01   2.2222E-01   9.3778E-06  0.1005
   2.2222E-01   2.2763E-01   1.0080E-05  0.0958
   2.2763E-01   2.3317E-01   1.0563E-05  0.0925
   2.3317E-01   2.3884E-01   1.0135E-05  0.0933
   2.3884E-01   2.4465E-01   8.5180E-06  0.1005
   2.4465E-01   2.5061E-01   9.9116E-06  0.0921
   2.5061E-01   2.5670E-01   8.8562E-06  0.0962
   2.5670E-01   2.6295E-01   8.6458E-06  0.0962
   2.6295E-01   2.6935E-01   9.4753E-06  0.0908
   2.6935E-01   2.7590E-01   9.9185E-06  0.0877
   2.7590E-01   2.8261E-01   9.2360E-06  0.0898
   2.8261E-01   2.8949E-01   1.0689E-05  0.0825
   2.8949E-01   2.9653E-01   7.9506E-06  0.0945
   2.9653E-01   3.0375E-01   9.0092E-06  0.0877
   3.0375E-01   3.1114E-01   9.5394E-06  0.0842
   3.1114E-01   3.1871E-01   9.5770E-06  0.0830
   3.1871E-01   3.2646E-01   8.5113E-06  0.0870
   3.2646E-01   3.3441E-01   7.4278E-06  0.0921
   3.3441E-01   3.4254E-01   7.0671E-06  0.0933
   3.4254E-01   3.5088E-01   7.9191E-06  0.0870
   3.5088E-01   3.5941E-01   8.3166E-06  0.0839
   3.5941E-01   3.6816E-01   9.0911E-06  0.0793
   3.6816E-01   3.7712E-01   7.5985E-06  0.0857
   3.7712E-01   3.8629E-01   8.7733E-06  0.0788
   3.8629E-01   3.9569E-01   8.6182E-06  0.0786
   3.9569E-01   4.0532E-01   6.7515E-06  0.0877
   4.0532E-01   4.1518E-01   8.1629E-06  0.0788
   4.1518E-01   4.2528E-01   7.5235E-06  0.0811
   4.2528E-01   4.3563E-01   7.7314E-06  0.0791
   4.3563E-01   4.4623E-01   8.0667E-06  0.0765
   4.4623E-01   4.5708E-01   7.6448E-06  0.0776
   4.5708E-01   4.6821E-01   8.8569E-06  0.0712
   4.6821E-01   4.7960E-01   8.4710E-06  0.0720
   4.7960E-01   4.9127E-01   8.5697E-06  0.0707
   4.9127E-01   5.0322E-01   8.1988E-06  0.0714
   5.0322E-01   5.1546E-01   8.9025E-06  0.0677
   5.1546E-01   5.2800E-01   6.9768E-06  0.0756
   5.2800E-01   5.4085E-01   8.1018E-06  0.0693
   5.4085E-01   5.5401E-01   7.8271E-06  0.0697
   5.5401E-01   5.6749E-01   8.2718E-06  0.0670
   5.6749E-01   5.8130E-01   7.0614E-06  0.0716
   5.8130E-01   5.9544E-01   7.4593E-06  0.0688
   5.9544E-01   6.0993E-01   8.1449E-06  0.0651
   6.0993E-01   6.2477E-01   7.9178E-06  0.0652
   6.2477E-01   6.3997E-01   7.2363E-06  0.0674
   6.3997E-01   6.5554E-01   7.0044E-06  0.0677
   6.5554E-01   6.7149E-01   6.8966E-06  0.0674
   6.7149E-01   6.8783E-01   6.5231E-06  0.0685
   6.8783E-01   7.0456E-01   7.0509E-06  0.0651
   7.0456E-01   7.2171E-01   7.5251E-06  0.0623
   7.2171E-01   7.3927E-01   7.4929E-06  0.0616
   7.3927E-01   7.5725E-01   8.5062E-06  0.0572
   7.5725E-01   7.7568E-01   6.7844E-06  0.0632
   7.7568E-01   7.9455E-01   7.5505E-06  0.0592
   7.9455E-01   8.1388E-01   7.7850E-06  0.0576
   8.1388E-01   8.3368E-01   7.4486E-06  0.0582
   8.3368E-01   8.5397E-01   7.7154E-06  0.0565
   8.5397E-01   8.7475E-01   7.5321E-06  0.0565
   8.7475E-01   8.9603E-01   7.1183E-06  0.0574
   8.9603E-01   9.1783E-01   6.9103E-06  0.0576
   9.1783E-01   9.4016E-01   6.6946E-06  0.0578
   9.4016E-01   9.6304E-01   6.4918E-06  0.0580
   9.6304E-01   9.8647E-01   7.3406E-06  0.0539
   9.8647E-01   1.0105E+00   6.8329E-06  0.0552
   1.0105E+00   1.0351E+00   7.1421E-06  0.0534
   1.0351E+00   1.0602E+00   6.6710E-06  0.0546
   1.0602E+00   1.0860E+00   6.8614E-06  0.0531
   1.0860E+00   1.1125E+00   6.7959E-06  0.0528
   1.1125E+00   1.1395E+00   7.0381E-06  0.0512
   1.1395E+00   1.1673E+00   7.7005E-06  0.0484
   1.1673E+00   1.1957E+00   7.0774E-06  0.0499
   1.1957E+00   1.2247E+00   6.4281E-06  0.0517
   1.2247E+00   1.2545E+00   7.4164E-06  0.0476
   1.2545E+00   1.2851E+00   6.6669E-06  0.0496
   1.2851E+00   1.3163E+00   6.7164E-06  0.0488
   1.3163E+00   1.3484E+00   6.6427E-06  0.0485
   1.3484E+00   1.3812E+00   6.7669E-06  0.0475
   1.3812E+00   1.4148E+00   6.6211E-06  0.0474
   1.4148E+00   1.4492E+00   6.9068E-06  0.0458
   1.4492E+00   1.4845E+00   7.2391E-06  0.0442
   1.4845E+00   1.5206E+00   6.0219E-06  0.0479
   1.5206E+00   1.5576E+00   6.7033E-06  0.0449
   1.5576E+00   1.5955E+00   6.3066E-06  0.0457
   1.5955E+00   1.6343E+00   6.2985E-06  0.0452
   1.6343E+00   1.6741E+00   5.7465E-06  0.0468
   1.6741E+00   1.7148E+00   5.4643E-06  0.0474
   1.7148E+00   1.7565E+00   4.8775E-06  0.0496
   1.7565E+00   1.7992E+00   5.7327E-06  0.0452
   1.7992E+00   1.8430E+00   4.8599E-06  0.0485
   1.8430E+00   1.8879E+00   4.8281E-06  0.0480
   1.8879E+00   1.9338E+00   4.4086E-06  0.0497
   1.9338E+00   1.9808E+00   4.1763E-06  0.0504
   1.9808E+00   2.0290E+00   4.2483E-06  0.0494
   2.0290E+00   2.0784E+00   3.4536E-06  0.0542
   2.0784E+00   2.1290E+00   3.4309E-06  0.0537
   2.1290E+00   2.1808E+00   3.0034E-06  0.0567
   2.1808E+00   2.2338E+00   3.0268E-06  0.0558
   2.2338E+00   2.2882E+00   2.7230E-06  0.0581
   2.2882E+00   2.3439E+00   2.5972E-06  0.0588
   2.3439E+00   2.4009E+00   2.1759E-06  0.0635
   2.4009E+00   2.4593E+00   2.2699E-06  0.0614
   2.4593E+00   2.5191E+00   1.9386E-06  0.0657
   2.5191E+00   2.5804E+00   1.6641E-06  0.0700
   2.5804E+00   2.6432E+00   1.5052E-06  0.0727
   2.6432E+00   2.7075E+00   1.7737E-06  0.0662
   2.7075E+00   2.7734E+00   1.8595E-06  0.0639
   2.7734E+00   2.8409E+00   2.1872E-06  0.0582
   2.8409E+00   2.9100E+00   1.9712E-06  0.0606
   2.9100E+00   2.9808E+00   1.9279E-06  0.0605
   2.9808E+00   3.0533E+00   1.9866E-06  0.0589
   3.0533E+00   3.1276E+00   2.1412E-06  0.0561
   3.1276E+00   3.2037E+00   2.4189E-06  0.0521
   3.2037E+00   3.2817E+00   2.9186E-06  0.0469
   3.2817E+00   3.3615E+00   2.6504E-06  0.0486
   3.3615E+00   3.4433E+00   3.0139E-06  0.0450
   3.4433E+00   3.5271E+00   3.0214E-06  0.0444
   3.5271E+00   3.6129E+00   2.7850E-06  0.0457
   3.6129E+00   3.7008E+00   2.7530E-06  0.0455
   3.7008E+00   3.7908E+00   2.8181E-06  0.0444
   3.7908E+00   3.8831E+00   4.1700E-06  0.0361
   3.8831E+00   3.9776E+00   4.4666E-06  0.0344
   3.9776E+00   4.0743E+00   3.9996E-06  0.0359
   4.0743E+00   4.1735E+00   4.1561E-06  0.0348
   4.1735E+00   4.2750E+00   3.5108E-06  0.0375
   4.2750E+00   4.3790E+00   2.9707E-06  0.0402
   4.3790E+00   4.4856E+00   2.4637E-06  0.0436
   4.4856E+00   4.5947E+00   2.0806E-06  0.0469
   4.5947E+00   4.7065E+00   1.8606E-06  0.0490
   4.7065E+00   4.8210E+00   1.7858E-06  0.0494
   4.8210E+00   4.9383E+00   1.6723E-06  0.0505
   4.9383E+00   5.0585E+00   1.0029E-06  0.0644
   5.0585E+00   5.1815E+00   8.1713E-07  0.0705
   5.1815E+00   5.3076E+00   8.9235E-07  0.0667
   5.3076E+00   5.4368E+00   8.4793E-07  0.0676
   5.4368E+00   5.5690E+00   8.3157E-07  0.0674
   5.5690E+00   5.7045E+00   7.3063E-07  0.0711
   5.7045E+00   5.8433E+00   7.3129E-07  0.0702
   5.8433E+00   5.9855E+00   7.1744E-07  0.0700
   5.9855E+00   6.1311E+00   7.4902E-07  0.0677
   6.1311E+00   6.2803E+00   8.1783E-07  0.0640
   6.2803E+00   6.4331E+00   9.4293E-07  0.0589
   6.4331E+00   6.5896E+00   9.8708E-07  0.0569
   6.5896E+00   6.7500E+00   1.0135E-06  0.0555
   6.7500E+00   6.9142E+00   9.7728E-07  0.0558
   6.9142E+00   7.0824E+00   9.2731E-07  0.0566
   7.0824E+00   7.2548E+00   1.0126E-06  0.0535
   7.2548E+00   7.4313E+00   1.0877E-06  0.0510
   7.4313E+00   7.6121E+00   1.1836E-06  0.0483
   7.6121E+00   7.7973E+00   1.1312E-06  0.0489
   7.7973E+00   7.9870E+00   1.1649E-06  0.0476
   7.9870E+00   8.1813E+00   1.3354E-06  0.0439
   8.1813E+00   8.3804E+00   1.1655E-06  0.0464
   8.3804E+00   8.5843E+00   8.9994E-07  0.0522
   8.5843E+00   8.7931E+00   5.2666E-07  0.0674
   8.7931E+00   9.0071E+00   3.9730E-07  0.0767
   9.0071E+00   9.2262E+00   1.1408E-07  0.1414
   9.2262E+00   9.4507E+00   0.0000E+00  0.0000
   9.4507E+00   9.6807E+00   0.0000E+00  0.0000
   9.6807E+00   9.9162E+00   0.0000E+00  0.0000
   9.9162E+00   1.0157E+01   0.0000E+00  0.0000
   1.0157E+01   1.0405E+01   0.0000E+00  0.0000
   1.0405E+01   1.0658E+01   0.0000E+00  0.0000
   1.0658E+01   1.0917E+01   0.0000E+00  0.0000
   1.0917E+01   1.1183E+01   0.0000E+00  0.0000
   1.1183E+01   1.1455E+01   0.0000E+00  0.0000
   1.1455E+01   1.1733E+01   0.0000E+00  0.0000
   1.1733E+01   1.2019E+01   0.0000E+00  0.0000
   1.2019E+01   1.2311E+01   0.0000E+00  0.0000
   1.2311E+01   1.2611E+01   0.0000E+00  0.0000
   1.2611E+01   1.2918E+01   0.0000E+00  0.0000
   1.2918E+01   1.3232E+01   0.0000E+00  0.0000
   1.3232E+01   1.3554E+01   0.0000E+00  0.0000
   1.3554E+01   1.3884E+01   0.0000E+00  0.0000
   1.3884E+01   1.4222E+01   0.0000E+00  0.0000
   1.4222E+01   1.4568E+01   0.0000E+00  0.0000
   1.4568E+01   1.4922E+01   0.0000E+00  0.0000
   1.4922E+01   1.5285E+01   0.0000E+00  0.0000
   1.5285E+01   1.5657E+01   0.0000E+00  0.0000
   1.5657E+01   1.6038E+01   0.0000E+00  0.0000
   1.6038E+01   1.6428E+01   0.0000E+00  0.0000
   1.6428E+01   1.6828E+01   0.0000E+00  0.0000
   1.6828E+01   1.7237E+01   0.0000E+00  0.0000
   1.7237E+01   1.7657E+01   0.0000E+00  0.0000
   1.7657E+01   1.8086E+01   0.0000E+00  0.0000
   1.8086E+01   1.8526E+01   0.0000E+00  0.0000
   1.8526E+01   1.8977E+01   0.0000E+00  0.0000
   1.8977E+01   1.9439E+01   0.0000E+00  0.0000
   1.9439E+01   1.9912E+01   0.0000E+00  0.0000
   1.9912E+01   2.0396E+01   0.0000E+00  0.0000
   2.0396E+01   2.0893E+01   0.0000E+00  0.0000
   2.0893E+01   2.1401E+01   0.0000E+00  0.0000
   2.1401E+01   2.1922E+01   0.0000E+00  0.0000
   2.1922E+01   2.2455E+01   0.0000E+00  0.0000
   2.2455E+01   2.3001E+01   0.0000E+00  0.0000
   2.3001E+01   2.3561E+01   0.0000E+00  0.0000
   2.3561E+01   2.4134E+01   0.0000E+00  0.0000
   2.4134E+01   2.4721E+01   0.0000E+00  0.0000
   2.4721E+01   2.5323E+01   0.0000E+00  0.0000
   2.5323E+01   2.5939E+01   0.0000E+00  0.0000
   2.5939E+01   2.6570E+01   0.0000E+00  0.0000
   2.6570E+01   2.7217E+01   0.0000E+00  0.0000
   2.7217E+01   2.7879E+01   0.0000E+00  0.0000
   2.7879E+01   2.8557E+01   0.0000E+00  0.0000
   2.8557E+01   2.9252E+01   0.0000E+00  0.0000
   2.9252E+01   2.9964E+01   0.0000E+00  0.0000
   2.9964E+01   3.0693E+01   0.0000E+00  0.0000
   3.0693E+01   3.1440E+01   0.0000E+00  0.0000
   3.1440E+01   3.2205E+01   0.0000E+00  0.0000
   3.2205E+01   3.2988E+01   0.0000E+00  0.0000
   3.2988E+01   3.3791E+01   0.0000E+00  0.0000
   3.3791E+01   3.4613E+01   0.0000E+00  0.0000
   3.4613E+01   3.5455E+01   0.0000E+00  0.0000
   3.5455E+01   3.6318E+01   0.0000E+00  0.0000
   3.6318E+01   3.7201E+01   0.0000E+00  0.0000
   3.7201E+01   3.8106E+01   0.0000E+00  0.0000
   3.8106E+01   3.9034E+01   0.0000E+00  0.0000
   3.9034E+01   3.9983E+01   0.0000E+00  0.0000
   3.9983E+01   4.0956E+01   0.0000E+00  0.0000
   4.0956E+01   4.1953E+01   0.0000E+00  0.0000
   4.1953E+01   4.2973E+01   0.0000E+00  0.0000
   4.2973E+01   4.4019E+01   0.0000E+00  0.0000
   4.4019E+01   4.5090E+01   0.0000E+00  0.0000
   4.5090E+01   4.6187E+01   0.0000E+00  0.0000
   4.6187E+01   4.7311E+01   0.0000E+00  0.0000
   4.7311E+01   4.8462E+01   0.0000E+00  0.0000
   4.8462E+01   4.9641E+01   0.0000E+00  0.0000
   4.9641E+01   5.0849E+01   0.0000E+00  0.0000
   5.0849E+01   5.2086E+01   0.0000E+00  0.0000
   5.2086E+01   5.3353E+01   0.0000E+00  0.0000
   5.3353E+01   5.4651E+01   0.0000E+00  0.0000
   5.4651E+01   5.5981E+01   0.0000E+00  0.0000
   5.5981E+01   5.7343E+01   0.0000E+00  0.0000
   5.7343E+01   5.8738E+01   0.0000E+00  0.0000
   5.8738E+01   6.0168E+01   0.0000E+00  0.0000
   6.0168E+01   6.1632E+01   0.0000E+00  0.0000
   6.1632E+01   6.3131E+01   0.0000E+00  0.0000
   6.3131E+01   6.4667E+01   0.0000E+00  0.0000
   6.4667E+01   6.6240E+01   0.0000E+00  0.0000
   6.6240E+01   6.7852E+01   0.0000E+00  0.0000
   6.7852E+01   6.9503E+01   0.0000E+00  0.0000
   6.9503E+01   7.1194E+01   0.0000E+00  0.0000
   7.1194E+01   7.2926E+01   0.0000E+00  0.0000
   7.2926E+01   7.4701E+01   0.0000E+00  0.0000
   7.4701E+01   7.6518E+01   0.0000E+00  0.0000
   7.6518E+01   7.8380E+01   0.0000E+00  0.0000
   7.8380E+01   8.0287E+01   0.0000E+00  0.0000
   8.0287E+01   8.2240E+01   0.0000E+00  0.0000
   8.2240E+01   8.4241E+01   0.0000E+00  0.0000
   8.4241E+01   8.6291E+01   0.0000E+00  0.0000
   8.6291E+01   8.8391E+01   0.0000E+00  0.0000
   8.8391E+01   9.0541E+01   0.0000E+00  0.0000
   9.0541E+01   9.2744E+01   0.0000E+00  0.0000
   9.2744E+01   9.5001E+01   0.0000E+00  0.0000
   9.5001E+01   9.7312E+01   0.0000E+00  0.0000
   9.7312E+01   9.9680E+01   0.0000E+00  0.0000
   9.9680E+01   1.0211E+02   0.0000E+00  0.0000
   1.0211E+02   1.0459E+02   0.0000E+00  0.0000
   1.0459E+02   1.0713E+02   0.0000E+00  0.0000
   1.0713E+02   1.0974E+02   0.0000E+00  0.0000
   1.0974E+02   1.1241E+02   0.0000E+00  0.0000
   1.1241E+02   1.1515E+02   0.0000E+00  0.0000
   1.1515E+02   1.1795E+02   0.0000E+00  0.0000
   1.1795E+02   1.2082E+02   0.0000E+00  0.0000
   1.2082E+02   1.2376E+02   0.0000E+00  0.0000
   1.2376E+02   1.2677E+02   0.0000E+00  0.0000
   1.2677E+02   1.2985E+02   0.0000E+00  0.0000
   1.2985E+02   1.3301E+02   0.0000E+00  0.0000
   1.3301E+02   1.3625E+02   0.0000E+00  0.0000
   1.3625E+02   1.3956E+02   0.0000E+00  0.0000
   1.3956E+02   1.4296E+02   0.0000E+00  0.0000
   1.4296E+02   1.4644E+02   0.0000E+00  0.0000
   1.4644E+02   1.5000E+02   0.0000E+00  0.0000

#   sum over                 1.7369E-07
'no. =    1   reg = 119 - 219'
msuc: {\huge [t-cross] in region mesh}
msdr: {\it plotted by \ANGEL \version}
msdl: {\it calculated by \PHITS  3.26}
wt: s(0.7)
\vspace{-3}
  region surface crossing
  area  &=&   1.0000E+00 [cm^2]
e:
 
# Information for Restart Calculation
# This calculation was newly started
# istdev =  2 # 1:Batch variance, 2:History variance
# resc2  = 2.00000000000000000E+09 # Total source weight or Total source weight / maxcas
# resc3  = 2.00000000000000000E+09 # Total history number or Total batch number
# maxcas =   500000000 # History / Batch, only used for istdev=1
# bitrseed = 0011011010010000100111110110001101100001010011100000011100000110 # bit data of rseed
