[ T-Cross ]
    title = [t-cross] in region mesh
     mesh =  reg            # mesh type is region-wise
      reg =    1            # number of crossing regions
      non     r-from    r-to       area
      1       104       204        1.000000    
   e-type =    3            # e-mesh is log given by emin, emax and ne
     emin =  1.0000000E-02  # minimum value of e-mesh points
     emax =   150.0000      # maximum value of e-mesh points
#    edel =  2.4039514E-02  # mesh width of e-mesh points
       ne =    400          # number of e-mesh points
#    data = ( e(i), i = 1, ne + 1 )
#           1.00000E-02  1.02433E-02  1.04925E-02  1.07478E-02  1.10093E-02
#           1.12772E-02  1.15516E-02  1.18326E-02  1.21205E-02  1.24154E-02
#           1.27175E-02  1.30269E-02  1.33439E-02  1.36686E-02  1.40011E-02
#           1.43418E-02  1.46907E-02  1.50482E-02  1.54143E-02  1.57894E-02
#           1.61735E-02  1.65670E-02  1.69701E-02  1.73830E-02  1.78060E-02
#           1.82392E-02  1.86830E-02  1.91375E-02  1.96032E-02  2.00801E-02
#           2.05687E-02  2.10692E-02  2.15818E-02  2.21069E-02  2.26448E-02
#           2.31957E-02  2.37601E-02  2.43382E-02  2.49304E-02  2.55369E-02
#           2.61583E-02  2.67947E-02  2.74467E-02  2.81145E-02  2.87985E-02
#           2.94992E-02  3.02169E-02  3.09521E-02  3.17052E-02  3.24766E-02
#           3.32668E-02  3.40762E-02  3.49053E-02  3.57546E-02  3.66246E-02
#           3.75157E-02  3.84284E-02  3.93634E-02  4.03212E-02  4.13022E-02
#           4.23071E-02  4.33365E-02  4.43909E-02  4.54710E-02  4.65773E-02
#           4.77106E-02  4.88714E-02  5.00605E-02  5.12785E-02  5.25262E-02
#           5.38042E-02  5.51133E-02  5.64542E-02  5.78278E-02  5.92348E-02
#           6.06760E-02  6.21523E-02  6.36645E-02  6.52135E-02  6.68002E-02
#           6.84255E-02  7.00904E-02  7.17957E-02  7.35426E-02  7.53319E-02
#           7.71648E-02  7.90423E-02  8.09655E-02  8.29354E-02  8.49533E-02
#           8.70203E-02  8.91376E-02  9.13064E-02  9.35279E-02  9.58035E-02
#           9.81345E-02  1.00522E-01  1.02968E-01  1.05473E-01  1.08040E-01
#           1.10668E-01  1.13361E-01  1.16119E-01  1.18944E-01  1.21838E-01
#           1.24803E-01  1.27839E-01  1.30950E-01  1.34136E-01  1.37399E-01
#           1.40742E-01  1.44167E-01  1.47675E-01  1.51268E-01  1.54948E-01
#           1.58718E-01  1.62580E-01  1.66535E-01  1.70587E-01  1.74738E-01
#           1.78989E-01  1.83344E-01  1.87805E-01  1.92375E-01  1.97055E-01
#           2.01850E-01  2.06761E-01  2.11792E-01  2.16945E-01  2.22223E-01
#           2.27630E-01  2.33169E-01  2.38842E-01  2.44653E-01  2.50605E-01
#           2.56703E-01  2.62949E-01  2.69346E-01  2.75900E-01  2.82613E-01
#           2.89489E-01  2.96532E-01  3.03747E-01  3.11138E-01  3.18708E-01
#           3.26462E-01  3.34405E-01  3.42542E-01  3.50876E-01  3.59413E-01
#           3.68158E-01  3.77116E-01  3.86291E-01  3.95690E-01  4.05317E-01
#           4.15179E-01  4.25281E-01  4.35628E-01  4.46227E-01  4.57084E-01
#           4.68205E-01  4.79597E-01  4.91266E-01  5.03219E-01  5.15463E-01
#           5.28005E-01  5.40851E-01  5.54011E-01  5.67490E-01  5.81298E-01
#           5.95441E-01  6.09929E-01  6.24769E-01  6.39970E-01  6.55541E-01
#           6.71491E-01  6.87828E-01  7.04564E-01  7.21706E-01  7.39266E-01
#           7.57253E-01  7.75678E-01  7.94551E-01  8.13883E-01  8.33685E-01
#           8.53969E-01  8.74747E-01  8.96030E-01  9.17831E-01  9.40163E-01
#           9.63038E-01  9.86469E-01  1.01047E+00  1.03506E+00  1.06024E+00
#           1.08604E+00  1.11246E+00  1.13953E+00  1.16725E+00  1.19565E+00
#           1.22474E+00  1.25454E+00  1.28507E+00  1.31633E+00  1.34836E+00
#           1.38117E+00  1.41477E+00  1.44920E+00  1.48446E+00  1.52057E+00
#           1.55757E+00  1.59547E+00  1.63429E+00  1.67405E+00  1.71478E+00
#           1.75650E+00  1.79924E+00  1.84302E+00  1.88786E+00  1.93379E+00
#           1.98084E+00  2.02904E+00  2.07841E+00  2.12898E+00  2.18078E+00
#           2.23384E+00  2.28819E+00  2.34386E+00  2.40089E+00  2.45930E+00
#           2.51914E+00  2.58043E+00  2.64322E+00  2.70753E+00  2.77341E+00
#           2.84088E+00  2.91001E+00  2.98081E+00  3.05333E+00  3.12762E+00
#           3.20372E+00  3.28167E+00  3.36152E+00  3.44330E+00  3.52708E+00
#           3.61290E+00  3.70080E+00  3.79085E+00  3.88308E+00  3.97756E+00
#           4.07434E+00  4.17347E+00  4.27501E+00  4.37903E+00  4.48557E+00
#           4.59471E+00  4.70650E+00  4.82102E+00  4.93832E+00  5.05847E+00
#           5.18155E+00  5.30762E+00  5.43676E+00  5.56904E+00  5.70453E+00
#           5.84333E+00  5.98550E+00  6.13114E+00  6.28031E+00  6.43312E+00
#           6.58964E+00  6.74997E+00  6.91420E+00  7.08243E+00  7.25475E+00
#           7.43126E+00  7.61207E+00  7.79728E+00  7.98700E+00  8.18133E+00
#           8.38038E+00  8.58428E+00  8.79315E+00  9.00709E+00  9.22624E+00
#           9.45072E+00  9.68067E+00  9.91620E+00  1.01575E+01  1.04046E+01
#           1.06578E+01  1.09171E+01  1.11827E+01  1.14548E+01  1.17335E+01
#           1.20190E+01  1.23114E+01  1.26109E+01  1.29178E+01  1.32321E+01
#           1.35540E+01  1.38838E+01  1.42216E+01  1.45676E+01  1.49221E+01
#           1.52851E+01  1.56570E+01  1.60380E+01  1.64282E+01  1.68279E+01
#           1.72374E+01  1.76568E+01  1.80864E+01  1.85264E+01  1.89772E+01
#           1.94389E+01  1.99119E+01  2.03963E+01  2.08926E+01  2.14009E+01
#           2.19216E+01  2.24550E+01  2.30014E+01  2.35610E+01  2.41343E+01
#           2.47215E+01  2.53230E+01  2.59391E+01  2.65702E+01  2.72167E+01
#           2.78789E+01  2.85572E+01  2.92520E+01  2.99637E+01  3.06928E+01
#           3.14396E+01  3.22045E+01  3.29881E+01  3.37907E+01  3.46128E+01
#           3.54550E+01  3.63177E+01  3.72013E+01  3.81064E+01  3.90336E+01
#           3.99833E+01  4.09561E+01  4.19526E+01  4.29734E+01  4.40189E+01
#           4.50900E+01  4.61870E+01  4.73108E+01  4.84619E+01  4.96410E+01
#           5.08488E+01  5.20860E+01  5.33533E+01  5.46514E+01  5.59812E+01
#           5.73432E+01  5.87384E+01  6.01676E+01  6.16315E+01  6.31311E+01
#           6.46671E+01  6.62405E+01  6.78522E+01  6.95031E+01  7.11941E+01
#           7.29263E+01  7.47007E+01  7.65182E+01  7.83800E+01  8.02870E+01
#           8.22405E+01  8.42414E+01  8.62911E+01  8.83906E+01  9.05412E+01
#           9.27442E+01  9.50007E+01  9.73122E+01  9.96799E+01  1.02105E+02
#           1.04589E+02  1.07134E+02  1.09741E+02  1.12411E+02  1.15146E+02
#           1.17948E+02  1.20817E+02  1.23757E+02  1.26768E+02  1.29852E+02
#           1.33012E+02  1.36248E+02  1.39563E+02  1.42959E+02  1.46437E+02
#           1.50000E+02
     unit =    2            # unit is [1/cm^2/(MeV/n)/source]
     axis =  eng            # axis of output
     file = detector-05.out  # file name of output for the above axis
   output = f-curr          # surface crossing forward current spectrum
     part =  neutron  
# kf/name :  2112     
#    used :        main (  %)        temp (  %)       total (  %)
#  memory :         414 (  0)           0 (  0)         414 (  0)

#------------------------------------------------------------------------------
#newpage:
#   no. =    1   reg = 104 - 204

x: Energy [MeV/n]
y:  F-Curr [1/cm^2/(MeV/n)/source]         
p: xlog ylog afac(0.8) form(0.9)
h: n            x            y(neutron ),hh0l   n 
#  e-lower      e-upper      neutron     r.err 
   1.0000E-02   1.0243E-02   2.2030E-04  0.0864
   1.0243E-02   1.0493E-02   1.9099E-04  0.0917
   1.0493E-02   1.0748E-02   2.2719E-04  0.0830
   1.0748E-02   1.1009E-02   1.9885E-04  0.0877
   1.1009E-02   1.1277E-02   1.8069E-04  0.0909
   1.1277E-02   1.1552E-02   2.1284E-04  0.0828
   1.1552E-02   1.1833E-02   1.9355E-04  0.0857
   1.1833E-02   1.2121E-02   1.9729E-04  0.0839
   1.2121E-02   1.2415E-02   2.3465E-04  0.0760
   1.2415E-02   1.2718E-02   1.8936E-04  0.0836
   1.2718E-02   1.3027E-02   1.9908E-04  0.0806
   1.3027E-02   1.3344E-02   1.9182E-04  0.0811
   1.3344E-02   1.3669E-02   2.0082E-04  0.0783
   1.3669E-02   1.4001E-02   1.7560E-04  0.0828
   1.4001E-02   1.4342E-02   1.8317E-04  0.0801
   1.4342E-02   1.4691E-02   1.8570E-04  0.0786
   1.4691E-02   1.5048E-02   1.7905E-04  0.0791
   1.5048E-02   1.5414E-02   2.1850E-04  0.0707
   1.5414E-02   1.5789E-02   2.0478E-04  0.0722
   1.5789E-02   1.6174E-02   1.9991E-04  0.0722
   1.6174E-02   1.6567E-02   2.1753E-04  0.0684
   1.6567E-02   1.6970E-02   2.0740E-04  0.0692
   1.6970E-02   1.7383E-02   2.4316E-04  0.0631
   1.7383E-02   1.7806E-02   1.9199E-04  0.0702
   1.7806E-02   1.8239E-02   1.9204E-04  0.0693
   1.8239E-02   1.8683E-02   2.0551E-04  0.0662
   1.8683E-02   1.9138E-02   2.3143E-04  0.0617
   1.9138E-02   1.9603E-02   2.4311E-04  0.0594
   1.9603E-02   2.0080E-02   2.0044E-04  0.0647
   2.0080E-02   2.0569E-02   2.1778E-04  0.0613
   2.0569E-02   2.1069E-02   2.0142E-04  0.0630
   2.1069E-02   2.1582E-02   2.0210E-04  0.0621
   2.1582E-02   2.2107E-02   1.9272E-04  0.0629
   2.2107E-02   2.2645E-02   2.4243E-04  0.0554
   2.2645E-02   2.3196E-02   2.0328E-04  0.0598
   2.3196E-02   2.3760E-02   2.2751E-04  0.0558
   2.3760E-02   2.4338E-02   2.2695E-04  0.0552
   2.4338E-02   2.4930E-02   2.2257E-04  0.0551
   2.4930E-02   2.5537E-02   2.2157E-04  0.0546
   2.5537E-02   2.6158E-02   2.2854E-04  0.0531
   2.6158E-02   2.6795E-02   2.1557E-04  0.0540
   2.6795E-02   2.7447E-02   2.3438E-04  0.0512
   2.7447E-02   2.8114E-02   2.1683E-04  0.0526
   2.8114E-02   2.8799E-02   2.2338E-04  0.0512
   2.8799E-02   2.9499E-02   2.0494E-04  0.0528
   2.9499E-02   3.0217E-02   2.2571E-04  0.0497
   3.0217E-02   3.0952E-02   2.3939E-04  0.0477
   3.0952E-02   3.1705E-02   2.4433E-04  0.0466
   3.1705E-02   3.2477E-02   2.0793E-04  0.0499
   3.2477E-02   3.3267E-02   2.1970E-04  0.0480
   3.3267E-02   3.4076E-02   2.3622E-04  0.0457
   3.4076E-02   3.4905E-02   2.2048E-04  0.0468
   3.4905E-02   3.5755E-02   2.2325E-04  0.0459
   3.5755E-02   3.6625E-02   2.2025E-04  0.0457
   3.6625E-02   3.7516E-02   2.1636E-04  0.0455
   3.7516E-02   3.8428E-02   2.3751E-04  0.0430
   3.8428E-02   3.9363E-02   2.3701E-04  0.0425
   3.9363E-02   4.0321E-02   2.3681E-04  0.0420
   4.0321E-02   4.1302E-02   2.3689E-04  0.0415
   4.1302E-02   4.2307E-02   2.3047E-04  0.0416
   4.2307E-02   4.3337E-02   2.2499E-04  0.0416
   4.3337E-02   4.4391E-02   2.3331E-04  0.0403
   4.4391E-02   4.5471E-02   2.3702E-04  0.0395
   4.5471E-02   4.6577E-02   2.4983E-04  0.0380
   4.6577E-02   4.7711E-02   2.2378E-04  0.0397
   4.7711E-02   4.8871E-02   2.4396E-04  0.0376
   4.8871E-02   5.0061E-02   2.4523E-04  0.0370
   5.0061E-02   5.1279E-02   2.4762E-04  0.0364
   5.1279E-02   5.2526E-02   2.3180E-04  0.0372
   5.2526E-02   5.3804E-02   2.4476E-04  0.0358
   5.3804E-02   5.5113E-02   2.5422E-04  0.0347
   5.5113E-02   5.6454E-02   2.3565E-04  0.0356
   5.6454E-02   5.7828E-02   2.3865E-04  0.0349
   5.7828E-02   5.9235E-02   2.3938E-04  0.0345
   5.9235E-02   6.0676E-02   2.3591E-04  0.0343
   6.0676E-02   6.2152E-02   2.5876E-04  0.0324
   6.2152E-02   6.3665E-02   2.5896E-04  0.0320
   6.3665E-02   6.5214E-02   2.6443E-04  0.0312
   6.5214E-02   6.6800E-02   2.4605E-04  0.0320
   6.6800E-02   6.8426E-02   2.5521E-04  0.0311
   6.8426E-02   7.0090E-02   2.6189E-04  0.0303
   7.0090E-02   7.1796E-02   2.4112E-04  0.0312
   7.1796E-02   7.3543E-02   2.5784E-04  0.0298
   7.3543E-02   7.5332E-02   2.5842E-04  0.0294
   7.5332E-02   7.7165E-02   2.5599E-04  0.0292
   7.7165E-02   7.9042E-02   2.5417E-04  0.0290
   7.9042E-02   8.0965E-02   2.6581E-04  0.0280
   8.0965E-02   8.2935E-02   2.5828E-04  0.0280
   8.2935E-02   8.4953E-02   2.6741E-04  0.0272
   8.4953E-02   8.7020E-02   2.5448E-04  0.0276
   8.7020E-02   8.9138E-02   2.6808E-04  0.0265
   8.9138E-02   9.1306E-02   2.7278E-04  0.0260
   9.1306E-02   9.3528E-02   2.6846E-04  0.0259
   9.3528E-02   9.5804E-02   2.6578E-04  0.0257
   9.5804E-02   9.8134E-02   2.6976E-04  0.0252
   9.8134E-02   1.0052E-01   2.6737E-04  0.0250
   1.0052E-01   1.0297E-01   2.7051E-04  0.0246
   1.0297E-01   1.0547E-01   2.7446E-04  0.0241
   1.0547E-01   1.0804E-01   2.9397E-04  0.0230
   1.0804E-01   1.1067E-01   2.6956E-04  0.0238
   1.1067E-01   1.1336E-01   2.6591E-04  0.0236
   1.1336E-01   1.1612E-01   2.9614E-04  0.0221
   1.1612E-01   1.1894E-01   2.7863E-04  0.0225
   1.1894E-01   1.2184E-01   2.7187E-04  0.0225
   1.2184E-01   1.2480E-01   2.8242E-04  0.0219
   1.2480E-01   1.2784E-01   2.6978E-04  0.0221
   1.2784E-01   1.3095E-01   2.8736E-04  0.0212
   1.3095E-01   1.3414E-01   2.8561E-04  0.0210
   1.3414E-01   1.3740E-01   2.8704E-04  0.0207
   1.3740E-01   1.4074E-01   2.9309E-04  0.0202
   1.4074E-01   1.4417E-01   2.8910E-04  0.0201
   1.4417E-01   1.4767E-01   2.8446E-04  0.0200
   1.4767E-01   1.5127E-01   2.9457E-04  0.0194
   1.5127E-01   1.5495E-01   2.9051E-04  0.0193
   1.5495E-01   1.5872E-01   2.9867E-04  0.0188
   1.5872E-01   1.6258E-01   2.9614E-04  0.0187
   1.6258E-01   1.6654E-01   3.0093E-04  0.0183
   1.6654E-01   1.7059E-01   2.9926E-04  0.0182
   1.7059E-01   1.7474E-01   3.0232E-04  0.0179
   1.7474E-01   1.7899E-01   2.9914E-04  0.0177
   1.7899E-01   1.8334E-01   2.9098E-04  0.0178
   1.8334E-01   1.8781E-01   3.0164E-04  0.0172
   1.8781E-01   1.9237E-01   3.0170E-04  0.0170
   1.9237E-01   1.9706E-01   3.1030E-04  0.0166
   1.9706E-01   2.0185E-01   3.0030E-04  0.0167
   2.0185E-01   2.0676E-01   3.0665E-04  0.0163
   2.0676E-01   2.1179E-01   2.9801E-04  0.0163
   2.1179E-01   2.1694E-01   3.0914E-04  0.0158
   2.1694E-01   2.2222E-01   3.1706E-04  0.0155
   2.2222E-01   2.2763E-01   3.0236E-04  0.0156
   2.2763E-01   2.3317E-01   3.1742E-04  0.0151
   2.3317E-01   2.3884E-01   3.1890E-04  0.0149
   2.3884E-01   2.4465E-01   3.1322E-04  0.0148
   2.4465E-01   2.5061E-01   3.0918E-04  0.0147
   2.5061E-01   2.5670E-01   3.0731E-04  0.0146
   2.5670E-01   2.6295E-01   3.1894E-04  0.0142
   2.6295E-01   2.6935E-01   3.1102E-04  0.0142
   2.6935E-01   2.7590E-01   3.2319E-04  0.0137
   2.7590E-01   2.8261E-01   3.2004E-04  0.0136
   2.8261E-01   2.8949E-01   3.1855E-04  0.0135
   2.8949E-01   2.9653E-01   3.1939E-04  0.0133
   2.9653E-01   3.0375E-01   3.2098E-04  0.0131
   3.0375E-01   3.1114E-01   3.1511E-04  0.0131
   3.1114E-01   3.1871E-01   3.2195E-04  0.0128
   3.1871E-01   3.2646E-01   3.1484E-04  0.0128
   3.2646E-01   3.3441E-01   3.2771E-04  0.0124
   3.3441E-01   3.4254E-01   3.2413E-04  0.0123
   3.4254E-01   3.5088E-01   3.2742E-04  0.0121
   3.5088E-01   3.5941E-01   3.2564E-04  0.0120
   3.5941E-01   3.6816E-01   3.2385E-04  0.0119
   3.6816E-01   3.7712E-01   3.2060E-04  0.0118
   3.7712E-01   3.8629E-01   3.2720E-04  0.0115
   3.8629E-01   3.9569E-01   3.2070E-04  0.0115
   3.9569E-01   4.0532E-01   3.2652E-04  0.0113
   4.0532E-01   4.1518E-01   3.2459E-04  0.0112
   4.1518E-01   4.2528E-01   3.2143E-04  0.0111
   4.2528E-01   4.3563E-01   3.2758E-04  0.0109
   4.3563E-01   4.4623E-01   3.2303E-04  0.0108
   4.4623E-01   4.5708E-01   3.2268E-04  0.0107
   4.5708E-01   4.6821E-01   3.1968E-04  0.0106
   4.6821E-01   4.7960E-01   3.1735E-04  0.0105
   4.7960E-01   4.9127E-01   3.1893E-04  0.0104
   4.9127E-01   5.0322E-01   3.1952E-04  0.0102
   5.0322E-01   5.1546E-01   3.1654E-04  0.0102
   5.1546E-01   5.2800E-01   3.1355E-04  0.0101
   5.2800E-01   5.4085E-01   3.1550E-04  0.0099
   5.4085E-01   5.5401E-01   3.1378E-04  0.0098
   5.5401E-01   5.6749E-01   3.0911E-04  0.0098
   5.6749E-01   5.8130E-01   3.0271E-04  0.0098
   5.8130E-01   5.9544E-01   3.0090E-04  0.0097
   5.9544E-01   6.0993E-01   3.0056E-04  0.0096
   6.0993E-01   6.2477E-01   3.0198E-04  0.0094
   6.2477E-01   6.3997E-01   2.9795E-04  0.0094
   6.3997E-01   6.5554E-01   2.9021E-04  0.0094
   6.5554E-01   6.7149E-01   2.9046E-04  0.0093
   6.7149E-01   6.8783E-01   2.8349E-04  0.0093
   6.8783E-01   7.0456E-01   2.7947E-04  0.0092
   7.0456E-01   7.2171E-01   2.7468E-04  0.0092
   7.2171E-01   7.3927E-01   2.6802E-04  0.0092
   7.3927E-01   7.5725E-01   2.6763E-04  0.0091
   7.5725E-01   7.7568E-01   2.6276E-04  0.0091
   7.7568E-01   7.9455E-01   2.5886E-04  0.0090
   7.9455E-01   8.1388E-01   2.5462E-04  0.0090
   8.1388E-01   8.3368E-01   2.4430E-04  0.0091
   8.3368E-01   8.5397E-01   2.3976E-04  0.0091
   8.5397E-01   8.7475E-01   2.2969E-04  0.0092
   8.7475E-01   8.9603E-01   2.2675E-04  0.0091
   8.9603E-01   9.1783E-01   2.1622E-04  0.0092
   9.1783E-01   9.4016E-01   2.0873E-04  0.0093
   9.4016E-01   9.6304E-01   1.9875E-04  0.0094
   9.6304E-01   9.8647E-01   1.9287E-04  0.0094
   9.8647E-01   1.0105E+00   1.8680E-04  0.0094
   1.0105E+00   1.0351E+00   1.8648E-04  0.0093
   1.0351E+00   1.0602E+00   1.8614E-04  0.0092
   1.0602E+00   1.0860E+00   1.8817E-04  0.0091
   1.0860E+00   1.1125E+00   1.8656E-04  0.0090
   1.1125E+00   1.1395E+00   1.8891E-04  0.0088
   1.1395E+00   1.1673E+00   1.9252E-04  0.0087
   1.1673E+00   1.1957E+00   1.9419E-04  0.0085
   1.1957E+00   1.2247E+00   1.9563E-04  0.0084
   1.2247E+00   1.2545E+00   1.9574E-04  0.0083
   1.2545E+00   1.2851E+00   1.9653E-04  0.0082
   1.2851E+00   1.3163E+00   1.9474E-04  0.0081
   1.3163E+00   1.3484E+00   1.9504E-04  0.0080
   1.3484E+00   1.3812E+00   1.9689E-04  0.0079
   1.3812E+00   1.4148E+00   2.0006E-04  0.0077
   1.4148E+00   1.4492E+00   1.9705E-04  0.0077
   1.4492E+00   1.4845E+00   1.9514E-04  0.0076
   1.4845E+00   1.5206E+00   1.9338E-04  0.0076
   1.5206E+00   1.5576E+00   1.9231E-04  0.0075
   1.5576E+00   1.5955E+00   1.8810E-04  0.0075
   1.5955E+00   1.6343E+00   1.8831E-04  0.0074
   1.6343E+00   1.6741E+00   1.8495E-04  0.0074
   1.6741E+00   1.7148E+00   1.8723E-04  0.0072
   1.7148E+00   1.7565E+00   1.8296E-04  0.0072
   1.7565E+00   1.7992E+00   1.8218E-04  0.0072
   1.7992E+00   1.8430E+00   1.7864E-04  0.0072
   1.8430E+00   1.8879E+00   1.7595E-04  0.0071
   1.8879E+00   1.9338E+00   1.7192E-04  0.0071
   1.9338E+00   1.9808E+00   1.7100E-04  0.0071
   1.9808E+00   2.0290E+00   1.6908E-04  0.0070
   2.0290E+00   2.0784E+00   1.6415E-04  0.0070
   2.0784E+00   2.1290E+00   1.6157E-04  0.0070
   2.1290E+00   2.1808E+00   1.5600E-04  0.0070
   2.1808E+00   2.2338E+00   1.5177E-04  0.0070
   2.2338E+00   2.2882E+00   1.4975E-04  0.0070
   2.2882E+00   2.3439E+00   1.4564E-04  0.0070
   2.3439E+00   2.4009E+00   1.4334E-04  0.0070
   2.4009E+00   2.4593E+00   1.4213E-04  0.0069
   2.4593E+00   2.5191E+00   1.3534E-04  0.0070
   2.5191E+00   2.5804E+00   1.3130E-04  0.0071
   2.5804E+00   2.6432E+00   1.2735E-04  0.0071
   2.6432E+00   2.7075E+00   1.2305E-04  0.0071
   2.7075E+00   2.7734E+00   1.1994E-04  0.0071
   2.7734E+00   2.8409E+00   1.1530E-04  0.0072
   2.8409E+00   2.9100E+00   1.1074E-04  0.0072
   2.9100E+00   2.9808E+00   1.0922E-04  0.0072
   2.9808E+00   3.0533E+00   1.0613E-04  0.0072
   3.0533E+00   3.1276E+00   1.0103E-04  0.0073
   3.1276E+00   3.2037E+00   9.8282E-05  0.0073
   3.2037E+00   3.2817E+00   9.5260E-05  0.0073
   3.2817E+00   3.3615E+00   9.2376E-05  0.0074
   3.3615E+00   3.4433E+00   8.8296E-05  0.0074
   3.4433E+00   3.5271E+00   8.4136E-05  0.0075
   3.5271E+00   3.6129E+00   8.1516E-05  0.0076
   3.6129E+00   3.7008E+00   7.8694E-05  0.0076
   3.7008E+00   3.7908E+00   7.5044E-05  0.0077
   3.7908E+00   3.8831E+00   7.3404E-05  0.0077
   3.8831E+00   3.9776E+00   7.1021E-05  0.0077
   3.9776E+00   4.0743E+00   6.8977E-05  0.0077
   4.0743E+00   4.1735E+00   6.6421E-05  0.0078
   4.1735E+00   4.2750E+00   6.3557E-05  0.0079
   4.2750E+00   4.3790E+00   6.1180E-05  0.0079
   4.3790E+00   4.4856E+00   5.8694E-05  0.0080
   4.4856E+00   4.5947E+00   5.7425E-05  0.0080
   4.5947E+00   4.7065E+00   5.5202E-05  0.0081
   4.7065E+00   4.8210E+00   5.3196E-05  0.0081
   4.8210E+00   4.9383E+00   5.1334E-05  0.0081
   4.9383E+00   5.0585E+00   4.9510E-05  0.0082
   5.0585E+00   5.1815E+00   4.7286E-05  0.0083
   5.1815E+00   5.3076E+00   4.6412E-05  0.0083
   5.3076E+00   5.4368E+00   4.4766E-05  0.0083
   5.4368E+00   5.5690E+00   4.2194E-05  0.0085
   5.5690E+00   5.7045E+00   4.1394E-05  0.0084
   5.7045E+00   5.8433E+00   3.9876E-05  0.0085
   5.8433E+00   5.9855E+00   3.9103E-05  0.0085
   5.9855E+00   6.1311E+00   3.6771E-05  0.0086
   6.1311E+00   6.2803E+00   3.5868E-05  0.0086
   6.2803E+00   6.4331E+00   3.4987E-05  0.0086
   6.4331E+00   6.5896E+00   3.3563E-05  0.0087
   6.5896E+00   6.7500E+00   3.2384E-05  0.0088
   6.7500E+00   6.9142E+00   3.1063E-05  0.0089
   6.9142E+00   7.0824E+00   3.1192E-05  0.0087
   7.0824E+00   7.2548E+00   2.9755E-05  0.0088
   7.2548E+00   7.4313E+00   2.9076E-05  0.0088
   7.4313E+00   7.6121E+00   2.7727E-05  0.0089
   7.6121E+00   7.7973E+00   2.7525E-05  0.0089
   7.7973E+00   7.9870E+00   2.6329E-05  0.0089
   7.9870E+00   8.1813E+00   2.5659E-05  0.0090
   8.1813E+00   8.3804E+00   2.5537E-05  0.0089
   8.3804E+00   8.5843E+00   2.4991E-05  0.0089
   8.5843E+00   8.7931E+00   2.3700E-05  0.0090
   8.7931E+00   9.0071E+00   2.3243E-05  0.0090
   9.0071E+00   9.2262E+00   2.2969E-05  0.0089
   9.2262E+00   9.4507E+00   2.2859E-05  0.0088
   9.4507E+00   9.6807E+00   2.2389E-05  0.0088
   9.6807E+00   9.9162E+00   2.1748E-05  0.0088
   9.9162E+00   1.0157E+01   2.1758E-05  0.0087
   1.0157E+01   1.0405E+01   2.1260E-05  0.0087
   1.0405E+01   1.0658E+01   2.1019E-05  0.0087
   1.0658E+01   1.0917E+01   2.0791E-05  0.0086
   1.0917E+01   1.1183E+01   2.0418E-05  0.0086
   1.1183E+01   1.1455E+01   2.0278E-05  0.0085
   1.1455E+01   1.1733E+01   2.0409E-05  0.0084
   1.1733E+01   1.2019E+01   2.0232E-05  0.0083
   1.2019E+01   1.2311E+01   2.0034E-05  0.0083
   1.2311E+01   1.2611E+01   2.0063E-05  0.0082
   1.2611E+01   1.2918E+01   1.9798E-05  0.0081
   1.2918E+01   1.3232E+01   2.0027E-05  0.0080
   1.3232E+01   1.3554E+01   1.9712E-05  0.0079
   1.3554E+01   1.3884E+01   2.0013E-05  0.0078
   1.3884E+01   1.4222E+01   1.9633E-05  0.0078
   1.4222E+01   1.4568E+01   1.9517E-05  0.0077
   1.4568E+01   1.4922E+01   1.9784E-05  0.0076
   1.4922E+01   1.5285E+01   2.0180E-05  0.0074
   1.5285E+01   1.5657E+01   1.9958E-05  0.0073
   1.5657E+01   1.6038E+01   2.0015E-05  0.0072
   1.6038E+01   1.6428E+01   2.0387E-05  0.0071
   1.6428E+01   1.6828E+01   2.0161E-05  0.0070
   1.6828E+01   1.7237E+01   2.0823E-05  0.0068
   1.7237E+01   1.7657E+01   2.0884E-05  0.0068
   1.7657E+01   1.8086E+01   2.1223E-05  0.0066
   1.8086E+01   1.8526E+01   2.1238E-05  0.0065
   1.8526E+01   1.8977E+01   2.1588E-05  0.0064
   1.8977E+01   1.9439E+01   2.2013E-05  0.0063
   1.9439E+01   1.9912E+01   2.2142E-05  0.0062
   1.9912E+01   2.0396E+01   2.2407E-05  0.0061
   2.0396E+01   2.0893E+01   2.2936E-05  0.0059
   2.0893E+01   2.1401E+01   2.3579E-05  0.0058
   2.1401E+01   2.1922E+01   2.4159E-05  0.0056
   2.1922E+01   2.2455E+01   2.4566E-05  0.0055
   2.2455E+01   2.3001E+01   2.5317E-05  0.0054
   2.3001E+01   2.3561E+01   2.5696E-05  0.0053
   2.3561E+01   2.4134E+01   2.6675E-05  0.0051
   2.4134E+01   2.4721E+01   2.7361E-05  0.0050
   2.4721E+01   2.5323E+01   2.8260E-05  0.0049
   2.5323E+01   2.5939E+01   2.9210E-05  0.0047
   2.5939E+01   2.6570E+01   3.0586E-05  0.0046
   2.6570E+01   2.7217E+01   3.2042E-05  0.0044
   2.7217E+01   2.7879E+01   3.3475E-05  0.0042
   2.7879E+01   2.8557E+01   3.5229E-05  0.0041
   2.8557E+01   2.9252E+01   3.6907E-05  0.0039
   2.9252E+01   2.9964E+01   3.9180E-05  0.0038
   2.9964E+01   3.0693E+01   4.1502E-05  0.0036
   3.0693E+01   3.1440E+01   4.4147E-05  0.0035
   3.1440E+01   3.2205E+01   4.7272E-05  0.0033
   3.2205E+01   3.2988E+01   5.0418E-05  0.0032
   3.2988E+01   3.3791E+01   5.4112E-05  0.0030
   3.3791E+01   3.4613E+01   5.8479E-05  0.0029
   3.4613E+01   3.5455E+01   6.3250E-05  0.0027
   3.5455E+01   3.6318E+01   6.8350E-05  0.0026
   3.6318E+01   3.7201E+01   7.3909E-05  0.0025
   3.7201E+01   3.8106E+01   7.9966E-05  0.0024
   3.8106E+01   3.9034E+01   8.6422E-05  0.0022
   3.9034E+01   3.9983E+01   9.3453E-05  0.0021
   3.9983E+01   4.0956E+01   1.0052E-04  0.0020
   4.0956E+01   4.1953E+01   1.0828E-04  0.0019
   4.1953E+01   4.2973E+01   1.1627E-04  0.0018
   4.2973E+01   4.4019E+01   1.2361E-04  0.0018
   4.4019E+01   4.5090E+01   1.3085E-04  0.0017
   4.5090E+01   4.6187E+01   1.3807E-04  0.0016
   4.6187E+01   4.7311E+01   1.4461E-04  0.0016
   4.7311E+01   4.8462E+01   1.4946E-04  0.0015
   4.8462E+01   4.9641E+01   1.5343E-04  0.0015
   4.9641E+01   5.0849E+01   1.5591E-04  0.0015
   5.0849E+01   5.2086E+01   1.5637E-04  0.0014
   5.2086E+01   5.3353E+01   1.5586E-04  0.0014
   5.3353E+01   5.4651E+01   1.5316E-04  0.0014
   5.4651E+01   5.5981E+01   1.4898E-04  0.0014
   5.5981E+01   5.7343E+01   1.4349E-04  0.0014
   5.7343E+01   5.8738E+01   1.3645E-04  0.0014
   5.8738E+01   6.0168E+01   1.2788E-04  0.0015
   6.0168E+01   6.1632E+01   1.1897E-04  0.0015
   6.1632E+01   6.3131E+01   1.1018E-04  0.0016
   6.3131E+01   6.4667E+01   1.0036E-04  0.0016
   6.4667E+01   6.6240E+01   9.1129E-05  0.0017
   6.6240E+01   6.7852E+01   8.1788E-05  0.0017
   6.7852E+01   6.9503E+01   7.3066E-05  0.0018
   6.9503E+01   7.1194E+01   6.5348E-05  0.0019
   7.1194E+01   7.2926E+01   5.7676E-05  0.0020
   7.2926E+01   7.4701E+01   5.0819E-05  0.0021
   7.4701E+01   7.6518E+01   4.4630E-05  0.0022
   7.6518E+01   7.8380E+01   3.8994E-05  0.0023
   7.8380E+01   8.0287E+01   3.4176E-05  0.0025
   8.0287E+01   8.2240E+01   2.9725E-05  0.0026
   8.2240E+01   8.4241E+01   2.6062E-05  0.0028
   8.4241E+01   8.6291E+01   2.2515E-05  0.0029
   8.6291E+01   8.8391E+01   1.9594E-05  0.0031
   8.8391E+01   9.0541E+01   1.7220E-05  0.0033
   9.0541E+01   9.2744E+01   1.5136E-05  0.0035
   9.2744E+01   9.5001E+01   1.3283E-05  0.0037
   9.5001E+01   9.7312E+01   1.1817E-05  0.0038
   9.7312E+01   9.9680E+01   1.0685E-05  0.0040
   9.9680E+01   1.0211E+02   9.6191E-06  0.0041
   1.0211E+02   1.0459E+02   8.2222E-06  0.0044
   1.0459E+02   1.0713E+02   6.8831E-06  0.0048
   1.0713E+02   1.0974E+02   5.8199E-06  0.0051
   1.0974E+02   1.1241E+02   4.6829E-06  0.0057
   1.1241E+02   1.1515E+02   3.6264E-06  0.0064
   1.1515E+02   1.1795E+02   2.7372E-06  0.0072
   1.1795E+02   1.2082E+02   1.9202E-06  0.0085
   1.2082E+02   1.2376E+02   9.9484E-07  0.0117
   1.2376E+02   1.2677E+02   1.7495E-07  0.0276
   1.2677E+02   1.2985E+02   0.0000E+00  0.0000
   1.2985E+02   1.3301E+02   0.0000E+00  0.0000
   1.3301E+02   1.3625E+02   0.0000E+00  0.0000
   1.3625E+02   1.3956E+02   0.0000E+00  0.0000
   1.3956E+02   1.4296E+02   0.0000E+00  0.0000
   1.4296E+02   1.4644E+02   0.0000E+00  0.0000
   1.4644E+02   1.5000E+02   0.0000E+00  0.0000

#   sum over                 4.4825E-05
'no. =    1   reg = 104 - 204'
msuc: {\huge [t-cross] in region mesh}
msdr: {\it plotted by \ANGEL \version}
msdl: {\it calculated by \PHITS  3.26}
wt: s(0.7)
\vspace{-3}
  region surface crossing
  area  &=&   1.0000E+00 [cm^2]
e:
 
# Information for Restart Calculation
# This calculation was newly started
# istdev =  2 # 1:Batch variance, 2:History variance
# resc2  = 2.50000000000000000E+09 # Total source weight or Total source weight / maxcas
# resc3  = 2.50000000000000000E+09 # Total history number or Total batch number
# maxcas =   500000000 # History / Batch, only used for istdev=1
# bitrseed = 1100001110001001100010001100011001110101000011000110100101010100 # bit data of rseed
