[ T-Cross ]
    title = [t-cross] in region mesh
     mesh =  reg            # mesh type is region-wise
      reg =    1            # number of crossing regions
      non     r-from    r-to       area
      1       121       221        1.000000    
   e-type =    3            # e-mesh is log given by emin, emax and ne
     emin =  1.0000000E-02  # minimum value of e-mesh points
     emax =   150.0000      # maximum value of e-mesh points
#    edel =  2.4039514E-02  # mesh width of e-mesh points
       ne =    400          # number of e-mesh points
#    data = ( e(i), i = 1, ne + 1 )
#           1.00000E-02  1.02433E-02  1.04925E-02  1.07478E-02  1.10093E-02
#           1.12772E-02  1.15516E-02  1.18326E-02  1.21205E-02  1.24154E-02
#           1.27175E-02  1.30269E-02  1.33439E-02  1.36686E-02  1.40011E-02
#           1.43418E-02  1.46907E-02  1.50482E-02  1.54143E-02  1.57894E-02
#           1.61735E-02  1.65670E-02  1.69701E-02  1.73830E-02  1.78060E-02
#           1.82392E-02  1.86830E-02  1.91375E-02  1.96032E-02  2.00801E-02
#           2.05687E-02  2.10692E-02  2.15818E-02  2.21069E-02  2.26448E-02
#           2.31957E-02  2.37601E-02  2.43382E-02  2.49304E-02  2.55369E-02
#           2.61583E-02  2.67947E-02  2.74467E-02  2.81145E-02  2.87985E-02
#           2.94992E-02  3.02169E-02  3.09521E-02  3.17052E-02  3.24766E-02
#           3.32668E-02  3.40762E-02  3.49053E-02  3.57546E-02  3.66246E-02
#           3.75157E-02  3.84284E-02  3.93634E-02  4.03212E-02  4.13022E-02
#           4.23071E-02  4.33365E-02  4.43909E-02  4.54710E-02  4.65773E-02
#           4.77106E-02  4.88714E-02  5.00605E-02  5.12785E-02  5.25262E-02
#           5.38042E-02  5.51133E-02  5.64542E-02  5.78278E-02  5.92348E-02
#           6.06760E-02  6.21523E-02  6.36645E-02  6.52135E-02  6.68002E-02
#           6.84255E-02  7.00904E-02  7.17957E-02  7.35426E-02  7.53319E-02
#           7.71648E-02  7.90423E-02  8.09655E-02  8.29354E-02  8.49533E-02
#           8.70203E-02  8.91376E-02  9.13064E-02  9.35279E-02  9.58035E-02
#           9.81345E-02  1.00522E-01  1.02968E-01  1.05473E-01  1.08040E-01
#           1.10668E-01  1.13361E-01  1.16119E-01  1.18944E-01  1.21838E-01
#           1.24803E-01  1.27839E-01  1.30950E-01  1.34136E-01  1.37399E-01
#           1.40742E-01  1.44167E-01  1.47675E-01  1.51268E-01  1.54948E-01
#           1.58718E-01  1.62580E-01  1.66535E-01  1.70587E-01  1.74738E-01
#           1.78989E-01  1.83344E-01  1.87805E-01  1.92375E-01  1.97055E-01
#           2.01850E-01  2.06761E-01  2.11792E-01  2.16945E-01  2.22223E-01
#           2.27630E-01  2.33169E-01  2.38842E-01  2.44653E-01  2.50605E-01
#           2.56703E-01  2.62949E-01  2.69346E-01  2.75900E-01  2.82613E-01
#           2.89489E-01  2.96532E-01  3.03747E-01  3.11138E-01  3.18708E-01
#           3.26462E-01  3.34405E-01  3.42542E-01  3.50876E-01  3.59413E-01
#           3.68158E-01  3.77116E-01  3.86291E-01  3.95690E-01  4.05317E-01
#           4.15179E-01  4.25281E-01  4.35628E-01  4.46227E-01  4.57084E-01
#           4.68205E-01  4.79597E-01  4.91266E-01  5.03219E-01  5.15463E-01
#           5.28005E-01  5.40851E-01  5.54011E-01  5.67490E-01  5.81298E-01
#           5.95441E-01  6.09929E-01  6.24769E-01  6.39970E-01  6.55541E-01
#           6.71491E-01  6.87828E-01  7.04564E-01  7.21706E-01  7.39266E-01
#           7.57253E-01  7.75678E-01  7.94551E-01  8.13883E-01  8.33685E-01
#           8.53969E-01  8.74747E-01  8.96030E-01  9.17831E-01  9.40163E-01
#           9.63038E-01  9.86469E-01  1.01047E+00  1.03506E+00  1.06024E+00
#           1.08604E+00  1.11246E+00  1.13953E+00  1.16725E+00  1.19565E+00
#           1.22474E+00  1.25454E+00  1.28507E+00  1.31633E+00  1.34836E+00
#           1.38117E+00  1.41477E+00  1.44920E+00  1.48446E+00  1.52057E+00
#           1.55757E+00  1.59547E+00  1.63429E+00  1.67405E+00  1.71478E+00
#           1.75650E+00  1.79924E+00  1.84302E+00  1.88786E+00  1.93379E+00
#           1.98084E+00  2.02904E+00  2.07841E+00  2.12898E+00  2.18078E+00
#           2.23384E+00  2.28819E+00  2.34386E+00  2.40089E+00  2.45930E+00
#           2.51914E+00  2.58043E+00  2.64322E+00  2.70753E+00  2.77341E+00
#           2.84088E+00  2.91001E+00  2.98081E+00  3.05333E+00  3.12762E+00
#           3.20372E+00  3.28167E+00  3.36152E+00  3.44330E+00  3.52708E+00
#           3.61290E+00  3.70080E+00  3.79085E+00  3.88308E+00  3.97756E+00
#           4.07434E+00  4.17347E+00  4.27501E+00  4.37903E+00  4.48557E+00
#           4.59471E+00  4.70650E+00  4.82102E+00  4.93832E+00  5.05847E+00
#           5.18155E+00  5.30762E+00  5.43676E+00  5.56904E+00  5.70453E+00
#           5.84333E+00  5.98550E+00  6.13114E+00  6.28031E+00  6.43312E+00
#           6.58964E+00  6.74997E+00  6.91420E+00  7.08243E+00  7.25475E+00
#           7.43126E+00  7.61207E+00  7.79728E+00  7.98700E+00  8.18133E+00
#           8.38038E+00  8.58428E+00  8.79315E+00  9.00709E+00  9.22624E+00
#           9.45072E+00  9.68067E+00  9.91620E+00  1.01575E+01  1.04046E+01
#           1.06578E+01  1.09171E+01  1.11827E+01  1.14548E+01  1.17335E+01
#           1.20190E+01  1.23114E+01  1.26109E+01  1.29178E+01  1.32321E+01
#           1.35540E+01  1.38838E+01  1.42216E+01  1.45676E+01  1.49221E+01
#           1.52851E+01  1.56570E+01  1.60380E+01  1.64282E+01  1.68279E+01
#           1.72374E+01  1.76568E+01  1.80864E+01  1.85264E+01  1.89772E+01
#           1.94389E+01  1.99119E+01  2.03963E+01  2.08926E+01  2.14009E+01
#           2.19216E+01  2.24550E+01  2.30014E+01  2.35610E+01  2.41343E+01
#           2.47215E+01  2.53230E+01  2.59391E+01  2.65702E+01  2.72167E+01
#           2.78789E+01  2.85572E+01  2.92520E+01  2.99637E+01  3.06928E+01
#           3.14396E+01  3.22045E+01  3.29881E+01  3.37907E+01  3.46128E+01
#           3.54550E+01  3.63177E+01  3.72013E+01  3.81064E+01  3.90336E+01
#           3.99833E+01  4.09561E+01  4.19526E+01  4.29734E+01  4.40189E+01
#           4.50900E+01  4.61870E+01  4.73108E+01  4.84619E+01  4.96410E+01
#           5.08488E+01  5.20860E+01  5.33533E+01  5.46514E+01  5.59812E+01
#           5.73432E+01  5.87384E+01  6.01676E+01  6.16315E+01  6.31311E+01
#           6.46671E+01  6.62405E+01  6.78522E+01  6.95031E+01  7.11941E+01
#           7.29263E+01  7.47007E+01  7.65182E+01  7.83800E+01  8.02870E+01
#           8.22405E+01  8.42414E+01  8.62911E+01  8.83906E+01  9.05412E+01
#           9.27442E+01  9.50007E+01  9.73122E+01  9.96799E+01  1.02105E+02
#           1.04589E+02  1.07134E+02  1.09741E+02  1.12411E+02  1.15146E+02
#           1.17948E+02  1.20817E+02  1.23757E+02  1.26768E+02  1.29852E+02
#           1.33012E+02  1.36248E+02  1.39563E+02  1.42959E+02  1.46437E+02
#           1.50000E+02
     unit =    2            # unit is [1/cm^2/(MeV/n)/source]
     axis =  eng            # axis of output
     file = detector-22.out  # file name of output for the above axis
   output = f-curr          # surface crossing forward current spectrum
     part =  neutron  
# kf/name :  2112     
#    used :        main (  %)        temp (  %)       total (  %)
#  memory :         414 (  0)           0 (  0)         414 (  0)

#------------------------------------------------------------------------------
#newpage:
#   no. =    1   reg = 121 - 221

x: Energy [MeV/n]
y:  F-Curr [1/cm^2/(MeV/n)/source]         
p: xlog ylog afac(0.8) form(0.9)
h: n            x            y(neutron ),hh0l   n 
#  e-lower      e-upper      neutron     r.err 
   1.0000E-02   1.0243E-02   1.8807E-04  0.0660
   1.0243E-02   1.0493E-02   1.9468E-04  0.0642
   1.0493E-02   1.0748E-02   1.8715E-04  0.0646
   1.0748E-02   1.1009E-02   1.6093E-04  0.0688
   1.1009E-02   1.1277E-02   1.8032E-04  0.0641
   1.1277E-02   1.1552E-02   1.7289E-04  0.0648
   1.1552E-02   1.1833E-02   1.7672E-04  0.0634
   1.1833E-02   1.2121E-02   1.8663E-04  0.0609
   1.2121E-02   1.2415E-02   1.7766E-04  0.0617
   1.2415E-02   1.2718E-02   1.5673E-04  0.0650
   1.2718E-02   1.3027E-02   1.4555E-04  0.0665
   1.3027E-02   1.3344E-02   1.4277E-04  0.0664
   1.3344E-02   1.3669E-02   1.5270E-04  0.0634
   1.3669E-02   1.4001E-02   1.3864E-04  0.0657
   1.4001E-02   1.4342E-02   1.4348E-04  0.0639
   1.4342E-02   1.4691E-02   1.3913E-04  0.0640
   1.4691E-02   1.5048E-02   1.3758E-04  0.0636
   1.5048E-02   1.5414E-02   1.2912E-04  0.0650
   1.5414E-02   1.5789E-02   1.3474E-04  0.0628
   1.5789E-02   1.6174E-02   1.2265E-04  0.0650
   1.6174E-02   1.6567E-02   1.1935E-04  0.0652
   1.6567E-02   1.6970E-02   1.1618E-04  0.0652
   1.6970E-02   1.7383E-02   1.1670E-04  0.0644
   1.7383E-02   1.7806E-02   1.1383E-04  0.0643
   1.7806E-02   1.8239E-02   1.0943E-04  0.0648
   1.8239E-02   1.8683E-02   1.0839E-04  0.0644
   1.8683E-02   1.9138E-02   1.0905E-04  0.0634
   1.9138E-02   1.9603E-02   1.1335E-04  0.0615
   1.9603E-02   2.0080E-02   9.7291E-05  0.0655
   2.0080E-02   2.0569E-02   1.0073E-04  0.0636
   2.0569E-02   2.1069E-02   1.0527E-04  0.0616
   2.1069E-02   2.1582E-02   1.0049E-04  0.0623
   2.1582E-02   2.2107E-02   1.0210E-04  0.0610
   2.2107E-02   2.2645E-02   1.0559E-04  0.0593
   2.2645E-02   2.3196E-02   8.9066E-05  0.0637
   2.3196E-02   2.3760E-02   9.4441E-05  0.0612
   2.3760E-02   2.4338E-02   8.9003E-05  0.0623
   2.4338E-02   2.4930E-02   9.3744E-05  0.0599
   2.4930E-02   2.5537E-02   8.9327E-05  0.0607
   2.5537E-02   2.6158E-02   7.6095E-05  0.0649
   2.6158E-02   2.6795E-02   8.8872E-05  0.0594
   2.6795E-02   2.7447E-02   7.8087E-05  0.0626
   2.7447E-02   2.8114E-02   8.2109E-05  0.0603
   2.8114E-02   2.8799E-02   7.8724E-05  0.0609
   2.8799E-02   2.9499E-02   7.6462E-05  0.0610
   2.9499E-02   3.0217E-02   6.3149E-05  0.0663
   3.0217E-02   3.0952E-02   6.6291E-05  0.0640
   3.0952E-02   3.1705E-02   6.6862E-05  0.0628
   3.1705E-02   3.2477E-02   6.8223E-05  0.0615
   3.2477E-02   3.3267E-02   6.4033E-05  0.0627
   3.3267E-02   3.4076E-02   6.5405E-05  0.0614
   3.4076E-02   3.4905E-02   6.3277E-05  0.0617
   3.4905E-02   3.5755E-02   6.1692E-05  0.0617
   3.5755E-02   3.6625E-02   5.9988E-05  0.0618
   3.6625E-02   3.7516E-02   6.1152E-05  0.0605
   3.7516E-02   3.8428E-02   5.8587E-05  0.0611
   3.8428E-02   3.9363E-02   5.1505E-05  0.0643
   3.9363E-02   4.0321E-02   5.5997E-05  0.0610
   4.0321E-02   4.1302E-02   5.4924E-05  0.0608
   4.1302E-02   4.2307E-02   5.3505E-05  0.0609
   4.2307E-02   4.3337E-02   5.3933E-05  0.0600
   4.3337E-02   4.4391E-02   5.0771E-05  0.0611
   4.4391E-02   4.5471E-02   4.3561E-05  0.0651
   4.5471E-02   4.6577E-02   5.5357E-05  0.0570
   4.6577E-02   4.7711E-02   4.6662E-05  0.0614
   4.7711E-02   4.8871E-02   5.0998E-05  0.0580
   4.8871E-02   5.0061E-02   4.6980E-05  0.0597
   5.0061E-02   5.1279E-02   4.4574E-05  0.0606
   5.1279E-02   5.2526E-02   3.9780E-05  0.0634
   5.2526E-02   5.3804E-02   3.9529E-05  0.0628
   5.3804E-02   5.5113E-02   4.3020E-05  0.0595
   5.5113E-02   5.6454E-02   4.0954E-05  0.0603
   5.6454E-02   5.7828E-02   3.7446E-05  0.0623
   5.7828E-02   5.9235E-02   3.8521E-05  0.0606
   5.9235E-02   6.0676E-02   3.9304E-05  0.0594
   6.0676E-02   6.2152E-02   3.8193E-05  0.0595
   6.2152E-02   6.3665E-02   3.3264E-05  0.0630
   6.3665E-02   6.5214E-02   3.3223E-05  0.0623
   6.5214E-02   6.6800E-02   3.3175E-05  0.0616
   6.6800E-02   6.8426E-02   3.6219E-05  0.0582
   6.8426E-02   7.0090E-02   3.2578E-05  0.0606
   7.0090E-02   7.1796E-02   2.9019E-05  0.0634
   7.1796E-02   7.3543E-02   3.2117E-05  0.0596
   7.3543E-02   7.5332E-02   2.9652E-05  0.0613
   7.5332E-02   7.7165E-02   2.8910E-05  0.0613
   7.7165E-02   7.9042E-02   3.2791E-05  0.0568
   7.9042E-02   8.0965E-02   2.9128E-05  0.0597
   8.0965E-02   8.2935E-02   2.6740E-05  0.0615
   8.2935E-02   8.4953E-02   2.6293E-05  0.0613
   8.4953E-02   8.7020E-02   2.6995E-05  0.0598
   8.7020E-02   8.9138E-02   2.4235E-05  0.0624
   8.9138E-02   9.1306E-02   2.6293E-05  0.0591
   9.1306E-02   9.3528E-02   2.5010E-05  0.0599
   9.3528E-02   9.5804E-02   2.7777E-05  0.0562
   9.5804E-02   9.8134E-02   2.4548E-05  0.0590
   9.8134E-02   1.0052E-01   2.1504E-05  0.0623
   1.0052E-01   1.0297E-01   2.3664E-05  0.0587
   1.0297E-01   1.0547E-01   2.7781E-05  0.0535
   1.0547E-01   1.0804E-01   2.6985E-05  0.0537
   1.0804E-01   1.1067E-01   3.1507E-05  0.0491
   1.1067E-01   1.1336E-01   2.7479E-05  0.0519
   1.1336E-01   1.1612E-01   2.9985E-05  0.0491
   1.1612E-01   1.1894E-01   2.9594E-05  0.0488
   1.1894E-01   1.2184E-01   3.2121E-05  0.0463
   1.2184E-01   1.2480E-01   3.0669E-05  0.0468
   1.2480E-01   1.2784E-01   3.3696E-05  0.0441
   1.2784E-01   1.3095E-01   3.2426E-05  0.0444
   1.3095E-01   1.3414E-01   3.3613E-05  0.0431
   1.3414E-01   1.3740E-01   3.2909E-05  0.0431
   1.3740E-01   1.4074E-01   3.7969E-05  0.0396
   1.4074E-01   1.4417E-01   3.8400E-05  0.0389
   1.4417E-01   1.4767E-01   4.0404E-05  0.0375
   1.4767E-01   1.5127E-01   3.6857E-05  0.0388
   1.5127E-01   1.5495E-01   3.9685E-05  0.0369
   1.5495E-01   1.5872E-01   4.3935E-05  0.0347
   1.5872E-01   1.6258E-01   4.1408E-05  0.0353
   1.6258E-01   1.6654E-01   4.6524E-05  0.0329
   1.6654E-01   1.7059E-01   4.5819E-05  0.0327
   1.7059E-01   1.7474E-01   4.7670E-05  0.0317
   1.7474E-01   1.7899E-01   4.7655E-05  0.0313
   1.7899E-01   1.8334E-01   5.0215E-05  0.0302
   1.8334E-01   1.8781E-01   4.9625E-05  0.0300
   1.8781E-01   1.9237E-01   5.1124E-05  0.0292
   1.9237E-01   1.9706E-01   5.3176E-05  0.0283
   1.9706E-01   2.0185E-01   5.4655E-05  0.0276
   2.0185E-01   2.0676E-01   5.7496E-05  0.0266
   2.0676E-01   2.1179E-01   5.6437E-05  0.0265
   2.1179E-01   2.1694E-01   5.5673E-05  0.0263
   2.1694E-01   2.2222E-01   5.7591E-05  0.0256
   2.2222E-01   2.2763E-01   5.5148E-05  0.0258
   2.2763E-01   2.3317E-01   5.9151E-05  0.0246
   2.3317E-01   2.3884E-01   6.1417E-05  0.0239
   2.3884E-01   2.4465E-01   6.3876E-05  0.0232
   2.4465E-01   2.5061E-01   6.4188E-05  0.0228
   2.5061E-01   2.5670E-01   6.4617E-05  0.0225
   2.5670E-01   2.6295E-01   6.3856E-05  0.0223
   2.6295E-01   2.6935E-01   6.5230E-05  0.0218
   2.6935E-01   2.7590E-01   6.6392E-05  0.0214
   2.7590E-01   2.8261E-01   7.1189E-05  0.0204
   2.8261E-01   2.8949E-01   7.0437E-05  0.0203
   2.8949E-01   2.9653E-01   6.9709E-05  0.0201
   2.9653E-01   3.0375E-01   7.1714E-05  0.0196
   3.0375E-01   3.1114E-01   7.2481E-05  0.0193
   3.1114E-01   3.1871E-01   7.4216E-05  0.0188
   3.1871E-01   3.2646E-01   7.2593E-05  0.0188
   3.2646E-01   3.3441E-01   7.2784E-05  0.0185
   3.3441E-01   3.4254E-01   7.4604E-05  0.0181
   3.4254E-01   3.5088E-01   7.5582E-05  0.0178
   3.5088E-01   3.5941E-01   7.7863E-05  0.0173
   3.5941E-01   3.6816E-01   7.8304E-05  0.0170
   3.6816E-01   3.7712E-01   8.2568E-05  0.0164
   3.7712E-01   3.8629E-01   7.9514E-05  0.0165
   3.8629E-01   3.9569E-01   7.9256E-05  0.0163
   3.9569E-01   4.0532E-01   8.1912E-05  0.0159
   4.0532E-01   4.1518E-01   8.2769E-05  0.0156
   4.1518E-01   4.2528E-01   8.4264E-05  0.0153
   4.2528E-01   4.3563E-01   8.4319E-05  0.0151
   4.3563E-01   4.4623E-01   8.5722E-05  0.0148
   4.4623E-01   4.5708E-01   8.5965E-05  0.0146
   4.5708E-01   4.6821E-01   8.5087E-05  0.0145
   4.6821E-01   4.7960E-01   8.5223E-05  0.0143
   4.7960E-01   4.9127E-01   8.3959E-05  0.0142
   4.9127E-01   5.0322E-01   8.5261E-05  0.0139
   5.0322E-01   5.1546E-01   8.6263E-05  0.0137
   5.1546E-01   5.2800E-01   8.4847E-05  0.0137
   5.2800E-01   5.4085E-01   8.7114E-05  0.0133
   5.4085E-01   5.5401E-01   8.8271E-05  0.0131
   5.5401E-01   5.6749E-01   8.7620E-05  0.0130
   5.6749E-01   5.8130E-01   8.8699E-05  0.0127
   5.8130E-01   5.9544E-01   8.7324E-05  0.0127
   5.9544E-01   6.0993E-01   8.7664E-05  0.0125
   6.0993E-01   6.2477E-01   8.8476E-05  0.0123
   6.2477E-01   6.3997E-01   8.6632E-05  0.0123
   6.3997E-01   6.5554E-01   8.5466E-05  0.0122
   6.5554E-01   6.7149E-01   8.8713E-05  0.0118
   6.7149E-01   6.8783E-01   8.5496E-05  0.0119
   6.8783E-01   7.0456E-01   8.5984E-05  0.0117
   7.0456E-01   7.2171E-01   8.4791E-05  0.0117
   7.2171E-01   7.3927E-01   8.5003E-05  0.0115
   7.3927E-01   7.5725E-01   8.2574E-05  0.0115
   7.5725E-01   7.7568E-01   8.1600E-05  0.0115
   7.7568E-01   7.9455E-01   8.1333E-05  0.0113
   7.9455E-01   8.1388E-01   8.0896E-05  0.0112
   8.1388E-01   8.3368E-01   7.8329E-05  0.0113
   8.3368E-01   8.5397E-01   7.7195E-05  0.0112
   8.5397E-01   8.7475E-01   7.4144E-05  0.0113
   8.7475E-01   8.9603E-01   7.2434E-05  0.0113
   8.9603E-01   9.1783E-01   7.0765E-05  0.0113
   9.1783E-01   9.4016E-01   7.1197E-05  0.0111
   9.4016E-01   9.6304E-01   6.6923E-05  0.0113
   9.6304E-01   9.8647E-01   6.4244E-05  0.0114
   9.8647E-01   1.0105E+00   5.9923E-05  0.0117
   1.0105E+00   1.0351E+00   5.8664E-05  0.0117
   1.0351E+00   1.0602E+00   5.7920E-05  0.0116
   1.0602E+00   1.0860E+00   5.6485E-05  0.0116
   1.0860E+00   1.1125E+00   5.8675E-05  0.0113
   1.1125E+00   1.1395E+00   5.8479E-05  0.0111
   1.1395E+00   1.1673E+00   5.7868E-05  0.0111
   1.1673E+00   1.1957E+00   5.6162E-05  0.0111
   1.1957E+00   1.2247E+00   5.5679E-05  0.0110
   1.2247E+00   1.2545E+00   5.5514E-05  0.0109
   1.2545E+00   1.2851E+00   5.5090E-05  0.0108
   1.2851E+00   1.3163E+00   5.4106E-05  0.0107
   1.3163E+00   1.3484E+00   5.3090E-05  0.0107
   1.3484E+00   1.3812E+00   5.2927E-05  0.0106
   1.3812E+00   1.4148E+00   5.1026E-05  0.0106
   1.4148E+00   1.4492E+00   5.0639E-05  0.0105
   1.4492E+00   1.4845E+00   4.8479E-05  0.0106
   1.4845E+00   1.5206E+00   4.7857E-05  0.0106
   1.5206E+00   1.5576E+00   4.6551E-05  0.0106
   1.5576E+00   1.5955E+00   4.5431E-05  0.0106
   1.5955E+00   1.6343E+00   4.4751E-05  0.0105
   1.6343E+00   1.6741E+00   4.2660E-05  0.0106
   1.6741E+00   1.7148E+00   4.1822E-05  0.0106
   1.7148E+00   1.7565E+00   4.0596E-05  0.0106
   1.7565E+00   1.7992E+00   3.8523E-05  0.0107
   1.7992E+00   1.8430E+00   3.7734E-05  0.0107
   1.8430E+00   1.8879E+00   3.6137E-05  0.0108
   1.8879E+00   1.9338E+00   3.5647E-05  0.0108
   1.9338E+00   1.9808E+00   3.3990E-05  0.0109
   1.9808E+00   2.0290E+00   3.3591E-05  0.0108
   2.0290E+00   2.0784E+00   3.2577E-05  0.0108
   2.0784E+00   2.1290E+00   3.2827E-05  0.0107
   2.1290E+00   2.1808E+00   3.1681E-05  0.0107
   2.1808E+00   2.2338E+00   3.1421E-05  0.0106
   2.2338E+00   2.2882E+00   3.0194E-05  0.0107
   2.2882E+00   2.3439E+00   3.0272E-05  0.0106
   2.3439E+00   2.4009E+00   2.8987E-05  0.0107
   2.4009E+00   2.4593E+00   2.8409E-05  0.0107
   2.4593E+00   2.5191E+00   2.7977E-05  0.0106
   2.5191E+00   2.5804E+00   2.6721E-05  0.0108
   2.5804E+00   2.6432E+00   2.6148E-05  0.0107
   2.6432E+00   2.7075E+00   2.5275E-05  0.0108
   2.7075E+00   2.7734E+00   2.5163E-05  0.0107
   2.7734E+00   2.8409E+00   2.3937E-05  0.0109
   2.8409E+00   2.9100E+00   2.3264E-05  0.0109
   2.9100E+00   2.9808E+00   2.2400E-05  0.0110
   2.9808E+00   3.0533E+00   2.2146E-05  0.0109
   3.0533E+00   3.1276E+00   2.1504E-05  0.0109
   3.1276E+00   3.2037E+00   2.0793E-05  0.0110
   3.2037E+00   3.2817E+00   2.0910E-05  0.0108
   3.2817E+00   3.3615E+00   1.9460E-05  0.0111
   3.3615E+00   3.4433E+00   1.9117E-05  0.0111
   3.4433E+00   3.5271E+00   1.8562E-05  0.0111
   3.5271E+00   3.6129E+00   1.8552E-05  0.0110
   3.6129E+00   3.7008E+00   1.7687E-05  0.0111
   3.7008E+00   3.7908E+00   1.6942E-05  0.0112
   3.7908E+00   3.8831E+00   1.6753E-05  0.0112
   3.8831E+00   3.9776E+00   1.6050E-05  0.0113
   3.9776E+00   4.0743E+00   1.5530E-05  0.0113
   4.0743E+00   4.1735E+00   1.4876E-05  0.0114
   4.1735E+00   4.2750E+00   1.4316E-05  0.0115
   4.2750E+00   4.3790E+00   1.4049E-05  0.0115
   4.3790E+00   4.4856E+00   1.3509E-05  0.0116
   4.4856E+00   4.5947E+00   1.2899E-05  0.0117
   4.5947E+00   4.7065E+00   1.2347E-05  0.0118
   4.7065E+00   4.8210E+00   1.2004E-05  0.0118
   4.8210E+00   4.9383E+00   1.1352E-05  0.0120
   4.9383E+00   5.0585E+00   1.0990E-05  0.0121
   5.0585E+00   5.1815E+00   1.0441E-05  0.0123
   5.1815E+00   5.3076E+00   1.0206E-05  0.0122
   5.3076E+00   5.4368E+00   9.8181E-06  0.0123
   5.4368E+00   5.5690E+00   9.1637E-06  0.0126
   5.5690E+00   5.7045E+00   8.9376E-06  0.0126
   5.7045E+00   5.8433E+00   8.3407E-06  0.0129
   5.8433E+00   5.9855E+00   7.9087E-06  0.0131
   5.9855E+00   6.1311E+00   7.5579E-06  0.0133
   6.1311E+00   6.2803E+00   7.0263E-06  0.0136
   6.2803E+00   6.4331E+00   6.8279E-06  0.0137
   6.4331E+00   6.5896E+00   6.1449E-06  0.0142
   6.5896E+00   6.7500E+00   5.7325E-06  0.0146
   6.7500E+00   6.9142E+00   5.3787E-06  0.0149
   6.9142E+00   7.0824E+00   4.7595E-06  0.0156
   7.0824E+00   7.2548E+00   4.4505E-06  0.0159
   7.2548E+00   7.4313E+00   4.0569E-06  0.0165
   7.4313E+00   7.6121E+00   3.6849E-06  0.0171
   7.6121E+00   7.7973E+00   3.4758E-06  0.0174
   7.7973E+00   7.9870E+00   3.3511E-06  0.0175
   7.9870E+00   8.1813E+00   3.1504E-06  0.0179
   8.1813E+00   8.3804E+00   2.8288E-06  0.0186
   8.3804E+00   8.5843E+00   2.6820E-06  0.0189
   8.5843E+00   8.7931E+00   2.4833E-06  0.0194
   8.7931E+00   9.0071E+00   2.3006E-06  0.0200
   9.0071E+00   9.2262E+00   2.0523E-06  0.0209
   9.2262E+00   9.4507E+00   1.9296E-06  0.0213
   9.4507E+00   9.6807E+00   1.7855E-06  0.0219
   9.6807E+00   9.9162E+00   1.6357E-06  0.0226
   9.9162E+00   1.0157E+01   1.6133E-06  0.0225
   1.0157E+01   1.0405E+01   1.3987E-06  0.0239
   1.0405E+01   1.0658E+01   1.3590E-06  0.0240
   1.0658E+01   1.0917E+01   1.2276E-06  0.0249
   1.0917E+01   1.1183E+01   1.1500E-06  0.0254
   1.1183E+01   1.1455E+01   1.0388E-06  0.0264
   1.1455E+01   1.1733E+01   9.5523E-07  0.0273
   1.1733E+01   1.2019E+01   8.9932E-07  0.0278
   1.2019E+01   1.2311E+01   8.2486E-07  0.0286
   1.2311E+01   1.2611E+01   7.5797E-07  0.0295
   1.2611E+01   1.2918E+01   6.6434E-07  0.0312
   1.2918E+01   1.3232E+01   6.3652E-07  0.0315
   1.3232E+01   1.3554E+01   5.7959E-07  0.0326
   1.3554E+01   1.3884E+01   5.1300E-07  0.0342
   1.3884E+01   1.4222E+01   4.9826E-07  0.0343
   1.4222E+01   1.4568E+01   4.6076E-07  0.0353
   1.4568E+01   1.4922E+01   4.2479E-07  0.0363
   1.4922E+01   1.5285E+01   3.7008E-07  0.0385
   1.5285E+01   1.5657E+01   3.3387E-07  0.0400
   1.5657E+01   1.6038E+01   3.1580E-07  0.0406
   1.6038E+01   1.6428E+01   2.9829E-07  0.0414
   1.6428E+01   1.6828E+01   2.5465E-07  0.0442
   1.6828E+01   1.7237E+01   2.2229E-07  0.0468
   1.7237E+01   1.7657E+01   1.9981E-07  0.0489
   1.7657E+01   1.8086E+01   1.8715E-07  0.0499
   1.8086E+01   1.8526E+01   1.6543E-07  0.0524
   1.8526E+01   1.8977E+01   1.2911E-07  0.0586
   1.8977E+01   1.9439E+01   1.2518E-07  0.0588
   1.9439E+01   1.9912E+01   1.1798E-07  0.0599
   1.9912E+01   2.0396E+01   1.0940E-07  0.0614
   2.0396E+01   2.0893E+01   8.6245E-08  0.0684
   2.0893E+01   2.1401E+01   7.7902E-08  0.0711
   2.1401E+01   2.1922E+01   6.8753E-08  0.0747
   2.1922E+01   2.2455E+01   5.1371E-08  0.0854
   2.2455E+01   2.3001E+01   5.1249E-08  0.0845
   2.3001E+01   2.3561E+01   4.6816E-08  0.0874
   2.3561E+01   2.4134E+01   3.8726E-08  0.0949
   2.4134E+01   2.4721E+01   2.8269E-08  0.1098
   2.4721E+01   2.5323E+01   2.8263E-08  0.1085
   2.5323E+01   2.5939E+01   2.0775E-08  0.1250
   2.5939E+01   2.6570E+01   1.5528E-08  0.1429
   2.6570E+01   2.7217E+01   1.2065E-08  0.1601
   2.7217E+01   2.7879E+01   8.7586E-09  0.1857
   2.7879E+01   2.8557E+01   7.3712E-09  0.2000
   2.8557E+01   2.9252E+01   2.8784E-09  0.3162
   2.9252E+01   2.9964E+01   2.8101E-09  0.3162
   2.9964E+01   3.0693E+01   1.6460E-09  0.4082
   3.0693E+01   3.1440E+01   1.8747E-09  0.3780
   3.1440E+01   3.2205E+01   1.5687E-09  0.4082
   3.2205E+01   3.2988E+01   1.7867E-09  0.3780
   3.2988E+01   3.3791E+01   1.4951E-09  0.4082
   3.3791E+01   3.4613E+01   4.8653E-10  0.7071
   3.4613E+01   3.5455E+01   0.0000E+00  0.0000
   3.5455E+01   3.6318E+01   4.6369E-10  0.7071
   3.6318E+01   3.7201E+01   2.2634E-10  1.0000
   3.7201E+01   3.8106E+01   0.0000E+00  0.0000
   3.8106E+01   3.9034E+01   2.1571E-10  1.0000
   3.9034E+01   3.9983E+01   2.1059E-10  1.0000
   3.9983E+01   4.0956E+01   0.0000E+00  0.0000
   4.0956E+01   4.1953E+01   0.0000E+00  0.0000
   4.1953E+01   4.2973E+01   0.0000E+00  0.0000
   4.2973E+01   4.4019E+01   0.0000E+00  0.0000
   4.4019E+01   4.5090E+01   0.0000E+00  0.0000
   4.5090E+01   4.6187E+01   0.0000E+00  0.0000
   4.6187E+01   4.7311E+01   0.0000E+00  0.0000
   4.7311E+01   4.8462E+01   0.0000E+00  0.0000
   4.8462E+01   4.9641E+01   0.0000E+00  0.0000
   4.9641E+01   5.0849E+01   0.0000E+00  0.0000
   5.0849E+01   5.2086E+01   0.0000E+00  0.0000
   5.2086E+01   5.3353E+01   0.0000E+00  0.0000
   5.3353E+01   5.4651E+01   0.0000E+00  0.0000
   5.4651E+01   5.5981E+01   0.0000E+00  0.0000
   5.5981E+01   5.7343E+01   0.0000E+00  0.0000
   5.7343E+01   5.8738E+01   0.0000E+00  0.0000
   5.8738E+01   6.0168E+01   0.0000E+00  0.0000
   6.0168E+01   6.1632E+01   0.0000E+00  0.0000
   6.1632E+01   6.3131E+01   0.0000E+00  0.0000
   6.3131E+01   6.4667E+01   0.0000E+00  0.0000
   6.4667E+01   6.6240E+01   0.0000E+00  0.0000
   6.6240E+01   6.7852E+01   0.0000E+00  0.0000
   6.7852E+01   6.9503E+01   0.0000E+00  0.0000
   6.9503E+01   7.1194E+01   0.0000E+00  0.0000
   7.1194E+01   7.2926E+01   0.0000E+00  0.0000
   7.2926E+01   7.4701E+01   0.0000E+00  0.0000
   7.4701E+01   7.6518E+01   0.0000E+00  0.0000
   7.6518E+01   7.8380E+01   0.0000E+00  0.0000
   7.8380E+01   8.0287E+01   0.0000E+00  0.0000
   8.0287E+01   8.2240E+01   0.0000E+00  0.0000
   8.2240E+01   8.4241E+01   0.0000E+00  0.0000
   8.4241E+01   8.6291E+01   0.0000E+00  0.0000
   8.6291E+01   8.8391E+01   0.0000E+00  0.0000
   8.8391E+01   9.0541E+01   0.0000E+00  0.0000
   9.0541E+01   9.2744E+01   0.0000E+00  0.0000
   9.2744E+01   9.5001E+01   0.0000E+00  0.0000
   9.5001E+01   9.7312E+01   0.0000E+00  0.0000
   9.7312E+01   9.9680E+01   0.0000E+00  0.0000
   9.9680E+01   1.0211E+02   0.0000E+00  0.0000
   1.0211E+02   1.0459E+02   0.0000E+00  0.0000
   1.0459E+02   1.0713E+02   0.0000E+00  0.0000
   1.0713E+02   1.0974E+02   0.0000E+00  0.0000
   1.0974E+02   1.1241E+02   0.0000E+00  0.0000
   1.1241E+02   1.1515E+02   0.0000E+00  0.0000
   1.1515E+02   1.1795E+02   0.0000E+00  0.0000
   1.1795E+02   1.2082E+02   0.0000E+00  0.0000
   1.2082E+02   1.2376E+02   0.0000E+00  0.0000
   1.2376E+02   1.2677E+02   0.0000E+00  0.0000
   1.2677E+02   1.2985E+02   0.0000E+00  0.0000
   1.2985E+02   1.3301E+02   0.0000E+00  0.0000
   1.3301E+02   1.3625E+02   0.0000E+00  0.0000
   1.3625E+02   1.3956E+02   0.0000E+00  0.0000
   1.3956E+02   1.4296E+02   0.0000E+00  0.0000
   1.4296E+02   1.4644E+02   0.0000E+00  0.0000
   1.4644E+02   1.5000E+02   0.0000E+00  0.0000

#   sum over                 1.3855E-06
'no. =    1   reg = 121 - 221'
msuc: {\huge [t-cross] in region mesh}
msdr: {\it plotted by \ANGEL \version}
msdl: {\it calculated by \PHITS  3.26}
wt: s(0.7)
\vspace{-3}
  region surface crossing
  area  &=&   1.0000E+00 [cm^2]
e:
 
# Information for Restart Calculation
# This calculation was newly started
# istdev =  2 # 1:Batch variance, 2:History variance
# resc2  = 5.00000000000000000E+09 # Total source weight or Total source weight / maxcas
# resc3  = 5.00000000000000000E+09 # Total history number or Total batch number
# maxcas =   100000000 # History / Batch, only used for istdev=1
# bitrseed = 0110100000100010111000001110001111001110100100011111101000111001 # bit data of rseed
