[ T-Cross ]
    title = [t-cross] in region mesh
     mesh =  reg            # mesh type is region-wise
      reg =    1            # number of crossing regions
      non     r-from    r-to       area
      1       111       211        1.000000    
   e-type =    3            # e-mesh is log given by emin, emax and ne
     emin =  1.0000000E-02  # minimum value of e-mesh points
     emax =   150.0000      # maximum value of e-mesh points
#    edel =  2.4039514E-02  # mesh width of e-mesh points
       ne =    400          # number of e-mesh points
#    data = ( e(i), i = 1, ne + 1 )
#           1.00000E-02  1.02433E-02  1.04925E-02  1.07478E-02  1.10093E-02
#           1.12772E-02  1.15516E-02  1.18326E-02  1.21205E-02  1.24154E-02
#           1.27175E-02  1.30269E-02  1.33439E-02  1.36686E-02  1.40011E-02
#           1.43418E-02  1.46907E-02  1.50482E-02  1.54143E-02  1.57894E-02
#           1.61735E-02  1.65670E-02  1.69701E-02  1.73830E-02  1.78060E-02
#           1.82392E-02  1.86830E-02  1.91375E-02  1.96032E-02  2.00801E-02
#           2.05687E-02  2.10692E-02  2.15818E-02  2.21069E-02  2.26448E-02
#           2.31957E-02  2.37601E-02  2.43382E-02  2.49304E-02  2.55369E-02
#           2.61583E-02  2.67947E-02  2.74467E-02  2.81145E-02  2.87985E-02
#           2.94992E-02  3.02169E-02  3.09521E-02  3.17052E-02  3.24766E-02
#           3.32668E-02  3.40762E-02  3.49053E-02  3.57546E-02  3.66246E-02
#           3.75157E-02  3.84284E-02  3.93634E-02  4.03212E-02  4.13022E-02
#           4.23071E-02  4.33365E-02  4.43909E-02  4.54710E-02  4.65773E-02
#           4.77106E-02  4.88714E-02  5.00605E-02  5.12785E-02  5.25262E-02
#           5.38042E-02  5.51133E-02  5.64542E-02  5.78278E-02  5.92348E-02
#           6.06760E-02  6.21523E-02  6.36645E-02  6.52135E-02  6.68002E-02
#           6.84255E-02  7.00904E-02  7.17957E-02  7.35426E-02  7.53319E-02
#           7.71648E-02  7.90423E-02  8.09655E-02  8.29354E-02  8.49533E-02
#           8.70203E-02  8.91376E-02  9.13064E-02  9.35279E-02  9.58035E-02
#           9.81345E-02  1.00522E-01  1.02968E-01  1.05473E-01  1.08040E-01
#           1.10668E-01  1.13361E-01  1.16119E-01  1.18944E-01  1.21838E-01
#           1.24803E-01  1.27839E-01  1.30950E-01  1.34136E-01  1.37399E-01
#           1.40742E-01  1.44167E-01  1.47675E-01  1.51268E-01  1.54948E-01
#           1.58718E-01  1.62580E-01  1.66535E-01  1.70587E-01  1.74738E-01
#           1.78989E-01  1.83344E-01  1.87805E-01  1.92375E-01  1.97055E-01
#           2.01850E-01  2.06761E-01  2.11792E-01  2.16945E-01  2.22223E-01
#           2.27630E-01  2.33169E-01  2.38842E-01  2.44653E-01  2.50605E-01
#           2.56703E-01  2.62949E-01  2.69346E-01  2.75900E-01  2.82613E-01
#           2.89489E-01  2.96532E-01  3.03747E-01  3.11138E-01  3.18708E-01
#           3.26462E-01  3.34405E-01  3.42542E-01  3.50876E-01  3.59413E-01
#           3.68158E-01  3.77116E-01  3.86291E-01  3.95690E-01  4.05317E-01
#           4.15179E-01  4.25281E-01  4.35628E-01  4.46227E-01  4.57084E-01
#           4.68205E-01  4.79597E-01  4.91266E-01  5.03219E-01  5.15463E-01
#           5.28005E-01  5.40851E-01  5.54011E-01  5.67490E-01  5.81298E-01
#           5.95441E-01  6.09929E-01  6.24769E-01  6.39970E-01  6.55541E-01
#           6.71491E-01  6.87828E-01  7.04564E-01  7.21706E-01  7.39266E-01
#           7.57253E-01  7.75678E-01  7.94551E-01  8.13883E-01  8.33685E-01
#           8.53969E-01  8.74747E-01  8.96030E-01  9.17831E-01  9.40163E-01
#           9.63038E-01  9.86469E-01  1.01047E+00  1.03506E+00  1.06024E+00
#           1.08604E+00  1.11246E+00  1.13953E+00  1.16725E+00  1.19565E+00
#           1.22474E+00  1.25454E+00  1.28507E+00  1.31633E+00  1.34836E+00
#           1.38117E+00  1.41477E+00  1.44920E+00  1.48446E+00  1.52057E+00
#           1.55757E+00  1.59547E+00  1.63429E+00  1.67405E+00  1.71478E+00
#           1.75650E+00  1.79924E+00  1.84302E+00  1.88786E+00  1.93379E+00
#           1.98084E+00  2.02904E+00  2.07841E+00  2.12898E+00  2.18078E+00
#           2.23384E+00  2.28819E+00  2.34386E+00  2.40089E+00  2.45930E+00
#           2.51914E+00  2.58043E+00  2.64322E+00  2.70753E+00  2.77341E+00
#           2.84088E+00  2.91001E+00  2.98081E+00  3.05333E+00  3.12762E+00
#           3.20372E+00  3.28167E+00  3.36152E+00  3.44330E+00  3.52708E+00
#           3.61290E+00  3.70080E+00  3.79085E+00  3.88308E+00  3.97756E+00
#           4.07434E+00  4.17347E+00  4.27501E+00  4.37903E+00  4.48557E+00
#           4.59471E+00  4.70650E+00  4.82102E+00  4.93832E+00  5.05847E+00
#           5.18155E+00  5.30762E+00  5.43676E+00  5.56904E+00  5.70453E+00
#           5.84333E+00  5.98550E+00  6.13114E+00  6.28031E+00  6.43312E+00
#           6.58964E+00  6.74997E+00  6.91420E+00  7.08243E+00  7.25475E+00
#           7.43126E+00  7.61207E+00  7.79728E+00  7.98700E+00  8.18133E+00
#           8.38038E+00  8.58428E+00  8.79315E+00  9.00709E+00  9.22624E+00
#           9.45072E+00  9.68067E+00  9.91620E+00  1.01575E+01  1.04046E+01
#           1.06578E+01  1.09171E+01  1.11827E+01  1.14548E+01  1.17335E+01
#           1.20190E+01  1.23114E+01  1.26109E+01  1.29178E+01  1.32321E+01
#           1.35540E+01  1.38838E+01  1.42216E+01  1.45676E+01  1.49221E+01
#           1.52851E+01  1.56570E+01  1.60380E+01  1.64282E+01  1.68279E+01
#           1.72374E+01  1.76568E+01  1.80864E+01  1.85264E+01  1.89772E+01
#           1.94389E+01  1.99119E+01  2.03963E+01  2.08926E+01  2.14009E+01
#           2.19216E+01  2.24550E+01  2.30014E+01  2.35610E+01  2.41343E+01
#           2.47215E+01  2.53230E+01  2.59391E+01  2.65702E+01  2.72167E+01
#           2.78789E+01  2.85572E+01  2.92520E+01  2.99637E+01  3.06928E+01
#           3.14396E+01  3.22045E+01  3.29881E+01  3.37907E+01  3.46128E+01
#           3.54550E+01  3.63177E+01  3.72013E+01  3.81064E+01  3.90336E+01
#           3.99833E+01  4.09561E+01  4.19526E+01  4.29734E+01  4.40189E+01
#           4.50900E+01  4.61870E+01  4.73108E+01  4.84619E+01  4.96410E+01
#           5.08488E+01  5.20860E+01  5.33533E+01  5.46514E+01  5.59812E+01
#           5.73432E+01  5.87384E+01  6.01676E+01  6.16315E+01  6.31311E+01
#           6.46671E+01  6.62405E+01  6.78522E+01  6.95031E+01  7.11941E+01
#           7.29263E+01  7.47007E+01  7.65182E+01  7.83800E+01  8.02870E+01
#           8.22405E+01  8.42414E+01  8.62911E+01  8.83906E+01  9.05412E+01
#           9.27442E+01  9.50007E+01  9.73122E+01  9.96799E+01  1.02105E+02
#           1.04589E+02  1.07134E+02  1.09741E+02  1.12411E+02  1.15146E+02
#           1.17948E+02  1.20817E+02  1.23757E+02  1.26768E+02  1.29852E+02
#           1.33012E+02  1.36248E+02  1.39563E+02  1.42959E+02  1.46437E+02
#           1.50000E+02
     unit =    2            # unit is [1/cm^2/(MeV/n)/source]
     axis =  eng            # axis of output
     file = detector-12.out  # file name of output for the above axis
   output = f-curr          # surface crossing forward current spectrum
     part =  neutron  
# kf/name :  2112     
#    used :        main (  %)        temp (  %)       total (  %)
#  memory :         414 (  0)           0 (  0)         414 (  0)

#------------------------------------------------------------------------------
#newpage:
#   no. =    1   reg = 111 - 211

x: Energy [MeV/n]
y:  F-Curr [1/cm^2/(MeV/n)/source]         
p: xlog ylog afac(0.8) form(0.9)
h: n            x            y(neutron ),hh0l   n 
#  e-lower      e-upper      neutron     r.err 
   1.0000E-02   1.0243E-02   1.7890E-04  0.0672
   1.0243E-02   1.0493E-02   1.9458E-04  0.0638
   1.0493E-02   1.0748E-02   2.0870E-04  0.0608
   1.0748E-02   1.1009E-02   1.7660E-04  0.0654
   1.1009E-02   1.1277E-02   1.5612E-04  0.0686
   1.1277E-02   1.1552E-02   1.7592E-04  0.0637
   1.1552E-02   1.1833E-02   1.6778E-04  0.0646
   1.1833E-02   1.2121E-02   1.4928E-04  0.0677
   1.2121E-02   1.2415E-02   1.5673E-04  0.0653
   1.2415E-02   1.2718E-02   1.3976E-04  0.0683
   1.2718E-02   1.3027E-02   1.4831E-04  0.0654
   1.3027E-02   1.3344E-02   1.5145E-04  0.0642
   1.3344E-02   1.3669E-02   1.3955E-04  0.0658
   1.3669E-02   1.4001E-02   1.5468E-04  0.0619
   1.4001E-02   1.4342E-02   1.4512E-04  0.0632
   1.4342E-02   1.4691E-02   1.5205E-04  0.0609
   1.4691E-02   1.5048E-02   1.2050E-04  0.0676
   1.5048E-02   1.5414E-02   1.2838E-04  0.0648
   1.5414E-02   1.5789E-02   1.2828E-04  0.0640
   1.5789E-02   1.6174E-02   1.4607E-04  0.0593
   1.6174E-02   1.6567E-02   1.3346E-04  0.0613
   1.6567E-02   1.6970E-02   1.2376E-04  0.0628
   1.6970E-02   1.7383E-02   1.3796E-04  0.0589
   1.7383E-02   1.7806E-02   1.1007E-04  0.0649
   1.7806E-02   1.8239E-02   1.1465E-04  0.0629
   1.8239E-02   1.8683E-02   1.1429E-04  0.0624
   1.8683E-02   1.9138E-02   1.2169E-04  0.0596
   1.9138E-02   1.9603E-02   8.9012E-05  0.0686
   1.9603E-02   2.0080E-02   1.1328E-04  0.0605
   2.0080E-02   2.0569E-02   9.7744E-05  0.0642
   2.0569E-02   2.1069E-02   9.3709E-05  0.0648
   2.1069E-02   2.1582E-02   9.7886E-05  0.0625
   2.1582E-02   2.2107E-02   9.6854E-05  0.0622
   2.2107E-02   2.2645E-02   9.1302E-05  0.0631
   2.2645E-02   2.3196E-02   8.2394E-05  0.0658
   2.3196E-02   2.3760E-02   8.9085E-05  0.0625
   2.3760E-02   2.4338E-02   7.8519E-05  0.0658
   2.4338E-02   2.4930E-02   8.4550E-05  0.0627
   2.4930E-02   2.5537E-02   9.6837E-05  0.0579
   2.5537E-02   2.6158E-02   8.7829E-05  0.0601
   2.6158E-02   2.6795E-02   8.1288E-05  0.0617
   2.6795E-02   2.7447E-02   8.3059E-05  0.0605
   2.7447E-02   2.8114E-02   8.0663E-05  0.0604
   2.8114E-02   2.8799E-02   8.6466E-05  0.0578
   2.8799E-02   2.9499E-02   7.1467E-05  0.0627
   2.9499E-02   3.0217E-02   8.1957E-05  0.0580
   3.0217E-02   3.0952E-02   7.4100E-05  0.0602
   3.0952E-02   3.1705E-02   7.3078E-05  0.0599
   3.1705E-02   3.2477E-02   7.0716E-05  0.0601
   3.2477E-02   3.3267E-02   6.8885E-05  0.0599
   3.3267E-02   3.4076E-02   6.5239E-05  0.0611
   3.4076E-02   3.4905E-02   6.2670E-05  0.0615
   3.4905E-02   3.5755E-02   6.4193E-05  0.0601
   3.5755E-02   3.6625E-02   6.5990E-05  0.0586
   3.6625E-02   3.7516E-02   5.5524E-05  0.0632
   3.7516E-02   3.8428E-02   5.9052E-05  0.0605
   3.8428E-02   3.9363E-02   5.9973E-05  0.0592
   3.9363E-02   4.0321E-02   5.2855E-05  0.0624
   4.0321E-02   4.1302E-02   5.5393E-05  0.0602
   4.1302E-02   4.2307E-02   5.5314E-05  0.0595
   4.2307E-02   4.3337E-02   4.7118E-05  0.0637
   4.3337E-02   4.4391E-02   5.4717E-05  0.0585
   4.4391E-02   4.5471E-02   5.1345E-05  0.0596
   4.5471E-02   4.6577E-02   5.0763E-05  0.0592
   4.6577E-02   4.7711E-02   5.7193E-05  0.0550
   4.7711E-02   4.8871E-02   4.6449E-05  0.0605
   4.8871E-02   5.0061E-02   5.0106E-05  0.0575
   5.0061E-02   5.1279E-02   5.0748E-05  0.0564
   5.1279E-02   5.2526E-02   4.5902E-05  0.0587
   5.2526E-02   5.3804E-02   4.7640E-05  0.0569
   5.3804E-02   5.5113E-02   4.3506E-05  0.0588
   5.5113E-02   5.6454E-02   4.2731E-05  0.0586
   5.6454E-02   5.7828E-02   4.5880E-05  0.0560
   5.7828E-02   5.9235E-02   3.8294E-05  0.0604
   5.9235E-02   6.0676E-02   3.9913E-05  0.0585
   6.0676E-02   6.2152E-02   4.0583E-05  0.0572
   6.2152E-02   6.3665E-02   3.7971E-05  0.0586
   6.3665E-02   6.5214E-02   3.6937E-05  0.0586
   6.5214E-02   6.6800E-02   3.8064E-05  0.0572
   6.6800E-02   6.8426E-02   3.8203E-05  0.0564
   6.8426E-02   7.0090E-02   3.5964E-05  0.0573
   7.0090E-02   7.1796E-02   3.5542E-05  0.0570
   7.1796E-02   7.3543E-02   3.3308E-05  0.0582
   7.3543E-02   7.5332E-02   3.5062E-05  0.0560
   7.5332E-02   7.7165E-02   3.2767E-05  0.0573
   7.7165E-02   7.9042E-02   3.2997E-05  0.0565
   7.9042E-02   8.0965E-02   3.6372E-05  0.0531
   8.0965E-02   8.2935E-02   3.3651E-05  0.0546
   8.2935E-02   8.4953E-02   3.1348E-05  0.0558
   8.4953E-02   8.7020E-02   3.6238E-05  0.0513
   8.7020E-02   8.9138E-02   3.2139E-05  0.0537
   8.9138E-02   9.1306E-02   3.1102E-05  0.0541
   9.1306E-02   9.3528E-02   3.4452E-05  0.0507
   9.3528E-02   9.5804E-02   3.2581E-05  0.0515
   9.5804E-02   9.8134E-02   3.2942E-05  0.0506
   9.8134E-02   1.0052E-01   2.7535E-05  0.0548
   1.0052E-01   1.0297E-01   3.1846E-05  0.0502
   1.0297E-01   1.0547E-01   3.2626E-05  0.0491
   1.0547E-01   1.0804E-01   3.4277E-05  0.0473
   1.0804E-01   1.1067E-01   3.4814E-05  0.0465
   1.1067E-01   1.1336E-01   3.7965E-05  0.0439
   1.1336E-01   1.1612E-01   3.5386E-05  0.0450
   1.1612E-01   1.1894E-01   3.8854E-05  0.0423
   1.1894E-01   1.2184E-01   4.2169E-05  0.0402
   1.2184E-01   1.2480E-01   4.2977E-05  0.0394
   1.2480E-01   1.2784E-01   4.4612E-05  0.0382
   1.2784E-01   1.3095E-01   4.5936E-05  0.0372
   1.3095E-01   1.3414E-01   4.8066E-05  0.0359
   1.3414E-01   1.3740E-01   5.0417E-05  0.0346
   1.3740E-01   1.4074E-01   5.2615E-05  0.0334
   1.4074E-01   1.4417E-01   5.3328E-05  0.0329
   1.4417E-01   1.4767E-01   5.9319E-05  0.0308
   1.4767E-01   1.5127E-01   6.1421E-05  0.0299
   1.5127E-01   1.5495E-01   6.1185E-05  0.0296
   1.5495E-01   1.5872E-01   6.5022E-05  0.0284
   1.5872E-01   1.6258E-01   6.5676E-05  0.0279
   1.6258E-01   1.6654E-01   7.1405E-05  0.0265
   1.6654E-01   1.7059E-01   6.9472E-05  0.0264
   1.7059E-01   1.7474E-01   7.6771E-05  0.0249
   1.7474E-01   1.7899E-01   7.5218E-05  0.0248
   1.7899E-01   1.8334E-01   8.2758E-05  0.0234
   1.8334E-01   1.8781E-01   7.9375E-05  0.0236
   1.8781E-01   1.9237E-01   8.8361E-05  0.0221
   1.9237E-01   1.9706E-01   8.6573E-05  0.0221
   1.9706E-01   2.0185E-01   9.0794E-05  0.0213
   2.0185E-01   2.0676E-01   9.7220E-05  0.0203
   2.0676E-01   2.1179E-01   1.0050E-04  0.0197
   2.1179E-01   2.1694E-01   1.0150E-04  0.0194
   2.1694E-01   2.2222E-01   1.0444E-04  0.0189
   2.2222E-01   2.2763E-01   1.0741E-04  0.0184
   2.2763E-01   2.3317E-01   1.1189E-04  0.0178
   2.3317E-01   2.3884E-01   1.1778E-04  0.0172
   2.3884E-01   2.4465E-01   1.2166E-04  0.0167
   2.4465E-01   2.5061E-01   1.2696E-04  0.0162
   2.5061E-01   2.5670E-01   1.2877E-04  0.0158
   2.5670E-01   2.6295E-01   1.3410E-04  0.0153
   2.6295E-01   2.6935E-01   1.3387E-04  0.0152
   2.6935E-01   2.7590E-01   1.3941E-04  0.0147
   2.7590E-01   2.8261E-01   1.4196E-04  0.0144
   2.8261E-01   2.8949E-01   1.5326E-04  0.0137
   2.8949E-01   2.9653E-01   1.5364E-04  0.0135
   2.9653E-01   3.0375E-01   1.6097E-04  0.0130
   3.0375E-01   3.1114E-01   1.6520E-04  0.0127
   3.1114E-01   3.1871E-01   1.6570E-04  0.0125
   3.1871E-01   3.2646E-01   1.7800E-04  0.0119
   3.2646E-01   3.3441E-01   1.7620E-04  0.0119
   3.3441E-01   3.4254E-01   1.8080E-04  0.0116
   3.4254E-01   3.5088E-01   1.8794E-04  0.0112
   3.5088E-01   3.5941E-01   1.9417E-04  0.0109
   3.5941E-01   3.6816E-01   1.9660E-04  0.0107
   3.6816E-01   3.7712E-01   2.0001E-04  0.0105
   3.7712E-01   3.8629E-01   2.0677E-04  0.0102
   3.8629E-01   3.9569E-01   2.0913E-04  0.0100
   3.9569E-01   4.0532E-01   2.1440E-04  0.0098
   4.0532E-01   4.1518E-01   2.1724E-04  0.0096
   4.1518E-01   4.2528E-01   2.2098E-04  0.0094
   4.2528E-01   4.3563E-01   2.2375E-04  0.0092
   4.3563E-01   4.4623E-01   2.2583E-04  0.0091
   4.4623E-01   4.5708E-01   2.3290E-04  0.0088
   4.5708E-01   4.6821E-01   2.3565E-04  0.0087
   4.6821E-01   4.7960E-01   2.3680E-04  0.0085
   4.7960E-01   4.9127E-01   2.3932E-04  0.0084
   4.9127E-01   5.0322E-01   2.3820E-04  0.0083
   5.0322E-01   5.1546E-01   2.4146E-04  0.0082
   5.1546E-01   5.2800E-01   2.4760E-04  0.0080
   5.2800E-01   5.4085E-01   2.4546E-04  0.0079
   5.4085E-01   5.5401E-01   2.4883E-04  0.0077
   5.5401E-01   5.6749E-01   2.5277E-04  0.0076
   5.6749E-01   5.8130E-01   2.5041E-04  0.0075
   5.8130E-01   5.9544E-01   2.5352E-04  0.0074
   5.9544E-01   6.0993E-01   2.5399E-04  0.0073
   6.0993E-01   6.2477E-01   2.4847E-04  0.0073
   6.2477E-01   6.3997E-01   2.4999E-04  0.0072
   6.3997E-01   6.5554E-01   2.4667E-04  0.0071
   6.5554E-01   6.7149E-01   2.4626E-04  0.0071
   6.7149E-01   6.8783E-01   2.4259E-04  0.0070
   6.8783E-01   7.0456E-01   2.4170E-04  0.0070
   7.0456E-01   7.2171E-01   2.3850E-04  0.0069
   7.2171E-01   7.3927E-01   2.4011E-04  0.0068
   7.3927E-01   7.5725E-01   2.3367E-04  0.0068
   7.5725E-01   7.7568E-01   2.3097E-04  0.0068
   7.7568E-01   7.9455E-01   2.2150E-04  0.0068
   7.9455E-01   8.1388E-01   2.1569E-04  0.0068
   8.1388E-01   8.3368E-01   2.1288E-04  0.0068
   8.3368E-01   8.5397E-01   2.0590E-04  0.0068
   8.5397E-01   8.7475E-01   1.9965E-04  0.0069
   8.7475E-01   8.9603E-01   1.9521E-04  0.0068
   8.9603E-01   9.1783E-01   1.8819E-04  0.0069
   9.1783E-01   9.4016E-01   1.8259E-04  0.0069
   9.4016E-01   9.6304E-01   1.7747E-04  0.0069
   9.6304E-01   9.8647E-01   1.7165E-04  0.0069
   9.8647E-01   1.0105E+00   1.6762E-04  0.0069
   1.0105E+00   1.0351E+00   1.7036E-04  0.0068
   1.0351E+00   1.0602E+00   1.7432E-04  0.0066
   1.0602E+00   1.0860E+00   1.8121E-04  0.0064
   1.0860E+00   1.1125E+00   1.8598E-04  0.0063
   1.1125E+00   1.1395E+00   1.9529E-04  0.0061
   1.1395E+00   1.1673E+00   2.0290E-04  0.0059
   1.1673E+00   1.1957E+00   2.1058E-04  0.0057
   1.1957E+00   1.2247E+00   2.1790E-04  0.0055
   1.2247E+00   1.2545E+00   2.2265E-04  0.0054
   1.2545E+00   1.2851E+00   2.3051E-04  0.0052
   1.2851E+00   1.3163E+00   2.3445E-04  0.0051
   1.3163E+00   1.3484E+00   2.4041E-04  0.0050
   1.3484E+00   1.3812E+00   2.4996E-04  0.0048
   1.3812E+00   1.4148E+00   2.5906E-04  0.0047
   1.4148E+00   1.4492E+00   2.5977E-04  0.0046
   1.4492E+00   1.4845E+00   2.6061E-04  0.0046
   1.4845E+00   1.5206E+00   2.6228E-04  0.0045
   1.5206E+00   1.5576E+00   2.6374E-04  0.0044
   1.5576E+00   1.5955E+00   2.6578E-04  0.0044
   1.5955E+00   1.6343E+00   2.6897E-04  0.0043
   1.6343E+00   1.6741E+00   2.7001E-04  0.0042
   1.6741E+00   1.7148E+00   2.7337E-04  0.0041
   1.7148E+00   1.7565E+00   2.6715E-04  0.0041
   1.7565E+00   1.7992E+00   2.5175E-04  0.0042
   1.7992E+00   1.8430E+00   2.4292E-04  0.0042
   1.8430E+00   1.8879E+00   2.3777E-04  0.0042
   1.8879E+00   1.9338E+00   2.3567E-04  0.0041
   1.9338E+00   1.9808E+00   2.3723E-04  0.0041
   1.9808E+00   2.0290E+00   2.4326E-04  0.0040
   2.0290E+00   2.0784E+00   2.4763E-04  0.0039
   2.0784E+00   2.1290E+00   2.5362E-04  0.0038
   2.1290E+00   2.1808E+00   2.6055E-04  0.0037
   2.1808E+00   2.2338E+00   2.6160E-04  0.0036
   2.2338E+00   2.2882E+00   2.5731E-04  0.0036
   2.2882E+00   2.3439E+00   2.5179E-04  0.0036
   2.3439E+00   2.4009E+00   2.5247E-04  0.0036
   2.4009E+00   2.4593E+00   2.5403E-04  0.0035
   2.4593E+00   2.5191E+00   2.5134E-04  0.0035
   2.5191E+00   2.5804E+00   2.5166E-04  0.0035
   2.5804E+00   2.6432E+00   2.4926E-04  0.0035
   2.6432E+00   2.7075E+00   2.4754E-04  0.0034
   2.7075E+00   2.7734E+00   2.4561E-04  0.0034
   2.7734E+00   2.8409E+00   2.4435E-04  0.0034
   2.8409E+00   2.9100E+00   2.4448E-04  0.0033
   2.9100E+00   2.9808E+00   2.4567E-04  0.0033
   2.9808E+00   3.0533E+00   2.3965E-04  0.0033
   3.0533E+00   3.1276E+00   2.3811E-04  0.0033
   3.1276E+00   3.2037E+00   2.3530E-04  0.0032
   3.2037E+00   3.2817E+00   2.3345E-04  0.0032
   3.2817E+00   3.3615E+00   2.3121E-04  0.0032
   3.3615E+00   3.4433E+00   2.2829E-04  0.0032
   3.4433E+00   3.5271E+00   2.2608E-04  0.0032
   3.5271E+00   3.6129E+00   2.2527E-04  0.0031
   3.6129E+00   3.7008E+00   2.2188E-04  0.0031
   3.7008E+00   3.7908E+00   2.1674E-04  0.0031
   3.7908E+00   3.8831E+00   2.1378E-04  0.0031
   3.8831E+00   3.9776E+00   2.1078E-04  0.0031
   3.9776E+00   4.0743E+00   2.0696E-04  0.0031
   4.0743E+00   4.1735E+00   2.0278E-04  0.0031
   4.1735E+00   4.2750E+00   1.9637E-04  0.0031
   4.2750E+00   4.3790E+00   1.9134E-04  0.0031
   4.3790E+00   4.4856E+00   1.8702E-04  0.0031
   4.4856E+00   4.5947E+00   1.8137E-04  0.0031
   4.5947E+00   4.7065E+00   1.7703E-04  0.0031
   4.7065E+00   4.8210E+00   1.7395E-04  0.0031
   4.8210E+00   4.9383E+00   1.7078E-04  0.0031
   4.9383E+00   5.0585E+00   1.6774E-04  0.0031
   5.0585E+00   5.1815E+00   1.6419E-04  0.0031
   5.1815E+00   5.3076E+00   1.5987E-04  0.0031
   5.3076E+00   5.4368E+00   1.5646E-04  0.0031
   5.4368E+00   5.5690E+00   1.5129E-04  0.0031
   5.5690E+00   5.7045E+00   1.4875E-04  0.0031
   5.7045E+00   5.8433E+00   1.4515E-04  0.0031
   5.8433E+00   5.9855E+00   1.4278E-04  0.0031
   5.9855E+00   6.1311E+00   1.3983E-04  0.0031
   6.1311E+00   6.2803E+00   1.3585E-04  0.0031
   6.2803E+00   6.4331E+00   1.3218E-04  0.0031
   6.4331E+00   6.5896E+00   1.2853E-04  0.0031
   6.5896E+00   6.7500E+00   1.2479E-04  0.0031
   6.7500E+00   6.9142E+00   1.2168E-04  0.0031
   6.9142E+00   7.0824E+00   1.1807E-04  0.0031
   7.0824E+00   7.2548E+00   1.1448E-04  0.0031
   7.2548E+00   7.4313E+00   1.1069E-04  0.0031
   7.4313E+00   7.6121E+00   1.0666E-04  0.0032
   7.6121E+00   7.7973E+00   1.0313E-04  0.0032
   7.7973E+00   7.9870E+00   9.9124E-05  0.0032
   7.9870E+00   8.1813E+00   9.5254E-05  0.0032
   8.1813E+00   8.3804E+00   9.1436E-05  0.0033
   8.3804E+00   8.5843E+00   8.6890E-05  0.0033
   8.5843E+00   8.7931E+00   8.3370E-05  0.0033
   8.7931E+00   9.0071E+00   7.9041E-05  0.0034
   9.0071E+00   9.2262E+00   7.5429E-05  0.0034
   9.2262E+00   9.4507E+00   7.1899E-05  0.0035
   9.4507E+00   9.6807E+00   6.8407E-05  0.0035
   9.6807E+00   9.9162E+00   6.6201E-05  0.0035
   9.9162E+00   1.0157E+01   6.7772E-05  0.0035
   1.0157E+01   1.0405E+01   6.4757E-05  0.0035
   1.0405E+01   1.0658E+01   6.2102E-05  0.0035
   1.0658E+01   1.0917E+01   5.9427E-05  0.0036
   1.0917E+01   1.1183E+01   5.6428E-05  0.0036
   1.1183E+01   1.1455E+01   5.3827E-05  0.0037
   1.1455E+01   1.1733E+01   5.1757E-05  0.0037
   1.1733E+01   1.2019E+01   4.9574E-05  0.0037
   1.2019E+01   1.2311E+01   4.7932E-05  0.0038
   1.2311E+01   1.2611E+01   4.6114E-05  0.0038
   1.2611E+01   1.2918E+01   4.4364E-05  0.0038
   1.2918E+01   1.3232E+01   4.2399E-05  0.0039
   1.3232E+01   1.3554E+01   4.0766E-05  0.0039
   1.3554E+01   1.3884E+01   3.9265E-05  0.0039
   1.3884E+01   1.4222E+01   3.7393E-05  0.0040
   1.4222E+01   1.4568E+01   3.5882E-05  0.0040
   1.4568E+01   1.4922E+01   3.4345E-05  0.0040
   1.4922E+01   1.5285E+01   3.3250E-05  0.0041
   1.5285E+01   1.5657E+01   3.1765E-05  0.0041
   1.5657E+01   1.6038E+01   3.0307E-05  0.0042
   1.6038E+01   1.6428E+01   2.8960E-05  0.0042
   1.6428E+01   1.6828E+01   2.7659E-05  0.0042
   1.6828E+01   1.7237E+01   2.6452E-05  0.0043
   1.7237E+01   1.7657E+01   2.5093E-05  0.0044
   1.7657E+01   1.8086E+01   2.4035E-05  0.0044
   1.8086E+01   1.8526E+01   2.2538E-05  0.0045
   1.8526E+01   1.8977E+01   2.1243E-05  0.0046
   1.8977E+01   1.9439E+01   1.9949E-05  0.0047
   1.9439E+01   1.9912E+01   1.9105E-05  0.0047
   1.9912E+01   2.0396E+01   1.8492E-05  0.0047
   2.0396E+01   2.0893E+01   1.7336E-05  0.0048
   2.0893E+01   2.1401E+01   1.6368E-05  0.0049
   2.1401E+01   2.1922E+01   1.5334E-05  0.0050
   2.1922E+01   2.2455E+01   1.4417E-05  0.0051
   2.2455E+01   2.3001E+01   1.3483E-05  0.0052
   2.3001E+01   2.3561E+01   1.3237E-05  0.0052
   2.3561E+01   2.4134E+01   1.2971E-05  0.0052
   2.4134E+01   2.4721E+01   1.2549E-05  0.0052
   2.4721E+01   2.5323E+01   1.1783E-05  0.0053
   2.5323E+01   2.5939E+01   1.1042E-05  0.0054
   2.5939E+01   2.6570E+01   1.0116E-05  0.0056
   2.6570E+01   2.7217E+01   9.3012E-06  0.0058
   2.7217E+01   2.7879E+01   8.4533E-06  0.0060
   2.7879E+01   2.8557E+01   7.6882E-06  0.0062
   2.8557E+01   2.9252E+01   6.8757E-06  0.0065
   2.9252E+01   2.9964E+01   6.1574E-06  0.0068
   2.9964E+01   3.0693E+01   5.4194E-06  0.0071
   3.0693E+01   3.1440E+01   4.8105E-06  0.0075
   3.1440E+01   3.2205E+01   4.1137E-06  0.0080
   3.2205E+01   3.2988E+01   3.6301E-06  0.0084
   3.2988E+01   3.3791E+01   3.1609E-06  0.0089
   3.3791E+01   3.4613E+01   2.7608E-06  0.0094
   3.4613E+01   3.5455E+01   2.3162E-06  0.0101
   3.5455E+01   3.6318E+01   1.9966E-06  0.0108
   3.6318E+01   3.7201E+01   1.6790E-06  0.0116
   3.7201E+01   3.8106E+01   1.3868E-06  0.0126
   3.8106E+01   3.9034E+01   1.1215E-06  0.0139
   3.9034E+01   3.9983E+01   8.8742E-07  0.0154
   3.9983E+01   4.0956E+01   6.7001E-07  0.0175
   4.0956E+01   4.1953E+01   4.6884E-07  0.0207
   4.1953E+01   4.2973E+01   3.6131E-07  0.0233
   4.2973E+01   4.4019E+01   2.6091E-07  0.0271
   4.4019E+01   4.5090E+01   1.9085E-07  0.0313
   4.5090E+01   4.6187E+01   9.1881E-08  0.0445
   4.6187E+01   4.7311E+01   4.3425E-08  0.0640
   4.7311E+01   4.8462E+01   2.1371E-08  0.0902
   4.8462E+01   4.9641E+01   8.1417E-09  0.1443
   4.9641E+01   5.0849E+01   8.2795E-10  0.4472
   5.0849E+01   5.2086E+01   0.0000E+00  0.0000
   5.2086E+01   5.3353E+01   0.0000E+00  0.0000
   5.3353E+01   5.4651E+01   0.0000E+00  0.0000
   5.4651E+01   5.5981E+01   0.0000E+00  0.0000
   5.5981E+01   5.7343E+01   0.0000E+00  0.0000
   5.7343E+01   5.8738E+01   0.0000E+00  0.0000
   5.8738E+01   6.0168E+01   0.0000E+00  0.0000
   6.0168E+01   6.1632E+01   0.0000E+00  0.0000
   6.1632E+01   6.3131E+01   0.0000E+00  0.0000
   6.3131E+01   6.4667E+01   0.0000E+00  0.0000
   6.4667E+01   6.6240E+01   0.0000E+00  0.0000
   6.6240E+01   6.7852E+01   0.0000E+00  0.0000
   6.7852E+01   6.9503E+01   0.0000E+00  0.0000
   6.9503E+01   7.1194E+01   0.0000E+00  0.0000
   7.1194E+01   7.2926E+01   0.0000E+00  0.0000
   7.2926E+01   7.4701E+01   0.0000E+00  0.0000
   7.4701E+01   7.6518E+01   0.0000E+00  0.0000
   7.6518E+01   7.8380E+01   0.0000E+00  0.0000
   7.8380E+01   8.0287E+01   0.0000E+00  0.0000
   8.0287E+01   8.2240E+01   0.0000E+00  0.0000
   8.2240E+01   8.4241E+01   0.0000E+00  0.0000
   8.4241E+01   8.6291E+01   0.0000E+00  0.0000
   8.6291E+01   8.8391E+01   0.0000E+00  0.0000
   8.8391E+01   9.0541E+01   0.0000E+00  0.0000
   9.0541E+01   9.2744E+01   0.0000E+00  0.0000
   9.2744E+01   9.5001E+01   0.0000E+00  0.0000
   9.5001E+01   9.7312E+01   0.0000E+00  0.0000
   9.7312E+01   9.9680E+01   0.0000E+00  0.0000
   9.9680E+01   1.0211E+02   0.0000E+00  0.0000
   1.0211E+02   1.0459E+02   0.0000E+00  0.0000
   1.0459E+02   1.0713E+02   0.0000E+00  0.0000
   1.0713E+02   1.0974E+02   0.0000E+00  0.0000
   1.0974E+02   1.1241E+02   0.0000E+00  0.0000
   1.1241E+02   1.1515E+02   0.0000E+00  0.0000
   1.1515E+02   1.1795E+02   0.0000E+00  0.0000
   1.1795E+02   1.2082E+02   0.0000E+00  0.0000
   1.2082E+02   1.2376E+02   0.0000E+00  0.0000
   1.2376E+02   1.2677E+02   0.0000E+00  0.0000
   1.2677E+02   1.2985E+02   0.0000E+00  0.0000
   1.2985E+02   1.3301E+02   0.0000E+00  0.0000
   1.3301E+02   1.3625E+02   0.0000E+00  0.0000
   1.3625E+02   1.3956E+02   0.0000E+00  0.0000
   1.3956E+02   1.4296E+02   0.0000E+00  0.0000
   1.4296E+02   1.4644E+02   0.0000E+00  0.0000
   1.4644E+02   1.5000E+02   0.0000E+00  0.0000

#   sum over                 1.4200E-05
'no. =    1   reg = 111 - 211'
msuc: {\huge [t-cross] in region mesh}
msdr: {\it plotted by \ANGEL \version}
msdl: {\it calculated by \PHITS  3.26}
wt: s(0.7)
\vspace{-3}
  region surface crossing
  area  &=&   1.0000E+00 [cm^2]
e:
 
# Information for Restart Calculation
# This calculation was newly started
# istdev =  2 # 1:Batch variance, 2:History variance
# resc2  = 5.00000000000000000E+09 # Total source weight or Total source weight / maxcas
# resc3  = 5.00000000000000000E+09 # Total history number or Total batch number
# maxcas =   100000000 # History / Batch, only used for istdev=1
# bitrseed = 0110100000100010111000001110001111001110100100011111101000111001 # bit data of rseed
