[ T-Cross ]
    title = [t-cross] in region mesh
     mesh =  reg            # mesh type is region-wise
      reg =    1            # number of crossing regions
      non     r-from    r-to       area
      1       108       208        1.000000    
   e-type =    3            # e-mesh is log given by emin, emax and ne
     emin =  1.0000000E-02  # minimum value of e-mesh points
     emax =   150.0000      # maximum value of e-mesh points
#    edel =  2.4039514E-02  # mesh width of e-mesh points
       ne =    400          # number of e-mesh points
#    data = ( e(i), i = 1, ne + 1 )
#           1.00000E-02  1.02433E-02  1.04925E-02  1.07478E-02  1.10093E-02
#           1.12772E-02  1.15516E-02  1.18326E-02  1.21205E-02  1.24154E-02
#           1.27175E-02  1.30269E-02  1.33439E-02  1.36686E-02  1.40011E-02
#           1.43418E-02  1.46907E-02  1.50482E-02  1.54143E-02  1.57894E-02
#           1.61735E-02  1.65670E-02  1.69701E-02  1.73830E-02  1.78060E-02
#           1.82392E-02  1.86830E-02  1.91375E-02  1.96032E-02  2.00801E-02
#           2.05687E-02  2.10692E-02  2.15818E-02  2.21069E-02  2.26448E-02
#           2.31957E-02  2.37601E-02  2.43382E-02  2.49304E-02  2.55369E-02
#           2.61583E-02  2.67947E-02  2.74467E-02  2.81145E-02  2.87985E-02
#           2.94992E-02  3.02169E-02  3.09521E-02  3.17052E-02  3.24766E-02
#           3.32668E-02  3.40762E-02  3.49053E-02  3.57546E-02  3.66246E-02
#           3.75157E-02  3.84284E-02  3.93634E-02  4.03212E-02  4.13022E-02
#           4.23071E-02  4.33365E-02  4.43909E-02  4.54710E-02  4.65773E-02
#           4.77106E-02  4.88714E-02  5.00605E-02  5.12785E-02  5.25262E-02
#           5.38042E-02  5.51133E-02  5.64542E-02  5.78278E-02  5.92348E-02
#           6.06760E-02  6.21523E-02  6.36645E-02  6.52135E-02  6.68002E-02
#           6.84255E-02  7.00904E-02  7.17957E-02  7.35426E-02  7.53319E-02
#           7.71648E-02  7.90423E-02  8.09655E-02  8.29354E-02  8.49533E-02
#           8.70203E-02  8.91376E-02  9.13064E-02  9.35279E-02  9.58035E-02
#           9.81345E-02  1.00522E-01  1.02968E-01  1.05473E-01  1.08040E-01
#           1.10668E-01  1.13361E-01  1.16119E-01  1.18944E-01  1.21838E-01
#           1.24803E-01  1.27839E-01  1.30950E-01  1.34136E-01  1.37399E-01
#           1.40742E-01  1.44167E-01  1.47675E-01  1.51268E-01  1.54948E-01
#           1.58718E-01  1.62580E-01  1.66535E-01  1.70587E-01  1.74738E-01
#           1.78989E-01  1.83344E-01  1.87805E-01  1.92375E-01  1.97055E-01
#           2.01850E-01  2.06761E-01  2.11792E-01  2.16945E-01  2.22223E-01
#           2.27630E-01  2.33169E-01  2.38842E-01  2.44653E-01  2.50605E-01
#           2.56703E-01  2.62949E-01  2.69346E-01  2.75900E-01  2.82613E-01
#           2.89489E-01  2.96532E-01  3.03747E-01  3.11138E-01  3.18708E-01
#           3.26462E-01  3.34405E-01  3.42542E-01  3.50876E-01  3.59413E-01
#           3.68158E-01  3.77116E-01  3.86291E-01  3.95690E-01  4.05317E-01
#           4.15179E-01  4.25281E-01  4.35628E-01  4.46227E-01  4.57084E-01
#           4.68205E-01  4.79597E-01  4.91266E-01  5.03219E-01  5.15463E-01
#           5.28005E-01  5.40851E-01  5.54011E-01  5.67490E-01  5.81298E-01
#           5.95441E-01  6.09929E-01  6.24769E-01  6.39970E-01  6.55541E-01
#           6.71491E-01  6.87828E-01  7.04564E-01  7.21706E-01  7.39266E-01
#           7.57253E-01  7.75678E-01  7.94551E-01  8.13883E-01  8.33685E-01
#           8.53969E-01  8.74747E-01  8.96030E-01  9.17831E-01  9.40163E-01
#           9.63038E-01  9.86469E-01  1.01047E+00  1.03506E+00  1.06024E+00
#           1.08604E+00  1.11246E+00  1.13953E+00  1.16725E+00  1.19565E+00
#           1.22474E+00  1.25454E+00  1.28507E+00  1.31633E+00  1.34836E+00
#           1.38117E+00  1.41477E+00  1.44920E+00  1.48446E+00  1.52057E+00
#           1.55757E+00  1.59547E+00  1.63429E+00  1.67405E+00  1.71478E+00
#           1.75650E+00  1.79924E+00  1.84302E+00  1.88786E+00  1.93379E+00
#           1.98084E+00  2.02904E+00  2.07841E+00  2.12898E+00  2.18078E+00
#           2.23384E+00  2.28819E+00  2.34386E+00  2.40089E+00  2.45930E+00
#           2.51914E+00  2.58043E+00  2.64322E+00  2.70753E+00  2.77341E+00
#           2.84088E+00  2.91001E+00  2.98081E+00  3.05333E+00  3.12762E+00
#           3.20372E+00  3.28167E+00  3.36152E+00  3.44330E+00  3.52708E+00
#           3.61290E+00  3.70080E+00  3.79085E+00  3.88308E+00  3.97756E+00
#           4.07434E+00  4.17347E+00  4.27501E+00  4.37903E+00  4.48557E+00
#           4.59471E+00  4.70650E+00  4.82102E+00  4.93832E+00  5.05847E+00
#           5.18155E+00  5.30762E+00  5.43676E+00  5.56904E+00  5.70453E+00
#           5.84333E+00  5.98550E+00  6.13114E+00  6.28031E+00  6.43312E+00
#           6.58964E+00  6.74997E+00  6.91420E+00  7.08243E+00  7.25475E+00
#           7.43126E+00  7.61207E+00  7.79728E+00  7.98700E+00  8.18133E+00
#           8.38038E+00  8.58428E+00  8.79315E+00  9.00709E+00  9.22624E+00
#           9.45072E+00  9.68067E+00  9.91620E+00  1.01575E+01  1.04046E+01
#           1.06578E+01  1.09171E+01  1.11827E+01  1.14548E+01  1.17335E+01
#           1.20190E+01  1.23114E+01  1.26109E+01  1.29178E+01  1.32321E+01
#           1.35540E+01  1.38838E+01  1.42216E+01  1.45676E+01  1.49221E+01
#           1.52851E+01  1.56570E+01  1.60380E+01  1.64282E+01  1.68279E+01
#           1.72374E+01  1.76568E+01  1.80864E+01  1.85264E+01  1.89772E+01
#           1.94389E+01  1.99119E+01  2.03963E+01  2.08926E+01  2.14009E+01
#           2.19216E+01  2.24550E+01  2.30014E+01  2.35610E+01  2.41343E+01
#           2.47215E+01  2.53230E+01  2.59391E+01  2.65702E+01  2.72167E+01
#           2.78789E+01  2.85572E+01  2.92520E+01  2.99637E+01  3.06928E+01
#           3.14396E+01  3.22045E+01  3.29881E+01  3.37907E+01  3.46128E+01
#           3.54550E+01  3.63177E+01  3.72013E+01  3.81064E+01  3.90336E+01
#           3.99833E+01  4.09561E+01  4.19526E+01  4.29734E+01  4.40189E+01
#           4.50900E+01  4.61870E+01  4.73108E+01  4.84619E+01  4.96410E+01
#           5.08488E+01  5.20860E+01  5.33533E+01  5.46514E+01  5.59812E+01
#           5.73432E+01  5.87384E+01  6.01676E+01  6.16315E+01  6.31311E+01
#           6.46671E+01  6.62405E+01  6.78522E+01  6.95031E+01  7.11941E+01
#           7.29263E+01  7.47007E+01  7.65182E+01  7.83800E+01  8.02870E+01
#           8.22405E+01  8.42414E+01  8.62911E+01  8.83906E+01  9.05412E+01
#           9.27442E+01  9.50007E+01  9.73122E+01  9.96799E+01  1.02105E+02
#           1.04589E+02  1.07134E+02  1.09741E+02  1.12411E+02  1.15146E+02
#           1.17948E+02  1.20817E+02  1.23757E+02  1.26768E+02  1.29852E+02
#           1.33012E+02  1.36248E+02  1.39563E+02  1.42959E+02  1.46437E+02
#           1.50000E+02
     unit =    2            # unit is [1/cm^2/(MeV/n)/source]
     axis =  eng            # axis of output
     file = detector-09.out  # file name of output for the above axis
   output = f-curr          # surface crossing forward current spectrum
     part =  neutron  
# kf/name :  2112     
#    used :        main (  %)        temp (  %)       total (  %)
#  memory :         414 (  0)           0 (  0)         414 (  0)

#------------------------------------------------------------------------------
#newpage:
#   no. =    1   reg = 108 - 208

x: Energy [MeV/n]
y:  F-Curr [1/cm^2/(MeV/n)/source]         
p: xlog ylog afac(0.8) form(0.9)
h: n            x            y(neutron ),hh0l   n 
#  e-lower      e-upper      neutron     r.err 
   1.0000E-02   1.0243E-02   2.9114E-03  0.0530
   1.0243E-02   1.0493E-02   3.0369E-03  0.0513
   1.0493E-02   1.0748E-02   2.8668E-03  0.0522
   1.0748E-02   1.1009E-02   3.1105E-03  0.0494
   1.1009E-02   1.1277E-02   3.0309E-03  0.0495
   1.1277E-02   1.1552E-02   2.9439E-03  0.0497
   1.1552E-02   1.1833E-02   2.9259E-03  0.0493
   1.1833E-02   1.2121E-02   2.7219E-03  0.0504
   1.2121E-02   1.2415E-02   2.6256E-03  0.0507
   1.2415E-02   1.2718E-02   2.6829E-03  0.0495
   1.2718E-02   1.3027E-02   2.5437E-03  0.0503
   1.3027E-02   1.3344E-02   2.6184E-03  0.0490
   1.3344E-02   1.3669E-02   2.4537E-03  0.0500
   1.3669E-02   1.4001E-02   2.3792E-03  0.0502
   1.4001E-02   1.4342E-02   2.7402E-03  0.0462
   1.4342E-02   1.4691E-02   2.2910E-03  0.0499
   1.4691E-02   1.5048E-02   2.3672E-03  0.0485
   1.5048E-02   1.5414E-02   2.2092E-03  0.0496
   1.5414E-02   1.5789E-02   2.0932E-03  0.0504
   1.5789E-02   1.6174E-02   2.1012E-03  0.0497
   1.6174E-02   1.6567E-02   2.2729E-03  0.0472
   1.6567E-02   1.6970E-02   2.0163E-03  0.0495
   1.6970E-02   1.7383E-02   2.0653E-03  0.0484
   1.7383E-02   1.7806E-02   1.9947E-03  0.0486
   1.7806E-02   1.8239E-02   2.0905E-03  0.0469
   1.8239E-02   1.8683E-02   1.9502E-03  0.0480
   1.8683E-02   1.9138E-02   1.8311E-03  0.0489
   1.9138E-02   1.9603E-02   1.7345E-03  0.0497
   1.9603E-02   2.0080E-02   1.8511E-03  0.0475
   2.0080E-02   2.0569E-02   1.8735E-03  0.0467
   2.0569E-02   2.1069E-02   1.8933E-03  0.0459
   2.1069E-02   2.1582E-02   1.8189E-03  0.0462
   2.1582E-02   2.2107E-02   1.5737E-03  0.0491
   2.2107E-02   2.2645E-02   1.6894E-03  0.0468
   2.2645E-02   2.3196E-02   1.6648E-03  0.0466
   2.3196E-02   2.3760E-02   1.7855E-03  0.0445
   2.3760E-02   2.4338E-02   1.4996E-03  0.0480
   2.4338E-02   2.4930E-02   1.5903E-03  0.0460
   2.4930E-02   2.5537E-02   1.4639E-03  0.0474
   2.5537E-02   2.6158E-02   1.3640E-03  0.0484
   2.6158E-02   2.6795E-02   1.5497E-03  0.0449
   2.6795E-02   2.7447E-02   1.5077E-03  0.0450
   2.7447E-02   2.8114E-02   1.3752E-03  0.0466
   2.8114E-02   2.8799E-02   1.3592E-03  0.0463
   2.8799E-02   2.9499E-02   1.3713E-03  0.0455
   2.9499E-02   3.0217E-02   1.3323E-03  0.0456
   3.0217E-02   3.0952E-02   1.3981E-03  0.0441
   3.0952E-02   3.1705E-02   1.2604E-03  0.0458
   3.1705E-02   3.2477E-02   1.3082E-03  0.0445
   3.2477E-02   3.3267E-02   1.1167E-03  0.0475
   3.3267E-02   3.4076E-02   1.0686E-03  0.0480
   3.4076E-02   3.4905E-02   1.2262E-03  0.0443
   3.4905E-02   3.5755E-02   1.0657E-03  0.0469
   3.5755E-02   3.6625E-02   1.2295E-03  0.0432
   3.6625E-02   3.7516E-02   1.1543E-03  0.0440
   3.7516E-02   3.8428E-02   1.0626E-03  0.0452
   3.8428E-02   3.9363E-02   1.0647E-03  0.0447
   3.9363E-02   4.0321E-02   1.0419E-03  0.0447
   4.0321E-02   4.1302E-02   1.0390E-03  0.0443
   4.1302E-02   4.2307E-02   9.8420E-04  0.0449
   4.2307E-02   4.3337E-02   9.8303E-04  0.0444
   4.3337E-02   4.4391E-02   9.9478E-04  0.0436
   4.4391E-02   4.5471E-02   9.9271E-04  0.0431
   4.5471E-02   4.6577E-02   9.7598E-04  0.0430
   4.6577E-02   4.7711E-02   9.5674E-04  0.0428
   4.7711E-02   4.8871E-02   8.9118E-04  0.0439
   4.8871E-02   5.0061E-02   8.7717E-04  0.0437
   5.0061E-02   5.1279E-02   9.6630E-04  0.0412
   5.1279E-02   5.2526E-02   8.8308E-04  0.0425
   5.2526E-02   5.3804E-02   8.7260E-04  0.0423
   5.3804E-02   5.5113E-02   8.4917E-04  0.0423
   5.5113E-02   5.6454E-02   7.7562E-04  0.0438
   5.6454E-02   5.7828E-02   7.5478E-04  0.0438
   5.7828E-02   5.9235E-02   7.3371E-04  0.0439
   5.9235E-02   6.0676E-02   7.5898E-04  0.0427
   6.0676E-02   6.2152E-02   7.2587E-04  0.0431
   6.2152E-02   6.3665E-02   7.3420E-04  0.0424
   6.3665E-02   6.5214E-02   6.7495E-04  0.0436
   6.5214E-02   6.6800E-02   6.9530E-04  0.0425
   6.6800E-02   6.8426E-02   7.1077E-04  0.0415
   6.8426E-02   7.0090E-02   6.8148E-04  0.0419
   7.0090E-02   7.1796E-02   6.9381E-04  0.0410
   7.1796E-02   7.3543E-02   6.1426E-04  0.0431
   7.3543E-02   7.5332E-02   6.5026E-04  0.0414
   7.5332E-02   7.7165E-02   6.5107E-04  0.0409
   7.7165E-02   7.9042E-02   6.4700E-04  0.0405
   7.9042E-02   8.0965E-02   6.0624E-04  0.0413
   8.0965E-02   8.2935E-02   5.7503E-04  0.0419
   8.2935E-02   8.4953E-02   6.3519E-04  0.0394
   8.4953E-02   8.7020E-02   5.8463E-04  0.0406
   8.7020E-02   8.9138E-02   5.6868E-04  0.0407
   8.9138E-02   9.1306E-02   5.7155E-04  0.0401
   9.1306E-02   9.3528E-02   5.1440E-04  0.0418
   9.3528E-02   9.5804E-02   5.0561E-04  0.0416
   9.5804E-02   9.8134E-02   5.1791E-04  0.0407
   9.8134E-02   1.0052E-01   4.9595E-04  0.0410
   1.0052E-01   1.0297E-01   5.2826E-04  0.0393
   1.0297E-01   1.0547E-01   4.8294E-04  0.0406
   1.0547E-01   1.0804E-01   4.7780E-04  0.0403
   1.0804E-01   1.1067E-01   4.5517E-04  0.0408
   1.1067E-01   1.1336E-01   4.7354E-04  0.0396
   1.1336E-01   1.1612E-01   4.2437E-04  0.0412
   1.1612E-01   1.1894E-01   4.4121E-04  0.0400
   1.1894E-01   1.2184E-01   4.0799E-04  0.0411
   1.2184E-01   1.2480E-01   4.1776E-04  0.0401
   1.2480E-01   1.2784E-01   4.1891E-04  0.0396
   1.2784E-01   1.3095E-01   3.8478E-04  0.0408
   1.3095E-01   1.3414E-01   3.9227E-04  0.0399
   1.3414E-01   1.3740E-01   3.7757E-04  0.0402
   1.3740E-01   1.4074E-01   3.8690E-04  0.0393
   1.4074E-01   1.4417E-01   3.6299E-04  0.0400
   1.4417E-01   1.4767E-01   3.5478E-04  0.0400
   1.4767E-01   1.5127E-01   3.5958E-04  0.0393
   1.5127E-01   1.5495E-01   3.6108E-04  0.0387
   1.5495E-01   1.5872E-01   3.5215E-04  0.0388
   1.5872E-01   1.6258E-01   3.4628E-04  0.0386
   1.6258E-01   1.6654E-01   3.2523E-04  0.0394
   1.6654E-01   1.7059E-01   3.3150E-04  0.0385
   1.7059E-01   1.7474E-01   3.0079E-04  0.0400
   1.7474E-01   1.7899E-01   3.1029E-04  0.0389
   1.7899E-01   1.8334E-01   2.9460E-04  0.0394
   1.8334E-01   1.8781E-01   2.8947E-04  0.0393
   1.8781E-01   1.9237E-01   2.9199E-04  0.0386
   1.9237E-01   1.9706E-01   2.8975E-04  0.0383
   1.9706E-01   2.0185E-01   2.6500E-04  0.0396
   2.0185E-01   2.0676E-01   3.1475E-04  0.0359
   2.0676E-01   2.1179E-01   2.9144E-04  0.0369
   2.1179E-01   2.1694E-01   3.0127E-04  0.0358
   2.1694E-01   2.2222E-01   3.1214E-04  0.0348
   2.2222E-01   2.2763E-01   3.1557E-04  0.0341
   2.2763E-01   2.3317E-01   3.1612E-04  0.0337
   2.3317E-01   2.3884E-01   3.4506E-04  0.0319
   2.3884E-01   2.4465E-01   3.3844E-04  0.0318
   2.4465E-01   2.5061E-01   3.6694E-04  0.0302
   2.5061E-01   2.5670E-01   3.7672E-04  0.0295
   2.5670E-01   2.6295E-01   3.8199E-04  0.0289
   2.6295E-01   2.6935E-01   3.8309E-04  0.0285
   2.6935E-01   2.7590E-01   3.7585E-04  0.0284
   2.7590E-01   2.8261E-01   3.9661E-04  0.0273
   2.8261E-01   2.8949E-01   4.3647E-04  0.0258
   2.8949E-01   2.9653E-01   4.1041E-04  0.0262
   2.9653E-01   3.0375E-01   4.1862E-04  0.0257
   3.0375E-01   3.1114E-01   4.3550E-04  0.0249
   3.1114E-01   3.1871E-01   4.4067E-04  0.0244
   3.1871E-01   3.2646E-01   4.6372E-04  0.0235
   3.2646E-01   3.3441E-01   4.3586E-04  0.0240
   3.3441E-01   3.4254E-01   4.6582E-04  0.0229
   3.4254E-01   3.5088E-01   4.7958E-04  0.0223
   3.5088E-01   3.5941E-01   4.6798E-04  0.0223
   3.5941E-01   3.6816E-01   5.0083E-04  0.0213
   3.6816E-01   3.7712E-01   5.1451E-04  0.0208
   3.7712E-01   3.8629E-01   5.0499E-04  0.0207
   3.8629E-01   3.9569E-01   5.1756E-04  0.0202
   3.9569E-01   4.0532E-01   5.3281E-04  0.0197
   4.0532E-01   4.1518E-01   5.3691E-04  0.0194
   4.1518E-01   4.2528E-01   5.5636E-04  0.0188
   4.2528E-01   4.3563E-01   5.5779E-04  0.0186
   4.3563E-01   4.4623E-01   5.6186E-04  0.0183
   4.4623E-01   4.5708E-01   5.8653E-04  0.0177
   4.5708E-01   4.6821E-01   5.8836E-04  0.0174
   4.6821E-01   4.7960E-01   5.9808E-04  0.0171
   4.7960E-01   4.9127E-01   5.9200E-04  0.0170
   4.9127E-01   5.0322E-01   6.0559E-04  0.0166
   5.0322E-01   5.1546E-01   6.2625E-04  0.0161
   5.1546E-01   5.2800E-01   6.2366E-04  0.0160
   5.2800E-01   5.4085E-01   6.2254E-04  0.0158
   5.4085E-01   5.5401E-01   6.2818E-04  0.0155
   5.5401E-01   5.6749E-01   6.3505E-04  0.0153
   5.6749E-01   5.8130E-01   6.6689E-04  0.0147
   5.8130E-01   5.9544E-01   6.5990E-04  0.0146
   5.9544E-01   6.0993E-01   6.6813E-04  0.0143
   6.0993E-01   6.2477E-01   6.6740E-04  0.0142
   6.2477E-01   6.3997E-01   6.6498E-04  0.0140
   6.3997E-01   6.5554E-01   6.7877E-04  0.0137
   6.5554E-01   6.7149E-01   7.0460E-04  0.0133
   6.7149E-01   6.8783E-01   6.9159E-04  0.0133
   6.8783E-01   7.0456E-01   6.9243E-04  0.0131
   7.0456E-01   7.2171E-01   7.1042E-04  0.0128
   7.2171E-01   7.3927E-01   6.9994E-04  0.0127
   7.3927E-01   7.5725E-01   6.9653E-04  0.0126
   7.5725E-01   7.7568E-01   7.1504E-04  0.0123
   7.7568E-01   7.9455E-01   7.1696E-04  0.0121
   7.9455E-01   8.1388E-01   7.2492E-04  0.0119
   8.1388E-01   8.3368E-01   7.3056E-04  0.0117
   8.3368E-01   8.5397E-01   7.2379E-04  0.0116
   8.5397E-01   8.7475E-01   7.3087E-04  0.0115
   8.7475E-01   8.9603E-01   7.2496E-04  0.0114
   8.9603E-01   9.1783E-01   7.2643E-04  0.0112
   9.1783E-01   9.4016E-01   7.5989E-04  0.0108
   9.4016E-01   9.6304E-01   7.5705E-04  0.0107
   9.6304E-01   9.8647E-01   7.4438E-04  0.0107
   9.8647E-01   1.0105E+00   7.4793E-04  0.0105
   1.0105E+00   1.0351E+00   7.5664E-04  0.0103
   1.0351E+00   1.0602E+00   7.5155E-04  0.0103
   1.0602E+00   1.0860E+00   7.5099E-04  0.0101
   1.0860E+00   1.1125E+00   7.5514E-04  0.0100
   1.1125E+00   1.1395E+00   7.3625E-04  0.0100
   1.1395E+00   1.1673E+00   7.4318E-04  0.0098
   1.1673E+00   1.1957E+00   7.4659E-04  0.0097
   1.1957E+00   1.2247E+00   7.4465E-04  0.0096
   1.2247E+00   1.2545E+00   7.4923E-04  0.0094
   1.2545E+00   1.2851E+00   7.4670E-04  0.0093
   1.2851E+00   1.3163E+00   7.3609E-04  0.0093
   1.3163E+00   1.3484E+00   7.3578E-04  0.0092
   1.3484E+00   1.3812E+00   7.3881E-04  0.0091
   1.3812E+00   1.4148E+00   7.3447E-04  0.0090
   1.4148E+00   1.4492E+00   7.4102E-04  0.0088
   1.4492E+00   1.4845E+00   7.3027E-04  0.0088
   1.4845E+00   1.5206E+00   7.3301E-04  0.0087
   1.5206E+00   1.5576E+00   7.1140E-04  0.0087
   1.5576E+00   1.5955E+00   7.1236E-04  0.0086
   1.5955E+00   1.6343E+00   6.9293E-04  0.0086
   1.6343E+00   1.6741E+00   7.0180E-04  0.0084
   1.6741E+00   1.7148E+00   7.0236E-04  0.0083
   1.7148E+00   1.7565E+00   6.8335E-04  0.0084
   1.7565E+00   1.7992E+00   6.8019E-04  0.0083
   1.7992E+00   1.8430E+00   6.7547E-04  0.0082
   1.8430E+00   1.8879E+00   6.6990E-04  0.0081
   1.8879E+00   1.9338E+00   6.5553E-04  0.0081
   1.9338E+00   1.9808E+00   6.4586E-04  0.0081
   1.9808E+00   2.0290E+00   6.4009E-04  0.0080
   2.0290E+00   2.0784E+00   6.3922E-04  0.0079
   2.0784E+00   2.1290E+00   6.3170E-04  0.0079
   2.1290E+00   2.1808E+00   6.2517E-04  0.0078
   2.1808E+00   2.2338E+00   6.1606E-04  0.0078
   2.2338E+00   2.2882E+00   6.0197E-04  0.0078
   2.2882E+00   2.3439E+00   6.0386E-04  0.0077
   2.3439E+00   2.4009E+00   5.9078E-04  0.0077
   2.4009E+00   2.4593E+00   5.8789E-04  0.0076
   2.4593E+00   2.5191E+00   5.6944E-04  0.0076
   2.5191E+00   2.5804E+00   5.6122E-04  0.0076
   2.5804E+00   2.6432E+00   5.5949E-04  0.0075
   2.6432E+00   2.7075E+00   5.4920E-04  0.0075
   2.7075E+00   2.7734E+00   5.4745E-04  0.0074
   2.7734E+00   2.8409E+00   5.3142E-04  0.0074
   2.8409E+00   2.9100E+00   5.2896E-04  0.0074
   2.9100E+00   2.9808E+00   5.1465E-04  0.0074
   2.9808E+00   3.0533E+00   5.1338E-04  0.0073
   3.0533E+00   3.1276E+00   5.0224E-04  0.0073
   3.1276E+00   3.2037E+00   5.0153E-04  0.0072
   3.2037E+00   3.2817E+00   4.8804E-04  0.0072
   3.2817E+00   3.3615E+00   4.7627E-04  0.0072
   3.3615E+00   3.4433E+00   4.6660E-04  0.0072
   3.4433E+00   3.5271E+00   4.6904E-04  0.0071
   3.5271E+00   3.6129E+00   4.6133E-04  0.0071
   3.6129E+00   3.7008E+00   4.5177E-04  0.0071
   3.7008E+00   3.7908E+00   4.4502E-04  0.0070
   3.7908E+00   3.8831E+00   4.3428E-04  0.0070
   3.8831E+00   3.9776E+00   4.2721E-04  0.0070
   3.9776E+00   4.0743E+00   4.2675E-04  0.0069
   4.0743E+00   4.1735E+00   4.2167E-04  0.0069
   4.1735E+00   4.2750E+00   4.1512E-04  0.0069
   4.2750E+00   4.3790E+00   4.1355E-04  0.0068
   4.3790E+00   4.4856E+00   4.1053E-04  0.0067
   4.4856E+00   4.5947E+00   4.2035E-04  0.0066
   4.5947E+00   4.7065E+00   4.2719E-04  0.0065
   4.7065E+00   4.8210E+00   4.3751E-04  0.0063
   4.8210E+00   4.9383E+00   4.3792E-04  0.0062
   4.9383E+00   5.0585E+00   4.3467E-04  0.0062
   5.0585E+00   5.1815E+00   4.4226E-04  0.0060
   5.1815E+00   5.3076E+00   4.3220E-04  0.0060
   5.3076E+00   5.4368E+00   4.2921E-04  0.0060
   5.4368E+00   5.5690E+00   4.2431E-04  0.0060
   5.5690E+00   5.7045E+00   4.1898E-04  0.0059
   5.7045E+00   5.8433E+00   4.1134E-04  0.0059
   5.8433E+00   5.9855E+00   4.1281E-04  0.0058
   5.9855E+00   6.1311E+00   4.0316E-04  0.0058
   6.1311E+00   6.2803E+00   3.9986E-04  0.0058
   6.2803E+00   6.4331E+00   3.9329E-04  0.0058
   6.4331E+00   6.5896E+00   3.8713E-04  0.0057
   6.5896E+00   6.7500E+00   3.8779E-04  0.0057
   6.7500E+00   6.9142E+00   3.7904E-04  0.0057
   6.9142E+00   7.0824E+00   3.8096E-04  0.0056
   7.0824E+00   7.2548E+00   3.7975E-04  0.0055
   7.2548E+00   7.4313E+00   3.7909E-04  0.0055
   7.4313E+00   7.6121E+00   3.7442E-04  0.0054
   7.6121E+00   7.7973E+00   3.6726E-04  0.0054
   7.7973E+00   7.9870E+00   3.6417E-04  0.0054
   7.9870E+00   8.1813E+00   3.6333E-04  0.0053
   8.1813E+00   8.3804E+00   3.5602E-04  0.0053
   8.3804E+00   8.5843E+00   3.5212E-04  0.0053
   8.5843E+00   8.7931E+00   3.4929E-04  0.0052
   8.7931E+00   9.0071E+00   3.4526E-04  0.0052
   9.0071E+00   9.2262E+00   3.4707E-04  0.0051
   9.2262E+00   9.4507E+00   3.3860E-04  0.0051
   9.4507E+00   9.6807E+00   3.3454E-04  0.0051
   9.6807E+00   9.9162E+00   3.3215E-04  0.0051
   9.9162E+00   1.0157E+01   3.2880E-04  0.0050
   1.0157E+01   1.0405E+01   3.2473E-04  0.0050
   1.0405E+01   1.0658E+01   3.2383E-04  0.0049
   1.0658E+01   1.0917E+01   3.1894E-04  0.0049
   1.0917E+01   1.1183E+01   3.1861E-04  0.0049
   1.1183E+01   1.1455E+01   3.1580E-04  0.0048
   1.1455E+01   1.1733E+01   3.1105E-04  0.0048
   1.1733E+01   1.2019E+01   3.1057E-04  0.0047
   1.2019E+01   1.2311E+01   3.0153E-04  0.0048
   1.2311E+01   1.2611E+01   2.9900E-04  0.0047
   1.2611E+01   1.2918E+01   2.9860E-04  0.0047
   1.2918E+01   1.3232E+01   2.9348E-04  0.0047
   1.3232E+01   1.3554E+01   2.8895E-04  0.0046
   1.3554E+01   1.3884E+01   2.8770E-04  0.0046
   1.3884E+01   1.4222E+01   2.8419E-04  0.0046
   1.4222E+01   1.4568E+01   2.7594E-04  0.0046
   1.4568E+01   1.4922E+01   2.7407E-04  0.0045
   1.4922E+01   1.5285E+01   2.6742E-04  0.0045
   1.5285E+01   1.5657E+01   2.6488E-04  0.0045
   1.5657E+01   1.6038E+01   2.6163E-04  0.0045
   1.6038E+01   1.6428E+01   2.5686E-04  0.0045
   1.6428E+01   1.6828E+01   2.5319E-04  0.0044
   1.6828E+01   1.7237E+01   2.4735E-04  0.0044
   1.7237E+01   1.7657E+01   2.4489E-04  0.0044
   1.7657E+01   1.8086E+01   2.3996E-04  0.0044
   1.8086E+01   1.8526E+01   2.3645E-04  0.0044
   1.8526E+01   1.8977E+01   2.2873E-04  0.0044
   1.8977E+01   1.9439E+01   2.2658E-04  0.0044
   1.9439E+01   1.9912E+01   2.2296E-04  0.0044
   1.9912E+01   2.0396E+01   2.2040E-04  0.0043
   2.0396E+01   2.0893E+01   2.1573E-04  0.0043
   2.0893E+01   2.1401E+01   2.0988E-04  0.0043
   2.1401E+01   2.1922E+01   2.0363E-04  0.0043
   2.1922E+01   2.2455E+01   1.9932E-04  0.0043
   2.2455E+01   2.3001E+01   1.9336E-04  0.0044
   2.3001E+01   2.3561E+01   1.8674E-04  0.0044
   2.3561E+01   2.4134E+01   1.7895E-04  0.0044
   2.4134E+01   2.4721E+01   1.7373E-04  0.0044
   2.4721E+01   2.5323E+01   1.6773E-04  0.0045
   2.5323E+01   2.5939E+01   1.6138E-04  0.0045
   2.5939E+01   2.6570E+01   1.5441E-04  0.0045
   2.6570E+01   2.7217E+01   1.4797E-04  0.0046
   2.7217E+01   2.7879E+01   1.4057E-04  0.0046
   2.7879E+01   2.8557E+01   1.3486E-04  0.0047
   2.8557E+01   2.9252E+01   1.2761E-04  0.0047
   2.9252E+01   2.9964E+01   1.2212E-04  0.0048
   2.9964E+01   3.0693E+01   1.1474E-04  0.0049
   3.0693E+01   3.1440E+01   1.0991E-04  0.0049
   3.1440E+01   3.2205E+01   1.0346E-04  0.0050
   3.2205E+01   3.2988E+01   9.6975E-05  0.0051
   3.2988E+01   3.3791E+01   9.0610E-05  0.0052
   3.3791E+01   3.4613E+01   8.4373E-05  0.0054
   3.4613E+01   3.5455E+01   7.9895E-05  0.0055
   3.5455E+01   3.6318E+01   7.4111E-05  0.0056
   3.6318E+01   3.7201E+01   6.8528E-05  0.0057
   3.7201E+01   3.8106E+01   6.3361E-05  0.0059
   3.8106E+01   3.9034E+01   5.8771E-05  0.0061
   3.9034E+01   3.9983E+01   5.2873E-05  0.0063
   3.9983E+01   4.0956E+01   5.0044E-05  0.0064
   4.0956E+01   4.1953E+01   4.6055E-05  0.0066
   4.1953E+01   4.2973E+01   4.2167E-05  0.0068
   4.2973E+01   4.4019E+01   3.8453E-05  0.0071
   4.4019E+01   4.5090E+01   3.5747E-05  0.0072
   4.5090E+01   4.6187E+01   3.1817E-05  0.0076
   4.6187E+01   4.7311E+01   2.9366E-05  0.0078
   4.7311E+01   4.8462E+01   2.6143E-05  0.0082
   4.8462E+01   4.9641E+01   2.4216E-05  0.0084
   4.9641E+01   5.0849E+01   2.1810E-05  0.0087
   5.0849E+01   5.2086E+01   1.9678E-05  0.0091
   5.2086E+01   5.3353E+01   1.8127E-05  0.0093
   5.3353E+01   5.4651E+01   1.6123E-05  0.0098
   5.4651E+01   5.5981E+01   1.4511E-05  0.0102
   5.5981E+01   5.7343E+01   1.3162E-05  0.0106
   5.7343E+01   5.8738E+01   1.1585E-05  0.0111
   5.8738E+01   6.0168E+01   1.0683E-05  0.0114
   6.0168E+01   6.1632E+01   9.5674E-06  0.0119
   6.1632E+01   6.3131E+01   8.5906E-06  0.0125
   6.3131E+01   6.4667E+01   7.9907E-06  0.0128
   6.4667E+01   6.6240E+01   7.2785E-06  0.0132
   6.6240E+01   6.7852E+01   6.4951E-06  0.0138
   6.7852E+01   6.9503E+01   6.0161E-06  0.0142
   6.9503E+01   7.1194E+01   5.4865E-06  0.0147
   7.1194E+01   7.2926E+01   4.9197E-06  0.0153
   7.2926E+01   7.4701E+01   4.5831E-06  0.0157
   7.4701E+01   7.6518E+01   4.2211E-06  0.0161
   7.6518E+01   7.8380E+01   3.5504E-06  0.0174
   7.8380E+01   8.0287E+01   2.9417E-06  0.0189
   8.0287E+01   8.2240E+01   2.4029E-06  0.0206
   8.2240E+01   8.4241E+01   1.8681E-06  0.0231
   8.4241E+01   8.6291E+01   1.5456E-06  0.0251
   8.6291E+01   8.8391E+01   1.1412E-06  0.0289
   8.8391E+01   9.0541E+01   6.2866E-07  0.0385
   9.0541E+01   9.2744E+01   2.1063E-07  0.0657
   9.2744E+01   9.5001E+01   1.6840E-08  0.2294
   9.5001E+01   9.7312E+01   8.6526E-10  1.0000
   9.7312E+01   9.9680E+01   0.0000E+00  0.0000
   9.9680E+01   1.0211E+02   0.0000E+00  0.0000
   1.0211E+02   1.0459E+02   0.0000E+00  0.0000
   1.0459E+02   1.0713E+02   0.0000E+00  0.0000
   1.0713E+02   1.0974E+02   0.0000E+00  0.0000
   1.0974E+02   1.1241E+02   0.0000E+00  0.0000
   1.1241E+02   1.1515E+02   0.0000E+00  0.0000
   1.1515E+02   1.1795E+02   0.0000E+00  0.0000
   1.1795E+02   1.2082E+02   0.0000E+00  0.0000
   1.2082E+02   1.2376E+02   0.0000E+00  0.0000
   1.2376E+02   1.2677E+02   0.0000E+00  0.0000
   1.2677E+02   1.2985E+02   0.0000E+00  0.0000
   1.2985E+02   1.3301E+02   0.0000E+00  0.0000
   1.3301E+02   1.3625E+02   0.0000E+00  0.0000
   1.3625E+02   1.3956E+02   0.0000E+00  0.0000
   1.3956E+02   1.4296E+02   0.0000E+00  0.0000
   1.4296E+02   1.4644E+02   0.0000E+00  0.0000
   1.4644E+02   1.5000E+02   0.0000E+00  0.0000

#   sum over                 7.0245E-05
'no. =    1   reg = 108 - 208'
msuc: {\huge [t-cross] in region mesh}
msdr: {\it plotted by \ANGEL \version}
msdl: {\it calculated by \PHITS  3.26}
wt: s(0.7)
\vspace{-3}
  region surface crossing
  area  &=&   1.0000E+00 [cm^2]
e:
 
# Information for Restart Calculation
# This calculation was newly started
# istdev =  2 # 1:Batch variance, 2:History variance
# resc2  = 5.00000000000000000E+08 # Total source weight or Total source weight / maxcas
# resc3  = 5.00000000000000000E+08 # Total history number or Total batch number
# maxcas =   500000000 # History / Batch, only used for istdev=1
# bitrseed = 1101101111010011011000101101110001100110110010110001010100010001 # bit data of rseed
