[ T-Cross ]
    title = [t-cross] in region mesh
     mesh =  reg            # mesh type is region-wise
      reg =    1            # number of crossing regions
      non     r-from    r-to       area
      1       121       221        1.000000    
   e-type =    3            # e-mesh is log given by emin, emax and ne
     emin =  1.0000000E-02  # minimum value of e-mesh points
     emax =   150.0000      # maximum value of e-mesh points
#    edel =  2.4039514E-02  # mesh width of e-mesh points
       ne =    400          # number of e-mesh points
#    data = ( e(i), i = 1, ne + 1 )
#           1.00000E-02  1.02433E-02  1.04925E-02  1.07478E-02  1.10093E-02
#           1.12772E-02  1.15516E-02  1.18326E-02  1.21205E-02  1.24154E-02
#           1.27175E-02  1.30269E-02  1.33439E-02  1.36686E-02  1.40011E-02
#           1.43418E-02  1.46907E-02  1.50482E-02  1.54143E-02  1.57894E-02
#           1.61735E-02  1.65670E-02  1.69701E-02  1.73830E-02  1.78060E-02
#           1.82392E-02  1.86830E-02  1.91375E-02  1.96032E-02  2.00801E-02
#           2.05687E-02  2.10692E-02  2.15818E-02  2.21069E-02  2.26448E-02
#           2.31957E-02  2.37601E-02  2.43382E-02  2.49304E-02  2.55369E-02
#           2.61583E-02  2.67947E-02  2.74467E-02  2.81145E-02  2.87985E-02
#           2.94992E-02  3.02169E-02  3.09521E-02  3.17052E-02  3.24766E-02
#           3.32668E-02  3.40762E-02  3.49053E-02  3.57546E-02  3.66246E-02
#           3.75157E-02  3.84284E-02  3.93634E-02  4.03212E-02  4.13022E-02
#           4.23071E-02  4.33365E-02  4.43909E-02  4.54710E-02  4.65773E-02
#           4.77106E-02  4.88714E-02  5.00605E-02  5.12785E-02  5.25262E-02
#           5.38042E-02  5.51133E-02  5.64542E-02  5.78278E-02  5.92348E-02
#           6.06760E-02  6.21523E-02  6.36645E-02  6.52135E-02  6.68002E-02
#           6.84255E-02  7.00904E-02  7.17957E-02  7.35426E-02  7.53319E-02
#           7.71648E-02  7.90423E-02  8.09655E-02  8.29354E-02  8.49533E-02
#           8.70203E-02  8.91376E-02  9.13064E-02  9.35279E-02  9.58035E-02
#           9.81345E-02  1.00522E-01  1.02968E-01  1.05473E-01  1.08040E-01
#           1.10668E-01  1.13361E-01  1.16119E-01  1.18944E-01  1.21838E-01
#           1.24803E-01  1.27839E-01  1.30950E-01  1.34136E-01  1.37399E-01
#           1.40742E-01  1.44167E-01  1.47675E-01  1.51268E-01  1.54948E-01
#           1.58718E-01  1.62580E-01  1.66535E-01  1.70587E-01  1.74738E-01
#           1.78989E-01  1.83344E-01  1.87805E-01  1.92375E-01  1.97055E-01
#           2.01850E-01  2.06761E-01  2.11792E-01  2.16945E-01  2.22223E-01
#           2.27630E-01  2.33169E-01  2.38842E-01  2.44653E-01  2.50605E-01
#           2.56703E-01  2.62949E-01  2.69346E-01  2.75900E-01  2.82613E-01
#           2.89489E-01  2.96532E-01  3.03747E-01  3.11138E-01  3.18708E-01
#           3.26462E-01  3.34405E-01  3.42542E-01  3.50876E-01  3.59413E-01
#           3.68158E-01  3.77116E-01  3.86291E-01  3.95690E-01  4.05317E-01
#           4.15179E-01  4.25281E-01  4.35628E-01  4.46227E-01  4.57084E-01
#           4.68205E-01  4.79597E-01  4.91266E-01  5.03219E-01  5.15463E-01
#           5.28005E-01  5.40851E-01  5.54011E-01  5.67490E-01  5.81298E-01
#           5.95441E-01  6.09929E-01  6.24769E-01  6.39970E-01  6.55541E-01
#           6.71491E-01  6.87828E-01  7.04564E-01  7.21706E-01  7.39266E-01
#           7.57253E-01  7.75678E-01  7.94551E-01  8.13883E-01  8.33685E-01
#           8.53969E-01  8.74747E-01  8.96030E-01  9.17831E-01  9.40163E-01
#           9.63038E-01  9.86469E-01  1.01047E+00  1.03506E+00  1.06024E+00
#           1.08604E+00  1.11246E+00  1.13953E+00  1.16725E+00  1.19565E+00
#           1.22474E+00  1.25454E+00  1.28507E+00  1.31633E+00  1.34836E+00
#           1.38117E+00  1.41477E+00  1.44920E+00  1.48446E+00  1.52057E+00
#           1.55757E+00  1.59547E+00  1.63429E+00  1.67405E+00  1.71478E+00
#           1.75650E+00  1.79924E+00  1.84302E+00  1.88786E+00  1.93379E+00
#           1.98084E+00  2.02904E+00  2.07841E+00  2.12898E+00  2.18078E+00
#           2.23384E+00  2.28819E+00  2.34386E+00  2.40089E+00  2.45930E+00
#           2.51914E+00  2.58043E+00  2.64322E+00  2.70753E+00  2.77341E+00
#           2.84088E+00  2.91001E+00  2.98081E+00  3.05333E+00  3.12762E+00
#           3.20372E+00  3.28167E+00  3.36152E+00  3.44330E+00  3.52708E+00
#           3.61290E+00  3.70080E+00  3.79085E+00  3.88308E+00  3.97756E+00
#           4.07434E+00  4.17347E+00  4.27501E+00  4.37903E+00  4.48557E+00
#           4.59471E+00  4.70650E+00  4.82102E+00  4.93832E+00  5.05847E+00
#           5.18155E+00  5.30762E+00  5.43676E+00  5.56904E+00  5.70453E+00
#           5.84333E+00  5.98550E+00  6.13114E+00  6.28031E+00  6.43312E+00
#           6.58964E+00  6.74997E+00  6.91420E+00  7.08243E+00  7.25475E+00
#           7.43126E+00  7.61207E+00  7.79728E+00  7.98700E+00  8.18133E+00
#           8.38038E+00  8.58428E+00  8.79315E+00  9.00709E+00  9.22624E+00
#           9.45072E+00  9.68067E+00  9.91620E+00  1.01575E+01  1.04046E+01
#           1.06578E+01  1.09171E+01  1.11827E+01  1.14548E+01  1.17335E+01
#           1.20190E+01  1.23114E+01  1.26109E+01  1.29178E+01  1.32321E+01
#           1.35540E+01  1.38838E+01  1.42216E+01  1.45676E+01  1.49221E+01
#           1.52851E+01  1.56570E+01  1.60380E+01  1.64282E+01  1.68279E+01
#           1.72374E+01  1.76568E+01  1.80864E+01  1.85264E+01  1.89772E+01
#           1.94389E+01  1.99119E+01  2.03963E+01  2.08926E+01  2.14009E+01
#           2.19216E+01  2.24550E+01  2.30014E+01  2.35610E+01  2.41343E+01
#           2.47215E+01  2.53230E+01  2.59391E+01  2.65702E+01  2.72167E+01
#           2.78789E+01  2.85572E+01  2.92520E+01  2.99637E+01  3.06928E+01
#           3.14396E+01  3.22045E+01  3.29881E+01  3.37907E+01  3.46128E+01
#           3.54550E+01  3.63177E+01  3.72013E+01  3.81064E+01  3.90336E+01
#           3.99833E+01  4.09561E+01  4.19526E+01  4.29734E+01  4.40189E+01
#           4.50900E+01  4.61870E+01  4.73108E+01  4.84619E+01  4.96410E+01
#           5.08488E+01  5.20860E+01  5.33533E+01  5.46514E+01  5.59812E+01
#           5.73432E+01  5.87384E+01  6.01676E+01  6.16315E+01  6.31311E+01
#           6.46671E+01  6.62405E+01  6.78522E+01  6.95031E+01  7.11941E+01
#           7.29263E+01  7.47007E+01  7.65182E+01  7.83800E+01  8.02870E+01
#           8.22405E+01  8.42414E+01  8.62911E+01  8.83906E+01  9.05412E+01
#           9.27442E+01  9.50007E+01  9.73122E+01  9.96799E+01  1.02105E+02
#           1.04589E+02  1.07134E+02  1.09741E+02  1.12411E+02  1.15146E+02
#           1.17948E+02  1.20817E+02  1.23757E+02  1.26768E+02  1.29852E+02
#           1.33012E+02  1.36248E+02  1.39563E+02  1.42959E+02  1.46437E+02
#           1.50000E+02
     unit =    2            # unit is [1/cm^2/(MeV/n)/source]
     axis =  eng            # axis of output
     file = detector-22.out  # file name of output for the above axis
   output = f-curr          # surface crossing forward current spectrum
     part =  neutron  
# kf/name :  2112     
#    used :        main (  %)        temp (  %)       total (  %)
#  memory :         414 (  0)           0 (  0)         414 (  0)

#------------------------------------------------------------------------------
#newpage:
#   no. =    1   reg = 121 - 221

x: Energy [MeV/n]
y:  F-Curr [1/cm^2/(MeV/n)/source]         
p: xlog ylog afac(0.8) form(0.9)
h: n            x            y(neutron ),hh0l   n 
#  e-lower      e-upper      neutron     r.err 
   1.0000E-02   1.0243E-02   7.3450E-04  0.1056
   1.0243E-02   1.0493E-02   6.3396E-04  0.1125
   1.0493E-02   1.0748E-02   6.3143E-04  0.1111
   1.0748E-02   1.1009E-02   5.9886E-04  0.1128
   1.1009E-02   1.1277E-02   5.3241E-04  0.1182
   1.1277E-02   1.1552E-02   5.3939E-04  0.1162
   1.1552E-02   1.1833E-02   4.9650E-04  0.1193
   1.1833E-02   1.2121E-02   7.1782E-04  0.0982
   1.2121E-02   1.2415E-02   5.8780E-04  0.1069
   1.2415E-02   1.2718E-02   6.0777E-04  0.1041
   1.2718E-02   1.3027E-02   4.6877E-04  0.1171
   1.3027E-02   1.3344E-02   5.0051E-04  0.1121
   1.3344E-02   1.3669E-02   5.7415E-04  0.1035
   1.3669E-02   1.4001E-02   4.6992E-04  0.1127
   1.4001E-02   1.4342E-02   4.4801E-04  0.1143
   1.4342E-02   1.4691E-02   4.5355E-04  0.1123
   1.4691E-02   1.5048E-02   3.9727E-04  0.1187
   1.5048E-02   1.5414E-02   5.1440E-04  0.1030
   1.5414E-02   1.5789E-02   4.2049E-04  0.1122
   1.5789E-02   1.6174E-02   4.5101E-04  0.1072
   1.6174E-02   1.6567E-02   4.3886E-04  0.1074
   1.6567E-02   1.6970E-02   3.8786E-04  0.1130
   1.6970E-02   1.7383E-02   4.2141E-04  0.1072
   1.7383E-02   1.7806E-02   4.2155E-04  0.1058
   1.7806E-02   1.8239E-02   3.9701E-04  0.1078
   1.8239E-02   1.8683E-02   4.6508E-04  0.0980
   1.8683E-02   1.9138E-02   4.0918E-04  0.1037
   1.9138E-02   1.9603E-02   4.2151E-04  0.1009
   1.9603E-02   2.0080E-02   3.5708E-04  0.1083
   2.0080E-02   2.0569E-02   3.2081E-04  0.1127
   2.0569E-02   2.1069E-02   3.7242E-04  0.1035
   2.1069E-02   2.1582E-02   3.5113E-04  0.1054
   2.1582E-02   2.2107E-02   2.5835E-04  0.1209
   2.2107E-02   2.2645E-02   3.4314E-04  0.1040
   2.2645E-02   2.3196E-02   3.9204E-04  0.0960
   2.3196E-02   2.3760E-02   3.3007E-04  0.1035
   2.3760E-02   2.4338E-02   3.2927E-04  0.1024
   2.4338E-02   2.4930E-02   2.7126E-04  0.1114
   2.4930E-02   2.5537E-02   3.5734E-04  0.0959
   2.5537E-02   2.6158E-02   3.2929E-04  0.0987
   2.6158E-02   2.6795E-02   2.8016E-04  0.1055
   2.6795E-02   2.7447E-02   2.6269E-04  0.1078
   2.7447E-02   2.8114E-02   3.0388E-04  0.0991
   2.8114E-02   2.8799E-02   2.3483E-04  0.1114
   2.8799E-02   2.9499E-02   2.6117E-04  0.1044
   2.9499E-02   3.0217E-02   2.8091E-04  0.0993
   3.0217E-02   3.0952E-02   2.6485E-04  0.1012
   3.0952E-02   3.1705E-02   2.6328E-04  0.1004
   3.1705E-02   3.2477E-02   2.5632E-04  0.1000
   3.2477E-02   3.3267E-02   2.6576E-04  0.0976
   3.3267E-02   3.4076E-02   2.8910E-04  0.0925
   3.4076E-02   3.4905E-02   2.0180E-04  0.1091
   3.4905E-02   3.5755E-02   2.2331E-04  0.1024
   3.5755E-02   3.6625E-02   2.2332E-04  0.1011
   3.6625E-02   3.7516E-02   1.7599E-04  0.1127
   3.7516E-02   3.8428E-02   2.2568E-04  0.0983
   3.8428E-02   3.9363E-02   2.2567E-04  0.0972
   3.9363E-02   4.0321E-02   2.0211E-04  0.1014
   4.0321E-02   4.1302E-02   2.1802E-04  0.0964
   4.1302E-02   4.2307E-02   2.1726E-04  0.0956
   4.2307E-02   4.3337E-02   2.1988E-04  0.0939
   4.3337E-02   4.4391E-02   2.0487E-04  0.0959
   4.4391E-02   4.5471E-02   2.0674E-04  0.0944
   4.5471E-02   4.6577E-02   1.5628E-04  0.1073
   4.6577E-02   4.7711E-02   1.6684E-04  0.1023
   4.7711E-02   4.8871E-02   2.2451E-04  0.0875
   4.8871E-02   5.0061E-02   1.6669E-04  0.1001
   5.0061E-02   5.1279E-02   1.6420E-04  0.1000
   5.1279E-02   5.2526E-02   1.9041E-04  0.0916
   5.2526E-02   5.3804E-02   1.8858E-04  0.0910
   5.3804E-02   5.5113E-02   1.7619E-04  0.0930
   5.5113E-02   5.6454E-02   1.4893E-04  0.0998
   5.6454E-02   5.7828E-02   1.7444E-04  0.0912
   5.7828E-02   5.9235E-02   1.6390E-04  0.0928
   5.9235E-02   6.0676E-02   1.3205E-04  0.1024
   6.0676E-02   6.2152E-02   1.4428E-04  0.0968
   6.2152E-02   6.3665E-02   1.3443E-04  0.0990
   6.3665E-02   6.5214E-02   1.3622E-04  0.0972
   6.5214E-02   6.6800E-02   1.2353E-04  0.1008
   6.6800E-02   6.8426E-02   1.2353E-04  0.0996
   6.8426E-02   7.0090E-02   1.4175E-04  0.0921
   7.0090E-02   7.1796E-02   1.4311E-04  0.0903
   7.1796E-02   7.3543E-02   1.1927E-04  0.0976
   7.3543E-02   7.5332E-02   1.2594E-04  0.0940
   7.5332E-02   7.7165E-02   1.3235E-04  0.0907
   7.7165E-02   7.9042E-02   1.2197E-04  0.0934
   7.9042E-02   8.0965E-02   9.9141E-05  0.1023
   8.0965E-02   8.2935E-02   1.4051E-04  0.0849
   8.2935E-02   8.4953E-02   1.2687E-04  0.0884
   8.4953E-02   8.7020E-02   1.2288E-04  0.0887
   8.7020E-02   8.9138E-02   1.0314E-04  0.0956
   8.9138E-02   9.1306E-02   1.0112E-04  0.0953
   9.1306E-02   9.3528E-02   1.0186E-04  0.0937
   9.3528E-02   9.5804E-02   1.0459E-04  0.0917
   9.5804E-02   9.8134E-02   9.1807E-05  0.0967
   9.8134E-02   1.0052E-01   8.8462E-05  0.0968
   1.0052E-01   1.0297E-01   1.0152E-04  0.0895
   1.0297E-01   1.0547E-01   9.8753E-05  0.0898
   1.0547E-01   1.0804E-01   9.3923E-05  0.0909
   1.0804E-01   1.1067E-01   7.8011E-05  0.0985
   1.1067E-01   1.1336E-01   9.4899E-05  0.0883
   1.1336E-01   1.1612E-01   8.3599E-05  0.0930
   1.1612E-01   1.1894E-01   7.7161E-05  0.0958
   1.1894E-01   1.2184E-01   8.0166E-05  0.0928
   1.2184E-01   1.2480E-01   7.5796E-05  0.0942
   1.2480E-01   1.2784E-01   8.2111E-05  0.0894
   1.2784E-01   1.3095E-01   7.1468E-05  0.0948
   1.3095E-01   1.3414E-01   6.9050E-05  0.0953
   1.3414E-01   1.3740E-01   7.6602E-05  0.0894
   1.3740E-01   1.4074E-01   6.5981E-05  0.0949
   1.4074E-01   1.4417E-01   6.1909E-05  0.0969
   1.4417E-01   1.4767E-01   6.3291E-05  0.0946
   1.4767E-01   1.5127E-01   6.9932E-05  0.0891
   1.5127E-01   1.5495E-01   6.1664E-05  0.0935
   1.5495E-01   1.5872E-01   5.4270E-05  0.0987
   1.5872E-01   1.6258E-01   5.8887E-05  0.0936
   1.6258E-01   1.6654E-01   5.9326E-05  0.0918
   1.6654E-01   1.7059E-01   4.5080E-05  0.1045
   1.7059E-01   1.7474E-01   5.0311E-05  0.0975
   1.7474E-01   1.7899E-01   5.3467E-05  0.0934
   1.7899E-01   1.8334E-01   5.4384E-05  0.0918
   1.8334E-01   1.8781E-01   4.6451E-05  0.0978
   1.8781E-01   1.9237E-01   5.1866E-05  0.0918
   1.9237E-01   1.9706E-01   4.8999E-05  0.0932
   1.9706E-01   2.0185E-01   3.7197E-05  0.1058
   2.0185E-01   2.0676E-01   4.4796E-05  0.0953
   2.0676E-01   2.1179E-01   4.3918E-05  0.0950
   2.1179E-01   2.1694E-01   4.4889E-05  0.0928
   2.1694E-01   2.2222E-01   4.8624E-05  0.0878
   2.2222E-01   2.2763E-01   4.8482E-05  0.0871
   2.2763E-01   2.3317E-01   4.9225E-05  0.0854
   2.3317E-01   2.3884E-01   5.5223E-05  0.0798
   2.3884E-01   2.4465E-01   5.2191E-05  0.0811
   2.4465E-01   2.5061E-01   5.7503E-05  0.0764
   2.5061E-01   2.5670E-01   5.9157E-05  0.0744
   2.5670E-01   2.6295E-01   5.8982E-05  0.0735
   2.6295E-01   2.6935E-01   6.2362E-05  0.0706
   2.6935E-01   2.7590E-01   5.9095E-05  0.0717
   2.7590E-01   2.8261E-01   6.9822E-05  0.0652
   2.8261E-01   2.8949E-01   6.5677E-05  0.0665
   2.8949E-01   2.9653E-01   6.2841E-05  0.0672
   2.9653E-01   3.0375E-01   6.6471E-05  0.0644
   3.0375E-01   3.1114E-01   6.1515E-05  0.0661
   3.1114E-01   3.1871E-01   6.6426E-05  0.0629
   3.1871E-01   3.2646E-01   6.9342E-05  0.0609
   3.2646E-01   3.3441E-01   5.7233E-05  0.0661
   3.3441E-01   3.4254E-01   6.9412E-05  0.0594
   3.4254E-01   3.5088E-01   6.5672E-05  0.0603
   3.5088E-01   3.5941E-01   6.4014E-05  0.0603
   3.5941E-01   3.6816E-01   6.8772E-05  0.0575
   3.6816E-01   3.7712E-01   6.9550E-05  0.0565
   3.7712E-01   3.8629E-01   6.4540E-05  0.0580
   3.8629E-01   3.9569E-01   6.3735E-05  0.0577
   3.9569E-01   4.0532E-01   7.0978E-05  0.0540
   4.0532E-01   4.1518E-01   7.1143E-05  0.0532
   4.1518E-01   4.2528E-01   6.6182E-05  0.0544
   4.2528E-01   4.3563E-01   6.6234E-05  0.0539
   4.3563E-01   4.4623E-01   6.8100E-05  0.0525
   4.4623E-01   4.5708E-01   6.2810E-05  0.0540
   4.5708E-01   4.6821E-01   6.5220E-05  0.0523
   4.6821E-01   4.7960E-01   6.5334E-05  0.0516
   4.7960E-01   4.9127E-01   6.5032E-05  0.0512
   4.9127E-01   5.0322E-01   6.3498E-05  0.0511
   5.0322E-01   5.1546E-01   5.9668E-05  0.0521
   5.1546E-01   5.2800E-01   6.1348E-05  0.0509
   5.2800E-01   5.4085E-01   6.1305E-05  0.0502
   5.4085E-01   5.5401E-01   6.7327E-05  0.0474
   5.5401E-01   5.6749E-01   6.2226E-05  0.0487
   5.6749E-01   5.8130E-01   5.9636E-05  0.0491
   5.8130E-01   5.9544E-01   6.1329E-05  0.0478
   5.9544E-01   6.0993E-01   5.8599E-05  0.0484
   6.0993E-01   6.2477E-01   6.3112E-05  0.0461
   6.2477E-01   6.3997E-01   5.7139E-05  0.0478
   6.3997E-01   6.5554E-01   5.8414E-05  0.0467
   6.5554E-01   6.7149E-01   5.9052E-05  0.0458
   6.7149E-01   6.8783E-01   5.2375E-05  0.0481
   6.8783E-01   7.0456E-01   5.4504E-05  0.0466
   7.0456E-01   7.2171E-01   4.7126E-05  0.0494
   7.2171E-01   7.3927E-01   5.3162E-05  0.0461
   7.3927E-01   7.5725E-01   5.2042E-05  0.0460
   7.5725E-01   7.7568E-01   5.0597E-05  0.0460
   7.7568E-01   7.9455E-01   4.7516E-05  0.0470
   7.9455E-01   8.1388E-01   4.3839E-05  0.0483
   8.1388E-01   8.3368E-01   4.9112E-05  0.0451
   8.3368E-01   8.5397E-01   4.3889E-05  0.0471
   8.5397E-01   8.7475E-01   4.5260E-05  0.0458
   8.7475E-01   8.9603E-01   4.7432E-05  0.0443
   8.9603E-01   9.1783E-01   3.7384E-05  0.0491
   9.1783E-01   9.4016E-01   4.0394E-05  0.0468
   9.4016E-01   9.6304E-01   4.3170E-05  0.0447
   9.6304E-01   9.8647E-01   4.2675E-05  0.0444
   9.8647E-01   1.0105E+00   3.9679E-05  0.0455
   1.0105E+00   1.0351E+00   3.7383E-05  0.0463
   1.0351E+00   1.0602E+00   3.6275E-05  0.0466
   1.0602E+00   1.0860E+00   3.4303E-05  0.0473
   1.0860E+00   1.1125E+00   3.3978E-05  0.0469
   1.1125E+00   1.1395E+00   3.4595E-05  0.0459
   1.1395E+00   1.1673E+00   3.1856E-05  0.0474
   1.1673E+00   1.1957E+00   3.3164E-05  0.0458
   1.1957E+00   1.2247E+00   3.0225E-05  0.0474
   1.2247E+00   1.2545E+00   3.5172E-05  0.0433
   1.2545E+00   1.2851E+00   3.3524E-05  0.0438
   1.2851E+00   1.3163E+00   2.9155E-05  0.0465
   1.3163E+00   1.3484E+00   3.0811E-05  0.0446
   1.3484E+00   1.3812E+00   2.8988E-05  0.0454
   1.3812E+00   1.4148E+00   2.8146E-05  0.0456
   1.4148E+00   1.4492E+00   2.8441E-05  0.0448
   1.4492E+00   1.4845E+00   2.8642E-05  0.0441
   1.4845E+00   1.5206E+00   2.6178E-05  0.0456
   1.5206E+00   1.5576E+00   2.5619E-05  0.0457
   1.5576E+00   1.5955E+00   2.4689E-05  0.0458
   1.5955E+00   1.6343E+00   2.5334E-05  0.0447
   1.6343E+00   1.6741E+00   2.4524E-05  0.0449
   1.6741E+00   1.7148E+00   2.5961E-05  0.0430
   1.7148E+00   1.7565E+00   2.3165E-05  0.0451
   1.7565E+00   1.7992E+00   2.2305E-05  0.0453
   1.7992E+00   1.8430E+00   2.1256E-05  0.0458
   1.8430E+00   1.8879E+00   1.9835E-05  0.0469
   1.8879E+00   1.9338E+00   1.9993E-05  0.0462
   1.9338E+00   1.9808E+00   2.1524E-05  0.0440
   1.9808E+00   2.0290E+00   2.0767E-05  0.0441
   2.0290E+00   2.0784E+00   1.9584E-05  0.0450
   2.0784E+00   2.1290E+00   2.1138E-05  0.0429
   2.1290E+00   2.1808E+00   2.0046E-05  0.0434
   2.1808E+00   2.2338E+00   2.0070E-05  0.0429
   2.2338E+00   2.2882E+00   1.8755E-05  0.0438
   2.2882E+00   2.3439E+00   1.9127E-05  0.0429
   2.3439E+00   2.4009E+00   1.8278E-05  0.0433
   2.4009E+00   2.4593E+00   1.7753E-05  0.0435
   2.4593E+00   2.5191E+00   1.9126E-05  0.0415
   2.5191E+00   2.5804E+00   1.9038E-05  0.0409
   2.5804E+00   2.6432E+00   1.5882E-05  0.0442
   2.6432E+00   2.7075E+00   1.8876E-05  0.0402
   2.7075E+00   2.7734E+00   1.6600E-05  0.0423
   2.7734E+00   2.8409E+00   1.8293E-05  0.0399
   2.8409E+00   2.9100E+00   1.7087E-05  0.0407
   2.9100E+00   2.9808E+00   1.7906E-05  0.0394
   2.9808E+00   3.0533E+00   1.6414E-05  0.0406
   3.0533E+00   3.1276E+00   1.5348E-05  0.0415
   3.1276E+00   3.2037E+00   1.5921E-05  0.0403
   3.2037E+00   3.2817E+00   1.6144E-05  0.0394
   3.2817E+00   3.3615E+00   1.5663E-05  0.0397
   3.3615E+00   3.4433E+00   1.4433E-05  0.0408
   3.4433E+00   3.5271E+00   1.4649E-05  0.0400
   3.5271E+00   3.6129E+00   1.5231E-05  0.0388
   3.6129E+00   3.7008E+00   1.5191E-05  0.0384
   3.7008E+00   3.7908E+00   1.3785E-05  0.0398
   3.7908E+00   3.8831E+00   1.3870E-05  0.0392
   3.8831E+00   3.9776E+00   1.3427E-05  0.0394
   3.9776E+00   4.0743E+00   1.3440E-05  0.0389
   4.0743E+00   4.1735E+00   1.3677E-05  0.0382
   4.1735E+00   4.2750E+00   1.2178E-05  0.0399
   4.2750E+00   4.3790E+00   1.2977E-05  0.0382
   4.3790E+00   4.4856E+00   1.3221E-05  0.0374
   4.4856E+00   4.5947E+00   1.3280E-05  0.0369
   4.5947E+00   4.7065E+00   1.1224E-05  0.0397
   4.7065E+00   4.8210E+00   1.0851E-05  0.0399
   4.8210E+00   4.9383E+00   1.1892E-05  0.0376
   4.9383E+00   5.0585E+00   1.0754E-05  0.0391
   5.0585E+00   5.1815E+00   1.0433E-05  0.0392
   5.1815E+00   5.3076E+00   1.0512E-05  0.0386
   5.3076E+00   5.4368E+00   9.8579E-06  0.0394
   5.4368E+00   5.5690E+00   9.9519E-06  0.0388
   5.5690E+00   5.7045E+00   9.6789E-06  0.0388
   5.7045E+00   5.8433E+00   9.0488E-06  0.0397
   5.8433E+00   5.9855E+00   8.8182E-06  0.0397
   5.9855E+00   6.1311E+00   8.7696E-06  0.0394
   6.1311E+00   6.2803E+00   8.5046E-06  0.0395
   6.2803E+00   6.4331E+00   8.3032E-06  0.0395
   6.4331E+00   6.5896E+00   7.8180E-06  0.0403
   6.5896E+00   6.7500E+00   8.5825E-06  0.0380
   6.7500E+00   6.9142E+00   7.6055E-06  0.0399
   6.9142E+00   7.0824E+00   7.3413E-06  0.0401
   7.0824E+00   7.2548E+00   7.1336E-06  0.0402
   7.2548E+00   7.4313E+00   6.9492E-06  0.0403
   7.4313E+00   7.6121E+00   6.8500E-06  0.0401
   7.6121E+00   7.7973E+00   6.3417E-06  0.0412
   7.7973E+00   7.9870E+00   6.4955E-06  0.0402
   7.9870E+00   8.1813E+00   6.1457E-06  0.0408
   8.1813E+00   8.3804E+00   5.8068E-06  0.0415
   8.3804E+00   8.5843E+00   6.2363E-06  0.0396
   8.5843E+00   8.7931E+00   5.7772E-06  0.0406
   8.7931E+00   9.0071E+00   5.0211E-06  0.0431
   9.0071E+00   9.2262E+00   5.2104E-06  0.0418
   9.2262E+00   9.4507E+00   4.8281E-06  0.0429
   9.4507E+00   9.6807E+00   4.7525E-06  0.0427
   9.6807E+00   9.9162E+00   4.2850E-06  0.0445
   9.9162E+00   1.0157E+01   4.1695E-06  0.0446
   1.0157E+01   1.0405E+01   4.4670E-06  0.0425
   1.0405E+01   1.0658E+01   4.5451E-06  0.0417
   1.0658E+01   1.0917E+01   4.3915E-06  0.0419
   1.0917E+01   1.1183E+01   4.4675E-06  0.0410
   1.1183E+01   1.1455E+01   4.0888E-06  0.0424
   1.1455E+01   1.1733E+01   3.7641E-06  0.0436
   1.1733E+01   1.2019E+01   3.5928E-06  0.0441
   1.2019E+01   1.2311E+01   3.4423E-06  0.0445
   1.2311E+01   1.2611E+01   3.1379E-06  0.0461
   1.2611E+01   1.2918E+01   3.2188E-06  0.0449
   1.2918E+01   1.3232E+01   2.8083E-06  0.0476
   1.3232E+01   1.3554E+01   3.1415E-06  0.0445
   1.3554E+01   1.3884E+01   2.3613E-06  0.0507
   1.3884E+01   1.4222E+01   2.5084E-06  0.0486
   1.4222E+01   1.4568E+01   2.1700E-06  0.0516
   1.4568E+01   1.4922E+01   2.0333E-06  0.0527
   1.4922E+01   1.5285E+01   1.8986E-06  0.0538
   1.5285E+01   1.5657E+01   1.6518E-06  0.0570
   1.5657E+01   1.6038E+01   1.6250E-06  0.0568
   1.6038E+01   1.6428E+01   1.5097E-06  0.0582
   1.6428E+01   1.6828E+01   1.2292E-06  0.0637
   1.6828E+01   1.7237E+01   1.1586E-06  0.0649
   1.7237E+01   1.7657E+01   9.1083E-07  0.0724
   1.7657E+01   1.8086E+01   9.6834E-07  0.0693
   1.8086E+01   1.8526E+01   7.3173E-07  0.0788
   1.8526E+01   1.8977E+01   6.8772E-07  0.0803
   1.8977E+01   1.9439E+01   6.1941E-07  0.0836
   1.9439E+01   1.9912E+01   5.2012E-07  0.0902
   1.9912E+01   2.0396E+01   4.7474E-07  0.0933
   2.0396E+01   2.0893E+01   3.9899E-07  0.1005
   2.0893E+01   2.1401E+01   4.4459E-07  0.0941
   2.1401E+01   2.1922E+01   3.1880E-07  0.1098
   2.1922E+01   2.2455E+01   3.0373E-07  0.1111
   2.2455E+01   2.3001E+01   2.1598E-07  0.1302
   2.3001E+01   2.3561E+01   2.4301E-07  0.1213
   2.3561E+01   2.4134E+01   1.5002E-07  0.1525
   2.4134E+01   2.4721E+01   1.5667E-07  0.1474
   2.4721E+01   2.5323E+01   1.4963E-07  0.1491
   2.5323E+01   2.5939E+01   7.7906E-08  0.2041
   2.5939E+01   2.6570E+01   1.0458E-07  0.1741
   2.6570E+01   2.7217E+01   7.7343E-08  0.2000
   2.7217E+01   2.7879E+01   5.4364E-08  0.2357
   2.7879E+01   2.8557E+01   4.7176E-08  0.2500
   2.8557E+01   2.9252E+01   4.3177E-08  0.2582
   2.9252E+01   2.9964E+01   3.3721E-08  0.2887
   2.9964E+01   3.0693E+01   2.7433E-08  0.3162
   3.0693E+01   3.1440E+01   1.8747E-08  0.3780
   3.1440E+01   3.2205E+01   1.0458E-08  0.5000
   3.2205E+01   3.2988E+01   2.0420E-08  0.3536
   3.2988E+01   3.3791E+01   1.9935E-08  0.3536
   3.3791E+01   3.4613E+01   1.2163E-08  0.4472
   3.4613E+01   3.5455E+01   1.6624E-08  0.3780
   3.5455E+01   3.6318E+01   6.9553E-09  0.5774
   3.6318E+01   3.7201E+01   1.1317E-08  0.4472
   3.7201E+01   3.8106E+01   2.2096E-09  1.0000
   3.8106E+01   3.9034E+01   2.1571E-09  1.0000
   3.9034E+01   3.9983E+01   4.2118E-09  0.7071
   3.9983E+01   4.0956E+01   6.1676E-09  0.5774
   4.0956E+01   4.1953E+01   8.0281E-09  0.5000
   4.1953E+01   4.2973E+01   1.9594E-09  1.0000
   4.2973E+01   4.4019E+01   1.9128E-09  1.0000
   4.4019E+01   4.5090E+01   0.0000E+00  0.0000
   4.5090E+01   4.6187E+01   1.8230E-09  1.0000
   4.6187E+01   4.7311E+01   0.0000E+00  0.0000
   4.7311E+01   4.8462E+01   0.0000E+00  0.0000
   4.8462E+01   4.9641E+01   0.0000E+00  0.0000
   4.9641E+01   5.0849E+01   0.0000E+00  0.0000
   5.0849E+01   5.2086E+01   0.0000E+00  0.0000
   5.2086E+01   5.3353E+01   0.0000E+00  0.0000
   5.3353E+01   5.4651E+01   0.0000E+00  0.0000
   5.4651E+01   5.5981E+01   0.0000E+00  0.0000
   5.5981E+01   5.7343E+01   0.0000E+00  0.0000
   5.7343E+01   5.8738E+01   0.0000E+00  0.0000
   5.8738E+01   6.0168E+01   0.0000E+00  0.0000
   6.0168E+01   6.1632E+01   0.0000E+00  0.0000
   6.1632E+01   6.3131E+01   0.0000E+00  0.0000
   6.3131E+01   6.4667E+01   0.0000E+00  0.0000
   6.4667E+01   6.6240E+01   0.0000E+00  0.0000
   6.6240E+01   6.7852E+01   0.0000E+00  0.0000
   6.7852E+01   6.9503E+01   0.0000E+00  0.0000
   6.9503E+01   7.1194E+01   0.0000E+00  0.0000
   7.1194E+01   7.2926E+01   0.0000E+00  0.0000
   7.2926E+01   7.4701E+01   0.0000E+00  0.0000
   7.4701E+01   7.6518E+01   0.0000E+00  0.0000
   7.6518E+01   7.8380E+01   0.0000E+00  0.0000
   7.8380E+01   8.0287E+01   0.0000E+00  0.0000
   8.0287E+01   8.2240E+01   0.0000E+00  0.0000
   8.2240E+01   8.4241E+01   0.0000E+00  0.0000
   8.4241E+01   8.6291E+01   0.0000E+00  0.0000
   8.6291E+01   8.8391E+01   0.0000E+00  0.0000
   8.8391E+01   9.0541E+01   0.0000E+00  0.0000
   9.0541E+01   9.2744E+01   0.0000E+00  0.0000
   9.2744E+01   9.5001E+01   0.0000E+00  0.0000
   9.5001E+01   9.7312E+01   0.0000E+00  0.0000
   9.7312E+01   9.9680E+01   0.0000E+00  0.0000
   9.9680E+01   1.0211E+02   0.0000E+00  0.0000
   1.0211E+02   1.0459E+02   0.0000E+00  0.0000
   1.0459E+02   1.0713E+02   0.0000E+00  0.0000
   1.0713E+02   1.0974E+02   0.0000E+00  0.0000
   1.0974E+02   1.1241E+02   0.0000E+00  0.0000
   1.1241E+02   1.1515E+02   0.0000E+00  0.0000
   1.1515E+02   1.1795E+02   0.0000E+00  0.0000
   1.1795E+02   1.2082E+02   0.0000E+00  0.0000
   1.2082E+02   1.2376E+02   0.0000E+00  0.0000
   1.2376E+02   1.2677E+02   0.0000E+00  0.0000
   1.2677E+02   1.2985E+02   0.0000E+00  0.0000
   1.2985E+02   1.3301E+02   0.0000E+00  0.0000
   1.3301E+02   1.3625E+02   0.0000E+00  0.0000
   1.3625E+02   1.3956E+02   0.0000E+00  0.0000
   1.3956E+02   1.4296E+02   0.0000E+00  0.0000
   1.4296E+02   1.4644E+02   0.0000E+00  0.0000
   1.4644E+02   1.5000E+02   0.0000E+00  0.0000

#   sum over                 1.3452E-06
'no. =    1   reg = 121 - 221'
msuc: {\huge [t-cross] in region mesh}
msdr: {\it plotted by \ANGEL \version}
msdl: {\it calculated by \PHITS  3.26}
wt: s(0.7)
\vspace{-3}
  region surface crossing
  area  &=&   1.0000E+00 [cm^2]
e:
 
# Information for Restart Calculation
# This calculation was newly started
# istdev =  2 # 1:Batch variance, 2:History variance
# resc2  = 5.00000000000000000E+08 # Total source weight or Total source weight / maxcas
# resc3  = 5.00000000000000000E+08 # Total history number or Total batch number
# maxcas =   500000000 # History / Batch, only used for istdev=1
# bitrseed = 1101101111010011011000101101110001100110110010110001010100010001 # bit data of rseed
