[ T-Cross ]
    title = [t-cross] in region mesh
     mesh =  reg            # mesh type is region-wise
      reg =    1            # number of crossing regions
      non     r-from    r-to       area
      1       112       212        1.000000    
   e-type =    3            # e-mesh is log given by emin, emax and ne
     emin =  1.0000000E-02  # minimum value of e-mesh points
     emax =   150.0000      # maximum value of e-mesh points
#    edel =  2.4039514E-02  # mesh width of e-mesh points
       ne =    400          # number of e-mesh points
#    data = ( e(i), i = 1, ne + 1 )
#           1.00000E-02  1.02433E-02  1.04925E-02  1.07478E-02  1.10093E-02
#           1.12772E-02  1.15516E-02  1.18326E-02  1.21205E-02  1.24154E-02
#           1.27175E-02  1.30269E-02  1.33439E-02  1.36686E-02  1.40011E-02
#           1.43418E-02  1.46907E-02  1.50482E-02  1.54143E-02  1.57894E-02
#           1.61735E-02  1.65670E-02  1.69701E-02  1.73830E-02  1.78060E-02
#           1.82392E-02  1.86830E-02  1.91375E-02  1.96032E-02  2.00801E-02
#           2.05687E-02  2.10692E-02  2.15818E-02  2.21069E-02  2.26448E-02
#           2.31957E-02  2.37601E-02  2.43382E-02  2.49304E-02  2.55369E-02
#           2.61583E-02  2.67947E-02  2.74467E-02  2.81145E-02  2.87985E-02
#           2.94992E-02  3.02169E-02  3.09521E-02  3.17052E-02  3.24766E-02
#           3.32668E-02  3.40762E-02  3.49053E-02  3.57546E-02  3.66246E-02
#           3.75157E-02  3.84284E-02  3.93634E-02  4.03212E-02  4.13022E-02
#           4.23071E-02  4.33365E-02  4.43909E-02  4.54710E-02  4.65773E-02
#           4.77106E-02  4.88714E-02  5.00605E-02  5.12785E-02  5.25262E-02
#           5.38042E-02  5.51133E-02  5.64542E-02  5.78278E-02  5.92348E-02
#           6.06760E-02  6.21523E-02  6.36645E-02  6.52135E-02  6.68002E-02
#           6.84255E-02  7.00904E-02  7.17957E-02  7.35426E-02  7.53319E-02
#           7.71648E-02  7.90423E-02  8.09655E-02  8.29354E-02  8.49533E-02
#           8.70203E-02  8.91376E-02  9.13064E-02  9.35279E-02  9.58035E-02
#           9.81345E-02  1.00522E-01  1.02968E-01  1.05473E-01  1.08040E-01
#           1.10668E-01  1.13361E-01  1.16119E-01  1.18944E-01  1.21838E-01
#           1.24803E-01  1.27839E-01  1.30950E-01  1.34136E-01  1.37399E-01
#           1.40742E-01  1.44167E-01  1.47675E-01  1.51268E-01  1.54948E-01
#           1.58718E-01  1.62580E-01  1.66535E-01  1.70587E-01  1.74738E-01
#           1.78989E-01  1.83344E-01  1.87805E-01  1.92375E-01  1.97055E-01
#           2.01850E-01  2.06761E-01  2.11792E-01  2.16945E-01  2.22223E-01
#           2.27630E-01  2.33169E-01  2.38842E-01  2.44653E-01  2.50605E-01
#           2.56703E-01  2.62949E-01  2.69346E-01  2.75900E-01  2.82613E-01
#           2.89489E-01  2.96532E-01  3.03747E-01  3.11138E-01  3.18708E-01
#           3.26462E-01  3.34405E-01  3.42542E-01  3.50876E-01  3.59413E-01
#           3.68158E-01  3.77116E-01  3.86291E-01  3.95690E-01  4.05317E-01
#           4.15179E-01  4.25281E-01  4.35628E-01  4.46227E-01  4.57084E-01
#           4.68205E-01  4.79597E-01  4.91266E-01  5.03219E-01  5.15463E-01
#           5.28005E-01  5.40851E-01  5.54011E-01  5.67490E-01  5.81298E-01
#           5.95441E-01  6.09929E-01  6.24769E-01  6.39970E-01  6.55541E-01
#           6.71491E-01  6.87828E-01  7.04564E-01  7.21706E-01  7.39266E-01
#           7.57253E-01  7.75678E-01  7.94551E-01  8.13883E-01  8.33685E-01
#           8.53969E-01  8.74747E-01  8.96030E-01  9.17831E-01  9.40163E-01
#           9.63038E-01  9.86469E-01  1.01047E+00  1.03506E+00  1.06024E+00
#           1.08604E+00  1.11246E+00  1.13953E+00  1.16725E+00  1.19565E+00
#           1.22474E+00  1.25454E+00  1.28507E+00  1.31633E+00  1.34836E+00
#           1.38117E+00  1.41477E+00  1.44920E+00  1.48446E+00  1.52057E+00
#           1.55757E+00  1.59547E+00  1.63429E+00  1.67405E+00  1.71478E+00
#           1.75650E+00  1.79924E+00  1.84302E+00  1.88786E+00  1.93379E+00
#           1.98084E+00  2.02904E+00  2.07841E+00  2.12898E+00  2.18078E+00
#           2.23384E+00  2.28819E+00  2.34386E+00  2.40089E+00  2.45930E+00
#           2.51914E+00  2.58043E+00  2.64322E+00  2.70753E+00  2.77341E+00
#           2.84088E+00  2.91001E+00  2.98081E+00  3.05333E+00  3.12762E+00
#           3.20372E+00  3.28167E+00  3.36152E+00  3.44330E+00  3.52708E+00
#           3.61290E+00  3.70080E+00  3.79085E+00  3.88308E+00  3.97756E+00
#           4.07434E+00  4.17347E+00  4.27501E+00  4.37903E+00  4.48557E+00
#           4.59471E+00  4.70650E+00  4.82102E+00  4.93832E+00  5.05847E+00
#           5.18155E+00  5.30762E+00  5.43676E+00  5.56904E+00  5.70453E+00
#           5.84333E+00  5.98550E+00  6.13114E+00  6.28031E+00  6.43312E+00
#           6.58964E+00  6.74997E+00  6.91420E+00  7.08243E+00  7.25475E+00
#           7.43126E+00  7.61207E+00  7.79728E+00  7.98700E+00  8.18133E+00
#           8.38038E+00  8.58428E+00  8.79315E+00  9.00709E+00  9.22624E+00
#           9.45072E+00  9.68067E+00  9.91620E+00  1.01575E+01  1.04046E+01
#           1.06578E+01  1.09171E+01  1.11827E+01  1.14548E+01  1.17335E+01
#           1.20190E+01  1.23114E+01  1.26109E+01  1.29178E+01  1.32321E+01
#           1.35540E+01  1.38838E+01  1.42216E+01  1.45676E+01  1.49221E+01
#           1.52851E+01  1.56570E+01  1.60380E+01  1.64282E+01  1.68279E+01
#           1.72374E+01  1.76568E+01  1.80864E+01  1.85264E+01  1.89772E+01
#           1.94389E+01  1.99119E+01  2.03963E+01  2.08926E+01  2.14009E+01
#           2.19216E+01  2.24550E+01  2.30014E+01  2.35610E+01  2.41343E+01
#           2.47215E+01  2.53230E+01  2.59391E+01  2.65702E+01  2.72167E+01
#           2.78789E+01  2.85572E+01  2.92520E+01  2.99637E+01  3.06928E+01
#           3.14396E+01  3.22045E+01  3.29881E+01  3.37907E+01  3.46128E+01
#           3.54550E+01  3.63177E+01  3.72013E+01  3.81064E+01  3.90336E+01
#           3.99833E+01  4.09561E+01  4.19526E+01  4.29734E+01  4.40189E+01
#           4.50900E+01  4.61870E+01  4.73108E+01  4.84619E+01  4.96410E+01
#           5.08488E+01  5.20860E+01  5.33533E+01  5.46514E+01  5.59812E+01
#           5.73432E+01  5.87384E+01  6.01676E+01  6.16315E+01  6.31311E+01
#           6.46671E+01  6.62405E+01  6.78522E+01  6.95031E+01  7.11941E+01
#           7.29263E+01  7.47007E+01  7.65182E+01  7.83800E+01  8.02870E+01
#           8.22405E+01  8.42414E+01  8.62911E+01  8.83906E+01  9.05412E+01
#           9.27442E+01  9.50007E+01  9.73122E+01  9.96799E+01  1.02105E+02
#           1.04589E+02  1.07134E+02  1.09741E+02  1.12411E+02  1.15146E+02
#           1.17948E+02  1.20817E+02  1.23757E+02  1.26768E+02  1.29852E+02
#           1.33012E+02  1.36248E+02  1.39563E+02  1.42959E+02  1.46437E+02
#           1.50000E+02
     unit =    2            # unit is [1/cm^2/(MeV/n)/source]
     axis =  eng            # axis of output
     file = detector-13.out  # file name of output for the above axis
   output = f-curr          # surface crossing forward current spectrum
     part =  neutron  
# kf/name :  2112     
#    used :        main (  %)        temp (  %)       total (  %)
#  memory :         414 (  0)           0 (  0)         414 (  0)

#------------------------------------------------------------------------------
#newpage:
#   no. =    1   reg = 112 - 212

x: Energy [MeV/n]
y:  F-Curr [1/cm^2/(MeV/n)/source]         
p: xlog ylog afac(0.8) form(0.9)
h: n            x            y(neutron ),hh0l   n 
#  e-lower      e-upper      neutron     r.err 
   1.0000E-02   1.0243E-02   1.7205E-04  0.0976
   1.0243E-02   1.0493E-02   2.0211E-04  0.0889
   1.0493E-02   1.0748E-02   1.7104E-04  0.0957
   1.0748E-02   1.1009E-02   1.7565E-04  0.0931
   1.1009E-02   1.1277E-02   1.5381E-04  0.0985
   1.1277E-02   1.1552E-02   1.3849E-04  0.1023
   1.1552E-02   1.1833E-02   1.4819E-04  0.0977
   1.1833E-02   1.2121E-02   1.5593E-04  0.0938
   1.2121E-02   1.2415E-02   1.5619E-04  0.0931
   1.2415E-02   1.2718E-02   1.4600E-04  0.0951
   1.2718E-02   1.3027E-02   1.5377E-04  0.0913
   1.3027E-02   1.3344E-02   1.2569E-04  0.0999
   1.3344E-02   1.3669E-02   1.3202E-04  0.0963
   1.3669E-02   1.4001E-02   1.4526E-04  0.0908
   1.4001E-02   1.4342E-02   1.1724E-04  0.0998
   1.4342E-02   1.4691E-02   1.2817E-04  0.0944
   1.4691E-02   1.5048E-02   1.2660E-04  0.0940
   1.5048E-02   1.5414E-02   1.0766E-04  0.1005
   1.5414E-02   1.5789E-02   1.2364E-04  0.0926
   1.5789E-02   1.6174E-02   1.0568E-04  0.0989
   1.6174E-02   1.6567E-02   1.1334E-04  0.0946
   1.6567E-02   1.6970E-02   1.2967E-04  0.0870
   1.6970E-02   1.7383E-02   9.1530E-05  0.1027
   1.7383E-02   1.7806E-02   1.2342E-04  0.0875
   1.7806E-02   1.8239E-02   9.2516E-05  0.0998
   1.8239E-02   1.8683E-02   8.7262E-05  0.1014
   1.8683E-02   1.9138E-02   1.0054E-04  0.0935
   1.9138E-02   1.9603E-02   9.0477E-05  0.0973
   1.9603E-02   2.0080E-02   9.1692E-05  0.0952
   2.0080E-02   2.0569E-02   1.0967E-04  0.0862
   2.0569E-02   2.1069E-02   7.4800E-05  0.1031
   2.1069E-02   2.1582E-02   7.9436E-05  0.0986
   2.1582E-02   2.2107E-02   1.0246E-04  0.0861
   2.2107E-02   2.2645E-02   9.0494E-05  0.0905
   2.2645E-02   2.3196E-02   8.1785E-05  0.0940
   2.3196E-02   2.3760E-02   8.5245E-05  0.0906
   2.3760E-02   2.4338E-02   7.8282E-05  0.0940
   2.4338E-02   2.4930E-02   7.8106E-05  0.0929
   2.4930E-02   2.5537E-02   7.5920E-05  0.0930
   2.5537E-02   2.6158E-02   7.1244E-05  0.0946
   2.6158E-02   2.6795E-02   6.9441E-05  0.0947
   2.6795E-02   2.7447E-02   6.9903E-05  0.0934
   2.7447E-02   2.8114E-02   6.0263E-05  0.0989
   2.8114E-02   2.8799E-02   5.5130E-05  0.1023
   2.8799E-02   2.9499E-02   5.7830E-05  0.0990
   2.9499E-02   3.0217E-02   5.7124E-05  0.0987
   3.0217E-02   3.0952E-02   6.2102E-05  0.0935
   3.0952E-02   3.1705E-02   5.1138E-05  0.1015
   3.1705E-02   3.2477E-02   6.6991E-05  0.0877
   3.2477E-02   3.3267E-02   6.3514E-05  0.0890
   3.3267E-02   3.4076E-02   4.6519E-05  0.1026
   3.4076E-02   3.4905E-02   5.3069E-05  0.0953
   3.4905E-02   3.5755E-02   5.0052E-05  0.0969
   3.5755E-02   3.6625E-02   5.6917E-05  0.0895
   3.6625E-02   3.7516E-02   4.6367E-05  0.0983
   3.7516E-02   3.8428E-02   3.9945E-05  0.1043
   3.8428E-02   3.9363E-02   4.7525E-05  0.0946
   3.9363E-02   4.0321E-02   4.0649E-05  0.1012
   4.0321E-02   4.1302E-02   4.3741E-05  0.0960
   4.1302E-02   4.2307E-02   3.9804E-05  0.0997
   4.2307E-02   4.3337E-02   4.2661E-05  0.0948
   4.3337E-02   4.4391E-02   3.7031E-05  0.1007
   4.4391E-02   4.5471E-02   2.9998E-05  0.1111
   4.5471E-02   4.6577E-02   4.1796E-05  0.0924
   4.6577E-02   4.7711E-02   3.3863E-05  0.1015
   4.7711E-02   4.8871E-02   3.9397E-05  0.0932
   4.8871E-02   5.0061E-02   3.2279E-05  0.1017
   5.0061E-02   5.1279E-02   3.6012E-05  0.0953
   5.1279E-02   5.2526E-02   3.7564E-05  0.0921
   5.2526E-02   5.3804E-02   3.5152E-05  0.0940
   5.3804E-02   5.5113E-02   2.7859E-05  0.1043
   5.5113E-02   5.6454E-02   3.0723E-05  0.0982
   5.6454E-02   5.7828E-02   3.2611E-05  0.0940
   5.7828E-02   5.9235E-02   3.6002E-05  0.0886
   5.9235E-02   6.0676E-02   3.0807E-05  0.0945
   6.0676E-02   6.2152E-02   2.8926E-05  0.0963
   6.2152E-02   6.3665E-02   2.6580E-05  0.0988
   6.3665E-02   6.5214E-02   2.5289E-05  0.1005
   6.5214E-02   6.6800E-02   2.5005E-05  0.0997
   6.6800E-02   6.8426E-02   2.9511E-05  0.0911
   6.8426E-02   7.0090E-02   2.3915E-05  0.0997
   7.0090E-02   7.1796E-02   2.4379E-05  0.0978
   7.1796E-02   7.3543E-02   2.1070E-05  0.1039
   7.3543E-02   7.5332E-02   1.9486E-05  0.1066
   7.5332E-02   7.7165E-02   2.2861E-05  0.0972
   7.7165E-02   7.9042E-02   1.8033E-05  0.1085
   7.9042E-02   8.0965E-02   2.2527E-05  0.0958
   8.0965E-02   8.2935E-02   1.8087E-05  0.1055
   8.2935E-02   8.4953E-02   1.9228E-05  0.1013
   8.4953E-02   8.7020E-02   1.8864E-05  0.1008
   8.7020E-02   8.9138E-02   2.1376E-05  0.0940
   8.9138E-02   9.1306E-02   2.0103E-05  0.0955
   9.1306E-02   9.3528E-02   1.8303E-05  0.0987
   9.3528E-02   9.5804E-02   1.6989E-05  0.1012
   9.5804E-02   9.8134E-02   1.7275E-05  0.0992
   9.8134E-02   1.0052E-01   1.6556E-05  0.1003
   1.0052E-01   1.0297E-01   1.6844E-05  0.0980
   1.0297E-01   1.0547E-01   1.6149E-05  0.0990
   1.0547E-01   1.0804E-01   1.7872E-05  0.0930
   1.0804E-01   1.1067E-01   1.6171E-05  0.0964
   1.1067E-01   1.1336E-01   1.6564E-05  0.0944
   1.1336E-01   1.1612E-01   1.8632E-05  0.0879
   1.1612E-01   1.1894E-01   1.7192E-05  0.0906
   1.1894E-01   1.2184E-01   1.6328E-05  0.0920
   1.2184E-01   1.2480E-01   1.3963E-05  0.0981
   1.2480E-01   1.2784E-01   1.4618E-05  0.0947
   1.2784E-01   1.3095E-01   1.1727E-05  0.1042
   1.3095E-01   1.3414E-01   1.4626E-05  0.0923
   1.3414E-01   1.3740E-01   1.2292E-05  0.0995
   1.3740E-01   1.4074E-01   1.1884E-05  0.0999
   1.4074E-01   1.4417E-01   1.2689E-05  0.0956
   1.4417E-01   1.4767E-01   1.3734E-05  0.0908
   1.4767E-01   1.5127E-01   1.2645E-05  0.0934
   1.5127E-01   1.5495E-01   1.5123E-05  0.0844
   1.5495E-01   1.5872E-01   1.2996E-05  0.0898
   1.5872E-01   1.6258E-01   1.2752E-05  0.0895
   1.6258E-01   1.6654E-01   1.3385E-05  0.0867
   1.6654E-01   1.7059E-01   1.0216E-05  0.0981
   1.7059E-01   1.7474E-01   1.2480E-05  0.0875
   1.7474E-01   1.7899E-01   1.3417E-05  0.0833
   1.7899E-01   1.8334E-01   1.1614E-05  0.0886
   1.8334E-01   1.8781E-01   9.4752E-06  0.0969
   1.8781E-01   1.9237E-01   1.0778E-05  0.0897
   1.9237E-01   1.9706E-01   1.2704E-05  0.0815
   1.9706E-01   2.0185E-01   1.1798E-05  0.0838
   2.0185E-01   2.0676E-01   1.2204E-05  0.0813
   2.0676E-01   2.1179E-01   1.2709E-05  0.0788
   2.1179E-01   2.1694E-01   1.3183E-05  0.0765
   2.1694E-01   2.2222E-01   1.3862E-05  0.0737
   2.2222E-01   2.2763E-01   1.4858E-05  0.0701
   2.2763E-01   2.3317E-01   1.3295E-05  0.0734
   2.3317E-01   2.3884E-01   1.5784E-05  0.0666
   2.3884E-01   2.4465E-01   1.4498E-05  0.0686
   2.4465E-01   2.5061E-01   1.8457E-05  0.0602
   2.5061E-01   2.5670E-01   1.8958E-05  0.0586
   2.5670E-01   2.6295E-01   1.5592E-05  0.0639
   2.6295E-01   2.6935E-01   1.9866E-05  0.0559
   2.6935E-01   2.7590E-01   1.9517E-05  0.0556
   2.7590E-01   2.8261E-01   2.1336E-05  0.0526
   2.8261E-01   2.8949E-01   2.2228E-05  0.0510
   2.8949E-01   2.9653E-01   2.2339E-05  0.0503
   2.9653E-01   3.0375E-01   2.3634E-05  0.0483
   3.0375E-01   3.1114E-01   2.6100E-05  0.0454
   3.1114E-01   3.1871E-01   2.4995E-05  0.0457
   3.1871E-01   3.2646E-01   2.6740E-05  0.0438
   3.2646E-01   3.3441E-01   2.7235E-05  0.0428
   3.3441E-01   3.4254E-01   2.8567E-05  0.0413
   3.4254E-01   3.5088E-01   2.8789E-05  0.0407
   3.5088E-01   3.5941E-01   3.1266E-05  0.0386
   3.5941E-01   3.6816E-01   3.0734E-05  0.0384
   3.6816E-01   3.7712E-01   3.2951E-05  0.0367
   3.7712E-01   3.8629E-01   3.4277E-05  0.0356
   3.8629E-01   3.9569E-01   3.7343E-05  0.0336
   3.9569E-01   4.0532E-01   4.0214E-05  0.0320
   4.0532E-01   4.1518E-01   4.2439E-05  0.0308
   4.1518E-01   4.2528E-01   4.2849E-05  0.0303
   4.2528E-01   4.3563E-01   4.3251E-05  0.0298
   4.3563E-01   4.4623E-01   4.5761E-05  0.0286
   4.4623E-01   4.5708E-01   4.6797E-05  0.0280
   4.5708E-01   4.6821E-01   4.8639E-05  0.0271
   4.6821E-01   4.7960E-01   4.8832E-05  0.0267
   4.7960E-01   4.9127E-01   4.9845E-05  0.0261
   4.9127E-01   5.0322E-01   5.3581E-05  0.0249
   5.0322E-01   5.1546E-01   5.2318E-05  0.0249
   5.1546E-01   5.2800E-01   5.5021E-05  0.0240
   5.2800E-01   5.4085E-01   5.7846E-05  0.0231
   5.4085E-01   5.5401E-01   5.8524E-05  0.0227
   5.5401E-01   5.6749E-01   5.8862E-05  0.0224
   5.6749E-01   5.8130E-01   6.2658E-05  0.0214
   5.8130E-01   5.9544E-01   6.2661E-05  0.0212
   5.9544E-01   6.0993E-01   6.3856E-05  0.0207
   6.0993E-01   6.2477E-01   6.8346E-05  0.0198
   6.2477E-01   6.3997E-01   6.9497E-05  0.0194
   6.3997E-01   6.5554E-01   7.1156E-05  0.0189
   6.5554E-01   6.7149E-01   7.3403E-05  0.0184
   6.7149E-01   6.8783E-01   7.4036E-05  0.0181
   6.8783E-01   7.0456E-01   7.3886E-05  0.0179
   7.0456E-01   7.2171E-01   7.5184E-05  0.0176
   7.2171E-01   7.3927E-01   7.7809E-05  0.0171
   7.3927E-01   7.5725E-01   8.0283E-05  0.0166
   7.5725E-01   7.7568E-01   7.9971E-05  0.0164
   7.7568E-01   7.9455E-01   8.5177E-05  0.0157
   7.9455E-01   8.1388E-01   8.2578E-05  0.0158
   8.1388E-01   8.3368E-01   8.4289E-05  0.0154
   8.3368E-01   8.5397E-01   8.3978E-05  0.0153
   8.5397E-01   8.7475E-01   8.6273E-05  0.0149
   8.7475E-01   8.9603E-01   8.7416E-05  0.0146
   8.9603E-01   9.1783E-01   9.0001E-05  0.0142
   9.1783E-01   9.4016E-01   8.9193E-05  0.0141
   9.4016E-01   9.6304E-01   8.8962E-05  0.0140
   9.6304E-01   9.8647E-01   9.0363E-05  0.0137
   9.8647E-01   1.0105E+00   9.2185E-05  0.0134
   1.0105E+00   1.0351E+00   9.1530E-05  0.0133
   1.0351E+00   1.0602E+00   9.4012E-05  0.0130
   1.0602E+00   1.0860E+00   9.2797E-05  0.0129
   1.0860E+00   1.1125E+00   9.2842E-05  0.0127
   1.1125E+00   1.1395E+00   9.3815E-05  0.0125
   1.1395E+00   1.1673E+00   9.0412E-05  0.0126
   1.1673E+00   1.1957E+00   9.3120E-05  0.0122
   1.1957E+00   1.2247E+00   9.4868E-05  0.0120
   1.2247E+00   1.2545E+00   9.6232E-05  0.0118
   1.2545E+00   1.2851E+00   9.4113E-05  0.0118
   1.2851E+00   1.3163E+00   9.1362E-05  0.0118
   1.3163E+00   1.3484E+00   9.3929E-05  0.0115
   1.3484E+00   1.3812E+00   9.2427E-05  0.0114
   1.3812E+00   1.4148E+00   9.4318E-05  0.0112
   1.4148E+00   1.4492E+00   9.3512E-05  0.0111
   1.4492E+00   1.4845E+00   9.1919E-05  0.0111
   1.4845E+00   1.5206E+00   9.2884E-05  0.0109
   1.5206E+00   1.5576E+00   9.0648E-05  0.0109
   1.5576E+00   1.5955E+00   8.9326E-05  0.0108
   1.5955E+00   1.6343E+00   9.0032E-05  0.0106
   1.6343E+00   1.6741E+00   9.2407E-05  0.0104
   1.6741E+00   1.7148E+00   8.8275E-05  0.0105
   1.7148E+00   1.7565E+00   8.7353E-05  0.0104
   1.7565E+00   1.7992E+00   8.6526E-05  0.0104
   1.7992E+00   1.8430E+00   8.9287E-05  0.0101
   1.8430E+00   1.8879E+00   8.5171E-05  0.0102
   1.8879E+00   1.9338E+00   8.5714E-05  0.0100
   1.9338E+00   1.9808E+00   8.6345E-05  0.0099
   1.9808E+00   2.0290E+00   8.3554E-05  0.0099
   2.0290E+00   2.0784E+00   8.5046E-05  0.0097
   2.0784E+00   2.1290E+00   8.3949E-05  0.0097
   2.1290E+00   2.1808E+00   8.2890E-05  0.0096
   2.1808E+00   2.2338E+00   8.2808E-05  0.0095
   2.2338E+00   2.2882E+00   8.1843E-05  0.0094
   2.2882E+00   2.3439E+00   8.2031E-05  0.0093
   2.3439E+00   2.4009E+00   8.2030E-05  0.0092
   2.4009E+00   2.4593E+00   8.1718E-05  0.0091
   2.4593E+00   2.5191E+00   8.0262E-05  0.0091
   2.5191E+00   2.5804E+00   8.1128E-05  0.0089
   2.5804E+00   2.6432E+00   7.9315E-05  0.0089
   2.6432E+00   2.7075E+00   7.8919E-05  0.0088
   2.7075E+00   2.7734E+00   7.9071E-05  0.0087
   2.7734E+00   2.8409E+00   7.7928E-05  0.0087
   2.8409E+00   2.9100E+00   7.8666E-05  0.0085
   2.9100E+00   2.9808E+00   7.8464E-05  0.0085
   2.9808E+00   3.0533E+00   7.8422E-05  0.0084
   3.0533E+00   3.1276E+00   7.8262E-05  0.0083
   3.1276E+00   3.2037E+00   7.6878E-05  0.0082
   3.2037E+00   3.2817E+00   7.7465E-05  0.0081
   3.2817E+00   3.3615E+00   7.6509E-05  0.0081
   3.3615E+00   3.4433E+00   7.7280E-05  0.0079
   3.4433E+00   3.5271E+00   7.6898E-05  0.0079
   3.5271E+00   3.6129E+00   7.6099E-05  0.0078
   3.6129E+00   3.7008E+00   7.5580E-05  0.0077
   3.7008E+00   3.7908E+00   7.4963E-05  0.0077
   3.7908E+00   3.8831E+00   7.3303E-05  0.0077
   3.8831E+00   3.9776E+00   7.2841E-05  0.0076
   3.9776E+00   4.0743E+00   7.1832E-05  0.0076
   4.0743E+00   4.1735E+00   6.9368E-05  0.0076
   4.1735E+00   4.2750E+00   6.7377E-05  0.0076
   4.2750E+00   4.3790E+00   6.5991E-05  0.0076
   4.3790E+00   4.4856E+00   6.4376E-05  0.0076
   4.4856E+00   4.5947E+00   6.1429E-05  0.0077
   4.5947E+00   4.7065E+00   5.8159E-05  0.0078
   4.7065E+00   4.8210E+00   5.5648E-05  0.0079
   4.8210E+00   4.9383E+00   5.2138E-05  0.0081
   4.9383E+00   5.0585E+00   4.7971E-05  0.0083
   5.0585E+00   5.1815E+00   4.3624E-05  0.0086
   5.1815E+00   5.3076E+00   3.8287E-05  0.0091
   5.3076E+00   5.4368E+00   3.3280E-05  0.0096
   5.4368E+00   5.5690E+00   3.1593E-05  0.0097
   5.5690E+00   5.7045E+00   2.9320E-05  0.0100
   5.7045E+00   5.8433E+00   2.7935E-05  0.0101
   5.8433E+00   5.9855E+00   2.7271E-05  0.0101
   5.9855E+00   6.1311E+00   2.5773E-05  0.0103
   6.1311E+00   6.2803E+00   2.5155E-05  0.0103
   6.2803E+00   6.4331E+00   2.4316E-05  0.0103
   6.4331E+00   6.5896E+00   2.3793E-05  0.0103
   6.5896E+00   6.7500E+00   2.2346E-05  0.0105
   6.7500E+00   6.9142E+00   2.1998E-05  0.0105
   6.9142E+00   7.0824E+00   2.1568E-05  0.0105
   7.0824E+00   7.2548E+00   2.0433E-05  0.0106
   7.2548E+00   7.4313E+00   2.0025E-05  0.0106
   7.4313E+00   7.6121E+00   1.9432E-05  0.0106
   7.6121E+00   7.7973E+00   1.8574E-05  0.0108
   7.7973E+00   7.9870E+00   1.8122E-05  0.0108
   7.9870E+00   8.1813E+00   1.8017E-05  0.0107
   8.1813E+00   8.3804E+00   1.7085E-05  0.0108
   8.3804E+00   8.5843E+00   1.6896E-05  0.0108
   8.5843E+00   8.7931E+00   1.6842E-05  0.0106
   8.7931E+00   9.0071E+00   1.6073E-05  0.0108
   9.0071E+00   9.2262E+00   1.5293E-05  0.0109
   9.2262E+00   9.4507E+00   1.5085E-05  0.0109
   9.4507E+00   9.6807E+00   1.4685E-05  0.0109
   9.6807E+00   9.9162E+00   1.4604E-05  0.0108
   9.9162E+00   1.0157E+01   1.3984E-05  0.0109
   1.0157E+01   1.0405E+01   1.3630E-05  0.0109
   1.0405E+01   1.0658E+01   1.3339E-05  0.0109
   1.0658E+01   1.0917E+01   1.3429E-05  0.0107
   1.0917E+01   1.1183E+01   1.2907E-05  0.0108
   1.1183E+01   1.1455E+01   1.2584E-05  0.0108
   1.1455E+01   1.1733E+01   1.2246E-05  0.0108
   1.1733E+01   1.2019E+01   1.1782E-05  0.0109
   1.2019E+01   1.2311E+01   1.1626E-05  0.0108
   1.2311E+01   1.2611E+01   1.0859E-05  0.0111
   1.2611E+01   1.2918E+01   1.0377E-05  0.0112
   1.2918E+01   1.3232E+01   9.9336E-06  0.0113
   1.3232E+01   1.3554E+01   9.5982E-06  0.0114
   1.3554E+01   1.3884E+01   9.0061E-06  0.0116
   1.3884E+01   1.4222E+01   8.7647E-06  0.0116
   1.4222E+01   1.4568E+01   8.1994E-06  0.0119
   1.4568E+01   1.4922E+01   7.6497E-06  0.0121
   1.4922E+01   1.5285E+01   7.0393E-06  0.0125
   1.5285E+01   1.5657E+01   6.6603E-06  0.0127
   1.5657E+01   1.6038E+01   6.0144E-06  0.0132
   1.6038E+01   1.6428E+01   5.4286E-06  0.0137
   1.6428E+01   1.6828E+01   4.8749E-06  0.0143
   1.6828E+01   1.7237E+01   4.4247E-06  0.0149
   1.7237E+01   1.7657E+01   4.1884E-06  0.0151
   1.7657E+01   1.8086E+01   4.1652E-06  0.0150
   1.8086E+01   1.8526E+01   4.2996E-06  0.0145
   1.8526E+01   1.8977E+01   4.1611E-06  0.0146
   1.8977E+01   1.9439E+01   4.2383E-06  0.0143
   1.9439E+01   1.9912E+01   4.1374E-06  0.0143
   1.9912E+01   2.0396E+01   3.8128E-06  0.0147
   2.0396E+01   2.0893E+01   3.5030E-06  0.0152
   2.0893E+01   2.1401E+01   3.5536E-06  0.0149
   2.1401E+01   2.1922E+01   3.2449E-06  0.0154
   2.1922E+01   2.2455E+01   2.5783E-06  0.0171
   2.2455E+01   2.3001E+01   2.0932E-06  0.0187
   2.3001E+01   2.3561E+01   1.7504E-06  0.0202
   2.3561E+01   2.4134E+01   9.2663E-07  0.0274
   2.4134E+01   2.4721E+01   1.3419E-07  0.0712
   2.4721E+01   2.5323E+01   2.4605E-08  0.1644
   2.5323E+01   2.5939E+01   2.5969E-09  0.5000
   2.5939E+01   2.6570E+01   6.3380E-10  1.0000
   2.6570E+01   2.7217E+01   0.0000E+00  0.0000
   2.7217E+01   2.7879E+01   0.0000E+00  0.0000
   2.7879E+01   2.8557E+01   0.0000E+00  0.0000
   2.8557E+01   2.9252E+01   0.0000E+00  0.0000
   2.9252E+01   2.9964E+01   0.0000E+00  0.0000
   2.9964E+01   3.0693E+01   0.0000E+00  0.0000
   3.0693E+01   3.1440E+01   0.0000E+00  0.0000
   3.1440E+01   3.2205E+01   0.0000E+00  0.0000
   3.2205E+01   3.2988E+01   0.0000E+00  0.0000
   3.2988E+01   3.3791E+01   0.0000E+00  0.0000
   3.3791E+01   3.4613E+01   0.0000E+00  0.0000
   3.4613E+01   3.5455E+01   0.0000E+00  0.0000
   3.5455E+01   3.6318E+01   0.0000E+00  0.0000
   3.6318E+01   3.7201E+01   0.0000E+00  0.0000
   3.7201E+01   3.8106E+01   0.0000E+00  0.0000
   3.8106E+01   3.9034E+01   0.0000E+00  0.0000
   3.9034E+01   3.9983E+01   0.0000E+00  0.0000
   3.9983E+01   4.0956E+01   0.0000E+00  0.0000
   4.0956E+01   4.1953E+01   0.0000E+00  0.0000
   4.1953E+01   4.2973E+01   0.0000E+00  0.0000
   4.2973E+01   4.4019E+01   0.0000E+00  0.0000
   4.4019E+01   4.5090E+01   0.0000E+00  0.0000
   4.5090E+01   4.6187E+01   0.0000E+00  0.0000
   4.6187E+01   4.7311E+01   0.0000E+00  0.0000
   4.7311E+01   4.8462E+01   0.0000E+00  0.0000
   4.8462E+01   4.9641E+01   0.0000E+00  0.0000
   4.9641E+01   5.0849E+01   0.0000E+00  0.0000
   5.0849E+01   5.2086E+01   0.0000E+00  0.0000
   5.2086E+01   5.3353E+01   0.0000E+00  0.0000
   5.3353E+01   5.4651E+01   0.0000E+00  0.0000
   5.4651E+01   5.5981E+01   0.0000E+00  0.0000
   5.5981E+01   5.7343E+01   0.0000E+00  0.0000
   5.7343E+01   5.8738E+01   0.0000E+00  0.0000
   5.8738E+01   6.0168E+01   0.0000E+00  0.0000
   6.0168E+01   6.1632E+01   0.0000E+00  0.0000
   6.1632E+01   6.3131E+01   0.0000E+00  0.0000
   6.3131E+01   6.4667E+01   0.0000E+00  0.0000
   6.4667E+01   6.6240E+01   0.0000E+00  0.0000
   6.6240E+01   6.7852E+01   0.0000E+00  0.0000
   6.7852E+01   6.9503E+01   0.0000E+00  0.0000
   6.9503E+01   7.1194E+01   0.0000E+00  0.0000
   7.1194E+01   7.2926E+01   0.0000E+00  0.0000
   7.2926E+01   7.4701E+01   0.0000E+00  0.0000
   7.4701E+01   7.6518E+01   0.0000E+00  0.0000
   7.6518E+01   7.8380E+01   0.0000E+00  0.0000
   7.8380E+01   8.0287E+01   0.0000E+00  0.0000
   8.0287E+01   8.2240E+01   0.0000E+00  0.0000
   8.2240E+01   8.4241E+01   0.0000E+00  0.0000
   8.4241E+01   8.6291E+01   0.0000E+00  0.0000
   8.6291E+01   8.8391E+01   0.0000E+00  0.0000
   8.8391E+01   9.0541E+01   0.0000E+00  0.0000
   9.0541E+01   9.2744E+01   0.0000E+00  0.0000
   9.2744E+01   9.5001E+01   0.0000E+00  0.0000
   9.5001E+01   9.7312E+01   0.0000E+00  0.0000
   9.7312E+01   9.9680E+01   0.0000E+00  0.0000
   9.9680E+01   1.0211E+02   0.0000E+00  0.0000
   1.0211E+02   1.0459E+02   0.0000E+00  0.0000
   1.0459E+02   1.0713E+02   0.0000E+00  0.0000
   1.0713E+02   1.0974E+02   0.0000E+00  0.0000
   1.0974E+02   1.1241E+02   0.0000E+00  0.0000
   1.1241E+02   1.1515E+02   0.0000E+00  0.0000
   1.1515E+02   1.1795E+02   0.0000E+00  0.0000
   1.1795E+02   1.2082E+02   0.0000E+00  0.0000
   1.2082E+02   1.2376E+02   0.0000E+00  0.0000
   1.2376E+02   1.2677E+02   0.0000E+00  0.0000
   1.2677E+02   1.2985E+02   0.0000E+00  0.0000
   1.2985E+02   1.3301E+02   0.0000E+00  0.0000
   1.3301E+02   1.3625E+02   0.0000E+00  0.0000
   1.3625E+02   1.3956E+02   0.0000E+00  0.0000
   1.3956E+02   1.4296E+02   0.0000E+00  0.0000
   1.4296E+02   1.4644E+02   0.0000E+00  0.0000
   1.4644E+02   1.5000E+02   0.0000E+00  0.0000

#   sum over                 3.7326E-06
'no. =    1   reg = 112 - 212'
msuc: {\huge [t-cross] in region mesh}
msdr: {\it plotted by \ANGEL \version}
msdl: {\it calculated by \PHITS  3.26}
wt: s(0.7)
\vspace{-3}
  region surface crossing
  area  &=&   1.0000E+00 [cm^2]
e:
 
# Information for Restart Calculation
# This calculation was newly started
# istdev =  2 # 1:Batch variance, 2:History variance
# resc2  = 2.50000000000000000E+09 # Total source weight or Total source weight / maxcas
# resc3  = 2.50000000000000000E+09 # Total history number or Total batch number
# maxcas =   500000000 # History / Batch, only used for istdev=1
# bitrseed = 1100001110001001100010001100011001110101000011000110100101010100 # bit data of rseed
