[ T-Cross ]
    title = [t-cross] in region mesh
     mesh =  reg            # mesh type is region-wise
      reg =    1            # number of crossing regions
      non     r-from    r-to       area
      1       109       209        1.000000    
   e-type =    3            # e-mesh is log given by emin, emax and ne
     emin =  1.0000000E-02  # minimum value of e-mesh points
     emax =   150.0000      # maximum value of e-mesh points
#    edel =  2.4039514E-02  # mesh width of e-mesh points
       ne =    400          # number of e-mesh points
#    data = ( e(i), i = 1, ne + 1 )
#           1.00000E-02  1.02433E-02  1.04925E-02  1.07478E-02  1.10093E-02
#           1.12772E-02  1.15516E-02  1.18326E-02  1.21205E-02  1.24154E-02
#           1.27175E-02  1.30269E-02  1.33439E-02  1.36686E-02  1.40011E-02
#           1.43418E-02  1.46907E-02  1.50482E-02  1.54143E-02  1.57894E-02
#           1.61735E-02  1.65670E-02  1.69701E-02  1.73830E-02  1.78060E-02
#           1.82392E-02  1.86830E-02  1.91375E-02  1.96032E-02  2.00801E-02
#           2.05687E-02  2.10692E-02  2.15818E-02  2.21069E-02  2.26448E-02
#           2.31957E-02  2.37601E-02  2.43382E-02  2.49304E-02  2.55369E-02
#           2.61583E-02  2.67947E-02  2.74467E-02  2.81145E-02  2.87985E-02
#           2.94992E-02  3.02169E-02  3.09521E-02  3.17052E-02  3.24766E-02
#           3.32668E-02  3.40762E-02  3.49053E-02  3.57546E-02  3.66246E-02
#           3.75157E-02  3.84284E-02  3.93634E-02  4.03212E-02  4.13022E-02
#           4.23071E-02  4.33365E-02  4.43909E-02  4.54710E-02  4.65773E-02
#           4.77106E-02  4.88714E-02  5.00605E-02  5.12785E-02  5.25262E-02
#           5.38042E-02  5.51133E-02  5.64542E-02  5.78278E-02  5.92348E-02
#           6.06760E-02  6.21523E-02  6.36645E-02  6.52135E-02  6.68002E-02
#           6.84255E-02  7.00904E-02  7.17957E-02  7.35426E-02  7.53319E-02
#           7.71648E-02  7.90423E-02  8.09655E-02  8.29354E-02  8.49533E-02
#           8.70203E-02  8.91376E-02  9.13064E-02  9.35279E-02  9.58035E-02
#           9.81345E-02  1.00522E-01  1.02968E-01  1.05473E-01  1.08040E-01
#           1.10668E-01  1.13361E-01  1.16119E-01  1.18944E-01  1.21838E-01
#           1.24803E-01  1.27839E-01  1.30950E-01  1.34136E-01  1.37399E-01
#           1.40742E-01  1.44167E-01  1.47675E-01  1.51268E-01  1.54948E-01
#           1.58718E-01  1.62580E-01  1.66535E-01  1.70587E-01  1.74738E-01
#           1.78989E-01  1.83344E-01  1.87805E-01  1.92375E-01  1.97055E-01
#           2.01850E-01  2.06761E-01  2.11792E-01  2.16945E-01  2.22223E-01
#           2.27630E-01  2.33169E-01  2.38842E-01  2.44653E-01  2.50605E-01
#           2.56703E-01  2.62949E-01  2.69346E-01  2.75900E-01  2.82613E-01
#           2.89489E-01  2.96532E-01  3.03747E-01  3.11138E-01  3.18708E-01
#           3.26462E-01  3.34405E-01  3.42542E-01  3.50876E-01  3.59413E-01
#           3.68158E-01  3.77116E-01  3.86291E-01  3.95690E-01  4.05317E-01
#           4.15179E-01  4.25281E-01  4.35628E-01  4.46227E-01  4.57084E-01
#           4.68205E-01  4.79597E-01  4.91266E-01  5.03219E-01  5.15463E-01
#           5.28005E-01  5.40851E-01  5.54011E-01  5.67490E-01  5.81298E-01
#           5.95441E-01  6.09929E-01  6.24769E-01  6.39970E-01  6.55541E-01
#           6.71491E-01  6.87828E-01  7.04564E-01  7.21706E-01  7.39266E-01
#           7.57253E-01  7.75678E-01  7.94551E-01  8.13883E-01  8.33685E-01
#           8.53969E-01  8.74747E-01  8.96030E-01  9.17831E-01  9.40163E-01
#           9.63038E-01  9.86469E-01  1.01047E+00  1.03506E+00  1.06024E+00
#           1.08604E+00  1.11246E+00  1.13953E+00  1.16725E+00  1.19565E+00
#           1.22474E+00  1.25454E+00  1.28507E+00  1.31633E+00  1.34836E+00
#           1.38117E+00  1.41477E+00  1.44920E+00  1.48446E+00  1.52057E+00
#           1.55757E+00  1.59547E+00  1.63429E+00  1.67405E+00  1.71478E+00
#           1.75650E+00  1.79924E+00  1.84302E+00  1.88786E+00  1.93379E+00
#           1.98084E+00  2.02904E+00  2.07841E+00  2.12898E+00  2.18078E+00
#           2.23384E+00  2.28819E+00  2.34386E+00  2.40089E+00  2.45930E+00
#           2.51914E+00  2.58043E+00  2.64322E+00  2.70753E+00  2.77341E+00
#           2.84088E+00  2.91001E+00  2.98081E+00  3.05333E+00  3.12762E+00
#           3.20372E+00  3.28167E+00  3.36152E+00  3.44330E+00  3.52708E+00
#           3.61290E+00  3.70080E+00  3.79085E+00  3.88308E+00  3.97756E+00
#           4.07434E+00  4.17347E+00  4.27501E+00  4.37903E+00  4.48557E+00
#           4.59471E+00  4.70650E+00  4.82102E+00  4.93832E+00  5.05847E+00
#           5.18155E+00  5.30762E+00  5.43676E+00  5.56904E+00  5.70453E+00
#           5.84333E+00  5.98550E+00  6.13114E+00  6.28031E+00  6.43312E+00
#           6.58964E+00  6.74997E+00  6.91420E+00  7.08243E+00  7.25475E+00
#           7.43126E+00  7.61207E+00  7.79728E+00  7.98700E+00  8.18133E+00
#           8.38038E+00  8.58428E+00  8.79315E+00  9.00709E+00  9.22624E+00
#           9.45072E+00  9.68067E+00  9.91620E+00  1.01575E+01  1.04046E+01
#           1.06578E+01  1.09171E+01  1.11827E+01  1.14548E+01  1.17335E+01
#           1.20190E+01  1.23114E+01  1.26109E+01  1.29178E+01  1.32321E+01
#           1.35540E+01  1.38838E+01  1.42216E+01  1.45676E+01  1.49221E+01
#           1.52851E+01  1.56570E+01  1.60380E+01  1.64282E+01  1.68279E+01
#           1.72374E+01  1.76568E+01  1.80864E+01  1.85264E+01  1.89772E+01
#           1.94389E+01  1.99119E+01  2.03963E+01  2.08926E+01  2.14009E+01
#           2.19216E+01  2.24550E+01  2.30014E+01  2.35610E+01  2.41343E+01
#           2.47215E+01  2.53230E+01  2.59391E+01  2.65702E+01  2.72167E+01
#           2.78789E+01  2.85572E+01  2.92520E+01  2.99637E+01  3.06928E+01
#           3.14396E+01  3.22045E+01  3.29881E+01  3.37907E+01  3.46128E+01
#           3.54550E+01  3.63177E+01  3.72013E+01  3.81064E+01  3.90336E+01
#           3.99833E+01  4.09561E+01  4.19526E+01  4.29734E+01  4.40189E+01
#           4.50900E+01  4.61870E+01  4.73108E+01  4.84619E+01  4.96410E+01
#           5.08488E+01  5.20860E+01  5.33533E+01  5.46514E+01  5.59812E+01
#           5.73432E+01  5.87384E+01  6.01676E+01  6.16315E+01  6.31311E+01
#           6.46671E+01  6.62405E+01  6.78522E+01  6.95031E+01  7.11941E+01
#           7.29263E+01  7.47007E+01  7.65182E+01  7.83800E+01  8.02870E+01
#           8.22405E+01  8.42414E+01  8.62911E+01  8.83906E+01  9.05412E+01
#           9.27442E+01  9.50007E+01  9.73122E+01  9.96799E+01  1.02105E+02
#           1.04589E+02  1.07134E+02  1.09741E+02  1.12411E+02  1.15146E+02
#           1.17948E+02  1.20817E+02  1.23757E+02  1.26768E+02  1.29852E+02
#           1.33012E+02  1.36248E+02  1.39563E+02  1.42959E+02  1.46437E+02
#           1.50000E+02
     unit =    2            # unit is [1/cm^2/(MeV/n)/source]
     axis =  eng            # axis of output
     file = detector-10.out  # file name of output for the above axis
   output = f-curr          # surface crossing forward current spectrum
     part =  neutron  
# kf/name :  2112     
#    used :        main (  %)        temp (  %)       total (  %)
#  memory :         414 (  0)           0 (  0)         414 (  0)

#------------------------------------------------------------------------------
#newpage:
#   no. =    1   reg = 109 - 209

x: Energy [MeV/n]
y:  F-Curr [1/cm^2/(MeV/n)/source]         
p: xlog ylog afac(0.8) form(0.9)
h: n            x            y(neutron ),hh0l   n 
#  e-lower      e-upper      neutron     r.err 
   1.0000E-02   1.0243E-02   2.1910E-05  0.1926
   1.0243E-02   1.0493E-02   1.8901E-05  0.2047
   1.0493E-02   1.0748E-02   1.0617E-05  0.2678
   1.0748E-02   1.1009E-02   1.3742E-05  0.2357
   1.1009E-02   1.1277E-02   8.6696E-06  0.2903
   1.1277E-02   1.1552E-02   1.6719E-05  0.2085
   1.1552E-02   1.1833E-02   1.0645E-05  0.2582
   1.1833E-02   1.2121E-02   1.6613E-05  0.2041
   1.2121E-02   1.2415E-02   8.6852E-06  0.2776
   1.2415E-02   1.2718E-02   9.8160E-06  0.2584
   1.2718E-02   1.3027E-02   1.4836E-05  0.2085
   1.3027E-02   1.3344E-02   8.8044E-06  0.2634
   1.3344E-02   1.3669E-02   9.8451E-06  0.2500
   1.3669E-02   1.4001E-02   1.1192E-05  0.2297
   1.4001E-02   1.4342E-02   1.1055E-05  0.2279
   1.4342E-02   1.4691E-02   1.2434E-05  0.2134
   1.4691E-02   1.5048E-02   9.9098E-06  0.2359
   1.5048E-02   1.5414E-02   8.4495E-06  0.2510
   1.5414E-02   1.5789E-02   9.9166E-06  0.2302
   1.5789E-02   1.6174E-02   9.6555E-06  0.2299
   1.6174E-02   1.6567E-02   9.2974E-06  0.2317
   1.6567E-02   1.6970E-02   8.9237E-06  0.2357
   1.6970E-02   1.7383E-02   7.6340E-06  0.2502
   1.7383E-02   1.7806E-02   7.6252E-06  0.2469
   1.7806E-02   1.8239E-02   6.3561E-06  0.2677
   1.8239E-02   1.8683E-02   6.7501E-06  0.2582
   1.8683E-02   1.9138E-02   7.8099E-06  0.2360
   1.9138E-02   1.9603E-02   1.0790E-05  0.1987
   1.9603E-02   2.0080E-02   9.6290E-06  0.2085
   2.0080E-02   2.0569E-02   7.7636E-06  0.2294
   2.0569E-02   2.1069E-02   7.2387E-06  0.2322
   2.1069E-02   2.1582E-02   6.5833E-06  0.2426
   2.1582E-02   2.2107E-02   8.6798E-06  0.2087
   2.2107E-02   2.2645E-02   5.5614E-06  0.2582
   2.2645E-02   2.3196E-02   6.3546E-06  0.2363
   2.3196E-02   2.3760E-02   3.5402E-06  0.3162
   2.3760E-02   2.4338E-02   4.3635E-06  0.2778
   2.4338E-02   2.4930E-02   4.3780E-06  0.2774
   2.4930E-02   2.5537E-02   6.7585E-06  0.2188
   2.5537E-02   2.6158E-02   8.9080E-06  0.1891
   2.6158E-02   2.6795E-02   7.4176E-06  0.2044
   2.6795E-02   2.7447E-02   5.1434E-06  0.2428
   2.7447E-02   2.8114E-02   5.5727E-06  0.2298
   2.8114E-02   2.8799E-02   6.4258E-06  0.2132
   2.8799E-02   2.9499E-02   3.9883E-06  0.2673
   2.9499E-02   3.0217E-02   3.5942E-06  0.2774
   3.0217E-02   3.0952E-02   5.0627E-06  0.2298
   3.0952E-02   3.1705E-02   5.9945E-06  0.2090
   3.1705E-02   3.2477E-02   5.9563E-06  0.2057
   3.2477E-02   3.3267E-02   4.2465E-06  0.2428
   3.3267E-02   3.4076E-02   4.0876E-06  0.2435
   3.4076E-02   3.4905E-02   3.3464E-06  0.2673
   3.4905E-02   3.5755E-02   3.8619E-06  0.2433
   3.5755E-02   3.6625E-02   5.0085E-06  0.2133
   3.6625E-02   3.7516E-02   3.1245E-06  0.2642
   3.7516E-02   3.8428E-02   3.9352E-06  0.2357
   3.8428E-02   3.9363E-02   3.1851E-06  0.2582
   3.9363E-02   4.0321E-02   4.5364E-06  0.2134
   4.0321E-02   4.1302E-02   5.0897E-06  0.2000
   4.1302E-02   4.2307E-02   3.3275E-06  0.2428
   4.2307E-02   4.3337E-02   4.0193E-06  0.2184
   4.3337E-02   4.4391E-02   3.8998E-06  0.2190
   4.4391E-02   4.5471E-02   4.2147E-06  0.2087
   4.5471E-02   4.6577E-02   3.8608E-06  0.2139
   4.6577E-02   4.7711E-02   3.9631E-06  0.2089
   4.7711E-02   4.8871E-02   3.5714E-06  0.2184
   4.8871E-02   5.0061E-02   3.5256E-06  0.2182
   5.0061E-02   5.1279E-02   4.0279E-06  0.2002
   5.1279E-02   5.2526E-02   2.8465E-06  0.2360
   5.2526E-02   5.3804E-02   2.8104E-06  0.2357
   5.3804E-02   5.5113E-02   3.9061E-06  0.1967
   5.5113E-02   5.6454E-02   2.5292E-06  0.2425
   5.6454E-02   5.7828E-02   2.8577E-06  0.2238
   5.7828E-02   5.9235E-02   3.3703E-06  0.2043
   5.9235E-02   6.0676E-02   3.3623E-06  0.1995
   6.0676E-02   6.2152E-02   3.1083E-06  0.2085
   6.2152E-02   6.3665E-02   2.8795E-06  0.2134
   6.3665E-02   6.5214E-02   3.5826E-06  0.1882
   6.5214E-02   6.6800E-02   2.7661E-06  0.2132
   6.6800E-02   6.8426E-02   1.6124E-06  0.2715
   6.8426E-02   7.0090E-02   2.8432E-06  0.2043
   7.0090E-02   7.1796E-02   2.5500E-06  0.2134
   7.1796E-02   7.3543E-02   2.1454E-06  0.2297
   7.3543E-02   7.5332E-02   2.6636E-06  0.2042
   7.5332E-02   7.7165E-02   1.8345E-06  0.2427
   7.7165E-02   7.9042E-02   2.2982E-06  0.2136
   7.9042E-02   8.0965E-02   2.0529E-06  0.2220
   8.0965E-02   8.2935E-02   2.2118E-06  0.2133
   8.2935E-02   8.4953E-02   3.4134E-06  0.1693
   8.4953E-02   8.7020E-02   2.7020E-06  0.1890
   8.7020E-02   8.9138E-02   2.5149E-06  0.1926
   8.9138E-02   9.1306E-02   1.9692E-06  0.2140
   9.1306E-02   9.3528E-02   2.7471E-06  0.1798
   9.3528E-02   9.5804E-02   3.2254E-06  0.1638
   9.5804E-02   9.8134E-02   2.4675E-06  0.1858
   9.8134E-02   1.0052E-01   1.8772E-06  0.2092
   1.0052E-01   1.0297E-01   2.0203E-06  0.2002
   1.0297E-01   1.0547E-01   2.0409E-06  0.1963
   1.0547E-01   1.0804E-01   3.0809E-06  0.1583
   1.0804E-01   1.1067E-01   2.9432E-06  0.1602
   1.1067E-01   1.1336E-01   2.5922E-06  0.1690
   1.1336E-01   1.1612E-01   2.5140E-06  0.1691
   1.1612E-01   1.1894E-01   2.7928E-06  0.1579
   1.1894E-01   1.2184E-01   3.7138E-06  0.1352
   1.2184E-01   1.2480E-01   3.0573E-06  0.1476
   1.2480E-01   1.2784E-01   3.7117E-06  0.1326
   1.2784E-01   1.3095E-01   3.1263E-06  0.1429
   1.3095E-01   1.3414E-01   4.1650E-06  0.1222
   1.3414E-01   1.3740E-01   3.9626E-06  0.1240
   1.3740E-01   1.4074E-01   3.5608E-06  0.1292
   1.4074E-01   1.4417E-01   4.5826E-06  0.1121
   1.4417E-01   1.4767E-01   5.1197E-06  0.1051
   1.4767E-01   1.5127E-01   5.3797E-06  0.1013
   1.5127E-01   1.5495E-01   5.3078E-06  0.1008
   1.5495E-01   1.5872E-01   6.5441E-06  0.0898
   1.5872E-01   1.6258E-01   5.7361E-06  0.0947
   1.6258E-01   1.6654E-01   5.7736E-06  0.0933
   1.6654E-01   1.7059E-01   6.0850E-06  0.0898
   1.7059E-01   1.7474E-01   6.1107E-06  0.0884
   1.7474E-01   1.7899E-01   6.4579E-06  0.0850
   1.7899E-01   1.8334E-01   7.5888E-06  0.0775
   1.8334E-01   1.8781E-01   7.4285E-06  0.0773
   1.8781E-01   1.9237E-01   7.5465E-06  0.0759
   1.9237E-01   1.9706E-01   7.3795E-06  0.0758
   1.9706E-01   2.0185E-01   9.2945E-06  0.0668
   2.0185E-01   2.0676E-01   9.8259E-06  0.0641
   2.0676E-01   2.1179E-01   9.0101E-06  0.0662
   2.1179E-01   2.1694E-01   9.0318E-06  0.0653
   2.1694E-01   2.2222E-01   9.6240E-06  0.0626
   2.2222E-01   2.2763E-01   1.0272E-05  0.0598
   2.2763E-01   2.3317E-01   1.1949E-05  0.0548
   2.3317E-01   2.3884E-01   1.1542E-05  0.0551
   2.3884E-01   2.4465E-01   1.2076E-05  0.0532
   2.4465E-01   2.5061E-01   1.2380E-05  0.0519
   2.5061E-01   2.5670E-01   1.3443E-05  0.0493
   2.5670E-01   2.6295E-01   1.4322E-05  0.0472
   2.6295E-01   2.6935E-01   1.4701E-05  0.0459
   2.6935E-01   2.7590E-01   1.6242E-05  0.0432
   2.7590E-01   2.8261E-01   1.6057E-05  0.0430
   2.8261E-01   2.8949E-01   1.6212E-05  0.0423
   2.8949E-01   2.9653E-01   1.6665E-05  0.0412
   2.9653E-01   3.0375E-01   1.8581E-05  0.0385
   3.0375E-01   3.1114E-01   1.9224E-05  0.0374
   3.1114E-01   3.1871E-01   1.9562E-05  0.0366
   3.1871E-01   3.2646E-01   2.0184E-05  0.0356
   3.2646E-01   3.3441E-01   2.2224E-05  0.0336
   3.3441E-01   3.4254E-01   2.2991E-05  0.0326
   3.4254E-01   3.5088E-01   2.2928E-05  0.0323
   3.5088E-01   3.5941E-01   2.5049E-05  0.0305
   3.5941E-01   3.6816E-01   2.4859E-05  0.0302
   3.6816E-01   3.7712E-01   2.5461E-05  0.0295
   3.7712E-01   3.8629E-01   2.7186E-05  0.0282
   3.8629E-01   3.9569E-01   2.9440E-05  0.0268
   3.9569E-01   4.0532E-01   3.0453E-05  0.0260
   4.0532E-01   4.1518E-01   3.1219E-05  0.0254
   4.1518E-01   4.2528E-01   3.0939E-05  0.0252
   4.2528E-01   4.3563E-01   3.3454E-05  0.0239
   4.3563E-01   4.4623E-01   3.4830E-05  0.0232
   4.4623E-01   4.5708E-01   3.3519E-05  0.0234
   4.5708E-01   4.6821E-01   3.5940E-05  0.0223
   4.6821E-01   4.7960E-01   3.7434E-05  0.0216
   4.7960E-01   4.9127E-01   3.8110E-05  0.0211
   4.9127E-01   5.0322E-01   3.9100E-05  0.0206
   5.0322E-01   5.1546E-01   4.0119E-05  0.0201
   5.1546E-01   5.2800E-01   4.2949E-05  0.0192
   5.2800E-01   5.4085E-01   4.2537E-05  0.0191
   5.4085E-01   5.5401E-01   4.2797E-05  0.0188
   5.5401E-01   5.6749E-01   4.4648E-05  0.0182
   5.6749E-01   5.8130E-01   4.7608E-05  0.0174
   5.8130E-01   5.9544E-01   4.8042E-05  0.0171
   5.9544E-01   6.0993E-01   4.8249E-05  0.0169
   6.0993E-01   6.2477E-01   4.9733E-05  0.0164
   6.2477E-01   6.3997E-01   5.0059E-05  0.0162
   6.3997E-01   6.5554E-01   5.3355E-05  0.0155
   6.5554E-01   6.7149E-01   5.5218E-05  0.0150
   6.7149E-01   6.8783E-01   5.4056E-05  0.0150
   6.8783E-01   7.0456E-01   5.6601E-05  0.0145
   7.0456E-01   7.2171E-01   5.9712E-05  0.0139
   7.2171E-01   7.3927E-01   5.7373E-05  0.0140
   7.3927E-01   7.5725E-01   6.1768E-05  0.0134
   7.5725E-01   7.7568E-01   6.1198E-05  0.0133
   7.7568E-01   7.9455E-01   6.2038E-05  0.0130
   7.9455E-01   8.1388E-01   6.2802E-05  0.0128
   8.1388E-01   8.3368E-01   6.4412E-05  0.0125
   8.3368E-01   8.5397E-01   6.5104E-05  0.0123
   8.5397E-01   8.7475E-01   6.7095E-05  0.0119
   8.7475E-01   8.9603E-01   6.6986E-05  0.0118
   8.9603E-01   9.1783E-01   6.7109E-05  0.0116
   9.1783E-01   9.4016E-01   6.8890E-05  0.0114
   9.4016E-01   9.6304E-01   6.8458E-05  0.0112
   9.6304E-01   9.8647E-01   6.8339E-05  0.0111
   9.8647E-01   1.0105E+00   6.8336E-05  0.0110
   1.0105E+00   1.0351E+00   6.8132E-05  0.0109
   1.0351E+00   1.0602E+00   6.8275E-05  0.0107
   1.0602E+00   1.0860E+00   6.7484E-05  0.0107
   1.0860E+00   1.1125E+00   6.8698E-05  0.0104
   1.1125E+00   1.1395E+00   6.9778E-05  0.0102
   1.1395E+00   1.1673E+00   7.0065E-05  0.0101
   1.1673E+00   1.1957E+00   7.1096E-05  0.0099
   1.1957E+00   1.2247E+00   7.3015E-05  0.0096
   1.2247E+00   1.2545E+00   7.3426E-05  0.0095
   1.2545E+00   1.2851E+00   7.2909E-05  0.0094
   1.2851E+00   1.3163E+00   7.3577E-05  0.0093
   1.3163E+00   1.3484E+00   7.4203E-05  0.0091
   1.3484E+00   1.3812E+00   7.4673E-05  0.0090
   1.3812E+00   1.4148E+00   7.5428E-05  0.0088
   1.4148E+00   1.4492E+00   7.6469E-05  0.0086
   1.4492E+00   1.4845E+00   7.6194E-05  0.0086
   1.4845E+00   1.5206E+00   7.6092E-05  0.0085
   1.5206E+00   1.5576E+00   7.6198E-05  0.0083
   1.5576E+00   1.5955E+00   7.6026E-05  0.0082
   1.5955E+00   1.6343E+00   7.6412E-05  0.0081
   1.6343E+00   1.6741E+00   7.5625E-05  0.0081
   1.6741E+00   1.7148E+00   7.5438E-05  0.0080
   1.7148E+00   1.7565E+00   7.3617E-05  0.0080
   1.7565E+00   1.7992E+00   7.0828E-05  0.0080
   1.7992E+00   1.8430E+00   6.5915E-05  0.0082
   1.8430E+00   1.8879E+00   6.2567E-05  0.0083
   1.8879E+00   1.9338E+00   6.1853E-05  0.0082
   1.9338E+00   1.9808E+00   6.0301E-05  0.0082
   1.9808E+00   2.0290E+00   5.9670E-05  0.0081
   2.0290E+00   2.0784E+00   6.0209E-05  0.0080
   2.0784E+00   2.1290E+00   6.0591E-05  0.0079
   2.1290E+00   2.1808E+00   6.3666E-05  0.0075
   2.1808E+00   2.2338E+00   6.2954E-05  0.0075
   2.2338E+00   2.2882E+00   6.4043E-05  0.0074
   2.2882E+00   2.3439E+00   6.1383E-05  0.0074
   2.3439E+00   2.4009E+00   5.9904E-05  0.0075
   2.4009E+00   2.4593E+00   5.9447E-05  0.0074
   2.4593E+00   2.5191E+00   5.8168E-05  0.0074
   2.5191E+00   2.5804E+00   5.9181E-05  0.0072
   2.5804E+00   2.6432E+00   5.9327E-05  0.0071
   2.6432E+00   2.7075E+00   5.8451E-05  0.0071
   2.7075E+00   2.7734E+00   5.7180E-05  0.0071
   2.7734E+00   2.8409E+00   5.6685E-05  0.0071
   2.8409E+00   2.9100E+00   5.6744E-05  0.0070
   2.9100E+00   2.9808E+00   5.5785E-05  0.0069
   2.9808E+00   3.0533E+00   5.5518E-05  0.0069
   3.0533E+00   3.1276E+00   5.4886E-05  0.0068
   3.1276E+00   3.2037E+00   5.4301E-05  0.0068
   3.2037E+00   3.2817E+00   5.3535E-05  0.0068
   3.2817E+00   3.3615E+00   5.2407E-05  0.0068
   3.3615E+00   3.4433E+00   5.2378E-05  0.0067
   3.4433E+00   3.5271E+00   5.1851E-05  0.0067
   3.5271E+00   3.6129E+00   5.1022E-05  0.0066
   3.6129E+00   3.7008E+00   5.0240E-05  0.0066
   3.7008E+00   3.7908E+00   4.9063E-05  0.0066
   3.7908E+00   3.8831E+00   4.8384E-05  0.0066
   3.8831E+00   3.9776E+00   4.7528E-05  0.0066
   3.9776E+00   4.0743E+00   4.5798E-05  0.0066
   4.0743E+00   4.1735E+00   4.5225E-05  0.0066
   4.1735E+00   4.2750E+00   4.4136E-05  0.0066
   4.2750E+00   4.3790E+00   4.2107E-05  0.0066
   4.3790E+00   4.4856E+00   4.1217E-05  0.0066
   4.4856E+00   4.5947E+00   3.9801E-05  0.0067
   4.5947E+00   4.7065E+00   3.8373E-05  0.0067
   4.7065E+00   4.8210E+00   3.6897E-05  0.0068
   4.8210E+00   4.9383E+00   3.6018E-05  0.0068
   4.9383E+00   5.0585E+00   3.5361E-05  0.0067
   5.0585E+00   5.1815E+00   3.3910E-05  0.0068
   5.1815E+00   5.3076E+00   3.3649E-05  0.0067
   5.3076E+00   5.4368E+00   3.3163E-05  0.0067
   5.4368E+00   5.5690E+00   3.2421E-05  0.0067
   5.5690E+00   5.7045E+00   3.2086E-05  0.0067
   5.7045E+00   5.8433E+00   3.1400E-05  0.0067
   5.8433E+00   5.9855E+00   3.0665E-05  0.0067
   5.9855E+00   6.1311E+00   3.0342E-05  0.0066
   6.1311E+00   6.2803E+00   2.9705E-05  0.0066
   6.2803E+00   6.4331E+00   2.8951E-05  0.0066
   6.4331E+00   6.5896E+00   2.8382E-05  0.0066
   6.5896E+00   6.7500E+00   2.7611E-05  0.0066
   6.7500E+00   6.9142E+00   2.7004E-05  0.0066
   6.9142E+00   7.0824E+00   2.6117E-05  0.0066
   7.0824E+00   7.2548E+00   2.5340E-05  0.0067
   7.2548E+00   7.4313E+00   2.4832E-05  0.0067
   7.4313E+00   7.6121E+00   2.4049E-05  0.0067
   7.6121E+00   7.7973E+00   2.3090E-05  0.0067
   7.7973E+00   7.9870E+00   2.2248E-05  0.0068
   7.9870E+00   8.1813E+00   2.1332E-05  0.0069
   8.1813E+00   8.3804E+00   2.0301E-05  0.0069
   8.3804E+00   8.5843E+00   1.9429E-05  0.0070
   8.5843E+00   8.7931E+00   1.8635E-05  0.0071
   8.7931E+00   9.0071E+00   1.7686E-05  0.0072
   9.0071E+00   9.2262E+00   1.6572E-05  0.0073
   9.2262E+00   9.4507E+00   1.5591E-05  0.0075
   9.4507E+00   9.6807E+00   1.4619E-05  0.0077
   9.6807E+00   9.9162E+00   1.3642E-05  0.0079
   9.9162E+00   1.0157E+01   1.3736E-05  0.0078
   1.0157E+01   1.0405E+01   1.2582E-05  0.0080
   1.0405E+01   1.0658E+01   1.1883E-05  0.0081
   1.0658E+01   1.0917E+01   1.0662E-05  0.0085
   1.0917E+01   1.1183E+01   9.9309E-06  0.0087
   1.1183E+01   1.1455E+01   9.0919E-06  0.0090
   1.1455E+01   1.1733E+01   8.3991E-06  0.0092
   1.1733E+01   1.2019E+01   7.7585E-06  0.0095
   1.2019E+01   1.2311E+01   7.0242E-06  0.0099
   1.2311E+01   1.2611E+01   6.2363E-06  0.0103
   1.2611E+01   1.2918E+01   5.6829E-06  0.0107
   1.2918E+01   1.3232E+01   5.0620E-06  0.0112
   1.3232E+01   1.3554E+01   4.5685E-06  0.0117
   1.3554E+01   1.3884E+01   4.0059E-06  0.0123
   1.3884E+01   1.4222E+01   3.5641E-06  0.0129
   1.4222E+01   1.4568E+01   3.1610E-06  0.0135
   1.4568E+01   1.4922E+01   2.6720E-06  0.0145
   1.4922E+01   1.5285E+01   2.3169E-06  0.0154
   1.5285E+01   1.5657E+01   1.9159E-06  0.0167
   1.5657E+01   1.6038E+01   1.6614E-06  0.0178
   1.6038E+01   1.6428E+01   1.3453E-06  0.0195
   1.6428E+01   1.6828E+01   1.0705E-06  0.0216
   1.6828E+01   1.7237E+01   8.3261E-07  0.0242
   1.7237E+01   1.7657E+01   5.6142E-07  0.0291
   1.7657E+01   1.8086E+01   3.9087E-07  0.0345
   1.8086E+01   1.8526E+01   2.4542E-07  0.0430
   1.8526E+01   1.8977E+01   1.2734E-07  0.0590
   1.8977E+01   1.9439E+01   2.8588E-08  0.1231
   1.9439E+01   1.9912E+01   4.2287E-09  0.3162
   1.9912E+01   2.0396E+01   3.3026E-09  0.3536
   2.0396E+01   2.0893E+01   2.0151E-09  0.4472
   2.0893E+01   2.1401E+01   3.9344E-10  1.0000
   2.1401E+01   2.1922E+01   7.6819E-10  0.7071
   2.1922E+01   2.2455E+01   7.4995E-10  0.7071
   2.2455E+01   2.3001E+01   7.3213E-10  0.7071
   2.3001E+01   2.3561E+01   7.1474E-10  0.7071
   2.3561E+01   2.4134E+01   6.9777E-10  0.7071
   2.4134E+01   2.4721E+01   0.0000E+00  0.0000
   2.4721E+01   2.5323E+01   3.3251E-10  1.0000
   2.5323E+01   2.5939E+01   0.0000E+00  0.0000
   2.5939E+01   2.6570E+01   0.0000E+00  0.0000
   2.6570E+01   2.7217E+01   3.0937E-10  1.0000
   2.7217E+01   2.7879E+01   3.0202E-10  1.0000
   2.7879E+01   2.8557E+01   0.0000E+00  0.0000
   2.8557E+01   2.9252E+01   0.0000E+00  0.0000
   2.9252E+01   2.9964E+01   0.0000E+00  0.0000
   2.9964E+01   3.0693E+01   0.0000E+00  0.0000
   3.0693E+01   3.1440E+01   0.0000E+00  0.0000
   3.1440E+01   3.2205E+01   0.0000E+00  0.0000
   3.2205E+01   3.2988E+01   0.0000E+00  0.0000
   3.2988E+01   3.3791E+01   0.0000E+00  0.0000
   3.3791E+01   3.4613E+01   0.0000E+00  0.0000
   3.4613E+01   3.5455E+01   0.0000E+00  0.0000
   3.5455E+01   3.6318E+01   0.0000E+00  0.0000
   3.6318E+01   3.7201E+01   0.0000E+00  0.0000
   3.7201E+01   3.8106E+01   0.0000E+00  0.0000
   3.8106E+01   3.9034E+01   0.0000E+00  0.0000
   3.9034E+01   3.9983E+01   0.0000E+00  0.0000
   3.9983E+01   4.0956E+01   0.0000E+00  0.0000
   4.0956E+01   4.1953E+01   0.0000E+00  0.0000
   4.1953E+01   4.2973E+01   0.0000E+00  0.0000
   4.2973E+01   4.4019E+01   0.0000E+00  0.0000
   4.4019E+01   4.5090E+01   0.0000E+00  0.0000
   4.5090E+01   4.6187E+01   0.0000E+00  0.0000
   4.6187E+01   4.7311E+01   0.0000E+00  0.0000
   4.7311E+01   4.8462E+01   0.0000E+00  0.0000
   4.8462E+01   4.9641E+01   0.0000E+00  0.0000
   4.9641E+01   5.0849E+01   0.0000E+00  0.0000
   5.0849E+01   5.2086E+01   0.0000E+00  0.0000
   5.2086E+01   5.3353E+01   0.0000E+00  0.0000
   5.3353E+01   5.4651E+01   0.0000E+00  0.0000
   5.4651E+01   5.5981E+01   0.0000E+00  0.0000
   5.5981E+01   5.7343E+01   0.0000E+00  0.0000
   5.7343E+01   5.8738E+01   0.0000E+00  0.0000
   5.8738E+01   6.0168E+01   0.0000E+00  0.0000
   6.0168E+01   6.1632E+01   0.0000E+00  0.0000
   6.1632E+01   6.3131E+01   0.0000E+00  0.0000
   6.3131E+01   6.4667E+01   0.0000E+00  0.0000
   6.4667E+01   6.6240E+01   0.0000E+00  0.0000
   6.6240E+01   6.7852E+01   0.0000E+00  0.0000
   6.7852E+01   6.9503E+01   0.0000E+00  0.0000
   6.9503E+01   7.1194E+01   0.0000E+00  0.0000
   7.1194E+01   7.2926E+01   0.0000E+00  0.0000
   7.2926E+01   7.4701E+01   0.0000E+00  0.0000
   7.4701E+01   7.6518E+01   0.0000E+00  0.0000
   7.6518E+01   7.8380E+01   0.0000E+00  0.0000
   7.8380E+01   8.0287E+01   0.0000E+00  0.0000
   8.0287E+01   8.2240E+01   0.0000E+00  0.0000
   8.2240E+01   8.4241E+01   0.0000E+00  0.0000
   8.4241E+01   8.6291E+01   0.0000E+00  0.0000
   8.6291E+01   8.8391E+01   0.0000E+00  0.0000
   8.8391E+01   9.0541E+01   0.0000E+00  0.0000
   9.0541E+01   9.2744E+01   0.0000E+00  0.0000
   9.2744E+01   9.5001E+01   0.0000E+00  0.0000
   9.5001E+01   9.7312E+01   0.0000E+00  0.0000
   9.7312E+01   9.9680E+01   0.0000E+00  0.0000
   9.9680E+01   1.0211E+02   0.0000E+00  0.0000
   1.0211E+02   1.0459E+02   0.0000E+00  0.0000
   1.0459E+02   1.0713E+02   0.0000E+00  0.0000
   1.0713E+02   1.0974E+02   0.0000E+00  0.0000
   1.0974E+02   1.1241E+02   0.0000E+00  0.0000
   1.1241E+02   1.1515E+02   0.0000E+00  0.0000
   1.1515E+02   1.1795E+02   0.0000E+00  0.0000
   1.1795E+02   1.2082E+02   0.0000E+00  0.0000
   1.2082E+02   1.2376E+02   0.0000E+00  0.0000
   1.2376E+02   1.2677E+02   0.0000E+00  0.0000
   1.2677E+02   1.2985E+02   0.0000E+00  0.0000
   1.2985E+02   1.3301E+02   0.0000E+00  0.0000
   1.3301E+02   1.3625E+02   0.0000E+00  0.0000
   1.3625E+02   1.3956E+02   0.0000E+00  0.0000
   1.3956E+02   1.4296E+02   0.0000E+00  0.0000
   1.4296E+02   1.4644E+02   0.0000E+00  0.0000
   1.4644E+02   1.5000E+02   0.0000E+00  0.0000

#   sum over                 2.7790E-06
'no. =    1   reg = 109 - 209'
msuc: {\huge [t-cross] in region mesh}
msdr: {\it plotted by \ANGEL \version}
msdl: {\it calculated by \PHITS  3.26}
wt: s(0.7)
\vspace{-3}
  region surface crossing
  area  &=&   1.0000E+00 [cm^2]
e:
 
# Information for Restart Calculation
# This calculation was newly started
# istdev =  2 # 1:Batch variance, 2:History variance
# resc2  = 5.00000000000000000E+09 # Total source weight or Total source weight / maxcas
# resc3  = 5.00000000000000000E+09 # Total history number or Total batch number
# maxcas =   100000000 # History / Batch, only used for istdev=1
# bitrseed = 0110100000100010111000001110001111001110100100011111101000111001 # bit data of rseed
