[ T-Cross ]
    title = [t-cross] in region mesh
     mesh =  reg            # mesh type is region-wise
      reg =    1            # number of crossing regions
      non     r-from    r-to       area
      1       111       211        1.000000    
   e-type =    3            # e-mesh is log given by emin, emax and ne
     emin =  1.0000000E-02  # minimum value of e-mesh points
     emax =   150.0000      # maximum value of e-mesh points
#    edel =  2.4039514E-02  # mesh width of e-mesh points
       ne =    400          # number of e-mesh points
#    data = ( e(i), i = 1, ne + 1 )
#           1.00000E-02  1.02433E-02  1.04925E-02  1.07478E-02  1.10093E-02
#           1.12772E-02  1.15516E-02  1.18326E-02  1.21205E-02  1.24154E-02
#           1.27175E-02  1.30269E-02  1.33439E-02  1.36686E-02  1.40011E-02
#           1.43418E-02  1.46907E-02  1.50482E-02  1.54143E-02  1.57894E-02
#           1.61735E-02  1.65670E-02  1.69701E-02  1.73830E-02  1.78060E-02
#           1.82392E-02  1.86830E-02  1.91375E-02  1.96032E-02  2.00801E-02
#           2.05687E-02  2.10692E-02  2.15818E-02  2.21069E-02  2.26448E-02
#           2.31957E-02  2.37601E-02  2.43382E-02  2.49304E-02  2.55369E-02
#           2.61583E-02  2.67947E-02  2.74467E-02  2.81145E-02  2.87985E-02
#           2.94992E-02  3.02169E-02  3.09521E-02  3.17052E-02  3.24766E-02
#           3.32668E-02  3.40762E-02  3.49053E-02  3.57546E-02  3.66246E-02
#           3.75157E-02  3.84284E-02  3.93634E-02  4.03212E-02  4.13022E-02
#           4.23071E-02  4.33365E-02  4.43909E-02  4.54710E-02  4.65773E-02
#           4.77106E-02  4.88714E-02  5.00605E-02  5.12785E-02  5.25262E-02
#           5.38042E-02  5.51133E-02  5.64542E-02  5.78278E-02  5.92348E-02
#           6.06760E-02  6.21523E-02  6.36645E-02  6.52135E-02  6.68002E-02
#           6.84255E-02  7.00904E-02  7.17957E-02  7.35426E-02  7.53319E-02
#           7.71648E-02  7.90423E-02  8.09655E-02  8.29354E-02  8.49533E-02
#           8.70203E-02  8.91376E-02  9.13064E-02  9.35279E-02  9.58035E-02
#           9.81345E-02  1.00522E-01  1.02968E-01  1.05473E-01  1.08040E-01
#           1.10668E-01  1.13361E-01  1.16119E-01  1.18944E-01  1.21838E-01
#           1.24803E-01  1.27839E-01  1.30950E-01  1.34136E-01  1.37399E-01
#           1.40742E-01  1.44167E-01  1.47675E-01  1.51268E-01  1.54948E-01
#           1.58718E-01  1.62580E-01  1.66535E-01  1.70587E-01  1.74738E-01
#           1.78989E-01  1.83344E-01  1.87805E-01  1.92375E-01  1.97055E-01
#           2.01850E-01  2.06761E-01  2.11792E-01  2.16945E-01  2.22223E-01
#           2.27630E-01  2.33169E-01  2.38842E-01  2.44653E-01  2.50605E-01
#           2.56703E-01  2.62949E-01  2.69346E-01  2.75900E-01  2.82613E-01
#           2.89489E-01  2.96532E-01  3.03747E-01  3.11138E-01  3.18708E-01
#           3.26462E-01  3.34405E-01  3.42542E-01  3.50876E-01  3.59413E-01
#           3.68158E-01  3.77116E-01  3.86291E-01  3.95690E-01  4.05317E-01
#           4.15179E-01  4.25281E-01  4.35628E-01  4.46227E-01  4.57084E-01
#           4.68205E-01  4.79597E-01  4.91266E-01  5.03219E-01  5.15463E-01
#           5.28005E-01  5.40851E-01  5.54011E-01  5.67490E-01  5.81298E-01
#           5.95441E-01  6.09929E-01  6.24769E-01  6.39970E-01  6.55541E-01
#           6.71491E-01  6.87828E-01  7.04564E-01  7.21706E-01  7.39266E-01
#           7.57253E-01  7.75678E-01  7.94551E-01  8.13883E-01  8.33685E-01
#           8.53969E-01  8.74747E-01  8.96030E-01  9.17831E-01  9.40163E-01
#           9.63038E-01  9.86469E-01  1.01047E+00  1.03506E+00  1.06024E+00
#           1.08604E+00  1.11246E+00  1.13953E+00  1.16725E+00  1.19565E+00
#           1.22474E+00  1.25454E+00  1.28507E+00  1.31633E+00  1.34836E+00
#           1.38117E+00  1.41477E+00  1.44920E+00  1.48446E+00  1.52057E+00
#           1.55757E+00  1.59547E+00  1.63429E+00  1.67405E+00  1.71478E+00
#           1.75650E+00  1.79924E+00  1.84302E+00  1.88786E+00  1.93379E+00
#           1.98084E+00  2.02904E+00  2.07841E+00  2.12898E+00  2.18078E+00
#           2.23384E+00  2.28819E+00  2.34386E+00  2.40089E+00  2.45930E+00
#           2.51914E+00  2.58043E+00  2.64322E+00  2.70753E+00  2.77341E+00
#           2.84088E+00  2.91001E+00  2.98081E+00  3.05333E+00  3.12762E+00
#           3.20372E+00  3.28167E+00  3.36152E+00  3.44330E+00  3.52708E+00
#           3.61290E+00  3.70080E+00  3.79085E+00  3.88308E+00  3.97756E+00
#           4.07434E+00  4.17347E+00  4.27501E+00  4.37903E+00  4.48557E+00
#           4.59471E+00  4.70650E+00  4.82102E+00  4.93832E+00  5.05847E+00
#           5.18155E+00  5.30762E+00  5.43676E+00  5.56904E+00  5.70453E+00
#           5.84333E+00  5.98550E+00  6.13114E+00  6.28031E+00  6.43312E+00
#           6.58964E+00  6.74997E+00  6.91420E+00  7.08243E+00  7.25475E+00
#           7.43126E+00  7.61207E+00  7.79728E+00  7.98700E+00  8.18133E+00
#           8.38038E+00  8.58428E+00  8.79315E+00  9.00709E+00  9.22624E+00
#           9.45072E+00  9.68067E+00  9.91620E+00  1.01575E+01  1.04046E+01
#           1.06578E+01  1.09171E+01  1.11827E+01  1.14548E+01  1.17335E+01
#           1.20190E+01  1.23114E+01  1.26109E+01  1.29178E+01  1.32321E+01
#           1.35540E+01  1.38838E+01  1.42216E+01  1.45676E+01  1.49221E+01
#           1.52851E+01  1.56570E+01  1.60380E+01  1.64282E+01  1.68279E+01
#           1.72374E+01  1.76568E+01  1.80864E+01  1.85264E+01  1.89772E+01
#           1.94389E+01  1.99119E+01  2.03963E+01  2.08926E+01  2.14009E+01
#           2.19216E+01  2.24550E+01  2.30014E+01  2.35610E+01  2.41343E+01
#           2.47215E+01  2.53230E+01  2.59391E+01  2.65702E+01  2.72167E+01
#           2.78789E+01  2.85572E+01  2.92520E+01  2.99637E+01  3.06928E+01
#           3.14396E+01  3.22045E+01  3.29881E+01  3.37907E+01  3.46128E+01
#           3.54550E+01  3.63177E+01  3.72013E+01  3.81064E+01  3.90336E+01
#           3.99833E+01  4.09561E+01  4.19526E+01  4.29734E+01  4.40189E+01
#           4.50900E+01  4.61870E+01  4.73108E+01  4.84619E+01  4.96410E+01
#           5.08488E+01  5.20860E+01  5.33533E+01  5.46514E+01  5.59812E+01
#           5.73432E+01  5.87384E+01  6.01676E+01  6.16315E+01  6.31311E+01
#           6.46671E+01  6.62405E+01  6.78522E+01  6.95031E+01  7.11941E+01
#           7.29263E+01  7.47007E+01  7.65182E+01  7.83800E+01  8.02870E+01
#           8.22405E+01  8.42414E+01  8.62911E+01  8.83906E+01  9.05412E+01
#           9.27442E+01  9.50007E+01  9.73122E+01  9.96799E+01  1.02105E+02
#           1.04589E+02  1.07134E+02  1.09741E+02  1.12411E+02  1.15146E+02
#           1.17948E+02  1.20817E+02  1.23757E+02  1.26768E+02  1.29852E+02
#           1.33012E+02  1.36248E+02  1.39563E+02  1.42959E+02  1.46437E+02
#           1.50000E+02
     unit =    2            # unit is [1/cm^2/(MeV/n)/source]
     axis =  eng            # axis of output
     file = detector-12.out  # file name of output for the above axis
   output = f-curr          # surface crossing forward current spectrum
     part =  neutron  
# kf/name :  2112     
#    used :        main (  %)        temp (  %)       total (  %)
#  memory :         414 (  0)           0 (  0)         414 (  0)

#------------------------------------------------------------------------------
#newpage:
#   no. =    1   reg = 111 - 211

x: Energy [MeV/n]
y:  F-Curr [1/cm^2/(MeV/n)/source]         
p: xlog ylog afac(0.8) form(0.9)
h: n            x            y(neutron ),hh0l   n 
#  e-lower      e-upper      neutron     r.err 
   1.0000E-02   1.0243E-02   1.9246E-03  0.0651
   1.0243E-02   1.0493E-02   1.8080E-03  0.0665
   1.0493E-02   1.0748E-02   1.7467E-03  0.0667
   1.0748E-02   1.1009E-02   1.4692E-03  0.0720
   1.1009E-02   1.1277E-02   1.6618E-03  0.0668
   1.1277E-02   1.1552E-02   1.6190E-03  0.0669
   1.1552E-02   1.1833E-02   1.5980E-03  0.0663
   1.1833E-02   1.2121E-02   1.5363E-03  0.0670
   1.2121E-02   1.2415E-02   1.3166E-03  0.0714
   1.2415E-02   1.2718E-02   1.3664E-03  0.0694
   1.2718E-02   1.3027E-02   1.2684E-03  0.0710
   1.3027E-02   1.3344E-02   1.1762E-03  0.0731
   1.3344E-02   1.3669E-02   1.2213E-03  0.0706
   1.3669E-02   1.4001E-02   1.2687E-03  0.0685
   1.4001E-02   1.4342E-02   1.2445E-03  0.0685
   1.4342E-02   1.4691E-02   1.1534E-03  0.0703
   1.4691E-02   1.5048E-02   1.2875E-03  0.0657
   1.5048E-02   1.5414E-02   1.0868E-03  0.0708
   1.5414E-02   1.5789E-02   1.2366E-03  0.0653
   1.5789E-02   1.6174E-02   1.1501E-03  0.0670
   1.6174E-02   1.6567E-02   1.1271E-03  0.0669
   1.6567E-02   1.6970E-02   9.9106E-04  0.0705
   1.6970E-02   1.7383E-02   9.6619E-04  0.0704
   1.7383E-02   1.7806E-02   9.6614E-04  0.0696
   1.7806E-02   1.8239E-02   9.7314E-04  0.0686
   1.8239E-02   1.8683E-02   1.0194E-03  0.0662
   1.8683E-02   1.9138E-02   9.7918E-04  0.0669
   1.9138E-02   1.9603E-02   8.7259E-04  0.0700
   1.9603E-02   2.0080E-02   7.9993E-04  0.0722
   2.0080E-02   2.0569E-02   9.5305E-04  0.0654
   2.0569E-02   2.1069E-02   8.3567E-04  0.0688
   2.1069E-02   2.1582E-02   8.1006E-04  0.0691
   2.1582E-02   2.2107E-02   7.4950E-04  0.0711
   2.2107E-02   2.2645E-02   8.2647E-04  0.0667
   2.2645E-02   2.3196E-02   7.9326E-04  0.0673
   2.3196E-02   2.3760E-02   7.2795E-04  0.0696
   2.3760E-02   2.4338E-02   7.1032E-04  0.0695
   2.4338E-02   2.4930E-02   7.9514E-04  0.0649
   2.4930E-02   2.5537E-02   7.1057E-04  0.0680
   2.5537E-02   2.6158E-02   6.8426E-04  0.0682
   2.6158E-02   2.6795E-02   6.0320E-04  0.0718
   2.6795E-02   2.7447E-02   7.1854E-04  0.0650
   2.7447E-02   2.8114E-02   6.9892E-04  0.0653
   2.8114E-02   2.8799E-02   6.3358E-04  0.0678
   2.8799E-02   2.9499E-02   5.8606E-04  0.0694
   2.9499E-02   3.0217E-02   6.0566E-04  0.0675
   3.0217E-02   3.0952E-02   6.0422E-04  0.0668
   3.0952E-02   3.1705E-02   5.8278E-04  0.0672
   3.1705E-02   3.2477E-02   5.1415E-04  0.0705
   3.2477E-02   3.3267E-02   5.5613E-04  0.0670
   3.3267E-02   3.4076E-02   5.8585E-04  0.0648
   3.4076E-02   3.4905E-02   5.0932E-04  0.0686
   3.4905E-02   3.5755E-02   6.1230E-04  0.0617
   3.5755E-02   3.6625E-02   5.6009E-04  0.0638
   3.6625E-02   3.7516E-02   4.4771E-04  0.0706
   3.7516E-02   3.8428E-02   4.7595E-04  0.0675
   3.8428E-02   3.9363E-02   4.7320E-04  0.0669
   3.9363E-02   4.0321E-02   4.7179E-04  0.0663
   4.0321E-02   4.1302E-02   5.0103E-04  0.0634
   4.1302E-02   4.2307E-02   4.7373E-04  0.0644
   4.2307E-02   4.3337E-02   4.1064E-04  0.0684
   4.3337E-02   4.4391E-02   4.8430E-04  0.0622
   4.4391E-02   4.5471E-02   4.4230E-04  0.0644
   4.5471E-02   4.6577E-02   3.8356E-04  0.0681
   4.6577E-02   4.7711E-02   4.1074E-04  0.0652
   4.7711E-02   4.8871E-02   3.5950E-04  0.0690
   4.8871E-02   5.0061E-02   4.1528E-04  0.0634
   5.0061E-02   5.1279E-02   3.9148E-04  0.0645
   5.1279E-02   5.2526E-02   3.7137E-04  0.0654
   5.2526E-02   5.3804E-02   3.3760E-04  0.0677
   5.3804E-02   5.5113E-02   3.2469E-04  0.0682
   5.5113E-02   5.6454E-02   3.3924E-04  0.0662
   5.6454E-02   5.7828E-02   3.7006E-04  0.0626
   5.7828E-02   5.9235E-02   3.3770E-04  0.0645
   5.9235E-02   6.0676E-02   3.2373E-04  0.0652
   6.0676E-02   6.2152E-02   3.1208E-04  0.0656
   6.2152E-02   6.3665E-02   2.9173E-04  0.0670
   6.3665E-02   6.5214E-02   2.8730E-04  0.0668
   6.5214E-02   6.6800E-02   3.4088E-04  0.0605
   6.6800E-02   6.8426E-02   2.8817E-04  0.0652
   6.8426E-02   7.0090E-02   2.8788E-04  0.0641
   7.0090E-02   7.1796E-02   2.9434E-04  0.0627
   7.1796E-02   7.3543E-02   3.0304E-04  0.0611
   7.3543E-02   7.5332E-02   2.9649E-04  0.0611
   7.5332E-02   7.7165E-02   2.6517E-04  0.0639
   7.7165E-02   7.9042E-02   2.5812E-04  0.0640
   7.9042E-02   8.0965E-02   2.4518E-04  0.0648
   8.0965E-02   8.2935E-02   2.5843E-04  0.0623
   8.2935E-02   8.4953E-02   2.3689E-04  0.0646
   8.4953E-02   8.7020E-02   2.4668E-04  0.0624
   8.7020E-02   8.9138E-02   2.5403E-04  0.0606
   8.9138E-02   9.1306E-02   2.0639E-04  0.0666
   9.1306E-02   9.3528E-02   2.0849E-04  0.0655
   9.3528E-02   9.5804E-02   1.9981E-04  0.0660
   9.5804E-02   9.8134E-02   2.0940E-04  0.0638
   9.8134E-02   1.0052E-01   1.9703E-04  0.0649
   1.0052E-01   1.0297E-01   1.8627E-04  0.0657
   1.0297E-01   1.0547E-01   1.8414E-04  0.0656
   1.0547E-01   1.0804E-01   1.6493E-04  0.0685
   1.0804E-01   1.1067E-01   1.6546E-04  0.0675
   1.1067E-01   1.1336E-01   1.9641E-04  0.0611
   1.1336E-01   1.1612E-01   1.7179E-04  0.0646
   1.1612E-01   1.1894E-01   1.6418E-04  0.0654
   1.1894E-01   1.2184E-01   1.9008E-04  0.0599
   1.2184E-01   1.2480E-01   1.9007E-04  0.0594
   1.2480E-01   1.2784E-01   1.6187E-04  0.0634
   1.2784E-01   1.3095E-01   1.5936E-04  0.0632
   1.3095E-01   1.3414E-01   1.5161E-04  0.0641
   1.3414E-01   1.3740E-01   1.5350E-04  0.0628
   1.3740E-01   1.4074E-01   1.5339E-04  0.0623
   1.4074E-01   1.4417E-01   1.5291E-04  0.0614
   1.4417E-01   1.4767E-01   1.4150E-04  0.0631
   1.4767E-01   1.5127E-01   1.3129E-04  0.0647
   1.5127E-01   1.5495E-01   1.4655E-04  0.0607
   1.5495E-01   1.5872E-01   1.4062E-04  0.0610
   1.5872E-01   1.6258E-01   1.5193E-04  0.0582
   1.6258E-01   1.6654E-01   1.3025E-04  0.0621
   1.6654E-01   1.7059E-01   1.2871E-04  0.0617
   1.7059E-01   1.7474E-01   1.2867E-04  0.0608
   1.7474E-01   1.7899E-01   1.2125E-04  0.0619
   1.7899E-01   1.8334E-01   1.2880E-04  0.0595
   1.8334E-01   1.8781E-01   1.2548E-04  0.0595
   1.8781E-01   1.9237E-01   1.1647E-04  0.0610
   1.9237E-01   1.9706E-01   1.3061E-04  0.0570
   1.9706E-01   2.0185E-01   1.1682E-04  0.0595
   2.0185E-01   2.0676E-01   1.3502E-04  0.0546
   2.0676E-01   2.1179E-01   1.1821E-04  0.0576
   2.1179E-01   2.1694E-01   1.4435E-04  0.0516
   2.1694E-01   2.2222E-01   1.2765E-04  0.0544
   2.2222E-01   2.2763E-01   1.4298E-04  0.0507
   2.2763E-01   2.3317E-01   1.4521E-04  0.0496
   2.3317E-01   2.3884E-01   1.5327E-04  0.0477
   2.3884E-01   2.4465E-01   1.6917E-04  0.0448
   2.4465E-01   2.5061E-01   1.5209E-04  0.0467
   2.5061E-01   2.5670E-01   1.7229E-04  0.0434
   2.5670E-01   2.6295E-01   1.6420E-04  0.0440
   2.6295E-01   2.6935E-01   1.6525E-04  0.0433
   2.6935E-01   2.7590E-01   1.8413E-04  0.0405
   2.7590E-01   2.8261E-01   1.7821E-04  0.0407
   2.8261E-01   2.8949E-01   1.8163E-04  0.0398
   2.8949E-01   2.9653E-01   1.9842E-04  0.0377
   2.9653E-01   3.0375E-01   1.9149E-04  0.0378
   3.0375E-01   3.1114E-01   2.0487E-04  0.0362
   3.1114E-01   3.1871E-01   2.1525E-04  0.0348
   3.1871E-01   3.2646E-01   2.1964E-04  0.0341
   3.2646E-01   3.3441E-01   2.4466E-04  0.0319
   3.3441E-01   3.4254E-01   2.1832E-04  0.0334
   3.4254E-01   3.5088E-01   2.3834E-04  0.0316
   3.5088E-01   3.5941E-01   2.4337E-04  0.0309
   3.5941E-01   3.6816E-01   2.6199E-04  0.0294
   3.6816E-01   3.7712E-01   2.4566E-04  0.0300
   3.7712E-01   3.8629E-01   2.5519E-04  0.0291
   3.8629E-01   3.9569E-01   2.4231E-04  0.0295
   3.9569E-01   4.0532E-01   2.7550E-04  0.0273
   4.0532E-01   4.1518E-01   2.8065E-04  0.0268
   4.1518E-01   4.2528E-01   2.6873E-04  0.0270
   4.2528E-01   4.3563E-01   2.7890E-04  0.0262
   4.3563E-01   4.4623E-01   2.7168E-04  0.0262
   4.4623E-01   4.5708E-01   2.9217E-04  0.0250
   4.5708E-01   4.6821E-01   3.0390E-04  0.0242
   4.6821E-01   4.7960E-01   2.9347E-04  0.0243
   4.7960E-01   4.9127E-01   3.0742E-04  0.0235
   4.9127E-01   5.0322E-01   3.0832E-04  0.0232
   5.0322E-01   5.1546E-01   3.1100E-04  0.0228
   5.1546E-01   5.2800E-01   3.0042E-04  0.0229
   5.2800E-01   5.4085E-01   3.0562E-04  0.0224
   5.4085E-01   5.5401E-01   3.2078E-04  0.0216
   5.5401E-01   5.6749E-01   3.2161E-04  0.0214
   5.6749E-01   5.8130E-01   3.0762E-04  0.0216
   5.8130E-01   5.9544E-01   3.2281E-04  0.0208
   5.9544E-01   6.0993E-01   3.2808E-04  0.0204
   6.0993E-01   6.2477E-01   3.1026E-04  0.0207
   6.2477E-01   6.3997E-01   3.2665E-04  0.0200
   6.3997E-01   6.5554E-01   3.2201E-04  0.0199
   6.5554E-01   6.7149E-01   3.3427E-04  0.0193
   6.7149E-01   6.8783E-01   3.2200E-04  0.0194
   6.8783E-01   7.0456E-01   3.1974E-04  0.0192
   7.0456E-01   7.2171E-01   3.2265E-04  0.0189
   7.2171E-01   7.3927E-01   3.1587E-04  0.0189
   7.3927E-01   7.5725E-01   3.1828E-04  0.0186
   7.5725E-01   7.7568E-01   3.0484E-04  0.0187
   7.7568E-01   7.9455E-01   3.0258E-04  0.0186
   7.9455E-01   8.1388E-01   3.0660E-04  0.0183
   8.1388E-01   8.3368E-01   2.9638E-04  0.0183
   8.3368E-01   8.5397E-01   2.9223E-04  0.0183
   8.5397E-01   8.7475E-01   2.8478E-04  0.0183
   8.7475E-01   8.9603E-01   2.8099E-04  0.0182
   8.9603E-01   9.1783E-01   2.6872E-04  0.0183
   9.1783E-01   9.4016E-01   2.6870E-04  0.0181
   9.4016E-01   9.6304E-01   2.7392E-04  0.0178
   9.6304E-01   9.8647E-01   2.5140E-04  0.0183
   9.8647E-01   1.0105E+00   2.4935E-04  0.0182
   1.0105E+00   1.0351E+00   2.6336E-04  0.0175
   1.0351E+00   1.0602E+00   2.6926E-04  0.0171
   1.0602E+00   1.0860E+00   2.7469E-04  0.0167
   1.0860E+00   1.1125E+00   2.8527E-04  0.0162
   1.1125E+00   1.1395E+00   2.8499E-04  0.0160
   1.1395E+00   1.1673E+00   2.9164E-04  0.0156
   1.1673E+00   1.1957E+00   3.0742E-04  0.0150
   1.1957E+00   1.2247E+00   3.1749E-04  0.0146
   1.2247E+00   1.2545E+00   3.1329E-04  0.0145
   1.2545E+00   1.2851E+00   3.1930E-04  0.0142
   1.2851E+00   1.3163E+00   3.4211E-04  0.0136
   1.3163E+00   1.3484E+00   3.3991E-04  0.0135
   1.3484E+00   1.3812E+00   3.5583E-04  0.0130
   1.3812E+00   1.4148E+00   3.6272E-04  0.0127
   1.4148E+00   1.4492E+00   3.7081E-04  0.0124
   1.4492E+00   1.4845E+00   3.6366E-04  0.0124
   1.4845E+00   1.5206E+00   3.6334E-04  0.0123
   1.5206E+00   1.5576E+00   3.7398E-04  0.0119
   1.5576E+00   1.5955E+00   3.7383E-04  0.0118
   1.5955E+00   1.6343E+00   3.8218E-04  0.0115
   1.6343E+00   1.6741E+00   3.9453E-04  0.0112
   1.6741E+00   1.7148E+00   4.0227E-04  0.0110
   1.7148E+00   1.7565E+00   3.9262E-04  0.0110
   1.7565E+00   1.7992E+00   4.0496E-04  0.0107
   1.7992E+00   1.8430E+00   4.0398E-04  0.0106
   1.8430E+00   1.8879E+00   4.1449E-04  0.0103
   1.8879E+00   1.9338E+00   4.1763E-04  0.0101
   1.9338E+00   1.9808E+00   4.1378E-04  0.0101
   1.9808E+00   2.0290E+00   4.2297E-04  0.0098
   2.0290E+00   2.0784E+00   4.3014E-04  0.0096
   2.0784E+00   2.1290E+00   4.3329E-04  0.0095
   2.1290E+00   2.1808E+00   4.3107E-04  0.0094
   2.1808E+00   2.2338E+00   4.2691E-04  0.0093
   2.2338E+00   2.2882E+00   4.2191E-04  0.0093
   2.2882E+00   2.3439E+00   4.2542E-04  0.0091
   2.3439E+00   2.4009E+00   4.2739E-04  0.0090
   2.4009E+00   2.4593E+00   4.3611E-04  0.0088
   2.4593E+00   2.5191E+00   4.3490E-04  0.0087
   2.5191E+00   2.5804E+00   4.3719E-04  0.0086
   2.5804E+00   2.6432E+00   4.3051E-04  0.0085
   2.6432E+00   2.7075E+00   4.2895E-04  0.0085
   2.7075E+00   2.7734E+00   4.2606E-04  0.0084
   2.7734E+00   2.8409E+00   4.2100E-04  0.0083
   2.8409E+00   2.9100E+00   4.1819E-04  0.0083
   2.9100E+00   2.9808E+00   4.2118E-04  0.0081
   2.9808E+00   3.0533E+00   4.2357E-04  0.0080
   3.0533E+00   3.1276E+00   4.1918E-04  0.0080
   3.1276E+00   3.2037E+00   4.1658E-04  0.0079
   3.2037E+00   3.2817E+00   4.0632E-04  0.0079
   3.2817E+00   3.3615E+00   4.0793E-04  0.0078
   3.3615E+00   3.4433E+00   4.0225E-04  0.0077
   3.4433E+00   3.5271E+00   3.9705E-04  0.0077
   3.5271E+00   3.6129E+00   3.9791E-04  0.0076
   3.6129E+00   3.7008E+00   3.8923E-04  0.0076
   3.7008E+00   3.7908E+00   3.8596E-04  0.0075
   3.7908E+00   3.8831E+00   3.8244E-04  0.0075
   3.8831E+00   3.9776E+00   3.7547E-04  0.0075
   3.9776E+00   4.0743E+00   3.6895E-04  0.0074
   4.0743E+00   4.1735E+00   3.6412E-04  0.0074
   4.1735E+00   4.2750E+00   3.5777E-04  0.0074
   4.2750E+00   4.3790E+00   3.4882E-04  0.0074
   4.3790E+00   4.4856E+00   3.4486E-04  0.0073
   4.4856E+00   4.5947E+00   3.3768E-04  0.0073
   4.5947E+00   4.7065E+00   3.2356E-04  0.0074
   4.7065E+00   4.8210E+00   3.2142E-04  0.0073
   4.8210E+00   4.9383E+00   3.1328E-04  0.0073
   4.9383E+00   5.0585E+00   3.0322E-04  0.0074
   5.0585E+00   5.1815E+00   2.9484E-04  0.0074
   5.1815E+00   5.3076E+00   2.8592E-04  0.0074
   5.3076E+00   5.4368E+00   2.8161E-04  0.0074
   5.4368E+00   5.5690E+00   2.7628E-04  0.0074
   5.5690E+00   5.7045E+00   2.6207E-04  0.0075
   5.7045E+00   5.8433E+00   2.5393E-04  0.0075
   5.8433E+00   5.9855E+00   2.4805E-04  0.0075
   5.9855E+00   6.1311E+00   2.4324E-04  0.0075
   6.1311E+00   6.2803E+00   2.3370E-04  0.0075
   6.2803E+00   6.4331E+00   2.3082E-04  0.0075
   6.4331E+00   6.5896E+00   2.2113E-04  0.0076
   6.5896E+00   6.7500E+00   2.1329E-04  0.0076
   6.7500E+00   6.9142E+00   2.0206E-04  0.0077
   6.9142E+00   7.0824E+00   1.9554E-04  0.0078
   7.0824E+00   7.2548E+00   1.9219E-04  0.0077
   7.2548E+00   7.4313E+00   1.8335E-04  0.0078
   7.4313E+00   7.6121E+00   1.7597E-04  0.0079
   7.6121E+00   7.7973E+00   1.6819E-04  0.0080
   7.7973E+00   7.9870E+00   1.6215E-04  0.0080
   7.9870E+00   8.1813E+00   1.5870E-04  0.0080
   8.1813E+00   8.3804E+00   1.4972E-04  0.0082
   8.3804E+00   8.5843E+00   1.4240E-04  0.0083
   8.5843E+00   8.7931E+00   1.3638E-04  0.0083
   8.7931E+00   9.0071E+00   1.2959E-04  0.0085
   9.0071E+00   9.2262E+00   1.2716E-04  0.0084
   9.2262E+00   9.4507E+00   1.1972E-04  0.0086
   9.4507E+00   9.6807E+00   1.1517E-04  0.0087
   9.6807E+00   9.9162E+00   1.0925E-04  0.0088
   9.9162E+00   1.0157E+01   1.0574E-04  0.0088
   1.0157E+01   1.0405E+01   1.0403E-04  0.0088
   1.0405E+01   1.0658E+01   1.0145E-04  0.0088
   1.0658E+01   1.0917E+01   9.8932E-05  0.0088
   1.0917E+01   1.1183E+01   9.5998E-05  0.0088
   1.1183E+01   1.1455E+01   9.2523E-05  0.0089
   1.1455E+01   1.1733E+01   8.9296E-05  0.0089
   1.1733E+01   1.2019E+01   8.5737E-05  0.0090
   1.2019E+01   1.2311E+01   8.1570E-05  0.0091
   1.2311E+01   1.2611E+01   7.8528E-05  0.0092
   1.2611E+01   1.2918E+01   7.5177E-05  0.0093
   1.2918E+01   1.3232E+01   7.2176E-05  0.0094
   1.3232E+01   1.3554E+01   7.0146E-05  0.0094
   1.3554E+01   1.3884E+01   6.6401E-05  0.0095
   1.3884E+01   1.4222E+01   6.3826E-05  0.0096
   1.4222E+01   1.4568E+01   6.1461E-05  0.0097
   1.4568E+01   1.4922E+01   5.8094E-05  0.0098
   1.4922E+01   1.5285E+01   5.3923E-05  0.0101
   1.5285E+01   1.5657E+01   5.1729E-05  0.0102
   1.5657E+01   1.6038E+01   4.9791E-05  0.0103
   1.6038E+01   1.6428E+01   4.6524E-05  0.0105
   1.6428E+01   1.6828E+01   4.4164E-05  0.0106
   1.6828E+01   1.7237E+01   4.1286E-05  0.0109
   1.7237E+01   1.7657E+01   3.9387E-05  0.0110
   1.7657E+01   1.8086E+01   3.7434E-05  0.0112
   1.8086E+01   1.8526E+01   3.5362E-05  0.0113
   1.8526E+01   1.8977E+01   3.4382E-05  0.0114
   1.8977E+01   1.9439E+01   3.3774E-05  0.0113
   1.9439E+01   1.9912E+01   3.2881E-05  0.0113
   1.9912E+01   2.0396E+01   3.1973E-05  0.0114
   2.0396E+01   2.0893E+01   3.0690E-05  0.0115
   2.0893E+01   2.1401E+01   2.8946E-05  0.0117
   2.1401E+01   2.1922E+01   2.6960E-05  0.0119
   2.1922E+01   2.2455E+01   2.5644E-05  0.0121
   2.2455E+01   2.3001E+01   2.4010E-05  0.0123
   2.3001E+01   2.3561E+01   2.2950E-05  0.0125
   2.3561E+01   2.4134E+01   2.0821E-05  0.0129
   2.4134E+01   2.4721E+01   1.9571E-05  0.0132
   2.4721E+01   2.5323E+01   1.8474E-05  0.0134
   2.5323E+01   2.5939E+01   1.7380E-05  0.0137
   2.5939E+01   2.6570E+01   1.5959E-05  0.0141
   2.6570E+01   2.7217E+01   1.4339E-05  0.0147
   2.7217E+01   2.7879E+01   1.4002E-05  0.0147
   2.7879E+01   2.8557E+01   1.3053E-05  0.0150
   2.8557E+01   2.9252E+01   1.1430E-05  0.0159
   2.9252E+01   2.9964E+01   1.0830E-05  0.0161
   2.9964E+01   3.0693E+01   1.0170E-05  0.0164
   3.0693E+01   3.1440E+01   9.0495E-06  0.0172
   3.1440E+01   3.2205E+01   8.5417E-06  0.0175
   3.2205E+01   3.2988E+01   7.2898E-06  0.0187
   3.2988E+01   3.3791E+01   6.9846E-06  0.0189
   3.3791E+01   3.4613E+01   5.9867E-06  0.0202
   3.4613E+01   3.5455E+01   5.4527E-06  0.0209
   3.5455E+01   3.6318E+01   4.8270E-06  0.0219
   3.6318E+01   3.7201E+01   4.3842E-06  0.0227
   3.7201E+01   3.8106E+01   3.8646E-06  0.0239
   3.8106E+01   3.9034E+01   3.3608E-06  0.0253
   3.9034E+01   3.9983E+01   2.9546E-06  0.0267
   3.9983E+01   4.0956E+01   2.5678E-06  0.0283
   4.0956E+01   4.1953E+01   2.1134E-06  0.0308
   4.1953E+01   4.2973E+01   1.6811E-06  0.0341
   4.2973E+01   4.4019E+01   1.4040E-06  0.0369
   4.4019E+01   4.5090E+01   1.1223E-06  0.0408
   4.5090E+01   4.6187E+01   9.2063E-07  0.0445
   4.6187E+01   4.7311E+01   7.8486E-07  0.0476
   4.7311E+01   4.8462E+01   5.9421E-07  0.0541
   4.8462E+01   4.9641E+01   4.6136E-07  0.0606
   4.9641E+01   5.0849E+01   2.9475E-07  0.0750
   5.0849E+01   5.2086E+01   2.3117E-07  0.0836
   5.2086E+01   5.3353E+01   8.8377E-08  0.1336
   5.3353E+01   5.4651E+01   4.4680E-08  0.1857
   5.4651E+01   5.5981E+01   1.9553E-08  0.2774
   5.5981E+01   5.7343E+01   1.3215E-08  0.3333
   5.7343E+01   5.8738E+01   1.4335E-09  1.0000
   5.8738E+01   6.0168E+01   1.3994E-09  1.0000
   6.0168E+01   6.1632E+01   1.3662E-09  1.0000
   6.1632E+01   6.3131E+01   0.0000E+00  0.0000
   6.3131E+01   6.4667E+01   0.0000E+00  0.0000
   6.4667E+01   6.6240E+01   0.0000E+00  0.0000
   6.6240E+01   6.7852E+01   0.0000E+00  0.0000
   6.7852E+01   6.9503E+01   0.0000E+00  0.0000
   6.9503E+01   7.1194E+01   0.0000E+00  0.0000
   7.1194E+01   7.2926E+01   0.0000E+00  0.0000
   7.2926E+01   7.4701E+01   0.0000E+00  0.0000
   7.4701E+01   7.6518E+01   0.0000E+00  0.0000
   7.6518E+01   7.8380E+01   0.0000E+00  0.0000
   7.8380E+01   8.0287E+01   0.0000E+00  0.0000
   8.0287E+01   8.2240E+01   0.0000E+00  0.0000
   8.2240E+01   8.4241E+01   0.0000E+00  0.0000
   8.4241E+01   8.6291E+01   0.0000E+00  0.0000
   8.6291E+01   8.8391E+01   0.0000E+00  0.0000
   8.8391E+01   9.0541E+01   0.0000E+00  0.0000
   9.0541E+01   9.2744E+01   0.0000E+00  0.0000
   9.2744E+01   9.5001E+01   0.0000E+00  0.0000
   9.5001E+01   9.7312E+01   0.0000E+00  0.0000
   9.7312E+01   9.9680E+01   0.0000E+00  0.0000
   9.9680E+01   1.0211E+02   0.0000E+00  0.0000
   1.0211E+02   1.0459E+02   0.0000E+00  0.0000
   1.0459E+02   1.0713E+02   0.0000E+00  0.0000
   1.0713E+02   1.0974E+02   0.0000E+00  0.0000
   1.0974E+02   1.1241E+02   0.0000E+00  0.0000
   1.1241E+02   1.1515E+02   0.0000E+00  0.0000
   1.1515E+02   1.1795E+02   0.0000E+00  0.0000
   1.1795E+02   1.2082E+02   0.0000E+00  0.0000
   1.2082E+02   1.2376E+02   0.0000E+00  0.0000
   1.2376E+02   1.2677E+02   0.0000E+00  0.0000
   1.2677E+02   1.2985E+02   0.0000E+00  0.0000
   1.2985E+02   1.3301E+02   0.0000E+00  0.0000
   1.3301E+02   1.3625E+02   0.0000E+00  0.0000
   1.3625E+02   1.3956E+02   0.0000E+00  0.0000
   1.3956E+02   1.4296E+02   0.0000E+00  0.0000
   1.4296E+02   1.4644E+02   0.0000E+00  0.0000
   1.4644E+02   1.5000E+02   0.0000E+00  0.0000

#   sum over                 2.3997E-05
'no. =    1   reg = 111 - 211'
msuc: {\huge [t-cross] in region mesh}
msdr: {\it plotted by \ANGEL \version}
msdl: {\it calculated by \PHITS  3.26}
wt: s(0.7)
\vspace{-3}
  region surface crossing
  area  &=&   1.0000E+00 [cm^2]
e:
 
# Information for Restart Calculation
# This calculation was newly started
# istdev =  2 # 1:Batch variance, 2:History variance
# resc2  = 5.00000000000000000E+08 # Total source weight or Total source weight / maxcas
# resc3  = 5.00000000000000000E+08 # Total history number or Total batch number
# maxcas =   500000000 # History / Batch, only used for istdev=1
# bitrseed = 1101101111010011011000101101110001100110110010110001010100010001 # bit data of rseed
