[ T-Cross ]
    title = [t-cross] in region mesh
     mesh =  reg            # mesh type is region-wise
      reg =    1            # number of crossing regions
      non     r-from    r-to       area
      1       109       209        1.000000    
   e-type =    3            # e-mesh is log given by emin, emax and ne
     emin =  1.0000000E-02  # minimum value of e-mesh points
     emax =   150.0000      # maximum value of e-mesh points
#    edel =  2.4039514E-02  # mesh width of e-mesh points
       ne =    400          # number of e-mesh points
#    data = ( e(i), i = 1, ne + 1 )
#           1.00000E-02  1.02433E-02  1.04925E-02  1.07478E-02  1.10093E-02
#           1.12772E-02  1.15516E-02  1.18326E-02  1.21205E-02  1.24154E-02
#           1.27175E-02  1.30269E-02  1.33439E-02  1.36686E-02  1.40011E-02
#           1.43418E-02  1.46907E-02  1.50482E-02  1.54143E-02  1.57894E-02
#           1.61735E-02  1.65670E-02  1.69701E-02  1.73830E-02  1.78060E-02
#           1.82392E-02  1.86830E-02  1.91375E-02  1.96032E-02  2.00801E-02
#           2.05687E-02  2.10692E-02  2.15818E-02  2.21069E-02  2.26448E-02
#           2.31957E-02  2.37601E-02  2.43382E-02  2.49304E-02  2.55369E-02
#           2.61583E-02  2.67947E-02  2.74467E-02  2.81145E-02  2.87985E-02
#           2.94992E-02  3.02169E-02  3.09521E-02  3.17052E-02  3.24766E-02
#           3.32668E-02  3.40762E-02  3.49053E-02  3.57546E-02  3.66246E-02
#           3.75157E-02  3.84284E-02  3.93634E-02  4.03212E-02  4.13022E-02
#           4.23071E-02  4.33365E-02  4.43909E-02  4.54710E-02  4.65773E-02
#           4.77106E-02  4.88714E-02  5.00605E-02  5.12785E-02  5.25262E-02
#           5.38042E-02  5.51133E-02  5.64542E-02  5.78278E-02  5.92348E-02
#           6.06760E-02  6.21523E-02  6.36645E-02  6.52135E-02  6.68002E-02
#           6.84255E-02  7.00904E-02  7.17957E-02  7.35426E-02  7.53319E-02
#           7.71648E-02  7.90423E-02  8.09655E-02  8.29354E-02  8.49533E-02
#           8.70203E-02  8.91376E-02  9.13064E-02  9.35279E-02  9.58035E-02
#           9.81345E-02  1.00522E-01  1.02968E-01  1.05473E-01  1.08040E-01
#           1.10668E-01  1.13361E-01  1.16119E-01  1.18944E-01  1.21838E-01
#           1.24803E-01  1.27839E-01  1.30950E-01  1.34136E-01  1.37399E-01
#           1.40742E-01  1.44167E-01  1.47675E-01  1.51268E-01  1.54948E-01
#           1.58718E-01  1.62580E-01  1.66535E-01  1.70587E-01  1.74738E-01
#           1.78989E-01  1.83344E-01  1.87805E-01  1.92375E-01  1.97055E-01
#           2.01850E-01  2.06761E-01  2.11792E-01  2.16945E-01  2.22223E-01
#           2.27630E-01  2.33169E-01  2.38842E-01  2.44653E-01  2.50605E-01
#           2.56703E-01  2.62949E-01  2.69346E-01  2.75900E-01  2.82613E-01
#           2.89489E-01  2.96532E-01  3.03747E-01  3.11138E-01  3.18708E-01
#           3.26462E-01  3.34405E-01  3.42542E-01  3.50876E-01  3.59413E-01
#           3.68158E-01  3.77116E-01  3.86291E-01  3.95690E-01  4.05317E-01
#           4.15179E-01  4.25281E-01  4.35628E-01  4.46227E-01  4.57084E-01
#           4.68205E-01  4.79597E-01  4.91266E-01  5.03219E-01  5.15463E-01
#           5.28005E-01  5.40851E-01  5.54011E-01  5.67490E-01  5.81298E-01
#           5.95441E-01  6.09929E-01  6.24769E-01  6.39970E-01  6.55541E-01
#           6.71491E-01  6.87828E-01  7.04564E-01  7.21706E-01  7.39266E-01
#           7.57253E-01  7.75678E-01  7.94551E-01  8.13883E-01  8.33685E-01
#           8.53969E-01  8.74747E-01  8.96030E-01  9.17831E-01  9.40163E-01
#           9.63038E-01  9.86469E-01  1.01047E+00  1.03506E+00  1.06024E+00
#           1.08604E+00  1.11246E+00  1.13953E+00  1.16725E+00  1.19565E+00
#           1.22474E+00  1.25454E+00  1.28507E+00  1.31633E+00  1.34836E+00
#           1.38117E+00  1.41477E+00  1.44920E+00  1.48446E+00  1.52057E+00
#           1.55757E+00  1.59547E+00  1.63429E+00  1.67405E+00  1.71478E+00
#           1.75650E+00  1.79924E+00  1.84302E+00  1.88786E+00  1.93379E+00
#           1.98084E+00  2.02904E+00  2.07841E+00  2.12898E+00  2.18078E+00
#           2.23384E+00  2.28819E+00  2.34386E+00  2.40089E+00  2.45930E+00
#           2.51914E+00  2.58043E+00  2.64322E+00  2.70753E+00  2.77341E+00
#           2.84088E+00  2.91001E+00  2.98081E+00  3.05333E+00  3.12762E+00
#           3.20372E+00  3.28167E+00  3.36152E+00  3.44330E+00  3.52708E+00
#           3.61290E+00  3.70080E+00  3.79085E+00  3.88308E+00  3.97756E+00
#           4.07434E+00  4.17347E+00  4.27501E+00  4.37903E+00  4.48557E+00
#           4.59471E+00  4.70650E+00  4.82102E+00  4.93832E+00  5.05847E+00
#           5.18155E+00  5.30762E+00  5.43676E+00  5.56904E+00  5.70453E+00
#           5.84333E+00  5.98550E+00  6.13114E+00  6.28031E+00  6.43312E+00
#           6.58964E+00  6.74997E+00  6.91420E+00  7.08243E+00  7.25475E+00
#           7.43126E+00  7.61207E+00  7.79728E+00  7.98700E+00  8.18133E+00
#           8.38038E+00  8.58428E+00  8.79315E+00  9.00709E+00  9.22624E+00
#           9.45072E+00  9.68067E+00  9.91620E+00  1.01575E+01  1.04046E+01
#           1.06578E+01  1.09171E+01  1.11827E+01  1.14548E+01  1.17335E+01
#           1.20190E+01  1.23114E+01  1.26109E+01  1.29178E+01  1.32321E+01
#           1.35540E+01  1.38838E+01  1.42216E+01  1.45676E+01  1.49221E+01
#           1.52851E+01  1.56570E+01  1.60380E+01  1.64282E+01  1.68279E+01
#           1.72374E+01  1.76568E+01  1.80864E+01  1.85264E+01  1.89772E+01
#           1.94389E+01  1.99119E+01  2.03963E+01  2.08926E+01  2.14009E+01
#           2.19216E+01  2.24550E+01  2.30014E+01  2.35610E+01  2.41343E+01
#           2.47215E+01  2.53230E+01  2.59391E+01  2.65702E+01  2.72167E+01
#           2.78789E+01  2.85572E+01  2.92520E+01  2.99637E+01  3.06928E+01
#           3.14396E+01  3.22045E+01  3.29881E+01  3.37907E+01  3.46128E+01
#           3.54550E+01  3.63177E+01  3.72013E+01  3.81064E+01  3.90336E+01
#           3.99833E+01  4.09561E+01  4.19526E+01  4.29734E+01  4.40189E+01
#           4.50900E+01  4.61870E+01  4.73108E+01  4.84619E+01  4.96410E+01
#           5.08488E+01  5.20860E+01  5.33533E+01  5.46514E+01  5.59812E+01
#           5.73432E+01  5.87384E+01  6.01676E+01  6.16315E+01  6.31311E+01
#           6.46671E+01  6.62405E+01  6.78522E+01  6.95031E+01  7.11941E+01
#           7.29263E+01  7.47007E+01  7.65182E+01  7.83800E+01  8.02870E+01
#           8.22405E+01  8.42414E+01  8.62911E+01  8.83906E+01  9.05412E+01
#           9.27442E+01  9.50007E+01  9.73122E+01  9.96799E+01  1.02105E+02
#           1.04589E+02  1.07134E+02  1.09741E+02  1.12411E+02  1.15146E+02
#           1.17948E+02  1.20817E+02  1.23757E+02  1.26768E+02  1.29852E+02
#           1.33012E+02  1.36248E+02  1.39563E+02  1.42959E+02  1.46437E+02
#           1.50000E+02
     unit =    2            # unit is [1/cm^2/(MeV/n)/source]
     axis =  eng            # axis of output
     file = detector-10.out  # file name of output for the above axis
   output = f-curr          # surface crossing forward current spectrum
     part =  neutron  
# kf/name :  2112     
#    used :        main (  %)        temp (  %)       total (  %)
#  memory :         414 (  0)           0 (  0)         414 (  0)

#------------------------------------------------------------------------------
#newpage:
#   no. =    1   reg = 109 - 209

x: Energy [MeV/n]
y:  F-Curr [1/cm^2/(MeV/n)/source]         
p: xlog ylog afac(0.8) form(0.9)
h: n            x            y(neutron ),hh0l   n 
#  e-lower      e-upper      neutron     r.err 
   1.0000E-02   1.0243E-02   5.8686E-03  0.0373
   1.0243E-02   1.0493E-02   5.9271E-03  0.0367
   1.0493E-02   1.0748E-02   5.4077E-03  0.0380
   1.0748E-02   1.1009E-02   5.6593E-03  0.0366
   1.1009E-02   1.1277E-02   5.2341E-03  0.0377
   1.1277E-02   1.1552E-02   5.6347E-03  0.0359
   1.1552E-02   1.1833E-02   5.0509E-03  0.0374
   1.1833E-02   1.2121E-02   4.8202E-03  0.0379
   1.2121E-02   1.2415E-02   5.1466E-03  0.0362
   1.2415E-02   1.2718E-02   4.4024E-03  0.0387
   1.2718E-02   1.3027E-02   4.8658E-03  0.0363
   1.3027E-02   1.3344E-02   4.6332E-03  0.0368
   1.3344E-02   1.3669E-02   4.3674E-03  0.0374
   1.3669E-02   1.4001E-02   4.3031E-03  0.0373
   1.4001E-02   1.4342E-02   3.9262E-03  0.0386
   1.4342E-02   1.4691E-02   4.1844E-03  0.0369
   1.4691E-02   1.5048E-02   4.0236E-03  0.0372
   1.5048E-02   1.5414E-02   4.0653E-03  0.0365
   1.5414E-02   1.5789E-02   3.6363E-03  0.0382
   1.5789E-02   1.6174E-02   3.8374E-03  0.0367
   1.6174E-02   1.6567E-02   3.7271E-03  0.0368
   1.6567E-02   1.6970E-02   3.5386E-03  0.0373
   1.6970E-02   1.7383E-02   3.4128E-03  0.0376
   1.7383E-02   1.7806E-02   3.4544E-03  0.0369
   1.7806E-02   1.8239E-02   3.4750E-03  0.0363
   1.8239E-02   1.8683E-02   3.1705E-03  0.0376
   1.8683E-02   1.9138E-02   3.2142E-03  0.0369
   1.9138E-02   1.9603E-02   3.1646E-03  0.0367
   1.9603E-02   2.0080E-02   3.2307E-03  0.0359
   2.0080E-02   2.0569E-02   3.1007E-03  0.0362
   2.0569E-02   2.1069E-02   3.0847E-03  0.0359
   2.1069E-02   2.1582E-02   2.7930E-03  0.0373
   2.1582E-02   2.2107E-02   2.7867E-03  0.0368
   2.2107E-02   2.2645E-02   2.6260E-03  0.0375
   2.2645E-02   2.3196E-02   2.8348E-03  0.0356
   2.3196E-02   2.3760E-02   2.6014E-03  0.0368
   2.3760E-02   2.4338E-02   2.8196E-03  0.0350
   2.4338E-02   2.4930E-02   2.4754E-03  0.0368
   2.4930E-02   2.5537E-02   2.4635E-03  0.0365
   2.5537E-02   2.6158E-02   2.3623E-03  0.0368
   2.6158E-02   2.6795E-02   2.3461E-03  0.0364
   2.6795E-02   2.7447E-02   2.2343E-03  0.0369
   2.7447E-02   2.8114E-02   2.2648E-03  0.0362
   2.8114E-02   2.8799E-02   2.1803E-03  0.0365
   2.8799E-02   2.9499E-02   2.2181E-03  0.0357
   2.9499E-02   3.0217E-02   2.0515E-03  0.0367
   3.0217E-02   3.0952E-02   2.0294E-03  0.0365
   3.0952E-02   3.1705E-02   2.0406E-03  0.0360
   3.1705E-02   3.2477E-02   2.0341E-03  0.0356
   3.2477E-02   3.3267E-02   1.9431E-03  0.0360
   3.3267E-02   3.4076E-02   1.9315E-03  0.0357
   3.4076E-02   3.4905E-02   1.9066E-03  0.0354
   3.4905E-02   3.5755E-02   1.8681E-03  0.0354
   3.5755E-02   3.6625E-02   1.7533E-03  0.0361
   3.6625E-02   3.7516E-02   1.7818E-03  0.0354
   3.7516E-02   3.8428E-02   1.7166E-03  0.0356
   3.8428E-02   3.9363E-02   1.6280E-03  0.0361
   3.9363E-02   4.0321E-02   1.5389E-03  0.0367
   4.0321E-02   4.1302E-02   1.7050E-03  0.0344
   4.1302E-02   4.2307E-02   1.4946E-03  0.0364
   4.2307E-02   4.3337E-02   1.4926E-03  0.0360
   4.3337E-02   4.4391E-02   1.4517E-03  0.0360
   4.4391E-02   4.5471E-02   1.4425E-03  0.0357
   4.5471E-02   4.6577E-02   1.3697E-03  0.0362
   4.6577E-02   4.7711E-02   1.4661E-03  0.0346
   4.7711E-02   4.8871E-02   1.3414E-03  0.0357
   4.8871E-02   5.0061E-02   1.3155E-03  0.0356
   5.0061E-02   5.1279E-02   1.2929E-03  0.0355
   5.1279E-02   5.2526E-02   1.3125E-03  0.0348
   5.2526E-02   5.3804E-02   1.2495E-03  0.0352
   5.3804E-02   5.5113E-02   1.1565E-03  0.0362
   5.5113E-02   5.6454E-02   1.2753E-03  0.0341
   5.6454E-02   5.7828E-02   1.2024E-03  0.0347
   5.7828E-02   5.9235E-02   1.1548E-03  0.0349
   5.9235E-02   6.0676E-02   1.1168E-03  0.0351
   6.0676E-02   6.2152E-02   1.1240E-03  0.0347
   6.2152E-02   6.3665E-02   1.0441E-03  0.0354
   6.3665E-02   6.5214E-02   1.0727E-03  0.0346
   6.5214E-02   6.6800E-02   1.0954E-03  0.0338
   6.6800E-02   6.8426E-02   1.0711E-03  0.0338
   6.8426E-02   7.0090E-02   1.0410E-03  0.0339
   7.0090E-02   7.1796E-02   1.0206E-03  0.0338
   7.1796E-02   7.3543E-02   9.8239E-04  0.0340
   7.3543E-02   7.5332E-02   9.3694E-04  0.0344
   7.5332E-02   7.7165E-02   8.9769E-04  0.0347
   7.7165E-02   7.9042E-02   9.5117E-04  0.0334
   7.9042E-02   8.0965E-02   9.3367E-04  0.0333
   8.0965E-02   8.2935E-02   8.7554E-04  0.0339
   8.2935E-02   8.4953E-02   8.7599E-04  0.0335
   8.4953E-02   8.7020E-02   7.9369E-04  0.0348
   8.7020E-02   8.9138E-02   8.2685E-04  0.0337
   8.9138E-02   9.1306E-02   7.6910E-04  0.0345
   9.1306E-02   9.3528E-02   7.8273E-04  0.0338
   9.3528E-02   9.5804E-02   7.5052E-04  0.0341
   9.5804E-02   9.8134E-02   7.0745E-04  0.0347
   9.8134E-02   1.0052E-01   7.0650E-04  0.0343
   1.0052E-01   1.0297E-01   7.0351E-04  0.0339
   1.0297E-01   1.0547E-01   7.1623E-04  0.0333
   1.0547E-01   1.0804E-01   6.6727E-04  0.0340
   1.0804E-01   1.1067E-01   6.7746E-04  0.0334
   1.1067E-01   1.1336E-01   6.5791E-04  0.0335
   1.1336E-01   1.1612E-01   6.8161E-04  0.0325
   1.1612E-01   1.1894E-01   6.6048E-04  0.0326
   1.1894E-01   1.2184E-01   6.1385E-04  0.0334
   1.2184E-01   1.2480E-01   6.1981E-04  0.0329
   1.2480E-01   1.2784E-01   5.8490E-04  0.0335
   1.2784E-01   1.3095E-01   5.9297E-04  0.0328
   1.3095E-01   1.3414E-01   5.8240E-04  0.0328
   1.3414E-01   1.3740E-01   5.3740E-04  0.0337
   1.3740E-01   1.4074E-01   5.1422E-04  0.0340
   1.4074E-01   1.4417E-01   5.3711E-04  0.0328
   1.4417E-01   1.4767E-01   5.5032E-04  0.0321
   1.4767E-01   1.5127E-01   5.0836E-04  0.0330
   1.5127E-01   1.5495E-01   5.0518E-04  0.0326
   1.5495E-01   1.5872E-01   4.9967E-04  0.0325
   1.5872E-01   1.6258E-01   4.7758E-04  0.0328
   1.6258E-01   1.6654E-01   4.8283E-04  0.0322
   1.6654E-01   1.7059E-01   4.7240E-04  0.0322
   1.7059E-01   1.7474E-01   4.4898E-04  0.0326
   1.7474E-01   1.7899E-01   4.6355E-04  0.0317
   1.7899E-01   1.8334E-01   4.2339E-04  0.0328
   1.8334E-01   1.8781E-01   4.3140E-04  0.0321
   1.8781E-01   1.9237E-01   4.4148E-04  0.0314
   1.9237E-01   1.9706E-01   4.1198E-04  0.0321
   1.9706E-01   2.0185E-01   4.2438E-04  0.0313
   2.0185E-01   2.0676E-01   4.2007E-04  0.0310
   2.0676E-01   2.1179E-01   4.3413E-04  0.0301
   2.1179E-01   2.1694E-01   4.5278E-04  0.0292
   2.1694E-01   2.2222E-01   4.8778E-04  0.0278
   2.2222E-01   2.2763E-01   4.8673E-04  0.0275
   2.2763E-01   2.3317E-01   4.9736E-04  0.0269
   2.3317E-01   2.3884E-01   5.2126E-04  0.0259
   2.3884E-01   2.4465E-01   5.2082E-04  0.0256
   2.4465E-01   2.5061E-01   5.7459E-04  0.0241
   2.5061E-01   2.5670E-01   5.7352E-04  0.0238
   2.5670E-01   2.6295E-01   5.9117E-04  0.0232
   2.6295E-01   2.6935E-01   6.3219E-04  0.0222
   2.6935E-01   2.7590E-01   6.3197E-04  0.0219
   2.7590E-01   2.8261E-01   6.5294E-04  0.0213
   2.8261E-01   2.8949E-01   6.3891E-04  0.0213
   2.8949E-01   2.9653E-01   6.9556E-04  0.0201
   2.9653E-01   3.0375E-01   7.2512E-04  0.0195
   3.0375E-01   3.1114E-01   7.1262E-04  0.0194
   3.1114E-01   3.1871E-01   7.6854E-04  0.0185
   3.1871E-01   3.2646E-01   7.8600E-04  0.0181
   3.2646E-01   3.3441E-01   7.9115E-04  0.0178
   3.3441E-01   3.4254E-01   7.7578E-04  0.0177
   3.4254E-01   3.5088E-01   8.3368E-04  0.0169
   3.5088E-01   3.5941E-01   8.6453E-04  0.0164
   3.5941E-01   3.6816E-01   8.6745E-04  0.0162
   3.6816E-01   3.7712E-01   8.9662E-04  0.0157
   3.7712E-01   3.8629E-01   9.3218E-04  0.0152
   3.8629E-01   3.9569E-01   9.4899E-04  0.0149
   3.9569E-01   4.0532E-01   9.7106E-04  0.0146
   4.0532E-01   4.1518E-01   9.7228E-04  0.0144
   4.1518E-01   4.2528E-01   1.0255E-03  0.0138
   4.2528E-01   4.3563E-01   1.0322E-03  0.0136
   4.3563E-01   4.4623E-01   1.0353E-03  0.0135
   4.4623E-01   4.5708E-01   1.0847E-03  0.0130
   4.5708E-01   4.6821E-01   1.1033E-03  0.0127
   4.6821E-01   4.7960E-01   1.1332E-03  0.0124
   4.7960E-01   4.9127E-01   1.1425E-03  0.0122
   4.9127E-01   5.0322E-01   1.1791E-03  0.0119
   5.0322E-01   5.1546E-01   1.2062E-03  0.0116
   5.1546E-01   5.2800E-01   1.2025E-03  0.0115
   5.2800E-01   5.4085E-01   1.2391E-03  0.0112
   5.4085E-01   5.5401E-01   1.2688E-03  0.0109
   5.5401E-01   5.6749E-01   1.2774E-03  0.0107
   5.6749E-01   5.8130E-01   1.3121E-03  0.0105
   5.8130E-01   5.9544E-01   1.3425E-03  0.0102
   5.9544E-01   6.0993E-01   1.3585E-03  0.0100
   6.0993E-01   6.2477E-01   1.3684E-03  0.0099
   6.2477E-01   6.3997E-01   1.4157E-03  0.0096
   6.3997E-01   6.5554E-01   1.3959E-03  0.0096
   6.5554E-01   6.7149E-01   1.4191E-03  0.0094
   6.7149E-01   6.8783E-01   1.4599E-03  0.0091
   6.8783E-01   7.0456E-01   1.4621E-03  0.0090
   7.0456E-01   7.2171E-01   1.4824E-03  0.0088
   7.2171E-01   7.3927E-01   1.5089E-03  0.0087
   7.3927E-01   7.5725E-01   1.5448E-03  0.0085
   7.5725E-01   7.7568E-01   1.5345E-03  0.0084
   7.7568E-01   7.9455E-01   1.5485E-03  0.0082
   7.9455E-01   8.1388E-01   1.5858E-03  0.0081
   8.1388E-01   8.3368E-01   1.5874E-03  0.0079
   8.3368E-01   8.5397E-01   1.6038E-03  0.0078
   8.5397E-01   8.7475E-01   1.6168E-03  0.0077
   8.7475E-01   8.9603E-01   1.6229E-03  0.0076
   8.9603E-01   9.1783E-01   1.6523E-03  0.0074
   9.1783E-01   9.4016E-01   1.6783E-03  0.0073
   9.4016E-01   9.6304E-01   1.6632E-03  0.0072
   9.6304E-01   9.8647E-01   1.6952E-03  0.0071
   9.8647E-01   1.0105E+00   1.7067E-03  0.0070
   1.0105E+00   1.0351E+00   1.7162E-03  0.0069
   1.0351E+00   1.0602E+00   1.6773E-03  0.0069
   1.0602E+00   1.0860E+00   1.7033E-03  0.0067
   1.0860E+00   1.1125E+00   1.6897E-03  0.0067
   1.1125E+00   1.1395E+00   1.6939E-03  0.0066
   1.1395E+00   1.1673E+00   1.7049E-03  0.0065
   1.1673E+00   1.1957E+00   1.7201E-03  0.0064
   1.1957E+00   1.2247E+00   1.7297E-03  0.0063
   1.2247E+00   1.2545E+00   1.7037E-03  0.0063
   1.2545E+00   1.2851E+00   1.7078E-03  0.0062
   1.2851E+00   1.3163E+00   1.6833E-03  0.0061
   1.3163E+00   1.3484E+00   1.6986E-03  0.0060
   1.3484E+00   1.3812E+00   1.6928E-03  0.0060
   1.3812E+00   1.4148E+00   1.7071E-03  0.0059
   1.4148E+00   1.4492E+00   1.7024E-03  0.0058
   1.4492E+00   1.4845E+00   1.6928E-03  0.0058
   1.4845E+00   1.5206E+00   1.6836E-03  0.0057
   1.5206E+00   1.5576E+00   1.6688E-03  0.0057
   1.5576E+00   1.5955E+00   1.6523E-03  0.0056
   1.5955E+00   1.6343E+00   1.6419E-03  0.0056
   1.6343E+00   1.6741E+00   1.6216E-03  0.0055
   1.6741E+00   1.7148E+00   1.5882E-03  0.0055
   1.7148E+00   1.7565E+00   1.5930E-03  0.0055
   1.7565E+00   1.7992E+00   1.5852E-03  0.0054
   1.7992E+00   1.8430E+00   1.5777E-03  0.0054
   1.8430E+00   1.8879E+00   1.5504E-03  0.0053
   1.8879E+00   1.9338E+00   1.5502E-03  0.0053
   1.9338E+00   1.9808E+00   1.5131E-03  0.0053
   1.9808E+00   2.0290E+00   1.5160E-03  0.0052
   2.0290E+00   2.0784E+00   1.4977E-03  0.0052
   2.0784E+00   2.1290E+00   1.4742E-03  0.0052
   2.1290E+00   2.1808E+00   1.4399E-03  0.0052
   2.1808E+00   2.2338E+00   1.4259E-03  0.0051
   2.2338E+00   2.2882E+00   1.4053E-03  0.0051
   2.2882E+00   2.3439E+00   1.4001E-03  0.0050
   2.3439E+00   2.4009E+00   1.3764E-03  0.0050
   2.4009E+00   2.4593E+00   1.3574E-03  0.0050
   2.4593E+00   2.5191E+00   1.3547E-03  0.0049
   2.5191E+00   2.5804E+00   1.3161E-03  0.0050
   2.5804E+00   2.6432E+00   1.3047E-03  0.0049
   2.6432E+00   2.7075E+00   1.2719E-03  0.0049
   2.7075E+00   2.7734E+00   1.2663E-03  0.0049
   2.7734E+00   2.8409E+00   1.2304E-03  0.0049
   2.8409E+00   2.9100E+00   1.2287E-03  0.0048
   2.9100E+00   2.9808E+00   1.2078E-03  0.0048
   2.9808E+00   3.0533E+00   1.1985E-03  0.0048
   3.0533E+00   3.1276E+00   1.1753E-03  0.0048
   3.1276E+00   3.2037E+00   1.1595E-03  0.0047
   3.2037E+00   3.2817E+00   1.1297E-03  0.0047
   3.2817E+00   3.3615E+00   1.1080E-03  0.0047
   3.3615E+00   3.4433E+00   1.1002E-03  0.0047
   3.4433E+00   3.5271E+00   1.0908E-03  0.0047
   3.5271E+00   3.6129E+00   1.0752E-03  0.0046
   3.6129E+00   3.7008E+00   1.0538E-03  0.0046
   3.7008E+00   3.7908E+00   1.0368E-03  0.0046
   3.7908E+00   3.8831E+00   1.0186E-03  0.0046
   3.8831E+00   3.9776E+00   1.0050E-03  0.0046
   3.9776E+00   4.0743E+00   9.8980E-04  0.0045
   4.0743E+00   4.1735E+00   9.8647E-04  0.0045
   4.1735E+00   4.2750E+00   9.8437E-04  0.0044
   4.2750E+00   4.3790E+00   9.7576E-04  0.0044
   4.3790E+00   4.4856E+00   9.7631E-04  0.0044
   4.4856E+00   4.5947E+00   9.9349E-04  0.0043
   4.5947E+00   4.7065E+00   1.0102E-03  0.0042
   4.7065E+00   4.8210E+00   1.0305E-03  0.0041
   4.8210E+00   4.9383E+00   1.0275E-03  0.0041
   4.9383E+00   5.0585E+00   1.0357E-03  0.0040
   5.0585E+00   5.1815E+00   1.0351E-03  0.0039
   5.1815E+00   5.3076E+00   1.0144E-03  0.0039
   5.3076E+00   5.4368E+00   1.0151E-03  0.0039
   5.4368E+00   5.5690E+00   9.9855E-04  0.0039
   5.5690E+00   5.7045E+00   9.8799E-04  0.0038
   5.7045E+00   5.8433E+00   9.7133E-04  0.0038
   5.8433E+00   5.9855E+00   9.5775E-04  0.0038
   5.9855E+00   6.1311E+00   9.4776E-04  0.0038
   6.1311E+00   6.2803E+00   9.3606E-04  0.0038
   6.2803E+00   6.4331E+00   9.3060E-04  0.0037
   6.4331E+00   6.5896E+00   9.1949E-04  0.0037
   6.5896E+00   6.7500E+00   9.0840E-04  0.0037
   6.7500E+00   6.9142E+00   8.9216E-04  0.0037
   6.9142E+00   7.0824E+00   8.8963E-04  0.0036
   7.0824E+00   7.2548E+00   8.9230E-04  0.0036
   7.2548E+00   7.4313E+00   8.8544E-04  0.0036
   7.4313E+00   7.6121E+00   8.7854E-04  0.0035
   7.6121E+00   7.7973E+00   8.6759E-04  0.0035
   7.7973E+00   7.9870E+00   8.5404E-04  0.0035
   7.9870E+00   8.1813E+00   8.4634E-04  0.0035
   8.1813E+00   8.3804E+00   8.3941E-04  0.0035
   8.3804E+00   8.5843E+00   8.2010E-04  0.0035
   8.5843E+00   8.7931E+00   8.1074E-04  0.0034
   8.7931E+00   9.0071E+00   7.9933E-04  0.0034
   9.0071E+00   9.2262E+00   7.8760E-04  0.0034
   9.2262E+00   9.4507E+00   7.7910E-04  0.0034
   9.4507E+00   9.6807E+00   7.6729E-04  0.0034
   9.6807E+00   9.9162E+00   7.5979E-04  0.0033
   9.9162E+00   1.0157E+01   7.5289E-04  0.0033
   1.0157E+01   1.0405E+01   7.3731E-04  0.0033
   1.0405E+01   1.0658E+01   7.3658E-04  0.0033
   1.0658E+01   1.0917E+01   7.3150E-04  0.0032
   1.0917E+01   1.1183E+01   7.1496E-04  0.0032
   1.1183E+01   1.1455E+01   7.0734E-04  0.0032
   1.1455E+01   1.1733E+01   7.0030E-04  0.0032
   1.1733E+01   1.2019E+01   6.8828E-04  0.0032
   1.2019E+01   1.2311E+01   6.7337E-04  0.0032
   1.2311E+01   1.2611E+01   6.5994E-04  0.0032
   1.2611E+01   1.2918E+01   6.4788E-04  0.0032
   1.2918E+01   1.3232E+01   6.3785E-04  0.0032
   1.3232E+01   1.3554E+01   6.2255E-04  0.0032
   1.3554E+01   1.3884E+01   6.1044E-04  0.0032
   1.3884E+01   1.4222E+01   5.9556E-04  0.0032
   1.4222E+01   1.4568E+01   5.8488E-04  0.0031
   1.4568E+01   1.4922E+01   5.7567E-04  0.0031
   1.4922E+01   1.5285E+01   5.6279E-04  0.0031
   1.5285E+01   1.5657E+01   5.4770E-04  0.0031
   1.5657E+01   1.6038E+01   5.3523E-04  0.0031
   1.6038E+01   1.6428E+01   5.2050E-04  0.0031
   1.6428E+01   1.6828E+01   5.0882E-04  0.0031
   1.6828E+01   1.7237E+01   4.9235E-04  0.0032
   1.7237E+01   1.7657E+01   4.8160E-04  0.0031
   1.7657E+01   1.8086E+01   4.6711E-04  0.0032
   1.8086E+01   1.8526E+01   4.5642E-04  0.0032
   1.8526E+01   1.8977E+01   4.4284E-04  0.0032
   1.8977E+01   1.9439E+01   4.3463E-04  0.0032
   1.9439E+01   1.9912E+01   4.2675E-04  0.0031
   1.9912E+01   2.0396E+01   4.2021E-04  0.0031
   2.0396E+01   2.0893E+01   4.0944E-04  0.0031
   2.0893E+01   2.1401E+01   3.9581E-04  0.0032
   2.1401E+01   2.1922E+01   3.8014E-04  0.0032
   2.1922E+01   2.2455E+01   3.6935E-04  0.0032
   2.2455E+01   2.3001E+01   3.5138E-04  0.0032
   2.3001E+01   2.3561E+01   3.3901E-04  0.0032
   2.3561E+01   2.4134E+01   3.2405E-04  0.0033
   2.4134E+01   2.4721E+01   3.0942E-04  0.0033
   2.4721E+01   2.5323E+01   2.9752E-04  0.0033
   2.5323E+01   2.5939E+01   2.8368E-04  0.0034
   2.5939E+01   2.6570E+01   2.7009E-04  0.0034
   2.6570E+01   2.7217E+01   2.5605E-04  0.0035
   2.7217E+01   2.7879E+01   2.4285E-04  0.0035
   2.7879E+01   2.8557E+01   2.2947E-04  0.0036
   2.8557E+01   2.9252E+01   2.1736E-04  0.0036
   2.9252E+01   2.9964E+01   2.0612E-04  0.0037
   2.9964E+01   3.0693E+01   1.9254E-04  0.0038
   3.0693E+01   3.1440E+01   1.8074E-04  0.0038
   3.1440E+01   3.2205E+01   1.6869E-04  0.0039
   3.2205E+01   3.2988E+01   1.5720E-04  0.0040
   3.2988E+01   3.3791E+01   1.4612E-04  0.0041
   3.3791E+01   3.4613E+01   1.3816E-04  0.0042
   3.4613E+01   3.5455E+01   1.2672E-04  0.0043
   3.5455E+01   3.6318E+01   1.1819E-04  0.0044
   3.6318E+01   3.7201E+01   1.0897E-04  0.0046
   3.7201E+01   3.8106E+01   1.0096E-04  0.0047
   3.8106E+01   3.9034E+01   9.3412E-05  0.0048
   3.9034E+01   3.9983E+01   8.5598E-05  0.0050
   3.9983E+01   4.0956E+01   7.8707E-05  0.0051
   4.0956E+01   4.1953E+01   7.1599E-05  0.0053
   4.1953E+01   4.2973E+01   6.5260E-05  0.0055
   4.2973E+01   4.4019E+01   5.9634E-05  0.0057
   4.4019E+01   4.5090E+01   5.3889E-05  0.0059
   4.5090E+01   4.6187E+01   4.9171E-05  0.0061
   4.6187E+01   4.7311E+01   4.4285E-05  0.0063
   4.7311E+01   4.8462E+01   4.0778E-05  0.0065
   4.8462E+01   4.9641E+01   3.6843E-05  0.0068
   4.9641E+01   5.0849E+01   3.3086E-05  0.0071
   5.0849E+01   5.2086E+01   2.9842E-05  0.0074
   5.2086E+01   5.3353E+01   2.6936E-05  0.0077
   5.3353E+01   5.4651E+01   2.4253E-05  0.0080
   5.4651E+01   5.5981E+01   2.2023E-05  0.0083
   5.5981E+01   5.7343E+01   1.9285E-05  0.0087
   5.7343E+01   5.8738E+01   1.7195E-05  0.0091
   5.8738E+01   6.0168E+01   1.5108E-05  0.0096
   6.0168E+01   6.1632E+01   1.3729E-05  0.0100
   6.1632E+01   6.3131E+01   1.2134E-05  0.0105
   6.3131E+01   6.4667E+01   1.0690E-05  0.0110
   6.4667E+01   6.6240E+01   9.5093E-06  0.0116
   6.6240E+01   6.7852E+01   8.0127E-06  0.0124
   6.7852E+01   6.9503E+01   7.0095E-06  0.0131
   6.9503E+01   7.1194E+01   6.0625E-06  0.0140
   7.1194E+01   7.2926E+01   5.1726E-06  0.0149
   7.2926E+01   7.4701E+01   4.5650E-06  0.0157
   7.4701E+01   7.6518E+01   3.9581E-06  0.0167
   7.6518E+01   7.8380E+01   3.3442E-06  0.0179
   7.8380E+01   8.0287E+01   2.8777E-06  0.0191
   8.0287E+01   8.2240E+01   2.4070E-06  0.0206
   8.2240E+01   8.4241E+01   2.0290E-06  0.0222
   8.4241E+01   8.6291E+01   1.6305E-06  0.0245
   8.6291E+01   8.8391E+01   1.3679E-06  0.0264
   8.8391E+01   9.0541E+01   1.1067E-06  0.0290
   9.0541E+01   9.2744E+01   9.4510E-07  0.0310
   9.2744E+01   9.5001E+01   7.7818E-07  0.0337
   9.5001E+01   9.7312E+01   5.1656E-07  0.0409
   9.7312E+01   9.9680E+01   2.2892E-07  0.0607
   9.9680E+01   1.0211E+02   5.0303E-08  0.1280
   1.0211E+02   1.0459E+02   1.6101E-09  0.7071
   1.0459E+02   1.0713E+02   0.0000E+00  0.0000
   1.0713E+02   1.0974E+02   0.0000E+00  0.0000
   1.0974E+02   1.1241E+02   0.0000E+00  0.0000
   1.1241E+02   1.1515E+02   0.0000E+00  0.0000
   1.1515E+02   1.1795E+02   0.0000E+00  0.0000
   1.1795E+02   1.2082E+02   0.0000E+00  0.0000
   1.2082E+02   1.2376E+02   0.0000E+00  0.0000
   1.2376E+02   1.2677E+02   0.0000E+00  0.0000
   1.2677E+02   1.2985E+02   0.0000E+00  0.0000
   1.2985E+02   1.3301E+02   0.0000E+00  0.0000
   1.3301E+02   1.3625E+02   0.0000E+00  0.0000
   1.3625E+02   1.3956E+02   0.0000E+00  0.0000
   1.3956E+02   1.4296E+02   0.0000E+00  0.0000
   1.4296E+02   1.4644E+02   0.0000E+00  0.0000
   1.4644E+02   1.5000E+02   0.0000E+00  0.0000

#   sum over                 1.4436E-04
'no. =    1   reg = 109 - 209'
msuc: {\huge [t-cross] in region mesh}
msdr: {\it plotted by \ANGEL \version}
msdl: {\it calculated by \PHITS  3.26}
wt: s(0.7)
\vspace{-3}
  region surface crossing
  area  &=&   1.0000E+00 [cm^2]
e:
 
# Information for Restart Calculation
# This calculation was newly started
# istdev =  2 # 1:Batch variance, 2:History variance
# resc2  = 5.00000000000000000E+08 # Total source weight or Total source weight / maxcas
# resc3  = 5.00000000000000000E+08 # Total history number or Total batch number
# maxcas =   500000000 # History / Batch, only used for istdev=1
# bitrseed = 1101101111010011011000101101110001100110110010110001010100010001 # bit data of rseed
