[ T-Cross ]
    title = [t-cross] in region mesh
     mesh =  reg            # mesh type is region-wise
      reg =    1            # number of crossing regions
      non     r-from    r-to       area
      1       126       226        1.000000    
   e-type =    3            # e-mesh is log given by emin, emax and ne
     emin =  1.0000000E-02  # minimum value of e-mesh points
     emax =   150.0000      # maximum value of e-mesh points
#    edel =  2.4039514E-02  # mesh width of e-mesh points
       ne =    400          # number of e-mesh points
#    data = ( e(i), i = 1, ne + 1 )
#           1.00000E-02  1.02433E-02  1.04925E-02  1.07478E-02  1.10093E-02
#           1.12772E-02  1.15516E-02  1.18326E-02  1.21205E-02  1.24154E-02
#           1.27175E-02  1.30269E-02  1.33439E-02  1.36686E-02  1.40011E-02
#           1.43418E-02  1.46907E-02  1.50482E-02  1.54143E-02  1.57894E-02
#           1.61735E-02  1.65670E-02  1.69701E-02  1.73830E-02  1.78060E-02
#           1.82392E-02  1.86830E-02  1.91375E-02  1.96032E-02  2.00801E-02
#           2.05687E-02  2.10692E-02  2.15818E-02  2.21069E-02  2.26448E-02
#           2.31957E-02  2.37601E-02  2.43382E-02  2.49304E-02  2.55369E-02
#           2.61583E-02  2.67947E-02  2.74467E-02  2.81145E-02  2.87985E-02
#           2.94992E-02  3.02169E-02  3.09521E-02  3.17052E-02  3.24766E-02
#           3.32668E-02  3.40762E-02  3.49053E-02  3.57546E-02  3.66246E-02
#           3.75157E-02  3.84284E-02  3.93634E-02  4.03212E-02  4.13022E-02
#           4.23071E-02  4.33365E-02  4.43909E-02  4.54710E-02  4.65773E-02
#           4.77106E-02  4.88714E-02  5.00605E-02  5.12785E-02  5.25262E-02
#           5.38042E-02  5.51133E-02  5.64542E-02  5.78278E-02  5.92348E-02
#           6.06760E-02  6.21523E-02  6.36645E-02  6.52135E-02  6.68002E-02
#           6.84255E-02  7.00904E-02  7.17957E-02  7.35426E-02  7.53319E-02
#           7.71648E-02  7.90423E-02  8.09655E-02  8.29354E-02  8.49533E-02
#           8.70203E-02  8.91376E-02  9.13064E-02  9.35279E-02  9.58035E-02
#           9.81345E-02  1.00522E-01  1.02968E-01  1.05473E-01  1.08040E-01
#           1.10668E-01  1.13361E-01  1.16119E-01  1.18944E-01  1.21838E-01
#           1.24803E-01  1.27839E-01  1.30950E-01  1.34136E-01  1.37399E-01
#           1.40742E-01  1.44167E-01  1.47675E-01  1.51268E-01  1.54948E-01
#           1.58718E-01  1.62580E-01  1.66535E-01  1.70587E-01  1.74738E-01
#           1.78989E-01  1.83344E-01  1.87805E-01  1.92375E-01  1.97055E-01
#           2.01850E-01  2.06761E-01  2.11792E-01  2.16945E-01  2.22223E-01
#           2.27630E-01  2.33169E-01  2.38842E-01  2.44653E-01  2.50605E-01
#           2.56703E-01  2.62949E-01  2.69346E-01  2.75900E-01  2.82613E-01
#           2.89489E-01  2.96532E-01  3.03747E-01  3.11138E-01  3.18708E-01
#           3.26462E-01  3.34405E-01  3.42542E-01  3.50876E-01  3.59413E-01
#           3.68158E-01  3.77116E-01  3.86291E-01  3.95690E-01  4.05317E-01
#           4.15179E-01  4.25281E-01  4.35628E-01  4.46227E-01  4.57084E-01
#           4.68205E-01  4.79597E-01  4.91266E-01  5.03219E-01  5.15463E-01
#           5.28005E-01  5.40851E-01  5.54011E-01  5.67490E-01  5.81298E-01
#           5.95441E-01  6.09929E-01  6.24769E-01  6.39970E-01  6.55541E-01
#           6.71491E-01  6.87828E-01  7.04564E-01  7.21706E-01  7.39266E-01
#           7.57253E-01  7.75678E-01  7.94551E-01  8.13883E-01  8.33685E-01
#           8.53969E-01  8.74747E-01  8.96030E-01  9.17831E-01  9.40163E-01
#           9.63038E-01  9.86469E-01  1.01047E+00  1.03506E+00  1.06024E+00
#           1.08604E+00  1.11246E+00  1.13953E+00  1.16725E+00  1.19565E+00
#           1.22474E+00  1.25454E+00  1.28507E+00  1.31633E+00  1.34836E+00
#           1.38117E+00  1.41477E+00  1.44920E+00  1.48446E+00  1.52057E+00
#           1.55757E+00  1.59547E+00  1.63429E+00  1.67405E+00  1.71478E+00
#           1.75650E+00  1.79924E+00  1.84302E+00  1.88786E+00  1.93379E+00
#           1.98084E+00  2.02904E+00  2.07841E+00  2.12898E+00  2.18078E+00
#           2.23384E+00  2.28819E+00  2.34386E+00  2.40089E+00  2.45930E+00
#           2.51914E+00  2.58043E+00  2.64322E+00  2.70753E+00  2.77341E+00
#           2.84088E+00  2.91001E+00  2.98081E+00  3.05333E+00  3.12762E+00
#           3.20372E+00  3.28167E+00  3.36152E+00  3.44330E+00  3.52708E+00
#           3.61290E+00  3.70080E+00  3.79085E+00  3.88308E+00  3.97756E+00
#           4.07434E+00  4.17347E+00  4.27501E+00  4.37903E+00  4.48557E+00
#           4.59471E+00  4.70650E+00  4.82102E+00  4.93832E+00  5.05847E+00
#           5.18155E+00  5.30762E+00  5.43676E+00  5.56904E+00  5.70453E+00
#           5.84333E+00  5.98550E+00  6.13114E+00  6.28031E+00  6.43312E+00
#           6.58964E+00  6.74997E+00  6.91420E+00  7.08243E+00  7.25475E+00
#           7.43126E+00  7.61207E+00  7.79728E+00  7.98700E+00  8.18133E+00
#           8.38038E+00  8.58428E+00  8.79315E+00  9.00709E+00  9.22624E+00
#           9.45072E+00  9.68067E+00  9.91620E+00  1.01575E+01  1.04046E+01
#           1.06578E+01  1.09171E+01  1.11827E+01  1.14548E+01  1.17335E+01
#           1.20190E+01  1.23114E+01  1.26109E+01  1.29178E+01  1.32321E+01
#           1.35540E+01  1.38838E+01  1.42216E+01  1.45676E+01  1.49221E+01
#           1.52851E+01  1.56570E+01  1.60380E+01  1.64282E+01  1.68279E+01
#           1.72374E+01  1.76568E+01  1.80864E+01  1.85264E+01  1.89772E+01
#           1.94389E+01  1.99119E+01  2.03963E+01  2.08926E+01  2.14009E+01
#           2.19216E+01  2.24550E+01  2.30014E+01  2.35610E+01  2.41343E+01
#           2.47215E+01  2.53230E+01  2.59391E+01  2.65702E+01  2.72167E+01
#           2.78789E+01  2.85572E+01  2.92520E+01  2.99637E+01  3.06928E+01
#           3.14396E+01  3.22045E+01  3.29881E+01  3.37907E+01  3.46128E+01
#           3.54550E+01  3.63177E+01  3.72013E+01  3.81064E+01  3.90336E+01
#           3.99833E+01  4.09561E+01  4.19526E+01  4.29734E+01  4.40189E+01
#           4.50900E+01  4.61870E+01  4.73108E+01  4.84619E+01  4.96410E+01
#           5.08488E+01  5.20860E+01  5.33533E+01  5.46514E+01  5.59812E+01
#           5.73432E+01  5.87384E+01  6.01676E+01  6.16315E+01  6.31311E+01
#           6.46671E+01  6.62405E+01  6.78522E+01  6.95031E+01  7.11941E+01
#           7.29263E+01  7.47007E+01  7.65182E+01  7.83800E+01  8.02870E+01
#           8.22405E+01  8.42414E+01  8.62911E+01  8.83906E+01  9.05412E+01
#           9.27442E+01  9.50007E+01  9.73122E+01  9.96799E+01  1.02105E+02
#           1.04589E+02  1.07134E+02  1.09741E+02  1.12411E+02  1.15146E+02
#           1.17948E+02  1.20817E+02  1.23757E+02  1.26768E+02  1.29852E+02
#           1.33012E+02  1.36248E+02  1.39563E+02  1.42959E+02  1.46437E+02
#           1.50000E+02
     unit =    2            # unit is [1/cm^2/(MeV/n)/source]
     axis =  eng            # axis of output
     file = detector-27.out  # file name of output for the above axis
   output = f-curr          # surface crossing forward current spectrum
     part =  neutron  
# kf/name :  2112     
#    used :        main (  %)        temp (  %)       total (  %)
#  memory :         414 (  0)           0 (  0)         414 (  0)

#------------------------------------------------------------------------------
#newpage:
#   no. =    1   reg = 126 - 226

x: Energy [MeV/n]
y:  F-Curr [1/cm^2/(MeV/n)/source]         
p: xlog ylog afac(0.8) form(0.9)
h: n            x            y(neutron ),hh0l   n 
#  e-lower      e-upper      neutron     r.err 
   1.0000E-02   1.0243E-02   9.4530E-04  0.0352
   1.0243E-02   1.0493E-02   8.8158E-04  0.0361
   1.0493E-02   1.0748E-02   7.8901E-04  0.0377
   1.0748E-02   1.1009E-02   8.4566E-04  0.0359
   1.1009E-02   1.1277E-02   8.6717E-04  0.0351
   1.1277E-02   1.1552E-02   8.8094E-04  0.0344
   1.1552E-02   1.1833E-02   7.9495E-04  0.0358
   1.1833E-02   1.2121E-02   8.5249E-04  0.0341
   1.2121E-02   1.2415E-02   8.2836E-04  0.0342
   1.2415E-02   1.2718E-02   8.8341E-04  0.0327
   1.2718E-02   1.3027E-02   8.9289E-04  0.0322
   1.3027E-02   1.3344E-02   8.4554E-04  0.0327
   1.3344E-02   1.3669E-02   8.4394E-04  0.0323
   1.3669E-02   1.4001E-02   8.1358E-04  0.0325
   1.4001E-02   1.4342E-02   8.2445E-04  0.0319
   1.4342E-02   1.4691E-02   8.6710E-04  0.0307
   1.4691E-02   1.5048E-02   7.9215E-04  0.0318
   1.5048E-02   1.5414E-02   8.1313E-04  0.0310
   1.5414E-02   1.5789E-02   8.0753E-04  0.0307
   1.5789E-02   1.6174E-02   8.2851E-04  0.0300
   1.6174E-02   1.6567E-02   7.7616E-04  0.0306
   1.6567E-02   1.6970E-02   7.8395E-04  0.0301
   1.6970E-02   1.7383E-02   7.8262E-04  0.0297
   1.7383E-02   1.7806E-02   8.0592E-04  0.0290
   1.7806E-02   1.8239E-02   7.9007E-04  0.0289
   1.8239E-02   1.8683E-02   7.8901E-04  0.0286
   1.8683E-02   1.9138E-02   7.7310E-04  0.0285
   1.9138E-02   1.9603E-02   7.6639E-04  0.0283
   1.9603E-02   2.0080E-02   7.5538E-04  0.0282
   2.0080E-02   2.0569E-02   7.4972E-04  0.0279
   2.0569E-02   2.1069E-02   7.5332E-04  0.0275
   2.1069E-02   2.1582E-02   7.6190E-04  0.0270
   2.1582E-02   2.2107E-02   7.4652E-04  0.0270
   2.2107E-02   2.2645E-02   7.2720E-04  0.0270
   2.2645E-02   2.3196E-02   7.3844E-04  0.0265
   2.3196E-02   2.3760E-02   7.4824E-04  0.0260
   2.3760E-02   2.4338E-02   7.2948E-04  0.0260
   2.4338E-02   2.4930E-02   7.2229E-04  0.0258
   2.4930E-02   2.5537E-02   7.4375E-04  0.0252
   2.5537E-02   2.6158E-02   7.2287E-04  0.0252
   2.6158E-02   2.6795E-02   7.2680E-04  0.0249
   2.6795E-02   2.7447E-02   7.4744E-04  0.0242
   2.7447E-02   2.8114E-02   7.2349E-04  0.0243
   2.8114E-02   2.8799E-02   6.8082E-04  0.0248
   2.8799E-02   2.9499E-02   6.9054E-04  0.0243
   2.9499E-02   3.0217E-02   7.0420E-04  0.0238
   3.0217E-02   3.0952E-02   6.9252E-04  0.0237
   3.0952E-02   3.1705E-02   6.9921E-04  0.0233
   3.1705E-02   3.2477E-02   6.7520E-04  0.0234
   3.2477E-02   3.3267E-02   6.8791E-04  0.0229
   3.3267E-02   3.4076E-02   6.6151E-04  0.0231
   3.4076E-02   3.4905E-02   6.5286E-04  0.0230
   3.4905E-02   3.5755E-02   6.5030E-04  0.0227
   3.5755E-02   3.6625E-02   6.8741E-04  0.0219
   3.6625E-02   3.7516E-02   6.6691E-04  0.0219
   3.7516E-02   3.8428E-02   6.2603E-04  0.0224
   3.8428E-02   3.9363E-02   6.3285E-04  0.0220
   3.9363E-02   4.0321E-02   6.4691E-04  0.0215
   4.0321E-02   4.1302E-02   6.5193E-04  0.0211
   4.1302E-02   4.2307E-02   6.1953E-04  0.0214
   4.2307E-02   4.3337E-02   6.4145E-04  0.0208
   4.3337E-02   4.4391E-02   6.2703E-04  0.0208
   4.4391E-02   4.5471E-02   6.2655E-04  0.0205
   4.5471E-02   4.6577E-02   6.2884E-04  0.0203
   4.6577E-02   4.7711E-02   6.1542E-04  0.0202
   4.7711E-02   4.8871E-02   6.2430E-04  0.0199
   4.8871E-02   5.0061E-02   6.0959E-04  0.0199
   5.0061E-02   5.1279E-02   5.8456E-04  0.0200
   5.1279E-02   5.2526E-02   6.1304E-04  0.0193
   5.2526E-02   5.3804E-02   6.0966E-04  0.0191
   5.3804E-02   5.5113E-02   5.9136E-04  0.0192
   5.5113E-02   5.6454E-02   5.9499E-04  0.0189
   5.6454E-02   5.7828E-02   6.0613E-04  0.0185
   5.7828E-02   5.9235E-02   5.7844E-04  0.0187
   5.9235E-02   6.0676E-02   5.9275E-04  0.0183
   6.0676E-02   6.2152E-02   5.6841E-04  0.0185
   6.2152E-02   6.3665E-02   5.7683E-04  0.0181
   6.3665E-02   6.5214E-02   5.7530E-04  0.0179
   6.5214E-02   6.6800E-02   5.5569E-04  0.0180
   6.6800E-02   6.8426E-02   5.4056E-04  0.0180
   6.8426E-02   7.0090E-02   5.5432E-04  0.0176
   7.0090E-02   7.1796E-02   5.4241E-04  0.0176
   7.1796E-02   7.3543E-02   5.2127E-04  0.0177
   7.3543E-02   7.5332E-02   5.2150E-04  0.0175
   7.5332E-02   7.7165E-02   5.3327E-04  0.0171
   7.7165E-02   7.9042E-02   5.2000E-04  0.0171
   7.9042E-02   8.0965E-02   5.2013E-04  0.0169
   8.0965E-02   8.2935E-02   5.0444E-04  0.0170
   8.2935E-02   8.4953E-02   5.3082E-04  0.0163
   8.4953E-02   8.7020E-02   5.1220E-04  0.0164
   8.7020E-02   8.9138E-02   5.1542E-04  0.0162
   8.9138E-02   9.1306E-02   5.0911E-04  0.0161
   9.1306E-02   9.3528E-02   4.8139E-04  0.0163
   9.3528E-02   9.5804E-02   4.8521E-04  0.0161
   9.5804E-02   9.8134E-02   4.8220E-04  0.0159
   9.8134E-02   1.0052E-01   4.9013E-04  0.0156
   1.0052E-01   1.0297E-01   4.8947E-04  0.0154
   1.0297E-01   1.0547E-01   4.7209E-04  0.0155
   1.0547E-01   1.0804E-01   4.7479E-04  0.0153
   1.0804E-01   1.1067E-01   4.6824E-04  0.0152
   1.1067E-01   1.1336E-01   4.6444E-04  0.0151
   1.1336E-01   1.1612E-01   4.7247E-04  0.0148
   1.1612E-01   1.1894E-01   4.5907E-04  0.0148
   1.1894E-01   1.2184E-01   4.5162E-04  0.0148
   1.2184E-01   1.2480E-01   4.4523E-04  0.0147
   1.2480E-01   1.2784E-01   4.4651E-04  0.0145
   1.2784E-01   1.3095E-01   4.4574E-04  0.0144
   1.3095E-01   1.3414E-01   4.3797E-04  0.0143
   1.3414E-01   1.3740E-01   4.3532E-04  0.0142
   1.3740E-01   1.4074E-01   4.3369E-04  0.0140
   1.4074E-01   1.4417E-01   4.2394E-04  0.0140
   1.4417E-01   1.4767E-01   4.1839E-04  0.0140
   1.4767E-01   1.5127E-01   4.2073E-04  0.0137
   1.5127E-01   1.5495E-01   4.1381E-04  0.0137
   1.5495E-01   1.5872E-01   4.0470E-04  0.0137
   1.5872E-01   1.6258E-01   4.0300E-04  0.0135
   1.6258E-01   1.6654E-01   3.9607E-04  0.0135
   1.6654E-01   1.7059E-01   3.9149E-04  0.0134
   1.7059E-01   1.7474E-01   3.9792E-04  0.0132
   1.7474E-01   1.7899E-01   3.9290E-04  0.0131
   1.7899E-01   1.8334E-01   3.7284E-04  0.0133
   1.8334E-01   1.8781E-01   3.7436E-04  0.0131
   1.8781E-01   1.9237E-01   3.6372E-04  0.0131
   1.9237E-01   1.9706E-01   3.6881E-04  0.0129
   1.9706E-01   2.0185E-01   3.6262E-04  0.0128
   2.0185E-01   2.0676E-01   3.5848E-04  0.0127
   2.0676E-01   2.1179E-01   3.5812E-04  0.0126
   2.1179E-01   2.1694E-01   3.5901E-04  0.0124
   2.1694E-01   2.2222E-01   3.4637E-04  0.0125
   2.2222E-01   2.2763E-01   3.4702E-04  0.0123
   2.2763E-01   2.3317E-01   3.3627E-04  0.0124
   2.3317E-01   2.3884E-01   3.4088E-04  0.0122
   2.3884E-01   2.4465E-01   3.3603E-04  0.0121
   2.4465E-01   2.5061E-01   3.2293E-04  0.0122
   2.5061E-01   2.5670E-01   3.2445E-04  0.0120
   2.5670E-01   2.6295E-01   3.1861E-04  0.0120
   2.6295E-01   2.6935E-01   3.2257E-04  0.0118
   2.6935E-01   2.7590E-01   3.0662E-04  0.0119
   2.7590E-01   2.8261E-01   3.0228E-04  0.0119
   2.8261E-01   2.8949E-01   3.0677E-04  0.0116
   2.8949E-01   2.9653E-01   3.0101E-04  0.0116
   2.9653E-01   3.0375E-01   2.9255E-04  0.0116
   3.0375E-01   3.1114E-01   2.9424E-04  0.0115
   3.1114E-01   3.1871E-01   2.8874E-04  0.0114
   3.1871E-01   3.2646E-01   2.8270E-04  0.0114
   3.2646E-01   3.3441E-01   2.7639E-04  0.0114
   3.3441E-01   3.4254E-01   2.7921E-04  0.0112
   3.4254E-01   3.5088E-01   2.6352E-04  0.0114
   3.5088E-01   3.5941E-01   2.6262E-04  0.0113
   3.5941E-01   3.6816E-01   2.6149E-04  0.0112
   3.6816E-01   3.7712E-01   2.5619E-04  0.0112
   3.7712E-01   3.8629E-01   2.5191E-04  0.0111
   3.8629E-01   3.9569E-01   2.4821E-04  0.0111
   3.9569E-01   4.0532E-01   2.4608E-04  0.0110
   4.0532E-01   4.1518E-01   2.4100E-04  0.0110
   4.1518E-01   4.2528E-01   2.3725E-04  0.0109
   4.2528E-01   4.3563E-01   2.3853E-04  0.0108
   4.3563E-01   4.4623E-01   2.2874E-04  0.0109
   4.4623E-01   4.5708E-01   2.2371E-04  0.0108
   4.5708E-01   4.6821E-01   2.2440E-04  0.0107
   4.6821E-01   4.7960E-01   2.1863E-04  0.0107
   4.7960E-01   4.9127E-01   2.1179E-04  0.0108
   4.9127E-01   5.0322E-01   2.1029E-04  0.0107
   5.0322E-01   5.1546E-01   2.0625E-04  0.0106
   5.1546E-01   5.2800E-01   1.9947E-04  0.0107
   5.2800E-01   5.4085E-01   1.9430E-04  0.0107
   5.4085E-01   5.5401E-01   1.9247E-04  0.0106
   5.5401E-01   5.6749E-01   1.9073E-04  0.0105
   5.6749E-01   5.8130E-01   1.8721E-04  0.0105
   5.8130E-01   5.9544E-01   1.8261E-04  0.0105
   5.9544E-01   6.0993E-01   1.7379E-04  0.0107
   6.0993E-01   6.2477E-01   1.7340E-04  0.0105
   6.2477E-01   6.3997E-01   1.7067E-04  0.0105
   6.3997E-01   6.5554E-01   1.6646E-04  0.0105
   6.5554E-01   6.7149E-01   1.6538E-04  0.0104
   6.7149E-01   6.8783E-01   1.5826E-04  0.0105
   6.8783E-01   7.0456E-01   1.5172E-04  0.0106
   7.0456E-01   7.2171E-01   1.4907E-04  0.0106
   7.2171E-01   7.3927E-01   1.4379E-04  0.0106
   7.3927E-01   7.5725E-01   1.4112E-04  0.0106
   7.5725E-01   7.7568E-01   1.3596E-04  0.0107
   7.7568E-01   7.9455E-01   1.3313E-04  0.0107
   7.9455E-01   8.1388E-01   1.2848E-04  0.0107
   8.1388E-01   8.3368E-01   1.2558E-04  0.0107
   8.3368E-01   8.5397E-01   1.2357E-04  0.0107
   8.5397E-01   8.7475E-01   1.1785E-04  0.0108
   8.7475E-01   8.9603E-01   1.1081E-04  0.0110
   8.9603E-01   9.1783E-01   1.0914E-04  0.0110
   9.1783E-01   9.4016E-01   1.0326E-04  0.0111
   9.4016E-01   9.6304E-01   1.0085E-04  0.0111
   9.6304E-01   9.8647E-01   9.7140E-05  0.0112
   9.8647E-01   1.0105E+00   9.5226E-05  0.0112
   1.0105E+00   1.0351E+00   9.3086E-05  0.0112
   1.0351E+00   1.0602E+00   9.5345E-05  0.0109
   1.0602E+00   1.0860E+00   9.5683E-05  0.0108
   1.0860E+00   1.1125E+00   9.6324E-05  0.0106
   1.1125E+00   1.1395E+00   9.9040E-05  0.0103
   1.1395E+00   1.1673E+00   1.0065E-04  0.0101
   1.1673E+00   1.1957E+00   1.0319E-04  0.0099
   1.1957E+00   1.2247E+00   1.0761E-04  0.0096
   1.2247E+00   1.2545E+00   1.0844E-04  0.0094
   1.2545E+00   1.2851E+00   1.0816E-04  0.0093
   1.2851E+00   1.3163E+00   1.0817E-04  0.0092
   1.3163E+00   1.3484E+00   1.0921E-04  0.0090
   1.3484E+00   1.3812E+00   1.1237E-04  0.0088
   1.3812E+00   1.4148E+00   1.1377E-04  0.0086
   1.4148E+00   1.4492E+00   1.1245E-04  0.0086
   1.4492E+00   1.4845E+00   1.1147E-04  0.0085
   1.4845E+00   1.5206E+00   1.1192E-04  0.0084
   1.5206E+00   1.5576E+00   1.1267E-04  0.0083
   1.5576E+00   1.5955E+00   1.1272E-04  0.0082
   1.5955E+00   1.6343E+00   1.1080E-04  0.0082
   1.6343E+00   1.6741E+00   1.1188E-04  0.0080
   1.6741E+00   1.7148E+00   1.1476E-04  0.0078
   1.7148E+00   1.7565E+00   1.1305E-04  0.0078
   1.7565E+00   1.7992E+00   1.1234E-04  0.0077
   1.7992E+00   1.8430E+00   1.1032E-04  0.0077
   1.8430E+00   1.8879E+00   1.0868E-04  0.0077
   1.8879E+00   1.9338E+00   1.0858E-04  0.0076
   1.9338E+00   1.9808E+00   1.0726E-04  0.0075
   1.9808E+00   2.0290E+00   1.0722E-04  0.0074
   2.0290E+00   2.0784E+00   1.0625E-04  0.0074
   2.0784E+00   2.1290E+00   1.0189E-04  0.0074
   2.1290E+00   2.1808E+00   9.9217E-05  0.0075
   2.1808E+00   2.2338E+00   9.9343E-05  0.0074
   2.2338E+00   2.2882E+00   9.5577E-05  0.0074
   2.2882E+00   2.3439E+00   9.4454E-05  0.0074
   2.3439E+00   2.4009E+00   9.2473E-05  0.0074
   2.4009E+00   2.4593E+00   9.1585E-05  0.0073
   2.4593E+00   2.5191E+00   8.8006E-05  0.0074
   2.5191E+00   2.5804E+00   8.4797E-05  0.0074
   2.5804E+00   2.6432E+00   8.0510E-05  0.0075
   2.6432E+00   2.7075E+00   7.8651E-05  0.0075
   2.7075E+00   2.7734E+00   7.6461E-05  0.0075
   2.7734E+00   2.8409E+00   7.2219E-05  0.0077
   2.8409E+00   2.9100E+00   7.1554E-05  0.0076
   2.9100E+00   2.9808E+00   6.8440E-05  0.0077
   2.9808E+00   3.0533E+00   6.4844E-05  0.0078
   3.0533E+00   3.1276E+00   6.3083E-05  0.0078
   3.1276E+00   3.2037E+00   5.9463E-05  0.0079
   3.2037E+00   3.2817E+00   5.6847E-05  0.0080
   3.2817E+00   3.3615E+00   5.3530E-05  0.0082
   3.3615E+00   3.4433E+00   5.0243E-05  0.0083
   3.4433E+00   3.5271E+00   4.8480E-05  0.0084
   3.5271E+00   3.6129E+00   4.5298E-05  0.0086
   3.6129E+00   3.7008E+00   4.3695E-05  0.0086
   3.7008E+00   3.7908E+00   4.0279E-05  0.0089
   3.7908E+00   3.8831E+00   3.7843E-05  0.0090
   3.8831E+00   3.9776E+00   3.5621E-05  0.0092
   3.9776E+00   4.0743E+00   3.4106E-05  0.0093
   4.0743E+00   4.1735E+00   3.1257E-05  0.0096
   4.1735E+00   4.2750E+00   2.9699E-05  0.0097
   4.2750E+00   4.3790E+00   2.8212E-05  0.0099
   4.3790E+00   4.4856E+00   2.6153E-05  0.0101
   4.4856E+00   4.5947E+00   2.4230E-05  0.0104
   4.5947E+00   4.7065E+00   2.2993E-05  0.0105
   4.7065E+00   4.8210E+00   2.1456E-05  0.0108
   4.8210E+00   4.9383E+00   2.0116E-05  0.0110
   4.9383E+00   5.0585E+00   1.8567E-05  0.0113
   5.0585E+00   5.1815E+00   1.7219E-05  0.0116
   5.1815E+00   5.3076E+00   1.6291E-05  0.0118
   5.3076E+00   5.4368E+00   1.5122E-05  0.0121
   5.4368E+00   5.5690E+00   1.4113E-05  0.0124
   5.5690E+00   5.7045E+00   1.3052E-05  0.0127
   5.7045E+00   5.8433E+00   1.2347E-05  0.0129
   5.8433E+00   5.9855E+00   1.1314E-05  0.0133
   5.9855E+00   6.1311E+00   1.0273E-05  0.0138
   6.1311E+00   6.2803E+00   9.8551E-06  0.0139
   6.2803E+00   6.4331E+00   9.1097E-06  0.0143
   6.4331E+00   6.5896E+00   8.0874E-06  0.0150
   6.5896E+00   6.7500E+00   7.7750E-06  0.0151
   6.7500E+00   6.9142E+00   7.0493E-06  0.0157
   6.9142E+00   7.0824E+00   6.6313E-06  0.0160
   7.0824E+00   7.2548E+00   6.0527E-06  0.0165
   7.2548E+00   7.4313E+00   5.7948E-06  0.0167
   7.4313E+00   7.6121E+00   5.2107E-06  0.0174
   7.6121E+00   7.7973E+00   4.9620E-06  0.0176
   7.7973E+00   7.9870E+00   4.5497E-06  0.0182
   7.9870E+00   8.1813E+00   4.1491E-06  0.0188
   8.1813E+00   8.3804E+00   3.8984E-06  0.0192
   8.3804E+00   8.5843E+00   3.6726E-06  0.0195
   8.5843E+00   8.7931E+00   3.3344E-06  0.0202
   8.7931E+00   9.0071E+00   3.0863E-06  0.0208
   9.0071E+00   9.2262E+00   2.7502E-06  0.0217
   9.2262E+00   9.4507E+00   2.6442E-06  0.0219
   9.4507E+00   9.6807E+00   2.5124E-06  0.0222
   9.6807E+00   9.9162E+00   2.2963E-06  0.0230
   9.9162E+00   1.0157E+01   2.2080E-06  0.0231
   1.0157E+01   1.0405E+01   1.9203E-06  0.0245
   1.0405E+01   1.0658E+01   1.7465E-06  0.0254
   1.0658E+01   1.0917E+01   1.6004E-06  0.0262
   1.0917E+01   1.1183E+01   1.4607E-06  0.0271
   1.1183E+01   1.1455E+01   1.4161E-06  0.0272
   1.1455E+01   1.1733E+01   1.2409E-06  0.0287
   1.1733E+01   1.2019E+01   1.1319E-06  0.0297
   1.2019E+01   1.2311E+01   1.0435E-06  0.0306
   1.2311E+01   1.2611E+01   9.4333E-07  0.0318
   1.2611E+01   1.2918E+01   8.9346E-07  0.0323
   1.2918E+01   1.3232E+01   8.6632E-07  0.0324
   1.3232E+01   1.3554E+01   7.7431E-07  0.0338
   1.3554E+01   1.3884E+01   6.8401E-07  0.0356
   1.3884E+01   1.4222E+01   6.3773E-07  0.0364
   1.4222E+01   1.4568E+01   5.6561E-07  0.0382
   1.4568E+01   1.4922E+01   5.7837E-07  0.0373
   1.4922E+01   1.5285E+01   5.1584E-07  0.0391
   1.5285E+01   1.5657E+01   4.6595E-07  0.0406
   1.5657E+01   1.6038E+01   4.0200E-07  0.0432
   1.6038E+01   1.6428E+01   3.8806E-07  0.0434
   1.6428E+01   1.6828E+01   3.3524E-07  0.0462
   1.6828E+01   1.7237E+01   3.2937E-07  0.0460
   1.7237E+01   1.7657E+01   3.1406E-07  0.0466
   1.7657E+01   1.8086E+01   2.9230E-07  0.0477
   1.8086E+01   1.8526E+01   2.8308E-07  0.0479
   1.8526E+01   1.8977E+01   2.8523E-07  0.0471
   1.8977E+01   1.9439E+01   2.6422E-07  0.0484
   1.9439E+01   1.9912E+01   2.1989E-07  0.0524
   1.9912E+01   2.0396E+01   2.3295E-07  0.0503
   2.0396E+01   2.0893E+01   2.0036E-07  0.0536
   2.0893E+01   2.1401E+01   1.8323E-07  0.0554
   2.1401E+01   2.1922E+01   1.7723E-07  0.0556
   2.1922E+01   2.2455E+01   1.7784E-07  0.0549
   2.2455E+01   2.3001E+01   1.5793E-07  0.0575
   2.3001E+01   2.3561E+01   1.6133E-07  0.0563
   2.3561E+01   2.4134E+01   1.2959E-07  0.0620
   2.4134E+01   2.4721E+01   1.3137E-07  0.0609
   2.4721E+01   2.5323E+01   1.3015E-07  0.0604
   2.5323E+01   2.5939E+01   1.1593E-07  0.0632
   2.5939E+01   2.6570E+01   1.3581E-07  0.0577
   2.6570E+01   2.7217E+01   1.0253E-07  0.0657
   2.7217E+01   2.7879E+01   1.1045E-07  0.0625
   2.7879E+01   2.8557E+01   9.9406E-08  0.0651
   2.8557E+01   2.9252E+01   9.6634E-08  0.0652
   2.9252E+01   2.9964E+01   8.1091E-08  0.0704
   2.9964E+01   3.0693E+01   8.1516E-08  0.0693
   3.0693E+01   3.1440E+01   7.0398E-08  0.0737
   3.1440E+01   3.2205E+01   7.5449E-08  0.0704
   3.2205E+01   3.2988E+01   7.1833E-08  0.0712
   3.2988E+01   3.3791E+01   6.3363E-08  0.0750
   3.3791E+01   3.4613E+01   5.5603E-08  0.0791
   3.4613E+01   3.5455E+01   4.9872E-08  0.0825
   3.5455E+01   3.6318E+01   5.3324E-08  0.0788
   3.6318E+01   3.7201E+01   4.2034E-08  0.0877
   3.7201E+01   3.8106E+01   3.9457E-08  0.0894
   3.8106E+01   3.9034E+01   3.6055E-08  0.0925
   3.9034E+01   3.9983E+01   3.5198E-08  0.0925
   3.9983E+01   4.0956E+01   2.9663E-08  0.0995
   4.0956E+01   4.1953E+01   2.6665E-08  0.1037
   4.1953E+01   4.2973E+01   2.5752E-08  0.1043
   4.2973E+01   4.4019E+01   2.1041E-08  0.1140
   4.4019E+01   4.5090E+01   1.7340E-08  0.1240
   4.5090E+01   4.6187E+01   2.0053E-08  0.1140
   4.6187E+01   4.7311E+01   1.5763E-08  0.1270
   4.7311E+01   4.8462E+01   1.2659E-08  0.1400
   4.8462E+01   4.9641E+01   1.0419E-08  0.1525
   4.9641E+01   5.0849E+01   1.1118E-08  0.1459
   5.0849E+01   5.2086E+01   6.0044E-09  0.1961
   5.2086E+01   5.3353E+01   6.5381E-09  0.1857
   5.3353E+01   5.4651E+01   7.4833E-09  0.1715
   5.4651E+01   5.5981E+01   6.2312E-09  0.1857
   5.5981E+01   5.7343E+01   4.1953E-09  0.2236
   5.7343E+01   5.8738E+01   3.8909E-09  0.2294
   5.8738E+01   6.0168E+01   3.1987E-09  0.2500
   6.0168E+01   6.1632E+01   1.9517E-09  0.3162
   6.1632E+01   6.3131E+01   2.6675E-09  0.2673
   6.3131E+01   6.4667E+01   9.3004E-10  0.4472
   6.4667E+01   6.6240E+01   3.2686E-09  0.2357
   6.6240E+01   6.7852E+01   5.3183E-10  0.5774
   6.7852E+01   6.9503E+01   6.9226E-10  0.5000
   6.9503E+01   7.1194E+01   1.0137E-09  0.4082
   7.1194E+01   7.2926E+01   4.9483E-10  0.5774
   7.2926E+01   7.4701E+01   4.8307E-10  0.5774
   7.4701E+01   7.6518E+01   1.5720E-10  1.0000
   7.6518E+01   7.8380E+01   0.0000E+00  0.0000
   7.8380E+01   8.0287E+01   4.4946E-10  0.5774
   8.0287E+01   8.2240E+01   0.0000E+00  0.0000
   8.2240E+01   8.4241E+01   0.0000E+00  0.0000
   8.4241E+01   8.6291E+01   0.0000E+00  0.0000
   8.6291E+01   8.8391E+01   2.7217E-10  0.7071
   8.8391E+01   9.0541E+01   2.6570E-10  0.7071
   9.0541E+01   9.2744E+01   2.5939E-10  0.7071
   9.2744E+01   9.5001E+01   0.0000E+00  0.0000
   9.5001E+01   9.7312E+01   0.0000E+00  0.0000
   9.7312E+01   9.9680E+01   0.0000E+00  0.0000
   9.9680E+01   1.0211E+02   0.0000E+00  0.0000
   1.0211E+02   1.0459E+02   0.0000E+00  0.0000
   1.0459E+02   1.0713E+02   0.0000E+00  0.0000
   1.0713E+02   1.0974E+02   1.0961E-10  1.0000
   1.0974E+02   1.1241E+02   0.0000E+00  0.0000
   1.1241E+02   1.1515E+02   0.0000E+00  0.0000
   1.1515E+02   1.1795E+02   0.0000E+00  0.0000
   1.1795E+02   1.2082E+02   0.0000E+00  0.0000
   1.2082E+02   1.2376E+02   0.0000E+00  0.0000
   1.2376E+02   1.2677E+02   0.0000E+00  0.0000
   1.2677E+02   1.2985E+02   0.0000E+00  0.0000
   1.2985E+02   1.3301E+02   0.0000E+00  0.0000
   1.3301E+02   1.3625E+02   0.0000E+00  0.0000
   1.3625E+02   1.3956E+02   0.0000E+00  0.0000
   1.3956E+02   1.4296E+02   0.0000E+00  0.0000
   1.4296E+02   1.4644E+02   0.0000E+00  0.0000
   1.4644E+02   1.5000E+02   0.0000E+00  0.0000

#   sum over                 3.7584E-06
'no. =    1   reg = 126 - 226'
msuc: {\huge [t-cross] in region mesh}
msdr: {\it plotted by \ANGEL \version}
msdl: {\it calculated by \PHITS  3.26}
wt: s(0.7)
\vspace{-3}
  region surface crossing
  area  &=&   1.0000E+00 [cm^2]
e:
 
# Information for Restart Calculation
# This calculation was newly started
# istdev =  2 # 1:Batch variance, 2:History variance
# resc2  = 3.50000000000000000E+09 # Total source weight or Total source weight / maxcas
# resc3  = 3.50000000000000000E+09 # Total history number or Total batch number
# maxcas =   500000000 # History / Batch, only used for istdev=1
# bitrseed = 0000101100011000111110010011011110110000110001011001110010110101 # bit data of rseed
