[ T-Cross ]
    title = [t-cross] in region mesh
     mesh =  reg            # mesh type is region-wise
      reg =    1            # number of crossing regions
      non     r-from    r-to       area
      1       114       214        1.000000    
   e-type =    3            # e-mesh is log given by emin, emax and ne
     emin =  1.0000000E-02  # minimum value of e-mesh points
     emax =   150.0000      # maximum value of e-mesh points
#    edel =  2.4039514E-02  # mesh width of e-mesh points
       ne =    400          # number of e-mesh points
#    data = ( e(i), i = 1, ne + 1 )
#           1.00000E-02  1.02433E-02  1.04925E-02  1.07478E-02  1.10093E-02
#           1.12772E-02  1.15516E-02  1.18326E-02  1.21205E-02  1.24154E-02
#           1.27175E-02  1.30269E-02  1.33439E-02  1.36686E-02  1.40011E-02
#           1.43418E-02  1.46907E-02  1.50482E-02  1.54143E-02  1.57894E-02
#           1.61735E-02  1.65670E-02  1.69701E-02  1.73830E-02  1.78060E-02
#           1.82392E-02  1.86830E-02  1.91375E-02  1.96032E-02  2.00801E-02
#           2.05687E-02  2.10692E-02  2.15818E-02  2.21069E-02  2.26448E-02
#           2.31957E-02  2.37601E-02  2.43382E-02  2.49304E-02  2.55369E-02
#           2.61583E-02  2.67947E-02  2.74467E-02  2.81145E-02  2.87985E-02
#           2.94992E-02  3.02169E-02  3.09521E-02  3.17052E-02  3.24766E-02
#           3.32668E-02  3.40762E-02  3.49053E-02  3.57546E-02  3.66246E-02
#           3.75157E-02  3.84284E-02  3.93634E-02  4.03212E-02  4.13022E-02
#           4.23071E-02  4.33365E-02  4.43909E-02  4.54710E-02  4.65773E-02
#           4.77106E-02  4.88714E-02  5.00605E-02  5.12785E-02  5.25262E-02
#           5.38042E-02  5.51133E-02  5.64542E-02  5.78278E-02  5.92348E-02
#           6.06760E-02  6.21523E-02  6.36645E-02  6.52135E-02  6.68002E-02
#           6.84255E-02  7.00904E-02  7.17957E-02  7.35426E-02  7.53319E-02
#           7.71648E-02  7.90423E-02  8.09655E-02  8.29354E-02  8.49533E-02
#           8.70203E-02  8.91376E-02  9.13064E-02  9.35279E-02  9.58035E-02
#           9.81345E-02  1.00522E-01  1.02968E-01  1.05473E-01  1.08040E-01
#           1.10668E-01  1.13361E-01  1.16119E-01  1.18944E-01  1.21838E-01
#           1.24803E-01  1.27839E-01  1.30950E-01  1.34136E-01  1.37399E-01
#           1.40742E-01  1.44167E-01  1.47675E-01  1.51268E-01  1.54948E-01
#           1.58718E-01  1.62580E-01  1.66535E-01  1.70587E-01  1.74738E-01
#           1.78989E-01  1.83344E-01  1.87805E-01  1.92375E-01  1.97055E-01
#           2.01850E-01  2.06761E-01  2.11792E-01  2.16945E-01  2.22223E-01
#           2.27630E-01  2.33169E-01  2.38842E-01  2.44653E-01  2.50605E-01
#           2.56703E-01  2.62949E-01  2.69346E-01  2.75900E-01  2.82613E-01
#           2.89489E-01  2.96532E-01  3.03747E-01  3.11138E-01  3.18708E-01
#           3.26462E-01  3.34405E-01  3.42542E-01  3.50876E-01  3.59413E-01
#           3.68158E-01  3.77116E-01  3.86291E-01  3.95690E-01  4.05317E-01
#           4.15179E-01  4.25281E-01  4.35628E-01  4.46227E-01  4.57084E-01
#           4.68205E-01  4.79597E-01  4.91266E-01  5.03219E-01  5.15463E-01
#           5.28005E-01  5.40851E-01  5.54011E-01  5.67490E-01  5.81298E-01
#           5.95441E-01  6.09929E-01  6.24769E-01  6.39970E-01  6.55541E-01
#           6.71491E-01  6.87828E-01  7.04564E-01  7.21706E-01  7.39266E-01
#           7.57253E-01  7.75678E-01  7.94551E-01  8.13883E-01  8.33685E-01
#           8.53969E-01  8.74747E-01  8.96030E-01  9.17831E-01  9.40163E-01
#           9.63038E-01  9.86469E-01  1.01047E+00  1.03506E+00  1.06024E+00
#           1.08604E+00  1.11246E+00  1.13953E+00  1.16725E+00  1.19565E+00
#           1.22474E+00  1.25454E+00  1.28507E+00  1.31633E+00  1.34836E+00
#           1.38117E+00  1.41477E+00  1.44920E+00  1.48446E+00  1.52057E+00
#           1.55757E+00  1.59547E+00  1.63429E+00  1.67405E+00  1.71478E+00
#           1.75650E+00  1.79924E+00  1.84302E+00  1.88786E+00  1.93379E+00
#           1.98084E+00  2.02904E+00  2.07841E+00  2.12898E+00  2.18078E+00
#           2.23384E+00  2.28819E+00  2.34386E+00  2.40089E+00  2.45930E+00
#           2.51914E+00  2.58043E+00  2.64322E+00  2.70753E+00  2.77341E+00
#           2.84088E+00  2.91001E+00  2.98081E+00  3.05333E+00  3.12762E+00
#           3.20372E+00  3.28167E+00  3.36152E+00  3.44330E+00  3.52708E+00
#           3.61290E+00  3.70080E+00  3.79085E+00  3.88308E+00  3.97756E+00
#           4.07434E+00  4.17347E+00  4.27501E+00  4.37903E+00  4.48557E+00
#           4.59471E+00  4.70650E+00  4.82102E+00  4.93832E+00  5.05847E+00
#           5.18155E+00  5.30762E+00  5.43676E+00  5.56904E+00  5.70453E+00
#           5.84333E+00  5.98550E+00  6.13114E+00  6.28031E+00  6.43312E+00
#           6.58964E+00  6.74997E+00  6.91420E+00  7.08243E+00  7.25475E+00
#           7.43126E+00  7.61207E+00  7.79728E+00  7.98700E+00  8.18133E+00
#           8.38038E+00  8.58428E+00  8.79315E+00  9.00709E+00  9.22624E+00
#           9.45072E+00  9.68067E+00  9.91620E+00  1.01575E+01  1.04046E+01
#           1.06578E+01  1.09171E+01  1.11827E+01  1.14548E+01  1.17335E+01
#           1.20190E+01  1.23114E+01  1.26109E+01  1.29178E+01  1.32321E+01
#           1.35540E+01  1.38838E+01  1.42216E+01  1.45676E+01  1.49221E+01
#           1.52851E+01  1.56570E+01  1.60380E+01  1.64282E+01  1.68279E+01
#           1.72374E+01  1.76568E+01  1.80864E+01  1.85264E+01  1.89772E+01
#           1.94389E+01  1.99119E+01  2.03963E+01  2.08926E+01  2.14009E+01
#           2.19216E+01  2.24550E+01  2.30014E+01  2.35610E+01  2.41343E+01
#           2.47215E+01  2.53230E+01  2.59391E+01  2.65702E+01  2.72167E+01
#           2.78789E+01  2.85572E+01  2.92520E+01  2.99637E+01  3.06928E+01
#           3.14396E+01  3.22045E+01  3.29881E+01  3.37907E+01  3.46128E+01
#           3.54550E+01  3.63177E+01  3.72013E+01  3.81064E+01  3.90336E+01
#           3.99833E+01  4.09561E+01  4.19526E+01  4.29734E+01  4.40189E+01
#           4.50900E+01  4.61870E+01  4.73108E+01  4.84619E+01  4.96410E+01
#           5.08488E+01  5.20860E+01  5.33533E+01  5.46514E+01  5.59812E+01
#           5.73432E+01  5.87384E+01  6.01676E+01  6.16315E+01  6.31311E+01
#           6.46671E+01  6.62405E+01  6.78522E+01  6.95031E+01  7.11941E+01
#           7.29263E+01  7.47007E+01  7.65182E+01  7.83800E+01  8.02870E+01
#           8.22405E+01  8.42414E+01  8.62911E+01  8.83906E+01  9.05412E+01
#           9.27442E+01  9.50007E+01  9.73122E+01  9.96799E+01  1.02105E+02
#           1.04589E+02  1.07134E+02  1.09741E+02  1.12411E+02  1.15146E+02
#           1.17948E+02  1.20817E+02  1.23757E+02  1.26768E+02  1.29852E+02
#           1.33012E+02  1.36248E+02  1.39563E+02  1.42959E+02  1.46437E+02
#           1.50000E+02
     unit =    2            # unit is [1/cm^2/(MeV/n)/source]
     axis =  eng            # axis of output
     file = detector-15.out  # file name of output for the above axis
   output = f-curr          # surface crossing forward current spectrum
     part =  neutron  
# kf/name :  2112     
#    used :        main (  %)        temp (  %)       total (  %)
#  memory :         414 (  0)           0 (  0)         414 (  0)

#------------------------------------------------------------------------------
#newpage:
#   no. =    1   reg = 114 - 214

x: Energy [MeV/n]
y:  F-Curr [1/cm^2/(MeV/n)/source]         
p: xlog ylog afac(0.8) form(0.9)
h: n            x            y(neutron ),hh0l   n 
#  e-lower      e-upper      neutron     r.err 
   1.0000E-02   1.0243E-02   1.1759E-03  0.0263
   1.0243E-02   1.0493E-02   1.1634E-03  0.0261
   1.0493E-02   1.0748E-02   1.0814E-03  0.0268
   1.0748E-02   1.1009E-02   1.0461E-03  0.0269
   1.1009E-02   1.1277E-02   1.0715E-03  0.0262
   1.1277E-02   1.1552E-02   1.0262E-03  0.0265
   1.1552E-02   1.1833E-02   1.0324E-03  0.0261
   1.1833E-02   1.2121E-02   1.0157E-03  0.0260
   1.2121E-02   1.2415E-02   9.8767E-04  0.0261
   1.2415E-02   1.2718E-02   9.3562E-04  0.0264
   1.2718E-02   1.3027E-02   9.1433E-04  0.0264
   1.3027E-02   1.3344E-02   9.2272E-04  0.0260
   1.3344E-02   1.3669E-02   8.6092E-04  0.0266
   1.3669E-02   1.4001E-02   8.9004E-04  0.0258
   1.4001E-02   1.4342E-02   8.3467E-04  0.0263
   1.4342E-02   1.4691E-02   8.3048E-04  0.0261
   1.4691E-02   1.5048E-02   8.0600E-04  0.0262
   1.5048E-02   1.5414E-02   8.1462E-04  0.0257
   1.5414E-02   1.5789E-02   7.3735E-04  0.0267
   1.5789E-02   1.6174E-02   7.8014E-04  0.0257
   1.6174E-02   1.6567E-02   7.6204E-04  0.0257
   1.6567E-02   1.6970E-02   7.2084E-04  0.0261
   1.6970E-02   1.7383E-02   7.0170E-04  0.0261
   1.7383E-02   1.7806E-02   6.7747E-04  0.0263
   1.7806E-02   1.8239E-02   7.0497E-04  0.0255
   1.8239E-02   1.8683E-02   6.5107E-04  0.0261
   1.8683E-02   1.9138E-02   6.6974E-04  0.0255
   1.9138E-02   1.9603E-02   6.5168E-04  0.0255
   1.9603E-02   2.0080E-02   6.0644E-04  0.0261
   2.0080E-02   2.0569E-02   6.0467E-04  0.0259
   2.0569E-02   2.1069E-02   5.7472E-04  0.0262
   2.1069E-02   2.1582E-02   5.8526E-04  0.0257
   2.1582E-02   2.2107E-02   5.8620E-04  0.0253
   2.2107E-02   2.2645E-02   5.6325E-04  0.0255
   2.2645E-02   2.3196E-02   5.3628E-04  0.0258
   2.3196E-02   2.3760E-02   5.7018E-04  0.0248
   2.3760E-02   2.4338E-02   5.0995E-04  0.0259
   2.4338E-02   2.4930E-02   5.3057E-04  0.0251
   2.4930E-02   2.5537E-02   4.9921E-04  0.0256
   2.5537E-02   2.6158E-02   4.9134E-04  0.0254
   2.6158E-02   2.6795E-02   4.7459E-04  0.0256
   2.6795E-02   2.7447E-02   4.7434E-04  0.0253
   2.7447E-02   2.8114E-02   4.6989E-04  0.0251
   2.8114E-02   2.8799E-02   4.5757E-04  0.0251
   2.8799E-02   2.9499E-02   4.4200E-04  0.0253
   2.9499E-02   3.0217E-02   4.4272E-04  0.0250
   3.0217E-02   3.0952E-02   4.1688E-04  0.0254
   3.0952E-02   3.1705E-02   4.1704E-04  0.0251
   3.1705E-02   3.2477E-02   4.2502E-04  0.0245
   3.2477E-02   3.3267E-02   4.0084E-04  0.0250
   3.3267E-02   3.4076E-02   3.9131E-04  0.0250
   3.4076E-02   3.4905E-02   4.0205E-04  0.0243
   3.4905E-02   3.5755E-02   3.7434E-04  0.0249
   3.5755E-02   3.6625E-02   3.5918E-04  0.0251
   3.6625E-02   3.7516E-02   3.6036E-04  0.0248
   3.7516E-02   3.8428E-02   3.6057E-04  0.0245
   3.8428E-02   3.9363E-02   3.4466E-04  0.0248
   3.9363E-02   4.0321E-02   3.4102E-04  0.0246
   4.0321E-02   4.1302E-02   3.4068E-04  0.0243
   4.1302E-02   4.2307E-02   3.2667E-04  0.0245
   4.2307E-02   4.3337E-02   3.2227E-04  0.0244
   4.3337E-02   4.4391E-02   3.2055E-04  0.0242
   4.4391E-02   4.5471E-02   3.0274E-04  0.0246
   4.5471E-02   4.6577E-02   2.9734E-04  0.0245
   4.6577E-02   4.7711E-02   2.9615E-04  0.0243
   4.7711E-02   4.8871E-02   2.8846E-04  0.0243
   4.8871E-02   5.0061E-02   2.7095E-04  0.0247
   5.0061E-02   5.1279E-02   2.7880E-04  0.0241
   5.1279E-02   5.2526E-02   2.6207E-04  0.0246
   5.2526E-02   5.3804E-02   2.6104E-04  0.0243
   5.3804E-02   5.5113E-02   2.6125E-04  0.0240
   5.5113E-02   5.6454E-02   2.5186E-04  0.0242
   5.6454E-02   5.7828E-02   2.4781E-04  0.0241
   5.7828E-02   5.9235E-02   2.4159E-04  0.0241
   5.9235E-02   6.0676E-02   2.3067E-04  0.0244
   6.0676E-02   6.2152E-02   2.3589E-04  0.0238
   6.2152E-02   6.3665E-02   2.3186E-04  0.0237
   6.3665E-02   6.5214E-02   2.2942E-04  0.0236
   6.5214E-02   6.6800E-02   2.1326E-04  0.0241
   6.6800E-02   6.8426E-02   2.1758E-04  0.0236
   6.8426E-02   7.0090E-02   2.2045E-04  0.0232
   7.0090E-02   7.1796E-02   1.9908E-04  0.0241
   7.1796E-02   7.3543E-02   2.0280E-04  0.0236
   7.3543E-02   7.5332E-02   2.0078E-04  0.0235
   7.5332E-02   7.7165E-02   1.8862E-04  0.0239
   7.7165E-02   7.9042E-02   1.8960E-04  0.0236
   7.9042E-02   8.0965E-02   1.8141E-04  0.0238
   8.0965E-02   8.2935E-02   1.8572E-04  0.0232
   8.2935E-02   8.4953E-02   1.7914E-04  0.0234
   8.4953E-02   8.7020E-02   1.7577E-04  0.0233
   8.7020E-02   8.9138E-02   1.6387E-04  0.0239
   8.9138E-02   9.1306E-02   1.5900E-04  0.0239
   9.1306E-02   9.3528E-02   1.5832E-04  0.0237
   9.3528E-02   9.5804E-02   1.6415E-04  0.0230
   9.5804E-02   9.8134E-02   1.5033E-04  0.0237
   9.8134E-02   1.0052E-01   1.5145E-04  0.0234
   1.0052E-01   1.0297E-01   1.4521E-04  0.0236
   1.0297E-01   1.0547E-01   1.4908E-04  0.0230
   1.0547E-01   1.0804E-01   1.4213E-04  0.0233
   1.0804E-01   1.1067E-01   1.4452E-04  0.0228
   1.1067E-01   1.1336E-01   1.3844E-04  0.0230
   1.1336E-01   1.1612E-01   1.3957E-04  0.0227
   1.1612E-01   1.1894E-01   1.3145E-04  0.0231
   1.1894E-01   1.2184E-01   1.3033E-04  0.0229
   1.2184E-01   1.2480E-01   1.2322E-04  0.0232
   1.2480E-01   1.2784E-01   1.2315E-04  0.0230
   1.2784E-01   1.3095E-01   1.2387E-04  0.0226
   1.3095E-01   1.3414E-01   1.2183E-04  0.0226
   1.3414E-01   1.3740E-01   1.1809E-04  0.0227
   1.3740E-01   1.4074E-01   1.1848E-04  0.0223
   1.4074E-01   1.4417E-01   1.1312E-04  0.0226
   1.4417E-01   1.4767E-01   1.1004E-04  0.0226
   1.4767E-01   1.5127E-01   1.0941E-04  0.0224
   1.5127E-01   1.5495E-01   1.0772E-04  0.0223
   1.5495E-01   1.5872E-01   1.0202E-04  0.0227
   1.5872E-01   1.6258E-01   1.0198E-04  0.0224
   1.6258E-01   1.6654E-01   9.9371E-05  0.0224
   1.6654E-01   1.7059E-01   9.6515E-05  0.0225
   1.7059E-01   1.7474E-01   1.0008E-04  0.0218
   1.7474E-01   1.7899E-01   9.9119E-05  0.0216
   1.7899E-01   1.8334E-01   9.5139E-05  0.0218
   1.8334E-01   1.8781E-01   9.5779E-05  0.0215
   1.8781E-01   1.9237E-01   9.2640E-05  0.0216
   1.9237E-01   1.9706E-01   8.6247E-05  0.0221
   1.9706E-01   2.0185E-01   9.1790E-05  0.0212
   2.0185E-01   2.0676E-01   9.2364E-05  0.0209
   2.0676E-01   2.1179E-01   9.6255E-05  0.0202
   2.1179E-01   2.1694E-01   1.0353E-04  0.0192
   2.1694E-01   2.2222E-01   1.0769E-04  0.0186
   2.2222E-01   2.2763E-01   1.0900E-04  0.0183
   2.2763E-01   2.3317E-01   1.1210E-04  0.0178
   2.3317E-01   2.3884E-01   1.2014E-04  0.0170
   2.3884E-01   2.4465E-01   1.2030E-04  0.0168
   2.4465E-01   2.5061E-01   1.2589E-04  0.0162
   2.5061E-01   2.5670E-01   1.3161E-04  0.0157
   2.5670E-01   2.6295E-01   1.4016E-04  0.0150
   2.6295E-01   2.6935E-01   1.4386E-04  0.0146
   2.6935E-01   2.7590E-01   1.5038E-04  0.0142
   2.7590E-01   2.8261E-01   1.5563E-04  0.0137
   2.8261E-01   2.8949E-01   1.6054E-04  0.0134
   2.8949E-01   2.9653E-01   1.6511E-04  0.0130
   2.9653E-01   3.0375E-01   1.7171E-04  0.0126
   3.0375E-01   3.1114E-01   1.7601E-04  0.0123
   3.1114E-01   3.1871E-01   1.8199E-04  0.0120
   3.1871E-01   3.2646E-01   1.9652E-04  0.0114
   3.2646E-01   3.3441E-01   2.0233E-04  0.0111
   3.3441E-01   3.4254E-01   2.0984E-04  0.0107
   3.4254E-01   3.5088E-01   2.1993E-04  0.0104
   3.5088E-01   3.5941E-01   2.2359E-04  0.0102
   3.5941E-01   3.6816E-01   2.3611E-04  0.0098
   3.6816E-01   3.7712E-01   2.4175E-04  0.0095
   3.7712E-01   3.8629E-01   2.5622E-04  0.0092
   3.8629E-01   3.9569E-01   2.6552E-04  0.0089
   3.9569E-01   4.0532E-01   2.6848E-04  0.0087
   4.0532E-01   4.1518E-01   2.7947E-04  0.0085
   4.1518E-01   4.2528E-01   2.9115E-04  0.0082
   4.2528E-01   4.3563E-01   3.0163E-04  0.0080
   4.3563E-01   4.4623E-01   3.0908E-04  0.0078
   4.4623E-01   4.5708E-01   3.2284E-04  0.0075
   4.5708E-01   4.6821E-01   3.3743E-04  0.0072
   4.6821E-01   4.7960E-01   3.4693E-04  0.0071
   4.7960E-01   4.9127E-01   3.5842E-04  0.0069
   4.9127E-01   5.0322E-01   3.7198E-04  0.0067
   5.0322E-01   5.1546E-01   3.8303E-04  0.0065
   5.1546E-01   5.2800E-01   4.0740E-04  0.0062
   5.2800E-01   5.4085E-01   4.1782E-04  0.0061
   5.4085E-01   5.5401E-01   4.3008E-04  0.0059
   5.5401E-01   5.6749E-01   4.4701E-04  0.0057
   5.6749E-01   5.8130E-01   4.6055E-04  0.0056
   5.8130E-01   5.9544E-01   4.7285E-04  0.0054
   5.9544E-01   6.0993E-01   4.8702E-04  0.0053
   6.0993E-01   6.2477E-01   5.0617E-04  0.0051
   6.2477E-01   6.3997E-01   5.2492E-04  0.0050
   6.3997E-01   6.5554E-01   5.4147E-04  0.0048
   6.5554E-01   6.7149E-01   5.5687E-04  0.0047
   6.7149E-01   6.8783E-01   5.7594E-04  0.0046
   6.8783E-01   7.0456E-01   5.9214E-04  0.0045
   7.0456E-01   7.2171E-01   6.0913E-04  0.0043
   7.2171E-01   7.3927E-01   6.2665E-04  0.0042
   7.3927E-01   7.5725E-01   6.4684E-04  0.0041
   7.5725E-01   7.7568E-01   6.6165E-04  0.0040
   7.7568E-01   7.9455E-01   6.8594E-04  0.0039
   7.9455E-01   8.1388E-01   7.0108E-04  0.0038
   8.1388E-01   8.3368E-01   7.2487E-04  0.0037
   8.3368E-01   8.5397E-01   7.4676E-04  0.0036
   8.5397E-01   8.7475E-01   7.6776E-04  0.0035
   8.7475E-01   8.9603E-01   7.8133E-04  0.0034
   8.9603E-01   9.1783E-01   8.1067E-04  0.0033
   9.1783E-01   9.4016E-01   8.2283E-04  0.0033
   9.4016E-01   9.6304E-01   8.4692E-04  0.0032
   9.6304E-01   9.8647E-01   8.6488E-04  0.0031
   9.8647E-01   1.0105E+00   8.6972E-04  0.0031
   1.0105E+00   1.0351E+00   8.8198E-04  0.0030
   1.0351E+00   1.0602E+00   8.9082E-04  0.0030
   1.0602E+00   1.0860E+00   8.9783E-04  0.0029
   1.0860E+00   1.1125E+00   9.0614E-04  0.0029
   1.1125E+00   1.1395E+00   9.2244E-04  0.0028
   1.1395E+00   1.1673E+00   9.3776E-04  0.0028
   1.1673E+00   1.1957E+00   9.5895E-04  0.0027
   1.1957E+00   1.2247E+00   9.7042E-04  0.0026
   1.2247E+00   1.2545E+00   9.7145E-04  0.0026
   1.2545E+00   1.2851E+00   9.7640E-04  0.0026
   1.2851E+00   1.3163E+00   9.8151E-04  0.0025
   1.3163E+00   1.3484E+00   9.9032E-04  0.0025
   1.3484E+00   1.3812E+00   1.0038E-03  0.0024
   1.3812E+00   1.4148E+00   1.0258E-03  0.0024
   1.4148E+00   1.4492E+00   1.0372E-03  0.0023
   1.4492E+00   1.4845E+00   1.0409E-03  0.0023
   1.4845E+00   1.5206E+00   1.0526E-03  0.0023
   1.5206E+00   1.5576E+00   1.0452E-03  0.0023
   1.5576E+00   1.5955E+00   1.0336E-03  0.0022
   1.5955E+00   1.6343E+00   1.0168E-03  0.0022
   1.6343E+00   1.6741E+00   1.0094E-03  0.0022
   1.6741E+00   1.7148E+00   1.0036E-03  0.0022
   1.7148E+00   1.7565E+00   9.9539E-04  0.0022
   1.7565E+00   1.7992E+00   1.0016E-03  0.0021
   1.7992E+00   1.8430E+00   1.0014E-03  0.0021
   1.8430E+00   1.8879E+00   9.9022E-04  0.0021
   1.8879E+00   1.9338E+00   9.8540E-04  0.0021
   1.9338E+00   1.9808E+00   9.7886E-04  0.0021
   1.9808E+00   2.0290E+00   9.8365E-04  0.0020
   2.0290E+00   2.0784E+00   9.6466E-04  0.0020
   2.0784E+00   2.1290E+00   9.4628E-04  0.0020
   2.1290E+00   2.1808E+00   9.2638E-04  0.0020
   2.1808E+00   2.2338E+00   9.0763E-04  0.0020
   2.2338E+00   2.2882E+00   8.8982E-04  0.0020
   2.2882E+00   2.3439E+00   8.7670E-04  0.0020
   2.3439E+00   2.4009E+00   8.7090E-04  0.0020
   2.4009E+00   2.4593E+00   8.6473E-04  0.0020
   2.4593E+00   2.5191E+00   8.5602E-04  0.0020
   2.5191E+00   2.5804E+00   8.4258E-04  0.0020
   2.5804E+00   2.6432E+00   8.1959E-04  0.0020
   2.6432E+00   2.7075E+00   8.0193E-04  0.0020
   2.7075E+00   2.7734E+00   7.8009E-04  0.0020
   2.7734E+00   2.8409E+00   7.6209E-04  0.0020
   2.8409E+00   2.9100E+00   7.4738E-04  0.0020
   2.9100E+00   2.9808E+00   7.3608E-04  0.0019
   2.9808E+00   3.0533E+00   7.2790E-04  0.0019
   3.0533E+00   3.1276E+00   7.0825E-04  0.0019
   3.1276E+00   3.2037E+00   6.8816E-04  0.0019
   3.2037E+00   3.2817E+00   6.6990E-04  0.0019
   3.2817E+00   3.3615E+00   6.5176E-04  0.0019
   3.3615E+00   3.4433E+00   6.4086E-04  0.0019
   3.4433E+00   3.5271E+00   6.2830E-04  0.0019
   3.5271E+00   3.6129E+00   6.1565E-04  0.0019
   3.6129E+00   3.7008E+00   5.9721E-04  0.0019
   3.7008E+00   3.7908E+00   5.8097E-04  0.0019
   3.7908E+00   3.8831E+00   5.6853E-04  0.0019
   3.8831E+00   3.9776E+00   5.5757E-04  0.0019
   3.9776E+00   4.0743E+00   5.5015E-04  0.0019
   4.0743E+00   4.1735E+00   5.3812E-04  0.0019
   4.1735E+00   4.2750E+00   5.2546E-04  0.0019
   4.2750E+00   4.3790E+00   5.1710E-04  0.0019
   4.3790E+00   4.4856E+00   5.0955E-04  0.0019
   4.4856E+00   4.5947E+00   5.0250E-04  0.0019
   4.5947E+00   4.7065E+00   4.9440E-04  0.0019
   4.7065E+00   4.8210E+00   4.8920E-04  0.0019
   4.8210E+00   4.9383E+00   4.8402E-04  0.0019
   4.9383E+00   5.0585E+00   4.8339E-04  0.0018
   5.0585E+00   5.1815E+00   4.7209E-04  0.0018
   5.1815E+00   5.3076E+00   4.6080E-04  0.0018
   5.3076E+00   5.4368E+00   4.4954E-04  0.0018
   5.4368E+00   5.5690E+00   4.3486E-04  0.0019
   5.5690E+00   5.7045E+00   4.2102E-04  0.0019
   5.7045E+00   5.8433E+00   4.0688E-04  0.0019
   5.8433E+00   5.9855E+00   3.9733E-04  0.0019
   5.9855E+00   6.1311E+00   3.8453E-04  0.0019
   6.1311E+00   6.2803E+00   3.7074E-04  0.0019
   6.2803E+00   6.4331E+00   3.5847E-04  0.0019
   6.4331E+00   6.5896E+00   3.4413E-04  0.0019
   6.5896E+00   6.7500E+00   3.3320E-04  0.0019
   6.7500E+00   6.9142E+00   3.2123E-04  0.0019
   6.9142E+00   7.0824E+00   3.0968E-04  0.0020
   7.0824E+00   7.2548E+00   2.9705E-04  0.0020
   7.2548E+00   7.4313E+00   2.8716E-04  0.0020
   7.4313E+00   7.6121E+00   2.7716E-04  0.0020
   7.6121E+00   7.7973E+00   2.6562E-04  0.0020
   7.7973E+00   7.9870E+00   2.5437E-04  0.0020
   7.9870E+00   8.1813E+00   2.4396E-04  0.0020
   8.1813E+00   8.3804E+00   2.3283E-04  0.0021
   8.3804E+00   8.5843E+00   2.2281E-04  0.0021
   8.5843E+00   8.7931E+00   2.1315E-04  0.0021
   8.7931E+00   9.0071E+00   2.0290E-04  0.0021
   9.0071E+00   9.2262E+00   1.9277E-04  0.0022
   9.2262E+00   9.4507E+00   1.8322E-04  0.0022
   9.4507E+00   9.6807E+00   1.7339E-04  0.0022
   9.6807E+00   9.9162E+00   1.6568E-04  0.0023
   9.9162E+00   1.0157E+01   1.5680E-04  0.0023
   1.0157E+01   1.0405E+01   1.4860E-04  0.0023
   1.0405E+01   1.0658E+01   1.4145E-04  0.0024
   1.0658E+01   1.0917E+01   1.3372E-04  0.0024
   1.0917E+01   1.1183E+01   1.2657E-04  0.0024
   1.1183E+01   1.1455E+01   1.1890E-04  0.0025
   1.1455E+01   1.1733E+01   1.1275E-04  0.0025
   1.1733E+01   1.2019E+01   1.0616E-04  0.0026
   1.2019E+01   1.2311E+01   9.9773E-05  0.0026
   1.2311E+01   1.2611E+01   9.4071E-05  0.0027
   1.2611E+01   1.2918E+01   8.8512E-05  0.0027
   1.2918E+01   1.3232E+01   8.2605E-05  0.0028
   1.3232E+01   1.3554E+01   7.6932E-05  0.0028
   1.3554E+01   1.3884E+01   7.2134E-05  0.0029
   1.3884E+01   1.4222E+01   6.7550E-05  0.0030
   1.4222E+01   1.4568E+01   6.2749E-05  0.0030
   1.4568E+01   1.4922E+01   5.8360E-05  0.0031
   1.4922E+01   1.5285E+01   5.3883E-05  0.0032
   1.5285E+01   1.5657E+01   4.9702E-05  0.0033
   1.5657E+01   1.6038E+01   4.5900E-05  0.0034
   1.6038E+01   1.6428E+01   4.2145E-05  0.0035
   1.6428E+01   1.6828E+01   3.8693E-05  0.0036
   1.6828E+01   1.7237E+01   3.5291E-05  0.0037
   1.7237E+01   1.7657E+01   3.2196E-05  0.0038
   1.7657E+01   1.8086E+01   2.9530E-05  0.0040
   1.8086E+01   1.8526E+01   2.6718E-05  0.0041
   1.8526E+01   1.8977E+01   2.4572E-05  0.0042
   1.8977E+01   1.9439E+01   2.2816E-05  0.0044
   1.9439E+01   1.9912E+01   2.1302E-05  0.0045
   1.9912E+01   2.0396E+01   1.9749E-05  0.0046
   2.0396E+01   2.0893E+01   1.7600E-05  0.0048
   2.0893E+01   2.1401E+01   1.5770E-05  0.0050
   2.1401E+01   2.1922E+01   1.4029E-05  0.0052
   2.1922E+01   2.2455E+01   1.2524E-05  0.0055
   2.2455E+01   2.3001E+01   1.1147E-05  0.0057
   2.3001E+01   2.3561E+01   9.8420E-06  0.0060
   2.3561E+01   2.4134E+01   8.6872E-06  0.0063
   2.4134E+01   2.4721E+01   7.6961E-06  0.0067
   2.4721E+01   2.5323E+01   6.6864E-06  0.0071
   2.5323E+01   2.5939E+01   5.7306E-06  0.0075
   2.5939E+01   2.6570E+01   4.8729E-06  0.0081
   2.6570E+01   2.7217E+01   4.2071E-06  0.0086
   2.7217E+01   2.7879E+01   3.5466E-06  0.0092
   2.7879E+01   2.8557E+01   2.9225E-06  0.0100
   2.8557E+01   2.9252E+01   2.4660E-06  0.0108
   2.9252E+01   2.9964E+01   2.0443E-06  0.0117
   2.9964E+01   3.0693E+01   1.6657E-06  0.0128
   3.0693E+01   3.1440E+01   1.3881E-06  0.0139
   3.1440E+01   3.2205E+01   1.1094E-06  0.0154
   3.2205E+01   3.2988E+01   9.0408E-07  0.0168
   3.2988E+01   3.3791E+01   7.5602E-07  0.0182
   3.3791E+01   3.4613E+01   5.4953E-07  0.0210
   3.4613E+01   3.5455E+01   4.5763E-07  0.0228
   3.5455E+01   3.6318E+01   3.6446E-07  0.0252
   3.6318E+01   3.7201E+01   2.7681E-07  0.0286
   3.7201E+01   3.8106E+01   2.1455E-07  0.0321
   3.8106E+01   3.9034E+01   1.7861E-07  0.0348
   3.9034E+01   3.9983E+01   1.4046E-07  0.0387
   3.9983E+01   4.0956E+01   1.1102E-07  0.0430
   4.0956E+01   4.1953E+01   7.4662E-08  0.0518
   4.1953E+01   4.2973E+01   5.2903E-08  0.0609
   4.2973E+01   4.4019E+01   4.6290E-08  0.0643
   4.4019E+01   4.5090E+01   2.8198E-08  0.0814
   4.5090E+01   4.6187E+01   1.8230E-08  0.1000
   4.6187E+01   4.7311E+01   8.5427E-09  0.1443
   4.7311E+01   4.8462E+01   4.8649E-09  0.1890
   4.8462E+01   4.9641E+01   3.9012E-09  0.2085
   4.9641E+01   5.0849E+01   1.4903E-09  0.3333
   5.0849E+01   5.2086E+01   8.0828E-10  0.4472
   5.2086E+01   5.3353E+01   3.1563E-10  0.7071
   5.3353E+01   5.4651E+01   0.0000E+00  0.0000
   5.4651E+01   5.5981E+01   0.0000E+00  0.0000
   5.5981E+01   5.7343E+01   0.0000E+00  0.0000
   5.7343E+01   5.8738E+01   0.0000E+00  0.0000
   5.8738E+01   6.0168E+01   0.0000E+00  0.0000
   6.0168E+01   6.1632E+01   0.0000E+00  0.0000
   6.1632E+01   6.3131E+01   0.0000E+00  0.0000
   6.3131E+01   6.4667E+01   0.0000E+00  0.0000
   6.4667E+01   6.6240E+01   0.0000E+00  0.0000
   6.6240E+01   6.7852E+01   0.0000E+00  0.0000
   6.7852E+01   6.9503E+01   0.0000E+00  0.0000
   6.9503E+01   7.1194E+01   0.0000E+00  0.0000
   7.1194E+01   7.2926E+01   0.0000E+00  0.0000
   7.2926E+01   7.4701E+01   0.0000E+00  0.0000
   7.4701E+01   7.6518E+01   0.0000E+00  0.0000
   7.6518E+01   7.8380E+01   0.0000E+00  0.0000
   7.8380E+01   8.0287E+01   0.0000E+00  0.0000
   8.0287E+01   8.2240E+01   0.0000E+00  0.0000
   8.2240E+01   8.4241E+01   0.0000E+00  0.0000
   8.4241E+01   8.6291E+01   0.0000E+00  0.0000
   8.6291E+01   8.8391E+01   0.0000E+00  0.0000
   8.8391E+01   9.0541E+01   0.0000E+00  0.0000
   9.0541E+01   9.2744E+01   0.0000E+00  0.0000
   9.2744E+01   9.5001E+01   0.0000E+00  0.0000
   9.5001E+01   9.7312E+01   0.0000E+00  0.0000
   9.7312E+01   9.9680E+01   0.0000E+00  0.0000
   9.9680E+01   1.0211E+02   0.0000E+00  0.0000
   1.0211E+02   1.0459E+02   0.0000E+00  0.0000
   1.0459E+02   1.0713E+02   0.0000E+00  0.0000
   1.0713E+02   1.0974E+02   0.0000E+00  0.0000
   1.0974E+02   1.1241E+02   0.0000E+00  0.0000
   1.1241E+02   1.1515E+02   0.0000E+00  0.0000
   1.1515E+02   1.1795E+02   0.0000E+00  0.0000
   1.1795E+02   1.2082E+02   0.0000E+00  0.0000
   1.2082E+02   1.2376E+02   0.0000E+00  0.0000
   1.2376E+02   1.2677E+02   0.0000E+00  0.0000
   1.2677E+02   1.2985E+02   0.0000E+00  0.0000
   1.2985E+02   1.3301E+02   0.0000E+00  0.0000
   1.3301E+02   1.3625E+02   0.0000E+00  0.0000
   1.3625E+02   1.3956E+02   0.0000E+00  0.0000
   1.3956E+02   1.4296E+02   0.0000E+00  0.0000
   1.4296E+02   1.4644E+02   0.0000E+00  0.0000
   1.4644E+02   1.5000E+02   0.0000E+00  0.0000

#   sum over                 3.7353E-05
'no. =    1   reg = 114 - 214'
msuc: {\huge [t-cross] in region mesh}
msdr: {\it plotted by \ANGEL \version}
msdl: {\it calculated by \PHITS  3.28}
wt: s(0.7)
\vspace{-3}
  region surface crossing
  area  &=&   1.0000E+00 [cm^2]
e:
 
# Information for Restart Calculation
# This calculation was newly started
# istdev =  2 # 1:Batch variance, 2:History variance
# resc2  = 5.00000000000000000E+09 # Total source weight or Total source weight / maxcas
# resc3  = 5.00000000000000000E+09 # Total history number or Total batch number
# maxcas =   500000000 # History / Batch, only used for istdev=1
# bitrseed = 0110100000100010111000001110001111001110100100011111101000111001 # bit data of rseed
