[ T-Cross ]
    title = [t-cross] in region mesh
     mesh =  reg            # mesh type is region-wise
      reg =    1            # number of crossing regions
      non     r-from    r-to       area
      1       116       216        1.000000    
   e-type =    3            # e-mesh is log given by emin, emax and ne
     emin =  1.0000000E-02  # minimum value of e-mesh points
     emax =   150.0000      # maximum value of e-mesh points
#    edel =  2.4039514E-02  # mesh width of e-mesh points
       ne =    400          # number of e-mesh points
#    data = ( e(i), i = 1, ne + 1 )
#           1.00000E-02  1.02433E-02  1.04925E-02  1.07478E-02  1.10093E-02
#           1.12772E-02  1.15516E-02  1.18326E-02  1.21205E-02  1.24154E-02
#           1.27175E-02  1.30269E-02  1.33439E-02  1.36686E-02  1.40011E-02
#           1.43418E-02  1.46907E-02  1.50482E-02  1.54143E-02  1.57894E-02
#           1.61735E-02  1.65670E-02  1.69701E-02  1.73830E-02  1.78060E-02
#           1.82392E-02  1.86830E-02  1.91375E-02  1.96032E-02  2.00801E-02
#           2.05687E-02  2.10692E-02  2.15818E-02  2.21069E-02  2.26448E-02
#           2.31957E-02  2.37601E-02  2.43382E-02  2.49304E-02  2.55369E-02
#           2.61583E-02  2.67947E-02  2.74467E-02  2.81145E-02  2.87985E-02
#           2.94992E-02  3.02169E-02  3.09521E-02  3.17052E-02  3.24766E-02
#           3.32668E-02  3.40762E-02  3.49053E-02  3.57546E-02  3.66246E-02
#           3.75157E-02  3.84284E-02  3.93634E-02  4.03212E-02  4.13022E-02
#           4.23071E-02  4.33365E-02  4.43909E-02  4.54710E-02  4.65773E-02
#           4.77106E-02  4.88714E-02  5.00605E-02  5.12785E-02  5.25262E-02
#           5.38042E-02  5.51133E-02  5.64542E-02  5.78278E-02  5.92348E-02
#           6.06760E-02  6.21523E-02  6.36645E-02  6.52135E-02  6.68002E-02
#           6.84255E-02  7.00904E-02  7.17957E-02  7.35426E-02  7.53319E-02
#           7.71648E-02  7.90423E-02  8.09655E-02  8.29354E-02  8.49533E-02
#           8.70203E-02  8.91376E-02  9.13064E-02  9.35279E-02  9.58035E-02
#           9.81345E-02  1.00522E-01  1.02968E-01  1.05473E-01  1.08040E-01
#           1.10668E-01  1.13361E-01  1.16119E-01  1.18944E-01  1.21838E-01
#           1.24803E-01  1.27839E-01  1.30950E-01  1.34136E-01  1.37399E-01
#           1.40742E-01  1.44167E-01  1.47675E-01  1.51268E-01  1.54948E-01
#           1.58718E-01  1.62580E-01  1.66535E-01  1.70587E-01  1.74738E-01
#           1.78989E-01  1.83344E-01  1.87805E-01  1.92375E-01  1.97055E-01
#           2.01850E-01  2.06761E-01  2.11792E-01  2.16945E-01  2.22223E-01
#           2.27630E-01  2.33169E-01  2.38842E-01  2.44653E-01  2.50605E-01
#           2.56703E-01  2.62949E-01  2.69346E-01  2.75900E-01  2.82613E-01
#           2.89489E-01  2.96532E-01  3.03747E-01  3.11138E-01  3.18708E-01
#           3.26462E-01  3.34405E-01  3.42542E-01  3.50876E-01  3.59413E-01
#           3.68158E-01  3.77116E-01  3.86291E-01  3.95690E-01  4.05317E-01
#           4.15179E-01  4.25281E-01  4.35628E-01  4.46227E-01  4.57084E-01
#           4.68205E-01  4.79597E-01  4.91266E-01  5.03219E-01  5.15463E-01
#           5.28005E-01  5.40851E-01  5.54011E-01  5.67490E-01  5.81298E-01
#           5.95441E-01  6.09929E-01  6.24769E-01  6.39970E-01  6.55541E-01
#           6.71491E-01  6.87828E-01  7.04564E-01  7.21706E-01  7.39266E-01
#           7.57253E-01  7.75678E-01  7.94551E-01  8.13883E-01  8.33685E-01
#           8.53969E-01  8.74747E-01  8.96030E-01  9.17831E-01  9.40163E-01
#           9.63038E-01  9.86469E-01  1.01047E+00  1.03506E+00  1.06024E+00
#           1.08604E+00  1.11246E+00  1.13953E+00  1.16725E+00  1.19565E+00
#           1.22474E+00  1.25454E+00  1.28507E+00  1.31633E+00  1.34836E+00
#           1.38117E+00  1.41477E+00  1.44920E+00  1.48446E+00  1.52057E+00
#           1.55757E+00  1.59547E+00  1.63429E+00  1.67405E+00  1.71478E+00
#           1.75650E+00  1.79924E+00  1.84302E+00  1.88786E+00  1.93379E+00
#           1.98084E+00  2.02904E+00  2.07841E+00  2.12898E+00  2.18078E+00
#           2.23384E+00  2.28819E+00  2.34386E+00  2.40089E+00  2.45930E+00
#           2.51914E+00  2.58043E+00  2.64322E+00  2.70753E+00  2.77341E+00
#           2.84088E+00  2.91001E+00  2.98081E+00  3.05333E+00  3.12762E+00
#           3.20372E+00  3.28167E+00  3.36152E+00  3.44330E+00  3.52708E+00
#           3.61290E+00  3.70080E+00  3.79085E+00  3.88308E+00  3.97756E+00
#           4.07434E+00  4.17347E+00  4.27501E+00  4.37903E+00  4.48557E+00
#           4.59471E+00  4.70650E+00  4.82102E+00  4.93832E+00  5.05847E+00
#           5.18155E+00  5.30762E+00  5.43676E+00  5.56904E+00  5.70453E+00
#           5.84333E+00  5.98550E+00  6.13114E+00  6.28031E+00  6.43312E+00
#           6.58964E+00  6.74997E+00  6.91420E+00  7.08243E+00  7.25475E+00
#           7.43126E+00  7.61207E+00  7.79728E+00  7.98700E+00  8.18133E+00
#           8.38038E+00  8.58428E+00  8.79315E+00  9.00709E+00  9.22624E+00
#           9.45072E+00  9.68067E+00  9.91620E+00  1.01575E+01  1.04046E+01
#           1.06578E+01  1.09171E+01  1.11827E+01  1.14548E+01  1.17335E+01
#           1.20190E+01  1.23114E+01  1.26109E+01  1.29178E+01  1.32321E+01
#           1.35540E+01  1.38838E+01  1.42216E+01  1.45676E+01  1.49221E+01
#           1.52851E+01  1.56570E+01  1.60380E+01  1.64282E+01  1.68279E+01
#           1.72374E+01  1.76568E+01  1.80864E+01  1.85264E+01  1.89772E+01
#           1.94389E+01  1.99119E+01  2.03963E+01  2.08926E+01  2.14009E+01
#           2.19216E+01  2.24550E+01  2.30014E+01  2.35610E+01  2.41343E+01
#           2.47215E+01  2.53230E+01  2.59391E+01  2.65702E+01  2.72167E+01
#           2.78789E+01  2.85572E+01  2.92520E+01  2.99637E+01  3.06928E+01
#           3.14396E+01  3.22045E+01  3.29881E+01  3.37907E+01  3.46128E+01
#           3.54550E+01  3.63177E+01  3.72013E+01  3.81064E+01  3.90336E+01
#           3.99833E+01  4.09561E+01  4.19526E+01  4.29734E+01  4.40189E+01
#           4.50900E+01  4.61870E+01  4.73108E+01  4.84619E+01  4.96410E+01
#           5.08488E+01  5.20860E+01  5.33533E+01  5.46514E+01  5.59812E+01
#           5.73432E+01  5.87384E+01  6.01676E+01  6.16315E+01  6.31311E+01
#           6.46671E+01  6.62405E+01  6.78522E+01  6.95031E+01  7.11941E+01
#           7.29263E+01  7.47007E+01  7.65182E+01  7.83800E+01  8.02870E+01
#           8.22405E+01  8.42414E+01  8.62911E+01  8.83906E+01  9.05412E+01
#           9.27442E+01  9.50007E+01  9.73122E+01  9.96799E+01  1.02105E+02
#           1.04589E+02  1.07134E+02  1.09741E+02  1.12411E+02  1.15146E+02
#           1.17948E+02  1.20817E+02  1.23757E+02  1.26768E+02  1.29852E+02
#           1.33012E+02  1.36248E+02  1.39563E+02  1.42959E+02  1.46437E+02
#           1.50000E+02
     unit =    2            # unit is [1/cm^2/(MeV/n)/source]
     axis =  eng            # axis of output
     file = detector-17.out  # file name of output for the above axis
   output = f-curr          # surface crossing forward current spectrum
     part =  neutron  
# kf/name :  2112     
#    used :        main (  %)        temp (  %)       total (  %)
#  memory :         414 (  0)           0 (  0)         414 (  0)

#------------------------------------------------------------------------------
#newpage:
#   no. =    1   reg = 116 - 216

x: Energy [MeV/n]
y:  F-Curr [1/cm^2/(MeV/n)/source]         
p: xlog ylog afac(0.8) form(0.9)
h: n            x            y(neutron ),hh0l   n 
#  e-lower      e-upper      neutron     r.err 
   1.0000E-02   1.0243E-02   1.7280E-03  0.0398
   1.0243E-02   1.0493E-02   1.7511E-03  0.0390
   1.0493E-02   1.0748E-02   1.5736E-03  0.0407
   1.0748E-02   1.1009E-02   1.6920E-03  0.0388
   1.1009E-02   1.1277E-02   1.6810E-03  0.0384
   1.1277E-02   1.1552E-02   1.4956E-03  0.0402
   1.1552E-02   1.1833E-02   1.6447E-03  0.0379
   1.1833E-02   1.2121E-02   1.5886E-03  0.0381
   1.2121E-02   1.2415E-02   1.5853E-03  0.0377
   1.2415E-02   1.2718E-02   1.5064E-03  0.0382
   1.2718E-02   1.3027E-02   1.5517E-03  0.0372
   1.3027E-02   1.3344E-02   1.4832E-03  0.0376
   1.3344E-02   1.3669E-02   1.4161E-03  0.0380
   1.3669E-02   1.4001E-02   1.3734E-03  0.0382
   1.4001E-02   1.4342E-02   1.3129E-03  0.0386
   1.4342E-02   1.4691E-02   1.3065E-03  0.0382
   1.4691E-02   1.5048E-02   1.2805E-03  0.0381
   1.5048E-02   1.5414E-02   1.3517E-03  0.0367
   1.5414E-02   1.5789E-02   1.2459E-03  0.0377
   1.5789E-02   1.6174E-02   1.2712E-03  0.0369
   1.6174E-02   1.6567E-02   1.1897E-03  0.0376
   1.6567E-02   1.6970E-02   1.2370E-03  0.0365
   1.6970E-02   1.7383E-02   1.2183E-03  0.0364
   1.7383E-02   1.7806E-02   1.1910E-03  0.0363
   1.7806E-02   1.8239E-02   1.1489E-03  0.0366
   1.8239E-02   1.8683E-02   1.0832E-03  0.0372
   1.8683E-02   1.9138E-02   1.0971E-03  0.0365
   1.9138E-02   1.9603E-02   1.0408E-03  0.0370
   1.9603E-02   2.0080E-02   1.0476E-03  0.0365
   2.0080E-02   2.0569E-02   1.0550E-03  0.0359
   2.0569E-02   2.1069E-02   1.0088E-03  0.0363
   2.1069E-02   2.1582E-02   1.0309E-03  0.0355
   2.1582E-02   2.2107E-02   9.8408E-04  0.0358
   2.2107E-02   2.2645E-02   9.8646E-04  0.0354
   2.2645E-02   2.3196E-02   9.4823E-04  0.0357
   2.3196E-02   2.3760E-02   9.4347E-04  0.0353
   2.3760E-02   2.4338E-02   9.1166E-04  0.0355
   2.4338E-02   2.4930E-02   9.2551E-04  0.0348
   2.4930E-02   2.5537E-02   8.3946E-04  0.0361
   2.5537E-02   2.6158E-02   9.0293E-04  0.0344
   2.6158E-02   2.6795E-02   8.5057E-04  0.0351
   2.6795E-02   2.7447E-02   8.1392E-04  0.0354
   2.7447E-02   2.8114E-02   8.8106E-04  0.0336
   2.8114E-02   2.8799E-02   8.3466E-04  0.0341
   2.8799E-02   2.9499E-02   7.7372E-04  0.0350
   2.9499E-02   3.0217E-02   7.3959E-04  0.0354
   3.0217E-02   3.0952E-02   7.5246E-04  0.0347
   3.0952E-02   3.1705E-02   7.9260E-04  0.0334
   3.1705E-02   3.2477E-02   6.7213E-04  0.0358
   3.2477E-02   3.3267E-02   7.4115E-04  0.0337
   3.3267E-02   3.4076E-02   7.0155E-04  0.0342
   3.4076E-02   3.4905E-02   6.8891E-04  0.0341
   3.4905E-02   3.5755E-02   7.3656E-04  0.0326
   3.5755E-02   3.6625E-02   6.7962E-04  0.0335
   3.6625E-02   3.7516E-02   6.4651E-04  0.0339
   3.7516E-02   3.8428E-02   6.3441E-04  0.0339
   3.8428E-02   3.9363E-02   5.9168E-04  0.0347
   3.9363E-02   4.0321E-02   5.8387E-04  0.0344
   4.0321E-02   4.1302E-02   5.8517E-04  0.0340
   4.1302E-02   4.2307E-02   6.1299E-04  0.0329
   4.2307E-02   4.3337E-02   5.6049E-04  0.0340
   4.3337E-02   4.4391E-02   5.6624E-04  0.0334
   4.4391E-02   4.5471E-02   5.5485E-04  0.0333
   4.5471E-02   4.6577E-02   5.3279E-04  0.0336
   4.6577E-02   4.7711E-02   5.6825E-04  0.0321
   4.7711E-02   4.8871E-02   5.3771E-04  0.0326
   4.8871E-02   5.0061E-02   5.3983E-04  0.0322
   5.0061E-02   5.1279E-02   5.0576E-04  0.0329
   5.1279E-02   5.2526E-02   5.2489E-04  0.0319
   5.2526E-02   5.3804E-02   4.9142E-04  0.0325
   5.3804E-02   5.5113E-02   4.7243E-04  0.0328
   5.5113E-02   5.6454E-02   4.6656E-04  0.0326
   5.6454E-02   5.7828E-02   4.3646E-04  0.0333
   5.7828E-02   5.9235E-02   4.5753E-04  0.0321
   5.9235E-02   6.0676E-02   4.2624E-04  0.0329
   6.0676E-02   6.2152E-02   4.4157E-04  0.0319
   6.2152E-02   6.3665E-02   4.3442E-04  0.0318
   6.3665E-02   6.5214E-02   4.0217E-04  0.0326
   6.5214E-02   6.6800E-02   4.0923E-04  0.0320
   6.6800E-02   6.8426E-02   3.8782E-04  0.0325
   6.8426E-02   7.0090E-02   3.7086E-04  0.0328
   7.0090E-02   7.1796E-02   3.8616E-04  0.0318
   7.1796E-02   7.3543E-02   3.6175E-04  0.0324
   7.3543E-02   7.5332E-02   3.6587E-04  0.0319
   7.5332E-02   7.7165E-02   3.4596E-04  0.0324
   7.7165E-02   7.9042E-02   3.7733E-04  0.0306
   7.9042E-02   8.0965E-02   3.3604E-04  0.0321
   8.0965E-02   8.2935E-02   3.3075E-04  0.0319
   8.2935E-02   8.4953E-02   3.0423E-04  0.0329
   8.4953E-02   8.7020E-02   3.2589E-04  0.0314
   8.7020E-02   8.9138E-02   3.1536E-04  0.0315
   8.9138E-02   9.1306E-02   3.0188E-04  0.0319
   9.1306E-02   9.3528E-02   2.9147E-04  0.0321
   9.3528E-02   9.5804E-02   2.7778E-04  0.0324
   9.5804E-02   9.8134E-02   3.0181E-04  0.0307
   9.8134E-02   1.0052E-01   2.9225E-04  0.0309
   1.0052E-01   1.0297E-01   3.0031E-04  0.0301
   1.0297E-01   1.0547E-01   2.6933E-04  0.0314
   1.0547E-01   1.0804E-01   2.6632E-04  0.0312
   1.0804E-01   1.1067E-01   2.5444E-04  0.0315
   1.1067E-01   1.1336E-01   2.5359E-04  0.0312
   1.1336E-01   1.1612E-01   2.5478E-04  0.0307
   1.1612E-01   1.1894E-01   2.4438E-04  0.0310
   1.1894E-01   1.2184E-01   2.3167E-04  0.0315
   1.2184E-01   1.2480E-01   2.2401E-04  0.0316
   1.2480E-01   1.2784E-01   2.2696E-04  0.0311
   1.2784E-01   1.3095E-01   2.1953E-04  0.0312
   1.3095E-01   1.3414E-01   2.1950E-04  0.0308
   1.3414E-01   1.3740E-01   2.0974E-04  0.0312
   1.3740E-01   1.4074E-01   2.0207E-04  0.0314
   1.4074E-01   1.4417E-01   2.0487E-04  0.0308
   1.4417E-01   1.4767E-01   1.8725E-04  0.0318
   1.4767E-01   1.5127E-01   1.8962E-04  0.0312
   1.5127E-01   1.5495E-01   1.9064E-04  0.0308
   1.5495E-01   1.5872E-01   1.7781E-04  0.0315
   1.5872E-01   1.6258E-01   1.8252E-04  0.0307
   1.6258E-01   1.6654E-01   1.7957E-04  0.0306
   1.6654E-01   1.7059E-01   1.6831E-04  0.0312
   1.7059E-01   1.7474E-01   1.7060E-04  0.0306
   1.7474E-01   1.7899E-01   1.7154E-04  0.0302
   1.7899E-01   1.8334E-01   1.5944E-04  0.0309
   1.8334E-01   1.8781E-01   1.5650E-04  0.0309
   1.8781E-01   1.9237E-01   1.4926E-04  0.0312
   1.9237E-01   1.9706E-01   1.5269E-04  0.0305
   1.9706E-01   2.0185E-01   1.4118E-04  0.0313
   2.0185E-01   2.0676E-01   1.5014E-04  0.0300
   2.0676E-01   2.1179E-01   1.6058E-04  0.0287
   2.1179E-01   2.1694E-01   1.5576E-04  0.0288
   2.1694E-01   2.2222E-01   1.6026E-04  0.0280
   2.2222E-01   2.2763E-01   1.6405E-04  0.0274
   2.2763E-01   2.3317E-01   1.7559E-04  0.0261
   2.3317E-01   2.3884E-01   1.7416E-04  0.0259
   2.3884E-01   2.4465E-01   1.8150E-04  0.0251
   2.4465E-01   2.5061E-01   1.8216E-04  0.0247
   2.5061E-01   2.5670E-01   1.9180E-04  0.0238
   2.5670E-01   2.6295E-01   1.9478E-04  0.0234
   2.6295E-01   2.6935E-01   2.0153E-04  0.0227
   2.6935E-01   2.7590E-01   2.0885E-04  0.0220
   2.7590E-01   2.8261E-01   2.1052E-04  0.0217
   2.8261E-01   2.8949E-01   2.1436E-04  0.0212
   2.8949E-01   2.9653E-01   2.2851E-04  0.0203
   2.9653E-01   3.0375E-01   2.3168E-04  0.0199
   3.0375E-01   3.1114E-01   2.2876E-04  0.0198
   3.1114E-01   3.1871E-01   2.3098E-04  0.0195
   3.1871E-01   3.2646E-01   2.4279E-04  0.0188
   3.2646E-01   3.3441E-01   2.5139E-04  0.0182
   3.3441E-01   3.4254E-01   2.5603E-04  0.0178
   3.4254E-01   3.5088E-01   2.5445E-04  0.0177
   3.5088E-01   3.5941E-01   2.5804E-04  0.0174
   3.5941E-01   3.6816E-01   2.6586E-04  0.0169
   3.6816E-01   3.7712E-01   2.6413E-04  0.0167
   3.7712E-01   3.8629E-01   2.7234E-04  0.0163
   3.8629E-01   3.9569E-01   2.7008E-04  0.0162
   3.9569E-01   4.0532E-01   2.8301E-04  0.0156
   4.0532E-01   4.1518E-01   2.8854E-04  0.0153
   4.1518E-01   4.2528E-01   2.9022E-04  0.0150
   4.2528E-01   4.3563E-01   2.9378E-04  0.0148
   4.3563E-01   4.4623E-01   3.0569E-04  0.0143
   4.4623E-01   4.5708E-01   3.0777E-04  0.0141
   4.5708E-01   4.6821E-01   3.0204E-04  0.0141
   4.6821E-01   4.7960E-01   3.0681E-04  0.0138
   4.7960E-01   4.9127E-01   3.0901E-04  0.0136
   4.9127E-01   5.0322E-01   3.1388E-04  0.0133
   5.0322E-01   5.1546E-01   3.0845E-04  0.0132
   5.1546E-01   5.2800E-01   3.1391E-04  0.0130
   5.2800E-01   5.4085E-01   3.1731E-04  0.0128
   5.4085E-01   5.5401E-01   3.2213E-04  0.0125
   5.5401E-01   5.6749E-01   3.1947E-04  0.0124
   5.6749E-01   5.8130E-01   3.2479E-04  0.0122
   5.8130E-01   5.9544E-01   3.2746E-04  0.0120
   5.9544E-01   6.0993E-01   3.3077E-04  0.0118
   6.0993E-01   6.2477E-01   3.2573E-04  0.0117
   6.2477E-01   6.3997E-01   3.2470E-04  0.0116
   6.3997E-01   6.5554E-01   3.2706E-04  0.0114
   6.5554E-01   6.7149E-01   3.2899E-04  0.0112
   6.7149E-01   6.8783E-01   3.3238E-04  0.0110
   6.8783E-01   7.0456E-01   3.3078E-04  0.0109
   7.0456E-01   7.2171E-01   3.2779E-04  0.0109
   7.2171E-01   7.3927E-01   3.2198E-04  0.0108
   7.3927E-01   7.5725E-01   3.2081E-04  0.0107
   7.5725E-01   7.7568E-01   3.1929E-04  0.0106
   7.7568E-01   7.9455E-01   3.1667E-04  0.0105
   7.9455E-01   8.1388E-01   3.1288E-04  0.0105
   8.1388E-01   8.3368E-01   3.0809E-04  0.0104
   8.3368E-01   8.5397E-01   3.0500E-04  0.0103
   8.5397E-01   8.7475E-01   3.0857E-04  0.0102
   8.7475E-01   8.9603E-01   2.9951E-04  0.0102
   8.9603E-01   9.1783E-01   3.0243E-04  0.0100
   9.1783E-01   9.4016E-01   2.9392E-04  0.0100
   9.4016E-01   9.6304E-01   2.9469E-04  0.0099
   9.6304E-01   9.8647E-01   2.9186E-04  0.0098
   9.8647E-01   1.0105E+00   2.8696E-04  0.0098
   1.0105E+00   1.0351E+00   2.8053E-04  0.0098
   1.0351E+00   1.0602E+00   2.7450E-04  0.0098
   1.0602E+00   1.0860E+00   2.6682E-04  0.0098
   1.0860E+00   1.1125E+00   2.6146E-04  0.0098
   1.1125E+00   1.1395E+00   2.5860E-04  0.0097
   1.1395E+00   1.1673E+00   2.5226E-04  0.0097
   1.1673E+00   1.1957E+00   2.5088E-04  0.0096
   1.1957E+00   1.2247E+00   2.5012E-04  0.0095
   1.2247E+00   1.2545E+00   2.4538E-04  0.0095
   1.2545E+00   1.2851E+00   2.3857E-04  0.0095
   1.2851E+00   1.3163E+00   2.3645E-04  0.0094
   1.3163E+00   1.3484E+00   2.2678E-04  0.0095
   1.3484E+00   1.3812E+00   2.2560E-04  0.0094
   1.3812E+00   1.4148E+00   2.2111E-04  0.0094
   1.4148E+00   1.4492E+00   2.1954E-04  0.0093
   1.4492E+00   1.4845E+00   2.1158E-04  0.0094
   1.4845E+00   1.5206E+00   2.1169E-04  0.0093
   1.5206E+00   1.5576E+00   2.0458E-04  0.0093
   1.5576E+00   1.5955E+00   2.0138E-04  0.0093
   1.5955E+00   1.6343E+00   1.9276E-04  0.0094
   1.6343E+00   1.6741E+00   1.9300E-04  0.0093
   1.6741E+00   1.7148E+00   1.9068E-04  0.0092
   1.7148E+00   1.7565E+00   1.8861E-04  0.0091
   1.7565E+00   1.7992E+00   1.8355E-04  0.0092
   1.7992E+00   1.8430E+00   1.7881E-04  0.0092
   1.8430E+00   1.8879E+00   1.7724E-04  0.0091
   1.8879E+00   1.9338E+00   1.7361E-04  0.0091
   1.9338E+00   1.9808E+00   1.7265E-04  0.0090
   1.9808E+00   2.0290E+00   1.6910E-04  0.0090
   2.0290E+00   2.0784E+00   1.6753E-04  0.0089
   2.0784E+00   2.1290E+00   1.6177E-04  0.0090
   2.1290E+00   2.1808E+00   1.5975E-04  0.0089
   2.1808E+00   2.2338E+00   1.5886E-04  0.0088
   2.2338E+00   2.2882E+00   1.5539E-04  0.0088
   2.2882E+00   2.3439E+00   1.5161E-04  0.0088
   2.3439E+00   2.4009E+00   1.4872E-04  0.0088
   2.4009E+00   2.4593E+00   1.4737E-04  0.0087
   2.4593E+00   2.5191E+00   1.4533E-04  0.0087
   2.5191E+00   2.5804E+00   1.4440E-04  0.0086
   2.5804E+00   2.6432E+00   1.4049E-04  0.0086
   2.6432E+00   2.7075E+00   1.3852E-04  0.0086
   2.7075E+00   2.7734E+00   1.3629E-04  0.0086
   2.7734E+00   2.8409E+00   1.3381E-04  0.0085
   2.8409E+00   2.9100E+00   1.3078E-04  0.0085
   2.9100E+00   2.9808E+00   1.3081E-04  0.0084
   2.9808E+00   3.0533E+00   1.2839E-04  0.0084
   3.0533E+00   3.1276E+00   1.2614E-04  0.0084
   3.1276E+00   3.2037E+00   1.2418E-04  0.0083
   3.2037E+00   3.2817E+00   1.2367E-04  0.0083
   3.2817E+00   3.3615E+00   1.2136E-04  0.0082
   3.3615E+00   3.4433E+00   1.1949E-04  0.0082
   3.4433E+00   3.5271E+00   1.1973E-04  0.0081
   3.5271E+00   3.6129E+00   1.1718E-04  0.0081
   3.6129E+00   3.7008E+00   1.1420E-04  0.0081
   3.7008E+00   3.7908E+00   1.1625E-04  0.0079
   3.7908E+00   3.8831E+00   1.1413E-04  0.0079
   3.8831E+00   3.9776E+00   1.1204E-04  0.0079
   3.9776E+00   4.0743E+00   1.1214E-04  0.0078
   4.0743E+00   4.1735E+00   1.1079E-04  0.0077
   4.1735E+00   4.2750E+00   1.1200E-04  0.0076
   4.2750E+00   4.3790E+00   1.1108E-04  0.0076
   4.3790E+00   4.4856E+00   1.0857E-04  0.0076
   4.4856E+00   4.5947E+00   1.0658E-04  0.0075
   4.5947E+00   4.7065E+00   1.0642E-04  0.0074
   4.7065E+00   4.8210E+00   1.0366E-04  0.0075
   4.8210E+00   4.9383E+00   1.0168E-04  0.0074
   4.9383E+00   5.0585E+00   9.9095E-05  0.0074
   5.0585E+00   5.1815E+00   9.6687E-05  0.0075
   5.1815E+00   5.3076E+00   9.4760E-05  0.0074
   5.3076E+00   5.4368E+00   9.2699E-05  0.0074
   5.4368E+00   5.5690E+00   9.0823E-05  0.0074
   5.5690E+00   5.7045E+00   8.7720E-05  0.0075
   5.7045E+00   5.8433E+00   8.6899E-05  0.0074
   5.8433E+00   5.9855E+00   8.5392E-05  0.0074
   5.9855E+00   6.1311E+00   8.2298E-05  0.0074
   6.1311E+00   6.2803E+00   8.2119E-05  0.0074
   6.2803E+00   6.4331E+00   8.0450E-05  0.0073
   6.4331E+00   6.5896E+00   7.8308E-05  0.0074
   6.5896E+00   6.7500E+00   7.7930E-05  0.0073
   6.7500E+00   6.9142E+00   7.5166E-05  0.0073
   6.9142E+00   7.0824E+00   7.2734E-05  0.0074
   7.0824E+00   7.2548E+00   7.0794E-05  0.0074
   7.2548E+00   7.4313E+00   7.0050E-05  0.0073
   7.4313E+00   7.6121E+00   6.7552E-05  0.0074
   7.6121E+00   7.7973E+00   6.5894E-05  0.0074
   7.7973E+00   7.9870E+00   6.4238E-05  0.0074
   7.9870E+00   8.1813E+00   6.1171E-05  0.0075
   8.1813E+00   8.3804E+00   5.9663E-05  0.0075
   8.3804E+00   8.5843E+00   5.7929E-05  0.0075
   8.5843E+00   8.7931E+00   5.5762E-05  0.0076
   8.7931E+00   9.0071E+00   5.4665E-05  0.0075
   9.0071E+00   9.2262E+00   5.2182E-05  0.0076
   9.2262E+00   9.4507E+00   5.0847E-05  0.0076
   9.4507E+00   9.6807E+00   4.8134E-05  0.0078
   9.6807E+00   9.9162E+00   4.6370E-05  0.0078
   9.9162E+00   1.0157E+01   4.4275E-05  0.0079
   1.0157E+01   1.0405E+01   4.3811E-05  0.0078
   1.0405E+01   1.0658E+01   4.3020E-05  0.0078
   1.0658E+01   1.0917E+01   4.2258E-05  0.0078
   1.0917E+01   1.1183E+01   4.0724E-05  0.0078
   1.1183E+01   1.1455E+01   3.8435E-05  0.0080
   1.1455E+01   1.1733E+01   3.6739E-05  0.0081
   1.1733E+01   1.2019E+01   3.4875E-05  0.0082
   1.2019E+01   1.2311E+01   3.3341E-05  0.0083
   1.2311E+01   1.2611E+01   3.1516E-05  0.0084
   1.2611E+01   1.2918E+01   2.9790E-05  0.0085
   1.2918E+01   1.3232E+01   2.8942E-05  0.0086
   1.3232E+01   1.3554E+01   2.6627E-05  0.0088
   1.3554E+01   1.3884E+01   2.5556E-05  0.0089
   1.3884E+01   1.4222E+01   2.4193E-05  0.0090
   1.4222E+01   1.4568E+01   2.2700E-05  0.0092
   1.4568E+01   1.4922E+01   2.1389E-05  0.0094
   1.4922E+01   1.5285E+01   1.9885E-05  0.0096
   1.5285E+01   1.5657E+01   1.8401E-05  0.0099
   1.5657E+01   1.6038E+01   1.6789E-05  0.0102
   1.6038E+01   1.6428E+01   1.5981E-05  0.0103
   1.6428E+01   1.6828E+01   1.4509E-05  0.0107
   1.6828E+01   1.7237E+01   1.3242E-05  0.0111
   1.7237E+01   1.7657E+01   1.1850E-05  0.0116
   1.7657E+01   1.8086E+01   1.0957E-05  0.0119
   1.8086E+01   1.8526E+01   1.0127E-05  0.0122
   1.8526E+01   1.8977E+01   9.1961E-06  0.0127
   1.8977E+01   1.9439E+01   8.3640E-06  0.0131
   1.9439E+01   1.9912E+01   7.4878E-06  0.0137
   1.9912E+01   2.0396E+01   6.5515E-06  0.0145
   2.0396E+01   2.0893E+01   5.9566E-06  0.0150
   2.0893E+01   2.1401E+01   5.2603E-06  0.0158
   2.1401E+01   2.1922E+01   4.4363E-06  0.0170
   2.1922E+01   2.2455E+01   3.8860E-06  0.0179
   2.2455E+01   2.3001E+01   3.4325E-06  0.0189
   2.3001E+01   2.3561E+01   2.9257E-06  0.0202
   2.3561E+01   2.4134E+01   2.4713E-06  0.0217
   2.4134E+01   2.4721E+01   2.2105E-06  0.0227
   2.4721E+01   2.5323E+01   1.7634E-06  0.0251
   2.5323E+01   2.5939E+01   1.5863E-06  0.0261
   2.5939E+01   2.6570E+01   1.3394E-06  0.0281
   2.6570E+01   2.7217E+01   1.0611E-06  0.0312
   2.7217E+01   2.7879E+01   8.8190E-07  0.0338
   2.7879E+01   2.8557E+01   7.6955E-07  0.0357
   2.8557E+01   2.9252E+01   6.4381E-07  0.0386
   2.9252E+01   2.9964E+01   5.6202E-07  0.0408
   2.9964E+01   3.0693E+01   5.1300E-07  0.0422
   3.0693E+01   3.1440E+01   3.8119E-07  0.0484
   3.1440E+01   3.2205E+01   3.2682E-07  0.0516
   3.2205E+01   3.2988E+01   2.5354E-07  0.0579
   3.2988E+01   3.3791E+01   1.9519E-07  0.0652
   3.3791E+01   3.4613E+01   1.9542E-07  0.0644
   3.4613E+01   3.5455E+01   1.7732E-07  0.0668
   3.5455E+01   3.6318E+01   1.3524E-07  0.0756
   3.6318E+01   3.7201E+01   1.3128E-07  0.0758
   3.7201E+01   3.8106E+01   1.2374E-07  0.0772
   3.8106E+01   3.9034E+01   1.0858E-07  0.0814
   3.9034E+01   3.9983E+01   8.9851E-08  0.0884
   3.9983E+01   4.0956E+01   8.6346E-08  0.0891
   4.0956E+01   4.1953E+01   6.8239E-08  0.0990
   4.1953E+01   4.2973E+01   6.7271E-08  0.0985
   4.2973E+01   4.4019E+01   4.9096E-08  0.1140
   4.4019E+01   4.5090E+01   4.0460E-08  0.1240
   4.5090E+01   4.6187E+01   2.3092E-08  0.1622
   4.6187E+01   4.7311E+01   2.6103E-08  0.1508
   4.7311E+01   4.8462E+01   1.1583E-08  0.2236
   4.8462E+01   4.9641E+01   6.7847E-09  0.2887
   4.9641E+01   5.0849E+01   4.4157E-09  0.3536
   5.0849E+01   5.2086E+01   0.0000E+00  0.0000
   5.2086E+01   5.3353E+01   0.0000E+00  0.0000
   5.3353E+01   5.4651E+01   5.1356E-10  1.0000
   5.4651E+01   5.5981E+01   0.0000E+00  0.0000
   5.5981E+01   5.7343E+01   0.0000E+00  0.0000
   5.7343E+01   5.8738E+01   0.0000E+00  0.0000
   5.8738E+01   6.0168E+01   0.0000E+00  0.0000
   6.0168E+01   6.1632E+01   0.0000E+00  0.0000
   6.1632E+01   6.3131E+01   0.0000E+00  0.0000
   6.3131E+01   6.4667E+01   0.0000E+00  0.0000
   6.4667E+01   6.6240E+01   0.0000E+00  0.0000
   6.6240E+01   6.7852E+01   0.0000E+00  0.0000
   6.7852E+01   6.9503E+01   0.0000E+00  0.0000
   6.9503E+01   7.1194E+01   0.0000E+00  0.0000
   7.1194E+01   7.2926E+01   0.0000E+00  0.0000
   7.2926E+01   7.4701E+01   0.0000E+00  0.0000
   7.4701E+01   7.6518E+01   0.0000E+00  0.0000
   7.6518E+01   7.8380E+01   0.0000E+00  0.0000
   7.8380E+01   8.0287E+01   0.0000E+00  0.0000
   8.0287E+01   8.2240E+01   0.0000E+00  0.0000
   8.2240E+01   8.4241E+01   0.0000E+00  0.0000
   8.4241E+01   8.6291E+01   0.0000E+00  0.0000
   8.6291E+01   8.8391E+01   0.0000E+00  0.0000
   8.8391E+01   9.0541E+01   0.0000E+00  0.0000
   9.0541E+01   9.2744E+01   0.0000E+00  0.0000
   9.2744E+01   9.5001E+01   0.0000E+00  0.0000
   9.5001E+01   9.7312E+01   0.0000E+00  0.0000
   9.7312E+01   9.9680E+01   0.0000E+00  0.0000
   9.9680E+01   1.0211E+02   0.0000E+00  0.0000
   1.0211E+02   1.0459E+02   0.0000E+00  0.0000
   1.0459E+02   1.0713E+02   0.0000E+00  0.0000
   1.0713E+02   1.0974E+02   0.0000E+00  0.0000
   1.0974E+02   1.1241E+02   0.0000E+00  0.0000
   1.1241E+02   1.1515E+02   0.0000E+00  0.0000
   1.1515E+02   1.1795E+02   0.0000E+00  0.0000
   1.1795E+02   1.2082E+02   0.0000E+00  0.0000
   1.2082E+02   1.2376E+02   0.0000E+00  0.0000
   1.2376E+02   1.2677E+02   0.0000E+00  0.0000
   1.2677E+02   1.2985E+02   0.0000E+00  0.0000
   1.2985E+02   1.3301E+02   0.0000E+00  0.0000
   1.3301E+02   1.3625E+02   0.0000E+00  0.0000
   1.3625E+02   1.3956E+02   0.0000E+00  0.0000
   1.3956E+02   1.4296E+02   0.0000E+00  0.0000
   1.4296E+02   1.4644E+02   0.0000E+00  0.0000
   1.4644E+02   1.5000E+02   0.0000E+00  0.0000

#   sum over                 9.9091E-06
'no. =    1   reg = 116 - 216'
msuc: {\huge [t-cross] in region mesh}
msdr: {\it plotted by \ANGEL \version}
msdl: {\it calculated by \PHITS  3.26}
wt: s(0.7)
\vspace{-3}
  region surface crossing
  area  &=&   1.0000E+00 [cm^2]
e:
 
# Information for Restart Calculation
# This calculation was newly started
# istdev =  2 # 1:Batch variance, 2:History variance
# resc2  = 1.50000000000000000E+09 # Total source weight or Total source weight / maxcas
# resc3  = 1.50000000000000000E+09 # Total history number or Total batch number
# maxcas =   500000000 # History / Batch, only used for istdev=1
# bitrseed = 0000010101110101110110100110011001100101000001100111100100101101 # bit data of rseed
