[ T-Cross ]
    title = [t-cross] in region mesh
     mesh =  reg            # mesh type is region-wise
      reg =    1            # number of crossing regions
      non     r-from    r-to       area
      1       120       220        1.000000    
   e-type =    3            # e-mesh is log given by emin, emax and ne
     emin =  1.0000000E-02  # minimum value of e-mesh points
     emax =   150.0000      # maximum value of e-mesh points
#    edel =  2.4039514E-02  # mesh width of e-mesh points
       ne =    400          # number of e-mesh points
#    data = ( e(i), i = 1, ne + 1 )
#           1.00000E-02  1.02433E-02  1.04925E-02  1.07478E-02  1.10093E-02
#           1.12772E-02  1.15516E-02  1.18326E-02  1.21205E-02  1.24154E-02
#           1.27175E-02  1.30269E-02  1.33439E-02  1.36686E-02  1.40011E-02
#           1.43418E-02  1.46907E-02  1.50482E-02  1.54143E-02  1.57894E-02
#           1.61735E-02  1.65670E-02  1.69701E-02  1.73830E-02  1.78060E-02
#           1.82392E-02  1.86830E-02  1.91375E-02  1.96032E-02  2.00801E-02
#           2.05687E-02  2.10692E-02  2.15818E-02  2.21069E-02  2.26448E-02
#           2.31957E-02  2.37601E-02  2.43382E-02  2.49304E-02  2.55369E-02
#           2.61583E-02  2.67947E-02  2.74467E-02  2.81145E-02  2.87985E-02
#           2.94992E-02  3.02169E-02  3.09521E-02  3.17052E-02  3.24766E-02
#           3.32668E-02  3.40762E-02  3.49053E-02  3.57546E-02  3.66246E-02
#           3.75157E-02  3.84284E-02  3.93634E-02  4.03212E-02  4.13022E-02
#           4.23071E-02  4.33365E-02  4.43909E-02  4.54710E-02  4.65773E-02
#           4.77106E-02  4.88714E-02  5.00605E-02  5.12785E-02  5.25262E-02
#           5.38042E-02  5.51133E-02  5.64542E-02  5.78278E-02  5.92348E-02
#           6.06760E-02  6.21523E-02  6.36645E-02  6.52135E-02  6.68002E-02
#           6.84255E-02  7.00904E-02  7.17957E-02  7.35426E-02  7.53319E-02
#           7.71648E-02  7.90423E-02  8.09655E-02  8.29354E-02  8.49533E-02
#           8.70203E-02  8.91376E-02  9.13064E-02  9.35279E-02  9.58035E-02
#           9.81345E-02  1.00522E-01  1.02968E-01  1.05473E-01  1.08040E-01
#           1.10668E-01  1.13361E-01  1.16119E-01  1.18944E-01  1.21838E-01
#           1.24803E-01  1.27839E-01  1.30950E-01  1.34136E-01  1.37399E-01
#           1.40742E-01  1.44167E-01  1.47675E-01  1.51268E-01  1.54948E-01
#           1.58718E-01  1.62580E-01  1.66535E-01  1.70587E-01  1.74738E-01
#           1.78989E-01  1.83344E-01  1.87805E-01  1.92375E-01  1.97055E-01
#           2.01850E-01  2.06761E-01  2.11792E-01  2.16945E-01  2.22223E-01
#           2.27630E-01  2.33169E-01  2.38842E-01  2.44653E-01  2.50605E-01
#           2.56703E-01  2.62949E-01  2.69346E-01  2.75900E-01  2.82613E-01
#           2.89489E-01  2.96532E-01  3.03747E-01  3.11138E-01  3.18708E-01
#           3.26462E-01  3.34405E-01  3.42542E-01  3.50876E-01  3.59413E-01
#           3.68158E-01  3.77116E-01  3.86291E-01  3.95690E-01  4.05317E-01
#           4.15179E-01  4.25281E-01  4.35628E-01  4.46227E-01  4.57084E-01
#           4.68205E-01  4.79597E-01  4.91266E-01  5.03219E-01  5.15463E-01
#           5.28005E-01  5.40851E-01  5.54011E-01  5.67490E-01  5.81298E-01
#           5.95441E-01  6.09929E-01  6.24769E-01  6.39970E-01  6.55541E-01
#           6.71491E-01  6.87828E-01  7.04564E-01  7.21706E-01  7.39266E-01
#           7.57253E-01  7.75678E-01  7.94551E-01  8.13883E-01  8.33685E-01
#           8.53969E-01  8.74747E-01  8.96030E-01  9.17831E-01  9.40163E-01
#           9.63038E-01  9.86469E-01  1.01047E+00  1.03506E+00  1.06024E+00
#           1.08604E+00  1.11246E+00  1.13953E+00  1.16725E+00  1.19565E+00
#           1.22474E+00  1.25454E+00  1.28507E+00  1.31633E+00  1.34836E+00
#           1.38117E+00  1.41477E+00  1.44920E+00  1.48446E+00  1.52057E+00
#           1.55757E+00  1.59547E+00  1.63429E+00  1.67405E+00  1.71478E+00
#           1.75650E+00  1.79924E+00  1.84302E+00  1.88786E+00  1.93379E+00
#           1.98084E+00  2.02904E+00  2.07841E+00  2.12898E+00  2.18078E+00
#           2.23384E+00  2.28819E+00  2.34386E+00  2.40089E+00  2.45930E+00
#           2.51914E+00  2.58043E+00  2.64322E+00  2.70753E+00  2.77341E+00
#           2.84088E+00  2.91001E+00  2.98081E+00  3.05333E+00  3.12762E+00
#           3.20372E+00  3.28167E+00  3.36152E+00  3.44330E+00  3.52708E+00
#           3.61290E+00  3.70080E+00  3.79085E+00  3.88308E+00  3.97756E+00
#           4.07434E+00  4.17347E+00  4.27501E+00  4.37903E+00  4.48557E+00
#           4.59471E+00  4.70650E+00  4.82102E+00  4.93832E+00  5.05847E+00
#           5.18155E+00  5.30762E+00  5.43676E+00  5.56904E+00  5.70453E+00
#           5.84333E+00  5.98550E+00  6.13114E+00  6.28031E+00  6.43312E+00
#           6.58964E+00  6.74997E+00  6.91420E+00  7.08243E+00  7.25475E+00
#           7.43126E+00  7.61207E+00  7.79728E+00  7.98700E+00  8.18133E+00
#           8.38038E+00  8.58428E+00  8.79315E+00  9.00709E+00  9.22624E+00
#           9.45072E+00  9.68067E+00  9.91620E+00  1.01575E+01  1.04046E+01
#           1.06578E+01  1.09171E+01  1.11827E+01  1.14548E+01  1.17335E+01
#           1.20190E+01  1.23114E+01  1.26109E+01  1.29178E+01  1.32321E+01
#           1.35540E+01  1.38838E+01  1.42216E+01  1.45676E+01  1.49221E+01
#           1.52851E+01  1.56570E+01  1.60380E+01  1.64282E+01  1.68279E+01
#           1.72374E+01  1.76568E+01  1.80864E+01  1.85264E+01  1.89772E+01
#           1.94389E+01  1.99119E+01  2.03963E+01  2.08926E+01  2.14009E+01
#           2.19216E+01  2.24550E+01  2.30014E+01  2.35610E+01  2.41343E+01
#           2.47215E+01  2.53230E+01  2.59391E+01  2.65702E+01  2.72167E+01
#           2.78789E+01  2.85572E+01  2.92520E+01  2.99637E+01  3.06928E+01
#           3.14396E+01  3.22045E+01  3.29881E+01  3.37907E+01  3.46128E+01
#           3.54550E+01  3.63177E+01  3.72013E+01  3.81064E+01  3.90336E+01
#           3.99833E+01  4.09561E+01  4.19526E+01  4.29734E+01  4.40189E+01
#           4.50900E+01  4.61870E+01  4.73108E+01  4.84619E+01  4.96410E+01
#           5.08488E+01  5.20860E+01  5.33533E+01  5.46514E+01  5.59812E+01
#           5.73432E+01  5.87384E+01  6.01676E+01  6.16315E+01  6.31311E+01
#           6.46671E+01  6.62405E+01  6.78522E+01  6.95031E+01  7.11941E+01
#           7.29263E+01  7.47007E+01  7.65182E+01  7.83800E+01  8.02870E+01
#           8.22405E+01  8.42414E+01  8.62911E+01  8.83906E+01  9.05412E+01
#           9.27442E+01  9.50007E+01  9.73122E+01  9.96799E+01  1.02105E+02
#           1.04589E+02  1.07134E+02  1.09741E+02  1.12411E+02  1.15146E+02
#           1.17948E+02  1.20817E+02  1.23757E+02  1.26768E+02  1.29852E+02
#           1.33012E+02  1.36248E+02  1.39563E+02  1.42959E+02  1.46437E+02
#           1.50000E+02
     unit =    2            # unit is [1/cm^2/(MeV/n)/source]
     axis =  eng            # axis of output
     file = detector-21.out  # file name of output for the above axis
   output = f-curr          # surface crossing forward current spectrum
     part =  neutron  
# kf/name :  2112     
#    used :        main (  %)        temp (  %)       total (  %)
#  memory :         414 (  0)           0 (  0)         414 (  0)

#------------------------------------------------------------------------------
#newpage:
#   no. =    1   reg = 120 - 220

x: Energy [MeV/n]
y:  F-Curr [1/cm^2/(MeV/n)/source]         
p: xlog ylog afac(0.8) form(0.9)
h: n            x            y(neutron ),hh0l   n 
#  e-lower      e-upper      neutron     r.err 
   1.0000E-02   1.0243E-02   1.5193E-03  0.0425
   1.0243E-02   1.0493E-02   1.4838E-03  0.0424
   1.0493E-02   1.0748E-02   1.3613E-03  0.0438
   1.0748E-02   1.1009E-02   1.4760E-03  0.0415
   1.1009E-02   1.1277E-02   1.3884E-03  0.0423
   1.1277E-02   1.1552E-02   1.3650E-03  0.0421
   1.1552E-02   1.1833E-02   1.3177E-03  0.0423
   1.1833E-02   1.2121E-02   1.3205E-03  0.0418
   1.2121E-02   1.2415E-02   1.3072E-03  0.0415
   1.2415E-02   1.2718E-02   1.2334E-03  0.0423
   1.2718E-02   1.3027E-02   1.3125E-03  0.0404
   1.3027E-02   1.3344E-02   1.2228E-03  0.0414
   1.3344E-02   1.3669E-02   1.2355E-03  0.0407
   1.3669E-02   1.4001E-02   1.2166E-03  0.0405
   1.4001E-02   1.4342E-02   1.1811E-03  0.0407
   1.4342E-02   1.4691E-02   1.2633E-03  0.0389
   1.4691E-02   1.5048E-02   1.1115E-03  0.0409
   1.5048E-02   1.5414E-02   1.1777E-03  0.0393
   1.5414E-02   1.5789E-02   1.1066E-03  0.0401
   1.5789E-02   1.6174E-02   1.0574E-03  0.0404
   1.6174E-02   1.6567E-02   1.1405E-03  0.0385
   1.6567E-02   1.6970E-02   1.0297E-03  0.0400
   1.6970E-02   1.7383E-02   9.7093E-04  0.0407
   1.7383E-02   1.7806E-02   1.0720E-03  0.0383
   1.7806E-02   1.8239E-02   9.9864E-04  0.0392
   1.8239E-02   1.8683E-02   1.0102E-03  0.0385
   1.8683E-02   1.9138E-02   9.5859E-04  0.0390
   1.9138E-02   1.9603E-02   9.4129E-04  0.0390
   1.9603E-02   2.0080E-02   9.9430E-04  0.0374
   2.0080E-02   2.0569E-02   9.4871E-04  0.0379
   2.0569E-02   2.1069E-02   9.1997E-04  0.0380
   2.1069E-02   2.1582E-02   9.5586E-04  0.0368
   2.1582E-02   2.2107E-02   8.5951E-04  0.0384
   2.2107E-02   2.2645E-02   8.8434E-04  0.0374
   2.2645E-02   2.3196E-02   8.5783E-04  0.0375
   2.3196E-02   2.3760E-02   8.1961E-04  0.0379
   2.3760E-02   2.4338E-02   8.0473E-04  0.0378
   2.4338E-02   2.4930E-02   7.9096E-04  0.0377
   2.4930E-02   2.5537E-02   7.8781E-04  0.0373
   2.5537E-02   2.6158E-02   8.0356E-04  0.0365
   2.6158E-02   2.6795E-02   7.7973E-04  0.0366
   2.6795E-02   2.7447E-02   7.9966E-04  0.0357
   2.7447E-02   2.8114E-02   8.1692E-04  0.0349
   2.8114E-02   2.8799E-02   7.4759E-04  0.0360
   2.8799E-02   2.9499E-02   7.1482E-04  0.0364
   2.9499E-02   3.0217E-02   7.3250E-04  0.0355
   3.0217E-02   3.0952E-02   6.7845E-04  0.0365
   3.0952E-02   3.1705E-02   6.9149E-04  0.0357
   3.1705E-02   3.2477E-02   6.7222E-04  0.0358
   3.2477E-02   3.3267E-02   6.9915E-04  0.0347
   3.3267E-02   3.4076E-02   6.4809E-04  0.0356
   3.4076E-02   3.4905E-02   6.2786E-04  0.0357
   3.4905E-02   3.5755E-02   6.3293E-04  0.0352
   3.5755E-02   3.6625E-02   6.0037E-04  0.0357
   3.6625E-02   3.7516E-02   5.8379E-04  0.0358
   3.7516E-02   3.8428E-02   5.8298E-04  0.0353
   3.8428E-02   3.9363E-02   5.6826E-04  0.0354
   3.9363E-02   4.0321E-02   5.7467E-04  0.0348
   4.0321E-02   4.1302E-02   5.1815E-04  0.0361
   4.1302E-02   4.2307E-02   5.4437E-04  0.0349
   4.2307E-02   4.3337E-02   5.2361E-04  0.0351
   4.3337E-02   4.4391E-02   5.2466E-04  0.0347
   4.4391E-02   4.5471E-02   5.0953E-04  0.0347
   4.5471E-02   4.6577E-02   5.0255E-04  0.0346
   4.6577E-02   4.7711E-02   5.2127E-04  0.0335
   4.7711E-02   4.8871E-02   4.8709E-04  0.0343
   4.8871E-02   5.0061E-02   4.8782E-04  0.0338
   5.0061E-02   5.1279E-02   4.5996E-04  0.0345
   5.1279E-02   5.2526E-02   4.7340E-04  0.0336
   5.2526E-02   5.3804E-02   4.4796E-04  0.0341
   5.3804E-02   5.5113E-02   4.3816E-04  0.0340
   5.5113E-02   5.6454E-02   4.2803E-04  0.0340
   5.6454E-02   5.7828E-02   4.2511E-04  0.0338
   5.7828E-02   5.9235E-02   4.1295E-04  0.0338
   5.9235E-02   6.0676E-02   4.1718E-04  0.0332
   6.0676E-02   6.2152E-02   3.8880E-04  0.0340
   6.2152E-02   6.3665E-02   4.1085E-04  0.0327
   6.3665E-02   6.5214E-02   3.8063E-04  0.0336
   6.5214E-02   6.6800E-02   3.7739E-04  0.0333
   6.6800E-02   6.8426E-02   3.6152E-04  0.0336
   6.8426E-02   7.0090E-02   3.6777E-04  0.0330
   7.0090E-02   7.1796E-02   3.3700E-04  0.0340
   7.1796E-02   7.3543E-02   3.3704E-04  0.0336
   7.3543E-02   7.5332E-02   3.1738E-04  0.0342
   7.5332E-02   7.7165E-02   3.4490E-04  0.0324
   7.7165E-02   7.9042E-02   3.4291E-04  0.0321
   7.9042E-02   8.0965E-02   3.0267E-04  0.0338
   8.0965E-02   8.2935E-02   3.0962E-04  0.0331
   8.2935E-02   8.4953E-02   3.0649E-04  0.0328
   8.4953E-02   8.7020E-02   3.0292E-04  0.0326
   8.7020E-02   8.9138E-02   3.0164E-04  0.0323
   8.9138E-02   9.1306E-02   2.7855E-04  0.0332
   9.1306E-02   9.3528E-02   2.7946E-04  0.0327
   9.3528E-02   9.5804E-02   2.7203E-04  0.0328
   9.5804E-02   9.8134E-02   2.5229E-04  0.0336
   9.8134E-02   1.0052E-01   2.5990E-04  0.0327
   1.0052E-01   1.0297E-01   2.5461E-04  0.0327
   1.0297E-01   1.0547E-01   2.5118E-04  0.0325
   1.0547E-01   1.0804E-01   2.4037E-04  0.0328
   1.0804E-01   1.1067E-01   2.2270E-04  0.0337
   1.1067E-01   1.1336E-01   2.2304E-04  0.0333
   1.1336E-01   1.1612E-01   2.2065E-04  0.0330
   1.1612E-01   1.1894E-01   2.1791E-04  0.0329
   1.1894E-01   1.2184E-01   2.2487E-04  0.0319
   1.2184E-01   1.2480E-01   2.1923E-04  0.0320
   1.2480E-01   1.2784E-01   1.9856E-04  0.0332
   1.2784E-01   1.3095E-01   2.0380E-04  0.0324
   1.3095E-01   1.3414E-01   1.8835E-04  0.0333
   1.3414E-01   1.3740E-01   1.9270E-04  0.0325
   1.3740E-01   1.4074E-01   1.8678E-04  0.0326
   1.4074E-01   1.4417E-01   1.8238E-04  0.0326
   1.4417E-01   1.4767E-01   1.7751E-04  0.0327
   1.4767E-01   1.5127E-01   1.6924E-04  0.0331
   1.5127E-01   1.5495E-01   1.6582E-04  0.0330
   1.5495E-01   1.5872E-01   1.6116E-04  0.0331
   1.5872E-01   1.6258E-01   1.4991E-04  0.0338
   1.6258E-01   1.6654E-01   1.4380E-04  0.0342
   1.6654E-01   1.7059E-01   1.5627E-04  0.0324
   1.7059E-01   1.7474E-01   1.5248E-04  0.0324
   1.7474E-01   1.7899E-01   1.3411E-04  0.0341
   1.7899E-01   1.8334E-01   1.3605E-04  0.0335
   1.8334E-01   1.8781E-01   1.3485E-04  0.0332
   1.8781E-01   1.9237E-01   1.2886E-04  0.0336
   1.9237E-01   1.9706E-01   1.2243E-04  0.0340
   1.9706E-01   2.0185E-01   1.1801E-04  0.0343
   2.0185E-01   2.0676E-01   1.2272E-04  0.0332
   2.0676E-01   2.1179E-01   1.2858E-04  0.0321
   2.1179E-01   2.1694E-01   1.3063E-04  0.0314
   2.1694E-01   2.2222E-01   1.2978E-04  0.0311
   2.2222E-01   2.2763E-01   1.3373E-04  0.0303
   2.2763E-01   2.3317E-01   1.3346E-04  0.0300
   2.3317E-01   2.3884E-01   1.4077E-04  0.0289
   2.3884E-01   2.4465E-01   1.3494E-04  0.0291
   2.4465E-01   2.5061E-01   1.3593E-04  0.0287
   2.5061E-01   2.5670E-01   1.4124E-04  0.0278
   2.5670E-01   2.6295E-01   1.4689E-04  0.0269
   2.6295E-01   2.6935E-01   1.4460E-04  0.0268
   2.6935E-01   2.7590E-01   1.4580E-04  0.0264
   2.7590E-01   2.8261E-01   1.5570E-04  0.0252
   2.8261E-01   2.8949E-01   1.5792E-04  0.0247
   2.8949E-01   2.9653E-01   1.5627E-04  0.0245
   2.9653E-01   3.0375E-01   1.5096E-04  0.0247
   3.0375E-01   3.1114E-01   1.5698E-04  0.0239
   3.1114E-01   3.1871E-01   1.5911E-04  0.0235
   3.1871E-01   3.2646E-01   1.6581E-04  0.0227
   3.2646E-01   3.3441E-01   1.5697E-04  0.0231
   3.3441E-01   3.4254E-01   1.6116E-04  0.0225
   3.4254E-01   3.5088E-01   1.5791E-04  0.0224
   3.5088E-01   3.5941E-01   1.5976E-04  0.0221
   3.5941E-01   3.6816E-01   1.6121E-04  0.0217
   3.6816E-01   3.7712E-01   1.6612E-04  0.0211
   3.7712E-01   3.8629E-01   1.5951E-04  0.0213
   3.8629E-01   3.9569E-01   1.6273E-04  0.0208
   3.9569E-01   4.0532E-01   1.5833E-04  0.0209
   4.0532E-01   4.1518E-01   1.6246E-04  0.0203
   4.1518E-01   4.2528E-01   1.5755E-04  0.0204
   4.2528E-01   4.3563E-01   1.5535E-04  0.0203
   4.3563E-01   4.4623E-01   1.5546E-04  0.0201
   4.4623E-01   4.5708E-01   1.5347E-04  0.0200
   4.5708E-01   4.6821E-01   1.4814E-04  0.0200
   4.6821E-01   4.7960E-01   1.4441E-04  0.0201
   4.7960E-01   4.9127E-01   1.4817E-04  0.0196
   4.9127E-01   5.0322E-01   1.4962E-04  0.0192
   5.0322E-01   5.1546E-01   1.4451E-04  0.0194
   5.1546E-01   5.2800E-01   1.4492E-04  0.0191
   5.2800E-01   5.4085E-01   1.4233E-04  0.0190
   5.4085E-01   5.5401E-01   1.3623E-04  0.0192
   5.5401E-01   5.6749E-01   1.4333E-04  0.0185
   5.6749E-01   5.8130E-01   1.4259E-04  0.0183
   5.8130E-01   5.9544E-01   1.3776E-04  0.0184
   5.9544E-01   6.0993E-01   1.3524E-04  0.0184
   6.0993E-01   6.2477E-01   1.3214E-04  0.0184
   6.2477E-01   6.3997E-01   1.2491E-04  0.0187
   6.3997E-01   6.5554E-01   1.2144E-04  0.0187
   6.5554E-01   6.7149E-01   1.1972E-04  0.0186
   6.7149E-01   6.8783E-01   1.2111E-04  0.0183
   6.8783E-01   7.0456E-01   1.1895E-04  0.0182
   7.0456E-01   7.2171E-01   1.1788E-04  0.0181
   7.2171E-01   7.3927E-01   1.1229E-04  0.0183
   7.3927E-01   7.5725E-01   1.1045E-04  0.0182
   7.5725E-01   7.7568E-01   1.0884E-04  0.0181
   7.7568E-01   7.9455E-01   1.0334E-04  0.0184
   7.9455E-01   8.1388E-01   9.9978E-05  0.0185
   8.1388E-01   8.3368E-01   9.9712E-05  0.0183
   8.3368E-01   8.5397E-01   9.8353E-05  0.0182
   8.5397E-01   8.7475E-01   1.0066E-04  0.0178
   8.7475E-01   8.9603E-01   9.3128E-05  0.0182
   8.9603E-01   9.1783E-01   9.3760E-05  0.0180
   9.1783E-01   9.4016E-01   9.0041E-05  0.0181
   9.4016E-01   9.6304E-01   8.8562E-05  0.0180
   9.6304E-01   9.8647E-01   8.7527E-05  0.0179
   9.8647E-01   1.0105E+00   8.4735E-05  0.0180
   1.0105E+00   1.0351E+00   8.4298E-05  0.0178
   1.0351E+00   1.0602E+00   8.1442E-05  0.0179
   1.0602E+00   1.0860E+00   8.1946E-05  0.0177
   1.0860E+00   1.1125E+00   7.8647E-05  0.0178
   1.1125E+00   1.1395E+00   7.6467E-05  0.0178
   1.1395E+00   1.1673E+00   7.3560E-05  0.0180
   1.1673E+00   1.1957E+00   7.2872E-05  0.0178
   1.1957E+00   1.2247E+00   7.0109E-05  0.0180
   1.2247E+00   1.2545E+00   7.0529E-05  0.0177
   1.2545E+00   1.2851E+00   6.9402E-05  0.0176
   1.2851E+00   1.3163E+00   6.7650E-05  0.0176
   1.3163E+00   1.3484E+00   6.5958E-05  0.0176
   1.3484E+00   1.3812E+00   6.3813E-05  0.0177
   1.3812E+00   1.4148E+00   6.4433E-05  0.0174
   1.4148E+00   1.4492E+00   6.3718E-05  0.0173
   1.4492E+00   1.4845E+00   6.1866E-05  0.0173
   1.4845E+00   1.5206E+00   6.0184E-05  0.0174
   1.5206E+00   1.5576E+00   5.6779E-05  0.0177
   1.5576E+00   1.5955E+00   5.5802E-05  0.0176
   1.5955E+00   1.6343E+00   5.6646E-05  0.0173
   1.6343E+00   1.6741E+00   5.4986E-05  0.0173
   1.6741E+00   1.7148E+00   5.4805E-05  0.0171
   1.7148E+00   1.7565E+00   5.0652E-05  0.0176
   1.7565E+00   1.7992E+00   5.3620E-05  0.0169
   1.7992E+00   1.8430E+00   5.1745E-05  0.0170
   1.8430E+00   1.8879E+00   5.0571E-05  0.0170
   1.8879E+00   1.9338E+00   4.9396E-05  0.0170
   1.9338E+00   1.9808E+00   4.7902E-05  0.0170
   1.9808E+00   2.0290E+00   4.8225E-05  0.0168
   2.0290E+00   2.0784E+00   4.6939E-05  0.0168
   2.0784E+00   2.1290E+00   4.5653E-05  0.0168
   2.1290E+00   2.1808E+00   4.6123E-05  0.0165
   2.1808E+00   2.2338E+00   4.6548E-05  0.0163
   2.2338E+00   2.2882E+00   4.3834E-05  0.0166
   2.2882E+00   2.3439E+00   4.3311E-05  0.0165
   2.3439E+00   2.4009E+00   4.2983E-05  0.0163
   2.4009E+00   2.4593E+00   4.3588E-05  0.0160
   2.4593E+00   2.5191E+00   4.1526E-05  0.0162
   2.5191E+00   2.5804E+00   4.2582E-05  0.0158
   2.5804E+00   2.6432E+00   4.2537E-05  0.0157
   2.6432E+00   2.7075E+00   4.0719E-05  0.0158
   2.7075E+00   2.7734E+00   4.1192E-05  0.0155
   2.7734E+00   2.8409E+00   3.9753E-05  0.0156
   2.8409E+00   2.9100E+00   3.9851E-05  0.0154
   2.9100E+00   2.9808E+00   3.8530E-05  0.0155
   2.9808E+00   3.0533E+00   3.9039E-05  0.0152
   3.0533E+00   3.1276E+00   3.7996E-05  0.0152
   3.1276E+00   3.2037E+00   3.7154E-05  0.0152
   3.2037E+00   3.2817E+00   3.6794E-05  0.0151
   3.2817E+00   3.3615E+00   3.6579E-05  0.0150
   3.3615E+00   3.4433E+00   3.5978E-05  0.0149
   3.4433E+00   3.5271E+00   3.6177E-05  0.0147
   3.5271E+00   3.6129E+00   3.3951E-05  0.0150
   3.6129E+00   3.7008E+00   3.3454E-05  0.0150
   3.7008E+00   3.7908E+00   3.3734E-05  0.0147
   3.7908E+00   3.8831E+00   3.2868E-05  0.0147
   3.8831E+00   3.9776E+00   3.2569E-05  0.0146
   3.9776E+00   4.0743E+00   3.2123E-05  0.0146
   4.0743E+00   4.1735E+00   3.0818E-05  0.0147
   4.1735E+00   4.2750E+00   3.1161E-05  0.0144
   4.2750E+00   4.3790E+00   2.9535E-05  0.0146
   4.3790E+00   4.4856E+00   2.9505E-05  0.0145
   4.4856E+00   4.5947E+00   2.8709E-05  0.0145
   4.5947E+00   4.7065E+00   2.7864E-05  0.0145
   4.7065E+00   4.8210E+00   2.6357E-05  0.0148
   4.8210E+00   4.9383E+00   2.6817E-05  0.0145
   4.9383E+00   5.0585E+00   2.5616E-05  0.0146
   5.0585E+00   5.1815E+00   2.3812E-05  0.0150
   5.1815E+00   5.3076E+00   2.3644E-05  0.0149
   5.3076E+00   5.4368E+00   2.2845E-05  0.0150
   5.4368E+00   5.5690E+00   2.2094E-05  0.0150
   5.5690E+00   5.7045E+00   2.2104E-05  0.0149
   5.7045E+00   5.8433E+00   2.1514E-05  0.0149
   5.8433E+00   5.9855E+00   2.0918E-05  0.0149
   5.9855E+00   6.1311E+00   2.0155E-05  0.0150
   6.1311E+00   6.2803E+00   1.9661E-05  0.0150
   6.2803E+00   6.4331E+00   1.9524E-05  0.0149
   6.4331E+00   6.5896E+00   1.8825E-05  0.0150
   6.5896E+00   6.7500E+00   1.8538E-05  0.0149
   6.7500E+00   6.9142E+00   1.7011E-05  0.0154
   6.9142E+00   7.0824E+00   1.7098E-05  0.0152
   7.0824E+00   7.2548E+00   1.6633E-05  0.0152
   7.2548E+00   7.4313E+00   1.6263E-05  0.0152
   7.4313E+00   7.6121E+00   1.5555E-05  0.0154
   7.6121E+00   7.7973E+00   1.5075E-05  0.0154
   7.7973E+00   7.9870E+00   1.4270E-05  0.0157
   7.9870E+00   8.1813E+00   1.3849E-05  0.0157
   8.1813E+00   8.3804E+00   1.3649E-05  0.0156
   8.3804E+00   8.5843E+00   1.3070E-05  0.0158
   8.5843E+00   8.7931E+00   1.2271E-05  0.0161
   8.7931E+00   9.0071E+00   1.1668E-05  0.0163
   9.0071E+00   9.2262E+00   1.1749E-05  0.0161
   9.2262E+00   9.4507E+00   1.1026E-05  0.0164
   9.4507E+00   9.6807E+00   1.0348E-05  0.0167
   9.6807E+00   9.9162E+00   9.8816E-06  0.0169
   9.9162E+00   1.0157E+01   9.4706E-06  0.0171
   1.0157E+01   1.0405E+01   9.6852E-06  0.0167
   1.0405E+01   1.0658E+01   9.7522E-06  0.0164
   1.0658E+01   1.0917E+01   9.4541E-06  0.0165
   1.0917E+01   1.1183E+01   9.4353E-06  0.0163
   1.1183E+01   1.1455E+01   8.7205E-06  0.0167
   1.1455E+01   1.1733E+01   7.8895E-06  0.0174
   1.1733E+01   1.2019E+01   7.4023E-06  0.0177
   1.2019E+01   1.2311E+01   7.0853E-06  0.0179
   1.2311E+01   1.2611E+01   6.5605E-06  0.0184
   1.2611E+01   1.2918E+01   5.9785E-06  0.0191
   1.2918E+01   1.3232E+01   5.7473E-06  0.0192
   1.3232E+01   1.3554E+01   5.3703E-06  0.0196
   1.3554E+01   1.3884E+01   4.9204E-06  0.0203
   1.3884E+01   1.4222E+01   4.7280E-06  0.0204
   1.4222E+01   1.4568E+01   4.3046E-06  0.0211
   1.4568E+01   1.4922E+01   3.8476E-06  0.0221
   1.4922E+01   1.5285E+01   3.4110E-06  0.0232
   1.5285E+01   1.5657E+01   3.2084E-06  0.0236
   1.5657E+01   1.6038E+01   2.8627E-06  0.0247
   1.6038E+01   1.6428E+01   2.4781E-06  0.0263
   1.6428E+01   1.6828E+01   2.2888E-06  0.0270
   1.6828E+01   1.7237E+01   2.0074E-06  0.0285
   1.7237E+01   1.7657E+01   1.8159E-06  0.0296
   1.7657E+01   1.8086E+01   1.6030E-06  0.0311
   1.8086E+01   1.8526E+01   1.4059E-06  0.0328
   1.8526E+01   1.8977E+01   1.1092E-06  0.0365
   1.8977E+01   1.9439E+01   1.0730E-06  0.0367
   1.9439E+01   1.9912E+01   9.7000E-07  0.0381
   1.9912E+01   2.0396E+01   7.3345E-07  0.0433
   2.0396E+01   2.0893E+01   6.7035E-07  0.0448
   2.0893E+01   2.1401E+01   5.7443E-07  0.0478
   2.1401E+01   2.1922E+01   5.3774E-07  0.0488
   2.1922E+01   2.2455E+01   4.6622E-07  0.0518
   2.2455E+01   2.3001E+01   3.9779E-07  0.0554
   2.3001E+01   2.3561E+01   3.3236E-07  0.0599
   2.3561E+01   2.4134E+01   2.9655E-07  0.0626
   2.4134E+01   2.4721E+01   2.3388E-07  0.0697
   2.4721E+01   2.5323E+01   2.0948E-07  0.0727
   2.5323E+01   2.5939E+01   2.2290E-07  0.0697
   2.5939E+01   2.6570E+01   1.7324E-07  0.0781
   2.6570E+01   2.7217E+01   1.4128E-07  0.0854
   2.7217E+01   2.7879E+01   1.0873E-07  0.0962
   2.7879E+01   2.8557E+01   1.1794E-07  0.0913
   2.8557E+01   2.9252E+01   8.9232E-08  0.1037
   2.9252E+01   2.9964E+01   8.0556E-08  0.1078
   2.9964E+01   3.0693E+01   8.3214E-08  0.1048
   3.0693E+01   3.1440E+01   7.2310E-08  0.1111
   3.1440E+01   3.2205E+01   5.8392E-08  0.1222
   3.2205E+01   3.2988E+01   5.5303E-08  0.1240
   3.2988E+01   3.3791E+01   4.3192E-08  0.1387
   3.3791E+01   3.4613E+01   4.7031E-08  0.1313
   3.4613E+01   3.5455E+01   3.1665E-08  0.1581
   3.5455E+01   3.6318E+01   2.5503E-08  0.1741
   3.6318E+01   3.7201E+01   1.1317E-08  0.2582
   3.7201E+01   3.8106E+01   1.3994E-08  0.2294
   3.8106E+01   3.9034E+01   1.2224E-08  0.2425
   3.9034E+01   3.9983E+01   8.4236E-09  0.2887
   3.9983E+01   4.0956E+01   4.1117E-09  0.4082
   4.0956E+01   4.1953E+01   2.6760E-09  0.5000
   4.1953E+01   4.2973E+01   0.0000E+00  0.0000
   4.2973E+01   4.4019E+01   0.0000E+00  0.0000
   4.4019E+01   4.5090E+01   0.0000E+00  0.0000
   4.5090E+01   4.6187E+01   0.0000E+00  0.0000
   4.6187E+01   4.7311E+01   0.0000E+00  0.0000
   4.7311E+01   4.8462E+01   0.0000E+00  0.0000
   4.8462E+01   4.9641E+01   0.0000E+00  0.0000
   4.9641E+01   5.0849E+01   0.0000E+00  0.0000
   5.0849E+01   5.2086E+01   0.0000E+00  0.0000
   5.2086E+01   5.3353E+01   0.0000E+00  0.0000
   5.3353E+01   5.4651E+01   0.0000E+00  0.0000
   5.4651E+01   5.5981E+01   0.0000E+00  0.0000
   5.5981E+01   5.7343E+01   0.0000E+00  0.0000
   5.7343E+01   5.8738E+01   0.0000E+00  0.0000
   5.8738E+01   6.0168E+01   0.0000E+00  0.0000
   6.0168E+01   6.1632E+01   0.0000E+00  0.0000
   6.1632E+01   6.3131E+01   0.0000E+00  0.0000
   6.3131E+01   6.4667E+01   0.0000E+00  0.0000
   6.4667E+01   6.6240E+01   0.0000E+00  0.0000
   6.6240E+01   6.7852E+01   0.0000E+00  0.0000
   6.7852E+01   6.9503E+01   0.0000E+00  0.0000
   6.9503E+01   7.1194E+01   0.0000E+00  0.0000
   7.1194E+01   7.2926E+01   0.0000E+00  0.0000
   7.2926E+01   7.4701E+01   0.0000E+00  0.0000
   7.4701E+01   7.6518E+01   0.0000E+00  0.0000
   7.6518E+01   7.8380E+01   0.0000E+00  0.0000
   7.8380E+01   8.0287E+01   0.0000E+00  0.0000
   8.0287E+01   8.2240E+01   0.0000E+00  0.0000
   8.2240E+01   8.4241E+01   0.0000E+00  0.0000
   8.4241E+01   8.6291E+01   0.0000E+00  0.0000
   8.6291E+01   8.8391E+01   0.0000E+00  0.0000
   8.8391E+01   9.0541E+01   0.0000E+00  0.0000
   9.0541E+01   9.2744E+01   0.0000E+00  0.0000
   9.2744E+01   9.5001E+01   0.0000E+00  0.0000
   9.5001E+01   9.7312E+01   0.0000E+00  0.0000
   9.7312E+01   9.9680E+01   0.0000E+00  0.0000
   9.9680E+01   1.0211E+02   0.0000E+00  0.0000
   1.0211E+02   1.0459E+02   0.0000E+00  0.0000
   1.0459E+02   1.0713E+02   0.0000E+00  0.0000
   1.0713E+02   1.0974E+02   0.0000E+00  0.0000
   1.0974E+02   1.1241E+02   0.0000E+00  0.0000
   1.1241E+02   1.1515E+02   0.0000E+00  0.0000
   1.1515E+02   1.1795E+02   0.0000E+00  0.0000
   1.1795E+02   1.2082E+02   0.0000E+00  0.0000
   1.2082E+02   1.2376E+02   0.0000E+00  0.0000
   1.2376E+02   1.2677E+02   0.0000E+00  0.0000
   1.2677E+02   1.2985E+02   0.0000E+00  0.0000
   1.2985E+02   1.3301E+02   0.0000E+00  0.0000
   1.3301E+02   1.3625E+02   0.0000E+00  0.0000
   1.3625E+02   1.3956E+02   0.0000E+00  0.0000
   1.3956E+02   1.4296E+02   0.0000E+00  0.0000
   1.4296E+02   1.4644E+02   0.0000E+00  0.0000
   1.4644E+02   1.5000E+02   0.0000E+00  0.0000

#   sum over                 3.0899E-06
'no. =    1   reg = 120 - 220'
msuc: {\huge [t-cross] in region mesh}
msdr: {\it plotted by \ANGEL \version}
msdl: {\it calculated by \PHITS  3.26}
wt: s(0.7)
\vspace{-3}
  region surface crossing
  area  &=&   1.0000E+00 [cm^2]
e:
 
# Information for Restart Calculation
# This calculation was newly started
# istdev =  2 # 1:Batch variance, 2:History variance
# resc2  = 1.50000000000000000E+09 # Total source weight or Total source weight / maxcas
# resc3  = 1.50000000000000000E+09 # Total history number or Total batch number
# maxcas =   500000000 # History / Batch, only used for istdev=1
# bitrseed = 0000010101110101110110100110011001100101000001100111100100101101 # bit data of rseed
