[ T-Cross ]
    title = [t-cross] in region mesh
     mesh =  reg            # mesh type is region-wise
      reg =    1            # number of crossing regions
      non     r-from    r-to       area
      1       105       205        1.000000    
   e-type =    3            # e-mesh is log given by emin, emax and ne
     emin =  1.0000000E-02  # minimum value of e-mesh points
     emax =   150.0000      # maximum value of e-mesh points
#    edel =  2.4039514E-02  # mesh width of e-mesh points
       ne =    400          # number of e-mesh points
#    data = ( e(i), i = 1, ne + 1 )
#           1.00000E-02  1.02433E-02  1.04925E-02  1.07478E-02  1.10093E-02
#           1.12772E-02  1.15516E-02  1.18326E-02  1.21205E-02  1.24154E-02
#           1.27175E-02  1.30269E-02  1.33439E-02  1.36686E-02  1.40011E-02
#           1.43418E-02  1.46907E-02  1.50482E-02  1.54143E-02  1.57894E-02
#           1.61735E-02  1.65670E-02  1.69701E-02  1.73830E-02  1.78060E-02
#           1.82392E-02  1.86830E-02  1.91375E-02  1.96032E-02  2.00801E-02
#           2.05687E-02  2.10692E-02  2.15818E-02  2.21069E-02  2.26448E-02
#           2.31957E-02  2.37601E-02  2.43382E-02  2.49304E-02  2.55369E-02
#           2.61583E-02  2.67947E-02  2.74467E-02  2.81145E-02  2.87985E-02
#           2.94992E-02  3.02169E-02  3.09521E-02  3.17052E-02  3.24766E-02
#           3.32668E-02  3.40762E-02  3.49053E-02  3.57546E-02  3.66246E-02
#           3.75157E-02  3.84284E-02  3.93634E-02  4.03212E-02  4.13022E-02
#           4.23071E-02  4.33365E-02  4.43909E-02  4.54710E-02  4.65773E-02
#           4.77106E-02  4.88714E-02  5.00605E-02  5.12785E-02  5.25262E-02
#           5.38042E-02  5.51133E-02  5.64542E-02  5.78278E-02  5.92348E-02
#           6.06760E-02  6.21523E-02  6.36645E-02  6.52135E-02  6.68002E-02
#           6.84255E-02  7.00904E-02  7.17957E-02  7.35426E-02  7.53319E-02
#           7.71648E-02  7.90423E-02  8.09655E-02  8.29354E-02  8.49533E-02
#           8.70203E-02  8.91376E-02  9.13064E-02  9.35279E-02  9.58035E-02
#           9.81345E-02  1.00522E-01  1.02968E-01  1.05473E-01  1.08040E-01
#           1.10668E-01  1.13361E-01  1.16119E-01  1.18944E-01  1.21838E-01
#           1.24803E-01  1.27839E-01  1.30950E-01  1.34136E-01  1.37399E-01
#           1.40742E-01  1.44167E-01  1.47675E-01  1.51268E-01  1.54948E-01
#           1.58718E-01  1.62580E-01  1.66535E-01  1.70587E-01  1.74738E-01
#           1.78989E-01  1.83344E-01  1.87805E-01  1.92375E-01  1.97055E-01
#           2.01850E-01  2.06761E-01  2.11792E-01  2.16945E-01  2.22223E-01
#           2.27630E-01  2.33169E-01  2.38842E-01  2.44653E-01  2.50605E-01
#           2.56703E-01  2.62949E-01  2.69346E-01  2.75900E-01  2.82613E-01
#           2.89489E-01  2.96532E-01  3.03747E-01  3.11138E-01  3.18708E-01
#           3.26462E-01  3.34405E-01  3.42542E-01  3.50876E-01  3.59413E-01
#           3.68158E-01  3.77116E-01  3.86291E-01  3.95690E-01  4.05317E-01
#           4.15179E-01  4.25281E-01  4.35628E-01  4.46227E-01  4.57084E-01
#           4.68205E-01  4.79597E-01  4.91266E-01  5.03219E-01  5.15463E-01
#           5.28005E-01  5.40851E-01  5.54011E-01  5.67490E-01  5.81298E-01
#           5.95441E-01  6.09929E-01  6.24769E-01  6.39970E-01  6.55541E-01
#           6.71491E-01  6.87828E-01  7.04564E-01  7.21706E-01  7.39266E-01
#           7.57253E-01  7.75678E-01  7.94551E-01  8.13883E-01  8.33685E-01
#           8.53969E-01  8.74747E-01  8.96030E-01  9.17831E-01  9.40163E-01
#           9.63038E-01  9.86469E-01  1.01047E+00  1.03506E+00  1.06024E+00
#           1.08604E+00  1.11246E+00  1.13953E+00  1.16725E+00  1.19565E+00
#           1.22474E+00  1.25454E+00  1.28507E+00  1.31633E+00  1.34836E+00
#           1.38117E+00  1.41477E+00  1.44920E+00  1.48446E+00  1.52057E+00
#           1.55757E+00  1.59547E+00  1.63429E+00  1.67405E+00  1.71478E+00
#           1.75650E+00  1.79924E+00  1.84302E+00  1.88786E+00  1.93379E+00
#           1.98084E+00  2.02904E+00  2.07841E+00  2.12898E+00  2.18078E+00
#           2.23384E+00  2.28819E+00  2.34386E+00  2.40089E+00  2.45930E+00
#           2.51914E+00  2.58043E+00  2.64322E+00  2.70753E+00  2.77341E+00
#           2.84088E+00  2.91001E+00  2.98081E+00  3.05333E+00  3.12762E+00
#           3.20372E+00  3.28167E+00  3.36152E+00  3.44330E+00  3.52708E+00
#           3.61290E+00  3.70080E+00  3.79085E+00  3.88308E+00  3.97756E+00
#           4.07434E+00  4.17347E+00  4.27501E+00  4.37903E+00  4.48557E+00
#           4.59471E+00  4.70650E+00  4.82102E+00  4.93832E+00  5.05847E+00
#           5.18155E+00  5.30762E+00  5.43676E+00  5.56904E+00  5.70453E+00
#           5.84333E+00  5.98550E+00  6.13114E+00  6.28031E+00  6.43312E+00
#           6.58964E+00  6.74997E+00  6.91420E+00  7.08243E+00  7.25475E+00
#           7.43126E+00  7.61207E+00  7.79728E+00  7.98700E+00  8.18133E+00
#           8.38038E+00  8.58428E+00  8.79315E+00  9.00709E+00  9.22624E+00
#           9.45072E+00  9.68067E+00  9.91620E+00  1.01575E+01  1.04046E+01
#           1.06578E+01  1.09171E+01  1.11827E+01  1.14548E+01  1.17335E+01
#           1.20190E+01  1.23114E+01  1.26109E+01  1.29178E+01  1.32321E+01
#           1.35540E+01  1.38838E+01  1.42216E+01  1.45676E+01  1.49221E+01
#           1.52851E+01  1.56570E+01  1.60380E+01  1.64282E+01  1.68279E+01
#           1.72374E+01  1.76568E+01  1.80864E+01  1.85264E+01  1.89772E+01
#           1.94389E+01  1.99119E+01  2.03963E+01  2.08926E+01  2.14009E+01
#           2.19216E+01  2.24550E+01  2.30014E+01  2.35610E+01  2.41343E+01
#           2.47215E+01  2.53230E+01  2.59391E+01  2.65702E+01  2.72167E+01
#           2.78789E+01  2.85572E+01  2.92520E+01  2.99637E+01  3.06928E+01
#           3.14396E+01  3.22045E+01  3.29881E+01  3.37907E+01  3.46128E+01
#           3.54550E+01  3.63177E+01  3.72013E+01  3.81064E+01  3.90336E+01
#           3.99833E+01  4.09561E+01  4.19526E+01  4.29734E+01  4.40189E+01
#           4.50900E+01  4.61870E+01  4.73108E+01  4.84619E+01  4.96410E+01
#           5.08488E+01  5.20860E+01  5.33533E+01  5.46514E+01  5.59812E+01
#           5.73432E+01  5.87384E+01  6.01676E+01  6.16315E+01  6.31311E+01
#           6.46671E+01  6.62405E+01  6.78522E+01  6.95031E+01  7.11941E+01
#           7.29263E+01  7.47007E+01  7.65182E+01  7.83800E+01  8.02870E+01
#           8.22405E+01  8.42414E+01  8.62911E+01  8.83906E+01  9.05412E+01
#           9.27442E+01  9.50007E+01  9.73122E+01  9.96799E+01  1.02105E+02
#           1.04589E+02  1.07134E+02  1.09741E+02  1.12411E+02  1.15146E+02
#           1.17948E+02  1.20817E+02  1.23757E+02  1.26768E+02  1.29852E+02
#           1.33012E+02  1.36248E+02  1.39563E+02  1.42959E+02  1.46437E+02
#           1.50000E+02
     unit =    2            # unit is [1/cm^2/(MeV/n)/source]
     axis =  eng            # axis of output
     file = detector-06.out  # file name of output for the above axis
   output = f-curr          # surface crossing forward current spectrum
     part =  neutron  
# kf/name :  2112     
#    used :        main (  %)        temp (  %)       total (  %)
#  memory :         414 (  0)           0 (  0)         414 (  0)

#------------------------------------------------------------------------------
#newpage:
#   no. =    1   reg = 105 - 205

x: Energy [MeV/n]
y:  F-Curr [1/cm^2/(MeV/n)/source]         
p: xlog ylog afac(0.8) form(0.9)
h: n            x            y(neutron ),hh0l   n 
#  e-lower      e-upper      neutron     r.err 
   1.0000E-02   1.0243E-02   8.3106E-04  0.0314
   1.0243E-02   1.0493E-02   8.4373E-04  0.0308
   1.0493E-02   1.0748E-02   8.2648E-04  0.0307
   1.0748E-02   1.1009E-02   7.6141E-04  0.0316
   1.1009E-02   1.1277E-02   7.9236E-04  0.0307
   1.1277E-02   1.1552E-02   8.0171E-04  0.0301
   1.1552E-02   1.1833E-02   7.8177E-04  0.0301
   1.1833E-02   1.2121E-02   7.1817E-04  0.0310
   1.2121E-02   1.2415E-02   7.1735E-04  0.0307
   1.2415E-02   1.2718E-02   6.9308E-04  0.0308
   1.2718E-02   1.3027E-02   6.8408E-04  0.0307
   1.3027E-02   1.3344E-02   7.0383E-04  0.0299
   1.3344E-02   1.3669E-02   7.2450E-04  0.0291
   1.3669E-02   1.4001E-02   6.6430E-04  0.0300
   1.4001E-02   1.4342E-02   6.4806E-04  0.0300
   1.4342E-02   1.4691E-02   6.1798E-04  0.0304
   1.4691E-02   1.5048E-02   6.3286E-04  0.0296
   1.5048E-02   1.5414E-02   6.0776E-04  0.0299
   1.5414E-02   1.5789E-02   5.9825E-04  0.0298
   1.5789E-02   1.6174E-02   5.6290E-04  0.0304
   1.6174E-02   1.6567E-02   6.2193E-04  0.0285
   1.6567E-02   1.6970E-02   5.7085E-04  0.0294
   1.6970E-02   1.7383E-02   5.5604E-04  0.0294
   1.7383E-02   1.7806E-02   5.2236E-04  0.0300
   1.7806E-02   1.8239E-02   5.4139E-04  0.0291
   1.8239E-02   1.8683E-02   5.2420E-04  0.0292
   1.8683E-02   1.9138E-02   4.9493E-04  0.0298
   1.9138E-02   1.9603E-02   5.1110E-04  0.0289
   1.9603E-02   2.0080E-02   4.9438E-04  0.0291
   2.0080E-02   2.0569E-02   4.7856E-04  0.0292
   2.0569E-02   2.1069E-02   4.5320E-04  0.0296
   2.1069E-02   2.1582E-02   4.6566E-04  0.0289
   2.1582E-02   2.2107E-02   4.6527E-04  0.0286
   2.2107E-02   2.2645E-02   4.6665E-04  0.0282
   2.2645E-02   2.3196E-02   4.4166E-04  0.0286
   2.3196E-02   2.3760E-02   4.1880E-04  0.0290
   2.3760E-02   2.4338E-02   4.3502E-04  0.0281
   2.4338E-02   2.4930E-02   4.1504E-04  0.0285
   2.4930E-02   2.5537E-02   3.9799E-04  0.0287
   2.5537E-02   2.6158E-02   4.0557E-04  0.0281
   2.6158E-02   2.6795E-02   3.8481E-04  0.0285
   2.6795E-02   2.7447E-02   3.6505E-04  0.0289
   2.7447E-02   2.8114E-02   3.6700E-04  0.0285
   2.8114E-02   2.8799E-02   3.7598E-04  0.0278
   2.8799E-02   2.9499E-02   3.6601E-04  0.0279
   2.9499E-02   3.0217E-02   3.6409E-04  0.0276
   3.0217E-02   3.0952E-02   3.4515E-04  0.0280
   3.0952E-02   3.1705E-02   3.5095E-04  0.0275
   3.1705E-02   3.2477E-02   3.3281E-04  0.0278
   3.2477E-02   3.3267E-02   3.1607E-04  0.0282
   3.3267E-02   3.4076E-02   3.1532E-04  0.0279
   3.4076E-02   3.4905E-02   3.2628E-04  0.0271
   3.4905E-02   3.5755E-02   2.9840E-04  0.0280
   3.5755E-02   3.6625E-02   3.0201E-04  0.0275
   3.6625E-02   3.7516E-02   2.9403E-04  0.0276
   3.7516E-02   3.8428E-02   3.0638E-04  0.0267
   3.8428E-02   3.9363E-02   2.7940E-04  0.0276
   3.9363E-02   4.0321E-02   2.8338E-04  0.0271
   4.0321E-02   4.1302E-02   2.8243E-04  0.0268
   4.1302E-02   4.2307E-02   2.7168E-04  0.0270
   4.2307E-02   4.3337E-02   2.7072E-04  0.0267
   4.3337E-02   4.4391E-02   2.7028E-04  0.0264
   4.4391E-02   4.5471E-02   2.6012E-04  0.0266
   4.5471E-02   4.6577E-02   2.4620E-04  0.0270
   4.6577E-02   4.7711E-02   2.5803E-04  0.0261
   4.7711E-02   4.8871E-02   2.3334E-04  0.0271
   4.8871E-02   5.0061E-02   2.2746E-04  0.0271
   5.0061E-02   5.1279E-02   2.4597E-04  0.0258
   5.1279E-02   5.2526E-02   2.2975E-04  0.0264
   5.2526E-02   5.3804E-02   2.3582E-04  0.0257
   5.3804E-02   5.5113E-02   2.1957E-04  0.0263
   5.5113E-02   5.6454E-02   2.2097E-04  0.0259
   5.6454E-02   5.7828E-02   2.2104E-04  0.0256
   5.7828E-02   5.9235E-02   2.0178E-04  0.0265
   5.9235E-02   6.0676E-02   2.0050E-04  0.0262
   6.0676E-02   6.2152E-02   1.9498E-04  0.0263
   6.2152E-02   6.3665E-02   1.9227E-04  0.0262
   6.3665E-02   6.5214E-02   1.9303E-04  0.0258
   6.5214E-02   6.6800E-02   1.8415E-04  0.0261
   6.6800E-02   6.8426E-02   1.7800E-04  0.0262
   6.8426E-02   7.0090E-02   1.8261E-04  0.0256
   7.0090E-02   7.1796E-02   1.7732E-04  0.0257
   7.1796E-02   7.3543E-02   1.7078E-04  0.0258
   7.3543E-02   7.5332E-02   1.6670E-04  0.0259
   7.5332E-02   7.7165E-02   1.6912E-04  0.0254
   7.7165E-02   7.9042E-02   1.6709E-04  0.0252
   7.9042E-02   8.0965E-02   1.6439E-04  0.0251
   8.0965E-02   8.2935E-02   1.5970E-04  0.0252
   8.2935E-02   8.4953E-02   1.5391E-04  0.0253
   8.4953E-02   8.7020E-02   1.5133E-04  0.0252
   8.7020E-02   8.9138E-02   1.4183E-04  0.0258
   8.9138E-02   9.1306E-02   1.3813E-04  0.0258
   9.1306E-02   9.3528E-02   1.4202E-04  0.0251
   9.3528E-02   9.5804E-02   1.4315E-04  0.0247
   9.5804E-02   9.8134E-02   1.4178E-04  0.0246
   9.8134E-02   1.0052E-01   1.3522E-04  0.0248
   1.0052E-01   1.0297E-01   1.3745E-04  0.0243
   1.0297E-01   1.0547E-01   1.2747E-04  0.0250
   1.0547E-01   1.0804E-01   1.2571E-04  0.0248
   1.0804E-01   1.1067E-01   1.2523E-04  0.0246
   1.1067E-01   1.1336E-01   1.1732E-04  0.0251
   1.1336E-01   1.1612E-01   1.1653E-04  0.0249
   1.1612E-01   1.1894E-01   1.1818E-04  0.0244
   1.1894E-01   1.2184E-01   1.1487E-04  0.0245
   1.2184E-01   1.2480E-01   1.1041E-04  0.0247
   1.2480E-01   1.2784E-01   1.1079E-04  0.0243
   1.2784E-01   1.3095E-01   1.0564E-04  0.0246
   1.3095E-01   1.3414E-01   1.0355E-04  0.0246
   1.3414E-01   1.3740E-01   1.0256E-04  0.0244
   1.3740E-01   1.4074E-01   9.6584E-05  0.0248
   1.4074E-01   1.4417E-01   9.7877E-05  0.0244
   1.4417E-01   1.4767E-01   9.5269E-05  0.0244
   1.4767E-01   1.5127E-01   9.6440E-05  0.0240
   1.5127E-01   1.5495E-01   9.0904E-05  0.0244
   1.5495E-01   1.5872E-01   8.7237E-05  0.0246
   1.5872E-01   1.6258E-01   8.4603E-05  0.0247
   1.6258E-01   1.6654E-01   8.8079E-05  0.0239
   1.6654E-01   1.7059E-01   8.6536E-05  0.0238
   1.7059E-01   1.7474E-01   8.1598E-05  0.0242
   1.7474E-01   1.7899E-01   7.9361E-05  0.0243
   1.7899E-01   1.8334E-01   7.9357E-05  0.0240
   1.8334E-01   1.8781E-01   7.7281E-05  0.0240
   1.8781E-01   1.9237E-01   7.8706E-05  0.0235
   1.9237E-01   1.9706E-01   7.1733E-05  0.0244
   1.9706E-01   2.0185E-01   7.4146E-05  0.0237
   2.0185E-01   2.0676E-01   7.6063E-05  0.0231
   2.0676E-01   2.1179E-01   7.3820E-05  0.0232
   2.1179E-01   2.1694E-01   7.4706E-05  0.0228
   2.1694E-01   2.2222E-01   8.0689E-05  0.0216
   2.2222E-01   2.2763E-01   8.4843E-05  0.0208
   2.2763E-01   2.3317E-01   8.4576E-05  0.0206
   2.3317E-01   2.3884E-01   8.6946E-05  0.0201
   2.3884E-01   2.4465E-01   8.9733E-05  0.0195
   2.4465E-01   2.5061E-01   9.2611E-05  0.0190
   2.5061E-01   2.5670E-01   9.3694E-05  0.0187
   2.5670E-01   2.6295E-01   9.8021E-05  0.0180
   2.6295E-01   2.6935E-01   9.8819E-05  0.0177
   2.6935E-01   2.7590E-01   9.8007E-05  0.0176
   2.7590E-01   2.8261E-01   1.0501E-04  0.0168
   2.8261E-01   2.8949E-01   1.0768E-04  0.0164
   2.8949E-01   2.9653E-01   1.0684E-04  0.0163
   2.9653E-01   3.0375E-01   1.1366E-04  0.0156
   3.0375E-01   3.1114E-01   1.1684E-04  0.0152
   3.1114E-01   3.1871E-01   1.1821E-04  0.0149
   3.1871E-01   3.2646E-01   1.1916E-04  0.0147
   3.2646E-01   3.3441E-01   1.2227E-04  0.0143
   3.3441E-01   3.4254E-01   1.2305E-04  0.0141
   3.4254E-01   3.5088E-01   1.2901E-04  0.0136
   3.5088E-01   3.5941E-01   1.3025E-04  0.0134
   3.5941E-01   3.6816E-01   1.3239E-04  0.0131
   3.6816E-01   3.7712E-01   1.3504E-04  0.0128
   3.7712E-01   3.8629E-01   1.3469E-04  0.0127
   3.8629E-01   3.9569E-01   1.3907E-04  0.0123
   3.9569E-01   4.0532E-01   1.4008E-04  0.0122
   4.0532E-01   4.1518E-01   1.4604E-04  0.0118
   4.1518E-01   4.2528E-01   1.4817E-04  0.0115
   4.2528E-01   4.3563E-01   1.4937E-04  0.0113
   4.3563E-01   4.4623E-01   1.5266E-04  0.0111
   4.4623E-01   4.5708E-01   1.5614E-04  0.0108
   4.5708E-01   4.6821E-01   1.5619E-04  0.0107
   4.6821E-01   4.7960E-01   1.6311E-04  0.0104
   4.7960E-01   4.9127E-01   1.6587E-04  0.0101
   4.9127E-01   5.0322E-01   1.6702E-04  0.0100
   5.0322E-01   5.1546E-01   1.6709E-04  0.0099
   5.1546E-01   5.2800E-01   1.7362E-04  0.0096
   5.2800E-01   5.4085E-01   1.7448E-04  0.0094
   5.4085E-01   5.5401E-01   1.7612E-04  0.0093
   5.5401E-01   5.6749E-01   1.8102E-04  0.0090
   5.6749E-01   5.8130E-01   1.8374E-04  0.0089
   5.8130E-01   5.9544E-01   1.8520E-04  0.0087
   5.9544E-01   6.0993E-01   1.8909E-04  0.0085
   6.0993E-01   6.2477E-01   1.8837E-04  0.0084
   6.2477E-01   6.3997E-01   1.9346E-04  0.0082
   6.3997E-01   6.5554E-01   1.9642E-04  0.0081
   6.5554E-01   6.7149E-01   1.9850E-04  0.0079
   6.7149E-01   6.8783E-01   2.0044E-04  0.0078
   6.8783E-01   7.0456E-01   2.0537E-04  0.0076
   7.0456E-01   7.2171E-01   2.0972E-04  0.0074
   7.2171E-01   7.3927E-01   2.0763E-04  0.0074
   7.3927E-01   7.5725E-01   2.1129E-04  0.0072
   7.5725E-01   7.7568E-01   2.1317E-04  0.0071
   7.7568E-01   7.9455E-01   2.1437E-04  0.0070
   7.9455E-01   8.1388E-01   2.1983E-04  0.0068
   8.1388E-01   8.3368E-01   2.1959E-04  0.0068
   8.3368E-01   8.5397E-01   2.2134E-04  0.0067
   8.5397E-01   8.7475E-01   2.2415E-04  0.0065
   8.7475E-01   8.9603E-01   2.2354E-04  0.0065
   8.9603E-01   9.1783E-01   2.2544E-04  0.0064
   9.1783E-01   9.4016E-01   2.2858E-04  0.0062
   9.4016E-01   9.6304E-01   2.3179E-04  0.0061
   9.6304E-01   9.8647E-01   2.3199E-04  0.0061
   9.8647E-01   1.0105E+00   2.3200E-04  0.0060
   1.0105E+00   1.0351E+00   2.3509E-04  0.0059
   1.0351E+00   1.0602E+00   2.3259E-04  0.0058
   1.0602E+00   1.0860E+00   2.3203E-04  0.0058
   1.0860E+00   1.1125E+00   2.3503E-04  0.0057
   1.1125E+00   1.1395E+00   2.3337E-04  0.0056
   1.1395E+00   1.1673E+00   2.3407E-04  0.0055
   1.1673E+00   1.1957E+00   2.3260E-04  0.0055
   1.1957E+00   1.2247E+00   2.3747E-04  0.0054
   1.2247E+00   1.2545E+00   2.3895E-04  0.0053
   1.2545E+00   1.2851E+00   2.3536E-04  0.0053
   1.2851E+00   1.3163E+00   2.3331E-04  0.0052
   1.3163E+00   1.3484E+00   2.3411E-04  0.0052
   1.3484E+00   1.3812E+00   2.3202E-04  0.0051
   1.3812E+00   1.4148E+00   2.3249E-04  0.0050
   1.4148E+00   1.4492E+00   2.3058E-04  0.0050
   1.4492E+00   1.4845E+00   2.3212E-04  0.0049
   1.4845E+00   1.5206E+00   2.3021E-04  0.0049
   1.5206E+00   1.5576E+00   2.2998E-04  0.0048
   1.5576E+00   1.5955E+00   2.2642E-04  0.0048
   1.5955E+00   1.6343E+00   2.2628E-04  0.0048
   1.6343E+00   1.6741E+00   2.2208E-04  0.0047
   1.6741E+00   1.7148E+00   2.2019E-04  0.0047
   1.7148E+00   1.7565E+00   2.1890E-04  0.0047
   1.7565E+00   1.7992E+00   2.1625E-04  0.0046
   1.7992E+00   1.8430E+00   2.1768E-04  0.0046
   1.8430E+00   1.8879E+00   2.1442E-04  0.0045
   1.8879E+00   1.9338E+00   2.0983E-04  0.0045
   1.9338E+00   1.9808E+00   2.1078E-04  0.0045
   1.9808E+00   2.0290E+00   2.0796E-04  0.0045
   2.0290E+00   2.0784E+00   2.0590E-04  0.0044
   2.0784E+00   2.1290E+00   2.0211E-04  0.0044
   2.1290E+00   2.1808E+00   2.0104E-04  0.0044
   2.1808E+00   2.2338E+00   1.9668E-04  0.0044
   2.2338E+00   2.2882E+00   1.9297E-04  0.0044
   2.2882E+00   2.3439E+00   1.9225E-04  0.0043
   2.3439E+00   2.4009E+00   1.9055E-04  0.0043
   2.4009E+00   2.4593E+00   1.8711E-04  0.0043
   2.4593E+00   2.5191E+00   1.8604E-04  0.0042
   2.5191E+00   2.5804E+00   1.8119E-04  0.0042
   2.5804E+00   2.6432E+00   1.7878E-04  0.0042
   2.6432E+00   2.7075E+00   1.7560E-04  0.0042
   2.7075E+00   2.7734E+00   1.7490E-04  0.0042
   2.7734E+00   2.8409E+00   1.7069E-04  0.0042
   2.8409E+00   2.9100E+00   1.6744E-04  0.0041
   2.9100E+00   2.9808E+00   1.6577E-04  0.0041
   2.9808E+00   3.0533E+00   1.6344E-04  0.0041
   3.0533E+00   3.1276E+00   1.6110E-04  0.0041
   3.1276E+00   3.2037E+00   1.5895E-04  0.0040
   3.2037E+00   3.2817E+00   1.5492E-04  0.0041
   3.2817E+00   3.3615E+00   1.5192E-04  0.0040
   3.3615E+00   3.4433E+00   1.4942E-04  0.0040
   3.4433E+00   3.5271E+00   1.4749E-04  0.0040
   3.5271E+00   3.6129E+00   1.4486E-04  0.0040
   3.6129E+00   3.7008E+00   1.4273E-04  0.0040
   3.7008E+00   3.7908E+00   1.4071E-04  0.0040
   3.7908E+00   3.8831E+00   1.3779E-04  0.0039
   3.8831E+00   3.9776E+00   1.3476E-04  0.0039
   3.9776E+00   4.0743E+00   1.3344E-04  0.0039
   4.0743E+00   4.1735E+00   1.3197E-04  0.0039
   4.1735E+00   4.2750E+00   1.2903E-04  0.0039
   4.2750E+00   4.3790E+00   1.2672E-04  0.0039
   4.3790E+00   4.4856E+00   1.2604E-04  0.0038
   4.4856E+00   4.5947E+00   1.2357E-04  0.0038
   4.5947E+00   4.7065E+00   1.2315E-04  0.0038
   4.7065E+00   4.8210E+00   1.2442E-04  0.0037
   4.8210E+00   4.9383E+00   1.2333E-04  0.0037
   4.9383E+00   5.0585E+00   1.2084E-04  0.0037
   5.0585E+00   5.1815E+00   1.2095E-04  0.0037
   5.1815E+00   5.3076E+00   1.1867E-04  0.0036
   5.3076E+00   5.4368E+00   1.1700E-04  0.0036
   5.4368E+00   5.5690E+00   1.1535E-04  0.0036
   5.5690E+00   5.7045E+00   1.1367E-04  0.0036
   5.7045E+00   5.8433E+00   1.1177E-04  0.0036
   5.8433E+00   5.9855E+00   1.0907E-04  0.0036
   5.9855E+00   6.1311E+00   1.0855E-04  0.0035
   6.1311E+00   6.2803E+00   1.0621E-04  0.0035
   6.2803E+00   6.4331E+00   1.0516E-04  0.0035
   6.4331E+00   6.5896E+00   1.0338E-04  0.0035
   6.5896E+00   6.7500E+00   1.0206E-04  0.0035
   6.7500E+00   6.9142E+00   1.0087E-04  0.0035
   6.9142E+00   7.0824E+00   1.0003E-04  0.0034
   7.0824E+00   7.2548E+00   9.9168E-05  0.0034
   7.2548E+00   7.4313E+00   9.7777E-05  0.0034
   7.4313E+00   7.6121E+00   9.6829E-05  0.0034
   7.6121E+00   7.7973E+00   9.5274E-05  0.0034
   7.7973E+00   7.9870E+00   9.3582E-05  0.0033
   7.9870E+00   8.1813E+00   9.3228E-05  0.0033
   8.1813E+00   8.3804E+00   9.2093E-05  0.0033
   8.3804E+00   8.5843E+00   9.0344E-05  0.0033
   8.5843E+00   8.7931E+00   8.9908E-05  0.0033
   8.7931E+00   9.0071E+00   8.8618E-05  0.0032
   9.0071E+00   9.2262E+00   8.7305E-05  0.0032
   9.2262E+00   9.4507E+00   8.6441E-05  0.0032
   9.4507E+00   9.6807E+00   8.6328E-05  0.0032
   9.6807E+00   9.9162E+00   8.5582E-05  0.0031
   9.9162E+00   1.0157E+01   8.4852E-05  0.0031
   1.0157E+01   1.0405E+01   8.4156E-05  0.0031
   1.0405E+01   1.0658E+01   8.3586E-05  0.0031
   1.0658E+01   1.0917E+01   8.3460E-05  0.0030
   1.0917E+01   1.1183E+01   8.3299E-05  0.0030
   1.1183E+01   1.1455E+01   8.2843E-05  0.0030
   1.1455E+01   1.1733E+01   8.1870E-05  0.0030
   1.1733E+01   1.2019E+01   8.1797E-05  0.0029
   1.2019E+01   1.2311E+01   8.1165E-05  0.0029
   1.2311E+01   1.2611E+01   8.1120E-05  0.0029
   1.2611E+01   1.2918E+01   8.0568E-05  0.0028
   1.2918E+01   1.3232E+01   7.9965E-05  0.0028
   1.3232E+01   1.3554E+01   7.9829E-05  0.0028
   1.3554E+01   1.3884E+01   7.9837E-05  0.0028
   1.3884E+01   1.4222E+01   7.9331E-05  0.0027
   1.4222E+01   1.4568E+01   7.9522E-05  0.0027
   1.4568E+01   1.4922E+01   7.9391E-05  0.0027
   1.4922E+01   1.5285E+01   7.9342E-05  0.0026
   1.5285E+01   1.5657E+01   7.8842E-05  0.0026
   1.5657E+01   1.6038E+01   7.9349E-05  0.0026
   1.6038E+01   1.6428E+01   7.9262E-05  0.0025
   1.6428E+01   1.6828E+01   7.9945E-05  0.0025
   1.6828E+01   1.7237E+01   8.0157E-05  0.0025
   1.7237E+01   1.7657E+01   8.0620E-05  0.0024
   1.7657E+01   1.8086E+01   8.0442E-05  0.0024
   1.8086E+01   1.8526E+01   8.1664E-05  0.0024
   1.8526E+01   1.8977E+01   8.2511E-05  0.0023
   1.8977E+01   1.9439E+01   8.3783E-05  0.0023
   1.9439E+01   1.9912E+01   8.5313E-05  0.0022
   1.9912E+01   2.0396E+01   8.7151E-05  0.0022
   2.0396E+01   2.0893E+01   8.8415E-05  0.0021
   2.0893E+01   2.1401E+01   8.9579E-05  0.0021
   2.1401E+01   2.1922E+01   9.1378E-05  0.0021
   2.1922E+01   2.2455E+01   9.2418E-05  0.0020
   2.2455E+01   2.3001E+01   9.3623E-05  0.0020
   2.3001E+01   2.3561E+01   9.5469E-05  0.0019
   2.3561E+01   2.4134E+01   9.6690E-05  0.0019
   2.4134E+01   2.4721E+01   9.8447E-05  0.0019
   2.4721E+01   2.5323E+01   1.0046E-04  0.0018
   2.5323E+01   2.5939E+01   1.0300E-04  0.0018
   2.5939E+01   2.6570E+01   1.0488E-04  0.0017
   2.6570E+01   2.7217E+01   1.0694E-04  0.0017
   2.7217E+01   2.7879E+01   1.0974E-04  0.0017
   2.7879E+01   2.8557E+01   1.1224E-04  0.0016
   2.8557E+01   2.9252E+01   1.1541E-04  0.0016
   2.9252E+01   2.9964E+01   1.1827E-04  0.0015
   2.9964E+01   3.0693E+01   1.2118E-04  0.0015
   3.0693E+01   3.1440E+01   1.2448E-04  0.0015
   3.1440E+01   3.2205E+01   1.2811E-04  0.0014
   3.2205E+01   3.2988E+01   1.3171E-04  0.0014
   3.2988E+01   3.3791E+01   1.3531E-04  0.0014
   3.3791E+01   3.4613E+01   1.3921E-04  0.0013
   3.4613E+01   3.5455E+01   1.4306E-04  0.0013
   3.5455E+01   3.6318E+01   1.4710E-04  0.0013
   3.6318E+01   3.7201E+01   1.5142E-04  0.0012
   3.7201E+01   3.8106E+01   1.5543E-04  0.0012
   3.8106E+01   3.9034E+01   1.5927E-04  0.0012
   3.9034E+01   3.9983E+01   1.6330E-04  0.0011
   3.9983E+01   4.0956E+01   1.6732E-04  0.0011
   4.0956E+01   4.1953E+01   1.7124E-04  0.0011
   4.1953E+01   4.2973E+01   1.7400E-04  0.0011
   4.2973E+01   4.4019E+01   1.7690E-04  0.0010
   4.4019E+01   4.5090E+01   1.7946E-04  0.0010
   4.5090E+01   4.6187E+01   1.8110E-04  0.0010
   4.6187E+01   4.7311E+01   1.8254E-04  0.0010
   4.7311E+01   4.8462E+01   1.8265E-04  0.0010
   4.8462E+01   4.9641E+01   1.8217E-04  0.0010
   4.9641E+01   5.0849E+01   1.8064E-04  0.0010
   5.0849E+01   5.2086E+01   1.7835E-04  0.0010
   5.2086E+01   5.3353E+01   1.7490E-04  0.0009
   5.3353E+01   5.4651E+01   1.7055E-04  0.0010
   5.4651E+01   5.5981E+01   1.6526E-04  0.0010
   5.5981E+01   5.7343E+01   1.5937E-04  0.0010
   5.7343E+01   5.8738E+01   1.5280E-04  0.0010
   5.8738E+01   6.0168E+01   1.4539E-04  0.0010
   6.0168E+01   6.1632E+01   1.3732E-04  0.0010
   6.1632E+01   6.3131E+01   1.2941E-04  0.0010
   6.3131E+01   6.4667E+01   1.2057E-04  0.0010
   6.4667E+01   6.6240E+01   1.1235E-04  0.0011
   6.6240E+01   6.7852E+01   1.0365E-04  0.0011
   6.7852E+01   6.9503E+01   9.5135E-05  0.0011
   6.9503E+01   7.1194E+01   8.6852E-05  0.0012
   7.1194E+01   7.2926E+01   7.8986E-05  0.0012
   7.2926E+01   7.4701E+01   7.1294E-05  0.0013
   7.4701E+01   7.6518E+01   6.4221E-05  0.0013
   7.6518E+01   7.8380E+01   5.7510E-05  0.0014
   7.8380E+01   8.0287E+01   5.1093E-05  0.0014
   8.0287E+01   8.2240E+01   4.5370E-05  0.0015
   8.2240E+01   8.4241E+01   3.9901E-05  0.0016
   8.4241E+01   8.6291E+01   3.4884E-05  0.0017
   8.6291E+01   8.8391E+01   3.0798E-05  0.0018
   8.8391E+01   9.0541E+01   2.7343E-05  0.0018
   9.0541E+01   9.2744E+01   2.4404E-05  0.0019
   9.2744E+01   9.5001E+01   2.1754E-05  0.0020
   9.5001E+01   9.7312E+01   1.9214E-05  0.0021
   9.7312E+01   9.9680E+01   1.6783E-05  0.0022
   9.9680E+01   1.0211E+02   1.5458E-05  0.0023
   1.0211E+02   1.0459E+02   1.5338E-05  0.0023
   1.0459E+02   1.0713E+02   1.4704E-05  0.0023
   1.0713E+02   1.0974E+02   1.3259E-05  0.0024
   1.0974E+02   1.1241E+02   1.1463E-05  0.0026
   1.1241E+02   1.1515E+02   9.2321E-06  0.0028
   1.1515E+02   1.1795E+02   7.4814E-06  0.0031
   1.1795E+02   1.2082E+02   6.1074E-06  0.0034
   1.2082E+02   1.2376E+02   5.0170E-06  0.0037
   1.2376E+02   1.2677E+02   2.8868E-06  0.0048
   1.2677E+02   1.2985E+02   7.6651E-07  0.0092
   1.2985E+02   1.3301E+02   1.2787E-08  0.0704
   1.3301E+02   1.3625E+02   0.0000E+00  0.0000
   1.3625E+02   1.3956E+02   0.0000E+00  0.0000
   1.3956E+02   1.4296E+02   0.0000E+00  0.0000
   1.4296E+02   1.4644E+02   0.0000E+00  0.0000
   1.4644E+02   1.5000E+02   0.0000E+00  0.0000

#   sum over                 7.1301E-05
'no. =    1   reg = 105 - 205'
msuc: {\huge [t-cross] in region mesh}
msdr: {\it plotted by \ANGEL \version}
msdl: {\it calculated by \PHITS  3.28}
wt: s(0.7)
\vspace{-3}
  region surface crossing
  area  &=&   1.0000E+00 [cm^2]
e:
 
# Information for Restart Calculation
# This calculation was newly started
# istdev =  2 # 1:Batch variance, 2:History variance
# resc2  = 5.00000000000000000E+09 # Total source weight or Total source weight / maxcas
# resc3  = 5.00000000000000000E+09 # Total history number or Total batch number
# maxcas =   500000000 # History / Batch, only used for istdev=1
# bitrseed = 0001101011110000011001100100101010101011111110100001111101011101 # bit data of rseed
