[ T-Cross ]
    title = [t-cross] in region mesh
     mesh =  reg            # mesh type is region-wise
      reg =    1            # number of crossing regions
      non     r-from    r-to       area
      1       100       200        1.000000    
   e-type =    3            # e-mesh is log given by emin, emax and ne
     emin =  1.0000000E-02  # minimum value of e-mesh points
     emax =   150.0000      # maximum value of e-mesh points
#    edel =  2.4039514E-02  # mesh width of e-mesh points
       ne =    400          # number of e-mesh points
#    data = ( e(i), i = 1, ne + 1 )
#           1.00000E-02  1.02433E-02  1.04925E-02  1.07478E-02  1.10093E-02
#           1.12772E-02  1.15516E-02  1.18326E-02  1.21205E-02  1.24154E-02
#           1.27175E-02  1.30269E-02  1.33439E-02  1.36686E-02  1.40011E-02
#           1.43418E-02  1.46907E-02  1.50482E-02  1.54143E-02  1.57894E-02
#           1.61735E-02  1.65670E-02  1.69701E-02  1.73830E-02  1.78060E-02
#           1.82392E-02  1.86830E-02  1.91375E-02  1.96032E-02  2.00801E-02
#           2.05687E-02  2.10692E-02  2.15818E-02  2.21069E-02  2.26448E-02
#           2.31957E-02  2.37601E-02  2.43382E-02  2.49304E-02  2.55369E-02
#           2.61583E-02  2.67947E-02  2.74467E-02  2.81145E-02  2.87985E-02
#           2.94992E-02  3.02169E-02  3.09521E-02  3.17052E-02  3.24766E-02
#           3.32668E-02  3.40762E-02  3.49053E-02  3.57546E-02  3.66246E-02
#           3.75157E-02  3.84284E-02  3.93634E-02  4.03212E-02  4.13022E-02
#           4.23071E-02  4.33365E-02  4.43909E-02  4.54710E-02  4.65773E-02
#           4.77106E-02  4.88714E-02  5.00605E-02  5.12785E-02  5.25262E-02
#           5.38042E-02  5.51133E-02  5.64542E-02  5.78278E-02  5.92348E-02
#           6.06760E-02  6.21523E-02  6.36645E-02  6.52135E-02  6.68002E-02
#           6.84255E-02  7.00904E-02  7.17957E-02  7.35426E-02  7.53319E-02
#           7.71648E-02  7.90423E-02  8.09655E-02  8.29354E-02  8.49533E-02
#           8.70203E-02  8.91376E-02  9.13064E-02  9.35279E-02  9.58035E-02
#           9.81345E-02  1.00522E-01  1.02968E-01  1.05473E-01  1.08040E-01
#           1.10668E-01  1.13361E-01  1.16119E-01  1.18944E-01  1.21838E-01
#           1.24803E-01  1.27839E-01  1.30950E-01  1.34136E-01  1.37399E-01
#           1.40742E-01  1.44167E-01  1.47675E-01  1.51268E-01  1.54948E-01
#           1.58718E-01  1.62580E-01  1.66535E-01  1.70587E-01  1.74738E-01
#           1.78989E-01  1.83344E-01  1.87805E-01  1.92375E-01  1.97055E-01
#           2.01850E-01  2.06761E-01  2.11792E-01  2.16945E-01  2.22223E-01
#           2.27630E-01  2.33169E-01  2.38842E-01  2.44653E-01  2.50605E-01
#           2.56703E-01  2.62949E-01  2.69346E-01  2.75900E-01  2.82613E-01
#           2.89489E-01  2.96532E-01  3.03747E-01  3.11138E-01  3.18708E-01
#           3.26462E-01  3.34405E-01  3.42542E-01  3.50876E-01  3.59413E-01
#           3.68158E-01  3.77116E-01  3.86291E-01  3.95690E-01  4.05317E-01
#           4.15179E-01  4.25281E-01  4.35628E-01  4.46227E-01  4.57084E-01
#           4.68205E-01  4.79597E-01  4.91266E-01  5.03219E-01  5.15463E-01
#           5.28005E-01  5.40851E-01  5.54011E-01  5.67490E-01  5.81298E-01
#           5.95441E-01  6.09929E-01  6.24769E-01  6.39970E-01  6.55541E-01
#           6.71491E-01  6.87828E-01  7.04564E-01  7.21706E-01  7.39266E-01
#           7.57253E-01  7.75678E-01  7.94551E-01  8.13883E-01  8.33685E-01
#           8.53969E-01  8.74747E-01  8.96030E-01  9.17831E-01  9.40163E-01
#           9.63038E-01  9.86469E-01  1.01047E+00  1.03506E+00  1.06024E+00
#           1.08604E+00  1.11246E+00  1.13953E+00  1.16725E+00  1.19565E+00
#           1.22474E+00  1.25454E+00  1.28507E+00  1.31633E+00  1.34836E+00
#           1.38117E+00  1.41477E+00  1.44920E+00  1.48446E+00  1.52057E+00
#           1.55757E+00  1.59547E+00  1.63429E+00  1.67405E+00  1.71478E+00
#           1.75650E+00  1.79924E+00  1.84302E+00  1.88786E+00  1.93379E+00
#           1.98084E+00  2.02904E+00  2.07841E+00  2.12898E+00  2.18078E+00
#           2.23384E+00  2.28819E+00  2.34386E+00  2.40089E+00  2.45930E+00
#           2.51914E+00  2.58043E+00  2.64322E+00  2.70753E+00  2.77341E+00
#           2.84088E+00  2.91001E+00  2.98081E+00  3.05333E+00  3.12762E+00
#           3.20372E+00  3.28167E+00  3.36152E+00  3.44330E+00  3.52708E+00
#           3.61290E+00  3.70080E+00  3.79085E+00  3.88308E+00  3.97756E+00
#           4.07434E+00  4.17347E+00  4.27501E+00  4.37903E+00  4.48557E+00
#           4.59471E+00  4.70650E+00  4.82102E+00  4.93832E+00  5.05847E+00
#           5.18155E+00  5.30762E+00  5.43676E+00  5.56904E+00  5.70453E+00
#           5.84333E+00  5.98550E+00  6.13114E+00  6.28031E+00  6.43312E+00
#           6.58964E+00  6.74997E+00  6.91420E+00  7.08243E+00  7.25475E+00
#           7.43126E+00  7.61207E+00  7.79728E+00  7.98700E+00  8.18133E+00
#           8.38038E+00  8.58428E+00  8.79315E+00  9.00709E+00  9.22624E+00
#           9.45072E+00  9.68067E+00  9.91620E+00  1.01575E+01  1.04046E+01
#           1.06578E+01  1.09171E+01  1.11827E+01  1.14548E+01  1.17335E+01
#           1.20190E+01  1.23114E+01  1.26109E+01  1.29178E+01  1.32321E+01
#           1.35540E+01  1.38838E+01  1.42216E+01  1.45676E+01  1.49221E+01
#           1.52851E+01  1.56570E+01  1.60380E+01  1.64282E+01  1.68279E+01
#           1.72374E+01  1.76568E+01  1.80864E+01  1.85264E+01  1.89772E+01
#           1.94389E+01  1.99119E+01  2.03963E+01  2.08926E+01  2.14009E+01
#           2.19216E+01  2.24550E+01  2.30014E+01  2.35610E+01  2.41343E+01
#           2.47215E+01  2.53230E+01  2.59391E+01  2.65702E+01  2.72167E+01
#           2.78789E+01  2.85572E+01  2.92520E+01  2.99637E+01  3.06928E+01
#           3.14396E+01  3.22045E+01  3.29881E+01  3.37907E+01  3.46128E+01
#           3.54550E+01  3.63177E+01  3.72013E+01  3.81064E+01  3.90336E+01
#           3.99833E+01  4.09561E+01  4.19526E+01  4.29734E+01  4.40189E+01
#           4.50900E+01  4.61870E+01  4.73108E+01  4.84619E+01  4.96410E+01
#           5.08488E+01  5.20860E+01  5.33533E+01  5.46514E+01  5.59812E+01
#           5.73432E+01  5.87384E+01  6.01676E+01  6.16315E+01  6.31311E+01
#           6.46671E+01  6.62405E+01  6.78522E+01  6.95031E+01  7.11941E+01
#           7.29263E+01  7.47007E+01  7.65182E+01  7.83800E+01  8.02870E+01
#           8.22405E+01  8.42414E+01  8.62911E+01  8.83906E+01  9.05412E+01
#           9.27442E+01  9.50007E+01  9.73122E+01  9.96799E+01  1.02105E+02
#           1.04589E+02  1.07134E+02  1.09741E+02  1.12411E+02  1.15146E+02
#           1.17948E+02  1.20817E+02  1.23757E+02  1.26768E+02  1.29852E+02
#           1.33012E+02  1.36248E+02  1.39563E+02  1.42959E+02  1.46437E+02
#           1.50000E+02
     unit =    2            # unit is [1/cm^2/(MeV/n)/source]
     axis =  eng            # axis of output
     file = detector-01.out  # file name of output for the above axis
   output = f-curr          # surface crossing forward current spectrum
     part =  neutron  
# kf/name :  2112     
#    used :        main (  %)        temp (  %)       total (  %)
#  memory :         414 (  0)           0 (  0)         414 (  0)

#------------------------------------------------------------------------------
#newpage:
#   no. =    1   reg = 100 - 200

x: Energy [MeV/n]
y:  F-Curr [1/cm^2/(MeV/n)/source]         
p: xlog ylog afac(0.8) form(0.9)
h: n            x            y(neutron ),hh0l   n 
#  e-lower      e-upper      neutron     r.err 
   1.0000E-02   1.0243E-02   1.7446E-04  0.0685
   1.0243E-02   1.0493E-02   1.4452E-04  0.0742
   1.0493E-02   1.0748E-02   1.7131E-04  0.0675
   1.0748E-02   1.1009E-02   1.9401E-04  0.0627
   1.1009E-02   1.1277E-02   1.7946E-04  0.0643
   1.1277E-02   1.1552E-02   1.5128E-04  0.0693
   1.1552E-02   1.1833E-02   1.5639E-04  0.0674
   1.1833E-02   1.2121E-02   1.4607E-04  0.0688
   1.2121E-02   1.2415E-02   1.4073E-04  0.0692
   1.2415E-02   1.2718E-02   1.5263E-04  0.0657
   1.2718E-02   1.3027E-02   1.4474E-04  0.0666
   1.3027E-02   1.3344E-02   1.4229E-04  0.0665
   1.3344E-02   1.3669E-02   1.3229E-04  0.0681
   1.3669E-02   1.4001E-02   1.4841E-04  0.0634
   1.4001E-02   1.4342E-02   1.3316E-04  0.0663
   1.4342E-02   1.4691E-02   1.2961E-04  0.0664
   1.4691E-02   1.5048E-02   1.3549E-04  0.0642
   1.5048E-02   1.5414E-02   1.3485E-04  0.0636
   1.5414E-02   1.5789E-02   1.2218E-04  0.0660
   1.5789E-02   1.6174E-02   1.1801E-04  0.0663
   1.6174E-02   1.6567E-02   1.0823E-04  0.0683
   1.6567E-02   1.6970E-02   1.2167E-04  0.0638
   1.6970E-02   1.7383E-02   1.1499E-04  0.0648
   1.7383E-02   1.7806E-02   1.1927E-04  0.0628
   1.7806E-02   1.8239E-02   1.1785E-04  0.0624
   1.8239E-02   1.8683E-02   1.0289E-04  0.0661
   1.8683E-02   1.9138E-02   1.0954E-04  0.0633
   1.9138E-02   1.9603E-02   1.0468E-04  0.0639
   1.9603E-02   2.0080E-02   9.9860E-05  0.0646
   2.0080E-02   2.0569E-02   9.8838E-05  0.0642
   2.0569E-02   2.1069E-02   1.0735E-04  0.0609
   2.1069E-02   2.1582E-02   1.0008E-04  0.0623
   2.1582E-02   2.2107E-02   9.4443E-05  0.0633
   2.2107E-02   2.2645E-02   8.9221E-05  0.0644
   2.2645E-02   2.3196E-02   8.8065E-05  0.0640
   2.3196E-02   2.3760E-02   8.6072E-05  0.0641
   2.3760E-02   2.4338E-02   9.4508E-05  0.0605
   2.4338E-02   2.4930E-02   9.2490E-05  0.0602
   2.4930E-02   2.5537E-02   7.8676E-05  0.0647
   2.5537E-02   2.6158E-02   8.6026E-05  0.0611
   2.6158E-02   2.6795E-02   8.0629E-05  0.0623
   2.6795E-02   2.7447E-02   7.8138E-05  0.0625
   2.7447E-02   2.8114E-02   7.2963E-05  0.0640
   2.8114E-02   2.8799E-02   7.4554E-05  0.0625
   2.8799E-02   2.9499E-02   7.2055E-05  0.0628
   2.9499E-02   3.0217E-02   6.9440E-05  0.0632
   3.0217E-02   3.0952E-02   7.5623E-05  0.0598
   3.0952E-02   3.1705E-02   7.2945E-05  0.0601
   3.1705E-02   3.2477E-02   7.1596E-05  0.0601
   3.2477E-02   3.3267E-02   7.0124E-05  0.0599
   3.3267E-02   3.4076E-02   6.6260E-05  0.0611
   3.4076E-02   3.4905E-02   6.4235E-05  0.0612
   3.4905E-02   3.5755E-02   5.9377E-05  0.0629
   3.5755E-02   3.6625E-02   6.4302E-05  0.0597
   3.6625E-02   3.7516E-02   6.3368E-05  0.0594
   3.7516E-02   3.8428E-02   5.4601E-05  0.0632
   3.8428E-02   3.9363E-02   6.6983E-05  0.0565
   3.9363E-02   4.0321E-02   6.0545E-05  0.0585
   4.0321E-02   4.1302E-02   5.5176E-05  0.0606
   4.1302E-02   4.2307E-02   6.0573E-05  0.0572
   4.2307E-02   4.3337E-02   5.1131E-05  0.0615
   4.3337E-02   4.4391E-02   5.9963E-05  0.0561
   4.4391E-02   4.5471E-02   5.3553E-05  0.0587
   4.5471E-02   4.6577E-02   4.7300E-05  0.0616
   4.6577E-02   4.7711E-02   5.6648E-05  0.0557
   4.7711E-02   4.8871E-02   4.8399E-05  0.0595
   4.8871E-02   5.0061E-02   5.1555E-05  0.0570
   5.0061E-02   5.1279E-02   4.5905E-05  0.0598
   5.1279E-02   5.2526E-02   5.0997E-05  0.0559
   5.2526E-02   5.3804E-02   5.2270E-05  0.0546
   5.3804E-02   5.5113E-02   4.5606E-05  0.0577
   5.5113E-02   5.6454E-02   4.6103E-05  0.0567
   5.6454E-02   5.7828E-02   4.3826E-05  0.0575
   5.7828E-02   5.9235E-02   4.6117E-05  0.0554
   5.9235E-02   6.0676E-02   4.3202E-05  0.0566
   6.0676E-02   6.2152E-02   4.5160E-05  0.0546
   6.2152E-02   6.3665E-02   4.1489E-05  0.0563
   6.3665E-02   6.5214E-02   3.9074E-05  0.0574
   6.5214E-02   6.6800E-02   4.1043E-05  0.0553
   6.6800E-02   6.8426E-02   3.9775E-05  0.0555
   6.8426E-02   7.0090E-02   3.2695E-05  0.0604
   7.0090E-02   7.1796E-02   3.6634E-05  0.0564
   7.1796E-02   7.3543E-02   3.5813E-05  0.0565
   7.3543E-02   7.5332E-02   3.7676E-05  0.0544
   7.5332E-02   7.7165E-02   3.4341E-05  0.0563
   7.7165E-02   7.9042E-02   3.6177E-05  0.0541
   7.9042E-02   8.0965E-02   3.2802E-05  0.0561
   8.0965E-02   8.2935E-02   2.9874E-05  0.0581
   8.2935E-02   8.4953E-02   3.3057E-05  0.0547
   8.4953E-02   8.7020E-02   2.9720E-05  0.0570
   8.7020E-02   8.9138E-02   3.2862E-05  0.0534
   8.9138E-02   9.1306E-02   2.7589E-05  0.0576
   9.1306E-02   9.3528E-02   2.9846E-05  0.0548
   9.3528E-02   9.5804E-02   2.8499E-05  0.0554
   9.5804E-02   9.8134E-02   2.8041E-05  0.0551
   9.8134E-02   1.0052E-01   2.8369E-05  0.0543
   1.0052E-01   1.0297E-01   2.6259E-05  0.0557
   1.0297E-01   1.0547E-01   2.5112E-05  0.0563
   1.0547E-01   1.0804E-01   2.7205E-05  0.0534
   1.0804E-01   1.1067E-01   2.5094E-05  0.0549
   1.1067E-01   1.1336E-01   2.5240E-05  0.0541
   1.1336E-01   1.1612E-01   2.5078E-05  0.0537
   1.1612E-01   1.1894E-01   2.4496E-05  0.0536
   1.1894E-01   1.2184E-01   2.2266E-05  0.0557
   1.2184E-01   1.2480E-01   2.1080E-05  0.0564
   1.2480E-01   1.2784E-01   2.4172E-05  0.0521
   1.2784E-01   1.3095E-01   2.3391E-05  0.0522
   1.3095E-01   1.3414E-01   2.0466E-05  0.0552
   1.3414E-01   1.3740E-01   2.1350E-05  0.0534
   1.3740E-01   1.4074E-01   1.9806E-05  0.0548
   1.4074E-01   1.4417E-01   2.0291E-05  0.0535
   1.4417E-01   1.4767E-01   1.9168E-05  0.0544
   1.4767E-01   1.5127E-01   1.8685E-05  0.0545
   1.5127E-01   1.5495E-01   1.8766E-05  0.0537
   1.5495E-01   1.5872E-01   1.8144E-05  0.0539
   1.5872E-01   1.6258E-01   1.9128E-05  0.0520
   1.6258E-01   1.6654E-01   1.7382E-05  0.0538
   1.6654E-01   1.7059E-01   1.7646E-05  0.0528
   1.7059E-01   1.7474E-01   1.7033E-05  0.0530
   1.7474E-01   1.7899E-01   1.5440E-05  0.0551
   1.7899E-01   1.8334E-01   1.7268E-05  0.0514
   1.8334E-01   1.8781E-01   1.5289E-05  0.0540
   1.8781E-01   1.9237E-01   1.6697E-05  0.0511
   1.9237E-01   1.9706E-01   1.5786E-05  0.0519
   1.9706E-01   2.0185E-01   1.5307E-05  0.0521
   2.0185E-01   2.0676E-01   1.5820E-05  0.0506
   2.0676E-01   2.1179E-01   1.5022E-05  0.0513
   2.1179E-01   2.1694E-01   1.4811E-05  0.0511
   2.1694E-01   2.2222E-01   1.7304E-05  0.0467
   2.2222E-01   2.2763E-01   1.6568E-05  0.0471
   2.2763E-01   2.3317E-01   1.7921E-05  0.0448
   2.3317E-01   2.3884E-01   1.7999E-05  0.0442
   2.3884E-01   2.4465E-01   2.0450E-05  0.0409
   2.4465E-01   2.5061E-01   1.8678E-05  0.0423
   2.5061E-01   2.5670E-01   1.9680E-05  0.0408
   2.5670E-01   2.6295E-01   2.1314E-05  0.0387
   2.6295E-01   2.6935E-01   2.1245E-05  0.0383
   2.6935E-01   2.7590E-01   2.0548E-05  0.0385
   2.7590E-01   2.8261E-01   2.1830E-05  0.0369
   2.8261E-01   2.8949E-01   2.1479E-05  0.0367
   2.8949E-01   2.9653E-01   2.0860E-05  0.0368
   2.9653E-01   3.0375E-01   2.3566E-05  0.0343
   3.0375E-01   3.1114E-01   2.2872E-05  0.0343
   3.1114E-01   3.1871E-01   2.4753E-05  0.0326
   3.1871E-01   3.2646E-01   2.5182E-05  0.0319
   3.2646E-01   3.3441E-01   2.4546E-05  0.0320
   3.3441E-01   3.4254E-01   2.6488E-05  0.0304
   3.4254E-01   3.5088E-01   2.4870E-05  0.0310
   3.5088E-01   3.5941E-01   2.6070E-05  0.0299
   3.5941E-01   3.6816E-01   2.7600E-05  0.0287
   3.6816E-01   3.7712E-01   2.7750E-05  0.0283
   3.7712E-01   3.8629E-01   2.8010E-05  0.0278
   3.8629E-01   3.9569E-01   2.7842E-05  0.0276
   3.9569E-01   4.0532E-01   3.0308E-05  0.0261
   4.0532E-01   4.1518E-01   2.8606E-05  0.0266
   4.1518E-01   4.2528E-01   2.9732E-05  0.0258
   4.2528E-01   4.3563E-01   3.0020E-05  0.0253
   4.3563E-01   4.4623E-01   3.2685E-05  0.0240
   4.4623E-01   4.5708E-01   3.2054E-05  0.0239
   4.5708E-01   4.6821E-01   3.2050E-05  0.0236
   4.6821E-01   4.7960E-01   3.2681E-05  0.0231
   4.7960E-01   4.9127E-01   3.5223E-05  0.0220
   4.9127E-01   5.0322E-01   3.6316E-05  0.0214
   5.0322E-01   5.1546E-01   3.4212E-05  0.0218
   5.1546E-01   5.2800E-01   3.6168E-05  0.0210
   5.2800E-01   5.4085E-01   3.6535E-05  0.0206
   5.4085E-01   5.5401E-01   3.6185E-05  0.0205
   5.5401E-01   5.6749E-01   3.7409E-05  0.0199
   5.6749E-01   5.8130E-01   3.6410E-05  0.0199
   5.8130E-01   5.9544E-01   3.8379E-05  0.0191
   5.9544E-01   6.0993E-01   3.9736E-05  0.0186
   6.0993E-01   6.2477E-01   3.9596E-05  0.0184
   6.2477E-01   6.3997E-01   4.0592E-05  0.0180
   6.3997E-01   6.5554E-01   4.0353E-05  0.0178
   6.5554E-01   6.7149E-01   4.1752E-05  0.0173
   6.7149E-01   6.8783E-01   4.2235E-05  0.0170
   6.8783E-01   7.0456E-01   4.2742E-05  0.0167
   7.0456E-01   7.2171E-01   4.3167E-05  0.0164
   7.2171E-01   7.3927E-01   4.2617E-05  0.0163
   7.3927E-01   7.5725E-01   4.4073E-05  0.0159
   7.5725E-01   7.7568E-01   4.4027E-05  0.0157
   7.7568E-01   7.9455E-01   4.5098E-05  0.0153
   7.9455E-01   8.1388E-01   4.6752E-05  0.0148
   8.1388E-01   8.3368E-01   4.5308E-05  0.0149
   8.3368E-01   8.5397E-01   4.5082E-05  0.0148
   8.5397E-01   8.7475E-01   4.6718E-05  0.0143
   8.7475E-01   8.9603E-01   4.6480E-05  0.0142
   8.9603E-01   9.1783E-01   4.8684E-05  0.0137
   9.1783E-01   9.4016E-01   4.8298E-05  0.0136
   9.4016E-01   9.6304E-01   4.6156E-05  0.0137
   9.6304E-01   9.8647E-01   4.7808E-05  0.0133
   9.8647E-01   1.0105E+00   4.9269E-05  0.0130
   1.0105E+00   1.0351E+00   4.8495E-05  0.0129
   1.0351E+00   1.0602E+00   4.9075E-05  0.0127
   1.0602E+00   1.0860E+00   4.9006E-05  0.0126
   1.0860E+00   1.1125E+00   4.8616E-05  0.0124
   1.1125E+00   1.1395E+00   4.8973E-05  0.0123
   1.1395E+00   1.1673E+00   4.8460E-05  0.0122
   1.1673E+00   1.1957E+00   4.9356E-05  0.0119
   1.1957E+00   1.2247E+00   4.8644E-05  0.0119
   1.2247E+00   1.2545E+00   4.8977E-05  0.0117
   1.2545E+00   1.2851E+00   4.9177E-05  0.0115
   1.2851E+00   1.3163E+00   4.8022E-05  0.0115
   1.3163E+00   1.3484E+00   4.8283E-05  0.0113
   1.3484E+00   1.3812E+00   4.8558E-05  0.0112
   1.3812E+00   1.4148E+00   4.8021E-05  0.0111
   1.4148E+00   1.4492E+00   4.7727E-05  0.0110
   1.4492E+00   1.4845E+00   4.8728E-05  0.0108
   1.4845E+00   1.5206E+00   4.6997E-05  0.0108
   1.5206E+00   1.5576E+00   4.7274E-05  0.0107
   1.5576E+00   1.5955E+00   4.6324E-05  0.0106
   1.5955E+00   1.6343E+00   4.6422E-05  0.0105
   1.6343E+00   1.6741E+00   4.6745E-05  0.0103
   1.6741E+00   1.7148E+00   4.5052E-05  0.0104
   1.7148E+00   1.7565E+00   4.5154E-05  0.0103
   1.7565E+00   1.7992E+00   4.4240E-05  0.0103
   1.7992E+00   1.8430E+00   4.4236E-05  0.0101
   1.8430E+00   1.8879E+00   4.4370E-05  0.0100
   1.8879E+00   1.9338E+00   4.3783E-05  0.0099
   1.9338E+00   1.9808E+00   4.3470E-05  0.0099
   1.9808E+00   2.0290E+00   4.2576E-05  0.0098
   2.0290E+00   2.0784E+00   4.2396E-05  0.0097
   2.0784E+00   2.1290E+00   4.2297E-05  0.0096
   2.1290E+00   2.1808E+00   4.1479E-05  0.0096
   2.1808E+00   2.2338E+00   4.0834E-05  0.0096
   2.2338E+00   2.2882E+00   3.9900E-05  0.0096
   2.2882E+00   2.3439E+00   3.9740E-05  0.0095
   2.3439E+00   2.4009E+00   3.9496E-05  0.0094
   2.4009E+00   2.4593E+00   3.8344E-05  0.0094
   2.4593E+00   2.5191E+00   3.7926E-05  0.0094
   2.5191E+00   2.5804E+00   3.8297E-05  0.0092
   2.5804E+00   2.6432E+00   3.7416E-05  0.0092
   2.6432E+00   2.7075E+00   3.5966E-05  0.0093
   2.7075E+00   2.7734E+00   3.6090E-05  0.0091
   2.7734E+00   2.8409E+00   3.5510E-05  0.0091
   2.8409E+00   2.9100E+00   3.4634E-05  0.0091
   2.9100E+00   2.9808E+00   3.3928E-05  0.0091
   2.9808E+00   3.0533E+00   3.4062E-05  0.0090
   3.0533E+00   3.1276E+00   3.3493E-05  0.0089
   3.1276E+00   3.2037E+00   3.2960E-05  0.0089
   3.2037E+00   3.2817E+00   3.2290E-05  0.0089
   3.2817E+00   3.3615E+00   3.2115E-05  0.0088
   3.3615E+00   3.4433E+00   3.0730E-05  0.0089
   3.4433E+00   3.5271E+00   3.0618E-05  0.0088
   3.5271E+00   3.6129E+00   3.0292E-05  0.0087
   3.6129E+00   3.7008E+00   2.9367E-05  0.0088
   3.7008E+00   3.7908E+00   2.9054E-05  0.0087
   3.7908E+00   3.8831E+00   2.8574E-05  0.0087
   3.8831E+00   3.9776E+00   2.7955E-05  0.0087
   3.9776E+00   4.0743E+00   2.7262E-05  0.0087
   4.0743E+00   4.1735E+00   2.7254E-05  0.0086
   4.1735E+00   4.2750E+00   2.6754E-05  0.0085
   4.2750E+00   4.3790E+00   2.6614E-05  0.0085
   4.3790E+00   4.4856E+00   2.6064E-05  0.0085
   4.4856E+00   4.5947E+00   2.5481E-05  0.0084
   4.5947E+00   4.7065E+00   2.5954E-05  0.0083
   4.7065E+00   4.8210E+00   2.6387E-05  0.0081
   4.8210E+00   4.9383E+00   2.5587E-05  0.0081
   4.9383E+00   5.0585E+00   2.5014E-05  0.0081
   5.0585E+00   5.1815E+00   2.5054E-05  0.0080
   5.1815E+00   5.3076E+00   2.4944E-05  0.0079
   5.3076E+00   5.4368E+00   2.4196E-05  0.0080
   5.4368E+00   5.5690E+00   2.3829E-05  0.0079
   5.5690E+00   5.7045E+00   2.3194E-05  0.0079
   5.7045E+00   5.8433E+00   2.2925E-05  0.0079
   5.8433E+00   5.9855E+00   2.2517E-05  0.0079
   5.9855E+00   6.1311E+00   2.2310E-05  0.0078
   6.1311E+00   6.2803E+00   2.2222E-05  0.0077
   6.2803E+00   6.4331E+00   2.1921E-05  0.0077
   6.4331E+00   6.5896E+00   2.1322E-05  0.0077
   6.5896E+00   6.7500E+00   2.1286E-05  0.0076
   6.7500E+00   6.9142E+00   2.1114E-05  0.0076
   6.9142E+00   7.0824E+00   2.0462E-05  0.0076
   7.0824E+00   7.2548E+00   2.0607E-05  0.0075
   7.2548E+00   7.4313E+00   2.0389E-05  0.0074
   7.4313E+00   7.6121E+00   2.0146E-05  0.0074
   7.6121E+00   7.7973E+00   1.9984E-05  0.0073
   7.7973E+00   7.9870E+00   1.9680E-05  0.0073
   7.9870E+00   8.1813E+00   1.9384E-05  0.0073
   8.1813E+00   8.3804E+00   1.9146E-05  0.0072
   8.3804E+00   8.5843E+00   1.9202E-05  0.0071
   8.5843E+00   8.7931E+00   1.8765E-05  0.0071
   8.7931E+00   9.0071E+00   1.8876E-05  0.0070
   9.0071E+00   9.2262E+00   1.8520E-05  0.0070
   9.2262E+00   9.4507E+00   1.8537E-05  0.0069
   9.4507E+00   9.6807E+00   1.8430E-05  0.0069
   9.6807E+00   9.9162E+00   1.8428E-05  0.0068
   9.9162E+00   1.0157E+01   1.8517E-05  0.0067
   1.0157E+01   1.0405E+01   1.8415E-05  0.0066
   1.0405E+01   1.0658E+01   1.8345E-05  0.0066
   1.0658E+01   1.0917E+01   1.8425E-05  0.0065
   1.0917E+01   1.1183E+01   1.8551E-05  0.0064
   1.1183E+01   1.1455E+01   1.8470E-05  0.0063
   1.1455E+01   1.1733E+01   1.8695E-05  0.0062
   1.1733E+01   1.2019E+01   1.8619E-05  0.0061
   1.2019E+01   1.2311E+01   1.8866E-05  0.0060
   1.2311E+01   1.2611E+01   1.8492E-05  0.0060
   1.2611E+01   1.2918E+01   1.8921E-05  0.0059
   1.2918E+01   1.3232E+01   1.8997E-05  0.0058
   1.3232E+01   1.3554E+01   1.9285E-05  0.0057
   1.3554E+01   1.3884E+01   1.9490E-05  0.0056
   1.3884E+01   1.4222E+01   1.9520E-05  0.0055
   1.4222E+01   1.4568E+01   1.9908E-05  0.0054
   1.4568E+01   1.4922E+01   2.0201E-05  0.0053
   1.4922E+01   1.5285E+01   2.0577E-05  0.0052
   1.5285E+01   1.5657E+01   2.0812E-05  0.0051
   1.5657E+01   1.6038E+01   2.1329E-05  0.0050
   1.6038E+01   1.6428E+01   2.1764E-05  0.0049
   1.6428E+01   1.6828E+01   2.2296E-05  0.0047
   1.6828E+01   1.7237E+01   2.2985E-05  0.0046
   1.7237E+01   1.7657E+01   2.3831E-05  0.0045
   1.7657E+01   1.8086E+01   2.4433E-05  0.0044
   1.8086E+01   1.8526E+01   2.5268E-05  0.0042
   1.8526E+01   1.8977E+01   2.6147E-05  0.0041
   1.8977E+01   1.9439E+01   2.7140E-05  0.0040
   1.9439E+01   1.9912E+01   2.8649E-05  0.0038
   1.9912E+01   2.0396E+01   3.0139E-05  0.0037
   2.0396E+01   2.0893E+01   3.1467E-05  0.0036
   2.0893E+01   2.1401E+01   3.2832E-05  0.0035
   2.1401E+01   2.1922E+01   3.4336E-05  0.0033
   2.1922E+01   2.2455E+01   3.5792E-05  0.0032
   2.2455E+01   2.3001E+01   3.7825E-05  0.0031
   2.3001E+01   2.3561E+01   3.9849E-05  0.0030
   2.3561E+01   2.4134E+01   4.2172E-05  0.0029
   2.4134E+01   2.4721E+01   4.4460E-05  0.0028
   2.4721E+01   2.5323E+01   4.7075E-05  0.0027
   2.5323E+01   2.5939E+01   4.9797E-05  0.0026
   2.5939E+01   2.6570E+01   5.2612E-05  0.0025
   2.6570E+01   2.7217E+01   5.5638E-05  0.0024
   2.7217E+01   2.7879E+01   5.9056E-05  0.0023
   2.7879E+01   2.8557E+01   6.2801E-05  0.0022
   2.8557E+01   2.9252E+01   6.6268E-05  0.0021
   2.9252E+01   2.9964E+01   7.0270E-05  0.0020
   2.9964E+01   3.0693E+01   7.4984E-05  0.0019
   3.0693E+01   3.1440E+01   7.9557E-05  0.0018
   3.1440E+01   3.2205E+01   8.4822E-05  0.0018
   3.2205E+01   3.2988E+01   9.0095E-05  0.0017
   3.2988E+01   3.3791E+01   9.6236E-05  0.0016
   3.3791E+01   3.4613E+01   1.0206E-04  0.0015
   3.4613E+01   3.5455E+01   1.0876E-04  0.0015
   3.5455E+01   3.6318E+01   1.1618E-04  0.0014
   3.6318E+01   3.7201E+01   1.2410E-04  0.0014
   3.7201E+01   3.8106E+01   1.3268E-04  0.0013
   3.8106E+01   3.9034E+01   1.4193E-04  0.0012
   3.9034E+01   3.9983E+01   1.5175E-04  0.0012
   3.9983E+01   4.0956E+01   1.6186E-04  0.0011
   4.0956E+01   4.1953E+01   1.7290E-04  0.0011
   4.1953E+01   4.2973E+01   1.8394E-04  0.0010
   4.2973E+01   4.4019E+01   1.9480E-04  0.0010
   4.4019E+01   4.5090E+01   2.0564E-04  0.0010
   4.5090E+01   4.6187E+01   2.1578E-04  0.0009
   4.6187E+01   4.7311E+01   2.2434E-04  0.0009
   4.7311E+01   4.8462E+01   2.3191E-04  0.0009
   4.8462E+01   4.9641E+01   2.3638E-04  0.0008
   4.9641E+01   5.0849E+01   2.3904E-04  0.0008
   5.0849E+01   5.2086E+01   2.3865E-04  0.0008
   5.2086E+01   5.3353E+01   2.3480E-04  0.0008
   5.3353E+01   5.4651E+01   2.2797E-04  0.0008
   5.4651E+01   5.5981E+01   2.1858E-04  0.0008
   5.5981E+01   5.7343E+01   2.0663E-04  0.0008
   5.7343E+01   5.8738E+01   1.9269E-04  0.0009
   5.8738E+01   6.0168E+01   1.7687E-04  0.0009
   6.0168E+01   6.1632E+01   1.6068E-04  0.0009
   6.1632E+01   6.3131E+01   1.4413E-04  0.0010
   6.3131E+01   6.4667E+01   1.2774E-04  0.0010
   6.4667E+01   6.6240E+01   1.1230E-04  0.0011
   6.6240E+01   6.7852E+01   9.7939E-05  0.0011
   6.7852E+01   6.9503E+01   8.4813E-05  0.0012
   6.9503E+01   7.1194E+01   7.3002E-05  0.0013
   7.1194E+01   7.2926E+01   6.2482E-05  0.0014
   7.2926E+01   7.4701E+01   5.3420E-05  0.0015
   7.4701E+01   7.6518E+01   4.5338E-05  0.0016
   7.6518E+01   7.8380E+01   3.8422E-05  0.0017
   7.8380E+01   8.0287E+01   3.2652E-05  0.0018
   8.0287E+01   8.2240E+01   2.7631E-05  0.0019
   8.2240E+01   8.4241E+01   2.3285E-05  0.0021
   8.4241E+01   8.6291E+01   1.9550E-05  0.0022
   8.6291E+01   8.8391E+01   1.6503E-05  0.0024
   8.8391E+01   9.0541E+01   1.3932E-05  0.0026
   9.0541E+01   9.2744E+01   1.2084E-05  0.0027
   9.2744E+01   9.5001E+01   1.0481E-05  0.0029
   9.5001E+01   9.7312E+01   8.9987E-06  0.0031
   9.7312E+01   9.9680E+01   7.7268E-06  0.0033
   9.9680E+01   1.0211E+02   6.7117E-06  0.0035
   1.0211E+02   1.0459E+02   6.4037E-06  0.0035
   1.0459E+02   1.0713E+02   6.3019E-06  0.0035
   1.0713E+02   1.0974E+02   5.8517E-06  0.0036
   1.0974E+02   1.1241E+02   5.0279E-06  0.0039
   1.1241E+02   1.1515E+02   4.1223E-06  0.0042
   1.1515E+02   1.1795E+02   3.2681E-06  0.0047
   1.1795E+02   1.2082E+02   2.6583E-06  0.0051
   1.2082E+02   1.2376E+02   2.1673E-06  0.0056
   1.2376E+02   1.2677E+02   1.5120E-06  0.0066
   1.2677E+02   1.2985E+02   5.2367E-07  0.0111
   1.2985E+02   1.3301E+02   3.3677E-08  0.0434
   1.3301E+02   1.3625E+02   0.0000E+00  0.0000
   1.3625E+02   1.3956E+02   0.0000E+00  0.0000
   1.3956E+02   1.4296E+02   0.0000E+00  0.0000
   1.4296E+02   1.4644E+02   0.0000E+00  0.0000
   1.4644E+02   1.5000E+02   0.0000E+00  0.0000

#   sum over                 5.6069E-05
'no. =    1   reg = 100 - 200'
msuc: {\huge [t-cross] in region mesh}
msdr: {\it plotted by \ANGEL \version}
msdl: {\it calculated by \PHITS  3.28}
wt: s(0.7)
\vspace{-3}
  region surface crossing
  area  &=&   1.0000E+00 [cm^2]
e:
 
# Information for Restart Calculation
# This calculation was newly started
# istdev =  2 # 1:Batch variance, 2:History variance
# resc2  = 5.00000000000000000E+09 # Total source weight or Total source weight / maxcas
# resc3  = 5.00000000000000000E+09 # Total history number or Total batch number
# maxcas =   500000000 # History / Batch, only used for istdev=1
# bitrseed = 0001101011110000011001100100101010101011111110100001111101011101 # bit data of rseed
