[ T-Cross ]
    title = [t-cross] in region mesh
     mesh =  reg            # mesh type is region-wise
      reg =    1            # number of crossing regions
      non     r-from    r-to       area
      1       106       206        1.000000    
   e-type =    3            # e-mesh is log given by emin, emax and ne
     emin =  1.0000000E-02  # minimum value of e-mesh points
     emax =   150.0000      # maximum value of e-mesh points
#    edel =  2.4039514E-02  # mesh width of e-mesh points
       ne =    400          # number of e-mesh points
#    data = ( e(i), i = 1, ne + 1 )
#           1.00000E-02  1.02433E-02  1.04925E-02  1.07478E-02  1.10093E-02
#           1.12772E-02  1.15516E-02  1.18326E-02  1.21205E-02  1.24154E-02
#           1.27175E-02  1.30269E-02  1.33439E-02  1.36686E-02  1.40011E-02
#           1.43418E-02  1.46907E-02  1.50482E-02  1.54143E-02  1.57894E-02
#           1.61735E-02  1.65670E-02  1.69701E-02  1.73830E-02  1.78060E-02
#           1.82392E-02  1.86830E-02  1.91375E-02  1.96032E-02  2.00801E-02
#           2.05687E-02  2.10692E-02  2.15818E-02  2.21069E-02  2.26448E-02
#           2.31957E-02  2.37601E-02  2.43382E-02  2.49304E-02  2.55369E-02
#           2.61583E-02  2.67947E-02  2.74467E-02  2.81145E-02  2.87985E-02
#           2.94992E-02  3.02169E-02  3.09521E-02  3.17052E-02  3.24766E-02
#           3.32668E-02  3.40762E-02  3.49053E-02  3.57546E-02  3.66246E-02
#           3.75157E-02  3.84284E-02  3.93634E-02  4.03212E-02  4.13022E-02
#           4.23071E-02  4.33365E-02  4.43909E-02  4.54710E-02  4.65773E-02
#           4.77106E-02  4.88714E-02  5.00605E-02  5.12785E-02  5.25262E-02
#           5.38042E-02  5.51133E-02  5.64542E-02  5.78278E-02  5.92348E-02
#           6.06760E-02  6.21523E-02  6.36645E-02  6.52135E-02  6.68002E-02
#           6.84255E-02  7.00904E-02  7.17957E-02  7.35426E-02  7.53319E-02
#           7.71648E-02  7.90423E-02  8.09655E-02  8.29354E-02  8.49533E-02
#           8.70203E-02  8.91376E-02  9.13064E-02  9.35279E-02  9.58035E-02
#           9.81345E-02  1.00522E-01  1.02968E-01  1.05473E-01  1.08040E-01
#           1.10668E-01  1.13361E-01  1.16119E-01  1.18944E-01  1.21838E-01
#           1.24803E-01  1.27839E-01  1.30950E-01  1.34136E-01  1.37399E-01
#           1.40742E-01  1.44167E-01  1.47675E-01  1.51268E-01  1.54948E-01
#           1.58718E-01  1.62580E-01  1.66535E-01  1.70587E-01  1.74738E-01
#           1.78989E-01  1.83344E-01  1.87805E-01  1.92375E-01  1.97055E-01
#           2.01850E-01  2.06761E-01  2.11792E-01  2.16945E-01  2.22223E-01
#           2.27630E-01  2.33169E-01  2.38842E-01  2.44653E-01  2.50605E-01
#           2.56703E-01  2.62949E-01  2.69346E-01  2.75900E-01  2.82613E-01
#           2.89489E-01  2.96532E-01  3.03747E-01  3.11138E-01  3.18708E-01
#           3.26462E-01  3.34405E-01  3.42542E-01  3.50876E-01  3.59413E-01
#           3.68158E-01  3.77116E-01  3.86291E-01  3.95690E-01  4.05317E-01
#           4.15179E-01  4.25281E-01  4.35628E-01  4.46227E-01  4.57084E-01
#           4.68205E-01  4.79597E-01  4.91266E-01  5.03219E-01  5.15463E-01
#           5.28005E-01  5.40851E-01  5.54011E-01  5.67490E-01  5.81298E-01
#           5.95441E-01  6.09929E-01  6.24769E-01  6.39970E-01  6.55541E-01
#           6.71491E-01  6.87828E-01  7.04564E-01  7.21706E-01  7.39266E-01
#           7.57253E-01  7.75678E-01  7.94551E-01  8.13883E-01  8.33685E-01
#           8.53969E-01  8.74747E-01  8.96030E-01  9.17831E-01  9.40163E-01
#           9.63038E-01  9.86469E-01  1.01047E+00  1.03506E+00  1.06024E+00
#           1.08604E+00  1.11246E+00  1.13953E+00  1.16725E+00  1.19565E+00
#           1.22474E+00  1.25454E+00  1.28507E+00  1.31633E+00  1.34836E+00
#           1.38117E+00  1.41477E+00  1.44920E+00  1.48446E+00  1.52057E+00
#           1.55757E+00  1.59547E+00  1.63429E+00  1.67405E+00  1.71478E+00
#           1.75650E+00  1.79924E+00  1.84302E+00  1.88786E+00  1.93379E+00
#           1.98084E+00  2.02904E+00  2.07841E+00  2.12898E+00  2.18078E+00
#           2.23384E+00  2.28819E+00  2.34386E+00  2.40089E+00  2.45930E+00
#           2.51914E+00  2.58043E+00  2.64322E+00  2.70753E+00  2.77341E+00
#           2.84088E+00  2.91001E+00  2.98081E+00  3.05333E+00  3.12762E+00
#           3.20372E+00  3.28167E+00  3.36152E+00  3.44330E+00  3.52708E+00
#           3.61290E+00  3.70080E+00  3.79085E+00  3.88308E+00  3.97756E+00
#           4.07434E+00  4.17347E+00  4.27501E+00  4.37903E+00  4.48557E+00
#           4.59471E+00  4.70650E+00  4.82102E+00  4.93832E+00  5.05847E+00
#           5.18155E+00  5.30762E+00  5.43676E+00  5.56904E+00  5.70453E+00
#           5.84333E+00  5.98550E+00  6.13114E+00  6.28031E+00  6.43312E+00
#           6.58964E+00  6.74997E+00  6.91420E+00  7.08243E+00  7.25475E+00
#           7.43126E+00  7.61207E+00  7.79728E+00  7.98700E+00  8.18133E+00
#           8.38038E+00  8.58428E+00  8.79315E+00  9.00709E+00  9.22624E+00
#           9.45072E+00  9.68067E+00  9.91620E+00  1.01575E+01  1.04046E+01
#           1.06578E+01  1.09171E+01  1.11827E+01  1.14548E+01  1.17335E+01
#           1.20190E+01  1.23114E+01  1.26109E+01  1.29178E+01  1.32321E+01
#           1.35540E+01  1.38838E+01  1.42216E+01  1.45676E+01  1.49221E+01
#           1.52851E+01  1.56570E+01  1.60380E+01  1.64282E+01  1.68279E+01
#           1.72374E+01  1.76568E+01  1.80864E+01  1.85264E+01  1.89772E+01
#           1.94389E+01  1.99119E+01  2.03963E+01  2.08926E+01  2.14009E+01
#           2.19216E+01  2.24550E+01  2.30014E+01  2.35610E+01  2.41343E+01
#           2.47215E+01  2.53230E+01  2.59391E+01  2.65702E+01  2.72167E+01
#           2.78789E+01  2.85572E+01  2.92520E+01  2.99637E+01  3.06928E+01
#           3.14396E+01  3.22045E+01  3.29881E+01  3.37907E+01  3.46128E+01
#           3.54550E+01  3.63177E+01  3.72013E+01  3.81064E+01  3.90336E+01
#           3.99833E+01  4.09561E+01  4.19526E+01  4.29734E+01  4.40189E+01
#           4.50900E+01  4.61870E+01  4.73108E+01  4.84619E+01  4.96410E+01
#           5.08488E+01  5.20860E+01  5.33533E+01  5.46514E+01  5.59812E+01
#           5.73432E+01  5.87384E+01  6.01676E+01  6.16315E+01  6.31311E+01
#           6.46671E+01  6.62405E+01  6.78522E+01  6.95031E+01  7.11941E+01
#           7.29263E+01  7.47007E+01  7.65182E+01  7.83800E+01  8.02870E+01
#           8.22405E+01  8.42414E+01  8.62911E+01  8.83906E+01  9.05412E+01
#           9.27442E+01  9.50007E+01  9.73122E+01  9.96799E+01  1.02105E+02
#           1.04589E+02  1.07134E+02  1.09741E+02  1.12411E+02  1.15146E+02
#           1.17948E+02  1.20817E+02  1.23757E+02  1.26768E+02  1.29852E+02
#           1.33012E+02  1.36248E+02  1.39563E+02  1.42959E+02  1.46437E+02
#           1.50000E+02
     unit =    2            # unit is [1/cm^2/(MeV/n)/source]
     axis =  eng            # axis of output
     file = detector-07.out  # file name of output for the above axis
   output = f-curr          # surface crossing forward current spectrum
     part =  neutron  
# kf/name :  2112     
#    used :        main (  %)        temp (  %)       total (  %)
#  memory :         414 (  0)           0 (  0)         414 (  0)

#------------------------------------------------------------------------------
#newpage:
#   no. =    1   reg = 106 - 206

x: Energy [MeV/n]
y:  F-Curr [1/cm^2/(MeV/n)/source]         
p: xlog ylog afac(0.8) form(0.9)
h: n            x            y(neutron ),hh0l   n 
#  e-lower      e-upper      neutron     r.err 
   1.0000E-02   1.0243E-02   4.7101E-04  0.0418
   1.0243E-02   1.0493E-02   5.2964E-04  0.0389
   1.0493E-02   1.0748E-02   5.1862E-04  0.0389
   1.0748E-02   1.1009E-02   5.2772E-04  0.0381
   1.1009E-02   1.1277E-02   5.2788E-04  0.0376
   1.1277E-02   1.1552E-02   5.3283E-04  0.0370
   1.1552E-02   1.1833E-02   5.0737E-04  0.0375
   1.1833E-02   1.2121E-02   5.5089E-04  0.0355
   1.2121E-02   1.2415E-02   5.4187E-04  0.0354
   1.2415E-02   1.2718E-02   5.1907E-04  0.0357
   1.2718E-02   1.3027E-02   5.7138E-04  0.0336
   1.3027E-02   1.3344E-02   5.6285E-04  0.0335
   1.3344E-02   1.3669E-02   5.5503E-04  0.0333
   1.3669E-02   1.4001E-02   5.4305E-04  0.0333
   1.4001E-02   1.4342E-02   5.3426E-04  0.0331
   1.4342E-02   1.4691E-02   5.5882E-04  0.0320
   1.4691E-02   1.5048E-02   5.5003E-04  0.0319
   1.5048E-02   1.5414E-02   5.4953E-04  0.0315
   1.5414E-02   1.5789E-02   5.5140E-04  0.0311
   1.5789E-02   1.6174E-02   5.5445E-04  0.0306
   1.6174E-02   1.6567E-02   5.4483E-04  0.0305
   1.6567E-02   1.6970E-02   5.6762E-04  0.0296
   1.6970E-02   1.7383E-02   5.6237E-04  0.0293
   1.7383E-02   1.7806E-02   5.6509E-04  0.0289
   1.7806E-02   1.8239E-02   5.5951E-04  0.0287
   1.8239E-02   1.8683E-02   5.7011E-04  0.0281
   1.8683E-02   1.9138E-02   5.8209E-04  0.0275
   1.9138E-02   1.9603E-02   5.5366E-04  0.0279
   1.9603E-02   2.0080E-02   5.7866E-04  0.0269
   2.0080E-02   2.0569E-02   5.3872E-04  0.0276
   2.0569E-02   2.1069E-02   5.5670E-04  0.0268
   2.1069E-02   2.1582E-02   5.3021E-04  0.0271
   2.1582E-02   2.2107E-02   5.7284E-04  0.0258
   2.2107E-02   2.2645E-02   5.8898E-04  0.0251
   2.2645E-02   2.3196E-02   5.9024E-04  0.0248
   2.3196E-02   2.3760E-02   5.7533E-04  0.0248
   2.3760E-02   2.4338E-02   5.7326E-04  0.0246
   2.4338E-02   2.4930E-02   5.8463E-04  0.0240
   2.4930E-02   2.5537E-02   5.6613E-04  0.0241
   2.5537E-02   2.6158E-02   5.7972E-04  0.0236
   2.6158E-02   2.6795E-02   5.7632E-04  0.0234
   2.6795E-02   2.7447E-02   5.8717E-04  0.0229
   2.7447E-02   2.8114E-02   5.6484E-04  0.0230
   2.8114E-02   2.8799E-02   5.7832E-04  0.0225
   2.8799E-02   2.9499E-02   5.9284E-04  0.0219
   2.9499E-02   3.0217E-02   5.6873E-04  0.0221
   3.0217E-02   3.0952E-02   5.7998E-04  0.0217
   3.0952E-02   3.1705E-02   6.0338E-04  0.0210
   3.1705E-02   3.2477E-02   5.9372E-04  0.0209
   3.2477E-02   3.3267E-02   5.9708E-04  0.0206
   3.3267E-02   3.4076E-02   5.9686E-04  0.0203
   3.4076E-02   3.4905E-02   5.8232E-04  0.0204
   3.4905E-02   3.5755E-02   6.1664E-04  0.0195
   3.5755E-02   3.6625E-02   6.0050E-04  0.0196
   3.6625E-02   3.7516E-02   5.8164E-04  0.0196
   3.7516E-02   3.8428E-02   5.9883E-04  0.0191
   3.8428E-02   3.9363E-02   5.9294E-04  0.0190
   3.9363E-02   4.0321E-02   5.9828E-04  0.0187
   4.0321E-02   4.1302E-02   6.0364E-04  0.0184
   4.1302E-02   4.2307E-02   6.2373E-04  0.0179
   4.2307E-02   4.3337E-02   6.1824E-04  0.0177
   4.3337E-02   4.4391E-02   6.0451E-04  0.0177
   4.4391E-02   4.5471E-02   6.0107E-04  0.0176
   4.5471E-02   4.6577E-02   6.1084E-04  0.0172
   4.6577E-02   4.7711E-02   5.9836E-04  0.0172
   4.7711E-02   4.8871E-02   6.0689E-04  0.0168
   4.8871E-02   5.0061E-02   6.3141E-04  0.0163
   5.0061E-02   5.1279E-02   6.0443E-04  0.0165
   5.1279E-02   5.2526E-02   6.2021E-04  0.0161
   5.2526E-02   5.3804E-02   6.1455E-04  0.0160
   5.3804E-02   5.5113E-02   6.2791E-04  0.0156
   5.5113E-02   5.6454E-02   6.2590E-04  0.0154
   5.6454E-02   5.7828E-02   6.2989E-04  0.0152
   5.7828E-02   5.9235E-02   6.3042E-04  0.0150
   5.9235E-02   6.0676E-02   6.3404E-04  0.0148
   6.0676E-02   6.2152E-02   6.3666E-04  0.0146
   6.2152E-02   6.3665E-02   6.4197E-04  0.0144
   6.3665E-02   6.5214E-02   6.2208E-04  0.0144
   6.5214E-02   6.6800E-02   6.3446E-04  0.0141
   6.6800E-02   6.8426E-02   6.3041E-04  0.0140
   6.8426E-02   7.0090E-02   6.4835E-04  0.0136
   7.0090E-02   7.1796E-02   6.2362E-04  0.0137
   7.1796E-02   7.3543E-02   6.3423E-04  0.0134
   7.3543E-02   7.5332E-02   6.4034E-04  0.0132
   7.5332E-02   7.7165E-02   6.4347E-04  0.0130
   7.7165E-02   7.9042E-02   6.6142E-04  0.0127
   7.9042E-02   8.0965E-02   6.3000E-04  0.0128
   8.0965E-02   8.2935E-02   6.4357E-04  0.0126
   8.2935E-02   8.4953E-02   6.5871E-04  0.0123
   8.4953E-02   8.7020E-02   6.6425E-04  0.0121
   8.7020E-02   8.9138E-02   6.6132E-04  0.0120
   8.9138E-02   9.1306E-02   6.5825E-04  0.0118
   9.1306E-02   9.3528E-02   6.5373E-04  0.0117
   9.3528E-02   9.5804E-02   6.6940E-04  0.0115
   9.5804E-02   9.8134E-02   6.7088E-04  0.0113
   9.8134E-02   1.0052E-01   6.6927E-04  0.0112
   1.0052E-01   1.0297E-01   6.8015E-04  0.0110
   1.0297E-01   1.0547E-01   6.7473E-04  0.0109
   1.0547E-01   1.0804E-01   6.5750E-04  0.0109
   1.0804E-01   1.1067E-01   6.8091E-04  0.0106
   1.1067E-01   1.1336E-01   6.8750E-04  0.0104
   1.1336E-01   1.1612E-01   7.0184E-04  0.0102
   1.1612E-01   1.1894E-01   6.8532E-04  0.0102
   1.1894E-01   1.2184E-01   6.8369E-04  0.0101
   1.2184E-01   1.2480E-01   7.0172E-04  0.0098
   1.2480E-01   1.2784E-01   6.9059E-04  0.0098
   1.2784E-01   1.3095E-01   7.0421E-04  0.0096
   1.3095E-01   1.3414E-01   7.0487E-04  0.0094
   1.3414E-01   1.3740E-01   7.0477E-04  0.0093
   1.3740E-01   1.4074E-01   7.1256E-04  0.0092
   1.4074E-01   1.4417E-01   7.1219E-04  0.0091
   1.4417E-01   1.4767E-01   7.1779E-04  0.0089
   1.4767E-01   1.5127E-01   7.2215E-04  0.0088
   1.5127E-01   1.5495E-01   7.2238E-04  0.0087
   1.5495E-01   1.5872E-01   7.1923E-04  0.0086
   1.5872E-01   1.6258E-01   7.4164E-04  0.0084
   1.6258E-01   1.6654E-01   7.2988E-04  0.0083
   1.6654E-01   1.7059E-01   7.3678E-04  0.0082
   1.7059E-01   1.7474E-01   7.2979E-04  0.0081
   1.7474E-01   1.7899E-01   7.4216E-04  0.0080
   1.7899E-01   1.8334E-01   7.4582E-04  0.0078
   1.8334E-01   1.8781E-01   7.5608E-04  0.0077
   1.8781E-01   1.9237E-01   7.5970E-04  0.0076
   1.9237E-01   1.9706E-01   7.5759E-04  0.0075
   1.9706E-01   2.0185E-01   7.7130E-04  0.0074
   2.0185E-01   2.0676E-01   7.6752E-04  0.0073
   2.0676E-01   2.1179E-01   7.7040E-04  0.0072
   2.1179E-01   2.1694E-01   7.7633E-04  0.0071
   2.1694E-01   2.2222E-01   7.8262E-04  0.0070
   2.2222E-01   2.2763E-01   7.8106E-04  0.0069
   2.2763E-01   2.3317E-01   7.9472E-04  0.0067
   2.3317E-01   2.3884E-01   7.9753E-04  0.0066
   2.3884E-01   2.4465E-01   7.8782E-04  0.0066
   2.4465E-01   2.5061E-01   8.0126E-04  0.0065
   2.5061E-01   2.5670E-01   8.0642E-04  0.0064
   2.5670E-01   2.6295E-01   8.0863E-04  0.0063
   2.6295E-01   2.6935E-01   8.1221E-04  0.0062
   2.6935E-01   2.7590E-01   8.0845E-04  0.0061
   2.7590E-01   2.8261E-01   8.2534E-04  0.0060
   2.8261E-01   2.8949E-01   8.2294E-04  0.0059
   2.8949E-01   2.9653E-01   8.3430E-04  0.0058
   2.9653E-01   3.0375E-01   8.3623E-04  0.0058
   3.0375E-01   3.1114E-01   8.4411E-04  0.0057
   3.1114E-01   3.1871E-01   8.4122E-04  0.0056
   3.1871E-01   3.2646E-01   8.5001E-04  0.0055
   3.2646E-01   3.3441E-01   8.4886E-04  0.0054
   3.3441E-01   3.4254E-01   8.5369E-04  0.0054
   3.4254E-01   3.5088E-01   8.6575E-04  0.0053
   3.5088E-01   3.5941E-01   8.6690E-04  0.0052
   3.5941E-01   3.6816E-01   8.6820E-04  0.0051
   3.6816E-01   3.7712E-01   8.7639E-04  0.0050
   3.7712E-01   3.8629E-01   8.7937E-04  0.0050
   3.8629E-01   3.9569E-01   8.7268E-04  0.0049
   3.9569E-01   4.0532E-01   8.7924E-04  0.0049
   4.0532E-01   4.1518E-01   8.7668E-04  0.0048
   4.1518E-01   4.2528E-01   8.8843E-04  0.0047
   4.2528E-01   4.3563E-01   8.8533E-04  0.0047
   4.3563E-01   4.4623E-01   8.9546E-04  0.0046
   4.4623E-01   4.5708E-01   9.0073E-04  0.0045
   4.5708E-01   4.6821E-01   9.1089E-04  0.0044
   4.6821E-01   4.7960E-01   9.0378E-04  0.0044
   4.7960E-01   4.9127E-01   9.0753E-04  0.0043
   4.9127E-01   5.0322E-01   9.0540E-04  0.0043
   5.0322E-01   5.1546E-01   9.0899E-04  0.0042
   5.1546E-01   5.2800E-01   9.0942E-04  0.0042
   5.2800E-01   5.4085E-01   9.1511E-04  0.0041
   5.4085E-01   5.5401E-01   9.1366E-04  0.0041
   5.5401E-01   5.6749E-01   9.0741E-04  0.0040
   5.6749E-01   5.8130E-01   9.1660E-04  0.0040
   5.8130E-01   5.9544E-01   9.1604E-04  0.0039
   5.9544E-01   6.0993E-01   9.1093E-04  0.0039
   6.0993E-01   6.2477E-01   9.1405E-04  0.0038
   6.2477E-01   6.3997E-01   9.0234E-04  0.0038
   6.3997E-01   6.5554E-01   9.0319E-04  0.0038
   6.5554E-01   6.7149E-01   9.0196E-04  0.0037
   6.7149E-01   6.8783E-01   8.9882E-04  0.0037
   6.8783E-01   7.0456E-01   8.8264E-04  0.0037
   7.0456E-01   7.2171E-01   8.8884E-04  0.0036
   7.2171E-01   7.3927E-01   8.7648E-04  0.0036
   7.3927E-01   7.5725E-01   8.6856E-04  0.0036
   7.5725E-01   7.7568E-01   8.6050E-04  0.0036
   7.7568E-01   7.9455E-01   8.5469E-04  0.0035
   7.9455E-01   8.1388E-01   8.4082E-04  0.0035
   8.1388E-01   8.3368E-01   8.3136E-04  0.0035
   8.3368E-01   8.5397E-01   8.1020E-04  0.0035
   8.5397E-01   8.7475E-01   7.9677E-04  0.0035
   8.7475E-01   8.9603E-01   7.8005E-04  0.0035
   8.9603E-01   9.1783E-01   7.6172E-04  0.0035
   9.1783E-01   9.4016E-01   7.3706E-04  0.0035
   9.4016E-01   9.6304E-01   7.1267E-04  0.0035
   9.6304E-01   9.8647E-01   6.8626E-04  0.0035
   9.8647E-01   1.0105E+00   6.6473E-04  0.0035
   1.0105E+00   1.0351E+00   6.5450E-04  0.0035
   1.0351E+00   1.0602E+00   6.5416E-04  0.0035
   1.0602E+00   1.0860E+00   6.5253E-04  0.0034
   1.0860E+00   1.1125E+00   6.5363E-04  0.0034
   1.1125E+00   1.1395E+00   6.5367E-04  0.0034
   1.1395E+00   1.1673E+00   6.5424E-04  0.0033
   1.1673E+00   1.1957E+00   6.6173E-04  0.0033
   1.1957E+00   1.2247E+00   6.6995E-04  0.0032
   1.2247E+00   1.2545E+00   6.5899E-04  0.0032
   1.2545E+00   1.2851E+00   6.6122E-04  0.0031
   1.2851E+00   1.3163E+00   6.5261E-04  0.0031
   1.3163E+00   1.3484E+00   6.5103E-04  0.0031
   1.3484E+00   1.3812E+00   6.5154E-04  0.0031
   1.3812E+00   1.4148E+00   6.5463E-04  0.0030
   1.4148E+00   1.4492E+00   6.4671E-04  0.0030
   1.4492E+00   1.4845E+00   6.3876E-04  0.0030
   1.4845E+00   1.5206E+00   6.3080E-04  0.0030
   1.5206E+00   1.5576E+00   6.2363E-04  0.0029
   1.5576E+00   1.5955E+00   6.1514E-04  0.0029
   1.5955E+00   1.6343E+00   6.0843E-04  0.0029
   1.6343E+00   1.6741E+00   5.9986E-04  0.0029
   1.6741E+00   1.7148E+00   6.0210E-04  0.0029
   1.7148E+00   1.7565E+00   5.8717E-04  0.0029
   1.7565E+00   1.7992E+00   5.7837E-04  0.0028
   1.7992E+00   1.8430E+00   5.6808E-04  0.0028
   1.8430E+00   1.8879E+00   5.5789E-04  0.0028
   1.8879E+00   1.9338E+00   5.4727E-04  0.0028
   1.9338E+00   1.9808E+00   5.3699E-04  0.0028
   1.9808E+00   2.0290E+00   5.2975E-04  0.0028
   2.0290E+00   2.0784E+00   5.1849E-04  0.0028
   2.0784E+00   2.1290E+00   5.0679E-04  0.0028
   2.1290E+00   2.1808E+00   4.9089E-04  0.0028
   2.1808E+00   2.2338E+00   4.8162E-04  0.0028
   2.2338E+00   2.2882E+00   4.6812E-04  0.0028
   2.2882E+00   2.3439E+00   4.5839E-04  0.0028
   2.3439E+00   2.4009E+00   4.4786E-04  0.0028
   2.4009E+00   2.4593E+00   4.3916E-04  0.0028
   2.4593E+00   2.5191E+00   4.2570E-04  0.0028
   2.5191E+00   2.5804E+00   4.1481E-04  0.0028
   2.5804E+00   2.6432E+00   4.0287E-04  0.0028
   2.6432E+00   2.7075E+00   3.9083E-04  0.0028
   2.7075E+00   2.7734E+00   3.7925E-04  0.0028
   2.7734E+00   2.8409E+00   3.6727E-04  0.0028
   2.8409E+00   2.9100E+00   3.5661E-04  0.0028
   2.9100E+00   2.9808E+00   3.4742E-04  0.0029
   2.9808E+00   3.0533E+00   3.3635E-04  0.0029
   3.0533E+00   3.1276E+00   3.2754E-04  0.0029
   3.1276E+00   3.2037E+00   3.1831E-04  0.0029
   3.2037E+00   3.2817E+00   3.0679E-04  0.0029
   3.2817E+00   3.3615E+00   2.9806E-04  0.0029
   3.3615E+00   3.4433E+00   2.8727E-04  0.0029
   3.4433E+00   3.5271E+00   2.7868E-04  0.0029
   3.5271E+00   3.6129E+00   2.7082E-04  0.0029
   3.6129E+00   3.7008E+00   2.6187E-04  0.0029
   3.7008E+00   3.7908E+00   2.5314E-04  0.0030
   3.7908E+00   3.8831E+00   2.4603E-04  0.0030
   3.8831E+00   3.9776E+00   2.3708E-04  0.0030
   3.9776E+00   4.0743E+00   2.2943E-04  0.0030
   4.0743E+00   4.1735E+00   2.2217E-04  0.0030
   4.1735E+00   4.2750E+00   2.1393E-04  0.0030
   4.2750E+00   4.3790E+00   2.0799E-04  0.0030
   4.3790E+00   4.4856E+00   2.0139E-04  0.0031
   4.4856E+00   4.5947E+00   1.9422E-04  0.0031
   4.5947E+00   4.7065E+00   1.8873E-04  0.0031
   4.7065E+00   4.8210E+00   1.8177E-04  0.0031
   4.8210E+00   4.9383E+00   1.7636E-04  0.0031
   4.9383E+00   5.0585E+00   1.7088E-04  0.0031
   5.0585E+00   5.1815E+00   1.6539E-04  0.0031
   5.1815E+00   5.3076E+00   1.6070E-04  0.0031
   5.3076E+00   5.4368E+00   1.5571E-04  0.0032
   5.4368E+00   5.5690E+00   1.5037E-04  0.0032
   5.5690E+00   5.7045E+00   1.4621E-04  0.0032
   5.7045E+00   5.8433E+00   1.4083E-04  0.0032
   5.8433E+00   5.9855E+00   1.3713E-04  0.0032
   5.9855E+00   6.1311E+00   1.3417E-04  0.0032
   6.1311E+00   6.2803E+00   1.2968E-04  0.0032
   6.2803E+00   6.4331E+00   1.2689E-04  0.0032
   6.4331E+00   6.5896E+00   1.2314E-04  0.0032
   6.5896E+00   6.7500E+00   1.2016E-04  0.0032
   6.7500E+00   6.9142E+00   1.1639E-04  0.0032
   6.9142E+00   7.0824E+00   1.1433E-04  0.0032
   7.0824E+00   7.2548E+00   1.1095E-04  0.0032
   7.2548E+00   7.4313E+00   1.0806E-04  0.0032
   7.4313E+00   7.6121E+00   1.0644E-04  0.0032
   7.6121E+00   7.7973E+00   1.0418E-04  0.0032
   7.7973E+00   7.9870E+00   1.0155E-04  0.0032
   7.9870E+00   8.1813E+00   1.0030E-04  0.0032
   8.1813E+00   8.3804E+00   9.7948E-05  0.0032
   8.3804E+00   8.5843E+00   9.6175E-05  0.0032
   8.5843E+00   8.7931E+00   9.4177E-05  0.0032
   8.7931E+00   9.0071E+00   9.3625E-05  0.0032
   9.0071E+00   9.2262E+00   9.2111E-05  0.0031
   9.2262E+00   9.4507E+00   9.0535E-05  0.0031
   9.4507E+00   9.6807E+00   8.9513E-05  0.0031
   9.6807E+00   9.9162E+00   8.8602E-05  0.0031
   9.9162E+00   1.0157E+01   8.7974E-05  0.0031
   1.0157E+01   1.0405E+01   8.7341E-05  0.0030
   1.0405E+01   1.0658E+01   8.6492E-05  0.0030
   1.0658E+01   1.0917E+01   8.5574E-05  0.0030
   1.0917E+01   1.1183E+01   8.4810E-05  0.0030
   1.1183E+01   1.1455E+01   8.4847E-05  0.0029
   1.1455E+01   1.1733E+01   8.4428E-05  0.0029
   1.1733E+01   1.2019E+01   8.4344E-05  0.0029
   1.2019E+01   1.2311E+01   8.3810E-05  0.0029
   1.2311E+01   1.2611E+01   8.3594E-05  0.0028
   1.2611E+01   1.2918E+01   8.3516E-05  0.0028
   1.2918E+01   1.3232E+01   8.3981E-05  0.0028
   1.3232E+01   1.3554E+01   8.3859E-05  0.0027
   1.3554E+01   1.3884E+01   8.3578E-05  0.0027
   1.3884E+01   1.4222E+01   8.3772E-05  0.0027
   1.4222E+01   1.4568E+01   8.3350E-05  0.0026
   1.4568E+01   1.4922E+01   8.3789E-05  0.0026
   1.4922E+01   1.5285E+01   8.3961E-05  0.0026
   1.5285E+01   1.5657E+01   8.3681E-05  0.0025
   1.5657E+01   1.6038E+01   8.4274E-05  0.0025
   1.6038E+01   1.6428E+01   8.5101E-05  0.0025
   1.6428E+01   1.6828E+01   8.4690E-05  0.0024
   1.6828E+01   1.7237E+01   8.5121E-05  0.0024
   1.7237E+01   1.7657E+01   8.5722E-05  0.0024
   1.7657E+01   1.8086E+01   8.6386E-05  0.0023
   1.8086E+01   1.8526E+01   8.6663E-05  0.0023
   1.8526E+01   1.8977E+01   8.7318E-05  0.0023
   1.8977E+01   1.9439E+01   8.7629E-05  0.0022
   1.9439E+01   1.9912E+01   8.8117E-05  0.0022
   1.9912E+01   2.0396E+01   8.8566E-05  0.0022
   2.0396E+01   2.0893E+01   8.9428E-05  0.0021
   2.0893E+01   2.1401E+01   8.9594E-05  0.0021
   2.1401E+01   2.1922E+01   9.0749E-05  0.0021
   2.1922E+01   2.2455E+01   9.1040E-05  0.0020
   2.2455E+01   2.3001E+01   9.1761E-05  0.0020
   2.3001E+01   2.3561E+01   9.2165E-05  0.0020
   2.3561E+01   2.4134E+01   9.2932E-05  0.0019
   2.4134E+01   2.4721E+01   9.3135E-05  0.0019
   2.4721E+01   2.5323E+01   9.3867E-05  0.0019
   2.5323E+01   2.5939E+01   9.4779E-05  0.0019
   2.5939E+01   2.6570E+01   9.5257E-05  0.0018
   2.6570E+01   2.7217E+01   9.5748E-05  0.0018
   2.7217E+01   2.7879E+01   9.5862E-05  0.0018
   2.7879E+01   2.8557E+01   9.6206E-05  0.0018
   2.8557E+01   2.9252E+01   9.6460E-05  0.0017
   2.9252E+01   2.9964E+01   9.6345E-05  0.0017
   2.9964E+01   3.0693E+01   9.6341E-05  0.0017
   3.0693E+01   3.1440E+01   9.6158E-05  0.0017
   3.1440E+01   3.2205E+01   9.5688E-05  0.0017
   3.2205E+01   3.2988E+01   9.5304E-05  0.0016
   3.2988E+01   3.3791E+01   9.4588E-05  0.0016
   3.3791E+01   3.4613E+01   9.3714E-05  0.0016
   3.4613E+01   3.5455E+01   9.2308E-05  0.0016
   3.5455E+01   3.6318E+01   9.0901E-05  0.0016
   3.6318E+01   3.7201E+01   8.9468E-05  0.0016
   3.7201E+01   3.8106E+01   8.7635E-05  0.0016
   3.8106E+01   3.9034E+01   8.5352E-05  0.0016
   3.9034E+01   3.9983E+01   8.3198E-05  0.0016
   3.9983E+01   4.0956E+01   8.0415E-05  0.0016
   4.0956E+01   4.1953E+01   7.8051E-05  0.0016
   4.1953E+01   4.2973E+01   7.5151E-05  0.0016
   4.2973E+01   4.4019E+01   7.2332E-05  0.0016
   4.4019E+01   4.5090E+01   6.9262E-05  0.0016
   4.5090E+01   4.6187E+01   6.5766E-05  0.0017
   4.6187E+01   4.7311E+01   6.2764E-05  0.0017
   4.7311E+01   4.8462E+01   5.9651E-05  0.0017
   4.8462E+01   4.9641E+01   5.6470E-05  0.0017
   4.9641E+01   5.0849E+01   5.3238E-05  0.0018
   5.0849E+01   5.2086E+01   5.0041E-05  0.0018
   5.2086E+01   5.3353E+01   4.6846E-05  0.0018
   5.3353E+01   5.4651E+01   4.3861E-05  0.0019
   5.4651E+01   5.5981E+01   4.0960E-05  0.0019
   5.5981E+01   5.7343E+01   3.8007E-05  0.0020
   5.7343E+01   5.8738E+01   3.5417E-05  0.0020
   5.8738E+01   6.0168E+01   3.2833E-05  0.0021
   6.0168E+01   6.1632E+01   3.0334E-05  0.0021
   6.1632E+01   6.3131E+01   2.7950E-05  0.0022
   6.3131E+01   6.4667E+01   2.5704E-05  0.0023
   6.4667E+01   6.6240E+01   2.3524E-05  0.0023
   6.6240E+01   6.7852E+01   2.1576E-05  0.0024
   6.7852E+01   6.9503E+01   1.9896E-05  0.0025
   6.9503E+01   7.1194E+01   1.8414E-05  0.0025
   7.1194E+01   7.2926E+01   1.7078E-05  0.0026
   7.2926E+01   7.4701E+01   1.5688E-05  0.0027
   7.4701E+01   7.6518E+01   1.4418E-05  0.0028
   7.6518E+01   7.8380E+01   1.3499E-05  0.0028
   7.8380E+01   8.0287E+01   1.2738E-05  0.0029
   8.0287E+01   8.2240E+01   1.2077E-05  0.0029
   8.2240E+01   8.4241E+01   1.0959E-05  0.0030
   8.4241E+01   8.6291E+01   9.5037E-06  0.0032
   8.6291E+01   8.8391E+01   8.0334E-06  0.0034
   8.8391E+01   9.0541E+01   6.4784E-06  0.0038
   9.0541E+01   9.2744E+01   5.1366E-06  0.0042
   9.2744E+01   9.5001E+01   3.9523E-06  0.0047
   9.5001E+01   9.7312E+01   2.7361E-06  0.0056
   9.7312E+01   9.9680E+01   1.4239E-06  0.0077
   9.9680E+01   1.0211E+02   2.9514E-07  0.0167
   1.0211E+02   1.0459E+02   0.0000E+00  0.0000
   1.0459E+02   1.0713E+02   0.0000E+00  0.0000
   1.0713E+02   1.0974E+02   0.0000E+00  0.0000
   1.0974E+02   1.1241E+02   0.0000E+00  0.0000
   1.1241E+02   1.1515E+02   0.0000E+00  0.0000
   1.1515E+02   1.1795E+02   0.0000E+00  0.0000
   1.1795E+02   1.2082E+02   0.0000E+00  0.0000
   1.2082E+02   1.2376E+02   0.0000E+00  0.0000
   1.2376E+02   1.2677E+02   0.0000E+00  0.0000
   1.2677E+02   1.2985E+02   0.0000E+00  0.0000
   1.2985E+02   1.3301E+02   0.0000E+00  0.0000
   1.3301E+02   1.3625E+02   0.0000E+00  0.0000
   1.3625E+02   1.3956E+02   0.0000E+00  0.0000
   1.3956E+02   1.4296E+02   0.0000E+00  0.0000
   1.4296E+02   1.4644E+02   0.0000E+00  0.0000
   1.4644E+02   1.5000E+02   0.0000E+00  0.0000

#   sum over                 4.8141E-05
'no. =    1   reg = 106 - 206'
msuc: {\huge [t-cross] in region mesh}
msdr: {\it plotted by \ANGEL \version}
msdl: {\it calculated by \PHITS  3.26}
wt: s(0.7)
\vspace{-3}
  region surface crossing
  area  &=&   1.0000E+00 [cm^2]
e:
 
# Information for Restart Calculation
# This calculation was newly started
# istdev =  2 # 1:Batch variance, 2:History variance
# resc2  = 5.00000000000000000E+09 # Total source weight or Total source weight / maxcas
# resc3  = 5.00000000000000000E+09 # Total history number or Total batch number
# maxcas =   500000000 # History / Batch, only used for istdev=1
# bitrseed = 0110100000100010111000001110001111001110100100011111101000111001 # bit data of rseed
