[ T-Cross ]
    title = [t-cross] in region mesh
     mesh =  reg            # mesh type is region-wise
      reg =    1            # number of crossing regions
      non     r-from    r-to       area
      1       105       205        1.000000    
   e-type =    3            # e-mesh is log given by emin, emax and ne
     emin =  1.0000000E-02  # minimum value of e-mesh points
     emax =   150.0000      # maximum value of e-mesh points
#    edel =  2.4039514E-02  # mesh width of e-mesh points
       ne =    400          # number of e-mesh points
#    data = ( e(i), i = 1, ne + 1 )
#           1.00000E-02  1.02433E-02  1.04925E-02  1.07478E-02  1.10093E-02
#           1.12772E-02  1.15516E-02  1.18326E-02  1.21205E-02  1.24154E-02
#           1.27175E-02  1.30269E-02  1.33439E-02  1.36686E-02  1.40011E-02
#           1.43418E-02  1.46907E-02  1.50482E-02  1.54143E-02  1.57894E-02
#           1.61735E-02  1.65670E-02  1.69701E-02  1.73830E-02  1.78060E-02
#           1.82392E-02  1.86830E-02  1.91375E-02  1.96032E-02  2.00801E-02
#           2.05687E-02  2.10692E-02  2.15818E-02  2.21069E-02  2.26448E-02
#           2.31957E-02  2.37601E-02  2.43382E-02  2.49304E-02  2.55369E-02
#           2.61583E-02  2.67947E-02  2.74467E-02  2.81145E-02  2.87985E-02
#           2.94992E-02  3.02169E-02  3.09521E-02  3.17052E-02  3.24766E-02
#           3.32668E-02  3.40762E-02  3.49053E-02  3.57546E-02  3.66246E-02
#           3.75157E-02  3.84284E-02  3.93634E-02  4.03212E-02  4.13022E-02
#           4.23071E-02  4.33365E-02  4.43909E-02  4.54710E-02  4.65773E-02
#           4.77106E-02  4.88714E-02  5.00605E-02  5.12785E-02  5.25262E-02
#           5.38042E-02  5.51133E-02  5.64542E-02  5.78278E-02  5.92348E-02
#           6.06760E-02  6.21523E-02  6.36645E-02  6.52135E-02  6.68002E-02
#           6.84255E-02  7.00904E-02  7.17957E-02  7.35426E-02  7.53319E-02
#           7.71648E-02  7.90423E-02  8.09655E-02  8.29354E-02  8.49533E-02
#           8.70203E-02  8.91376E-02  9.13064E-02  9.35279E-02  9.58035E-02
#           9.81345E-02  1.00522E-01  1.02968E-01  1.05473E-01  1.08040E-01
#           1.10668E-01  1.13361E-01  1.16119E-01  1.18944E-01  1.21838E-01
#           1.24803E-01  1.27839E-01  1.30950E-01  1.34136E-01  1.37399E-01
#           1.40742E-01  1.44167E-01  1.47675E-01  1.51268E-01  1.54948E-01
#           1.58718E-01  1.62580E-01  1.66535E-01  1.70587E-01  1.74738E-01
#           1.78989E-01  1.83344E-01  1.87805E-01  1.92375E-01  1.97055E-01
#           2.01850E-01  2.06761E-01  2.11792E-01  2.16945E-01  2.22223E-01
#           2.27630E-01  2.33169E-01  2.38842E-01  2.44653E-01  2.50605E-01
#           2.56703E-01  2.62949E-01  2.69346E-01  2.75900E-01  2.82613E-01
#           2.89489E-01  2.96532E-01  3.03747E-01  3.11138E-01  3.18708E-01
#           3.26462E-01  3.34405E-01  3.42542E-01  3.50876E-01  3.59413E-01
#           3.68158E-01  3.77116E-01  3.86291E-01  3.95690E-01  4.05317E-01
#           4.15179E-01  4.25281E-01  4.35628E-01  4.46227E-01  4.57084E-01
#           4.68205E-01  4.79597E-01  4.91266E-01  5.03219E-01  5.15463E-01
#           5.28005E-01  5.40851E-01  5.54011E-01  5.67490E-01  5.81298E-01
#           5.95441E-01  6.09929E-01  6.24769E-01  6.39970E-01  6.55541E-01
#           6.71491E-01  6.87828E-01  7.04564E-01  7.21706E-01  7.39266E-01
#           7.57253E-01  7.75678E-01  7.94551E-01  8.13883E-01  8.33685E-01
#           8.53969E-01  8.74747E-01  8.96030E-01  9.17831E-01  9.40163E-01
#           9.63038E-01  9.86469E-01  1.01047E+00  1.03506E+00  1.06024E+00
#           1.08604E+00  1.11246E+00  1.13953E+00  1.16725E+00  1.19565E+00
#           1.22474E+00  1.25454E+00  1.28507E+00  1.31633E+00  1.34836E+00
#           1.38117E+00  1.41477E+00  1.44920E+00  1.48446E+00  1.52057E+00
#           1.55757E+00  1.59547E+00  1.63429E+00  1.67405E+00  1.71478E+00
#           1.75650E+00  1.79924E+00  1.84302E+00  1.88786E+00  1.93379E+00
#           1.98084E+00  2.02904E+00  2.07841E+00  2.12898E+00  2.18078E+00
#           2.23384E+00  2.28819E+00  2.34386E+00  2.40089E+00  2.45930E+00
#           2.51914E+00  2.58043E+00  2.64322E+00  2.70753E+00  2.77341E+00
#           2.84088E+00  2.91001E+00  2.98081E+00  3.05333E+00  3.12762E+00
#           3.20372E+00  3.28167E+00  3.36152E+00  3.44330E+00  3.52708E+00
#           3.61290E+00  3.70080E+00  3.79085E+00  3.88308E+00  3.97756E+00
#           4.07434E+00  4.17347E+00  4.27501E+00  4.37903E+00  4.48557E+00
#           4.59471E+00  4.70650E+00  4.82102E+00  4.93832E+00  5.05847E+00
#           5.18155E+00  5.30762E+00  5.43676E+00  5.56904E+00  5.70453E+00
#           5.84333E+00  5.98550E+00  6.13114E+00  6.28031E+00  6.43312E+00
#           6.58964E+00  6.74997E+00  6.91420E+00  7.08243E+00  7.25475E+00
#           7.43126E+00  7.61207E+00  7.79728E+00  7.98700E+00  8.18133E+00
#           8.38038E+00  8.58428E+00  8.79315E+00  9.00709E+00  9.22624E+00
#           9.45072E+00  9.68067E+00  9.91620E+00  1.01575E+01  1.04046E+01
#           1.06578E+01  1.09171E+01  1.11827E+01  1.14548E+01  1.17335E+01
#           1.20190E+01  1.23114E+01  1.26109E+01  1.29178E+01  1.32321E+01
#           1.35540E+01  1.38838E+01  1.42216E+01  1.45676E+01  1.49221E+01
#           1.52851E+01  1.56570E+01  1.60380E+01  1.64282E+01  1.68279E+01
#           1.72374E+01  1.76568E+01  1.80864E+01  1.85264E+01  1.89772E+01
#           1.94389E+01  1.99119E+01  2.03963E+01  2.08926E+01  2.14009E+01
#           2.19216E+01  2.24550E+01  2.30014E+01  2.35610E+01  2.41343E+01
#           2.47215E+01  2.53230E+01  2.59391E+01  2.65702E+01  2.72167E+01
#           2.78789E+01  2.85572E+01  2.92520E+01  2.99637E+01  3.06928E+01
#           3.14396E+01  3.22045E+01  3.29881E+01  3.37907E+01  3.46128E+01
#           3.54550E+01  3.63177E+01  3.72013E+01  3.81064E+01  3.90336E+01
#           3.99833E+01  4.09561E+01  4.19526E+01  4.29734E+01  4.40189E+01
#           4.50900E+01  4.61870E+01  4.73108E+01  4.84619E+01  4.96410E+01
#           5.08488E+01  5.20860E+01  5.33533E+01  5.46514E+01  5.59812E+01
#           5.73432E+01  5.87384E+01  6.01676E+01  6.16315E+01  6.31311E+01
#           6.46671E+01  6.62405E+01  6.78522E+01  6.95031E+01  7.11941E+01
#           7.29263E+01  7.47007E+01  7.65182E+01  7.83800E+01  8.02870E+01
#           8.22405E+01  8.42414E+01  8.62911E+01  8.83906E+01  9.05412E+01
#           9.27442E+01  9.50007E+01  9.73122E+01  9.96799E+01  1.02105E+02
#           1.04589E+02  1.07134E+02  1.09741E+02  1.12411E+02  1.15146E+02
#           1.17948E+02  1.20817E+02  1.23757E+02  1.26768E+02  1.29852E+02
#           1.33012E+02  1.36248E+02  1.39563E+02  1.42959E+02  1.46437E+02
#           1.50000E+02
     unit =    2            # unit is [1/cm^2/(MeV/n)/source]
     axis =  eng            # axis of output
     file = detector-06.out  # file name of output for the above axis
   output = f-curr          # surface crossing forward current spectrum
     part =  neutron  
# kf/name :  2112     
#    used :        main (  %)        temp (  %)       total (  %)
#  memory :         414 (  0)           0 (  0)         414 (  0)

#------------------------------------------------------------------------------
#newpage:
#   no. =    1   reg = 105 - 205

x: Energy [MeV/n]
y:  F-Curr [1/cm^2/(MeV/n)/source]         
p: xlog ylog afac(0.8) form(0.9)
h: n            x            y(neutron ),hh0l   n 
#  e-lower      e-upper      neutron     r.err 
   1.0000E-02   1.0243E-02   3.8223E-04  0.0599
   1.0243E-02   1.0493E-02   3.5577E-04  0.0613
   1.0493E-02   1.0748E-02   3.2512E-04  0.0634
   1.0748E-02   1.1009E-02   3.7731E-04  0.0581
   1.1009E-02   1.1277E-02   3.7457E-04  0.0576
   1.1277E-02   1.1552E-02   3.2436E-04  0.0612
   1.1552E-02   1.1833E-02   3.2022E-04  0.0609
   1.1833E-02   1.2121E-02   3.5198E-04  0.0574
   1.2121E-02   1.2415E-02   3.5605E-04  0.0563
   1.2415E-02   1.2718E-02   3.7077E-04  0.0546
   1.2718E-02   1.3027E-02   3.6196E-04  0.0546
   1.3027E-02   1.3344E-02   3.4705E-04  0.0550
   1.3344E-02   1.3669E-02   3.4189E-04  0.0548
   1.3669E-02   1.4001E-02   3.7286E-04  0.0518
   1.4001E-02   1.4342E-02   3.6009E-04  0.0521
   1.4342E-02   1.4691E-02   3.9452E-04  0.0492
   1.4691E-02   1.5048E-02   3.3945E-04  0.0524
   1.5048E-02   1.5414E-02   3.8328E-04  0.0487
   1.5414E-02   1.5789E-02   3.8662E-04  0.0479
   1.5789E-02   1.6174E-02   3.6442E-04  0.0488
   1.6174E-02   1.6567E-02   3.9558E-04  0.0463
   1.6567E-02   1.6970E-02   3.9445E-04  0.0458
   1.6970E-02   1.7383E-02   3.8993E-04  0.0455
   1.7383E-02   1.7806E-02   3.9328E-04  0.0448
   1.7806E-02   1.8239E-02   3.5316E-04  0.0467
   1.8239E-02   1.8683E-02   3.7031E-04  0.0450
   1.8683E-02   1.9138E-02   3.8718E-04  0.0435
   1.9138E-02   1.9603E-02   3.9659E-04  0.0425
   1.9603E-02   2.0080E-02   3.8857E-04  0.0424
   2.0080E-02   2.0569E-02   4.0527E-04  0.0410
   2.0569E-02   2.1069E-02   3.8232E-04  0.0417
   2.1069E-02   2.1582E-02   4.1485E-04  0.0396
   2.1582E-02   2.2107E-02   4.0119E-04  0.0398
   2.2107E-02   2.2645E-02   4.1955E-04  0.0384
   2.2645E-02   2.3196E-02   3.8296E-04  0.0397
   2.3196E-02   2.3760E-02   3.6087E-04  0.0405
   2.3760E-02   2.4338E-02   3.8459E-04  0.0387
   2.4338E-02   2.4930E-02   3.8728E-04  0.0381
   2.4930E-02   2.5537E-02   4.0665E-04  0.0368
   2.5537E-02   2.6158E-02   3.9753E-04  0.0367
   2.6158E-02   2.6795E-02   4.2920E-04  0.0349
   2.6795E-02   2.7447E-02   3.9932E-04  0.0358
   2.7447E-02   2.8114E-02   4.0232E-04  0.0352
   2.8114E-02   2.8799E-02   3.9812E-04  0.0350
   2.8799E-02   2.9499E-02   4.1626E-04  0.0338
   2.9499E-02   3.0217E-02   3.8965E-04  0.0345
   3.0217E-02   3.0952E-02   3.8289E-04  0.0344
   3.0952E-02   3.1705E-02   3.9924E-04  0.0333
   3.1705E-02   3.2477E-02   3.9019E-04  0.0333
   3.2477E-02   3.3267E-02   4.1298E-04  0.0320
   3.3267E-02   3.4076E-02   4.0318E-04  0.0320
   3.4076E-02   3.4905E-02   3.9762E-04  0.0318
   3.4905E-02   3.5755E-02   4.2742E-04  0.0303
   3.5755E-02   3.6625E-02   4.3260E-04  0.0298
   3.6625E-02   3.7516E-02   4.0250E-04  0.0305
   3.7516E-02   3.8428E-02   4.2708E-04  0.0292
   3.8428E-02   3.9363E-02   4.2246E-04  0.0290
   3.9363E-02   4.0321E-02   4.1417E-04  0.0290
   4.0321E-02   4.1302E-02   3.9108E-04  0.0295
   4.1302E-02   4.2307E-02   4.2259E-04  0.0280
   4.2307E-02   4.3337E-02   4.0510E-04  0.0283
   4.3337E-02   4.4391E-02   4.1066E-04  0.0277
   4.4391E-02   4.5471E-02   4.1942E-04  0.0271
   4.5471E-02   4.6577E-02   3.9951E-04  0.0275
   4.6577E-02   4.7711E-02   4.2914E-04  0.0262
   4.7711E-02   4.8871E-02   4.2441E-04  0.0260
   4.8871E-02   5.0061E-02   4.1573E-04  0.0260
   5.0061E-02   5.1279E-02   4.1461E-04  0.0257
   5.1279E-02   5.2526E-02   4.1732E-04  0.0253
   5.2526E-02   5.3804E-02   4.1080E-04  0.0252
   5.3804E-02   5.5113E-02   4.3516E-04  0.0242
   5.5113E-02   5.6454E-02   4.2209E-04  0.0243
   5.6454E-02   5.7828E-02   4.2978E-04  0.0238
   5.7828E-02   5.9235E-02   4.2786E-04  0.0235
   5.9235E-02   6.0676E-02   4.3412E-04  0.0231
   6.0676E-02   6.2152E-02   4.4119E-04  0.0226
   6.2152E-02   6.3665E-02   4.3358E-04  0.0225
   6.3665E-02   6.5214E-02   4.2178E-04  0.0226
   6.5214E-02   6.6800E-02   4.1764E-04  0.0224
   6.6800E-02   6.8426E-02   4.3397E-04  0.0217
   6.8426E-02   7.0090E-02   4.4729E-04  0.0212
   7.0090E-02   7.1796E-02   4.3608E-04  0.0212
   7.1796E-02   7.3543E-02   4.5568E-04  0.0205
   7.3543E-02   7.5332E-02   4.4187E-04  0.0205
   7.5332E-02   7.7165E-02   4.3993E-04  0.0203
   7.7165E-02   7.9042E-02   4.3889E-04  0.0201
   7.9042E-02   8.0965E-02   4.4709E-04  0.0197
   8.0965E-02   8.2935E-02   4.5449E-04  0.0193
   8.2935E-02   8.4953E-02   4.5212E-04  0.0191
   8.4953E-02   8.7020E-02   4.5719E-04  0.0188
   8.7020E-02   8.9138E-02   4.7372E-04  0.0182
   8.9138E-02   9.1306E-02   4.6293E-04  0.0182
   9.1306E-02   9.3528E-02   4.6799E-04  0.0179
   9.3528E-02   9.5804E-02   4.5504E-04  0.0179
   9.5804E-02   9.8134E-02   4.5646E-04  0.0177
   9.8134E-02   1.0052E-01   4.6572E-04  0.0173
   1.0052E-01   1.0297E-01   4.8069E-04  0.0168
   1.0297E-01   1.0547E-01   4.8205E-04  0.0166
   1.0547E-01   1.0804E-01   4.7241E-04  0.0166
   1.0804E-01   1.1067E-01   4.7451E-04  0.0163
   1.1067E-01   1.1336E-01   4.7840E-04  0.0161
   1.1336E-01   1.1612E-01   4.7242E-04  0.0160
   1.1612E-01   1.1894E-01   4.8090E-04  0.0157
   1.1894E-01   1.2184E-01   4.8168E-04  0.0155
   1.2184E-01   1.2480E-01   4.9639E-04  0.0151
   1.2480E-01   1.2784E-01   4.8042E-04  0.0151
   1.2784E-01   1.3095E-01   4.9436E-04  0.0147
   1.3095E-01   1.3414E-01   4.8649E-04  0.0147
   1.3414E-01   1.3740E-01   4.9556E-04  0.0144
   1.3740E-01   1.4074E-01   4.8748E-04  0.0143
   1.4074E-01   1.4417E-01   4.9995E-04  0.0140
   1.4417E-01   1.4767E-01   4.9795E-04  0.0138
   1.4767E-01   1.5127E-01   5.0264E-04  0.0136
   1.5127E-01   1.5495E-01   5.0293E-04  0.0134
   1.5495E-01   1.5872E-01   4.9107E-04  0.0134
   1.5872E-01   1.6258E-01   4.9874E-04  0.0132
   1.6258E-01   1.6654E-01   5.1141E-04  0.0128
   1.6654E-01   1.7059E-01   5.0828E-04  0.0127
   1.7059E-01   1.7474E-01   5.1234E-04  0.0125
   1.7474E-01   1.7899E-01   5.1017E-04  0.0124
   1.7899E-01   1.8334E-01   5.1941E-04  0.0121
   1.8334E-01   1.8781E-01   5.2295E-04  0.0120
   1.8781E-01   1.9237E-01   5.0203E-04  0.0121
   1.9237E-01   1.9706E-01   5.2472E-04  0.0116
   1.9706E-01   2.0185E-01   5.1907E-04  0.0116
   2.0185E-01   2.0676E-01   5.2398E-04  0.0114
   2.0676E-01   2.1179E-01   5.2472E-04  0.0112
   2.1179E-01   2.1694E-01   5.2771E-04  0.0111
   2.1694E-01   2.2222E-01   5.2257E-04  0.0110
   2.2222E-01   2.2763E-01   5.2732E-04  0.0108
   2.2763E-01   2.3317E-01   5.2229E-04  0.0107
   2.3317E-01   2.3884E-01   5.3553E-04  0.0105
   2.3884E-01   2.4465E-01   5.3385E-04  0.0104
   2.4465E-01   2.5061E-01   5.3355E-04  0.0102
   2.5061E-01   2.5670E-01   5.3842E-04  0.0101
   2.5670E-01   2.6295E-01   5.3137E-04  0.0100
   2.6295E-01   2.6935E-01   5.4819E-04  0.0097
   2.6935E-01   2.7590E-01   5.4725E-04  0.0096
   2.7590E-01   2.8261E-01   5.4656E-04  0.0095
   2.8261E-01   2.8949E-01   5.4846E-04  0.0094
   2.8949E-01   2.9653E-01   5.3977E-04  0.0094
   2.9653E-01   3.0375E-01   5.4635E-04  0.0092
   3.0375E-01   3.1114E-01   5.5333E-04  0.0090
   3.1114E-01   3.1871E-01   5.5296E-04  0.0089
   3.1871E-01   3.2646E-01   5.4178E-04  0.0089
   3.2646E-01   3.3441E-01   5.4758E-04  0.0088
   3.3441E-01   3.4254E-01   5.4865E-04  0.0086
   3.4254E-01   3.5088E-01   5.4872E-04  0.0085
   3.5088E-01   3.5941E-01   5.4761E-04  0.0084
   3.5941E-01   3.6816E-01   5.5124E-04  0.0083
   3.6816E-01   3.7712E-01   5.4840E-04  0.0082
   3.7712E-01   3.8629E-01   5.5219E-04  0.0081
   3.8629E-01   3.9569E-01   5.5575E-04  0.0080
   3.9569E-01   4.0532E-01   5.5681E-04  0.0079
   4.0532E-01   4.1518E-01   5.4639E-04  0.0079
   4.1518E-01   4.2528E-01   5.4778E-04  0.0078
   4.2528E-01   4.3563E-01   5.4010E-04  0.0077
   4.3563E-01   4.4623E-01   5.4751E-04  0.0076
   4.4623E-01   4.5708E-01   5.4144E-04  0.0075
   4.5708E-01   4.6821E-01   5.4107E-04  0.0074
   4.6821E-01   4.7960E-01   5.4223E-04  0.0073
   4.7960E-01   4.9127E-01   5.3519E-04  0.0073
   4.9127E-01   5.0322E-01   5.4165E-04  0.0072
   5.0322E-01   5.1546E-01   5.2779E-04  0.0072
   5.1546E-01   5.2800E-01   5.3410E-04  0.0071
   5.2800E-01   5.4085E-01   5.3017E-04  0.0070
   5.4085E-01   5.5401E-01   5.2173E-04  0.0070
   5.5401E-01   5.6749E-01   5.1729E-04  0.0069
   5.6749E-01   5.8130E-01   5.1500E-04  0.0068
   5.8130E-01   5.9544E-01   5.0873E-04  0.0068
   5.9544E-01   6.0993E-01   5.0428E-04  0.0068
   6.0993E-01   6.2477E-01   4.9891E-04  0.0067
   6.2477E-01   6.3997E-01   4.9974E-04  0.0066
   6.3997E-01   6.5554E-01   4.8814E-04  0.0066
   6.5554E-01   6.7149E-01   4.8072E-04  0.0066
   6.7149E-01   6.8783E-01   4.7453E-04  0.0066
   6.8783E-01   7.0456E-01   4.7171E-04  0.0065
   7.0456E-01   7.2171E-01   4.6349E-04  0.0065
   7.2171E-01   7.3927E-01   4.4999E-04  0.0065
   7.3927E-01   7.5725E-01   4.4849E-04  0.0064
   7.5725E-01   7.7568E-01   4.3666E-04  0.0064
   7.7568E-01   7.9455E-01   4.3164E-04  0.0064
   7.9455E-01   8.1388E-01   4.1450E-04  0.0065
   8.1388E-01   8.3368E-01   4.1039E-04  0.0064
   8.3368E-01   8.5397E-01   3.9052E-04  0.0065
   8.5397E-01   8.7475E-01   3.8216E-04  0.0065
   8.7475E-01   8.9603E-01   3.7551E-04  0.0065
   8.9603E-01   9.1783E-01   3.5861E-04  0.0065
   9.1783E-01   9.4016E-01   3.5335E-04  0.0065
   9.4016E-01   9.6304E-01   3.3299E-04  0.0066
   9.6304E-01   9.8647E-01   3.2030E-04  0.0067
   9.8647E-01   1.0105E+00   3.0831E-04  0.0067
   1.0105E+00   1.0351E+00   3.0832E-04  0.0066
   1.0351E+00   1.0602E+00   3.1019E-04  0.0065
   1.0602E+00   1.0860E+00   3.0929E-04  0.0065
   1.0860E+00   1.1125E+00   3.1259E-04  0.0064
   1.1125E+00   1.1395E+00   3.1562E-04  0.0062
   1.1395E+00   1.1673E+00   3.1863E-04  0.0061
   1.1673E+00   1.1957E+00   3.2325E-04  0.0060
   1.1957E+00   1.2247E+00   3.2711E-04  0.0059
   1.2247E+00   1.2545E+00   3.2380E-04  0.0059
   1.2545E+00   1.2851E+00   3.2139E-04  0.0058
   1.2851E+00   1.3163E+00   3.2601E-04  0.0057
   1.3163E+00   1.3484E+00   3.2511E-04  0.0057
   1.3484E+00   1.3812E+00   3.2502E-04  0.0056
   1.3812E+00   1.4148E+00   3.2954E-04  0.0055
   1.4148E+00   1.4492E+00   3.2968E-04  0.0054
   1.4492E+00   1.4845E+00   3.2585E-04  0.0054
   1.4845E+00   1.5206E+00   3.1967E-04  0.0054
   1.5206E+00   1.5576E+00   3.1619E-04  0.0053
   1.5576E+00   1.5955E+00   3.1212E-04  0.0053
   1.5955E+00   1.6343E+00   3.1099E-04  0.0053
   1.6343E+00   1.6741E+00   3.0804E-04  0.0052
   1.6741E+00   1.7148E+00   3.0594E-04  0.0052
   1.7148E+00   1.7565E+00   3.0379E-04  0.0051
   1.7565E+00   1.7992E+00   3.0278E-04  0.0051
   1.7992E+00   1.8430E+00   2.9460E-04  0.0051
   1.8430E+00   1.8879E+00   2.9247E-04  0.0050
   1.8879E+00   1.9338E+00   2.8657E-04  0.0050
   1.9338E+00   1.9808E+00   2.8076E-04  0.0050
   1.9808E+00   2.0290E+00   2.7926E-04  0.0050
   2.0290E+00   2.0784E+00   2.7321E-04  0.0050
   2.0784E+00   2.1290E+00   2.7131E-04  0.0049
   2.1290E+00   2.1808E+00   2.6048E-04  0.0050
   2.1808E+00   2.2338E+00   2.5445E-04  0.0050
   2.2338E+00   2.2882E+00   2.4906E-04  0.0050
   2.2882E+00   2.3439E+00   2.4299E-04  0.0050
   2.3439E+00   2.4009E+00   2.3699E-04  0.0050
   2.4009E+00   2.4593E+00   2.3438E-04  0.0049
   2.4593E+00   2.5191E+00   2.2452E-04  0.0050
   2.5191E+00   2.5804E+00   2.1964E-04  0.0050
   2.5804E+00   2.6432E+00   2.1187E-04  0.0050
   2.6432E+00   2.7075E+00   2.0482E-04  0.0050
   2.7075E+00   2.7734E+00   1.9906E-04  0.0050
   2.7734E+00   2.8409E+00   1.9408E-04  0.0050
   2.8409E+00   2.9100E+00   1.8602E-04  0.0051
   2.9100E+00   2.9808E+00   1.8023E-04  0.0051
   2.9808E+00   3.0533E+00   1.7761E-04  0.0051
   3.0533E+00   3.1276E+00   1.7232E-04  0.0051
   3.1276E+00   3.2037E+00   1.6633E-04  0.0051
   3.2037E+00   3.2817E+00   1.6054E-04  0.0052
   3.2817E+00   3.3615E+00   1.5527E-04  0.0052
   3.3615E+00   3.4433E+00   1.4842E-04  0.0052
   3.4433E+00   3.5271E+00   1.4374E-04  0.0053
   3.5271E+00   3.6129E+00   1.3920E-04  0.0053
   3.6129E+00   3.7008E+00   1.3365E-04  0.0053
   3.7008E+00   3.7908E+00   1.2959E-04  0.0053
   3.7908E+00   3.8831E+00   1.2567E-04  0.0054
   3.8831E+00   3.9776E+00   1.2097E-04  0.0054
   3.9776E+00   4.0743E+00   1.1872E-04  0.0054
   4.0743E+00   4.1735E+00   1.1543E-04  0.0054
   4.1735E+00   4.2750E+00   1.1130E-04  0.0054
   4.2750E+00   4.3790E+00   1.0718E-04  0.0055
   4.3790E+00   4.4856E+00   1.0311E-04  0.0055
   4.4856E+00   4.5947E+00   9.9911E-05  0.0055
   4.5947E+00   4.7065E+00   9.7153E-05  0.0055
   4.7065E+00   4.8210E+00   9.3791E-05  0.0056
   4.8210E+00   4.9383E+00   9.0681E-05  0.0056
   4.9383E+00   5.0585E+00   8.8816E-05  0.0056
   5.0585E+00   5.1815E+00   8.5585E-05  0.0056
   5.1815E+00   5.3076E+00   8.3783E-05  0.0056
   5.3076E+00   5.4368E+00   8.0632E-05  0.0057
   5.4368E+00   5.5690E+00   7.8553E-05  0.0057
   5.5690E+00   5.7045E+00   7.5630E-05  0.0057
   5.7045E+00   5.8433E+00   7.4706E-05  0.0057
   5.8433E+00   5.9855E+00   7.1712E-05  0.0057
   5.9855E+00   6.1311E+00   7.0224E-05  0.0057
   6.1311E+00   6.2803E+00   6.8459E-05  0.0057
   6.2803E+00   6.4331E+00   6.7185E-05  0.0057
   6.4331E+00   6.5896E+00   6.5878E-05  0.0057
   6.5896E+00   6.7500E+00   6.3229E-05  0.0057
   6.7500E+00   6.9142E+00   6.2618E-05  0.0057
   6.9142E+00   7.0824E+00   6.2315E-05  0.0056
   7.0824E+00   7.2548E+00   6.0715E-05  0.0056
   7.2548E+00   7.4313E+00   5.8590E-05  0.0057
   7.4313E+00   7.6121E+00   5.8253E-05  0.0056
   7.6121E+00   7.7973E+00   5.6751E-05  0.0056
   7.7973E+00   7.9870E+00   5.6887E-05  0.0056
   7.9870E+00   8.1813E+00   5.5844E-05  0.0055
   8.1813E+00   8.3804E+00   5.4457E-05  0.0055
   8.3804E+00   8.5843E+00   5.4347E-05  0.0055
   8.5843E+00   8.7931E+00   5.4028E-05  0.0054
   8.7931E+00   9.0071E+00   5.3287E-05  0.0054
   9.0071E+00   9.2262E+00   5.2410E-05  0.0054
   9.2262E+00   9.4507E+00   5.2306E-05  0.0053
   9.4507E+00   9.6807E+00   5.2564E-05  0.0053
   9.6807E+00   9.9162E+00   5.2147E-05  0.0052
   9.9162E+00   1.0157E+01   5.2326E-05  0.0051
   1.0157E+01   1.0405E+01   5.1933E-05  0.0051
   1.0405E+01   1.0658E+01   5.1645E-05  0.0050
   1.0658E+01   1.0917E+01   5.2047E-05  0.0050
   1.0917E+01   1.1183E+01   5.2317E-05  0.0049
   1.1183E+01   1.1455E+01   5.2513E-05  0.0048
   1.1455E+01   1.1733E+01   5.2526E-05  0.0048
   1.1733E+01   1.2019E+01   5.3019E-05  0.0047
   1.2019E+01   1.2311E+01   5.3613E-05  0.0046
   1.2311E+01   1.2611E+01   5.3930E-05  0.0045
   1.2611E+01   1.2918E+01   5.4324E-05  0.0045
   1.2918E+01   1.3232E+01   5.5238E-05  0.0044
   1.3232E+01   1.3554E+01   5.5732E-05  0.0043
   1.3554E+01   1.3884E+01   5.5847E-05  0.0043
   1.3884E+01   1.4222E+01   5.7108E-05  0.0042
   1.4222E+01   1.4568E+01   5.8183E-05  0.0041
   1.4568E+01   1.4922E+01   5.8887E-05  0.0040
   1.4922E+01   1.5285E+01   5.9934E-05  0.0039
   1.5285E+01   1.5657E+01   6.0762E-05  0.0038
   1.5657E+01   1.6038E+01   6.2073E-05  0.0038
   1.6038E+01   1.6428E+01   6.3369E-05  0.0037
   1.6428E+01   1.6828E+01   6.4560E-05  0.0036
   1.6828E+01   1.7237E+01   6.6513E-05  0.0035
   1.7237E+01   1.7657E+01   6.7668E-05  0.0034
   1.7657E+01   1.8086E+01   6.9670E-05  0.0033
   1.8086E+01   1.8526E+01   7.1340E-05  0.0033
   1.8526E+01   1.8977E+01   7.3588E-05  0.0032
   1.8977E+01   1.9439E+01   7.5793E-05  0.0031
   1.9439E+01   1.9912E+01   7.8052E-05  0.0030
   1.9912E+01   2.0396E+01   8.0517E-05  0.0029
   2.0396E+01   2.0893E+01   8.3168E-05  0.0028
   2.0893E+01   2.1401E+01   8.5887E-05  0.0028
   2.1401E+01   2.1922E+01   8.8504E-05  0.0027
   2.1922E+01   2.2455E+01   9.1727E-05  0.0026
   2.2455E+01   2.3001E+01   9.4171E-05  0.0025
   2.3001E+01   2.3561E+01   9.7378E-05  0.0025
   2.3561E+01   2.4134E+01   1.0020E-04  0.0024
   2.4134E+01   2.4721E+01   1.0355E-04  0.0023
   2.4721E+01   2.5323E+01   1.0676E-04  0.0023
   2.5323E+01   2.5939E+01   1.0977E-04  0.0022
   2.5939E+01   2.6570E+01   1.1300E-04  0.0022
   2.6570E+01   2.7217E+01   1.1569E-04  0.0021
   2.7217E+01   2.7879E+01   1.1860E-04  0.0021
   2.7879E+01   2.8557E+01   1.2139E-04  0.0020
   2.8557E+01   2.9252E+01   1.2344E-04  0.0020
   2.9252E+01   2.9964E+01   1.2670E-04  0.0019
   2.9964E+01   3.0693E+01   1.2764E-04  0.0019
   3.0693E+01   3.1440E+01   1.2969E-04  0.0019
   3.1440E+01   3.2205E+01   1.3038E-04  0.0018
   3.2205E+01   3.2988E+01   1.3133E-04  0.0018
   3.2988E+01   3.3791E+01   1.3113E-04  0.0018
   3.3791E+01   3.4613E+01   1.3115E-04  0.0018
   3.4613E+01   3.5455E+01   1.3008E-04  0.0017
   3.5455E+01   3.6318E+01   1.2831E-04  0.0017
   3.6318E+01   3.7201E+01   1.2647E-04  0.0017
   3.7201E+01   3.8106E+01   1.2424E-04  0.0017
   3.8106E+01   3.9034E+01   1.2116E-04  0.0017
   3.9034E+01   3.9983E+01   1.1738E-04  0.0017
   3.9983E+01   4.0956E+01   1.1335E-04  0.0017
   4.0956E+01   4.1953E+01   1.0934E-04  0.0017
   4.1953E+01   4.2973E+01   1.0428E-04  0.0018
   4.2973E+01   4.4019E+01   9.9077E-05  0.0018
   4.4019E+01   4.5090E+01   9.3644E-05  0.0018
   4.5090E+01   4.6187E+01   8.8133E-05  0.0019
   4.6187E+01   4.7311E+01   8.2575E-05  0.0019
   4.7311E+01   4.8462E+01   7.7190E-05  0.0019
   4.8462E+01   4.9641E+01   7.1817E-05  0.0020
   4.9641E+01   5.0849E+01   6.6550E-05  0.0020
   5.0849E+01   5.2086E+01   6.1536E-05  0.0021
   5.2086E+01   5.3353E+01   5.6648E-05  0.0022
   5.3353E+01   5.4651E+01   5.2079E-05  0.0022
   5.4651E+01   5.5981E+01   4.7661E-05  0.0023
   5.5981E+01   5.7343E+01   4.3673E-05  0.0024
   5.7343E+01   5.8738E+01   3.9613E-05  0.0025
   5.8738E+01   6.0168E+01   3.6008E-05  0.0025
   6.0168E+01   6.1632E+01   3.2894E-05  0.0026
   6.1632E+01   6.3131E+01   2.9880E-05  0.0027
   6.3131E+01   6.4667E+01   2.7261E-05  0.0028
   6.4667E+01   6.6240E+01   2.4606E-05  0.0029
   6.6240E+01   6.7852E+01   2.1774E-05  0.0031
   6.7852E+01   6.9503E+01   1.9405E-05  0.0032
   6.9503E+01   7.1194E+01   1.7077E-05  0.0034
   7.1194E+01   7.2926E+01   1.4931E-05  0.0036
   7.2926E+01   7.4701E+01   1.3226E-05  0.0038
   7.4701E+01   7.6518E+01   1.1498E-05  0.0040
   7.6518E+01   7.8380E+01   1.0103E-05  0.0042
   7.8380E+01   8.0287E+01   8.7315E-06  0.0045
   8.0287E+01   8.2240E+01   7.5045E-06  0.0048
   8.2240E+01   8.4241E+01   6.3764E-06  0.0051
   8.4241E+01   8.6291E+01   5.1813E-06  0.0056
   8.6291E+01   8.8391E+01   4.1455E-06  0.0062
   8.8391E+01   9.0541E+01   3.1940E-06  0.0070
   9.0541E+01   9.2744E+01   2.4242E-06  0.0079
   9.2744E+01   9.5001E+01   1.4134E-06  0.0102
   9.5001E+01   9.7312E+01   5.4612E-07  0.0162
   9.7312E+01   9.9680E+01   1.6753E-08  0.0917
   9.9680E+01   1.0211E+02   0.0000E+00  0.0000
   1.0211E+02   1.0459E+02   0.0000E+00  0.0000
   1.0459E+02   1.0713E+02   0.0000E+00  0.0000
   1.0713E+02   1.0974E+02   0.0000E+00  0.0000
   1.0974E+02   1.1241E+02   0.0000E+00  0.0000
   1.1241E+02   1.1515E+02   0.0000E+00  0.0000
   1.1515E+02   1.1795E+02   0.0000E+00  0.0000
   1.1795E+02   1.2082E+02   0.0000E+00  0.0000
   1.2082E+02   1.2376E+02   0.0000E+00  0.0000
   1.2376E+02   1.2677E+02   0.0000E+00  0.0000
   1.2677E+02   1.2985E+02   0.0000E+00  0.0000
   1.2985E+02   1.3301E+02   0.0000E+00  0.0000
   1.3301E+02   1.3625E+02   0.0000E+00  0.0000
   1.3625E+02   1.3956E+02   0.0000E+00  0.0000
   1.3956E+02   1.4296E+02   0.0000E+00  0.0000
   1.4296E+02   1.4644E+02   0.0000E+00  0.0000
   1.4644E+02   1.5000E+02   0.0000E+00  0.0000

#   sum over                 4.2400E-05
'no. =    1   reg = 105 - 205'
msuc: {\huge [t-cross] in region mesh}
msdr: {\it plotted by \ANGEL \version}
msdl: {\it calculated by \PHITS  3.26}
wt: s(0.7)
\vspace{-3}
  region surface crossing
  area  &=&   1.0000E+00 [cm^2]
e:
 
# Information for Restart Calculation
# This calculation was newly started
# istdev =  2 # 1:Batch variance, 2:History variance
# resc2  = 3.00000000000000000E+09 # Total source weight or Total source weight / maxcas
# resc3  = 3.00000000000000000E+09 # Total history number or Total batch number
# maxcas =   500000000 # History / Batch, only used for istdev=1
# bitrseed = 0110110011111001100110101011100000010010001000001101100100111101 # bit data of rseed
