[ T-Cross ]
    title = [t-cross] in region mesh
     mesh =  reg            # mesh type is region-wise
      reg =    1            # number of crossing regions
      non     r-from    r-to       area
      1       100       200        1.000000    
   e-type =    3            # e-mesh is log given by emin, emax and ne
     emin =  1.0000000E-02  # minimum value of e-mesh points
     emax =   150.0000      # maximum value of e-mesh points
#    edel =  2.4039514E-02  # mesh width of e-mesh points
       ne =    400          # number of e-mesh points
#    data = ( e(i), i = 1, ne + 1 )
#           1.00000E-02  1.02433E-02  1.04925E-02  1.07478E-02  1.10093E-02
#           1.12772E-02  1.15516E-02  1.18326E-02  1.21205E-02  1.24154E-02
#           1.27175E-02  1.30269E-02  1.33439E-02  1.36686E-02  1.40011E-02
#           1.43418E-02  1.46907E-02  1.50482E-02  1.54143E-02  1.57894E-02
#           1.61735E-02  1.65670E-02  1.69701E-02  1.73830E-02  1.78060E-02
#           1.82392E-02  1.86830E-02  1.91375E-02  1.96032E-02  2.00801E-02
#           2.05687E-02  2.10692E-02  2.15818E-02  2.21069E-02  2.26448E-02
#           2.31957E-02  2.37601E-02  2.43382E-02  2.49304E-02  2.55369E-02
#           2.61583E-02  2.67947E-02  2.74467E-02  2.81145E-02  2.87985E-02
#           2.94992E-02  3.02169E-02  3.09521E-02  3.17052E-02  3.24766E-02
#           3.32668E-02  3.40762E-02  3.49053E-02  3.57546E-02  3.66246E-02
#           3.75157E-02  3.84284E-02  3.93634E-02  4.03212E-02  4.13022E-02
#           4.23071E-02  4.33365E-02  4.43909E-02  4.54710E-02  4.65773E-02
#           4.77106E-02  4.88714E-02  5.00605E-02  5.12785E-02  5.25262E-02
#           5.38042E-02  5.51133E-02  5.64542E-02  5.78278E-02  5.92348E-02
#           6.06760E-02  6.21523E-02  6.36645E-02  6.52135E-02  6.68002E-02
#           6.84255E-02  7.00904E-02  7.17957E-02  7.35426E-02  7.53319E-02
#           7.71648E-02  7.90423E-02  8.09655E-02  8.29354E-02  8.49533E-02
#           8.70203E-02  8.91376E-02  9.13064E-02  9.35279E-02  9.58035E-02
#           9.81345E-02  1.00522E-01  1.02968E-01  1.05473E-01  1.08040E-01
#           1.10668E-01  1.13361E-01  1.16119E-01  1.18944E-01  1.21838E-01
#           1.24803E-01  1.27839E-01  1.30950E-01  1.34136E-01  1.37399E-01
#           1.40742E-01  1.44167E-01  1.47675E-01  1.51268E-01  1.54948E-01
#           1.58718E-01  1.62580E-01  1.66535E-01  1.70587E-01  1.74738E-01
#           1.78989E-01  1.83344E-01  1.87805E-01  1.92375E-01  1.97055E-01
#           2.01850E-01  2.06761E-01  2.11792E-01  2.16945E-01  2.22223E-01
#           2.27630E-01  2.33169E-01  2.38842E-01  2.44653E-01  2.50605E-01
#           2.56703E-01  2.62949E-01  2.69346E-01  2.75900E-01  2.82613E-01
#           2.89489E-01  2.96532E-01  3.03747E-01  3.11138E-01  3.18708E-01
#           3.26462E-01  3.34405E-01  3.42542E-01  3.50876E-01  3.59413E-01
#           3.68158E-01  3.77116E-01  3.86291E-01  3.95690E-01  4.05317E-01
#           4.15179E-01  4.25281E-01  4.35628E-01  4.46227E-01  4.57084E-01
#           4.68205E-01  4.79597E-01  4.91266E-01  5.03219E-01  5.15463E-01
#           5.28005E-01  5.40851E-01  5.54011E-01  5.67490E-01  5.81298E-01
#           5.95441E-01  6.09929E-01  6.24769E-01  6.39970E-01  6.55541E-01
#           6.71491E-01  6.87828E-01  7.04564E-01  7.21706E-01  7.39266E-01
#           7.57253E-01  7.75678E-01  7.94551E-01  8.13883E-01  8.33685E-01
#           8.53969E-01  8.74747E-01  8.96030E-01  9.17831E-01  9.40163E-01
#           9.63038E-01  9.86469E-01  1.01047E+00  1.03506E+00  1.06024E+00
#           1.08604E+00  1.11246E+00  1.13953E+00  1.16725E+00  1.19565E+00
#           1.22474E+00  1.25454E+00  1.28507E+00  1.31633E+00  1.34836E+00
#           1.38117E+00  1.41477E+00  1.44920E+00  1.48446E+00  1.52057E+00
#           1.55757E+00  1.59547E+00  1.63429E+00  1.67405E+00  1.71478E+00
#           1.75650E+00  1.79924E+00  1.84302E+00  1.88786E+00  1.93379E+00
#           1.98084E+00  2.02904E+00  2.07841E+00  2.12898E+00  2.18078E+00
#           2.23384E+00  2.28819E+00  2.34386E+00  2.40089E+00  2.45930E+00
#           2.51914E+00  2.58043E+00  2.64322E+00  2.70753E+00  2.77341E+00
#           2.84088E+00  2.91001E+00  2.98081E+00  3.05333E+00  3.12762E+00
#           3.20372E+00  3.28167E+00  3.36152E+00  3.44330E+00  3.52708E+00
#           3.61290E+00  3.70080E+00  3.79085E+00  3.88308E+00  3.97756E+00
#           4.07434E+00  4.17347E+00  4.27501E+00  4.37903E+00  4.48557E+00
#           4.59471E+00  4.70650E+00  4.82102E+00  4.93832E+00  5.05847E+00
#           5.18155E+00  5.30762E+00  5.43676E+00  5.56904E+00  5.70453E+00
#           5.84333E+00  5.98550E+00  6.13114E+00  6.28031E+00  6.43312E+00
#           6.58964E+00  6.74997E+00  6.91420E+00  7.08243E+00  7.25475E+00
#           7.43126E+00  7.61207E+00  7.79728E+00  7.98700E+00  8.18133E+00
#           8.38038E+00  8.58428E+00  8.79315E+00  9.00709E+00  9.22624E+00
#           9.45072E+00  9.68067E+00  9.91620E+00  1.01575E+01  1.04046E+01
#           1.06578E+01  1.09171E+01  1.11827E+01  1.14548E+01  1.17335E+01
#           1.20190E+01  1.23114E+01  1.26109E+01  1.29178E+01  1.32321E+01
#           1.35540E+01  1.38838E+01  1.42216E+01  1.45676E+01  1.49221E+01
#           1.52851E+01  1.56570E+01  1.60380E+01  1.64282E+01  1.68279E+01
#           1.72374E+01  1.76568E+01  1.80864E+01  1.85264E+01  1.89772E+01
#           1.94389E+01  1.99119E+01  2.03963E+01  2.08926E+01  2.14009E+01
#           2.19216E+01  2.24550E+01  2.30014E+01  2.35610E+01  2.41343E+01
#           2.47215E+01  2.53230E+01  2.59391E+01  2.65702E+01  2.72167E+01
#           2.78789E+01  2.85572E+01  2.92520E+01  2.99637E+01  3.06928E+01
#           3.14396E+01  3.22045E+01  3.29881E+01  3.37907E+01  3.46128E+01
#           3.54550E+01  3.63177E+01  3.72013E+01  3.81064E+01  3.90336E+01
#           3.99833E+01  4.09561E+01  4.19526E+01  4.29734E+01  4.40189E+01
#           4.50900E+01  4.61870E+01  4.73108E+01  4.84619E+01  4.96410E+01
#           5.08488E+01  5.20860E+01  5.33533E+01  5.46514E+01  5.59812E+01
#           5.73432E+01  5.87384E+01  6.01676E+01  6.16315E+01  6.31311E+01
#           6.46671E+01  6.62405E+01  6.78522E+01  6.95031E+01  7.11941E+01
#           7.29263E+01  7.47007E+01  7.65182E+01  7.83800E+01  8.02870E+01
#           8.22405E+01  8.42414E+01  8.62911E+01  8.83906E+01  9.05412E+01
#           9.27442E+01  9.50007E+01  9.73122E+01  9.96799E+01  1.02105E+02
#           1.04589E+02  1.07134E+02  1.09741E+02  1.12411E+02  1.15146E+02
#           1.17948E+02  1.20817E+02  1.23757E+02  1.26768E+02  1.29852E+02
#           1.33012E+02  1.36248E+02  1.39563E+02  1.42959E+02  1.46437E+02
#           1.50000E+02
     unit =    2            # unit is [1/cm^2/(MeV/n)/source]
     axis =  eng            # axis of output
     file = detector-01.out  # file name of output for the above axis
   output = f-curr          # surface crossing forward current spectrum
     part =  neutron  
# kf/name :  2112     
#    used :        main (  %)        temp (  %)       total (  %)
#  memory :         414 (  0)           0 (  0)         414 (  0)

#------------------------------------------------------------------------------
#newpage:
#   no. =    1   reg = 100 - 200

x: Energy [MeV/n]
y:  F-Curr [1/cm^2/(MeV/n)/source]         
p: xlog ylog afac(0.8) form(0.9)
h: n            x            y(neutron ),hh0l   n 
#  e-lower      e-upper      neutron     r.err 
   1.0000E-02   1.0243E-02   6.6171E-04  0.0788
   1.0243E-02   1.0493E-02   6.7208E-04  0.0772
   1.0493E-02   1.0748E-02   6.6982E-04  0.0765
   1.0748E-02   1.1009E-02   6.3479E-04  0.0776
   1.1009E-02   1.1277E-02   6.7571E-04  0.0743
   1.1277E-02   1.1552E-02   6.8153E-04  0.0731
   1.1552E-02   1.1833E-02   6.6178E-04  0.0733
   1.1833E-02   1.2121E-02   6.3564E-04  0.0739
   1.2121E-02   1.2415E-02   5.5951E-04  0.0778
   1.2415E-02   1.2718E-02   6.3229E-04  0.0724
   1.2718E-02   1.3027E-02   6.7221E-04  0.0693
   1.3027E-02   1.3344E-02   5.8052E-04  0.0737
   1.3344E-02   1.3669E-02   5.2977E-04  0.0762
   1.3669E-02   1.4001E-02   7.1565E-04  0.0648
   1.4001E-02   1.4342E-02   6.1352E-04  0.0692
   1.4342E-02   1.4691E-02   6.8635E-04  0.0646
   1.4691E-02   1.5048E-02   5.4835E-04  0.0714
   1.5048E-02   1.5414E-02   5.6264E-04  0.0697
   1.5414E-02   1.5789E-02   6.0526E-04  0.0664
   1.5789E-02   1.6174E-02   5.5965E-04  0.0682
   1.6174E-02   1.6567E-02   6.3022E-04  0.0635
   1.6567E-02   1.6970E-02   5.7804E-04  0.0655
   1.6970E-02   1.7383E-02   6.1759E-04  0.0626
   1.7383E-02   1.7806E-02   5.8991E-04  0.0633
   1.7806E-02   1.8239E-02   6.3476E-04  0.0603
   1.8239E-02   1.8683E-02   6.9179E-04  0.0571
   1.8683E-02   1.9138E-02   5.9837E-04  0.0606
   1.9138E-02   1.9603E-02   6.1637E-04  0.0590
   1.9603E-02   2.0080E-02   5.7447E-04  0.0604
   2.0080E-02   2.0569E-02   5.8334E-04  0.0592
   2.0569E-02   2.1069E-02   5.6149E-04  0.0597
   2.1069E-02   2.1582E-02   6.0473E-04  0.0568
   2.1582E-02   2.2107E-02   6.2083E-04  0.0554
   2.2107E-02   2.2645E-02   6.1910E-04  0.0548
   2.2645E-02   2.3196E-02   6.4614E-04  0.0530
   2.3196E-02   2.3760E-02   5.9004E-04  0.0548
   2.3760E-02   2.4338E-02   6.0024E-04  0.0537
   2.4338E-02   2.4930E-02   5.5896E-04  0.0550
   2.4930E-02   2.5537E-02   6.1987E-04  0.0516
   2.5537E-02   2.6158E-02   5.6009E-04  0.0536
   2.6158E-02   2.6795E-02   5.4992E-04  0.0535
   2.6795E-02   2.7447E-02   6.3196E-04  0.0493
   2.7447E-02   2.8114E-02   5.6754E-04  0.0514
   2.8114E-02   2.8799E-02   5.9645E-04  0.0495
   2.8799E-02   2.9499E-02   5.4803E-04  0.0510
   2.9499E-02   3.0217E-02   5.7263E-04  0.0493
   3.0217E-02   3.0952E-02   5.5903E-04  0.0493
   3.0952E-02   3.1705E-02   5.5106E-04  0.0491
   3.1705E-02   3.2477E-02   5.4575E-04  0.0487
   3.2477E-02   3.3267E-02   5.1001E-04  0.0498
   3.3267E-02   3.4076E-02   5.4237E-04  0.0477
   3.4076E-02   3.4905E-02   5.5844E-04  0.0465
   3.4905E-02   3.5755E-02   5.4635E-04  0.0464
   3.5755E-02   3.6625E-02   5.2073E-04  0.0470
   3.6625E-02   3.7516E-02   5.3305E-04  0.0459
   3.7516E-02   3.8428E-02   5.0395E-04  0.0466
   3.8428E-02   3.9363E-02   5.2086E-04  0.0453
   3.9363E-02   4.0321E-02   5.5547E-04  0.0434
   4.0321E-02   4.1302E-02   4.9641E-04  0.0453
   4.1302E-02   4.2307E-02   5.2790E-04  0.0434
   4.2307E-02   4.3337E-02   5.0517E-04  0.0439
   4.3337E-02   4.4391E-02   5.4248E-04  0.0418
   4.4391E-02   4.5471E-02   4.7590E-04  0.0441
   4.5471E-02   4.6577E-02   5.3419E-04  0.0411
   4.6577E-02   4.7711E-02   4.9591E-04  0.0422
   4.7711E-02   4.8871E-02   5.4099E-04  0.0399
   4.8871E-02   5.0061E-02   5.0627E-04  0.0408
   5.0061E-02   5.1279E-02   5.2298E-04  0.0396
   5.1279E-02   5.2526E-02   5.5464E-04  0.0380
   5.2526E-02   5.3804E-02   5.0939E-04  0.0392
   5.3804E-02   5.5113E-02   4.9958E-04  0.0391
   5.5113E-02   5.6454E-02   5.2575E-04  0.0377
   5.6454E-02   5.7828E-02   5.1326E-04  0.0377
   5.7828E-02   5.9235E-02   4.6340E-04  0.0392
   5.9235E-02   6.0676E-02   4.7182E-04  0.0383
   6.0676E-02   6.2152E-02   4.6942E-04  0.0380
   6.2152E-02   6.3665E-02   5.0191E-04  0.0363
   6.3665E-02   6.5214E-02   5.0064E-04  0.0359
   6.5214E-02   6.6800E-02   4.8402E-04  0.0361
   6.6800E-02   6.8426E-02   4.8299E-04  0.0357
   6.8426E-02   7.0090E-02   5.0245E-04  0.0346
   7.0090E-02   7.1796E-02   4.5914E-04  0.0357
   7.1796E-02   7.3543E-02   4.5969E-04  0.0353
   7.3543E-02   7.5332E-02   4.2641E-04  0.0362
   7.5332E-02   7.7165E-02   4.4956E-04  0.0348
   7.7165E-02   7.9042E-02   4.6126E-04  0.0340
   7.9042E-02   8.0965E-02   4.3808E-04  0.0344
   8.0965E-02   8.2935E-02   4.4976E-04  0.0336
   8.2935E-02   8.4953E-02   4.4205E-04  0.0335
   8.4953E-02   8.7020E-02   4.3058E-04  0.0335
   8.7020E-02   8.9138E-02   4.2508E-04  0.0333
   8.9138E-02   9.1306E-02   4.4195E-04  0.0323
   9.1306E-02   9.3528E-02   4.1052E-04  0.0331
   9.3528E-02   9.5804E-02   4.4801E-04  0.0313
   9.5804E-02   9.8134E-02   4.4188E-04  0.0312
   9.8134E-02   1.0052E-01   4.2719E-04  0.0313
   1.0052E-01   1.0297E-01   4.0764E-04  0.0317
   1.0297E-01   1.0547E-01   4.3189E-04  0.0304
   1.0547E-01   1.0804E-01   4.1948E-04  0.0305
   1.0804E-01   1.1067E-01   4.0324E-04  0.0307
   1.1067E-01   1.1336E-01   4.1335E-04  0.0300
   1.1336E-01   1.1612E-01   4.2891E-04  0.0291
   1.1612E-01   1.1894E-01   4.0952E-04  0.0294
   1.1894E-01   1.2184E-01   3.8977E-04  0.0298
   1.2184E-01   1.2480E-01   4.1290E-04  0.0286
   1.2480E-01   1.2784E-01   4.1923E-04  0.0280
   1.2784E-01   1.3095E-01   3.9223E-04  0.0286
   1.3095E-01   1.3414E-01   3.8228E-04  0.0287
   1.3414E-01   1.3740E-01   3.8485E-04  0.0282
   1.3740E-01   1.4074E-01   3.6464E-04  0.0286
   1.4074E-01   1.4417E-01   3.7145E-04  0.0280
   1.4417E-01   1.4767E-01   3.6876E-04  0.0278
   1.4767E-01   1.5127E-01   3.6793E-04  0.0275
   1.5127E-01   1.5495E-01   3.6205E-04  0.0274
   1.5495E-01   1.5872E-01   3.4377E-04  0.0278
   1.5872E-01   1.6258E-01   3.6124E-04  0.0268
   1.6258E-01   1.6654E-01   3.7162E-04  0.0261
   1.6654E-01   1.7059E-01   3.4156E-04  0.0269
   1.7059E-01   1.7474E-01   3.5249E-04  0.0261
   1.7474E-01   1.7899E-01   3.5587E-04  0.0257
   1.7899E-01   1.8334E-01   3.4329E-04  0.0259
   1.8334E-01   1.8781E-01   3.4141E-04  0.0256
   1.8781E-01   1.9237E-01   3.5234E-04  0.0249
   1.9237E-01   1.9706E-01   3.4141E-04  0.0250
   1.9706E-01   2.0185E-01   3.3851E-04  0.0248
   2.0185E-01   2.0676E-01   3.3393E-04  0.0247
   2.0676E-01   2.1179E-01   3.1527E-04  0.0251
   2.1179E-01   2.1694E-01   3.3068E-04  0.0242
   2.1694E-01   2.2222E-01   3.2131E-04  0.0243
   2.2222E-01   2.2763E-01   3.3023E-04  0.0237
   2.2763E-01   2.3317E-01   3.1868E-04  0.0238
   2.3317E-01   2.3884E-01   3.1393E-04  0.0237
   2.3884E-01   2.4465E-01   3.1035E-04  0.0235
   2.4465E-01   2.5061E-01   3.2305E-04  0.0228
   2.5061E-01   2.5670E-01   3.1128E-04  0.0230
   2.5670E-01   2.6295E-01   2.8555E-04  0.0237
   2.6295E-01   2.6935E-01   2.9331E-04  0.0231
   2.6935E-01   2.7590E-01   3.0000E-04  0.0226
   2.7590E-01   2.8261E-01   2.8252E-04  0.0230
   2.8261E-01   2.8949E-01   2.8708E-04  0.0225
   2.8949E-01   2.9653E-01   2.7714E-04  0.0226
   2.9653E-01   3.0375E-01   2.7138E-04  0.0226
   3.0375E-01   3.1114E-01   2.7772E-04  0.0221
   3.1114E-01   3.1871E-01   2.6948E-04  0.0221
   3.1871E-01   3.2646E-01   2.6978E-04  0.0219
   3.2646E-01   3.3441E-01   2.7521E-04  0.0214
   3.3441E-01   3.4254E-01   2.6019E-04  0.0217
   3.4254E-01   3.5088E-01   2.6043E-04  0.0215
   3.5088E-01   3.5941E-01   2.5840E-04  0.0213
   3.5941E-01   3.6816E-01   2.5798E-04  0.0211
   3.6816E-01   3.7712E-01   2.4650E-04  0.0213
   3.7712E-01   3.8629E-01   2.4729E-04  0.0210
   3.8629E-01   3.9569E-01   2.4503E-04  0.0208
   3.9569E-01   4.0532E-01   2.3511E-04  0.0210
   4.0532E-01   4.1518E-01   2.3754E-04  0.0207
   4.1518E-01   4.2528E-01   2.3561E-04  0.0205
   4.2528E-01   4.3563E-01   2.1880E-04  0.0210
   4.3563E-01   4.4623E-01   2.1827E-04  0.0208
   4.4623E-01   4.5708E-01   2.2469E-04  0.0202
   4.5708E-01   4.6821E-01   2.1832E-04  0.0203
   4.6821E-01   4.7960E-01   2.0840E-04  0.0205
   4.7960E-01   4.9127E-01   2.1557E-04  0.0199
   4.9127E-01   5.0322E-01   2.0819E-04  0.0200
   5.0322E-01   5.1546E-01   2.0513E-04  0.0200
   5.1546E-01   5.2800E-01   2.0045E-04  0.0199
   5.2800E-01   5.4085E-01   1.9787E-04  0.0198
   5.4085E-01   5.5401E-01   1.9347E-04  0.0198
   5.5401E-01   5.6749E-01   1.8777E-04  0.0199
   5.6749E-01   5.8130E-01   1.8193E-04  0.0200
   5.8130E-01   5.9544E-01   1.8793E-04  0.0194
   5.9544E-01   6.0993E-01   1.7801E-04  0.0197
   6.0993E-01   6.2477E-01   1.7163E-04  0.0198
   6.2477E-01   6.3997E-01   1.6509E-04  0.0200
   6.3997E-01   6.5554E-01   1.6942E-04  0.0195
   6.5554E-01   6.7149E-01   1.6329E-04  0.0196
   6.7149E-01   6.8783E-01   1.5889E-04  0.0196
   6.8783E-01   7.0456E-01   1.5422E-04  0.0197
   7.0456E-01   7.2171E-01   1.5313E-04  0.0195
   7.2171E-01   7.3927E-01   1.3836E-04  0.0203
   7.3927E-01   7.5725E-01   1.3652E-04  0.0202
   7.5725E-01   7.7568E-01   1.3976E-04  0.0197
   7.7568E-01   7.9455E-01   1.2990E-04  0.0202
   7.9455E-01   8.1388E-01   1.3090E-04  0.0199
   8.1388E-01   8.3368E-01   1.2529E-04  0.0201
   8.3368E-01   8.5397E-01   1.2024E-04  0.0202
   8.5397E-01   8.7475E-01   1.2022E-04  0.0200
   8.7475E-01   8.9603E-01   1.1319E-04  0.0204
   8.9603E-01   9.1783E-01   1.1463E-04  0.0200
   9.1783E-01   9.4016E-01   1.0823E-04  0.0203
   9.4016E-01   9.6304E-01   1.0181E-04  0.0207
   9.6304E-01   9.8647E-01   9.4915E-05  0.0212
   9.8647E-01   1.0105E+00   9.6660E-05  0.0208
   1.0105E+00   1.0351E+00   9.2697E-05  0.0209
   1.0351E+00   1.0602E+00   9.4942E-05  0.0205
   1.0602E+00   1.0860E+00   9.9452E-05  0.0197
   1.0860E+00   1.1125E+00   9.8357E-05  0.0196
   1.1125E+00   1.1395E+00   1.0352E-04  0.0189
   1.1395E+00   1.1673E+00   1.0510E-04  0.0185
   1.1673E+00   1.1957E+00   1.1051E-04  0.0178
   1.1957E+00   1.2247E+00   1.1051E-04  0.0176
   1.2247E+00   1.2545E+00   1.1205E-04  0.0173
   1.2545E+00   1.2851E+00   1.1499E-04  0.0169
   1.2851E+00   1.3163E+00   1.1322E-04  0.0168
   1.3163E+00   1.3484E+00   1.1601E-04  0.0164
   1.3484E+00   1.3812E+00   1.1368E-04  0.0164
   1.3812E+00   1.4148E+00   1.2037E-04  0.0157
   1.4148E+00   1.4492E+00   1.1953E-04  0.0156
   1.4492E+00   1.4845E+00   1.1631E-04  0.0156
   1.4845E+00   1.5206E+00   1.1684E-04  0.0154
   1.5206E+00   1.5576E+00   1.1716E-04  0.0152
   1.5576E+00   1.5955E+00   1.1758E-04  0.0150
   1.5955E+00   1.6343E+00   1.1887E-04  0.0147
   1.6343E+00   1.6741E+00   1.2006E-04  0.0145
   1.6741E+00   1.7148E+00   1.2023E-04  0.0143
   1.7148E+00   1.7565E+00   1.2166E-04  0.0140
   1.7565E+00   1.7992E+00   1.1964E-04  0.0140
   1.7992E+00   1.8430E+00   1.1749E-04  0.0139
   1.8430E+00   1.8879E+00   1.1798E-04  0.0137
   1.8879E+00   1.9338E+00   1.1454E-04  0.0138
   1.9338E+00   1.9808E+00   1.1519E-04  0.0136
   1.9808E+00   2.0290E+00   1.1377E-04  0.0135
   2.0290E+00   2.0784E+00   1.1291E-04  0.0134
   2.0784E+00   2.1290E+00   1.1131E-04  0.0133
   2.1290E+00   2.1808E+00   1.0917E-04  0.0133
   2.1808E+00   2.2338E+00   1.1010E-04  0.0131
   2.2338E+00   2.2882E+00   1.0497E-04  0.0132
   2.2882E+00   2.3439E+00   1.0499E-04  0.0131
   2.3439E+00   2.4009E+00   1.0379E-04  0.0130
   2.4009E+00   2.4593E+00   1.0418E-04  0.0128
   2.4593E+00   2.5191E+00   9.7916E-05  0.0131
   2.5191E+00   2.5804E+00   9.9686E-05  0.0128
   2.5804E+00   2.6432E+00   9.4037E-05  0.0130
   2.6432E+00   2.7075E+00   9.3397E-05  0.0129
   2.7075E+00   2.7734E+00   8.9076E-05  0.0131
   2.7734E+00   2.8409E+00   8.7835E-05  0.0130
   2.8409E+00   2.9100E+00   8.4909E-05  0.0131
   2.9100E+00   2.9808E+00   8.3726E-05  0.0130
   2.9808E+00   3.0533E+00   8.0710E-05  0.0131
   3.0533E+00   3.1276E+00   7.9593E-05  0.0130
   3.1276E+00   3.2037E+00   7.5390E-05  0.0132
   3.2037E+00   3.2817E+00   7.2868E-05  0.0133
   3.2817E+00   3.3615E+00   7.0724E-05  0.0133
   3.3615E+00   3.4433E+00   6.6947E-05  0.0135
   3.4433E+00   3.5271E+00   6.5047E-05  0.0135
   3.5271E+00   3.6129E+00   6.3472E-05  0.0135
   3.6129E+00   3.7008E+00   6.1208E-05  0.0136
   3.7008E+00   3.7908E+00   5.8777E-05  0.0137
   3.7908E+00   3.8831E+00   5.7251E-05  0.0138
   3.8831E+00   3.9776E+00   5.3393E-05  0.0141
   3.9776E+00   4.0743E+00   5.2130E-05  0.0141
   4.0743E+00   4.1735E+00   4.9197E-05  0.0143
   4.1735E+00   4.2750E+00   4.8260E-05  0.0143
   4.2750E+00   4.3790E+00   4.6402E-05  0.0144
   4.3790E+00   4.4856E+00   4.3249E-05  0.0147
   4.4856E+00   4.5947E+00   4.0912E-05  0.0150
   4.5947E+00   4.7065E+00   3.9748E-05  0.0150
   4.7065E+00   4.8210E+00   3.8537E-05  0.0150
   4.8210E+00   4.9383E+00   3.7677E-05  0.0150
   4.9383E+00   5.0585E+00   3.5151E-05  0.0154
   5.0585E+00   5.1815E+00   3.4588E-05  0.0153
   5.1815E+00   5.3076E+00   3.3453E-05  0.0154
   5.3076E+00   5.4368E+00   3.0843E-05  0.0158
   5.4368E+00   5.5690E+00   3.0976E-05  0.0156
   5.5690E+00   5.7045E+00   2.7985E-05  0.0162
   5.7045E+00   5.8433E+00   2.7317E-05  0.0162
   5.8433E+00   5.9855E+00   2.5539E-05  0.0166
   5.9855E+00   6.1311E+00   2.5791E-05  0.0163
   6.1311E+00   6.2803E+00   2.4656E-05  0.0165
   6.2803E+00   6.4331E+00   2.3098E-05  0.0168
   6.4331E+00   6.5896E+00   2.2402E-05  0.0169
   6.5896E+00   6.7500E+00   2.1125E-05  0.0172
   6.7500E+00   6.9142E+00   1.9728E-05  0.0176
   6.9142E+00   7.0824E+00   1.9694E-05  0.0174
   7.0824E+00   7.2548E+00   1.8416E-05  0.0177
   7.2548E+00   7.4313E+00   1.8084E-05  0.0177
   7.4313E+00   7.6121E+00   1.7870E-05  0.0176
   7.6121E+00   7.7973E+00   1.6484E-05  0.0181
   7.7973E+00   7.9870E+00   1.6064E-05  0.0181
   7.9870E+00   8.1813E+00   1.5826E-05  0.0180
   8.1813E+00   8.3804E+00   1.4893E-05  0.0184
   8.3804E+00   8.5843E+00   1.4387E-05  0.0185
   8.5843E+00   8.7931E+00   1.3715E-05  0.0187
   8.7931E+00   9.0071E+00   1.3235E-05  0.0188
   9.0071E+00   9.2262E+00   1.3005E-05  0.0187
   9.2262E+00   9.4507E+00   1.2313E-05  0.0190
   9.4507E+00   9.6807E+00   1.1688E-05  0.0193
   9.6807E+00   9.9162E+00   1.1590E-05  0.0191
   9.9162E+00   1.0157E+01   1.0857E-05  0.0195
   1.0157E+01   1.0405E+01   1.0915E-05  0.0193
   1.0405E+01   1.0658E+01   1.0272E-05  0.0196
   1.0658E+01   1.0917E+01   1.0098E-05  0.0195
   1.0917E+01   1.1183E+01   1.0035E-05  0.0194
   1.1183E+01   1.1455E+01   9.7948E-06  0.0194
   1.1455E+01   1.1733E+01   9.2535E-06  0.0197
   1.1733E+01   1.2019E+01   9.2702E-06  0.0194
   1.2019E+01   1.2311E+01   8.9286E-06  0.0196
   1.2311E+01   1.2611E+01   8.5446E-06  0.0198
   1.2611E+01   1.2918E+01   8.7995E-06  0.0192
   1.2918E+01   1.3232E+01   8.4123E-06  0.0194
   1.3232E+01   1.3554E+01   8.1364E-06  0.0195
   1.3554E+01   1.3884E+01   8.1782E-06  0.0193
   1.3884E+01   1.4222E+01   7.9647E-06  0.0193
   1.4222E+01   1.4568E+01   7.7914E-06  0.0193
   1.4568E+01   1.4922E+01   7.7544E-06  0.0191
   1.4922E+01   1.5285E+01   7.5992E-06  0.0190
   1.5285E+01   1.5657E+01   7.5289E-06  0.0189
   1.5657E+01   1.6038E+01   7.4945E-06  0.0187
   1.6038E+01   1.6428E+01   7.2780E-06  0.0188
   1.6428E+01   1.6828E+01   7.1151E-06  0.0188
   1.6828E+01   1.7237E+01   7.2636E-06  0.0183
   1.7237E+01   1.7657E+01   7.1340E-06  0.0183
   1.7657E+01   1.8086E+01   7.1298E-06  0.0181
   1.8086E+01   1.8526E+01   6.9287E-06  0.0181
   1.8526E+01   1.8977E+01   6.9926E-06  0.0178
   1.8977E+01   1.9439E+01   7.0907E-06  0.0175
   1.9439E+01   1.9912E+01   6.9244E-06  0.0175
   1.9912E+01   2.0396E+01   7.2223E-06  0.0169
   2.0396E+01   2.0893E+01   6.8170E-06  0.0172
   2.0893E+01   2.1401E+01   6.9403E-06  0.0168
   2.1401E+01   2.1922E+01   7.1039E-06  0.0164
   2.1922E+01   2.2455E+01   7.0326E-06  0.0163
   2.2455E+01   2.3001E+01   7.0413E-06  0.0161
   2.3001E+01   2.3561E+01   6.9705E-06  0.0160
   2.3561E+01   2.4134E+01   7.2044E-06  0.0156
   2.4134E+01   2.4721E+01   6.9635E-06  0.0156
   2.4721E+01   2.5323E+01   7.0874E-06  0.0153
   2.5323E+01   2.5939E+01   7.3232E-06  0.0149
   2.5939E+01   2.6570E+01   6.9559E-06  0.0151
   2.6570E+01   2.7217E+01   7.0815E-06  0.0148
   2.7217E+01   2.7879E+01   7.3603E-06  0.0143
   2.7879E+01   2.8557E+01   7.2356E-06  0.0143
   2.8557E+01   2.9252E+01   7.5329E-06  0.0138
   2.9252E+01   2.9964E+01   7.3694E-06  0.0138
   2.9964E+01   3.0693E+01   7.8212E-06  0.0132
   3.0693E+01   3.1440E+01   7.7212E-06  0.0132
   3.1440E+01   3.2205E+01   7.8659E-06  0.0129
   3.2205E+01   3.2988E+01   7.8437E-06  0.0128
   3.2988E+01   3.3791E+01   7.9365E-06  0.0125
   3.3791E+01   3.4613E+01   8.2928E-06  0.0121
   3.4613E+01   3.5455E+01   8.3571E-06  0.0119
   3.5455E+01   3.6318E+01   8.7127E-06  0.0115
   3.6318E+01   3.7201E+01   9.1225E-06  0.0111
   3.7201E+01   3.8106E+01   9.2748E-06  0.0109
   3.8106E+01   3.9034E+01   9.7912E-06  0.0105
   3.9034E+01   3.9983E+01   1.0448E-05  0.0100
   3.9983E+01   4.0956E+01   1.0863E-05  0.0097
   4.0956E+01   4.1953E+01   1.1354E-05  0.0094
   4.1953E+01   4.2973E+01   1.2496E-05  0.0089
   4.2973E+01   4.4019E+01   1.3325E-05  0.0085
   4.4019E+01   4.5090E+01   1.3984E-05  0.0082
   4.5090E+01   4.6187E+01   1.5495E-05  0.0077
   4.6187E+01   4.7311E+01   1.6630E-05  0.0073
   4.7311E+01   4.8462E+01   1.8765E-05  0.0068
   4.8462E+01   4.9641E+01   2.0822E-05  0.0064
   4.9641E+01   5.0849E+01   2.3336E-05  0.0060
   5.0849E+01   5.2086E+01   2.6133E-05  0.0056
   5.2086E+01   5.3353E+01   2.9774E-05  0.0051
   5.3353E+01   5.4651E+01   3.3774E-05  0.0048
   5.4651E+01   5.5981E+01   3.8427E-05  0.0044
   5.5981E+01   5.7343E+01   4.4363E-05  0.0041
   5.7343E+01   5.8738E+01   5.0984E-05  0.0037
   5.8738E+01   6.0168E+01   5.8935E-05  0.0034
   6.0168E+01   6.1632E+01   6.8187E-05  0.0032
   6.1632E+01   6.3131E+01   7.9087E-05  0.0029
   6.3131E+01   6.4667E+01   9.0953E-05  0.0027
   6.4667E+01   6.6240E+01   1.0402E-04  0.0025
   6.6240E+01   6.7852E+01   1.1860E-04  0.0023
   6.7852E+01   6.9503E+01   1.3360E-04  0.0021
   6.9503E+01   7.1194E+01   1.4912E-04  0.0020
   7.1194E+01   7.2926E+01   1.6443E-04  0.0019
   7.2926E+01   7.4701E+01   1.7914E-04  0.0018
   7.4701E+01   7.6518E+01   1.9077E-04  0.0017
   7.6518E+01   7.8380E+01   2.0046E-04  0.0016
   7.8380E+01   8.0287E+01   2.0640E-04  0.0016
   8.0287E+01   8.2240E+01   2.0741E-04  0.0016
   8.2240E+01   8.4241E+01   2.0498E-04  0.0016
   8.4241E+01   8.6291E+01   1.9839E-04  0.0016
   8.6291E+01   8.8391E+01   1.8761E-04  0.0016
   8.8391E+01   9.0541E+01   1.7415E-04  0.0016
   9.0541E+01   9.2744E+01   1.5745E-04  0.0017
   9.2744E+01   9.5001E+01   1.4013E-04  0.0018
   9.5001E+01   9.7312E+01   1.2210E-04  0.0019
   9.7312E+01   9.9680E+01   1.0545E-04  0.0020
   9.9680E+01   1.0211E+02   8.9754E-05  0.0021
   1.0211E+02   1.0459E+02   7.5387E-05  0.0023
   1.0459E+02   1.0713E+02   6.3801E-05  0.0025
   1.0713E+02   1.0974E+02   5.3145E-05  0.0027
   1.0974E+02   1.1241E+02   4.4262E-05  0.0029
   1.1241E+02   1.1515E+02   3.6826E-05  0.0032
   1.1515E+02   1.1795E+02   3.0553E-05  0.0034
   1.1795E+02   1.2082E+02   2.5574E-05  0.0037
   1.2082E+02   1.2376E+02   2.1432E-05  0.0040
   1.2376E+02   1.2677E+02   1.7981E-05  0.0043
   1.2677E+02   1.2985E+02   1.5067E-05  0.0046
   1.2985E+02   1.3301E+02   1.2476E-05  0.0050
   1.3301E+02   1.3625E+02   1.0536E-05  0.0054
   1.3625E+02   1.3956E+02   8.8027E-06  0.0059
   1.3956E+02   1.4296E+02   7.4736E-06  0.0063
   1.4296E+02   1.4644E+02   6.3474E-06  0.0067
   1.4644E+02   1.5000E+02   5.5435E-06  0.0071

#   sum over                 5.9666E-05
'no. =    1   reg = 100 - 200'
msuc: {\huge [t-cross] in region mesh}
msdr: {\it plotted by \ANGEL \version}
msdl: {\it calculated by \PHITS  3.26}
wt: s(0.7)
\vspace{-3}
  region surface crossing
  area  &=&   1.0000E+00 [cm^2]
e:
 
# Information for Restart Calculation
# This calculation was newly started
# istdev =  2 # 1:Batch variance, 2:History variance
# resc2  = 1.00000000000000000E+09 # Total source weight or Total source weight / maxcas
# resc3  = 1.00000000000000000E+09 # Total history number or Total batch number
# maxcas =   500000000 # History / Batch, only used for istdev=1
# bitrseed = 0001001110011001001001110000100100110111001111011100001000101100 # bit data of rseed
