[ T-Cross ]
    title = [t-cross] in region mesh
     mesh =  reg            # mesh type is region-wise
      reg =    1            # number of crossing regions
      non     r-from    r-to       area
      1       112       212        1.000000    
   e-type =    3            # e-mesh is log given by emin, emax and ne
     emin =  1.0000000E-02  # minimum value of e-mesh points
     emax =   150.0000      # maximum value of e-mesh points
#    edel =  2.4039514E-02  # mesh width of e-mesh points
       ne =    400          # number of e-mesh points
#    data = ( e(i), i = 1, ne + 1 )
#           1.00000E-02  1.02433E-02  1.04925E-02  1.07478E-02  1.10093E-02
#           1.12772E-02  1.15516E-02  1.18326E-02  1.21205E-02  1.24154E-02
#           1.27175E-02  1.30269E-02  1.33439E-02  1.36686E-02  1.40011E-02
#           1.43418E-02  1.46907E-02  1.50482E-02  1.54143E-02  1.57894E-02
#           1.61735E-02  1.65670E-02  1.69701E-02  1.73830E-02  1.78060E-02
#           1.82392E-02  1.86830E-02  1.91375E-02  1.96032E-02  2.00801E-02
#           2.05687E-02  2.10692E-02  2.15818E-02  2.21069E-02  2.26448E-02
#           2.31957E-02  2.37601E-02  2.43382E-02  2.49304E-02  2.55369E-02
#           2.61583E-02  2.67947E-02  2.74467E-02  2.81145E-02  2.87985E-02
#           2.94992E-02  3.02169E-02  3.09521E-02  3.17052E-02  3.24766E-02
#           3.32668E-02  3.40762E-02  3.49053E-02  3.57546E-02  3.66246E-02
#           3.75157E-02  3.84284E-02  3.93634E-02  4.03212E-02  4.13022E-02
#           4.23071E-02  4.33365E-02  4.43909E-02  4.54710E-02  4.65773E-02
#           4.77106E-02  4.88714E-02  5.00605E-02  5.12785E-02  5.25262E-02
#           5.38042E-02  5.51133E-02  5.64542E-02  5.78278E-02  5.92348E-02
#           6.06760E-02  6.21523E-02  6.36645E-02  6.52135E-02  6.68002E-02
#           6.84255E-02  7.00904E-02  7.17957E-02  7.35426E-02  7.53319E-02
#           7.71648E-02  7.90423E-02  8.09655E-02  8.29354E-02  8.49533E-02
#           8.70203E-02  8.91376E-02  9.13064E-02  9.35279E-02  9.58035E-02
#           9.81345E-02  1.00522E-01  1.02968E-01  1.05473E-01  1.08040E-01
#           1.10668E-01  1.13361E-01  1.16119E-01  1.18944E-01  1.21838E-01
#           1.24803E-01  1.27839E-01  1.30950E-01  1.34136E-01  1.37399E-01
#           1.40742E-01  1.44167E-01  1.47675E-01  1.51268E-01  1.54948E-01
#           1.58718E-01  1.62580E-01  1.66535E-01  1.70587E-01  1.74738E-01
#           1.78989E-01  1.83344E-01  1.87805E-01  1.92375E-01  1.97055E-01
#           2.01850E-01  2.06761E-01  2.11792E-01  2.16945E-01  2.22223E-01
#           2.27630E-01  2.33169E-01  2.38842E-01  2.44653E-01  2.50605E-01
#           2.56703E-01  2.62949E-01  2.69346E-01  2.75900E-01  2.82613E-01
#           2.89489E-01  2.96532E-01  3.03747E-01  3.11138E-01  3.18708E-01
#           3.26462E-01  3.34405E-01  3.42542E-01  3.50876E-01  3.59413E-01
#           3.68158E-01  3.77116E-01  3.86291E-01  3.95690E-01  4.05317E-01
#           4.15179E-01  4.25281E-01  4.35628E-01  4.46227E-01  4.57084E-01
#           4.68205E-01  4.79597E-01  4.91266E-01  5.03219E-01  5.15463E-01
#           5.28005E-01  5.40851E-01  5.54011E-01  5.67490E-01  5.81298E-01
#           5.95441E-01  6.09929E-01  6.24769E-01  6.39970E-01  6.55541E-01
#           6.71491E-01  6.87828E-01  7.04564E-01  7.21706E-01  7.39266E-01
#           7.57253E-01  7.75678E-01  7.94551E-01  8.13883E-01  8.33685E-01
#           8.53969E-01  8.74747E-01  8.96030E-01  9.17831E-01  9.40163E-01
#           9.63038E-01  9.86469E-01  1.01047E+00  1.03506E+00  1.06024E+00
#           1.08604E+00  1.11246E+00  1.13953E+00  1.16725E+00  1.19565E+00
#           1.22474E+00  1.25454E+00  1.28507E+00  1.31633E+00  1.34836E+00
#           1.38117E+00  1.41477E+00  1.44920E+00  1.48446E+00  1.52057E+00
#           1.55757E+00  1.59547E+00  1.63429E+00  1.67405E+00  1.71478E+00
#           1.75650E+00  1.79924E+00  1.84302E+00  1.88786E+00  1.93379E+00
#           1.98084E+00  2.02904E+00  2.07841E+00  2.12898E+00  2.18078E+00
#           2.23384E+00  2.28819E+00  2.34386E+00  2.40089E+00  2.45930E+00
#           2.51914E+00  2.58043E+00  2.64322E+00  2.70753E+00  2.77341E+00
#           2.84088E+00  2.91001E+00  2.98081E+00  3.05333E+00  3.12762E+00
#           3.20372E+00  3.28167E+00  3.36152E+00  3.44330E+00  3.52708E+00
#           3.61290E+00  3.70080E+00  3.79085E+00  3.88308E+00  3.97756E+00
#           4.07434E+00  4.17347E+00  4.27501E+00  4.37903E+00  4.48557E+00
#           4.59471E+00  4.70650E+00  4.82102E+00  4.93832E+00  5.05847E+00
#           5.18155E+00  5.30762E+00  5.43676E+00  5.56904E+00  5.70453E+00
#           5.84333E+00  5.98550E+00  6.13114E+00  6.28031E+00  6.43312E+00
#           6.58964E+00  6.74997E+00  6.91420E+00  7.08243E+00  7.25475E+00
#           7.43126E+00  7.61207E+00  7.79728E+00  7.98700E+00  8.18133E+00
#           8.38038E+00  8.58428E+00  8.79315E+00  9.00709E+00  9.22624E+00
#           9.45072E+00  9.68067E+00  9.91620E+00  1.01575E+01  1.04046E+01
#           1.06578E+01  1.09171E+01  1.11827E+01  1.14548E+01  1.17335E+01
#           1.20190E+01  1.23114E+01  1.26109E+01  1.29178E+01  1.32321E+01
#           1.35540E+01  1.38838E+01  1.42216E+01  1.45676E+01  1.49221E+01
#           1.52851E+01  1.56570E+01  1.60380E+01  1.64282E+01  1.68279E+01
#           1.72374E+01  1.76568E+01  1.80864E+01  1.85264E+01  1.89772E+01
#           1.94389E+01  1.99119E+01  2.03963E+01  2.08926E+01  2.14009E+01
#           2.19216E+01  2.24550E+01  2.30014E+01  2.35610E+01  2.41343E+01
#           2.47215E+01  2.53230E+01  2.59391E+01  2.65702E+01  2.72167E+01
#           2.78789E+01  2.85572E+01  2.92520E+01  2.99637E+01  3.06928E+01
#           3.14396E+01  3.22045E+01  3.29881E+01  3.37907E+01  3.46128E+01
#           3.54550E+01  3.63177E+01  3.72013E+01  3.81064E+01  3.90336E+01
#           3.99833E+01  4.09561E+01  4.19526E+01  4.29734E+01  4.40189E+01
#           4.50900E+01  4.61870E+01  4.73108E+01  4.84619E+01  4.96410E+01
#           5.08488E+01  5.20860E+01  5.33533E+01  5.46514E+01  5.59812E+01
#           5.73432E+01  5.87384E+01  6.01676E+01  6.16315E+01  6.31311E+01
#           6.46671E+01  6.62405E+01  6.78522E+01  6.95031E+01  7.11941E+01
#           7.29263E+01  7.47007E+01  7.65182E+01  7.83800E+01  8.02870E+01
#           8.22405E+01  8.42414E+01  8.62911E+01  8.83906E+01  9.05412E+01
#           9.27442E+01  9.50007E+01  9.73122E+01  9.96799E+01  1.02105E+02
#           1.04589E+02  1.07134E+02  1.09741E+02  1.12411E+02  1.15146E+02
#           1.17948E+02  1.20817E+02  1.23757E+02  1.26768E+02  1.29852E+02
#           1.33012E+02  1.36248E+02  1.39563E+02  1.42959E+02  1.46437E+02
#           1.50000E+02
     unit =    2            # unit is [1/cm^2/(MeV/n)/source]
     axis =  eng            # axis of output
     file = detector-13.out  # file name of output for the above axis
   output = f-curr          # surface crossing forward current spectrum
     part =  neutron  
# kf/name :  2112     
#    used :        main (  %)        temp (  %)       total (  %)
#  memory :         414 (  0)           0 (  0)         414 (  0)

#------------------------------------------------------------------------------
#newpage:
#   no. =    1   reg = 112 - 212

x: Energy [MeV/n]
y:  F-Curr [1/cm^2/(MeV/n)/source]         
p: xlog ylog afac(0.8) form(0.9)
h: n            x            y(neutron ),hh0l   n 
#  e-lower      e-upper      neutron     r.err 
   1.0000E-02   1.0243E-02   2.9798E-03  0.0371
   1.0243E-02   1.0493E-02   3.1176E-03  0.0359
   1.0493E-02   1.0748E-02   3.0867E-03  0.0356
   1.0748E-02   1.1009E-02   2.9330E-03  0.0361
   1.1009E-02   1.1277E-02   2.8447E-03  0.0362
   1.1277E-02   1.1552E-02   2.9958E-03  0.0349
   1.1552E-02   1.1833E-02   2.9709E-03  0.0346
   1.1833E-02   1.2121E-02   2.7631E-03  0.0354
   1.2121E-02   1.2415E-02   3.0349E-03  0.0334
   1.2415E-02   1.2718E-02   3.0224E-03  0.0331
   1.2718E-02   1.3027E-02   2.8763E-03  0.0335
   1.3027E-02   1.3344E-02   2.9499E-03  0.0327
   1.3344E-02   1.3669E-02   3.0123E-03  0.0320
   1.3669E-02   1.4001E-02   2.9077E-03  0.0322
   1.4001E-02   1.4342E-02   3.0001E-03  0.0313
   1.4342E-02   1.4691E-02   2.8600E-03  0.0317
   1.4691E-02   1.5048E-02   2.8732E-03  0.0312
   1.5048E-02   1.5414E-02   2.7804E-03  0.0313
   1.5414E-02   1.5789E-02   2.8263E-03  0.0307
   1.5789E-02   1.6174E-02   2.7878E-03  0.0306
   1.6174E-02   1.6567E-02   2.9211E-03  0.0295
   1.6567E-02   1.6970E-02   2.9175E-03  0.0292
   1.6970E-02   1.7383E-02   2.8167E-03  0.0293
   1.7383E-02   1.7806E-02   2.8113E-03  0.0290
   1.7806E-02   1.8239E-02   2.6914E-03  0.0293
   1.8239E-02   1.8683E-02   2.6230E-03  0.0293
   1.8683E-02   1.9138E-02   2.7377E-03  0.0283
   1.9138E-02   1.9603E-02   2.6835E-03  0.0283
   1.9603E-02   2.0080E-02   2.6333E-03  0.0282
   2.0080E-02   2.0569E-02   2.5462E-03  0.0284
   2.0569E-02   2.1069E-02   2.6836E-03  0.0273
   2.1069E-02   2.1582E-02   2.5418E-03  0.0277
   2.1582E-02   2.2107E-02   2.6014E-03  0.0271
   2.2107E-02   2.2645E-02   2.4625E-03  0.0275
   2.2645E-02   2.3196E-02   2.4884E-03  0.0270
   2.3196E-02   2.3760E-02   2.4736E-03  0.0268
   2.3760E-02   2.4338E-02   2.5272E-03  0.0262
   2.4338E-02   2.4930E-02   2.4199E-03  0.0264
   2.4930E-02   2.5537E-02   2.5570E-03  0.0254
   2.5537E-02   2.6158E-02   2.4447E-03  0.0257
   2.6158E-02   2.6795E-02   2.3945E-03  0.0256
   2.6795E-02   2.7447E-02   2.4864E-03  0.0248
   2.7447E-02   2.8114E-02   2.3720E-03  0.0251
   2.8114E-02   2.8799E-02   2.4143E-03  0.0246
   2.8799E-02   2.9499E-02   2.3848E-03  0.0245
   2.9499E-02   3.0217E-02   2.4208E-03  0.0240
   3.0217E-02   3.0952E-02   2.3660E-03  0.0240
   3.0952E-02   3.1705E-02   2.3344E-03  0.0239
   3.1705E-02   3.2477E-02   2.3399E-03  0.0235
   3.2477E-02   3.3267E-02   2.2830E-03  0.0235
   3.3267E-02   3.4076E-02   2.1837E-03  0.0238
   3.4076E-02   3.4905E-02   2.2772E-03  0.0230
   3.4905E-02   3.5755E-02   2.2513E-03  0.0229
   3.5755E-02   3.6625E-02   2.2369E-03  0.0227
   3.6625E-02   3.7516E-02   2.1917E-03  0.0226
   3.7516E-02   3.8428E-02   2.3335E-03  0.0217
   3.8428E-02   3.9363E-02   2.1845E-03  0.0221
   3.9363E-02   4.0321E-02   2.1300E-03  0.0221
   4.0321E-02   4.1302E-02   2.1783E-03  0.0216
   4.1302E-02   4.2307E-02   2.1604E-03  0.0215
   4.2307E-02   4.3337E-02   2.1916E-03  0.0211
   4.3337E-02   4.4391E-02   2.0931E-03  0.0213
   4.4391E-02   4.5471E-02   2.1591E-03  0.0207
   4.5471E-02   4.6577E-02   2.0446E-03  0.0210
   4.6577E-02   4.7711E-02   1.9607E-03  0.0212
   4.7711E-02   4.8871E-02   2.0683E-03  0.0204
   4.8871E-02   5.0061E-02   2.0192E-03  0.0204
   5.0061E-02   5.1279E-02   2.0024E-03  0.0202
   5.1279E-02   5.2526E-02   2.0126E-03  0.0200
   5.2526E-02   5.3804E-02   2.0137E-03  0.0197
   5.3804E-02   5.5113E-02   1.9319E-03  0.0199
   5.5113E-02   5.6454E-02   1.9322E-03  0.0196
   5.6454E-02   5.7828E-02   1.9063E-03  0.0195
   5.7828E-02   5.9235E-02   1.8877E-03  0.0194
   5.9235E-02   6.0676E-02   1.8561E-03  0.0193
   6.0676E-02   6.2152E-02   1.9068E-03  0.0188
   6.2152E-02   6.3665E-02   1.8003E-03  0.0192
   6.3665E-02   6.5214E-02   1.8328E-03  0.0188
   6.5214E-02   6.6800E-02   1.8649E-03  0.0184
   6.6800E-02   6.8426E-02   1.7547E-03  0.0187
   6.8426E-02   7.0090E-02   1.8761E-03  0.0179
   7.0090E-02   7.1796E-02   1.7565E-03  0.0183
   7.1796E-02   7.3543E-02   1.7838E-03  0.0179
   7.3543E-02   7.5332E-02   1.7604E-03  0.0178
   7.5332E-02   7.7165E-02   1.7061E-03  0.0179
   7.7165E-02   7.9042E-02   1.7020E-03  0.0177
   7.9042E-02   8.0965E-02   1.7115E-03  0.0174
   8.0965E-02   8.2935E-02   1.6467E-03  0.0176
   8.2935E-02   8.4953E-02   1.6651E-03  0.0173
   8.4953E-02   8.7020E-02   1.6314E-03  0.0172
   8.7020E-02   8.9138E-02   1.6172E-03  0.0171
   8.9138E-02   9.1306E-02   1.6147E-03  0.0169
   9.1306E-02   9.3528E-02   1.6032E-03  0.0168
   9.3528E-02   9.5804E-02   1.6051E-03  0.0165
   9.5804E-02   9.8134E-02   1.5414E-03  0.0167
   9.8134E-02   1.0052E-01   1.5213E-03  0.0166
   1.0052E-01   1.0297E-01   1.5531E-03  0.0162
   1.0297E-01   1.0547E-01   1.5617E-03  0.0160
   1.0547E-01   1.0804E-01   1.4771E-03  0.0162
   1.0804E-01   1.1067E-01   1.4648E-03  0.0161
   1.1067E-01   1.1336E-01   1.4918E-03  0.0158
   1.1336E-01   1.1612E-01   1.4821E-03  0.0156
   1.1612E-01   1.1894E-01   1.4200E-03  0.0158
   1.1894E-01   1.2184E-01   1.4345E-03  0.0155
   1.2184E-01   1.2480E-01   1.3795E-03  0.0156
   1.2480E-01   1.2784E-01   1.4250E-03  0.0152
   1.2784E-01   1.3095E-01   1.4067E-03  0.0151
   1.3095E-01   1.3414E-01   1.3625E-03  0.0152
   1.3414E-01   1.3740E-01   1.3680E-03  0.0150
   1.3740E-01   1.4074E-01   1.3426E-03  0.0149
   1.4074E-01   1.4417E-01   1.3011E-03  0.0150
   1.4417E-01   1.4767E-01   1.3053E-03  0.0148
   1.4767E-01   1.5127E-01   1.3008E-03  0.0146
   1.5127E-01   1.5495E-01   1.2985E-03  0.0145
   1.5495E-01   1.5872E-01   1.2511E-03  0.0146
   1.5872E-01   1.6258E-01   1.2739E-03  0.0143
   1.6258E-01   1.6654E-01   1.2418E-03  0.0143
   1.6654E-01   1.7059E-01   1.2208E-03  0.0142
   1.7059E-01   1.7474E-01   1.1989E-03  0.0142
   1.7474E-01   1.7899E-01   1.2045E-03  0.0140
   1.7899E-01   1.8334E-01   1.1969E-03  0.0138
   1.8334E-01   1.8781E-01   1.1649E-03  0.0139
   1.8781E-01   1.9237E-01   1.1335E-03  0.0139
   1.9237E-01   1.9706E-01   1.1238E-03  0.0138
   1.9706E-01   2.0185E-01   1.1502E-03  0.0135
   2.0185E-01   2.0676E-01   1.1415E-03  0.0134
   2.0676E-01   2.1179E-01   1.1183E-03  0.0133
   2.1179E-01   2.1694E-01   1.1121E-03  0.0132
   2.1694E-01   2.2222E-01   1.0752E-03  0.0133
   2.2222E-01   2.2763E-01   1.0493E-03  0.0133
   2.2763E-01   2.3317E-01   1.0584E-03  0.0131
   2.3317E-01   2.3884E-01   1.0619E-03  0.0129
   2.3884E-01   2.4465E-01   1.0160E-03  0.0130
   2.4465E-01   2.5061E-01   1.0275E-03  0.0128
   2.5061E-01   2.5670E-01   9.9911E-04  0.0128
   2.5670E-01   2.6295E-01   9.9755E-04  0.0127
   2.6295E-01   2.6935E-01   9.6479E-04  0.0127
   2.6935E-01   2.7590E-01   9.6805E-04  0.0126
   2.7590E-01   2.8261E-01   9.5310E-04  0.0125
   2.8261E-01   2.8949E-01   9.4900E-04  0.0124
   2.8949E-01   2.9653E-01   9.2880E-04  0.0124
   2.9653E-01   3.0375E-01   9.3273E-04  0.0122
   3.0375E-01   3.1114E-01   8.8067E-04  0.0124
   3.1114E-01   3.1871E-01   8.8287E-04  0.0122
   3.1871E-01   3.2646E-01   8.7673E-04  0.0121
   3.2646E-01   3.3441E-01   8.6012E-04  0.0121
   3.3441E-01   3.4254E-01   8.5948E-04  0.0120
   3.4254E-01   3.5088E-01   8.5220E-04  0.0119
   3.5088E-01   3.5941E-01   8.2680E-04  0.0119
   3.5941E-01   3.6816E-01   8.3478E-04  0.0117
   3.6816E-01   3.7712E-01   8.0647E-04  0.0118
   3.7712E-01   3.8629E-01   7.9538E-04  0.0117
   3.8629E-01   3.9569E-01   7.8441E-04  0.0116
   3.9569E-01   4.0532E-01   7.7004E-04  0.0116
   4.0532E-01   4.1518E-01   7.7253E-04  0.0115
   4.1518E-01   4.2528E-01   7.4988E-04  0.0115
   4.2528E-01   4.3563E-01   7.3501E-04  0.0115
   4.3563E-01   4.4623E-01   7.3661E-04  0.0113
   4.4623E-01   4.5708E-01   7.1516E-04  0.0113
   4.5708E-01   4.6821E-01   7.1269E-04  0.0112
   4.6821E-01   4.7960E-01   6.8795E-04  0.0113
   4.7960E-01   4.9127E-01   6.7290E-04  0.0113
   4.9127E-01   5.0322E-01   6.7356E-04  0.0111
   5.0322E-01   5.1546E-01   6.5911E-04  0.0111
   5.1546E-01   5.2800E-01   6.5151E-04  0.0111
   5.2800E-01   5.4085E-01   6.2876E-04  0.0111
   5.4085E-01   5.5401E-01   6.1793E-04  0.0111
   5.5401E-01   5.6749E-01   6.1163E-04  0.0110
   5.6749E-01   5.8130E-01   6.0435E-04  0.0109
   5.8130E-01   5.9544E-01   5.9423E-04  0.0109
   5.9544E-01   6.0993E-01   5.7860E-04  0.0109
   6.0993E-01   6.2477E-01   5.5852E-04  0.0110
   6.2477E-01   6.3997E-01   5.5424E-04  0.0109
   6.3997E-01   6.5554E-01   5.3873E-04  0.0109
   6.5554E-01   6.7149E-01   5.2806E-04  0.0109
   6.7149E-01   6.8783E-01   5.2167E-04  0.0108
   6.8783E-01   7.0456E-01   5.0898E-04  0.0108
   7.0456E-01   7.2171E-01   4.9444E-04  0.0109
   7.2171E-01   7.3927E-01   4.8651E-04  0.0108
   7.3927E-01   7.5725E-01   4.6873E-04  0.0109
   7.5725E-01   7.7568E-01   4.5100E-04  0.0110
   7.7568E-01   7.9455E-01   4.5475E-04  0.0108
   7.9455E-01   8.1388E-01   4.2949E-04  0.0110
   8.1388E-01   8.3368E-01   4.1763E-04  0.0110
   8.3368E-01   8.5397E-01   4.0467E-04  0.0110
   8.5397E-01   8.7475E-01   4.0235E-04  0.0109
   8.7475E-01   8.9603E-01   3.7919E-04  0.0111
   8.9603E-01   9.1783E-01   3.8055E-04  0.0110
   9.1783E-01   9.4016E-01   3.6435E-04  0.0111
   9.4016E-01   9.6304E-01   3.5261E-04  0.0111
   9.6304E-01   9.8647E-01   3.4027E-04  0.0112
   9.8647E-01   1.0105E+00   3.3225E-04  0.0112
   1.0105E+00   1.0351E+00   3.3392E-04  0.0110
   1.0351E+00   1.0602E+00   3.4367E-04  0.0108
   1.0602E+00   1.0860E+00   3.5107E-04  0.0105
   1.0860E+00   1.1125E+00   3.6260E-04  0.0102
   1.1125E+00   1.1395E+00   3.6306E-04  0.0101
   1.1395E+00   1.1673E+00   3.7606E-04  0.0098
   1.1673E+00   1.1957E+00   3.9082E-04  0.0095
   1.1957E+00   1.2247E+00   4.0578E-04  0.0092
   1.2247E+00   1.2545E+00   4.0317E-04  0.0091
   1.2545E+00   1.2851E+00   4.1025E-04  0.0089
   1.2851E+00   1.3163E+00   4.2368E-04  0.0087
   1.3163E+00   1.3484E+00   4.3435E-04  0.0085
   1.3484E+00   1.3812E+00   4.5151E-04  0.0082
   1.3812E+00   1.4148E+00   4.5889E-04  0.0081
   1.4148E+00   1.4492E+00   4.6773E-04  0.0079
   1.4492E+00   1.4845E+00   4.6027E-04  0.0079
   1.4845E+00   1.5206E+00   4.6917E-04  0.0077
   1.5206E+00   1.5576E+00   4.8079E-04  0.0075
   1.5576E+00   1.5955E+00   4.8368E-04  0.0074
   1.5955E+00   1.6343E+00   4.9677E-04  0.0072
   1.6343E+00   1.6741E+00   5.0638E-04  0.0070
   1.6741E+00   1.7148E+00   5.2943E-04  0.0068
   1.7148E+00   1.7565E+00   5.3008E-04  0.0067
   1.7565E+00   1.7992E+00   5.3534E-04  0.0066
   1.7992E+00   1.8430E+00   5.4253E-04  0.0065
   1.8430E+00   1.8879E+00   5.4661E-04  0.0064
   1.8879E+00   1.9338E+00   5.5678E-04  0.0063
   1.9338E+00   1.9808E+00   5.7281E-04  0.0061
   1.9808E+00   2.0290E+00   5.8536E-04  0.0060
   2.0290E+00   2.0784E+00   5.7562E-04  0.0059
   2.0784E+00   2.1290E+00   5.8866E-04  0.0058
   2.1290E+00   2.1808E+00   5.8601E-04  0.0057
   2.1808E+00   2.2338E+00   5.8935E-04  0.0057
   2.2338E+00   2.2882E+00   6.0658E-04  0.0055
   2.2882E+00   2.3439E+00   6.1519E-04  0.0054
   2.3439E+00   2.4009E+00   6.2565E-04  0.0053
   2.4009E+00   2.4593E+00   6.2836E-04  0.0052
   2.4593E+00   2.5191E+00   6.2635E-04  0.0052
   2.5191E+00   2.5804E+00   6.2712E-04  0.0051
   2.5804E+00   2.6432E+00   6.2300E-04  0.0051
   2.6432E+00   2.7075E+00   6.2301E-04  0.0050
   2.7075E+00   2.7734E+00   6.3843E-04  0.0049
   2.7734E+00   2.8409E+00   6.3750E-04  0.0048
   2.8409E+00   2.9100E+00   6.5378E-04  0.0047
   2.9100E+00   2.9808E+00   6.5923E-04  0.0046
   2.9808E+00   3.0533E+00   6.5453E-04  0.0046
   3.0533E+00   3.1276E+00   6.5553E-04  0.0045
   3.1276E+00   3.2037E+00   6.4995E-04  0.0045
   3.2037E+00   3.2817E+00   6.4661E-04  0.0045
   3.2817E+00   3.3615E+00   6.4142E-04  0.0044
   3.3615E+00   3.4433E+00   6.4495E-04  0.0044
   3.4433E+00   3.5271E+00   6.3876E-04  0.0043
   3.5271E+00   3.6129E+00   6.4814E-04  0.0042
   3.6129E+00   3.7008E+00   6.4486E-04  0.0042
   3.7008E+00   3.7908E+00   6.3592E-04  0.0042
   3.7908E+00   3.8831E+00   6.2913E-04  0.0042
   3.8831E+00   3.9776E+00   6.2991E-04  0.0041
   3.9776E+00   4.0743E+00   6.2524E-04  0.0041
   4.0743E+00   4.1735E+00   6.1249E-04  0.0041
   4.1735E+00   4.2750E+00   6.0315E-04  0.0040
   4.2750E+00   4.3790E+00   5.9063E-04  0.0040
   4.3790E+00   4.4856E+00   5.8069E-04  0.0040
   4.4856E+00   4.5947E+00   5.7313E-04  0.0040
   4.5947E+00   4.7065E+00   5.6415E-04  0.0040
   4.7065E+00   4.8210E+00   5.5474E-04  0.0040
   4.8210E+00   4.9383E+00   5.4855E-04  0.0039
   4.9383E+00   5.0585E+00   5.3830E-04  0.0039
   5.0585E+00   5.1815E+00   5.2158E-04  0.0039
   5.1815E+00   5.3076E+00   5.1081E-04  0.0039
   5.3076E+00   5.4368E+00   5.0021E-04  0.0039
   5.4368E+00   5.5690E+00   4.8451E-04  0.0040
   5.5690E+00   5.7045E+00   4.7181E-04  0.0040
   5.7045E+00   5.8433E+00   4.6008E-04  0.0040
   5.8433E+00   5.9855E+00   4.5250E-04  0.0039
   5.9855E+00   6.1311E+00   4.4043E-04  0.0039
   6.1311E+00   6.2803E+00   4.2897E-04  0.0040
   6.2803E+00   6.4331E+00   4.1247E-04  0.0040
   6.4331E+00   6.5896E+00   4.0219E-04  0.0040
   6.5896E+00   6.7500E+00   3.8648E-04  0.0040
   6.7500E+00   6.9142E+00   3.7339E-04  0.0040
   6.9142E+00   7.0824E+00   3.6497E-04  0.0040
   7.0824E+00   7.2548E+00   3.5271E-04  0.0041
   7.2548E+00   7.4313E+00   3.4051E-04  0.0041
   7.4313E+00   7.6121E+00   3.3038E-04  0.0041
   7.6121E+00   7.7973E+00   3.1775E-04  0.0041
   7.7973E+00   7.9870E+00   3.0666E-04  0.0041
   7.9870E+00   8.1813E+00   2.9794E-04  0.0042
   8.1813E+00   8.3804E+00   2.8670E-04  0.0042
   8.3804E+00   8.5843E+00   2.7651E-04  0.0042
   8.5843E+00   8.7931E+00   2.6649E-04  0.0042
   8.7931E+00   9.0071E+00   2.5590E-04  0.0043
   9.0071E+00   9.2262E+00   2.5077E-04  0.0043
   9.2262E+00   9.4507E+00   2.4141E-04  0.0043
   9.4507E+00   9.6807E+00   2.3289E-04  0.0043
   9.6807E+00   9.9162E+00   2.2462E-04  0.0043
   9.9162E+00   1.0157E+01   2.1876E-04  0.0044
   1.0157E+01   1.0405E+01   2.1002E-04  0.0044
   1.0405E+01   1.0658E+01   2.0400E-04  0.0044
   1.0658E+01   1.0917E+01   1.9776E-04  0.0044
   1.0917E+01   1.1183E+01   1.9117E-04  0.0044
   1.1183E+01   1.1455E+01   1.8515E-04  0.0045
   1.1455E+01   1.1733E+01   1.7915E-04  0.0045
   1.1733E+01   1.2019E+01   1.7420E-04  0.0045
   1.2019E+01   1.2311E+01   1.6928E-04  0.0045
   1.2311E+01   1.2611E+01   1.6351E-04  0.0045
   1.2611E+01   1.2918E+01   1.5744E-04  0.0045
   1.2918E+01   1.3232E+01   1.5410E-04  0.0045
   1.3232E+01   1.3554E+01   1.5005E-04  0.0045
   1.3554E+01   1.3884E+01   1.4493E-04  0.0046
   1.3884E+01   1.4222E+01   1.4109E-04  0.0046
   1.4222E+01   1.4568E+01   1.3830E-04  0.0046
   1.4568E+01   1.4922E+01   1.3398E-04  0.0046
   1.4922E+01   1.5285E+01   1.2956E-04  0.0046
   1.5285E+01   1.5657E+01   1.2729E-04  0.0046
   1.5657E+01   1.6038E+01   1.2328E-04  0.0046
   1.6038E+01   1.6428E+01   1.2099E-04  0.0046
   1.6428E+01   1.6828E+01   1.1869E-04  0.0046
   1.6828E+01   1.7237E+01   1.1425E-04  0.0046
   1.7237E+01   1.7657E+01   1.1200E-04  0.0046
   1.7657E+01   1.8086E+01   1.0941E-04  0.0046
   1.8086E+01   1.8526E+01   1.0633E-04  0.0046
   1.8526E+01   1.8977E+01   1.0390E-04  0.0046
   1.8977E+01   1.9439E+01   1.0181E-04  0.0046
   1.9439E+01   1.9912E+01   9.8815E-05  0.0046
   1.9912E+01   2.0396E+01   9.8912E-05  0.0046
   2.0396E+01   2.0893E+01   9.7854E-05  0.0045
   2.0893E+01   2.1401E+01   9.6399E-05  0.0045
   2.1401E+01   2.1922E+01   9.4023E-05  0.0045
   2.1922E+01   2.2455E+01   9.0693E-05  0.0045
   2.2455E+01   2.3001E+01   8.8714E-05  0.0045
   2.3001E+01   2.3561E+01   8.6924E-05  0.0045
   2.3561E+01   2.4134E+01   8.4559E-05  0.0045
   2.4134E+01   2.4721E+01   8.2293E-05  0.0045
   2.4721E+01   2.5323E+01   7.9885E-05  0.0046
   2.5323E+01   2.5939E+01   7.7497E-05  0.0046
   2.5939E+01   2.6570E+01   7.4837E-05  0.0046
   2.6570E+01   2.7217E+01   7.3530E-05  0.0046
   2.7217E+01   2.7879E+01   7.1404E-05  0.0046
   2.7879E+01   2.8557E+01   6.9774E-05  0.0046
   2.8557E+01   2.9252E+01   6.6499E-05  0.0047
   2.9252E+01   2.9964E+01   6.4723E-05  0.0047
   2.9964E+01   3.0693E+01   6.2708E-05  0.0047
   3.0693E+01   3.1440E+01   6.0157E-05  0.0047
   3.1440E+01   3.2205E+01   5.9175E-05  0.0047
   3.2205E+01   3.2988E+01   5.6611E-05  0.0047
   3.2988E+01   3.3791E+01   5.4520E-05  0.0048
   3.3791E+01   3.4613E+01   5.2199E-05  0.0048
   3.4613E+01   3.5455E+01   5.0321E-05  0.0049
   3.5455E+01   3.6318E+01   4.7986E-05  0.0049
   3.6318E+01   3.7201E+01   4.6604E-05  0.0049
   3.7201E+01   3.8106E+01   4.4391E-05  0.0050
   3.8106E+01   3.9034E+01   4.2375E-05  0.0050
   3.9034E+01   3.9983E+01   4.1215E-05  0.0051
   3.9983E+01   4.0956E+01   3.8990E-05  0.0051
   4.0956E+01   4.1953E+01   3.7080E-05  0.0052
   4.1953E+01   4.2973E+01   3.5326E-05  0.0053
   4.2973E+01   4.4019E+01   3.3258E-05  0.0054
   4.4019E+01   4.5090E+01   3.1657E-05  0.0054
   4.5090E+01   4.6187E+01   2.9779E-05  0.0055
   4.6187E+01   4.7311E+01   2.7840E-05  0.0057
   4.7311E+01   4.8462E+01   2.6701E-05  0.0057
   4.8462E+01   4.9641E+01   2.5063E-05  0.0058
   4.9641E+01   5.0849E+01   2.3664E-05  0.0059
   5.0849E+01   5.2086E+01   2.2198E-05  0.0060
   5.2086E+01   5.3353E+01   2.0878E-05  0.0061
   5.3353E+01   5.4651E+01   1.9287E-05  0.0063
   5.4651E+01   5.5981E+01   1.7857E-05  0.0065
   5.5981E+01   5.7343E+01   1.6733E-05  0.0066
   5.7343E+01   5.8738E+01   1.5281E-05  0.0068
   5.8738E+01   6.0168E+01   1.4058E-05  0.0071
   6.0168E+01   6.1632E+01   1.3158E-05  0.0072
   6.1632E+01   6.3131E+01   1.1822E-05  0.0075
   6.3131E+01   6.4667E+01   1.0930E-05  0.0077
   6.4667E+01   6.6240E+01   9.8157E-06  0.0080
   6.6240E+01   6.7852E+01   9.1110E-06  0.0083
   6.7852E+01   6.9503E+01   8.1398E-06  0.0086
   6.9503E+01   7.1194E+01   7.5792E-06  0.0088
   7.1194E+01   7.2926E+01   6.6314E-06  0.0093
   7.2926E+01   7.4701E+01   5.9160E-06  0.0098
   7.4701E+01   7.6518E+01   5.3226E-06  0.0102
   7.6518E+01   7.8380E+01   4.6258E-06  0.0108
   7.8380E+01   8.0287E+01   4.0550E-06  0.0114
   8.0287E+01   8.2240E+01   3.6525E-06  0.0118
   8.2240E+01   8.4241E+01   3.1914E-06  0.0125
   8.4241E+01   8.6291E+01   2.7439E-06  0.0133
   8.6291E+01   8.8391E+01   2.4115E-06  0.0141
   8.8391E+01   9.0541E+01   2.0138E-06  0.0152
   9.0541E+01   9.2744E+01   1.7862E-06  0.0159
   9.2744E+01   9.5001E+01   1.5023E-06  0.0172
   9.5001E+01   9.7312E+01   1.2853E-06  0.0183
   9.7312E+01   9.9680E+01   1.1492E-06  0.0192
   9.9680E+01   1.0211E+02   9.3391E-07  0.0210
   1.0211E+02   1.0459E+02   7.8855E-07  0.0226
   1.0459E+02   1.0713E+02   6.6529E-07  0.0243
   1.0713E+02   1.0974E+02   5.5051E-07  0.0264
   1.0974E+02   1.1241E+02   4.6029E-07  0.0285
   1.1241E+02   1.1515E+02   3.8025E-07  0.0310
   1.1515E+02   1.1795E+02   3.1232E-07  0.0338
   1.1795E+02   1.2082E+02   2.6413E-07  0.0363
   1.2082E+02   1.2376E+02   2.2758E-07  0.0387
   1.2376E+02   1.2677E+02   1.8233E-07  0.0427
   1.2677E+02   1.2985E+02   1.6146E-07  0.0448
   1.2985E+02   1.3301E+02   1.3072E-07  0.0492
   1.3301E+02   1.3625E+02   1.1896E-07  0.0510
   1.3625E+02   1.3956E+02   1.2127E-07  0.0499
   1.3956E+02   1.4296E+02   8.9820E-08  0.0573
   1.4296E+02   1.4644E+02   5.9512E-08  0.0695
   1.4644E+02   1.5000E+02   4.9678E-08  0.0752

#   sum over                 5.5212E-05
'no. =    1   reg = 112 - 212'
msuc: {\huge [t-cross] in region mesh}
msdr: {\it plotted by \ANGEL \version}
msdl: {\it calculated by \PHITS  3.26}
wt: s(0.7)
\vspace{-3}
  region surface crossing
  area  &=&   1.0000E+00 [cm^2]
e:
 
# Information for Restart Calculation
# This calculation was newly started
# istdev =  2 # 1:Batch variance, 2:History variance
# resc2  = 1.00000000000000000E+09 # Total source weight or Total source weight / maxcas
# resc3  = 1.00000000000000000E+09 # Total history number or Total batch number
# maxcas =   500000000 # History / Batch, only used for istdev=1
# bitrseed = 0001001110011001001001110000100100110111001111011100001000101100 # bit data of rseed
