[ T-Cross ]
    title = [t-cross] in region mesh
     mesh =  reg            # mesh type is region-wise
      reg =    1            # number of crossing regions
      non     r-from    r-to       area
      1       119       219        1.000000    
   e-type =    3            # e-mesh is log given by emin, emax and ne
     emin =  1.0000000E-02  # minimum value of e-mesh points
     emax =   150.0000      # maximum value of e-mesh points
#    edel =  2.4039514E-02  # mesh width of e-mesh points
       ne =    400          # number of e-mesh points
#    data = ( e(i), i = 1, ne + 1 )
#           1.00000E-02  1.02433E-02  1.04925E-02  1.07478E-02  1.10093E-02
#           1.12772E-02  1.15516E-02  1.18326E-02  1.21205E-02  1.24154E-02
#           1.27175E-02  1.30269E-02  1.33439E-02  1.36686E-02  1.40011E-02
#           1.43418E-02  1.46907E-02  1.50482E-02  1.54143E-02  1.57894E-02
#           1.61735E-02  1.65670E-02  1.69701E-02  1.73830E-02  1.78060E-02
#           1.82392E-02  1.86830E-02  1.91375E-02  1.96032E-02  2.00801E-02
#           2.05687E-02  2.10692E-02  2.15818E-02  2.21069E-02  2.26448E-02
#           2.31957E-02  2.37601E-02  2.43382E-02  2.49304E-02  2.55369E-02
#           2.61583E-02  2.67947E-02  2.74467E-02  2.81145E-02  2.87985E-02
#           2.94992E-02  3.02169E-02  3.09521E-02  3.17052E-02  3.24766E-02
#           3.32668E-02  3.40762E-02  3.49053E-02  3.57546E-02  3.66246E-02
#           3.75157E-02  3.84284E-02  3.93634E-02  4.03212E-02  4.13022E-02
#           4.23071E-02  4.33365E-02  4.43909E-02  4.54710E-02  4.65773E-02
#           4.77106E-02  4.88714E-02  5.00605E-02  5.12785E-02  5.25262E-02
#           5.38042E-02  5.51133E-02  5.64542E-02  5.78278E-02  5.92348E-02
#           6.06760E-02  6.21523E-02  6.36645E-02  6.52135E-02  6.68002E-02
#           6.84255E-02  7.00904E-02  7.17957E-02  7.35426E-02  7.53319E-02
#           7.71648E-02  7.90423E-02  8.09655E-02  8.29354E-02  8.49533E-02
#           8.70203E-02  8.91376E-02  9.13064E-02  9.35279E-02  9.58035E-02
#           9.81345E-02  1.00522E-01  1.02968E-01  1.05473E-01  1.08040E-01
#           1.10668E-01  1.13361E-01  1.16119E-01  1.18944E-01  1.21838E-01
#           1.24803E-01  1.27839E-01  1.30950E-01  1.34136E-01  1.37399E-01
#           1.40742E-01  1.44167E-01  1.47675E-01  1.51268E-01  1.54948E-01
#           1.58718E-01  1.62580E-01  1.66535E-01  1.70587E-01  1.74738E-01
#           1.78989E-01  1.83344E-01  1.87805E-01  1.92375E-01  1.97055E-01
#           2.01850E-01  2.06761E-01  2.11792E-01  2.16945E-01  2.22223E-01
#           2.27630E-01  2.33169E-01  2.38842E-01  2.44653E-01  2.50605E-01
#           2.56703E-01  2.62949E-01  2.69346E-01  2.75900E-01  2.82613E-01
#           2.89489E-01  2.96532E-01  3.03747E-01  3.11138E-01  3.18708E-01
#           3.26462E-01  3.34405E-01  3.42542E-01  3.50876E-01  3.59413E-01
#           3.68158E-01  3.77116E-01  3.86291E-01  3.95690E-01  4.05317E-01
#           4.15179E-01  4.25281E-01  4.35628E-01  4.46227E-01  4.57084E-01
#           4.68205E-01  4.79597E-01  4.91266E-01  5.03219E-01  5.15463E-01
#           5.28005E-01  5.40851E-01  5.54011E-01  5.67490E-01  5.81298E-01
#           5.95441E-01  6.09929E-01  6.24769E-01  6.39970E-01  6.55541E-01
#           6.71491E-01  6.87828E-01  7.04564E-01  7.21706E-01  7.39266E-01
#           7.57253E-01  7.75678E-01  7.94551E-01  8.13883E-01  8.33685E-01
#           8.53969E-01  8.74747E-01  8.96030E-01  9.17831E-01  9.40163E-01
#           9.63038E-01  9.86469E-01  1.01047E+00  1.03506E+00  1.06024E+00
#           1.08604E+00  1.11246E+00  1.13953E+00  1.16725E+00  1.19565E+00
#           1.22474E+00  1.25454E+00  1.28507E+00  1.31633E+00  1.34836E+00
#           1.38117E+00  1.41477E+00  1.44920E+00  1.48446E+00  1.52057E+00
#           1.55757E+00  1.59547E+00  1.63429E+00  1.67405E+00  1.71478E+00
#           1.75650E+00  1.79924E+00  1.84302E+00  1.88786E+00  1.93379E+00
#           1.98084E+00  2.02904E+00  2.07841E+00  2.12898E+00  2.18078E+00
#           2.23384E+00  2.28819E+00  2.34386E+00  2.40089E+00  2.45930E+00
#           2.51914E+00  2.58043E+00  2.64322E+00  2.70753E+00  2.77341E+00
#           2.84088E+00  2.91001E+00  2.98081E+00  3.05333E+00  3.12762E+00
#           3.20372E+00  3.28167E+00  3.36152E+00  3.44330E+00  3.52708E+00
#           3.61290E+00  3.70080E+00  3.79085E+00  3.88308E+00  3.97756E+00
#           4.07434E+00  4.17347E+00  4.27501E+00  4.37903E+00  4.48557E+00
#           4.59471E+00  4.70650E+00  4.82102E+00  4.93832E+00  5.05847E+00
#           5.18155E+00  5.30762E+00  5.43676E+00  5.56904E+00  5.70453E+00
#           5.84333E+00  5.98550E+00  6.13114E+00  6.28031E+00  6.43312E+00
#           6.58964E+00  6.74997E+00  6.91420E+00  7.08243E+00  7.25475E+00
#           7.43126E+00  7.61207E+00  7.79728E+00  7.98700E+00  8.18133E+00
#           8.38038E+00  8.58428E+00  8.79315E+00  9.00709E+00  9.22624E+00
#           9.45072E+00  9.68067E+00  9.91620E+00  1.01575E+01  1.04046E+01
#           1.06578E+01  1.09171E+01  1.11827E+01  1.14548E+01  1.17335E+01
#           1.20190E+01  1.23114E+01  1.26109E+01  1.29178E+01  1.32321E+01
#           1.35540E+01  1.38838E+01  1.42216E+01  1.45676E+01  1.49221E+01
#           1.52851E+01  1.56570E+01  1.60380E+01  1.64282E+01  1.68279E+01
#           1.72374E+01  1.76568E+01  1.80864E+01  1.85264E+01  1.89772E+01
#           1.94389E+01  1.99119E+01  2.03963E+01  2.08926E+01  2.14009E+01
#           2.19216E+01  2.24550E+01  2.30014E+01  2.35610E+01  2.41343E+01
#           2.47215E+01  2.53230E+01  2.59391E+01  2.65702E+01  2.72167E+01
#           2.78789E+01  2.85572E+01  2.92520E+01  2.99637E+01  3.06928E+01
#           3.14396E+01  3.22045E+01  3.29881E+01  3.37907E+01  3.46128E+01
#           3.54550E+01  3.63177E+01  3.72013E+01  3.81064E+01  3.90336E+01
#           3.99833E+01  4.09561E+01  4.19526E+01  4.29734E+01  4.40189E+01
#           4.50900E+01  4.61870E+01  4.73108E+01  4.84619E+01  4.96410E+01
#           5.08488E+01  5.20860E+01  5.33533E+01  5.46514E+01  5.59812E+01
#           5.73432E+01  5.87384E+01  6.01676E+01  6.16315E+01  6.31311E+01
#           6.46671E+01  6.62405E+01  6.78522E+01  6.95031E+01  7.11941E+01
#           7.29263E+01  7.47007E+01  7.65182E+01  7.83800E+01  8.02870E+01
#           8.22405E+01  8.42414E+01  8.62911E+01  8.83906E+01  9.05412E+01
#           9.27442E+01  9.50007E+01  9.73122E+01  9.96799E+01  1.02105E+02
#           1.04589E+02  1.07134E+02  1.09741E+02  1.12411E+02  1.15146E+02
#           1.17948E+02  1.20817E+02  1.23757E+02  1.26768E+02  1.29852E+02
#           1.33012E+02  1.36248E+02  1.39563E+02  1.42959E+02  1.46437E+02
#           1.50000E+02
     unit =    2            # unit is [1/cm^2/(MeV/n)/source]
     axis =  eng            # axis of output
     file = detector-20.out  # file name of output for the above axis
   output = f-curr          # surface crossing forward current spectrum
     part =  neutron  
# kf/name :  2112     
#    used :        main (  %)        temp (  %)       total (  %)
#  memory :         414 (  0)           0 (  0)         414 (  0)

#------------------------------------------------------------------------------
#newpage:
#   no. =    1   reg = 119 - 219

x: Energy [MeV/n]
y:  F-Curr [1/cm^2/(MeV/n)/source]         
p: xlog ylog afac(0.8) form(0.9)
h: n            x            y(neutron ),hh0l   n 
#  e-lower      e-upper      neutron     r.err 
   1.0000E-02   1.0243E-02   1.1894E-02  0.0186
   1.0243E-02   1.0493E-02   1.1825E-02  0.0184
   1.0493E-02   1.0748E-02   1.1881E-02  0.0182
   1.0748E-02   1.1009E-02   1.2067E-02  0.0178
   1.1009E-02   1.1277E-02   1.2056E-02  0.0176
   1.1277E-02   1.1552E-02   1.1528E-02  0.0178
   1.1552E-02   1.1833E-02   1.1720E-02  0.0174
   1.1833E-02   1.2121E-02   1.1688E-02  0.0172
   1.2121E-02   1.2415E-02   1.1528E-02  0.0172
   1.2415E-02   1.2718E-02   1.1659E-02  0.0169
   1.2718E-02   1.3027E-02   1.1555E-02  0.0167
   1.3027E-02   1.3344E-02   1.1505E-02  0.0166
   1.3344E-02   1.3669E-02   1.1372E-02  0.0165
   1.3669E-02   1.4001E-02   1.1228E-02  0.0164
   1.4001E-02   1.4342E-02   1.1224E-02  0.0162
   1.4342E-02   1.4691E-02   1.1056E-02  0.0161
   1.4691E-02   1.5048E-02   1.0919E-02  0.0160
   1.5048E-02   1.5414E-02   1.1229E-02  0.0156
   1.5414E-02   1.5789E-02   1.1012E-02  0.0156
   1.5789E-02   1.6174E-02   1.1457E-02  0.0151
   1.6174E-02   1.6567E-02   1.1073E-02  0.0151
   1.6567E-02   1.6970E-02   1.1280E-02  0.0148
   1.6970E-02   1.7383E-02   1.1241E-02  0.0147
   1.7383E-02   1.7806E-02   1.0987E-02  0.0147
   1.7806E-02   1.8239E-02   1.1119E-02  0.0144
   1.8239E-02   1.8683E-02   1.1106E-02  0.0142
   1.8683E-02   1.9138E-02   1.1032E-02  0.0141
   1.9138E-02   1.9603E-02   1.0824E-02  0.0141
   1.9603E-02   2.0080E-02   1.0644E-02  0.0140
   2.0080E-02   2.0569E-02   1.0838E-02  0.0137
   2.0569E-02   2.1069E-02   1.0633E-02  0.0137
   2.1069E-02   2.1582E-02   1.0638E-02  0.0135
   2.1582E-02   2.2107E-02   1.1101E-02  0.0131
   2.2107E-02   2.2645E-02   1.0475E-02  0.0133
   2.2645E-02   2.3196E-02   1.0643E-02  0.0131
   2.3196E-02   2.3760E-02   1.0523E-02  0.0130
   2.3760E-02   2.4338E-02   1.0442E-02  0.0129
   2.4338E-02   2.4930E-02   1.0519E-02  0.0127
   2.4930E-02   2.5537E-02   1.0471E-02  0.0125
   2.5537E-02   2.6158E-02   1.0477E-02  0.0124
   2.6158E-02   2.6795E-02   1.0467E-02  0.0123
   2.6795E-02   2.7447E-02   1.0520E-02  0.0121
   2.7447E-02   2.8114E-02   1.0330E-02  0.0120
   2.8114E-02   2.8799E-02   1.0148E-02  0.0120
   2.8799E-02   2.9499E-02   1.0303E-02  0.0118
   2.9499E-02   3.0217E-02   1.0195E-02  0.0117
   3.0217E-02   3.0952E-02   1.0270E-02  0.0115
   3.0952E-02   3.1705E-02   9.8142E-03  0.0116
   3.1705E-02   3.2477E-02   1.0076E-02  0.0113
   3.2477E-02   3.3267E-02   9.9123E-03  0.0113
   3.3267E-02   3.4076E-02   9.9369E-03  0.0112
   3.4076E-02   3.4905E-02   9.8317E-03  0.0111
   3.4905E-02   3.5755E-02   9.9032E-03  0.0109
   3.5755E-02   3.6625E-02   9.7076E-03  0.0109
   3.6625E-02   3.7516E-02   9.6319E-03  0.0108
   3.7516E-02   3.8428E-02   9.7504E-03  0.0106
   3.8428E-02   3.9363E-02   9.6621E-03  0.0105
   3.9363E-02   4.0321E-02   9.5318E-03  0.0105
   4.0321E-02   4.1302E-02   9.4430E-03  0.0104
   4.1302E-02   4.2307E-02   9.3446E-03  0.0103
   4.2307E-02   4.3337E-02   9.4296E-03  0.0102
   4.3337E-02   4.4391E-02   9.2990E-03  0.0101
   4.4391E-02   4.5471E-02   9.0948E-03  0.0101
   4.5471E-02   4.6577E-02   9.3804E-03  0.0098
   4.6577E-02   4.7711E-02   9.3072E-03  0.0097
   4.7711E-02   4.8871E-02   9.1628E-03  0.0097
   4.8871E-02   5.0061E-02   8.9523E-03  0.0097
   5.0061E-02   5.1279E-02   9.1387E-03  0.0095
   5.1279E-02   5.2526E-02   9.0795E-03  0.0094
   5.2526E-02   5.3804E-02   8.9057E-03  0.0094
   5.3804E-02   5.5113E-02   8.9955E-03  0.0092
   5.5113E-02   5.6454E-02   8.8460E-03  0.0092
   5.6454E-02   5.7828E-02   8.7614E-03  0.0091
   5.7828E-02   5.9235E-02   8.6294E-03  0.0091
   5.9235E-02   6.0676E-02   8.9327E-03  0.0088
   6.0676E-02   6.2152E-02   8.6168E-03  0.0089
   6.2152E-02   6.3665E-02   8.7078E-03  0.0087
   6.3665E-02   6.5214E-02   8.5574E-03  0.0087
   6.5214E-02   6.6800E-02   8.4799E-03  0.0086
   6.6800E-02   6.8426E-02   8.5879E-03  0.0085
   6.8426E-02   7.0090E-02   8.3791E-03  0.0085
   7.0090E-02   7.1796E-02   8.3836E-03  0.0084
   7.1796E-02   7.3543E-02   8.4180E-03  0.0082
   7.3543E-02   7.5332E-02   8.2863E-03  0.0082
   7.5332E-02   7.7165E-02   8.1366E-03  0.0082
   7.7165E-02   7.9042E-02   8.2123E-03  0.0081
   7.9042E-02   8.0965E-02   8.1129E-03  0.0080
   8.0965E-02   8.2935E-02   7.9649E-03  0.0080
   8.2935E-02   8.4953E-02   7.9425E-03  0.0079
   8.4953E-02   8.7020E-02   7.9558E-03  0.0078
   8.7020E-02   8.9138E-02   7.9499E-03  0.0077
   8.9138E-02   9.1306E-02   7.8625E-03  0.0077
   9.1306E-02   9.3528E-02   7.8429E-03  0.0076
   9.3528E-02   9.5804E-02   7.6872E-03  0.0076
   9.5804E-02   9.8134E-02   7.6565E-03  0.0075
   9.8134E-02   1.0052E-01   7.5889E-03  0.0074
   1.0052E-01   1.0297E-01   7.4755E-03  0.0074
   1.0297E-01   1.0547E-01   7.5113E-03  0.0073
   1.0547E-01   1.0804E-01   7.4708E-03  0.0072
   1.0804E-01   1.1067E-01   7.4138E-03  0.0072
   1.1067E-01   1.1336E-01   7.3563E-03  0.0071
   1.1336E-01   1.1612E-01   7.3056E-03  0.0070
   1.1612E-01   1.1894E-01   7.4027E-03  0.0069
   1.1894E-01   1.2184E-01   7.1900E-03  0.0069
   1.2184E-01   1.2480E-01   7.1041E-03  0.0069
   1.2480E-01   1.2784E-01   7.1687E-03  0.0068
   1.2784E-01   1.3095E-01   7.0267E-03  0.0068
   1.3095E-01   1.3414E-01   6.9734E-03  0.0067
   1.3414E-01   1.3740E-01   6.9265E-03  0.0067
   1.3740E-01   1.4074E-01   6.8861E-03  0.0066
   1.4074E-01   1.4417E-01   6.8523E-03  0.0065
   1.4417E-01   1.4767E-01   6.7601E-03  0.0065
   1.4767E-01   1.5127E-01   6.7035E-03  0.0064
   1.5127E-01   1.5495E-01   6.6742E-03  0.0064
   1.5495E-01   1.5872E-01   6.5741E-03  0.0064
   1.5872E-01   1.6258E-01   6.5441E-03  0.0063
   1.6258E-01   1.6654E-01   6.4435E-03  0.0063
   1.6654E-01   1.7059E-01   6.4231E-03  0.0062
   1.7059E-01   1.7474E-01   6.3794E-03  0.0061
   1.7474E-01   1.7899E-01   6.3107E-03  0.0061
   1.7899E-01   1.8334E-01   6.1854E-03  0.0061
   1.8334E-01   1.8781E-01   6.2205E-03  0.0060
   1.8781E-01   1.9237E-01   6.0931E-03  0.0060
   1.9237E-01   1.9706E-01   6.0578E-03  0.0059
   1.9706E-01   2.0185E-01   6.0202E-03  0.0059
   2.0185E-01   2.0676E-01   5.9198E-03  0.0059
   2.0676E-01   2.1179E-01   5.8870E-03  0.0058
   2.1179E-01   2.1694E-01   5.8680E-03  0.0058
   2.1694E-01   2.2222E-01   5.7623E-03  0.0057
   2.2222E-01   2.2763E-01   5.7272E-03  0.0057
   2.2763E-01   2.3317E-01   5.6234E-03  0.0057
   2.3317E-01   2.3884E-01   5.5703E-03  0.0056
   2.3884E-01   2.4465E-01   5.4760E-03  0.0056
   2.4465E-01   2.5061E-01   5.4137E-03  0.0056
   2.5061E-01   2.5670E-01   5.3557E-03  0.0055
   2.5670E-01   2.6295E-01   5.3659E-03  0.0055
   2.6295E-01   2.6935E-01   5.3234E-03  0.0054
   2.6935E-01   2.7590E-01   5.2354E-03  0.0054
   2.7590E-01   2.8261E-01   5.1895E-03  0.0054
   2.8261E-01   2.8949E-01   5.1365E-03  0.0053
   2.8949E-01   2.9653E-01   5.1162E-03  0.0053
   2.9653E-01   3.0375E-01   5.0094E-03  0.0053
   3.0375E-01   3.1114E-01   4.9101E-03  0.0053
   3.1114E-01   3.1871E-01   4.8785E-03  0.0052
   3.1871E-01   3.2646E-01   4.8084E-03  0.0052
   3.2646E-01   3.3441E-01   4.7686E-03  0.0051
   3.3441E-01   3.4254E-01   4.6742E-03  0.0051
   3.4254E-01   3.5088E-01   4.6595E-03  0.0051
   3.5088E-01   3.5941E-01   4.5269E-03  0.0051
   3.5941E-01   3.6816E-01   4.4804E-03  0.0051
   3.6816E-01   3.7712E-01   4.4371E-03  0.0050
   3.7712E-01   3.8629E-01   4.3592E-03  0.0050
   3.8629E-01   3.9569E-01   4.2881E-03  0.0050
   3.9569E-01   4.0532E-01   4.2314E-03  0.0050
   4.0532E-01   4.1518E-01   4.1742E-03  0.0049
   4.1518E-01   4.2528E-01   4.1039E-03  0.0049
   4.2528E-01   4.3563E-01   4.0880E-03  0.0049
   4.3563E-01   4.4623E-01   3.9344E-03  0.0049
   4.4623E-01   4.5708E-01   3.8984E-03  0.0049
   4.5708E-01   4.6821E-01   3.8398E-03  0.0048
   4.6821E-01   4.7960E-01   3.7751E-03  0.0048
   4.7960E-01   4.9127E-01   3.7243E-03  0.0048
   4.9127E-01   5.0322E-01   3.6393E-03  0.0048
   5.0322E-01   5.1546E-01   3.5777E-03  0.0048
   5.1546E-01   5.2800E-01   3.4795E-03  0.0048
   5.2800E-01   5.4085E-01   3.4423E-03  0.0048
   5.4085E-01   5.5401E-01   3.3762E-03  0.0047
   5.5401E-01   5.6749E-01   3.3126E-03  0.0047
   5.6749E-01   5.8130E-01   3.2469E-03  0.0047
   5.8130E-01   5.9544E-01   3.1580E-03  0.0047
   5.9544E-01   6.0993E-01   3.0950E-03  0.0047
   6.0993E-01   6.2477E-01   3.0381E-03  0.0047
   6.2477E-01   6.3997E-01   2.9633E-03  0.0047
   6.3997E-01   6.5554E-01   2.8814E-03  0.0047
   6.5554E-01   6.7149E-01   2.8182E-03  0.0047
   6.7149E-01   6.8783E-01   2.7825E-03  0.0047
   6.8783E-01   7.0456E-01   2.6848E-03  0.0047
   7.0456E-01   7.2171E-01   2.6155E-03  0.0047
   7.2171E-01   7.3927E-01   2.5325E-03  0.0047
   7.3927E-01   7.5725E-01   2.4737E-03  0.0047
   7.5725E-01   7.7568E-01   2.4099E-03  0.0047
   7.7568E-01   7.9455E-01   2.3473E-03  0.0048
   7.9455E-01   8.1388E-01   2.2482E-03  0.0048
   8.1388E-01   8.3368E-01   2.1896E-03  0.0048
   8.3368E-01   8.5397E-01   2.1371E-03  0.0048
   8.5397E-01   8.7475E-01   2.0341E-03  0.0049
   8.7475E-01   8.9603E-01   1.9983E-03  0.0049
   8.9603E-01   9.1783E-01   1.9225E-03  0.0049
   9.1783E-01   9.4016E-01   1.8555E-03  0.0049
   9.4016E-01   9.6304E-01   1.7694E-03  0.0050
   9.6304E-01   9.8647E-01   1.7232E-03  0.0050
   9.8647E-01   1.0105E+00   1.6717E-03  0.0050
   1.0105E+00   1.0351E+00   1.6415E-03  0.0050
   1.0351E+00   1.0602E+00   1.6788E-03  0.0049
   1.0602E+00   1.0860E+00   1.7126E-03  0.0048
   1.0860E+00   1.1125E+00   1.7321E-03  0.0047
   1.1125E+00   1.1395E+00   1.7828E-03  0.0046
   1.1395E+00   1.1673E+00   1.8069E-03  0.0045
   1.1673E+00   1.1957E+00   1.8625E-03  0.0043
   1.1957E+00   1.2247E+00   1.9043E-03  0.0043
   1.2247E+00   1.2545E+00   1.9022E-03  0.0042
   1.2545E+00   1.2851E+00   1.9313E-03  0.0041
   1.2851E+00   1.3163E+00   1.9377E-03  0.0041
   1.3163E+00   1.3484E+00   1.9575E-03  0.0040
   1.3484E+00   1.3812E+00   1.9929E-03  0.0039
   1.3812E+00   1.4148E+00   2.0311E-03  0.0038
   1.4148E+00   1.4492E+00   2.0279E-03  0.0038
   1.4492E+00   1.4845E+00   2.0370E-03  0.0037
   1.4845E+00   1.5206E+00   2.0163E-03  0.0037
   1.5206E+00   1.5576E+00   2.0129E-03  0.0037
   1.5576E+00   1.5955E+00   2.0136E-03  0.0036
   1.5955E+00   1.6343E+00   2.0275E-03  0.0036
   1.6343E+00   1.6741E+00   2.0477E-03  0.0035
   1.6741E+00   1.7148E+00   2.0715E-03  0.0034
   1.7148E+00   1.7565E+00   2.0512E-03  0.0034
   1.7565E+00   1.7992E+00   2.0333E-03  0.0034
   1.7992E+00   1.8430E+00   2.0243E-03  0.0034
   1.8430E+00   1.8879E+00   1.9961E-03  0.0033
   1.8879E+00   1.9338E+00   1.9881E-03  0.0033
   1.9338E+00   1.9808E+00   1.9993E-03  0.0033
   1.9808E+00   2.0290E+00   1.9866E-03  0.0032
   2.0290E+00   2.0784E+00   1.9417E-03  0.0032
   2.0784E+00   2.1290E+00   1.9074E-03  0.0032
   2.1290E+00   2.1808E+00   1.8714E-03  0.0032
   2.1808E+00   2.2338E+00   1.8340E-03  0.0032
   2.2338E+00   2.2882E+00   1.8023E-03  0.0032
   2.2882E+00   2.3439E+00   1.7805E-03  0.0032
   2.3439E+00   2.4009E+00   1.7682E-03  0.0032
   2.4009E+00   2.4593E+00   1.7324E-03  0.0031
   2.4593E+00   2.5191E+00   1.6891E-03  0.0031
   2.5191E+00   2.5804E+00   1.6334E-03  0.0032
   2.5804E+00   2.6432E+00   1.5840E-03  0.0032
   2.6432E+00   2.7075E+00   1.5319E-03  0.0032
   2.7075E+00   2.7734E+00   1.4859E-03  0.0032
   2.7734E+00   2.8409E+00   1.4473E-03  0.0032
   2.8409E+00   2.9100E+00   1.4116E-03  0.0032
   2.9100E+00   2.9808E+00   1.3728E-03  0.0032
   2.9808E+00   3.0533E+00   1.3294E-03  0.0032
   3.0533E+00   3.1276E+00   1.2819E-03  0.0032
   3.1276E+00   3.2037E+00   1.2203E-03  0.0033
   3.2037E+00   3.2817E+00   1.1687E-03  0.0033
   3.2817E+00   3.3615E+00   1.1159E-03  0.0034
   3.3615E+00   3.4433E+00   1.0711E-03  0.0034
   3.4433E+00   3.5271E+00   1.0228E-03  0.0034
   3.5271E+00   3.6129E+00   9.8827E-04  0.0034
   3.6129E+00   3.7008E+00   9.3786E-04  0.0035
   3.7008E+00   3.7908E+00   8.9562E-04  0.0035
   3.7908E+00   3.8831E+00   8.4955E-04  0.0036
   3.8831E+00   3.9776E+00   8.1038E-04  0.0036
   3.9776E+00   4.0743E+00   7.7309E-04  0.0037
   4.0743E+00   4.1735E+00   7.3196E-04  0.0037
   4.1735E+00   4.2750E+00   6.9405E-04  0.0038
   4.2750E+00   4.3790E+00   6.5055E-04  0.0038
   4.3790E+00   4.4856E+00   6.1347E-04  0.0039
   4.4856E+00   4.5947E+00   5.8390E-04  0.0040
   4.5947E+00   4.7065E+00   5.4419E-04  0.0041
   4.7065E+00   4.8210E+00   5.1283E-04  0.0041
   4.8210E+00   4.9383E+00   4.8120E-04  0.0042
   4.9383E+00   5.0585E+00   4.5388E-04  0.0043
   5.0585E+00   5.1815E+00   4.2788E-04  0.0044
   5.1815E+00   5.3076E+00   4.0233E-04  0.0044
   5.3076E+00   5.4368E+00   3.7675E-04  0.0045
   5.4368E+00   5.5690E+00   3.5007E-04  0.0046
   5.5690E+00   5.7045E+00   3.3159E-04  0.0047
   5.7045E+00   5.8433E+00   3.0500E-04  0.0049
   5.8433E+00   5.9855E+00   2.8310E-04  0.0050
   5.9855E+00   6.1311E+00   2.6658E-04  0.0051
   6.1311E+00   6.2803E+00   2.4961E-04  0.0052
   6.2803E+00   6.4331E+00   2.3273E-04  0.0053
   6.4331E+00   6.5896E+00   2.1675E-04  0.0054
   6.5896E+00   6.7500E+00   2.0183E-04  0.0056
   6.7500E+00   6.9142E+00   1.8780E-04  0.0057
   6.9142E+00   7.0824E+00   1.7291E-04  0.0059
   7.0824E+00   7.2548E+00   1.6249E-04  0.0060
   7.2548E+00   7.4313E+00   1.4965E-04  0.0061
   7.4313E+00   7.6121E+00   1.3914E-04  0.0063
   7.6121E+00   7.7973E+00   1.2980E-04  0.0064
   7.7973E+00   7.9870E+00   1.1999E-04  0.0066
   7.9870E+00   8.1813E+00   1.1180E-04  0.0068
   8.1813E+00   8.3804E+00   1.0400E-04  0.0069
   8.3804E+00   8.5843E+00   9.6113E-05  0.0071
   8.5843E+00   8.7931E+00   8.8549E-05  0.0073
   8.7931E+00   9.0071E+00   8.1453E-05  0.0076
   9.0071E+00   9.2262E+00   7.7089E-05  0.0077
   9.2262E+00   9.4507E+00   7.0747E-05  0.0079
   9.4507E+00   9.6807E+00   6.5847E-05  0.0081
   9.6807E+00   9.9162E+00   6.0457E-05  0.0084
   9.9162E+00   1.0157E+01   5.5877E-05  0.0086
   1.0157E+01   1.0405E+01   5.2505E-05  0.0088
   1.0405E+01   1.0658E+01   4.7904E-05  0.0091
   1.0658E+01   1.0917E+01   4.4909E-05  0.0093
   1.0917E+01   1.1183E+01   4.1002E-05  0.0096
   1.1183E+01   1.1455E+01   3.8100E-05  0.0098
   1.1455E+01   1.1733E+01   3.5767E-05  0.0100
   1.1733E+01   1.2019E+01   3.2541E-05  0.0104
   1.2019E+01   1.2311E+01   3.0276E-05  0.0106
   1.2311E+01   1.2611E+01   2.7926E-05  0.0109
   1.2611E+01   1.2918E+01   2.5686E-05  0.0113
   1.2918E+01   1.3232E+01   2.4416E-05  0.0114
   1.3232E+01   1.3554E+01   2.2704E-05  0.0117
   1.3554E+01   1.3884E+01   2.1313E-05  0.0119
   1.3884E+01   1.4222E+01   1.9596E-05  0.0123
   1.4222E+01   1.4568E+01   1.8309E-05  0.0126
   1.4568E+01   1.4922E+01   1.7076E-05  0.0129
   1.4922E+01   1.5285E+01   1.5307E-05  0.0134
   1.5285E+01   1.5657E+01   1.4828E-05  0.0135
   1.5657E+01   1.6038E+01   1.3705E-05  0.0138
   1.6038E+01   1.6428E+01   1.2592E-05  0.0143
   1.6428E+01   1.6828E+01   1.1855E-05  0.0145
   1.6828E+01   1.7237E+01   1.1145E-05  0.0148
   1.7237E+01   1.7657E+01   1.0949E-05  0.0148
   1.7657E+01   1.8086E+01   9.9045E-06  0.0153
   1.8086E+01   1.8526E+01   9.2307E-06  0.0157
   1.8526E+01   1.8977E+01   8.3847E-06  0.0163
   1.8977E+01   1.9439E+01   8.3014E-06  0.0162
   1.9439E+01   1.9912E+01   8.0366E-06  0.0162
   1.9912E+01   2.0396E+01   7.4328E-06  0.0167
   2.0396E+01   2.0893E+01   7.2502E-06  0.0167
   2.0893E+01   2.1401E+01   6.9226E-06  0.0169
   2.1401E+01   2.1922E+01   6.5527E-06  0.0171
   2.1922E+01   2.2455E+01   6.0614E-06  0.0176
   2.2455E+01   2.3001E+01   5.8113E-06  0.0177
   2.3001E+01   2.3561E+01   5.5964E-06  0.0179
   2.3561E+01   2.4134E+01   5.2542E-06  0.0182
   2.4134E+01   2.4721E+01   4.9744E-06  0.0185
   2.4721E+01   2.5323E+01   4.7698E-06  0.0187
   2.5323E+01   2.5939E+01   4.6354E-06  0.0187
   2.5939E+01   2.6570E+01   4.2195E-06  0.0194
   2.6570E+01   2.7217E+01   4.0791E-06  0.0195
   2.7217E+01   2.7879E+01   3.9399E-06  0.0196
   2.7879E+01   2.8557E+01   3.7667E-06  0.0198
   2.8557E+01   2.9252E+01   3.4110E-06  0.0205
   2.9252E+01   2.9964E+01   3.2105E-06  0.0209
   2.9964E+01   3.0693E+01   3.0684E-06  0.0211
   3.0693E+01   3.1440E+01   3.0196E-06  0.0211
   3.1440E+01   3.2205E+01   2.7048E-06  0.0220
   3.2205E+01   3.2988E+01   2.4823E-06  0.0227
   3.2988E+01   3.3791E+01   2.3884E-06  0.0228
   3.3791E+01   3.4613E+01   2.1383E-06  0.0239
   3.4613E+01   3.5455E+01   2.0994E-06  0.0238
   3.5455E+01   3.6318E+01   1.9429E-06  0.0244
   3.6318E+01   3.7201E+01   1.7451E-06  0.0255
   3.7201E+01   3.8106E+01   1.6881E-06  0.0256
   3.8106E+01   3.9034E+01   1.5628E-06  0.0263
   3.9034E+01   3.9983E+01   1.4004E-06  0.0274
   3.9983E+01   4.0956E+01   1.2962E-06  0.0282
   4.0956E+01   4.1953E+01   1.1711E-06  0.0293
   4.1953E+01   4.2973E+01   1.1080E-06  0.0297
   4.2973E+01   4.4019E+01   9.4589E-07  0.0318
   4.4019E+01   4.5090E+01   8.5806E-07  0.0330
   4.5090E+01   4.6187E+01   8.0031E-07  0.0337
   4.6187E+01   4.7311E+01   7.0032E-07  0.0356
   4.7311E+01   4.8462E+01   6.5068E-07  0.0365
   4.8462E+01   4.9641E+01   5.8942E-07  0.0379
   4.9641E+01   5.0849E+01   5.2409E-07  0.0397
   5.0849E+01   5.2086E+01   4.5668E-07  0.0421
   5.2086E+01   5.3353E+01   4.1979E-07  0.0434
   5.3353E+01   5.4651E+01   3.4203E-07  0.0475
   5.4651E+01   5.5981E+01   2.7976E-07  0.0518
   5.5981E+01   5.7343E+01   2.5256E-07  0.0539
   5.7343E+01   5.8738E+01   2.1502E-07  0.0577
   5.8738E+01   6.0168E+01   2.0292E-07  0.0587
   6.0168E+01   6.1632E+01   1.7556E-07  0.0624
   6.1632E+01   6.3131E+01   1.6138E-07  0.0643
   6.3131E+01   6.4667E+01   1.3476E-07  0.0695
   6.4667E+01   6.6240E+01   9.6606E-08  0.0811
   6.6240E+01   6.7852E+01   9.6173E-08  0.0803
   6.7852E+01   6.9503E+01   7.5111E-08  0.0898
   6.9503E+01   7.1194E+01   5.5586E-08  0.1031
   7.1194E+01   7.2926E+01   4.9648E-08  0.1078
   7.2926E+01   7.4701E+01   4.0578E-08  0.1179
   7.4701E+01   7.6518E+01   2.4759E-08  0.1491
   7.6518E+01   7.8380E+01   2.7931E-08  0.1387
   7.8380E+01   8.0287E+01   2.1499E-08  0.1562
   8.0287E+01   8.2240E+01   1.6893E-08  0.1741
   8.2240E+01   8.4241E+01   1.6492E-08  0.1741
   8.4241E+01   8.6291E+01   8.2941E-09  0.2425
   8.6291E+01   8.8391E+01   5.7156E-09  0.2887
   8.8391E+01   9.0541E+01   5.5798E-09  0.2887
   9.0541E+01   9.2744E+01   7.2630E-09  0.2500
   9.2744E+01   9.5001E+01   4.4316E-09  0.3162
   9.5001E+01   9.7312E+01   1.7305E-09  0.5000
   9.7312E+01   9.9680E+01   3.3788E-09  0.3536
   9.9680E+01   1.0211E+02   2.4739E-09  0.4082
   1.0211E+02   1.0459E+02   8.0506E-10  0.7071
   1.0459E+02   1.0713E+02   0.0000E+00  0.0000
   1.0713E+02   1.0974E+02   3.8363E-10  1.0000
   1.0974E+02   1.1241E+02   7.4904E-10  0.7071
   1.1241E+02   1.1515E+02   0.0000E+00  0.0000
   1.1515E+02   1.1795E+02   3.5694E-10  1.0000
   1.1795E+02   1.2082E+02   0.0000E+00  0.0000
   1.2082E+02   1.2376E+02   0.0000E+00  0.0000
   1.2376E+02   1.2677E+02   0.0000E+00  0.0000
   1.2677E+02   1.2985E+02   0.0000E+00  0.0000
   1.2985E+02   1.3301E+02   0.0000E+00  0.0000
   1.3301E+02   1.3625E+02   3.0900E-10  1.0000
   1.3625E+02   1.3956E+02   3.0166E-10  1.0000
   1.3956E+02   1.4296E+02   0.0000E+00  0.0000
   1.4296E+02   1.4644E+02   0.0000E+00  0.0000
   1.4644E+02   1.5000E+02   0.0000E+00  0.0000

#   sum over                 7.0514E-05
'no. =    1   reg = 119 - 219'
msuc: {\huge [t-cross] in region mesh}
msdr: {\it plotted by \ANGEL \version}
msdl: {\it calculated by \PHITS  3.26}
wt: s(0.7)
\vspace{-3}
  region surface crossing
  area  &=&   1.0000E+00 [cm^2]
e:
 
# Information for Restart Calculation
# This calculation was newly started
# istdev =  2 # 1:Batch variance, 2:History variance
# resc2  = 1.00000000000000000E+09 # Total source weight or Total source weight / maxcas
# resc3  = 1.00000000000000000E+09 # Total history number or Total batch number
# maxcas =   500000000 # History / Batch, only used for istdev=1
# bitrseed = 0001001110011001001001110000100100110111001111011100001000101100 # bit data of rseed
