[ T-Cross ]
    title = [t-cross] in region mesh
     mesh =  reg            # mesh type is region-wise
      reg =    1            # number of crossing regions
      non     r-from    r-to       area
      1       114       214        1.000000    
   e-type =    3            # e-mesh is log given by emin, emax and ne
     emin =  1.0000000E-02  # minimum value of e-mesh points
     emax =   150.0000      # maximum value of e-mesh points
#    edel =  2.4039514E-02  # mesh width of e-mesh points
       ne =    400          # number of e-mesh points
#    data = ( e(i), i = 1, ne + 1 )
#           1.00000E-02  1.02433E-02  1.04925E-02  1.07478E-02  1.10093E-02
#           1.12772E-02  1.15516E-02  1.18326E-02  1.21205E-02  1.24154E-02
#           1.27175E-02  1.30269E-02  1.33439E-02  1.36686E-02  1.40011E-02
#           1.43418E-02  1.46907E-02  1.50482E-02  1.54143E-02  1.57894E-02
#           1.61735E-02  1.65670E-02  1.69701E-02  1.73830E-02  1.78060E-02
#           1.82392E-02  1.86830E-02  1.91375E-02  1.96032E-02  2.00801E-02
#           2.05687E-02  2.10692E-02  2.15818E-02  2.21069E-02  2.26448E-02
#           2.31957E-02  2.37601E-02  2.43382E-02  2.49304E-02  2.55369E-02
#           2.61583E-02  2.67947E-02  2.74467E-02  2.81145E-02  2.87985E-02
#           2.94992E-02  3.02169E-02  3.09521E-02  3.17052E-02  3.24766E-02
#           3.32668E-02  3.40762E-02  3.49053E-02  3.57546E-02  3.66246E-02
#           3.75157E-02  3.84284E-02  3.93634E-02  4.03212E-02  4.13022E-02
#           4.23071E-02  4.33365E-02  4.43909E-02  4.54710E-02  4.65773E-02
#           4.77106E-02  4.88714E-02  5.00605E-02  5.12785E-02  5.25262E-02
#           5.38042E-02  5.51133E-02  5.64542E-02  5.78278E-02  5.92348E-02
#           6.06760E-02  6.21523E-02  6.36645E-02  6.52135E-02  6.68002E-02
#           6.84255E-02  7.00904E-02  7.17957E-02  7.35426E-02  7.53319E-02
#           7.71648E-02  7.90423E-02  8.09655E-02  8.29354E-02  8.49533E-02
#           8.70203E-02  8.91376E-02  9.13064E-02  9.35279E-02  9.58035E-02
#           9.81345E-02  1.00522E-01  1.02968E-01  1.05473E-01  1.08040E-01
#           1.10668E-01  1.13361E-01  1.16119E-01  1.18944E-01  1.21838E-01
#           1.24803E-01  1.27839E-01  1.30950E-01  1.34136E-01  1.37399E-01
#           1.40742E-01  1.44167E-01  1.47675E-01  1.51268E-01  1.54948E-01
#           1.58718E-01  1.62580E-01  1.66535E-01  1.70587E-01  1.74738E-01
#           1.78989E-01  1.83344E-01  1.87805E-01  1.92375E-01  1.97055E-01
#           2.01850E-01  2.06761E-01  2.11792E-01  2.16945E-01  2.22223E-01
#           2.27630E-01  2.33169E-01  2.38842E-01  2.44653E-01  2.50605E-01
#           2.56703E-01  2.62949E-01  2.69346E-01  2.75900E-01  2.82613E-01
#           2.89489E-01  2.96532E-01  3.03747E-01  3.11138E-01  3.18708E-01
#           3.26462E-01  3.34405E-01  3.42542E-01  3.50876E-01  3.59413E-01
#           3.68158E-01  3.77116E-01  3.86291E-01  3.95690E-01  4.05317E-01
#           4.15179E-01  4.25281E-01  4.35628E-01  4.46227E-01  4.57084E-01
#           4.68205E-01  4.79597E-01  4.91266E-01  5.03219E-01  5.15463E-01
#           5.28005E-01  5.40851E-01  5.54011E-01  5.67490E-01  5.81298E-01
#           5.95441E-01  6.09929E-01  6.24769E-01  6.39970E-01  6.55541E-01
#           6.71491E-01  6.87828E-01  7.04564E-01  7.21706E-01  7.39266E-01
#           7.57253E-01  7.75678E-01  7.94551E-01  8.13883E-01  8.33685E-01
#           8.53969E-01  8.74747E-01  8.96030E-01  9.17831E-01  9.40163E-01
#           9.63038E-01  9.86469E-01  1.01047E+00  1.03506E+00  1.06024E+00
#           1.08604E+00  1.11246E+00  1.13953E+00  1.16725E+00  1.19565E+00
#           1.22474E+00  1.25454E+00  1.28507E+00  1.31633E+00  1.34836E+00
#           1.38117E+00  1.41477E+00  1.44920E+00  1.48446E+00  1.52057E+00
#           1.55757E+00  1.59547E+00  1.63429E+00  1.67405E+00  1.71478E+00
#           1.75650E+00  1.79924E+00  1.84302E+00  1.88786E+00  1.93379E+00
#           1.98084E+00  2.02904E+00  2.07841E+00  2.12898E+00  2.18078E+00
#           2.23384E+00  2.28819E+00  2.34386E+00  2.40089E+00  2.45930E+00
#           2.51914E+00  2.58043E+00  2.64322E+00  2.70753E+00  2.77341E+00
#           2.84088E+00  2.91001E+00  2.98081E+00  3.05333E+00  3.12762E+00
#           3.20372E+00  3.28167E+00  3.36152E+00  3.44330E+00  3.52708E+00
#           3.61290E+00  3.70080E+00  3.79085E+00  3.88308E+00  3.97756E+00
#           4.07434E+00  4.17347E+00  4.27501E+00  4.37903E+00  4.48557E+00
#           4.59471E+00  4.70650E+00  4.82102E+00  4.93832E+00  5.05847E+00
#           5.18155E+00  5.30762E+00  5.43676E+00  5.56904E+00  5.70453E+00
#           5.84333E+00  5.98550E+00  6.13114E+00  6.28031E+00  6.43312E+00
#           6.58964E+00  6.74997E+00  6.91420E+00  7.08243E+00  7.25475E+00
#           7.43126E+00  7.61207E+00  7.79728E+00  7.98700E+00  8.18133E+00
#           8.38038E+00  8.58428E+00  8.79315E+00  9.00709E+00  9.22624E+00
#           9.45072E+00  9.68067E+00  9.91620E+00  1.01575E+01  1.04046E+01
#           1.06578E+01  1.09171E+01  1.11827E+01  1.14548E+01  1.17335E+01
#           1.20190E+01  1.23114E+01  1.26109E+01  1.29178E+01  1.32321E+01
#           1.35540E+01  1.38838E+01  1.42216E+01  1.45676E+01  1.49221E+01
#           1.52851E+01  1.56570E+01  1.60380E+01  1.64282E+01  1.68279E+01
#           1.72374E+01  1.76568E+01  1.80864E+01  1.85264E+01  1.89772E+01
#           1.94389E+01  1.99119E+01  2.03963E+01  2.08926E+01  2.14009E+01
#           2.19216E+01  2.24550E+01  2.30014E+01  2.35610E+01  2.41343E+01
#           2.47215E+01  2.53230E+01  2.59391E+01  2.65702E+01  2.72167E+01
#           2.78789E+01  2.85572E+01  2.92520E+01  2.99637E+01  3.06928E+01
#           3.14396E+01  3.22045E+01  3.29881E+01  3.37907E+01  3.46128E+01
#           3.54550E+01  3.63177E+01  3.72013E+01  3.81064E+01  3.90336E+01
#           3.99833E+01  4.09561E+01  4.19526E+01  4.29734E+01  4.40189E+01
#           4.50900E+01  4.61870E+01  4.73108E+01  4.84619E+01  4.96410E+01
#           5.08488E+01  5.20860E+01  5.33533E+01  5.46514E+01  5.59812E+01
#           5.73432E+01  5.87384E+01  6.01676E+01  6.16315E+01  6.31311E+01
#           6.46671E+01  6.62405E+01  6.78522E+01  6.95031E+01  7.11941E+01
#           7.29263E+01  7.47007E+01  7.65182E+01  7.83800E+01  8.02870E+01
#           8.22405E+01  8.42414E+01  8.62911E+01  8.83906E+01  9.05412E+01
#           9.27442E+01  9.50007E+01  9.73122E+01  9.96799E+01  1.02105E+02
#           1.04589E+02  1.07134E+02  1.09741E+02  1.12411E+02  1.15146E+02
#           1.17948E+02  1.20817E+02  1.23757E+02  1.26768E+02  1.29852E+02
#           1.33012E+02  1.36248E+02  1.39563E+02  1.42959E+02  1.46437E+02
#           1.50000E+02
     unit =    2            # unit is [1/cm^2/(MeV/n)/source]
     axis =  eng            # axis of output
     file = detector-15.out  # file name of output for the above axis
   output = f-curr          # surface crossing forward current spectrum
     part =  neutron  
# kf/name :  2112     
#    used :        main (  %)        temp (  %)       total (  %)
#  memory :         414 (  0)           0 (  0)         414 (  0)

#------------------------------------------------------------------------------
#newpage:
#   no. =    1   reg = 114 - 214

x: Energy [MeV/n]
y:  F-Curr [1/cm^2/(MeV/n)/source]         
p: xlog ylog afac(0.8) form(0.9)
h: n            x            y(neutron ),hh0l   n 
#  e-lower      e-upper      neutron     r.err 
   1.0000E-02   1.0243E-02   7.5604E-03  0.0233
   1.0243E-02   1.0493E-02   7.3467E-03  0.0234
   1.0493E-02   1.0748E-02   7.3015E-03  0.0232
   1.0748E-02   1.1009E-02   7.3192E-03  0.0229
   1.1009E-02   1.1277E-02   6.7179E-03  0.0236
   1.1277E-02   1.1552E-02   6.9501E-03  0.0229
   1.1552E-02   1.1833E-02   6.7139E-03  0.0230
   1.1833E-02   1.2121E-02   6.7923E-03  0.0226
   1.2121E-02   1.2415E-02   6.6412E-03  0.0226
   1.2415E-02   1.2718E-02   6.2567E-03  0.0230
   1.2718E-02   1.3027E-02   6.4636E-03  0.0224
   1.3027E-02   1.3344E-02   6.1460E-03  0.0227
   1.3344E-02   1.3669E-02   6.3634E-03  0.0220
   1.3669E-02   1.4001E-02   6.2333E-03  0.0220
   1.4001E-02   1.4342E-02   5.9825E-03  0.0222
   1.4342E-02   1.4691E-02   5.9780E-03  0.0219
   1.4691E-02   1.5048E-02   5.5534E-03  0.0224
   1.5048E-02   1.5414E-02   5.7520E-03  0.0218
   1.5414E-02   1.5789E-02   5.5994E-03  0.0218
   1.5789E-02   1.6174E-02   5.4299E-03  0.0219
   1.6174E-02   1.6567E-02   5.4992E-03  0.0215
   1.6567E-02   1.6970E-02   5.3189E-03  0.0216
   1.6970E-02   1.7383E-02   5.0400E-03  0.0219
   1.7383E-02   1.7806E-02   5.1354E-03  0.0215
   1.7806E-02   1.8239E-02   5.1012E-03  0.0213
   1.8239E-02   1.8683E-02   5.0589E-03  0.0211
   1.8683E-02   1.9138E-02   4.9211E-03  0.0211
   1.9138E-02   1.9603E-02   4.8944E-03  0.0210
   1.9603E-02   2.0080E-02   4.8075E-03  0.0209
   2.0080E-02   2.0569E-02   4.7199E-03  0.0208
   2.0569E-02   2.1069E-02   4.5259E-03  0.0210
   2.1069E-02   2.1582E-02   4.6427E-03  0.0205
   2.1582E-02   2.2107E-02   4.4296E-03  0.0207
   2.2107E-02   2.2645E-02   4.3783E-03  0.0206
   2.2645E-02   2.3196E-02   4.3741E-03  0.0204
   2.3196E-02   2.3760E-02   4.3429E-03  0.0202
   2.3760E-02   2.4338E-02   4.2977E-03  0.0201
   2.4338E-02   2.4930E-02   4.1998E-03  0.0201
   2.4930E-02   2.5537E-02   3.9014E-03  0.0206
   2.5537E-02   2.6158E-02   3.9753E-03  0.0201
   2.6158E-02   2.6795E-02   3.9485E-03  0.0199
   2.6795E-02   2.7447E-02   3.9022E-03  0.0198
   2.7447E-02   2.8114E-02   3.7946E-03  0.0199
   2.8114E-02   2.8799E-02   3.8864E-03  0.0194
   2.8799E-02   2.9499E-02   3.7206E-03  0.0196
   2.9499E-02   3.0217E-02   3.6726E-03  0.0195
   3.0217E-02   3.0952E-02   3.6847E-03  0.0192
   3.0952E-02   3.1705E-02   3.6516E-03  0.0191
   3.1705E-02   3.2477E-02   3.5584E-03  0.0191
   3.2477E-02   3.3267E-02   3.4378E-03  0.0192
   3.3267E-02   3.4076E-02   3.3580E-03  0.0192
   3.4076E-02   3.4905E-02   3.4314E-03  0.0187
   3.4905E-02   3.5755E-02   3.3240E-03  0.0188
   3.5755E-02   3.6625E-02   3.3002E-03  0.0187
   3.6625E-02   3.7516E-02   3.0681E-03  0.0191
   3.7516E-02   3.8428E-02   3.2187E-03  0.0184
   3.8428E-02   3.9363E-02   3.0530E-03  0.0187
   3.9363E-02   4.0321E-02   3.0896E-03  0.0184
   4.0321E-02   4.1302E-02   3.0274E-03  0.0183
   4.1302E-02   4.2307E-02   2.9903E-03  0.0182
   4.2307E-02   4.3337E-02   2.9086E-03  0.0183
   4.3337E-02   4.4391E-02   2.9258E-03  0.0180
   4.4391E-02   4.5471E-02   2.8813E-03  0.0179
   4.5471E-02   4.6577E-02   2.7713E-03  0.0181
   4.6577E-02   4.7711E-02   2.7236E-03  0.0180
   4.7711E-02   4.8871E-02   2.6326E-03  0.0181
   4.8871E-02   5.0061E-02   2.7164E-03  0.0176
   5.0061E-02   5.1279E-02   2.6001E-03  0.0178
   5.1279E-02   5.2526E-02   2.6594E-03  0.0174
   5.2526E-02   5.3804E-02   2.5563E-03  0.0175
   5.3804E-02   5.5113E-02   2.5185E-03  0.0174
   5.5113E-02   5.6454E-02   2.5396E-03  0.0171
   5.6454E-02   5.7828E-02   2.4498E-03  0.0172
   5.7828E-02   5.9235E-02   2.4087E-03  0.0172
   5.9235E-02   6.0676E-02   2.4701E-03  0.0168
   6.0676E-02   6.2152E-02   2.3437E-03  0.0170
   6.2152E-02   6.3665E-02   2.3575E-03  0.0167
   6.3665E-02   6.5214E-02   2.3221E-03  0.0167
   6.5214E-02   6.6800E-02   2.2739E-03  0.0166
   6.6800E-02   6.8426E-02   2.2716E-03  0.0165
   6.8426E-02   7.0090E-02   2.1678E-03  0.0166
   7.0090E-02   7.1796E-02   2.1978E-03  0.0163
   7.1796E-02   7.3543E-02   2.1067E-03  0.0165
   7.3543E-02   7.5332E-02   2.1580E-03  0.0161
   7.5332E-02   7.7165E-02   2.0923E-03  0.0161
   7.7165E-02   7.9042E-02   2.1095E-03  0.0159
   7.9042E-02   8.0965E-02   2.0898E-03  0.0158
   8.0965E-02   8.2935E-02   2.0635E-03  0.0157
   8.2935E-02   8.4953E-02   2.0085E-03  0.0157
   8.4953E-02   8.7020E-02   2.0218E-03  0.0155
   8.7020E-02   8.9138E-02   1.9587E-03  0.0155
   8.9138E-02   9.1306E-02   1.9513E-03  0.0154
   9.1306E-02   9.3528E-02   1.9086E-03  0.0154
   9.3528E-02   9.5804E-02   1.9138E-03  0.0152
   9.5804E-02   9.8134E-02   1.8550E-03  0.0152
   9.8134E-02   1.0052E-01   1.7963E-03  0.0153
   1.0052E-01   1.0297E-01   1.8481E-03  0.0149
   1.0297E-01   1.0547E-01   1.7349E-03  0.0152
   1.0547E-01   1.0804E-01   1.7631E-03  0.0149
   1.0804E-01   1.1067E-01   1.7351E-03  0.0148
   1.1067E-01   1.1336E-01   1.6831E-03  0.0149
   1.1336E-01   1.1612E-01   1.6928E-03  0.0146
   1.1612E-01   1.1894E-01   1.6687E-03  0.0146
   1.1894E-01   1.2184E-01   1.6790E-03  0.0143
   1.2184E-01   1.2480E-01   1.6573E-03  0.0143
   1.2480E-01   1.2784E-01   1.5531E-03  0.0146
   1.2784E-01   1.3095E-01   1.5898E-03  0.0142
   1.3095E-01   1.3414E-01   1.5546E-03  0.0142
   1.3414E-01   1.3740E-01   1.5310E-03  0.0141
   1.3740E-01   1.4074E-01   1.5489E-03  0.0139
   1.4074E-01   1.4417E-01   1.5393E-03  0.0138
   1.4417E-01   1.4767E-01   1.4611E-03  0.0140
   1.4767E-01   1.5127E-01   1.4801E-03  0.0137
   1.5127E-01   1.5495E-01   1.4392E-03  0.0137
   1.5495E-01   1.5872E-01   1.4337E-03  0.0136
   1.5872E-01   1.6258E-01   1.4087E-03  0.0136
   1.6258E-01   1.6654E-01   1.3732E-03  0.0136
   1.6654E-01   1.7059E-01   1.3747E-03  0.0134
   1.7059E-01   1.7474E-01   1.3414E-03  0.0134
   1.7474E-01   1.7899E-01   1.3387E-03  0.0133
   1.7899E-01   1.8334E-01   1.3330E-03  0.0131
   1.8334E-01   1.8781E-01   1.3105E-03  0.0131
   1.8781E-01   1.9237E-01   1.2703E-03  0.0131
   1.9237E-01   1.9706E-01   1.2296E-03  0.0132
   1.9706E-01   2.0185E-01   1.2560E-03  0.0129
   2.0185E-01   2.0676E-01   1.2274E-03  0.0129
   2.0676E-01   2.1179E-01   1.2275E-03  0.0127
   2.1179E-01   2.1694E-01   1.2385E-03  0.0125
   2.1694E-01   2.2222E-01   1.1765E-03  0.0127
   2.2222E-01   2.2763E-01   1.1648E-03  0.0126
   2.2763E-01   2.3317E-01   1.1411E-03  0.0126
   2.3317E-01   2.3884E-01   1.1487E-03  0.0124
   2.3884E-01   2.4465E-01   1.1474E-03  0.0122
   2.4465E-01   2.5061E-01   1.1323E-03  0.0122
   2.5061E-01   2.5670E-01   1.0901E-03  0.0123
   2.5670E-01   2.6295E-01   1.0631E-03  0.0123
   2.6295E-01   2.6935E-01   1.0989E-03  0.0119
   2.6935E-01   2.7590E-01   1.0541E-03  0.0120
   2.7590E-01   2.8261E-01   1.0493E-03  0.0119
   2.8261E-01   2.8949E-01   9.9765E-04  0.0121
   2.8949E-01   2.9653E-01   9.9155E-04  0.0120
   2.9653E-01   3.0375E-01   9.8048E-04  0.0119
   3.0375E-01   3.1114E-01   9.6801E-04  0.0118
   3.1114E-01   3.1871E-01   9.4726E-04  0.0118
   3.1871E-01   3.2646E-01   9.4082E-04  0.0117
   3.2646E-01   3.3441E-01   9.2105E-04  0.0117
   3.3441E-01   3.4254E-01   9.2720E-04  0.0115
   3.4254E-01   3.5088E-01   9.0229E-04  0.0115
   3.5088E-01   3.5941E-01   8.7055E-04  0.0116
   3.5941E-01   3.6816E-01   8.6623E-04  0.0115
   3.6816E-01   3.7712E-01   8.4900E-04  0.0115
   3.7712E-01   3.8629E-01   8.3745E-04  0.0114
   3.8629E-01   3.9569E-01   8.3139E-04  0.0113
   3.9569E-01   4.0532E-01   7.9990E-04  0.0114
   4.0532E-01   4.1518E-01   7.9631E-04  0.0113
   4.1518E-01   4.2528E-01   7.4993E-04  0.0115
   4.2528E-01   4.3563E-01   7.4985E-04  0.0114
   4.3563E-01   4.4623E-01   7.4223E-04  0.0113
   4.4623E-01   4.5708E-01   7.4283E-04  0.0111
   4.5708E-01   4.6821E-01   7.1503E-04  0.0112
   4.6821E-01   4.7960E-01   7.0603E-04  0.0112
   4.7960E-01   4.9127E-01   6.8322E-04  0.0112
   4.9127E-01   5.0322E-01   6.7356E-04  0.0111
   5.0322E-01   5.1546E-01   6.5936E-04  0.0111
   5.1546E-01   5.2800E-01   6.3883E-04  0.0112
   5.2800E-01   5.4085E-01   6.3175E-04  0.0111
   5.4085E-01   5.5401E-01   6.3103E-04  0.0110
   5.5401E-01   5.6749E-01   5.9987E-04  0.0111
   5.6749E-01   5.8130E-01   5.8323E-04  0.0111
   5.8130E-01   5.9544E-01   5.6348E-04  0.0112
   5.9544E-01   6.0993E-01   5.6635E-04  0.0110
   6.0993E-01   6.2477E-01   5.4447E-04  0.0111
   6.2477E-01   6.3997E-01   5.4180E-04  0.0110
   6.3997E-01   6.5554E-01   5.2540E-04  0.0111
   6.5554E-01   6.7149E-01   5.1433E-04  0.0110
   6.7149E-01   6.8783E-01   4.9725E-04  0.0111
   6.8783E-01   7.0456E-01   4.7940E-04  0.0112
   7.0456E-01   7.2171E-01   4.6128E-04  0.0112
   7.2171E-01   7.3927E-01   4.4722E-04  0.0113
   7.3927E-01   7.5725E-01   4.4277E-04  0.0112
   7.5725E-01   7.7568E-01   4.2796E-04  0.0113
   7.7568E-01   7.9455E-01   4.0921E-04  0.0114
   7.9455E-01   8.1388E-01   4.0130E-04  0.0114
   8.1388E-01   8.3368E-01   3.7410E-04  0.0116
   8.3368E-01   8.5397E-01   3.6728E-04  0.0116
   8.5397E-01   8.7475E-01   3.6185E-04  0.0115
   8.7475E-01   8.9603E-01   3.4957E-04  0.0116
   8.9603E-01   9.1783E-01   3.2613E-04  0.0119
   9.1783E-01   9.4016E-01   3.1073E-04  0.0120
   9.4016E-01   9.6304E-01   3.0300E-04  0.0120
   9.6304E-01   9.8647E-01   2.8709E-04  0.0122
   9.8647E-01   1.0105E+00   2.7419E-04  0.0123
   1.0105E+00   1.0351E+00   2.7516E-04  0.0122
   1.0351E+00   1.0602E+00   2.7800E-04  0.0120
   1.0602E+00   1.0860E+00   2.7314E-04  0.0119
   1.0860E+00   1.1125E+00   2.8179E-04  0.0116
   1.1125E+00   1.1395E+00   2.8559E-04  0.0114
   1.1395E+00   1.1673E+00   2.9056E-04  0.0111
   1.1673E+00   1.1957E+00   3.0215E-04  0.0108
   1.1957E+00   1.2247E+00   3.0908E-04  0.0106
   1.2247E+00   1.2545E+00   3.0434E-04  0.0105
   1.2545E+00   1.2851E+00   3.0345E-04  0.0104
   1.2851E+00   1.3163E+00   3.0297E-04  0.0103
   1.3163E+00   1.3484E+00   3.0132E-04  0.0102
   1.3484E+00   1.3812E+00   3.1606E-04  0.0098
   1.3812E+00   1.4148E+00   3.1236E-04  0.0098
   1.4148E+00   1.4492E+00   3.1087E-04  0.0097
   1.4492E+00   1.4845E+00   3.0536E-04  0.0096
   1.4845E+00   1.5206E+00   3.0528E-04  0.0095
   1.5206E+00   1.5576E+00   3.0424E-04  0.0094
   1.5576E+00   1.5955E+00   3.0243E-04  0.0093
   1.5955E+00   1.6343E+00   3.0006E-04  0.0093
   1.6343E+00   1.6741E+00   3.0395E-04  0.0091
   1.6741E+00   1.7148E+00   3.0716E-04  0.0089
   1.7148E+00   1.7565E+00   3.0428E-04  0.0089
   1.7565E+00   1.7992E+00   2.9929E-04  0.0088
   1.7992E+00   1.8430E+00   2.9420E-04  0.0088
   1.8430E+00   1.8879E+00   2.9383E-04  0.0087
   1.8879E+00   1.9338E+00   2.8792E-04  0.0087
   1.9338E+00   1.9808E+00   2.8437E-04  0.0086
   1.9808E+00   2.0290E+00   2.8064E-04  0.0086
   2.0290E+00   2.0784E+00   2.7232E-04  0.0086
   2.0784E+00   2.1290E+00   2.6475E-04  0.0086
   2.1290E+00   2.1808E+00   2.6146E-04  0.0086
   2.1808E+00   2.2338E+00   2.5055E-04  0.0087
   2.2338E+00   2.2882E+00   2.5442E-04  0.0085
   2.2882E+00   2.3439E+00   2.4597E-04  0.0085
   2.3439E+00   2.4009E+00   2.4421E-04  0.0085
   2.4009E+00   2.4593E+00   2.3656E-04  0.0085
   2.4593E+00   2.5191E+00   2.2928E-04  0.0085
   2.5191E+00   2.5804E+00   2.2055E-04  0.0086
   2.5804E+00   2.6432E+00   2.1137E-04  0.0087
   2.6432E+00   2.7075E+00   2.0606E-04  0.0087
   2.7075E+00   2.7734E+00   1.9998E-04  0.0087
   2.7734E+00   2.8409E+00   1.9479E-04  0.0087
   2.8409E+00   2.9100E+00   1.8907E-04  0.0087
   2.9100E+00   2.9808E+00   1.8242E-04  0.0088
   2.9808E+00   3.0533E+00   1.7623E-04  0.0089
   3.0533E+00   3.1276E+00   1.7085E-04  0.0089
   3.1276E+00   3.2037E+00   1.6428E-04  0.0089
   3.2037E+00   3.2817E+00   1.5393E-04  0.0091
   3.2817E+00   3.3615E+00   1.5090E-04  0.0091
   3.3615E+00   3.4433E+00   1.4341E-04  0.0092
   3.4433E+00   3.5271E+00   1.3692E-04  0.0093
   3.5271E+00   3.6129E+00   1.3256E-04  0.0094
   3.6129E+00   3.7008E+00   1.2875E-04  0.0094
   3.7008E+00   3.7908E+00   1.2189E-04  0.0095
   3.7908E+00   3.8831E+00   1.1782E-04  0.0096
   3.8831E+00   3.9776E+00   1.1064E-04  0.0098
   3.9776E+00   4.0743E+00   1.0766E-04  0.0098
   4.0743E+00   4.1735E+00   1.0137E-04  0.0100
   4.1735E+00   4.2750E+00   9.5634E-05  0.0101
   4.2750E+00   4.3790E+00   8.9065E-05  0.0104
   4.3790E+00   4.4856E+00   8.5935E-05  0.0105
   4.4856E+00   4.5947E+00   8.2424E-05  0.0105
   4.5947E+00   4.7065E+00   7.8918E-05  0.0107
   4.7065E+00   4.8210E+00   7.5328E-05  0.0108
   4.8210E+00   4.9383E+00   7.2038E-05  0.0109
   4.9383E+00   5.0585E+00   6.8554E-05  0.0110
   5.0585E+00   5.1815E+00   6.5016E-05  0.0112
   5.1815E+00   5.3076E+00   6.0664E-05  0.0114
   5.3076E+00   5.4368E+00   6.0369E-05  0.0113
   5.4368E+00   5.5690E+00   5.5692E-05  0.0117
   5.5690E+00   5.7045E+00   5.2989E-05  0.0118
   5.7045E+00   5.8433E+00   5.0387E-05  0.0120
   5.8433E+00   5.9855E+00   4.7176E-05  0.0122
   5.9855E+00   6.1311E+00   4.6870E-05  0.0121
   6.1311E+00   6.2803E+00   4.2462E-05  0.0126
   6.2803E+00   6.4331E+00   4.1714E-05  0.0125
   6.4331E+00   6.5896E+00   3.9498E-05  0.0127
   6.5896E+00   6.7500E+00   3.7813E-05  0.0128
   6.7500E+00   6.9142E+00   3.6897E-05  0.0128
   6.9142E+00   7.0824E+00   3.5169E-05  0.0130
   7.0824E+00   7.2548E+00   3.4057E-05  0.0130
   7.2548E+00   7.4313E+00   3.3767E-05  0.0129
   7.4313E+00   7.6121E+00   3.1605E-05  0.0132
   7.6121E+00   7.7973E+00   3.1182E-05  0.0132
   7.7973E+00   7.9870E+00   3.0105E-05  0.0132
   7.9870E+00   8.1813E+00   2.8876E-05  0.0133
   8.1813E+00   8.3804E+00   2.8569E-05  0.0133
   8.3804E+00   8.5843E+00   2.7770E-05  0.0133
   8.5843E+00   8.7931E+00   2.6789E-05  0.0134
   8.7931E+00   9.0071E+00   2.6752E-05  0.0132
   9.0071E+00   9.2262E+00   2.7057E-05  0.0130
   9.2262E+00   9.4507E+00   2.6407E-05  0.0130
   9.4507E+00   9.6807E+00   2.5874E-05  0.0130
   9.6807E+00   9.9162E+00   2.5573E-05  0.0129
   9.9162E+00   1.0157E+01   2.5074E-05  0.0128
   1.0157E+01   1.0405E+01   2.5267E-05  0.0126
   1.0405E+01   1.0658E+01   2.4815E-05  0.0126
   1.0658E+01   1.0917E+01   2.4717E-05  0.0125
   1.0917E+01   1.1183E+01   2.4452E-05  0.0124
   1.1183E+01   1.1455E+01   2.3842E-05  0.0124
   1.1455E+01   1.1733E+01   2.4002E-05  0.0122
   1.1733E+01   1.2019E+01   2.3605E-05  0.0122
   1.2019E+01   1.2311E+01   2.3937E-05  0.0119
   1.2311E+01   1.2611E+01   2.3509E-05  0.0119
   1.2611E+01   1.2918E+01   2.3430E-05  0.0118
   1.2918E+01   1.3232E+01   2.2887E-05  0.0118
   1.3232E+01   1.3554E+01   2.2738E-05  0.0117
   1.3554E+01   1.3884E+01   2.1818E-05  0.0118
   1.3884E+01   1.4222E+01   2.2137E-05  0.0115
   1.4222E+01   1.4568E+01   2.2020E-05  0.0114
   1.4568E+01   1.4922E+01   2.1379E-05  0.0115
   1.4922E+01   1.5285E+01   2.1155E-05  0.0114
   1.5285E+01   1.5657E+01   2.0149E-05  0.0115
   1.5657E+01   1.6038E+01   2.0038E-05  0.0114
   1.6038E+01   1.6428E+01   1.9388E-05  0.0115
   1.6428E+01   1.6828E+01   1.9020E-05  0.0115
   1.6828E+01   1.7237E+01   1.8287E-05  0.0115
   1.7237E+01   1.7657E+01   1.7724E-05  0.0116
   1.7657E+01   1.8086E+01   1.7209E-05  0.0116
   1.8086E+01   1.8526E+01   1.6816E-05  0.0116
   1.8526E+01   1.8977E+01   1.6017E-05  0.0118
   1.8977E+01   1.9439E+01   1.5409E-05  0.0118
   1.9439E+01   1.9912E+01   1.4536E-05  0.0121
   1.9912E+01   2.0396E+01   9.1141E-06  0.0151
   2.0396E+01   2.0893E+01   8.5258E-06  0.0154
   2.0893E+01   2.1401E+01   8.3390E-06  0.0154
   2.1401E+01   2.1922E+01   8.0680E-06  0.0154
   2.1922E+01   2.2455E+01   7.8051E-06  0.0155
   2.2455E+01   2.3001E+01   7.3433E-06  0.0158
   2.3001E+01   2.3561E+01   6.7990E-06  0.0162
   2.3561E+01   2.4134E+01   6.4683E-06  0.0164
   2.4134E+01   2.4721E+01   6.1852E-06  0.0166
   2.4721E+01   2.5323E+01   5.9036E-06  0.0168
   2.5323E+01   2.5939E+01   5.5816E-06  0.0171
   2.5939E+01   2.6570E+01   5.3809E-06  0.0172
   2.6570E+01   2.7217E+01   4.9298E-06  0.0177
   2.7217E+01   2.7879E+01   4.6300E-06  0.0181
   2.7879E+01   2.8557E+01   4.2370E-06  0.0187
   2.8557E+01   2.9252E+01   3.6859E-06  0.0198
   2.9252E+01   2.9964E+01   3.6573E-06  0.0196
   2.9964E+01   3.0693E+01   3.2152E-06  0.0207
   3.0693E+01   3.1440E+01   2.9915E-06  0.0212
   3.1440E+01   3.2205E+01   2.7087E-06  0.0220
   3.2205E+01   3.2988E+01   2.4172E-06  0.0230
   3.2988E+01   3.3791E+01   2.1691E-06  0.0240
   3.3791E+01   3.4613E+01   1.9838E-06  0.0248
   3.4613E+01   3.5455E+01   1.7823E-06  0.0258
   3.5455E+01   3.6318E+01   1.6554E-06  0.0265
   3.6318E+01   3.7201E+01   1.4248E-06  0.0282
   3.7201E+01   3.8106E+01   1.2296E-06  0.0300
   3.8106E+01   3.9034E+01   1.0333E-06  0.0323
   3.9034E+01   3.9983E+01   8.7394E-07  0.0347
   3.9983E+01   4.0956E+01   7.5245E-07  0.0370
   4.0956E+01   4.1953E+01   6.6332E-07  0.0389
   4.1953E+01   4.2973E+01   5.1727E-07  0.0435
   4.2973E+01   4.4019E+01   4.5143E-07  0.0460
   4.4019E+01   4.5090E+01   3.7534E-07  0.0499
   4.5090E+01   4.6187E+01   2.7437E-07  0.0576
   4.6187E+01   4.7311E+01   2.2692E-07  0.0626
   4.7311E+01   4.8462E+01   1.4160E-07  0.0783
   4.8462E+01   4.9641E+01   1.0262E-07  0.0909
   4.9641E+01   5.0849E+01   7.6999E-08  0.1037
   5.0849E+01   5.2086E+01   4.3647E-08  0.1361
   5.2086E+01   5.3353E+01   3.0774E-08  0.1601
   5.3353E+01   5.4651E+01   1.5407E-08  0.2236
   5.4651E+01   5.5981E+01   9.0245E-09  0.2887
   5.5981E+01   5.7343E+01   1.4684E-09  0.7071
   5.7343E+01   5.8738E+01   0.0000E+00  0.0000
   5.8738E+01   6.0168E+01   0.0000E+00  0.0000
   6.0168E+01   6.1632E+01   0.0000E+00  0.0000
   6.1632E+01   6.3131E+01   0.0000E+00  0.0000
   6.3131E+01   6.4667E+01   0.0000E+00  0.0000
   6.4667E+01   6.6240E+01   0.0000E+00  0.0000
   6.6240E+01   6.7852E+01   0.0000E+00  0.0000
   6.7852E+01   6.9503E+01   0.0000E+00  0.0000
   6.9503E+01   7.1194E+01   0.0000E+00  0.0000
   7.1194E+01   7.2926E+01   0.0000E+00  0.0000
   7.2926E+01   7.4701E+01   0.0000E+00  0.0000
   7.4701E+01   7.6518E+01   0.0000E+00  0.0000
   7.6518E+01   7.8380E+01   0.0000E+00  0.0000
   7.8380E+01   8.0287E+01   0.0000E+00  0.0000
   8.0287E+01   8.2240E+01   0.0000E+00  0.0000
   8.2240E+01   8.4241E+01   0.0000E+00  0.0000
   8.4241E+01   8.6291E+01   0.0000E+00  0.0000
   8.6291E+01   8.8391E+01   0.0000E+00  0.0000
   8.8391E+01   9.0541E+01   0.0000E+00  0.0000
   9.0541E+01   9.2744E+01   0.0000E+00  0.0000
   9.2744E+01   9.5001E+01   0.0000E+00  0.0000
   9.5001E+01   9.7312E+01   0.0000E+00  0.0000
   9.7312E+01   9.9680E+01   0.0000E+00  0.0000
   9.9680E+01   1.0211E+02   0.0000E+00  0.0000
   1.0211E+02   1.0459E+02   0.0000E+00  0.0000
   1.0459E+02   1.0713E+02   0.0000E+00  0.0000
   1.0713E+02   1.0974E+02   0.0000E+00  0.0000
   1.0974E+02   1.1241E+02   0.0000E+00  0.0000
   1.1241E+02   1.1515E+02   0.0000E+00  0.0000
   1.1515E+02   1.1795E+02   0.0000E+00  0.0000
   1.1795E+02   1.2082E+02   0.0000E+00  0.0000
   1.2082E+02   1.2376E+02   0.0000E+00  0.0000
   1.2376E+02   1.2677E+02   0.0000E+00  0.0000
   1.2677E+02   1.2985E+02   0.0000E+00  0.0000
   1.2985E+02   1.3301E+02   0.0000E+00  0.0000
   1.3301E+02   1.3625E+02   0.0000E+00  0.0000
   1.3625E+02   1.3956E+02   0.0000E+00  0.0000
   1.3956E+02   1.4296E+02   0.0000E+00  0.0000
   1.4296E+02   1.4644E+02   0.0000E+00  0.0000
   1.4644E+02   1.5000E+02   0.0000E+00  0.0000

#   sum over                 1.4241E-05
'no. =    1   reg = 114 - 214'
msuc: {\huge [t-cross] in region mesh}
msdr: {\it plotted by \ANGEL \version}
msdl: {\it calculated by \PHITS  3.26}
wt: s(0.7)
\vspace{-3}
  region surface crossing
  area  &=&   1.0000E+00 [cm^2]
e:
 
# Information for Restart Calculation
# This calculation was newly started
# istdev =  2 # 1:Batch variance, 2:History variance
# resc2  = 1.00000000000000000E+09 # Total source weight or Total source weight / maxcas
# resc3  = 1.00000000000000000E+09 # Total history number or Total batch number
# maxcas =   100000000 # History / Batch, only used for istdev=1
# bitrseed = 0001001110011001001001110000100100110111001111011100001000101100 # bit data of rseed
