[ T-Cross ]
    title = [t-cross] in region mesh
     mesh =  reg            # mesh type is region-wise
      reg =    1            # number of crossing regions
      non     r-from    r-to       area
      1       109       209        1.000000    
   e-type =    3            # e-mesh is log given by emin, emax and ne
     emin =  1.0000000E-02  # minimum value of e-mesh points
     emax =   150.0000      # maximum value of e-mesh points
#    edel =  2.4039514E-02  # mesh width of e-mesh points
       ne =    400          # number of e-mesh points
#    data = ( e(i), i = 1, ne + 1 )
#           1.00000E-02  1.02433E-02  1.04925E-02  1.07478E-02  1.10093E-02
#           1.12772E-02  1.15516E-02  1.18326E-02  1.21205E-02  1.24154E-02
#           1.27175E-02  1.30269E-02  1.33439E-02  1.36686E-02  1.40011E-02
#           1.43418E-02  1.46907E-02  1.50482E-02  1.54143E-02  1.57894E-02
#           1.61735E-02  1.65670E-02  1.69701E-02  1.73830E-02  1.78060E-02
#           1.82392E-02  1.86830E-02  1.91375E-02  1.96032E-02  2.00801E-02
#           2.05687E-02  2.10692E-02  2.15818E-02  2.21069E-02  2.26448E-02
#           2.31957E-02  2.37601E-02  2.43382E-02  2.49304E-02  2.55369E-02
#           2.61583E-02  2.67947E-02  2.74467E-02  2.81145E-02  2.87985E-02
#           2.94992E-02  3.02169E-02  3.09521E-02  3.17052E-02  3.24766E-02
#           3.32668E-02  3.40762E-02  3.49053E-02  3.57546E-02  3.66246E-02
#           3.75157E-02  3.84284E-02  3.93634E-02  4.03212E-02  4.13022E-02
#           4.23071E-02  4.33365E-02  4.43909E-02  4.54710E-02  4.65773E-02
#           4.77106E-02  4.88714E-02  5.00605E-02  5.12785E-02  5.25262E-02
#           5.38042E-02  5.51133E-02  5.64542E-02  5.78278E-02  5.92348E-02
#           6.06760E-02  6.21523E-02  6.36645E-02  6.52135E-02  6.68002E-02
#           6.84255E-02  7.00904E-02  7.17957E-02  7.35426E-02  7.53319E-02
#           7.71648E-02  7.90423E-02  8.09655E-02  8.29354E-02  8.49533E-02
#           8.70203E-02  8.91376E-02  9.13064E-02  9.35279E-02  9.58035E-02
#           9.81345E-02  1.00522E-01  1.02968E-01  1.05473E-01  1.08040E-01
#           1.10668E-01  1.13361E-01  1.16119E-01  1.18944E-01  1.21838E-01
#           1.24803E-01  1.27839E-01  1.30950E-01  1.34136E-01  1.37399E-01
#           1.40742E-01  1.44167E-01  1.47675E-01  1.51268E-01  1.54948E-01
#           1.58718E-01  1.62580E-01  1.66535E-01  1.70587E-01  1.74738E-01
#           1.78989E-01  1.83344E-01  1.87805E-01  1.92375E-01  1.97055E-01
#           2.01850E-01  2.06761E-01  2.11792E-01  2.16945E-01  2.22223E-01
#           2.27630E-01  2.33169E-01  2.38842E-01  2.44653E-01  2.50605E-01
#           2.56703E-01  2.62949E-01  2.69346E-01  2.75900E-01  2.82613E-01
#           2.89489E-01  2.96532E-01  3.03747E-01  3.11138E-01  3.18708E-01
#           3.26462E-01  3.34405E-01  3.42542E-01  3.50876E-01  3.59413E-01
#           3.68158E-01  3.77116E-01  3.86291E-01  3.95690E-01  4.05317E-01
#           4.15179E-01  4.25281E-01  4.35628E-01  4.46227E-01  4.57084E-01
#           4.68205E-01  4.79597E-01  4.91266E-01  5.03219E-01  5.15463E-01
#           5.28005E-01  5.40851E-01  5.54011E-01  5.67490E-01  5.81298E-01
#           5.95441E-01  6.09929E-01  6.24769E-01  6.39970E-01  6.55541E-01
#           6.71491E-01  6.87828E-01  7.04564E-01  7.21706E-01  7.39266E-01
#           7.57253E-01  7.75678E-01  7.94551E-01  8.13883E-01  8.33685E-01
#           8.53969E-01  8.74747E-01  8.96030E-01  9.17831E-01  9.40163E-01
#           9.63038E-01  9.86469E-01  1.01047E+00  1.03506E+00  1.06024E+00
#           1.08604E+00  1.11246E+00  1.13953E+00  1.16725E+00  1.19565E+00
#           1.22474E+00  1.25454E+00  1.28507E+00  1.31633E+00  1.34836E+00
#           1.38117E+00  1.41477E+00  1.44920E+00  1.48446E+00  1.52057E+00
#           1.55757E+00  1.59547E+00  1.63429E+00  1.67405E+00  1.71478E+00
#           1.75650E+00  1.79924E+00  1.84302E+00  1.88786E+00  1.93379E+00
#           1.98084E+00  2.02904E+00  2.07841E+00  2.12898E+00  2.18078E+00
#           2.23384E+00  2.28819E+00  2.34386E+00  2.40089E+00  2.45930E+00
#           2.51914E+00  2.58043E+00  2.64322E+00  2.70753E+00  2.77341E+00
#           2.84088E+00  2.91001E+00  2.98081E+00  3.05333E+00  3.12762E+00
#           3.20372E+00  3.28167E+00  3.36152E+00  3.44330E+00  3.52708E+00
#           3.61290E+00  3.70080E+00  3.79085E+00  3.88308E+00  3.97756E+00
#           4.07434E+00  4.17347E+00  4.27501E+00  4.37903E+00  4.48557E+00
#           4.59471E+00  4.70650E+00  4.82102E+00  4.93832E+00  5.05847E+00
#           5.18155E+00  5.30762E+00  5.43676E+00  5.56904E+00  5.70453E+00
#           5.84333E+00  5.98550E+00  6.13114E+00  6.28031E+00  6.43312E+00
#           6.58964E+00  6.74997E+00  6.91420E+00  7.08243E+00  7.25475E+00
#           7.43126E+00  7.61207E+00  7.79728E+00  7.98700E+00  8.18133E+00
#           8.38038E+00  8.58428E+00  8.79315E+00  9.00709E+00  9.22624E+00
#           9.45072E+00  9.68067E+00  9.91620E+00  1.01575E+01  1.04046E+01
#           1.06578E+01  1.09171E+01  1.11827E+01  1.14548E+01  1.17335E+01
#           1.20190E+01  1.23114E+01  1.26109E+01  1.29178E+01  1.32321E+01
#           1.35540E+01  1.38838E+01  1.42216E+01  1.45676E+01  1.49221E+01
#           1.52851E+01  1.56570E+01  1.60380E+01  1.64282E+01  1.68279E+01
#           1.72374E+01  1.76568E+01  1.80864E+01  1.85264E+01  1.89772E+01
#           1.94389E+01  1.99119E+01  2.03963E+01  2.08926E+01  2.14009E+01
#           2.19216E+01  2.24550E+01  2.30014E+01  2.35610E+01  2.41343E+01
#           2.47215E+01  2.53230E+01  2.59391E+01  2.65702E+01  2.72167E+01
#           2.78789E+01  2.85572E+01  2.92520E+01  2.99637E+01  3.06928E+01
#           3.14396E+01  3.22045E+01  3.29881E+01  3.37907E+01  3.46128E+01
#           3.54550E+01  3.63177E+01  3.72013E+01  3.81064E+01  3.90336E+01
#           3.99833E+01  4.09561E+01  4.19526E+01  4.29734E+01  4.40189E+01
#           4.50900E+01  4.61870E+01  4.73108E+01  4.84619E+01  4.96410E+01
#           5.08488E+01  5.20860E+01  5.33533E+01  5.46514E+01  5.59812E+01
#           5.73432E+01  5.87384E+01  6.01676E+01  6.16315E+01  6.31311E+01
#           6.46671E+01  6.62405E+01  6.78522E+01  6.95031E+01  7.11941E+01
#           7.29263E+01  7.47007E+01  7.65182E+01  7.83800E+01  8.02870E+01
#           8.22405E+01  8.42414E+01  8.62911E+01  8.83906E+01  9.05412E+01
#           9.27442E+01  9.50007E+01  9.73122E+01  9.96799E+01  1.02105E+02
#           1.04589E+02  1.07134E+02  1.09741E+02  1.12411E+02  1.15146E+02
#           1.17948E+02  1.20817E+02  1.23757E+02  1.26768E+02  1.29852E+02
#           1.33012E+02  1.36248E+02  1.39563E+02  1.42959E+02  1.46437E+02
#           1.50000E+02
     unit =    2            # unit is [1/cm^2/(MeV/n)/source]
     axis =  eng            # axis of output
     file = detector-10.out  # file name of output for the above axis
   output = f-curr          # surface crossing forward current spectrum
     part =  neutron  
# kf/name :  2112     
#    used :        main (  %)        temp (  %)       total (  %)
#  memory :         414 (  0)           0 (  0)         414 (  0)

#------------------------------------------------------------------------------
#newpage:
#   no. =    1   reg = 109 - 209

x: Energy [MeV/n]
y:  F-Curr [1/cm^2/(MeV/n)/source]         
p: xlog ylog afac(0.8) form(0.9)
h: n            x            y(neutron ),hh0l   n 
#  e-lower      e-upper      neutron     r.err 
   1.0000E-02   1.0243E-02   1.7194E-02  0.0155
   1.0243E-02   1.0493E-02   1.6663E-02  0.0155
   1.0493E-02   1.0748E-02   1.6577E-02  0.0154
   1.0748E-02   1.1009E-02   1.5602E-02  0.0157
   1.1009E-02   1.1277E-02   1.5653E-02  0.0154
   1.1277E-02   1.1552E-02   1.5203E-02  0.0155
   1.1552E-02   1.1833E-02   1.4975E-02  0.0154
   1.1833E-02   1.2121E-02   1.4344E-02  0.0156
   1.2121E-02   1.2415E-02   1.4086E-02  0.0155
   1.2415E-02   1.2718E-02   1.3387E-02  0.0157
   1.2718E-02   1.3027E-02   1.3064E-02  0.0157
   1.3027E-02   1.3344E-02   1.2861E-02  0.0157
   1.3344E-02   1.3669E-02   1.2202E-02  0.0159
   1.3669E-02   1.4001E-02   1.1877E-02  0.0159
   1.4001E-02   1.4342E-02   1.1701E-02  0.0158
   1.4342E-02   1.4691E-02   1.1529E-02  0.0158
   1.4691E-02   1.5048E-02   1.1289E-02  0.0157
   1.5048E-02   1.5414E-02   1.0991E-02  0.0158
   1.5414E-02   1.5789E-02   1.0569E-02  0.0159
   1.5789E-02   1.6174E-02   1.0292E-02  0.0159
   1.6174E-02   1.6567E-02   9.9907E-03  0.0159
   1.6567E-02   1.6970E-02   1.0137E-02  0.0156
   1.6970E-02   1.7383E-02   9.3752E-03  0.0161
   1.7383E-02   1.7806E-02   9.0178E-03  0.0162
   1.7806E-02   1.8239E-02   8.8890E-03  0.0161
   1.8239E-02   1.8683E-02   8.6508E-03  0.0161
   1.8683E-02   1.9138E-02   8.5058E-03  0.0161
   1.9138E-02   1.9603E-02   8.2243E-03  0.0162
   1.9603E-02   2.0080E-02   8.0373E-03  0.0162
   2.0080E-02   2.0569E-02   7.8526E-03  0.0161
   2.0569E-02   2.1069E-02   7.5691E-03  0.0162
   2.1069E-02   2.1582E-02   7.4069E-03  0.0162
   2.1582E-02   2.2107E-02   7.2538E-03  0.0162
   2.2107E-02   2.2645E-02   7.0267E-03  0.0163
   2.2645E-02   2.3196E-02   6.8552E-03  0.0163
   2.3196E-02   2.3760E-02   6.5223E-03  0.0165
   2.3760E-02   2.4338E-02   6.2541E-03  0.0166
   2.4338E-02   2.4930E-02   5.9704E-03  0.0168
   2.4930E-02   2.5537E-02   5.9828E-03  0.0166
   2.5537E-02   2.6158E-02   5.7586E-03  0.0167
   2.6158E-02   2.6795E-02   5.6312E-03  0.0167
   2.6795E-02   2.7447E-02   5.3755E-03  0.0169
   2.7447E-02   2.8114E-02   5.2261E-03  0.0169
   2.8114E-02   2.8799E-02   5.2950E-03  0.0166
   2.8799E-02   2.9499E-02   5.1421E-03  0.0167
   2.9499E-02   3.0217E-02   5.0694E-03  0.0166
   3.0217E-02   3.0952E-02   4.7708E-03  0.0169
   3.0952E-02   3.1705E-02   4.7106E-03  0.0168
   3.1705E-02   3.2477E-02   4.4931E-03  0.0170
   3.2477E-02   3.3267E-02   4.1471E-03  0.0175
   3.3267E-02   3.4076E-02   4.2290E-03  0.0171
   3.4076E-02   3.4905E-02   3.9766E-03  0.0174
   3.4905E-02   3.5755E-02   3.8821E-03  0.0174
   3.5755E-02   3.6625E-02   3.9555E-03  0.0170
   3.6625E-02   3.7516E-02   3.7089E-03  0.0174
   3.7516E-02   3.8428E-02   3.6421E-03  0.0174
   3.8428E-02   3.9363E-02   3.5022E-03  0.0175
   3.9363E-02   4.0321E-02   3.4174E-03  0.0175
   4.0321E-02   4.1302E-02   3.3378E-03  0.0175
   4.1302E-02   4.2307E-02   3.1037E-03  0.0179
   4.2307E-02   4.3337E-02   3.0630E-03  0.0178
   4.3337E-02   4.4391E-02   3.0003E-03  0.0178
   4.4391E-02   4.5471E-02   3.0077E-03  0.0175
   4.5471E-02   4.6577E-02   2.9186E-03  0.0176
   4.6577E-02   4.7711E-02   2.7999E-03  0.0178
   4.7711E-02   4.8871E-02   2.6390E-03  0.0181
   4.8871E-02   5.0061E-02   2.5133E-03  0.0183
   5.0061E-02   5.1279E-02   2.5373E-03  0.0180
   5.1279E-02   5.2526E-02   2.4606E-03  0.0180
   5.2526E-02   5.3804E-02   2.3353E-03  0.0183
   5.3804E-02   5.5113E-02   2.2726E-03  0.0183
   5.5113E-02   5.6454E-02   2.2268E-03  0.0183
   5.6454E-02   5.7828E-02   2.1739E-03  0.0183
   5.7828E-02   5.9235E-02   2.0732E-03  0.0185
   5.9235E-02   6.0676E-02   1.9643E-03  0.0188
   6.0676E-02   6.2152E-02   1.9281E-03  0.0187
   6.2152E-02   6.3665E-02   1.8939E-03  0.0187
   6.3665E-02   6.5214E-02   1.8605E-03  0.0186
   6.5214E-02   6.6800E-02   1.7552E-03  0.0189
   6.6800E-02   6.8426E-02   1.7547E-03  0.0187
   6.8426E-02   7.0090E-02   1.6809E-03  0.0189
   7.0090E-02   7.1796E-02   1.6102E-03  0.0191
   7.1796E-02   7.3543E-02   1.5995E-03  0.0189
   7.3543E-02   7.5332E-02   1.5156E-03  0.0192
   7.5332E-02   7.7165E-02   1.4589E-03  0.0193
   7.7165E-02   7.9042E-02   1.4328E-03  0.0193
   7.9042E-02   8.0965E-02   1.3688E-03  0.0195
   8.0965E-02   8.2935E-02   1.2944E-03  0.0198
   8.2935E-02   8.4953E-02   1.3083E-03  0.0195
   8.4953E-02   8.7020E-02   1.2257E-03  0.0199
   8.7020E-02   8.9138E-02   1.1964E-03  0.0199
   8.9138E-02   9.1306E-02   1.1525E-03  0.0200
   9.1306E-02   9.3528E-02   1.0938E-03  0.0203
   9.3528E-02   9.5804E-02   1.0973E-03  0.0200
   9.5804E-02   9.8134E-02   1.0399E-03  0.0203
   9.8134E-02   1.0052E-01   1.0167E-03  0.0203
   1.0052E-01   1.0297E-01   9.7392E-04  0.0205
   1.0297E-01   1.0547E-01   9.1566E-04  0.0209
   1.0547E-01   1.0804E-01   9.4028E-04  0.0204
   1.0804E-01   1.1067E-01   8.9284E-04  0.0206
   1.1067E-01   1.1336E-01   8.6124E-04  0.0208
   1.1336E-01   1.1612E-01   8.5220E-04  0.0206
   1.1612E-01   1.1894E-01   8.0063E-04  0.0210
   1.1894E-01   1.2184E-01   7.8939E-04  0.0209
   1.2184E-01   1.2480E-01   7.5259E-04  0.0212
   1.2480E-01   1.2784E-01   7.1594E-04  0.0214
   1.2784E-01   1.3095E-01   7.0858E-04  0.0213
   1.3095E-01   1.3414E-01   6.8626E-04  0.0214
   1.3414E-01   1.3740E-01   6.5832E-04  0.0216
   1.3740E-01   1.4074E-01   6.6018E-04  0.0213
   1.4074E-01   1.4417E-01   6.0960E-04  0.0219
   1.4417E-01   1.4767E-01   6.1864E-04  0.0215
   1.4767E-01   1.5127E-01   5.9685E-04  0.0216
   1.5127E-01   1.5495E-01   5.7085E-04  0.0218
   1.5495E-01   1.5872E-01   5.5570E-04  0.0218
   1.5872E-01   1.6258E-01   5.3383E-04  0.0220
   1.6258E-01   1.6654E-01   5.2456E-04  0.0220
   1.6654E-01   1.7059E-01   4.9482E-04  0.0223
   1.7059E-01   1.7474E-01   4.8018E-04  0.0224
   1.7474E-01   1.7899E-01   4.7513E-04  0.0222
   1.7899E-01   1.8334E-01   4.3445E-04  0.0230
   1.8334E-01   1.8781E-01   4.4229E-04  0.0225
   1.8781E-01   1.9237E-01   4.3386E-04  0.0225
   1.9237E-01   1.9706E-01   3.9482E-04  0.0233
   1.9706E-01   2.0185E-01   3.8951E-04  0.0231
   2.0185E-01   2.0676E-01   3.8474E-04  0.0230
   2.0676E-01   2.1179E-01   3.7222E-04  0.0231
   2.1179E-01   2.1694E-01   3.5561E-04  0.0234
   2.1694E-01   2.2222E-01   3.4935E-04  0.0233
   2.2222E-01   2.2763E-01   3.4225E-04  0.0232
   2.2763E-01   2.3317E-01   3.3818E-04  0.0231
   2.3317E-01   2.3884E-01   3.1411E-04  0.0237
   2.3884E-01   2.4465E-01   3.0880E-04  0.0236
   2.4465E-01   2.5061E-01   2.9718E-04  0.0238
   2.5061E-01   2.5670E-01   2.9668E-04  0.0235
   2.5670E-01   2.6295E-01   2.8379E-04  0.0237
   2.6295E-01   2.6935E-01   2.6705E-04  0.0242
   2.6935E-01   2.7590E-01   2.6711E-04  0.0239
   2.7590E-01   2.8261E-01   2.5883E-04  0.0240
   2.8261E-01   2.8949E-01   2.5159E-04  0.0240
   2.8949E-01   2.9653E-01   2.4874E-04  0.0239
   2.9653E-01   3.0375E-01   2.4741E-04  0.0237
   3.0375E-01   3.1114E-01   2.3219E-04  0.0241
   3.1114E-01   3.1871E-01   2.2780E-04  0.0241
   3.1871E-01   3.2646E-01   2.2503E-04  0.0239
   3.2646E-01   3.3441E-01   2.1150E-04  0.0244
   3.3441E-01   3.4254E-01   1.9874E-04  0.0249
   3.4254E-01   3.5088E-01   2.0308E-04  0.0243
   3.5088E-01   3.5941E-01   1.9843E-04  0.0243
   3.5941E-01   3.6816E-01   1.8554E-04  0.0248
   3.6816E-01   3.7712E-01   1.8950E-04  0.0243
   3.7712E-01   3.8629E-01   1.7737E-04  0.0248
   3.8629E-01   3.9569E-01   1.6699E-04  0.0252
   3.9569E-01   4.0532E-01   1.6879E-04  0.0248
   4.0532E-01   4.1518E-01   1.6417E-04  0.0249
   4.1518E-01   4.2528E-01   1.5176E-04  0.0255
   4.2528E-01   4.3563E-01   1.5903E-04  0.0247
   4.3563E-01   4.4623E-01   1.4987E-04  0.0251
   4.4623E-01   4.5708E-01   1.4511E-04  0.0252
   4.5708E-01   4.6821E-01   1.4310E-04  0.0251
   4.6821E-01   4.7960E-01   1.3729E-04  0.0253
   4.7960E-01   4.9127E-01   1.3489E-04  0.0252
   4.9127E-01   5.0322E-01   1.3461E-04  0.0249
   5.0322E-01   5.1546E-01   1.3003E-04  0.0251
   5.1546E-01   5.2800E-01   1.2993E-04  0.0248
   5.2800E-01   5.4085E-01   1.2026E-04  0.0254
   5.4085E-01   5.5401E-01   1.1767E-04  0.0254
   5.5401E-01   5.6749E-01   1.1614E-04  0.0253
   5.6749E-01   5.8130E-01   1.0741E-04  0.0260
   5.8130E-01   5.9544E-01   1.1136E-04  0.0252
   5.9544E-01   6.0993E-01   1.0530E-04  0.0256
   6.0993E-01   6.2477E-01   9.7372E-05  0.0263
   6.2477E-01   6.3997E-01   1.0095E-04  0.0255
   6.3997E-01   6.5554E-01   9.7842E-05  0.0256
   6.5554E-01   6.7149E-01   9.3104E-05  0.0259
   6.7149E-01   6.8783E-01   8.7955E-05  0.0264
   6.8783E-01   7.0456E-01   9.0317E-05  0.0257
   7.0456E-01   7.2171E-01   8.7385E-05  0.0258
   7.2171E-01   7.3927E-01   8.7416E-05  0.0255
   7.3927E-01   7.5725E-01   7.9919E-05  0.0264
   7.5725E-01   7.7568E-01   8.0436E-05  0.0260
   7.7568E-01   7.9455E-01   7.6936E-05  0.0262
   7.9455E-01   8.1388E-01   7.5626E-05  0.0262
   8.1388E-01   8.3368E-01   7.0446E-05  0.0268
   8.3368E-01   8.5397E-01   7.0547E-05  0.0264
   8.5397E-01   8.7475E-01   6.8198E-05  0.0266
   8.7475E-01   8.9603E-01   6.5122E-05  0.0269
   8.9603E-01   9.1783E-01   6.6717E-05  0.0262
   9.1783E-01   9.4016E-01   6.2848E-05  0.0267
   9.4016E-01   9.6304E-01   6.0809E-05  0.0268
   9.6304E-01   9.8647E-01   5.9407E-05  0.0268
   9.8647E-01   1.0105E+00   5.8871E-05  0.0266
   1.0105E+00   1.0351E+00   6.0666E-05  0.0259
   1.0351E+00   1.0602E+00   6.2699E-05  0.0252
   1.0602E+00   1.0860E+00   6.5377E-05  0.0243
   1.0860E+00   1.1125E+00   7.0617E-05  0.0231
   1.1125E+00   1.1395E+00   7.1452E-05  0.0227
   1.1395E+00   1.1673E+00   7.8628E-05  0.0214
   1.1673E+00   1.1957E+00   8.4700E-05  0.0204
   1.1957E+00   1.2247E+00   8.9048E-05  0.0196
   1.2247E+00   1.2545E+00   9.4819E-05  0.0188
   1.2545E+00   1.2851E+00   9.3369E-05  0.0187
   1.2851E+00   1.3163E+00   9.9531E-05  0.0179
   1.3163E+00   1.3484E+00   1.0288E-04  0.0174
   1.3484E+00   1.3812E+00   1.1051E-04  0.0166
   1.3812E+00   1.4148E+00   1.1610E-04  0.0160
   1.4148E+00   1.4492E+00   1.1848E-04  0.0157
   1.4492E+00   1.4845E+00   1.2256E-04  0.0152
   1.4845E+00   1.5206E+00   1.2719E-04  0.0148
   1.5206E+00   1.5576E+00   1.2894E-04  0.0145
   1.5576E+00   1.5955E+00   1.3219E-04  0.0141
   1.5955E+00   1.6343E+00   1.4019E-04  0.0136
   1.6343E+00   1.6741E+00   1.4677E-04  0.0131
   1.6741E+00   1.7148E+00   1.5788E-04  0.0125
   1.7148E+00   1.7565E+00   1.5761E-04  0.0123
   1.7565E+00   1.7992E+00   1.6545E-04  0.0119
   1.7992E+00   1.8430E+00   1.6667E-04  0.0117
   1.8430E+00   1.8879E+00   1.7171E-04  0.0114
   1.8879E+00   1.9338E+00   1.7887E-04  0.0110
   1.9338E+00   1.9808E+00   1.8466E-04  0.0107
   1.9808E+00   2.0290E+00   1.9151E-04  0.0104
   2.0290E+00   2.0784E+00   1.9219E-04  0.0103
   2.0784E+00   2.1290E+00   1.9467E-04  0.0101
   2.1290E+00   2.1808E+00   1.9801E-04  0.0099
   2.1808E+00   2.2338E+00   1.9936E-04  0.0097
   2.2338E+00   2.2882E+00   2.0325E-04  0.0095
   2.2882E+00   2.3439E+00   2.0648E-04  0.0093
   2.3439E+00   2.4009E+00   2.0986E-04  0.0091
   2.4009E+00   2.4593E+00   2.1345E-04  0.0090
   2.4593E+00   2.5191E+00   2.0764E-04  0.0090
   2.5191E+00   2.5804E+00   2.1126E-04  0.0088
   2.5804E+00   2.6432E+00   2.0653E-04  0.0088
   2.6432E+00   2.7075E+00   2.0956E-04  0.0086
   2.7075E+00   2.7734E+00   2.0989E-04  0.0085
   2.7734E+00   2.8409E+00   2.1364E-04  0.0083
   2.8409E+00   2.9100E+00   2.1452E-04  0.0082
   2.9100E+00   2.9808E+00   2.1393E-04  0.0081
   2.9808E+00   3.0533E+00   2.1046E-04  0.0081
   3.0533E+00   3.1276E+00   2.0452E-04  0.0081
   3.1276E+00   3.2037E+00   2.0004E-04  0.0081
   3.2037E+00   3.2817E+00   1.9513E-04  0.0081
   3.2817E+00   3.3615E+00   1.8877E-04  0.0081
   3.3615E+00   3.4433E+00   1.8639E-04  0.0081
   3.4433E+00   3.5271E+00   1.8533E-04  0.0080
   3.5271E+00   3.6129E+00   1.8128E-04  0.0080
   3.6129E+00   3.7008E+00   1.8215E-04  0.0079
   3.7008E+00   3.7908E+00   1.7476E-04  0.0080
   3.7908E+00   3.8831E+00   1.6999E-04  0.0080
   3.8831E+00   3.9776E+00   1.6816E-04  0.0079
   3.9776E+00   4.0743E+00   1.6243E-04  0.0080
   4.0743E+00   4.1735E+00   1.5450E-04  0.0081
   4.1735E+00   4.2750E+00   1.4767E-04  0.0082
   4.2750E+00   4.3790E+00   1.4590E-04  0.0081
   4.3790E+00   4.4856E+00   1.3899E-04  0.0082
   4.4856E+00   4.5947E+00   1.3318E-04  0.0083
   4.5947E+00   4.7065E+00   1.3046E-04  0.0083
   4.7065E+00   4.8210E+00   1.2820E-04  0.0083
   4.8210E+00   4.9383E+00   1.2442E-04  0.0083
   4.9383E+00   5.0585E+00   1.2011E-04  0.0083
   5.0585E+00   5.1815E+00   1.1479E-04  0.0084
   5.1815E+00   5.3076E+00   1.1179E-04  0.0084
   5.3076E+00   5.4368E+00   1.0683E-04  0.0085
   5.4368E+00   5.5690E+00   1.0395E-04  0.0085
   5.5690E+00   5.7045E+00   9.9683E-05  0.0086
   5.7045E+00   5.8433E+00   9.7301E-05  0.0086
   5.8433E+00   5.9855E+00   9.5533E-05  0.0086
   5.9855E+00   6.1311E+00   9.2753E-05  0.0086
   6.1311E+00   6.2803E+00   9.0838E-05  0.0086
   6.2803E+00   6.4331E+00   8.8658E-05  0.0086
   6.4331E+00   6.5896E+00   8.5045E-05  0.0087
   6.5896E+00   6.7500E+00   8.2949E-05  0.0087
   6.7500E+00   6.9142E+00   8.1452E-05  0.0086
   6.9142E+00   7.0824E+00   8.0179E-05  0.0086
   7.0824E+00   7.2548E+00   8.0773E-05  0.0085
   7.2548E+00   7.4313E+00   7.8399E-05  0.0085
   7.4313E+00   7.6121E+00   7.8839E-05  0.0084
   7.6121E+00   7.7973E+00   7.5851E-05  0.0084
   7.7973E+00   7.9870E+00   7.5050E-05  0.0084
   7.9870E+00   8.1813E+00   7.5507E-05  0.0083
   8.1813E+00   8.3804E+00   7.5219E-05  0.0082
   8.3804E+00   8.5843E+00   7.4266E-05  0.0081
   8.5843E+00   8.7931E+00   7.4281E-05  0.0080
   8.7931E+00   9.0071E+00   7.3305E-05  0.0080
   9.0071E+00   9.2262E+00   7.3835E-05  0.0079
   9.2262E+00   9.4507E+00   7.2921E-05  0.0078
   9.4507E+00   9.6807E+00   7.2213E-05  0.0078
   9.6807E+00   9.9162E+00   7.2309E-05  0.0077
   9.9162E+00   1.0157E+01   7.1659E-05  0.0076
   1.0157E+01   1.0405E+01   7.2868E-05  0.0074
   1.0405E+01   1.0658E+01   7.1174E-05  0.0074
   1.0658E+01   1.0917E+01   7.1618E-05  0.0073
   1.0917E+01   1.1183E+01   7.1442E-05  0.0073
   1.1183E+01   1.1455E+01   7.1013E-05  0.0072
   1.1455E+01   1.1733E+01   7.0343E-05  0.0071
   1.1733E+01   1.2019E+01   7.0424E-05  0.0070
   1.2019E+01   1.2311E+01   7.0550E-05  0.0070
   1.2311E+01   1.2611E+01   7.0153E-05  0.0069
   1.2611E+01   1.2918E+01   6.9824E-05  0.0068
   1.2918E+01   1.3232E+01   6.8123E-05  0.0068
   1.3232E+01   1.3554E+01   6.8281E-05  0.0067
   1.3554E+01   1.3884E+01   6.8098E-05  0.0067
   1.3884E+01   1.4222E+01   6.6362E-05  0.0067
   1.4222E+01   1.4568E+01   6.6631E-05  0.0066
   1.4568E+01   1.4922E+01   6.5356E-05  0.0066
   1.4922E+01   1.5285E+01   6.5214E-05  0.0065
   1.5285E+01   1.5657E+01   6.4460E-05  0.0065
   1.5657E+01   1.6038E+01   6.3297E-05  0.0064
   1.6038E+01   1.6428E+01   6.3199E-05  0.0064
   1.6428E+01   1.6828E+01   6.2201E-05  0.0063
   1.6828E+01   1.7237E+01   6.1486E-05  0.0063
   1.7237E+01   1.7657E+01   5.9772E-05  0.0063
   1.7657E+01   1.8086E+01   5.8729E-05  0.0063
   1.8086E+01   1.8526E+01   5.8146E-05  0.0062
   1.8526E+01   1.8977E+01   5.6211E-05  0.0063
   1.8977E+01   1.9439E+01   5.4959E-05  0.0063
   1.9439E+01   1.9912E+01   5.2753E-05  0.0063
   1.9912E+01   2.0396E+01   5.0463E-05  0.0064
   2.0396E+01   2.0893E+01   5.1822E-05  0.0062
   2.0893E+01   2.1401E+01   4.9137E-05  0.0063
   2.1401E+01   2.1922E+01   4.7340E-05  0.0064
   2.1922E+01   2.2455E+01   4.4772E-05  0.0065
   2.2455E+01   2.3001E+01   4.3203E-05  0.0065
   2.3001E+01   2.3561E+01   4.1305E-05  0.0066
   2.3561E+01   2.4134E+01   3.8599E-05  0.0067
   2.4134E+01   2.4721E+01   3.6468E-05  0.0068
   2.4721E+01   2.5323E+01   3.4401E-05  0.0070
   2.5323E+01   2.5939E+01   3.2423E-05  0.0071
   2.5939E+01   2.6570E+01   3.0776E-05  0.0072
   2.6570E+01   2.7217E+01   2.8249E-05  0.0074
   2.7217E+01   2.7879E+01   2.6000E-05  0.0076
   2.7879E+01   2.8557E+01   2.4471E-05  0.0078
   2.8557E+01   2.9252E+01   2.2704E-05  0.0080
   2.9252E+01   2.9964E+01   2.0911E-05  0.0082
   2.9964E+01   3.0693E+01   1.9225E-05  0.0084
   3.0693E+01   3.1440E+01   1.7383E-05  0.0088
   3.1440E+01   3.2205E+01   1.5712E-05  0.0091
   3.2205E+01   3.2988E+01   1.4581E-05  0.0094
   3.2988E+01   3.3791E+01   1.3404E-05  0.0096
   3.3791E+01   3.4613E+01   1.1802E-05  0.0102
   3.4613E+01   3.5455E+01   1.0768E-05  0.0105
   3.5455E+01   3.6318E+01   9.7085E-06  0.0109
   3.6318E+01   3.7201E+01   8.4922E-06  0.0115
   3.7201E+01   3.8106E+01   7.7248E-06  0.0120
   3.8106E+01   3.9034E+01   6.5210E-06  0.0129
   3.9034E+01   3.9983E+01   5.8386E-06  0.0134
   3.9983E+01   4.0956E+01   4.9392E-06  0.0144
   4.0956E+01   4.1953E+01   4.2730E-06  0.0153
   4.1953E+01   4.2973E+01   3.5004E-06  0.0167
   4.2973E+01   4.4019E+01   3.0863E-06  0.0176
   4.4019E+01   4.5090E+01   2.5247E-06  0.0192
   4.5090E+01   4.6187E+01   2.0682E-06  0.0210
   4.6187E+01   4.7311E+01   1.6516E-06  0.0232
   4.7311E+01   4.8462E+01   1.2657E-06  0.0262
   4.8462E+01   4.9641E+01   9.3375E-07  0.0301
   4.9641E+01   5.0849E+01   6.5573E-07  0.0355
   5.0849E+01   5.2086E+01   4.5506E-07  0.0421
   5.2086E+01   5.3353E+01   2.9275E-07  0.0519
   5.3353E+01   5.4651E+01   1.8565E-07  0.0644
   5.4651E+01   5.5981E+01   7.8212E-08  0.0981
   5.5981E+01   5.7343E+01   1.7620E-08  0.2041
   5.7343E+01   5.8738E+01   0.0000E+00  0.0000
   5.8738E+01   6.0168E+01   0.0000E+00  0.0000
   6.0168E+01   6.1632E+01   0.0000E+00  0.0000
   6.1632E+01   6.3131E+01   0.0000E+00  0.0000
   6.3131E+01   6.4667E+01   0.0000E+00  0.0000
   6.4667E+01   6.6240E+01   0.0000E+00  0.0000
   6.6240E+01   6.7852E+01   0.0000E+00  0.0000
   6.7852E+01   6.9503E+01   0.0000E+00  0.0000
   6.9503E+01   7.1194E+01   0.0000E+00  0.0000
   7.1194E+01   7.2926E+01   0.0000E+00  0.0000
   7.2926E+01   7.4701E+01   0.0000E+00  0.0000
   7.4701E+01   7.6518E+01   0.0000E+00  0.0000
   7.6518E+01   7.8380E+01   0.0000E+00  0.0000
   7.8380E+01   8.0287E+01   0.0000E+00  0.0000
   8.0287E+01   8.2240E+01   0.0000E+00  0.0000
   8.2240E+01   8.4241E+01   0.0000E+00  0.0000
   8.4241E+01   8.6291E+01   0.0000E+00  0.0000
   8.6291E+01   8.8391E+01   0.0000E+00  0.0000
   8.8391E+01   9.0541E+01   0.0000E+00  0.0000
   9.0541E+01   9.2744E+01   0.0000E+00  0.0000
   9.2744E+01   9.5001E+01   0.0000E+00  0.0000
   9.5001E+01   9.7312E+01   0.0000E+00  0.0000
   9.7312E+01   9.9680E+01   0.0000E+00  0.0000
   9.9680E+01   1.0211E+02   0.0000E+00  0.0000
   1.0211E+02   1.0459E+02   0.0000E+00  0.0000
   1.0459E+02   1.0713E+02   0.0000E+00  0.0000
   1.0713E+02   1.0974E+02   0.0000E+00  0.0000
   1.0974E+02   1.1241E+02   0.0000E+00  0.0000
   1.1241E+02   1.1515E+02   0.0000E+00  0.0000
   1.1515E+02   1.1795E+02   0.0000E+00  0.0000
   1.1795E+02   1.2082E+02   0.0000E+00  0.0000
   1.2082E+02   1.2376E+02   0.0000E+00  0.0000
   1.2376E+02   1.2677E+02   0.0000E+00  0.0000
   1.2677E+02   1.2985E+02   0.0000E+00  0.0000
   1.2985E+02   1.3301E+02   0.0000E+00  0.0000
   1.3301E+02   1.3625E+02   0.0000E+00  0.0000
   1.3625E+02   1.3956E+02   0.0000E+00  0.0000
   1.3956E+02   1.4296E+02   0.0000E+00  0.0000
   1.4296E+02   1.4644E+02   0.0000E+00  0.0000
   1.4644E+02   1.5000E+02   0.0000E+00  0.0000

#   sum over                 1.8043E-05
'no. =    1   reg = 109 - 209'
msuc: {\huge [t-cross] in region mesh}
msdr: {\it plotted by \ANGEL \version}
msdl: {\it calculated by \PHITS  3.26}
wt: s(0.7)
\vspace{-3}
  region surface crossing
  area  &=&   1.0000E+00 [cm^2]
e:
 
# Information for Restart Calculation
# This calculation was newly started
# istdev =  2 # 1:Batch variance, 2:History variance
# resc2  = 1.00000000000000000E+09 # Total source weight or Total source weight / maxcas
# resc3  = 1.00000000000000000E+09 # Total history number or Total batch number
# maxcas =   100000000 # History / Batch, only used for istdev=1
# bitrseed = 0001001110011001001001110000100100110111001111011100001000101100 # bit data of rseed
