[ T-Cross ]
    title = [t-cross] in region mesh
     mesh =  reg            # mesh type is region-wise
      reg =    1            # number of crossing regions
      non     r-from    r-to       area
      1       112       212        1.000000    
   e-type =    3            # e-mesh is log given by emin, emax and ne
     emin =  1.0000000E-02  # minimum value of e-mesh points
     emax =   150.0000      # maximum value of e-mesh points
#    edel =  2.4039514E-02  # mesh width of e-mesh points
       ne =    400          # number of e-mesh points
#    data = ( e(i), i = 1, ne + 1 )
#           1.00000E-02  1.02433E-02  1.04925E-02  1.07478E-02  1.10093E-02
#           1.12772E-02  1.15516E-02  1.18326E-02  1.21205E-02  1.24154E-02
#           1.27175E-02  1.30269E-02  1.33439E-02  1.36686E-02  1.40011E-02
#           1.43418E-02  1.46907E-02  1.50482E-02  1.54143E-02  1.57894E-02
#           1.61735E-02  1.65670E-02  1.69701E-02  1.73830E-02  1.78060E-02
#           1.82392E-02  1.86830E-02  1.91375E-02  1.96032E-02  2.00801E-02
#           2.05687E-02  2.10692E-02  2.15818E-02  2.21069E-02  2.26448E-02
#           2.31957E-02  2.37601E-02  2.43382E-02  2.49304E-02  2.55369E-02
#           2.61583E-02  2.67947E-02  2.74467E-02  2.81145E-02  2.87985E-02
#           2.94992E-02  3.02169E-02  3.09521E-02  3.17052E-02  3.24766E-02
#           3.32668E-02  3.40762E-02  3.49053E-02  3.57546E-02  3.66246E-02
#           3.75157E-02  3.84284E-02  3.93634E-02  4.03212E-02  4.13022E-02
#           4.23071E-02  4.33365E-02  4.43909E-02  4.54710E-02  4.65773E-02
#           4.77106E-02  4.88714E-02  5.00605E-02  5.12785E-02  5.25262E-02
#           5.38042E-02  5.51133E-02  5.64542E-02  5.78278E-02  5.92348E-02
#           6.06760E-02  6.21523E-02  6.36645E-02  6.52135E-02  6.68002E-02
#           6.84255E-02  7.00904E-02  7.17957E-02  7.35426E-02  7.53319E-02
#           7.71648E-02  7.90423E-02  8.09655E-02  8.29354E-02  8.49533E-02
#           8.70203E-02  8.91376E-02  9.13064E-02  9.35279E-02  9.58035E-02
#           9.81345E-02  1.00522E-01  1.02968E-01  1.05473E-01  1.08040E-01
#           1.10668E-01  1.13361E-01  1.16119E-01  1.18944E-01  1.21838E-01
#           1.24803E-01  1.27839E-01  1.30950E-01  1.34136E-01  1.37399E-01
#           1.40742E-01  1.44167E-01  1.47675E-01  1.51268E-01  1.54948E-01
#           1.58718E-01  1.62580E-01  1.66535E-01  1.70587E-01  1.74738E-01
#           1.78989E-01  1.83344E-01  1.87805E-01  1.92375E-01  1.97055E-01
#           2.01850E-01  2.06761E-01  2.11792E-01  2.16945E-01  2.22223E-01
#           2.27630E-01  2.33169E-01  2.38842E-01  2.44653E-01  2.50605E-01
#           2.56703E-01  2.62949E-01  2.69346E-01  2.75900E-01  2.82613E-01
#           2.89489E-01  2.96532E-01  3.03747E-01  3.11138E-01  3.18708E-01
#           3.26462E-01  3.34405E-01  3.42542E-01  3.50876E-01  3.59413E-01
#           3.68158E-01  3.77116E-01  3.86291E-01  3.95690E-01  4.05317E-01
#           4.15179E-01  4.25281E-01  4.35628E-01  4.46227E-01  4.57084E-01
#           4.68205E-01  4.79597E-01  4.91266E-01  5.03219E-01  5.15463E-01
#           5.28005E-01  5.40851E-01  5.54011E-01  5.67490E-01  5.81298E-01
#           5.95441E-01  6.09929E-01  6.24769E-01  6.39970E-01  6.55541E-01
#           6.71491E-01  6.87828E-01  7.04564E-01  7.21706E-01  7.39266E-01
#           7.57253E-01  7.75678E-01  7.94551E-01  8.13883E-01  8.33685E-01
#           8.53969E-01  8.74747E-01  8.96030E-01  9.17831E-01  9.40163E-01
#           9.63038E-01  9.86469E-01  1.01047E+00  1.03506E+00  1.06024E+00
#           1.08604E+00  1.11246E+00  1.13953E+00  1.16725E+00  1.19565E+00
#           1.22474E+00  1.25454E+00  1.28507E+00  1.31633E+00  1.34836E+00
#           1.38117E+00  1.41477E+00  1.44920E+00  1.48446E+00  1.52057E+00
#           1.55757E+00  1.59547E+00  1.63429E+00  1.67405E+00  1.71478E+00
#           1.75650E+00  1.79924E+00  1.84302E+00  1.88786E+00  1.93379E+00
#           1.98084E+00  2.02904E+00  2.07841E+00  2.12898E+00  2.18078E+00
#           2.23384E+00  2.28819E+00  2.34386E+00  2.40089E+00  2.45930E+00
#           2.51914E+00  2.58043E+00  2.64322E+00  2.70753E+00  2.77341E+00
#           2.84088E+00  2.91001E+00  2.98081E+00  3.05333E+00  3.12762E+00
#           3.20372E+00  3.28167E+00  3.36152E+00  3.44330E+00  3.52708E+00
#           3.61290E+00  3.70080E+00  3.79085E+00  3.88308E+00  3.97756E+00
#           4.07434E+00  4.17347E+00  4.27501E+00  4.37903E+00  4.48557E+00
#           4.59471E+00  4.70650E+00  4.82102E+00  4.93832E+00  5.05847E+00
#           5.18155E+00  5.30762E+00  5.43676E+00  5.56904E+00  5.70453E+00
#           5.84333E+00  5.98550E+00  6.13114E+00  6.28031E+00  6.43312E+00
#           6.58964E+00  6.74997E+00  6.91420E+00  7.08243E+00  7.25475E+00
#           7.43126E+00  7.61207E+00  7.79728E+00  7.98700E+00  8.18133E+00
#           8.38038E+00  8.58428E+00  8.79315E+00  9.00709E+00  9.22624E+00
#           9.45072E+00  9.68067E+00  9.91620E+00  1.01575E+01  1.04046E+01
#           1.06578E+01  1.09171E+01  1.11827E+01  1.14548E+01  1.17335E+01
#           1.20190E+01  1.23114E+01  1.26109E+01  1.29178E+01  1.32321E+01
#           1.35540E+01  1.38838E+01  1.42216E+01  1.45676E+01  1.49221E+01
#           1.52851E+01  1.56570E+01  1.60380E+01  1.64282E+01  1.68279E+01
#           1.72374E+01  1.76568E+01  1.80864E+01  1.85264E+01  1.89772E+01
#           1.94389E+01  1.99119E+01  2.03963E+01  2.08926E+01  2.14009E+01
#           2.19216E+01  2.24550E+01  2.30014E+01  2.35610E+01  2.41343E+01
#           2.47215E+01  2.53230E+01  2.59391E+01  2.65702E+01  2.72167E+01
#           2.78789E+01  2.85572E+01  2.92520E+01  2.99637E+01  3.06928E+01
#           3.14396E+01  3.22045E+01  3.29881E+01  3.37907E+01  3.46128E+01
#           3.54550E+01  3.63177E+01  3.72013E+01  3.81064E+01  3.90336E+01
#           3.99833E+01  4.09561E+01  4.19526E+01  4.29734E+01  4.40189E+01
#           4.50900E+01  4.61870E+01  4.73108E+01  4.84619E+01  4.96410E+01
#           5.08488E+01  5.20860E+01  5.33533E+01  5.46514E+01  5.59812E+01
#           5.73432E+01  5.87384E+01  6.01676E+01  6.16315E+01  6.31311E+01
#           6.46671E+01  6.62405E+01  6.78522E+01  6.95031E+01  7.11941E+01
#           7.29263E+01  7.47007E+01  7.65182E+01  7.83800E+01  8.02870E+01
#           8.22405E+01  8.42414E+01  8.62911E+01  8.83906E+01  9.05412E+01
#           9.27442E+01  9.50007E+01  9.73122E+01  9.96799E+01  1.02105E+02
#           1.04589E+02  1.07134E+02  1.09741E+02  1.12411E+02  1.15146E+02
#           1.17948E+02  1.20817E+02  1.23757E+02  1.26768E+02  1.29852E+02
#           1.33012E+02  1.36248E+02  1.39563E+02  1.42959E+02  1.46437E+02
#           1.50000E+02
     unit =    2            # unit is [1/cm^2/(MeV/n)/source]
     axis =  eng            # axis of output
     file = detector-13.out  # file name of output for the above axis
   output = f-curr          # surface crossing forward current spectrum
     part =  neutron  
# kf/name :  2112     
#    used :        main (  %)        temp (  %)       total (  %)
#  memory :         414 (  0)           0 (  0)         414 (  0)

#------------------------------------------------------------------------------
#newpage:
#   no. =    1   reg = 112 - 212

x: Energy [MeV/n]
y:  F-Curr [1/cm^2/(MeV/n)/source]         
p: xlog ylog afac(0.8) form(0.9)
h: n            x            y(neutron ),hh0l   n 
#  e-lower      e-upper      neutron     r.err 
   1.0000E-02   1.0243E-02   6.5760E-05  0.1118
   1.0243E-02   1.0493E-02   7.5433E-05  0.1031
   1.0493E-02   1.0748E-02   8.5393E-05  0.0958
   1.0748E-02   1.1009E-02   7.2657E-05  0.1026
   1.1009E-02   1.1277E-02   7.9144E-05  0.0971
   1.1277E-02   1.1552E-02   8.9656E-05  0.0902
   1.1552E-02   1.1833E-02   8.6814E-05  0.0905
   1.1833E-02   1.2121E-02   8.4752E-05  0.0905
   1.2121E-02   1.2415E-02   7.9348E-05  0.0925
   1.2415E-02   1.2718E-02   7.9450E-05  0.0913
   1.2718E-02   1.3027E-02   9.2429E-05  0.0836
   1.3027E-02   1.3344E-02   8.0768E-05  0.0884
   1.3344E-02   1.3669E-02   8.0082E-05  0.0877
   1.3669E-02   1.4001E-02   7.8180E-05  0.0877
   1.4001E-02   1.4342E-02   1.0333E-04  0.0754
   1.4342E-02   1.4691E-02   7.7376E-05  0.0861
   1.4691E-02   1.5048E-02   9.7919E-05  0.0756
   1.5048E-02   1.5414E-02   8.0298E-05  0.0825
   1.5414E-02   1.5789E-02   9.3323E-05  0.0756
   1.5789E-02   1.6174E-02   8.7982E-05  0.0769
   1.6174E-02   1.6567E-02   8.5893E-05  0.0769
   1.6567E-02   1.6970E-02   9.3280E-05  0.0729
   1.6970E-02   1.7383E-02   8.2345E-05  0.0767
   1.7383E-02   1.7806E-02   9.2684E-05  0.0714
   1.7806E-02   1.8239E-02   9.4176E-05  0.0700
   1.8239E-02   1.8683E-02   9.6896E-05  0.0682
   1.8683E-02   1.9138E-02   9.6794E-05  0.0674
   1.9138E-02   1.9603E-02   9.0200E-05  0.0690
   1.9603E-02   2.0080E-02   9.4347E-05  0.0667
   2.0080E-02   2.0569E-02   8.6785E-05  0.0687
   2.0569E-02   2.1069E-02   1.0311E-04  0.0623
   2.1069E-02   2.1582E-02   9.1294E-05  0.0654
   2.1582E-02   2.2107E-02   9.5601E-05  0.0631
   2.2107E-02   2.2645E-02   9.9279E-05  0.0612
   2.2645E-02   2.3196E-02   9.9099E-05  0.0605
   2.3196E-02   2.3760E-02   1.0986E-04  0.0568
   2.3760E-02   2.4338E-02   1.0725E-04  0.0568
   2.4338E-02   2.4930E-02   9.6932E-05  0.0590
   2.4930E-02   2.5537E-02   1.0287E-04  0.0566
   2.5537E-02   2.6158E-02   1.1330E-04  0.0533
   2.6158E-02   2.6795E-02   1.1093E-04  0.0532
   2.6795E-02   2.7447E-02   1.1688E-04  0.0512
   2.7447E-02   2.8114E-02   1.0602E-04  0.0531
   2.8114E-02   2.8799E-02   1.1315E-04  0.0508
   2.8799E-02   2.9499E-02   1.2159E-04  0.0485
   2.9499E-02   3.0217E-02   1.2428E-04  0.0474
   3.0217E-02   3.0952E-02   1.1752E-04  0.0481
   3.0952E-02   3.1705E-02   1.1818E-04  0.0474
   3.1705E-02   3.2477E-02   1.1615E-04  0.0472
   3.2477E-02   3.3267E-02   1.1694E-04  0.0465
   3.3267E-02   3.4076E-02   1.1885E-04  0.0456
   3.4076E-02   3.4905E-02   1.1531E-04  0.0457
   3.4905E-02   3.5755E-02   1.2269E-04  0.0438
   3.5755E-02   3.6625E-02   1.1840E-04  0.0441
   3.6625E-02   3.7516E-02   1.1132E-04  0.0449
   3.7516E-02   3.8428E-02   1.2248E-04  0.0423
   3.8428E-02   3.9363E-02   1.2471E-04  0.0414
   3.9363E-02   4.0321E-02   1.3031E-04  0.0400
   4.0321E-02   4.1302E-02   1.1824E-04  0.0415
   4.1302E-02   4.2307E-02   1.2538E-04  0.0398
   4.2307E-02   4.3337E-02   1.2823E-04  0.0389
   4.3337E-02   4.4391E-02   1.3372E-04  0.0377
   4.4391E-02   4.5471E-02   1.4073E-04  0.0363
   4.5471E-02   4.6577E-02   1.3829E-04  0.0362
   4.6577E-02   4.7711E-02   1.3236E-04  0.0365
   4.7711E-02   4.8871E-02   1.3904E-04  0.0352
   4.8871E-02   5.0061E-02   1.3691E-04  0.0350
   5.0061E-02   5.1279E-02   1.3711E-04  0.0346
   5.1279E-02   5.2526E-02   1.4523E-04  0.0332
   5.2526E-02   5.3804E-02   1.4116E-04  0.0333
   5.3804E-02   5.5113E-02   1.3826E-04  0.0332
   5.5113E-02   5.6454E-02   1.5482E-04  0.0311
   5.6454E-02   5.7828E-02   1.4255E-04  0.0320
   5.7828E-02   5.9235E-02   1.5323E-04  0.0305
   5.9235E-02   6.0676E-02   1.5612E-04  0.0298
   6.0676E-02   6.2152E-02   1.4929E-04  0.0301
   6.2152E-02   6.3665E-02   1.5143E-04  0.0296
   6.3665E-02   6.5214E-02   1.5158E-04  0.0292
   6.5214E-02   6.6800E-02   1.6046E-04  0.0280
   6.6800E-02   6.8426E-02   1.6022E-04  0.0277
   6.8426E-02   7.0090E-02   1.5365E-04  0.0280
   7.0090E-02   7.1796E-02   1.6958E-04  0.0263
   7.1796E-02   7.3543E-02   1.6704E-04  0.0262
   7.3543E-02   7.5332E-02   1.6576E-04  0.0260
   7.5332E-02   7.7165E-02   1.6411E-04  0.0258
   7.7165E-02   7.9042E-02   1.6959E-04  0.0251
   7.9042E-02   8.0965E-02   1.7076E-04  0.0247
   8.0965E-02   8.2935E-02   1.7158E-04  0.0243
   8.2935E-02   8.4953E-02   1.7831E-04  0.0236
   8.4953E-02   8.7020E-02   1.7620E-04  0.0234
   8.7020E-02   8.9138E-02   1.7995E-04  0.0229
   8.9138E-02   9.1306E-02   1.7844E-04  0.0227
   9.1306E-02   9.3528E-02   1.8068E-04  0.0223
   9.3528E-02   9.5804E-02   1.8527E-04  0.0218
   9.5804E-02   9.8134E-02   1.8121E-04  0.0218
   9.8134E-02   1.0052E-01   1.8612E-04  0.0212
   1.0052E-01   1.0297E-01   1.8873E-04  0.0208
   1.0297E-01   1.0547E-01   1.8760E-04  0.0206
   1.0547E-01   1.0804E-01   1.9188E-04  0.0202
   1.0804E-01   1.1067E-01   1.9417E-04  0.0198
   1.1067E-01   1.1336E-01   1.9490E-04  0.0195
   1.1336E-01   1.1612E-01   1.9397E-04  0.0193
   1.1612E-01   1.1894E-01   1.9651E-04  0.0190
   1.1894E-01   1.2184E-01   1.9855E-04  0.0187
   1.2184E-01   1.2480E-01   2.0618E-04  0.0181
   1.2480E-01   1.2784E-01   1.9707E-04  0.0183
   1.2784E-01   1.3095E-01   2.0698E-04  0.0176
   1.3095E-01   1.3414E-01   2.0853E-04  0.0174
   1.3414E-01   1.3740E-01   2.0946E-04  0.0171
   1.3740E-01   1.4074E-01   2.0945E-04  0.0169
   1.4074E-01   1.4417E-01   2.1090E-04  0.0166
   1.4417E-01   1.4767E-01   2.1011E-04  0.0165
   1.4767E-01   1.5127E-01   2.1035E-04  0.0163
   1.5127E-01   1.5495E-01   2.1764E-04  0.0158
   1.5495E-01   1.5872E-01   2.1841E-04  0.0156
   1.5872E-01   1.6258E-01   2.1892E-04  0.0154
   1.6258E-01   1.6654E-01   2.2155E-04  0.0151
   1.6654E-01   1.7059E-01   2.2493E-04  0.0148
   1.7059E-01   1.7474E-01   2.2368E-04  0.0147
   1.7474E-01   1.7899E-01   2.2627E-04  0.0144
   1.7899E-01   1.8334E-01   2.3151E-04  0.0141
   1.8334E-01   1.8781E-01   2.2641E-04  0.0141
   1.8781E-01   1.9237E-01   2.2742E-04  0.0139
   1.9237E-01   1.9706E-01   2.2796E-04  0.0137
   1.9706E-01   2.0185E-01   2.2964E-04  0.0135
   2.0185E-01   2.0676E-01   2.3062E-04  0.0133
   2.0676E-01   2.1179E-01   2.3106E-04  0.0131
   2.1179E-01   2.1694E-01   2.3570E-04  0.0128
   2.1694E-01   2.2222E-01   2.3393E-04  0.0127
   2.2222E-01   2.2763E-01   2.3640E-04  0.0125
   2.2763E-01   2.3317E-01   2.3404E-04  0.0124
   2.3317E-01   2.3884E-01   2.3299E-04  0.0123
   2.3884E-01   2.4465E-01   2.3434E-04  0.0121
   2.4465E-01   2.5061E-01   2.4060E-04  0.0118
   2.5061E-01   2.5670E-01   2.3846E-04  0.0117
   2.5670E-01   2.6295E-01   2.3824E-04  0.0116
   2.6295E-01   2.6935E-01   2.3718E-04  0.0115
   2.6935E-01   2.7590E-01   2.4003E-04  0.0113
   2.7590E-01   2.8261E-01   2.3936E-04  0.0112
   2.8261E-01   2.8949E-01   2.4066E-04  0.0110
   2.8949E-01   2.9653E-01   2.3426E-04  0.0110
   2.9653E-01   3.0375E-01   2.3881E-04  0.0108
   3.0375E-01   3.1114E-01   2.3433E-04  0.0107
   3.1114E-01   3.1871E-01   2.3577E-04  0.0106
   3.1871E-01   3.2646E-01   2.3525E-04  0.0105
   3.2646E-01   3.3441E-01   2.3165E-04  0.0104
   3.3441E-01   3.4254E-01   2.3605E-04  0.0102
   3.4254E-01   3.5088E-01   2.3524E-04  0.0101
   3.5088E-01   3.5941E-01   2.3228E-04  0.0100
   3.5941E-01   3.6816E-01   2.3029E-04  0.0100
   3.6816E-01   3.7712E-01   2.3178E-04  0.0098
   3.7712E-01   3.8629E-01   2.3035E-04  0.0097
   3.8629E-01   3.9569E-01   2.2492E-04  0.0097
   3.9569E-01   4.0532E-01   2.2654E-04  0.0096
   4.0532E-01   4.1518E-01   2.2392E-04  0.0095
   4.1518E-01   4.2528E-01   2.2626E-04  0.0094
   4.2528E-01   4.3563E-01   2.2524E-04  0.0093
   4.3563E-01   4.4623E-01   2.1938E-04  0.0093
   4.4623E-01   4.5708E-01   2.2078E-04  0.0091
   4.5708E-01   4.6821E-01   2.1226E-04  0.0092
   4.6821E-01   4.7960E-01   2.1024E-04  0.0091
   4.7960E-01   4.9127E-01   2.0970E-04  0.0090
   4.9127E-01   5.0322E-01   2.0823E-04  0.0090
   5.0322E-01   5.1546E-01   2.0536E-04  0.0089
   5.1546E-01   5.2800E-01   2.0181E-04  0.0089
   5.2800E-01   5.4085E-01   2.0010E-04  0.0088
   5.4085E-01   5.5401E-01   1.9542E-04  0.0088
   5.5401E-01   5.6749E-01   1.9106E-04  0.0088
   5.6749E-01   5.8130E-01   1.8735E-04  0.0088
   5.8130E-01   5.9544E-01   1.8645E-04  0.0087
   5.9544E-01   6.0993E-01   1.7951E-04  0.0088
   6.0993E-01   6.2477E-01   1.7630E-04  0.0087
   6.2477E-01   6.3997E-01   1.7286E-04  0.0087
   6.3997E-01   6.5554E-01   1.6921E-04  0.0087
   6.5554E-01   6.7149E-01   1.6327E-04  0.0088
   6.7149E-01   6.8783E-01   1.6210E-04  0.0087
   6.8783E-01   7.0456E-01   1.5376E-04  0.0088
   7.0456E-01   7.2171E-01   1.4913E-04  0.0088
   7.2171E-01   7.3927E-01   1.4353E-04  0.0089
   7.3927E-01   7.5725E-01   1.4029E-04  0.0089
   7.5725E-01   7.7568E-01   1.3217E-04  0.0091
   7.7568E-01   7.9455E-01   1.3106E-04  0.0090
   7.9455E-01   8.1388E-01   1.2269E-04  0.0092
   8.1388E-01   8.3368E-01   1.2020E-04  0.0092
   8.3368E-01   8.5397E-01   1.1530E-04  0.0092
   8.5397E-01   8.7475E-01   1.0762E-04  0.0095
   8.7475E-01   8.9603E-01   1.0339E-04  0.0095
   8.9603E-01   9.1783E-01   9.5078E-05  0.0098
   9.1783E-01   9.4016E-01   8.9452E-05  0.0100
   9.4016E-01   9.6304E-01   8.5063E-05  0.0101
   9.6304E-01   9.8647E-01   8.0977E-05  0.0103
   9.8647E-01   1.0105E+00   7.5862E-05  0.0105
   1.0105E+00   1.0351E+00   7.5679E-05  0.0104
   1.0351E+00   1.0602E+00   7.5755E-05  0.0102
   1.0602E+00   1.0860E+00   7.4305E-05  0.0102
   1.0860E+00   1.1125E+00   7.6990E-05  0.0099
   1.1125E+00   1.1395E+00   7.7973E-05  0.0097
   1.1395E+00   1.1673E+00   7.7661E-05  0.0096
   1.1673E+00   1.1957E+00   7.9591E-05  0.0094
   1.1957E+00   1.2247E+00   7.9172E-05  0.0093
   1.2247E+00   1.2545E+00   7.9070E-05  0.0092
   1.2545E+00   1.2851E+00   7.9393E-05  0.0091
   1.2851E+00   1.3163E+00   7.8585E-05  0.0090
   1.3163E+00   1.3484E+00   7.9007E-05  0.0089
   1.3484E+00   1.3812E+00   7.8094E-05  0.0088
   1.3812E+00   1.4148E+00   7.8590E-05  0.0087
   1.4148E+00   1.4492E+00   7.7275E-05  0.0087
   1.4492E+00   1.4845E+00   7.4991E-05  0.0087
   1.4845E+00   1.5206E+00   7.3492E-05  0.0087
   1.5206E+00   1.5576E+00   7.2374E-05  0.0086
   1.5576E+00   1.5955E+00   7.0953E-05  0.0086
   1.5955E+00   1.6343E+00   6.9775E-05  0.0086
   1.6343E+00   1.6741E+00   7.0990E-05  0.0084
   1.6741E+00   1.7148E+00   6.9804E-05  0.0084
   1.7148E+00   1.7565E+00   6.7566E-05  0.0084
   1.7565E+00   1.7992E+00   6.4951E-05  0.0085
   1.7992E+00   1.8430E+00   6.4057E-05  0.0084
   1.8430E+00   1.8879E+00   6.2343E-05  0.0085
   1.8879E+00   1.9338E+00   6.0801E-05  0.0085
   1.9338E+00   1.9808E+00   5.8866E-05  0.0085
   1.9808E+00   2.0290E+00   5.7981E-05  0.0085
   2.0290E+00   2.0784E+00   5.6656E-05  0.0085
   2.0784E+00   2.1290E+00   5.4832E-05  0.0085
   2.1290E+00   2.1808E+00   5.2265E-05  0.0086
   2.1808E+00   2.2338E+00   5.0392E-05  0.0086
   2.2338E+00   2.2882E+00   4.8930E-05  0.0087
   2.2882E+00   2.3439E+00   4.7340E-05  0.0087
   2.3439E+00   2.4009E+00   4.5644E-05  0.0088
   2.4009E+00   2.4593E+00   4.5241E-05  0.0087
   2.4593E+00   2.5191E+00   4.3341E-05  0.0088
   2.5191E+00   2.5804E+00   4.1065E-05  0.0089
   2.5804E+00   2.6432E+00   3.9373E-05  0.0090
   2.6432E+00   2.7075E+00   3.7477E-05  0.0091
   2.7075E+00   2.7734E+00   3.6347E-05  0.0091
   2.7734E+00   2.8409E+00   3.4903E-05  0.0092
   2.8409E+00   2.9100E+00   3.3857E-05  0.0092
   2.9100E+00   2.9808E+00   3.2906E-05  0.0093
   2.9808E+00   3.0533E+00   3.0596E-05  0.0095
   3.0533E+00   3.1276E+00   2.9961E-05  0.0095
   3.1276E+00   3.2037E+00   2.8243E-05  0.0096
   3.2037E+00   3.2817E+00   2.7000E-05  0.0097
   3.2817E+00   3.3615E+00   2.5850E-05  0.0098
   3.3615E+00   3.4433E+00   2.4282E-05  0.0100
   3.4433E+00   3.5271E+00   2.3818E-05  0.0100
   3.5271E+00   3.6129E+00   2.2473E-05  0.0102
   3.6129E+00   3.7008E+00   2.1999E-05  0.0102
   3.7008E+00   3.7908E+00   2.0797E-05  0.0103
   3.7908E+00   3.8831E+00   1.9739E-05  0.0105
   3.8831E+00   3.9776E+00   1.8825E-05  0.0106
   3.9776E+00   4.0743E+00   1.7948E-05  0.0107
   4.0743E+00   4.1735E+00   1.7458E-05  0.0108
   4.1735E+00   4.2750E+00   1.6058E-05  0.0111
   4.2750E+00   4.3790E+00   1.6098E-05  0.0109
   4.3790E+00   4.4856E+00   1.5092E-05  0.0112
   4.4856E+00   4.5947E+00   1.4499E-05  0.0112
   4.5947E+00   4.7065E+00   1.4105E-05  0.0113
   4.7065E+00   4.8210E+00   1.3137E-05  0.0115
   4.8210E+00   4.9383E+00   1.2929E-05  0.0115
   4.9383E+00   5.0585E+00   1.2311E-05  0.0116
   5.0585E+00   5.1815E+00   1.1845E-05  0.0117
   5.1815E+00   5.3076E+00   1.1751E-05  0.0116
   5.3076E+00   5.4368E+00   1.1086E-05  0.0118
   5.4368E+00   5.5690E+00   1.0827E-05  0.0118
   5.5690E+00   5.7045E+00   1.0616E-05  0.0118
   5.7045E+00   5.8433E+00   9.9888E-06  0.0120
   5.8433E+00   5.9855E+00   9.7642E-06  0.0120
   5.9855E+00   6.1311E+00   9.3565E-06  0.0121
   6.1311E+00   6.2803E+00   9.3058E-06  0.0120
   6.2803E+00   6.4331E+00   8.9796E-06  0.0121
   6.4331E+00   6.5896E+00   8.8431E-06  0.0120
   6.5896E+00   6.7500E+00   8.5567E-06  0.0121
   6.7500E+00   6.9142E+00   8.4622E-06  0.0120
   6.9142E+00   7.0824E+00   8.1325E-06  0.0121
   7.0824E+00   7.2548E+00   8.0747E-06  0.0120
   7.2548E+00   7.4313E+00   7.9007E-06  0.0120
   7.4313E+00   7.6121E+00   7.7889E-06  0.0119
   7.6121E+00   7.7973E+00   7.6680E-06  0.0119
   7.7973E+00   7.9870E+00   7.4878E-06  0.0119
   7.9870E+00   8.1813E+00   7.2636E-06  0.0119
   8.1813E+00   8.3804E+00   7.2079E-06  0.0118
   8.3804E+00   8.5843E+00   7.3415E-06  0.0116
   8.5843E+00   8.7931E+00   7.1612E-06  0.0116
   8.7931E+00   9.0071E+00   6.9752E-06  0.0116
   9.0071E+00   9.2262E+00   6.8565E-06  0.0115
   9.2262E+00   9.4507E+00   6.5854E-06  0.0116
   9.4507E+00   9.6807E+00   6.5503E-06  0.0115
   9.6807E+00   9.9162E+00   6.5140E-06  0.0114
   9.9162E+00   1.0157E+01   6.3945E-06  0.0114
   1.0157E+01   1.0405E+01   6.2135E-06  0.0114
   1.0405E+01   1.0658E+01   6.1354E-06  0.0113
   1.0658E+01   1.0917E+01   6.0090E-06  0.0113
   1.0917E+01   1.1183E+01   5.9114E-06  0.0113
   1.1183E+01   1.1455E+01   5.7982E-06  0.0113
   1.1455E+01   1.1733E+01   5.6806E-06  0.0112
   1.1733E+01   1.2019E+01   5.4872E-06  0.0113
   1.2019E+01   1.2311E+01   5.4854E-06  0.0112
   1.2311E+01   1.2611E+01   5.2977E-06  0.0112
   1.2611E+01   1.2918E+01   5.0242E-06  0.0114
   1.2918E+01   1.3232E+01   4.9564E-06  0.0113
   1.3232E+01   1.3554E+01   4.8365E-06  0.0113
   1.3554E+01   1.3884E+01   4.7207E-06  0.0113
   1.3884E+01   1.4222E+01   4.5452E-06  0.0114
   1.4222E+01   1.4568E+01   4.4214E-06  0.0114
   1.4568E+01   1.4922E+01   4.2010E-06  0.0116
   1.4922E+01   1.5285E+01   4.0191E-06  0.0117
   1.5285E+01   1.5657E+01   3.9134E-06  0.0117
   1.5657E+01   1.6038E+01   3.8115E-06  0.0117
   1.6038E+01   1.6428E+01   3.5560E-06  0.0120
   1.6428E+01   1.6828E+01   3.3762E-06  0.0122
   1.6828E+01   1.7237E+01   3.2957E-06  0.0122
   1.7237E+01   1.7657E+01   3.0346E-06  0.0125
   1.7657E+01   1.8086E+01   2.8717E-06  0.0127
   1.8086E+01   1.8526E+01   2.7319E-06  0.0129
   1.8526E+01   1.8977E+01   2.5168E-06  0.0133
   1.8977E+01   1.9439E+01   2.3681E-06  0.0135
   1.9439E+01   1.9912E+01   2.2169E-06  0.0138
   1.9912E+01   2.0396E+01   2.2121E-06  0.0137
   2.0396E+01   2.0893E+01   2.0493E-06  0.0140
   2.0893E+01   2.1401E+01   1.9534E-06  0.0142
   2.1401E+01   2.1922E+01   1.7665E-06  0.0147
   2.1922E+01   2.2455E+01   1.6124E-06  0.0152
   2.2455E+01   2.3001E+01   1.3867E-06  0.0162
   2.3001E+01   2.3561E+01   1.2254E-06  0.0171
   2.3561E+01   2.4134E+01   1.0686E-06  0.0181
   2.4134E+01   2.4721E+01   9.8126E-07  0.0186
   2.4721E+01   2.5323E+01   8.3758E-07  0.0199
   2.5323E+01   2.5939E+01   7.2550E-07  0.0212
   2.5939E+01   2.6570E+01   6.1383E-07  0.0227
   2.6570E+01   2.7217E+01   4.6034E-07  0.0259
   2.7217E+01   2.7879E+01   3.9837E-07  0.0275
   2.7879E+01   2.8557E+01   3.1460E-07  0.0306
   2.8557E+01   2.9252E+01   2.4582E-07  0.0342
   2.9252E+01   2.9964E+01   1.6467E-07  0.0413
   2.9964E+01   3.0693E+01   1.3031E-07  0.0459
   3.0693E+01   3.1440E+01   6.6419E-08  0.0635
   3.1440E+01   3.2205E+01   4.8892E-08  0.0731
   3.2205E+01   3.2988E+01   1.1486E-08  0.1491
   3.2988E+01   3.3791E+01   2.4918E-09  0.3162
   3.3791E+01   3.4613E+01   0.0000E+00  0.0000
   3.4613E+01   3.5455E+01   0.0000E+00  0.0000
   3.5455E+01   3.6318E+01   0.0000E+00  0.0000
   3.6318E+01   3.7201E+01   0.0000E+00  0.0000
   3.7201E+01   3.8106E+01   0.0000E+00  0.0000
   3.8106E+01   3.9034E+01   0.0000E+00  0.0000
   3.9034E+01   3.9983E+01   0.0000E+00  0.0000
   3.9983E+01   4.0956E+01   0.0000E+00  0.0000
   4.0956E+01   4.1953E+01   0.0000E+00  0.0000
   4.1953E+01   4.2973E+01   0.0000E+00  0.0000
   4.2973E+01   4.4019E+01   0.0000E+00  0.0000
   4.4019E+01   4.5090E+01   0.0000E+00  0.0000
   4.5090E+01   4.6187E+01   0.0000E+00  0.0000
   4.6187E+01   4.7311E+01   0.0000E+00  0.0000
   4.7311E+01   4.8462E+01   0.0000E+00  0.0000
   4.8462E+01   4.9641E+01   0.0000E+00  0.0000
   4.9641E+01   5.0849E+01   0.0000E+00  0.0000
   5.0849E+01   5.2086E+01   0.0000E+00  0.0000
   5.2086E+01   5.3353E+01   0.0000E+00  0.0000
   5.3353E+01   5.4651E+01   0.0000E+00  0.0000
   5.4651E+01   5.5981E+01   0.0000E+00  0.0000
   5.5981E+01   5.7343E+01   0.0000E+00  0.0000
   5.7343E+01   5.8738E+01   0.0000E+00  0.0000
   5.8738E+01   6.0168E+01   0.0000E+00  0.0000
   6.0168E+01   6.1632E+01   0.0000E+00  0.0000
   6.1632E+01   6.3131E+01   0.0000E+00  0.0000
   6.3131E+01   6.4667E+01   0.0000E+00  0.0000
   6.4667E+01   6.6240E+01   0.0000E+00  0.0000
   6.6240E+01   6.7852E+01   0.0000E+00  0.0000
   6.7852E+01   6.9503E+01   0.0000E+00  0.0000
   6.9503E+01   7.1194E+01   0.0000E+00  0.0000
   7.1194E+01   7.2926E+01   0.0000E+00  0.0000
   7.2926E+01   7.4701E+01   0.0000E+00  0.0000
   7.4701E+01   7.6518E+01   0.0000E+00  0.0000
   7.6518E+01   7.8380E+01   0.0000E+00  0.0000
   7.8380E+01   8.0287E+01   0.0000E+00  0.0000
   8.0287E+01   8.2240E+01   0.0000E+00  0.0000
   8.2240E+01   8.4241E+01   0.0000E+00  0.0000
   8.4241E+01   8.6291E+01   0.0000E+00  0.0000
   8.6291E+01   8.8391E+01   0.0000E+00  0.0000
   8.8391E+01   9.0541E+01   0.0000E+00  0.0000
   9.0541E+01   9.2744E+01   0.0000E+00  0.0000
   9.2744E+01   9.5001E+01   0.0000E+00  0.0000
   9.5001E+01   9.7312E+01   0.0000E+00  0.0000
   9.7312E+01   9.9680E+01   0.0000E+00  0.0000
   9.9680E+01   1.0211E+02   0.0000E+00  0.0000
   1.0211E+02   1.0459E+02   0.0000E+00  0.0000
   1.0459E+02   1.0713E+02   0.0000E+00  0.0000
   1.0713E+02   1.0974E+02   0.0000E+00  0.0000
   1.0974E+02   1.1241E+02   0.0000E+00  0.0000
   1.1241E+02   1.1515E+02   0.0000E+00  0.0000
   1.1515E+02   1.1795E+02   0.0000E+00  0.0000
   1.1795E+02   1.2082E+02   0.0000E+00  0.0000
   1.2082E+02   1.2376E+02   0.0000E+00  0.0000
   1.2376E+02   1.2677E+02   0.0000E+00  0.0000
   1.2677E+02   1.2985E+02   0.0000E+00  0.0000
   1.2985E+02   1.3301E+02   0.0000E+00  0.0000
   1.3301E+02   1.3625E+02   0.0000E+00  0.0000
   1.3625E+02   1.3956E+02   0.0000E+00  0.0000
   1.3956E+02   1.4296E+02   0.0000E+00  0.0000
   1.4296E+02   1.4644E+02   0.0000E+00  0.0000
   1.4644E+02   1.5000E+02   0.0000E+00  0.0000

#   sum over                 2.7947E-06
'no. =    1   reg = 112 - 212'
msuc: {\huge [t-cross] in region mesh}
msdr: {\it plotted by \ANGEL \version}
msdl: {\it calculated by \PHITS  3.26}
wt: s(0.7)
\vspace{-3}
  region surface crossing
  area  &=&   1.0000E+00 [cm^2]
e:
 
# Information for Restart Calculation
# This calculation was newly started
# istdev =  2 # 1:Batch variance, 2:History variance
# resc2  = 5.00000000000000000E+09 # Total source weight or Total source weight / maxcas
# resc3  = 5.00000000000000000E+09 # Total history number or Total batch number
# maxcas =   100000000 # History / Batch, only used for istdev=1
# bitrseed = 0110100000100010111000001110001111001110100100011111101000111001 # bit data of rseed
