[ T-Cross ]
    title = [t-cross] in region mesh
     mesh =  reg            # mesh type is region-wise
      reg =    1            # number of crossing regions
      non     r-from    r-to       area
      1       111       211        1.000000    
   e-type =    3            # e-mesh is log given by emin, emax and ne
     emin =  1.0000000E-02  # minimum value of e-mesh points
     emax =   150.0000      # maximum value of e-mesh points
#    edel =  2.4039514E-02  # mesh width of e-mesh points
       ne =    400          # number of e-mesh points
#    data = ( e(i), i = 1, ne + 1 )
#           1.00000E-02  1.02433E-02  1.04925E-02  1.07478E-02  1.10093E-02
#           1.12772E-02  1.15516E-02  1.18326E-02  1.21205E-02  1.24154E-02
#           1.27175E-02  1.30269E-02  1.33439E-02  1.36686E-02  1.40011E-02
#           1.43418E-02  1.46907E-02  1.50482E-02  1.54143E-02  1.57894E-02
#           1.61735E-02  1.65670E-02  1.69701E-02  1.73830E-02  1.78060E-02
#           1.82392E-02  1.86830E-02  1.91375E-02  1.96032E-02  2.00801E-02
#           2.05687E-02  2.10692E-02  2.15818E-02  2.21069E-02  2.26448E-02
#           2.31957E-02  2.37601E-02  2.43382E-02  2.49304E-02  2.55369E-02
#           2.61583E-02  2.67947E-02  2.74467E-02  2.81145E-02  2.87985E-02
#           2.94992E-02  3.02169E-02  3.09521E-02  3.17052E-02  3.24766E-02
#           3.32668E-02  3.40762E-02  3.49053E-02  3.57546E-02  3.66246E-02
#           3.75157E-02  3.84284E-02  3.93634E-02  4.03212E-02  4.13022E-02
#           4.23071E-02  4.33365E-02  4.43909E-02  4.54710E-02  4.65773E-02
#           4.77106E-02  4.88714E-02  5.00605E-02  5.12785E-02  5.25262E-02
#           5.38042E-02  5.51133E-02  5.64542E-02  5.78278E-02  5.92348E-02
#           6.06760E-02  6.21523E-02  6.36645E-02  6.52135E-02  6.68002E-02
#           6.84255E-02  7.00904E-02  7.17957E-02  7.35426E-02  7.53319E-02
#           7.71648E-02  7.90423E-02  8.09655E-02  8.29354E-02  8.49533E-02
#           8.70203E-02  8.91376E-02  9.13064E-02  9.35279E-02  9.58035E-02
#           9.81345E-02  1.00522E-01  1.02968E-01  1.05473E-01  1.08040E-01
#           1.10668E-01  1.13361E-01  1.16119E-01  1.18944E-01  1.21838E-01
#           1.24803E-01  1.27839E-01  1.30950E-01  1.34136E-01  1.37399E-01
#           1.40742E-01  1.44167E-01  1.47675E-01  1.51268E-01  1.54948E-01
#           1.58718E-01  1.62580E-01  1.66535E-01  1.70587E-01  1.74738E-01
#           1.78989E-01  1.83344E-01  1.87805E-01  1.92375E-01  1.97055E-01
#           2.01850E-01  2.06761E-01  2.11792E-01  2.16945E-01  2.22223E-01
#           2.27630E-01  2.33169E-01  2.38842E-01  2.44653E-01  2.50605E-01
#           2.56703E-01  2.62949E-01  2.69346E-01  2.75900E-01  2.82613E-01
#           2.89489E-01  2.96532E-01  3.03747E-01  3.11138E-01  3.18708E-01
#           3.26462E-01  3.34405E-01  3.42542E-01  3.50876E-01  3.59413E-01
#           3.68158E-01  3.77116E-01  3.86291E-01  3.95690E-01  4.05317E-01
#           4.15179E-01  4.25281E-01  4.35628E-01  4.46227E-01  4.57084E-01
#           4.68205E-01  4.79597E-01  4.91266E-01  5.03219E-01  5.15463E-01
#           5.28005E-01  5.40851E-01  5.54011E-01  5.67490E-01  5.81298E-01
#           5.95441E-01  6.09929E-01  6.24769E-01  6.39970E-01  6.55541E-01
#           6.71491E-01  6.87828E-01  7.04564E-01  7.21706E-01  7.39266E-01
#           7.57253E-01  7.75678E-01  7.94551E-01  8.13883E-01  8.33685E-01
#           8.53969E-01  8.74747E-01  8.96030E-01  9.17831E-01  9.40163E-01
#           9.63038E-01  9.86469E-01  1.01047E+00  1.03506E+00  1.06024E+00
#           1.08604E+00  1.11246E+00  1.13953E+00  1.16725E+00  1.19565E+00
#           1.22474E+00  1.25454E+00  1.28507E+00  1.31633E+00  1.34836E+00
#           1.38117E+00  1.41477E+00  1.44920E+00  1.48446E+00  1.52057E+00
#           1.55757E+00  1.59547E+00  1.63429E+00  1.67405E+00  1.71478E+00
#           1.75650E+00  1.79924E+00  1.84302E+00  1.88786E+00  1.93379E+00
#           1.98084E+00  2.02904E+00  2.07841E+00  2.12898E+00  2.18078E+00
#           2.23384E+00  2.28819E+00  2.34386E+00  2.40089E+00  2.45930E+00
#           2.51914E+00  2.58043E+00  2.64322E+00  2.70753E+00  2.77341E+00
#           2.84088E+00  2.91001E+00  2.98081E+00  3.05333E+00  3.12762E+00
#           3.20372E+00  3.28167E+00  3.36152E+00  3.44330E+00  3.52708E+00
#           3.61290E+00  3.70080E+00  3.79085E+00  3.88308E+00  3.97756E+00
#           4.07434E+00  4.17347E+00  4.27501E+00  4.37903E+00  4.48557E+00
#           4.59471E+00  4.70650E+00  4.82102E+00  4.93832E+00  5.05847E+00
#           5.18155E+00  5.30762E+00  5.43676E+00  5.56904E+00  5.70453E+00
#           5.84333E+00  5.98550E+00  6.13114E+00  6.28031E+00  6.43312E+00
#           6.58964E+00  6.74997E+00  6.91420E+00  7.08243E+00  7.25475E+00
#           7.43126E+00  7.61207E+00  7.79728E+00  7.98700E+00  8.18133E+00
#           8.38038E+00  8.58428E+00  8.79315E+00  9.00709E+00  9.22624E+00
#           9.45072E+00  9.68067E+00  9.91620E+00  1.01575E+01  1.04046E+01
#           1.06578E+01  1.09171E+01  1.11827E+01  1.14548E+01  1.17335E+01
#           1.20190E+01  1.23114E+01  1.26109E+01  1.29178E+01  1.32321E+01
#           1.35540E+01  1.38838E+01  1.42216E+01  1.45676E+01  1.49221E+01
#           1.52851E+01  1.56570E+01  1.60380E+01  1.64282E+01  1.68279E+01
#           1.72374E+01  1.76568E+01  1.80864E+01  1.85264E+01  1.89772E+01
#           1.94389E+01  1.99119E+01  2.03963E+01  2.08926E+01  2.14009E+01
#           2.19216E+01  2.24550E+01  2.30014E+01  2.35610E+01  2.41343E+01
#           2.47215E+01  2.53230E+01  2.59391E+01  2.65702E+01  2.72167E+01
#           2.78789E+01  2.85572E+01  2.92520E+01  2.99637E+01  3.06928E+01
#           3.14396E+01  3.22045E+01  3.29881E+01  3.37907E+01  3.46128E+01
#           3.54550E+01  3.63177E+01  3.72013E+01  3.81064E+01  3.90336E+01
#           3.99833E+01  4.09561E+01  4.19526E+01  4.29734E+01  4.40189E+01
#           4.50900E+01  4.61870E+01  4.73108E+01  4.84619E+01  4.96410E+01
#           5.08488E+01  5.20860E+01  5.33533E+01  5.46514E+01  5.59812E+01
#           5.73432E+01  5.87384E+01  6.01676E+01  6.16315E+01  6.31311E+01
#           6.46671E+01  6.62405E+01  6.78522E+01  6.95031E+01  7.11941E+01
#           7.29263E+01  7.47007E+01  7.65182E+01  7.83800E+01  8.02870E+01
#           8.22405E+01  8.42414E+01  8.62911E+01  8.83906E+01  9.05412E+01
#           9.27442E+01  9.50007E+01  9.73122E+01  9.96799E+01  1.02105E+02
#           1.04589E+02  1.07134E+02  1.09741E+02  1.12411E+02  1.15146E+02
#           1.17948E+02  1.20817E+02  1.23757E+02  1.26768E+02  1.29852E+02
#           1.33012E+02  1.36248E+02  1.39563E+02  1.42959E+02  1.46437E+02
#           1.50000E+02
     unit =    2            # unit is [1/cm^2/(MeV/n)/source]
     axis =  eng            # axis of output
     file = detector-12.out  # file name of output for the above axis
   output = f-curr          # surface crossing forward current spectrum
     part =  neutron  
# kf/name :  2112     
#    used :        main (  %)        temp (  %)       total (  %)
#  memory :         414 (  0)           0 (  0)         414 (  0)

#------------------------------------------------------------------------------
#newpage:
#   no. =    1   reg = 111 - 211

x: Energy [MeV/n]
y:  F-Curr [1/cm^2/(MeV/n)/source]         
p: xlog ylog afac(0.8) form(0.9)
h: n            x            y(neutron ),hh0l   n 
#  e-lower      e-upper      neutron     r.err 
   1.0000E-02   1.0243E-02   8.3367E-03  0.0099
   1.0243E-02   1.0493E-02   8.0924E-03  0.0099
   1.0493E-02   1.0748E-02   7.9094E-03  0.0099
   1.0748E-02   1.1009E-02   7.6911E-03  0.0099
   1.1009E-02   1.1277E-02   7.6018E-03  0.0099
   1.1277E-02   1.1552E-02   7.3498E-03  0.0099
   1.1552E-02   1.1833E-02   7.1599E-03  0.0099
   1.1833E-02   1.2121E-02   6.9223E-03  0.0100
   1.2121E-02   1.2415E-02   6.7369E-03  0.0100
   1.2415E-02   1.2718E-02   6.7265E-03  0.0099
   1.2718E-02   1.3027E-02   6.3569E-03  0.0101
   1.3027E-02   1.3344E-02   6.3806E-03  0.0099
   1.3344E-02   1.3669E-02   6.1406E-03  0.0100
   1.3669E-02   1.4001E-02   5.9763E-03  0.0100
   1.4001E-02   1.4342E-02   5.8171E-03  0.0100
   1.4342E-02   1.4691E-02   5.6263E-03  0.0101
   1.4691E-02   1.5048E-02   5.5068E-03  0.0101
   1.5048E-02   1.5414E-02   5.3805E-03  0.0100
   1.5414E-02   1.5789E-02   5.2842E-03  0.0100
   1.5789E-02   1.6174E-02   5.1230E-03  0.0100
   1.6174E-02   1.6567E-02   4.9517E-03  0.0101
   1.6567E-02   1.6970E-02   4.8183E-03  0.0101
   1.6970E-02   1.7383E-02   4.7087E-03  0.0101
   1.7383E-02   1.7806E-02   4.6029E-03  0.0101
   1.7806E-02   1.8239E-02   4.4817E-03  0.0101
   1.8239E-02   1.8683E-02   4.3792E-03  0.0101
   1.8683E-02   1.9138E-02   4.2368E-03  0.0102
   1.9138E-02   1.9603E-02   4.1964E-03  0.0101
   1.9603E-02   2.0080E-02   4.0149E-03  0.0102
   2.0080E-02   2.0569E-02   3.9297E-03  0.0102
   2.0569E-02   2.1069E-02   3.8347E-03  0.0102
   2.1069E-02   2.1582E-02   3.8128E-03  0.0101
   2.1582E-02   2.2107E-02   3.6817E-03  0.0101
   2.2107E-02   2.2645E-02   3.5040E-03  0.0103
   2.2645E-02   2.3196E-02   3.4917E-03  0.0102
   2.3196E-02   2.3760E-02   3.4033E-03  0.0102
   2.3760E-02   2.4338E-02   3.2980E-03  0.0102
   2.4338E-02   2.4930E-02   3.2087E-03  0.0102
   2.4930E-02   2.5537E-02   3.1509E-03  0.0102
   2.5537E-02   2.6158E-02   3.0255E-03  0.0103
   2.6158E-02   2.6795E-02   2.9130E-03  0.0103
   2.6795E-02   2.7447E-02   2.9800E-03  0.0101
   2.7447E-02   2.8114E-02   2.8125E-03  0.0103
   2.8114E-02   2.8799E-02   2.7433E-03  0.0103
   2.8799E-02   2.9499E-02   2.6980E-03  0.0102
   2.9499E-02   3.0217E-02   2.6135E-03  0.0103
   3.0217E-02   3.0952E-02   2.5365E-03  0.0103
   3.0952E-02   3.1705E-02   2.4756E-03  0.0103
   3.1705E-02   3.2477E-02   2.4105E-03  0.0103
   3.2477E-02   3.3267E-02   2.3747E-03  0.0103
   3.3267E-02   3.4076E-02   2.3223E-03  0.0103
   3.4076E-02   3.4905E-02   2.3073E-03  0.0102
   3.4905E-02   3.5755E-02   2.1903E-03  0.0103
   3.5755E-02   3.6625E-02   2.1068E-03  0.0104
   3.6625E-02   3.7516E-02   2.0903E-03  0.0103
   3.7516E-02   3.8428E-02   2.0198E-03  0.0104
   3.8428E-02   3.9363E-02   2.0123E-03  0.0103
   3.9363E-02   4.0321E-02   1.9887E-03  0.0102
   4.0321E-02   4.1302E-02   1.8930E-03  0.0103
   4.1302E-02   4.2307E-02   1.8354E-03  0.0104
   4.2307E-02   4.3337E-02   1.7972E-03  0.0104
   4.3337E-02   4.4391E-02   1.7676E-03  0.0103
   4.4391E-02   4.5471E-02   1.6913E-03  0.0104
   4.5471E-02   4.6577E-02   1.6851E-03  0.0103
   4.6577E-02   4.7711E-02   1.6149E-03  0.0104
   4.7711E-02   4.8871E-02   1.5974E-03  0.0103
   4.8871E-02   5.0061E-02   1.5385E-03  0.0104
   5.0061E-02   5.1279E-02   1.5119E-03  0.0104
   5.1279E-02   5.2526E-02   1.4727E-03  0.0104
   5.2526E-02   5.3804E-02   1.4623E-03  0.0103
   5.3804E-02   5.5113E-02   1.4075E-03  0.0104
   5.5113E-02   5.6454E-02   1.3732E-03  0.0104
   5.6454E-02   5.7828E-02   1.3464E-03  0.0104
   5.7828E-02   5.9235E-02   1.2805E-03  0.0105
   5.9235E-02   6.0676E-02   1.2583E-03  0.0105
   6.0676E-02   6.2152E-02   1.2387E-03  0.0104
   6.2152E-02   6.3665E-02   1.2235E-03  0.0104
   6.3665E-02   6.5214E-02   1.1895E-03  0.0104
   6.5214E-02   6.6800E-02   1.1499E-03  0.0104
   6.6800E-02   6.8426E-02   1.1509E-03  0.0103
   6.8426E-02   7.0090E-02   1.0948E-03  0.0104
   7.0090E-02   7.1796E-02   1.0782E-03  0.0104
   7.1796E-02   7.3543E-02   1.0587E-03  0.0104
   7.3543E-02   7.5332E-02   1.0310E-03  0.0104
   7.5332E-02   7.7165E-02   1.0161E-03  0.0103
   7.7165E-02   7.9042E-02   9.9810E-04  0.0103
   7.9042E-02   8.0965E-02   9.6547E-04  0.0103
   8.0965E-02   8.2935E-02   9.4607E-04  0.0103
   8.2935E-02   8.4953E-02   9.2873E-04  0.0103
   8.4953E-02   8.7020E-02   8.8501E-04  0.0104
   8.7020E-02   8.9138E-02   8.7464E-04  0.0104
   8.9138E-02   9.1306E-02   8.5842E-04  0.0103
   9.1306E-02   9.3528E-02   8.4305E-04  0.0103
   9.3528E-02   9.5804E-02   8.0203E-04  0.0104
   9.5804E-02   9.8134E-02   8.0467E-04  0.0103
   9.8134E-02   1.0052E-01   7.8159E-04  0.0103
   1.0052E-01   1.0297E-01   7.7682E-04  0.0102
   1.0297E-01   1.0547E-01   7.6949E-04  0.0101
   1.0547E-01   1.0804E-01   7.2719E-04  0.0103
   1.0804E-01   1.1067E-01   7.1829E-04  0.0102
   1.1067E-01   1.1336E-01   7.0741E-04  0.0102
   1.1336E-01   1.1612E-01   6.8686E-04  0.0102
   1.1612E-01   1.1894E-01   6.9507E-04  0.0100
   1.1894E-01   1.2184E-01   6.6907E-04  0.0101
   1.2184E-01   1.2480E-01   6.4591E-04  0.0102
   1.2480E-01   1.2784E-01   6.3539E-04  0.0101
   1.2784E-01   1.3095E-01   6.2413E-04  0.0101
   1.3095E-01   1.3414E-01   6.0869E-04  0.0101
   1.3414E-01   1.3740E-01   5.9669E-04  0.0101
   1.3740E-01   1.4074E-01   5.8312E-04  0.0101
   1.4074E-01   1.4417E-01   5.6937E-04  0.0101
   1.4417E-01   1.4767E-01   5.6498E-04  0.0100
   1.4767E-01   1.5127E-01   5.5264E-04  0.0100
   1.5127E-01   1.5495E-01   5.4148E-04  0.0100
   1.5495E-01   1.5872E-01   5.4107E-04  0.0099
   1.5872E-01   1.6258E-01   5.3126E-04  0.0098
   1.6258E-01   1.6654E-01   5.1125E-04  0.0099
   1.6654E-01   1.7059E-01   5.1053E-04  0.0098
   1.7059E-01   1.7474E-01   5.0234E-04  0.0098
   1.7474E-01   1.7899E-01   4.8990E-04  0.0098
   1.7899E-01   1.8334E-01   4.8163E-04  0.0097
   1.8334E-01   1.8781E-01   4.7142E-04  0.0097
   1.8781E-01   1.9237E-01   4.7603E-04  0.0096
   1.9237E-01   1.9706E-01   4.6915E-04  0.0095
   1.9706E-01   2.0185E-01   4.6931E-04  0.0094
   2.0185E-01   2.0676E-01   4.7712E-04  0.0092
   2.0676E-01   2.1179E-01   4.9516E-04  0.0089
   2.1179E-01   2.1694E-01   5.1759E-04  0.0086
   2.1694E-01   2.2222E-01   5.4157E-04  0.0083
   2.2222E-01   2.2763E-01   5.6457E-04  0.0081
   2.2763E-01   2.3317E-01   5.8674E-04  0.0078
   2.3317E-01   2.3884E-01   6.0802E-04  0.0076
   2.3884E-01   2.4465E-01   6.3530E-04  0.0073
   2.4465E-01   2.5061E-01   6.5829E-04  0.0071
   2.5061E-01   2.5670E-01   6.8499E-04  0.0069
   2.5670E-01   2.6295E-01   7.1383E-04  0.0067
   2.6295E-01   2.6935E-01   7.3723E-04  0.0065
   2.6935E-01   2.7590E-01   7.7229E-04  0.0063
   2.7590E-01   2.8261E-01   8.0793E-04  0.0060
   2.8261E-01   2.8949E-01   8.2570E-04  0.0059
   2.8949E-01   2.9653E-01   8.6121E-04  0.0057
   2.9653E-01   3.0375E-01   8.9063E-04  0.0056
   3.0375E-01   3.1114E-01   9.0922E-04  0.0054
   3.1114E-01   3.1871E-01   9.5513E-04  0.0052
   3.1871E-01   3.2646E-01   9.8605E-04  0.0051
   3.2646E-01   3.3441E-01   1.0292E-03  0.0049
   3.3441E-01   3.4254E-01   1.0558E-03  0.0048
   3.4254E-01   3.5088E-01   1.0915E-03  0.0047
   3.5088E-01   3.5941E-01   1.1304E-03  0.0045
   3.5941E-01   3.6816E-01   1.1532E-03  0.0044
   3.6816E-01   3.7712E-01   1.2030E-03  0.0043
   3.7712E-01   3.8629E-01   1.2413E-03  0.0042
   3.8629E-01   3.9569E-01   1.2703E-03  0.0041
   3.9569E-01   4.0532E-01   1.3058E-03  0.0040
   4.0532E-01   4.1518E-01   1.3498E-03  0.0039
   4.1518E-01   4.2528E-01   1.3937E-03  0.0038
   4.2528E-01   4.3563E-01   1.4288E-03  0.0037
   4.3563E-01   4.4623E-01   1.4665E-03  0.0036
   4.4623E-01   4.5708E-01   1.5024E-03  0.0035
   4.5708E-01   4.6821E-01   1.5405E-03  0.0034
   4.6821E-01   4.7960E-01   1.5789E-03  0.0033
   4.7960E-01   4.9127E-01   1.6183E-03  0.0032
   4.9127E-01   5.0322E-01   1.6545E-03  0.0032
   5.0322E-01   5.1546E-01   1.6828E-03  0.0031
   5.1546E-01   5.2800E-01   1.7276E-03  0.0030
   5.2800E-01   5.4085E-01   1.7689E-03  0.0030
   5.4085E-01   5.5401E-01   1.7922E-03  0.0029
   5.5401E-01   5.6749E-01   1.8270E-03  0.0028
   5.6749E-01   5.8130E-01   1.8653E-03  0.0028
   5.8130E-01   5.9544E-01   1.8926E-03  0.0027
   5.9544E-01   6.0993E-01   1.9251E-03  0.0027
   6.0993E-01   6.2477E-01   1.9511E-03  0.0026
   6.2477E-01   6.3997E-01   1.9739E-03  0.0026
   6.3997E-01   6.5554E-01   2.0128E-03  0.0025
   6.5554E-01   6.7149E-01   2.0409E-03  0.0025
   6.7149E-01   6.8783E-01   2.0577E-03  0.0024
   6.8783E-01   7.0456E-01   2.0816E-03  0.0024
   7.0456E-01   7.2171E-01   2.1030E-03  0.0023
   7.2171E-01   7.3927E-01   2.1238E-03  0.0023
   7.3927E-01   7.5725E-01   2.1474E-03  0.0023
   7.5725E-01   7.7568E-01   2.1608E-03  0.0022
   7.7568E-01   7.9455E-01   2.1807E-03  0.0022
   7.9455E-01   8.1388E-01   2.1906E-03  0.0022
   8.1388E-01   8.3368E-01   2.1894E-03  0.0021
   8.3368E-01   8.5397E-01   2.2085E-03  0.0021
   8.5397E-01   8.7475E-01   2.2117E-03  0.0021
   8.7475E-01   8.9603E-01   2.2204E-03  0.0020
   8.9603E-01   9.1783E-01   2.2311E-03  0.0020
   9.1783E-01   9.4016E-01   2.2209E-03  0.0020
   9.4016E-01   9.6304E-01   2.2439E-03  0.0020
   9.6304E-01   9.8647E-01   2.2429E-03  0.0019
   9.8647E-01   1.0105E+00   2.2530E-03  0.0019
   1.0105E+00   1.0351E+00   2.2422E-03  0.0019
   1.0351E+00   1.0602E+00   2.2032E-03  0.0019
   1.0602E+00   1.0860E+00   2.1882E-03  0.0019
   1.0860E+00   1.1125E+00   2.1670E-03  0.0019
   1.1125E+00   1.1395E+00   2.1425E-03  0.0018
   1.1395E+00   1.1673E+00   2.1334E-03  0.0018
   1.1673E+00   1.1957E+00   2.1317E-03  0.0018
   1.1957E+00   1.2247E+00   2.1423E-03  0.0018
   1.2247E+00   1.2545E+00   2.1165E-03  0.0018
   1.2545E+00   1.2851E+00   2.0985E-03  0.0018
   1.2851E+00   1.3163E+00   2.0591E-03  0.0018
   1.3163E+00   1.3484E+00   2.0380E-03  0.0017
   1.3484E+00   1.3812E+00   2.0184E-03  0.0017
   1.3812E+00   1.4148E+00   2.0090E-03  0.0017
   1.4148E+00   1.4492E+00   1.9903E-03  0.0017
   1.4492E+00   1.4845E+00   1.9637E-03  0.0017
   1.4845E+00   1.5206E+00   1.9584E-03  0.0017
   1.5206E+00   1.5576E+00   1.9249E-03  0.0017
   1.5576E+00   1.5955E+00   1.8911E-03  0.0017
   1.5955E+00   1.6343E+00   1.8630E-03  0.0017
   1.6343E+00   1.6741E+00   1.8269E-03  0.0017
   1.6741E+00   1.7148E+00   1.7941E-03  0.0016
   1.7148E+00   1.7565E+00   1.7717E-03  0.0016
   1.7565E+00   1.7992E+00   1.7458E-03  0.0016
   1.7992E+00   1.8430E+00   1.7306E-03  0.0016
   1.8430E+00   1.8879E+00   1.7026E-03  0.0016
   1.8879E+00   1.9338E+00   1.6653E-03  0.0016
   1.9338E+00   1.9808E+00   1.6427E-03  0.0016
   1.9808E+00   2.0290E+00   1.6221E-03  0.0016
   2.0290E+00   2.0784E+00   1.5956E-03  0.0016
   2.0784E+00   2.1290E+00   1.5649E-03  0.0016
   2.1290E+00   2.1808E+00   1.5310E-03  0.0016
   2.1808E+00   2.2338E+00   1.5010E-03  0.0016
   2.2338E+00   2.2882E+00   1.4724E-03  0.0016
   2.2882E+00   2.3439E+00   1.4464E-03  0.0016
   2.3439E+00   2.4009E+00   1.4205E-03  0.0016
   2.4009E+00   2.4593E+00   1.4006E-03  0.0016
   2.4593E+00   2.5191E+00   1.3746E-03  0.0015
   2.5191E+00   2.5804E+00   1.3524E-03  0.0015
   2.5804E+00   2.6432E+00   1.3295E-03  0.0015
   2.6432E+00   2.7075E+00   1.2970E-03  0.0015
   2.7075E+00   2.7734E+00   1.2707E-03  0.0015
   2.7734E+00   2.8409E+00   1.2487E-03  0.0015
   2.8409E+00   2.9100E+00   1.2244E-03  0.0015
   2.9100E+00   2.9808E+00   1.2008E-03  0.0015
   2.9808E+00   3.0533E+00   1.1844E-03  0.0015
   3.0533E+00   3.1276E+00   1.1627E-03  0.0015
   3.1276E+00   3.2037E+00   1.1365E-03  0.0015
   3.2037E+00   3.2817E+00   1.1178E-03  0.0015
   3.2817E+00   3.3615E+00   1.0961E-03  0.0015
   3.3615E+00   3.4433E+00   1.0774E-03  0.0015
   3.4433E+00   3.5271E+00   1.0627E-03  0.0015
   3.5271E+00   3.6129E+00   1.0411E-03  0.0015
   3.6129E+00   3.7008E+00   1.0244E-03  0.0015
   3.7008E+00   3.7908E+00   1.0100E-03  0.0015
   3.7908E+00   3.8831E+00   9.9121E-04  0.0015
   3.8831E+00   3.9776E+00   9.7467E-04  0.0015
   3.9776E+00   4.0743E+00   9.6493E-04  0.0015
   4.0743E+00   4.1735E+00   9.4510E-04  0.0014
   4.1735E+00   4.2750E+00   9.3493E-04  0.0014
   4.2750E+00   4.3790E+00   9.2706E-04  0.0014
   4.3790E+00   4.4856E+00   9.1823E-04  0.0014
   4.4856E+00   4.5947E+00   9.1734E-04  0.0014
   4.5947E+00   4.7065E+00   9.1871E-04  0.0014
   4.7065E+00   4.8210E+00   9.2483E-04  0.0014
   4.8210E+00   4.9383E+00   9.2629E-04  0.0013
   4.9383E+00   5.0585E+00   9.1161E-04  0.0013
   5.0585E+00   5.1815E+00   9.1090E-04  0.0013
   5.1815E+00   5.3076E+00   9.0522E-04  0.0013
   5.3076E+00   5.4368E+00   8.9131E-04  0.0013
   5.4368E+00   5.5690E+00   8.7844E-04  0.0013
   5.5690E+00   5.7045E+00   8.6704E-04  0.0013
   5.7045E+00   5.8433E+00   8.5172E-04  0.0013
   5.8433E+00   5.9855E+00   8.3950E-04  0.0013
   5.9855E+00   6.1311E+00   8.2954E-04  0.0013
   6.1311E+00   6.2803E+00   8.1785E-04  0.0013
   6.2803E+00   6.4331E+00   8.0699E-04  0.0013
   6.4331E+00   6.5896E+00   7.9642E-04  0.0013
   6.5896E+00   6.7500E+00   7.8583E-04  0.0013
   6.7500E+00   6.9142E+00   7.7585E-04  0.0012
   6.9142E+00   7.0824E+00   7.7133E-04  0.0012
   7.0824E+00   7.2548E+00   7.7110E-04  0.0012
   7.2548E+00   7.4313E+00   7.7137E-04  0.0012
   7.4313E+00   7.6121E+00   7.6070E-04  0.0012
   7.6121E+00   7.7973E+00   7.4967E-04  0.0012
   7.7973E+00   7.9870E+00   7.3933E-04  0.0012
   7.9870E+00   8.1813E+00   7.2782E-04  0.0012
   8.1813E+00   8.3804E+00   7.1476E-04  0.0012
   8.3804E+00   8.5843E+00   7.0483E-04  0.0012
   8.5843E+00   8.7931E+00   6.9410E-04  0.0012
   8.7931E+00   9.0071E+00   6.8401E-04  0.0012
   9.0071E+00   9.2262E+00   6.7343E-04  0.0012
   9.2262E+00   9.4507E+00   6.6075E-04  0.0012
   9.4507E+00   9.6807E+00   6.5124E-04  0.0012
   9.6807E+00   9.9162E+00   6.4089E-04  0.0011
   9.9162E+00   1.0157E+01   6.2880E-04  0.0011
   1.0157E+01   1.0405E+01   6.2168E-04  0.0011
   1.0405E+01   1.0658E+01   6.1666E-04  0.0011
   1.0658E+01   1.0917E+01   6.1013E-04  0.0011
   1.0917E+01   1.1183E+01   5.9849E-04  0.0011
   1.1183E+01   1.1455E+01   5.8805E-04  0.0011
   1.1455E+01   1.1733E+01   5.7740E-04  0.0011
   1.1733E+01   1.2019E+01   5.6405E-04  0.0011
   1.2019E+01   1.2311E+01   5.4983E-04  0.0011
   1.2311E+01   1.2611E+01   5.3672E-04  0.0011
   1.2611E+01   1.2918E+01   5.2298E-04  0.0011
   1.2918E+01   1.3232E+01   5.1231E-04  0.0011
   1.3232E+01   1.3554E+01   5.0009E-04  0.0011
   1.3554E+01   1.3884E+01   4.8737E-04  0.0011
   1.3884E+01   1.4222E+01   4.7427E-04  0.0011
   1.4222E+01   1.4568E+01   4.6132E-04  0.0011
   1.4568E+01   1.4922E+01   4.4908E-04  0.0011
   1.4922E+01   1.5285E+01   4.3659E-04  0.0011
   1.5285E+01   1.5657E+01   4.2294E-04  0.0011
   1.5657E+01   1.6038E+01   4.1089E-04  0.0011
   1.6038E+01   1.6428E+01   3.9872E-04  0.0011
   1.6428E+01   1.6828E+01   3.8588E-04  0.0011
   1.6828E+01   1.7237E+01   3.7404E-04  0.0011
   1.7237E+01   1.7657E+01   3.6190E-04  0.0011
   1.7657E+01   1.8086E+01   3.5022E-04  0.0012
   1.8086E+01   1.8526E+01   3.3912E-04  0.0012
   1.8526E+01   1.8977E+01   3.3044E-04  0.0012
   1.8977E+01   1.9439E+01   3.2338E-04  0.0012
   1.9439E+01   1.9912E+01   3.1784E-04  0.0012
   1.9912E+01   2.0396E+01   3.1029E-04  0.0012
   2.0396E+01   2.0893E+01   2.9933E-04  0.0012
   2.0893E+01   2.1401E+01   2.8825E-04  0.0012
   2.1401E+01   2.1922E+01   2.7645E-04  0.0012
   2.1922E+01   2.2455E+01   2.6550E-04  0.0012
   2.2455E+01   2.3001E+01   2.5465E-04  0.0012
   2.3001E+01   2.3561E+01   2.4354E-04  0.0012
   2.3561E+01   2.4134E+01   2.3320E-04  0.0012
   2.4134E+01   2.4721E+01   2.2255E-04  0.0012
   2.4721E+01   2.5323E+01   2.1206E-04  0.0013
   2.5323E+01   2.5939E+01   2.0181E-04  0.0013
   2.5939E+01   2.6570E+01   1.9177E-04  0.0013
   2.6570E+01   2.7217E+01   1.8207E-04  0.0013
   2.7217E+01   2.7879E+01   1.7217E-04  0.0013
   2.7879E+01   2.8557E+01   1.6312E-04  0.0013
   2.8557E+01   2.9252E+01   1.5413E-04  0.0014
   2.9252E+01   2.9964E+01   1.4497E-04  0.0014
   2.9964E+01   3.0693E+01   1.3630E-04  0.0014
   3.0693E+01   3.1440E+01   1.2793E-04  0.0014
   3.1440E+01   3.2205E+01   1.1995E-04  0.0015
   3.2205E+01   3.2988E+01   1.1212E-04  0.0015
   3.2988E+01   3.3791E+01   1.0484E-04  0.0015
   3.3791E+01   3.4613E+01   9.7334E-05  0.0016
   3.4613E+01   3.5455E+01   9.0721E-05  0.0016
   3.5455E+01   3.6318E+01   8.4277E-05  0.0017
   3.6318E+01   3.7201E+01   7.7968E-05  0.0017
   3.7201E+01   3.8106E+01   7.2000E-05  0.0018
   3.8106E+01   3.9034E+01   6.6243E-05  0.0018
   3.9034E+01   3.9983E+01   6.0775E-05  0.0019
   3.9983E+01   4.0956E+01   5.5502E-05  0.0019
   4.0956E+01   4.1953E+01   5.0920E-05  0.0020
   4.1953E+01   4.2973E+01   4.6421E-05  0.0021
   4.2973E+01   4.4019E+01   4.2405E-05  0.0021
   4.4019E+01   4.5090E+01   3.8223E-05  0.0022
   4.5090E+01   4.6187E+01   3.4592E-05  0.0023
   4.6187E+01   4.7311E+01   3.1178E-05  0.0024
   4.7311E+01   4.8462E+01   2.7974E-05  0.0025
   4.8462E+01   4.9641E+01   2.5060E-05  0.0026
   4.9641E+01   5.0849E+01   2.2158E-05  0.0027
   5.0849E+01   5.2086E+01   1.9707E-05  0.0029
   5.2086E+01   5.3353E+01   1.7453E-05  0.0030
   5.3353E+01   5.4651E+01   1.5403E-05  0.0032
   5.4651E+01   5.5981E+01   1.3497E-05  0.0033
   5.5981E+01   5.7343E+01   1.1819E-05  0.0035
   5.7343E+01   5.8738E+01   1.0187E-05  0.0038
   5.8738E+01   6.0168E+01   8.8398E-06  0.0040
   6.0168E+01   6.1632E+01   7.6878E-06  0.0042
   6.1632E+01   6.3131E+01   6.5572E-06  0.0045
   6.3131E+01   6.4667E+01   5.6060E-06  0.0048
   6.4667E+01   6.6240E+01   4.7839E-06  0.0052
   6.6240E+01   6.7852E+01   4.0581E-06  0.0055
   6.7852E+01   6.9503E+01   3.3957E-06  0.0060
   6.9503E+01   7.1194E+01   2.8628E-06  0.0064
   7.1194E+01   7.2926E+01   2.3459E-06  0.0070
   7.2926E+01   7.4701E+01   1.9454E-06  0.0076
   7.4701E+01   7.6518E+01   1.5840E-06  0.0083
   7.6518E+01   7.8380E+01   1.2543E-06  0.0093
   7.8380E+01   8.0287E+01   1.0014E-06  0.0102
   8.0287E+01   8.2240E+01   7.8364E-07  0.0114
   8.2240E+01   8.4241E+01   5.9881E-07  0.0129
   8.4241E+01   8.6291E+01   4.4866E-07  0.0147
   8.6291E+01   8.8391E+01   3.3045E-07  0.0170
   8.8391E+01   9.0541E+01   2.2924E-07  0.0201
   9.0541E+01   9.2744E+01   1.6523E-07  0.0234
   9.2744E+01   9.5001E+01   1.1540E-07  0.0277
   9.5001E+01   9.7312E+01   8.1248E-08  0.0326
   9.7312E+01   9.9680E+01   5.9045E-08  0.0378
   9.9680E+01   1.0211E+02   4.0078E-08  0.0454
   1.0211E+02   1.0459E+02   2.5762E-08  0.0559
   1.0459E+02   1.0713E+02   1.6740E-08  0.0685
   1.0713E+02   1.0974E+02   8.7468E-09  0.0937
   1.0974E+02   1.1241E+02   4.2695E-09  0.1325
   1.1241E+02   1.1515E+02   1.6087E-09  0.2132
   1.1515E+02   1.1795E+02   7.1388E-10  0.3162
   1.1795E+02   1.2082E+02   6.9692E-11  1.0000
   1.2082E+02   1.2376E+02   1.3607E-10  0.7071
   1.2376E+02   1.2677E+02   0.0000E+00  0.0000
   1.2677E+02   1.2985E+02   0.0000E+00  0.0000
   1.2985E+02   1.3301E+02   0.0000E+00  0.0000
   1.3301E+02   1.3625E+02   0.0000E+00  0.0000
   1.3625E+02   1.3956E+02   0.0000E+00  0.0000
   1.3956E+02   1.4296E+02   0.0000E+00  0.0000
   1.4296E+02   1.4644E+02   0.0000E+00  0.0000
   1.4644E+02   1.5000E+02   0.0000E+00  0.0000

#   sum over                 1.2621E-04
'no. =    1   reg = 111 - 211'
msuc: {\huge [t-cross] in region mesh}
msdr: {\it plotted by \ANGEL \version}
msdl: {\it calculated by \PHITS  3.28}
wt: s(0.7)
\vspace{-3}
  region surface crossing
  area  &=&   1.0000E+00 [cm^2]
e:
 
# Information for Restart Calculation
# This calculation was newly started
# istdev =  2 # 1:Batch variance, 2:History variance
# resc2  = 5.00000000000000000E+09 # Total source weight or Total source weight / maxcas
# resc3  = 5.00000000000000000E+09 # Total history number or Total batch number
# maxcas =   500000000 # History / Batch, only used for istdev=1
# bitrseed = 0001101011110000011001100100101010101011111110100001111101011101 # bit data of rseed
