[ T-Cross ]
    title = [t-cross] in region mesh
     mesh =  reg            # mesh type is region-wise
      reg =    1            # number of crossing regions
      non     r-from    r-to       area
      1       125       225        1.000000    
   e-type =    3            # e-mesh is log given by emin, emax and ne
     emin =  1.0000000E-02  # minimum value of e-mesh points
     emax =   150.0000      # maximum value of e-mesh points
#    edel =  2.4039514E-02  # mesh width of e-mesh points
       ne =    400          # number of e-mesh points
#    data = ( e(i), i = 1, ne + 1 )
#           1.00000E-02  1.02433E-02  1.04925E-02  1.07478E-02  1.10093E-02
#           1.12772E-02  1.15516E-02  1.18326E-02  1.21205E-02  1.24154E-02
#           1.27175E-02  1.30269E-02  1.33439E-02  1.36686E-02  1.40011E-02
#           1.43418E-02  1.46907E-02  1.50482E-02  1.54143E-02  1.57894E-02
#           1.61735E-02  1.65670E-02  1.69701E-02  1.73830E-02  1.78060E-02
#           1.82392E-02  1.86830E-02  1.91375E-02  1.96032E-02  2.00801E-02
#           2.05687E-02  2.10692E-02  2.15818E-02  2.21069E-02  2.26448E-02
#           2.31957E-02  2.37601E-02  2.43382E-02  2.49304E-02  2.55369E-02
#           2.61583E-02  2.67947E-02  2.74467E-02  2.81145E-02  2.87985E-02
#           2.94992E-02  3.02169E-02  3.09521E-02  3.17052E-02  3.24766E-02
#           3.32668E-02  3.40762E-02  3.49053E-02  3.57546E-02  3.66246E-02
#           3.75157E-02  3.84284E-02  3.93634E-02  4.03212E-02  4.13022E-02
#           4.23071E-02  4.33365E-02  4.43909E-02  4.54710E-02  4.65773E-02
#           4.77106E-02  4.88714E-02  5.00605E-02  5.12785E-02  5.25262E-02
#           5.38042E-02  5.51133E-02  5.64542E-02  5.78278E-02  5.92348E-02
#           6.06760E-02  6.21523E-02  6.36645E-02  6.52135E-02  6.68002E-02
#           6.84255E-02  7.00904E-02  7.17957E-02  7.35426E-02  7.53319E-02
#           7.71648E-02  7.90423E-02  8.09655E-02  8.29354E-02  8.49533E-02
#           8.70203E-02  8.91376E-02  9.13064E-02  9.35279E-02  9.58035E-02
#           9.81345E-02  1.00522E-01  1.02968E-01  1.05473E-01  1.08040E-01
#           1.10668E-01  1.13361E-01  1.16119E-01  1.18944E-01  1.21838E-01
#           1.24803E-01  1.27839E-01  1.30950E-01  1.34136E-01  1.37399E-01
#           1.40742E-01  1.44167E-01  1.47675E-01  1.51268E-01  1.54948E-01
#           1.58718E-01  1.62580E-01  1.66535E-01  1.70587E-01  1.74738E-01
#           1.78989E-01  1.83344E-01  1.87805E-01  1.92375E-01  1.97055E-01
#           2.01850E-01  2.06761E-01  2.11792E-01  2.16945E-01  2.22223E-01
#           2.27630E-01  2.33169E-01  2.38842E-01  2.44653E-01  2.50605E-01
#           2.56703E-01  2.62949E-01  2.69346E-01  2.75900E-01  2.82613E-01
#           2.89489E-01  2.96532E-01  3.03747E-01  3.11138E-01  3.18708E-01
#           3.26462E-01  3.34405E-01  3.42542E-01  3.50876E-01  3.59413E-01
#           3.68158E-01  3.77116E-01  3.86291E-01  3.95690E-01  4.05317E-01
#           4.15179E-01  4.25281E-01  4.35628E-01  4.46227E-01  4.57084E-01
#           4.68205E-01  4.79597E-01  4.91266E-01  5.03219E-01  5.15463E-01
#           5.28005E-01  5.40851E-01  5.54011E-01  5.67490E-01  5.81298E-01
#           5.95441E-01  6.09929E-01  6.24769E-01  6.39970E-01  6.55541E-01
#           6.71491E-01  6.87828E-01  7.04564E-01  7.21706E-01  7.39266E-01
#           7.57253E-01  7.75678E-01  7.94551E-01  8.13883E-01  8.33685E-01
#           8.53969E-01  8.74747E-01  8.96030E-01  9.17831E-01  9.40163E-01
#           9.63038E-01  9.86469E-01  1.01047E+00  1.03506E+00  1.06024E+00
#           1.08604E+00  1.11246E+00  1.13953E+00  1.16725E+00  1.19565E+00
#           1.22474E+00  1.25454E+00  1.28507E+00  1.31633E+00  1.34836E+00
#           1.38117E+00  1.41477E+00  1.44920E+00  1.48446E+00  1.52057E+00
#           1.55757E+00  1.59547E+00  1.63429E+00  1.67405E+00  1.71478E+00
#           1.75650E+00  1.79924E+00  1.84302E+00  1.88786E+00  1.93379E+00
#           1.98084E+00  2.02904E+00  2.07841E+00  2.12898E+00  2.18078E+00
#           2.23384E+00  2.28819E+00  2.34386E+00  2.40089E+00  2.45930E+00
#           2.51914E+00  2.58043E+00  2.64322E+00  2.70753E+00  2.77341E+00
#           2.84088E+00  2.91001E+00  2.98081E+00  3.05333E+00  3.12762E+00
#           3.20372E+00  3.28167E+00  3.36152E+00  3.44330E+00  3.52708E+00
#           3.61290E+00  3.70080E+00  3.79085E+00  3.88308E+00  3.97756E+00
#           4.07434E+00  4.17347E+00  4.27501E+00  4.37903E+00  4.48557E+00
#           4.59471E+00  4.70650E+00  4.82102E+00  4.93832E+00  5.05847E+00
#           5.18155E+00  5.30762E+00  5.43676E+00  5.56904E+00  5.70453E+00
#           5.84333E+00  5.98550E+00  6.13114E+00  6.28031E+00  6.43312E+00
#           6.58964E+00  6.74997E+00  6.91420E+00  7.08243E+00  7.25475E+00
#           7.43126E+00  7.61207E+00  7.79728E+00  7.98700E+00  8.18133E+00
#           8.38038E+00  8.58428E+00  8.79315E+00  9.00709E+00  9.22624E+00
#           9.45072E+00  9.68067E+00  9.91620E+00  1.01575E+01  1.04046E+01
#           1.06578E+01  1.09171E+01  1.11827E+01  1.14548E+01  1.17335E+01
#           1.20190E+01  1.23114E+01  1.26109E+01  1.29178E+01  1.32321E+01
#           1.35540E+01  1.38838E+01  1.42216E+01  1.45676E+01  1.49221E+01
#           1.52851E+01  1.56570E+01  1.60380E+01  1.64282E+01  1.68279E+01
#           1.72374E+01  1.76568E+01  1.80864E+01  1.85264E+01  1.89772E+01
#           1.94389E+01  1.99119E+01  2.03963E+01  2.08926E+01  2.14009E+01
#           2.19216E+01  2.24550E+01  2.30014E+01  2.35610E+01  2.41343E+01
#           2.47215E+01  2.53230E+01  2.59391E+01  2.65702E+01  2.72167E+01
#           2.78789E+01  2.85572E+01  2.92520E+01  2.99637E+01  3.06928E+01
#           3.14396E+01  3.22045E+01  3.29881E+01  3.37907E+01  3.46128E+01
#           3.54550E+01  3.63177E+01  3.72013E+01  3.81064E+01  3.90336E+01
#           3.99833E+01  4.09561E+01  4.19526E+01  4.29734E+01  4.40189E+01
#           4.50900E+01  4.61870E+01  4.73108E+01  4.84619E+01  4.96410E+01
#           5.08488E+01  5.20860E+01  5.33533E+01  5.46514E+01  5.59812E+01
#           5.73432E+01  5.87384E+01  6.01676E+01  6.16315E+01  6.31311E+01
#           6.46671E+01  6.62405E+01  6.78522E+01  6.95031E+01  7.11941E+01
#           7.29263E+01  7.47007E+01  7.65182E+01  7.83800E+01  8.02870E+01
#           8.22405E+01  8.42414E+01  8.62911E+01  8.83906E+01  9.05412E+01
#           9.27442E+01  9.50007E+01  9.73122E+01  9.96799E+01  1.02105E+02
#           1.04589E+02  1.07134E+02  1.09741E+02  1.12411E+02  1.15146E+02
#           1.17948E+02  1.20817E+02  1.23757E+02  1.26768E+02  1.29852E+02
#           1.33012E+02  1.36248E+02  1.39563E+02  1.42959E+02  1.46437E+02
#           1.50000E+02
     unit =    2            # unit is [1/cm^2/(MeV/n)/source]
     axis =  eng            # axis of output
     file = detector-26.out  # file name of output for the above axis
   output = f-curr          # surface crossing forward current spectrum
     part =  neutron  
# kf/name :  2112     
#    used :        main (  %)        temp (  %)       total (  %)
#  memory :         414 (  0)           0 (  0)         414 (  0)

#------------------------------------------------------------------------------
#newpage:
#   no. =    1   reg = 125 - 225

x: Energy [MeV/n]
y:  F-Curr [1/cm^2/(MeV/n)/source]         
p: xlog ylog afac(0.8) form(0.9)
h: n            x            y(neutron ),hh0l   n 
#  e-lower      e-upper      neutron     r.err 
   1.0000E-02   1.0243E-02   5.3649E-03  0.0226
   1.0243E-02   1.0493E-02   5.1974E-03  0.0227
   1.0493E-02   1.0748E-02   5.2698E-03  0.0223
   1.0748E-02   1.1009E-02   5.2033E-03  0.0221
   1.1009E-02   1.1277E-02   5.0274E-03  0.0222
   1.1277E-02   1.1552E-02   5.1364E-03  0.0217
   1.1552E-02   1.1833E-02   5.0025E-03  0.0218
   1.1833E-02   1.2121E-02   5.2287E-03  0.0210
   1.2121E-02   1.2415E-02   5.1203E-03  0.0210
   1.2415E-02   1.2718E-02   5.1576E-03  0.0207
   1.2718E-02   1.3027E-02   4.9295E-03  0.0209
   1.3027E-02   1.3344E-02   4.8124E-03  0.0209
   1.3344E-02   1.3669E-02   5.0513E-03  0.0202
   1.3669E-02   1.4001E-02   4.7549E-03  0.0205
   1.4001E-02   1.4342E-02   4.7770E-03  0.0202
   1.4342E-02   1.4691E-02   4.6664E-03  0.0202
   1.4691E-02   1.5048E-02   4.6889E-03  0.0199
   1.5048E-02   1.5414E-02   4.6813E-03  0.0197
   1.5414E-02   1.5789E-02   4.5630E-03  0.0197
   1.5789E-02   1.6174E-02   4.4954E-03  0.0197
   1.6174E-02   1.6567E-02   4.4878E-03  0.0194
   1.6567E-02   1.6970E-02   4.3481E-03  0.0195
   1.6970E-02   1.7383E-02   4.4208E-03  0.0191
   1.7383E-02   1.7806E-02   4.3867E-03  0.0190
   1.7806E-02   1.8239E-02   4.3225E-03  0.0189
   1.8239E-02   1.8683E-02   4.2950E-03  0.0187
   1.8683E-02   1.9138E-02   4.2076E-03  0.0187
   1.9138E-02   1.9603E-02   4.3353E-03  0.0182
   1.9603E-02   2.0080E-02   4.1261E-03  0.0184
   2.0080E-02   2.0569E-02   4.1195E-03  0.0182
   2.0569E-02   2.1069E-02   4.0590E-03  0.0181
   2.1069E-02   2.1582E-02   4.0413E-03  0.0179
   2.1582E-02   2.2107E-02   4.0176E-03  0.0178
   2.2107E-02   2.2645E-02   3.8720E-03  0.0179
   2.2645E-02   2.3196E-02   3.9724E-03  0.0175
   2.3196E-02   2.3760E-02   3.8852E-03  0.0174
   2.3760E-02   2.4338E-02   3.7640E-03  0.0175
   2.4338E-02   2.4930E-02   3.8728E-03  0.0170
   2.4930E-02   2.5537E-02   3.7786E-03  0.0171
   2.5537E-02   2.6158E-02   3.8911E-03  0.0166
   2.6158E-02   2.6795E-02   3.7405E-03  0.0167
   2.6795E-02   2.7447E-02   3.6670E-03  0.0167
   2.7447E-02   2.8114E-02   3.7147E-03  0.0164
   2.8114E-02   2.8799E-02   3.5407E-03  0.0166
   2.8799E-02   2.9499E-02   3.5146E-03  0.0165
   2.9499E-02   3.0217E-02   3.6439E-03  0.0160
   3.0217E-02   3.0952E-02   3.5537E-03  0.0160
   3.0952E-02   3.1705E-02   3.4117E-03  0.0161
   3.1705E-02   3.2477E-02   3.4283E-03  0.0159
   3.2477E-02   3.3267E-02   3.3950E-03  0.0158
   3.3267E-02   3.4076E-02   3.5359E-03  0.0153
   3.4076E-02   3.4905E-02   3.2975E-03  0.0156
   3.4905E-02   3.5755E-02   3.2593E-03  0.0155
   3.5755E-02   3.6625E-02   3.3190E-03  0.0152
   3.6625E-02   3.7516E-02   3.1822E-03  0.0153
   3.7516E-02   3.8428E-02   3.1457E-03  0.0152
   3.8428E-02   3.9363E-02   3.2014E-03  0.0149
   3.9363E-02   4.0321E-02   3.1776E-03  0.0148
   4.0321E-02   4.1302E-02   3.1742E-03  0.0146
   4.1302E-02   4.2307E-02   3.1200E-03  0.0146
   4.2307E-02   4.3337E-02   3.2149E-03  0.0142
   4.3337E-02   4.4391E-02   3.0987E-03  0.0143
   4.4391E-02   4.5471E-02   2.9776E-03  0.0144
   4.5471E-02   4.6577E-02   2.8894E-03  0.0144
   4.6577E-02   4.7711E-02   2.8896E-03  0.0143
   4.7711E-02   4.8871E-02   2.8675E-03  0.0142
   4.8871E-02   5.0061E-02   2.8930E-03  0.0139
   5.0061E-02   5.1279E-02   2.8588E-03  0.0138
   5.1279E-02   5.2526E-02   2.8205E-03  0.0138
   5.2526E-02   5.3804E-02   2.8461E-03  0.0135
   5.3804E-02   5.5113E-02   2.8190E-03  0.0134
   5.5113E-02   5.6454E-02   2.7642E-03  0.0134
   5.6454E-02   5.7828E-02   2.7643E-03  0.0133
   5.7828E-02   5.9235E-02   2.7207E-03  0.0132
   5.9235E-02   6.0676E-02   2.6561E-03  0.0132
   6.0676E-02   6.2152E-02   2.6874E-03  0.0130
   6.2152E-02   6.3665E-02   2.6458E-03  0.0129
   6.3665E-02   6.5214E-02   2.6004E-03  0.0129
   6.5214E-02   6.6800E-02   2.6100E-03  0.0127
   6.6800E-02   6.8426E-02   2.5528E-03  0.0127
   6.8426E-02   7.0090E-02   2.5109E-03  0.0126
   7.0090E-02   7.1796E-02   2.4640E-03  0.0126
   7.1796E-02   7.3543E-02   2.4952E-03  0.0124
   7.3543E-02   7.5332E-02   2.4586E-03  0.0123
   7.5332E-02   7.7165E-02   2.4242E-03  0.0123
   7.7165E-02   7.9042E-02   2.3613E-03  0.0123
   7.9042E-02   8.0965E-02   2.3785E-03  0.0121
   8.0965E-02   8.2935E-02   2.3984E-03  0.0119
   8.2935E-02   8.4953E-02   2.3136E-03  0.0119
   8.4953E-02   8.7020E-02   2.2700E-03  0.0119
   8.7020E-02   8.9138E-02   2.3067E-03  0.0117
   8.9138E-02   9.1306E-02   2.2636E-03  0.0117
   9.1306E-02   9.3528E-02   2.1838E-03  0.0117
   9.3528E-02   9.5804E-02   2.1735E-03  0.0116
   9.5804E-02   9.8134E-02   2.1645E-03  0.0115
   9.8134E-02   1.0052E-01   2.1781E-03  0.0113
   1.0052E-01   1.0297E-01   2.0844E-03  0.0114
   1.0297E-01   1.0547E-01   2.1131E-03  0.0112
   1.0547E-01   1.0804E-01   2.0764E-03  0.0112
   1.0804E-01   1.1067E-01   2.0855E-03  0.0110
   1.1067E-01   1.1336E-01   2.0471E-03  0.0110
   1.1336E-01   1.1612E-01   1.9909E-03  0.0110
   1.1612E-01   1.1894E-01   2.0168E-03  0.0108
   1.1894E-01   1.2184E-01   1.9726E-03  0.0108
   1.2184E-01   1.2480E-01   1.9313E-03  0.0108
   1.2480E-01   1.2784E-01   1.9507E-03  0.0106
   1.2784E-01   1.3095E-01   1.9076E-03  0.0106
   1.3095E-01   1.3414E-01   1.8543E-03  0.0106
   1.3414E-01   1.3740E-01   1.8438E-03  0.0105
   1.3740E-01   1.4074E-01   1.8209E-03  0.0105
   1.4074E-01   1.4417E-01   1.7977E-03  0.0104
   1.4417E-01   1.4767E-01   1.8197E-03  0.0102
   1.4767E-01   1.5127E-01   1.7824E-03  0.0102
   1.5127E-01   1.5495E-01   1.7292E-03  0.0102
   1.5495E-01   1.5872E-01   1.7116E-03  0.0102
   1.5872E-01   1.6258E-01   1.7232E-03  0.0100
   1.6258E-01   1.6654E-01   1.7030E-03  0.0099
   1.6654E-01   1.7059E-01   1.6815E-03  0.0099
   1.7059E-01   1.7474E-01   1.6726E-03  0.0098
   1.7474E-01   1.7899E-01   1.6052E-03  0.0099
   1.7899E-01   1.8334E-01   1.6259E-03  0.0097
   1.8334E-01   1.8781E-01   1.5790E-03  0.0097
   1.8781E-01   1.9237E-01   1.5420E-03  0.0097
   1.9237E-01   1.9706E-01   1.5652E-03  0.0095
   1.9706E-01   2.0185E-01   1.5415E-03  0.0095
   2.0185E-01   2.0676E-01   1.4997E-03  0.0095
   2.0676E-01   2.1179E-01   1.5007E-03  0.0094
   2.1179E-01   2.1694E-01   1.4662E-03  0.0094
   2.1694E-01   2.2222E-01   1.4455E-03  0.0093
   2.2222E-01   2.2763E-01   1.4331E-03  0.0093
   2.2763E-01   2.3317E-01   1.4132E-03  0.0092
   2.3317E-01   2.3884E-01   1.3994E-03  0.0092
   2.3884E-01   2.4465E-01   1.3776E-03  0.0091
   2.4465E-01   2.5061E-01   1.3687E-03  0.0090
   2.5061E-01   2.5670E-01   1.3583E-03  0.0090
   2.5670E-01   2.6295E-01   1.3124E-03  0.0090
   2.6295E-01   2.6935E-01   1.3053E-03  0.0089
   2.6935E-01   2.7590E-01   1.2797E-03  0.0089
   2.7590E-01   2.8261E-01   1.2757E-03  0.0088
   2.8261E-01   2.8949E-01   1.2558E-03  0.0088
   2.8949E-01   2.9653E-01   1.2094E-03  0.0088
   2.9653E-01   3.0375E-01   1.1927E-03  0.0088
   3.0375E-01   3.1114E-01   1.2032E-03  0.0087
   3.1114E-01   3.1871E-01   1.1717E-03  0.0087
   3.1871E-01   3.2646E-01   1.1428E-03  0.0087
   3.2646E-01   3.3441E-01   1.1215E-03  0.0087
   3.3441E-01   3.4254E-01   1.1302E-03  0.0085
   3.4254E-01   3.5088E-01   1.0957E-03  0.0085
   3.5088E-01   3.5941E-01   1.0794E-03  0.0085
   3.5941E-01   3.6816E-01   1.0809E-03  0.0084
   3.6816E-01   3.7712E-01   1.0369E-03  0.0085
   3.7712E-01   3.8629E-01   1.0069E-03  0.0085
   3.8629E-01   3.9569E-01   1.0001E-03  0.0084
   3.9569E-01   4.0532E-01   9.7191E-04  0.0084
   4.0532E-01   4.1518E-01   9.5835E-04  0.0084
   4.1518E-01   4.2528E-01   9.5565E-04  0.0083
   4.2528E-01   4.3563E-01   9.3911E-04  0.0083
   4.3563E-01   4.4623E-01   9.0259E-04  0.0083
   4.4623E-01   4.5708E-01   8.9509E-04  0.0083
   4.5708E-01   4.6821E-01   8.8084E-04  0.0083
   4.6821E-01   4.7960E-01   8.6012E-04  0.0082
   4.7960E-01   4.9127E-01   8.4489E-04  0.0082
   4.9127E-01   5.0322E-01   8.3031E-04  0.0082
   5.0322E-01   5.1546E-01   8.0210E-04  0.0082
   5.1546E-01   5.2800E-01   7.7731E-04  0.0083
   5.2800E-01   5.4085E-01   7.8323E-04  0.0081
   5.4085E-01   5.5401E-01   7.4892E-04  0.0082
   5.5401E-01   5.6749E-01   7.3628E-04  0.0082
   5.6749E-01   5.8130E-01   7.1449E-04  0.0082
   5.8130E-01   5.9544E-01   6.8979E-04  0.0083
   5.9544E-01   6.0993E-01   6.9388E-04  0.0081
   6.0993E-01   6.2477E-01   6.6352E-04  0.0082
   6.2477E-01   6.3997E-01   6.5127E-04  0.0082
   6.3997E-01   6.5554E-01   6.1957E-04  0.0083
   6.5554E-01   6.7149E-01   6.1102E-04  0.0083
   6.7149E-01   6.8783E-01   5.9167E-04  0.0083
   6.8783E-01   7.0456E-01   5.7814E-04  0.0083
   7.0456E-01   7.2171E-01   5.6530E-04  0.0083
   7.2171E-01   7.3927E-01   5.3737E-04  0.0084
   7.3927E-01   7.5725E-01   5.2299E-04  0.0084
   7.5725E-01   7.7568E-01   5.0603E-04  0.0085
   7.7568E-01   7.9455E-01   4.8498E-04  0.0085
   7.9455E-01   8.1388E-01   4.6888E-04  0.0086
   8.1388E-01   8.3368E-01   4.6102E-04  0.0085
   8.3368E-01   8.5397E-01   4.4189E-04  0.0086
   8.5397E-01   8.7475E-01   4.2969E-04  0.0086
   8.7475E-01   8.9603E-01   4.0484E-04  0.0088
   8.9603E-01   9.1783E-01   3.8273E-04  0.0089
   9.1783E-01   9.4016E-01   3.6688E-04  0.0090
   9.4016E-01   9.6304E-01   3.5602E-04  0.0091
   9.6304E-01   9.8647E-01   3.3781E-04  0.0092
   9.8647E-01   1.0105E+00   3.2165E-04  0.0093
   1.0105E+00   1.0351E+00   3.1740E-04  0.0092
   1.0351E+00   1.0602E+00   3.2267E-04  0.0091
   1.0602E+00   1.0860E+00   3.2878E-04  0.0089
   1.0860E+00   1.1125E+00   3.3154E-04  0.0087
   1.1125E+00   1.1395E+00   3.3204E-04  0.0086
   1.1395E+00   1.1673E+00   3.3306E-04  0.0085
   1.1673E+00   1.1957E+00   3.4441E-04  0.0083
   1.1957E+00   1.2247E+00   3.5067E-04  0.0081
   1.2247E+00   1.2545E+00   3.4686E-04  0.0080
   1.2545E+00   1.2851E+00   3.4572E-04  0.0079
   1.2851E+00   1.3163E+00   3.4516E-04  0.0079
   1.3163E+00   1.3484E+00   3.5011E-04  0.0077
   1.3484E+00   1.3812E+00   3.4938E-04  0.0076
   1.3812E+00   1.4148E+00   3.5334E-04  0.0075
   1.4148E+00   1.4492E+00   3.5159E-04  0.0074
   1.4492E+00   1.4845E+00   3.4777E-04  0.0074
   1.4845E+00   1.5206E+00   3.3920E-04  0.0074
   1.5206E+00   1.5576E+00   3.3873E-04  0.0073
   1.5576E+00   1.5955E+00   3.3616E-04  0.0072
   1.5955E+00   1.6343E+00   3.3421E-04  0.0072
   1.6343E+00   1.6741E+00   3.3637E-04  0.0071
   1.6741E+00   1.7148E+00   3.3194E-04  0.0070
   1.7148E+00   1.7565E+00   3.3118E-04  0.0069
   1.7565E+00   1.7992E+00   3.2134E-04  0.0070
   1.7992E+00   1.8430E+00   3.1518E-04  0.0070
   1.8430E+00   1.8879E+00   3.0561E-04  0.0070
   1.8879E+00   1.9338E+00   2.9946E-04  0.0070
   1.9338E+00   1.9808E+00   2.9673E-04  0.0069
   1.9808E+00   2.0290E+00   2.9171E-04  0.0069
   2.0290E+00   2.0784E+00   2.8483E-04  0.0069
   2.0784E+00   2.1290E+00   2.7633E-04  0.0069
   2.1290E+00   2.1808E+00   2.6415E-04  0.0070
   2.1808E+00   2.2338E+00   2.5597E-04  0.0070
   2.2338E+00   2.2882E+00   2.4932E-04  0.0070
   2.2882E+00   2.3439E+00   2.4271E-04  0.0070
   2.3439E+00   2.4009E+00   2.3863E-04  0.0070
   2.4009E+00   2.4593E+00   2.3026E-04  0.0070
   2.4593E+00   2.5191E+00   2.1727E-04  0.0072
   2.5191E+00   2.5804E+00   2.1259E-04  0.0072
   2.5804E+00   2.6432E+00   2.0153E-04  0.0073
   2.6432E+00   2.7075E+00   1.9284E-04  0.0073
   2.7075E+00   2.7734E+00   1.8355E-04  0.0074
   2.7734E+00   2.8409E+00   1.7386E-04  0.0075
   2.8409E+00   2.9100E+00   1.6998E-04  0.0075
   2.9100E+00   2.9808E+00   1.6296E-04  0.0076
   2.9808E+00   3.0533E+00   1.5523E-04  0.0077
   3.0533E+00   3.1276E+00   1.4623E-04  0.0078
   3.1276E+00   3.2037E+00   1.3820E-04  0.0080
   3.2037E+00   3.2817E+00   1.3176E-04  0.0081
   3.2817E+00   3.3615E+00   1.2260E-04  0.0083
   3.3615E+00   3.4433E+00   1.1540E-04  0.0084
   3.4433E+00   3.5271E+00   1.0821E-04  0.0086
   3.5271E+00   3.6129E+00   1.0154E-04  0.0087
   3.6129E+00   3.7008E+00   9.5937E-05  0.0089
   3.7008E+00   3.7908E+00   8.9216E-05  0.0091
   3.7908E+00   3.8831E+00   8.4343E-05  0.0093
   3.8831E+00   3.9776E+00   7.8113E-05  0.0095
   3.9776E+00   4.0743E+00   7.1890E-05  0.0098
   4.0743E+00   4.1735E+00   6.7762E-05  0.0100
   4.1735E+00   4.2750E+00   6.2784E-05  0.0102
   4.2750E+00   4.3790E+00   5.7755E-05  0.0105
   4.3790E+00   4.4856E+00   5.3048E-05  0.0109
   4.4856E+00   4.5947E+00   5.0523E-05  0.0110
   4.5947E+00   4.7065E+00   4.5590E-05  0.0114
   4.7065E+00   4.8210E+00   4.1940E-05  0.0118
   4.8210E+00   4.9383E+00   3.8136E-05  0.0122
   4.9383E+00   5.0585E+00   3.6204E-05  0.0124
   5.0585E+00   5.1815E+00   3.3299E-05  0.0128
   5.1815E+00   5.3076E+00   2.9594E-05  0.0134
   5.3076E+00   5.4368E+00   2.7531E-05  0.0137
   5.4368E+00   5.5690E+00   2.4383E-05  0.0144
   5.5690E+00   5.7045E+00   2.2667E-05  0.0147
   5.7045E+00   5.8433E+00   2.0635E-05  0.0153
   5.8433E+00   5.9855E+00   1.8424E-05  0.0160
   5.9855E+00   6.1311E+00   1.6517E-05  0.0166
   6.1311E+00   6.2803E+00   1.5032E-05  0.0172
   6.2803E+00   6.4331E+00   1.4057E-05  0.0176
   6.4331E+00   6.5896E+00   1.2501E-05  0.0185
   6.5896E+00   6.7500E+00   1.1046E-05  0.0194
   6.7500E+00   6.9142E+00   1.0122E-05  0.0200
   6.9142E+00   7.0824E+00   8.7064E-06  0.0213
   7.0824E+00   7.2548E+00   8.4339E-06  0.0214
   7.2548E+00   7.4313E+00   7.1345E-06  0.0230
   7.4313E+00   7.6121E+00   6.6461E-06  0.0235
   7.6121E+00   7.7973E+00   6.0311E-06  0.0244
   7.7973E+00   7.9870E+00   5.1727E-06  0.0261
   7.9870E+00   8.1813E+00   4.5764E-06  0.0274
   8.1813E+00   8.3804E+00   4.3907E-06  0.0276
   8.3804E+00   8.5843E+00   3.9513E-06  0.0288
   8.5843E+00   8.7931E+00   3.6755E-06  0.0294
   8.7931E+00   9.0071E+00   3.1441E-06  0.0314
   9.0071E+00   9.2262E+00   2.8687E-06  0.0325
   9.2262E+00   9.4507E+00   2.5392E-06  0.0342
   9.4507E+00   9.6807E+00   2.1918E-06  0.0363
   9.6807E+00   9.9162E+00   2.0421E-06  0.0372
   9.9162E+00   1.0157E+01   1.9190E-06  0.0379
   1.0157E+01   1.0405E+01   1.6226E-06  0.0407
   1.0405E+01   1.0658E+01   1.5590E-06  0.0410
   1.0658E+01   1.0917E+01   1.3973E-06  0.0428
   1.0917E+01   1.1183E+01   1.2813E-06  0.0441
   1.1183E+01   1.1455E+01   1.1504E-06  0.0459
   1.1455E+01   1.1733E+01   9.9149E-07  0.0490
   1.1733E+01   1.2019E+01   9.7261E-07  0.0488
   1.2019E+01   1.2311E+01   8.4236E-07  0.0518
   1.2311E+01   1.2611E+01   7.6894E-07  0.0534
   1.2611E+01   1.2918E+01   7.7349E-07  0.0529
   1.2918E+01   1.3232E+01   6.7664E-07  0.0558
   1.3232E+01   1.3554E+01   6.0569E-07  0.0582
   1.3554E+01   1.3884E+01   5.7917E-07  0.0588
   1.3884E+01   1.4222E+01   4.8944E-07  0.0634
   1.4222E+01   1.4568E+01   4.9708E-07  0.0620
   1.4568E+01   1.4922E+01   5.0596E-07  0.0607
   1.4922E+01   1.5285E+01   4.5538E-07  0.0634
   1.5285E+01   1.5657E+01   4.2126E-07  0.0650
   1.5657E+01   1.6038E+01   3.7888E-07  0.0678
   1.6038E+01   1.6428E+01   3.6475E-07  0.0683
   1.6428E+01   1.6828E+01   3.7777E-07  0.0664
   1.6828E+01   1.7237E+01   2.9146E-07  0.0746
   1.7237E+01   1.7657E+01   3.2268E-07  0.0700
   1.7657E+01   1.8086E+01   2.9485E-07  0.0725
   1.8086E+01   1.8526E+01   2.7345E-07  0.0744
   1.8526E+01   1.8977E+01   2.4995E-07  0.0768
   1.8977E+01   1.9439E+01   2.3029E-07  0.0790
   1.9439E+01   1.9912E+01   2.2764E-07  0.0786
   1.9912E+01   2.0396E+01   1.9953E-07  0.0830
   2.0396E+01   2.0893E+01   2.0688E-07  0.0806
   2.0893E+01   2.1401E+01   2.0721E-07  0.0796
   2.1401E+01   2.1922E+01   1.8053E-07  0.0842
   2.1922E+01   2.2455E+01   1.6374E-07  0.0874
   2.2455E+01   2.3001E+01   1.7205E-07  0.0842
   2.3001E+01   2.3561E+01   1.7154E-07  0.0833
   2.3561E+01   2.4134E+01   1.4188E-07  0.0905
   2.4134E+01   2.4721E+01   1.5554E-07  0.0854
   2.4721E+01   2.5323E+01   1.2968E-07  0.0925
   2.5323E+01   2.5939E+01   1.3417E-07  0.0898
   2.5939E+01   2.6570E+01   1.1408E-07  0.0962
   2.6570E+01   2.7217E+01   1.0312E-07  0.1000
   2.7217E+01   2.7879E+01   1.2383E-07  0.0902
   2.7879E+01   2.8557E+01   9.9266E-08  0.0995
   2.8557E+01   2.9252E+01   8.4434E-08  0.1066
   2.9252E+01   2.9964E+01   7.4935E-08  0.1118
   2.9964E+01   3.0693E+01   6.7669E-08  0.1162
   3.0693E+01   3.1440E+01   6.1598E-08  0.1204
   3.1440E+01   3.2205E+01   5.8392E-08  0.1222
   3.2205E+01   3.2988E+01   5.2751E-08  0.1270
   3.2988E+01   3.3791E+01   4.4853E-08  0.1361
   3.3791E+01   3.4613E+01   3.6489E-08  0.1491
   3.4613E+01   3.5455E+01   3.9581E-08  0.1414
   3.5455E+01   3.6318E+01   2.3184E-08  0.1826
   3.6318E+01   3.7201E+01   2.7160E-08  0.1667
   3.7201E+01   3.8106E+01   3.1671E-08  0.1525
   3.8106E+01   3.9034E+01   2.6605E-08  0.1644
   3.9034E+01   3.9983E+01   2.4569E-08  0.1690
   3.9983E+01   4.0956E+01   8.9088E-09  0.2774
   4.0956E+01   4.1953E+01   1.2711E-08  0.2294
   4.1953E+01   4.2973E+01   8.4906E-09  0.2774
   4.2973E+01   4.4019E+01   9.5641E-09  0.2582
   4.4019E+01   4.5090E+01   1.7429E-08  0.1890
   4.5090E+01   4.6187E+01   1.3369E-08  0.2132
   4.6187E+01   4.7311E+01   1.0678E-08  0.2357
   4.7311E+01   4.8462E+01   5.2124E-09  0.3333
   4.8462E+01   4.9641E+01   1.1308E-09  0.7071
   4.9641E+01   5.0849E+01   1.6559E-09  0.5774
   5.0849E+01   5.2086E+01   3.2331E-09  0.4082
   5.2086E+01   5.3353E+01   2.6303E-09  0.4472
   5.3353E+01   5.4651E+01   1.0271E-09  0.7071
   5.4651E+01   5.5981E+01   5.0136E-10  1.0000
   5.5981E+01   5.7343E+01   2.4473E-09  0.4472
   5.7343E+01   5.8738E+01   9.5565E-10  0.7071
   5.8738E+01   6.0168E+01   4.6648E-10  1.0000
   6.0168E+01   6.1632E+01   1.3662E-09  0.5774
   6.1632E+01   6.3131E+01   4.4458E-10  1.0000
   6.3131E+01   6.4667E+01   4.3402E-10  1.0000
   6.4667E+01   6.6240E+01   0.0000E+00  0.0000
   6.6240E+01   6.7852E+01   4.1365E-10  1.0000
   6.7852E+01   6.9503E+01   0.0000E+00  0.0000
   6.9503E+01   7.1194E+01   0.0000E+00  0.0000
   7.1194E+01   7.2926E+01   0.0000E+00  0.0000
   7.2926E+01   7.4701E+01   0.0000E+00  0.0000
   7.4701E+01   7.6518E+01   0.0000E+00  0.0000
   7.6518E+01   7.8380E+01   0.0000E+00  0.0000
   7.8380E+01   8.0287E+01   0.0000E+00  0.0000
   8.0287E+01   8.2240E+01   0.0000E+00  0.0000
   8.2240E+01   8.4241E+01   0.0000E+00  0.0000
   8.4241E+01   8.6291E+01   0.0000E+00  0.0000
   8.6291E+01   8.8391E+01   0.0000E+00  0.0000
   8.8391E+01   9.0541E+01   0.0000E+00  0.0000
   9.0541E+01   9.2744E+01   0.0000E+00  0.0000
   9.2744E+01   9.5001E+01   0.0000E+00  0.0000
   9.5001E+01   9.7312E+01   0.0000E+00  0.0000
   9.7312E+01   9.9680E+01   0.0000E+00  0.0000
   9.9680E+01   1.0211E+02   0.0000E+00  0.0000
   1.0211E+02   1.0459E+02   0.0000E+00  0.0000
   1.0459E+02   1.0713E+02   0.0000E+00  0.0000
   1.0713E+02   1.0974E+02   0.0000E+00  0.0000
   1.0974E+02   1.1241E+02   0.0000E+00  0.0000
   1.1241E+02   1.1515E+02   0.0000E+00  0.0000
   1.1515E+02   1.1795E+02   0.0000E+00  0.0000
   1.1795E+02   1.2082E+02   0.0000E+00  0.0000
   1.2082E+02   1.2376E+02   0.0000E+00  0.0000
   1.2376E+02   1.2677E+02   0.0000E+00  0.0000
   1.2677E+02   1.2985E+02   0.0000E+00  0.0000
   1.2985E+02   1.3301E+02   0.0000E+00  0.0000
   1.3301E+02   1.3625E+02   0.0000E+00  0.0000
   1.3625E+02   1.3956E+02   0.0000E+00  0.0000
   1.3956E+02   1.4296E+02   0.0000E+00  0.0000
   1.4296E+02   1.4644E+02   0.0000E+00  0.0000
   1.4644E+02   1.5000E+02   0.0000E+00  0.0000

#   sum over                 1.2177E-05
'no. =    1   reg = 125 - 225'
msuc: {\huge [t-cross] in region mesh}
msdr: {\it plotted by \ANGEL \version}
msdl: {\it calculated by \PHITS  3.26}
wt: s(0.7)
\vspace{-3}
  region surface crossing
  area  &=&   1.0000E+00 [cm^2]
e:
 
# Information for Restart Calculation
# This calculation was newly started
# istdev =  2 # 1:Batch variance, 2:History variance
# resc2  = 1.50000000000000000E+09 # Total source weight or Total source weight / maxcas
# resc3  = 1.50000000000000000E+09 # Total history number or Total batch number
# maxcas =   500000000 # History / Batch, only used for istdev=1
# bitrseed = 0000010101110101110110100110011001100101000001100111100100101101 # bit data of rseed
