0 <--- number of remaining batches 

-------------------------------------------------------------------------------
bat[      10] ncas =     5000000000.
 bitrseed = 0100111111101111000100100111100101111100111000110000100001000100
          cpu time = -13.508 s.

 date = 2022-09-19
 time = 09h 12m 16s

-------------------------------------------------------------------------------
next initial random seed:
 bitrseed = 0001101011110000011001100100101010101011111110100001111101011101
