[ T-Cross ]
    title = [t-cross] in region mesh
     mesh =  reg            # mesh type is region-wise
      reg =    1            # number of crossing regions
      non     r-from    r-to       area
      1       116       216        1.000000    
   e-type =    3            # e-mesh is log given by emin, emax and ne
     emin =  1.0000000E-02  # minimum value of e-mesh points
     emax =   150.0000      # maximum value of e-mesh points
#    edel =  2.4039514E-02  # mesh width of e-mesh points
       ne =    400          # number of e-mesh points
#    data = ( e(i), i = 1, ne + 1 )
#           1.00000E-02  1.02433E-02  1.04925E-02  1.07478E-02  1.10093E-02
#           1.12772E-02  1.15516E-02  1.18326E-02  1.21205E-02  1.24154E-02
#           1.27175E-02  1.30269E-02  1.33439E-02  1.36686E-02  1.40011E-02
#           1.43418E-02  1.46907E-02  1.50482E-02  1.54143E-02  1.57894E-02
#           1.61735E-02  1.65670E-02  1.69701E-02  1.73830E-02  1.78060E-02
#           1.82392E-02  1.86830E-02  1.91375E-02  1.96032E-02  2.00801E-02
#           2.05687E-02  2.10692E-02  2.15818E-02  2.21069E-02  2.26448E-02
#           2.31957E-02  2.37601E-02  2.43382E-02  2.49304E-02  2.55369E-02
#           2.61583E-02  2.67947E-02  2.74467E-02  2.81145E-02  2.87985E-02
#           2.94992E-02  3.02169E-02  3.09521E-02  3.17052E-02  3.24766E-02
#           3.32668E-02  3.40762E-02  3.49053E-02  3.57546E-02  3.66246E-02
#           3.75157E-02  3.84284E-02  3.93634E-02  4.03212E-02  4.13022E-02
#           4.23071E-02  4.33365E-02  4.43909E-02  4.54710E-02  4.65773E-02
#           4.77106E-02  4.88714E-02  5.00605E-02  5.12785E-02  5.25262E-02
#           5.38042E-02  5.51133E-02  5.64542E-02  5.78278E-02  5.92348E-02
#           6.06760E-02  6.21523E-02  6.36645E-02  6.52135E-02  6.68002E-02
#           6.84255E-02  7.00904E-02  7.17957E-02  7.35426E-02  7.53319E-02
#           7.71648E-02  7.90423E-02  8.09655E-02  8.29354E-02  8.49533E-02
#           8.70203E-02  8.91376E-02  9.13064E-02  9.35279E-02  9.58035E-02
#           9.81345E-02  1.00522E-01  1.02968E-01  1.05473E-01  1.08040E-01
#           1.10668E-01  1.13361E-01  1.16119E-01  1.18944E-01  1.21838E-01
#           1.24803E-01  1.27839E-01  1.30950E-01  1.34136E-01  1.37399E-01
#           1.40742E-01  1.44167E-01  1.47675E-01  1.51268E-01  1.54948E-01
#           1.58718E-01  1.62580E-01  1.66535E-01  1.70587E-01  1.74738E-01
#           1.78989E-01  1.83344E-01  1.87805E-01  1.92375E-01  1.97055E-01
#           2.01850E-01  2.06761E-01  2.11792E-01  2.16945E-01  2.22223E-01
#           2.27630E-01  2.33169E-01  2.38842E-01  2.44653E-01  2.50605E-01
#           2.56703E-01  2.62949E-01  2.69346E-01  2.75900E-01  2.82613E-01
#           2.89489E-01  2.96532E-01  3.03747E-01  3.11138E-01  3.18708E-01
#           3.26462E-01  3.34405E-01  3.42542E-01  3.50876E-01  3.59413E-01
#           3.68158E-01  3.77116E-01  3.86291E-01  3.95690E-01  4.05317E-01
#           4.15179E-01  4.25281E-01  4.35628E-01  4.46227E-01  4.57084E-01
#           4.68205E-01  4.79597E-01  4.91266E-01  5.03219E-01  5.15463E-01
#           5.28005E-01  5.40851E-01  5.54011E-01  5.67490E-01  5.81298E-01
#           5.95441E-01  6.09929E-01  6.24769E-01  6.39970E-01  6.55541E-01
#           6.71491E-01  6.87828E-01  7.04564E-01  7.21706E-01  7.39266E-01
#           7.57253E-01  7.75678E-01  7.94551E-01  8.13883E-01  8.33685E-01
#           8.53969E-01  8.74747E-01  8.96030E-01  9.17831E-01  9.40163E-01
#           9.63038E-01  9.86469E-01  1.01047E+00  1.03506E+00  1.06024E+00
#           1.08604E+00  1.11246E+00  1.13953E+00  1.16725E+00  1.19565E+00
#           1.22474E+00  1.25454E+00  1.28507E+00  1.31633E+00  1.34836E+00
#           1.38117E+00  1.41477E+00  1.44920E+00  1.48446E+00  1.52057E+00
#           1.55757E+00  1.59547E+00  1.63429E+00  1.67405E+00  1.71478E+00
#           1.75650E+00  1.79924E+00  1.84302E+00  1.88786E+00  1.93379E+00
#           1.98084E+00  2.02904E+00  2.07841E+00  2.12898E+00  2.18078E+00
#           2.23384E+00  2.28819E+00  2.34386E+00  2.40089E+00  2.45930E+00
#           2.51914E+00  2.58043E+00  2.64322E+00  2.70753E+00  2.77341E+00
#           2.84088E+00  2.91001E+00  2.98081E+00  3.05333E+00  3.12762E+00
#           3.20372E+00  3.28167E+00  3.36152E+00  3.44330E+00  3.52708E+00
#           3.61290E+00  3.70080E+00  3.79085E+00  3.88308E+00  3.97756E+00
#           4.07434E+00  4.17347E+00  4.27501E+00  4.37903E+00  4.48557E+00
#           4.59471E+00  4.70650E+00  4.82102E+00  4.93832E+00  5.05847E+00
#           5.18155E+00  5.30762E+00  5.43676E+00  5.56904E+00  5.70453E+00
#           5.84333E+00  5.98550E+00  6.13114E+00  6.28031E+00  6.43312E+00
#           6.58964E+00  6.74997E+00  6.91420E+00  7.08243E+00  7.25475E+00
#           7.43126E+00  7.61207E+00  7.79728E+00  7.98700E+00  8.18133E+00
#           8.38038E+00  8.58428E+00  8.79315E+00  9.00709E+00  9.22624E+00
#           9.45072E+00  9.68067E+00  9.91620E+00  1.01575E+01  1.04046E+01
#           1.06578E+01  1.09171E+01  1.11827E+01  1.14548E+01  1.17335E+01
#           1.20190E+01  1.23114E+01  1.26109E+01  1.29178E+01  1.32321E+01
#           1.35540E+01  1.38838E+01  1.42216E+01  1.45676E+01  1.49221E+01
#           1.52851E+01  1.56570E+01  1.60380E+01  1.64282E+01  1.68279E+01
#           1.72374E+01  1.76568E+01  1.80864E+01  1.85264E+01  1.89772E+01
#           1.94389E+01  1.99119E+01  2.03963E+01  2.08926E+01  2.14009E+01
#           2.19216E+01  2.24550E+01  2.30014E+01  2.35610E+01  2.41343E+01
#           2.47215E+01  2.53230E+01  2.59391E+01  2.65702E+01  2.72167E+01
#           2.78789E+01  2.85572E+01  2.92520E+01  2.99637E+01  3.06928E+01
#           3.14396E+01  3.22045E+01  3.29881E+01  3.37907E+01  3.46128E+01
#           3.54550E+01  3.63177E+01  3.72013E+01  3.81064E+01  3.90336E+01
#           3.99833E+01  4.09561E+01  4.19526E+01  4.29734E+01  4.40189E+01
#           4.50900E+01  4.61870E+01  4.73108E+01  4.84619E+01  4.96410E+01
#           5.08488E+01  5.20860E+01  5.33533E+01  5.46514E+01  5.59812E+01
#           5.73432E+01  5.87384E+01  6.01676E+01  6.16315E+01  6.31311E+01
#           6.46671E+01  6.62405E+01  6.78522E+01  6.95031E+01  7.11941E+01
#           7.29263E+01  7.47007E+01  7.65182E+01  7.83800E+01  8.02870E+01
#           8.22405E+01  8.42414E+01  8.62911E+01  8.83906E+01  9.05412E+01
#           9.27442E+01  9.50007E+01  9.73122E+01  9.96799E+01  1.02105E+02
#           1.04589E+02  1.07134E+02  1.09741E+02  1.12411E+02  1.15146E+02
#           1.17948E+02  1.20817E+02  1.23757E+02  1.26768E+02  1.29852E+02
#           1.33012E+02  1.36248E+02  1.39563E+02  1.42959E+02  1.46437E+02
#           1.50000E+02
     unit =    2            # unit is [1/cm^2/(MeV/n)/source]
     axis =  eng            # axis of output
     file = detector-17.out  # file name of output for the above axis
   output = f-curr          # surface crossing forward current spectrum
     part =  neutron  
# kf/name :  2112     
#    used :        main (  %)        temp (  %)       total (  %)
#  memory :         414 (  0)           0 (  0)         414 (  0)

#------------------------------------------------------------------------------
#newpage:
#   no. =    1   reg = 116 - 216

x: Energy [MeV/n]
y:  F-Curr [1/cm^2/(MeV/n)/source]         
p: xlog ylog afac(0.8) form(0.9)
h: n            x            y(neutron ),hh0l   n 
#  e-lower      e-upper      neutron     r.err 
   1.0000E-02   1.0243E-02   2.0474E-04  0.0831
   1.0243E-02   1.0493E-02   2.1326E-04  0.0803
   1.0493E-02   1.0748E-02   1.9766E-04  0.0824
   1.0748E-02   1.1009E-02   2.3228E-04  0.0752
   1.1009E-02   1.1277E-02   2.1706E-04  0.0769
   1.1277E-02   1.1552E-02   2.0795E-04  0.0776
   1.1552E-02   1.1833E-02   1.9843E-04  0.0784
   1.1833E-02   1.2121E-02   1.8600E-04  0.0800
   1.2121E-02   1.2415E-02   2.1599E-04  0.0732
   1.2415E-02   1.2718E-02   1.8654E-04  0.0780
   1.2718E-02   1.3027E-02   1.9695E-04  0.0750
   1.3027E-02   1.3344E-02   1.9048E-04  0.0754
   1.3344E-02   1.3669E-02   1.7116E-04  0.0784
   1.3669E-02   1.4001E-02   1.8266E-04  0.0752
   1.4001E-02   1.4342E-02   1.6266E-04  0.0787
   1.4342E-02   1.4691E-02   1.7875E-04  0.0742
   1.4691E-02   1.5048E-02   1.5693E-04  0.0783
   1.5048E-02   1.5414E-02   1.4385E-04  0.0807
   1.5414E-02   1.5789E-02   1.5509E-04  0.0769
   1.5789E-02   1.6174E-02   1.4494E-04  0.0785
   1.6174E-02   1.6567E-02   1.5393E-04  0.0754
   1.6567E-02   1.6970E-02   1.3978E-04  0.0781
   1.6970E-02   1.7383E-02   1.4747E-04  0.0752
   1.7383E-02   1.7806E-02   1.2053E-04  0.0822
   1.7806E-02   1.8239E-02   1.2267E-04  0.0804
   1.8239E-02   1.8683E-02   1.3972E-04  0.0743
   1.8683E-02   1.9138E-02   1.2764E-04  0.0769
   1.9138E-02   1.9603E-02   1.3986E-04  0.0726
   1.9603E-02   2.0080E-02   1.2162E-04  0.0767
   2.0080E-02   2.0569E-02   1.2971E-04  0.0736
   2.0569E-02   2.1069E-02   1.2885E-04  0.0730
   2.1069E-02   2.1582E-02   1.1661E-04  0.0756
   2.1582E-02   2.2107E-02   9.6000E-05  0.0825
   2.2107E-02   2.2645E-02   1.2117E-04  0.0726
   2.2645E-02   2.3196E-02   1.1943E-04  0.0722
   2.3196E-02   2.3760E-02   1.0219E-04  0.0771
   2.3760E-02   2.4338E-02   1.0848E-04  0.0739
   2.4338E-02   2.4930E-02   9.7025E-05  0.0772
   2.4930E-02   2.5537E-02   9.3344E-05  0.0779
   2.5537E-02   2.6158E-02   1.1046E-04  0.0706
   2.6158E-02   2.6795E-02   9.9674E-05  0.0734
   2.6795E-02   2.7447E-02   9.3037E-05  0.0751
   2.7447E-02   2.8114E-02   9.6134E-05  0.0732
   2.8114E-02   2.8799E-02   9.8729E-05  0.0714
   2.8799E-02   2.9499E-02   9.3581E-05  0.0723
   2.9499E-02   3.0217E-02   9.3960E-05  0.0713
   3.0217E-02   3.0952E-02   1.0250E-04  0.0674
   3.0952E-02   3.1705E-02   8.9332E-05  0.0715
   3.1705E-02   3.2477E-02   8.8110E-05  0.0710
   3.2477E-02   3.3267E-02   8.2257E-05  0.0726
   3.3267E-02   3.4076E-02   8.4623E-05  0.0708
   3.4076E-02   3.4905E-02   7.6556E-05  0.0733
   3.4905E-02   3.5755E-02   7.5118E-05  0.0733
   3.5755E-02   3.6625E-02   7.7543E-05  0.0712
   3.6625E-02   3.7516E-02   7.4796E-05  0.0718
   3.7516E-02   3.8428E-02   7.2598E-05  0.0720
   3.8428E-02   3.9363E-02   7.3329E-05  0.0707
   3.9363E-02   4.0321E-02   7.1192E-05  0.0709
   4.0321E-02   4.1302E-02   6.7427E-05  0.0720
   4.1302E-02   4.2307E-02   6.3963E-05  0.0729
   4.2307E-02   4.3337E-02   6.8408E-05  0.0697
   4.3337E-02   4.4391E-02   6.3706E-05  0.0715
   4.4391E-02   4.5471E-02   6.0734E-05  0.0723
   4.5471E-02   4.6577E-02   5.8137E-05  0.0730
   4.6577E-02   4.7711E-02   6.2250E-05  0.0698
   4.7711E-02   4.8871E-02   5.7393E-05  0.0718
   4.8871E-02   5.0061E-02   5.3314E-05  0.0736
   5.0061E-02   5.1279E-02   5.4082E-05  0.0721
   5.1279E-02   5.2526E-02   4.7317E-05  0.0763
   5.2526E-02   5.3804E-02   5.8931E-05  0.0675
   5.3804E-02   5.5113E-02   5.1879E-05  0.0710
   5.5113E-02   5.6454E-02   4.5434E-05  0.0750
   5.6454E-02   5.7828E-02   4.7813E-05  0.0724
   5.7828E-02   5.9235E-02   4.8799E-05  0.0706
   5.9235E-02   6.0676E-02   5.5740E-05  0.0652
   6.0676E-02   6.2152E-02   4.8267E-05  0.0694
   6.2152E-02   6.3665E-02   3.7952E-05  0.0773
   6.3665E-02   6.5214E-02   4.2785E-05  0.0720
   6.5214E-02   6.6800E-02   4.6709E-05  0.0681
   6.6800E-02   6.8426E-02   4.9867E-05  0.0651
   6.8426E-02   7.0090E-02   4.6360E-05  0.0667
   7.0090E-02   7.1796E-02   4.4141E-05  0.0675
   7.1796E-02   7.3543E-02   4.3811E-05  0.0669
   7.3543E-02   7.5332E-02   3.5885E-05  0.0731
   7.5332E-02   7.7165E-02   3.7737E-05  0.0704
   7.7165E-02   7.9042E-02   4.1792E-05  0.0660
   7.9042E-02   8.0965E-02   4.1709E-05  0.0655
   8.0965E-02   8.2935E-02   3.8013E-05  0.0677
   8.2935E-02   8.4953E-02   3.7964E-05  0.0669
   8.4953E-02   8.7020E-02   3.5297E-05  0.0686
   8.7020E-02   8.9138E-02   3.8502E-05  0.0649
   8.9138E-02   9.1306E-02   3.7249E-05  0.0651
   9.1306E-02   9.3528E-02   3.4804E-05  0.0666
   9.3528E-02   9.5804E-02   3.5202E-05  0.0655
   9.5804E-02   9.8134E-02   3.6520E-05  0.0635
   9.8134E-02   1.0052E-01   3.3112E-05  0.0658
   1.0052E-01   1.0297E-01   3.3807E-05  0.0644
   1.0297E-01   1.0547E-01   3.4559E-05  0.0629
   1.0547E-01   1.0804E-01   3.6117E-05  0.0609
   1.0804E-01   1.1067E-01   4.1122E-05  0.0563
   1.1067E-01   1.1336E-01   4.4541E-05  0.0535
   1.1336E-01   1.1612E-01   4.0575E-05  0.0554
   1.1612E-01   1.1894E-01   4.4672E-05  0.0522
   1.1894E-01   1.2184E-01   4.7765E-05  0.0498
   1.2184E-01   1.2480E-01   4.7345E-05  0.0494
   1.2480E-01   1.2784E-01   5.0980E-05  0.0471
   1.2784E-01   1.3095E-01   4.7723E-05  0.0481
   1.3095E-01   1.3414E-01   5.2483E-05  0.0453
   1.3414E-01   1.3740E-01   5.5608E-05  0.0434
   1.3740E-01   1.4074E-01   6.0967E-05  0.0410
   1.4074E-01   1.4417E-01   6.0490E-05  0.0407
   1.4417E-01   1.4767E-01   6.3184E-05  0.0394
   1.4767E-01   1.5127E-01   7.0278E-05  0.0369
   1.5127E-01   1.5495E-01   6.7847E-05  0.0371
   1.5495E-01   1.5872E-01   7.0222E-05  0.0360
   1.5872E-01   1.6258E-01   7.2664E-05  0.0350
   1.6258E-01   1.6654E-01   7.9445E-05  0.0330
   1.6654E-01   1.7059E-01   7.9018E-05  0.0328
   1.7059E-01   1.7474E-01   8.1895E-05  0.0318
   1.7474E-01   1.7899E-01   9.0635E-05  0.0298
   1.7899E-01   1.8334E-01   8.2528E-05  0.0309
   1.8334E-01   1.8781E-01   9.3731E-05  0.0287
   1.8781E-01   1.9237E-01   9.6657E-05  0.0279
   1.9237E-01   1.9706E-01   9.9949E-05  0.0271
   1.9706E-01   2.0185E-01   1.0381E-04  0.0263
   2.0185E-01   2.0676E-01   1.0828E-04  0.0254
   2.0676E-01   2.1179E-01   1.1143E-04  0.0247
   2.1179E-01   2.1694E-01   1.1520E-04  0.0240
   2.1694E-01   2.2222E-01   1.2354E-04  0.0229
   2.2222E-01   2.2763E-01   1.2582E-04  0.0225
   2.2763E-01   2.3317E-01   1.2896E-04  0.0219
   2.3317E-01   2.3884E-01   1.2776E-04  0.0218
   2.3884E-01   2.4465E-01   1.3328E-04  0.0210
   2.4465E-01   2.5061E-01   1.3689E-04  0.0205
   2.5061E-01   2.5670E-01   1.4054E-04  0.0200
   2.5670E-01   2.6295E-01   1.5032E-04  0.0191
   2.6295E-01   2.6935E-01   1.5522E-04  0.0186
   2.6935E-01   2.7590E-01   1.5640E-04  0.0183
   2.7590E-01   2.8261E-01   1.5419E-04  0.0182
   2.8261E-01   2.8949E-01   1.6211E-04  0.0175
   2.8949E-01   2.9653E-01   1.6510E-04  0.0172
   2.9653E-01   3.0375E-01   1.7231E-04  0.0166
   3.0375E-01   3.1114E-01   1.8395E-04  0.0159
   3.1114E-01   3.1871E-01   1.7900E-04  0.0159
   3.1871E-01   3.2646E-01   1.8834E-04  0.0153
   3.2646E-01   3.3441E-01   1.8696E-04  0.0152
   3.3441E-01   3.4254E-01   1.8787E-04  0.0150
   3.4254E-01   3.5088E-01   1.9294E-04  0.0146
   3.5088E-01   3.5941E-01   2.0370E-04  0.0140
   3.5941E-01   3.6816E-01   1.9850E-04  0.0141
   3.6816E-01   3.7712E-01   2.0922E-04  0.0135
   3.7712E-01   3.8629E-01   2.1214E-04  0.0133
   3.8629E-01   3.9569E-01   2.1717E-04  0.0130
   3.9569E-01   4.0532E-01   2.2030E-04  0.0127
   4.0532E-01   4.1518E-01   2.2111E-04  0.0125
   4.1518E-01   4.2528E-01   2.2180E-04  0.0124
   4.2528E-01   4.3563E-01   2.2569E-04  0.0121
   4.3563E-01   4.4623E-01   2.2422E-04  0.0120
   4.4623E-01   4.5708E-01   2.2725E-04  0.0118
   4.5708E-01   4.6821E-01   2.3239E-04  0.0115
   4.6821E-01   4.7960E-01   2.3649E-04  0.0113
   4.7960E-01   4.9127E-01   2.3814E-04  0.0111
   4.9127E-01   5.0322E-01   2.3102E-04  0.0111
   5.0322E-01   5.1546E-01   2.3703E-04  0.0109
   5.1546E-01   5.2800E-01   2.3916E-04  0.0107
   5.2800E-01   5.4085E-01   2.4185E-04  0.0105
   5.4085E-01   5.5401E-01   2.4380E-04  0.0103
   5.5401E-01   5.6749E-01   2.4410E-04  0.0102
   5.6749E-01   5.8130E-01   2.4500E-04  0.0101
   5.8130E-01   5.9544E-01   2.4763E-04  0.0099
   5.9544E-01   6.0993E-01   2.5055E-04  0.0097
   6.0993E-01   6.2477E-01   2.4693E-04  0.0097
   6.2477E-01   6.3997E-01   2.4838E-04  0.0095
   6.3997E-01   6.5554E-01   2.5293E-04  0.0093
   6.5554E-01   6.7149E-01   2.4462E-04  0.0094
   6.7149E-01   6.8783E-01   2.4567E-04  0.0092
   6.8783E-01   7.0456E-01   2.4478E-04  0.0091
   7.0456E-01   7.2171E-01   2.4411E-04  0.0090
   7.2171E-01   7.3927E-01   2.3999E-04  0.0090
   7.3927E-01   7.5725E-01   2.3847E-04  0.0089
   7.5725E-01   7.7568E-01   2.4221E-04  0.0088
   7.7568E-01   7.9455E-01   2.3293E-04  0.0088
   7.9455E-01   8.1388E-01   2.3210E-04  0.0087
   8.1388E-01   8.3368E-01   2.3567E-04  0.0086
   8.3368E-01   8.5397E-01   2.3409E-04  0.0085
   8.5397E-01   8.7475E-01   2.2739E-04  0.0085
   8.7475E-01   8.9603E-01   2.2711E-04  0.0084
   8.9603E-01   9.1783E-01   2.2501E-04  0.0083
   9.1783E-01   9.4016E-01   2.2330E-04  0.0083
   9.4016E-01   9.6304E-01   2.1892E-04  0.0082
   9.6304E-01   9.8647E-01   2.1515E-04  0.0082
   9.8647E-01   1.0105E+00   2.0905E-04  0.0082
   1.0105E+00   1.0351E+00   2.0967E-04  0.0081
   1.0351E+00   1.0602E+00   2.0487E-04  0.0081
   1.0602E+00   1.0860E+00   2.0273E-04  0.0081
   1.0860E+00   1.1125E+00   2.0710E-04  0.0079
   1.1125E+00   1.1395E+00   2.0395E-04  0.0078
   1.1395E+00   1.1673E+00   2.0538E-04  0.0077
   1.1673E+00   1.1957E+00   2.0530E-04  0.0076
   1.1957E+00   1.2247E+00   2.0550E-04  0.0075
   1.2247E+00   1.2545E+00   2.0254E-04  0.0075
   1.2545E+00   1.2851E+00   2.0093E-04  0.0074
   1.2851E+00   1.3163E+00   1.9936E-04  0.0073
   1.3163E+00   1.3484E+00   1.9928E-04  0.0072
   1.3484E+00   1.3812E+00   1.9954E-04  0.0071
   1.3812E+00   1.4148E+00   1.9665E-04  0.0071
   1.4148E+00   1.4492E+00   1.9434E-04  0.0071
   1.4492E+00   1.4845E+00   1.9207E-04  0.0070
   1.4845E+00   1.5206E+00   1.9072E-04  0.0069
   1.5206E+00   1.5576E+00   1.8590E-04  0.0069
   1.5576E+00   1.5955E+00   1.8392E-04  0.0069
   1.5955E+00   1.6343E+00   1.8089E-04  0.0068
   1.6343E+00   1.6741E+00   1.7767E-04  0.0068
   1.6741E+00   1.7148E+00   1.7278E-04  0.0068
   1.7148E+00   1.7565E+00   1.7031E-04  0.0068
   1.7565E+00   1.7992E+00   1.6091E-04  0.0069
   1.7992E+00   1.8430E+00   1.5013E-04  0.0070
   1.8430E+00   1.8879E+00   1.3994E-04  0.0072
   1.8879E+00   1.9338E+00   1.3471E-04  0.0072
   1.9338E+00   1.9808E+00   1.3201E-04  0.0072
   1.9808E+00   2.0290E+00   1.2989E-04  0.0071
   2.0290E+00   2.0784E+00   1.2696E-04  0.0071
   2.0784E+00   2.1290E+00   1.2512E-04  0.0071
   2.1290E+00   2.1808E+00   1.2531E-04  0.0070
   2.1808E+00   2.2338E+00   1.2649E-04  0.0069
   2.2338E+00   2.2882E+00   1.2252E-04  0.0069
   2.2882E+00   2.3439E+00   1.1809E-04  0.0070
   2.3439E+00   2.4009E+00   1.1230E-04  0.0071
   2.4009E+00   2.4593E+00   1.0991E-04  0.0070
   2.4593E+00   2.5191E+00   1.0885E-04  0.0070
   2.5191E+00   2.5804E+00   1.0514E-04  0.0070
   2.5804E+00   2.6432E+00   1.0319E-04  0.0070
   2.6432E+00   2.7075E+00   1.0115E-04  0.0070
   2.7075E+00   2.7734E+00   9.7301E-05  0.0071
   2.7734E+00   2.8409E+00   9.4016E-05  0.0071
   2.8409E+00   2.9100E+00   9.1415E-05  0.0071
   2.9100E+00   2.9808E+00   8.9362E-05  0.0071
   2.9808E+00   3.0533E+00   8.8306E-05  0.0071
   3.0533E+00   3.1276E+00   8.4816E-05  0.0072
   3.1276E+00   3.2037E+00   8.3833E-05  0.0071
   3.2037E+00   3.2817E+00   8.2309E-05  0.0071
   3.2817E+00   3.3615E+00   8.0920E-05  0.0071
   3.3615E+00   3.4433E+00   8.0662E-05  0.0070
   3.4433E+00   3.5271E+00   7.9268E-05  0.0070
   3.5271E+00   3.6129E+00   7.8257E-05  0.0069
   3.6129E+00   3.7008E+00   7.7054E-05  0.0069
   3.7008E+00   3.7908E+00   7.6314E-05  0.0069
   3.7908E+00   3.8831E+00   7.4556E-05  0.0069
   3.8831E+00   3.9776E+00   7.3131E-05  0.0069
   3.9776E+00   4.0743E+00   7.2641E-05  0.0068
   4.0743E+00   4.1735E+00   7.0695E-05  0.0068
   4.1735E+00   4.2750E+00   6.8920E-05  0.0068
   4.2750E+00   4.3790E+00   6.7880E-05  0.0068
   4.3790E+00   4.4856E+00   6.6367E-05  0.0068
   4.4856E+00   4.5947E+00   6.5366E-05  0.0068
   4.5947E+00   4.7065E+00   6.3370E-05  0.0068
   4.7065E+00   4.8210E+00   6.1960E-05  0.0068
   4.8210E+00   4.9383E+00   6.1255E-05  0.0068
   4.9383E+00   5.0585E+00   6.0790E-05  0.0067
   5.0585E+00   5.1815E+00   5.9416E-05  0.0067
   5.1815E+00   5.3076E+00   5.8291E-05  0.0067
   5.3076E+00   5.4368E+00   5.6973E-05  0.0067
   5.4368E+00   5.5690E+00   5.6304E-05  0.0066
   5.5690E+00   5.7045E+00   5.4878E-05  0.0067
   5.7045E+00   5.8433E+00   5.3807E-05  0.0066
   5.8433E+00   5.9855E+00   5.2726E-05  0.0066
   5.9855E+00   6.1311E+00   5.1516E-05  0.0066
   6.1311E+00   6.2803E+00   5.0279E-05  0.0066
   6.2803E+00   6.4331E+00   4.9320E-05  0.0066
   6.4331E+00   6.5896E+00   4.7602E-05  0.0067
   6.5896E+00   6.7500E+00   4.6623E-05  0.0067
   6.7500E+00   6.9142E+00   4.5276E-05  0.0067
   6.9142E+00   7.0824E+00   4.3599E-05  0.0068
   7.0824E+00   7.2548E+00   4.2829E-05  0.0067
   7.2548E+00   7.4313E+00   4.1360E-05  0.0068
   7.4313E+00   7.6121E+00   4.0184E-05  0.0068
   7.6121E+00   7.7973E+00   3.8898E-05  0.0068
   7.7973E+00   7.9870E+00   3.7667E-05  0.0069
   7.9870E+00   8.1813E+00   3.5943E-05  0.0069
   8.1813E+00   8.3804E+00   3.5093E-05  0.0070
   8.3804E+00   8.5843E+00   3.3893E-05  0.0070
   8.5843E+00   8.7931E+00   3.2328E-05  0.0071
   8.7931E+00   9.0071E+00   3.1372E-05  0.0071
   9.0071E+00   9.2262E+00   2.9892E-05  0.0072
   9.2262E+00   9.4507E+00   2.8888E-05  0.0072
   9.4507E+00   9.6807E+00   2.7258E-05  0.0074
   9.6807E+00   9.9162E+00   2.6587E-05  0.0074
   9.9162E+00   1.0157E+01   2.6481E-05  0.0073
   1.0157E+01   1.0405E+01   2.5135E-05  0.0074
   1.0405E+01   1.0658E+01   2.4119E-05  0.0075
   1.0658E+01   1.0917E+01   2.2598E-05  0.0077
   1.0917E+01   1.1183E+01   2.1414E-05  0.0078
   1.1183E+01   1.1455E+01   2.0169E-05  0.0079
   1.1455E+01   1.1733E+01   1.9127E-05  0.0080
   1.1733E+01   1.2019E+01   1.8371E-05  0.0081
   1.2019E+01   1.2311E+01   1.7300E-05  0.0082
   1.2311E+01   1.2611E+01   1.6311E-05  0.0084
   1.2611E+01   1.2918E+01   1.5258E-05  0.0086
   1.2918E+01   1.3232E+01   1.4547E-05  0.0087
   1.3232E+01   1.3554E+01   1.3880E-05  0.0088
   1.3554E+01   1.3884E+01   1.2999E-05  0.0090
   1.3884E+01   1.4222E+01   1.2155E-05  0.0092
   1.4222E+01   1.4568E+01   1.1096E-05  0.0095
   1.4568E+01   1.4922E+01   1.0511E-05  0.0096
   1.4922E+01   1.5285E+01   9.7626E-06  0.0099
   1.5285E+01   1.5657E+01   8.8860E-06  0.0102
   1.5657E+01   1.6038E+01   8.2689E-06  0.0105
   1.6038E+01   1.6428E+01   7.5137E-06  0.0108
   1.6428E+01   1.6828E+01   7.0063E-06  0.0111
   1.6828E+01   1.7237E+01   6.2503E-06  0.0116
   1.7237E+01   1.7657E+01   5.7446E-06  0.0120
   1.7657E+01   1.8086E+01   5.5487E-06  0.0120
   1.8086E+01   1.8526E+01   5.5275E-06  0.0119
   1.8526E+01   1.8977E+01   5.1185E-06  0.0122
   1.8977E+01   1.9439E+01   4.4869E-06  0.0129
   1.9439E+01   1.9912E+01   4.1142E-06  0.0133
   1.9912E+01   2.0396E+01   3.6819E-06  0.0139
   2.0396E+01   2.0893E+01   3.2908E-06  0.0145
   2.0893E+01   2.1401E+01   2.9427E-06  0.0152
   2.1401E+01   2.1922E+01   2.5821E-06  0.0160
   2.1922E+01   2.2455E+01   2.1748E-06  0.0172
   2.2455E+01   2.3001E+01   1.8512E-06  0.0185
   2.3001E+01   2.3561E+01   1.5213E-06  0.0201
   2.3561E+01   2.4134E+01   1.3221E-06  0.0213
   2.4134E+01   2.4721E+01   1.0975E-06  0.0231
   2.4721E+01   2.5323E+01   9.2127E-07  0.0249
   2.5323E+01   2.5939E+01   7.6955E-07  0.0270
   2.5939E+01   2.6570E+01   6.4363E-07  0.0291
   2.6570E+01   2.7217E+01   5.6487E-07  0.0307
   2.7217E+01   2.7879E+01   4.6084E-07  0.0336
   2.7879E+01   2.8557E+01   3.7059E-07  0.0370
   2.8557E+01   2.9252E+01   3.1464E-07  0.0397
   2.9252E+01   2.9964E+01   2.3643E-07  0.0453
   2.9964E+01   3.0693E+01   1.8778E-07  0.0502
   3.0693E+01   3.1440E+01   1.1775E-07  0.0626
   3.1440E+01   3.2205E+01   3.8767E-08  0.1078
   3.2205E+01   3.2988E+01   9.6817E-09  0.2132
   3.2988E+01   3.3791E+01   1.0311E-08  0.2041
   3.3791E+01   3.4613E+01   5.0330E-09  0.2887
   3.4613E+01   3.5455E+01   2.8662E-09  0.3780
   3.5455E+01   3.6318E+01   1.1992E-09  0.5774
   3.6318E+01   3.7201E+01   0.0000E+00  0.0000
   3.7201E+01   3.8106E+01   0.0000E+00  0.0000
   3.8106E+01   3.9034E+01   0.0000E+00  0.0000
   3.9034E+01   3.9983E+01   0.0000E+00  0.0000
   3.9983E+01   4.0956E+01   0.0000E+00  0.0000
   4.0956E+01   4.1953E+01   0.0000E+00  0.0000
   4.1953E+01   4.2973E+01   0.0000E+00  0.0000
   4.2973E+01   4.4019E+01   0.0000E+00  0.0000
   4.4019E+01   4.5090E+01   0.0000E+00  0.0000
   4.5090E+01   4.6187E+01   0.0000E+00  0.0000
   4.6187E+01   4.7311E+01   0.0000E+00  0.0000
   4.7311E+01   4.8462E+01   0.0000E+00  0.0000
   4.8462E+01   4.9641E+01   0.0000E+00  0.0000
   4.9641E+01   5.0849E+01   0.0000E+00  0.0000
   5.0849E+01   5.2086E+01   0.0000E+00  0.0000
   5.2086E+01   5.3353E+01   0.0000E+00  0.0000
   5.3353E+01   5.4651E+01   0.0000E+00  0.0000
   5.4651E+01   5.5981E+01   0.0000E+00  0.0000
   5.5981E+01   5.7343E+01   0.0000E+00  0.0000
   5.7343E+01   5.8738E+01   0.0000E+00  0.0000
   5.8738E+01   6.0168E+01   0.0000E+00  0.0000
   6.0168E+01   6.1632E+01   0.0000E+00  0.0000
   6.1632E+01   6.3131E+01   0.0000E+00  0.0000
   6.3131E+01   6.4667E+01   0.0000E+00  0.0000
   6.4667E+01   6.6240E+01   0.0000E+00  0.0000
   6.6240E+01   6.7852E+01   0.0000E+00  0.0000
   6.7852E+01   6.9503E+01   0.0000E+00  0.0000
   6.9503E+01   7.1194E+01   0.0000E+00  0.0000
   7.1194E+01   7.2926E+01   0.0000E+00  0.0000
   7.2926E+01   7.4701E+01   0.0000E+00  0.0000
   7.4701E+01   7.6518E+01   0.0000E+00  0.0000
   7.6518E+01   7.8380E+01   0.0000E+00  0.0000
   7.8380E+01   8.0287E+01   0.0000E+00  0.0000
   8.0287E+01   8.2240E+01   0.0000E+00  0.0000
   8.2240E+01   8.4241E+01   0.0000E+00  0.0000
   8.4241E+01   8.6291E+01   0.0000E+00  0.0000
   8.6291E+01   8.8391E+01   0.0000E+00  0.0000
   8.8391E+01   9.0541E+01   0.0000E+00  0.0000
   9.0541E+01   9.2744E+01   0.0000E+00  0.0000
   9.2744E+01   9.5001E+01   0.0000E+00  0.0000
   9.5001E+01   9.7312E+01   0.0000E+00  0.0000
   9.7312E+01   9.9680E+01   0.0000E+00  0.0000
   9.9680E+01   1.0211E+02   0.0000E+00  0.0000
   1.0211E+02   1.0459E+02   0.0000E+00  0.0000
   1.0459E+02   1.0713E+02   0.0000E+00  0.0000
   1.0713E+02   1.0974E+02   0.0000E+00  0.0000
   1.0974E+02   1.1241E+02   0.0000E+00  0.0000
   1.1241E+02   1.1515E+02   0.0000E+00  0.0000
   1.1515E+02   1.1795E+02   0.0000E+00  0.0000
   1.1795E+02   1.2082E+02   0.0000E+00  0.0000
   1.2082E+02   1.2376E+02   0.0000E+00  0.0000
   1.2376E+02   1.2677E+02   0.0000E+00  0.0000
   1.2677E+02   1.2985E+02   0.0000E+00  0.0000
   1.2985E+02   1.3301E+02   0.0000E+00  0.0000
   1.3301E+02   1.3625E+02   0.0000E+00  0.0000
   1.3625E+02   1.3956E+02   0.0000E+00  0.0000
   1.3956E+02   1.4296E+02   0.0000E+00  0.0000
   1.4296E+02   1.4644E+02   0.0000E+00  0.0000
   1.4644E+02   1.5000E+02   0.0000E+00  0.0000

#   sum over                 6.3851E-06
'no. =    1   reg = 116 - 216'
msuc: {\huge [t-cross] in region mesh}
msdr: {\it plotted by \ANGEL \version}
msdl: {\it calculated by \PHITS  3.26}
wt: s(0.7)
\vspace{-3}
  region surface crossing
  area  &=&   1.0000E+00 [cm^2]
e:
 
# Information for Restart Calculation
# This calculation was newly started
# istdev =  2 # 1:Batch variance, 2:History variance
# resc2  = 2.90000000000000000E+09 # Total source weight or Total source weight / maxcas
# resc3  = 2.90000000000000000E+09 # Total history number or Total batch number
# maxcas =   100000000 # History / Batch, only used for istdev=1
# bitrseed = 1001010110000101011111100111000010011110001100100100010101000100 # bit data of rseed
