[ T-Cross ]
    title = [t-cross] in region mesh
     mesh =  reg            # mesh type is region-wise
      reg =    1            # number of crossing regions
      non     r-from    r-to       area
      1       118       218        1.000000    
   e-type =    3            # e-mesh is log given by emin, emax and ne
     emin =  1.0000000E-02  # minimum value of e-mesh points
     emax =   150.0000      # maximum value of e-mesh points
#    edel =  2.4039514E-02  # mesh width of e-mesh points
       ne =    400          # number of e-mesh points
#    data = ( e(i), i = 1, ne + 1 )
#           1.00000E-02  1.02433E-02  1.04925E-02  1.07478E-02  1.10093E-02
#           1.12772E-02  1.15516E-02  1.18326E-02  1.21205E-02  1.24154E-02
#           1.27175E-02  1.30269E-02  1.33439E-02  1.36686E-02  1.40011E-02
#           1.43418E-02  1.46907E-02  1.50482E-02  1.54143E-02  1.57894E-02
#           1.61735E-02  1.65670E-02  1.69701E-02  1.73830E-02  1.78060E-02
#           1.82392E-02  1.86830E-02  1.91375E-02  1.96032E-02  2.00801E-02
#           2.05687E-02  2.10692E-02  2.15818E-02  2.21069E-02  2.26448E-02
#           2.31957E-02  2.37601E-02  2.43382E-02  2.49304E-02  2.55369E-02
#           2.61583E-02  2.67947E-02  2.74467E-02  2.81145E-02  2.87985E-02
#           2.94992E-02  3.02169E-02  3.09521E-02  3.17052E-02  3.24766E-02
#           3.32668E-02  3.40762E-02  3.49053E-02  3.57546E-02  3.66246E-02
#           3.75157E-02  3.84284E-02  3.93634E-02  4.03212E-02  4.13022E-02
#           4.23071E-02  4.33365E-02  4.43909E-02  4.54710E-02  4.65773E-02
#           4.77106E-02  4.88714E-02  5.00605E-02  5.12785E-02  5.25262E-02
#           5.38042E-02  5.51133E-02  5.64542E-02  5.78278E-02  5.92348E-02
#           6.06760E-02  6.21523E-02  6.36645E-02  6.52135E-02  6.68002E-02
#           6.84255E-02  7.00904E-02  7.17957E-02  7.35426E-02  7.53319E-02
#           7.71648E-02  7.90423E-02  8.09655E-02  8.29354E-02  8.49533E-02
#           8.70203E-02  8.91376E-02  9.13064E-02  9.35279E-02  9.58035E-02
#           9.81345E-02  1.00522E-01  1.02968E-01  1.05473E-01  1.08040E-01
#           1.10668E-01  1.13361E-01  1.16119E-01  1.18944E-01  1.21838E-01
#           1.24803E-01  1.27839E-01  1.30950E-01  1.34136E-01  1.37399E-01
#           1.40742E-01  1.44167E-01  1.47675E-01  1.51268E-01  1.54948E-01
#           1.58718E-01  1.62580E-01  1.66535E-01  1.70587E-01  1.74738E-01
#           1.78989E-01  1.83344E-01  1.87805E-01  1.92375E-01  1.97055E-01
#           2.01850E-01  2.06761E-01  2.11792E-01  2.16945E-01  2.22223E-01
#           2.27630E-01  2.33169E-01  2.38842E-01  2.44653E-01  2.50605E-01
#           2.56703E-01  2.62949E-01  2.69346E-01  2.75900E-01  2.82613E-01
#           2.89489E-01  2.96532E-01  3.03747E-01  3.11138E-01  3.18708E-01
#           3.26462E-01  3.34405E-01  3.42542E-01  3.50876E-01  3.59413E-01
#           3.68158E-01  3.77116E-01  3.86291E-01  3.95690E-01  4.05317E-01
#           4.15179E-01  4.25281E-01  4.35628E-01  4.46227E-01  4.57084E-01
#           4.68205E-01  4.79597E-01  4.91266E-01  5.03219E-01  5.15463E-01
#           5.28005E-01  5.40851E-01  5.54011E-01  5.67490E-01  5.81298E-01
#           5.95441E-01  6.09929E-01  6.24769E-01  6.39970E-01  6.55541E-01
#           6.71491E-01  6.87828E-01  7.04564E-01  7.21706E-01  7.39266E-01
#           7.57253E-01  7.75678E-01  7.94551E-01  8.13883E-01  8.33685E-01
#           8.53969E-01  8.74747E-01  8.96030E-01  9.17831E-01  9.40163E-01
#           9.63038E-01  9.86469E-01  1.01047E+00  1.03506E+00  1.06024E+00
#           1.08604E+00  1.11246E+00  1.13953E+00  1.16725E+00  1.19565E+00
#           1.22474E+00  1.25454E+00  1.28507E+00  1.31633E+00  1.34836E+00
#           1.38117E+00  1.41477E+00  1.44920E+00  1.48446E+00  1.52057E+00
#           1.55757E+00  1.59547E+00  1.63429E+00  1.67405E+00  1.71478E+00
#           1.75650E+00  1.79924E+00  1.84302E+00  1.88786E+00  1.93379E+00
#           1.98084E+00  2.02904E+00  2.07841E+00  2.12898E+00  2.18078E+00
#           2.23384E+00  2.28819E+00  2.34386E+00  2.40089E+00  2.45930E+00
#           2.51914E+00  2.58043E+00  2.64322E+00  2.70753E+00  2.77341E+00
#           2.84088E+00  2.91001E+00  2.98081E+00  3.05333E+00  3.12762E+00
#           3.20372E+00  3.28167E+00  3.36152E+00  3.44330E+00  3.52708E+00
#           3.61290E+00  3.70080E+00  3.79085E+00  3.88308E+00  3.97756E+00
#           4.07434E+00  4.17347E+00  4.27501E+00  4.37903E+00  4.48557E+00
#           4.59471E+00  4.70650E+00  4.82102E+00  4.93832E+00  5.05847E+00
#           5.18155E+00  5.30762E+00  5.43676E+00  5.56904E+00  5.70453E+00
#           5.84333E+00  5.98550E+00  6.13114E+00  6.28031E+00  6.43312E+00
#           6.58964E+00  6.74997E+00  6.91420E+00  7.08243E+00  7.25475E+00
#           7.43126E+00  7.61207E+00  7.79728E+00  7.98700E+00  8.18133E+00
#           8.38038E+00  8.58428E+00  8.79315E+00  9.00709E+00  9.22624E+00
#           9.45072E+00  9.68067E+00  9.91620E+00  1.01575E+01  1.04046E+01
#           1.06578E+01  1.09171E+01  1.11827E+01  1.14548E+01  1.17335E+01
#           1.20190E+01  1.23114E+01  1.26109E+01  1.29178E+01  1.32321E+01
#           1.35540E+01  1.38838E+01  1.42216E+01  1.45676E+01  1.49221E+01
#           1.52851E+01  1.56570E+01  1.60380E+01  1.64282E+01  1.68279E+01
#           1.72374E+01  1.76568E+01  1.80864E+01  1.85264E+01  1.89772E+01
#           1.94389E+01  1.99119E+01  2.03963E+01  2.08926E+01  2.14009E+01
#           2.19216E+01  2.24550E+01  2.30014E+01  2.35610E+01  2.41343E+01
#           2.47215E+01  2.53230E+01  2.59391E+01  2.65702E+01  2.72167E+01
#           2.78789E+01  2.85572E+01  2.92520E+01  2.99637E+01  3.06928E+01
#           3.14396E+01  3.22045E+01  3.29881E+01  3.37907E+01  3.46128E+01
#           3.54550E+01  3.63177E+01  3.72013E+01  3.81064E+01  3.90336E+01
#           3.99833E+01  4.09561E+01  4.19526E+01  4.29734E+01  4.40189E+01
#           4.50900E+01  4.61870E+01  4.73108E+01  4.84619E+01  4.96410E+01
#           5.08488E+01  5.20860E+01  5.33533E+01  5.46514E+01  5.59812E+01
#           5.73432E+01  5.87384E+01  6.01676E+01  6.16315E+01  6.31311E+01
#           6.46671E+01  6.62405E+01  6.78522E+01  6.95031E+01  7.11941E+01
#           7.29263E+01  7.47007E+01  7.65182E+01  7.83800E+01  8.02870E+01
#           8.22405E+01  8.42414E+01  8.62911E+01  8.83906E+01  9.05412E+01
#           9.27442E+01  9.50007E+01  9.73122E+01  9.96799E+01  1.02105E+02
#           1.04589E+02  1.07134E+02  1.09741E+02  1.12411E+02  1.15146E+02
#           1.17948E+02  1.20817E+02  1.23757E+02  1.26768E+02  1.29852E+02
#           1.33012E+02  1.36248E+02  1.39563E+02  1.42959E+02  1.46437E+02
#           1.50000E+02
     unit =    2            # unit is [1/cm^2/(MeV/n)/source]
     axis =  eng            # axis of output
     file = detector-19.out  # file name of output for the above axis
   output = f-curr          # surface crossing forward current spectrum
     part =  neutron  
# kf/name :  2112     
#    used :        main (  %)        temp (  %)       total (  %)
#  memory :         414 (  0)           0 (  0)         414 (  0)

#------------------------------------------------------------------------------
#newpage:
#   no. =    1   reg = 118 - 218

x: Energy [MeV/n]
y:  F-Curr [1/cm^2/(MeV/n)/source]         
p: xlog ylog afac(0.8) form(0.9)
h: n            x            y(neutron ),hh0l   n 
#  e-lower      e-upper      neutron     r.err 
   1.0000E-02   1.0243E-02   2.5690E-04  0.0741
   1.0243E-02   1.0493E-02   2.5295E-04  0.0739
   1.0493E-02   1.0748E-02   2.2005E-04  0.0782
   1.0748E-02   1.1009E-02   2.5012E-04  0.0724
   1.1009E-02   1.1277E-02   2.3038E-04  0.0746
   1.1277E-02   1.1552E-02   2.2145E-04  0.0751
   1.1552E-02   1.1833E-02   2.3745E-04  0.0718
   1.1833E-02   1.2121E-02   1.9950E-04  0.0773
   1.2121E-02   1.2415E-02   2.1010E-04  0.0745
   1.2415E-02   1.2718E-02   2.1051E-04  0.0735
   1.2718E-02   1.3027E-02   1.9893E-04  0.0747
   1.3027E-02   1.3344E-02   2.1533E-04  0.0709
   1.3344E-02   1.3669E-02   1.7407E-04  0.0780
   1.3669E-02   1.4001E-02   2.0390E-04  0.0713
   1.4001E-02   1.4342E-02   1.8177E-04  0.0745
   1.4342E-02   1.4691E-02   1.6213E-04  0.0779
   1.4691E-02   1.5048E-02   1.9834E-04  0.0697
   1.5048E-02   1.5414E-02   1.8071E-04  0.0722
   1.5414E-02   1.5789E-02   1.7996E-04  0.0714
   1.5789E-02   1.6174E-02   1.6858E-04  0.0729
   1.6174E-02   1.6567E-02   1.5315E-04  0.0756
   1.6567E-02   1.6970E-02   1.6554E-04  0.0718
   1.6970E-02   1.7383E-02   1.5532E-04  0.0733
   1.7383E-02   1.7806E-02   1.6831E-04  0.0695
   1.7806E-02   1.8239E-02   1.4008E-04  0.0753
   1.8239E-02   1.8683E-02   1.5737E-04  0.0701
   1.8683E-02   1.9138E-02   1.4835E-04  0.0714
   1.9138E-02   1.9603E-02   1.3334E-04  0.0743
   1.9603E-02   2.0080E-02   1.5221E-04  0.0688
   2.0080E-02   2.0569E-02   1.2737E-04  0.0743
   2.0569E-02   2.1069E-02   1.4917E-04  0.0679
   2.1069E-02   2.1582E-02   1.2109E-04  0.0745
   2.1582E-02   2.2107E-02   1.3574E-04  0.0695
   2.2107E-02   2.2645E-02   1.1473E-04  0.0747
   2.2645E-02   2.3196E-02   1.2352E-04  0.0711
   2.3196E-02   2.3760E-02   1.2498E-04  0.0699
   2.3760E-02   2.4338E-02   1.0096E-04  0.0767
   2.4338E-02   2.4930E-02   1.0926E-04  0.0729
   2.4930E-02   2.5537E-02   1.0428E-04  0.0738
   2.5537E-02   2.6158E-02   1.0800E-04  0.0716
   2.6158E-02   2.6795E-02   1.0590E-04  0.0714
   2.6795E-02   2.7447E-02   1.1147E-04  0.0688
   2.7447E-02   2.8114E-02   1.0260E-04  0.0708
   2.8114E-02   2.8799E-02   8.9665E-05  0.0749
   2.8799E-02   2.9499E-02   1.0163E-04  0.0695
   2.9499E-02   3.0217E-02   9.3193E-05  0.0716
   3.0217E-02   3.0952E-02   9.6995E-05  0.0694
   3.0952E-02   3.1705E-02   8.9408E-05  0.0714
   3.1705E-02   3.2477E-02   9.2907E-05  0.0693
   3.2477E-02   3.3267E-02   8.6221E-05  0.0711
   3.3267E-02   3.4076E-02   8.2486E-05  0.0718
   3.4076E-02   3.4905E-02   9.0722E-05  0.0676
   3.4905E-02   3.5755E-02   8.3607E-05  0.0696
   3.5755E-02   3.6625E-02   7.5435E-05  0.0723
   3.6625E-02   3.7516E-02   7.3509E-05  0.0724
   3.7516E-02   3.8428E-02   7.0519E-05  0.0731
   3.8428E-02   3.9363E-02   7.5137E-05  0.0699
   3.9363E-02   4.0321E-02   6.4326E-05  0.0748
   4.0321E-02   4.1302E-02   6.6649E-05  0.0726
   4.1302E-02   4.2307E-02   6.7286E-05  0.0711
   4.2307E-02   4.3337E-02   6.1924E-05  0.0735
   4.3337E-02   4.4391E-02   6.2385E-05  0.0724
   4.4391E-02   4.5471E-02   6.1883E-05  0.0718
   4.5471E-02   4.6577E-02   6.5261E-05  0.0690
   4.6577E-02   4.7711E-02   6.8914E-05  0.0664
   4.7711E-02   4.8871E-02   5.3430E-05  0.0745
   4.8871E-02   5.0061E-02   6.7166E-05  0.0657
   5.0061E-02   5.1279E-02   5.6965E-05  0.0704
   5.1279E-02   5.2526E-02   5.8987E-05  0.0683
   5.2526E-02   5.3804E-02   6.3889E-05  0.0648
   5.3804E-02   5.5113E-02   5.3913E-05  0.0697
   5.5113E-02   5.6454E-02   5.2772E-05  0.0697
   5.6454E-02   5.7828E-02   4.9099E-05  0.0714
   5.7828E-02   5.9235E-02   5.0801E-05  0.0694
   5.9235E-02   6.0676E-02   4.9545E-05  0.0694
   6.0676E-02   6.2152E-02   5.0814E-05  0.0677
   6.2152E-02   6.3665E-02   4.8388E-05  0.0685
   6.3665E-02   6.5214E-02   4.7802E-05  0.0681
   6.5214E-02   6.6800E-02   4.9155E-05  0.0664
   6.6800E-02   6.8426E-02   4.9506E-05  0.0653
   6.8426E-02   7.0090E-02   4.7390E-05  0.0660
   7.0090E-02   7.1796E-02   4.0242E-05  0.0707
   7.1796E-02   7.3543E-02   4.8915E-05  0.0634
   7.3543E-02   7.5332E-02   4.3309E-05  0.0665
   7.5332E-02   7.7165E-02   3.8491E-05  0.0697
   7.7165E-02   7.9042E-02   3.9200E-05  0.0683
   7.9042E-02   8.0965E-02   3.9959E-05  0.0669
   8.0965E-02   8.2935E-02   4.0653E-05  0.0655
   8.2935E-02   8.4953E-02   3.8796E-05  0.0663
   8.4953E-02   8.7020E-02   3.7409E-05  0.0667
   8.7020E-02   8.9138E-02   3.5980E-05  0.0671
   8.9138E-02   9.1306E-02   4.0620E-05  0.0625
   9.1306E-02   9.3528E-02   3.5590E-05  0.0659
   9.3528E-02   9.5804E-02   3.4621E-05  0.0661
   9.5804E-02   9.8134E-02   3.5285E-05  0.0647
   9.8134E-02   1.0052E-01   3.4451E-05  0.0647
   1.0052E-01   1.0297E-01   3.6345E-05  0.0621
   1.0297E-01   1.0547E-01   3.6832E-05  0.0611
   1.0547E-01   1.0804E-01   3.7478E-05  0.0598
   1.0804E-01   1.1067E-01   4.0205E-05  0.0570
   1.1067E-01   1.1336E-01   3.6200E-05  0.0594
   1.1336E-01   1.1612E-01   4.3873E-05  0.0533
   1.1612E-01   1.1894E-01   4.3013E-05  0.0532
   1.1894E-01   1.2184E-01   4.4305E-05  0.0518
   1.2184E-01   1.2480E-01   4.5437E-05  0.0505
   1.2480E-01   1.2784E-01   4.6815E-05  0.0491
   1.2784E-01   1.3095E-01   4.6204E-05  0.0489
   1.3095E-01   1.3414E-01   5.1943E-05  0.0456
   1.3414E-01   1.3740E-01   5.4221E-05  0.0441
   1.3740E-01   1.4074E-01   5.4501E-05  0.0434
   1.4074E-01   1.4417E-01   6.1606E-05  0.0404
   1.4417E-01   1.4767E-01   6.4285E-05  0.0390
   1.4767E-01   1.5127E-01   6.1367E-05  0.0395
   1.5127E-01   1.5495E-01   6.4026E-05  0.0382
   1.5495E-01   1.5872E-01   6.7953E-05  0.0366
   1.5872E-01   1.6258E-01   6.9591E-05  0.0358
   1.6258E-01   1.6654E-01   6.9801E-05  0.0353
   1.6654E-01   1.7059E-01   7.0597E-05  0.0346
   1.7059E-01   1.7474E-01   7.8020E-05  0.0326
   1.7474E-01   1.7899E-01   7.9448E-05  0.0319
   1.7899E-01   1.8334E-01   8.3132E-05  0.0308
   1.8334E-01   1.8781E-01   8.4152E-05  0.0303
   1.8781E-01   1.9237E-01   8.2120E-05  0.0303
   1.9237E-01   1.9706E-01   8.6101E-05  0.0292
   1.9706E-01   2.0185E-01   9.1947E-05  0.0279
   2.0185E-01   2.0676E-01   9.7181E-05  0.0268
   2.0676E-01   2.1179E-01   9.4538E-05  0.0269
   2.1179E-01   2.1694E-01   9.5894E-05  0.0264
   2.1694E-01   2.2222E-01   9.7953E-05  0.0258
   2.2222E-01   2.2763E-01   1.0368E-04  0.0248
   2.2763E-01   2.3317E-01   1.0662E-04  0.0241
   2.3317E-01   2.3884E-01   1.0296E-04  0.0242
   2.3884E-01   2.4465E-01   1.1267E-04  0.0229
   2.4465E-01   2.5061E-01   1.0940E-04  0.0230
   2.5061E-01   2.5670E-01   1.1152E-04  0.0225
   2.5670E-01   2.6295E-01   1.1548E-04  0.0218
   2.6295E-01   2.6935E-01   1.2241E-04  0.0209
   2.6935E-01   2.7590E-01   1.2517E-04  0.0205
   2.7590E-01   2.8261E-01   1.2513E-04  0.0202
   2.8261E-01   2.8949E-01   1.2316E-04  0.0201
   2.8949E-01   2.9653E-01   1.2614E-04  0.0197
   2.9653E-01   3.0375E-01   1.2885E-04  0.0192
   3.0375E-01   3.1114E-01   1.3318E-04  0.0187
   3.1114E-01   3.1871E-01   1.3374E-04  0.0184
   3.1871E-01   3.2646E-01   1.3839E-04  0.0179
   3.2646E-01   3.3441E-01   1.3618E-04  0.0178
   3.3441E-01   3.4254E-01   1.3809E-04  0.0175
   3.4254E-01   3.5088E-01   1.4391E-04  0.0169
   3.5088E-01   3.5941E-01   1.4058E-04  0.0169
   3.5941E-01   3.6816E-01   1.4995E-04  0.0162
   3.6816E-01   3.7712E-01   1.4589E-04  0.0162
   3.7712E-01   3.8629E-01   1.4924E-04  0.0158
   3.8629E-01   3.9569E-01   1.5221E-04  0.0155
   3.9569E-01   4.0532E-01   1.5439E-04  0.0152
   4.0532E-01   4.1518E-01   1.5444E-04  0.0150
   4.1518E-01   4.2528E-01   1.5158E-04  0.0150
   4.2528E-01   4.3563E-01   1.5170E-04  0.0148
   4.3563E-01   4.4623E-01   1.5488E-04  0.0145
   4.4623E-01   4.5708E-01   1.5453E-04  0.0143
   4.5708E-01   4.6821E-01   1.5481E-04  0.0141
   4.6821E-01   4.7960E-01   1.6037E-04  0.0137
   4.7960E-01   4.9127E-01   1.6038E-04  0.0135
   4.9127E-01   5.0322E-01   1.6066E-04  0.0134
   5.0322E-01   5.1546E-01   1.6306E-04  0.0131
   5.1546E-01   5.2800E-01   1.5939E-04  0.0131
   5.2800E-01   5.4085E-01   1.6093E-04  0.0129
   5.4085E-01   5.5401E-01   1.6237E-04  0.0127
   5.5401E-01   5.6749E-01   1.6367E-04  0.0125
   5.6749E-01   5.8130E-01   1.6295E-04  0.0123
   5.8130E-01   5.9544E-01   1.6309E-04  0.0122
   5.9544E-01   6.0993E-01   1.6249E-04  0.0121
   6.0993E-01   6.2477E-01   1.6383E-04  0.0119
   6.2477E-01   6.3997E-01   1.6287E-04  0.0118
   6.3997E-01   6.5554E-01   1.6122E-04  0.0117
   6.5554E-01   6.7149E-01   1.6116E-04  0.0115
   6.7149E-01   6.8783E-01   1.5884E-04  0.0115
   6.8783E-01   7.0456E-01   1.6128E-04  0.0113
   7.0456E-01   7.2171E-01   1.5782E-04  0.0112
   7.2171E-01   7.3927E-01   1.5823E-04  0.0111
   7.3927E-01   7.5725E-01   1.5559E-04  0.0111
   7.5725E-01   7.7568E-01   1.5150E-04  0.0111
   7.7568E-01   7.9455E-01   1.5547E-04  0.0108
   7.9455E-01   8.1388E-01   1.5010E-04  0.0108
   8.1388E-01   8.3368E-01   1.5055E-04  0.0107
   8.3368E-01   8.5397E-01   1.4972E-04  0.0106
   8.5397E-01   8.7475E-01   1.4714E-04  0.0106
   8.7475E-01   8.9603E-01   1.4590E-04  0.0105
   8.9603E-01   9.1783E-01   1.4298E-04  0.0105
   9.1783E-01   9.4016E-01   1.4096E-04  0.0104
   9.4016E-01   9.6304E-01   1.3779E-04  0.0104
   9.6304E-01   9.8647E-01   1.3616E-04  0.0103
   9.8647E-01   1.0105E+00   1.3407E-04  0.0103
   1.0105E+00   1.0351E+00   1.2872E-04  0.0104
   1.0351E+00   1.0602E+00   1.2915E-04  0.0102
   1.0602E+00   1.0860E+00   1.2989E-04  0.0101
   1.0860E+00   1.1125E+00   1.2953E-04  0.0099
   1.1125E+00   1.1395E+00   1.3124E-04  0.0097
   1.1395E+00   1.1673E+00   1.2902E-04  0.0097
   1.1673E+00   1.1957E+00   1.3024E-04  0.0095
   1.1957E+00   1.2247E+00   1.2933E-04  0.0094
   1.2247E+00   1.2545E+00   1.2721E-04  0.0094
   1.2545E+00   1.2851E+00   1.2771E-04  0.0093
   1.2851E+00   1.3163E+00   1.2318E-04  0.0093
   1.3163E+00   1.3484E+00   1.2427E-04  0.0091
   1.3484E+00   1.3812E+00   1.2223E-04  0.0091
   1.3812E+00   1.4148E+00   1.2201E-04  0.0090
   1.4148E+00   1.4492E+00   1.1892E-04  0.0090
   1.4492E+00   1.4845E+00   1.1840E-04  0.0089
   1.4845E+00   1.5206E+00   1.1821E-04  0.0088
   1.5206E+00   1.5576E+00   1.1798E-04  0.0087
   1.5576E+00   1.5955E+00   1.1382E-04  0.0087
   1.5955E+00   1.6343E+00   1.1257E-04  0.0086
   1.6343E+00   1.6741E+00   1.1064E-04  0.0086
   1.6741E+00   1.7148E+00   1.0876E-04  0.0085
   1.7148E+00   1.7565E+00   1.0542E-04  0.0086
   1.7565E+00   1.7992E+00   9.7710E-05  0.0088
   1.7992E+00   1.8430E+00   9.3936E-05  0.0088
   1.8430E+00   1.8879E+00   8.6070E-05  0.0091
   1.8879E+00   1.9338E+00   8.5143E-05  0.0090
   1.9338E+00   1.9808E+00   8.0970E-05  0.0091
   1.9808E+00   2.0290E+00   7.8532E-05  0.0091
   2.0290E+00   2.0784E+00   7.7271E-05  0.0091
   2.0784E+00   2.1290E+00   7.7204E-05  0.0090
   2.1290E+00   2.1808E+00   7.8061E-05  0.0088
   2.1808E+00   2.2338E+00   7.6496E-05  0.0088
   2.2338E+00   2.2882E+00   7.6131E-05  0.0087
   2.2882E+00   2.3439E+00   7.2255E-05  0.0088
   2.3439E+00   2.4009E+00   7.0126E-05  0.0089
   2.4009E+00   2.4593E+00   6.9297E-05  0.0088
   2.4593E+00   2.5191E+00   6.7142E-05  0.0089
   2.5191E+00   2.5804E+00   6.7188E-05  0.0087
   2.5804E+00   2.6432E+00   6.4515E-05  0.0088
   2.6432E+00   2.7075E+00   6.3738E-05  0.0088
   2.7075E+00   2.7734E+00   6.1950E-05  0.0088
   2.7734E+00   2.8409E+00   5.9992E-05  0.0088
   2.8409E+00   2.9100E+00   5.7986E-05  0.0089
   2.9100E+00   2.9808E+00   5.6276E-05  0.0089
   2.9808E+00   3.0533E+00   5.5893E-05  0.0089
   3.0533E+00   3.1276E+00   5.3903E-05  0.0089
   3.1276E+00   3.2037E+00   5.4249E-05  0.0088
   3.2037E+00   3.2817E+00   5.2605E-05  0.0088
   3.2817E+00   3.3615E+00   5.2202E-05  0.0088
   3.3615E+00   3.4433E+00   5.2628E-05  0.0087
   3.4433E+00   3.5271E+00   5.1409E-05  0.0087
   3.5271E+00   3.6129E+00   5.1789E-05  0.0085
   3.6129E+00   3.7008E+00   5.1221E-05  0.0085
   3.7008E+00   3.7908E+00   4.9946E-05  0.0085
   3.7908E+00   3.8831E+00   4.8521E-05  0.0085
   3.8831E+00   3.9776E+00   4.8364E-05  0.0084
   3.9776E+00   4.0743E+00   4.7316E-05  0.0084
   4.0743E+00   4.1735E+00   4.5649E-05  0.0085
   4.1735E+00   4.2750E+00   4.5547E-05  0.0084
   4.2750E+00   4.3790E+00   4.4147E-05  0.0084
   4.3790E+00   4.4856E+00   4.3596E-05  0.0084
   4.4856E+00   4.5947E+00   4.2483E-05  0.0084
   4.5947E+00   4.7065E+00   4.1570E-05  0.0084
   4.7065E+00   4.8210E+00   4.0703E-05  0.0084
   4.8210E+00   4.9383E+00   4.0749E-05  0.0083
   4.9383E+00   5.0585E+00   3.9619E-05  0.0083
   5.0585E+00   5.1815E+00   3.8406E-05  0.0083
   5.1815E+00   5.3076E+00   3.7483E-05  0.0083
   5.3076E+00   5.4368E+00   3.6878E-05  0.0083
   5.4368E+00   5.5690E+00   3.6215E-05  0.0083
   5.5690E+00   5.7045E+00   3.5434E-05  0.0083
   5.7045E+00   5.8433E+00   3.3821E-05  0.0084
   5.8433E+00   5.9855E+00   3.3289E-05  0.0084
   5.9855E+00   6.1311E+00   3.2938E-05  0.0083
   6.1311E+00   6.2803E+00   3.1566E-05  0.0084
   6.2803E+00   6.4331E+00   3.0626E-05  0.0084
   6.4331E+00   6.5896E+00   3.0095E-05  0.0084
   6.5896E+00   6.7500E+00   2.9226E-05  0.0085
   6.7500E+00   6.9142E+00   2.8491E-05  0.0085
   6.9142E+00   7.0824E+00   2.7681E-05  0.0085
   7.0824E+00   7.2548E+00   2.7056E-05  0.0085
   7.2548E+00   7.4313E+00   2.5387E-05  0.0087
   7.4313E+00   7.6121E+00   2.4684E-05  0.0087
   7.6121E+00   7.7973E+00   2.4431E-05  0.0086
   7.7973E+00   7.9870E+00   2.3602E-05  0.0087
   7.9870E+00   8.1813E+00   2.2717E-05  0.0088
   8.1813E+00   8.3804E+00   2.1392E-05  0.0089
   8.3804E+00   8.5843E+00   2.0786E-05  0.0089
   8.5843E+00   8.7931E+00   1.9957E-05  0.0090
   8.7931E+00   9.0071E+00   1.9432E-05  0.0090
   9.0071E+00   9.2262E+00   1.8499E-05  0.0092
   9.2262E+00   9.4507E+00   1.7742E-05  0.0092
   9.4507E+00   9.6807E+00   1.6715E-05  0.0094
   9.6807E+00   9.9162E+00   1.6160E-05  0.0095
   9.9162E+00   1.0157E+01   1.6185E-05  0.0094
   1.0157E+01   1.0405E+01   1.5086E-05  0.0096
   1.0405E+01   1.0658E+01   1.4378E-05  0.0097
   1.0658E+01   1.0917E+01   1.3475E-05  0.0099
   1.0917E+01   1.1183E+01   1.2966E-05  0.0100
   1.1183E+01   1.1455E+01   1.2255E-05  0.0102
   1.1455E+01   1.1733E+01   1.1413E-05  0.0104
   1.1733E+01   1.2019E+01   1.1065E-05  0.0104
   1.2019E+01   1.2311E+01   1.0195E-05  0.0107
   1.2311E+01   1.2611E+01   9.7412E-06  0.0109
   1.2611E+01   1.2918E+01   8.7842E-06  0.0113
   1.2918E+01   1.3232E+01   8.4016E-06  0.0114
   1.3232E+01   1.3554E+01   7.6802E-06  0.0118
   1.3554E+01   1.3884E+01   7.1594E-06  0.0121
   1.3884E+01   1.4222E+01   6.7283E-06  0.0123
   1.4222E+01   1.4568E+01   6.0906E-06  0.0128
   1.4568E+01   1.4922E+01   5.7892E-06  0.0130
   1.4922E+01   1.5285E+01   5.1780E-06  0.0135
   1.5285E+01   1.5657E+01   4.8189E-06  0.0139
   1.5657E+01   1.6038E+01   4.3612E-06  0.0144
   1.6038E+01   1.6428E+01   4.0517E-06  0.0148
   1.6428E+01   1.6828E+01   3.5876E-06  0.0155
   1.6828E+01   1.7237E+01   3.3539E-06  0.0158
   1.7237E+01   1.7657E+01   3.0349E-06  0.0165
   1.7657E+01   1.8086E+01   2.6841E-06  0.0173
   1.8086E+01   1.8526E+01   2.3855E-06  0.0181
   1.8526E+01   1.8977E+01   2.1412E-06  0.0189
   1.8977E+01   1.9439E+01   1.8588E-06  0.0200
   1.9439E+01   1.9912E+01   1.6229E-06  0.0212
   1.9912E+01   2.0396E+01   1.4257E-06  0.0223
   2.0396E+01   2.0893E+01   1.2243E-06  0.0238
   2.0893E+01   2.1401E+01   9.7072E-07  0.0264
   2.1401E+01   2.1922E+01   8.4568E-07  0.0280
   2.1922E+01   2.2455E+01   6.4845E-07  0.0316
   2.2455E+01   2.3001E+01   5.3837E-07  0.0342
   2.3001E+01   2.3561E+01   4.5041E-07  0.0370
   2.3561E+01   2.4134E+01   3.6633E-07  0.0405
   2.4134E+01   2.4721E+01   2.9890E-07  0.0443
   2.4721E+01   2.5323E+01   2.2301E-07  0.0507
   2.5323E+01   2.5939E+01   1.7070E-07  0.0573
   2.5939E+01   2.6570E+01   1.2621E-07  0.0658
   2.6570E+01   2.7217E+01   1.1788E-07  0.0673
   2.7217E+01   2.7879E+01   8.0713E-08  0.0803
   2.7879E+01   2.8557E+01   5.6936E-08  0.0945
   2.8557E+01   2.9252E+01   1.2407E-08  0.2000
   2.9252E+01   2.9964E+01   8.7209E-09  0.2357
   2.9964E+01   3.0693E+01   5.2029E-09  0.3015
   3.0693E+01   3.1440E+01   9.2351E-10  0.7071
   3.1440E+01   3.2205E+01   1.3524E-09  0.5774
   3.2205E+01   3.2988E+01   0.0000E+00  0.0000
   3.2988E+01   3.3791E+01   0.0000E+00  0.0000
   3.3791E+01   3.4613E+01   0.0000E+00  0.0000
   3.4613E+01   3.5455E+01   0.0000E+00  0.0000
   3.5455E+01   3.6318E+01   0.0000E+00  0.0000
   3.6318E+01   3.7201E+01   0.0000E+00  0.0000
   3.7201E+01   3.8106E+01   0.0000E+00  0.0000
   3.8106E+01   3.9034E+01   0.0000E+00  0.0000
   3.9034E+01   3.9983E+01   0.0000E+00  0.0000
   3.9983E+01   4.0956E+01   0.0000E+00  0.0000
   4.0956E+01   4.1953E+01   0.0000E+00  0.0000
   4.1953E+01   4.2973E+01   0.0000E+00  0.0000
   4.2973E+01   4.4019E+01   0.0000E+00  0.0000
   4.4019E+01   4.5090E+01   0.0000E+00  0.0000
   4.5090E+01   4.6187E+01   0.0000E+00  0.0000
   4.6187E+01   4.7311E+01   0.0000E+00  0.0000
   4.7311E+01   4.8462E+01   0.0000E+00  0.0000
   4.8462E+01   4.9641E+01   0.0000E+00  0.0000
   4.9641E+01   5.0849E+01   0.0000E+00  0.0000
   5.0849E+01   5.2086E+01   0.0000E+00  0.0000
   5.2086E+01   5.3353E+01   0.0000E+00  0.0000
   5.3353E+01   5.4651E+01   0.0000E+00  0.0000
   5.4651E+01   5.5981E+01   0.0000E+00  0.0000
   5.5981E+01   5.7343E+01   0.0000E+00  0.0000
   5.7343E+01   5.8738E+01   0.0000E+00  0.0000
   5.8738E+01   6.0168E+01   0.0000E+00  0.0000
   6.0168E+01   6.1632E+01   0.0000E+00  0.0000
   6.1632E+01   6.3131E+01   0.0000E+00  0.0000
   6.3131E+01   6.4667E+01   0.0000E+00  0.0000
   6.4667E+01   6.6240E+01   0.0000E+00  0.0000
   6.6240E+01   6.7852E+01   0.0000E+00  0.0000
   6.7852E+01   6.9503E+01   0.0000E+00  0.0000
   6.9503E+01   7.1194E+01   0.0000E+00  0.0000
   7.1194E+01   7.2926E+01   0.0000E+00  0.0000
   7.2926E+01   7.4701E+01   0.0000E+00  0.0000
   7.4701E+01   7.6518E+01   0.0000E+00  0.0000
   7.6518E+01   7.8380E+01   0.0000E+00  0.0000
   7.8380E+01   8.0287E+01   0.0000E+00  0.0000
   8.0287E+01   8.2240E+01   0.0000E+00  0.0000
   8.2240E+01   8.4241E+01   0.0000E+00  0.0000
   8.4241E+01   8.6291E+01   0.0000E+00  0.0000
   8.6291E+01   8.8391E+01   0.0000E+00  0.0000
   8.8391E+01   9.0541E+01   0.0000E+00  0.0000
   9.0541E+01   9.2744E+01   0.0000E+00  0.0000
   9.2744E+01   9.5001E+01   0.0000E+00  0.0000
   9.5001E+01   9.7312E+01   0.0000E+00  0.0000
   9.7312E+01   9.9680E+01   0.0000E+00  0.0000
   9.9680E+01   1.0211E+02   0.0000E+00  0.0000
   1.0211E+02   1.0459E+02   0.0000E+00  0.0000
   1.0459E+02   1.0713E+02   0.0000E+00  0.0000
   1.0713E+02   1.0974E+02   0.0000E+00  0.0000
   1.0974E+02   1.1241E+02   0.0000E+00  0.0000
   1.1241E+02   1.1515E+02   0.0000E+00  0.0000
   1.1515E+02   1.1795E+02   0.0000E+00  0.0000
   1.1795E+02   1.2082E+02   0.0000E+00  0.0000
   1.2082E+02   1.2376E+02   0.0000E+00  0.0000
   1.2376E+02   1.2677E+02   0.0000E+00  0.0000
   1.2677E+02   1.2985E+02   0.0000E+00  0.0000
   1.2985E+02   1.3301E+02   0.0000E+00  0.0000
   1.3301E+02   1.3625E+02   0.0000E+00  0.0000
   1.3625E+02   1.3956E+02   0.0000E+00  0.0000
   1.3956E+02   1.4296E+02   0.0000E+00  0.0000
   1.4296E+02   1.4644E+02   0.0000E+00  0.0000
   1.4644E+02   1.5000E+02   0.0000E+00  0.0000

#   sum over                 4.0277E-06
'no. =    1   reg = 118 - 218'
msuc: {\huge [t-cross] in region mesh}
msdr: {\it plotted by \ANGEL \version}
msdl: {\it calculated by \PHITS  3.26}
wt: s(0.7)
\vspace{-3}
  region surface crossing
  area  &=&   1.0000E+00 [cm^2]
e:
 
# Information for Restart Calculation
# This calculation was newly started
# istdev =  2 # 1:Batch variance, 2:History variance
# resc2  = 2.90000000000000000E+09 # Total source weight or Total source weight / maxcas
# resc3  = 2.90000000000000000E+09 # Total history number or Total batch number
# maxcas =   100000000 # History / Batch, only used for istdev=1
# bitrseed = 1001010110000101011111100111000010011110001100100100010101000100 # bit data of rseed
