[ T-Cross ]
    title = [t-cross] in region mesh
     mesh =  reg            # mesh type is region-wise
      reg =    1            # number of crossing regions
      non     r-from    r-to       area
      1       107       207        1.000000    
   e-type =    3            # e-mesh is log given by emin, emax and ne
     emin =  1.0000000E-02  # minimum value of e-mesh points
     emax =   150.0000      # maximum value of e-mesh points
#    edel =  2.4039514E-02  # mesh width of e-mesh points
       ne =    400          # number of e-mesh points
#    data = ( e(i), i = 1, ne + 1 )
#           1.00000E-02  1.02433E-02  1.04925E-02  1.07478E-02  1.10093E-02
#           1.12772E-02  1.15516E-02  1.18326E-02  1.21205E-02  1.24154E-02
#           1.27175E-02  1.30269E-02  1.33439E-02  1.36686E-02  1.40011E-02
#           1.43418E-02  1.46907E-02  1.50482E-02  1.54143E-02  1.57894E-02
#           1.61735E-02  1.65670E-02  1.69701E-02  1.73830E-02  1.78060E-02
#           1.82392E-02  1.86830E-02  1.91375E-02  1.96032E-02  2.00801E-02
#           2.05687E-02  2.10692E-02  2.15818E-02  2.21069E-02  2.26448E-02
#           2.31957E-02  2.37601E-02  2.43382E-02  2.49304E-02  2.55369E-02
#           2.61583E-02  2.67947E-02  2.74467E-02  2.81145E-02  2.87985E-02
#           2.94992E-02  3.02169E-02  3.09521E-02  3.17052E-02  3.24766E-02
#           3.32668E-02  3.40762E-02  3.49053E-02  3.57546E-02  3.66246E-02
#           3.75157E-02  3.84284E-02  3.93634E-02  4.03212E-02  4.13022E-02
#           4.23071E-02  4.33365E-02  4.43909E-02  4.54710E-02  4.65773E-02
#           4.77106E-02  4.88714E-02  5.00605E-02  5.12785E-02  5.25262E-02
#           5.38042E-02  5.51133E-02  5.64542E-02  5.78278E-02  5.92348E-02
#           6.06760E-02  6.21523E-02  6.36645E-02  6.52135E-02  6.68002E-02
#           6.84255E-02  7.00904E-02  7.17957E-02  7.35426E-02  7.53319E-02
#           7.71648E-02  7.90423E-02  8.09655E-02  8.29354E-02  8.49533E-02
#           8.70203E-02  8.91376E-02  9.13064E-02  9.35279E-02  9.58035E-02
#           9.81345E-02  1.00522E-01  1.02968E-01  1.05473E-01  1.08040E-01
#           1.10668E-01  1.13361E-01  1.16119E-01  1.18944E-01  1.21838E-01
#           1.24803E-01  1.27839E-01  1.30950E-01  1.34136E-01  1.37399E-01
#           1.40742E-01  1.44167E-01  1.47675E-01  1.51268E-01  1.54948E-01
#           1.58718E-01  1.62580E-01  1.66535E-01  1.70587E-01  1.74738E-01
#           1.78989E-01  1.83344E-01  1.87805E-01  1.92375E-01  1.97055E-01
#           2.01850E-01  2.06761E-01  2.11792E-01  2.16945E-01  2.22223E-01
#           2.27630E-01  2.33169E-01  2.38842E-01  2.44653E-01  2.50605E-01
#           2.56703E-01  2.62949E-01  2.69346E-01  2.75900E-01  2.82613E-01
#           2.89489E-01  2.96532E-01  3.03747E-01  3.11138E-01  3.18708E-01
#           3.26462E-01  3.34405E-01  3.42542E-01  3.50876E-01  3.59413E-01
#           3.68158E-01  3.77116E-01  3.86291E-01  3.95690E-01  4.05317E-01
#           4.15179E-01  4.25281E-01  4.35628E-01  4.46227E-01  4.57084E-01
#           4.68205E-01  4.79597E-01  4.91266E-01  5.03219E-01  5.15463E-01
#           5.28005E-01  5.40851E-01  5.54011E-01  5.67490E-01  5.81298E-01
#           5.95441E-01  6.09929E-01  6.24769E-01  6.39970E-01  6.55541E-01
#           6.71491E-01  6.87828E-01  7.04564E-01  7.21706E-01  7.39266E-01
#           7.57253E-01  7.75678E-01  7.94551E-01  8.13883E-01  8.33685E-01
#           8.53969E-01  8.74747E-01  8.96030E-01  9.17831E-01  9.40163E-01
#           9.63038E-01  9.86469E-01  1.01047E+00  1.03506E+00  1.06024E+00
#           1.08604E+00  1.11246E+00  1.13953E+00  1.16725E+00  1.19565E+00
#           1.22474E+00  1.25454E+00  1.28507E+00  1.31633E+00  1.34836E+00
#           1.38117E+00  1.41477E+00  1.44920E+00  1.48446E+00  1.52057E+00
#           1.55757E+00  1.59547E+00  1.63429E+00  1.67405E+00  1.71478E+00
#           1.75650E+00  1.79924E+00  1.84302E+00  1.88786E+00  1.93379E+00
#           1.98084E+00  2.02904E+00  2.07841E+00  2.12898E+00  2.18078E+00
#           2.23384E+00  2.28819E+00  2.34386E+00  2.40089E+00  2.45930E+00
#           2.51914E+00  2.58043E+00  2.64322E+00  2.70753E+00  2.77341E+00
#           2.84088E+00  2.91001E+00  2.98081E+00  3.05333E+00  3.12762E+00
#           3.20372E+00  3.28167E+00  3.36152E+00  3.44330E+00  3.52708E+00
#           3.61290E+00  3.70080E+00  3.79085E+00  3.88308E+00  3.97756E+00
#           4.07434E+00  4.17347E+00  4.27501E+00  4.37903E+00  4.48557E+00
#           4.59471E+00  4.70650E+00  4.82102E+00  4.93832E+00  5.05847E+00
#           5.18155E+00  5.30762E+00  5.43676E+00  5.56904E+00  5.70453E+00
#           5.84333E+00  5.98550E+00  6.13114E+00  6.28031E+00  6.43312E+00
#           6.58964E+00  6.74997E+00  6.91420E+00  7.08243E+00  7.25475E+00
#           7.43126E+00  7.61207E+00  7.79728E+00  7.98700E+00  8.18133E+00
#           8.38038E+00  8.58428E+00  8.79315E+00  9.00709E+00  9.22624E+00
#           9.45072E+00  9.68067E+00  9.91620E+00  1.01575E+01  1.04046E+01
#           1.06578E+01  1.09171E+01  1.11827E+01  1.14548E+01  1.17335E+01
#           1.20190E+01  1.23114E+01  1.26109E+01  1.29178E+01  1.32321E+01
#           1.35540E+01  1.38838E+01  1.42216E+01  1.45676E+01  1.49221E+01
#           1.52851E+01  1.56570E+01  1.60380E+01  1.64282E+01  1.68279E+01
#           1.72374E+01  1.76568E+01  1.80864E+01  1.85264E+01  1.89772E+01
#           1.94389E+01  1.99119E+01  2.03963E+01  2.08926E+01  2.14009E+01
#           2.19216E+01  2.24550E+01  2.30014E+01  2.35610E+01  2.41343E+01
#           2.47215E+01  2.53230E+01  2.59391E+01  2.65702E+01  2.72167E+01
#           2.78789E+01  2.85572E+01  2.92520E+01  2.99637E+01  3.06928E+01
#           3.14396E+01  3.22045E+01  3.29881E+01  3.37907E+01  3.46128E+01
#           3.54550E+01  3.63177E+01  3.72013E+01  3.81064E+01  3.90336E+01
#           3.99833E+01  4.09561E+01  4.19526E+01  4.29734E+01  4.40189E+01
#           4.50900E+01  4.61870E+01  4.73108E+01  4.84619E+01  4.96410E+01
#           5.08488E+01  5.20860E+01  5.33533E+01  5.46514E+01  5.59812E+01
#           5.73432E+01  5.87384E+01  6.01676E+01  6.16315E+01  6.31311E+01
#           6.46671E+01  6.62405E+01  6.78522E+01  6.95031E+01  7.11941E+01
#           7.29263E+01  7.47007E+01  7.65182E+01  7.83800E+01  8.02870E+01
#           8.22405E+01  8.42414E+01  8.62911E+01  8.83906E+01  9.05412E+01
#           9.27442E+01  9.50007E+01  9.73122E+01  9.96799E+01  1.02105E+02
#           1.04589E+02  1.07134E+02  1.09741E+02  1.12411E+02  1.15146E+02
#           1.17948E+02  1.20817E+02  1.23757E+02  1.26768E+02  1.29852E+02
#           1.33012E+02  1.36248E+02  1.39563E+02  1.42959E+02  1.46437E+02
#           1.50000E+02
     unit =    2            # unit is [1/cm^2/(MeV/n)/source]
     axis =  eng            # axis of output
     file = detector-08.out  # file name of output for the above axis
   output = f-curr          # surface crossing forward current spectrum
     part =  neutron  
# kf/name :  2112     
#    used :        main (  %)        temp (  %)       total (  %)
#  memory :         414 (  0)           0 (  0)         414 (  0)

#------------------------------------------------------------------------------
#newpage:
#   no. =    1   reg = 107 - 207

x: Energy [MeV/n]
y:  F-Curr [1/cm^2/(MeV/n)/source]         
p: xlog ylog afac(0.8) form(0.9)
h: n            x            y(neutron ),hh0l   n 
#  e-lower      e-upper      neutron     r.err 
   1.0000E-02   1.0243E-02   1.0654E-05  0.2774
   1.0243E-02   1.0493E-02   1.5209E-05  0.2294
   1.0493E-02   1.0748E-02   1.3320E-05  0.2403
   1.0748E-02   1.1009E-02   8.0115E-06  0.3032
   1.1009E-02   1.1277E-02   9.9567E-06  0.2704
   1.1277E-02   1.1552E-02   1.7191E-05  0.2043
   1.1552E-02   1.1833E-02   9.8718E-06  0.2673
   1.1833E-02   1.2121E-02   5.0733E-06  0.3643
   1.2121E-02   1.2415E-02   9.4753E-06  0.2673
   1.2415E-02   1.2718E-02   9.2011E-06  0.2673
   1.2718E-02   1.3027E-02   7.0886E-06  0.3015
   1.3027E-02   1.3344E-02   8.5539E-06  0.2677
   1.3344E-02   1.3669E-02   8.9098E-06  0.2593
   1.3669E-02   1.4001E-02   6.4036E-06  0.3029
   1.4001E-02   1.4342E-02   8.0528E-06  0.2649
   1.4342E-02   1.4691E-02   1.0721E-05  0.2296
   1.4691E-02   1.5048E-02   6.2402E-06  0.2971
   1.5048E-02   1.5414E-02   9.1716E-06  0.2427
   1.5414E-02   1.5789E-02   1.0112E-05  0.2294
   1.5789E-02   1.6174E-02   7.6922E-06  0.2585
   1.6174E-02   1.6567E-02   9.1302E-06  0.2357
   1.6567E-02   1.6970E-02   6.3607E-06  0.2776
   1.6970E-02   1.7383E-02   7.3398E-06  0.2514
   1.7383E-02   1.7806E-02   6.4835E-06  0.2678
   1.7806E-02   1.8239E-02   9.4181E-06  0.2191
   1.8239E-02   1.8683E-02   4.9401E-06  0.3015
   1.8683E-02   1.9138E-02   6.3851E-06  0.2589
   1.9138E-02   1.9603E-02   3.8455E-06  0.3333
   1.9603E-02   2.0080E-02   8.7114E-06  0.2169
   2.0080E-02   2.0569E-02   8.5764E-06  0.2182
   2.0569E-02   2.1069E-02   7.8005E-06  0.2243
   2.1069E-02   2.1582E-02   5.9048E-06  0.2551
   2.1582E-02   2.2107E-02   6.0810E-06  0.2500
   2.2107E-02   2.2645E-02   5.6647E-06  0.2544
   2.2645E-02   2.3196E-02   4.1574E-06  0.2876
   2.3196E-02   2.3760E-02   3.5211E-06  0.3162
   2.3760E-02   2.4338E-02   4.8543E-06  0.2629
   2.4338E-02   2.4930E-02   4.7390E-06  0.2617
   2.4930E-02   2.5537E-02   6.1254E-06  0.2302
   2.5537E-02   2.6158E-02   3.5063E-06  0.3016
   2.6158E-02   2.6795E-02   5.9595E-06  0.2294
   2.6795E-02   2.7447E-02   4.5242E-06  0.2586
   2.7447E-02   2.8114E-02   5.2184E-06  0.2365
   2.8114E-02   2.8799E-02   7.1910E-06  0.2002
   2.8799E-02   2.9499E-02   4.7484E-06  0.2429
   2.9499E-02   3.0217E-02   4.1148E-06  0.2585
   3.0217E-02   3.0952E-02   3.7428E-06  0.2676
   3.0952E-02   3.1705E-02   3.8275E-06  0.2564
   3.1705E-02   3.2477E-02   4.3347E-06  0.2407
   3.2477E-02   3.3267E-02   2.7522E-06  0.3016
   3.3267E-02   3.4076E-02   3.6469E-06  0.2584
   3.4076E-02   3.4905E-02   3.1673E-06  0.2731
   3.4905E-02   3.5755E-02   4.1418E-06  0.2356
   3.5755E-02   3.6625E-02   3.3834E-06  0.2584
   3.6625E-02   3.7516E-02   4.4743E-06  0.2236
   3.7516E-02   3.8428E-02   1.8960E-06  0.3567
   3.8428E-02   3.9363E-02   2.5362E-06  0.2888
   3.9363E-02   4.0321E-02   3.6571E-06  0.2363
   4.0321E-02   4.1302E-02   4.2871E-06  0.2160
   4.1302E-02   4.2307E-02   3.5720E-06  0.2336
   4.2307E-02   4.3337E-02   2.7792E-06  0.2592
   4.3337E-02   4.4391E-02   2.6276E-06  0.2674
   4.4391E-02   4.5471E-02   2.7298E-06  0.2585
   4.5471E-02   4.6577E-02   2.6788E-06  0.2584
   4.6577E-02   4.7711E-02   2.2861E-06  0.2774
   4.7711E-02   4.8871E-02   2.6856E-06  0.2509
   4.8871E-02   5.0061E-02   3.3732E-06  0.2197
   5.0061E-02   5.1279E-02   2.7859E-06  0.2425
   5.1279E-02   5.2526E-02   3.1958E-06  0.2236
   5.2526E-02   5.3804E-02   3.5913E-06  0.2085
   5.3804E-02   5.5113E-02   3.3401E-06  0.2132
   5.5113E-02   5.6454E-02   1.8097E-06  0.2834
   5.6454E-02   5.7828E-02   2.8535E-06  0.2240
   5.7828E-02   5.9235E-02   2.3519E-06  0.2430
   5.9235E-02   6.0676E-02   2.1964E-06  0.2502
   6.0676E-02   6.2152E-02   1.8896E-06  0.2673
   6.2152E-02   6.3665E-02   1.6888E-06  0.2730
   6.3665E-02   6.5214E-02   3.5522E-06  0.1894
   6.5214E-02   6.6800E-02   1.6122E-06  0.2777
   6.6800E-02   6.8426E-02   2.7546E-06  0.2093
   6.8426E-02   7.0090E-02   2.3522E-06  0.2240
   7.0090E-02   7.1796E-02   1.7813E-06  0.2517
   7.1796E-02   7.3543E-02   1.7616E-06  0.2508
   7.3543E-02   7.5332E-02   2.6780E-06  0.2041
   7.5332E-02   7.7165E-02   1.1158E-06  0.3096
   7.7165E-02   7.9042E-02   2.0836E-06  0.2239
   7.9042E-02   8.0965E-02   1.6367E-06  0.2503
   8.0965E-02   8.2935E-02   2.3175E-06  0.2086
   8.2935E-02   8.4953E-02   1.6663E-06  0.2427
   8.4953E-02   8.7020E-02   2.3026E-06  0.2029
   8.7020E-02   8.9138E-02   1.5301E-06  0.2455
   8.9138E-02   9.1306E-02   2.6353E-06  0.1846
   9.1306E-02   9.3528E-02   1.6293E-06  0.2335
   9.3528E-02   9.5804E-02   2.0418E-06  0.2048
   9.5804E-02   9.8134E-02   2.0408E-06  0.2042
   9.8134E-02   1.0052E-01   2.5055E-06  0.1826
   1.0052E-01   1.0297E-01   2.1206E-06  0.1961
   1.0297E-01   1.0547E-01   2.0700E-06  0.1961
   1.0547E-01   1.0804E-01   1.9415E-06  0.2000
   1.0804E-01   1.1067E-01   2.1020E-06  0.1891
   1.1067E-01   1.1336E-01   2.4025E-06  0.1744
   1.1336E-01   1.1612E-01   2.7846E-06  0.1604
   1.1612E-01   1.1894E-01   2.2691E-06  0.1745
   1.1894E-01   1.2184E-01   3.3468E-06  0.1430
   1.2184E-01   1.2480E-01   3.0029E-06  0.1493
   1.2480E-01   1.2784E-01   2.9835E-06  0.1479
   1.2784E-01   1.3095E-01   2.7062E-06  0.1521
   1.3095E-01   1.3414E-01   2.2487E-06  0.1648
   1.3414E-01   1.3740E-01   3.2189E-06  0.1366
   1.3740E-01   1.4074E-01   4.4693E-06  0.1146
   1.4074E-01   1.4417E-01   2.8573E-06  0.1415
   1.4417E-01   1.4767E-01   2.9522E-06  0.1376
   1.4767E-01   1.5127E-01   4.4535E-06  0.1109
   1.5127E-01   1.5495E-01   4.1636E-06  0.1129
   1.5495E-01   1.5872E-01   3.6579E-06  0.1200
   1.5872E-01   1.6258E-01   5.3139E-06  0.0981
   1.6258E-01   1.6654E-01   4.1145E-06  0.1103
   1.6654E-01   1.7059E-01   5.0982E-06  0.0978
   1.7059E-01   1.7474E-01   5.3230E-06  0.0949
   1.7474E-01   1.7899E-01   4.5877E-06  0.1008
   1.7899E-01   1.8334E-01   5.7996E-06  0.0881
   1.8334E-01   1.8781E-01   6.5102E-06  0.0825
   1.8781E-01   1.9237E-01   6.0883E-06  0.0843
   1.9237E-01   1.9706E-01   6.4016E-06  0.0810
   1.9706E-01   2.0185E-01   7.3717E-06  0.0747
   2.0185E-01   2.0676E-01   6.9731E-06  0.0759
   2.0676E-01   2.1179E-01   7.1745E-06  0.0738
   2.1179E-01   2.1694E-01   8.0033E-06  0.0692
   2.1694E-01   2.2222E-01   7.0742E-06  0.0727
   2.2222E-01   2.2763E-01   8.7015E-06  0.0649
   2.2763E-01   2.3317E-01   8.1969E-06  0.0659
   2.3317E-01   2.3884E-01   8.1787E-06  0.0652
   2.3884E-01   2.4465E-01   9.8782E-06  0.0587
   2.4465E-01   2.5061E-01   1.0845E-05  0.0554
   2.5061E-01   2.5670E-01   1.2139E-05  0.0518
   2.5670E-01   2.6295E-01   1.0252E-05  0.0555
   2.6295E-01   2.6935E-01   1.1152E-05  0.0527
   2.6935E-01   2.7590E-01   1.2672E-05  0.0488
   2.7590E-01   2.8261E-01   1.1752E-05  0.0502
   2.8261E-01   2.8949E-01   1.2980E-05  0.0471
   2.8949E-01   2.9653E-01   1.4136E-05  0.0445
   2.9653E-01   3.0375E-01   1.4039E-05  0.0442
   3.0375E-01   3.1114E-01   1.4149E-05  0.0435
   3.1114E-01   3.1871E-01   1.6628E-05  0.0397
   3.1871E-01   3.2646E-01   1.7130E-05  0.0386
   3.2646E-01   3.3441E-01   1.8235E-05  0.0370
   3.3441E-01   3.4254E-01   1.9217E-05  0.0356
   3.4254E-01   3.5088E-01   2.0006E-05  0.0344
   3.5088E-01   3.5941E-01   2.0530E-05  0.0336
   3.5941E-01   3.6816E-01   2.0737E-05  0.0330
   3.6816E-01   3.7712E-01   2.2705E-05  0.0312
   3.7712E-01   3.8629E-01   2.2644E-05  0.0309
   3.8629E-01   3.9569E-01   2.4992E-05  0.0290
   3.9569E-01   4.0532E-01   2.5750E-05  0.0282
   4.0532E-01   4.1518E-01   2.6534E-05  0.0275
   4.1518E-01   4.2528E-01   2.7231E-05  0.0268
   4.2528E-01   4.3563E-01   2.9349E-05  0.0255
   4.3563E-01   4.4623E-01   3.1009E-05  0.0246
   4.4623E-01   4.5708E-01   3.1960E-05  0.0239
   4.5708E-01   4.6821E-01   3.3618E-05  0.0230
   4.6821E-01   4.7960E-01   3.4252E-05  0.0225
   4.7960E-01   4.9127E-01   3.5227E-05  0.0219
   4.9127E-01   5.0322E-01   3.5321E-05  0.0216
   5.0322E-01   5.1546E-01   3.7653E-05  0.0207
   5.1546E-01   5.2800E-01   3.9402E-05  0.0200
   5.2800E-01   5.4085E-01   4.1261E-05  0.0193
   5.4085E-01   5.5401E-01   4.4031E-05  0.0185
   5.5401E-01   5.6749E-01   4.3586E-05  0.0183
   5.6749E-01   5.8130E-01   4.6623E-05  0.0175
   5.8130E-01   5.9544E-01   4.8137E-05  0.0170
   5.9544E-01   6.0993E-01   5.0191E-05  0.0165
   6.0993E-01   6.2477E-01   5.2782E-05  0.0159
   6.2477E-01   6.3997E-01   5.4269E-05  0.0155
   6.3997E-01   6.5554E-01   5.5094E-05  0.0152
   6.5554E-01   6.7149E-01   5.8031E-05  0.0146
   6.7149E-01   6.8783E-01   6.0264E-05  0.0142
   6.8783E-01   7.0456E-01   6.0896E-05  0.0139
   7.0456E-01   7.2171E-01   6.3049E-05  0.0135
   7.2171E-01   7.3927E-01   6.4690E-05  0.0132
   7.3927E-01   7.5725E-01   6.7548E-05  0.0128
   7.5725E-01   7.7568E-01   6.8411E-05  0.0125
   7.7568E-01   7.9455E-01   6.9967E-05  0.0122
   7.9455E-01   8.1388E-01   7.1684E-05  0.0119
   8.1388E-01   8.3368E-01   7.5169E-05  0.0115
   8.3368E-01   8.5397E-01   7.4922E-05  0.0114
   8.5397E-01   8.7475E-01   7.7493E-05  0.0111
   8.7475E-01   8.9603E-01   7.9318E-05  0.0108
   8.9603E-01   9.1783E-01   8.0382E-05  0.0106
   9.1783E-01   9.4016E-01   8.1138E-05  0.0104
   9.4016E-01   9.6304E-01   8.1235E-05  0.0103
   9.6304E-01   9.8647E-01   8.2390E-05  0.0101
   9.8647E-01   1.0105E+00   8.0668E-05  0.0101
   1.0105E+00   1.0351E+00   8.2475E-05  0.0099
   1.0351E+00   1.0602E+00   8.0804E-05  0.0098
   1.0602E+00   1.0860E+00   8.3867E-05  0.0095
   1.0860E+00   1.1125E+00   8.5594E-05  0.0093
   1.1125E+00   1.1395E+00   8.8263E-05  0.0091
   1.1395E+00   1.1673E+00   8.9876E-05  0.0089
   1.1673E+00   1.1957E+00   9.3316E-05  0.0086
   1.1957E+00   1.2247E+00   9.3908E-05  0.0085
   1.2247E+00   1.2545E+00   9.7889E-05  0.0082
   1.2545E+00   1.2851E+00   9.9433E-05  0.0080
   1.2851E+00   1.3163E+00   1.0123E-04  0.0079
   1.3163E+00   1.3484E+00   1.0335E-04  0.0077
   1.3484E+00   1.3812E+00   1.0380E-04  0.0076
   1.3812E+00   1.4148E+00   1.0561E-04  0.0074
   1.4148E+00   1.4492E+00   1.0486E-04  0.0074
   1.4492E+00   1.4845E+00   1.0812E-04  0.0072
   1.4845E+00   1.5206E+00   1.0887E-04  0.0071
   1.5206E+00   1.5576E+00   1.0881E-04  0.0070
   1.5576E+00   1.5955E+00   1.1281E-04  0.0068
   1.5955E+00   1.6343E+00   1.1298E-04  0.0067
   1.6343E+00   1.6741E+00   1.1174E-04  0.0066
   1.6741E+00   1.7148E+00   1.1059E-04  0.0066
   1.7148E+00   1.7565E+00   1.0959E-04  0.0065
   1.7565E+00   1.7992E+00   1.0323E-04  0.0066
   1.7992E+00   1.8430E+00   9.5594E-05  0.0068
   1.8430E+00   1.8879E+00   8.7524E-05  0.0070
   1.8879E+00   1.9338E+00   8.5696E-05  0.0069
   1.9338E+00   1.9808E+00   8.4223E-05  0.0069
   1.9808E+00   2.0290E+00   8.4215E-05  0.0068
   2.0290E+00   2.0784E+00   8.4717E-05  0.0067
   2.0784E+00   2.1290E+00   8.8135E-05  0.0065
   2.1290E+00   2.1808E+00   9.3646E-05  0.0062
   2.1808E+00   2.2338E+00   9.8280E-05  0.0059
   2.2338E+00   2.2882E+00   9.6568E-05  0.0060
   2.2882E+00   2.3439E+00   9.1610E-05  0.0061
   2.3439E+00   2.4009E+00   8.8889E-05  0.0061
   2.4009E+00   2.4593E+00   9.0228E-05  0.0060
   2.4593E+00   2.5191E+00   9.0485E-05  0.0059
   2.5191E+00   2.5804E+00   9.0714E-05  0.0058
   2.5804E+00   2.6432E+00   9.1311E-05  0.0057
   2.6432E+00   2.7075E+00   9.0572E-05  0.0057
   2.7075E+00   2.7734E+00   9.0860E-05  0.0056
   2.7734E+00   2.8409E+00   9.0122E-05  0.0056
   2.8409E+00   2.9100E+00   9.1174E-05  0.0055
   2.9100E+00   2.9808E+00   9.0412E-05  0.0054
   2.9808E+00   3.0533E+00   9.1135E-05  0.0054
   3.0533E+00   3.1276E+00   8.8854E-05  0.0054
   3.1276E+00   3.2037E+00   8.9833E-05  0.0053
   3.2037E+00   3.2817E+00   9.0031E-05  0.0052
   3.2817E+00   3.3615E+00   8.9366E-05  0.0052
   3.3615E+00   3.4433E+00   8.9907E-05  0.0051
   3.4433E+00   3.5271E+00   8.9184E-05  0.0051
   3.5271E+00   3.6129E+00   9.0108E-05  0.0050
   3.6129E+00   3.7008E+00   8.9087E-05  0.0050
   3.7008E+00   3.7908E+00   8.9693E-05  0.0049
   3.7908E+00   3.8831E+00   8.8781E-05  0.0049
   3.8831E+00   3.9776E+00   8.8272E-05  0.0048
   3.9776E+00   4.0743E+00   8.7780E-05  0.0048
   4.0743E+00   4.1735E+00   8.5888E-05  0.0048
   4.1735E+00   4.2750E+00   8.5810E-05  0.0047
   4.2750E+00   4.3790E+00   8.4297E-05  0.0047
   4.3790E+00   4.4856E+00   8.2232E-05  0.0047
   4.4856E+00   4.5947E+00   8.1410E-05  0.0047
   4.5947E+00   4.7065E+00   7.9390E-05  0.0047
   4.7065E+00   4.8210E+00   7.9040E-05  0.0046
   4.8210E+00   4.9383E+00   7.8760E-05  0.0046
   4.9383E+00   5.0585E+00   7.8992E-05  0.0045
   5.0585E+00   5.1815E+00   7.7950E-05  0.0045
   5.1815E+00   5.3076E+00   7.8115E-05  0.0044
   5.3076E+00   5.4368E+00   7.8327E-05  0.0044
   5.4368E+00   5.5690E+00   7.6909E-05  0.0044
   5.5690E+00   5.7045E+00   7.5816E-05  0.0043
   5.7045E+00   5.8433E+00   7.6179E-05  0.0043
   5.8433E+00   5.9855E+00   7.5705E-05  0.0042
   5.9855E+00   6.1311E+00   7.6556E-05  0.0042
   6.1311E+00   6.2803E+00   7.5821E-05  0.0041
   6.2803E+00   6.4331E+00   7.5281E-05  0.0041
   6.4331E+00   6.5896E+00   7.5133E-05  0.0041
   6.5896E+00   6.7500E+00   7.4685E-05  0.0040
   6.7500E+00   6.9142E+00   7.4370E-05  0.0040
   6.9142E+00   7.0824E+00   7.3514E-05  0.0040
   7.0824E+00   7.2548E+00   7.3918E-05  0.0039
   7.2548E+00   7.4313E+00   7.2735E-05  0.0039
   7.4313E+00   7.6121E+00   7.2190E-05  0.0039
   7.6121E+00   7.7973E+00   7.1935E-05  0.0038
   7.7973E+00   7.9870E+00   7.1143E-05  0.0038
   7.9870E+00   8.1813E+00   7.1033E-05  0.0038
   8.1813E+00   8.3804E+00   7.0163E-05  0.0037
   8.3804E+00   8.5843E+00   7.0080E-05  0.0037
   8.5843E+00   8.7931E+00   6.8893E-05  0.0037
   8.7931E+00   9.0071E+00   6.8353E-05  0.0037
   9.0071E+00   9.2262E+00   6.7533E-05  0.0036
   9.2262E+00   9.4507E+00   6.5847E-05  0.0036
   9.4507E+00   9.6807E+00   6.4096E-05  0.0037
   9.6807E+00   9.9162E+00   6.3721E-05  0.0036
   9.9162E+00   1.0157E+01   6.8990E-05  0.0035
   1.0157E+01   1.0405E+01   6.6831E-05  0.0035
   1.0405E+01   1.0658E+01   6.3917E-05  0.0035
   1.0658E+01   1.0917E+01   6.0960E-05  0.0036
   1.0917E+01   1.1183E+01   5.8083E-05  0.0036
   1.1183E+01   1.1455E+01   5.7219E-05  0.0036
   1.1455E+01   1.1733E+01   5.5918E-05  0.0036
   1.1733E+01   1.2019E+01   5.4505E-05  0.0036
   1.2019E+01   1.2311E+01   5.3176E-05  0.0036
   1.2311E+01   1.2611E+01   5.2112E-05  0.0036
   1.2611E+01   1.2918E+01   5.0921E-05  0.0036
   1.2918E+01   1.3232E+01   4.8930E-05  0.0036
   1.3232E+01   1.3554E+01   4.7373E-05  0.0036
   1.3554E+01   1.3884E+01   4.5811E-05  0.0036
   1.3884E+01   1.4222E+01   4.4473E-05  0.0036
   1.4222E+01   1.4568E+01   4.2862E-05  0.0037
   1.4568E+01   1.4922E+01   4.1523E-05  0.0037
   1.4922E+01   1.5285E+01   3.9953E-05  0.0037
   1.5285E+01   1.5657E+01   3.8114E-05  0.0038
   1.5657E+01   1.6038E+01   3.6213E-05  0.0038
   1.6038E+01   1.6428E+01   3.4528E-05  0.0039
   1.6428E+01   1.6828E+01   3.2686E-05  0.0039
   1.6828E+01   1.7237E+01   3.0844E-05  0.0040
   1.7237E+01   1.7657E+01   2.9137E-05  0.0040
   1.7657E+01   1.8086E+01   2.7127E-05  0.0041
   1.8086E+01   1.8526E+01   2.5166E-05  0.0042
   1.8526E+01   1.8977E+01   2.3354E-05  0.0044
   1.8977E+01   1.9439E+01   2.1168E-05  0.0045
   1.9439E+01   1.9912E+01   1.9559E-05  0.0046
   1.9912E+01   2.0396E+01   1.7867E-05  0.0048
   2.0396E+01   2.0893E+01   1.6052E-05  0.0050
   2.0893E+01   2.1401E+01   1.3937E-05  0.0053
   2.1401E+01   2.1922E+01   1.2169E-05  0.0056
   2.1922E+01   2.2455E+01   1.0518E-05  0.0060
   2.2455E+01   2.3001E+01   8.8782E-06  0.0064
   2.3001E+01   2.3561E+01   7.3669E-06  0.0070
   2.3561E+01   2.4134E+01   6.0284E-06  0.0076
   2.4134E+01   2.4721E+01   4.8978E-06  0.0083
   2.4721E+01   2.5323E+01   3.9156E-06  0.0092
   2.5323E+01   2.5939E+01   3.1136E-06  0.0102
   2.5939E+01   2.6570E+01   2.5010E-06  0.0113
   2.6570E+01   2.7217E+01   3.1036E-06  0.0100
   2.7217E+01   2.7879E+01   9.3132E-06  0.0057
   2.7879E+01   2.8557E+01   1.2436E-05  0.0049
   2.8557E+01   2.9252E+01   1.2023E-05  0.0049
   2.9252E+01   2.9964E+01   1.1247E-05  0.0050
   2.9964E+01   3.0693E+01   5.6798E-06  0.0069
   3.0693E+01   3.1440E+01   5.4902E-08  0.0698
   3.1440E+01   3.2205E+01   1.0458E-09  0.5000
   3.2205E+01   3.2988E+01   1.2762E-09  0.4472
   3.2988E+01   3.3791E+01   4.9836E-10  0.7071
   3.3791E+01   3.4613E+01   2.4326E-10  1.0000
   3.4613E+01   3.5455E+01   2.3749E-10  1.0000
   3.5455E+01   3.6318E+01   0.0000E+00  0.0000
   3.6318E+01   3.7201E+01   2.2634E-10  1.0000
   3.7201E+01   3.8106E+01   0.0000E+00  0.0000
   3.8106E+01   3.9034E+01   0.0000E+00  0.0000
   3.9034E+01   3.9983E+01   0.0000E+00  0.0000
   3.9983E+01   4.0956E+01   0.0000E+00  0.0000
   4.0956E+01   4.1953E+01   0.0000E+00  0.0000
   4.1953E+01   4.2973E+01   0.0000E+00  0.0000
   4.2973E+01   4.4019E+01   0.0000E+00  0.0000
   4.4019E+01   4.5090E+01   0.0000E+00  0.0000
   4.5090E+01   4.6187E+01   0.0000E+00  0.0000
   4.6187E+01   4.7311E+01   0.0000E+00  0.0000
   4.7311E+01   4.8462E+01   0.0000E+00  0.0000
   4.8462E+01   4.9641E+01   0.0000E+00  0.0000
   4.9641E+01   5.0849E+01   0.0000E+00  0.0000
   5.0849E+01   5.2086E+01   0.0000E+00  0.0000
   5.2086E+01   5.3353E+01   0.0000E+00  0.0000
   5.3353E+01   5.4651E+01   0.0000E+00  0.0000
   5.4651E+01   5.5981E+01   0.0000E+00  0.0000
   5.5981E+01   5.7343E+01   0.0000E+00  0.0000
   5.7343E+01   5.8738E+01   0.0000E+00  0.0000
   5.8738E+01   6.0168E+01   0.0000E+00  0.0000
   6.0168E+01   6.1632E+01   0.0000E+00  0.0000
   6.1632E+01   6.3131E+01   0.0000E+00  0.0000
   6.3131E+01   6.4667E+01   0.0000E+00  0.0000
   6.4667E+01   6.6240E+01   0.0000E+00  0.0000
   6.6240E+01   6.7852E+01   0.0000E+00  0.0000
   6.7852E+01   6.9503E+01   0.0000E+00  0.0000
   6.9503E+01   7.1194E+01   0.0000E+00  0.0000
   7.1194E+01   7.2926E+01   0.0000E+00  0.0000
   7.2926E+01   7.4701E+01   0.0000E+00  0.0000
   7.4701E+01   7.6518E+01   0.0000E+00  0.0000
   7.6518E+01   7.8380E+01   0.0000E+00  0.0000
   7.8380E+01   8.0287E+01   0.0000E+00  0.0000
   8.0287E+01   8.2240E+01   0.0000E+00  0.0000
   8.2240E+01   8.4241E+01   0.0000E+00  0.0000
   8.4241E+01   8.6291E+01   0.0000E+00  0.0000
   8.6291E+01   8.8391E+01   0.0000E+00  0.0000
   8.8391E+01   9.0541E+01   0.0000E+00  0.0000
   9.0541E+01   9.2744E+01   0.0000E+00  0.0000
   9.2744E+01   9.5001E+01   0.0000E+00  0.0000
   9.5001E+01   9.7312E+01   0.0000E+00  0.0000
   9.7312E+01   9.9680E+01   0.0000E+00  0.0000
   9.9680E+01   1.0211E+02   0.0000E+00  0.0000
   1.0211E+02   1.0459E+02   0.0000E+00  0.0000
   1.0459E+02   1.0713E+02   0.0000E+00  0.0000
   1.0713E+02   1.0974E+02   0.0000E+00  0.0000
   1.0974E+02   1.1241E+02   0.0000E+00  0.0000
   1.1241E+02   1.1515E+02   0.0000E+00  0.0000
   1.1515E+02   1.1795E+02   0.0000E+00  0.0000
   1.1795E+02   1.2082E+02   0.0000E+00  0.0000
   1.2082E+02   1.2376E+02   0.0000E+00  0.0000
   1.2376E+02   1.2677E+02   0.0000E+00  0.0000
   1.2677E+02   1.2985E+02   0.0000E+00  0.0000
   1.2985E+02   1.3301E+02   0.0000E+00  0.0000
   1.3301E+02   1.3625E+02   0.0000E+00  0.0000
   1.3625E+02   1.3956E+02   0.0000E+00  0.0000
   1.3956E+02   1.4296E+02   0.0000E+00  0.0000
   1.4296E+02   1.4644E+02   0.0000E+00  0.0000
   1.4644E+02   1.5000E+02   0.0000E+00  0.0000

#   sum over                 8.3933E-06
'no. =    1   reg = 107 - 207'
msuc: {\huge [t-cross] in region mesh}
msdr: {\it plotted by \ANGEL \version}
msdl: {\it calculated by \PHITS  3.26}
wt: s(0.7)
\vspace{-3}
  region surface crossing
  area  &=&   1.0000E+00 [cm^2]
e:
 
# Information for Restart Calculation
# This calculation was newly started
# istdev =  2 # 1:Batch variance, 2:History variance
# resc2  = 5.00000000000000000E+09 # Total source weight or Total source weight / maxcas
# resc3  = 5.00000000000000000E+09 # Total history number or Total batch number
# maxcas =   100000000 # History / Batch, only used for istdev=1
# bitrseed = 0110100000100010111000001110001111001110100100011111101000111001 # bit data of rseed
