[ T-Cross ]
    title = [t-cross] in region mesh
     mesh =  reg            # mesh type is region-wise
      reg =    1            # number of crossing regions
      non     r-from    r-to       area
      1       114       214        1.000000    
   e-type =    3            # e-mesh is log given by emin, emax and ne
     emin =  1.0000000E-02  # minimum value of e-mesh points
     emax =   150.0000      # maximum value of e-mesh points
#    edel =  2.4039514E-02  # mesh width of e-mesh points
       ne =    400          # number of e-mesh points
#    data = ( e(i), i = 1, ne + 1 )
#           1.00000E-02  1.02433E-02  1.04925E-02  1.07478E-02  1.10093E-02
#           1.12772E-02  1.15516E-02  1.18326E-02  1.21205E-02  1.24154E-02
#           1.27175E-02  1.30269E-02  1.33439E-02  1.36686E-02  1.40011E-02
#           1.43418E-02  1.46907E-02  1.50482E-02  1.54143E-02  1.57894E-02
#           1.61735E-02  1.65670E-02  1.69701E-02  1.73830E-02  1.78060E-02
#           1.82392E-02  1.86830E-02  1.91375E-02  1.96032E-02  2.00801E-02
#           2.05687E-02  2.10692E-02  2.15818E-02  2.21069E-02  2.26448E-02
#           2.31957E-02  2.37601E-02  2.43382E-02  2.49304E-02  2.55369E-02
#           2.61583E-02  2.67947E-02  2.74467E-02  2.81145E-02  2.87985E-02
#           2.94992E-02  3.02169E-02  3.09521E-02  3.17052E-02  3.24766E-02
#           3.32668E-02  3.40762E-02  3.49053E-02  3.57546E-02  3.66246E-02
#           3.75157E-02  3.84284E-02  3.93634E-02  4.03212E-02  4.13022E-02
#           4.23071E-02  4.33365E-02  4.43909E-02  4.54710E-02  4.65773E-02
#           4.77106E-02  4.88714E-02  5.00605E-02  5.12785E-02  5.25262E-02
#           5.38042E-02  5.51133E-02  5.64542E-02  5.78278E-02  5.92348E-02
#           6.06760E-02  6.21523E-02  6.36645E-02  6.52135E-02  6.68002E-02
#           6.84255E-02  7.00904E-02  7.17957E-02  7.35426E-02  7.53319E-02
#           7.71648E-02  7.90423E-02  8.09655E-02  8.29354E-02  8.49533E-02
#           8.70203E-02  8.91376E-02  9.13064E-02  9.35279E-02  9.58035E-02
#           9.81345E-02  1.00522E-01  1.02968E-01  1.05473E-01  1.08040E-01
#           1.10668E-01  1.13361E-01  1.16119E-01  1.18944E-01  1.21838E-01
#           1.24803E-01  1.27839E-01  1.30950E-01  1.34136E-01  1.37399E-01
#           1.40742E-01  1.44167E-01  1.47675E-01  1.51268E-01  1.54948E-01
#           1.58718E-01  1.62580E-01  1.66535E-01  1.70587E-01  1.74738E-01
#           1.78989E-01  1.83344E-01  1.87805E-01  1.92375E-01  1.97055E-01
#           2.01850E-01  2.06761E-01  2.11792E-01  2.16945E-01  2.22223E-01
#           2.27630E-01  2.33169E-01  2.38842E-01  2.44653E-01  2.50605E-01
#           2.56703E-01  2.62949E-01  2.69346E-01  2.75900E-01  2.82613E-01
#           2.89489E-01  2.96532E-01  3.03747E-01  3.11138E-01  3.18708E-01
#           3.26462E-01  3.34405E-01  3.42542E-01  3.50876E-01  3.59413E-01
#           3.68158E-01  3.77116E-01  3.86291E-01  3.95690E-01  4.05317E-01
#           4.15179E-01  4.25281E-01  4.35628E-01  4.46227E-01  4.57084E-01
#           4.68205E-01  4.79597E-01  4.91266E-01  5.03219E-01  5.15463E-01
#           5.28005E-01  5.40851E-01  5.54011E-01  5.67490E-01  5.81298E-01
#           5.95441E-01  6.09929E-01  6.24769E-01  6.39970E-01  6.55541E-01
#           6.71491E-01  6.87828E-01  7.04564E-01  7.21706E-01  7.39266E-01
#           7.57253E-01  7.75678E-01  7.94551E-01  8.13883E-01  8.33685E-01
#           8.53969E-01  8.74747E-01  8.96030E-01  9.17831E-01  9.40163E-01
#           9.63038E-01  9.86469E-01  1.01047E+00  1.03506E+00  1.06024E+00
#           1.08604E+00  1.11246E+00  1.13953E+00  1.16725E+00  1.19565E+00
#           1.22474E+00  1.25454E+00  1.28507E+00  1.31633E+00  1.34836E+00
#           1.38117E+00  1.41477E+00  1.44920E+00  1.48446E+00  1.52057E+00
#           1.55757E+00  1.59547E+00  1.63429E+00  1.67405E+00  1.71478E+00
#           1.75650E+00  1.79924E+00  1.84302E+00  1.88786E+00  1.93379E+00
#           1.98084E+00  2.02904E+00  2.07841E+00  2.12898E+00  2.18078E+00
#           2.23384E+00  2.28819E+00  2.34386E+00  2.40089E+00  2.45930E+00
#           2.51914E+00  2.58043E+00  2.64322E+00  2.70753E+00  2.77341E+00
#           2.84088E+00  2.91001E+00  2.98081E+00  3.05333E+00  3.12762E+00
#           3.20372E+00  3.28167E+00  3.36152E+00  3.44330E+00  3.52708E+00
#           3.61290E+00  3.70080E+00  3.79085E+00  3.88308E+00  3.97756E+00
#           4.07434E+00  4.17347E+00  4.27501E+00  4.37903E+00  4.48557E+00
#           4.59471E+00  4.70650E+00  4.82102E+00  4.93832E+00  5.05847E+00
#           5.18155E+00  5.30762E+00  5.43676E+00  5.56904E+00  5.70453E+00
#           5.84333E+00  5.98550E+00  6.13114E+00  6.28031E+00  6.43312E+00
#           6.58964E+00  6.74997E+00  6.91420E+00  7.08243E+00  7.25475E+00
#           7.43126E+00  7.61207E+00  7.79728E+00  7.98700E+00  8.18133E+00
#           8.38038E+00  8.58428E+00  8.79315E+00  9.00709E+00  9.22624E+00
#           9.45072E+00  9.68067E+00  9.91620E+00  1.01575E+01  1.04046E+01
#           1.06578E+01  1.09171E+01  1.11827E+01  1.14548E+01  1.17335E+01
#           1.20190E+01  1.23114E+01  1.26109E+01  1.29178E+01  1.32321E+01
#           1.35540E+01  1.38838E+01  1.42216E+01  1.45676E+01  1.49221E+01
#           1.52851E+01  1.56570E+01  1.60380E+01  1.64282E+01  1.68279E+01
#           1.72374E+01  1.76568E+01  1.80864E+01  1.85264E+01  1.89772E+01
#           1.94389E+01  1.99119E+01  2.03963E+01  2.08926E+01  2.14009E+01
#           2.19216E+01  2.24550E+01  2.30014E+01  2.35610E+01  2.41343E+01
#           2.47215E+01  2.53230E+01  2.59391E+01  2.65702E+01  2.72167E+01
#           2.78789E+01  2.85572E+01  2.92520E+01  2.99637E+01  3.06928E+01
#           3.14396E+01  3.22045E+01  3.29881E+01  3.37907E+01  3.46128E+01
#           3.54550E+01  3.63177E+01  3.72013E+01  3.81064E+01  3.90336E+01
#           3.99833E+01  4.09561E+01  4.19526E+01  4.29734E+01  4.40189E+01
#           4.50900E+01  4.61870E+01  4.73108E+01  4.84619E+01  4.96410E+01
#           5.08488E+01  5.20860E+01  5.33533E+01  5.46514E+01  5.59812E+01
#           5.73432E+01  5.87384E+01  6.01676E+01  6.16315E+01  6.31311E+01
#           6.46671E+01  6.62405E+01  6.78522E+01  6.95031E+01  7.11941E+01
#           7.29263E+01  7.47007E+01  7.65182E+01  7.83800E+01  8.02870E+01
#           8.22405E+01  8.42414E+01  8.62911E+01  8.83906E+01  9.05412E+01
#           9.27442E+01  9.50007E+01  9.73122E+01  9.96799E+01  1.02105E+02
#           1.04589E+02  1.07134E+02  1.09741E+02  1.12411E+02  1.15146E+02
#           1.17948E+02  1.20817E+02  1.23757E+02  1.26768E+02  1.29852E+02
#           1.33012E+02  1.36248E+02  1.39563E+02  1.42959E+02  1.46437E+02
#           1.50000E+02
     unit =    2            # unit is [1/cm^2/(MeV/n)/source]
     axis =  eng            # axis of output
     file = detector-15.out  # file name of output for the above axis
   output = f-curr          # surface crossing forward current spectrum
     part =  neutron  
# kf/name :  2112     
#    used :        main (  %)        temp (  %)       total (  %)
#  memory :         414 (  0)           0 (  0)         414 (  0)

#------------------------------------------------------------------------------
#newpage:
#   no. =    1   reg = 114 - 214

x: Energy [MeV/n]
y:  F-Curr [1/cm^2/(MeV/n)/source]         
p: xlog ylog afac(0.8) form(0.9)
h: n            x            y(neutron ),hh0l   n 
#  e-lower      e-upper      neutron     r.err 
   1.0000E-02   1.0243E-02   0.0000E+00  0.0000
   1.0243E-02   1.0493E-02   0.0000E+00  0.0000
   1.0493E-02   1.0748E-02   0.0000E+00  0.0000
   1.0748E-02   1.1009E-02   0.0000E+00  0.0000
   1.1009E-02   1.1277E-02   0.0000E+00  0.0000
   1.1277E-02   1.1552E-02   0.0000E+00  0.0000
   1.1552E-02   1.1833E-02   7.1159E-07  1.0000
   1.1833E-02   1.2121E-02   0.0000E+00  0.0000
   1.2121E-02   1.2415E-02   0.0000E+00  0.0000
   1.2415E-02   1.2718E-02   0.0000E+00  0.0000
   1.2718E-02   1.3027E-02   0.0000E+00  0.0000
   1.3027E-02   1.3344E-02   0.0000E+00  0.0000
   1.3344E-02   1.3669E-02   0.0000E+00  0.0000
   1.3669E-02   1.4001E-02   0.0000E+00  0.0000
   1.4001E-02   1.4342E-02   0.0000E+00  0.0000
   1.4342E-02   1.4691E-02   1.1463E-06  0.7071
   1.4691E-02   1.5048E-02   0.0000E+00  0.0000
   1.5048E-02   1.5414E-02   0.0000E+00  0.0000
   1.5414E-02   1.5789E-02   5.3327E-07  1.0000
   1.5789E-02   1.6174E-02   5.2061E-07  1.0000
   1.6174E-02   1.6567E-02   0.0000E+00  0.0000
   1.6567E-02   1.6970E-02   9.5294E-07  0.7077
   1.6970E-02   1.7383E-02   0.0000E+00  0.0000
   1.7383E-02   1.7806E-02   4.7288E-07  1.0000
   1.7806E-02   1.8239E-02   4.6165E-07  1.0000
   1.8239E-02   1.8683E-02   0.0000E+00  0.0000
   1.8683E-02   1.9138E-02   5.4787E-07  0.8269
   1.9138E-02   1.9603E-02   5.5437E-07  0.8069
   1.9603E-02   2.0080E-02   4.9116E-07  0.8662
   2.0080E-02   2.0569E-02   0.0000E+00  0.0000
   2.0569E-02   2.1069E-02   1.6549E-07  1.0000
   2.1069E-02   2.1582E-02   5.6566E-07  0.7563
   2.1582E-02   2.2107E-02   8.5041E-07  0.6419
   2.2107E-02   2.2645E-02   7.4366E-07  0.7071
   2.2645E-02   2.3196E-02   4.4337E-07  0.8386
   2.3196E-02   2.3760E-02   3.5433E-07  1.0000
   2.3760E-02   2.4338E-02   0.0000E+00  0.0000
   2.4338E-02   2.4930E-02   6.7548E-07  0.7071
   2.4930E-02   2.5537E-02   7.8191E-07  0.6166
   2.5537E-02   2.6158E-02   1.4092E-06  0.4505
   2.6158E-02   2.6795E-02   6.9934E-07  0.6435
   2.6795E-02   2.7447E-02   1.1587E-06  0.4872
   2.7447E-02   2.8114E-02   8.9847E-07  0.5774
   2.8114E-02   2.8799E-02   9.3609E-07  0.5446
   2.8799E-02   2.9499E-02   1.2844E-06  0.4581
   2.9499E-02   3.0217E-02   2.7865E-07  1.0000
   3.0217E-02   3.0952E-02   6.6388E-08  1.0000
   3.0952E-02   3.1705E-02   9.6992E-07  0.4918
   3.1705E-02   3.2477E-02   5.7764E-07  0.6429
   3.2477E-02   3.3267E-02   1.0124E-06  0.5000
   3.3267E-02   3.4076E-02   1.5424E-06  0.3941
   3.4076E-02   3.4905E-02   1.5698E-06  0.3804
   3.4905E-02   3.5755E-02   2.3550E-07  1.0000
   3.5755E-02   3.6625E-02   2.0691E-06  0.3333
   3.6625E-02   3.7516E-02   9.4655E-07  0.4770
   3.7516E-02   3.8428E-02   4.8324E-07  0.6480
   3.8428E-02   3.9363E-02   6.4172E-07  0.5774
   3.9363E-02   4.0321E-02   1.5407E-06  0.3476
   4.0321E-02   4.1302E-02   1.0193E-06  0.4472
   4.1302E-02   4.2307E-02   1.6649E-06  0.3395
   4.2307E-02   4.3337E-02   9.1722E-07  0.4392
   4.3337E-02   4.4391E-02   1.3685E-06  0.3617
   4.4391E-02   4.5471E-02   2.4393E-06  0.2661
   4.5471E-02   4.6577E-02   2.0789E-06  0.2917
   4.6577E-02   4.7711E-02   2.5656E-06  0.2580
   4.7711E-02   4.8871E-02   2.7816E-06  0.2410
   4.8871E-02   5.0061E-02   2.8696E-06  0.2367
   5.0061E-02   5.1279E-02   1.8776E-06  0.2913
   5.1279E-02   5.2526E-02   2.1220E-06  0.2651
   5.2526E-02   5.3804E-02   3.0886E-06  0.2180
   5.3804E-02   5.5113E-02   2.3148E-06  0.2396
   5.5113E-02   5.6454E-02   2.4904E-06  0.2366
   5.6454E-02   5.7828E-02   3.3416E-06  0.2024
   5.7828E-02   5.9235E-02   2.9057E-06  0.2193
   5.9235E-02   6.0676E-02   2.7529E-06  0.2133
   6.0676E-02   6.2152E-02   3.0458E-06  0.1975
   6.2152E-02   6.3665E-02   3.9094E-06  0.1758
   6.3665E-02   6.5214E-02   4.0841E-06  0.1717
   6.5214E-02   6.6800E-02   3.4101E-06  0.1840
   6.6800E-02   6.8426E-02   3.1608E-06  0.1889
   6.8426E-02   7.0090E-02   4.2076E-06  0.1653
   7.0090E-02   7.1796E-02   3.8728E-06  0.1652
   7.1796E-02   7.3543E-02   4.7864E-06  0.1482
   7.3543E-02   7.5332E-02   4.6481E-06  0.1491
   7.5332E-02   7.7165E-02   5.3839E-06  0.1346
   7.7165E-02   7.9042E-02   3.7060E-06  0.1601
   7.9042E-02   8.0965E-02   4.3889E-06  0.1474
   8.0965E-02   8.2935E-02   4.5918E-06  0.1444
   8.2935E-02   8.4953E-02   4.7308E-06  0.1384
   8.4953E-02   8.7020E-02   5.9542E-06  0.1237
   8.7020E-02   8.9138E-02   5.5306E-06  0.1244
   8.9138E-02   9.1306E-02   4.6537E-06  0.1361
   9.1306E-02   9.3528E-02   6.3458E-06  0.1158
   9.3528E-02   9.5804E-02   7.1597E-06  0.1067
   9.5804E-02   9.8134E-02   7.9045E-06  0.1007
   9.8134E-02   1.0052E-01   6.9440E-06  0.1069
   1.0052E-01   1.0297E-01   7.0200E-06  0.1033
   1.0297E-01   1.0547E-01   8.6651E-06  0.0928
   1.0547E-01   1.0804E-01   7.4026E-06  0.0987
   1.0804E-01   1.1067E-01   7.9331E-06  0.0941
   1.1067E-01   1.1336E-01   8.2976E-06  0.0911
   1.1336E-01   1.1612E-01   8.9148E-06  0.0859
   1.1612E-01   1.1894E-01   9.3338E-06  0.0836
   1.1894E-01   1.2184E-01   1.1177E-05  0.0757
   1.2184E-01   1.2480E-01   1.0354E-05  0.0780
   1.2480E-01   1.2784E-01   1.1051E-05  0.0745
   1.2784E-01   1.3095E-01   1.1741E-05  0.0722
   1.3095E-01   1.3414E-01   1.0667E-05  0.0739
   1.3414E-01   1.3740E-01   1.2067E-05  0.0691
   1.3740E-01   1.4074E-01   1.3388E-05  0.0646
   1.4074E-01   1.4417E-01   1.3430E-05  0.0634
   1.4417E-01   1.4767E-01   1.3368E-05  0.0628
   1.4767E-01   1.5127E-01   1.5216E-05  0.0582
   1.5127E-01   1.5495E-01   1.5365E-05  0.0571
   1.5495E-01   1.5872E-01   1.5260E-05  0.0568
   1.5872E-01   1.6258E-01   1.7645E-05  0.0523
   1.6258E-01   1.6654E-01   1.6875E-05  0.0531
   1.6654E-01   1.7059E-01   1.8670E-05  0.0497
   1.7059E-01   1.7474E-01   1.9110E-05  0.0484
   1.7474E-01   1.7899E-01   2.1914E-05  0.0450
   1.7899E-01   1.8334E-01   2.2285E-05  0.0440
   1.8334E-01   1.8781E-01   2.3360E-05  0.0425
   1.8781E-01   1.9237E-01   2.1571E-05  0.0434
   1.9237E-01   1.9706E-01   2.3026E-05  0.0418
   1.9706E-01   2.0185E-01   2.5450E-05  0.0391
   2.0185E-01   2.0676E-01   2.5722E-05  0.0384
   2.0676E-01   2.1179E-01   2.6909E-05  0.0373
   2.1179E-01   2.1694E-01   2.5178E-05  0.0380
   2.1694E-01   2.2222E-01   2.8360E-05  0.0355
   2.2222E-01   2.2763E-01   3.2057E-05  0.0330
   2.2763E-01   2.3317E-01   3.0981E-05  0.0331
   2.3317E-01   2.3884E-01   3.2716E-05  0.0319
   2.3884E-01   2.4465E-01   3.5551E-05  0.0302
   2.4465E-01   2.5061E-01   3.7082E-05  0.0292
   2.5061E-01   2.5670E-01   3.8106E-05  0.0286
   2.5670E-01   2.6295E-01   3.8964E-05  0.0278
   2.6295E-01   2.6935E-01   4.2198E-05  0.0265
   2.6935E-01   2.7590E-01   4.2237E-05  0.0262
   2.7590E-01   2.8261E-01   4.5731E-05  0.0248
   2.8261E-01   2.8949E-01   4.6244E-05  0.0244
   2.8949E-01   2.9653E-01   4.8438E-05  0.0236
   2.9653E-01   3.0375E-01   5.1228E-05  0.0227
   3.0375E-01   3.1114E-01   5.1382E-05  0.0224
   3.1114E-01   3.1871E-01   5.6911E-05  0.0211
   3.1871E-01   3.2646E-01   5.8104E-05  0.0206
   3.2646E-01   3.3441E-01   6.0481E-05  0.0199
   3.3441E-01   3.4254E-01   6.5235E-05  0.0190
   3.4254E-01   3.5088E-01   6.6041E-05  0.0187
   3.5088E-01   3.5941E-01   6.9397E-05  0.0180
   3.5941E-01   3.6816E-01   7.0883E-05  0.0176
   3.6816E-01   3.7712E-01   7.4954E-05  0.0169
   3.7712E-01   3.8629E-01   7.7379E-05  0.0165
   3.8629E-01   3.9569E-01   7.8640E-05  0.0161
   3.9569E-01   4.0532E-01   8.2130E-05  0.0156
   4.0532E-01   4.1518E-01   8.6453E-05  0.0151
   4.1518E-01   4.2528E-01   8.9428E-05  0.0146
   4.2528E-01   4.3563E-01   9.1919E-05  0.0143
   4.3563E-01   4.4623E-01   9.6533E-05  0.0138
   4.4623E-01   4.5708E-01   9.9886E-05  0.0134
   4.5708E-01   4.6821E-01   1.0607E-04  0.0128
   4.6821E-01   4.7960E-01   1.0854E-04  0.0125
   4.7960E-01   4.9127E-01   1.1391E-04  0.0121
   4.9127E-01   5.0322E-01   1.1814E-04  0.0117
   5.0322E-01   5.1546E-01   1.2297E-04  0.0114
   5.1546E-01   5.2800E-01   1.2554E-04  0.0111
   5.2800E-01   5.4085E-01   1.3138E-04  0.0108
   5.4085E-01   5.5401E-01   1.3553E-04  0.0105
   5.5401E-01   5.6749E-01   1.4511E-04  0.0100
   5.6749E-01   5.8130E-01   1.4893E-04  0.0098
   5.8130E-01   5.9544E-01   1.5594E-04  0.0094
   5.9544E-01   6.0993E-01   1.6388E-04  0.0091
   6.0993E-01   6.2477E-01   1.7041E-04  0.0088
   6.2477E-01   6.3997E-01   1.7740E-04  0.0085
   6.3997E-01   6.5554E-01   1.8496E-04  0.0082
   6.5554E-01   6.7149E-01   1.9164E-04  0.0080
   6.7149E-01   6.8783E-01   1.9712E-04  0.0078
   6.8783E-01   7.0456E-01   2.0586E-04  0.0075
   7.0456E-01   7.2171E-01   2.1416E-04  0.0073
   7.2171E-01   7.3927E-01   2.1963E-04  0.0071
   7.3927E-01   7.5725E-01   2.3116E-04  0.0069
   7.5725E-01   7.7568E-01   2.3874E-04  0.0067
   7.7568E-01   7.9455E-01   2.4582E-04  0.0065
   7.9455E-01   8.1388E-01   2.5494E-04  0.0063
   8.1388E-01   8.3368E-01   2.6739E-04  0.0061
   8.3368E-01   8.5397E-01   2.7482E-04  0.0059
   8.5397E-01   8.7475E-01   2.8457E-04  0.0058
   8.7475E-01   8.9603E-01   2.9549E-04  0.0056
   8.9603E-01   9.1783E-01   3.0042E-04  0.0055
   9.1783E-01   9.4016E-01   3.1344E-04  0.0053
   9.4016E-01   9.6304E-01   3.1931E-04  0.0052
   9.6304E-01   9.8647E-01   3.2506E-04  0.0051
   9.8647E-01   1.0105E+00   3.2689E-04  0.0050
   1.0105E+00   1.0351E+00   3.3277E-04  0.0049
   1.0351E+00   1.0602E+00   3.2615E-04  0.0049
   1.0602E+00   1.0860E+00   3.2848E-04  0.0048
   1.0860E+00   1.1125E+00   3.2869E-04  0.0047
   1.1125E+00   1.1395E+00   3.3523E-04  0.0046
   1.1395E+00   1.1673E+00   3.3810E-04  0.0046
   1.1673E+00   1.1957E+00   3.4533E-04  0.0045
   1.1957E+00   1.2247E+00   3.5011E-04  0.0044
   1.2247E+00   1.2545E+00   3.4805E-04  0.0043
   1.2545E+00   1.2851E+00   3.4652E-04  0.0043
   1.2851E+00   1.3163E+00   3.4554E-04  0.0042
   1.3163E+00   1.3484E+00   3.4631E-04  0.0042
   1.3484E+00   1.3812E+00   3.4833E-04  0.0041
   1.3812E+00   1.4148E+00   3.5195E-04  0.0041
   1.4148E+00   1.4492E+00   3.5553E-04  0.0040
   1.4492E+00   1.4845E+00   3.5719E-04  0.0039
   1.4845E+00   1.5206E+00   3.5751E-04  0.0039
   1.5206E+00   1.5576E+00   3.5412E-04  0.0038
   1.5576E+00   1.5955E+00   3.4960E-04  0.0038
   1.5955E+00   1.6343E+00   3.4711E-04  0.0038
   1.6343E+00   1.6741E+00   3.4607E-04  0.0038
   1.6741E+00   1.7148E+00   3.4532E-04  0.0037
   1.7148E+00   1.7565E+00   3.4047E-04  0.0037
   1.7565E+00   1.7992E+00   3.4202E-04  0.0036
   1.7992E+00   1.8430E+00   3.4152E-04  0.0036
   1.8430E+00   1.8879E+00   3.3791E-04  0.0036
   1.8879E+00   1.9338E+00   3.3755E-04  0.0035
   1.9338E+00   1.9808E+00   3.3675E-04  0.0035
   1.9808E+00   2.0290E+00   3.3635E-04  0.0034
   2.0290E+00   2.0784E+00   3.3211E-04  0.0034
   2.0784E+00   2.1290E+00   3.2594E-04  0.0034
   2.1290E+00   2.1808E+00   3.2403E-04  0.0034
   2.1808E+00   2.2338E+00   3.2235E-04  0.0033
   2.2338E+00   2.2882E+00   3.1635E-04  0.0033
   2.2882E+00   2.3439E+00   3.1051E-04  0.0033
   2.3439E+00   2.4009E+00   3.0399E-04  0.0033
   2.4009E+00   2.4593E+00   3.0067E-04  0.0033
   2.4593E+00   2.5191E+00   2.9489E-04  0.0033
   2.5191E+00   2.5804E+00   2.8772E-04  0.0033
   2.5804E+00   2.6432E+00   2.8159E-04  0.0033
   2.6432E+00   2.7075E+00   2.7257E-04  0.0033
   2.7075E+00   2.7734E+00   2.7101E-04  0.0032
   2.7734E+00   2.8409E+00   2.6513E-04  0.0032
   2.8409E+00   2.9100E+00   2.6058E-04  0.0032
   2.9100E+00   2.9808E+00   2.5248E-04  0.0032
   2.9808E+00   3.0533E+00   2.4791E-04  0.0032
   3.0533E+00   3.1276E+00   2.4276E-04  0.0032
   3.1276E+00   3.2037E+00   2.3547E-04  0.0032
   3.2037E+00   3.2817E+00   2.2982E-04  0.0032
   3.2817E+00   3.3615E+00   2.2287E-04  0.0032
   3.3615E+00   3.4433E+00   2.1816E-04  0.0032
   3.4433E+00   3.5271E+00   2.1225E-04  0.0032
   3.5271E+00   3.6129E+00   2.0490E-04  0.0033
   3.6129E+00   3.7008E+00   1.9985E-04  0.0033
   3.7008E+00   3.7908E+00   1.9215E-04  0.0033
   3.7908E+00   3.8831E+00   1.8506E-04  0.0033
   3.8831E+00   3.9776E+00   1.7730E-04  0.0033
   3.9776E+00   4.0743E+00   1.6913E-04  0.0034
   4.0743E+00   4.1735E+00   1.6341E-04  0.0034
   4.1735E+00   4.2750E+00   1.5679E-04  0.0034
   4.2750E+00   4.3790E+00   1.5012E-04  0.0034
   4.3790E+00   4.4856E+00   1.4562E-04  0.0034
   4.4856E+00   4.5947E+00   1.4035E-04  0.0035
   4.5947E+00   4.7065E+00   1.3685E-04  0.0035
   4.7065E+00   4.8210E+00   1.3127E-04  0.0035
   4.8210E+00   4.9383E+00   1.2760E-04  0.0035
   4.9383E+00   5.0585E+00   1.2371E-04  0.0035
   5.0585E+00   5.1815E+00   1.2200E-04  0.0035
   5.1815E+00   5.3076E+00   1.1843E-04  0.0035
   5.3076E+00   5.4368E+00   1.1379E-04  0.0035
   5.4368E+00   5.5690E+00   1.1054E-04  0.0036
   5.5690E+00   5.7045E+00   1.0682E-04  0.0036
   5.7045E+00   5.8433E+00   1.0340E-04  0.0036
   5.8433E+00   5.9855E+00   1.0068E-04  0.0036
   5.9855E+00   6.1311E+00   9.8296E-05  0.0036
   6.1311E+00   6.2803E+00   9.6450E-05  0.0036
   6.2803E+00   6.4331E+00   9.3686E-05  0.0036
   6.4331E+00   6.5896E+00   9.1673E-05  0.0036
   6.5896E+00   6.7500E+00   8.9574E-05  0.0036
   6.7500E+00   6.9142E+00   8.7087E-05  0.0036
   6.9142E+00   7.0824E+00   8.5301E-05  0.0036
   7.0824E+00   7.2548E+00   8.2495E-05  0.0036
   7.2548E+00   7.4313E+00   8.1129E-05  0.0036
   7.4313E+00   7.6121E+00   7.9471E-05  0.0036
   7.6121E+00   7.7973E+00   7.7244E-05  0.0036
   7.7973E+00   7.9870E+00   7.6266E-05  0.0036
   7.9870E+00   8.1813E+00   7.3649E-05  0.0037
   8.1813E+00   8.3804E+00   7.2125E-05  0.0036
   8.3804E+00   8.5843E+00   6.9927E-05  0.0037
   8.5843E+00   8.7931E+00   6.7378E-05  0.0037
   8.7931E+00   9.0071E+00   6.5326E-05  0.0037
   9.0071E+00   9.2262E+00   6.2932E-05  0.0037
   9.2262E+00   9.4507E+00   6.0308E-05  0.0038
   9.4507E+00   9.6807E+00   5.8081E-05  0.0038
   9.6807E+00   9.9162E+00   5.6254E-05  0.0038
   9.9162E+00   1.0157E+01   5.4183E-05  0.0038
   1.0157E+01   1.0405E+01   5.2796E-05  0.0038
   1.0405E+01   1.0658E+01   5.1121E-05  0.0039
   1.0658E+01   1.0917E+01   4.9474E-05  0.0039
   1.0917E+01   1.1183E+01   4.7749E-05  0.0039
   1.1183E+01   1.1455E+01   4.5919E-05  0.0039
   1.1455E+01   1.1733E+01   4.4054E-05  0.0040
   1.1733E+01   1.2019E+01   4.2423E-05  0.0040
   1.2019E+01   1.2311E+01   4.0834E-05  0.0040
   1.2311E+01   1.2611E+01   3.9205E-05  0.0041
   1.2611E+01   1.2918E+01   3.7841E-05  0.0041
   1.2918E+01   1.3232E+01   3.6123E-05  0.0041
   1.3232E+01   1.3554E+01   3.4577E-05  0.0042
   1.3554E+01   1.3884E+01   3.3037E-05  0.0042
   1.3884E+01   1.4222E+01   3.1431E-05  0.0043
   1.4222E+01   1.4568E+01   2.9972E-05  0.0043
   1.4568E+01   1.4922E+01   2.8822E-05  0.0044
   1.4922E+01   1.5285E+01   2.7581E-05  0.0044
   1.5285E+01   1.5657E+01   2.6331E-05  0.0045
   1.5657E+01   1.6038E+01   2.5136E-05  0.0045
   1.6038E+01   1.6428E+01   2.3695E-05  0.0046
   1.6428E+01   1.6828E+01   2.2198E-05  0.0047
   1.6828E+01   1.7237E+01   2.0848E-05  0.0048
   1.7237E+01   1.7657E+01   1.9411E-05  0.0049
   1.7657E+01   1.8086E+01   1.7878E-05  0.0051
   1.8086E+01   1.8526E+01   1.6502E-05  0.0052
   1.8526E+01   1.8977E+01   1.5613E-05  0.0053
   1.8977E+01   1.9439E+01   1.4581E-05  0.0054
   1.9439E+01   1.9912E+01   1.3636E-05  0.0056
   1.9912E+01   2.0396E+01   1.3835E-05  0.0055
   2.0396E+01   2.0893E+01   1.3198E-05  0.0055
   2.0893E+01   2.1401E+01   1.2279E-05  0.0057
   2.1401E+01   2.1922E+01   1.1518E-05  0.0058
   2.1922E+01   2.2455E+01   1.0734E-05  0.0059
   2.2455E+01   2.3001E+01   9.8428E-06  0.0061
   2.3001E+01   2.3561E+01   9.1816E-06  0.0062
   2.3561E+01   2.4134E+01   8.5804E-06  0.0064
   2.4134E+01   2.4721E+01   7.7169E-06  0.0066
   2.4721E+01   2.5323E+01   7.1808E-06  0.0068
   2.5323E+01   2.5939E+01   6.4289E-06  0.0071
   2.5939E+01   2.6570E+01   5.8335E-06  0.0074
   2.6570E+01   2.7217E+01   5.3267E-06  0.0076
   2.7217E+01   2.7879E+01   4.7716E-06  0.0080
   2.7879E+01   2.8557E+01   4.1916E-06  0.0084
   2.8557E+01   2.9252E+01   3.7679E-06  0.0087
   2.9252E+01   2.9964E+01   3.3271E-06  0.0092
   2.9964E+01   3.0693E+01   2.9850E-06  0.0096
   3.0693E+01   3.1440E+01   2.6093E-06  0.0101
   3.1440E+01   3.2205E+01   2.2731E-06  0.0107
   3.2205E+01   3.2988E+01   2.0024E-06  0.0113
   3.2988E+01   3.3791E+01   1.7134E-06  0.0121
   3.3791E+01   3.4613E+01   1.4922E-06  0.0128
   3.4613E+01   3.5455E+01   1.2392E-06  0.0138
   3.5455E+01   3.6318E+01   1.0132E-06  0.0151
   3.6318E+01   3.7201E+01   8.0191E-07  0.0168
   3.7201E+01   3.8106E+01   6.5913E-07  0.0183
   3.8106E+01   3.9034E+01   5.1728E-07  0.0204
   3.9034E+01   3.9983E+01   4.1170E-07  0.0226
   3.9983E+01   4.0956E+01   3.2606E-07  0.0251
   4.0956E+01   4.1953E+01   2.3964E-07  0.0289
   4.1953E+01   4.2973E+01   1.8065E-07  0.0329
   4.2973E+01   4.4019E+01   1.3313E-07  0.0379
   4.4019E+01   4.5090E+01   9.8225E-08  0.0436
   4.5090E+01   4.6187E+01   6.2712E-08  0.0539
   4.6187E+01   4.7311E+01   2.9188E-08  0.0781
   4.7311E+01   4.8462E+01   2.0849E-08  0.0913
   4.8462E+01   4.9641E+01   6.9544E-09  0.1562
   4.9641E+01   5.0849E+01   3.1462E-09  0.2294
   5.0849E+01   5.2086E+01   9.6994E-10  0.4082
   5.2086E+01   5.3353E+01   3.1563E-10  0.7071
   5.3353E+01   5.4651E+01   0.0000E+00  0.0000
   5.4651E+01   5.5981E+01   0.0000E+00  0.0000
   5.5981E+01   5.7343E+01   0.0000E+00  0.0000
   5.7343E+01   5.8738E+01   0.0000E+00  0.0000
   5.8738E+01   6.0168E+01   0.0000E+00  0.0000
   6.0168E+01   6.1632E+01   0.0000E+00  0.0000
   6.1632E+01   6.3131E+01   0.0000E+00  0.0000
   6.3131E+01   6.4667E+01   0.0000E+00  0.0000
   6.4667E+01   6.6240E+01   0.0000E+00  0.0000
   6.6240E+01   6.7852E+01   0.0000E+00  0.0000
   6.7852E+01   6.9503E+01   0.0000E+00  0.0000
   6.9503E+01   7.1194E+01   0.0000E+00  0.0000
   7.1194E+01   7.2926E+01   0.0000E+00  0.0000
   7.2926E+01   7.4701E+01   0.0000E+00  0.0000
   7.4701E+01   7.6518E+01   0.0000E+00  0.0000
   7.6518E+01   7.8380E+01   0.0000E+00  0.0000
   7.8380E+01   8.0287E+01   0.0000E+00  0.0000
   8.0287E+01   8.2240E+01   0.0000E+00  0.0000
   8.2240E+01   8.4241E+01   0.0000E+00  0.0000
   8.4241E+01   8.6291E+01   0.0000E+00  0.0000
   8.6291E+01   8.8391E+01   0.0000E+00  0.0000
   8.8391E+01   9.0541E+01   0.0000E+00  0.0000
   9.0541E+01   9.2744E+01   0.0000E+00  0.0000
   9.2744E+01   9.5001E+01   0.0000E+00  0.0000
   9.5001E+01   9.7312E+01   0.0000E+00  0.0000
   9.7312E+01   9.9680E+01   0.0000E+00  0.0000
   9.9680E+01   1.0211E+02   0.0000E+00  0.0000
   1.0211E+02   1.0459E+02   0.0000E+00  0.0000
   1.0459E+02   1.0713E+02   0.0000E+00  0.0000
   1.0713E+02   1.0974E+02   0.0000E+00  0.0000
   1.0974E+02   1.1241E+02   0.0000E+00  0.0000
   1.1241E+02   1.1515E+02   0.0000E+00  0.0000
   1.1515E+02   1.1795E+02   0.0000E+00  0.0000
   1.1795E+02   1.2082E+02   0.0000E+00  0.0000
   1.2082E+02   1.2376E+02   0.0000E+00  0.0000
   1.2376E+02   1.2677E+02   0.0000E+00  0.0000
   1.2677E+02   1.2985E+02   0.0000E+00  0.0000
   1.2985E+02   1.3301E+02   0.0000E+00  0.0000
   1.3301E+02   1.3625E+02   0.0000E+00  0.0000
   1.3625E+02   1.3956E+02   0.0000E+00  0.0000
   1.3956E+02   1.4296E+02   0.0000E+00  0.0000
   1.4296E+02   1.4644E+02   0.0000E+00  0.0000
   1.4644E+02   1.5000E+02   0.0000E+00  0.0000

#   sum over                 1.2857E-05
'no. =    1   reg = 114 - 214'
msuc: {\huge [t-cross] in region mesh}
msdr: {\it plotted by \ANGEL \version}
msdl: {\it calculated by \PHITS  3.26}
wt: s(0.7)
\vspace{-3}
  region surface crossing
  area  &=&   1.0000E+00 [cm^2]
e:
 
# Information for Restart Calculation
# This calculation was newly started
# istdev =  2 # 1:Batch variance, 2:History variance
# resc2  = 5.00000000000000000E+09 # Total source weight or Total source weight / maxcas
# resc3  = 5.00000000000000000E+09 # Total history number or Total batch number
# maxcas =   100000000 # History / Batch, only used for istdev=1
# bitrseed = 0110100000100010111000001110001111001110100100011111101000111001 # bit data of rseed
