[ T-Cross ]
    title = [t-cross] in region mesh
     mesh =  reg            # mesh type is region-wise
      reg =    1            # number of crossing regions
      non     r-from    r-to       area
      1       105       205        1.000000    
   e-type =    3            # e-mesh is log given by emin, emax and ne
     emin =  1.0000000E-02  # minimum value of e-mesh points
     emax =   150.0000      # maximum value of e-mesh points
#    edel =  2.4039514E-02  # mesh width of e-mesh points
       ne =    400          # number of e-mesh points
#    data = ( e(i), i = 1, ne + 1 )
#           1.00000E-02  1.02433E-02  1.04925E-02  1.07478E-02  1.10093E-02
#           1.12772E-02  1.15516E-02  1.18326E-02  1.21205E-02  1.24154E-02
#           1.27175E-02  1.30269E-02  1.33439E-02  1.36686E-02  1.40011E-02
#           1.43418E-02  1.46907E-02  1.50482E-02  1.54143E-02  1.57894E-02
#           1.61735E-02  1.65670E-02  1.69701E-02  1.73830E-02  1.78060E-02
#           1.82392E-02  1.86830E-02  1.91375E-02  1.96032E-02  2.00801E-02
#           2.05687E-02  2.10692E-02  2.15818E-02  2.21069E-02  2.26448E-02
#           2.31957E-02  2.37601E-02  2.43382E-02  2.49304E-02  2.55369E-02
#           2.61583E-02  2.67947E-02  2.74467E-02  2.81145E-02  2.87985E-02
#           2.94992E-02  3.02169E-02  3.09521E-02  3.17052E-02  3.24766E-02
#           3.32668E-02  3.40762E-02  3.49053E-02  3.57546E-02  3.66246E-02
#           3.75157E-02  3.84284E-02  3.93634E-02  4.03212E-02  4.13022E-02
#           4.23071E-02  4.33365E-02  4.43909E-02  4.54710E-02  4.65773E-02
#           4.77106E-02  4.88714E-02  5.00605E-02  5.12785E-02  5.25262E-02
#           5.38042E-02  5.51133E-02  5.64542E-02  5.78278E-02  5.92348E-02
#           6.06760E-02  6.21523E-02  6.36645E-02  6.52135E-02  6.68002E-02
#           6.84255E-02  7.00904E-02  7.17957E-02  7.35426E-02  7.53319E-02
#           7.71648E-02  7.90423E-02  8.09655E-02  8.29354E-02  8.49533E-02
#           8.70203E-02  8.91376E-02  9.13064E-02  9.35279E-02  9.58035E-02
#           9.81345E-02  1.00522E-01  1.02968E-01  1.05473E-01  1.08040E-01
#           1.10668E-01  1.13361E-01  1.16119E-01  1.18944E-01  1.21838E-01
#           1.24803E-01  1.27839E-01  1.30950E-01  1.34136E-01  1.37399E-01
#           1.40742E-01  1.44167E-01  1.47675E-01  1.51268E-01  1.54948E-01
#           1.58718E-01  1.62580E-01  1.66535E-01  1.70587E-01  1.74738E-01
#           1.78989E-01  1.83344E-01  1.87805E-01  1.92375E-01  1.97055E-01
#           2.01850E-01  2.06761E-01  2.11792E-01  2.16945E-01  2.22223E-01
#           2.27630E-01  2.33169E-01  2.38842E-01  2.44653E-01  2.50605E-01
#           2.56703E-01  2.62949E-01  2.69346E-01  2.75900E-01  2.82613E-01
#           2.89489E-01  2.96532E-01  3.03747E-01  3.11138E-01  3.18708E-01
#           3.26462E-01  3.34405E-01  3.42542E-01  3.50876E-01  3.59413E-01
#           3.68158E-01  3.77116E-01  3.86291E-01  3.95690E-01  4.05317E-01
#           4.15179E-01  4.25281E-01  4.35628E-01  4.46227E-01  4.57084E-01
#           4.68205E-01  4.79597E-01  4.91266E-01  5.03219E-01  5.15463E-01
#           5.28005E-01  5.40851E-01  5.54011E-01  5.67490E-01  5.81298E-01
#           5.95441E-01  6.09929E-01  6.24769E-01  6.39970E-01  6.55541E-01
#           6.71491E-01  6.87828E-01  7.04564E-01  7.21706E-01  7.39266E-01
#           7.57253E-01  7.75678E-01  7.94551E-01  8.13883E-01  8.33685E-01
#           8.53969E-01  8.74747E-01  8.96030E-01  9.17831E-01  9.40163E-01
#           9.63038E-01  9.86469E-01  1.01047E+00  1.03506E+00  1.06024E+00
#           1.08604E+00  1.11246E+00  1.13953E+00  1.16725E+00  1.19565E+00
#           1.22474E+00  1.25454E+00  1.28507E+00  1.31633E+00  1.34836E+00
#           1.38117E+00  1.41477E+00  1.44920E+00  1.48446E+00  1.52057E+00
#           1.55757E+00  1.59547E+00  1.63429E+00  1.67405E+00  1.71478E+00
#           1.75650E+00  1.79924E+00  1.84302E+00  1.88786E+00  1.93379E+00
#           1.98084E+00  2.02904E+00  2.07841E+00  2.12898E+00  2.18078E+00
#           2.23384E+00  2.28819E+00  2.34386E+00  2.40089E+00  2.45930E+00
#           2.51914E+00  2.58043E+00  2.64322E+00  2.70753E+00  2.77341E+00
#           2.84088E+00  2.91001E+00  2.98081E+00  3.05333E+00  3.12762E+00
#           3.20372E+00  3.28167E+00  3.36152E+00  3.44330E+00  3.52708E+00
#           3.61290E+00  3.70080E+00  3.79085E+00  3.88308E+00  3.97756E+00
#           4.07434E+00  4.17347E+00  4.27501E+00  4.37903E+00  4.48557E+00
#           4.59471E+00  4.70650E+00  4.82102E+00  4.93832E+00  5.05847E+00
#           5.18155E+00  5.30762E+00  5.43676E+00  5.56904E+00  5.70453E+00
#           5.84333E+00  5.98550E+00  6.13114E+00  6.28031E+00  6.43312E+00
#           6.58964E+00  6.74997E+00  6.91420E+00  7.08243E+00  7.25475E+00
#           7.43126E+00  7.61207E+00  7.79728E+00  7.98700E+00  8.18133E+00
#           8.38038E+00  8.58428E+00  8.79315E+00  9.00709E+00  9.22624E+00
#           9.45072E+00  9.68067E+00  9.91620E+00  1.01575E+01  1.04046E+01
#           1.06578E+01  1.09171E+01  1.11827E+01  1.14548E+01  1.17335E+01
#           1.20190E+01  1.23114E+01  1.26109E+01  1.29178E+01  1.32321E+01
#           1.35540E+01  1.38838E+01  1.42216E+01  1.45676E+01  1.49221E+01
#           1.52851E+01  1.56570E+01  1.60380E+01  1.64282E+01  1.68279E+01
#           1.72374E+01  1.76568E+01  1.80864E+01  1.85264E+01  1.89772E+01
#           1.94389E+01  1.99119E+01  2.03963E+01  2.08926E+01  2.14009E+01
#           2.19216E+01  2.24550E+01  2.30014E+01  2.35610E+01  2.41343E+01
#           2.47215E+01  2.53230E+01  2.59391E+01  2.65702E+01  2.72167E+01
#           2.78789E+01  2.85572E+01  2.92520E+01  2.99637E+01  3.06928E+01
#           3.14396E+01  3.22045E+01  3.29881E+01  3.37907E+01  3.46128E+01
#           3.54550E+01  3.63177E+01  3.72013E+01  3.81064E+01  3.90336E+01
#           3.99833E+01  4.09561E+01  4.19526E+01  4.29734E+01  4.40189E+01
#           4.50900E+01  4.61870E+01  4.73108E+01  4.84619E+01  4.96410E+01
#           5.08488E+01  5.20860E+01  5.33533E+01  5.46514E+01  5.59812E+01
#           5.73432E+01  5.87384E+01  6.01676E+01  6.16315E+01  6.31311E+01
#           6.46671E+01  6.62405E+01  6.78522E+01  6.95031E+01  7.11941E+01
#           7.29263E+01  7.47007E+01  7.65182E+01  7.83800E+01  8.02870E+01
#           8.22405E+01  8.42414E+01  8.62911E+01  8.83906E+01  9.05412E+01
#           9.27442E+01  9.50007E+01  9.73122E+01  9.96799E+01  1.02105E+02
#           1.04589E+02  1.07134E+02  1.09741E+02  1.12411E+02  1.15146E+02
#           1.17948E+02  1.20817E+02  1.23757E+02  1.26768E+02  1.29852E+02
#           1.33012E+02  1.36248E+02  1.39563E+02  1.42959E+02  1.46437E+02
#           1.50000E+02
     unit =    2            # unit is [1/cm^2/(MeV/n)/source]
     axis =  eng            # axis of output
     file = detector-06.out  # file name of output for the above axis
   output = f-curr          # surface crossing forward current spectrum
     part =  neutron  
# kf/name :  2112     
#    used :        main (  %)        temp (  %)       total (  %)
#  memory :         414 (  0)           0 (  0)         414 (  0)

#------------------------------------------------------------------------------
#newpage:
#   no. =    1   reg = 105 - 205

x: Energy [MeV/n]
y:  F-Curr [1/cm^2/(MeV/n)/source]         
p: xlog ylog afac(0.8) form(0.9)
h: n            x            y(neutron ),hh0l   n 
#  e-lower      e-upper      neutron     r.err 
   1.0000E-02   1.0243E-02   4.6238E-05  0.1491
   1.0243E-02   1.0493E-02   4.9501E-05  0.1419
   1.0493E-02   1.0748E-02   6.1694E-05  0.1260
   1.0748E-02   1.1009E-02   5.6405E-05  0.1302
   1.1009E-02   1.1277E-02   5.6932E-05  0.1280
   1.1277E-02   1.1552E-02   4.5557E-05  0.1414
   1.1552E-02   1.1833E-02   4.6254E-05  0.1387
   1.1833E-02   1.2121E-02   5.5575E-05  0.1250
   1.2121E-02   1.2415E-02   4.4082E-05  0.1387
   1.2415E-02   1.2718E-02   6.2070E-05  0.1155
   1.2718E-02   1.3027E-02   4.8608E-05  0.1288
   1.3027E-02   1.3344E-02   6.5467E-05  0.1098
   1.3344E-02   1.3669E-02   6.7148E-05  0.1070
   1.3669E-02   1.4001E-02   5.7345E-05  0.1143
   1.4001E-02   1.4342E-02   5.5040E-05  0.1155
   1.4342E-02   1.4691E-02   4.0121E-05  0.1336
   1.4691E-02   1.5048E-02   4.6861E-05  0.1222
   1.5048E-02   1.5414E-02   5.3259E-05  0.1132
   1.5414E-02   1.5789E-02   5.2792E-05  0.1123
   1.5789E-02   1.6174E-02   5.9870E-05  0.1043
   1.6174E-02   1.6567E-02   6.0354E-05  0.1026
   1.6567E-02   1.6970E-02   5.0411E-05  0.1108
   1.6970E-02   1.7383E-02   5.5099E-05  0.1048
   1.7383E-02   1.7806E-02   4.3741E-05  0.1162
   1.7806E-02   1.8239E-02   5.4474E-05  0.1027
   1.8239E-02   1.8683E-02   5.8663E-05  0.0979
   1.8683E-02   1.9138E-02   5.9947E-05  0.0958
   1.9138E-02   1.9603E-02   5.3691E-05  0.1000
   1.9603E-02   2.0080E-02   5.8256E-05  0.0948
   2.0080E-02   2.0569E-02   5.2280E-05  0.0989
   2.0569E-02   2.1069E-02   4.9955E-05  0.1000
   2.1069E-02   2.1582E-02   5.9985E-05  0.0902
   2.1582E-02   2.2107E-02   5.8426E-05  0.0901
   2.2107E-02   2.2645E-02   4.9810E-05  0.0965
   2.2645E-02   2.3196E-02   4.4467E-05  0.1010
   2.3196E-02   2.3760E-02   5.6036E-05  0.0888
   2.3760E-02   2.4338E-02   5.2730E-05  0.0903
   2.4338E-02   2.4930E-02   5.3698E-05  0.0886
   2.4930E-02   2.5537E-02   5.2416E-05  0.0886
   2.5537E-02   2.6158E-02   5.1502E-05  0.0882
   2.6158E-02   2.6795E-02   5.3421E-05  0.0857
   2.6795E-02   2.7447E-02   4.9085E-05  0.0884
   2.7447E-02   2.8114E-02   5.1724E-05  0.0850
   2.8114E-02   2.8799E-02   5.5491E-05  0.0810
   2.8799E-02   2.9499E-02   5.7129E-05  0.0788
   2.9499E-02   3.0217E-02   5.0854E-05  0.0828
   3.0217E-02   3.0952E-02   4.8332E-05  0.0838
   3.0952E-02   3.1705E-02   5.5003E-05  0.0776
   3.1705E-02   3.2477E-02   5.3646E-05  0.0776
   3.2477E-02   3.3267E-02   5.6316E-05  0.0750
   3.3267E-02   3.4076E-02   5.3657E-05  0.0757
   3.4076E-02   3.4905E-02   5.0105E-05  0.0775
   3.4905E-02   3.5755E-02   5.3468E-05  0.0741
   3.5755E-02   3.6625E-02   4.5058E-05  0.0797
   3.6625E-02   3.7516E-02   5.4674E-05  0.0715
   3.7516E-02   3.8428E-02   5.0989E-05  0.0733
   3.8428E-02   3.9363E-02   5.1948E-05  0.0717
   3.9363E-02   4.0321E-02   4.5782E-05  0.0754
   4.0321E-02   4.1302E-02   5.3005E-05  0.0693
   4.1302E-02   4.2307E-02   4.7846E-05  0.0719
   4.2307E-02   4.3337E-02   5.0427E-05  0.0693
   4.3337E-02   4.4391E-02   5.1419E-05  0.0678
   4.4391E-02   4.5471E-02   5.3415E-05  0.0658
   4.5471E-02   4.6577E-02   5.6372E-05  0.0633
   4.6577E-02   4.7711E-02   5.5789E-05  0.0628
   4.7711E-02   4.8871E-02   4.6518E-05  0.0680
   4.8871E-02   5.0061E-02   5.1405E-05  0.0639
   5.0061E-02   5.1279E-02   4.8713E-05  0.0648
   5.1279E-02   5.2526E-02   5.1826E-05  0.0621
   5.2526E-02   5.3804E-02   5.1447E-05  0.0617
   5.3804E-02   5.5113E-02   4.5606E-05  0.0646
   5.5113E-02   5.6454E-02   5.0115E-05  0.0609
   5.6454E-02   5.7828E-02   5.2018E-05  0.0591
   5.7828E-02   5.9235E-02   4.7522E-05  0.0611
   5.9235E-02   6.0676E-02   4.5794E-05  0.0615
   6.0676E-02   6.2152E-02   4.9145E-05  0.0587
   6.2152E-02   6.3665E-02   4.8677E-05  0.0582
   6.3665E-02   6.5214E-02   5.0891E-05  0.0563
   6.5214E-02   6.6800E-02   4.4162E-05  0.0597
   6.6800E-02   6.8426E-02   4.7345E-05  0.0570
   6.8426E-02   7.0090E-02   5.1187E-05  0.0541
   7.0090E-02   7.1796E-02   4.9281E-05  0.0545
   7.1796E-02   7.3543E-02   4.7205E-05  0.0550
   7.3543E-02   7.5332E-02   4.5590E-05  0.0553
   7.5332E-02   7.7165E-02   4.9577E-05  0.0524
   7.7165E-02   7.9042E-02   5.1087E-05  0.0510
   7.9042E-02   8.0965E-02   4.7055E-05  0.0525
   8.0965E-02   8.2935E-02   4.9428E-05  0.0506
   8.2935E-02   8.4953E-02   4.5436E-05  0.0522
   8.4953E-02   8.7020E-02   4.6646E-05  0.0509
   8.7020E-02   8.9138E-02   4.5197E-05  0.0511
   8.9138E-02   9.1306E-02   4.5030E-05  0.0506
   9.1306E-02   9.3528E-02   4.5632E-05  0.0496
   9.3528E-02   9.5804E-02   4.4878E-05  0.0495
   9.5804E-02   9.8134E-02   4.8246E-05  0.0471
   9.8134E-02   1.0052E-01   4.8070E-05  0.0466
   1.0052E-01   1.0297E-01   4.4326E-05  0.0480
   1.0297E-01   1.0547E-01   4.6084E-05  0.0465
   1.0547E-01   1.0804E-01   4.4223E-05  0.0469
   1.0804E-01   1.1067E-01   4.3304E-05  0.0468
   1.1067E-01   1.1336E-01   4.1984E-05  0.0470
   1.1336E-01   1.1612E-01   4.0320E-05  0.0474
   1.1612E-01   1.1894E-01   4.1587E-05  0.0461
   1.1894E-01   1.2184E-01   4.2314E-05  0.0452
   1.2184E-01   1.2480E-01   4.2066E-05  0.0448
   1.2480E-01   1.2784E-01   4.0878E-05  0.0449
   1.2784E-01   1.3095E-01   3.9931E-05  0.0448
   1.3095E-01   1.3414E-01   4.0047E-05  0.0442
   1.3414E-01   1.3740E-01   3.8455E-05  0.0446
   1.3740E-01   1.4074E-01   3.8124E-05  0.0443
   1.4074E-01   1.4417E-01   3.6214E-05  0.0449
   1.4417E-01   1.4767E-01   3.7866E-05  0.0433
   1.4767E-01   1.5127E-01   3.5877E-05  0.0440
   1.5127E-01   1.5495E-01   3.6722E-05  0.0430
   1.5495E-01   1.5872E-01   3.6569E-05  0.0425
   1.5872E-01   1.6258E-01   3.8314E-05  0.0411
   1.6258E-01   1.6654E-01   3.4241E-05  0.0429
   1.6654E-01   1.7059E-01   3.5241E-05  0.0418
   1.7059E-01   1.7474E-01   3.3625E-05  0.0423
   1.7474E-01   1.7899E-01   3.6416E-05  0.0401
   1.7899E-01   1.8334E-01   3.1028E-05  0.0430
   1.8334E-01   1.8781E-01   2.9953E-05  0.0432
   1.8781E-01   1.9237E-01   3.2013E-05  0.0413
   1.9237E-01   1.9706E-01   3.1252E-05  0.0413
   1.9706E-01   2.0185E-01   2.9469E-05  0.0421
   2.0185E-01   2.0676E-01   2.9331E-05  0.0416
   2.0676E-01   2.1179E-01   3.1020E-05  0.0400
   2.1179E-01   2.1694E-01   3.1219E-05  0.0394
   2.1694E-01   2.2222E-01   3.1091E-05  0.0390
   2.2222E-01   2.2763E-01   3.0800E-05  0.0387
   2.2763E-01   2.3317E-01   3.2260E-05  0.0374
   2.3317E-01   2.3884E-01   3.2711E-05  0.0367
   2.3884E-01   2.4465E-01   3.2373E-05  0.0364
   2.4465E-01   2.5061E-01   3.2515E-05  0.0359
   2.5061E-01   2.5670E-01   3.3517E-05  0.0349
   2.5670E-01   2.6295E-01   3.4569E-05  0.0340
   2.6295E-01   2.6935E-01   3.5700E-05  0.0331
   2.6935E-01   2.7590E-01   3.5928E-05  0.0326
   2.7590E-01   2.8261E-01   3.5441E-05  0.0324
   2.8261E-01   2.8949E-01   3.5922E-05  0.0318
   2.8949E-01   2.9653E-01   3.5770E-05  0.0315
   2.9653E-01   3.0375E-01   3.4251E-05  0.0318
   3.0375E-01   3.1114E-01   3.7712E-05  0.0299
   3.1114E-01   3.1871E-01   3.8189E-05  0.0294
   3.1871E-01   3.2646E-01   3.8380E-05  0.0290
   3.2646E-01   3.3441E-01   3.8820E-05  0.0285
   3.3441E-01   3.4254E-01   3.8764E-05  0.0281
   3.4254E-01   3.5088E-01   3.8141E-05  0.0280
   3.5088E-01   3.5941E-01   4.0579E-05  0.0269
   3.5941E-01   3.6816E-01   4.0042E-05  0.0267
   3.6816E-01   3.7712E-01   3.9485E-05  0.0266
   3.7712E-01   3.8629E-01   4.0061E-05  0.0261
   3.8629E-01   3.9569E-01   3.9495E-05  0.0259
   3.9569E-01   4.0532E-01   4.0395E-05  0.0253
   4.0532E-01   4.1518E-01   4.0698E-05  0.0249
   4.1518E-01   4.2528E-01   4.1687E-05  0.0244
   4.2528E-01   4.3563E-01   4.1872E-05  0.0240
   4.3563E-01   4.4623E-01   4.2618E-05  0.0235
   4.4623E-01   4.5708E-01   4.0053E-05  0.0240
   4.5708E-01   4.6821E-01   4.0923E-05  0.0234
   4.6821E-01   4.7960E-01   4.1967E-05  0.0229
   4.7960E-01   4.9127E-01   4.2718E-05  0.0224
   4.9127E-01   5.0322E-01   4.2505E-05  0.0222
   5.0322E-01   5.1546E-01   4.4642E-05  0.0214
   5.1546E-01   5.2800E-01   4.3674E-05  0.0214
   5.2800E-01   5.4085E-01   4.3331E-05  0.0212
   5.4085E-01   5.5401E-01   4.3138E-05  0.0210
   5.5401E-01   5.6749E-01   4.3443E-05  0.0207
   5.6749E-01   5.8130E-01   4.4621E-05  0.0201
   5.8130E-01   5.9544E-01   4.4018E-05  0.0200
   5.9544E-01   6.0993E-01   4.2223E-05  0.0202
   6.0993E-01   6.2477E-01   4.5308E-05  0.0193
   6.2477E-01   6.3997E-01   4.5221E-05  0.0191
   6.3997E-01   6.5554E-01   4.4528E-05  0.0190
   6.5554E-01   6.7149E-01   4.6116E-05  0.0184
   6.7149E-01   6.8783E-01   4.4870E-05  0.0185
   6.8783E-01   7.0456E-01   4.4871E-05  0.0182
   7.0456E-01   7.2171E-01   4.5438E-05  0.0179
   7.2171E-01   7.3927E-01   4.6074E-05  0.0176
   7.3927E-01   7.5725E-01   4.7463E-05  0.0171
   7.5725E-01   7.7568E-01   4.6305E-05  0.0171
   7.7568E-01   7.9455E-01   4.6068E-05  0.0170
   7.9455E-01   8.1388E-01   4.7582E-05  0.0165
   8.1388E-01   8.3368E-01   4.7198E-05  0.0163
   8.3368E-01   8.5397E-01   4.7671E-05  0.0161
   8.5397E-01   8.7475E-01   4.8998E-05  0.0157
   8.7475E-01   8.9603E-01   4.7802E-05  0.0157
   8.9603E-01   9.1783E-01   4.9969E-05  0.0151
   9.1783E-01   9.4016E-01   5.0146E-05  0.0149
   9.4016E-01   9.6304E-01   4.8982E-05  0.0149
   9.6304E-01   9.8647E-01   4.9213E-05  0.0147
   9.8647E-01   1.0105E+00   5.1960E-05  0.0141
   1.0105E+00   1.0351E+00   5.0856E-05  0.0141
   1.0351E+00   1.0602E+00   5.2471E-05  0.0137
   1.0602E+00   1.0860E+00   5.3175E-05  0.0135
   1.0860E+00   1.1125E+00   5.2870E-05  0.0134
   1.1125E+00   1.1395E+00   5.3491E-05  0.0131
   1.1395E+00   1.1673E+00   5.3551E-05  0.0130
   1.1673E+00   1.1957E+00   5.3970E-05  0.0128
   1.1957E+00   1.2247E+00   5.3896E-05  0.0126
   1.2247E+00   1.2545E+00   5.3754E-05  0.0125
   1.2545E+00   1.2851E+00   5.4646E-05  0.0122
   1.2851E+00   1.3163E+00   5.4284E-05  0.0121
   1.3163E+00   1.3484E+00   5.3775E-05  0.0120
   1.3484E+00   1.3812E+00   5.3788E-05  0.0119
   1.3812E+00   1.4148E+00   5.3979E-05  0.0117
   1.4148E+00   1.4492E+00   5.3985E-05  0.0116
   1.4492E+00   1.4845E+00   5.3066E-05  0.0116
   1.4845E+00   1.5206E+00   5.4675E-05  0.0112
   1.5206E+00   1.5576E+00   5.4183E-05  0.0112
   1.5576E+00   1.5955E+00   5.4082E-05  0.0110
   1.5955E+00   1.6343E+00   5.4390E-05  0.0109
   1.6343E+00   1.6741E+00   5.4938E-05  0.0107
   1.6741E+00   1.7148E+00   5.4517E-05  0.0106
   1.7148E+00   1.7565E+00   5.3874E-05  0.0105
   1.7565E+00   1.7992E+00   5.5289E-05  0.0103
   1.7992E+00   1.8430E+00   5.4308E-05  0.0102
   1.8430E+00   1.8879E+00   5.5642E-05  0.0100
   1.8879E+00   1.9338E+00   5.5345E-05  0.0099
   1.9338E+00   1.9808E+00   5.5157E-05  0.0098
   1.9808E+00   2.0290E+00   5.4152E-05  0.0098
   2.0290E+00   2.0784E+00   5.5415E-05  0.0096
   2.0784E+00   2.1290E+00   5.4951E-05  0.0095
   2.1290E+00   2.1808E+00   5.4316E-05  0.0094
   2.1808E+00   2.2338E+00   5.5185E-05  0.0092
   2.2338E+00   2.2882E+00   5.5608E-05  0.0091
   2.2882E+00   2.3439E+00   5.4587E-05  0.0091
   2.3439E+00   2.4009E+00   5.4262E-05  0.0090
   2.4009E+00   2.4593E+00   5.4454E-05  0.0089
   2.4593E+00   2.5191E+00   5.5481E-05  0.0087
   2.5191E+00   2.5804E+00   5.4499E-05  0.0086
   2.5804E+00   2.6432E+00   5.4338E-05  0.0086
   2.6432E+00   2.7075E+00   5.4497E-05  0.0084
   2.7075E+00   2.7734E+00   5.3971E-05  0.0084
   2.7734E+00   2.8409E+00   5.4495E-05  0.0082
   2.8409E+00   2.9100E+00   5.4358E-05  0.0082
   2.9100E+00   2.9808E+00   5.3503E-05  0.0081
   2.9808E+00   3.0533E+00   5.4596E-05  0.0079
   3.0533E+00   3.1276E+00   5.4816E-05  0.0078
   3.1276E+00   3.2037E+00   5.4164E-05  0.0078
   3.2037E+00   3.2817E+00   5.4609E-05  0.0077
   3.2817E+00   3.3615E+00   5.5025E-05  0.0075
   3.3615E+00   3.4433E+00   5.5449E-05  0.0074
   3.4433E+00   3.5271E+00   5.4958E-05  0.0074
   3.5271E+00   3.6129E+00   5.6072E-05  0.0072
   3.6129E+00   3.7008E+00   5.5775E-05  0.0071
   3.7008E+00   3.7908E+00   5.5894E-05  0.0070
   3.7908E+00   3.8831E+00   5.5854E-05  0.0070
   3.8831E+00   3.9776E+00   5.6308E-05  0.0069
   3.9776E+00   4.0743E+00   5.7288E-05  0.0067
   4.0743E+00   4.1735E+00   5.7346E-05  0.0066
   4.1735E+00   4.2750E+00   5.6726E-05  0.0066
   4.2750E+00   4.3790E+00   5.7365E-05  0.0065
   4.3790E+00   4.4856E+00   5.6533E-05  0.0064
   4.4856E+00   4.5947E+00   5.6564E-05  0.0064
   4.5947E+00   4.7065E+00   5.6638E-05  0.0063
   4.7065E+00   4.8210E+00   5.6468E-05  0.0062
   4.8210E+00   4.9383E+00   5.6468E-05  0.0061
   4.9383E+00   5.0585E+00   5.5734E-05  0.0061
   5.0585E+00   5.1815E+00   5.6247E-05  0.0060
   5.1815E+00   5.3076E+00   5.5422E-05  0.0060
   5.3076E+00   5.4368E+00   5.5862E-05  0.0059
   5.4368E+00   5.5690E+00   5.5869E-05  0.0058
   5.5690E+00   5.7045E+00   5.5783E-05  0.0057
   5.7045E+00   5.8433E+00   5.5677E-05  0.0057
   5.8433E+00   5.9855E+00   5.5450E-05  0.0056
   5.9855E+00   6.1311E+00   5.5997E-05  0.0055
   6.1311E+00   6.2803E+00   5.5947E-05  0.0055
   6.2803E+00   6.4331E+00   5.6733E-05  0.0054
   6.4331E+00   6.5896E+00   5.6659E-05  0.0053
   6.5896E+00   6.7500E+00   5.7042E-05  0.0052
   6.7500E+00   6.9142E+00   5.7496E-05  0.0051
   6.9142E+00   7.0824E+00   5.7005E-05  0.0051
   7.0824E+00   7.2548E+00   5.7305E-05  0.0050
   7.2548E+00   7.4313E+00   5.8060E-05  0.0049
   7.4313E+00   7.6121E+00   5.7935E-05  0.0049
   7.6121E+00   7.7973E+00   5.7997E-05  0.0048
   7.7973E+00   7.9870E+00   5.8796E-05  0.0047
   7.9870E+00   8.1813E+00   5.9561E-05  0.0046
   8.1813E+00   8.3804E+00   5.9991E-05  0.0046
   8.3804E+00   8.5843E+00   6.0478E-05  0.0045
   8.5843E+00   8.7931E+00   6.0892E-05  0.0044
   8.7931E+00   9.0071E+00   6.1138E-05  0.0044
   9.0071E+00   9.2262E+00   6.1646E-05  0.0043
   9.2262E+00   9.4507E+00   6.2155E-05  0.0042
   9.4507E+00   9.6807E+00   6.1796E-05  0.0042
   9.6807E+00   9.9162E+00   6.2819E-05  0.0041
   9.9162E+00   1.0157E+01   6.2868E-05  0.0041
   1.0157E+01   1.0405E+01   6.3265E-05  0.0040
   1.0405E+01   1.0658E+01   6.3813E-05  0.0039
   1.0658E+01   1.0917E+01   6.3553E-05  0.0039
   1.0917E+01   1.1183E+01   6.2868E-05  0.0039
   1.1183E+01   1.1455E+01   6.2933E-05  0.0038
   1.1455E+01   1.1733E+01   6.1574E-05  0.0038
   1.1733E+01   1.2019E+01   6.0664E-05  0.0038
   1.2019E+01   1.2311E+01   6.0168E-05  0.0038
   1.2311E+01   1.2611E+01   5.8889E-05  0.0038
   1.2611E+01   1.2918E+01   5.7704E-05  0.0038
   1.2918E+01   1.3232E+01   5.7121E-05  0.0037
   1.3232E+01   1.3554E+01   5.5606E-05  0.0037
   1.3554E+01   1.3884E+01   5.4186E-05  0.0037
   1.3884E+01   1.4222E+01   5.3177E-05  0.0037
   1.4222E+01   1.4568E+01   5.1654E-05  0.0037
   1.4568E+01   1.4922E+01   4.9745E-05  0.0038
   1.4922E+01   1.5285E+01   4.7801E-05  0.0038
   1.5285E+01   1.5657E+01   4.6092E-05  0.0038
   1.5657E+01   1.6038E+01   4.4391E-05  0.0038
   1.6038E+01   1.6428E+01   4.2508E-05  0.0039
   1.6428E+01   1.6828E+01   3.9981E-05  0.0040
   1.6828E+01   1.7237E+01   3.7880E-05  0.0040
   1.7237E+01   1.7657E+01   3.5989E-05  0.0041
   1.7657E+01   1.8086E+01   3.3761E-05  0.0042
   1.8086E+01   1.8526E+01   3.1684E-05  0.0042
   1.8526E+01   1.8977E+01   2.9377E-05  0.0043
   1.8977E+01   1.9439E+01   2.7471E-05  0.0044
   1.9439E+01   1.9912E+01   2.5408E-05  0.0046
   1.9912E+01   2.0396E+01   2.3413E-05  0.0047
   2.0396E+01   2.0893E+01   2.1375E-05  0.0049
   2.0893E+01   2.1401E+01   1.9526E-05  0.0050
   2.1401E+01   2.1922E+01   1.7901E-05  0.0052
   2.1922E+01   2.2455E+01   1.5879E-05  0.0054
   2.2455E+01   2.3001E+01   1.3972E-05  0.0057
   2.3001E+01   2.3561E+01   1.2343E-05  0.0060
   2.3561E+01   2.4134E+01   1.0762E-05  0.0064
   2.4134E+01   2.4721E+01   9.1833E-06  0.0068
   2.4721E+01   2.5323E+01   7.9635E-06  0.0072
   2.5323E+01   2.5939E+01   6.7040E-06  0.0078
   2.5939E+01   2.6570E+01   5.8060E-06  0.0083
   2.6570E+01   2.7217E+01   4.7597E-06  0.0090
   2.7217E+01   2.7879E+01   4.0116E-06  0.0097
   2.7879E+01   2.8557E+01   3.3340E-06  0.0105
   2.8557E+01   2.9252E+01   2.7295E-06  0.0115
   2.9252E+01   2.9964E+01   2.1220E-06  0.0129
   2.9964E+01   3.0693E+01   1.7115E-06  0.0142
   3.0693E+01   3.1440E+01   1.5215E-06  0.0148
   3.1440E+01   3.2205E+01   1.4632E-06  0.0149
   3.2205E+01   3.2988E+01   1.4405E-06  0.0149
   3.2988E+01   3.3791E+01   1.4138E-06  0.0148
   3.3791E+01   3.4613E+01   1.4356E-06  0.0146
   3.4613E+01   3.5455E+01   1.5261E-06  0.0139
   3.5455E+01   3.6318E+01   1.7449E-06  0.0129
   3.6318E+01   3.7201E+01   2.3381E-06  0.0110
   3.7201E+01   3.8106E+01   2.8614E-06  0.0098
   3.8106E+01   3.9034E+01   3.0531E-06  0.0094
   3.9034E+01   3.9983E+01   3.4505E-06  0.0087
   3.9983E+01   4.0956E+01   3.8822E-06  0.0081
   4.0956E+01   4.1953E+01   3.8743E-06  0.0080
   4.1953E+01   4.2973E+01   3.8058E-06  0.0080
   4.2973E+01   4.4019E+01   3.7336E-06  0.0080
   4.4019E+01   4.5090E+01   3.3020E-06  0.0084
   4.5090E+01   4.6187E+01   2.1560E-06  0.0103
   4.6187E+01   4.7311E+01   1.2730E-06  0.0132
   4.7311E+01   4.8462E+01   9.8231E-07  0.0149
   4.8462E+01   4.9641E+01   6.6151E-08  0.0566
   4.9641E+01   5.0849E+01   0.0000E+00  0.0000
   5.0849E+01   5.2086E+01   0.0000E+00  0.0000
   5.2086E+01   5.3353E+01   0.0000E+00  0.0000
   5.3353E+01   5.4651E+01   0.0000E+00  0.0000
   5.4651E+01   5.5981E+01   0.0000E+00  0.0000
   5.5981E+01   5.7343E+01   0.0000E+00  0.0000
   5.7343E+01   5.8738E+01   0.0000E+00  0.0000
   5.8738E+01   6.0168E+01   0.0000E+00  0.0000
   6.0168E+01   6.1632E+01   0.0000E+00  0.0000
   6.1632E+01   6.3131E+01   0.0000E+00  0.0000
   6.3131E+01   6.4667E+01   0.0000E+00  0.0000
   6.4667E+01   6.6240E+01   0.0000E+00  0.0000
   6.6240E+01   6.7852E+01   0.0000E+00  0.0000
   6.7852E+01   6.9503E+01   0.0000E+00  0.0000
   6.9503E+01   7.1194E+01   0.0000E+00  0.0000
   7.1194E+01   7.2926E+01   0.0000E+00  0.0000
   7.2926E+01   7.4701E+01   0.0000E+00  0.0000
   7.4701E+01   7.6518E+01   0.0000E+00  0.0000
   7.6518E+01   7.8380E+01   0.0000E+00  0.0000
   7.8380E+01   8.0287E+01   0.0000E+00  0.0000
   8.0287E+01   8.2240E+01   0.0000E+00  0.0000
   8.2240E+01   8.4241E+01   0.0000E+00  0.0000
   8.4241E+01   8.6291E+01   0.0000E+00  0.0000
   8.6291E+01   8.8391E+01   0.0000E+00  0.0000
   8.8391E+01   9.0541E+01   0.0000E+00  0.0000
   9.0541E+01   9.2744E+01   0.0000E+00  0.0000
   9.2744E+01   9.5001E+01   0.0000E+00  0.0000
   9.5001E+01   9.7312E+01   0.0000E+00  0.0000
   9.7312E+01   9.9680E+01   0.0000E+00  0.0000
   9.9680E+01   1.0211E+02   0.0000E+00  0.0000
   1.0211E+02   1.0459E+02   0.0000E+00  0.0000
   1.0459E+02   1.0713E+02   0.0000E+00  0.0000
   1.0713E+02   1.0974E+02   0.0000E+00  0.0000
   1.0974E+02   1.1241E+02   0.0000E+00  0.0000
   1.1241E+02   1.1515E+02   0.0000E+00  0.0000
   1.1515E+02   1.1795E+02   0.0000E+00  0.0000
   1.1795E+02   1.2082E+02   0.0000E+00  0.0000
   1.2082E+02   1.2376E+02   0.0000E+00  0.0000
   1.2376E+02   1.2677E+02   0.0000E+00  0.0000
   1.2677E+02   1.2985E+02   0.0000E+00  0.0000
   1.2985E+02   1.3301E+02   0.0000E+00  0.0000
   1.3301E+02   1.3625E+02   0.0000E+00  0.0000
   1.3625E+02   1.3956E+02   0.0000E+00  0.0000
   1.3956E+02   1.4296E+02   0.0000E+00  0.0000
   1.4296E+02   1.4644E+02   0.0000E+00  0.0000
   1.4644E+02   1.5000E+02   0.0000E+00  0.0000

#   sum over                 7.7907E-06
'no. =    1   reg = 105 - 205'
msuc: {\huge [t-cross] in region mesh}
msdr: {\it plotted by \ANGEL \version}
msdl: {\it calculated by \PHITS  3.26}
wt: s(0.7)
\vspace{-3}
  region surface crossing
  area  &=&   1.0000E+00 [cm^2]
e:
 
# Information for Restart Calculation
# This calculation was newly started
# istdev =  2 # 1:Batch variance, 2:History variance
# resc2  = 4.00000000000000000E+09 # Total source weight or Total source weight / maxcas
# resc3  = 4.00000000000000000E+09 # Total history number or Total batch number
# maxcas =   500000000 # History / Batch, only used for istdev=1
# bitrseed = 1100001110010001001101100110001001100000000101110011111010100001 # bit data of rseed
