[ T-Cross ]
    title = [t-cross] in region mesh
     mesh =  reg            # mesh type is region-wise
      reg =    1            # number of crossing regions
      non     r-from    r-to       area
      1       113       213        1.000000    
   e-type =    3            # e-mesh is log given by emin, emax and ne
     emin =  1.0000000E-02  # minimum value of e-mesh points
     emax =   150.0000      # maximum value of e-mesh points
#    edel =  2.4039514E-02  # mesh width of e-mesh points
       ne =    400          # number of e-mesh points
#    data = ( e(i), i = 1, ne + 1 )
#           1.00000E-02  1.02433E-02  1.04925E-02  1.07478E-02  1.10093E-02
#           1.12772E-02  1.15516E-02  1.18326E-02  1.21205E-02  1.24154E-02
#           1.27175E-02  1.30269E-02  1.33439E-02  1.36686E-02  1.40011E-02
#           1.43418E-02  1.46907E-02  1.50482E-02  1.54143E-02  1.57894E-02
#           1.61735E-02  1.65670E-02  1.69701E-02  1.73830E-02  1.78060E-02
#           1.82392E-02  1.86830E-02  1.91375E-02  1.96032E-02  2.00801E-02
#           2.05687E-02  2.10692E-02  2.15818E-02  2.21069E-02  2.26448E-02
#           2.31957E-02  2.37601E-02  2.43382E-02  2.49304E-02  2.55369E-02
#           2.61583E-02  2.67947E-02  2.74467E-02  2.81145E-02  2.87985E-02
#           2.94992E-02  3.02169E-02  3.09521E-02  3.17052E-02  3.24766E-02
#           3.32668E-02  3.40762E-02  3.49053E-02  3.57546E-02  3.66246E-02
#           3.75157E-02  3.84284E-02  3.93634E-02  4.03212E-02  4.13022E-02
#           4.23071E-02  4.33365E-02  4.43909E-02  4.54710E-02  4.65773E-02
#           4.77106E-02  4.88714E-02  5.00605E-02  5.12785E-02  5.25262E-02
#           5.38042E-02  5.51133E-02  5.64542E-02  5.78278E-02  5.92348E-02
#           6.06760E-02  6.21523E-02  6.36645E-02  6.52135E-02  6.68002E-02
#           6.84255E-02  7.00904E-02  7.17957E-02  7.35426E-02  7.53319E-02
#           7.71648E-02  7.90423E-02  8.09655E-02  8.29354E-02  8.49533E-02
#           8.70203E-02  8.91376E-02  9.13064E-02  9.35279E-02  9.58035E-02
#           9.81345E-02  1.00522E-01  1.02968E-01  1.05473E-01  1.08040E-01
#           1.10668E-01  1.13361E-01  1.16119E-01  1.18944E-01  1.21838E-01
#           1.24803E-01  1.27839E-01  1.30950E-01  1.34136E-01  1.37399E-01
#           1.40742E-01  1.44167E-01  1.47675E-01  1.51268E-01  1.54948E-01
#           1.58718E-01  1.62580E-01  1.66535E-01  1.70587E-01  1.74738E-01
#           1.78989E-01  1.83344E-01  1.87805E-01  1.92375E-01  1.97055E-01
#           2.01850E-01  2.06761E-01  2.11792E-01  2.16945E-01  2.22223E-01
#           2.27630E-01  2.33169E-01  2.38842E-01  2.44653E-01  2.50605E-01
#           2.56703E-01  2.62949E-01  2.69346E-01  2.75900E-01  2.82613E-01
#           2.89489E-01  2.96532E-01  3.03747E-01  3.11138E-01  3.18708E-01
#           3.26462E-01  3.34405E-01  3.42542E-01  3.50876E-01  3.59413E-01
#           3.68158E-01  3.77116E-01  3.86291E-01  3.95690E-01  4.05317E-01
#           4.15179E-01  4.25281E-01  4.35628E-01  4.46227E-01  4.57084E-01
#           4.68205E-01  4.79597E-01  4.91266E-01  5.03219E-01  5.15463E-01
#           5.28005E-01  5.40851E-01  5.54011E-01  5.67490E-01  5.81298E-01
#           5.95441E-01  6.09929E-01  6.24769E-01  6.39970E-01  6.55541E-01
#           6.71491E-01  6.87828E-01  7.04564E-01  7.21706E-01  7.39266E-01
#           7.57253E-01  7.75678E-01  7.94551E-01  8.13883E-01  8.33685E-01
#           8.53969E-01  8.74747E-01  8.96030E-01  9.17831E-01  9.40163E-01
#           9.63038E-01  9.86469E-01  1.01047E+00  1.03506E+00  1.06024E+00
#           1.08604E+00  1.11246E+00  1.13953E+00  1.16725E+00  1.19565E+00
#           1.22474E+00  1.25454E+00  1.28507E+00  1.31633E+00  1.34836E+00
#           1.38117E+00  1.41477E+00  1.44920E+00  1.48446E+00  1.52057E+00
#           1.55757E+00  1.59547E+00  1.63429E+00  1.67405E+00  1.71478E+00
#           1.75650E+00  1.79924E+00  1.84302E+00  1.88786E+00  1.93379E+00
#           1.98084E+00  2.02904E+00  2.07841E+00  2.12898E+00  2.18078E+00
#           2.23384E+00  2.28819E+00  2.34386E+00  2.40089E+00  2.45930E+00
#           2.51914E+00  2.58043E+00  2.64322E+00  2.70753E+00  2.77341E+00
#           2.84088E+00  2.91001E+00  2.98081E+00  3.05333E+00  3.12762E+00
#           3.20372E+00  3.28167E+00  3.36152E+00  3.44330E+00  3.52708E+00
#           3.61290E+00  3.70080E+00  3.79085E+00  3.88308E+00  3.97756E+00
#           4.07434E+00  4.17347E+00  4.27501E+00  4.37903E+00  4.48557E+00
#           4.59471E+00  4.70650E+00  4.82102E+00  4.93832E+00  5.05847E+00
#           5.18155E+00  5.30762E+00  5.43676E+00  5.56904E+00  5.70453E+00
#           5.84333E+00  5.98550E+00  6.13114E+00  6.28031E+00  6.43312E+00
#           6.58964E+00  6.74997E+00  6.91420E+00  7.08243E+00  7.25475E+00
#           7.43126E+00  7.61207E+00  7.79728E+00  7.98700E+00  8.18133E+00
#           8.38038E+00  8.58428E+00  8.79315E+00  9.00709E+00  9.22624E+00
#           9.45072E+00  9.68067E+00  9.91620E+00  1.01575E+01  1.04046E+01
#           1.06578E+01  1.09171E+01  1.11827E+01  1.14548E+01  1.17335E+01
#           1.20190E+01  1.23114E+01  1.26109E+01  1.29178E+01  1.32321E+01
#           1.35540E+01  1.38838E+01  1.42216E+01  1.45676E+01  1.49221E+01
#           1.52851E+01  1.56570E+01  1.60380E+01  1.64282E+01  1.68279E+01
#           1.72374E+01  1.76568E+01  1.80864E+01  1.85264E+01  1.89772E+01
#           1.94389E+01  1.99119E+01  2.03963E+01  2.08926E+01  2.14009E+01
#           2.19216E+01  2.24550E+01  2.30014E+01  2.35610E+01  2.41343E+01
#           2.47215E+01  2.53230E+01  2.59391E+01  2.65702E+01  2.72167E+01
#           2.78789E+01  2.85572E+01  2.92520E+01  2.99637E+01  3.06928E+01
#           3.14396E+01  3.22045E+01  3.29881E+01  3.37907E+01  3.46128E+01
#           3.54550E+01  3.63177E+01  3.72013E+01  3.81064E+01  3.90336E+01
#           3.99833E+01  4.09561E+01  4.19526E+01  4.29734E+01  4.40189E+01
#           4.50900E+01  4.61870E+01  4.73108E+01  4.84619E+01  4.96410E+01
#           5.08488E+01  5.20860E+01  5.33533E+01  5.46514E+01  5.59812E+01
#           5.73432E+01  5.87384E+01  6.01676E+01  6.16315E+01  6.31311E+01
#           6.46671E+01  6.62405E+01  6.78522E+01  6.95031E+01  7.11941E+01
#           7.29263E+01  7.47007E+01  7.65182E+01  7.83800E+01  8.02870E+01
#           8.22405E+01  8.42414E+01  8.62911E+01  8.83906E+01  9.05412E+01
#           9.27442E+01  9.50007E+01  9.73122E+01  9.96799E+01  1.02105E+02
#           1.04589E+02  1.07134E+02  1.09741E+02  1.12411E+02  1.15146E+02
#           1.17948E+02  1.20817E+02  1.23757E+02  1.26768E+02  1.29852E+02
#           1.33012E+02  1.36248E+02  1.39563E+02  1.42959E+02  1.46437E+02
#           1.50000E+02
     unit =    2            # unit is [1/cm^2/(MeV/n)/source]
     axis =  eng            # axis of output
     file = detector-14.out  # file name of output for the above axis
   output = f-curr          # surface crossing forward current spectrum
     part =  neutron  
# kf/name :  2112     
#    used :        main (  %)        temp (  %)       total (  %)
#  memory :         414 (  0)           0 (  0)         414 (  0)

#------------------------------------------------------------------------------
#newpage:
#   no. =    1   reg = 113 - 213

x: Energy [MeV/n]
y:  F-Curr [1/cm^2/(MeV/n)/source]         
p: xlog ylog afac(0.8) form(0.9)
h: n            x            y(neutron ),hh0l   n 
#  e-lower      e-upper      neutron     r.err 
   1.0000E-02   1.0243E-02   1.0706E-03  0.0273
   1.0243E-02   1.0493E-02   1.0144E-03  0.0277
   1.0493E-02   1.0748E-02   9.8976E-04  0.0277
   1.0748E-02   1.1009E-02   9.2953E-04  0.0282
   1.1009E-02   1.1277E-02   9.5586E-04  0.0275
   1.1277E-02   1.1552E-02   9.0264E-04  0.0280
   1.1552E-02   1.1833E-02   9.0368E-04  0.0276
   1.1833E-02   1.2121E-02   8.6130E-04  0.0279
   1.2121E-02   1.2415E-02   8.7134E-04  0.0275
   1.2415E-02   1.2718E-02   8.2202E-04  0.0280
   1.2718E-02   1.3027E-02   8.0030E-04  0.0279
   1.3027E-02   1.3344E-02   8.2918E-04  0.0271
   1.3344E-02   1.3669E-02   8.1612E-04  0.0271
   1.3669E-02   1.4001E-02   7.8150E-04  0.0273
   1.4001E-02   1.4342E-02   7.2462E-04  0.0280
   1.4342E-02   1.4691E-02   7.3582E-04  0.0275
   1.4691E-02   1.5048E-02   7.1007E-04  0.0276
   1.5048E-02   1.5414E-02   7.1925E-04  0.0271
   1.5414E-02   1.5789E-02   6.9423E-04  0.0273
   1.5789E-02   1.6174E-02   6.9314E-04  0.0270
   1.6174E-02   1.6567E-02   6.6067E-04  0.0273
   1.6567E-02   1.6970E-02   6.5472E-04  0.0271
   1.6970E-02   1.7383E-02   6.1972E-04  0.0275
   1.7383E-02   1.7806E-02   6.4557E-04  0.0266
   1.7806E-02   1.8239E-02   5.9303E-04  0.0274
   1.8239E-02   1.8683E-02   5.8107E-04  0.0274
   1.8683E-02   1.9138E-02   5.8342E-04  0.0270
   1.9138E-02   1.9603E-02   5.6824E-04  0.0270
   1.9603E-02   2.0080E-02   5.6154E-04  0.0269
   2.0080E-02   2.0569E-02   5.6112E-04  0.0266
   2.0569E-02   2.1069E-02   5.4905E-04  0.0266
   2.1069E-02   2.1582E-02   5.2283E-04  0.0269
   2.1582E-02   2.2107E-02   5.2624E-04  0.0266
   2.2107E-02   2.2645E-02   4.9796E-04  0.0268
   2.2645E-02   2.3196E-02   5.0549E-04  0.0264
   2.3196E-02   2.3760E-02   4.5981E-04  0.0273
   2.3760E-02   2.4338E-02   4.5738E-04  0.0271
   2.4338E-02   2.4930E-02   4.4221E-04  0.0272
   2.4930E-02   2.5537E-02   4.3564E-04  0.0271
   2.5537E-02   2.6158E-02   4.4718E-04  0.0264
   2.6158E-02   2.6795E-02   4.2905E-04  0.0266
   2.6795E-02   2.7447E-02   4.1901E-04  0.0267
   2.7447E-02   2.8114E-02   4.3558E-04  0.0258
   2.8114E-02   2.8799E-02   3.9719E-04  0.0267
   2.8799E-02   2.9499E-02   4.2077E-04  0.0257
   2.9499E-02   3.0217E-02   3.8975E-04  0.0263
   3.0217E-02   3.0952E-02   3.7787E-04  0.0264
   3.0952E-02   3.1705E-02   3.6287E-04  0.0267
   3.1705E-02   3.2477E-02   3.6819E-04  0.0261
   3.2477E-02   3.3267E-02   3.5741E-04  0.0262
   3.3267E-02   3.4076E-02   3.5467E-04  0.0260
   3.4076E-02   3.4905E-02   3.4732E-04  0.0259
   3.4905E-02   3.5755E-02   3.2685E-04  0.0264
   3.5755E-02   3.6625E-02   3.3304E-04  0.0259
   3.6625E-02   3.7516E-02   3.2991E-04  0.0257
   3.7516E-02   3.8428E-02   3.1235E-04  0.0261
   3.8428E-02   3.9363E-02   3.1786E-04  0.0255
   3.9363E-02   4.0321E-02   3.0583E-04  0.0257
   4.0321E-02   4.1302E-02   3.0467E-04  0.0254
   4.1302E-02   4.2307E-02   2.9702E-04  0.0254
   4.2307E-02   4.3337E-02   2.8395E-04  0.0257
   4.3337E-02   4.4391E-02   2.7132E-04  0.0260
   4.4391E-02   4.5471E-02   2.8026E-04  0.0253
   4.5471E-02   4.6577E-02   2.4641E-04  0.0267
   4.6577E-02   4.7711E-02   2.5013E-04  0.0261
   4.7711E-02   4.8871E-02   2.4721E-04  0.0260
   4.8871E-02   5.0061E-02   2.5224E-04  0.0254
   5.0061E-02   5.1279E-02   2.3503E-04  0.0260
   5.1279E-02   5.2526E-02   2.2623E-04  0.0262
   5.2526E-02   5.3804E-02   2.2628E-04  0.0258
   5.3804E-02   5.5113E-02   2.3102E-04  0.0253
   5.5113E-02   5.6454E-02   2.3761E-04  0.0247
   5.6454E-02   5.7828E-02   2.2951E-04  0.0248
   5.7828E-02   5.9235E-02   2.1477E-04  0.0253
   5.9235E-02   6.0676E-02   2.1939E-04  0.0247
   6.0676E-02   6.2152E-02   2.0458E-04  0.0253
   6.2152E-02   6.3665E-02   2.0375E-04  0.0251
   6.3665E-02   6.5214E-02   1.9971E-04  0.0250
   6.5214E-02   6.6800E-02   1.8962E-04  0.0254
   6.6800E-02   6.8426E-02   1.8242E-04  0.0256
   6.8426E-02   7.0090E-02   1.8269E-04  0.0252
   7.0090E-02   7.1796E-02   1.7838E-04  0.0252
   7.1796E-02   7.3543E-02   1.7136E-04  0.0254
   7.3543E-02   7.5332E-02   1.7942E-04  0.0246
   7.5332E-02   7.7165E-02   1.6451E-04  0.0253
   7.7165E-02   7.9042E-02   1.6625E-04  0.0249
   7.9042E-02   8.0965E-02   1.5950E-04  0.0251
   8.0965E-02   8.2935E-02   1.6115E-04  0.0247
   8.2935E-02   8.4953E-02   1.6145E-04  0.0244
   8.4953E-02   8.7020E-02   1.5389E-04  0.0247
   8.7020E-02   8.9138E-02   1.4967E-04  0.0248
   8.9138E-02   9.1306E-02   1.4927E-04  0.0245
   9.1306E-02   9.3528E-02   1.4661E-04  0.0244
   9.3528E-02   9.5804E-02   1.3948E-04  0.0247
   9.5804E-02   9.8134E-02   1.4094E-04  0.0242
   9.8134E-02   1.0052E-01   1.3106E-04  0.0249
   1.0052E-01   1.0297E-01   1.3784E-04  0.0240
   1.0297E-01   1.0547E-01   1.3087E-04  0.0243
   1.0547E-01   1.0804E-01   1.3149E-04  0.0240
   1.0804E-01   1.1067E-01   1.2249E-04  0.0245
   1.1067E-01   1.1336E-01   1.2257E-04  0.0242
   1.1336E-01   1.1612E-01   1.2169E-04  0.0240
   1.1612E-01   1.1894E-01   1.2166E-04  0.0237
   1.1894E-01   1.2184E-01   1.1532E-04  0.0241
   1.2184E-01   1.2480E-01   1.1165E-04  0.0242
   1.2480E-01   1.2784E-01   1.0749E-04  0.0243
   1.2784E-01   1.3095E-01   1.1421E-04  0.0234
   1.3095E-01   1.3414E-01   1.0816E-04  0.0237
   1.3414E-01   1.3740E-01   1.0577E-04  0.0237
   1.3740E-01   1.4074E-01   1.0360E-04  0.0237
   1.4074E-01   1.4417E-01   9.9877E-05  0.0238
   1.4417E-01   1.4767E-01   9.7794E-05  0.0238
   1.4767E-01   1.5127E-01   9.9305E-05  0.0233
   1.5127E-01   1.5495E-01   9.6205E-05  0.0234
   1.5495E-01   1.5872E-01   9.5326E-05  0.0232
   1.5872E-01   1.6258E-01   9.4031E-05  0.0231
   1.6258E-01   1.6654E-01   9.2944E-05  0.0230
   1.6654E-01   1.7059E-01   8.8505E-05  0.0233
   1.7059E-01   1.7474E-01   9.1035E-05  0.0226
   1.7474E-01   1.7899E-01   8.5587E-05  0.0231
   1.7899E-01   1.8334E-01   8.7120E-05  0.0226
   1.8334E-01   1.8781E-01   8.7132E-05  0.0224
   1.8781E-01   1.9237E-01   8.4692E-05  0.0224
   1.9237E-01   1.9706E-01   8.5097E-05  0.0221
   1.9706E-01   2.0185E-01   8.4820E-05  0.0218
   2.0185E-01   2.0676E-01   8.5161E-05  0.0216
   2.0676E-01   2.1179E-01   8.9176E-05  0.0208
   2.1179E-01   2.1694E-01   9.6195E-05  0.0198
   2.1694E-01   2.2222E-01   9.6922E-05  0.0195
   2.2222E-01   2.2763E-01   1.0223E-04  0.0187
   2.2763E-01   2.3317E-01   1.1022E-04  0.0178
   2.3317E-01   2.3884E-01   1.1773E-04  0.0171
   2.3884E-01   2.4465E-01   1.1763E-04  0.0169
   2.4465E-01   2.5061E-01   1.1988E-04  0.0165
   2.5061E-01   2.5670E-01   1.2509E-04  0.0159
   2.5670E-01   2.6295E-01   1.2920E-04  0.0155
   2.6295E-01   2.6935E-01   1.4416E-04  0.0145
   2.6935E-01   2.7590E-01   1.4792E-04  0.0142
   2.7590E-01   2.8261E-01   1.5181E-04  0.0138
   2.8261E-01   2.8949E-01   1.5966E-04  0.0133
   2.8949E-01   2.9653E-01   1.6260E-04  0.0130
   2.9653E-01   3.0375E-01   1.7370E-04  0.0124
   3.0375E-01   3.1114E-01   1.8138E-04  0.0120
   3.1114E-01   3.1871E-01   1.8609E-04  0.0117
   3.1871E-01   3.2646E-01   2.0047E-04  0.0112
   3.2646E-01   3.3441E-01   2.0127E-04  0.0110
   3.3441E-01   3.4254E-01   2.0989E-04  0.0107
   3.4254E-01   3.5088E-01   2.2386E-04  0.0102
   3.5088E-01   3.5941E-01   2.3779E-04  0.0098
   3.5941E-01   3.6816E-01   2.4108E-04  0.0096
   3.6816E-01   3.7712E-01   2.4816E-04  0.0094
   3.7712E-01   3.8629E-01   2.6259E-04  0.0090
   3.8629E-01   3.9569E-01   2.7402E-04  0.0087
   3.9569E-01   4.0532E-01   2.8721E-04  0.0084
   4.0532E-01   4.1518E-01   2.9527E-04  0.0082
   4.1518E-01   4.2528E-01   3.1367E-04  0.0078
   4.2528E-01   4.3563E-01   3.2057E-04  0.0077
   4.3563E-01   4.4623E-01   3.3784E-04  0.0074
   4.4623E-01   4.5708E-01   3.5003E-04  0.0072
   4.5708E-01   4.6821E-01   3.6578E-04  0.0069
   4.6821E-01   4.7960E-01   3.8205E-04  0.0067
   4.7960E-01   4.9127E-01   3.9578E-04  0.0065
   4.9127E-01   5.0322E-01   4.0735E-04  0.0063
   5.0322E-01   5.1546E-01   4.2858E-04  0.0061
   5.1546E-01   5.2800E-01   4.4477E-04  0.0059
   5.2800E-01   5.4085E-01   4.5960E-04  0.0057
   5.4085E-01   5.5401E-01   4.7546E-04  0.0056
   5.5401E-01   5.6749E-01   5.0394E-04  0.0054
   5.6749E-01   5.8130E-01   5.1710E-04  0.0052
   5.8130E-01   5.9544E-01   5.3594E-04  0.0051
   5.9544E-01   6.0993E-01   5.5246E-04  0.0049
   6.0993E-01   6.2477E-01   5.7247E-04  0.0048
   6.2477E-01   6.3997E-01   5.9326E-04  0.0046
   6.3997E-01   6.5554E-01   6.1894E-04  0.0045
   6.5554E-01   6.7149E-01   6.3861E-04  0.0044
   6.7149E-01   6.8783E-01   6.6392E-04  0.0042
   6.8783E-01   7.0456E-01   6.7858E-04  0.0041
   7.0456E-01   7.2171E-01   7.0013E-04  0.0040
   7.2171E-01   7.3927E-01   7.2072E-04  0.0039
   7.3927E-01   7.5725E-01   7.4723E-04  0.0038
   7.5725E-01   7.7568E-01   7.6986E-04  0.0037
   7.7568E-01   7.9455E-01   7.9460E-04  0.0036
   7.9455E-01   8.1388E-01   8.1865E-04  0.0035
   8.1388E-01   8.3368E-01   8.4064E-04  0.0034
   8.3368E-01   8.5397E-01   8.7857E-04  0.0033
   8.5397E-01   8.7475E-01   8.9675E-04  0.0032
   8.7475E-01   8.9603E-01   9.2208E-04  0.0032
   8.9603E-01   9.1783E-01   9.4688E-04  0.0031
   9.1783E-01   9.4016E-01   9.6752E-04  0.0030
   9.4016E-01   9.6304E-01   9.9037E-04  0.0029
   9.6304E-01   9.8647E-01   1.0142E-03  0.0029
   9.8647E-01   1.0105E+00   1.0257E-03  0.0028
   1.0105E+00   1.0351E+00   1.0387E-03  0.0028
   1.0351E+00   1.0602E+00   1.0392E-03  0.0027
   1.0602E+00   1.0860E+00   1.0514E-03  0.0027
   1.0860E+00   1.1125E+00   1.0653E-03  0.0026
   1.1125E+00   1.1395E+00   1.0790E-03  0.0026
   1.1395E+00   1.1673E+00   1.1024E-03  0.0025
   1.1673E+00   1.1957E+00   1.1308E-03  0.0025
   1.1957E+00   1.2247E+00   1.1490E-03  0.0024
   1.2247E+00   1.2545E+00   1.1503E-03  0.0024
   1.2545E+00   1.2851E+00   1.1557E-03  0.0023
   1.2851E+00   1.3163E+00   1.1574E-03  0.0023
   1.3163E+00   1.3484E+00   1.1733E-03  0.0023
   1.3484E+00   1.3812E+00   1.1968E-03  0.0022
   1.3812E+00   1.4148E+00   1.2138E-03  0.0022
   1.4148E+00   1.4492E+00   1.2371E-03  0.0021
   1.4492E+00   1.4845E+00   1.2507E-03  0.0021
   1.4845E+00   1.5206E+00   1.2547E-03  0.0021
   1.5206E+00   1.5576E+00   1.2527E-03  0.0020
   1.5576E+00   1.5955E+00   1.2371E-03  0.0020
   1.5955E+00   1.6343E+00   1.2260E-03  0.0020
   1.6343E+00   1.6741E+00   1.2158E-03  0.0020
   1.6741E+00   1.7148E+00   1.2140E-03  0.0020
   1.7148E+00   1.7565E+00   1.2060E-03  0.0020
   1.7565E+00   1.7992E+00   1.2180E-03  0.0019
   1.7992E+00   1.8430E+00   1.2241E-03  0.0019
   1.8430E+00   1.8879E+00   1.2114E-03  0.0019
   1.8879E+00   1.9338E+00   1.2086E-03  0.0019
   1.9338E+00   1.9808E+00   1.2083E-03  0.0018
   1.9808E+00   2.0290E+00   1.2119E-03  0.0018
   2.0290E+00   2.0784E+00   1.2024E-03  0.0018
   2.0784E+00   2.1290E+00   1.1760E-03  0.0018
   2.1290E+00   2.1808E+00   1.1617E-03  0.0018
   2.1808E+00   2.2338E+00   1.1355E-03  0.0018
   2.2338E+00   2.2882E+00   1.1217E-03  0.0018
   2.2882E+00   2.3439E+00   1.1091E-03  0.0018
   2.3439E+00   2.4009E+00   1.1073E-03  0.0018
   2.4009E+00   2.4593E+00   1.1095E-03  0.0017
   2.4593E+00   2.5191E+00   1.1066E-03  0.0017
   2.5191E+00   2.5804E+00   1.0900E-03  0.0017
   2.5804E+00   2.6432E+00   1.0744E-03  0.0017
   2.6432E+00   2.7075E+00   1.0576E-03  0.0017
   2.7075E+00   2.7734E+00   1.0340E-03  0.0017
   2.7734E+00   2.8409E+00   1.0192E-03  0.0017
   2.8409E+00   2.9100E+00   1.0022E-03  0.0017
   2.9100E+00   2.9808E+00   9.9294E-04  0.0017
   2.9808E+00   3.0533E+00   9.8664E-04  0.0017
   3.0533E+00   3.1276E+00   9.7167E-04  0.0016
   3.1276E+00   3.2037E+00   9.4869E-04  0.0016
   3.2037E+00   3.2817E+00   9.2737E-04  0.0016
   3.2817E+00   3.3615E+00   9.0839E-04  0.0016
   3.3615E+00   3.4433E+00   8.9350E-04  0.0016
   3.4433E+00   3.5271E+00   8.8748E-04  0.0016
   3.5271E+00   3.6129E+00   8.7413E-04  0.0016
   3.6129E+00   3.7008E+00   8.5067E-04  0.0016
   3.7008E+00   3.7908E+00   8.3261E-04  0.0016
   3.7908E+00   3.8831E+00   8.1329E-04  0.0016
   3.8831E+00   3.9776E+00   8.0318E-04  0.0016
   3.9776E+00   4.0743E+00   7.9571E-04  0.0016
   4.0743E+00   4.1735E+00   7.7812E-04  0.0016
   4.1735E+00   4.2750E+00   7.6018E-04  0.0016
   4.2750E+00   4.3790E+00   7.4824E-04  0.0016
   4.3790E+00   4.4856E+00   7.4041E-04  0.0016
   4.4856E+00   4.5947E+00   7.3178E-04  0.0016
   4.5947E+00   4.7065E+00   7.1436E-04  0.0016
   4.7065E+00   4.8210E+00   7.0097E-04  0.0016
   4.8210E+00   4.9383E+00   6.9220E-04  0.0016
   4.9383E+00   5.0585E+00   6.8536E-04  0.0015
   5.0585E+00   5.1815E+00   6.8577E-04  0.0015
   5.1815E+00   5.3076E+00   6.7679E-04  0.0015
   5.3076E+00   5.4368E+00   6.6168E-04  0.0015
   5.4368E+00   5.5690E+00   6.4655E-04  0.0015
   5.5690E+00   5.7045E+00   6.2747E-04  0.0015
   5.7045E+00   5.8433E+00   6.1286E-04  0.0015
   5.8433E+00   5.9855E+00   5.9635E-04  0.0015
   5.9855E+00   6.1311E+00   5.8215E-04  0.0015
   6.1311E+00   6.2803E+00   5.6535E-04  0.0015
   6.2803E+00   6.4331E+00   5.5107E-04  0.0015
   6.4331E+00   6.5896E+00   5.3614E-04  0.0015
   6.5896E+00   6.7500E+00   5.2083E-04  0.0015
   6.7500E+00   6.9142E+00   5.0812E-04  0.0015
   6.9142E+00   7.0824E+00   4.9328E-04  0.0015
   7.0824E+00   7.2548E+00   4.8132E-04  0.0015
   7.2548E+00   7.4313E+00   4.6866E-04  0.0015
   7.4313E+00   7.6121E+00   4.5570E-04  0.0015
   7.6121E+00   7.7973E+00   4.4361E-04  0.0016
   7.7973E+00   7.9870E+00   4.3165E-04  0.0016
   7.9870E+00   8.1813E+00   4.2116E-04  0.0016
   8.1813E+00   8.3804E+00   4.1023E-04  0.0016
   8.3804E+00   8.5843E+00   3.9842E-04  0.0016
   8.5843E+00   8.7931E+00   3.8814E-04  0.0016
   8.7931E+00   9.0071E+00   3.7899E-04  0.0016
   9.0071E+00   9.2262E+00   3.6976E-04  0.0016
   9.2262E+00   9.4507E+00   3.5830E-04  0.0016
   9.4507E+00   9.6807E+00   3.4985E-04  0.0016
   9.6807E+00   9.9162E+00   3.4065E-04  0.0016
   9.9162E+00   1.0157E+01   3.3111E-04  0.0016
   1.0157E+01   1.0405E+01   3.2262E-04  0.0016
   1.0405E+01   1.0658E+01   3.1439E-04  0.0016
   1.0658E+01   1.0917E+01   3.0535E-04  0.0016
   1.0917E+01   1.1183E+01   2.9676E-04  0.0016
   1.1183E+01   1.1455E+01   2.8833E-04  0.0016
   1.1455E+01   1.1733E+01   2.8035E-04  0.0016
   1.1733E+01   1.2019E+01   2.7257E-04  0.0016
   1.2019E+01   1.2311E+01   2.6428E-04  0.0016
   1.2311E+01   1.2611E+01   2.5655E-04  0.0016
   1.2611E+01   1.2918E+01   2.5041E-04  0.0016
   1.2918E+01   1.3232E+01   2.4285E-04  0.0016
   1.3232E+01   1.3554E+01   2.3539E-04  0.0016
   1.3554E+01   1.3884E+01   2.2795E-04  0.0016
   1.3884E+01   1.4222E+01   2.2025E-04  0.0016
   1.4222E+01   1.4568E+01   2.1431E-04  0.0016
   1.4568E+01   1.4922E+01   2.0749E-04  0.0016
   1.4922E+01   1.5285E+01   2.0051E-04  0.0017
   1.5285E+01   1.5657E+01   1.9442E-04  0.0017
   1.5657E+01   1.6038E+01   1.8826E-04  0.0017
   1.6038E+01   1.6428E+01   1.8222E-04  0.0017
   1.6428E+01   1.6828E+01   1.7579E-04  0.0017
   1.6828E+01   1.7237E+01   1.7009E-04  0.0017
   1.7237E+01   1.7657E+01   1.6415E-04  0.0017
   1.7657E+01   1.8086E+01   1.5946E-04  0.0017
   1.8086E+01   1.8526E+01   1.5298E-04  0.0017
   1.8526E+01   1.8977E+01   1.4844E-04  0.0017
   1.8977E+01   1.9439E+01   1.4708E-04  0.0017
   1.9439E+01   1.9912E+01   1.5048E-04  0.0017
   1.9912E+01   2.0396E+01   1.4971E-04  0.0017
   2.0396E+01   2.0893E+01   1.4615E-04  0.0017
   2.0893E+01   2.1401E+01   1.4088E-04  0.0017
   2.1401E+01   2.1922E+01   1.3547E-04  0.0017
   2.1922E+01   2.2455E+01   1.3037E-04  0.0017
   2.2455E+01   2.3001E+01   1.2498E-04  0.0017
   2.3001E+01   2.3561E+01   1.2013E-04  0.0017
   2.3561E+01   2.4134E+01   1.1476E-04  0.0017
   2.4134E+01   2.4721E+01   1.1076E-04  0.0018
   2.4721E+01   2.5323E+01   1.0546E-04  0.0018
   2.5323E+01   2.5939E+01   1.0086E-04  0.0018
   2.5939E+01   2.6570E+01   9.6240E-05  0.0018
   2.6570E+01   2.7217E+01   9.1937E-05  0.0018
   2.7217E+01   2.7879E+01   8.7446E-05  0.0019
   2.7879E+01   2.8557E+01   8.2803E-05  0.0019
   2.8557E+01   2.9252E+01   7.8788E-05  0.0019
   2.9252E+01   2.9964E+01   7.4830E-05  0.0019
   2.9964E+01   3.0693E+01   7.0925E-05  0.0020
   3.0693E+01   3.1440E+01   6.7194E-05  0.0020
   3.1440E+01   3.2205E+01   6.3543E-05  0.0020
   3.2205E+01   3.2988E+01   5.9819E-05  0.0021
   3.2988E+01   3.3791E+01   5.6388E-05  0.0021
   3.3791E+01   3.4613E+01   5.2907E-05  0.0021
   3.4613E+01   3.5455E+01   4.9751E-05  0.0022
   3.5455E+01   3.6318E+01   4.6763E-05  0.0022
   3.6318E+01   3.7201E+01   4.3715E-05  0.0023
   3.7201E+01   3.8106E+01   4.0906E-05  0.0023
   3.8106E+01   3.9034E+01   3.8265E-05  0.0024
   3.9034E+01   3.9983E+01   3.5604E-05  0.0024
   3.9983E+01   4.0956E+01   3.3138E-05  0.0025
   4.0956E+01   4.1953E+01   3.0733E-05  0.0026
   4.1953E+01   4.2973E+01   2.8600E-05  0.0026
   4.2973E+01   4.4019E+01   2.6267E-05  0.0027
   4.4019E+01   4.5090E+01   2.4383E-05  0.0028
   4.5090E+01   4.6187E+01   2.2329E-05  0.0029
   4.6187E+01   4.7311E+01   2.0607E-05  0.0029
   4.7311E+01   4.8462E+01   1.8855E-05  0.0030
   4.8462E+01   4.9641E+01   1.7221E-05  0.0031
   4.9641E+01   5.0849E+01   1.5644E-05  0.0033
   5.0849E+01   5.2086E+01   1.4273E-05  0.0034
   5.2086E+01   5.3353E+01   1.2812E-05  0.0035
   5.3353E+01   5.4651E+01   1.1585E-05  0.0036
   5.4651E+01   5.5981E+01   1.0380E-05  0.0038
   5.5981E+01   5.7343E+01   9.3976E-06  0.0040
   5.7343E+01   5.8738E+01   8.3767E-06  0.0041
   5.8738E+01   6.0168E+01   7.4753E-06  0.0043
   6.0168E+01   6.1632E+01   6.5915E-06  0.0046
   6.1632E+01   6.3131E+01   5.8335E-06  0.0048
   6.3131E+01   6.4667E+01   5.1508E-06  0.0050
   6.4667E+01   6.6240E+01   4.5125E-06  0.0053
   6.6240E+01   6.7852E+01   3.9654E-06  0.0056
   6.7852E+01   6.9503E+01   3.4242E-06  0.0059
   6.9503E+01   7.1194E+01   2.9833E-06  0.0063
   7.1194E+01   7.2926E+01   2.5493E-06  0.0067
   7.2926E+01   7.4701E+01   2.1948E-06  0.0072
   7.4701E+01   7.6518E+01   1.8554E-06  0.0077
   7.6518E+01   7.8380E+01   1.5483E-06  0.0083
   7.8380E+01   8.0287E+01   1.3115E-06  0.0089
   8.0287E+01   8.2240E+01   1.0906E-06  0.0097
   8.2240E+01   8.4241E+01   9.1475E-07  0.0105
   8.4241E+01   8.6291E+01   7.5349E-07  0.0114
   8.6291E+01   8.8391E+01   6.1785E-07  0.0124
   8.8391E+01   9.0541E+01   4.8935E-07  0.0138
   9.0541E+01   9.2744E+01   3.9257E-07  0.0152
   9.2744E+01   9.5001E+01   3.0888E-07  0.0169
   9.5001E+01   9.7312E+01   2.3933E-07  0.0190
   9.7312E+01   9.9680E+01   1.8516E-07  0.0214
   9.9680E+01   1.0211E+02   1.3656E-07  0.0246
   1.0211E+02   1.0459E+02   1.0401E-07  0.0278
   1.0459E+02   1.0713E+02   6.3189E-08  0.0353
   1.0713E+02   1.0974E+02   4.7724E-08  0.0401
   1.0974E+02   1.1241E+02   3.0186E-08  0.0498
   1.1241E+02   1.1515E+02   1.7477E-08  0.0647
   1.1515E+02   1.1795E+02   9.4946E-09  0.0867
   1.1795E+02   1.2082E+02   6.2723E-09  0.1054
   1.2082E+02   1.2376E+02   3.0617E-09  0.1491
   1.2376E+02   1.2677E+02   1.5941E-09  0.2041
   1.2677E+02   1.2985E+02   5.1875E-10  0.3536
   1.2985E+02   1.3301E+02   1.8991E-10  0.5774
   1.3301E+02   1.3625E+02   1.2360E-10  0.7071
   1.3625E+02   1.3956E+02   6.0331E-11  1.0000
   1.3956E+02   1.4296E+02   0.0000E+00  0.0000
   1.4296E+02   1.4644E+02   0.0000E+00  0.0000
   1.4644E+02   1.5000E+02   0.0000E+00  0.0000

#   sum over                 7.2787E-05
'no. =    1   reg = 113 - 213'
msuc: {\huge [t-cross] in region mesh}
msdr: {\it plotted by \ANGEL \version}
msdl: {\it calculated by \PHITS  3.28}
wt: s(0.7)
\vspace{-3}
  region surface crossing
  area  &=&   1.0000E+00 [cm^2]
e:
 
# Information for Restart Calculation
# This calculation was newly started
# istdev =  2 # 1:Batch variance, 2:History variance
# resc2  = 5.00000000000000000E+09 # Total source weight or Total source weight / maxcas
# resc3  = 5.00000000000000000E+09 # Total history number or Total batch number
# maxcas =   500000000 # History / Batch, only used for istdev=1
# bitrseed = 0110100000100010111000001110001111001110100100011111101000111001 # bit data of rseed
