[ T-Cross ]
    title = [t-cross] in region mesh
     mesh =  reg            # mesh type is region-wise
      reg =    1            # number of crossing regions
      non     r-from    r-to       area
      1       116       216        1.000000    
   e-type =    3            # e-mesh is log given by emin, emax and ne
     emin =  1.0000000E-02  # minimum value of e-mesh points
     emax =   150.0000      # maximum value of e-mesh points
#    edel =  2.4039514E-02  # mesh width of e-mesh points
       ne =    400          # number of e-mesh points
#    data = ( e(i), i = 1, ne + 1 )
#           1.00000E-02  1.02433E-02  1.04925E-02  1.07478E-02  1.10093E-02
#           1.12772E-02  1.15516E-02  1.18326E-02  1.21205E-02  1.24154E-02
#           1.27175E-02  1.30269E-02  1.33439E-02  1.36686E-02  1.40011E-02
#           1.43418E-02  1.46907E-02  1.50482E-02  1.54143E-02  1.57894E-02
#           1.61735E-02  1.65670E-02  1.69701E-02  1.73830E-02  1.78060E-02
#           1.82392E-02  1.86830E-02  1.91375E-02  1.96032E-02  2.00801E-02
#           2.05687E-02  2.10692E-02  2.15818E-02  2.21069E-02  2.26448E-02
#           2.31957E-02  2.37601E-02  2.43382E-02  2.49304E-02  2.55369E-02
#           2.61583E-02  2.67947E-02  2.74467E-02  2.81145E-02  2.87985E-02
#           2.94992E-02  3.02169E-02  3.09521E-02  3.17052E-02  3.24766E-02
#           3.32668E-02  3.40762E-02  3.49053E-02  3.57546E-02  3.66246E-02
#           3.75157E-02  3.84284E-02  3.93634E-02  4.03212E-02  4.13022E-02
#           4.23071E-02  4.33365E-02  4.43909E-02  4.54710E-02  4.65773E-02
#           4.77106E-02  4.88714E-02  5.00605E-02  5.12785E-02  5.25262E-02
#           5.38042E-02  5.51133E-02  5.64542E-02  5.78278E-02  5.92348E-02
#           6.06760E-02  6.21523E-02  6.36645E-02  6.52135E-02  6.68002E-02
#           6.84255E-02  7.00904E-02  7.17957E-02  7.35426E-02  7.53319E-02
#           7.71648E-02  7.90423E-02  8.09655E-02  8.29354E-02  8.49533E-02
#           8.70203E-02  8.91376E-02  9.13064E-02  9.35279E-02  9.58035E-02
#           9.81345E-02  1.00522E-01  1.02968E-01  1.05473E-01  1.08040E-01
#           1.10668E-01  1.13361E-01  1.16119E-01  1.18944E-01  1.21838E-01
#           1.24803E-01  1.27839E-01  1.30950E-01  1.34136E-01  1.37399E-01
#           1.40742E-01  1.44167E-01  1.47675E-01  1.51268E-01  1.54948E-01
#           1.58718E-01  1.62580E-01  1.66535E-01  1.70587E-01  1.74738E-01
#           1.78989E-01  1.83344E-01  1.87805E-01  1.92375E-01  1.97055E-01
#           2.01850E-01  2.06761E-01  2.11792E-01  2.16945E-01  2.22223E-01
#           2.27630E-01  2.33169E-01  2.38842E-01  2.44653E-01  2.50605E-01
#           2.56703E-01  2.62949E-01  2.69346E-01  2.75900E-01  2.82613E-01
#           2.89489E-01  2.96532E-01  3.03747E-01  3.11138E-01  3.18708E-01
#           3.26462E-01  3.34405E-01  3.42542E-01  3.50876E-01  3.59413E-01
#           3.68158E-01  3.77116E-01  3.86291E-01  3.95690E-01  4.05317E-01
#           4.15179E-01  4.25281E-01  4.35628E-01  4.46227E-01  4.57084E-01
#           4.68205E-01  4.79597E-01  4.91266E-01  5.03219E-01  5.15463E-01
#           5.28005E-01  5.40851E-01  5.54011E-01  5.67490E-01  5.81298E-01
#           5.95441E-01  6.09929E-01  6.24769E-01  6.39970E-01  6.55541E-01
#           6.71491E-01  6.87828E-01  7.04564E-01  7.21706E-01  7.39266E-01
#           7.57253E-01  7.75678E-01  7.94551E-01  8.13883E-01  8.33685E-01
#           8.53969E-01  8.74747E-01  8.96030E-01  9.17831E-01  9.40163E-01
#           9.63038E-01  9.86469E-01  1.01047E+00  1.03506E+00  1.06024E+00
#           1.08604E+00  1.11246E+00  1.13953E+00  1.16725E+00  1.19565E+00
#           1.22474E+00  1.25454E+00  1.28507E+00  1.31633E+00  1.34836E+00
#           1.38117E+00  1.41477E+00  1.44920E+00  1.48446E+00  1.52057E+00
#           1.55757E+00  1.59547E+00  1.63429E+00  1.67405E+00  1.71478E+00
#           1.75650E+00  1.79924E+00  1.84302E+00  1.88786E+00  1.93379E+00
#           1.98084E+00  2.02904E+00  2.07841E+00  2.12898E+00  2.18078E+00
#           2.23384E+00  2.28819E+00  2.34386E+00  2.40089E+00  2.45930E+00
#           2.51914E+00  2.58043E+00  2.64322E+00  2.70753E+00  2.77341E+00
#           2.84088E+00  2.91001E+00  2.98081E+00  3.05333E+00  3.12762E+00
#           3.20372E+00  3.28167E+00  3.36152E+00  3.44330E+00  3.52708E+00
#           3.61290E+00  3.70080E+00  3.79085E+00  3.88308E+00  3.97756E+00
#           4.07434E+00  4.17347E+00  4.27501E+00  4.37903E+00  4.48557E+00
#           4.59471E+00  4.70650E+00  4.82102E+00  4.93832E+00  5.05847E+00
#           5.18155E+00  5.30762E+00  5.43676E+00  5.56904E+00  5.70453E+00
#           5.84333E+00  5.98550E+00  6.13114E+00  6.28031E+00  6.43312E+00
#           6.58964E+00  6.74997E+00  6.91420E+00  7.08243E+00  7.25475E+00
#           7.43126E+00  7.61207E+00  7.79728E+00  7.98700E+00  8.18133E+00
#           8.38038E+00  8.58428E+00  8.79315E+00  9.00709E+00  9.22624E+00
#           9.45072E+00  9.68067E+00  9.91620E+00  1.01575E+01  1.04046E+01
#           1.06578E+01  1.09171E+01  1.11827E+01  1.14548E+01  1.17335E+01
#           1.20190E+01  1.23114E+01  1.26109E+01  1.29178E+01  1.32321E+01
#           1.35540E+01  1.38838E+01  1.42216E+01  1.45676E+01  1.49221E+01
#           1.52851E+01  1.56570E+01  1.60380E+01  1.64282E+01  1.68279E+01
#           1.72374E+01  1.76568E+01  1.80864E+01  1.85264E+01  1.89772E+01
#           1.94389E+01  1.99119E+01  2.03963E+01  2.08926E+01  2.14009E+01
#           2.19216E+01  2.24550E+01  2.30014E+01  2.35610E+01  2.41343E+01
#           2.47215E+01  2.53230E+01  2.59391E+01  2.65702E+01  2.72167E+01
#           2.78789E+01  2.85572E+01  2.92520E+01  2.99637E+01  3.06928E+01
#           3.14396E+01  3.22045E+01  3.29881E+01  3.37907E+01  3.46128E+01
#           3.54550E+01  3.63177E+01  3.72013E+01  3.81064E+01  3.90336E+01
#           3.99833E+01  4.09561E+01  4.19526E+01  4.29734E+01  4.40189E+01
#           4.50900E+01  4.61870E+01  4.73108E+01  4.84619E+01  4.96410E+01
#           5.08488E+01  5.20860E+01  5.33533E+01  5.46514E+01  5.59812E+01
#           5.73432E+01  5.87384E+01  6.01676E+01  6.16315E+01  6.31311E+01
#           6.46671E+01  6.62405E+01  6.78522E+01  6.95031E+01  7.11941E+01
#           7.29263E+01  7.47007E+01  7.65182E+01  7.83800E+01  8.02870E+01
#           8.22405E+01  8.42414E+01  8.62911E+01  8.83906E+01  9.05412E+01
#           9.27442E+01  9.50007E+01  9.73122E+01  9.96799E+01  1.02105E+02
#           1.04589E+02  1.07134E+02  1.09741E+02  1.12411E+02  1.15146E+02
#           1.17948E+02  1.20817E+02  1.23757E+02  1.26768E+02  1.29852E+02
#           1.33012E+02  1.36248E+02  1.39563E+02  1.42959E+02  1.46437E+02
#           1.50000E+02
     unit =    2            # unit is [1/cm^2/(MeV/n)/source]
     axis =  eng            # axis of output
     file = detector-17.out  # file name of output for the above axis
   output = f-curr          # surface crossing forward current spectrum
     part =  neutron  
# kf/name :  2112     
#    used :        main (  %)        temp (  %)       total (  %)
#  memory :         414 (  0)           0 (  0)         414 (  0)

#------------------------------------------------------------------------------
#newpage:
#   no. =    1   reg = 116 - 216

x: Energy [MeV/n]
y:  F-Curr [1/cm^2/(MeV/n)/source]         
p: xlog ylog afac(0.8) form(0.9)
h: n            x            y(neutron ),hh0l   n 
#  e-lower      e-upper      neutron     r.err 
   1.0000E-02   1.0243E-02   2.3827E-03  0.0586
   1.0243E-02   1.0493E-02   2.2252E-03  0.0600
   1.0493E-02   1.0748E-02   1.9597E-03  0.0631
   1.0748E-02   1.1009E-02   2.1974E-03  0.0589
   1.1009E-02   1.1277E-02   2.1833E-03  0.0583
   1.1277E-02   1.1552E-02   1.9763E-03  0.0606
   1.1552E-02   1.1833E-02   2.3511E-03  0.0549
   1.1833E-02   1.2121E-02   1.8500E-03  0.0612
   1.2121E-02   1.2415E-02   1.8966E-03  0.0597
   1.2415E-02   1.2718E-02   2.0458E-03  0.0568
   1.2718E-02   1.3027E-02   2.0395E-03  0.0562
   1.3027E-02   1.3344E-02   1.9230E-03  0.0572
   1.3344E-02   1.3669E-02   1.8692E-03  0.0573
   1.3669E-02   1.4001E-02   1.8280E-03  0.0573
   1.4001E-02   1.4342E-02   1.6763E-03  0.0591
   1.4342E-02   1.4691E-02   1.7899E-03  0.0565
   1.4691E-02   1.5048E-02   1.5971E-03  0.0591
   1.5048E-02   1.5414E-02   1.7207E-03  0.0563
   1.5414E-02   1.5789E-02   1.6769E-03  0.0563
   1.5789E-02   1.6174E-02   1.6833E-03  0.0555
   1.6174E-02   1.6567E-02   1.5386E-03  0.0574
   1.6567E-02   1.6970E-02   1.4471E-03  0.0584
   1.6970E-02   1.7383E-02   1.4920E-03  0.0568
   1.7383E-02   1.7806E-02   1.4824E-03  0.0564
   1.7806E-02   1.8239E-02   1.5077E-03  0.0552
   1.8239E-02   1.8683E-02   1.4229E-03  0.0561
   1.8683E-02   1.9138E-02   1.5152E-03  0.0539
   1.9138E-02   1.9603E-02   1.3629E-03  0.0560
   1.9603E-02   2.0080E-02   1.2066E-03  0.0589
   2.0080E-02   2.0569E-02   1.4398E-03  0.0533
   2.0569E-02   2.1069E-02   1.3525E-03  0.0543
   2.1069E-02   2.1582E-02   1.2106E-03  0.0567
   2.1582E-02   2.2107E-02   1.1518E-03  0.0573
   2.2107E-02   2.2645E-02   1.2061E-03  0.0554
   2.2645E-02   2.3196E-02   1.1107E-03  0.0571
   2.3196E-02   2.3760E-02   1.1227E-03  0.0561
   2.3760E-02   2.4338E-02   1.0765E-03  0.0566
   2.4338E-02   2.4930E-02   1.1759E-03  0.0535
   2.4930E-02   2.5537E-02   1.1787E-03  0.0528
   2.5537E-02   2.6158E-02   1.0471E-03  0.0553
   2.6158E-02   2.6795E-02   1.0795E-03  0.0539
   2.6795E-02   2.7447E-02   1.0284E-03  0.0545
   2.7447E-02   2.8114E-02   9.9943E-04  0.0547
   2.8114E-02   2.8799E-02   9.7345E-04  0.0547
   2.8799E-02   2.9499E-02   9.4067E-04  0.0549
   2.9499E-02   3.0217E-02   9.2386E-04  0.0548
   3.0217E-02   3.0952E-02   9.6552E-04  0.0530
   3.0952E-02   3.1705E-02   8.5495E-04  0.0556
   3.1705E-02   3.2477E-02   8.2148E-04  0.0561
   3.2477E-02   3.3267E-02   8.5882E-04  0.0542
   3.3267E-02   3.4076E-02   8.2923E-04  0.0545
   3.4076E-02   3.4905E-02   7.9891E-04  0.0549
   3.4905E-02   3.5755E-02   9.1050E-04  0.0508
   3.5755E-02   3.6625E-02   8.4712E-04  0.0520
   3.6625E-02   3.7516E-02   7.2500E-04  0.0555
   3.7516E-02   3.8428E-02   7.4856E-04  0.0539
   3.8428E-02   3.9363E-02   7.4984E-04  0.0533
   3.9363E-02   4.0321E-02   7.2699E-04  0.0534
   4.0321E-02   4.1302E-02   6.5821E-04  0.0556
   4.1302E-02   4.2307E-02   6.8052E-04  0.0539
   4.2307E-02   4.3337E-02   6.7267E-04  0.0536
   4.3337E-02   4.4391E-02   6.6201E-04  0.0535
   4.4391E-02   4.5471E-02   6.6446E-04  0.0527
   4.5471E-02   4.6577E-02   6.8418E-04  0.0513
   4.6577E-02   4.7711E-02   6.2643E-04  0.0530
   4.7711E-02   4.8871E-02   6.3620E-04  0.0520
   4.8871E-02   5.0061E-02   5.8034E-04  0.0537
   5.0061E-02   5.1279E-02   5.6073E-04  0.0540
   5.1279E-02   5.2526E-02   5.5192E-04  0.0538
   5.2526E-02   5.3804E-02   5.5445E-04  0.0530
   5.3804E-02   5.5113E-02   5.3537E-04  0.0533
   5.5113E-02   5.6454E-02   5.4069E-04  0.0525
   5.6454E-02   5.7828E-02   5.0450E-04  0.0536
   5.7828E-02   5.9235E-02   4.7166E-04  0.0549
   5.9235E-02   6.0676E-02   5.4214E-04  0.0505
   6.0676E-02   6.2152E-02   5.3034E-04  0.0505
   6.2152E-02   6.3665E-02   4.8046E-04  0.0524
   6.3665E-02   6.5214E-02   4.8778E-04  0.0513
   6.5214E-02   6.6800E-02   4.5093E-04  0.0528
   6.6800E-02   6.8426E-02   4.5954E-04  0.0516
   6.8426E-02   7.0090E-02   3.8228E-04  0.0559
   7.0090E-02   7.1796E-02   4.4289E-04  0.0514
   7.1796E-02   7.3543E-02   4.0310E-04  0.0532
   7.3543E-02   7.5332E-02   4.4463E-04  0.0500
   7.5332E-02   7.7165E-02   4.1526E-04  0.0511
   7.7165E-02   7.9042E-02   4.0284E-04  0.0513
   7.9042E-02   8.0965E-02   3.8958E-04  0.0516
   8.0965E-02   8.2935E-02   3.6244E-04  0.0527
   8.2935E-02   8.4953E-02   3.5287E-04  0.0529
   8.4953E-02   8.7020E-02   3.5092E-04  0.0524
   8.7020E-02   8.9138E-02   3.6047E-04  0.0510
   8.9138E-02   9.1306E-02   3.2997E-04  0.0527
   9.1306E-02   9.3528E-02   3.5479E-04  0.0502
   9.3528E-02   9.5804E-02   3.3838E-04  0.0509
   9.5804E-02   9.8134E-02   3.4686E-04  0.0496
   9.8134E-02   1.0052E-01   3.1422E-04  0.0515
   1.0052E-01   1.0297E-01   3.3916E-04  0.0491
   1.0297E-01   1.0547E-01   3.2741E-04  0.0492
   1.0547E-01   1.0804E-01   2.8773E-04  0.0519
   1.0804E-01   1.1067E-01   2.9516E-04  0.0506
   1.1067E-01   1.1336E-01   2.9544E-04  0.0500
   1.1336E-01   1.1612E-01   2.8902E-04  0.0499
   1.1612E-01   1.1894E-01   2.5400E-04  0.0527
   1.1894E-01   1.2184E-01   2.7382E-04  0.0502
   1.2184E-01   1.2480E-01   2.4306E-04  0.0526
   1.2480E-01   1.2784E-01   2.5554E-04  0.0507
   1.2784E-01   1.3095E-01   2.5999E-04  0.0496
   1.3095E-01   1.3414E-01   2.4427E-04  0.0506
   1.3414E-01   1.3740E-01   2.6916E-04  0.0476
   1.3740E-01   1.4074E-01   2.2781E-04  0.0511
   1.4074E-01   1.4417E-01   2.3110E-04  0.0502
   1.4417E-01   1.4767E-01   2.3051E-04  0.0496
   1.4767E-01   1.5127E-01   2.2354E-04  0.0498
   1.5127E-01   1.5495E-01   2.1249E-04  0.0505
   1.5495E-01   1.5872E-01   2.0092E-04  0.0513
   1.5872E-01   1.6258E-01   2.0164E-04  0.0506
   1.6258E-01   1.6654E-01   2.1294E-04  0.0486
   1.6654E-01   1.7059E-01   1.9521E-04  0.0502
   1.7059E-01   1.7474E-01   1.9298E-04  0.0499
   1.7474E-01   1.7899E-01   1.9300E-04  0.0493
   1.7899E-01   1.8334E-01   1.8439E-04  0.0498
   1.8334E-01   1.8781E-01   1.7449E-04  0.0506
   1.8781E-01   1.9237E-01   1.7086E-04  0.0505
   1.9237E-01   1.9706E-01   1.7680E-04  0.0491
   1.9706E-01   2.0185E-01   1.7290E-04  0.0490
   2.0185E-01   2.0676E-01   1.8331E-04  0.0471
   2.0676E-01   2.1179E-01   1.8205E-04  0.0467
   2.1179E-01   2.1694E-01   1.8273E-04  0.0460
   2.1694E-01   2.2222E-01   1.9779E-04  0.0437
   2.2222E-01   2.2763E-01   1.8250E-04  0.0449
   2.2763E-01   2.3317E-01   1.9714E-04  0.0427
   2.3317E-01   2.3884E-01   2.0430E-04  0.0415
   2.3884E-01   2.4465E-01   2.2267E-04  0.0392
   2.4465E-01   2.5061E-01   2.2191E-04  0.0388
   2.5061E-01   2.5670E-01   2.3011E-04  0.0377
   2.5670E-01   2.6295E-01   2.2550E-04  0.0376
   2.6295E-01   2.6935E-01   2.3683E-04  0.0363
   2.6935E-01   2.7590E-01   2.3307E-04  0.0361
   2.7590E-01   2.8261E-01   2.4849E-04  0.0345
   2.8261E-01   2.8949E-01   2.5511E-04  0.0337
   2.8949E-01   2.9653E-01   2.7249E-04  0.0322
   2.9653E-01   3.0375E-01   2.8018E-04  0.0314
   3.0375E-01   3.1114E-01   2.7460E-04  0.0313
   3.1114E-01   3.1871E-01   2.8253E-04  0.0305
   3.1871E-01   3.2646E-01   2.9833E-04  0.0293
   3.2646E-01   3.3441E-01   2.9776E-04  0.0290
   3.3441E-01   3.4254E-01   2.9973E-04  0.0285
   3.4254E-01   3.5088E-01   3.0776E-04  0.0279
   3.5088E-01   3.5941E-01   3.1682E-04  0.0271
   3.5941E-01   3.6816E-01   3.2083E-04  0.0266
   3.6816E-01   3.7712E-01   3.2163E-04  0.0263
   3.7712E-01   3.8629E-01   3.3136E-04  0.0256
   3.8629E-01   3.9569E-01   3.2408E-04  0.0256
   3.9569E-01   4.0532E-01   3.3287E-04  0.0249
   4.0532E-01   4.1518E-01   3.5418E-04  0.0239
   4.1518E-01   4.2528E-01   3.5965E-04  0.0234
   4.2528E-01   4.3563E-01   3.6994E-04  0.0228
   4.3563E-01   4.4623E-01   3.5824E-04  0.0229
   4.4623E-01   4.5708E-01   3.8155E-04  0.0219
   4.5708E-01   4.6821E-01   3.6555E-04  0.0221
   4.6821E-01   4.7960E-01   3.6621E-04  0.0218
   4.7960E-01   4.9127E-01   3.7813E-04  0.0212
   4.9127E-01   5.0322E-01   3.9426E-04  0.0205
   5.0322E-01   5.1546E-01   3.8773E-04  0.0205
   5.1546E-01   5.2800E-01   3.8403E-04  0.0203
   5.2800E-01   5.4085E-01   3.8688E-04  0.0200
   5.4085E-01   5.5401E-01   4.0069E-04  0.0194
   5.5401E-01   5.6749E-01   3.9631E-04  0.0193
   5.6749E-01   5.8130E-01   4.0268E-04  0.0189
   5.8130E-01   5.9544E-01   3.9627E-04  0.0188
   5.9544E-01   6.0993E-01   3.9810E-04  0.0186
   6.0993E-01   6.2477E-01   3.9440E-04  0.0184
   6.2477E-01   6.3997E-01   4.0844E-04  0.0179
   6.3997E-01   6.5554E-01   4.0723E-04  0.0177
   6.5554E-01   6.7149E-01   4.1369E-04  0.0173
   6.7149E-01   6.8783E-01   3.9863E-04  0.0175
   6.8783E-01   7.0456E-01   4.0221E-04  0.0172
   7.0456E-01   7.2171E-01   4.0470E-04  0.0169
   7.2171E-01   7.3927E-01   3.9860E-04  0.0168
   7.3927E-01   7.5725E-01   3.9855E-04  0.0167
   7.5725E-01   7.7568E-01   3.9544E-04  0.0165
   7.7568E-01   7.9455E-01   3.9265E-04  0.0164
   7.9455E-01   8.1388E-01   3.7938E-04  0.0165
   8.1388E-01   8.3368E-01   3.8593E-04  0.0161
   8.3368E-01   8.5397E-01   3.8516E-04  0.0159
   8.5397E-01   8.7475E-01   3.8519E-04  0.0157
   8.7475E-01   8.9603E-01   3.7214E-04  0.0158
   8.9603E-01   9.1783E-01   3.7328E-04  0.0156
   9.1783E-01   9.4016E-01   3.6707E-04  0.0156
   9.4016E-01   9.6304E-01   3.6213E-04  0.0155
   9.6304E-01   9.8647E-01   3.6941E-04  0.0151
   9.8647E-01   1.0105E+00   3.6483E-04  0.0151
   1.0105E+00   1.0351E+00   3.5247E-04  0.0151
   1.0351E+00   1.0602E+00   3.4362E-04  0.0151
   1.0602E+00   1.0860E+00   3.4383E-04  0.0149
   1.0860E+00   1.1125E+00   3.3219E-04  0.0150
   1.1125E+00   1.1395E+00   3.2198E-04  0.0151
   1.1395E+00   1.1673E+00   3.2128E-04  0.0149
   1.1673E+00   1.1957E+00   3.2498E-04  0.0146
   1.1957E+00   1.2247E+00   3.1118E-04  0.0148
   1.2247E+00   1.2545E+00   3.1914E-04  0.0144
   1.2545E+00   1.2851E+00   3.0016E-04  0.0147
   1.2851E+00   1.3163E+00   2.9482E-04  0.0146
   1.3163E+00   1.3484E+00   2.8394E-04  0.0147
   1.3484E+00   1.3812E+00   2.8942E-04  0.0144
   1.3812E+00   1.4148E+00   2.8009E-04  0.0145
   1.4148E+00   1.4492E+00   2.7823E-04  0.0144
   1.4492E+00   1.4845E+00   2.6881E-04  0.0144
   1.4845E+00   1.5206E+00   2.7027E-04  0.0142
   1.5206E+00   1.5576E+00   2.6368E-04  0.0142
   1.5576E+00   1.5955E+00   2.6307E-04  0.0141
   1.5955E+00   1.6343E+00   2.5393E-04  0.0141
   1.6343E+00   1.6741E+00   2.4295E-04  0.0143
   1.6741E+00   1.7148E+00   2.4728E-04  0.0140
   1.7148E+00   1.7565E+00   2.4311E-04  0.0139
   1.7565E+00   1.7992E+00   2.3397E-04  0.0140
   1.7992E+00   1.8430E+00   2.2644E-04  0.0141
   1.8430E+00   1.8879E+00   2.2653E-04  0.0139
   1.8879E+00   1.9338E+00   2.2238E-04  0.0139
   1.9338E+00   1.9808E+00   2.2072E-04  0.0138
   1.9808E+00   2.0290E+00   2.1864E-04  0.0137
   2.0290E+00   2.0784E+00   2.1062E-04  0.0138
   2.0784E+00   2.1290E+00   2.1093E-04  0.0136
   2.1290E+00   2.1808E+00   2.0910E-04  0.0135
   2.1808E+00   2.2338E+00   2.0339E-04  0.0135
   2.2338E+00   2.2882E+00   1.9666E-04  0.0136
   2.2882E+00   2.3439E+00   1.9946E-04  0.0133
   2.3439E+00   2.4009E+00   1.9340E-04  0.0134
   2.4009E+00   2.4593E+00   1.8703E-04  0.0134
   2.4593E+00   2.5191E+00   1.8355E-04  0.0134
   2.5191E+00   2.5804E+00   1.8546E-04  0.0132
   2.5804E+00   2.6432E+00   1.7613E-04  0.0133
   2.6432E+00   2.7075E+00   1.8325E-04  0.0129
   2.7075E+00   2.7734E+00   1.7599E-04  0.0130
   2.7734E+00   2.8409E+00   1.7238E-04  0.0130
   2.8409E+00   2.9100E+00   1.6978E-04  0.0129
   2.9100E+00   2.9808E+00   1.7080E-04  0.0128
   2.9808E+00   3.0533E+00   1.6564E-04  0.0128
   3.0533E+00   3.1276E+00   1.6625E-04  0.0126
   3.1276E+00   3.2037E+00   1.6375E-04  0.0126
   3.2037E+00   3.2817E+00   1.6579E-04  0.0123
   3.2817E+00   3.3615E+00   1.5760E-04  0.0125
   3.3615E+00   3.4433E+00   1.5859E-04  0.0123
   3.4433E+00   3.5271E+00   1.5991E-04  0.0121
   3.5271E+00   3.6129E+00   1.5384E-04  0.0122
   3.6129E+00   3.7008E+00   1.5206E-04  0.0121
   3.7008E+00   3.7908E+00   1.4973E-04  0.0121
   3.7908E+00   3.8831E+00   1.4772E-04  0.0120
   3.8831E+00   3.9776E+00   1.4706E-04  0.0119
   3.9776E+00   4.0743E+00   1.4385E-04  0.0119
   4.0743E+00   4.1735E+00   1.4438E-04  0.0117
   4.1735E+00   4.2750E+00   1.4444E-04  0.0116
   4.2750E+00   4.3790E+00   1.4338E-04  0.0115
   4.3790E+00   4.4856E+00   1.4053E-04  0.0115
   4.4856E+00   4.5947E+00   1.3901E-04  0.0114
   4.5947E+00   4.7065E+00   1.4122E-04  0.0112
   4.7065E+00   4.8210E+00   1.3584E-04  0.0113
   4.8210E+00   4.9383E+00   1.3172E-04  0.0113
   4.9383E+00   5.0585E+00   1.2611E-04  0.0114
   5.0585E+00   5.1815E+00   1.2538E-04  0.0113
   5.1815E+00   5.3076E+00   1.2333E-04  0.0113
   5.3076E+00   5.4368E+00   1.1898E-04  0.0114
   5.4368E+00   5.5690E+00   1.1756E-04  0.0113
   5.5690E+00   5.7045E+00   1.1572E-04  0.0112
   5.7045E+00   5.8433E+00   1.1181E-04  0.0113
   5.8433E+00   5.9855E+00   1.1100E-04  0.0112
   5.9855E+00   6.1311E+00   1.0632E-04  0.0113
   6.1311E+00   6.2803E+00   1.0508E-04  0.0113
   6.2803E+00   6.4331E+00   1.0322E-04  0.0112
   6.4331E+00   6.5896E+00   9.9786E-05  0.0113
   6.5896E+00   6.7500E+00   9.7307E-05  0.0113
   6.7500E+00   6.9142E+00   9.5516E-05  0.0113
   6.9142E+00   7.0824E+00   9.2912E-05  0.0113
   7.0824E+00   7.2548E+00   9.0026E-05  0.0113
   7.2548E+00   7.4313E+00   8.8452E-05  0.0113
   7.4313E+00   7.6121E+00   8.7037E-05  0.0112
   7.6121E+00   7.7973E+00   8.2822E-05  0.0114
   7.7973E+00   7.9870E+00   8.0792E-05  0.0114
   7.9870E+00   8.1813E+00   7.8928E-05  0.0114
   8.1813E+00   8.3804E+00   7.5478E-05  0.0115
   8.3804E+00   8.5843E+00   7.3196E-05  0.0116
   8.5843E+00   8.7931E+00   7.0935E-05  0.0116
   8.7931E+00   9.0071E+00   6.8660E-05  0.0116
   9.0071E+00   9.2262E+00   6.5545E-05  0.0118
   9.2262E+00   9.4507E+00   6.3282E-05  0.0118
   9.4507E+00   9.6807E+00   6.0292E-05  0.0120
   9.6807E+00   9.9162E+00   5.8576E-05  0.0120
   9.9162E+00   1.0157E+01   5.5659E-05  0.0122
   1.0157E+01   1.0405E+01   5.5199E-05  0.0121
   1.0405E+01   1.0658E+01   5.3980E-05  0.0121
   1.0658E+01   1.0917E+01   5.3336E-05  0.0120
   1.0917E+01   1.1183E+01   5.1110E-05  0.0121
   1.1183E+01   1.1455E+01   4.8396E-05  0.0123
   1.1455E+01   1.1733E+01   4.6166E-05  0.0125
   1.1733E+01   1.2019E+01   4.3504E-05  0.0127
   1.2019E+01   1.2311E+01   4.2610E-05  0.0127
   1.2311E+01   1.2611E+01   3.9257E-05  0.0130
   1.2611E+01   1.2918E+01   3.7300E-05  0.0132
   1.2918E+01   1.3232E+01   3.6145E-05  0.0133
   1.3232E+01   1.3554E+01   3.3678E-05  0.0136
   1.3554E+01   1.3884E+01   3.1742E-05  0.0138
   1.3884E+01   1.4222E+01   3.0445E-05  0.0139
   1.4222E+01   1.4568E+01   2.7818E-05  0.0144
   1.4568E+01   1.4922E+01   2.6815E-05  0.0145
   1.4922E+01   1.5285E+01   2.4095E-05  0.0151
   1.5285E+01   1.5657E+01   2.2541E-05  0.0154
   1.5657E+01   1.6038E+01   2.0279E-05  0.0161
   1.6038E+01   1.6428E+01   1.8795E-05  0.0165
   1.6428E+01   1.6828E+01   1.7717E-05  0.0168
   1.6828E+01   1.7237E+01   1.6455E-05  0.0172
   1.7237E+01   1.7657E+01   1.4225E-05  0.0183
   1.7657E+01   1.8086E+01   1.3391E-05  0.0186
   1.8086E+01   1.8526E+01   1.1955E-05  0.0195
   1.8526E+01   1.8977E+01   1.0903E-05  0.0202
   1.8977E+01   1.9439E+01   1.0129E-05  0.0207
   1.9439E+01   1.9912E+01   8.5940E-06  0.0222
   1.9912E+01   2.0396E+01   7.6339E-06  0.0233
   2.0396E+01   2.0893E+01   7.0528E-06  0.0239
   2.0893E+01   2.1401E+01   6.3069E-06  0.0250
   2.1401E+01   2.1922E+01   5.1277E-06  0.0274
   2.1922E+01   2.2455E+01   4.4734E-06  0.0290
   2.2455E+01   2.3001E+01   4.0304E-06  0.0301
   2.3001E+01   2.3561E+01   3.4200E-06  0.0323
   2.3561E+01   2.4134E+01   2.8329E-06  0.0351
   2.4134E+01   2.4721E+01   2.6601E-06  0.0358
   2.4721E+01   2.5323E+01   2.1214E-06  0.0396
   2.5323E+01   2.5939E+01   1.8957E-06  0.0414
   2.5939E+01   2.6570E+01   1.6098E-06  0.0444
   2.6570E+01   2.7217E+01   1.2096E-06  0.0506
   2.7217E+01   2.7879E+01   1.0752E-06  0.0530
   2.7879E+01   2.8557E+01   1.0084E-06  0.0541
   2.8557E+01   2.9252E+01   7.9157E-07  0.0603
   2.9252E+01   2.9964E+01   6.2103E-07  0.0673
   2.9964E+01   3.0693E+01   5.9530E-07  0.0679
   3.0693E+01   3.1440E+01   4.4725E-07  0.0774
   3.1440E+01   3.2205E+01   4.1833E-07  0.0791
   3.2205E+01   3.2988E+01   3.1906E-07  0.0894
   3.2988E+01   3.3791E+01   2.8905E-07  0.0928
   3.3791E+01   3.4613E+01   2.7489E-07  0.0941
   3.4613E+01   3.5455E+01   2.5173E-07  0.0971
   3.5455E+01   3.6318E+01   1.9243E-07  0.1098
   3.6318E+01   3.7201E+01   1.6070E-07  0.1187
   3.7201E+01   3.8106E+01   1.7677E-07  0.1118
   3.8106E+01   3.9034E+01   1.5100E-07  0.1195
   3.9034E+01   3.9983E+01   1.2004E-07  0.1325
   3.9983E+01   4.0956E+01   8.4291E-08  0.1562
   4.0956E+01   4.1953E+01   7.6267E-08  0.1622
   4.1953E+01   4.2973E+01   6.4659E-08  0.1741
   4.2973E+01   4.4019E+01   4.5908E-08  0.2041
   4.4019E+01   4.5090E+01   4.6685E-08  0.2000
   4.5090E+01   4.6187E+01   2.5522E-08  0.2673
   4.6187E+01   4.7311E+01   3.5595E-08  0.2236
   4.7311E+01   4.8462E+01   1.5637E-08  0.3333
   4.8462E+01   4.9641E+01   6.7847E-09  0.5000
   4.9641E+01   5.0849E+01   6.6236E-09  0.5000
   5.0849E+01   5.2086E+01   0.0000E+00  0.0000
   5.2086E+01   5.3353E+01   0.0000E+00  0.0000
   5.3353E+01   5.4651E+01   0.0000E+00  0.0000
   5.4651E+01   5.5981E+01   0.0000E+00  0.0000
   5.5981E+01   5.7343E+01   0.0000E+00  0.0000
   5.7343E+01   5.8738E+01   0.0000E+00  0.0000
   5.8738E+01   6.0168E+01   0.0000E+00  0.0000
   6.0168E+01   6.1632E+01   0.0000E+00  0.0000
   6.1632E+01   6.3131E+01   0.0000E+00  0.0000
   6.3131E+01   6.4667E+01   0.0000E+00  0.0000
   6.4667E+01   6.6240E+01   0.0000E+00  0.0000
   6.6240E+01   6.7852E+01   0.0000E+00  0.0000
   6.7852E+01   6.9503E+01   0.0000E+00  0.0000
   6.9503E+01   7.1194E+01   0.0000E+00  0.0000
   7.1194E+01   7.2926E+01   0.0000E+00  0.0000
   7.2926E+01   7.4701E+01   0.0000E+00  0.0000
   7.4701E+01   7.6518E+01   0.0000E+00  0.0000
   7.6518E+01   7.8380E+01   0.0000E+00  0.0000
   7.8380E+01   8.0287E+01   0.0000E+00  0.0000
   8.0287E+01   8.2240E+01   0.0000E+00  0.0000
   8.2240E+01   8.4241E+01   0.0000E+00  0.0000
   8.4241E+01   8.6291E+01   0.0000E+00  0.0000
   8.6291E+01   8.8391E+01   0.0000E+00  0.0000
   8.8391E+01   9.0541E+01   0.0000E+00  0.0000
   9.0541E+01   9.2744E+01   0.0000E+00  0.0000
   9.2744E+01   9.5001E+01   0.0000E+00  0.0000
   9.5001E+01   9.7312E+01   0.0000E+00  0.0000
   9.7312E+01   9.9680E+01   0.0000E+00  0.0000
   9.9680E+01   1.0211E+02   0.0000E+00  0.0000
   1.0211E+02   1.0459E+02   0.0000E+00  0.0000
   1.0459E+02   1.0713E+02   0.0000E+00  0.0000
   1.0713E+02   1.0974E+02   0.0000E+00  0.0000
   1.0974E+02   1.1241E+02   0.0000E+00  0.0000
   1.1241E+02   1.1515E+02   0.0000E+00  0.0000
   1.1515E+02   1.1795E+02   0.0000E+00  0.0000
   1.1795E+02   1.2082E+02   0.0000E+00  0.0000
   1.2082E+02   1.2376E+02   0.0000E+00  0.0000
   1.2376E+02   1.2677E+02   0.0000E+00  0.0000
   1.2677E+02   1.2985E+02   0.0000E+00  0.0000
   1.2985E+02   1.3301E+02   0.0000E+00  0.0000
   1.3301E+02   1.3625E+02   0.0000E+00  0.0000
   1.3625E+02   1.3956E+02   0.0000E+00  0.0000
   1.3956E+02   1.4296E+02   0.0000E+00  0.0000
   1.4296E+02   1.4644E+02   0.0000E+00  0.0000
   1.4644E+02   1.5000E+02   0.0000E+00  0.0000

#   sum over                 1.2511E-05
'no. =    1   reg = 116 - 216'
msuc: {\huge [t-cross] in region mesh}
msdr: {\it plotted by \ANGEL \version}
msdl: {\it calculated by \PHITS  3.26}
wt: s(0.7)
\vspace{-3}
  region surface crossing
  area  &=&   1.0000E+00 [cm^2]
e:
 
# Information for Restart Calculation
# This calculation was newly started
# istdev =  2 # 1:Batch variance, 2:History variance
# resc2  = 5.00000000000000000E+08 # Total source weight or Total source weight / maxcas
# resc3  = 5.00000000000000000E+08 # Total history number or Total batch number
# maxcas =   500000000 # History / Batch, only used for istdev=1
# bitrseed = 1101101111010011011000101101110001100110110010110001010100010001 # bit data of rseed
