[ T-Cross ]
    title = [t-cross] in region mesh
     mesh =  reg            # mesh type is region-wise
      reg =    1            # number of crossing regions
      non     r-from    r-to       area
      1       118       218        1.000000    
   e-type =    3            # e-mesh is log given by emin, emax and ne
     emin =  1.0000000E-02  # minimum value of e-mesh points
     emax =   150.0000      # maximum value of e-mesh points
#    edel =  2.4039514E-02  # mesh width of e-mesh points
       ne =    400          # number of e-mesh points
#    data = ( e(i), i = 1, ne + 1 )
#           1.00000E-02  1.02433E-02  1.04925E-02  1.07478E-02  1.10093E-02
#           1.12772E-02  1.15516E-02  1.18326E-02  1.21205E-02  1.24154E-02
#           1.27175E-02  1.30269E-02  1.33439E-02  1.36686E-02  1.40011E-02
#           1.43418E-02  1.46907E-02  1.50482E-02  1.54143E-02  1.57894E-02
#           1.61735E-02  1.65670E-02  1.69701E-02  1.73830E-02  1.78060E-02
#           1.82392E-02  1.86830E-02  1.91375E-02  1.96032E-02  2.00801E-02
#           2.05687E-02  2.10692E-02  2.15818E-02  2.21069E-02  2.26448E-02
#           2.31957E-02  2.37601E-02  2.43382E-02  2.49304E-02  2.55369E-02
#           2.61583E-02  2.67947E-02  2.74467E-02  2.81145E-02  2.87985E-02
#           2.94992E-02  3.02169E-02  3.09521E-02  3.17052E-02  3.24766E-02
#           3.32668E-02  3.40762E-02  3.49053E-02  3.57546E-02  3.66246E-02
#           3.75157E-02  3.84284E-02  3.93634E-02  4.03212E-02  4.13022E-02
#           4.23071E-02  4.33365E-02  4.43909E-02  4.54710E-02  4.65773E-02
#           4.77106E-02  4.88714E-02  5.00605E-02  5.12785E-02  5.25262E-02
#           5.38042E-02  5.51133E-02  5.64542E-02  5.78278E-02  5.92348E-02
#           6.06760E-02  6.21523E-02  6.36645E-02  6.52135E-02  6.68002E-02
#           6.84255E-02  7.00904E-02  7.17957E-02  7.35426E-02  7.53319E-02
#           7.71648E-02  7.90423E-02  8.09655E-02  8.29354E-02  8.49533E-02
#           8.70203E-02  8.91376E-02  9.13064E-02  9.35279E-02  9.58035E-02
#           9.81345E-02  1.00522E-01  1.02968E-01  1.05473E-01  1.08040E-01
#           1.10668E-01  1.13361E-01  1.16119E-01  1.18944E-01  1.21838E-01
#           1.24803E-01  1.27839E-01  1.30950E-01  1.34136E-01  1.37399E-01
#           1.40742E-01  1.44167E-01  1.47675E-01  1.51268E-01  1.54948E-01
#           1.58718E-01  1.62580E-01  1.66535E-01  1.70587E-01  1.74738E-01
#           1.78989E-01  1.83344E-01  1.87805E-01  1.92375E-01  1.97055E-01
#           2.01850E-01  2.06761E-01  2.11792E-01  2.16945E-01  2.22223E-01
#           2.27630E-01  2.33169E-01  2.38842E-01  2.44653E-01  2.50605E-01
#           2.56703E-01  2.62949E-01  2.69346E-01  2.75900E-01  2.82613E-01
#           2.89489E-01  2.96532E-01  3.03747E-01  3.11138E-01  3.18708E-01
#           3.26462E-01  3.34405E-01  3.42542E-01  3.50876E-01  3.59413E-01
#           3.68158E-01  3.77116E-01  3.86291E-01  3.95690E-01  4.05317E-01
#           4.15179E-01  4.25281E-01  4.35628E-01  4.46227E-01  4.57084E-01
#           4.68205E-01  4.79597E-01  4.91266E-01  5.03219E-01  5.15463E-01
#           5.28005E-01  5.40851E-01  5.54011E-01  5.67490E-01  5.81298E-01
#           5.95441E-01  6.09929E-01  6.24769E-01  6.39970E-01  6.55541E-01
#           6.71491E-01  6.87828E-01  7.04564E-01  7.21706E-01  7.39266E-01
#           7.57253E-01  7.75678E-01  7.94551E-01  8.13883E-01  8.33685E-01
#           8.53969E-01  8.74747E-01  8.96030E-01  9.17831E-01  9.40163E-01
#           9.63038E-01  9.86469E-01  1.01047E+00  1.03506E+00  1.06024E+00
#           1.08604E+00  1.11246E+00  1.13953E+00  1.16725E+00  1.19565E+00
#           1.22474E+00  1.25454E+00  1.28507E+00  1.31633E+00  1.34836E+00
#           1.38117E+00  1.41477E+00  1.44920E+00  1.48446E+00  1.52057E+00
#           1.55757E+00  1.59547E+00  1.63429E+00  1.67405E+00  1.71478E+00
#           1.75650E+00  1.79924E+00  1.84302E+00  1.88786E+00  1.93379E+00
#           1.98084E+00  2.02904E+00  2.07841E+00  2.12898E+00  2.18078E+00
#           2.23384E+00  2.28819E+00  2.34386E+00  2.40089E+00  2.45930E+00
#           2.51914E+00  2.58043E+00  2.64322E+00  2.70753E+00  2.77341E+00
#           2.84088E+00  2.91001E+00  2.98081E+00  3.05333E+00  3.12762E+00
#           3.20372E+00  3.28167E+00  3.36152E+00  3.44330E+00  3.52708E+00
#           3.61290E+00  3.70080E+00  3.79085E+00  3.88308E+00  3.97756E+00
#           4.07434E+00  4.17347E+00  4.27501E+00  4.37903E+00  4.48557E+00
#           4.59471E+00  4.70650E+00  4.82102E+00  4.93832E+00  5.05847E+00
#           5.18155E+00  5.30762E+00  5.43676E+00  5.56904E+00  5.70453E+00
#           5.84333E+00  5.98550E+00  6.13114E+00  6.28031E+00  6.43312E+00
#           6.58964E+00  6.74997E+00  6.91420E+00  7.08243E+00  7.25475E+00
#           7.43126E+00  7.61207E+00  7.79728E+00  7.98700E+00  8.18133E+00
#           8.38038E+00  8.58428E+00  8.79315E+00  9.00709E+00  9.22624E+00
#           9.45072E+00  9.68067E+00  9.91620E+00  1.01575E+01  1.04046E+01
#           1.06578E+01  1.09171E+01  1.11827E+01  1.14548E+01  1.17335E+01
#           1.20190E+01  1.23114E+01  1.26109E+01  1.29178E+01  1.32321E+01
#           1.35540E+01  1.38838E+01  1.42216E+01  1.45676E+01  1.49221E+01
#           1.52851E+01  1.56570E+01  1.60380E+01  1.64282E+01  1.68279E+01
#           1.72374E+01  1.76568E+01  1.80864E+01  1.85264E+01  1.89772E+01
#           1.94389E+01  1.99119E+01  2.03963E+01  2.08926E+01  2.14009E+01
#           2.19216E+01  2.24550E+01  2.30014E+01  2.35610E+01  2.41343E+01
#           2.47215E+01  2.53230E+01  2.59391E+01  2.65702E+01  2.72167E+01
#           2.78789E+01  2.85572E+01  2.92520E+01  2.99637E+01  3.06928E+01
#           3.14396E+01  3.22045E+01  3.29881E+01  3.37907E+01  3.46128E+01
#           3.54550E+01  3.63177E+01  3.72013E+01  3.81064E+01  3.90336E+01
#           3.99833E+01  4.09561E+01  4.19526E+01  4.29734E+01  4.40189E+01
#           4.50900E+01  4.61870E+01  4.73108E+01  4.84619E+01  4.96410E+01
#           5.08488E+01  5.20860E+01  5.33533E+01  5.46514E+01  5.59812E+01
#           5.73432E+01  5.87384E+01  6.01676E+01  6.16315E+01  6.31311E+01
#           6.46671E+01  6.62405E+01  6.78522E+01  6.95031E+01  7.11941E+01
#           7.29263E+01  7.47007E+01  7.65182E+01  7.83800E+01  8.02870E+01
#           8.22405E+01  8.42414E+01  8.62911E+01  8.83906E+01  9.05412E+01
#           9.27442E+01  9.50007E+01  9.73122E+01  9.96799E+01  1.02105E+02
#           1.04589E+02  1.07134E+02  1.09741E+02  1.12411E+02  1.15146E+02
#           1.17948E+02  1.20817E+02  1.23757E+02  1.26768E+02  1.29852E+02
#           1.33012E+02  1.36248E+02  1.39563E+02  1.42959E+02  1.46437E+02
#           1.50000E+02
     unit =    2            # unit is [1/cm^2/(MeV/n)/source]
     axis =  eng            # axis of output
     file = detector-19.out  # file name of output for the above axis
   output = f-curr          # surface crossing forward current spectrum
     part =  neutron  
# kf/name :  2112     
#    used :        main (  %)        temp (  %)       total (  %)
#  memory :         414 (  0)           0 (  0)         414 (  0)

#------------------------------------------------------------------------------
#newpage:
#   no. =    1   reg = 118 - 218

x: Energy [MeV/n]
y:  F-Curr [1/cm^2/(MeV/n)/source]         
p: xlog ylog afac(0.8) form(0.9)
h: n            x            y(neutron ),hh0l   n 
#  e-lower      e-upper      neutron     r.err 
   1.0000E-02   1.0243E-02   4.1219E-02  0.0058
   1.0243E-02   1.0493E-02   4.1312E-02  0.0057
   1.0493E-02   1.0748E-02   4.0864E-02  0.0057
   1.0748E-02   1.1009E-02   4.0332E-02  0.0056
   1.1009E-02   1.1277E-02   4.0019E-02  0.0056
   1.1277E-02   1.1552E-02   3.9756E-02  0.0055
   1.1552E-02   1.1833E-02   3.9406E-02  0.0055
   1.1833E-02   1.2121E-02   3.9067E-02  0.0054
   1.2121E-02   1.2415E-02   3.8622E-02  0.0054
   1.2415E-02   1.2718E-02   3.8295E-02  0.0054
   1.2718E-02   1.3027E-02   3.7627E-02  0.0054
   1.3027E-02   1.3344E-02   3.7825E-02  0.0053
   1.3344E-02   1.3669E-02   3.7153E-02  0.0053
   1.3669E-02   1.4001E-02   3.6915E-02  0.0052
   1.4001E-02   1.4342E-02   3.6415E-02  0.0052
   1.4342E-02   1.4691E-02   3.6186E-02  0.0051
   1.4691E-02   1.5048E-02   3.6003E-02  0.0051
   1.5048E-02   1.5414E-02   3.5368E-02  0.0051
   1.5414E-02   1.5789E-02   3.5244E-02  0.0050
   1.5789E-02   1.6174E-02   3.4955E-02  0.0050
   1.6174E-02   1.6567E-02   3.4706E-02  0.0049
   1.6567E-02   1.6970E-02   3.3999E-02  0.0049
   1.6970E-02   1.7383E-02   3.3820E-02  0.0049
   1.7383E-02   1.7806E-02   3.3444E-02  0.0049
   1.7806E-02   1.8239E-02   3.3310E-02  0.0048
   1.8239E-02   1.8683E-02   3.3330E-02  0.0047
   1.8683E-02   1.9138E-02   3.2690E-02  0.0047
   1.9138E-02   1.9603E-02   3.2015E-02  0.0047
   1.9603E-02   2.0080E-02   3.1890E-02  0.0047
   2.0080E-02   2.0569E-02   3.1602E-02  0.0046
   2.0569E-02   2.1069E-02   3.1695E-02  0.0046
   2.1069E-02   2.1582E-02   3.0953E-02  0.0046
   2.1582E-02   2.2107E-02   3.0999E-02  0.0045
   2.2107E-02   2.2645E-02   3.0511E-02  0.0045
   2.2645E-02   2.3196E-02   3.0435E-02  0.0045
   2.3196E-02   2.3760E-02   3.0051E-02  0.0044
   2.3760E-02   2.4338E-02   2.9727E-02  0.0044
   2.4338E-02   2.4930E-02   2.9340E-02  0.0044
   2.4930E-02   2.5537E-02   2.9167E-02  0.0043
   2.5537E-02   2.6158E-02   2.8642E-02  0.0043
   2.6158E-02   2.6795E-02   2.8463E-02  0.0043
   2.6795E-02   2.7447E-02   2.8337E-02  0.0042
   2.7447E-02   2.8114E-02   2.7974E-02  0.0042
   2.8114E-02   2.8799E-02   2.7856E-02  0.0042
   2.8799E-02   2.9499E-02   2.7417E-02  0.0042
   2.9499E-02   3.0217E-02   2.7380E-02  0.0041
   3.0217E-02   3.0952E-02   2.7045E-02  0.0041
   3.0952E-02   3.1705E-02   2.6876E-02  0.0041
   3.1705E-02   3.2477E-02   2.6292E-02  0.0041
   3.2477E-02   3.3267E-02   2.6143E-02  0.0040
   3.3267E-02   3.4076E-02   2.6058E-02  0.0040
   3.4076E-02   3.4905E-02   2.5940E-02  0.0039
   3.4905E-02   3.5755E-02   2.5605E-02  0.0039
   3.5755E-02   3.6625E-02   2.5269E-02  0.0039
   3.6625E-02   3.7516E-02   2.4998E-02  0.0039
   3.7516E-02   3.8428E-02   2.4750E-02  0.0038
   3.8428E-02   3.9363E-02   2.4554E-02  0.0038
   3.9363E-02   4.0321E-02   2.4396E-02  0.0038
   4.0321E-02   4.1302E-02   2.4026E-02  0.0038
   4.1302E-02   4.2307E-02   2.3760E-02  0.0037
   4.2307E-02   4.3337E-02   2.3629E-02  0.0037
   4.3337E-02   4.4391E-02   2.3399E-02  0.0037
   4.4391E-02   4.5471E-02   2.3213E-02  0.0036
   4.5471E-02   4.6577E-02   2.2890E-02  0.0036
   4.6577E-02   4.7711E-02   2.2584E-02  0.0036
   4.7711E-02   4.8871E-02   2.2510E-02  0.0036
   4.8871E-02   5.0061E-02   2.2226E-02  0.0036
   5.0061E-02   5.1279E-02   2.2032E-02  0.0035
   5.1279E-02   5.2526E-02   2.1722E-02  0.0035
   5.2526E-02   5.3804E-02   2.1614E-02  0.0035
   5.3804E-02   5.5113E-02   2.1277E-02  0.0035
   5.5113E-02   5.6454E-02   2.1111E-02  0.0034
   5.6454E-02   5.7828E-02   2.0957E-02  0.0034
   5.7828E-02   5.9235E-02   2.0778E-02  0.0034
   5.9235E-02   6.0676E-02   2.0617E-02  0.0034
   6.0676E-02   6.2152E-02   2.0373E-02  0.0033
   6.2152E-02   6.3665E-02   2.0123E-02  0.0033
   6.3665E-02   6.5214E-02   1.9831E-02  0.0033
   6.5214E-02   6.6800E-02   1.9745E-02  0.0033
   6.6800E-02   6.8426E-02   1.9588E-02  0.0032
   6.8426E-02   7.0090E-02   1.9331E-02  0.0032
   7.0090E-02   7.1796E-02   1.9183E-02  0.0032
   7.1796E-02   7.3543E-02   1.8864E-02  0.0032
   7.3543E-02   7.5332E-02   1.8794E-02  0.0031
   7.5332E-02   7.7165E-02   1.8442E-02  0.0031
   7.7165E-02   7.9042E-02   1.8328E-02  0.0031
   7.9042E-02   8.0965E-02   1.8122E-02  0.0031
   8.0965E-02   8.2935E-02   1.8009E-02  0.0031
   8.2935E-02   8.4953E-02   1.7750E-02  0.0031
   8.4953E-02   8.7020E-02   1.7611E-02  0.0030
   8.7020E-02   8.9138E-02   1.7393E-02  0.0030
   8.9138E-02   9.1306E-02   1.7180E-02  0.0030
   9.1306E-02   9.3528E-02   1.6984E-02  0.0030
   9.3528E-02   9.5804E-02   1.6886E-02  0.0029
   9.5804E-02   9.8134E-02   1.6710E-02  0.0029
   9.8134E-02   1.0052E-01   1.6459E-02  0.0029
   1.0052E-01   1.0297E-01   1.6326E-02  0.0029
   1.0297E-01   1.0547E-01   1.6193E-02  0.0029
   1.0547E-01   1.0804E-01   1.6009E-02  0.0028
   1.0804E-01   1.1067E-01   1.5837E-02  0.0028
   1.1067E-01   1.1336E-01   1.5605E-02  0.0028
   1.1336E-01   1.1612E-01   1.5382E-02  0.0028
   1.1612E-01   1.1894E-01   1.5426E-02  0.0028
   1.1894E-01   1.2184E-01   1.5136E-02  0.0028
   1.2184E-01   1.2480E-01   1.4933E-02  0.0027
   1.2480E-01   1.2784E-01   1.4836E-02  0.0027
   1.2784E-01   1.3095E-01   1.4578E-02  0.0027
   1.3095E-01   1.3414E-01   1.4449E-02  0.0027
   1.3414E-01   1.3740E-01   1.4252E-02  0.0027
   1.3740E-01   1.4074E-01   1.4116E-02  0.0027
   1.4074E-01   1.4417E-01   1.3945E-02  0.0026
   1.4417E-01   1.4767E-01   1.3767E-02  0.0026
   1.4767E-01   1.5127E-01   1.3560E-02  0.0026
   1.5127E-01   1.5495E-01   1.3515E-02  0.0026
   1.5495E-01   1.5872E-01   1.3329E-02  0.0026
   1.5872E-01   1.6258E-01   1.3113E-02  0.0026
   1.6258E-01   1.6654E-01   1.2999E-02  0.0025
   1.6654E-01   1.7059E-01   1.2842E-02  0.0025
   1.7059E-01   1.7474E-01   1.2714E-02  0.0025
   1.7474E-01   1.7899E-01   1.2494E-02  0.0025
   1.7899E-01   1.8334E-01   1.2377E-02  0.0025
   1.8334E-01   1.8781E-01   1.2179E-02  0.0025
   1.8781E-01   1.9237E-01   1.2079E-02  0.0025
   1.9237E-01   1.9706E-01   1.1900E-02  0.0024
   1.9706E-01   2.0185E-01   1.1741E-02  0.0024
   2.0185E-01   2.0676E-01   1.1576E-02  0.0024
   2.0676E-01   2.1179E-01   1.1414E-02  0.0024
   2.1179E-01   2.1694E-01   1.1285E-02  0.0024
   2.1694E-01   2.2222E-01   1.1135E-02  0.0024
   2.2222E-01   2.2763E-01   1.0988E-02  0.0024
   2.2763E-01   2.3317E-01   1.0860E-02  0.0024
   2.3317E-01   2.3884E-01   1.0671E-02  0.0023
   2.3884E-01   2.4465E-01   1.0501E-02  0.0023
   2.4465E-01   2.5061E-01   1.0423E-02  0.0023
   2.5061E-01   2.5670E-01   1.0297E-02  0.0023
   2.5670E-01   2.6295E-01   1.0118E-02  0.0023
   2.6295E-01   2.6935E-01   9.9583E-03  0.0023
   2.6935E-01   2.7590E-01   9.7821E-03  0.0023
   2.7590E-01   2.8261E-01   9.6946E-03  0.0023
   2.8261E-01   2.8949E-01   9.5517E-03  0.0023
   2.8949E-01   2.9653E-01   9.3641E-03  0.0022
   2.9653E-01   3.0375E-01   9.2187E-03  0.0022
   3.0375E-01   3.1114E-01   9.0664E-03  0.0022
   3.1114E-01   3.1871E-01   8.9637E-03  0.0022
   3.1871E-01   3.2646E-01   8.8011E-03  0.0022
   3.2646E-01   3.3441E-01   8.6592E-03  0.0022
   3.3441E-01   3.4254E-01   8.5184E-03  0.0022
   3.4254E-01   3.5088E-01   8.3864E-03  0.0022
   3.5088E-01   3.5941E-01   8.2518E-03  0.0022
   3.5941E-01   3.6816E-01   8.1140E-03  0.0022
   3.6816E-01   3.7712E-01   7.9619E-03  0.0022
   3.7712E-01   3.8629E-01   7.8115E-03  0.0022
   3.8629E-01   3.9569E-01   7.6680E-03  0.0022
   3.9569E-01   4.0532E-01   7.5765E-03  0.0021
   4.0532E-01   4.1518E-01   7.4173E-03  0.0021
   4.1518E-01   4.2528E-01   7.2674E-03  0.0021
   4.2528E-01   4.3563E-01   7.1620E-03  0.0021
   4.3563E-01   4.4623E-01   7.0006E-03  0.0021
   4.4623E-01   4.5708E-01   6.8517E-03  0.0021
   4.5708E-01   4.6821E-01   6.7070E-03  0.0021
   4.6821E-01   4.7960E-01   6.5943E-03  0.0021
   4.7960E-01   4.9127E-01   6.4623E-03  0.0021
   4.9127E-01   5.0322E-01   6.3138E-03  0.0021
   5.0322E-01   5.1546E-01   6.1672E-03  0.0021
   5.1546E-01   5.2800E-01   6.0302E-03  0.0021
   5.2800E-01   5.4085E-01   5.9007E-03  0.0021
   5.4085E-01   5.5401E-01   5.7662E-03  0.0021
   5.5401E-01   5.6749E-01   5.6431E-03  0.0021
   5.6749E-01   5.8130E-01   5.5116E-03  0.0021
   5.8130E-01   5.9544E-01   5.3897E-03  0.0021
   5.9544E-01   6.0993E-01   5.2674E-03  0.0021
   6.0993E-01   6.2477E-01   5.1452E-03  0.0021
   6.2477E-01   6.3997E-01   4.9778E-03  0.0021
   6.3997E-01   6.5554E-01   4.8514E-03  0.0021
   6.5554E-01   6.7149E-01   4.7218E-03  0.0021
   6.7149E-01   6.8783E-01   4.6042E-03  0.0021
   6.8783E-01   7.0456E-01   4.4699E-03  0.0021
   7.0456E-01   7.2171E-01   4.3336E-03  0.0021
   7.2171E-01   7.3927E-01   4.2203E-03  0.0021
   7.3927E-01   7.5725E-01   4.0846E-03  0.0021
   7.5725E-01   7.7568E-01   3.9429E-03  0.0021
   7.7568E-01   7.9455E-01   3.8185E-03  0.0022
   7.9455E-01   8.1388E-01   3.6931E-03  0.0022
   8.1388E-01   8.3368E-01   3.5587E-03  0.0022
   8.3368E-01   8.5397E-01   3.4351E-03  0.0022
   8.5397E-01   8.7475E-01   3.3032E-03  0.0022
   8.7475E-01   8.9603E-01   3.1819E-03  0.0022
   8.9603E-01   9.1783E-01   3.0575E-03  0.0022
   9.1783E-01   9.4016E-01   2.9296E-03  0.0023
   9.4016E-01   9.6304E-01   2.8075E-03  0.0023
   9.6304E-01   9.8647E-01   2.6692E-03  0.0023
   9.8647E-01   1.0105E+00   2.5677E-03  0.0023
   1.0105E+00   1.0351E+00   2.5565E-03  0.0023
   1.0351E+00   1.0602E+00   2.5800E-03  0.0023
   1.0602E+00   1.0860E+00   2.6057E-03  0.0022
   1.0860E+00   1.1125E+00   2.6410E-03  0.0022
   1.1125E+00   1.1395E+00   2.6806E-03  0.0021
   1.1395E+00   1.1673E+00   2.7376E-03  0.0021
   1.1673E+00   1.1957E+00   2.8166E-03  0.0020
   1.1957E+00   1.2247E+00   2.8530E-03  0.0020
   1.2247E+00   1.2545E+00   2.8615E-03  0.0020
   1.2545E+00   1.2851E+00   2.8675E-03  0.0020
   1.2851E+00   1.3163E+00   2.8975E-03  0.0019
   1.3163E+00   1.3484E+00   2.9129E-03  0.0019
   1.3484E+00   1.3812E+00   2.9520E-03  0.0019
   1.3812E+00   1.4148E+00   3.0076E-03  0.0018
   1.4148E+00   1.4492E+00   2.9779E-03  0.0018
   1.4492E+00   1.4845E+00   2.9476E-03  0.0018
   1.4845E+00   1.5206E+00   2.9295E-03  0.0018
   1.5206E+00   1.5576E+00   2.9103E-03  0.0018
   1.5576E+00   1.5955E+00   2.9094E-03  0.0017
   1.5955E+00   1.6343E+00   2.9133E-03  0.0017
   1.6343E+00   1.6741E+00   2.9333E-03  0.0017
   1.6741E+00   1.7148E+00   2.9643E-03  0.0017
   1.7148E+00   1.7565E+00   2.9153E-03  0.0017
   1.7565E+00   1.7992E+00   2.8789E-03  0.0016
   1.7992E+00   1.8430E+00   2.8337E-03  0.0016
   1.8430E+00   1.8879E+00   2.7934E-03  0.0016
   1.8879E+00   1.9338E+00   2.7729E-03  0.0016
   1.9338E+00   1.9808E+00   2.7599E-03  0.0016
   1.9808E+00   2.0290E+00   2.7509E-03  0.0016
   2.0290E+00   2.0784E+00   2.6792E-03  0.0016
   2.0784E+00   2.1290E+00   2.6099E-03  0.0016
   2.1290E+00   2.1808E+00   2.5436E-03  0.0016
   2.1808E+00   2.2338E+00   2.4794E-03  0.0016
   2.2338E+00   2.2882E+00   2.4345E-03  0.0016
   2.2882E+00   2.3439E+00   2.3904E-03  0.0016
   2.3439E+00   2.4009E+00   2.3676E-03  0.0016
   2.4009E+00   2.4593E+00   2.3082E-03  0.0016
   2.4593E+00   2.5191E+00   2.2318E-03  0.0016
   2.5191E+00   2.5804E+00   2.1556E-03  0.0016
   2.5804E+00   2.6432E+00   2.0792E-03  0.0016
   2.6432E+00   2.7075E+00   2.0082E-03  0.0016
   2.7075E+00   2.7734E+00   1.9355E-03  0.0016
   2.7734E+00   2.8409E+00   1.8822E-03  0.0016
   2.8409E+00   2.9100E+00   1.8374E-03  0.0016
   2.9100E+00   2.9808E+00   1.7890E-03  0.0016
   2.9808E+00   3.0533E+00   1.7216E-03  0.0016
   3.0533E+00   3.1276E+00   1.6510E-03  0.0017
   3.1276E+00   3.2037E+00   1.5802E-03  0.0017
   3.2037E+00   3.2817E+00   1.4981E-03  0.0017
   3.2817E+00   3.3615E+00   1.4366E-03  0.0017
   3.3615E+00   3.4433E+00   1.3627E-03  0.0017
   3.4433E+00   3.5271E+00   1.3098E-03  0.0017
   3.5271E+00   3.6129E+00   1.2592E-03  0.0018
   3.6129E+00   3.7008E+00   1.2050E-03  0.0018
   3.7008E+00   3.7908E+00   1.1433E-03  0.0018
   3.7908E+00   3.8831E+00   1.0852E-03  0.0018
   3.8831E+00   3.9776E+00   1.0288E-03  0.0019
   3.9776E+00   4.0743E+00   9.8228E-04  0.0019
   4.0743E+00   4.1735E+00   9.2964E-04  0.0019
   4.1735E+00   4.2750E+00   8.7683E-04  0.0019
   4.2750E+00   4.3790E+00   8.2794E-04  0.0020
   4.3790E+00   4.4856E+00   7.7781E-04  0.0020
   4.4856E+00   4.5947E+00   7.2939E-04  0.0020
   4.5947E+00   4.7065E+00   6.8810E-04  0.0021
   4.7065E+00   4.8210E+00   6.4705E-04  0.0021
   4.8210E+00   4.9383E+00   6.1032E-04  0.0022
   4.9383E+00   5.0585E+00   5.7384E-04  0.0022
   5.0585E+00   5.1815E+00   5.3743E-04  0.0022
   5.1815E+00   5.3076E+00   5.0134E-04  0.0023
   5.3076E+00   5.4368E+00   4.6917E-04  0.0023
   5.4368E+00   5.5690E+00   4.3492E-04  0.0024
   5.5690E+00   5.7045E+00   4.0525E-04  0.0025
   5.7045E+00   5.8433E+00   3.7744E-04  0.0025
   5.8433E+00   5.9855E+00   3.4919E-04  0.0026
   5.9855E+00   6.1311E+00   3.2726E-04  0.0026
   6.1311E+00   6.2803E+00   3.0207E-04  0.0027
   6.2803E+00   6.4331E+00   2.8022E-04  0.0028
   6.4331E+00   6.5896E+00   2.5906E-04  0.0029
   6.5896E+00   6.7500E+00   2.3860E-04  0.0030
   6.7500E+00   6.9142E+00   2.1998E-04  0.0030
   6.9142E+00   7.0824E+00   2.0412E-04  0.0031
   7.0824E+00   7.2548E+00   1.8853E-04  0.0032
   7.2548E+00   7.4313E+00   1.7479E-04  0.0033
   7.4313E+00   7.6121E+00   1.6040E-04  0.0034
   7.6121E+00   7.7973E+00   1.4762E-04  0.0035
   7.7973E+00   7.9870E+00   1.3418E-04  0.0036
   7.9870E+00   8.1813E+00   1.2517E-04  0.0037
   8.1813E+00   8.3804E+00   1.1555E-04  0.0038
   8.3804E+00   8.5843E+00   1.0563E-04  0.0039
   8.5843E+00   8.7931E+00   9.7106E-05  0.0041
   8.7931E+00   9.0071E+00   8.9022E-05  0.0042
   9.0071E+00   9.2262E+00   8.2308E-05  0.0043
   9.2262E+00   9.4507E+00   7.6296E-05  0.0044
   9.4507E+00   9.6807E+00   6.9749E-05  0.0046
   9.6807E+00   9.9162E+00   6.4388E-05  0.0047
   9.9162E+00   1.0157E+01   5.9501E-05  0.0048
   1.0157E+01   1.0405E+01   5.4520E-05  0.0050
   1.0405E+01   1.0658E+01   5.0872E-05  0.0051
   1.0658E+01   1.0917E+01   4.7058E-05  0.0052
   1.0917E+01   1.1183E+01   4.3038E-05  0.0054
   1.1183E+01   1.1455E+01   4.0075E-05  0.0055
   1.1455E+01   1.1733E+01   3.7360E-05  0.0056
   1.1733E+01   1.2019E+01   3.4707E-05  0.0058
   1.2019E+01   1.2311E+01   3.2376E-05  0.0059
   1.2311E+01   1.2611E+01   2.9797E-05  0.0061
   1.2611E+01   1.2918E+01   2.8164E-05  0.0062
   1.2918E+01   1.3232E+01   2.6099E-05  0.0064
   1.3232E+01   1.3554E+01   2.4430E-05  0.0065
   1.3554E+01   1.3884E+01   2.3041E-05  0.0066
   1.3884E+01   1.4222E+01   2.1324E-05  0.0068
   1.4222E+01   1.4568E+01   2.0553E-05  0.0068
   1.4568E+01   1.4922E+01   1.9286E-05  0.0070
   1.4922E+01   1.5285E+01   1.8059E-05  0.0071
   1.5285E+01   1.5657E+01   1.7113E-05  0.0072
   1.5657E+01   1.6038E+01   1.5931E-05  0.0074
   1.6038E+01   1.6428E+01   1.5458E-05  0.0074
   1.6428E+01   1.6828E+01   1.4397E-05  0.0076
   1.6828E+01   1.7237E+01   1.3521E-05  0.0078
   1.7237E+01   1.7657E+01   1.3076E-05  0.0078
   1.7657E+01   1.8086E+01   1.2432E-05  0.0079
   1.8086E+01   1.8526E+01   1.1872E-05  0.0080
   1.8526E+01   1.8977E+01   1.1246E-05  0.0081
   1.8977E+01   1.9439E+01   1.0472E-05  0.0083
   1.9439E+01   1.9912E+01   1.0247E-05  0.0083
   1.9912E+01   2.0396E+01   8.1577E-06  0.0092
   2.0396E+01   2.0893E+01   7.9649E-06  0.0092
   2.0893E+01   2.1401E+01   7.8367E-06  0.0091
   2.1401E+01   2.1922E+01   7.5277E-06  0.0092
   2.1922E+01   2.2455E+01   7.1995E-06  0.0093
   2.2455E+01   2.3001E+01   6.9565E-06  0.0094
   2.3001E+01   2.3561E+01   6.6126E-06  0.0095
   2.3561E+01   2.4134E+01   6.3974E-06  0.0095
   2.4134E+01   2.4721E+01   6.0899E-06  0.0097
   2.4721E+01   2.5323E+01   6.0405E-06  0.0096
   2.5323E+01   2.5939E+01   5.7239E-06  0.0097
   2.5939E+01   2.6570E+01   5.4982E-06  0.0098
   2.6570E+01   2.7217E+01   5.1567E-06  0.0100
   2.7217E+01   2.7879E+01   5.0015E-06  0.0100
   2.7879E+01   2.8557E+01   4.6566E-06  0.0103
   2.8557E+01   2.9252E+01   4.4726E-06  0.0104
   2.9252E+01   2.9964E+01   4.2760E-06  0.0105
   2.9964E+01   3.0693E+01   3.9838E-06  0.0107
   3.0693E+01   3.1440E+01   3.8267E-06  0.0108
   3.1440E+01   3.2205E+01   3.5131E-06  0.0111
   3.2205E+01   3.2988E+01   3.2850E-06  0.0114
   3.2988E+01   3.3791E+01   3.1106E-06  0.0116
   3.3791E+01   3.4613E+01   2.9240E-06  0.0118
   3.4613E+01   3.5455E+01   2.7006E-06  0.0121
   3.5455E+01   3.6318E+01   2.5225E-06  0.0124
   3.6318E+01   3.7201E+01   2.3396E-06  0.0127
   3.7201E+01   3.8106E+01   2.1562E-06  0.0131
   3.8106E+01   3.9034E+01   1.9820E-06  0.0135
   3.9034E+01   3.9983E+01   1.7809E-06  0.0140
   3.9983E+01   4.0956E+01   1.6567E-06  0.0144
   4.0956E+01   4.1953E+01   1.5337E-06  0.0148
   4.1953E+01   4.2973E+01   1.3624E-06  0.0155
   4.2973E+01   4.4019E+01   1.2570E-06  0.0159
   4.4019E+01   4.5090E+01   1.0952E-06  0.0169
   4.5090E+01   4.6187E+01   1.0090E-06  0.0174
   4.6187E+01   4.7311E+01   9.0173E-07  0.0181
   4.7311E+01   4.8462E+01   8.1487E-07  0.0189
   4.8462E+01   4.9641E+01   6.8045E-07  0.0204
   4.9641E+01   5.0849E+01   6.2427E-07  0.0210
   5.0849E+01   5.2086E+01   5.5286E-07  0.0221
   5.2086E+01   5.3353E+01   4.9370E-07  0.0231
   5.3353E+01   5.4651E+01   4.0083E-07  0.0253
   5.4651E+01   5.5981E+01   3.5196E-07  0.0267
   5.5981E+01   5.7343E+01   3.0762E-07  0.0282
   5.7343E+01   5.8738E+01   2.7642E-07  0.0294
   5.8738E+01   6.0168E+01   2.2391E-07  0.0323
   6.0168E+01   6.1632E+01   1.8307E-07  0.0353
   6.1632E+01   6.3131E+01   1.5649E-07  0.0377
   6.3131E+01   6.4667E+01   1.2196E-07  0.0422
   6.4667E+01   6.6240E+01   1.0572E-07  0.0448
   6.6240E+01   6.7852E+01   9.3070E-08  0.0471
   6.7852E+01   6.9503E+01   6.7842E-08  0.0546
   6.9503E+01   7.1194E+01   5.5389E-08  0.0597
   7.1194E+01   7.2926E+01   4.9648E-08  0.0623
   7.2926E+01   7.4701E+01   4.0390E-08  0.0682
   7.4701E+01   7.6518E+01   2.8244E-08  0.0806
   7.6518E+01   7.8380E+01   1.9695E-08  0.0953
   7.8380E+01   8.0287E+01   1.7479E-08  0.1000
   8.0287E+01   8.2240E+01   1.0238E-08  0.1291
   8.2240E+01   8.4241E+01   8.8290E-09  0.1374
   8.4241E+01   8.6291E+01   6.0173E-09  0.1644
   8.6291E+01   8.8391E+01   4.7630E-09  0.1826
   8.8391E+01   9.0541E+01   3.4099E-09  0.2132
   9.0541E+01   9.2744E+01   6.0525E-10  0.5000
   9.2744E+01   9.5001E+01   1.4772E-09  0.3162
   9.5001E+01   9.7312E+01   1.0095E-09  0.3780
   9.7312E+01   9.9680E+01   1.1263E-09  0.3536
   9.9680E+01   1.0211E+02   6.8720E-10  0.4472
   1.0211E+02   1.0459E+02   1.3418E-10  1.0000
   1.0459E+02   1.0713E+02   0.0000E+00  0.0000
   1.0713E+02   1.0974E+02   1.2788E-10  1.0000
   1.0974E+02   1.1241E+02   2.4968E-10  0.7071
   1.1241E+02   1.1515E+02   0.0000E+00  0.0000
   1.1515E+02   1.1795E+02   0.0000E+00  0.0000
   1.1795E+02   1.2082E+02   0.0000E+00  0.0000
   1.2082E+02   1.2376E+02   0.0000E+00  0.0000
   1.2376E+02   1.2677E+02   0.0000E+00  0.0000
   1.2677E+02   1.2985E+02   0.0000E+00  0.0000
   1.2985E+02   1.3301E+02   0.0000E+00  0.0000
   1.3301E+02   1.3625E+02   0.0000E+00  0.0000
   1.3625E+02   1.3956E+02   0.0000E+00  0.0000
   1.3956E+02   1.4296E+02   0.0000E+00  0.0000
   1.4296E+02   1.4644E+02   0.0000E+00  0.0000
   1.4644E+02   1.5000E+02   0.0000E+00  0.0000

#   sum over                 1.1089E-04
'no. =    1   reg = 118 - 218'
msuc: {\huge [t-cross] in region mesh}
msdr: {\it plotted by \ANGEL \version}
msdl: {\it calculated by \PHITS  3.26}
wt: s(0.7)
\vspace{-3}
  region surface crossing
  area  &=&   1.0000E+00 [cm^2]
e:
 
# Information for Restart Calculation
# This calculation was newly started
# istdev =  2 # 1:Batch variance, 2:History variance
# resc2  = 3.00000000000000000E+09 # Total source weight or Total source weight / maxcas
# resc3  = 3.00000000000000000E+09 # Total history number or Total batch number
# maxcas =   500000000 # History / Batch, only used for istdev=1
# bitrseed = 0110110011111001100110101011100000010010001000001101100100111101 # bit data of rseed
