[ T-Cross ]
    title = [t-cross] in region mesh
     mesh =  reg            # mesh type is region-wise
      reg =    1            # number of crossing regions
      non     r-from    r-to       area
      1       111       211        1.000000    
   e-type =    3            # e-mesh is log given by emin, emax and ne
     emin =  1.0000000E-02  # minimum value of e-mesh points
     emax =   150.0000      # maximum value of e-mesh points
#    edel =  2.4039514E-02  # mesh width of e-mesh points
       ne =    400          # number of e-mesh points
#    data = ( e(i), i = 1, ne + 1 )
#           1.00000E-02  1.02433E-02  1.04925E-02  1.07478E-02  1.10093E-02
#           1.12772E-02  1.15516E-02  1.18326E-02  1.21205E-02  1.24154E-02
#           1.27175E-02  1.30269E-02  1.33439E-02  1.36686E-02  1.40011E-02
#           1.43418E-02  1.46907E-02  1.50482E-02  1.54143E-02  1.57894E-02
#           1.61735E-02  1.65670E-02  1.69701E-02  1.73830E-02  1.78060E-02
#           1.82392E-02  1.86830E-02  1.91375E-02  1.96032E-02  2.00801E-02
#           2.05687E-02  2.10692E-02  2.15818E-02  2.21069E-02  2.26448E-02
#           2.31957E-02  2.37601E-02  2.43382E-02  2.49304E-02  2.55369E-02
#           2.61583E-02  2.67947E-02  2.74467E-02  2.81145E-02  2.87985E-02
#           2.94992E-02  3.02169E-02  3.09521E-02  3.17052E-02  3.24766E-02
#           3.32668E-02  3.40762E-02  3.49053E-02  3.57546E-02  3.66246E-02
#           3.75157E-02  3.84284E-02  3.93634E-02  4.03212E-02  4.13022E-02
#           4.23071E-02  4.33365E-02  4.43909E-02  4.54710E-02  4.65773E-02
#           4.77106E-02  4.88714E-02  5.00605E-02  5.12785E-02  5.25262E-02
#           5.38042E-02  5.51133E-02  5.64542E-02  5.78278E-02  5.92348E-02
#           6.06760E-02  6.21523E-02  6.36645E-02  6.52135E-02  6.68002E-02
#           6.84255E-02  7.00904E-02  7.17957E-02  7.35426E-02  7.53319E-02
#           7.71648E-02  7.90423E-02  8.09655E-02  8.29354E-02  8.49533E-02
#           8.70203E-02  8.91376E-02  9.13064E-02  9.35279E-02  9.58035E-02
#           9.81345E-02  1.00522E-01  1.02968E-01  1.05473E-01  1.08040E-01
#           1.10668E-01  1.13361E-01  1.16119E-01  1.18944E-01  1.21838E-01
#           1.24803E-01  1.27839E-01  1.30950E-01  1.34136E-01  1.37399E-01
#           1.40742E-01  1.44167E-01  1.47675E-01  1.51268E-01  1.54948E-01
#           1.58718E-01  1.62580E-01  1.66535E-01  1.70587E-01  1.74738E-01
#           1.78989E-01  1.83344E-01  1.87805E-01  1.92375E-01  1.97055E-01
#           2.01850E-01  2.06761E-01  2.11792E-01  2.16945E-01  2.22223E-01
#           2.27630E-01  2.33169E-01  2.38842E-01  2.44653E-01  2.50605E-01
#           2.56703E-01  2.62949E-01  2.69346E-01  2.75900E-01  2.82613E-01
#           2.89489E-01  2.96532E-01  3.03747E-01  3.11138E-01  3.18708E-01
#           3.26462E-01  3.34405E-01  3.42542E-01  3.50876E-01  3.59413E-01
#           3.68158E-01  3.77116E-01  3.86291E-01  3.95690E-01  4.05317E-01
#           4.15179E-01  4.25281E-01  4.35628E-01  4.46227E-01  4.57084E-01
#           4.68205E-01  4.79597E-01  4.91266E-01  5.03219E-01  5.15463E-01
#           5.28005E-01  5.40851E-01  5.54011E-01  5.67490E-01  5.81298E-01
#           5.95441E-01  6.09929E-01  6.24769E-01  6.39970E-01  6.55541E-01
#           6.71491E-01  6.87828E-01  7.04564E-01  7.21706E-01  7.39266E-01
#           7.57253E-01  7.75678E-01  7.94551E-01  8.13883E-01  8.33685E-01
#           8.53969E-01  8.74747E-01  8.96030E-01  9.17831E-01  9.40163E-01
#           9.63038E-01  9.86469E-01  1.01047E+00  1.03506E+00  1.06024E+00
#           1.08604E+00  1.11246E+00  1.13953E+00  1.16725E+00  1.19565E+00
#           1.22474E+00  1.25454E+00  1.28507E+00  1.31633E+00  1.34836E+00
#           1.38117E+00  1.41477E+00  1.44920E+00  1.48446E+00  1.52057E+00
#           1.55757E+00  1.59547E+00  1.63429E+00  1.67405E+00  1.71478E+00
#           1.75650E+00  1.79924E+00  1.84302E+00  1.88786E+00  1.93379E+00
#           1.98084E+00  2.02904E+00  2.07841E+00  2.12898E+00  2.18078E+00
#           2.23384E+00  2.28819E+00  2.34386E+00  2.40089E+00  2.45930E+00
#           2.51914E+00  2.58043E+00  2.64322E+00  2.70753E+00  2.77341E+00
#           2.84088E+00  2.91001E+00  2.98081E+00  3.05333E+00  3.12762E+00
#           3.20372E+00  3.28167E+00  3.36152E+00  3.44330E+00  3.52708E+00
#           3.61290E+00  3.70080E+00  3.79085E+00  3.88308E+00  3.97756E+00
#           4.07434E+00  4.17347E+00  4.27501E+00  4.37903E+00  4.48557E+00
#           4.59471E+00  4.70650E+00  4.82102E+00  4.93832E+00  5.05847E+00
#           5.18155E+00  5.30762E+00  5.43676E+00  5.56904E+00  5.70453E+00
#           5.84333E+00  5.98550E+00  6.13114E+00  6.28031E+00  6.43312E+00
#           6.58964E+00  6.74997E+00  6.91420E+00  7.08243E+00  7.25475E+00
#           7.43126E+00  7.61207E+00  7.79728E+00  7.98700E+00  8.18133E+00
#           8.38038E+00  8.58428E+00  8.79315E+00  9.00709E+00  9.22624E+00
#           9.45072E+00  9.68067E+00  9.91620E+00  1.01575E+01  1.04046E+01
#           1.06578E+01  1.09171E+01  1.11827E+01  1.14548E+01  1.17335E+01
#           1.20190E+01  1.23114E+01  1.26109E+01  1.29178E+01  1.32321E+01
#           1.35540E+01  1.38838E+01  1.42216E+01  1.45676E+01  1.49221E+01
#           1.52851E+01  1.56570E+01  1.60380E+01  1.64282E+01  1.68279E+01
#           1.72374E+01  1.76568E+01  1.80864E+01  1.85264E+01  1.89772E+01
#           1.94389E+01  1.99119E+01  2.03963E+01  2.08926E+01  2.14009E+01
#           2.19216E+01  2.24550E+01  2.30014E+01  2.35610E+01  2.41343E+01
#           2.47215E+01  2.53230E+01  2.59391E+01  2.65702E+01  2.72167E+01
#           2.78789E+01  2.85572E+01  2.92520E+01  2.99637E+01  3.06928E+01
#           3.14396E+01  3.22045E+01  3.29881E+01  3.37907E+01  3.46128E+01
#           3.54550E+01  3.63177E+01  3.72013E+01  3.81064E+01  3.90336E+01
#           3.99833E+01  4.09561E+01  4.19526E+01  4.29734E+01  4.40189E+01
#           4.50900E+01  4.61870E+01  4.73108E+01  4.84619E+01  4.96410E+01
#           5.08488E+01  5.20860E+01  5.33533E+01  5.46514E+01  5.59812E+01
#           5.73432E+01  5.87384E+01  6.01676E+01  6.16315E+01  6.31311E+01
#           6.46671E+01  6.62405E+01  6.78522E+01  6.95031E+01  7.11941E+01
#           7.29263E+01  7.47007E+01  7.65182E+01  7.83800E+01  8.02870E+01
#           8.22405E+01  8.42414E+01  8.62911E+01  8.83906E+01  9.05412E+01
#           9.27442E+01  9.50007E+01  9.73122E+01  9.96799E+01  1.02105E+02
#           1.04589E+02  1.07134E+02  1.09741E+02  1.12411E+02  1.15146E+02
#           1.17948E+02  1.20817E+02  1.23757E+02  1.26768E+02  1.29852E+02
#           1.33012E+02  1.36248E+02  1.39563E+02  1.42959E+02  1.46437E+02
#           1.50000E+02
     unit =    2            # unit is [1/cm^2/(MeV/n)/source]
     axis =  eng            # axis of output
     file = detector-12.out  # file name of output for the above axis
   output = f-curr          # surface crossing forward current spectrum
     part =  neutron  
# kf/name :  2112     
#    used :        main (  %)        temp (  %)       total (  %)
#  memory :         414 (  0)           0 (  0)         414 (  0)

#------------------------------------------------------------------------------
#newpage:
#   no. =    1   reg = 111 - 211

x: Energy [MeV/n]
y:  F-Curr [1/cm^2/(MeV/n)/source]         
p: xlog ylog afac(0.8) form(0.9)
h: n            x            y(neutron ),hh0l   n 
#  e-lower      e-upper      neutron     r.err 
   1.0000E-02   1.0243E-02   3.7975E-03  0.0147
   1.0243E-02   1.0493E-02   3.8592E-03  0.0144
   1.0493E-02   1.0748E-02   3.8131E-03  0.0143
   1.0748E-02   1.1009E-02   3.6752E-03  0.0144
   1.1009E-02   1.1277E-02   3.5603E-03  0.0144
   1.1277E-02   1.1552E-02   3.5251E-03  0.0143
   1.1552E-02   1.1833E-02   3.5045E-03  0.0142
   1.1833E-02   1.2121E-02   3.4042E-03  0.0143
   1.2121E-02   1.2415E-02   3.3275E-03  0.0142
   1.2415E-02   1.2718E-02   3.2116E-03  0.0143
   1.2718E-02   1.3027E-02   3.2749E-03  0.0140
   1.3027E-02   1.3344E-02   3.1914E-03  0.0140
   1.3344E-02   1.3669E-02   3.1839E-03  0.0139
   1.3669E-02   1.4001E-02   3.0484E-03  0.0140
   1.4001E-02   1.4342E-02   2.9245E-03  0.0141
   1.4342E-02   1.4691E-02   2.9589E-03  0.0139
   1.4691E-02   1.5048E-02   2.8457E-03  0.0140
   1.5048E-02   1.5414E-02   2.7689E-03  0.0140
   1.5414E-02   1.5789E-02   2.7467E-03  0.0139
   1.5789E-02   1.6174E-02   2.6442E-03  0.0140
   1.6174E-02   1.6567E-02   2.6369E-03  0.0138
   1.6567E-02   1.6970E-02   2.6051E-03  0.0138
   1.6970E-02   1.7383E-02   2.5557E-03  0.0137
   1.7383E-02   1.7806E-02   2.4640E-03  0.0138
   1.7806E-02   1.8239E-02   2.3908E-03  0.0139
   1.8239E-02   1.8683E-02   2.3753E-03  0.0137
   1.8683E-02   1.9138E-02   2.3224E-03  0.0137
   1.9138E-02   1.9603E-02   2.2905E-03  0.0137
   1.9603E-02   2.0080E-02   2.3062E-03  0.0135
   2.0080E-02   2.0569E-02   2.1751E-03  0.0137
   2.0569E-02   2.1069E-02   2.1212E-03  0.0137
   2.1069E-02   2.1582E-02   2.1184E-03  0.0135
   2.1582E-02   2.2107E-02   2.0683E-03  0.0135
   2.2107E-02   2.2645E-02   2.0652E-03  0.0134
   2.2645E-02   2.3196E-02   2.0259E-03  0.0133
   2.3196E-02   2.3760E-02   1.9753E-03  0.0134
   2.3760E-02   2.4338E-02   1.9642E-03  0.0132
   2.4338E-02   2.4930E-02   1.8674E-03  0.0134
   2.4930E-02   2.5537E-02   1.8288E-03  0.0134
   2.5537E-02   2.6158E-02   1.8281E-03  0.0132
   2.6158E-02   2.6795E-02   1.7731E-03  0.0133
   2.6795E-02   2.7447E-02   1.7562E-03  0.0132
   2.7447E-02   2.8114E-02   1.7130E-03  0.0132
   2.8114E-02   2.8799E-02   1.6370E-03  0.0133
   2.8799E-02   2.9499E-02   1.6449E-03  0.0131
   2.9499E-02   3.0217E-02   1.6282E-03  0.0131
   3.0217E-02   3.0952E-02   1.6138E-03  0.0129
   3.0952E-02   3.1705E-02   1.5496E-03  0.0131
   3.1705E-02   3.2477E-02   1.5062E-03  0.0131
   3.2477E-02   3.3267E-02   1.4969E-03  0.0130
   3.3267E-02   3.4076E-02   1.4701E-03  0.0129
   3.4076E-02   3.4905E-02   1.4458E-03  0.0129
   3.4905E-02   3.5755E-02   1.4113E-03  0.0129
   3.5755E-02   3.6625E-02   1.4161E-03  0.0127
   3.6625E-02   3.7516E-02   1.3431E-03  0.0129
   3.7516E-02   3.8428E-02   1.3467E-03  0.0127
   3.8428E-02   3.9363E-02   1.3031E-03  0.0128
   3.9363E-02   4.0321E-02   1.2918E-03  0.0127
   4.0321E-02   4.1302E-02   1.2669E-03  0.0127
   4.1302E-02   4.2307E-02   1.2239E-03  0.0127
   4.2307E-02   4.3337E-02   1.2240E-03  0.0126
   4.3337E-02   4.4391E-02   1.1921E-03  0.0126
   4.4391E-02   4.5471E-02   1.1629E-03  0.0126
   4.5471E-02   4.6577E-02   1.1729E-03  0.0124
   4.6577E-02   4.7711E-02   1.1211E-03  0.0125
   4.7711E-02   4.8871E-02   1.1236E-03  0.0124
   4.8871E-02   5.0061E-02   1.0905E-03  0.0124
   5.0061E-02   5.1279E-02   1.0772E-03  0.0123
   5.1279E-02   5.2526E-02   1.0619E-03  0.0123
   5.2526E-02   5.3804E-02   1.0233E-03  0.0123
   5.3804E-02   5.5113E-02   1.0071E-03  0.0123
   5.5113E-02   5.6454E-02   9.8377E-04  0.0123
   5.6454E-02   5.7828E-02   9.7703E-04  0.0122
   5.7828E-02   5.9235E-02   9.5745E-04  0.0122
   5.9235E-02   6.0676E-02   9.2029E-04  0.0122
   6.0676E-02   6.2152E-02   9.1667E-04  0.0121
   6.2152E-02   6.3665E-02   8.8197E-04  0.0122
   6.3665E-02   6.5214E-02   8.7208E-04  0.0121
   6.5214E-02   6.6800E-02   8.7658E-04  0.0120
   6.6800E-02   6.8426E-02   8.4472E-04  0.0120
   6.8426E-02   7.0090E-02   8.1913E-04  0.0121
   7.0090E-02   7.1796E-02   8.2100E-04  0.0119
   7.1796E-02   7.3543E-02   7.9656E-04  0.0120
   7.3543E-02   7.5332E-02   7.9057E-04  0.0119
   7.5332E-02   7.7165E-02   7.6491E-04  0.0119
   7.7165E-02   7.9042E-02   7.7309E-04  0.0117
   7.9042E-02   8.0965E-02   7.3333E-04  0.0119
   8.0965E-02   8.2935E-02   7.3037E-04  0.0118
   8.2935E-02   8.4953E-02   7.2840E-04  0.0116
   8.4953E-02   8.7020E-02   7.2070E-04  0.0116
   8.7020E-02   8.9138E-02   6.9405E-04  0.0116
   8.9138E-02   9.1306E-02   6.6654E-04  0.0117
   9.1306E-02   9.3528E-02   6.6279E-04  0.0116
   9.3528E-02   9.5804E-02   6.4676E-04  0.0116
   9.5804E-02   9.8134E-02   6.2367E-04  0.0117
   9.8134E-02   1.0052E-01   6.3245E-04  0.0115
   1.0052E-01   1.0297E-01   6.1255E-04  0.0115
   1.0297E-01   1.0547E-01   5.8636E-04  0.0116
   1.0547E-01   1.0804E-01   5.9061E-04  0.0115
   1.0804E-01   1.1067E-01   5.7754E-04  0.0114
   1.1067E-01   1.1336E-01   5.6525E-04  0.0114
   1.1336E-01   1.1612E-01   5.4678E-04  0.0115
   1.1612E-01   1.1894E-01   5.3216E-04  0.0115
   1.1894E-01   1.2184E-01   5.2543E-04  0.0114
   1.2184E-01   1.2480E-01   5.1743E-04  0.0114
   1.2480E-01   1.2784E-01   5.0760E-04  0.0114
   1.2784E-01   1.3095E-01   5.0163E-04  0.0113
   1.3095E-01   1.3414E-01   4.9741E-04  0.0112
   1.3414E-01   1.3740E-01   4.9178E-04  0.0111
   1.3740E-01   1.4074E-01   4.8205E-04  0.0111
   1.4074E-01   1.4417E-01   4.6420E-04  0.0112
   1.4417E-01   1.4767E-01   4.5834E-04  0.0111
   1.4767E-01   1.5127E-01   4.3930E-04  0.0112
   1.5127E-01   1.5495E-01   4.3922E-04  0.0111
   1.5495E-01   1.5872E-01   4.2464E-04  0.0111
   1.5872E-01   1.6258E-01   4.2914E-04  0.0110
   1.6258E-01   1.6654E-01   4.0917E-04  0.0111
   1.6654E-01   1.7059E-01   4.0419E-04  0.0110
   1.7059E-01   1.7474E-01   3.9404E-04  0.0110
   1.7474E-01   1.7899E-01   3.9322E-04  0.0109
   1.7899E-01   1.8334E-01   3.7435E-04  0.0110
   1.8334E-01   1.8781E-01   3.7684E-04  0.0109
   1.8781E-01   1.9237E-01   3.7179E-04  0.0108
   1.9237E-01   1.9706E-01   3.6727E-04  0.0108
   1.9706E-01   2.0185E-01   3.5698E-04  0.0108
   2.0185E-01   2.0676E-01   3.7463E-04  0.0104
   2.0676E-01   2.1179E-01   3.8335E-04  0.0102
   2.1179E-01   2.1694E-01   3.8671E-04  0.0100
   2.1694E-01   2.2222E-01   3.9990E-04  0.0097
   2.2222E-01   2.2763E-01   4.1938E-04  0.0094
   2.2763E-01   2.3317E-01   4.2931E-04  0.0091
   2.3317E-01   2.3884E-01   4.3399E-04  0.0090
   2.3884E-01   2.4465E-01   4.4249E-04  0.0088
   2.4465E-01   2.5061E-01   4.6068E-04  0.0085
   2.5061E-01   2.5670E-01   4.7066E-04  0.0083
   2.5670E-01   2.6295E-01   4.7763E-04  0.0082
   2.6295E-01   2.6935E-01   4.9611E-04  0.0079
   2.6935E-01   2.7590E-01   5.0887E-04  0.0077
   2.7590E-01   2.8261E-01   5.1238E-04  0.0076
   2.8261E-01   2.8949E-01   5.2646E-04  0.0074
   2.8949E-01   2.9653E-01   5.3694E-04  0.0073
   2.9653E-01   3.0375E-01   5.5526E-04  0.0070
   3.0375E-01   3.1114E-01   5.6302E-04  0.0069
   3.1114E-01   3.1871E-01   5.7909E-04  0.0067
   3.1871E-01   3.2646E-01   5.8994E-04  0.0066
   3.2646E-01   3.3441E-01   6.0137E-04  0.0065
   3.3441E-01   3.4254E-01   6.1849E-04  0.0063
   3.4254E-01   3.5088E-01   6.2454E-04  0.0062
   3.5088E-01   3.5941E-01   6.2891E-04  0.0061
   3.5941E-01   3.6816E-01   6.4850E-04  0.0059
   3.6816E-01   3.7712E-01   6.6110E-04  0.0058
   3.7712E-01   3.8629E-01   6.6962E-04  0.0057
   3.8629E-01   3.9569E-01   6.7958E-04  0.0056
   3.9569E-01   4.0532E-01   6.9438E-04  0.0055
   4.0532E-01   4.1518E-01   6.9906E-04  0.0054
   4.1518E-01   4.2528E-01   7.1739E-04  0.0052
   4.2528E-01   4.3563E-01   7.2314E-04  0.0052
   4.3563E-01   4.4623E-01   7.2357E-04  0.0051
   4.4623E-01   4.5708E-01   7.4438E-04  0.0050
   4.5708E-01   4.6821E-01   7.5057E-04  0.0049
   4.6821E-01   4.7960E-01   7.5287E-04  0.0048
   4.7960E-01   4.9127E-01   7.6472E-04  0.0047
   4.9127E-01   5.0322E-01   7.7176E-04  0.0046
   5.0322E-01   5.1546E-01   7.8397E-04  0.0045
   5.1546E-01   5.2800E-01   7.9435E-04  0.0045
   5.2800E-01   5.4085E-01   8.0051E-04  0.0044
   5.4085E-01   5.5401E-01   7.9943E-04  0.0043
   5.5401E-01   5.6749E-01   8.0219E-04  0.0043
   5.6749E-01   5.8130E-01   8.0665E-04  0.0042
   5.8130E-01   5.9544E-01   8.1031E-04  0.0042
   5.9544E-01   6.0993E-01   8.0799E-04  0.0041
   6.0993E-01   6.2477E-01   8.1514E-04  0.0041
   6.2477E-01   6.3997E-01   8.1337E-04  0.0040
   6.3997E-01   6.5554E-01   8.1600E-04  0.0040
   6.5554E-01   6.7149E-01   8.1067E-04  0.0039
   6.7149E-01   6.8783E-01   8.1399E-04  0.0039
   6.8783E-01   7.0456E-01   8.1111E-04  0.0038
   7.0456E-01   7.2171E-01   8.0497E-04  0.0038
   7.2171E-01   7.3927E-01   8.0194E-04  0.0038
   7.3927E-01   7.5725E-01   8.0190E-04  0.0037
   7.5725E-01   7.7568E-01   7.8373E-04  0.0037
   7.7568E-01   7.9455E-01   7.7993E-04  0.0037
   7.9455E-01   8.1388E-01   7.6880E-04  0.0037
   8.1388E-01   8.3368E-01   7.6455E-04  0.0036
   8.3368E-01   8.5397E-01   7.5552E-04  0.0036
   8.5397E-01   8.7475E-01   7.3879E-04  0.0036
   8.7475E-01   8.9603E-01   7.2698E-04  0.0036
   8.9603E-01   9.1783E-01   7.1908E-04  0.0036
   9.1783E-01   9.4016E-01   7.0269E-04  0.0036
   9.4016E-01   9.6304E-01   6.8649E-04  0.0036
   9.6304E-01   9.8647E-01   6.7253E-04  0.0035
   9.8647E-01   1.0105E+00   6.6122E-04  0.0035
   1.0105E+00   1.0351E+00   6.6326E-04  0.0035
   1.0351E+00   1.0602E+00   6.7045E-04  0.0034
   1.0602E+00   1.0860E+00   6.7621E-04  0.0034
   1.0860E+00   1.1125E+00   6.8230E-04  0.0033
   1.1125E+00   1.1395E+00   6.9670E-04  0.0032
   1.1395E+00   1.1673E+00   7.1592E-04  0.0032
   1.1673E+00   1.1957E+00   7.3525E-04  0.0031
   1.1957E+00   1.2247E+00   7.4993E-04  0.0030
   1.2247E+00   1.2545E+00   7.5287E-04  0.0030
   1.2545E+00   1.2851E+00   7.6405E-04  0.0029
   1.2851E+00   1.3163E+00   7.7138E-04  0.0029
   1.3163E+00   1.3484E+00   7.8303E-04  0.0028
   1.3484E+00   1.3812E+00   7.9781E-04  0.0028
   1.3812E+00   1.4148E+00   8.1339E-04  0.0027
   1.4148E+00   1.4492E+00   8.2079E-04  0.0026
   1.4492E+00   1.4845E+00   8.2089E-04  0.0026
   1.4845E+00   1.5206E+00   8.2757E-04  0.0026
   1.5206E+00   1.5576E+00   8.2602E-04  0.0025
   1.5576E+00   1.5955E+00   8.2884E-04  0.0025
   1.5955E+00   1.6343E+00   8.3821E-04  0.0025
   1.6343E+00   1.6741E+00   8.4926E-04  0.0024
   1.6741E+00   1.7148E+00   8.6401E-04  0.0024
   1.7148E+00   1.7565E+00   8.6729E-04  0.0023
   1.7565E+00   1.7992E+00   8.6801E-04  0.0023
   1.7992E+00   1.8430E+00   8.6716E-04  0.0023
   1.8430E+00   1.8879E+00   8.7062E-04  0.0023
   1.8879E+00   1.9338E+00   8.7113E-04  0.0022
   1.9338E+00   1.9808E+00   8.8028E-04  0.0022
   1.9808E+00   2.0290E+00   8.9041E-04  0.0021
   2.0290E+00   2.0784E+00   8.8393E-04  0.0021
   2.0784E+00   2.1290E+00   8.8325E-04  0.0021
   2.1290E+00   2.1808E+00   8.7252E-04  0.0021
   2.1808E+00   2.2338E+00   8.6894E-04  0.0021
   2.2338E+00   2.2882E+00   8.6949E-04  0.0020
   2.2882E+00   2.3439E+00   8.6767E-04  0.0020
   2.3439E+00   2.4009E+00   8.7653E-04  0.0020
   2.4009E+00   2.4593E+00   8.7871E-04  0.0020
   2.4593E+00   2.5191E+00   8.7252E-04  0.0019
   2.5191E+00   2.5804E+00   8.6318E-04  0.0019
   2.5804E+00   2.6432E+00   8.5585E-04  0.0019
   2.6432E+00   2.7075E+00   8.5275E-04  0.0019
   2.7075E+00   2.7734E+00   8.4792E-04  0.0019
   2.7734E+00   2.8409E+00   8.4228E-04  0.0019
   2.8409E+00   2.9100E+00   8.4723E-04  0.0018
   2.9100E+00   2.9808E+00   8.4527E-04  0.0018
   2.9808E+00   3.0533E+00   8.4178E-04  0.0018
   3.0533E+00   3.1276E+00   8.3359E-04  0.0018
   3.1276E+00   3.2037E+00   8.2329E-04  0.0018
   3.2037E+00   3.2817E+00   8.1448E-04  0.0018
   3.2817E+00   3.3615E+00   8.0894E-04  0.0018
   3.3615E+00   3.4433E+00   7.9931E-04  0.0017
   3.4433E+00   3.5271E+00   7.9279E-04  0.0017
   3.5271E+00   3.6129E+00   7.8601E-04  0.0017
   3.6129E+00   3.7008E+00   7.8025E-04  0.0017
   3.7008E+00   3.7908E+00   7.6885E-04  0.0017
   3.7908E+00   3.8831E+00   7.5867E-04  0.0017
   3.8831E+00   3.9776E+00   7.5001E-04  0.0017
   3.9776E+00   4.0743E+00   7.4344E-04  0.0017
   4.0743E+00   4.1735E+00   7.3594E-04  0.0016
   4.1735E+00   4.2750E+00   7.2428E-04  0.0016
   4.2750E+00   4.3790E+00   7.1404E-04  0.0016
   4.3790E+00   4.4856E+00   7.0304E-04  0.0016
   4.4856E+00   4.5947E+00   6.9467E-04  0.0016
   4.5947E+00   4.7065E+00   6.8814E-04  0.0016
   4.7065E+00   4.8210E+00   6.8380E-04  0.0016
   4.8210E+00   4.9383E+00   6.7464E-04  0.0016
   4.9383E+00   5.0585E+00   6.6096E-04  0.0016
   5.0585E+00   5.1815E+00   6.5079E-04  0.0016
   5.1815E+00   5.3076E+00   6.4007E-04  0.0016
   5.3076E+00   5.4368E+00   6.2820E-04  0.0016
   5.4368E+00   5.5690E+00   6.1799E-04  0.0016
   5.5690E+00   5.7045E+00   6.0689E-04  0.0016
   5.7045E+00   5.8433E+00   5.9507E-04  0.0016
   5.8433E+00   5.9855E+00   5.8482E-04  0.0015
   5.9855E+00   6.1311E+00   5.7625E-04  0.0015
   6.1311E+00   6.2803E+00   5.6419E-04  0.0015
   6.2803E+00   6.4331E+00   5.5306E-04  0.0015
   6.4331E+00   6.5896E+00   5.4355E-04  0.0015
   6.5896E+00   6.7500E+00   5.3012E-04  0.0015
   6.7500E+00   6.9142E+00   5.2113E-04  0.0015
   6.9142E+00   7.0824E+00   5.0984E-04  0.0015
   7.0824E+00   7.2548E+00   5.0403E-04  0.0015
   7.2548E+00   7.4313E+00   4.9590E-04  0.0015
   7.4313E+00   7.6121E+00   4.8286E-04  0.0015
   7.6121E+00   7.7973E+00   4.7289E-04  0.0015
   7.7973E+00   7.9870E+00   4.6288E-04  0.0015
   7.9870E+00   8.1813E+00   4.5246E-04  0.0015
   8.1813E+00   8.3804E+00   4.4161E-04  0.0015
   8.3804E+00   8.5843E+00   4.3175E-04  0.0015
   8.5843E+00   8.7931E+00   4.2048E-04  0.0015
   8.7931E+00   9.0071E+00   4.1086E-04  0.0015
   9.0071E+00   9.2262E+00   4.0149E-04  0.0015
   9.2262E+00   9.4507E+00   3.9091E-04  0.0015
   9.4507E+00   9.6807E+00   3.8133E-04  0.0015
   9.6807E+00   9.9162E+00   3.7173E-04  0.0015
   9.9162E+00   1.0157E+01   3.6357E-04  0.0015
   1.0157E+01   1.0405E+01   3.5716E-04  0.0015
   1.0405E+01   1.0658E+01   3.5317E-04  0.0015
   1.0658E+01   1.0917E+01   3.4573E-04  0.0015
   1.0917E+01   1.1183E+01   3.3825E-04  0.0015
   1.1183E+01   1.1455E+01   3.2997E-04  0.0015
   1.1455E+01   1.1733E+01   3.2091E-04  0.0015
   1.1733E+01   1.2019E+01   3.1268E-04  0.0015
   1.2019E+01   1.2311E+01   3.0400E-04  0.0015
   1.2311E+01   1.2611E+01   2.9458E-04  0.0015
   1.2611E+01   1.2918E+01   2.8696E-04  0.0015
   1.2918E+01   1.3232E+01   2.8036E-04  0.0015
   1.3232E+01   1.3554E+01   2.7312E-04  0.0015
   1.3554E+01   1.3884E+01   2.6497E-04  0.0015
   1.3884E+01   1.4222E+01   2.5672E-04  0.0015
   1.4222E+01   1.4568E+01   2.5023E-04  0.0015
   1.4568E+01   1.4922E+01   2.4332E-04  0.0015
   1.4922E+01   1.5285E+01   2.3563E-04  0.0015
   1.5285E+01   1.5657E+01   2.2883E-04  0.0015
   1.5657E+01   1.6038E+01   2.2211E-04  0.0015
   1.6038E+01   1.6428E+01   2.1492E-04  0.0015
   1.6428E+01   1.6828E+01   2.0800E-04  0.0016
   1.6828E+01   1.7237E+01   2.0172E-04  0.0016
   1.7237E+01   1.7657E+01   1.9553E-04  0.0016
   1.7657E+01   1.8086E+01   1.8902E-04  0.0016
   1.8086E+01   1.8526E+01   1.8392E-04  0.0016
   1.8526E+01   1.8977E+01   1.7899E-04  0.0016
   1.8977E+01   1.9439E+01   1.7552E-04  0.0016
   1.9439E+01   1.9912E+01   1.7300E-04  0.0016
   1.9912E+01   2.0396E+01   1.7364E-04  0.0015
   2.0396E+01   2.0893E+01   1.6944E-04  0.0015
   2.0893E+01   2.1401E+01   1.6379E-04  0.0016
   2.1401E+01   2.1922E+01   1.5860E-04  0.0016
   2.1922E+01   2.2455E+01   1.5285E-04  0.0016
   2.2455E+01   2.3001E+01   1.4743E-04  0.0016
   2.3001E+01   2.3561E+01   1.4262E-04  0.0016
   2.3561E+01   2.4134E+01   1.3679E-04  0.0016
   2.4134E+01   2.4721E+01   1.3188E-04  0.0016
   2.4721E+01   2.5323E+01   1.2714E-04  0.0016
   2.5323E+01   2.5939E+01   1.2201E-04  0.0016
   2.5939E+01   2.6570E+01   1.1725E-04  0.0016
   2.6570E+01   2.7217E+01   1.1236E-04  0.0017
   2.7217E+01   2.7879E+01   1.0789E-04  0.0017
   2.7879E+01   2.8557E+01   1.0307E-04  0.0017
   2.8557E+01   2.9252E+01   9.8344E-05  0.0017
   2.9252E+01   2.9964E+01   9.4508E-05  0.0017
   2.9964E+01   3.0693E+01   8.9891E-05  0.0017
   3.0693E+01   3.1440E+01   8.5550E-05  0.0018
   3.1440E+01   3.2205E+01   8.1110E-05  0.0018
   3.2205E+01   3.2988E+01   7.7476E-05  0.0018
   3.2988E+01   3.3791E+01   7.3537E-05  0.0018
   3.3791E+01   3.4613E+01   6.9682E-05  0.0019
   3.4613E+01   3.5455E+01   6.5905E-05  0.0019
   3.5455E+01   3.6318E+01   6.2399E-05  0.0019
   3.6318E+01   3.7201E+01   5.8946E-05  0.0020
   3.7201E+01   3.8106E+01   5.5589E-05  0.0020
   3.8106E+01   3.9034E+01   5.2436E-05  0.0020
   3.9034E+01   3.9983E+01   4.9284E-05  0.0021
   3.9983E+01   4.0956E+01   4.6002E-05  0.0021
   4.0956E+01   4.1953E+01   4.3170E-05  0.0022
   4.1953E+01   4.2973E+01   4.0174E-05  0.0022
   4.2973E+01   4.4019E+01   3.7581E-05  0.0023
   4.4019E+01   4.5090E+01   3.5013E-05  0.0023
   4.5090E+01   4.6187E+01   3.2576E-05  0.0024
   4.6187E+01   4.7311E+01   2.9926E-05  0.0024
   4.7311E+01   4.8462E+01   2.7699E-05  0.0025
   4.8462E+01   4.9641E+01   2.5585E-05  0.0026
   4.9641E+01   5.0849E+01   2.3535E-05  0.0027
   5.0849E+01   5.2086E+01   2.1562E-05  0.0027
   5.2086E+01   5.3353E+01   1.9677E-05  0.0028
   5.3353E+01   5.4651E+01   1.7935E-05  0.0029
   5.4651E+01   5.5981E+01   1.6289E-05  0.0030
   5.5981E+01   5.7343E+01   1.4700E-05  0.0032
   5.7343E+01   5.8738E+01   1.3177E-05  0.0033
   5.8738E+01   6.0168E+01   1.1811E-05  0.0034
   6.0168E+01   6.1632E+01   1.0613E-05  0.0036
   6.1632E+01   6.3131E+01   9.4985E-06  0.0037
   6.3131E+01   6.4667E+01   8.4646E-06  0.0039
   6.4667E+01   6.6240E+01   7.4162E-06  0.0041
   6.6240E+01   6.7852E+01   6.5333E-06  0.0044
   6.7852E+01   6.9503E+01   5.7028E-06  0.0046
   6.9503E+01   7.1194E+01   4.9973E-06  0.0049
   7.1194E+01   7.2926E+01   4.3277E-06  0.0052
   7.2926E+01   7.4701E+01   3.7537E-06  0.0055
   7.4701E+01   7.6518E+01   3.2533E-06  0.0058
   7.6518E+01   7.8380E+01   2.7630E-06  0.0062
   7.8380E+01   8.0287E+01   2.4050E-06  0.0066
   8.0287E+01   8.2240E+01   2.0383E-06  0.0071
   8.2240E+01   8.4241E+01   1.7321E-06  0.0076
   8.4241E+01   8.6291E+01   1.4680E-06  0.0082
   8.6291E+01   8.8391E+01   1.2234E-06  0.0088
   8.8391E+01   9.0541E+01   1.0376E-06  0.0095
   9.0541E+01   9.2744E+01   8.4142E-07  0.0104
   9.2744E+01   9.5001E+01   7.0480E-07  0.0112
   9.5001E+01   9.7312E+01   5.9668E-07  0.0120
   9.7312E+01   9.9680E+01   5.0201E-07  0.0130
   9.9680E+01   1.0211E+02   4.1381E-07  0.0141
   1.0211E+02   1.0459E+02   3.3716E-07  0.0155
   1.0459E+02   1.0713E+02   2.6557E-07  0.0172
   1.0713E+02   1.0974E+02   2.1974E-07  0.0187
   1.0974E+02   1.1241E+02   1.6779E-07  0.0211
   1.1241E+02   1.1515E+02   1.2877E-07  0.0238
   1.1515E+02   1.1795E+02   9.5731E-08  0.0273
   1.1795E+02   1.2082E+02   6.8159E-08  0.0320
   1.2082E+02   1.2376E+02   4.2591E-08  0.0400
   1.2376E+02   1.2677E+02   2.5771E-08  0.0508
   1.2677E+02   1.2985E+02   9.1429E-09  0.0842
   1.2985E+02   1.3301E+02   4.4945E-09  0.1187
   1.3301E+02   1.3625E+02   1.7304E-09  0.1890
   1.3625E+02   1.3956E+02   6.0331E-10  0.3162
   1.3956E+02   1.4296E+02   4.7119E-10  0.3536
   1.4296E+02   1.4644E+02   0.0000E+00  0.0000
   1.4644E+02   1.5000E+02   0.0000E+00  0.0000

#   sum over                 7.6361E-05
'no. =    1   reg = 111 - 211'
msuc: {\huge [t-cross] in region mesh}
msdr: {\it plotted by \ANGEL \version}
msdl: {\it calculated by \PHITS  3.28}
wt: s(0.7)
\vspace{-3}
  region surface crossing
  area  &=&   1.0000E+00 [cm^2]
e:
 
# Information for Restart Calculation
# This calculation was newly started
# istdev =  2 # 1:Batch variance, 2:History variance
# resc2  = 5.00000000000000000E+09 # Total source weight or Total source weight / maxcas
# resc3  = 5.00000000000000000E+09 # Total history number or Total batch number
# maxcas =   500000000 # History / Batch, only used for istdev=1
# bitrseed = 0110100000100010111000001110001111001110100100011111101000111001 # bit data of rseed
