[ T-Cross ]
    title = [t-cross] in region mesh
     mesh =  reg            # mesh type is region-wise
      reg =    1            # number of crossing regions
      non     r-from    r-to       area
      1       126       226        1.000000    
   e-type =    3            # e-mesh is log given by emin, emax and ne
     emin =  1.0000000E-02  # minimum value of e-mesh points
     emax =   150.0000      # maximum value of e-mesh points
#    edel =  2.4039514E-02  # mesh width of e-mesh points
       ne =    400          # number of e-mesh points
#    data = ( e(i), i = 1, ne + 1 )
#           1.00000E-02  1.02433E-02  1.04925E-02  1.07478E-02  1.10093E-02
#           1.12772E-02  1.15516E-02  1.18326E-02  1.21205E-02  1.24154E-02
#           1.27175E-02  1.30269E-02  1.33439E-02  1.36686E-02  1.40011E-02
#           1.43418E-02  1.46907E-02  1.50482E-02  1.54143E-02  1.57894E-02
#           1.61735E-02  1.65670E-02  1.69701E-02  1.73830E-02  1.78060E-02
#           1.82392E-02  1.86830E-02  1.91375E-02  1.96032E-02  2.00801E-02
#           2.05687E-02  2.10692E-02  2.15818E-02  2.21069E-02  2.26448E-02
#           2.31957E-02  2.37601E-02  2.43382E-02  2.49304E-02  2.55369E-02
#           2.61583E-02  2.67947E-02  2.74467E-02  2.81145E-02  2.87985E-02
#           2.94992E-02  3.02169E-02  3.09521E-02  3.17052E-02  3.24766E-02
#           3.32668E-02  3.40762E-02  3.49053E-02  3.57546E-02  3.66246E-02
#           3.75157E-02  3.84284E-02  3.93634E-02  4.03212E-02  4.13022E-02
#           4.23071E-02  4.33365E-02  4.43909E-02  4.54710E-02  4.65773E-02
#           4.77106E-02  4.88714E-02  5.00605E-02  5.12785E-02  5.25262E-02
#           5.38042E-02  5.51133E-02  5.64542E-02  5.78278E-02  5.92348E-02
#           6.06760E-02  6.21523E-02  6.36645E-02  6.52135E-02  6.68002E-02
#           6.84255E-02  7.00904E-02  7.17957E-02  7.35426E-02  7.53319E-02
#           7.71648E-02  7.90423E-02  8.09655E-02  8.29354E-02  8.49533E-02
#           8.70203E-02  8.91376E-02  9.13064E-02  9.35279E-02  9.58035E-02
#           9.81345E-02  1.00522E-01  1.02968E-01  1.05473E-01  1.08040E-01
#           1.10668E-01  1.13361E-01  1.16119E-01  1.18944E-01  1.21838E-01
#           1.24803E-01  1.27839E-01  1.30950E-01  1.34136E-01  1.37399E-01
#           1.40742E-01  1.44167E-01  1.47675E-01  1.51268E-01  1.54948E-01
#           1.58718E-01  1.62580E-01  1.66535E-01  1.70587E-01  1.74738E-01
#           1.78989E-01  1.83344E-01  1.87805E-01  1.92375E-01  1.97055E-01
#           2.01850E-01  2.06761E-01  2.11792E-01  2.16945E-01  2.22223E-01
#           2.27630E-01  2.33169E-01  2.38842E-01  2.44653E-01  2.50605E-01
#           2.56703E-01  2.62949E-01  2.69346E-01  2.75900E-01  2.82613E-01
#           2.89489E-01  2.96532E-01  3.03747E-01  3.11138E-01  3.18708E-01
#           3.26462E-01  3.34405E-01  3.42542E-01  3.50876E-01  3.59413E-01
#           3.68158E-01  3.77116E-01  3.86291E-01  3.95690E-01  4.05317E-01
#           4.15179E-01  4.25281E-01  4.35628E-01  4.46227E-01  4.57084E-01
#           4.68205E-01  4.79597E-01  4.91266E-01  5.03219E-01  5.15463E-01
#           5.28005E-01  5.40851E-01  5.54011E-01  5.67490E-01  5.81298E-01
#           5.95441E-01  6.09929E-01  6.24769E-01  6.39970E-01  6.55541E-01
#           6.71491E-01  6.87828E-01  7.04564E-01  7.21706E-01  7.39266E-01
#           7.57253E-01  7.75678E-01  7.94551E-01  8.13883E-01  8.33685E-01
#           8.53969E-01  8.74747E-01  8.96030E-01  9.17831E-01  9.40163E-01
#           9.63038E-01  9.86469E-01  1.01047E+00  1.03506E+00  1.06024E+00
#           1.08604E+00  1.11246E+00  1.13953E+00  1.16725E+00  1.19565E+00
#           1.22474E+00  1.25454E+00  1.28507E+00  1.31633E+00  1.34836E+00
#           1.38117E+00  1.41477E+00  1.44920E+00  1.48446E+00  1.52057E+00
#           1.55757E+00  1.59547E+00  1.63429E+00  1.67405E+00  1.71478E+00
#           1.75650E+00  1.79924E+00  1.84302E+00  1.88786E+00  1.93379E+00
#           1.98084E+00  2.02904E+00  2.07841E+00  2.12898E+00  2.18078E+00
#           2.23384E+00  2.28819E+00  2.34386E+00  2.40089E+00  2.45930E+00
#           2.51914E+00  2.58043E+00  2.64322E+00  2.70753E+00  2.77341E+00
#           2.84088E+00  2.91001E+00  2.98081E+00  3.05333E+00  3.12762E+00
#           3.20372E+00  3.28167E+00  3.36152E+00  3.44330E+00  3.52708E+00
#           3.61290E+00  3.70080E+00  3.79085E+00  3.88308E+00  3.97756E+00
#           4.07434E+00  4.17347E+00  4.27501E+00  4.37903E+00  4.48557E+00
#           4.59471E+00  4.70650E+00  4.82102E+00  4.93832E+00  5.05847E+00
#           5.18155E+00  5.30762E+00  5.43676E+00  5.56904E+00  5.70453E+00
#           5.84333E+00  5.98550E+00  6.13114E+00  6.28031E+00  6.43312E+00
#           6.58964E+00  6.74997E+00  6.91420E+00  7.08243E+00  7.25475E+00
#           7.43126E+00  7.61207E+00  7.79728E+00  7.98700E+00  8.18133E+00
#           8.38038E+00  8.58428E+00  8.79315E+00  9.00709E+00  9.22624E+00
#           9.45072E+00  9.68067E+00  9.91620E+00  1.01575E+01  1.04046E+01
#           1.06578E+01  1.09171E+01  1.11827E+01  1.14548E+01  1.17335E+01
#           1.20190E+01  1.23114E+01  1.26109E+01  1.29178E+01  1.32321E+01
#           1.35540E+01  1.38838E+01  1.42216E+01  1.45676E+01  1.49221E+01
#           1.52851E+01  1.56570E+01  1.60380E+01  1.64282E+01  1.68279E+01
#           1.72374E+01  1.76568E+01  1.80864E+01  1.85264E+01  1.89772E+01
#           1.94389E+01  1.99119E+01  2.03963E+01  2.08926E+01  2.14009E+01
#           2.19216E+01  2.24550E+01  2.30014E+01  2.35610E+01  2.41343E+01
#           2.47215E+01  2.53230E+01  2.59391E+01  2.65702E+01  2.72167E+01
#           2.78789E+01  2.85572E+01  2.92520E+01  2.99637E+01  3.06928E+01
#           3.14396E+01  3.22045E+01  3.29881E+01  3.37907E+01  3.46128E+01
#           3.54550E+01  3.63177E+01  3.72013E+01  3.81064E+01  3.90336E+01
#           3.99833E+01  4.09561E+01  4.19526E+01  4.29734E+01  4.40189E+01
#           4.50900E+01  4.61870E+01  4.73108E+01  4.84619E+01  4.96410E+01
#           5.08488E+01  5.20860E+01  5.33533E+01  5.46514E+01  5.59812E+01
#           5.73432E+01  5.87384E+01  6.01676E+01  6.16315E+01  6.31311E+01
#           6.46671E+01  6.62405E+01  6.78522E+01  6.95031E+01  7.11941E+01
#           7.29263E+01  7.47007E+01  7.65182E+01  7.83800E+01  8.02870E+01
#           8.22405E+01  8.42414E+01  8.62911E+01  8.83906E+01  9.05412E+01
#           9.27442E+01  9.50007E+01  9.73122E+01  9.96799E+01  1.02105E+02
#           1.04589E+02  1.07134E+02  1.09741E+02  1.12411E+02  1.15146E+02
#           1.17948E+02  1.20817E+02  1.23757E+02  1.26768E+02  1.29852E+02
#           1.33012E+02  1.36248E+02  1.39563E+02  1.42959E+02  1.46437E+02
#           1.50000E+02
     unit =    2            # unit is [1/cm^2/(MeV/n)/source]
     axis =  eng            # axis of output
     file = detector-27.out  # file name of output for the above axis
   output = f-curr          # surface crossing forward current spectrum
     part =  neutron  
# kf/name :  2112     
#    used :        main (  %)        temp (  %)       total (  %)
#  memory :         414 (  0)           0 (  0)         414 (  0)

#------------------------------------------------------------------------------
#newpage:
#   no. =    1   reg = 126 - 226

x: Energy [MeV/n]
y:  F-Curr [1/cm^2/(MeV/n)/source]         
p: xlog ylog afac(0.8) form(0.9)
h: n            x            y(neutron ),hh0l   n 
#  e-lower      e-upper      neutron     r.err 
   1.0000E-02   1.0243E-02   4.2272E-03  0.0220
   1.0243E-02   1.0493E-02   4.0826E-03  0.0222
   1.0493E-02   1.0748E-02   3.9014E-03  0.0224
   1.0748E-02   1.1009E-02   3.9598E-03  0.0220
   1.1009E-02   1.1277E-02   3.9516E-03  0.0217
   1.1277E-02   1.1552E-02   3.7885E-03  0.0219
   1.1552E-02   1.1833E-02   3.7288E-03  0.0218
   1.1833E-02   1.2121E-02   3.8139E-03  0.0213
   1.2121E-02   1.2415E-02   3.8911E-03  0.0209
   1.2415E-02   1.2718E-02   3.5835E-03  0.0215
   1.2718E-02   1.3027E-02   3.5921E-03  0.0212
   1.3027E-02   1.3344E-02   3.5873E-03  0.0210
   1.3344E-02   1.3669E-02   3.4666E-03  0.0211
   1.3669E-02   1.4001E-02   3.5482E-03  0.0206
   1.4001E-02   1.4342E-02   3.3949E-03  0.0208
   1.4342E-02   1.4691E-02   3.3945E-03  0.0205
   1.4691E-02   1.5048E-02   3.2313E-03  0.0208
   1.5048E-02   1.5414E-02   3.3171E-03  0.0203
   1.5414E-02   1.5789E-02   3.2230E-03  0.0203
   1.5789E-02   1.6174E-02   3.1757E-03  0.0202
   1.6174E-02   1.6567E-02   3.1498E-03  0.0201
   1.6567E-02   1.6970E-02   3.0328E-03  0.0202
   1.6970E-02   1.7383E-02   3.0698E-03  0.0199
   1.7383E-02   1.7806E-02   2.8550E-03  0.0203
   1.7806E-02   1.8239E-02   3.0272E-03  0.0195
   1.8239E-02   1.8683E-02   2.9441E-03  0.0196
   1.8683E-02   1.9138E-02   2.8972E-03  0.0195
   1.9138E-02   1.9603E-02   2.8563E-03  0.0194
   1.9603E-02   2.0080E-02   2.8058E-03  0.0193
   2.0080E-02   2.0569E-02   2.7714E-03  0.0192
   2.0569E-02   2.1069E-02   2.7335E-03  0.0191
   2.1069E-02   2.1582E-02   2.7408E-03  0.0189
   2.1582E-02   2.2107E-02   2.5538E-03  0.0193
   2.2107E-02   2.2645E-02   2.5563E-03  0.0191
   2.2645E-02   2.3196E-02   2.5183E-03  0.0190
   2.3196E-02   2.3760E-02   2.5551E-03  0.0186
   2.3760E-02   2.4338E-02   2.5246E-03  0.0185
   2.4338E-02   2.4930E-02   2.5221E-03  0.0183
   2.4930E-02   2.5537E-02   2.3971E-03  0.0185
   2.5537E-02   2.6158E-02   2.4367E-03  0.0182
   2.6158E-02   2.6795E-02   2.3717E-03  0.0182
   2.6795E-02   2.7447E-02   2.3146E-03  0.0182
   2.7447E-02   2.8114E-02   2.2754E-03  0.0181
   2.8114E-02   2.8799E-02   2.2396E-03  0.0181
   2.8799E-02   2.9499E-02   2.2999E-03  0.0176
   2.9499E-02   3.0217E-02   2.2034E-03  0.0178
   3.0217E-02   3.0952E-02   2.1729E-03  0.0177
   3.0952E-02   3.1705E-02   2.1319E-03  0.0176
   3.1705E-02   3.2477E-02   2.1733E-03  0.0173
   3.2477E-02   3.3267E-02   2.0672E-03  0.0175
   3.3267E-02   3.4076E-02   2.0663E-03  0.0173
   3.4076E-02   3.4905E-02   1.9925E-03  0.0174
   3.4905E-02   3.5755E-02   1.9846E-03  0.0172
   3.5755E-02   3.6625E-02   1.9490E-03  0.0172
   3.6625E-02   3.7516E-02   1.9532E-03  0.0170
   3.7516E-02   3.8428E-02   1.8652E-03  0.0171
   3.8428E-02   3.9363E-02   1.8765E-03  0.0169
   3.9363E-02   4.0321E-02   1.8596E-03  0.0168
   4.0321E-02   4.1302E-02   1.8078E-03  0.0168
   4.1302E-02   4.2307E-02   1.7867E-03  0.0167
   4.2307E-02   4.3337E-02   1.7443E-03  0.0167
   4.3337E-02   4.4391E-02   1.7640E-03  0.0164
   4.4391E-02   4.5471E-02   1.7355E-03  0.0163
   4.5471E-02   4.6577E-02   1.7070E-03  0.0163
   4.6577E-02   4.7711E-02   1.6836E-03  0.0162
   4.7711E-02   4.8871E-02   1.6454E-03  0.0162
   4.8871E-02   5.0061E-02   1.6656E-03  0.0159
   5.0061E-02   5.1279E-02   1.5833E-03  0.0161
   5.1279E-02   5.2526E-02   1.5585E-03  0.0160
   5.2526E-02   5.3804E-02   1.5681E-03  0.0158
   5.3804E-02   5.5113E-02   1.5129E-03  0.0159
   5.5113E-02   5.6454E-02   1.5228E-03  0.0157
   5.6454E-02   5.7828E-02   1.4593E-03  0.0158
   5.7828E-02   5.9235E-02   1.4613E-03  0.0156
   5.9235E-02   6.0676E-02   1.4540E-03  0.0154
   6.0676E-02   6.2152E-02   1.4489E-03  0.0153
   6.2152E-02   6.3665E-02   1.3528E-03  0.0156
   6.3665E-02   6.5214E-02   1.3809E-03  0.0153
   6.5214E-02   6.6800E-02   1.3692E-03  0.0152
   6.6800E-02   6.8426E-02   1.3456E-03  0.0151
   6.8426E-02   7.0090E-02   1.3253E-03  0.0151
   7.0090E-02   7.1796E-02   1.3170E-03  0.0149
   7.1796E-02   7.3543E-02   1.2829E-03  0.0149
   7.3543E-02   7.5332E-02   1.2479E-03  0.0150
   7.5332E-02   7.7165E-02   1.2581E-03  0.0147
   7.7165E-02   7.9042E-02   1.2144E-03  0.0148
   7.9042E-02   8.0965E-02   1.2225E-03  0.0146
   8.0965E-02   8.2935E-02   1.1957E-03  0.0146
   8.2935E-02   8.4953E-02   1.1866E-03  0.0145
   8.4953E-02   8.7020E-02   1.1563E-03  0.0145
   8.7020E-02   8.9138E-02   1.1354E-03  0.0144
   8.9138E-02   9.1306E-02   1.1073E-03  0.0144
   9.1306E-02   9.3528E-02   1.1337E-03  0.0141
   9.3528E-02   9.5804E-02   1.1034E-03  0.0141
   9.5804E-02   9.8134E-02   1.1013E-03  0.0140
   9.8134E-02   1.0052E-01   1.0613E-03  0.0140
   1.0052E-01   1.0297E-01   1.0430E-03  0.0140
   1.0297E-01   1.0547E-01   1.0368E-03  0.0139
   1.0547E-01   1.0804E-01   9.9698E-04  0.0140
   1.0804E-01   1.1067E-01   9.9441E-04  0.0138
   1.1067E-01   1.1336E-01   9.9159E-04  0.0137
   1.1336E-01   1.1612E-01   9.8000E-04  0.0136
   1.1612E-01   1.1894E-01   9.6469E-04  0.0135
   1.1894E-01   1.2184E-01   9.3080E-04  0.0136
   1.2184E-01   1.2480E-01   9.4099E-04  0.0134
   1.2480E-01   1.2784E-01   9.1947E-04  0.0134
   1.2784E-01   1.3095E-01   8.9425E-04  0.0134
   1.3095E-01   1.3414E-01   9.0816E-04  0.0131
   1.3414E-01   1.3740E-01   8.6529E-04  0.0133
   1.3740E-01   1.4074E-01   8.6508E-04  0.0131
   1.4074E-01   1.4417E-01   8.4125E-04  0.0132
   1.4417E-01   1.4767E-01   8.4429E-04  0.0130
   1.4767E-01   1.5127E-01   8.2354E-04  0.0130
   1.5127E-01   1.5495E-01   8.1464E-04  0.0129
   1.5495E-01   1.5872E-01   8.0743E-04  0.0128
   1.5872E-01   1.6258E-01   7.7828E-04  0.0129
   1.6258E-01   1.6654E-01   7.7369E-04  0.0128
   1.6654E-01   1.7059E-01   7.5482E-04  0.0128
   1.7059E-01   1.7474E-01   7.5521E-04  0.0126
   1.7474E-01   1.7899E-01   7.5320E-04  0.0125
   1.7899E-01   1.8334E-01   7.2573E-04  0.0126
   1.8334E-01   1.8781E-01   7.2356E-04  0.0124
   1.8781E-01   1.9237E-01   7.2394E-04  0.0123
   1.9237E-01   1.9706E-01   7.0824E-04  0.0123
   1.9706E-01   2.0185E-01   6.9413E-04  0.0123
   2.0185E-01   2.0676E-01   6.5738E-04  0.0124
   2.0676E-01   2.1179E-01   6.5787E-04  0.0123
   2.1179E-01   2.1694E-01   6.5621E-04  0.0122
   2.1694E-01   2.2222E-01   6.2793E-04  0.0123
   2.2222E-01   2.2763E-01   6.3863E-04  0.0120
   2.2763E-01   2.3317E-01   6.2319E-04  0.0120
   2.3317E-01   2.3884E-01   6.1518E-04  0.0120
   2.3884E-01   2.4465E-01   6.1003E-04  0.0119
   2.4465E-01   2.5061E-01   5.8260E-04  0.0120
   2.5061E-01   2.5670E-01   5.7877E-04  0.0119
   2.5670E-01   2.6295E-01   5.8143E-04  0.0117
   2.6295E-01   2.6935E-01   5.7583E-04  0.0116
   2.6935E-01   2.7590E-01   5.4964E-04  0.0118
   2.7590E-01   2.8261E-01   5.5394E-04  0.0116
   2.8261E-01   2.8949E-01   5.3343E-04  0.0117
   2.8949E-01   2.9653E-01   5.3425E-04  0.0115
   2.9653E-01   3.0375E-01   5.2045E-04  0.0115
   3.0375E-01   3.1114E-01   5.0728E-04  0.0115
   3.1114E-01   3.1871E-01   5.0150E-04  0.0115
   3.1871E-01   3.2646E-01   4.9791E-04  0.0114
   3.2646E-01   3.3441E-01   4.8476E-04  0.0114
   3.3441E-01   3.4254E-01   4.7509E-04  0.0114
   3.4254E-01   3.5088E-01   4.6015E-04  0.0114
   3.5088E-01   3.5941E-01   4.5361E-04  0.0114
   3.5941E-01   3.6816E-01   4.4375E-04  0.0114
   3.6816E-01   3.7712E-01   4.3466E-04  0.0113
   3.7712E-01   3.8629E-01   4.2488E-04  0.0113
   3.8629E-01   3.9569E-01   4.2000E-04  0.0113
   3.9569E-01   4.0532E-01   4.1558E-04  0.0112
   4.0532E-01   4.1518E-01   4.0825E-04  0.0111
   4.1518E-01   4.2528E-01   4.0746E-04  0.0110
   4.2528E-01   4.3563E-01   3.9140E-04  0.0111
   4.3563E-01   4.4623E-01   3.8279E-04  0.0111
   4.4623E-01   4.5708E-01   3.8077E-04  0.0110
   4.5708E-01   4.6821E-01   3.5999E-04  0.0112
   4.6821E-01   4.7960E-01   3.4929E-04  0.0112
   4.7960E-01   4.9127E-01   3.4770E-04  0.0111
   4.9127E-01   5.0322E-01   3.3670E-04  0.0111
   5.0322E-01   5.1546E-01   3.3597E-04  0.0110
   5.1546E-01   5.2800E-01   3.2691E-04  0.0110
   5.2800E-01   5.4085E-01   3.2043E-04  0.0110
   5.4085E-01   5.5401E-01   3.0758E-04  0.0111
   5.5401E-01   5.6749E-01   3.0504E-04  0.0110
   5.6749E-01   5.8130E-01   2.9031E-04  0.0112
   5.8130E-01   5.9544E-01   2.9360E-04  0.0110
   5.9544E-01   6.0993E-01   2.8595E-04  0.0110
   6.0993E-01   6.2477E-01   2.7507E-04  0.0111
   6.2477E-01   6.3997E-01   2.6292E-04  0.0112
   6.3997E-01   6.5554E-01   2.5548E-04  0.0112
   6.5554E-01   6.7149E-01   2.5151E-04  0.0112
   6.7149E-01   6.8783E-01   2.4523E-04  0.0112
   6.8783E-01   7.0456E-01   2.4266E-04  0.0111
   7.0456E-01   7.2171E-01   2.3147E-04  0.0112
   7.2171E-01   7.3927E-01   2.2742E-04  0.0112
   7.3927E-01   7.5725E-01   2.1880E-04  0.0113
   7.5725E-01   7.7568E-01   2.0709E-04  0.0114
   7.7568E-01   7.9455E-01   2.0617E-04  0.0113
   7.9455E-01   8.1388E-01   2.0277E-04  0.0113
   8.1388E-01   8.3368E-01   1.9520E-04  0.0114
   8.3368E-01   8.5397E-01   1.8158E-04  0.0117
   8.5397E-01   8.7475E-01   1.7834E-04  0.0116
   8.7475E-01   8.9603E-01   1.7093E-04  0.0117
   8.9603E-01   9.1783E-01   1.6531E-04  0.0118
   9.1783E-01   9.4016E-01   1.5832E-04  0.0119
   9.4016E-01   9.6304E-01   1.4837E-04  0.0121
   9.6304E-01   9.8647E-01   1.4173E-04  0.0123
   9.8647E-01   1.0105E+00   1.3822E-04  0.0123
   1.0105E+00   1.0351E+00   1.3553E-04  0.0122
   1.0351E+00   1.0602E+00   1.4033E-04  0.0119
   1.0602E+00   1.0860E+00   1.4105E-04  0.0117
   1.0860E+00   1.1125E+00   1.4252E-04  0.0115
   1.1125E+00   1.1395E+00   1.4597E-04  0.0112
   1.1395E+00   1.1673E+00   1.4896E-04  0.0110
   1.1673E+00   1.1957E+00   1.4873E-04  0.0109
   1.1957E+00   1.2247E+00   1.5147E-04  0.0107
   1.2247E+00   1.2545E+00   1.5474E-04  0.0104
   1.2545E+00   1.2851E+00   1.5418E-04  0.0103
   1.2851E+00   1.3163E+00   1.5482E-04  0.0102
   1.3163E+00   1.3484E+00   1.6037E-04  0.0099
   1.3484E+00   1.3812E+00   1.6004E-04  0.0098
   1.3812E+00   1.4148E+00   1.6353E-04  0.0095
   1.4148E+00   1.4492E+00   1.6168E-04  0.0095
   1.4492E+00   1.4845E+00   1.6306E-04  0.0093
   1.4845E+00   1.5206E+00   1.6204E-04  0.0092
   1.5206E+00   1.5576E+00   1.6289E-04  0.0091
   1.5576E+00   1.5955E+00   1.6026E-04  0.0091
   1.5955E+00   1.6343E+00   1.5951E-04  0.0090
   1.6343E+00   1.6741E+00   1.6022E-04  0.0089
   1.6741E+00   1.7148E+00   1.6206E-04  0.0087
   1.7148E+00   1.7565E+00   1.6196E-04  0.0086
   1.7565E+00   1.7992E+00   1.6075E-04  0.0085
   1.7992E+00   1.8430E+00   1.5834E-04  0.0085
   1.8430E+00   1.8879E+00   1.5662E-04  0.0084
   1.8879E+00   1.9338E+00   1.5720E-04  0.0083
   1.9338E+00   1.9808E+00   1.5586E-04  0.0083
   1.9808E+00   2.0290E+00   1.5629E-04  0.0081
   2.0290E+00   2.0784E+00   1.5024E-04  0.0082
   2.0784E+00   2.1290E+00   1.4568E-04  0.0082
   2.1290E+00   2.1808E+00   1.4345E-04  0.0082
   2.1808E+00   2.2338E+00   1.3963E-04  0.0082
   2.2338E+00   2.2882E+00   1.3972E-04  0.0081
   2.2882E+00   2.3439E+00   1.3366E-04  0.0082
   2.3439E+00   2.4009E+00   1.3406E-04  0.0081
   2.4009E+00   2.4593E+00   1.2979E-04  0.0081
   2.4593E+00   2.5191E+00   1.2430E-04  0.0082
   2.5191E+00   2.5804E+00   1.2112E-04  0.0082
   2.5804E+00   2.6432E+00   1.1653E-04  0.0083
   2.6432E+00   2.7075E+00   1.1081E-04  0.0084
   2.7075E+00   2.7734E+00   1.0873E-04  0.0084
   2.7734E+00   2.8409E+00   1.0617E-04  0.0084
   2.8409E+00   2.9100E+00   1.0357E-04  0.0084
   2.9100E+00   2.9808E+00   9.9629E-05  0.0084
   2.9808E+00   3.0533E+00   9.5460E-05  0.0085
   3.0533E+00   3.1276E+00   9.0470E-05  0.0086
   3.1276E+00   3.2037E+00   8.8275E-05  0.0086
   3.2037E+00   3.2817E+00   8.3073E-05  0.0088
   3.2817E+00   3.3615E+00   7.8514E-05  0.0089
   3.3615E+00   3.4433E+00   7.4051E-05  0.0091
   3.4433E+00   3.5271E+00   7.1982E-05  0.0091
   3.5271E+00   3.6129E+00   6.8367E-05  0.0092
   3.6129E+00   3.7008E+00   6.5321E-05  0.0093
   3.7008E+00   3.7908E+00   6.1476E-05  0.0095
   3.7908E+00   3.8831E+00   5.7777E-05  0.0097
   3.8831E+00   3.9776E+00   5.4176E-05  0.0099
   3.9776E+00   4.0743E+00   5.1877E-05  0.0100
   4.0743E+00   4.1735E+00   4.8178E-05  0.0102
   4.1735E+00   4.2750E+00   4.6354E-05  0.0103
   4.2750E+00   4.3790E+00   4.1711E-05  0.0107
   4.3790E+00   4.4856E+00   3.8791E-05  0.0110
   4.4856E+00   4.5947E+00   3.6720E-05  0.0112
   4.5947E+00   4.7065E+00   3.3665E-05  0.0115
   4.7065E+00   4.8210E+00   3.1407E-05  0.0118
   4.8210E+00   4.9383E+00   2.9395E-05  0.0120
   4.9383E+00   5.0585E+00   2.7386E-05  0.0123
   5.0585E+00   5.1815E+00   2.5590E-05  0.0126
   5.1815E+00   5.3076E+00   2.3657E-05  0.0129
   5.3076E+00   5.4368E+00   2.1601E-05  0.0134
   5.4368E+00   5.5690E+00   1.9523E-05  0.0139
   5.5690E+00   5.7045E+00   1.8039E-05  0.0143
   5.7045E+00   5.8433E+00   1.6344E-05  0.0148
   5.8433E+00   5.9855E+00   1.4985E-05  0.0153
   5.9855E+00   6.1311E+00   1.3994E-05  0.0157
   6.1311E+00   6.2803E+00   1.2510E-05  0.0164
   6.2803E+00   6.4331E+00   1.1502E-05  0.0169
   6.4331E+00   6.5896E+00   1.0550E-05  0.0174
   6.5896E+00   6.7500E+00   9.3634E-06  0.0182
   6.7500E+00   6.9142E+00   8.6433E-06  0.0188
   6.9142E+00   7.0824E+00   7.7945E-06  0.0195
   7.0824E+00   7.2548E+00   6.9260E-06  0.0205
   7.2548E+00   7.4313E+00   6.4825E-06  0.0209
   7.4313E+00   7.6121E+00   5.6842E-06  0.0221
   7.6121E+00   7.7973E+00   4.9539E-06  0.0233
   7.7973E+00   7.9870E+00   4.4791E-06  0.0243
   7.9870E+00   8.1813E+00   4.4165E-06  0.0241
   8.1813E+00   8.3804E+00   3.8745E-06  0.0255
   8.3804E+00   8.5843E+00   3.6059E-06  0.0261
   8.5843E+00   8.7931E+00   3.0307E-06  0.0281
   8.7931E+00   9.0071E+00   2.8103E-06  0.0288
   9.0071E+00   9.2262E+00   2.5451E-06  0.0299
   9.2262E+00   9.4507E+00   2.2140E-06  0.0317
   9.4507E+00   9.6807E+00   2.0483E-06  0.0325
   9.6807E+00   9.9162E+00   1.8214E-06  0.0341
   9.9162E+00   1.0157E+01   1.5791E-06  0.0362
   1.0157E+01   1.0405E+01   1.4041E-06  0.0378
   1.0405E+01   1.0658E+01   1.3233E-06  0.0385
   1.0658E+01   1.0917E+01   1.1212E-06  0.0413
   1.0917E+01   1.1183E+01   1.0701E-06  0.0418
   1.1183E+01   1.1455E+01   9.9050E-07  0.0430
   1.1455E+01   1.1733E+01   8.9791E-07  0.0446
   1.1733E+01   1.2019E+01   8.1703E-07  0.0461
   1.2019E+01   1.2311E+01   7.3778E-07  0.0480
   1.2311E+01   1.2611E+01   6.6851E-07  0.0497
   1.2611E+01   1.2918E+01   6.5508E-07  0.0497
   1.2918E+01   1.3232E+01   5.7906E-07  0.0522
   1.3232E+01   1.3554E+01   5.4201E-07  0.0533
   1.3554E+01   1.3884E+01   4.9275E-07  0.0553
   1.3884E+01   1.4222E+01   4.6477E-07  0.0563
   1.4222E+01   1.4568E+01   4.0460E-07  0.0597
   1.4568E+01   1.4922E+01   4.1333E-07  0.0583
   1.4922E+01   1.5285E+01   3.6357E-07  0.0614
   1.5285E+01   1.5657E+01   3.3947E-07  0.0628
   1.5657E+01   1.6038E+01   3.3338E-07  0.0626
   1.6038E+01   1.6428E+01   3.0047E-07  0.0652
   1.6428E+01   1.6828E+01   2.9021E-07  0.0655
   1.6828E+01   1.7237E+01   2.8637E-07  0.0651
   1.7237E+01   1.7657E+01   2.5513E-07  0.0680
   1.7657E+01   1.8086E+01   2.6362E-07  0.0664
   1.8086E+01   1.8526E+01   2.2384E-07  0.0710
   1.8526E+01   1.8977E+01   2.2739E-07  0.0697
   1.8977E+01   1.9439E+01   1.7055E-07  0.0796
   1.9439E+01   1.9912E+01   2.0562E-07  0.0717
   1.9912E+01   2.0396E+01   1.7338E-07  0.0772
   2.0396E+01   2.0893E+01   1.9244E-07  0.0724
   2.0893E+01   2.1401E+01   1.8393E-07  0.0731
   2.1401E+01   2.1922E+01   1.7668E-07  0.0737
   2.1922E+01   2.2455E+01   1.4343E-07  0.0808
   2.2455E+01   2.3001E+01   1.7571E-07  0.0722
   2.3001E+01   2.3561E+01   1.4295E-07  0.0791
   2.3561E+01   2.4134E+01   1.2996E-07  0.0819
   2.4134E+01   2.4721E+01   1.4050E-07  0.0778
   2.4721E+01   2.5323E+01   1.2968E-07  0.0801
   2.5323E+01   2.5939E+01   1.3390E-07  0.0778
   2.5939E+01   2.6570E+01   1.3389E-07  0.0769
   2.6570E+01   2.7217E+01   1.1524E-07  0.0819
   2.7217E+01   2.7879E+01   9.2117E-08  0.0905
   2.7879E+01   2.8557E+01   1.0172E-07  0.0851
   2.8557E+01   2.9252E+01   9.0671E-08  0.0891
   2.9252E+01   2.9964E+01   8.6410E-08  0.0902
   2.9964E+01   3.0693E+01   8.4357E-08  0.0902
   3.0693E+01   3.1440E+01   7.2980E-08  0.0958
   3.1440E+01   3.2205E+01   7.6476E-08  0.0925
   3.2205E+01   3.2988E+01   6.3811E-08  0.1000
   3.2988E+01   3.3791E+01   6.9148E-08  0.0949
   3.3791E+01   3.4613E+01   6.2032E-08  0.0990
   3.4613E+01   3.5455E+01   5.8778E-08  0.1005
   3.5455E+01   3.6318E+01   4.9846E-08  0.1078
   3.6318E+01   3.7201E+01   4.8097E-08  0.1085
   3.7201E+01   3.8106E+01   4.5297E-08  0.1104
   3.8106E+01   3.9034E+01   3.7210E-08  0.1204
   3.9034E+01   3.9983E+01   3.1062E-08  0.1302
   3.9983E+01   4.0956E+01   2.9810E-08  0.1313
   4.0956E+01   4.1953E+01   2.8098E-08  0.1336
   4.1953E+01   4.2973E+01   3.1350E-08  0.1250
   4.2973E+01   4.4019E+01   2.3910E-08  0.1414
   4.4019E+01   4.5090E+01   1.8207E-08  0.1601
   4.5090E+01   4.6187E+01   1.8230E-08  0.1581
   4.6187E+01   4.7311E+01   1.4238E-08  0.1768
   4.7311E+01   4.8462E+01   1.2162E-08  0.1890
   4.8462E+01   4.9641E+01   8.4809E-09  0.2236
   4.9641E+01   5.0849E+01   1.1591E-08  0.1890
   5.0849E+01   5.2086E+01   8.8911E-09  0.2132
   5.2086E+01   5.3353E+01   6.7072E-09  0.2425
   5.3353E+01   5.4651E+01   9.6292E-09  0.2000
   5.4651E+01   5.5981E+01   5.2643E-09  0.2673
   5.5981E+01   5.7343E+01   6.2405E-09  0.2425
   5.7343E+01   5.8738E+01   3.5837E-09  0.3162
   5.8738E+01   6.0168E+01   3.8484E-09  0.3015
   6.0168E+01   6.1632E+01   2.7324E-09  0.3536
   6.1632E+01   6.3131E+01   2.3340E-09  0.3780
   6.3131E+01   6.4667E+01   1.9531E-09  0.4082
   6.4667E+01   6.6240E+01   1.2711E-09  0.5000
   6.6240E+01   6.7852E+01   1.2409E-09  0.5000
   6.7852E+01   6.9503E+01   1.2115E-09  0.5000
   6.9503E+01   7.1194E+01   2.9567E-10  1.0000
   7.1194E+01   7.2926E+01   8.6595E-10  0.5774
   7.2926E+01   7.4701E+01   2.8179E-10  1.0000
   7.4701E+01   7.6518E+01   2.7510E-10  1.0000
   7.6518E+01   7.8380E+01   2.6856E-10  1.0000
   7.8380E+01   8.0287E+01   2.6219E-10  1.0000
   8.0287E+01   8.2240E+01   0.0000E+00  0.0000
   8.2240E+01   8.4241E+01   0.0000E+00  0.0000
   8.4241E+01   8.6291E+01   0.0000E+00  0.0000
   8.6291E+01   8.8391E+01   0.0000E+00  0.0000
   8.8391E+01   9.0541E+01   0.0000E+00  0.0000
   9.0541E+01   9.2744E+01   0.0000E+00  0.0000
   9.2744E+01   9.5001E+01   0.0000E+00  0.0000
   9.5001E+01   9.7312E+01   0.0000E+00  0.0000
   9.7312E+01   9.9680E+01   0.0000E+00  0.0000
   9.9680E+01   1.0211E+02   0.0000E+00  0.0000
   1.0211E+02   1.0459E+02   0.0000E+00  0.0000
   1.0459E+02   1.0713E+02   0.0000E+00  0.0000
   1.0713E+02   1.0974E+02   0.0000E+00  0.0000
   1.0974E+02   1.1241E+02   0.0000E+00  0.0000
   1.1241E+02   1.1515E+02   0.0000E+00  0.0000
   1.1515E+02   1.1795E+02   0.0000E+00  0.0000
   1.1795E+02   1.2082E+02   0.0000E+00  0.0000
   1.2082E+02   1.2376E+02   0.0000E+00  0.0000
   1.2376E+02   1.2677E+02   0.0000E+00  0.0000
   1.2677E+02   1.2985E+02   0.0000E+00  0.0000
   1.2985E+02   1.3301E+02   0.0000E+00  0.0000
   1.3301E+02   1.3625E+02   0.0000E+00  0.0000
   1.3625E+02   1.3956E+02   0.0000E+00  0.0000
   1.3956E+02   1.4296E+02   0.0000E+00  0.0000
   1.4296E+02   1.4644E+02   0.0000E+00  0.0000
   1.4644E+02   1.5000E+02   0.0000E+00  0.0000

#   sum over                 6.2621E-06
'no. =    1   reg = 126 - 226'
msuc: {\huge [t-cross] in region mesh}
msdr: {\it plotted by \ANGEL \version}
msdl: {\it calculated by \PHITS  3.26}
wt: s(0.7)
\vspace{-3}
  region surface crossing
  area  &=&   1.0000E+00 [cm^2]
e:
 
# Information for Restart Calculation
# This calculation was newly started
# istdev =  2 # 1:Batch variance, 2:History variance
# resc2  = 2.00000000000000000E+09 # Total source weight or Total source weight / maxcas
# resc3  = 2.00000000000000000E+09 # Total history number or Total batch number
# maxcas =   500000000 # History / Batch, only used for istdev=1
# bitrseed = 0011011010010000100111110110001101100001010011100000011100000110 # bit data of rseed
