[ T-Cross ]
    title = [t-cross] in region mesh
     mesh =  reg            # mesh type is region-wise
      reg =    1            # number of crossing regions
      non     r-from    r-to       area
      1       104       204        1.000000    
   e-type =    3            # e-mesh is log given by emin, emax and ne
     emin =  1.0000000E-02  # minimum value of e-mesh points
     emax =   150.0000      # maximum value of e-mesh points
#    edel =  2.4039514E-02  # mesh width of e-mesh points
       ne =    400          # number of e-mesh points
#    data = ( e(i), i = 1, ne + 1 )
#           1.00000E-02  1.02433E-02  1.04925E-02  1.07478E-02  1.10093E-02
#           1.12772E-02  1.15516E-02  1.18326E-02  1.21205E-02  1.24154E-02
#           1.27175E-02  1.30269E-02  1.33439E-02  1.36686E-02  1.40011E-02
#           1.43418E-02  1.46907E-02  1.50482E-02  1.54143E-02  1.57894E-02
#           1.61735E-02  1.65670E-02  1.69701E-02  1.73830E-02  1.78060E-02
#           1.82392E-02  1.86830E-02  1.91375E-02  1.96032E-02  2.00801E-02
#           2.05687E-02  2.10692E-02  2.15818E-02  2.21069E-02  2.26448E-02
#           2.31957E-02  2.37601E-02  2.43382E-02  2.49304E-02  2.55369E-02
#           2.61583E-02  2.67947E-02  2.74467E-02  2.81145E-02  2.87985E-02
#           2.94992E-02  3.02169E-02  3.09521E-02  3.17052E-02  3.24766E-02
#           3.32668E-02  3.40762E-02  3.49053E-02  3.57546E-02  3.66246E-02
#           3.75157E-02  3.84284E-02  3.93634E-02  4.03212E-02  4.13022E-02
#           4.23071E-02  4.33365E-02  4.43909E-02  4.54710E-02  4.65773E-02
#           4.77106E-02  4.88714E-02  5.00605E-02  5.12785E-02  5.25262E-02
#           5.38042E-02  5.51133E-02  5.64542E-02  5.78278E-02  5.92348E-02
#           6.06760E-02  6.21523E-02  6.36645E-02  6.52135E-02  6.68002E-02
#           6.84255E-02  7.00904E-02  7.17957E-02  7.35426E-02  7.53319E-02
#           7.71648E-02  7.90423E-02  8.09655E-02  8.29354E-02  8.49533E-02
#           8.70203E-02  8.91376E-02  9.13064E-02  9.35279E-02  9.58035E-02
#           9.81345E-02  1.00522E-01  1.02968E-01  1.05473E-01  1.08040E-01
#           1.10668E-01  1.13361E-01  1.16119E-01  1.18944E-01  1.21838E-01
#           1.24803E-01  1.27839E-01  1.30950E-01  1.34136E-01  1.37399E-01
#           1.40742E-01  1.44167E-01  1.47675E-01  1.51268E-01  1.54948E-01
#           1.58718E-01  1.62580E-01  1.66535E-01  1.70587E-01  1.74738E-01
#           1.78989E-01  1.83344E-01  1.87805E-01  1.92375E-01  1.97055E-01
#           2.01850E-01  2.06761E-01  2.11792E-01  2.16945E-01  2.22223E-01
#           2.27630E-01  2.33169E-01  2.38842E-01  2.44653E-01  2.50605E-01
#           2.56703E-01  2.62949E-01  2.69346E-01  2.75900E-01  2.82613E-01
#           2.89489E-01  2.96532E-01  3.03747E-01  3.11138E-01  3.18708E-01
#           3.26462E-01  3.34405E-01  3.42542E-01  3.50876E-01  3.59413E-01
#           3.68158E-01  3.77116E-01  3.86291E-01  3.95690E-01  4.05317E-01
#           4.15179E-01  4.25281E-01  4.35628E-01  4.46227E-01  4.57084E-01
#           4.68205E-01  4.79597E-01  4.91266E-01  5.03219E-01  5.15463E-01
#           5.28005E-01  5.40851E-01  5.54011E-01  5.67490E-01  5.81298E-01
#           5.95441E-01  6.09929E-01  6.24769E-01  6.39970E-01  6.55541E-01
#           6.71491E-01  6.87828E-01  7.04564E-01  7.21706E-01  7.39266E-01
#           7.57253E-01  7.75678E-01  7.94551E-01  8.13883E-01  8.33685E-01
#           8.53969E-01  8.74747E-01  8.96030E-01  9.17831E-01  9.40163E-01
#           9.63038E-01  9.86469E-01  1.01047E+00  1.03506E+00  1.06024E+00
#           1.08604E+00  1.11246E+00  1.13953E+00  1.16725E+00  1.19565E+00
#           1.22474E+00  1.25454E+00  1.28507E+00  1.31633E+00  1.34836E+00
#           1.38117E+00  1.41477E+00  1.44920E+00  1.48446E+00  1.52057E+00
#           1.55757E+00  1.59547E+00  1.63429E+00  1.67405E+00  1.71478E+00
#           1.75650E+00  1.79924E+00  1.84302E+00  1.88786E+00  1.93379E+00
#           1.98084E+00  2.02904E+00  2.07841E+00  2.12898E+00  2.18078E+00
#           2.23384E+00  2.28819E+00  2.34386E+00  2.40089E+00  2.45930E+00
#           2.51914E+00  2.58043E+00  2.64322E+00  2.70753E+00  2.77341E+00
#           2.84088E+00  2.91001E+00  2.98081E+00  3.05333E+00  3.12762E+00
#           3.20372E+00  3.28167E+00  3.36152E+00  3.44330E+00  3.52708E+00
#           3.61290E+00  3.70080E+00  3.79085E+00  3.88308E+00  3.97756E+00
#           4.07434E+00  4.17347E+00  4.27501E+00  4.37903E+00  4.48557E+00
#           4.59471E+00  4.70650E+00  4.82102E+00  4.93832E+00  5.05847E+00
#           5.18155E+00  5.30762E+00  5.43676E+00  5.56904E+00  5.70453E+00
#           5.84333E+00  5.98550E+00  6.13114E+00  6.28031E+00  6.43312E+00
#           6.58964E+00  6.74997E+00  6.91420E+00  7.08243E+00  7.25475E+00
#           7.43126E+00  7.61207E+00  7.79728E+00  7.98700E+00  8.18133E+00
#           8.38038E+00  8.58428E+00  8.79315E+00  9.00709E+00  9.22624E+00
#           9.45072E+00  9.68067E+00  9.91620E+00  1.01575E+01  1.04046E+01
#           1.06578E+01  1.09171E+01  1.11827E+01  1.14548E+01  1.17335E+01
#           1.20190E+01  1.23114E+01  1.26109E+01  1.29178E+01  1.32321E+01
#           1.35540E+01  1.38838E+01  1.42216E+01  1.45676E+01  1.49221E+01
#           1.52851E+01  1.56570E+01  1.60380E+01  1.64282E+01  1.68279E+01
#           1.72374E+01  1.76568E+01  1.80864E+01  1.85264E+01  1.89772E+01
#           1.94389E+01  1.99119E+01  2.03963E+01  2.08926E+01  2.14009E+01
#           2.19216E+01  2.24550E+01  2.30014E+01  2.35610E+01  2.41343E+01
#           2.47215E+01  2.53230E+01  2.59391E+01  2.65702E+01  2.72167E+01
#           2.78789E+01  2.85572E+01  2.92520E+01  2.99637E+01  3.06928E+01
#           3.14396E+01  3.22045E+01  3.29881E+01  3.37907E+01  3.46128E+01
#           3.54550E+01  3.63177E+01  3.72013E+01  3.81064E+01  3.90336E+01
#           3.99833E+01  4.09561E+01  4.19526E+01  4.29734E+01  4.40189E+01
#           4.50900E+01  4.61870E+01  4.73108E+01  4.84619E+01  4.96410E+01
#           5.08488E+01  5.20860E+01  5.33533E+01  5.46514E+01  5.59812E+01
#           5.73432E+01  5.87384E+01  6.01676E+01  6.16315E+01  6.31311E+01
#           6.46671E+01  6.62405E+01  6.78522E+01  6.95031E+01  7.11941E+01
#           7.29263E+01  7.47007E+01  7.65182E+01  7.83800E+01  8.02870E+01
#           8.22405E+01  8.42414E+01  8.62911E+01  8.83906E+01  9.05412E+01
#           9.27442E+01  9.50007E+01  9.73122E+01  9.96799E+01  1.02105E+02
#           1.04589E+02  1.07134E+02  1.09741E+02  1.12411E+02  1.15146E+02
#           1.17948E+02  1.20817E+02  1.23757E+02  1.26768E+02  1.29852E+02
#           1.33012E+02  1.36248E+02  1.39563E+02  1.42959E+02  1.46437E+02
#           1.50000E+02
     unit =    2            # unit is [1/cm^2/(MeV/n)/source]
     axis =  eng            # axis of output
     file = detector-05.out  # file name of output for the above axis
   output = f-curr          # surface crossing forward current spectrum
     part =  neutron  
# kf/name :  2112     
#    used :        main (  %)        temp (  %)       total (  %)
#  memory :         414 (  0)           0 (  0)         414 (  0)

#------------------------------------------------------------------------------
#newpage:
#   no. =    1   reg = 104 - 204

x: Energy [MeV/n]
y:  F-Curr [1/cm^2/(MeV/n)/source]         
p: xlog ylog afac(0.8) form(0.9)
h: n            x            y(neutron ),hh0l   n 
#  e-lower      e-upper      neutron     r.err 
   1.0000E-02   1.0243E-02   9.1489E-03  0.0212
   1.0243E-02   1.0493E-02   9.5013E-03  0.0205
   1.0493E-02   1.0748E-02   8.9192E-03  0.0210
   1.0748E-02   1.1009E-02   9.2867E-03  0.0203
   1.1009E-02   1.1277E-02   8.7320E-03  0.0207
   1.1277E-02   1.1552E-02   8.5683E-03  0.0206
   1.1552E-02   1.1833E-02   8.2758E-03  0.0207
   1.1833E-02   1.2121E-02   8.1557E-03  0.0206
   1.2121E-02   1.2415E-02   8.1790E-03  0.0204
   1.2415E-02   1.2718E-02   7.7861E-03  0.0206
   1.2718E-02   1.3027E-02   7.7369E-03  0.0204
   1.3027E-02   1.3344E-02   7.5531E-03  0.0204
   1.3344E-02   1.3669E-02   7.5246E-03  0.0202
   1.3669E-02   1.4001E-02   7.1715E-03  0.0205
   1.4001E-02   1.4342E-02   7.2712E-03  0.0201
   1.4342E-02   1.4691E-02   7.1845E-03  0.0200
   1.4691E-02   1.5048E-02   6.8124E-03  0.0203
   1.5048E-02   1.5414E-02   6.6820E-03  0.0202
   1.5414E-02   1.5789E-02   6.5779E-03  0.0201
   1.5789E-02   1.6174E-02   6.3696E-03  0.0202
   1.6174E-02   1.6567E-02   6.1789E-03  0.0203
   1.6567E-02   1.6970E-02   6.1302E-03  0.0201
   1.6970E-02   1.7383E-02   6.1589E-03  0.0198
   1.7383E-02   1.7806E-02   5.9772E-03  0.0199
   1.7806E-02   1.8239E-02   5.7082E-03  0.0201
   1.8239E-02   1.8683E-02   5.6605E-03  0.0200
   1.8683E-02   1.9138E-02   5.5019E-03  0.0200
   1.9138E-02   1.9603E-02   5.3562E-03  0.0200
   1.9603E-02   2.0080E-02   5.3107E-03  0.0199
   2.0080E-02   2.0569E-02   5.2378E-03  0.0198
   2.0569E-02   2.1069E-02   5.0794E-03  0.0198
   2.1069E-02   2.1582E-02   5.0036E-03  0.0197
   2.1582E-02   2.2107E-02   4.8505E-03  0.0198
   2.2107E-02   2.2645E-02   4.7855E-03  0.0197
   2.2645E-02   2.3196E-02   4.7045E-03  0.0196
   2.3196E-02   2.3760E-02   4.6583E-03  0.0195
   2.3760E-02   2.4338E-02   4.3937E-03  0.0198
   2.4338E-02   2.4930E-02   4.4726E-03  0.0194
   2.4930E-02   2.5537E-02   4.4380E-03  0.0193
   2.5537E-02   2.6158E-02   4.1853E-03  0.0196
   2.6158E-02   2.6795E-02   4.2517E-03  0.0192
   2.6795E-02   2.7447E-02   4.0801E-03  0.0194
   2.7447E-02   2.8114E-02   3.9728E-03  0.0194
   2.8114E-02   2.8799E-02   3.8126E-03  0.0196
   2.8799E-02   2.9499E-02   3.7463E-03  0.0195
   2.9499E-02   3.0217E-02   3.6308E-03  0.0196
   3.0217E-02   3.0952E-02   3.5364E-03  0.0196
   3.0952E-02   3.1705E-02   3.5680E-03  0.0193
   3.1705E-02   3.2477E-02   3.4223E-03  0.0195
   3.2477E-02   3.3267E-02   3.2600E-03  0.0197
   3.3267E-02   3.4076E-02   3.2987E-03  0.0194
   3.4076E-02   3.4905E-02   3.2782E-03  0.0192
   3.4905E-02   3.5755E-02   3.1297E-03  0.0194
   3.5755E-02   3.6625E-02   3.1175E-03  0.0192
   3.6625E-02   3.7516E-02   3.0995E-03  0.0190
   3.7516E-02   3.8428E-02   2.9087E-03  0.0194
   3.8428E-02   3.9363E-02   3.0000E-03  0.0189
   3.9363E-02   4.0321E-02   2.8275E-03  0.0192
   4.0321E-02   4.1302E-02   2.7165E-03  0.0194
   4.1302E-02   4.2307E-02   2.7724E-03  0.0189
   4.2307E-02   4.3337E-02   2.6322E-03  0.0192
   4.3337E-02   4.4391E-02   2.5597E-03  0.0192
   4.4391E-02   4.5471E-02   2.5684E-03  0.0190
   4.5471E-02   4.6577E-02   2.3880E-03  0.0195
   4.6577E-02   4.7711E-02   2.4275E-03  0.0191
   4.7711E-02   4.8871E-02   2.2923E-03  0.0194
   4.8871E-02   5.0061E-02   2.2252E-03  0.0194
   5.0061E-02   5.1279E-02   2.2184E-03  0.0192
   5.1279E-02   5.2526E-02   2.1472E-03  0.0193
   5.2526E-02   5.3804E-02   2.1737E-03  0.0190
   5.3804E-02   5.5113E-02   2.1205E-03  0.0190
   5.5113E-02   5.6454E-02   2.0948E-03  0.0189
   5.6454E-02   5.7828E-02   1.9391E-03  0.0194
   5.7828E-02   5.9235E-02   1.9254E-03  0.0192
   5.9235E-02   6.0676E-02   1.8276E-03  0.0195
   6.0676E-02   6.2152E-02   1.8783E-03  0.0190
   6.2152E-02   6.3665E-02   1.7888E-03  0.0192
   6.3665E-02   6.5214E-02   1.7334E-03  0.0193
   6.5214E-02   6.6800E-02   1.7004E-03  0.0193
   6.6800E-02   6.8426E-02   1.7191E-03  0.0189
   6.8426E-02   7.0090E-02   1.6080E-03  0.0193
   7.0090E-02   7.1796E-02   1.5745E-03  0.0193
   7.1796E-02   7.3543E-02   1.5645E-03  0.0191
   7.3543E-02   7.5332E-02   1.4899E-03  0.0194
   7.5332E-02   7.7165E-02   1.4376E-03  0.0195
   7.7165E-02   7.9042E-02   1.4487E-03  0.0192
   7.9042E-02   8.0965E-02   1.4000E-03  0.0193
   8.0965E-02   8.2935E-02   1.3193E-03  0.0196
   8.2935E-02   8.4953E-02   1.3306E-03  0.0193
   8.4953E-02   8.7020E-02   1.2477E-03  0.0197
   8.7020E-02   8.9138E-02   1.2393E-03  0.0195
   8.9138E-02   9.1306E-02   1.2385E-03  0.0193
   9.1306E-02   9.3528E-02   1.2136E-03  0.0193
   9.3528E-02   9.5804E-02   1.1250E-03  0.0198
   9.5804E-02   9.8134E-02   1.1364E-03  0.0194
   9.8134E-02   1.0052E-01   1.0935E-03  0.0196
   1.0052E-01   1.0297E-01   1.0749E-03  0.0195
   1.0297E-01   1.0547E-01   1.0286E-03  0.0197
   1.0547E-01   1.0804E-01   1.0229E-03  0.0195
   1.0804E-01   1.1067E-01   9.8110E-04  0.0197
   1.1067E-01   1.1336E-01   9.5854E-04  0.0197
   1.1336E-01   1.1612E-01   9.4266E-04  0.0196
   1.1612E-01   1.1894E-01   9.1655E-04  0.0197
   1.1894E-01   1.2184E-01   8.9409E-04  0.0197
   1.2184E-01   1.2480E-01   8.6526E-04  0.0197
   1.2480E-01   1.2784E-01   8.3944E-04  0.0198
   1.2784E-01   1.3095E-01   7.9330E-04  0.0201
   1.3095E-01   1.3414E-01   7.6645E-04  0.0202
   1.3414E-01   1.3740E-01   7.5882E-04  0.0201
   1.3740E-01   1.4074E-01   7.5336E-04  0.0199
   1.4074E-01   1.4417E-01   7.1458E-04  0.0202
   1.4417E-01   1.4767E-01   6.9618E-04  0.0202
   1.4767E-01   1.5127E-01   6.9829E-04  0.0200
   1.5127E-01   1.5495E-01   6.6323E-04  0.0202
   1.5495E-01   1.5872E-01   6.2865E-04  0.0205
   1.5872E-01   1.6258E-01   6.0543E-04  0.0207
   1.6258E-01   1.6654E-01   6.0495E-04  0.0205
   1.6654E-01   1.7059E-01   5.8651E-04  0.0205
   1.7059E-01   1.7474E-01   5.5535E-04  0.0208
   1.7474E-01   1.7899E-01   5.3781E-04  0.0209
   1.7899E-01   1.8334E-01   5.2974E-04  0.0208
   1.8334E-01   1.8781E-01   5.1570E-04  0.0208
   1.8781E-01   1.9237E-01   4.9371E-04  0.0211
   1.9237E-01   1.9706E-01   4.9694E-04  0.0207
   1.9706E-01   2.0185E-01   4.7669E-04  0.0209
   2.0185E-01   2.0676E-01   4.6506E-04  0.0209
   2.0676E-01   2.1179E-01   4.3970E-04  0.0213
   2.1179E-01   2.1694E-01   4.2033E-04  0.0215
   2.1694E-01   2.2222E-01   4.0675E-04  0.0216
   2.2222E-01   2.2763E-01   4.0005E-04  0.0215
   2.2763E-01   2.3317E-01   3.8495E-04  0.0217
   2.3317E-01   2.3884E-01   3.7369E-04  0.0217
   2.3884E-01   2.4465E-01   3.5931E-04  0.0219
   2.4465E-01   2.5061E-01   3.4582E-04  0.0220
   2.5061E-01   2.5670E-01   3.3317E-04  0.0222
   2.5670E-01   2.6295E-01   3.2150E-04  0.0223
   2.6295E-01   2.6935E-01   3.2785E-04  0.0218
   2.6935E-01   2.7590E-01   3.1968E-04  0.0218
   2.7590E-01   2.8261E-01   2.8915E-04  0.0227
   2.8261E-01   2.8949E-01   2.7755E-04  0.0229
   2.8949E-01   2.9653E-01   2.7884E-04  0.0226
   2.9653E-01   3.0375E-01   2.6473E-04  0.0229
   3.0375E-01   3.1114E-01   2.5858E-04  0.0229
   3.1114E-01   3.1871E-01   2.5164E-04  0.0229
   3.1871E-01   3.2646E-01   2.3109E-04  0.0236
   3.2646E-01   3.3441E-01   2.2825E-04  0.0235
   3.3441E-01   3.4254E-01   2.1164E-04  0.0241
   3.4254E-01   3.5088E-01   2.0422E-04  0.0242
   3.5088E-01   3.5941E-01   2.0891E-04  0.0237
   3.5941E-01   3.6816E-01   1.9732E-04  0.0241
   3.6816E-01   3.7712E-01   1.8599E-04  0.0245
   3.7712E-01   3.8629E-01   1.8549E-04  0.0242
   3.8629E-01   3.9569E-01   1.7662E-04  0.0245
   3.9569E-01   4.0532E-01   1.6209E-04  0.0253
   4.0532E-01   4.1518E-01   1.6174E-04  0.0250
   4.1518E-01   4.2528E-01   1.5443E-04  0.0253
   4.2528E-01   4.3563E-01   1.4864E-04  0.0255
   4.3563E-01   4.4623E-01   1.3907E-04  0.0260
   4.4623E-01   4.5708E-01   1.3447E-04  0.0262
   4.5708E-01   4.6821E-01   1.3447E-04  0.0259
   4.6821E-01   4.7960E-01   1.3404E-04  0.0256
   4.7960E-01   4.9127E-01   1.2705E-04  0.0260
   4.9127E-01   5.0322E-01   1.1688E-04  0.0268
   5.0322E-01   5.1546E-01   1.1598E-04  0.0265
   5.1546E-01   5.2800E-01   1.1314E-04  0.0265
   5.2800E-01   5.4085E-01   1.0361E-04  0.0274
   5.4085E-01   5.5401E-01   1.0137E-04  0.0274
   5.5401E-01   5.6749E-01   9.8075E-05  0.0275
   5.6749E-01   5.8130E-01   9.1689E-05  0.0281
   5.8130E-01   5.9544E-01   9.3400E-05  0.0275
   5.9544E-01   6.0993E-01   8.4521E-05  0.0286
   6.0993E-01   6.2477E-01   8.6927E-05  0.0278
   6.2477E-01   6.3997E-01   7.7757E-05  0.0291
   6.3997E-01   6.5554E-01   7.7131E-05  0.0289
   6.5554E-01   6.7149E-01   7.4045E-05  0.0291
   6.7149E-01   6.8783E-01   7.2286E-05  0.0291
   6.8783E-01   7.0456E-01   7.0629E-05  0.0291
   7.0456E-01   7.2171E-01   6.8922E-05  0.0291
   7.2171E-01   7.3927E-01   6.8623E-05  0.0288
   7.3927E-01   7.5725E-01   6.1878E-05  0.0300
   7.5725E-01   7.7568E-01   6.3231E-05  0.0293
   7.7568E-01   7.9455E-01   6.0828E-05  0.0295
   7.9455E-01   8.1388E-01   5.5969E-05  0.0304
   8.1388E-01   8.3368E-01   5.5145E-05  0.0303
   8.3368E-01   8.5397E-01   5.2602E-05  0.0306
   8.5397E-01   8.7475E-01   5.0775E-05  0.0308
   8.7475E-01   8.9603E-01   5.0509E-05  0.0305
   8.9603E-01   9.1783E-01   4.7520E-05  0.0311
   9.1783E-01   9.4016E-01   4.6616E-05  0.0310
   9.4016E-01   9.6304E-01   4.3585E-05  0.0317
   9.6304E-01   9.8647E-01   4.3296E-05  0.0314
   9.8647E-01   1.0105E+00   4.3455E-05  0.0310
   1.0105E+00   1.0351E+00   4.4864E-05  0.0301
   1.0351E+00   1.0602E+00   4.3520E-05  0.0302
   1.0602E+00   1.0860E+00   4.9154E-05  0.0281
   1.0860E+00   1.1125E+00   4.7646E-05  0.0282
   1.1125E+00   1.1395E+00   5.0356E-05  0.0271
   1.1395E+00   1.1673E+00   5.6771E-05  0.0252
   1.1673E+00   1.1957E+00   5.8186E-05  0.0246
   1.1957E+00   1.2247E+00   6.2527E-05  0.0234
   1.2247E+00   1.2545E+00   6.5036E-05  0.0227
   1.2545E+00   1.2851E+00   6.5997E-05  0.0223
   1.2851E+00   1.3163E+00   6.6940E-05  0.0219
   1.3163E+00   1.3484E+00   7.1095E-05  0.0210
   1.3484E+00   1.3812E+00   7.5853E-05  0.0200
   1.3812E+00   1.4148E+00   7.8054E-05  0.0195
   1.4148E+00   1.4492E+00   7.9105E-05  0.0192
   1.4492E+00   1.4845E+00   8.1253E-05  0.0187
   1.4845E+00   1.5206E+00   8.2355E-05  0.0183
   1.5206E+00   1.5576E+00   8.7927E-05  0.0175
   1.5576E+00   1.5955E+00   9.0403E-05  0.0171
   1.5955E+00   1.6343E+00   9.0317E-05  0.0169
   1.6343E+00   1.6741E+00   9.2975E-05  0.0164
   1.6741E+00   1.7148E+00   9.9040E-05  0.0157
   1.7148E+00   1.7565E+00   9.8785E-05  0.0156
   1.7565E+00   1.7992E+00   1.0139E-04  0.0152
   1.7992E+00   1.8430E+00   1.0286E-04  0.0149
   1.8430E+00   1.8879E+00   1.0463E-04  0.0146
   1.8879E+00   1.9338E+00   1.0631E-04  0.0143
   1.9338E+00   1.9808E+00   1.1235E-04  0.0138
   1.9808E+00   2.0290E+00   1.1036E-04  0.0137
   2.0290E+00   2.0784E+00   1.1060E-04  0.0135
   2.0784E+00   2.1290E+00   1.1042E-04  0.0134
   2.1290E+00   2.1808E+00   1.0868E-04  0.0133
   2.1808E+00   2.2338E+00   1.1085E-04  0.0130
   2.2338E+00   2.2882E+00   1.1009E-04  0.0129
   2.2882E+00   2.3439E+00   1.1216E-04  0.0127
   2.3439E+00   2.4009E+00   1.1412E-04  0.0124
   2.4009E+00   2.4593E+00   1.1161E-04  0.0124
   2.4593E+00   2.5191E+00   1.1154E-04  0.0122
   2.5191E+00   2.5804E+00   1.0753E-04  0.0123
   2.5804E+00   2.6432E+00   1.0672E-04  0.0122
   2.6432E+00   2.7075E+00   1.0471E-04  0.0122
   2.7075E+00   2.7734E+00   1.0544E-04  0.0120
   2.7734E+00   2.8409E+00   1.0443E-04  0.0119
   2.8409E+00   2.9100E+00   1.0340E-04  0.0118
   2.9100E+00   2.9808E+00   1.0195E-04  0.0118
   2.9808E+00   3.0533E+00   1.0314E-04  0.0116
   3.0533E+00   3.1276E+00   9.6157E-05  0.0118
   3.1276E+00   3.2037E+00   9.5207E-05  0.0117
   3.2037E+00   3.2817E+00   9.0886E-05  0.0119
   3.2817E+00   3.3615E+00   9.1545E-05  0.0117
   3.3615E+00   3.4433E+00   8.7592E-05  0.0118
   3.4433E+00   3.5271E+00   8.5863E-05  0.0118
   3.5271E+00   3.6129E+00   8.5374E-05  0.0117
   3.6129E+00   3.7008E+00   8.3044E-05  0.0117
   3.7008E+00   3.7908E+00   7.9878E-05  0.0118
   3.7908E+00   3.8831E+00   7.6880E-05  0.0119
   3.8831E+00   3.9776E+00   7.5901E-05  0.0118
   3.9776E+00   4.0743E+00   7.3189E-05  0.0119
   4.0743E+00   4.1735E+00   7.1410E-05  0.0119
   4.1735E+00   4.2750E+00   6.8552E-05  0.0120
   4.2750E+00   4.3790E+00   6.7125E-05  0.0120
   4.3790E+00   4.4856E+00   6.3757E-05  0.0121
   4.4856E+00   4.5947E+00   6.1262E-05  0.0122
   4.5947E+00   4.7065E+00   6.0066E-05  0.0122
   4.7065E+00   4.8210E+00   5.8168E-05  0.0123
   4.8210E+00   4.9383E+00   5.7174E-05  0.0122
   4.9383E+00   5.0585E+00   5.6661E-05  0.0121
   5.0585E+00   5.1815E+00   5.3503E-05  0.0123
   5.1815E+00   5.3076E+00   5.2704E-05  0.0123
   5.3076E+00   5.4368E+00   4.9768E-05  0.0125
   5.4368E+00   5.5690E+00   4.8503E-05  0.0125
   5.5690E+00   5.7045E+00   4.6628E-05  0.0126
   5.7045E+00   5.8433E+00   4.6356E-05  0.0125
   5.8433E+00   5.9855E+00   4.5494E-05  0.0124
   5.9855E+00   6.1311E+00   4.3823E-05  0.0125
   6.1311E+00   6.2803E+00   4.3405E-05  0.0124
   6.2803E+00   6.4331E+00   4.2198E-05  0.0125
   6.4331E+00   6.5896E+00   4.0186E-05  0.0126
   6.5896E+00   6.7500E+00   4.0307E-05  0.0124
   6.7500E+00   6.9142E+00   3.9109E-05  0.0125
   6.9142E+00   7.0824E+00   3.8971E-05  0.0124
   7.0824E+00   7.2548E+00   3.8211E-05  0.0123
   7.2548E+00   7.4313E+00   3.6504E-05  0.0125
   7.4313E+00   7.6121E+00   3.6702E-05  0.0123
   7.6121E+00   7.7973E+00   3.5795E-05  0.0123
   7.7973E+00   7.9870E+00   3.6378E-05  0.0120
   7.9870E+00   8.1813E+00   3.6670E-05  0.0118
   8.1813E+00   8.3804E+00   3.6123E-05  0.0118
   8.3804E+00   8.5843E+00   3.5328E-05  0.0118
   8.5843E+00   8.7931E+00   3.4851E-05  0.0117
   8.7931E+00   9.0071E+00   3.4878E-05  0.0116
   9.0071E+00   9.2262E+00   3.5277E-05  0.0114
   9.2262E+00   9.4507E+00   3.5145E-05  0.0113
   9.4507E+00   9.6807E+00   3.4532E-05  0.0112
   9.6807E+00   9.9162E+00   3.5249E-05  0.0110
   9.9162E+00   1.0157E+01   3.5251E-05  0.0108
   1.0157E+01   1.0405E+01   3.5065E-05  0.0107
   1.0405E+01   1.0658E+01   3.5388E-05  0.0106
   1.0658E+01   1.0917E+01   3.5509E-05  0.0104
   1.0917E+01   1.1183E+01   3.5498E-05  0.0103
   1.1183E+01   1.1455E+01   3.5586E-05  0.0102
   1.1455E+01   1.1733E+01   3.5473E-05  0.0101
   1.1733E+01   1.2019E+01   3.5977E-05  0.0099
   1.2019E+01   1.2311E+01   3.6855E-05  0.0096
   1.2311E+01   1.2611E+01   3.6609E-05  0.0095
   1.2611E+01   1.2918E+01   3.7584E-05  0.0093
   1.2918E+01   1.3232E+01   3.7922E-05  0.0092
   1.3232E+01   1.3554E+01   3.8444E-05  0.0090
   1.3554E+01   1.3884E+01   3.8107E-05  0.0089
   1.3884E+01   1.4222E+01   3.8827E-05  0.0087
   1.4222E+01   1.4568E+01   3.9882E-05  0.0085
   1.4568E+01   1.4922E+01   3.9895E-05  0.0084
   1.4922E+01   1.5285E+01   4.0332E-05  0.0083
   1.5285E+01   1.5657E+01   4.0968E-05  0.0081
   1.5657E+01   1.6038E+01   4.0797E-05  0.0080
   1.6038E+01   1.6428E+01   4.1433E-05  0.0079
   1.6428E+01   1.6828E+01   4.2701E-05  0.0077
   1.6828E+01   1.7237E+01   4.2704E-05  0.0076
   1.7237E+01   1.7657E+01   4.3363E-05  0.0074
   1.7657E+01   1.8086E+01   4.4015E-05  0.0073
   1.8086E+01   1.8526E+01   4.4425E-05  0.0072
   1.8526E+01   1.8977E+01   4.5650E-05  0.0070
   1.8977E+01   1.9439E+01   4.5992E-05  0.0069
   1.9439E+01   1.9912E+01   4.6645E-05  0.0067
   1.9912E+01   2.0396E+01   5.8064E-05  0.0060
   2.0396E+01   2.0893E+01   6.1260E-05  0.0057
   2.0893E+01   2.1401E+01   6.2103E-05  0.0056
   2.1401E+01   2.1922E+01   6.3272E-05  0.0055
   2.1922E+01   2.2455E+01   6.3807E-05  0.0054
   2.2455E+01   2.3001E+01   6.4949E-05  0.0053
   2.3001E+01   2.3561E+01   6.5247E-05  0.0052
   2.3561E+01   2.4134E+01   6.5904E-05  0.0051
   2.4134E+01   2.4721E+01   6.6362E-05  0.0051
   2.4721E+01   2.5323E+01   6.6465E-05  0.0050
   2.5323E+01   2.5939E+01   6.7611E-05  0.0049
   2.5939E+01   2.6570E+01   6.7621E-05  0.0048
   2.6570E+01   2.7217E+01   6.7602E-05  0.0048
   2.7217E+01   2.7879E+01   6.7633E-05  0.0047
   2.7879E+01   2.8557E+01   6.7153E-05  0.0047
   2.8557E+01   2.9252E+01   6.6744E-05  0.0046
   2.9252E+01   2.9964E+01   6.6766E-05  0.0046
   2.9964E+01   3.0693E+01   6.6357E-05  0.0045
   3.0693E+01   3.1440E+01   6.5007E-05  0.0045
   3.1440E+01   3.2205E+01   6.4032E-05  0.0045
   3.2205E+01   3.2988E+01   6.3025E-05  0.0045
   3.2988E+01   3.3791E+01   6.1086E-05  0.0045
   3.3791E+01   3.4613E+01   5.9517E-05  0.0045
   3.4613E+01   3.5455E+01   5.7439E-05  0.0045
   3.5455E+01   3.6318E+01   5.4959E-05  0.0046
   3.6318E+01   3.7201E+01   5.2309E-05  0.0047
   3.7201E+01   3.8106E+01   4.9538E-05  0.0047
   3.8106E+01   3.9034E+01   4.6735E-05  0.0048
   3.9034E+01   3.9983E+01   4.3466E-05  0.0049
   3.9983E+01   4.0956E+01   4.0341E-05  0.0050
   4.0956E+01   4.1953E+01   3.7627E-05  0.0052
   4.1953E+01   4.2973E+01   3.4531E-05  0.0053
   4.2973E+01   4.4019E+01   3.1268E-05  0.0055
   4.4019E+01   4.5090E+01   2.8837E-05  0.0057
   4.5090E+01   4.6187E+01   2.6031E-05  0.0059
   4.6187E+01   4.7311E+01   2.3511E-05  0.0062
   4.7311E+01   4.8462E+01   2.1146E-05  0.0064
   4.8462E+01   4.9641E+01   1.8719E-05  0.0067
   4.9641E+01   5.0849E+01   1.7016E-05  0.0070
   5.0849E+01   5.2086E+01   1.5034E-05  0.0073
   5.2086E+01   5.3353E+01   1.3636E-05  0.0076
   5.3353E+01   5.4651E+01   1.1883E-05  0.0081
   5.4651E+01   5.5981E+01   1.0416E-05  0.0085
   5.5981E+01   5.7343E+01   9.4012E-06  0.0088
   5.7343E+01   5.8738E+01   8.1393E-06  0.0094
   5.8738E+01   6.0168E+01   7.2791E-06  0.0098
   6.0168E+01   6.1632E+01   6.3726E-06  0.0104
   6.1632E+01   6.3131E+01   5.4377E-06  0.0111
   6.3131E+01   6.4667E+01   4.8039E-06  0.0116
   6.4667E+01   6.6240E+01   4.1210E-06  0.0124
   6.6240E+01   6.7852E+01   3.3499E-06  0.0136
   6.7852E+01   6.9503E+01   2.8179E-06  0.0147
   6.9503E+01   7.1194E+01   2.1661E-06  0.0165
   7.1194E+01   7.2926E+01   1.7469E-06  0.0182
   7.2926E+01   7.4701E+01   1.3633E-06  0.0203
   7.4701E+01   7.6518E+01   9.9256E-07  0.0235
   7.6518E+01   7.8380E+01   6.9612E-07  0.0278
   7.8380E+01   8.0287E+01   4.1163E-07  0.0357
   8.0287E+01   8.2240E+01   1.6586E-07  0.0556
   8.2240E+01   8.4241E+01   1.0995E-08  0.2132
   8.4241E+01   8.6291E+01   0.0000E+00  0.0000
   8.6291E+01   8.8391E+01   0.0000E+00  0.0000
   8.8391E+01   9.0541E+01   0.0000E+00  0.0000
   9.0541E+01   9.2744E+01   0.0000E+00  0.0000
   9.2744E+01   9.5001E+01   0.0000E+00  0.0000
   9.5001E+01   9.7312E+01   0.0000E+00  0.0000
   9.7312E+01   9.9680E+01   0.0000E+00  0.0000
   9.9680E+01   1.0211E+02   0.0000E+00  0.0000
   1.0211E+02   1.0459E+02   0.0000E+00  0.0000
   1.0459E+02   1.0713E+02   0.0000E+00  0.0000
   1.0713E+02   1.0974E+02   0.0000E+00  0.0000
   1.0974E+02   1.1241E+02   0.0000E+00  0.0000
   1.1241E+02   1.1515E+02   0.0000E+00  0.0000
   1.1515E+02   1.1795E+02   0.0000E+00  0.0000
   1.1795E+02   1.2082E+02   0.0000E+00  0.0000
   1.2082E+02   1.2376E+02   0.0000E+00  0.0000
   1.2376E+02   1.2677E+02   0.0000E+00  0.0000
   1.2677E+02   1.2985E+02   0.0000E+00  0.0000
   1.2985E+02   1.3301E+02   0.0000E+00  0.0000
   1.3301E+02   1.3625E+02   0.0000E+00  0.0000
   1.3625E+02   1.3956E+02   0.0000E+00  0.0000
   1.3956E+02   1.4296E+02   0.0000E+00  0.0000
   1.4296E+02   1.4644E+02   0.0000E+00  0.0000
   1.4644E+02   1.5000E+02   0.0000E+00  0.0000

#   sum over                 2.0237E-05
'no. =    1   reg = 104 - 204'
msuc: {\huge [t-cross] in region mesh}
msdr: {\it plotted by \ANGEL \version}
msdl: {\it calculated by \PHITS  3.26}
wt: s(0.7)
\vspace{-3}
  region surface crossing
  area  &=&   1.0000E+00 [cm^2]
e:
 
# Information for Restart Calculation
# This calculation was newly started
# istdev =  2 # 1:Batch variance, 2:History variance
# resc2  = 1.00000000000000000E+09 # Total source weight or Total source weight / maxcas
# resc3  = 1.00000000000000000E+09 # Total history number or Total batch number
# maxcas =   500000000 # History / Batch, only used for istdev=1
# bitrseed = 0001001110011001001001110000100100110111001111011100001000101100 # bit data of rseed
