[ T-Cross ]
    title = [t-cross] in region mesh
     mesh =  reg            # mesh type is region-wise
      reg =    1            # number of crossing regions
      non     r-from    r-to       area
      1       104       204        1.000000    
   e-type =    3            # e-mesh is log given by emin, emax and ne
     emin =  1.0000000E-02  # minimum value of e-mesh points
     emax =   150.0000      # maximum value of e-mesh points
#    edel =  2.4039514E-02  # mesh width of e-mesh points
       ne =    400          # number of e-mesh points
#    data = ( e(i), i = 1, ne + 1 )
#           1.00000E-02  1.02433E-02  1.04925E-02  1.07478E-02  1.10093E-02
#           1.12772E-02  1.15516E-02  1.18326E-02  1.21205E-02  1.24154E-02
#           1.27175E-02  1.30269E-02  1.33439E-02  1.36686E-02  1.40011E-02
#           1.43418E-02  1.46907E-02  1.50482E-02  1.54143E-02  1.57894E-02
#           1.61735E-02  1.65670E-02  1.69701E-02  1.73830E-02  1.78060E-02
#           1.82392E-02  1.86830E-02  1.91375E-02  1.96032E-02  2.00801E-02
#           2.05687E-02  2.10692E-02  2.15818E-02  2.21069E-02  2.26448E-02
#           2.31957E-02  2.37601E-02  2.43382E-02  2.49304E-02  2.55369E-02
#           2.61583E-02  2.67947E-02  2.74467E-02  2.81145E-02  2.87985E-02
#           2.94992E-02  3.02169E-02  3.09521E-02  3.17052E-02  3.24766E-02
#           3.32668E-02  3.40762E-02  3.49053E-02  3.57546E-02  3.66246E-02
#           3.75157E-02  3.84284E-02  3.93634E-02  4.03212E-02  4.13022E-02
#           4.23071E-02  4.33365E-02  4.43909E-02  4.54710E-02  4.65773E-02
#           4.77106E-02  4.88714E-02  5.00605E-02  5.12785E-02  5.25262E-02
#           5.38042E-02  5.51133E-02  5.64542E-02  5.78278E-02  5.92348E-02
#           6.06760E-02  6.21523E-02  6.36645E-02  6.52135E-02  6.68002E-02
#           6.84255E-02  7.00904E-02  7.17957E-02  7.35426E-02  7.53319E-02
#           7.71648E-02  7.90423E-02  8.09655E-02  8.29354E-02  8.49533E-02
#           8.70203E-02  8.91376E-02  9.13064E-02  9.35279E-02  9.58035E-02
#           9.81345E-02  1.00522E-01  1.02968E-01  1.05473E-01  1.08040E-01
#           1.10668E-01  1.13361E-01  1.16119E-01  1.18944E-01  1.21838E-01
#           1.24803E-01  1.27839E-01  1.30950E-01  1.34136E-01  1.37399E-01
#           1.40742E-01  1.44167E-01  1.47675E-01  1.51268E-01  1.54948E-01
#           1.58718E-01  1.62580E-01  1.66535E-01  1.70587E-01  1.74738E-01
#           1.78989E-01  1.83344E-01  1.87805E-01  1.92375E-01  1.97055E-01
#           2.01850E-01  2.06761E-01  2.11792E-01  2.16945E-01  2.22223E-01
#           2.27630E-01  2.33169E-01  2.38842E-01  2.44653E-01  2.50605E-01
#           2.56703E-01  2.62949E-01  2.69346E-01  2.75900E-01  2.82613E-01
#           2.89489E-01  2.96532E-01  3.03747E-01  3.11138E-01  3.18708E-01
#           3.26462E-01  3.34405E-01  3.42542E-01  3.50876E-01  3.59413E-01
#           3.68158E-01  3.77116E-01  3.86291E-01  3.95690E-01  4.05317E-01
#           4.15179E-01  4.25281E-01  4.35628E-01  4.46227E-01  4.57084E-01
#           4.68205E-01  4.79597E-01  4.91266E-01  5.03219E-01  5.15463E-01
#           5.28005E-01  5.40851E-01  5.54011E-01  5.67490E-01  5.81298E-01
#           5.95441E-01  6.09929E-01  6.24769E-01  6.39970E-01  6.55541E-01
#           6.71491E-01  6.87828E-01  7.04564E-01  7.21706E-01  7.39266E-01
#           7.57253E-01  7.75678E-01  7.94551E-01  8.13883E-01  8.33685E-01
#           8.53969E-01  8.74747E-01  8.96030E-01  9.17831E-01  9.40163E-01
#           9.63038E-01  9.86469E-01  1.01047E+00  1.03506E+00  1.06024E+00
#           1.08604E+00  1.11246E+00  1.13953E+00  1.16725E+00  1.19565E+00
#           1.22474E+00  1.25454E+00  1.28507E+00  1.31633E+00  1.34836E+00
#           1.38117E+00  1.41477E+00  1.44920E+00  1.48446E+00  1.52057E+00
#           1.55757E+00  1.59547E+00  1.63429E+00  1.67405E+00  1.71478E+00
#           1.75650E+00  1.79924E+00  1.84302E+00  1.88786E+00  1.93379E+00
#           1.98084E+00  2.02904E+00  2.07841E+00  2.12898E+00  2.18078E+00
#           2.23384E+00  2.28819E+00  2.34386E+00  2.40089E+00  2.45930E+00
#           2.51914E+00  2.58043E+00  2.64322E+00  2.70753E+00  2.77341E+00
#           2.84088E+00  2.91001E+00  2.98081E+00  3.05333E+00  3.12762E+00
#           3.20372E+00  3.28167E+00  3.36152E+00  3.44330E+00  3.52708E+00
#           3.61290E+00  3.70080E+00  3.79085E+00  3.88308E+00  3.97756E+00
#           4.07434E+00  4.17347E+00  4.27501E+00  4.37903E+00  4.48557E+00
#           4.59471E+00  4.70650E+00  4.82102E+00  4.93832E+00  5.05847E+00
#           5.18155E+00  5.30762E+00  5.43676E+00  5.56904E+00  5.70453E+00
#           5.84333E+00  5.98550E+00  6.13114E+00  6.28031E+00  6.43312E+00
#           6.58964E+00  6.74997E+00  6.91420E+00  7.08243E+00  7.25475E+00
#           7.43126E+00  7.61207E+00  7.79728E+00  7.98700E+00  8.18133E+00
#           8.38038E+00  8.58428E+00  8.79315E+00  9.00709E+00  9.22624E+00
#           9.45072E+00  9.68067E+00  9.91620E+00  1.01575E+01  1.04046E+01
#           1.06578E+01  1.09171E+01  1.11827E+01  1.14548E+01  1.17335E+01
#           1.20190E+01  1.23114E+01  1.26109E+01  1.29178E+01  1.32321E+01
#           1.35540E+01  1.38838E+01  1.42216E+01  1.45676E+01  1.49221E+01
#           1.52851E+01  1.56570E+01  1.60380E+01  1.64282E+01  1.68279E+01
#           1.72374E+01  1.76568E+01  1.80864E+01  1.85264E+01  1.89772E+01
#           1.94389E+01  1.99119E+01  2.03963E+01  2.08926E+01  2.14009E+01
#           2.19216E+01  2.24550E+01  2.30014E+01  2.35610E+01  2.41343E+01
#           2.47215E+01  2.53230E+01  2.59391E+01  2.65702E+01  2.72167E+01
#           2.78789E+01  2.85572E+01  2.92520E+01  2.99637E+01  3.06928E+01
#           3.14396E+01  3.22045E+01  3.29881E+01  3.37907E+01  3.46128E+01
#           3.54550E+01  3.63177E+01  3.72013E+01  3.81064E+01  3.90336E+01
#           3.99833E+01  4.09561E+01  4.19526E+01  4.29734E+01  4.40189E+01
#           4.50900E+01  4.61870E+01  4.73108E+01  4.84619E+01  4.96410E+01
#           5.08488E+01  5.20860E+01  5.33533E+01  5.46514E+01  5.59812E+01
#           5.73432E+01  5.87384E+01  6.01676E+01  6.16315E+01  6.31311E+01
#           6.46671E+01  6.62405E+01  6.78522E+01  6.95031E+01  7.11941E+01
#           7.29263E+01  7.47007E+01  7.65182E+01  7.83800E+01  8.02870E+01
#           8.22405E+01  8.42414E+01  8.62911E+01  8.83906E+01  9.05412E+01
#           9.27442E+01  9.50007E+01  9.73122E+01  9.96799E+01  1.02105E+02
#           1.04589E+02  1.07134E+02  1.09741E+02  1.12411E+02  1.15146E+02
#           1.17948E+02  1.20817E+02  1.23757E+02  1.26768E+02  1.29852E+02
#           1.33012E+02  1.36248E+02  1.39563E+02  1.42959E+02  1.46437E+02
#           1.50000E+02
     unit =    2            # unit is [1/cm^2/(MeV/n)/source]
     axis =  eng            # axis of output
     file = detector-05.out  # file name of output for the above axis
   output = f-curr          # surface crossing forward current spectrum
     part =  neutron  
# kf/name :  2112     
#    used :        main (  %)        temp (  %)       total (  %)
#  memory :         414 (  0)           0 (  0)         414 (  0)

#------------------------------------------------------------------------------
#newpage:
#   no. =    1   reg = 104 - 204

x: Energy [MeV/n]
y:  F-Curr [1/cm^2/(MeV/n)/source]         
p: xlog ylog afac(0.8) form(0.9)
h: n            x            y(neutron ),hh0l   n 
#  e-lower      e-upper      neutron     r.err 
   1.0000E-02   1.0243E-02   2.4907E-04  0.0574
   1.0243E-02   1.0493E-02   2.2068E-04  0.0603
   1.0493E-02   1.0748E-02   2.3738E-04  0.0574
   1.0748E-02   1.1009E-02   2.4627E-04  0.0557
   1.1009E-02   1.1277E-02   2.5162E-04  0.0545
   1.1277E-02   1.1552E-02   2.3690E-04  0.0555
   1.1552E-02   1.1833E-02   2.2913E-04  0.0557
   1.1833E-02   1.2121E-02   2.2230E-04  0.0559
   1.2121E-02   1.2415E-02   2.4483E-04  0.0526
   1.2415E-02   1.2718E-02   2.5490E-04  0.0510
   1.2718E-02   1.3027E-02   2.4303E-04  0.0516
   1.3027E-02   1.3344E-02   2.3284E-04  0.0521
   1.3344E-02   1.3669E-02   2.4517E-04  0.0501
   1.3669E-02   1.4001E-02   2.4356E-04  0.0497
   1.4001E-02   1.4342E-02   2.5891E-04  0.0476
   1.4342E-02   1.4691E-02   2.4646E-04  0.0482
   1.4691E-02   1.5048E-02   2.5683E-04  0.0467
   1.5048E-02   1.5414E-02   2.3270E-04  0.0485
   1.5414E-02   1.5789E-02   2.4691E-04  0.0465
   1.5789E-02   1.6174E-02   2.3167E-04  0.0474
   1.6174E-02   1.6567E-02   2.5768E-04  0.0444
   1.6567E-02   1.6970E-02   2.3518E-04  0.0459
   1.6970E-02   1.7383E-02   2.4704E-04  0.0443
   1.7383E-02   1.7806E-02   2.5110E-04  0.0434
   1.7806E-02   1.8239E-02   2.5437E-04  0.0426
   1.8239E-02   1.8683E-02   2.4968E-04  0.0425
   1.8683E-02   1.9138E-02   2.4771E-04  0.0421
   1.9138E-02   1.9603E-02   2.4569E-04  0.0418
   1.9603E-02   2.0080E-02   2.4237E-04  0.0416
   2.0080E-02   2.0569E-02   2.5339E-04  0.0402
   2.0569E-02   2.1069E-02   2.5177E-04  0.0398
   2.1069E-02   2.1582E-02   2.5984E-04  0.0387
   2.1582E-02   2.2107E-02   2.6471E-04  0.0379
   2.2107E-02   2.2645E-02   2.5285E-04  0.0383
   2.2645E-02   2.3196E-02   2.5083E-04  0.0380
   2.3196E-02   2.3760E-02   2.6685E-04  0.0364
   2.3760E-02   2.4338E-02   2.4840E-04  0.0373
   2.4338E-02   2.4930E-02   2.6344E-04  0.0358
   2.4930E-02   2.5537E-02   2.5619E-04  0.0359
   2.5537E-02   2.6158E-02   2.5944E-04  0.0352
   2.6158E-02   2.6795E-02   2.6334E-04  0.0345
   2.6795E-02   2.7447E-02   2.5217E-04  0.0349
   2.7447E-02   2.8114E-02   2.5547E-04  0.0342
   2.8114E-02   2.8799E-02   2.6519E-04  0.0332
   2.8799E-02   2.9499E-02   2.6859E-04  0.0326
   2.9499E-02   3.0217E-02   2.5274E-04  0.0332
   3.0217E-02   3.0952E-02   2.6741E-04  0.0319
   3.0952E-02   3.1705E-02   2.7912E-04  0.0308
   3.1705E-02   3.2477E-02   2.5875E-04  0.0317
   3.2477E-02   3.3267E-02   2.6272E-04  0.0310
   3.3267E-02   3.4076E-02   2.5599E-04  0.0311
   3.4076E-02   3.4905E-02   2.6125E-04  0.0304
   3.4905E-02   3.5755E-02   2.5763E-04  0.0302
   3.5755E-02   3.6625E-02   2.8094E-04  0.0286
   3.6625E-02   3.7516E-02   2.6753E-04  0.0290
   3.7516E-02   3.8428E-02   2.7739E-04  0.0281
   3.8428E-02   3.9363E-02   2.5433E-04  0.0290
   3.9363E-02   4.0321E-02   2.8275E-04  0.0272
   4.0321E-02   4.1302E-02   2.6360E-04  0.0278
   4.1302E-02   4.2307E-02   2.8122E-04  0.0266
   4.2307E-02   4.3337E-02   2.7395E-04  0.0266
   4.3337E-02   4.4391E-02   2.6119E-04  0.0269
   4.4391E-02   4.5471E-02   2.6980E-04  0.0262
   4.5471E-02   4.6577E-02   2.6321E-04  0.0262
   4.6577E-02   4.7711E-02   2.7143E-04  0.0255
   4.7711E-02   4.8871E-02   2.7394E-04  0.0251
   4.8871E-02   5.0061E-02   2.7769E-04  0.0246
   5.0061E-02   5.1279E-02   2.7323E-04  0.0245
   5.1279E-02   5.2526E-02   2.7925E-04  0.0240
   5.2526E-02   5.3804E-02   2.7230E-04  0.0240
   5.3804E-02   5.5113E-02   2.7683E-04  0.0235
   5.5113E-02   5.6454E-02   2.9263E-04  0.0226
   5.6454E-02   5.7828E-02   2.7286E-04  0.0231
   5.7828E-02   5.9235E-02   2.8913E-04  0.0222
   5.9235E-02   6.0676E-02   2.8406E-04  0.0221
   6.0676E-02   6.2152E-02   2.8565E-04  0.0218
   6.2152E-02   6.3665E-02   2.7853E-04  0.0218
   6.3665E-02   6.5214E-02   2.8735E-04  0.0212
   6.5214E-02   6.6800E-02   2.8210E-04  0.0211
   6.6800E-02   6.8426E-02   2.7244E-04  0.0213
   6.8426E-02   7.0090E-02   2.8291E-04  0.0206
   7.0090E-02   7.1796E-02   2.8710E-04  0.0202
   7.1796E-02   7.3543E-02   2.9653E-04  0.0196
   7.3543E-02   7.5332E-02   2.8312E-04  0.0199
   7.5332E-02   7.7165E-02   2.8512E-04  0.0196
   7.7165E-02   7.9042E-02   3.0030E-04  0.0188
   7.9042E-02   8.0965E-02   2.8869E-04  0.0190
   8.0965E-02   8.2935E-02   2.9483E-04  0.0186
   8.2935E-02   8.4953E-02   2.9219E-04  0.0184
   8.4953E-02   8.7020E-02   2.9536E-04  0.0181
   8.7020E-02   8.9138E-02   2.8985E-04  0.0181
   8.9138E-02   9.1306E-02   2.9159E-04  0.0178
   9.1306E-02   9.3528E-02   3.0105E-04  0.0173
   9.3528E-02   9.5804E-02   2.9100E-04  0.0174
   9.5804E-02   9.8134E-02   2.9910E-04  0.0169
   9.8134E-02   1.0052E-01   3.0230E-04  0.0166
   1.0052E-01   1.0297E-01   2.9806E-04  0.0166
   1.0297E-01   1.0547E-01   2.9514E-04  0.0165
   1.0547E-01   1.0804E-01   3.0192E-04  0.0161
   1.0804E-01   1.1067E-01   2.9463E-04  0.0161
   1.1067E-01   1.1336E-01   3.0765E-04  0.0155
   1.1336E-01   1.1612E-01   3.0158E-04  0.0155
   1.1612E-01   1.1894E-01   3.0142E-04  0.0153
   1.1894E-01   1.2184E-01   3.1728E-04  0.0148
   1.2184E-01   1.2480E-01   3.1534E-04  0.0146
   1.2480E-01   1.2784E-01   3.1908E-04  0.0144
   1.2784E-01   1.3095E-01   3.0452E-04  0.0145
   1.3095E-01   1.3414E-01   3.1468E-04  0.0141
   1.3414E-01   1.3740E-01   3.1891E-04  0.0139
   1.3740E-01   1.4074E-01   3.1696E-04  0.0137
   1.4074E-01   1.4417E-01   3.1959E-04  0.0135
   1.4417E-01   1.4767E-01   3.2363E-04  0.0133
   1.4767E-01   1.5127E-01   3.2441E-04  0.0131
   1.5127E-01   1.5495E-01   3.2164E-04  0.0130
   1.5495E-01   1.5872E-01   3.2451E-04  0.0128
   1.5872E-01   1.6258E-01   3.2120E-04  0.0127
   1.6258E-01   1.6654E-01   3.2374E-04  0.0125
   1.6654E-01   1.7059E-01   3.2177E-04  0.0124
   1.7059E-01   1.7474E-01   3.2769E-04  0.0121
   1.7474E-01   1.7899E-01   3.3169E-04  0.0119
   1.7899E-01   1.8334E-01   3.2799E-04  0.0118
   1.8334E-01   1.8781E-01   3.2971E-04  0.0117
   1.8781E-01   1.9237E-01   3.3225E-04  0.0115
   1.9237E-01   1.9706E-01   3.3254E-04  0.0113
   1.9706E-01   2.0185E-01   3.3184E-04  0.0112
   2.0185E-01   2.0676E-01   3.3843E-04  0.0110
   2.0676E-01   2.1179E-01   3.4206E-04  0.0108
   2.1179E-01   2.1694E-01   3.3596E-04  0.0107
   2.1694E-01   2.2222E-01   3.3538E-04  0.0106
   2.2222E-01   2.2763E-01   3.4094E-04  0.0104
   2.2763E-01   2.3317E-01   3.4313E-04  0.0103
   2.3317E-01   2.3884E-01   3.3669E-04  0.0102
   2.3884E-01   2.4465E-01   3.4492E-04  0.0100
   2.4465E-01   2.5061E-01   3.4351E-04  0.0099
   2.5061E-01   2.5670E-01   3.4487E-04  0.0098
   2.5670E-01   2.6295E-01   3.4561E-04  0.0096
   2.6295E-01   2.6935E-01   3.4378E-04  0.0095
   2.6935E-01   2.7590E-01   3.4616E-04  0.0094
   2.7590E-01   2.8261E-01   3.4687E-04  0.0093
   2.8261E-01   2.8949E-01   3.4603E-04  0.0092
   2.8949E-01   2.9653E-01   3.5299E-04  0.0090
   2.9653E-01   3.0375E-01   3.4778E-04  0.0089
   3.0375E-01   3.1114E-01   3.5432E-04  0.0087
   3.1114E-01   3.1871E-01   3.5083E-04  0.0087
   3.1871E-01   3.2646E-01   3.4228E-04  0.0087
   3.2646E-01   3.3441E-01   3.5907E-04  0.0084
   3.3441E-01   3.4254E-01   3.4669E-04  0.0084
   3.4254E-01   3.5088E-01   3.4925E-04  0.0083
   3.5088E-01   3.5941E-01   3.5082E-04  0.0082
   3.5941E-01   3.6816E-01   3.5323E-04  0.0080
   3.6816E-01   3.7712E-01   3.5073E-04  0.0080
   3.7712E-01   3.8629E-01   3.5130E-04  0.0079
   3.8629E-01   3.9569E-01   3.5188E-04  0.0078
   3.9569E-01   4.0532E-01   3.4432E-04  0.0078
   4.0532E-01   4.1518E-01   3.4435E-04  0.0077
   4.1518E-01   4.2528E-01   3.4610E-04  0.0076
   4.2528E-01   4.3563E-01   3.4473E-04  0.0075
   4.3563E-01   4.4623E-01   3.4617E-04  0.0074
   4.4623E-01   4.5708E-01   3.4486E-04  0.0073
   4.5708E-01   4.6821E-01   3.4347E-04  0.0072
   4.6821E-01   4.7960E-01   3.4405E-04  0.0071
   4.7960E-01   4.9127E-01   3.3997E-04  0.0071
   4.9127E-01   5.0322E-01   3.3519E-04  0.0071
   5.0322E-01   5.1546E-01   3.3783E-04  0.0070
   5.1546E-01   5.2800E-01   3.3776E-04  0.0069
   5.2800E-01   5.4085E-01   3.3060E-04  0.0069
   5.4085E-01   5.5401E-01   3.2765E-04  0.0068
   5.5401E-01   5.6749E-01   3.2889E-04  0.0067
   5.6749E-01   5.8130E-01   3.1956E-04  0.0067
   5.8130E-01   5.9544E-01   3.2344E-04  0.0066
   5.9544E-01   6.0993E-01   3.2052E-04  0.0066
   6.0993E-01   6.2477E-01   3.1364E-04  0.0066
   6.2477E-01   6.3997E-01   3.1127E-04  0.0065
   6.3997E-01   6.5554E-01   3.0518E-04  0.0065
   6.5554E-01   6.7149E-01   3.0143E-04  0.0064
   6.7149E-01   6.8783E-01   3.0157E-04  0.0064
   6.8783E-01   7.0456E-01   2.9243E-04  0.0064
   7.0456E-01   7.2171E-01   2.8922E-04  0.0064
   7.2171E-01   7.3927E-01   2.8478E-04  0.0063
   7.3927E-01   7.5725E-01   2.8000E-04  0.0063
   7.5725E-01   7.7568E-01   2.7250E-04  0.0063
   7.7568E-01   7.9455E-01   2.6633E-04  0.0063
   7.9455E-01   8.1388E-01   2.5954E-04  0.0063
   8.1388E-01   8.3368E-01   2.5577E-04  0.0063
   8.3368E-01   8.5397E-01   2.4815E-04  0.0063
   8.5397E-01   8.7475E-01   2.4128E-04  0.0063
   8.7475E-01   8.9603E-01   2.3497E-04  0.0063
   8.9603E-01   9.1783E-01   2.2756E-04  0.0063
   9.1783E-01   9.4016E-01   2.2104E-04  0.0064
   9.4016E-01   9.6304E-01   2.0939E-04  0.0065
   9.6304E-01   9.8647E-01   2.0125E-04  0.0065
   9.8647E-01   1.0105E+00   1.9617E-04  0.0065
   1.0105E+00   1.0351E+00   1.9104E-04  0.0065
   1.0351E+00   1.0602E+00   1.9179E-04  0.0064
   1.0602E+00   1.0860E+00   1.9507E-04  0.0063
   1.0860E+00   1.1125E+00   1.9687E-04  0.0062
   1.1125E+00   1.1395E+00   1.9489E-04  0.0062
   1.1395E+00   1.1673E+00   1.9833E-04  0.0060
   1.1673E+00   1.1957E+00   2.0050E-04  0.0059
   1.1957E+00   1.2247E+00   2.0364E-04  0.0058
   1.2247E+00   1.2545E+00   2.0299E-04  0.0058
   1.2545E+00   1.2851E+00   1.9945E-04  0.0057
   1.2851E+00   1.3163E+00   2.0438E-04  0.0056
   1.3163E+00   1.3484E+00   2.0270E-04  0.0056
   1.3484E+00   1.3812E+00   2.0314E-04  0.0055
   1.3812E+00   1.4148E+00   2.0439E-04  0.0054
   1.4148E+00   1.4492E+00   2.0244E-04  0.0054
   1.4492E+00   1.4845E+00   1.9734E-04  0.0054
   1.4845E+00   1.5206E+00   1.9764E-04  0.0053
   1.5206E+00   1.5576E+00   1.9565E-04  0.0053
   1.5576E+00   1.5955E+00   1.9437E-04  0.0052
   1.5955E+00   1.6343E+00   1.9140E-04  0.0052
   1.6343E+00   1.6741E+00   1.9270E-04  0.0051
   1.6741E+00   1.7148E+00   1.9136E-04  0.0051
   1.7148E+00   1.7565E+00   1.8723E-04  0.0051
   1.7565E+00   1.7992E+00   1.8465E-04  0.0050
   1.7992E+00   1.8430E+00   1.8203E-04  0.0050
   1.8430E+00   1.8879E+00   1.7892E-04  0.0050
   1.8879E+00   1.9338E+00   1.7535E-04  0.0050
   1.9338E+00   1.9808E+00   1.7366E-04  0.0049
   1.9808E+00   2.0290E+00   1.7255E-04  0.0049
   2.0290E+00   2.0784E+00   1.6849E-04  0.0049
   2.0784E+00   2.1290E+00   1.6412E-04  0.0049
   2.1290E+00   2.1808E+00   1.6073E-04  0.0049
   2.1808E+00   2.2338E+00   1.5679E-04  0.0049
   2.2338E+00   2.2882E+00   1.5329E-04  0.0049
   2.2882E+00   2.3439E+00   1.4877E-04  0.0049
   2.3439E+00   2.4009E+00   1.4516E-04  0.0049
   2.4009E+00   2.4593E+00   1.4220E-04  0.0049
   2.4593E+00   2.5191E+00   1.3887E-04  0.0049
   2.5191E+00   2.5804E+00   1.3455E-04  0.0049
   2.5804E+00   2.6432E+00   1.3039E-04  0.0049
   2.6432E+00   2.7075E+00   1.2626E-04  0.0050
   2.7075E+00   2.7734E+00   1.2317E-04  0.0050
   2.7734E+00   2.8409E+00   1.1975E-04  0.0050
   2.8409E+00   2.9100E+00   1.1616E-04  0.0050
   2.9100E+00   2.9808E+00   1.1320E-04  0.0050
   2.9808E+00   3.0533E+00   1.0871E-04  0.0050
   3.0533E+00   3.1276E+00   1.0476E-04  0.0051
   3.1276E+00   3.2037E+00   1.0277E-04  0.0051
   3.2037E+00   3.2817E+00   9.8809E-05  0.0051
   3.2817E+00   3.3615E+00   9.6308E-05  0.0051
   3.3615E+00   3.4433E+00   9.2785E-05  0.0051
   3.4433E+00   3.5271E+00   9.0344E-05  0.0051
   3.5271E+00   3.6129E+00   8.7886E-05  0.0051
   3.6129E+00   3.7008E+00   8.5548E-05  0.0052
   3.7008E+00   3.7908E+00   8.2837E-05  0.0052
   3.7908E+00   3.8831E+00   7.9481E-05  0.0052
   3.8831E+00   3.9776E+00   7.7352E-05  0.0052
   3.9776E+00   4.0743E+00   7.5044E-05  0.0052
   4.0743E+00   4.1735E+00   7.3144E-05  0.0053
   4.1735E+00   4.2750E+00   7.1038E-05  0.0053
   4.2750E+00   4.3790E+00   6.8906E-05  0.0053
   4.3790E+00   4.4856E+00   6.7339E-05  0.0053
   4.4856E+00   4.5947E+00   6.5143E-05  0.0053
   4.5947E+00   4.7065E+00   6.3568E-05  0.0053
   4.7065E+00   4.8210E+00   6.1919E-05  0.0053
   4.8210E+00   4.9383E+00   6.0574E-05  0.0053
   4.9383E+00   5.0585E+00   5.8521E-05  0.0053
   5.0585E+00   5.1815E+00   5.7047E-05  0.0053
   5.1815E+00   5.3076E+00   5.6256E-05  0.0053
   5.3076E+00   5.4368E+00   5.5074E-05  0.0053
   5.4368E+00   5.5690E+00   5.4122E-05  0.0053
   5.5690E+00   5.7045E+00   5.3149E-05  0.0053
   5.7045E+00   5.8433E+00   5.2066E-05  0.0053
   5.8433E+00   5.9855E+00   5.0788E-05  0.0053
   5.9855E+00   6.1311E+00   5.0231E-05  0.0052
   6.1311E+00   6.2803E+00   4.9347E-05  0.0052
   6.2803E+00   6.4331E+00   4.8811E-05  0.0052
   6.4331E+00   6.5896E+00   4.7706E-05  0.0052
   6.5896E+00   6.7500E+00   4.8083E-05  0.0051
   6.7500E+00   6.9142E+00   4.7153E-05  0.0051
   6.9142E+00   7.0824E+00   4.7021E-05  0.0050
   7.0824E+00   7.2548E+00   4.6567E-05  0.0050
   7.2548E+00   7.4313E+00   4.6667E-05  0.0049
   7.4313E+00   7.6121E+00   4.6363E-05  0.0049
   7.6121E+00   7.7973E+00   4.6311E-05  0.0048
   7.7973E+00   7.9870E+00   4.6344E-05  0.0048
   7.9870E+00   8.1813E+00   4.6412E-05  0.0047
   8.1813E+00   8.3804E+00   4.6608E-05  0.0046
   8.3804E+00   8.5843E+00   4.7260E-05  0.0046
   8.5843E+00   8.7931E+00   4.7501E-05  0.0045
   8.7931E+00   9.0071E+00   4.7492E-05  0.0044
   9.0071E+00   9.2262E+00   4.8179E-05  0.0044
   9.2262E+00   9.4507E+00   4.8691E-05  0.0043
   9.4507E+00   9.6807E+00   4.9061E-05  0.0042
   9.6807E+00   9.9162E+00   5.0609E-05  0.0041
   9.9162E+00   1.0157E+01   5.0867E-05  0.0040
   1.0157E+01   1.0405E+01   5.2232E-05  0.0039
   1.0405E+01   1.0658E+01   5.3062E-05  0.0039
   1.0658E+01   1.0917E+01   5.4868E-05  0.0037
   1.0917E+01   1.1183E+01   5.5830E-05  0.0037
   1.1183E+01   1.1455E+01   5.6840E-05  0.0036
   1.1455E+01   1.1733E+01   5.8822E-05  0.0035
   1.1733E+01   1.2019E+01   6.0352E-05  0.0034
   1.2019E+01   1.2311E+01   6.2251E-05  0.0033
   1.2311E+01   1.2611E+01   6.4062E-05  0.0032
   1.2611E+01   1.2918E+01   6.6755E-05  0.0031
   1.2918E+01   1.3232E+01   6.8168E-05  0.0031
   1.3232E+01   1.3554E+01   7.1045E-05  0.0030
   1.3554E+01   1.3884E+01   7.3902E-05  0.0029
   1.3884E+01   1.4222E+01   7.6443E-05  0.0028
   1.4222E+01   1.4568E+01   7.9777E-05  0.0027
   1.4568E+01   1.4922E+01   8.2149E-05  0.0026
   1.4922E+01   1.5285E+01   8.6117E-05  0.0025
   1.5285E+01   1.5657E+01   8.9641E-05  0.0024
   1.5657E+01   1.6038E+01   9.3562E-05  0.0024
   1.6038E+01   1.6428E+01   9.7453E-05  0.0023
   1.6428E+01   1.6828E+01   1.0175E-04  0.0022
   1.6828E+01   1.7237E+01   1.0588E-04  0.0021
   1.7237E+01   1.7657E+01   1.0984E-04  0.0021
   1.7657E+01   1.8086E+01   1.1430E-04  0.0020
   1.8086E+01   1.8526E+01   1.1863E-04  0.0020
   1.8526E+01   1.8977E+01   1.2338E-04  0.0019
   1.8977E+01   1.9439E+01   1.2861E-04  0.0018
   1.9439E+01   1.9912E+01   1.3347E-04  0.0018
   1.9912E+01   2.0396E+01   1.3924E-04  0.0017
   2.0396E+01   2.0893E+01   1.4475E-04  0.0017
   2.0893E+01   2.1401E+01   1.4884E-04  0.0016
   2.1401E+01   2.1922E+01   1.5362E-04  0.0016
   2.1922E+01   2.2455E+01   1.5784E-04  0.0015
   2.2455E+01   2.3001E+01   1.6194E-04  0.0015
   2.3001E+01   2.3561E+01   1.6577E-04  0.0015
   2.3561E+01   2.4134E+01   1.6917E-04  0.0014
   2.4134E+01   2.4721E+01   1.7245E-04  0.0014
   2.4721E+01   2.5323E+01   1.7508E-04  0.0014
   2.5323E+01   2.5939E+01   1.7779E-04  0.0014
   2.5939E+01   2.6570E+01   1.7967E-04  0.0013
   2.6570E+01   2.7217E+01   1.8108E-04  0.0013
   2.7217E+01   2.7879E+01   1.8185E-04  0.0013
   2.7879E+01   2.8557E+01   1.8156E-04  0.0013
   2.8557E+01   2.9252E+01   1.8169E-04  0.0013
   2.9252E+01   2.9964E+01   1.8028E-04  0.0012
   2.9964E+01   3.0693E+01   1.7868E-04  0.0012
   3.0693E+01   3.1440E+01   1.7631E-04  0.0012
   3.1440E+01   3.2205E+01   1.7339E-04  0.0012
   3.2205E+01   3.2988E+01   1.6966E-04  0.0012
   3.2988E+01   3.3791E+01   1.6525E-04  0.0012
   3.3791E+01   3.4613E+01   1.6015E-04  0.0012
   3.4613E+01   3.5455E+01   1.5401E-04  0.0012
   3.5455E+01   3.6318E+01   1.4770E-04  0.0013
   3.6318E+01   3.7201E+01   1.4050E-04  0.0013
   3.7201E+01   3.8106E+01   1.3315E-04  0.0013
   3.8106E+01   3.9034E+01   1.2489E-04  0.0013
   3.9034E+01   3.9983E+01   1.1660E-04  0.0013
   3.9983E+01   4.0956E+01   1.0840E-04  0.0014
   4.0956E+01   4.1953E+01   1.0028E-04  0.0014
   4.1953E+01   4.2973E+01   9.2265E-05  0.0015
   4.2973E+01   4.4019E+01   8.4135E-05  0.0015
   4.4019E+01   4.5090E+01   7.6840E-05  0.0016
   4.5090E+01   4.6187E+01   6.9608E-05  0.0016
   4.6187E+01   4.7311E+01   6.2743E-05  0.0017
   4.7311E+01   4.8462E+01   5.6411E-05  0.0018
   4.8462E+01   4.9641E+01   5.0430E-05  0.0018
   4.9641E+01   5.0849E+01   4.4878E-05  0.0019
   5.0849E+01   5.2086E+01   3.9818E-05  0.0020
   5.2086E+01   5.3353E+01   3.5538E-05  0.0021
   5.3353E+01   5.4651E+01   3.1362E-05  0.0022
   5.4651E+01   5.5981E+01   2.7765E-05  0.0023
   5.5981E+01   5.7343E+01   2.4504E-05  0.0024
   5.7343E+01   5.8738E+01   2.1641E-05  0.0026
   5.8738E+01   6.0168E+01   1.9035E-05  0.0027
   6.0168E+01   6.1632E+01   1.6629E-05  0.0029
   6.1632E+01   6.3131E+01   1.4604E-05  0.0030
   6.3131E+01   6.4667E+01   1.2743E-05  0.0032
   6.4667E+01   6.6240E+01   1.1195E-05  0.0034
   6.6240E+01   6.7852E+01   9.8406E-06  0.0036
   6.7852E+01   6.9503E+01   8.5081E-06  0.0038
   6.9503E+01   7.1194E+01   7.3146E-06  0.0040
   7.1194E+01   7.2926E+01   6.2078E-06  0.0043
   7.2926E+01   7.4701E+01   5.0671E-06  0.0047
   7.4701E+01   7.6518E+01   4.0623E-06  0.0052
   7.6518E+01   7.8380E+01   3.2450E-06  0.0058
   7.8380E+01   8.0287E+01   2.4940E-06  0.0065
   8.0287E+01   8.2240E+01   1.6646E-06  0.0078
   8.2240E+01   8.4241E+01   8.8687E-07  0.0106
   8.4241E+01   8.6291E+01   2.1145E-07  0.0215
   8.6291E+01   8.8391E+01   0.0000E+00  0.0000
   8.8391E+01   9.0541E+01   0.0000E+00  0.0000
   9.0541E+01   9.2744E+01   0.0000E+00  0.0000
   9.2744E+01   9.5001E+01   0.0000E+00  0.0000
   9.5001E+01   9.7312E+01   0.0000E+00  0.0000
   9.7312E+01   9.9680E+01   0.0000E+00  0.0000
   9.9680E+01   1.0211E+02   0.0000E+00  0.0000
   1.0211E+02   1.0459E+02   0.0000E+00  0.0000
   1.0459E+02   1.0713E+02   0.0000E+00  0.0000
   1.0713E+02   1.0974E+02   0.0000E+00  0.0000
   1.0974E+02   1.1241E+02   0.0000E+00  0.0000
   1.1241E+02   1.1515E+02   0.0000E+00  0.0000
   1.1515E+02   1.1795E+02   0.0000E+00  0.0000
   1.1795E+02   1.2082E+02   0.0000E+00  0.0000
   1.2082E+02   1.2376E+02   0.0000E+00  0.0000
   1.2376E+02   1.2677E+02   0.0000E+00  0.0000
   1.2677E+02   1.2985E+02   0.0000E+00  0.0000
   1.2985E+02   1.3301E+02   0.0000E+00  0.0000
   1.3301E+02   1.3625E+02   0.0000E+00  0.0000
   1.3625E+02   1.3956E+02   0.0000E+00  0.0000
   1.3956E+02   1.4296E+02   0.0000E+00  0.0000
   1.4296E+02   1.4644E+02   0.0000E+00  0.0000
   1.4644E+02   1.5000E+02   0.0000E+00  0.0000

#   sum over                 4.2336E-05
'no. =    1   reg = 104 - 204'
msuc: {\huge [t-cross] in region mesh}
msdr: {\it plotted by \ANGEL \version}
msdl: {\it calculated by \PHITS  3.26}
wt: s(0.7)
\vspace{-3}
  region surface crossing
  area  &=&   1.0000E+00 [cm^2]
e:
 
# Information for Restart Calculation
# This calculation was newly started
# istdev =  2 # 1:Batch variance, 2:History variance
# resc2  = 5.00000000000000000E+09 # Total source weight or Total source weight / maxcas
# resc3  = 5.00000000000000000E+09 # Total history number or Total batch number
# maxcas =   500000000 # History / Batch, only used for istdev=1
# bitrseed = 0110100000100010111000001110001111001110100100011111101000111001 # bit data of rseed
