[ T-Cross ]
    title = [t-cross] in region mesh
     mesh =  reg            # mesh type is region-wise
      reg =    1            # number of crossing regions
      non     r-from    r-to       area
      1       113       213        1.000000    
   e-type =    3            # e-mesh is log given by emin, emax and ne
     emin =  1.0000000E-02  # minimum value of e-mesh points
     emax =   150.0000      # maximum value of e-mesh points
#    edel =  2.4039514E-02  # mesh width of e-mesh points
       ne =    400          # number of e-mesh points
#    data = ( e(i), i = 1, ne + 1 )
#           1.00000E-02  1.02433E-02  1.04925E-02  1.07478E-02  1.10093E-02
#           1.12772E-02  1.15516E-02  1.18326E-02  1.21205E-02  1.24154E-02
#           1.27175E-02  1.30269E-02  1.33439E-02  1.36686E-02  1.40011E-02
#           1.43418E-02  1.46907E-02  1.50482E-02  1.54143E-02  1.57894E-02
#           1.61735E-02  1.65670E-02  1.69701E-02  1.73830E-02  1.78060E-02
#           1.82392E-02  1.86830E-02  1.91375E-02  1.96032E-02  2.00801E-02
#           2.05687E-02  2.10692E-02  2.15818E-02  2.21069E-02  2.26448E-02
#           2.31957E-02  2.37601E-02  2.43382E-02  2.49304E-02  2.55369E-02
#           2.61583E-02  2.67947E-02  2.74467E-02  2.81145E-02  2.87985E-02
#           2.94992E-02  3.02169E-02  3.09521E-02  3.17052E-02  3.24766E-02
#           3.32668E-02  3.40762E-02  3.49053E-02  3.57546E-02  3.66246E-02
#           3.75157E-02  3.84284E-02  3.93634E-02  4.03212E-02  4.13022E-02
#           4.23071E-02  4.33365E-02  4.43909E-02  4.54710E-02  4.65773E-02
#           4.77106E-02  4.88714E-02  5.00605E-02  5.12785E-02  5.25262E-02
#           5.38042E-02  5.51133E-02  5.64542E-02  5.78278E-02  5.92348E-02
#           6.06760E-02  6.21523E-02  6.36645E-02  6.52135E-02  6.68002E-02
#           6.84255E-02  7.00904E-02  7.17957E-02  7.35426E-02  7.53319E-02
#           7.71648E-02  7.90423E-02  8.09655E-02  8.29354E-02  8.49533E-02
#           8.70203E-02  8.91376E-02  9.13064E-02  9.35279E-02  9.58035E-02
#           9.81345E-02  1.00522E-01  1.02968E-01  1.05473E-01  1.08040E-01
#           1.10668E-01  1.13361E-01  1.16119E-01  1.18944E-01  1.21838E-01
#           1.24803E-01  1.27839E-01  1.30950E-01  1.34136E-01  1.37399E-01
#           1.40742E-01  1.44167E-01  1.47675E-01  1.51268E-01  1.54948E-01
#           1.58718E-01  1.62580E-01  1.66535E-01  1.70587E-01  1.74738E-01
#           1.78989E-01  1.83344E-01  1.87805E-01  1.92375E-01  1.97055E-01
#           2.01850E-01  2.06761E-01  2.11792E-01  2.16945E-01  2.22223E-01
#           2.27630E-01  2.33169E-01  2.38842E-01  2.44653E-01  2.50605E-01
#           2.56703E-01  2.62949E-01  2.69346E-01  2.75900E-01  2.82613E-01
#           2.89489E-01  2.96532E-01  3.03747E-01  3.11138E-01  3.18708E-01
#           3.26462E-01  3.34405E-01  3.42542E-01  3.50876E-01  3.59413E-01
#           3.68158E-01  3.77116E-01  3.86291E-01  3.95690E-01  4.05317E-01
#           4.15179E-01  4.25281E-01  4.35628E-01  4.46227E-01  4.57084E-01
#           4.68205E-01  4.79597E-01  4.91266E-01  5.03219E-01  5.15463E-01
#           5.28005E-01  5.40851E-01  5.54011E-01  5.67490E-01  5.81298E-01
#           5.95441E-01  6.09929E-01  6.24769E-01  6.39970E-01  6.55541E-01
#           6.71491E-01  6.87828E-01  7.04564E-01  7.21706E-01  7.39266E-01
#           7.57253E-01  7.75678E-01  7.94551E-01  8.13883E-01  8.33685E-01
#           8.53969E-01  8.74747E-01  8.96030E-01  9.17831E-01  9.40163E-01
#           9.63038E-01  9.86469E-01  1.01047E+00  1.03506E+00  1.06024E+00
#           1.08604E+00  1.11246E+00  1.13953E+00  1.16725E+00  1.19565E+00
#           1.22474E+00  1.25454E+00  1.28507E+00  1.31633E+00  1.34836E+00
#           1.38117E+00  1.41477E+00  1.44920E+00  1.48446E+00  1.52057E+00
#           1.55757E+00  1.59547E+00  1.63429E+00  1.67405E+00  1.71478E+00
#           1.75650E+00  1.79924E+00  1.84302E+00  1.88786E+00  1.93379E+00
#           1.98084E+00  2.02904E+00  2.07841E+00  2.12898E+00  2.18078E+00
#           2.23384E+00  2.28819E+00  2.34386E+00  2.40089E+00  2.45930E+00
#           2.51914E+00  2.58043E+00  2.64322E+00  2.70753E+00  2.77341E+00
#           2.84088E+00  2.91001E+00  2.98081E+00  3.05333E+00  3.12762E+00
#           3.20372E+00  3.28167E+00  3.36152E+00  3.44330E+00  3.52708E+00
#           3.61290E+00  3.70080E+00  3.79085E+00  3.88308E+00  3.97756E+00
#           4.07434E+00  4.17347E+00  4.27501E+00  4.37903E+00  4.48557E+00
#           4.59471E+00  4.70650E+00  4.82102E+00  4.93832E+00  5.05847E+00
#           5.18155E+00  5.30762E+00  5.43676E+00  5.56904E+00  5.70453E+00
#           5.84333E+00  5.98550E+00  6.13114E+00  6.28031E+00  6.43312E+00
#           6.58964E+00  6.74997E+00  6.91420E+00  7.08243E+00  7.25475E+00
#           7.43126E+00  7.61207E+00  7.79728E+00  7.98700E+00  8.18133E+00
#           8.38038E+00  8.58428E+00  8.79315E+00  9.00709E+00  9.22624E+00
#           9.45072E+00  9.68067E+00  9.91620E+00  1.01575E+01  1.04046E+01
#           1.06578E+01  1.09171E+01  1.11827E+01  1.14548E+01  1.17335E+01
#           1.20190E+01  1.23114E+01  1.26109E+01  1.29178E+01  1.32321E+01
#           1.35540E+01  1.38838E+01  1.42216E+01  1.45676E+01  1.49221E+01
#           1.52851E+01  1.56570E+01  1.60380E+01  1.64282E+01  1.68279E+01
#           1.72374E+01  1.76568E+01  1.80864E+01  1.85264E+01  1.89772E+01
#           1.94389E+01  1.99119E+01  2.03963E+01  2.08926E+01  2.14009E+01
#           2.19216E+01  2.24550E+01  2.30014E+01  2.35610E+01  2.41343E+01
#           2.47215E+01  2.53230E+01  2.59391E+01  2.65702E+01  2.72167E+01
#           2.78789E+01  2.85572E+01  2.92520E+01  2.99637E+01  3.06928E+01
#           3.14396E+01  3.22045E+01  3.29881E+01  3.37907E+01  3.46128E+01
#           3.54550E+01  3.63177E+01  3.72013E+01  3.81064E+01  3.90336E+01
#           3.99833E+01  4.09561E+01  4.19526E+01  4.29734E+01  4.40189E+01
#           4.50900E+01  4.61870E+01  4.73108E+01  4.84619E+01  4.96410E+01
#           5.08488E+01  5.20860E+01  5.33533E+01  5.46514E+01  5.59812E+01
#           5.73432E+01  5.87384E+01  6.01676E+01  6.16315E+01  6.31311E+01
#           6.46671E+01  6.62405E+01  6.78522E+01  6.95031E+01  7.11941E+01
#           7.29263E+01  7.47007E+01  7.65182E+01  7.83800E+01  8.02870E+01
#           8.22405E+01  8.42414E+01  8.62911E+01  8.83906E+01  9.05412E+01
#           9.27442E+01  9.50007E+01  9.73122E+01  9.96799E+01  1.02105E+02
#           1.04589E+02  1.07134E+02  1.09741E+02  1.12411E+02  1.15146E+02
#           1.17948E+02  1.20817E+02  1.23757E+02  1.26768E+02  1.29852E+02
#           1.33012E+02  1.36248E+02  1.39563E+02  1.42959E+02  1.46437E+02
#           1.50000E+02
     unit =    2            # unit is [1/cm^2/(MeV/n)/source]
     axis =  eng            # axis of output
     file = detector-14.out  # file name of output for the above axis
   output = f-curr          # surface crossing forward current spectrum
     part =  neutron  
# kf/name :  2112     
#    used :        main (  %)        temp (  %)       total (  %)
#  memory :         414 (  0)           0 (  0)         414 (  0)

#------------------------------------------------------------------------------
#newpage:
#   no. =    1   reg = 113 - 213

x: Energy [MeV/n]
y:  F-Curr [1/cm^2/(MeV/n)/source]         
p: xlog ylog afac(0.8) form(0.9)
h: n            x            y(neutron ),hh0l   n 
#  e-lower      e-upper      neutron     r.err 
   1.0000E-02   1.0243E-02   6.4352E-03  0.0356
   1.0243E-02   1.0493E-02   6.4444E-03  0.0352
   1.0493E-02   1.0748E-02   6.4016E-03  0.0348
   1.0748E-02   1.1009E-02   6.1622E-03  0.0351
   1.1009E-02   1.1277E-02   6.0405E-03  0.0350
   1.1277E-02   1.1552E-02   5.8032E-03  0.0353
   1.1552E-02   1.1833E-02   5.7826E-03  0.0350
   1.1833E-02   1.2121E-02   5.5900E-03  0.0352
   1.2121E-02   1.2415E-02   5.6011E-03  0.0347
   1.2415E-02   1.2718E-02   5.2689E-03  0.0353
   1.2718E-02   1.3027E-02   5.1416E-03  0.0353
   1.3027E-02   1.3344E-02   5.0905E-03  0.0351
   1.3344E-02   1.3669E-02   4.9830E-03  0.0351
   1.3669E-02   1.4001E-02   4.6987E-03  0.0356
   1.4001E-02   1.4342E-02   4.9177E-03  0.0344
   1.4342E-02   1.4691E-02   4.5058E-03  0.0356
   1.4691E-02   1.5048E-02   4.3988E-03  0.0355
   1.5048E-02   1.5414E-02   4.2385E-03  0.0358
   1.5414E-02   1.5789E-02   4.0885E-03  0.0360
   1.5789E-02   1.6174E-02   4.0655E-03  0.0356
   1.6174E-02   1.6567E-02   3.8352E-03  0.0363
   1.6567E-02   1.6970E-02   3.6487E-03  0.0367
   1.6970E-02   1.7383E-02   3.7164E-03  0.0360
   1.7383E-02   1.7806E-02   3.6812E-03  0.0357
   1.7806E-02   1.8239E-02   3.4009E-03  0.0367
   1.8239E-02   1.8683E-02   3.5721E-03  0.0354
   1.8683E-02   1.9138E-02   3.2525E-03  0.0367
   1.9138E-02   1.9603E-02   3.2762E-03  0.0361
   1.9603E-02   2.0080E-02   3.1984E-03  0.0361
   2.0080E-02   2.0569E-02   3.0449E-03  0.0365
   2.0569E-02   2.1069E-02   2.9608E-03  0.0366
   2.1069E-02   2.1582E-02   3.0456E-03  0.0357
   2.1582E-02   2.2107E-02   2.7171E-03  0.0373
   2.2107E-02   2.2645E-02   2.8739E-03  0.0359
   2.2645E-02   2.3196E-02   2.7538E-03  0.0362
   2.3196E-02   2.3760E-02   2.6763E-03  0.0363
   2.3760E-02   2.4338E-02   2.5951E-03  0.0364
   2.4338E-02   2.4930E-02   2.3757E-03  0.0376
   2.4930E-02   2.5537E-02   2.5372E-03  0.0359
   2.5537E-02   2.6158E-02   2.3683E-03  0.0367
   2.6158E-02   2.6795E-02   2.2614E-03  0.0372
   2.6795E-02   2.7447E-02   2.1375E-03  0.0377
   2.7447E-02   2.8114E-02   2.1097E-03  0.0375
   2.8114E-02   2.8799E-02   2.2345E-03  0.0361
   2.8799E-02   2.9499E-02   2.0770E-03  0.0369
   2.9499E-02   3.0217E-02   2.2465E-03  0.0351
   3.0217E-02   3.0952E-02   1.8296E-03  0.0385
   3.0952E-02   3.1705E-02   1.9953E-03  0.0363
   3.1705E-02   3.2477E-02   1.9088E-03  0.0367
   3.2477E-02   3.3267E-02   1.7679E-03  0.0377
   3.3267E-02   3.4076E-02   1.7292E-03  0.0376
   3.4076E-02   3.4905E-02   1.7851E-03  0.0366
   3.4905E-02   3.5755E-02   1.6275E-03  0.0379
   3.5755E-02   3.6625E-02   1.6902E-03  0.0368
   3.6625E-02   3.7516E-02   1.6644E-03  0.0366
   3.7516E-02   3.8428E-02   1.5999E-03  0.0369
   3.8428E-02   3.9363E-02   1.5047E-03  0.0375
   3.9363E-02   4.0321E-02   1.3905E-03  0.0386
   4.0321E-02   4.1302E-02   1.4194E-03  0.0377
   4.1302E-02   4.2307E-02   1.4146E-03  0.0373
   4.2307E-02   4.3337E-02   1.3029E-03  0.0384
   4.3337E-02   4.4391E-02   1.2860E-03  0.0382
   4.4391E-02   4.5471E-02   1.2421E-03  0.0384
   4.5471E-02   4.6577E-02   1.1747E-03  0.0391
   4.6577E-02   4.7711E-02   1.2630E-03  0.0372
   4.7711E-02   4.8871E-02   1.2959E-03  0.0363
   4.8871E-02   5.0061E-02   1.2072E-03  0.0372
   5.0061E-02   5.1279E-02   1.1142E-03  0.0382
   5.1279E-02   5.2526E-02   1.0307E-03  0.0393
   5.2526E-02   5.3804E-02   1.0638E-03  0.0382
   5.3804E-02   5.5113E-02   1.0239E-03  0.0385
   5.5113E-02   5.6454E-02   1.0986E-03  0.0367
   5.6454E-02   5.7828E-02   1.0009E-03  0.0380
   5.7828E-02   5.9235E-02   9.5895E-04  0.0383
   5.9235E-02   6.0676E-02   1.0258E-03  0.0366
   6.0676E-02   6.2152E-02   9.1410E-04  0.0384
   6.2152E-02   6.3665E-02   8.6698E-04  0.0389
   6.3665E-02   6.5214E-02   8.8408E-04  0.0380
   6.5214E-02   6.6800E-02   8.1083E-04  0.0392
   6.6800E-02   6.8426E-02   8.8060E-04  0.0372
   6.8426E-02   7.0090E-02   8.0792E-04  0.0384
   7.0090E-02   7.1796E-02   7.6250E-04  0.0390
   7.1796E-02   7.3543E-02   7.4392E-04  0.0390
   7.3543E-02   7.5332E-02   7.5320E-04  0.0383
   7.5332E-02   7.7165E-02   7.5939E-04  0.0377
   7.7165E-02   7.9042E-02   7.1362E-04  0.0384
   7.9042E-02   8.0965E-02   7.1361E-04  0.0380
   8.0965E-02   8.2935E-02   7.0098E-04  0.0379
   8.2935E-02   8.4953E-02   6.7780E-04  0.0380
   8.4953E-02   8.7020E-02   6.2217E-04  0.0393
   8.7020E-02   8.9138E-02   5.9450E-04  0.0397
   8.9138E-02   9.1306E-02   6.1508E-04  0.0385
   9.1306E-02   9.3528E-02   6.3180E-04  0.0376
   9.3528E-02   9.5804E-02   5.6539E-04  0.0393
   9.5804E-02   9.8134E-02   5.7767E-04  0.0383
   9.8134E-02   1.0052E-01   5.5188E-04  0.0388
   1.0052E-01   1.0297E-01   5.9645E-04  0.0369
   1.0297E-01   1.0547E-01   5.6459E-04  0.0374
   1.0547E-01   1.0804E-01   5.2262E-04  0.0384
   1.0804E-01   1.1067E-01   5.3494E-04  0.0375
   1.1067E-01   1.1336E-01   5.3235E-04  0.0372
   1.1336E-01   1.1612E-01   4.8568E-04  0.0384
   1.1612E-01   1.1894E-01   4.6416E-04  0.0389
   1.1894E-01   1.2184E-01   4.9644E-04  0.0371
   1.2184E-01   1.2480E-01   4.4886E-04  0.0386
   1.2480E-01   1.2784E-01   4.6199E-04  0.0376
   1.2784E-01   1.3095E-01   4.5630E-04  0.0373
   1.3095E-01   1.3414E-01   4.6068E-04  0.0367
   1.3414E-01   1.3740E-01   4.4192E-04  0.0371
   1.3740E-01   1.4074E-01   4.4195E-04  0.0367
   1.4074E-01   1.4417E-01   4.2508E-04  0.0370
   1.4417E-01   1.4767E-01   4.1419E-04  0.0370
   1.4767E-01   1.5127E-01   4.4749E-04  0.0351
   1.5127E-01   1.5495E-01   3.9674E-04  0.0368
   1.5495E-01   1.5872E-01   3.8592E-04  0.0369
   1.5872E-01   1.6258E-01   3.8105E-04  0.0367
   1.6258E-01   1.6654E-01   3.8430E-04  0.0361
   1.6654E-01   1.7059E-01   3.4387E-04  0.0377
   1.7059E-01   1.7474E-01   3.5112E-04  0.0369
   1.7474E-01   1.7899E-01   3.6853E-04  0.0356
   1.7899E-01   1.8334E-01   3.4361E-04  0.0364
   1.8334E-01   1.8781E-01   3.3912E-04  0.0362
   1.8781E-01   1.9237E-01   3.3330E-04  0.0361
   1.9237E-01   1.9706E-01   3.2926E-04  0.0358
   1.9706E-01   2.0185E-01   3.3066E-04  0.0354
   2.0185E-01   2.0676E-01   3.7367E-04  0.0329
   2.0676E-01   2.1179E-01   3.7201E-04  0.0325
   2.1179E-01   2.1694E-01   3.8515E-04  0.0316
   2.1694E-01   2.2222E-01   4.1132E-04  0.0302
   2.2222E-01   2.2763E-01   4.3121E-04  0.0292
   2.2763E-01   2.3317E-01   4.2546E-04  0.0290
   2.3317E-01   2.3884E-01   4.6387E-04  0.0275
   2.3884E-01   2.4465E-01   4.6909E-04  0.0270
   2.4465E-01   2.5061E-01   4.8836E-04  0.0261
   2.5061E-01   2.5670E-01   5.1712E-04  0.0251
   2.5670E-01   2.6295E-01   5.2694E-04  0.0246
   2.6295E-01   2.6935E-01   5.5965E-04  0.0235
   2.6935E-01   2.7590E-01   5.8314E-04  0.0228
   2.7590E-01   2.8261E-01   6.1079E-04  0.0220
   2.8261E-01   2.8949E-01   6.1584E-04  0.0216
   2.8949E-01   2.9653E-01   6.7364E-04  0.0205
   2.9653E-01   3.0375E-01   6.7030E-04  0.0203
   3.0375E-01   3.1114E-01   6.8769E-04  0.0198
   3.1114E-01   3.1871E-01   7.2659E-04  0.0190
   3.1871E-01   3.2646E-01   7.4733E-04  0.0185
   3.2646E-01   3.3441E-01   8.0967E-04  0.0176
   3.3441E-01   3.4254E-01   8.1602E-04  0.0173
   3.4254E-01   3.5088E-01   8.4528E-04  0.0168
   3.5088E-01   3.5941E-01   8.7066E-04  0.0163
   3.5941E-01   3.6816E-01   8.8173E-04  0.0160
   3.6816E-01   3.7712E-01   9.2019E-04  0.0155
   3.7712E-01   3.8629E-01   9.5571E-04  0.0150
   3.8629E-01   3.9569E-01   9.9618E-04  0.0146
   3.9569E-01   4.0532E-01   9.9174E-04  0.0144
   4.0532E-01   4.1518E-01   1.0379E-03  0.0139
   4.1518E-01   4.2528E-01   1.0673E-03  0.0136
   4.2528E-01   4.3563E-01   1.1280E-03  0.0130
   4.3563E-01   4.4623E-01   1.1100E-03  0.0130
   4.4623E-01   4.5708E-01   1.1509E-03  0.0126
   4.5708E-01   4.6821E-01   1.1650E-03  0.0124
   4.6821E-01   4.7960E-01   1.2247E-03  0.0119
   4.7960E-01   4.9127E-01   1.2523E-03  0.0117
   4.9127E-01   5.0322E-01   1.2935E-03  0.0113
   5.0322E-01   5.1546E-01   1.2840E-03  0.0112
   5.1546E-01   5.2800E-01   1.3371E-03  0.0109
   5.2800E-01   5.4085E-01   1.3504E-03  0.0107
   5.4085E-01   5.5401E-01   1.3561E-03  0.0105
   5.5401E-01   5.6749E-01   1.4022E-03  0.0102
   5.6749E-01   5.8130E-01   1.4278E-03  0.0100
   5.8130E-01   5.9544E-01   1.4291E-03  0.0099
   5.9544E-01   6.0993E-01   1.4862E-03  0.0096
   6.0993E-01   6.2477E-01   1.4671E-03  0.0096
   6.2477E-01   6.3997E-01   1.4903E-03  0.0094
   6.3997E-01   6.5554E-01   1.4923E-03  0.0092
   6.5554E-01   6.7149E-01   1.5119E-03  0.0091
   6.7149E-01   6.8783E-01   1.5220E-03  0.0089
   6.8783E-01   7.0456E-01   1.5334E-03  0.0088
   7.0456E-01   7.2171E-01   1.5362E-03  0.0087
   7.2171E-01   7.3927E-01   1.5652E-03  0.0085
   7.3927E-01   7.5725E-01   1.5418E-03  0.0085
   7.5725E-01   7.7568E-01   1.5632E-03  0.0083
   7.7568E-01   7.9455E-01   1.5646E-03  0.0082
   7.9455E-01   8.1388E-01   1.5655E-03  0.0081
   8.1388E-01   8.3368E-01   1.5596E-03  0.0080
   8.3368E-01   8.5397E-01   1.5513E-03  0.0079
   8.5397E-01   8.7475E-01   1.5443E-03  0.0079
   8.7475E-01   8.9603E-01   1.5653E-03  0.0077
   8.9603E-01   9.1783E-01   1.5481E-03  0.0077
   9.1783E-01   9.4016E-01   1.5396E-03  0.0076
   9.4016E-01   9.6304E-01   1.5369E-03  0.0075
   9.6304E-01   9.8647E-01   1.5398E-03  0.0074
   9.8647E-01   1.0105E+00   1.5266E-03  0.0074
   1.0105E+00   1.0351E+00   1.5114E-03  0.0073
   1.0351E+00   1.0602E+00   1.4873E-03  0.0073
   1.0602E+00   1.0860E+00   1.4581E-03  0.0073
   1.0860E+00   1.1125E+00   1.4352E-03  0.0072
   1.1125E+00   1.1395E+00   1.4129E-03  0.0072
   1.1395E+00   1.1673E+00   1.4114E-03  0.0071
   1.1673E+00   1.1957E+00   1.4035E-03  0.0070
   1.1957E+00   1.2247E+00   1.3831E-03  0.0070
   1.2247E+00   1.2545E+00   1.3628E-03  0.0070
   1.2545E+00   1.2851E+00   1.3587E-03  0.0069
   1.2851E+00   1.3163E+00   1.3230E-03  0.0069
   1.3163E+00   1.3484E+00   1.3157E-03  0.0068
   1.3484E+00   1.3812E+00   1.2840E-03  0.0068
   1.3812E+00   1.4148E+00   1.2888E-03  0.0068
   1.4148E+00   1.4492E+00   1.2548E-03  0.0068
   1.4492E+00   1.4845E+00   1.2372E-03  0.0067
   1.4845E+00   1.5206E+00   1.2253E-03  0.0067
   1.5206E+00   1.5576E+00   1.2027E-03  0.0067
   1.5576E+00   1.5955E+00   1.1922E-03  0.0066
   1.5955E+00   1.6343E+00   1.1447E-03  0.0067
   1.6343E+00   1.6741E+00   1.1426E-03  0.0066
   1.6741E+00   1.7148E+00   1.1177E-03  0.0066
   1.7148E+00   1.7565E+00   1.1004E-03  0.0066
   1.7565E+00   1.7992E+00   1.0838E-03  0.0065
   1.7992E+00   1.8430E+00   1.0580E-03  0.0065
   1.8430E+00   1.8879E+00   1.0415E-03  0.0065
   1.8879E+00   1.9338E+00   1.0154E-03  0.0065
   1.9338E+00   1.9808E+00   1.0005E-03  0.0065
   1.9808E+00   2.0290E+00   9.9052E-04  0.0064
   2.0290E+00   2.0784E+00   9.6667E-04  0.0064
   2.0784E+00   2.1290E+00   9.4532E-04  0.0064
   2.1290E+00   2.1808E+00   9.2645E-04  0.0064
   2.1808E+00   2.2338E+00   9.0818E-04  0.0064
   2.2338E+00   2.2882E+00   8.8099E-04  0.0064
   2.2882E+00   2.3439E+00   8.7280E-04  0.0064
   2.3439E+00   2.4009E+00   8.5375E-04  0.0064
   2.4009E+00   2.4593E+00   8.4094E-04  0.0063
   2.4593E+00   2.5191E+00   8.2907E-04  0.0063
   2.5191E+00   2.5804E+00   8.1317E-04  0.0063
   2.5804E+00   2.6432E+00   7.8993E-04  0.0063
   2.6432E+00   2.7075E+00   7.8645E-04  0.0062
   2.7075E+00   2.7734E+00   7.6320E-04  0.0062
   2.7734E+00   2.8409E+00   7.4917E-04  0.0062
   2.8409E+00   2.9100E+00   7.3202E-04  0.0062
   2.9100E+00   2.9808E+00   7.1532E-04  0.0062
   2.9808E+00   3.0533E+00   7.1281E-04  0.0062
   3.0533E+00   3.1276E+00   6.8975E-04  0.0062
   3.1276E+00   3.2037E+00   6.8512E-04  0.0061
   3.2037E+00   3.2817E+00   6.6619E-04  0.0061
   3.2817E+00   3.3615E+00   6.5030E-04  0.0061
   3.3615E+00   3.4433E+00   6.4241E-04  0.0061
   3.4433E+00   3.5271E+00   6.3724E-04  0.0061
   3.5271E+00   3.6129E+00   6.2986E-04  0.0060
   3.6129E+00   3.7008E+00   6.1383E-04  0.0060
   3.7008E+00   3.7908E+00   5.9782E-04  0.0060
   3.7908E+00   3.8831E+00   5.9184E-04  0.0060
   3.8831E+00   3.9776E+00   5.8486E-04  0.0060
   3.9776E+00   4.0743E+00   5.7827E-04  0.0059
   4.0743E+00   4.1735E+00   5.7248E-04  0.0059
   4.1735E+00   4.2750E+00   5.6366E-04  0.0059
   4.2750E+00   4.3790E+00   5.5995E-04  0.0058
   4.3790E+00   4.4856E+00   5.5341E-04  0.0058
   4.4856E+00   4.5947E+00   5.5525E-04  0.0057
   4.5947E+00   4.7065E+00   5.5212E-04  0.0056
   4.7065E+00   4.8210E+00   5.5008E-04  0.0056
   4.8210E+00   4.9383E+00   5.4210E-04  0.0056
   4.9383E+00   5.0585E+00   5.3181E-04  0.0056
   5.0585E+00   5.1815E+00   5.1553E-04  0.0056
   5.1815E+00   5.3076E+00   5.1545E-04  0.0055
   5.3076E+00   5.4368E+00   5.0659E-04  0.0055
   5.4368E+00   5.5690E+00   4.9774E-04  0.0055
   5.5690E+00   5.7045E+00   4.9379E-04  0.0054
   5.7045E+00   5.8433E+00   4.8277E-04  0.0054
   5.8433E+00   5.9855E+00   4.7521E-04  0.0054
   5.9855E+00   6.1311E+00   4.6728E-04  0.0054
   6.1311E+00   6.2803E+00   4.6444E-04  0.0053
   6.2803E+00   6.4331E+00   4.5578E-04  0.0053
   6.4331E+00   6.5896E+00   4.4611E-04  0.0053
   6.5896E+00   6.7500E+00   4.4228E-04  0.0053
   6.7500E+00   6.9142E+00   4.3416E-04  0.0053
   6.9142E+00   7.0824E+00   4.2872E-04  0.0052
   7.0824E+00   7.2548E+00   4.2053E-04  0.0052
   7.2548E+00   7.4313E+00   4.2227E-04  0.0052
   7.4313E+00   7.6121E+00   4.0957E-04  0.0052
   7.6121E+00   7.7973E+00   4.0458E-04  0.0051
   7.7973E+00   7.9870E+00   3.9361E-04  0.0052
   7.9870E+00   8.1813E+00   3.8679E-04  0.0051
   8.1813E+00   8.3804E+00   3.7680E-04  0.0051
   8.3804E+00   8.5843E+00   3.7114E-04  0.0051
   8.5843E+00   8.7931E+00   3.6211E-04  0.0051
   8.7931E+00   9.0071E+00   3.5221E-04  0.0051
   9.0071E+00   9.2262E+00   3.4591E-04  0.0051
   9.2262E+00   9.4507E+00   3.3549E-04  0.0051
   9.4507E+00   9.6807E+00   3.2668E-04  0.0051
   9.6807E+00   9.9162E+00   3.1503E-04  0.0052
   9.9162E+00   1.0157E+01   3.0873E-04  0.0052
   1.0157E+01   1.0405E+01   3.0823E-04  0.0051
   1.0405E+01   1.0658E+01   3.0390E-04  0.0051
   1.0658E+01   1.0917E+01   2.9894E-04  0.0051
   1.0917E+01   1.1183E+01   2.8912E-04  0.0051
   1.1183E+01   1.1455E+01   2.8319E-04  0.0051
   1.1455E+01   1.1733E+01   2.7255E-04  0.0051
   1.1733E+01   1.2019E+01   2.6628E-04  0.0051
   1.2019E+01   1.2311E+01   2.5503E-04  0.0052
   1.2311E+01   1.2611E+01   2.4677E-04  0.0052
   1.2611E+01   1.2918E+01   2.3716E-04  0.0052
   1.2918E+01   1.3232E+01   2.2744E-04  0.0053
   1.3232E+01   1.3554E+01   2.2099E-04  0.0053
   1.3554E+01   1.3884E+01   2.1529E-04  0.0053
   1.3884E+01   1.4222E+01   2.0591E-04  0.0054
   1.4222E+01   1.4568E+01   1.9785E-04  0.0054
   1.4568E+01   1.4922E+01   1.9025E-04  0.0054
   1.4922E+01   1.5285E+01   1.8226E-04  0.0055
   1.5285E+01   1.5657E+01   1.7368E-04  0.0056
   1.5657E+01   1.6038E+01   1.6601E-04  0.0056
   1.6038E+01   1.6428E+01   1.5731E-04  0.0057
   1.6428E+01   1.6828E+01   1.5258E-04  0.0057
   1.6828E+01   1.7237E+01   1.4422E-04  0.0058
   1.7237E+01   1.7657E+01   1.3786E-04  0.0059
   1.7657E+01   1.8086E+01   1.3058E-04  0.0060
   1.8086E+01   1.8526E+01   1.2615E-04  0.0060
   1.8526E+01   1.8977E+01   1.2116E-04  0.0061
   1.8977E+01   1.9439E+01   1.1545E-04  0.0061
   1.9439E+01   1.9912E+01   1.1256E-04  0.0061
   1.9912E+01   2.0396E+01   1.0603E-04  0.0062
   2.0396E+01   2.0893E+01   1.0062E-04  0.0063
   2.0893E+01   2.1401E+01   9.6118E-05  0.0064
   2.1401E+01   2.1922E+01   8.8792E-05  0.0066
   2.1922E+01   2.2455E+01   8.4643E-05  0.0067
   2.2455E+01   2.3001E+01   7.9480E-05  0.0068
   2.3001E+01   2.3561E+01   7.4441E-05  0.0069
   2.3561E+01   2.4134E+01   6.9553E-05  0.0071
   2.4134E+01   2.4721E+01   6.3923E-05  0.0073
   2.4721E+01   2.5323E+01   5.9352E-05  0.0075
   2.5323E+01   2.5939E+01   5.5677E-05  0.0076
   2.5939E+01   2.6570E+01   5.2146E-05  0.0078
   2.6570E+01   2.7217E+01   4.6870E-05  0.0081
   2.7217E+01   2.7879E+01   4.3890E-05  0.0083
   2.7879E+01   2.8557E+01   3.9713E-05  0.0086
   2.8557E+01   2.9252E+01   3.5399E-05  0.0090
   2.9252E+01   2.9964E+01   3.2428E-05  0.0093
   2.9964E+01   3.0693E+01   3.0086E-05  0.0095
   3.0693E+01   3.1440E+01   2.7242E-05  0.0099
   3.1440E+01   3.2205E+01   2.4075E-05  0.0104
   3.2205E+01   3.2988E+01   2.2020E-05  0.0108
   3.2988E+01   3.3791E+01   1.9606E-05  0.0113
   3.3791E+01   3.4613E+01   1.7508E-05  0.0118
   3.4613E+01   3.5455E+01   1.5292E-05  0.0125
   3.5455E+01   3.6318E+01   1.3614E-05  0.0130
   3.6318E+01   3.7201E+01   1.2025E-05  0.0137
   3.7201E+01   3.8106E+01   1.0317E-05  0.0146
   3.8106E+01   3.9034E+01   9.0340E-06  0.0155
   3.9034E+01   3.9983E+01   7.8634E-06  0.0164
   3.9983E+01   4.0956E+01   6.7165E-06  0.0175
   4.0956E+01   4.1953E+01   5.6799E-06  0.0188
   4.1953E+01   4.2973E+01   5.0414E-06  0.0197
   4.2973E+01   4.4019E+01   4.3077E-06  0.0211
   4.4019E+01   4.5090E+01   3.5891E-06  0.0228
   4.5090E+01   4.6187E+01   3.0262E-06  0.0245
   4.6187E+01   4.7311E+01   2.5450E-06  0.0264
   4.7311E+01   4.8462E+01   1.9668E-06  0.0297
   4.8462E+01   4.9641E+01   1.6690E-06  0.0319
   4.9641E+01   5.0849E+01   1.3545E-06  0.0350
   5.0849E+01   5.2086E+01   1.1073E-06  0.0382
   5.2086E+01   5.3353E+01   9.1849E-07  0.0415
   5.3353E+01   5.4651E+01   7.2566E-07  0.0461
   5.4651E+01   5.5981E+01   5.8509E-07  0.0507
   5.5981E+01   5.7343E+01   4.5666E-07  0.0567
   5.7343E+01   5.8738E+01   3.9277E-07  0.0604
   5.8738E+01   6.0168E+01   2.8548E-07  0.0700
   6.0168E+01   6.1632E+01   2.4318E-07  0.0750
   6.1632E+01   6.3131E+01   1.8939E-07  0.0839
   6.3131E+01   6.4667E+01   1.0547E-07  0.1111
   6.4667E+01   6.6240E+01   1.0169E-07  0.1118
   6.6240E+01   6.7852E+01   6.5770E-08  0.1374
   6.7852E+01   6.9503E+01   4.9670E-08  0.1562
   6.9503E+01   7.1194E+01   3.7846E-08  0.1768
   7.1194E+01   7.2926E+01   2.8865E-08  0.2000
   7.2926E+01   7.4701E+01   3.4942E-08  0.1796
   7.4701E+01   7.6518E+01   2.3108E-08  0.2182
   7.6518E+01   7.8380E+01   1.1817E-08  0.3015
   7.8380E+01   8.0287E+01   1.2585E-08  0.2887
   8.0287E+01   8.2240E+01   6.1430E-09  0.4082
   8.2240E+01   8.4241E+01   5.9971E-09  0.4082
   8.4241E+01   8.6291E+01   9.7577E-10  1.0000
   8.6291E+01   8.8391E+01   0.0000E+00  0.0000
   8.8391E+01   9.0541E+01   9.2997E-10  1.0000
   9.0541E+01   9.2744E+01   0.0000E+00  0.0000
   9.2744E+01   9.5001E+01   0.0000E+00  0.0000
   9.5001E+01   9.7312E+01   0.0000E+00  0.0000
   9.7312E+01   9.9680E+01   0.0000E+00  0.0000
   9.9680E+01   1.0211E+02   0.0000E+00  0.0000
   1.0211E+02   1.0459E+02   0.0000E+00  0.0000
   1.0459E+02   1.0713E+02   0.0000E+00  0.0000
   1.0713E+02   1.0974E+02   0.0000E+00  0.0000
   1.0974E+02   1.1241E+02   0.0000E+00  0.0000
   1.1241E+02   1.1515E+02   0.0000E+00  0.0000
   1.1515E+02   1.1795E+02   0.0000E+00  0.0000
   1.1795E+02   1.2082E+02   0.0000E+00  0.0000
   1.2082E+02   1.2376E+02   0.0000E+00  0.0000
   1.2376E+02   1.2677E+02   0.0000E+00  0.0000
   1.2677E+02   1.2985E+02   0.0000E+00  0.0000
   1.2985E+02   1.3301E+02   0.0000E+00  0.0000
   1.3301E+02   1.3625E+02   0.0000E+00  0.0000
   1.3625E+02   1.3956E+02   0.0000E+00  0.0000
   1.3956E+02   1.4296E+02   0.0000E+00  0.0000
   1.4296E+02   1.4644E+02   0.0000E+00  0.0000
   1.4644E+02   1.5000E+02   0.0000E+00  0.0000

#   sum over                 6.1857E-05
'no. =    1   reg = 113 - 213'
msuc: {\huge [t-cross] in region mesh}
msdr: {\it plotted by \ANGEL \version}
msdl: {\it calculated by \PHITS  3.26}
wt: s(0.7)
\vspace{-3}
  region surface crossing
  area  &=&   1.0000E+00 [cm^2]
e:
 
# Information for Restart Calculation
# This calculation was newly started
# istdev =  2 # 1:Batch variance, 2:History variance
# resc2  = 5.00000000000000000E+08 # Total source weight or Total source weight / maxcas
# resc3  = 5.00000000000000000E+08 # Total history number or Total batch number
# maxcas =   500000000 # History / Batch, only used for istdev=1
# bitrseed = 1101101111010011011000101101110001100110110010110001010100010001 # bit data of rseed
