[ T-Cross ]
    title = [t-cross] in region mesh
     mesh =  reg            # mesh type is region-wise
      reg =    1            # number of crossing regions
      non     r-from    r-to       area
      1       100       200        1.000000    
   e-type =    3            # e-mesh is log given by emin, emax and ne
     emin =  1.0000000E-02  # minimum value of e-mesh points
     emax =   150.0000      # maximum value of e-mesh points
#    edel =  2.4039514E-02  # mesh width of e-mesh points
       ne =    400          # number of e-mesh points
#    data = ( e(i), i = 1, ne + 1 )
#           1.00000E-02  1.02433E-02  1.04925E-02  1.07478E-02  1.10093E-02
#           1.12772E-02  1.15516E-02  1.18326E-02  1.21205E-02  1.24154E-02
#           1.27175E-02  1.30269E-02  1.33439E-02  1.36686E-02  1.40011E-02
#           1.43418E-02  1.46907E-02  1.50482E-02  1.54143E-02  1.57894E-02
#           1.61735E-02  1.65670E-02  1.69701E-02  1.73830E-02  1.78060E-02
#           1.82392E-02  1.86830E-02  1.91375E-02  1.96032E-02  2.00801E-02
#           2.05687E-02  2.10692E-02  2.15818E-02  2.21069E-02  2.26448E-02
#           2.31957E-02  2.37601E-02  2.43382E-02  2.49304E-02  2.55369E-02
#           2.61583E-02  2.67947E-02  2.74467E-02  2.81145E-02  2.87985E-02
#           2.94992E-02  3.02169E-02  3.09521E-02  3.17052E-02  3.24766E-02
#           3.32668E-02  3.40762E-02  3.49053E-02  3.57546E-02  3.66246E-02
#           3.75157E-02  3.84284E-02  3.93634E-02  4.03212E-02  4.13022E-02
#           4.23071E-02  4.33365E-02  4.43909E-02  4.54710E-02  4.65773E-02
#           4.77106E-02  4.88714E-02  5.00605E-02  5.12785E-02  5.25262E-02
#           5.38042E-02  5.51133E-02  5.64542E-02  5.78278E-02  5.92348E-02
#           6.06760E-02  6.21523E-02  6.36645E-02  6.52135E-02  6.68002E-02
#           6.84255E-02  7.00904E-02  7.17957E-02  7.35426E-02  7.53319E-02
#           7.71648E-02  7.90423E-02  8.09655E-02  8.29354E-02  8.49533E-02
#           8.70203E-02  8.91376E-02  9.13064E-02  9.35279E-02  9.58035E-02
#           9.81345E-02  1.00522E-01  1.02968E-01  1.05473E-01  1.08040E-01
#           1.10668E-01  1.13361E-01  1.16119E-01  1.18944E-01  1.21838E-01
#           1.24803E-01  1.27839E-01  1.30950E-01  1.34136E-01  1.37399E-01
#           1.40742E-01  1.44167E-01  1.47675E-01  1.51268E-01  1.54948E-01
#           1.58718E-01  1.62580E-01  1.66535E-01  1.70587E-01  1.74738E-01
#           1.78989E-01  1.83344E-01  1.87805E-01  1.92375E-01  1.97055E-01
#           2.01850E-01  2.06761E-01  2.11792E-01  2.16945E-01  2.22223E-01
#           2.27630E-01  2.33169E-01  2.38842E-01  2.44653E-01  2.50605E-01
#           2.56703E-01  2.62949E-01  2.69346E-01  2.75900E-01  2.82613E-01
#           2.89489E-01  2.96532E-01  3.03747E-01  3.11138E-01  3.18708E-01
#           3.26462E-01  3.34405E-01  3.42542E-01  3.50876E-01  3.59413E-01
#           3.68158E-01  3.77116E-01  3.86291E-01  3.95690E-01  4.05317E-01
#           4.15179E-01  4.25281E-01  4.35628E-01  4.46227E-01  4.57084E-01
#           4.68205E-01  4.79597E-01  4.91266E-01  5.03219E-01  5.15463E-01
#           5.28005E-01  5.40851E-01  5.54011E-01  5.67490E-01  5.81298E-01
#           5.95441E-01  6.09929E-01  6.24769E-01  6.39970E-01  6.55541E-01
#           6.71491E-01  6.87828E-01  7.04564E-01  7.21706E-01  7.39266E-01
#           7.57253E-01  7.75678E-01  7.94551E-01  8.13883E-01  8.33685E-01
#           8.53969E-01  8.74747E-01  8.96030E-01  9.17831E-01  9.40163E-01
#           9.63038E-01  9.86469E-01  1.01047E+00  1.03506E+00  1.06024E+00
#           1.08604E+00  1.11246E+00  1.13953E+00  1.16725E+00  1.19565E+00
#           1.22474E+00  1.25454E+00  1.28507E+00  1.31633E+00  1.34836E+00
#           1.38117E+00  1.41477E+00  1.44920E+00  1.48446E+00  1.52057E+00
#           1.55757E+00  1.59547E+00  1.63429E+00  1.67405E+00  1.71478E+00
#           1.75650E+00  1.79924E+00  1.84302E+00  1.88786E+00  1.93379E+00
#           1.98084E+00  2.02904E+00  2.07841E+00  2.12898E+00  2.18078E+00
#           2.23384E+00  2.28819E+00  2.34386E+00  2.40089E+00  2.45930E+00
#           2.51914E+00  2.58043E+00  2.64322E+00  2.70753E+00  2.77341E+00
#           2.84088E+00  2.91001E+00  2.98081E+00  3.05333E+00  3.12762E+00
#           3.20372E+00  3.28167E+00  3.36152E+00  3.44330E+00  3.52708E+00
#           3.61290E+00  3.70080E+00  3.79085E+00  3.88308E+00  3.97756E+00
#           4.07434E+00  4.17347E+00  4.27501E+00  4.37903E+00  4.48557E+00
#           4.59471E+00  4.70650E+00  4.82102E+00  4.93832E+00  5.05847E+00
#           5.18155E+00  5.30762E+00  5.43676E+00  5.56904E+00  5.70453E+00
#           5.84333E+00  5.98550E+00  6.13114E+00  6.28031E+00  6.43312E+00
#           6.58964E+00  6.74997E+00  6.91420E+00  7.08243E+00  7.25475E+00
#           7.43126E+00  7.61207E+00  7.79728E+00  7.98700E+00  8.18133E+00
#           8.38038E+00  8.58428E+00  8.79315E+00  9.00709E+00  9.22624E+00
#           9.45072E+00  9.68067E+00  9.91620E+00  1.01575E+01  1.04046E+01
#           1.06578E+01  1.09171E+01  1.11827E+01  1.14548E+01  1.17335E+01
#           1.20190E+01  1.23114E+01  1.26109E+01  1.29178E+01  1.32321E+01
#           1.35540E+01  1.38838E+01  1.42216E+01  1.45676E+01  1.49221E+01
#           1.52851E+01  1.56570E+01  1.60380E+01  1.64282E+01  1.68279E+01
#           1.72374E+01  1.76568E+01  1.80864E+01  1.85264E+01  1.89772E+01
#           1.94389E+01  1.99119E+01  2.03963E+01  2.08926E+01  2.14009E+01
#           2.19216E+01  2.24550E+01  2.30014E+01  2.35610E+01  2.41343E+01
#           2.47215E+01  2.53230E+01  2.59391E+01  2.65702E+01  2.72167E+01
#           2.78789E+01  2.85572E+01  2.92520E+01  2.99637E+01  3.06928E+01
#           3.14396E+01  3.22045E+01  3.29881E+01  3.37907E+01  3.46128E+01
#           3.54550E+01  3.63177E+01  3.72013E+01  3.81064E+01  3.90336E+01
#           3.99833E+01  4.09561E+01  4.19526E+01  4.29734E+01  4.40189E+01
#           4.50900E+01  4.61870E+01  4.73108E+01  4.84619E+01  4.96410E+01
#           5.08488E+01  5.20860E+01  5.33533E+01  5.46514E+01  5.59812E+01
#           5.73432E+01  5.87384E+01  6.01676E+01  6.16315E+01  6.31311E+01
#           6.46671E+01  6.62405E+01  6.78522E+01  6.95031E+01  7.11941E+01
#           7.29263E+01  7.47007E+01  7.65182E+01  7.83800E+01  8.02870E+01
#           8.22405E+01  8.42414E+01  8.62911E+01  8.83906E+01  9.05412E+01
#           9.27442E+01  9.50007E+01  9.73122E+01  9.96799E+01  1.02105E+02
#           1.04589E+02  1.07134E+02  1.09741E+02  1.12411E+02  1.15146E+02
#           1.17948E+02  1.20817E+02  1.23757E+02  1.26768E+02  1.29852E+02
#           1.33012E+02  1.36248E+02  1.39563E+02  1.42959E+02  1.46437E+02
#           1.50000E+02
     unit =    2            # unit is [1/cm^2/(MeV/n)/source]
     axis =  eng            # axis of output
     file = detector-01.out  # file name of output for the above axis
   output = f-curr          # surface crossing forward current spectrum
     part =  neutron  
# kf/name :  2112     
#    used :        main (  %)        temp (  %)       total (  %)
#  memory :         414 (  0)           0 (  0)         414 (  0)

#------------------------------------------------------------------------------
#newpage:
#   no. =    1   reg = 100 - 200

x: Energy [MeV/n]
y:  F-Curr [1/cm^2/(MeV/n)/source]         
p: xlog ylog afac(0.8) form(0.9)
h: n            x            y(neutron ),hh0l   n 
#  e-lower      e-upper      neutron     r.err 
   1.0000E-02   1.0243E-02   7.9488E-03  0.0322
   1.0243E-02   1.0493E-02   7.2865E-03  0.0332
   1.0493E-02   1.0748E-02   7.1448E-03  0.0331
   1.0748E-02   1.1009E-02   7.1586E-03  0.0327
   1.1009E-02   1.1277E-02   6.7273E-03  0.0333
   1.1277E-02   1.1552E-02   6.7060E-03  0.0330
   1.1552E-02   1.1833E-02   6.9380E-03  0.0320
   1.1833E-02   1.2121E-02   6.6482E-03  0.0323
   1.2121E-02   1.2415E-02   6.4767E-03  0.0324
   1.2415E-02   1.2718E-02   6.5943E-03  0.0317
   1.2718E-02   1.3027E-02   6.4054E-03  0.0318
   1.3027E-02   1.3344E-02   6.1586E-03  0.0320
   1.3344E-02   1.3669E-02   6.1417E-03  0.0317
   1.3669E-02   1.4001E-02   5.8214E-03  0.0321
   1.4001E-02   1.4342E-02   6.0236E-03  0.0312
   1.4342E-02   1.4691E-02   5.8175E-03  0.0314
   1.4691E-02   1.5048E-02   5.6234E-03  0.0315
   1.5048E-02   1.5414E-02   5.4761E-03  0.0316
   1.5414E-02   1.5789E-02   5.7593E-03  0.0304
   1.5789E-02   1.6174E-02   5.3154E-03  0.0313
   1.6174E-02   1.6567E-02   5.0367E-03  0.0318
   1.6567E-02   1.6970E-02   5.2048E-03  0.0309
   1.6970E-02   1.7383E-02   5.1781E-03  0.0306
   1.7383E-02   1.7806E-02   5.0361E-03  0.0306
   1.7806E-02   1.8239E-02   4.8242E-03  0.0309
   1.8239E-02   1.8683E-02   4.8989E-03  0.0303
   1.8683E-02   1.9138E-02   4.5933E-03  0.0309
   1.9138E-02   1.9603E-02   4.8064E-03  0.0299
   1.9603E-02   2.0080E-02   4.5266E-03  0.0304
   2.0080E-02   2.0569E-02   4.4232E-03  0.0304
   2.0569E-02   2.1069E-02   4.2801E-03  0.0306
   2.1069E-02   2.1582E-02   4.2877E-03  0.0302
   2.1582E-02   2.2107E-02   4.2544E-03  0.0299
   2.2107E-02   2.2645E-02   4.1943E-03  0.0298
   2.2645E-02   2.3196E-02   4.2072E-03  0.0294
   2.3196E-02   2.3760E-02   3.9548E-03  0.0299
   2.3760E-02   2.4338E-02   3.7848E-03  0.0302
   2.4338E-02   2.4930E-02   4.0833E-03  0.0288
   2.4930E-02   2.5537E-02   3.8248E-03  0.0294
   2.5537E-02   2.6158E-02   3.5504E-03  0.0301
   2.6158E-02   2.6795E-02   3.7725E-03  0.0289
   2.6795E-02   2.7447E-02   3.4804E-03  0.0297
   2.7447E-02   2.8114E-02   3.4831E-03  0.0293
   2.8114E-02   2.8799E-02   3.4120E-03  0.0293
   2.8799E-02   2.9499E-02   3.2254E-03  0.0297
   2.9499E-02   3.0217E-02   3.3076E-03  0.0290
   3.0217E-02   3.0952E-02   3.1937E-03  0.0292
   3.0952E-02   3.1705E-02   3.2001E-03  0.0288
   3.1705E-02   3.2477E-02   3.0852E-03  0.0290
   3.2477E-02   3.3267E-02   2.9892E-03  0.0291
   3.3267E-02   3.4076E-02   3.0343E-03  0.0285
   3.4076E-02   3.4905E-02   2.9598E-03  0.0285
   3.4905E-02   3.5755E-02   2.9390E-03  0.0283
   3.5755E-02   3.6625E-02   2.5565E-03  0.0300
   3.6625E-02   3.7516E-02   2.7718E-03  0.0285
   3.7516E-02   3.8428E-02   2.7915E-03  0.0280
   3.8428E-02   3.9363E-02   2.8257E-03  0.0275
   3.9363E-02   4.0321E-02   2.7210E-03  0.0277
   4.0321E-02   4.1302E-02   2.6462E-03  0.0278
   4.1302E-02   4.2307E-02   2.5793E-03  0.0278
   4.2307E-02   4.3337E-02   2.5725E-03  0.0275
   4.3337E-02   4.4391E-02   2.5739E-03  0.0271
   4.4391E-02   4.5471E-02   2.5184E-03  0.0271
   4.5471E-02   4.6577E-02   2.3338E-03  0.0278
   4.6577E-02   4.7711E-02   2.4319E-03  0.0269
   4.7711E-02   4.8871E-02   2.3569E-03  0.0270
   4.8871E-02   5.0061E-02   2.2084E-03  0.0276
   5.0061E-02   5.1279E-02   2.1691E-03  0.0275
   5.1279E-02   5.2526E-02   2.2522E-03  0.0267
   5.2526E-02   5.3804E-02   2.1236E-03  0.0271
   5.3804E-02   5.5113E-02   2.0717E-03  0.0272
   5.5113E-02   5.6454E-02   2.0403E-03  0.0270
   5.6454E-02   5.7828E-02   2.0341E-03  0.0268
   5.7828E-02   5.9235E-02   2.0156E-03  0.0266
   5.9235E-02   6.0676E-02   1.9567E-03  0.0266
   6.0676E-02   6.2152E-02   1.9346E-03  0.0265
   6.2152E-02   6.3665E-02   1.8754E-03  0.0266
   6.3665E-02   6.5214E-02   1.9109E-03  0.0260
   6.5214E-02   6.6800E-02   1.8390E-03  0.0262
   6.6800E-02   6.8426E-02   1.7904E-03  0.0262
   6.8426E-02   7.0090E-02   1.7587E-03  0.0261
   7.0090E-02   7.1796E-02   1.7123E-03  0.0262
   7.1796E-02   7.3543E-02   1.7311E-03  0.0257
   7.3543E-02   7.5332E-02   1.7235E-03  0.0255
   7.5332E-02   7.7165E-02   1.6837E-03  0.0255
   7.7165E-02   7.9042E-02   1.5872E-03  0.0259
   7.9042E-02   8.0965E-02   1.6306E-03  0.0253
   8.0965E-02   8.2935E-02   1.6071E-03  0.0251
   8.2935E-02   8.4953E-02   1.5422E-03  0.0254
   8.4953E-02   8.7020E-02   1.5336E-03  0.0251
   8.7020E-02   8.9138E-02   1.4963E-03  0.0251
   8.9138E-02   9.1306E-02   1.4967E-03  0.0248
   9.1306E-02   9.3528E-02   1.4773E-03  0.0247
   9.3528E-02   9.5804E-02   1.4176E-03  0.0249
   9.5804E-02   9.8134E-02   1.3874E-03  0.0249
   9.8134E-02   1.0052E-01   1.3302E-03  0.0251
   1.0052E-01   1.0297E-01   1.3157E-03  0.0249
   1.0297E-01   1.0547E-01   1.2981E-03  0.0248
   1.0547E-01   1.0804E-01   1.2586E-03  0.0249
   1.0804E-01   1.1067E-01   1.2364E-03  0.0248
   1.1067E-01   1.1336E-01   1.2166E-03  0.0247
   1.1336E-01   1.1612E-01   1.2646E-03  0.0239
   1.1612E-01   1.1894E-01   1.2204E-03  0.0241
   1.1894E-01   1.2184E-01   1.1541E-03  0.0245
   1.2184E-01   1.2480E-01   1.1409E-03  0.0243
   1.2480E-01   1.2784E-01   1.1414E-03  0.0240
   1.2784E-01   1.3095E-01   1.1015E-03  0.0242
   1.3095E-01   1.3414E-01   1.1042E-03  0.0238
   1.3414E-01   1.3740E-01   1.0326E-03  0.0244
   1.3740E-01   1.4074E-01   1.1116E-03  0.0232
   1.4074E-01   1.4417E-01   1.0148E-03  0.0240
   1.4417E-01   1.4767E-01   1.0121E-03  0.0237
   1.4767E-01   1.5127E-01   1.0011E-03  0.0236
   1.5127E-01   1.5495E-01   9.9770E-04  0.0233
   1.5495E-01   1.5872E-01   9.4801E-04  0.0237
   1.5872E-01   1.6258E-01   9.6226E-04  0.0232
   1.6258E-01   1.6654E-01   9.5103E-04  0.0231
   1.6654E-01   1.7059E-01   9.3141E-04  0.0230
   1.7059E-01   1.7474E-01   9.1844E-04  0.0229
   1.7474E-01   1.7899E-01   8.8439E-04  0.0231
   1.7899E-01   1.8334E-01   8.7395E-04  0.0229
   1.8334E-01   1.8781E-01   8.6798E-04  0.0227
   1.8781E-01   1.9237E-01   8.4846E-04  0.0227
   1.9237E-01   1.9706E-01   8.2382E-04  0.0228
   1.9706E-01   2.0185E-01   8.3012E-04  0.0224
   2.0185E-01   2.0676E-01   7.8678E-04  0.0228
   2.0676E-01   2.1179E-01   7.8200E-04  0.0225
   2.1179E-01   2.1694E-01   7.7701E-04  0.0223
   2.1694E-01   2.2222E-01   7.7220E-04  0.0222
   2.2222E-01   2.2763E-01   7.1835E-04  0.0227
   2.2763E-01   2.3317E-01   6.9587E-04  0.0228
   2.3317E-01   2.3884E-01   7.0366E-04  0.0224
   2.3884E-01   2.4465E-01   7.1689E-04  0.0219
   2.4465E-01   2.5061E-01   6.9650E-04  0.0220
   2.5061E-01   2.5670E-01   6.8061E-04  0.0220
   2.5670E-01   2.6295E-01   6.5356E-04  0.0221
   2.6295E-01   2.6935E-01   6.4867E-04  0.0220
   2.6935E-01   2.7590E-01   6.4791E-04  0.0217
   2.7590E-01   2.8261E-01   6.2715E-04  0.0218
   2.8261E-01   2.8949E-01   6.1458E-04  0.0218
   2.8949E-01   2.9653E-01   6.0879E-04  0.0216
   2.9653E-01   3.0375E-01   6.0043E-04  0.0215
   3.0375E-01   3.1114E-01   5.7696E-04  0.0217
   3.1114E-01   3.1871E-01   5.4952E-04  0.0219
   3.1871E-01   3.2646E-01   5.5917E-04  0.0215
   3.2646E-01   3.3441E-01   5.5369E-04  0.0213
   3.3441E-01   3.4254E-01   5.2259E-04  0.0217
   3.4254E-01   3.5088E-01   5.2098E-04  0.0215
   3.5088E-01   3.5941E-01   5.3578E-04  0.0209
   3.5941E-01   3.6816E-01   5.1299E-04  0.0211
   3.6816E-01   3.7712E-01   5.0125E-04  0.0211
   3.7712E-01   3.8629E-01   5.0024E-04  0.0209
   3.8629E-01   3.9569E-01   5.0507E-04  0.0205
   3.9569E-01   4.0532E-01   4.6409E-04  0.0212
   4.0532E-01   4.1518E-01   4.5874E-04  0.0210
   4.1518E-01   4.2528E-01   4.3102E-04  0.0214
   4.2528E-01   4.3563E-01   4.3837E-04  0.0210
   4.3563E-01   4.4623E-01   4.3447E-04  0.0208
   4.4623E-01   4.5708E-01   4.1098E-04  0.0212
   4.5708E-01   4.6821E-01   4.1048E-04  0.0209
   4.6821E-01   4.7960E-01   3.9686E-04  0.0210
   4.7960E-01   4.9127E-01   3.9309E-04  0.0209
   4.9127E-01   5.0322E-01   3.8200E-04  0.0209
   5.0322E-01   5.1546E-01   3.7660E-04  0.0208
   5.1546E-01   5.2800E-01   3.6144E-04  0.0210
   5.2800E-01   5.4085E-01   3.6772E-04  0.0206
   5.4085E-01   5.5401E-01   3.4880E-04  0.0209
   5.5401E-01   5.6749E-01   3.4897E-04  0.0206
   5.6749E-01   5.8130E-01   3.4011E-04  0.0206
   5.8130E-01   5.9544E-01   3.3471E-04  0.0206
   5.9544E-01   6.0993E-01   3.1406E-04  0.0210
   6.0993E-01   6.2477E-01   3.0445E-04  0.0210
   6.2477E-01   6.3997E-01   2.9662E-04  0.0211
   6.3997E-01   6.5554E-01   2.8971E-04  0.0211
   6.5554E-01   6.7149E-01   2.7235E-04  0.0215
   6.7149E-01   6.8783E-01   2.9000E-04  0.0205
   6.8783E-01   7.0456E-01   2.8180E-04  0.0206
   7.0456E-01   7.2171E-01   2.5865E-04  0.0212
   7.2171E-01   7.3927E-01   2.5149E-04  0.0213
   7.3927E-01   7.5725E-01   2.4262E-04  0.0214
   7.5725E-01   7.7568E-01   2.3469E-04  0.0215
   7.7568E-01   7.9455E-01   2.2392E-04  0.0218
   7.9455E-01   8.1388E-01   2.2264E-04  0.0216
   8.1388E-01   8.3368E-01   2.2321E-04  0.0213
   8.3368E-01   8.5397E-01   2.0163E-04  0.0221
   8.5397E-01   8.7475E-01   2.0224E-04  0.0218
   8.7475E-01   8.9603E-01   1.9255E-04  0.0221
   8.9603E-01   9.1783E-01   1.7953E-04  0.0226
   9.1783E-01   9.4016E-01   1.7894E-04  0.0224
   9.4016E-01   9.6304E-01   1.7242E-04  0.0225
   9.6304E-01   9.8647E-01   1.6772E-04  0.0226
   9.8647E-01   1.0105E+00   1.6182E-04  0.0227
   1.0105E+00   1.0351E+00   1.4675E-04  0.0235
   1.0351E+00   1.0602E+00   1.5518E-04  0.0226
   1.0602E+00   1.0860E+00   1.6746E-04  0.0215
   1.0860E+00   1.1125E+00   1.7015E-04  0.0211
   1.1125E+00   1.1395E+00   1.6522E-04  0.0212
   1.1395E+00   1.1673E+00   1.7789E-04  0.0201
   1.1673E+00   1.1957E+00   1.9021E-04  0.0192
   1.1957E+00   1.2247E+00   1.8583E-04  0.0192
   1.2247E+00   1.2545E+00   1.8618E-04  0.0190
   1.2545E+00   1.2851E+00   1.9211E-04  0.0185
   1.2851E+00   1.3163E+00   1.9049E-04  0.0183
   1.3163E+00   1.3484E+00   1.9152E-04  0.0181
   1.3484E+00   1.3812E+00   2.0081E-04  0.0174
   1.3812E+00   1.4148E+00   2.0271E-04  0.0171
   1.4148E+00   1.4492E+00   1.9749E-04  0.0172
   1.4492E+00   1.4845E+00   2.0754E-04  0.0165
   1.4845E+00   1.5206E+00   2.0084E-04  0.0166
   1.5206E+00   1.5576E+00   2.0932E-04  0.0161
   1.5576E+00   1.5955E+00   2.0049E-04  0.0162
   1.5955E+00   1.6343E+00   2.0253E-04  0.0159
   1.6343E+00   1.6741E+00   2.0929E-04  0.0155
   1.6741E+00   1.7148E+00   2.1708E-04  0.0150
   1.7148E+00   1.7565E+00   2.1346E-04  0.0150
   1.7565E+00   1.7992E+00   2.1129E-04  0.0149
   1.7992E+00   1.8430E+00   2.1235E-04  0.0147
   1.8430E+00   1.8879E+00   2.0900E-04  0.0146
   1.8879E+00   1.9338E+00   2.1375E-04  0.0143
   1.9338E+00   1.9808E+00   2.1558E-04  0.0140
   1.9808E+00   2.0290E+00   2.1311E-04  0.0140
   2.0290E+00   2.0784E+00   2.1091E-04  0.0139
   2.0784E+00   2.1290E+00   2.1163E-04  0.0137
   2.1290E+00   2.1808E+00   2.0209E-04  0.0138
   2.1808E+00   2.2338E+00   2.0270E-04  0.0136
   2.2338E+00   2.2882E+00   1.9948E-04  0.0136
   2.2882E+00   2.3439E+00   2.0074E-04  0.0134
   2.3439E+00   2.4009E+00   2.0106E-04  0.0132
   2.4009E+00   2.4593E+00   1.9752E-04  0.0132
   2.4593E+00   2.5191E+00   1.8942E-04  0.0133
   2.5191E+00   2.5804E+00   1.8864E-04  0.0132
   2.5804E+00   2.6432E+00   1.8014E-04  0.0133
   2.6432E+00   2.7075E+00   1.8006E-04  0.0131
   2.7075E+00   2.7734E+00   1.7035E-04  0.0134
   2.7734E+00   2.8409E+00   1.7202E-04  0.0131
   2.8409E+00   2.9100E+00   1.6857E-04  0.0131
   2.9100E+00   2.9808E+00   1.6352E-04  0.0131
   2.9808E+00   3.0533E+00   1.6267E-04  0.0130
   3.0533E+00   3.1276E+00   1.5297E-04  0.0133
   3.1276E+00   3.2037E+00   1.4718E-04  0.0134
   3.2037E+00   3.2817E+00   1.4553E-04  0.0133
   3.2817E+00   3.3615E+00   1.3817E-04  0.0135
   3.3615E+00   3.4433E+00   1.3332E-04  0.0135
   3.4433E+00   3.5271E+00   1.3062E-04  0.0135
   3.5271E+00   3.6129E+00   1.2604E-04  0.0136
   3.6129E+00   3.7008E+00   1.2047E-04  0.0137
   3.7008E+00   3.7908E+00   1.1774E-04  0.0137
   3.7908E+00   3.8831E+00   1.1080E-04  0.0140
   3.8831E+00   3.9776E+00   1.0849E-04  0.0140
   3.9776E+00   4.0743E+00   1.0020E-04  0.0144
   4.0743E+00   4.1735E+00   9.6034E-05  0.0145
   4.1735E+00   4.2750E+00   9.4324E-05  0.0145
   4.2750E+00   4.3790E+00   8.6796E-05  0.0149
   4.3790E+00   4.4856E+00   8.7024E-05  0.0147
   4.4856E+00   4.5947E+00   8.0339E-05  0.0151
   4.5947E+00   4.7065E+00   7.5944E-05  0.0154
   4.7065E+00   4.8210E+00   7.2184E-05  0.0156
   4.8210E+00   4.9383E+00   6.7707E-05  0.0159
   4.9383E+00   5.0585E+00   6.5616E-05  0.0159
   5.0585E+00   5.1815E+00   6.2823E-05  0.0161
   5.1815E+00   5.3076E+00   5.8126E-05  0.0165
   5.3076E+00   5.4368E+00   5.3725E-05  0.0170
   5.4368E+00   5.5690E+00   5.2343E-05  0.0170
   5.5690E+00   5.7045E+00   4.8443E-05  0.0175
   5.7045E+00   5.8433E+00   4.5779E-05  0.0178
   5.8433E+00   5.9855E+00   4.2793E-05  0.0181
   5.9855E+00   6.1311E+00   4.0012E-05  0.0185
   6.1311E+00   6.2803E+00   3.7419E-05  0.0189
   6.2803E+00   6.4331E+00   3.5378E-05  0.0192
   6.4331E+00   6.5896E+00   3.4104E-05  0.0194
   6.5896E+00   6.7500E+00   3.1859E-05  0.0198
   6.7500E+00   6.9142E+00   2.9184E-05  0.0204
   6.9142E+00   7.0824E+00   2.7671E-05  0.0207
   7.0824E+00   7.2548E+00   2.5731E-05  0.0212
   7.2548E+00   7.4313E+00   2.4321E-05  0.0216
   7.4313E+00   7.6121E+00   2.3262E-05  0.0218
   7.6121E+00   7.7973E+00   2.1187E-05  0.0226
   7.7973E+00   7.9870E+00   1.9767E-05  0.0231
   7.9870E+00   8.1813E+00   1.9066E-05  0.0232
   8.1813E+00   8.3804E+00   1.7618E-05  0.0239
   8.3804E+00   8.5843E+00   1.7631E-05  0.0236
   8.5843E+00   8.7931E+00   1.6264E-05  0.0243
   8.7931E+00   9.0071E+00   1.5855E-05  0.0243
   9.0071E+00   9.2262E+00   1.4871E-05  0.0248
   9.2262E+00   9.4507E+00   1.4304E-05  0.0249
   9.4507E+00   9.6807E+00   1.3882E-05  0.0250
   9.6807E+00   9.9162E+00   1.3183E-05  0.0254
   9.9162E+00   1.0157E+01   1.3193E-05  0.0251
   1.0157E+01   1.0405E+01   1.2738E-05  0.0252
   1.0405E+01   1.0658E+01   1.2408E-05  0.0252
   1.0658E+01   1.0917E+01   1.2452E-05  0.0249
   1.0917E+01   1.1183E+01   1.1501E-05  0.0256
   1.1183E+01   1.1455E+01   1.0625E-05  0.0263
   1.1455E+01   1.1733E+01   1.0814E-05  0.0257
   1.1733E+01   1.2019E+01   1.0403E-05  0.0259
   1.2019E+01   1.2311E+01   1.0180E-05  0.0259
   1.2311E+01   1.2611E+01   1.0002E-05  0.0258
   1.2611E+01   1.2918E+01   1.0113E-05  0.0254
   1.2918E+01   1.3232E+01   9.6118E-06  0.0257
   1.3232E+01   1.3554E+01   9.4643E-06  0.0256
   1.3554E+01   1.3884E+01   9.6731E-06  0.0250
   1.3884E+01   1.4222E+01   9.4226E-06  0.0251
   1.4222E+01   1.4568E+01   9.4647E-06  0.0247
   1.4568E+01   1.4922E+01   8.9577E-06  0.0251
   1.4922E+01   1.5285E+01   9.1857E-06  0.0245
   1.5285E+01   1.5657E+01   9.1234E-06  0.0243
   1.5657E+01   1.6038E+01   8.8673E-06  0.0243
   1.6038E+01   1.6428E+01   8.9617E-06  0.0239
   1.6428E+01   1.6828E+01   8.9339E-06  0.0237
   1.6828E+01   1.7237E+01   8.3993E-06  0.0241
   1.7237E+01   1.7657E+01   8.5408E-06  0.0236
   1.7657E+01   1.8086E+01   8.9781E-06  0.0228
   1.8086E+01   1.8526E+01   8.9307E-06  0.0226
   1.8526E+01   1.8977E+01   8.6919E-06  0.0226
   1.8977E+01   1.9439E+01   8.3079E-06  0.0228
   1.9439E+01   1.9912E+01   8.3748E-06  0.0225
   1.9912E+01   2.0396E+01   8.5578E-06  0.0220
   2.0396E+01   2.0893E+01   8.2134E-06  0.0222
   2.0893E+01   2.1401E+01   8.0302E-06  0.0221
   2.1401E+01   2.1922E+01   8.0968E-06  0.0218
   2.1922E+01   2.2455E+01   8.0694E-06  0.0216
   2.2455E+01   2.3001E+01   8.2914E-06  0.0210
   2.3001E+01   2.3561E+01   8.2553E-06  0.0208
   2.3561E+01   2.4134E+01   8.3592E-06  0.0204
   2.4134E+01   2.4721E+01   8.2969E-06  0.0203
   2.4721E+01   2.5323E+01   8.3625E-06  0.0199
   2.5323E+01   2.5939E+01   7.9659E-06  0.0202
   2.5939E+01   2.6570E+01   8.3312E-06  0.0195
   2.6570E+01   2.7217E+01   8.5108E-06  0.0191
   2.7217E+01   2.7879E+01   8.2935E-06  0.0191
   2.7879E+01   2.8557E+01   8.6420E-06  0.0185
   2.8557E+01   2.9252E+01   8.6411E-06  0.0183
   2.9252E+01   2.9964E+01   8.5482E-06  0.0181
   2.9964E+01   3.0693E+01   8.6278E-06  0.0178
   3.0693E+01   3.1440E+01   8.8540E-06  0.0174
   3.1440E+01   3.2205E+01   9.0673E-06  0.0170
   3.2205E+01   3.2988E+01   8.6349E-06  0.0172
   3.2988E+01   3.3791E+01   9.0503E-06  0.0166
   3.3791E+01   3.4613E+01   9.0445E-06  0.0164
   3.4613E+01   3.5455E+01   9.5398E-06  0.0158
   3.5455E+01   3.6318E+01   9.8186E-06  0.0154
   3.6318E+01   3.7201E+01   1.0113E-05  0.0150
   3.7201E+01   3.8106E+01   1.0204E-05  0.0147
   3.8106E+01   3.9034E+01   1.0607E-05  0.0143
   3.9034E+01   3.9983E+01   1.1201E-05  0.0137
   3.9983E+01   4.0956E+01   1.1601E-05  0.0133
   4.0956E+01   4.1953E+01   1.2307E-05  0.0128
   4.1953E+01   4.2973E+01   1.2959E-05  0.0123
   4.2973E+01   4.4019E+01   1.3885E-05  0.0117
   4.4019E+01   4.5090E+01   1.4896E-05  0.0112
   4.5090E+01   4.6187E+01   1.6294E-05  0.0106
   4.6187E+01   4.7311E+01   1.7858E-05  0.0100
   4.7311E+01   4.8462E+01   1.9713E-05  0.0094
   4.8462E+01   4.9641E+01   2.1828E-05  0.0088
   4.9641E+01   5.0849E+01   2.4522E-05  0.0082
   5.0849E+01   5.2086E+01   2.7228E-05  0.0077
   5.2086E+01   5.3353E+01   3.0820E-05  0.0072
   5.3353E+01   5.4651E+01   3.3997E-05  0.0067
   5.4651E+01   5.5981E+01   3.8339E-05  0.0063
   5.5981E+01   5.7343E+01   4.2593E-05  0.0059
   5.7343E+01   5.8738E+01   4.6951E-05  0.0055
   5.8738E+01   6.0168E+01   5.1652E-05  0.0052
   6.0168E+01   6.1632E+01   5.6828E-05  0.0049
   6.1632E+01   6.3131E+01   6.1703E-05  0.0046
   6.3131E+01   6.4667E+01   6.6538E-05  0.0044
   6.4667E+01   6.6240E+01   7.1416E-05  0.0042
   6.6240E+01   6.7852E+01   7.5010E-05  0.0041
   6.7852E+01   6.9503E+01   7.7873E-05  0.0039
   6.9503E+01   7.1194E+01   8.0420E-05  0.0038
   7.1194E+01   7.2926E+01   8.0675E-05  0.0038
   7.2926E+01   7.4701E+01   8.0873E-05  0.0037
   7.4701E+01   7.6518E+01   7.9231E-05  0.0037
   7.6518E+01   7.8380E+01   7.6444E-05  0.0037
   7.8380E+01   8.0287E+01   7.2406E-05  0.0038
   8.0287E+01   8.2240E+01   6.7659E-05  0.0039
   8.2240E+01   8.4241E+01   6.2049E-05  0.0040
   8.4241E+01   8.6291E+01   5.5649E-05  0.0042
   8.6291E+01   8.8391E+01   4.9486E-05  0.0044
   8.8391E+01   9.0541E+01   4.2991E-05  0.0047
   9.0541E+01   9.2744E+01   3.7325E-05  0.0049
   9.2744E+01   9.5001E+01   3.1972E-05  0.0053
   9.5001E+01   9.7312E+01   2.7189E-05  0.0056
   9.7312E+01   9.9680E+01   2.3106E-05  0.0060
   9.9680E+01   1.0211E+02   1.9747E-05  0.0065
   1.0211E+02   1.0459E+02   1.6316E-05  0.0070
   1.0459E+02   1.0713E+02   1.3748E-05  0.0076
   1.0713E+02   1.0974E+02   1.1687E-05  0.0081
   1.0974E+02   1.1241E+02   9.9503E-06  0.0087
   1.1241E+02   1.1515E+02   8.2931E-06  0.0094
   1.1515E+02   1.1795E+02   7.0510E-06  0.0101
   1.1795E+02   1.2082E+02   6.0716E-06  0.0107
   1.2082E+02   1.2376E+02   5.2892E-06  0.0113
   1.2376E+02   1.2677E+02   4.4349E-06  0.0122
   1.2677E+02   1.2985E+02   3.7849E-06  0.0131
   1.2985E+02   1.3301E+02   3.1037E-06  0.0143
   1.3301E+02   1.3625E+02   2.6221E-06  0.0154
   1.3625E+02   1.3956E+02   2.0965E-06  0.0170
   1.3956E+02   1.4296E+02   1.7422E-06  0.0184
   1.4296E+02   1.4644E+02   1.4616E-06  0.0198
   1.4644E+02   1.5000E+02   1.1070E-06  0.0225

#   sum over                 3.2235E-05
'no. =    1   reg = 100 - 200'
msuc: {\huge [t-cross] in region mesh}
msdr: {\it plotted by \ANGEL \version}
msdl: {\it calculated by \PHITS  3.26}
wt: s(0.7)
\vspace{-3}
  region surface crossing
  area  &=&   1.0000E+00 [cm^2]
e:
 
# Information for Restart Calculation
# This calculation was newly started
# istdev =  2 # 1:Batch variance, 2:History variance
# resc2  = 5.00000000000000000E+08 # Total source weight or Total source weight / maxcas
# resc3  = 5.00000000000000000E+08 # Total history number or Total batch number
# maxcas =   500000000 # History / Batch, only used for istdev=1
# bitrseed = 1101101111010011011000101101110001100110110010110001010100010001 # bit data of rseed
