[ T-Cross ]
    title = [t-cross] in region mesh
     mesh =  reg            # mesh type is region-wise
      reg =    1            # number of crossing regions
      non     r-from    r-to       area
      1       126       226        1.000000    
   e-type =    3            # e-mesh is log given by emin, emax and ne
     emin =  1.0000000E-02  # minimum value of e-mesh points
     emax =   150.0000      # maximum value of e-mesh points
#    edel =  2.4039514E-02  # mesh width of e-mesh points
       ne =    400          # number of e-mesh points
#    data = ( e(i), i = 1, ne + 1 )
#           1.00000E-02  1.02433E-02  1.04925E-02  1.07478E-02  1.10093E-02
#           1.12772E-02  1.15516E-02  1.18326E-02  1.21205E-02  1.24154E-02
#           1.27175E-02  1.30269E-02  1.33439E-02  1.36686E-02  1.40011E-02
#           1.43418E-02  1.46907E-02  1.50482E-02  1.54143E-02  1.57894E-02
#           1.61735E-02  1.65670E-02  1.69701E-02  1.73830E-02  1.78060E-02
#           1.82392E-02  1.86830E-02  1.91375E-02  1.96032E-02  2.00801E-02
#           2.05687E-02  2.10692E-02  2.15818E-02  2.21069E-02  2.26448E-02
#           2.31957E-02  2.37601E-02  2.43382E-02  2.49304E-02  2.55369E-02
#           2.61583E-02  2.67947E-02  2.74467E-02  2.81145E-02  2.87985E-02
#           2.94992E-02  3.02169E-02  3.09521E-02  3.17052E-02  3.24766E-02
#           3.32668E-02  3.40762E-02  3.49053E-02  3.57546E-02  3.66246E-02
#           3.75157E-02  3.84284E-02  3.93634E-02  4.03212E-02  4.13022E-02
#           4.23071E-02  4.33365E-02  4.43909E-02  4.54710E-02  4.65773E-02
#           4.77106E-02  4.88714E-02  5.00605E-02  5.12785E-02  5.25262E-02
#           5.38042E-02  5.51133E-02  5.64542E-02  5.78278E-02  5.92348E-02
#           6.06760E-02  6.21523E-02  6.36645E-02  6.52135E-02  6.68002E-02
#           6.84255E-02  7.00904E-02  7.17957E-02  7.35426E-02  7.53319E-02
#           7.71648E-02  7.90423E-02  8.09655E-02  8.29354E-02  8.49533E-02
#           8.70203E-02  8.91376E-02  9.13064E-02  9.35279E-02  9.58035E-02
#           9.81345E-02  1.00522E-01  1.02968E-01  1.05473E-01  1.08040E-01
#           1.10668E-01  1.13361E-01  1.16119E-01  1.18944E-01  1.21838E-01
#           1.24803E-01  1.27839E-01  1.30950E-01  1.34136E-01  1.37399E-01
#           1.40742E-01  1.44167E-01  1.47675E-01  1.51268E-01  1.54948E-01
#           1.58718E-01  1.62580E-01  1.66535E-01  1.70587E-01  1.74738E-01
#           1.78989E-01  1.83344E-01  1.87805E-01  1.92375E-01  1.97055E-01
#           2.01850E-01  2.06761E-01  2.11792E-01  2.16945E-01  2.22223E-01
#           2.27630E-01  2.33169E-01  2.38842E-01  2.44653E-01  2.50605E-01
#           2.56703E-01  2.62949E-01  2.69346E-01  2.75900E-01  2.82613E-01
#           2.89489E-01  2.96532E-01  3.03747E-01  3.11138E-01  3.18708E-01
#           3.26462E-01  3.34405E-01  3.42542E-01  3.50876E-01  3.59413E-01
#           3.68158E-01  3.77116E-01  3.86291E-01  3.95690E-01  4.05317E-01
#           4.15179E-01  4.25281E-01  4.35628E-01  4.46227E-01  4.57084E-01
#           4.68205E-01  4.79597E-01  4.91266E-01  5.03219E-01  5.15463E-01
#           5.28005E-01  5.40851E-01  5.54011E-01  5.67490E-01  5.81298E-01
#           5.95441E-01  6.09929E-01  6.24769E-01  6.39970E-01  6.55541E-01
#           6.71491E-01  6.87828E-01  7.04564E-01  7.21706E-01  7.39266E-01
#           7.57253E-01  7.75678E-01  7.94551E-01  8.13883E-01  8.33685E-01
#           8.53969E-01  8.74747E-01  8.96030E-01  9.17831E-01  9.40163E-01
#           9.63038E-01  9.86469E-01  1.01047E+00  1.03506E+00  1.06024E+00
#           1.08604E+00  1.11246E+00  1.13953E+00  1.16725E+00  1.19565E+00
#           1.22474E+00  1.25454E+00  1.28507E+00  1.31633E+00  1.34836E+00
#           1.38117E+00  1.41477E+00  1.44920E+00  1.48446E+00  1.52057E+00
#           1.55757E+00  1.59547E+00  1.63429E+00  1.67405E+00  1.71478E+00
#           1.75650E+00  1.79924E+00  1.84302E+00  1.88786E+00  1.93379E+00
#           1.98084E+00  2.02904E+00  2.07841E+00  2.12898E+00  2.18078E+00
#           2.23384E+00  2.28819E+00  2.34386E+00  2.40089E+00  2.45930E+00
#           2.51914E+00  2.58043E+00  2.64322E+00  2.70753E+00  2.77341E+00
#           2.84088E+00  2.91001E+00  2.98081E+00  3.05333E+00  3.12762E+00
#           3.20372E+00  3.28167E+00  3.36152E+00  3.44330E+00  3.52708E+00
#           3.61290E+00  3.70080E+00  3.79085E+00  3.88308E+00  3.97756E+00
#           4.07434E+00  4.17347E+00  4.27501E+00  4.37903E+00  4.48557E+00
#           4.59471E+00  4.70650E+00  4.82102E+00  4.93832E+00  5.05847E+00
#           5.18155E+00  5.30762E+00  5.43676E+00  5.56904E+00  5.70453E+00
#           5.84333E+00  5.98550E+00  6.13114E+00  6.28031E+00  6.43312E+00
#           6.58964E+00  6.74997E+00  6.91420E+00  7.08243E+00  7.25475E+00
#           7.43126E+00  7.61207E+00  7.79728E+00  7.98700E+00  8.18133E+00
#           8.38038E+00  8.58428E+00  8.79315E+00  9.00709E+00  9.22624E+00
#           9.45072E+00  9.68067E+00  9.91620E+00  1.01575E+01  1.04046E+01
#           1.06578E+01  1.09171E+01  1.11827E+01  1.14548E+01  1.17335E+01
#           1.20190E+01  1.23114E+01  1.26109E+01  1.29178E+01  1.32321E+01
#           1.35540E+01  1.38838E+01  1.42216E+01  1.45676E+01  1.49221E+01
#           1.52851E+01  1.56570E+01  1.60380E+01  1.64282E+01  1.68279E+01
#           1.72374E+01  1.76568E+01  1.80864E+01  1.85264E+01  1.89772E+01
#           1.94389E+01  1.99119E+01  2.03963E+01  2.08926E+01  2.14009E+01
#           2.19216E+01  2.24550E+01  2.30014E+01  2.35610E+01  2.41343E+01
#           2.47215E+01  2.53230E+01  2.59391E+01  2.65702E+01  2.72167E+01
#           2.78789E+01  2.85572E+01  2.92520E+01  2.99637E+01  3.06928E+01
#           3.14396E+01  3.22045E+01  3.29881E+01  3.37907E+01  3.46128E+01
#           3.54550E+01  3.63177E+01  3.72013E+01  3.81064E+01  3.90336E+01
#           3.99833E+01  4.09561E+01  4.19526E+01  4.29734E+01  4.40189E+01
#           4.50900E+01  4.61870E+01  4.73108E+01  4.84619E+01  4.96410E+01
#           5.08488E+01  5.20860E+01  5.33533E+01  5.46514E+01  5.59812E+01
#           5.73432E+01  5.87384E+01  6.01676E+01  6.16315E+01  6.31311E+01
#           6.46671E+01  6.62405E+01  6.78522E+01  6.95031E+01  7.11941E+01
#           7.29263E+01  7.47007E+01  7.65182E+01  7.83800E+01  8.02870E+01
#           8.22405E+01  8.42414E+01  8.62911E+01  8.83906E+01  9.05412E+01
#           9.27442E+01  9.50007E+01  9.73122E+01  9.96799E+01  1.02105E+02
#           1.04589E+02  1.07134E+02  1.09741E+02  1.12411E+02  1.15146E+02
#           1.17948E+02  1.20817E+02  1.23757E+02  1.26768E+02  1.29852E+02
#           1.33012E+02  1.36248E+02  1.39563E+02  1.42959E+02  1.46437E+02
#           1.50000E+02
     unit =    2            # unit is [1/cm^2/(MeV/n)/source]
     axis =  eng            # axis of output
     file = detector-27.out  # file name of output for the above axis
   output = f-curr          # surface crossing forward current spectrum
     part =  neutron  
# kf/name :  2112     
#    used :        main (  %)        temp (  %)       total (  %)
#  memory :         414 (  0)           0 (  0)         414 (  0)

#------------------------------------------------------------------------------
#newpage:
#   no. =    1   reg = 126 - 226

x: Energy [MeV/n]
y:  F-Curr [1/cm^2/(MeV/n)/source]         
p: xlog ylog afac(0.8) form(0.9)
h: n            x            y(neutron ),hh0l   n 
#  e-lower      e-upper      neutron     r.err 
   1.0000E-02   1.0243E-02   4.7676E-05  0.1313
   1.0243E-02   1.0493E-02   4.6544E-05  0.1313
   1.0493E-02   1.0748E-02   4.7005E-05  0.1291
   1.0748E-02   1.1009E-02   4.8183E-05  0.1260
   1.1009E-02   1.1277E-02   4.3305E-05  0.1313
   1.1277E-02   1.1552E-02   4.5921E-05  0.1260
   1.1552E-02   1.1833E-02   5.4081E-05  0.1147
   1.1833E-02   1.2121E-02   4.6544E-05  0.1222
   1.2121E-02   1.2415E-02   4.8152E-05  0.1187
   1.2415E-02   1.2718E-02   5.0318E-05  0.1147
   1.2718E-02   1.3027E-02   5.6233E-05  0.1072
   1.3027E-02   1.3344E-02   5.4266E-05  0.1078
   1.3344E-02   1.3669E-02   5.2977E-05  0.1078
   1.3669E-02   1.4001E-02   5.2320E-05  0.1072
   1.4001E-02   1.4342E-02   5.2252E-05  0.1060
   1.4342E-02   1.4691E-02   6.2474E-05  0.0958
   1.4691E-02   1.5048E-02   5.7073E-05  0.0990
   1.5048E-02   1.5414E-02   5.1894E-05  0.1026
   1.5414E-02   1.5789E-02   5.1727E-05  0.1015
   1.5789E-02   1.6174E-02   5.8308E-05  0.0945
   1.6174E-02   1.6567E-02   5.4890E-05  0.0962
   1.6567E-02   1.6970E-02   4.7136E-05  0.1026
   1.6970E-02   1.7383E-02   6.1032E-05  0.0891
   1.7383E-02   1.7806E-02   5.7218E-05  0.0909
   1.7806E-02   1.8239E-02   5.5859E-05  0.0909
   1.8239E-02   1.8683E-02   4.9575E-05  0.0953
   1.8683E-02   1.9138E-02   6.3796E-05  0.0830
   1.9138E-02   1.9603E-02   5.6697E-05  0.0870
   1.9603E-02   2.0080E-02   4.8641E-05  0.0928
   2.0080E-02   2.0569E-02   4.8305E-05  0.0921
   2.0569E-02   2.1069E-02   4.5159E-05  0.0941
   2.1069E-02   2.1582E-02   5.0778E-05  0.0876
   2.1582E-02   2.2107E-02   6.2464E-05  0.0781
   2.2107E-02   2.2645E-02   5.3172E-05  0.0836
   2.2645E-02   2.3196E-02   5.0820E-05  0.0845
   2.3196E-02   2.3760E-02   5.5637E-05  0.0798
   2.3760E-02   2.4338E-02   5.5700E-05  0.0788
   2.4338E-02   2.4930E-02   5.5727E-05  0.0778
   2.4930E-02   2.5537E-02   4.8469E-05  0.0825
   2.5537E-02   2.6158E-02   4.9893E-05  0.0803
   2.6158E-02   2.6795E-02   5.4992E-05  0.0756
   2.6795E-02   2.7447E-02   6.0129E-05  0.0714
   2.7447E-02   2.8114E-02   5.3309E-05  0.0750
   2.8114E-02   2.8799E-02   5.6136E-05  0.0722
   2.8799E-02   2.9499E-02   4.7667E-05  0.0774
   2.9499E-02   3.0217E-02   5.3293E-05  0.0723
   3.0217E-02   3.0952E-02   5.1142E-05  0.0729
   3.0952E-02   3.1705E-02   5.4177E-05  0.0700
   3.1705E-02   3.2477E-02   5.4446E-05  0.0690
   3.2477E-02   3.3267E-02   5.1127E-05  0.0704
   3.3267E-02   3.4076E-02   5.4608E-05  0.0673
   3.4076E-02   3.4905E-02   6.0065E-05  0.0634
   3.4905E-02   3.5755E-02   5.1338E-05  0.0677
   3.5755E-02   3.6625E-02   5.5866E-05  0.0642
   3.6625E-02   3.7516E-02   5.0275E-05  0.0668
   3.7516E-02   3.8428E-02   5.8283E-05  0.0613
   3.8428E-02   3.9363E-02   5.6471E-05  0.0615
   3.9363E-02   4.0321E-02   5.4085E-05  0.0621
   4.0321E-02   4.1302E-02   5.3209E-05  0.0619
   4.1302E-02   4.2307E-02   6.0702E-05  0.0573
   4.2307E-02   4.3337E-02   5.6345E-05  0.0587
   4.3337E-02   4.4391E-02   5.1782E-05  0.0605
   4.4391E-02   4.5471E-02   5.5737E-05  0.0576
   4.5471E-02   4.6577E-02   5.9837E-05  0.0550
   4.6577E-02   4.7711E-02   5.2415E-05  0.0580
   4.7711E-02   4.8871E-02   5.5822E-05  0.0556
   4.8871E-02   5.0061E-02   5.6851E-05  0.0544
   5.0061E-02   5.1279E-02   5.5664E-05  0.0543
   5.1279E-02   5.2526E-02   5.6777E-05  0.0531
   5.2526E-02   5.3804E-02   5.9781E-05  0.0512
   5.3804E-02   5.5113E-02   5.4565E-05  0.0529
   5.5113E-02   5.6454E-02   6.0405E-05  0.0497
   5.6454E-02   5.7828E-02   5.7805E-05  0.0502
   5.7828E-02   5.9235E-02   5.9702E-05  0.0488
   5.9235E-02   6.0676E-02   5.8839E-05  0.0486
   6.0676E-02   6.2152E-02   5.6357E-05  0.0490
   6.2152E-02   6.3665E-02   6.5864E-05  0.0448
   6.3665E-02   6.5214E-02   5.7714E-05  0.0473
   6.5214E-02   6.6800E-02   6.2142E-05  0.0450
   6.6800E-02   6.8426E-02   5.8574E-05  0.0458
   6.8426E-02   7.0090E-02   5.9105E-05  0.0451
   7.0090E-02   7.1796E-02   6.2157E-05  0.0434
   7.1796E-02   7.3543E-02   5.8162E-05  0.0444
   7.3543E-02   7.5332E-02   6.3521E-05  0.0419
   7.5332E-02   7.7165E-02   6.2633E-05  0.0417
   7.7165E-02   7.9042E-02   5.9335E-05  0.0424
   7.9042E-02   8.0965E-02   6.3229E-05  0.0406
   8.0965E-02   8.2935E-02   5.9697E-05  0.0412
   8.2935E-02   8.4953E-02   5.8477E-05  0.0412
   8.4953E-02   8.7020E-02   6.2507E-05  0.0393
   8.7020E-02   8.9138E-02   6.3289E-05  0.0386
   8.9138E-02   9.1306E-02   6.1786E-05  0.0386
   9.1306E-02   9.3528E-02   6.4937E-05  0.0372
   9.3528E-02   9.5804E-02   5.7919E-05  0.0390
   9.5804E-02   9.8134E-02   6.8383E-05  0.0354
   9.8134E-02   1.0052E-01   6.2990E-05  0.0365
   1.0052E-01   1.0297E-01   6.6972E-05  0.0349
   1.0297E-01   1.0547E-01   6.5302E-05  0.0350
   1.0547E-01   1.0804E-01   6.3762E-05  0.0350
   1.0804E-01   1.1067E-01   6.4519E-05  0.0343
   1.1067E-01   1.1336E-01   6.2764E-05  0.0344
   1.1336E-01   1.1612E-01   6.1429E-05  0.0344
   1.1612E-01   1.1894E-01   6.2309E-05  0.0337
   1.1894E-01   1.2184E-01   6.6783E-05  0.0322
   1.2184E-01   1.2480E-01   6.4633E-05  0.0323
   1.2480E-01   1.2784E-01   6.8038E-05  0.0311
   1.2784E-01   1.3095E-01   6.7386E-05  0.0309
   1.3095E-01   1.3414E-01   7.0145E-05  0.0299
   1.3414E-01   1.3740E-01   6.5387E-05  0.0306
   1.3740E-01   1.4074E-01   7.0415E-05  0.0291
   1.4074E-01   1.4417E-01   6.7633E-05  0.0294
   1.4417E-01   1.4767E-01   6.8421E-05  0.0289
   1.4767E-01   1.5127E-01   6.9802E-05  0.0282
   1.5127E-01   1.5495E-01   6.8595E-05  0.0281
   1.5495E-01   1.5872E-01   6.9344E-05  0.0277
   1.5872E-01   1.6258E-01   7.1212E-05  0.0270
   1.6258E-01   1.6654E-01   6.5222E-05  0.0278
   1.6654E-01   1.7059E-01   7.2508E-05  0.0261
   1.7059E-01   1.7474E-01   7.0931E-05  0.0261
   1.7474E-01   1.7899E-01   7.1034E-05  0.0257
   1.7899E-01   1.8334E-01   7.1688E-05  0.0253
   1.8334E-01   1.8781E-01   7.2676E-05  0.0248
   1.8781E-01   1.9237E-01   7.1686E-05  0.0247
   1.9237E-01   1.9706E-01   6.9991E-05  0.0247
   1.9706E-01   2.0185E-01   6.9545E-05  0.0245
   2.0185E-01   2.0676E-01   7.2344E-05  0.0237
   2.0676E-01   2.1179E-01   6.9891E-05  0.0239
   2.1179E-01   2.1694E-01   7.2617E-05  0.0231
   2.1694E-01   2.2222E-01   7.4073E-05  0.0226
   2.2222E-01   2.2763E-01   7.3351E-05  0.0225
   2.2763E-01   2.3317E-01   7.1725E-05  0.0224
   2.3317E-01   2.3884E-01   7.0402E-05  0.0224
   2.3884E-01   2.4465E-01   7.0430E-05  0.0221
   2.4465E-01   2.5061E-01   7.3615E-05  0.0214
   2.5061E-01   2.5670E-01   7.1685E-05  0.0214
   2.5670E-01   2.6295E-01   7.3842E-05  0.0208
   2.6295E-01   2.6935E-01   7.6323E-05  0.0202
   2.6935E-01   2.7590E-01   7.3619E-05  0.0204
   2.7590E-01   2.8261E-01   7.2726E-05  0.0202
   2.8261E-01   2.8949E-01   7.5051E-05  0.0197
   2.8949E-01   2.9653E-01   7.1999E-05  0.0199
   2.9653E-01   3.0375E-01   7.4762E-05  0.0193
   3.0375E-01   3.1114E-01   7.3663E-05  0.0192
   3.1114E-01   3.1871E-01   7.3741E-05  0.0189
   3.1871E-01   3.2646E-01   7.5492E-05  0.0185
   3.2646E-01   3.3441E-01   7.0602E-05  0.0189
   3.3441E-01   3.4254E-01   7.6254E-05  0.0180
   3.4254E-01   3.5088E-01   7.5720E-05  0.0178
   3.5088E-01   3.5941E-01   7.4686E-05  0.0177
   3.5941E-01   3.6816E-01   7.2787E-05  0.0177
   3.6816E-01   3.7712E-01   7.3745E-05  0.0174
   3.7712E-01   3.8629E-01   7.2279E-05  0.0174
   3.8629E-01   3.9569E-01   7.2938E-05  0.0171
   3.9569E-01   4.0532E-01   7.2760E-05  0.0169
   4.0532E-01   4.1518E-01   7.2827E-05  0.0167
   4.1518E-01   4.2528E-01   7.2503E-05  0.0165
   4.2528E-01   4.3563E-01   7.1818E-05  0.0164
   4.3563E-01   4.4623E-01   7.4257E-05  0.0159
   4.4623E-01   4.5708E-01   7.2389E-05  0.0160
   4.5708E-01   4.6821E-01   7.2398E-05  0.0158
   4.6821E-01   4.7960E-01   6.9970E-05  0.0158
   4.7960E-01   4.9127E-01   7.0836E-05  0.0156
   4.9127E-01   5.0322E-01   7.0594E-05  0.0154
   5.0322E-01   5.1546E-01   7.1111E-05  0.0152
   5.1546E-01   5.2800E-01   6.9831E-05  0.0151
   5.2800E-01   5.4085E-01   7.0881E-05  0.0148
   5.4085E-01   5.5401E-01   7.0576E-05  0.0147
   5.5401E-01   5.6749E-01   6.8489E-05  0.0147
   5.6749E-01   5.8130E-01   6.9027E-05  0.0145
   5.8130E-01   5.9544E-01   6.6929E-05  0.0145
   5.9544E-01   6.0993E-01   6.6790E-05  0.0144
   6.0993E-01   6.2477E-01   6.4636E-05  0.0144
   6.2477E-01   6.3997E-01   6.5438E-05  0.0142
   6.3997E-01   6.5554E-01   6.4188E-05  0.0141
   6.5554E-01   6.7149E-01   6.5242E-05  0.0139
   6.7149E-01   6.8783E-01   5.9626E-05  0.0143
   6.8783E-01   7.0456E-01   6.1374E-05  0.0140
   7.0456E-01   7.2171E-01   5.9928E-05  0.0140
   7.2171E-01   7.3927E-01   5.8320E-05  0.0140
   7.3927E-01   7.5725E-01   5.6867E-05  0.0140
   7.5725E-01   7.7568E-01   5.6466E-05  0.0139
   7.7568E-01   7.9455E-01   5.5749E-05  0.0138
   7.9455E-01   8.1388E-01   5.4865E-05  0.0137
   8.1388E-01   8.3368E-01   5.3958E-05  0.0137
   8.3368E-01   8.5397E-01   5.0442E-05  0.0140
   8.5397E-01   8.7475E-01   4.9502E-05  0.0139
   8.7475E-01   8.9603E-01   4.7530E-05  0.0141
   8.9603E-01   9.1783E-01   4.6437E-05  0.0141
   9.1783E-01   9.4016E-01   4.3963E-05  0.0143
   9.4016E-01   9.6304E-01   4.1414E-05  0.0145
   9.6304E-01   9.8647E-01   4.0779E-05  0.0145
   9.8647E-01   1.0105E+00   3.9121E-05  0.0146
   1.0105E+00   1.0351E+00   3.8408E-05  0.0146
   1.0351E+00   1.0602E+00   3.8218E-05  0.0144
   1.0602E+00   1.0860E+00   3.8785E-05  0.0141
   1.0860E+00   1.1125E+00   3.9460E-05  0.0139
   1.1125E+00   1.1395E+00   3.8775E-05  0.0138
   1.1395E+00   1.1673E+00   3.9178E-05  0.0136
   1.1673E+00   1.1957E+00   3.8256E-05  0.0136
   1.1957E+00   1.2247E+00   3.8639E-05  0.0133
   1.2247E+00   1.2545E+00   3.8611E-05  0.0132
   1.2545E+00   1.2851E+00   3.8030E-05  0.0131
   1.2851E+00   1.3163E+00   3.8803E-05  0.0128
   1.3163E+00   1.3484E+00   3.7876E-05  0.0128
   1.3484E+00   1.3812E+00   3.7490E-05  0.0128
   1.3812E+00   1.4148E+00   3.8196E-05  0.0125
   1.4148E+00   1.4492E+00   3.7145E-05  0.0125
   1.4492E+00   1.4845E+00   3.6395E-05  0.0125
   1.4845E+00   1.5206E+00   3.6088E-05  0.0124
   1.5206E+00   1.5576E+00   3.5536E-05  0.0123
   1.5576E+00   1.5955E+00   3.4136E-05  0.0124
   1.5955E+00   1.6343E+00   3.4517E-05  0.0122
   1.6343E+00   1.6741E+00   3.3418E-05  0.0123
   1.6741E+00   1.7148E+00   3.2331E-05  0.0123
   1.7148E+00   1.7565E+00   3.1956E-05  0.0122
   1.7565E+00   1.7992E+00   3.1064E-05  0.0123
   1.7992E+00   1.8430E+00   3.0470E-05  0.0122
   1.8430E+00   1.8879E+00   2.8796E-05  0.0124
   1.8879E+00   1.9338E+00   2.8721E-05  0.0123
   1.9338E+00   1.9808E+00   2.7946E-05  0.0123
   1.9808E+00   2.0290E+00   2.6226E-05  0.0126
   2.0290E+00   2.0784E+00   2.5504E-05  0.0126
   2.0784E+00   2.1290E+00   2.4977E-05  0.0126
   2.1290E+00   2.1808E+00   2.3985E-05  0.0127
   2.1808E+00   2.2338E+00   2.2717E-05  0.0129
   2.2338E+00   2.2882E+00   2.1016E-05  0.0132
   2.2882E+00   2.3439E+00   2.1339E-05  0.0130
   2.3439E+00   2.4009E+00   2.0231E-05  0.0132
   2.4009E+00   2.4593E+00   1.9068E-05  0.0134
   2.4593E+00   2.5191E+00   1.8111E-05  0.0136
   2.5191E+00   2.5804E+00   1.7711E-05  0.0136
   2.5804E+00   2.6432E+00   1.6241E-05  0.0140
   2.6432E+00   2.7075E+00   1.5882E-05  0.0140
   2.7075E+00   2.7734E+00   1.4877E-05  0.0143
   2.7734E+00   2.8409E+00   1.4235E-05  0.0144
   2.8409E+00   2.9100E+00   1.3445E-05  0.0146
   2.9100E+00   2.9808E+00   1.2836E-05  0.0148
   2.9808E+00   3.0533E+00   1.2261E-05  0.0150
   3.0533E+00   3.1276E+00   1.1502E-05  0.0153
   3.1276E+00   3.2037E+00   1.1150E-05  0.0153
   3.2037E+00   3.2817E+00   1.0099E-05  0.0159
   3.2817E+00   3.3615E+00   9.5171E-06  0.0162
   3.3615E+00   3.4433E+00   8.7827E-06  0.0166
   3.4433E+00   3.5271E+00   8.2485E-06  0.0170
   3.5271E+00   3.6129E+00   7.9575E-06  0.0171
   3.6129E+00   3.7008E+00   7.4731E-06  0.0174
   3.7008E+00   3.7908E+00   6.9436E-06  0.0178
   3.7908E+00   3.8831E+00   6.6072E-06  0.0180
   3.8831E+00   3.9776E+00   5.9422E-06  0.0188
   3.9776E+00   4.0743E+00   5.7347E-06  0.0189
   4.0743E+00   4.1735E+00   5.4632E-06  0.0191
   4.1735E+00   4.2750E+00   5.0398E-06  0.0197
   4.2750E+00   4.3790E+00   4.6608E-06  0.0202
   4.3790E+00   4.4856E+00   4.3603E-06  0.0207
   4.4856E+00   4.5947E+00   4.0836E-06  0.0211
   4.5947E+00   4.7065E+00   3.7083E-06  0.0219
   4.7065E+00   4.8210E+00   3.5451E-06  0.0221
   4.8210E+00   4.9383E+00   3.3080E-06  0.0226
   4.9383E+00   5.0585E+00   3.0665E-06  0.0232
   5.0585E+00   5.1815E+00   2.7701E-06  0.0241
   5.1815E+00   5.3076E+00   2.5985E-06  0.0246
   5.3076E+00   5.4368E+00   2.4808E-06  0.0249
   5.4368E+00   5.5690E+00   2.2046E-06  0.0260
   5.5690E+00   5.7045E+00   2.0671E-06  0.0266
   5.7045E+00   5.8433E+00   1.8884E-06  0.0275
   5.8433E+00   5.9855E+00   1.8008E-06  0.0278
   5.9855E+00   6.1311E+00   1.5675E-06  0.0294
   6.1311E+00   6.2803E+00   1.5236E-06  0.0295
   6.2803E+00   6.4331E+00   1.3103E-06  0.0314
   6.4331E+00   6.5896E+00   1.2255E-06  0.0321
   6.5896E+00   6.7500E+00   1.1093E-06  0.0333
   6.7500E+00   6.9142E+00   1.0046E-06  0.0346
   6.9142E+00   7.0824E+00   9.6509E-07  0.0349
   7.0824E+00   7.2548E+00   8.7223E-07  0.0362
   7.2548E+00   7.4313E+00   7.4663E-07  0.0387
   7.4313E+00   7.6121E+00   6.9238E-07  0.0397
   7.6121E+00   7.7973E+00   6.3125E-07  0.0411
   7.7973E+00   7.9870E+00   5.1994E-07  0.0447
   7.9870E+00   8.1813E+00   4.8006E-07  0.0460
   8.1813E+00   8.3804E+00   4.5328E-07  0.0468
   8.3804E+00   8.5843E+00   4.1981E-07  0.0479
   8.5843E+00   8.7931E+00   3.8634E-07  0.0495
   8.7931E+00   9.0071E+00   3.5849E-07  0.0507
   9.0071E+00   9.2262E+00   2.9437E-07  0.0553
   9.2262E+00   9.4507E+00   2.8016E-07  0.0560
   9.4507E+00   9.6807E+00   2.3839E-07  0.0601
   9.6807E+00   9.9162E+00   2.2190E-07  0.0615
   9.9162E+00   1.0157E+01   1.9615E-07  0.0646
   1.0157E+01   1.0405E+01   1.8277E-07  0.0662
   1.0405E+01   1.0658E+01   1.5188E-07  0.0716
   1.0658E+01   1.0917E+01   1.2681E-07  0.0774
   1.0917E+01   1.1183E+01   1.2411E-07  0.0772
   1.1183E+01   1.1455E+01   9.0728E-08  0.0895
   1.1455E+01   1.1733E+01   1.0472E-07  0.0823
   1.1733E+01   1.2019E+01   1.0599E-07  0.0811
   1.2019E+01   1.2311E+01   7.4061E-08  0.0953
   1.2311E+01   1.2611E+01   7.5138E-08  0.0937
   1.2611E+01   1.2918E+01   6.8607E-08  0.0971
   1.2918E+01   1.3232E+01   5.9816E-08  0.1022
   1.3232E+01   1.3554E+01   4.2013E-08  0.1205
   1.3554E+01   1.3884E+01   4.2670E-08  0.1190
   1.3884E+01   1.4222E+01   3.9214E-08  0.1222
   1.4222E+01   1.4568E+01   3.1735E-08  0.1343
   1.4568E+01   1.4922E+01   3.7777E-08  0.1218
   1.4922E+01   1.5285E+01   3.3028E-08  0.1286
   1.5285E+01   1.5657E+01   2.6846E-08  0.1408
   1.5657E+01   1.6038E+01   2.0718E-08  0.1587
   1.6038E+01   1.6428E+01   2.6139E-08  0.1400
   1.6428E+01   1.6828E+01   2.2715E-08  0.1472
   1.6828E+01   1.7237E+01   1.4402E-08  0.1834
   1.7237E+01   1.7657E+01   2.1210E-08  0.1495
   1.7657E+01   1.8086E+01   1.4432E-08  0.1796
   1.8086E+01   1.8526E+01   1.2271E-08  0.1925
   1.8526E+01   1.8977E+01   1.3081E-08  0.1834
   1.8977E+01   1.9439E+01   9.0962E-09  0.2182
   1.9439E+01   1.9912E+01   9.3030E-09  0.2132
   1.9912E+01   2.0396E+01   9.9077E-09  0.2041
   2.0396E+01   2.0893E+01   7.2543E-09  0.2357
   2.0893E+01   2.1401E+01   9.0492E-09  0.2085
   2.1401E+01   2.1922E+01   6.5296E-09  0.2425
   2.1922E+01   2.2455E+01   7.4995E-09  0.2236
   2.2455E+01   2.3001E+01   8.7856E-09  0.2041
   2.3001E+01   2.3561E+01   6.7901E-09  0.2294
   2.3561E+01   2.4134E+01   5.9310E-09  0.2425
   2.4134E+01   2.4721E+01   5.4495E-09  0.2500
   2.4721E+01   2.5323E+01   2.3275E-09  0.3780
   2.5323E+01   2.5939E+01   2.5969E-09  0.3536
   2.5939E+01   2.6570E+01   5.0704E-09  0.2500
   2.6570E+01   2.7217E+01   4.6406E-09  0.2582
   2.7217E+01   2.7879E+01   2.1142E-09  0.3780
   2.7879E+01   2.8557E+01   1.4742E-09  0.4472
   2.8557E+01   2.9252E+01   1.1514E-09  0.5000
   2.9252E+01   2.9964E+01   1.9671E-09  0.3780
   2.9964E+01   3.0693E+01   1.0973E-09  0.5000
   3.0693E+01   3.1440E+01   8.0345E-10  0.5774
   3.1440E+01   3.2205E+01   1.5687E-09  0.4082
   3.2205E+01   3.2988E+01   7.6573E-10  0.5774
   3.2988E+01   3.3791E+01   7.4755E-10  0.5774
   3.3791E+01   3.4613E+01   9.7305E-10  0.5000
   3.4613E+01   3.5455E+01   9.4994E-10  0.5000
   3.5455E+01   3.6318E+01   2.3184E-10  1.0000
   3.6318E+01   3.7201E+01   6.7901E-10  0.5774
   3.7201E+01   3.8106E+01   6.6288E-10  0.5774
   3.8106E+01   3.9034E+01   0.0000E+00  0.0000
   3.9034E+01   3.9983E+01   0.0000E+00  0.0000
   3.9983E+01   4.0956E+01   0.0000E+00  0.0000
   4.0956E+01   4.1953E+01   0.0000E+00  0.0000
   4.1953E+01   4.2973E+01   0.0000E+00  0.0000
   4.2973E+01   4.4019E+01   0.0000E+00  0.0000
   4.4019E+01   4.5090E+01   0.0000E+00  0.0000
   4.5090E+01   4.6187E+01   0.0000E+00  0.0000
   4.6187E+01   4.7311E+01   0.0000E+00  0.0000
   4.7311E+01   4.8462E+01   0.0000E+00  0.0000
   4.8462E+01   4.9641E+01   0.0000E+00  0.0000
   4.9641E+01   5.0849E+01   0.0000E+00  0.0000
   5.0849E+01   5.2086E+01   0.0000E+00  0.0000
   5.2086E+01   5.3353E+01   0.0000E+00  0.0000
   5.3353E+01   5.4651E+01   0.0000E+00  0.0000
   5.4651E+01   5.5981E+01   0.0000E+00  0.0000
   5.5981E+01   5.7343E+01   0.0000E+00  0.0000
   5.7343E+01   5.8738E+01   0.0000E+00  0.0000
   5.8738E+01   6.0168E+01   0.0000E+00  0.0000
   6.0168E+01   6.1632E+01   0.0000E+00  0.0000
   6.1632E+01   6.3131E+01   0.0000E+00  0.0000
   6.3131E+01   6.4667E+01   0.0000E+00  0.0000
   6.4667E+01   6.6240E+01   0.0000E+00  0.0000
   6.6240E+01   6.7852E+01   0.0000E+00  0.0000
   6.7852E+01   6.9503E+01   0.0000E+00  0.0000
   6.9503E+01   7.1194E+01   0.0000E+00  0.0000
   7.1194E+01   7.2926E+01   0.0000E+00  0.0000
   7.2926E+01   7.4701E+01   0.0000E+00  0.0000
   7.4701E+01   7.6518E+01   0.0000E+00  0.0000
   7.6518E+01   7.8380E+01   0.0000E+00  0.0000
   7.8380E+01   8.0287E+01   0.0000E+00  0.0000
   8.0287E+01   8.2240E+01   0.0000E+00  0.0000
   8.2240E+01   8.4241E+01   0.0000E+00  0.0000
   8.4241E+01   8.6291E+01   0.0000E+00  0.0000
   8.6291E+01   8.8391E+01   0.0000E+00  0.0000
   8.8391E+01   9.0541E+01   0.0000E+00  0.0000
   9.0541E+01   9.2744E+01   0.0000E+00  0.0000
   9.2744E+01   9.5001E+01   0.0000E+00  0.0000
   9.5001E+01   9.7312E+01   0.0000E+00  0.0000
   9.7312E+01   9.9680E+01   0.0000E+00  0.0000
   9.9680E+01   1.0211E+02   0.0000E+00  0.0000
   1.0211E+02   1.0459E+02   0.0000E+00  0.0000
   1.0459E+02   1.0713E+02   0.0000E+00  0.0000
   1.0713E+02   1.0974E+02   0.0000E+00  0.0000
   1.0974E+02   1.1241E+02   0.0000E+00  0.0000
   1.1241E+02   1.1515E+02   0.0000E+00  0.0000
   1.1515E+02   1.1795E+02   0.0000E+00  0.0000
   1.1795E+02   1.2082E+02   0.0000E+00  0.0000
   1.2082E+02   1.2376E+02   0.0000E+00  0.0000
   1.2376E+02   1.2677E+02   0.0000E+00  0.0000
   1.2677E+02   1.2985E+02   0.0000E+00  0.0000
   1.2985E+02   1.3301E+02   0.0000E+00  0.0000
   1.3301E+02   1.3625E+02   0.0000E+00  0.0000
   1.3625E+02   1.3956E+02   0.0000E+00  0.0000
   1.3956E+02   1.4296E+02   0.0000E+00  0.0000
   1.4296E+02   1.4644E+02   0.0000E+00  0.0000
   1.4644E+02   1.5000E+02   0.0000E+00  0.0000

#   sum over                 8.9336E-07
'no. =    1   reg = 126 - 226'
msuc: {\huge [t-cross] in region mesh}
msdr: {\it plotted by \ANGEL \version}
msdl: {\it calculated by \PHITS  3.26}
wt: s(0.7)
\vspace{-3}
  region surface crossing
  area  &=&   1.0000E+00 [cm^2]
e:
 
# Information for Restart Calculation
# This calculation was newly started
# istdev =  2 # 1:Batch variance, 2:History variance
# resc2  = 5.00000000000000000E+09 # Total source weight or Total source weight / maxcas
# resc3  = 5.00000000000000000E+09 # Total history number or Total batch number
# maxcas =   100000000 # History / Batch, only used for istdev=1
# bitrseed = 0110100000100010111000001110001111001110100100011111101000111001 # bit data of rseed
