[ T-Cross ]
    title = [t-cross] in region mesh
     mesh =  reg            # mesh type is region-wise
      reg =    1            # number of crossing regions
      non     r-from    r-to       area
      1       104       204        1.000000    
   e-type =    3            # e-mesh is log given by emin, emax and ne
     emin =  1.0000000E-02  # minimum value of e-mesh points
     emax =   150.0000      # maximum value of e-mesh points
#    edel =  2.4039514E-02  # mesh width of e-mesh points
       ne =    400          # number of e-mesh points
#    data = ( e(i), i = 1, ne + 1 )
#           1.00000E-02  1.02433E-02  1.04925E-02  1.07478E-02  1.10093E-02
#           1.12772E-02  1.15516E-02  1.18326E-02  1.21205E-02  1.24154E-02
#           1.27175E-02  1.30269E-02  1.33439E-02  1.36686E-02  1.40011E-02
#           1.43418E-02  1.46907E-02  1.50482E-02  1.54143E-02  1.57894E-02
#           1.61735E-02  1.65670E-02  1.69701E-02  1.73830E-02  1.78060E-02
#           1.82392E-02  1.86830E-02  1.91375E-02  1.96032E-02  2.00801E-02
#           2.05687E-02  2.10692E-02  2.15818E-02  2.21069E-02  2.26448E-02
#           2.31957E-02  2.37601E-02  2.43382E-02  2.49304E-02  2.55369E-02
#           2.61583E-02  2.67947E-02  2.74467E-02  2.81145E-02  2.87985E-02
#           2.94992E-02  3.02169E-02  3.09521E-02  3.17052E-02  3.24766E-02
#           3.32668E-02  3.40762E-02  3.49053E-02  3.57546E-02  3.66246E-02
#           3.75157E-02  3.84284E-02  3.93634E-02  4.03212E-02  4.13022E-02
#           4.23071E-02  4.33365E-02  4.43909E-02  4.54710E-02  4.65773E-02
#           4.77106E-02  4.88714E-02  5.00605E-02  5.12785E-02  5.25262E-02
#           5.38042E-02  5.51133E-02  5.64542E-02  5.78278E-02  5.92348E-02
#           6.06760E-02  6.21523E-02  6.36645E-02  6.52135E-02  6.68002E-02
#           6.84255E-02  7.00904E-02  7.17957E-02  7.35426E-02  7.53319E-02
#           7.71648E-02  7.90423E-02  8.09655E-02  8.29354E-02  8.49533E-02
#           8.70203E-02  8.91376E-02  9.13064E-02  9.35279E-02  9.58035E-02
#           9.81345E-02  1.00522E-01  1.02968E-01  1.05473E-01  1.08040E-01
#           1.10668E-01  1.13361E-01  1.16119E-01  1.18944E-01  1.21838E-01
#           1.24803E-01  1.27839E-01  1.30950E-01  1.34136E-01  1.37399E-01
#           1.40742E-01  1.44167E-01  1.47675E-01  1.51268E-01  1.54948E-01
#           1.58718E-01  1.62580E-01  1.66535E-01  1.70587E-01  1.74738E-01
#           1.78989E-01  1.83344E-01  1.87805E-01  1.92375E-01  1.97055E-01
#           2.01850E-01  2.06761E-01  2.11792E-01  2.16945E-01  2.22223E-01
#           2.27630E-01  2.33169E-01  2.38842E-01  2.44653E-01  2.50605E-01
#           2.56703E-01  2.62949E-01  2.69346E-01  2.75900E-01  2.82613E-01
#           2.89489E-01  2.96532E-01  3.03747E-01  3.11138E-01  3.18708E-01
#           3.26462E-01  3.34405E-01  3.42542E-01  3.50876E-01  3.59413E-01
#           3.68158E-01  3.77116E-01  3.86291E-01  3.95690E-01  4.05317E-01
#           4.15179E-01  4.25281E-01  4.35628E-01  4.46227E-01  4.57084E-01
#           4.68205E-01  4.79597E-01  4.91266E-01  5.03219E-01  5.15463E-01
#           5.28005E-01  5.40851E-01  5.54011E-01  5.67490E-01  5.81298E-01
#           5.95441E-01  6.09929E-01  6.24769E-01  6.39970E-01  6.55541E-01
#           6.71491E-01  6.87828E-01  7.04564E-01  7.21706E-01  7.39266E-01
#           7.57253E-01  7.75678E-01  7.94551E-01  8.13883E-01  8.33685E-01
#           8.53969E-01  8.74747E-01  8.96030E-01  9.17831E-01  9.40163E-01
#           9.63038E-01  9.86469E-01  1.01047E+00  1.03506E+00  1.06024E+00
#           1.08604E+00  1.11246E+00  1.13953E+00  1.16725E+00  1.19565E+00
#           1.22474E+00  1.25454E+00  1.28507E+00  1.31633E+00  1.34836E+00
#           1.38117E+00  1.41477E+00  1.44920E+00  1.48446E+00  1.52057E+00
#           1.55757E+00  1.59547E+00  1.63429E+00  1.67405E+00  1.71478E+00
#           1.75650E+00  1.79924E+00  1.84302E+00  1.88786E+00  1.93379E+00
#           1.98084E+00  2.02904E+00  2.07841E+00  2.12898E+00  2.18078E+00
#           2.23384E+00  2.28819E+00  2.34386E+00  2.40089E+00  2.45930E+00
#           2.51914E+00  2.58043E+00  2.64322E+00  2.70753E+00  2.77341E+00
#           2.84088E+00  2.91001E+00  2.98081E+00  3.05333E+00  3.12762E+00
#           3.20372E+00  3.28167E+00  3.36152E+00  3.44330E+00  3.52708E+00
#           3.61290E+00  3.70080E+00  3.79085E+00  3.88308E+00  3.97756E+00
#           4.07434E+00  4.17347E+00  4.27501E+00  4.37903E+00  4.48557E+00
#           4.59471E+00  4.70650E+00  4.82102E+00  4.93832E+00  5.05847E+00
#           5.18155E+00  5.30762E+00  5.43676E+00  5.56904E+00  5.70453E+00
#           5.84333E+00  5.98550E+00  6.13114E+00  6.28031E+00  6.43312E+00
#           6.58964E+00  6.74997E+00  6.91420E+00  7.08243E+00  7.25475E+00
#           7.43126E+00  7.61207E+00  7.79728E+00  7.98700E+00  8.18133E+00
#           8.38038E+00  8.58428E+00  8.79315E+00  9.00709E+00  9.22624E+00
#           9.45072E+00  9.68067E+00  9.91620E+00  1.01575E+01  1.04046E+01
#           1.06578E+01  1.09171E+01  1.11827E+01  1.14548E+01  1.17335E+01
#           1.20190E+01  1.23114E+01  1.26109E+01  1.29178E+01  1.32321E+01
#           1.35540E+01  1.38838E+01  1.42216E+01  1.45676E+01  1.49221E+01
#           1.52851E+01  1.56570E+01  1.60380E+01  1.64282E+01  1.68279E+01
#           1.72374E+01  1.76568E+01  1.80864E+01  1.85264E+01  1.89772E+01
#           1.94389E+01  1.99119E+01  2.03963E+01  2.08926E+01  2.14009E+01
#           2.19216E+01  2.24550E+01  2.30014E+01  2.35610E+01  2.41343E+01
#           2.47215E+01  2.53230E+01  2.59391E+01  2.65702E+01  2.72167E+01
#           2.78789E+01  2.85572E+01  2.92520E+01  2.99637E+01  3.06928E+01
#           3.14396E+01  3.22045E+01  3.29881E+01  3.37907E+01  3.46128E+01
#           3.54550E+01  3.63177E+01  3.72013E+01  3.81064E+01  3.90336E+01
#           3.99833E+01  4.09561E+01  4.19526E+01  4.29734E+01  4.40189E+01
#           4.50900E+01  4.61870E+01  4.73108E+01  4.84619E+01  4.96410E+01
#           5.08488E+01  5.20860E+01  5.33533E+01  5.46514E+01  5.59812E+01
#           5.73432E+01  5.87384E+01  6.01676E+01  6.16315E+01  6.31311E+01
#           6.46671E+01  6.62405E+01  6.78522E+01  6.95031E+01  7.11941E+01
#           7.29263E+01  7.47007E+01  7.65182E+01  7.83800E+01  8.02870E+01
#           8.22405E+01  8.42414E+01  8.62911E+01  8.83906E+01  9.05412E+01
#           9.27442E+01  9.50007E+01  9.73122E+01  9.96799E+01  1.02105E+02
#           1.04589E+02  1.07134E+02  1.09741E+02  1.12411E+02  1.15146E+02
#           1.17948E+02  1.20817E+02  1.23757E+02  1.26768E+02  1.29852E+02
#           1.33012E+02  1.36248E+02  1.39563E+02  1.42959E+02  1.46437E+02
#           1.50000E+02
     unit =    2            # unit is [1/cm^2/(MeV/n)/source]
     axis =  eng            # axis of output
     file = detector-05.out  # file name of output for the above axis
   output = f-curr          # surface crossing forward current spectrum
     part =  neutron  
# kf/name :  2112     
#    used :        main (  %)        temp (  %)       total (  %)
#  memory :         414 (  0)           0 (  0)         414 (  0)

#------------------------------------------------------------------------------
#newpage:
#   no. =    1   reg = 104 - 204

x: Energy [MeV/n]
y:  F-Curr [1/cm^2/(MeV/n)/source]         
p: xlog ylog afac(0.8) form(0.9)
h: n            x            y(neutron ),hh0l   n 
#  e-lower      e-upper      neutron     r.err 
   1.0000E-02   1.0243E-02   6.9048E-05  0.1091
   1.0243E-02   1.0493E-02   6.5803E-05  0.1104
   1.0493E-02   1.0748E-02   7.0508E-05  0.1054
   1.0748E-02   1.1009E-02   5.6596E-05  0.1162
   1.1009E-02   1.1277E-02   7.8397E-05  0.0976
   1.1277E-02   1.1552E-02   6.0499E-05  0.1098
   1.1552E-02   1.1833E-02   8.2545E-05  0.0928
   1.1833E-02   1.2121E-02   6.5996E-05  0.1026
   1.2121E-02   1.2415E-02   6.5785E-05  0.1015
   1.2415E-02   1.2718E-02   8.2760E-05  0.0894
   1.2718E-02   1.3027E-02   5.8818E-05  0.1048
   1.3027E-02   1.3344E-02   7.8875E-05  0.0894
   1.3344E-02   1.3669E-02   7.2074E-05  0.0925
   1.3669E-02   1.4001E-02   6.2544E-05  0.0981
   1.4001E-02   1.4342E-02   7.3974E-05  0.0891
   1.4342E-02   1.4691E-02   7.3937E-05  0.0880
   1.4691E-02   1.5048E-02   8.3371E-05  0.0819
   1.5048E-02   1.5414E-02   7.0466E-05  0.0880
   1.5414E-02   1.5789E-02   7.9458E-05  0.0819
   1.5789E-02   1.6174E-02   6.0390E-05  0.0928
   1.6174E-02   1.6567E-02   7.9794E-05  0.0798
   1.6567E-02   1.6970E-02   6.8967E-05  0.0848
   1.6970E-02   1.7383E-02   6.5392E-05  0.0861
   1.7383E-02   1.7806E-02   7.2350E-05  0.0808
   1.7806E-02   1.8239E-02   7.0170E-05  0.0811
   1.8239E-02   1.8683E-02   6.9855E-05  0.0803
   1.8683E-02   1.9138E-02   7.2596E-05  0.0778
   1.9138E-02   1.9603E-02   7.6455E-05  0.0750
   1.9603E-02   2.0080E-02   7.2123E-05  0.0762
   2.0080E-02   2.0569E-02   7.9826E-05  0.0716
   2.0569E-02   2.1069E-02   8.7920E-05  0.0674
   2.1069E-02   2.1582E-02   6.9836E-05  0.0747
   2.1582E-02   2.2107E-02   8.3032E-05  0.0677
   2.2107E-02   2.2645E-02   8.8124E-05  0.0650
   2.2645E-02   2.3196E-02   7.6956E-05  0.0687
   2.3196E-02   2.3760E-02   7.4419E-05  0.0690
   2.3760E-02   2.4338E-02   8.5798E-05  0.0635
   2.4338E-02   2.4930E-02   8.6462E-05  0.0625
   2.4930E-02   2.5537E-02   8.6387E-05  0.0618
   2.5537E-02   2.6158E-02   8.9163E-05  0.0601
   2.6158E-02   2.6795E-02   8.0446E-05  0.0625
   2.6795E-02   2.7447E-02   8.6205E-05  0.0597
   2.7447E-02   2.8114E-02   9.5837E-05  0.0559
   2.8114E-02   2.8799E-02   8.5667E-05  0.0584
   2.8799E-02   2.9499E-02   9.1053E-05  0.0560
   2.9499E-02   3.0217E-02   8.3039E-05  0.0579
   3.0217E-02   3.0952E-02   9.3852E-05  0.0538
   3.0952E-02   3.1705E-02   8.5514E-05  0.0557
   3.1705E-02   3.2477E-02   9.4372E-05  0.0524
   3.2477E-02   3.3267E-02   9.8964E-05  0.0506
   3.3267E-02   3.4076E-02   9.3896E-05  0.0513
   3.4076E-02   3.4905E-02   9.6008E-05  0.0501
   3.4905E-02   3.5755E-02   9.7259E-05  0.0492
   3.5755E-02   3.6625E-02   1.0254E-04  0.0474
   3.6625E-02   3.7516E-02   9.2470E-05  0.0493
   3.7516E-02   3.8428E-02   1.0101E-04  0.0466
   3.8428E-02   3.9363E-02   1.0310E-04  0.0455
   3.9363E-02   4.0321E-02   1.0191E-04  0.0453
   4.0321E-02   4.1302E-02   1.0275E-04  0.0445
   4.1302E-02   4.2307E-02   1.1105E-04  0.0423
   4.2307E-02   4.3337E-02   1.1036E-04  0.0420
   4.3337E-02   4.4391E-02   1.0470E-04  0.0426
   4.4391E-02   4.5471E-02   1.1629E-04  0.0399
   4.5471E-02   4.6577E-02   1.0630E-04  0.0412
   4.6577E-02   4.7711E-02   1.0589E-04  0.0408
   4.7711E-02   4.8871E-02   1.1733E-04  0.0383
   4.8871E-02   5.0061E-02   1.0630E-04  0.0398
   5.0061E-02   5.1279E-02   1.1626E-04  0.0376
   5.1279E-02   5.2526E-02   1.0852E-04  0.0384
   5.2526E-02   5.3804E-02   1.1534E-04  0.0368
   5.3804E-02   5.5113E-02   1.1764E-04  0.0360
   5.5113E-02   5.6454E-02   1.1648E-04  0.0358
   5.6454E-02   5.7828E-02   1.1401E-04  0.0357
   5.7828E-02   5.9235E-02   1.2537E-04  0.0337
   5.9235E-02   6.0676E-02   1.2531E-04  0.0333
   6.0676E-02   6.2152E-02   1.2138E-04  0.0334
   6.2152E-02   6.3665E-02   1.2419E-04  0.0326
   6.3665E-02   6.5214E-02   1.1737E-04  0.0332
   6.5214E-02   6.6800E-02   1.3172E-04  0.0309
   6.6800E-02   6.8426E-02   1.3573E-04  0.0301
   6.8426E-02   7.0090E-02   1.2662E-04  0.0308
   7.0090E-02   7.1796E-02   1.2725E-04  0.0304
   7.1796E-02   7.3543E-02   1.2789E-04  0.0299
   7.3543E-02   7.5332E-02   1.3569E-04  0.0287
   7.5332E-02   7.7165E-02   1.3345E-04  0.0286
   7.7165E-02   7.9042E-02   1.4211E-04  0.0274
   7.9042E-02   8.0965E-02   1.4351E-04  0.0269
   8.0965E-02   8.2935E-02   1.4559E-04  0.0264
   8.2935E-02   8.4953E-02   1.4431E-04  0.0262
   8.4953E-02   8.7020E-02   1.4117E-04  0.0262
   8.7020E-02   8.9138E-02   1.4377E-04  0.0256
   8.9138E-02   9.1306E-02   1.4884E-04  0.0249
   9.1306E-02   9.3528E-02   1.4845E-04  0.0246
   9.3528E-02   9.5804E-02   1.5134E-04  0.0241
   9.5804E-02   9.8134E-02   1.5702E-04  0.0234
   9.8134E-02   1.0052E-01   1.5932E-04  0.0229
   1.0052E-01   1.0297E-01   1.5439E-04  0.0230
   1.0297E-01   1.0547E-01   1.5711E-04  0.0225
   1.0547E-01   1.0804E-01   1.5712E-04  0.0223
   1.0804E-01   1.1067E-01   1.6267E-04  0.0216
   1.1067E-01   1.1336E-01   1.6385E-04  0.0213
   1.1336E-01   1.1612E-01   1.6903E-04  0.0207
   1.1612E-01   1.1894E-01   1.6869E-04  0.0205
   1.1894E-01   1.2184E-01   1.7236E-04  0.0200
   1.2184E-01   1.2480E-01   1.7049E-04  0.0199
   1.2480E-01   1.2784E-01   1.7454E-04  0.0194
   1.2784E-01   1.3095E-01   1.7412E-04  0.0192
   1.3095E-01   1.3414E-01   1.8022E-04  0.0187
   1.3414E-01   1.3740E-01   1.7349E-04  0.0188
   1.3740E-01   1.4074E-01   1.8606E-04  0.0179
   1.4074E-01   1.4417E-01   1.8637E-04  0.0177
   1.4417E-01   1.4767E-01   1.8234E-04  0.0177
   1.4767E-01   1.5127E-01   1.8664E-04  0.0173
   1.5127E-01   1.5495E-01   1.9275E-04  0.0168
   1.5495E-01   1.5872E-01   1.9613E-04  0.0164
   1.5872E-01   1.6258E-01   1.9520E-04  0.0163
   1.6258E-01   1.6654E-01   1.9481E-04  0.0161
   1.6654E-01   1.7059E-01   2.0158E-04  0.0156
   1.7059E-01   1.7474E-01   1.9578E-04  0.0157
   1.7474E-01   1.7899E-01   2.0214E-04  0.0153
   1.7899E-01   1.8334E-01   2.0124E-04  0.0151
   1.8334E-01   1.8781E-01   1.9897E-04  0.0150
   1.8781E-01   1.9237E-01   2.0847E-04  0.0145
   1.9237E-01   1.9706E-01   2.1008E-04  0.0143
   1.9706E-01   2.0185E-01   2.1228E-04  0.0140
   2.0185E-01   2.0676E-01   2.1131E-04  0.0139
   2.0676E-01   2.1179E-01   2.1941E-04  0.0135
   2.1179E-01   2.1694E-01   2.1870E-04  0.0133
   2.1694E-01   2.2222E-01   2.2056E-04  0.0131
   2.2222E-01   2.2763E-01   2.1968E-04  0.0130
   2.2763E-01   2.3317E-01   2.2324E-04  0.0127
   2.3317E-01   2.3884E-01   2.3246E-04  0.0123
   2.3884E-01   2.4465E-01   2.2656E-04  0.0123
   2.4465E-01   2.5061E-01   2.3180E-04  0.0120
   2.5061E-01   2.5670E-01   2.2918E-04  0.0120
   2.5670E-01   2.6295E-01   2.3608E-04  0.0116
   2.6295E-01   2.6935E-01   2.3418E-04  0.0116
   2.6935E-01   2.7590E-01   2.3682E-04  0.0114
   2.7590E-01   2.8261E-01   2.3786E-04  0.0112
   2.8261E-01   2.8949E-01   2.3973E-04  0.0110
   2.8949E-01   2.9653E-01   2.3860E-04  0.0109
   2.9653E-01   3.0375E-01   2.4804E-04  0.0106
   3.0375E-01   3.1114E-01   2.4326E-04  0.0105
   3.1114E-01   3.1871E-01   2.4530E-04  0.0104
   3.1871E-01   3.2646E-01   2.4755E-04  0.0102
   3.2646E-01   3.3441E-01   2.5111E-04  0.0100
   3.3441E-01   3.4254E-01   2.5178E-04  0.0099
   3.4254E-01   3.5088E-01   2.4823E-04  0.0098
   3.5088E-01   3.5941E-01   2.4908E-04  0.0097
   3.5941E-01   3.6816E-01   2.4986E-04  0.0096
   3.6816E-01   3.7712E-01   2.5502E-04  0.0094
   3.7712E-01   3.8629E-01   2.5261E-04  0.0093
   3.8629E-01   3.9569E-01   2.5512E-04  0.0091
   3.9569E-01   4.0532E-01   2.5438E-04  0.0090
   4.0532E-01   4.1518E-01   2.5799E-04  0.0089
   4.1518E-01   4.2528E-01   2.5641E-04  0.0088
   4.2528E-01   4.3563E-01   2.5469E-04  0.0087
   4.3563E-01   4.4623E-01   2.5859E-04  0.0085
   4.4623E-01   4.5708E-01   2.5360E-04  0.0085
   4.5708E-01   4.6821E-01   2.5573E-04  0.0084
   4.6821E-01   4.7960E-01   2.5729E-04  0.0083
   4.7960E-01   4.9127E-01   2.5447E-04  0.0082
   4.9127E-01   5.0322E-01   2.5612E-04  0.0081
   5.0322E-01   5.1546E-01   2.5558E-04  0.0080
   5.1546E-01   5.2800E-01   2.5470E-04  0.0079
   5.2800E-01   5.4085E-01   2.5676E-04  0.0078
   5.4085E-01   5.5401E-01   2.5451E-04  0.0077
   5.5401E-01   5.6749E-01   2.5341E-04  0.0077
   5.6749E-01   5.8130E-01   2.5168E-04  0.0076
   5.8130E-01   5.9544E-01   2.5478E-04  0.0075
   5.9544E-01   6.0993E-01   2.4714E-04  0.0075
   6.0993E-01   6.2477E-01   2.4349E-04  0.0074
   6.2477E-01   6.3997E-01   2.4773E-04  0.0073
   6.3997E-01   6.5554E-01   2.4618E-04  0.0072
   6.5554E-01   6.7149E-01   2.4297E-04  0.0072
   6.7149E-01   6.8783E-01   2.4053E-04  0.0071
   6.8783E-01   7.0456E-01   2.3843E-04  0.0071
   7.0456E-01   7.2171E-01   2.3208E-04  0.0071
   7.2171E-01   7.3927E-01   2.3344E-04  0.0070
   7.3927E-01   7.5725E-01   2.2774E-04  0.0070
   7.5725E-01   7.7568E-01   2.2370E-04  0.0070
   7.7568E-01   7.9455E-01   2.2463E-04  0.0069
   7.9455E-01   8.1388E-01   2.1825E-04  0.0069
   8.1388E-01   8.3368E-01   2.1434E-04  0.0069
   8.3368E-01   8.5397E-01   2.0745E-04  0.0069
   8.5397E-01   8.7475E-01   2.0066E-04  0.0069
   8.7475E-01   8.9603E-01   1.9660E-04  0.0069
   8.9603E-01   9.1783E-01   1.9002E-04  0.0069
   9.1783E-01   9.4016E-01   1.8154E-04  0.0070
   9.4016E-01   9.6304E-01   1.7385E-04  0.0071
   9.6304E-01   9.8647E-01   1.6480E-04  0.0072
   9.8647E-01   1.0105E+00   1.5716E-04  0.0073
   1.0105E+00   1.0351E+00   1.5585E-04  0.0072
   1.0351E+00   1.0602E+00   1.5296E-04  0.0072
   1.0602E+00   1.0860E+00   1.5025E-04  0.0072
   1.0860E+00   1.1125E+00   1.4997E-04  0.0071
   1.1125E+00   1.1395E+00   1.4774E-04  0.0071
   1.1395E+00   1.1673E+00   1.4663E-04  0.0070
   1.1673E+00   1.1957E+00   1.4732E-04  0.0069
   1.1957E+00   1.2247E+00   1.4634E-04  0.0069
   1.2247E+00   1.2545E+00   1.4417E-04  0.0068
   1.2545E+00   1.2851E+00   1.4283E-04  0.0068
   1.2851E+00   1.3163E+00   1.3892E-04  0.0068
   1.3163E+00   1.3484E+00   1.3586E-04  0.0068
   1.3484E+00   1.3812E+00   1.3598E-04  0.0067
   1.3812E+00   1.4148E+00   1.3377E-04  0.0067
   1.4148E+00   1.4492E+00   1.3022E-04  0.0067
   1.4492E+00   1.4845E+00   1.2745E-04  0.0067
   1.4845E+00   1.5206E+00   1.2398E-04  0.0067
   1.5206E+00   1.5576E+00   1.2071E-04  0.0067
   1.5576E+00   1.5955E+00   1.1833E-04  0.0067
   1.5955E+00   1.6343E+00   1.1442E-04  0.0067
   1.6343E+00   1.6741E+00   1.1303E-04  0.0067
   1.6741E+00   1.7148E+00   1.1013E-04  0.0067
   1.7148E+00   1.7565E+00   1.0731E-04  0.0067
   1.7565E+00   1.7992E+00   1.0244E-04  0.0068
   1.7992E+00   1.8430E+00   9.9203E-05  0.0068
   1.8430E+00   1.8879E+00   9.6258E-05  0.0068
   1.8879E+00   1.9338E+00   9.3314E-05  0.0068
   1.9338E+00   1.9808E+00   8.8492E-05  0.0069
   1.9808E+00   2.0290E+00   8.7568E-05  0.0069
   2.0290E+00   2.0784E+00   8.4022E-05  0.0069
   2.0784E+00   2.1290E+00   8.1203E-05  0.0070
   2.1290E+00   2.1808E+00   7.7394E-05  0.0071
   2.1808E+00   2.2338E+00   7.3468E-05  0.0072
   2.2338E+00   2.2882E+00   7.0663E-05  0.0072
   2.2882E+00   2.3439E+00   6.7361E-05  0.0073
   2.3439E+00   2.4009E+00   6.5070E-05  0.0073
   2.4009E+00   2.4593E+00   6.2418E-05  0.0074
   2.4593E+00   2.5191E+00   5.9067E-05  0.0075
   2.5191E+00   2.5804E+00   5.5798E-05  0.0076
   2.5804E+00   2.6432E+00   5.4046E-05  0.0077
   2.6432E+00   2.7075E+00   5.1055E-05  0.0078
   2.7075E+00   2.7734E+00   4.8202E-05  0.0079
   2.7734E+00   2.8409E+00   4.6106E-05  0.0080
   2.8409E+00   2.9100E+00   4.3671E-05  0.0081
   2.9100E+00   2.9808E+00   4.1340E-05  0.0083
   2.9808E+00   3.0533E+00   3.9459E-05  0.0084
   3.0533E+00   3.1276E+00   3.7227E-05  0.0085
   3.1276E+00   3.2037E+00   3.5483E-05  0.0086
   3.2037E+00   3.2817E+00   3.3068E-05  0.0088
   3.2817E+00   3.3615E+00   3.1578E-05  0.0089
   3.3615E+00   3.4433E+00   2.9816E-05  0.0091
   3.4433E+00   3.5271E+00   2.8571E-05  0.0091
   3.5271E+00   3.6129E+00   2.6792E-05  0.0093
   3.6129E+00   3.7008E+00   2.5687E-05  0.0094
   3.7008E+00   3.7908E+00   2.3797E-05  0.0097
   3.7908E+00   3.8831E+00   2.2731E-05  0.0098
   3.8831E+00   3.9776E+00   2.2172E-05  0.0098
   3.9776E+00   4.0743E+00   2.0565E-05  0.0100
   4.0743E+00   4.1735E+00   1.9221E-05  0.0102
   4.1735E+00   4.2750E+00   1.8579E-05  0.0103
   4.2750E+00   4.3790E+00   1.7628E-05  0.0104
   4.3790E+00   4.4856E+00   1.6787E-05  0.0106
   4.4856E+00   4.5947E+00   1.5907E-05  0.0107
   4.5947E+00   4.7065E+00   1.5201E-05  0.0108
   4.7065E+00   4.8210E+00   1.4730E-05  0.0109
   4.8210E+00   4.9383E+00   1.4029E-05  0.0110
   4.9383E+00   5.0585E+00   1.3576E-05  0.0111
   5.0585E+00   5.1815E+00   1.2929E-05  0.0112
   5.1815E+00   5.3076E+00   1.2547E-05  0.0112
   5.3076E+00   5.4368E+00   1.2430E-05  0.0112
   5.4368E+00   5.5690E+00   1.1668E-05  0.0114
   5.5690E+00   5.7045E+00   1.1553E-05  0.0113
   5.7045E+00   5.8433E+00   1.1068E-05  0.0114
   5.8433E+00   5.9855E+00   1.0941E-05  0.0113
   5.9855E+00   6.1311E+00   1.0798E-05  0.0113
   6.1311E+00   6.2803E+00   1.0586E-05  0.0113
   6.2803E+00   6.4331E+00   1.0189E-05  0.0113
   6.4331E+00   6.5896E+00   9.9008E-06  0.0114
   6.5896E+00   6.7500E+00   9.9687E-06  0.0112
   6.7500E+00   6.9142E+00   9.6632E-06  0.0112
   6.9142E+00   7.0824E+00   9.5085E-06  0.0112
   7.0824E+00   7.2548E+00   9.5264E-06  0.0110
   7.2548E+00   7.4313E+00   9.4418E-06  0.0110
   7.4313E+00   7.6121E+00   9.2695E-06  0.0109
   7.6121E+00   7.7973E+00   9.0893E-06  0.0109
   7.7973E+00   7.9870E+00   9.1923E-06  0.0107
   7.9870E+00   8.1813E+00   9.1792E-06  0.0106
   8.1813E+00   8.3804E+00   9.0526E-06  0.0105
   8.3804E+00   8.5843E+00   9.3290E-06  0.0103
   8.5843E+00   8.7931E+00   9.1261E-06  0.0102
   8.7931E+00   9.0071E+00   9.2833E-06  0.0100
   9.0071E+00   9.2262E+00   9.1600E-06  0.0100
   9.2262E+00   9.4507E+00   9.4956E-06  0.0097
   9.4507E+00   9.6807E+00   9.2858E-06  0.0097
   9.6807E+00   9.9162E+00   9.3947E-06  0.0095
   9.9162E+00   1.0157E+01   9.4629E-06  0.0094
   1.0157E+01   1.0405E+01   9.5614E-06  0.0092
   1.0405E+01   1.0658E+01   9.6361E-06  0.0091
   1.0658E+01   1.0917E+01   9.8426E-06  0.0089
   1.0917E+01   1.1183E+01   9.9115E-06  0.0087
   1.1183E+01   1.1455E+01   9.9885E-06  0.0086
   1.1455E+01   1.1733E+01   1.0099E-05  0.0084
   1.1733E+01   1.2019E+01   1.0420E-05  0.0082
   1.2019E+01   1.2311E+01   1.0529E-05  0.0081
   1.2311E+01   1.2611E+01   1.0800E-05  0.0079
   1.2611E+01   1.2918E+01   1.0950E-05  0.0077
   1.2918E+01   1.3232E+01   1.1298E-05  0.0075
   1.3232E+01   1.3554E+01   1.1544E-05  0.0073
   1.3554E+01   1.3884E+01   1.1697E-05  0.0072
   1.3884E+01   1.4222E+01   1.2017E-05  0.0070
   1.4222E+01   1.4568E+01   1.2335E-05  0.0068
   1.4568E+01   1.4922E+01   1.2936E-05  0.0066
   1.4922E+01   1.5285E+01   1.3246E-05  0.0064
   1.5285E+01   1.5657E+01   1.3677E-05  0.0063
   1.5657E+01   1.6038E+01   1.4024E-05  0.0061
   1.6038E+01   1.6428E+01   1.4483E-05  0.0059
   1.6428E+01   1.6828E+01   1.5094E-05  0.0058
   1.6828E+01   1.7237E+01   1.5776E-05  0.0056
   1.7237E+01   1.7657E+01   1.6248E-05  0.0054
   1.7657E+01   1.8086E+01   1.7070E-05  0.0052
   1.8086E+01   1.8526E+01   1.7866E-05  0.0050
   1.8526E+01   1.8977E+01   1.8610E-05  0.0049
   1.8977E+01   1.9439E+01   1.9462E-05  0.0047
   1.9439E+01   1.9912E+01   2.0267E-05  0.0046
   1.9912E+01   2.0396E+01   2.1558E-05  0.0044
   2.0396E+01   2.0893E+01   2.2829E-05  0.0042
   2.0893E+01   2.1401E+01   2.3807E-05  0.0041
   2.1401E+01   2.1922E+01   2.4519E-05  0.0040
   2.1922E+01   2.2455E+01   2.5467E-05  0.0038
   2.2455E+01   2.3001E+01   2.6334E-05  0.0037
   2.3001E+01   2.3561E+01   2.7083E-05  0.0036
   2.3561E+01   2.4134E+01   2.7827E-05  0.0035
   2.4134E+01   2.4721E+01   2.8557E-05  0.0035
   2.4721E+01   2.5323E+01   2.8806E-05  0.0034
   2.5323E+01   2.5939E+01   2.9356E-05  0.0033
   2.5939E+01   2.6570E+01   2.9449E-05  0.0033
   2.6570E+01   2.7217E+01   2.9331E-05  0.0032
   2.7217E+01   2.7879E+01   2.8976E-05  0.0032
   2.7879E+01   2.8557E+01   2.8434E-05  0.0032
   2.8557E+01   2.9252E+01   2.7735E-05  0.0032
   2.9252E+01   2.9964E+01   2.6891E-05  0.0032
   2.9964E+01   3.0693E+01   2.5722E-05  0.0033
   3.0693E+01   3.1440E+01   2.4747E-05  0.0033
   3.1440E+01   3.2205E+01   2.3504E-05  0.0033
   3.2205E+01   3.2988E+01   2.2187E-05  0.0034
   3.2988E+01   3.3791E+01   2.0863E-05  0.0035
   3.3791E+01   3.4613E+01   1.9323E-05  0.0035
   3.4613E+01   3.5455E+01   1.7925E-05  0.0036
   3.5455E+01   3.6318E+01   1.6776E-05  0.0037
   3.6318E+01   3.7201E+01   1.5420E-05  0.0038
   3.7201E+01   3.8106E+01   1.4145E-05  0.0040
   3.8106E+01   3.9034E+01   1.3056E-05  0.0041
   3.9034E+01   3.9983E+01   1.1914E-05  0.0042
   3.9983E+01   4.0956E+01   1.1017E-05  0.0043
   4.0956E+01   4.1953E+01   1.0086E-05  0.0045
   4.1953E+01   4.2973E+01   9.1747E-06  0.0046
   4.2973E+01   4.4019E+01   8.3766E-06  0.0048
   4.4019E+01   4.5090E+01   7.5909E-06  0.0050
   4.5090E+01   4.6187E+01   6.8980E-06  0.0051
   4.6187E+01   4.7311E+01   6.3024E-06  0.0053
   4.7311E+01   4.8462E+01   5.5614E-06  0.0056
   4.8462E+01   4.9641E+01   5.0492E-06  0.0058
   4.9641E+01   5.0849E+01   4.4471E-06  0.0061
   5.0849E+01   5.2086E+01   3.8542E-06  0.0065
   5.2086E+01   5.3353E+01   3.3034E-06  0.0069
   5.3353E+01   5.4651E+01   2.7903E-06  0.0074
   5.4651E+01   5.5981E+01   2.3342E-06  0.0080
   5.5981E+01   5.7343E+01   1.9003E-06  0.0088
   5.7343E+01   5.8738E+01   1.5254E-06  0.0097
   5.8738E+01   6.0168E+01   1.1794E-06  0.0109
   6.0168E+01   6.1632E+01   8.7423E-07  0.0125
   6.1632E+01   6.3131E+01   5.9445E-07  0.0150
   6.3131E+01   6.4667E+01   3.5455E-07  0.0192
   6.4667E+01   6.6240E+01   1.5139E-07  0.0290
   6.6240E+01   6.7852E+01   1.1665E-08  0.1031
   6.7852E+01   6.9503E+01   0.0000E+00  0.0000
   6.9503E+01   7.1194E+01   0.0000E+00  0.0000
   7.1194E+01   7.2926E+01   0.0000E+00  0.0000
   7.2926E+01   7.4701E+01   0.0000E+00  0.0000
   7.4701E+01   7.6518E+01   0.0000E+00  0.0000
   7.6518E+01   7.8380E+01   0.0000E+00  0.0000
   7.8380E+01   8.0287E+01   0.0000E+00  0.0000
   8.0287E+01   8.2240E+01   0.0000E+00  0.0000
   8.2240E+01   8.4241E+01   0.0000E+00  0.0000
   8.4241E+01   8.6291E+01   0.0000E+00  0.0000
   8.6291E+01   8.8391E+01   0.0000E+00  0.0000
   8.8391E+01   9.0541E+01   0.0000E+00  0.0000
   9.0541E+01   9.2744E+01   0.0000E+00  0.0000
   9.2744E+01   9.5001E+01   0.0000E+00  0.0000
   9.5001E+01   9.7312E+01   0.0000E+00  0.0000
   9.7312E+01   9.9680E+01   0.0000E+00  0.0000
   9.9680E+01   1.0211E+02   0.0000E+00  0.0000
   1.0211E+02   1.0459E+02   0.0000E+00  0.0000
   1.0459E+02   1.0713E+02   0.0000E+00  0.0000
   1.0713E+02   1.0974E+02   0.0000E+00  0.0000
   1.0974E+02   1.1241E+02   0.0000E+00  0.0000
   1.1241E+02   1.1515E+02   0.0000E+00  0.0000
   1.1515E+02   1.1795E+02   0.0000E+00  0.0000
   1.1795E+02   1.2082E+02   0.0000E+00  0.0000
   1.2082E+02   1.2376E+02   0.0000E+00  0.0000
   1.2376E+02   1.2677E+02   0.0000E+00  0.0000
   1.2677E+02   1.2985E+02   0.0000E+00  0.0000
   1.2985E+02   1.3301E+02   0.0000E+00  0.0000
   1.3301E+02   1.3625E+02   0.0000E+00  0.0000
   1.3625E+02   1.3956E+02   0.0000E+00  0.0000
   1.3956E+02   1.4296E+02   0.0000E+00  0.0000
   1.4296E+02   1.4644E+02   0.0000E+00  0.0000
   1.4644E+02   1.5000E+02   0.0000E+00  0.0000

#   sum over                 7.9318E-06
'no. =    1   reg = 104 - 204'
msuc: {\huge [t-cross] in region mesh}
msdr: {\it plotted by \ANGEL \version}
msdl: {\it calculated by \PHITS  3.26}
wt: s(0.7)
\vspace{-3}
  region surface crossing
  area  &=&   1.0000E+00 [cm^2]
e:
 
# Information for Restart Calculation
# This calculation was newly started
# istdev =  2 # 1:Batch variance, 2:History variance
# resc2  = 5.00000000000000000E+09 # Total source weight or Total source weight / maxcas
# resc3  = 5.00000000000000000E+09 # Total history number or Total batch number
# maxcas =   500000000 # History / Batch, only used for istdev=1
# bitrseed = 0110100000100010111000001110001111001110100100011111101000111001 # bit data of rseed
