[ T-Cross ]
    title = [t-cross] in region mesh
     mesh =  reg            # mesh type is region-wise
      reg =    1            # number of crossing regions
      non     r-from    r-to       area
      1       120       220        1.000000    
   e-type =    3            # e-mesh is log given by emin, emax and ne
     emin =  1.0000000E-02  # minimum value of e-mesh points
     emax =   150.0000      # maximum value of e-mesh points
#    edel =  2.4039514E-02  # mesh width of e-mesh points
       ne =    400          # number of e-mesh points
#    data = ( e(i), i = 1, ne + 1 )
#           1.00000E-02  1.02433E-02  1.04925E-02  1.07478E-02  1.10093E-02
#           1.12772E-02  1.15516E-02  1.18326E-02  1.21205E-02  1.24154E-02
#           1.27175E-02  1.30269E-02  1.33439E-02  1.36686E-02  1.40011E-02
#           1.43418E-02  1.46907E-02  1.50482E-02  1.54143E-02  1.57894E-02
#           1.61735E-02  1.65670E-02  1.69701E-02  1.73830E-02  1.78060E-02
#           1.82392E-02  1.86830E-02  1.91375E-02  1.96032E-02  2.00801E-02
#           2.05687E-02  2.10692E-02  2.15818E-02  2.21069E-02  2.26448E-02
#           2.31957E-02  2.37601E-02  2.43382E-02  2.49304E-02  2.55369E-02
#           2.61583E-02  2.67947E-02  2.74467E-02  2.81145E-02  2.87985E-02
#           2.94992E-02  3.02169E-02  3.09521E-02  3.17052E-02  3.24766E-02
#           3.32668E-02  3.40762E-02  3.49053E-02  3.57546E-02  3.66246E-02
#           3.75157E-02  3.84284E-02  3.93634E-02  4.03212E-02  4.13022E-02
#           4.23071E-02  4.33365E-02  4.43909E-02  4.54710E-02  4.65773E-02
#           4.77106E-02  4.88714E-02  5.00605E-02  5.12785E-02  5.25262E-02
#           5.38042E-02  5.51133E-02  5.64542E-02  5.78278E-02  5.92348E-02
#           6.06760E-02  6.21523E-02  6.36645E-02  6.52135E-02  6.68002E-02
#           6.84255E-02  7.00904E-02  7.17957E-02  7.35426E-02  7.53319E-02
#           7.71648E-02  7.90423E-02  8.09655E-02  8.29354E-02  8.49533E-02
#           8.70203E-02  8.91376E-02  9.13064E-02  9.35279E-02  9.58035E-02
#           9.81345E-02  1.00522E-01  1.02968E-01  1.05473E-01  1.08040E-01
#           1.10668E-01  1.13361E-01  1.16119E-01  1.18944E-01  1.21838E-01
#           1.24803E-01  1.27839E-01  1.30950E-01  1.34136E-01  1.37399E-01
#           1.40742E-01  1.44167E-01  1.47675E-01  1.51268E-01  1.54948E-01
#           1.58718E-01  1.62580E-01  1.66535E-01  1.70587E-01  1.74738E-01
#           1.78989E-01  1.83344E-01  1.87805E-01  1.92375E-01  1.97055E-01
#           2.01850E-01  2.06761E-01  2.11792E-01  2.16945E-01  2.22223E-01
#           2.27630E-01  2.33169E-01  2.38842E-01  2.44653E-01  2.50605E-01
#           2.56703E-01  2.62949E-01  2.69346E-01  2.75900E-01  2.82613E-01
#           2.89489E-01  2.96532E-01  3.03747E-01  3.11138E-01  3.18708E-01
#           3.26462E-01  3.34405E-01  3.42542E-01  3.50876E-01  3.59413E-01
#           3.68158E-01  3.77116E-01  3.86291E-01  3.95690E-01  4.05317E-01
#           4.15179E-01  4.25281E-01  4.35628E-01  4.46227E-01  4.57084E-01
#           4.68205E-01  4.79597E-01  4.91266E-01  5.03219E-01  5.15463E-01
#           5.28005E-01  5.40851E-01  5.54011E-01  5.67490E-01  5.81298E-01
#           5.95441E-01  6.09929E-01  6.24769E-01  6.39970E-01  6.55541E-01
#           6.71491E-01  6.87828E-01  7.04564E-01  7.21706E-01  7.39266E-01
#           7.57253E-01  7.75678E-01  7.94551E-01  8.13883E-01  8.33685E-01
#           8.53969E-01  8.74747E-01  8.96030E-01  9.17831E-01  9.40163E-01
#           9.63038E-01  9.86469E-01  1.01047E+00  1.03506E+00  1.06024E+00
#           1.08604E+00  1.11246E+00  1.13953E+00  1.16725E+00  1.19565E+00
#           1.22474E+00  1.25454E+00  1.28507E+00  1.31633E+00  1.34836E+00
#           1.38117E+00  1.41477E+00  1.44920E+00  1.48446E+00  1.52057E+00
#           1.55757E+00  1.59547E+00  1.63429E+00  1.67405E+00  1.71478E+00
#           1.75650E+00  1.79924E+00  1.84302E+00  1.88786E+00  1.93379E+00
#           1.98084E+00  2.02904E+00  2.07841E+00  2.12898E+00  2.18078E+00
#           2.23384E+00  2.28819E+00  2.34386E+00  2.40089E+00  2.45930E+00
#           2.51914E+00  2.58043E+00  2.64322E+00  2.70753E+00  2.77341E+00
#           2.84088E+00  2.91001E+00  2.98081E+00  3.05333E+00  3.12762E+00
#           3.20372E+00  3.28167E+00  3.36152E+00  3.44330E+00  3.52708E+00
#           3.61290E+00  3.70080E+00  3.79085E+00  3.88308E+00  3.97756E+00
#           4.07434E+00  4.17347E+00  4.27501E+00  4.37903E+00  4.48557E+00
#           4.59471E+00  4.70650E+00  4.82102E+00  4.93832E+00  5.05847E+00
#           5.18155E+00  5.30762E+00  5.43676E+00  5.56904E+00  5.70453E+00
#           5.84333E+00  5.98550E+00  6.13114E+00  6.28031E+00  6.43312E+00
#           6.58964E+00  6.74997E+00  6.91420E+00  7.08243E+00  7.25475E+00
#           7.43126E+00  7.61207E+00  7.79728E+00  7.98700E+00  8.18133E+00
#           8.38038E+00  8.58428E+00  8.79315E+00  9.00709E+00  9.22624E+00
#           9.45072E+00  9.68067E+00  9.91620E+00  1.01575E+01  1.04046E+01
#           1.06578E+01  1.09171E+01  1.11827E+01  1.14548E+01  1.17335E+01
#           1.20190E+01  1.23114E+01  1.26109E+01  1.29178E+01  1.32321E+01
#           1.35540E+01  1.38838E+01  1.42216E+01  1.45676E+01  1.49221E+01
#           1.52851E+01  1.56570E+01  1.60380E+01  1.64282E+01  1.68279E+01
#           1.72374E+01  1.76568E+01  1.80864E+01  1.85264E+01  1.89772E+01
#           1.94389E+01  1.99119E+01  2.03963E+01  2.08926E+01  2.14009E+01
#           2.19216E+01  2.24550E+01  2.30014E+01  2.35610E+01  2.41343E+01
#           2.47215E+01  2.53230E+01  2.59391E+01  2.65702E+01  2.72167E+01
#           2.78789E+01  2.85572E+01  2.92520E+01  2.99637E+01  3.06928E+01
#           3.14396E+01  3.22045E+01  3.29881E+01  3.37907E+01  3.46128E+01
#           3.54550E+01  3.63177E+01  3.72013E+01  3.81064E+01  3.90336E+01
#           3.99833E+01  4.09561E+01  4.19526E+01  4.29734E+01  4.40189E+01
#           4.50900E+01  4.61870E+01  4.73108E+01  4.84619E+01  4.96410E+01
#           5.08488E+01  5.20860E+01  5.33533E+01  5.46514E+01  5.59812E+01
#           5.73432E+01  5.87384E+01  6.01676E+01  6.16315E+01  6.31311E+01
#           6.46671E+01  6.62405E+01  6.78522E+01  6.95031E+01  7.11941E+01
#           7.29263E+01  7.47007E+01  7.65182E+01  7.83800E+01  8.02870E+01
#           8.22405E+01  8.42414E+01  8.62911E+01  8.83906E+01  9.05412E+01
#           9.27442E+01  9.50007E+01  9.73122E+01  9.96799E+01  1.02105E+02
#           1.04589E+02  1.07134E+02  1.09741E+02  1.12411E+02  1.15146E+02
#           1.17948E+02  1.20817E+02  1.23757E+02  1.26768E+02  1.29852E+02
#           1.33012E+02  1.36248E+02  1.39563E+02  1.42959E+02  1.46437E+02
#           1.50000E+02
     unit =    2            # unit is [1/cm^2/(MeV/n)/source]
     axis =  eng            # axis of output
     file = detector-21.out  # file name of output for the above axis
   output = f-curr          # surface crossing forward current spectrum
     part =  neutron  
# kf/name :  2112     
#    used :        main (  %)        temp (  %)       total (  %)
#  memory :         414 (  0)           0 (  0)         414 (  0)

#------------------------------------------------------------------------------
#newpage:
#   no. =    1   reg = 120 - 220

x: Energy [MeV/n]
y:  F-Curr [1/cm^2/(MeV/n)/source]         
p: xlog ylog afac(0.8) form(0.9)
h: n            x            y(neutron ),hh0l   n 
#  e-lower      e-upper      neutron     r.err 
   1.0000E-02   1.0243E-02   3.0743E-04  0.0517
   1.0243E-02   1.0493E-02   2.9290E-04  0.0523
   1.0493E-02   1.0748E-02   2.9848E-04  0.0512
   1.0748E-02   1.1009E-02   3.1969E-04  0.0489
   1.1009E-02   1.1277E-02   3.3002E-04  0.0476
   1.1277E-02   1.1552E-02   3.3092E-04  0.0469
   1.1552E-02   1.1833E-02   3.2662E-04  0.0467
   1.1833E-02   1.2121E-02   3.2512E-04  0.0462
   1.2121E-02   1.2415E-02   3.3164E-04  0.0452
   1.2415E-02   1.2718E-02   3.4230E-04  0.0440
   1.2718E-02   1.3027E-02   3.2512E-04  0.0446
   1.3027E-02   1.3344E-02   3.3380E-04  0.0435
   1.3344E-02   1.3669E-02   3.5174E-04  0.0418
   1.3669E-02   1.4001E-02   3.2354E-04  0.0431
   1.4001E-02   1.4342E-02   3.4345E-04  0.0413
   1.4342E-02   1.4691E-02   3.4848E-04  0.0406
   1.4691E-02   1.5048E-02   3.3796E-04  0.0407
   1.5048E-02   1.5414E-02   3.4577E-04  0.0397
   1.5414E-02   1.5789E-02   3.5943E-04  0.0385
   1.5789E-02   1.6174E-02   3.4881E-04  0.0386
   1.6174E-02   1.6567E-02   3.6492E-04  0.0373
   1.6567E-02   1.6970E-02   3.6419E-04  0.0369
   1.6970E-02   1.7383E-02   3.3713E-04  0.0379
   1.7383E-02   1.7806E-02   3.5750E-04  0.0364
   1.7806E-02   1.8239E-02   3.4577E-04  0.0365
   1.8239E-02   1.8683E-02   3.4071E-04  0.0364
   1.8683E-02   1.9138E-02   3.7134E-04  0.0344
   1.9138E-02   1.9603E-02   3.7970E-04  0.0336
   1.9603E-02   2.0080E-02   3.7823E-04  0.0333
   2.0080E-02   2.0569E-02   3.7129E-04  0.0332
   2.0569E-02   2.1069E-02   3.8565E-04  0.0322
   2.1069E-02   2.1582E-02   3.6401E-04  0.0327
   2.1582E-02   2.2107E-02   3.6450E-04  0.0323
   2.2107E-02   2.2645E-02   3.7629E-04  0.0314
   2.2645E-02   2.3196E-02   3.8914E-04  0.0305
   2.3196E-02   2.3760E-02   3.9478E-04  0.0300
   2.3760E-02   2.4338E-02   4.1377E-04  0.0289
   2.4338E-02   2.4930E-02   4.0529E-04  0.0289
   2.4930E-02   2.5537E-02   3.9929E-04  0.0287
   2.5537E-02   2.6158E-02   4.1041E-04  0.0280
   2.6158E-02   2.6795E-02   4.0569E-04  0.0278
   2.6795E-02   2.7447E-02   4.1384E-04  0.0272
   2.7447E-02   2.8114E-02   4.2678E-04  0.0265
   2.8114E-02   2.8799E-02   3.8828E-04  0.0274
   2.8799E-02   2.9499E-02   4.3671E-04  0.0256
   2.9499E-02   3.0217E-02   4.2439E-04  0.0256
   3.0217E-02   3.0952E-02   4.0424E-04  0.0259
   3.0952E-02   3.1705E-02   4.2067E-04  0.0251
   3.1705E-02   3.2477E-02   4.5034E-04  0.0240
   3.2477E-02   3.3267E-02   4.5711E-04  0.0235
   3.3267E-02   3.4076E-02   4.5910E-04  0.0232
   3.4076E-02   3.4905E-02   4.5857E-04  0.0229
   3.4905E-02   3.5755E-02   4.5144E-04  0.0228
   3.5755E-02   3.6625E-02   4.6279E-04  0.0223
   3.6625E-02   3.7516E-02   4.5988E-04  0.0221
   3.7516E-02   3.8428E-02   4.5903E-04  0.0218
   3.8428E-02   3.9363E-02   4.7316E-04  0.0213
   3.9363E-02   4.0321E-02   4.6714E-04  0.0211
   4.0321E-02   4.1302E-02   5.1109E-04  0.0200
   4.1302E-02   4.2307E-02   4.8720E-04  0.0202
   4.2307E-02   4.3337E-02   5.0070E-04  0.0197
   4.3337E-02   4.4391E-02   5.0493E-04  0.0194
   4.4391E-02   4.5471E-02   5.3460E-04  0.0186
   4.5471E-02   4.6577E-02   5.3510E-04  0.0184
   4.6577E-02   4.7711E-02   5.2786E-04  0.0183
   4.7711E-02   4.8871E-02   5.3840E-04  0.0179
   4.8871E-02   5.0061E-02   5.3924E-04  0.0177
   5.0061E-02   5.1279E-02   5.2939E-04  0.0176
   5.1279E-02   5.2526E-02   5.5208E-04  0.0170
   5.2526E-02   5.3804E-02   5.6839E-04  0.0166
   5.3804E-02   5.5113E-02   5.5687E-04  0.0166
   5.5113E-02   5.6454E-02   5.6736E-04  0.0162
   5.6454E-02   5.7828E-02   5.7412E-04  0.0159
   5.7828E-02   5.9235E-02   5.8835E-04  0.0155
   5.9235E-02   6.0676E-02   5.7659E-04  0.0155
   6.0676E-02   6.2152E-02   6.0056E-04  0.0150
   6.2152E-02   6.3665E-02   6.1261E-04  0.0147
   6.3665E-02   6.5214E-02   6.0000E-04  0.0147
   6.5214E-02   6.6800E-02   6.0717E-04  0.0144
   6.6800E-02   6.8426E-02   6.3434E-04  0.0139
   6.8426E-02   7.0090E-02   6.3165E-04  0.0138
   7.0090E-02   7.1796E-02   6.3682E-04  0.0136
   7.1796E-02   7.3543E-02   6.5409E-04  0.0132
   7.3543E-02   7.5332E-02   6.5823E-04  0.0130
   7.5332E-02   7.7165E-02   6.5525E-04  0.0129
   7.7165E-02   7.9042E-02   6.6057E-04  0.0127
   7.9042E-02   8.0965E-02   6.7795E-04  0.0124
   8.0965E-02   8.2935E-02   6.8235E-04  0.0122
   8.2935E-02   8.4953E-02   6.7685E-04  0.0121
   8.4953E-02   8.7020E-02   6.8719E-04  0.0119
   8.7020E-02   8.9138E-02   7.1035E-04  0.0115
   8.9138E-02   9.1306E-02   7.2345E-04  0.0113
   9.1306E-02   9.3528E-02   7.2850E-04  0.0111
   9.3528E-02   9.5804E-02   7.4143E-04  0.0109
   9.5804E-02   9.8134E-02   7.4741E-04  0.0107
   9.8134E-02   1.0052E-01   7.6383E-04  0.0105
   1.0052E-01   1.0297E-01   7.5444E-04  0.0104
   1.0297E-01   1.0547E-01   7.6326E-04  0.0102
   1.0547E-01   1.0804E-01   7.7545E-04  0.0100
   1.0804E-01   1.1067E-01   7.8092E-04  0.0099
   1.1067E-01   1.1336E-01   7.9045E-04  0.0097
   1.1336E-01   1.1612E-01   8.0369E-04  0.0095
   1.1612E-01   1.1894E-01   8.1245E-04  0.0093
   1.1894E-01   1.2184E-01   8.1776E-04  0.0092
   1.2184E-01   1.2480E-01   8.2134E-04  0.0091
   1.2480E-01   1.2784E-01   8.4596E-04  0.0088
   1.2784E-01   1.3095E-01   8.4246E-04  0.0087
   1.3095E-01   1.3414E-01   8.6789E-04  0.0085
   1.3414E-01   1.3740E-01   8.7154E-04  0.0084
   1.3740E-01   1.4074E-01   8.7741E-04  0.0083
   1.4074E-01   1.4417E-01   8.9377E-04  0.0081
   1.4417E-01   1.4767E-01   8.9848E-04  0.0080
   1.4767E-01   1.5127E-01   9.1193E-04  0.0078
   1.5127E-01   1.5495E-01   9.1358E-04  0.0077
   1.5495E-01   1.5872E-01   9.3395E-04  0.0075
   1.5872E-01   1.6258E-01   9.3732E-04  0.0074
   1.6258E-01   1.6654E-01   9.4001E-04  0.0073
   1.6654E-01   1.7059E-01   9.4774E-04  0.0072
   1.7059E-01   1.7474E-01   9.7515E-04  0.0070
   1.7474E-01   1.7899E-01   9.7838E-04  0.0069
   1.7899E-01   1.8334E-01   9.8490E-04  0.0068
   1.8334E-01   1.8781E-01   9.9643E-04  0.0067
   1.8781E-01   1.9237E-01   1.0231E-03  0.0065
   1.9237E-01   1.9706E-01   1.0151E-03  0.0065
   1.9706E-01   2.0185E-01   1.0348E-03  0.0064
   2.0185E-01   2.0676E-01   1.0395E-03  0.0063
   2.0676E-01   2.1179E-01   1.0527E-03  0.0061
   2.1179E-01   2.1694E-01   1.0598E-03  0.0061
   2.1694E-01   2.2222E-01   1.0769E-03  0.0059
   2.2222E-01   2.2763E-01   1.0827E-03  0.0058
   2.2763E-01   2.3317E-01   1.0902E-03  0.0058
   2.3317E-01   2.3884E-01   1.0902E-03  0.0057
   2.3884E-01   2.4465E-01   1.1001E-03  0.0056
   2.4465E-01   2.5061E-01   1.1109E-03  0.0055
   2.5061E-01   2.5670E-01   1.1283E-03  0.0054
   2.5670E-01   2.6295E-01   1.1390E-03  0.0053
   2.6295E-01   2.6935E-01   1.1440E-03  0.0052
   2.6935E-01   2.7590E-01   1.1423E-03  0.0052
   2.7590E-01   2.8261E-01   1.1532E-03  0.0051
   2.8261E-01   2.8949E-01   1.1705E-03  0.0050
   2.8949E-01   2.9653E-01   1.1625E-03  0.0049
   2.9653E-01   3.0375E-01   1.1712E-03  0.0049
   3.0375E-01   3.1114E-01   1.1794E-03  0.0048
   3.1114E-01   3.1871E-01   1.1920E-03  0.0047
   3.1871E-01   3.2646E-01   1.2030E-03  0.0046
   3.2646E-01   3.3441E-01   1.2037E-03  0.0046
   3.3441E-01   3.4254E-01   1.2110E-03  0.0045
   3.4254E-01   3.5088E-01   1.2074E-03  0.0045
   3.5088E-01   3.5941E-01   1.2113E-03  0.0044
   3.5941E-01   3.6816E-01   1.2208E-03  0.0043
   3.6816E-01   3.7712E-01   1.2248E-03  0.0043
   3.7712E-01   3.8629E-01   1.2260E-03  0.0042
   3.8629E-01   3.9569E-01   1.2355E-03  0.0042
   3.9569E-01   4.0532E-01   1.2434E-03  0.0041
   4.0532E-01   4.1518E-01   1.2364E-03  0.0041
   4.1518E-01   4.2528E-01   1.2450E-03  0.0040
   4.2528E-01   4.3563E-01   1.2449E-03  0.0039
   4.3563E-01   4.4623E-01   1.2467E-03  0.0039
   4.4623E-01   4.5708E-01   1.2452E-03  0.0038
   4.5708E-01   4.6821E-01   1.2383E-03  0.0038
   4.6821E-01   4.7960E-01   1.2473E-03  0.0038
   4.7960E-01   4.9127E-01   1.2439E-03  0.0037
   4.9127E-01   5.0322E-01   1.2475E-03  0.0037
   5.0322E-01   5.1546E-01   1.2461E-03  0.0036
   5.1546E-01   5.2800E-01   1.2387E-03  0.0036
   5.2800E-01   5.4085E-01   1.2406E-03  0.0035
   5.4085E-01   5.5401E-01   1.2384E-03  0.0035
   5.5401E-01   5.6749E-01   1.2253E-03  0.0035
   5.6749E-01   5.8130E-01   1.2292E-03  0.0034
   5.8130E-01   5.9544E-01   1.2162E-03  0.0034
   5.9544E-01   6.0993E-01   1.2123E-03  0.0034
   6.0993E-01   6.2477E-01   1.1997E-03  0.0034
   6.2477E-01   6.3997E-01   1.2021E-03  0.0033
   6.3997E-01   6.5554E-01   1.1897E-03  0.0033
   6.5554E-01   6.7149E-01   1.1725E-03  0.0033
   6.7149E-01   6.8783E-01   1.1657E-03  0.0032
   6.8783E-01   7.0456E-01   1.1594E-03  0.0032
   7.0456E-01   7.2171E-01   1.1374E-03  0.0032
   7.2171E-01   7.3927E-01   1.1241E-03  0.0032
   7.3927E-01   7.5725E-01   1.1100E-03  0.0032
   7.5725E-01   7.7568E-01   1.0931E-03  0.0032
   7.7568E-01   7.9455E-01   1.0707E-03  0.0031
   7.9455E-01   8.1388E-01   1.0521E-03  0.0031
   8.1388E-01   8.3368E-01   1.0243E-03  0.0031
   8.3368E-01   8.5397E-01   1.0029E-03  0.0031
   8.5397E-01   8.7475E-01   9.6958E-04  0.0032
   8.7475E-01   8.9603E-01   9.4529E-04  0.0032
   8.9603E-01   9.1783E-01   9.2047E-04  0.0032
   9.1783E-01   9.4016E-01   8.7786E-04  0.0032
   9.4016E-01   9.6304E-01   8.4049E-04  0.0032
   9.6304E-01   9.8647E-01   7.9800E-04  0.0033
   9.8647E-01   1.0105E+00   7.5271E-04  0.0033
   1.0105E+00   1.0351E+00   7.3973E-04  0.0033
   1.0351E+00   1.0602E+00   7.2643E-04  0.0033
   1.0602E+00   1.0860E+00   7.1869E-04  0.0033
   1.0860E+00   1.1125E+00   7.0816E-04  0.0033
   1.1125E+00   1.1395E+00   7.0459E-04  0.0032
   1.1395E+00   1.1673E+00   7.0063E-04  0.0032
   1.1673E+00   1.1957E+00   7.0339E-04  0.0032
   1.1957E+00   1.2247E+00   6.9823E-04  0.0031
   1.2247E+00   1.2545E+00   6.8036E-04  0.0031
   1.2545E+00   1.2851E+00   6.6268E-04  0.0031
   1.2851E+00   1.3163E+00   6.5759E-04  0.0031
   1.3163E+00   1.3484E+00   6.4708E-04  0.0031
   1.3484E+00   1.3812E+00   6.3680E-04  0.0031
   1.3812E+00   1.4148E+00   6.3258E-04  0.0031
   1.4148E+00   1.4492E+00   6.1599E-04  0.0031
   1.4492E+00   1.4845E+00   5.9748E-04  0.0031
   1.4845E+00   1.5206E+00   5.8301E-04  0.0031
   1.5206E+00   1.5576E+00   5.6149E-04  0.0031
   1.5576E+00   1.5955E+00   5.4737E-04  0.0031
   1.5955E+00   1.6343E+00   5.2870E-04  0.0031
   1.6343E+00   1.6741E+00   5.1536E-04  0.0031
   1.6741E+00   1.7148E+00   5.0545E-04  0.0031
   1.7148E+00   1.7565E+00   4.9148E-04  0.0031
   1.7565E+00   1.7992E+00   4.7159E-04  0.0032
   1.7992E+00   1.8430E+00   4.5511E-04  0.0032
   1.8430E+00   1.8879E+00   4.3547E-04  0.0032
   1.8879E+00   1.9338E+00   4.1891E-04  0.0032
   1.9338E+00   1.9808E+00   4.0440E-04  0.0032
   1.9808E+00   2.0290E+00   3.9220E-04  0.0033
   2.0290E+00   2.0784E+00   3.7429E-04  0.0033
   2.0784E+00   2.1290E+00   3.6047E-04  0.0033
   2.1290E+00   2.1808E+00   3.4200E-04  0.0034
   2.1808E+00   2.2338E+00   3.2698E-04  0.0034
   2.2338E+00   2.2882E+00   3.0930E-04  0.0035
   2.2882E+00   2.3439E+00   2.9562E-04  0.0035
   2.3439E+00   2.4009E+00   2.8006E-04  0.0035
   2.4009E+00   2.4593E+00   2.6730E-04  0.0036
   2.4593E+00   2.5191E+00   2.5335E-04  0.0036
   2.5191E+00   2.5804E+00   2.3983E-04  0.0037
   2.5804E+00   2.6432E+00   2.2720E-04  0.0037
   2.6432E+00   2.7075E+00   2.1310E-04  0.0038
   2.7075E+00   2.7734E+00   2.0079E-04  0.0039
   2.7734E+00   2.8409E+00   1.8749E-04  0.0040
   2.8409E+00   2.9100E+00   1.7645E-04  0.0041
   2.9100E+00   2.9808E+00   1.6592E-04  0.0041
   2.9808E+00   3.0533E+00   1.5445E-04  0.0042
   3.0533E+00   3.1276E+00   1.4456E-04  0.0043
   3.1276E+00   3.2037E+00   1.3587E-04  0.0044
   3.2037E+00   3.2817E+00   1.2559E-04  0.0045
   3.2817E+00   3.3615E+00   1.1745E-04  0.0046
   3.3615E+00   3.4433E+00   1.0833E-04  0.0048
   3.4433E+00   3.5271E+00   1.0085E-04  0.0049
   3.5271E+00   3.6129E+00   9.2917E-05  0.0050
   3.6129E+00   3.7008E+00   8.6036E-05  0.0051
   3.7008E+00   3.7908E+00   7.9988E-05  0.0053
   3.7908E+00   3.8831E+00   7.3599E-05  0.0054
   3.8831E+00   3.9776E+00   6.7044E-05  0.0056
   3.9776E+00   4.0743E+00   6.2052E-05  0.0058
   4.0743E+00   4.1735E+00   5.7675E-05  0.0059
   4.1735E+00   4.2750E+00   5.3067E-05  0.0061
   4.2750E+00   4.3790E+00   4.8857E-05  0.0063
   4.3790E+00   4.4856E+00   4.4406E-05  0.0065
   4.4856E+00   4.5947E+00   3.9918E-05  0.0068
   4.5947E+00   4.7065E+00   3.7174E-05  0.0069
   4.7065E+00   4.8210E+00   3.3650E-05  0.0072
   4.8210E+00   4.9383E+00   3.0563E-05  0.0075
   4.9383E+00   5.0585E+00   2.8064E-05  0.0077
   5.0585E+00   5.1815E+00   2.5906E-05  0.0079
   5.1815E+00   5.3076E+00   2.3385E-05  0.0082
   5.3076E+00   5.4368E+00   2.1332E-05  0.0085
   5.4368E+00   5.5690E+00   1.9427E-05  0.0088
   5.5690E+00   5.7045E+00   1.7398E-05  0.0092
   5.7045E+00   5.8433E+00   1.5325E-05  0.0097
   5.8433E+00   5.9855E+00   1.4355E-05  0.0099
   5.9855E+00   6.1311E+00   1.2857E-05  0.0103
   6.1311E+00   6.2803E+00   1.1484E-05  0.0108
   6.2803E+00   6.4331E+00   1.0636E-05  0.0111
   6.4331E+00   6.5896E+00   9.6050E-06  0.0115
   6.5896E+00   6.7500E+00   8.5398E-06  0.0121
   6.7500E+00   6.9142E+00   7.7780E-06  0.0125
   6.9142E+00   7.0824E+00   6.9132E-06  0.0131
   7.0824E+00   7.2548E+00   6.3057E-06  0.0136
   7.2548E+00   7.4313E+00   5.5588E-06  0.0143
   7.4313E+00   7.6121E+00   4.9793E-06  0.0149
   7.6121E+00   7.7973E+00   4.4469E-06  0.0156
   7.7973E+00   7.9870E+00   4.0635E-06  0.0161
   7.9870E+00   8.1813E+00   3.6767E-06  0.0167
   8.1813E+00   8.3804E+00   3.4050E-06  0.0172
   8.3804E+00   8.5843E+00   2.9725E-06  0.0182
   8.5843E+00   8.7931E+00   2.7291E-06  0.0187
   8.7931E+00   9.0071E+00   2.4824E-06  0.0194
   9.0071E+00   9.2262E+00   2.1830E-06  0.0204
   9.2262E+00   9.4507E+00   2.0518E-06  0.0208
   9.4507E+00   9.6807E+00   1.7596E-06  0.0222
   9.6807E+00   9.9162E+00   1.6672E-06  0.0225
   9.9162E+00   1.0157E+01   1.5278E-06  0.0233
   1.0157E+01   1.0405E+01   1.4073E-06  0.0239
   1.0405E+01   1.0658E+01   1.3304E-06  0.0243
   1.0658E+01   1.0917E+01   1.2040E-06  0.0253
   1.0917E+01   1.1183E+01   1.1264E-06  0.0258
   1.1183E+01   1.1455E+01   1.0522E-06  0.0264
   1.1455E+01   1.1733E+01   9.9066E-07  0.0269
   1.1733E+01   1.2019E+01   9.1914E-07  0.0276
   1.2019E+01   1.2311E+01   8.4704E-07  0.0284
   1.2311E+01   1.2611E+01   8.0388E-07  0.0288
   1.2611E+01   1.2918E+01   7.5969E-07  0.0293
   1.2918E+01   1.3232E+01   7.4642E-07  0.0291
   1.3232E+01   1.3554E+01   7.4764E-07  0.0288
   1.3554E+01   1.3884E+01   6.5468E-07  0.0304
   1.3884E+01   1.4222E+01   6.6340E-07  0.0298
   1.4222E+01   1.4568E+01   6.4389E-07  0.0299
   1.4568E+01   1.4922E+01   5.7160E-07  0.0314
   1.4922E+01   1.5285E+01   5.8144E-07  0.0308
   1.5285E+01   1.5657E+01   5.5391E-07  0.0311
   1.5657E+01   1.6038E+01   5.2369E-07  0.0316
   1.6038E+01   1.6428E+01   4.8025E-07  0.0327
   1.6428E+01   1.6828E+01   4.6033E-07  0.0330
   1.6828E+01   1.7237E+01   4.6625E-07  0.0324
   1.7237E+01   1.7657E+01   4.4015E-07  0.0329
   1.7657E+01   1.8086E+01   4.1713E-07  0.0334
   1.8086E+01   1.8526E+01   4.0154E-07  0.0336
   1.8526E+01   1.8977E+01   4.0487E-07  0.0331
   1.8977E+01   1.9439E+01   3.7793E-07  0.0338
   1.9439E+01   1.9912E+01   3.6366E-07  0.0341
   1.9912E+01   2.0396E+01   3.4058E-07  0.0348
   2.0396E+01   2.0893E+01   3.3329E-07  0.0348
   2.0893E+01   2.1401E+01   3.1200E-07  0.0355
   2.1401E+01   2.1922E+01   2.9307E-07  0.0362
   2.1922E+01   2.2455E+01   2.6811E-07  0.0374
   2.2455E+01   2.3001E+01   2.7382E-07  0.0366
   2.3001E+01   2.3561E+01   2.4158E-07  0.0385
   2.3561E+01   2.4134E+01   2.2119E-07  0.0397
   2.4134E+01   2.4721E+01   2.1424E-07  0.0399
   2.4721E+01   2.5323E+01   1.9186E-07  0.0416
   2.5323E+01   2.5939E+01   2.0678E-07  0.0396
   2.5939E+01   2.6570E+01   1.7873E-07  0.0421
   2.6570E+01   2.7217E+01   1.5747E-07  0.0443
   2.7217E+01   2.7879E+01   1.4859E-07  0.0451
   2.7879E+01   2.8557E+01   1.4919E-07  0.0445
   2.8557E+01   2.9252E+01   1.2089E-07  0.0488
   2.9252E+01   2.9964E+01   1.2364E-07  0.0477
   2.9964E+01   3.0693E+01   1.0946E-07  0.0501
   3.0693E+01   3.1440E+01   9.9360E-08  0.0519
   3.1440E+01   3.2205E+01   9.2555E-08  0.0531
   3.2205E+01   3.2988E+01   8.2444E-08  0.0556
   3.2988E+01   3.3791E+01   7.1266E-08  0.0591
   3.3791E+01   3.4613E+01   6.3978E-08  0.0617
   3.4613E+01   3.5455E+01   5.9846E-08  0.0630
   3.5455E+01   3.6318E+01   5.8888E-08  0.0627
   3.6318E+01   3.7201E+01   4.6399E-08  0.0698
   3.7201E+01   3.8106E+01   3.9552E-08  0.0747
   3.8106E+01   3.9034E+01   3.2573E-08  0.0814
   3.9034E+01   3.9983E+01   2.6955E-08  0.0884
   3.9983E+01   4.0956E+01   2.6932E-08  0.0874
   4.0956E+01   4.1953E+01   1.9268E-08  0.1021
   4.1953E+01   4.2973E+01   1.7046E-08  0.1072
   4.2973E+01   4.4019E+01   1.3198E-08  0.1204
   4.4019E+01   4.5090E+01   1.2325E-08  0.1231
   4.5090E+01   4.6187E+01   8.3859E-09  0.1474
   4.6187E+01   4.7311E+01   6.2290E-09  0.1690
   4.7311E+01   4.8462E+01   5.0386E-09  0.1857
   4.8462E+01   4.9641E+01   6.6151E-09  0.1601
   4.9641E+01   5.0849E+01   3.6430E-09  0.2132
   5.0849E+01   5.2086E+01   9.6994E-10  0.4082
   5.2086E+01   5.3353E+01   1.8938E-09  0.2887
   5.3353E+01   5.4651E+01   1.6947E-09  0.3015
   5.4651E+01   5.5981E+01   4.5123E-10  0.5774
   5.5981E+01   5.7343E+01   8.8101E-10  0.4082
   5.7343E+01   5.8738E+01   4.3004E-10  0.5774
   5.8738E+01   6.0168E+01   1.3994E-10  1.0000
   6.0168E+01   6.1632E+01   2.7324E-10  0.7071
   6.1632E+01   6.3131E+01   1.3337E-10  1.0000
   6.3131E+01   6.4667E+01   0.0000E+00  0.0000
   6.4667E+01   6.6240E+01   0.0000E+00  0.0000
   6.6240E+01   6.7852E+01   0.0000E+00  0.0000
   6.7852E+01   6.9503E+01   0.0000E+00  0.0000
   6.9503E+01   7.1194E+01   0.0000E+00  0.0000
   7.1194E+01   7.2926E+01   0.0000E+00  0.0000
   7.2926E+01   7.4701E+01   0.0000E+00  0.0000
   7.4701E+01   7.6518E+01   0.0000E+00  0.0000
   7.6518E+01   7.8380E+01   0.0000E+00  0.0000
   7.8380E+01   8.0287E+01   0.0000E+00  0.0000
   8.0287E+01   8.2240E+01   0.0000E+00  0.0000
   8.2240E+01   8.4241E+01   0.0000E+00  0.0000
   8.4241E+01   8.6291E+01   0.0000E+00  0.0000
   8.6291E+01   8.8391E+01   0.0000E+00  0.0000
   8.8391E+01   9.0541E+01   0.0000E+00  0.0000
   9.0541E+01   9.2744E+01   0.0000E+00  0.0000
   9.2744E+01   9.5001E+01   0.0000E+00  0.0000
   9.5001E+01   9.7312E+01   0.0000E+00  0.0000
   9.7312E+01   9.9680E+01   0.0000E+00  0.0000
   9.9680E+01   1.0211E+02   0.0000E+00  0.0000
   1.0211E+02   1.0459E+02   0.0000E+00  0.0000
   1.0459E+02   1.0713E+02   0.0000E+00  0.0000
   1.0713E+02   1.0974E+02   0.0000E+00  0.0000
   1.0974E+02   1.1241E+02   0.0000E+00  0.0000
   1.1241E+02   1.1515E+02   0.0000E+00  0.0000
   1.1515E+02   1.1795E+02   0.0000E+00  0.0000
   1.1795E+02   1.2082E+02   0.0000E+00  0.0000
   1.2082E+02   1.2376E+02   0.0000E+00  0.0000
   1.2376E+02   1.2677E+02   0.0000E+00  0.0000
   1.2677E+02   1.2985E+02   0.0000E+00  0.0000
   1.2985E+02   1.3301E+02   0.0000E+00  0.0000
   1.3301E+02   1.3625E+02   0.0000E+00  0.0000
   1.3625E+02   1.3956E+02   0.0000E+00  0.0000
   1.3956E+02   1.4296E+02   0.0000E+00  0.0000
   1.4296E+02   1.4644E+02   0.0000E+00  0.0000
   1.4644E+02   1.5000E+02   0.0000E+00  0.0000

#   sum over                 1.3757E-05
'no. =    1   reg = 120 - 220'
msuc: {\huge [t-cross] in region mesh}
msdr: {\it plotted by \ANGEL \version}
msdl: {\it calculated by \PHITS  3.26}
wt: s(0.7)
\vspace{-3}
  region surface crossing
  area  &=&   1.0000E+00 [cm^2]
e:
 
# Information for Restart Calculation
# This calculation was newly started
# istdev =  2 # 1:Batch variance, 2:History variance
# resc2  = 5.00000000000000000E+09 # Total source weight or Total source weight / maxcas
# resc3  = 5.00000000000000000E+09 # Total history number or Total batch number
# maxcas =   500000000 # History / Batch, only used for istdev=1
# bitrseed = 0110100000100010111000001110001111001110100100011111101000111001 # bit data of rseed
