[ T-Cross ]
    title = [t-cross] in region mesh
     mesh =  reg            # mesh type is region-wise
      reg =    1            # number of crossing regions
      non     r-from    r-to       area
      1       100       200        1.000000    
   e-type =    3            # e-mesh is log given by emin, emax and ne
     emin =  1.0000000E-02  # minimum value of e-mesh points
     emax =   150.0000      # maximum value of e-mesh points
#    edel =  2.4039514E-02  # mesh width of e-mesh points
       ne =    400          # number of e-mesh points
#    data = ( e(i), i = 1, ne + 1 )
#           1.00000E-02  1.02433E-02  1.04925E-02  1.07478E-02  1.10093E-02
#           1.12772E-02  1.15516E-02  1.18326E-02  1.21205E-02  1.24154E-02
#           1.27175E-02  1.30269E-02  1.33439E-02  1.36686E-02  1.40011E-02
#           1.43418E-02  1.46907E-02  1.50482E-02  1.54143E-02  1.57894E-02
#           1.61735E-02  1.65670E-02  1.69701E-02  1.73830E-02  1.78060E-02
#           1.82392E-02  1.86830E-02  1.91375E-02  1.96032E-02  2.00801E-02
#           2.05687E-02  2.10692E-02  2.15818E-02  2.21069E-02  2.26448E-02
#           2.31957E-02  2.37601E-02  2.43382E-02  2.49304E-02  2.55369E-02
#           2.61583E-02  2.67947E-02  2.74467E-02  2.81145E-02  2.87985E-02
#           2.94992E-02  3.02169E-02  3.09521E-02  3.17052E-02  3.24766E-02
#           3.32668E-02  3.40762E-02  3.49053E-02  3.57546E-02  3.66246E-02
#           3.75157E-02  3.84284E-02  3.93634E-02  4.03212E-02  4.13022E-02
#           4.23071E-02  4.33365E-02  4.43909E-02  4.54710E-02  4.65773E-02
#           4.77106E-02  4.88714E-02  5.00605E-02  5.12785E-02  5.25262E-02
#           5.38042E-02  5.51133E-02  5.64542E-02  5.78278E-02  5.92348E-02
#           6.06760E-02  6.21523E-02  6.36645E-02  6.52135E-02  6.68002E-02
#           6.84255E-02  7.00904E-02  7.17957E-02  7.35426E-02  7.53319E-02
#           7.71648E-02  7.90423E-02  8.09655E-02  8.29354E-02  8.49533E-02
#           8.70203E-02  8.91376E-02  9.13064E-02  9.35279E-02  9.58035E-02
#           9.81345E-02  1.00522E-01  1.02968E-01  1.05473E-01  1.08040E-01
#           1.10668E-01  1.13361E-01  1.16119E-01  1.18944E-01  1.21838E-01
#           1.24803E-01  1.27839E-01  1.30950E-01  1.34136E-01  1.37399E-01
#           1.40742E-01  1.44167E-01  1.47675E-01  1.51268E-01  1.54948E-01
#           1.58718E-01  1.62580E-01  1.66535E-01  1.70587E-01  1.74738E-01
#           1.78989E-01  1.83344E-01  1.87805E-01  1.92375E-01  1.97055E-01
#           2.01850E-01  2.06761E-01  2.11792E-01  2.16945E-01  2.22223E-01
#           2.27630E-01  2.33169E-01  2.38842E-01  2.44653E-01  2.50605E-01
#           2.56703E-01  2.62949E-01  2.69346E-01  2.75900E-01  2.82613E-01
#           2.89489E-01  2.96532E-01  3.03747E-01  3.11138E-01  3.18708E-01
#           3.26462E-01  3.34405E-01  3.42542E-01  3.50876E-01  3.59413E-01
#           3.68158E-01  3.77116E-01  3.86291E-01  3.95690E-01  4.05317E-01
#           4.15179E-01  4.25281E-01  4.35628E-01  4.46227E-01  4.57084E-01
#           4.68205E-01  4.79597E-01  4.91266E-01  5.03219E-01  5.15463E-01
#           5.28005E-01  5.40851E-01  5.54011E-01  5.67490E-01  5.81298E-01
#           5.95441E-01  6.09929E-01  6.24769E-01  6.39970E-01  6.55541E-01
#           6.71491E-01  6.87828E-01  7.04564E-01  7.21706E-01  7.39266E-01
#           7.57253E-01  7.75678E-01  7.94551E-01  8.13883E-01  8.33685E-01
#           8.53969E-01  8.74747E-01  8.96030E-01  9.17831E-01  9.40163E-01
#           9.63038E-01  9.86469E-01  1.01047E+00  1.03506E+00  1.06024E+00
#           1.08604E+00  1.11246E+00  1.13953E+00  1.16725E+00  1.19565E+00
#           1.22474E+00  1.25454E+00  1.28507E+00  1.31633E+00  1.34836E+00
#           1.38117E+00  1.41477E+00  1.44920E+00  1.48446E+00  1.52057E+00
#           1.55757E+00  1.59547E+00  1.63429E+00  1.67405E+00  1.71478E+00
#           1.75650E+00  1.79924E+00  1.84302E+00  1.88786E+00  1.93379E+00
#           1.98084E+00  2.02904E+00  2.07841E+00  2.12898E+00  2.18078E+00
#           2.23384E+00  2.28819E+00  2.34386E+00  2.40089E+00  2.45930E+00
#           2.51914E+00  2.58043E+00  2.64322E+00  2.70753E+00  2.77341E+00
#           2.84088E+00  2.91001E+00  2.98081E+00  3.05333E+00  3.12762E+00
#           3.20372E+00  3.28167E+00  3.36152E+00  3.44330E+00  3.52708E+00
#           3.61290E+00  3.70080E+00  3.79085E+00  3.88308E+00  3.97756E+00
#           4.07434E+00  4.17347E+00  4.27501E+00  4.37903E+00  4.48557E+00
#           4.59471E+00  4.70650E+00  4.82102E+00  4.93832E+00  5.05847E+00
#           5.18155E+00  5.30762E+00  5.43676E+00  5.56904E+00  5.70453E+00
#           5.84333E+00  5.98550E+00  6.13114E+00  6.28031E+00  6.43312E+00
#           6.58964E+00  6.74997E+00  6.91420E+00  7.08243E+00  7.25475E+00
#           7.43126E+00  7.61207E+00  7.79728E+00  7.98700E+00  8.18133E+00
#           8.38038E+00  8.58428E+00  8.79315E+00  9.00709E+00  9.22624E+00
#           9.45072E+00  9.68067E+00  9.91620E+00  1.01575E+01  1.04046E+01
#           1.06578E+01  1.09171E+01  1.11827E+01  1.14548E+01  1.17335E+01
#           1.20190E+01  1.23114E+01  1.26109E+01  1.29178E+01  1.32321E+01
#           1.35540E+01  1.38838E+01  1.42216E+01  1.45676E+01  1.49221E+01
#           1.52851E+01  1.56570E+01  1.60380E+01  1.64282E+01  1.68279E+01
#           1.72374E+01  1.76568E+01  1.80864E+01  1.85264E+01  1.89772E+01
#           1.94389E+01  1.99119E+01  2.03963E+01  2.08926E+01  2.14009E+01
#           2.19216E+01  2.24550E+01  2.30014E+01  2.35610E+01  2.41343E+01
#           2.47215E+01  2.53230E+01  2.59391E+01  2.65702E+01  2.72167E+01
#           2.78789E+01  2.85572E+01  2.92520E+01  2.99637E+01  3.06928E+01
#           3.14396E+01  3.22045E+01  3.29881E+01  3.37907E+01  3.46128E+01
#           3.54550E+01  3.63177E+01  3.72013E+01  3.81064E+01  3.90336E+01
#           3.99833E+01  4.09561E+01  4.19526E+01  4.29734E+01  4.40189E+01
#           4.50900E+01  4.61870E+01  4.73108E+01  4.84619E+01  4.96410E+01
#           5.08488E+01  5.20860E+01  5.33533E+01  5.46514E+01  5.59812E+01
#           5.73432E+01  5.87384E+01  6.01676E+01  6.16315E+01  6.31311E+01
#           6.46671E+01  6.62405E+01  6.78522E+01  6.95031E+01  7.11941E+01
#           7.29263E+01  7.47007E+01  7.65182E+01  7.83800E+01  8.02870E+01
#           8.22405E+01  8.42414E+01  8.62911E+01  8.83906E+01  9.05412E+01
#           9.27442E+01  9.50007E+01  9.73122E+01  9.96799E+01  1.02105E+02
#           1.04589E+02  1.07134E+02  1.09741E+02  1.12411E+02  1.15146E+02
#           1.17948E+02  1.20817E+02  1.23757E+02  1.26768E+02  1.29852E+02
#           1.33012E+02  1.36248E+02  1.39563E+02  1.42959E+02  1.46437E+02
#           1.50000E+02
     unit =    2            # unit is [1/cm^2/(MeV/n)/source]
     axis =  eng            # axis of output
     file = detector-01.out  # file name of output for the above axis
   output = f-curr          # surface crossing forward current spectrum
     part =  neutron  
# kf/name :  2112     
#    used :        main (  %)        temp (  %)       total (  %)
#  memory :         414 (  0)           0 (  0)         414 (  0)

#------------------------------------------------------------------------------
#newpage:
#   no. =    1   reg = 100 - 200

x: Energy [MeV/n]
y:  F-Curr [1/cm^2/(MeV/n)/source]         
p: xlog ylog afac(0.8) form(0.9)
h: n            x            y(neutron ),hh0l   n 
#  e-lower      e-upper      neutron     r.err 
   1.0000E-02   1.0243E-02   1.4225E-05  0.2386
   1.0243E-02   1.0493E-02   9.9489E-06  0.2804
   1.0493E-02   1.0748E-02   8.7395E-06  0.2976
   1.0748E-02   1.1009E-02   8.6408E-06  0.2942
   1.1009E-02   1.1277E-02   9.7064E-06  0.2774
   1.1277E-02   1.1552E-02   1.6146E-05  0.2119
   1.1552E-02   1.1833E-02   8.1073E-06  0.2922
   1.1833E-02   1.2121E-02   6.5996E-06  0.3201
   1.2121E-02   1.2415E-02   1.0512E-05  0.2519
   1.2415E-02   1.2718E-02   1.0742E-05  0.2469
   1.2718E-02   1.3027E-02   9.8339E-06  0.2550
   1.3027E-02   1.3344E-02   9.5611E-06  0.2558
   1.3344E-02   1.3669E-02   1.3044E-05  0.2166
   1.3669E-02   1.4001E-02   7.8180E-06  0.2774
   1.4001E-02   1.4342E-02   1.0935E-05  0.2295
   1.4342E-02   1.4691E-02   7.0124E-06  0.2838
   1.4691E-02   1.5048E-02   8.4977E-06  0.2553
   1.5048E-02   1.5414E-02   5.4625E-06  0.3162
   1.5414E-02   1.5789E-02   1.3476E-05  0.1982
   1.5789E-02   1.6174E-02   4.1649E-06  0.3536
   1.6174E-02   1.6567E-02   5.3036E-06  0.3045
   1.6567E-02   1.6970E-02   5.0313E-06  0.3122
   1.6970E-02   1.7383E-02   8.4767E-06  0.2373
   1.7383E-02   1.7806E-02   7.6483E-06  0.2475
   1.7806E-02   1.8239E-02   4.8334E-06  0.3037
   1.8239E-02   1.8683E-02   7.7503E-06  0.2400
   1.8683E-02   1.9138E-02   5.4790E-06  0.2794
   1.9138E-02   1.9603E-02   6.8724E-06  0.2500
   1.9603E-02   2.0080E-02   7.6014E-06  0.2341
   2.0080E-02   2.0569E-02   7.4617E-06  0.2331
   2.0569E-02   2.1069E-02   5.6757E-06  0.2638
   2.1069E-02   2.1582E-02   5.9573E-06  0.2543
   2.1582E-02   2.2107E-02   5.8933E-06  0.2512
   2.2107E-02   2.2645E-02   5.6278E-06  0.2560
   2.2645E-02   2.3196E-02   7.4415E-06  0.2195
   2.3196E-02   2.3760E-02   5.0984E-06  0.2608
   2.3760E-02   2.4338E-02   4.9447E-06  0.2622
   2.4338E-02   2.4930E-02   4.5122E-06  0.2706
   2.4930E-02   2.5537E-02   5.7543E-06  0.2370
   2.5537E-02   2.6158E-02   6.7596E-06  0.2182
   2.6158E-02   2.6795E-02   5.6564E-06  0.2357
   2.6795E-02   2.7447E-02   7.3627E-06  0.2041
   2.7447E-02   2.8114E-02   5.6903E-06  0.2294
   2.8114E-02   2.8799E-02   4.5701E-06  0.2500
   2.8799E-02   2.9499E-02   6.0568E-06  0.2162
   2.9499E-02   3.0217E-02   5.9062E-06  0.2164
   3.0217E-02   3.0952E-02   5.7815E-06  0.2159
   3.0952E-02   3.1705E-02   2.3018E-06  0.3320
   3.1705E-02   3.2477E-02   5.7563E-06  0.2115
   3.2477E-02   3.3267E-02   3.3379E-06  0.2738
   3.3267E-02   3.4076E-02   2.5945E-06  0.3049
   3.4076E-02   3.4905E-02   5.0657E-06  0.2182
   3.4905E-02   3.5755E-02   3.5324E-06  0.2582
   3.5755E-02   3.6625E-02   3.5544E-06  0.2514
   3.6625E-02   3.7516E-02   3.1869E-06  0.2639
   3.7516E-02   3.8428E-02   5.5258E-06  0.1985
   3.8428E-02   3.9363E-02   2.9947E-06  0.2673
   3.9363E-02   4.0321E-02   3.0557E-06  0.2581
   4.0321E-02   4.1302E-02   3.2618E-06  0.2500
   4.1302E-02   4.2307E-02   3.9804E-06  0.2236
   4.2307E-02   4.3337E-02   4.2745E-06  0.2132
   4.3337E-02   4.4391E-02   3.3194E-06  0.2373
   4.4391E-02   4.5471E-02   3.5683E-06  0.2266
   4.5471E-02   4.6577E-02   2.5309E-06  0.2673
   4.6577E-02   4.7711E-02   3.7540E-06  0.2158
   4.7711E-02   4.8871E-02   2.7167E-06  0.2482
   4.8871E-02   5.0061E-02   2.2299E-06  0.2727
   5.0061E-02   5.1279E-02   2.0525E-06  0.2800
   5.1279E-02   5.2526E-02   2.5648E-06  0.2500
   5.2526E-02   5.3804E-02   8.5894E-07  0.4122
   5.3804E-02   5.5113E-02   2.4701E-06  0.2476
   5.5113E-02   5.6454E-02   2.3118E-06  0.2519
   5.6454E-02   5.7828E-02   3.7314E-06  0.1961
   5.7828E-02   5.9235E-02   1.9901E-06  0.2673
   5.9235E-02   6.0676E-02   2.4979E-06  0.2357
   6.0676E-02   6.2152E-02   2.1676E-06  0.2500
   6.2152E-02   6.3665E-02   2.2120E-06  0.2414
   6.3665E-02   6.5214E-02   1.9938E-06  0.2516
   6.5214E-02   6.6800E-02   3.3224E-06  0.1937
   6.6800E-02   6.8426E-02   2.1078E-06  0.2408
   6.8426E-02   7.0090E-02   2.9446E-06  0.2003
   7.0090E-02   7.1796E-02   1.3214E-06  0.2953
   7.1796E-02   7.3543E-02   1.6601E-06  0.2603
   7.3543E-02   7.5332E-02   2.8600E-06  0.1959
   7.5332E-02   7.7165E-02   1.4731E-06  0.2696
   7.7165E-02   7.9042E-02   2.5266E-06  0.2030
   7.9042E-02   8.0965E-02   1.7848E-06  0.2404
   8.0965E-02   8.2935E-02   2.1704E-06  0.2147
   8.2935E-02   8.4953E-02   9.1764E-07  0.3252
   8.4953E-02   8.7020E-02   1.4514E-06  0.2582
   8.7020E-02   8.9138E-02   2.0781E-06  0.2132
   8.9138E-02   9.1306E-02   1.9503E-06  0.2168
   9.1306E-02   9.3528E-02   1.5755E-06  0.2373
   9.3528E-02   9.5804E-02   1.6819E-06  0.2279
   9.5804E-02   9.8134E-02   1.4116E-06  0.2439
   9.8134E-02   1.0052E-01   1.3821E-06  0.2443
   1.0052E-01   1.0297E-01   1.2266E-06  0.2582
   1.0297E-01   1.0547E-01   1.1080E-06  0.2630
   1.0547E-01   1.0804E-01   1.3249E-06  0.2425
   1.0804E-01   1.1067E-01   1.5136E-06  0.2210
   1.1067E-01   1.1336E-01   1.3920E-06  0.2283
   1.1336E-01   1.1612E-01   1.3052E-06  0.2324
   1.1612E-01   1.1894E-01   1.2742E-06  0.2357
   1.1894E-01   1.2184E-01   1.6864E-06  0.2011
   1.2184E-01   1.2480E-01   1.0120E-06  0.2539
   1.2480E-01   1.2784E-01   1.3300E-06  0.2217
   1.2784E-01   1.3095E-01   1.3603E-06  0.2167
   1.3095E-01   1.3414E-01   1.4564E-06  0.2069
   1.3414E-01   1.3740E-01   1.1031E-06  0.2357
   1.3740E-01   1.4074E-01   8.3756E-07  0.2673
   1.4074E-01   1.4417E-01   1.2265E-06  0.2182
   1.4417E-01   1.4767E-01   7.2809E-07  0.2749
   1.4767E-01   1.5127E-01   9.5982E-07  0.2395
   1.5127E-01   1.5495E-01   1.2057E-06  0.2116
   1.5495E-01   1.5872E-01   8.7633E-07  0.2429
   1.5872E-01   1.6258E-01   7.2506E-07  0.2673
   1.6258E-01   1.6654E-01   9.3287E-07  0.2306
   1.6654E-01   1.7059E-01   4.5466E-07  0.3265
   1.7059E-01   1.7474E-01   9.7886E-07  0.2204
   1.7474E-01   1.7899E-01   1.0820E-06  0.2085
   1.7899E-01   1.8334E-01   7.7953E-07  0.2383
   1.8334E-01   1.8781E-01   9.8634E-07  0.2132
   1.8781E-01   1.9237E-01   1.0275E-06  0.2048
   1.9237E-01   1.9706E-01   1.2021E-06  0.1881
   1.9706E-01   2.0185E-01   1.0220E-06  0.2010
   2.0185E-01   2.0676E-01   9.0364E-07  0.2116
   2.0676E-01   2.1179E-01   1.1734E-06  0.1829
   2.1179E-01   2.1694E-01   8.7816E-07  0.2079
   2.1694E-01   2.2222E-01   7.6465E-07  0.2218
   2.2222E-01   2.2763E-01   8.5077E-07  0.2085
   2.2763E-01   2.3317E-01   1.0643E-06  0.1831
   2.3317E-01   2.3884E-01   1.2339E-06  0.1690
   2.3884E-01   2.4465E-01   9.8143E-07  0.1859
   2.4465E-01   2.5061E-01   9.4982E-07  0.1874
   2.5061E-01   2.5670E-01   1.7220E-06  0.1377
   2.5670E-01   2.6295E-01   1.3609E-06  0.1529
   2.6295E-01   2.6935E-01   1.7953E-06  0.1316
   2.6935E-01   2.7590E-01   1.4630E-06  0.1433
   2.7590E-01   2.8261E-01   1.4977E-06  0.1408
   2.8261E-01   2.8949E-01   1.9987E-06  0.1203
   2.8949E-01   2.9653E-01   1.7961E-06  0.1255
   2.9653E-01   3.0375E-01   1.5164E-06  0.1347
   3.0375E-01   3.1114E-01   1.8999E-06  0.1192
   3.1114E-01   3.1871E-01   2.5143E-06  0.1021
   3.1871E-01   3.2646E-01   2.2376E-06  0.1071
   3.2646E-01   3.3441E-01   1.7586E-06  0.1187
   3.3441E-01   3.4254E-01   2.3680E-06  0.1014
   3.4254E-01   3.5088E-01   2.2759E-06  0.1024
   3.5088E-01   3.5941E-01   2.7149E-06  0.0924
   3.5941E-01   3.6816E-01   2.5640E-06  0.0941
   3.6816E-01   3.7712E-01   3.0012E-06  0.0858
   3.7712E-01   3.8629E-01   2.5939E-06  0.0915
   3.8629E-01   3.9569E-01   2.1947E-06  0.0980
   3.9569E-01   4.0532E-01   2.8570E-06  0.0852
   4.0532E-01   4.1518E-01   3.1967E-06  0.0794
   4.1518E-01   4.2528E-01   2.9732E-06  0.0813
   4.2528E-01   4.3563E-01   3.6984E-06  0.0719
   4.3563E-01   4.4623E-01   3.5762E-06  0.0725
   4.4623E-01   4.5708E-01   3.4761E-06  0.0727
   4.5708E-01   4.6821E-01   4.5986E-06  0.0625
   4.6821E-01   4.7960E-01   4.1382E-06  0.0651
   4.7960E-01   4.9127E-01   3.8725E-06  0.0664
   4.9127E-01   5.0322E-01   4.4937E-06  0.0609
   5.0322E-01   5.1546E-01   3.9726E-06  0.0639
   5.1546E-01   5.2800E-01   4.5622E-06  0.0590
   5.2800E-01   5.4085E-01   4.7651E-06  0.0569
   5.4085E-01   5.5401E-01   4.7360E-06  0.0564
   5.5401E-01   5.6749E-01   5.4407E-06  0.0520
   5.6749E-01   5.8130E-01   5.1161E-06  0.0530
   5.8130E-01   5.9544E-01   4.7341E-06  0.0545
   5.9544E-01   6.0993E-01   5.1850E-06  0.0514
   6.0993E-01   6.2477E-01   6.0841E-06  0.0469
   6.2477E-01   6.3997E-01   5.6904E-06  0.0479
   6.3997E-01   6.5554E-01   5.6938E-06  0.0474
   6.5554E-01   6.7149E-01   5.8286E-06  0.0463
   6.7149E-01   6.8783E-01   5.6992E-06  0.0462
   6.8783E-01   7.0456E-01   6.3727E-06  0.0432
   7.0456E-01   7.2171E-01   6.1109E-06  0.0436
   7.2171E-01   7.3927E-01   7.2224E-06  0.0396
   7.3927E-01   7.5725E-01   6.8627E-06  0.0402
   7.5725E-01   7.7568E-01   6.9937E-06  0.0393
   7.7568E-01   7.9455E-01   7.5362E-06  0.0374
   7.9455E-01   8.1388E-01   7.7422E-06  0.0365
   8.1388E-01   8.3368E-01   7.4384E-06  0.0367
   8.3368E-01   8.5397E-01   7.9100E-06  0.0352
   8.5397E-01   8.7475E-01   7.4544E-06  0.0359
   8.7475E-01   8.9603E-01   8.0449E-06  0.0341
   8.9603E-01   9.1783E-01   8.0682E-06  0.0336
   9.1783E-01   9.4016E-01   8.5296E-06  0.0323
   9.4016E-01   9.6304E-01   8.1882E-06  0.0326
   9.6304E-01   9.8647E-01   8.8135E-06  0.0311
   9.8647E-01   1.0105E+00   8.8991E-06  0.0305
   1.0105E+00   1.0351E+00   8.6967E-06  0.0305
   1.0351E+00   1.0602E+00   8.2446E-06  0.0310
   1.0602E+00   1.0860E+00   9.0932E-06  0.0292
   1.0860E+00   1.1125E+00   8.4166E-06  0.0299
   1.1125E+00   1.1395E+00   8.8748E-06  0.0288
   1.1395E+00   1.1673E+00   8.7765E-06  0.0286
   1.1673E+00   1.1957E+00   8.5551E-06  0.0286
   1.1957E+00   1.2247E+00   9.4468E-06  0.0269
   1.2247E+00   1.2545E+00   9.2168E-06  0.0269
   1.2545E+00   1.2851E+00   9.1178E-06  0.0268
   1.2851E+00   1.3163E+00   9.3125E-06  0.0262
   1.3163E+00   1.3484E+00   9.1773E-06  0.0260
   1.3484E+00   1.3812E+00   8.9563E-06  0.0260
   1.3812E+00   1.4148E+00   9.8503E-06  0.0245
   1.4148E+00   1.4492E+00   9.3518E-06  0.0249
   1.4492E+00   1.4845E+00   9.9795E-06  0.0238
   1.4845E+00   1.5206E+00   9.6835E-06  0.0239
   1.5206E+00   1.5576E+00   9.6518E-06  0.0236
   1.5576E+00   1.5955E+00   9.9465E-06  0.0230
   1.5955E+00   1.6343E+00   9.8748E-06  0.0228
   1.6343E+00   1.6741E+00   9.2329E-06  0.0233
   1.6741E+00   1.7148E+00   9.6871E-06  0.0225
   1.7148E+00   1.7565E+00   9.5183E-06  0.0224
   1.7565E+00   1.7992E+00   9.5989E-06  0.0220
   1.7992E+00   1.8430E+00   1.0006E-05  0.0213
   1.8430E+00   1.8879E+00   9.6926E-06  0.0214
   1.8879E+00   1.9338E+00   9.5763E-06  0.0213
   1.9338E+00   1.9808E+00   1.0003E-05  0.0206
   1.9808E+00   2.0290E+00   1.0481E-05  0.0199
   2.0290E+00   2.0784E+00   9.9481E-06  0.0201
   2.0784E+00   2.1290E+00   1.0193E-05  0.0197
   2.1290E+00   2.1808E+00   1.0187E-05  0.0194
   2.1808E+00   2.2338E+00   1.0245E-05  0.0191
   2.2338E+00   2.2882E+00   1.0097E-05  0.0191
   2.2882E+00   2.3439E+00   1.0068E-05  0.0189
   2.3439E+00   2.4009E+00   1.0465E-05  0.0183
   2.4009E+00   2.4593E+00   1.0015E-05  0.0185
   2.4593E+00   2.5191E+00   1.0166E-05  0.0181
   2.5191E+00   2.5804E+00   1.0189E-05  0.0179
   2.5804E+00   2.6432E+00   1.0046E-05  0.0178
   2.6432E+00   2.7075E+00   1.0064E-05  0.0175
   2.7075E+00   2.7734E+00   9.9759E-06  0.0174
   2.7734E+00   2.8409E+00   1.0296E-05  0.0169
   2.8409E+00   2.9100E+00   1.0301E-05  0.0167
   2.9100E+00   2.9808E+00   1.0349E-05  0.0165
   2.9808E+00   3.0533E+00   1.0284E-05  0.0164
   3.0533E+00   3.1276E+00   1.0129E-05  0.0163
   3.1276E+00   3.2037E+00   1.0723E-05  0.0156
   3.2037E+00   3.2817E+00   1.0648E-05  0.0155
   3.2817E+00   3.3615E+00   1.0566E-05  0.0154
   3.3615E+00   3.4433E+00   1.0812E-05  0.0150
   3.4433E+00   3.5271E+00   1.0721E-05  0.0149
   3.5271E+00   3.6129E+00   1.0812E-05  0.0147
   3.6129E+00   3.7008E+00   1.0931E-05  0.0144
   3.7008E+00   3.7908E+00   1.0474E-05  0.0145
   3.7908E+00   3.8831E+00   1.0627E-05  0.0143
   3.8831E+00   3.9776E+00   1.1089E-05  0.0138
   3.9776E+00   4.0743E+00   1.1176E-05  0.0136
   4.0743E+00   4.1735E+00   1.1626E-05  0.0132
   4.1735E+00   4.2750E+00   1.1712E-05  0.0130
   4.2750E+00   4.3790E+00   1.1663E-05  0.0128
   4.3790E+00   4.4856E+00   1.1490E-05  0.0128
   4.4856E+00   4.5947E+00   1.1685E-05  0.0125
   4.5947E+00   4.7065E+00   1.1618E-05  0.0124
   4.7065E+00   4.8210E+00   1.1533E-05  0.0123
   4.8210E+00   4.9383E+00   1.1315E-05  0.0123
   4.9383E+00   5.0585E+00   1.1398E-05  0.0121
   5.0585E+00   5.1815E+00   1.1251E-05  0.0120
   5.1815E+00   5.3076E+00   1.1494E-05  0.0117
   5.3076E+00   5.4368E+00   1.1423E-05  0.0116
   5.4368E+00   5.5690E+00   1.1167E-05  0.0116
   5.5690E+00   5.7045E+00   1.1186E-05  0.0115
   5.7045E+00   5.8433E+00   1.1052E-05  0.0114
   5.8433E+00   5.9855E+00   1.0906E-05  0.0113
   5.9855E+00   6.1311E+00   1.0706E-05  0.0113
   6.1311E+00   6.2803E+00   1.0734E-05  0.0112
   6.2803E+00   6.4331E+00   1.0245E-05  0.0113
   6.4331E+00   6.5896E+00   1.0255E-05  0.0112
   6.5896E+00   6.7500E+00   1.0289E-05  0.0110
   6.7500E+00   6.9142E+00   9.9404E-06  0.0111
   6.9142E+00   7.0824E+00   9.6820E-06  0.0111
   7.0824E+00   7.2548E+00   9.5916E-06  0.0110
   7.2548E+00   7.4313E+00   9.2850E-06  0.0110
   7.4313E+00   7.6121E+00   9.0554E-06  0.0110
   7.6121E+00   7.7973E+00   8.6805E-06  0.0111
   7.7973E+00   7.9870E+00   8.5240E-06  0.0111
   7.9870E+00   8.1813E+00   8.0642E-06  0.0113
   8.1813E+00   8.3804E+00   7.7427E-06  0.0114
   8.3804E+00   8.5843E+00   7.6507E-06  0.0113
   8.5843E+00   8.7931E+00   7.4081E-06  0.0114
   8.7931E+00   9.0071E+00   7.0685E-06  0.0115
   9.0071E+00   9.2262E+00   6.7730E-06  0.0116
   9.2262E+00   9.4507E+00   6.4255E-06  0.0118
   9.4507E+00   9.6807E+00   6.0102E-06  0.0120
   9.6807E+00   9.9162E+00   5.8122E-06  0.0121
   9.9162E+00   1.0157E+01   5.6761E-06  0.0121
   1.0157E+01   1.0405E+01   5.3703E-06  0.0123
   1.0405E+01   1.0658E+01   5.1611E-06  0.0124
   1.0658E+01   1.0917E+01   4.9242E-06  0.0125
   1.0917E+01   1.1183E+01   4.6548E-06  0.0127
   1.1183E+01   1.1455E+01   4.3764E-06  0.0130
   1.1455E+01   1.1733E+01   4.2339E-06  0.0130
   1.1733E+01   1.2019E+01   4.0004E-06  0.0132
   1.2019E+01   1.2311E+01   3.7687E-06  0.0135
   1.2311E+01   1.2611E+01   3.6531E-06  0.0135
   1.2611E+01   1.2918E+01   3.3684E-06  0.0139
   1.2918E+01   1.3232E+01   3.2127E-06  0.0141
   1.3232E+01   1.3554E+01   3.1267E-06  0.0141
   1.3554E+01   1.3884E+01   2.9516E-06  0.0143
   1.3884E+01   1.4222E+01   2.7328E-06  0.0147
   1.4222E+01   1.4568E+01   2.6915E-06  0.0147
   1.4568E+01   1.4922E+01   2.6038E-06  0.0147
   1.4922E+01   1.5285E+01   2.5124E-06  0.0148
   1.5285E+01   1.5657E+01   2.1573E-06  0.0158
   1.5657E+01   1.6038E+01   1.8673E-06  0.0168
   1.6038E+01   1.6428E+01   1.2353E-06  0.0204
   1.6428E+01   1.6828E+01   1.1859E-06  0.0205
   1.6828E+01   1.7237E+01   4.9385E-07  0.0315
   1.7237E+01   1.7657E+01   4.0547E-07  0.0343
   1.7657E+01   1.8086E+01   4.3042E-07  0.0329
   1.8086E+01   1.8526E+01   4.1677E-07  0.0330
   1.8526E+01   1.8977E+01   3.9844E-07  0.0334
   1.8977E+01   1.9439E+01   3.9287E-07  0.0332
   1.9439E+01   1.9912E+01   3.8692E-07  0.0331
   1.9912E+01   2.0396E+01   3.4801E-07  0.0344
   2.0396E+01   2.0893E+01   2.9581E-07  0.0369
   2.0893E+01   2.1401E+01   2.7266E-07  0.0380
   2.1401E+01   2.1922E+01   1.3674E-07  0.0530
   2.1922E+01   2.2455E+01   6.5620E-08  0.0756
   2.2455E+01   2.3001E+01   0.0000E+00  0.0000
   2.3001E+01   2.3561E+01   0.0000E+00  0.0000
   2.3561E+01   2.4134E+01   0.0000E+00  0.0000
   2.4134E+01   2.4721E+01   0.0000E+00  0.0000
   2.4721E+01   2.5323E+01   0.0000E+00  0.0000
   2.5323E+01   2.5939E+01   0.0000E+00  0.0000
   2.5939E+01   2.6570E+01   0.0000E+00  0.0000
   2.6570E+01   2.7217E+01   0.0000E+00  0.0000
   2.7217E+01   2.7879E+01   0.0000E+00  0.0000
   2.7879E+01   2.8557E+01   0.0000E+00  0.0000
   2.8557E+01   2.9252E+01   0.0000E+00  0.0000
   2.9252E+01   2.9964E+01   0.0000E+00  0.0000
   2.9964E+01   3.0693E+01   0.0000E+00  0.0000
   3.0693E+01   3.1440E+01   0.0000E+00  0.0000
   3.1440E+01   3.2205E+01   0.0000E+00  0.0000
   3.2205E+01   3.2988E+01   0.0000E+00  0.0000
   3.2988E+01   3.3791E+01   0.0000E+00  0.0000
   3.3791E+01   3.4613E+01   0.0000E+00  0.0000
   3.4613E+01   3.5455E+01   0.0000E+00  0.0000
   3.5455E+01   3.6318E+01   0.0000E+00  0.0000
   3.6318E+01   3.7201E+01   0.0000E+00  0.0000
   3.7201E+01   3.8106E+01   0.0000E+00  0.0000
   3.8106E+01   3.9034E+01   0.0000E+00  0.0000
   3.9034E+01   3.9983E+01   0.0000E+00  0.0000
   3.9983E+01   4.0956E+01   0.0000E+00  0.0000
   4.0956E+01   4.1953E+01   0.0000E+00  0.0000
   4.1953E+01   4.2973E+01   0.0000E+00  0.0000
   4.2973E+01   4.4019E+01   0.0000E+00  0.0000
   4.4019E+01   4.5090E+01   0.0000E+00  0.0000
   4.5090E+01   4.6187E+01   0.0000E+00  0.0000
   4.6187E+01   4.7311E+01   0.0000E+00  0.0000
   4.7311E+01   4.8462E+01   0.0000E+00  0.0000
   4.8462E+01   4.9641E+01   0.0000E+00  0.0000
   4.9641E+01   5.0849E+01   0.0000E+00  0.0000
   5.0849E+01   5.2086E+01   0.0000E+00  0.0000
   5.2086E+01   5.3353E+01   0.0000E+00  0.0000
   5.3353E+01   5.4651E+01   0.0000E+00  0.0000
   5.4651E+01   5.5981E+01   0.0000E+00  0.0000
   5.5981E+01   5.7343E+01   0.0000E+00  0.0000
   5.7343E+01   5.8738E+01   0.0000E+00  0.0000
   5.8738E+01   6.0168E+01   0.0000E+00  0.0000
   6.0168E+01   6.1632E+01   0.0000E+00  0.0000
   6.1632E+01   6.3131E+01   0.0000E+00  0.0000
   6.3131E+01   6.4667E+01   0.0000E+00  0.0000
   6.4667E+01   6.6240E+01   0.0000E+00  0.0000
   6.6240E+01   6.7852E+01   0.0000E+00  0.0000
   6.7852E+01   6.9503E+01   0.0000E+00  0.0000
   6.9503E+01   7.1194E+01   0.0000E+00  0.0000
   7.1194E+01   7.2926E+01   0.0000E+00  0.0000
   7.2926E+01   7.4701E+01   0.0000E+00  0.0000
   7.4701E+01   7.6518E+01   0.0000E+00  0.0000
   7.6518E+01   7.8380E+01   0.0000E+00  0.0000
   7.8380E+01   8.0287E+01   0.0000E+00  0.0000
   8.0287E+01   8.2240E+01   0.0000E+00  0.0000
   8.2240E+01   8.4241E+01   0.0000E+00  0.0000
   8.4241E+01   8.6291E+01   0.0000E+00  0.0000
   8.6291E+01   8.8391E+01   0.0000E+00  0.0000
   8.8391E+01   9.0541E+01   0.0000E+00  0.0000
   9.0541E+01   9.2744E+01   0.0000E+00  0.0000
   9.2744E+01   9.5001E+01   0.0000E+00  0.0000
   9.5001E+01   9.7312E+01   0.0000E+00  0.0000
   9.7312E+01   9.9680E+01   0.0000E+00  0.0000
   9.9680E+01   1.0211E+02   0.0000E+00  0.0000
   1.0211E+02   1.0459E+02   0.0000E+00  0.0000
   1.0459E+02   1.0713E+02   0.0000E+00  0.0000
   1.0713E+02   1.0974E+02   0.0000E+00  0.0000
   1.0974E+02   1.1241E+02   0.0000E+00  0.0000
   1.1241E+02   1.1515E+02   0.0000E+00  0.0000
   1.1515E+02   1.1795E+02   0.0000E+00  0.0000
   1.1795E+02   1.2082E+02   0.0000E+00  0.0000
   1.2082E+02   1.2376E+02   0.0000E+00  0.0000
   1.2376E+02   1.2677E+02   0.0000E+00  0.0000
   1.2677E+02   1.2985E+02   0.0000E+00  0.0000
   1.2985E+02   1.3301E+02   0.0000E+00  0.0000
   1.3301E+02   1.3625E+02   0.0000E+00  0.0000
   1.3625E+02   1.3956E+02   0.0000E+00  0.0000
   1.3956E+02   1.4296E+02   0.0000E+00  0.0000
   1.4296E+02   1.4644E+02   0.0000E+00  0.0000
   1.4644E+02   1.5000E+02   0.0000E+00  0.0000

#   sum over                 7.6323E-07
'no. =    1   reg = 100 - 200'
msuc: {\huge [t-cross] in region mesh}
msdr: {\it plotted by \ANGEL \version}
msdl: {\it calculated by \PHITS  3.26}
wt: s(0.7)
\vspace{-3}
  region surface crossing
  area  &=&   1.0000E+00 [cm^2]
e:
 
# Information for Restart Calculation
# This calculation was newly started
# istdev =  2 # 1:Batch variance, 2:History variance
# resc2  = 5.00000000000000000E+09 # Total source weight or Total source weight / maxcas
# resc3  = 5.00000000000000000E+09 # Total history number or Total batch number
# maxcas =   500000000 # History / Batch, only used for istdev=1
# bitrseed = 0110100000100010111000001110001111001110100100011111101000111001 # bit data of rseed
