[ T-Cross ]
    title = [t-cross] in region mesh
     mesh =  reg            # mesh type is region-wise
      reg =    1            # number of crossing regions
      non     r-from    r-to       area
      1       117       217        1.000000    
   e-type =    3            # e-mesh is log given by emin, emax and ne
     emin =  1.0000000E-02  # minimum value of e-mesh points
     emax =   150.0000      # maximum value of e-mesh points
#    edel =  2.4039514E-02  # mesh width of e-mesh points
       ne =    400          # number of e-mesh points
#    data = ( e(i), i = 1, ne + 1 )
#           1.00000E-02  1.02433E-02  1.04925E-02  1.07478E-02  1.10093E-02
#           1.12772E-02  1.15516E-02  1.18326E-02  1.21205E-02  1.24154E-02
#           1.27175E-02  1.30269E-02  1.33439E-02  1.36686E-02  1.40011E-02
#           1.43418E-02  1.46907E-02  1.50482E-02  1.54143E-02  1.57894E-02
#           1.61735E-02  1.65670E-02  1.69701E-02  1.73830E-02  1.78060E-02
#           1.82392E-02  1.86830E-02  1.91375E-02  1.96032E-02  2.00801E-02
#           2.05687E-02  2.10692E-02  2.15818E-02  2.21069E-02  2.26448E-02
#           2.31957E-02  2.37601E-02  2.43382E-02  2.49304E-02  2.55369E-02
#           2.61583E-02  2.67947E-02  2.74467E-02  2.81145E-02  2.87985E-02
#           2.94992E-02  3.02169E-02  3.09521E-02  3.17052E-02  3.24766E-02
#           3.32668E-02  3.40762E-02  3.49053E-02  3.57546E-02  3.66246E-02
#           3.75157E-02  3.84284E-02  3.93634E-02  4.03212E-02  4.13022E-02
#           4.23071E-02  4.33365E-02  4.43909E-02  4.54710E-02  4.65773E-02
#           4.77106E-02  4.88714E-02  5.00605E-02  5.12785E-02  5.25262E-02
#           5.38042E-02  5.51133E-02  5.64542E-02  5.78278E-02  5.92348E-02
#           6.06760E-02  6.21523E-02  6.36645E-02  6.52135E-02  6.68002E-02
#           6.84255E-02  7.00904E-02  7.17957E-02  7.35426E-02  7.53319E-02
#           7.71648E-02  7.90423E-02  8.09655E-02  8.29354E-02  8.49533E-02
#           8.70203E-02  8.91376E-02  9.13064E-02  9.35279E-02  9.58035E-02
#           9.81345E-02  1.00522E-01  1.02968E-01  1.05473E-01  1.08040E-01
#           1.10668E-01  1.13361E-01  1.16119E-01  1.18944E-01  1.21838E-01
#           1.24803E-01  1.27839E-01  1.30950E-01  1.34136E-01  1.37399E-01
#           1.40742E-01  1.44167E-01  1.47675E-01  1.51268E-01  1.54948E-01
#           1.58718E-01  1.62580E-01  1.66535E-01  1.70587E-01  1.74738E-01
#           1.78989E-01  1.83344E-01  1.87805E-01  1.92375E-01  1.97055E-01
#           2.01850E-01  2.06761E-01  2.11792E-01  2.16945E-01  2.22223E-01
#           2.27630E-01  2.33169E-01  2.38842E-01  2.44653E-01  2.50605E-01
#           2.56703E-01  2.62949E-01  2.69346E-01  2.75900E-01  2.82613E-01
#           2.89489E-01  2.96532E-01  3.03747E-01  3.11138E-01  3.18708E-01
#           3.26462E-01  3.34405E-01  3.42542E-01  3.50876E-01  3.59413E-01
#           3.68158E-01  3.77116E-01  3.86291E-01  3.95690E-01  4.05317E-01
#           4.15179E-01  4.25281E-01  4.35628E-01  4.46227E-01  4.57084E-01
#           4.68205E-01  4.79597E-01  4.91266E-01  5.03219E-01  5.15463E-01
#           5.28005E-01  5.40851E-01  5.54011E-01  5.67490E-01  5.81298E-01
#           5.95441E-01  6.09929E-01  6.24769E-01  6.39970E-01  6.55541E-01
#           6.71491E-01  6.87828E-01  7.04564E-01  7.21706E-01  7.39266E-01
#           7.57253E-01  7.75678E-01  7.94551E-01  8.13883E-01  8.33685E-01
#           8.53969E-01  8.74747E-01  8.96030E-01  9.17831E-01  9.40163E-01
#           9.63038E-01  9.86469E-01  1.01047E+00  1.03506E+00  1.06024E+00
#           1.08604E+00  1.11246E+00  1.13953E+00  1.16725E+00  1.19565E+00
#           1.22474E+00  1.25454E+00  1.28507E+00  1.31633E+00  1.34836E+00
#           1.38117E+00  1.41477E+00  1.44920E+00  1.48446E+00  1.52057E+00
#           1.55757E+00  1.59547E+00  1.63429E+00  1.67405E+00  1.71478E+00
#           1.75650E+00  1.79924E+00  1.84302E+00  1.88786E+00  1.93379E+00
#           1.98084E+00  2.02904E+00  2.07841E+00  2.12898E+00  2.18078E+00
#           2.23384E+00  2.28819E+00  2.34386E+00  2.40089E+00  2.45930E+00
#           2.51914E+00  2.58043E+00  2.64322E+00  2.70753E+00  2.77341E+00
#           2.84088E+00  2.91001E+00  2.98081E+00  3.05333E+00  3.12762E+00
#           3.20372E+00  3.28167E+00  3.36152E+00  3.44330E+00  3.52708E+00
#           3.61290E+00  3.70080E+00  3.79085E+00  3.88308E+00  3.97756E+00
#           4.07434E+00  4.17347E+00  4.27501E+00  4.37903E+00  4.48557E+00
#           4.59471E+00  4.70650E+00  4.82102E+00  4.93832E+00  5.05847E+00
#           5.18155E+00  5.30762E+00  5.43676E+00  5.56904E+00  5.70453E+00
#           5.84333E+00  5.98550E+00  6.13114E+00  6.28031E+00  6.43312E+00
#           6.58964E+00  6.74997E+00  6.91420E+00  7.08243E+00  7.25475E+00
#           7.43126E+00  7.61207E+00  7.79728E+00  7.98700E+00  8.18133E+00
#           8.38038E+00  8.58428E+00  8.79315E+00  9.00709E+00  9.22624E+00
#           9.45072E+00  9.68067E+00  9.91620E+00  1.01575E+01  1.04046E+01
#           1.06578E+01  1.09171E+01  1.11827E+01  1.14548E+01  1.17335E+01
#           1.20190E+01  1.23114E+01  1.26109E+01  1.29178E+01  1.32321E+01
#           1.35540E+01  1.38838E+01  1.42216E+01  1.45676E+01  1.49221E+01
#           1.52851E+01  1.56570E+01  1.60380E+01  1.64282E+01  1.68279E+01
#           1.72374E+01  1.76568E+01  1.80864E+01  1.85264E+01  1.89772E+01
#           1.94389E+01  1.99119E+01  2.03963E+01  2.08926E+01  2.14009E+01
#           2.19216E+01  2.24550E+01  2.30014E+01  2.35610E+01  2.41343E+01
#           2.47215E+01  2.53230E+01  2.59391E+01  2.65702E+01  2.72167E+01
#           2.78789E+01  2.85572E+01  2.92520E+01  2.99637E+01  3.06928E+01
#           3.14396E+01  3.22045E+01  3.29881E+01  3.37907E+01  3.46128E+01
#           3.54550E+01  3.63177E+01  3.72013E+01  3.81064E+01  3.90336E+01
#           3.99833E+01  4.09561E+01  4.19526E+01  4.29734E+01  4.40189E+01
#           4.50900E+01  4.61870E+01  4.73108E+01  4.84619E+01  4.96410E+01
#           5.08488E+01  5.20860E+01  5.33533E+01  5.46514E+01  5.59812E+01
#           5.73432E+01  5.87384E+01  6.01676E+01  6.16315E+01  6.31311E+01
#           6.46671E+01  6.62405E+01  6.78522E+01  6.95031E+01  7.11941E+01
#           7.29263E+01  7.47007E+01  7.65182E+01  7.83800E+01  8.02870E+01
#           8.22405E+01  8.42414E+01  8.62911E+01  8.83906E+01  9.05412E+01
#           9.27442E+01  9.50007E+01  9.73122E+01  9.96799E+01  1.02105E+02
#           1.04589E+02  1.07134E+02  1.09741E+02  1.12411E+02  1.15146E+02
#           1.17948E+02  1.20817E+02  1.23757E+02  1.26768E+02  1.29852E+02
#           1.33012E+02  1.36248E+02  1.39563E+02  1.42959E+02  1.46437E+02
#           1.50000E+02
     unit =    2            # unit is [1/cm^2/(MeV/n)/source]
     axis =  eng            # axis of output
     file = detector-18.out  # file name of output for the above axis
   output = f-curr          # surface crossing forward current spectrum
     part =  neutron  
# kf/name :  2112     
#    used :        main (  %)        temp (  %)       total (  %)
#  memory :         414 (  0)           0 (  0)         414 (  0)

#------------------------------------------------------------------------------
#newpage:
#   no. =    1   reg = 117 - 217

x: Energy [MeV/n]
y:  F-Curr [1/cm^2/(MeV/n)/source]         
p: xlog ylog afac(0.8) form(0.9)
h: n            x            y(neutron ),hh0l   n 
#  e-lower      e-upper      neutron     r.err 
   1.0000E-02   1.0243E-02   1.1176E-01  0.0086
   1.0243E-02   1.0493E-02   1.0862E-01  0.0086
   1.0493E-02   1.0748E-02   1.0680E-01  0.0086
   1.0748E-02   1.1009E-02   1.0538E-01  0.0085
   1.1009E-02   1.1277E-02   1.0295E-01  0.0085
   1.1277E-02   1.1552E-02   1.0212E-01  0.0084
   1.1552E-02   1.1833E-02   9.9097E-02  0.0085
   1.1833E-02   1.2121E-02   9.7962E-02  0.0084
   1.2121E-02   1.2415E-02   9.6256E-02  0.0084
   1.2415E-02   1.2718E-02   9.4161E-02  0.0084
   1.2718E-02   1.3027E-02   9.1385E-02  0.0084
   1.3027E-02   1.3344E-02   9.1798E-02  0.0083
   1.3344E-02   1.3669E-02   8.9134E-02  0.0083
   1.3669E-02   1.4001E-02   8.7606E-02  0.0083
   1.4001E-02   1.4342E-02   8.6823E-02  0.0082
   1.4342E-02   1.4691E-02   8.5331E-02  0.0082
   1.4691E-02   1.5048E-02   8.2115E-02  0.0083
   1.5048E-02   1.5414E-02   8.0479E-02  0.0082
   1.5414E-02   1.5789E-02   8.0530E-02  0.0081
   1.5789E-02   1.6174E-02   7.9275E-02  0.0081
   1.6174E-02   1.6567E-02   7.6155E-02  0.0082
   1.6567E-02   1.6970E-02   7.6541E-02  0.0081
   1.6970E-02   1.7383E-02   7.5876E-02  0.0080
   1.7383E-02   1.7806E-02   7.2724E-02  0.0081
   1.7806E-02   1.8239E-02   7.1795E-02  0.0080
   1.8239E-02   1.8683E-02   7.1165E-02  0.0080
   1.8683E-02   1.9138E-02   7.0389E-02  0.0079
   1.9138E-02   1.9603E-02   6.7225E-02  0.0080
   1.9603E-02   2.0080E-02   6.7230E-02  0.0079
   2.0080E-02   2.0569E-02   6.6245E-02  0.0079
   2.0569E-02   2.1069E-02   6.3786E-02  0.0079
   2.1069E-02   2.1582E-02   6.3469E-02  0.0078
   2.1582E-02   2.2107E-02   6.2517E-02  0.0078
   2.2107E-02   2.2645E-02   6.1495E-02  0.0078
   2.2645E-02   2.3196E-02   5.9477E-02  0.0078
   2.3196E-02   2.3760E-02   5.9523E-02  0.0077
   2.3760E-02   2.4338E-02   5.7978E-02  0.0077
   2.4338E-02   2.4930E-02   5.6925E-02  0.0077
   2.4930E-02   2.5537E-02   5.5782E-02  0.0077
   2.5537E-02   2.6158E-02   5.4389E-02  0.0077
   2.6158E-02   2.6795E-02   5.3800E-02  0.0076
   2.6795E-02   2.7447E-02   5.3131E-02  0.0076
   2.7447E-02   2.8114E-02   5.1915E-02  0.0076
   2.8114E-02   2.8799E-02   5.0559E-02  0.0076
   2.8799E-02   2.9499E-02   5.0230E-02  0.0075
   2.9499E-02   3.0217E-02   4.8625E-02  0.0076
   3.0217E-02   3.0952E-02   4.8676E-02  0.0075
   3.0952E-02   3.1705E-02   4.7463E-02  0.0075
   3.1705E-02   3.2477E-02   4.6582E-02  0.0075
   3.2477E-02   3.3267E-02   4.6279E-02  0.0074
   3.3267E-02   3.4076E-02   4.4619E-02  0.0074
   3.4076E-02   3.4905E-02   4.3570E-02  0.0074
   3.4905E-02   3.5755E-02   4.3037E-02  0.0074
   3.5755E-02   3.6625E-02   4.2577E-02  0.0073
   3.6625E-02   3.7516E-02   4.1972E-02  0.0073
   3.7516E-02   3.8428E-02   4.1066E-02  0.0073
   3.8428E-02   3.9363E-02   4.0555E-02  0.0073
   3.9363E-02   4.0321E-02   3.9657E-02  0.0073
   4.0321E-02   4.1302E-02   3.9228E-02  0.0072
   4.1302E-02   4.2307E-02   3.8734E-02  0.0072
   4.2307E-02   4.3337E-02   3.7599E-02  0.0072
   4.3337E-02   4.4391E-02   3.7105E-02  0.0072
   4.4391E-02   4.5471E-02   3.6233E-02  0.0071
   4.5471E-02   4.6577E-02   3.5681E-02  0.0071
   4.6577E-02   4.7711E-02   3.4596E-02  0.0071
   4.7711E-02   4.8871E-02   3.4808E-02  0.0070
   4.8871E-02   5.0061E-02   3.3790E-02  0.0071
   5.0061E-02   5.1279E-02   3.3040E-02  0.0071
   5.1279E-02   5.2526E-02   3.2241E-02  0.0071
   5.2526E-02   5.3804E-02   3.2100E-02  0.0070
   5.3804E-02   5.5113E-02   3.1498E-02  0.0070
   5.5113E-02   5.6454E-02   3.0906E-02  0.0069
   5.6454E-02   5.7828E-02   3.0512E-02  0.0069
   5.7828E-02   5.9235E-02   2.9883E-02  0.0069
   5.9235E-02   6.0676E-02   2.9495E-02  0.0069
   6.0676E-02   6.2152E-02   2.8943E-02  0.0068
   6.2152E-02   6.3665E-02   2.8476E-02  0.0068
   6.3665E-02   6.5214E-02   2.7799E-02  0.0068
   6.5214E-02   6.6800E-02   2.7401E-02  0.0068
   6.6800E-02   6.8426E-02   2.6957E-02  0.0068
   6.8426E-02   7.0090E-02   2.6731E-02  0.0067
   7.0090E-02   7.1796E-02   2.6163E-02  0.0067
   7.1796E-02   7.3543E-02   2.5456E-02  0.0067
   7.3543E-02   7.5332E-02   2.5152E-02  0.0067
   7.5332E-02   7.7165E-02   2.4759E-02  0.0066
   7.7165E-02   7.9042E-02   2.4256E-02  0.0066
   7.9042E-02   8.0965E-02   2.3944E-02  0.0066
   8.0965E-02   8.2935E-02   2.3729E-02  0.0065
   8.2935E-02   8.4953E-02   2.3224E-02  0.0065
   8.4953E-02   8.7020E-02   2.2455E-02  0.0066
   8.7020E-02   8.9138E-02   2.2129E-02  0.0065
   8.9138E-02   9.1306E-02   2.1952E-02  0.0065
   9.1306E-02   9.3528E-02   2.1726E-02  0.0064
   9.3528E-02   9.5804E-02   2.1509E-02  0.0064
   9.5804E-02   9.8134E-02   2.0983E-02  0.0064
   9.8134E-02   1.0052E-01   2.0551E-02  0.0064
   1.0052E-01   1.0297E-01   2.0099E-02  0.0064
   1.0297E-01   1.0547E-01   2.0018E-02  0.0063
   1.0547E-01   1.0804E-01   1.9535E-02  0.0063
   1.0804E-01   1.1067E-01   1.9040E-02  0.0063
   1.1067E-01   1.1336E-01   1.8845E-02  0.0063
   1.1336E-01   1.1612E-01   1.8557E-02  0.0063
   1.1612E-01   1.1894E-01   1.8032E-02  0.0063
   1.1894E-01   1.2184E-01   1.7853E-02  0.0062
   1.2184E-01   1.2480E-01   1.7622E-02  0.0062
   1.2480E-01   1.2784E-01   1.7166E-02  0.0062
   1.2784E-01   1.3095E-01   1.7004E-02  0.0062
   1.3095E-01   1.3414E-01   1.6542E-02  0.0062
   1.3414E-01   1.3740E-01   1.6551E-02  0.0061
   1.3740E-01   1.4074E-01   1.6032E-02  0.0061
   1.4074E-01   1.4417E-01   1.5917E-02  0.0061
   1.4417E-01   1.4767E-01   1.5613E-02  0.0060
   1.4767E-01   1.5127E-01   1.5466E-02  0.0060
   1.5127E-01   1.5495E-01   1.5167E-02  0.0060
   1.5495E-01   1.5872E-01   1.4771E-02  0.0060
   1.5872E-01   1.6258E-01   1.4599E-02  0.0060
   1.6258E-01   1.6654E-01   1.4274E-02  0.0060
   1.6654E-01   1.7059E-01   1.4027E-02  0.0059
   1.7059E-01   1.7474E-01   1.3876E-02  0.0059
   1.7474E-01   1.7899E-01   1.3531E-02  0.0059
   1.7899E-01   1.8334E-01   1.3236E-02  0.0059
   1.8334E-01   1.8781E-01   1.3190E-02  0.0058
   1.8781E-01   1.9237E-01   1.2884E-02  0.0058
   1.9237E-01   1.9706E-01   1.2734E-02  0.0058
   1.9706E-01   2.0185E-01   1.2660E-02  0.0057
   2.0185E-01   2.0676E-01   1.2264E-02  0.0058
   2.0676E-01   2.1179E-01   1.2168E-02  0.0057
   2.1179E-01   2.1694E-01   1.1830E-02  0.0057
   2.1694E-01   2.2222E-01   1.1465E-02  0.0058
   2.2222E-01   2.2763E-01   1.1474E-02  0.0057
   2.2763E-01   2.3317E-01   1.1308E-02  0.0057
   2.3317E-01   2.3884E-01   1.1056E-02  0.0056
   2.3884E-01   2.4465E-01   1.0842E-02  0.0056
   2.4465E-01   2.5061E-01   1.0590E-02  0.0056
   2.5061E-01   2.5670E-01   1.0558E-02  0.0056
   2.5670E-01   2.6295E-01   1.0294E-02  0.0056
   2.6295E-01   2.6935E-01   1.0121E-02  0.0056
   2.6935E-01   2.7590E-01   9.9083E-03  0.0056
   2.7590E-01   2.8261E-01   9.6542E-03  0.0056
   2.8261E-01   2.8949E-01   9.6075E-03  0.0055
   2.8949E-01   2.9653E-01   9.4335E-03  0.0055
   2.9653E-01   3.0375E-01   9.2430E-03  0.0055
   3.0375E-01   3.1114E-01   9.0739E-03  0.0055
   3.1114E-01   3.1871E-01   8.9065E-03  0.0055
   3.1871E-01   3.2646E-01   8.7082E-03  0.0054
   3.2646E-01   3.3441E-01   8.5928E-03  0.0054
   3.3441E-01   3.4254E-01   8.4061E-03  0.0054
   3.4254E-01   3.5088E-01   8.2963E-03  0.0054
   3.5088E-01   3.5941E-01   8.0919E-03  0.0054
   3.5941E-01   3.6816E-01   7.9831E-03  0.0054
   3.6816E-01   3.7712E-01   7.7635E-03  0.0054
   3.7712E-01   3.8629E-01   7.6477E-03  0.0053
   3.8629E-01   3.9569E-01   7.4901E-03  0.0053
   3.9569E-01   4.0532E-01   7.3090E-03  0.0053
   4.0532E-01   4.1518E-01   7.2277E-03  0.0053
   4.1518E-01   4.2528E-01   7.0899E-03  0.0053
   4.2528E-01   4.3563E-01   6.9100E-03  0.0053
   4.3563E-01   4.4623E-01   6.7822E-03  0.0053
   4.4623E-01   4.5708E-01   6.6299E-03  0.0053
   4.5708E-01   4.6821E-01   6.5112E-03  0.0053
   4.6821E-01   4.7960E-01   6.3669E-03  0.0053
   4.7960E-01   4.9127E-01   6.2033E-03  0.0053
   4.9127E-01   5.0322E-01   6.1109E-03  0.0052
   5.0322E-01   5.1546E-01   5.9062E-03  0.0053
   5.1546E-01   5.2800E-01   5.7804E-03  0.0053
   5.2800E-01   5.4085E-01   5.6658E-03  0.0052
   5.4085E-01   5.5401E-01   5.5165E-03  0.0053
   5.5401E-01   5.6749E-01   5.3869E-03  0.0053
   5.6749E-01   5.8130E-01   5.2305E-03  0.0053
   5.8130E-01   5.9544E-01   5.1292E-03  0.0053
   5.9544E-01   6.0993E-01   5.0523E-03  0.0052
   6.0993E-01   6.2477E-01   4.8396E-03  0.0053
   6.2477E-01   6.3997E-01   4.7799E-03  0.0053
   6.3997E-01   6.5554E-01   4.5874E-03  0.0053
   6.5554E-01   6.7149E-01   4.5253E-03  0.0053
   6.7149E-01   6.8783E-01   4.3887E-03  0.0053
   6.8783E-01   7.0456E-01   4.2556E-03  0.0053
   7.0456E-01   7.2171E-01   4.1371E-03  0.0053
   7.2171E-01   7.3927E-01   4.0325E-03  0.0053
   7.3927E-01   7.5725E-01   3.8705E-03  0.0054
   7.5725E-01   7.7568E-01   3.7636E-03  0.0054
   7.7568E-01   7.9455E-01   3.6325E-03  0.0054
   7.9455E-01   8.1388E-01   3.5345E-03  0.0054
   8.1388E-01   8.3368E-01   3.3892E-03  0.0055
   8.3368E-01   8.5397E-01   3.2282E-03  0.0055
   8.5397E-01   8.7475E-01   3.1520E-03  0.0055
   8.7475E-01   8.9603E-01   2.9950E-03  0.0056
   8.9603E-01   9.1783E-01   2.9239E-03  0.0056
   9.1783E-01   9.4016E-01   2.7932E-03  0.0057
   9.4016E-01   9.6304E-01   2.6773E-03  0.0057
   9.6304E-01   9.8647E-01   2.5490E-03  0.0058
   9.8647E-01   1.0105E+00   2.4732E-03  0.0058
   1.0105E+00   1.0351E+00   2.4480E-03  0.0058
   1.0351E+00   1.0602E+00   2.4802E-03  0.0057
   1.0602E+00   1.0860E+00   2.5177E-03  0.0056
   1.0860E+00   1.1125E+00   2.5587E-03  0.0054
   1.1125E+00   1.1395E+00   2.6154E-03  0.0053
   1.1395E+00   1.1673E+00   2.6867E-03  0.0052
   1.1673E+00   1.1957E+00   2.7504E-03  0.0051
   1.1957E+00   1.2247E+00   2.8610E-03  0.0049
   1.2247E+00   1.2545E+00   2.8195E-03  0.0049
   1.2545E+00   1.2851E+00   2.8583E-03  0.0048
   1.2851E+00   1.3163E+00   2.8911E-03  0.0047
   1.3163E+00   1.3484E+00   2.9420E-03  0.0046
   1.3484E+00   1.3812E+00   3.0015E-03  0.0045
   1.3812E+00   1.4148E+00   3.0449E-03  0.0044
   1.4148E+00   1.4492E+00   3.0487E-03  0.0044
   1.4492E+00   1.4845E+00   3.0074E-03  0.0043
   1.4845E+00   1.5206E+00   3.0302E-03  0.0043
   1.5206E+00   1.5576E+00   3.0553E-03  0.0042
   1.5576E+00   1.5955E+00   3.0527E-03  0.0042
   1.5955E+00   1.6343E+00   3.0592E-03  0.0041
   1.6343E+00   1.6741E+00   3.1327E-03  0.0040
   1.6741E+00   1.7148E+00   3.1661E-03  0.0039
   1.7148E+00   1.7565E+00   3.1142E-03  0.0039
   1.7565E+00   1.7992E+00   3.0933E-03  0.0039
   1.7992E+00   1.8430E+00   3.0807E-03  0.0039
   1.8430E+00   1.8879E+00   3.0280E-03  0.0038
   1.8879E+00   1.9338E+00   3.0502E-03  0.0038
   1.9338E+00   1.9808E+00   3.0626E-03  0.0037
   1.9808E+00   2.0290E+00   3.0491E-03  0.0037
   2.0290E+00   2.0784E+00   2.9865E-03  0.0037
   2.0784E+00   2.1290E+00   2.9306E-03  0.0037
   2.1290E+00   2.1808E+00   2.8813E-03  0.0037
   2.1808E+00   2.2338E+00   2.8385E-03  0.0037
   2.2338E+00   2.2882E+00   2.7782E-03  0.0036
   2.2882E+00   2.3439E+00   2.7598E-03  0.0036
   2.3439E+00   2.4009E+00   2.7401E-03  0.0036
   2.4009E+00   2.4593E+00   2.7033E-03  0.0036
   2.4593E+00   2.5191E+00   2.6170E-03  0.0036
   2.5191E+00   2.5804E+00   2.5154E-03  0.0036
   2.5804E+00   2.6432E+00   2.4494E-03  0.0036
   2.6432E+00   2.7075E+00   2.4015E-03  0.0036
   2.7075E+00   2.7734E+00   2.3224E-03  0.0036
   2.7734E+00   2.8409E+00   2.2663E-03  0.0036
   2.8409E+00   2.9100E+00   2.2287E-03  0.0036
   2.9100E+00   2.9808E+00   2.1775E-03  0.0036
   2.9808E+00   3.0533E+00   2.1192E-03  0.0036
   3.0533E+00   3.1276E+00   2.0183E-03  0.0037
   3.1276E+00   3.2037E+00   1.9231E-03  0.0037
   3.2037E+00   3.2817E+00   1.8316E-03  0.0037
   3.2817E+00   3.3615E+00   1.7669E-03  0.0038
   3.3615E+00   3.4433E+00   1.7064E-03  0.0038
   3.4433E+00   3.5271E+00   1.6365E-03  0.0038
   3.5271E+00   3.6129E+00   1.5891E-03  0.0038
   3.6129E+00   3.7008E+00   1.5215E-03  0.0039
   3.7008E+00   3.7908E+00   1.4397E-03  0.0039
   3.7908E+00   3.8831E+00   1.3829E-03  0.0040
   3.8831E+00   3.9776E+00   1.3346E-03  0.0040
   3.9776E+00   4.0743E+00   1.2733E-03  0.0040
   4.0743E+00   4.1735E+00   1.2009E-03  0.0041
   4.1735E+00   4.2750E+00   1.1351E-03  0.0042
   4.2750E+00   4.3790E+00   1.0724E-03  0.0042
   4.3790E+00   4.4856E+00   1.0068E-03  0.0043
   4.4856E+00   4.5947E+00   9.6184E-04  0.0044
   4.5947E+00   4.7065E+00   9.0864E-04  0.0044
   4.7065E+00   4.8210E+00   8.5796E-04  0.0045
   4.8210E+00   4.9383E+00   8.1122E-04  0.0046
   4.9383E+00   5.0585E+00   7.7511E-04  0.0046
   5.0585E+00   5.1815E+00   7.2545E-04  0.0047
   5.1815E+00   5.3076E+00   6.7557E-04  0.0049
   5.3076E+00   5.4368E+00   6.3963E-04  0.0049
   5.4368E+00   5.5690E+00   5.9738E-04  0.0050
   5.5690E+00   5.7045E+00   5.6138E-04  0.0051
   5.7045E+00   5.8433E+00   5.2966E-04  0.0052
   5.8433E+00   5.9855E+00   4.9807E-04  0.0053
   5.9855E+00   6.1311E+00   4.6775E-04  0.0054
   6.1311E+00   6.2803E+00   4.3567E-04  0.0056
   6.2803E+00   6.4331E+00   4.0382E-04  0.0057
   6.4331E+00   6.5896E+00   3.8178E-04  0.0058
   6.5896E+00   6.7500E+00   3.5417E-04  0.0059
   6.7500E+00   6.9142E+00   3.3466E-04  0.0060
   6.9142E+00   7.0824E+00   3.1377E-04  0.0062
   7.0824E+00   7.2548E+00   2.9391E-04  0.0063
   7.2548E+00   7.4313E+00   2.7602E-04  0.0064
   7.4313E+00   7.6121E+00   2.6238E-04  0.0065
   7.6121E+00   7.7973E+00   2.3767E-04  0.0067
   7.7973E+00   7.9870E+00   2.2611E-04  0.0068
   7.9870E+00   8.1813E+00   2.1409E-04  0.0069
   8.1813E+00   8.3804E+00   1.9955E-04  0.0071
   8.3804E+00   8.5843E+00   1.8660E-04  0.0073
   8.5843E+00   8.7931E+00   1.7685E-04  0.0074
   8.7931E+00   9.0071E+00   1.6652E-04  0.0075
   9.0071E+00   9.2262E+00   1.5724E-04  0.0076
   9.2262E+00   9.4507E+00   1.4733E-04  0.0078
   9.4507E+00   9.6807E+00   1.3635E-04  0.0080
   9.6807E+00   9.9162E+00   1.3074E-04  0.0081
   9.9162E+00   1.0157E+01   1.2218E-04  0.0082
   1.0157E+01   1.0405E+01   1.1727E-04  0.0083
   1.0405E+01   1.0658E+01   1.1220E-04  0.0084
   1.0658E+01   1.0917E+01   1.0534E-04  0.0085
   1.0917E+01   1.1183E+01   9.9593E-05  0.0087
   1.1183E+01   1.1455E+01   9.4416E-05  0.0088
   1.1455E+01   1.1733E+01   8.9256E-05  0.0089
   1.1733E+01   1.2019E+01   8.3511E-05  0.0091
   1.2019E+01   1.2311E+01   7.9526E-05  0.0093
   1.2311E+01   1.2611E+01   7.5558E-05  0.0094
   1.2611E+01   1.2918E+01   7.2824E-05  0.0094
   1.2918E+01   1.3232E+01   6.8101E-05  0.0096
   1.3232E+01   1.3554E+01   6.3759E-05  0.0098
   1.3554E+01   1.3884E+01   6.1359E-05  0.0099
   1.3884E+01   1.4222E+01   5.6095E-05  0.0103
   1.4222E+01   1.4568E+01   5.3863E-05  0.0103
   1.4568E+01   1.4922E+01   5.1148E-05  0.0105
   1.4922E+01   1.5285E+01   4.8363E-05  0.0107
   1.5285E+01   1.5657E+01   4.6349E-05  0.0108
   1.5657E+01   1.6038E+01   4.2565E-05  0.0111
   1.6038E+01   1.6428E+01   3.9524E-05  0.0114
   1.6428E+01   1.6828E+01   3.7857E-05  0.0115
   1.6828E+01   1.7237E+01   3.5236E-05  0.0118
   1.7237E+01   1.7657E+01   3.3374E-05  0.0119
   1.7657E+01   1.8086E+01   3.1324E-05  0.0122
   1.8086E+01   1.8526E+01   2.9701E-05  0.0124
   1.8526E+01   1.8977E+01   2.7241E-05  0.0128
   1.8977E+01   1.9439E+01   2.5883E-05  0.0129
   1.9439E+01   1.9912E+01   2.4258E-05  0.0132
   1.9912E+01   2.0396E+01   1.6265E-05  0.0159
   2.0396E+01   2.0893E+01   1.4807E-05  0.0165
   2.0893E+01   2.1401E+01   1.4498E-05  0.0165
   2.1401E+01   2.1922E+01   1.3731E-05  0.0167
   2.1922E+01   2.2455E+01   1.3128E-05  0.0169
   2.2455E+01   2.3001E+01   1.2596E-05  0.0170
   2.3001E+01   2.3561E+01   1.2333E-05  0.0170
   2.3561E+01   2.4134E+01   1.1433E-05  0.0175
   2.4134E+01   2.4721E+01   1.0756E-05  0.0178
   2.4721E+01   2.5323E+01   1.0723E-05  0.0176
   2.5323E+01   2.5939E+01   9.5175E-06  0.0185
   2.5939E+01   2.6570E+01   9.2756E-06  0.0185
   2.6570E+01   2.7217E+01   9.0769E-06  0.0185
   2.7217E+01   2.7879E+01   8.3449E-06  0.0190
   2.7879E+01   2.8557E+01   7.8754E-06  0.0193
   2.8557E+01   2.9252E+01   7.7920E-06  0.0192
   2.9252E+01   2.9964E+01   6.9999E-06  0.0200
   2.9964E+01   3.0693E+01   6.5319E-06  0.0205
   3.0693E+01   3.1440E+01   6.2401E-06  0.0207
   3.1440E+01   3.2205E+01   5.8200E-06  0.0212
   3.2205E+01   3.2988E+01   5.1917E-06  0.0222
   3.2988E+01   3.3791E+01   4.8167E-06  0.0227
   3.3791E+01   3.4613E+01   4.6950E-06  0.0228
   3.4613E+01   3.5455E+01   4.3389E-06  0.0234
   3.5455E+01   3.6318E+01   3.8115E-06  0.0247
   3.6318E+01   3.7201E+01   3.5128E-06  0.0254
   3.7201E+01   3.8106E+01   3.2901E-06  0.0259
   3.8106E+01   3.9034E+01   3.0178E-06  0.0267
   3.9034E+01   3.9983E+01   2.6808E-06  0.0280
   3.9983E+01   4.0956E+01   2.4609E-06  0.0289
   4.0956E+01   4.1953E+01   2.1355E-06  0.0307
   4.1953E+01   4.2973E+01   2.0495E-06  0.0309
   4.2973E+01   4.4019E+01   1.7368E-06  0.0332
   4.4019E+01   4.5090E+01   1.5537E-06  0.0347
   4.5090E+01   4.6187E+01   1.3381E-06  0.0369
   4.6187E+01   4.7311E+01   1.1408E-06  0.0395
   4.7311E+01   4.8462E+01   1.0772E-06  0.0402
   4.8462E+01   4.9641E+01   8.9219E-07  0.0436
   4.9641E+01   5.0849E+01   7.5509E-07  0.0468
   5.0849E+01   5.2086E+01   6.2561E-07  0.0508
   5.2086E+01   5.3353E+01   5.8708E-07  0.0518
   5.3353E+01   5.4651E+01   4.6066E-07  0.0578
   5.4651E+01   5.5981E+01   4.7980E-07  0.0560
   5.5981E+01   5.7343E+01   4.1701E-07  0.0593
   5.7343E+01   5.8738E+01   2.8383E-07  0.0711
   5.8738E+01   6.0168E+01   2.5190E-07  0.0745
   6.0168E+01   6.1632E+01   2.1449E-07  0.0798
   6.1632E+01   6.3131E+01   1.7872E-07  0.0864
   6.3131E+01   6.4667E+01   1.2239E-07  0.1031
   6.4667E+01   6.6240E+01   1.1822E-07  0.1037
   6.6240E+01   6.7852E+01   7.5697E-08  0.1280
   6.7852E+01   6.9503E+01   5.9362E-08  0.1429
   6.9503E+01   7.1194E+01   5.5586E-08  0.1459
   7.1194E+01   7.2926E+01   4.7338E-08  0.1562
   7.2926E+01   7.4701E+01   3.3815E-08  0.1826
   7.4701E+01   7.6518E+01   2.3108E-08  0.2182
   7.6518E+01   7.8380E+01   2.3634E-08  0.2132
   7.8380E+01   8.0287E+01   3.3560E-08  0.1768
   8.0287E+01   8.2240E+01   1.1262E-08  0.3015
   8.2240E+01   8.4241E+01   8.9956E-09  0.3333
   8.4241E+01   8.6291E+01   7.8062E-09  0.3536
   8.6291E+01   8.8391E+01   3.8104E-09  0.5000
   8.8391E+01   9.0541E+01   9.2997E-10  1.0000
   9.0541E+01   9.2744E+01   9.0788E-10  1.0000
   9.2744E+01   9.5001E+01   8.8631E-10  1.0000
   9.5001E+01   9.7312E+01   0.0000E+00  0.0000
   9.7312E+01   9.9680E+01   8.4471E-10  1.0000
   9.9680E+01   1.0211E+02   0.0000E+00  0.0000
   1.0211E+02   1.0459E+02   0.0000E+00  0.0000
   1.0459E+02   1.0713E+02   0.0000E+00  0.0000
   1.0713E+02   1.0974E+02   0.0000E+00  0.0000
   1.0974E+02   1.1241E+02   0.0000E+00  0.0000
   1.1241E+02   1.1515E+02   0.0000E+00  0.0000
   1.1515E+02   1.1795E+02   0.0000E+00  0.0000
   1.1795E+02   1.2082E+02   0.0000E+00  0.0000
   1.2082E+02   1.2376E+02   0.0000E+00  0.0000
   1.2376E+02   1.2677E+02   0.0000E+00  0.0000
   1.2677E+02   1.2985E+02   0.0000E+00  0.0000
   1.2985E+02   1.3301E+02   0.0000E+00  0.0000
   1.3301E+02   1.3625E+02   0.0000E+00  0.0000
   1.3625E+02   1.3956E+02   0.0000E+00  0.0000
   1.3956E+02   1.4296E+02   0.0000E+00  0.0000
   1.4296E+02   1.4644E+02   0.0000E+00  0.0000
   1.4644E+02   1.5000E+02   0.0000E+00  0.0000

#   sum over                 1.3404E-04
'no. =    1   reg = 117 - 217'
msuc: {\huge [t-cross] in region mesh}
msdr: {\it plotted by \ANGEL \version}
msdl: {\it calculated by \PHITS  3.26}
wt: s(0.7)
\vspace{-3}
  region surface crossing
  area  &=&   1.0000E+00 [cm^2]
e:
 
# Information for Restart Calculation
# This calculation was newly started
# istdev =  2 # 1:Batch variance, 2:History variance
# resc2  = 5.00000000000000000E+08 # Total source weight or Total source weight / maxcas
# resc3  = 5.00000000000000000E+08 # Total history number or Total batch number
# maxcas =   500000000 # History / Batch, only used for istdev=1
# bitrseed = 1101101111010011011000101101110001100110110010110001010100010001 # bit data of rseed
