0 <--- number of remaining batches 

-------------------------------------------------------------------------------
bat[      50] ncas =     5000000000.
 bitrseed = 1010100001101100001010110100011000011010110011110100001101011000
          cpu time =  19 m. 28.50 s.

 date = 2022-05-14
 time = 07h 40m 12s

