[ T-Cross ]
    title = [t-cross] in region mesh
     mesh =  reg            # mesh type is region-wise
      reg =    1            # number of crossing regions
      non     r-from    r-to       area
      1       107       207        1.000000    
   e-type =    3            # e-mesh is log given by emin, emax and ne
     emin =  1.0000000E-02  # minimum value of e-mesh points
     emax =   150.0000      # maximum value of e-mesh points
#    edel =  2.4039514E-02  # mesh width of e-mesh points
       ne =    400          # number of e-mesh points
#    data = ( e(i), i = 1, ne + 1 )
#           1.00000E-02  1.02433E-02  1.04925E-02  1.07478E-02  1.10093E-02
#           1.12772E-02  1.15516E-02  1.18326E-02  1.21205E-02  1.24154E-02
#           1.27175E-02  1.30269E-02  1.33439E-02  1.36686E-02  1.40011E-02
#           1.43418E-02  1.46907E-02  1.50482E-02  1.54143E-02  1.57894E-02
#           1.61735E-02  1.65670E-02  1.69701E-02  1.73830E-02  1.78060E-02
#           1.82392E-02  1.86830E-02  1.91375E-02  1.96032E-02  2.00801E-02
#           2.05687E-02  2.10692E-02  2.15818E-02  2.21069E-02  2.26448E-02
#           2.31957E-02  2.37601E-02  2.43382E-02  2.49304E-02  2.55369E-02
#           2.61583E-02  2.67947E-02  2.74467E-02  2.81145E-02  2.87985E-02
#           2.94992E-02  3.02169E-02  3.09521E-02  3.17052E-02  3.24766E-02
#           3.32668E-02  3.40762E-02  3.49053E-02  3.57546E-02  3.66246E-02
#           3.75157E-02  3.84284E-02  3.93634E-02  4.03212E-02  4.13022E-02
#           4.23071E-02  4.33365E-02  4.43909E-02  4.54710E-02  4.65773E-02
#           4.77106E-02  4.88714E-02  5.00605E-02  5.12785E-02  5.25262E-02
#           5.38042E-02  5.51133E-02  5.64542E-02  5.78278E-02  5.92348E-02
#           6.06760E-02  6.21523E-02  6.36645E-02  6.52135E-02  6.68002E-02
#           6.84255E-02  7.00904E-02  7.17957E-02  7.35426E-02  7.53319E-02
#           7.71648E-02  7.90423E-02  8.09655E-02  8.29354E-02  8.49533E-02
#           8.70203E-02  8.91376E-02  9.13064E-02  9.35279E-02  9.58035E-02
#           9.81345E-02  1.00522E-01  1.02968E-01  1.05473E-01  1.08040E-01
#           1.10668E-01  1.13361E-01  1.16119E-01  1.18944E-01  1.21838E-01
#           1.24803E-01  1.27839E-01  1.30950E-01  1.34136E-01  1.37399E-01
#           1.40742E-01  1.44167E-01  1.47675E-01  1.51268E-01  1.54948E-01
#           1.58718E-01  1.62580E-01  1.66535E-01  1.70587E-01  1.74738E-01
#           1.78989E-01  1.83344E-01  1.87805E-01  1.92375E-01  1.97055E-01
#           2.01850E-01  2.06761E-01  2.11792E-01  2.16945E-01  2.22223E-01
#           2.27630E-01  2.33169E-01  2.38842E-01  2.44653E-01  2.50605E-01
#           2.56703E-01  2.62949E-01  2.69346E-01  2.75900E-01  2.82613E-01
#           2.89489E-01  2.96532E-01  3.03747E-01  3.11138E-01  3.18708E-01
#           3.26462E-01  3.34405E-01  3.42542E-01  3.50876E-01  3.59413E-01
#           3.68158E-01  3.77116E-01  3.86291E-01  3.95690E-01  4.05317E-01
#           4.15179E-01  4.25281E-01  4.35628E-01  4.46227E-01  4.57084E-01
#           4.68205E-01  4.79597E-01  4.91266E-01  5.03219E-01  5.15463E-01
#           5.28005E-01  5.40851E-01  5.54011E-01  5.67490E-01  5.81298E-01
#           5.95441E-01  6.09929E-01  6.24769E-01  6.39970E-01  6.55541E-01
#           6.71491E-01  6.87828E-01  7.04564E-01  7.21706E-01  7.39266E-01
#           7.57253E-01  7.75678E-01  7.94551E-01  8.13883E-01  8.33685E-01
#           8.53969E-01  8.74747E-01  8.96030E-01  9.17831E-01  9.40163E-01
#           9.63038E-01  9.86469E-01  1.01047E+00  1.03506E+00  1.06024E+00
#           1.08604E+00  1.11246E+00  1.13953E+00  1.16725E+00  1.19565E+00
#           1.22474E+00  1.25454E+00  1.28507E+00  1.31633E+00  1.34836E+00
#           1.38117E+00  1.41477E+00  1.44920E+00  1.48446E+00  1.52057E+00
#           1.55757E+00  1.59547E+00  1.63429E+00  1.67405E+00  1.71478E+00
#           1.75650E+00  1.79924E+00  1.84302E+00  1.88786E+00  1.93379E+00
#           1.98084E+00  2.02904E+00  2.07841E+00  2.12898E+00  2.18078E+00
#           2.23384E+00  2.28819E+00  2.34386E+00  2.40089E+00  2.45930E+00
#           2.51914E+00  2.58043E+00  2.64322E+00  2.70753E+00  2.77341E+00
#           2.84088E+00  2.91001E+00  2.98081E+00  3.05333E+00  3.12762E+00
#           3.20372E+00  3.28167E+00  3.36152E+00  3.44330E+00  3.52708E+00
#           3.61290E+00  3.70080E+00  3.79085E+00  3.88308E+00  3.97756E+00
#           4.07434E+00  4.17347E+00  4.27501E+00  4.37903E+00  4.48557E+00
#           4.59471E+00  4.70650E+00  4.82102E+00  4.93832E+00  5.05847E+00
#           5.18155E+00  5.30762E+00  5.43676E+00  5.56904E+00  5.70453E+00
#           5.84333E+00  5.98550E+00  6.13114E+00  6.28031E+00  6.43312E+00
#           6.58964E+00  6.74997E+00  6.91420E+00  7.08243E+00  7.25475E+00
#           7.43126E+00  7.61207E+00  7.79728E+00  7.98700E+00  8.18133E+00
#           8.38038E+00  8.58428E+00  8.79315E+00  9.00709E+00  9.22624E+00
#           9.45072E+00  9.68067E+00  9.91620E+00  1.01575E+01  1.04046E+01
#           1.06578E+01  1.09171E+01  1.11827E+01  1.14548E+01  1.17335E+01
#           1.20190E+01  1.23114E+01  1.26109E+01  1.29178E+01  1.32321E+01
#           1.35540E+01  1.38838E+01  1.42216E+01  1.45676E+01  1.49221E+01
#           1.52851E+01  1.56570E+01  1.60380E+01  1.64282E+01  1.68279E+01
#           1.72374E+01  1.76568E+01  1.80864E+01  1.85264E+01  1.89772E+01
#           1.94389E+01  1.99119E+01  2.03963E+01  2.08926E+01  2.14009E+01
#           2.19216E+01  2.24550E+01  2.30014E+01  2.35610E+01  2.41343E+01
#           2.47215E+01  2.53230E+01  2.59391E+01  2.65702E+01  2.72167E+01
#           2.78789E+01  2.85572E+01  2.92520E+01  2.99637E+01  3.06928E+01
#           3.14396E+01  3.22045E+01  3.29881E+01  3.37907E+01  3.46128E+01
#           3.54550E+01  3.63177E+01  3.72013E+01  3.81064E+01  3.90336E+01
#           3.99833E+01  4.09561E+01  4.19526E+01  4.29734E+01  4.40189E+01
#           4.50900E+01  4.61870E+01  4.73108E+01  4.84619E+01  4.96410E+01
#           5.08488E+01  5.20860E+01  5.33533E+01  5.46514E+01  5.59812E+01
#           5.73432E+01  5.87384E+01  6.01676E+01  6.16315E+01  6.31311E+01
#           6.46671E+01  6.62405E+01  6.78522E+01  6.95031E+01  7.11941E+01
#           7.29263E+01  7.47007E+01  7.65182E+01  7.83800E+01  8.02870E+01
#           8.22405E+01  8.42414E+01  8.62911E+01  8.83906E+01  9.05412E+01
#           9.27442E+01  9.50007E+01  9.73122E+01  9.96799E+01  1.02105E+02
#           1.04589E+02  1.07134E+02  1.09741E+02  1.12411E+02  1.15146E+02
#           1.17948E+02  1.20817E+02  1.23757E+02  1.26768E+02  1.29852E+02
#           1.33012E+02  1.36248E+02  1.39563E+02  1.42959E+02  1.46437E+02
#           1.50000E+02
     unit =    2            # unit is [1/cm^2/(MeV/n)/source]
     axis =  eng            # axis of output
     file = detector-08.out  # file name of output for the above axis
   output = f-curr          # surface crossing forward current spectrum
     part =  neutron  
# kf/name :  2112     
#    used :        main (  %)        temp (  %)       total (  %)
#  memory :         414 (  0)           0 (  0)         414 (  0)

#------------------------------------------------------------------------------
#newpage:
#   no. =    1   reg = 107 - 207

x: Energy [MeV/n]
y:  F-Curr [1/cm^2/(MeV/n)/source]         
p: xlog ylog afac(0.8) form(0.9)
h: n            x            y(neutron ),hh0l   n 
#  e-lower      e-upper      neutron     r.err 
   1.0000E-02   1.0243E-02   3.3989E-05  0.1544
   1.0243E-02   1.0493E-02   2.3841E-05  0.1826
   1.0493E-02   1.0748E-02   1.9967E-05  0.1926
   1.0748E-02   1.1009E-02   2.9962E-05  0.1576
   1.1009E-02   1.1277E-02   2.3040E-05  0.1775
   1.1277E-02   1.1552E-02   2.1962E-05  0.1801
   1.1552E-02   1.1833E-02   3.1967E-05  0.1470
   1.1833E-02   1.2121E-02   2.5901E-05  0.1623
   1.2121E-02   1.2415E-02   3.0724E-05  0.1471
   1.2415E-02   1.2718E-02   2.3532E-05  0.1661
   1.2718E-02   1.3027E-02   1.5206E-05  0.2018
   1.3027E-02   1.3344E-02   2.5928E-05  0.1540
   1.3344E-02   1.3669E-02   3.0258E-05  0.1416
   1.3669E-02   1.4001E-02   1.8715E-05  0.1771
   1.4001E-02   1.4342E-02   2.2686E-05  0.1595
   1.4342E-02   1.4691E-02   2.1791E-05  0.1606
   1.4691E-02   1.5048E-02   2.0806E-05  0.1624
   1.5048E-02   1.5414E-02   1.8798E-05  0.1679
   1.5414E-02   1.5789E-02   2.4468E-05  0.1465
   1.5789E-02   1.6174E-02   1.3320E-05  0.1963
   1.6174E-02   1.6567E-02   2.0119E-05  0.1570
   1.6567E-02   1.6970E-02   1.8947E-05  0.1603
   1.6970E-02   1.7383E-02   1.4173E-05  0.1828
   1.7383E-02   1.7806E-02   1.8103E-05  0.1602
   1.7806E-02   1.8239E-02   1.6564E-05  0.1650
   1.8239E-02   1.8683E-02   1.4597E-05  0.1744
   1.8683E-02   1.9138E-02   1.7956E-05  0.1548
   1.9138E-02   1.9603E-02   2.0655E-05  0.1425
   1.9603E-02   2.0080E-02   1.9555E-05  0.1453
   2.0080E-02   2.0569E-02   1.5932E-05  0.1592
   2.0569E-02   2.1069E-02   1.7330E-05  0.1508
   2.1069E-02   2.1582E-02   1.6544E-05  0.1526
   2.1582E-02   2.2107E-02   1.4303E-05  0.1613
   2.2107E-02   2.2645E-02   1.1856E-05  0.1746
   2.2645E-02   2.3196E-02   1.3811E-05  0.1607
   2.3196E-02   2.3760E-02   1.3075E-05  0.1627
   2.3760E-02   2.4338E-02   1.4508E-05  0.1528
   2.4338E-02   2.4930E-02   1.6791E-05  0.1394
   2.4930E-02   2.5537E-02   1.2339E-05  0.1602
   2.5537E-02   2.6158E-02   1.5458E-05  0.1428
   2.6158E-02   2.6795E-02   9.8811E-06  0.1772
   2.6795E-02   2.7447E-02   1.5033E-05  0.1417
   2.7447E-02   2.8114E-02   1.1476E-05  0.1603
   2.8114E-02   2.8799E-02   1.3323E-05  0.1462
   2.8799E-02   2.9499E-02   1.1418E-05  0.1557
   2.9499E-02   3.0217E-02   9.6606E-06  0.1679
   3.0217E-02   3.0952E-02   9.9689E-06  0.1644
   3.0952E-02   3.1705E-02   7.6589E-06  0.1857
   3.1705E-02   3.2477E-02   1.0705E-05  0.1544
   3.2477E-02   3.3267E-02   1.1421E-05  0.1475
   3.3267E-02   3.4076E-02   8.3012E-06  0.1707
   3.4076E-02   3.4905E-02   1.1514E-05  0.1431
   3.4905E-02   3.5755E-02   8.9151E-06  0.1600
   3.5755E-02   3.6625E-02   8.7176E-06  0.1581
   3.6625E-02   3.7516E-02   7.9288E-06  0.1661
   3.7516E-02   3.8428E-02   1.0674E-05  0.1409
   3.8428E-02   3.9363E-02   1.0174E-05  0.1432
   3.9363E-02   4.0321E-02   9.1040E-06  0.1508
   4.0321E-02   4.1302E-02   8.5273E-06  0.1522
   4.1302E-02   4.2307E-02   8.9380E-06  0.1481
   4.2307E-02   4.3337E-02   5.7879E-06  0.1805
   4.3337E-02   4.4391E-02   7.7510E-06  0.1547
   4.4391E-02   4.5471E-02   6.4370E-06  0.1671
   4.5471E-02   4.6577E-02   7.8466E-06  0.1508
   4.6577E-02   4.7711E-02   5.7332E-06  0.1742
   4.7711E-02   4.8871E-02   6.2482E-06  0.1629
   4.8871E-02   5.0061E-02   6.5886E-06  0.1577
   5.0061E-02   5.1279E-02   7.2969E-06  0.1486
   5.1279E-02   5.2526E-02   6.2311E-06  0.1585
   5.2526E-02   5.3804E-02   6.8153E-06  0.1496
   5.3804E-02   5.5113E-02   8.5129E-06  0.1324
   5.5113E-02   5.6454E-02   8.4048E-06  0.1311
   5.6454E-02   5.7828E-02   6.3297E-06  0.1494
   5.7828E-02   5.9235E-02   5.2502E-06  0.1630
   5.9235E-02   6.0676E-02   5.3550E-06  0.1588
   6.0676E-02   6.2152E-02   4.0353E-06  0.1817
   6.2152E-02   6.3665E-02   5.1697E-06  0.1583
   6.3665E-02   6.5214E-02   4.7936E-06  0.1624
   6.5214E-02   6.6800E-02   6.7151E-06  0.1362
   6.6800E-02   6.8426E-02   4.8508E-06  0.1582
   6.8426E-02   7.0090E-02   5.5201E-06  0.1457
   7.0090E-02   7.1796E-02   5.6459E-06  0.1429
   7.1796E-02   7.3543E-02   6.5345E-06  0.1314
   7.3543E-02   7.5332E-02   5.5391E-06  0.1411
   7.5332E-02   7.7165E-02   6.4623E-06  0.1279
   7.7165E-02   7.9042E-02   4.0220E-06  0.1611
   7.9042E-02   8.0965E-02   5.9141E-06  0.1307
   8.0965E-02   8.2935E-02   4.9062E-06  0.1429
   8.2935E-02   8.4953E-02   4.2417E-06  0.1512
   8.4953E-02   8.7020E-02   5.1293E-06  0.1362
   8.7020E-02   8.9138E-02   4.4767E-06  0.1439
   8.9138E-02   9.1306E-02   4.3813E-06  0.1434
   9.1306E-02   9.3528E-02   4.9115E-06  0.1341
   9.3528E-02   9.5804E-02   4.8813E-06  0.1323
   9.5804E-02   9.8134E-02   4.2346E-06  0.1403
   9.8134E-02   1.0052E-01   3.4265E-06  0.1535
   1.0052E-01   1.0297E-01   4.9284E-06  0.1270
   1.0297E-01   1.0547E-01   4.3488E-06  0.1336
   1.0547E-01   1.0804E-01   3.9192E-06  0.1393
   1.0804E-01   1.1067E-01   5.7036E-06  0.1145
   1.1067E-01   1.1336E-01   4.9776E-06  0.1209
   1.1336E-01   1.1612E-01   6.8075E-06  0.1017
   1.1612E-01   1.1894E-01   5.9953E-06  0.1077
   1.1894E-01   1.2184E-01   6.4292E-06  0.1024
   1.2184E-01   1.2480E-01   7.3835E-06  0.0945
   1.2480E-01   1.2784E-01   6.5762E-06  0.0985
   1.2784E-01   1.3095E-01   7.9699E-06  0.0887
   1.3095E-01   1.3414E-01   6.4323E-06  0.0977
   1.3414E-01   1.3740E-01   8.2551E-06  0.0852
   1.3740E-01   1.4074E-01   8.6371E-06  0.0822
   1.4074E-01   1.4417E-01   9.0281E-06  0.0795
   1.4417E-01   1.4767E-01   9.5812E-06  0.0763
   1.4767E-01   1.5127E-01   8.8983E-06  0.0781
   1.5127E-01   1.5495E-01   9.6674E-06  0.0743
   1.5495E-01   1.5872E-01   8.9622E-06  0.0761
   1.5872E-01   1.6258E-01   9.9280E-06  0.0716
   1.6258E-01   1.6654E-01   1.0224E-05  0.0695
   1.6654E-01   1.7059E-01   1.0477E-05  0.0680
   1.7059E-01   1.7474E-01   1.0707E-05  0.0665
   1.7474E-01   1.7899E-01   1.2052E-05  0.0619
   1.7899E-01   1.8334E-01   1.2720E-05  0.0594
   1.8334E-01   1.8781E-01   1.1958E-05  0.0606
   1.8781E-01   1.9237E-01   1.2540E-05  0.0584
   1.9237E-01   1.9706E-01   1.2893E-05  0.0571
   1.9706E-01   2.0185E-01   1.3058E-05  0.0560
   2.0185E-01   2.0676E-01   1.3119E-05  0.0552
   2.0676E-01   2.1179E-01   1.3724E-05  0.0533
   2.1179E-01   2.1694E-01   1.5074E-05  0.0501
   2.1694E-01   2.2222E-01   1.5224E-05  0.0494
   2.2222E-01   2.2763E-01   1.7031E-05  0.0461
   2.2763E-01   2.3317E-01   1.6551E-05  0.0463
   2.3317E-01   2.3884E-01   1.8311E-05  0.0434
   2.3884E-01   2.4465E-01   1.8892E-05  0.0423
   2.4465E-01   2.5061E-01   1.8033E-05  0.0427
   2.5061E-01   2.5670E-01   1.9834E-05  0.0403
   2.5670E-01   2.6295E-01   2.1332E-05  0.0384
   2.6295E-01   2.6935E-01   2.1209E-05  0.0380
   2.6935E-01   2.7590E-01   2.1888E-05  0.0370
   2.7590E-01   2.8261E-01   2.2078E-05  0.0364
   2.8261E-01   2.8949E-01   2.3332E-05  0.0350
   2.8949E-01   2.9653E-01   2.2345E-05  0.0353
   2.9653E-01   3.0375E-01   2.4406E-05  0.0333
   3.0375E-01   3.1114E-01   2.5002E-05  0.0325
   3.1114E-01   3.1871E-01   2.6267E-05  0.0314
   3.1871E-01   3.2646E-01   2.7699E-05  0.0302
   3.2646E-01   3.3441E-01   2.7405E-05  0.0300
   3.3441E-01   3.4254E-01   2.7522E-05  0.0296
   3.4254E-01   3.5088E-01   2.7472E-05  0.0292
   3.5088E-01   3.5941E-01   2.9052E-05  0.0281
   3.5941E-01   3.6816E-01   2.8087E-05  0.0282
   3.6816E-01   3.7712E-01   3.0745E-05  0.0266
   3.7712E-01   3.8629E-01   3.0905E-05  0.0263
   3.8629E-01   3.9569E-01   3.0716E-05  0.0260
   3.9569E-01   4.0532E-01   3.0600E-05  0.0258
   4.0532E-01   4.1518E-01   3.3785E-05  0.0242
   4.1518E-01   4.2528E-01   3.3352E-05  0.0241
   4.2528E-01   4.3563E-01   3.2925E-05  0.0239
   4.3563E-01   4.4623E-01   3.4629E-05  0.0231
   4.4623E-01   4.5708E-01   3.5491E-05  0.0225
   4.5708E-01   4.6821E-01   3.4942E-05  0.0224
   4.6821E-01   4.7960E-01   3.6603E-05  0.0217
   4.7960E-01   4.9127E-01   3.6396E-05  0.0214
   4.9127E-01   5.0322E-01   3.8014E-05  0.0207
   5.0322E-01   5.1546E-01   3.7964E-05  0.0205
   5.1546E-01   5.2800E-01   3.6064E-05  0.0208
   5.2800E-01   5.4085E-01   3.6281E-05  0.0205
   5.4085E-01   5.5401E-01   3.7917E-05  0.0198
   5.5401E-01   5.6749E-01   3.8053E-05  0.0195
   5.6749E-01   5.8130E-01   3.8669E-05  0.0191
   5.8130E-01   5.9544E-01   3.7588E-05  0.0192
   5.9544E-01   6.0993E-01   3.8526E-05  0.0187
   6.0993E-01   6.2477E-01   4.0311E-05  0.0181
   6.2477E-01   6.3997E-01   3.7294E-05  0.0185
   6.3997E-01   6.5554E-01   3.7627E-05  0.0182
   6.5554E-01   6.7149E-01   3.7568E-05  0.0180
   6.7149E-01   6.8783E-01   3.6383E-05  0.0181
   6.8783E-01   7.0456E-01   3.6340E-05  0.0179
   7.0456E-01   7.2171E-01   3.5848E-05  0.0178
   7.2171E-01   7.3927E-01   3.5405E-05  0.0177
   7.3927E-01   7.5725E-01   3.4683E-05  0.0176
   7.5725E-01   7.7568E-01   3.4421E-05  0.0175
   7.7568E-01   7.9455E-01   3.2769E-05  0.0177
   7.9455E-01   8.1388E-01   3.3306E-05  0.0174
   8.1388E-01   8.3368E-01   3.2595E-05  0.0173
   8.3368E-01   8.5397E-01   3.1305E-05  0.0175
   8.5397E-01   8.7475E-01   3.0639E-05  0.0174
   8.7475E-01   8.9603E-01   2.9399E-05  0.0176
   8.9603E-01   9.1783E-01   2.9116E-05  0.0174
   9.1783E-01   9.4016E-01   2.8656E-05  0.0174
   9.4016E-01   9.6304E-01   2.8232E-05  0.0173
   9.6304E-01   9.8647E-01   2.7499E-05  0.0173
   9.8647E-01   1.0105E+00   2.6682E-05  0.0173
   1.0105E+00   1.0351E+00   2.7398E-05  0.0169
   1.0351E+00   1.0602E+00   2.7870E-05  0.0166
   1.0602E+00   1.0860E+00   2.9993E-05  0.0158
   1.0860E+00   1.1125E+00   3.1104E-05  0.0153
   1.1125E+00   1.1395E+00   3.2416E-05  0.0148
   1.1395E+00   1.1673E+00   3.3876E-05  0.0143
   1.1673E+00   1.1957E+00   3.4961E-05  0.0139
   1.1957E+00   1.2247E+00   3.7119E-05  0.0133
   1.2247E+00   1.2545E+00   3.9185E-05  0.0128
   1.2545E+00   1.2851E+00   3.9355E-05  0.0126
   1.2851E+00   1.3163E+00   4.0911E-05  0.0122
   1.3163E+00   1.3484E+00   4.1721E-05  0.0120
   1.3484E+00   1.3812E+00   4.4404E-05  0.0115
   1.3812E+00   1.4148E+00   4.5282E-05  0.0112
   1.4148E+00   1.4492E+00   4.5924E-05  0.0110
   1.4492E+00   1.4845E+00   4.7193E-05  0.0107
   1.4845E+00   1.5206E+00   4.7107E-05  0.0106
   1.5206E+00   1.5576E+00   4.7883E-05  0.0104
   1.5576E+00   1.5955E+00   4.9236E-05  0.0101
   1.5955E+00   1.6343E+00   4.9755E-05  0.0099
   1.6343E+00   1.6741E+00   5.0037E-05  0.0098
   1.6741E+00   1.7148E+00   5.0058E-05  0.0096
   1.7148E+00   1.7565E+00   4.9471E-05  0.0096
   1.7565E+00   1.7992E+00   4.7249E-05  0.0096
   1.7992E+00   1.8430E+00   4.3703E-05  0.0099
   1.8430E+00   1.8879E+00   4.3580E-05  0.0097
   1.8879E+00   1.9338E+00   4.4720E-05  0.0095
   1.9338E+00   1.9808E+00   4.6116E-05  0.0092
   1.9808E+00   2.0290E+00   4.7460E-05  0.0089
   2.0290E+00   2.0784E+00   4.7994E-05  0.0088
   2.0784E+00   2.1290E+00   5.0456E-05  0.0084
   2.1290E+00   2.1808E+00   5.2707E-05  0.0082
   2.1808E+00   2.2338E+00   5.4322E-05  0.0079
   2.2338E+00   2.2882E+00   5.2416E-05  0.0080
   2.2882E+00   2.3439E+00   5.1735E-05  0.0080
   2.3439E+00   2.4009E+00   5.3380E-05  0.0078
   2.4009E+00   2.4593E+00   5.4609E-05  0.0076
   2.4593E+00   2.5191E+00   5.4586E-05  0.0075
   2.5191E+00   2.5804E+00   5.5688E-05  0.0074
   2.5804E+00   2.6432E+00   5.5911E-05  0.0073
   2.6432E+00   2.7075E+00   5.5681E-05  0.0072
   2.7075E+00   2.7734E+00   5.6453E-05  0.0071
   2.7734E+00   2.8409E+00   5.7048E-05  0.0069
   2.8409E+00   2.9100E+00   5.7743E-05  0.0068
   2.9100E+00   2.9808E+00   5.8627E-05  0.0067
   2.9808E+00   3.0533E+00   5.9143E-05  0.0066
   3.0533E+00   3.1276E+00   5.8634E-05  0.0066
   3.1276E+00   3.2037E+00   5.8922E-05  0.0065
   3.2037E+00   3.2817E+00   5.9815E-05  0.0064
   3.2817E+00   3.3615E+00   5.9412E-05  0.0063
   3.3615E+00   3.4433E+00   6.1237E-05  0.0062
   3.4433E+00   3.5271E+00   6.0941E-05  0.0061
   3.5271E+00   3.6129E+00   6.1836E-05  0.0060
   3.6129E+00   3.7008E+00   6.1187E-05  0.0060
   3.7008E+00   3.7908E+00   6.1769E-05  0.0059
   3.7908E+00   3.8831E+00   6.1788E-05  0.0058
   3.8831E+00   3.9776E+00   6.1491E-05  0.0057
   3.9776E+00   4.0743E+00   6.1698E-05  0.0057
   4.0743E+00   4.1735E+00   6.0901E-05  0.0056
   4.1735E+00   4.2750E+00   6.0633E-05  0.0056
   4.2750E+00   4.3790E+00   5.9595E-05  0.0056
   4.3790E+00   4.4856E+00   5.9449E-05  0.0055
   4.4856E+00   4.5947E+00   5.8622E-05  0.0055
   4.5947E+00   4.7065E+00   5.7820E-05  0.0054
   4.7065E+00   4.8210E+00   5.7716E-05  0.0054
   4.8210E+00   4.9383E+00   5.7234E-05  0.0053
   4.9383E+00   5.0585E+00   5.7682E-05  0.0052
   5.0585E+00   5.1815E+00   5.7948E-05  0.0052
   5.1815E+00   5.3076E+00   5.7826E-05  0.0051
   5.3076E+00   5.4368E+00   5.7333E-05  0.0051
   5.4368E+00   5.5690E+00   5.6771E-05  0.0050
   5.5690E+00   5.7045E+00   5.6899E-05  0.0050
   5.7045E+00   5.8433E+00   5.6773E-05  0.0049
   5.8433E+00   5.9855E+00   5.6316E-05  0.0049
   5.9855E+00   6.1311E+00   5.7218E-05  0.0048
   6.1311E+00   6.2803E+00   5.6488E-05  0.0048
   6.2803E+00   6.4331E+00   5.6151E-05  0.0047
   6.4331E+00   6.5896E+00   5.5632E-05  0.0047
   6.5896E+00   6.7500E+00   5.5624E-05  0.0047
   6.7500E+00   6.9142E+00   5.4976E-05  0.0046
   6.9142E+00   7.0824E+00   5.4788E-05  0.0046
   7.0824E+00   7.2548E+00   5.5000E-05  0.0045
   7.2548E+00   7.4313E+00   5.4102E-05  0.0045
   7.4313E+00   7.6121E+00   5.3820E-05  0.0045
   7.6121E+00   7.7973E+00   5.3706E-05  0.0044
   7.7973E+00   7.9870E+00   5.2401E-05  0.0044
   7.9870E+00   8.1813E+00   5.2701E-05  0.0044
   8.1813E+00   8.3804E+00   5.1908E-05  0.0043
   8.3804E+00   8.5843E+00   5.0833E-05  0.0043
   8.5843E+00   8.7931E+00   5.0227E-05  0.0043
   8.7931E+00   9.0071E+00   4.9307E-05  0.0043
   9.0071E+00   9.2262E+00   4.8610E-05  0.0043
   9.2262E+00   9.4507E+00   4.6718E-05  0.0043
   9.4507E+00   9.6807E+00   4.6161E-05  0.0043
   9.6807E+00   9.9162E+00   4.6138E-05  0.0043
   9.9162E+00   1.0157E+01   4.9535E-05  0.0041
   1.0157E+01   1.0405E+01   4.7613E-05  0.0041
   1.0405E+01   1.0658E+01   4.6247E-05  0.0041
   1.0658E+01   1.0917E+01   4.3817E-05  0.0042
   1.0917E+01   1.1183E+01   4.2379E-05  0.0042
   1.1183E+01   1.1455E+01   4.1241E-05  0.0042
   1.1455E+01   1.1733E+01   4.0749E-05  0.0042
   1.1733E+01   1.2019E+01   3.9898E-05  0.0042
   1.2019E+01   1.2311E+01   3.9119E-05  0.0042
   1.2311E+01   1.2611E+01   3.8113E-05  0.0042
   1.2611E+01   1.2918E+01   3.7516E-05  0.0042
   1.2918E+01   1.3232E+01   3.6409E-05  0.0042
   1.3232E+01   1.3554E+01   3.5783E-05  0.0042
   1.3554E+01   1.3884E+01   3.4904E-05  0.0042
   1.3884E+01   1.4222E+01   3.4143E-05  0.0042
   1.4222E+01   1.4568E+01   3.2832E-05  0.0042
   1.4568E+01   1.4922E+01   3.1931E-05  0.0042
   1.4922E+01   1.5285E+01   3.0912E-05  0.0042
   1.5285E+01   1.5657E+01   2.9712E-05  0.0043
   1.5657E+01   1.6038E+01   2.8367E-05  0.0043
   1.6038E+01   1.6428E+01   2.7282E-05  0.0043
   1.6428E+01   1.6828E+01   2.6146E-05  0.0044
   1.6828E+01   1.7237E+01   2.4974E-05  0.0044
   1.7237E+01   1.7657E+01   2.3489E-05  0.0045
   1.7657E+01   1.8086E+01   2.2040E-05  0.0046
   1.8086E+01   1.8526E+01   2.0764E-05  0.0047
   1.8526E+01   1.8977E+01   1.9197E-05  0.0048
   1.8977E+01   1.9439E+01   1.7793E-05  0.0049
   1.9439E+01   1.9912E+01   1.6449E-05  0.0051
   1.9912E+01   2.0396E+01   1.5222E-05  0.0052
   2.0396E+01   2.0893E+01   1.3622E-05  0.0054
   2.0893E+01   2.1401E+01   1.2156E-05  0.0057
   2.1401E+01   2.1922E+01   1.0933E-05  0.0059
   2.1922E+01   2.2455E+01   9.4692E-06  0.0063
   2.2455E+01   2.3001E+01   8.0527E-06  0.0067
   2.3001E+01   2.3561E+01   6.9741E-06  0.0072
   2.3561E+01   2.4134E+01   5.8539E-06  0.0077
   2.4134E+01   2.4721E+01   4.8079E-06  0.0084
   2.4721E+01   2.5323E+01   4.0489E-06  0.0091
   2.5323E+01   2.5939E+01   3.1834E-06  0.0101
   2.5939E+01   2.6570E+01   2.5235E-06  0.0112
   2.6570E+01   2.7217E+01   2.3082E-06  0.0116
   2.7217E+01   2.7879E+01   3.2020E-06  0.0097
   2.7879E+01   2.8557E+01   3.5992E-06  0.0091
   2.8557E+01   2.9252E+01   3.3399E-06  0.0093
   2.9252E+01   2.9964E+01   3.0610E-06  0.0096
   2.9964E+01   3.0693E+01   2.8627E-06  0.0098
   3.0693E+01   3.1440E+01   2.7684E-06  0.0098
   3.1440E+01   3.2205E+01   2.1787E-06  0.0110
   3.2205E+01   3.2988E+01   5.2453E-07  0.0221
   3.2988E+01   3.3791E+01   3.7377E-09  0.2582
   3.3791E+01   3.4613E+01   0.0000E+00  0.0000
   3.4613E+01   3.5455E+01   2.3749E-10  1.0000
   3.5455E+01   3.6318E+01   2.3184E-10  1.0000
   3.6318E+01   3.7201E+01   0.0000E+00  0.0000
   3.7201E+01   3.8106E+01   0.0000E+00  0.0000
   3.8106E+01   3.9034E+01   0.0000E+00  0.0000
   3.9034E+01   3.9983E+01   0.0000E+00  0.0000
   3.9983E+01   4.0956E+01   0.0000E+00  0.0000
   4.0956E+01   4.1953E+01   0.0000E+00  0.0000
   4.1953E+01   4.2973E+01   0.0000E+00  0.0000
   4.2973E+01   4.4019E+01   0.0000E+00  0.0000
   4.4019E+01   4.5090E+01   0.0000E+00  0.0000
   4.5090E+01   4.6187E+01   0.0000E+00  0.0000
   4.6187E+01   4.7311E+01   0.0000E+00  0.0000
   4.7311E+01   4.8462E+01   0.0000E+00  0.0000
   4.8462E+01   4.9641E+01   0.0000E+00  0.0000
   4.9641E+01   5.0849E+01   0.0000E+00  0.0000
   5.0849E+01   5.2086E+01   0.0000E+00  0.0000
   5.2086E+01   5.3353E+01   0.0000E+00  0.0000
   5.3353E+01   5.4651E+01   0.0000E+00  0.0000
   5.4651E+01   5.5981E+01   0.0000E+00  0.0000
   5.5981E+01   5.7343E+01   0.0000E+00  0.0000
   5.7343E+01   5.8738E+01   0.0000E+00  0.0000
   5.8738E+01   6.0168E+01   0.0000E+00  0.0000
   6.0168E+01   6.1632E+01   0.0000E+00  0.0000
   6.1632E+01   6.3131E+01   0.0000E+00  0.0000
   6.3131E+01   6.4667E+01   0.0000E+00  0.0000
   6.4667E+01   6.6240E+01   0.0000E+00  0.0000
   6.6240E+01   6.7852E+01   0.0000E+00  0.0000
   6.7852E+01   6.9503E+01   0.0000E+00  0.0000
   6.9503E+01   7.1194E+01   0.0000E+00  0.0000
   7.1194E+01   7.2926E+01   0.0000E+00  0.0000
   7.2926E+01   7.4701E+01   0.0000E+00  0.0000
   7.4701E+01   7.6518E+01   0.0000E+00  0.0000
   7.6518E+01   7.8380E+01   0.0000E+00  0.0000
   7.8380E+01   8.0287E+01   0.0000E+00  0.0000
   8.0287E+01   8.2240E+01   0.0000E+00  0.0000
   8.2240E+01   8.4241E+01   0.0000E+00  0.0000
   8.4241E+01   8.6291E+01   0.0000E+00  0.0000
   8.6291E+01   8.8391E+01   0.0000E+00  0.0000
   8.8391E+01   9.0541E+01   0.0000E+00  0.0000
   9.0541E+01   9.2744E+01   0.0000E+00  0.0000
   9.2744E+01   9.5001E+01   0.0000E+00  0.0000
   9.5001E+01   9.7312E+01   0.0000E+00  0.0000
   9.7312E+01   9.9680E+01   0.0000E+00  0.0000
   9.9680E+01   1.0211E+02   0.0000E+00  0.0000
   1.0211E+02   1.0459E+02   0.0000E+00  0.0000
   1.0459E+02   1.0713E+02   0.0000E+00  0.0000
   1.0713E+02   1.0974E+02   0.0000E+00  0.0000
   1.0974E+02   1.1241E+02   0.0000E+00  0.0000
   1.1241E+02   1.1515E+02   0.0000E+00  0.0000
   1.1515E+02   1.1795E+02   0.0000E+00  0.0000
   1.1795E+02   1.2082E+02   0.0000E+00  0.0000
   1.2082E+02   1.2376E+02   0.0000E+00  0.0000
   1.2376E+02   1.2677E+02   0.0000E+00  0.0000
   1.2677E+02   1.2985E+02   0.0000E+00  0.0000
   1.2985E+02   1.3301E+02   0.0000E+00  0.0000
   1.3301E+02   1.3625E+02   0.0000E+00  0.0000
   1.3625E+02   1.3956E+02   0.0000E+00  0.0000
   1.3956E+02   1.4296E+02   0.0000E+00  0.0000
   1.4296E+02   1.4644E+02   0.0000E+00  0.0000
   1.4644E+02   1.5000E+02   0.0000E+00  0.0000

#   sum over                 5.9032E-06
'no. =    1   reg = 107 - 207'
msuc: {\huge [t-cross] in region mesh}
msdr: {\it plotted by \ANGEL \version}
msdl: {\it calculated by \PHITS  3.26}
wt: s(0.7)
\vspace{-3}
  region surface crossing
  area  &=&   1.0000E+00 [cm^2]
e:
 
# Information for Restart Calculation
# This calculation was newly started
# istdev =  2 # 1:Batch variance, 2:History variance
# resc2  = 5.00000000000000000E+09 # Total source weight or Total source weight / maxcas
# resc3  = 5.00000000000000000E+09 # Total history number or Total batch number
# maxcas =   100000000 # History / Batch, only used for istdev=1
# bitrseed = 0110100000100010111000001110001111001110100100011111101000111001 # bit data of rseed
