[ T-Cross ]
    title = [t-cross] in region mesh
     mesh =  reg            # mesh type is region-wise
      reg =    1            # number of crossing regions
      non     r-from    r-to       area
      1       108       208        1.000000    
   e-type =    3            # e-mesh is log given by emin, emax and ne
     emin =  1.0000000E-02  # minimum value of e-mesh points
     emax =   150.0000      # maximum value of e-mesh points
#    edel =  2.4039514E-02  # mesh width of e-mesh points
       ne =    400          # number of e-mesh points
#    data = ( e(i), i = 1, ne + 1 )
#           1.00000E-02  1.02433E-02  1.04925E-02  1.07478E-02  1.10093E-02
#           1.12772E-02  1.15516E-02  1.18326E-02  1.21205E-02  1.24154E-02
#           1.27175E-02  1.30269E-02  1.33439E-02  1.36686E-02  1.40011E-02
#           1.43418E-02  1.46907E-02  1.50482E-02  1.54143E-02  1.57894E-02
#           1.61735E-02  1.65670E-02  1.69701E-02  1.73830E-02  1.78060E-02
#           1.82392E-02  1.86830E-02  1.91375E-02  1.96032E-02  2.00801E-02
#           2.05687E-02  2.10692E-02  2.15818E-02  2.21069E-02  2.26448E-02
#           2.31957E-02  2.37601E-02  2.43382E-02  2.49304E-02  2.55369E-02
#           2.61583E-02  2.67947E-02  2.74467E-02  2.81145E-02  2.87985E-02
#           2.94992E-02  3.02169E-02  3.09521E-02  3.17052E-02  3.24766E-02
#           3.32668E-02  3.40762E-02  3.49053E-02  3.57546E-02  3.66246E-02
#           3.75157E-02  3.84284E-02  3.93634E-02  4.03212E-02  4.13022E-02
#           4.23071E-02  4.33365E-02  4.43909E-02  4.54710E-02  4.65773E-02
#           4.77106E-02  4.88714E-02  5.00605E-02  5.12785E-02  5.25262E-02
#           5.38042E-02  5.51133E-02  5.64542E-02  5.78278E-02  5.92348E-02
#           6.06760E-02  6.21523E-02  6.36645E-02  6.52135E-02  6.68002E-02
#           6.84255E-02  7.00904E-02  7.17957E-02  7.35426E-02  7.53319E-02
#           7.71648E-02  7.90423E-02  8.09655E-02  8.29354E-02  8.49533E-02
#           8.70203E-02  8.91376E-02  9.13064E-02  9.35279E-02  9.58035E-02
#           9.81345E-02  1.00522E-01  1.02968E-01  1.05473E-01  1.08040E-01
#           1.10668E-01  1.13361E-01  1.16119E-01  1.18944E-01  1.21838E-01
#           1.24803E-01  1.27839E-01  1.30950E-01  1.34136E-01  1.37399E-01
#           1.40742E-01  1.44167E-01  1.47675E-01  1.51268E-01  1.54948E-01
#           1.58718E-01  1.62580E-01  1.66535E-01  1.70587E-01  1.74738E-01
#           1.78989E-01  1.83344E-01  1.87805E-01  1.92375E-01  1.97055E-01
#           2.01850E-01  2.06761E-01  2.11792E-01  2.16945E-01  2.22223E-01
#           2.27630E-01  2.33169E-01  2.38842E-01  2.44653E-01  2.50605E-01
#           2.56703E-01  2.62949E-01  2.69346E-01  2.75900E-01  2.82613E-01
#           2.89489E-01  2.96532E-01  3.03747E-01  3.11138E-01  3.18708E-01
#           3.26462E-01  3.34405E-01  3.42542E-01  3.50876E-01  3.59413E-01
#           3.68158E-01  3.77116E-01  3.86291E-01  3.95690E-01  4.05317E-01
#           4.15179E-01  4.25281E-01  4.35628E-01  4.46227E-01  4.57084E-01
#           4.68205E-01  4.79597E-01  4.91266E-01  5.03219E-01  5.15463E-01
#           5.28005E-01  5.40851E-01  5.54011E-01  5.67490E-01  5.81298E-01
#           5.95441E-01  6.09929E-01  6.24769E-01  6.39970E-01  6.55541E-01
#           6.71491E-01  6.87828E-01  7.04564E-01  7.21706E-01  7.39266E-01
#           7.57253E-01  7.75678E-01  7.94551E-01  8.13883E-01  8.33685E-01
#           8.53969E-01  8.74747E-01  8.96030E-01  9.17831E-01  9.40163E-01
#           9.63038E-01  9.86469E-01  1.01047E+00  1.03506E+00  1.06024E+00
#           1.08604E+00  1.11246E+00  1.13953E+00  1.16725E+00  1.19565E+00
#           1.22474E+00  1.25454E+00  1.28507E+00  1.31633E+00  1.34836E+00
#           1.38117E+00  1.41477E+00  1.44920E+00  1.48446E+00  1.52057E+00
#           1.55757E+00  1.59547E+00  1.63429E+00  1.67405E+00  1.71478E+00
#           1.75650E+00  1.79924E+00  1.84302E+00  1.88786E+00  1.93379E+00
#           1.98084E+00  2.02904E+00  2.07841E+00  2.12898E+00  2.18078E+00
#           2.23384E+00  2.28819E+00  2.34386E+00  2.40089E+00  2.45930E+00
#           2.51914E+00  2.58043E+00  2.64322E+00  2.70753E+00  2.77341E+00
#           2.84088E+00  2.91001E+00  2.98081E+00  3.05333E+00  3.12762E+00
#           3.20372E+00  3.28167E+00  3.36152E+00  3.44330E+00  3.52708E+00
#           3.61290E+00  3.70080E+00  3.79085E+00  3.88308E+00  3.97756E+00
#           4.07434E+00  4.17347E+00  4.27501E+00  4.37903E+00  4.48557E+00
#           4.59471E+00  4.70650E+00  4.82102E+00  4.93832E+00  5.05847E+00
#           5.18155E+00  5.30762E+00  5.43676E+00  5.56904E+00  5.70453E+00
#           5.84333E+00  5.98550E+00  6.13114E+00  6.28031E+00  6.43312E+00
#           6.58964E+00  6.74997E+00  6.91420E+00  7.08243E+00  7.25475E+00
#           7.43126E+00  7.61207E+00  7.79728E+00  7.98700E+00  8.18133E+00
#           8.38038E+00  8.58428E+00  8.79315E+00  9.00709E+00  9.22624E+00
#           9.45072E+00  9.68067E+00  9.91620E+00  1.01575E+01  1.04046E+01
#           1.06578E+01  1.09171E+01  1.11827E+01  1.14548E+01  1.17335E+01
#           1.20190E+01  1.23114E+01  1.26109E+01  1.29178E+01  1.32321E+01
#           1.35540E+01  1.38838E+01  1.42216E+01  1.45676E+01  1.49221E+01
#           1.52851E+01  1.56570E+01  1.60380E+01  1.64282E+01  1.68279E+01
#           1.72374E+01  1.76568E+01  1.80864E+01  1.85264E+01  1.89772E+01
#           1.94389E+01  1.99119E+01  2.03963E+01  2.08926E+01  2.14009E+01
#           2.19216E+01  2.24550E+01  2.30014E+01  2.35610E+01  2.41343E+01
#           2.47215E+01  2.53230E+01  2.59391E+01  2.65702E+01  2.72167E+01
#           2.78789E+01  2.85572E+01  2.92520E+01  2.99637E+01  3.06928E+01
#           3.14396E+01  3.22045E+01  3.29881E+01  3.37907E+01  3.46128E+01
#           3.54550E+01  3.63177E+01  3.72013E+01  3.81064E+01  3.90336E+01
#           3.99833E+01  4.09561E+01  4.19526E+01  4.29734E+01  4.40189E+01
#           4.50900E+01  4.61870E+01  4.73108E+01  4.84619E+01  4.96410E+01
#           5.08488E+01  5.20860E+01  5.33533E+01  5.46514E+01  5.59812E+01
#           5.73432E+01  5.87384E+01  6.01676E+01  6.16315E+01  6.31311E+01
#           6.46671E+01  6.62405E+01  6.78522E+01  6.95031E+01  7.11941E+01
#           7.29263E+01  7.47007E+01  7.65182E+01  7.83800E+01  8.02870E+01
#           8.22405E+01  8.42414E+01  8.62911E+01  8.83906E+01  9.05412E+01
#           9.27442E+01  9.50007E+01  9.73122E+01  9.96799E+01  1.02105E+02
#           1.04589E+02  1.07134E+02  1.09741E+02  1.12411E+02  1.15146E+02
#           1.17948E+02  1.20817E+02  1.23757E+02  1.26768E+02  1.29852E+02
#           1.33012E+02  1.36248E+02  1.39563E+02  1.42959E+02  1.46437E+02
#           1.50000E+02
     unit =    2            # unit is [1/cm^2/(MeV/n)/source]
     axis =  eng            # axis of output
     file = detector-09.out  # file name of output for the above axis
   output = f-curr          # surface crossing forward current spectrum
     part =  neutron  
# kf/name :  2112     
#    used :        main (  %)        temp (  %)       total (  %)
#  memory :         414 (  0)           0 (  0)         414 (  0)

#------------------------------------------------------------------------------
#newpage:
#   no. =    1   reg = 108 - 208

x: Energy [MeV/n]
y:  F-Curr [1/cm^2/(MeV/n)/source]         
p: xlog ylog afac(0.8) form(0.9)
h: n            x            y(neutron ),hh0l   n 
#  e-lower      e-upper      neutron     r.err 
   1.0000E-02   1.0243E-02   4.3917E-05  0.1357
   1.0243E-02   1.0493E-02   3.7237E-05  0.1459
   1.0493E-02   1.0748E-02   4.1097E-05  0.1363
   1.0748E-02   1.1009E-02   3.4610E-05  0.1475
   1.1009E-02   1.1277E-02   3.9919E-05  0.1356
   1.1277E-02   1.1552E-02   2.8873E-05  0.1567
   1.1552E-02   1.1833E-02   3.5026E-05  0.1403
   1.1833E-02   1.2121E-02   2.5225E-05  0.1625
   1.2121E-02   1.2415E-02   3.0142E-05  0.1484
   1.2415E-02   1.2718E-02   3.7773E-05  0.1314
   1.2718E-02   1.3027E-02   2.5687E-05  0.1566
   1.3027E-02   1.3344E-02   3.1636E-05  0.1402
   1.3344E-02   1.3669E-02   2.8538E-05  0.1459
   1.3669E-02   1.4001E-02   3.2646E-05  0.1335
   1.4001E-02   1.4342E-02   2.5081E-05  0.1513
   1.4342E-02   1.4691E-02   2.6320E-05  0.1460
   1.4691E-02   1.5048E-02   3.5326E-05  0.1251
   1.5048E-02   1.5414E-02   3.3443E-05  0.1271
   1.5414E-02   1.5789E-02   3.7548E-05  0.1178
   1.5789E-02   1.6174E-02   2.4014E-05  0.1450
   1.6174E-02   1.6567E-02   2.5645E-05  0.1388
   1.6567E-02   1.6970E-02   3.1142E-05  0.1252
   1.6970E-02   1.7383E-02   2.9322E-05  0.1271
   1.7383E-02   1.7806E-02   2.7594E-05  0.1300
   1.7806E-02   1.8239E-02   2.0336E-05  0.1494
   1.8239E-02   1.8683E-02   2.5360E-05  0.1316
   1.8683E-02   1.9138E-02   2.4425E-05  0.1325
   1.9138E-02   1.9603E-02   1.8540E-05  0.1496
   1.9603E-02   2.0080E-02   2.5473E-05  0.1271
   2.0080E-02   2.0569E-02   2.3680E-05  0.1304
   2.0569E-02   2.1069E-02   2.0217E-05  0.1390
   2.1069E-02   2.1582E-02   1.7355E-05  0.1491
   2.1582E-02   2.2107E-02   1.5694E-05  0.1540
   2.2107E-02   2.2645E-02   2.0272E-05  0.1345
   2.2645E-02   2.3196E-02   1.6740E-05  0.1461
   2.3196E-02   2.3760E-02   2.0513E-05  0.1300
   2.3760E-02   2.4338E-02   1.2856E-05  0.1625
   2.4338E-02   2.4930E-02   1.6999E-05  0.1401
   2.4930E-02   2.5537E-02   1.5251E-05  0.1453
   2.5537E-02   2.6158E-02   1.8219E-05  0.1316
   2.6158E-02   2.6795E-02   1.3171E-05  0.1529
   2.6795E-02   2.7447E-02   1.5470E-05  0.1387
   2.7447E-02   2.8114E-02   1.5501E-05  0.1376
   2.8114E-02   2.8799E-02   1.3612E-05  0.1443
   2.8799E-02   2.9499E-02   1.6285E-05  0.1303
   2.9499E-02   3.0217E-02   1.8575E-05  0.1215
   3.0217E-02   3.0952E-02   1.6468E-05  0.1263
   3.0952E-02   3.1705E-02   1.2065E-05  0.1463
   3.1705E-02   3.2477E-02   1.6708E-05  0.1240
   3.2477E-02   3.3267E-02   1.4022E-05  0.1337
   3.3267E-02   3.4076E-02   1.2310E-05  0.1395
   3.4076E-02   3.4905E-02   1.1643E-05  0.1418
   3.4905E-02   3.5755E-02   1.5147E-05  0.1236
   3.5755E-02   3.6625E-02   1.2047E-05  0.1370
   3.6625E-02   3.7516E-02   1.4968E-05  0.1214
   3.7516E-02   3.8428E-02   1.0084E-05  0.1460
   3.8428E-02   3.9363E-02   1.1837E-05  0.1334
   3.9363E-02   4.0321E-02   1.3577E-05  0.1227
   4.0321E-02   4.1302E-02   1.1288E-05  0.1329
   4.1302E-02   4.2307E-02   1.1733E-05  0.1294
   4.2307E-02   4.3337E-02   1.1172E-05  0.1306
   4.3337E-02   4.4391E-02   1.3148E-05  0.1186
   4.4391E-02   4.5471E-02   9.2896E-06  0.1395
   4.5471E-02   4.6577E-02   1.1785E-05  0.1220
   4.6577E-02   4.7711E-02   1.0123E-05  0.1313
   4.7711E-02   4.8871E-02   1.0037E-05  0.1300
   4.8871E-02   5.0061E-02   7.8100E-06  0.1459
   5.0061E-02   5.1279E-02   1.1879E-05  0.1162
   5.1279E-02   5.2526E-02   8.7487E-06  0.1346
   5.2526E-02   5.3804E-02   1.2874E-05  0.1095
   5.3804E-02   5.5113E-02   8.9806E-06  0.1293
   5.5113E-02   5.6454E-02   8.7189E-06  0.1290
   5.6454E-02   5.7828E-02   7.9092E-06  0.1349
   5.7828E-02   5.9235E-02   8.7679E-06  0.1262
   5.9235E-02   6.0676E-02   7.4669E-06  0.1345
   6.0676E-02   6.2152E-02   9.4908E-06  0.1187
   6.2152E-02   6.3665E-02   6.8429E-06  0.1373
   6.3665E-02   6.5214E-02   8.2167E-06  0.1242
   6.5214E-02   6.6800E-02   7.2274E-06  0.1308
   6.6800E-02   6.8426E-02   6.2966E-06  0.1384
   6.8426E-02   7.0090E-02   8.6207E-06  0.1172
   7.0090E-02   7.1796E-02   6.1545E-06  0.1370
   7.1796E-02   7.3543E-02   6.9938E-06  0.1265
   7.3543E-02   7.5332E-02   6.8222E-06  0.1264
   7.5332E-02   7.7165E-02   8.0465E-06  0.1156
   7.7165E-02   7.9042E-02   8.7330E-06  0.1094
   7.9042E-02   8.0965E-02   6.8821E-06  0.1213
   8.0965E-02   8.2935E-02   6.1691E-06  0.1266
   8.2935E-02   8.4953E-02   7.0133E-06  0.1179
   8.4953E-02   8.7020E-02   6.5235E-06  0.1207
   8.7020E-02   8.9138E-02   5.9524E-06  0.1251
   8.9138E-02   9.1306E-02   8.2622E-06  0.1048
   9.1306E-02   9.3528E-02   7.5928E-06  0.1076
   9.3528E-02   9.5804E-02   6.3626E-06  0.1162
   9.5804E-02   9.8134E-02   4.6042E-06  0.1347
   9.8134E-02   1.0052E-01   6.2618E-06  0.1148
   1.0052E-01   1.0297E-01   6.9377E-06  0.1079
   1.0297E-01   1.0547E-01   8.1014E-06  0.0982
   1.0547E-01   1.0804E-01   6.7317E-06  0.1064
   1.0804E-01   1.1067E-01   6.7808E-06  0.1046
   1.1067E-01   1.1336E-01   7.0627E-06  0.1017
   1.1336E-01   1.1612E-01   8.1460E-06  0.0934
   1.1612E-01   1.1894E-01   8.0987E-06  0.0925
   1.1894E-01   1.2184E-01   8.1742E-06  0.0913
   1.2184E-01   1.2480E-01   7.9548E-06  0.0914
   1.2480E-01   1.2784E-01   9.4898E-06  0.0822
   1.2784E-01   1.3095E-01   8.8912E-06  0.0841
   1.3095E-01   1.3414E-01   9.9027E-06  0.0788
   1.3414E-01   1.3740E-01   9.8855E-06  0.0778
   1.3740E-01   1.4074E-01   1.1541E-05  0.0714
   1.4074E-01   1.4417E-01   1.1783E-05  0.0695
   1.4417E-01   1.4767E-01   1.0135E-05  0.0743
   1.4767E-01   1.5127E-01   1.3371E-05  0.0637
   1.5127E-01   1.5495E-01   1.2118E-05  0.0662
   1.5495E-01   1.5872E-01   1.1707E-05  0.0665
   1.5872E-01   1.6258E-01   1.5386E-05  0.0573
   1.6258E-01   1.6654E-01   1.5139E-05  0.0572
   1.6654E-01   1.7059E-01   1.4684E-05  0.0574
   1.7059E-01   1.7474E-01   1.4666E-05  0.0568
   1.7474E-01   1.7899E-01   1.6109E-05  0.0536
   1.7899E-01   1.8334E-01   1.6373E-05  0.0525
   1.8334E-01   1.8781E-01   1.6061E-05  0.0524
   1.8781E-01   1.9237E-01   1.8422E-05  0.0483
   1.9237E-01   1.9706E-01   1.6841E-05  0.0497
   1.9706E-01   2.0185E-01   1.8640E-05  0.0468
   2.0185E-01   2.0676E-01   1.9953E-05  0.0447
   2.0676E-01   2.1179E-01   2.1568E-05  0.0424
   2.1179E-01   2.1694E-01   2.0966E-05  0.0426
   2.1694E-01   2.2222E-01   2.1764E-05  0.0413
   2.2222E-01   2.2763E-01   2.2376E-05  0.0402
   2.2763E-01   2.3317E-01   2.3473E-05  0.0388
   2.3317E-01   2.3884E-01   2.3573E-05  0.0383
   2.3884E-01   2.4465E-01   2.5622E-05  0.0363
   2.4465E-01   2.5061E-01   2.5809E-05  0.0358
   2.5061E-01   2.5670E-01   2.6530E-05  0.0348
   2.5670E-01   2.6295E-01   2.7139E-05  0.0340
   2.6295E-01   2.6935E-01   2.9433E-05  0.0323
   2.6935E-01   2.7590E-01   2.8436E-05  0.0324
   2.7590E-01   2.8261E-01   2.9033E-05  0.0317
   2.8261E-01   2.8949E-01   3.0916E-05  0.0304
   2.8949E-01   2.9653E-01   3.3261E-05  0.0290
   2.9653E-01   3.0375E-01   3.3314E-05  0.0286
   3.0375E-01   3.1114E-01   3.2066E-05  0.0288
   3.1114E-01   3.1871E-01   3.5075E-05  0.0272
   3.1871E-01   3.2646E-01   3.5856E-05  0.0266
   3.2646E-01   3.3441E-01   3.6744E-05  0.0259
   3.3441E-01   3.4254E-01   3.9482E-05  0.0247
   3.4254E-01   3.5088E-01   3.6843E-05  0.0253
   3.5088E-01   3.5941E-01   3.9006E-05  0.0243
   3.5941E-01   3.6816E-01   4.0738E-05  0.0234
   3.6816E-01   3.7712E-01   4.0202E-05  0.0233
   3.7712E-01   3.8629E-01   4.1214E-05  0.0228
   3.8629E-01   3.9569E-01   4.4076E-05  0.0217
   3.9569E-01   4.0532E-01   4.5640E-05  0.0211
   4.0532E-01   4.1518E-01   4.4946E-05  0.0210
   4.1518E-01   4.2528E-01   4.4790E-05  0.0208
   4.2528E-01   4.3563E-01   4.6836E-05  0.0201
   4.3563E-01   4.4623E-01   4.6106E-05  0.0200
   4.4623E-01   4.5708E-01   4.8725E-05  0.0192
   4.5708E-01   4.6821E-01   4.9004E-05  0.0190
   4.6821E-01   4.7960E-01   4.9596E-05  0.0186
   4.7960E-01   4.9127E-01   4.7279E-05  0.0188
   4.9127E-01   5.0322E-01   5.0336E-05  0.0180
   5.0322E-01   5.1546E-01   5.0769E-05  0.0178
   5.1546E-01   5.2800E-01   5.2945E-05  0.0172
   5.2800E-01   5.4085E-01   5.0119E-05  0.0174
   5.4085E-01   5.5401E-01   5.1182E-05  0.0170
   5.5401E-01   5.6749E-01   5.0648E-05  0.0169
   5.6749E-01   5.8130E-01   5.1243E-05  0.0166
   5.8130E-01   5.9544E-01   5.2631E-05  0.0162
   5.9544E-01   6.0993E-01   5.1189E-05  0.0162
   6.0993E-01   6.2477E-01   5.2514E-05  0.0158
   6.2477E-01   6.3997E-01   4.9877E-05  0.0160
   6.3997E-01   6.5554E-01   5.1049E-05  0.0157
   6.5554E-01   6.7149E-01   5.1560E-05  0.0154
   6.7149E-01   6.8783E-01   5.1195E-05  0.0153
   6.8783E-01   7.0456E-01   5.0141E-05  0.0152
   7.0456E-01   7.2171E-01   5.1043E-05  0.0149
   7.2171E-01   7.3927E-01   4.8009E-05  0.0152
   7.3927E-01   7.5725E-01   4.7458E-05  0.0151
   7.5725E-01   7.7568E-01   4.7150E-05  0.0150
   7.7568E-01   7.9455E-01   4.5576E-05  0.0150
   7.9455E-01   8.1388E-01   4.4978E-05  0.0149
   8.1388E-01   8.3368E-01   4.4000E-05  0.0149
   8.3368E-01   8.5397E-01   4.2997E-05  0.0149
   8.5397E-01   8.7475E-01   4.1908E-05  0.0149
   8.7475E-01   8.9603E-01   4.0644E-05  0.0150
   8.9603E-01   9.1783E-01   3.9440E-05  0.0150
   9.1783E-01   9.4016E-01   3.7455E-05  0.0152
   9.4016E-01   9.6304E-01   3.6758E-05  0.0152
   9.6304E-01   9.8647E-01   3.6591E-05  0.0150
   9.8647E-01   1.0105E+00   3.7442E-05  0.0147
   1.0105E+00   1.0351E+00   3.6948E-05  0.0146
   1.0351E+00   1.0602E+00   3.8753E-05  0.0140
   1.0602E+00   1.0860E+00   4.0697E-05  0.0135
   1.0860E+00   1.1125E+00   4.2150E-05  0.0132
   1.1125E+00   1.1395E+00   4.3654E-05  0.0128
   1.1395E+00   1.1673E+00   4.5601E-05  0.0123
   1.1673E+00   1.1957E+00   4.6721E-05  0.0120
   1.1957E+00   1.2247E+00   4.9463E-05  0.0116
   1.2247E+00   1.2545E+00   5.0431E-05  0.0113
   1.2545E+00   1.2851E+00   5.2906E-05  0.0109
   1.2851E+00   1.3163E+00   5.4662E-05  0.0106
   1.3163E+00   1.3484E+00   5.5911E-05  0.0103
   1.3484E+00   1.3812E+00   5.8370E-05  0.0100
   1.3812E+00   1.4148E+00   5.8780E-05  0.0098
   1.4148E+00   1.4492E+00   6.0693E-05  0.0096
   1.4492E+00   1.4845E+00   6.2154E-05  0.0093
   1.4845E+00   1.5206E+00   6.2143E-05  0.0092
   1.5206E+00   1.5576E+00   6.3387E-05  0.0090
   1.5576E+00   1.5955E+00   6.3808E-05  0.0089
   1.5955E+00   1.6343E+00   6.3430E-05  0.0088
   1.6343E+00   1.6741E+00   6.4595E-05  0.0086
   1.6741E+00   1.7148E+00   6.5281E-05  0.0084
   1.7148E+00   1.7565E+00   6.3837E-05  0.0084
   1.7565E+00   1.7992E+00   6.0909E-05  0.0085
   1.7992E+00   1.8430E+00   5.8233E-05  0.0085
   1.8430E+00   1.8879E+00   5.6783E-05  0.0085
   1.8879E+00   1.9338E+00   5.6647E-05  0.0084
   1.9338E+00   1.9808E+00   5.7492E-05  0.0082
   1.9808E+00   2.0290E+00   5.8773E-05  0.0080
   2.0290E+00   2.0784E+00   6.1293E-05  0.0078
   2.0784E+00   2.1290E+00   6.4073E-05  0.0075
   2.1290E+00   2.1808E+00   6.5509E-05  0.0073
   2.1808E+00   2.2338E+00   6.6261E-05  0.0072
   2.2338E+00   2.2882E+00   6.6235E-05  0.0071
   2.2882E+00   2.3439E+00   6.4953E-05  0.0071
   2.3439E+00   2.4009E+00   6.6568E-05  0.0070
   2.4009E+00   2.4593E+00   6.5980E-05  0.0069
   2.4593E+00   2.5191E+00   6.7751E-05  0.0068
   2.5191E+00   2.5804E+00   6.6820E-05  0.0067
   2.5804E+00   2.6432E+00   6.6891E-05  0.0066
   2.6432E+00   2.7075E+00   6.8402E-05  0.0065
   2.7075E+00   2.7734E+00   6.7834E-05  0.0064
   2.7734E+00   2.8409E+00   6.7921E-05  0.0064
   2.8409E+00   2.9100E+00   7.0443E-05  0.0062
   2.9100E+00   2.9808E+00   7.0402E-05  0.0061
   2.9808E+00   3.0533E+00   7.0371E-05  0.0061
   3.0533E+00   3.1276E+00   6.9128E-05  0.0060
   3.1276E+00   3.2037E+00   7.0388E-05  0.0059
   3.2037E+00   3.2817E+00   7.0386E-05  0.0059
   3.2817E+00   3.3615E+00   6.9987E-05  0.0058
   3.3615E+00   3.4433E+00   7.1475E-05  0.0057
   3.4433E+00   3.5271E+00   7.2297E-05  0.0056
   3.5271E+00   3.6129E+00   7.2903E-05  0.0055
   3.6129E+00   3.7008E+00   7.1862E-05  0.0055
   3.7008E+00   3.7908E+00   7.1873E-05  0.0054
   3.7908E+00   3.8831E+00   7.1791E-05  0.0054
   3.8831E+00   3.9776E+00   7.2224E-05  0.0053
   3.9776E+00   4.0743E+00   7.1773E-05  0.0052
   4.0743E+00   4.1735E+00   7.1231E-05  0.0052
   4.1735E+00   4.2750E+00   7.0232E-05  0.0052
   4.2750E+00   4.3790E+00   6.9668E-05  0.0051
   4.3790E+00   4.4856E+00   6.8788E-05  0.0051
   4.4856E+00   4.5947E+00   6.7363E-05  0.0051
   4.5947E+00   4.7065E+00   6.5756E-05  0.0051
   4.7065E+00   4.8210E+00   6.5650E-05  0.0050
   4.8210E+00   4.9383E+00   6.6334E-05  0.0050
   4.9383E+00   5.0585E+00   6.5777E-05  0.0049
   5.0585E+00   5.1815E+00   6.5168E-05  0.0049
   5.1815E+00   5.3076E+00   6.4878E-05  0.0048
   5.3076E+00   5.4368E+00   6.4758E-05  0.0048
   5.4368E+00   5.5690E+00   6.4295E-05  0.0047
   5.5690E+00   5.7045E+00   6.3660E-05  0.0047
   5.7045E+00   5.8433E+00   6.3251E-05  0.0047
   5.8433E+00   5.9855E+00   6.3979E-05  0.0046
   5.9855E+00   6.1311E+00   6.3305E-05  0.0046
   6.1311E+00   6.2803E+00   6.2630E-05  0.0045
   6.2803E+00   6.4331E+00   6.2574E-05  0.0045
   6.4331E+00   6.5896E+00   6.2091E-05  0.0045
   6.5896E+00   6.7500E+00   6.1315E-05  0.0044
   6.7500E+00   6.9142E+00   6.0846E-05  0.0044
   6.9142E+00   7.0824E+00   6.0453E-05  0.0044
   7.0824E+00   7.2548E+00   5.9765E-05  0.0043
   7.2548E+00   7.4313E+00   5.9024E-05  0.0043
   7.4313E+00   7.6121E+00   5.8220E-05  0.0043
   7.6121E+00   7.7973E+00   5.6756E-05  0.0043
   7.7973E+00   7.9870E+00   5.6421E-05  0.0043
   7.9870E+00   8.1813E+00   5.6014E-05  0.0042
   8.1813E+00   8.3804E+00   5.4851E-05  0.0042
   8.3804E+00   8.5843E+00   5.3330E-05  0.0042
   8.5843E+00   8.7931E+00   5.2862E-05  0.0042
   8.7931E+00   9.0071E+00   5.0869E-05  0.0042
   9.0071E+00   9.2262E+00   4.9302E-05  0.0043
   9.2262E+00   9.4507E+00   4.8189E-05  0.0043
   9.4507E+00   9.6807E+00   4.6770E-05  0.0043
   9.6807E+00   9.9162E+00   4.6022E-05  0.0043
   9.9162E+00   1.0157E+01   4.9002E-05  0.0041
   1.0157E+01   1.0405E+01   4.7053E-05  0.0041
   1.0405E+01   1.0658E+01   4.4841E-05  0.0042
   1.0658E+01   1.0917E+01   4.2722E-05  0.0042
   1.0917E+01   1.1183E+01   4.0445E-05  0.0043
   1.1183E+01   1.1455E+01   3.9230E-05  0.0043
   1.1455E+01   1.1733E+01   3.8406E-05  0.0043
   1.1733E+01   1.2019E+01   3.7343E-05  0.0043
   1.2019E+01   1.2311E+01   3.6077E-05  0.0043
   1.2311E+01   1.2611E+01   3.4730E-05  0.0044
   1.2611E+01   1.2918E+01   3.3224E-05  0.0044
   1.2918E+01   1.3232E+01   3.2255E-05  0.0044
   1.3232E+01   1.3554E+01   3.0981E-05  0.0045
   1.3554E+01   1.3884E+01   2.9680E-05  0.0045
   1.3884E+01   1.4222E+01   2.8470E-05  0.0046
   1.4222E+01   1.4568E+01   2.6787E-05  0.0046
   1.4568E+01   1.4922E+01   2.5643E-05  0.0047
   1.4922E+01   1.5285E+01   2.4255E-05  0.0048
   1.5285E+01   1.5657E+01   2.2879E-05  0.0048
   1.5657E+01   1.6038E+01   2.1488E-05  0.0049
   1.6038E+01   1.6428E+01   1.9878E-05  0.0051
   1.6428E+01   1.6828E+01   1.8601E-05  0.0052
   1.6828E+01   1.7237E+01   1.7401E-05  0.0053
   1.7237E+01   1.7657E+01   1.5738E-05  0.0055
   1.7657E+01   1.8086E+01   1.4643E-05  0.0056
   1.8086E+01   1.8526E+01   1.3240E-05  0.0059
   1.8526E+01   1.8977E+01   1.1956E-05  0.0061
   1.8977E+01   1.9439E+01   1.0899E-05  0.0063
   1.9439E+01   1.9912E+01   9.8414E-06  0.0066
   1.9912E+01   2.0396E+01   8.8756E-06  0.0068
   2.0396E+01   2.0893E+01   7.8576E-06  0.0072
   2.0893E+01   2.1401E+01   6.9462E-06  0.0075
   2.1401E+01   2.1922E+01   5.9984E-06  0.0080
   2.1922E+01   2.2455E+01   5.2073E-06  0.0085
   2.2455E+01   2.3001E+01   4.4422E-06  0.0091
   2.3001E+01   2.3561E+01   3.7692E-06  0.0097
   2.3561E+01   2.4134E+01   3.1058E-06  0.0106
   2.4134E+01   2.4721E+01   2.5936E-06  0.0115
   2.4721E+01   2.5323E+01   2.1393E-06  0.0125
   2.5323E+01   2.5939E+01   1.8019E-06  0.0134
   2.5939E+01   2.6570E+01   1.9676E-06  0.0127
   2.6570E+01   2.7217E+01   2.5582E-06  0.0110
   2.7217E+01   2.7879E+01   2.7889E-06  0.0104
   2.7879E+01   2.8557E+01   2.6784E-06  0.0105
   2.8557E+01   2.9252E+01   2.5391E-06  0.0106
   2.9252E+01   2.9964E+01   2.3411E-06  0.0110
   2.9964E+01   3.0693E+01   2.1428E-06  0.0113
   3.0693E+01   3.1440E+01   1.3752E-06  0.0140
   3.1440E+01   3.2205E+01   4.5598E-07  0.0239
   3.2205E+01   3.2988E+01   7.1724E-08  0.0597
   3.2988E+01   3.3791E+01   2.4918E-10  1.0000
   3.3791E+01   3.4613E+01   0.0000E+00  0.0000
   3.4613E+01   3.5455E+01   0.0000E+00  0.0000
   3.5455E+01   3.6318E+01   0.0000E+00  0.0000
   3.6318E+01   3.7201E+01   2.2634E-10  1.0000
   3.7201E+01   3.8106E+01   0.0000E+00  0.0000
   3.8106E+01   3.9034E+01   2.1571E-10  1.0000
   3.9034E+01   3.9983E+01   0.0000E+00  0.0000
   3.9983E+01   4.0956E+01   0.0000E+00  0.0000
   4.0956E+01   4.1953E+01   0.0000E+00  0.0000
   4.1953E+01   4.2973E+01   0.0000E+00  0.0000
   4.2973E+01   4.4019E+01   0.0000E+00  0.0000
   4.4019E+01   4.5090E+01   0.0000E+00  0.0000
   4.5090E+01   4.6187E+01   0.0000E+00  0.0000
   4.6187E+01   4.7311E+01   0.0000E+00  0.0000
   4.7311E+01   4.8462E+01   0.0000E+00  0.0000
   4.8462E+01   4.9641E+01   0.0000E+00  0.0000
   4.9641E+01   5.0849E+01   0.0000E+00  0.0000
   5.0849E+01   5.2086E+01   0.0000E+00  0.0000
   5.2086E+01   5.3353E+01   0.0000E+00  0.0000
   5.3353E+01   5.4651E+01   0.0000E+00  0.0000
   5.4651E+01   5.5981E+01   0.0000E+00  0.0000
   5.5981E+01   5.7343E+01   0.0000E+00  0.0000
   5.7343E+01   5.8738E+01   0.0000E+00  0.0000
   5.8738E+01   6.0168E+01   0.0000E+00  0.0000
   6.0168E+01   6.1632E+01   0.0000E+00  0.0000
   6.1632E+01   6.3131E+01   0.0000E+00  0.0000
   6.3131E+01   6.4667E+01   0.0000E+00  0.0000
   6.4667E+01   6.6240E+01   0.0000E+00  0.0000
   6.6240E+01   6.7852E+01   0.0000E+00  0.0000
   6.7852E+01   6.9503E+01   0.0000E+00  0.0000
   6.9503E+01   7.1194E+01   0.0000E+00  0.0000
   7.1194E+01   7.2926E+01   0.0000E+00  0.0000
   7.2926E+01   7.4701E+01   0.0000E+00  0.0000
   7.4701E+01   7.6518E+01   0.0000E+00  0.0000
   7.6518E+01   7.8380E+01   0.0000E+00  0.0000
   7.8380E+01   8.0287E+01   0.0000E+00  0.0000
   8.0287E+01   8.2240E+01   0.0000E+00  0.0000
   8.2240E+01   8.4241E+01   0.0000E+00  0.0000
   8.4241E+01   8.6291E+01   0.0000E+00  0.0000
   8.6291E+01   8.8391E+01   0.0000E+00  0.0000
   8.8391E+01   9.0541E+01   0.0000E+00  0.0000
   9.0541E+01   9.2744E+01   0.0000E+00  0.0000
   9.2744E+01   9.5001E+01   0.0000E+00  0.0000
   9.5001E+01   9.7312E+01   0.0000E+00  0.0000
   9.7312E+01   9.9680E+01   0.0000E+00  0.0000
   9.9680E+01   1.0211E+02   0.0000E+00  0.0000
   1.0211E+02   1.0459E+02   0.0000E+00  0.0000
   1.0459E+02   1.0713E+02   0.0000E+00  0.0000
   1.0713E+02   1.0974E+02   0.0000E+00  0.0000
   1.0974E+02   1.1241E+02   0.0000E+00  0.0000
   1.1241E+02   1.1515E+02   0.0000E+00  0.0000
   1.1515E+02   1.1795E+02   0.0000E+00  0.0000
   1.1795E+02   1.2082E+02   0.0000E+00  0.0000
   1.2082E+02   1.2376E+02   0.0000E+00  0.0000
   1.2376E+02   1.2677E+02   0.0000E+00  0.0000
   1.2677E+02   1.2985E+02   0.0000E+00  0.0000
   1.2985E+02   1.3301E+02   0.0000E+00  0.0000
   1.3301E+02   1.3625E+02   0.0000E+00  0.0000
   1.3625E+02   1.3956E+02   0.0000E+00  0.0000
   1.3956E+02   1.4296E+02   0.0000E+00  0.0000
   1.4296E+02   1.4644E+02   0.0000E+00  0.0000
   1.4644E+02   1.5000E+02   0.0000E+00  0.0000

#   sum over                 5.8697E-06
'no. =    1   reg = 108 - 208'
msuc: {\huge [t-cross] in region mesh}
msdr: {\it plotted by \ANGEL \version}
msdl: {\it calculated by \PHITS  3.26}
wt: s(0.7)
\vspace{-3}
  region surface crossing
  area  &=&   1.0000E+00 [cm^2]
e:
 
# Information for Restart Calculation
# This calculation was newly started
# istdev =  2 # 1:Batch variance, 2:History variance
# resc2  = 5.00000000000000000E+09 # Total source weight or Total source weight / maxcas
# resc3  = 5.00000000000000000E+09 # Total history number or Total batch number
# maxcas =   100000000 # History / Batch, only used for istdev=1
# bitrseed = 0110100000100010111000001110001111001110100100011111101000111001 # bit data of rseed
