8 <--- number of remaining batches 

-------------------------------------------------------------------------------
bat[       2] ncas =     1000000000.
 bitrseed = 1101101111010011011000101101110001100110110010110001010100010001
          cpu time =   3 h. 21 m. 44.52 s.

 date = 2022-06-04
 time = 03h 05m 32s

