[ T-Cross ]
    title = [t-cross] in region mesh
     mesh =  reg            # mesh type is region-wise
      reg =    1            # number of crossing regions
      non     r-from    r-to       area
      1       120       220        1.000000    
   e-type =    3            # e-mesh is log given by emin, emax and ne
     emin =  1.0000000E-02  # minimum value of e-mesh points
     emax =   150.0000      # maximum value of e-mesh points
#    edel =  2.4039514E-02  # mesh width of e-mesh points
       ne =    400          # number of e-mesh points
#    data = ( e(i), i = 1, ne + 1 )
#           1.00000E-02  1.02433E-02  1.04925E-02  1.07478E-02  1.10093E-02
#           1.12772E-02  1.15516E-02  1.18326E-02  1.21205E-02  1.24154E-02
#           1.27175E-02  1.30269E-02  1.33439E-02  1.36686E-02  1.40011E-02
#           1.43418E-02  1.46907E-02  1.50482E-02  1.54143E-02  1.57894E-02
#           1.61735E-02  1.65670E-02  1.69701E-02  1.73830E-02  1.78060E-02
#           1.82392E-02  1.86830E-02  1.91375E-02  1.96032E-02  2.00801E-02
#           2.05687E-02  2.10692E-02  2.15818E-02  2.21069E-02  2.26448E-02
#           2.31957E-02  2.37601E-02  2.43382E-02  2.49304E-02  2.55369E-02
#           2.61583E-02  2.67947E-02  2.74467E-02  2.81145E-02  2.87985E-02
#           2.94992E-02  3.02169E-02  3.09521E-02  3.17052E-02  3.24766E-02
#           3.32668E-02  3.40762E-02  3.49053E-02  3.57546E-02  3.66246E-02
#           3.75157E-02  3.84284E-02  3.93634E-02  4.03212E-02  4.13022E-02
#           4.23071E-02  4.33365E-02  4.43909E-02  4.54710E-02  4.65773E-02
#           4.77106E-02  4.88714E-02  5.00605E-02  5.12785E-02  5.25262E-02
#           5.38042E-02  5.51133E-02  5.64542E-02  5.78278E-02  5.92348E-02
#           6.06760E-02  6.21523E-02  6.36645E-02  6.52135E-02  6.68002E-02
#           6.84255E-02  7.00904E-02  7.17957E-02  7.35426E-02  7.53319E-02
#           7.71648E-02  7.90423E-02  8.09655E-02  8.29354E-02  8.49533E-02
#           8.70203E-02  8.91376E-02  9.13064E-02  9.35279E-02  9.58035E-02
#           9.81345E-02  1.00522E-01  1.02968E-01  1.05473E-01  1.08040E-01
#           1.10668E-01  1.13361E-01  1.16119E-01  1.18944E-01  1.21838E-01
#           1.24803E-01  1.27839E-01  1.30950E-01  1.34136E-01  1.37399E-01
#           1.40742E-01  1.44167E-01  1.47675E-01  1.51268E-01  1.54948E-01
#           1.58718E-01  1.62580E-01  1.66535E-01  1.70587E-01  1.74738E-01
#           1.78989E-01  1.83344E-01  1.87805E-01  1.92375E-01  1.97055E-01
#           2.01850E-01  2.06761E-01  2.11792E-01  2.16945E-01  2.22223E-01
#           2.27630E-01  2.33169E-01  2.38842E-01  2.44653E-01  2.50605E-01
#           2.56703E-01  2.62949E-01  2.69346E-01  2.75900E-01  2.82613E-01
#           2.89489E-01  2.96532E-01  3.03747E-01  3.11138E-01  3.18708E-01
#           3.26462E-01  3.34405E-01  3.42542E-01  3.50876E-01  3.59413E-01
#           3.68158E-01  3.77116E-01  3.86291E-01  3.95690E-01  4.05317E-01
#           4.15179E-01  4.25281E-01  4.35628E-01  4.46227E-01  4.57084E-01
#           4.68205E-01  4.79597E-01  4.91266E-01  5.03219E-01  5.15463E-01
#           5.28005E-01  5.40851E-01  5.54011E-01  5.67490E-01  5.81298E-01
#           5.95441E-01  6.09929E-01  6.24769E-01  6.39970E-01  6.55541E-01
#           6.71491E-01  6.87828E-01  7.04564E-01  7.21706E-01  7.39266E-01
#           7.57253E-01  7.75678E-01  7.94551E-01  8.13883E-01  8.33685E-01
#           8.53969E-01  8.74747E-01  8.96030E-01  9.17831E-01  9.40163E-01
#           9.63038E-01  9.86469E-01  1.01047E+00  1.03506E+00  1.06024E+00
#           1.08604E+00  1.11246E+00  1.13953E+00  1.16725E+00  1.19565E+00
#           1.22474E+00  1.25454E+00  1.28507E+00  1.31633E+00  1.34836E+00
#           1.38117E+00  1.41477E+00  1.44920E+00  1.48446E+00  1.52057E+00
#           1.55757E+00  1.59547E+00  1.63429E+00  1.67405E+00  1.71478E+00
#           1.75650E+00  1.79924E+00  1.84302E+00  1.88786E+00  1.93379E+00
#           1.98084E+00  2.02904E+00  2.07841E+00  2.12898E+00  2.18078E+00
#           2.23384E+00  2.28819E+00  2.34386E+00  2.40089E+00  2.45930E+00
#           2.51914E+00  2.58043E+00  2.64322E+00  2.70753E+00  2.77341E+00
#           2.84088E+00  2.91001E+00  2.98081E+00  3.05333E+00  3.12762E+00
#           3.20372E+00  3.28167E+00  3.36152E+00  3.44330E+00  3.52708E+00
#           3.61290E+00  3.70080E+00  3.79085E+00  3.88308E+00  3.97756E+00
#           4.07434E+00  4.17347E+00  4.27501E+00  4.37903E+00  4.48557E+00
#           4.59471E+00  4.70650E+00  4.82102E+00  4.93832E+00  5.05847E+00
#           5.18155E+00  5.30762E+00  5.43676E+00  5.56904E+00  5.70453E+00
#           5.84333E+00  5.98550E+00  6.13114E+00  6.28031E+00  6.43312E+00
#           6.58964E+00  6.74997E+00  6.91420E+00  7.08243E+00  7.25475E+00
#           7.43126E+00  7.61207E+00  7.79728E+00  7.98700E+00  8.18133E+00
#           8.38038E+00  8.58428E+00  8.79315E+00  9.00709E+00  9.22624E+00
#           9.45072E+00  9.68067E+00  9.91620E+00  1.01575E+01  1.04046E+01
#           1.06578E+01  1.09171E+01  1.11827E+01  1.14548E+01  1.17335E+01
#           1.20190E+01  1.23114E+01  1.26109E+01  1.29178E+01  1.32321E+01
#           1.35540E+01  1.38838E+01  1.42216E+01  1.45676E+01  1.49221E+01
#           1.52851E+01  1.56570E+01  1.60380E+01  1.64282E+01  1.68279E+01
#           1.72374E+01  1.76568E+01  1.80864E+01  1.85264E+01  1.89772E+01
#           1.94389E+01  1.99119E+01  2.03963E+01  2.08926E+01  2.14009E+01
#           2.19216E+01  2.24550E+01  2.30014E+01  2.35610E+01  2.41343E+01
#           2.47215E+01  2.53230E+01  2.59391E+01  2.65702E+01  2.72167E+01
#           2.78789E+01  2.85572E+01  2.92520E+01  2.99637E+01  3.06928E+01
#           3.14396E+01  3.22045E+01  3.29881E+01  3.37907E+01  3.46128E+01
#           3.54550E+01  3.63177E+01  3.72013E+01  3.81064E+01  3.90336E+01
#           3.99833E+01  4.09561E+01  4.19526E+01  4.29734E+01  4.40189E+01
#           4.50900E+01  4.61870E+01  4.73108E+01  4.84619E+01  4.96410E+01
#           5.08488E+01  5.20860E+01  5.33533E+01  5.46514E+01  5.59812E+01
#           5.73432E+01  5.87384E+01  6.01676E+01  6.16315E+01  6.31311E+01
#           6.46671E+01  6.62405E+01  6.78522E+01  6.95031E+01  7.11941E+01
#           7.29263E+01  7.47007E+01  7.65182E+01  7.83800E+01  8.02870E+01
#           8.22405E+01  8.42414E+01  8.62911E+01  8.83906E+01  9.05412E+01
#           9.27442E+01  9.50007E+01  9.73122E+01  9.96799E+01  1.02105E+02
#           1.04589E+02  1.07134E+02  1.09741E+02  1.12411E+02  1.15146E+02
#           1.17948E+02  1.20817E+02  1.23757E+02  1.26768E+02  1.29852E+02
#           1.33012E+02  1.36248E+02  1.39563E+02  1.42959E+02  1.46437E+02
#           1.50000E+02
     unit =    2            # unit is [1/cm^2/(MeV/n)/source]
     axis =  eng            # axis of output
     file = detector-21.out  # file name of output for the above axis
   output = f-curr          # surface crossing forward current spectrum
     part =  neutron  
# kf/name :  2112     
#    used :        main (  %)        temp (  %)       total (  %)
#  memory :         414 (  0)           0 (  0)         414 (  0)

#------------------------------------------------------------------------------
#newpage:
#   no. =    1   reg = 120 - 220

x: Energy [MeV/n]
y:  F-Curr [1/cm^2/(MeV/n)/source]         
p: xlog ylog afac(0.8) form(0.9)
h: n            x            y(neutron ),hh0l   n 
#  e-lower      e-upper      neutron     r.err 
   1.0000E-02   1.0243E-02   1.7180E-03  0.0489
   1.0243E-02   1.0493E-02   1.7252E-03  0.0482
   1.0493E-02   1.0748E-02   1.6197E-03  0.0491
   1.0748E-02   1.1009E-02   1.5289E-03  0.0500
   1.1009E-02   1.1277E-02   1.6688E-03  0.0473
   1.1277E-02   1.1552E-02   1.5736E-03  0.0481
   1.1552E-02   1.1833E-02   1.6424E-03  0.0465
   1.1833E-02   1.2121E-02   1.4819E-03  0.0484
   1.2121E-02   1.2415E-02   1.6384E-03  0.0456
   1.2415E-02   1.2718E-02   1.4700E-03  0.0474
   1.2718E-02   1.3027E-02   1.5170E-03  0.0461
   1.3027E-02   1.3344E-02   1.5443E-03  0.0452
   1.3344E-02   1.3669E-02   1.5902E-03  0.0440
   1.3669E-02   1.4001E-02   1.5169E-03  0.0445
   1.4001E-02   1.4342E-02   1.3816E-03  0.0460
   1.4342E-02   1.4691E-02   1.2898E-03  0.0471
   1.4691E-02   1.5048E-02   1.4039E-03  0.0446
   1.5048E-02   1.5414E-02   1.5012E-03  0.0426
   1.5414E-02   1.5789E-02   1.3667E-03  0.0441
   1.5789E-02   1.6174E-02   1.4743E-03  0.0420
   1.6174E-02   1.6567E-02   1.3819E-03  0.0428
   1.6567E-02   1.6970E-02   1.4227E-03  0.0417
   1.6970E-02   1.7383E-02   1.3822E-03  0.0418
   1.7383E-02   1.7806E-02   1.2695E-03  0.0431
   1.7806E-02   1.8239E-02   1.3321E-03  0.0416
   1.8239E-02   1.8683E-02   1.3073E-03  0.0415
   1.8683E-02   1.9138E-02   1.3302E-03  0.0407
   1.9138E-02   1.9603E-02   1.2748E-03  0.0410
   1.9603E-02   2.0080E-02   1.2392E-03  0.0411
   2.0080E-02   2.0569E-02   1.2150E-03  0.0410
   2.0569E-02   2.1069E-02   1.2815E-03  0.0394
   2.1069E-02   2.1582E-02   1.2653E-03  0.0392
   2.1582E-02   2.2107E-02   1.2421E-03  0.0392
   2.2107E-02   2.2645E-02   1.1686E-03  0.0399
   2.2645E-02   2.3196E-02   1.2215E-03  0.0385
   2.3196E-02   2.3760E-02   1.1905E-03  0.0385
   2.3760E-02   2.4338E-02   1.1218E-03  0.0392
   2.4338E-02   2.4930E-02   1.1234E-03  0.0387
   2.4930E-02   2.5537E-02   1.1760E-03  0.0374
   2.5537E-02   2.6158E-02   1.1580E-03  0.0372
   2.6158E-02   2.6795E-02   1.1937E-03  0.0363
   2.6795E-02   2.7447E-02   1.1514E-03  0.0365
   2.7447E-02   2.8114E-02   1.1385E-03  0.0362
   2.8114E-02   2.8799E-02   1.0475E-03  0.0373
   2.8799E-02   2.9499E-02   1.0492E-03  0.0369
   2.9499E-02   3.0217E-02   1.0076E-03  0.0372
   3.0217E-02   3.0952E-02   9.4678E-04  0.0378
   3.0952E-02   3.1705E-02   1.0052E-03  0.0363
   3.1705E-02   3.2477E-02   9.9204E-04  0.0361
   3.2477E-02   3.3267E-02   9.7125E-04  0.0361
   3.3267E-02   3.4076E-02   1.0111E-03  0.0349
   3.4076E-02   3.4905E-02   9.7984E-04  0.0351
   3.4905E-02   3.5755E-02   9.1287E-04  0.0359
   3.5755E-02   3.6625E-02   9.2684E-04  0.0352
   3.6625E-02   3.7516E-02   8.9940E-04  0.0353
   3.7516E-02   3.8428E-02   9.3502E-04  0.0342
   3.8428E-02   3.9363E-02   9.0655E-04  0.0343
   3.9363E-02   4.0321E-02   9.2592E-04  0.0335
   4.0321E-02   4.1302E-02   9.4624E-04  0.0328
   4.1302E-02   4.2307E-02   8.1201E-04  0.0350
   4.2307E-02   4.3337E-02   8.3483E-04  0.0341
   4.3337E-02   4.4391E-02   8.6683E-04  0.0331
   4.4391E-02   4.5471E-02   8.6493E-04  0.0327
   4.5471E-02   4.6577E-02   7.8620E-04  0.0339
   4.6577E-02   4.7711E-02   7.8734E-04  0.0335
   4.7711E-02   4.8871E-02   7.9652E-04  0.0329
   4.8871E-02   5.0061E-02   7.7362E-04  0.0329
   5.0061E-02   5.1279E-02   7.8018E-04  0.0324
   5.1279E-02   5.2526E-02   7.7174E-04  0.0322
   5.2526E-02   5.3804E-02   7.5405E-04  0.0322
   5.3804E-02   5.5113E-02   7.1339E-04  0.0327
   5.5113E-02   5.6454E-02   7.7800E-04  0.0309
   5.6454E-02   5.7828E-02   7.1805E-04  0.0318
   5.7828E-02   5.9235E-02   6.9737E-04  0.0319
   5.9235E-02   6.0676E-02   7.3090E-04  0.0308
   6.0676E-02   6.2152E-02   6.6068E-04  0.0320
   6.2152E-02   6.3665E-02   6.7514E-04  0.0313
   6.3665E-02   6.5214E-02   6.8386E-04  0.0307
   6.5214E-02   6.6800E-02   6.3120E-04  0.0316
   6.6800E-02   6.8426E-02   6.5407E-04  0.0306
   6.8426E-02   7.0090E-02   6.0743E-04  0.0314
   7.0090E-02   7.1796E-02   6.4964E-04  0.0300
   7.1796E-02   7.3543E-02   6.4409E-04  0.0298
   7.3543E-02   7.5332E-02   6.1502E-04  0.0301
   7.5332E-02   7.7165E-02   5.6623E-04  0.0310
   7.7165E-02   7.9042E-02   6.1900E-04  0.0293
   7.9042E-02   8.0965E-02   5.7735E-04  0.0300
   8.0965E-02   8.2935E-02   5.8204E-04  0.0295
   8.2935E-02   8.4953E-02   5.4161E-04  0.0302
   8.4953E-02   8.7020E-02   5.7355E-04  0.0290
   8.7020E-02   8.9138E-02   5.5555E-04  0.0291
   8.9138E-02   9.1306E-02   5.3864E-04  0.0292
   9.1306E-02   9.3528E-02   5.1996E-04  0.0294
   9.3528E-02   9.5804E-02   5.2219E-04  0.0290
   9.5804E-02   9.8134E-02   5.1285E-04  0.0289
   9.8134E-02   1.0052E-01   4.8863E-04  0.0292
   1.0052E-01   1.0297E-01   4.5813E-04  0.0298
   1.0297E-01   1.0547E-01   4.6706E-04  0.0292
   1.0547E-01   1.0804E-01   4.5236E-04  0.0293
   1.0804E-01   1.1067E-01   4.5877E-04  0.0288
   1.1067E-01   1.1336E-01   4.4091E-04  0.0290
   1.1336E-01   1.1612E-01   4.3925E-04  0.0287
   1.1612E-01   1.1894E-01   4.3020E-04  0.0286
   1.1894E-01   1.2184E-01   4.3162E-04  0.0283
   1.2184E-01   1.2480E-01   4.0129E-04  0.0290
   1.2480E-01   1.2784E-01   4.0685E-04  0.0284
   1.2784E-01   1.3095E-01   3.7888E-04  0.0291
   1.3095E-01   1.3414E-01   3.8272E-04  0.0286
   1.3414E-01   1.3740E-01   3.6097E-04  0.0291
   1.3740E-01   1.4074E-01   3.6572E-04  0.0286
   1.4074E-01   1.4417E-01   3.4708E-04  0.0290
   1.4417E-01   1.4767E-01   3.5550E-04  0.0283
   1.4767E-01   1.5127E-01   3.4078E-04  0.0285
   1.5127E-01   1.5495E-01   3.3457E-04  0.0285
   1.5495E-01   1.5872E-01   3.3535E-04  0.0281
   1.5872E-01   1.6258E-01   3.1602E-04  0.0286
   1.6258E-01   1.6654E-01   3.0478E-04  0.0287
   1.6654E-01   1.7059E-01   3.1288E-04  0.0280
   1.7059E-01   1.7474E-01   3.0175E-04  0.0282
   1.7474E-01   1.7899E-01   2.8358E-04  0.0288
   1.7899E-01   1.8334E-01   2.8811E-04  0.0282
   1.8334E-01   1.8781E-01   2.6508E-04  0.0290
   1.8781E-01   1.9237E-01   2.5463E-04  0.0293
   1.9237E-01   1.9706E-01   2.6106E-04  0.0286
   1.9706E-01   2.0185E-01   2.4139E-04  0.0294
   2.0185E-01   2.0676E-01   2.6214E-04  0.0278
   2.0676E-01   2.1179E-01   2.5851E-04  0.0277
   2.1179E-01   2.1694E-01   2.5895E-04  0.0273
   2.1694E-01   2.2222E-01   2.6309E-04  0.0268
   2.2222E-01   2.2763E-01   2.6669E-04  0.0263
   2.2763E-01   2.3317E-01   2.8481E-04  0.0251
   2.3317E-01   2.3884E-01   2.7967E-04  0.0251
   2.3884E-01   2.4465E-01   2.9418E-04  0.0241
   2.4465E-01   2.5061E-01   2.8919E-04  0.0241
   2.5061E-01   2.5670E-01   2.9982E-04  0.0234
   2.5670E-01   2.6295E-01   3.0536E-04  0.0229
   2.6295E-01   2.6935E-01   2.9870E-04  0.0228
   2.6935E-01   2.7590E-01   3.0243E-04  0.0224
   2.7590E-01   2.8261E-01   3.1009E-04  0.0219
   2.8261E-01   2.8949E-01   3.1175E-04  0.0216
   2.8949E-01   2.9653E-01   3.2284E-04  0.0209
   2.9653E-01   3.0375E-01   3.3339E-04  0.0204
   3.0375E-01   3.1114E-01   3.1984E-04  0.0205
   3.1114E-01   3.1871E-01   3.2165E-04  0.0202
   3.1871E-01   3.2646E-01   3.2846E-04  0.0198
   3.2646E-01   3.3441E-01   3.4302E-04  0.0191
   3.3441E-01   3.4254E-01   3.4329E-04  0.0189
   3.4254E-01   3.5088E-01   3.3746E-04  0.0188
   3.5088E-01   3.5941E-01   3.3885E-04  0.0186
   3.5941E-01   3.6816E-01   3.3206E-04  0.0185
   3.6816E-01   3.7712E-01   3.4745E-04  0.0179
   3.7712E-01   3.8629E-01   3.4372E-04  0.0178
   3.8629E-01   3.9569E-01   3.4749E-04  0.0175
   3.9569E-01   4.0532E-01   3.5566E-04  0.0171
   4.0532E-01   4.1518E-01   3.5237E-04  0.0169
   4.1518E-01   4.2528E-01   3.6677E-04  0.0164
   4.2528E-01   4.3563E-01   3.6269E-04  0.0163
   4.3563E-01   4.4623E-01   3.6173E-04  0.0161
   4.4623E-01   4.5708E-01   3.5011E-04  0.0162
   4.5708E-01   4.6821E-01   3.5747E-04  0.0158
   4.6821E-01   4.7960E-01   3.6225E-04  0.0155
   4.7960E-01   4.9127E-01   3.6801E-04  0.0152
   4.9127E-01   5.0322E-01   3.6430E-04  0.0151
   5.0322E-01   5.1546E-01   3.6696E-04  0.0149
   5.1546E-01   5.2800E-01   3.6881E-04  0.0147
   5.2800E-01   5.4085E-01   3.6114E-04  0.0147
   5.4085E-01   5.5401E-01   3.7639E-04  0.0142
   5.5401E-01   5.6749E-01   3.6207E-04  0.0143
   5.6749E-01   5.8130E-01   3.6677E-04  0.0140
   5.8130E-01   5.9544E-01   3.7324E-04  0.0137
   5.9544E-01   6.0993E-01   3.7577E-04  0.0135
   6.0993E-01   6.2477E-01   3.5716E-04  0.0137
   6.2477E-01   6.3997E-01   3.7384E-04  0.0132
   6.3997E-01   6.5554E-01   3.6830E-04  0.0132
   6.5554E-01   6.7149E-01   3.6393E-04  0.0131
   6.7149E-01   6.8783E-01   3.6311E-04  0.0130
   6.8783E-01   7.0456E-01   3.7541E-04  0.0126
   7.0456E-01   7.2171E-01   3.5942E-04  0.0127
   7.2171E-01   7.3927E-01   3.5493E-04  0.0126
   7.3927E-01   7.5725E-01   3.5215E-04  0.0125
   7.5725E-01   7.7568E-01   3.6379E-04  0.0122
   7.7568E-01   7.9455E-01   3.5443E-04  0.0122
   7.9455E-01   8.1388E-01   3.4963E-04  0.0121
   8.1388E-01   8.3368E-01   3.4809E-04  0.0120
   8.3368E-01   8.5397E-01   3.4683E-04  0.0119
   8.5397E-01   8.7475E-01   3.3423E-04  0.0120
   8.7475E-01   8.9603E-01   3.2972E-04  0.0119
   8.9603E-01   9.1783E-01   3.2057E-04  0.0119
   9.1783E-01   9.4016E-01   3.1866E-04  0.0118
   9.4016E-01   9.6304E-01   3.0653E-04  0.0119
   9.6304E-01   9.8647E-01   2.9846E-04  0.0119
   9.8647E-01   1.0105E+00   2.9096E-04  0.0119
   1.0105E+00   1.0351E+00   2.8090E-04  0.0120
   1.0351E+00   1.0602E+00   2.7329E-04  0.0120
   1.0602E+00   1.0860E+00   2.7024E-04  0.0119
   1.0860E+00   1.1125E+00   2.6392E-04  0.0119
   1.1125E+00   1.1395E+00   2.5879E-04  0.0119
   1.1395E+00   1.1673E+00   2.4814E-04  0.0120
   1.1673E+00   1.1957E+00   2.5147E-04  0.0118
   1.1957E+00   1.2247E+00   2.4492E-04  0.0118
   1.2247E+00   1.2545E+00   2.4195E-04  0.0117
   1.2545E+00   1.2851E+00   2.3467E-04  0.0118
   1.2851E+00   1.3163E+00   2.2467E-04  0.0119
   1.3163E+00   1.3484E+00   2.2541E-04  0.0117
   1.3484E+00   1.3812E+00   2.1943E-04  0.0117
   1.3812E+00   1.4148E+00   2.1093E-04  0.0118
   1.4148E+00   1.4492E+00   2.0852E-04  0.0118
   1.4492E+00   1.4845E+00   2.0151E-04  0.0118
   1.4845E+00   1.5206E+00   2.0175E-04  0.0117
   1.5206E+00   1.5576E+00   1.9291E-04  0.0118
   1.5576E+00   1.5955E+00   1.8724E-04  0.0118
   1.5955E+00   1.6343E+00   1.8288E-04  0.0118
   1.6343E+00   1.6741E+00   1.8306E-04  0.0117
   1.6741E+00   1.7148E+00   1.7698E-04  0.0117
   1.7148E+00   1.7565E+00   1.6851E-04  0.0119
   1.7565E+00   1.7992E+00   1.6503E-04  0.0119
   1.7992E+00   1.8430E+00   1.6211E-04  0.0118
   1.8430E+00   1.8879E+00   1.5783E-04  0.0118
   1.8879E+00   1.9338E+00   1.5639E-04  0.0118
   1.9338E+00   1.9808E+00   1.5151E-04  0.0118
   1.9808E+00   2.0290E+00   1.4902E-04  0.0117
   2.0290E+00   2.0784E+00   1.4511E-04  0.0118
   2.0784E+00   2.1290E+00   1.3640E-04  0.0120
   2.1290E+00   2.1808E+00   1.3706E-04  0.0118
   2.1808E+00   2.2338E+00   1.3326E-04  0.0118
   2.2338E+00   2.2882E+00   1.3067E-04  0.0118
   2.2882E+00   2.3439E+00   1.2764E-04  0.0118
   2.3439E+00   2.4009E+00   1.2564E-04  0.0118
   2.4009E+00   2.4593E+00   1.2397E-04  0.0117
   2.4593E+00   2.5191E+00   1.1852E-04  0.0118
   2.5191E+00   2.5804E+00   1.1742E-04  0.0117
   2.5804E+00   2.6432E+00   1.1418E-04  0.0118
   2.6432E+00   2.7075E+00   1.1031E-04  0.0118
   2.7075E+00   2.7734E+00   1.0904E-04  0.0117
   2.7734E+00   2.8409E+00   1.0504E-04  0.0118
   2.8409E+00   2.9100E+00   1.0373E-04  0.0118
   2.9100E+00   2.9808E+00   1.0055E-04  0.0118
   2.9808E+00   3.0533E+00   1.0091E-04  0.0116
   3.0533E+00   3.1276E+00   9.6243E-05  0.0118
   3.1276E+00   3.2037E+00   9.3399E-05  0.0118
   3.2037E+00   3.2817E+00   9.1873E-05  0.0118
   3.2817E+00   3.3615E+00   9.0572E-05  0.0117
   3.3615E+00   3.4433E+00   8.8468E-05  0.0117
   3.4433E+00   3.5271E+00   8.5635E-05  0.0118
   3.5271E+00   3.6129E+00   8.2289E-05  0.0118
   3.6129E+00   3.7008E+00   8.2459E-05  0.0117
   3.7008E+00   3.7908E+00   7.8405E-05  0.0118
   3.7908E+00   3.8831E+00   7.7176E-05  0.0118
   3.8831E+00   3.9776E+00   7.3985E-05  0.0119
   3.9776E+00   4.0743E+00   7.2175E-05  0.0119
   4.0743E+00   4.1735E+00   7.1085E-05  0.0119
   4.1735E+00   4.2750E+00   6.8177E-05  0.0120
   4.2750E+00   4.3790E+00   6.4679E-05  0.0121
   4.3790E+00   4.4856E+00   6.2747E-05  0.0122
   4.4856E+00   4.5947E+00   6.2613E-05  0.0121
   4.5947E+00   4.7065E+00   5.9836E-05  0.0122
   4.7065E+00   4.8210E+00   5.6217E-05  0.0124
   4.8210E+00   4.9383E+00   5.4536E-05  0.0125
   4.9383E+00   5.0585E+00   5.1836E-05  0.0126
   5.0585E+00   5.1815E+00   4.9794E-05  0.0127
   5.1815E+00   5.3076E+00   4.7674E-05  0.0129
   5.3076E+00   5.4368E+00   4.5690E-05  0.0130
   5.4368E+00   5.5690E+00   4.4064E-05  0.0131
   5.5690E+00   5.7045E+00   4.1722E-05  0.0133
   5.7045E+00   5.8433E+00   3.9444E-05  0.0135
   5.8433E+00   5.9855E+00   3.8430E-05  0.0135
   5.9855E+00   6.1311E+00   3.5912E-05  0.0138
   6.1311E+00   6.2803E+00   3.4629E-05  0.0139
   6.2803E+00   6.4331E+00   3.2389E-05  0.0142
   6.4331E+00   6.5896E+00   3.0377E-05  0.0145
   6.5896E+00   6.7500E+00   2.8634E-05  0.0147
   6.7500E+00   6.9142E+00   2.7923E-05  0.0147
   6.9142E+00   7.0824E+00   2.5762E-05  0.0152
   7.0824E+00   7.2548E+00   2.3714E-05  0.0156
   7.2548E+00   7.4313E+00   2.2092E-05  0.0160
   7.4313E+00   7.6121E+00   2.0556E-05  0.0164
   7.6121E+00   7.7973E+00   1.9546E-05  0.0166
   7.7973E+00   7.9870E+00   1.8105E-05  0.0170
   7.9870E+00   8.1813E+00   1.7415E-05  0.0172
   8.1813E+00   8.3804E+00   1.6719E-05  0.0173
   8.3804E+00   8.5843E+00   1.5220E-05  0.0179
   8.5843E+00   8.7931E+00   1.3807E-05  0.0186
   8.7931E+00   9.0071E+00   1.3461E-05  0.0186
   9.0071E+00   9.2262E+00   1.2584E-05  0.0190
   9.2262E+00   9.4507E+00   1.1764E-05  0.0194
   9.4507E+00   9.6807E+00   1.1038E-05  0.0198
   9.6807E+00   9.9162E+00   1.0519E-05  0.0200
   9.9162E+00   1.0157E+01   9.4852E-06  0.0209
   1.0157E+01   1.0405E+01   9.3631E-06  0.0208
   1.0405E+01   1.0658E+01   9.0275E-06  0.0209
   1.0658E+01   1.0917E+01   8.8685E-06  0.0208
   1.0917E+01   1.1183E+01   8.1684E-06  0.0214
   1.1183E+01   1.1455E+01   7.8371E-06  0.0216
   1.1455E+01   1.1733E+01   7.7131E-06  0.0215
   1.1733E+01   1.2019E+01   6.7239E-06  0.0228
   1.2019E+01   1.2311E+01   6.1572E-06  0.0235
   1.2311E+01   1.2611E+01   5.8705E-06  0.0238
   1.2611E+01   1.2918E+01   5.1679E-06  0.0251
   1.2918E+01   1.3232E+01   5.0605E-06  0.0251
   1.3232E+01   1.3554E+01   4.7916E-06  0.0254
   1.3554E+01   1.3884E+01   4.4074E-06  0.0262
   1.3884E+01   1.4222E+01   3.9300E-06  0.0274
   1.4222E+01   1.4568E+01   3.6905E-06  0.0280
   1.4568E+01   1.4922E+01   3.2403E-06  0.0295
   1.4922E+01   1.5285E+01   2.9591E-06  0.0305
   1.5285E+01   1.5657E+01   2.7597E-06  0.0312
   1.5657E+01   1.6038E+01   2.4871E-06  0.0325
   1.6038E+01   1.6428E+01   2.1100E-06  0.0348
   1.6428E+01   1.6828E+01   1.9829E-06  0.0355
   1.6828E+01   1.7237E+01   1.7309E-06  0.0375
   1.7237E+01   1.7657E+01   1.7112E-06  0.0373
   1.7657E+01   1.8086E+01   1.4874E-06  0.0396
   1.8086E+01   1.8526E+01   1.2616E-06  0.0424
   1.8526E+01   1.8977E+01   1.1966E-06  0.0430
   1.8977E+01   1.9439E+01   1.1032E-06  0.0443
   1.9439E+01   1.9912E+01   9.5177E-07  0.0471
   1.9912E+01   2.0396E+01   8.3425E-07  0.0497
   2.0396E+01   2.0893E+01   6.9520E-07  0.0538
   2.0893E+01   2.1401E+01   6.8656E-07  0.0535
   2.1401E+01   2.1922E+01   5.9343E-07  0.0569
   2.1922E+01   2.2455E+01   5.6621E-07  0.0575
   2.2455E+01   2.3001E+01   4.6491E-07  0.0627
   2.3001E+01   2.3561E+01   4.1813E-07  0.0654
   2.3561E+01   2.4134E+01   3.5761E-07  0.0698
   2.4134E+01   2.4721E+01   3.3208E-07  0.0716
   2.4721E+01   2.5323E+01   3.4581E-07  0.0693
   2.5323E+01   2.5939E+01   2.9864E-07  0.0737
   2.5939E+01   2.6570E+01   2.4084E-07  0.0811
   2.6570E+01   2.7217E+01   2.0109E-07  0.0877
   2.7217E+01   2.7879E+01   1.6762E-07  0.0949
   2.7879E+01   2.8557E+01   1.3858E-07  0.1031
   2.8557E+01   2.9252E+01   1.3529E-07  0.1031
   2.9252E+01   2.9964E+01   1.1381E-07  0.1111
   2.9964E+01   3.0693E+01   1.3717E-07  0.1000
   3.0693E+01   3.1440E+01   1.1248E-07  0.1091
   3.1440E+01   3.2205E+01   9.4124E-08  0.1179
   3.2205E+01   3.2988E+01   6.3811E-08  0.1414
   3.2988E+01   3.3791E+01   5.9804E-08  0.1443
   3.3791E+01   3.4613E+01   4.1355E-08  0.1715
   3.4613E+01   3.5455E+01   3.3248E-08  0.1890
   3.5455E+01   3.6318E+01   3.4777E-08  0.1826
   3.6318E+01   3.7201E+01   2.7160E-08  0.2041
   3.7201E+01   3.8106E+01   2.9830E-08  0.1925
   3.8106E+01   3.9034E+01   2.2650E-08  0.2182
   3.9034E+01   3.9983E+01   2.2112E-08  0.2182
   3.9983E+01   4.0956E+01   2.0559E-08  0.2236
   4.0956E+01   4.1953E+01   1.4049E-08  0.2673
   4.1953E+01   4.2973E+01   7.8374E-09  0.3536
   4.2973E+01   4.4019E+01   3.8256E-09  0.5000
   4.4019E+01   4.5090E+01   4.6685E-09  0.4472
   4.5090E+01   4.6187E+01   2.7345E-09  0.5774
   4.6187E+01   4.7311E+01   8.8986E-10  1.0000
   4.7311E+01   4.8462E+01   0.0000E+00  0.0000
   4.8462E+01   4.9641E+01   0.0000E+00  0.0000
   4.9641E+01   5.0849E+01   0.0000E+00  0.0000
   5.0849E+01   5.2086E+01   0.0000E+00  0.0000
   5.2086E+01   5.3353E+01   7.8908E-10  1.0000
   5.3353E+01   5.4651E+01   7.7034E-10  1.0000
   5.4651E+01   5.5981E+01   7.5204E-10  1.0000
   5.5981E+01   5.7343E+01   0.0000E+00  0.0000
   5.7343E+01   5.8738E+01   0.0000E+00  0.0000
   5.8738E+01   6.0168E+01   0.0000E+00  0.0000
   6.0168E+01   6.1632E+01   0.0000E+00  0.0000
   6.1632E+01   6.3131E+01   0.0000E+00  0.0000
   6.3131E+01   6.4667E+01   0.0000E+00  0.0000
   6.4667E+01   6.6240E+01   0.0000E+00  0.0000
   6.6240E+01   6.7852E+01   0.0000E+00  0.0000
   6.7852E+01   6.9503E+01   0.0000E+00  0.0000
   6.9503E+01   7.1194E+01   0.0000E+00  0.0000
   7.1194E+01   7.2926E+01   0.0000E+00  0.0000
   7.2926E+01   7.4701E+01   0.0000E+00  0.0000
   7.4701E+01   7.6518E+01   0.0000E+00  0.0000
   7.6518E+01   7.8380E+01   0.0000E+00  0.0000
   7.8380E+01   8.0287E+01   0.0000E+00  0.0000
   8.0287E+01   8.2240E+01   0.0000E+00  0.0000
   8.2240E+01   8.4241E+01   0.0000E+00  0.0000
   8.4241E+01   8.6291E+01   0.0000E+00  0.0000
   8.6291E+01   8.8391E+01   0.0000E+00  0.0000
   8.8391E+01   9.0541E+01   0.0000E+00  0.0000
   9.0541E+01   9.2744E+01   0.0000E+00  0.0000
   9.2744E+01   9.5001E+01   0.0000E+00  0.0000
   9.5001E+01   9.7312E+01   0.0000E+00  0.0000
   9.7312E+01   9.9680E+01   0.0000E+00  0.0000
   9.9680E+01   1.0211E+02   0.0000E+00  0.0000
   1.0211E+02   1.0459E+02   0.0000E+00  0.0000
   1.0459E+02   1.0713E+02   0.0000E+00  0.0000
   1.0713E+02   1.0974E+02   0.0000E+00  0.0000
   1.0974E+02   1.1241E+02   0.0000E+00  0.0000
   1.1241E+02   1.1515E+02   0.0000E+00  0.0000
   1.1515E+02   1.1795E+02   0.0000E+00  0.0000
   1.1795E+02   1.2082E+02   0.0000E+00  0.0000
   1.2082E+02   1.2376E+02   0.0000E+00  0.0000
   1.2376E+02   1.2677E+02   0.0000E+00  0.0000
   1.2677E+02   1.2985E+02   0.0000E+00  0.0000
   1.2985E+02   1.3301E+02   0.0000E+00  0.0000
   1.3301E+02   1.3625E+02   0.0000E+00  0.0000
   1.3625E+02   1.3956E+02   0.0000E+00  0.0000
   1.3956E+02   1.4296E+02   0.0000E+00  0.0000
   1.4296E+02   1.4644E+02   0.0000E+00  0.0000
   1.4644E+02   1.5000E+02   0.0000E+00  0.0000

#   sum over                 6.8089E-06
'no. =    1   reg = 120 - 220'
msuc: {\huge [t-cross] in region mesh}
msdr: {\it plotted by \ANGEL \version}
msdl: {\it calculated by \PHITS  3.26}
wt: s(0.7)
\vspace{-3}
  region surface crossing
  area  &=&   1.0000E+00 [cm^2]
e:
 
# Information for Restart Calculation
# This calculation was newly started
# istdev =  2 # 1:Batch variance, 2:History variance
# resc2  = 1.00000000000000000E+09 # Total source weight or Total source weight / maxcas
# resc3  = 1.00000000000000000E+09 # Total history number or Total batch number
# maxcas =   500000000 # History / Batch, only used for istdev=1
# bitrseed = 0001001110011001001001110000100100110111001111011100001000101100 # bit data of rseed
