[ T-Cross ]
    title = [t-cross] in region mesh
     mesh =  reg            # mesh type is region-wise
      reg =    1            # number of crossing regions
      non     r-from    r-to       area
      1       119       219        1.000000    
   e-type =    3            # e-mesh is log given by emin, emax and ne
     emin =  1.0000000E-02  # minimum value of e-mesh points
     emax =   150.0000      # maximum value of e-mesh points
#    edel =  2.4039514E-02  # mesh width of e-mesh points
       ne =    400          # number of e-mesh points
#    data = ( e(i), i = 1, ne + 1 )
#           1.00000E-02  1.02433E-02  1.04925E-02  1.07478E-02  1.10093E-02
#           1.12772E-02  1.15516E-02  1.18326E-02  1.21205E-02  1.24154E-02
#           1.27175E-02  1.30269E-02  1.33439E-02  1.36686E-02  1.40011E-02
#           1.43418E-02  1.46907E-02  1.50482E-02  1.54143E-02  1.57894E-02
#           1.61735E-02  1.65670E-02  1.69701E-02  1.73830E-02  1.78060E-02
#           1.82392E-02  1.86830E-02  1.91375E-02  1.96032E-02  2.00801E-02
#           2.05687E-02  2.10692E-02  2.15818E-02  2.21069E-02  2.26448E-02
#           2.31957E-02  2.37601E-02  2.43382E-02  2.49304E-02  2.55369E-02
#           2.61583E-02  2.67947E-02  2.74467E-02  2.81145E-02  2.87985E-02
#           2.94992E-02  3.02169E-02  3.09521E-02  3.17052E-02  3.24766E-02
#           3.32668E-02  3.40762E-02  3.49053E-02  3.57546E-02  3.66246E-02
#           3.75157E-02  3.84284E-02  3.93634E-02  4.03212E-02  4.13022E-02
#           4.23071E-02  4.33365E-02  4.43909E-02  4.54710E-02  4.65773E-02
#           4.77106E-02  4.88714E-02  5.00605E-02  5.12785E-02  5.25262E-02
#           5.38042E-02  5.51133E-02  5.64542E-02  5.78278E-02  5.92348E-02
#           6.06760E-02  6.21523E-02  6.36645E-02  6.52135E-02  6.68002E-02
#           6.84255E-02  7.00904E-02  7.17957E-02  7.35426E-02  7.53319E-02
#           7.71648E-02  7.90423E-02  8.09655E-02  8.29354E-02  8.49533E-02
#           8.70203E-02  8.91376E-02  9.13064E-02  9.35279E-02  9.58035E-02
#           9.81345E-02  1.00522E-01  1.02968E-01  1.05473E-01  1.08040E-01
#           1.10668E-01  1.13361E-01  1.16119E-01  1.18944E-01  1.21838E-01
#           1.24803E-01  1.27839E-01  1.30950E-01  1.34136E-01  1.37399E-01
#           1.40742E-01  1.44167E-01  1.47675E-01  1.51268E-01  1.54948E-01
#           1.58718E-01  1.62580E-01  1.66535E-01  1.70587E-01  1.74738E-01
#           1.78989E-01  1.83344E-01  1.87805E-01  1.92375E-01  1.97055E-01
#           2.01850E-01  2.06761E-01  2.11792E-01  2.16945E-01  2.22223E-01
#           2.27630E-01  2.33169E-01  2.38842E-01  2.44653E-01  2.50605E-01
#           2.56703E-01  2.62949E-01  2.69346E-01  2.75900E-01  2.82613E-01
#           2.89489E-01  2.96532E-01  3.03747E-01  3.11138E-01  3.18708E-01
#           3.26462E-01  3.34405E-01  3.42542E-01  3.50876E-01  3.59413E-01
#           3.68158E-01  3.77116E-01  3.86291E-01  3.95690E-01  4.05317E-01
#           4.15179E-01  4.25281E-01  4.35628E-01  4.46227E-01  4.57084E-01
#           4.68205E-01  4.79597E-01  4.91266E-01  5.03219E-01  5.15463E-01
#           5.28005E-01  5.40851E-01  5.54011E-01  5.67490E-01  5.81298E-01
#           5.95441E-01  6.09929E-01  6.24769E-01  6.39970E-01  6.55541E-01
#           6.71491E-01  6.87828E-01  7.04564E-01  7.21706E-01  7.39266E-01
#           7.57253E-01  7.75678E-01  7.94551E-01  8.13883E-01  8.33685E-01
#           8.53969E-01  8.74747E-01  8.96030E-01  9.17831E-01  9.40163E-01
#           9.63038E-01  9.86469E-01  1.01047E+00  1.03506E+00  1.06024E+00
#           1.08604E+00  1.11246E+00  1.13953E+00  1.16725E+00  1.19565E+00
#           1.22474E+00  1.25454E+00  1.28507E+00  1.31633E+00  1.34836E+00
#           1.38117E+00  1.41477E+00  1.44920E+00  1.48446E+00  1.52057E+00
#           1.55757E+00  1.59547E+00  1.63429E+00  1.67405E+00  1.71478E+00
#           1.75650E+00  1.79924E+00  1.84302E+00  1.88786E+00  1.93379E+00
#           1.98084E+00  2.02904E+00  2.07841E+00  2.12898E+00  2.18078E+00
#           2.23384E+00  2.28819E+00  2.34386E+00  2.40089E+00  2.45930E+00
#           2.51914E+00  2.58043E+00  2.64322E+00  2.70753E+00  2.77341E+00
#           2.84088E+00  2.91001E+00  2.98081E+00  3.05333E+00  3.12762E+00
#           3.20372E+00  3.28167E+00  3.36152E+00  3.44330E+00  3.52708E+00
#           3.61290E+00  3.70080E+00  3.79085E+00  3.88308E+00  3.97756E+00
#           4.07434E+00  4.17347E+00  4.27501E+00  4.37903E+00  4.48557E+00
#           4.59471E+00  4.70650E+00  4.82102E+00  4.93832E+00  5.05847E+00
#           5.18155E+00  5.30762E+00  5.43676E+00  5.56904E+00  5.70453E+00
#           5.84333E+00  5.98550E+00  6.13114E+00  6.28031E+00  6.43312E+00
#           6.58964E+00  6.74997E+00  6.91420E+00  7.08243E+00  7.25475E+00
#           7.43126E+00  7.61207E+00  7.79728E+00  7.98700E+00  8.18133E+00
#           8.38038E+00  8.58428E+00  8.79315E+00  9.00709E+00  9.22624E+00
#           9.45072E+00  9.68067E+00  9.91620E+00  1.01575E+01  1.04046E+01
#           1.06578E+01  1.09171E+01  1.11827E+01  1.14548E+01  1.17335E+01
#           1.20190E+01  1.23114E+01  1.26109E+01  1.29178E+01  1.32321E+01
#           1.35540E+01  1.38838E+01  1.42216E+01  1.45676E+01  1.49221E+01
#           1.52851E+01  1.56570E+01  1.60380E+01  1.64282E+01  1.68279E+01
#           1.72374E+01  1.76568E+01  1.80864E+01  1.85264E+01  1.89772E+01
#           1.94389E+01  1.99119E+01  2.03963E+01  2.08926E+01  2.14009E+01
#           2.19216E+01  2.24550E+01  2.30014E+01  2.35610E+01  2.41343E+01
#           2.47215E+01  2.53230E+01  2.59391E+01  2.65702E+01  2.72167E+01
#           2.78789E+01  2.85572E+01  2.92520E+01  2.99637E+01  3.06928E+01
#           3.14396E+01  3.22045E+01  3.29881E+01  3.37907E+01  3.46128E+01
#           3.54550E+01  3.63177E+01  3.72013E+01  3.81064E+01  3.90336E+01
#           3.99833E+01  4.09561E+01  4.19526E+01  4.29734E+01  4.40189E+01
#           4.50900E+01  4.61870E+01  4.73108E+01  4.84619E+01  4.96410E+01
#           5.08488E+01  5.20860E+01  5.33533E+01  5.46514E+01  5.59812E+01
#           5.73432E+01  5.87384E+01  6.01676E+01  6.16315E+01  6.31311E+01
#           6.46671E+01  6.62405E+01  6.78522E+01  6.95031E+01  7.11941E+01
#           7.29263E+01  7.47007E+01  7.65182E+01  7.83800E+01  8.02870E+01
#           8.22405E+01  8.42414E+01  8.62911E+01  8.83906E+01  9.05412E+01
#           9.27442E+01  9.50007E+01  9.73122E+01  9.96799E+01  1.02105E+02
#           1.04589E+02  1.07134E+02  1.09741E+02  1.12411E+02  1.15146E+02
#           1.17948E+02  1.20817E+02  1.23757E+02  1.26768E+02  1.29852E+02
#           1.33012E+02  1.36248E+02  1.39563E+02  1.42959E+02  1.46437E+02
#           1.50000E+02
     unit =    2            # unit is [1/cm^2/(MeV/n)/source]
     axis =  eng            # axis of output
     file = detector-20.out  # file name of output for the above axis
   output = f-curr          # surface crossing forward current spectrum
     part =  neutron  
# kf/name :  2112     
#    used :        main (  %)        temp (  %)       total (  %)
#  memory :         414 (  0)           0 (  0)         414 (  0)

#------------------------------------------------------------------------------
#newpage:
#   no. =    1   reg = 119 - 219

x: Energy [MeV/n]
y:  F-Curr [1/cm^2/(MeV/n)/source]         
p: xlog ylog afac(0.8) form(0.9)
h: n            x            y(neutron ),hh0l   n 
#  e-lower      e-upper      neutron     r.err 
   1.0000E-02   1.0243E-02   2.0762E-03  0.0445
   1.0243E-02   1.0493E-02   2.1558E-03  0.0431
   1.0493E-02   1.0748E-02   2.2014E-03  0.0421
   1.0748E-02   1.1009E-02   2.1742E-03  0.0419
   1.1009E-02   1.1277E-02   2.1418E-03  0.0417
   1.1277E-02   1.1552E-02   2.0749E-03  0.0419
   1.1552E-02   1.1833E-02   2.1807E-03  0.0404
   1.1833E-02   1.2121E-02   1.9577E-03  0.0421
   1.2121E-02   1.2415E-02   2.0007E-03  0.0411
   1.2415E-02   1.2718E-02   2.1628E-03  0.0391
   1.2718E-02   1.3027E-02   2.0442E-03  0.0397
   1.3027E-02   1.3344E-02   1.9904E-03  0.0398
   1.3344E-02   1.3669E-02   2.0142E-03  0.0390
   1.3669E-02   1.4001E-02   2.0256E-03  0.0385
   1.4001E-02   1.4342E-02   1.9915E-03  0.0384
   1.4342E-02   1.4691E-02   2.0286E-03  0.0376
   1.4691E-02   1.5048E-02   1.7919E-03  0.0394
   1.5048E-02   1.5414E-02   1.8476E-03  0.0384
   1.5414E-02   1.5789E-02   1.9459E-03  0.0370
   1.5789E-02   1.6174E-02   1.8560E-03  0.0374
   1.6174E-02   1.6567E-02   1.7666E-03  0.0379
   1.6567E-02   1.6970E-02   1.8746E-03  0.0363
   1.6970E-02   1.7383E-02   1.7964E-03  0.0367
   1.7383E-02   1.7806E-02   1.8530E-03  0.0357
   1.7806E-02   1.8239E-02   1.7022E-03  0.0368
   1.8239E-02   1.8683E-02   1.7159E-03  0.0362
   1.8683E-02   1.9138E-02   1.7301E-03  0.0356
   1.9138E-02   1.9603E-02   1.6330E-03  0.0362
   1.9603E-02   2.0080E-02   1.6834E-03  0.0353
   2.0080E-02   2.0569E-02   1.5521E-03  0.0363
   2.0569E-02   2.1069E-02   1.5828E-03  0.0355
   2.1069E-02   2.1582E-02   1.5881E-03  0.0350
   2.1582E-02   2.2107E-02   1.4788E-03  0.0359
   2.2107E-02   2.2645E-02   1.5161E-03  0.0350
   2.2645E-02   2.3196E-02   1.5673E-03  0.0340
   2.3196E-02   2.3760E-02   1.5261E-03  0.0340
   2.3760E-02   2.4338E-02   1.5415E-03  0.0335
   2.4338E-02   2.4930E-02   1.4297E-03  0.0343
   2.4930E-02   2.5537E-02   1.4480E-03  0.0337
   2.5537E-02   2.6158E-02   1.5155E-03  0.0325
   2.6158E-02   2.6795E-02   1.4285E-03  0.0332
   2.6795E-02   2.7447E-02   1.3452E-03  0.0337
   2.7447E-02   2.8114E-02   1.3281E-03  0.0335
   2.8114E-02   2.8799E-02   1.4841E-03  0.0314
   2.8799E-02   2.9499E-02   1.3389E-03  0.0326
   2.9499E-02   3.0217E-02   1.3360E-03  0.0323
   3.0217E-02   3.0952E-02   1.3514E-03  0.0317
   3.0952E-02   3.1705E-02   1.3789E-03  0.0310
   3.1705E-02   3.2477E-02   1.3040E-03  0.0315
   3.2477E-02   3.3267E-02   1.2321E-03  0.0320
   3.3267E-02   3.4076E-02   1.2076E-03  0.0319
   3.4076E-02   3.4905E-02   1.2483E-03  0.0311
   3.4905E-02   3.5755E-02   1.2404E-03  0.0308
   3.5755E-02   3.6625E-02   1.2128E-03  0.0308
   3.6625E-02   3.7516E-02   1.2326E-03  0.0301
   3.7516E-02   3.8428E-02   1.1849E-03  0.0304
   3.8428E-02   3.9363E-02   1.1147E-03  0.0309
   3.9363E-02   4.0321E-02   1.1767E-03  0.0298
   4.0321E-02   4.1302E-02   1.0930E-03  0.0305
   4.1302E-02   4.2307E-02   1.1025E-03  0.0300
   4.2307E-02   4.3337E-02   1.1975E-03  0.0284
   4.3337E-02   4.4391E-02   1.1186E-03  0.0291
   4.4391E-02   4.5471E-02   1.0226E-03  0.0301
   4.5471E-02   4.6577E-02   1.1167E-03  0.0284
   4.6577E-02   4.7711E-02   1.0748E-03  0.0286
   4.7711E-02   4.8871E-02   1.0170E-03  0.0291
   4.8871E-02   5.0061E-02   1.0992E-03  0.0276
   5.0061E-02   5.1279E-02   1.0105E-03  0.0285
   5.1279E-02   5.2526E-02   9.7834E-04  0.0286
   5.2526E-02   5.3804E-02   1.0253E-03  0.0276
   5.3804E-02   5.5113E-02   9.9812E-04  0.0276
   5.5113E-02   5.6454E-02   9.3872E-04  0.0282
   5.6454E-02   5.7828E-02   9.2634E-04  0.0280
   5.7828E-02   5.9235E-02   9.2495E-04  0.0277
   5.9235E-02   6.0676E-02   9.6142E-04  0.0268
   6.0676E-02   6.2152E-02   9.0248E-04  0.0274
   6.2152E-02   6.3665E-02   9.0034E-04  0.0271
   6.3665E-02   6.5214E-02   8.8002E-04  0.0271
   6.5214E-02   6.6800E-02   8.8305E-04  0.0267
   6.6800E-02   6.8426E-02   8.8340E-04  0.0264
   6.8426E-02   7.0090E-02   7.9528E-04  0.0275
   7.0090E-02   7.1796E-02   7.7600E-04  0.0275
   7.1796E-02   7.3543E-02   7.9607E-04  0.0268
   7.3543E-02   7.5332E-02   7.6076E-04  0.0271
   7.5332E-02   7.7165E-02   8.0199E-04  0.0261
   7.7165E-02   7.9042E-02   7.8565E-04  0.0260
   7.9042E-02   8.0965E-02   7.6882E-04  0.0260
   8.0965E-02   8.2935E-02   7.1920E-04  0.0265
   8.2935E-02   8.4953E-02   7.8242E-04  0.0251
   8.4953E-02   8.7020E-02   6.8703E-04  0.0265
   8.7020E-02   8.9138E-02   7.0828E-04  0.0258
   8.9138E-02   9.1306E-02   6.9254E-04  0.0258
   9.1306E-02   9.3528E-02   6.8697E-04  0.0256
   9.3528E-02   9.5804E-02   6.6540E-04  0.0257
   9.5804E-02   9.8134E-02   6.7611E-04  0.0252
   9.8134E-02   1.0052E-01   6.3756E-04  0.0256
   1.0052E-01   1.0297E-01   6.6372E-04  0.0248
   1.0297E-01   1.0547E-01   6.0781E-04  0.0256
   1.0547E-01   1.0804E-01   6.0087E-04  0.0254
   1.0804E-01   1.1067E-01   5.9368E-04  0.0253
   1.1067E-01   1.1336E-01   5.5238E-04  0.0259
   1.1336E-01   1.1612E-01   5.7896E-04  0.0250
   1.1612E-01   1.1894E-01   5.6489E-04  0.0250
   1.1894E-01   1.2184E-01   5.3061E-04  0.0255
   1.2184E-01   1.2480E-01   5.3597E-04  0.0251
   1.2480E-01   1.2784E-01   5.5205E-04  0.0244
   1.2784E-01   1.3095E-01   4.9145E-04  0.0255
   1.3095E-01   1.3414E-01   5.0227E-04  0.0250
   1.3414E-01   1.3740E-01   4.9595E-04  0.0248
   1.3740E-01   1.4074E-01   4.5038E-04  0.0257
   1.4074E-01   1.4417E-01   4.6584E-04  0.0250
   1.4417E-01   1.4767E-01   4.6668E-04  0.0247
   1.4767E-01   1.5127E-01   4.3825E-04  0.0252
   1.5127E-01   1.5495E-01   4.3429E-04  0.0250
   1.5495E-01   1.5872E-01   4.2552E-04  0.0249
   1.5872E-01   1.6258E-01   4.2673E-04  0.0246
   1.6258E-01   1.6654E-01   4.1013E-04  0.0248
   1.6654E-01   1.7059E-01   4.0412E-04  0.0247
   1.7059E-01   1.7474E-01   3.7499E-04  0.0253
   1.7474E-01   1.7899E-01   3.7442E-04  0.0250
   1.7899E-01   1.8334E-01   3.7913E-04  0.0246
   1.8334E-01   1.8781E-01   3.5676E-04  0.0250
   1.8781E-01   1.9237E-01   3.4216E-04  0.0253
   1.9237E-01   1.9706E-01   3.3451E-04  0.0252
   1.9706E-01   2.0185E-01   3.4349E-04  0.0246
   2.0185E-01   2.0676E-01   3.4179E-04  0.0244
   2.0676E-01   2.1179E-01   3.4890E-04  0.0238
   2.1179E-01   2.1694E-01   3.4653E-04  0.0236
   2.1694E-01   2.2222E-01   3.5180E-04  0.0232
   2.2222E-01   2.2763E-01   3.5905E-04  0.0227
   2.2763E-01   2.3317E-01   3.5273E-04  0.0226
   2.3317E-01   2.3884E-01   3.8820E-04  0.0213
   2.3884E-01   2.4465E-01   3.8281E-04  0.0212
   2.4465E-01   2.5061E-01   3.8820E-04  0.0208
   2.5061E-01   2.5670E-01   4.1114E-04  0.0199
   2.5670E-01   2.6295E-01   4.0941E-04  0.0197
   2.6295E-01   2.6935E-01   3.9877E-04  0.0198
   2.6935E-01   2.7590E-01   4.0487E-04  0.0194
   2.7590E-01   2.8261E-01   4.1869E-04  0.0188
   2.8261E-01   2.8949E-01   4.2355E-04  0.0185
   2.8949E-01   2.9653E-01   4.3569E-04  0.0180
   2.9653E-01   3.0375E-01   4.3411E-04  0.0178
   3.0375E-01   3.1114E-01   4.3483E-04  0.0176
   3.1114E-01   3.1871E-01   4.5037E-04  0.0171
   3.1871E-01   3.2646E-01   4.4443E-04  0.0170
   3.2646E-01   3.3441E-01   4.5003E-04  0.0167
   3.3441E-01   3.4254E-01   4.5787E-04  0.0164
   3.4254E-01   3.5088E-01   4.7611E-04  0.0158
   3.5088E-01   3.5941E-01   4.5856E-04  0.0160
   3.5941E-01   3.6816E-01   4.7836E-04  0.0154
   3.6816E-01   3.7712E-01   4.6484E-04  0.0155
   3.7712E-01   3.8629E-01   4.7759E-04  0.0151
   3.8629E-01   3.9569E-01   4.9137E-04  0.0147
   3.9569E-01   4.0532E-01   4.7708E-04  0.0147
   4.0532E-01   4.1518E-01   4.8853E-04  0.0144
   4.1518E-01   4.2528E-01   4.8282E-04  0.0143
   4.2528E-01   4.3563E-01   4.9418E-04  0.0140
   4.3563E-01   4.4623E-01   4.9620E-04  0.0138
   4.4623E-01   4.5708E-01   4.9082E-04  0.0137
   4.5708E-01   4.6821E-01   4.9829E-04  0.0134
   4.6821E-01   4.7960E-01   5.0199E-04  0.0132
   4.7960E-01   4.9127E-01   4.9709E-04  0.0131
   4.9127E-01   5.0322E-01   5.0076E-04  0.0129
   5.0322E-01   5.1546E-01   4.9925E-04  0.0128
   5.1546E-01   5.2800E-01   5.0286E-04  0.0126
   5.2800E-01   5.4085E-01   5.2625E-04  0.0121
   5.4085E-01   5.5401E-01   5.0150E-04  0.0123
   5.5401E-01   5.6749E-01   5.1818E-04  0.0119
   5.6749E-01   5.8130E-01   4.9980E-04  0.0120
   5.8130E-01   5.9544E-01   5.1244E-04  0.0117
   5.9544E-01   6.0993E-01   5.0443E-04  0.0117
   6.0993E-01   6.2477E-01   5.0425E-04  0.0115
   6.2477E-01   6.3997E-01   5.0832E-04  0.0114
   6.3997E-01   6.5554E-01   5.1587E-04  0.0111
   6.5554E-01   6.7149E-01   4.9786E-04  0.0112
   6.7149E-01   6.8783E-01   5.1468E-04  0.0109
   6.8783E-01   7.0456E-01   4.9985E-04  0.0109
   7.0456E-01   7.2171E-01   5.0420E-04  0.0107
   7.2171E-01   7.3927E-01   5.1120E-04  0.0105
   7.3927E-01   7.5725E-01   4.9869E-04  0.0105
   7.5725E-01   7.7568E-01   4.9719E-04  0.0104
   7.7568E-01   7.9455E-01   4.8351E-04  0.0104
   7.9455E-01   8.1388E-01   4.9529E-04  0.0102
   8.1388E-01   8.3368E-01   4.8839E-04  0.0101
   8.3368E-01   8.5397E-01   4.7813E-04  0.0101
   8.5397E-01   8.7475E-01   4.7414E-04  0.0101
   8.7475E-01   8.9603E-01   4.5810E-04  0.0101
   8.9603E-01   9.1783E-01   4.5559E-04  0.0100
   9.1783E-01   9.4016E-01   4.4771E-04  0.0100
   9.4016E-01   9.6304E-01   4.2758E-04  0.0101
   9.6304E-01   9.8647E-01   4.2376E-04  0.0100
   9.8647E-01   1.0105E+00   4.1042E-04  0.0100
   1.0105E+00   1.0351E+00   3.9545E-04  0.0101
   1.0351E+00   1.0602E+00   3.9127E-04  0.0100
   1.0602E+00   1.0860E+00   3.8300E-04  0.0100
   1.0860E+00   1.1125E+00   3.7684E-04  0.0100
   1.1125E+00   1.1395E+00   3.7426E-04  0.0099
   1.1395E+00   1.1673E+00   3.7044E-04  0.0098
   1.1673E+00   1.1957E+00   3.6282E-04  0.0098
   1.1957E+00   1.2247E+00   3.6066E-04  0.0097
   1.2247E+00   1.2545E+00   3.6230E-04  0.0096
   1.2545E+00   1.2851E+00   3.4879E-04  0.0097
   1.2851E+00   1.3163E+00   3.3953E-04  0.0097
   1.3163E+00   1.3484E+00   3.3547E-04  0.0096
   1.3484E+00   1.3812E+00   3.3193E-04  0.0096
   1.3812E+00   1.4148E+00   3.2137E-04  0.0096
   1.4148E+00   1.4492E+00   3.1898E-04  0.0095
   1.4492E+00   1.4845E+00   3.1250E-04  0.0095
   1.4845E+00   1.5206E+00   3.1313E-04  0.0094
   1.5206E+00   1.5576E+00   3.0369E-04  0.0094
   1.5576E+00   1.5955E+00   2.9148E-04  0.0095
   1.5955E+00   1.6343E+00   2.8868E-04  0.0094
   1.6343E+00   1.6741E+00   2.7621E-04  0.0095
   1.6741E+00   1.7148E+00   2.7456E-04  0.0094
   1.7148E+00   1.7565E+00   2.7050E-04  0.0094
   1.7565E+00   1.7992E+00   2.5843E-04  0.0095
   1.7992E+00   1.8430E+00   2.5312E-04  0.0095
   1.8430E+00   1.8879E+00   2.4274E-04  0.0095
   1.8879E+00   1.9338E+00   2.4294E-04  0.0094
   1.9338E+00   1.9808E+00   2.3691E-04  0.0094
   1.9808E+00   2.0290E+00   2.2866E-04  0.0095
   2.0290E+00   2.0784E+00   2.2432E-04  0.0095
   2.0784E+00   2.1290E+00   2.2163E-04  0.0094
   2.1290E+00   2.1808E+00   2.1512E-04  0.0094
   2.1808E+00   2.2338E+00   2.0835E-04  0.0095
   2.2338E+00   2.2882E+00   2.0702E-04  0.0094
   2.2882E+00   2.3439E+00   1.9650E-04  0.0095
   2.3439E+00   2.4009E+00   1.9661E-04  0.0094
   2.4009E+00   2.4593E+00   1.8800E-04  0.0095
   2.4593E+00   2.5191E+00   1.8456E-04  0.0095
   2.5191E+00   2.5804E+00   1.8017E-04  0.0095
   2.5804E+00   2.6432E+00   1.8019E-04  0.0094
   2.6432E+00   2.7075E+00   1.7356E-04  0.0094
   2.7075E+00   2.7734E+00   1.6534E-04  0.0095
   2.7734E+00   2.8409E+00   1.6330E-04  0.0095
   2.8409E+00   2.9100E+00   1.5937E-04  0.0095
   2.9100E+00   2.9808E+00   1.5874E-04  0.0094
   2.9808E+00   3.0533E+00   1.5325E-04  0.0094
   3.0533E+00   3.1276E+00   1.4881E-04  0.0095
   3.1276E+00   3.2037E+00   1.4630E-04  0.0094
   3.2037E+00   3.2817E+00   1.4178E-04  0.0095
   3.2817E+00   3.3615E+00   1.3827E-04  0.0095
   3.3615E+00   3.4433E+00   1.3479E-04  0.0095
   3.4433E+00   3.5271E+00   1.3005E-04  0.0095
   3.5271E+00   3.6129E+00   1.2609E-04  0.0096
   3.6129E+00   3.7008E+00   1.2505E-04  0.0095
   3.7008E+00   3.7908E+00   1.2323E-04  0.0095
   3.7908E+00   3.8831E+00   1.1850E-04  0.0095
   3.8831E+00   3.9776E+00   1.1225E-04  0.0097
   3.9776E+00   4.0743E+00   1.1268E-04  0.0095
   4.0743E+00   4.1735E+00   1.0820E-04  0.0096
   4.1735E+00   4.2750E+00   1.0409E-04  0.0097
   4.2750E+00   4.3790E+00   1.0061E-04  0.0097
   4.3790E+00   4.4856E+00   9.6960E-05  0.0098
   4.4856E+00   4.5947E+00   9.4699E-05  0.0098
   4.5947E+00   4.7065E+00   9.1469E-05  0.0099
   4.7065E+00   4.8210E+00   8.8020E-05  0.0099
   4.8210E+00   4.9383E+00   8.5031E-05  0.0100
   4.9383E+00   5.0585E+00   8.0558E-05  0.0101
   5.0585E+00   5.1815E+00   7.6804E-05  0.0103
   5.1815E+00   5.3076E+00   7.5047E-05  0.0103
   5.3076E+00   5.4368E+00   7.1079E-05  0.0104
   5.4368E+00   5.5690E+00   6.8261E-05  0.0105
   5.5690E+00   5.7045E+00   6.5730E-05  0.0106
   5.7045E+00   5.8433E+00   6.2942E-05  0.0107
   5.8433E+00   5.9855E+00   5.9441E-05  0.0108
   5.9855E+00   6.1311E+00   5.5400E-05  0.0111
   6.1311E+00   6.2803E+00   5.5062E-05  0.0110
   6.2803E+00   6.4331E+00   5.0573E-05  0.0113
   6.4331E+00   6.5896E+00   4.8735E-05  0.0114
   6.5896E+00   6.7500E+00   4.5559E-05  0.0117
   6.7500E+00   6.9142E+00   4.3867E-05  0.0117
   6.9142E+00   7.0824E+00   4.0877E-05  0.0120
   7.0824E+00   7.2548E+00   3.8027E-05  0.0123
   7.2548E+00   7.4313E+00   3.5473E-05  0.0126
   7.4313E+00   7.6121E+00   3.3019E-05  0.0129
   7.6121E+00   7.7973E+00   3.1244E-05  0.0131
   7.7973E+00   7.9870E+00   2.9465E-05  0.0133
   7.9870E+00   8.1813E+00   2.7977E-05  0.0135
   8.1813E+00   8.3804E+00   2.6100E-05  0.0138
   8.3804E+00   8.5843E+00   2.4637E-05  0.0141
   8.5843E+00   8.7931E+00   2.2877E-05  0.0144
   8.7931E+00   9.0071E+00   2.1636E-05  0.0147
   9.0071E+00   9.2262E+00   2.0329E-05  0.0150
   9.2262E+00   9.4507E+00   1.9090E-05  0.0152
   9.4507E+00   9.6807E+00   1.7833E-05  0.0156
   9.6807E+00   9.9162E+00   1.6897E-05  0.0158
   9.9162E+00   1.0157E+01   1.5567E-05  0.0163
   1.0157E+01   1.0405E+01   1.4845E-05  0.0165
   1.0405E+01   1.0658E+01   1.4747E-05  0.0163
   1.0658E+01   1.0917E+01   1.4750E-05  0.0162
   1.0917E+01   1.1183E+01   1.3340E-05  0.0168
   1.1183E+01   1.1455E+01   1.3433E-05  0.0165
   1.1455E+01   1.1733E+01   1.2187E-05  0.0171
   1.1733E+01   1.2019E+01   1.1159E-05  0.0177
   1.2019E+01   1.2311E+01   1.0063E-05  0.0184
   1.2311E+01   1.2611E+01   9.5981E-06  0.0186
   1.2611E+01   1.2918E+01   8.6110E-06  0.0194
   1.2918E+01   1.3232E+01   8.2011E-06  0.0197
   1.3232E+01   1.3554E+01   7.6233E-06  0.0202
   1.3554E+01   1.3884E+01   7.2041E-06  0.0205
   1.3884E+01   1.4222E+01   6.8877E-06  0.0207
   1.4222E+01   1.4568E+01   6.4103E-06  0.0212
   1.4568E+01   1.4922E+01   5.7452E-06  0.0221
   1.4922E+01   1.5285E+01   4.9512E-06  0.0236
   1.5285E+01   1.5657E+01   4.5255E-06  0.0244
   1.5657E+01   1.6038E+01   4.0562E-06  0.0254
   1.6038E+01   1.6428E+01   3.8071E-06  0.0259
   1.6428E+01   1.6828E+01   3.4403E-06  0.0270
   1.6828E+01   1.7237E+01   3.0317E-06  0.0284
   1.7237E+01   1.7657E+01   2.9470E-06  0.0284
   1.7657E+01   1.8086E+01   2.4794E-06  0.0306
   1.8086E+01   1.8526E+01   2.3781E-06  0.0309
   1.8526E+01   1.8977E+01   2.1441E-06  0.0322
   1.8977E+01   1.9439E+01   1.8434E-06  0.0343
   1.9439E+01   1.9912E+01   1.6259E-06  0.0361
   1.9912E+01   2.0396E+01   1.5295E-06  0.0367
   2.0396E+01   2.0893E+01   1.3038E-06  0.0393
   2.0893E+01   2.1401E+01   1.1272E-06  0.0418
   2.1401E+01   2.1922E+01   1.0505E-06  0.0428
   2.1922E+01   2.2455E+01   9.8618E-07  0.0436
   2.2455E+01   2.3001E+01   8.5111E-07  0.0464
   2.3001E+01   2.3561E+01   8.0409E-07  0.0471
   2.3561E+01   2.4134E+01   7.0126E-07  0.0499
   2.4134E+01   2.4721E+01   5.8583E-07  0.0539
   2.4721E+01   2.5323E+01   5.9851E-07  0.0527
   2.5323E+01   2.5939E+01   4.9178E-07  0.0574
   2.5939E+01   2.6570E+01   4.3732E-07  0.0602
   2.6570E+01   2.7217E+01   3.9599E-07  0.0625
   2.7217E+01   2.7879E+01   3.7451E-07  0.0635
   2.7879E+01   2.8557E+01   2.7421E-07  0.0733
   2.8557E+01   2.9252E+01   2.7777E-07  0.0720
   2.9252E+01   2.9964E+01   2.2200E-07  0.0796
   2.9964E+01   3.0693E+01   1.4265E-07  0.0981
   3.0693E+01   3.1440E+01   1.9015E-07  0.0839
   3.1440E+01   3.2205E+01   1.3988E-07  0.0967
   3.2205E+01   3.2988E+01   1.3783E-07  0.0962
   3.2988E+01   3.3791E+01   1.3580E-07  0.0958
   3.3791E+01   3.4613E+01   1.0095E-07  0.1098
   3.4613E+01   3.5455E+01   7.9558E-08  0.1222
   3.5455E+01   3.6318E+01   6.1439E-08  0.1374
   3.6318E+01   3.7201E+01   5.4321E-08  0.1443
   3.7201E+01   3.8106E+01   6.4079E-08  0.1313
   3.8106E+01   3.9034E+01   4.3143E-08  0.1581
   3.9034E+01   3.9983E+01   3.5800E-08  0.1715
   3.9983E+01   4.0956E+01   2.5698E-08  0.2000
   4.0956E+01   4.1953E+01   2.0070E-08  0.2236
   4.1953E+01   4.2973E+01   2.3512E-08  0.2041
   4.2973E+01   4.4019E+01   1.7215E-08  0.2357
   4.4019E+01   4.5090E+01   1.1204E-08  0.2887
   4.5090E+01   4.6187E+01   6.3806E-09  0.3780
   4.6187E+01   4.7311E+01   7.1189E-09  0.3536
   4.7311E+01   4.8462E+01   3.4749E-09  0.5000
   4.8462E+01   4.9641E+01   0.0000E+00  0.0000
   4.9641E+01   5.0849E+01   1.6559E-09  0.7071
   5.0849E+01   5.2086E+01   0.0000E+00  0.0000
   5.2086E+01   5.3353E+01   0.0000E+00  0.0000
   5.3353E+01   5.4651E+01   0.0000E+00  0.0000
   5.4651E+01   5.5981E+01   7.5204E-10  1.0000
   5.5981E+01   5.7343E+01   7.3418E-10  1.0000
   5.7343E+01   5.8738E+01   0.0000E+00  0.0000
   5.8738E+01   6.0168E+01   0.0000E+00  0.0000
   6.0168E+01   6.1632E+01   0.0000E+00  0.0000
   6.1632E+01   6.3131E+01   0.0000E+00  0.0000
   6.3131E+01   6.4667E+01   0.0000E+00  0.0000
   6.4667E+01   6.6240E+01   0.0000E+00  0.0000
   6.6240E+01   6.7852E+01   0.0000E+00  0.0000
   6.7852E+01   6.9503E+01   0.0000E+00  0.0000
   6.9503E+01   7.1194E+01   0.0000E+00  0.0000
   7.1194E+01   7.2926E+01   0.0000E+00  0.0000
   7.2926E+01   7.4701E+01   0.0000E+00  0.0000
   7.4701E+01   7.6518E+01   0.0000E+00  0.0000
   7.6518E+01   7.8380E+01   0.0000E+00  0.0000
   7.8380E+01   8.0287E+01   0.0000E+00  0.0000
   8.0287E+01   8.2240E+01   0.0000E+00  0.0000
   8.2240E+01   8.4241E+01   0.0000E+00  0.0000
   8.4241E+01   8.6291E+01   0.0000E+00  0.0000
   8.6291E+01   8.8391E+01   0.0000E+00  0.0000
   8.8391E+01   9.0541E+01   0.0000E+00  0.0000
   9.0541E+01   9.2744E+01   0.0000E+00  0.0000
   9.2744E+01   9.5001E+01   0.0000E+00  0.0000
   9.5001E+01   9.7312E+01   0.0000E+00  0.0000
   9.7312E+01   9.9680E+01   0.0000E+00  0.0000
   9.9680E+01   1.0211E+02   0.0000E+00  0.0000
   1.0211E+02   1.0459E+02   0.0000E+00  0.0000
   1.0459E+02   1.0713E+02   0.0000E+00  0.0000
   1.0713E+02   1.0974E+02   0.0000E+00  0.0000
   1.0974E+02   1.1241E+02   0.0000E+00  0.0000
   1.1241E+02   1.1515E+02   0.0000E+00  0.0000
   1.1515E+02   1.1795E+02   0.0000E+00  0.0000
   1.1795E+02   1.2082E+02   0.0000E+00  0.0000
   1.2082E+02   1.2376E+02   0.0000E+00  0.0000
   1.2376E+02   1.2677E+02   0.0000E+00  0.0000
   1.2677E+02   1.2985E+02   0.0000E+00  0.0000
   1.2985E+02   1.3301E+02   0.0000E+00  0.0000
   1.3301E+02   1.3625E+02   0.0000E+00  0.0000
   1.3625E+02   1.3956E+02   0.0000E+00  0.0000
   1.3956E+02   1.4296E+02   0.0000E+00  0.0000
   1.4296E+02   1.4644E+02   0.0000E+00  0.0000
   1.4644E+02   1.5000E+02   0.0000E+00  0.0000

#   sum over                 1.0075E-05
'no. =    1   reg = 119 - 219'
msuc: {\huge [t-cross] in region mesh}
msdr: {\it plotted by \ANGEL \version}
msdl: {\it calculated by \PHITS  3.26}
wt: s(0.7)
\vspace{-3}
  region surface crossing
  area  &=&   1.0000E+00 [cm^2]
e:
 
# Information for Restart Calculation
# This calculation was newly started
# istdev =  2 # 1:Batch variance, 2:History variance
# resc2  = 1.00000000000000000E+09 # Total source weight or Total source weight / maxcas
# resc3  = 1.00000000000000000E+09 # Total history number or Total batch number
# maxcas =   500000000 # History / Batch, only used for istdev=1
# bitrseed = 0001001110011001001001110000100100110111001111011100001000101100 # bit data of rseed
