[ T-Cross ]
    title = [t-cross] in region mesh
     mesh =  reg            # mesh type is region-wise
      reg =    1            # number of crossing regions
      non     r-from    r-to       area
      1       117       217        1.000000    
   e-type =    3            # e-mesh is log given by emin, emax and ne
     emin =  1.0000000E-02  # minimum value of e-mesh points
     emax =   150.0000      # maximum value of e-mesh points
#    edel =  2.4039514E-02  # mesh width of e-mesh points
       ne =    400          # number of e-mesh points
#    data = ( e(i), i = 1, ne + 1 )
#           1.00000E-02  1.02433E-02  1.04925E-02  1.07478E-02  1.10093E-02
#           1.12772E-02  1.15516E-02  1.18326E-02  1.21205E-02  1.24154E-02
#           1.27175E-02  1.30269E-02  1.33439E-02  1.36686E-02  1.40011E-02
#           1.43418E-02  1.46907E-02  1.50482E-02  1.54143E-02  1.57894E-02
#           1.61735E-02  1.65670E-02  1.69701E-02  1.73830E-02  1.78060E-02
#           1.82392E-02  1.86830E-02  1.91375E-02  1.96032E-02  2.00801E-02
#           2.05687E-02  2.10692E-02  2.15818E-02  2.21069E-02  2.26448E-02
#           2.31957E-02  2.37601E-02  2.43382E-02  2.49304E-02  2.55369E-02
#           2.61583E-02  2.67947E-02  2.74467E-02  2.81145E-02  2.87985E-02
#           2.94992E-02  3.02169E-02  3.09521E-02  3.17052E-02  3.24766E-02
#           3.32668E-02  3.40762E-02  3.49053E-02  3.57546E-02  3.66246E-02
#           3.75157E-02  3.84284E-02  3.93634E-02  4.03212E-02  4.13022E-02
#           4.23071E-02  4.33365E-02  4.43909E-02  4.54710E-02  4.65773E-02
#           4.77106E-02  4.88714E-02  5.00605E-02  5.12785E-02  5.25262E-02
#           5.38042E-02  5.51133E-02  5.64542E-02  5.78278E-02  5.92348E-02
#           6.06760E-02  6.21523E-02  6.36645E-02  6.52135E-02  6.68002E-02
#           6.84255E-02  7.00904E-02  7.17957E-02  7.35426E-02  7.53319E-02
#           7.71648E-02  7.90423E-02  8.09655E-02  8.29354E-02  8.49533E-02
#           8.70203E-02  8.91376E-02  9.13064E-02  9.35279E-02  9.58035E-02
#           9.81345E-02  1.00522E-01  1.02968E-01  1.05473E-01  1.08040E-01
#           1.10668E-01  1.13361E-01  1.16119E-01  1.18944E-01  1.21838E-01
#           1.24803E-01  1.27839E-01  1.30950E-01  1.34136E-01  1.37399E-01
#           1.40742E-01  1.44167E-01  1.47675E-01  1.51268E-01  1.54948E-01
#           1.58718E-01  1.62580E-01  1.66535E-01  1.70587E-01  1.74738E-01
#           1.78989E-01  1.83344E-01  1.87805E-01  1.92375E-01  1.97055E-01
#           2.01850E-01  2.06761E-01  2.11792E-01  2.16945E-01  2.22223E-01
#           2.27630E-01  2.33169E-01  2.38842E-01  2.44653E-01  2.50605E-01
#           2.56703E-01  2.62949E-01  2.69346E-01  2.75900E-01  2.82613E-01
#           2.89489E-01  2.96532E-01  3.03747E-01  3.11138E-01  3.18708E-01
#           3.26462E-01  3.34405E-01  3.42542E-01  3.50876E-01  3.59413E-01
#           3.68158E-01  3.77116E-01  3.86291E-01  3.95690E-01  4.05317E-01
#           4.15179E-01  4.25281E-01  4.35628E-01  4.46227E-01  4.57084E-01
#           4.68205E-01  4.79597E-01  4.91266E-01  5.03219E-01  5.15463E-01
#           5.28005E-01  5.40851E-01  5.54011E-01  5.67490E-01  5.81298E-01
#           5.95441E-01  6.09929E-01  6.24769E-01  6.39970E-01  6.55541E-01
#           6.71491E-01  6.87828E-01  7.04564E-01  7.21706E-01  7.39266E-01
#           7.57253E-01  7.75678E-01  7.94551E-01  8.13883E-01  8.33685E-01
#           8.53969E-01  8.74747E-01  8.96030E-01  9.17831E-01  9.40163E-01
#           9.63038E-01  9.86469E-01  1.01047E+00  1.03506E+00  1.06024E+00
#           1.08604E+00  1.11246E+00  1.13953E+00  1.16725E+00  1.19565E+00
#           1.22474E+00  1.25454E+00  1.28507E+00  1.31633E+00  1.34836E+00
#           1.38117E+00  1.41477E+00  1.44920E+00  1.48446E+00  1.52057E+00
#           1.55757E+00  1.59547E+00  1.63429E+00  1.67405E+00  1.71478E+00
#           1.75650E+00  1.79924E+00  1.84302E+00  1.88786E+00  1.93379E+00
#           1.98084E+00  2.02904E+00  2.07841E+00  2.12898E+00  2.18078E+00
#           2.23384E+00  2.28819E+00  2.34386E+00  2.40089E+00  2.45930E+00
#           2.51914E+00  2.58043E+00  2.64322E+00  2.70753E+00  2.77341E+00
#           2.84088E+00  2.91001E+00  2.98081E+00  3.05333E+00  3.12762E+00
#           3.20372E+00  3.28167E+00  3.36152E+00  3.44330E+00  3.52708E+00
#           3.61290E+00  3.70080E+00  3.79085E+00  3.88308E+00  3.97756E+00
#           4.07434E+00  4.17347E+00  4.27501E+00  4.37903E+00  4.48557E+00
#           4.59471E+00  4.70650E+00  4.82102E+00  4.93832E+00  5.05847E+00
#           5.18155E+00  5.30762E+00  5.43676E+00  5.56904E+00  5.70453E+00
#           5.84333E+00  5.98550E+00  6.13114E+00  6.28031E+00  6.43312E+00
#           6.58964E+00  6.74997E+00  6.91420E+00  7.08243E+00  7.25475E+00
#           7.43126E+00  7.61207E+00  7.79728E+00  7.98700E+00  8.18133E+00
#           8.38038E+00  8.58428E+00  8.79315E+00  9.00709E+00  9.22624E+00
#           9.45072E+00  9.68067E+00  9.91620E+00  1.01575E+01  1.04046E+01
#           1.06578E+01  1.09171E+01  1.11827E+01  1.14548E+01  1.17335E+01
#           1.20190E+01  1.23114E+01  1.26109E+01  1.29178E+01  1.32321E+01
#           1.35540E+01  1.38838E+01  1.42216E+01  1.45676E+01  1.49221E+01
#           1.52851E+01  1.56570E+01  1.60380E+01  1.64282E+01  1.68279E+01
#           1.72374E+01  1.76568E+01  1.80864E+01  1.85264E+01  1.89772E+01
#           1.94389E+01  1.99119E+01  2.03963E+01  2.08926E+01  2.14009E+01
#           2.19216E+01  2.24550E+01  2.30014E+01  2.35610E+01  2.41343E+01
#           2.47215E+01  2.53230E+01  2.59391E+01  2.65702E+01  2.72167E+01
#           2.78789E+01  2.85572E+01  2.92520E+01  2.99637E+01  3.06928E+01
#           3.14396E+01  3.22045E+01  3.29881E+01  3.37907E+01  3.46128E+01
#           3.54550E+01  3.63177E+01  3.72013E+01  3.81064E+01  3.90336E+01
#           3.99833E+01  4.09561E+01  4.19526E+01  4.29734E+01  4.40189E+01
#           4.50900E+01  4.61870E+01  4.73108E+01  4.84619E+01  4.96410E+01
#           5.08488E+01  5.20860E+01  5.33533E+01  5.46514E+01  5.59812E+01
#           5.73432E+01  5.87384E+01  6.01676E+01  6.16315E+01  6.31311E+01
#           6.46671E+01  6.62405E+01  6.78522E+01  6.95031E+01  7.11941E+01
#           7.29263E+01  7.47007E+01  7.65182E+01  7.83800E+01  8.02870E+01
#           8.22405E+01  8.42414E+01  8.62911E+01  8.83906E+01  9.05412E+01
#           9.27442E+01  9.50007E+01  9.73122E+01  9.96799E+01  1.02105E+02
#           1.04589E+02  1.07134E+02  1.09741E+02  1.12411E+02  1.15146E+02
#           1.17948E+02  1.20817E+02  1.23757E+02  1.26768E+02  1.29852E+02
#           1.33012E+02  1.36248E+02  1.39563E+02  1.42959E+02  1.46437E+02
#           1.50000E+02
     unit =    2            # unit is [1/cm^2/(MeV/n)/source]
     axis =  eng            # axis of output
     file = detector-18.out  # file name of output for the above axis
   output = f-curr          # surface crossing forward current spectrum
     part =  neutron  
# kf/name :  2112     
#    used :        main (  %)        temp (  %)       total (  %)
#  memory :         414 (  0)           0 (  0)         414 (  0)

#------------------------------------------------------------------------------
#newpage:
#   no. =    1   reg = 117 - 217

x: Energy [MeV/n]
y:  F-Curr [1/cm^2/(MeV/n)/source]         
p: xlog ylog afac(0.8) form(0.9)
h: n            x            y(neutron ),hh0l   n 
#  e-lower      e-upper      neutron     r.err 
   1.0000E-02   1.0243E-02   8.9187E-04  0.0679
   1.0243E-02   1.0493E-02   9.2285E-04  0.0659
   1.0493E-02   1.0748E-02   8.4609E-04  0.0680
   1.0748E-02   1.1009E-02   1.0210E-03  0.0612
   1.1009E-02   1.1277E-02   9.2957E-04  0.0634
   1.1277E-02   1.1552E-02   8.8927E-04  0.0640
   1.1552E-02   1.1833E-02   9.2507E-04  0.0620
   1.1833E-02   1.2121E-02   9.8299E-04  0.0594
   1.2121E-02   1.2415E-02   8.7148E-04  0.0624
   1.2415E-02   1.2718E-02   9.4678E-04  0.0591
   1.2718E-02   1.3027E-02   8.8228E-04  0.0605
   1.3027E-02   1.3344E-02   9.6859E-04  0.0571
   1.3344E-02   1.3669E-02   9.2402E-04  0.0577
   1.3669E-02   1.4001E-02   9.8627E-04  0.0552
   1.4001E-02   1.4342E-02   9.5110E-04  0.0556
   1.4342E-02   1.4691E-02   9.3997E-04  0.0552
   1.4691E-02   1.5048E-02   9.4842E-04  0.0543
   1.5048E-02   1.5414E-02   1.0870E-03  0.0501
   1.5414E-02   1.5789E-02   9.3856E-04  0.0533
   1.5789E-02   1.6174E-02   9.3189E-04  0.0529
   1.6174E-02   1.6567E-02   1.0063E-03  0.0503
   1.6567E-02   1.6970E-02   1.0544E-03  0.0485
   1.6970E-02   1.7383E-02   9.7845E-04  0.0498
   1.7383E-02   1.7806E-02   9.9777E-04  0.0487
   1.7806E-02   1.8239E-02   1.0156E-03  0.0477
   1.8239E-02   1.8683E-02   9.9600E-04  0.0476
   1.8683E-02   1.9138E-02   1.0207E-03  0.0464
   1.9138E-02   1.9603E-02   9.6213E-04  0.0472
   1.9603E-02   2.0080E-02   1.0210E-03  0.0453
   2.0080E-02   2.0569E-02   1.0070E-03  0.0451
   2.0569E-02   2.1069E-02   1.0391E-03  0.0439
   2.1069E-02   2.1582E-02   1.0553E-03  0.0430
   2.1582E-02   2.2107E-02   1.0417E-03  0.0428
   2.2107E-02   2.2645E-02   9.8721E-04  0.0434
   2.2645E-02   2.3196E-02   1.0218E-03  0.0421
   2.3196E-02   2.3760E-02   1.0419E-03  0.0412
   2.3760E-02   2.4338E-02   1.0880E-03  0.0399
   2.4338E-02   2.4930E-02   9.5919E-04  0.0420
   2.4930E-02   2.5537E-02   1.1013E-03  0.0387
   2.5537E-02   2.6158E-02   1.0671E-03  0.0388
   2.6158E-02   2.6795E-02   1.1148E-03  0.0375
   2.6795E-02   2.7447E-02   1.0676E-03  0.0379
   2.7447E-02   2.8114E-02   1.1021E-03  0.0369
   2.8114E-02   2.8799E-02   1.1183E-03  0.0362
   2.8799E-02   2.9499E-02   1.0147E-03  0.0375
   2.9499E-02   3.0217E-02   1.0617E-03  0.0362
   3.0217E-02   3.0952E-02   1.1031E-03  0.0351
   3.0952E-02   3.1705E-02   1.0849E-03  0.0350
   3.1705E-02   3.2477E-02   1.1174E-03  0.0341
   3.2477E-02   3.3267E-02   1.1213E-03  0.0336
   3.3267E-02   3.4076E-02   1.1663E-03  0.0325
   3.4076E-02   3.4905E-02   1.0698E-03  0.0336
   3.4905E-02   3.5755E-02   1.0468E-03  0.0335
   3.5755E-02   3.6625E-02   1.1484E-03  0.0316
   3.6625E-02   3.7516E-02   1.0975E-03  0.0320
   3.7516E-02   3.8428E-02   1.0988E-03  0.0316
   3.8428E-02   3.9363E-02   1.1070E-03  0.0311
   3.9363E-02   4.0321E-02   1.1318E-03  0.0304
   4.0321E-02   4.1302E-02   1.1141E-03  0.0302
   4.1302E-02   4.2307E-02   1.1493E-03  0.0294
   4.2307E-02   4.3337E-02   1.1765E-03  0.0287
   4.3337E-02   4.4391E-02   1.1855E-03  0.0283
   4.4391E-02   4.5471E-02   1.1286E-03  0.0286
   4.5471E-02   4.6577E-02   1.1443E-03  0.0281
   4.6577E-02   4.7711E-02   1.1211E-03  0.0281
   4.7711E-02   4.8871E-02   1.1810E-03  0.0270
   4.8871E-02   5.0061E-02   1.2405E-03  0.0260
   5.0061E-02   5.1279E-02   1.2020E-03  0.0261
   5.1279E-02   5.2526E-02   1.1814E-03  0.0260
   5.2526E-02   5.3804E-02   1.2019E-03  0.0255
   5.3804E-02   5.5113E-02   1.2276E-03  0.0249
   5.5113E-02   5.6454E-02   1.2297E-03  0.0246
   5.6454E-02   5.7828E-02   1.1991E-03  0.0246
   5.7828E-02   5.9235E-02   1.2409E-03  0.0239
   5.9235E-02   6.0676E-02   1.2299E-03  0.0238
   6.0676E-02   6.2152E-02   1.2206E-03  0.0236
   6.2152E-02   6.3665E-02   1.2412E-03  0.0231
   6.3665E-02   6.5214E-02   1.2899E-03  0.0224
   6.5214E-02   6.6800E-02   1.2605E-03  0.0224
   6.6800E-02   6.8426E-02   1.2592E-03  0.0221
   6.8426E-02   7.0090E-02   1.2572E-03  0.0219
   7.0090E-02   7.1796E-02   1.2842E-03  0.0214
   7.1796E-02   7.3543E-02   1.2377E-03  0.0215
   7.3543E-02   7.5332E-02   1.3195E-03  0.0206
   7.5332E-02   7.7165E-02   1.3050E-03  0.0204
   7.7165E-02   7.9042E-02   1.3294E-03  0.0200
   7.9042E-02   8.0965E-02   1.3114E-03  0.0199
   8.0965E-02   8.2935E-02   1.2579E-03  0.0201
   8.2935E-02   8.4953E-02   1.3182E-03  0.0194
   8.4953E-02   8.7020E-02   1.3464E-03  0.0190
   8.7020E-02   8.9138E-02   1.3314E-03  0.0188
   8.9138E-02   9.1306E-02   1.3692E-03  0.0184
   9.1306E-02   9.3528E-02   1.3283E-03  0.0184
   9.3528E-02   9.5804E-02   1.3429E-03  0.0181
   9.5804E-02   9.8134E-02   1.3904E-03  0.0176
   9.8134E-02   1.0052E-01   1.3695E-03  0.0175
   1.0052E-01   1.0297E-01   1.4306E-03  0.0169
   1.0297E-01   1.0547E-01   1.3938E-03  0.0169
   1.0547E-01   1.0804E-01   1.3471E-03  0.0170
   1.0804E-01   1.1067E-01   1.3651E-03  0.0167
   1.1067E-01   1.1336E-01   1.3964E-03  0.0163
   1.1336E-01   1.1612E-01   1.4303E-03  0.0159
   1.1612E-01   1.1894E-01   1.4016E-03  0.0159
   1.1894E-01   1.2184E-01   1.4404E-03  0.0155
   1.2184E-01   1.2480E-01   1.4365E-03  0.0153
   1.2480E-01   1.2784E-01   1.4309E-03  0.0152
   1.2784E-01   1.3095E-01   1.4400E-03  0.0149
   1.3095E-01   1.3414E-01   1.4469E-03  0.0147
   1.3414E-01   1.3740E-01   1.4616E-03  0.0145
   1.3740E-01   1.4074E-01   1.4609E-03  0.0143
   1.4074E-01   1.4417E-01   1.4893E-03  0.0140
   1.4417E-01   1.4767E-01   1.5044E-03  0.0138
   1.4767E-01   1.5127E-01   1.4802E-03  0.0137
   1.5127E-01   1.5495E-01   1.4923E-03  0.0135
   1.5495E-01   1.5872E-01   1.5294E-03  0.0132
   1.5872E-01   1.6258E-01   1.5136E-03  0.0131
   1.6258E-01   1.6654E-01   1.4857E-03  0.0130
   1.6654E-01   1.7059E-01   1.5005E-03  0.0128
   1.7059E-01   1.7474E-01   1.5627E-03  0.0124
   1.7474E-01   1.7899E-01   1.5311E-03  0.0124
   1.7899E-01   1.8334E-01   1.5529E-03  0.0122
   1.8334E-01   1.8781E-01   1.5822E-03  0.0119
   1.8781E-01   1.9237E-01   1.5634E-03  0.0118
   1.9237E-01   1.9706E-01   1.5850E-03  0.0116
   1.9706E-01   2.0185E-01   1.5912E-03  0.0114
   2.0185E-01   2.0676E-01   1.6125E-03  0.0112
   2.0676E-01   2.1179E-01   1.5791E-03  0.0112
   2.1179E-01   2.1694E-01   1.5905E-03  0.0110
   2.1694E-01   2.2222E-01   1.6164E-03  0.0108
   2.2222E-01   2.2763E-01   1.5917E-03  0.0108
   2.2763E-01   2.3317E-01   1.5866E-03  0.0107
   2.3317E-01   2.3884E-01   1.5966E-03  0.0105
   2.3884E-01   2.4465E-01   1.6468E-03  0.0102
   2.4465E-01   2.5061E-01   1.6633E-03  0.0101
   2.5061E-01   2.5670E-01   1.6643E-03  0.0099
   2.5670E-01   2.6295E-01   1.6587E-03  0.0098
   2.6295E-01   2.6935E-01   1.6638E-03  0.0097
   2.6935E-01   2.7590E-01   1.6803E-03  0.0095
   2.7590E-01   2.8261E-01   1.6958E-03  0.0094
   2.8261E-01   2.8949E-01   1.6918E-03  0.0093
   2.8949E-01   2.9653E-01   1.7158E-03  0.0091
   2.9653E-01   3.0375E-01   1.7108E-03  0.0090
   3.0375E-01   3.1114E-01   1.7270E-03  0.0089
   3.1114E-01   3.1871E-01   1.6996E-03  0.0088
   3.1871E-01   3.2646E-01   1.7246E-03  0.0086
   3.2646E-01   3.3441E-01   1.7070E-03  0.0086
   3.3441E-01   3.4254E-01   1.7304E-03  0.0084
   3.4254E-01   3.5088E-01   1.7379E-03  0.0083
   3.5088E-01   3.5941E-01   1.7611E-03  0.0082
   3.5941E-01   3.6816E-01   1.7329E-03  0.0081
   3.6816E-01   3.7712E-01   1.7359E-03  0.0080
   3.7712E-01   3.8629E-01   1.7336E-03  0.0079
   3.8629E-01   3.9569E-01   1.7352E-03  0.0078
   3.9569E-01   4.0532E-01   1.7351E-03  0.0077
   4.0532E-01   4.1518E-01   1.7580E-03  0.0076
   4.1518E-01   4.2528E-01   1.7508E-03  0.0075
   4.2528E-01   4.3563E-01   1.7362E-03  0.0075
   4.3563E-01   4.4623E-01   1.7372E-03  0.0074
   4.4623E-01   4.5708E-01   1.7445E-03  0.0073
   4.5708E-01   4.6821E-01   1.7534E-03  0.0072
   4.6821E-01   4.7960E-01   1.7237E-03  0.0071
   4.7960E-01   4.9127E-01   1.7062E-03  0.0071
   4.9127E-01   5.0322E-01   1.7221E-03  0.0070
   5.0322E-01   5.1546E-01   1.7120E-03  0.0069
   5.1546E-01   5.2800E-01   1.7284E-03  0.0068
   5.2800E-01   5.4085E-01   1.7210E-03  0.0067
   5.4085E-01   5.5401E-01   1.7042E-03  0.0067
   5.5401E-01   5.6749E-01   1.6913E-03  0.0066
   5.6749E-01   5.8130E-01   1.6730E-03  0.0066
   5.8130E-01   5.9544E-01   1.6753E-03  0.0065
   5.9544E-01   6.0993E-01   1.6783E-03  0.0064
   6.0993E-01   6.2477E-01   1.6455E-03  0.0064
   6.2477E-01   6.3997E-01   1.6389E-03  0.0063
   6.3997E-01   6.5554E-01   1.6140E-03  0.0063
   6.5554E-01   6.7149E-01   1.5938E-03  0.0063
   6.7149E-01   6.8783E-01   1.5920E-03  0.0062
   6.8783E-01   7.0456E-01   1.5434E-03  0.0062
   7.0456E-01   7.2171E-01   1.5198E-03  0.0062
   7.2171E-01   7.3927E-01   1.5260E-03  0.0061
   7.3927E-01   7.5725E-01   1.4886E-03  0.0061
   7.5725E-01   7.7568E-01   1.4556E-03  0.0061
   7.7568E-01   7.9455E-01   1.4222E-03  0.0061
   7.9455E-01   8.1388E-01   1.3819E-03  0.0061
   8.1388E-01   8.3368E-01   1.3642E-03  0.0061
   8.3368E-01   8.5397E-01   1.3118E-03  0.0061
   8.5397E-01   8.7475E-01   1.2916E-03  0.0061
   8.7475E-01   8.9603E-01   1.2555E-03  0.0061
   8.9603E-01   9.1783E-01   1.2228E-03  0.0061
   9.1783E-01   9.4016E-01   1.1707E-03  0.0062
   9.4016E-01   9.6304E-01   1.1221E-03  0.0062
   9.6304E-01   9.8647E-01   1.0896E-03  0.0063
   9.8647E-01   1.0105E+00   1.0417E-03  0.0063
   1.0105E+00   1.0351E+00   1.0275E-03  0.0063
   1.0351E+00   1.0602E+00   1.0410E-03  0.0062
   1.0602E+00   1.0860E+00   1.0457E-03  0.0061
   1.0860E+00   1.1125E+00   1.0435E-03  0.0060
   1.1125E+00   1.1395E+00   1.0572E-03  0.0059
   1.1395E+00   1.1673E+00   1.0762E-03  0.0058
   1.1673E+00   1.1957E+00   1.0983E-03  0.0057
   1.1957E+00   1.2247E+00   1.1065E-03  0.0056
   1.2247E+00   1.2545E+00   1.1108E-03  0.0055
   1.2545E+00   1.2851E+00   1.1034E-03  0.0055
   1.2851E+00   1.3163E+00   1.1013E-03  0.0054
   1.3163E+00   1.3484E+00   1.1109E-03  0.0053
   1.3484E+00   1.3812E+00   1.1241E-03  0.0052
   1.3812E+00   1.4148E+00   1.1455E-03  0.0051
   1.4148E+00   1.4492E+00   1.1241E-03  0.0051
   1.4492E+00   1.4845E+00   1.1082E-03  0.0051
   1.4845E+00   1.5206E+00   1.1126E-03  0.0050
   1.5206E+00   1.5576E+00   1.1045E-03  0.0049
   1.5576E+00   1.5955E+00   1.0983E-03  0.0049
   1.5955E+00   1.6343E+00   1.0936E-03  0.0049
   1.6343E+00   1.6741E+00   1.0944E-03  0.0048
   1.6741E+00   1.7148E+00   1.0960E-03  0.0047
   1.7148E+00   1.7565E+00   1.0872E-03  0.0047
   1.7565E+00   1.7992E+00   1.0848E-03  0.0046
   1.7992E+00   1.8430E+00   1.0617E-03  0.0046
   1.8430E+00   1.8879E+00   1.0619E-03  0.0046
   1.8879E+00   1.9338E+00   1.0421E-03  0.0046
   1.9338E+00   1.9808E+00   1.0433E-03  0.0045
   1.9808E+00   2.0290E+00   1.0380E-03  0.0045
   2.0290E+00   2.0784E+00   1.0296E-03  0.0044
   2.0784E+00   2.1290E+00   1.0016E-03  0.0044
   2.1290E+00   2.1808E+00   9.8559E-04  0.0044
   2.1808E+00   2.2338E+00   9.6952E-04  0.0044
   2.2338E+00   2.2882E+00   9.5839E-04  0.0044
   2.2882E+00   2.3439E+00   9.4057E-04  0.0044
   2.3439E+00   2.4009E+00   9.3378E-04  0.0043
   2.4009E+00   2.4593E+00   9.1841E-04  0.0043
   2.4593E+00   2.5191E+00   8.9974E-04  0.0043
   2.5191E+00   2.5804E+00   8.8514E-04  0.0043
   2.5804E+00   2.6432E+00   8.5517E-04  0.0043
   2.6432E+00   2.7075E+00   8.3473E-04  0.0043
   2.7075E+00   2.7734E+00   8.2126E-04  0.0043
   2.7734E+00   2.8409E+00   7.9431E-04  0.0043
   2.8409E+00   2.9100E+00   7.7338E-04  0.0043
   2.9100E+00   2.9808E+00   7.5904E-04  0.0043
   2.9808E+00   3.0533E+00   7.3801E-04  0.0043
   3.0533E+00   3.1276E+00   7.2086E-04  0.0043
   3.1276E+00   3.2037E+00   6.9195E-04  0.0044
   3.2037E+00   3.2817E+00   6.7011E-04  0.0044
   3.2817E+00   3.3615E+00   6.4657E-04  0.0044
   3.3615E+00   3.4433E+00   6.1618E-04  0.0045
   3.4433E+00   3.5271E+00   5.9782E-04  0.0045
   3.5271E+00   3.6129E+00   5.7840E-04  0.0045
   3.6129E+00   3.7008E+00   5.5678E-04  0.0045
   3.7008E+00   3.7908E+00   5.3094E-04  0.0046
   3.7908E+00   3.8831E+00   5.0479E-04  0.0046
   3.8831E+00   3.9776E+00   4.8542E-04  0.0047
   3.9776E+00   4.0743E+00   4.6438E-04  0.0047
   4.0743E+00   4.1735E+00   4.4300E-04  0.0048
   4.1735E+00   4.2750E+00   4.2147E-04  0.0048
   4.2750E+00   4.3790E+00   4.0446E-04  0.0049
   4.3790E+00   4.4856E+00   3.8216E-04  0.0050
   4.4856E+00   4.5947E+00   3.5939E-04  0.0051
   4.5947E+00   4.7065E+00   3.4063E-04  0.0051
   4.7065E+00   4.8210E+00   3.2074E-04  0.0052
   4.8210E+00   4.9383E+00   3.0144E-04  0.0053
   4.9383E+00   5.0585E+00   2.8404E-04  0.0054
   5.0585E+00   5.1815E+00   2.6850E-04  0.0055
   5.1815E+00   5.3076E+00   2.5338E-04  0.0056
   5.3076E+00   5.4368E+00   2.3791E-04  0.0057
   5.4368E+00   5.5690E+00   2.2235E-04  0.0058
   5.5690E+00   5.7045E+00   2.0927E-04  0.0059
   5.7045E+00   5.8433E+00   1.9180E-04  0.0061
   5.8433E+00   5.9855E+00   1.8006E-04  0.0063
   5.9855E+00   6.1311E+00   1.6994E-04  0.0064
   6.1311E+00   6.2803E+00   1.5671E-04  0.0065
   6.2803E+00   6.4331E+00   1.4651E-04  0.0067
   6.4331E+00   6.5896E+00   1.3587E-04  0.0069
   6.5896E+00   6.7500E+00   1.2549E-04  0.0070
   6.7500E+00   6.9142E+00   1.1605E-04  0.0072
   6.9142E+00   7.0824E+00   1.0935E-04  0.0074
   7.0824E+00   7.2548E+00   1.0167E-04  0.0076
   7.2548E+00   7.4313E+00   9.4058E-05  0.0078
   7.4313E+00   7.6121E+00   8.4617E-05  0.0081
   7.6121E+00   7.7973E+00   8.0318E-05  0.0082
   7.7973E+00   7.9870E+00   7.4520E-05  0.0084
   7.9870E+00   8.1813E+00   6.9521E-05  0.0086
   8.1813E+00   8.3804E+00   6.4883E-05  0.0088
   8.3804E+00   8.5843E+00   5.9683E-05  0.0091
   8.5843E+00   8.7931E+00   5.4160E-05  0.0094
   8.7931E+00   9.0071E+00   5.1635E-05  0.0095
   9.0071E+00   9.2262E+00   4.6683E-05  0.0099
   9.2262E+00   9.4507E+00   4.2995E-05  0.0102
   9.4507E+00   9.6807E+00   4.0377E-05  0.0104
   9.6807E+00   9.9162E+00   3.7247E-05  0.0107
   9.9162E+00   1.0157E+01   3.4984E-05  0.0109
   1.0157E+01   1.0405E+01   3.1802E-05  0.0113
   1.0405E+01   1.0658E+01   3.0493E-05  0.0114
   1.0658E+01   1.0917E+01   2.8007E-05  0.0117
   1.0917E+01   1.1183E+01   2.6020E-05  0.0120
   1.1183E+01   1.1455E+01   2.4197E-05  0.0123
   1.1455E+01   1.1733E+01   2.2267E-05  0.0127
   1.1733E+01   1.2019E+01   2.1040E-05  0.0129
   1.2019E+01   1.2311E+01   1.9396E-05  0.0133
   1.2311E+01   1.2611E+01   1.8348E-05  0.0135
   1.2611E+01   1.2918E+01   1.7133E-05  0.0138
   1.2918E+01   1.3232E+01   1.5509E-05  0.0143
   1.3232E+01   1.3554E+01   1.4844E-05  0.0145
   1.3554E+01   1.3884E+01   1.4108E-05  0.0147
   1.3884E+01   1.4222E+01   1.3318E-05  0.0149
   1.4222E+01   1.4568E+01   1.2580E-05  0.0152
   1.4568E+01   1.4922E+01   1.1545E-05  0.0156
   1.4922E+01   1.5285E+01   1.1158E-05  0.0157
   1.5285E+01   1.5657E+01   1.0760E-05  0.0158
   1.5657E+01   1.6038E+01   9.7638E-06  0.0164
   1.6038E+01   1.6428E+01   9.3973E-06  0.0165
   1.6428E+01   1.6828E+01   8.7163E-06  0.0169
   1.6828E+01   1.7237E+01   8.7242E-06  0.0167
   1.7237E+01   1.7657E+01   8.1140E-06  0.0171
   1.7657E+01   1.8086E+01   7.5849E-06  0.0175
   1.8086E+01   1.8526E+01   7.2559E-06  0.0177
   1.8526E+01   1.8977E+01   6.9438E-06  0.0179
   1.8977E+01   1.9439E+01   6.6467E-06  0.0181
   1.9439E+01   1.9912E+01   6.4149E-06  0.0182
   1.9912E+01   2.0396E+01   6.1552E-06  0.0183
   2.0396E+01   2.0893E+01   5.8316E-06  0.0186
   2.0893E+01   2.1401E+01   5.4551E-06  0.0190
   2.1401E+01   2.1922E+01   5.2871E-06  0.0191
   2.1922E+01   2.2455E+01   4.8372E-06  0.0197
   2.2455E+01   2.3001E+01   4.9090E-06  0.0193
   2.3001E+01   2.3561E+01   4.5529E-06  0.0198
   2.3561E+01   2.4134E+01   4.3541E-06  0.0200
   2.4134E+01   2.4721E+01   4.0156E-06  0.0206
   2.4721E+01   2.5323E+01   3.9202E-06  0.0206
   2.5323E+01   2.5939E+01   3.6940E-06  0.0210
   2.5939E+01   2.6570E+01   3.4177E-06  0.0215
   2.6570E+01   2.7217E+01   3.2778E-06  0.0217
   2.7217E+01   2.7879E+01   3.0867E-06  0.0221
   2.7879E+01   2.8557E+01   2.9632E-06  0.0223
   2.8557E+01   2.9252E+01   2.7561E-06  0.0229
   2.9252E+01   2.9964E+01   2.4279E-06  0.0241
   2.9964E+01   3.0693E+01   2.3277E-06  0.0243
   3.0693E+01   3.1440E+01   2.1680E-06  0.0249
   3.1440E+01   3.2205E+01   2.0197E-06  0.0254
   3.2205E+01   3.2988E+01   1.9845E-06  0.0254
   3.2988E+01   3.3791E+01   1.8514E-06  0.0259
   3.3791E+01   3.4613E+01   1.5861E-06  0.0277
   3.4613E+01   3.5455E+01   1.5318E-06  0.0278
   3.5455E+01   3.6318E+01   1.3482E-06  0.0293
   3.6318E+01   3.7201E+01   1.2494E-06  0.0301
   3.7201E+01   3.8106E+01   1.0904E-06  0.0318
   3.8106E+01   3.9034E+01   1.0527E-06  0.0320
   3.9034E+01   3.9983E+01   9.5923E-07  0.0331
   3.9983E+01   4.0956E+01   8.3571E-07  0.0351
   4.0956E+01   4.1953E+01   7.7672E-07  0.0359
   4.1953E+01   4.2973E+01   6.8382E-07  0.0379
   4.2973E+01   4.4019E+01   6.1019E-07  0.0396
   4.4019E+01   4.5090E+01   5.3594E-07  0.0417
   4.5090E+01   4.6187E+01   4.6305E-07  0.0444
   4.6187E+01   4.7311E+01   3.9243E-07  0.0476
   4.7311E+01   4.8462E+01   3.8658E-07  0.0474
   4.8462E+01   4.9641E+01   3.0701E-07  0.0526
   4.9641E+01   5.0849E+01   2.8233E-07  0.0542
   5.0849E+01   5.2086E+01   2.5218E-07  0.0566
   5.2086E+01   5.3353E+01   1.9648E-07  0.0634
   5.3353E+01   5.4651E+01   1.7949E-07  0.0655
   5.4651E+01   5.5981E+01   1.3462E-07  0.0747
   5.5981E+01   5.7343E+01   1.5565E-07  0.0687
   5.7343E+01   5.8738E+01   1.2113E-07  0.0769
   5.8738E+01   6.0168E+01   8.8164E-08  0.0891
   6.0168E+01   6.1632E+01   8.5387E-08  0.0894
   6.1632E+01   6.3131E+01   6.9354E-08  0.0981
   6.3131E+01   6.4667E+01   5.7291E-08  0.1066
   6.4667E+01   6.6240E+01   5.2752E-08  0.1098
   6.6240E+01   6.7852E+01   3.8469E-08  0.1270
   6.7852E+01   6.9503E+01   3.3315E-08  0.1348
   6.9503E+01   7.1194E+01   3.1933E-08  0.1361
   7.1194E+01   7.2926E+01   2.8288E-08  0.1429
   7.2926E+01   7.4701E+01   1.9725E-08  0.1690
   7.4701E+01   7.6518E+01   1.9257E-08  0.1690
   7.6518E+01   7.8380E+01   1.5040E-08  0.1890
   7.8380E+01   8.0287E+01   9.4387E-09  0.2357
   8.0287E+01   8.2240E+01   6.6549E-09  0.2774
   8.2240E+01   8.4241E+01   3.9980E-09  0.3536
   8.4241E+01   8.6291E+01   2.4394E-09  0.4472
   8.6291E+01   8.8391E+01   1.4289E-09  0.5774
   8.8391E+01   9.0541E+01   9.2997E-10  0.7071
   9.0541E+01   9.2744E+01   1.3618E-09  0.5774
   9.2744E+01   9.5001E+01   0.0000E+00  0.0000
   9.5001E+01   9.7312E+01   0.0000E+00  0.0000
   9.7312E+01   9.9680E+01   0.0000E+00  0.0000
   9.9680E+01   1.0211E+02   0.0000E+00  0.0000
   1.0211E+02   1.0459E+02   0.0000E+00  0.0000
   1.0459E+02   1.0713E+02   0.0000E+00  0.0000
   1.0713E+02   1.0974E+02   0.0000E+00  0.0000
   1.0974E+02   1.1241E+02   0.0000E+00  0.0000
   1.1241E+02   1.1515E+02   0.0000E+00  0.0000
   1.1515E+02   1.1795E+02   0.0000E+00  0.0000
   1.1795E+02   1.2082E+02   0.0000E+00  0.0000
   1.2082E+02   1.2376E+02   0.0000E+00  0.0000
   1.2376E+02   1.2677E+02   0.0000E+00  0.0000
   1.2677E+02   1.2985E+02   0.0000E+00  0.0000
   1.2985E+02   1.3301E+02   0.0000E+00  0.0000
   1.3301E+02   1.3625E+02   0.0000E+00  0.0000
   1.3625E+02   1.3956E+02   0.0000E+00  0.0000
   1.3956E+02   1.4296E+02   0.0000E+00  0.0000
   1.4296E+02   1.4644E+02   0.0000E+00  0.0000
   1.4644E+02   1.5000E+02   0.0000E+00  0.0000

#   sum over                 3.4609E-05
'no. =    1   reg = 117 - 217'
msuc: {\huge [t-cross] in region mesh}
msdr: {\it plotted by \ANGEL \version}
msdl: {\it calculated by \PHITS  3.26}
wt: s(0.7)
\vspace{-3}
  region surface crossing
  area  &=&   1.0000E+00 [cm^2]
e:
 
# Information for Restart Calculation
# This calculation was newly started
# istdev =  2 # 1:Batch variance, 2:History variance
# resc2  = 1.00000000000000000E+09 # Total source weight or Total source weight / maxcas
# resc3  = 1.00000000000000000E+09 # Total history number or Total batch number
# maxcas =   500000000 # History / Batch, only used for istdev=1
# bitrseed = 0001001110011001001001110000100100110111001111011100001000101100 # bit data of rseed
