[ T-Cross ]
    title = [t-cross] in region mesh
     mesh =  reg            # mesh type is region-wise
      reg =    1            # number of crossing regions
      non     r-from    r-to       area
      1       107       207        1.000000    
   e-type =    3            # e-mesh is log given by emin, emax and ne
     emin =  1.0000000E-02  # minimum value of e-mesh points
     emax =   150.0000      # maximum value of e-mesh points
#    edel =  2.4039514E-02  # mesh width of e-mesh points
       ne =    400          # number of e-mesh points
#    data = ( e(i), i = 1, ne + 1 )
#           1.00000E-02  1.02433E-02  1.04925E-02  1.07478E-02  1.10093E-02
#           1.12772E-02  1.15516E-02  1.18326E-02  1.21205E-02  1.24154E-02
#           1.27175E-02  1.30269E-02  1.33439E-02  1.36686E-02  1.40011E-02
#           1.43418E-02  1.46907E-02  1.50482E-02  1.54143E-02  1.57894E-02
#           1.61735E-02  1.65670E-02  1.69701E-02  1.73830E-02  1.78060E-02
#           1.82392E-02  1.86830E-02  1.91375E-02  1.96032E-02  2.00801E-02
#           2.05687E-02  2.10692E-02  2.15818E-02  2.21069E-02  2.26448E-02
#           2.31957E-02  2.37601E-02  2.43382E-02  2.49304E-02  2.55369E-02
#           2.61583E-02  2.67947E-02  2.74467E-02  2.81145E-02  2.87985E-02
#           2.94992E-02  3.02169E-02  3.09521E-02  3.17052E-02  3.24766E-02
#           3.32668E-02  3.40762E-02  3.49053E-02  3.57546E-02  3.66246E-02
#           3.75157E-02  3.84284E-02  3.93634E-02  4.03212E-02  4.13022E-02
#           4.23071E-02  4.33365E-02  4.43909E-02  4.54710E-02  4.65773E-02
#           4.77106E-02  4.88714E-02  5.00605E-02  5.12785E-02  5.25262E-02
#           5.38042E-02  5.51133E-02  5.64542E-02  5.78278E-02  5.92348E-02
#           6.06760E-02  6.21523E-02  6.36645E-02  6.52135E-02  6.68002E-02
#           6.84255E-02  7.00904E-02  7.17957E-02  7.35426E-02  7.53319E-02
#           7.71648E-02  7.90423E-02  8.09655E-02  8.29354E-02  8.49533E-02
#           8.70203E-02  8.91376E-02  9.13064E-02  9.35279E-02  9.58035E-02
#           9.81345E-02  1.00522E-01  1.02968E-01  1.05473E-01  1.08040E-01
#           1.10668E-01  1.13361E-01  1.16119E-01  1.18944E-01  1.21838E-01
#           1.24803E-01  1.27839E-01  1.30950E-01  1.34136E-01  1.37399E-01
#           1.40742E-01  1.44167E-01  1.47675E-01  1.51268E-01  1.54948E-01
#           1.58718E-01  1.62580E-01  1.66535E-01  1.70587E-01  1.74738E-01
#           1.78989E-01  1.83344E-01  1.87805E-01  1.92375E-01  1.97055E-01
#           2.01850E-01  2.06761E-01  2.11792E-01  2.16945E-01  2.22223E-01
#           2.27630E-01  2.33169E-01  2.38842E-01  2.44653E-01  2.50605E-01
#           2.56703E-01  2.62949E-01  2.69346E-01  2.75900E-01  2.82613E-01
#           2.89489E-01  2.96532E-01  3.03747E-01  3.11138E-01  3.18708E-01
#           3.26462E-01  3.34405E-01  3.42542E-01  3.50876E-01  3.59413E-01
#           3.68158E-01  3.77116E-01  3.86291E-01  3.95690E-01  4.05317E-01
#           4.15179E-01  4.25281E-01  4.35628E-01  4.46227E-01  4.57084E-01
#           4.68205E-01  4.79597E-01  4.91266E-01  5.03219E-01  5.15463E-01
#           5.28005E-01  5.40851E-01  5.54011E-01  5.67490E-01  5.81298E-01
#           5.95441E-01  6.09929E-01  6.24769E-01  6.39970E-01  6.55541E-01
#           6.71491E-01  6.87828E-01  7.04564E-01  7.21706E-01  7.39266E-01
#           7.57253E-01  7.75678E-01  7.94551E-01  8.13883E-01  8.33685E-01
#           8.53969E-01  8.74747E-01  8.96030E-01  9.17831E-01  9.40163E-01
#           9.63038E-01  9.86469E-01  1.01047E+00  1.03506E+00  1.06024E+00
#           1.08604E+00  1.11246E+00  1.13953E+00  1.16725E+00  1.19565E+00
#           1.22474E+00  1.25454E+00  1.28507E+00  1.31633E+00  1.34836E+00
#           1.38117E+00  1.41477E+00  1.44920E+00  1.48446E+00  1.52057E+00
#           1.55757E+00  1.59547E+00  1.63429E+00  1.67405E+00  1.71478E+00
#           1.75650E+00  1.79924E+00  1.84302E+00  1.88786E+00  1.93379E+00
#           1.98084E+00  2.02904E+00  2.07841E+00  2.12898E+00  2.18078E+00
#           2.23384E+00  2.28819E+00  2.34386E+00  2.40089E+00  2.45930E+00
#           2.51914E+00  2.58043E+00  2.64322E+00  2.70753E+00  2.77341E+00
#           2.84088E+00  2.91001E+00  2.98081E+00  3.05333E+00  3.12762E+00
#           3.20372E+00  3.28167E+00  3.36152E+00  3.44330E+00  3.52708E+00
#           3.61290E+00  3.70080E+00  3.79085E+00  3.88308E+00  3.97756E+00
#           4.07434E+00  4.17347E+00  4.27501E+00  4.37903E+00  4.48557E+00
#           4.59471E+00  4.70650E+00  4.82102E+00  4.93832E+00  5.05847E+00
#           5.18155E+00  5.30762E+00  5.43676E+00  5.56904E+00  5.70453E+00
#           5.84333E+00  5.98550E+00  6.13114E+00  6.28031E+00  6.43312E+00
#           6.58964E+00  6.74997E+00  6.91420E+00  7.08243E+00  7.25475E+00
#           7.43126E+00  7.61207E+00  7.79728E+00  7.98700E+00  8.18133E+00
#           8.38038E+00  8.58428E+00  8.79315E+00  9.00709E+00  9.22624E+00
#           9.45072E+00  9.68067E+00  9.91620E+00  1.01575E+01  1.04046E+01
#           1.06578E+01  1.09171E+01  1.11827E+01  1.14548E+01  1.17335E+01
#           1.20190E+01  1.23114E+01  1.26109E+01  1.29178E+01  1.32321E+01
#           1.35540E+01  1.38838E+01  1.42216E+01  1.45676E+01  1.49221E+01
#           1.52851E+01  1.56570E+01  1.60380E+01  1.64282E+01  1.68279E+01
#           1.72374E+01  1.76568E+01  1.80864E+01  1.85264E+01  1.89772E+01
#           1.94389E+01  1.99119E+01  2.03963E+01  2.08926E+01  2.14009E+01
#           2.19216E+01  2.24550E+01  2.30014E+01  2.35610E+01  2.41343E+01
#           2.47215E+01  2.53230E+01  2.59391E+01  2.65702E+01  2.72167E+01
#           2.78789E+01  2.85572E+01  2.92520E+01  2.99637E+01  3.06928E+01
#           3.14396E+01  3.22045E+01  3.29881E+01  3.37907E+01  3.46128E+01
#           3.54550E+01  3.63177E+01  3.72013E+01  3.81064E+01  3.90336E+01
#           3.99833E+01  4.09561E+01  4.19526E+01  4.29734E+01  4.40189E+01
#           4.50900E+01  4.61870E+01  4.73108E+01  4.84619E+01  4.96410E+01
#           5.08488E+01  5.20860E+01  5.33533E+01  5.46514E+01  5.59812E+01
#           5.73432E+01  5.87384E+01  6.01676E+01  6.16315E+01  6.31311E+01
#           6.46671E+01  6.62405E+01  6.78522E+01  6.95031E+01  7.11941E+01
#           7.29263E+01  7.47007E+01  7.65182E+01  7.83800E+01  8.02870E+01
#           8.22405E+01  8.42414E+01  8.62911E+01  8.83906E+01  9.05412E+01
#           9.27442E+01  9.50007E+01  9.73122E+01  9.96799E+01  1.02105E+02
#           1.04589E+02  1.07134E+02  1.09741E+02  1.12411E+02  1.15146E+02
#           1.17948E+02  1.20817E+02  1.23757E+02  1.26768E+02  1.29852E+02
#           1.33012E+02  1.36248E+02  1.39563E+02  1.42959E+02  1.46437E+02
#           1.50000E+02
     unit =    2            # unit is [1/cm^2/(MeV/n)/source]
     axis =  eng            # axis of output
     file = detector-08.out  # file name of output for the above axis
   output = f-curr          # surface crossing forward current spectrum
     part =  neutron  
# kf/name :  2112     
#    used :        main (  %)        temp (  %)       total (  %)
#  memory :         414 (  0)           0 (  0)         414 (  0)

#------------------------------------------------------------------------------
#newpage:
#   no. =    1   reg = 107 - 207

x: Energy [MeV/n]
y:  F-Curr [1/cm^2/(MeV/n)/source]         
p: xlog ylog afac(0.8) form(0.9)
h: n            x            y(neutron ),hh0l   n 
#  e-lower      e-upper      neutron     r.err 
   1.0000E-02   1.0243E-02   5.1586E-03  0.0281
   1.0243E-02   1.0493E-02   4.7121E-03  0.0290
   1.0493E-02   1.0748E-02   4.7032E-03  0.0287
   1.0748E-02   1.1009E-02   4.4740E-03  0.0291
   1.1009E-02   1.1277E-02   4.6933E-03  0.0281
   1.1277E-02   1.1552E-02   4.5406E-03  0.0282
   1.1552E-02   1.1833E-02   4.3260E-03  0.0285
   1.1833E-02   1.2121E-02   4.4924E-03  0.0277
   1.2121E-02   1.2415E-02   4.1362E-03  0.0285
   1.2415E-02   1.2718E-02   4.1446E-03  0.0281
   1.2718E-02   1.3027E-02   3.8830E-03  0.0287
   1.3027E-02   1.3344E-02   3.9327E-03  0.0282
   1.3344E-02   1.3669E-02   3.8295E-03  0.0282
   1.3669E-02   1.4001E-02   3.8571E-03  0.0278
   1.4001E-02   1.4342E-02   3.7806E-03  0.0277
   1.4342E-02   1.4691E-02   3.7912E-03  0.0273
   1.4691E-02   1.5048E-02   3.6201E-03  0.0277
   1.5048E-02   1.5414E-02   3.7613E-03  0.0268
   1.5414E-02   1.5789E-02   3.4252E-03  0.0278
   1.5789E-02   1.6174E-02   3.3175E-03  0.0279
   1.6174E-02   1.6567E-02   3.2228E-03  0.0279
   1.6567E-02   1.6970E-02   3.1924E-03  0.0277
   1.6970E-02   1.7383E-02   3.1979E-03  0.0274
   1.7383E-02   1.7806E-02   3.1842E-03  0.0271
   1.7806E-02   1.8239E-02   3.1145E-03  0.0271
   1.8239E-02   1.8683E-02   3.0292E-03  0.0271
   1.8683E-02   1.9138E-02   3.0550E-03  0.0267
   1.9138E-02   1.9603E-02   2.9102E-03  0.0270
   1.9603E-02   2.0080E-02   2.6439E-03  0.0280
   2.0080E-02   2.0569E-02   2.8413E-03  0.0267
   2.0569E-02   2.1069E-02   2.7225E-03  0.0269
   2.1069E-02   2.1582E-02   2.4948E-03  0.0278
   2.1582E-02   2.2107E-02   2.6085E-03  0.0269
   2.2107E-02   2.2645E-02   2.6329E-03  0.0264
   2.2645E-02   2.3196E-02   2.4273E-03  0.0272
   2.3196E-02   2.3760E-02   2.4605E-03  0.0267
   2.3760E-02   2.4338E-02   2.4294E-03  0.0266
   2.4338E-02   2.4930E-02   2.3101E-03  0.0269
   2.4930E-02   2.5537E-02   2.2396E-03  0.0270
   2.5537E-02   2.6158E-02   2.2155E-03  0.0268
   2.6158E-02   2.6795E-02   2.2155E-03  0.0265
   2.6795E-02   2.7447E-02   2.2120E-03  0.0262
   2.7447E-02   2.8114E-02   2.1167E-03  0.0265
   2.8114E-02   2.8799E-02   2.0374E-03  0.0267
   2.8799E-02   2.9499E-02   2.0958E-03  0.0260
   2.9499E-02   3.0217E-02   1.9914E-03  0.0263
   3.0217E-02   3.0952E-02   1.8565E-03  0.0269
   3.0952E-02   3.1705E-02   1.9875E-03  0.0257
   3.1705E-02   3.2477E-02   1.8579E-03  0.0263
   3.2477E-02   3.3267E-02   1.8415E-03  0.0261
   3.3267E-02   3.4076E-02   1.8298E-03  0.0258
   3.4076E-02   3.4905E-02   1.7550E-03  0.0261
   3.4905E-02   3.5755E-02   1.8097E-03  0.0254
   3.5755E-02   3.6625E-02   1.6952E-03  0.0259
   3.6625E-02   3.7516E-02   1.6424E-03  0.0260
   3.7516E-02   3.8428E-02   1.6704E-03  0.0255
   3.8428E-02   3.9363E-02   1.6342E-03  0.0255
   3.9363E-02   4.0321E-02   1.6092E-03  0.0253
   4.0321E-02   4.1302E-02   1.5357E-03  0.0256
   4.1302E-02   4.2307E-02   1.5058E-03  0.0256
   4.2307E-02   4.3337E-02   1.5033E-03  0.0253
   4.3337E-02   4.4391E-02   1.3773E-03  0.0261
   4.4391E-02   4.5471E-02   1.3926E-03  0.0257
   4.5471E-02   4.6577E-02   1.3841E-03  0.0254
   4.6577E-02   4.7711E-02   1.3325E-03  0.0256
   4.7711E-02   4.8871E-02   1.3066E-03  0.0255
   4.8871E-02   5.0061E-02   1.2781E-03  0.0255
   5.0061E-02   5.1279E-02   1.3312E-03  0.0247
   5.1279E-02   5.2526E-02   1.2359E-03  0.0253
   5.2526E-02   5.3804E-02   1.2068E-03  0.0253
   5.3804E-02   5.5113E-02   1.2564E-03  0.0245
   5.5113E-02   5.6454E-02   1.2051E-03  0.0247
   5.6454E-02   5.7828E-02   1.1787E-03  0.0247
   5.7828E-02   5.9235E-02   1.1591E-03  0.0246
   5.9235E-02   6.0676E-02   1.0736E-03  0.0253
   6.0676E-02   6.2152E-02   1.0578E-03  0.0251
   6.2152E-02   6.3665E-02   1.0903E-03  0.0245
   6.3665E-02   6.5214E-02   1.0340E-03  0.0248
   6.5214E-02   6.6800E-02   1.0199E-03  0.0247
   6.6800E-02   6.8426E-02   1.0504E-03  0.0241
   6.8426E-02   7.0090E-02   9.9860E-04  0.0244
   7.0090E-02   7.1796E-02   9.5131E-04  0.0247
   7.1796E-02   7.3543E-02   1.0024E-03  0.0238
   7.3543E-02   7.5332E-02   9.2543E-04  0.0245
   7.5332E-02   7.7165E-02   9.4479E-04  0.0239
   7.7165E-02   7.9042E-02   9.0737E-04  0.0241
   7.9042E-02   8.0965E-02   8.7319E-04  0.0243
   8.0965E-02   8.2935E-02   8.8777E-04  0.0238
   8.2935E-02   8.4953E-02   8.4007E-04  0.0242
   8.4953E-02   8.7020E-02   8.1731E-04  0.0242
   8.7020E-02   8.9138E-02   7.9770E-04  0.0242
   8.9138E-02   9.1306E-02   8.0337E-04  0.0238
   9.1306E-02   9.3528E-02   7.7345E-04  0.0240
   9.3528E-02   9.5804E-02   8.0413E-04  0.0233
   9.5804E-02   9.8134E-02   7.4906E-04  0.0238
   9.8134E-02   1.0052E-01   7.0335E-04  0.0243
   1.0052E-01   1.0297E-01   7.3300E-04  0.0235
   1.0297E-01   1.0547E-01   7.0728E-04  0.0236
   1.0547E-01   1.0804E-01   7.1220E-04  0.0233
   1.0804E-01   1.1067E-01   6.6500E-04  0.0238
   1.1067E-01   1.1336E-01   6.5533E-04  0.0237
   1.1336E-01   1.1612E-01   6.6270E-04  0.0233
   1.1612E-01   1.1894E-01   6.2531E-04  0.0237
   1.1894E-01   1.2184E-01   6.3344E-04  0.0232
   1.2184E-01   1.2480E-01   6.2613E-04  0.0231
   1.2480E-01   1.2784E-01   6.0290E-04  0.0232
   1.2784E-01   1.3095E-01   5.9503E-04  0.0231
   1.3095E-01   1.3414E-01   5.6584E-04  0.0234
   1.3414E-01   1.3740E-01   5.8266E-04  0.0228
   1.3740E-01   1.4074E-01   5.4971E-04  0.0232
   1.4074E-01   1.4417E-01   5.1031E-04  0.0238
   1.4417E-01   1.4767E-01   5.4195E-04  0.0228
   1.4767E-01   1.5127E-01   5.2541E-04  0.0229
   1.5127E-01   1.5495E-01   5.1554E-04  0.0229
   1.5495E-01   1.5872E-01   5.1033E-04  0.0227
   1.5872E-01   1.6258E-01   4.8606E-04  0.0230
   1.6258E-01   1.6654E-01   4.9242E-04  0.0226
   1.6654E-01   1.7059E-01   4.6944E-04  0.0228
   1.7059E-01   1.7474E-01   4.5089E-04  0.0230
   1.7474E-01   1.7899E-01   4.6152E-04  0.0225
   1.7899E-01   1.8334E-01   4.2770E-04  0.0230
   1.8334E-01   1.8781E-01   4.4500E-04  0.0223
   1.8781E-01   1.9237E-01   4.3122E-04  0.0224
   1.9237E-01   1.9706E-01   4.2776E-04  0.0222
   1.9706E-01   2.0185E-01   4.0101E-04  0.0227
   2.0185E-01   2.0676E-01   4.4152E-04  0.0214
   2.0676E-01   2.1179E-01   4.3466E-04  0.0213
   2.1179E-01   2.1694E-01   4.5352E-04  0.0206
   2.1694E-01   2.2222E-01   4.6697E-04  0.0200
   2.2222E-01   2.2763E-01   4.9966E-04  0.0192
   2.2763E-01   2.3317E-01   4.8890E-04  0.0191
   2.3317E-01   2.3884E-01   5.2945E-04  0.0182
   2.3884E-01   2.4465E-01   5.3128E-04  0.0179
   2.4465E-01   2.5061E-01   5.5978E-04  0.0172
   2.5061E-01   2.5670E-01   5.5814E-04  0.0170
   2.5670E-01   2.6295E-01   5.6536E-04  0.0167
   2.6295E-01   2.6935E-01   5.9071E-04  0.0162
   2.6935E-01   2.7590E-01   6.0820E-04  0.0158
   2.7590E-01   2.8261E-01   6.3158E-04  0.0153
   2.8261E-01   2.8949E-01   6.5132E-04  0.0149
   2.8949E-01   2.9653E-01   6.7067E-04  0.0145
   2.9653E-01   3.0375E-01   6.8865E-04  0.0141
   3.0375E-01   3.1114E-01   7.1667E-04  0.0137
   3.1114E-01   3.1871E-01   7.2434E-04  0.0134
   3.1871E-01   3.2646E-01   7.4408E-04  0.0131
   3.2646E-01   3.3441E-01   7.7418E-04  0.0127
   3.3441E-01   3.4254E-01   7.9077E-04  0.0124
   3.4254E-01   3.5088E-01   7.9823E-04  0.0122
   3.5088E-01   3.5941E-01   8.2163E-04  0.0119
   3.5941E-01   3.6816E-01   8.5877E-04  0.0115
   3.6816E-01   3.7712E-01   8.6983E-04  0.0113
   3.7712E-01   3.8629E-01   8.9301E-04  0.0110
   3.8629E-01   3.9569E-01   9.1311E-04  0.0107
   3.9569E-01   4.0532E-01   9.3800E-04  0.0105
   4.0532E-01   4.1518E-01   9.6526E-04  0.0102
   4.1518E-01   4.2528E-01   9.4707E-04  0.0102
   4.2528E-01   4.3563E-01   9.9749E-04  0.0098
   4.3563E-01   4.4623E-01   1.0113E-03  0.0096
   4.4623E-01   4.5708E-01   1.0316E-03  0.0094
   4.5708E-01   4.6821E-01   1.0589E-03  0.0092
   4.6821E-01   4.7960E-01   1.0765E-03  0.0090
   4.7960E-01   4.9127E-01   1.0973E-03  0.0088
   4.9127E-01   5.0322E-01   1.1042E-03  0.0087
   5.0322E-01   5.1546E-01   1.1409E-03  0.0084
   5.1546E-01   5.2800E-01   1.1595E-03  0.0082
   5.2800E-01   5.4085E-01   1.1712E-03  0.0081
   5.4085E-01   5.5401E-01   1.2051E-03  0.0079
   5.5401E-01   5.6749E-01   1.2280E-03  0.0077
   5.6749E-01   5.8130E-01   1.2321E-03  0.0076
   5.8130E-01   5.9544E-01   1.2564E-03  0.0075
   5.9544E-01   6.0993E-01   1.2614E-03  0.0074
   6.0993E-01   6.2477E-01   1.2651E-03  0.0073
   6.2477E-01   6.3997E-01   1.2963E-03  0.0071
   6.3997E-01   6.5554E-01   1.2991E-03  0.0070
   6.5554E-01   6.7149E-01   1.3172E-03  0.0069
   6.7149E-01   6.8783E-01   1.3114E-03  0.0068
   6.8783E-01   7.0456E-01   1.3426E-03  0.0066
   7.0456E-01   7.2171E-01   1.3349E-03  0.0066
   7.2171E-01   7.3927E-01   1.3494E-03  0.0065
   7.3927E-01   7.5725E-01   1.3790E-03  0.0063
   7.5725E-01   7.7568E-01   1.3774E-03  0.0062
   7.7568E-01   7.9455E-01   1.3875E-03  0.0061
   7.9455E-01   8.1388E-01   1.3866E-03  0.0061
   8.1388E-01   8.3368E-01   1.4117E-03  0.0059
   8.3368E-01   8.5397E-01   1.4137E-03  0.0059
   8.5397E-01   8.7475E-01   1.4132E-03  0.0058
   8.7475E-01   8.9603E-01   1.4522E-03  0.0057
   8.9603E-01   9.1783E-01   1.4436E-03  0.0056
   9.1783E-01   9.4016E-01   1.4455E-03  0.0055
   9.4016E-01   9.6304E-01   1.4714E-03  0.0054
   9.6304E-01   9.8647E-01   1.4657E-03  0.0054
   9.8647E-01   1.0105E+00   1.4800E-03  0.0053
   1.0105E+00   1.0351E+00   1.4601E-03  0.0052
   1.0351E+00   1.0602E+00   1.4531E-03  0.0052
   1.0602E+00   1.0860E+00   1.4623E-03  0.0051
   1.0860E+00   1.1125E+00   1.4526E-03  0.0051
   1.1125E+00   1.1395E+00   1.4360E-03  0.0050
   1.1395E+00   1.1673E+00   1.4545E-03  0.0049
   1.1673E+00   1.1957E+00   1.4577E-03  0.0049
   1.1957E+00   1.2247E+00   1.4555E-03  0.0048
   1.2247E+00   1.2545E+00   1.4385E-03  0.0048
   1.2545E+00   1.2851E+00   1.4355E-03  0.0047
   1.2851E+00   1.3163E+00   1.4267E-03  0.0047
   1.3163E+00   1.3484E+00   1.4207E-03  0.0047
   1.3484E+00   1.3812E+00   1.4291E-03  0.0046
   1.3812E+00   1.4148E+00   1.4343E-03  0.0045
   1.4148E+00   1.4492E+00   1.4310E-03  0.0045
   1.4492E+00   1.4845E+00   1.4367E-03  0.0044
   1.4845E+00   1.5206E+00   1.4493E-03  0.0043
   1.5206E+00   1.5576E+00   1.4286E-03  0.0043
   1.5576E+00   1.5955E+00   1.4216E-03  0.0043
   1.5955E+00   1.6343E+00   1.4038E-03  0.0043
   1.6343E+00   1.6741E+00   1.3888E-03  0.0042
   1.6741E+00   1.7148E+00   1.3696E-03  0.0042
   1.7148E+00   1.7565E+00   1.3596E-03  0.0042
   1.7565E+00   1.7992E+00   1.3531E-03  0.0041
   1.7992E+00   1.8430E+00   1.3627E-03  0.0041
   1.8430E+00   1.8879E+00   1.3650E-03  0.0040
   1.8879E+00   1.9338E+00   1.3534E-03  0.0040
   1.9338E+00   1.9808E+00   1.3418E-03  0.0040
   1.9808E+00   2.0290E+00   1.3498E-03  0.0039
   2.0290E+00   2.0784E+00   1.3369E-03  0.0039
   2.0784E+00   2.1290E+00   1.3209E-03  0.0038
   2.1290E+00   2.1808E+00   1.3042E-03  0.0038
   2.1808E+00   2.2338E+00   1.2887E-03  0.0038
   2.2338E+00   2.2882E+00   1.2686E-03  0.0038
   2.2882E+00   2.3439E+00   1.2604E-03  0.0038
   2.3439E+00   2.4009E+00   1.2563E-03  0.0037
   2.4009E+00   2.4593E+00   1.2612E-03  0.0037
   2.4593E+00   2.5191E+00   1.2477E-03  0.0036
   2.5191E+00   2.5804E+00   1.2442E-03  0.0036
   2.5804E+00   2.6432E+00   1.2275E-03  0.0036
   2.6432E+00   2.7075E+00   1.2224E-03  0.0035
   2.7075E+00   2.7734E+00   1.2043E-03  0.0035
   2.7734E+00   2.8409E+00   1.1979E-03  0.0035
   2.8409E+00   2.9100E+00   1.1658E-03  0.0035
   2.9100E+00   2.9808E+00   1.1597E-03  0.0035
   2.9808E+00   3.0533E+00   1.1565E-03  0.0034
   3.0533E+00   3.1276E+00   1.1414E-03  0.0034
   3.1276E+00   3.2037E+00   1.1148E-03  0.0034
   3.2037E+00   3.2817E+00   1.1074E-03  0.0034
   3.2817E+00   3.3615E+00   1.0988E-03  0.0034
   3.3615E+00   3.4433E+00   1.0778E-03  0.0034
   3.4433E+00   3.5271E+00   1.0692E-03  0.0033
   3.5271E+00   3.6129E+00   1.0625E-03  0.0033
   3.6129E+00   3.7008E+00   1.0446E-03  0.0033
   3.7008E+00   3.7908E+00   1.0214E-03  0.0033
   3.7908E+00   3.8831E+00   1.0089E-03  0.0033
   3.8831E+00   3.9776E+00   9.9687E-04  0.0032
   3.9776E+00   4.0743E+00   9.9089E-04  0.0032
   4.0743E+00   4.1735E+00   9.7975E-04  0.0032
   4.1735E+00   4.2750E+00   9.5899E-04  0.0032
   4.2750E+00   4.3790E+00   9.4118E-04  0.0032
   4.3790E+00   4.4856E+00   9.2346E-04  0.0032
   4.4856E+00   4.5947E+00   9.1867E-04  0.0031
   4.5947E+00   4.7065E+00   9.0496E-04  0.0031
   4.7065E+00   4.8210E+00   8.9030E-04  0.0031
   4.8210E+00   4.9383E+00   8.8186E-04  0.0031
   4.9383E+00   5.0585E+00   8.7672E-04  0.0031
   5.0585E+00   5.1815E+00   8.8568E-04  0.0030
   5.1815E+00   5.3076E+00   8.8114E-04  0.0030
   5.3076E+00   5.4368E+00   8.6838E-04  0.0030
   5.4368E+00   5.5690E+00   8.4852E-04  0.0030
   5.5690E+00   5.7045E+00   8.3628E-04  0.0030
   5.7045E+00   5.8433E+00   8.2529E-04  0.0029
   5.8433E+00   5.9855E+00   8.0518E-04  0.0029
   5.9855E+00   6.1311E+00   7.9260E-04  0.0029
   6.1311E+00   6.2803E+00   7.7859E-04  0.0029
   6.2803E+00   6.4331E+00   7.6550E-04  0.0029
   6.4331E+00   6.5896E+00   7.5116E-04  0.0029
   6.5896E+00   6.7500E+00   7.3705E-04  0.0029
   6.7500E+00   6.9142E+00   7.2628E-04  0.0029
   6.9142E+00   7.0824E+00   7.1265E-04  0.0029
   7.0824E+00   7.2548E+00   7.0081E-04  0.0029
   7.2548E+00   7.4313E+00   6.9446E-04  0.0028
   7.4313E+00   7.6121E+00   6.7967E-04  0.0028
   7.6121E+00   7.7973E+00   6.7022E-04  0.0028
   7.7973E+00   7.9870E+00   6.6071E-04  0.0028
   7.9870E+00   8.1813E+00   6.4733E-04  0.0028
   8.1813E+00   8.3804E+00   6.4002E-04  0.0028
   8.3804E+00   8.5843E+00   6.3210E-04  0.0028
   8.5843E+00   8.7931E+00   6.2401E-04  0.0028
   8.7931E+00   9.0071E+00   6.1586E-04  0.0028
   9.0071E+00   9.2262E+00   6.0605E-04  0.0027
   9.2262E+00   9.4507E+00   5.9974E-04  0.0027
   9.4507E+00   9.6807E+00   5.9396E-04  0.0027
   9.6807E+00   9.9162E+00   5.8340E-04  0.0027
   9.9162E+00   1.0157E+01   5.7560E-04  0.0027
   1.0157E+01   1.0405E+01   5.7100E-04  0.0027
   1.0405E+01   1.0658E+01   5.6233E-04  0.0026
   1.0658E+01   1.0917E+01   5.5758E-04  0.0026
   1.0917E+01   1.1183E+01   5.5142E-04  0.0026
   1.1183E+01   1.1455E+01   5.4172E-04  0.0026
   1.1455E+01   1.1733E+01   5.3707E-04  0.0026
   1.1733E+01   1.2019E+01   5.2993E-04  0.0026
   1.2019E+01   1.2311E+01   5.2653E-04  0.0025
   1.2311E+01   1.2611E+01   5.2117E-04  0.0025
   1.2611E+01   1.2918E+01   5.1432E-04  0.0025
   1.2918E+01   1.3232E+01   5.0587E-04  0.0025
   1.3232E+01   1.3554E+01   5.0266E-04  0.0025
   1.3554E+01   1.3884E+01   4.9840E-04  0.0025
   1.3884E+01   1.4222E+01   4.8841E-04  0.0025
   1.4222E+01   1.4568E+01   4.8408E-04  0.0024
   1.4568E+01   1.4922E+01   4.7602E-04  0.0024
   1.4922E+01   1.5285E+01   4.7306E-04  0.0024
   1.5285E+01   1.5657E+01   4.6439E-04  0.0024
   1.5657E+01   1.6038E+01   4.5893E-04  0.0024
   1.6038E+01   1.6428E+01   4.5317E-04  0.0024
   1.6428E+01   1.6828E+01   4.4911E-04  0.0024
   1.6828E+01   1.7237E+01   4.4125E-04  0.0024
   1.7237E+01   1.7657E+01   4.3523E-04  0.0023
   1.7657E+01   1.8086E+01   4.2860E-04  0.0023
   1.8086E+01   1.8526E+01   4.2221E-04  0.0023
   1.8526E+01   1.8977E+01   4.1477E-04  0.0023
   1.8977E+01   1.9439E+01   4.1163E-04  0.0023
   1.9439E+01   1.9912E+01   4.1099E-04  0.0023
   1.9912E+01   2.0396E+01   4.1074E-04  0.0022
   2.0396E+01   2.0893E+01   4.0484E-04  0.0022
   2.0893E+01   2.1401E+01   3.9758E-04  0.0022
   2.1401E+01   2.1922E+01   3.9104E-04  0.0022
   2.1922E+01   2.2455E+01   3.8339E-04  0.0022
   2.2455E+01   2.3001E+01   3.7567E-04  0.0022
   2.3001E+01   2.3561E+01   3.6707E-04  0.0022
   2.3561E+01   2.4134E+01   3.5705E-04  0.0022
   2.4134E+01   2.4721E+01   3.4950E-04  0.0022
   2.4721E+01   2.5323E+01   3.3875E-04  0.0022
   2.5323E+01   2.5939E+01   3.3026E-04  0.0022
   2.5939E+01   2.6570E+01   3.2042E-04  0.0022
   2.6570E+01   2.7217E+01   3.1194E-04  0.0022
   2.7217E+01   2.7879E+01   3.0239E-04  0.0022
   2.7879E+01   2.8557E+01   2.9232E-04  0.0022
   2.8557E+01   2.9252E+01   2.8322E-04  0.0023
   2.9252E+01   2.9964E+01   2.7366E-04  0.0023
   2.9964E+01   3.0693E+01   2.6322E-04  0.0023
   3.0693E+01   3.1440E+01   2.5258E-04  0.0023
   3.1440E+01   3.2205E+01   2.4257E-04  0.0023
   3.2205E+01   3.2988E+01   2.3224E-04  0.0023
   3.2988E+01   3.3791E+01   2.2213E-04  0.0024
   3.3791E+01   3.4613E+01   2.1226E-04  0.0024
   3.4613E+01   3.5455E+01   2.0303E-04  0.0024
   3.5455E+01   3.6318E+01   1.9281E-04  0.0025
   3.6318E+01   3.7201E+01   1.8226E-04  0.0025
   3.7201E+01   3.8106E+01   1.7297E-04  0.0025
   3.8106E+01   3.9034E+01   1.6281E-04  0.0026
   3.9034E+01   3.9983E+01   1.5340E-04  0.0026
   3.9983E+01   4.0956E+01   1.4404E-04  0.0027
   4.0956E+01   4.1953E+01   1.3475E-04  0.0027
   4.1953E+01   4.2973E+01   1.2613E-04  0.0028
   4.2973E+01   4.4019E+01   1.1746E-04  0.0029
   4.4019E+01   4.5090E+01   1.1005E-04  0.0029
   4.5090E+01   4.6187E+01   1.0171E-04  0.0030
   4.6187E+01   4.7311E+01   9.4180E-05  0.0031
   4.7311E+01   4.8462E+01   8.7232E-05  0.0032
   4.8462E+01   4.9641E+01   8.1788E-05  0.0032
   4.9641E+01   5.0849E+01   7.6517E-05  0.0033
   5.0849E+01   5.2086E+01   7.0904E-05  0.0034
   5.2086E+01   5.3353E+01   6.5447E-05  0.0035
   5.3353E+01   5.4651E+01   6.0184E-05  0.0036
   5.4651E+01   5.5981E+01   5.4971E-05  0.0037
   5.5981E+01   5.7343E+01   4.9694E-05  0.0038
   5.7343E+01   5.8738E+01   4.4748E-05  0.0040
   5.8738E+01   6.0168E+01   4.0486E-05  0.0042
   6.0168E+01   6.1632E+01   3.5863E-05  0.0044
   6.1632E+01   6.3131E+01   3.2192E-05  0.0046
   6.3131E+01   6.4667E+01   2.8595E-05  0.0048
   6.4667E+01   6.6240E+01   2.5272E-05  0.0050
   6.6240E+01   6.7852E+01   2.2074E-05  0.0053
   6.7852E+01   6.9503E+01   1.9273E-05  0.0056
   6.9503E+01   7.1194E+01   1.6737E-05  0.0059
   7.1194E+01   7.2926E+01   1.4273E-05  0.0064
   7.2926E+01   7.4701E+01   1.2246E-05  0.0068
   7.4701E+01   7.6518E+01   1.0296E-05  0.0073
   7.6518E+01   7.8380E+01   8.6859E-06  0.0079
   7.8380E+01   8.0287E+01   7.3538E-06  0.0084
   8.0287E+01   8.2240E+01   6.1159E-06  0.0091
   8.2240E+01   8.4241E+01   5.1310E-06  0.0099
   8.4241E+01   8.6291E+01   4.2529E-06  0.0107
   8.6291E+01   8.8391E+01   3.0916E-06  0.0124
   8.8391E+01   9.0541E+01   1.6023E-06  0.0170
   9.0541E+01   9.2744E+01   6.5322E-07  0.0264
   9.2744E+01   9.5001E+01   7.1791E-08  0.0786
   9.5001E+01   9.7312E+01   4.3263E-10  1.0000
   9.7312E+01   9.9680E+01   0.0000E+00  0.0000
   9.9680E+01   1.0211E+02   0.0000E+00  0.0000
   1.0211E+02   1.0459E+02   0.0000E+00  0.0000
   1.0459E+02   1.0713E+02   0.0000E+00  0.0000
   1.0713E+02   1.0974E+02   0.0000E+00  0.0000
   1.0974E+02   1.1241E+02   0.0000E+00  0.0000
   1.1241E+02   1.1515E+02   0.0000E+00  0.0000
   1.1515E+02   1.1795E+02   0.0000E+00  0.0000
   1.1795E+02   1.2082E+02   0.0000E+00  0.0000
   1.2082E+02   1.2376E+02   0.0000E+00  0.0000
   1.2376E+02   1.2677E+02   0.0000E+00  0.0000
   1.2677E+02   1.2985E+02   0.0000E+00  0.0000
   1.2985E+02   1.3301E+02   0.0000E+00  0.0000
   1.3301E+02   1.3625E+02   0.0000E+00  0.0000
   1.3625E+02   1.3956E+02   0.0000E+00  0.0000
   1.3956E+02   1.4296E+02   0.0000E+00  0.0000
   1.4296E+02   1.4644E+02   0.0000E+00  0.0000
   1.4644E+02   1.5000E+02   0.0000E+00  0.0000

#   sum over                 1.4385E-04
'no. =    1   reg = 107 - 207'
msuc: {\huge [t-cross] in region mesh}
msdr: {\it plotted by \ANGEL \version}
msdl: {\it calculated by \PHITS  3.26}
wt: s(0.7)
\vspace{-3}
  region surface crossing
  area  &=&   1.0000E+00 [cm^2]
e:
 
# Information for Restart Calculation
# This calculation was newly started
# istdev =  2 # 1:Batch variance, 2:History variance
# resc2  = 1.00000000000000000E+09 # Total source weight or Total source weight / maxcas
# resc3  = 1.00000000000000000E+09 # Total history number or Total batch number
# maxcas =   500000000 # History / Batch, only used for istdev=1
# bitrseed = 0001001110011001001001110000100100110111001111011100001000101100 # bit data of rseed
