[ T-Cross ]
    title = [t-cross] in region mesh
     mesh =  reg            # mesh type is region-wise
      reg =    1            # number of crossing regions
      non     r-from    r-to       area
      1       100       200        1.000000    
   e-type =    3            # e-mesh is log given by emin, emax and ne
     emin =  1.0000000E-02  # minimum value of e-mesh points
     emax =   150.0000      # maximum value of e-mesh points
#    edel =  2.4039514E-02  # mesh width of e-mesh points
       ne =    400          # number of e-mesh points
#    data = ( e(i), i = 1, ne + 1 )
#           1.00000E-02  1.02433E-02  1.04925E-02  1.07478E-02  1.10093E-02
#           1.12772E-02  1.15516E-02  1.18326E-02  1.21205E-02  1.24154E-02
#           1.27175E-02  1.30269E-02  1.33439E-02  1.36686E-02  1.40011E-02
#           1.43418E-02  1.46907E-02  1.50482E-02  1.54143E-02  1.57894E-02
#           1.61735E-02  1.65670E-02  1.69701E-02  1.73830E-02  1.78060E-02
#           1.82392E-02  1.86830E-02  1.91375E-02  1.96032E-02  2.00801E-02
#           2.05687E-02  2.10692E-02  2.15818E-02  2.21069E-02  2.26448E-02
#           2.31957E-02  2.37601E-02  2.43382E-02  2.49304E-02  2.55369E-02
#           2.61583E-02  2.67947E-02  2.74467E-02  2.81145E-02  2.87985E-02
#           2.94992E-02  3.02169E-02  3.09521E-02  3.17052E-02  3.24766E-02
#           3.32668E-02  3.40762E-02  3.49053E-02  3.57546E-02  3.66246E-02
#           3.75157E-02  3.84284E-02  3.93634E-02  4.03212E-02  4.13022E-02
#           4.23071E-02  4.33365E-02  4.43909E-02  4.54710E-02  4.65773E-02
#           4.77106E-02  4.88714E-02  5.00605E-02  5.12785E-02  5.25262E-02
#           5.38042E-02  5.51133E-02  5.64542E-02  5.78278E-02  5.92348E-02
#           6.06760E-02  6.21523E-02  6.36645E-02  6.52135E-02  6.68002E-02
#           6.84255E-02  7.00904E-02  7.17957E-02  7.35426E-02  7.53319E-02
#           7.71648E-02  7.90423E-02  8.09655E-02  8.29354E-02  8.49533E-02
#           8.70203E-02  8.91376E-02  9.13064E-02  9.35279E-02  9.58035E-02
#           9.81345E-02  1.00522E-01  1.02968E-01  1.05473E-01  1.08040E-01
#           1.10668E-01  1.13361E-01  1.16119E-01  1.18944E-01  1.21838E-01
#           1.24803E-01  1.27839E-01  1.30950E-01  1.34136E-01  1.37399E-01
#           1.40742E-01  1.44167E-01  1.47675E-01  1.51268E-01  1.54948E-01
#           1.58718E-01  1.62580E-01  1.66535E-01  1.70587E-01  1.74738E-01
#           1.78989E-01  1.83344E-01  1.87805E-01  1.92375E-01  1.97055E-01
#           2.01850E-01  2.06761E-01  2.11792E-01  2.16945E-01  2.22223E-01
#           2.27630E-01  2.33169E-01  2.38842E-01  2.44653E-01  2.50605E-01
#           2.56703E-01  2.62949E-01  2.69346E-01  2.75900E-01  2.82613E-01
#           2.89489E-01  2.96532E-01  3.03747E-01  3.11138E-01  3.18708E-01
#           3.26462E-01  3.34405E-01  3.42542E-01  3.50876E-01  3.59413E-01
#           3.68158E-01  3.77116E-01  3.86291E-01  3.95690E-01  4.05317E-01
#           4.15179E-01  4.25281E-01  4.35628E-01  4.46227E-01  4.57084E-01
#           4.68205E-01  4.79597E-01  4.91266E-01  5.03219E-01  5.15463E-01
#           5.28005E-01  5.40851E-01  5.54011E-01  5.67490E-01  5.81298E-01
#           5.95441E-01  6.09929E-01  6.24769E-01  6.39970E-01  6.55541E-01
#           6.71491E-01  6.87828E-01  7.04564E-01  7.21706E-01  7.39266E-01
#           7.57253E-01  7.75678E-01  7.94551E-01  8.13883E-01  8.33685E-01
#           8.53969E-01  8.74747E-01  8.96030E-01  9.17831E-01  9.40163E-01
#           9.63038E-01  9.86469E-01  1.01047E+00  1.03506E+00  1.06024E+00
#           1.08604E+00  1.11246E+00  1.13953E+00  1.16725E+00  1.19565E+00
#           1.22474E+00  1.25454E+00  1.28507E+00  1.31633E+00  1.34836E+00
#           1.38117E+00  1.41477E+00  1.44920E+00  1.48446E+00  1.52057E+00
#           1.55757E+00  1.59547E+00  1.63429E+00  1.67405E+00  1.71478E+00
#           1.75650E+00  1.79924E+00  1.84302E+00  1.88786E+00  1.93379E+00
#           1.98084E+00  2.02904E+00  2.07841E+00  2.12898E+00  2.18078E+00
#           2.23384E+00  2.28819E+00  2.34386E+00  2.40089E+00  2.45930E+00
#           2.51914E+00  2.58043E+00  2.64322E+00  2.70753E+00  2.77341E+00
#           2.84088E+00  2.91001E+00  2.98081E+00  3.05333E+00  3.12762E+00
#           3.20372E+00  3.28167E+00  3.36152E+00  3.44330E+00  3.52708E+00
#           3.61290E+00  3.70080E+00  3.79085E+00  3.88308E+00  3.97756E+00
#           4.07434E+00  4.17347E+00  4.27501E+00  4.37903E+00  4.48557E+00
#           4.59471E+00  4.70650E+00  4.82102E+00  4.93832E+00  5.05847E+00
#           5.18155E+00  5.30762E+00  5.43676E+00  5.56904E+00  5.70453E+00
#           5.84333E+00  5.98550E+00  6.13114E+00  6.28031E+00  6.43312E+00
#           6.58964E+00  6.74997E+00  6.91420E+00  7.08243E+00  7.25475E+00
#           7.43126E+00  7.61207E+00  7.79728E+00  7.98700E+00  8.18133E+00
#           8.38038E+00  8.58428E+00  8.79315E+00  9.00709E+00  9.22624E+00
#           9.45072E+00  9.68067E+00  9.91620E+00  1.01575E+01  1.04046E+01
#           1.06578E+01  1.09171E+01  1.11827E+01  1.14548E+01  1.17335E+01
#           1.20190E+01  1.23114E+01  1.26109E+01  1.29178E+01  1.32321E+01
#           1.35540E+01  1.38838E+01  1.42216E+01  1.45676E+01  1.49221E+01
#           1.52851E+01  1.56570E+01  1.60380E+01  1.64282E+01  1.68279E+01
#           1.72374E+01  1.76568E+01  1.80864E+01  1.85264E+01  1.89772E+01
#           1.94389E+01  1.99119E+01  2.03963E+01  2.08926E+01  2.14009E+01
#           2.19216E+01  2.24550E+01  2.30014E+01  2.35610E+01  2.41343E+01
#           2.47215E+01  2.53230E+01  2.59391E+01  2.65702E+01  2.72167E+01
#           2.78789E+01  2.85572E+01  2.92520E+01  2.99637E+01  3.06928E+01
#           3.14396E+01  3.22045E+01  3.29881E+01  3.37907E+01  3.46128E+01
#           3.54550E+01  3.63177E+01  3.72013E+01  3.81064E+01  3.90336E+01
#           3.99833E+01  4.09561E+01  4.19526E+01  4.29734E+01  4.40189E+01
#           4.50900E+01  4.61870E+01  4.73108E+01  4.84619E+01  4.96410E+01
#           5.08488E+01  5.20860E+01  5.33533E+01  5.46514E+01  5.59812E+01
#           5.73432E+01  5.87384E+01  6.01676E+01  6.16315E+01  6.31311E+01
#           6.46671E+01  6.62405E+01  6.78522E+01  6.95031E+01  7.11941E+01
#           7.29263E+01  7.47007E+01  7.65182E+01  7.83800E+01  8.02870E+01
#           8.22405E+01  8.42414E+01  8.62911E+01  8.83906E+01  9.05412E+01
#           9.27442E+01  9.50007E+01  9.73122E+01  9.96799E+01  1.02105E+02
#           1.04589E+02  1.07134E+02  1.09741E+02  1.12411E+02  1.15146E+02
#           1.17948E+02  1.20817E+02  1.23757E+02  1.26768E+02  1.29852E+02
#           1.33012E+02  1.36248E+02  1.39563E+02  1.42959E+02  1.46437E+02
#           1.50000E+02
     unit =    2            # unit is [1/cm^2/(MeV/n)/source]
     axis =  eng            # axis of output
     file = detector-01.out  # file name of output for the above axis
   output = f-curr          # surface crossing forward current spectrum
     part =  neutron  
# kf/name :  2112     
#    used :        main (  %)        temp (  %)       total (  %)
#  memory :         414 (  0)           0 (  0)         414 (  0)

#------------------------------------------------------------------------------
#newpage:
#   no. =    1   reg = 100 - 200

x: Energy [MeV/n]
y:  F-Curr [1/cm^2/(MeV/n)/source]         
p: xlog ylog afac(0.8) form(0.9)
h: n            x            y(neutron ),hh0l   n 
#  e-lower      e-upper      neutron     r.err 
   1.0000E-02   1.0243E-02   8.7338E-05  0.1529
   1.0243E-02   1.0493E-02   1.1736E-04  0.1305
   1.0493E-02   1.0748E-02   1.3710E-04  0.1195
   1.0748E-02   1.1009E-02   9.9425E-05  0.1387
   1.1009E-02   1.1277E-02   1.1946E-04  0.1250
   1.1277E-02   1.1552E-02   1.2597E-04  0.1202
   1.1552E-02   1.1833E-02   1.2720E-04  0.1181
   1.1833E-02   1.2121E-02   1.0278E-04  0.1298
   1.2121E-02   1.2415E-02   1.3225E-04  0.1132
   1.2415E-02   1.2718E-02   1.0759E-04  0.1240
   1.2718E-02   1.3027E-02   1.2604E-04  0.1132
   1.3027E-02   1.3344E-02   8.6763E-05  0.1348
   1.3344E-02   1.3669E-02   9.8562E-05  0.1250
   1.3669E-02   1.4001E-02   1.0148E-04  0.1215
   1.4001E-02   1.4342E-02   7.8750E-05  0.1360
   1.4342E-02   1.4691E-02   1.3067E-04  0.1046
   1.4691E-02   1.5048E-02   1.1121E-04  0.1120
   1.5048E-02   1.5414E-02   1.0242E-04  0.1155
   1.5414E-02   1.5789E-02   1.1065E-04  0.1098
   1.5789E-02   1.6174E-02   9.2609E-05  0.1184
   1.6174E-02   1.6567E-02   1.0038E-04  0.1125
   1.6567E-02   1.6970E-02   8.9546E-05  0.1176
   1.6970E-02   1.7383E-02   1.1344E-04  0.1031
   1.7383E-02   1.7806E-02   1.0087E-04  0.1081
   1.7806E-02   1.8239E-02   8.5981E-05  0.1157
   1.8239E-02   1.8683E-02   9.2389E-05  0.1104
   1.8683E-02   1.9138E-02   9.3495E-05  0.1085
   1.9138E-02   1.9603E-02   8.0536E-05  0.1155
   1.9603E-02   2.0080E-02   8.5961E-05  0.1104
   2.0080E-02   2.0569E-02   9.5374E-05  0.1035
   2.0569E-02   2.1069E-02   8.9919E-05  0.1054
   2.1069E-02   2.1582E-02   8.6807E-05  0.1060
   2.1582E-02   2.2107E-02   8.7747E-05  0.1041
   2.2107E-02   2.2645E-02   7.9191E-05  0.1082
   2.2645E-02   2.3196E-02   8.9281E-05  0.1007
   2.3196E-02   2.3760E-02   9.3347E-05  0.0973
   2.3760E-02   2.4338E-02   8.0436E-05  0.1037
   2.4338E-02   2.4930E-02   9.5412E-05  0.0941
   2.4930E-02   2.5537E-02   9.5619E-05  0.0928
   2.5537E-02   2.6158E-02   7.1620E-05  0.1060
   2.6158E-02   2.6795E-02   7.1099E-05  0.1046
   2.6795E-02   2.7447E-02   8.0529E-05  0.0974
   2.7447E-02   2.8114E-02   8.4232E-05  0.0942
   2.8114E-02   2.8799E-02   7.6857E-05  0.0975
   2.8799E-02   2.9499E-02   9.6334E-05  0.0861
   2.9499E-02   3.0217E-02   7.6630E-05  0.0953
   3.0217E-02   3.0952E-02   7.6639E-05  0.0940
   3.0952E-02   3.1705E-02   8.3791E-05  0.0890
   3.1705E-02   3.2477E-02   8.7042E-05  0.0862
   3.2477E-02   3.3267E-02   7.3401E-05  0.0928
   3.3267E-02   3.4076E-02   6.8260E-05  0.0950
   3.4076E-02   3.4905E-02   6.6720E-05  0.0947
   3.4905E-02   3.5755E-02   7.7806E-05  0.0869
   3.5755E-02   3.6625E-02   6.6848E-05  0.0926
   3.6625E-02   3.7516E-02   7.2382E-05  0.0880
   3.7516E-02   3.8428E-02   6.9293E-05  0.0888
   3.8428E-02   3.9363E-02   7.0856E-05  0.0868
   3.9363E-02   4.0321E-02   6.3513E-05  0.0905
   4.0321E-02   4.1302E-02   6.5746E-05  0.0879
   4.1302E-02   4.2307E-02   4.9755E-05  0.1000
   4.2307E-02   4.3337E-02   7.3346E-05  0.0812
   4.3337E-02   4.4391E-02   7.0078E-05  0.0821
   4.4391E-02   4.5471E-02   6.4116E-05  0.0849
   4.5471E-02   4.6577E-02   6.8243E-05  0.0814
   4.6577E-02   4.7711E-02   6.5739E-05  0.0819
   4.7711E-02   4.8871E-02   6.5255E-05  0.0812
   4.8871E-02   5.0061E-02   5.8238E-05  0.0849
   5.0061E-02   5.1279E-02   5.1724E-05  0.0891
   5.1279E-02   5.2526E-02   5.6294E-05  0.0843
   5.2526E-02   5.3804E-02   6.4760E-05  0.0775
   5.3804E-02   5.5113E-02   5.5244E-05  0.0830
   5.5113E-02   5.6454E-02   5.0337E-05  0.0861
   5.6454E-02   5.7828E-02   5.3214E-05  0.0827
   5.7828E-02   5.9235E-02   5.3305E-05  0.0815
   5.9235E-02   6.0676E-02   5.5278E-05  0.0792
   6.0676E-02   6.2152E-02   4.9991E-05  0.0822
   6.2152E-02   6.3665E-02   5.5548E-05  0.0772
   6.3665E-02   6.5214E-02   5.0032E-05  0.0803
   6.5214E-02   6.6800E-02   4.3014E-05  0.0855
   6.6800E-02   6.8426E-02   5.5008E-05  0.0747
   6.8426E-02   7.0090E-02   4.9603E-05  0.0778
   7.0090E-02   7.1796E-02   4.8377E-05  0.0778
   7.1796E-02   7.3543E-02   5.3777E-05  0.0728
   7.3543E-02   7.5332E-02   4.3824E-05  0.0797
   7.5332E-02   7.7165E-02   4.7466E-05  0.0757
   7.7165E-02   7.9042E-02   4.9442E-05  0.0733
   7.9042E-02   8.0965E-02   4.6444E-05  0.0747
   8.0965E-02   8.2935E-02   5.0971E-05  0.0704
   8.2935E-02   8.4953E-02   4.0923E-05  0.0777
   8.4953E-02   8.7020E-02   4.7979E-05  0.0710
   8.7020E-02   8.9138E-02   4.4432E-05  0.0729
   8.9138E-02   9.1306E-02   4.4077E-05  0.0722
   9.1306E-02   9.3528E-02   3.8975E-05  0.0760
   9.3528E-02   9.5804E-02   3.6693E-05  0.0774
   9.5804E-02   9.8134E-02   4.2835E-05  0.0706
   9.8134E-02   1.0052E-01   4.0694E-05  0.0717
   1.0052E-01   1.0297E-01   4.0784E-05  0.0708
   1.0297E-01   1.0547E-01   4.1013E-05  0.0697
   1.0547E-01   1.0804E-01   3.7754E-05  0.0717
   1.0804E-01   1.1067E-01   3.6929E-05  0.0717
   1.1067E-01   1.1336E-01   3.8097E-05  0.0697
   1.1336E-01   1.1612E-01   3.9454E-05  0.0677
   1.1612E-01   1.1894E-01   3.3004E-05  0.0730
   1.1894E-01   1.2184E-01   3.4196E-05  0.0709
   1.2184E-01   1.2480E-01   3.3413E-05  0.0709
   1.2480E-01   1.2784E-01   2.9584E-05  0.0745
   1.2784E-01   1.3095E-01   2.9442E-05  0.0739
   1.3095E-01   1.3414E-01   3.3634E-05  0.0683
   1.3414E-01   1.3740E-01   2.8778E-05  0.0729
   1.3740E-01   1.4074E-01   3.0287E-05  0.0702
   1.4074E-01   1.4417E-01   2.7282E-05  0.0731
   1.4417E-01   1.4767E-01   3.0576E-05  0.0682
   1.4767E-01   1.5127E-01   3.1311E-05  0.0667
   1.5127E-01   1.5495E-01   2.9994E-05  0.0672
   1.5495E-01   1.5872E-01   2.6301E-05  0.0710
   1.5872E-01   1.6258E-01   2.6996E-05  0.0692
   1.6258E-01   1.6654E-01   2.4935E-05  0.0711
   1.6654E-01   1.7059E-01   2.4309E-05  0.0712
   1.7059E-01   1.7474E-01   2.6178E-05  0.0678
   1.7474E-01   1.7899E-01   2.3403E-05  0.0709
   1.7899E-01   1.8334E-01   2.5253E-05  0.0673
   1.8334E-01   1.8781E-01   2.3461E-05  0.0691
   1.8781E-01   1.9237E-01   2.2886E-05  0.0691
   1.9237E-01   1.9706E-01   2.1492E-05  0.0705
   1.9706E-01   2.0185E-01   1.8903E-05  0.0741
   2.0185E-01   2.0676E-01   2.2837E-05  0.0667
   2.0676E-01   2.1179E-01   2.0687E-05  0.0692
   2.1179E-01   2.1694E-01   2.2338E-05  0.0658
   2.1694E-01   2.2222E-01   2.1792E-05  0.0658
   2.2222E-01   2.2763E-01   2.3689E-05  0.0625
   2.2763E-01   2.3317E-01   2.4447E-05  0.0606
   2.3317E-01   2.3884E-01   2.7174E-05  0.0569
   2.3884E-01   2.4465E-01   2.6974E-05  0.0565
   2.4465E-01   2.5061E-01   2.6926E-05  0.0557
   2.5061E-01   2.5670E-01   2.4956E-05  0.0573
   2.5670E-01   2.6295E-01   2.8283E-05  0.0531
   2.6295E-01   2.6935E-01   2.5515E-05  0.0553
   2.6935E-01   2.7590E-01   2.6858E-05  0.0532
   2.7590E-01   2.8261E-01   2.5656E-05  0.0538
   2.8261E-01   2.8949E-01   2.6116E-05  0.0528
   2.8949E-01   2.9653E-01   2.8698E-05  0.0496
   2.9653E-01   3.0375E-01   2.7479E-05  0.0502
   3.0375E-01   3.1114E-01   2.9317E-05  0.0480
   3.1114E-01   3.1871E-01   2.7370E-05  0.0490
   3.1871E-01   3.2646E-01   2.8608E-05  0.0474
   3.2646E-01   3.3441E-01   2.9667E-05  0.0460
   3.3441E-01   3.4254E-01   3.0454E-05  0.0448
   3.4254E-01   3.5088E-01   2.8742E-05  0.0457
   3.5088E-01   3.5941E-01   3.2440E-05  0.0424
   3.5941E-01   3.6816E-01   3.0136E-05  0.0435
   3.6816E-01   3.7712E-01   3.0397E-05  0.0428
   3.7712E-01   3.8629E-01   3.0849E-05  0.0420
   3.8629E-01   3.9569E-01   3.0590E-05  0.0416
   3.9569E-01   4.0532E-01   2.9982E-05  0.0415
   4.0532E-01   4.1518E-01   3.0048E-05  0.0410
   4.1518E-01   4.2528E-01   3.2737E-05  0.0389
   4.2528E-01   4.3563E-01   3.3797E-05  0.0378
   4.3563E-01   4.4623E-01   3.2469E-05  0.0381
   4.4623E-01   4.5708E-01   3.3259E-05  0.0372
   4.5708E-01   4.6821E-01   3.1310E-05  0.0379
   4.6821E-01   4.7960E-01   3.3486E-05  0.0362
   4.7960E-01   4.9127E-01   3.2858E-05  0.0360
   4.9127E-01   5.0322E-01   3.4312E-05  0.0349
   5.0322E-01   5.1546E-01   3.1703E-05  0.0359
   5.1546E-01   5.2800E-01   3.3490E-05  0.0344
   5.2800E-01   5.4085E-01   3.2542E-05  0.0345
   5.4085E-01   5.5401E-01   3.3934E-05  0.0334
   5.5401E-01   5.6749E-01   3.3012E-05  0.0335
   5.6749E-01   5.8130E-01   3.4338E-05  0.0324
   5.8130E-01   5.9544E-01   3.3723E-05  0.0323
   5.9544E-01   6.0993E-01   3.2006E-05  0.0328
   6.0993E-01   6.2477E-01   3.5577E-05  0.0307
   6.2477E-01   6.3997E-01   3.4192E-05  0.0310
   6.3997E-01   6.5554E-01   3.2996E-05  0.0312
   6.5554E-01   6.7149E-01   3.4018E-05  0.0303
   6.7149E-01   6.8783E-01   3.4353E-05  0.0298
   6.8783E-01   7.0456E-01   3.3308E-05  0.0299
   7.0456E-01   7.2171E-01   3.3998E-05  0.0292
   7.2171E-01   7.3927E-01   3.5364E-05  0.0283
   7.3927E-01   7.5725E-01   3.4335E-05  0.0284
   7.5725E-01   7.7568E-01   3.5061E-05  0.0278
   7.7568E-01   7.9455E-01   3.3659E-05  0.0280
   7.9455E-01   8.1388E-01   3.3589E-05  0.0277
   8.1388E-01   8.3368E-01   3.4993E-05  0.0268
   8.3368E-01   8.5397E-01   3.4157E-05  0.0268
   8.5397E-01   8.7475E-01   3.3131E-05  0.0269
   8.7475E-01   8.9603E-01   3.2864E-05  0.0267
   8.9603E-01   9.1783E-01   3.2867E-05  0.0264
   9.1783E-01   9.4016E-01   3.4558E-05  0.0254
   9.4016E-01   9.6304E-01   3.2448E-05  0.0259
   9.6304E-01   9.8647E-01   3.2144E-05  0.0257
   9.8647E-01   1.0105E+00   3.1368E-05  0.0257
   1.0105E+00   1.0351E+00   3.0702E-05  0.0257
   1.0351E+00   1.0602E+00   3.0880E-05  0.0253
   1.0602E+00   1.0860E+00   3.0338E-05  0.0252
   1.0860E+00   1.1125E+00   2.9254E-05  0.0254
   1.1125E+00   1.1395E+00   2.9141E-05  0.0251
   1.1395E+00   1.1673E+00   2.9049E-05  0.0249
   1.1673E+00   1.1957E+00   2.8998E-05  0.0246
   1.1957E+00   1.2247E+00   2.9882E-05  0.0239
   1.2247E+00   1.2545E+00   2.9649E-05  0.0237
   1.2545E+00   1.2851E+00   2.9973E-05  0.0233
   1.2851E+00   1.3163E+00   2.8392E-05  0.0237
   1.3163E+00   1.3484E+00   2.9030E-05  0.0231
   1.3484E+00   1.3812E+00   2.7268E-05  0.0236
   1.3812E+00   1.4148E+00   2.8754E-05  0.0227
   1.4148E+00   1.4492E+00   2.8377E-05  0.0226
   1.4492E+00   1.4845E+00   2.9402E-05  0.0219
   1.4845E+00   1.5206E+00   2.7432E-05  0.0224
   1.5206E+00   1.5576E+00   2.7639E-05  0.0221
   1.5576E+00   1.5955E+00   2.6713E-05  0.0222
   1.5955E+00   1.6343E+00   2.6611E-05  0.0220
   1.6343E+00   1.6741E+00   2.6595E-05  0.0217
   1.6741E+00   1.7148E+00   2.7110E-05  0.0212
   1.7148E+00   1.7565E+00   2.8121E-05  0.0206
   1.7565E+00   1.7992E+00   2.6679E-05  0.0209
   1.7992E+00   1.8430E+00   2.6658E-05  0.0207
   1.8430E+00   1.8879E+00   2.7339E-05  0.0202
   1.8879E+00   1.9338E+00   2.7122E-05  0.0200
   1.9338E+00   1.9808E+00   2.6196E-05  0.0201
   1.9808E+00   2.0290E+00   2.5788E-05  0.0200
   2.0290E+00   2.0784E+00   2.5123E-05  0.0200
   2.0784E+00   2.1290E+00   2.6089E-05  0.0194
   2.1290E+00   2.1808E+00   2.5023E-05  0.0196
   2.1808E+00   2.2338E+00   2.4684E-05  0.0195
   2.2338E+00   2.2882E+00   2.5183E-05  0.0191
   2.2882E+00   2.3439E+00   2.4092E-05  0.0193
   2.3439E+00   2.4009E+00   2.4659E-05  0.0188
   2.4009E+00   2.4593E+00   2.5077E-05  0.0184
   2.4593E+00   2.5191E+00   2.3905E-05  0.0187
   2.5191E+00   2.5804E+00   2.4590E-05  0.0182
   2.5804E+00   2.6432E+00   2.4473E-05  0.0180
   2.6432E+00   2.7075E+00   2.3961E-05  0.0180
   2.7075E+00   2.7734E+00   2.3473E-05  0.0180
   2.7734E+00   2.8409E+00   2.3036E-05  0.0179
   2.8409E+00   2.9100E+00   2.3128E-05  0.0177
   2.9100E+00   2.9808E+00   2.3235E-05  0.0174
   2.9808E+00   3.0533E+00   2.3575E-05  0.0171
   3.0533E+00   3.1276E+00   2.3095E-05  0.0170
   3.1276E+00   3.2037E+00   2.2599E-05  0.0170
   3.2037E+00   3.2817E+00   2.2779E-05  0.0167
   3.2817E+00   3.3615E+00   2.1985E-05  0.0168
   3.3615E+00   3.4433E+00   2.2376E-05  0.0165
   3.4433E+00   3.5271E+00   2.2211E-05  0.0164
   3.5271E+00   3.6129E+00   2.3126E-05  0.0159
   3.6129E+00   3.7008E+00   2.2584E-05  0.0158
   3.7008E+00   3.7908E+00   2.2131E-05  0.0158
   3.7908E+00   3.8831E+00   2.1998E-05  0.0157
   3.8831E+00   3.9776E+00   2.1193E-05  0.0158
   3.9776E+00   4.0743E+00   2.1844E-05  0.0154
   4.0743E+00   4.1735E+00   2.1843E-05  0.0152
   4.1735E+00   4.2750E+00   2.1635E-05  0.0151
   4.2750E+00   4.3790E+00   2.1031E-05  0.0151
   4.3790E+00   4.4856E+00   2.1342E-05  0.0148
   4.4856E+00   4.5947E+00   2.0746E-05  0.0148
   4.5947E+00   4.7065E+00   2.1337E-05  0.0145
   4.7065E+00   4.8210E+00   2.0926E-05  0.0144
   4.8210E+00   4.9383E+00   2.1606E-05  0.0140
   4.9383E+00   5.0585E+00   2.0794E-05  0.0141
   5.0585E+00   5.1815E+00   2.1521E-05  0.0137
   5.1815E+00   5.3076E+00   2.1187E-05  0.0137
   5.3076E+00   5.4368E+00   2.1125E-05  0.0135
   5.4368E+00   5.5690E+00   2.1039E-05  0.0134
   5.5690E+00   5.7045E+00   2.1055E-05  0.0132
   5.7045E+00   5.8433E+00   2.0924E-05  0.0131
   5.8433E+00   5.9855E+00   2.0781E-05  0.0130
   5.9855E+00   6.1311E+00   2.1004E-05  0.0128
   6.1311E+00   6.2803E+00   2.0567E-05  0.0128
   6.2803E+00   6.4331E+00   2.0692E-05  0.0126
   6.4331E+00   6.5896E+00   2.0929E-05  0.0123
   6.5896E+00   6.7500E+00   2.0944E-05  0.0122
   6.7500E+00   6.9142E+00   2.0597E-05  0.0122
   6.9142E+00   7.0824E+00   2.0864E-05  0.0119
   7.0824E+00   7.2548E+00   2.1190E-05  0.0117
   7.2548E+00   7.4313E+00   2.1065E-05  0.0116
   7.4313E+00   7.6121E+00   2.1437E-05  0.0114
   7.6121E+00   7.7973E+00   2.1017E-05  0.0113
   7.7973E+00   7.9870E+00   2.1448E-05  0.0111
   7.9870E+00   8.1813E+00   2.1285E-05  0.0110
   8.1813E+00   8.3804E+00   2.1318E-05  0.0108
   8.3804E+00   8.5843E+00   2.2113E-05  0.0105
   8.5843E+00   8.7931E+00   2.1770E-05  0.0105
   8.7931E+00   9.0071E+00   2.2082E-05  0.0103
   9.0071E+00   9.2262E+00   2.2933E-05  0.0100
   9.2262E+00   9.4507E+00   2.2829E-05  0.0099
   9.4507E+00   9.6807E+00   2.2940E-05  0.0097
   9.6807E+00   9.9162E+00   2.2816E-05  0.0096
   9.9162E+00   1.0157E+01   2.3927E-05  0.0093
   1.0157E+01   1.0405E+01   2.4041E-05  0.0092
   1.0405E+01   1.0658E+01   2.4662E-05  0.0089
   1.0658E+01   1.0917E+01   2.4772E-05  0.0088
   1.0917E+01   1.1183E+01   2.5375E-05  0.0086
   1.1183E+01   1.1455E+01   2.6088E-05  0.0084
   1.1455E+01   1.1733E+01   2.6864E-05  0.0082
   1.1733E+01   1.2019E+01   2.6990E-05  0.0081
   1.2019E+01   1.2311E+01   2.7551E-05  0.0079
   1.2311E+01   1.2611E+01   2.8756E-05  0.0076
   1.2611E+01   1.2918E+01   2.9092E-05  0.0075
   1.2918E+01   1.3232E+01   2.9965E-05  0.0073
   1.3232E+01   1.3554E+01   3.0439E-05  0.0071
   1.3554E+01   1.3884E+01   3.1241E-05  0.0070
   1.3884E+01   1.4222E+01   3.2821E-05  0.0067
   1.4222E+01   1.4568E+01   3.3019E-05  0.0066
   1.4568E+01   1.4922E+01   3.5071E-05  0.0063
   1.4922E+01   1.5285E+01   3.5629E-05  0.0062
   1.5285E+01   1.5657E+01   3.7345E-05  0.0060
   1.5657E+01   1.6038E+01   3.8173E-05  0.0059
   1.6038E+01   1.6428E+01   4.0006E-05  0.0057
   1.6428E+01   1.6828E+01   4.1587E-05  0.0055
   1.6828E+01   1.7237E+01   4.2930E-05  0.0053
   1.7237E+01   1.7657E+01   4.4930E-05  0.0052
   1.7657E+01   1.8086E+01   4.6354E-05  0.0050
   1.8086E+01   1.8526E+01   4.8479E-05  0.0048
   1.8526E+01   1.8977E+01   5.0298E-05  0.0047
   1.8977E+01   1.9439E+01   5.3298E-05  0.0045
   1.9439E+01   1.9912E+01   5.4957E-05  0.0044
   1.9912E+01   2.0396E+01   5.8258E-05  0.0042
   2.0396E+01   2.0893E+01   6.1128E-05  0.0041
   2.0893E+01   2.1401E+01   6.4079E-05  0.0039
   2.1401E+01   2.1922E+01   6.6963E-05  0.0038
   2.1922E+01   2.2455E+01   7.1220E-05  0.0036
   2.2455E+01   2.3001E+01   7.4323E-05  0.0035
   2.3001E+01   2.3561E+01   7.8437E-05  0.0034
   2.3561E+01   2.4134E+01   8.2021E-05  0.0033
   2.4134E+01   2.4721E+01   8.5845E-05  0.0031
   2.4721E+01   2.5323E+01   9.0797E-05  0.0030
   2.5323E+01   2.5939E+01   9.5160E-05  0.0029
   2.5939E+01   2.6570E+01   1.0049E-04  0.0028
   2.6570E+01   2.7217E+01   1.0415E-04  0.0027
   2.7217E+01   2.7879E+01   1.0939E-04  0.0026
   2.7879E+01   2.8557E+01   1.1369E-04  0.0025
   2.8557E+01   2.9252E+01   1.1865E-04  0.0025
   2.9252E+01   2.9964E+01   1.2183E-04  0.0024
   2.9964E+01   3.0693E+01   1.2564E-04  0.0023
   3.0693E+01   3.1440E+01   1.2863E-04  0.0023
   3.1440E+01   3.2205E+01   1.2969E-04  0.0022
   3.2205E+01   3.2988E+01   1.3090E-04  0.0022
   3.2988E+01   3.3791E+01   1.3165E-04  0.0022
   3.3791E+01   3.4613E+01   1.3094E-04  0.0022
   3.4613E+01   3.5455E+01   1.2947E-04  0.0021
   3.5455E+01   3.6318E+01   1.2645E-04  0.0021
   3.6318E+01   3.7201E+01   1.2248E-04  0.0021
   3.7201E+01   3.8106E+01   1.1830E-04  0.0022
   3.8106E+01   3.9034E+01   1.1289E-04  0.0022
   3.9034E+01   3.9983E+01   1.0598E-04  0.0022
   3.9983E+01   4.0956E+01   9.9124E-05  0.0023
   4.0956E+01   4.1953E+01   9.1553E-05  0.0023
   4.1953E+01   4.2973E+01   8.4067E-05  0.0024
   4.2973E+01   4.4019E+01   7.6769E-05  0.0025
   4.4019E+01   4.5090E+01   6.9048E-05  0.0026
   4.5090E+01   4.6187E+01   6.2134E-05  0.0027
   4.6187E+01   4.7311E+01   5.4549E-05  0.0029
   4.7311E+01   4.8462E+01   4.8620E-05  0.0030
   4.8462E+01   4.9641E+01   4.2705E-05  0.0032
   4.9641E+01   5.0849E+01   3.7480E-05  0.0033
   5.0849E+01   5.2086E+01   3.2821E-05  0.0035
   5.2086E+01   5.3353E+01   2.8576E-05  0.0037
   5.3353E+01   5.4651E+01   2.4971E-05  0.0039
   5.4651E+01   5.5981E+01   2.1904E-05  0.0041
   5.5981E+01   5.7343E+01   1.9208E-05  0.0044
   5.7343E+01   5.8738E+01   1.7042E-05  0.0046
   5.8738E+01   6.0168E+01   1.4947E-05  0.0048
   6.0168E+01   6.1632E+01   1.3137E-05  0.0051
   6.1632E+01   6.3131E+01   1.1546E-05  0.0054
   6.3131E+01   6.4667E+01   1.0352E-05  0.0056
   6.4667E+01   6.6240E+01   9.2662E-06  0.0059
   6.6240E+01   6.7852E+01   8.4077E-06  0.0061
   6.7852E+01   6.9503E+01   7.8818E-06  0.0062
   6.9503E+01   7.1194E+01   6.9468E-06  0.0065
   7.1194E+01   7.2926E+01   6.3546E-06  0.0067
   7.2926E+01   7.4701E+01   5.6065E-06  0.0071
   7.4701E+01   7.6518E+01   4.9102E-06  0.0075
   7.6518E+01   7.8380E+01   4.3169E-06  0.0079
   7.8380E+01   8.0287E+01   3.6480E-06  0.0085
   8.0287E+01   8.2240E+01   2.9581E-06  0.0093
   8.2240E+01   8.4241E+01   2.5050E-06  0.0100
   8.4241E+01   8.6291E+01   2.0289E-06  0.0110
   8.6291E+01   8.8391E+01   1.5332E-06  0.0125
   8.8391E+01   9.0541E+01   9.9065E-07  0.0153
   9.0541E+01   9.2744E+01   4.2352E-07  0.0231
   9.2744E+01   9.5001E+01   1.2298E-07  0.0424
   9.5001E+01   9.7312E+01   8.0037E-09  0.1644
   9.7312E+01   9.9680E+01   0.0000E+00  0.0000
   9.9680E+01   1.0211E+02   0.0000E+00  0.0000
   1.0211E+02   1.0459E+02   0.0000E+00  0.0000
   1.0459E+02   1.0713E+02   0.0000E+00  0.0000
   1.0713E+02   1.0974E+02   0.0000E+00  0.0000
   1.0974E+02   1.1241E+02   0.0000E+00  0.0000
   1.1241E+02   1.1515E+02   0.0000E+00  0.0000
   1.1515E+02   1.1795E+02   0.0000E+00  0.0000
   1.1795E+02   1.2082E+02   0.0000E+00  0.0000
   1.2082E+02   1.2376E+02   0.0000E+00  0.0000
   1.2376E+02   1.2677E+02   0.0000E+00  0.0000
   1.2677E+02   1.2985E+02   0.0000E+00  0.0000
   1.2985E+02   1.3301E+02   0.0000E+00  0.0000
   1.3301E+02   1.3625E+02   0.0000E+00  0.0000
   1.3625E+02   1.3956E+02   0.0000E+00  0.0000
   1.3956E+02   1.4296E+02   0.0000E+00  0.0000
   1.4296E+02   1.4644E+02   0.0000E+00  0.0000
   1.4644E+02   1.5000E+02   0.0000E+00  0.0000

#   sum over                 2.5630E-05
'no. =    1   reg = 100 - 200'
msuc: {\huge [t-cross] in region mesh}
msdr: {\it plotted by \ANGEL \version}
msdl: {\it calculated by \PHITS  3.26}
wt: s(0.7)
\vspace{-3}
  region surface crossing
  area  &=&   1.0000E+00 [cm^2]
e:
 
# Information for Restart Calculation
# This calculation was newly started
# istdev =  2 # 1:Batch variance, 2:History variance
# resc2  = 2.00000000000000000E+09 # Total source weight or Total source weight / maxcas
# resc3  = 2.00000000000000000E+09 # Total history number or Total batch number
# maxcas =   500000000 # History / Batch, only used for istdev=1
# bitrseed = 0011011010010000100111110110001101100001010011100000011100000110 # bit data of rseed
