[ T-Cross ]
    title = [t-cross] in region mesh
     mesh =  reg            # mesh type is region-wise
      reg =    1            # number of crossing regions
      non     r-from    r-to       area
      1       114       214        1.000000    
   e-type =    3            # e-mesh is log given by emin, emax and ne
     emin =  1.0000000E-02  # minimum value of e-mesh points
     emax =   150.0000      # maximum value of e-mesh points
#    edel =  2.4039514E-02  # mesh width of e-mesh points
       ne =    400          # number of e-mesh points
#    data = ( e(i), i = 1, ne + 1 )
#           1.00000E-02  1.02433E-02  1.04925E-02  1.07478E-02  1.10093E-02
#           1.12772E-02  1.15516E-02  1.18326E-02  1.21205E-02  1.24154E-02
#           1.27175E-02  1.30269E-02  1.33439E-02  1.36686E-02  1.40011E-02
#           1.43418E-02  1.46907E-02  1.50482E-02  1.54143E-02  1.57894E-02
#           1.61735E-02  1.65670E-02  1.69701E-02  1.73830E-02  1.78060E-02
#           1.82392E-02  1.86830E-02  1.91375E-02  1.96032E-02  2.00801E-02
#           2.05687E-02  2.10692E-02  2.15818E-02  2.21069E-02  2.26448E-02
#           2.31957E-02  2.37601E-02  2.43382E-02  2.49304E-02  2.55369E-02
#           2.61583E-02  2.67947E-02  2.74467E-02  2.81145E-02  2.87985E-02
#           2.94992E-02  3.02169E-02  3.09521E-02  3.17052E-02  3.24766E-02
#           3.32668E-02  3.40762E-02  3.49053E-02  3.57546E-02  3.66246E-02
#           3.75157E-02  3.84284E-02  3.93634E-02  4.03212E-02  4.13022E-02
#           4.23071E-02  4.33365E-02  4.43909E-02  4.54710E-02  4.65773E-02
#           4.77106E-02  4.88714E-02  5.00605E-02  5.12785E-02  5.25262E-02
#           5.38042E-02  5.51133E-02  5.64542E-02  5.78278E-02  5.92348E-02
#           6.06760E-02  6.21523E-02  6.36645E-02  6.52135E-02  6.68002E-02
#           6.84255E-02  7.00904E-02  7.17957E-02  7.35426E-02  7.53319E-02
#           7.71648E-02  7.90423E-02  8.09655E-02  8.29354E-02  8.49533E-02
#           8.70203E-02  8.91376E-02  9.13064E-02  9.35279E-02  9.58035E-02
#           9.81345E-02  1.00522E-01  1.02968E-01  1.05473E-01  1.08040E-01
#           1.10668E-01  1.13361E-01  1.16119E-01  1.18944E-01  1.21838E-01
#           1.24803E-01  1.27839E-01  1.30950E-01  1.34136E-01  1.37399E-01
#           1.40742E-01  1.44167E-01  1.47675E-01  1.51268E-01  1.54948E-01
#           1.58718E-01  1.62580E-01  1.66535E-01  1.70587E-01  1.74738E-01
#           1.78989E-01  1.83344E-01  1.87805E-01  1.92375E-01  1.97055E-01
#           2.01850E-01  2.06761E-01  2.11792E-01  2.16945E-01  2.22223E-01
#           2.27630E-01  2.33169E-01  2.38842E-01  2.44653E-01  2.50605E-01
#           2.56703E-01  2.62949E-01  2.69346E-01  2.75900E-01  2.82613E-01
#           2.89489E-01  2.96532E-01  3.03747E-01  3.11138E-01  3.18708E-01
#           3.26462E-01  3.34405E-01  3.42542E-01  3.50876E-01  3.59413E-01
#           3.68158E-01  3.77116E-01  3.86291E-01  3.95690E-01  4.05317E-01
#           4.15179E-01  4.25281E-01  4.35628E-01  4.46227E-01  4.57084E-01
#           4.68205E-01  4.79597E-01  4.91266E-01  5.03219E-01  5.15463E-01
#           5.28005E-01  5.40851E-01  5.54011E-01  5.67490E-01  5.81298E-01
#           5.95441E-01  6.09929E-01  6.24769E-01  6.39970E-01  6.55541E-01
#           6.71491E-01  6.87828E-01  7.04564E-01  7.21706E-01  7.39266E-01
#           7.57253E-01  7.75678E-01  7.94551E-01  8.13883E-01  8.33685E-01
#           8.53969E-01  8.74747E-01  8.96030E-01  9.17831E-01  9.40163E-01
#           9.63038E-01  9.86469E-01  1.01047E+00  1.03506E+00  1.06024E+00
#           1.08604E+00  1.11246E+00  1.13953E+00  1.16725E+00  1.19565E+00
#           1.22474E+00  1.25454E+00  1.28507E+00  1.31633E+00  1.34836E+00
#           1.38117E+00  1.41477E+00  1.44920E+00  1.48446E+00  1.52057E+00
#           1.55757E+00  1.59547E+00  1.63429E+00  1.67405E+00  1.71478E+00
#           1.75650E+00  1.79924E+00  1.84302E+00  1.88786E+00  1.93379E+00
#           1.98084E+00  2.02904E+00  2.07841E+00  2.12898E+00  2.18078E+00
#           2.23384E+00  2.28819E+00  2.34386E+00  2.40089E+00  2.45930E+00
#           2.51914E+00  2.58043E+00  2.64322E+00  2.70753E+00  2.77341E+00
#           2.84088E+00  2.91001E+00  2.98081E+00  3.05333E+00  3.12762E+00
#           3.20372E+00  3.28167E+00  3.36152E+00  3.44330E+00  3.52708E+00
#           3.61290E+00  3.70080E+00  3.79085E+00  3.88308E+00  3.97756E+00
#           4.07434E+00  4.17347E+00  4.27501E+00  4.37903E+00  4.48557E+00
#           4.59471E+00  4.70650E+00  4.82102E+00  4.93832E+00  5.05847E+00
#           5.18155E+00  5.30762E+00  5.43676E+00  5.56904E+00  5.70453E+00
#           5.84333E+00  5.98550E+00  6.13114E+00  6.28031E+00  6.43312E+00
#           6.58964E+00  6.74997E+00  6.91420E+00  7.08243E+00  7.25475E+00
#           7.43126E+00  7.61207E+00  7.79728E+00  7.98700E+00  8.18133E+00
#           8.38038E+00  8.58428E+00  8.79315E+00  9.00709E+00  9.22624E+00
#           9.45072E+00  9.68067E+00  9.91620E+00  1.01575E+01  1.04046E+01
#           1.06578E+01  1.09171E+01  1.11827E+01  1.14548E+01  1.17335E+01
#           1.20190E+01  1.23114E+01  1.26109E+01  1.29178E+01  1.32321E+01
#           1.35540E+01  1.38838E+01  1.42216E+01  1.45676E+01  1.49221E+01
#           1.52851E+01  1.56570E+01  1.60380E+01  1.64282E+01  1.68279E+01
#           1.72374E+01  1.76568E+01  1.80864E+01  1.85264E+01  1.89772E+01
#           1.94389E+01  1.99119E+01  2.03963E+01  2.08926E+01  2.14009E+01
#           2.19216E+01  2.24550E+01  2.30014E+01  2.35610E+01  2.41343E+01
#           2.47215E+01  2.53230E+01  2.59391E+01  2.65702E+01  2.72167E+01
#           2.78789E+01  2.85572E+01  2.92520E+01  2.99637E+01  3.06928E+01
#           3.14396E+01  3.22045E+01  3.29881E+01  3.37907E+01  3.46128E+01
#           3.54550E+01  3.63177E+01  3.72013E+01  3.81064E+01  3.90336E+01
#           3.99833E+01  4.09561E+01  4.19526E+01  4.29734E+01  4.40189E+01
#           4.50900E+01  4.61870E+01  4.73108E+01  4.84619E+01  4.96410E+01
#           5.08488E+01  5.20860E+01  5.33533E+01  5.46514E+01  5.59812E+01
#           5.73432E+01  5.87384E+01  6.01676E+01  6.16315E+01  6.31311E+01
#           6.46671E+01  6.62405E+01  6.78522E+01  6.95031E+01  7.11941E+01
#           7.29263E+01  7.47007E+01  7.65182E+01  7.83800E+01  8.02870E+01
#           8.22405E+01  8.42414E+01  8.62911E+01  8.83906E+01  9.05412E+01
#           9.27442E+01  9.50007E+01  9.73122E+01  9.96799E+01  1.02105E+02
#           1.04589E+02  1.07134E+02  1.09741E+02  1.12411E+02  1.15146E+02
#           1.17948E+02  1.20817E+02  1.23757E+02  1.26768E+02  1.29852E+02
#           1.33012E+02  1.36248E+02  1.39563E+02  1.42959E+02  1.46437E+02
#           1.50000E+02
     unit =    2            # unit is [1/cm^2/(MeV/n)/source]
     axis =  eng            # axis of output
     file = detector-15.out  # file name of output for the above axis
   output = f-curr          # surface crossing forward current spectrum
     part =  neutron  
# kf/name :  2112     
#    used :        main (  %)        temp (  %)       total (  %)
#  memory :         414 (  0)           0 (  0)         414 (  0)

#------------------------------------------------------------------------------
#newpage:
#   no. =    1   reg = 114 - 214

x: Energy [MeV/n]
y:  F-Curr [1/cm^2/(MeV/n)/source]         
p: xlog ylog afac(0.8) form(0.9)
h: n            x            y(neutron ),hh0l   n 
#  e-lower      e-upper      neutron     r.err 
   1.0000E-02   1.0243E-02   1.1234E-04  0.1562
   1.0243E-02   1.0493E-02   1.4712E-04  0.1348
   1.0493E-02   1.0748E-02   1.3360E-04  0.1396
   1.0748E-02   1.1009E-02   1.5617E-04  0.1276
   1.1009E-02   1.1277E-02   1.1697E-04  0.1459
   1.1277E-02   1.1552E-02   1.5371E-04  0.1255
   1.1552E-02   1.1833E-02   1.3793E-04  0.1310
   1.1833E-02   1.2121E-02   1.0884E-04  0.1459
   1.2121E-02   1.2415E-02   1.5146E-04  0.1222
   1.2415E-02   1.2718E-02   1.3904E-04  0.1260
   1.2718E-02   1.3027E-02   1.6408E-04  0.1145
   1.3027E-02   1.3344E-02   1.4303E-04  0.1213
   1.3344E-02   1.3669E-02   1.3963E-04  0.1213
   1.3669E-02   1.4001E-02   1.2655E-04  0.1257
   1.4001E-02   1.4342E-02   1.0763E-04  0.1348
   1.4342E-02   1.4691E-02   1.0508E-04  0.1348
   1.4691E-02   1.5048E-02   1.5947E-04  0.1080
   1.5048E-02   1.5414E-02   1.2746E-04  0.1195
   1.5414E-02   1.5789E-02   1.4754E-04  0.1098
   1.5789E-02   1.6174E-02   1.2495E-04  0.1179
   1.6174E-02   1.6567E-02   1.3722E-04  0.1111
   1.6567E-02   1.6970E-02   1.4885E-04  0.1054
   1.6970E-02   1.7383E-02   1.3724E-04  0.1085
   1.7383E-02   1.7806E-02   1.2328E-04  0.1130
   1.7806E-02   1.8239E-02   1.4465E-04  0.1031
   1.8239E-02   1.8683E-02   1.1417E-04  0.1147
   1.8683E-02   1.9138E-02   1.4260E-04  0.1013
   1.9138E-02   1.9603E-02   1.1492E-04  0.1115
   1.9603E-02   2.0080E-02   1.2021E-04  0.1078
   2.0080E-02   2.0569E-02   1.0916E-04  0.1118
   2.0569E-02   2.1069E-02   1.4520E-04  0.0958
   2.1069E-02   2.1582E-02   1.2514E-04  0.1018
   2.1582E-02   2.2107E-02   1.3585E-04  0.0967
   2.2107E-02   2.2645E-02   1.2418E-04  0.0998
   2.2645E-02   2.3196E-02   1.0701E-04  0.1061
   2.3196E-02   2.3760E-02   1.2403E-04  0.0976
   2.3760E-02   2.4338E-02   1.3466E-04  0.0924
   2.4338E-02   2.4930E-02   1.1483E-04  0.0990
   2.4930E-02   2.5537E-02   1.3108E-04  0.0915
   2.5537E-02   2.6158E-02   1.0944E-04  0.0990
   2.6158E-02   2.6795E-02   1.2465E-04  0.0917
   2.6795E-02   2.7447E-02   1.1673E-04  0.0935
   2.7447E-02   2.8114E-02   1.1805E-04  0.0919
   2.8114E-02   2.8799E-02   1.2962E-04  0.0867
   2.8799E-02   2.9499E-02   1.2294E-04  0.0879
   2.9499E-02   3.0217E-02   1.3004E-04  0.0845
   3.0217E-02   3.0952E-02   1.2060E-04  0.0867
   3.0952E-02   3.1705E-02   9.3836E-05  0.0971
   3.1705E-02   3.2477E-02   1.3416E-04  0.0802
   3.2477E-02   3.3267E-02   1.2149E-04  0.0833
   3.3267E-02   3.4076E-02   1.1223E-04  0.0854
   3.4076E-02   3.4905E-02   1.2061E-04  0.0816
   3.4905E-02   3.5755E-02   9.7338E-05  0.0898
   3.5755E-02   3.6625E-02   1.1189E-04  0.0828
   3.6625E-02   3.7516E-02   1.1185E-04  0.0817
   3.7516E-02   3.8428E-02   1.0079E-04  0.0851
   3.8428E-02   3.9363E-02   1.2549E-04  0.0754
   3.9363E-02   4.0321E-02   1.1082E-04  0.0792
   4.0321E-02   4.1302E-02   9.2532E-05  0.0857
   4.1302E-02   4.2307E-02   1.0324E-04  0.0800
   4.2307E-02   4.3337E-02   1.1819E-04  0.0740
   4.3337E-02   4.4391E-02   1.1458E-04  0.0742
   4.4391E-02   4.5471E-02   1.1243E-04  0.0741
   4.5471E-02   4.6577E-02   9.9426E-05  0.0778
   4.6577E-02   4.7711E-02   1.1383E-04  0.0718
   4.7711E-02   4.8871E-02   1.0768E-04  0.0730
   4.8871E-02   5.0061E-02   1.1165E-04  0.0708
   5.0061E-02   5.1279E-02   1.0509E-04  0.0722
   5.1279E-02   5.2526E-02   1.0270E-04  0.0721
   5.2526E-02   5.3804E-02   1.0485E-04  0.0705
   5.3804E-02   5.5113E-02   9.4918E-05  0.0732
   5.5113E-02   5.6454E-02   1.1509E-04  0.0657
   5.6454E-02   5.7828E-02   1.0054E-04  0.0695
   5.7828E-02   5.9235E-02   9.6072E-05  0.0702
   5.9235E-02   6.0676E-02   9.1713E-05  0.0710
   6.0676E-02   6.2152E-02   1.1387E-04  0.0630
   6.2152E-02   6.3665E-02   9.2669E-05  0.0689
   6.3665E-02   6.5214E-02   1.0114E-04  0.0652
   6.5214E-02   6.6800E-02   9.2093E-05  0.0675
   6.6800E-02   6.8426E-02   9.4117E-05  0.0660
   6.8426E-02   7.0090E-02   9.0242E-05  0.0666
   7.0090E-02   7.1796E-02   8.4049E-05  0.0682
   7.1796E-02   7.3543E-02   1.0009E-04  0.0617
   7.3543E-02   7.5332E-02   9.5435E-05  0.0624
   7.5332E-02   7.7165E-02   8.9113E-05  0.0639
   7.7165E-02   7.9042E-02   8.9953E-05  0.0628
   7.9042E-02   8.0965E-02   9.2209E-05  0.0613
   8.0965E-02   8.2935E-02   9.1711E-05  0.0607
   8.2935E-02   8.4953E-02   8.5568E-05  0.0621
   8.4953E-02   8.7020E-02   8.6643E-05  0.0610
   8.7020E-02   8.9138E-02   9.0265E-05  0.0590
   8.9138E-02   9.1306E-02   8.9654E-05  0.0585
   9.1306E-02   9.3528E-02   8.5984E-05  0.0590
   9.3528E-02   9.5804E-02   8.1131E-05  0.0600
   9.5804E-02   9.8134E-02   7.1006E-05  0.0634
   9.8134E-02   1.0052E-01   7.0576E-05  0.0628
   1.0052E-01   1.0297E-01   8.0075E-05  0.0583
   1.0297E-01   1.0547E-01   7.1948E-05  0.0608
   1.0547E-01   1.0804E-01   7.2220E-05  0.0600
   1.0804E-01   1.1067E-01   7.9634E-05  0.0564
   1.1067E-01   1.1336E-01   7.1963E-05  0.0586
   1.1336E-01   1.1612E-01   6.4711E-05  0.0611
   1.1612E-01   1.1894E-01   6.7058E-05  0.0593
   1.1894E-01   1.2184E-01   7.1856E-05  0.0566
   1.2184E-01   1.2480E-01   6.4674E-05  0.0589
   1.2480E-01   1.2784E-01   6.5018E-05  0.0581
   1.2784E-01   1.3095E-01   6.5907E-05  0.0570
   1.3095E-01   1.3414E-01   5.9478E-05  0.0593
   1.3414E-01   1.3740E-01   6.8870E-05  0.0545
   1.3740E-01   1.4074E-01   6.2418E-05  0.0565
   1.4074E-01   1.4417E-01   6.2298E-05  0.0559
   1.4417E-01   1.4767E-01   6.0439E-05  0.0561
   1.4767E-01   1.5127E-01   5.8658E-05  0.0562
   1.5127E-01   1.5495E-01   5.2711E-05  0.0586
   1.5495E-01   1.5872E-01   6.3876E-05  0.0526
   1.5872E-01   1.6258E-01   5.1557E-05  0.0578
   1.6258E-01   1.6654E-01   5.2268E-05  0.0567
   1.6654E-01   1.7059E-01   5.6971E-05  0.0537
   1.7059E-01   1.7474E-01   5.6009E-05  0.0535
   1.7474E-01   1.7899E-01   4.7225E-05  0.0576
   1.7899E-01   1.8334E-01   4.7569E-05  0.0567
   1.8334E-01   1.8781E-01   4.2773E-05  0.0591
   1.8781E-01   1.9237E-01   4.1905E-05  0.0590
   1.9237E-01   1.9706E-01   4.3076E-05  0.0575
   1.9706E-01   2.0185E-01   4.1093E-05  0.0581
   2.0185E-01   2.0676E-01   4.3574E-05  0.0558
   2.0676E-01   2.1179E-01   4.3370E-05  0.0553
   2.1179E-01   2.1694E-01   4.1429E-05  0.0559
   2.1694E-01   2.2222E-01   4.5973E-05  0.0524
   2.2222E-01   2.2763E-01   4.6166E-05  0.0517
   2.2763E-01   2.3317E-01   4.8107E-05  0.0500
   2.3317E-01   2.3884E-01   4.4817E-05  0.0512
   2.3884E-01   2.4465E-01   4.6175E-05  0.0498
   2.4465E-01   2.5061E-01   5.0390E-05  0.0471
   2.5061E-01   2.5670E-01   4.8555E-05  0.0474
   2.5670E-01   2.6295E-01   5.2638E-05  0.0450
   2.6295E-01   2.6935E-01   5.3991E-05  0.0439
   2.6935E-01   2.7590E-01   6.2648E-05  0.0403
   2.7590E-01   2.8261E-01   5.6408E-05  0.0419
   2.8261E-01   2.8949E-01   5.4529E-05  0.0421
   2.8949E-01   2.9653E-01   6.0481E-05  0.0395
   2.9653E-01   3.0375E-01   6.3028E-05  0.0383
   3.0375E-01   3.1114E-01   6.3153E-05  0.0378
   3.1114E-01   3.1871E-01   6.2865E-05  0.0374
   3.1871E-01   3.2646E-01   6.4204E-05  0.0366
   3.2646E-01   3.3441E-01   6.8812E-05  0.0349
   3.3441E-01   3.4254E-01   6.8711E-05  0.0345
   3.4254E-01   3.5088E-01   7.2432E-05  0.0332
   3.5088E-01   3.5941E-01   7.8143E-05  0.0316
   3.5941E-01   3.6816E-01   6.8082E-05  0.0334
   3.6816E-01   3.7712E-01   7.8154E-05  0.0308
   3.7712E-01   3.8629E-01   7.8620E-05  0.0304
   3.8629E-01   3.9569E-01   7.8588E-05  0.0300
   3.9569E-01   4.0532E-01   8.2662E-05  0.0289
   4.0532E-01   4.1518E-01   8.0432E-05  0.0290
   4.1518E-01   4.2528E-01   8.4738E-05  0.0279
   4.2528E-01   4.3563E-01   8.7447E-05  0.0271
   4.3563E-01   4.4623E-01   9.1888E-05  0.0261
   4.4623E-01   4.5708E-01   9.0262E-05  0.0261
   4.5708E-01   4.6821E-01   9.2515E-05  0.0254
   4.6821E-01   4.7960E-01   9.6428E-05  0.0246
   4.7960E-01   4.9127E-01   9.9891E-05  0.0239
   4.9127E-01   5.0322E-01   1.0351E-04  0.0232
   5.0322E-01   5.1546E-01   1.0235E-04  0.0231
   5.1546E-01   5.2800E-01   1.0301E-04  0.0227
   5.2800E-01   5.4085E-01   1.0925E-04  0.0218
   5.4085E-01   5.5401E-01   1.0731E-04  0.0217
   5.5401E-01   5.6749E-01   1.1218E-04  0.0210
   5.6749E-01   5.8130E-01   1.1651E-04  0.0203
   5.8130E-01   5.9544E-01   1.1610E-04  0.0201
   5.9544E-01   6.0993E-01   1.1695E-04  0.0198
   6.0993E-01   6.2477E-01   1.2525E-04  0.0189
   6.2477E-01   6.3997E-01   1.2802E-04  0.0185
   6.3997E-01   6.5554E-01   1.2485E-04  0.0185
   6.5554E-01   6.7149E-01   1.3090E-04  0.0179
   6.7149E-01   6.8783E-01   1.2807E-04  0.0178
   6.8783E-01   7.0456E-01   1.3864E-04  0.0169
   7.0456E-01   7.2171E-01   1.3943E-04  0.0167
   7.2171E-01   7.3927E-01   1.4159E-04  0.0164
   7.3927E-01   7.5725E-01   1.4364E-04  0.0161
   7.5725E-01   7.7568E-01   1.5206E-04  0.0154
   7.7568E-01   7.9455E-01   1.4484E-04  0.0156
   7.9455E-01   8.1388E-01   1.5208E-04  0.0150
   8.1388E-01   8.3368E-01   1.4876E-04  0.0150
   8.3368E-01   8.5397E-01   1.5637E-04  0.0145
   8.5397E-01   8.7475E-01   1.6798E-04  0.0138
   8.7475E-01   8.9603E-01   1.6568E-04  0.0137
   8.9603E-01   9.1783E-01   1.6443E-04  0.0136
   9.1783E-01   9.4016E-01   1.7211E-04  0.0132
   9.4016E-01   9.6304E-01   1.7150E-04  0.0130
   9.6304E-01   9.8647E-01   1.7530E-04  0.0127
   9.8647E-01   1.0105E+00   1.7973E-04  0.0124
   1.0105E+00   1.0351E+00   1.8496E-04  0.0121
   1.0351E+00   1.0602E+00   1.8436E-04  0.0120
   1.0602E+00   1.0860E+00   1.8151E-04  0.0119
   1.0860E+00   1.1125E+00   1.8786E-04  0.0116
   1.1125E+00   1.1395E+00   1.8875E-04  0.0114
   1.1395E+00   1.1673E+00   1.8873E-04  0.0113
   1.1673E+00   1.1957E+00   1.9487E-04  0.0110
   1.1957E+00   1.2247E+00   1.9526E-04  0.0108
   1.2247E+00   1.2545E+00   2.0178E-04  0.0105
   1.2545E+00   1.2851E+00   1.9815E-04  0.0105
   1.2851E+00   1.3163E+00   1.9995E-04  0.0103
   1.3163E+00   1.3484E+00   2.0276E-04  0.0101
   1.3484E+00   1.3812E+00   2.0472E-04  0.0100
   1.3812E+00   1.4148E+00   2.0944E-04  0.0097
   1.4148E+00   1.4492E+00   2.0764E-04  0.0096
   1.4492E+00   1.4845E+00   2.0994E-04  0.0095
   1.4845E+00   1.5206E+00   2.1236E-04  0.0093
   1.5206E+00   1.5576E+00   2.1123E-04  0.0092
   1.5576E+00   1.5955E+00   2.0711E-04  0.0092
   1.5955E+00   1.6343E+00   2.0616E-04  0.0091
   1.6343E+00   1.6741E+00   2.0852E-04  0.0090
   1.6741E+00   1.7148E+00   2.0443E-04  0.0089
   1.7148E+00   1.7565E+00   2.0713E-04  0.0088
   1.7565E+00   1.7992E+00   2.0351E-04  0.0087
   1.7992E+00   1.8430E+00   2.0467E-04  0.0086
   1.8430E+00   1.8879E+00   2.0255E-04  0.0086
   1.8879E+00   1.9338E+00   1.9873E-04  0.0085
   1.9338E+00   1.9808E+00   1.9439E-04  0.0085
   1.9808E+00   2.0290E+00   1.9500E-04  0.0084
   2.0290E+00   2.0784E+00   1.9415E-04  0.0083
   2.0784E+00   2.1290E+00   1.8981E-04  0.0083
   2.1290E+00   2.1808E+00   1.8643E-04  0.0083
   2.1808E+00   2.2338E+00   1.8436E-04  0.0082
   2.2338E+00   2.2882E+00   1.8084E-04  0.0082
   2.2882E+00   2.3439E+00   1.7544E-04  0.0083
   2.3439E+00   2.4009E+00   1.7334E-04  0.0082
   2.4009E+00   2.4593E+00   1.7067E-04  0.0082
   2.4593E+00   2.5191E+00   1.6894E-04  0.0081
   2.5191E+00   2.5804E+00   1.6319E-04  0.0082
   2.5804E+00   2.6432E+00   1.6017E-04  0.0081
   2.6432E+00   2.7075E+00   1.5813E-04  0.0081
   2.7075E+00   2.7734E+00   1.5681E-04  0.0080
   2.7734E+00   2.8409E+00   1.5064E-04  0.0081
   2.8409E+00   2.9100E+00   1.4872E-04  0.0080
   2.9100E+00   2.9808E+00   1.4542E-04  0.0080
   2.9808E+00   3.0533E+00   1.4270E-04  0.0080
   3.0533E+00   3.1276E+00   1.4009E-04  0.0080
   3.1276E+00   3.2037E+00   1.3782E-04  0.0080
   3.2037E+00   3.2817E+00   1.3515E-04  0.0079
   3.2817E+00   3.3615E+00   1.3143E-04  0.0080
   3.3615E+00   3.4433E+00   1.2944E-04  0.0079
   3.4433E+00   3.5271E+00   1.2590E-04  0.0079
   3.5271E+00   3.6129E+00   1.2338E-04  0.0079
   3.6129E+00   3.7008E+00   1.2236E-04  0.0079
   3.7008E+00   3.7908E+00   1.1645E-04  0.0080
   3.7908E+00   3.8831E+00   1.1265E-04  0.0080
   3.8831E+00   3.9776E+00   1.0942E-04  0.0080
   3.9776E+00   4.0743E+00   1.0433E-04  0.0081
   4.0743E+00   4.1735E+00   1.0256E-04  0.0081
   4.1735E+00   4.2750E+00   9.9448E-05  0.0081
   4.2750E+00   4.3790E+00   9.5916E-05  0.0082
   4.3790E+00   4.4856E+00   9.5075E-05  0.0081
   4.4856E+00   4.5947E+00   9.3025E-05  0.0081
   4.5947E+00   4.7065E+00   9.1112E-05  0.0081
   4.7065E+00   4.8210E+00   8.9480E-05  0.0081
   4.8210E+00   4.9383E+00   8.7547E-05  0.0081
   4.9383E+00   5.0585E+00   8.5267E-05  0.0081
   5.0585E+00   5.1815E+00   8.2926E-05  0.0081
   5.1815E+00   5.3076E+00   7.9376E-05  0.0082
   5.3076E+00   5.4368E+00   7.7074E-05  0.0082
   5.4368E+00   5.5690E+00   7.5781E-05  0.0081
   5.5690E+00   5.7045E+00   7.2589E-05  0.0082
   5.7045E+00   5.8433E+00   7.0418E-05  0.0083
   5.8433E+00   5.9855E+00   6.7727E-05  0.0083
   5.9855E+00   6.1311E+00   6.5349E-05  0.0084
   6.1311E+00   6.2803E+00   6.2630E-05  0.0084
   6.2803E+00   6.4331E+00   6.0768E-05  0.0085
   6.4331E+00   6.5896E+00   5.7989E-05  0.0086
   6.5896E+00   6.7500E+00   5.6150E-05  0.0086
   6.7500E+00   6.9142E+00   5.3328E-05  0.0087
   6.9142E+00   7.0824E+00   5.0976E-05  0.0088
   7.0824E+00   7.2548E+00   5.0036E-05  0.0088
   7.2548E+00   7.4313E+00   4.6428E-05  0.0090
   7.4313E+00   7.6121E+00   4.3962E-05  0.0092
   7.6121E+00   7.7973E+00   4.1561E-05  0.0093
   7.7973E+00   7.9870E+00   3.9422E-05  0.0094
   7.9870E+00   8.1813E+00   3.6546E-05  0.0097
   8.1813E+00   8.3804E+00   3.5083E-05  0.0098
   8.3804E+00   8.5843E+00   3.2948E-05  0.0100
   8.5843E+00   8.7931E+00   3.0936E-05  0.0102
   8.7931E+00   9.0071E+00   2.8935E-05  0.0104
   9.0071E+00   9.2262E+00   2.7168E-05  0.0106
   9.2262E+00   9.4507E+00   2.5209E-05  0.0109
   9.4507E+00   9.6807E+00   2.3206E-05  0.0112
   9.6807E+00   9.9162E+00   2.1638E-05  0.0114
   9.9162E+00   1.0157E+01   1.9654E-05  0.0119
   1.0157E+01   1.0405E+01   1.8425E-05  0.0121
   1.0405E+01   1.0658E+01   1.6468E-05  0.0126
   1.0658E+01   1.0917E+01   1.5722E-05  0.0128
   1.0917E+01   1.1183E+01   1.4436E-05  0.0132
   1.1183E+01   1.1455E+01   1.3260E-05  0.0136
   1.1455E+01   1.1733E+01   1.2091E-05  0.0141
   1.1733E+01   1.2019E+01   1.1553E-05  0.0142
   1.2019E+01   1.2311E+01   1.0580E-05  0.0147
   1.2311E+01   1.2611E+01   9.9202E-06  0.0150
   1.2611E+01   1.2918E+01   9.4525E-06  0.0152
   1.2918E+01   1.3232E+01   8.7860E-06  0.0155
   1.3232E+01   1.3554E+01   8.1702E-06  0.0159
   1.3554E+01   1.3884E+01   7.3126E-06  0.0166
   1.3884E+01   1.4222E+01   6.7383E-06  0.0171
   1.4222E+01   1.4568E+01   6.3716E-06  0.0174
   1.4568E+01   1.4922E+01   6.0325E-06  0.0177
   1.4922E+01   1.5285E+01   5.5093E-06  0.0183
   1.5285E+01   1.5657E+01   4.9440E-06  0.0190
   1.5657E+01   1.6038E+01   4.4880E-06  0.0197
   1.6038E+01   1.6428E+01   3.8679E-06  0.0210
   1.6428E+01   1.6828E+01   3.7610E-06  0.0211
   1.6828E+01   1.7237E+01   3.2239E-06  0.0225
   1.7237E+01   1.7657E+01   3.1998E-06  0.0223
   1.7657E+01   1.8086E+01   2.9252E-06  0.0230
   1.8086E+01   1.8526E+01   2.4739E-06  0.0247
   1.8526E+01   1.8977E+01   2.2510E-06  0.0256
   1.8977E+01   1.9439E+01   1.7225E-06  0.0290
   1.9439E+01   1.9912E+01   1.5124E-06  0.0305
   1.9912E+01   2.0396E+01   1.2412E-06  0.0333
   2.0396E+01   2.0893E+01   8.6917E-07  0.0393
   2.0893E+01   2.1401E+01   4.0787E-07  0.0567
   2.1401E+01   2.1922E+01   1.5364E-07  0.0913
   2.1922E+01   2.2455E+01   1.1124E-07  0.1060
   2.2455E+01   2.3001E+01   6.7112E-08  0.1348
   2.3001E+01   2.3561E+01   2.3825E-08  0.2236
   2.3561E+01   2.4134E+01   2.4422E-08  0.2182
   2.4134E+01   2.4721E+01   1.0218E-08  0.3333
   2.4721E+01   2.5323E+01   2.2167E-09  0.7071
   2.5323E+01   2.5939E+01   0.0000E+00  0.0000
   2.5939E+01   2.6570E+01   0.0000E+00  0.0000
   2.6570E+01   2.7217E+01   0.0000E+00  0.0000
   2.7217E+01   2.7879E+01   0.0000E+00  0.0000
   2.7879E+01   2.8557E+01   9.8283E-10  1.0000
   2.8557E+01   2.9252E+01   0.0000E+00  0.0000
   2.9252E+01   2.9964E+01   0.0000E+00  0.0000
   2.9964E+01   3.0693E+01   0.0000E+00  0.0000
   3.0693E+01   3.1440E+01   0.0000E+00  0.0000
   3.1440E+01   3.2205E+01   0.0000E+00  0.0000
   3.2205E+01   3.2988E+01   0.0000E+00  0.0000
   3.2988E+01   3.3791E+01   0.0000E+00  0.0000
   3.3791E+01   3.4613E+01   0.0000E+00  0.0000
   3.4613E+01   3.5455E+01   0.0000E+00  0.0000
   3.5455E+01   3.6318E+01   0.0000E+00  0.0000
   3.6318E+01   3.7201E+01   0.0000E+00  0.0000
   3.7201E+01   3.8106E+01   0.0000E+00  0.0000
   3.8106E+01   3.9034E+01   0.0000E+00  0.0000
   3.9034E+01   3.9983E+01   0.0000E+00  0.0000
   3.9983E+01   4.0956E+01   0.0000E+00  0.0000
   4.0956E+01   4.1953E+01   0.0000E+00  0.0000
   4.1953E+01   4.2973E+01   0.0000E+00  0.0000
   4.2973E+01   4.4019E+01   0.0000E+00  0.0000
   4.4019E+01   4.5090E+01   0.0000E+00  0.0000
   4.5090E+01   4.6187E+01   0.0000E+00  0.0000
   4.6187E+01   4.7311E+01   0.0000E+00  0.0000
   4.7311E+01   4.8462E+01   0.0000E+00  0.0000
   4.8462E+01   4.9641E+01   0.0000E+00  0.0000
   4.9641E+01   5.0849E+01   0.0000E+00  0.0000
   5.0849E+01   5.2086E+01   0.0000E+00  0.0000
   5.2086E+01   5.3353E+01   0.0000E+00  0.0000
   5.3353E+01   5.4651E+01   0.0000E+00  0.0000
   5.4651E+01   5.5981E+01   0.0000E+00  0.0000
   5.5981E+01   5.7343E+01   0.0000E+00  0.0000
   5.7343E+01   5.8738E+01   0.0000E+00  0.0000
   5.8738E+01   6.0168E+01   0.0000E+00  0.0000
   6.0168E+01   6.1632E+01   0.0000E+00  0.0000
   6.1632E+01   6.3131E+01   0.0000E+00  0.0000
   6.3131E+01   6.4667E+01   0.0000E+00  0.0000
   6.4667E+01   6.6240E+01   0.0000E+00  0.0000
   6.6240E+01   6.7852E+01   0.0000E+00  0.0000
   6.7852E+01   6.9503E+01   0.0000E+00  0.0000
   6.9503E+01   7.1194E+01   0.0000E+00  0.0000
   7.1194E+01   7.2926E+01   0.0000E+00  0.0000
   7.2926E+01   7.4701E+01   0.0000E+00  0.0000
   7.4701E+01   7.6518E+01   0.0000E+00  0.0000
   7.6518E+01   7.8380E+01   0.0000E+00  0.0000
   7.8380E+01   8.0287E+01   0.0000E+00  0.0000
   8.0287E+01   8.2240E+01   0.0000E+00  0.0000
   8.2240E+01   8.4241E+01   0.0000E+00  0.0000
   8.4241E+01   8.6291E+01   0.0000E+00  0.0000
   8.6291E+01   8.8391E+01   0.0000E+00  0.0000
   8.8391E+01   9.0541E+01   0.0000E+00  0.0000
   9.0541E+01   9.2744E+01   0.0000E+00  0.0000
   9.2744E+01   9.5001E+01   0.0000E+00  0.0000
   9.5001E+01   9.7312E+01   0.0000E+00  0.0000
   9.7312E+01   9.9680E+01   0.0000E+00  0.0000
   9.9680E+01   1.0211E+02   0.0000E+00  0.0000
   1.0211E+02   1.0459E+02   0.0000E+00  0.0000
   1.0459E+02   1.0713E+02   0.0000E+00  0.0000
   1.0713E+02   1.0974E+02   0.0000E+00  0.0000
   1.0974E+02   1.1241E+02   0.0000E+00  0.0000
   1.1241E+02   1.1515E+02   0.0000E+00  0.0000
   1.1515E+02   1.1795E+02   0.0000E+00  0.0000
   1.1795E+02   1.2082E+02   0.0000E+00  0.0000
   1.2082E+02   1.2376E+02   0.0000E+00  0.0000
   1.2376E+02   1.2677E+02   0.0000E+00  0.0000
   1.2677E+02   1.2985E+02   0.0000E+00  0.0000
   1.2985E+02   1.3301E+02   0.0000E+00  0.0000
   1.3301E+02   1.3625E+02   0.0000E+00  0.0000
   1.3625E+02   1.3956E+02   0.0000E+00  0.0000
   1.3956E+02   1.4296E+02   0.0000E+00  0.0000
   1.4296E+02   1.4644E+02   0.0000E+00  0.0000
   1.4644E+02   1.5000E+02   0.0000E+00  0.0000

#   sum over                 6.6831E-06
'no. =    1   reg = 114 - 214'
msuc: {\huge [t-cross] in region mesh}
msdr: {\it plotted by \ANGEL \version}
msdl: {\it calculated by \PHITS  3.26}
wt: s(0.7)
\vspace{-3}
  region surface crossing
  area  &=&   1.0000E+00 [cm^2]
e:
 
# Information for Restart Calculation
# This calculation was newly started
# istdev =  2 # 1:Batch variance, 2:History variance
# resc2  = 1.50000000000000000E+09 # Total source weight or Total source weight / maxcas
# resc3  = 1.50000000000000000E+09 # Total history number or Total batch number
# maxcas =   500000000 # History / Batch, only used for istdev=1
# bitrseed = 0000010101110101110110100110011001100101000001100111100100101101 # bit data of rseed
