[ T-Cross ]
    title = [t-cross] in region mesh
     mesh =  reg            # mesh type is region-wise
      reg =    1            # number of crossing regions
      non     r-from    r-to       area
      1       125       225        1.000000    
   e-type =    3            # e-mesh is log given by emin, emax and ne
     emin =  1.0000000E-02  # minimum value of e-mesh points
     emax =   150.0000      # maximum value of e-mesh points
#    edel =  2.4039514E-02  # mesh width of e-mesh points
       ne =    400          # number of e-mesh points
#    data = ( e(i), i = 1, ne + 1 )
#           1.00000E-02  1.02433E-02  1.04925E-02  1.07478E-02  1.10093E-02
#           1.12772E-02  1.15516E-02  1.18326E-02  1.21205E-02  1.24154E-02
#           1.27175E-02  1.30269E-02  1.33439E-02  1.36686E-02  1.40011E-02
#           1.43418E-02  1.46907E-02  1.50482E-02  1.54143E-02  1.57894E-02
#           1.61735E-02  1.65670E-02  1.69701E-02  1.73830E-02  1.78060E-02
#           1.82392E-02  1.86830E-02  1.91375E-02  1.96032E-02  2.00801E-02
#           2.05687E-02  2.10692E-02  2.15818E-02  2.21069E-02  2.26448E-02
#           2.31957E-02  2.37601E-02  2.43382E-02  2.49304E-02  2.55369E-02
#           2.61583E-02  2.67947E-02  2.74467E-02  2.81145E-02  2.87985E-02
#           2.94992E-02  3.02169E-02  3.09521E-02  3.17052E-02  3.24766E-02
#           3.32668E-02  3.40762E-02  3.49053E-02  3.57546E-02  3.66246E-02
#           3.75157E-02  3.84284E-02  3.93634E-02  4.03212E-02  4.13022E-02
#           4.23071E-02  4.33365E-02  4.43909E-02  4.54710E-02  4.65773E-02
#           4.77106E-02  4.88714E-02  5.00605E-02  5.12785E-02  5.25262E-02
#           5.38042E-02  5.51133E-02  5.64542E-02  5.78278E-02  5.92348E-02
#           6.06760E-02  6.21523E-02  6.36645E-02  6.52135E-02  6.68002E-02
#           6.84255E-02  7.00904E-02  7.17957E-02  7.35426E-02  7.53319E-02
#           7.71648E-02  7.90423E-02  8.09655E-02  8.29354E-02  8.49533E-02
#           8.70203E-02  8.91376E-02  9.13064E-02  9.35279E-02  9.58035E-02
#           9.81345E-02  1.00522E-01  1.02968E-01  1.05473E-01  1.08040E-01
#           1.10668E-01  1.13361E-01  1.16119E-01  1.18944E-01  1.21838E-01
#           1.24803E-01  1.27839E-01  1.30950E-01  1.34136E-01  1.37399E-01
#           1.40742E-01  1.44167E-01  1.47675E-01  1.51268E-01  1.54948E-01
#           1.58718E-01  1.62580E-01  1.66535E-01  1.70587E-01  1.74738E-01
#           1.78989E-01  1.83344E-01  1.87805E-01  1.92375E-01  1.97055E-01
#           2.01850E-01  2.06761E-01  2.11792E-01  2.16945E-01  2.22223E-01
#           2.27630E-01  2.33169E-01  2.38842E-01  2.44653E-01  2.50605E-01
#           2.56703E-01  2.62949E-01  2.69346E-01  2.75900E-01  2.82613E-01
#           2.89489E-01  2.96532E-01  3.03747E-01  3.11138E-01  3.18708E-01
#           3.26462E-01  3.34405E-01  3.42542E-01  3.50876E-01  3.59413E-01
#           3.68158E-01  3.77116E-01  3.86291E-01  3.95690E-01  4.05317E-01
#           4.15179E-01  4.25281E-01  4.35628E-01  4.46227E-01  4.57084E-01
#           4.68205E-01  4.79597E-01  4.91266E-01  5.03219E-01  5.15463E-01
#           5.28005E-01  5.40851E-01  5.54011E-01  5.67490E-01  5.81298E-01
#           5.95441E-01  6.09929E-01  6.24769E-01  6.39970E-01  6.55541E-01
#           6.71491E-01  6.87828E-01  7.04564E-01  7.21706E-01  7.39266E-01
#           7.57253E-01  7.75678E-01  7.94551E-01  8.13883E-01  8.33685E-01
#           8.53969E-01  8.74747E-01  8.96030E-01  9.17831E-01  9.40163E-01
#           9.63038E-01  9.86469E-01  1.01047E+00  1.03506E+00  1.06024E+00
#           1.08604E+00  1.11246E+00  1.13953E+00  1.16725E+00  1.19565E+00
#           1.22474E+00  1.25454E+00  1.28507E+00  1.31633E+00  1.34836E+00
#           1.38117E+00  1.41477E+00  1.44920E+00  1.48446E+00  1.52057E+00
#           1.55757E+00  1.59547E+00  1.63429E+00  1.67405E+00  1.71478E+00
#           1.75650E+00  1.79924E+00  1.84302E+00  1.88786E+00  1.93379E+00
#           1.98084E+00  2.02904E+00  2.07841E+00  2.12898E+00  2.18078E+00
#           2.23384E+00  2.28819E+00  2.34386E+00  2.40089E+00  2.45930E+00
#           2.51914E+00  2.58043E+00  2.64322E+00  2.70753E+00  2.77341E+00
#           2.84088E+00  2.91001E+00  2.98081E+00  3.05333E+00  3.12762E+00
#           3.20372E+00  3.28167E+00  3.36152E+00  3.44330E+00  3.52708E+00
#           3.61290E+00  3.70080E+00  3.79085E+00  3.88308E+00  3.97756E+00
#           4.07434E+00  4.17347E+00  4.27501E+00  4.37903E+00  4.48557E+00
#           4.59471E+00  4.70650E+00  4.82102E+00  4.93832E+00  5.05847E+00
#           5.18155E+00  5.30762E+00  5.43676E+00  5.56904E+00  5.70453E+00
#           5.84333E+00  5.98550E+00  6.13114E+00  6.28031E+00  6.43312E+00
#           6.58964E+00  6.74997E+00  6.91420E+00  7.08243E+00  7.25475E+00
#           7.43126E+00  7.61207E+00  7.79728E+00  7.98700E+00  8.18133E+00
#           8.38038E+00  8.58428E+00  8.79315E+00  9.00709E+00  9.22624E+00
#           9.45072E+00  9.68067E+00  9.91620E+00  1.01575E+01  1.04046E+01
#           1.06578E+01  1.09171E+01  1.11827E+01  1.14548E+01  1.17335E+01
#           1.20190E+01  1.23114E+01  1.26109E+01  1.29178E+01  1.32321E+01
#           1.35540E+01  1.38838E+01  1.42216E+01  1.45676E+01  1.49221E+01
#           1.52851E+01  1.56570E+01  1.60380E+01  1.64282E+01  1.68279E+01
#           1.72374E+01  1.76568E+01  1.80864E+01  1.85264E+01  1.89772E+01
#           1.94389E+01  1.99119E+01  2.03963E+01  2.08926E+01  2.14009E+01
#           2.19216E+01  2.24550E+01  2.30014E+01  2.35610E+01  2.41343E+01
#           2.47215E+01  2.53230E+01  2.59391E+01  2.65702E+01  2.72167E+01
#           2.78789E+01  2.85572E+01  2.92520E+01  2.99637E+01  3.06928E+01
#           3.14396E+01  3.22045E+01  3.29881E+01  3.37907E+01  3.46128E+01
#           3.54550E+01  3.63177E+01  3.72013E+01  3.81064E+01  3.90336E+01
#           3.99833E+01  4.09561E+01  4.19526E+01  4.29734E+01  4.40189E+01
#           4.50900E+01  4.61870E+01  4.73108E+01  4.84619E+01  4.96410E+01
#           5.08488E+01  5.20860E+01  5.33533E+01  5.46514E+01  5.59812E+01
#           5.73432E+01  5.87384E+01  6.01676E+01  6.16315E+01  6.31311E+01
#           6.46671E+01  6.62405E+01  6.78522E+01  6.95031E+01  7.11941E+01
#           7.29263E+01  7.47007E+01  7.65182E+01  7.83800E+01  8.02870E+01
#           8.22405E+01  8.42414E+01  8.62911E+01  8.83906E+01  9.05412E+01
#           9.27442E+01  9.50007E+01  9.73122E+01  9.96799E+01  1.02105E+02
#           1.04589E+02  1.07134E+02  1.09741E+02  1.12411E+02  1.15146E+02
#           1.17948E+02  1.20817E+02  1.23757E+02  1.26768E+02  1.29852E+02
#           1.33012E+02  1.36248E+02  1.39563E+02  1.42959E+02  1.46437E+02
#           1.50000E+02
     unit =    2            # unit is [1/cm^2/(MeV/n)/source]
     axis =  eng            # axis of output
     file = detector-26.out  # file name of output for the above axis
   output = f-curr          # surface crossing forward current spectrum
     part =  neutron  
# kf/name :  2112     
#    used :        main (  %)        temp (  %)       total (  %)
#  memory :         414 (  0)           0 (  0)         414 (  0)

#------------------------------------------------------------------------------
#newpage:
#   no. =    1   reg = 125 - 225

x: Energy [MeV/n]
y:  F-Curr [1/cm^2/(MeV/n)/source]         
p: xlog ylog afac(0.8) form(0.9)
h: n            x            y(neutron ),hh0l   n 
#  e-lower      e-upper      neutron     r.err 
   1.0000E-02   1.0243E-02   6.9507E-04  0.0627
   1.0243E-02   1.0493E-02   6.7715E-04  0.0628
   1.0493E-02   1.0748E-02   5.6366E-04  0.0679
   1.0748E-02   1.1009E-02   5.9725E-04  0.0653
   1.1009E-02   1.1277E-02   6.8388E-04  0.0603
   1.1277E-02   1.1552E-02   6.5444E-04  0.0608
   1.1552E-02   1.1833E-02   5.6055E-04  0.0650
   1.1833E-02   1.2121E-02   6.0707E-04  0.0617
   1.2121E-02   1.2415E-02   6.1941E-04  0.0604
   1.2415E-02   1.2718E-02   5.7775E-04  0.0616
   1.2718E-02   1.3027E-02   5.8065E-04  0.0608
   1.3027E-02   1.3344E-02   6.4111E-04  0.0572
   1.3344E-02   1.3669E-02   5.2041E-04  0.0628
   1.3669E-02   1.4001E-02   5.4222E-04  0.0608
   1.4001E-02   1.4342E-02   5.4664E-04  0.0597
   1.4342E-02   1.4691E-02   5.2283E-04  0.0604
   1.4691E-02   1.5048E-02   5.1096E-04  0.0603
   1.5048E-02   1.5414E-02   5.3168E-04  0.0585
   1.5414E-02   1.5789E-02   4.6619E-04  0.0617
   1.5789E-02   1.6174E-02   4.6510E-04  0.0610
   1.6174E-02   1.6567E-02   4.4898E-04  0.0613
   1.6567E-02   1.6970E-02   5.0311E-04  0.0573
   1.6970E-02   1.7383E-02   4.5326E-04  0.0596
   1.7383E-02   1.7806E-02   5.3144E-04  0.0543
   1.7806E-02   1.8239E-02   4.5524E-04  0.0581
   1.8239E-02   1.8683E-02   4.9094E-04  0.0552
   1.8683E-02   1.9138E-02   4.8633E-04  0.0548
   1.9138E-02   1.9603E-02   4.6272E-04  0.0556
   1.9603E-02   2.0080E-02   4.2726E-04  0.0571
   2.0080E-02   2.0569E-02   4.0789E-04  0.0578
   2.0569E-02   2.1069E-02   4.1251E-04  0.0568
   2.1069E-02   2.1582E-02   4.4775E-04  0.0539
   2.1582E-02   2.2107E-02   4.1605E-04  0.0552
   2.2107E-02   2.2645E-02   3.8543E-04  0.0566
   2.2645E-02   2.3196E-02   3.9650E-04  0.0552
   2.3196E-02   2.3760E-02   4.0452E-04  0.0540
   2.3760E-02   2.4338E-02   3.8364E-04  0.0548
   2.4338E-02   2.4930E-02   4.2217E-04  0.0516
   2.4930E-02   2.5537E-02   4.1085E-04  0.0517
   2.5537E-02   2.6158E-02   3.7572E-04  0.0533
   2.6158E-02   2.6795E-02   3.7807E-04  0.0525
   2.6795E-02   2.7447E-02   3.8109E-04  0.0518
   2.7447E-02   2.8114E-02   3.7088E-04  0.0518
   2.8114E-02   2.8799E-02   3.3618E-04  0.0538
   2.8799E-02   2.9499E-02   3.1824E-04  0.0546
   2.9499E-02   3.0217E-02   3.4380E-04  0.0519
   3.0217E-02   3.0952E-02   3.5464E-04  0.0505
   3.0952E-02   3.1705E-02   3.3617E-04  0.0512
   3.1705E-02   3.2477E-02   3.1991E-04  0.0519
   3.2477E-02   3.3267E-02   3.2787E-04  0.0506
   3.3267E-02   3.4076E-02   3.2395E-04  0.0504
   3.4076E-02   3.4905E-02   2.9725E-04  0.0519
   3.4905E-02   3.5755E-02   2.9046E-04  0.0519
   3.5755E-02   3.6625E-02   2.6912E-04  0.0533
   3.6625E-02   3.7516E-02   2.6222E-04  0.0534
   3.7516E-02   3.8428E-02   2.8663E-04  0.0504
   3.8428E-02   3.9363E-02   2.7356E-04  0.0510
   3.9363E-02   4.0321E-02   2.5182E-04  0.0525
   4.0321E-02   4.1302E-02   2.7670E-04  0.0495
   4.1302E-02   4.2307E-02   2.7897E-04  0.0487
   4.2307E-02   4.3337E-02   2.5843E-04  0.0500
   4.3337E-02   4.4391E-02   2.5775E-04  0.0495
   4.4391E-02   4.5471E-02   2.5265E-04  0.0494
   4.5471E-02   4.6577E-02   2.4325E-04  0.0497
   4.6577E-02   4.7711E-02   2.4814E-04  0.0486
   4.7711E-02   4.8871E-02   2.5908E-04  0.0470
   4.8871E-02   5.0061E-02   2.3479E-04  0.0488
   5.0061E-02   5.1279E-02   2.4096E-04  0.0476
   5.1279E-02   5.2526E-02   2.1633E-04  0.0496
   5.2526E-02   5.3804E-02   2.2721E-04  0.0478
   5.3804E-02   5.5113E-02   2.2388E-04  0.0476
   5.5113E-02   5.6454E-02   2.1282E-04  0.0482
   5.6454E-02   5.7828E-02   2.1654E-04  0.0473
   5.7828E-02   5.9235E-02   2.3497E-04  0.0448
   5.9235E-02   6.0676E-02   1.9641E-04  0.0484
   6.0676E-02   6.2152E-02   1.9143E-04  0.0485
   6.2152E-02   6.3665E-02   1.8796E-04  0.0484
   6.3665E-02   6.5214E-02   1.8946E-04  0.0476
   6.5214E-02   6.6800E-02   1.8780E-04  0.0472
   6.6800E-02   6.8426E-02   1.8987E-04  0.0464
   6.8426E-02   7.0090E-02   1.6491E-04  0.0492
   7.0090E-02   7.1796E-02   1.9251E-04  0.0450
   7.1796E-02   7.3543E-02   1.9043E-04  0.0447
   7.3543E-02   7.5332E-02   1.6516E-04  0.0474
   7.5332E-02   7.7165E-02   1.5991E-04  0.0476
   7.7165E-02   7.9042E-02   1.6641E-04  0.0462
   7.9042E-02   8.0965E-02   1.4800E-04  0.0484
   8.0965E-02   8.2935E-02   1.6734E-04  0.0449
   8.2935E-02   8.4953E-02   1.4461E-04  0.0477
   8.4953E-02   8.7020E-02   1.5056E-04  0.0462
   8.7020E-02   8.9138E-02   1.5592E-04  0.0449
   8.9138E-02   9.1306E-02   1.5163E-04  0.0450
   9.1306E-02   9.3528E-02   1.5023E-04  0.0446
   9.3528E-02   9.5804E-02   1.4292E-04  0.0452
   9.5804E-02   9.8134E-02   1.3071E-04  0.0467
   9.8134E-02   1.0052E-01   1.3486E-04  0.0454
   1.0052E-01   1.0297E-01   1.3560E-04  0.0448
   1.0297E-01   1.0547E-01   1.2241E-04  0.0465
   1.0547E-01   1.0804E-01   1.3080E-04  0.0445
   1.0804E-01   1.1067E-01   1.1767E-04  0.0463
   1.1067E-01   1.1336E-01   1.2460E-04  0.0445
   1.1336E-01   1.1612E-01   1.1514E-04  0.0457
   1.1612E-01   1.1894E-01   1.1968E-04  0.0444
   1.1894E-01   1.2184E-01   1.1339E-04  0.0450
   1.2184E-01   1.2480E-01   1.1674E-04  0.0438
   1.2480E-01   1.2784E-01   1.1350E-04  0.0439
   1.2784E-01   1.3095E-01   1.0346E-04  0.0455
   1.3095E-01   1.3414E-01   1.0623E-04  0.0443
   1.3414E-01   1.3740E-01   1.0017E-04  0.0451
   1.3740E-01   1.4074E-01   9.8137E-05  0.0450
   1.4074E-01   1.4417E-01   9.7670E-05  0.0446
   1.4417E-01   1.4767E-01   9.1995E-05  0.0454
   1.4767E-01   1.5127E-01   9.9780E-05  0.0431
   1.5127E-01   1.5495E-01   9.1067E-05  0.0445
   1.5495E-01   1.5872E-01   7.6839E-05  0.0479
   1.5872E-01   1.6258E-01   8.2052E-05  0.0458
   1.6258E-01   1.6654E-01   8.3183E-05  0.0450
   1.6654E-01   1.7059E-01   7.8467E-05  0.0458
   1.7059E-01   1.7474E-01   7.4910E-05  0.0462
   1.7474E-01   1.7899E-01   8.1024E-05  0.0439
   1.7899E-01   1.8334E-01   8.2159E-05  0.0431
   1.8334E-01   1.8781E-01   7.3326E-05  0.0451
   1.8781E-01   1.9237E-01   6.9810E-05  0.0456
   1.9237E-01   1.9706E-01   6.7145E-05  0.0460
   1.9706E-01   2.0185E-01   6.7297E-05  0.0453
   2.0185E-01   2.0676E-01   7.1464E-05  0.0435
   2.0676E-01   2.1179E-01   7.2702E-05  0.0426
   2.1179E-01   2.1694E-01   6.9757E-05  0.0430
   2.1694E-01   2.2222E-01   7.0092E-05  0.0424
   2.2222E-01   2.2763E-01   7.4531E-05  0.0406
   2.2763E-01   2.3317E-01   8.1542E-05  0.0384
   2.3317E-01   2.3884E-01   7.8764E-05  0.0386
   2.3884E-01   2.4465E-01   7.7872E-05  0.0383
   2.4465E-01   2.5061E-01   8.3829E-05  0.0365
   2.5061E-01   2.5670E-01   8.2867E-05  0.0363
   2.5670E-01   2.6295E-01   8.4004E-05  0.0356
   2.6295E-01   2.6935E-01   8.2687E-05  0.0354
   2.6935E-01   2.7590E-01   8.3594E-05  0.0348
   2.7590E-01   2.8261E-01   8.2155E-05  0.0347
   2.8261E-01   2.8949E-01   8.8152E-05  0.0331
   2.8949E-01   2.9653E-01   8.9845E-05  0.0324
   2.9653E-01   3.0375E-01   9.5679E-05  0.0310
   3.0375E-01   3.1114E-01   9.5707E-05  0.0306
   3.1114E-01   3.1871E-01   9.3916E-05  0.0305
   3.1871E-01   3.2646E-01   9.8444E-05  0.0295
   3.2646E-01   3.3441E-01   9.7155E-05  0.0293
   3.3441E-01   3.4254E-01   9.5236E-05  0.0293
   3.4254E-01   3.5088E-01   9.6249E-05  0.0288
   3.5088E-01   3.5941E-01   9.9719E-05  0.0280
   3.5941E-01   3.6816E-01   9.7299E-05  0.0279
   3.6816E-01   3.7712E-01   9.9356E-05  0.0273
   3.7712E-01   3.8629E-01   1.0223E-04  0.0266
   3.8629E-01   3.9569E-01   1.0212E-04  0.0263
   3.9569E-01   4.0532E-01   1.0574E-04  0.0255
   4.0532E-01   4.1518E-01   1.0206E-04  0.0257
   4.1518E-01   4.2528E-01   1.0790E-04  0.0247
   4.2528E-01   4.3563E-01   1.0624E-04  0.0246
   4.3563E-01   4.4623E-01   1.0520E-04  0.0244
   4.4623E-01   4.5708E-01   1.0621E-04  0.0240
   4.5708E-01   4.6821E-01   1.0749E-04  0.0236
   4.6821E-01   4.7960E-01   1.0666E-04  0.0234
   4.7960E-01   4.9127E-01   1.0522E-04  0.0232
   4.9127E-01   5.0322E-01   1.0918E-04  0.0225
   5.0322E-01   5.1546E-01   1.0408E-04  0.0228
   5.1546E-01   5.2800E-01   1.0469E-04  0.0225
   5.2800E-01   5.4085E-01   1.0593E-04  0.0221
   5.4085E-01   5.5401E-01   1.0513E-04  0.0219
   5.5401E-01   5.6749E-01   1.0826E-04  0.0213
   5.6749E-01   5.8130E-01   1.0408E-04  0.0215
   5.8130E-01   5.9544E-01   1.0933E-04  0.0207
   5.9544E-01   6.0993E-01   1.0626E-04  0.0208
   6.0993E-01   6.2477E-01   1.0885E-04  0.0203
   6.2477E-01   6.3997E-01   1.0710E-04  0.0202
   6.3997E-01   6.5554E-01   1.0811E-04  0.0199
   6.5554E-01   6.7149E-01   1.0607E-04  0.0198
   6.7149E-01   6.8783E-01   1.0351E-04  0.0198
   6.8783E-01   7.0456E-01   1.0132E-04  0.0198
   7.0456E-01   7.2171E-01   1.0329E-04  0.0193
   7.2171E-01   7.3927E-01   1.0412E-04  0.0190
   7.3927E-01   7.5725E-01   1.0233E-04  0.0190
   7.5725E-01   7.7568E-01   1.0372E-04  0.0186
   7.7568E-01   7.9455E-01   1.0115E-04  0.0186
   7.9455E-01   8.1388E-01   1.0199E-04  0.0183
   8.1388E-01   8.3368E-01   9.7464E-05  0.0185
   8.3368E-01   8.5397E-01   9.4984E-05  0.0185
   8.5397E-01   8.7475E-01   9.4173E-05  0.0184
   8.7475E-01   8.9603E-01   9.3057E-05  0.0183
   8.9603E-01   9.1783E-01   9.0583E-05  0.0183
   9.1783E-01   9.4016E-01   8.9093E-05  0.0182
   9.4016E-01   9.6304E-01   8.5225E-05  0.0184
   9.6304E-01   9.8647E-01   8.5285E-05  0.0182
   9.8647E-01   1.0105E+00   8.0346E-05  0.0185
   1.0105E+00   1.0351E+00   7.9195E-05  0.0184
   1.0351E+00   1.0602E+00   7.5319E-05  0.0187
   1.0602E+00   1.0860E+00   7.3330E-05  0.0187
   1.0860E+00   1.1125E+00   7.3930E-05  0.0184
   1.1125E+00   1.1395E+00   7.3387E-05  0.0183
   1.1395E+00   1.1673E+00   6.9225E-05  0.0186
   1.1673E+00   1.1957E+00   7.0505E-05  0.0182
   1.1957E+00   1.2247E+00   6.8772E-05  0.0182
   1.2247E+00   1.2545E+00   6.7453E-05  0.0181
   1.2545E+00   1.2851E+00   6.5586E-05  0.0182
   1.2851E+00   1.3163E+00   6.4247E-05  0.0181
   1.3163E+00   1.3484E+00   6.5172E-05  0.0178
   1.3484E+00   1.3812E+00   6.2227E-05  0.0180
   1.3812E+00   1.4148E+00   6.1022E-05  0.0179
   1.4148E+00   1.4492E+00   6.0533E-05  0.0178
   1.4492E+00   1.4845E+00   5.7639E-05  0.0180
   1.4845E+00   1.5206E+00   5.6156E-05  0.0180
   1.5206E+00   1.5576E+00   5.4995E-05  0.0180
   1.5576E+00   1.5955E+00   5.2079E-05  0.0183
   1.5955E+00   1.6343E+00   5.0497E-05  0.0183
   1.6343E+00   1.6741E+00   4.9148E-05  0.0184
   1.6741E+00   1.7148E+00   4.9548E-05  0.0181
   1.7148E+00   1.7565E+00   4.7401E-05  0.0183
   1.7565E+00   1.7992E+00   4.6884E-05  0.0182
   1.7992E+00   1.8430E+00   4.4196E-05  0.0185
   1.8430E+00   1.8879E+00   4.3924E-05  0.0183
   1.8879E+00   1.9338E+00   4.2826E-05  0.0183
   1.9338E+00   1.9808E+00   4.0143E-05  0.0187
   1.9808E+00   2.0290E+00   4.1516E-05  0.0182
   2.0290E+00   2.0784E+00   3.8226E-05  0.0187
   2.0784E+00   2.1290E+00   3.9033E-05  0.0183
   2.1290E+00   2.1808E+00   3.6848E-05  0.0186
   2.1808E+00   2.2338E+00   3.6488E-05  0.0184
   2.2338E+00   2.2882E+00   3.5582E-05  0.0185
   2.2882E+00   2.3439E+00   3.3790E-05  0.0187
   2.3439E+00   2.4009E+00   3.2959E-05  0.0187
   2.4009E+00   2.4593E+00   3.3103E-05  0.0185
   2.4593E+00   2.5191E+00   3.3330E-05  0.0182
   2.5191E+00   2.5804E+00   3.1153E-05  0.0186
   2.5804E+00   2.6432E+00   3.2296E-05  0.0180
   2.6432E+00   2.7075E+00   2.9903E-05  0.0185
   2.7075E+00   2.7734E+00   2.8881E-05  0.0186
   2.7734E+00   2.8409E+00   2.8704E-05  0.0184
   2.8409E+00   2.9100E+00   2.7819E-05  0.0185
   2.9100E+00   2.9808E+00   2.6993E-05  0.0186
   2.9808E+00   3.0533E+00   2.7131E-05  0.0183
   3.0533E+00   3.1276E+00   2.6891E-05  0.0182
   3.1276E+00   3.2037E+00   2.5646E-05  0.0184
   3.2037E+00   3.2817E+00   2.4953E-05  0.0184
   3.2817E+00   3.3615E+00   2.4221E-05  0.0185
   3.3615E+00   3.4433E+00   2.3518E-05  0.0185
   3.4433E+00   3.5271E+00   2.2577E-05  0.0187
   3.5271E+00   3.6129E+00   2.1920E-05  0.0187
   3.6129E+00   3.7008E+00   2.2029E-05  0.0185
   3.7008E+00   3.7908E+00   2.1472E-05  0.0185
   3.7908E+00   3.8831E+00   2.0376E-05  0.0187
   3.8831E+00   3.9776E+00   1.9412E-05  0.0190
   3.9776E+00   4.0743E+00   1.8572E-05  0.0192
   4.0743E+00   4.1735E+00   1.8381E-05  0.0190
   4.1735E+00   4.2750E+00   1.8000E-05  0.0190
   4.2750E+00   4.3790E+00   1.7292E-05  0.0192
   4.3790E+00   4.4856E+00   1.7025E-05  0.0191
   4.4856E+00   4.5947E+00   1.6830E-05  0.0190
   4.5947E+00   4.7065E+00   1.5534E-05  0.0195
   4.7065E+00   4.8210E+00   1.5694E-05  0.0192
   4.8210E+00   4.9383E+00   1.4781E-05  0.0195
   4.9383E+00   5.0585E+00   1.4069E-05  0.0198
   5.0585E+00   5.1815E+00   1.3450E-05  0.0200
   5.1815E+00   5.3076E+00   1.2625E-05  0.0204
   5.3076E+00   5.4368E+00   1.2207E-05  0.0205
   5.4368E+00   5.5690E+00   1.1822E-05  0.0206
   5.5690E+00   5.7045E+00   1.0774E-05  0.0213
   5.7045E+00   5.8433E+00   1.0529E-05  0.0213
   5.8433E+00   5.9855E+00   9.7738E-06  0.0218
   5.9855E+00   6.1311E+00   9.7426E-06  0.0216
   6.1311E+00   6.2803E+00   8.8329E-06  0.0224
   6.2803E+00   6.4331E+00   8.4004E-06  0.0227
   6.4331E+00   6.5896E+00   8.1067E-06  0.0229
   6.5896E+00   6.7500E+00   7.4478E-06  0.0236
   6.7500E+00   6.9142E+00   7.0456E-06  0.0239
   6.9142E+00   7.0824E+00   6.7712E-06  0.0241
   7.0824E+00   7.2548E+00   6.1854E-06  0.0249
   7.2548E+00   7.4313E+00   5.9328E-06  0.0252
   7.4313E+00   7.6121E+00   5.5470E-06  0.0257
   7.6121E+00   7.7973E+00   5.0688E-06  0.0266
   7.7973E+00   7.9870E+00   4.8242E-06  0.0269
   7.9870E+00   8.1813E+00   4.6946E-06  0.0270
   8.1813E+00   8.3804E+00   4.2715E-06  0.0280
   8.3804E+00   8.5843E+00   3.9587E-06  0.0287
   8.5843E+00   8.7931E+00   3.6227E-06  0.0296
   8.7931E+00   9.0071E+00   3.4992E-06  0.0298
   9.0071E+00   9.2262E+00   3.3468E-06  0.0301
   9.2262E+00   9.4507E+00   3.1303E-06  0.0307
   9.4507E+00   9.6807E+00   2.7606E-06  0.0323
   9.6807E+00   9.9162E+00   2.6235E-06  0.0328
   9.9162E+00   1.0157E+01   2.3171E-06  0.0345
   1.0157E+01   1.0405E+01   2.2528E-06  0.0345
   1.0405E+01   1.0658E+01   2.4273E-06  0.0329
   1.0658E+01   1.0917E+01   2.4420E-06  0.0324
   1.0917E+01   1.1183E+01   2.2855E-06  0.0331
   1.1183E+01   1.1455E+01   2.2290E-06  0.0331
   1.1455E+01   1.1733E+01   1.9590E-06  0.0349
   1.1733E+01   1.2019E+01   1.9001E-06  0.0350
   1.2019E+01   1.2311E+01   1.8222E-06  0.0353
   1.2311E+01   1.2611E+01   1.5898E-06  0.0374
   1.2611E+01   1.2918E+01   1.4388E-06  0.0388
   1.2918E+01   1.3232E+01   1.4024E-06  0.0389
   1.3232E+01   1.3554E+01   1.3030E-06  0.0398
   1.3554E+01   1.3884E+01   1.2105E-06  0.0408
   1.3884E+01   1.4222E+01   1.0597E-06  0.0431
   1.4222E+01   1.4568E+01   1.0411E-06  0.0430
   1.4568E+01   1.4922E+01   8.9936E-07  0.0457
   1.4922E+01   1.5285E+01   8.2768E-07  0.0471
   1.5285E+01   1.5657E+01   7.3254E-07  0.0494
   1.5657E+01   1.6038E+01   6.7177E-07  0.0510
   1.6038E+01   1.6428E+01   5.9031E-07  0.0538
   1.6428E+01   1.6828E+01   5.5207E-07  0.0549
   1.6828E+01   1.7237E+01   4.7871E-07  0.0583
   1.7237E+01   1.7657E+01   3.9739E-07  0.0632
   1.7657E+01   1.8086E+01   3.7812E-07  0.0640
   1.8086E+01   1.8526E+01   3.5147E-07  0.0657
   1.8526E+01   1.8977E+01   3.0023E-07  0.0702
   1.8977E+01   1.9439E+01   3.1043E-07  0.0682
   1.9439E+01   1.9912E+01   2.9060E-07  0.0696
   1.9912E+01   2.0396E+01   2.2155E-07  0.0788
   2.0396E+01   2.0893E+01   1.9882E-07  0.0822
   2.0893E+01   2.1401E+01   1.9016E-07  0.0830
   2.1401E+01   2.1922E+01   1.5364E-07  0.0913
   2.1922E+01   2.2455E+01   1.4874E-07  0.0917
   2.2455E+01   2.3001E+01   1.6473E-07  0.0861
   2.3001E+01   2.3561E+01   1.1555E-07  0.1015
   2.3561E+01   2.4134E+01   1.2327E-07  0.0971
   2.4134E+01   2.4721E+01   1.2375E-07  0.0958
   2.4721E+01   2.5323E+01   9.5318E-08  0.1078
   2.5323E+01   2.5939E+01   7.6824E-08  0.1187
   2.5939E+01   2.6570E+01   8.3450E-08  0.1125
   2.6570E+01   2.7217E+01   5.2593E-08  0.1400
   2.7217E+01   2.7879E+01   5.6377E-08  0.1336
   2.7879E+01   2.8557E+01   4.6193E-08  0.1459
   2.8557E+01   2.9252E+01   4.1258E-08  0.1525
   2.9252E+01   2.9964E+01   2.6227E-08  0.1890
   2.9964E+01   3.0693E+01   2.1032E-08  0.2085
   3.0693E+01   3.1440E+01   2.2318E-08  0.2000
   3.1440E+01   3.2205E+01   1.8302E-08  0.2182
   3.2205E+01   3.2988E+01   1.2762E-08  0.2582
   3.2988E+01   3.3791E+01   1.6612E-08  0.2236
   3.3791E+01   3.4613E+01   1.2163E-08  0.2582
   3.4613E+01   3.5455E+01   1.1083E-08  0.2673
   3.5455E+01   3.6318E+01   6.1825E-09  0.3536
   3.6318E+01   3.7201E+01   6.0357E-09  0.3536
   3.7201E+01   3.8106E+01   5.1558E-09  0.3780
   3.8106E+01   3.9034E+01   6.4714E-09  0.3333
   3.9034E+01   3.9983E+01   1.4039E-09  0.7071
   3.9983E+01   4.0956E+01   1.3706E-09  0.7071
   4.0956E+01   4.1953E+01   2.6760E-09  0.5000
   4.1953E+01   4.2973E+01   6.5312E-10  1.0000
   4.2973E+01   4.4019E+01   3.1880E-09  0.4472
   4.4019E+01   4.5090E+01   0.0000E+00  0.0000
   4.5090E+01   4.6187E+01   1.8230E-09  0.5774
   4.6187E+01   4.7311E+01   1.1865E-09  0.7071
   4.7311E+01   4.8462E+01   5.7915E-10  1.0000
   4.8462E+01   4.9641E+01   0.0000E+00  0.0000
   4.9641E+01   5.0849E+01   0.0000E+00  0.0000
   5.0849E+01   5.2086E+01   5.3885E-10  1.0000
   5.2086E+01   5.3353E+01   0.0000E+00  0.0000
   5.3353E+01   5.4651E+01   0.0000E+00  0.0000
   5.4651E+01   5.5981E+01   0.0000E+00  0.0000
   5.5981E+01   5.7343E+01   0.0000E+00  0.0000
   5.7343E+01   5.8738E+01   0.0000E+00  0.0000
   5.8738E+01   6.0168E+01   0.0000E+00  0.0000
   6.0168E+01   6.1632E+01   0.0000E+00  0.0000
   6.1632E+01   6.3131E+01   0.0000E+00  0.0000
   6.3131E+01   6.4667E+01   0.0000E+00  0.0000
   6.4667E+01   6.6240E+01   0.0000E+00  0.0000
   6.6240E+01   6.7852E+01   0.0000E+00  0.0000
   6.7852E+01   6.9503E+01   0.0000E+00  0.0000
   6.9503E+01   7.1194E+01   0.0000E+00  0.0000
   7.1194E+01   7.2926E+01   0.0000E+00  0.0000
   7.2926E+01   7.4701E+01   0.0000E+00  0.0000
   7.4701E+01   7.6518E+01   0.0000E+00  0.0000
   7.6518E+01   7.8380E+01   0.0000E+00  0.0000
   7.8380E+01   8.0287E+01   0.0000E+00  0.0000
   8.0287E+01   8.2240E+01   0.0000E+00  0.0000
   8.2240E+01   8.4241E+01   0.0000E+00  0.0000
   8.4241E+01   8.6291E+01   0.0000E+00  0.0000
   8.6291E+01   8.8391E+01   0.0000E+00  0.0000
   8.8391E+01   9.0541E+01   0.0000E+00  0.0000
   9.0541E+01   9.2744E+01   0.0000E+00  0.0000
   9.2744E+01   9.5001E+01   0.0000E+00  0.0000
   9.5001E+01   9.7312E+01   0.0000E+00  0.0000
   9.7312E+01   9.9680E+01   0.0000E+00  0.0000
   9.9680E+01   1.0211E+02   0.0000E+00  0.0000
   1.0211E+02   1.0459E+02   0.0000E+00  0.0000
   1.0459E+02   1.0713E+02   0.0000E+00  0.0000
   1.0713E+02   1.0974E+02   0.0000E+00  0.0000
   1.0974E+02   1.1241E+02   0.0000E+00  0.0000
   1.1241E+02   1.1515E+02   0.0000E+00  0.0000
   1.1515E+02   1.1795E+02   0.0000E+00  0.0000
   1.1795E+02   1.2082E+02   0.0000E+00  0.0000
   1.2082E+02   1.2376E+02   0.0000E+00  0.0000
   1.2376E+02   1.2677E+02   0.0000E+00  0.0000
   1.2677E+02   1.2985E+02   0.0000E+00  0.0000
   1.2985E+02   1.3301E+02   0.0000E+00  0.0000
   1.3301E+02   1.3625E+02   0.0000E+00  0.0000
   1.3625E+02   1.3956E+02   0.0000E+00  0.0000
   1.3956E+02   1.4296E+02   0.0000E+00  0.0000
   1.4296E+02   1.4644E+02   0.0000E+00  0.0000
   1.4644E+02   1.5000E+02   0.0000E+00  0.0000

#   sum over                 1.8975E-06
'no. =    1   reg = 125 - 225'
msuc: {\huge [t-cross] in region mesh}
msdr: {\it plotted by \ANGEL \version}
msdl: {\it calculated by \PHITS  3.26}
wt: s(0.7)
\vspace{-3}
  region surface crossing
  area  &=&   1.0000E+00 [cm^2]
e:
 
# Information for Restart Calculation
# This calculation was newly started
# istdev =  2 # 1:Batch variance, 2:History variance
# resc2  = 1.50000000000000000E+09 # Total source weight or Total source weight / maxcas
# resc3  = 1.50000000000000000E+09 # Total history number or Total batch number
# maxcas =   500000000 # History / Batch, only used for istdev=1
# bitrseed = 0000010101110101110110100110011001100101000001100111100100101101 # bit data of rseed
