[ T-Cross ]
    title = [t-cross] in region mesh
     mesh =  reg            # mesh type is region-wise
      reg =    1            # number of crossing regions
      non     r-from    r-to       area
      1       100       200        1.000000    
   e-type =    3            # e-mesh is log given by emin, emax and ne
     emin =  1.0000000E-02  # minimum value of e-mesh points
     emax =   150.0000      # maximum value of e-mesh points
#    edel =  2.4039514E-02  # mesh width of e-mesh points
       ne =    400          # number of e-mesh points
#    data = ( e(i), i = 1, ne + 1 )
#           1.00000E-02  1.02433E-02  1.04925E-02  1.07478E-02  1.10093E-02
#           1.12772E-02  1.15516E-02  1.18326E-02  1.21205E-02  1.24154E-02
#           1.27175E-02  1.30269E-02  1.33439E-02  1.36686E-02  1.40011E-02
#           1.43418E-02  1.46907E-02  1.50482E-02  1.54143E-02  1.57894E-02
#           1.61735E-02  1.65670E-02  1.69701E-02  1.73830E-02  1.78060E-02
#           1.82392E-02  1.86830E-02  1.91375E-02  1.96032E-02  2.00801E-02
#           2.05687E-02  2.10692E-02  2.15818E-02  2.21069E-02  2.26448E-02
#           2.31957E-02  2.37601E-02  2.43382E-02  2.49304E-02  2.55369E-02
#           2.61583E-02  2.67947E-02  2.74467E-02  2.81145E-02  2.87985E-02
#           2.94992E-02  3.02169E-02  3.09521E-02  3.17052E-02  3.24766E-02
#           3.32668E-02  3.40762E-02  3.49053E-02  3.57546E-02  3.66246E-02
#           3.75157E-02  3.84284E-02  3.93634E-02  4.03212E-02  4.13022E-02
#           4.23071E-02  4.33365E-02  4.43909E-02  4.54710E-02  4.65773E-02
#           4.77106E-02  4.88714E-02  5.00605E-02  5.12785E-02  5.25262E-02
#           5.38042E-02  5.51133E-02  5.64542E-02  5.78278E-02  5.92348E-02
#           6.06760E-02  6.21523E-02  6.36645E-02  6.52135E-02  6.68002E-02
#           6.84255E-02  7.00904E-02  7.17957E-02  7.35426E-02  7.53319E-02
#           7.71648E-02  7.90423E-02  8.09655E-02  8.29354E-02  8.49533E-02
#           8.70203E-02  8.91376E-02  9.13064E-02  9.35279E-02  9.58035E-02
#           9.81345E-02  1.00522E-01  1.02968E-01  1.05473E-01  1.08040E-01
#           1.10668E-01  1.13361E-01  1.16119E-01  1.18944E-01  1.21838E-01
#           1.24803E-01  1.27839E-01  1.30950E-01  1.34136E-01  1.37399E-01
#           1.40742E-01  1.44167E-01  1.47675E-01  1.51268E-01  1.54948E-01
#           1.58718E-01  1.62580E-01  1.66535E-01  1.70587E-01  1.74738E-01
#           1.78989E-01  1.83344E-01  1.87805E-01  1.92375E-01  1.97055E-01
#           2.01850E-01  2.06761E-01  2.11792E-01  2.16945E-01  2.22223E-01
#           2.27630E-01  2.33169E-01  2.38842E-01  2.44653E-01  2.50605E-01
#           2.56703E-01  2.62949E-01  2.69346E-01  2.75900E-01  2.82613E-01
#           2.89489E-01  2.96532E-01  3.03747E-01  3.11138E-01  3.18708E-01
#           3.26462E-01  3.34405E-01  3.42542E-01  3.50876E-01  3.59413E-01
#           3.68158E-01  3.77116E-01  3.86291E-01  3.95690E-01  4.05317E-01
#           4.15179E-01  4.25281E-01  4.35628E-01  4.46227E-01  4.57084E-01
#           4.68205E-01  4.79597E-01  4.91266E-01  5.03219E-01  5.15463E-01
#           5.28005E-01  5.40851E-01  5.54011E-01  5.67490E-01  5.81298E-01
#           5.95441E-01  6.09929E-01  6.24769E-01  6.39970E-01  6.55541E-01
#           6.71491E-01  6.87828E-01  7.04564E-01  7.21706E-01  7.39266E-01
#           7.57253E-01  7.75678E-01  7.94551E-01  8.13883E-01  8.33685E-01
#           8.53969E-01  8.74747E-01  8.96030E-01  9.17831E-01  9.40163E-01
#           9.63038E-01  9.86469E-01  1.01047E+00  1.03506E+00  1.06024E+00
#           1.08604E+00  1.11246E+00  1.13953E+00  1.16725E+00  1.19565E+00
#           1.22474E+00  1.25454E+00  1.28507E+00  1.31633E+00  1.34836E+00
#           1.38117E+00  1.41477E+00  1.44920E+00  1.48446E+00  1.52057E+00
#           1.55757E+00  1.59547E+00  1.63429E+00  1.67405E+00  1.71478E+00
#           1.75650E+00  1.79924E+00  1.84302E+00  1.88786E+00  1.93379E+00
#           1.98084E+00  2.02904E+00  2.07841E+00  2.12898E+00  2.18078E+00
#           2.23384E+00  2.28819E+00  2.34386E+00  2.40089E+00  2.45930E+00
#           2.51914E+00  2.58043E+00  2.64322E+00  2.70753E+00  2.77341E+00
#           2.84088E+00  2.91001E+00  2.98081E+00  3.05333E+00  3.12762E+00
#           3.20372E+00  3.28167E+00  3.36152E+00  3.44330E+00  3.52708E+00
#           3.61290E+00  3.70080E+00  3.79085E+00  3.88308E+00  3.97756E+00
#           4.07434E+00  4.17347E+00  4.27501E+00  4.37903E+00  4.48557E+00
#           4.59471E+00  4.70650E+00  4.82102E+00  4.93832E+00  5.05847E+00
#           5.18155E+00  5.30762E+00  5.43676E+00  5.56904E+00  5.70453E+00
#           5.84333E+00  5.98550E+00  6.13114E+00  6.28031E+00  6.43312E+00
#           6.58964E+00  6.74997E+00  6.91420E+00  7.08243E+00  7.25475E+00
#           7.43126E+00  7.61207E+00  7.79728E+00  7.98700E+00  8.18133E+00
#           8.38038E+00  8.58428E+00  8.79315E+00  9.00709E+00  9.22624E+00
#           9.45072E+00  9.68067E+00  9.91620E+00  1.01575E+01  1.04046E+01
#           1.06578E+01  1.09171E+01  1.11827E+01  1.14548E+01  1.17335E+01
#           1.20190E+01  1.23114E+01  1.26109E+01  1.29178E+01  1.32321E+01
#           1.35540E+01  1.38838E+01  1.42216E+01  1.45676E+01  1.49221E+01
#           1.52851E+01  1.56570E+01  1.60380E+01  1.64282E+01  1.68279E+01
#           1.72374E+01  1.76568E+01  1.80864E+01  1.85264E+01  1.89772E+01
#           1.94389E+01  1.99119E+01  2.03963E+01  2.08926E+01  2.14009E+01
#           2.19216E+01  2.24550E+01  2.30014E+01  2.35610E+01  2.41343E+01
#           2.47215E+01  2.53230E+01  2.59391E+01  2.65702E+01  2.72167E+01
#           2.78789E+01  2.85572E+01  2.92520E+01  2.99637E+01  3.06928E+01
#           3.14396E+01  3.22045E+01  3.29881E+01  3.37907E+01  3.46128E+01
#           3.54550E+01  3.63177E+01  3.72013E+01  3.81064E+01  3.90336E+01
#           3.99833E+01  4.09561E+01  4.19526E+01  4.29734E+01  4.40189E+01
#           4.50900E+01  4.61870E+01  4.73108E+01  4.84619E+01  4.96410E+01
#           5.08488E+01  5.20860E+01  5.33533E+01  5.46514E+01  5.59812E+01
#           5.73432E+01  5.87384E+01  6.01676E+01  6.16315E+01  6.31311E+01
#           6.46671E+01  6.62405E+01  6.78522E+01  6.95031E+01  7.11941E+01
#           7.29263E+01  7.47007E+01  7.65182E+01  7.83800E+01  8.02870E+01
#           8.22405E+01  8.42414E+01  8.62911E+01  8.83906E+01  9.05412E+01
#           9.27442E+01  9.50007E+01  9.73122E+01  9.96799E+01  1.02105E+02
#           1.04589E+02  1.07134E+02  1.09741E+02  1.12411E+02  1.15146E+02
#           1.17948E+02  1.20817E+02  1.23757E+02  1.26768E+02  1.29852E+02
#           1.33012E+02  1.36248E+02  1.39563E+02  1.42959E+02  1.46437E+02
#           1.50000E+02
     unit =    2            # unit is [1/cm^2/(MeV/n)/source]
     axis =  eng            # axis of output
     file = detector-01.out  # file name of output for the above axis
   output = f-curr          # surface crossing forward current spectrum
     part =  neutron  
# kf/name :  2112     
#    used :        main (  %)        temp (  %)       total (  %)
#  memory :         414 (  0)           0 (  0)         414 (  0)

#------------------------------------------------------------------------------
#newpage:
#   no. =    1   reg = 100 - 200

x: Energy [MeV/n]
y:  F-Curr [1/cm^2/(MeV/n)/source]         
p: xlog ylog afac(0.8) form(0.9)
h: n            x            y(neutron ),hh0l   n 
#  e-lower      e-upper      neutron     r.err 
   1.0000E-02   1.0243E-02   1.9293E-04  0.0651
   1.0243E-02   1.0493E-02   1.5461E-04  0.0718
   1.0493E-02   1.0748E-02   1.6772E-04  0.0681
   1.0748E-02   1.1009E-02   1.5158E-04  0.0707
   1.1009E-02   1.1277E-02   1.4982E-04  0.0704
   1.1277E-02   1.1552E-02   1.3742E-04  0.0726
   1.1552E-02   1.1833E-02   1.3562E-04  0.0721
   1.1833E-02   1.2121E-02   1.3268E-04  0.0721
   1.2121E-02   1.2415E-02   1.4810E-04  0.0675
   1.2415E-02   1.2718E-02   1.4052E-04  0.0685
   1.2718E-02   1.3027E-02   1.4014E-04  0.0677
   1.3027E-02   1.3344E-02   1.3338E-04  0.0685
   1.3344E-02   1.3669E-02   1.4075E-04  0.0660
   1.3669E-02   1.4001E-02   1.1715E-04  0.0714
   1.4001E-02   1.4342E-02   1.2806E-04  0.0674
   1.4342E-02   1.4691E-02   1.2991E-04  0.0663
   1.4691E-02   1.5048E-02   1.2832E-04  0.0659
   1.5048E-02   1.5414E-02   1.3030E-04  0.0647
   1.5414E-02   1.5789E-02   1.1457E-04  0.0680
   1.5789E-02   1.6174E-02   1.2959E-04  0.0632
   1.6174E-02   1.6567E-02   1.0484E-04  0.0694
   1.6567E-02   1.6970E-02   1.1327E-04  0.0660
   1.6970E-02   1.7383E-02   1.1565E-04  0.0645
   1.7383E-02   1.7806E-02   1.0440E-04  0.0671
   1.7806E-02   1.8239E-02   1.1737E-04  0.0624
   1.8239E-02   1.8683E-02   9.4896E-05  0.0686
   1.8683E-02   1.9138E-02   1.1398E-04  0.0620
   1.9138E-02   1.9603E-02   1.0863E-04  0.0627
   1.9603E-02   2.0080E-02   1.0024E-04  0.0646
   2.0080E-02   2.0569E-02   9.6969E-05  0.0647
   2.0569E-02   2.1069E-02   1.0024E-04  0.0631
   2.1069E-02   2.1582E-02   9.1621E-05  0.0651
   2.1582E-02   2.2107E-02   1.0189E-04  0.0610
   2.2107E-02   2.2645E-02   9.6252E-05  0.0620
   2.2645E-02   2.3196E-02   9.2153E-05  0.0626
   2.3196E-02   2.3760E-02   9.6755E-05  0.0604
   2.3760E-02   2.4338E-02   8.7417E-05  0.0628
   2.4338E-02   2.4930E-02   8.9561E-05  0.0612
   2.4930E-02   2.5537E-02   8.7765E-05  0.0611
   2.5537E-02   2.6158E-02   8.5392E-05  0.0612
   2.6158E-02   2.6795E-02   7.8301E-05  0.0631
   2.6795E-02   2.7447E-02   8.0237E-05  0.0616
   2.7447E-02   2.8114E-02   7.3954E-05  0.0634
   2.8114E-02   2.8799E-02   7.7604E-05  0.0612
   2.8799E-02   2.9499E-02   7.6014E-05  0.0610
   2.9499E-02   3.0217E-02   7.4885E-05  0.0608
   3.0217E-02   3.0952E-02   7.3559E-05  0.0607
   3.0952E-02   3.1705E-02   7.2279E-05  0.0605
   3.1705E-02   3.2477E-02   6.5254E-05  0.0629
   3.2477E-02   3.3267E-02   6.1458E-05  0.0639
   3.3267E-02   3.4076E-02   6.4478E-05  0.0617
   3.4076E-02   3.4905E-02   7.0919E-05  0.0582
   3.4905E-02   3.5755E-02   6.4948E-05  0.0600
   3.5755E-02   3.6625E-02   6.8964E-05  0.0576
   3.6625E-02   3.7516E-02   6.5509E-05  0.0585
   3.7516E-02   3.8428E-02   6.5049E-05  0.0580
   3.8428E-02   3.9363E-02   5.8131E-05  0.0605
   3.9363E-02   4.0321E-02   5.6674E-05  0.0606
   4.0321E-02   4.1302E-02   6.0655E-05  0.0578
   4.1302E-02   4.2307E-02   5.3660E-05  0.0607
   4.2307E-02   4.3337E-02   5.7815E-05  0.0578
   4.3337E-02   4.4391E-02   5.5635E-05  0.0582
   4.4391E-02   4.5471E-02   5.9081E-05  0.0558
   4.5471E-02   4.6577E-02   5.8382E-05  0.0555
   4.6577E-02   4.7711E-02   5.1120E-05  0.0585
   4.7711E-02   4.8871E-02   5.2658E-05  0.0571
   4.8871E-02   5.0061E-02   5.0472E-05  0.0574
   5.0061E-02   5.1279E-02   5.1611E-05  0.0562
   5.1279E-02   5.2526E-02   4.5685E-05  0.0591
   5.2526E-02   5.3804E-02   4.8200E-05  0.0568
   5.3804E-02   5.5113E-02   4.6889E-05  0.0569
   5.5113E-02   5.6454E-02   5.0911E-05  0.0540
   5.6454E-02   5.7828E-02   4.3978E-05  0.0574
   5.7828E-02   5.9235E-02   4.6366E-05  0.0552
   5.9235E-02   6.0676E-02   4.2998E-05  0.0567
   6.0676E-02   6.2152E-02   4.2673E-05  0.0563
   6.2152E-02   6.3665E-02   4.2176E-05  0.0559
   6.3665E-02   6.5214E-02   3.9161E-05  0.0573
   6.5214E-02   6.6800E-02   4.2311E-05  0.0545
   6.6800E-02   6.8426E-02   4.2379E-05  0.0537
   6.8426E-02   7.0090E-02   4.0489E-05  0.0544
   7.0090E-02   7.1796E-02   3.8898E-05  0.0547
   7.1796E-02   7.3543E-02   4.3885E-05  0.0508
   7.3543E-02   7.5332E-02   3.7404E-05  0.0546
   7.5332E-02   7.7165E-02   3.9111E-05  0.0526
   7.7165E-02   7.9042E-02   3.6947E-05  0.0536
   7.9042E-02   8.0965E-02   3.4299E-05  0.0549
   8.0965E-02   8.2935E-02   3.3179E-05  0.0551
   8.2935E-02   8.4953E-02   3.3550E-05  0.0543
   8.4953E-02   8.7020E-02   3.4216E-05  0.0530
   8.7020E-02   8.9138E-02   3.2589E-05  0.0537
   8.9138E-02   9.1306E-02   3.3241E-05  0.0526
   9.1306E-02   9.3528E-02   3.4995E-05  0.0506
   9.3528E-02   9.5804E-02   3.4289E-05  0.0505
   9.5804E-02   9.8134E-02   2.9740E-05  0.0535
   9.8134E-02   1.0052E-01   3.0975E-05  0.0519
   1.0052E-01   1.0297E-01   2.9294E-05  0.0526
   1.0297E-01   1.0547E-01   3.0296E-05  0.0512
   1.0547E-01   1.0804E-01   2.8480E-05  0.0522
   1.0804E-01   1.1067E-01   2.6774E-05  0.0533
   1.1067E-01   1.1336E-01   2.6936E-05  0.0525
   1.1336E-01   1.1612E-01   2.6966E-05  0.0517
   1.1612E-01   1.1894E-01   2.6118E-05  0.0518
   1.1894E-01   1.2184E-01   2.7299E-05  0.0502
   1.2184E-01   1.2480E-01   2.4834E-05  0.0519
   1.2480E-01   1.2784E-01   2.7936E-05  0.0485
   1.2784E-01   1.3095E-01   2.2249E-05  0.0537
   1.3095E-01   1.3414E-01   2.2856E-05  0.0522
   1.3414E-01   1.3740E-01   2.2078E-05  0.0525
   1.3740E-01   1.4074E-01   2.1508E-05  0.0526
   1.4074E-01   1.4417E-01   2.2341E-05  0.0510
   1.4417E-01   1.4767E-01   2.2302E-05  0.0504
   1.4767E-01   1.5127E-01   2.1917E-05  0.0503
   1.5127E-01   1.5495E-01   2.2959E-05  0.0486
   1.5495E-01   1.5872E-01   2.1372E-05  0.0497
   1.5872E-01   1.6258E-01   2.1242E-05  0.0492
   1.6258E-01   1.6654E-01   1.9513E-05  0.0508
   1.6654E-01   1.7059E-01   1.9839E-05  0.0497
   1.7059E-01   1.7474E-01   2.1061E-05  0.0478
   1.7474E-01   1.7899E-01   1.9472E-05  0.0490
   1.7899E-01   1.8334E-01   1.8203E-05  0.0501
   1.8334E-01   1.8781E-01   1.8422E-05  0.0492
   1.8781E-01   1.9237E-01   1.7989E-05  0.0492
   1.9237E-01   1.9706E-01   1.7557E-05  0.0492
   1.9706E-01   2.0185E-01   1.6432E-05  0.0503
   2.0185E-01   2.0676E-01   1.7937E-05  0.0475
   2.0676E-01   2.1179E-01   1.9464E-05  0.0451
   2.1179E-01   2.1694E-01   2.0765E-05  0.0431
   2.1694E-01   2.2222E-01   1.8807E-05  0.0448
   2.2222E-01   2.2763E-01   1.9636E-05  0.0433
   2.2763E-01   2.3317E-01   1.9918E-05  0.0425
   2.3317E-01   2.3884E-01   1.9102E-05  0.0429
   2.3884E-01   2.4465E-01   2.2662E-05  0.0389
   2.4465E-01   2.5061E-01   2.1837E-05  0.0391
   2.5061E-01   2.5670E-01   2.1753E-05  0.0387
   2.5670E-01   2.6295E-01   2.2875E-05  0.0373
   2.6295E-01   2.6935E-01   2.3427E-05  0.0364
   2.6935E-01   2.7590E-01   2.3636E-05  0.0359
   2.7590E-01   2.8261E-01   2.5380E-05  0.0342
   2.8261E-01   2.8949E-01   2.4489E-05  0.0344
   2.8949E-01   2.9653E-01   2.5275E-05  0.0334
   2.9653E-01   3.0375E-01   2.5111E-05  0.0331
   3.0375E-01   3.1114E-01   2.5176E-05  0.0327
   3.1114E-01   3.1871E-01   2.6147E-05  0.0317
   3.1871E-01   3.2646E-01   2.8186E-05  0.0302
   3.2646E-01   3.3441E-01   2.9392E-05  0.0292
   3.3441E-01   3.4254E-01   2.9169E-05  0.0290
   3.4254E-01   3.5088E-01   3.1268E-05  0.0276
   3.5088E-01   3.5941E-01   2.9921E-05  0.0279
   3.5941E-01   3.6816E-01   3.1529E-05  0.0269
   3.6816E-01   3.7712E-01   3.2122E-05  0.0263
   3.7712E-01   3.8629E-01   3.3991E-05  0.0253
   3.8629E-01   3.9569E-01   3.3571E-05  0.0251
   3.9569E-01   4.0532E-01   3.4382E-05  0.0245
   4.0532E-01   4.1518E-01   3.4416E-05  0.0242
   4.1518E-01   4.2528E-01   3.5974E-05  0.0234
   4.2528E-01   4.3563E-01   3.7351E-05  0.0227
   4.3563E-01   4.4623E-01   3.8209E-05  0.0222
   4.4623E-01   4.5708E-01   3.7952E-05  0.0220
   4.5708E-01   4.6821E-01   3.8520E-05  0.0215
   4.6821E-01   4.7960E-01   3.8859E-05  0.0212
   4.7960E-01   4.9127E-01   3.8546E-05  0.0210
   4.9127E-01   5.0322E-01   3.9857E-05  0.0204
   5.0322E-01   5.1546E-01   4.2105E-05  0.0197
   5.1546E-01   5.2800E-01   4.0995E-05  0.0197
   5.2800E-01   5.4085E-01   4.2235E-05  0.0191
   5.4085E-01   5.5401E-01   4.4295E-05  0.0185
   5.5401E-01   5.6749E-01   4.4058E-05  0.0183
   5.6749E-01   5.8130E-01   4.6719E-05  0.0176
   5.8130E-01   5.9544E-01   4.6497E-05  0.0174
   5.9544E-01   6.0993E-01   4.6799E-05  0.0171
   6.0993E-01   6.2477E-01   4.7921E-05  0.0167
   6.2477E-01   6.3997E-01   4.8204E-05  0.0165
   6.3997E-01   6.5554E-01   5.0345E-05  0.0159
   6.5554E-01   6.7149E-01   4.9985E-05  0.0158
   6.7149E-01   6.8783E-01   5.0914E-05  0.0155
   6.8783E-01   7.0456E-01   5.1143E-05  0.0152
   7.0456E-01   7.2171E-01   5.2984E-05  0.0148
   7.2171E-01   7.3927E-01   5.3363E-05  0.0146
   7.3927E-01   7.5725E-01   5.4677E-05  0.0142
   7.5725E-01   7.7568E-01   5.4343E-05  0.0141
   7.7568E-01   7.9455E-01   5.4731E-05  0.0139
   7.9455E-01   8.1388E-01   5.5449E-05  0.0136
   8.1388E-01   8.3368E-01   5.7630E-05  0.0132
   8.3368E-01   8.5397E-01   5.7525E-05  0.0131
   8.5397E-01   8.7475E-01   5.8995E-05  0.0127
   8.7475E-01   8.9603E-01   5.8880E-05  0.0126
   8.9603E-01   9.1783E-01   6.0717E-05  0.0123
   9.1783E-01   9.4016E-01   6.0492E-05  0.0121
   9.4016E-01   9.6304E-01   6.2078E-05  0.0118
   9.6304E-01   9.8647E-01   6.1244E-05  0.0118
   9.8647E-01   1.0105E+00   6.3542E-05  0.0114
   1.0105E+00   1.0351E+00   6.3211E-05  0.0113
   1.0351E+00   1.0602E+00   6.2837E-05  0.0112
   1.0602E+00   1.0860E+00   6.4833E-05  0.0109
   1.0860E+00   1.1125E+00   6.5470E-05  0.0107
   1.1125E+00   1.1395E+00   6.3820E-05  0.0107
   1.1395E+00   1.1673E+00   6.4204E-05  0.0106
   1.1673E+00   1.1957E+00   6.7799E-05  0.0102
   1.1957E+00   1.2247E+00   6.6806E-05  0.0101
   1.2247E+00   1.2545E+00   6.7735E-05  0.0099
   1.2545E+00   1.2851E+00   6.7213E-05  0.0098
   1.2851E+00   1.3163E+00   6.8809E-05  0.0096
   1.3163E+00   1.3484E+00   6.7294E-05  0.0096
   1.3484E+00   1.3812E+00   6.7908E-05  0.0095
   1.3812E+00   1.4148E+00   6.9930E-05  0.0092
   1.4148E+00   1.4492E+00   7.0044E-05  0.0091
   1.4492E+00   1.4845E+00   7.0467E-05  0.0089
   1.4845E+00   1.5206E+00   7.0377E-05  0.0088
   1.5206E+00   1.5576E+00   7.1568E-05  0.0087
   1.5576E+00   1.5955E+00   7.1841E-05  0.0085
   1.5955E+00   1.6343E+00   7.1877E-05  0.0084
   1.6343E+00   1.6741E+00   7.1189E-05  0.0084
   1.6741E+00   1.7148E+00   7.2758E-05  0.0082
   1.7148E+00   1.7565E+00   7.2662E-05  0.0081
   1.7565E+00   1.7992E+00   7.2927E-05  0.0080
   1.7992E+00   1.8430E+00   7.2514E-05  0.0079
   1.8430E+00   1.8879E+00   7.4547E-05  0.0077
   1.8879E+00   1.9338E+00   7.3620E-05  0.0077
   1.9338E+00   1.9808E+00   7.2781E-05  0.0076
   1.9808E+00   2.0290E+00   7.3546E-05  0.0075
   2.0290E+00   2.0784E+00   7.4469E-05  0.0074
   2.0784E+00   2.1290E+00   7.4446E-05  0.0073
   2.1290E+00   2.1808E+00   7.5407E-05  0.0071
   2.1808E+00   2.2338E+00   7.5535E-05  0.0070
   2.2338E+00   2.2882E+00   7.4869E-05  0.0070
   2.2882E+00   2.3439E+00   7.5698E-05  0.0069
   2.3439E+00   2.4009E+00   7.5682E-05  0.0068
   2.4009E+00   2.4593E+00   7.6450E-05  0.0067
   2.4593E+00   2.5191E+00   7.6951E-05  0.0066
   2.5191E+00   2.5804E+00   7.6608E-05  0.0065
   2.5804E+00   2.6432E+00   7.7106E-05  0.0064
   2.6432E+00   2.7075E+00   7.7678E-05  0.0063
   2.7075E+00   2.7734E+00   7.6971E-05  0.0063
   2.7734E+00   2.8409E+00   7.7097E-05  0.0062
   2.8409E+00   2.9100E+00   7.7313E-05  0.0061
   2.9100E+00   2.9808E+00   7.7167E-05  0.0060
   2.9808E+00   3.0533E+00   7.8396E-05  0.0059
   3.0533E+00   3.1276E+00   7.7908E-05  0.0059
   3.1276E+00   3.2037E+00   7.7843E-05  0.0058
   3.2037E+00   3.2817E+00   7.7534E-05  0.0057
   3.2817E+00   3.3615E+00   7.9343E-05  0.0056
   3.3615E+00   3.4433E+00   7.8130E-05  0.0056
   3.4433E+00   3.5271E+00   7.9140E-05  0.0055
   3.5271E+00   3.6129E+00   7.9684E-05  0.0054
   3.6129E+00   3.7008E+00   7.9916E-05  0.0053
   3.7008E+00   3.7908E+00   8.0123E-05  0.0053
   3.7908E+00   3.8831E+00   8.0162E-05  0.0052
   3.8831E+00   3.9776E+00   8.0793E-05  0.0051
   3.9776E+00   4.0743E+00   8.0531E-05  0.0051
   4.0743E+00   4.1735E+00   8.0816E-05  0.0050
   4.1735E+00   4.2750E+00   8.1482E-05  0.0049
   4.2750E+00   4.3790E+00   8.1503E-05  0.0048
   4.3790E+00   4.4856E+00   8.2466E-05  0.0048
   4.4856E+00   4.5947E+00   8.2224E-05  0.0047
   4.5947E+00   4.7065E+00   8.3406E-05  0.0046
   4.7065E+00   4.8210E+00   8.5205E-05  0.0045
   4.8210E+00   4.9383E+00   8.5360E-05  0.0045
   4.9383E+00   5.0585E+00   8.4926E-05  0.0044
   5.0585E+00   5.1815E+00   8.6431E-05  0.0043
   5.1815E+00   5.3076E+00   8.6395E-05  0.0043
   5.3076E+00   5.4368E+00   8.6857E-05  0.0042
   5.4368E+00   5.5690E+00   8.7846E-05  0.0041
   5.5690E+00   5.7045E+00   8.8232E-05  0.0041
   5.7045E+00   5.8433E+00   8.9068E-05  0.0040
   5.8433E+00   5.9855E+00   8.9461E-05  0.0040
   5.9855E+00   6.1311E+00   9.0006E-05  0.0039
   6.1311E+00   6.2803E+00   9.0319E-05  0.0038
   6.2803E+00   6.4331E+00   9.1497E-05  0.0038
   6.4331E+00   6.5896E+00   9.2394E-05  0.0037
   6.5896E+00   6.7500E+00   9.3119E-05  0.0037
   6.7500E+00   6.9142E+00   9.3339E-05  0.0036
   6.9142E+00   7.0824E+00   9.4925E-05  0.0035
   7.0824E+00   7.2548E+00   9.4920E-05  0.0035
   7.2548E+00   7.4313E+00   9.5944E-05  0.0034
   7.4313E+00   7.6121E+00   9.7362E-05  0.0034
   7.6121E+00   7.7973E+00   9.8511E-05  0.0033
   7.7973E+00   7.9870E+00   9.8788E-05  0.0033
   7.9870E+00   8.1813E+00   9.9576E-05  0.0032
   8.1813E+00   8.3804E+00   1.0050E-04  0.0032
   8.3804E+00   8.5843E+00   1.0082E-04  0.0031
   8.5843E+00   8.7931E+00   1.0168E-04  0.0031
   8.7931E+00   9.0071E+00   1.0316E-04  0.0030
   9.0071E+00   9.2262E+00   1.0379E-04  0.0030
   9.2262E+00   9.4507E+00   1.0392E-04  0.0029
   9.4507E+00   9.6807E+00   1.0529E-04  0.0029
   9.6807E+00   9.9162E+00   1.0657E-04  0.0028
   9.9162E+00   1.0157E+01   1.0750E-04  0.0028
   1.0157E+01   1.0405E+01   1.0799E-04  0.0027
   1.0405E+01   1.0658E+01   1.0942E-04  0.0027
   1.0658E+01   1.0917E+01   1.1008E-04  0.0026
   1.0917E+01   1.1183E+01   1.1085E-04  0.0026
   1.1183E+01   1.1455E+01   1.1127E-04  0.0026
   1.1455E+01   1.1733E+01   1.1268E-04  0.0025
   1.1733E+01   1.2019E+01   1.1292E-04  0.0025
   1.2019E+01   1.2311E+01   1.1406E-04  0.0024
   1.2311E+01   1.2611E+01   1.1475E-04  0.0024
   1.2611E+01   1.2918E+01   1.1574E-04  0.0024
   1.2918E+01   1.3232E+01   1.1662E-04  0.0023
   1.3232E+01   1.3554E+01   1.1736E-04  0.0023
   1.3554E+01   1.3884E+01   1.1861E-04  0.0023
   1.3884E+01   1.4222E+01   1.1922E-04  0.0022
   1.4222E+01   1.4568E+01   1.2009E-04  0.0022
   1.4568E+01   1.4922E+01   1.2117E-04  0.0022
   1.4922E+01   1.5285E+01   1.2217E-04  0.0021
   1.5285E+01   1.5657E+01   1.2271E-04  0.0021
   1.5657E+01   1.6038E+01   1.2348E-04  0.0021
   1.6038E+01   1.6428E+01   1.2415E-04  0.0020
   1.6428E+01   1.6828E+01   1.2528E-04  0.0020
   1.6828E+01   1.7237E+01   1.2577E-04  0.0020
   1.7237E+01   1.7657E+01   1.2665E-04  0.0019
   1.7657E+01   1.8086E+01   1.2715E-04  0.0019
   1.8086E+01   1.8526E+01   1.2838E-04  0.0019
   1.8526E+01   1.8977E+01   1.2878E-04  0.0019
   1.8977E+01   1.9439E+01   1.2962E-04  0.0018
   1.9439E+01   1.9912E+01   1.3049E-04  0.0018
   1.9912E+01   2.0396E+01   1.3395E-04  0.0018
   2.0396E+01   2.0893E+01   1.3491E-04  0.0017
   2.0893E+01   2.1401E+01   1.3488E-04  0.0017
   2.1401E+01   2.1922E+01   1.3535E-04  0.0017
   2.1922E+01   2.2455E+01   1.3550E-04  0.0017
   2.2455E+01   2.3001E+01   1.3563E-04  0.0016
   2.3001E+01   2.3561E+01   1.3505E-04  0.0016
   2.3561E+01   2.4134E+01   1.3470E-04  0.0016
   2.4134E+01   2.4721E+01   1.3332E-04  0.0016
   2.4721E+01   2.5323E+01   1.3209E-04  0.0016
   2.5323E+01   2.5939E+01   1.3057E-04  0.0016
   2.5939E+01   2.6570E+01   1.2813E-04  0.0016
   2.6570E+01   2.7217E+01   1.2517E-04  0.0016
   2.7217E+01   2.7879E+01   1.2214E-04  0.0016
   2.7879E+01   2.8557E+01   1.1818E-04  0.0016
   2.8557E+01   2.9252E+01   1.1371E-04  0.0016
   2.9252E+01   2.9964E+01   1.0893E-04  0.0016
   2.9964E+01   3.0693E+01   1.0338E-04  0.0016
   3.0693E+01   3.1440E+01   9.7568E-05  0.0017
   3.1440E+01   3.2205E+01   9.1060E-05  0.0017
   3.2205E+01   3.2988E+01   8.4546E-05  0.0017
   3.2988E+01   3.3791E+01   7.8375E-05  0.0018
   3.3791E+01   3.4613E+01   7.1779E-05  0.0018
   3.4613E+01   3.5455E+01   6.5501E-05  0.0019
   3.5455E+01   3.6318E+01   5.9331E-05  0.0020
   3.6318E+01   3.7201E+01   5.3490E-05  0.0021
   3.7201E+01   3.8106E+01   4.7846E-05  0.0021
   3.8106E+01   3.9034E+01   4.2622E-05  0.0022
   3.9034E+01   3.9983E+01   3.7862E-05  0.0024
   3.9983E+01   4.0956E+01   3.3717E-05  0.0025
   4.0956E+01   4.1953E+01   2.9688E-05  0.0026
   4.1953E+01   4.2973E+01   2.6050E-05  0.0027
   4.2973E+01   4.4019E+01   2.3018E-05  0.0029
   4.4019E+01   4.5090E+01   2.0256E-05  0.0030
   4.5090E+01   4.6187E+01   1.7961E-05  0.0032
   4.6187E+01   4.7311E+01   1.6058E-05  0.0033
   4.7311E+01   4.8462E+01   1.4653E-05  0.0034
   4.8462E+01   4.9641E+01   1.3436E-05  0.0036
   4.9641E+01   5.0849E+01   1.2312E-05  0.0037
   5.0849E+01   5.2086E+01   1.1269E-05  0.0038
   5.2086E+01   5.3353E+01   1.0329E-05  0.0039
   5.3353E+01   5.4651E+01   9.4588E-06  0.0040
   5.4651E+01   5.5981E+01   8.6679E-06  0.0042
   5.5981E+01   5.7343E+01   7.9114E-06  0.0043
   5.7343E+01   5.8738E+01   7.5229E-06  0.0044
   5.8738E+01   6.0168E+01   7.3576E-06  0.0044
   6.0168E+01   6.1632E+01   6.8469E-06  0.0045
   6.1632E+01   6.3131E+01   5.9137E-06  0.0047
   6.3131E+01   6.4667E+01   5.2184E-06  0.0050
   6.4667E+01   6.6240E+01   4.2966E-06  0.0054
   6.6240E+01   6.7852E+01   3.6883E-06  0.0058
   6.7852E+01   6.9503E+01   3.1600E-06  0.0062
   6.9503E+01   7.1194E+01   2.8284E-06  0.0065
   7.1194E+01   7.2926E+01   2.5109E-06  0.0068
   7.2926E+01   7.4701E+01   2.0108E-06  0.0075
   7.4701E+01   7.6518E+01   1.3480E-06  0.0090
   7.6518E+01   7.8380E+01   7.1105E-07  0.0123
   7.8380E+01   8.0287E+01   1.6203E-07  0.0254
   8.0287E+01   8.2240E+01   1.0238E-10  1.0000
   8.2240E+01   8.4241E+01   0.0000E+00  0.0000
   8.4241E+01   8.6291E+01   0.0000E+00  0.0000
   8.6291E+01   8.8391E+01   0.0000E+00  0.0000
   8.8391E+01   9.0541E+01   0.0000E+00  0.0000
   9.0541E+01   9.2744E+01   0.0000E+00  0.0000
   9.2744E+01   9.5001E+01   0.0000E+00  0.0000
   9.5001E+01   9.7312E+01   0.0000E+00  0.0000
   9.7312E+01   9.9680E+01   0.0000E+00  0.0000
   9.9680E+01   1.0211E+02   0.0000E+00  0.0000
   1.0211E+02   1.0459E+02   0.0000E+00  0.0000
   1.0459E+02   1.0713E+02   0.0000E+00  0.0000
   1.0713E+02   1.0974E+02   0.0000E+00  0.0000
   1.0974E+02   1.1241E+02   0.0000E+00  0.0000
   1.1241E+02   1.1515E+02   0.0000E+00  0.0000
   1.1515E+02   1.1795E+02   0.0000E+00  0.0000
   1.1795E+02   1.2082E+02   0.0000E+00  0.0000
   1.2082E+02   1.2376E+02   0.0000E+00  0.0000
   1.2376E+02   1.2677E+02   0.0000E+00  0.0000
   1.2677E+02   1.2985E+02   0.0000E+00  0.0000
   1.2985E+02   1.3301E+02   0.0000E+00  0.0000
   1.3301E+02   1.3625E+02   0.0000E+00  0.0000
   1.3625E+02   1.3956E+02   0.0000E+00  0.0000
   1.3956E+02   1.4296E+02   0.0000E+00  0.0000
   1.4296E+02   1.4644E+02   0.0000E+00  0.0000
   1.4644E+02   1.5000E+02   0.0000E+00  0.0000

#   sum over                 2.9072E-05
'no. =    1   reg = 100 - 200'
msuc: {\huge [t-cross] in region mesh}
msdr: {\it plotted by \ANGEL \version}
msdl: {\it calculated by \PHITS  3.28}
wt: s(0.7)
\vspace{-3}
  region surface crossing
  area  &=&   1.0000E+00 [cm^2]
e:
 
# Information for Restart Calculation
# This calculation was newly started
# istdev =  2 # 1:Batch variance, 2:History variance
# resc2  = 5.00000000000000000E+09 # Total source weight or Total source weight / maxcas
# resc3  = 5.00000000000000000E+09 # Total history number or Total batch number
# maxcas =   500000000 # History / Batch, only used for istdev=1
# bitrseed = 0001101011110000011001100100101010101011111110100001111101011101 # bit data of rseed
