[ T-Cross ]
    title = [t-cross] in region mesh
     mesh =  reg            # mesh type is region-wise
      reg =    1            # number of crossing regions
      non     r-from    r-to       area
      1       105       205        1.000000    
   e-type =    3            # e-mesh is log given by emin, emax and ne
     emin =  1.0000000E-02  # minimum value of e-mesh points
     emax =   150.0000      # maximum value of e-mesh points
#    edel =  2.4039514E-02  # mesh width of e-mesh points
       ne =    400          # number of e-mesh points
#    data = ( e(i), i = 1, ne + 1 )
#           1.00000E-02  1.02433E-02  1.04925E-02  1.07478E-02  1.10093E-02
#           1.12772E-02  1.15516E-02  1.18326E-02  1.21205E-02  1.24154E-02
#           1.27175E-02  1.30269E-02  1.33439E-02  1.36686E-02  1.40011E-02
#           1.43418E-02  1.46907E-02  1.50482E-02  1.54143E-02  1.57894E-02
#           1.61735E-02  1.65670E-02  1.69701E-02  1.73830E-02  1.78060E-02
#           1.82392E-02  1.86830E-02  1.91375E-02  1.96032E-02  2.00801E-02
#           2.05687E-02  2.10692E-02  2.15818E-02  2.21069E-02  2.26448E-02
#           2.31957E-02  2.37601E-02  2.43382E-02  2.49304E-02  2.55369E-02
#           2.61583E-02  2.67947E-02  2.74467E-02  2.81145E-02  2.87985E-02
#           2.94992E-02  3.02169E-02  3.09521E-02  3.17052E-02  3.24766E-02
#           3.32668E-02  3.40762E-02  3.49053E-02  3.57546E-02  3.66246E-02
#           3.75157E-02  3.84284E-02  3.93634E-02  4.03212E-02  4.13022E-02
#           4.23071E-02  4.33365E-02  4.43909E-02  4.54710E-02  4.65773E-02
#           4.77106E-02  4.88714E-02  5.00605E-02  5.12785E-02  5.25262E-02
#           5.38042E-02  5.51133E-02  5.64542E-02  5.78278E-02  5.92348E-02
#           6.06760E-02  6.21523E-02  6.36645E-02  6.52135E-02  6.68002E-02
#           6.84255E-02  7.00904E-02  7.17957E-02  7.35426E-02  7.53319E-02
#           7.71648E-02  7.90423E-02  8.09655E-02  8.29354E-02  8.49533E-02
#           8.70203E-02  8.91376E-02  9.13064E-02  9.35279E-02  9.58035E-02
#           9.81345E-02  1.00522E-01  1.02968E-01  1.05473E-01  1.08040E-01
#           1.10668E-01  1.13361E-01  1.16119E-01  1.18944E-01  1.21838E-01
#           1.24803E-01  1.27839E-01  1.30950E-01  1.34136E-01  1.37399E-01
#           1.40742E-01  1.44167E-01  1.47675E-01  1.51268E-01  1.54948E-01
#           1.58718E-01  1.62580E-01  1.66535E-01  1.70587E-01  1.74738E-01
#           1.78989E-01  1.83344E-01  1.87805E-01  1.92375E-01  1.97055E-01
#           2.01850E-01  2.06761E-01  2.11792E-01  2.16945E-01  2.22223E-01
#           2.27630E-01  2.33169E-01  2.38842E-01  2.44653E-01  2.50605E-01
#           2.56703E-01  2.62949E-01  2.69346E-01  2.75900E-01  2.82613E-01
#           2.89489E-01  2.96532E-01  3.03747E-01  3.11138E-01  3.18708E-01
#           3.26462E-01  3.34405E-01  3.42542E-01  3.50876E-01  3.59413E-01
#           3.68158E-01  3.77116E-01  3.86291E-01  3.95690E-01  4.05317E-01
#           4.15179E-01  4.25281E-01  4.35628E-01  4.46227E-01  4.57084E-01
#           4.68205E-01  4.79597E-01  4.91266E-01  5.03219E-01  5.15463E-01
#           5.28005E-01  5.40851E-01  5.54011E-01  5.67490E-01  5.81298E-01
#           5.95441E-01  6.09929E-01  6.24769E-01  6.39970E-01  6.55541E-01
#           6.71491E-01  6.87828E-01  7.04564E-01  7.21706E-01  7.39266E-01
#           7.57253E-01  7.75678E-01  7.94551E-01  8.13883E-01  8.33685E-01
#           8.53969E-01  8.74747E-01  8.96030E-01  9.17831E-01  9.40163E-01
#           9.63038E-01  9.86469E-01  1.01047E+00  1.03506E+00  1.06024E+00
#           1.08604E+00  1.11246E+00  1.13953E+00  1.16725E+00  1.19565E+00
#           1.22474E+00  1.25454E+00  1.28507E+00  1.31633E+00  1.34836E+00
#           1.38117E+00  1.41477E+00  1.44920E+00  1.48446E+00  1.52057E+00
#           1.55757E+00  1.59547E+00  1.63429E+00  1.67405E+00  1.71478E+00
#           1.75650E+00  1.79924E+00  1.84302E+00  1.88786E+00  1.93379E+00
#           1.98084E+00  2.02904E+00  2.07841E+00  2.12898E+00  2.18078E+00
#           2.23384E+00  2.28819E+00  2.34386E+00  2.40089E+00  2.45930E+00
#           2.51914E+00  2.58043E+00  2.64322E+00  2.70753E+00  2.77341E+00
#           2.84088E+00  2.91001E+00  2.98081E+00  3.05333E+00  3.12762E+00
#           3.20372E+00  3.28167E+00  3.36152E+00  3.44330E+00  3.52708E+00
#           3.61290E+00  3.70080E+00  3.79085E+00  3.88308E+00  3.97756E+00
#           4.07434E+00  4.17347E+00  4.27501E+00  4.37903E+00  4.48557E+00
#           4.59471E+00  4.70650E+00  4.82102E+00  4.93832E+00  5.05847E+00
#           5.18155E+00  5.30762E+00  5.43676E+00  5.56904E+00  5.70453E+00
#           5.84333E+00  5.98550E+00  6.13114E+00  6.28031E+00  6.43312E+00
#           6.58964E+00  6.74997E+00  6.91420E+00  7.08243E+00  7.25475E+00
#           7.43126E+00  7.61207E+00  7.79728E+00  7.98700E+00  8.18133E+00
#           8.38038E+00  8.58428E+00  8.79315E+00  9.00709E+00  9.22624E+00
#           9.45072E+00  9.68067E+00  9.91620E+00  1.01575E+01  1.04046E+01
#           1.06578E+01  1.09171E+01  1.11827E+01  1.14548E+01  1.17335E+01
#           1.20190E+01  1.23114E+01  1.26109E+01  1.29178E+01  1.32321E+01
#           1.35540E+01  1.38838E+01  1.42216E+01  1.45676E+01  1.49221E+01
#           1.52851E+01  1.56570E+01  1.60380E+01  1.64282E+01  1.68279E+01
#           1.72374E+01  1.76568E+01  1.80864E+01  1.85264E+01  1.89772E+01
#           1.94389E+01  1.99119E+01  2.03963E+01  2.08926E+01  2.14009E+01
#           2.19216E+01  2.24550E+01  2.30014E+01  2.35610E+01  2.41343E+01
#           2.47215E+01  2.53230E+01  2.59391E+01  2.65702E+01  2.72167E+01
#           2.78789E+01  2.85572E+01  2.92520E+01  2.99637E+01  3.06928E+01
#           3.14396E+01  3.22045E+01  3.29881E+01  3.37907E+01  3.46128E+01
#           3.54550E+01  3.63177E+01  3.72013E+01  3.81064E+01  3.90336E+01
#           3.99833E+01  4.09561E+01  4.19526E+01  4.29734E+01  4.40189E+01
#           4.50900E+01  4.61870E+01  4.73108E+01  4.84619E+01  4.96410E+01
#           5.08488E+01  5.20860E+01  5.33533E+01  5.46514E+01  5.59812E+01
#           5.73432E+01  5.87384E+01  6.01676E+01  6.16315E+01  6.31311E+01
#           6.46671E+01  6.62405E+01  6.78522E+01  6.95031E+01  7.11941E+01
#           7.29263E+01  7.47007E+01  7.65182E+01  7.83800E+01  8.02870E+01
#           8.22405E+01  8.42414E+01  8.62911E+01  8.83906E+01  9.05412E+01
#           9.27442E+01  9.50007E+01  9.73122E+01  9.96799E+01  1.02105E+02
#           1.04589E+02  1.07134E+02  1.09741E+02  1.12411E+02  1.15146E+02
#           1.17948E+02  1.20817E+02  1.23757E+02  1.26768E+02  1.29852E+02
#           1.33012E+02  1.36248E+02  1.39563E+02  1.42959E+02  1.46437E+02
#           1.50000E+02
     unit =    2            # unit is [1/cm^2/(MeV/n)/source]
     axis =  eng            # axis of output
     file = detector-06.out  # file name of output for the above axis
   output = f-curr          # surface crossing forward current spectrum
     part =  neutron  
# kf/name :  2112     
#    used :        main (  %)        temp (  %)       total (  %)
#  memory :         414 (  0)           0 (  0)         414 (  0)

#------------------------------------------------------------------------------
#newpage:
#   no. =    1   reg = 105 - 205

x: Energy [MeV/n]
y:  F-Curr [1/cm^2/(MeV/n)/source]         
p: xlog ylog afac(0.8) form(0.9)
h: n            x            y(neutron ),hh0l   n 
#  e-lower      e-upper      neutron     r.err 
   1.0000E-02   1.0243E-02   9.8764E-04  0.0287
   1.0243E-02   1.0493E-02   9.1565E-04  0.0295
   1.0493E-02   1.0748E-02   9.5538E-04  0.0286
   1.0748E-02   1.1009E-02   8.9299E-04  0.0292
   1.1009E-02   1.1277E-02   8.9868E-04  0.0287
   1.1277E-02   1.1552E-02   8.5465E-04  0.0291
   1.1552E-02   1.1833E-02   8.8745E-04  0.0282
   1.1833E-02   1.2121E-02   7.6034E-04  0.0301
   1.2121E-02   1.2415E-02   7.8494E-04  0.0293
   1.2415E-02   1.2718E-02   7.5471E-04  0.0295
   1.2718E-02   1.3027E-02   7.3429E-04  0.0296
   1.3027E-02   1.3344E-02   8.0328E-04  0.0279
   1.3344E-02   1.3669E-02   7.1391E-04  0.0293
   1.3669E-02   1.4001E-02   7.3453E-04  0.0285
   1.4001E-02   1.4342E-02   7.0152E-04  0.0288
   1.4342E-02   1.4691E-02   6.9681E-04  0.0286
   1.4691E-02   1.5048E-02   6.7414E-04  0.0287
   1.5048E-02   1.5414E-02   6.6787E-04  0.0285
   1.5414E-02   1.5789E-02   6.5662E-04  0.0284
   1.5789E-02   1.6174E-02   6.3681E-04  0.0285
   1.6174E-02   1.6567E-02   6.1794E-04  0.0286
   1.6567E-02   1.6970E-02   6.2116E-04  0.0282
   1.6970E-02   1.7383E-02   5.9376E-04  0.0284
   1.7383E-02   1.7806E-02   5.8589E-04  0.0283
   1.7806E-02   1.8239E-02   5.8250E-04  0.0281
   1.8239E-02   1.8683E-02   5.3580E-04  0.0289
   1.8683E-02   1.9138E-02   5.5934E-04  0.0279
   1.9138E-02   1.9603E-02   5.4977E-04  0.0279
   1.9603E-02   2.0080E-02   5.0458E-04  0.0287
   2.0080E-02   2.0569E-02   5.2249E-04  0.0279
   2.0569E-02   2.1069E-02   5.1983E-04  0.0276
   2.1069E-02   2.1582E-02   5.1695E-04  0.0274
   2.1582E-02   2.2107E-02   5.0503E-04  0.0274
   2.2107E-02   2.2645E-02   4.6246E-04  0.0282
   2.2645E-02   2.3196E-02   4.7803E-04  0.0275
   2.3196E-02   2.3760E-02   4.7318E-04  0.0273
   2.3760E-02   2.4338E-02   4.3409E-04  0.0281
   2.4338E-02   2.4930E-02   4.3286E-04  0.0278
   2.4930E-02   2.5537E-02   4.2887E-04  0.0276
   2.5537E-02   2.6158E-02   4.3550E-04  0.0271
   2.6158E-02   2.6795E-02   4.2671E-04  0.0270
   2.6795E-02   2.7447E-02   4.1770E-04  0.0270
   2.7447E-02   2.8114E-02   4.1689E-04  0.0267
   2.8114E-02   2.8799E-02   3.9199E-04  0.0272
   2.8799E-02   2.9499E-02   3.8184E-04  0.0273
   2.9499E-02   3.0217E-02   3.9228E-04  0.0266
   3.0217E-02   3.0952E-02   3.8115E-04  0.0266
   3.0952E-02   3.1705E-02   3.5070E-04  0.0274
   3.1705E-02   3.2477E-02   3.5002E-04  0.0271
   3.2477E-02   3.3267E-02   3.5777E-04  0.0265
   3.3267E-02   3.4076E-02   3.4685E-04  0.0266
   3.4076E-02   3.4905E-02   3.2892E-04  0.0270
   3.4905E-02   3.5755E-02   3.4159E-04  0.0262
   3.5755E-02   3.6625E-02   3.2052E-04  0.0267
   3.6625E-02   3.7516E-02   3.1600E-04  0.0265
   3.7516E-02   3.8428E-02   3.1193E-04  0.0264
   3.8428E-02   3.9363E-02   3.1072E-04  0.0261
   3.9363E-02   4.0321E-02   3.0827E-04  0.0260
   4.0321E-02   4.1302E-02   2.9598E-04  0.0261
   4.1302E-02   4.2307E-02   2.8936E-04  0.0261
   4.2307E-02   4.3337E-02   2.7644E-04  0.0264
   4.3337E-02   4.4391E-02   2.7625E-04  0.0261
   4.4391E-02   4.5471E-02   2.7402E-04  0.0259
   4.5471E-02   4.6577E-02   2.5643E-04  0.0265
   4.6577E-02   4.7711E-02   2.7123E-04  0.0254
   4.7711E-02   4.8871E-02   2.5603E-04  0.0258
   4.8871E-02   5.0061E-02   2.5670E-04  0.0255
   5.0061E-02   5.1279E-02   2.4805E-04  0.0257
   5.1279E-02   5.2526E-02   2.5130E-04  0.0252
   5.2526E-02   5.3804E-02   2.3939E-04  0.0255
   5.3804E-02   5.5113E-02   2.3447E-04  0.0254
   5.5113E-02   5.6454E-02   2.3091E-04  0.0253
   5.6454E-02   5.7828E-02   2.3138E-04  0.0250
   5.7828E-02   5.9235E-02   2.1943E-04  0.0254
   5.9235E-02   6.0676E-02   2.1671E-04  0.0252
   6.0676E-02   6.2152E-02   2.1168E-04  0.0252
   6.2152E-02   6.3665E-02   2.1051E-04  0.0250
   6.3665E-02   6.5214E-02   1.9947E-04  0.0253
   6.5214E-02   6.6800E-02   1.9670E-04  0.0252
   6.6800E-02   6.8426E-02   1.9485E-04  0.0250
   6.8426E-02   7.0090E-02   1.9761E-04  0.0246
   7.0090E-02   7.1796E-02   1.8515E-04  0.0251
   7.1796E-02   7.3543E-02   1.8205E-04  0.0250
   7.3543E-02   7.5332E-02   1.8335E-04  0.0246
   7.5332E-02   7.7165E-02   1.7477E-04  0.0249
   7.7165E-02   7.9042E-02   1.7104E-04  0.0249
   7.9042E-02   8.0965E-02   1.7686E-04  0.0242
   8.0965E-02   8.2935E-02   1.6111E-04  0.0250
   8.2935E-02   8.4953E-02   1.6258E-04  0.0246
   8.4953E-02   8.7020E-02   1.5633E-04  0.0248
   8.7020E-02   8.9138E-02   1.5120E-04  0.0249
   8.9138E-02   9.1306E-02   1.5073E-04  0.0246
   9.1306E-02   9.3528E-02   1.5710E-04  0.0239
   9.3528E-02   9.5804E-02   1.4875E-04  0.0242
   9.5804E-02   9.8134E-02   1.4112E-04  0.0246
   9.8134E-02   1.0052E-01   1.3956E-04  0.0244
   1.0052E-01   1.0297E-01   1.3923E-04  0.0242
   1.0297E-01   1.0547E-01   1.3322E-04  0.0244
   1.0547E-01   1.0804E-01   1.3380E-04  0.0240
   1.0804E-01   1.1067E-01   1.3543E-04  0.0236
   1.1067E-01   1.1336E-01   1.2774E-04  0.0240
   1.1336E-01   1.1612E-01   1.2345E-04  0.0241
   1.1612E-01   1.1894E-01   1.2119E-04  0.0241
   1.1894E-01   1.2184E-01   1.1728E-04  0.0242
   1.2184E-01   1.2480E-01   1.1269E-04  0.0244
   1.2480E-01   1.2784E-01   1.1351E-04  0.0240
   1.2784E-01   1.3095E-01   1.1455E-04  0.0236
   1.3095E-01   1.3414E-01   1.0703E-04  0.0241
   1.3414E-01   1.3740E-01   1.0330E-04  0.0243
   1.3740E-01   1.4074E-01   1.0703E-04  0.0236
   1.4074E-01   1.4417E-01   1.0210E-04  0.0238
   1.4417E-01   1.4767E-01   1.0056E-04  0.0237
   1.4767E-01   1.5127E-01   9.8766E-05  0.0237
   1.5127E-01   1.5495E-01   9.6354E-05  0.0237
   1.5495E-01   1.5872E-01   9.3255E-05  0.0238
   1.5872E-01   1.6258E-01   9.3288E-05  0.0235
   1.6258E-01   1.6654E-01   8.9831E-05  0.0236
   1.6654E-01   1.7059E-01   8.8136E-05  0.0236
   1.7059E-01   1.7474E-01   8.5361E-05  0.0237
   1.7474E-01   1.7899E-01   8.2492E-05  0.0238
   1.7899E-01   1.8334E-01   8.4436E-05  0.0232
   1.8334E-01   1.8781E-01   7.9206E-05  0.0237
   1.8781E-01   1.9237E-01   7.9427E-05  0.0234
   1.9237E-01   1.9706E-01   7.8577E-05  0.0232
   1.9706E-01   2.0185E-01   7.2386E-05  0.0239
   2.0185E-01   2.0676E-01   7.7161E-05  0.0229
   2.0676E-01   2.1179E-01   8.3628E-05  0.0217
   2.1179E-01   2.1694E-01   8.4486E-05  0.0214
   2.1694E-01   2.2222E-01   8.5727E-05  0.0209
   2.2222E-01   2.2763E-01   8.5884E-05  0.0207
   2.2763E-01   2.3317E-01   9.0198E-05  0.0199
   2.3317E-01   2.3884E-01   9.7439E-05  0.0189
   2.3884E-01   2.4465E-01   9.7264E-05  0.0187
   2.4465E-01   2.5061E-01   9.6512E-05  0.0186
   2.5061E-01   2.5670E-01   1.0415E-04  0.0177
   2.5670E-01   2.6295E-01   1.0589E-04  0.0173
   2.6295E-01   2.6935E-01   1.1103E-04  0.0167
   2.6935E-01   2.7590E-01   1.1016E-04  0.0166
   2.7590E-01   2.8261E-01   1.1352E-04  0.0161
   2.8261E-01   2.8949E-01   1.1508E-04  0.0158
   2.8949E-01   2.9653E-01   1.1974E-04  0.0153
   2.9653E-01   3.0375E-01   1.2162E-04  0.0150
   3.0375E-01   3.1114E-01   1.2311E-04  0.0148
   3.1114E-01   3.1871E-01   1.2566E-04  0.0144
   3.1871E-01   3.2646E-01   1.3150E-04  0.0140
   3.2646E-01   3.3441E-01   1.3559E-04  0.0136
   3.3441E-01   3.4254E-01   1.3751E-04  0.0133
   3.4254E-01   3.5088E-01   1.4039E-04  0.0130
   3.5088E-01   3.5941E-01   1.4287E-04  0.0128
   3.5941E-01   3.6816E-01   1.4836E-04  0.0124
   3.6816E-01   3.7712E-01   1.4605E-04  0.0123
   3.7712E-01   3.8629E-01   1.5096E-04  0.0120
   3.8629E-01   3.9569E-01   1.5253E-04  0.0118
   3.9569E-01   4.0532E-01   1.5562E-04  0.0115
   4.0532E-01   4.1518E-01   1.5792E-04  0.0113
   4.1518E-01   4.2528E-01   1.6181E-04  0.0110
   4.2528E-01   4.3563E-01   1.6606E-04  0.0107
   4.3563E-01   4.4623E-01   1.6899E-04  0.0105
   4.4623E-01   4.5708E-01   1.7078E-04  0.0103
   4.5708E-01   4.6821E-01   1.7373E-04  0.0101
   4.6821E-01   4.7960E-01   1.7624E-04  0.0099
   4.7960E-01   4.9127E-01   1.7663E-04  0.0098
   4.9127E-01   5.0322E-01   1.8259E-04  0.0095
   5.0322E-01   5.1546E-01   1.8043E-04  0.0095
   5.1546E-01   5.2800E-01   1.8371E-04  0.0093
   5.2800E-01   5.4085E-01   1.8175E-04  0.0092
   5.4085E-01   5.5401E-01   1.8964E-04  0.0089
   5.5401E-01   5.6749E-01   1.8602E-04  0.0089
   5.6749E-01   5.8130E-01   1.8916E-04  0.0087
   5.8130E-01   5.9544E-01   1.8989E-04  0.0086
   5.9544E-01   6.0993E-01   1.9161E-04  0.0085
   6.0993E-01   6.2477E-01   1.9349E-04  0.0083
   6.2477E-01   6.3997E-01   1.9271E-04  0.0082
   6.3997E-01   6.5554E-01   1.9182E-04  0.0082
   6.5554E-01   6.7149E-01   1.9539E-04  0.0080
   6.7149E-01   6.8783E-01   1.9459E-04  0.0079
   6.8783E-01   7.0456E-01   1.9692E-04  0.0078
   7.0456E-01   7.2171E-01   1.9318E-04  0.0077
   7.2171E-01   7.3927E-01   1.9280E-04  0.0077
   7.3927E-01   7.5725E-01   1.9599E-04  0.0075
   7.5725E-01   7.7568E-01   1.9291E-04  0.0075
   7.7568E-01   7.9455E-01   1.9624E-04  0.0073
   7.9455E-01   8.1388E-01   1.9399E-04  0.0073
   8.1388E-01   8.3368E-01   1.9102E-04  0.0072
   8.3368E-01   8.5397E-01   1.9053E-04  0.0072
   8.5397E-01   8.7475E-01   1.9429E-04  0.0070
   8.7475E-01   8.9603E-01   1.9150E-04  0.0070
   8.9603E-01   9.1783E-01   1.9034E-04  0.0069
   9.1783E-01   9.4016E-01   1.9167E-04  0.0068
   9.4016E-01   9.6304E-01   1.8964E-04  0.0068
   9.6304E-01   9.8647E-01   1.8775E-04  0.0067
   9.8647E-01   1.0105E+00   1.8928E-04  0.0066
   1.0105E+00   1.0351E+00   1.8980E-04  0.0065
   1.0351E+00   1.0602E+00   1.8453E-04  0.0065
   1.0602E+00   1.0860E+00   1.8708E-04  0.0064
   1.0860E+00   1.1125E+00   1.8405E-04  0.0064
   1.1125E+00   1.1395E+00   1.8338E-04  0.0063
   1.1395E+00   1.1673E+00   1.8278E-04  0.0063
   1.1673E+00   1.1957E+00   1.8164E-04  0.0062
   1.1957E+00   1.2247E+00   1.8286E-04  0.0061
   1.2247E+00   1.2545E+00   1.8115E-04  0.0061
   1.2545E+00   1.2851E+00   1.8018E-04  0.0060
   1.2851E+00   1.3163E+00   1.7880E-04  0.0060
   1.3163E+00   1.3484E+00   1.7843E-04  0.0059
   1.3484E+00   1.3812E+00   1.7764E-04  0.0058
   1.3812E+00   1.4148E+00   1.7778E-04  0.0058
   1.4148E+00   1.4492E+00   1.7637E-04  0.0057
   1.4492E+00   1.4845E+00   1.7626E-04  0.0056
   1.4845E+00   1.5206E+00   1.7550E-04  0.0056
   1.5206E+00   1.5576E+00   1.7518E-04  0.0055
   1.5576E+00   1.5955E+00   1.7284E-04  0.0055
   1.5955E+00   1.6343E+00   1.7355E-04  0.0054
   1.6343E+00   1.6741E+00   1.7060E-04  0.0054
   1.6741E+00   1.7148E+00   1.7133E-04  0.0053
   1.7148E+00   1.7565E+00   1.7027E-04  0.0053
   1.7565E+00   1.7992E+00   1.6886E-04  0.0052
   1.7992E+00   1.8430E+00   1.6890E-04  0.0052
   1.8430E+00   1.8879E+00   1.6596E-04  0.0052
   1.8879E+00   1.9338E+00   1.6678E-04  0.0051
   1.9338E+00   1.9808E+00   1.6728E-04  0.0050
   1.9808E+00   2.0290E+00   1.6579E-04  0.0050
   2.0290E+00   2.0784E+00   1.6370E-04  0.0050
   2.0784E+00   2.1290E+00   1.6227E-04  0.0049
   2.1290E+00   2.1808E+00   1.6353E-04  0.0048
   2.1808E+00   2.2338E+00   1.5880E-04  0.0049
   2.2338E+00   2.2882E+00   1.5727E-04  0.0048
   2.2882E+00   2.3439E+00   1.5667E-04  0.0048
   2.3439E+00   2.4009E+00   1.5618E-04  0.0047
   2.4009E+00   2.4593E+00   1.5501E-04  0.0047
   2.4593E+00   2.5191E+00   1.5432E-04  0.0046
   2.5191E+00   2.5804E+00   1.5226E-04  0.0046
   2.5804E+00   2.6432E+00   1.5153E-04  0.0046
   2.6432E+00   2.7075E+00   1.5031E-04  0.0045
   2.7075E+00   2.7734E+00   1.4851E-04  0.0045
   2.7734E+00   2.8409E+00   1.4613E-04  0.0045
   2.8409E+00   2.9100E+00   1.4576E-04  0.0044
   2.9100E+00   2.9808E+00   1.4312E-04  0.0044
   2.9808E+00   3.0533E+00   1.4343E-04  0.0044
   3.0533E+00   3.1276E+00   1.4195E-04  0.0043
   3.1276E+00   3.2037E+00   1.3860E-04  0.0043
   3.2037E+00   3.2817E+00   1.3822E-04  0.0043
   3.2817E+00   3.3615E+00   1.3667E-04  0.0043
   3.3615E+00   3.4433E+00   1.3398E-04  0.0043
   3.4433E+00   3.5271E+00   1.3241E-04  0.0042
   3.5271E+00   3.6129E+00   1.3004E-04  0.0042
   3.6129E+00   3.7008E+00   1.2947E-04  0.0042
   3.7008E+00   3.7908E+00   1.2754E-04  0.0042
   3.7908E+00   3.8831E+00   1.2564E-04  0.0041
   3.8831E+00   3.9776E+00   1.2379E-04  0.0041
   3.9776E+00   4.0743E+00   1.2183E-04  0.0041
   4.0743E+00   4.1735E+00   1.2100E-04  0.0041
   4.1735E+00   4.2750E+00   1.1901E-04  0.0041
   4.2750E+00   4.3790E+00   1.1573E-04  0.0041
   4.3790E+00   4.4856E+00   1.1509E-04  0.0040
   4.4856E+00   4.5947E+00   1.1335E-04  0.0040
   4.5947E+00   4.7065E+00   1.1176E-04  0.0040
   4.7065E+00   4.8210E+00   1.0954E-04  0.0040
   4.8210E+00   4.9383E+00   1.0858E-04  0.0040
   4.9383E+00   5.0585E+00   1.0686E-04  0.0039
   5.0585E+00   5.1815E+00   1.0754E-04  0.0039
   5.1815E+00   5.3076E+00   1.0712E-04  0.0038
   5.3076E+00   5.4368E+00   1.0604E-04  0.0038
   5.4368E+00   5.5690E+00   1.0367E-04  0.0038
   5.5690E+00   5.7045E+00   1.0172E-04  0.0038
   5.7045E+00   5.8433E+00   1.0032E-04  0.0038
   5.8433E+00   5.9855E+00   9.8747E-05  0.0038
   5.9855E+00   6.1311E+00   9.6800E-05  0.0038
   6.1311E+00   6.2803E+00   9.4974E-05  0.0037
   6.2803E+00   6.4331E+00   9.3342E-05  0.0037
   6.4331E+00   6.5896E+00   9.1408E-05  0.0037
   6.5896E+00   6.7500E+00   9.0314E-05  0.0037
   6.7500E+00   6.9142E+00   8.8090E-05  0.0037
   6.9142E+00   7.0824E+00   8.6521E-05  0.0037
   7.0824E+00   7.2548E+00   8.5935E-05  0.0037
   7.2548E+00   7.4313E+00   8.4607E-05  0.0037
   7.4313E+00   7.6121E+00   8.3231E-05  0.0036
   7.6121E+00   7.7973E+00   8.2363E-05  0.0036
   7.7973E+00   7.9870E+00   8.1062E-05  0.0036
   7.9870E+00   8.1813E+00   7.9611E-05  0.0036
   8.1813E+00   8.3804E+00   7.8926E-05  0.0036
   8.3804E+00   8.5843E+00   7.8422E-05  0.0035
   8.5843E+00   8.7931E+00   7.7341E-05  0.0035
   8.7931E+00   9.0071E+00   7.6398E-05  0.0035
   9.0071E+00   9.2262E+00   7.5349E-05  0.0035
   9.2262E+00   9.4507E+00   7.5366E-05  0.0034
   9.4507E+00   9.6807E+00   7.3928E-05  0.0034
   9.6807E+00   9.9162E+00   7.3475E-05  0.0034
   9.9162E+00   1.0157E+01   7.2803E-05  0.0034
   1.0157E+01   1.0405E+01   7.2511E-05  0.0033
   1.0405E+01   1.0658E+01   7.2165E-05  0.0033
   1.0658E+01   1.0917E+01   7.1432E-05  0.0033
   1.0917E+01   1.1183E+01   7.1792E-05  0.0032
   1.1183E+01   1.1455E+01   7.1202E-05  0.0032
   1.1455E+01   1.1733E+01   7.1387E-05  0.0032
   1.1733E+01   1.2019E+01   7.0925E-05  0.0031
   1.2019E+01   1.2311E+01   7.1420E-05  0.0031
   1.2311E+01   1.2611E+01   7.0714E-05  0.0031
   1.2611E+01   1.2918E+01   7.1513E-05  0.0030
   1.2918E+01   1.3232E+01   7.1164E-05  0.0030
   1.3232E+01   1.3554E+01   7.1123E-05  0.0030
   1.3554E+01   1.3884E+01   7.1774E-05  0.0029
   1.3884E+01   1.4222E+01   7.2069E-05  0.0029
   1.4222E+01   1.4568E+01   7.2682E-05  0.0028
   1.4568E+01   1.4922E+01   7.3033E-05  0.0028
   1.4922E+01   1.5285E+01   7.3804E-05  0.0027
   1.5285E+01   1.5657E+01   7.4083E-05  0.0027
   1.5657E+01   1.6038E+01   7.5223E-05  0.0026
   1.6038E+01   1.6428E+01   7.6204E-05  0.0026
   1.6428E+01   1.6828E+01   7.7302E-05  0.0025
   1.6828E+01   1.7237E+01   7.8293E-05  0.0025
   1.7237E+01   1.7657E+01   7.9495E-05  0.0024
   1.7657E+01   1.8086E+01   8.1088E-05  0.0024
   1.8086E+01   1.8526E+01   8.2014E-05  0.0024
   1.8526E+01   1.8977E+01   8.4235E-05  0.0023
   1.8977E+01   1.9439E+01   8.6182E-05  0.0022
   1.9439E+01   1.9912E+01   8.8796E-05  0.0022
   1.9912E+01   2.0396E+01   9.2213E-05  0.0021
   2.0396E+01   2.0893E+01   9.4773E-05  0.0021
   2.0893E+01   2.1401E+01   9.7152E-05  0.0020
   2.1401E+01   2.1922E+01   1.0020E-04  0.0020
   2.1922E+01   2.2455E+01   1.0314E-04  0.0019
   2.2455E+01   2.3001E+01   1.0672E-04  0.0019
   2.3001E+01   2.3561E+01   1.1040E-04  0.0018
   2.3561E+01   2.4134E+01   1.1410E-04  0.0017
   2.4134E+01   2.4721E+01   1.1846E-04  0.0017
   2.4721E+01   2.5323E+01   1.2308E-04  0.0016
   2.5323E+01   2.5939E+01   1.2702E-04  0.0016
   2.5939E+01   2.6570E+01   1.3199E-04  0.0015
   2.6570E+01   2.7217E+01   1.3663E-04  0.0015
   2.7217E+01   2.7879E+01   1.4205E-04  0.0015
   2.7879E+01   2.8557E+01   1.4757E-04  0.0014
   2.8557E+01   2.9252E+01   1.5256E-04  0.0014
   2.9252E+01   2.9964E+01   1.5774E-04  0.0013
   2.9964E+01   3.0693E+01   1.6273E-04  0.0013
   3.0693E+01   3.1440E+01   1.6773E-04  0.0013
   3.1440E+01   3.2205E+01   1.7288E-04  0.0012
   3.2205E+01   3.2988E+01   1.7681E-04  0.0012
   3.2988E+01   3.3791E+01   1.8103E-04  0.0012
   3.3791E+01   3.4613E+01   1.8385E-04  0.0012
   3.4613E+01   3.5455E+01   1.8679E-04  0.0011
   3.5455E+01   3.6318E+01   1.8846E-04  0.0011
   3.6318E+01   3.7201E+01   1.8947E-04  0.0011
   3.7201E+01   3.8106E+01   1.8958E-04  0.0011
   3.8106E+01   3.9034E+01   1.8910E-04  0.0011
   3.9034E+01   3.9983E+01   1.8613E-04  0.0011
   3.9983E+01   4.0956E+01   1.8349E-04  0.0011
   4.0956E+01   4.1953E+01   1.7897E-04  0.0011
   4.1953E+01   4.2973E+01   1.7430E-04  0.0011
   4.2973E+01   4.4019E+01   1.6813E-04  0.0011
   4.4019E+01   4.5090E+01   1.6111E-04  0.0011
   4.5090E+01   4.6187E+01   1.5332E-04  0.0011
   4.6187E+01   4.7311E+01   1.4520E-04  0.0011
   4.7311E+01   4.8462E+01   1.3634E-04  0.0011
   4.8462E+01   4.9641E+01   1.2735E-04  0.0012
   4.9641E+01   5.0849E+01   1.1801E-04  0.0012
   5.0849E+01   5.2086E+01   1.0879E-04  0.0012
   5.2086E+01   5.3353E+01   9.9423E-05  0.0013
   5.3353E+01   5.4651E+01   9.0445E-05  0.0013
   5.4651E+01   5.5981E+01   8.1868E-05  0.0014
   5.5981E+01   5.7343E+01   7.3213E-05  0.0014
   5.7343E+01   5.8738E+01   6.5195E-05  0.0015
   5.8738E+01   6.0168E+01   5.7492E-05  0.0016
   6.0168E+01   6.1632E+01   5.0364E-05  0.0016
   6.1632E+01   6.3131E+01   4.3902E-05  0.0017
   6.3131E+01   6.4667E+01   3.7916E-05  0.0019
   6.4667E+01   6.6240E+01   3.3411E-05  0.0020
   6.6240E+01   6.7852E+01   3.1053E-05  0.0020
   6.7852E+01   6.9503E+01   2.8968E-05  0.0020
   6.9503E+01   7.1194E+01   2.7160E-05  0.0021
   7.1194E+01   7.2926E+01   2.4472E-05  0.0022
   7.2926E+01   7.4701E+01   2.1229E-05  0.0023
   7.4701E+01   7.6518E+01   1.8261E-05  0.0025
   7.6518E+01   7.8380E+01   1.5750E-05  0.0026
   7.8380E+01   8.0287E+01   1.3624E-05  0.0028
   8.0287E+01   8.2240E+01   1.1931E-05  0.0029
   8.2240E+01   8.4241E+01   1.0497E-05  0.0031
   8.4241E+01   8.6291E+01   8.9506E-06  0.0033
   8.6291E+01   8.8391E+01   5.5871E-06  0.0041
   8.8391E+01   9.0541E+01   2.3556E-06  0.0063
   9.0541E+01   9.2744E+01   4.3406E-07  0.0145
   9.2744E+01   9.5001E+01   0.0000E+00  0.0000
   9.5001E+01   9.7312E+01   0.0000E+00  0.0000
   9.7312E+01   9.9680E+01   0.0000E+00  0.0000
   9.9680E+01   1.0211E+02   0.0000E+00  0.0000
   1.0211E+02   1.0459E+02   0.0000E+00  0.0000
   1.0459E+02   1.0713E+02   0.0000E+00  0.0000
   1.0713E+02   1.0974E+02   0.0000E+00  0.0000
   1.0974E+02   1.1241E+02   0.0000E+00  0.0000
   1.1241E+02   1.1515E+02   0.0000E+00  0.0000
   1.1515E+02   1.1795E+02   0.0000E+00  0.0000
   1.1795E+02   1.2082E+02   0.0000E+00  0.0000
   1.2082E+02   1.2376E+02   0.0000E+00  0.0000
   1.2376E+02   1.2677E+02   0.0000E+00  0.0000
   1.2677E+02   1.2985E+02   0.0000E+00  0.0000
   1.2985E+02   1.3301E+02   0.0000E+00  0.0000
   1.3301E+02   1.3625E+02   0.0000E+00  0.0000
   1.3625E+02   1.3956E+02   0.0000E+00  0.0000
   1.3956E+02   1.4296E+02   0.0000E+00  0.0000
   1.4296E+02   1.4644E+02   0.0000E+00  0.0000
   1.4644E+02   1.5000E+02   0.0000E+00  0.0000

#   sum over                 5.3752E-05
'no. =    1   reg = 105 - 205'
msuc: {\huge [t-cross] in region mesh}
msdr: {\it plotted by \ANGEL \version}
msdl: {\it calculated by \PHITS  3.28}
wt: s(0.7)
\vspace{-3}
  region surface crossing
  area  &=&   1.0000E+00 [cm^2]
e:
 
# Information for Restart Calculation
# This calculation was newly started
# istdev =  2 # 1:Batch variance, 2:History variance
# resc2  = 5.00000000000000000E+09 # Total source weight or Total source weight / maxcas
# resc3  = 5.00000000000000000E+09 # Total history number or Total batch number
# maxcas =   500000000 # History / Batch, only used for istdev=1
# bitrseed = 0001101011110000011001100100101010101011111110100001111101011101 # bit data of rseed
