[ T-Cross ]
    title = [t-cross] in region mesh
     mesh =  reg            # mesh type is region-wise
      reg =    1            # number of crossing regions
      non     r-from    r-to       area
      1       121       221        1.000000    
   e-type =    3            # e-mesh is log given by emin, emax and ne
     emin =  1.0000000E-02  # minimum value of e-mesh points
     emax =   150.0000      # maximum value of e-mesh points
#    edel =  2.4039514E-02  # mesh width of e-mesh points
       ne =    400          # number of e-mesh points
#    data = ( e(i), i = 1, ne + 1 )
#           1.00000E-02  1.02433E-02  1.04925E-02  1.07478E-02  1.10093E-02
#           1.12772E-02  1.15516E-02  1.18326E-02  1.21205E-02  1.24154E-02
#           1.27175E-02  1.30269E-02  1.33439E-02  1.36686E-02  1.40011E-02
#           1.43418E-02  1.46907E-02  1.50482E-02  1.54143E-02  1.57894E-02
#           1.61735E-02  1.65670E-02  1.69701E-02  1.73830E-02  1.78060E-02
#           1.82392E-02  1.86830E-02  1.91375E-02  1.96032E-02  2.00801E-02
#           2.05687E-02  2.10692E-02  2.15818E-02  2.21069E-02  2.26448E-02
#           2.31957E-02  2.37601E-02  2.43382E-02  2.49304E-02  2.55369E-02
#           2.61583E-02  2.67947E-02  2.74467E-02  2.81145E-02  2.87985E-02
#           2.94992E-02  3.02169E-02  3.09521E-02  3.17052E-02  3.24766E-02
#           3.32668E-02  3.40762E-02  3.49053E-02  3.57546E-02  3.66246E-02
#           3.75157E-02  3.84284E-02  3.93634E-02  4.03212E-02  4.13022E-02
#           4.23071E-02  4.33365E-02  4.43909E-02  4.54710E-02  4.65773E-02
#           4.77106E-02  4.88714E-02  5.00605E-02  5.12785E-02  5.25262E-02
#           5.38042E-02  5.51133E-02  5.64542E-02  5.78278E-02  5.92348E-02
#           6.06760E-02  6.21523E-02  6.36645E-02  6.52135E-02  6.68002E-02
#           6.84255E-02  7.00904E-02  7.17957E-02  7.35426E-02  7.53319E-02
#           7.71648E-02  7.90423E-02  8.09655E-02  8.29354E-02  8.49533E-02
#           8.70203E-02  8.91376E-02  9.13064E-02  9.35279E-02  9.58035E-02
#           9.81345E-02  1.00522E-01  1.02968E-01  1.05473E-01  1.08040E-01
#           1.10668E-01  1.13361E-01  1.16119E-01  1.18944E-01  1.21838E-01
#           1.24803E-01  1.27839E-01  1.30950E-01  1.34136E-01  1.37399E-01
#           1.40742E-01  1.44167E-01  1.47675E-01  1.51268E-01  1.54948E-01
#           1.58718E-01  1.62580E-01  1.66535E-01  1.70587E-01  1.74738E-01
#           1.78989E-01  1.83344E-01  1.87805E-01  1.92375E-01  1.97055E-01
#           2.01850E-01  2.06761E-01  2.11792E-01  2.16945E-01  2.22223E-01
#           2.27630E-01  2.33169E-01  2.38842E-01  2.44653E-01  2.50605E-01
#           2.56703E-01  2.62949E-01  2.69346E-01  2.75900E-01  2.82613E-01
#           2.89489E-01  2.96532E-01  3.03747E-01  3.11138E-01  3.18708E-01
#           3.26462E-01  3.34405E-01  3.42542E-01  3.50876E-01  3.59413E-01
#           3.68158E-01  3.77116E-01  3.86291E-01  3.95690E-01  4.05317E-01
#           4.15179E-01  4.25281E-01  4.35628E-01  4.46227E-01  4.57084E-01
#           4.68205E-01  4.79597E-01  4.91266E-01  5.03219E-01  5.15463E-01
#           5.28005E-01  5.40851E-01  5.54011E-01  5.67490E-01  5.81298E-01
#           5.95441E-01  6.09929E-01  6.24769E-01  6.39970E-01  6.55541E-01
#           6.71491E-01  6.87828E-01  7.04564E-01  7.21706E-01  7.39266E-01
#           7.57253E-01  7.75678E-01  7.94551E-01  8.13883E-01  8.33685E-01
#           8.53969E-01  8.74747E-01  8.96030E-01  9.17831E-01  9.40163E-01
#           9.63038E-01  9.86469E-01  1.01047E+00  1.03506E+00  1.06024E+00
#           1.08604E+00  1.11246E+00  1.13953E+00  1.16725E+00  1.19565E+00
#           1.22474E+00  1.25454E+00  1.28507E+00  1.31633E+00  1.34836E+00
#           1.38117E+00  1.41477E+00  1.44920E+00  1.48446E+00  1.52057E+00
#           1.55757E+00  1.59547E+00  1.63429E+00  1.67405E+00  1.71478E+00
#           1.75650E+00  1.79924E+00  1.84302E+00  1.88786E+00  1.93379E+00
#           1.98084E+00  2.02904E+00  2.07841E+00  2.12898E+00  2.18078E+00
#           2.23384E+00  2.28819E+00  2.34386E+00  2.40089E+00  2.45930E+00
#           2.51914E+00  2.58043E+00  2.64322E+00  2.70753E+00  2.77341E+00
#           2.84088E+00  2.91001E+00  2.98081E+00  3.05333E+00  3.12762E+00
#           3.20372E+00  3.28167E+00  3.36152E+00  3.44330E+00  3.52708E+00
#           3.61290E+00  3.70080E+00  3.79085E+00  3.88308E+00  3.97756E+00
#           4.07434E+00  4.17347E+00  4.27501E+00  4.37903E+00  4.48557E+00
#           4.59471E+00  4.70650E+00  4.82102E+00  4.93832E+00  5.05847E+00
#           5.18155E+00  5.30762E+00  5.43676E+00  5.56904E+00  5.70453E+00
#           5.84333E+00  5.98550E+00  6.13114E+00  6.28031E+00  6.43312E+00
#           6.58964E+00  6.74997E+00  6.91420E+00  7.08243E+00  7.25475E+00
#           7.43126E+00  7.61207E+00  7.79728E+00  7.98700E+00  8.18133E+00
#           8.38038E+00  8.58428E+00  8.79315E+00  9.00709E+00  9.22624E+00
#           9.45072E+00  9.68067E+00  9.91620E+00  1.01575E+01  1.04046E+01
#           1.06578E+01  1.09171E+01  1.11827E+01  1.14548E+01  1.17335E+01
#           1.20190E+01  1.23114E+01  1.26109E+01  1.29178E+01  1.32321E+01
#           1.35540E+01  1.38838E+01  1.42216E+01  1.45676E+01  1.49221E+01
#           1.52851E+01  1.56570E+01  1.60380E+01  1.64282E+01  1.68279E+01
#           1.72374E+01  1.76568E+01  1.80864E+01  1.85264E+01  1.89772E+01
#           1.94389E+01  1.99119E+01  2.03963E+01  2.08926E+01  2.14009E+01
#           2.19216E+01  2.24550E+01  2.30014E+01  2.35610E+01  2.41343E+01
#           2.47215E+01  2.53230E+01  2.59391E+01  2.65702E+01  2.72167E+01
#           2.78789E+01  2.85572E+01  2.92520E+01  2.99637E+01  3.06928E+01
#           3.14396E+01  3.22045E+01  3.29881E+01  3.37907E+01  3.46128E+01
#           3.54550E+01  3.63177E+01  3.72013E+01  3.81064E+01  3.90336E+01
#           3.99833E+01  4.09561E+01  4.19526E+01  4.29734E+01  4.40189E+01
#           4.50900E+01  4.61870E+01  4.73108E+01  4.84619E+01  4.96410E+01
#           5.08488E+01  5.20860E+01  5.33533E+01  5.46514E+01  5.59812E+01
#           5.73432E+01  5.87384E+01  6.01676E+01  6.16315E+01  6.31311E+01
#           6.46671E+01  6.62405E+01  6.78522E+01  6.95031E+01  7.11941E+01
#           7.29263E+01  7.47007E+01  7.65182E+01  7.83800E+01  8.02870E+01
#           8.22405E+01  8.42414E+01  8.62911E+01  8.83906E+01  9.05412E+01
#           9.27442E+01  9.50007E+01  9.73122E+01  9.96799E+01  1.02105E+02
#           1.04589E+02  1.07134E+02  1.09741E+02  1.12411E+02  1.15146E+02
#           1.17948E+02  1.20817E+02  1.23757E+02  1.26768E+02  1.29852E+02
#           1.33012E+02  1.36248E+02  1.39563E+02  1.42959E+02  1.46437E+02
#           1.50000E+02
     unit =    2            # unit is [1/cm^2/(MeV/n)/source]
     axis =  eng            # axis of output
     file = detector-22.out  # file name of output for the above axis
   output = f-curr          # surface crossing forward current spectrum
     part =  neutron  
# kf/name :  2112     
#    used :        main (  %)        temp (  %)       total (  %)
#  memory :         414 (  0)           0 (  0)         414 (  0)

#------------------------------------------------------------------------------
#newpage:
#   no. =    1   reg = 121 - 221

x: Energy [MeV/n]
y:  F-Curr [1/cm^2/(MeV/n)/source]         
p: xlog ylog afac(0.8) form(0.9)
h: n            x            y(neutron ),hh0l   n 
#  e-lower      e-upper      neutron     r.err 
   1.0000E-02   1.0243E-02   2.0550E-04  0.0632
   1.0243E-02   1.0493E-02   1.8778E-04  0.0654
   1.0493E-02   1.0748E-02   2.1387E-04  0.0605
   1.0748E-02   1.1009E-02   2.1338E-04  0.0599
   1.1009E-02   1.1277E-02   2.1877E-04  0.0584
   1.1277E-02   1.1552E-02   2.2450E-04  0.0570
   1.1552E-02   1.1833E-02   2.0850E-04  0.0584
   1.1833E-02   1.2121E-02   2.2161E-04  0.0560
   1.2121E-02   1.2415E-02   2.4347E-04  0.0528
   1.2415E-02   1.2718E-02   2.2577E-04  0.0542
   1.2718E-02   1.3027E-02   2.1071E-04  0.0554
   1.3027E-02   1.3344E-02   2.3536E-04  0.0518
   1.3344E-02   1.3669E-02   2.3470E-04  0.0512
   1.3669E-02   1.4001E-02   2.2371E-04  0.0518
   1.4001E-02   1.4342E-02   2.5069E-04  0.0484
   1.4342E-02   1.4691E-02   2.3041E-04  0.0499
   1.4691E-02   1.5048E-02   2.4172E-04  0.0481
   1.5048E-02   1.5414E-02   2.4581E-04  0.0471
   1.5414E-02   1.5789E-02   2.4211E-04  0.0469
   1.5789E-02   1.6174E-02   2.5093E-04  0.0455
   1.6174E-02   1.6567E-02   2.2210E-04  0.0478
   1.6567E-02   1.6970E-02   2.4312E-04  0.0452
   1.6970E-02   1.7383E-02   2.5479E-04  0.0436
   1.7383E-02   1.7806E-02   2.4826E-04  0.0436
   1.7806E-02   1.8239E-02   2.7837E-04  0.0407
   1.8239E-02   1.8683E-02   2.5283E-04  0.0422
   1.8683E-02   1.9138E-02   2.7014E-04  0.0404
   1.9138E-02   1.9603E-02   2.5127E-04  0.0413
   1.9603E-02   2.0080E-02   2.6837E-04  0.0395
   2.0080E-02   2.0569E-02   2.6936E-04  0.0390
   2.0569E-02   2.1069E-02   2.6256E-04  0.0390
   2.1069E-02   2.1582E-02   2.6842E-04  0.0381
   2.1582E-02   2.2107E-02   2.8566E-04  0.0365
   2.2107E-02   2.2645E-02   2.8668E-04  0.0360
   2.2645E-02   2.3196E-02   2.7878E-04  0.0361
   2.3196E-02   2.3760E-02   2.8067E-04  0.0355
   2.3760E-02   2.4338E-02   2.9303E-04  0.0344
   2.4338E-02   2.4930E-02   2.8472E-04  0.0344
   2.4930E-02   2.5537E-02   3.0202E-04  0.0330
   2.5537E-02   2.6158E-02   2.9099E-04  0.0333
   2.6158E-02   2.6795E-02   2.9476E-04  0.0327
   2.6795E-02   2.7447E-02   2.9573E-04  0.0322
   2.7447E-02   2.8114E-02   2.9919E-04  0.0316
   2.8114E-02   2.8799E-02   2.8419E-04  0.0321
   2.8799E-02   2.9499E-02   2.9514E-04  0.0311
   2.9499E-02   3.0217E-02   3.1237E-04  0.0299
   3.0217E-02   3.0952E-02   3.0604E-04  0.0298
   3.0952E-02   3.1705E-02   3.0302E-04  0.0296
   3.1705E-02   3.2477E-02   3.1319E-04  0.0288
   3.2477E-02   3.3267E-02   3.0474E-04  0.0288
   3.3267E-02   3.4076E-02   3.2765E-04  0.0275
   3.4076E-02   3.4905E-02   3.3337E-04  0.0269
   3.4905E-02   3.5755E-02   3.2510E-04  0.0269
   3.5755E-02   3.6625E-02   3.3359E-04  0.0263
   3.6625E-02   3.7516E-02   3.6135E-04  0.0249
   3.7516E-02   3.8428E-02   3.3327E-04  0.0256
   3.8428E-02   3.9363E-02   3.4182E-04  0.0250
   3.9363E-02   4.0321E-02   3.3976E-04  0.0248
   4.0321E-02   4.1302E-02   3.4168E-04  0.0244
   4.1302E-02   4.2307E-02   3.5724E-04  0.0236
   4.2307E-02   4.3337E-02   3.6799E-04  0.0230
   4.3337E-02   4.4391E-02   3.5736E-04  0.0230
   4.4391E-02   4.5471E-02   3.8016E-04  0.0221
   4.5471E-02   4.6577E-02   3.7692E-04  0.0219
   4.6577E-02   4.7711E-02   3.7202E-04  0.0218
   4.7711E-02   4.8871E-02   3.6904E-04  0.0216
   4.8871E-02   5.0061E-02   3.8837E-04  0.0208
   5.0061E-02   5.1279E-02   3.9918E-04  0.0203
   5.1279E-02   5.2526E-02   4.0717E-04  0.0198
   5.2526E-02   5.3804E-02   4.0375E-04  0.0197
   5.3804E-02   5.5113E-02   4.0684E-04  0.0194
   5.5113E-02   5.6454E-02   4.2343E-04  0.0188
   5.6454E-02   5.7828E-02   4.1454E-04  0.0187
   5.7828E-02   5.9235E-02   4.3213E-04  0.0181
   5.9235E-02   6.0676E-02   4.2838E-04  0.0180
   6.0676E-02   6.2152E-02   4.2078E-04  0.0179
   6.2152E-02   6.3665E-02   4.3261E-04  0.0175
   6.3665E-02   6.5214E-02   4.3860E-04  0.0172
   6.5214E-02   6.6800E-02   4.6297E-04  0.0165
   6.6800E-02   6.8426E-02   4.6625E-04  0.0162
   6.8426E-02   7.0090E-02   4.5806E-04  0.0162
   7.0090E-02   7.1796E-02   4.6747E-04  0.0158
   7.1796E-02   7.3543E-02   4.7388E-04  0.0155
   7.3543E-02   7.5332E-02   4.6766E-04  0.0155
   7.5332E-02   7.7165E-02   4.8579E-04  0.0150
   7.7165E-02   7.9042E-02   4.8863E-04  0.0148
   7.9042E-02   8.0965E-02   4.8379E-04  0.0147
   8.0965E-02   8.2935E-02   4.8448E-04  0.0145
   8.2935E-02   8.4953E-02   5.0905E-04  0.0140
   8.4953E-02   8.7020E-02   5.0721E-04  0.0138
   8.7020E-02   8.9138E-02   5.1614E-04  0.0135
   8.9138E-02   9.1306E-02   5.0120E-04  0.0136
   9.1306E-02   9.3528E-02   5.3089E-04  0.0130
   9.3528E-02   9.5804E-02   5.2979E-04  0.0129
   9.5804E-02   9.8134E-02   5.3917E-04  0.0126
   9.8134E-02   1.0052E-01   5.4061E-04  0.0124
   1.0052E-01   1.0297E-01   5.4502E-04  0.0122
   1.0297E-01   1.0547E-01   5.4980E-04  0.0120
   1.0547E-01   1.0804E-01   5.5271E-04  0.0119
   1.0804E-01   1.1067E-01   5.5610E-04  0.0117
   1.1067E-01   1.1336E-01   5.5247E-04  0.0116
   1.1336E-01   1.1612E-01   5.8387E-04  0.0111
   1.1612E-01   1.1894E-01   5.7743E-04  0.0111
   1.1894E-01   1.2184E-01   5.9288E-04  0.0108
   1.2184E-01   1.2480E-01   5.9917E-04  0.0106
   1.2480E-01   1.2784E-01   5.9680E-04  0.0105
   1.2784E-01   1.3095E-01   6.1773E-04  0.0102
   1.3095E-01   1.3414E-01   6.0004E-04  0.0102
   1.3414E-01   1.3740E-01   6.2715E-04  0.0099
   1.3740E-01   1.4074E-01   6.2907E-04  0.0098
   1.4074E-01   1.4417E-01   6.2540E-04  0.0097
   1.4417E-01   1.4767E-01   6.3860E-04  0.0095
   1.4767E-01   1.5127E-01   6.3651E-04  0.0094
   1.5127E-01   1.5495E-01   6.5090E-04  0.0091
   1.5495E-01   1.5872E-01   6.5857E-04  0.0090
   1.5872E-01   1.6258E-01   6.5328E-04  0.0089
   1.6258E-01   1.6654E-01   6.5435E-04  0.0088
   1.6654E-01   1.7059E-01   6.6768E-04  0.0086
   1.7059E-01   1.7474E-01   6.6849E-04  0.0085
   1.7474E-01   1.7899E-01   6.6891E-04  0.0084
   1.7899E-01   1.8334E-01   6.8864E-04  0.0082
   1.8334E-01   1.8781E-01   6.8197E-04  0.0081
   1.8781E-01   1.9237E-01   7.0682E-04  0.0079
   1.9237E-01   1.9706E-01   7.0204E-04  0.0078
   1.9706E-01   2.0185E-01   7.0606E-04  0.0077
   2.0185E-01   2.0676E-01   7.1091E-04  0.0076
   2.0676E-01   2.1179E-01   7.1370E-04  0.0075
   2.1179E-01   2.1694E-01   7.1243E-04  0.0074
   2.1694E-01   2.2222E-01   7.1843E-04  0.0073
   2.2222E-01   2.2763E-01   7.2841E-04  0.0071
   2.2763E-01   2.3317E-01   7.3295E-04  0.0070
   2.3317E-01   2.3884E-01   7.4115E-04  0.0069
   2.3884E-01   2.4465E-01   7.3248E-04  0.0069
   2.4465E-01   2.5061E-01   7.4361E-04  0.0067
   2.5061E-01   2.5670E-01   7.5238E-04  0.0066
   2.5670E-01   2.6295E-01   7.4581E-04  0.0066
   2.6295E-01   2.6935E-01   7.5930E-04  0.0064
   2.6935E-01   2.7590E-01   7.5112E-04  0.0064
   2.7590E-01   2.8261E-01   7.6555E-04  0.0062
   2.8261E-01   2.8949E-01   7.5277E-04  0.0062
   2.8949E-01   2.9653E-01   7.6459E-04  0.0061
   2.9653E-01   3.0375E-01   7.7243E-04  0.0060
   3.0375E-01   3.1114E-01   7.6659E-04  0.0059
   3.1114E-01   3.1871E-01   7.6871E-04  0.0059
   3.1871E-01   3.2646E-01   7.6257E-04  0.0058
   3.2646E-01   3.3441E-01   7.6567E-04  0.0057
   3.3441E-01   3.4254E-01   7.7110E-04  0.0056
   3.4254E-01   3.5088E-01   7.7441E-04  0.0056
   3.5088E-01   3.5941E-01   7.6944E-04  0.0055
   3.5941E-01   3.6816E-01   7.6532E-04  0.0055
   3.6816E-01   3.7712E-01   7.7757E-04  0.0054
   3.7712E-01   3.8629E-01   7.7247E-04  0.0053
   3.8629E-01   3.9569E-01   7.7242E-04  0.0052
   3.9569E-01   4.0532E-01   7.7262E-04  0.0052
   4.0532E-01   4.1518E-01   7.6356E-04  0.0052
   4.1518E-01   4.2528E-01   7.6392E-04  0.0051
   4.2528E-01   4.3563E-01   7.6831E-04  0.0050
   4.3563E-01   4.4623E-01   7.6136E-04  0.0050
   4.4623E-01   4.5708E-01   7.5337E-04  0.0049
   4.5708E-01   4.6821E-01   7.4923E-04  0.0049
   4.6821E-01   4.7960E-01   7.4382E-04  0.0049
   4.7960E-01   4.9127E-01   7.4411E-04  0.0048
   4.9127E-01   5.0322E-01   7.3833E-04  0.0048
   5.0322E-01   5.1546E-01   7.2901E-04  0.0047
   5.1546E-01   5.2800E-01   7.2804E-04  0.0047
   5.2800E-01   5.4085E-01   7.2141E-04  0.0046
   5.4085E-01   5.5401E-01   7.1371E-04  0.0046
   5.5401E-01   5.6749E-01   7.0614E-04  0.0046
   5.6749E-01   5.8130E-01   6.9890E-04  0.0046
   5.8130E-01   5.9544E-01   6.8529E-04  0.0045
   5.9544E-01   6.0993E-01   6.8308E-04  0.0045
   6.0993E-01   6.2477E-01   6.6993E-04  0.0045
   6.2477E-01   6.3997E-01   6.6241E-04  0.0045
   6.3997E-01   6.5554E-01   6.4733E-04  0.0045
   6.5554E-01   6.7149E-01   6.4102E-04  0.0044
   6.7149E-01   6.8783E-01   6.2705E-04  0.0044
   6.8783E-01   7.0456E-01   6.1546E-04  0.0044
   7.0456E-01   7.2171E-01   6.0570E-04  0.0044
   7.2171E-01   7.3927E-01   5.9640E-04  0.0044
   7.3927E-01   7.5725E-01   5.7732E-04  0.0044
   7.5725E-01   7.7568E-01   5.6326E-04  0.0044
   7.7568E-01   7.9455E-01   5.5118E-04  0.0044
   7.9455E-01   8.1388E-01   5.3712E-04  0.0044
   8.1388E-01   8.3368E-01   5.1761E-04  0.0044
   8.3368E-01   8.5397E-01   5.0056E-04  0.0044
   8.5397E-01   8.7475E-01   4.8468E-04  0.0045
   8.7475E-01   8.9603E-01   4.6335E-04  0.0045
   8.9603E-01   9.1783E-01   4.4562E-04  0.0045
   9.1783E-01   9.4016E-01   4.2935E-04  0.0046
   9.4016E-01   9.6304E-01   4.0435E-04  0.0047
   9.6304E-01   9.8647E-01   3.8338E-04  0.0047
   9.8647E-01   1.0105E+00   3.6360E-04  0.0048
   1.0105E+00   1.0351E+00   3.5662E-04  0.0048
   1.0351E+00   1.0602E+00   3.5655E-04  0.0047
   1.0602E+00   1.0860E+00   3.5627E-04  0.0047
   1.0860E+00   1.1125E+00   3.5521E-04  0.0046
   1.1125E+00   1.1395E+00   3.5501E-04  0.0046
   1.1395E+00   1.1673E+00   3.5421E-04  0.0045
   1.1673E+00   1.1957E+00   3.5622E-04  0.0044
   1.1957E+00   1.2247E+00   3.6025E-04  0.0044
   1.2247E+00   1.2545E+00   3.5361E-04  0.0044
   1.2545E+00   1.2851E+00   3.4833E-04  0.0043
   1.2851E+00   1.3163E+00   3.4456E-04  0.0043
   1.3163E+00   1.3484E+00   3.4168E-04  0.0043
   1.3484E+00   1.3812E+00   3.3891E-04  0.0042
   1.3812E+00   1.4148E+00   3.3866E-04  0.0042
   1.4148E+00   1.4492E+00   3.3133E-04  0.0042
   1.4492E+00   1.4845E+00   3.2209E-04  0.0042
   1.4845E+00   1.5206E+00   3.1526E-04  0.0042
   1.5206E+00   1.5576E+00   3.0869E-04  0.0042
   1.5576E+00   1.5955E+00   2.9902E-04  0.0042
   1.5955E+00   1.6343E+00   2.9335E-04  0.0042
   1.6343E+00   1.6741E+00   2.8857E-04  0.0042
   1.6741E+00   1.7148E+00   2.8667E-04  0.0041
   1.7148E+00   1.7565E+00   2.7865E-04  0.0041
   1.7565E+00   1.7992E+00   2.6947E-04  0.0042
   1.7992E+00   1.8430E+00   2.6042E-04  0.0042
   1.8430E+00   1.8879E+00   2.5042E-04  0.0042
   1.8879E+00   1.9338E+00   2.4577E-04  0.0042
   1.9338E+00   1.9808E+00   2.3795E-04  0.0042
   1.9808E+00   2.0290E+00   2.3154E-04  0.0042
   2.0290E+00   2.0784E+00   2.2351E-04  0.0043
   2.0784E+00   2.1290E+00   2.1604E-04  0.0043
   2.1290E+00   2.1808E+00   2.0436E-04  0.0043
   2.1808E+00   2.2338E+00   1.9622E-04  0.0044
   2.2338E+00   2.2882E+00   1.8856E-04  0.0044
   2.2882E+00   2.3439E+00   1.7961E-04  0.0045
   2.3439E+00   2.4009E+00   1.7327E-04  0.0045
   2.4009E+00   2.4593E+00   1.6753E-04  0.0045
   2.4593E+00   2.5191E+00   1.5751E-04  0.0046
   2.5191E+00   2.5804E+00   1.5045E-04  0.0047
   2.5804E+00   2.6432E+00   1.4212E-04  0.0047
   2.6432E+00   2.7075E+00   1.3510E-04  0.0048
   2.7075E+00   2.7734E+00   1.2703E-04  0.0049
   2.7734E+00   2.8409E+00   1.2033E-04  0.0050
   2.8409E+00   2.9100E+00   1.1350E-04  0.0051
   2.9100E+00   2.9808E+00   1.0793E-04  0.0051
   2.9808E+00   3.0533E+00   1.0147E-04  0.0052
   3.0533E+00   3.1276E+00   9.6104E-05  0.0053
   3.1276E+00   3.2037E+00   9.0373E-05  0.0054
   3.2037E+00   3.2817E+00   8.3181E-05  0.0056
   3.2817E+00   3.3615E+00   7.8752E-05  0.0056
   3.3615E+00   3.4433E+00   7.3072E-05  0.0058
   3.4433E+00   3.5271E+00   6.7471E-05  0.0060
   3.5271E+00   3.6129E+00   6.2640E-05  0.0061
   3.6129E+00   3.7008E+00   5.8113E-05  0.0063
   3.7008E+00   3.7908E+00   5.4032E-05  0.0064
   3.7908E+00   3.8831E+00   4.9853E-05  0.0066
   3.8831E+00   3.9776E+00   4.5752E-05  0.0068
   3.9776E+00   4.0743E+00   4.2954E-05  0.0069
   4.0743E+00   4.1735E+00   3.9945E-05  0.0071
   4.1735E+00   4.2750E+00   3.6859E-05  0.0073
   4.2750E+00   4.3790E+00   3.3607E-05  0.0076
   4.3790E+00   4.4856E+00   3.1037E-05  0.0078
   4.4856E+00   4.5947E+00   2.8115E-05  0.0081
   4.5947E+00   4.7065E+00   2.5041E-05  0.0085
   4.7065E+00   4.8210E+00   2.3330E-05  0.0087
   4.8210E+00   4.9383E+00   2.1398E-05  0.0089
   4.9383E+00   5.0585E+00   1.9568E-05  0.0092
   5.0585E+00   5.1815E+00   1.7837E-05  0.0095
   5.1815E+00   5.3076E+00   1.6219E-05  0.0099
   5.3076E+00   5.4368E+00   1.4723E-05  0.0103
   5.4368E+00   5.5690E+00   1.3296E-05  0.0107
   5.5690E+00   5.7045E+00   1.2196E-05  0.0110
   5.7045E+00   5.8433E+00   1.1059E-05  0.0114
   5.8433E+00   5.9855E+00   1.0009E-05  0.0119
   5.9855E+00   6.1311E+00   8.9898E-06  0.0124
   6.1311E+00   6.2803E+00   7.9966E-06  0.0129
   6.2803E+00   6.4331E+00   7.3204E-06  0.0134
   6.4331E+00   6.5896E+00   6.5626E-06  0.0140
   6.5896E+00   6.7500E+00   5.9184E-06  0.0145
   6.7500E+00   6.9142E+00   5.3644E-06  0.0151
   6.9142E+00   7.0824E+00   4.9504E-06  0.0155
   7.0824E+00   7.2548E+00   4.2902E-06  0.0164
   7.2548E+00   7.4313E+00   3.9646E-06  0.0169
   7.4313E+00   7.6121E+00   3.5933E-06  0.0175
   7.6121E+00   7.7973E+00   3.3336E-06  0.0180
   7.7973E+00   7.9870E+00   2.8638E-06  0.0192
   7.9870E+00   8.1813E+00   2.6414E-06  0.0197
   8.1813E+00   8.3804E+00   2.3968E-06  0.0205
   8.3804E+00   8.5843E+00   2.0917E-06  0.0216
   8.5843E+00   8.7931E+00   1.9008E-06  0.0224
   8.7931E+00   9.0071E+00   1.8285E-06  0.0226
   9.0071E+00   9.2262E+00   1.5870E-06  0.0240
   9.2262E+00   9.4507E+00   1.4331E-06  0.0249
   9.4507E+00   9.6807E+00   1.2473E-06  0.0264
   9.6807E+00   9.9162E+00   1.1060E-06  0.0277
   9.9162E+00   1.0157E+01   1.0378E-06  0.0282
   1.0157E+01   1.0405E+01   9.5452E-07  0.0291
   1.0405E+01   1.0658E+01   8.8682E-07  0.0298
   1.0658E+01   1.0917E+01   8.0521E-07  0.0309
   1.0917E+01   1.1183E+01   7.4505E-07  0.0318
   1.1183E+01   1.1455E+01   6.6524E-07  0.0331
   1.1455E+01   1.1733E+01   6.5912E-07  0.0329
   1.1733E+01   1.2019E+01   5.9688E-07  0.0342
   1.2019E+01   1.2311E+01   5.5466E-07  0.0350
   1.2311E+01   1.2611E+01   5.1044E-07  0.0361
   1.2611E+01   1.2918E+01   4.9440E-07  0.0362
   1.2918E+01   1.3232E+01   4.5562E-07  0.0373
   1.3232E+01   1.3554E+01   3.9789E-07  0.0394
   1.3554E+01   1.3884E+01   3.9329E-07  0.0392
   1.3884E+01   1.4222E+01   4.0734E-07  0.0380
   1.4222E+01   1.4568E+01   3.6645E-07  0.0397
   1.4568E+01   1.4922E+01   3.3179E-07  0.0412
   1.4922E+01   1.5285E+01   3.4154E-07  0.0401
   1.5285E+01   1.5657E+01   3.0385E-07  0.0420
   1.5657E+01   1.6038E+01   3.3705E-07  0.0394
   1.6038E+01   1.6428E+01   3.0163E-07  0.0412
   1.6428E+01   1.6828E+01   3.0247E-07  0.0406
   1.6828E+01   1.7237E+01   2.7990E-07  0.0417
   1.7237E+01   1.7657E+01   2.5894E-07  0.0428
   1.7657E+01   1.8086E+01   2.5465E-07  0.0427
   1.8086E+01   1.8526E+01   2.5701E-07  0.0420
   1.8526E+01   1.8977E+01   2.2606E-07  0.0443
   1.8977E+01   1.9439E+01   2.2741E-07  0.0436
   1.9439E+01   1.9912E+01   2.0974E-07  0.0449
   1.9912E+01   2.0396E+01   2.1219E-07  0.0441
   2.0396E+01   2.0893E+01   2.0231E-07  0.0446
   2.0893E+01   2.1401E+01   1.8452E-07  0.0462
   2.1401E+01   2.1922E+01   1.7592E-07  0.0467
   2.1922E+01   2.2455E+01   1.7699E-07  0.0460
   2.2455E+01   2.3001E+01   1.5558E-07  0.0485
   2.3001E+01   2.3561E+01   1.4831E-07  0.0491
   2.3561E+01   2.4134E+01   1.4548E-07  0.0490
   2.4134E+01   2.4721E+01   1.4782E-07  0.0480
   2.4721E+01   2.5323E+01   1.3400E-07  0.0498
   2.5323E+01   2.5939E+01   1.3276E-07  0.0494
   2.5939E+01   2.6570E+01   1.2137E-07  0.0511
   2.6570E+01   2.7217E+01   1.1663E-07  0.0515
   2.7217E+01   2.7879E+01   1.0208E-07  0.0544
   2.7879E+01   2.8557E+01   9.5236E-08  0.0556
   2.8557E+01   2.9252E+01   9.5277E-08  0.0550
   2.9252E+01   2.9964E+01   8.2616E-08  0.0583
   2.9964E+01   3.0693E+01   7.2698E-08  0.0614
   3.0693E+01   3.1440E+01   6.6151E-08  0.0636
   3.1440E+01   3.2205E+01   7.2946E-08  0.0599
   3.2205E+01   3.2988E+01   5.8451E-08  0.0661
   3.2988E+01   3.3791E+01   5.8059E-08  0.0655
   3.3791E+01   3.4613E+01   5.2545E-08  0.0680
   3.4613E+01   3.5455E+01   4.3460E-08  0.0739
   3.5455E+01   3.6318E+01   4.1036E-08  0.0752
   3.6318E+01   3.7201E+01   4.0288E-08  0.0750
   3.7201E+01   3.8106E+01   3.8889E-08  0.0754
   3.8106E+01   3.9034E+01   2.5670E-08  0.0917
   3.9034E+01   3.9983E+01   2.6955E-08  0.0884
   3.9983E+01   4.0956E+01   2.4259E-08  0.0921
   4.0956E+01   4.1953E+01   2.0873E-08  0.0981
   4.1953E+01   4.2973E+01   1.9398E-08  0.1005
   4.2973E+01   4.4019E+01   1.5303E-08  0.1118
   4.4019E+01   4.5090E+01   1.3632E-08  0.1170
   4.5090E+01   4.6187E+01   1.3308E-08  0.1170
   4.6187E+01   4.7311E+01   1.0322E-08  0.1313
   4.7311E+01   4.8462E+01   9.9035E-09  0.1325
   4.8462E+01   4.9641E+01   7.1240E-09  0.1543
   4.9641E+01   5.0849E+01   4.1397E-09  0.2000
   5.0849E+01   5.2086E+01   5.3347E-09  0.1741
   5.2086E+01   5.3353E+01   2.6829E-09  0.2425
   5.3353E+01   5.4651E+01   2.0029E-09  0.2774
   5.4651E+01   5.5981E+01   2.5569E-09  0.2425
   5.5981E+01   5.7343E+01   1.4684E-09  0.3162
   5.7343E+01   5.8738E+01   1.4335E-09  0.3162
   5.8738E+01   6.0168E+01   8.3966E-10  0.4082
   6.0168E+01   6.1632E+01   1.0930E-09  0.3536
   6.1632E+01   6.3131E+01   8.0024E-10  0.4082
   6.3131E+01   6.4667E+01   5.2082E-10  0.5000
   6.4667E+01   6.6240E+01   3.8134E-10  0.5774
   6.6240E+01   6.7852E+01   1.2409E-10  1.0000
   6.7852E+01   6.9503E+01   2.4229E-10  0.7071
   6.9503E+01   7.1194E+01   0.0000E+00  0.0000
   7.1194E+01   7.2926E+01   1.1546E-10  1.0000
   7.2926E+01   7.4701E+01   0.0000E+00  0.0000
   7.4701E+01   7.6518E+01   0.0000E+00  0.0000
   7.6518E+01   7.8380E+01   0.0000E+00  0.0000
   7.8380E+01   8.0287E+01   0.0000E+00  0.0000
   8.0287E+01   8.2240E+01   0.0000E+00  0.0000
   8.2240E+01   8.4241E+01   0.0000E+00  0.0000
   8.4241E+01   8.6291E+01   0.0000E+00  0.0000
   8.6291E+01   8.8391E+01   0.0000E+00  0.0000
   8.8391E+01   9.0541E+01   0.0000E+00  0.0000
   9.0541E+01   9.2744E+01   0.0000E+00  0.0000
   9.2744E+01   9.5001E+01   0.0000E+00  0.0000
   9.5001E+01   9.7312E+01   0.0000E+00  0.0000
   9.7312E+01   9.9680E+01   0.0000E+00  0.0000
   9.9680E+01   1.0211E+02   0.0000E+00  0.0000
   1.0211E+02   1.0459E+02   0.0000E+00  0.0000
   1.0459E+02   1.0713E+02   0.0000E+00  0.0000
   1.0713E+02   1.0974E+02   0.0000E+00  0.0000
   1.0974E+02   1.1241E+02   0.0000E+00  0.0000
   1.1241E+02   1.1515E+02   0.0000E+00  0.0000
   1.1515E+02   1.1795E+02   0.0000E+00  0.0000
   1.1795E+02   1.2082E+02   0.0000E+00  0.0000
   1.2082E+02   1.2376E+02   0.0000E+00  0.0000
   1.2376E+02   1.2677E+02   0.0000E+00  0.0000
   1.2677E+02   1.2985E+02   0.0000E+00  0.0000
   1.2985E+02   1.3301E+02   0.0000E+00  0.0000
   1.3301E+02   1.3625E+02   0.0000E+00  0.0000
   1.3625E+02   1.3956E+02   0.0000E+00  0.0000
   1.3956E+02   1.4296E+02   0.0000E+00  0.0000
   1.4296E+02   1.4644E+02   0.0000E+00  0.0000
   1.4644E+02   1.5000E+02   0.0000E+00  0.0000

#   sum over                 8.0830E-06
'no. =    1   reg = 121 - 221'
msuc: {\huge [t-cross] in region mesh}
msdr: {\it plotted by \ANGEL \version}
msdl: {\it calculated by \PHITS  3.26}
wt: s(0.7)
\vspace{-3}
  region surface crossing
  area  &=&   1.0000E+00 [cm^2]
e:
 
# Information for Restart Calculation
# This calculation was newly started
# istdev =  2 # 1:Batch variance, 2:History variance
# resc2  = 5.00000000000000000E+09 # Total source weight or Total source weight / maxcas
# resc3  = 5.00000000000000000E+09 # Total history number or Total batch number
# maxcas =   500000000 # History / Batch, only used for istdev=1
# bitrseed = 0110100000100010111000001110001111001110100100011111101000111001 # bit data of rseed
