[ T-Cross ]
    title = [t-cross] in region mesh
     mesh =  reg            # mesh type is region-wise
      reg =    1            # number of crossing regions
      non     r-from    r-to       area
      1       105       205        1.000000    
   e-type =    3            # e-mesh is log given by emin, emax and ne
     emin =  1.0000000E-02  # minimum value of e-mesh points
     emax =   150.0000      # maximum value of e-mesh points
#    edel =  2.4039514E-02  # mesh width of e-mesh points
       ne =    400          # number of e-mesh points
#    data = ( e(i), i = 1, ne + 1 )
#           1.00000E-02  1.02433E-02  1.04925E-02  1.07478E-02  1.10093E-02
#           1.12772E-02  1.15516E-02  1.18326E-02  1.21205E-02  1.24154E-02
#           1.27175E-02  1.30269E-02  1.33439E-02  1.36686E-02  1.40011E-02
#           1.43418E-02  1.46907E-02  1.50482E-02  1.54143E-02  1.57894E-02
#           1.61735E-02  1.65670E-02  1.69701E-02  1.73830E-02  1.78060E-02
#           1.82392E-02  1.86830E-02  1.91375E-02  1.96032E-02  2.00801E-02
#           2.05687E-02  2.10692E-02  2.15818E-02  2.21069E-02  2.26448E-02
#           2.31957E-02  2.37601E-02  2.43382E-02  2.49304E-02  2.55369E-02
#           2.61583E-02  2.67947E-02  2.74467E-02  2.81145E-02  2.87985E-02
#           2.94992E-02  3.02169E-02  3.09521E-02  3.17052E-02  3.24766E-02
#           3.32668E-02  3.40762E-02  3.49053E-02  3.57546E-02  3.66246E-02
#           3.75157E-02  3.84284E-02  3.93634E-02  4.03212E-02  4.13022E-02
#           4.23071E-02  4.33365E-02  4.43909E-02  4.54710E-02  4.65773E-02
#           4.77106E-02  4.88714E-02  5.00605E-02  5.12785E-02  5.25262E-02
#           5.38042E-02  5.51133E-02  5.64542E-02  5.78278E-02  5.92348E-02
#           6.06760E-02  6.21523E-02  6.36645E-02  6.52135E-02  6.68002E-02
#           6.84255E-02  7.00904E-02  7.17957E-02  7.35426E-02  7.53319E-02
#           7.71648E-02  7.90423E-02  8.09655E-02  8.29354E-02  8.49533E-02
#           8.70203E-02  8.91376E-02  9.13064E-02  9.35279E-02  9.58035E-02
#           9.81345E-02  1.00522E-01  1.02968E-01  1.05473E-01  1.08040E-01
#           1.10668E-01  1.13361E-01  1.16119E-01  1.18944E-01  1.21838E-01
#           1.24803E-01  1.27839E-01  1.30950E-01  1.34136E-01  1.37399E-01
#           1.40742E-01  1.44167E-01  1.47675E-01  1.51268E-01  1.54948E-01
#           1.58718E-01  1.62580E-01  1.66535E-01  1.70587E-01  1.74738E-01
#           1.78989E-01  1.83344E-01  1.87805E-01  1.92375E-01  1.97055E-01
#           2.01850E-01  2.06761E-01  2.11792E-01  2.16945E-01  2.22223E-01
#           2.27630E-01  2.33169E-01  2.38842E-01  2.44653E-01  2.50605E-01
#           2.56703E-01  2.62949E-01  2.69346E-01  2.75900E-01  2.82613E-01
#           2.89489E-01  2.96532E-01  3.03747E-01  3.11138E-01  3.18708E-01
#           3.26462E-01  3.34405E-01  3.42542E-01  3.50876E-01  3.59413E-01
#           3.68158E-01  3.77116E-01  3.86291E-01  3.95690E-01  4.05317E-01
#           4.15179E-01  4.25281E-01  4.35628E-01  4.46227E-01  4.57084E-01
#           4.68205E-01  4.79597E-01  4.91266E-01  5.03219E-01  5.15463E-01
#           5.28005E-01  5.40851E-01  5.54011E-01  5.67490E-01  5.81298E-01
#           5.95441E-01  6.09929E-01  6.24769E-01  6.39970E-01  6.55541E-01
#           6.71491E-01  6.87828E-01  7.04564E-01  7.21706E-01  7.39266E-01
#           7.57253E-01  7.75678E-01  7.94551E-01  8.13883E-01  8.33685E-01
#           8.53969E-01  8.74747E-01  8.96030E-01  9.17831E-01  9.40163E-01
#           9.63038E-01  9.86469E-01  1.01047E+00  1.03506E+00  1.06024E+00
#           1.08604E+00  1.11246E+00  1.13953E+00  1.16725E+00  1.19565E+00
#           1.22474E+00  1.25454E+00  1.28507E+00  1.31633E+00  1.34836E+00
#           1.38117E+00  1.41477E+00  1.44920E+00  1.48446E+00  1.52057E+00
#           1.55757E+00  1.59547E+00  1.63429E+00  1.67405E+00  1.71478E+00
#           1.75650E+00  1.79924E+00  1.84302E+00  1.88786E+00  1.93379E+00
#           1.98084E+00  2.02904E+00  2.07841E+00  2.12898E+00  2.18078E+00
#           2.23384E+00  2.28819E+00  2.34386E+00  2.40089E+00  2.45930E+00
#           2.51914E+00  2.58043E+00  2.64322E+00  2.70753E+00  2.77341E+00
#           2.84088E+00  2.91001E+00  2.98081E+00  3.05333E+00  3.12762E+00
#           3.20372E+00  3.28167E+00  3.36152E+00  3.44330E+00  3.52708E+00
#           3.61290E+00  3.70080E+00  3.79085E+00  3.88308E+00  3.97756E+00
#           4.07434E+00  4.17347E+00  4.27501E+00  4.37903E+00  4.48557E+00
#           4.59471E+00  4.70650E+00  4.82102E+00  4.93832E+00  5.05847E+00
#           5.18155E+00  5.30762E+00  5.43676E+00  5.56904E+00  5.70453E+00
#           5.84333E+00  5.98550E+00  6.13114E+00  6.28031E+00  6.43312E+00
#           6.58964E+00  6.74997E+00  6.91420E+00  7.08243E+00  7.25475E+00
#           7.43126E+00  7.61207E+00  7.79728E+00  7.98700E+00  8.18133E+00
#           8.38038E+00  8.58428E+00  8.79315E+00  9.00709E+00  9.22624E+00
#           9.45072E+00  9.68067E+00  9.91620E+00  1.01575E+01  1.04046E+01
#           1.06578E+01  1.09171E+01  1.11827E+01  1.14548E+01  1.17335E+01
#           1.20190E+01  1.23114E+01  1.26109E+01  1.29178E+01  1.32321E+01
#           1.35540E+01  1.38838E+01  1.42216E+01  1.45676E+01  1.49221E+01
#           1.52851E+01  1.56570E+01  1.60380E+01  1.64282E+01  1.68279E+01
#           1.72374E+01  1.76568E+01  1.80864E+01  1.85264E+01  1.89772E+01
#           1.94389E+01  1.99119E+01  2.03963E+01  2.08926E+01  2.14009E+01
#           2.19216E+01  2.24550E+01  2.30014E+01  2.35610E+01  2.41343E+01
#           2.47215E+01  2.53230E+01  2.59391E+01  2.65702E+01  2.72167E+01
#           2.78789E+01  2.85572E+01  2.92520E+01  2.99637E+01  3.06928E+01
#           3.14396E+01  3.22045E+01  3.29881E+01  3.37907E+01  3.46128E+01
#           3.54550E+01  3.63177E+01  3.72013E+01  3.81064E+01  3.90336E+01
#           3.99833E+01  4.09561E+01  4.19526E+01  4.29734E+01  4.40189E+01
#           4.50900E+01  4.61870E+01  4.73108E+01  4.84619E+01  4.96410E+01
#           5.08488E+01  5.20860E+01  5.33533E+01  5.46514E+01  5.59812E+01
#           5.73432E+01  5.87384E+01  6.01676E+01  6.16315E+01  6.31311E+01
#           6.46671E+01  6.62405E+01  6.78522E+01  6.95031E+01  7.11941E+01
#           7.29263E+01  7.47007E+01  7.65182E+01  7.83800E+01  8.02870E+01
#           8.22405E+01  8.42414E+01  8.62911E+01  8.83906E+01  9.05412E+01
#           9.27442E+01  9.50007E+01  9.73122E+01  9.96799E+01  1.02105E+02
#           1.04589E+02  1.07134E+02  1.09741E+02  1.12411E+02  1.15146E+02
#           1.17948E+02  1.20817E+02  1.23757E+02  1.26768E+02  1.29852E+02
#           1.33012E+02  1.36248E+02  1.39563E+02  1.42959E+02  1.46437E+02
#           1.50000E+02
     unit =    2            # unit is [1/cm^2/(MeV/n)/source]
     axis =  eng            # axis of output
     file = detector-06.out  # file name of output for the above axis
   output = f-curr          # surface crossing forward current spectrum
     part =  neutron  
# kf/name :  2112     
#    used :        main (  %)        temp (  %)       total (  %)
#  memory :         414 (  0)           0 (  0)         414 (  0)

#------------------------------------------------------------------------------
#newpage:
#   no. =    1   reg = 105 - 205

x: Energy [MeV/n]
y:  F-Curr [1/cm^2/(MeV/n)/source]         
p: xlog ylog afac(0.8) form(0.9)
h: n            x            y(neutron ),hh0l   n 
#  e-lower      e-upper      neutron     r.err 
   1.0000E-02   1.0243E-02   5.7746E-04  0.0597
   1.0243E-02   1.0493E-02   5.3967E-04  0.0610
   1.0493E-02   1.0748E-02   6.9332E-04  0.0531
   1.0748E-02   1.1009E-02   5.9273E-04  0.0568
   1.1009E-02   1.1277E-02   6.1785E-04  0.0550
   1.1277E-02   1.1552E-02   6.4144E-04  0.0533
   1.1552E-02   1.1833E-02   6.5645E-04  0.0521
   1.1833E-02   1.2121E-02   6.4259E-04  0.0520
   1.2121E-02   1.2415E-02   5.7307E-04  0.0544
   1.2415E-02   1.2718E-02   5.5284E-04  0.0547
   1.2718E-02   1.3027E-02   6.1242E-04  0.0514
   1.3027E-02   1.3344E-02   6.6413E-04  0.0487
   1.3344E-02   1.3669E-02   6.3296E-04  0.0493
   1.3669E-02   1.4001E-02   6.4949E-04  0.0481
   1.4001E-02   1.4342E-02   6.2379E-04  0.0485
   1.4342E-02   1.4691E-02   6.4193E-04  0.0472
   1.4691E-02   1.5048E-02   6.3368E-04  0.0470
   1.5048E-02   1.5414E-02   6.3092E-04  0.0465
   1.5414E-02   1.5789E-02   5.9460E-04  0.0474
   1.5789E-02   1.6174E-02   6.1822E-04  0.0459
   1.6174E-02   1.6567E-02   6.5563E-04  0.0440
   1.6567E-02   1.6970E-02   7.0704E-04  0.0419
   1.6970E-02   1.7383E-02   6.7692E-04  0.0423
   1.7383E-02   1.7806E-02   6.0528E-04  0.0442
   1.7806E-02   1.8239E-02   6.5900E-04  0.0418
   1.8239E-02   1.8683E-02   6.8616E-04  0.0405
   1.8683E-02   1.9138E-02   6.4786E-04  0.0412
   1.9138E-02   1.9603E-02   6.2925E-04  0.0413
   1.9603E-02   2.0080E-02   6.5834E-04  0.0399
   2.0080E-02   2.0569E-02   6.4679E-04  0.0398
   2.0569E-02   2.1069E-02   6.4941E-04  0.0392
   2.1069E-02   2.1582E-02   7.3152E-04  0.0365
   2.1582E-02   2.2107E-02   6.8177E-04  0.0374
   2.2107E-02   2.2645E-02   6.2514E-04  0.0386
   2.2645E-02   2.3196E-02   6.9061E-04  0.0362
   2.3196E-02   2.3760E-02   6.5914E-04  0.0367
   2.3760E-02   2.4338E-02   6.4349E-04  0.0367
   2.4338E-02   2.4930E-02   7.1179E-04  0.0344
   2.4930E-02   2.5537E-02   6.8170E-04  0.0348
   2.5537E-02   2.6158E-02   6.7154E-04  0.0346
   2.6158E-02   2.6795E-02   6.9330E-04  0.0337
   2.6795E-02   2.7447E-02   7.1096E-04  0.0328
   2.7447E-02   2.8114E-02   7.2252E-04  0.0322
   2.8114E-02   2.8799E-02   7.0244E-04  0.0323
   2.8799E-02   2.9499E-02   6.8432E-04  0.0323
   2.9499E-02   3.0217E-02   6.8618E-04  0.0319
   3.0217E-02   3.0952E-02   7.0457E-04  0.0311
   3.0952E-02   3.1705E-02   6.9646E-04  0.0309
   3.1705E-02   3.2477E-02   7.2011E-04  0.0300
   3.2477E-02   3.3267E-02   7.1756E-04  0.0297
   3.3267E-02   3.4076E-02   6.8136E-04  0.0301
   3.4076E-02   3.4905E-02   7.2729E-04  0.0288
   3.4905E-02   3.5755E-02   7.3416E-04  0.0283
   3.5755E-02   3.6625E-02   7.4143E-04  0.0278
   3.6625E-02   3.7516E-02   7.0530E-04  0.0282
   3.7516E-02   3.8428E-02   7.0718E-04  0.0278
   3.8428E-02   3.9363E-02   7.1605E-04  0.0273
   3.9363E-02   4.0321E-02   7.3976E-04  0.0266
   4.0321E-02   4.1302E-02   7.3748E-04  0.0263
   4.1302E-02   4.2307E-02   6.9782E-04  0.0267
   4.2307E-02   4.3337E-02   7.1209E-04  0.0261
   4.3337E-02   4.4391E-02   7.2647E-04  0.0255
   4.4391E-02   4.5471E-02   7.3792E-04  0.0250
   4.5471E-02   4.6577E-02   7.2129E-04  0.0250
   4.6577E-02   4.7711E-02   7.4166E-04  0.0244
   4.7711E-02   4.8871E-02   7.5937E-04  0.0238
   4.8871E-02   5.0061E-02   7.3292E-04  0.0240
   5.0061E-02   5.1279E-02   7.5246E-04  0.0234
   5.1279E-02   5.2526E-02   7.4120E-04  0.0233
   5.2526E-02   5.3804E-02   7.4569E-04  0.0229
   5.3804E-02   5.5113E-02   7.3906E-04  0.0227
   5.5113E-02   5.6454E-02   7.5394E-04  0.0222
   5.6454E-02   5.7828E-02   7.4696E-04  0.0221
   5.7828E-02   5.9235E-02   7.5089E-04  0.0218
   5.9235E-02   6.0676E-02   7.6966E-04  0.0212
   6.0676E-02   6.2152E-02   7.7762E-04  0.0209
   6.2152E-02   6.3665E-02   7.3898E-04  0.0212
   6.3665E-02   6.5214E-02   7.9632E-04  0.0201
   6.5214E-02   6.6800E-02   7.8591E-04  0.0200
   6.6800E-02   6.8426E-02   7.5186E-04  0.0202
   6.8426E-02   7.0090E-02   7.6403E-04  0.0198
   7.0090E-02   7.1796E-02   7.6963E-04  0.0195
   7.1796E-02   7.3543E-02   7.8685E-04  0.0191
   7.3543E-02   7.5332E-02   7.7305E-04  0.0190
   7.5332E-02   7.7165E-02   7.7664E-04  0.0187
   7.7165E-02   7.9042E-02   7.7551E-04  0.0185
   7.9042E-02   8.0965E-02   7.8127E-04  0.0182
   8.0965E-02   8.2935E-02   7.7997E-04  0.0180
   8.2935E-02   8.4953E-02   7.8176E-04  0.0178
   8.4953E-02   8.7020E-02   7.9996E-04  0.0174
   8.7020E-02   8.9138E-02   7.4695E-04  0.0178
   8.9138E-02   9.1306E-02   7.8373E-04  0.0172
   9.1306E-02   9.3528E-02   7.8650E-04  0.0169
   9.3528E-02   9.5804E-02   7.8792E-04  0.0167
   9.5804E-02   9.8134E-02   7.7350E-04  0.0167
   9.8134E-02   1.0052E-01   8.1187E-04  0.0161
   1.0052E-01   1.0297E-01   7.8932E-04  0.0161
   1.0297E-01   1.0547E-01   8.0021E-04  0.0158
   1.0547E-01   1.0804E-01   7.7155E-04  0.0159
   1.0804E-01   1.1067E-01   7.9374E-04  0.0155
   1.1067E-01   1.1336E-01   7.8204E-04  0.0154
   1.1336E-01   1.1612E-01   8.1177E-04  0.0149
   1.1612E-01   1.1894E-01   8.0683E-04  0.0148
   1.1894E-01   1.2184E-01   7.8421E-04  0.0148
   1.2184E-01   1.2480E-01   8.0665E-04  0.0145
   1.2480E-01   1.2784E-01   8.0815E-04  0.0143
   1.2784E-01   1.3095E-01   8.0383E-04  0.0141
   1.3095E-01   1.3414E-01   8.1981E-04  0.0138
   1.3414E-01   1.3740E-01   8.1006E-04  0.0138
   1.3740E-01   1.4074E-01   8.1760E-04  0.0135
   1.4074E-01   1.4417E-01   8.1460E-04  0.0134
   1.4417E-01   1.4767E-01   8.2611E-04  0.0131
   1.4767E-01   1.5127E-01   8.0357E-04  0.0132
   1.5127E-01   1.5495E-01   8.0235E-04  0.0130
   1.5495E-01   1.5872E-01   8.0928E-04  0.0128
   1.5872E-01   1.6258E-01   8.1557E-04  0.0126
   1.6258E-01   1.6654E-01   8.1768E-04  0.0124
   1.6654E-01   1.7059E-01   8.3324E-04  0.0122
   1.7059E-01   1.7474E-01   8.1484E-04  0.0122
   1.7474E-01   1.7899E-01   8.1941E-04  0.0120
   1.7899E-01   1.8334E-01   8.1826E-04  0.0118
   1.8334E-01   1.8781E-01   8.2096E-04  0.0117
   1.8781E-01   1.9237E-01   8.2335E-04  0.0115
   1.9237E-01   1.9706E-01   8.1015E-04  0.0115
   1.9706E-01   2.0185E-01   8.1364E-04  0.0113
   2.0185E-01   2.0676E-01   8.0515E-04  0.0112
   2.0676E-01   2.1179E-01   8.2077E-04  0.0110
   2.1179E-01   2.1694E-01   8.1699E-04  0.0109
   2.1694E-01   2.2222E-01   8.0682E-04  0.0108
   2.2222E-01   2.2763E-01   8.0684E-04  0.0107
   2.2763E-01   2.3317E-01   8.2077E-04  0.0105
   2.3317E-01   2.3884E-01   8.1960E-04  0.0104
   2.3884E-01   2.4465E-01   8.3046E-04  0.0102
   2.4465E-01   2.5061E-01   8.0608E-04  0.0102
   2.5061E-01   2.5670E-01   8.0091E-04  0.0101
   2.5670E-01   2.6295E-01   8.0686E-04  0.0100
   2.6295E-01   2.6935E-01   8.0317E-04  0.0099
   2.6935E-01   2.7590E-01   8.0172E-04  0.0098
   2.7590E-01   2.8261E-01   7.9772E-04  0.0097
   2.8261E-01   2.8949E-01   7.9277E-04  0.0096
   2.8949E-01   2.9653E-01   7.9314E-04  0.0095
   2.9653E-01   3.0375E-01   7.9731E-04  0.0093
   3.0375E-01   3.1114E-01   7.8903E-04  0.0093
   3.1114E-01   3.1871E-01   7.9172E-04  0.0091
   3.1871E-01   3.2646E-01   7.8820E-04  0.0090
   3.2646E-01   3.3441E-01   7.9088E-04  0.0089
   3.3441E-01   3.4254E-01   7.8536E-04  0.0088
   3.4254E-01   3.5088E-01   7.8210E-04  0.0088
   3.5088E-01   3.5941E-01   7.8750E-04  0.0086
   3.5941E-01   3.6816E-01   7.6940E-04  0.0086
   3.6816E-01   3.7712E-01   7.8018E-04  0.0085
   3.7712E-01   3.8629E-01   7.6478E-04  0.0084
   3.8629E-01   3.9569E-01   7.5305E-04  0.0084
   3.9569E-01   4.0532E-01   7.5485E-04  0.0083
   4.0532E-01   4.1518E-01   7.6650E-04  0.0081
   4.1518E-01   4.2528E-01   7.5144E-04  0.0081
   4.2528E-01   4.3563E-01   7.3782E-04  0.0081
   4.3563E-01   4.4623E-01   7.3178E-04  0.0080
   4.4623E-01   4.5708E-01   7.2761E-04  0.0080
   4.5708E-01   4.6821E-01   7.2431E-04  0.0079
   4.6821E-01   4.7960E-01   7.2866E-04  0.0078
   4.7960E-01   4.9127E-01   7.0872E-04  0.0078
   4.9127E-01   5.0322E-01   7.0063E-04  0.0077
   5.0322E-01   5.1546E-01   6.9638E-04  0.0077
   5.1546E-01   5.2800E-01   6.9273E-04  0.0076
   5.2800E-01   5.4085E-01   6.7647E-04  0.0076
   5.4085E-01   5.5401E-01   6.7391E-04  0.0075
   5.5401E-01   5.6749E-01   6.6028E-04  0.0075
   5.6749E-01   5.8130E-01   6.5799E-04  0.0074
   5.8130E-01   5.9544E-01   6.5373E-04  0.0074
   5.9544E-01   6.0993E-01   6.3118E-04  0.0074
   6.0993E-01   6.2477E-01   6.3014E-04  0.0073
   6.2477E-01   6.3997E-01   6.1563E-04  0.0073
   6.3997E-01   6.5554E-01   6.0709E-04  0.0073
   6.5554E-01   6.7149E-01   5.9192E-04  0.0073
   6.7149E-01   6.8783E-01   5.8712E-04  0.0072
   6.8783E-01   7.0456E-01   5.7307E-04  0.0072
   7.0456E-01   7.2171E-01   5.6042E-04  0.0072
   7.2171E-01   7.3927E-01   5.4711E-04  0.0072
   7.3927E-01   7.5725E-01   5.3749E-04  0.0072
   7.5725E-01   7.7568E-01   5.2408E-04  0.0072
   7.7568E-01   7.9455E-01   5.1141E-04  0.0072
   7.9455E-01   8.1388E-01   5.0609E-04  0.0071
   8.1388E-01   8.3368E-01   4.8219E-04  0.0072
   8.3368E-01   8.5397E-01   4.7304E-04  0.0072
   8.5397E-01   8.7475E-01   4.5313E-04  0.0073
   8.7475E-01   8.9603E-01   4.3756E-04  0.0073
   8.9603E-01   9.1783E-01   4.2559E-04  0.0073
   9.1783E-01   9.4016E-01   4.0951E-04  0.0074
   9.4016E-01   9.6304E-01   4.0086E-04  0.0074
   9.6304E-01   9.8647E-01   3.8257E-04  0.0075
   9.8647E-01   1.0105E+00   3.6845E-04  0.0075
   1.0105E+00   1.0351E+00   3.6848E-04  0.0074
   1.0351E+00   1.0602E+00   3.6666E-04  0.0074
   1.0602E+00   1.0860E+00   3.7151E-04  0.0072
   1.0860E+00   1.1125E+00   3.7016E-04  0.0072
   1.1125E+00   1.1395E+00   3.7132E-04  0.0071
   1.1395E+00   1.1673E+00   3.8322E-04  0.0069
   1.1673E+00   1.1957E+00   3.9096E-04  0.0067
   1.1957E+00   1.2247E+00   3.9704E-04  0.0066
   1.2247E+00   1.2545E+00   4.0047E-04  0.0065
   1.2545E+00   1.2851E+00   3.9748E-04  0.0064
   1.2851E+00   1.3163E+00   3.9945E-04  0.0063
   1.3163E+00   1.3484E+00   4.0428E-04  0.0062
   1.3484E+00   1.3812E+00   4.0438E-04  0.0061
   1.3812E+00   1.4148E+00   4.0696E-04  0.0060
   1.4148E+00   1.4492E+00   4.0860E-04  0.0060
   1.4492E+00   1.4845E+00   4.0144E-04  0.0059
   1.4845E+00   1.5206E+00   4.0094E-04  0.0059
   1.5206E+00   1.5576E+00   3.9850E-04  0.0058
   1.5576E+00   1.5955E+00   3.9393E-04  0.0058
   1.5955E+00   1.6343E+00   3.9298E-04  0.0057
   1.6343E+00   1.6741E+00   3.9775E-04  0.0056
   1.6741E+00   1.7148E+00   4.0018E-04  0.0055
   1.7148E+00   1.7565E+00   3.9737E-04  0.0055
   1.7565E+00   1.7992E+00   3.9141E-04  0.0055
   1.7992E+00   1.8430E+00   3.8082E-04  0.0055
   1.8430E+00   1.8879E+00   3.7832E-04  0.0054
   1.8879E+00   1.9338E+00   3.7548E-04  0.0054
   1.9338E+00   1.9808E+00   3.6811E-04  0.0054
   1.9808E+00   2.0290E+00   3.6689E-04  0.0053
   2.0290E+00   2.0784E+00   3.5614E-04  0.0053
   2.0784E+00   2.1290E+00   3.5117E-04  0.0053
   2.1290E+00   2.1808E+00   3.4258E-04  0.0053
   2.1808E+00   2.2338E+00   3.4065E-04  0.0053
   2.2338E+00   2.2882E+00   3.2993E-04  0.0053
   2.2882E+00   2.3439E+00   3.2360E-04  0.0053
   2.3439E+00   2.4009E+00   3.1638E-04  0.0053
   2.4009E+00   2.4593E+00   3.1216E-04  0.0052
   2.4593E+00   2.5191E+00   3.0367E-04  0.0052
   2.5191E+00   2.5804E+00   2.9504E-04  0.0053
   2.5804E+00   2.6432E+00   2.8665E-04  0.0053
   2.6432E+00   2.7075E+00   2.7764E-04  0.0053
   2.7075E+00   2.7734E+00   2.6691E-04  0.0053
   2.7734E+00   2.8409E+00   2.5934E-04  0.0053
   2.8409E+00   2.9100E+00   2.5482E-04  0.0053
   2.9100E+00   2.9808E+00   2.4562E-04  0.0054
   2.9808E+00   3.0533E+00   2.3934E-04  0.0054
   3.0533E+00   3.1276E+00   2.2905E-04  0.0054
   3.1276E+00   3.2037E+00   2.2278E-04  0.0054
   3.2037E+00   3.2817E+00   2.1576E-04  0.0055
   3.2817E+00   3.3615E+00   2.0803E-04  0.0055
   3.3615E+00   3.4433E+00   1.9956E-04  0.0055
   3.4433E+00   3.5271E+00   1.9359E-04  0.0056
   3.5271E+00   3.6129E+00   1.8587E-04  0.0056
   3.6129E+00   3.7008E+00   1.7964E-04  0.0056
   3.7008E+00   3.7908E+00   1.7231E-04  0.0057
   3.7908E+00   3.8831E+00   1.6452E-04  0.0057
   3.8831E+00   3.9776E+00   1.5916E-04  0.0058
   3.9776E+00   4.0743E+00   1.5571E-04  0.0058
   4.0743E+00   4.1735E+00   1.4850E-04  0.0058
   4.1735E+00   4.2750E+00   1.4407E-04  0.0058
   4.2750E+00   4.3790E+00   1.3969E-04  0.0059
   4.3790E+00   4.4856E+00   1.3301E-04  0.0059
   4.4856E+00   4.5947E+00   1.2680E-04  0.0060
   4.5947E+00   4.7065E+00   1.2317E-04  0.0060
   4.7065E+00   4.8210E+00   1.1881E-04  0.0061
   4.8210E+00   4.9383E+00   1.1397E-04  0.0061
   4.9383E+00   5.0585E+00   1.1018E-04  0.0061
   5.0585E+00   5.1815E+00   1.0700E-04  0.0062
   5.1815E+00   5.3076E+00   1.0132E-04  0.0063
   5.3076E+00   5.4368E+00   9.9953E-05  0.0062
   5.4368E+00   5.5690E+00   9.6511E-05  0.0063
   5.5690E+00   5.7045E+00   9.2056E-05  0.0063
   5.7045E+00   5.8433E+00   8.9210E-05  0.0064
   5.8433E+00   5.9855E+00   8.6481E-05  0.0064
   5.9855E+00   6.1311E+00   8.4188E-05  0.0064
   6.1311E+00   6.2803E+00   7.9685E-05  0.0065
   6.2803E+00   6.4331E+00   7.7468E-05  0.0065
   6.4331E+00   6.5896E+00   7.5578E-05  0.0065
   6.5896E+00   6.7500E+00   7.3581E-05  0.0065
   6.7500E+00   6.9142E+00   7.0991E-05  0.0065
   6.9142E+00   7.0824E+00   6.9458E-05  0.0065
   7.0824E+00   7.2548E+00   6.7229E-05  0.0066
   7.2548E+00   7.4313E+00   6.6631E-05  0.0065
   7.4313E+00   7.6121E+00   6.3374E-05  0.0066
   7.6121E+00   7.7973E+00   6.1750E-05  0.0066
   7.7973E+00   7.9870E+00   6.0239E-05  0.0066
   7.9870E+00   8.1813E+00   5.8628E-05  0.0066
   8.1813E+00   8.3804E+00   5.8346E-05  0.0066
   8.3804E+00   8.5843E+00   5.7078E-05  0.0066
   8.5843E+00   8.7931E+00   5.5456E-05  0.0066
   8.7931E+00   9.0071E+00   5.4230E-05  0.0066
   9.0071E+00   9.2262E+00   5.3805E-05  0.0065
   9.2262E+00   9.4507E+00   5.2403E-05  0.0065
   9.4507E+00   9.6807E+00   5.1898E-05  0.0065
   9.6807E+00   9.9162E+00   5.1287E-05  0.0064
   9.9162E+00   1.0157E+01   5.0484E-05  0.0064
   1.0157E+01   1.0405E+01   5.0501E-05  0.0063
   1.0405E+01   1.0658E+01   4.9712E-05  0.0063
   1.0658E+01   1.0917E+01   4.9092E-05  0.0063
   1.0917E+01   1.1183E+01   4.8828E-05  0.0062
   1.1183E+01   1.1455E+01   4.7741E-05  0.0062
   1.1455E+01   1.1733E+01   4.8100E-05  0.0061
   1.1733E+01   1.2019E+01   4.7512E-05  0.0061
   1.2019E+01   1.2311E+01   4.7519E-05  0.0060
   1.2311E+01   1.2611E+01   4.7391E-05  0.0059
   1.2611E+01   1.2918E+01   4.7588E-05  0.0059
   1.2918E+01   1.3232E+01   4.7630E-05  0.0058
   1.3232E+01   1.3554E+01   4.7270E-05  0.0057
   1.3554E+01   1.3884E+01   4.7971E-05  0.0056
   1.3884E+01   1.4222E+01   4.7948E-05  0.0056
   1.4222E+01   1.4568E+01   4.7804E-05  0.0055
   1.4568E+01   1.4922E+01   4.8143E-05  0.0054
   1.4922E+01   1.5285E+01   4.8314E-05  0.0053
   1.5285E+01   1.5657E+01   4.8229E-05  0.0053
   1.5657E+01   1.6038E+01   4.8287E-05  0.0052
   1.6038E+01   1.6428E+01   4.8757E-05  0.0051
   1.6428E+01   1.6828E+01   4.9369E-05  0.0050
   1.6828E+01   1.7237E+01   4.9883E-05  0.0049
   1.7237E+01   1.7657E+01   4.9960E-05  0.0049
   1.7657E+01   1.8086E+01   5.0795E-05  0.0048
   1.8086E+01   1.8526E+01   5.1419E-05  0.0047
   1.8526E+01   1.8977E+01   5.1784E-05  0.0046
   1.8977E+01   1.9439E+01   5.2677E-05  0.0045
   1.9439E+01   1.9912E+01   5.2874E-05  0.0045
   1.9912E+01   2.0396E+01   5.4127E-05  0.0044
   2.0396E+01   2.0893E+01   5.4991E-05  0.0043
   2.0893E+01   2.1401E+01   5.5768E-05  0.0042
   2.1401E+01   2.1922E+01   5.7217E-05  0.0041
   2.1922E+01   2.2455E+01   5.7916E-05  0.0040
   2.2455E+01   2.3001E+01   5.9825E-05  0.0039
   2.3001E+01   2.3561E+01   6.0921E-05  0.0038
   2.3561E+01   2.4134E+01   6.3075E-05  0.0037
   2.4134E+01   2.4721E+01   6.3925E-05  0.0037
   2.4721E+01   2.5323E+01   6.5584E-05  0.0036
   2.5323E+01   2.5939E+01   6.7446E-05  0.0035
   2.5939E+01   2.6570E+01   6.9511E-05  0.0034
   2.6570E+01   2.7217E+01   7.2112E-05  0.0033
   2.7217E+01   2.7879E+01   7.4162E-05  0.0032
   2.7879E+01   2.8557E+01   7.7014E-05  0.0031
   2.8557E+01   2.9252E+01   7.9522E-05  0.0030
   2.9252E+01   2.9964E+01   8.1539E-05  0.0029
   2.9964E+01   3.0693E+01   8.4704E-05  0.0028
   3.0693E+01   3.1440E+01   8.8315E-05  0.0028
   3.1440E+01   3.2205E+01   9.1259E-05  0.0027
   3.2205E+01   3.2988E+01   9.5079E-05  0.0026
   3.2988E+01   3.3791E+01   9.8175E-05  0.0025
   3.3791E+01   3.4613E+01   1.0167E-04  0.0024
   3.4613E+01   3.5455E+01   1.0583E-04  0.0024
   3.5455E+01   3.6318E+01   1.0846E-04  0.0023
   3.6318E+01   3.7201E+01   1.1227E-04  0.0022
   3.7201E+01   3.8106E+01   1.1569E-04  0.0022
   3.8106E+01   3.9034E+01   1.1819E-04  0.0021
   3.9034E+01   3.9983E+01   1.2118E-04  0.0021
   3.9983E+01   4.0956E+01   1.2365E-04  0.0020
   4.0956E+01   4.1953E+01   1.2569E-04  0.0020
   4.1953E+01   4.2973E+01   1.2688E-04  0.0020
   4.2973E+01   4.4019E+01   1.2783E-04  0.0019
   4.4019E+01   4.5090E+01   1.2817E-04  0.0019
   4.5090E+01   4.6187E+01   1.2759E-04  0.0019
   4.6187E+01   4.7311E+01   1.2629E-04  0.0019
   4.7311E+01   4.8462E+01   1.2476E-04  0.0019
   4.8462E+01   4.9641E+01   1.2180E-04  0.0019
   4.9641E+01   5.0849E+01   1.1933E-04  0.0019
   5.0849E+01   5.2086E+01   1.1592E-04  0.0019
   5.2086E+01   5.3353E+01   1.1139E-04  0.0019
   5.3353E+01   5.4651E+01   1.0650E-04  0.0019
   5.4651E+01   5.5981E+01   1.0153E-04  0.0019
   5.5981E+01   5.7343E+01   9.5936E-05  0.0020
   5.7343E+01   5.8738E+01   9.0633E-05  0.0020
   5.8738E+01   6.0168E+01   8.4710E-05  0.0020
   6.0168E+01   6.1632E+01   7.8831E-05  0.0021
   6.1632E+01   6.3131E+01   7.3036E-05  0.0021
   6.3131E+01   6.4667E+01   6.7476E-05  0.0022
   6.4667E+01   6.6240E+01   6.1782E-05  0.0023
   6.6240E+01   6.7852E+01   5.6463E-05  0.0023
   6.7852E+01   6.9503E+01   5.1343E-05  0.0024
   6.9503E+01   7.1194E+01   4.6457E-05  0.0025
   7.1194E+01   7.2926E+01   4.2170E-05  0.0026
   7.2926E+01   7.4701E+01   3.7985E-05  0.0027
   7.4701E+01   7.6518E+01   3.4578E-05  0.0028
   7.6518E+01   7.8380E+01   3.1039E-05  0.0029
   7.8380E+01   8.0287E+01   2.7884E-05  0.0031
   8.0287E+01   8.2240E+01   2.5362E-05  0.0032
   8.2240E+01   8.4241E+01   2.2736E-05  0.0033
   8.4241E+01   8.6291E+01   2.0698E-05  0.0034
   8.6291E+01   8.8391E+01   1.8582E-05  0.0036
   8.8391E+01   9.0541E+01   1.6299E-05  0.0038
   9.0541E+01   9.2744E+01   1.4126E-05  0.0040
   9.2744E+01   9.5001E+01   1.2237E-05  0.0043
   9.5001E+01   9.7312E+01   1.0528E-05  0.0045
   9.7312E+01   9.9680E+01   8.9930E-06  0.0048
   9.9680E+01   1.0211E+02   7.6931E-06  0.0052
   1.0211E+02   1.0459E+02   6.4616E-06  0.0056
   1.0459E+02   1.0713E+02   5.4819E-06  0.0060
   1.0713E+02   1.0974E+02   4.3594E-06  0.0066
   1.0974E+02   1.1241E+02   3.4141E-06  0.0074
   1.1241E+02   1.1515E+02   2.5160E-06  0.0085
   1.1515E+02   1.1795E+02   1.6023E-06  0.0106
   1.1795E+02   1.2082E+02   6.4796E-07  0.0164
   1.2082E+02   1.2376E+02   3.2828E-08  0.0720
   1.2376E+02   1.2677E+02   0.0000E+00  0.0000
   1.2677E+02   1.2985E+02   0.0000E+00  0.0000
   1.2985E+02   1.3301E+02   0.0000E+00  0.0000
   1.3301E+02   1.3625E+02   0.0000E+00  0.0000
   1.3625E+02   1.3956E+02   0.0000E+00  0.0000
   1.3956E+02   1.4296E+02   0.0000E+00  0.0000
   1.4296E+02   1.4644E+02   0.0000E+00  0.0000
   1.4644E+02   1.5000E+02   0.0000E+00  0.0000

#   sum over                 5.2659E-05
'no. =    1   reg = 105 - 205'
msuc: {\huge [t-cross] in region mesh}
msdr: {\it plotted by \ANGEL \version}
msdl: {\it calculated by \PHITS  3.26}
wt: s(0.7)
\vspace{-3}
  region surface crossing
  area  &=&   1.0000E+00 [cm^2]
e:
 
# Information for Restart Calculation
# This calculation was newly started
# istdev =  2 # 1:Batch variance, 2:History variance
# resc2  = 2.00000000000000000E+09 # Total source weight or Total source weight / maxcas
# resc3  = 2.00000000000000000E+09 # Total history number or Total batch number
# maxcas =   500000000 # History / Batch, only used for istdev=1
# bitrseed = 0011011010010000100111110110001101100001010011100000011100000110 # bit data of rseed
