[ T-Cross ]
    title = [t-cross] in region mesh
     mesh =  reg            # mesh type is region-wise
      reg =    1            # number of crossing regions
      non     r-from    r-to       area
      1       110       210        1.000000    
   e-type =    3            # e-mesh is log given by emin, emax and ne
     emin =  1.0000000E-02  # minimum value of e-mesh points
     emax =   150.0000      # maximum value of e-mesh points
#    edel =  2.4039514E-02  # mesh width of e-mesh points
       ne =    400          # number of e-mesh points
#    data = ( e(i), i = 1, ne + 1 )
#           1.00000E-02  1.02433E-02  1.04925E-02  1.07478E-02  1.10093E-02
#           1.12772E-02  1.15516E-02  1.18326E-02  1.21205E-02  1.24154E-02
#           1.27175E-02  1.30269E-02  1.33439E-02  1.36686E-02  1.40011E-02
#           1.43418E-02  1.46907E-02  1.50482E-02  1.54143E-02  1.57894E-02
#           1.61735E-02  1.65670E-02  1.69701E-02  1.73830E-02  1.78060E-02
#           1.82392E-02  1.86830E-02  1.91375E-02  1.96032E-02  2.00801E-02
#           2.05687E-02  2.10692E-02  2.15818E-02  2.21069E-02  2.26448E-02
#           2.31957E-02  2.37601E-02  2.43382E-02  2.49304E-02  2.55369E-02
#           2.61583E-02  2.67947E-02  2.74467E-02  2.81145E-02  2.87985E-02
#           2.94992E-02  3.02169E-02  3.09521E-02  3.17052E-02  3.24766E-02
#           3.32668E-02  3.40762E-02  3.49053E-02  3.57546E-02  3.66246E-02
#           3.75157E-02  3.84284E-02  3.93634E-02  4.03212E-02  4.13022E-02
#           4.23071E-02  4.33365E-02  4.43909E-02  4.54710E-02  4.65773E-02
#           4.77106E-02  4.88714E-02  5.00605E-02  5.12785E-02  5.25262E-02
#           5.38042E-02  5.51133E-02  5.64542E-02  5.78278E-02  5.92348E-02
#           6.06760E-02  6.21523E-02  6.36645E-02  6.52135E-02  6.68002E-02
#           6.84255E-02  7.00904E-02  7.17957E-02  7.35426E-02  7.53319E-02
#           7.71648E-02  7.90423E-02  8.09655E-02  8.29354E-02  8.49533E-02
#           8.70203E-02  8.91376E-02  9.13064E-02  9.35279E-02  9.58035E-02
#           9.81345E-02  1.00522E-01  1.02968E-01  1.05473E-01  1.08040E-01
#           1.10668E-01  1.13361E-01  1.16119E-01  1.18944E-01  1.21838E-01
#           1.24803E-01  1.27839E-01  1.30950E-01  1.34136E-01  1.37399E-01
#           1.40742E-01  1.44167E-01  1.47675E-01  1.51268E-01  1.54948E-01
#           1.58718E-01  1.62580E-01  1.66535E-01  1.70587E-01  1.74738E-01
#           1.78989E-01  1.83344E-01  1.87805E-01  1.92375E-01  1.97055E-01
#           2.01850E-01  2.06761E-01  2.11792E-01  2.16945E-01  2.22223E-01
#           2.27630E-01  2.33169E-01  2.38842E-01  2.44653E-01  2.50605E-01
#           2.56703E-01  2.62949E-01  2.69346E-01  2.75900E-01  2.82613E-01
#           2.89489E-01  2.96532E-01  3.03747E-01  3.11138E-01  3.18708E-01
#           3.26462E-01  3.34405E-01  3.42542E-01  3.50876E-01  3.59413E-01
#           3.68158E-01  3.77116E-01  3.86291E-01  3.95690E-01  4.05317E-01
#           4.15179E-01  4.25281E-01  4.35628E-01  4.46227E-01  4.57084E-01
#           4.68205E-01  4.79597E-01  4.91266E-01  5.03219E-01  5.15463E-01
#           5.28005E-01  5.40851E-01  5.54011E-01  5.67490E-01  5.81298E-01
#           5.95441E-01  6.09929E-01  6.24769E-01  6.39970E-01  6.55541E-01
#           6.71491E-01  6.87828E-01  7.04564E-01  7.21706E-01  7.39266E-01
#           7.57253E-01  7.75678E-01  7.94551E-01  8.13883E-01  8.33685E-01
#           8.53969E-01  8.74747E-01  8.96030E-01  9.17831E-01  9.40163E-01
#           9.63038E-01  9.86469E-01  1.01047E+00  1.03506E+00  1.06024E+00
#           1.08604E+00  1.11246E+00  1.13953E+00  1.16725E+00  1.19565E+00
#           1.22474E+00  1.25454E+00  1.28507E+00  1.31633E+00  1.34836E+00
#           1.38117E+00  1.41477E+00  1.44920E+00  1.48446E+00  1.52057E+00
#           1.55757E+00  1.59547E+00  1.63429E+00  1.67405E+00  1.71478E+00
#           1.75650E+00  1.79924E+00  1.84302E+00  1.88786E+00  1.93379E+00
#           1.98084E+00  2.02904E+00  2.07841E+00  2.12898E+00  2.18078E+00
#           2.23384E+00  2.28819E+00  2.34386E+00  2.40089E+00  2.45930E+00
#           2.51914E+00  2.58043E+00  2.64322E+00  2.70753E+00  2.77341E+00
#           2.84088E+00  2.91001E+00  2.98081E+00  3.05333E+00  3.12762E+00
#           3.20372E+00  3.28167E+00  3.36152E+00  3.44330E+00  3.52708E+00
#           3.61290E+00  3.70080E+00  3.79085E+00  3.88308E+00  3.97756E+00
#           4.07434E+00  4.17347E+00  4.27501E+00  4.37903E+00  4.48557E+00
#           4.59471E+00  4.70650E+00  4.82102E+00  4.93832E+00  5.05847E+00
#           5.18155E+00  5.30762E+00  5.43676E+00  5.56904E+00  5.70453E+00
#           5.84333E+00  5.98550E+00  6.13114E+00  6.28031E+00  6.43312E+00
#           6.58964E+00  6.74997E+00  6.91420E+00  7.08243E+00  7.25475E+00
#           7.43126E+00  7.61207E+00  7.79728E+00  7.98700E+00  8.18133E+00
#           8.38038E+00  8.58428E+00  8.79315E+00  9.00709E+00  9.22624E+00
#           9.45072E+00  9.68067E+00  9.91620E+00  1.01575E+01  1.04046E+01
#           1.06578E+01  1.09171E+01  1.11827E+01  1.14548E+01  1.17335E+01
#           1.20190E+01  1.23114E+01  1.26109E+01  1.29178E+01  1.32321E+01
#           1.35540E+01  1.38838E+01  1.42216E+01  1.45676E+01  1.49221E+01
#           1.52851E+01  1.56570E+01  1.60380E+01  1.64282E+01  1.68279E+01
#           1.72374E+01  1.76568E+01  1.80864E+01  1.85264E+01  1.89772E+01
#           1.94389E+01  1.99119E+01  2.03963E+01  2.08926E+01  2.14009E+01
#           2.19216E+01  2.24550E+01  2.30014E+01  2.35610E+01  2.41343E+01
#           2.47215E+01  2.53230E+01  2.59391E+01  2.65702E+01  2.72167E+01
#           2.78789E+01  2.85572E+01  2.92520E+01  2.99637E+01  3.06928E+01
#           3.14396E+01  3.22045E+01  3.29881E+01  3.37907E+01  3.46128E+01
#           3.54550E+01  3.63177E+01  3.72013E+01  3.81064E+01  3.90336E+01
#           3.99833E+01  4.09561E+01  4.19526E+01  4.29734E+01  4.40189E+01
#           4.50900E+01  4.61870E+01  4.73108E+01  4.84619E+01  4.96410E+01
#           5.08488E+01  5.20860E+01  5.33533E+01  5.46514E+01  5.59812E+01
#           5.73432E+01  5.87384E+01  6.01676E+01  6.16315E+01  6.31311E+01
#           6.46671E+01  6.62405E+01  6.78522E+01  6.95031E+01  7.11941E+01
#           7.29263E+01  7.47007E+01  7.65182E+01  7.83800E+01  8.02870E+01
#           8.22405E+01  8.42414E+01  8.62911E+01  8.83906E+01  9.05412E+01
#           9.27442E+01  9.50007E+01  9.73122E+01  9.96799E+01  1.02105E+02
#           1.04589E+02  1.07134E+02  1.09741E+02  1.12411E+02  1.15146E+02
#           1.17948E+02  1.20817E+02  1.23757E+02  1.26768E+02  1.29852E+02
#           1.33012E+02  1.36248E+02  1.39563E+02  1.42959E+02  1.46437E+02
#           1.50000E+02
     unit =    2            # unit is [1/cm^2/(MeV/n)/source]
     axis =  eng            # axis of output
     file = detector-11.out  # file name of output for the above axis
   output = f-curr          # surface crossing forward current spectrum
     part =  neutron  
# kf/name :  2112     
#    used :        main (  %)        temp (  %)       total (  %)
#  memory :         414 (  0)           0 (  0)         414 (  0)

#------------------------------------------------------------------------------
#newpage:
#   no. =    1   reg = 110 - 210

x: Energy [MeV/n]
y:  F-Curr [1/cm^2/(MeV/n)/source]         
p: xlog ylog afac(0.8) form(0.9)
h: n            x            y(neutron ),hh0l   n 
#  e-lower      e-upper      neutron     r.err 
   1.0000E-02   1.0243E-02   3.6712E-04  0.0668
   1.0243E-02   1.0493E-02   4.0878E-04  0.0626
   1.0493E-02   1.0748E-02   3.5682E-04  0.0662
   1.0748E-02   1.1009E-02   3.6630E-04  0.0645
   1.1009E-02   1.1277E-02   3.7100E-04  0.0634
   1.1277E-02   1.1552E-02   3.2846E-04  0.0665
   1.1552E-02   1.1833E-02   3.1096E-04  0.0676
   1.1833E-02   1.2121E-02   3.2128E-04  0.0656
   1.2121E-02   1.2415E-02   3.0544E-04  0.0665
   1.2415E-02   1.2718E-02   2.7143E-04  0.0697
   1.2718E-02   1.3027E-02   3.0203E-04  0.0653
   1.3027E-02   1.3344E-02   2.7852E-04  0.0672
   1.3344E-02   1.3669E-02   2.7231E-04  0.0671
   1.3669E-02   1.4001E-02   2.7323E-04  0.0662
   1.4001E-02   1.4342E-02   2.7189E-04  0.0657
   1.4342E-02   1.4691E-02   2.8296E-04  0.0635
   1.4691E-02   1.5048E-02   2.8154E-04  0.0629
   1.5048E-02   1.5414E-02   2.5430E-04  0.0654
   1.5414E-02   1.5789E-02   2.4331E-04  0.0661
   1.5789E-02   1.6174E-02   2.6593E-04  0.0625
   1.6174E-02   1.6567E-02   2.3458E-04  0.0658
   1.6567E-02   1.6970E-02   2.4787E-04  0.0631
   1.6970E-02   1.7383E-02   2.1663E-04  0.0668
   1.7383E-02   1.7806E-02   2.1759E-04  0.0658
   1.7806E-02   1.8239E-02   2.2502E-04  0.0639
   1.8239E-02   1.8683E-02   2.0067E-04  0.0670
   1.8683E-02   1.9138E-02   1.9753E-04  0.0667
   1.9138E-02   1.9603E-02   1.9384E-04  0.0664
   1.9603E-02   2.0080E-02   1.9652E-04  0.0652
   2.0080E-02   2.0569E-02   1.8697E-04  0.0660
   2.0569E-02   2.1069E-02   1.8243E-04  0.0661
   2.1069E-02   2.1582E-02   1.9330E-04  0.0634
   2.1582E-02   2.2107E-02   1.8137E-04  0.0647
   2.2107E-02   2.2645E-02   1.7394E-04  0.0653
   2.2645E-02   2.3196E-02   1.7697E-04  0.0640
   2.3196E-02   2.3760E-02   1.7002E-04  0.0644
   2.3760E-02   2.4338E-02   1.6384E-04  0.0650
   2.4338E-02   2.4930E-02   1.4950E-04  0.0671
   2.4930E-02   2.5537E-02   1.5062E-04  0.0660
   2.5537E-02   2.6158E-02   1.5050E-04  0.0653
   2.6158E-02   2.6795E-02   1.6258E-04  0.0621
   2.6795E-02   2.7447E-02   1.3895E-04  0.0664
   2.7447E-02   2.8114E-02   1.5229E-04  0.0626
   2.8114E-02   2.8799E-02   1.3256E-04  0.0664
   2.8799E-02   2.9499E-02   1.3975E-04  0.0638
   2.9499E-02   3.0217E-02   1.3881E-04  0.0632
   3.0217E-02   3.0952E-02   1.3399E-04  0.0636
   3.0952E-02   3.1705E-02   1.2262E-04  0.0657
   3.1705E-02   3.2477E-02   1.2029E-04  0.0656
   3.2477E-02   3.3267E-02   1.2678E-04  0.0631
   3.3267E-02   3.4076E-02   1.1202E-04  0.0663
   3.4076E-02   3.4905E-02   1.1785E-04  0.0639
   3.4905E-02   3.5755E-02   1.1530E-04  0.0638
   3.5755E-02   3.6625E-02   1.1708E-04  0.0626
   3.6625E-02   3.7516E-02   1.1448E-04  0.0625
   3.7516E-02   3.8428E-02   1.0840E-04  0.0635
   3.8428E-02   3.9363E-02   1.0442E-04  0.0639
   3.9363E-02   4.0321E-02   9.2626E-05  0.0670
   4.0321E-02   4.1302E-02   9.5600E-05  0.0651
   4.1302E-02   4.2307E-02   9.8009E-05  0.0636
   4.2307E-02   4.3337E-02   9.5084E-05  0.0639
   4.3337E-02   4.4391E-02   9.8244E-05  0.0621
   4.4391E-02   4.5471E-02   9.4345E-05  0.0626
   4.5471E-02   4.6577E-02   8.2447E-05  0.0661
   4.6577E-02   4.7711E-02   8.4931E-05  0.0644
   4.7711E-02   4.8871E-02   8.5565E-05  0.0634
   4.8871E-02   5.0061E-02   7.8767E-05  0.0652
   5.0061E-02   5.1279E-02   7.6085E-05  0.0655
   5.1279E-02   5.2526E-02   7.9524E-05  0.0633
   5.2526E-02   5.3804E-02   8.0454E-05  0.0623
   5.3804E-02   5.5113E-02   7.0508E-05  0.0658
   5.5113E-02   5.6454E-02   7.2343E-05  0.0641
   5.6454E-02   5.7828E-02   7.7892E-05  0.0611
   5.7828E-02   5.9235E-02   7.3252E-05  0.0623
   5.9235E-02   6.0676E-02   6.2060E-05  0.0668
   6.0676E-02   6.2152E-02   7.2498E-05  0.0610
   6.2152E-02   6.3665E-02   5.4731E-05  0.0694
   6.3665E-02   6.5214E-02   6.0227E-05  0.0654
   6.5214E-02   6.6800E-02   6.2931E-05  0.0632
   6.6800E-02   6.8426E-02   6.7910E-05  0.0601
   6.8426E-02   7.0090E-02   6.6256E-05  0.0601
   7.0090E-02   7.1796E-02   5.7814E-05  0.0635
   7.1796E-02   7.3543E-02   5.7879E-05  0.0628
   7.3543E-02   7.5332E-02   5.3645E-05  0.0645
   7.5332E-02   7.7165E-02   5.9235E-05  0.0606
   7.7165E-02   7.9042E-02   5.1325E-05  0.0643
   7.9042E-02   8.0965E-02   5.4784E-05  0.0615
   8.0965E-02   8.2935E-02   4.7565E-05  0.0652
   8.2935E-02   8.4953E-02   5.0001E-05  0.0628
   8.4953E-02   8.7020E-02   4.9852E-05  0.0622
   8.7020E-02   8.9138E-02   5.3064E-05  0.0596
   8.9138E-02   9.1306E-02   4.6854E-05  0.0626
   9.1306E-02   9.3528E-02   4.8840E-05  0.0606
   9.3528E-02   9.5804E-02   5.0500E-05  0.0588
   9.5804E-02   9.8134E-02   4.9915E-05  0.0585
   9.8134E-02   1.0052E-01   4.1988E-05  0.0630
   1.0052E-01   1.0297E-01   4.9128E-05  0.0576
   1.0297E-01   1.0547E-01   5.1200E-05  0.0557
   1.0547E-01   1.0804E-01   5.0394E-05  0.0556
   1.0804E-01   1.1067E-01   5.2732E-05  0.0536
   1.1067E-01   1.1336E-01   6.1875E-05  0.0489
   1.1336E-01   1.1612E-01   5.7741E-05  0.0500
   1.1612E-01   1.1894E-01   5.7921E-05  0.0493
   1.1894E-01   1.2184E-01   6.4878E-05  0.0461
   1.2184E-01   1.2480E-01   6.3705E-05  0.0459
   1.2480E-01   1.2784E-01   6.3363E-05  0.0455
   1.2784E-01   1.3095E-01   6.9597E-05  0.0429
   1.3095E-01   1.3414E-01   7.1451E-05  0.0418
   1.3414E-01   1.3740E-01   7.3700E-05  0.0407
   1.3740E-01   1.4074E-01   7.3109E-05  0.0404
   1.4074E-01   1.4417E-01   7.2529E-05  0.0401
   1.4417E-01   1.4767E-01   8.7467E-05  0.0360
   1.4767E-01   1.5127E-01   9.2092E-05  0.0347
   1.5127E-01   1.5495E-01   8.7667E-05  0.0352
   1.5495E-01   1.5872E-01   8.7954E-05  0.0347
   1.5872E-01   1.6258E-01   9.4659E-05  0.0330
   1.6258E-01   1.6654E-01   9.4581E-05  0.0327
   1.6654E-01   1.7059E-01   1.0248E-04  0.0310
   1.7059E-01   1.7474E-01   1.0009E-04  0.0310
   1.7474E-01   1.7899E-01   1.1306E-04  0.0288
   1.7899E-01   1.8334E-01   1.0802E-04  0.0291
   1.8334E-01   1.8781E-01   1.1519E-04  0.0278
   1.8781E-01   1.9237E-01   1.1535E-04  0.0275
   1.9237E-01   1.9706E-01   1.2124E-04  0.0265
   1.9706E-01   2.0185E-01   1.2483E-04  0.0258
   2.0185E-01   2.0676E-01   1.2837E-04  0.0251
   2.0676E-01   2.1179E-01   1.3011E-04  0.0247
   2.1179E-01   2.1694E-01   1.3957E-04  0.0235
   2.1694E-01   2.2222E-01   1.4175E-04  0.0231
   2.2222E-01   2.2763E-01   1.3111E-04  0.0237
   2.2763E-01   2.3317E-01   1.4683E-04  0.0221
   2.3317E-01   2.3884E-01   1.4772E-04  0.0218
   2.3884E-01   2.4465E-01   1.5576E-04  0.0210
   2.4465E-01   2.5061E-01   1.5303E-04  0.0209
   2.5061E-01   2.5670E-01   1.5975E-04  0.0202
   2.5670E-01   2.6295E-01   1.5767E-04  0.0201
   2.6295E-01   2.6935E-01   1.6997E-04  0.0191
   2.6935E-01   2.7590E-01   1.6257E-04  0.0193
   2.7590E-01   2.8261E-01   1.7239E-04  0.0186
   2.8261E-01   2.8949E-01   1.8300E-04  0.0178
   2.8949E-01   2.9653E-01   1.8035E-04  0.0177
   2.9653E-01   3.0375E-01   1.8781E-04  0.0171
   3.0375E-01   3.1114E-01   1.8421E-04  0.0171
   3.1114E-01   3.1871E-01   1.9352E-04  0.0165
   3.1871E-01   3.2646E-01   1.9783E-04  0.0161
   3.2646E-01   3.3441E-01   1.9979E-04  0.0158
   3.3441E-01   3.4254E-01   1.9976E-04  0.0157
   3.4254E-01   3.5088E-01   2.1534E-04  0.0149
   3.5088E-01   3.5941E-01   2.1057E-04  0.0149
   3.5941E-01   3.6816E-01   2.2143E-04  0.0143
   3.6816E-01   3.7712E-01   2.1771E-04  0.0143
   3.7712E-01   3.8629E-01   2.2561E-04  0.0139
   3.8629E-01   3.9569E-01   2.2564E-04  0.0137
   3.9569E-01   4.0532E-01   2.3138E-04  0.0134
   4.0532E-01   4.1518E-01   2.3769E-04  0.0130
   4.1518E-01   4.2528E-01   2.3648E-04  0.0129
   4.2528E-01   4.3563E-01   2.4821E-04  0.0124
   4.3563E-01   4.4623E-01   2.5064E-04  0.0122
   4.4623E-01   4.5708E-01   2.5365E-04  0.0120
   4.5708E-01   4.6821E-01   2.5864E-04  0.0118
   4.6821E-01   4.7960E-01   2.5778E-04  0.0116
   4.7960E-01   4.9127E-01   2.6096E-04  0.0114
   4.9127E-01   5.0322E-01   2.6218E-04  0.0113
   5.0322E-01   5.1546E-01   2.6659E-04  0.0110
   5.1546E-01   5.2800E-01   2.7277E-04  0.0108
   5.2800E-01   5.4085E-01   2.6942E-04  0.0107
   5.4085E-01   5.5401E-01   2.7786E-04  0.0104
   5.5401E-01   5.6749E-01   2.7640E-04  0.0103
   5.6749E-01   5.8130E-01   2.7487E-04  0.0102
   5.8130E-01   5.9544E-01   2.8033E-04  0.0100
   5.9544E-01   6.0993E-01   2.8479E-04  0.0098
   6.0993E-01   6.2477E-01   2.8734E-04  0.0097
   6.2477E-01   6.3997E-01   2.8514E-04  0.0096
   6.3997E-01   6.5554E-01   2.9065E-04  0.0094
   6.5554E-01   6.7149E-01   2.8672E-04  0.0093
   6.7149E-01   6.8783E-01   2.8998E-04  0.0092
   6.8783E-01   7.0456E-01   2.8448E-04  0.0091
   7.0456E-01   7.2171E-01   2.8699E-04  0.0090
   7.2171E-01   7.3927E-01   2.8800E-04  0.0089
   7.3927E-01   7.5725E-01   2.8795E-04  0.0088
   7.5725E-01   7.7568E-01   2.8988E-04  0.0086
   7.7568E-01   7.9455E-01   2.8679E-04  0.0086
   7.9455E-01   8.1388E-01   2.7892E-04  0.0086
   8.1388E-01   8.3368E-01   2.7925E-04  0.0085
   8.3368E-01   8.5397E-01   2.7838E-04  0.0084
   8.5397E-01   8.7475E-01   2.7650E-04  0.0083
   8.7475E-01   8.9603E-01   2.6971E-04  0.0083
   8.9603E-01   9.1783E-01   2.6435E-04  0.0083
   9.1783E-01   9.4016E-01   2.5824E-04  0.0083
   9.4016E-01   9.6304E-01   2.5099E-04  0.0083
   9.6304E-01   9.8647E-01   2.4118E-04  0.0084
   9.8647E-01   1.0105E+00   2.3624E-04  0.0084
   1.0105E+00   1.0351E+00   2.3758E-04  0.0082
   1.0351E+00   1.0602E+00   2.3537E-04  0.0082
   1.0602E+00   1.0860E+00   2.4071E-04  0.0080
   1.0860E+00   1.1125E+00   2.4852E-04  0.0078
   1.1125E+00   1.1395E+00   2.4967E-04  0.0076
   1.1395E+00   1.1673E+00   2.5487E-04  0.0075
   1.1673E+00   1.1957E+00   2.5780E-04  0.0073
   1.1957E+00   1.2247E+00   2.6469E-04  0.0072
   1.2247E+00   1.2545E+00   2.6811E-04  0.0070
   1.2545E+00   1.2851E+00   2.7341E-04  0.0069
   1.2851E+00   1.3163E+00   2.7274E-04  0.0068
   1.3163E+00   1.3484E+00   2.7821E-04  0.0066
   1.3484E+00   1.3812E+00   2.8478E-04  0.0065
   1.3812E+00   1.4148E+00   2.9021E-04  0.0063
   1.4148E+00   1.4492E+00   2.9095E-04  0.0063
   1.4492E+00   1.4845E+00   2.9225E-04  0.0062
   1.4845E+00   1.5206E+00   2.9231E-04  0.0061
   1.5206E+00   1.5576E+00   2.9351E-04  0.0060
   1.5576E+00   1.5955E+00   2.9305E-04  0.0059
   1.5955E+00   1.6343E+00   2.9492E-04  0.0058
   1.6343E+00   1.6741E+00   2.9286E-04  0.0058
   1.6741E+00   1.7148E+00   2.9678E-04  0.0057
   1.7148E+00   1.7565E+00   2.9063E-04  0.0057
   1.7565E+00   1.7992E+00   2.8578E-04  0.0056
   1.7992E+00   1.8430E+00   2.7567E-04  0.0057
   1.8430E+00   1.8879E+00   2.7079E-04  0.0056
   1.8879E+00   1.9338E+00   2.7194E-04  0.0056
   1.9338E+00   1.9808E+00   2.6588E-04  0.0056
   1.9808E+00   2.0290E+00   2.6569E-04  0.0055
   2.0290E+00   2.0784E+00   2.7066E-04  0.0054
   2.0784E+00   2.1290E+00   2.7212E-04  0.0053
   2.1290E+00   2.1808E+00   2.7636E-04  0.0052
   2.1808E+00   2.2338E+00   2.7568E-04  0.0051
   2.2338E+00   2.2882E+00   2.7470E-04  0.0051
   2.2882E+00   2.3439E+00   2.6717E-04  0.0051
   2.3439E+00   2.4009E+00   2.6679E-04  0.0050
   2.4009E+00   2.4593E+00   2.6571E-04  0.0050
   2.4593E+00   2.5191E+00   2.6768E-04  0.0049
   2.5191E+00   2.5804E+00   2.6577E-04  0.0049
   2.5804E+00   2.6432E+00   2.6195E-04  0.0048
   2.6432E+00   2.7075E+00   2.6023E-04  0.0048
   2.7075E+00   2.7734E+00   2.5536E-04  0.0048
   2.7734E+00   2.8409E+00   2.5469E-04  0.0047
   2.8409E+00   2.9100E+00   2.5416E-04  0.0047
   2.9100E+00   2.9808E+00   2.5375E-04  0.0046
   2.9808E+00   3.0533E+00   2.5223E-04  0.0046
   3.0533E+00   3.1276E+00   2.4397E-04  0.0046
   3.1276E+00   3.2037E+00   2.4226E-04  0.0046
   3.2037E+00   3.2817E+00   2.4083E-04  0.0046
   3.2817E+00   3.3615E+00   2.3785E-04  0.0045
   3.3615E+00   3.4433E+00   2.3563E-04  0.0045
   3.4433E+00   3.5271E+00   2.3426E-04  0.0045
   3.5271E+00   3.6129E+00   2.3189E-04  0.0044
   3.6129E+00   3.7008E+00   2.2834E-04  0.0044
   3.7008E+00   3.7908E+00   2.2333E-04  0.0044
   3.7908E+00   3.8831E+00   2.2156E-04  0.0044
   3.8831E+00   3.9776E+00   2.1785E-04  0.0044
   3.9776E+00   4.0743E+00   2.1326E-04  0.0044
   4.0743E+00   4.1735E+00   2.0925E-04  0.0043
   4.1735E+00   4.2750E+00   2.0682E-04  0.0043
   4.2750E+00   4.3790E+00   2.0185E-04  0.0043
   4.3790E+00   4.4856E+00   1.9892E-04  0.0043
   4.4856E+00   4.5947E+00   1.9054E-04  0.0043
   4.5947E+00   4.7065E+00   1.8790E-04  0.0043
   4.7065E+00   4.8210E+00   1.8435E-04  0.0043
   4.8210E+00   4.9383E+00   1.8154E-04  0.0043
   4.9383E+00   5.0585E+00   1.7723E-04  0.0043
   5.0585E+00   5.1815E+00   1.7434E-04  0.0043
   5.1815E+00   5.3076E+00   1.7251E-04  0.0042
   5.3076E+00   5.4368E+00   1.6777E-04  0.0042
   5.4368E+00   5.5690E+00   1.6298E-04  0.0043
   5.5690E+00   5.7045E+00   1.5934E-04  0.0043
   5.7045E+00   5.8433E+00   1.5658E-04  0.0042
   5.8433E+00   5.9855E+00   1.5274E-04  0.0042
   5.9855E+00   6.1311E+00   1.4992E-04  0.0042
   6.1311E+00   6.2803E+00   1.4675E-04  0.0042
   6.2803E+00   6.4331E+00   1.4197E-04  0.0043
   6.4331E+00   6.5896E+00   1.3854E-04  0.0043
   6.5896E+00   6.7500E+00   1.3574E-04  0.0042
   6.7500E+00   6.9142E+00   1.3135E-04  0.0043
   6.9142E+00   7.0824E+00   1.2988E-04  0.0042
   7.0824E+00   7.2548E+00   1.2448E-04  0.0043
   7.2548E+00   7.4313E+00   1.2100E-04  0.0043
   7.4313E+00   7.6121E+00   1.1737E-04  0.0043
   7.6121E+00   7.7973E+00   1.1439E-04  0.0043
   7.7973E+00   7.9870E+00   1.1076E-04  0.0043
   7.9870E+00   8.1813E+00   1.0550E-04  0.0044
   8.1813E+00   8.3804E+00   1.0176E-04  0.0044
   8.3804E+00   8.5843E+00   9.8506E-05  0.0044
   8.5843E+00   8.7931E+00   9.4329E-05  0.0045
   8.7931E+00   9.0071E+00   9.1101E-05  0.0045
   9.0071E+00   9.2262E+00   8.7008E-05  0.0045
   9.2262E+00   9.4507E+00   8.3874E-05  0.0046
   9.4507E+00   9.6807E+00   8.1033E-05  0.0046
   9.6807E+00   9.9162E+00   7.8171E-05  0.0046
   9.9162E+00   1.0157E+01   7.8130E-05  0.0046
   1.0157E+01   1.0405E+01   7.5289E-05  0.0046
   1.0405E+01   1.0658E+01   7.2261E-05  0.0047
   1.0658E+01   1.0917E+01   6.8843E-05  0.0047
   1.0917E+01   1.1183E+01   6.5953E-05  0.0048
   1.1183E+01   1.1455E+01   6.2850E-05  0.0048
   1.1455E+01   1.1733E+01   6.0917E-05  0.0048
   1.1733E+01   1.2019E+01   5.9177E-05  0.0049
   1.2019E+01   1.2311E+01   5.6567E-05  0.0049
   1.2311E+01   1.2611E+01   5.5117E-05  0.0049
   1.2611E+01   1.2918E+01   5.3067E-05  0.0049
   1.2918E+01   1.3232E+01   5.0639E-05  0.0050
   1.3232E+01   1.3554E+01   4.8696E-05  0.0050
   1.3554E+01   1.3884E+01   4.6234E-05  0.0051
   1.3884E+01   1.4222E+01   4.5301E-05  0.0051
   1.4222E+01   1.4568E+01   4.2699E-05  0.0052
   1.4568E+01   1.4922E+01   4.1004E-05  0.0052
   1.4922E+01   1.5285E+01   3.9489E-05  0.0053
   1.5285E+01   1.5657E+01   3.7978E-05  0.0053
   1.5657E+01   1.6038E+01   3.6159E-05  0.0054
   1.6038E+01   1.6428E+01   3.4579E-05  0.0054
   1.6428E+01   1.6828E+01   3.2965E-05  0.0055
   1.6828E+01   1.7237E+01   3.1124E-05  0.0056
   1.7237E+01   1.7657E+01   2.9557E-05  0.0057
   1.7657E+01   1.8086E+01   2.8242E-05  0.0057
   1.8086E+01   1.8526E+01   2.6854E-05  0.0058
   1.8526E+01   1.8977E+01   2.5328E-05  0.0059
   1.8977E+01   1.9439E+01   2.3737E-05  0.0060
   1.9439E+01   1.9912E+01   2.2652E-05  0.0061
   1.9912E+01   2.0396E+01   2.1654E-05  0.0062
   2.0396E+01   2.0893E+01   2.0650E-05  0.0062
   2.0893E+01   2.1401E+01   1.8997E-05  0.0064
   2.1401E+01   2.1922E+01   1.7808E-05  0.0066
   2.1922E+01   2.2455E+01   1.6693E-05  0.0067
   2.2455E+01   2.3001E+01   1.5558E-05  0.0069
   2.3001E+01   2.3561E+01   1.4704E-05  0.0070
   2.3561E+01   2.4134E+01   1.3875E-05  0.0071
   2.4134E+01   2.4721E+01   1.4323E-05  0.0069
   2.4721E+01   2.5323E+01   1.4611E-05  0.0067
   2.5323E+01   2.5939E+01   1.3754E-05  0.0069
   2.5939E+01   2.6570E+01   1.2614E-05  0.0071
   2.6570E+01   2.7217E+01   1.1637E-05  0.0073
   2.7217E+01   2.7879E+01   1.0774E-05  0.0075
   2.7879E+01   2.8557E+01   9.6398E-06  0.0078
   2.8557E+01   2.9252E+01   8.7770E-06  0.0081
   2.9252E+01   2.9964E+01   8.0278E-06  0.0084
   2.9964E+01   3.0693E+01   7.1551E-06  0.0088
   3.0693E+01   3.1440E+01   6.3778E-06  0.0092
   3.1440E+01   3.2205E+01   5.6830E-06  0.0096
   3.2205E+01   3.2988E+01   4.9875E-06  0.0101
   3.2988E+01   3.3791E+01   4.4170E-06  0.0106
   3.3791E+01   3.4613E+01   3.9311E-06  0.0111
   3.4613E+01   3.5455E+01   3.4564E-06  0.0117
   3.5455E+01   3.6318E+01   2.9518E-06  0.0125
   3.6318E+01   3.7201E+01   2.6070E-06  0.0132
   3.7201E+01   3.8106E+01   2.2295E-06  0.0141
   3.8106E+01   3.9034E+01   1.9345E-06  0.0149
   3.9034E+01   3.9983E+01   1.6430E-06  0.0160
   3.9983E+01   4.0956E+01   1.3482E-06  0.0175
   4.0956E+01   4.1953E+01   1.0392E-06  0.0197
   4.1953E+01   4.2973E+01   6.5208E-07  0.0245
   4.2973E+01   4.4019E+01   4.4071E-07  0.0295
   4.4019E+01   4.5090E+01   2.7861E-07  0.0366
   4.5090E+01   4.6187E+01   7.2192E-08  0.0711
   4.6187E+01   4.7311E+01   1.5662E-08  0.1508
   4.7311E+01   4.8462E+01   4.1699E-09  0.2887
   4.8462E+01   4.9641E+01   6.7847E-10  0.7071
   4.9641E+01   5.0849E+01   0.0000E+00  0.0000
   5.0849E+01   5.2086E+01   0.0000E+00  0.0000
   5.2086E+01   5.3353E+01   0.0000E+00  0.0000
   5.3353E+01   5.4651E+01   0.0000E+00  0.0000
   5.4651E+01   5.5981E+01   0.0000E+00  0.0000
   5.5981E+01   5.7343E+01   0.0000E+00  0.0000
   5.7343E+01   5.8738E+01   0.0000E+00  0.0000
   5.8738E+01   6.0168E+01   0.0000E+00  0.0000
   6.0168E+01   6.1632E+01   0.0000E+00  0.0000
   6.1632E+01   6.3131E+01   0.0000E+00  0.0000
   6.3131E+01   6.4667E+01   0.0000E+00  0.0000
   6.4667E+01   6.6240E+01   0.0000E+00  0.0000
   6.6240E+01   6.7852E+01   0.0000E+00  0.0000
   6.7852E+01   6.9503E+01   0.0000E+00  0.0000
   6.9503E+01   7.1194E+01   0.0000E+00  0.0000
   7.1194E+01   7.2926E+01   0.0000E+00  0.0000
   7.2926E+01   7.4701E+01   0.0000E+00  0.0000
   7.4701E+01   7.6518E+01   0.0000E+00  0.0000
   7.6518E+01   7.8380E+01   0.0000E+00  0.0000
   7.8380E+01   8.0287E+01   0.0000E+00  0.0000
   8.0287E+01   8.2240E+01   0.0000E+00  0.0000
   8.2240E+01   8.4241E+01   0.0000E+00  0.0000
   8.4241E+01   8.6291E+01   0.0000E+00  0.0000
   8.6291E+01   8.8391E+01   0.0000E+00  0.0000
   8.8391E+01   9.0541E+01   0.0000E+00  0.0000
   9.0541E+01   9.2744E+01   0.0000E+00  0.0000
   9.2744E+01   9.5001E+01   0.0000E+00  0.0000
   9.5001E+01   9.7312E+01   0.0000E+00  0.0000
   9.7312E+01   9.9680E+01   0.0000E+00  0.0000
   9.9680E+01   1.0211E+02   0.0000E+00  0.0000
   1.0211E+02   1.0459E+02   0.0000E+00  0.0000
   1.0459E+02   1.0713E+02   0.0000E+00  0.0000
   1.0713E+02   1.0974E+02   0.0000E+00  0.0000
   1.0974E+02   1.1241E+02   0.0000E+00  0.0000
   1.1241E+02   1.1515E+02   0.0000E+00  0.0000
   1.1515E+02   1.1795E+02   0.0000E+00  0.0000
   1.1795E+02   1.2082E+02   0.0000E+00  0.0000
   1.2082E+02   1.2376E+02   0.0000E+00  0.0000
   1.2376E+02   1.2677E+02   0.0000E+00  0.0000
   1.2677E+02   1.2985E+02   0.0000E+00  0.0000
   1.2985E+02   1.3301E+02   0.0000E+00  0.0000
   1.3301E+02   1.3625E+02   0.0000E+00  0.0000
   1.3625E+02   1.3956E+02   0.0000E+00  0.0000
   1.3956E+02   1.4296E+02   0.0000E+00  0.0000
   1.4296E+02   1.4644E+02   0.0000E+00  0.0000
   1.4644E+02   1.5000E+02   0.0000E+00  0.0000

#   sum over                 1.5970E-05
'no. =    1   reg = 110 - 210'
msuc: {\huge [t-cross] in region mesh}
msdr: {\it plotted by \ANGEL \version}
msdl: {\it calculated by \PHITS  3.26}
wt: s(0.7)
\vspace{-3}
  region surface crossing
  area  &=&   1.0000E+00 [cm^2]
e:
 
# Information for Restart Calculation
# This calculation was newly started
# istdev =  2 # 1:Batch variance, 2:History variance
# resc2  = 2.50000000000000000E+09 # Total source weight or Total source weight / maxcas
# resc3  = 2.50000000000000000E+09 # Total history number or Total batch number
# maxcas =   100000000 # History / Batch, only used for istdev=1
# bitrseed = 1100001110001001100010001100011001110101000011000110100101010100 # bit data of rseed
