[ T-Cross ]
    title = [t-cross] in region mesh
     mesh =  reg            # mesh type is region-wise
      reg =    1            # number of crossing regions
      non     r-from    r-to       area
      1       113       213        1.000000    
   e-type =    3            # e-mesh is log given by emin, emax and ne
     emin =  1.0000000E-02  # minimum value of e-mesh points
     emax =   150.0000      # maximum value of e-mesh points
#    edel =  2.4039514E-02  # mesh width of e-mesh points
       ne =    400          # number of e-mesh points
#    data = ( e(i), i = 1, ne + 1 )
#           1.00000E-02  1.02433E-02  1.04925E-02  1.07478E-02  1.10093E-02
#           1.12772E-02  1.15516E-02  1.18326E-02  1.21205E-02  1.24154E-02
#           1.27175E-02  1.30269E-02  1.33439E-02  1.36686E-02  1.40011E-02
#           1.43418E-02  1.46907E-02  1.50482E-02  1.54143E-02  1.57894E-02
#           1.61735E-02  1.65670E-02  1.69701E-02  1.73830E-02  1.78060E-02
#           1.82392E-02  1.86830E-02  1.91375E-02  1.96032E-02  2.00801E-02
#           2.05687E-02  2.10692E-02  2.15818E-02  2.21069E-02  2.26448E-02
#           2.31957E-02  2.37601E-02  2.43382E-02  2.49304E-02  2.55369E-02
#           2.61583E-02  2.67947E-02  2.74467E-02  2.81145E-02  2.87985E-02
#           2.94992E-02  3.02169E-02  3.09521E-02  3.17052E-02  3.24766E-02
#           3.32668E-02  3.40762E-02  3.49053E-02  3.57546E-02  3.66246E-02
#           3.75157E-02  3.84284E-02  3.93634E-02  4.03212E-02  4.13022E-02
#           4.23071E-02  4.33365E-02  4.43909E-02  4.54710E-02  4.65773E-02
#           4.77106E-02  4.88714E-02  5.00605E-02  5.12785E-02  5.25262E-02
#           5.38042E-02  5.51133E-02  5.64542E-02  5.78278E-02  5.92348E-02
#           6.06760E-02  6.21523E-02  6.36645E-02  6.52135E-02  6.68002E-02
#           6.84255E-02  7.00904E-02  7.17957E-02  7.35426E-02  7.53319E-02
#           7.71648E-02  7.90423E-02  8.09655E-02  8.29354E-02  8.49533E-02
#           8.70203E-02  8.91376E-02  9.13064E-02  9.35279E-02  9.58035E-02
#           9.81345E-02  1.00522E-01  1.02968E-01  1.05473E-01  1.08040E-01
#           1.10668E-01  1.13361E-01  1.16119E-01  1.18944E-01  1.21838E-01
#           1.24803E-01  1.27839E-01  1.30950E-01  1.34136E-01  1.37399E-01
#           1.40742E-01  1.44167E-01  1.47675E-01  1.51268E-01  1.54948E-01
#           1.58718E-01  1.62580E-01  1.66535E-01  1.70587E-01  1.74738E-01
#           1.78989E-01  1.83344E-01  1.87805E-01  1.92375E-01  1.97055E-01
#           2.01850E-01  2.06761E-01  2.11792E-01  2.16945E-01  2.22223E-01
#           2.27630E-01  2.33169E-01  2.38842E-01  2.44653E-01  2.50605E-01
#           2.56703E-01  2.62949E-01  2.69346E-01  2.75900E-01  2.82613E-01
#           2.89489E-01  2.96532E-01  3.03747E-01  3.11138E-01  3.18708E-01
#           3.26462E-01  3.34405E-01  3.42542E-01  3.50876E-01  3.59413E-01
#           3.68158E-01  3.77116E-01  3.86291E-01  3.95690E-01  4.05317E-01
#           4.15179E-01  4.25281E-01  4.35628E-01  4.46227E-01  4.57084E-01
#           4.68205E-01  4.79597E-01  4.91266E-01  5.03219E-01  5.15463E-01
#           5.28005E-01  5.40851E-01  5.54011E-01  5.67490E-01  5.81298E-01
#           5.95441E-01  6.09929E-01  6.24769E-01  6.39970E-01  6.55541E-01
#           6.71491E-01  6.87828E-01  7.04564E-01  7.21706E-01  7.39266E-01
#           7.57253E-01  7.75678E-01  7.94551E-01  8.13883E-01  8.33685E-01
#           8.53969E-01  8.74747E-01  8.96030E-01  9.17831E-01  9.40163E-01
#           9.63038E-01  9.86469E-01  1.01047E+00  1.03506E+00  1.06024E+00
#           1.08604E+00  1.11246E+00  1.13953E+00  1.16725E+00  1.19565E+00
#           1.22474E+00  1.25454E+00  1.28507E+00  1.31633E+00  1.34836E+00
#           1.38117E+00  1.41477E+00  1.44920E+00  1.48446E+00  1.52057E+00
#           1.55757E+00  1.59547E+00  1.63429E+00  1.67405E+00  1.71478E+00
#           1.75650E+00  1.79924E+00  1.84302E+00  1.88786E+00  1.93379E+00
#           1.98084E+00  2.02904E+00  2.07841E+00  2.12898E+00  2.18078E+00
#           2.23384E+00  2.28819E+00  2.34386E+00  2.40089E+00  2.45930E+00
#           2.51914E+00  2.58043E+00  2.64322E+00  2.70753E+00  2.77341E+00
#           2.84088E+00  2.91001E+00  2.98081E+00  3.05333E+00  3.12762E+00
#           3.20372E+00  3.28167E+00  3.36152E+00  3.44330E+00  3.52708E+00
#           3.61290E+00  3.70080E+00  3.79085E+00  3.88308E+00  3.97756E+00
#           4.07434E+00  4.17347E+00  4.27501E+00  4.37903E+00  4.48557E+00
#           4.59471E+00  4.70650E+00  4.82102E+00  4.93832E+00  5.05847E+00
#           5.18155E+00  5.30762E+00  5.43676E+00  5.56904E+00  5.70453E+00
#           5.84333E+00  5.98550E+00  6.13114E+00  6.28031E+00  6.43312E+00
#           6.58964E+00  6.74997E+00  6.91420E+00  7.08243E+00  7.25475E+00
#           7.43126E+00  7.61207E+00  7.79728E+00  7.98700E+00  8.18133E+00
#           8.38038E+00  8.58428E+00  8.79315E+00  9.00709E+00  9.22624E+00
#           9.45072E+00  9.68067E+00  9.91620E+00  1.01575E+01  1.04046E+01
#           1.06578E+01  1.09171E+01  1.11827E+01  1.14548E+01  1.17335E+01
#           1.20190E+01  1.23114E+01  1.26109E+01  1.29178E+01  1.32321E+01
#           1.35540E+01  1.38838E+01  1.42216E+01  1.45676E+01  1.49221E+01
#           1.52851E+01  1.56570E+01  1.60380E+01  1.64282E+01  1.68279E+01
#           1.72374E+01  1.76568E+01  1.80864E+01  1.85264E+01  1.89772E+01
#           1.94389E+01  1.99119E+01  2.03963E+01  2.08926E+01  2.14009E+01
#           2.19216E+01  2.24550E+01  2.30014E+01  2.35610E+01  2.41343E+01
#           2.47215E+01  2.53230E+01  2.59391E+01  2.65702E+01  2.72167E+01
#           2.78789E+01  2.85572E+01  2.92520E+01  2.99637E+01  3.06928E+01
#           3.14396E+01  3.22045E+01  3.29881E+01  3.37907E+01  3.46128E+01
#           3.54550E+01  3.63177E+01  3.72013E+01  3.81064E+01  3.90336E+01
#           3.99833E+01  4.09561E+01  4.19526E+01  4.29734E+01  4.40189E+01
#           4.50900E+01  4.61870E+01  4.73108E+01  4.84619E+01  4.96410E+01
#           5.08488E+01  5.20860E+01  5.33533E+01  5.46514E+01  5.59812E+01
#           5.73432E+01  5.87384E+01  6.01676E+01  6.16315E+01  6.31311E+01
#           6.46671E+01  6.62405E+01  6.78522E+01  6.95031E+01  7.11941E+01
#           7.29263E+01  7.47007E+01  7.65182E+01  7.83800E+01  8.02870E+01
#           8.22405E+01  8.42414E+01  8.62911E+01  8.83906E+01  9.05412E+01
#           9.27442E+01  9.50007E+01  9.73122E+01  9.96799E+01  1.02105E+02
#           1.04589E+02  1.07134E+02  1.09741E+02  1.12411E+02  1.15146E+02
#           1.17948E+02  1.20817E+02  1.23757E+02  1.26768E+02  1.29852E+02
#           1.33012E+02  1.36248E+02  1.39563E+02  1.42959E+02  1.46437E+02
#           1.50000E+02
     unit =    2            # unit is [1/cm^2/(MeV/n)/source]
     axis =  eng            # axis of output
     file = detector-14.out  # file name of output for the above axis
   output = f-curr          # surface crossing forward current spectrum
     part =  neutron  
# kf/name :  2112     
#    used :        main (  %)        temp (  %)       total (  %)
#  memory :         414 (  0)           0 (  0)         414 (  0)

#------------------------------------------------------------------------------
#newpage:
#   no. =    1   reg = 113 - 213

x: Energy [MeV/n]
y:  F-Curr [1/cm^2/(MeV/n)/source]         
p: xlog ylog afac(0.8) form(0.9)
h: n            x            y(neutron ),hh0l   n 
#  e-lower      e-upper      neutron     r.err 
   1.0000E-02   1.0243E-02   2.8277E-04  0.0539
   1.0243E-02   1.0493E-02   3.0093E-04  0.0516
   1.0493E-02   1.0748E-02   2.7341E-04  0.0535
   1.0748E-02   1.1009E-02   2.6156E-04  0.0541
   1.1009E-02   1.1277E-02   2.7924E-04  0.0517
   1.1277E-02   1.1552E-02   2.7844E-04  0.0512
   1.1552E-02   1.1833E-02   2.6400E-04  0.0519
   1.1833E-02   1.2121E-02   2.6398E-04  0.0513
   1.2121E-02   1.2415E-02   2.9976E-04  0.0476
   1.2415E-02   1.2718E-02   2.6814E-04  0.0497
   1.2718E-02   1.3027E-02   2.6307E-04  0.0496
   1.3027E-02   1.3344E-02   2.8143E-04  0.0474
   1.3344E-02   1.3669E-02   2.7351E-04  0.0475
   1.3669E-02   1.4001E-02   2.6521E-04  0.0476
   1.4001E-02   1.4342E-02   2.6478E-04  0.0471
   1.4342E-02   1.4691E-02   2.5677E-04  0.0472
   1.4691E-02   1.5048E-02   2.6522E-04  0.0459
   1.5048E-02   1.5414E-02   2.5619E-04  0.0462
   1.5414E-02   1.5789E-02   2.5544E-04  0.0457
   1.5789E-02   1.6174E-02   2.4156E-04  0.0464
   1.6174E-02   1.6567E-02   2.4802E-04  0.0453
   1.6567E-02   1.6970E-02   2.6396E-04  0.0434
   1.6970E-02   1.7383E-02   2.6254E-04  0.0430
   1.7383E-02   1.7806E-02   2.4684E-04  0.0438
   1.7806E-02   1.8239E-02   2.5760E-04  0.0423
   1.8239E-02   1.8683E-02   2.5599E-04  0.0420
   1.8683E-02   1.9138E-02   2.7586E-04  0.0399
   1.9138E-02   1.9603E-02   2.7447E-04  0.0396
   1.9603E-02   2.0080E-02   2.5034E-04  0.0409
   2.0080E-02   2.0569E-02   2.6240E-04  0.0395
   2.0569E-02   2.1069E-02   2.5457E-04  0.0396
   2.1069E-02   2.1582E-02   2.6140E-04  0.0386
   2.1582E-02   2.2107E-02   2.5328E-04  0.0388
   2.2107E-02   2.2645E-02   2.4764E-04  0.0387
   2.2645E-02   2.3196E-02   2.4212E-04  0.0387
   2.3196E-02   2.3760E-02   2.4346E-04  0.0382
   2.3760E-02   2.4338E-02   2.3975E-04  0.0380
   2.4338E-02   2.4930E-02   2.3743E-04  0.0377
   2.4930E-02   2.5537E-02   2.4465E-04  0.0367
   2.5537E-02   2.6158E-02   2.5687E-04  0.0354
   2.6158E-02   2.6795E-02   2.5265E-04  0.0353
   2.6795E-02   2.7447E-02   2.3745E-04  0.0359
   2.7447E-02   2.8114E-02   2.2941E-04  0.0361
   2.8114E-02   2.8799E-02   2.4501E-04  0.0345
   2.8799E-02   2.9499E-02   2.3691E-04  0.0347
   2.9499E-02   3.0217E-02   2.3463E-04  0.0345
   3.0217E-02   3.0952E-02   2.4782E-04  0.0331
   3.0952E-02   3.1705E-02   2.3397E-04  0.0337
   3.1705E-02   3.2477E-02   2.4682E-04  0.0324
   3.2477E-02   3.3267E-02   2.1995E-04  0.0339
   3.3267E-02   3.4076E-02   2.2757E-04  0.0330
   3.4076E-02   3.4905E-02   2.2868E-04  0.0325
   3.4905E-02   3.5755E-02   2.3173E-04  0.0319
   3.5755E-02   3.6625E-02   2.4324E-04  0.0307
   3.6625E-02   3.7516E-02   2.2175E-04  0.0318
   3.7516E-02   3.8428E-02   2.2021E-04  0.0315
   3.8428E-02   3.9363E-02   2.2866E-04  0.0306
   3.9363E-02   4.0321E-02   2.2741E-04  0.0303
   4.0321E-02   4.1302E-02   2.2690E-04  0.0300
   4.1302E-02   4.2307E-02   2.4380E-04  0.0286
   4.2307E-02   4.3337E-02   2.3665E-04  0.0287
   4.3337E-02   4.4391E-02   2.2382E-04  0.0291
   4.4391E-02   4.5471E-02   2.1110E-04  0.0296
   4.5471E-02   4.6577E-02   2.1115E-04  0.0293
   4.6577E-02   4.7711E-02   2.1213E-04  0.0288
   4.7711E-02   4.8871E-02   2.2691E-04  0.0276
   4.8871E-02   5.0061E-02   2.2067E-04  0.0276
   5.0061E-02   5.1279E-02   2.0295E-04  0.0284
   5.1279E-02   5.2526E-02   2.1625E-04  0.0272
   5.2526E-02   5.3804E-02   2.1408E-04  0.0270
   5.3804E-02   5.5113E-02   2.2137E-04  0.0263
   5.5113E-02   5.6454E-02   2.1090E-04  0.0266
   5.6454E-02   5.7828E-02   2.0880E-04  0.0264
   5.7828E-02   5.9235E-02   1.9687E-04  0.0269
   5.9235E-02   6.0676E-02   2.1135E-04  0.0256
   6.0676E-02   6.2152E-02   2.0822E-04  0.0255
   6.2152E-02   6.3665E-02   2.0764E-04  0.0252
   6.3665E-02   6.5214E-02   2.0865E-04  0.0249
   6.5214E-02   6.6800E-02   2.0432E-04  0.0248
   6.6800E-02   6.8426E-02   1.9566E-04  0.0251
   6.8426E-02   7.0090E-02   2.0206E-04  0.0244
   7.0090E-02   7.1796E-02   2.0911E-04  0.0237
   7.1796E-02   7.3543E-02   1.9509E-04  0.0242
   7.3543E-02   7.5332E-02   1.9873E-04  0.0237
   7.5332E-02   7.7165E-02   2.0623E-04  0.0230
   7.7165E-02   7.9042E-02   1.9398E-04  0.0234
   7.9042E-02   8.0965E-02   1.9083E-04  0.0233
   8.0965E-02   8.2935E-02   1.8508E-04  0.0234
   8.2935E-02   8.4953E-02   1.9922E-04  0.0223
   8.4953E-02   8.7020E-02   1.9207E-04  0.0224
   8.7020E-02   8.9138E-02   1.8344E-04  0.0227
   8.9138E-02   9.1306E-02   1.8619E-04  0.0223
   9.1306E-02   9.3528E-02   1.8582E-04  0.0220
   9.3528E-02   9.5804E-02   1.8641E-04  0.0217
   9.5804E-02   9.8134E-02   1.7503E-04  0.0221
   9.8134E-02   1.0052E-01   1.7934E-04  0.0216
   1.0052E-01   1.0297E-01   1.8203E-04  0.0212
   1.0297E-01   1.0547E-01   1.7930E-04  0.0211
   1.0547E-01   1.0804E-01   1.8190E-04  0.0207
   1.0804E-01   1.1067E-01   1.8176E-04  0.0205
   1.1067E-01   1.1336E-01   1.7804E-04  0.0204
   1.1336E-01   1.1612E-01   1.7106E-04  0.0206
   1.1612E-01   1.1894E-01   1.7959E-04  0.0199
   1.1894E-01   1.2184E-01   1.7263E-04  0.0200
   1.2184E-01   1.2480E-01   1.7116E-04  0.0199
   1.2480E-01   1.2784E-01   1.6479E-04  0.0200
   1.2784E-01   1.3095E-01   1.6557E-04  0.0197
   1.3095E-01   1.3414E-01   1.6880E-04  0.0193
   1.3414E-01   1.3740E-01   1.6509E-04  0.0193
   1.3740E-01   1.4074E-01   1.6464E-04  0.0191
   1.4074E-01   1.4417E-01   1.6464E-04  0.0188
   1.4417E-01   1.4767E-01   1.6099E-04  0.0188
   1.4767E-01   1.5127E-01   1.5870E-04  0.0187
   1.5127E-01   1.5495E-01   1.5656E-04  0.0186
   1.5495E-01   1.5872E-01   1.5915E-04  0.0183
   1.5872E-01   1.6258E-01   1.5894E-04  0.0181
   1.6258E-01   1.6654E-01   1.5638E-04  0.0180
   1.6654E-01   1.7059E-01   1.5795E-04  0.0177
   1.7059E-01   1.7474E-01   1.5386E-04  0.0177
   1.7474E-01   1.7899E-01   1.4978E-04  0.0177
   1.7899E-01   1.8334E-01   1.4613E-04  0.0177
   1.8334E-01   1.8781E-01   1.5010E-04  0.0173
   1.8781E-01   1.9237E-01   1.4181E-04  0.0176
   1.9237E-01   1.9706E-01   1.4571E-04  0.0171
   1.9706E-01   2.0185E-01   1.4212E-04  0.0171
   2.0185E-01   2.0676E-01   1.4001E-04  0.0171
   2.0676E-01   2.1179E-01   1.3871E-04  0.0169
   2.1179E-01   2.1694E-01   1.4209E-04  0.0165
   2.1694E-01   2.2222E-01   1.3621E-04  0.0167
   2.2222E-01   2.2763E-01   1.3673E-04  0.0164
   2.2763E-01   2.3317E-01   1.3354E-04  0.0164
   2.3317E-01   2.3884E-01   1.3076E-04  0.0164
   2.3884E-01   2.4465E-01   1.2944E-04  0.0163
   2.4465E-01   2.5061E-01   1.2687E-04  0.0163
   2.5061E-01   2.5670E-01   1.2740E-04  0.0160
   2.5670E-01   2.6295E-01   1.3087E-04  0.0156
   2.6295E-01   2.6935E-01   1.2167E-04  0.0160
   2.6935E-01   2.7590E-01   1.2516E-04  0.0156
   2.7590E-01   2.8261E-01   1.1853E-04  0.0159
   2.8261E-01   2.8949E-01   1.1940E-04  0.0156
   2.8949E-01   2.9653E-01   1.1344E-04  0.0158
   2.9653E-01   3.0375E-01   1.1332E-04  0.0156
   3.0375E-01   3.1114E-01   1.1772E-04  0.0152
   3.1114E-01   3.1871E-01   1.1093E-04  0.0154
   3.1871E-01   3.2646E-01   1.1341E-04  0.0151
   3.2646E-01   3.3441E-01   1.0746E-04  0.0153
   3.3441E-01   3.4254E-01   1.0796E-04  0.0151
   3.4254E-01   3.5088E-01   1.0693E-04  0.0150
   3.5088E-01   3.5941E-01   1.0425E-04  0.0150
   3.5941E-01   3.6816E-01   1.0299E-04  0.0149
   3.6816E-01   3.7712E-01   1.0023E-04  0.0149
   3.7712E-01   3.8629E-01   9.8588E-05  0.0149
   3.8629E-01   3.9569E-01   9.4608E-05  0.0150
   3.9569E-01   4.0532E-01   9.5124E-05  0.0148
   4.0532E-01   4.1518E-01   9.5562E-05  0.0146
   4.1518E-01   4.2528E-01   9.0223E-05  0.0148
   4.2528E-01   4.3563E-01   9.2796E-05  0.0144
   4.3563E-01   4.4623E-01   8.6120E-05  0.0148
   4.4623E-01   4.5708E-01   8.2435E-05  0.0149
   4.5708E-01   4.6821E-01   8.4667E-05  0.0146
   4.6821E-01   4.7960E-01   8.3955E-05  0.0145
   4.7960E-01   4.9127E-01   8.1755E-05  0.0145
   4.9127E-01   5.0322E-01   7.9880E-05  0.0145
   5.0322E-01   5.1546E-01   7.7607E-05  0.0145
   5.1546E-01   5.2800E-01   7.4329E-05  0.0146
   5.2800E-01   5.4085E-01   7.3801E-05  0.0145
   5.4085E-01   5.5401E-01   7.3484E-05  0.0144
   5.5401E-01   5.6749E-01   7.1115E-05  0.0144
   5.6749E-01   5.8130E-01   6.7224E-05  0.0147
   5.8130E-01   5.9544E-01   6.5416E-05  0.0147
   5.9544E-01   6.0993E-01   6.2495E-05  0.0149
   6.0993E-01   6.2477E-01   6.0350E-05  0.0149
   6.2477E-01   6.3997E-01   6.0746E-05  0.0147
   6.3997E-01   6.5554E-01   5.9161E-05  0.0147
   6.5554E-01   6.7149E-01   5.7831E-05  0.0147
   6.7149E-01   6.8783E-01   5.6115E-05  0.0148
   6.8783E-01   7.0456E-01   5.1938E-05  0.0152
   7.0456E-01   7.2171E-01   5.2489E-05  0.0149
   7.2171E-01   7.3927E-01   5.0240E-05  0.0151
   7.3927E-01   7.5725E-01   4.7334E-05  0.0153
   7.5725E-01   7.7568E-01   4.6840E-05  0.0152
   7.7568E-01   7.9455E-01   4.4010E-05  0.0155
   7.9455E-01   8.1388E-01   4.3793E-05  0.0154
   8.1388E-01   8.3368E-01   4.1015E-05  0.0157
   8.3368E-01   8.5397E-01   3.9134E-05  0.0159
   8.5397E-01   8.7475E-01   3.8127E-05  0.0159
   8.7475E-01   8.9603E-01   3.6244E-05  0.0161
   8.9603E-01   9.1783E-01   3.5594E-05  0.0161
   9.1783E-01   9.4016E-01   3.4140E-05  0.0162
   9.4016E-01   9.6304E-01   3.1362E-05  0.0167
   9.6304E-01   9.8647E-01   2.9354E-05  0.0171
   9.8647E-01   1.0105E+00   2.9156E-05  0.0169
   1.0105E+00   1.0351E+00   2.9367E-05  0.0166
   1.0351E+00   1.0602E+00   2.9678E-05  0.0164
   1.0602E+00   1.0860E+00   2.9306E-05  0.0163
   1.0860E+00   1.1125E+00   3.0245E-05  0.0158
   1.1125E+00   1.1395E+00   3.0051E-05  0.0157
   1.1395E+00   1.1673E+00   2.9280E-05  0.0157
   1.1673E+00   1.1957E+00   3.0549E-05  0.0152
   1.1957E+00   1.2247E+00   3.2862E-05  0.0145
   1.2247E+00   1.2545E+00   3.1612E-05  0.0146
   1.2545E+00   1.2851E+00   3.2152E-05  0.0143
   1.2851E+00   1.3163E+00   3.0601E-05  0.0145
   1.3163E+00   1.3484E+00   3.1236E-05  0.0141
   1.3484E+00   1.3812E+00   3.2902E-05  0.0136
   1.3812E+00   1.4148E+00   3.3709E-05  0.0133
   1.4148E+00   1.4492E+00   3.2496E-05  0.0134
   1.4492E+00   1.4845E+00   3.1719E-05  0.0134
   1.4845E+00   1.5206E+00   3.1403E-05  0.0133
   1.5206E+00   1.5576E+00   3.1111E-05  0.0132
   1.5576E+00   1.5955E+00   3.0789E-05  0.0131
   1.5955E+00   1.6343E+00   3.0557E-05  0.0130
   1.6343E+00   1.6741E+00   3.1378E-05  0.0127
   1.6741E+00   1.7148E+00   3.0841E-05  0.0126
   1.7148E+00   1.7565E+00   3.0219E-05  0.0126
   1.7565E+00   1.7992E+00   2.9834E-05  0.0125
   1.7992E+00   1.8430E+00   2.9573E-05  0.0124
   1.8430E+00   1.8879E+00   2.8652E-05  0.0125
   1.8879E+00   1.9338E+00   2.8367E-05  0.0124
   1.9338E+00   1.9808E+00   2.8459E-05  0.0122
   1.9808E+00   2.0290E+00   2.7820E-05  0.0122
   2.0290E+00   2.0784E+00   2.7534E-05  0.0121
   2.0784E+00   2.1290E+00   2.5980E-05  0.0123
   2.1290E+00   2.1808E+00   2.4796E-05  0.0125
   2.1808E+00   2.2338E+00   2.4591E-05  0.0124
   2.2338E+00   2.2882E+00   2.3514E-05  0.0125
   2.2882E+00   2.3439E+00   2.3552E-05  0.0124
   2.3439E+00   2.4009E+00   2.3339E-05  0.0123
   2.4009E+00   2.4593E+00   2.2871E-05  0.0122
   2.4593E+00   2.5191E+00   2.1572E-05  0.0124
   2.5191E+00   2.5804E+00   2.0642E-05  0.0126
   2.5804E+00   2.6432E+00   1.9836E-05  0.0127
   2.6432E+00   2.7075E+00   1.9001E-05  0.0128
   2.7075E+00   2.7734E+00   1.8343E-05  0.0129
   2.7734E+00   2.8409E+00   1.7890E-05  0.0129
   2.8409E+00   2.9100E+00   1.7141E-05  0.0130
   2.9100E+00   2.9808E+00   1.7093E-05  0.0129
   2.9808E+00   3.0533E+00   1.6425E-05  0.0130
   3.0533E+00   3.1276E+00   1.5345E-05  0.0132
   3.1276E+00   3.2037E+00   1.4852E-05  0.0133
   3.2037E+00   3.2817E+00   1.4094E-05  0.0135
   3.2817E+00   3.3615E+00   1.3318E-05  0.0137
   3.3615E+00   3.4433E+00   1.2902E-05  0.0138
   3.4433E+00   3.5271E+00   1.2239E-05  0.0140
   3.5271E+00   3.6129E+00   1.1893E-05  0.0140
   3.6129E+00   3.7008E+00   1.1431E-05  0.0141
   3.7008E+00   3.7908E+00   1.1144E-05  0.0141
   3.7908E+00   3.8831E+00   1.0434E-05  0.0144
   3.8831E+00   3.9776E+00   1.0059E-05  0.0145
   3.9776E+00   4.0743E+00   9.6717E-06  0.0146
   4.0743E+00   4.1735E+00   8.8932E-06  0.0151
   4.1735E+00   4.2750E+00   8.7312E-06  0.0150
   4.2750E+00   4.3790E+00   8.4392E-06  0.0151
   4.3790E+00   4.4856E+00   7.6812E-06  0.0156
   4.4856E+00   4.5947E+00   7.3430E-06  0.0158
   4.5947E+00   4.7065E+00   7.2706E-06  0.0157
   4.7065E+00   4.8210E+00   6.6333E-06  0.0162
   4.8210E+00   4.9383E+00   6.4775E-06  0.0162
   4.9383E+00   5.0585E+00   6.1355E-06  0.0165
   5.0585E+00   5.1815E+00   6.1027E-06  0.0163
   5.1815E+00   5.3076E+00   5.5001E-06  0.0170
   5.3076E+00   5.4368E+00   5.3679E-06  0.0170
   5.4368E+00   5.5690E+00   4.9266E-06  0.0175
   5.5690E+00   5.7045E+00   4.9344E-06  0.0173
   5.7045E+00   5.8433E+00   4.6954E-06  0.0175
   5.8433E+00   5.9855E+00   4.4692E-06  0.0177
   5.9855E+00   6.1311E+00   4.5011E-06  0.0175
   6.1311E+00   6.2803E+00   4.1320E-06  0.0180
   6.2803E+00   6.4331E+00   3.9365E-06  0.0182
   6.4331E+00   6.5896E+00   4.0653E-06  0.0177
   6.5896E+00   6.7500E+00   3.7317E-06  0.0183
   6.7500E+00   6.9142E+00   3.6697E-06  0.0182
   6.9142E+00   7.0824E+00   3.6737E-06  0.0180
   7.0824E+00   7.2548E+00   3.6285E-06  0.0179
   7.2548E+00   7.4313E+00   3.4740E-06  0.0181
   7.4313E+00   7.6121E+00   3.4449E-06  0.0179
   7.6121E+00   7.7973E+00   3.4236E-06  0.0178
   7.7973E+00   7.9870E+00   3.1925E-06  0.0182
   7.9870E+00   8.1813E+00   3.2529E-06  0.0178
   8.1813E+00   8.3804E+00   3.2510E-06  0.0176
   8.3804E+00   8.5843E+00   3.3620E-06  0.0171
   8.5843E+00   8.7931E+00   3.3200E-06  0.0170
   8.7931E+00   9.0071E+00   3.2357E-06  0.0170
   9.0071E+00   9.2262E+00   3.4141E-06  0.0163
   9.2262E+00   9.4507E+00   3.3201E-06  0.0164
   9.4507E+00   9.6807E+00   3.3552E-06  0.0161
   9.6807E+00   9.9162E+00   3.3184E-06  0.0160
   9.9162E+00   1.0157E+01   3.3668E-06  0.0157
   1.0157E+01   1.0405E+01   3.3528E-06  0.0155
   1.0405E+01   1.0658E+01   3.3596E-06  0.0153
   1.0658E+01   1.0917E+01   3.5498E-06  0.0147
   1.0917E+01   1.1183E+01   3.4888E-06  0.0147
   1.1183E+01   1.1455E+01   3.6191E-06  0.0142
   1.1455E+01   1.1733E+01   3.5644E-06  0.0142
   1.1733E+01   1.2019E+01   3.5925E-06  0.0140
   1.2019E+01   1.2311E+01   3.6474E-06  0.0137
   1.2311E+01   1.2611E+01   3.7400E-06  0.0134
   1.2611E+01   1.2918E+01   3.7398E-06  0.0132
   1.2918E+01   1.3232E+01   3.8186E-06  0.0129
   1.3232E+01   1.3554E+01   3.7783E-06  0.0128
   1.3554E+01   1.3884E+01   3.8647E-06  0.0125
   1.3884E+01   1.4222E+01   3.8753E-06  0.0123
   1.4222E+01   1.4568E+01   3.9679E-06  0.0121
   1.4568E+01   1.4922E+01   3.9688E-06  0.0119
   1.4922E+01   1.5285E+01   4.0092E-06  0.0117
   1.5285E+01   1.5657E+01   3.9941E-06  0.0116
   1.5657E+01   1.6038E+01   3.9520E-06  0.0115
   1.6038E+01   1.6428E+01   3.9511E-06  0.0114
   1.6428E+01   1.6828E+01   3.9376E-06  0.0113
   1.6828E+01   1.7237E+01   3.9654E-06  0.0111
   1.7237E+01   1.7657E+01   3.8963E-06  0.0111
   1.7657E+01   1.8086E+01   3.9923E-06  0.0108
   1.8086E+01   1.8526E+01   3.9086E-06  0.0108
   1.8526E+01   1.8977E+01   3.8339E-06  0.0107
   1.8977E+01   1.9439E+01   3.8670E-06  0.0106
   1.9439E+01   1.9912E+01   3.7673E-06  0.0106
   1.9912E+01   2.0396E+01   5.8051E-06  0.0084
   2.0396E+01   2.0893E+01   6.2451E-06  0.0080
   2.0893E+01   2.1401E+01   5.9536E-06  0.0081
   2.1401E+01   2.1922E+01   5.6816E-06  0.0082
   2.1922E+01   2.2455E+01   5.3966E-06  0.0083
   2.2455E+01   2.3001E+01   5.2494E-06  0.0084
   2.3001E+01   2.3561E+01   4.8445E-06  0.0086
   2.3561E+01   2.4134E+01   4.6374E-06  0.0087
   2.4134E+01   2.4721E+01   4.3739E-06  0.0088
   2.4721E+01   2.5323E+01   4.0695E-06  0.0090
   2.5323E+01   2.5939E+01   3.8593E-06  0.0092
   2.5939E+01   2.6570E+01   3.6732E-06  0.0093
   2.6570E+01   2.7217E+01   3.3400E-06  0.0096
   2.7217E+01   2.7879E+01   3.1274E-06  0.0098
   2.7879E+01   2.8557E+01   2.8883E-06  0.0101
   2.8557E+01   2.9252E+01   2.6041E-06  0.0105
   2.9252E+01   2.9964E+01   2.4296E-06  0.0108
   2.9964E+01   3.0693E+01   2.1738E-06  0.0112
   3.0693E+01   3.1440E+01   1.9518E-06  0.0117
   3.1440E+01   3.2205E+01   1.7991E-06  0.0121
   3.2205E+01   3.2988E+01   1.6660E-06  0.0124
   3.2988E+01   3.3791E+01   1.4512E-06  0.0131
   3.3791E+01   3.4613E+01   1.2584E-06  0.0139
   3.4613E+01   3.5455E+01   1.0896E-06  0.0148
   3.5455E+01   3.6318E+01   9.6192E-07  0.0155
   3.6318E+01   3.7201E+01   7.8969E-07  0.0169
   3.7201E+01   3.8106E+01   6.6752E-07  0.0182
   3.8106E+01   3.9034E+01   5.6883E-07  0.0195
   3.9034E+01   3.9983E+01   4.8541E-07  0.0208
   3.9983E+01   4.0956E+01   3.7211E-07  0.0235
   4.0956E+01   4.1953E+01   3.0186E-07  0.0258
   4.1953E+01   4.2973E+01   2.3532E-07  0.0289
   4.2973E+01   4.4019E+01   1.8325E-07  0.0323
   4.4019E+01   4.5090E+01   1.1335E-07  0.0406
   4.5090E+01   4.6187E+01   8.8052E-08  0.0455
   4.6187E+01   4.7311E+01   5.2146E-08  0.0584
   4.7311E+01   4.8462E+01   3.5097E-08  0.0704
   4.8462E+01   4.9641E+01   1.1873E-08  0.1195
   4.9641E+01   5.0849E+01   5.1333E-09  0.1796
   5.0849E+01   5.2086E+01   6.4663E-10  0.5000
   5.2086E+01   5.3353E+01   0.0000E+00  0.0000
   5.3353E+01   5.4651E+01   0.0000E+00  0.0000
   5.4651E+01   5.5981E+01   0.0000E+00  0.0000
   5.5981E+01   5.7343E+01   0.0000E+00  0.0000
   5.7343E+01   5.8738E+01   0.0000E+00  0.0000
   5.8738E+01   6.0168E+01   0.0000E+00  0.0000
   6.0168E+01   6.1632E+01   0.0000E+00  0.0000
   6.1632E+01   6.3131E+01   0.0000E+00  0.0000
   6.3131E+01   6.4667E+01   0.0000E+00  0.0000
   6.4667E+01   6.6240E+01   0.0000E+00  0.0000
   6.6240E+01   6.7852E+01   0.0000E+00  0.0000
   6.7852E+01   6.9503E+01   0.0000E+00  0.0000
   6.9503E+01   7.1194E+01   0.0000E+00  0.0000
   7.1194E+01   7.2926E+01   0.0000E+00  0.0000
   7.2926E+01   7.4701E+01   0.0000E+00  0.0000
   7.4701E+01   7.6518E+01   0.0000E+00  0.0000
   7.6518E+01   7.8380E+01   0.0000E+00  0.0000
   7.8380E+01   8.0287E+01   0.0000E+00  0.0000
   8.0287E+01   8.2240E+01   0.0000E+00  0.0000
   8.2240E+01   8.4241E+01   0.0000E+00  0.0000
   8.4241E+01   8.6291E+01   0.0000E+00  0.0000
   8.6291E+01   8.8391E+01   0.0000E+00  0.0000
   8.8391E+01   9.0541E+01   0.0000E+00  0.0000
   9.0541E+01   9.2744E+01   0.0000E+00  0.0000
   9.2744E+01   9.5001E+01   0.0000E+00  0.0000
   9.5001E+01   9.7312E+01   0.0000E+00  0.0000
   9.7312E+01   9.9680E+01   0.0000E+00  0.0000
   9.9680E+01   1.0211E+02   0.0000E+00  0.0000
   1.0211E+02   1.0459E+02   0.0000E+00  0.0000
   1.0459E+02   1.0713E+02   0.0000E+00  0.0000
   1.0713E+02   1.0974E+02   0.0000E+00  0.0000
   1.0974E+02   1.1241E+02   0.0000E+00  0.0000
   1.1241E+02   1.1515E+02   0.0000E+00  0.0000
   1.1515E+02   1.1795E+02   0.0000E+00  0.0000
   1.1795E+02   1.2082E+02   0.0000E+00  0.0000
   1.2082E+02   1.2376E+02   0.0000E+00  0.0000
   1.2376E+02   1.2677E+02   0.0000E+00  0.0000
   1.2677E+02   1.2985E+02   0.0000E+00  0.0000
   1.2985E+02   1.3301E+02   0.0000E+00  0.0000
   1.3301E+02   1.3625E+02   0.0000E+00  0.0000
   1.3625E+02   1.3956E+02   0.0000E+00  0.0000
   1.3956E+02   1.4296E+02   0.0000E+00  0.0000
   1.4296E+02   1.4644E+02   0.0000E+00  0.0000
   1.4644E+02   1.5000E+02   0.0000E+00  0.0000

#   sum over                 1.8509E-06
'no. =    1   reg = 113 - 213'
msuc: {\huge [t-cross] in region mesh}
msdr: {\it plotted by \ANGEL \version}
msdl: {\it calculated by \PHITS  3.26}
wt: s(0.7)
\vspace{-3}
  region surface crossing
  area  &=&   1.0000E+00 [cm^2]
e:
 
# Information for Restart Calculation
# This calculation was newly started
# istdev =  2 # 1:Batch variance, 2:History variance
# resc2  = 5.00000000000000000E+09 # Total source weight or Total source weight / maxcas
# resc3  = 5.00000000000000000E+09 # Total history number or Total batch number
# maxcas =   100000000 # History / Batch, only used for istdev=1
# bitrseed = 0110100000100010111000001110001111001110100100011111101000111001 # bit data of rseed
