[ T-Cross ]
    title = [t-cross] in region mesh
     mesh =  reg            # mesh type is region-wise
      reg =    1            # number of crossing regions
      non     r-from    r-to       area
      1       125       225        1.000000    
   e-type =    3            # e-mesh is log given by emin, emax and ne
     emin =  1.0000000E-02  # minimum value of e-mesh points
     emax =   150.0000      # maximum value of e-mesh points
#    edel =  2.4039514E-02  # mesh width of e-mesh points
       ne =    400          # number of e-mesh points
#    data = ( e(i), i = 1, ne + 1 )
#           1.00000E-02  1.02433E-02  1.04925E-02  1.07478E-02  1.10093E-02
#           1.12772E-02  1.15516E-02  1.18326E-02  1.21205E-02  1.24154E-02
#           1.27175E-02  1.30269E-02  1.33439E-02  1.36686E-02  1.40011E-02
#           1.43418E-02  1.46907E-02  1.50482E-02  1.54143E-02  1.57894E-02
#           1.61735E-02  1.65670E-02  1.69701E-02  1.73830E-02  1.78060E-02
#           1.82392E-02  1.86830E-02  1.91375E-02  1.96032E-02  2.00801E-02
#           2.05687E-02  2.10692E-02  2.15818E-02  2.21069E-02  2.26448E-02
#           2.31957E-02  2.37601E-02  2.43382E-02  2.49304E-02  2.55369E-02
#           2.61583E-02  2.67947E-02  2.74467E-02  2.81145E-02  2.87985E-02
#           2.94992E-02  3.02169E-02  3.09521E-02  3.17052E-02  3.24766E-02
#           3.32668E-02  3.40762E-02  3.49053E-02  3.57546E-02  3.66246E-02
#           3.75157E-02  3.84284E-02  3.93634E-02  4.03212E-02  4.13022E-02
#           4.23071E-02  4.33365E-02  4.43909E-02  4.54710E-02  4.65773E-02
#           4.77106E-02  4.88714E-02  5.00605E-02  5.12785E-02  5.25262E-02
#           5.38042E-02  5.51133E-02  5.64542E-02  5.78278E-02  5.92348E-02
#           6.06760E-02  6.21523E-02  6.36645E-02  6.52135E-02  6.68002E-02
#           6.84255E-02  7.00904E-02  7.17957E-02  7.35426E-02  7.53319E-02
#           7.71648E-02  7.90423E-02  8.09655E-02  8.29354E-02  8.49533E-02
#           8.70203E-02  8.91376E-02  9.13064E-02  9.35279E-02  9.58035E-02
#           9.81345E-02  1.00522E-01  1.02968E-01  1.05473E-01  1.08040E-01
#           1.10668E-01  1.13361E-01  1.16119E-01  1.18944E-01  1.21838E-01
#           1.24803E-01  1.27839E-01  1.30950E-01  1.34136E-01  1.37399E-01
#           1.40742E-01  1.44167E-01  1.47675E-01  1.51268E-01  1.54948E-01
#           1.58718E-01  1.62580E-01  1.66535E-01  1.70587E-01  1.74738E-01
#           1.78989E-01  1.83344E-01  1.87805E-01  1.92375E-01  1.97055E-01
#           2.01850E-01  2.06761E-01  2.11792E-01  2.16945E-01  2.22223E-01
#           2.27630E-01  2.33169E-01  2.38842E-01  2.44653E-01  2.50605E-01
#           2.56703E-01  2.62949E-01  2.69346E-01  2.75900E-01  2.82613E-01
#           2.89489E-01  2.96532E-01  3.03747E-01  3.11138E-01  3.18708E-01
#           3.26462E-01  3.34405E-01  3.42542E-01  3.50876E-01  3.59413E-01
#           3.68158E-01  3.77116E-01  3.86291E-01  3.95690E-01  4.05317E-01
#           4.15179E-01  4.25281E-01  4.35628E-01  4.46227E-01  4.57084E-01
#           4.68205E-01  4.79597E-01  4.91266E-01  5.03219E-01  5.15463E-01
#           5.28005E-01  5.40851E-01  5.54011E-01  5.67490E-01  5.81298E-01
#           5.95441E-01  6.09929E-01  6.24769E-01  6.39970E-01  6.55541E-01
#           6.71491E-01  6.87828E-01  7.04564E-01  7.21706E-01  7.39266E-01
#           7.57253E-01  7.75678E-01  7.94551E-01  8.13883E-01  8.33685E-01
#           8.53969E-01  8.74747E-01  8.96030E-01  9.17831E-01  9.40163E-01
#           9.63038E-01  9.86469E-01  1.01047E+00  1.03506E+00  1.06024E+00
#           1.08604E+00  1.11246E+00  1.13953E+00  1.16725E+00  1.19565E+00
#           1.22474E+00  1.25454E+00  1.28507E+00  1.31633E+00  1.34836E+00
#           1.38117E+00  1.41477E+00  1.44920E+00  1.48446E+00  1.52057E+00
#           1.55757E+00  1.59547E+00  1.63429E+00  1.67405E+00  1.71478E+00
#           1.75650E+00  1.79924E+00  1.84302E+00  1.88786E+00  1.93379E+00
#           1.98084E+00  2.02904E+00  2.07841E+00  2.12898E+00  2.18078E+00
#           2.23384E+00  2.28819E+00  2.34386E+00  2.40089E+00  2.45930E+00
#           2.51914E+00  2.58043E+00  2.64322E+00  2.70753E+00  2.77341E+00
#           2.84088E+00  2.91001E+00  2.98081E+00  3.05333E+00  3.12762E+00
#           3.20372E+00  3.28167E+00  3.36152E+00  3.44330E+00  3.52708E+00
#           3.61290E+00  3.70080E+00  3.79085E+00  3.88308E+00  3.97756E+00
#           4.07434E+00  4.17347E+00  4.27501E+00  4.37903E+00  4.48557E+00
#           4.59471E+00  4.70650E+00  4.82102E+00  4.93832E+00  5.05847E+00
#           5.18155E+00  5.30762E+00  5.43676E+00  5.56904E+00  5.70453E+00
#           5.84333E+00  5.98550E+00  6.13114E+00  6.28031E+00  6.43312E+00
#           6.58964E+00  6.74997E+00  6.91420E+00  7.08243E+00  7.25475E+00
#           7.43126E+00  7.61207E+00  7.79728E+00  7.98700E+00  8.18133E+00
#           8.38038E+00  8.58428E+00  8.79315E+00  9.00709E+00  9.22624E+00
#           9.45072E+00  9.68067E+00  9.91620E+00  1.01575E+01  1.04046E+01
#           1.06578E+01  1.09171E+01  1.11827E+01  1.14548E+01  1.17335E+01
#           1.20190E+01  1.23114E+01  1.26109E+01  1.29178E+01  1.32321E+01
#           1.35540E+01  1.38838E+01  1.42216E+01  1.45676E+01  1.49221E+01
#           1.52851E+01  1.56570E+01  1.60380E+01  1.64282E+01  1.68279E+01
#           1.72374E+01  1.76568E+01  1.80864E+01  1.85264E+01  1.89772E+01
#           1.94389E+01  1.99119E+01  2.03963E+01  2.08926E+01  2.14009E+01
#           2.19216E+01  2.24550E+01  2.30014E+01  2.35610E+01  2.41343E+01
#           2.47215E+01  2.53230E+01  2.59391E+01  2.65702E+01  2.72167E+01
#           2.78789E+01  2.85572E+01  2.92520E+01  2.99637E+01  3.06928E+01
#           3.14396E+01  3.22045E+01  3.29881E+01  3.37907E+01  3.46128E+01
#           3.54550E+01  3.63177E+01  3.72013E+01  3.81064E+01  3.90336E+01
#           3.99833E+01  4.09561E+01  4.19526E+01  4.29734E+01  4.40189E+01
#           4.50900E+01  4.61870E+01  4.73108E+01  4.84619E+01  4.96410E+01
#           5.08488E+01  5.20860E+01  5.33533E+01  5.46514E+01  5.59812E+01
#           5.73432E+01  5.87384E+01  6.01676E+01  6.16315E+01  6.31311E+01
#           6.46671E+01  6.62405E+01  6.78522E+01  6.95031E+01  7.11941E+01
#           7.29263E+01  7.47007E+01  7.65182E+01  7.83800E+01  8.02870E+01
#           8.22405E+01  8.42414E+01  8.62911E+01  8.83906E+01  9.05412E+01
#           9.27442E+01  9.50007E+01  9.73122E+01  9.96799E+01  1.02105E+02
#           1.04589E+02  1.07134E+02  1.09741E+02  1.12411E+02  1.15146E+02
#           1.17948E+02  1.20817E+02  1.23757E+02  1.26768E+02  1.29852E+02
#           1.33012E+02  1.36248E+02  1.39563E+02  1.42959E+02  1.46437E+02
#           1.50000E+02
     unit =    2            # unit is [1/cm^2/(MeV/n)/source]
     axis =  eng            # axis of output
     file = detector-26.out  # file name of output for the above axis
   output = f-curr          # surface crossing forward current spectrum
     part =  neutron  
# kf/name :  2112     
#    used :        main (  %)        temp (  %)       total (  %)
#  memory :         414 (  0)           0 (  0)         414 (  0)

#------------------------------------------------------------------------------
#newpage:
#   no. =    1   reg = 125 - 225

x: Energy [MeV/n]
y:  F-Curr [1/cm^2/(MeV/n)/source]         
p: xlog ylog afac(0.8) form(0.9)
h: n            x            y(neutron ),hh0l   n 
#  e-lower      e-upper      neutron     r.err 
   1.0000E-02   1.0243E-02   9.9619E-04  0.0908
   1.0243E-02   1.0493E-02   9.3600E-04  0.0924
   1.0493E-02   1.0748E-02   9.0597E-04  0.0928
   1.0748E-02   1.1009E-02   8.6162E-04  0.0941
   1.1009E-02   1.1277E-02   8.7477E-04  0.0923
   1.1277E-02   1.1552E-02   7.8945E-04  0.0960
   1.1552E-02   1.1833E-02   9.7133E-04  0.0855
   1.1833E-02   1.2121E-02   7.9195E-04  0.0937
   1.2121E-02   1.2415E-02   6.7443E-04  0.1001
   1.2415E-02   1.2718E-02   8.4643E-04  0.0883
   1.2718E-02   1.3027E-02   7.8959E-04  0.0904
   1.3027E-02   1.3344E-02   7.2881E-04  0.0929
   1.3344E-02   1.3669E-02   8.0605E-04  0.0872
   1.3669E-02   1.4001E-02   7.0014E-04  0.0925
   1.4001E-02   1.4342E-02   7.1731E-04  0.0904
   1.4342E-02   1.4691E-02   7.8231E-04  0.0855
   1.4691E-02   1.5048E-02   7.3309E-04  0.0870
   1.5048E-02   1.5414E-02   6.4360E-04  0.0919
   1.5414E-02   1.5789E-02   7.2248E-04  0.0858
   1.5789E-02   1.6174E-02   7.2960E-04  0.0843
   1.6174E-02   1.6567E-02   7.2999E-04  0.0833
   1.6567E-02   1.6970E-02   6.5164E-04  0.0872
   1.6970E-02   1.7383E-02   6.9993E-04  0.0830
   1.7383E-02   1.7806E-02   5.5073E-04  0.0925
   1.7806E-02   1.8239E-02   6.2485E-04  0.0859
   1.8239E-02   1.8683E-02   6.3403E-04  0.0842
   1.8683E-02   1.9138E-02   6.3253E-04  0.0833
   1.9138E-02   1.9603E-02   5.6392E-04  0.0870
   1.9603E-02   2.0080E-02   5.6461E-04  0.0861
   2.0080E-02   2.0569E-02   5.3017E-04  0.0876
   2.0569E-02   2.1069E-02   5.0417E-04  0.0888
   2.1069E-02   2.1582E-02   5.9497E-04  0.0809
   2.1582E-02   2.2107E-02   4.4753E-04  0.0922
   2.2107E-02   2.2645E-02   4.4379E-04  0.0912
   2.2645E-02   2.3196E-02   5.0817E-04  0.0843
   2.3196E-02   2.3760E-02   4.1045E-04  0.0927
   2.3760E-02   2.4338E-02   4.4005E-04  0.0886
   2.4338E-02   2.4930E-02   4.6857E-04  0.0847
   2.4930E-02   2.5537E-02   4.7358E-04  0.0833
   2.5537E-02   2.6158E-02   4.2894E-04  0.0863
   2.6158E-02   2.6795E-02   4.9229E-04  0.0798
   2.6795E-02   2.7447E-02   4.5020E-04  0.0824
   2.7447E-02   2.8114E-02   3.6495E-04  0.0904
   2.8114E-02   2.8799E-02   4.1079E-04  0.0843
   2.8799E-02   2.9499E-02   3.9819E-04  0.0845
   2.9499E-02   3.0217E-02   4.2657E-04  0.0806
   3.0217E-02   3.0952E-02   3.4217E-04  0.0888
   3.0952E-02   3.1705E-02   3.5358E-04  0.0866
   3.1705E-02   3.2477E-02   3.9449E-04  0.0810
   3.2477E-02   3.3267E-02   3.0582E-04  0.0904
   3.3267E-02   3.4076E-02   3.6183E-04  0.0825
   3.4076E-02   3.4905E-02   4.2174E-04  0.0755
   3.4905E-02   3.5755E-02   3.2099E-04  0.0856
   3.5755E-02   3.6625E-02   3.1720E-04  0.0848
   3.6625E-02   3.7516E-02   3.1305E-04  0.0846
   3.7516E-02   3.8428E-02   3.1506E-04  0.0831
   3.8428E-02   3.9363E-02   3.4688E-04  0.0785
   3.9363E-02   4.0321E-02   3.0980E-04  0.0817
   4.0321E-02   4.1302E-02   2.6467E-04  0.0875
   4.1302E-02   4.2307E-02   2.9455E-04  0.0821
   4.2307E-02   4.3337E-02   2.9166E-04  0.0814
   4.3337E-02   4.4391E-02   2.9939E-04  0.0795
   4.4391E-02   4.5471E-02   3.5738E-04  0.0718
   4.5471E-02   4.6577E-02   2.9044E-04  0.0788
   4.6577E-02   4.7711E-02   2.5502E-04  0.0831
   4.7711E-02   4.8871E-02   2.4867E-04  0.0832
   4.8871E-02   5.0061E-02   2.5281E-04  0.0814
   5.0061E-02   5.1279E-02   2.4495E-04  0.0818
   5.1279E-02   5.2526E-02   2.3887E-04  0.0816
   5.2526E-02   5.3804E-02   2.7065E-04  0.0759
   5.3804E-02   5.5113E-02   2.3719E-04  0.0800
   5.5113E-02   5.6454E-02   2.5378E-04  0.0766
   5.6454E-02   5.7828E-02   2.0532E-04  0.0840
   5.7828E-02   5.9235E-02   2.4401E-04  0.0761
   5.9235E-02   6.0676E-02   2.3614E-04  0.0766
   6.0676E-02   6.2152E-02   1.9981E-04  0.0822
   6.2152E-02   6.3665E-02   2.2896E-04  0.0758
   6.3665E-02   6.5214E-02   2.2215E-04  0.0761
   6.5214E-02   6.6800E-02   2.1530E-04  0.0764
   6.6800E-02   6.8426E-02   1.9783E-04  0.0783
   6.8426E-02   7.0090E-02   1.8712E-04  0.0799
   7.0090E-02   7.1796E-02   2.0050E-04  0.0763
   7.1796E-02   7.3543E-02   2.0909E-04  0.0739
   7.3543E-02   7.5332E-02   1.8547E-04  0.0775
   7.5332E-02   7.7165E-02   1.9205E-04  0.0751
   7.7165E-02   7.9042E-02   1.6532E-04  0.0802
   7.9042E-02   8.0965E-02   1.7385E-04  0.0772
   8.0965E-02   8.2935E-02   1.7344E-04  0.0764
   8.2935E-02   8.4953E-02   1.6317E-04  0.0777
   8.4953E-02   8.7020E-02   1.7110E-04  0.0751
   8.7020E-02   8.9138E-02   1.5950E-04  0.0767
   8.9138E-02   9.1306E-02   1.5212E-04  0.0777
   9.1306E-02   9.3528E-02   1.4642E-04  0.0783
   9.3528E-02   9.5804E-02   1.4207E-04  0.0786
   9.5804E-02   9.8134E-02   1.5383E-04  0.0746
   9.8134E-02   1.0052E-01   1.3905E-04  0.0776
   1.0052E-01   1.0297E-01   1.3588E-04  0.0774
   1.0297E-01   1.0547E-01   1.3674E-04  0.0762
   1.0547E-01   1.0804E-01   1.3195E-04  0.0768
   1.0804E-01   1.1067E-01   1.1697E-04  0.0804
   1.1067E-01   1.1336E-01   1.3081E-04  0.0752
   1.1336E-01   1.1612E-01   1.4016E-04  0.0718
   1.1612E-01   1.1894E-01   1.2983E-04  0.0736
   1.1894E-01   1.2184E-01   1.0953E-04  0.0791
   1.2184E-01   1.2480E-01   1.1253E-04  0.0773
   1.2480E-01   1.2784E-01   1.1524E-04  0.0754
   1.2784E-01   1.3095E-01   9.1759E-05  0.0835
   1.3095E-01   1.3414E-01   1.1552E-04  0.0736
   1.3414E-01   1.3740E-01   1.0878E-04  0.0749
   1.3740E-01   1.4074E-01   1.1084E-04  0.0733
   1.4074E-01   1.4417E-01   1.1914E-04  0.0699
   1.4417E-01   1.4767E-01   1.0491E-04  0.0737
   1.4767E-01   1.5127E-01   9.4977E-05  0.0765
   1.5127E-01   1.5495E-01   1.0064E-04  0.0735
   1.5495E-01   1.5872E-01   7.8608E-05  0.0820
   1.5872E-01   1.6258E-01   1.0234E-04  0.0710
   1.6258E-01   1.6654E-01   8.7185E-05  0.0761
   1.6654E-01   1.7059E-01   8.7745E-05  0.0749
   1.7059E-01   1.7474E-01   8.1567E-05  0.0768
   1.7474E-01   1.7899E-01   8.2618E-05  0.0753
   1.7899E-01   1.8334E-01   7.0555E-05  0.0806
   1.8334E-01   1.8781E-01   8.0972E-05  0.0741
   1.8781E-01   1.9237E-01   7.5489E-05  0.0759
   1.9237E-01   1.9706E-01   9.0360E-05  0.0686
   1.9706E-01   2.0185E-01   7.3247E-05  0.0754
   2.0185E-01   2.0676E-01   7.6442E-05  0.0729
   2.0676E-01   2.1179E-01   8.6366E-05  0.0677
   2.1179E-01   2.1694E-01   7.5037E-05  0.0716
   2.1694E-01   2.2222E-01   8.2711E-05  0.0676
   2.2222E-01   2.2763E-01   8.1987E-05  0.0670
   2.2763E-01   2.3317E-01   8.5447E-05  0.0649
   2.3317E-01   2.3884E-01   8.5505E-05  0.0640
   2.3884E-01   2.4465E-01   9.4845E-05  0.0601
   2.4465E-01   2.5061E-01   8.4569E-05  0.0630
   2.5061E-01   2.5670E-01   9.2003E-05  0.0595
   2.5670E-01   2.6295E-01   9.4109E-05  0.0581
   2.6295E-01   2.6935E-01   8.9466E-05  0.0588
   2.6935E-01   2.7590E-01   9.2441E-05  0.0573
   2.7590E-01   2.8261E-01   1.0582E-04  0.0529
   2.8261E-01   2.8949E-01   1.0751E-04  0.0519
   2.8949E-01   2.9653E-01   1.2046E-04  0.0484
   2.9653E-01   3.0375E-01   1.1232E-04  0.0496
   3.0375E-01   3.1114E-01   1.0760E-04  0.0500
   3.1114E-01   3.1871E-01   1.1050E-04  0.0488
   3.1871E-01   3.2646E-01   1.1974E-04  0.0463
   3.2646E-01   3.3441E-01   1.1474E-04  0.0467
   3.3441E-01   3.4254E-01   1.2959E-04  0.0435
   3.4254E-01   3.5088E-01   1.2342E-04  0.0440
   3.5088E-01   3.5941E-01   1.1966E-04  0.0441
   3.5941E-01   3.6816E-01   1.2807E-04  0.0421
   3.6816E-01   3.7712E-01   1.2642E-04  0.0420
   3.7712E-01   3.8629E-01   1.1899E-04  0.0427
   3.8629E-01   3.9569E-01   1.2405E-04  0.0413
   3.9569E-01   4.0532E-01   1.3036E-04  0.0398
   4.0532E-01   4.1518E-01   1.2705E-04  0.0398
   4.1518E-01   4.2528E-01   1.3287E-04  0.0385
   4.2528E-01   4.3563E-01   1.2852E-04  0.0387
   4.3563E-01   4.4623E-01   1.2917E-04  0.0381
   4.4623E-01   4.5708E-01   1.2958E-04  0.0376
   4.5708E-01   4.6821E-01   1.3015E-04  0.0370
   4.6821E-01   4.7960E-01   1.4032E-04  0.0352
   4.7960E-01   4.9127E-01   1.3566E-04  0.0354
   4.9127E-01   5.0322E-01   1.3157E-04  0.0355
   5.0322E-01   5.1546E-01   1.3781E-04  0.0343
   5.1546E-01   5.2800E-01   1.4451E-04  0.0331
   5.2800E-01   5.4085E-01   1.3394E-04  0.0340
   5.4085E-01   5.5401E-01   1.3666E-04  0.0332
   5.5401E-01   5.6749E-01   1.3479E-04  0.0331
   5.6749E-01   5.8130E-01   1.3625E-04  0.0325
   5.8130E-01   5.9544E-01   1.3573E-04  0.0322
   5.9544E-01   6.0993E-01   1.3186E-04  0.0322
   6.0993E-01   6.2477E-01   1.3287E-04  0.0317
   6.2477E-01   6.3997E-01   1.2998E-04  0.0317
   6.3997E-01   6.5554E-01   1.2670E-04  0.0317
   6.5554E-01   6.7149E-01   1.3627E-04  0.0302
   6.7149E-01   6.8783E-01   1.3100E-04  0.0305
   6.8783E-01   7.0456E-01   1.2656E-04  0.0306
   7.0456E-01   7.2171E-01   1.2775E-04  0.0301
   7.2171E-01   7.3927E-01   1.2659E-04  0.0299
   7.3927E-01   7.5725E-01   1.3032E-04  0.0291
   7.5725E-01   7.7568E-01   1.2509E-04  0.0293
   7.7568E-01   7.9455E-01   1.2551E-04  0.0289
   7.9455E-01   8.1388E-01   1.2022E-04  0.0292
   8.1388E-01   8.3368E-01   1.1948E-04  0.0290
   8.3368E-01   8.5397E-01   1.1581E-04  0.0290
   8.5397E-01   8.7475E-01   1.1610E-04  0.0287
   8.7475E-01   8.9603E-01   1.1361E-04  0.0286
   8.9603E-01   9.1783E-01   1.0729E-04  0.0291
   9.1783E-01   9.4016E-01   1.0700E-04  0.0288
   9.4016E-01   9.6304E-01   1.0057E-04  0.0294
   9.6304E-01   9.8647E-01   9.4610E-05  0.0299
   9.8647E-01   1.0105E+00   9.6996E-05  0.0292
   1.0105E+00   1.0351E+00   9.4015E-05  0.0293
   1.0351E+00   1.0602E+00   9.0829E-05  0.0294
   1.0602E+00   1.0860E+00   8.5866E-05  0.0299
   1.0860E+00   1.1125E+00   8.6365E-05  0.0295
   1.1125E+00   1.1395E+00   8.9407E-05  0.0286
   1.1395E+00   1.1673E+00   8.6623E-05  0.0287
   1.1673E+00   1.1957E+00   9.1712E-05  0.0276
   1.1957E+00   1.2247E+00   8.6265E-05  0.0281
   1.2247E+00   1.2545E+00   8.8995E-05  0.0273
   1.2545E+00   1.2851E+00   8.5476E-05  0.0275
   1.2851E+00   1.3163E+00   8.0576E-05  0.0280
   1.3163E+00   1.3484E+00   8.2620E-05  0.0273
   1.3484E+00   1.3812E+00   8.2132E-05  0.0271
   1.3812E+00   1.4148E+00   8.2701E-05  0.0267
   1.4148E+00   1.4492E+00   7.5110E-05  0.0276
   1.4492E+00   1.4845E+00   7.5911E-05  0.0272
   1.4845E+00   1.5206E+00   7.4927E-05  0.0270
   1.5206E+00   1.5576E+00   7.1659E-05  0.0273
   1.5576E+00   1.5955E+00   7.2958E-05  0.0267
   1.5955E+00   1.6343E+00   7.0664E-05  0.0269
   1.6343E+00   1.6741E+00   7.0230E-05  0.0266
   1.6741E+00   1.7148E+00   6.7993E-05  0.0267
   1.7148E+00   1.7565E+00   6.5646E-05  0.0269
   1.7565E+00   1.7992E+00   6.7701E-05  0.0261
   1.7992E+00   1.8430E+00   6.1931E-05  0.0270
   1.8430E+00   1.8879E+00   6.0648E-05  0.0269
   1.8879E+00   1.9338E+00   6.0411E-05  0.0267
   1.9338E+00   1.9808E+00   5.6013E-05  0.0274
   1.9808E+00   2.0290E+00   5.5663E-05  0.0271
   2.0290E+00   2.0784E+00   5.7105E-05  0.0264
   2.0784E+00   2.1290E+00   5.2694E-05  0.0272
   2.1290E+00   2.1808E+00   5.1629E-05  0.0272
   2.1808E+00   2.2338E+00   5.1531E-05  0.0269
   2.2338E+00   2.2882E+00   5.0516E-05  0.0268
   2.2882E+00   2.3439E+00   4.9335E-05  0.0268
   2.3439E+00   2.4009E+00   4.8785E-05  0.0266
   2.4009E+00   2.4593E+00   4.3116E-05  0.0279
   2.4593E+00   2.5191E+00   4.6362E-05  0.0266
   2.5191E+00   2.5804E+00   4.5656E-05  0.0265
   2.5804E+00   2.6432E+00   4.2718E-05  0.0271
   2.6432E+00   2.7075E+00   4.4127E-05  0.0264
   2.7075E+00   2.7734E+00   3.9872E-05  0.0274
   2.7734E+00   2.8409E+00   3.9885E-05  0.0271
   2.8409E+00   2.9100E+00   4.0936E-05  0.0264
   2.9100E+00   2.9808E+00   3.8078E-05  0.0270
   2.9808E+00   3.0533E+00   3.7171E-05  0.0270
   3.0533E+00   3.1276E+00   3.7291E-05  0.0267
   3.1276E+00   3.2037E+00   3.6665E-05  0.0266
   3.2037E+00   3.2817E+00   3.5556E-05  0.0267
   3.2817E+00   3.3615E+00   3.4011E-05  0.0270
   3.3615E+00   3.4433E+00   3.3471E-05  0.0268
   3.4433E+00   3.5271E+00   3.3640E-05  0.0265
   3.5271E+00   3.6129E+00   3.1952E-05  0.0268
   3.6129E+00   3.7008E+00   3.1107E-05  0.0269
   3.7008E+00   3.7908E+00   3.0915E-05  0.0266
   3.7908E+00   3.8831E+00   2.9419E-05  0.0270
   3.8831E+00   3.9776E+00   2.8954E-05  0.0269
   3.9776E+00   4.0743E+00   2.7312E-05  0.0273
   4.0743E+00   4.1735E+00   2.8498E-05  0.0264
   4.1735E+00   4.2750E+00   2.6813E-05  0.0269
   4.2750E+00   4.3790E+00   2.5542E-05  0.0272
   4.3790E+00   4.4856E+00   2.6887E-05  0.0263
   4.4856E+00   4.5947E+00   2.5038E-05  0.0269
   4.5947E+00   4.7065E+00   2.4143E-05  0.0271
   4.7065E+00   4.8210E+00   2.3748E-05  0.0270
   4.8210E+00   4.9383E+00   2.1175E-05  0.0282
   4.9383E+00   5.0585E+00   2.0915E-05  0.0280
   5.0585E+00   5.1815E+00   2.0026E-05  0.0283
   5.1815E+00   5.3076E+00   1.9696E-05  0.0282
   5.3076E+00   5.4368E+00   1.8970E-05  0.0284
   5.4368E+00   5.5690E+00   1.8943E-05  0.0281
   5.5690E+00   5.7045E+00   1.7291E-05  0.0291
   5.7045E+00   5.8433E+00   1.7626E-05  0.0285
   5.8433E+00   5.9855E+00   1.6339E-05  0.0292
   5.9855E+00   6.1311E+00   1.6270E-05  0.0289
   6.1311E+00   6.2803E+00   1.5866E-05  0.0290
   6.2803E+00   6.4331E+00   1.4806E-05  0.0296
   6.4331E+00   6.5896E+00   1.4428E-05  0.0296
   6.5896E+00   6.7500E+00   1.3680E-05  0.0301
   6.7500E+00   6.9142E+00   1.3174E-05  0.0303
   6.9142E+00   7.0824E+00   1.3401E-05  0.0297
   7.0824E+00   7.2548E+00   1.2534E-05  0.0303
   7.2548E+00   7.4313E+00   1.0903E-05  0.0321
   7.4313E+00   7.6121E+00   1.0658E-05  0.0321
   7.6121E+00   7.7973E+00   1.0393E-05  0.0322
   7.7973E+00   7.9870E+00   1.0297E-05  0.0319
   7.9870E+00   8.1813E+00   9.4304E-06  0.0330
   8.1813E+00   8.3804E+00   8.7723E-06  0.0337
   8.3804E+00   8.5843E+00   8.1739E-06  0.0345
   8.5843E+00   8.7931E+00   8.5751E-06  0.0334
   8.7931E+00   9.0071E+00   7.4239E-06  0.0354
   9.0071E+00   9.2262E+00   6.9448E-06  0.0362
   9.2262E+00   9.4507E+00   7.3745E-06  0.0347
   9.4507E+00   9.6807E+00   6.5481E-06  0.0364
   9.6807E+00   9.9162E+00   6.6211E-06  0.0357
   9.9162E+00   1.0157E+01   6.1654E-06  0.0366
   1.0157E+01   1.0405E+01   5.7122E-06  0.0376
   1.0405E+01   1.0658E+01   5.7828E-06  0.0369
   1.0658E+01   1.0917E+01   5.6301E-06  0.0370
   1.0917E+01   1.1183E+01   5.7763E-06  0.0361
   1.1183E+01   1.1455E+01   5.1940E-06  0.0376
   1.1455E+01   1.1733E+01   5.0355E-06  0.0377
   1.1733E+01   1.2019E+01   4.6114E-06  0.0389
   1.2019E+01   1.2311E+01   4.5369E-06  0.0388
   1.2311E+01   1.2611E+01   4.0405E-06  0.0406
   1.2611E+01   1.2918E+01   3.6885E-06  0.0420
   1.2918E+01   1.3232E+01   3.5247E-06  0.0424
   1.3232E+01   1.3554E+01   3.5286E-06  0.0419
   1.3554E+01   1.3884E+01   3.1413E-06  0.0439
   1.3884E+01   1.4222E+01   2.9264E-06  0.0449
   1.4222E+01   1.4568E+01   2.7101E-06  0.0461
   1.4568E+01   1.4922E+01   2.6136E-06  0.0465
   1.4922E+01   1.5285E+01   2.1372E-06  0.0507
   1.5285E+01   1.5657E+01   2.1073E-06  0.0505
   1.5657E+01   1.6038E+01   1.9399E-06  0.0520
   1.6038E+01   1.6428E+01   1.7495E-06  0.0541
   1.6428E+01   1.6828E+01   1.6231E-06  0.0555
   1.6828E+01   1.7237E+01   1.3775E-06  0.0595
   1.7237E+01   1.7657E+01   1.2303E-06  0.0623
   1.7657E+01   1.8086E+01   1.2896E-06  0.0601
   1.8086E+01   1.8526E+01   1.2203E-06  0.0610
   1.8526E+01   1.8977E+01   1.1656E-06  0.0616
   1.8977E+01   1.9439E+01   9.1894E-07  0.0686
   1.9439E+01   1.9912E+01   8.7956E-07  0.0693
   1.9912E+01   2.0396E+01   8.5454E-07  0.0695
   2.0396E+01   2.0893E+01   7.6976E-07  0.0724
   2.0893E+01   2.1401E+01   6.8459E-07  0.0758
   2.1401E+01   2.1922E+01   6.2992E-07  0.0781
   2.1922E+01   2.2455E+01   5.3996E-07  0.0833
   2.2455E+01   2.3001E+01   5.0517E-07  0.0851
   2.3001E+01   2.3561E+01   4.2170E-07  0.0921
   2.3561E+01   2.4134E+01   4.0819E-07  0.0925
   2.4134E+01   2.4721E+01   3.7466E-07  0.0953
   2.4721E+01   2.5323E+01   2.9593E-07  0.1060
   2.5323E+01   2.5939E+01   3.0513E-07  0.1031
   2.5939E+01   2.6570E+01   2.6303E-07  0.1098
   2.6570E+01   2.7217E+01   2.1347E-07  0.1204
   2.7217E+01   2.7879E+01   1.8725E-07  0.1270
   2.7879E+01   2.8557E+01   1.4153E-07  0.1443
   2.8557E+01   2.9252E+01   2.0149E-07  0.1195
   2.9252E+01   2.9964E+01   1.0678E-07  0.1622
   2.9964E+01   3.0693E+01   1.1796E-07  0.1525
   3.0693E+01   3.1440E+01   1.0980E-07  0.1562
   3.1440E+01   3.2205E+01   9.9353E-08  0.1622
   3.2205E+01   3.2988E+01   8.9336E-08  0.1690
   3.2988E+01   3.3791E+01   7.4755E-08  0.1826
   3.3791E+01   3.4613E+01   5.8383E-08  0.2041
   3.4613E+01   3.5455E+01   5.9371E-08  0.2000
   3.5455E+01   3.6318E+01   6.0279E-08  0.1961
   3.6318E+01   3.7201E+01   4.0741E-08  0.2357
   3.7201E+01   3.8106E+01   1.3258E-08  0.4082
   3.8106E+01   3.9034E+01   2.5886E-08  0.2887
   3.9034E+01   3.9983E+01   1.2635E-08  0.4082
   3.9983E+01   4.0956E+01   2.2615E-08  0.3015
   4.0956E+01   4.1953E+01   1.2042E-08  0.4082
   4.1953E+01   4.2973E+01   1.1756E-08  0.4082
   4.2973E+01   4.4019E+01   2.1041E-08  0.3015
   4.4019E+01   4.5090E+01   1.4939E-08  0.3536
   4.5090E+01   4.6187E+01   7.2921E-09  0.5000
   4.6187E+01   4.7311E+01   1.0678E-08  0.4082
   4.7311E+01   4.8462E+01   1.0425E-08  0.4082
   4.8462E+01   4.9641E+01   0.0000E+00  0.0000
   4.9641E+01   5.0849E+01   3.3118E-09  0.7071
   5.0849E+01   5.2086E+01   4.8497E-09  0.5774
   5.2086E+01   5.3353E+01   7.8908E-09  0.4472
   5.3353E+01   5.4651E+01   6.1627E-09  0.5000
   5.4651E+01   5.5981E+01   3.0082E-09  0.7071
   5.5981E+01   5.7343E+01   1.4684E-09  1.0000
   5.7343E+01   5.8738E+01   1.4335E-09  1.0000
   5.8738E+01   6.0168E+01   2.7989E-09  0.7071
   6.0168E+01   6.1632E+01   1.3662E-09  1.0000
   6.1632E+01   6.3131E+01   0.0000E+00  0.0000
   6.3131E+01   6.4667E+01   0.0000E+00  0.0000
   6.4667E+01   6.6240E+01   0.0000E+00  0.0000
   6.6240E+01   6.7852E+01   0.0000E+00  0.0000
   6.7852E+01   6.9503E+01   0.0000E+00  0.0000
   6.9503E+01   7.1194E+01   0.0000E+00  0.0000
   7.1194E+01   7.2926E+01   0.0000E+00  0.0000
   7.2926E+01   7.4701E+01   0.0000E+00  0.0000
   7.4701E+01   7.6518E+01   0.0000E+00  0.0000
   7.6518E+01   7.8380E+01   0.0000E+00  0.0000
   7.8380E+01   8.0287E+01   0.0000E+00  0.0000
   8.0287E+01   8.2240E+01   0.0000E+00  0.0000
   8.2240E+01   8.4241E+01   0.0000E+00  0.0000
   8.4241E+01   8.6291E+01   0.0000E+00  0.0000
   8.6291E+01   8.8391E+01   0.0000E+00  0.0000
   8.8391E+01   9.0541E+01   0.0000E+00  0.0000
   9.0541E+01   9.2744E+01   0.0000E+00  0.0000
   9.2744E+01   9.5001E+01   0.0000E+00  0.0000
   9.5001E+01   9.7312E+01   0.0000E+00  0.0000
   9.7312E+01   9.9680E+01   0.0000E+00  0.0000
   9.9680E+01   1.0211E+02   0.0000E+00  0.0000
   1.0211E+02   1.0459E+02   0.0000E+00  0.0000
   1.0459E+02   1.0713E+02   0.0000E+00  0.0000
   1.0713E+02   1.0974E+02   0.0000E+00  0.0000
   1.0974E+02   1.1241E+02   0.0000E+00  0.0000
   1.1241E+02   1.1515E+02   0.0000E+00  0.0000
   1.1515E+02   1.1795E+02   0.0000E+00  0.0000
   1.1795E+02   1.2082E+02   0.0000E+00  0.0000
   1.2082E+02   1.2376E+02   0.0000E+00  0.0000
   1.2376E+02   1.2677E+02   0.0000E+00  0.0000
   1.2677E+02   1.2985E+02   0.0000E+00  0.0000
   1.2985E+02   1.3301E+02   0.0000E+00  0.0000
   1.3301E+02   1.3625E+02   0.0000E+00  0.0000
   1.3625E+02   1.3956E+02   0.0000E+00  0.0000
   1.3956E+02   1.4296E+02   0.0000E+00  0.0000
   1.4296E+02   1.4644E+02   0.0000E+00  0.0000
   1.4644E+02   1.5000E+02   0.0000E+00  0.0000

#   sum over                 2.6960E-06
'no. =    1   reg = 125 - 225'
msuc: {\huge [t-cross] in region mesh}
msdr: {\it plotted by \ANGEL \version}
msdl: {\it calculated by \PHITS  3.26}
wt: s(0.7)
\vspace{-3}
  region surface crossing
  area  &=&   1.0000E+00 [cm^2]
e:
 
# Information for Restart Calculation
# This calculation was newly started
# istdev =  2 # 1:Batch variance, 2:History variance
# resc2  = 5.00000000000000000E+08 # Total source weight or Total source weight / maxcas
# resc3  = 5.00000000000000000E+08 # Total history number or Total batch number
# maxcas =   500000000 # History / Batch, only used for istdev=1
# bitrseed = 1101101111010011011000101101110001100110110010110001010100010001 # bit data of rseed
