[ T-Cross ]
    title = [t-cross] in region mesh
     mesh =  reg            # mesh type is region-wise
      reg =    1            # number of crossing regions
      non     r-from    r-to       area
      1       113       213        1.000000    
   e-type =    3            # e-mesh is log given by emin, emax and ne
     emin =  1.0000000E-02  # minimum value of e-mesh points
     emax =   150.0000      # maximum value of e-mesh points
#    edel =  2.4039514E-02  # mesh width of e-mesh points
       ne =    400          # number of e-mesh points
#    data = ( e(i), i = 1, ne + 1 )
#           1.00000E-02  1.02433E-02  1.04925E-02  1.07478E-02  1.10093E-02
#           1.12772E-02  1.15516E-02  1.18326E-02  1.21205E-02  1.24154E-02
#           1.27175E-02  1.30269E-02  1.33439E-02  1.36686E-02  1.40011E-02
#           1.43418E-02  1.46907E-02  1.50482E-02  1.54143E-02  1.57894E-02
#           1.61735E-02  1.65670E-02  1.69701E-02  1.73830E-02  1.78060E-02
#           1.82392E-02  1.86830E-02  1.91375E-02  1.96032E-02  2.00801E-02
#           2.05687E-02  2.10692E-02  2.15818E-02  2.21069E-02  2.26448E-02
#           2.31957E-02  2.37601E-02  2.43382E-02  2.49304E-02  2.55369E-02
#           2.61583E-02  2.67947E-02  2.74467E-02  2.81145E-02  2.87985E-02
#           2.94992E-02  3.02169E-02  3.09521E-02  3.17052E-02  3.24766E-02
#           3.32668E-02  3.40762E-02  3.49053E-02  3.57546E-02  3.66246E-02
#           3.75157E-02  3.84284E-02  3.93634E-02  4.03212E-02  4.13022E-02
#           4.23071E-02  4.33365E-02  4.43909E-02  4.54710E-02  4.65773E-02
#           4.77106E-02  4.88714E-02  5.00605E-02  5.12785E-02  5.25262E-02
#           5.38042E-02  5.51133E-02  5.64542E-02  5.78278E-02  5.92348E-02
#           6.06760E-02  6.21523E-02  6.36645E-02  6.52135E-02  6.68002E-02
#           6.84255E-02  7.00904E-02  7.17957E-02  7.35426E-02  7.53319E-02
#           7.71648E-02  7.90423E-02  8.09655E-02  8.29354E-02  8.49533E-02
#           8.70203E-02  8.91376E-02  9.13064E-02  9.35279E-02  9.58035E-02
#           9.81345E-02  1.00522E-01  1.02968E-01  1.05473E-01  1.08040E-01
#           1.10668E-01  1.13361E-01  1.16119E-01  1.18944E-01  1.21838E-01
#           1.24803E-01  1.27839E-01  1.30950E-01  1.34136E-01  1.37399E-01
#           1.40742E-01  1.44167E-01  1.47675E-01  1.51268E-01  1.54948E-01
#           1.58718E-01  1.62580E-01  1.66535E-01  1.70587E-01  1.74738E-01
#           1.78989E-01  1.83344E-01  1.87805E-01  1.92375E-01  1.97055E-01
#           2.01850E-01  2.06761E-01  2.11792E-01  2.16945E-01  2.22223E-01
#           2.27630E-01  2.33169E-01  2.38842E-01  2.44653E-01  2.50605E-01
#           2.56703E-01  2.62949E-01  2.69346E-01  2.75900E-01  2.82613E-01
#           2.89489E-01  2.96532E-01  3.03747E-01  3.11138E-01  3.18708E-01
#           3.26462E-01  3.34405E-01  3.42542E-01  3.50876E-01  3.59413E-01
#           3.68158E-01  3.77116E-01  3.86291E-01  3.95690E-01  4.05317E-01
#           4.15179E-01  4.25281E-01  4.35628E-01  4.46227E-01  4.57084E-01
#           4.68205E-01  4.79597E-01  4.91266E-01  5.03219E-01  5.15463E-01
#           5.28005E-01  5.40851E-01  5.54011E-01  5.67490E-01  5.81298E-01
#           5.95441E-01  6.09929E-01  6.24769E-01  6.39970E-01  6.55541E-01
#           6.71491E-01  6.87828E-01  7.04564E-01  7.21706E-01  7.39266E-01
#           7.57253E-01  7.75678E-01  7.94551E-01  8.13883E-01  8.33685E-01
#           8.53969E-01  8.74747E-01  8.96030E-01  9.17831E-01  9.40163E-01
#           9.63038E-01  9.86469E-01  1.01047E+00  1.03506E+00  1.06024E+00
#           1.08604E+00  1.11246E+00  1.13953E+00  1.16725E+00  1.19565E+00
#           1.22474E+00  1.25454E+00  1.28507E+00  1.31633E+00  1.34836E+00
#           1.38117E+00  1.41477E+00  1.44920E+00  1.48446E+00  1.52057E+00
#           1.55757E+00  1.59547E+00  1.63429E+00  1.67405E+00  1.71478E+00
#           1.75650E+00  1.79924E+00  1.84302E+00  1.88786E+00  1.93379E+00
#           1.98084E+00  2.02904E+00  2.07841E+00  2.12898E+00  2.18078E+00
#           2.23384E+00  2.28819E+00  2.34386E+00  2.40089E+00  2.45930E+00
#           2.51914E+00  2.58043E+00  2.64322E+00  2.70753E+00  2.77341E+00
#           2.84088E+00  2.91001E+00  2.98081E+00  3.05333E+00  3.12762E+00
#           3.20372E+00  3.28167E+00  3.36152E+00  3.44330E+00  3.52708E+00
#           3.61290E+00  3.70080E+00  3.79085E+00  3.88308E+00  3.97756E+00
#           4.07434E+00  4.17347E+00  4.27501E+00  4.37903E+00  4.48557E+00
#           4.59471E+00  4.70650E+00  4.82102E+00  4.93832E+00  5.05847E+00
#           5.18155E+00  5.30762E+00  5.43676E+00  5.56904E+00  5.70453E+00
#           5.84333E+00  5.98550E+00  6.13114E+00  6.28031E+00  6.43312E+00
#           6.58964E+00  6.74997E+00  6.91420E+00  7.08243E+00  7.25475E+00
#           7.43126E+00  7.61207E+00  7.79728E+00  7.98700E+00  8.18133E+00
#           8.38038E+00  8.58428E+00  8.79315E+00  9.00709E+00  9.22624E+00
#           9.45072E+00  9.68067E+00  9.91620E+00  1.01575E+01  1.04046E+01
#           1.06578E+01  1.09171E+01  1.11827E+01  1.14548E+01  1.17335E+01
#           1.20190E+01  1.23114E+01  1.26109E+01  1.29178E+01  1.32321E+01
#           1.35540E+01  1.38838E+01  1.42216E+01  1.45676E+01  1.49221E+01
#           1.52851E+01  1.56570E+01  1.60380E+01  1.64282E+01  1.68279E+01
#           1.72374E+01  1.76568E+01  1.80864E+01  1.85264E+01  1.89772E+01
#           1.94389E+01  1.99119E+01  2.03963E+01  2.08926E+01  2.14009E+01
#           2.19216E+01  2.24550E+01  2.30014E+01  2.35610E+01  2.41343E+01
#           2.47215E+01  2.53230E+01  2.59391E+01  2.65702E+01  2.72167E+01
#           2.78789E+01  2.85572E+01  2.92520E+01  2.99637E+01  3.06928E+01
#           3.14396E+01  3.22045E+01  3.29881E+01  3.37907E+01  3.46128E+01
#           3.54550E+01  3.63177E+01  3.72013E+01  3.81064E+01  3.90336E+01
#           3.99833E+01  4.09561E+01  4.19526E+01  4.29734E+01  4.40189E+01
#           4.50900E+01  4.61870E+01  4.73108E+01  4.84619E+01  4.96410E+01
#           5.08488E+01  5.20860E+01  5.33533E+01  5.46514E+01  5.59812E+01
#           5.73432E+01  5.87384E+01  6.01676E+01  6.16315E+01  6.31311E+01
#           6.46671E+01  6.62405E+01  6.78522E+01  6.95031E+01  7.11941E+01
#           7.29263E+01  7.47007E+01  7.65182E+01  7.83800E+01  8.02870E+01
#           8.22405E+01  8.42414E+01  8.62911E+01  8.83906E+01  9.05412E+01
#           9.27442E+01  9.50007E+01  9.73122E+01  9.96799E+01  1.02105E+02
#           1.04589E+02  1.07134E+02  1.09741E+02  1.12411E+02  1.15146E+02
#           1.17948E+02  1.20817E+02  1.23757E+02  1.26768E+02  1.29852E+02
#           1.33012E+02  1.36248E+02  1.39563E+02  1.42959E+02  1.46437E+02
#           1.50000E+02
     unit =    2            # unit is [1/cm^2/(MeV/n)/source]
     axis =  eng            # axis of output
     file = detector-14.out  # file name of output for the above axis
   output = f-curr          # surface crossing forward current spectrum
     part =  neutron  
# kf/name :  2112     
#    used :        main (  %)        temp (  %)       total (  %)
#  memory :         414 (  0)           0 (  0)         414 (  0)

#------------------------------------------------------------------------------
#newpage:
#   no. =    1   reg = 113 - 213

x: Energy [MeV/n]
y:  F-Curr [1/cm^2/(MeV/n)/source]         
p: xlog ylog afac(0.8) form(0.9)
h: n            x            y(neutron ),hh0l   n 
#  e-lower      e-upper      neutron     r.err 
   1.0000E-02   1.0243E-02   2.7702E-03  0.0545
   1.0243E-02   1.0493E-02   2.5118E-03  0.0565
   1.0493E-02   1.0748E-02   2.9456E-03  0.0516
   1.0748E-02   1.1009E-02   2.4780E-03  0.0556
   1.1009E-02   1.1277E-02   2.7626E-03  0.0520
   1.1277E-02   1.1552E-02   2.2523E-03  0.0569
   1.1552E-02   1.1833E-02   2.2629E-03  0.0561
   1.1833E-02   1.2121E-02   2.5565E-03  0.0521
   1.2121E-02   1.2415E-02   2.4957E-03  0.0521
   1.2415E-02   1.2718E-02   2.3173E-03  0.0535
   1.2718E-02   1.3027E-02   2.2105E-03  0.0541
   1.3027E-02   1.3344E-02   2.4231E-03  0.0510
   1.3344E-02   1.3669E-02   2.3409E-03  0.0513
   1.3669E-02   1.4001E-02   2.3815E-03  0.0503
   1.4001E-02   1.4342E-02   2.0783E-03  0.0531
   1.4342E-02   1.4691E-02   2.0232E-03  0.0532
   1.4691E-02   1.5048E-02   2.0255E-03  0.0526
   1.5048E-02   1.5414E-02   2.1850E-03  0.0500
   1.5414E-02   1.5789E-02   1.8985E-03  0.0530
   1.5789E-02   1.6174E-02   2.0668E-03  0.0502
   1.6174E-02   1.6567E-02   2.2108E-03  0.0479
   1.6567E-02   1.6970E-02   1.7490E-03  0.0532
   1.6970E-02   1.7383E-02   1.8842E-03  0.0507
   1.7383E-02   1.7806E-02   1.8631E-03  0.0504
   1.7806E-02   1.8239E-02   1.7219E-03  0.0518
   1.8239E-02   1.8683E-02   1.6495E-03  0.0523
   1.8683E-02   1.9138E-02   1.6323E-03  0.0519
   1.9138E-02   1.9603E-02   1.6751E-03  0.0506
   1.9603E-02   2.0080E-02   1.7234E-03  0.0493
   2.0080E-02   2.0569E-02   1.5433E-03  0.0515
   2.0569E-02   2.1069E-02   1.6905E-03  0.0486
   2.1069E-02   2.1582E-02   1.6347E-03  0.0489
   2.1582E-02   2.2107E-02   1.6911E-03  0.0475
   2.2107E-02   2.2645E-02   1.5282E-03  0.0493
   2.2645E-02   2.3196E-02   1.5028E-03  0.0491
   2.3196E-02   2.3760E-02   1.5734E-03  0.0475
   2.3760E-02   2.4338E-02   1.4703E-03  0.0485
   2.4338E-02   2.4930E-02   1.4557E-03  0.0482
   2.4930E-02   2.5537E-02   1.4013E-03  0.0485
   2.5537E-02   2.6158E-02   1.3294E-03  0.0492
   2.6158E-02   2.6795E-02   1.3701E-03  0.0479
   2.6795E-02   2.7447E-02   1.3989E-03  0.0468
   2.7447E-02   2.8114E-02   1.3866E-03  0.0465
   2.8114E-02   2.8799E-02   1.2338E-03  0.0487
   2.8799E-02   2.9499E-02   1.4186E-03  0.0449
   2.9499E-02   3.0217E-02   1.2748E-03  0.0467
   3.0217E-02   3.0952E-02   1.1942E-03  0.0477
   3.0952E-02   3.1705E-02   1.2243E-03  0.0466
   3.1705E-02   3.2477E-02   1.3041E-03  0.0446
   3.2477E-02   3.3267E-02   1.1187E-03  0.0476
   3.3267E-02   3.4076E-02   1.2182E-03  0.0450
   3.4076E-02   3.4905E-02   1.2037E-03  0.0448
   3.4905E-02   3.5755E-02   1.0974E-03  0.0463
   3.5755E-02   3.6625E-02   1.0978E-03  0.0458
   3.6625E-02   3.7516E-02   1.1604E-03  0.0440
   3.7516E-02   3.8428E-02   9.9695E-04  0.0469
   3.8428E-02   3.9363E-02   1.0738E-03  0.0446
   3.9363E-02   4.0321E-02   1.0003E-03  0.0457
   4.0321E-02   4.1302E-02   1.0132E-03  0.0449
   4.1302E-02   4.2307E-02   1.0170E-03  0.0442
   4.2307E-02   4.3337E-02   1.0375E-03  0.0433
   4.3337E-02   4.4391E-02   9.2943E-04  0.0452
   4.4391E-02   4.5471E-02   9.0550E-04  0.0452
   4.5471E-02   4.6577E-02   8.9484E-04  0.0449
   4.6577E-02   4.7711E-02   8.7005E-04  0.0450
   4.7711E-02   4.8871E-02   8.6145E-04  0.0447
   4.8871E-02   5.0061E-02   9.3349E-04  0.0424
   5.0061E-02   5.1279E-02   8.5549E-04  0.0438
   5.1279E-02   5.2526E-02   7.9510E-04  0.0449
   5.2526E-02   5.3804E-02   9.2958E-04  0.0410
   5.3804E-02   5.5113E-02   8.2500E-04  0.0430
   5.5113E-02   5.6454E-02   8.4865E-04  0.0419
   5.6454E-02   5.7828E-02   8.2995E-04  0.0419
   5.7828E-02   5.9235E-02   7.5338E-04  0.0434
   5.9235E-02   6.0676E-02   7.4103E-04  0.0433
   6.0676E-02   6.2152E-02   7.3292E-04  0.0430
   6.2152E-02   6.3665E-02   7.0096E-04  0.0434
   6.3665E-02   6.5214E-02   7.7727E-04  0.0408
   6.5214E-02   6.6800E-02   6.8066E-04  0.0430
   6.6800E-02   6.8426E-02   7.1802E-04  0.0414
   6.8426E-02   7.0090E-02   6.9916E-04  0.0415
   7.0090E-02   7.1796E-02   7.0953E-04  0.0407
   7.1796E-02   7.3543E-02   7.3733E-04  0.0394
   7.3543E-02   7.5332E-02   6.3934E-04  0.0418
   7.5332E-02   7.7165E-02   6.2961E-04  0.0416
   7.7165E-02   7.9042E-02   6.5194E-04  0.0404
   7.9042E-02   8.0965E-02   6.5205E-04  0.0399
   8.0965E-02   8.2935E-02   6.2743E-04  0.0402
   8.2935E-02   8.4953E-02   6.2045E-04  0.0400
   8.4953E-02   8.7020E-02   5.7088E-04  0.0412
   8.7020E-02   8.9138E-02   6.1872E-04  0.0391
   8.9138E-02   9.1306E-02   5.8650E-04  0.0397
   9.1306E-02   9.3528E-02   5.5277E-04  0.0404
   9.3528E-02   9.5804E-02   5.5897E-04  0.0397
   9.5804E-02   9.8134E-02   5.5642E-04  0.0393
   9.8134E-02   1.0052E-01   5.6959E-04  0.0383
   1.0052E-01   1.0297E-01   5.3643E-04  0.0390
   1.0297E-01   1.0547E-01   5.1571E-04  0.0393
   1.0547E-01   1.0804E-01   5.0424E-04  0.0393
   1.0804E-01   1.1067E-01   5.3106E-04  0.0379
   1.1067E-01   1.1336E-01   4.8131E-04  0.0393
   1.1336E-01   1.1612E-01   5.0396E-04  0.0379
   1.1612E-01   1.1894E-01   4.8279E-04  0.0383
   1.1894E-01   1.2184E-01   4.5750E-04  0.0389
   1.2184E-01   1.2480E-01   4.7969E-04  0.0375
   1.2480E-01   1.2784E-01   4.7291E-04  0.0373
   1.2784E-01   1.3095E-01   4.3306E-04  0.0385
   1.3095E-01   1.3414E-01   4.0928E-04  0.0392
   1.3414E-01   1.3740E-01   4.2591E-04  0.0379
   1.3740E-01   1.4074E-01   4.0921E-04  0.0382
   1.4074E-01   1.4417E-01   4.1000E-04  0.0377
   1.4417E-01   1.4767E-01   4.2250E-04  0.0367
   1.4767E-01   1.5127E-01   4.0244E-04  0.0372
   1.5127E-01   1.5495E-01   4.0919E-04  0.0364
   1.5495E-01   1.5872E-01   3.8355E-04  0.0372
   1.5872E-01   1.6258E-01   4.0241E-04  0.0359
   1.6258E-01   1.6654E-01   3.9892E-04  0.0356
   1.6654E-01   1.7059E-01   3.8747E-04  0.0357
   1.7059E-01   1.7474E-01   3.9224E-04  0.0350
   1.7474E-01   1.7899E-01   3.6128E-04  0.0361
   1.7899E-01   1.8334E-01   3.3755E-04  0.0369
   1.8334E-01   1.8781E-01   3.4746E-04  0.0359
   1.8781E-01   1.9237E-01   3.4227E-04  0.0358
   1.9237E-01   1.9706E-01   3.3286E-04  0.0358
   1.9706E-01   2.0185E-01   3.3705E-04  0.0352
   2.0185E-01   2.0676E-01   3.2538E-04  0.0354
   2.0676E-01   2.1179E-01   3.1845E-04  0.0353
   2.1179E-01   2.1694E-01   3.1476E-04  0.0351
   2.1694E-01   2.2222E-01   3.1032E-04  0.0349
   2.2222E-01   2.2763E-01   3.1515E-04  0.0343
   2.2763E-01   2.3317E-01   2.8600E-04  0.0355
   2.3317E-01   2.3884E-01   3.1834E-04  0.0333
   2.3884E-01   2.4465E-01   2.8772E-04  0.0346
   2.4465E-01   2.5061E-01   2.8055E-04  0.0346
   2.5061E-01   2.5670E-01   2.7471E-04  0.0345
   2.5670E-01   2.6295E-01   2.8691E-04  0.0334
   2.6295E-01   2.6935E-01   2.7135E-04  0.0339
   2.6935E-01   2.7590E-01   2.6856E-04  0.0337
   2.7590E-01   2.8261E-01   2.5771E-04  0.0340
   2.8261E-01   2.8949E-01   2.5799E-04  0.0336
   2.8949E-01   2.9653E-01   2.5697E-04  0.0333
   2.9653E-01   3.0375E-01   2.7194E-04  0.0319
   3.0375E-01   3.1114E-01   2.4166E-04  0.0335
   3.1114E-01   3.1871E-01   2.4517E-04  0.0328
   3.1871E-01   3.2646E-01   2.3677E-04  0.0330
   3.2646E-01   3.3441E-01   2.2586E-04  0.0334
   3.3441E-01   3.4254E-01   2.1828E-04  0.0336
   3.4254E-01   3.5088E-01   2.2425E-04  0.0327
   3.5088E-01   3.5941E-01   2.0956E-04  0.0334
   3.5941E-01   3.6816E-01   2.1133E-04  0.0329
   3.6816E-01   3.7712E-01   1.9916E-04  0.0335
   3.7712E-01   3.8629E-01   2.1121E-04  0.0321
   3.8629E-01   3.9569E-01   2.1109E-04  0.0318
   3.9569E-01   4.0532E-01   2.0629E-04  0.0317
   4.0532E-01   4.1518E-01   1.9490E-04  0.0323
   4.1518E-01   4.2528E-01   1.8868E-04  0.0324
   4.2528E-01   4.3563E-01   1.7744E-04  0.0330
   4.3563E-01   4.4623E-01   1.8209E-04  0.0322
   4.4623E-01   4.5708E-01   1.8126E-04  0.0319
   4.5708E-01   4.6821E-01   1.6869E-04  0.0327
   4.6821E-01   4.7960E-01   1.7504E-04  0.0317
   4.7960E-01   4.9127E-01   1.6780E-04  0.0320
   4.9127E-01   5.0322E-01   1.6147E-04  0.0322
   5.0322E-01   5.1546E-01   1.5633E-04  0.0323
   5.1546E-01   5.2800E-01   1.6059E-04  0.0315
   5.2800E-01   5.4085E-01   1.4868E-04  0.0324
   5.4085E-01   5.5401E-01   1.5183E-04  0.0316
   5.5401E-01   5.6749E-01   1.4526E-04  0.0320
   5.6749E-01   5.8130E-01   1.2906E-04  0.0335
   5.8130E-01   5.9544E-01   1.4042E-04  0.0317
   5.9544E-01   6.0993E-01   1.3115E-04  0.0324
   6.0993E-01   6.2477E-01   1.3396E-04  0.0317
   6.2477E-01   6.3997E-01   1.2775E-04  0.0321
   6.3997E-01   6.5554E-01   1.3885E-04  0.0304
   6.5554E-01   6.7149E-01   1.1925E-04  0.0324
   6.7149E-01   6.8783E-01   1.2376E-04  0.0315
   6.8783E-01   7.0456E-01   1.2166E-04  0.0313
   7.0456E-01   7.2171E-01   1.1434E-04  0.0319
   7.2171E-01   7.3927E-01   1.0524E-04  0.0329
   7.3927E-01   7.5725E-01   1.0530E-04  0.0325
   7.5725E-01   7.7568E-01   1.0801E-04  0.0317
   7.7568E-01   7.9455E-01   9.7706E-05  0.0329
   7.9455E-01   8.1388E-01   1.0014E-04  0.0321
   8.1388E-01   8.3368E-01   9.6150E-05  0.0324
   8.3368E-01   8.5397E-01   9.0514E-05  0.0330
   8.5397E-01   8.7475E-01   8.8075E-05  0.0331
   8.7475E-01   8.9603E-01   8.3822E-05  0.0335
   8.9603E-01   9.1783E-01   8.3941E-05  0.0331
   9.1783E-01   9.4016E-01   7.9976E-05  0.0335
   9.4016E-01   9.6304E-01   7.4405E-05  0.0343
   9.6304E-01   9.8647E-01   7.2851E-05  0.0342
   9.8647E-01   1.0105E+00   7.2495E-05  0.0339
   1.0105E+00   1.0351E+00   6.9390E-05  0.0342
   1.0351E+00   1.0602E+00   7.3301E-05  0.0329
   1.0602E+00   1.0860E+00   7.3498E-05  0.0325
   1.0860E+00   1.1125E+00   7.2661E-05  0.0323
   1.1125E+00   1.1395E+00   7.5221E-05  0.0313
   1.1395E+00   1.1673E+00   8.2667E-05  0.0295
   1.1673E+00   1.1957E+00   7.8309E-05  0.0300
   1.1957E+00   1.2247E+00   8.5387E-05  0.0284
   1.2247E+00   1.2545E+00   8.4298E-05  0.0282
   1.2545E+00   1.2851E+00   8.2099E-05  0.0283
   1.2851E+00   1.3163E+00   8.5650E-05  0.0273
   1.3163E+00   1.3484E+00   8.6551E-05  0.0269
   1.3484E+00   1.3812E+00   8.5836E-05  0.0267
   1.3812E+00   1.4148E+00   9.0671E-05  0.0256
   1.4148E+00   1.4492E+00   8.7966E-05  0.0257
   1.4492E+00   1.4845E+00   9.1265E-05  0.0249
   1.4845E+00   1.5206E+00   8.9374E-05  0.0249
   1.5206E+00   1.5576E+00   9.3089E-05  0.0241
   1.5576E+00   1.5955E+00   9.3833E-05  0.0237
   1.5955E+00   1.6343E+00   9.3099E-05  0.0235
   1.6343E+00   1.6741E+00   9.4609E-05  0.0231
   1.6741E+00   1.7148E+00   9.6585E-05  0.0225
   1.7148E+00   1.7565E+00   9.6927E-05  0.0222
   1.7565E+00   1.7992E+00   9.7901E-05  0.0219
   1.7992E+00   1.8430E+00   9.4022E-05  0.0220
   1.8430E+00   1.8879E+00   9.9750E-05  0.0211
   1.8879E+00   1.9338E+00   9.7011E-05  0.0212
   1.9338E+00   1.9808E+00   9.4536E-05  0.0212
   1.9808E+00   2.0290E+00   9.8640E-05  0.0205
   2.0290E+00   2.0784E+00   1.0136E-04  0.0200
   2.0784E+00   2.1290E+00   9.4445E-05  0.0205
   2.1290E+00   2.1808E+00   9.2317E-05  0.0205
   2.1808E+00   2.2338E+00   9.4271E-05  0.0200
   2.2338E+00   2.2882E+00   9.6539E-05  0.0195
   2.2882E+00   2.3439E+00   9.4264E-05  0.0195
   2.3439E+00   2.4009E+00   9.5742E-05  0.0191
   2.4009E+00   2.4593E+00   9.0216E-05  0.0195
   2.4593E+00   2.5191E+00   9.1566E-05  0.0191
   2.5191E+00   2.5804E+00   8.7417E-05  0.0193
   2.5804E+00   2.6432E+00   8.5117E-05  0.0193
   2.6432E+00   2.7075E+00   8.3904E-05  0.0193
   2.7075E+00   2.7734E+00   8.1061E-05  0.0194
   2.7734E+00   2.8409E+00   8.5478E-05  0.0186
   2.8409E+00   2.9100E+00   8.3448E-05  0.0186
   2.9100E+00   2.9808E+00   8.1833E-05  0.0186
   2.9808E+00   3.0533E+00   8.2426E-05  0.0183
   3.0533E+00   3.1276E+00   7.7857E-05  0.0186
   3.1276E+00   3.2037E+00   7.6560E-05  0.0185
   3.2037E+00   3.2817E+00   7.5511E-05  0.0184
   3.2817E+00   3.3615E+00   7.2690E-05  0.0186
   3.3615E+00   3.4433E+00   6.9912E-05  0.0187
   3.4433E+00   3.5271E+00   6.8801E-05  0.0186
   3.5271E+00   3.6129E+00   6.8541E-05  0.0184
   3.6129E+00   3.7008E+00   6.5571E-05  0.0186
   3.7008E+00   3.7908E+00   6.3814E-05  0.0187
   3.7908E+00   3.8831E+00   6.4163E-05  0.0184
   3.8831E+00   3.9776E+00   6.4787E-05  0.0181
   3.9776E+00   4.0743E+00   6.0097E-05  0.0185
   4.0743E+00   4.1735E+00   5.9739E-05  0.0184
   4.1735E+00   4.2750E+00   5.6567E-05  0.0187
   4.2750E+00   4.3790E+00   5.4723E-05  0.0187
   4.3790E+00   4.4856E+00   5.3986E-05  0.0186
   4.4856E+00   4.5947E+00   5.1421E-05  0.0189
   4.5947E+00   4.7065E+00   5.1846E-05  0.0186
   4.7065E+00   4.8210E+00   5.0405E-05  0.0186
   4.8210E+00   4.9383E+00   4.8048E-05  0.0188
   4.9383E+00   5.0585E+00   4.8705E-05  0.0185
   5.0585E+00   5.1815E+00   4.6703E-05  0.0187
   5.1815E+00   5.3076E+00   4.5086E-05  0.0188
   5.3076E+00   5.4368E+00   4.3906E-05  0.0188
   5.4368E+00   5.5690E+00   4.2969E-05  0.0188
   5.5690E+00   5.7045E+00   4.0724E-05  0.0190
   5.7045E+00   5.8433E+00   4.0606E-05  0.0188
   5.8433E+00   5.9855E+00   4.0767E-05  0.0186
   5.9855E+00   6.1311E+00   3.8384E-05  0.0189
   6.1311E+00   6.2803E+00   3.7888E-05  0.0188
   6.2803E+00   6.4331E+00   3.7852E-05  0.0186
   6.4331E+00   6.5896E+00   3.7266E-05  0.0185
   6.5896E+00   6.7500E+00   3.5882E-05  0.0187
   6.7500E+00   6.9142E+00   3.4817E-05  0.0187
   6.9142E+00   7.0824E+00   3.6468E-05  0.0181
   7.0824E+00   7.2548E+00   3.4157E-05  0.0184
   7.2548E+00   7.4313E+00   3.3301E-05  0.0184
   7.4313E+00   7.6121E+00   3.2963E-05  0.0183
   7.6121E+00   7.7973E+00   3.3071E-05  0.0181
   7.7973E+00   7.9870E+00   3.2127E-05  0.0181
   7.9870E+00   8.1813E+00   3.2465E-05  0.0178
   8.1813E+00   8.3804E+00   3.1800E-05  0.0178
   8.3804E+00   8.5843E+00   3.2256E-05  0.0174
   8.5843E+00   8.7931E+00   3.0968E-05  0.0176
   8.7931E+00   9.0071E+00   3.1209E-05  0.0173
   9.0071E+00   9.2262E+00   3.0139E-05  0.0174
   9.2262E+00   9.4507E+00   3.1236E-05  0.0169
   9.4507E+00   9.6807E+00   3.0629E-05  0.0168
   9.6807E+00   9.9162E+00   3.0848E-05  0.0166
   9.9162E+00   1.0157E+01   3.1293E-05  0.0163
   1.0157E+01   1.0405E+01   3.0707E-05  0.0162
   1.0405E+01   1.0658E+01   2.9974E-05  0.0162
   1.0658E+01   1.0917E+01   3.0091E-05  0.0160
   1.0917E+01   1.1183E+01   3.0675E-05  0.0156
   1.1183E+01   1.1455E+01   2.9744E-05  0.0157
   1.1455E+01   1.1733E+01   3.0459E-05  0.0153
   1.1733E+01   1.2019E+01   3.0688E-05  0.0151
   1.2019E+01   1.2311E+01   3.1166E-05  0.0148
   1.2311E+01   1.2611E+01   3.1017E-05  0.0146
   1.2611E+01   1.2918E+01   3.1848E-05  0.0143
   1.2918E+01   1.3232E+01   3.1514E-05  0.0142
   1.3232E+01   1.3554E+01   3.2977E-05  0.0137
   1.3554E+01   1.3884E+01   3.3074E-05  0.0135
   1.3884E+01   1.4222E+01   3.2353E-05  0.0135
   1.4222E+01   1.4568E+01   3.3105E-05  0.0132
   1.4568E+01   1.4922E+01   3.3853E-05  0.0129
   1.4922E+01   1.5285E+01   3.3597E-05  0.0128
   1.5285E+01   1.5657E+01   3.4531E-05  0.0125
   1.5657E+01   1.6038E+01   3.4750E-05  0.0123
   1.6038E+01   1.6428E+01   3.4722E-05  0.0121
   1.6428E+01   1.6828E+01   3.5671E-05  0.0118
   1.6828E+01   1.7237E+01   3.6489E-05  0.0116
   1.7237E+01   1.7657E+01   3.6352E-05  0.0114
   1.7657E+01   1.8086E+01   3.6196E-05  0.0113
   1.8086E+01   1.8526E+01   3.7073E-05  0.0111
   1.8526E+01   1.8977E+01   3.7048E-05  0.0109
   1.8977E+01   1.9439E+01   3.7546E-05  0.0107
   1.9439E+01   1.9912E+01   3.7694E-05  0.0106
   1.9912E+01   2.0396E+01   6.4169E-05  0.0080
   2.0396E+01   2.0893E+01   7.1535E-05  0.0075
   2.0893E+01   2.1401E+01   7.1252E-05  0.0074
   2.1401E+01   2.1922E+01   6.8269E-05  0.0075
   2.1922E+01   2.2455E+01   6.7184E-05  0.0075
   2.2455E+01   2.3001E+01   6.5877E-05  0.0075
   2.3001E+01   2.3561E+01   6.4899E-05  0.0074
   2.3561E+01   2.4134E+01   6.4104E-05  0.0074
   2.4134E+01   2.4721E+01   6.2132E-05  0.0074
   2.4721E+01   2.5323E+01   6.0456E-05  0.0074
   2.5323E+01   2.5939E+01   5.9202E-05  0.0074
   2.5939E+01   2.6570E+01   5.8699E-05  0.0073
   2.6570E+01   2.7217E+01   5.7144E-05  0.0074
   2.7217E+01   2.7879E+01   5.4956E-05  0.0074
   2.7879E+01   2.8557E+01   5.3146E-05  0.0075
   2.8557E+01   2.9252E+01   5.2503E-05  0.0074
   2.9252E+01   2.9964E+01   5.0854E-05  0.0074
   2.9964E+01   3.0693E+01   4.9937E-05  0.0074
   3.0693E+01   3.1440E+01   4.8081E-05  0.0075
   3.1440E+01   3.2205E+01   4.6497E-05  0.0075
   3.2205E+01   3.2988E+01   4.4811E-05  0.0075
   3.2988E+01   3.3791E+01   4.3619E-05  0.0076
   3.3791E+01   3.4613E+01   4.1725E-05  0.0076
   3.4613E+01   3.5455E+01   4.0308E-05  0.0077
   3.5455E+01   3.6318E+01   3.9298E-05  0.0077
   3.6318E+01   3.7201E+01   3.7097E-05  0.0078
   3.7201E+01   3.8106E+01   3.5449E-05  0.0079
   3.8106E+01   3.9034E+01   3.3882E-05  0.0080
   3.9034E+01   3.9983E+01   3.2071E-05  0.0081
   3.9983E+01   4.0956E+01   3.0928E-05  0.0082
   4.0956E+01   4.1953E+01   2.9455E-05  0.0083
   4.1953E+01   4.2973E+01   2.8138E-05  0.0083
   4.2973E+01   4.4019E+01   2.6850E-05  0.0084
   4.4019E+01   4.5090E+01   2.5294E-05  0.0086
   4.5090E+01   4.6187E+01   2.3860E-05  0.0087
   4.6187E+01   4.7311E+01   2.2562E-05  0.0089
   4.7311E+01   4.8462E+01   2.1213E-05  0.0091
   4.8462E+01   4.9641E+01   1.9627E-05  0.0093
   4.9641E+01   5.0849E+01   1.8579E-05  0.0094
   5.0849E+01   5.2086E+01   1.7009E-05  0.0097
   5.2086E+01   5.3353E+01   1.6006E-05  0.0099
   5.3353E+01   5.4651E+01   1.4983E-05  0.0101
   5.4651E+01   5.5981E+01   1.3567E-05  0.0105
   5.5981E+01   5.7343E+01   1.2515E-05  0.0108
   5.7343E+01   5.8738E+01   1.1574E-05  0.0111
   5.8738E+01   6.0168E+01   1.0673E-05  0.0115
   6.0168E+01   6.1632E+01   9.6658E-06  0.0119
   6.1632E+01   6.3131E+01   8.7653E-06  0.0123
   6.3131E+01   6.4667E+01   8.0584E-06  0.0127
   6.4667E+01   6.6240E+01   7.0891E-06  0.0134
   6.6240E+01   6.7852E+01   6.4765E-06  0.0138
   6.7852E+01   6.9503E+01   5.8441E-06  0.0144
   6.9503E+01   7.1194E+01   5.3883E-06  0.0148
   7.1194E+01   7.2926E+01   4.8147E-06  0.0155
   7.2926E+01   7.4701E+01   4.2269E-06  0.0163
   7.4701E+01   7.6518E+01   3.7358E-06  0.0172
   7.6518E+01   7.8380E+01   3.3646E-06  0.0179
   7.8380E+01   8.0287E+01   2.8809E-06  0.0191
   8.0287E+01   8.2240E+01   2.5043E-06  0.0202
   8.2240E+01   8.4241E+01   2.0620E-06  0.0220
   8.4241E+01   8.6291E+01   1.8364E-06  0.0231
   8.6291E+01   8.8391E+01   1.5499E-06  0.0248
   8.8391E+01   9.0541E+01   1.3047E-06  0.0267
   9.0541E+01   9.2744E+01   1.2374E-06  0.0271
   9.2744E+01   9.5001E+01   1.0352E-06  0.0293
   9.5001E+01   9.7312E+01   8.2373E-07  0.0324
   9.7312E+01   9.9680E+01   6.7239E-07  0.0354
   9.9680E+01   1.0211E+02   5.6571E-07  0.0382
   1.0211E+02   1.0459E+02   4.8706E-07  0.0407
   1.0459E+02   1.0713E+02   3.9532E-07  0.0446
   1.0713E+02   1.0974E+02   3.0537E-07  0.0501
   1.0974E+02   1.1241E+02   2.6816E-07  0.0529
   1.1241E+02   1.1515E+02   2.0475E-07  0.0598
   1.1515E+02   1.1795E+02   1.7847E-07  0.0632
   1.1795E+02   1.2082E+02   1.2684E-07  0.0741
   1.2082E+02   1.2376E+02   1.0818E-07  0.0793
   1.2376E+02   1.2677E+02   7.9041E-08  0.0917
   1.2677E+02   1.2985E+02   4.9281E-08  0.1147
   1.2985E+02   1.3301E+02   3.7349E-08  0.1302
   1.3301E+02   1.3625E+02   3.5226E-08  0.1325
   1.3625E+02   1.3956E+02   1.8099E-08  0.1826
   1.3956E+02   1.4296E+02   1.4136E-08  0.2041
   1.4296E+02   1.4644E+02   1.0925E-08  0.2294
   1.4644E+02   1.5000E+02   6.1747E-09  0.3015

#   sum over                 1.7526E-05
'no. =    1   reg = 113 - 213'
msuc: {\huge [t-cross] in region mesh}
msdr: {\it plotted by \ANGEL \version}
msdl: {\it calculated by \PHITS  3.26}
wt: s(0.7)
\vspace{-3}
  region surface crossing
  area  &=&   1.0000E+00 [cm^2]
e:
 
# Information for Restart Calculation
# This calculation was newly started
# istdev =  2 # 1:Batch variance, 2:History variance
# resc2  = 5.00000000000000000E+08 # Total source weight or Total source weight / maxcas
# resc3  = 5.00000000000000000E+08 # Total history number or Total batch number
# maxcas =   500000000 # History / Batch, only used for istdev=1
# bitrseed = 1101101111010011011000101101110001100110110010110001010100010001 # bit data of rseed
