[ T-Cross ]
    title = [t-cross] in region mesh
     mesh =  reg            # mesh type is region-wise
      reg =    1            # number of crossing regions
      non     r-from    r-to       area
      1       125       225        1.000000    
   e-type =    3            # e-mesh is log given by emin, emax and ne
     emin =  1.0000000E-02  # minimum value of e-mesh points
     emax =   150.0000      # maximum value of e-mesh points
#    edel =  2.4039514E-02  # mesh width of e-mesh points
       ne =    400          # number of e-mesh points
#    data = ( e(i), i = 1, ne + 1 )
#           1.00000E-02  1.02433E-02  1.04925E-02  1.07478E-02  1.10093E-02
#           1.12772E-02  1.15516E-02  1.18326E-02  1.21205E-02  1.24154E-02
#           1.27175E-02  1.30269E-02  1.33439E-02  1.36686E-02  1.40011E-02
#           1.43418E-02  1.46907E-02  1.50482E-02  1.54143E-02  1.57894E-02
#           1.61735E-02  1.65670E-02  1.69701E-02  1.73830E-02  1.78060E-02
#           1.82392E-02  1.86830E-02  1.91375E-02  1.96032E-02  2.00801E-02
#           2.05687E-02  2.10692E-02  2.15818E-02  2.21069E-02  2.26448E-02
#           2.31957E-02  2.37601E-02  2.43382E-02  2.49304E-02  2.55369E-02
#           2.61583E-02  2.67947E-02  2.74467E-02  2.81145E-02  2.87985E-02
#           2.94992E-02  3.02169E-02  3.09521E-02  3.17052E-02  3.24766E-02
#           3.32668E-02  3.40762E-02  3.49053E-02  3.57546E-02  3.66246E-02
#           3.75157E-02  3.84284E-02  3.93634E-02  4.03212E-02  4.13022E-02
#           4.23071E-02  4.33365E-02  4.43909E-02  4.54710E-02  4.65773E-02
#           4.77106E-02  4.88714E-02  5.00605E-02  5.12785E-02  5.25262E-02
#           5.38042E-02  5.51133E-02  5.64542E-02  5.78278E-02  5.92348E-02
#           6.06760E-02  6.21523E-02  6.36645E-02  6.52135E-02  6.68002E-02
#           6.84255E-02  7.00904E-02  7.17957E-02  7.35426E-02  7.53319E-02
#           7.71648E-02  7.90423E-02  8.09655E-02  8.29354E-02  8.49533E-02
#           8.70203E-02  8.91376E-02  9.13064E-02  9.35279E-02  9.58035E-02
#           9.81345E-02  1.00522E-01  1.02968E-01  1.05473E-01  1.08040E-01
#           1.10668E-01  1.13361E-01  1.16119E-01  1.18944E-01  1.21838E-01
#           1.24803E-01  1.27839E-01  1.30950E-01  1.34136E-01  1.37399E-01
#           1.40742E-01  1.44167E-01  1.47675E-01  1.51268E-01  1.54948E-01
#           1.58718E-01  1.62580E-01  1.66535E-01  1.70587E-01  1.74738E-01
#           1.78989E-01  1.83344E-01  1.87805E-01  1.92375E-01  1.97055E-01
#           2.01850E-01  2.06761E-01  2.11792E-01  2.16945E-01  2.22223E-01
#           2.27630E-01  2.33169E-01  2.38842E-01  2.44653E-01  2.50605E-01
#           2.56703E-01  2.62949E-01  2.69346E-01  2.75900E-01  2.82613E-01
#           2.89489E-01  2.96532E-01  3.03747E-01  3.11138E-01  3.18708E-01
#           3.26462E-01  3.34405E-01  3.42542E-01  3.50876E-01  3.59413E-01
#           3.68158E-01  3.77116E-01  3.86291E-01  3.95690E-01  4.05317E-01
#           4.15179E-01  4.25281E-01  4.35628E-01  4.46227E-01  4.57084E-01
#           4.68205E-01  4.79597E-01  4.91266E-01  5.03219E-01  5.15463E-01
#           5.28005E-01  5.40851E-01  5.54011E-01  5.67490E-01  5.81298E-01
#           5.95441E-01  6.09929E-01  6.24769E-01  6.39970E-01  6.55541E-01
#           6.71491E-01  6.87828E-01  7.04564E-01  7.21706E-01  7.39266E-01
#           7.57253E-01  7.75678E-01  7.94551E-01  8.13883E-01  8.33685E-01
#           8.53969E-01  8.74747E-01  8.96030E-01  9.17831E-01  9.40163E-01
#           9.63038E-01  9.86469E-01  1.01047E+00  1.03506E+00  1.06024E+00
#           1.08604E+00  1.11246E+00  1.13953E+00  1.16725E+00  1.19565E+00
#           1.22474E+00  1.25454E+00  1.28507E+00  1.31633E+00  1.34836E+00
#           1.38117E+00  1.41477E+00  1.44920E+00  1.48446E+00  1.52057E+00
#           1.55757E+00  1.59547E+00  1.63429E+00  1.67405E+00  1.71478E+00
#           1.75650E+00  1.79924E+00  1.84302E+00  1.88786E+00  1.93379E+00
#           1.98084E+00  2.02904E+00  2.07841E+00  2.12898E+00  2.18078E+00
#           2.23384E+00  2.28819E+00  2.34386E+00  2.40089E+00  2.45930E+00
#           2.51914E+00  2.58043E+00  2.64322E+00  2.70753E+00  2.77341E+00
#           2.84088E+00  2.91001E+00  2.98081E+00  3.05333E+00  3.12762E+00
#           3.20372E+00  3.28167E+00  3.36152E+00  3.44330E+00  3.52708E+00
#           3.61290E+00  3.70080E+00  3.79085E+00  3.88308E+00  3.97756E+00
#           4.07434E+00  4.17347E+00  4.27501E+00  4.37903E+00  4.48557E+00
#           4.59471E+00  4.70650E+00  4.82102E+00  4.93832E+00  5.05847E+00
#           5.18155E+00  5.30762E+00  5.43676E+00  5.56904E+00  5.70453E+00
#           5.84333E+00  5.98550E+00  6.13114E+00  6.28031E+00  6.43312E+00
#           6.58964E+00  6.74997E+00  6.91420E+00  7.08243E+00  7.25475E+00
#           7.43126E+00  7.61207E+00  7.79728E+00  7.98700E+00  8.18133E+00
#           8.38038E+00  8.58428E+00  8.79315E+00  9.00709E+00  9.22624E+00
#           9.45072E+00  9.68067E+00  9.91620E+00  1.01575E+01  1.04046E+01
#           1.06578E+01  1.09171E+01  1.11827E+01  1.14548E+01  1.17335E+01
#           1.20190E+01  1.23114E+01  1.26109E+01  1.29178E+01  1.32321E+01
#           1.35540E+01  1.38838E+01  1.42216E+01  1.45676E+01  1.49221E+01
#           1.52851E+01  1.56570E+01  1.60380E+01  1.64282E+01  1.68279E+01
#           1.72374E+01  1.76568E+01  1.80864E+01  1.85264E+01  1.89772E+01
#           1.94389E+01  1.99119E+01  2.03963E+01  2.08926E+01  2.14009E+01
#           2.19216E+01  2.24550E+01  2.30014E+01  2.35610E+01  2.41343E+01
#           2.47215E+01  2.53230E+01  2.59391E+01  2.65702E+01  2.72167E+01
#           2.78789E+01  2.85572E+01  2.92520E+01  2.99637E+01  3.06928E+01
#           3.14396E+01  3.22045E+01  3.29881E+01  3.37907E+01  3.46128E+01
#           3.54550E+01  3.63177E+01  3.72013E+01  3.81064E+01  3.90336E+01
#           3.99833E+01  4.09561E+01  4.19526E+01  4.29734E+01  4.40189E+01
#           4.50900E+01  4.61870E+01  4.73108E+01  4.84619E+01  4.96410E+01
#           5.08488E+01  5.20860E+01  5.33533E+01  5.46514E+01  5.59812E+01
#           5.73432E+01  5.87384E+01  6.01676E+01  6.16315E+01  6.31311E+01
#           6.46671E+01  6.62405E+01  6.78522E+01  6.95031E+01  7.11941E+01
#           7.29263E+01  7.47007E+01  7.65182E+01  7.83800E+01  8.02870E+01
#           8.22405E+01  8.42414E+01  8.62911E+01  8.83906E+01  9.05412E+01
#           9.27442E+01  9.50007E+01  9.73122E+01  9.96799E+01  1.02105E+02
#           1.04589E+02  1.07134E+02  1.09741E+02  1.12411E+02  1.15146E+02
#           1.17948E+02  1.20817E+02  1.23757E+02  1.26768E+02  1.29852E+02
#           1.33012E+02  1.36248E+02  1.39563E+02  1.42959E+02  1.46437E+02
#           1.50000E+02
     unit =    2            # unit is [1/cm^2/(MeV/n)/source]
     axis =  eng            # axis of output
     file = detector-26.out  # file name of output for the above axis
   output = f-curr          # surface crossing forward current spectrum
     part =  neutron  
# kf/name :  2112     
#    used :        main (  %)        temp (  %)       total (  %)
#  memory :         414 (  0)           0 (  0)         414 (  0)

#------------------------------------------------------------------------------
#newpage:
#   no. =    1   reg = 125 - 225

x: Energy [MeV/n]
y:  F-Curr [1/cm^2/(MeV/n)/source]         
p: xlog ylog afac(0.8) form(0.9)
h: n            x            y(neutron ),hh0l   n 
#  e-lower      e-upper      neutron     r.err 
   1.0000E-02   1.0243E-02   5.6078E-04  0.0383
   1.0243E-02   1.0493E-02   6.1229E-04  0.0362
   1.0493E-02   1.0748E-02   5.8991E-04  0.0364
   1.0748E-02   1.1009E-02   5.8278E-04  0.0362
   1.1009E-02   1.1277E-02   5.8686E-04  0.0357
   1.1277E-02   1.1552E-02   5.7438E-04  0.0356
   1.1552E-02   1.1833E-02   5.6358E-04  0.0355
   1.1833E-02   1.2121E-02   5.5575E-04  0.0354
   1.2121E-02   1.2415E-02   5.4120E-04  0.0354
   1.2415E-02   1.2718E-02   5.5561E-04  0.0345
   1.2718E-02   1.3027E-02   5.9853E-04  0.0329
   1.3027E-02   1.3344E-02   5.4307E-04  0.0341
   1.3344E-02   1.3669E-02   6.0493E-04  0.0319
   1.3669E-02   1.4001E-02   5.7853E-04  0.0322
   1.4001E-02   1.4342E-02   5.8268E-04  0.0317
   1.4342E-02   1.4691E-02   5.6627E-04  0.0318
   1.4691E-02   1.5048E-02   5.8092E-04  0.0310
   1.5048E-02   1.5414E-02   5.7738E-04  0.0308
   1.5414E-02   1.5789E-02   5.6055E-04  0.0308
   1.5789E-02   1.6174E-02   5.7943E-04  0.0300
   1.6174E-02   1.6567E-02   5.8753E-04  0.0294
   1.6567E-02   1.6970E-02   5.6351E-04  0.0297
   1.6970E-02   1.7383E-02   6.0449E-04  0.0283
   1.7383E-02   1.7806E-02   5.6462E-04  0.0289
   1.7806E-02   1.8239E-02   5.6967E-04  0.0285
   1.8239E-02   1.8683E-02   5.8138E-04  0.0278
   1.8683E-02   1.9138E-02   5.6943E-04  0.0278
   1.9138E-02   1.9603E-02   5.8860E-04  0.0270
   1.9603E-02   2.0080E-02   5.6712E-04  0.0272
   2.0080E-02   2.0569E-02   5.8334E-04  0.0265
   2.0569E-02   2.1069E-02   5.6967E-04  0.0265
   2.1069E-02   2.1582E-02   5.6439E-04  0.0263
   2.1582E-02   2.2107E-02   5.7741E-04  0.0257
   2.2107E-02   2.2645E-02   5.6784E-04  0.0256
   2.2645E-02   2.3196E-02   5.5720E-04  0.0255
   2.3196E-02   2.3760E-02   5.8824E-04  0.0245
   2.3760E-02   2.4338E-02   5.8813E-04  0.0242
   2.4338E-02   2.4930E-02   5.7214E-04  0.0243
   2.4930E-02   2.5537E-02   5.8217E-04  0.0238
   2.5537E-02   2.6158E-02   5.7489E-04  0.0237
   2.6158E-02   2.6795E-02   5.7088E-04  0.0235
   2.6795E-02   2.7447E-02   5.7495E-04  0.0231
   2.7447E-02   2.8114E-02   5.7502E-04  0.0228
   2.8114E-02   2.8799E-02   5.9181E-04  0.0222
   2.8799E-02   2.9499E-02   5.8295E-04  0.0221
   2.9499E-02   3.0217E-02   5.8489E-04  0.0218
   3.0217E-02   3.0952E-02   5.4420E-04  0.0224
   3.0952E-02   3.1705E-02   5.9090E-04  0.0212
   3.1705E-02   3.2477E-02   5.8293E-04  0.0211
   3.2477E-02   3.3267E-02   5.8796E-04  0.0207
   3.3267E-02   3.4076E-02   5.5178E-04  0.0212
   3.4076E-02   3.4905E-02   5.7508E-04  0.0205
   3.4905E-02   3.5755E-02   5.7602E-04  0.0202
   3.5755E-02   3.6625E-02   5.6660E-04  0.0201
   3.6625E-02   3.7516E-02   5.7838E-04  0.0197
   3.7516E-02   3.8428E-02   5.6315E-04  0.0197
   3.8428E-02   3.9363E-02   5.8760E-04  0.0191
   3.9363E-02   4.0321E-02   5.6052E-04  0.0193
   4.0321E-02   4.1302E-02   5.8410E-04  0.0187
   4.1302E-02   4.2307E-02   5.6051E-04  0.0188
   4.2307E-02   4.3337E-02   5.7426E-04  0.0184
   4.3337E-02   4.4391E-02   5.7808E-04  0.0181
   4.4391E-02   4.5471E-02   5.8320E-04  0.0178
   4.5471E-02   4.6577E-02   5.7837E-04  0.0177
   4.6577E-02   4.7711E-02   5.8671E-04  0.0173
   4.7711E-02   4.8871E-02   5.7553E-04  0.0173
   4.8871E-02   5.0061E-02   5.6477E-04  0.0173
   5.0061E-02   5.1279E-02   5.7597E-04  0.0169
   5.1279E-02   5.2526E-02   5.7925E-04  0.0166
   5.2526E-02   5.3804E-02   5.6455E-04  0.0166
   5.3804E-02   5.5113E-02   5.8196E-04  0.0162
   5.5113E-02   5.6454E-02   5.5644E-04  0.0164
   5.6454E-02   5.7828E-02   5.7766E-04  0.0159
   5.7828E-02   5.9235E-02   5.6134E-04  0.0159
   5.9235E-02   6.0676E-02   5.5341E-04  0.0158
   6.0676E-02   6.2152E-02   5.7285E-04  0.0154
   6.2152E-02   6.3665E-02   5.5820E-04  0.0154
   6.3665E-02   6.5214E-02   5.5783E-04  0.0152
   6.5214E-02   6.6800E-02   5.5969E-04  0.0150
   6.6800E-02   6.8426E-02   5.5252E-04  0.0149
   6.8426E-02   7.0090E-02   5.6013E-04  0.0146
   7.0090E-02   7.1796E-02   5.6575E-04  0.0144
   7.1796E-02   7.3543E-02   5.4582E-04  0.0145
   7.3543E-02   7.5332E-02   5.4997E-04  0.0143
   7.5332E-02   7.7165E-02   5.5593E-04  0.0140
   7.7165E-02   7.9042E-02   5.4388E-04  0.0140
   7.9042E-02   8.0965E-02   5.4818E-04  0.0138
   8.0965E-02   8.2935E-02   5.4559E-04  0.0136
   8.2935E-02   8.4953E-02   5.4126E-04  0.0135
   8.4953E-02   8.7020E-02   5.4198E-04  0.0134
   8.7020E-02   8.9138E-02   5.4489E-04  0.0132
   8.9138E-02   9.1306E-02   5.4149E-04  0.0130
   9.1306E-02   9.3528E-02   5.4157E-04  0.0129
   9.3528E-02   9.5804E-02   5.3703E-04  0.0128
   9.5804E-02   9.8134E-02   5.4597E-04  0.0125
   9.8134E-02   1.0052E-01   5.4768E-04  0.0124
   1.0052E-01   1.0297E-01   5.4051E-04  0.0123
   1.0297E-01   1.0547E-01   5.2465E-04  0.0123
   1.0547E-01   1.0804E-01   5.3412E-04  0.0121
   1.0804E-01   1.1067E-01   5.2904E-04  0.0120
   1.1067E-01   1.1336E-01   5.2678E-04  0.0119
   1.1336E-01   1.1612E-01   5.1949E-04  0.0118
   1.1612E-01   1.1894E-01   5.2922E-04  0.0116
   1.1894E-01   1.2184E-01   5.2451E-04  0.0115
   1.2184E-01   1.2480E-01   5.2277E-04  0.0114
   1.2480E-01   1.2784E-01   5.1953E-04  0.0113
   1.2784E-01   1.3095E-01   5.2396E-04  0.0111
   1.3095E-01   1.3414E-01   5.2188E-04  0.0110
   1.3414E-01   1.3740E-01   5.1997E-04  0.0109
   1.3740E-01   1.4074E-01   5.0691E-04  0.0109
   1.4074E-01   1.4417E-01   5.0675E-04  0.0107
   1.4417E-01   1.4767E-01   5.1186E-04  0.0106
   1.4767E-01   1.5127E-01   5.2601E-04  0.0103
   1.5127E-01   1.5495E-01   5.0333E-04  0.0104
   1.5495E-01   1.5872E-01   5.0769E-04  0.0102
   1.5872E-01   1.6258E-01   4.9493E-04  0.0102
   1.6258E-01   1.6654E-01   5.0184E-04  0.0100
   1.6654E-01   1.7059E-01   4.9200E-04  0.0100
   1.7059E-01   1.7474E-01   4.9052E-04  0.0099
   1.7474E-01   1.7899E-01   4.8584E-04  0.0098
   1.7899E-01   1.8334E-01   4.8920E-04  0.0097
   1.8334E-01   1.8781E-01   4.9061E-04  0.0096
   1.8781E-01   1.9237E-01   4.7608E-04  0.0096
   1.9237E-01   1.9706E-01   4.8088E-04  0.0094
   1.9706E-01   2.0185E-01   4.8008E-04  0.0093
   2.0185E-01   2.0676E-01   4.7885E-04  0.0092
   2.0676E-01   2.1179E-01   4.7595E-04  0.0091
   2.1179E-01   2.1694E-01   4.6668E-04  0.0091
   2.1694E-01   2.2222E-01   4.7250E-04  0.0090
   2.2222E-01   2.2763E-01   4.6019E-04  0.0090
   2.2763E-01   2.3317E-01   4.6459E-04  0.0088
   2.3317E-01   2.3884E-01   4.6430E-04  0.0087
   2.3884E-01   2.4465E-01   4.5009E-04  0.0087
   2.4465E-01   2.5061E-01   4.4814E-04  0.0087
   2.5061E-01   2.5670E-01   4.4427E-04  0.0086
   2.5670E-01   2.6295E-01   4.4340E-04  0.0085
   2.6295E-01   2.6935E-01   4.3190E-04  0.0085
   2.6935E-01   2.7590E-01   4.3812E-04  0.0083
   2.7590E-01   2.8261E-01   4.3422E-04  0.0083
   2.8261E-01   2.8949E-01   4.3575E-04  0.0082
   2.8949E-01   2.9653E-01   4.2996E-04  0.0081
   2.9653E-01   3.0375E-01   4.2211E-04  0.0081
   3.0375E-01   3.1114E-01   4.1736E-04  0.0081
   3.1114E-01   3.1871E-01   4.1333E-04  0.0080
   3.1871E-01   3.2646E-01   4.0803E-04  0.0079
   3.2646E-01   3.3441E-01   4.0649E-04  0.0079
   3.3441E-01   3.4254E-01   4.0527E-04  0.0078
   3.4254E-01   3.5088E-01   3.9669E-04  0.0078
   3.5088E-01   3.5941E-01   3.9271E-04  0.0077
   3.5941E-01   3.6816E-01   3.8632E-04  0.0077
   3.6816E-01   3.7712E-01   3.8590E-04  0.0076
   3.7712E-01   3.8629E-01   3.8321E-04  0.0075
   3.8629E-01   3.9569E-01   3.7779E-04  0.0075
   3.9569E-01   4.0532E-01   3.6745E-04  0.0075
   4.0532E-01   4.1518E-01   3.6558E-04  0.0074
   4.1518E-01   4.2528E-01   3.6359E-04  0.0074
   4.2528E-01   4.3563E-01   3.5331E-04  0.0074
   4.3563E-01   4.4623E-01   3.5214E-04  0.0073
   4.4623E-01   4.5708E-01   3.4130E-04  0.0073
   4.5708E-01   4.6821E-01   3.3791E-04  0.0073
   4.6821E-01   4.7960E-01   3.3707E-04  0.0072
   4.7960E-01   4.9127E-01   3.2834E-04  0.0072
   4.9127E-01   5.0322E-01   3.2582E-04  0.0072
   5.0322E-01   5.1546E-01   3.2042E-04  0.0071
   5.1546E-01   5.2800E-01   3.1238E-04  0.0071
   5.2800E-01   5.4085E-01   3.0940E-04  0.0071
   5.4085E-01   5.5401E-01   3.0509E-04  0.0071
   5.5401E-01   5.6749E-01   2.9355E-04  0.0071
   5.6749E-01   5.8130E-01   2.9172E-04  0.0070
   5.8130E-01   5.9544E-01   2.8329E-04  0.0071
   5.9544E-01   6.0993E-01   2.7651E-04  0.0071
   6.0993E-01   6.2477E-01   2.7661E-04  0.0070
   6.2477E-01   6.3997E-01   2.6780E-04  0.0070
   6.3997E-01   6.5554E-01   2.6005E-04  0.0070
   6.5554E-01   6.7149E-01   2.5546E-04  0.0070
   6.7149E-01   6.8783E-01   2.4899E-04  0.0070
   6.8783E-01   7.0456E-01   2.4611E-04  0.0070
   7.0456E-01   7.2171E-01   2.3840E-04  0.0070
   7.2171E-01   7.3927E-01   2.3358E-04  0.0070
   7.3927E-01   7.5725E-01   2.2460E-04  0.0070
   7.5725E-01   7.7568E-01   2.1764E-04  0.0071
   7.7568E-01   7.9455E-01   2.1578E-04  0.0070
   7.9455E-01   8.1388E-01   2.0388E-04  0.0071
   8.1388E-01   8.3368E-01   2.0012E-04  0.0071
   8.3368E-01   8.5397E-01   1.9360E-04  0.0071
   8.5397E-01   8.7475E-01   1.8707E-04  0.0072
   8.7475E-01   8.9603E-01   1.7839E-04  0.0073
   8.9603E-01   9.1783E-01   1.7366E-04  0.0073
   9.1783E-01   9.4016E-01   1.6685E-04  0.0073
   9.4016E-01   9.6304E-01   1.6092E-04  0.0074
   9.6304E-01   9.8647E-01   1.5341E-04  0.0075
   9.8647E-01   1.0105E+00   1.5012E-04  0.0074
   1.0105E+00   1.0351E+00   1.4969E-04  0.0074
   1.0351E+00   1.0602E+00   1.5138E-04  0.0072
   1.0602E+00   1.0860E+00   1.5150E-04  0.0072
   1.0860E+00   1.1125E+00   1.5283E-04  0.0070
   1.1125E+00   1.1395E+00   1.5738E-04  0.0069
   1.1395E+00   1.1673E+00   1.5988E-04  0.0067
   1.1673E+00   1.1957E+00   1.6222E-04  0.0066
   1.1957E+00   1.2247E+00   1.6504E-04  0.0065
   1.2247E+00   1.2545E+00   1.6521E-04  0.0064
   1.2545E+00   1.2851E+00   1.6310E-04  0.0063
   1.2851E+00   1.3163E+00   1.6552E-04  0.0062
   1.3163E+00   1.3484E+00   1.6819E-04  0.0061
   1.3484E+00   1.3812E+00   1.6857E-04  0.0060
   1.3812E+00   1.4148E+00   1.6982E-04  0.0059
   1.4148E+00   1.4492E+00   1.7163E-04  0.0058
   1.4492E+00   1.4845E+00   1.6916E-04  0.0058
   1.4845E+00   1.5206E+00   1.6753E-04  0.0057
   1.5206E+00   1.5576E+00   1.6633E-04  0.0057
   1.5576E+00   1.5955E+00   1.6593E-04  0.0056
   1.5955E+00   1.6343E+00   1.6536E-04  0.0056
   1.6343E+00   1.6741E+00   1.6456E-04  0.0055
   1.6741E+00   1.7148E+00   1.6648E-04  0.0054
   1.7148E+00   1.7565E+00   1.6470E-04  0.0054
   1.7565E+00   1.7992E+00   1.5955E-04  0.0054
   1.7992E+00   1.8430E+00   1.5802E-04  0.0054
   1.8430E+00   1.8879E+00   1.5528E-04  0.0054
   1.8879E+00   1.9338E+00   1.5329E-04  0.0053
   1.9338E+00   1.9808E+00   1.5273E-04  0.0053
   1.9808E+00   2.0290E+00   1.4955E-04  0.0053
   2.0290E+00   2.0784E+00   1.4826E-04  0.0052
   2.0784E+00   2.1290E+00   1.4220E-04  0.0053
   2.1290E+00   2.1808E+00   1.3821E-04  0.0053
   2.1808E+00   2.2338E+00   1.3448E-04  0.0053
   2.2338E+00   2.2882E+00   1.3037E-04  0.0053
   2.2882E+00   2.3439E+00   1.2795E-04  0.0053
   2.3439E+00   2.4009E+00   1.2444E-04  0.0053
   2.4009E+00   2.4593E+00   1.2229E-04  0.0053
   2.4593E+00   2.5191E+00   1.1858E-04  0.0053
   2.5191E+00   2.5804E+00   1.1224E-04  0.0054
   2.5804E+00   2.6432E+00   1.0924E-04  0.0054
   2.6432E+00   2.7075E+00   1.0348E-04  0.0055
   2.7075E+00   2.7734E+00   9.9812E-05  0.0055
   2.7734E+00   2.8409E+00   9.6376E-05  0.0055
   2.8409E+00   2.9100E+00   9.2467E-05  0.0056
   2.9100E+00   2.9808E+00   8.8660E-05  0.0056
   2.9808E+00   3.0533E+00   8.4468E-05  0.0057
   3.0533E+00   3.1276E+00   8.0387E-05  0.0058
   3.1276E+00   3.2037E+00   7.7223E-05  0.0058
   3.2037E+00   3.2817E+00   7.2377E-05  0.0059
   3.2817E+00   3.3615E+00   6.9341E-05  0.0060
   3.3615E+00   3.4433E+00   6.6041E-05  0.0061
   3.4433E+00   3.5271E+00   6.2320E-05  0.0062
   3.5271E+00   3.6129E+00   5.8926E-05  0.0063
   3.6129E+00   3.7008E+00   5.5925E-05  0.0063
   3.7008E+00   3.7908E+00   5.2721E-05  0.0065
   3.7908E+00   3.8831E+00   4.9324E-05  0.0066
   3.8831E+00   3.9776E+00   4.6833E-05  0.0067
   3.9776E+00   4.0743E+00   4.3875E-05  0.0068
   4.0743E+00   4.1735E+00   4.1407E-05  0.0069
   4.1735E+00   4.2750E+00   3.8666E-05  0.0071
   4.2750E+00   4.3790E+00   3.6508E-05  0.0072
   4.3790E+00   4.4856E+00   3.4208E-05  0.0074
   4.4856E+00   4.5947E+00   3.1972E-05  0.0075
   4.5947E+00   4.7065E+00   3.0139E-05  0.0077
   4.7065E+00   4.8210E+00   2.8281E-05  0.0078
   4.8210E+00   4.9383E+00   2.6357E-05  0.0080
   4.9383E+00   5.0585E+00   2.4730E-05  0.0082
   5.0585E+00   5.1815E+00   2.3568E-05  0.0083
   5.1815E+00   5.3076E+00   2.1169E-05  0.0086
   5.3076E+00   5.4368E+00   1.9691E-05  0.0088
   5.4368E+00   5.5690E+00   1.8472E-05  0.0090
   5.5690E+00   5.7045E+00   1.7143E-05  0.0092
   5.7045E+00   5.8433E+00   1.5854E-05  0.0095
   5.8433E+00   5.9855E+00   1.4968E-05  0.0096
   5.9855E+00   6.1311E+00   1.3698E-05  0.0100
   6.1311E+00   6.2803E+00   1.2967E-05  0.0101
   6.2803E+00   6.4331E+00   1.1850E-05  0.0104
   6.4331E+00   6.5896E+00   1.0900E-05  0.0108
   6.5896E+00   6.7500E+00   1.0002E-05  0.0111
   6.7500E+00   6.9142E+00   9.2934E-06  0.0114
   6.9142E+00   7.0824E+00   8.4902E-06  0.0118
   7.0824E+00   7.2548E+00   7.9089E-06  0.0120
   7.2548E+00   7.4313E+00   7.3422E-06  0.0123
   7.4313E+00   7.6121E+00   6.7240E-06  0.0127
   7.6121E+00   7.7973E+00   6.0441E-06  0.0133
   7.7973E+00   7.9870E+00   5.6859E-06  0.0135
   7.9870E+00   8.1813E+00   5.1284E-06  0.0141
   8.1813E+00   8.3804E+00   4.7366E-06  0.0145
   8.3804E+00   8.5843E+00   4.4468E-06  0.0148
   8.5843E+00   8.7931E+00   3.9126E-06  0.0156
   8.7931E+00   9.0071E+00   3.7415E-06  0.0157
   9.0071E+00   9.2262E+00   3.3505E-06  0.0164
   9.2262E+00   9.4507E+00   3.0915E-06  0.0169
   9.4507E+00   9.6807E+00   2.7849E-06  0.0176
   9.6807E+00   9.9162E+00   2.5119E-06  0.0183
   9.9162E+00   1.0157E+01   2.3129E-06  0.0188
   1.0157E+01   1.0405E+01   2.0857E-06  0.0196
   1.0405E+01   1.0658E+01   1.9307E-06  0.0201
   1.0658E+01   1.0917E+01   1.7883E-06  0.0207
   1.0917E+01   1.1183E+01   1.5735E-06  0.0218
   1.1183E+01   1.1455E+01   1.4228E-06  0.0226
   1.1455E+01   1.1733E+01   1.3289E-06  0.0231
   1.1733E+01   1.2019E+01   1.1904E-06  0.0242
   1.2019E+01   1.2311E+01   1.0574E-06  0.0253
   1.2311E+01   1.2611E+01   9.9957E-07  0.0257
   1.2611E+01   1.2918E+01   9.3899E-07  0.0262
   1.2918E+01   1.3232E+01   8.3897E-07  0.0274
   1.3232E+01   1.3554E+01   7.4345E-07  0.0288
   1.3554E+01   1.3884E+01   6.6828E-07  0.0300
   1.3884E+01   1.4222E+01   6.3300E-07  0.0305
   1.4222E+01   1.4568E+01   5.5687E-07  0.0321
   1.4568E+01   1.4922E+01   5.2209E-07  0.0327
   1.4922E+01   1.5285E+01   4.6875E-07  0.0342
   1.5285E+01   1.5657E+01   4.1259E-07  0.0360
   1.5657E+01   1.6038E+01   4.1099E-07  0.0357
   1.6038E+01   1.6428E+01   3.6860E-07  0.0372
   1.6428E+01   1.6828E+01   3.4559E-07  0.0380
   1.6828E+01   1.7237E+01   3.7269E-07  0.0362
   1.7237E+01   1.7657E+01   3.0561E-07  0.0395
   1.7657E+01   1.8086E+01   2.8931E-07  0.0401
   1.8086E+01   1.8526E+01   2.4969E-07  0.0426
   1.8526E+01   1.8977E+01   2.3979E-07  0.0430
   1.8977E+01   1.9439E+01   2.1225E-07  0.0452
   1.9439E+01   1.9912E+01   2.2348E-07  0.0435
   1.9912E+01   2.0396E+01   2.0187E-07  0.0452
   2.0396E+01   2.0893E+01   1.7692E-07  0.0477
   2.0893E+01   2.1401E+01   1.6603E-07  0.0487
   2.1401E+01   2.1922E+01   1.6209E-07  0.0487
   2.1922E+01   2.2455E+01   1.5074E-07  0.0499
   2.2455E+01   2.3001E+01   1.4130E-07  0.0509
   2.3001E+01   2.3561E+01   1.3616E-07  0.0512
   2.3561E+01   2.4134E+01   1.2455E-07  0.0529
   2.4134E+01   2.4721E+01   1.1785E-07  0.0538
   2.4721E+01   2.5323E+01   1.2336E-07  0.0519
   2.5323E+01   2.5939E+01   1.0842E-07  0.0547
   2.5939E+01   2.6570E+01   1.0109E-07  0.0560
   2.6570E+01   2.7217E+01   9.9927E-08  0.0556
   2.7217E+01   2.7879E+01   8.9399E-08  0.0581
   2.7879E+01   2.8557E+01   8.4916E-08  0.0589
   2.8557E+01   2.9252E+01   7.0522E-08  0.0639
   2.9252E+01   2.9964E+01   7.9525E-08  0.0594
   2.9964E+01   3.0693E+01   6.7212E-08  0.0639
   3.0693E+01   3.1440E+01   6.3473E-08  0.0650
   3.1440E+01   3.2205E+01   6.0135E-08  0.0659
   3.2205E+01   3.2988E+01   5.1304E-08  0.0705
   3.2988E+01   3.3791E+01   5.2827E-08  0.0687
   3.3791E+01   3.4613E+01   4.4031E-08  0.0743
   3.4613E+01   3.5455E+01   3.8948E-08  0.0781
   3.5455E+01   3.6318E+01   3.4081E-08  0.0825
   3.6318E+01   3.7201E+01   2.9877E-08  0.0870
   3.7201E+01   3.8106E+01   2.8062E-08  0.0887
   3.8106E+01   3.9034E+01   3.0200E-08  0.0845
   3.9034E+01   3.9983E+01   2.6745E-08  0.0887
   3.9983E+01   4.0956E+01   2.1587E-08  0.0976
   4.0956E+01   4.1953E+01   2.1074E-08  0.0976
   4.1953E+01   4.2973E+01   1.7046E-08  0.1072
   4.2973E+01   4.4019E+01   1.4920E-08  0.1132
   4.4019E+01   4.5090E+01   1.2138E-08  0.1240
   4.5090E+01   4.6187E+01   8.9328E-09  0.1429
   4.6187E+01   4.7311E+01   9.9665E-09  0.1336
   4.7311E+01   4.8462E+01   6.7761E-09  0.1601
   4.8462E+01   4.9641E+01   4.0708E-09  0.2041
   4.9641E+01   5.0849E+01   4.9677E-09  0.1826
   5.0849E+01   5.2086E+01   3.8798E-09  0.2041
   5.2086E+01   5.3353E+01   3.3141E-09  0.2182
   5.3353E+01   5.4651E+01   3.6976E-09  0.2041
   5.4651E+01   5.5981E+01   1.6545E-09  0.3015
   5.5981E+01   5.7343E+01   8.8101E-10  0.4082
   5.7343E+01   5.8738E+01   1.0034E-09  0.3780
   5.8738E+01   6.0168E+01   1.1195E-09  0.3536
   6.0168E+01   6.1632E+01   6.8310E-10  0.4472
   6.1632E+01   6.3131E+01   6.6687E-10  0.4472
   6.3131E+01   6.4667E+01   2.6041E-10  0.7071
   6.4667E+01   6.6240E+01   2.5423E-10  0.7071
   6.6240E+01   6.7852E+01   2.4819E-10  0.7071
   6.7852E+01   6.9503E+01   1.2115E-10  1.0000
   6.9503E+01   7.1194E+01   0.0000E+00  0.0000
   7.1194E+01   7.2926E+01   0.0000E+00  0.0000
   7.2926E+01   7.4701E+01   0.0000E+00  0.0000
   7.4701E+01   7.6518E+01   0.0000E+00  0.0000
   7.6518E+01   7.8380E+01   1.0743E-10  1.0000
   7.8380E+01   8.0287E+01   1.0487E-10  1.0000
   8.0287E+01   8.2240E+01   0.0000E+00  0.0000
   8.2240E+01   8.4241E+01   0.0000E+00  0.0000
   8.4241E+01   8.6291E+01   0.0000E+00  0.0000
   8.6291E+01   8.8391E+01   0.0000E+00  0.0000
   8.8391E+01   9.0541E+01   0.0000E+00  0.0000
   9.0541E+01   9.2744E+01   0.0000E+00  0.0000
   9.2744E+01   9.5001E+01   0.0000E+00  0.0000
   9.5001E+01   9.7312E+01   0.0000E+00  0.0000
   9.7312E+01   9.9680E+01   0.0000E+00  0.0000
   9.9680E+01   1.0211E+02   0.0000E+00  0.0000
   1.0211E+02   1.0459E+02   0.0000E+00  0.0000
   1.0459E+02   1.0713E+02   0.0000E+00  0.0000
   1.0713E+02   1.0974E+02   0.0000E+00  0.0000
   1.0974E+02   1.1241E+02   0.0000E+00  0.0000
   1.1241E+02   1.1515E+02   0.0000E+00  0.0000
   1.1515E+02   1.1795E+02   0.0000E+00  0.0000
   1.1795E+02   1.2082E+02   0.0000E+00  0.0000
   1.2082E+02   1.2376E+02   0.0000E+00  0.0000
   1.2376E+02   1.2677E+02   0.0000E+00  0.0000
   1.2677E+02   1.2985E+02   0.0000E+00  0.0000
   1.2985E+02   1.3301E+02   0.0000E+00  0.0000
   1.3301E+02   1.3625E+02   0.0000E+00  0.0000
   1.3625E+02   1.3956E+02   0.0000E+00  0.0000
   1.3956E+02   1.4296E+02   0.0000E+00  0.0000
   1.4296E+02   1.4644E+02   0.0000E+00  0.0000
   1.4644E+02   1.5000E+02   0.0000E+00  0.0000

#   sum over                 5.0801E-06
'no. =    1   reg = 125 - 225'
msuc: {\huge [t-cross] in region mesh}
msdr: {\it plotted by \ANGEL \version}
msdl: {\it calculated by \PHITS  3.26}
wt: s(0.7)
\vspace{-3}
  region surface crossing
  area  &=&   1.0000E+00 [cm^2]
e:
 
# Information for Restart Calculation
# This calculation was newly started
# istdev =  2 # 1:Batch variance, 2:History variance
# resc2  = 5.00000000000000000E+09 # Total source weight or Total source weight / maxcas
# resc3  = 5.00000000000000000E+09 # Total history number or Total batch number
# maxcas =   100000000 # History / Batch, only used for istdev=1
# bitrseed = 0110100000100010111000001110001111001110100100011111101000111001 # bit data of rseed
