[ T-Cross ]
    title = [t-cross] in region mesh
     mesh =  reg            # mesh type is region-wise
      reg =    1            # number of crossing regions
      non     r-from    r-to       area
      1       100       200        1.000000    
   e-type =    3            # e-mesh is log given by emin, emax and ne
     emin =  1.0000000E-02  # minimum value of e-mesh points
     emax =   150.0000      # maximum value of e-mesh points
#    edel =  2.4039514E-02  # mesh width of e-mesh points
       ne =    400          # number of e-mesh points
#    data = ( e(i), i = 1, ne + 1 )
#           1.00000E-02  1.02433E-02  1.04925E-02  1.07478E-02  1.10093E-02
#           1.12772E-02  1.15516E-02  1.18326E-02  1.21205E-02  1.24154E-02
#           1.27175E-02  1.30269E-02  1.33439E-02  1.36686E-02  1.40011E-02
#           1.43418E-02  1.46907E-02  1.50482E-02  1.54143E-02  1.57894E-02
#           1.61735E-02  1.65670E-02  1.69701E-02  1.73830E-02  1.78060E-02
#           1.82392E-02  1.86830E-02  1.91375E-02  1.96032E-02  2.00801E-02
#           2.05687E-02  2.10692E-02  2.15818E-02  2.21069E-02  2.26448E-02
#           2.31957E-02  2.37601E-02  2.43382E-02  2.49304E-02  2.55369E-02
#           2.61583E-02  2.67947E-02  2.74467E-02  2.81145E-02  2.87985E-02
#           2.94992E-02  3.02169E-02  3.09521E-02  3.17052E-02  3.24766E-02
#           3.32668E-02  3.40762E-02  3.49053E-02  3.57546E-02  3.66246E-02
#           3.75157E-02  3.84284E-02  3.93634E-02  4.03212E-02  4.13022E-02
#           4.23071E-02  4.33365E-02  4.43909E-02  4.54710E-02  4.65773E-02
#           4.77106E-02  4.88714E-02  5.00605E-02  5.12785E-02  5.25262E-02
#           5.38042E-02  5.51133E-02  5.64542E-02  5.78278E-02  5.92348E-02
#           6.06760E-02  6.21523E-02  6.36645E-02  6.52135E-02  6.68002E-02
#           6.84255E-02  7.00904E-02  7.17957E-02  7.35426E-02  7.53319E-02
#           7.71648E-02  7.90423E-02  8.09655E-02  8.29354E-02  8.49533E-02
#           8.70203E-02  8.91376E-02  9.13064E-02  9.35279E-02  9.58035E-02
#           9.81345E-02  1.00522E-01  1.02968E-01  1.05473E-01  1.08040E-01
#           1.10668E-01  1.13361E-01  1.16119E-01  1.18944E-01  1.21838E-01
#           1.24803E-01  1.27839E-01  1.30950E-01  1.34136E-01  1.37399E-01
#           1.40742E-01  1.44167E-01  1.47675E-01  1.51268E-01  1.54948E-01
#           1.58718E-01  1.62580E-01  1.66535E-01  1.70587E-01  1.74738E-01
#           1.78989E-01  1.83344E-01  1.87805E-01  1.92375E-01  1.97055E-01
#           2.01850E-01  2.06761E-01  2.11792E-01  2.16945E-01  2.22223E-01
#           2.27630E-01  2.33169E-01  2.38842E-01  2.44653E-01  2.50605E-01
#           2.56703E-01  2.62949E-01  2.69346E-01  2.75900E-01  2.82613E-01
#           2.89489E-01  2.96532E-01  3.03747E-01  3.11138E-01  3.18708E-01
#           3.26462E-01  3.34405E-01  3.42542E-01  3.50876E-01  3.59413E-01
#           3.68158E-01  3.77116E-01  3.86291E-01  3.95690E-01  4.05317E-01
#           4.15179E-01  4.25281E-01  4.35628E-01  4.46227E-01  4.57084E-01
#           4.68205E-01  4.79597E-01  4.91266E-01  5.03219E-01  5.15463E-01
#           5.28005E-01  5.40851E-01  5.54011E-01  5.67490E-01  5.81298E-01
#           5.95441E-01  6.09929E-01  6.24769E-01  6.39970E-01  6.55541E-01
#           6.71491E-01  6.87828E-01  7.04564E-01  7.21706E-01  7.39266E-01
#           7.57253E-01  7.75678E-01  7.94551E-01  8.13883E-01  8.33685E-01
#           8.53969E-01  8.74747E-01  8.96030E-01  9.17831E-01  9.40163E-01
#           9.63038E-01  9.86469E-01  1.01047E+00  1.03506E+00  1.06024E+00
#           1.08604E+00  1.11246E+00  1.13953E+00  1.16725E+00  1.19565E+00
#           1.22474E+00  1.25454E+00  1.28507E+00  1.31633E+00  1.34836E+00
#           1.38117E+00  1.41477E+00  1.44920E+00  1.48446E+00  1.52057E+00
#           1.55757E+00  1.59547E+00  1.63429E+00  1.67405E+00  1.71478E+00
#           1.75650E+00  1.79924E+00  1.84302E+00  1.88786E+00  1.93379E+00
#           1.98084E+00  2.02904E+00  2.07841E+00  2.12898E+00  2.18078E+00
#           2.23384E+00  2.28819E+00  2.34386E+00  2.40089E+00  2.45930E+00
#           2.51914E+00  2.58043E+00  2.64322E+00  2.70753E+00  2.77341E+00
#           2.84088E+00  2.91001E+00  2.98081E+00  3.05333E+00  3.12762E+00
#           3.20372E+00  3.28167E+00  3.36152E+00  3.44330E+00  3.52708E+00
#           3.61290E+00  3.70080E+00  3.79085E+00  3.88308E+00  3.97756E+00
#           4.07434E+00  4.17347E+00  4.27501E+00  4.37903E+00  4.48557E+00
#           4.59471E+00  4.70650E+00  4.82102E+00  4.93832E+00  5.05847E+00
#           5.18155E+00  5.30762E+00  5.43676E+00  5.56904E+00  5.70453E+00
#           5.84333E+00  5.98550E+00  6.13114E+00  6.28031E+00  6.43312E+00
#           6.58964E+00  6.74997E+00  6.91420E+00  7.08243E+00  7.25475E+00
#           7.43126E+00  7.61207E+00  7.79728E+00  7.98700E+00  8.18133E+00
#           8.38038E+00  8.58428E+00  8.79315E+00  9.00709E+00  9.22624E+00
#           9.45072E+00  9.68067E+00  9.91620E+00  1.01575E+01  1.04046E+01
#           1.06578E+01  1.09171E+01  1.11827E+01  1.14548E+01  1.17335E+01
#           1.20190E+01  1.23114E+01  1.26109E+01  1.29178E+01  1.32321E+01
#           1.35540E+01  1.38838E+01  1.42216E+01  1.45676E+01  1.49221E+01
#           1.52851E+01  1.56570E+01  1.60380E+01  1.64282E+01  1.68279E+01
#           1.72374E+01  1.76568E+01  1.80864E+01  1.85264E+01  1.89772E+01
#           1.94389E+01  1.99119E+01  2.03963E+01  2.08926E+01  2.14009E+01
#           2.19216E+01  2.24550E+01  2.30014E+01  2.35610E+01  2.41343E+01
#           2.47215E+01  2.53230E+01  2.59391E+01  2.65702E+01  2.72167E+01
#           2.78789E+01  2.85572E+01  2.92520E+01  2.99637E+01  3.06928E+01
#           3.14396E+01  3.22045E+01  3.29881E+01  3.37907E+01  3.46128E+01
#           3.54550E+01  3.63177E+01  3.72013E+01  3.81064E+01  3.90336E+01
#           3.99833E+01  4.09561E+01  4.19526E+01  4.29734E+01  4.40189E+01
#           4.50900E+01  4.61870E+01  4.73108E+01  4.84619E+01  4.96410E+01
#           5.08488E+01  5.20860E+01  5.33533E+01  5.46514E+01  5.59812E+01
#           5.73432E+01  5.87384E+01  6.01676E+01  6.16315E+01  6.31311E+01
#           6.46671E+01  6.62405E+01  6.78522E+01  6.95031E+01  7.11941E+01
#           7.29263E+01  7.47007E+01  7.65182E+01  7.83800E+01  8.02870E+01
#           8.22405E+01  8.42414E+01  8.62911E+01  8.83906E+01  9.05412E+01
#           9.27442E+01  9.50007E+01  9.73122E+01  9.96799E+01  1.02105E+02
#           1.04589E+02  1.07134E+02  1.09741E+02  1.12411E+02  1.15146E+02
#           1.17948E+02  1.20817E+02  1.23757E+02  1.26768E+02  1.29852E+02
#           1.33012E+02  1.36248E+02  1.39563E+02  1.42959E+02  1.46437E+02
#           1.50000E+02
     unit =    2            # unit is [1/cm^2/(MeV/n)/source]
     axis =  eng            # axis of output
     file = detector-01.out  # file name of output for the above axis
   output = f-curr          # surface crossing forward current spectrum
     part =  neutron  
# kf/name :  2112     
#    used :        main (  %)        temp (  %)       total (  %)
#  memory :         414 (  0)           0 (  0)         414 (  0)

#------------------------------------------------------------------------------
#newpage:
#   no. =    1   reg = 100 - 200

x: Energy [MeV/n]
y:  F-Curr [1/cm^2/(MeV/n)/source]         
p: xlog ylog afac(0.8) form(0.9)
h: n            x            y(neutron ),hh0l   n 
#  e-lower      e-upper      neutron     r.err 
   1.0000E-02   1.0243E-02   1.3700E-05  0.4472
   1.0243E-02   1.0493E-02   2.9424E-05  0.3015
   1.0493E-02   1.0748E-02   3.6559E-05  0.2673
   1.0748E-02   1.1009E-02   2.5494E-05  0.3162
   1.1009E-02   1.1277E-02   3.2355E-05  0.2774
   1.1277E-02   1.1552E-02   4.1305E-05  0.2425
   1.1552E-02   1.1833E-02   3.3208E-05  0.2673
   1.1833E-02   1.2121E-02   3.9366E-05  0.2425
   1.2121E-02   1.2415E-02   2.7128E-05  0.2887
   1.2415E-02   1.2718E-02   2.8690E-05  0.2774
   1.2718E-02   1.3027E-02   2.8009E-05  0.2774
   1.3027E-02   1.3344E-02   2.9447E-05  0.2673
   1.3344E-02   1.3669E-02   3.9014E-05  0.2294
   1.3669E-02   1.4001E-02   3.2074E-05  0.2500
   1.4001E-02   1.4342E-02   2.3484E-05  0.2887
   1.4342E-02   1.4691E-02   3.2479E-05  0.2425
   1.4691E-02   1.5048E-02   2.7977E-05  0.2582
   1.5048E-02   1.5414E-02   2.1850E-05  0.2887
   1.5414E-02   1.5789E-02   3.0219E-05  0.2425
   1.5789E-02   1.6174E-02   3.8178E-05  0.2132
   1.6174E-02   1.6567E-02   2.3718E-05  0.2673
   1.6567E-02   1.6970E-02   3.4732E-05  0.2182
   1.6970E-02   1.7383E-02   3.2292E-05  0.2236
   1.7383E-02   1.7806E-02   3.3101E-05  0.2182
   1.7806E-02   1.8239E-02   3.0776E-05  0.2236
   1.8239E-02   1.8683E-02   3.6054E-05  0.2041
   1.8683E-02   1.9138E-02   3.3731E-05  0.2085
   1.9138E-02   1.9603E-02   2.7203E-05  0.2294
   1.9603E-02   2.0080E-02   3.4943E-05  0.2000
   2.0080E-02   2.0569E-02   3.1384E-05  0.2085
   2.0569E-02   2.1069E-02   2.3978E-05  0.2357
   2.1069E-02   2.1582E-02   2.7310E-05  0.2182
   2.1582E-02   2.2107E-02   3.3009E-05  0.1961
   2.2107E-02   2.2645E-02   3.0986E-05  0.2000
   2.2645E-02   2.3196E-02   3.0250E-05  0.2000
   2.3196E-02   2.3760E-02   3.1894E-05  0.1925
   2.3760E-02   2.4338E-02   4.8434E-05  0.1543
   2.4338E-02   2.4930E-02   3.3774E-05  0.1826
   2.4930E-02   2.5537E-02   2.5279E-05  0.2085
   2.5537E-02   2.6158E-02   2.7897E-05  0.1961
   2.6158E-02   2.6795E-02   3.0377E-05  0.1857
   2.6795E-02   2.7447E-02   3.1700E-05  0.1796
   2.7447E-02   2.8114E-02   4.9915E-05  0.1414
   2.8114E-02   2.8799E-02   3.5085E-05  0.1667
   2.8799E-02   2.9499E-02   3.3300E-05  0.1690
   2.9499E-02   3.0217E-02   2.7865E-05  0.1826
   3.0217E-02   3.0952E-02   3.8085E-05  0.1543
   3.0952E-02   3.1705E-02   3.2754E-05  0.1644
   3.1705E-02   3.2477E-02   3.5433E-05  0.1562
   3.2477E-02   3.3267E-02   3.2060E-05  0.1622
   3.3267E-02   3.4076E-02   3.2946E-05  0.1581
   3.4076E-02   3.4905E-02   3.2967E-05  0.1562
   3.4905E-02   3.5755E-02   3.0614E-05  0.1601
   3.5755E-02   3.6625E-02   3.3719E-05  0.1508
   3.6625E-02   3.7516E-02   3.7407E-05  0.1414
   3.7516E-02   3.8428E-02   3.6518E-05  0.1414
   3.8428E-02   3.9363E-02   3.7790E-05  0.1374
   3.9363E-02   4.0321E-02   3.3412E-05  0.1443
   4.0321E-02   4.1302E-02   3.5336E-05  0.1387
   4.1302E-02   4.2307E-02   3.8478E-05  0.1313
   4.2307E-02   4.3337E-02   3.6268E-05  0.1336
   4.3337E-02   4.4391E-02   2.5923E-05  0.1562
   4.4391E-02   4.5471E-02   3.7035E-05  0.1291
   4.5471E-02   4.6577E-02   3.7360E-05  0.1270
   4.6577E-02   4.7711E-02   3.4708E-05  0.1302
   4.7711E-02   4.8871E-02   3.8478E-05  0.1222
   4.8871E-02   5.0061E-02   3.1957E-05  0.1325
   5.0061E-02   5.1279E-02   3.7766E-05  0.1204
   5.1279E-02   5.2526E-02   3.3129E-05  0.1270
   5.2526E-02   5.3804E-02   2.8691E-05  0.1348
   5.3804E-02   5.5113E-02   2.9537E-05  0.1313
   5.5113E-02   5.6454E-02   3.2315E-05  0.1240
   5.6454E-02   5.7828E-02   2.9606E-05  0.1280
   5.7828E-02   5.9235E-02   2.7008E-05  0.1325
   5.9235E-02   6.0676E-02   3.1455E-05  0.1213
   6.0676E-02   6.2152E-02   3.2965E-05  0.1170
   6.2152E-02   6.3665E-02   3.8354E-05  0.1072
   6.3665E-02   6.5214E-02   3.9595E-05  0.1043
   6.5214E-02   6.6800E-02   3.9915E-05  0.1026
   6.6800E-02   6.8426E-02   3.4455E-05  0.1091
   6.8426E-02   7.0090E-02   3.4438E-05  0.1078
   7.0090E-02   7.1796E-02   3.6747E-05  0.1031
   7.1796E-02   7.3543E-02   3.4729E-05  0.1048
   7.3543E-02   7.5332E-02   3.7630E-05  0.0995
   7.5332E-02   7.7165E-02   3.8555E-05  0.0971
   7.7165E-02   7.9042E-02   3.4798E-05  0.1010
   7.9042E-02   8.0965E-02   3.6052E-05  0.0981
   8.0965E-02   8.2935E-02   3.5872E-05  0.0971
   8.2935E-02   8.4953E-02   3.5681E-05  0.0962
   8.4953E-02   8.7020E-02   3.5156E-05  0.0958
   8.7020E-02   8.9138E-02   3.7155E-05  0.0921
   8.9138E-02   9.1306E-02   3.4428E-05  0.0945
   9.1306E-02   9.3528E-02   3.3010E-05  0.0953
   9.3528E-02   9.5804E-02   3.8085E-05  0.0877
   9.5804E-02   9.8134E-02   3.2890E-05  0.0933
   9.8134E-02   1.0052E-01   3.8531E-05  0.0851
   1.0052E-01   1.0297E-01   3.2437E-05  0.0917
   1.0297E-01   1.0547E-01   4.5504E-05  0.0765
   1.0547E-01   1.0804E-01   3.9487E-05  0.0811
   1.0804E-01   1.1067E-01   4.0578E-05  0.0791
   1.1067E-01   1.1336E-01   4.1595E-05  0.0772
   1.1336E-01   1.1612E-01   3.6981E-05  0.0808
   1.1612E-01   1.1894E-01   3.7755E-05  0.0791
   1.1894E-01   1.2184E-01   4.0083E-05  0.0758
   1.2184E-01   1.2480E-01   3.9356E-05  0.0756
   1.2480E-01   1.2784E-01   3.6664E-05  0.0774
   1.2784E-01   1.3095E-01   3.6437E-05  0.0767
   1.3095E-01   1.3414E-01   3.5780E-05  0.0765
   1.3414E-01   1.3740E-01   3.8812E-05  0.0725
   1.3740E-01   1.4074E-01   3.8887E-05  0.0716
   1.4074E-01   1.4417E-01   3.9521E-05  0.0702
   1.4417E-01   1.4767E-01   3.8012E-05  0.0707
   1.4767E-01   1.5127E-01   3.5253E-05  0.0725
   1.5127E-01   1.5495E-01   3.7495E-05  0.0695
   1.5495E-01   1.5872E-01   3.8904E-05  0.0674
   1.5872E-01   1.6258E-01   3.7289E-05  0.0680
   1.6258E-01   1.6654E-01   3.9605E-05  0.0652
   1.6654E-01   1.7059E-01   3.7184E-05  0.0665
   1.7059E-01   1.7474E-01   3.8871E-05  0.0643
   1.7474E-01   1.7899E-01   3.9515E-05  0.0630
   1.7899E-01   1.8334E-01   4.1638E-05  0.0606
   1.8334E-01   1.8781E-01   3.9902E-05  0.0612
   1.8781E-01   1.9237E-01   3.8663E-05  0.0614
   1.9237E-01   1.9706E-01   3.7887E-05  0.0613
   1.9706E-01   2.0185E-01   3.9768E-05  0.0591
   2.0185E-01   2.0676E-01   4.2895E-05  0.0563
   2.0676E-01   2.1179E-01   4.2009E-05  0.0562
   2.1179E-01   2.1694E-01   4.0494E-05  0.0565
   2.1694E-01   2.2222E-01   3.9532E-05  0.0565
   2.2222E-01   2.2763E-01   4.1305E-05  0.0546
   2.2763E-01   2.3317E-01   3.9963E-05  0.0549
   2.3317E-01   2.3884E-01   4.1834E-05  0.0530
   2.3884E-01   2.4465E-01   4.0038E-05  0.0535
   2.4465E-01   2.5061E-01   4.0655E-05  0.0525
   2.5061E-01   2.5670E-01   4.0454E-05  0.0520
   2.5670E-01   2.6295E-01   3.9814E-05  0.0518
   2.6295E-01   2.6935E-01   4.3661E-05  0.0489
   2.6935E-01   2.7590E-01   4.5981E-05  0.0470
   2.7590E-01   2.8261E-01   4.3201E-05  0.0479
   2.8261E-01   2.8949E-01   4.2271E-05  0.0479
   2.8949E-01   2.9653E-01   4.2876E-05  0.0470
   2.9653E-01   3.0375E-01   4.2412E-05  0.0467
   3.0375E-01   3.1114E-01   4.3390E-05  0.0456
   3.1114E-01   3.1871E-01   4.2579E-05  0.0455
   3.1871E-01   3.2646E-01   4.3072E-05  0.0447
   3.2646E-01   3.3441E-01   4.9099E-05  0.0413
   3.3441E-01   3.4254E-01   4.5803E-05  0.0423
   3.4254E-01   3.5088E-01   4.8554E-05  0.0406
   3.5088E-01   3.5941E-01   4.3028E-05  0.0426
   3.5941E-01   3.6816E-01   4.6885E-05  0.0403
   3.6816E-01   3.7712E-01   4.4432E-05  0.0409
   3.7712E-01   3.8629E-01   4.7954E-05  0.0389
   3.8629E-01   3.9569E-01   4.2417E-05  0.0409
   3.9569E-01   4.0532E-01   4.5910E-05  0.0388
   4.0532E-01   4.1518E-01   4.4347E-05  0.0390
   4.1518E-01   4.2528E-01   4.5669E-05  0.0380
   4.2528E-01   4.3563E-01   4.5229E-05  0.0377
   4.3563E-01   4.4623E-01   4.7299E-05  0.0365
   4.4623E-01   4.5708E-01   4.4825E-05  0.0370
   4.5708E-01   4.6821E-01   4.8076E-05  0.0353
   4.6821E-01   4.7960E-01   5.0094E-05  0.0342
   4.7960E-01   4.9127E-01   4.9933E-05  0.0338
   4.9127E-01   5.0322E-01   4.5735E-05  0.0349
   5.0322E-01   5.1546E-01   5.0257E-05  0.0329
   5.1546E-01   5.2800E-01   4.7788E-05  0.0334
   5.2800E-01   5.4085E-01   4.8728E-05  0.0326
   5.4085E-01   5.5401E-01   4.7875E-05  0.0325
   5.5401E-01   5.6749E-01   4.7331E-05  0.0323
   5.6749E-01   5.8130E-01   4.7897E-05  0.0318
   5.8130E-01   5.9544E-01   4.7348E-05  0.0315
   5.9544E-01   6.0993E-01   4.8317E-05  0.0309
   6.0993E-01   6.2477E-01   4.7529E-05  0.0307
   6.2477E-01   6.3997E-01   4.5523E-05  0.0310
   6.3997E-01   6.5554E-01   4.9108E-05  0.0296
   6.5554E-01   6.7149E-01   4.6521E-05  0.0300
   6.7149E-01   6.8783E-01   4.6436E-05  0.0296
   6.8783E-01   7.0456E-01   4.7046E-05  0.0291
   7.0456E-01   7.2171E-01   4.6978E-05  0.0288
   7.2171E-01   7.3927E-01   4.4951E-05  0.0291
   7.3927E-01   7.5725E-01   4.6701E-05  0.0282
   7.5725E-01   7.7568E-01   4.4687E-05  0.0285
   7.7568E-01   7.9455E-01   4.5533E-05  0.0279
   7.9455E-01   8.1388E-01   4.7934E-05  0.0268
   8.1388E-01   8.3368E-01   4.6021E-05  0.0270
   8.3368E-01   8.5397E-01   4.4731E-05  0.0271
   8.5397E-01   8.7475E-01   4.4824E-05  0.0268
   8.7475E-01   8.9603E-01   4.5419E-05  0.0263
   8.9603E-01   9.1783E-01   4.2964E-05  0.0267
   9.1783E-01   9.4016E-01   4.1287E-05  0.0269
   9.4016E-01   9.6304E-01   4.0743E-05  0.0267
   9.6304E-01   9.8647E-01   3.8125E-05  0.0273
   9.8647E-01   1.0105E+00   3.5387E-05  0.0280
   1.0105E+00   1.0351E+00   3.6688E-05  0.0272
   1.0351E+00   1.0602E+00   3.7723E-05  0.0265
   1.0602E+00   1.0860E+00   3.7033E-05  0.0264
   1.0860E+00   1.1125E+00   3.3782E-05  0.0273
   1.1125E+00   1.1395E+00   3.4950E-05  0.0265
   1.1395E+00   1.1673E+00   3.6332E-05  0.0257
   1.1673E+00   1.1957E+00   3.8427E-05  0.0247
   1.1957E+00   1.2247E+00   3.6804E-05  0.0250
   1.2247E+00   1.2545E+00   3.5616E-05  0.0251
   1.2545E+00   1.2851E+00   3.5065E-05  0.0250
   1.2851E+00   1.3163E+00   3.5202E-05  0.0246
   1.3163E+00   1.3484E+00   3.4824E-05  0.0244
   1.3484E+00   1.3812E+00   3.5460E-05  0.0239
   1.3812E+00   1.4148E+00   3.6086E-05  0.0234
   1.4148E+00   1.4492E+00   3.3679E-05  0.0240
   1.4492E+00   1.4845E+00   3.4487E-05  0.0234
   1.4845E+00   1.5206E+00   3.3132E-05  0.0236
   1.5206E+00   1.5576E+00   3.2904E-05  0.0234
   1.5576E+00   1.5955E+00   3.2298E-05  0.0233
   1.5955E+00   1.6343E+00   3.0913E-05  0.0236
   1.6343E+00   1.6741E+00   2.9893E-05  0.0237
   1.6741E+00   1.7148E+00   2.9969E-05  0.0234
   1.7148E+00   1.7565E+00   3.0120E-05  0.0230
   1.7565E+00   1.7992E+00   2.9139E-05  0.0231
   1.7992E+00   1.8430E+00   2.7792E-05  0.0234
   1.8430E+00   1.8879E+00   2.7905E-05  0.0231
   1.8879E+00   1.9338E+00   2.6981E-05  0.0232
   1.9338E+00   1.9808E+00   2.6581E-05  0.0231
   1.9808E+00   2.0290E+00   2.5369E-05  0.0234
   2.0290E+00   2.0784E+00   2.5428E-05  0.0230
   2.0784E+00   2.1290E+00   2.4811E-05  0.0231
   2.1290E+00   2.1808E+00   2.4440E-05  0.0229
   2.1808E+00   2.2338E+00   2.4061E-05  0.0229
   2.2338E+00   2.2882E+00   2.2471E-05  0.0234
   2.2882E+00   2.3439E+00   2.1985E-05  0.0233
   2.3439E+00   2.4009E+00   2.2422E-05  0.0228
   2.4009E+00   2.4593E+00   2.1592E-05  0.0230
   2.4593E+00   2.5191E+00   2.0522E-05  0.0233
   2.5191E+00   2.5804E+00   2.1351E-05  0.0226
   2.5804E+00   2.6432E+00   1.9092E-05  0.0236
   2.6432E+00   2.7075E+00   1.9183E-05  0.0232
   2.7075E+00   2.7734E+00   1.8833E-05  0.0232
   2.7734E+00   2.8409E+00   1.9097E-05  0.0227
   2.8409E+00   2.9100E+00   1.8663E-05  0.0227
   2.9100E+00   2.9808E+00   1.8041E-05  0.0228
   2.9808E+00   3.0533E+00   1.7401E-05  0.0230
   3.0533E+00   3.1276E+00   1.7382E-05  0.0227
   3.1276E+00   3.2037E+00   1.7004E-05  0.0227
   3.2037E+00   3.2817E+00   1.5694E-05  0.0233
   3.2817E+00   3.3615E+00   1.6127E-05  0.0228
   3.3615E+00   3.4433E+00   1.5748E-05  0.0228
   3.4433E+00   3.5271E+00   1.5613E-05  0.0226
   3.5271E+00   3.6129E+00   1.5568E-05  0.0223
   3.6129E+00   3.7008E+00   1.5335E-05  0.0222
   3.7008E+00   3.7908E+00   1.4978E-05  0.0222
   3.7908E+00   3.8831E+00   1.4254E-05  0.0225
   3.8831E+00   3.9776E+00   1.4310E-05  0.0222
   3.9776E+00   4.0743E+00   1.3788E-05  0.0224
   4.0743E+00   4.1735E+00   1.3531E-05  0.0223
   4.1735E+00   4.2750E+00   1.4030E-05  0.0216
   4.2750E+00   4.3790E+00   1.3277E-05  0.0220
   4.3790E+00   4.4856E+00   1.2993E-05  0.0219
   4.4856E+00   4.5947E+00   1.3475E-05  0.0213
   4.5947E+00   4.7065E+00   1.2720E-05  0.0216
   4.7065E+00   4.8210E+00   1.2584E-05  0.0215
   4.8210E+00   4.9383E+00   1.2663E-05  0.0212
   4.9383E+00   5.0585E+00   1.2922E-05  0.0207
   5.0585E+00   5.1815E+00   1.2775E-05  0.0206
   5.1815E+00   5.3076E+00   1.2160E-05  0.0209
   5.3076E+00   5.4368E+00   1.2408E-05  0.0204
   5.4368E+00   5.5690E+00   1.2209E-05  0.0203
   5.5690E+00   5.7045E+00   1.2482E-05  0.0199
   5.7045E+00   5.8433E+00   1.2786E-05  0.0194
   5.8433E+00   5.9855E+00   1.2745E-05  0.0192
   5.9855E+00   6.1311E+00   1.2513E-05  0.0191
   6.1311E+00   6.2803E+00   1.3074E-05  0.0185
   6.2803E+00   6.4331E+00   1.2836E-05  0.0184
   6.4331E+00   6.5896E+00   1.3003E-05  0.0181
   6.5896E+00   6.7500E+00   1.3198E-05  0.0177
   6.7500E+00   6.9142E+00   1.3680E-05  0.0172
   6.9142E+00   7.0824E+00   1.3775E-05  0.0170
   7.0824E+00   7.2548E+00   1.3869E-05  0.0167
   7.2548E+00   7.4313E+00   1.4129E-05  0.0163
   7.4313E+00   7.6121E+00   1.4443E-05  0.0160
   7.6121E+00   7.7973E+00   1.4702E-05  0.0156
   7.7973E+00   7.9870E+00   1.4669E-05  0.0155
   7.9870E+00   8.1813E+00   1.5203E-05  0.0150
   8.1813E+00   8.3804E+00   1.5801E-05  0.0146
   8.3804E+00   8.5843E+00   1.6604E-05  0.0140
   8.5843E+00   8.7931E+00   1.6922E-05  0.0137
   8.7931E+00   9.0071E+00   1.7276E-05  0.0134
   9.0071E+00   9.2262E+00   1.7624E-05  0.0131
   9.2262E+00   9.4507E+00   1.8783E-05  0.0126
   9.4507E+00   9.6807E+00   1.9425E-05  0.0122
   9.6807E+00   9.9162E+00   2.0593E-05  0.0117
   9.9162E+00   1.0157E+01   2.1001E-05  0.0115
   1.0157E+01   1.0405E+01   2.1893E-05  0.0111
   1.0405E+01   1.0658E+01   2.2833E-05  0.0107
   1.0658E+01   1.0917E+01   2.3143E-05  0.0105
   1.0917E+01   1.1183E+01   2.4304E-05  0.0102
   1.1183E+01   1.1455E+01   2.5597E-05  0.0098
   1.1455E+01   1.1733E+01   2.6492E-05  0.0095
   1.1733E+01   1.2019E+01   2.7778E-05  0.0092
   1.2019E+01   1.2311E+01   2.8488E-05  0.0089
   1.2311E+01   1.2611E+01   2.9948E-05  0.0086
   1.2611E+01   1.2918E+01   3.1609E-05  0.0083
   1.2918E+01   1.3232E+01   3.3017E-05  0.0080
   1.3232E+01   1.3554E+01   3.4395E-05  0.0078
   1.3554E+01   1.3884E+01   3.5262E-05  0.0076
   1.3884E+01   1.4222E+01   3.7469E-05  0.0073
   1.4222E+01   1.4568E+01   3.8236E-05  0.0071
   1.4568E+01   1.4922E+01   3.9649E-05  0.0069
   1.4922E+01   1.5285E+01   4.1307E-05  0.0067
   1.5285E+01   1.5657E+01   4.2558E-05  0.0065
   1.5657E+01   1.6038E+01   4.4139E-05  0.0063
   1.6038E+01   1.6428E+01   4.5578E-05  0.0061
   1.6428E+01   1.6828E+01   4.6830E-05  0.0060
   1.6828E+01   1.7237E+01   4.7711E-05  0.0058
   1.7237E+01   1.7657E+01   4.9153E-05  0.0057
   1.7657E+01   1.8086E+01   4.9908E-05  0.0056
   1.8086E+01   1.8526E+01   5.0802E-05  0.0055
   1.8526E+01   1.8977E+01   5.2088E-05  0.0053
   1.8977E+01   1.9439E+01   5.2731E-05  0.0052
   1.9439E+01   1.9912E+01   5.2727E-05  0.0052
   1.9912E+01   2.0396E+01   5.3927E-05  0.0051
   2.0396E+01   2.0893E+01   5.3941E-05  0.0050
   2.0893E+01   2.1401E+01   5.4366E-05  0.0049
   2.1401E+01   2.1922E+01   5.3574E-05  0.0049
   2.1922E+01   2.2455E+01   5.3099E-05  0.0049
   2.2455E+01   2.3001E+01   5.2240E-05  0.0048
   2.3001E+01   2.3561E+01   5.1369E-05  0.0048
   2.3561E+01   2.4134E+01   4.9847E-05  0.0048
   2.4134E+01   2.4721E+01   4.8016E-05  0.0049
   2.4721E+01   2.5323E+01   4.6804E-05  0.0049
   2.5323E+01   2.5939E+01   4.4375E-05  0.0049
   2.5939E+01   2.6570E+01   4.2254E-05  0.0050
   2.6570E+01   2.7217E+01   4.0140E-05  0.0051
   2.7217E+01   2.7879E+01   3.7109E-05  0.0052
   2.7879E+01   2.8557E+01   3.5306E-05  0.0053
   2.8557E+01   2.9252E+01   3.2389E-05  0.0054
   2.9252E+01   2.9964E+01   2.9953E-05  0.0056
   2.9964E+01   3.0693E+01   2.7581E-05  0.0058
   3.0693E+01   3.1440E+01   2.4989E-05  0.0060
   3.1440E+01   3.2205E+01   2.2825E-05  0.0062
   3.2205E+01   3.2988E+01   2.0734E-05  0.0064
   3.2988E+01   3.3791E+01   1.8944E-05  0.0066
   3.3791E+01   3.4613E+01   1.6841E-05  0.0069
   3.4613E+01   3.5455E+01   1.5303E-05  0.0072
   3.5455E+01   3.6318E+01   1.3879E-05  0.0075
   3.6318E+01   3.7201E+01   1.2273E-05  0.0078
   3.7201E+01   3.8106E+01   1.1089E-05  0.0081
   3.8106E+01   3.9034E+01   9.7610E-06  0.0086
   3.9034E+01   3.9983E+01   8.8110E-06  0.0089
   3.9983E+01   4.0956E+01   7.8843E-06  0.0093
   4.0956E+01   4.1953E+01   7.0701E-06  0.0097
   4.1953E+01   4.2973E+01   6.1896E-06  0.0103
   4.2973E+01   4.4019E+01   5.6333E-06  0.0106
   4.4019E+01   4.5090E+01   5.0998E-06  0.0110
   4.5090E+01   4.6187E+01   4.4227E-06  0.0117
   4.6187E+01   4.7311E+01   3.9083E-06  0.0123
   4.7311E+01   4.8462E+01   3.4738E-06  0.0129
   4.8462E+01   4.9641E+01   2.8875E-06  0.0140
   4.9641E+01   5.0849E+01   2.4739E-06  0.0149
   5.0849E+01   5.2086E+01   2.0600E-06  0.0162
   5.2086E+01   5.3353E+01   1.6781E-06  0.0177
   5.3353E+01   5.4651E+01   1.4272E-06  0.0190
   5.4651E+01   5.5981E+01   1.1752E-06  0.0207
   5.5981E+01   5.7343E+01   8.4333E-07  0.0241
   5.7343E+01   5.8738E+01   6.1544E-07  0.0279
   5.8738E+01   6.0168E+01   3.4006E-07  0.0370
   6.0168E+01   6.1632E+01   1.4755E-07  0.0556
   6.1632E+01   6.3131E+01   9.3362E-09  0.2182
   6.3131E+01   6.4667E+01   0.0000E+00  0.0000
   6.4667E+01   6.6240E+01   0.0000E+00  0.0000
   6.6240E+01   6.7852E+01   0.0000E+00  0.0000
   6.7852E+01   6.9503E+01   0.0000E+00  0.0000
   6.9503E+01   7.1194E+01   0.0000E+00  0.0000
   7.1194E+01   7.2926E+01   0.0000E+00  0.0000
   7.2926E+01   7.4701E+01   0.0000E+00  0.0000
   7.4701E+01   7.6518E+01   0.0000E+00  0.0000
   7.6518E+01   7.8380E+01   0.0000E+00  0.0000
   7.8380E+01   8.0287E+01   0.0000E+00  0.0000
   8.0287E+01   8.2240E+01   0.0000E+00  0.0000
   8.2240E+01   8.4241E+01   0.0000E+00  0.0000
   8.4241E+01   8.6291E+01   0.0000E+00  0.0000
   8.6291E+01   8.8391E+01   0.0000E+00  0.0000
   8.8391E+01   9.0541E+01   0.0000E+00  0.0000
   9.0541E+01   9.2744E+01   0.0000E+00  0.0000
   9.2744E+01   9.5001E+01   0.0000E+00  0.0000
   9.5001E+01   9.7312E+01   0.0000E+00  0.0000
   9.7312E+01   9.9680E+01   0.0000E+00  0.0000
   9.9680E+01   1.0211E+02   0.0000E+00  0.0000
   1.0211E+02   1.0459E+02   0.0000E+00  0.0000
   1.0459E+02   1.0713E+02   0.0000E+00  0.0000
   1.0713E+02   1.0974E+02   0.0000E+00  0.0000
   1.0974E+02   1.1241E+02   0.0000E+00  0.0000
   1.1241E+02   1.1515E+02   0.0000E+00  0.0000
   1.1515E+02   1.1795E+02   0.0000E+00  0.0000
   1.1795E+02   1.2082E+02   0.0000E+00  0.0000
   1.2082E+02   1.2376E+02   0.0000E+00  0.0000
   1.2376E+02   1.2677E+02   0.0000E+00  0.0000
   1.2677E+02   1.2985E+02   0.0000E+00  0.0000
   1.2985E+02   1.3301E+02   0.0000E+00  0.0000
   1.3301E+02   1.3625E+02   0.0000E+00  0.0000
   1.3625E+02   1.3956E+02   0.0000E+00  0.0000
   1.3956E+02   1.4296E+02   0.0000E+00  0.0000
   1.4296E+02   1.4644E+02   0.0000E+00  0.0000
   1.4644E+02   1.5000E+02   0.0000E+00  0.0000

#   sum over                 8.4673E-06
'no. =    1   reg = 100 - 200'
msuc: {\huge [t-cross] in region mesh}
msdr: {\it plotted by \ANGEL \version}
msdl: {\it calculated by \PHITS  3.26}
wt: s(0.7)
\vspace{-3}
  region surface crossing
  area  &=&   1.0000E+00 [cm^2]
e:
 
# Information for Restart Calculation
# This calculation was newly started
# istdev =  2 # 1:Batch variance, 2:History variance
# resc2  = 1.50000000000000000E+09 # Total source weight or Total source weight / maxcas
# resc3  = 1.50000000000000000E+09 # Total history number or Total batch number
# maxcas =   500000000 # History / Batch, only used for istdev=1
# bitrseed = 0000010101110101110110100110011001100101000001100111100100101101 # bit data of rseed
