[ T-Cross ]
    title = [t-cross] in region mesh
     mesh =  reg            # mesh type is region-wise
      reg =    1            # number of crossing regions
      non     r-from    r-to       area
      1       104       204        1.000000    
   e-type =    3            # e-mesh is log given by emin, emax and ne
     emin =  1.0000000E-02  # minimum value of e-mesh points
     emax =   150.0000      # maximum value of e-mesh points
#    edel =  2.4039514E-02  # mesh width of e-mesh points
       ne =    400          # number of e-mesh points
#    data = ( e(i), i = 1, ne + 1 )
#           1.00000E-02  1.02433E-02  1.04925E-02  1.07478E-02  1.10093E-02
#           1.12772E-02  1.15516E-02  1.18326E-02  1.21205E-02  1.24154E-02
#           1.27175E-02  1.30269E-02  1.33439E-02  1.36686E-02  1.40011E-02
#           1.43418E-02  1.46907E-02  1.50482E-02  1.54143E-02  1.57894E-02
#           1.61735E-02  1.65670E-02  1.69701E-02  1.73830E-02  1.78060E-02
#           1.82392E-02  1.86830E-02  1.91375E-02  1.96032E-02  2.00801E-02
#           2.05687E-02  2.10692E-02  2.15818E-02  2.21069E-02  2.26448E-02
#           2.31957E-02  2.37601E-02  2.43382E-02  2.49304E-02  2.55369E-02
#           2.61583E-02  2.67947E-02  2.74467E-02  2.81145E-02  2.87985E-02
#           2.94992E-02  3.02169E-02  3.09521E-02  3.17052E-02  3.24766E-02
#           3.32668E-02  3.40762E-02  3.49053E-02  3.57546E-02  3.66246E-02
#           3.75157E-02  3.84284E-02  3.93634E-02  4.03212E-02  4.13022E-02
#           4.23071E-02  4.33365E-02  4.43909E-02  4.54710E-02  4.65773E-02
#           4.77106E-02  4.88714E-02  5.00605E-02  5.12785E-02  5.25262E-02
#           5.38042E-02  5.51133E-02  5.64542E-02  5.78278E-02  5.92348E-02
#           6.06760E-02  6.21523E-02  6.36645E-02  6.52135E-02  6.68002E-02
#           6.84255E-02  7.00904E-02  7.17957E-02  7.35426E-02  7.53319E-02
#           7.71648E-02  7.90423E-02  8.09655E-02  8.29354E-02  8.49533E-02
#           8.70203E-02  8.91376E-02  9.13064E-02  9.35279E-02  9.58035E-02
#           9.81345E-02  1.00522E-01  1.02968E-01  1.05473E-01  1.08040E-01
#           1.10668E-01  1.13361E-01  1.16119E-01  1.18944E-01  1.21838E-01
#           1.24803E-01  1.27839E-01  1.30950E-01  1.34136E-01  1.37399E-01
#           1.40742E-01  1.44167E-01  1.47675E-01  1.51268E-01  1.54948E-01
#           1.58718E-01  1.62580E-01  1.66535E-01  1.70587E-01  1.74738E-01
#           1.78989E-01  1.83344E-01  1.87805E-01  1.92375E-01  1.97055E-01
#           2.01850E-01  2.06761E-01  2.11792E-01  2.16945E-01  2.22223E-01
#           2.27630E-01  2.33169E-01  2.38842E-01  2.44653E-01  2.50605E-01
#           2.56703E-01  2.62949E-01  2.69346E-01  2.75900E-01  2.82613E-01
#           2.89489E-01  2.96532E-01  3.03747E-01  3.11138E-01  3.18708E-01
#           3.26462E-01  3.34405E-01  3.42542E-01  3.50876E-01  3.59413E-01
#           3.68158E-01  3.77116E-01  3.86291E-01  3.95690E-01  4.05317E-01
#           4.15179E-01  4.25281E-01  4.35628E-01  4.46227E-01  4.57084E-01
#           4.68205E-01  4.79597E-01  4.91266E-01  5.03219E-01  5.15463E-01
#           5.28005E-01  5.40851E-01  5.54011E-01  5.67490E-01  5.81298E-01
#           5.95441E-01  6.09929E-01  6.24769E-01  6.39970E-01  6.55541E-01
#           6.71491E-01  6.87828E-01  7.04564E-01  7.21706E-01  7.39266E-01
#           7.57253E-01  7.75678E-01  7.94551E-01  8.13883E-01  8.33685E-01
#           8.53969E-01  8.74747E-01  8.96030E-01  9.17831E-01  9.40163E-01
#           9.63038E-01  9.86469E-01  1.01047E+00  1.03506E+00  1.06024E+00
#           1.08604E+00  1.11246E+00  1.13953E+00  1.16725E+00  1.19565E+00
#           1.22474E+00  1.25454E+00  1.28507E+00  1.31633E+00  1.34836E+00
#           1.38117E+00  1.41477E+00  1.44920E+00  1.48446E+00  1.52057E+00
#           1.55757E+00  1.59547E+00  1.63429E+00  1.67405E+00  1.71478E+00
#           1.75650E+00  1.79924E+00  1.84302E+00  1.88786E+00  1.93379E+00
#           1.98084E+00  2.02904E+00  2.07841E+00  2.12898E+00  2.18078E+00
#           2.23384E+00  2.28819E+00  2.34386E+00  2.40089E+00  2.45930E+00
#           2.51914E+00  2.58043E+00  2.64322E+00  2.70753E+00  2.77341E+00
#           2.84088E+00  2.91001E+00  2.98081E+00  3.05333E+00  3.12762E+00
#           3.20372E+00  3.28167E+00  3.36152E+00  3.44330E+00  3.52708E+00
#           3.61290E+00  3.70080E+00  3.79085E+00  3.88308E+00  3.97756E+00
#           4.07434E+00  4.17347E+00  4.27501E+00  4.37903E+00  4.48557E+00
#           4.59471E+00  4.70650E+00  4.82102E+00  4.93832E+00  5.05847E+00
#           5.18155E+00  5.30762E+00  5.43676E+00  5.56904E+00  5.70453E+00
#           5.84333E+00  5.98550E+00  6.13114E+00  6.28031E+00  6.43312E+00
#           6.58964E+00  6.74997E+00  6.91420E+00  7.08243E+00  7.25475E+00
#           7.43126E+00  7.61207E+00  7.79728E+00  7.98700E+00  8.18133E+00
#           8.38038E+00  8.58428E+00  8.79315E+00  9.00709E+00  9.22624E+00
#           9.45072E+00  9.68067E+00  9.91620E+00  1.01575E+01  1.04046E+01
#           1.06578E+01  1.09171E+01  1.11827E+01  1.14548E+01  1.17335E+01
#           1.20190E+01  1.23114E+01  1.26109E+01  1.29178E+01  1.32321E+01
#           1.35540E+01  1.38838E+01  1.42216E+01  1.45676E+01  1.49221E+01
#           1.52851E+01  1.56570E+01  1.60380E+01  1.64282E+01  1.68279E+01
#           1.72374E+01  1.76568E+01  1.80864E+01  1.85264E+01  1.89772E+01
#           1.94389E+01  1.99119E+01  2.03963E+01  2.08926E+01  2.14009E+01
#           2.19216E+01  2.24550E+01  2.30014E+01  2.35610E+01  2.41343E+01
#           2.47215E+01  2.53230E+01  2.59391E+01  2.65702E+01  2.72167E+01
#           2.78789E+01  2.85572E+01  2.92520E+01  2.99637E+01  3.06928E+01
#           3.14396E+01  3.22045E+01  3.29881E+01  3.37907E+01  3.46128E+01
#           3.54550E+01  3.63177E+01  3.72013E+01  3.81064E+01  3.90336E+01
#           3.99833E+01  4.09561E+01  4.19526E+01  4.29734E+01  4.40189E+01
#           4.50900E+01  4.61870E+01  4.73108E+01  4.84619E+01  4.96410E+01
#           5.08488E+01  5.20860E+01  5.33533E+01  5.46514E+01  5.59812E+01
#           5.73432E+01  5.87384E+01  6.01676E+01  6.16315E+01  6.31311E+01
#           6.46671E+01  6.62405E+01  6.78522E+01  6.95031E+01  7.11941E+01
#           7.29263E+01  7.47007E+01  7.65182E+01  7.83800E+01  8.02870E+01
#           8.22405E+01  8.42414E+01  8.62911E+01  8.83906E+01  9.05412E+01
#           9.27442E+01  9.50007E+01  9.73122E+01  9.96799E+01  1.02105E+02
#           1.04589E+02  1.07134E+02  1.09741E+02  1.12411E+02  1.15146E+02
#           1.17948E+02  1.20817E+02  1.23757E+02  1.26768E+02  1.29852E+02
#           1.33012E+02  1.36248E+02  1.39563E+02  1.42959E+02  1.46437E+02
#           1.50000E+02
     unit =    2            # unit is [1/cm^2/(MeV/n)/source]
     axis =  eng            # axis of output
     file = detector-05.out  # file name of output for the above axis
   output = f-curr          # surface crossing forward current spectrum
     part =  neutron  
# kf/name :  2112     
#    used :        main (  %)        temp (  %)       total (  %)
#  memory :         414 (  0)           0 (  0)         414 (  0)

#------------------------------------------------------------------------------
#newpage:
#   no. =    1   reg = 104 - 204

x: Energy [MeV/n]
y:  F-Curr [1/cm^2/(MeV/n)/source]         
p: xlog ylog afac(0.8) form(0.9)
h: n            x            y(neutron ),hh0l   n 
#  e-lower      e-upper      neutron     r.err 
   1.0000E-02   1.0243E-02   4.9842E-05  0.2425
   1.0243E-02   1.0493E-02   5.9649E-05  0.2183
   1.0493E-02   1.0748E-02   4.1791E-05  0.2582
   1.0748E-02   1.1009E-02   4.3629E-05  0.2500
   1.1009E-02   1.1277E-02   5.8684E-05  0.2112
   1.1277E-02   1.1552E-02   6.3999E-05  0.2002
   1.1552E-02   1.1833E-02   4.3043E-05  0.2425
   1.1833E-02   1.2121E-02   3.2125E-05  0.2774
   1.2121E-02   1.2415E-02   5.0750E-05  0.2182
   1.2415E-02   1.2718E-02   3.1133E-05  0.2733
   1.2718E-02   1.3027E-02   2.5280E-05  0.3015
   1.3027E-02   1.3344E-02   2.7014E-05  0.2887
   1.3344E-02   1.3669E-02   3.2919E-05  0.2582
   1.3669E-02   1.4001E-02   2.9887E-05  0.2673
   1.4001E-02   1.4342E-02   4.3535E-05  0.2184
   1.4342E-02   1.4691E-02   2.4490E-05  0.2887
   1.4691E-02   1.5048E-02   4.1887E-05  0.2182
   1.5048E-02   1.5414E-02   4.4823E-05  0.2085
   1.5414E-02   1.5789E-02   2.8466E-05  0.2582
   1.5789E-02   1.6174E-02   2.5991E-05  0.2673
   1.6174E-02   1.6567E-02   5.7950E-05  0.1768
   1.6567E-02   1.6970E-02   2.9436E-05  0.2432
   1.6970E-02   1.7383E-02   2.2439E-05  0.2774
   1.7383E-02   1.7806E-02   3.0018E-05  0.2359
   1.7806E-02   1.8239E-02   3.2920E-05  0.2236
   1.8239E-02   1.8683E-02   2.0890E-05  0.2774
   1.8683E-02   1.9138E-02   1.8835E-05  0.2887
   1.9138E-02   1.9603E-02   1.9900E-05  0.2774
   1.9603E-02   2.0080E-02   1.7641E-05  0.2891
   2.0080E-02   2.0569E-02   2.9186E-05  0.2236
   2.0569E-02   2.1069E-02   3.1304E-05  0.2132
   2.1069E-02   2.1582E-02   2.4887E-05  0.2357
   2.1582E-02   2.2107E-02   2.6662E-05  0.2239
   2.2107E-02   2.2645E-02   2.1191E-05  0.2500
   2.2645E-02   2.3196E-02   2.7166E-05  0.2182
   2.3196E-02   2.3760E-02   2.1250E-05  0.2427
   2.3760E-02   2.4338E-02   2.2190E-05  0.2357
   2.4338E-02   2.4930E-02   1.6247E-05  0.2694
   2.4930E-02   2.5537E-02   2.0998E-05  0.2358
   2.5537E-02   2.6158E-02   2.3752E-05  0.2184
   2.6158E-02   2.6795E-02   1.9038E-05  0.2425
   2.6795E-02   2.7447E-02   1.8532E-05  0.2425
   2.7447E-02   2.8114E-02   1.7762E-05  0.2434
   2.8114E-02   2.8799E-02   1.7952E-05  0.2396
   2.8799E-02   2.9499E-02   2.4234E-05  0.2042
   2.9499E-02   3.0217E-02   1.2912E-05  0.2774
   3.0217E-02   3.0952E-02   1.7284E-05  0.2359
   3.0952E-02   3.1705E-02   1.3248E-05  0.2673
   3.1705E-02   3.2477E-02   2.0260E-05  0.2132
   3.2477E-02   3.3267E-02   2.0740E-05  0.2085
   3.3267E-02   3.4076E-02   9.6864E-06  0.3015
   3.4076E-02   3.4905E-02   2.3230E-05  0.1909
   3.4905E-02   3.5755E-02   1.2493E-05  0.2583
   3.5755E-02   3.6625E-02   1.2290E-05  0.2582
   3.6625E-02   3.7516E-02   1.5856E-05  0.2238
   3.7516E-02   3.8428E-02   1.1701E-05  0.2582
   3.8428E-02   3.9363E-02   1.2941E-05  0.2425
   3.9363E-02   4.0321E-02   1.3395E-05  0.2357
   4.0321E-02   4.1302E-02   1.0166E-05  0.2673
   4.1302E-02   4.2307E-02   1.4152E-05  0.2236
   4.2307E-02   4.3337E-02   1.3849E-05  0.2236
   4.3337E-02   4.4391E-02   1.6202E-05  0.2041
   4.4391E-02   4.5471E-02   1.5311E-05  0.2067
   4.5471E-02   4.6577E-02   1.2207E-05  0.2294
   4.6577E-02   4.7711E-02   1.3181E-05  0.2182
   4.7711E-02   4.8871E-02   1.2286E-05  0.2236
   4.8871E-02   5.0061E-02   1.0794E-05  0.2357
   5.0061E-02   5.1279E-02   1.4609E-05  0.2000
   5.1279E-02   5.2526E-02   1.1417E-05  0.2236
   5.2526E-02   5.3804E-02   8.3647E-06  0.2582
   5.3804E-02   5.5113E-02   1.3487E-05  0.2001
   5.5113E-02   5.6454E-02   5.3105E-06  0.3162
   5.6454E-02   5.7828E-02   1.0814E-05  0.2183
   5.7828E-02   5.9235E-02   7.5935E-06  0.2582
   5.9235E-02   6.0676E-02   7.4165E-06  0.2582
   6.0676E-02   6.2152E-02   1.0039E-05  0.2185
   6.2152E-02   6.3665E-02   6.5820E-06  0.2673
   6.3665E-02   6.5214E-02   1.3788E-05  0.1826
   6.5214E-02   6.6800E-02   7.3244E-06  0.2456
   6.6800E-02   6.8426E-02   7.0081E-06  0.2500
   6.8426E-02   7.0090E-02   6.7734E-06  0.2502
   7.0090E-02   7.1796E-02   8.7784E-06  0.2182
   7.1796E-02   7.3543E-02   7.3375E-06  0.2357
   7.3543E-02   7.5332E-02   1.2257E-05  0.1797
   7.5332E-02   7.7165E-02   8.0311E-06  0.2188
   7.7165E-02   7.9042E-02   8.7299E-06  0.2085
   7.9042E-02   8.0965E-02   7.4942E-06  0.2214
   8.0965E-02   8.2935E-02   6.0920E-06  0.2427
   8.2935E-02   8.4953E-02   7.0587E-06  0.2236
   8.4953E-02   8.7020E-02   1.2330E-05  0.1667
   8.7020E-02   8.9138E-02   6.3377E-06  0.2296
   8.9138E-02   9.1306E-02   8.4695E-06  0.1963
   9.1306E-02   9.3528E-02   5.7733E-06  0.2357
   9.3528E-02   9.5804E-02   9.7013E-06  0.1796
   9.5804E-02   9.8134E-02   6.5877E-06  0.2136
   9.8134E-02   1.0052E-01   7.4615E-06  0.2000
   1.0052E-01   1.0297E-01   7.2825E-06  0.2000
   1.0297E-01   1.0547E-01   7.1130E-06  0.2000
   1.0547E-01   1.0804E-01   5.2428E-06  0.2295
   1.0804E-01   1.1067E-01   8.9464E-06  0.1741
   1.1067E-01   1.1336E-01   1.0040E-05  0.1622
   1.1336E-01   1.1612E-01   7.1779E-06  0.1891
   1.1612E-01   1.1894E-01   1.0276E-05  0.1562
   1.1894E-01   1.2184E-01   9.9738E-06  0.1563
   1.2184E-01   1.2480E-01   1.0793E-05  0.1491
   1.2480E-01   1.2784E-01   8.9104E-06  0.1622
   1.2784E-01   1.3095E-01   1.0585E-05  0.1468
   1.3095E-01   1.3414E-01   1.1836E-05  0.1374
   1.3414E-01   1.3740E-01   1.0661E-05  0.1429
   1.3740E-01   1.4074E-01   1.1662E-05  0.1344
   1.4074E-01   1.4417E-01   1.3937E-05  0.1222
   1.4417E-01   1.4767E-01   1.4206E-05  0.1195
   1.4767E-01   1.5127E-01   1.3312E-05  0.1219
   1.5127E-01   1.5495E-01   1.1552E-05  0.1292
   1.5495E-01   1.5872E-01   1.3214E-05  0.1195
   1.5872E-01   1.6258E-01   1.3682E-05  0.1156
   1.6258E-01   1.6654E-01   1.7777E-05  0.1005
   1.6654E-01   1.7059E-01   1.6700E-05  0.1024
   1.7059E-01   1.7474E-01   1.6826E-05  0.1008
   1.7474E-01   1.7899E-01   1.6374E-05  0.1007
   1.7899E-01   1.8334E-01   1.6146E-05  0.1004
   1.8334E-01   1.8781E-01   1.8862E-05  0.0919
   1.8781E-01   1.9237E-01   1.8482E-05  0.0915
   1.9237E-01   1.9706E-01   1.9902E-05  0.0872
   1.9706E-01   2.0185E-01   2.1480E-05  0.0829
   2.0185E-01   2.0676E-01   1.8961E-05  0.0874
   2.0676E-01   2.1179E-01   2.1859E-05  0.0802
   2.1179E-01   2.1694E-01   2.2019E-05  0.0791
   2.1694E-01   2.2222E-01   2.1458E-05  0.0792
   2.2222E-01   2.2763E-01   2.4343E-05  0.0734
   2.2763E-01   2.3317E-01   2.4094E-05  0.0730
   2.3317E-01   2.3884E-01   2.4897E-05  0.0709
   2.3884E-01   2.4465E-01   2.4220E-05  0.0711
   2.4465E-01   2.5061E-01   3.0021E-05  0.0631
   2.5061E-01   2.5670E-01   2.7988E-05  0.0646
   2.5670E-01   2.6295E-01   2.8986E-05  0.0626
   2.6295E-01   2.6935E-01   2.8235E-05  0.0626
   2.6935E-01   2.7590E-01   2.8911E-05  0.0612
   2.7590E-01   2.8261E-01   3.0626E-05  0.0587
   2.8261E-01   2.8949E-01   3.1619E-05  0.0571
   2.8949E-01   2.9653E-01   3.2708E-05  0.0555
   2.9653E-01   3.0375E-01   3.1643E-05  0.0558
   3.0375E-01   3.1114E-01   3.5103E-05  0.0523
   3.1114E-01   3.1871E-01   3.3630E-05  0.0528
   3.1871E-01   3.2646E-01   3.2752E-05  0.0528
   3.2646E-01   3.3441E-01   3.6182E-05  0.0497
   3.3441E-01   3.4254E-01   3.6116E-05  0.0492
   3.4254E-01   3.5088E-01   3.5943E-05  0.0486
   3.5088E-01   3.5941E-01   3.6822E-05  0.0475
   3.5941E-01   3.6816E-01   4.0850E-05  0.0446
   3.6816E-01   3.7712E-01   4.0524E-05  0.0442
   3.7712E-01   3.8629E-01   3.9890E-05  0.0440
   3.8629E-01   3.9569E-01   3.9688E-05  0.0436
   3.9569E-01   4.0532E-01   4.2065E-05  0.0418
   4.0532E-01   4.1518E-01   4.0527E-05  0.0421
   4.1518E-01   4.2528E-01   4.2911E-05  0.0405
   4.2528E-01   4.3563E-01   4.2923E-05  0.0399
   4.3563E-01   4.4623E-01   4.4800E-05  0.0386
   4.4623E-01   4.5708E-01   4.6512E-05  0.0374
   4.5708E-01   4.6821E-01   4.1975E-05  0.0390
   4.6821E-01   4.7960E-01   4.8250E-05  0.0359
   4.7960E-01   4.9127E-01   4.5808E-05  0.0364
   4.9127E-01   5.0322E-01   4.7291E-05  0.0354
   5.0322E-01   5.1546E-01   4.6975E-05  0.0351
   5.1546E-01   5.2800E-01   4.7181E-05  0.0346
   5.2800E-01   5.4085E-01   4.8748E-05  0.0336
   5.4085E-01   5.5401E-01   5.0952E-05  0.0325
   5.5401E-01   5.6749E-01   4.8248E-05  0.0330
   5.6749E-01   5.8130E-01   4.7739E-05  0.0328
   5.8130E-01   5.9544E-01   5.1422E-05  0.0312
   5.9544E-01   6.0993E-01   5.2601E-05  0.0305
   6.0993E-01   6.2477E-01   4.7018E-05  0.0318
   6.2477E-01   6.3997E-01   4.6070E-05  0.0318
   6.3997E-01   6.5554E-01   4.9975E-05  0.0302
   6.5554E-01   6.7149E-01   4.9811E-05  0.0298
   6.7149E-01   6.8783E-01   5.0899E-05  0.0292
   6.8783E-01   7.0456E-01   4.7189E-05  0.0299
   7.0456E-01   7.2171E-01   4.7330E-05  0.0295
   7.2171E-01   7.3927E-01   5.1238E-05  0.0280
   7.3927E-01   7.5725E-01   4.7130E-05  0.0289
   7.5725E-01   7.7568E-01   4.9465E-05  0.0278
   7.7568E-01   7.9455E-01   4.6488E-05  0.0284
   7.9455E-01   8.1388E-01   4.9092E-05  0.0273
   8.1388E-01   8.3368E-01   4.6585E-05  0.0276
   8.3368E-01   8.5397E-01   4.7260E-05  0.0271
   8.5397E-01   8.7475E-01   4.4403E-05  0.0276
   8.7475E-01   8.9603E-01   4.4286E-05  0.0274
   8.9603E-01   9.1783E-01   4.3807E-05  0.0272
   9.1783E-01   9.4016E-01   4.2465E-05  0.0273
   9.4016E-01   9.6304E-01   4.0443E-05  0.0276
   9.6304E-01   9.8647E-01   3.9596E-05  0.0275
   9.8647E-01   1.0105E+00   3.7778E-05  0.0279
   1.0105E+00   1.0351E+00   3.8320E-05  0.0273
   1.0351E+00   1.0602E+00   3.6946E-05  0.0275
   1.0602E+00   1.0860E+00   3.6825E-05  0.0272
   1.0860E+00   1.1125E+00   4.0703E-05  0.0256
   1.1125E+00   1.1395E+00   3.9320E-05  0.0257
   1.1395E+00   1.1673E+00   3.9708E-05  0.0253
   1.1673E+00   1.1957E+00   4.1084E-05  0.0246
   1.1957E+00   1.2247E+00   4.2991E-05  0.0237
   1.2247E+00   1.2545E+00   4.2744E-05  0.0235
   1.2545E+00   1.2851E+00   4.3600E-05  0.0229
   1.2851E+00   1.3163E+00   4.2474E-05  0.0230
   1.3163E+00   1.3484E+00   4.4271E-05  0.0222
   1.3484E+00   1.3812E+00   4.3907E-05  0.0221
   1.3812E+00   1.4148E+00   4.5762E-05  0.0213
   1.4148E+00   1.4492E+00   4.6808E-05  0.0208
   1.4492E+00   1.4845E+00   4.5855E-05  0.0208
   1.4845E+00   1.5206E+00   4.5658E-05  0.0206
   1.5206E+00   1.5576E+00   4.4178E-05  0.0207
   1.5576E+00   1.5955E+00   4.4873E-05  0.0202
   1.5955E+00   1.6343E+00   4.6441E-05  0.0197
   1.6343E+00   1.6741E+00   4.4414E-05  0.0199
   1.6741E+00   1.7148E+00   4.5638E-05  0.0194
   1.7148E+00   1.7565E+00   4.5226E-05  0.0192
   1.7565E+00   1.7992E+00   4.2646E-05  0.0195
   1.7992E+00   1.8430E+00   4.0299E-05  0.0198
   1.8430E+00   1.8879E+00   4.0541E-05  0.0194
   1.8879E+00   1.9338E+00   3.9416E-05  0.0195
   1.9338E+00   1.9808E+00   3.9181E-05  0.0193
   1.9808E+00   2.0290E+00   3.8689E-05  0.0192
   2.0290E+00   2.0784E+00   3.9385E-05  0.0188
   2.0784E+00   2.1290E+00   4.0827E-05  0.0182
   2.1290E+00   2.1808E+00   4.0913E-05  0.0180
   2.1808E+00   2.2338E+00   4.1815E-05  0.0175
   2.2338E+00   2.2882E+00   3.8313E-05  0.0182
   2.2882E+00   2.3439E+00   3.8899E-05  0.0178
   2.3439E+00   2.4009E+00   3.8457E-05  0.0177
   2.4009E+00   2.4593E+00   3.8107E-05  0.0176
   2.4593E+00   2.5191E+00   3.9406E-05  0.0171
   2.5191E+00   2.5804E+00   3.9264E-05  0.0169
   2.5804E+00   2.6432E+00   3.8252E-05  0.0169
   2.6432E+00   2.7075E+00   3.7432E-05  0.0169
   2.7075E+00   2.7734E+00   3.7151E-05  0.0168
   2.7734E+00   2.8409E+00   3.8132E-05  0.0164
   2.8409E+00   2.9100E+00   3.7651E-05  0.0163
   2.9100E+00   2.9808E+00   3.6647E-05  0.0163
   2.9808E+00   3.0533E+00   3.6682E-05  0.0161
   3.0533E+00   3.1276E+00   3.7137E-05  0.0158
   3.1276E+00   3.2037E+00   3.5508E-05  0.0160
   3.2037E+00   3.2817E+00   3.5098E-05  0.0159
   3.2817E+00   3.3615E+00   3.6419E-05  0.0155
   3.3615E+00   3.4433E+00   3.6065E-05  0.0154
   3.4433E+00   3.5271E+00   3.5642E-05  0.0153
   3.5271E+00   3.6129E+00   3.3917E-05  0.0155
   3.6129E+00   3.7008E+00   3.5033E-05  0.0150
   3.7008E+00   3.7908E+00   3.4864E-05  0.0149
   3.7908E+00   3.8831E+00   3.3136E-05  0.0151
   3.8831E+00   3.9776E+00   3.3293E-05  0.0149
   3.9776E+00   4.0743E+00   3.3178E-05  0.0147
   4.0743E+00   4.1735E+00   3.3220E-05  0.0146
   4.1735E+00   4.2750E+00   3.2123E-05  0.0146
   4.2750E+00   4.3790E+00   3.1867E-05  0.0145
   4.3790E+00   4.4856E+00   3.1691E-05  0.0144
   4.4856E+00   4.5947E+00   3.1106E-05  0.0143
   4.5947E+00   4.7065E+00   3.0943E-05  0.0142
   4.7065E+00   4.8210E+00   3.0408E-05  0.0142
   4.8210E+00   4.9383E+00   3.0552E-05  0.0140
   4.9383E+00   5.0585E+00   2.9246E-05  0.0141
   5.0585E+00   5.1815E+00   2.8543E-05  0.0141
   5.1815E+00   5.3076E+00   2.9261E-05  0.0138
   5.3076E+00   5.4368E+00   2.8762E-05  0.0137
   5.4368E+00   5.5690E+00   2.8718E-05  0.0136
   5.5690E+00   5.7045E+00   2.8511E-05  0.0135
   5.7045E+00   5.8433E+00   2.8065E-05  0.0134
   5.8433E+00   5.9855E+00   2.8302E-05  0.0132
   5.9855E+00   6.1311E+00   2.7307E-05  0.0133
   6.1311E+00   6.2803E+00   2.7127E-05  0.0132
   6.2803E+00   6.4331E+00   2.6277E-05  0.0132
   6.4331E+00   6.5896E+00   2.6292E-05  0.0131
   6.5896E+00   6.7500E+00   2.5815E-05  0.0130
   6.7500E+00   6.9142E+00   2.5644E-05  0.0129
   6.9142E+00   7.0824E+00   2.5706E-05  0.0127
   7.0824E+00   7.2548E+00   2.4992E-05  0.0128
   7.2548E+00   7.4313E+00   2.5069E-05  0.0126
   7.4313E+00   7.6121E+00   2.4527E-05  0.0126
   7.6121E+00   7.7973E+00   2.3682E-05  0.0127
   7.7973E+00   7.9870E+00   2.3707E-05  0.0125
   7.9870E+00   8.1813E+00   2.3399E-05  0.0124
   8.1813E+00   8.3804E+00   2.3349E-05  0.0123
   8.3804E+00   8.5843E+00   2.2573E-05  0.0124
   8.5843E+00   8.7931E+00   2.2546E-05  0.0122
   8.7931E+00   9.0071E+00   2.2425E-05  0.0121
   9.0071E+00   9.2262E+00   2.1474E-05  0.0122
   9.2262E+00   9.4507E+00   2.1234E-05  0.0122
   9.4507E+00   9.6807E+00   2.0671E-05  0.0122
   9.6807E+00   9.9162E+00   2.0477E-05  0.0121
   9.9162E+00   1.0157E+01   2.1091E-05  0.0118
   1.0157E+01   1.0405E+01   2.0432E-05  0.0119
   1.0405E+01   1.0658E+01   1.9861E-05  0.0119
   1.0658E+01   1.0917E+01   1.9594E-05  0.0118
   1.0917E+01   1.1183E+01   1.9510E-05  0.0117
   1.1183E+01   1.1455E+01   1.8972E-05  0.0117
   1.1455E+01   1.1733E+01   1.9028E-05  0.0116
   1.1733E+01   1.2019E+01   1.8820E-05  0.0115
   1.2019E+01   1.2311E+01   1.8443E-05  0.0115
   1.2311E+01   1.2611E+01   1.8168E-05  0.0114
   1.2611E+01   1.2918E+01   1.8247E-05  0.0113
   1.2918E+01   1.3232E+01   1.7926E-05  0.0112
   1.3232E+01   1.3554E+01   1.7712E-05  0.0112
   1.3554E+01   1.3884E+01   1.7885E-05  0.0110
   1.3884E+01   1.4222E+01   1.7246E-05  0.0111
   1.4222E+01   1.4568E+01   1.6883E-05  0.0111
   1.4568E+01   1.4922E+01   1.6531E-05  0.0110
   1.4922E+01   1.5285E+01   1.6507E-05  0.0109
   1.5285E+01   1.5657E+01   1.6489E-05  0.0108
   1.5657E+01   1.6038E+01   1.6296E-05  0.0107
   1.6038E+01   1.6428E+01   1.6225E-05  0.0106
   1.6428E+01   1.6828E+01   1.5782E-05  0.0106
   1.6828E+01   1.7237E+01   1.5565E-05  0.0106
   1.7237E+01   1.7657E+01   1.5324E-05  0.0105
   1.7657E+01   1.8086E+01   1.5234E-05  0.0104
   1.8086E+01   1.8526E+01   1.4757E-05  0.0105
   1.8526E+01   1.8977E+01   1.4763E-05  0.0104
   1.8977E+01   1.9439E+01   1.4212E-05  0.0104
   1.9439E+01   1.9912E+01   1.4132E-05  0.0103
   1.9912E+01   2.0396E+01   1.4129E-05  0.0102
   2.0396E+01   2.0893E+01   1.3854E-05  0.0102
   2.0893E+01   2.1401E+01   1.3189E-05  0.0103
   2.1401E+01   2.1922E+01   1.3313E-05  0.0102
   2.1922E+01   2.2455E+01   1.3009E-05  0.0101
   2.2455E+01   2.3001E+01   1.2773E-05  0.0101
   2.3001E+01   2.3561E+01   1.2142E-05  0.0103
   2.3561E+01   2.4134E+01   1.1967E-05  0.0102
   2.4134E+01   2.4721E+01   1.1882E-05  0.0101
   2.4721E+01   2.5323E+01   1.1475E-05  0.0102
   2.5323E+01   2.5939E+01   1.1039E-05  0.0102
   2.5939E+01   2.6570E+01   1.0948E-05  0.0102
   2.6570E+01   2.7217E+01   1.0710E-05  0.0102
   2.7217E+01   2.7879E+01   1.0473E-05  0.0101
   2.7879E+01   2.8557E+01   1.1548E-05  0.0095
   2.8557E+01   2.9252E+01   1.2215E-05  0.0092
   2.9252E+01   2.9964E+01   1.1971E-05  0.0092
   2.9964E+01   3.0693E+01   1.1987E-05  0.0090
   3.0693E+01   3.1440E+01   1.1478E-05  0.0091
   3.1440E+01   3.2205E+01   1.1560E-05  0.0090
   3.2205E+01   3.2988E+01   1.1109E-05  0.0091
   3.2988E+01   3.3791E+01   1.1049E-05  0.0090
   3.3791E+01   3.4613E+01   1.0805E-05  0.0090
   3.4613E+01   3.5455E+01   1.0469E-05  0.0090
   3.5455E+01   3.6318E+01   1.0377E-05  0.0089
   3.6318E+01   3.7201E+01   1.0192E-05  0.0089
   3.7201E+01   3.8106E+01   9.8580E-06  0.0089
   3.8106E+01   3.9034E+01   9.7548E-06  0.0089
   3.9034E+01   3.9983E+01   9.4810E-06  0.0089
   3.9983E+01   4.0956E+01   9.2044E-06  0.0089
   4.0956E+01   4.1953E+01   9.0510E-06  0.0089
   4.1953E+01   4.2973E+01   8.6968E-06  0.0090
   4.2973E+01   4.4019E+01   8.4472E-06  0.0090
   4.4019E+01   4.5090E+01   8.0624E-06  0.0091
   4.5090E+01   4.6187E+01   7.8228E-06  0.0091
   4.6187E+01   4.7311E+01   7.6357E-06  0.0091
   4.7311E+01   4.8462E+01   6.3901E-06  0.0099
   4.8462E+01   4.9641E+01   4.6270E-06  0.0114
   4.9641E+01   5.0849E+01   4.1835E-06  0.0119
   5.0849E+01   5.2086E+01   3.8162E-06  0.0123
   5.2086E+01   5.3353E+01   3.4303E-06  0.0128
   5.3353E+01   5.4651E+01   2.9576E-06  0.0136
   5.4651E+01   5.5981E+01   2.2937E-06  0.0153
   5.5981E+01   5.7343E+01   1.9949E-06  0.0162
   5.7343E+01   5.8738E+01   1.7381E-06  0.0172
   5.8738E+01   6.0168E+01   3.8984E-07  0.0358
   6.0168E+01   6.1632E+01   0.0000E+00  0.0000
   6.1632E+01   6.3131E+01   0.0000E+00  0.0000
   6.3131E+01   6.4667E+01   0.0000E+00  0.0000
   6.4667E+01   6.6240E+01   0.0000E+00  0.0000
   6.6240E+01   6.7852E+01   0.0000E+00  0.0000
   6.7852E+01   6.9503E+01   0.0000E+00  0.0000
   6.9503E+01   7.1194E+01   0.0000E+00  0.0000
   7.1194E+01   7.2926E+01   0.0000E+00  0.0000
   7.2926E+01   7.4701E+01   0.0000E+00  0.0000
   7.4701E+01   7.6518E+01   0.0000E+00  0.0000
   7.6518E+01   7.8380E+01   0.0000E+00  0.0000
   7.8380E+01   8.0287E+01   0.0000E+00  0.0000
   8.0287E+01   8.2240E+01   0.0000E+00  0.0000
   8.2240E+01   8.4241E+01   0.0000E+00  0.0000
   8.4241E+01   8.6291E+01   0.0000E+00  0.0000
   8.6291E+01   8.8391E+01   0.0000E+00  0.0000
   8.8391E+01   9.0541E+01   0.0000E+00  0.0000
   9.0541E+01   9.2744E+01   0.0000E+00  0.0000
   9.2744E+01   9.5001E+01   0.0000E+00  0.0000
   9.5001E+01   9.7312E+01   0.0000E+00  0.0000
   9.7312E+01   9.9680E+01   0.0000E+00  0.0000
   9.9680E+01   1.0211E+02   0.0000E+00  0.0000
   1.0211E+02   1.0459E+02   0.0000E+00  0.0000
   1.0459E+02   1.0713E+02   0.0000E+00  0.0000
   1.0713E+02   1.0974E+02   0.0000E+00  0.0000
   1.0974E+02   1.1241E+02   0.0000E+00  0.0000
   1.1241E+02   1.1515E+02   0.0000E+00  0.0000
   1.1515E+02   1.1795E+02   0.0000E+00  0.0000
   1.1795E+02   1.2082E+02   0.0000E+00  0.0000
   1.2082E+02   1.2376E+02   0.0000E+00  0.0000
   1.2376E+02   1.2677E+02   0.0000E+00  0.0000
   1.2677E+02   1.2985E+02   0.0000E+00  0.0000
   1.2985E+02   1.3301E+02   0.0000E+00  0.0000
   1.3301E+02   1.3625E+02   0.0000E+00  0.0000
   1.3625E+02   1.3956E+02   0.0000E+00  0.0000
   1.3956E+02   1.4296E+02   0.0000E+00  0.0000
   1.4296E+02   1.4644E+02   0.0000E+00  0.0000
   1.4644E+02   1.5000E+02   0.0000E+00  0.0000

#   sum over                 5.3580E-06
'no. =    1   reg = 104 - 204'
msuc: {\huge [t-cross] in region mesh}
msdr: {\it plotted by \ANGEL \version}
msdl: {\it calculated by \PHITS  3.26}
wt: s(0.7)
\vspace{-3}
  region surface crossing
  area  &=&   1.0000E+00 [cm^2]
e:
 
# Information for Restart Calculation
# This calculation was newly started
# istdev =  2 # 1:Batch variance, 2:History variance
# resc2  = 1.40000000000000000E+09 # Total source weight or Total source weight / maxcas
# resc3  = 1.40000000000000000E+09 # Total history number or Total batch number
# maxcas =   100000000 # History / Batch, only used for istdev=1
# bitrseed = 1101000110001001101011111100100010001101001010000111001101010101 # bit data of rseed
