[ T-Cross ]
    title = [t-cross] in region mesh
     mesh =  reg            # mesh type is region-wise
      reg =    1            # number of crossing regions
      non     r-from    r-to       area
      1       126       226        1.000000    
   e-type =    3            # e-mesh is log given by emin, emax and ne
     emin =  1.0000000E-02  # minimum value of e-mesh points
     emax =   150.0000      # maximum value of e-mesh points
#    edel =  2.4039514E-02  # mesh width of e-mesh points
       ne =    400          # number of e-mesh points
#    data = ( e(i), i = 1, ne + 1 )
#           1.00000E-02  1.02433E-02  1.04925E-02  1.07478E-02  1.10093E-02
#           1.12772E-02  1.15516E-02  1.18326E-02  1.21205E-02  1.24154E-02
#           1.27175E-02  1.30269E-02  1.33439E-02  1.36686E-02  1.40011E-02
#           1.43418E-02  1.46907E-02  1.50482E-02  1.54143E-02  1.57894E-02
#           1.61735E-02  1.65670E-02  1.69701E-02  1.73830E-02  1.78060E-02
#           1.82392E-02  1.86830E-02  1.91375E-02  1.96032E-02  2.00801E-02
#           2.05687E-02  2.10692E-02  2.15818E-02  2.21069E-02  2.26448E-02
#           2.31957E-02  2.37601E-02  2.43382E-02  2.49304E-02  2.55369E-02
#           2.61583E-02  2.67947E-02  2.74467E-02  2.81145E-02  2.87985E-02
#           2.94992E-02  3.02169E-02  3.09521E-02  3.17052E-02  3.24766E-02
#           3.32668E-02  3.40762E-02  3.49053E-02  3.57546E-02  3.66246E-02
#           3.75157E-02  3.84284E-02  3.93634E-02  4.03212E-02  4.13022E-02
#           4.23071E-02  4.33365E-02  4.43909E-02  4.54710E-02  4.65773E-02
#           4.77106E-02  4.88714E-02  5.00605E-02  5.12785E-02  5.25262E-02
#           5.38042E-02  5.51133E-02  5.64542E-02  5.78278E-02  5.92348E-02
#           6.06760E-02  6.21523E-02  6.36645E-02  6.52135E-02  6.68002E-02
#           6.84255E-02  7.00904E-02  7.17957E-02  7.35426E-02  7.53319E-02
#           7.71648E-02  7.90423E-02  8.09655E-02  8.29354E-02  8.49533E-02
#           8.70203E-02  8.91376E-02  9.13064E-02  9.35279E-02  9.58035E-02
#           9.81345E-02  1.00522E-01  1.02968E-01  1.05473E-01  1.08040E-01
#           1.10668E-01  1.13361E-01  1.16119E-01  1.18944E-01  1.21838E-01
#           1.24803E-01  1.27839E-01  1.30950E-01  1.34136E-01  1.37399E-01
#           1.40742E-01  1.44167E-01  1.47675E-01  1.51268E-01  1.54948E-01
#           1.58718E-01  1.62580E-01  1.66535E-01  1.70587E-01  1.74738E-01
#           1.78989E-01  1.83344E-01  1.87805E-01  1.92375E-01  1.97055E-01
#           2.01850E-01  2.06761E-01  2.11792E-01  2.16945E-01  2.22223E-01
#           2.27630E-01  2.33169E-01  2.38842E-01  2.44653E-01  2.50605E-01
#           2.56703E-01  2.62949E-01  2.69346E-01  2.75900E-01  2.82613E-01
#           2.89489E-01  2.96532E-01  3.03747E-01  3.11138E-01  3.18708E-01
#           3.26462E-01  3.34405E-01  3.42542E-01  3.50876E-01  3.59413E-01
#           3.68158E-01  3.77116E-01  3.86291E-01  3.95690E-01  4.05317E-01
#           4.15179E-01  4.25281E-01  4.35628E-01  4.46227E-01  4.57084E-01
#           4.68205E-01  4.79597E-01  4.91266E-01  5.03219E-01  5.15463E-01
#           5.28005E-01  5.40851E-01  5.54011E-01  5.67490E-01  5.81298E-01
#           5.95441E-01  6.09929E-01  6.24769E-01  6.39970E-01  6.55541E-01
#           6.71491E-01  6.87828E-01  7.04564E-01  7.21706E-01  7.39266E-01
#           7.57253E-01  7.75678E-01  7.94551E-01  8.13883E-01  8.33685E-01
#           8.53969E-01  8.74747E-01  8.96030E-01  9.17831E-01  9.40163E-01
#           9.63038E-01  9.86469E-01  1.01047E+00  1.03506E+00  1.06024E+00
#           1.08604E+00  1.11246E+00  1.13953E+00  1.16725E+00  1.19565E+00
#           1.22474E+00  1.25454E+00  1.28507E+00  1.31633E+00  1.34836E+00
#           1.38117E+00  1.41477E+00  1.44920E+00  1.48446E+00  1.52057E+00
#           1.55757E+00  1.59547E+00  1.63429E+00  1.67405E+00  1.71478E+00
#           1.75650E+00  1.79924E+00  1.84302E+00  1.88786E+00  1.93379E+00
#           1.98084E+00  2.02904E+00  2.07841E+00  2.12898E+00  2.18078E+00
#           2.23384E+00  2.28819E+00  2.34386E+00  2.40089E+00  2.45930E+00
#           2.51914E+00  2.58043E+00  2.64322E+00  2.70753E+00  2.77341E+00
#           2.84088E+00  2.91001E+00  2.98081E+00  3.05333E+00  3.12762E+00
#           3.20372E+00  3.28167E+00  3.36152E+00  3.44330E+00  3.52708E+00
#           3.61290E+00  3.70080E+00  3.79085E+00  3.88308E+00  3.97756E+00
#           4.07434E+00  4.17347E+00  4.27501E+00  4.37903E+00  4.48557E+00
#           4.59471E+00  4.70650E+00  4.82102E+00  4.93832E+00  5.05847E+00
#           5.18155E+00  5.30762E+00  5.43676E+00  5.56904E+00  5.70453E+00
#           5.84333E+00  5.98550E+00  6.13114E+00  6.28031E+00  6.43312E+00
#           6.58964E+00  6.74997E+00  6.91420E+00  7.08243E+00  7.25475E+00
#           7.43126E+00  7.61207E+00  7.79728E+00  7.98700E+00  8.18133E+00
#           8.38038E+00  8.58428E+00  8.79315E+00  9.00709E+00  9.22624E+00
#           9.45072E+00  9.68067E+00  9.91620E+00  1.01575E+01  1.04046E+01
#           1.06578E+01  1.09171E+01  1.11827E+01  1.14548E+01  1.17335E+01
#           1.20190E+01  1.23114E+01  1.26109E+01  1.29178E+01  1.32321E+01
#           1.35540E+01  1.38838E+01  1.42216E+01  1.45676E+01  1.49221E+01
#           1.52851E+01  1.56570E+01  1.60380E+01  1.64282E+01  1.68279E+01
#           1.72374E+01  1.76568E+01  1.80864E+01  1.85264E+01  1.89772E+01
#           1.94389E+01  1.99119E+01  2.03963E+01  2.08926E+01  2.14009E+01
#           2.19216E+01  2.24550E+01  2.30014E+01  2.35610E+01  2.41343E+01
#           2.47215E+01  2.53230E+01  2.59391E+01  2.65702E+01  2.72167E+01
#           2.78789E+01  2.85572E+01  2.92520E+01  2.99637E+01  3.06928E+01
#           3.14396E+01  3.22045E+01  3.29881E+01  3.37907E+01  3.46128E+01
#           3.54550E+01  3.63177E+01  3.72013E+01  3.81064E+01  3.90336E+01
#           3.99833E+01  4.09561E+01  4.19526E+01  4.29734E+01  4.40189E+01
#           4.50900E+01  4.61870E+01  4.73108E+01  4.84619E+01  4.96410E+01
#           5.08488E+01  5.20860E+01  5.33533E+01  5.46514E+01  5.59812E+01
#           5.73432E+01  5.87384E+01  6.01676E+01  6.16315E+01  6.31311E+01
#           6.46671E+01  6.62405E+01  6.78522E+01  6.95031E+01  7.11941E+01
#           7.29263E+01  7.47007E+01  7.65182E+01  7.83800E+01  8.02870E+01
#           8.22405E+01  8.42414E+01  8.62911E+01  8.83906E+01  9.05412E+01
#           9.27442E+01  9.50007E+01  9.73122E+01  9.96799E+01  1.02105E+02
#           1.04589E+02  1.07134E+02  1.09741E+02  1.12411E+02  1.15146E+02
#           1.17948E+02  1.20817E+02  1.23757E+02  1.26768E+02  1.29852E+02
#           1.33012E+02  1.36248E+02  1.39563E+02  1.42959E+02  1.46437E+02
#           1.50000E+02
     unit =    2            # unit is [1/cm^2/(MeV/n)/source]
     axis =  eng            # axis of output
     file = detector-27.out  # file name of output for the above axis
   output = f-curr          # surface crossing forward current spectrum
     part =  neutron  
# kf/name :  2112     
#    used :        main (  %)        temp (  %)       total (  %)
#  memory :         414 (  0)           0 (  0)         414 (  0)

#------------------------------------------------------------------------------
#newpage:
#   no. =    1   reg = 126 - 226

x: Energy [MeV/n]
y:  F-Curr [1/cm^2/(MeV/n)/source]         
p: xlog ylog afac(0.8) form(0.9)
h: n            x            y(neutron ),hh0l   n 
#  e-lower      e-upper      neutron     r.err 
   1.0000E-02   1.0243E-02   1.6440E-05  0.7071
   1.0243E-02   1.0493E-02   1.6050E-05  0.7071
   1.0493E-02   1.0748E-02   1.5668E-05  0.7071
   1.0748E-02   1.1009E-02   1.5296E-05  0.7071
   1.1009E-02   1.1277E-02   7.4664E-06  1.0000
   1.1277E-02   1.1552E-02   0.0000E+00  0.0000
   1.1552E-02   1.1833E-02   0.0000E+00  0.0000
   1.1833E-02   1.2121E-02   1.3894E-05  0.7071
   1.2121E-02   1.2415E-02   1.3564E-05  0.7071
   1.2415E-02   1.2718E-02   1.3242E-05  0.7071
   1.2718E-02   1.3027E-02   1.2927E-05  0.7071
   1.3027E-02   1.3344E-02   1.2620E-05  0.7071
   1.3344E-02   1.3669E-02   6.1601E-06  1.0000
   1.3669E-02   1.4001E-02   6.0138E-06  1.0000
   1.4001E-02   1.4342E-02   1.7613E-05  0.5774
   1.4342E-02   1.4691E-02   1.1463E-05  0.7071
   1.4691E-02   1.5048E-02   1.1191E-05  0.7071
   1.5048E-02   1.5414E-02   1.0925E-05  0.7071
   1.5414E-02   1.5789E-02   5.3327E-06  1.0000
   1.5789E-02   1.6174E-02   1.0412E-05  0.7071
   1.6174E-02   1.6567E-02   1.0165E-05  0.7071
   1.6567E-02   1.6970E-02   2.9770E-05  0.4082
   1.6970E-02   1.7383E-02   0.0000E+00  0.0000
   1.7383E-02   1.7806E-02   9.4575E-06  0.7071
   1.7806E-02   1.8239E-02   4.6165E-06  1.0000
   1.8239E-02   1.8683E-02   9.0136E-06  0.7071
   1.8683E-02   1.9138E-02   8.7995E-06  0.7071
   1.9138E-02   1.9603E-02   1.7181E-05  0.5000
   1.9603E-02   2.0080E-02   1.6773E-05  0.5000
   2.0080E-02   2.0569E-02   2.0468E-05  0.4472
   2.0569E-02   2.1069E-02   3.1971E-05  0.3536
   2.1069E-02   2.1582E-02   7.8029E-06  0.7071
   2.1582E-02   2.2107E-02   1.5235E-05  0.5000
   2.2107E-02   2.2645E-02   2.2310E-05  0.4082
   2.2645E-02   2.3196E-02   2.5410E-05  0.3780
   2.3196E-02   2.3760E-02   3.5438E-06  1.0000
   2.3760E-02   2.4338E-02   3.4596E-06  1.0000
   2.4338E-02   2.4930E-02   2.3642E-05  0.3780
   2.4930E-02   2.5537E-02   9.8916E-06  0.5774
   2.5537E-02   2.6158E-02   2.8970E-05  0.3333
   2.6158E-02   2.6795E-02   1.5712E-05  0.4472
   2.6795E-02   2.7447E-02   1.5339E-05  0.4472
   2.7447E-02   2.8114E-02   1.7969E-05  0.4082
   2.8114E-02   2.8799E-02   1.7543E-05  0.4082
   2.8799E-02   2.9499E-02   1.4272E-05  0.4472
   2.9499E-02   3.0217E-02   2.2292E-05  0.3536
   3.0217E-02   3.0952E-02   2.9924E-05  0.3015
   3.0952E-02   3.1705E-02   5.3114E-06  0.7071
   3.1705E-02   3.2477E-02   1.8149E-05  0.3780
   3.2477E-02   3.3267E-02   1.2655E-05  0.4472
   3.3267E-02   3.4076E-02   1.7297E-05  0.3780
   3.4076E-02   3.4905E-02   1.4473E-05  0.4082
   3.4905E-02   3.5755E-02   1.4130E-05  0.4082
   3.5755E-02   3.6625E-02   1.3794E-05  0.4082
   3.6625E-02   3.7516E-02   1.1222E-05  0.4472
   3.7516E-02   3.8428E-02   1.0955E-05  0.4472
   3.8428E-02   3.9363E-02   1.9251E-05  0.3333
   3.9363E-02   4.0321E-02   1.8794E-05  0.3333
   4.0321E-02   4.1302E-02   1.8348E-05  0.3333
   4.1302E-02   4.2307E-02   1.9902E-05  0.3162
   4.2307E-02   4.3337E-02   9.7147E-06  0.4472
   4.3337E-02   4.4391E-02   7.5872E-06  0.5000
   4.4391E-02   4.5471E-02   2.4073E-05  0.2774
   4.5471E-02   4.6577E-02   1.4462E-05  0.3536
   4.6577E-02   4.7711E-02   2.1178E-05  0.2887
   4.7711E-02   4.8871E-02   1.0337E-05  0.4082
   4.8871E-02   5.0061E-02   8.4099E-06  0.4472
   5.0061E-02   5.1279E-02   2.2988E-05  0.2673
   5.1279E-02   5.2526E-02   1.4427E-05  0.3333
   5.2526E-02   5.3804E-02   1.2520E-05  0.3536
   5.3804E-02   5.5113E-02   1.3750E-05  0.3333
   5.5113E-02   5.6454E-02   8.9489E-06  0.4082
   5.6454E-02   5.7828E-02   1.1648E-05  0.3536
   5.7828E-02   5.9235E-02   1.4215E-05  0.3162
   5.9235E-02   6.0676E-02   1.8040E-05  0.2774
   6.0676E-02   6.2152E-02   1.0838E-05  0.3536
   6.2152E-02   6.3665E-02   1.6101E-05  0.2849
   6.3665E-02   6.5214E-02   1.0329E-05  0.3536
   6.5214E-02   6.6800E-02   1.7850E-05  0.2645
   6.6800E-02   6.8426E-02   1.1075E-05  0.3333
   6.8426E-02   7.0090E-02   9.6105E-06  0.3536
   7.0090E-02   7.1796E-02   1.1728E-05  0.3162
   7.1796E-02   7.3543E-02   1.1449E-05  0.3162
   7.3543E-02   7.5332E-02   8.9418E-06  0.3536
   7.5332E-02   7.7165E-02   1.5276E-05  0.2673
   7.7165E-02   7.9042E-02   1.0653E-05  0.3162
   7.9042E-02   8.0965E-02   8.3196E-06  0.3536
   8.0965E-02   8.2935E-02   1.1168E-05  0.3015
   8.2935E-02   8.4953E-02   7.9291E-06  0.3536
   8.4953E-02   8.7020E-02   1.5482E-05  0.2500
   8.7020E-02   8.9138E-02   8.5015E-06  0.3333
   8.9138E-02   9.1306E-02   1.5677E-05  0.2425
   9.1306E-02   9.3528E-02   9.9030E-06  0.3015
   9.3528E-02   9.5804E-02   9.6677E-06  0.3015
   9.5804E-02   9.8134E-02   1.2870E-05  0.2582
   9.8134E-02   1.0052E-01   6.7010E-06  0.3536
   1.0052E-01   1.0297E-01   1.1448E-05  0.2673
   1.0297E-01   1.0547E-01   4.7899E-06  0.4082
   1.0547E-01   1.0804E-01   8.5728E-06  0.3015
   1.0804E-01   1.1067E-01   5.4338E-06  0.3710
   1.1067E-01   1.1336E-01   1.1141E-05  0.2582
   1.1336E-01   1.1612E-01   1.0152E-05  0.2673
   1.1612E-01   1.1894E-01   7.0790E-06  0.3162
   1.1894E-01   1.2184E-01   1.5895E-05  0.2085
   1.2184E-01   1.2480E-01   8.0960E-06  0.2887
   1.2480E-01   1.2784E-01   7.2451E-06  0.3015
   1.2784E-01   1.3095E-01   5.1440E-06  0.3536
   1.3095E-01   1.3414E-01   7.0998E-06  0.2939
   1.3414E-01   1.3740E-01   7.9666E-06  0.2774
   1.3740E-01   1.4074E-01   1.2563E-05  0.2182
   1.4074E-01   1.4417E-01   5.2564E-06  0.3333
   1.4417E-01   1.4767E-01   7.9825E-06  0.2673
   1.4767E-01   1.5127E-01   6.6796E-06  0.2887
   1.5127E-01   1.5495E-01   6.5209E-06  0.2887
   1.5495E-01   1.5872E-01   9.0185E-06  0.2425
   1.5872E-01   1.6258E-01   8.8813E-06  0.2406
   1.6258E-01   1.6654E-01   4.0448E-06  0.3536
   1.6654E-01   1.7059E-01   7.8975E-06  0.2500
   1.7059E-01   1.7474E-01   3.3731E-06  0.3780
   1.7474E-01   1.7899E-01   4.2338E-06  0.3333
   1.7899E-01   1.8334E-01   4.5925E-06  0.3162
   1.8334E-01   1.8781E-01   9.0278E-06  0.2222
   1.8781E-01   1.9237E-01   4.8146E-06  0.3015
   1.9237E-01   1.9706E-01   4.7002E-06  0.3015
   1.9706E-01   2.0185E-01   3.7543E-06  0.3333
   2.0185E-01   2.0676E-01   5.7013E-06  0.2673
   2.0676E-01   2.1179E-01   6.7586E-06  0.2425
   2.1179E-01   2.1694E-01   5.4337E-06  0.2673
   2.1694E-01   2.2222E-01   4.9257E-06  0.2774
   2.2222E-01   2.2763E-01   7.3980E-06  0.2236
   2.2763E-01   2.3317E-01   5.0556E-06  0.2673
   2.3317E-01   2.3884E-01   5.9931E-06  0.2425
   2.3884E-01   2.4465E-01   5.8508E-06  0.2425
   2.4465E-01   2.5061E-01   6.4280E-06  0.2279
   2.5061E-01   2.5670E-01   3.6081E-06  0.3015
   2.5670E-01   2.6295E-01   6.7245E-06  0.2182
   2.6295E-01   2.6935E-01   5.3144E-06  0.2425
   2.6935E-01   2.7590E-01   5.1881E-06  0.2425
   2.7590E-01   2.8261E-01   3.5752E-06  0.2887
   2.8261E-01   2.8949E-01   4.3629E-06  0.2582
   2.8949E-01   2.9653E-01   5.3950E-06  0.2294
   2.9653E-01   3.0375E-01   3.3265E-06  0.2887
   3.0375E-01   3.1114E-01   5.1418E-06  0.2294
   3.1114E-01   3.1871E-01   4.2271E-06  0.2500
   3.1871E-01   3.2646E-01   4.1267E-06  0.2500
   3.2646E-01   3.3441E-01   2.5179E-06  0.3162
   3.3441E-01   3.4254E-01   4.4246E-06  0.2357
   3.4254E-01   3.5088E-01   5.5194E-06  0.2085
   3.5088E-01   3.5941E-01   5.6225E-06  0.2041
   3.5941E-01   3.6816E-01   6.1751E-06  0.1925
   3.6816E-01   3.7712E-01   4.2422E-06  0.2294
   3.7712E-01   3.8629E-01   5.2313E-06  0.2041
   3.8629E-01   3.9569E-01   4.4687E-06  0.2182
   3.9569E-01   4.0532E-01   4.8103E-06  0.2072
   4.0532E-01   4.1518E-01   4.2998E-06  0.2164
   4.1518E-01   4.2528E-01   5.3457E-06  0.1925
   4.2528E-01   4.3563E-01   4.4456E-06  0.2085
   4.3563E-01   4.4623E-01   6.4428E-06  0.1708
   4.4623E-01   4.5708E-01   4.7895E-06  0.1961
   4.5708E-01   4.6821E-01   2.8774E-06  0.2500
   4.6821E-01   4.7960E-01   4.6525E-06  0.1933
   4.7960E-01   4.9127E-01   4.4563E-06  0.1961
   4.9127E-01   5.0322E-01   3.5975E-06  0.2144
   5.0322E-01   5.1546E-01   4.4921E-06  0.1898
   5.1546E-01   5.2800E-01   3.6678E-06  0.2085
   5.2800E-01   5.4085E-01   3.7363E-06  0.2020
   5.4085E-01   5.5401E-01   4.1035E-06  0.1925
   5.5401E-01   5.6749E-01   3.4126E-06  0.2085
   5.6749E-01   5.8130E-01   5.0697E-06  0.1690
   5.8130E-01   5.9544E-01   3.5352E-06  0.2000
   5.9544E-01   6.0993E-01   2.9166E-06  0.2170
   6.0993E-01   6.2477E-01   3.9297E-06  0.1848
   6.2477E-01   6.3997E-01   3.1577E-06  0.2041
   6.3997E-01   6.5554E-01   2.4404E-06  0.2294
   6.5554E-01   6.7149E-01   3.7618E-06  0.1826
   6.7149E-01   6.8783E-01   3.4276E-06  0.1890
   6.8783E-01   7.0456E-01   4.2425E-06  0.1672
   7.0456E-01   7.2171E-01   3.5001E-06  0.1826
   7.2171E-01   7.3927E-01   3.3233E-06  0.1847
   7.3927E-01   7.5725E-01   3.8917E-06  0.1690
   7.5725E-01   7.7568E-01   4.0164E-06  0.1644
   7.7568E-01   7.9455E-01   3.7090E-06  0.1690
   7.9455E-01   8.1388E-01   3.4445E-06  0.1726
   8.1388E-01   8.3368E-01   2.9289E-06  0.1857
   8.3368E-01   8.5397E-01   4.4369E-06  0.1491
   8.5397E-01   8.7475E-01   3.3857E-06  0.1683
   8.7475E-01   8.9603E-01   3.5709E-06  0.1622
   8.9603E-01   9.1783E-01   3.3026E-06  0.1667
   9.1783E-01   9.4016E-01   2.7763E-06  0.1796
   9.4016E-01   9.6304E-01   3.5847E-06  0.1562
   9.6304E-01   9.8647E-01   1.8034E-06  0.2170
   9.8647E-01   1.0105E+00   3.5938E-06  0.1521
   1.0105E+00   1.0351E+00   2.4405E-06  0.1826
   1.0351E+00   1.0602E+00   3.0178E-06  0.1622
   1.0602E+00   1.0860E+00   3.7990E-06  0.1429
   1.0860E+00   1.1125E+00   2.1950E-06  0.1857
   1.1125E+00   1.1395E+00   3.2512E-06  0.1508
   1.1395E+00   1.1673E+00   3.2928E-06  0.1474
   1.1673E+00   1.1957E+00   3.2394E-06  0.1474
   1.1957E+00   1.2247E+00   2.6812E-06  0.1601
   1.2247E+00   1.2545E+00   3.0874E-06  0.1474
   1.2545E+00   1.2851E+00   2.5636E-06  0.1596
   1.2851E+00   1.3163E+00   2.3133E-06  0.1660
   1.3163E+00   1.3484E+00   3.0911E-06  0.1418
   1.3484E+00   1.3812E+00   3.4230E-06  0.1333
   1.3812E+00   1.4148E+00   2.8665E-06  0.1431
   1.4148E+00   1.4492E+00   4.2684E-06  0.1160
   1.4492E+00   1.4845E+00   3.4033E-06  0.1291
   1.4845E+00   1.5206E+00   3.2207E-06  0.1310
   1.5206E+00   1.5576E+00   3.3676E-06  0.1264
   1.5576E+00   1.5955E+00   3.1137E-06  0.1302
   1.5955E+00   1.6343E+00   2.8594E-06  0.1339
   1.6343E+00   1.6741E+00   2.8001E-06  0.1336
   1.6741E+00   1.7148E+00   2.6024E-06  0.1374
   1.7148E+00   1.7565E+00   2.6925E-06  0.1333
   1.7565E+00   1.7992E+00   2.7143E-06  0.1313
   1.7992E+00   1.8430E+00   1.9944E-06  0.1507
   1.8430E+00   1.8879E+00   3.1726E-06  0.1185
   1.8879E+00   1.9338E+00   2.7431E-06  0.1260
   1.9338E+00   1.9808E+00   2.6780E-06  0.1255
   1.9808E+00   2.0290E+00   3.2708E-06  0.1123
   2.0290E+00   2.0784E+00   2.8210E-06  0.1195
   2.0784E+00   2.1290E+00   3.3222E-06  0.1091
   2.1290E+00   2.1808E+00   2.9220E-06  0.1146
   2.1808E+00   2.2338E+00   2.6087E-06  0.1201
   2.2338E+00   2.2882E+00   2.2999E-06  0.1262
   2.2882E+00   2.3439E+00   2.5865E-06  0.1179
   2.3439E+00   2.4009E+00   2.9160E-06  0.1096
   2.4009E+00   2.4593E+00   2.3170E-06  0.1212
   2.4593E+00   2.5191E+00   1.9829E-06  0.1295
   2.5191E+00   2.5804E+00   3.1651E-06  0.1015
   2.5804E+00   2.6432E+00   2.2657E-06  0.1185
   2.6432E+00   2.7075E+00   2.4627E-06  0.1123
   2.7075E+00   2.7734E+00   1.9734E-06  0.1240
   2.7734E+00   2.8409E+00   2.2921E-06  0.1135
   2.8409E+00   2.9100E+00   1.4799E-06  0.1397
   2.9100E+00   2.9808E+00   1.2475E-06  0.1502
   2.9808E+00   3.0533E+00   1.1626E-06  0.1538
   3.0533E+00   3.1276E+00   1.2653E-06  0.1459
   3.1276E+00   3.2037E+00   9.5117E-07  0.1659
   3.2037E+00   3.2817E+00   1.0120E-06  0.1585
   3.2817E+00   3.3615E+00   1.1969E-06  0.1439
   3.3615E+00   3.4433E+00   1.3867E-06  0.1323
   3.4433E+00   3.5271E+00   1.2692E-06  0.1370
   3.5271E+00   3.6129E+00   9.0891E-07  0.1601
   3.6129E+00   3.7008E+00   1.0466E-06  0.1474
   3.7008E+00   3.7908E+00   7.1709E-07  0.1753
   3.7908E+00   3.8831E+00   9.5764E-07  0.1502
   3.8831E+00   3.9776E+00   9.1385E-07  0.1519
   3.9776E+00   4.0743E+00   1.0953E-06  0.1374
   4.0743E+00   4.1735E+00   8.2718E-07  0.1562
   4.1735E+00   4.2750E+00   9.0927E-07  0.1470
   4.2750E+00   4.3790E+00   9.4864E-07  0.1420
   4.3790E+00   4.4856E+00   5.6314E-07  0.1826
   4.4856E+00   4.5947E+00   5.3144E-07  0.1857
   4.5947E+00   4.7065E+00   6.7983E-07  0.1622
   4.7065E+00   4.8210E+00   6.1128E-07  0.1690
   4.8210E+00   4.9383E+00   6.9907E-07  0.1562
   4.9383E+00   5.0585E+00   7.1888E-07  0.1519
   5.0585E+00   5.1815E+00   6.3375E-07  0.1601
   5.1815E+00   5.3076E+00   6.5321E-07  0.1556
   5.3076E+00   5.4368E+00   7.8985E-07  0.1400
   5.4368E+00   5.5690E+00   6.5226E-07  0.1520
   5.5690E+00   5.7045E+00   4.9192E-07  0.1725
   5.7045E+00   5.8433E+00   4.6359E-07  0.1759
   5.8433E+00   5.9855E+00   6.1257E-07  0.1508
   5.9855E+00   6.1311E+00   3.7080E-07  0.1925
   6.1311E+00   6.2803E+00   4.4710E-07  0.1724
   6.2803E+00   6.4331E+00   5.7810E-07  0.1502
   6.4331E+00   6.5896E+00   4.8738E-07  0.1617
   6.5896E+00   6.7500E+00   5.4886E-07  0.1508
   6.7500E+00   6.9142E+00   4.1593E-07  0.1708
   6.9142E+00   7.0824E+00   4.3988E-07  0.1644
   7.0824E+00   7.2548E+00   4.9907E-07  0.1525
   7.2548E+00   7.4313E+00   4.0993E-07  0.1659
   7.4313E+00   7.6121E+00   4.4246E-07  0.1581
   7.6121E+00   7.7973E+00   6.2632E-07  0.1313
   7.7973E+00   7.9870E+00   5.6055E-07  0.1370
   7.9870E+00   8.1813E+00   4.3225E-07  0.1543
   8.1813E+00   8.3804E+00   4.3366E-07  0.1520
   8.3804E+00   8.5843E+00   3.1388E-07  0.1768
   8.5843E+00   8.7931E+00   2.7922E-07  0.1848
   8.7931E+00   9.0071E+00   4.0197E-07  0.1525
   9.0071E+00   9.2262E+00   3.3767E-07  0.1644
   9.2262E+00   9.4507E+00   3.7420E-07  0.1543
   9.4507E+00   9.6807E+00   2.8703E-07  0.1741
   9.6807E+00   9.9162E+00   3.7361E-07  0.1508
   9.9162E+00   1.0157E+01   4.0619E-07  0.1429
   1.0157E+01   1.0405E+01   3.8035E-07  0.1459
   1.0405E+01   1.0658E+01   2.6071E-07  0.1741
   1.0658E+01   1.0917E+01   2.3138E-07  0.1826
   1.0917E+01   1.1183E+01   3.0118E-07  0.1581
   1.1183E+01   1.1455E+01   3.5283E-07  0.1443
   1.1455E+01   1.1733E+01   2.7269E-07  0.1622
   1.1733E+01   1.2019E+01   2.5220E-07  0.1667
   1.2019E+01   1.2311E+01   2.4621E-07  0.1667
   1.2311E+01   1.2611E+01   2.2033E-07  0.1741
   1.2611E+01   1.2918E+01   2.4769E-07  0.1622
   1.2918E+01   1.3232E+01   2.6090E-07  0.1562
   1.3232E+01   1.3554E+01   2.6712E-07  0.1525
   1.3554E+01   1.3884E+01   2.1833E-07  0.1667
   1.3884E+01   1.4222E+01   1.5986E-07  0.1925
   1.4222E+01   1.4568E+01   1.6184E-07  0.1890
   1.4568E+01   1.4922E+01   1.8057E-07  0.1768
   1.4922E+01   1.5285E+01   1.8729E-07  0.1715
   1.5285E+01   1.5657E+01   1.7747E-07  0.1741
   1.5657E+01   1.6038E+01   1.6800E-07  0.1768
   1.6038E+01   1.6428E+01   2.1526E-07  0.1543
   1.6428E+01   1.6828E+01   1.5011E-07  0.1826
   1.6828E+01   1.7237E+01   1.3677E-07  0.1890
   1.7237E+01   1.7657E+01   1.2876E-07  0.1925
   1.7657E+01   1.8086E+01   1.1639E-07  0.2000
   1.8086E+01   1.8526E+01   7.2718E-08  0.2500
   1.8526E+01   1.8977E+01   5.7680E-08  0.2774
   1.8977E+01   1.9439E+01   4.3315E-08  0.3162
   1.9439E+01   1.9912E+01   5.0744E-08  0.2887
   1.9912E+01   2.0396E+01   1.6513E-08  0.5000
   2.0396E+01   2.0893E+01   4.0302E-09  1.0000
   2.0893E+01   2.1401E+01   3.9344E-09  1.0000
   2.1401E+01   2.1922E+01   0.0000E+00  0.0000
   2.1922E+01   2.2455E+01   0.0000E+00  0.0000
   2.2455E+01   2.3001E+01   0.0000E+00  0.0000
   2.3001E+01   2.3561E+01   0.0000E+00  0.0000
   2.3561E+01   2.4134E+01   0.0000E+00  0.0000
   2.4134E+01   2.4721E+01   0.0000E+00  0.0000
   2.4721E+01   2.5323E+01   0.0000E+00  0.0000
   2.5323E+01   2.5939E+01   0.0000E+00  0.0000
   2.5939E+01   2.6570E+01   0.0000E+00  0.0000
   2.6570E+01   2.7217E+01   0.0000E+00  0.0000
   2.7217E+01   2.7879E+01   0.0000E+00  0.0000
   2.7879E+01   2.8557E+01   0.0000E+00  0.0000
   2.8557E+01   2.9252E+01   0.0000E+00  0.0000
   2.9252E+01   2.9964E+01   0.0000E+00  0.0000
   2.9964E+01   3.0693E+01   0.0000E+00  0.0000
   3.0693E+01   3.1440E+01   0.0000E+00  0.0000
   3.1440E+01   3.2205E+01   0.0000E+00  0.0000
   3.2205E+01   3.2988E+01   0.0000E+00  0.0000
   3.2988E+01   3.3791E+01   0.0000E+00  0.0000
   3.3791E+01   3.4613E+01   0.0000E+00  0.0000
   3.4613E+01   3.5455E+01   0.0000E+00  0.0000
   3.5455E+01   3.6318E+01   0.0000E+00  0.0000
   3.6318E+01   3.7201E+01   0.0000E+00  0.0000
   3.7201E+01   3.8106E+01   0.0000E+00  0.0000
   3.8106E+01   3.9034E+01   0.0000E+00  0.0000
   3.9034E+01   3.9983E+01   0.0000E+00  0.0000
   3.9983E+01   4.0956E+01   0.0000E+00  0.0000
   4.0956E+01   4.1953E+01   0.0000E+00  0.0000
   4.1953E+01   4.2973E+01   0.0000E+00  0.0000
   4.2973E+01   4.4019E+01   0.0000E+00  0.0000
   4.4019E+01   4.5090E+01   0.0000E+00  0.0000
   4.5090E+01   4.6187E+01   0.0000E+00  0.0000
   4.6187E+01   4.7311E+01   0.0000E+00  0.0000
   4.7311E+01   4.8462E+01   0.0000E+00  0.0000
   4.8462E+01   4.9641E+01   0.0000E+00  0.0000
   4.9641E+01   5.0849E+01   0.0000E+00  0.0000
   5.0849E+01   5.2086E+01   0.0000E+00  0.0000
   5.2086E+01   5.3353E+01   0.0000E+00  0.0000
   5.3353E+01   5.4651E+01   0.0000E+00  0.0000
   5.4651E+01   5.5981E+01   0.0000E+00  0.0000
   5.5981E+01   5.7343E+01   0.0000E+00  0.0000
   5.7343E+01   5.8738E+01   0.0000E+00  0.0000
   5.8738E+01   6.0168E+01   0.0000E+00  0.0000
   6.0168E+01   6.1632E+01   0.0000E+00  0.0000
   6.1632E+01   6.3131E+01   0.0000E+00  0.0000
   6.3131E+01   6.4667E+01   0.0000E+00  0.0000
   6.4667E+01   6.6240E+01   0.0000E+00  0.0000
   6.6240E+01   6.7852E+01   0.0000E+00  0.0000
   6.7852E+01   6.9503E+01   0.0000E+00  0.0000
   6.9503E+01   7.1194E+01   0.0000E+00  0.0000
   7.1194E+01   7.2926E+01   0.0000E+00  0.0000
   7.2926E+01   7.4701E+01   0.0000E+00  0.0000
   7.4701E+01   7.6518E+01   0.0000E+00  0.0000
   7.6518E+01   7.8380E+01   0.0000E+00  0.0000
   7.8380E+01   8.0287E+01   0.0000E+00  0.0000
   8.0287E+01   8.2240E+01   0.0000E+00  0.0000
   8.2240E+01   8.4241E+01   0.0000E+00  0.0000
   8.4241E+01   8.6291E+01   0.0000E+00  0.0000
   8.6291E+01   8.8391E+01   0.0000E+00  0.0000
   8.8391E+01   9.0541E+01   0.0000E+00  0.0000
   9.0541E+01   9.2744E+01   0.0000E+00  0.0000
   9.2744E+01   9.5001E+01   0.0000E+00  0.0000
   9.5001E+01   9.7312E+01   0.0000E+00  0.0000
   9.7312E+01   9.9680E+01   0.0000E+00  0.0000
   9.9680E+01   1.0211E+02   0.0000E+00  0.0000
   1.0211E+02   1.0459E+02   0.0000E+00  0.0000
   1.0459E+02   1.0713E+02   0.0000E+00  0.0000
   1.0713E+02   1.0974E+02   0.0000E+00  0.0000
   1.0974E+02   1.1241E+02   0.0000E+00  0.0000
   1.1241E+02   1.1515E+02   0.0000E+00  0.0000
   1.1515E+02   1.1795E+02   0.0000E+00  0.0000
   1.1795E+02   1.2082E+02   0.0000E+00  0.0000
   1.2082E+02   1.2376E+02   0.0000E+00  0.0000
   1.2376E+02   1.2677E+02   0.0000E+00  0.0000
   1.2677E+02   1.2985E+02   0.0000E+00  0.0000
   1.2985E+02   1.3301E+02   0.0000E+00  0.0000
   1.3301E+02   1.3625E+02   0.0000E+00  0.0000
   1.3625E+02   1.3956E+02   0.0000E+00  0.0000
   1.3956E+02   1.4296E+02   0.0000E+00  0.0000
   1.4296E+02   1.4644E+02   0.0000E+00  0.0000
   1.4644E+02   1.5000E+02   0.0000E+00  0.0000

#   sum over                 1.0938E-07
'no. =    1   reg = 126 - 226'
msuc: {\huge [t-cross] in region mesh}
msdr: {\it plotted by \ANGEL \version}
msdl: {\it calculated by \PHITS  3.26}
wt: s(0.7)
\vspace{-3}
  region surface crossing
  area  &=&   1.0000E+00 [cm^2]
e:
 
# Information for Restart Calculation
# This calculation was newly started
# istdev =  2 # 1:Batch variance, 2:History variance
# resc2  = 5.00000000000000000E+08 # Total source weight or Total source weight / maxcas
# resc3  = 5.00000000000000000E+08 # Total history number or Total batch number
# maxcas =   500000000 # History / Batch, only used for istdev=1
# bitrseed = 1101101111010011011000101101110001100110110010110001010100010001 # bit data of rseed
