[ T-Cross ]
    title = [t-cross] in region mesh
     mesh =  reg            # mesh type is region-wise
      reg =    1            # number of crossing regions
      non     r-from    r-to       area
      1       116       216        1.000000    
   e-type =    3            # e-mesh is log given by emin, emax and ne
     emin =  1.0000000E-02  # minimum value of e-mesh points
     emax =   150.0000      # maximum value of e-mesh points
#    edel =  2.4039514E-02  # mesh width of e-mesh points
       ne =    400          # number of e-mesh points
#    data = ( e(i), i = 1, ne + 1 )
#           1.00000E-02  1.02433E-02  1.04925E-02  1.07478E-02  1.10093E-02
#           1.12772E-02  1.15516E-02  1.18326E-02  1.21205E-02  1.24154E-02
#           1.27175E-02  1.30269E-02  1.33439E-02  1.36686E-02  1.40011E-02
#           1.43418E-02  1.46907E-02  1.50482E-02  1.54143E-02  1.57894E-02
#           1.61735E-02  1.65670E-02  1.69701E-02  1.73830E-02  1.78060E-02
#           1.82392E-02  1.86830E-02  1.91375E-02  1.96032E-02  2.00801E-02
#           2.05687E-02  2.10692E-02  2.15818E-02  2.21069E-02  2.26448E-02
#           2.31957E-02  2.37601E-02  2.43382E-02  2.49304E-02  2.55369E-02
#           2.61583E-02  2.67947E-02  2.74467E-02  2.81145E-02  2.87985E-02
#           2.94992E-02  3.02169E-02  3.09521E-02  3.17052E-02  3.24766E-02
#           3.32668E-02  3.40762E-02  3.49053E-02  3.57546E-02  3.66246E-02
#           3.75157E-02  3.84284E-02  3.93634E-02  4.03212E-02  4.13022E-02
#           4.23071E-02  4.33365E-02  4.43909E-02  4.54710E-02  4.65773E-02
#           4.77106E-02  4.88714E-02  5.00605E-02  5.12785E-02  5.25262E-02
#           5.38042E-02  5.51133E-02  5.64542E-02  5.78278E-02  5.92348E-02
#           6.06760E-02  6.21523E-02  6.36645E-02  6.52135E-02  6.68002E-02
#           6.84255E-02  7.00904E-02  7.17957E-02  7.35426E-02  7.53319E-02
#           7.71648E-02  7.90423E-02  8.09655E-02  8.29354E-02  8.49533E-02
#           8.70203E-02  8.91376E-02  9.13064E-02  9.35279E-02  9.58035E-02
#           9.81345E-02  1.00522E-01  1.02968E-01  1.05473E-01  1.08040E-01
#           1.10668E-01  1.13361E-01  1.16119E-01  1.18944E-01  1.21838E-01
#           1.24803E-01  1.27839E-01  1.30950E-01  1.34136E-01  1.37399E-01
#           1.40742E-01  1.44167E-01  1.47675E-01  1.51268E-01  1.54948E-01
#           1.58718E-01  1.62580E-01  1.66535E-01  1.70587E-01  1.74738E-01
#           1.78989E-01  1.83344E-01  1.87805E-01  1.92375E-01  1.97055E-01
#           2.01850E-01  2.06761E-01  2.11792E-01  2.16945E-01  2.22223E-01
#           2.27630E-01  2.33169E-01  2.38842E-01  2.44653E-01  2.50605E-01
#           2.56703E-01  2.62949E-01  2.69346E-01  2.75900E-01  2.82613E-01
#           2.89489E-01  2.96532E-01  3.03747E-01  3.11138E-01  3.18708E-01
#           3.26462E-01  3.34405E-01  3.42542E-01  3.50876E-01  3.59413E-01
#           3.68158E-01  3.77116E-01  3.86291E-01  3.95690E-01  4.05317E-01
#           4.15179E-01  4.25281E-01  4.35628E-01  4.46227E-01  4.57084E-01
#           4.68205E-01  4.79597E-01  4.91266E-01  5.03219E-01  5.15463E-01
#           5.28005E-01  5.40851E-01  5.54011E-01  5.67490E-01  5.81298E-01
#           5.95441E-01  6.09929E-01  6.24769E-01  6.39970E-01  6.55541E-01
#           6.71491E-01  6.87828E-01  7.04564E-01  7.21706E-01  7.39266E-01
#           7.57253E-01  7.75678E-01  7.94551E-01  8.13883E-01  8.33685E-01
#           8.53969E-01  8.74747E-01  8.96030E-01  9.17831E-01  9.40163E-01
#           9.63038E-01  9.86469E-01  1.01047E+00  1.03506E+00  1.06024E+00
#           1.08604E+00  1.11246E+00  1.13953E+00  1.16725E+00  1.19565E+00
#           1.22474E+00  1.25454E+00  1.28507E+00  1.31633E+00  1.34836E+00
#           1.38117E+00  1.41477E+00  1.44920E+00  1.48446E+00  1.52057E+00
#           1.55757E+00  1.59547E+00  1.63429E+00  1.67405E+00  1.71478E+00
#           1.75650E+00  1.79924E+00  1.84302E+00  1.88786E+00  1.93379E+00
#           1.98084E+00  2.02904E+00  2.07841E+00  2.12898E+00  2.18078E+00
#           2.23384E+00  2.28819E+00  2.34386E+00  2.40089E+00  2.45930E+00
#           2.51914E+00  2.58043E+00  2.64322E+00  2.70753E+00  2.77341E+00
#           2.84088E+00  2.91001E+00  2.98081E+00  3.05333E+00  3.12762E+00
#           3.20372E+00  3.28167E+00  3.36152E+00  3.44330E+00  3.52708E+00
#           3.61290E+00  3.70080E+00  3.79085E+00  3.88308E+00  3.97756E+00
#           4.07434E+00  4.17347E+00  4.27501E+00  4.37903E+00  4.48557E+00
#           4.59471E+00  4.70650E+00  4.82102E+00  4.93832E+00  5.05847E+00
#           5.18155E+00  5.30762E+00  5.43676E+00  5.56904E+00  5.70453E+00
#           5.84333E+00  5.98550E+00  6.13114E+00  6.28031E+00  6.43312E+00
#           6.58964E+00  6.74997E+00  6.91420E+00  7.08243E+00  7.25475E+00
#           7.43126E+00  7.61207E+00  7.79728E+00  7.98700E+00  8.18133E+00
#           8.38038E+00  8.58428E+00  8.79315E+00  9.00709E+00  9.22624E+00
#           9.45072E+00  9.68067E+00  9.91620E+00  1.01575E+01  1.04046E+01
#           1.06578E+01  1.09171E+01  1.11827E+01  1.14548E+01  1.17335E+01
#           1.20190E+01  1.23114E+01  1.26109E+01  1.29178E+01  1.32321E+01
#           1.35540E+01  1.38838E+01  1.42216E+01  1.45676E+01  1.49221E+01
#           1.52851E+01  1.56570E+01  1.60380E+01  1.64282E+01  1.68279E+01
#           1.72374E+01  1.76568E+01  1.80864E+01  1.85264E+01  1.89772E+01
#           1.94389E+01  1.99119E+01  2.03963E+01  2.08926E+01  2.14009E+01
#           2.19216E+01  2.24550E+01  2.30014E+01  2.35610E+01  2.41343E+01
#           2.47215E+01  2.53230E+01  2.59391E+01  2.65702E+01  2.72167E+01
#           2.78789E+01  2.85572E+01  2.92520E+01  2.99637E+01  3.06928E+01
#           3.14396E+01  3.22045E+01  3.29881E+01  3.37907E+01  3.46128E+01
#           3.54550E+01  3.63177E+01  3.72013E+01  3.81064E+01  3.90336E+01
#           3.99833E+01  4.09561E+01  4.19526E+01  4.29734E+01  4.40189E+01
#           4.50900E+01  4.61870E+01  4.73108E+01  4.84619E+01  4.96410E+01
#           5.08488E+01  5.20860E+01  5.33533E+01  5.46514E+01  5.59812E+01
#           5.73432E+01  5.87384E+01  6.01676E+01  6.16315E+01  6.31311E+01
#           6.46671E+01  6.62405E+01  6.78522E+01  6.95031E+01  7.11941E+01
#           7.29263E+01  7.47007E+01  7.65182E+01  7.83800E+01  8.02870E+01
#           8.22405E+01  8.42414E+01  8.62911E+01  8.83906E+01  9.05412E+01
#           9.27442E+01  9.50007E+01  9.73122E+01  9.96799E+01  1.02105E+02
#           1.04589E+02  1.07134E+02  1.09741E+02  1.12411E+02  1.15146E+02
#           1.17948E+02  1.20817E+02  1.23757E+02  1.26768E+02  1.29852E+02
#           1.33012E+02  1.36248E+02  1.39563E+02  1.42959E+02  1.46437E+02
#           1.50000E+02
     unit =    2            # unit is [1/cm^2/(MeV/n)/source]
     axis =  eng            # axis of output
     file = detector-17.out  # file name of output for the above axis
   output = f-curr          # surface crossing forward current spectrum
     part =  neutron  
# kf/name :  2112     
#    used :        main (  %)        temp (  %)       total (  %)
#  memory :         414 (  0)           0 (  0)         414 (  0)

#------------------------------------------------------------------------------
#newpage:
#   no. =    1   reg = 116 - 216

x: Energy [MeV/n]
y:  F-Curr [1/cm^2/(MeV/n)/source]         
p: xlog ylog afac(0.8) form(0.9)
h: n            x            y(neutron ),hh0l   n 
#  e-lower      e-upper      neutron     r.err 
   1.0000E-02   1.0243E-02   1.9728E-04  0.2041
   1.0243E-02   1.0493E-02   1.5247E-04  0.2294
   1.0493E-02   1.0748E-02   2.8986E-04  0.1644
   1.0748E-02   1.1009E-02   2.6004E-04  0.1715
   1.1009E-02   1.1277E-02   2.9119E-04  0.1601
   1.1277E-02   1.1552E-02   3.2801E-04  0.1491
   1.1552E-02   1.1833E-02   1.7078E-04  0.2041
   1.1833E-02   1.2121E-02   1.5978E-04  0.2085
   1.2121E-02   1.2415E-02   2.5093E-04  0.1644
   1.2415E-02   1.2718E-02   2.2842E-04  0.1696
   1.2718E-02   1.3027E-02   2.3269E-04  0.1667
   1.3027E-02   1.3344E-02   3.0288E-04  0.1443
   1.3344E-02   1.3669E-02   2.4025E-04  0.1601
   1.3669E-02   1.4001E-02   2.5258E-04  0.1543
   1.4001E-02   1.4342E-02   2.0067E-04  0.1707
   1.4342E-02   1.4691E-02   2.0060E-04  0.1690
   1.4691E-02   1.5048E-02   2.6298E-04  0.1459
   1.5048E-02   1.5414E-02   2.6766E-04  0.1429
   1.5414E-02   1.5789E-02   2.5597E-04  0.1443
   1.5789E-02   1.6174E-02   2.2386E-04  0.1525
   1.6174E-02   1.6567E-02   2.7445E-04  0.1361
   1.6567E-02   1.6970E-02   2.2396E-04  0.1486
   1.6970E-02   1.7383E-02   2.4219E-04  0.1414
   1.7383E-02   1.7806E-02   2.9791E-04  0.1260
   1.7806E-02   1.8239E-02   3.0007E-04  0.1240
   1.8239E-02   1.8683E-02   2.7266E-04  0.1283
   1.8683E-02   1.9138E-02   2.5079E-04  0.1325
   1.9138E-02   1.9603E-02   1.6751E-04  0.1601
   1.9603E-02   2.0080E-02   2.5579E-04  0.1280
   2.0080E-02   2.0569E-02   2.1696E-04  0.1374
   2.0569E-02   2.1069E-02   1.9982E-04  0.1414
   2.1069E-02   2.1582E-02   2.3604E-04  0.1283
   2.1582E-02   2.2107E-02   2.3805E-04  0.1262
   2.2107E-02   2.2645E-02   2.4541E-04  0.1231
   2.2645E-02   2.3196E-02   2.4919E-04  0.1204
   2.3196E-02   2.3760E-02   2.1971E-04  0.1270
   2.3760E-02   2.4338E-02   2.0066E-04  0.1313
   2.4338E-02   2.4930E-02   2.6231E-04  0.1132
   2.4930E-02   2.5537E-02   2.5442E-04  0.1137
   2.5537E-02   2.6158E-02   2.4142E-04  0.1155
   2.6158E-02   2.6795E-02   2.8125E-04  0.1056
   2.6795E-02   2.7447E-02   2.6076E-04  0.1085
   2.7447E-02   2.8114E-02   2.4017E-04  0.1116
   2.8114E-02   2.8799E-02   2.5437E-04  0.1072
   2.8799E-02   2.9499E-02   2.1452E-04  0.1152
   2.9499E-02   3.0217E-02   2.5357E-04  0.1048
   3.0217E-02   3.0952E-02   2.2890E-04  0.1089
   3.0952E-02   3.1705E-02   2.0762E-04  0.1130
   3.1705E-02   3.2477E-02   2.3852E-04  0.1043
   3.2477E-02   3.3267E-02   2.3033E-04  0.1048
   3.3267E-02   3.4076E-02   2.2238E-04  0.1054
   3.4076E-02   3.4905E-02   2.6414E-04  0.0955
   3.4905E-02   3.5755E-02   2.4021E-04  0.0990
   3.5755E-02   3.6625E-02   2.9887E-04  0.0877
   3.6625E-02   3.7516E-02   2.4913E-04  0.0949
   3.7516E-02   3.8428E-02   2.4759E-04  0.0941
   3.8428E-02   3.9363E-02   2.1851E-04  0.0989
   3.9363E-02   4.0321E-02   2.1091E-04  0.0995
   4.0321E-02   4.1302E-02   2.5891E-04  0.0887
   4.1302E-02   4.2307E-02   2.0828E-04  0.0976
   4.2307E-02   4.3337E-02   2.1178E-04  0.0958
   4.3337E-02   4.4391E-02   2.0892E-04  0.0952
   4.4391E-02   4.5471E-02   2.3702E-04  0.0884
   4.5471E-02   4.6577E-02   2.3343E-04  0.0880
   4.6577E-02   4.7711E-02   2.0119E-04  0.0937
   4.7711E-02   4.8871E-02   2.3712E-04  0.0851
   4.8871E-02   5.0061E-02   2.0688E-04  0.0902
   5.0061E-02   5.1279E-02   2.2085E-04  0.0861
   5.1279E-02   5.2526E-02   2.4526E-04  0.0808
   5.2526E-02   5.3804E-02   2.1440E-04  0.0854
   5.3804E-02   5.5113E-02   2.2535E-04  0.0823
   5.5113E-02   5.6454E-02   2.5552E-04  0.0763
   5.6454E-02   5.7828E-02   1.7909E-04  0.0902
   5.7828E-02   5.9235E-02   2.2104E-04  0.0801
   5.9235E-02   6.0676E-02   1.8690E-04  0.0860
   6.0676E-02   6.2152E-02   1.8182E-04  0.0863
   6.2152E-02   6.3665E-02   1.8384E-04  0.0848
   6.3665E-02   6.5214E-02   2.0206E-04  0.0799
   6.5214E-02   6.6800E-02   1.6404E-04  0.0875
   6.6800E-02   6.8426E-02   2.0575E-04  0.0773
   6.8426E-02   7.0090E-02   2.0680E-04  0.0762
   7.0090E-02   7.1796E-02   2.1245E-04  0.0743
   7.1796E-02   7.3543E-02   2.0723E-04  0.0743
   7.3543E-02   7.5332E-02   1.9016E-04  0.0766
   7.5332E-02   7.7165E-02   2.1387E-04  0.0714
   7.7165E-02   7.9042E-02   2.0256E-04  0.0725
   7.9042E-02   8.0965E-02   1.9387E-04  0.0732
   8.0965E-02   8.2935E-02   1.6971E-04  0.0773
   8.2935E-02   8.4953E-02   1.7263E-04  0.0757
   8.4953E-02   8.7020E-02   1.7997E-04  0.0733
   8.7020E-02   8.9138E-02   1.7539E-04  0.0733
   8.9138E-02   9.1306E-02   1.4847E-04  0.0788
   9.1306E-02   9.3528E-02   1.5680E-04  0.0757
   9.3528E-02   9.5804E-02   1.8572E-04  0.0687
   9.5804E-02   9.8134E-02   1.6358E-04  0.0724
   9.8134E-02   1.0052E-01   1.7632E-04  0.0689
   1.0052E-01   1.0297E-01   1.7144E-04  0.0690
   1.0297E-01   1.0547E-01   1.7525E-04  0.0674
   1.0547E-01   1.0804E-01   1.6534E-04  0.0686
   1.0804E-01   1.1067E-01   1.5798E-04  0.0693
   1.1067E-01   1.1336E-01   1.4426E-04  0.0717
   1.1336E-01   1.1612E-01   1.5274E-04  0.0688
   1.1612E-01   1.1894E-01   1.4229E-04  0.0705
   1.1894E-01   1.2184E-01   1.4098E-04  0.0700
   1.2184E-01   1.2480E-01   1.5011E-04  0.0670
   1.2480E-01   1.2784E-01   1.5629E-04  0.0649
   1.2784E-01   1.3095E-01   1.3642E-04  0.0686
   1.3095E-01   1.3414E-01   1.3106E-04  0.0691
   1.3414E-01   1.3740E-01   1.4041E-04  0.0660
   1.3740E-01   1.4074E-01   1.2693E-04  0.0686
   1.4074E-01   1.4417E-01   1.2275E-04  0.0690
   1.4417E-01   1.4767E-01   1.1870E-04  0.0692
   1.4767E-01   1.5127E-01   1.2218E-04  0.0675
   1.5127E-01   1.5495E-01   1.2298E-04  0.0664
   1.5495E-01   1.5872E-01   1.2175E-04  0.0660
   1.5872E-01   1.6258E-01   1.0876E-04  0.0690
   1.6258E-01   1.6654E-01   1.0431E-04  0.0696
   1.6654E-01   1.7059E-01   9.9551E-05  0.0702
   1.7059E-01   1.7474E-01   9.6929E-05  0.0705
   1.7474E-01   1.7899E-01   1.1046E-04  0.0652
   1.7899E-01   1.8334E-01   9.7432E-05  0.0686
   1.8334E-01   1.8781E-01   8.9879E-05  0.0704
   1.8781E-01   1.9237E-01   8.3098E-05  0.0725
   1.9237E-01   1.9706E-01   8.3457E-05  0.0715
   1.9706E-01   2.0185E-01   1.0137E-04  0.0641
   2.0185E-01   2.0676E-01   9.1191E-05  0.0667
   2.0676E-01   2.1179E-01   9.4081E-05  0.0650
   2.1179E-01   2.1694E-01   1.1023E-04  0.0593
   2.1694E-01   2.2222E-01   9.6994E-05  0.0624
   2.2222E-01   2.2763E-01   9.4436E-05  0.0625
   2.2763E-01   2.3317E-01   9.5570E-05  0.0614
   2.3317E-01   2.3884E-01   1.0941E-04  0.0567
   2.3884E-01   2.4465E-01   1.0296E-04  0.0578
   2.4465E-01   2.5061E-01   1.2050E-04  0.0528
   2.5061E-01   2.5670E-01   1.0185E-04  0.0567
   2.5670E-01   2.6295E-01   1.1804E-04  0.0520
   2.6295E-01   2.6935E-01   1.1844E-04  0.0513
   2.6935E-01   2.7590E-01   1.0987E-04  0.0527
   2.7590E-01   2.8261E-01   1.2642E-04  0.0485
   2.8261E-01   2.8949E-01   1.2220E-04  0.0488
   2.8949E-01   2.9653E-01   1.2956E-04  0.0468
   2.9653E-01   3.0375E-01   1.3803E-04  0.0448
   3.0375E-01   3.1114E-01   1.3495E-04  0.0447
   3.1114E-01   3.1871E-01   1.3558E-04  0.0441
   3.1871E-01   3.2646E-01   1.4034E-04  0.0428
   3.2646E-01   3.3441E-01   1.4192E-04  0.0421
   3.3441E-01   3.4254E-01   1.4167E-04  0.0416
   3.4254E-01   3.5088E-01   1.4476E-04  0.0407
   3.5088E-01   3.5941E-01   1.5187E-04  0.0392
   3.5941E-01   3.6816E-01   1.4088E-04  0.0403
   3.6816E-01   3.7712E-01   1.4816E-04  0.0388
   3.7712E-01   3.8629E-01   1.4635E-04  0.0385
   3.8629E-01   3.9569E-01   1.5402E-04  0.0372
   3.9569E-01   4.0532E-01   1.4957E-04  0.0372
   4.0532E-01   4.1518E-01   1.5710E-04  0.0359
   4.1518E-01   4.2528E-01   1.6965E-04  0.0341
   4.2528E-01   4.3563E-01   1.5096E-04  0.0357
   4.3563E-01   4.4623E-01   1.6468E-04  0.0338
   4.4623E-01   4.5708E-01   1.6094E-04  0.0338
   4.5708E-01   4.6821E-01   1.6538E-04  0.0329
   4.6821E-01   4.7960E-01   1.7256E-04  0.0319
   4.7960E-01   4.9127E-01   1.6160E-04  0.0325
   4.9127E-01   5.0322E-01   1.7838E-04  0.0306
   5.0322E-01   5.1546E-01   1.8137E-04  0.0300
   5.1546E-01   5.2800E-01   1.7885E-04  0.0298
   5.2800E-01   5.4085E-01   1.7613E-04  0.0297
   5.4085E-01   5.5401E-01   1.9444E-04  0.0279
   5.5401E-01   5.6749E-01   1.9405E-04  0.0276
   5.6749E-01   5.8130E-01   1.8481E-04  0.0280
   5.8130E-01   5.9544E-01   1.9209E-04  0.0271
   5.9544E-01   6.0993E-01   1.8740E-04  0.0271
   6.0993E-01   6.2477E-01   1.7784E-04  0.0275
   6.2477E-01   6.3997E-01   1.8886E-04  0.0264
   6.3997E-01   6.5554E-01   1.8291E-04  0.0265
   6.5554E-01   6.7149E-01   1.9313E-04  0.0254
   6.7149E-01   6.8783E-01   1.9237E-04  0.0252
   6.8783E-01   7.0456E-01   1.9220E-04  0.0249
   7.0456E-01   7.2171E-01   1.9475E-04  0.0244
   7.2171E-01   7.3927E-01   1.9080E-04  0.0244
   7.3927E-01   7.5725E-01   1.8955E-04  0.0242
   7.5725E-01   7.7568E-01   1.8860E-04  0.0240
   7.7568E-01   7.9455E-01   1.8266E-04  0.0241
   7.9455E-01   8.1388E-01   1.8400E-04  0.0237
   8.1388E-01   8.3368E-01   1.8396E-04  0.0234
   8.3368E-01   8.5397E-01   1.8563E-04  0.0230
   8.5397E-01   8.7475E-01   1.8907E-04  0.0225
   8.7475E-01   8.9603E-01   1.8070E-04  0.0228
   8.9603E-01   9.1783E-01   1.7069E-04  0.0231
   9.1783E-01   9.4016E-01   1.8165E-04  0.0222
   9.4016E-01   9.6304E-01   1.7921E-04  0.0221
   9.6304E-01   9.8647E-01   1.6893E-04  0.0224
   9.8647E-01   1.0105E+00   1.7543E-04  0.0218
   1.0105E+00   1.0351E+00   1.7100E-04  0.0218
   1.0351E+00   1.0602E+00   1.7457E-04  0.0213
   1.0602E+00   1.0860E+00   1.6708E-04  0.0215
   1.0860E+00   1.1125E+00   1.6318E-04  0.0215
   1.1125E+00   1.1395E+00   1.6133E-04  0.0214
   1.1395E+00   1.1673E+00   1.5794E-04  0.0213
   1.1673E+00   1.1957E+00   1.6066E-04  0.0209
   1.1957E+00   1.2247E+00   1.5762E-04  0.0209
   1.2247E+00   1.2545E+00   1.5804E-04  0.0206
   1.2545E+00   1.2851E+00   1.4829E-04  0.0210
   1.2851E+00   1.3163E+00   1.5404E-04  0.0203
   1.3163E+00   1.3484E+00   1.4815E-04  0.0205
   1.3484E+00   1.3812E+00   1.4896E-04  0.0202
   1.3812E+00   1.4148E+00   1.4770E-04  0.0200
   1.4148E+00   1.4492E+00   1.3608E-04  0.0206
   1.4492E+00   1.4845E+00   1.4226E-04  0.0199
   1.4845E+00   1.5206E+00   1.3760E-04  0.0200
   1.5206E+00   1.5576E+00   1.4011E-04  0.0196
   1.5576E+00   1.5955E+00   1.3345E-04  0.0199
   1.5955E+00   1.6343E+00   1.3760E-04  0.0193
   1.6343E+00   1.6741E+00   1.3142E-04  0.0195
   1.6741E+00   1.7148E+00   1.3472E-04  0.0191
   1.7148E+00   1.7565E+00   1.2838E-04  0.0193
   1.7565E+00   1.7992E+00   1.3044E-04  0.0189
   1.7992E+00   1.8430E+00   1.3620E-04  0.0183
   1.8430E+00   1.8879E+00   1.2763E-04  0.0187
   1.8879E+00   1.9338E+00   1.2982E-04  0.0183
   1.9338E+00   1.9808E+00   1.2649E-04  0.0183
   1.9808E+00   2.0290E+00   1.3100E-04  0.0178
   2.0290E+00   2.0784E+00   1.3136E-04  0.0175
   2.0784E+00   2.1290E+00   1.3099E-04  0.0173
   2.1290E+00   2.1808E+00   1.2652E-04  0.0174
   2.1808E+00   2.2338E+00   1.2937E-04  0.0170
   2.2338E+00   2.2882E+00   1.2836E-04  0.0169
   2.2882E+00   2.3439E+00   1.2116E-04  0.0172
   2.3439E+00   2.4009E+00   1.2488E-04  0.0167
   2.4009E+00   2.4593E+00   1.2277E-04  0.0167
   2.4593E+00   2.5191E+00   1.2542E-04  0.0163
   2.5191E+00   2.5804E+00   1.2043E-04  0.0164
   2.5804E+00   2.6432E+00   1.2066E-04  0.0162
   2.6432E+00   2.7075E+00   1.2156E-04  0.0160
   2.7075E+00   2.7734E+00   1.1565E-04  0.0162
   2.7734E+00   2.8409E+00   1.1497E-04  0.0160
   2.8409E+00   2.9100E+00   1.1261E-04  0.0160
   2.9100E+00   2.9808E+00   1.0984E-04  0.0160
   2.9808E+00   3.0533E+00   1.0882E-04  0.0159
   3.0533E+00   3.1276E+00   1.0945E-04  0.0157
   3.1276E+00   3.2037E+00   1.0900E-04  0.0155
   3.2037E+00   3.2817E+00   1.0750E-04  0.0154
   3.2817E+00   3.3615E+00   1.0464E-04  0.0155
   3.3615E+00   3.4433E+00   9.9768E-05  0.0156
   3.4433E+00   3.5271E+00   9.7108E-05  0.0157
   3.5271E+00   3.6129E+00   9.0777E-05  0.0160
   3.6129E+00   3.7008E+00   7.9058E-05  0.0169
   3.7008E+00   3.7908E+00   7.2081E-05  0.0175
   3.7908E+00   3.8831E+00   6.5446E-05  0.0182
   3.8831E+00   3.9776E+00   5.8498E-05  0.0190
   3.9776E+00   4.0743E+00   5.4638E-05  0.0194
   4.0743E+00   4.1735E+00   5.1323E-05  0.0198
   4.1735E+00   4.2750E+00   5.0298E-05  0.0198
   4.2750E+00   4.3790E+00   4.5561E-05  0.0205
   4.3790E+00   4.4856E+00   4.4555E-05  0.0205
   4.4856E+00   4.5947E+00   4.4951E-05  0.0201
   4.5947E+00   4.7065E+00   4.2903E-05  0.0204
   4.7065E+00   4.8210E+00   4.0478E-05  0.0207
   4.8210E+00   4.9383E+00   3.9931E-05  0.0206
   4.9383E+00   5.0585E+00   3.7313E-05  0.0211
   5.0585E+00   5.1815E+00   3.6649E-05  0.0210
   5.1815E+00   5.3076E+00   3.6017E-05  0.0209
   5.3076E+00   5.4368E+00   3.4206E-05  0.0212
   5.4368E+00   5.5690E+00   3.3442E-05  0.0212
   5.5690E+00   5.7045E+00   3.2468E-05  0.0213
   5.7045E+00   5.8433E+00   3.0878E-05  0.0216
   5.8433E+00   5.9855E+00   3.0569E-05  0.0214
   5.9855E+00   6.1311E+00   2.9358E-05  0.0216
   6.1311E+00   6.2803E+00   2.8083E-05  0.0218
   6.2803E+00   6.4331E+00   2.7086E-05  0.0220
   6.4331E+00   6.5896E+00   2.5784E-05  0.0222
   6.5896E+00   6.7500E+00   2.4503E-05  0.0225
   6.7500E+00   6.9142E+00   2.4383E-05  0.0223
   6.9142E+00   7.0824E+00   2.3457E-05  0.0225
   7.0824E+00   7.2548E+00   2.2404E-05  0.0227
   7.2548E+00   7.4313E+00   2.2926E-05  0.0222
   7.4313E+00   7.6121E+00   2.2112E-05  0.0223
   7.6121E+00   7.7973E+00   2.1703E-05  0.0223
   7.7973E+00   7.9870E+00   1.9650E-05  0.0231
   7.9870E+00   8.1813E+00   2.0349E-05  0.0225
   8.1813E+00   8.3804E+00   1.9442E-05  0.0227
   8.3804E+00   8.5843E+00   1.9278E-05  0.0225
   8.5843E+00   8.7931E+00   1.8717E-05  0.0226
   8.7931E+00   9.0071E+00   1.7803E-05  0.0229
   9.0071E+00   9.2262E+00   1.7700E-05  0.0227
   9.2262E+00   9.4507E+00   1.7179E-05  0.0228
   9.4507E+00   9.6807E+00   1.6974E-05  0.0226
   9.6807E+00   9.9162E+00   1.6287E-05  0.0228
   9.9162E+00   1.0157E+01   1.6072E-05  0.0227
   1.0157E+01   1.0405E+01   1.5915E-05  0.0225
   1.0405E+01   1.0658E+01   1.6017E-05  0.0222
   1.0658E+01   1.0917E+01   1.5293E-05  0.0224
   1.0917E+01   1.1183E+01   1.5745E-05  0.0219
   1.1183E+01   1.1455E+01   1.5268E-05  0.0219
   1.1455E+01   1.1733E+01   1.4519E-05  0.0222
   1.1733E+01   1.2019E+01   1.3429E-05  0.0228
   1.2019E+01   1.2311E+01   1.3717E-05  0.0223
   1.2311E+01   1.2611E+01   1.3184E-05  0.0225
   1.2611E+01   1.2918E+01   1.2372E-05  0.0229
   1.2918E+01   1.3232E+01   1.2240E-05  0.0228
   1.3232E+01   1.3554E+01   1.1900E-05  0.0228
   1.3554E+01   1.3884E+01   1.1353E-05  0.0231
   1.3884E+01   1.4222E+01   1.0954E-05  0.0232
   1.4222E+01   1.4568E+01   1.0599E-05  0.0233
   1.4568E+01   1.4922E+01   1.1055E-05  0.0226
   1.4922E+01   1.5285E+01   9.7458E-06  0.0238
   1.5285E+01   1.5657E+01   9.4773E-06  0.0238
   1.5657E+01   1.6038E+01   8.9146E-06  0.0243
   1.6038E+01   1.6428E+01   8.7182E-06  0.0242
   1.6428E+01   1.6828E+01   7.8156E-06  0.0253
   1.6828E+01   1.7237E+01   7.9983E-06  0.0247
   1.7237E+01   1.7657E+01   7.5727E-06  0.0251
   1.7657E+01   1.8086E+01   7.1834E-06  0.0255
   1.8086E+01   1.8526E+01   7.2764E-06  0.0250
   1.8526E+01   1.8977E+01   6.8062E-06  0.0255
   1.8977E+01   1.9439E+01   5.9732E-06  0.0269
   1.9439E+01   1.9912E+01   5.5691E-06  0.0276
   1.9912E+01   2.0396E+01   5.0942E-06  0.0285
   2.0396E+01   2.0893E+01   4.4130E-06  0.0302
   2.0893E+01   2.1401E+01   3.6669E-06  0.0328
   2.1401E+01   2.1922E+01   3.1150E-06  0.0351
   2.1922E+01   2.2455E+01   2.3173E-06  0.0402
   2.2455E+01   2.3001E+01   1.6912E-06  0.0465
   2.3001E+01   2.3561E+01   9.6490E-07  0.0609
   2.3561E+01   2.4134E+01   6.0357E-07  0.0760
   2.4134E+01   2.4721E+01   1.7711E-07  0.1387
   2.4721E+01   2.5323E+01   2.9926E-08  0.3333
   2.5323E+01   2.5939E+01   9.7382E-09  0.5774
   2.5939E+01   2.6570E+01   0.0000E+00  0.0000
   2.6570E+01   2.7217E+01   3.0937E-09  1.0000
   2.7217E+01   2.7879E+01   0.0000E+00  0.0000
   2.7879E+01   2.8557E+01   0.0000E+00  0.0000
   2.8557E+01   2.9252E+01   0.0000E+00  0.0000
   2.9252E+01   2.9964E+01   2.8101E-09  1.0000
   2.9964E+01   3.0693E+01   0.0000E+00  0.0000
   3.0693E+01   3.1440E+01   0.0000E+00  0.0000
   3.1440E+01   3.2205E+01   0.0000E+00  0.0000
   3.2205E+01   3.2988E+01   0.0000E+00  0.0000
   3.2988E+01   3.3791E+01   0.0000E+00  0.0000
   3.3791E+01   3.4613E+01   0.0000E+00  0.0000
   3.4613E+01   3.5455E+01   0.0000E+00  0.0000
   3.5455E+01   3.6318E+01   0.0000E+00  0.0000
   3.6318E+01   3.7201E+01   0.0000E+00  0.0000
   3.7201E+01   3.8106E+01   0.0000E+00  0.0000
   3.8106E+01   3.9034E+01   0.0000E+00  0.0000
   3.9034E+01   3.9983E+01   0.0000E+00  0.0000
   3.9983E+01   4.0956E+01   0.0000E+00  0.0000
   4.0956E+01   4.1953E+01   0.0000E+00  0.0000
   4.1953E+01   4.2973E+01   0.0000E+00  0.0000
   4.2973E+01   4.4019E+01   0.0000E+00  0.0000
   4.4019E+01   4.5090E+01   0.0000E+00  0.0000
   4.5090E+01   4.6187E+01   0.0000E+00  0.0000
   4.6187E+01   4.7311E+01   0.0000E+00  0.0000
   4.7311E+01   4.8462E+01   0.0000E+00  0.0000
   4.8462E+01   4.9641E+01   0.0000E+00  0.0000
   4.9641E+01   5.0849E+01   0.0000E+00  0.0000
   5.0849E+01   5.2086E+01   0.0000E+00  0.0000
   5.2086E+01   5.3353E+01   0.0000E+00  0.0000
   5.3353E+01   5.4651E+01   0.0000E+00  0.0000
   5.4651E+01   5.5981E+01   0.0000E+00  0.0000
   5.5981E+01   5.7343E+01   0.0000E+00  0.0000
   5.7343E+01   5.8738E+01   0.0000E+00  0.0000
   5.8738E+01   6.0168E+01   0.0000E+00  0.0000
   6.0168E+01   6.1632E+01   0.0000E+00  0.0000
   6.1632E+01   6.3131E+01   0.0000E+00  0.0000
   6.3131E+01   6.4667E+01   0.0000E+00  0.0000
   6.4667E+01   6.6240E+01   0.0000E+00  0.0000
   6.6240E+01   6.7852E+01   0.0000E+00  0.0000
   6.7852E+01   6.9503E+01   0.0000E+00  0.0000
   6.9503E+01   7.1194E+01   0.0000E+00  0.0000
   7.1194E+01   7.2926E+01   0.0000E+00  0.0000
   7.2926E+01   7.4701E+01   0.0000E+00  0.0000
   7.4701E+01   7.6518E+01   0.0000E+00  0.0000
   7.6518E+01   7.8380E+01   0.0000E+00  0.0000
   7.8380E+01   8.0287E+01   0.0000E+00  0.0000
   8.0287E+01   8.2240E+01   0.0000E+00  0.0000
   8.2240E+01   8.4241E+01   0.0000E+00  0.0000
   8.4241E+01   8.6291E+01   0.0000E+00  0.0000
   8.6291E+01   8.8391E+01   0.0000E+00  0.0000
   8.8391E+01   9.0541E+01   0.0000E+00  0.0000
   9.0541E+01   9.2744E+01   0.0000E+00  0.0000
   9.2744E+01   9.5001E+01   0.0000E+00  0.0000
   9.5001E+01   9.7312E+01   0.0000E+00  0.0000
   9.7312E+01   9.9680E+01   0.0000E+00  0.0000
   9.9680E+01   1.0211E+02   0.0000E+00  0.0000
   1.0211E+02   1.0459E+02   0.0000E+00  0.0000
   1.0459E+02   1.0713E+02   0.0000E+00  0.0000
   1.0713E+02   1.0974E+02   0.0000E+00  0.0000
   1.0974E+02   1.1241E+02   0.0000E+00  0.0000
   1.1241E+02   1.1515E+02   0.0000E+00  0.0000
   1.1515E+02   1.1795E+02   0.0000E+00  0.0000
   1.1795E+02   1.2082E+02   0.0000E+00  0.0000
   1.2082E+02   1.2376E+02   0.0000E+00  0.0000
   1.2376E+02   1.2677E+02   0.0000E+00  0.0000
   1.2677E+02   1.2985E+02   0.0000E+00  0.0000
   1.2985E+02   1.3301E+02   0.0000E+00  0.0000
   1.3301E+02   1.3625E+02   0.0000E+00  0.0000
   1.3625E+02   1.3956E+02   0.0000E+00  0.0000
   1.3956E+02   1.4296E+02   0.0000E+00  0.0000
   1.4296E+02   1.4644E+02   0.0000E+00  0.0000
   1.4644E+02   1.5000E+02   0.0000E+00  0.0000

#   sum over                 5.3150E-06
'no. =    1   reg = 116 - 216'
msuc: {\huge [t-cross] in region mesh}
msdr: {\it plotted by \ANGEL \version}
msdl: {\it calculated by \PHITS  3.26}
wt: s(0.7)
\vspace{-3}
  region surface crossing
  area  &=&   1.0000E+00 [cm^2]
e:
 
# Information for Restart Calculation
# This calculation was newly started
# istdev =  2 # 1:Batch variance, 2:History variance
# resc2  = 5.00000000000000000E+08 # Total source weight or Total source weight / maxcas
# resc3  = 5.00000000000000000E+08 # Total history number or Total batch number
# maxcas =   500000000 # History / Batch, only used for istdev=1
# bitrseed = 1101101111010011011000101101110001100110110010110001010100010001 # bit data of rseed
