0 <--- number of remaining batches 

-------------------------------------------------------------------------------
bat[      10] ncas =     5000000000.
 bitrseed = 0001011101011011011000011100010110101100100111100111010011101011
          cpu time =   2 h. 11 m. 56.77 s.

 date = 2022-06-04
 time = 15h 19m 31s

