[ T-Cross ]
    title = [t-cross] in region mesh
     mesh =  reg            # mesh type is region-wise
      reg =    1            # number of crossing regions
      non     r-from    r-to       area
      1       114       214        1.000000    
   e-type =    3            # e-mesh is log given by emin, emax and ne
     emin =  1.0000000E-02  # minimum value of e-mesh points
     emax =   150.0000      # maximum value of e-mesh points
#    edel =  2.4039514E-02  # mesh width of e-mesh points
       ne =    400          # number of e-mesh points
#    data = ( e(i), i = 1, ne + 1 )
#           1.00000E-02  1.02433E-02  1.04925E-02  1.07478E-02  1.10093E-02
#           1.12772E-02  1.15516E-02  1.18326E-02  1.21205E-02  1.24154E-02
#           1.27175E-02  1.30269E-02  1.33439E-02  1.36686E-02  1.40011E-02
#           1.43418E-02  1.46907E-02  1.50482E-02  1.54143E-02  1.57894E-02
#           1.61735E-02  1.65670E-02  1.69701E-02  1.73830E-02  1.78060E-02
#           1.82392E-02  1.86830E-02  1.91375E-02  1.96032E-02  2.00801E-02
#           2.05687E-02  2.10692E-02  2.15818E-02  2.21069E-02  2.26448E-02
#           2.31957E-02  2.37601E-02  2.43382E-02  2.49304E-02  2.55369E-02
#           2.61583E-02  2.67947E-02  2.74467E-02  2.81145E-02  2.87985E-02
#           2.94992E-02  3.02169E-02  3.09521E-02  3.17052E-02  3.24766E-02
#           3.32668E-02  3.40762E-02  3.49053E-02  3.57546E-02  3.66246E-02
#           3.75157E-02  3.84284E-02  3.93634E-02  4.03212E-02  4.13022E-02
#           4.23071E-02  4.33365E-02  4.43909E-02  4.54710E-02  4.65773E-02
#           4.77106E-02  4.88714E-02  5.00605E-02  5.12785E-02  5.25262E-02
#           5.38042E-02  5.51133E-02  5.64542E-02  5.78278E-02  5.92348E-02
#           6.06760E-02  6.21523E-02  6.36645E-02  6.52135E-02  6.68002E-02
#           6.84255E-02  7.00904E-02  7.17957E-02  7.35426E-02  7.53319E-02
#           7.71648E-02  7.90423E-02  8.09655E-02  8.29354E-02  8.49533E-02
#           8.70203E-02  8.91376E-02  9.13064E-02  9.35279E-02  9.58035E-02
#           9.81345E-02  1.00522E-01  1.02968E-01  1.05473E-01  1.08040E-01
#           1.10668E-01  1.13361E-01  1.16119E-01  1.18944E-01  1.21838E-01
#           1.24803E-01  1.27839E-01  1.30950E-01  1.34136E-01  1.37399E-01
#           1.40742E-01  1.44167E-01  1.47675E-01  1.51268E-01  1.54948E-01
#           1.58718E-01  1.62580E-01  1.66535E-01  1.70587E-01  1.74738E-01
#           1.78989E-01  1.83344E-01  1.87805E-01  1.92375E-01  1.97055E-01
#           2.01850E-01  2.06761E-01  2.11792E-01  2.16945E-01  2.22223E-01
#           2.27630E-01  2.33169E-01  2.38842E-01  2.44653E-01  2.50605E-01
#           2.56703E-01  2.62949E-01  2.69346E-01  2.75900E-01  2.82613E-01
#           2.89489E-01  2.96532E-01  3.03747E-01  3.11138E-01  3.18708E-01
#           3.26462E-01  3.34405E-01  3.42542E-01  3.50876E-01  3.59413E-01
#           3.68158E-01  3.77116E-01  3.86291E-01  3.95690E-01  4.05317E-01
#           4.15179E-01  4.25281E-01  4.35628E-01  4.46227E-01  4.57084E-01
#           4.68205E-01  4.79597E-01  4.91266E-01  5.03219E-01  5.15463E-01
#           5.28005E-01  5.40851E-01  5.54011E-01  5.67490E-01  5.81298E-01
#           5.95441E-01  6.09929E-01  6.24769E-01  6.39970E-01  6.55541E-01
#           6.71491E-01  6.87828E-01  7.04564E-01  7.21706E-01  7.39266E-01
#           7.57253E-01  7.75678E-01  7.94551E-01  8.13883E-01  8.33685E-01
#           8.53969E-01  8.74747E-01  8.96030E-01  9.17831E-01  9.40163E-01
#           9.63038E-01  9.86469E-01  1.01047E+00  1.03506E+00  1.06024E+00
#           1.08604E+00  1.11246E+00  1.13953E+00  1.16725E+00  1.19565E+00
#           1.22474E+00  1.25454E+00  1.28507E+00  1.31633E+00  1.34836E+00
#           1.38117E+00  1.41477E+00  1.44920E+00  1.48446E+00  1.52057E+00
#           1.55757E+00  1.59547E+00  1.63429E+00  1.67405E+00  1.71478E+00
#           1.75650E+00  1.79924E+00  1.84302E+00  1.88786E+00  1.93379E+00
#           1.98084E+00  2.02904E+00  2.07841E+00  2.12898E+00  2.18078E+00
#           2.23384E+00  2.28819E+00  2.34386E+00  2.40089E+00  2.45930E+00
#           2.51914E+00  2.58043E+00  2.64322E+00  2.70753E+00  2.77341E+00
#           2.84088E+00  2.91001E+00  2.98081E+00  3.05333E+00  3.12762E+00
#           3.20372E+00  3.28167E+00  3.36152E+00  3.44330E+00  3.52708E+00
#           3.61290E+00  3.70080E+00  3.79085E+00  3.88308E+00  3.97756E+00
#           4.07434E+00  4.17347E+00  4.27501E+00  4.37903E+00  4.48557E+00
#           4.59471E+00  4.70650E+00  4.82102E+00  4.93832E+00  5.05847E+00
#           5.18155E+00  5.30762E+00  5.43676E+00  5.56904E+00  5.70453E+00
#           5.84333E+00  5.98550E+00  6.13114E+00  6.28031E+00  6.43312E+00
#           6.58964E+00  6.74997E+00  6.91420E+00  7.08243E+00  7.25475E+00
#           7.43126E+00  7.61207E+00  7.79728E+00  7.98700E+00  8.18133E+00
#           8.38038E+00  8.58428E+00  8.79315E+00  9.00709E+00  9.22624E+00
#           9.45072E+00  9.68067E+00  9.91620E+00  1.01575E+01  1.04046E+01
#           1.06578E+01  1.09171E+01  1.11827E+01  1.14548E+01  1.17335E+01
#           1.20190E+01  1.23114E+01  1.26109E+01  1.29178E+01  1.32321E+01
#           1.35540E+01  1.38838E+01  1.42216E+01  1.45676E+01  1.49221E+01
#           1.52851E+01  1.56570E+01  1.60380E+01  1.64282E+01  1.68279E+01
#           1.72374E+01  1.76568E+01  1.80864E+01  1.85264E+01  1.89772E+01
#           1.94389E+01  1.99119E+01  2.03963E+01  2.08926E+01  2.14009E+01
#           2.19216E+01  2.24550E+01  2.30014E+01  2.35610E+01  2.41343E+01
#           2.47215E+01  2.53230E+01  2.59391E+01  2.65702E+01  2.72167E+01
#           2.78789E+01  2.85572E+01  2.92520E+01  2.99637E+01  3.06928E+01
#           3.14396E+01  3.22045E+01  3.29881E+01  3.37907E+01  3.46128E+01
#           3.54550E+01  3.63177E+01  3.72013E+01  3.81064E+01  3.90336E+01
#           3.99833E+01  4.09561E+01  4.19526E+01  4.29734E+01  4.40189E+01
#           4.50900E+01  4.61870E+01  4.73108E+01  4.84619E+01  4.96410E+01
#           5.08488E+01  5.20860E+01  5.33533E+01  5.46514E+01  5.59812E+01
#           5.73432E+01  5.87384E+01  6.01676E+01  6.16315E+01  6.31311E+01
#           6.46671E+01  6.62405E+01  6.78522E+01  6.95031E+01  7.11941E+01
#           7.29263E+01  7.47007E+01  7.65182E+01  7.83800E+01  8.02870E+01
#           8.22405E+01  8.42414E+01  8.62911E+01  8.83906E+01  9.05412E+01
#           9.27442E+01  9.50007E+01  9.73122E+01  9.96799E+01  1.02105E+02
#           1.04589E+02  1.07134E+02  1.09741E+02  1.12411E+02  1.15146E+02
#           1.17948E+02  1.20817E+02  1.23757E+02  1.26768E+02  1.29852E+02
#           1.33012E+02  1.36248E+02  1.39563E+02  1.42959E+02  1.46437E+02
#           1.50000E+02
     unit =    2            # unit is [1/cm^2/(MeV/n)/source]
     axis =  eng            # axis of output
     file = detector-15.out  # file name of output for the above axis
   output = f-curr          # surface crossing forward current spectrum
     part =  neutron  
# kf/name :  2112     
#    used :        main (  %)        temp (  %)       total (  %)
#  memory :         414 (  0)           0 (  0)         414 (  0)

#------------------------------------------------------------------------------
#newpage:
#   no. =    1   reg = 114 - 214

x: Energy [MeV/n]
y:  F-Curr [1/cm^2/(MeV/n)/source]         
p: xlog ylog afac(0.8) form(0.9)
h: n            x            y(neutron ),hh0l   n 
#  e-lower      e-upper      neutron     r.err 
   1.0000E-02   1.0243E-02   1.4355E-04  0.1067
   1.0243E-02   1.0493E-02   1.2018E-04  0.1155
   1.0493E-02   1.0748E-02   1.3714E-04  0.1066
   1.0748E-02   1.1009E-02   1.4499E-04  0.1026
   1.1009E-02   1.1277E-02   1.1880E-04  0.1119
   1.1277E-02   1.1552E-02   1.4131E-04  0.1014
   1.1552E-02   1.1833E-02   1.1932E-04  0.1088
   1.1833E-02   1.2121E-02   1.1487E-04  0.1098
   1.2121E-02   1.2415E-02   1.1564E-04  0.1079
   1.2415E-02   1.2718E-02   1.2509E-04  0.1026
   1.2718E-02   1.3027E-02   1.0777E-04  0.1092
   1.3027E-02   1.3344E-02   1.2494E-04  0.1001
   1.3344E-02   1.3669E-02   1.1975E-04  0.1012
   1.3669E-02   1.4001E-02   1.3047E-04  0.0958
   1.4001E-02   1.4342E-02   1.2760E-04  0.0958
   1.4342E-02   1.4691E-02   1.0956E-04  0.1019
   1.4691E-02   1.5048E-02   9.6695E-05  0.1069
   1.5048E-02   1.5414E-02   9.8130E-05  0.1054
   1.5414E-02   1.5789E-02   1.1118E-04  0.0976
   1.5789E-02   1.6174E-02   9.9725E-05  0.1021
   1.6174E-02   1.6567E-02   1.0933E-04  0.0962
   1.6567E-02   1.6970E-02   9.5797E-05  0.1016
   1.6970E-02   1.7383E-02   8.0961E-05  0.1091
   1.7383E-02   1.7806E-02   8.8308E-05  0.1032
   1.7806E-02   1.8239E-02   7.3979E-05  0.1112
   1.8239E-02   1.8683E-02   7.9143E-05  0.1066
   1.8683E-02   1.9138E-02   8.0548E-05  0.1043
   1.9138E-02   1.9603E-02   8.4843E-05  0.1005
   1.9603E-02   2.0080E-02   7.8571E-05  0.1032
   2.0080E-02   2.0569E-02   8.8260E-05  0.0957
   2.0569E-02   2.1069E-02   8.6754E-05  0.0958
   2.1069E-02   2.1582E-02   9.1094E-05  0.0925
   2.1582E-02   2.2107E-02   6.9937E-05  0.1043
   2.2107E-02   2.2645E-02   8.1469E-05  0.0954
   2.2645E-02   2.3196E-02   7.3751E-05  0.0990
   2.3196E-02   2.3760E-02   6.9866E-05  0.1005
   2.3760E-02   2.4338E-02   7.3887E-05  0.0967
   2.4338E-02   2.4930E-02   7.2105E-05  0.0967
   2.4930E-02   2.5537E-02   6.9189E-05  0.0975
   2.5537E-02   2.6158E-02   6.5550E-05  0.0990
   2.6158E-02   2.6795E-02   6.9384E-05  0.0949
   2.6795E-02   2.7447E-02   6.6974E-05  0.0955
   2.7447E-02   2.8114E-02   7.5193E-05  0.0891
   2.8114E-02   2.8799E-02   6.3815E-05  0.0955
   2.8799E-02   2.9499E-02   5.5144E-05  0.1016
   2.9499E-02   3.0217E-02   5.2825E-05  0.1026
   3.0217E-02   3.0952E-02   5.6395E-05  0.0979
   3.0952E-02   3.1705E-02   4.9728E-05  0.1032
   3.1705E-02   3.2477E-02   5.6938E-05  0.0953
   3.2477E-02   3.3267E-02   6.0150E-05  0.0915
   3.3267E-02   3.4076E-02   5.1722E-05  0.0976
   3.4076E-02   3.4905E-02   4.6510E-05  0.1016
   3.4905E-02   3.5755E-02   4.3512E-05  0.1037
   3.5755E-02   3.6625E-02   4.6969E-05  0.0986
   3.6625E-02   3.7516E-02   4.3147E-05  0.1016
   3.7516E-02   3.8428E-02   4.8853E-05  0.0945
   3.8428E-02   3.9363E-02   5.0683E-05  0.0916
   3.9363E-02   4.0321E-02   4.7539E-05  0.0933
   4.0321E-02   4.1302E-02   4.4054E-05  0.0960
   4.1302E-02   4.2307E-02   4.6367E-05  0.0925
   4.2307E-02   4.3337E-02   4.1891E-05  0.0962
   4.3337E-02   4.4391E-02   4.5042E-05  0.0917
   4.4391E-02   4.5471E-02   4.6170E-05  0.0894
   4.5471E-02   4.6577E-02   3.8326E-05  0.0969
   4.6577E-02   4.7711E-02   4.4229E-05  0.0890
   4.7711E-02   4.8871E-02   4.1307E-05  0.0912
   4.8871E-02   5.0061E-02   3.6202E-05  0.0962
   5.0061E-02   5.1279E-02   3.5637E-05  0.0958
   5.1279E-02   5.2526E-02   3.1952E-05  0.1000
   5.2526E-02   5.3804E-02   3.6434E-05  0.0925
   5.3804E-02   5.5113E-02   3.9546E-05  0.0877
   5.5113E-02   5.6454E-02   3.9257E-05  0.0870
   5.6454E-02   5.7828E-02   3.0871E-05  0.0968
   5.7828E-02   5.9235E-02   3.6691E-05  0.0878
   5.9235E-02   6.0676E-02   3.2684E-05  0.0919
   6.0676E-02   6.2152E-02   2.9965E-05  0.0947
   6.2152E-02   6.3665E-02   2.7997E-05  0.0968
   6.3665E-02   6.5214E-02   2.8374E-05  0.0952
   6.5214E-02   6.6800E-02   2.9440E-05  0.0925
   6.6800E-02   6.8426E-02   2.7454E-05  0.0945
   6.8426E-02   7.0090E-02   3.2075E-05  0.0863
   7.0090E-02   7.1796E-02   2.8607E-05  0.0904
   7.1796E-02   7.3543E-02   2.8021E-05  0.0902
   7.3543E-02   7.5332E-02   2.6739E-05  0.0913
   7.5332E-02   7.7165E-02   2.8445E-05  0.0872
   7.7165E-02   7.9042E-02   2.3438E-05  0.0950
   7.9042E-02   8.0965E-02   2.9601E-05  0.0837
   8.0965E-02   8.2935E-02   2.7596E-05  0.0856
   8.2935E-02   8.4953E-02   2.3246E-05  0.0921
   8.4953E-02   8.7020E-02   2.7257E-05  0.0841
   8.7020E-02   8.9138E-02   2.3463E-05  0.0895
   8.9138E-02   9.1306E-02   2.3494E-05  0.0884
   9.1306E-02   9.3528E-02   2.4571E-05  0.0855
   9.3528E-02   9.5804E-02   1.9944E-05  0.0937
   9.5804E-02   9.8134E-02   2.3554E-05  0.0852
   9.8134E-02   1.0052E-01   2.5407E-05  0.0811
   1.0052E-01   1.0297E-01   2.0671E-05  0.0887
   1.0297E-01   1.0547E-01   2.8565E-05  0.0746
   1.0547E-01   1.0804E-01   2.8249E-05  0.0741
   1.0804E-01   1.1067E-01   2.6503E-05  0.0756
   1.1067E-01   1.1336E-01   2.3798E-05  0.0788
   1.1336E-01   1.1612E-01   2.6127E-05  0.0742
   1.1612E-01   1.1894E-01   3.2358E-05  0.0660
   1.1894E-01   1.2184E-01   3.2188E-05  0.0654
   1.2184E-01   1.2480E-01   2.9607E-05  0.0673
   1.2480E-01   1.2784E-01   3.3226E-05  0.0628
   1.2784E-01   1.3095E-01   3.2091E-05  0.0631
   1.3095E-01   1.3414E-01   3.5706E-05  0.0590
   1.3414E-01   1.3740E-01   3.5960E-05  0.0582
   1.3740E-01   1.4074E-01   3.6882E-05  0.0567
   1.4074E-01   1.4417E-01   4.0336E-05  0.0536
   1.4417E-01   1.4767E-01   3.7604E-05  0.0549
   1.4767E-01   1.5127E-01   4.1036E-05  0.0519
   1.5127E-01   1.5495E-01   4.0671E-05  0.0516
   1.5495E-01   1.5872E-01   4.1885E-05  0.0502
   1.5872E-01   1.6258E-01   4.8010E-05  0.0463
   1.6258E-01   1.6654E-01   4.6423E-05  0.0465
   1.6654E-01   1.7059E-01   4.8194E-05  0.0451
   1.7059E-01   1.7474E-01   4.8938E-05  0.0443
   1.7474E-01   1.7899E-01   4.6609E-05  0.0448
   1.7899E-01   1.8334E-01   5.5554E-05  0.0406
   1.8334E-01   1.8781E-01   5.4648E-05  0.0404
   1.8781E-01   1.9237E-01   5.5224E-05  0.0397
   1.9237E-01   1.9706E-01   5.9142E-05  0.0379
   1.9706E-01   2.0185E-01   6.0201E-05  0.0371
   2.0185E-01   2.0676E-01   6.2938E-05  0.0359
   2.0676E-01   2.1179E-01   6.2186E-05  0.0357
   2.1179E-01   2.1694E-01   6.5450E-05  0.0344
   2.1694E-01   2.2222E-01   7.0881E-05  0.0326
   2.2222E-01   2.2763E-01   7.3347E-05  0.0317
   2.2763E-01   2.3317E-01   7.3375E-05  0.0313
   2.3317E-01   2.3884E-01   7.4393E-05  0.0307
   2.3884E-01   2.4465E-01   7.9020E-05  0.0294
   2.4465E-01   2.5061E-01   7.9990E-05  0.0289
   2.5061E-01   2.5670E-01   8.1853E-05  0.0282
   2.5670E-01   2.6295E-01   8.5077E-05  0.0273
   2.6295E-01   2.6935E-01   8.5631E-05  0.0269
   2.6935E-01   2.7590E-01   9.2820E-05  0.0256
   2.7590E-01   2.8261E-01   8.9481E-05  0.0257
   2.8261E-01   2.8949E-01   9.8399E-05  0.0242
   2.8949E-01   2.9653E-01   9.6164E-05  0.0242
   2.9653E-01   3.0375E-01   1.0298E-04  0.0231
   3.0375E-01   3.1114E-01   1.0568E-04  0.0226
   3.1114E-01   3.1871E-01   1.0446E-04  0.0224
   3.1871E-01   3.2646E-01   1.0854E-04  0.0217
   3.2646E-01   3.3441E-01   1.1182E-04  0.0212
   3.3441E-01   3.4254E-01   1.1124E-04  0.0210
   3.4254E-01   3.5088E-01   1.1319E-04  0.0205
   3.5088E-01   3.5941E-01   1.1618E-04  0.0200
   3.5941E-01   3.6816E-01   1.1817E-04  0.0196
   3.6816E-01   3.7712E-01   1.2141E-04  0.0191
   3.7712E-01   3.8629E-01   1.2742E-04  0.0184
   3.8629E-01   3.9569E-01   1.2681E-04  0.0183
   3.9569E-01   4.0532E-01   1.3452E-04  0.0175
   4.0532E-01   4.1518E-01   1.3297E-04  0.0174
   4.1518E-01   4.2528E-01   1.3398E-04  0.0171
   4.2528E-01   4.3563E-01   1.3774E-04  0.0167
   4.3563E-01   4.4623E-01   1.4039E-04  0.0163
   4.4623E-01   4.5708E-01   1.4725E-04  0.0158
   4.5708E-01   4.6821E-01   1.4482E-04  0.0157
   4.6821E-01   4.7960E-01   1.4762E-04  0.0154
   4.7960E-01   4.9127E-01   1.4756E-04  0.0152
   4.9127E-01   5.0322E-01   1.4984E-04  0.0149
   5.0322E-01   5.1546E-01   1.5482E-04  0.0145
   5.1546E-01   5.2800E-01   1.5416E-04  0.0143
   5.2800E-01   5.4085E-01   1.6097E-04  0.0138
   5.4085E-01   5.5401E-01   1.5815E-04  0.0138
   5.5401E-01   5.6749E-01   1.5917E-04  0.0136
   5.6749E-01   5.8130E-01   1.6377E-04  0.0132
   5.8130E-01   5.9544E-01   1.6214E-04  0.0132
   5.9544E-01   6.0993E-01   1.6167E-04  0.0130
   6.0993E-01   6.2477E-01   1.6561E-04  0.0127
   6.2477E-01   6.3997E-01   1.6714E-04  0.0125
   6.3997E-01   6.5554E-01   1.6792E-04  0.0123
   6.5554E-01   6.7149E-01   1.6422E-04  0.0123
   6.7149E-01   6.8783E-01   1.6539E-04  0.0121
   6.8783E-01   7.0456E-01   1.6298E-04  0.0120
   7.0456E-01   7.2171E-01   1.6212E-04  0.0119
   7.2171E-01   7.3927E-01   1.6360E-04  0.0117
   7.3927E-01   7.5725E-01   1.6087E-04  0.0117
   7.5725E-01   7.7568E-01   1.6031E-04  0.0116
   7.7568E-01   7.9455E-01   1.5747E-04  0.0115
   7.9455E-01   8.1388E-01   1.5683E-04  0.0114
   8.1388E-01   8.3368E-01   1.5455E-04  0.0114
   8.3368E-01   8.5397E-01   1.4945E-04  0.0114
   8.5397E-01   8.7475E-01   1.4396E-04  0.0115
   8.7475E-01   8.9603E-01   1.4276E-04  0.0114
   8.9603E-01   9.1783E-01   1.4092E-04  0.0113
   9.1783E-01   9.4016E-01   1.3526E-04  0.0114
   9.4016E-01   9.6304E-01   1.3090E-04  0.0115
   9.6304E-01   9.8647E-01   1.2578E-04  0.0116
   9.8647E-01   1.0105E+00   1.2484E-04  0.0115
   1.0105E+00   1.0351E+00   1.2629E-04  0.0113
   1.0351E+00   1.0602E+00   1.2675E-04  0.0111
   1.0602E+00   1.0860E+00   1.3159E-04  0.0108
   1.0860E+00   1.1125E+00   1.3812E-04  0.0104
   1.1125E+00   1.1395E+00   1.3878E-04  0.0102
   1.1395E+00   1.1673E+00   1.4626E-04  0.0098
   1.1673E+00   1.1957E+00   1.5103E-04  0.0096
   1.1957E+00   1.2247E+00   1.5539E-04  0.0093
   1.2247E+00   1.2545E+00   1.5725E-04  0.0091
   1.2545E+00   1.2851E+00   1.6040E-04  0.0089
   1.2851E+00   1.3163E+00   1.6453E-04  0.0087
   1.3163E+00   1.3484E+00   1.6876E-04  0.0085
   1.3484E+00   1.3812E+00   1.7554E-04  0.0082
   1.3812E+00   1.4148E+00   1.7964E-04  0.0080
   1.4148E+00   1.4492E+00   1.7867E-04  0.0080
   1.4492E+00   1.4845E+00   1.8116E-04  0.0078
   1.4845E+00   1.5206E+00   1.7865E-04  0.0078
   1.5206E+00   1.5576E+00   1.8381E-04  0.0076
   1.5576E+00   1.5955E+00   1.8542E-04  0.0074
   1.5955E+00   1.6343E+00   1.8807E-04  0.0073
   1.6343E+00   1.6741E+00   1.9039E-04  0.0072
   1.6741E+00   1.7148E+00   1.9027E-04  0.0071
   1.7148E+00   1.7565E+00   1.8493E-04  0.0071
   1.7565E+00   1.7992E+00   1.8246E-04  0.0070
   1.7992E+00   1.8430E+00   1.7436E-04  0.0071
   1.8430E+00   1.8879E+00   1.6928E-04  0.0071
   1.8879E+00   1.9338E+00   1.6750E-04  0.0070
   1.9338E+00   1.9808E+00   1.6674E-04  0.0070
   1.9808E+00   2.0290E+00   1.7084E-04  0.0068
   2.0290E+00   2.0784E+00   1.7416E-04  0.0066
   2.0784E+00   2.1290E+00   1.7658E-04  0.0065
   2.1290E+00   2.1808E+00   1.7944E-04  0.0064
   2.1808E+00   2.2338E+00   1.7913E-04  0.0063
   2.2338E+00   2.2882E+00   1.7650E-04  0.0063
   2.2882E+00   2.3439E+00   1.7322E-04  0.0063
   2.3439E+00   2.4009E+00   1.7202E-04  0.0062
   2.4009E+00   2.4593E+00   1.7206E-04  0.0062
   2.4593E+00   2.5191E+00   1.7238E-04  0.0061
   2.5191E+00   2.5804E+00   1.6903E-04  0.0061
   2.5804E+00   2.6432E+00   1.6660E-04  0.0060
   2.6432E+00   2.7075E+00   1.6421E-04  0.0060
   2.7075E+00   2.7734E+00   1.6388E-04  0.0059
   2.7734E+00   2.8409E+00   1.6125E-04  0.0059
   2.8409E+00   2.9100E+00   1.6078E-04  0.0059
   2.9100E+00   2.9808E+00   1.6120E-04  0.0058
   2.9808E+00   3.0533E+00   1.5794E-04  0.0058
   3.0533E+00   3.1276E+00   1.5439E-04  0.0058
   3.1276E+00   3.2037E+00   1.5158E-04  0.0058
   3.2037E+00   3.2817E+00   1.5097E-04  0.0057
   3.2817E+00   3.3615E+00   1.4894E-04  0.0057
   3.3615E+00   3.4433E+00   1.4592E-04  0.0057
   3.4433E+00   3.5271E+00   1.4536E-04  0.0056
   3.5271E+00   3.6129E+00   1.4283E-04  0.0056
   3.6129E+00   3.7008E+00   1.3914E-04  0.0056
   3.7008E+00   3.7908E+00   1.3748E-04  0.0056
   3.7908E+00   3.8831E+00   1.3294E-04  0.0056
   3.8831E+00   3.9776E+00   1.3060E-04  0.0056
   3.9776E+00   4.0743E+00   1.2746E-04  0.0056
   4.0743E+00   4.1735E+00   1.2480E-04  0.0056
   4.1735E+00   4.2750E+00   1.2048E-04  0.0056
   4.2750E+00   4.3790E+00   1.1761E-04  0.0056
   4.3790E+00   4.4856E+00   1.1370E-04  0.0056
   4.4856E+00   4.5947E+00   1.0995E-04  0.0057
   4.5947E+00   4.7065E+00   1.0607E-04  0.0057
   4.7065E+00   4.8210E+00   1.0350E-04  0.0057
   4.8210E+00   4.9383E+00   1.0192E-04  0.0057
   4.9383E+00   5.0585E+00   9.8671E-05  0.0057
   5.0585E+00   5.1815E+00   9.6027E-05  0.0057
   5.1815E+00   5.3076E+00   9.3594E-05  0.0057
   5.3076E+00   5.4368E+00   9.0422E-05  0.0057
   5.4368E+00   5.5690E+00   8.6265E-05  0.0058
   5.5690E+00   5.7045E+00   8.4467E-05  0.0058
   5.7045E+00   5.8433E+00   8.2263E-05  0.0058
   5.8433E+00   5.9855E+00   7.9913E-05  0.0058
   5.9855E+00   6.1311E+00   7.5976E-05  0.0059
   6.1311E+00   6.2803E+00   7.4034E-05  0.0059
   6.2803E+00   6.4331E+00   7.1023E-05  0.0060
   6.4331E+00   6.5896E+00   6.7907E-05  0.0060
   6.5896E+00   6.7500E+00   6.5596E-05  0.0061
   6.7500E+00   6.9142E+00   6.2957E-05  0.0061
   6.9142E+00   7.0824E+00   5.9420E-05  0.0062
   7.0824E+00   7.2548E+00   5.6296E-05  0.0063
   7.2548E+00   7.4313E+00   5.3605E-05  0.0064
   7.4313E+00   7.6121E+00   5.0470E-05  0.0065
   7.6121E+00   7.7973E+00   4.7430E-05  0.0067
   7.7973E+00   7.9870E+00   4.4163E-05  0.0068
   7.9870E+00   8.1813E+00   4.1036E-05  0.0070
   8.1813E+00   8.3804E+00   3.8710E-05  0.0071
   8.3804E+00   8.5843E+00   3.6791E-05  0.0072
   8.5843E+00   8.7931E+00   3.4563E-05  0.0073
   8.7931E+00   9.0071E+00   3.2429E-05  0.0075
   9.0071E+00   9.2262E+00   3.0761E-05  0.0076
   9.2262E+00   9.4507E+00   2.8660E-05  0.0078
   9.4507E+00   9.6807E+00   2.6908E-05  0.0080
   9.6807E+00   9.9162E+00   2.5151E-05  0.0082
   9.9162E+00   1.0157E+01   2.5089E-05  0.0081
   1.0157E+01   1.0405E+01   2.3407E-05  0.0083
   1.0405E+01   1.0658E+01   2.1898E-05  0.0084
   1.0658E+01   1.0917E+01   2.0611E-05  0.0086
   1.0917E+01   1.1183E+01   1.9043E-05  0.0088
   1.1183E+01   1.1455E+01   1.8016E-05  0.0090
   1.1455E+01   1.1733E+01   1.7215E-05  0.0091
   1.1733E+01   1.2019E+01   1.5869E-05  0.0093
   1.2019E+01   1.2311E+01   1.4824E-05  0.0096
   1.2311E+01   1.2611E+01   1.4207E-05  0.0097
   1.2611E+01   1.2918E+01   1.3343E-05  0.0098
   1.2918E+01   1.3232E+01   1.2823E-05  0.0099
   1.3232E+01   1.3554E+01   1.1621E-05  0.0103
   1.3554E+01   1.3884E+01   1.1339E-05  0.0103
   1.3884E+01   1.4222E+01   1.0579E-05  0.0106
   1.4222E+01   1.4568E+01   9.9798E-06  0.0107
   1.4568E+01   1.4922E+01   9.4177E-06  0.0109
   1.4922E+01   1.5285E+01   8.8841E-06  0.0111
   1.5285E+01   1.5657E+01   8.4362E-06  0.0113
   1.5657E+01   1.6038E+01   7.6352E-06  0.0117
   1.6038E+01   1.6428E+01   7.3027E-06  0.0118
   1.6428E+01   1.6828E+01   6.9700E-06  0.0120
   1.6828E+01   1.7237E+01   6.5030E-06  0.0122
   1.7237E+01   1.7657E+01   6.1617E-06  0.0124
   1.7657E+01   1.8086E+01   5.6331E-06  0.0128
   1.8086E+01   1.8526E+01   5.2752E-06  0.0131
   1.8526E+01   1.8977E+01   4.8192E-06  0.0136
   1.8977E+01   1.9439E+01   4.5099E-06  0.0139
   1.9439E+01   1.9912E+01   4.2563E-06  0.0141
   1.9912E+01   2.0396E+01   3.9424E-06  0.0145
   2.0396E+01   2.0893E+01   3.7384E-06  0.0147
   2.0893E+01   2.1401E+01   3.4182E-06  0.0152
   2.1401E+01   2.1922E+01   3.0536E-06  0.0159
   2.1922E+01   2.2455E+01   2.8213E-06  0.0163
   2.2455E+01   2.3001E+01   2.6210E-06  0.0167
   2.3001E+01   2.3561E+01   2.3694E-06  0.0174
   2.3561E+01   2.4134E+01   2.1073E-06  0.0182
   2.4134E+01   2.4721E+01   1.9700E-06  0.0186
   2.4721E+01   2.5323E+01   1.6592E-06  0.0200
   2.5323E+01   2.5939E+01   1.5192E-06  0.0207
   2.5939E+01   2.6570E+01   1.3430E-06  0.0217
   2.6570E+01   2.7217E+01   1.1867E-06  0.0228
   2.7217E+01   2.7879E+01   1.0462E-06  0.0240
   2.7879E+01   2.8557E+01   9.0872E-07  0.0255
   2.8557E+01   2.9252E+01   7.8179E-07  0.0271
   2.9252E+01   2.9964E+01   6.9184E-07  0.0285
   2.9964E+01   3.0693E+01   5.6458E-07  0.0312
   3.0693E+01   3.1440E+01   4.4404E-07  0.0347
   3.1440E+01   3.2205E+01   3.7336E-07  0.0374
   3.2205E+01   3.2988E+01   3.3335E-07  0.0391
   3.2988E+01   3.3791E+01   2.4221E-07  0.0454
   3.3791E+01   3.4613E+01   1.9899E-07  0.0494
   3.4613E+01   3.5455E+01   1.4772E-07  0.0567
   3.5455E+01   3.6318E+01   1.1453E-07  0.0636
   3.6318E+01   3.7201E+01   7.7860E-08  0.0762
   3.7201E+01   3.8106E+01   4.5518E-08  0.0985
   3.8106E+01   3.9034E+01   2.8474E-08  0.1231
   3.9034E+01   3.9983E+01   1.7689E-08  0.1543
   3.9983E+01   4.0956E+01   1.4802E-08  0.1667
   4.0956E+01   4.1953E+01   9.6338E-09  0.2041
   4.1953E+01   4.2973E+01   3.9187E-09  0.3162
   4.2973E+01   4.4019E+01   1.5303E-09  0.5000
   4.4019E+01   4.5090E+01   7.4695E-10  0.7071
   4.5090E+01   4.6187E+01   0.0000E+00  0.0000
   4.6187E+01   4.7311E+01   0.0000E+00  0.0000
   4.7311E+01   4.8462E+01   0.0000E+00  0.0000
   4.8462E+01   4.9641E+01   0.0000E+00  0.0000
   4.9641E+01   5.0849E+01   0.0000E+00  0.0000
   5.0849E+01   5.2086E+01   0.0000E+00  0.0000
   5.2086E+01   5.3353E+01   0.0000E+00  0.0000
   5.3353E+01   5.4651E+01   0.0000E+00  0.0000
   5.4651E+01   5.5981E+01   0.0000E+00  0.0000
   5.5981E+01   5.7343E+01   0.0000E+00  0.0000
   5.7343E+01   5.8738E+01   0.0000E+00  0.0000
   5.8738E+01   6.0168E+01   0.0000E+00  0.0000
   6.0168E+01   6.1632E+01   0.0000E+00  0.0000
   6.1632E+01   6.3131E+01   0.0000E+00  0.0000
   6.3131E+01   6.4667E+01   0.0000E+00  0.0000
   6.4667E+01   6.6240E+01   0.0000E+00  0.0000
   6.6240E+01   6.7852E+01   0.0000E+00  0.0000
   6.7852E+01   6.9503E+01   0.0000E+00  0.0000
   6.9503E+01   7.1194E+01   0.0000E+00  0.0000
   7.1194E+01   7.2926E+01   0.0000E+00  0.0000
   7.2926E+01   7.4701E+01   0.0000E+00  0.0000
   7.4701E+01   7.6518E+01   0.0000E+00  0.0000
   7.6518E+01   7.8380E+01   0.0000E+00  0.0000
   7.8380E+01   8.0287E+01   0.0000E+00  0.0000
   8.0287E+01   8.2240E+01   0.0000E+00  0.0000
   8.2240E+01   8.4241E+01   0.0000E+00  0.0000
   8.4241E+01   8.6291E+01   0.0000E+00  0.0000
   8.6291E+01   8.8391E+01   0.0000E+00  0.0000
   8.8391E+01   9.0541E+01   0.0000E+00  0.0000
   9.0541E+01   9.2744E+01   0.0000E+00  0.0000
   9.2744E+01   9.5001E+01   0.0000E+00  0.0000
   9.5001E+01   9.7312E+01   0.0000E+00  0.0000
   9.7312E+01   9.9680E+01   0.0000E+00  0.0000
   9.9680E+01   1.0211E+02   0.0000E+00  0.0000
   1.0211E+02   1.0459E+02   0.0000E+00  0.0000
   1.0459E+02   1.0713E+02   0.0000E+00  0.0000
   1.0713E+02   1.0974E+02   0.0000E+00  0.0000
   1.0974E+02   1.1241E+02   0.0000E+00  0.0000
   1.1241E+02   1.1515E+02   0.0000E+00  0.0000
   1.1515E+02   1.1795E+02   0.0000E+00  0.0000
   1.1795E+02   1.2082E+02   0.0000E+00  0.0000
   1.2082E+02   1.2376E+02   0.0000E+00  0.0000
   1.2376E+02   1.2677E+02   0.0000E+00  0.0000
   1.2677E+02   1.2985E+02   0.0000E+00  0.0000
   1.2985E+02   1.3301E+02   0.0000E+00  0.0000
   1.3301E+02   1.3625E+02   0.0000E+00  0.0000
   1.3625E+02   1.3956E+02   0.0000E+00  0.0000
   1.3956E+02   1.4296E+02   0.0000E+00  0.0000
   1.4296E+02   1.4644E+02   0.0000E+00  0.0000
   1.4644E+02   1.5000E+02   0.0000E+00  0.0000

#   sum over                 7.4038E-06
'no. =    1   reg = 114 - 214'
msuc: {\huge [t-cross] in region mesh}
msdr: {\it plotted by \ANGEL \version}
msdl: {\it calculated by \PHITS  3.26}
wt: s(0.7)
\vspace{-3}
  region surface crossing
  area  &=&   1.0000E+00 [cm^2]
e:
 
# Information for Restart Calculation
# This calculation was newly started
# istdev =  2 # 1:Batch variance, 2:History variance
# resc2  = 2.50000000000000000E+09 # Total source weight or Total source weight / maxcas
# resc3  = 2.50000000000000000E+09 # Total history number or Total batch number
# maxcas =   100000000 # History / Batch, only used for istdev=1
# bitrseed = 1100001110001001100010001100011001110101000011000110100101010100 # bit data of rseed
