[ T-Cross ]
    title = [t-cross] in region mesh
     mesh =  reg            # mesh type is region-wise
      reg =    1            # number of crossing regions
      non     r-from    r-to       area
      1       111       211        1.000000    
   e-type =    3            # e-mesh is log given by emin, emax and ne
     emin =  1.0000000E-02  # minimum value of e-mesh points
     emax =   150.0000      # maximum value of e-mesh points
#    edel =  2.4039514E-02  # mesh width of e-mesh points
       ne =    400          # number of e-mesh points
#    data = ( e(i), i = 1, ne + 1 )
#           1.00000E-02  1.02433E-02  1.04925E-02  1.07478E-02  1.10093E-02
#           1.12772E-02  1.15516E-02  1.18326E-02  1.21205E-02  1.24154E-02
#           1.27175E-02  1.30269E-02  1.33439E-02  1.36686E-02  1.40011E-02
#           1.43418E-02  1.46907E-02  1.50482E-02  1.54143E-02  1.57894E-02
#           1.61735E-02  1.65670E-02  1.69701E-02  1.73830E-02  1.78060E-02
#           1.82392E-02  1.86830E-02  1.91375E-02  1.96032E-02  2.00801E-02
#           2.05687E-02  2.10692E-02  2.15818E-02  2.21069E-02  2.26448E-02
#           2.31957E-02  2.37601E-02  2.43382E-02  2.49304E-02  2.55369E-02
#           2.61583E-02  2.67947E-02  2.74467E-02  2.81145E-02  2.87985E-02
#           2.94992E-02  3.02169E-02  3.09521E-02  3.17052E-02  3.24766E-02
#           3.32668E-02  3.40762E-02  3.49053E-02  3.57546E-02  3.66246E-02
#           3.75157E-02  3.84284E-02  3.93634E-02  4.03212E-02  4.13022E-02
#           4.23071E-02  4.33365E-02  4.43909E-02  4.54710E-02  4.65773E-02
#           4.77106E-02  4.88714E-02  5.00605E-02  5.12785E-02  5.25262E-02
#           5.38042E-02  5.51133E-02  5.64542E-02  5.78278E-02  5.92348E-02
#           6.06760E-02  6.21523E-02  6.36645E-02  6.52135E-02  6.68002E-02
#           6.84255E-02  7.00904E-02  7.17957E-02  7.35426E-02  7.53319E-02
#           7.71648E-02  7.90423E-02  8.09655E-02  8.29354E-02  8.49533E-02
#           8.70203E-02  8.91376E-02  9.13064E-02  9.35279E-02  9.58035E-02
#           9.81345E-02  1.00522E-01  1.02968E-01  1.05473E-01  1.08040E-01
#           1.10668E-01  1.13361E-01  1.16119E-01  1.18944E-01  1.21838E-01
#           1.24803E-01  1.27839E-01  1.30950E-01  1.34136E-01  1.37399E-01
#           1.40742E-01  1.44167E-01  1.47675E-01  1.51268E-01  1.54948E-01
#           1.58718E-01  1.62580E-01  1.66535E-01  1.70587E-01  1.74738E-01
#           1.78989E-01  1.83344E-01  1.87805E-01  1.92375E-01  1.97055E-01
#           2.01850E-01  2.06761E-01  2.11792E-01  2.16945E-01  2.22223E-01
#           2.27630E-01  2.33169E-01  2.38842E-01  2.44653E-01  2.50605E-01
#           2.56703E-01  2.62949E-01  2.69346E-01  2.75900E-01  2.82613E-01
#           2.89489E-01  2.96532E-01  3.03747E-01  3.11138E-01  3.18708E-01
#           3.26462E-01  3.34405E-01  3.42542E-01  3.50876E-01  3.59413E-01
#           3.68158E-01  3.77116E-01  3.86291E-01  3.95690E-01  4.05317E-01
#           4.15179E-01  4.25281E-01  4.35628E-01  4.46227E-01  4.57084E-01
#           4.68205E-01  4.79597E-01  4.91266E-01  5.03219E-01  5.15463E-01
#           5.28005E-01  5.40851E-01  5.54011E-01  5.67490E-01  5.81298E-01
#           5.95441E-01  6.09929E-01  6.24769E-01  6.39970E-01  6.55541E-01
#           6.71491E-01  6.87828E-01  7.04564E-01  7.21706E-01  7.39266E-01
#           7.57253E-01  7.75678E-01  7.94551E-01  8.13883E-01  8.33685E-01
#           8.53969E-01  8.74747E-01  8.96030E-01  9.17831E-01  9.40163E-01
#           9.63038E-01  9.86469E-01  1.01047E+00  1.03506E+00  1.06024E+00
#           1.08604E+00  1.11246E+00  1.13953E+00  1.16725E+00  1.19565E+00
#           1.22474E+00  1.25454E+00  1.28507E+00  1.31633E+00  1.34836E+00
#           1.38117E+00  1.41477E+00  1.44920E+00  1.48446E+00  1.52057E+00
#           1.55757E+00  1.59547E+00  1.63429E+00  1.67405E+00  1.71478E+00
#           1.75650E+00  1.79924E+00  1.84302E+00  1.88786E+00  1.93379E+00
#           1.98084E+00  2.02904E+00  2.07841E+00  2.12898E+00  2.18078E+00
#           2.23384E+00  2.28819E+00  2.34386E+00  2.40089E+00  2.45930E+00
#           2.51914E+00  2.58043E+00  2.64322E+00  2.70753E+00  2.77341E+00
#           2.84088E+00  2.91001E+00  2.98081E+00  3.05333E+00  3.12762E+00
#           3.20372E+00  3.28167E+00  3.36152E+00  3.44330E+00  3.52708E+00
#           3.61290E+00  3.70080E+00  3.79085E+00  3.88308E+00  3.97756E+00
#           4.07434E+00  4.17347E+00  4.27501E+00  4.37903E+00  4.48557E+00
#           4.59471E+00  4.70650E+00  4.82102E+00  4.93832E+00  5.05847E+00
#           5.18155E+00  5.30762E+00  5.43676E+00  5.56904E+00  5.70453E+00
#           5.84333E+00  5.98550E+00  6.13114E+00  6.28031E+00  6.43312E+00
#           6.58964E+00  6.74997E+00  6.91420E+00  7.08243E+00  7.25475E+00
#           7.43126E+00  7.61207E+00  7.79728E+00  7.98700E+00  8.18133E+00
#           8.38038E+00  8.58428E+00  8.79315E+00  9.00709E+00  9.22624E+00
#           9.45072E+00  9.68067E+00  9.91620E+00  1.01575E+01  1.04046E+01
#           1.06578E+01  1.09171E+01  1.11827E+01  1.14548E+01  1.17335E+01
#           1.20190E+01  1.23114E+01  1.26109E+01  1.29178E+01  1.32321E+01
#           1.35540E+01  1.38838E+01  1.42216E+01  1.45676E+01  1.49221E+01
#           1.52851E+01  1.56570E+01  1.60380E+01  1.64282E+01  1.68279E+01
#           1.72374E+01  1.76568E+01  1.80864E+01  1.85264E+01  1.89772E+01
#           1.94389E+01  1.99119E+01  2.03963E+01  2.08926E+01  2.14009E+01
#           2.19216E+01  2.24550E+01  2.30014E+01  2.35610E+01  2.41343E+01
#           2.47215E+01  2.53230E+01  2.59391E+01  2.65702E+01  2.72167E+01
#           2.78789E+01  2.85572E+01  2.92520E+01  2.99637E+01  3.06928E+01
#           3.14396E+01  3.22045E+01  3.29881E+01  3.37907E+01  3.46128E+01
#           3.54550E+01  3.63177E+01  3.72013E+01  3.81064E+01  3.90336E+01
#           3.99833E+01  4.09561E+01  4.19526E+01  4.29734E+01  4.40189E+01
#           4.50900E+01  4.61870E+01  4.73108E+01  4.84619E+01  4.96410E+01
#           5.08488E+01  5.20860E+01  5.33533E+01  5.46514E+01  5.59812E+01
#           5.73432E+01  5.87384E+01  6.01676E+01  6.16315E+01  6.31311E+01
#           6.46671E+01  6.62405E+01  6.78522E+01  6.95031E+01  7.11941E+01
#           7.29263E+01  7.47007E+01  7.65182E+01  7.83800E+01  8.02870E+01
#           8.22405E+01  8.42414E+01  8.62911E+01  8.83906E+01  9.05412E+01
#           9.27442E+01  9.50007E+01  9.73122E+01  9.96799E+01  1.02105E+02
#           1.04589E+02  1.07134E+02  1.09741E+02  1.12411E+02  1.15146E+02
#           1.17948E+02  1.20817E+02  1.23757E+02  1.26768E+02  1.29852E+02
#           1.33012E+02  1.36248E+02  1.39563E+02  1.42959E+02  1.46437E+02
#           1.50000E+02
     unit =    2            # unit is [1/cm^2/(MeV/n)/source]
     axis =  eng            # axis of output
     file = detector-12.out  # file name of output for the above axis
   output = f-curr          # surface crossing forward current spectrum
     part =  neutron  
# kf/name :  2112     
#    used :        main (  %)        temp (  %)       total (  %)
#  memory :         414 (  0)           0 (  0)         414 (  0)

#------------------------------------------------------------------------------
#newpage:
#   no. =    1   reg = 111 - 211

x: Energy [MeV/n]
y:  F-Curr [1/cm^2/(MeV/n)/source]         
p: xlog ylog afac(0.8) form(0.9)
h: n            x            y(neutron ),hh0l   n 
#  e-lower      e-upper      neutron     r.err 
   1.0000E-02   1.0243E-02   2.4660E-04  0.1291
   1.0243E-02   1.0493E-02   3.2701E-04  0.1106
   1.0493E-02   1.0748E-02   2.4678E-04  0.1260
   1.0748E-02   1.1009E-02   3.1024E-04  0.1109
   1.1009E-02   1.1277E-02   2.9172E-04  0.1130
   1.1277E-02   1.1552E-02   2.7772E-04  0.1144
   1.1552E-02   1.1833E-02   2.7041E-04  0.1147
   1.1833E-02   1.2121E-02   3.0219E-04  0.1072
   1.2121E-02   1.2415E-02   2.8314E-04  0.1093
   1.2415E-02   1.2718E-02   2.6329E-04  0.1118
   1.2718E-02   1.3027E-02   2.7793E-04  0.1078
   1.3027E-02   1.3344E-02   2.2387E-04  0.1182
   1.3344E-02   1.3669E-02   2.5103E-04  0.1106
   1.3669E-02   1.4001E-02   2.1199E-04  0.1189
   1.4001E-02   1.4342E-02   2.1723E-04  0.1162
   1.4342E-02   1.4691E-02   3.2383E-04  0.0941
   1.4691E-02   1.5048E-02   2.6337E-04  0.1030
   1.5048E-02   1.5414E-02   2.2396E-04  0.1101
   1.5414E-02   1.5789E-02   2.8572E-04  0.0965
   1.5789E-02   1.6174E-02   2.1605E-04  0.1094
   1.6174E-02   1.6567E-02   2.1981E-04  0.1074
   1.6567E-02   1.6970E-02   2.6334E-04  0.0970
   1.6970E-02   1.7383E-02   2.1676E-04  0.1056
   1.7383E-02   1.7806E-02   2.4976E-04  0.0971
   1.7806E-02   1.8239E-02   2.1040E-04  0.1047
   1.8239E-02   1.8683E-02   1.8995E-04  0.1088
   1.8683E-02   1.9138E-02   2.2729E-04  0.0983
   1.9138E-02   1.9603E-02   2.2980E-04  0.0967
   1.9603E-02   2.0080E-02   2.0192E-04  0.1018
   2.0080E-02   2.0569E-02   1.8421E-04  0.1054
   2.0569E-02   2.1069E-02   1.7584E-04  0.1066
   2.1069E-02   2.1582E-02   1.9117E-04  0.1010
   2.1582E-02   2.2107E-02   1.8092E-04  0.1026
   2.2107E-02   2.2645E-02   2.0939E-04  0.0941
   2.2645E-02   2.3196E-02   1.9026E-04  0.0974
   2.3196E-02   2.3760E-02   1.8184E-04  0.0985
   2.3760E-02   2.4338E-02   2.0124E-04  0.0926
   2.4338E-02   2.4930E-02   1.9589E-04  0.0928
   2.4930E-02   2.5537E-02   1.9396E-04  0.0920
   2.5537E-02   2.6158E-02   1.9363E-04  0.0909
   2.6158E-02   2.6795E-02   1.5344E-04  0.1010
   2.6795E-02   2.7447E-02   1.5442E-04  0.0995
   2.7447E-02   2.8114E-02   2.0160E-04  0.0861
   2.8114E-02   2.8799E-02   1.6373E-04  0.0945
   2.8799E-02   2.9499E-02   1.6883E-04  0.0918
   2.9499E-02   3.0217E-02   1.6441E-04  0.0921
   3.0217E-02   3.0952E-02   1.6186E-04  0.0917
   3.0952E-02   3.1705E-02   1.5824E-04  0.0916
   3.1705E-02   3.2477E-02   1.7241E-04  0.0867
   3.2477E-02   3.3267E-02   1.3412E-04  0.0968
   3.3267E-02   3.4076E-02   1.1366E-04  0.1043
   3.4076E-02   3.4905E-02   1.4775E-04  0.0903
   3.4905E-02   3.5755E-02   1.3693E-04  0.0926
   3.5755E-02   3.6625E-02   1.3698E-04  0.0916
   3.6625E-02   3.7516E-02   1.5206E-04  0.0858
   3.7516E-02   3.8428E-02   1.5025E-04  0.0854
   3.8428E-02   3.9363E-02   1.3865E-04  0.0877
   3.9363E-02   4.0321E-02   1.1882E-04  0.0935
   4.0321E-02   4.1302E-02   1.2385E-04  0.0906
   4.1302E-02   4.2307E-02   1.1245E-04  0.0941
   4.2307E-02   4.3337E-02   1.1817E-04  0.0905
   4.3337E-02   4.4391E-02   1.2249E-04  0.0879
   4.4391E-02   4.5471E-02   1.3997E-04  0.0813
   4.5471E-02   4.6577E-02   1.2397E-04  0.0852
   4.6577E-02   4.7711E-02   1.0677E-04  0.0909
   4.7711E-02   4.8871E-02   1.0441E-04  0.0908
   4.8871E-02   5.0061E-02   9.6431E-05  0.0932
   5.0061E-02   5.1279E-02   1.1736E-04  0.0835
   5.1279E-02   5.2526E-02   1.0420E-04  0.0875
   5.2526E-02   5.3804E-02   1.1346E-04  0.0830
   5.3804E-02   5.5113E-02   1.1125E-04  0.0828
   5.5113E-02   5.6454E-02   1.0787E-04  0.0830
   5.6454E-02   5.7828E-02   1.0104E-04  0.0847
   5.7828E-02   5.9235E-02   1.1747E-04  0.0777
   5.9235E-02   6.0676E-02   8.4997E-05  0.0903
   6.0676E-02   6.2152E-02   9.3588E-05  0.0850
   6.2152E-02   6.3665E-02   1.0171E-04  0.0805
   6.3665E-02   6.5214E-02   8.4984E-05  0.0870
   6.5214E-02   6.6800E-02   8.6760E-05  0.0851
   6.6800E-02   6.8426E-02   9.6778E-05  0.0795
   6.8426E-02   7.0090E-02   8.0488E-05  0.0864
   7.0090E-02   7.1796E-02   8.2388E-05  0.0843
   7.1796E-02   7.3543E-02   7.4059E-05  0.0878
   7.3543E-02   7.5332E-02   7.4888E-05  0.0864
   7.5332E-02   7.7165E-02   7.9383E-05  0.0828
   7.7165E-02   7.9042E-02   8.1833E-05  0.0806
   7.9042E-02   8.0965E-02   7.9868E-05  0.0804
   8.0965E-02   8.2935E-02   8.0713E-05  0.0793
   8.2935E-02   8.4953E-02   5.8135E-05  0.0922
   8.4953E-02   8.7020E-02   7.4357E-05  0.0806
   8.7020E-02   8.9138E-02   7.0610E-05  0.0817
   8.9138E-02   9.1306E-02   5.9342E-05  0.0879
   9.1306E-02   9.3528E-02   6.4496E-05  0.0835
   9.3528E-02   9.5804E-02   5.7271E-05  0.0873
   9.5804E-02   9.8134E-02   6.6206E-05  0.0804
   9.8134E-02   1.0052E-01   6.6382E-05  0.0794
   1.0052E-01   1.0297E-01   6.0512E-05  0.0822
   1.0297E-01   1.0547E-01   5.6281E-05  0.0842
   1.0547E-01   1.0804E-01   4.8175E-05  0.0898
   1.0804E-01   1.1067E-01   5.0757E-05  0.0863
   1.1067E-01   1.1336E-01   5.1069E-05  0.0851
   1.1336E-01   1.1612E-01   5.4971E-05  0.0811
   1.1612E-01   1.1894E-01   5.2795E-05  0.0817
   1.1894E-01   1.2184E-01   4.8473E-05  0.0842
   1.2184E-01   1.2480E-01   5.0818E-05  0.0814
   1.2480E-01   1.2784E-01   3.9189E-05  0.0917
   1.2784E-01   1.3095E-01   4.8917E-05  0.0809
   1.3095E-01   1.3414E-01   4.4218E-05  0.0837
   1.3414E-01   1.3740E-01   4.4779E-05  0.0825
   1.3740E-01   1.4074E-01   4.1923E-05  0.0841
   1.4074E-01   1.4417E-01   4.3512E-05  0.0819
   1.4417E-01   1.4767E-01   3.9432E-05  0.0849
   1.4767E-01   1.5127E-01   4.0078E-05  0.0833
   1.5127E-01   1.5495E-01   3.1286E-05  0.0929
   1.5495E-01   1.5872E-01   3.8804E-05  0.0826
   1.5872E-01   1.6258E-01   3.4440E-05  0.0865
   1.6258E-01   1.6654E-01   3.5465E-05  0.0842
   1.6654E-01   1.7059E-01   3.9485E-05  0.0788
   1.7059E-01   1.7474E-01   3.4379E-05  0.0836
   1.7474E-01   1.7899E-01   4.4846E-05  0.0723
   1.7899E-01   1.8334E-01   3.2909E-05  0.0833
   1.8334E-01   1.8781E-01   3.6720E-05  0.0779
   1.8781E-01   1.9237E-01   3.1653E-05  0.0830
   1.9237E-01   1.9706E-01   3.1097E-05  0.0828
   1.9706E-01   2.0185E-01   3.3295E-05  0.0789
   2.0185E-01   2.0676E-01   3.0903E-05  0.0810
   2.0676E-01   2.1179E-01   3.2853E-05  0.0775
   2.1179E-01   2.1694E-01   3.4336E-05  0.0750
   2.1694E-01   2.2222E-01   3.8392E-05  0.0702
   2.2222E-01   2.2763E-01   3.9259E-05  0.0686
   2.2763E-01   2.3317E-01   3.6382E-05  0.0704
   2.3317E-01   2.3884E-01   4.1713E-05  0.0649
   2.3884E-01   2.4465E-01   3.8287E-05  0.0668
   2.4465E-01   2.5061E-01   3.7485E-05  0.0668
   2.5061E-01   2.5670E-01   4.1486E-05  0.0628
   2.5670E-01   2.6295E-01   4.0281E-05  0.0629
   2.6295E-01   2.6935E-01   4.1238E-05  0.0615
   2.6935E-01   2.7590E-01   4.3565E-05  0.0591
   2.7590E-01   2.8261E-01   4.4216E-05  0.0580
   2.8261E-01   2.8949E-01   4.8350E-05  0.0547
   2.8949E-01   2.9653E-01   4.4991E-05  0.0561
   2.9653E-01   3.0375E-01   5.0308E-05  0.0524
   3.0375E-01   3.1114E-01   5.1998E-05  0.0509
   3.1114E-01   3.1871E-01   5.0873E-05  0.0508
   3.1871E-01   3.2646E-01   5.3590E-05  0.0490
   3.2646E-01   3.3441E-01   5.6209E-05  0.0473
   3.3441E-01   3.4254E-01   5.4152E-05  0.0476
   3.4254E-01   3.5088E-01   5.2282E-05  0.0478
   3.5088E-01   3.5941E-01   5.8221E-05  0.0447
   3.5941E-01   3.6816E-01   5.7027E-05  0.0447
   3.6816E-01   3.7712E-01   6.1225E-05  0.0426
   3.7712E-01   3.8629E-01   5.9496E-05  0.0427
   3.8629E-01   3.9569E-01   6.1754E-05  0.0414
   3.9569E-01   4.0532E-01   6.0301E-05  0.0414
   4.0532E-01   4.1518E-01   6.3161E-05  0.0400
   4.1518E-01   4.2528E-01   6.2946E-05  0.0396
   4.2528E-01   4.3563E-01   6.6423E-05  0.0381
   4.3563E-01   4.4623E-01   6.3492E-05  0.0385
   4.4623E-01   4.5708E-01   6.5628E-05  0.0374
   4.5708E-01   4.6821E-01   7.0799E-05  0.0356
   4.6821E-01   4.7960E-01   6.7282E-05  0.0361
   4.7960E-01   4.9127E-01   7.1644E-05  0.0345
   4.9127E-01   5.0322E-01   6.9730E-05  0.0345
   5.0322E-01   5.1546E-01   7.3173E-05  0.0333
   5.1546E-01   5.2800E-01   6.8187E-05  0.0341
   5.2800E-01   5.4085E-01   7.8258E-05  0.0315
   5.4085E-01   5.5401E-01   7.6837E-05  0.0314
   5.5401E-01   5.6749E-01   7.3770E-05  0.0316
   5.6749E-01   5.8130E-01   7.4301E-05  0.0312
   5.8130E-01   5.9544E-01   7.8500E-05  0.0299
   5.9544E-01   6.0993E-01   7.5961E-05  0.0301
   6.0993E-01   6.2477E-01   7.5376E-05  0.0298
   6.2477E-01   6.3997E-01   7.9897E-05  0.0286
   6.3997E-01   6.5554E-01   8.0204E-05  0.0282
   6.5554E-01   6.7149E-01   7.7429E-05  0.0284
   6.7149E-01   6.8783E-01   8.1347E-05  0.0274
   6.8783E-01   7.0456E-01   7.9374E-05  0.0274
   7.0456E-01   7.2171E-01   8.4303E-05  0.0262
   7.2171E-01   7.3927E-01   8.5221E-05  0.0258
   7.3927E-01   7.5725E-01   8.0112E-05  0.0263
   7.5725E-01   7.7568E-01   8.1900E-05  0.0257
   7.7568E-01   7.9455E-01   8.2977E-05  0.0252
   7.9455E-01   8.1388E-01   8.2316E-05  0.0250
   8.1388E-01   8.3368E-01   7.8641E-05  0.0253
   8.3368E-01   8.5397E-01   8.6037E-05  0.0239
   8.5397E-01   8.7475E-01   8.2895E-05  0.0240
   8.7475E-01   8.9603E-01   7.7706E-05  0.0245
   8.9603E-01   9.1783E-01   7.7919E-05  0.0242
   9.1783E-01   9.4016E-01   7.8870E-05  0.0238
   9.4016E-01   9.6304E-01   7.3067E-05  0.0244
   9.6304E-01   9.8647E-01   7.2493E-05  0.0242
   9.8647E-01   1.0105E+00   7.0999E-05  0.0242
   1.0105E+00   1.0351E+00   7.2943E-05  0.0235
   1.0351E+00   1.0602E+00   7.3466E-05  0.0232
   1.0602E+00   1.0860E+00   7.3679E-05  0.0229
   1.0860E+00   1.1125E+00   7.4555E-05  0.0225
   1.1125E+00   1.1395E+00   7.4688E-05  0.0222
   1.1395E+00   1.1673E+00   8.0130E-05  0.0212
   1.1673E+00   1.1957E+00   8.2662E-05  0.0206
   1.1957E+00   1.2247E+00   8.2229E-05  0.0204
   1.2247E+00   1.2545E+00   8.3488E-05  0.0200
   1.2545E+00   1.2851E+00   8.6008E-05  0.0195
   1.2851E+00   1.3163E+00   8.5698E-05  0.0193
   1.3163E+00   1.3484E+00   8.5642E-05  0.0190
   1.3484E+00   1.3812E+00   8.7717E-05  0.0186
   1.3812E+00   1.4148E+00   9.5157E-05  0.0176
   1.4148E+00   1.4492E+00   9.0317E-05  0.0179
   1.4492E+00   1.4845E+00   9.4368E-05  0.0173
   1.4845E+00   1.5206E+00   9.1595E-05  0.0173
   1.5206E+00   1.5576E+00   9.3589E-05  0.0169
   1.5576E+00   1.5955E+00   9.1739E-05  0.0169
   1.5955E+00   1.6343E+00   9.3357E-05  0.0165
   1.6343E+00   1.6741E+00   9.8015E-05  0.0160
   1.6741E+00   1.7148E+00   9.7829E-05  0.0158
   1.7148E+00   1.7565E+00   9.8624E-05  0.0155
   1.7565E+00   1.7992E+00   9.9381E-05  0.0153
   1.7992E+00   1.8430E+00   9.8992E-05  0.0151
   1.8430E+00   1.8879E+00   9.8676E-05  0.0150
   1.8879E+00   1.9338E+00   9.6635E-05  0.0149
   1.9338E+00   1.9808E+00   1.0048E-04  0.0145
   1.9808E+00   2.0290E+00   1.0203E-04  0.0142
   2.0290E+00   2.0784E+00   1.0441E-04  0.0139
   2.0784E+00   2.1290E+00   1.0190E-04  0.0139
   2.1290E+00   2.1808E+00   1.0078E-04  0.0138
   2.1808E+00   2.2338E+00   9.9416E-05  0.0137
   2.2338E+00   2.2882E+00   1.0076E-04  0.0135
   2.2882E+00   2.3439E+00   1.0303E-04  0.0132
   2.3439E+00   2.4009E+00   9.9894E-05  0.0132
   2.4009E+00   2.4593E+00   1.0134E-04  0.0130
   2.4593E+00   2.5191E+00   1.0304E-04  0.0127
   2.5191E+00   2.5804E+00   1.0233E-04  0.0126
   2.5804E+00   2.6432E+00   9.9615E-05  0.0126
   2.6432E+00   2.7075E+00   9.9889E-05  0.0124
   2.7075E+00   2.7734E+00   9.8889E-05  0.0123
   2.7734E+00   2.8409E+00   9.7362E-05  0.0123
   2.8409E+00   2.9100E+00   9.7635E-05  0.0121
   2.9100E+00   2.9808E+00   9.7575E-05  0.0120
   2.9808E+00   3.0533E+00   9.9043E-05  0.0118
   3.0533E+00   3.1276E+00   9.8499E-05  0.0117
   3.1276E+00   3.2037E+00   9.8637E-05  0.0115
   3.2037E+00   3.2817E+00   9.4917E-05  0.0116
   3.2817E+00   3.3615E+00   9.4233E-05  0.0115
   3.3615E+00   3.4433E+00   9.3743E-05  0.0114
   3.4433E+00   3.5271E+00   9.2173E-05  0.0113
   3.5271E+00   3.6129E+00   9.3153E-05  0.0111
   3.6129E+00   3.7008E+00   9.1836E-05  0.0111
   3.7008E+00   3.7908E+00   9.0590E-05  0.0110
   3.7908E+00   3.8831E+00   8.8898E-05  0.0110
   3.8831E+00   3.9776E+00   8.6363E-05  0.0110
   3.9776E+00   4.0743E+00   8.7273E-05  0.0108
   4.0743E+00   4.1735E+00   8.4261E-05  0.0109
   4.1735E+00   4.2750E+00   8.3520E-05  0.0108
   4.2750E+00   4.3790E+00   8.4014E-05  0.0107
   4.3790E+00   4.4856E+00   8.1721E-05  0.0107
   4.4856E+00   4.5947E+00   7.8892E-05  0.0107
   4.5947E+00   4.7065E+00   7.6487E-05  0.0108
   4.7065E+00   4.8210E+00   7.5268E-05  0.0107
   4.8210E+00   4.9383E+00   7.2760E-05  0.0108
   4.9383E+00   5.0585E+00   7.1089E-05  0.0108
   5.0585E+00   5.1815E+00   6.6847E-05  0.0110
   5.1815E+00   5.3076E+00   6.7372E-05  0.0108
   5.3076E+00   5.4368E+00   6.4027E-05  0.0110
   5.4368E+00   5.5690E+00   6.0743E-05  0.0111
   5.5690E+00   5.7045E+00   5.8930E-05  0.0112
   5.7045E+00   5.8433E+00   5.4682E-05  0.0115
   5.8433E+00   5.9855E+00   5.2789E-05  0.0115
   5.9855E+00   6.1311E+00   5.1930E-05  0.0115
   6.1311E+00   6.2803E+00   4.8015E-05  0.0118
   6.2803E+00   6.4331E+00   4.6051E-05  0.0119
   6.4331E+00   6.5896E+00   4.2910E-05  0.0122
   6.5896E+00   6.7500E+00   4.1160E-05  0.0123
   6.7500E+00   6.9142E+00   3.9328E-05  0.0124
   6.9142E+00   7.0824E+00   3.6936E-05  0.0127
   7.0824E+00   7.2548E+00   3.5240E-05  0.0128
   7.2548E+00   7.4313E+00   3.3859E-05  0.0129
   7.4313E+00   7.6121E+00   3.1753E-05  0.0132
   7.6121E+00   7.7973E+00   3.0571E-05  0.0133
   7.7973E+00   7.9870E+00   2.9359E-05  0.0134
   7.9870E+00   8.1813E+00   2.7571E-05  0.0136
   8.1813E+00   8.3804E+00   2.6865E-05  0.0137
   8.3804E+00   8.5843E+00   2.5595E-05  0.0138
   8.5843E+00   8.7931E+00   2.4208E-05  0.0140
   8.7931E+00   9.0071E+00   2.3500E-05  0.0141
   9.0071E+00   9.2262E+00   2.2282E-05  0.0143
   9.2262E+00   9.4507E+00   2.1102E-05  0.0145
   9.4507E+00   9.6807E+00   2.0265E-05  0.0146
   9.6807E+00   9.9162E+00   1.9443E-05  0.0148
   9.9162E+00   1.0157E+01   1.8802E-05  0.0148
   1.0157E+01   1.0405E+01   1.7430E-05  0.0152
   1.0405E+01   1.0658E+01   1.7780E-05  0.0149
   1.0658E+01   1.0917E+01   1.7219E-05  0.0150
   1.0917E+01   1.1183E+01   1.6400E-05  0.0151
   1.1183E+01   1.1455E+01   1.6100E-05  0.0151
   1.1455E+01   1.1733E+01   1.4503E-05  0.0157
   1.1733E+01   1.2019E+01   1.3622E-05  0.0160
   1.2019E+01   1.2311E+01   1.2996E-05  0.0162
   1.2311E+01   1.2611E+01   1.2353E-05  0.0164
   1.2611E+01   1.2918E+01   1.2092E-05  0.0164
   1.2918E+01   1.3232E+01   1.1475E-05  0.0166
   1.3232E+01   1.3554E+01   1.0981E-05  0.0168
   1.3554E+01   1.3884E+01   1.0205E-05  0.0172
   1.3884E+01   1.4222E+01   9.8081E-06  0.0174
   1.4222E+01   1.4568E+01   9.3233E-06  0.0176
   1.4568E+01   1.4922E+01   8.9541E-06  0.0177
   1.4922E+01   1.5285E+01   8.4373E-06  0.0181
   1.5285E+01   1.5657E+01   7.8949E-06  0.0185
   1.5657E+01   1.6038E+01   7.5146E-06  0.0187
   1.6038E+01   1.6428E+01   7.1585E-06  0.0189
   1.6428E+01   1.6828E+01   6.5954E-06  0.0195
   1.6828E+01   1.7237E+01   6.1668E-06  0.0199
   1.7237E+01   1.7657E+01   5.7353E-06  0.0204
   1.7657E+01   1.8086E+01   5.2580E-06  0.0210
   1.8086E+01   1.8526E+01   5.2136E-06  0.0209
   1.8526E+01   1.8977E+01   4.8529E-06  0.0214
   1.8977E+01   1.9439E+01   4.7214E-06  0.0214
   1.9439E+01   1.9912E+01   4.6452E-06  0.0213
   1.9912E+01   2.0396E+01   4.4192E-06  0.0216
   2.0396E+01   2.0893E+01   4.2780E-06  0.0217
   2.0893E+01   2.1401E+01   4.0190E-06  0.0221
   2.1401E+01   2.1922E+01   3.7987E-06  0.0225
   2.1922E+01   2.2455E+01   3.9447E-06  0.0218
   2.2455E+01   2.3001E+01   3.7485E-06  0.0221
   2.3001E+01   2.3561E+01   3.3932E-06  0.0229
   2.3561E+01   2.4134E+01   3.2062E-06  0.0233
   2.4134E+01   2.4721E+01   3.1369E-06  0.0233
   2.4721E+01   2.5323E+01   2.8163E-06  0.0243
   2.5323E+01   2.5939E+01   2.5303E-06  0.0253
   2.5939E+01   2.6570E+01   2.2262E-06  0.0267
   2.6570E+01   2.7217E+01   1.9490E-06  0.0282
   2.7217E+01   2.7879E+01   1.6838E-06  0.0299
   2.7879E+01   2.8557E+01   1.2384E-06  0.0345
   2.8557E+01   2.9252E+01   8.4051E-07  0.0414
   2.9252E+01   2.9964E+01   6.5615E-07  0.0463
   2.9964E+01   3.0693E+01   4.5676E-07  0.0548
   3.0693E+01   3.1440E+01   2.0086E-07  0.0816
   3.1440E+01   3.2205E+01   3.1375E-08  0.2041
   3.2205E+01   3.2988E+01   1.2762E-08  0.3162
   3.2988E+01   3.3791E+01   3.7377E-09  0.5774
   3.3791E+01   3.4613E+01   0.0000E+00  0.0000
   3.4613E+01   3.5455E+01   0.0000E+00  0.0000
   3.5455E+01   3.6318E+01   0.0000E+00  0.0000
   3.6318E+01   3.7201E+01   0.0000E+00  0.0000
   3.7201E+01   3.8106E+01   0.0000E+00  0.0000
   3.8106E+01   3.9034E+01   0.0000E+00  0.0000
   3.9034E+01   3.9983E+01   0.0000E+00  0.0000
   3.9983E+01   4.0956E+01   0.0000E+00  0.0000
   4.0956E+01   4.1953E+01   0.0000E+00  0.0000
   4.1953E+01   4.2973E+01   0.0000E+00  0.0000
   4.2973E+01   4.4019E+01   0.0000E+00  0.0000
   4.4019E+01   4.5090E+01   0.0000E+00  0.0000
   4.5090E+01   4.6187E+01   0.0000E+00  0.0000
   4.6187E+01   4.7311E+01   0.0000E+00  0.0000
   4.7311E+01   4.8462E+01   0.0000E+00  0.0000
   4.8462E+01   4.9641E+01   0.0000E+00  0.0000
   4.9641E+01   5.0849E+01   0.0000E+00  0.0000
   5.0849E+01   5.2086E+01   0.0000E+00  0.0000
   5.2086E+01   5.3353E+01   0.0000E+00  0.0000
   5.3353E+01   5.4651E+01   0.0000E+00  0.0000
   5.4651E+01   5.5981E+01   0.0000E+00  0.0000
   5.5981E+01   5.7343E+01   0.0000E+00  0.0000
   5.7343E+01   5.8738E+01   0.0000E+00  0.0000
   5.8738E+01   6.0168E+01   0.0000E+00  0.0000
   6.0168E+01   6.1632E+01   0.0000E+00  0.0000
   6.1632E+01   6.3131E+01   0.0000E+00  0.0000
   6.3131E+01   6.4667E+01   0.0000E+00  0.0000
   6.4667E+01   6.6240E+01   0.0000E+00  0.0000
   6.6240E+01   6.7852E+01   0.0000E+00  0.0000
   6.7852E+01   6.9503E+01   0.0000E+00  0.0000
   6.9503E+01   7.1194E+01   0.0000E+00  0.0000
   7.1194E+01   7.2926E+01   0.0000E+00  0.0000
   7.2926E+01   7.4701E+01   0.0000E+00  0.0000
   7.4701E+01   7.6518E+01   0.0000E+00  0.0000
   7.6518E+01   7.8380E+01   0.0000E+00  0.0000
   7.8380E+01   8.0287E+01   0.0000E+00  0.0000
   8.0287E+01   8.2240E+01   0.0000E+00  0.0000
   8.2240E+01   8.4241E+01   0.0000E+00  0.0000
   8.4241E+01   8.6291E+01   0.0000E+00  0.0000
   8.6291E+01   8.8391E+01   0.0000E+00  0.0000
   8.8391E+01   9.0541E+01   0.0000E+00  0.0000
   9.0541E+01   9.2744E+01   0.0000E+00  0.0000
   9.2744E+01   9.5001E+01   0.0000E+00  0.0000
   9.5001E+01   9.7312E+01   0.0000E+00  0.0000
   9.7312E+01   9.9680E+01   0.0000E+00  0.0000
   9.9680E+01   1.0211E+02   0.0000E+00  0.0000
   1.0211E+02   1.0459E+02   0.0000E+00  0.0000
   1.0459E+02   1.0713E+02   0.0000E+00  0.0000
   1.0713E+02   1.0974E+02   0.0000E+00  0.0000
   1.0974E+02   1.1241E+02   0.0000E+00  0.0000
   1.1241E+02   1.1515E+02   0.0000E+00  0.0000
   1.1515E+02   1.1795E+02   0.0000E+00  0.0000
   1.1795E+02   1.2082E+02   0.0000E+00  0.0000
   1.2082E+02   1.2376E+02   0.0000E+00  0.0000
   1.2376E+02   1.2677E+02   0.0000E+00  0.0000
   1.2677E+02   1.2985E+02   0.0000E+00  0.0000
   1.2985E+02   1.3301E+02   0.0000E+00  0.0000
   1.3301E+02   1.3625E+02   0.0000E+00  0.0000
   1.3625E+02   1.3956E+02   0.0000E+00  0.0000
   1.3956E+02   1.4296E+02   0.0000E+00  0.0000
   1.4296E+02   1.4644E+02   0.0000E+00  0.0000
   1.4644E+02   1.5000E+02   0.0000E+00  0.0000

#   sum over                 4.9295E-06
'no. =    1   reg = 111 - 211'
msuc: {\huge [t-cross] in region mesh}
msdr: {\it plotted by \ANGEL \version}
msdl: {\it calculated by \PHITS  3.26}
wt: s(0.7)
\vspace{-3}
  region surface crossing
  area  &=&   1.0000E+00 [cm^2]
e:
 
# Information for Restart Calculation
# This calculation was newly started
# istdev =  2 # 1:Batch variance, 2:History variance
# resc2  = 1.00000000000000000E+09 # Total source weight or Total source weight / maxcas
# resc3  = 1.00000000000000000E+09 # Total history number or Total batch number
# maxcas =   500000000 # History / Batch, only used for istdev=1
# bitrseed = 0001001110011001001001110000100100110111001111011100001000101100 # bit data of rseed
