[ T-Cross ]
    title = [t-cross] in region mesh
     mesh =  reg            # mesh type is region-wise
      reg =    1            # number of crossing regions
      non     r-from    r-to       area
      1       121       221        1.000000    
   e-type =    3            # e-mesh is log given by emin, emax and ne
     emin =  1.0000000E-02  # minimum value of e-mesh points
     emax =   150.0000      # maximum value of e-mesh points
#    edel =  2.4039514E-02  # mesh width of e-mesh points
       ne =    400          # number of e-mesh points
#    data = ( e(i), i = 1, ne + 1 )
#           1.00000E-02  1.02433E-02  1.04925E-02  1.07478E-02  1.10093E-02
#           1.12772E-02  1.15516E-02  1.18326E-02  1.21205E-02  1.24154E-02
#           1.27175E-02  1.30269E-02  1.33439E-02  1.36686E-02  1.40011E-02
#           1.43418E-02  1.46907E-02  1.50482E-02  1.54143E-02  1.57894E-02
#           1.61735E-02  1.65670E-02  1.69701E-02  1.73830E-02  1.78060E-02
#           1.82392E-02  1.86830E-02  1.91375E-02  1.96032E-02  2.00801E-02
#           2.05687E-02  2.10692E-02  2.15818E-02  2.21069E-02  2.26448E-02
#           2.31957E-02  2.37601E-02  2.43382E-02  2.49304E-02  2.55369E-02
#           2.61583E-02  2.67947E-02  2.74467E-02  2.81145E-02  2.87985E-02
#           2.94992E-02  3.02169E-02  3.09521E-02  3.17052E-02  3.24766E-02
#           3.32668E-02  3.40762E-02  3.49053E-02  3.57546E-02  3.66246E-02
#           3.75157E-02  3.84284E-02  3.93634E-02  4.03212E-02  4.13022E-02
#           4.23071E-02  4.33365E-02  4.43909E-02  4.54710E-02  4.65773E-02
#           4.77106E-02  4.88714E-02  5.00605E-02  5.12785E-02  5.25262E-02
#           5.38042E-02  5.51133E-02  5.64542E-02  5.78278E-02  5.92348E-02
#           6.06760E-02  6.21523E-02  6.36645E-02  6.52135E-02  6.68002E-02
#           6.84255E-02  7.00904E-02  7.17957E-02  7.35426E-02  7.53319E-02
#           7.71648E-02  7.90423E-02  8.09655E-02  8.29354E-02  8.49533E-02
#           8.70203E-02  8.91376E-02  9.13064E-02  9.35279E-02  9.58035E-02
#           9.81345E-02  1.00522E-01  1.02968E-01  1.05473E-01  1.08040E-01
#           1.10668E-01  1.13361E-01  1.16119E-01  1.18944E-01  1.21838E-01
#           1.24803E-01  1.27839E-01  1.30950E-01  1.34136E-01  1.37399E-01
#           1.40742E-01  1.44167E-01  1.47675E-01  1.51268E-01  1.54948E-01
#           1.58718E-01  1.62580E-01  1.66535E-01  1.70587E-01  1.74738E-01
#           1.78989E-01  1.83344E-01  1.87805E-01  1.92375E-01  1.97055E-01
#           2.01850E-01  2.06761E-01  2.11792E-01  2.16945E-01  2.22223E-01
#           2.27630E-01  2.33169E-01  2.38842E-01  2.44653E-01  2.50605E-01
#           2.56703E-01  2.62949E-01  2.69346E-01  2.75900E-01  2.82613E-01
#           2.89489E-01  2.96532E-01  3.03747E-01  3.11138E-01  3.18708E-01
#           3.26462E-01  3.34405E-01  3.42542E-01  3.50876E-01  3.59413E-01
#           3.68158E-01  3.77116E-01  3.86291E-01  3.95690E-01  4.05317E-01
#           4.15179E-01  4.25281E-01  4.35628E-01  4.46227E-01  4.57084E-01
#           4.68205E-01  4.79597E-01  4.91266E-01  5.03219E-01  5.15463E-01
#           5.28005E-01  5.40851E-01  5.54011E-01  5.67490E-01  5.81298E-01
#           5.95441E-01  6.09929E-01  6.24769E-01  6.39970E-01  6.55541E-01
#           6.71491E-01  6.87828E-01  7.04564E-01  7.21706E-01  7.39266E-01
#           7.57253E-01  7.75678E-01  7.94551E-01  8.13883E-01  8.33685E-01
#           8.53969E-01  8.74747E-01  8.96030E-01  9.17831E-01  9.40163E-01
#           9.63038E-01  9.86469E-01  1.01047E+00  1.03506E+00  1.06024E+00
#           1.08604E+00  1.11246E+00  1.13953E+00  1.16725E+00  1.19565E+00
#           1.22474E+00  1.25454E+00  1.28507E+00  1.31633E+00  1.34836E+00
#           1.38117E+00  1.41477E+00  1.44920E+00  1.48446E+00  1.52057E+00
#           1.55757E+00  1.59547E+00  1.63429E+00  1.67405E+00  1.71478E+00
#           1.75650E+00  1.79924E+00  1.84302E+00  1.88786E+00  1.93379E+00
#           1.98084E+00  2.02904E+00  2.07841E+00  2.12898E+00  2.18078E+00
#           2.23384E+00  2.28819E+00  2.34386E+00  2.40089E+00  2.45930E+00
#           2.51914E+00  2.58043E+00  2.64322E+00  2.70753E+00  2.77341E+00
#           2.84088E+00  2.91001E+00  2.98081E+00  3.05333E+00  3.12762E+00
#           3.20372E+00  3.28167E+00  3.36152E+00  3.44330E+00  3.52708E+00
#           3.61290E+00  3.70080E+00  3.79085E+00  3.88308E+00  3.97756E+00
#           4.07434E+00  4.17347E+00  4.27501E+00  4.37903E+00  4.48557E+00
#           4.59471E+00  4.70650E+00  4.82102E+00  4.93832E+00  5.05847E+00
#           5.18155E+00  5.30762E+00  5.43676E+00  5.56904E+00  5.70453E+00
#           5.84333E+00  5.98550E+00  6.13114E+00  6.28031E+00  6.43312E+00
#           6.58964E+00  6.74997E+00  6.91420E+00  7.08243E+00  7.25475E+00
#           7.43126E+00  7.61207E+00  7.79728E+00  7.98700E+00  8.18133E+00
#           8.38038E+00  8.58428E+00  8.79315E+00  9.00709E+00  9.22624E+00
#           9.45072E+00  9.68067E+00  9.91620E+00  1.01575E+01  1.04046E+01
#           1.06578E+01  1.09171E+01  1.11827E+01  1.14548E+01  1.17335E+01
#           1.20190E+01  1.23114E+01  1.26109E+01  1.29178E+01  1.32321E+01
#           1.35540E+01  1.38838E+01  1.42216E+01  1.45676E+01  1.49221E+01
#           1.52851E+01  1.56570E+01  1.60380E+01  1.64282E+01  1.68279E+01
#           1.72374E+01  1.76568E+01  1.80864E+01  1.85264E+01  1.89772E+01
#           1.94389E+01  1.99119E+01  2.03963E+01  2.08926E+01  2.14009E+01
#           2.19216E+01  2.24550E+01  2.30014E+01  2.35610E+01  2.41343E+01
#           2.47215E+01  2.53230E+01  2.59391E+01  2.65702E+01  2.72167E+01
#           2.78789E+01  2.85572E+01  2.92520E+01  2.99637E+01  3.06928E+01
#           3.14396E+01  3.22045E+01  3.29881E+01  3.37907E+01  3.46128E+01
#           3.54550E+01  3.63177E+01  3.72013E+01  3.81064E+01  3.90336E+01
#           3.99833E+01  4.09561E+01  4.19526E+01  4.29734E+01  4.40189E+01
#           4.50900E+01  4.61870E+01  4.73108E+01  4.84619E+01  4.96410E+01
#           5.08488E+01  5.20860E+01  5.33533E+01  5.46514E+01  5.59812E+01
#           5.73432E+01  5.87384E+01  6.01676E+01  6.16315E+01  6.31311E+01
#           6.46671E+01  6.62405E+01  6.78522E+01  6.95031E+01  7.11941E+01
#           7.29263E+01  7.47007E+01  7.65182E+01  7.83800E+01  8.02870E+01
#           8.22405E+01  8.42414E+01  8.62911E+01  8.83906E+01  9.05412E+01
#           9.27442E+01  9.50007E+01  9.73122E+01  9.96799E+01  1.02105E+02
#           1.04589E+02  1.07134E+02  1.09741E+02  1.12411E+02  1.15146E+02
#           1.17948E+02  1.20817E+02  1.23757E+02  1.26768E+02  1.29852E+02
#           1.33012E+02  1.36248E+02  1.39563E+02  1.42959E+02  1.46437E+02
#           1.50000E+02
     unit =    2            # unit is [1/cm^2/(MeV/n)/source]
     axis =  eng            # axis of output
     file = detector-22.out  # file name of output for the above axis
   output = f-curr          # surface crossing forward current spectrum
     part =  neutron  
# kf/name :  2112     
#    used :        main (  %)        temp (  %)       total (  %)
#  memory :         414 (  0)           0 (  0)         414 (  0)

#------------------------------------------------------------------------------
#newpage:
#   no. =    1   reg = 121 - 221

x: Energy [MeV/n]
y:  F-Curr [1/cm^2/(MeV/n)/source]         
p: xlog ylog afac(0.8) form(0.9)
h: n            x            y(neutron ),hh0l   n 
#  e-lower      e-upper      neutron     r.err 
   1.0000E-02   1.0243E-02   2.0139E-04  0.1429
   1.0243E-02   1.0493E-02   1.7253E-04  0.1525
   1.0493E-02   1.0748E-02   1.6452E-04  0.1543
   1.0748E-02   1.1009E-02   1.9503E-04  0.1400
   1.1009E-02   1.1277E-02   2.2108E-04  0.1298
   1.1277E-02   1.1552E-02   1.8223E-04  0.1414
   1.1552E-02   1.1833E-02   1.5709E-04  0.1503
   1.1833E-02   1.2121E-02   2.0146E-04  0.1313
   1.2121E-02   1.2415E-02   1.8650E-04  0.1348
   1.2415E-02   1.2718E-02   1.2965E-04  0.1595
   1.2718E-02   1.3027E-02   1.6644E-04  0.1390
   1.3027E-02   1.3344E-02   1.9246E-04  0.1280
   1.3344E-02   1.3669E-02   1.9712E-04  0.1250
   1.3669E-02   1.4001E-02   1.8101E-04  0.1287
   1.4001E-02   1.4342E-02   1.8494E-04  0.1260
   1.4342E-02   1.4691E-02   1.6048E-04  0.1336
   1.4691E-02   1.5048E-02   1.8228E-04  0.1238
   1.5048E-02   1.5414E-02   1.8299E-04  0.1222
   1.5414E-02   1.5789E-02   1.1999E-04  0.1491
   1.5789E-02   1.6174E-02   1.5920E-04  0.1277
   1.6174E-02   1.6567E-02   1.7534E-04  0.1204
   1.6567E-02   1.6970E-02   1.4637E-04  0.1302
   1.6970E-02   1.7383E-02   1.3078E-04  0.1361
   1.7383E-02   1.7806E-02   1.3950E-04  0.1302
   1.7806E-02   1.8239E-02   1.7573E-04  0.1145
   1.8239E-02   1.8683E-02   1.4050E-04  0.1264
   1.8683E-02   1.9138E-02   1.7379E-04  0.1125
   1.9138E-02   1.9603E-02   1.2241E-04  0.1325
   1.9603E-02   2.0080E-02   1.2789E-04  0.1280
   2.0080E-02   2.0569E-02   1.3304E-04  0.1240
   2.0569E-02   2.1069E-02   1.6385E-04  0.1104
   2.1069E-02   2.1582E-02   1.3460E-04  0.1204
   2.1582E-02   2.2107E-02   1.4093E-04  0.1162
   2.2107E-02   2.2645E-02   1.3758E-04  0.1162
   2.2645E-02   2.3196E-02   1.2550E-04  0.1201
   2.3196E-02   2.3760E-02   1.1960E-04  0.1215
   2.3760E-02   2.4338E-02   1.1010E-04  0.1250
   2.4338E-02   2.4930E-02   1.5198E-04  0.1054
   2.4930E-02   2.5537E-02   1.2694E-04  0.1140
   2.5537E-02   2.6158E-02   1.1749E-04  0.1170
   2.6158E-02   2.6795E-02   1.2570E-04  0.1118
   2.6795E-02   2.7447E-02   1.3681E-04  0.1058
   2.7447E-02   2.8114E-02   1.2579E-04  0.1091
   2.8114E-02   2.8799E-02   1.2061E-04  0.1099
   2.8799E-02   2.9499E-02   1.3558E-04  0.1026
   2.9499E-02   3.0217E-02   1.2400E-04  0.1060
   3.0217E-02   3.0952E-02   1.1425E-04  0.1091
   3.0952E-02   3.1705E-02   1.3013E-04  0.1010
   3.1705E-02   3.2477E-02   1.2489E-04  0.1017
   3.2477E-02   3.3267E-02   1.1137E-04  0.1066
   3.3267E-02   3.4076E-02   1.1984E-04  0.1015
   3.4076E-02   3.4905E-02   1.2338E-04  0.0988
   3.4905E-02   3.5755E-02   1.1539E-04  0.1010
   3.5755E-02   3.6625E-02   1.0364E-04  0.1052
   3.6625E-02   3.7516E-02   1.3859E-04  0.0899
   3.7516E-02   3.8428E-02   1.1737E-04  0.0963
   3.8428E-02   3.9363E-02   1.1137E-04  0.0979
   3.9363E-02   4.0321E-02   9.5709E-05  0.1042
   4.0321E-02   4.1302E-02   1.2028E-04  0.0921
   4.1302E-02   4.2307E-02   1.0051E-04  0.0995
   4.2307E-02   4.3337E-02   9.6330E-05  0.1004
   4.3337E-02   4.4391E-02   1.0148E-04  0.0967
   4.4391E-02   4.5471E-02   1.0972E-04  0.0918
   4.5471E-02   4.6577E-02   9.8975E-05  0.0955
   4.6577E-02   4.7711E-02   1.0236E-04  0.0928
   4.7711E-02   4.8871E-02   1.0596E-04  0.0902
   4.8871E-02   5.0061E-02   9.6011E-05  0.0935
   5.0061E-02   5.1279E-02   9.6879E-05  0.0921
   5.1279E-02   5.2526E-02   9.6983E-05  0.0909
   5.2526E-02   5.3804E-02   1.0094E-04  0.0880
   5.3804E-02   5.5113E-02   9.9305E-05  0.0877
   5.5113E-02   5.6454E-02   8.3523E-05  0.0945
   5.6454E-02   5.7828E-02   9.3187E-05  0.0884
   5.7828E-02   5.9235E-02   8.8842E-05  0.0894
   5.9235E-02   6.0676E-02   8.0834E-05  0.0925
   6.0676E-02   6.2152E-02   8.7469E-05  0.0880
   6.2152E-02   6.3665E-02   8.7584E-05  0.0868
   6.3665E-02   6.5214E-02   9.7482E-05  0.0814
   6.5214E-02   6.6800E-02   7.0691E-05  0.0944
   6.6800E-02   6.8426E-02   7.9475E-05  0.0879
   6.8426E-02   7.0090E-02   8.8597E-05  0.0823
   7.0090E-02   7.1796E-02   6.6262E-05  0.0941
   7.1796E-02   7.3543E-02   9.1594E-05  0.0791
   7.3543E-02   7.5332E-02   7.2464E-05  0.0877
   7.5332E-02   7.7165E-02   9.1188E-05  0.0773
   7.7165E-02   7.9042E-02   7.4302E-05  0.0846
   7.9042E-02   8.0965E-02   6.7852E-05  0.0871
   8.0965E-02   8.2935E-02   7.4188E-05  0.0825
   8.2935E-02   8.4953E-02   6.8522E-05  0.0850
   8.4953E-02   8.7020E-02   8.1590E-05  0.0769
   8.7020E-02   8.9138E-02   6.9163E-05  0.0825
   8.9138E-02   9.1306E-02   6.5935E-05  0.0836
   9.1306E-02   9.3528E-02   6.9546E-05  0.0804
   9.3528E-02   9.5804E-02   6.2266E-05  0.0839
   9.5804E-02   9.8134E-02   7.7212E-05  0.0744
   9.8134E-02   1.0052E-01   6.6871E-05  0.0790
   1.0052E-01   1.0297E-01   5.7562E-05  0.0841
   1.0297E-01   1.0547E-01   5.3610E-05  0.0862
   1.0547E-01   1.0804E-01   6.5737E-05  0.0769
   1.0804E-01   1.1067E-01   6.5491E-05  0.0762
   1.1067E-01   1.1336E-01   5.6882E-05  0.0806
   1.1336E-01   1.1612E-01   6.2542E-05  0.0761
   1.1612E-01   1.1894E-01   6.4065E-05  0.0743
   1.1894E-01   1.2184E-01   5.3559E-05  0.0803
   1.2184E-01   1.2480E-01   5.7908E-05  0.0762
   1.2480E-01   1.2784E-01   6.0326E-05  0.0738
   1.2784E-01   1.3095E-01   5.7227E-05  0.0750
   1.3095E-01   1.3414E-01   4.6295E-05  0.0823
   1.3414E-01   1.3740E-01   5.6168E-05  0.0737
   1.3740E-01   1.4074E-01   5.1096E-05  0.0764
   1.4074E-01   1.4417E-01   5.1834E-05  0.0750
   1.4417E-01   1.4767E-01   4.8371E-05  0.0767
   1.4767E-01   1.5127E-01   4.5421E-05  0.0782
   1.5127E-01   1.5495E-01   5.3431E-05  0.0712
   1.5495E-01   1.5872E-01   4.4068E-05  0.0776
   1.5872E-01   1.6258E-01   4.5351E-05  0.0754
   1.6258E-01   1.6654E-01   5.0851E-05  0.0705
   1.6654E-01   1.7059E-01   4.5322E-05  0.0737
   1.7059E-01   1.7474E-01   4.6702E-05  0.0717
   1.7474E-01   1.7899E-01   4.4998E-05  0.0722
   1.7899E-01   1.8334E-01   4.5925E-05  0.0706
   1.8334E-01   1.8781E-01   4.1094E-05  0.0738
   1.8781E-01   1.9237E-01   3.5736E-05  0.0782
   1.9237E-01   1.9706E-01   3.5933E-05  0.0771
   1.9706E-01   2.0185E-01   3.5908E-05  0.0762
   2.0185E-01   2.0676E-01   3.7466E-05  0.0736
   2.0676E-01   2.1179E-01   3.6340E-05  0.0739
   2.1179E-01   2.1694E-01   3.8458E-05  0.0709
   2.1694E-01   2.2222E-01   3.7230E-05  0.0713
   2.2222E-01   2.2763E-01   3.8353E-05  0.0694
   2.2763E-01   2.3317E-01   3.2861E-05  0.0740
   2.3317E-01   2.3884E-01   4.0091E-05  0.0663
   2.3884E-01   2.4465E-01   4.2873E-05  0.0633
   2.4465E-01   2.5061E-01   3.6332E-05  0.0679
   2.5061E-01   2.5670E-01   3.9041E-05  0.0647
   2.5670E-01   2.6295E-01   3.7625E-05  0.0652
   2.6295E-01   2.6935E-01   3.9257E-05  0.0631
   2.6935E-01   2.7590E-01   4.0640E-05  0.0612
   2.7590E-01   2.8261E-01   3.8386E-05  0.0622
   2.8261E-01   2.8949E-01   3.8709E-05  0.0612
   2.8949E-01   2.9653E-01   4.3838E-05  0.0568
   2.9653E-01   3.0375E-01   3.9958E-05  0.0588
   3.0375E-01   3.1114E-01   4.4380E-05  0.0552
   3.1114E-01   3.1871E-01   4.1870E-05  0.0561
   3.1871E-01   3.2646E-01   4.2852E-05  0.0548
   3.2646E-01   3.3441E-01   3.9994E-05  0.0561
   3.3441E-01   3.4254E-01   3.6617E-05  0.0579
   3.4254E-01   3.5088E-01   3.9128E-05  0.0553
   3.5088E-01   3.5941E-01   3.6085E-05  0.0569
   3.5941E-01   3.6816E-01   3.9795E-05  0.0536
   3.6816E-01   3.7712E-01   3.9278E-05  0.0533
   3.7712E-01   3.8629E-01   3.7486E-05  0.0538
   3.8629E-01   3.9569E-01   4.0431E-05  0.0513
   3.9569E-01   4.0532E-01   3.9935E-05  0.0509
   4.0532E-01   4.1518E-01   3.6924E-05  0.0522
   4.1518E-01   4.2528E-01   3.8906E-05  0.0503
   4.2528E-01   4.3563E-01   3.8834E-05  0.0498
   4.3563E-01   4.4623E-01   3.5978E-05  0.0511
   4.4623E-01   4.5708E-01   3.5960E-05  0.0505
   4.5708E-01   4.6821E-01   3.6859E-05  0.0493
   4.6821E-01   4.7960E-01   4.0680E-05  0.0464
   4.7960E-01   4.9127E-01   3.7139E-05  0.0479
   4.9127E-01   5.0322E-01   4.0440E-05  0.0454
   5.0322E-01   5.1546E-01   3.8431E-05  0.0460
   5.1546E-01   5.2800E-01   3.6968E-05  0.0464
   5.2800E-01   5.4085E-01   3.6929E-05  0.0458
   5.4085E-01   5.5401E-01   3.5694E-05  0.0460
   5.5401E-01   5.6749E-01   3.6250E-05  0.0452
   5.6749E-01   5.8130E-01   3.8274E-05  0.0434
   5.8130E-01   5.9544E-01   3.6682E-05  0.0438
   5.9544E-01   6.0993E-01   3.8053E-05  0.0425
   6.0993E-01   6.2477E-01   4.0403E-05  0.0408
   6.2477E-01   6.3997E-01   3.7383E-05  0.0419
   6.3997E-01   6.5554E-01   3.6081E-05  0.0421
   6.5554E-01   6.7149E-01   3.5398E-05  0.0420
   6.7149E-01   6.8783E-01   3.4893E-05  0.0418
   6.8783E-01   7.0456E-01   3.3250E-05  0.0423
   7.0456E-01   7.2171E-01   3.2489E-05  0.0423
   7.2171E-01   7.3927E-01   3.2125E-05  0.0420
   7.3927E-01   7.5725E-01   3.6052E-05  0.0392
   7.5725E-01   7.7568E-01   3.2443E-05  0.0408
   7.7568E-01   7.9455E-01   3.3960E-05  0.0394
   7.9455E-01   8.1388E-01   3.3957E-05  0.0390
   8.1388E-01   8.3368E-01   3.1365E-05  0.0401
   8.3368E-01   8.5397E-01   3.2113E-05  0.0391
   8.5397E-01   8.7475E-01   3.2126E-05  0.0386
   8.7475E-01   8.9603E-01   3.3235E-05  0.0375
   8.9603E-01   9.1783E-01   3.0800E-05  0.0385
   9.1783E-01   9.4016E-01   2.9771E-05  0.0387
   9.4016E-01   9.6304E-01   3.1200E-05  0.0374
   9.6304E-01   9.8647E-01   2.7496E-05  0.0393
   9.8647E-01   1.0105E+00   2.9613E-05  0.0374
   1.0105E+00   1.0351E+00   2.5793E-05  0.0395
   1.0351E+00   1.0602E+00   2.5850E-05  0.0391
   1.0602E+00   1.0860E+00   2.4757E-05  0.0395
   1.0860E+00   1.1125E+00   2.4454E-05  0.0392
   1.1125E+00   1.1395E+00   2.3496E-05  0.0395
   1.1395E+00   1.1673E+00   2.2751E-05  0.0397
   1.1673E+00   1.1957E+00   2.2379E-05  0.0396
   1.1957E+00   1.2247E+00   2.0812E-05  0.0405
   1.2247E+00   1.2545E+00   2.1611E-05  0.0393
   1.2545E+00   1.2851E+00   2.1117E-05  0.0393
   1.2851E+00   1.3163E+00   1.9725E-05  0.0401
   1.3163E+00   1.3484E+00   2.0475E-05  0.0389
   1.3484E+00   1.3812E+00   1.9095E-05  0.0399
   1.3812E+00   1.4148E+00   1.9594E-05  0.0389
   1.4148E+00   1.4492E+00   1.8719E-05  0.0393
   1.4492E+00   1.4845E+00   1.7736E-05  0.0399
   1.4845E+00   1.5206E+00   1.7062E-05  0.0402
   1.5206E+00   1.5576E+00   1.7071E-05  0.0397
   1.5576E+00   1.5955E+00   1.6968E-05  0.0393
   1.5955E+00   1.6343E+00   1.6385E-05  0.0395
   1.6343E+00   1.6741E+00   1.8086E-05  0.0372
   1.6741E+00   1.7148E+00   1.7176E-05  0.0377
   1.7148E+00   1.7565E+00   1.6155E-05  0.0384
   1.7565E+00   1.7992E+00   1.5583E-05  0.0387
   1.7992E+00   1.8430E+00   1.5188E-05  0.0387
   1.8430E+00   1.8879E+00   1.4536E-05  0.0390
   1.8879E+00   1.9338E+00   1.4571E-05  0.0385
   1.9338E+00   1.9808E+00   1.3359E-05  0.0397
   1.9808E+00   2.0290E+00   1.3710E-05  0.0387
   2.0290E+00   2.0784E+00   1.3838E-05  0.0381
   2.0784E+00   2.1290E+00   1.4730E-05  0.0366
   2.1290E+00   2.1808E+00   1.3038E-05  0.0384
   2.1808E+00   2.2338E+00   1.2973E-05  0.0380
   2.2338E+00   2.2882E+00   1.1577E-05  0.0397
   2.2882E+00   2.3439E+00   1.2919E-05  0.0372
   2.3439E+00   2.4009E+00   1.1867E-05  0.0383
   2.4009E+00   2.4593E+00   1.2876E-05  0.0364
   2.4593E+00   2.5191E+00   1.1858E-05  0.0374
   2.5191E+00   2.5804E+00   1.0930E-05  0.0385
   2.5804E+00   2.6432E+00   1.1475E-05  0.0371
   2.6432E+00   2.7075E+00   1.1075E-05  0.0373
   2.7075E+00   2.7734E+00   1.0857E-05  0.0373
   2.7734E+00   2.8409E+00   9.9893E-06  0.0384
   2.8409E+00   2.9100E+00   9.2682E-06  0.0394
   2.9100E+00   2.9808E+00   8.1676E-06  0.0414
   2.9808E+00   3.0533E+00   9.0120E-06  0.0390
   3.0533E+00   3.1276E+00   8.6141E-06  0.0394
   3.1276E+00   3.2037E+00   8.1369E-06  0.0400
   3.2037E+00   3.2817E+00   7.3625E-06  0.0417
   3.2817E+00   3.3615E+00   7.8152E-06  0.0399
   3.3615E+00   3.4433E+00   7.1023E-06  0.0414
   3.4433E+00   3.5271E+00   7.5326E-06  0.0397
   3.5271E+00   3.6129E+00   6.8026E-06  0.0413
   3.6129E+00   3.7008E+00   6.3264E-06  0.0423
   3.7008E+00   3.7908E+00   5.9036E-06  0.0433
   3.7908E+00   3.8831E+00   5.8685E-06  0.0429
   3.8831E+00   3.9776E+00   5.7731E-06  0.0427
   3.9776E+00   4.0743E+00   5.8164E-06  0.0420
   4.0743E+00   4.1735E+00   5.5017E-06  0.0426
   4.1735E+00   4.2750E+00   5.7229E-06  0.0414
   4.2750E+00   4.3790E+00   5.1612E-06  0.0431
   4.3790E+00   4.4856E+00   4.9646E-06  0.0434
   4.4856E+00   4.5947E+00   4.9544E-06  0.0429
   4.5947E+00   4.7065E+00   4.7898E-06  0.0431
   4.7065E+00   4.8210E+00   4.5633E-06  0.0437
   4.8210E+00   4.9383E+00   4.1192E-06  0.0453
   4.9383E+00   5.0585E+00   3.9583E-06  0.0457
   5.0585E+00   5.1815E+00   3.7387E-06  0.0466
   5.1815E+00   5.3076E+00   3.5696E-06  0.0471
   5.3076E+00   5.4368E+00   3.2188E-06  0.0490
   5.4368E+00   5.5690E+00   3.0985E-06  0.0492
   5.5690E+00   5.7045E+00   2.9532E-06  0.0499
   5.7045E+00   5.8433E+00   2.8126E-06  0.0505
   5.8433E+00   5.9855E+00   2.8884E-06  0.0493
   5.9855E+00   6.1311E+00   2.3590E-06  0.0538
   6.1311E+00   6.2803E+00   2.4700E-06  0.0521
   6.2803E+00   6.4331E+00   2.6059E-06  0.0500
   6.4331E+00   6.5896E+00   2.3099E-06  0.0525
   6.5896E+00   6.7500E+00   2.2932E-06  0.0521
   6.7500E+00   6.9142E+00   2.0363E-06  0.0546
   6.9142E+00   7.0824E+00   1.7391E-06  0.0584
   7.0824E+00   7.2548E+00   1.9045E-06  0.0552
   7.2548E+00   7.4313E+00   1.7858E-06  0.0562
   7.4313E+00   7.6121E+00   1.6732E-06  0.0574
   7.6121E+00   7.7973E+00   1.7259E-06  0.0559
   7.7973E+00   7.9870E+00   1.4838E-06  0.0596
   7.9870E+00   8.1813E+00   1.5947E-06  0.0568
   8.1813E+00   8.3804E+00   1.4677E-06  0.0585
   8.3804E+00   8.5843E+00   1.2514E-06  0.0626
   8.5843E+00   8.7931E+00   1.2001E-06  0.0631
   8.7931E+00   9.0071E+00   1.2334E-06  0.0615
   9.0071E+00   9.2262E+00   1.1012E-06  0.0643
   9.2262E+00   9.4507E+00   1.1822E-06  0.0613
   9.4507E+00   9.6807E+00   9.5241E-07  0.0676
   9.6807E+00   9.9162E+00   9.4764E-07  0.0669
   9.9162E+00   1.0157E+01   1.0010E-06  0.0643
   1.0157E+01   1.0405E+01   8.4163E-07  0.0693
   1.0405E+01   1.0658E+01   1.0053E-06  0.0627
   1.0658E+01   1.0917E+01   8.6824E-07  0.0666
   1.0917E+01   1.1183E+01   8.7719E-07  0.0655
   1.1183E+01   1.1455E+01   8.5386E-07  0.0656
   1.1455E+01   1.1733E+01   8.4509E-07  0.0651
   1.1733E+01   1.2019E+01   7.3034E-07  0.0692
   1.2019E+01   1.2311E+01   7.7625E-07  0.0664
   1.2311E+01   1.2611E+01   5.7086E-07  0.0765
   1.2611E+01   1.2918E+01   5.9641E-07  0.0739
   1.2918E+01   1.3232E+01   6.0342E-07  0.0725
   1.3232E+01   1.3554E+01   5.6531E-07  0.0741
   1.3554E+01   1.3884E+01   4.9427E-07  0.0783
   1.3884E+01   1.4222E+01   4.1740E-07  0.0842
   1.4222E+01   1.4568E+01   4.0749E-07  0.0842
   1.4568E+01   1.4922E+01   3.5267E-07  0.0894
   1.4922E+01   1.5285E+01   3.4980E-07  0.0887
   1.5285E+01   1.5657E+01   3.1460E-07  0.0925
   1.5657E+01   1.6038E+01   2.9925E-07  0.0937
   1.6038E+01   1.6428E+01   2.9215E-07  0.0937
   1.6428E+01   1.6828E+01   2.1766E-07  0.1072
   1.6828E+01   1.7237E+01   2.2958E-07  0.1031
   1.7237E+01   1.7657E+01   1.9552E-07  0.1104
   1.7657E+01   1.8086E+01   2.0251E-07  0.1072
   1.8086E+01   1.8526E+01   1.8180E-07  0.1118
   1.8526E+01   1.8977E+01   1.1092E-07  0.1414
   1.8977E+01   1.9439E+01   1.0211E-07  0.1454
   1.9439E+01   1.9912E+01   6.7658E-08  0.1768
   1.9912E+01   2.0396E+01   2.2705E-08  0.3015
   2.0396E+01   2.0893E+01   2.8211E-08  0.2673
   2.0893E+01   2.1401E+01   7.8688E-09  0.5000
   2.1401E+01   2.1922E+01   3.8410E-09  0.7071
   2.1922E+01   2.2455E+01   3.7497E-09  0.7071
   2.2455E+01   2.3001E+01   5.4910E-09  0.5774
   2.3001E+01   2.3561E+01   1.7869E-09  1.0000
   2.3561E+01   2.4134E+01   0.0000E+00  0.0000
   2.4134E+01   2.4721E+01   0.0000E+00  0.0000
   2.4721E+01   2.5323E+01   0.0000E+00  0.0000
   2.5323E+01   2.5939E+01   0.0000E+00  0.0000
   2.5939E+01   2.6570E+01   0.0000E+00  0.0000
   2.6570E+01   2.7217E+01   1.5469E-09  1.0000
   2.7217E+01   2.7879E+01   0.0000E+00  0.0000
   2.7879E+01   2.8557E+01   0.0000E+00  0.0000
   2.8557E+01   2.9252E+01   0.0000E+00  0.0000
   2.9252E+01   2.9964E+01   0.0000E+00  0.0000
   2.9964E+01   3.0693E+01   0.0000E+00  0.0000
   3.0693E+01   3.1440E+01   0.0000E+00  0.0000
   3.1440E+01   3.2205E+01   0.0000E+00  0.0000
   3.2205E+01   3.2988E+01   0.0000E+00  0.0000
   3.2988E+01   3.3791E+01   0.0000E+00  0.0000
   3.3791E+01   3.4613E+01   0.0000E+00  0.0000
   3.4613E+01   3.5455E+01   0.0000E+00  0.0000
   3.5455E+01   3.6318E+01   0.0000E+00  0.0000
   3.6318E+01   3.7201E+01   0.0000E+00  0.0000
   3.7201E+01   3.8106E+01   0.0000E+00  0.0000
   3.8106E+01   3.9034E+01   0.0000E+00  0.0000
   3.9034E+01   3.9983E+01   0.0000E+00  0.0000
   3.9983E+01   4.0956E+01   0.0000E+00  0.0000
   4.0956E+01   4.1953E+01   0.0000E+00  0.0000
   4.1953E+01   4.2973E+01   0.0000E+00  0.0000
   4.2973E+01   4.4019E+01   0.0000E+00  0.0000
   4.4019E+01   4.5090E+01   0.0000E+00  0.0000
   4.5090E+01   4.6187E+01   0.0000E+00  0.0000
   4.6187E+01   4.7311E+01   0.0000E+00  0.0000
   4.7311E+01   4.8462E+01   0.0000E+00  0.0000
   4.8462E+01   4.9641E+01   0.0000E+00  0.0000
   4.9641E+01   5.0849E+01   0.0000E+00  0.0000
   5.0849E+01   5.2086E+01   0.0000E+00  0.0000
   5.2086E+01   5.3353E+01   0.0000E+00  0.0000
   5.3353E+01   5.4651E+01   0.0000E+00  0.0000
   5.4651E+01   5.5981E+01   0.0000E+00  0.0000
   5.5981E+01   5.7343E+01   0.0000E+00  0.0000
   5.7343E+01   5.8738E+01   0.0000E+00  0.0000
   5.8738E+01   6.0168E+01   0.0000E+00  0.0000
   6.0168E+01   6.1632E+01   0.0000E+00  0.0000
   6.1632E+01   6.3131E+01   0.0000E+00  0.0000
   6.3131E+01   6.4667E+01   0.0000E+00  0.0000
   6.4667E+01   6.6240E+01   0.0000E+00  0.0000
   6.6240E+01   6.7852E+01   0.0000E+00  0.0000
   6.7852E+01   6.9503E+01   0.0000E+00  0.0000
   6.9503E+01   7.1194E+01   0.0000E+00  0.0000
   7.1194E+01   7.2926E+01   0.0000E+00  0.0000
   7.2926E+01   7.4701E+01   0.0000E+00  0.0000
   7.4701E+01   7.6518E+01   0.0000E+00  0.0000
   7.6518E+01   7.8380E+01   0.0000E+00  0.0000
   7.8380E+01   8.0287E+01   0.0000E+00  0.0000
   8.0287E+01   8.2240E+01   0.0000E+00  0.0000
   8.2240E+01   8.4241E+01   0.0000E+00  0.0000
   8.4241E+01   8.6291E+01   0.0000E+00  0.0000
   8.6291E+01   8.8391E+01   0.0000E+00  0.0000
   8.8391E+01   9.0541E+01   0.0000E+00  0.0000
   9.0541E+01   9.2744E+01   0.0000E+00  0.0000
   9.2744E+01   9.5001E+01   0.0000E+00  0.0000
   9.5001E+01   9.7312E+01   0.0000E+00  0.0000
   9.7312E+01   9.9680E+01   0.0000E+00  0.0000
   9.9680E+01   1.0211E+02   0.0000E+00  0.0000
   1.0211E+02   1.0459E+02   0.0000E+00  0.0000
   1.0459E+02   1.0713E+02   0.0000E+00  0.0000
   1.0713E+02   1.0974E+02   0.0000E+00  0.0000
   1.0974E+02   1.1241E+02   0.0000E+00  0.0000
   1.1241E+02   1.1515E+02   0.0000E+00  0.0000
   1.1515E+02   1.1795E+02   0.0000E+00  0.0000
   1.1795E+02   1.2082E+02   0.0000E+00  0.0000
   1.2082E+02   1.2376E+02   0.0000E+00  0.0000
   1.2376E+02   1.2677E+02   0.0000E+00  0.0000
   1.2677E+02   1.2985E+02   0.0000E+00  0.0000
   1.2985E+02   1.3301E+02   0.0000E+00  0.0000
   1.3301E+02   1.3625E+02   0.0000E+00  0.0000
   1.3625E+02   1.3956E+02   0.0000E+00  0.0000
   1.3956E+02   1.4296E+02   0.0000E+00  0.0000
   1.4296E+02   1.4644E+02   0.0000E+00  0.0000
   1.4644E+02   1.5000E+02   0.0000E+00  0.0000

#   sum over                 6.5898E-07
'no. =    1   reg = 121 - 221'
msuc: {\huge [t-cross] in region mesh}
msdr: {\it plotted by \ANGEL \version}
msdl: {\it calculated by \PHITS  3.26}
wt: s(0.7)
\vspace{-3}
  region surface crossing
  area  &=&   1.0000E+00 [cm^2]
e:
 
# Information for Restart Calculation
# This calculation was newly started
# istdev =  2 # 1:Batch variance, 2:History variance
# resc2  = 1.00000000000000000E+09 # Total source weight or Total source weight / maxcas
# resc3  = 1.00000000000000000E+09 # Total history number or Total batch number
# maxcas =   500000000 # History / Batch, only used for istdev=1
# bitrseed = 0001001110011001001001110000100100110111001111011100001000101100 # bit data of rseed
