[ T-Cross ]
    title = [t-cross] in region mesh
     mesh =  reg            # mesh type is region-wise
      reg =    1            # number of crossing regions
      non     r-from    r-to       area
      1       126       226        1.000000    
   e-type =    3            # e-mesh is log given by emin, emax and ne
     emin =  1.0000000E-02  # minimum value of e-mesh points
     emax =   150.0000      # maximum value of e-mesh points
#    edel =  2.4039514E-02  # mesh width of e-mesh points
       ne =    400          # number of e-mesh points
#    data = ( e(i), i = 1, ne + 1 )
#           1.00000E-02  1.02433E-02  1.04925E-02  1.07478E-02  1.10093E-02
#           1.12772E-02  1.15516E-02  1.18326E-02  1.21205E-02  1.24154E-02
#           1.27175E-02  1.30269E-02  1.33439E-02  1.36686E-02  1.40011E-02
#           1.43418E-02  1.46907E-02  1.50482E-02  1.54143E-02  1.57894E-02
#           1.61735E-02  1.65670E-02  1.69701E-02  1.73830E-02  1.78060E-02
#           1.82392E-02  1.86830E-02  1.91375E-02  1.96032E-02  2.00801E-02
#           2.05687E-02  2.10692E-02  2.15818E-02  2.21069E-02  2.26448E-02
#           2.31957E-02  2.37601E-02  2.43382E-02  2.49304E-02  2.55369E-02
#           2.61583E-02  2.67947E-02  2.74467E-02  2.81145E-02  2.87985E-02
#           2.94992E-02  3.02169E-02  3.09521E-02  3.17052E-02  3.24766E-02
#           3.32668E-02  3.40762E-02  3.49053E-02  3.57546E-02  3.66246E-02
#           3.75157E-02  3.84284E-02  3.93634E-02  4.03212E-02  4.13022E-02
#           4.23071E-02  4.33365E-02  4.43909E-02  4.54710E-02  4.65773E-02
#           4.77106E-02  4.88714E-02  5.00605E-02  5.12785E-02  5.25262E-02
#           5.38042E-02  5.51133E-02  5.64542E-02  5.78278E-02  5.92348E-02
#           6.06760E-02  6.21523E-02  6.36645E-02  6.52135E-02  6.68002E-02
#           6.84255E-02  7.00904E-02  7.17957E-02  7.35426E-02  7.53319E-02
#           7.71648E-02  7.90423E-02  8.09655E-02  8.29354E-02  8.49533E-02
#           8.70203E-02  8.91376E-02  9.13064E-02  9.35279E-02  9.58035E-02
#           9.81345E-02  1.00522E-01  1.02968E-01  1.05473E-01  1.08040E-01
#           1.10668E-01  1.13361E-01  1.16119E-01  1.18944E-01  1.21838E-01
#           1.24803E-01  1.27839E-01  1.30950E-01  1.34136E-01  1.37399E-01
#           1.40742E-01  1.44167E-01  1.47675E-01  1.51268E-01  1.54948E-01
#           1.58718E-01  1.62580E-01  1.66535E-01  1.70587E-01  1.74738E-01
#           1.78989E-01  1.83344E-01  1.87805E-01  1.92375E-01  1.97055E-01
#           2.01850E-01  2.06761E-01  2.11792E-01  2.16945E-01  2.22223E-01
#           2.27630E-01  2.33169E-01  2.38842E-01  2.44653E-01  2.50605E-01
#           2.56703E-01  2.62949E-01  2.69346E-01  2.75900E-01  2.82613E-01
#           2.89489E-01  2.96532E-01  3.03747E-01  3.11138E-01  3.18708E-01
#           3.26462E-01  3.34405E-01  3.42542E-01  3.50876E-01  3.59413E-01
#           3.68158E-01  3.77116E-01  3.86291E-01  3.95690E-01  4.05317E-01
#           4.15179E-01  4.25281E-01  4.35628E-01  4.46227E-01  4.57084E-01
#           4.68205E-01  4.79597E-01  4.91266E-01  5.03219E-01  5.15463E-01
#           5.28005E-01  5.40851E-01  5.54011E-01  5.67490E-01  5.81298E-01
#           5.95441E-01  6.09929E-01  6.24769E-01  6.39970E-01  6.55541E-01
#           6.71491E-01  6.87828E-01  7.04564E-01  7.21706E-01  7.39266E-01
#           7.57253E-01  7.75678E-01  7.94551E-01  8.13883E-01  8.33685E-01
#           8.53969E-01  8.74747E-01  8.96030E-01  9.17831E-01  9.40163E-01
#           9.63038E-01  9.86469E-01  1.01047E+00  1.03506E+00  1.06024E+00
#           1.08604E+00  1.11246E+00  1.13953E+00  1.16725E+00  1.19565E+00
#           1.22474E+00  1.25454E+00  1.28507E+00  1.31633E+00  1.34836E+00
#           1.38117E+00  1.41477E+00  1.44920E+00  1.48446E+00  1.52057E+00
#           1.55757E+00  1.59547E+00  1.63429E+00  1.67405E+00  1.71478E+00
#           1.75650E+00  1.79924E+00  1.84302E+00  1.88786E+00  1.93379E+00
#           1.98084E+00  2.02904E+00  2.07841E+00  2.12898E+00  2.18078E+00
#           2.23384E+00  2.28819E+00  2.34386E+00  2.40089E+00  2.45930E+00
#           2.51914E+00  2.58043E+00  2.64322E+00  2.70753E+00  2.77341E+00
#           2.84088E+00  2.91001E+00  2.98081E+00  3.05333E+00  3.12762E+00
#           3.20372E+00  3.28167E+00  3.36152E+00  3.44330E+00  3.52708E+00
#           3.61290E+00  3.70080E+00  3.79085E+00  3.88308E+00  3.97756E+00
#           4.07434E+00  4.17347E+00  4.27501E+00  4.37903E+00  4.48557E+00
#           4.59471E+00  4.70650E+00  4.82102E+00  4.93832E+00  5.05847E+00
#           5.18155E+00  5.30762E+00  5.43676E+00  5.56904E+00  5.70453E+00
#           5.84333E+00  5.98550E+00  6.13114E+00  6.28031E+00  6.43312E+00
#           6.58964E+00  6.74997E+00  6.91420E+00  7.08243E+00  7.25475E+00
#           7.43126E+00  7.61207E+00  7.79728E+00  7.98700E+00  8.18133E+00
#           8.38038E+00  8.58428E+00  8.79315E+00  9.00709E+00  9.22624E+00
#           9.45072E+00  9.68067E+00  9.91620E+00  1.01575E+01  1.04046E+01
#           1.06578E+01  1.09171E+01  1.11827E+01  1.14548E+01  1.17335E+01
#           1.20190E+01  1.23114E+01  1.26109E+01  1.29178E+01  1.32321E+01
#           1.35540E+01  1.38838E+01  1.42216E+01  1.45676E+01  1.49221E+01
#           1.52851E+01  1.56570E+01  1.60380E+01  1.64282E+01  1.68279E+01
#           1.72374E+01  1.76568E+01  1.80864E+01  1.85264E+01  1.89772E+01
#           1.94389E+01  1.99119E+01  2.03963E+01  2.08926E+01  2.14009E+01
#           2.19216E+01  2.24550E+01  2.30014E+01  2.35610E+01  2.41343E+01
#           2.47215E+01  2.53230E+01  2.59391E+01  2.65702E+01  2.72167E+01
#           2.78789E+01  2.85572E+01  2.92520E+01  2.99637E+01  3.06928E+01
#           3.14396E+01  3.22045E+01  3.29881E+01  3.37907E+01  3.46128E+01
#           3.54550E+01  3.63177E+01  3.72013E+01  3.81064E+01  3.90336E+01
#           3.99833E+01  4.09561E+01  4.19526E+01  4.29734E+01  4.40189E+01
#           4.50900E+01  4.61870E+01  4.73108E+01  4.84619E+01  4.96410E+01
#           5.08488E+01  5.20860E+01  5.33533E+01  5.46514E+01  5.59812E+01
#           5.73432E+01  5.87384E+01  6.01676E+01  6.16315E+01  6.31311E+01
#           6.46671E+01  6.62405E+01  6.78522E+01  6.95031E+01  7.11941E+01
#           7.29263E+01  7.47007E+01  7.65182E+01  7.83800E+01  8.02870E+01
#           8.22405E+01  8.42414E+01  8.62911E+01  8.83906E+01  9.05412E+01
#           9.27442E+01  9.50007E+01  9.73122E+01  9.96799E+01  1.02105E+02
#           1.04589E+02  1.07134E+02  1.09741E+02  1.12411E+02  1.15146E+02
#           1.17948E+02  1.20817E+02  1.23757E+02  1.26768E+02  1.29852E+02
#           1.33012E+02  1.36248E+02  1.39563E+02  1.42959E+02  1.46437E+02
#           1.50000E+02
     unit =    2            # unit is [1/cm^2/(MeV/n)/source]
     axis =  eng            # axis of output
     file = detector-27.out  # file name of output for the above axis
   output = f-curr          # surface crossing forward current spectrum
     part =  neutron  
# kf/name :  2112     
#    used :        main (  %)        temp (  %)       total (  %)
#  memory :         414 (  0)           0 (  0)         414 (  0)

#------------------------------------------------------------------------------
#newpage:
#   no. =    1   reg = 126 - 226

x: Energy [MeV/n]
y:  F-Curr [1/cm^2/(MeV/n)/source]         
p: xlog ylog afac(0.8) form(0.9)
h: n            x            y(neutron ),hh0l   n 
#  e-lower      e-upper      neutron     r.err 
   1.0000E-02   1.0243E-02   5.7540E-05  0.3780
   1.0243E-02   1.0493E-02   7.2223E-05  0.3333
   1.0493E-02   1.0748E-02   9.4010E-05  0.2887
   1.0748E-02   1.1009E-02   4.2065E-05  0.4166
   1.1009E-02   1.1277E-02   6.7198E-05  0.3333
   1.1277E-02   1.1552E-02   8.7469E-05  0.2887
   1.1552E-02   1.1833E-02   5.9184E-05  0.3412
   1.1833E-02   1.2121E-02   4.1682E-05  0.4082
   1.2121E-02   1.2415E-02   6.8843E-05  0.3119
   1.2415E-02   1.2718E-02   7.2829E-05  0.3015
   1.2718E-02   1.3027E-02   5.1708E-05  0.3536
   1.3027E-02   1.3344E-02   5.6790E-05  0.3333
   1.3344E-02   1.3669E-02   2.4641E-05  0.5000
   1.3669E-02   1.4001E-02   4.2097E-05  0.3780
   1.4001E-02   1.4342E-02   5.2839E-05  0.3333
   1.4342E-02   1.4691E-02   5.1584E-05  0.3333
   1.4691E-02   1.5048E-02   6.7145E-05  0.2887
   1.5048E-02   1.5414E-02   3.8237E-05  0.3780
   1.5414E-02   1.5789E-02   3.8083E-05  0.3710
   1.5789E-02   1.6174E-02   5.7267E-05  0.3015
   1.6174E-02   1.6567E-02   6.0989E-05  0.2887
   1.6567E-02   1.6970E-02   8.5371E-05  0.2399
   1.6970E-02   1.7383E-02   2.9698E-05  0.4001
   1.7383E-02   1.7806E-02   7.0932E-05  0.2582
   1.7806E-02   1.8239E-02   4.6165E-05  0.3162
   1.8239E-02   1.8683E-02   4.5068E-05  0.3162
   1.8683E-02   1.9138E-02   5.4997E-05  0.2800
   1.9138E-02   1.9603E-02   4.2952E-05  0.3162
   1.9603E-02   2.0080E-02   4.1932E-05  0.3162
   2.0080E-02   2.0569E-02   5.3217E-05  0.2774
   2.0569E-02   2.1069E-02   5.5949E-05  0.2673
   2.1069E-02   2.1582E-02   2.1458E-05  0.4166
   2.1582E-02   2.2107E-02   4.5705E-05  0.2887
   2.2107E-02   2.2645E-02   4.0901E-05  0.3015
   2.2645E-02   2.3196E-02   5.0820E-05  0.2673
   2.3196E-02   2.3760E-02   1.1209E-05  0.5500
   2.3760E-02   2.4338E-02   2.4217E-05  0.3780
   2.4338E-02   2.4930E-02   3.7152E-05  0.3015
   2.4930E-02   2.5537E-02   4.3365E-05  0.2744
   2.5537E-02   2.6158E-02   6.1159E-05  0.2294
   2.6158E-02   2.6795E-02   2.8282E-05  0.3333
   2.6795E-02   2.7447E-02   3.0678E-05  0.3162
   2.7447E-02   2.8114E-02   6.5888E-05  0.2132
   2.8114E-02   2.8799E-02   3.2162E-05  0.3015
   2.8799E-02   2.9499E-02   5.1378E-05  0.2357
   2.9499E-02   3.0217E-02   4.4584E-05  0.2500
   3.0217E-02   3.0952E-02   4.3525E-05  0.2500
   3.0952E-02   3.1705E-02   1.0623E-05  0.5000
   3.1705E-02   3.2477E-02   4.4075E-05  0.2425
   3.2477E-02   3.3267E-02   3.5435E-05  0.2673
   3.3267E-02   3.4076E-02   3.4593E-05  0.2673
   3.4076E-02   3.4905E-02   4.1008E-05  0.2425
   3.4905E-02   3.5755E-02   3.2969E-05  0.2673
   3.5755E-02   3.6625E-02   2.9887E-05  0.2774
   3.6625E-02   3.7516E-02   3.3666E-05  0.2582
   3.7516E-02   3.8428E-02   2.6293E-05  0.2887
   3.8428E-02   3.9363E-02   3.4225E-05  0.2500
   3.9363E-02   4.0321E-02   3.9677E-05  0.2294
   4.0321E-02   4.1302E-02   3.4657E-05  0.2425
   4.1302E-02   4.2307E-02   4.2046E-05  0.2170
   4.2307E-02   4.3337E-02   2.2344E-05  0.2917
   4.3337E-02   4.4391E-02   2.4658E-05  0.2774
   4.4391E-02   4.5471E-02   3.8887E-05  0.2182
   4.5471E-02   4.6577E-02   1.8078E-05  0.3162
   4.6577E-02   4.7711E-02   4.0591E-05  0.2085
   4.7711E-02   4.8871E-02   2.9289E-05  0.2425
   4.8871E-02   5.0061E-02   2.0184E-05  0.2887
   5.0061E-02   5.1279E-02   4.0229E-05  0.2010
   5.1279E-02   5.2526E-02   2.7251E-05  0.2425
   5.2526E-02   5.3804E-02   2.6604E-05  0.2425
   5.3804E-02   5.5113E-02   2.2917E-05  0.2582
   5.5113E-02   5.6454E-02   1.6406E-05  0.3015
   5.6454E-02   5.7828E-02   1.6017E-05  0.3015
   5.7828E-02   5.9235E-02   2.7008E-05  0.2294
   5.9235E-02   6.0676E-02   1.8040E-05  0.2774
   6.0676E-02   6.2152E-02   2.4607E-05  0.2338
   6.2152E-02   6.3665E-02   3.5940E-05  0.1913
   6.3665E-02   6.5214E-02   1.8076E-05  0.2673
   6.5214E-02   6.6800E-02   3.0455E-05  0.2029
   6.6800E-02   6.8426E-02   2.4611E-05  0.2236
   6.8426E-02   7.0090E-02   2.0422E-05  0.2425
   7.0090E-02   7.1796E-02   1.7592E-05  0.2582
   7.1796E-02   7.3543E-02   2.3053E-05  0.2222
   7.3543E-02   7.5332E-02   1.6937E-05  0.2558
   7.5332E-02   7.7165E-02   2.0732E-05  0.2294
   7.7165E-02   7.9042E-02   1.7044E-05  0.2500
   7.9042E-02   8.0965E-02   1.4559E-05  0.2673
   8.0965E-02   8.2935E-02   1.3403E-05  0.2735
   8.2935E-02   8.4953E-02   1.7840E-05  0.2357
   8.4953E-02   8.7020E-02   1.9352E-05  0.2236
   8.7020E-02   8.9138E-02   1.0391E-05  0.3015
   8.9138E-02   9.1306E-02   1.3833E-05  0.2582
   9.1306E-02   9.3528E-02   9.0027E-06  0.3162
   9.3528E-02   9.5804E-02   2.0358E-05  0.2072
   9.5804E-02   9.8134E-02   1.8183E-05  0.2164
   9.8134E-02   1.0052E-01   2.1059E-05  0.1990
   1.0052E-01   1.0297E-01   1.4006E-05  0.2408
   1.0297E-01   1.0547E-01   1.3571E-05  0.2425
   1.0547E-01   1.0804E-01   1.8704E-05  0.2041
   1.0804E-01   1.1067E-01   1.2281E-05  0.2480
   1.1067E-01   1.1336E-01   1.3741E-05  0.2309
   1.1336E-01   1.1612E-01   1.7403E-05  0.2041
   1.1612E-01   1.1894E-01   1.7697E-05  0.2000
   1.1894E-01   1.2184E-01   2.2806E-05  0.1741
   1.2184E-01   1.2480E-01   9.4453E-06  0.2673
   1.2480E-01   1.2784E-01   9.2210E-06  0.2673
   1.2784E-01   1.3095E-01   1.3503E-05  0.2182
   1.3095E-01   1.3414E-01   1.0238E-05  0.2456
   1.3414E-01   1.3740E-01   6.7410E-06  0.3015
   1.3740E-01   1.4074E-01   1.2945E-05  0.2131
   1.4074E-01   1.4417E-01   1.3433E-05  0.2085
   1.4417E-01   1.4767E-01   1.0833E-05  0.2294
   1.4767E-01   1.5127E-01   1.0298E-05  0.2309
   1.5127E-01   1.5495E-01   9.2380E-06  0.2425
   1.5495E-01   1.5872E-01   7.9575E-06  0.2582
   1.5872E-01   1.6258E-01   1.0435E-05  0.2221
   1.6258E-01   1.6654E-01   1.4768E-05  0.1845
   1.6654E-01   1.7059E-01   9.8718E-06  0.2236
   1.7059E-01   1.7474E-01   6.2643E-06  0.2774
   1.7474E-01   1.7899E-01   5.8803E-06  0.2800
   1.7899E-01   1.8334E-01   7.8670E-06  0.2408
   1.8334E-01   1.8781E-01   8.9668E-06  0.2236
   1.8781E-01   1.9237E-01   7.0030E-06  0.2500
   1.9237E-01   1.9706E-01   1.2468E-05  0.1847
   1.9706E-01   2.0185E-01   5.4229E-06  0.2774
   2.0185E-01   2.0676E-01   6.5158E-06  0.2500
   2.0676E-01   2.1179E-01   7.5537E-06  0.2294
   2.1179E-01   2.1694E-01   1.0091E-05  0.1961
   2.1694E-01   2.2222E-01   9.4725E-06  0.2000
   2.2222E-01   2.2763E-01   8.5077E-06  0.2085
   2.2763E-01   2.3317E-01   7.2223E-06  0.2236
   2.3317E-01   2.3884E-01   6.3457E-06  0.2357
   2.3884E-01   2.4465E-01   9.2924E-06  0.1925
   2.4465E-01   2.5061E-01   6.3838E-06  0.2294
   2.5061E-01   2.5670E-01   7.5442E-06  0.2085
   2.5670E-01   2.6295E-01   8.0940E-06  0.1980
   2.6295E-01   2.6935E-01   4.5328E-06  0.2603
   2.6935E-01   2.7590E-01   9.4607E-06  0.1796
   2.7590E-01   2.8261E-01   7.1505E-06  0.2041
   2.8261E-01   2.8949E-01   8.7258E-06  0.1826
   2.8949E-01   2.9653E-01   9.3703E-06  0.1741
   2.9653E-01   3.0375E-01   6.1522E-06  0.2115
   3.0375E-01   3.1114E-01   6.5392E-06  0.2029
   3.1114E-01   3.1871E-01   7.5295E-06  0.1865
   3.1871E-01   3.2646E-01   9.7200E-06  0.1620
   3.2646E-01   3.3441E-01   6.5466E-06  0.1961
   3.3441E-01   3.4254E-01   7.5335E-06  0.1795
   3.4254E-01   3.5088E-01   9.1189E-06  0.1622
   3.5088E-01   3.5941E-01   7.0282E-06  0.1826
   3.5941E-01   3.6816E-01   6.4381E-06  0.1880
   3.6816E-01   3.7712E-01   6.9215E-06  0.1796
   3.7712E-01   3.8629E-01   7.5505E-06  0.1690
   3.8629E-01   3.9569E-01   9.4962E-06  0.1491
   3.9569E-01   4.0532E-01   7.5109E-06  0.1660
   4.0532E-01   4.1518E-01   6.1158E-06  0.1817
   4.1518E-01   4.2528E-01   8.0185E-06  0.1566
   4.2528E-01   4.3563E-01   6.2168E-06  0.1760
   4.3563E-01   4.4623E-01   7.1032E-06  0.1622
   4.4623E-01   4.5708E-01   8.1053E-06  0.1508
   4.5708E-01   4.6821E-01   7.3733E-06  0.1562
   4.6821E-01   4.7960E-01   6.5221E-06  0.1638
   4.7960E-01   4.9127E-01   7.0496E-06  0.1548
   4.9127E-01   5.0322E-01   6.6929E-06  0.1571
   5.0322E-01   5.1546E-01   5.3558E-06  0.1733
   5.1546E-01   5.2800E-01   5.6612E-06  0.1672
   5.2800E-01   5.4085E-01   5.8380E-06  0.1617
   5.4085E-01   5.5401E-01   5.2685E-06  0.1689
   5.5401E-01   5.6749E-01   5.9558E-06  0.1576
   5.6749E-01   5.8130E-01   5.9388E-06  0.1552
   5.8130E-01   5.9544E-01   4.9007E-06  0.1689
   5.9544E-01   6.0993E-01   4.9874E-06  0.1650
   6.0993E-01   6.2477E-01   7.1859E-06  0.1360
   6.2477E-01   6.3997E-01   4.9996E-06  0.1622
   6.3997E-01   6.5554E-01   6.4957E-06  0.1399
   6.5554E-01   6.7149E-01   4.5300E-06  0.1661
   6.7149E-01   6.8783E-01   5.2395E-06  0.1516
   6.8783E-01   7.0456E-01   5.9966E-06  0.1410
   7.0456E-01   7.2171E-01   5.3860E-06  0.1462
   7.2171E-01   7.3927E-01   4.4053E-06  0.1600
   7.3927E-01   7.5725E-01   4.3354E-06  0.1588
   7.5725E-01   7.7568E-01   5.6446E-06  0.1380
   7.7568E-01   7.9455E-01   5.6440E-06  0.1361
   7.9455E-01   8.1388E-01   4.4939E-06  0.1502
   8.1388E-01   8.3368E-01   4.9122E-06  0.1428
   8.3368E-01   8.5397E-01   4.7968E-06  0.1418
   8.5397E-01   8.7475E-01   4.4409E-06  0.1462
   8.7475E-01   8.9603E-01   4.3226E-06  0.1474
   8.9603E-01   9.1783E-01   4.4620E-06  0.1428
   9.1783E-01   9.4016E-01   4.1197E-06  0.1466
   9.4016E-01   9.6304E-01   4.3529E-06  0.1410
   9.6304E-01   9.8647E-01   3.3651E-06  0.1585
   9.8647E-01   1.0105E+00   3.5385E-06  0.1527
   1.0105E+00   1.0351E+00   3.9589E-06  0.1428
   1.0351E+00   1.0602E+00   4.9238E-06  0.1265
   1.0602E+00   1.0860E+00   4.8303E-06  0.1259
   1.0860E+00   1.1125E+00   3.4906E-06  0.1460
   1.1125E+00   1.1395E+00   3.8523E-06  0.1383
   1.1395E+00   1.1673E+00   4.9143E-06  0.1206
   1.1673E+00   1.1957E+00   4.5195E-06  0.1242
   1.1957E+00   1.2247E+00   4.0661E-06  0.1299
   1.2247E+00   1.2545E+00   4.2724E-06  0.1250
   1.2545E+00   1.2851E+00   4.4429E-06  0.1210
   1.2851E+00   1.3163E+00   3.2178E-06  0.1406
   1.3163E+00   1.3484E+00   5.2455E-06  0.1088
   1.3484E+00   1.3812E+00   4.7001E-06  0.1133
   1.3812E+00   1.4148E+00   3.7197E-06  0.1251
   1.4148E+00   1.4492E+00   5.3047E-06  0.1036
   1.4492E+00   1.4845E+00   3.8732E-06  0.1198
   1.4845E+00   1.5206E+00   4.5314E-06  0.1102
   1.5206E+00   1.5576E+00   4.3221E-06  0.1110
   1.5576E+00   1.5955E+00   4.3275E-06  0.1104
   1.5955E+00   1.6343E+00   3.9984E-06  0.1128
   1.6343E+00   1.6741E+00   4.3830E-06  0.1063
   1.6741E+00   1.7148E+00   3.6965E-06  0.1151
   1.7148E+00   1.7565E+00   3.6582E-06  0.1143
   1.7565E+00   1.7992E+00   3.5025E-06  0.1152
   1.7992E+00   1.8430E+00   3.0134E-06  0.1216
   1.8430E+00   1.8879E+00   4.2329E-06  0.1023
   1.8879E+00   1.9338E+00   3.5195E-06  0.1109
   1.9338E+00   1.9808E+00   3.9498E-06  0.1028
   1.9808E+00   2.0290E+00   4.2373E-06  0.0986
   2.0290E+00   2.0784E+00   3.7150E-06  0.1038
   2.0784E+00   2.1290E+00   3.4408E-06  0.1072
   2.1290E+00   2.1808E+00   4.2354E-06  0.0949
   2.1808E+00   2.2338E+00   3.8957E-06  0.0979
   2.2338E+00   2.2882E+00   3.6667E-06  0.1000
   2.2882E+00   2.3439E+00   3.6291E-06  0.0988
   2.3439E+00   2.4009E+00   3.5930E-06  0.0986
   2.4009E+00   2.4593E+00   3.4109E-06  0.0997
   2.4593E+00   2.5191E+00   2.7684E-06  0.1094
   2.5191E+00   2.5804E+00   4.1416E-06  0.0885
   2.5804E+00   2.6432E+00   3.0125E-06  0.1026
   2.6432E+00   2.7075E+00   3.5605E-06  0.0930
   2.7075E+00   2.7734E+00   2.7723E-06  0.1045
   2.7734E+00   2.8409E+00   3.1954E-06  0.0960
   2.8409E+00   2.9100E+00   1.8652E-06  0.1242
   2.9100E+00   2.9808E+00   1.6280E-06  0.1311
   2.9808E+00   3.0533E+00   1.6673E-06  0.1282
   3.0533E+00   3.1276E+00   1.8351E-06  0.1210
   3.1276E+00   3.2037E+00   1.4853E-06  0.1325
   3.2037E+00   3.2817E+00   1.5812E-06  0.1268
   3.2817E+00   3.3615E+00   1.7103E-06  0.1202
   3.3615E+00   3.4433E+00   1.9533E-06  0.1115
   3.4433E+00   3.5271E+00   1.7313E-06  0.1171
   3.5271E+00   3.6129E+00   1.4955E-06  0.1247
   3.6129E+00   3.7008E+00   1.3424E-06  0.1302
   3.7008E+00   3.7908E+00   1.0581E-06  0.1441
   3.7908E+00   3.8831E+00   1.2861E-06  0.1296
   3.8831E+00   3.9776E+00   1.1963E-06  0.1325
   3.9776E+00   4.0743E+00   1.5361E-06  0.1158
   4.0743E+00   4.1735E+00   1.1330E-06  0.1333
   4.1735E+00   4.2750E+00   1.2539E-06  0.1248
   4.2750E+00   4.3790E+00   1.1794E-06  0.1274
   4.3790E+00   4.4856E+00   7.6963E-07  0.1562
   4.4856E+00   4.5947E+00   7.9407E-07  0.1514
   4.5947E+00   4.7065E+00   9.3029E-07  0.1387
   4.7065E+00   4.8210E+00   8.3833E-07  0.1443
   4.8210E+00   4.9383E+00   9.8253E-07  0.1313
   4.9383E+00   5.0585E+00   9.5192E-07  0.1321
   5.0585E+00   5.1815E+00   8.0466E-07  0.1415
   5.1815E+00   5.3076E+00   7.7507E-07  0.1423
   5.3076E+00   5.4368E+00   9.5507E-07  0.1269
   5.4368E+00   5.5690E+00   7.7109E-07  0.1400
   5.5690E+00   5.7045E+00   7.1332E-07  0.1434
   5.7045E+00   5.8433E+00   6.3926E-07  0.1496
   5.8433E+00   5.9855E+00   7.9781E-07  0.1321
   5.9855E+00   6.1311E+00   4.2802E-07  0.1787
   6.1311E+00   6.2803E+00   6.0798E-07  0.1480
   6.2803E+00   6.4331E+00   6.9589E-07  0.1370
   6.4331E+00   6.5896E+00   6.0238E-07  0.1455
   6.5896E+00   6.7500E+00   6.8608E-07  0.1348
   6.7500E+00   6.9142E+00   5.1335E-07  0.1538
   6.9142E+00   7.0824E+00   5.5090E-07  0.1465
   7.0824E+00   7.2548E+00   6.1513E-07  0.1374
   7.2548E+00   7.4313E+00   5.1190E-07  0.1485
   7.4313E+00   7.6121E+00   4.9776E-07  0.1491
   7.6121E+00   7.7973E+00   7.0191E-07  0.1240
   7.7973E+00   7.9870E+00   7.0814E-07  0.1219
   7.9870E+00   8.1813E+00   5.0430E-07  0.1429
   8.1813E+00   8.3804E+00   5.4581E-07  0.1353
   8.3804E+00   8.5843E+00   3.7273E-07  0.1622
   8.5843E+00   8.7931E+00   3.7498E-07  0.1595
   8.7931E+00   9.0071E+00   4.5806E-07  0.1429
   9.0071E+00   9.2262E+00   3.7417E-07  0.1562
   9.2262E+00   9.4507E+00   4.4547E-07  0.1414
   9.4507E+00   9.6807E+00   4.1749E-07  0.1443
   9.6807E+00   9.9162E+00   4.5003E-07  0.1374
   9.9162E+00   1.0157E+01   5.0566E-07  0.1280
   1.0157E+01   1.0405E+01   4.9365E-07  0.1280
   1.0405E+01   1.0658E+01   4.0292E-07  0.1400
   1.0658E+01   1.0917E+01   3.8285E-07  0.1414
   1.0917E+01   1.1183E+01   4.7060E-07  0.1262
   1.1183E+01   1.1455E+01   4.7779E-07  0.1240
   1.1455E+01   1.1733E+01   4.1037E-07  0.1321
   1.1733E+01   1.2019E+01   3.2347E-07  0.1469
   1.2019E+01   1.2311E+01   3.5564E-07  0.1387
   1.2311E+01   1.2611E+01   2.8042E-07  0.1543
   1.2611E+01   1.2918E+01   3.2591E-07  0.1414
   1.2918E+01   1.3232E+01   3.4362E-07  0.1361
   1.3232E+01   1.3554E+01   3.4167E-07  0.1348
   1.3554E+01   1.3884E+01   2.7291E-07  0.1491
   1.3884E+01   1.4222E+01   2.3682E-07  0.1581
   1.4222E+01   1.4568E+01   1.8496E-07  0.1768
   1.4568E+01   1.4922E+01   2.3417E-07  0.1548
   1.4922E+01   1.5285E+01   2.3412E-07  0.1529
   1.5285E+01   1.5657E+01   1.8284E-07  0.1715
   1.5657E+01   1.6038E+01   1.9950E-07  0.1622
   1.6038E+01   1.6428E+01   2.5114E-07  0.1429
   1.6428E+01   1.6828E+01   1.7513E-07  0.1690
   1.6828E+01   1.7237E+01   1.8074E-07  0.1644
   1.7237E+01   1.7657E+01   1.5737E-07  0.1741
   1.7657E+01   1.8086E+01   1.3035E-07  0.1890
   1.8086E+01   1.8526E+01   1.0453E-07  0.2085
   1.8526E+01   1.8977E+01   6.6554E-08  0.2582
   1.8977E+01   1.9439E+01   5.6310E-08  0.2774
   1.9439E+01   1.9912E+01   5.0744E-08  0.2887
   1.9912E+01   2.0396E+01   2.4769E-08  0.4082
   2.0396E+01   2.0893E+01   4.0302E-09  1.0000
   2.0893E+01   2.1401E+01   3.9344E-09  1.0000
   2.1401E+01   2.1922E+01   0.0000E+00  0.0000
   2.1922E+01   2.2455E+01   0.0000E+00  0.0000
   2.2455E+01   2.3001E+01   0.0000E+00  0.0000
   2.3001E+01   2.3561E+01   0.0000E+00  0.0000
   2.3561E+01   2.4134E+01   0.0000E+00  0.0000
   2.4134E+01   2.4721E+01   0.0000E+00  0.0000
   2.4721E+01   2.5323E+01   0.0000E+00  0.0000
   2.5323E+01   2.5939E+01   0.0000E+00  0.0000
   2.5939E+01   2.6570E+01   0.0000E+00  0.0000
   2.6570E+01   2.7217E+01   0.0000E+00  0.0000
   2.7217E+01   2.7879E+01   0.0000E+00  0.0000
   2.7879E+01   2.8557E+01   0.0000E+00  0.0000
   2.8557E+01   2.9252E+01   0.0000E+00  0.0000
   2.9252E+01   2.9964E+01   0.0000E+00  0.0000
   2.9964E+01   3.0693E+01   0.0000E+00  0.0000
   3.0693E+01   3.1440E+01   0.0000E+00  0.0000
   3.1440E+01   3.2205E+01   0.0000E+00  0.0000
   3.2205E+01   3.2988E+01   0.0000E+00  0.0000
   3.2988E+01   3.3791E+01   0.0000E+00  0.0000
   3.3791E+01   3.4613E+01   0.0000E+00  0.0000
   3.4613E+01   3.5455E+01   0.0000E+00  0.0000
   3.5455E+01   3.6318E+01   0.0000E+00  0.0000
   3.6318E+01   3.7201E+01   0.0000E+00  0.0000
   3.7201E+01   3.8106E+01   0.0000E+00  0.0000
   3.8106E+01   3.9034E+01   0.0000E+00  0.0000
   3.9034E+01   3.9983E+01   0.0000E+00  0.0000
   3.9983E+01   4.0956E+01   0.0000E+00  0.0000
   4.0956E+01   4.1953E+01   0.0000E+00  0.0000
   4.1953E+01   4.2973E+01   0.0000E+00  0.0000
   4.2973E+01   4.4019E+01   0.0000E+00  0.0000
   4.4019E+01   4.5090E+01   0.0000E+00  0.0000
   4.5090E+01   4.6187E+01   0.0000E+00  0.0000
   4.6187E+01   4.7311E+01   0.0000E+00  0.0000
   4.7311E+01   4.8462E+01   0.0000E+00  0.0000
   4.8462E+01   4.9641E+01   0.0000E+00  0.0000
   4.9641E+01   5.0849E+01   0.0000E+00  0.0000
   5.0849E+01   5.2086E+01   0.0000E+00  0.0000
   5.2086E+01   5.3353E+01   0.0000E+00  0.0000
   5.3353E+01   5.4651E+01   0.0000E+00  0.0000
   5.4651E+01   5.5981E+01   0.0000E+00  0.0000
   5.5981E+01   5.7343E+01   0.0000E+00  0.0000
   5.7343E+01   5.8738E+01   0.0000E+00  0.0000
   5.8738E+01   6.0168E+01   0.0000E+00  0.0000
   6.0168E+01   6.1632E+01   0.0000E+00  0.0000
   6.1632E+01   6.3131E+01   0.0000E+00  0.0000
   6.3131E+01   6.4667E+01   0.0000E+00  0.0000
   6.4667E+01   6.6240E+01   0.0000E+00  0.0000
   6.6240E+01   6.7852E+01   0.0000E+00  0.0000
   6.7852E+01   6.9503E+01   0.0000E+00  0.0000
   6.9503E+01   7.1194E+01   0.0000E+00  0.0000
   7.1194E+01   7.2926E+01   0.0000E+00  0.0000
   7.2926E+01   7.4701E+01   0.0000E+00  0.0000
   7.4701E+01   7.6518E+01   0.0000E+00  0.0000
   7.6518E+01   7.8380E+01   0.0000E+00  0.0000
   7.8380E+01   8.0287E+01   0.0000E+00  0.0000
   8.0287E+01   8.2240E+01   0.0000E+00  0.0000
   8.2240E+01   8.4241E+01   0.0000E+00  0.0000
   8.4241E+01   8.6291E+01   0.0000E+00  0.0000
   8.6291E+01   8.8391E+01   0.0000E+00  0.0000
   8.8391E+01   9.0541E+01   0.0000E+00  0.0000
   9.0541E+01   9.2744E+01   0.0000E+00  0.0000
   9.2744E+01   9.5001E+01   0.0000E+00  0.0000
   9.5001E+01   9.7312E+01   0.0000E+00  0.0000
   9.7312E+01   9.9680E+01   0.0000E+00  0.0000
   9.9680E+01   1.0211E+02   0.0000E+00  0.0000
   1.0211E+02   1.0459E+02   0.0000E+00  0.0000
   1.0459E+02   1.0713E+02   0.0000E+00  0.0000
   1.0713E+02   1.0974E+02   0.0000E+00  0.0000
   1.0974E+02   1.1241E+02   0.0000E+00  0.0000
   1.1241E+02   1.1515E+02   0.0000E+00  0.0000
   1.1515E+02   1.1795E+02   0.0000E+00  0.0000
   1.1795E+02   1.2082E+02   0.0000E+00  0.0000
   1.2082E+02   1.2376E+02   0.0000E+00  0.0000
   1.2376E+02   1.2677E+02   0.0000E+00  0.0000
   1.2677E+02   1.2985E+02   0.0000E+00  0.0000
   1.2985E+02   1.3301E+02   0.0000E+00  0.0000
   1.3301E+02   1.3625E+02   0.0000E+00  0.0000
   1.3625E+02   1.3956E+02   0.0000E+00  0.0000
   1.3956E+02   1.4296E+02   0.0000E+00  0.0000
   1.4296E+02   1.4644E+02   0.0000E+00  0.0000
   1.4644E+02   1.5000E+02   0.0000E+00  0.0000

#   sum over                 1.5727E-07
'no. =    1   reg = 126 - 226'
msuc: {\huge [t-cross] in region mesh}
msdr: {\it plotted by \ANGEL \version}
msdl: {\it calculated by \PHITS  3.26}
wt: s(0.7)
\vspace{-3}
  region surface crossing
  area  &=&   1.0000E+00 [cm^2]
e:
 
# Information for Restart Calculation
# This calculation was newly started
# istdev =  2 # 1:Batch variance, 2:History variance
# resc2  = 5.00000000000000000E+08 # Total source weight or Total source weight / maxcas
# resc3  = 5.00000000000000000E+08 # Total history number or Total batch number
# maxcas =   500000000 # History / Batch, only used for istdev=1
# bitrseed = 1101101111010011011000101101110001100110110010110001010100010001 # bit data of rseed
