[ T-Cross ]
    title = [t-cross] in region mesh
     mesh =  reg            # mesh type is region-wise
      reg =    1            # number of crossing regions
      non     r-from    r-to       area
      1       121       221        1.000000    
   e-type =    3            # e-mesh is log given by emin, emax and ne
     emin =  1.0000000E-02  # minimum value of e-mesh points
     emax =   150.0000      # maximum value of e-mesh points
#    edel =  2.4039514E-02  # mesh width of e-mesh points
       ne =    400          # number of e-mesh points
#    data = ( e(i), i = 1, ne + 1 )
#           1.00000E-02  1.02433E-02  1.04925E-02  1.07478E-02  1.10093E-02
#           1.12772E-02  1.15516E-02  1.18326E-02  1.21205E-02  1.24154E-02
#           1.27175E-02  1.30269E-02  1.33439E-02  1.36686E-02  1.40011E-02
#           1.43418E-02  1.46907E-02  1.50482E-02  1.54143E-02  1.57894E-02
#           1.61735E-02  1.65670E-02  1.69701E-02  1.73830E-02  1.78060E-02
#           1.82392E-02  1.86830E-02  1.91375E-02  1.96032E-02  2.00801E-02
#           2.05687E-02  2.10692E-02  2.15818E-02  2.21069E-02  2.26448E-02
#           2.31957E-02  2.37601E-02  2.43382E-02  2.49304E-02  2.55369E-02
#           2.61583E-02  2.67947E-02  2.74467E-02  2.81145E-02  2.87985E-02
#           2.94992E-02  3.02169E-02  3.09521E-02  3.17052E-02  3.24766E-02
#           3.32668E-02  3.40762E-02  3.49053E-02  3.57546E-02  3.66246E-02
#           3.75157E-02  3.84284E-02  3.93634E-02  4.03212E-02  4.13022E-02
#           4.23071E-02  4.33365E-02  4.43909E-02  4.54710E-02  4.65773E-02
#           4.77106E-02  4.88714E-02  5.00605E-02  5.12785E-02  5.25262E-02
#           5.38042E-02  5.51133E-02  5.64542E-02  5.78278E-02  5.92348E-02
#           6.06760E-02  6.21523E-02  6.36645E-02  6.52135E-02  6.68002E-02
#           6.84255E-02  7.00904E-02  7.17957E-02  7.35426E-02  7.53319E-02
#           7.71648E-02  7.90423E-02  8.09655E-02  8.29354E-02  8.49533E-02
#           8.70203E-02  8.91376E-02  9.13064E-02  9.35279E-02  9.58035E-02
#           9.81345E-02  1.00522E-01  1.02968E-01  1.05473E-01  1.08040E-01
#           1.10668E-01  1.13361E-01  1.16119E-01  1.18944E-01  1.21838E-01
#           1.24803E-01  1.27839E-01  1.30950E-01  1.34136E-01  1.37399E-01
#           1.40742E-01  1.44167E-01  1.47675E-01  1.51268E-01  1.54948E-01
#           1.58718E-01  1.62580E-01  1.66535E-01  1.70587E-01  1.74738E-01
#           1.78989E-01  1.83344E-01  1.87805E-01  1.92375E-01  1.97055E-01
#           2.01850E-01  2.06761E-01  2.11792E-01  2.16945E-01  2.22223E-01
#           2.27630E-01  2.33169E-01  2.38842E-01  2.44653E-01  2.50605E-01
#           2.56703E-01  2.62949E-01  2.69346E-01  2.75900E-01  2.82613E-01
#           2.89489E-01  2.96532E-01  3.03747E-01  3.11138E-01  3.18708E-01
#           3.26462E-01  3.34405E-01  3.42542E-01  3.50876E-01  3.59413E-01
#           3.68158E-01  3.77116E-01  3.86291E-01  3.95690E-01  4.05317E-01
#           4.15179E-01  4.25281E-01  4.35628E-01  4.46227E-01  4.57084E-01
#           4.68205E-01  4.79597E-01  4.91266E-01  5.03219E-01  5.15463E-01
#           5.28005E-01  5.40851E-01  5.54011E-01  5.67490E-01  5.81298E-01
#           5.95441E-01  6.09929E-01  6.24769E-01  6.39970E-01  6.55541E-01
#           6.71491E-01  6.87828E-01  7.04564E-01  7.21706E-01  7.39266E-01
#           7.57253E-01  7.75678E-01  7.94551E-01  8.13883E-01  8.33685E-01
#           8.53969E-01  8.74747E-01  8.96030E-01  9.17831E-01  9.40163E-01
#           9.63038E-01  9.86469E-01  1.01047E+00  1.03506E+00  1.06024E+00
#           1.08604E+00  1.11246E+00  1.13953E+00  1.16725E+00  1.19565E+00
#           1.22474E+00  1.25454E+00  1.28507E+00  1.31633E+00  1.34836E+00
#           1.38117E+00  1.41477E+00  1.44920E+00  1.48446E+00  1.52057E+00
#           1.55757E+00  1.59547E+00  1.63429E+00  1.67405E+00  1.71478E+00
#           1.75650E+00  1.79924E+00  1.84302E+00  1.88786E+00  1.93379E+00
#           1.98084E+00  2.02904E+00  2.07841E+00  2.12898E+00  2.18078E+00
#           2.23384E+00  2.28819E+00  2.34386E+00  2.40089E+00  2.45930E+00
#           2.51914E+00  2.58043E+00  2.64322E+00  2.70753E+00  2.77341E+00
#           2.84088E+00  2.91001E+00  2.98081E+00  3.05333E+00  3.12762E+00
#           3.20372E+00  3.28167E+00  3.36152E+00  3.44330E+00  3.52708E+00
#           3.61290E+00  3.70080E+00  3.79085E+00  3.88308E+00  3.97756E+00
#           4.07434E+00  4.17347E+00  4.27501E+00  4.37903E+00  4.48557E+00
#           4.59471E+00  4.70650E+00  4.82102E+00  4.93832E+00  5.05847E+00
#           5.18155E+00  5.30762E+00  5.43676E+00  5.56904E+00  5.70453E+00
#           5.84333E+00  5.98550E+00  6.13114E+00  6.28031E+00  6.43312E+00
#           6.58964E+00  6.74997E+00  6.91420E+00  7.08243E+00  7.25475E+00
#           7.43126E+00  7.61207E+00  7.79728E+00  7.98700E+00  8.18133E+00
#           8.38038E+00  8.58428E+00  8.79315E+00  9.00709E+00  9.22624E+00
#           9.45072E+00  9.68067E+00  9.91620E+00  1.01575E+01  1.04046E+01
#           1.06578E+01  1.09171E+01  1.11827E+01  1.14548E+01  1.17335E+01
#           1.20190E+01  1.23114E+01  1.26109E+01  1.29178E+01  1.32321E+01
#           1.35540E+01  1.38838E+01  1.42216E+01  1.45676E+01  1.49221E+01
#           1.52851E+01  1.56570E+01  1.60380E+01  1.64282E+01  1.68279E+01
#           1.72374E+01  1.76568E+01  1.80864E+01  1.85264E+01  1.89772E+01
#           1.94389E+01  1.99119E+01  2.03963E+01  2.08926E+01  2.14009E+01
#           2.19216E+01  2.24550E+01  2.30014E+01  2.35610E+01  2.41343E+01
#           2.47215E+01  2.53230E+01  2.59391E+01  2.65702E+01  2.72167E+01
#           2.78789E+01  2.85572E+01  2.92520E+01  2.99637E+01  3.06928E+01
#           3.14396E+01  3.22045E+01  3.29881E+01  3.37907E+01  3.46128E+01
#           3.54550E+01  3.63177E+01  3.72013E+01  3.81064E+01  3.90336E+01
#           3.99833E+01  4.09561E+01  4.19526E+01  4.29734E+01  4.40189E+01
#           4.50900E+01  4.61870E+01  4.73108E+01  4.84619E+01  4.96410E+01
#           5.08488E+01  5.20860E+01  5.33533E+01  5.46514E+01  5.59812E+01
#           5.73432E+01  5.87384E+01  6.01676E+01  6.16315E+01  6.31311E+01
#           6.46671E+01  6.62405E+01  6.78522E+01  6.95031E+01  7.11941E+01
#           7.29263E+01  7.47007E+01  7.65182E+01  7.83800E+01  8.02870E+01
#           8.22405E+01  8.42414E+01  8.62911E+01  8.83906E+01  9.05412E+01
#           9.27442E+01  9.50007E+01  9.73122E+01  9.96799E+01  1.02105E+02
#           1.04589E+02  1.07134E+02  1.09741E+02  1.12411E+02  1.15146E+02
#           1.17948E+02  1.20817E+02  1.23757E+02  1.26768E+02  1.29852E+02
#           1.33012E+02  1.36248E+02  1.39563E+02  1.42959E+02  1.46437E+02
#           1.50000E+02
     unit =    2            # unit is [1/cm^2/(MeV/n)/source]
     axis =  eng            # axis of output
     file = detector-22.out  # file name of output for the above axis
   output = f-curr          # surface crossing forward current spectrum
     part =  neutron  
# kf/name :  2112     
#    used :        main (  %)        temp (  %)       total (  %)
#  memory :         414 (  0)           0 (  0)         414 (  0)

#------------------------------------------------------------------------------
#newpage:
#   no. =    1   reg = 121 - 221

x: Energy [MeV/n]
y:  F-Curr [1/cm^2/(MeV/n)/source]         
p: xlog ylog afac(0.8) form(0.9)
h: n            x            y(neutron ),hh0l   n 
#  e-lower      e-upper      neutron     r.err 
   1.0000E-02   1.0243E-02   4.0278E-05  0.1429
   1.0243E-02   1.0493E-02   4.8149E-05  0.1291
   1.0493E-02   1.0748E-02   4.8572E-05  0.1270
   1.0748E-02   1.1009E-02   3.9005E-05  0.1400
   1.1009E-02   1.1277E-02   4.2559E-05  0.1325
   1.1277E-02   1.1552E-02   3.5716E-05  0.1429
   1.1552E-02   1.1833E-02   3.7714E-05  0.1374
   1.1833E-02   1.2121E-02   4.4460E-05  0.1250
   1.2121E-02   1.2415E-02   3.6622E-05  0.1361
   1.2415E-02   1.2718E-02   4.1711E-05  0.1260
   1.2718E-02   1.3027E-02   3.7489E-05  0.1313
   1.3027E-02   1.3344E-02   5.0480E-05  0.1118
   1.3344E-02   1.3669E-02   4.0657E-05  0.1231
   1.3669E-02   1.4001E-02   3.9691E-05  0.1231
   1.4001E-02   1.4342E-02   3.2877E-05  0.1336
   1.4342E-02   1.4691E-02   4.4133E-05  0.1140
   1.4691E-02   1.5048E-02   4.3084E-05  0.1140
   1.5048E-02   1.5414E-02   3.7691E-05  0.1204
   1.5414E-02   1.5789E-02   4.0529E-05  0.1147
   1.5789E-02   1.6174E-02   4.5293E-05  0.1072
   1.6174E-02   1.6567E-02   4.3200E-05  0.1085
   1.6567E-02   1.6970E-02   5.2098E-05  0.0976
   1.6970E-02   1.7383E-02   4.1173E-05  0.1085
   1.7383E-02   1.7806E-02   5.4381E-05  0.0933
   1.7806E-02   1.8239E-02   4.5703E-05  0.1005
   1.8239E-02   1.8683E-02   5.5434E-05  0.0902
   1.8683E-02   1.9138E-02   3.8718E-05  0.1066
   1.9138E-02   1.9603E-02   5.0684E-05  0.0921
   1.9603E-02   2.0080E-02   5.1996E-05  0.0898
   2.0080E-02   2.0569E-02   3.8071E-05  0.1037
   2.0569E-02   2.1069E-02   4.6758E-05  0.0925
   2.1069E-02   2.1582E-02   4.6427E-05  0.0917
   2.1582E-02   2.2107E-02   4.8752E-05  0.0884
   2.2107E-02   2.2645E-02   4.1645E-05  0.0945
   2.2645E-02   2.3196E-02   4.7553E-05  0.0874
   2.3196E-02   2.3760E-02   5.1030E-05  0.0833
   2.3760E-02   2.4338E-02   4.8434E-05  0.0845
   2.4338E-02   2.4930E-02   5.6741E-05  0.0772
   2.4930E-02   2.5537E-02   5.4074E-05  0.0781
   2.5537E-02   2.6158E-02   5.3755E-05  0.0774
   2.6158E-02   2.6795E-02   5.4992E-05  0.0756
   2.6795E-02   2.7447E-02   5.1539E-05  0.0772
   2.7447E-02   2.8114E-02   5.1213E-05  0.0765
   2.8114E-02   2.8799E-02   5.5552E-05  0.0725
   2.8799E-02   2.9499E-02   5.5089E-05  0.0720
   2.9499E-02   3.0217E-02   4.4584E-05  0.0791
   3.0217E-02   3.0952E-02   5.4135E-05  0.0709
   3.0952E-02   3.1705E-02   5.2849E-05  0.0709
   3.1705E-02   3.2477E-02   5.2371E-05  0.0704
   3.2477E-02   3.3267E-02   6.0239E-05  0.0648
   3.3267E-02   3.4076E-02   4.8430E-05  0.0714
   3.4076E-02   3.4905E-02   5.7412E-05  0.0648
   3.4905E-02   3.5755E-02   6.1700E-05  0.0618
   3.5755E-02   3.6625E-02   5.9544E-05  0.0621
   3.6625E-02   3.7516E-02   6.1048E-05  0.0606
   3.7516E-02   3.8428E-02   5.7188E-05  0.0619
   3.8428E-02   3.9363E-02   5.6899E-05  0.0613
   3.9363E-02   4.0321E-02   5.2624E-05  0.0630
   4.0321E-02   4.1302E-02   5.8509E-05  0.0590
   4.1302E-02   4.2307E-02   5.8910E-05  0.0581
   4.2307E-02   4.3337E-02   6.2174E-05  0.0559
   4.3337E-02   4.4391E-02   6.4112E-05  0.0544
   4.4391E-02   4.5471E-02   5.8145E-05  0.0564
   4.5471E-02   4.6577E-02   5.9475E-05  0.0551
   4.6577E-02   4.7711E-02   5.4709E-05  0.0568
   4.7711E-02   4.8871E-02   6.2541E-05  0.0525
   4.8871E-02   5.0061E-02   6.3242E-05  0.0516
   5.0061E-02   5.1279E-02   6.4531E-05  0.0504
   5.1279E-02   5.2526E-02   6.4922E-05  0.0497
   5.2526E-02   5.3804E-02   6.4632E-05  0.0492
   5.3804E-02   5.5113E-02   6.7069E-05  0.0477
   5.5113E-02   5.6454E-02   6.4879E-05  0.0479
   5.6454E-02   5.7828E-02   6.4794E-05  0.0474
   5.7828E-02   5.9235E-02   6.8088E-05  0.0457
   5.9235E-02   6.0676E-02   6.8136E-05  0.0451
   6.0676E-02   6.2152E-02   7.0988E-05  0.0437
   6.2152E-02   6.3665E-02   6.7715E-05  0.0442
   6.3665E-02   6.5214E-02   6.9335E-05  0.0432
   6.5214E-02   6.6800E-02   7.2226E-05  0.0418
   6.6800E-02   6.8426E-02   7.8262E-05  0.0397
   6.8426E-02   7.0090E-02   6.8595E-05  0.0418
   7.0090E-02   7.1796E-02   7.5410E-05  0.0394
   7.1796E-02   7.3543E-02   7.7626E-05  0.0384
   7.3543E-02   7.5332E-02   7.7682E-05  0.0379
   7.5332E-02   7.7165E-02   7.4200E-05  0.0383
   7.7165E-02   7.9042E-02   8.2877E-05  0.0359
   7.9042E-02   8.0965E-02   8.1740E-05  0.0357
   8.0965E-02   8.2935E-02   7.7870E-05  0.0361
   8.2935E-02   8.4953E-02   7.8399E-05  0.0356
   8.4953E-02   8.7020E-02   8.4084E-05  0.0339
   8.7020E-02   8.9138E-02   8.6149E-05  0.0331
   8.9138E-02   9.1306E-02   8.3918E-05  0.0331
   9.1306E-02   9.3528E-02   8.4895E-05  0.0326
   9.3528E-02   9.5804E-02   8.4812E-05  0.0322
   9.5804E-02   9.8134E-02   8.7260E-05  0.0314
   9.8134E-02   1.0052E-01   8.4768E-05  0.0314
   1.0052E-01   1.0297E-01   8.8070E-05  0.0305
   1.0297E-01   1.0547E-01   9.0848E-05  0.0296
   1.0547E-01   1.0804E-01   9.2820E-05  0.0290
   1.0804E-01   1.1067E-01   9.4496E-05  0.0284
   1.1067E-01   1.1336E-01   9.3811E-05  0.0281
   1.1336E-01   1.1612E-01   9.9777E-05  0.0270
   1.1612E-01   1.1894E-01   9.6345E-05  0.0271
   1.1894E-01   1.2184E-01   9.8548E-05  0.0265
   1.2184E-01   1.2480E-01   9.4453E-05  0.0267
   1.2480E-01   1.2784E-01   1.0176E-04  0.0254
   1.2784E-01   1.3095E-01   1.0056E-04  0.0253
   1.3095E-01   1.3414E-01   9.8804E-05  0.0252
   1.3414E-01   1.3740E-01   1.0234E-04  0.0245
   1.3740E-01   1.4074E-01   1.0117E-04  0.0243
   1.4074E-01   1.4417E-01   1.0285E-04  0.0238
   1.4417E-01   1.4767E-01   1.0508E-04  0.0233
   1.4767E-01   1.5127E-01   1.1027E-04  0.0225
   1.5127E-01   1.5495E-01   1.0781E-04  0.0225
   1.5495E-01   1.5872E-01   1.0928E-04  0.0220
   1.5872E-01   1.6258E-01   1.1228E-04  0.0215
   1.6258E-01   1.6654E-01   1.0936E-04  0.0215
   1.6654E-01   1.7059E-01   1.1402E-04  0.0208
   1.7059E-01   1.7474E-01   1.0967E-04  0.0210
   1.7474E-01   1.7899E-01   1.1436E-04  0.0203
   1.7899E-01   1.8334E-01   1.1481E-04  0.0200
   1.8334E-01   1.8781E-01   1.1513E-04  0.0197
   1.8781E-01   1.9237E-01   1.1244E-04  0.0197
   1.9237E-01   1.9706E-01   1.2212E-04  0.0187
   1.9706E-01   2.0185E-01   1.2318E-04  0.0184
   2.0185E-01   2.0676E-01   1.2270E-04  0.0182
   2.0676E-01   2.1179E-01   1.2412E-04  0.0179
   2.1179E-01   2.1694E-01   1.2272E-04  0.0178
   2.1694E-01   2.2222E-01   1.2602E-04  0.0173
   2.2222E-01   2.2763E-01   1.2917E-04  0.0169
   2.2763E-01   2.3317E-01   1.2747E-04  0.0168
   2.3317E-01   2.3884E-01   1.2991E-04  0.0165
   2.3884E-01   2.4465E-01   1.2748E-04  0.0164
   2.4465E-01   2.5061E-01   1.3046E-04  0.0160
   2.5061E-01   2.5670E-01   1.2937E-04  0.0159
   2.5670E-01   2.6295E-01   1.3174E-04  0.0156
   2.6295E-01   2.6935E-01   1.3283E-04  0.0153
   2.6935E-01   2.7590E-01   1.3489E-04  0.0150
   2.7590E-01   2.8261E-01   1.3628E-04  0.0148
   2.8261E-01   2.8949E-01   1.3906E-04  0.0145
   2.8949E-01   2.9653E-01   1.3845E-04  0.0143
   2.9653E-01   3.0375E-01   1.4143E-04  0.0140
   3.0375E-01   3.1114E-01   1.4067E-04  0.0139
   3.1114E-01   3.1871E-01   1.3529E-04  0.0140
   3.1871E-01   3.2646E-01   1.3992E-04  0.0136
   3.2646E-01   3.3441E-01   1.4166E-04  0.0133
   3.3441E-01   3.4254E-01   1.4176E-04  0.0132
   3.4254E-01   3.5088E-01   1.4667E-04  0.0128
   3.5088E-01   3.5941E-01   1.4293E-04  0.0128
   3.5941E-01   3.6816E-01   1.4745E-04  0.0125
   3.6816E-01   3.7712E-01   1.4495E-04  0.0124
   3.7712E-01   3.8629E-01   1.4404E-04  0.0123
   3.8629E-01   3.9569E-01   1.4893E-04  0.0120
   3.9569E-01   4.0532E-01   1.4698E-04  0.0119
   4.0532E-01   4.1518E-01   1.4679E-04  0.0118
   4.1518E-01   4.2528E-01   1.4855E-04  0.0115
   4.2528E-01   4.3563E-01   1.4943E-04  0.0114
   4.3563E-01   4.4623E-01   1.4701E-04  0.0113
   4.4623E-01   4.5708E-01   1.4586E-04  0.0112
   4.5708E-01   4.6821E-01   1.4630E-04  0.0111
   4.6821E-01   4.7960E-01   1.4688E-04  0.0109
   4.7960E-01   4.9127E-01   1.4675E-04  0.0108
   4.9127E-01   5.0322E-01   1.4758E-04  0.0106
   5.0322E-01   5.1546E-01   1.5131E-04  0.0104
   5.1546E-01   5.2800E-01   1.4692E-04  0.0104
   5.2800E-01   5.4085E-01   1.4737E-04  0.0103
   5.4085E-01   5.5401E-01   1.4987E-04  0.0101
   5.5401E-01   5.6749E-01   1.4846E-04  0.0100
   5.6749E-01   5.8130E-01   1.4921E-04  0.0099
   5.8130E-01   5.9544E-01   1.4617E-04  0.0098
   5.9544E-01   6.0993E-01   1.4766E-04  0.0097
   6.0993E-01   6.2477E-01   1.4468E-04  0.0097
   6.2477E-01   6.3997E-01   1.4519E-04  0.0095
   6.3997E-01   6.5554E-01   1.4490E-04  0.0094
   6.5554E-01   6.7149E-01   1.4447E-04  0.0093
   6.7149E-01   6.8783E-01   1.4392E-04  0.0092
   6.8783E-01   7.0456E-01   1.3995E-04  0.0092
   7.0456E-01   7.2171E-01   1.4219E-04  0.0091
   7.2171E-01   7.3927E-01   1.4074E-04  0.0090
   7.3927E-01   7.5725E-01   1.3952E-04  0.0089
   7.5725E-01   7.7568E-01   1.3592E-04  0.0089
   7.7568E-01   7.9455E-01   1.3726E-04  0.0088
   7.9455E-01   8.1388E-01   1.3649E-04  0.0087
   8.1388E-01   8.3368E-01   1.3205E-04  0.0087
   8.3368E-01   8.5397E-01   1.3313E-04  0.0086
   8.5397E-01   8.7475E-01   1.2940E-04  0.0086
   8.7475E-01   8.9603E-01   1.2607E-04  0.0086
   8.9603E-01   9.1783E-01   1.2730E-04  0.0085
   9.1783E-01   9.4016E-01   1.2491E-04  0.0085
   9.4016E-01   9.6304E-01   1.2041E-04  0.0085
   9.6304E-01   9.8647E-01   1.1534E-04  0.0086
   9.8647E-01   1.0105E+00   1.0861E-04  0.0088
   1.0105E+00   1.0351E+00   1.0571E-04  0.0088
   1.0351E+00   1.0602E+00   1.0279E-04  0.0088
   1.0602E+00   1.0860E+00   9.9657E-05  0.0088
   1.0860E+00   1.1125E+00   9.9500E-05  0.0087
   1.1125E+00   1.1395E+00   9.4491E-05  0.0088
   1.1395E+00   1.1673E+00   9.4591E-05  0.0087
   1.1673E+00   1.1957E+00   9.2978E-05  0.0087
   1.1957E+00   1.2247E+00   9.1079E-05  0.0087
   1.2247E+00   1.2545E+00   8.8338E-05  0.0087
   1.2545E+00   1.2851E+00   8.5205E-05  0.0088
   1.2851E+00   1.3163E+00   8.3392E-05  0.0088
   1.3163E+00   1.3484E+00   8.0687E-05  0.0088
   1.3484E+00   1.3812E+00   7.8319E-05  0.0088
   1.3812E+00   1.4148E+00   7.4620E-05  0.0089
   1.4148E+00   1.4492E+00   7.2911E-05  0.0089
   1.4492E+00   1.4845E+00   7.0879E-05  0.0089
   1.4845E+00   1.5206E+00   6.7866E-05  0.0090
   1.5206E+00   1.5576E+00   6.4871E-05  0.0091
   1.5576E+00   1.5955E+00   6.2364E-05  0.0092
   1.5955E+00   1.6343E+00   5.9837E-05  0.0093
   1.6343E+00   1.6741E+00   5.7399E-05  0.0094
   1.6741E+00   1.7148E+00   5.4578E-05  0.0095
   1.7148E+00   1.7565E+00   5.1498E-05  0.0097
   1.7565E+00   1.7992E+00   4.8927E-05  0.0098
   1.7992E+00   1.8430E+00   4.7395E-05  0.0098
   1.8430E+00   1.8879E+00   4.5096E-05  0.0099
   1.8879E+00   1.9338E+00   4.2005E-05  0.0102
   1.9338E+00   1.9808E+00   4.0169E-05  0.0103
   1.9808E+00   2.0290E+00   3.7560E-05  0.0105
   2.0290E+00   2.0784E+00   3.5570E-05  0.0107
   2.0784E+00   2.1290E+00   3.3866E-05  0.0108
   2.1290E+00   2.1808E+00   3.1888E-05  0.0110
   2.1808E+00   2.2338E+00   2.9646E-05  0.0113
   2.2338E+00   2.2882E+00   2.7252E-05  0.0116
   2.2882E+00   2.3439E+00   2.5775E-05  0.0118
   2.3439E+00   2.4009E+00   2.4833E-05  0.0119
   2.4009E+00   2.4593E+00   2.3076E-05  0.0122
   2.4593E+00   2.5191E+00   2.1656E-05  0.0124
   2.5191E+00   2.5804E+00   2.0126E-05  0.0127
   2.5804E+00   2.6432E+00   1.8629E-05  0.0131
   2.6432E+00   2.7075E+00   1.7543E-05  0.0133
   2.7075E+00   2.7734E+00   1.5903E-05  0.0138
   2.7734E+00   2.8409E+00   1.5178E-05  0.0140
   2.8409E+00   2.9100E+00   1.4071E-05  0.0143
   2.9100E+00   2.9808E+00   1.2466E-05  0.0151
   2.9808E+00   3.0533E+00   1.1814E-05  0.0153
   3.0533E+00   3.1276E+00   1.0927E-05  0.0157
   3.1276E+00   3.2037E+00   9.9346E-06  0.0163
   3.2037E+00   3.2817E+00   9.3163E-06  0.0166
   3.2817E+00   3.3615E+00   8.8796E-06  0.0168
   3.3615E+00   3.4433E+00   8.1723E-06  0.0173
   3.4433E+00   3.5271E+00   7.2883E-06  0.0181
   3.5271E+00   3.6129E+00   6.8099E-06  0.0185
   3.6129E+00   3.7008E+00   6.1544E-06  0.0192
   3.7008E+00   3.7908E+00   5.6395E-06  0.0198
   3.7908E+00   3.8831E+00   5.2995E-06  0.0202
   3.8831E+00   3.9776E+00   4.8244E-06  0.0209
   3.9776E+00   4.0743E+00   4.2923E-06  0.0219
   4.0743E+00   4.1735E+00   4.1359E-06  0.0221
   4.1735E+00   4.2750E+00   3.7147E-06  0.0230
   4.2750E+00   4.3790E+00   3.4514E-06  0.0236
   4.3790E+00   4.4856E+00   3.0804E-06  0.0247
   4.4856E+00   4.5947E+00   2.8093E-06  0.0255
   4.5947E+00   4.7065E+00   2.5422E-06  0.0265
   4.7065E+00   4.8210E+00   2.4521E-06  0.0267
   4.8210E+00   4.9383E+00   2.1262E-06  0.0283
   4.9383E+00   5.0585E+00   1.8360E-06  0.0301
   5.0585E+00   5.1815E+00   1.7583E-06  0.0304
   5.1815E+00   5.3076E+00   1.6308E-06  0.0312
   5.3076E+00   5.4368E+00   1.4512E-06  0.0327
   5.4368E+00   5.5690E+00   1.2232E-06  0.0352
   5.5690E+00   5.7045E+00   1.0923E-06  0.0368
   5.7045E+00   5.8433E+00   1.0634E-06  0.0368
   5.8433E+00   5.9855E+00   9.5377E-07  0.0384
   5.9855E+00   6.1311E+00   8.2811E-07  0.0407
   6.1311E+00   6.2803E+00   7.8967E-07  0.0412
   6.2803E+00   6.4331E+00   7.0286E-07  0.0432
   6.4331E+00   6.5896E+00   6.0438E-07  0.0460
   6.5896E+00   6.7500E+00   5.6259E-07  0.0471
   6.7500E+00   6.9142E+00   5.2852E-07  0.0480
   6.9142E+00   7.0824E+00   4.8624E-07  0.0494
   7.0824E+00   7.2548E+00   4.1202E-07  0.0531
   7.2548E+00   7.4313E+00   3.5691E-07  0.0563
   7.4313E+00   7.6121E+00   3.7719E-07  0.0542
   7.6121E+00   7.7973E+00   3.0236E-07  0.0598
   7.7973E+00   7.9870E+00   2.9413E-07  0.0599
   7.9870E+00   8.1813E+00   2.7685E-07  0.0610
   8.1813E+00   8.3804E+00   2.2606E-07  0.0667
   8.3804E+00   8.5843E+00   2.1824E-07  0.0670
   8.5843E+00   8.7931E+00   1.8625E-07  0.0717
   8.7931E+00   9.0071E+00   1.8369E-07  0.0713
   9.0071E+00   9.2262E+00   1.7020E-07  0.0732
   9.2262E+00   9.4507E+00   1.4478E-07  0.0784
   9.4507E+00   9.6807E+00   1.4786E-07  0.0767
   9.6807E+00   9.9162E+00   1.3586E-07  0.0791
   9.9162E+00   1.0157E+01   1.1315E-07  0.0855
   1.0157E+01   1.0405E+01   1.2220E-07  0.0811
   1.0405E+01   1.0658E+01   9.4410E-08  0.0914
   1.0658E+01   1.0917E+01   1.0759E-07  0.0846
   1.0917E+01   1.1183E+01   8.5837E-08  0.0937
   1.1183E+01   1.1455E+01   9.4824E-08  0.0880
   1.1455E+01   1.1733E+01   8.3960E-08  0.0925
   1.1733E+01   1.2019E+01   8.4418E-08  0.0910
   1.2019E+01   1.2311E+01   7.9335E-08  0.0928
   1.2311E+01   1.2611E+01   7.8118E-08  0.0923
   1.2611E+01   1.2918E+01   7.3655E-08  0.0939
   1.2918E+01   1.3232E+01   6.0452E-08  0.1026
   1.3232E+01   1.3554E+01   7.1130E-08  0.0934
   1.3554E+01   1.3884E+01   6.1859E-08  0.0990
   1.3884E+01   1.4222E+01   7.2823E-08  0.0902
   1.4222E+01   1.4568E+01   5.0864E-08  0.1063
   1.4568E+01   1.4922E+01   4.9091E-08  0.1072
   1.4922E+01   1.5285E+01   4.7925E-08  0.1072
   1.5285E+01   1.5657E+01   5.2165E-08  0.1015
   1.5657E+01   1.6038E+01   5.0926E-08  0.1015
   1.6038E+01   1.6428E+01   4.3565E-08  0.1085
   1.6428E+01   1.6828E+01   4.8535E-08  0.1015
   1.6828E+01   1.7237E+01   3.7613E-08  0.1140
   1.7237E+01   1.7657E+01   2.8851E-08  0.1283
   1.7657E+01   1.8086E+01   3.9106E-08  0.1091
   1.8086E+01   1.8526E+01   2.7724E-08  0.1280
   1.8526E+01   1.8977E+01   2.2185E-08  0.1414
   1.8977E+01   1.9439E+01   2.8155E-08  0.1240
   1.9439E+01   1.9912E+01   2.7063E-08  0.1250
   1.9912E+01   2.0396E+01   1.9815E-08  0.1443
   2.0396E+01   2.0893E+01   1.8136E-08  0.1491
   2.0893E+01   2.1401E+01   1.7705E-08  0.1491
   2.1401E+01   2.1922E+01   1.8821E-08  0.1429
   2.1922E+01   2.2455E+01   1.3874E-08  0.1644
   2.2455E+01   2.3001E+01   1.8303E-08  0.1414
   2.3001E+01   2.3561E+01   1.7154E-08  0.1443
   2.3561E+01   2.4134E+01   1.5700E-08  0.1491
   2.4134E+01   2.4721E+01   9.8773E-09  0.1857
   2.4721E+01   2.5323E+01   9.9752E-09  0.1826
   2.5323E+01   2.5939E+01   7.7906E-09  0.2041
   2.5939E+01   2.6570E+01   5.3873E-09  0.2425
   2.6570E+01   2.7217E+01   8.0436E-09  0.1961
   2.7217E+01   2.7879E+01   5.1344E-09  0.2425
   2.7879E+01   2.8557E+01   5.3073E-09  0.2357
   2.8557E+01   2.9252E+01   4.8934E-09  0.2425
   2.9252E+01   2.9964E+01   2.2481E-09  0.3536
   2.9964E+01   3.0693E+01   3.0177E-09  0.3015
   3.0693E+01   3.1440E+01   2.4103E-09  0.3333
   3.1440E+01   3.2205E+01   2.6146E-09  0.3162
   3.2205E+01   3.2988E+01   7.6573E-10  0.5774
   3.2988E+01   3.3791E+01   4.9836E-10  0.7071
   3.3791E+01   3.4613E+01   7.2979E-10  0.5774
   3.4613E+01   3.5455E+01   7.1246E-10  0.5774
   3.5455E+01   3.6318E+01   2.3184E-10  1.0000
   3.6318E+01   3.7201E+01   1.1317E-09  0.4472
   3.7201E+01   3.8106E+01   0.0000E+00  0.0000
   3.8106E+01   3.9034E+01   0.0000E+00  0.0000
   3.9034E+01   3.9983E+01   0.0000E+00  0.0000
   3.9983E+01   4.0956E+01   0.0000E+00  0.0000
   4.0956E+01   4.1953E+01   0.0000E+00  0.0000
   4.1953E+01   4.2973E+01   0.0000E+00  0.0000
   4.2973E+01   4.4019E+01   0.0000E+00  0.0000
   4.4019E+01   4.5090E+01   0.0000E+00  0.0000
   4.5090E+01   4.6187E+01   0.0000E+00  0.0000
   4.6187E+01   4.7311E+01   0.0000E+00  0.0000
   4.7311E+01   4.8462E+01   0.0000E+00  0.0000
   4.8462E+01   4.9641E+01   0.0000E+00  0.0000
   4.9641E+01   5.0849E+01   0.0000E+00  0.0000
   5.0849E+01   5.2086E+01   0.0000E+00  0.0000
   5.2086E+01   5.3353E+01   0.0000E+00  0.0000
   5.3353E+01   5.4651E+01   0.0000E+00  0.0000
   5.4651E+01   5.5981E+01   0.0000E+00  0.0000
   5.5981E+01   5.7343E+01   0.0000E+00  0.0000
   5.7343E+01   5.8738E+01   0.0000E+00  0.0000
   5.8738E+01   6.0168E+01   0.0000E+00  0.0000
   6.0168E+01   6.1632E+01   0.0000E+00  0.0000
   6.1632E+01   6.3131E+01   0.0000E+00  0.0000
   6.3131E+01   6.4667E+01   0.0000E+00  0.0000
   6.4667E+01   6.6240E+01   0.0000E+00  0.0000
   6.6240E+01   6.7852E+01   0.0000E+00  0.0000
   6.7852E+01   6.9503E+01   0.0000E+00  0.0000
   6.9503E+01   7.1194E+01   0.0000E+00  0.0000
   7.1194E+01   7.2926E+01   0.0000E+00  0.0000
   7.2926E+01   7.4701E+01   0.0000E+00  0.0000
   7.4701E+01   7.6518E+01   0.0000E+00  0.0000
   7.6518E+01   7.8380E+01   0.0000E+00  0.0000
   7.8380E+01   8.0287E+01   0.0000E+00  0.0000
   8.0287E+01   8.2240E+01   0.0000E+00  0.0000
   8.2240E+01   8.4241E+01   0.0000E+00  0.0000
   8.4241E+01   8.6291E+01   0.0000E+00  0.0000
   8.6291E+01   8.8391E+01   0.0000E+00  0.0000
   8.8391E+01   9.0541E+01   0.0000E+00  0.0000
   9.0541E+01   9.2744E+01   0.0000E+00  0.0000
   9.2744E+01   9.5001E+01   0.0000E+00  0.0000
   9.5001E+01   9.7312E+01   0.0000E+00  0.0000
   9.7312E+01   9.9680E+01   0.0000E+00  0.0000
   9.9680E+01   1.0211E+02   0.0000E+00  0.0000
   1.0211E+02   1.0459E+02   0.0000E+00  0.0000
   1.0459E+02   1.0713E+02   0.0000E+00  0.0000
   1.0713E+02   1.0974E+02   0.0000E+00  0.0000
   1.0974E+02   1.1241E+02   0.0000E+00  0.0000
   1.1241E+02   1.1515E+02   0.0000E+00  0.0000
   1.1515E+02   1.1795E+02   0.0000E+00  0.0000
   1.1795E+02   1.2082E+02   0.0000E+00  0.0000
   1.2082E+02   1.2376E+02   0.0000E+00  0.0000
   1.2376E+02   1.2677E+02   0.0000E+00  0.0000
   1.2677E+02   1.2985E+02   0.0000E+00  0.0000
   1.2985E+02   1.3301E+02   0.0000E+00  0.0000
   1.3301E+02   1.3625E+02   0.0000E+00  0.0000
   1.3625E+02   1.3956E+02   0.0000E+00  0.0000
   1.3956E+02   1.4296E+02   0.0000E+00  0.0000
   1.4296E+02   1.4644E+02   0.0000E+00  0.0000
   1.4644E+02   1.5000E+02   0.0000E+00  0.0000

#   sum over                 1.5520E-06
'no. =    1   reg = 121 - 221'
msuc: {\huge [t-cross] in region mesh}
msdr: {\it plotted by \ANGEL \version}
msdl: {\it calculated by \PHITS  3.26}
wt: s(0.7)
\vspace{-3}
  region surface crossing
  area  &=&   1.0000E+00 [cm^2]
e:
 
# Information for Restart Calculation
# This calculation was newly started
# istdev =  2 # 1:Batch variance, 2:History variance
# resc2  = 5.00000000000000000E+09 # Total source weight or Total source weight / maxcas
# resc3  = 5.00000000000000000E+09 # Total history number or Total batch number
# maxcas =   500000000 # History / Batch, only used for istdev=1
# bitrseed = 0110100000100010111000001110001111001110100100011111101000111001 # bit data of rseed
