[ T-Cross ]
    title = [t-cross] in region mesh
     mesh =  reg            # mesh type is region-wise
      reg =    1            # number of crossing regions
      non     r-from    r-to       area
      1       119       219        1.000000    
   e-type =    3            # e-mesh is log given by emin, emax and ne
     emin =  1.0000000E-02  # minimum value of e-mesh points
     emax =   150.0000      # maximum value of e-mesh points
#    edel =  2.4039514E-02  # mesh width of e-mesh points
       ne =    400          # number of e-mesh points
#    data = ( e(i), i = 1, ne + 1 )
#           1.00000E-02  1.02433E-02  1.04925E-02  1.07478E-02  1.10093E-02
#           1.12772E-02  1.15516E-02  1.18326E-02  1.21205E-02  1.24154E-02
#           1.27175E-02  1.30269E-02  1.33439E-02  1.36686E-02  1.40011E-02
#           1.43418E-02  1.46907E-02  1.50482E-02  1.54143E-02  1.57894E-02
#           1.61735E-02  1.65670E-02  1.69701E-02  1.73830E-02  1.78060E-02
#           1.82392E-02  1.86830E-02  1.91375E-02  1.96032E-02  2.00801E-02
#           2.05687E-02  2.10692E-02  2.15818E-02  2.21069E-02  2.26448E-02
#           2.31957E-02  2.37601E-02  2.43382E-02  2.49304E-02  2.55369E-02
#           2.61583E-02  2.67947E-02  2.74467E-02  2.81145E-02  2.87985E-02
#           2.94992E-02  3.02169E-02  3.09521E-02  3.17052E-02  3.24766E-02
#           3.32668E-02  3.40762E-02  3.49053E-02  3.57546E-02  3.66246E-02
#           3.75157E-02  3.84284E-02  3.93634E-02  4.03212E-02  4.13022E-02
#           4.23071E-02  4.33365E-02  4.43909E-02  4.54710E-02  4.65773E-02
#           4.77106E-02  4.88714E-02  5.00605E-02  5.12785E-02  5.25262E-02
#           5.38042E-02  5.51133E-02  5.64542E-02  5.78278E-02  5.92348E-02
#           6.06760E-02  6.21523E-02  6.36645E-02  6.52135E-02  6.68002E-02
#           6.84255E-02  7.00904E-02  7.17957E-02  7.35426E-02  7.53319E-02
#           7.71648E-02  7.90423E-02  8.09655E-02  8.29354E-02  8.49533E-02
#           8.70203E-02  8.91376E-02  9.13064E-02  9.35279E-02  9.58035E-02
#           9.81345E-02  1.00522E-01  1.02968E-01  1.05473E-01  1.08040E-01
#           1.10668E-01  1.13361E-01  1.16119E-01  1.18944E-01  1.21838E-01
#           1.24803E-01  1.27839E-01  1.30950E-01  1.34136E-01  1.37399E-01
#           1.40742E-01  1.44167E-01  1.47675E-01  1.51268E-01  1.54948E-01
#           1.58718E-01  1.62580E-01  1.66535E-01  1.70587E-01  1.74738E-01
#           1.78989E-01  1.83344E-01  1.87805E-01  1.92375E-01  1.97055E-01
#           2.01850E-01  2.06761E-01  2.11792E-01  2.16945E-01  2.22223E-01
#           2.27630E-01  2.33169E-01  2.38842E-01  2.44653E-01  2.50605E-01
#           2.56703E-01  2.62949E-01  2.69346E-01  2.75900E-01  2.82613E-01
#           2.89489E-01  2.96532E-01  3.03747E-01  3.11138E-01  3.18708E-01
#           3.26462E-01  3.34405E-01  3.42542E-01  3.50876E-01  3.59413E-01
#           3.68158E-01  3.77116E-01  3.86291E-01  3.95690E-01  4.05317E-01
#           4.15179E-01  4.25281E-01  4.35628E-01  4.46227E-01  4.57084E-01
#           4.68205E-01  4.79597E-01  4.91266E-01  5.03219E-01  5.15463E-01
#           5.28005E-01  5.40851E-01  5.54011E-01  5.67490E-01  5.81298E-01
#           5.95441E-01  6.09929E-01  6.24769E-01  6.39970E-01  6.55541E-01
#           6.71491E-01  6.87828E-01  7.04564E-01  7.21706E-01  7.39266E-01
#           7.57253E-01  7.75678E-01  7.94551E-01  8.13883E-01  8.33685E-01
#           8.53969E-01  8.74747E-01  8.96030E-01  9.17831E-01  9.40163E-01
#           9.63038E-01  9.86469E-01  1.01047E+00  1.03506E+00  1.06024E+00
#           1.08604E+00  1.11246E+00  1.13953E+00  1.16725E+00  1.19565E+00
#           1.22474E+00  1.25454E+00  1.28507E+00  1.31633E+00  1.34836E+00
#           1.38117E+00  1.41477E+00  1.44920E+00  1.48446E+00  1.52057E+00
#           1.55757E+00  1.59547E+00  1.63429E+00  1.67405E+00  1.71478E+00
#           1.75650E+00  1.79924E+00  1.84302E+00  1.88786E+00  1.93379E+00
#           1.98084E+00  2.02904E+00  2.07841E+00  2.12898E+00  2.18078E+00
#           2.23384E+00  2.28819E+00  2.34386E+00  2.40089E+00  2.45930E+00
#           2.51914E+00  2.58043E+00  2.64322E+00  2.70753E+00  2.77341E+00
#           2.84088E+00  2.91001E+00  2.98081E+00  3.05333E+00  3.12762E+00
#           3.20372E+00  3.28167E+00  3.36152E+00  3.44330E+00  3.52708E+00
#           3.61290E+00  3.70080E+00  3.79085E+00  3.88308E+00  3.97756E+00
#           4.07434E+00  4.17347E+00  4.27501E+00  4.37903E+00  4.48557E+00
#           4.59471E+00  4.70650E+00  4.82102E+00  4.93832E+00  5.05847E+00
#           5.18155E+00  5.30762E+00  5.43676E+00  5.56904E+00  5.70453E+00
#           5.84333E+00  5.98550E+00  6.13114E+00  6.28031E+00  6.43312E+00
#           6.58964E+00  6.74997E+00  6.91420E+00  7.08243E+00  7.25475E+00
#           7.43126E+00  7.61207E+00  7.79728E+00  7.98700E+00  8.18133E+00
#           8.38038E+00  8.58428E+00  8.79315E+00  9.00709E+00  9.22624E+00
#           9.45072E+00  9.68067E+00  9.91620E+00  1.01575E+01  1.04046E+01
#           1.06578E+01  1.09171E+01  1.11827E+01  1.14548E+01  1.17335E+01
#           1.20190E+01  1.23114E+01  1.26109E+01  1.29178E+01  1.32321E+01
#           1.35540E+01  1.38838E+01  1.42216E+01  1.45676E+01  1.49221E+01
#           1.52851E+01  1.56570E+01  1.60380E+01  1.64282E+01  1.68279E+01
#           1.72374E+01  1.76568E+01  1.80864E+01  1.85264E+01  1.89772E+01
#           1.94389E+01  1.99119E+01  2.03963E+01  2.08926E+01  2.14009E+01
#           2.19216E+01  2.24550E+01  2.30014E+01  2.35610E+01  2.41343E+01
#           2.47215E+01  2.53230E+01  2.59391E+01  2.65702E+01  2.72167E+01
#           2.78789E+01  2.85572E+01  2.92520E+01  2.99637E+01  3.06928E+01
#           3.14396E+01  3.22045E+01  3.29881E+01  3.37907E+01  3.46128E+01
#           3.54550E+01  3.63177E+01  3.72013E+01  3.81064E+01  3.90336E+01
#           3.99833E+01  4.09561E+01  4.19526E+01  4.29734E+01  4.40189E+01
#           4.50900E+01  4.61870E+01  4.73108E+01  4.84619E+01  4.96410E+01
#           5.08488E+01  5.20860E+01  5.33533E+01  5.46514E+01  5.59812E+01
#           5.73432E+01  5.87384E+01  6.01676E+01  6.16315E+01  6.31311E+01
#           6.46671E+01  6.62405E+01  6.78522E+01  6.95031E+01  7.11941E+01
#           7.29263E+01  7.47007E+01  7.65182E+01  7.83800E+01  8.02870E+01
#           8.22405E+01  8.42414E+01  8.62911E+01  8.83906E+01  9.05412E+01
#           9.27442E+01  9.50007E+01  9.73122E+01  9.96799E+01  1.02105E+02
#           1.04589E+02  1.07134E+02  1.09741E+02  1.12411E+02  1.15146E+02
#           1.17948E+02  1.20817E+02  1.23757E+02  1.26768E+02  1.29852E+02
#           1.33012E+02  1.36248E+02  1.39563E+02  1.42959E+02  1.46437E+02
#           1.50000E+02
     unit =    2            # unit is [1/cm^2/(MeV/n)/source]
     axis =  eng            # axis of output
     file = detector-20.out  # file name of output for the above axis
   output = f-curr          # surface crossing forward current spectrum
     part =  neutron  
# kf/name :  2112     
#    used :        main (  %)        temp (  %)       total (  %)
#  memory :         414 (  0)           0 (  0)         414 (  0)

#------------------------------------------------------------------------------
#newpage:
#   no. =    1   reg = 119 - 219

x: Energy [MeV/n]
y:  F-Curr [1/cm^2/(MeV/n)/source]         
p: xlog ylog afac(0.8) form(0.9)
h: n            x            y(neutron ),hh0l   n 
#  e-lower      e-upper      neutron     r.err 
   1.0000E-02   1.0243E-02   2.8195E-04  0.0540
   1.0243E-02   1.0493E-02   2.9772E-04  0.0519
   1.0493E-02   1.0748E-02   3.2355E-04  0.0492
   1.0748E-02   1.1009E-02   2.9828E-04  0.0506
   1.1009E-02   1.1277E-02   3.2031E-04  0.0483
   1.1277E-02   1.1552E-02   2.7698E-04  0.0513
   1.1552E-02   1.1833E-02   3.0100E-04  0.0486
   1.1833E-02   1.2121E-02   3.2512E-04  0.0462
   1.2121E-02   1.2415E-02   2.9569E-04  0.0479
   1.2415E-02   1.2718E-02   3.0985E-04  0.0462
   1.2718E-02   1.3027E-02   3.0314E-04  0.0462
   1.3027E-02   1.3344E-02   3.0162E-04  0.0457
   1.3344E-02   1.3669E-02   2.9384E-04  0.0458
   1.3669E-02   1.4001E-02   3.1633E-04  0.0436
   1.4001E-02   1.4342E-02   2.9472E-04  0.0446
   1.4342E-02   1.4691E-02   3.2326E-04  0.0421
   1.4691E-02   1.5048E-02   3.2957E-04  0.0412
   1.5048E-02   1.5414E-02   3.1082E-04  0.0419
   1.5414E-02   1.5789E-02   3.1570E-04  0.0411
   1.5789E-02   1.6174E-02   3.0976E-04  0.0410
   1.6174E-02   1.6567E-02   3.1155E-04  0.0404
   1.6567E-02   1.6970E-02   3.2003E-04  0.0394
   1.6970E-02   1.7383E-02   3.2260E-04  0.0387
   1.7383E-02   1.7806E-02   3.3291E-04  0.0377
   1.7806E-02   1.8239E-02   3.4208E-04  0.0367
   1.8239E-02   1.8683E-02   3.2629E-04  0.0372
   1.8683E-02   1.9138E-02   3.3218E-04  0.0364
   1.9138E-02   1.9603E-02   3.4749E-04  0.0352
   1.9603E-02   2.0080E-02   3.4468E-04  0.0349
   2.0080E-02   2.0569E-02   3.3281E-04  0.0351
   2.0569E-02   2.1069E-02   3.6127E-04  0.0333
   2.1069E-02   2.1582E-02   3.5581E-04  0.0331
   2.1582E-02   2.2107E-02   3.6260E-04  0.0324
   2.2107E-02   2.2645E-02   3.5175E-04  0.0325
   2.2645E-02   2.3196E-02   3.7643E-04  0.0311
   2.3196E-02   2.3760E-02   3.3630E-04  0.0325
   2.3760E-02   2.4338E-02   3.5357E-04  0.0313
   2.4338E-02   2.4930E-02   3.6881E-04  0.0303
   2.4930E-02   2.5537E-02   3.7852E-04  0.0295
   2.5537E-02   2.6158E-02   3.9013E-04  0.0287
   2.6158E-02   2.6795E-02   3.7583E-04  0.0289
   2.6795E-02   2.7447E-02   3.8562E-04  0.0282
   2.7447E-02   2.8114E-02   3.9084E-04  0.0277
   2.8114E-02   2.8799E-02   3.8360E-04  0.0276
   2.8799E-02   2.9499E-02   3.8419E-04  0.0273
   2.9499E-02   3.0217E-02   3.9569E-04  0.0265
   3.0217E-02   3.0952E-02   4.0288E-04  0.0260
   3.0952E-02   3.1705E-02   3.8959E-04  0.0261
   3.1705E-02   3.2477E-02   4.1249E-04  0.0251
   3.2477E-02   3.3267E-02   4.2041E-04  0.0245
   3.3267E-02   3.4076E-02   4.2426E-04  0.0241
   3.4076E-02   3.4905E-02   4.2190E-04  0.0239
   3.4905E-02   3.5755E-02   4.2318E-04  0.0236
   3.5755E-02   3.6625E-02   4.3727E-04  0.0229
   3.6625E-02   3.7516E-02   4.3699E-04  0.0227
   3.7516E-02   3.8428E-02   4.3230E-04  0.0225
   3.8428E-02   3.9363E-02   4.3957E-04  0.0221
   3.9363E-02   4.0321E-02   4.2245E-04  0.0222
   4.0321E-02   4.1302E-02   4.3749E-04  0.0216
   4.1302E-02   4.2307E-02   4.5476E-04  0.0209
   4.2307E-02   4.3337E-02   4.5368E-04  0.0207
   4.3337E-02   4.4391E-02   4.6149E-04  0.0203
   4.4391E-02   4.5471E-02   4.6645E-04  0.0199
   4.5471E-02   4.6577E-02   4.5248E-04  0.0200
   4.6577E-02   4.7711E-02   4.7350E-04  0.0193
   4.7711E-02   4.8871E-02   4.6656E-04  0.0192
   4.8871E-02   5.0061E-02   4.7903E-04  0.0187
   5.0061E-02   5.1279E-02   4.8193E-04  0.0185
   5.1279E-02   5.2526E-02   4.8363E-04  0.0182
   5.2526E-02   5.3804E-02   4.9108E-04  0.0179
   5.3804E-02   5.5113E-02   4.9759E-04  0.0175
   5.5113E-02   5.6454E-02   4.8786E-04  0.0175
   5.6454E-02   5.7828E-02   4.9433E-04  0.0172
   5.7828E-02   5.9235E-02   5.0107E-04  0.0168
   5.9235E-02   6.0676E-02   5.0637E-04  0.0166
   6.0676E-02   6.2152E-02   5.2449E-04  0.0161
   6.2152E-02   6.3665E-02   5.0654E-04  0.0162
   6.3665E-02   6.5214E-02   5.1246E-04  0.0159
   6.5214E-02   6.6800E-02   5.1881E-04  0.0156
   6.6800E-02   6.8426E-02   5.3615E-04  0.0151
   6.8426E-02   7.0090E-02   5.2401E-04  0.0151
   7.0090E-02   7.1796E-02   5.4687E-04  0.0146
   7.1796E-02   7.3543E-02   5.4922E-04  0.0144
   7.3543E-02   7.5332E-02   5.6154E-04  0.0141
   7.5332E-02   7.7165E-02   5.5770E-04  0.0140
   7.7165E-02   7.9042E-02   5.6001E-04  0.0138
   7.9042E-02   8.0965E-02   5.6397E-04  0.0136
   8.0965E-02   8.2935E-02   5.6448E-04  0.0134
   8.2935E-02   8.4953E-02   5.7367E-04  0.0131
   8.4953E-02   8.7020E-02   5.8065E-04  0.0129
   8.7020E-02   8.9138E-02   5.7754E-04  0.0128
   8.9138E-02   9.1306E-02   5.9646E-04  0.0124
   9.1306E-02   9.3528E-02   6.0534E-04  0.0122
   9.3528E-02   9.5804E-02   5.8630E-04  0.0122
   9.5804E-02   9.8134E-02   6.1073E-04  0.0119
   9.8134E-02   1.0052E-01   6.0209E-04  0.0118
   1.0052E-01   1.0297E-01   5.9629E-04  0.0117
   1.0297E-01   1.0547E-01   6.1526E-04  0.0114
   1.0547E-01   1.0804E-01   6.1740E-04  0.0112
   1.0804E-01   1.1067E-01   6.3142E-04  0.0110
   1.1067E-01   1.1336E-01   6.2370E-04  0.0109
   1.1336E-01   1.1612E-01   6.2549E-04  0.0108
   1.1612E-01   1.1894E-01   6.5056E-04  0.0104
   1.1894E-01   1.2184E-01   6.4678E-04  0.0103
   1.2184E-01   1.2480E-01   6.4586E-04  0.0102
   1.2480E-01   1.2784E-01   6.5647E-04  0.0100
   1.2784E-01   1.3095E-01   6.7669E-04  0.0098
   1.3095E-01   1.3414E-01   6.6602E-04  0.0097
   1.3414E-01   1.3740E-01   6.6772E-04  0.0096
   1.3740E-01   1.4074E-01   6.8070E-04  0.0094
   1.4074E-01   1.4417E-01   6.8059E-04  0.0093
   1.4417E-01   1.4767E-01   6.7862E-04  0.0092
   1.4767E-01   1.5127E-01   6.8889E-04  0.0090
   1.5127E-01   1.5495E-01   6.9078E-04  0.0089
   1.5495E-01   1.5872E-01   7.0281E-04  0.0087
   1.5872E-01   1.6258E-01   7.0631E-04  0.0086
   1.6258E-01   1.6654E-01   7.0349E-04  0.0085
   1.6654E-01   1.7059E-01   7.0682E-04  0.0084
   1.7059E-01   1.7474E-01   7.0285E-04  0.0083
   1.7474E-01   1.7899E-01   7.1128E-04  0.0081
   1.7899E-01   1.8334E-01   7.2483E-04  0.0080
   1.8334E-01   1.8781E-01   7.2420E-04  0.0079
   1.8781E-01   1.9237E-01   7.3379E-04  0.0077
   1.9237E-01   1.9706E-01   7.3836E-04  0.0076
   1.9706E-01   2.0185E-01   7.4377E-04  0.0075
   2.0185E-01   2.0676E-01   7.4434E-04  0.0074
   2.0676E-01   2.1179E-01   7.4766E-04  0.0073
   2.1179E-01   2.1694E-01   7.5404E-04  0.0072
   2.1694E-01   2.2222E-01   7.5704E-04  0.0071
   2.2222E-01   2.2763E-01   7.5280E-04  0.0070
   2.2763E-01   2.3317E-01   7.5191E-04  0.0069
   2.3317E-01   2.3884E-01   7.6557E-04  0.0068
   2.3884E-01   2.4465E-01   7.6593E-04  0.0067
   2.4465E-01   2.5061E-01   7.6131E-04  0.0066
   2.5061E-01   2.5670E-01   7.6242E-04  0.0066
   2.5670E-01   2.6295E-01   7.7326E-04  0.0064
   2.6295E-01   2.6935E-01   7.7052E-04  0.0064
   2.6935E-01   2.7590E-01   7.6369E-04  0.0063
   2.7590E-01   2.8261E-01   7.7499E-04  0.0062
   2.8261E-01   2.8949E-01   7.6621E-04  0.0062
   2.8949E-01   2.9653E-01   7.7405E-04  0.0061
   2.9653E-01   3.0375E-01   7.6880E-04  0.0060
   3.0375E-01   3.1114E-01   7.7389E-04  0.0059
   3.1114E-01   3.1871E-01   7.7366E-04  0.0058
   3.1871E-01   3.2646E-01   7.8157E-04  0.0057
   3.2646E-01   3.3441E-01   7.6613E-04  0.0057
   3.3441E-01   3.4254E-01   7.7448E-04  0.0056
   3.4254E-01   3.5088E-01   7.6493E-04  0.0056
   3.5088E-01   3.5941E-01   7.6941E-04  0.0055
   3.5941E-01   3.6816E-01   7.7621E-04  0.0054
   3.6816E-01   3.7712E-01   7.6110E-04  0.0054
   3.7712E-01   3.8629E-01   7.6990E-04  0.0053
   3.8629E-01   3.9569E-01   7.6310E-04  0.0053
   3.9569E-01   4.0532E-01   7.6103E-04  0.0052
   4.0532E-01   4.1518E-01   7.6062E-04  0.0052
   4.1518E-01   4.2528E-01   7.6120E-04  0.0051
   4.2528E-01   4.3563E-01   7.4611E-04  0.0051
   4.3563E-01   4.4623E-01   7.5064E-04  0.0050
   4.4623E-01   4.5708E-01   7.4300E-04  0.0050
   4.5708E-01   4.6821E-01   7.3139E-04  0.0050
   4.6821E-01   4.7960E-01   7.3721E-04  0.0049
   4.7960E-01   4.9127E-01   7.2913E-04  0.0049
   4.9127E-01   5.0322E-01   7.2657E-04  0.0048
   5.0322E-01   5.1546E-01   7.2008E-04  0.0048
   5.1546E-01   5.2800E-01   7.0975E-04  0.0047
   5.2800E-01   5.4085E-01   7.0889E-04  0.0047
   5.4085E-01   5.5401E-01   7.0001E-04  0.0047
   5.5401E-01   5.6749E-01   6.8994E-04  0.0046
   5.6749E-01   5.8130E-01   6.8487E-04  0.0046
   5.8130E-01   5.9544E-01   6.8085E-04  0.0046
   5.9544E-01   6.0993E-01   6.6935E-04  0.0045
   6.0993E-01   6.2477E-01   6.6202E-04  0.0045
   6.2477E-01   6.3997E-01   6.5260E-04  0.0045
   6.3997E-01   6.5554E-01   6.3825E-04  0.0045
   6.5554E-01   6.7149E-01   6.3653E-04  0.0044
   6.7149E-01   6.8783E-01   6.2015E-04  0.0044
   6.8783E-01   7.0456E-01   6.1704E-04  0.0044
   7.0456E-01   7.2171E-01   6.0280E-04  0.0044
   7.2171E-01   7.3927E-01   5.8969E-04  0.0044
   7.3927E-01   7.5725E-01   5.8218E-04  0.0044
   7.5725E-01   7.7568E-01   5.7127E-04  0.0044
   7.7568E-01   7.9455E-01   5.5701E-04  0.0044
   7.9455E-01   8.1388E-01   5.4299E-04  0.0044
   8.1388E-01   8.3368E-01   5.2884E-04  0.0044
   8.3368E-01   8.5397E-01   5.1678E-04  0.0044
   8.5397E-01   8.7475E-01   5.0189E-04  0.0044
   8.7475E-01   8.9603E-01   4.8555E-04  0.0044
   8.9603E-01   9.1783E-01   4.6798E-04  0.0044
   9.1783E-01   9.4016E-01   4.5291E-04  0.0045
   9.4016E-01   9.6304E-01   4.3280E-04  0.0045
   9.6304E-01   9.8647E-01   4.1297E-04  0.0046
   9.8647E-01   1.0105E+00   3.9257E-04  0.0046
   1.0105E+00   1.0351E+00   3.8155E-04  0.0046
   1.0351E+00   1.0602E+00   3.7426E-04  0.0046
   1.0602E+00   1.0860E+00   3.6804E-04  0.0046
   1.0860E+00   1.1125E+00   3.6025E-04  0.0046
   1.1125E+00   1.1395E+00   3.5560E-04  0.0046
   1.1395E+00   1.1673E+00   3.4756E-04  0.0046
   1.1673E+00   1.1957E+00   3.4245E-04  0.0045
   1.1957E+00   1.2247E+00   3.3870E-04  0.0045
   1.2247E+00   1.2545E+00   3.3064E-04  0.0045
   1.2545E+00   1.2851E+00   3.2401E-04  0.0045
   1.2851E+00   1.3163E+00   3.1280E-04  0.0045
   1.3163E+00   1.3484E+00   3.0524E-04  0.0045
   1.3484E+00   1.3812E+00   2.9537E-04  0.0045
   1.3812E+00   1.4148E+00   2.9072E-04  0.0045
   1.4148E+00   1.4492E+00   2.8111E-04  0.0045
   1.4492E+00   1.4845E+00   2.7035E-04  0.0046
   1.4845E+00   1.5206E+00   2.6110E-04  0.0046
   1.5206E+00   1.5576E+00   2.4918E-04  0.0047
   1.5576E+00   1.5955E+00   2.4016E-04  0.0047
   1.5955E+00   1.6343E+00   2.3182E-04  0.0047
   1.6343E+00   1.6741E+00   2.2006E-04  0.0048
   1.6741E+00   1.7148E+00   2.1377E-04  0.0048
   1.7148E+00   1.7565E+00   2.0480E-04  0.0048
   1.7565E+00   1.7992E+00   1.9616E-04  0.0049
   1.7992E+00   1.8430E+00   1.8517E-04  0.0050
   1.8430E+00   1.8879E+00   1.7529E-04  0.0050
   1.8879E+00   1.9338E+00   1.6752E-04  0.0051
   1.9338E+00   1.9808E+00   1.5950E-04  0.0052
   1.9808E+00   2.0290E+00   1.5121E-04  0.0052
   2.0290E+00   2.0784E+00   1.4404E-04  0.0053
   2.0784E+00   2.1290E+00   1.3574E-04  0.0054
   2.1290E+00   2.1808E+00   1.2575E-04  0.0055
   2.1808E+00   2.2338E+00   1.1973E-04  0.0056
   2.2338E+00   2.2882E+00   1.1013E-04  0.0058
   2.2882E+00   2.3439E+00   1.0354E-04  0.0059
   2.3439E+00   2.4009E+00   9.6707E-05  0.0060
   2.4009E+00   2.4593E+00   9.1798E-05  0.0061
   2.4593E+00   2.5191E+00   8.4881E-05  0.0063
   2.5191E+00   2.5804E+00   7.8430E-05  0.0065
   2.5804E+00   2.6432E+00   7.3028E-05  0.0066
   2.6432E+00   2.7075E+00   6.7593E-05  0.0068
   2.7075E+00   2.7734E+00   6.2156E-05  0.0070
   2.7734E+00   2.8409E+00   5.6880E-05  0.0072
   2.8409E+00   2.9100E+00   5.2557E-05  0.0074
   2.9100E+00   2.9808E+00   4.8625E-05  0.0076
   2.9808E+00   3.0533E+00   4.4975E-05  0.0078
   3.0533E+00   3.1276E+00   4.1175E-05  0.0081
   3.1276E+00   3.2037E+00   3.6963E-05  0.0084
   3.2037E+00   3.2817E+00   3.4746E-05  0.0086
   3.2817E+00   3.3615E+00   3.0887E-05  0.0090
   3.3615E+00   3.4433E+00   2.8146E-05  0.0093
   3.4433E+00   3.5271E+00   2.6057E-05  0.0096
   3.5271E+00   3.6129E+00   2.3114E-05  0.0100
   3.6129E+00   3.7008E+00   2.1073E-05  0.0104
   3.7008E+00   3.7908E+00   1.8800E-05  0.0109
   3.7908E+00   3.8831E+00   1.7189E-05  0.0112
   3.8831E+00   3.9776E+00   1.5659E-05  0.0116
   3.9776E+00   4.0743E+00   1.4069E-05  0.0121
   4.0743E+00   4.1735E+00   1.2557E-05  0.0127
   4.1735E+00   4.2750E+00   1.1707E-05  0.0130
   4.2750E+00   4.3790E+00   1.0316E-05  0.0137
   4.3790E+00   4.4856E+00   9.5490E-06  0.0140
   4.4856E+00   4.5947E+00   8.2172E-06  0.0149
   4.5947E+00   4.7065E+00   7.4262E-06  0.0155
   4.7065E+00   4.8210E+00   6.4202E-06  0.0165
   4.8210E+00   4.9383E+00   5.8653E-06  0.0170
   4.9383E+00   5.0585E+00   5.4530E-06  0.0175
   5.0585E+00   5.1815E+00   4.7369E-06  0.0185
   5.1815E+00   5.3076E+00   4.2722E-06  0.0193
   5.3076E+00   5.4368E+00   3.9043E-06  0.0199
   5.4368E+00   5.5690E+00   3.4245E-06  0.0210
   5.5690E+00   5.7045E+00   2.9816E-06  0.0222
   5.7045E+00   5.8433E+00   2.6370E-06  0.0234
   5.8433E+00   5.9855E+00   2.3491E-06  0.0245
   5.9855E+00   6.1311E+00   2.1039E-06  0.0255
   6.1311E+00   6.2803E+00   1.9594E-06  0.0262
   6.2803E+00   6.4331E+00   1.7312E-06  0.0275
   6.4331E+00   6.5896E+00   1.5014E-06  0.0292
   6.5896E+00   6.7500E+00   1.4146E-06  0.0297
   6.7500E+00   6.9142E+00   1.2689E-06  0.0310
   6.9142E+00   7.0824E+00   1.0856E-06  0.0331
   7.0824E+00   7.2548E+00   9.7696E-07  0.0344
   7.2548E+00   7.4313E+00   9.0613E-07  0.0353
   7.4313E+00   7.6121E+00   8.6138E-07  0.0358
   7.6121E+00   7.7973E+00   8.2029E-07  0.0363
   7.7973E+00   7.9870E+00   6.6858E-07  0.0397
   7.9870E+00   8.1813E+00   6.1994E-07  0.0407
   8.1813E+00   8.3804E+00   5.4198E-07  0.0430
   8.3804E+00   8.5843E+00   5.0636E-07  0.0440
   8.5843E+00   8.7931E+00   4.8070E-07  0.0446
   8.7931E+00   9.0071E+00   3.7860E-07  0.0496
   9.0071E+00   9.2262E+00   3.8376E-07  0.0487
   9.2262E+00   9.4507E+00   3.5549E-07  0.0501
   9.4507E+00   9.6807E+00   3.2530E-07  0.0517
   9.6807E+00   9.9162E+00   2.9974E-07  0.0532
   9.9162E+00   1.0157E+01   2.6485E-07  0.0559
   1.0157E+01   1.0405E+01   2.6058E-07  0.0556
   1.0405E+01   1.0658E+01   2.0541E-07  0.0620
   1.0658E+01   1.0917E+01   1.9436E-07  0.0629
   1.0917E+01   1.1183E+01   2.0179E-07  0.0609
   1.1183E+01   1.1455E+01   1.7789E-07  0.0642
   1.1455E+01   1.1733E+01   1.6648E-07  0.0654
   1.1733E+01   1.2019E+01   1.3346E-07  0.0723
   1.2019E+01   1.2311E+01   1.2242E-07  0.0745
   1.2311E+01   1.2611E+01   1.2786E-07  0.0721
   1.2611E+01   1.2918E+01   9.2232E-08  0.0838
   1.2918E+01   1.3232E+01   8.1133E-08  0.0885
   1.3232E+01   1.3554E+01   8.2001E-08  0.0869
   1.3554E+01   1.3884E+01   7.5505E-08  0.0894
   1.3884E+01   1.4222E+01   6.2166E-08  0.0971
   1.4222E+01   1.4568E+01   4.8552E-08  0.1088
   1.4568E+01   1.4922E+01   4.7398E-08  0.1085
   1.4922E+01   1.5285E+01   3.6082E-08  0.1224
   1.5285E+01   1.5657E+01   4.4367E-08  0.1096
   1.5657E+01   1.6038E+01   2.8613E-08  0.1351
   1.6038E+01   1.6428E+01   2.3833E-08  0.1463
   1.6428E+01   1.6828E+01   2.0515E-08  0.1552
   1.6828E+01   1.7237E+01   1.8318E-08  0.1617
   1.7237E+01   1.7657E+01   1.3352E-08  0.1890
   1.7657E+01   1.8086E+01   1.0475E-08  0.2073
   1.8086E+01   1.8526E+01   1.0908E-08  0.2041
   1.8526E+01   1.8977E+01   4.8806E-09  0.3015
   1.8977E+01   1.9439E+01   5.1978E-09  0.2887
   1.9439E+01   1.9912E+01   1.6915E-09  0.5000
   1.9912E+01   2.0396E+01   2.4769E-09  0.4082
   2.0396E+01   2.0893E+01   0.0000E+00  0.0000
   2.0893E+01   2.1401E+01   0.0000E+00  0.0000
   2.1401E+01   2.1922E+01   0.0000E+00  0.0000
   2.1922E+01   2.2455E+01   0.0000E+00  0.0000
   2.2455E+01   2.3001E+01   0.0000E+00  0.0000
   2.3001E+01   2.3561E+01   0.0000E+00  0.0000
   2.3561E+01   2.4134E+01   0.0000E+00  0.0000
   2.4134E+01   2.4721E+01   0.0000E+00  0.0000
   2.4721E+01   2.5323E+01   0.0000E+00  0.0000
   2.5323E+01   2.5939E+01   0.0000E+00  0.0000
   2.5939E+01   2.6570E+01   0.0000E+00  0.0000
   2.6570E+01   2.7217E+01   0.0000E+00  0.0000
   2.7217E+01   2.7879E+01   0.0000E+00  0.0000
   2.7879E+01   2.8557E+01   0.0000E+00  0.0000
   2.8557E+01   2.9252E+01   0.0000E+00  0.0000
   2.9252E+01   2.9964E+01   0.0000E+00  0.0000
   2.9964E+01   3.0693E+01   0.0000E+00  0.0000
   3.0693E+01   3.1440E+01   0.0000E+00  0.0000
   3.1440E+01   3.2205E+01   0.0000E+00  0.0000
   3.2205E+01   3.2988E+01   0.0000E+00  0.0000
   3.2988E+01   3.3791E+01   0.0000E+00  0.0000
   3.3791E+01   3.4613E+01   0.0000E+00  0.0000
   3.4613E+01   3.5455E+01   0.0000E+00  0.0000
   3.5455E+01   3.6318E+01   0.0000E+00  0.0000
   3.6318E+01   3.7201E+01   0.0000E+00  0.0000
   3.7201E+01   3.8106E+01   0.0000E+00  0.0000
   3.8106E+01   3.9034E+01   0.0000E+00  0.0000
   3.9034E+01   3.9983E+01   0.0000E+00  0.0000
   3.9983E+01   4.0956E+01   0.0000E+00  0.0000
   4.0956E+01   4.1953E+01   0.0000E+00  0.0000
   4.1953E+01   4.2973E+01   0.0000E+00  0.0000
   4.2973E+01   4.4019E+01   0.0000E+00  0.0000
   4.4019E+01   4.5090E+01   0.0000E+00  0.0000
   4.5090E+01   4.6187E+01   0.0000E+00  0.0000
   4.6187E+01   4.7311E+01   0.0000E+00  0.0000
   4.7311E+01   4.8462E+01   0.0000E+00  0.0000
   4.8462E+01   4.9641E+01   0.0000E+00  0.0000
   4.9641E+01   5.0849E+01   0.0000E+00  0.0000
   5.0849E+01   5.2086E+01   0.0000E+00  0.0000
   5.2086E+01   5.3353E+01   0.0000E+00  0.0000
   5.3353E+01   5.4651E+01   0.0000E+00  0.0000
   5.4651E+01   5.5981E+01   0.0000E+00  0.0000
   5.5981E+01   5.7343E+01   0.0000E+00  0.0000
   5.7343E+01   5.8738E+01   0.0000E+00  0.0000
   5.8738E+01   6.0168E+01   0.0000E+00  0.0000
   6.0168E+01   6.1632E+01   0.0000E+00  0.0000
   6.1632E+01   6.3131E+01   0.0000E+00  0.0000
   6.3131E+01   6.4667E+01   0.0000E+00  0.0000
   6.4667E+01   6.6240E+01   0.0000E+00  0.0000
   6.6240E+01   6.7852E+01   0.0000E+00  0.0000
   6.7852E+01   6.9503E+01   0.0000E+00  0.0000
   6.9503E+01   7.1194E+01   0.0000E+00  0.0000
   7.1194E+01   7.2926E+01   0.0000E+00  0.0000
   7.2926E+01   7.4701E+01   0.0000E+00  0.0000
   7.4701E+01   7.6518E+01   0.0000E+00  0.0000
   7.6518E+01   7.8380E+01   0.0000E+00  0.0000
   7.8380E+01   8.0287E+01   0.0000E+00  0.0000
   8.0287E+01   8.2240E+01   0.0000E+00  0.0000
   8.2240E+01   8.4241E+01   0.0000E+00  0.0000
   8.4241E+01   8.6291E+01   0.0000E+00  0.0000
   8.6291E+01   8.8391E+01   0.0000E+00  0.0000
   8.8391E+01   9.0541E+01   0.0000E+00  0.0000
   9.0541E+01   9.2744E+01   0.0000E+00  0.0000
   9.2744E+01   9.5001E+01   0.0000E+00  0.0000
   9.5001E+01   9.7312E+01   0.0000E+00  0.0000
   9.7312E+01   9.9680E+01   0.0000E+00  0.0000
   9.9680E+01   1.0211E+02   0.0000E+00  0.0000
   1.0211E+02   1.0459E+02   0.0000E+00  0.0000
   1.0459E+02   1.0713E+02   0.0000E+00  0.0000
   1.0713E+02   1.0974E+02   0.0000E+00  0.0000
   1.0974E+02   1.1241E+02   0.0000E+00  0.0000
   1.1241E+02   1.1515E+02   0.0000E+00  0.0000
   1.1515E+02   1.1795E+02   0.0000E+00  0.0000
   1.1795E+02   1.2082E+02   0.0000E+00  0.0000
   1.2082E+02   1.2376E+02   0.0000E+00  0.0000
   1.2376E+02   1.2677E+02   0.0000E+00  0.0000
   1.2677E+02   1.2985E+02   0.0000E+00  0.0000
   1.2985E+02   1.3301E+02   0.0000E+00  0.0000
   1.3301E+02   1.3625E+02   0.0000E+00  0.0000
   1.3625E+02   1.3956E+02   0.0000E+00  0.0000
   1.3956E+02   1.4296E+02   0.0000E+00  0.0000
   1.4296E+02   1.4644E+02   0.0000E+00  0.0000
   1.4644E+02   1.5000E+02   0.0000E+00  0.0000

#   sum over                 6.8093E-06
'no. =    1   reg = 119 - 219'
msuc: {\huge [t-cross] in region mesh}
msdr: {\it plotted by \ANGEL \version}
msdl: {\it calculated by \PHITS  3.26}
wt: s(0.7)
\vspace{-3}
  region surface crossing
  area  &=&   1.0000E+00 [cm^2]
e:
 
# Information for Restart Calculation
# This calculation was newly started
# istdev =  2 # 1:Batch variance, 2:History variance
# resc2  = 5.00000000000000000E+09 # Total source weight or Total source weight / maxcas
# resc3  = 5.00000000000000000E+09 # Total history number or Total batch number
# maxcas =   100000000 # History / Batch, only used for istdev=1
# bitrseed = 0110100000100010111000001110001111001110100100011111101000111001 # bit data of rseed
