[ T-Cross ]
    title = [t-cross] in region mesh
     mesh =  reg            # mesh type is region-wise
      reg =    1            # number of crossing regions
      non     r-from    r-to       area
      1       107       207        1.000000    
   e-type =    3            # e-mesh is log given by emin, emax and ne
     emin =  1.0000000E-02  # minimum value of e-mesh points
     emax =   150.0000      # maximum value of e-mesh points
#    edel =  2.4039514E-02  # mesh width of e-mesh points
       ne =    400          # number of e-mesh points
#    data = ( e(i), i = 1, ne + 1 )
#           1.00000E-02  1.02433E-02  1.04925E-02  1.07478E-02  1.10093E-02
#           1.12772E-02  1.15516E-02  1.18326E-02  1.21205E-02  1.24154E-02
#           1.27175E-02  1.30269E-02  1.33439E-02  1.36686E-02  1.40011E-02
#           1.43418E-02  1.46907E-02  1.50482E-02  1.54143E-02  1.57894E-02
#           1.61735E-02  1.65670E-02  1.69701E-02  1.73830E-02  1.78060E-02
#           1.82392E-02  1.86830E-02  1.91375E-02  1.96032E-02  2.00801E-02
#           2.05687E-02  2.10692E-02  2.15818E-02  2.21069E-02  2.26448E-02
#           2.31957E-02  2.37601E-02  2.43382E-02  2.49304E-02  2.55369E-02
#           2.61583E-02  2.67947E-02  2.74467E-02  2.81145E-02  2.87985E-02
#           2.94992E-02  3.02169E-02  3.09521E-02  3.17052E-02  3.24766E-02
#           3.32668E-02  3.40762E-02  3.49053E-02  3.57546E-02  3.66246E-02
#           3.75157E-02  3.84284E-02  3.93634E-02  4.03212E-02  4.13022E-02
#           4.23071E-02  4.33365E-02  4.43909E-02  4.54710E-02  4.65773E-02
#           4.77106E-02  4.88714E-02  5.00605E-02  5.12785E-02  5.25262E-02
#           5.38042E-02  5.51133E-02  5.64542E-02  5.78278E-02  5.92348E-02
#           6.06760E-02  6.21523E-02  6.36645E-02  6.52135E-02  6.68002E-02
#           6.84255E-02  7.00904E-02  7.17957E-02  7.35426E-02  7.53319E-02
#           7.71648E-02  7.90423E-02  8.09655E-02  8.29354E-02  8.49533E-02
#           8.70203E-02  8.91376E-02  9.13064E-02  9.35279E-02  9.58035E-02
#           9.81345E-02  1.00522E-01  1.02968E-01  1.05473E-01  1.08040E-01
#           1.10668E-01  1.13361E-01  1.16119E-01  1.18944E-01  1.21838E-01
#           1.24803E-01  1.27839E-01  1.30950E-01  1.34136E-01  1.37399E-01
#           1.40742E-01  1.44167E-01  1.47675E-01  1.51268E-01  1.54948E-01
#           1.58718E-01  1.62580E-01  1.66535E-01  1.70587E-01  1.74738E-01
#           1.78989E-01  1.83344E-01  1.87805E-01  1.92375E-01  1.97055E-01
#           2.01850E-01  2.06761E-01  2.11792E-01  2.16945E-01  2.22223E-01
#           2.27630E-01  2.33169E-01  2.38842E-01  2.44653E-01  2.50605E-01
#           2.56703E-01  2.62949E-01  2.69346E-01  2.75900E-01  2.82613E-01
#           2.89489E-01  2.96532E-01  3.03747E-01  3.11138E-01  3.18708E-01
#           3.26462E-01  3.34405E-01  3.42542E-01  3.50876E-01  3.59413E-01
#           3.68158E-01  3.77116E-01  3.86291E-01  3.95690E-01  4.05317E-01
#           4.15179E-01  4.25281E-01  4.35628E-01  4.46227E-01  4.57084E-01
#           4.68205E-01  4.79597E-01  4.91266E-01  5.03219E-01  5.15463E-01
#           5.28005E-01  5.40851E-01  5.54011E-01  5.67490E-01  5.81298E-01
#           5.95441E-01  6.09929E-01  6.24769E-01  6.39970E-01  6.55541E-01
#           6.71491E-01  6.87828E-01  7.04564E-01  7.21706E-01  7.39266E-01
#           7.57253E-01  7.75678E-01  7.94551E-01  8.13883E-01  8.33685E-01
#           8.53969E-01  8.74747E-01  8.96030E-01  9.17831E-01  9.40163E-01
#           9.63038E-01  9.86469E-01  1.01047E+00  1.03506E+00  1.06024E+00
#           1.08604E+00  1.11246E+00  1.13953E+00  1.16725E+00  1.19565E+00
#           1.22474E+00  1.25454E+00  1.28507E+00  1.31633E+00  1.34836E+00
#           1.38117E+00  1.41477E+00  1.44920E+00  1.48446E+00  1.52057E+00
#           1.55757E+00  1.59547E+00  1.63429E+00  1.67405E+00  1.71478E+00
#           1.75650E+00  1.79924E+00  1.84302E+00  1.88786E+00  1.93379E+00
#           1.98084E+00  2.02904E+00  2.07841E+00  2.12898E+00  2.18078E+00
#           2.23384E+00  2.28819E+00  2.34386E+00  2.40089E+00  2.45930E+00
#           2.51914E+00  2.58043E+00  2.64322E+00  2.70753E+00  2.77341E+00
#           2.84088E+00  2.91001E+00  2.98081E+00  3.05333E+00  3.12762E+00
#           3.20372E+00  3.28167E+00  3.36152E+00  3.44330E+00  3.52708E+00
#           3.61290E+00  3.70080E+00  3.79085E+00  3.88308E+00  3.97756E+00
#           4.07434E+00  4.17347E+00  4.27501E+00  4.37903E+00  4.48557E+00
#           4.59471E+00  4.70650E+00  4.82102E+00  4.93832E+00  5.05847E+00
#           5.18155E+00  5.30762E+00  5.43676E+00  5.56904E+00  5.70453E+00
#           5.84333E+00  5.98550E+00  6.13114E+00  6.28031E+00  6.43312E+00
#           6.58964E+00  6.74997E+00  6.91420E+00  7.08243E+00  7.25475E+00
#           7.43126E+00  7.61207E+00  7.79728E+00  7.98700E+00  8.18133E+00
#           8.38038E+00  8.58428E+00  8.79315E+00  9.00709E+00  9.22624E+00
#           9.45072E+00  9.68067E+00  9.91620E+00  1.01575E+01  1.04046E+01
#           1.06578E+01  1.09171E+01  1.11827E+01  1.14548E+01  1.17335E+01
#           1.20190E+01  1.23114E+01  1.26109E+01  1.29178E+01  1.32321E+01
#           1.35540E+01  1.38838E+01  1.42216E+01  1.45676E+01  1.49221E+01
#           1.52851E+01  1.56570E+01  1.60380E+01  1.64282E+01  1.68279E+01
#           1.72374E+01  1.76568E+01  1.80864E+01  1.85264E+01  1.89772E+01
#           1.94389E+01  1.99119E+01  2.03963E+01  2.08926E+01  2.14009E+01
#           2.19216E+01  2.24550E+01  2.30014E+01  2.35610E+01  2.41343E+01
#           2.47215E+01  2.53230E+01  2.59391E+01  2.65702E+01  2.72167E+01
#           2.78789E+01  2.85572E+01  2.92520E+01  2.99637E+01  3.06928E+01
#           3.14396E+01  3.22045E+01  3.29881E+01  3.37907E+01  3.46128E+01
#           3.54550E+01  3.63177E+01  3.72013E+01  3.81064E+01  3.90336E+01
#           3.99833E+01  4.09561E+01  4.19526E+01  4.29734E+01  4.40189E+01
#           4.50900E+01  4.61870E+01  4.73108E+01  4.84619E+01  4.96410E+01
#           5.08488E+01  5.20860E+01  5.33533E+01  5.46514E+01  5.59812E+01
#           5.73432E+01  5.87384E+01  6.01676E+01  6.16315E+01  6.31311E+01
#           6.46671E+01  6.62405E+01  6.78522E+01  6.95031E+01  7.11941E+01
#           7.29263E+01  7.47007E+01  7.65182E+01  7.83800E+01  8.02870E+01
#           8.22405E+01  8.42414E+01  8.62911E+01  8.83906E+01  9.05412E+01
#           9.27442E+01  9.50007E+01  9.73122E+01  9.96799E+01  1.02105E+02
#           1.04589E+02  1.07134E+02  1.09741E+02  1.12411E+02  1.15146E+02
#           1.17948E+02  1.20817E+02  1.23757E+02  1.26768E+02  1.29852E+02
#           1.33012E+02  1.36248E+02  1.39563E+02  1.42959E+02  1.46437E+02
#           1.50000E+02
     unit =    2            # unit is [1/cm^2/(MeV/n)/source]
     axis =  eng            # axis of output
     file = detector-08.out  # file name of output for the above axis
   output = f-curr          # surface crossing forward current spectrum
     part =  neutron  
# kf/name :  2112     
#    used :        main (  %)        temp (  %)       total (  %)
#  memory :         414 (  0)           0 (  0)         414 (  0)

#------------------------------------------------------------------------------
#newpage:
#   no. =    1   reg = 107 - 207

x: Energy [MeV/n]
y:  F-Curr [1/cm^2/(MeV/n)/source]         
p: xlog ylog afac(0.8) form(0.9)
h: n            x            y(neutron ),hh0l   n 
#  e-lower      e-upper      neutron     r.err 
   1.0000E-02   1.0243E-02   3.4061E-03  0.0489
   1.0243E-02   1.0493E-02   3.1785E-03  0.0501
   1.0493E-02   1.0748E-02   3.1931E-03  0.0494
   1.0748E-02   1.1009E-02   2.7570E-03  0.0525
   1.1009E-02   1.1277E-02   3.1891E-03  0.0481
   1.1277E-02   1.1552E-02   3.0662E-03  0.0485
   1.1552E-02   1.1833E-02   2.9195E-03  0.0492
   1.1833E-02   1.2121E-02   2.6162E-03  0.0513
   1.2121E-02   1.2415E-02   2.6065E-03  0.0507
   1.2415E-02   1.2718E-02   2.8171E-03  0.0483
   1.2718E-02   1.3027E-02   2.5040E-03  0.0506
   1.3027E-02   1.3344E-02   2.6314E-03  0.0488
   1.3344E-02   1.3669E-02   2.6158E-03  0.0483
   1.3669E-02   1.4001E-02   2.5273E-03  0.0486
   1.4001E-02   1.4342E-02   2.3218E-03  0.0501
   1.4342E-02   1.4691E-02   2.3564E-03  0.0492
   1.4691E-02   1.5048E-02   2.3840E-03  0.0483
   1.5048E-02   1.5414E-02   2.3218E-03  0.0484
   1.5414E-02   1.5789E-02   2.2794E-03  0.0482
   1.5789E-02   1.6174E-02   2.1631E-03  0.0489
   1.6174E-02   1.6567E-02   2.1126E-03  0.0489
   1.6567E-02   1.6970E-02   1.9420E-03  0.0504
   1.6970E-02   1.7383E-02   1.8736E-03  0.0507
   1.7383E-02   1.7806E-02   1.9837E-03  0.0486
   1.7806E-02   1.8239E-02   2.0243E-03  0.0476
   1.8239E-02   1.8683E-02   1.8847E-03  0.0487
   1.8683E-02   1.9138E-02   1.9410E-03  0.0475
   1.9138E-02   1.9603E-02   1.9512E-03  0.0468
   1.9603E-02   2.0080E-02   1.7592E-03  0.0486
   2.0080E-02   2.0569E-02   1.8125E-03  0.0474
   2.0569E-02   2.1069E-02   1.7633E-03  0.0474
   2.1069E-02   2.1582E-02   1.7997E-03  0.0464
   2.1582E-02   2.2107E-02   1.7364E-03  0.0467
   2.2107E-02   2.2645E-02   1.5665E-03  0.0486
   2.2645E-02   2.3196E-02   1.5984E-03  0.0475
   2.3196E-02   2.3760E-02   1.5198E-03  0.0481
   2.3760E-02   2.4338E-02   1.6810E-03  0.0453
   2.4338E-02   2.4930E-02   1.5633E-03  0.0463
   2.4930E-02   2.5537E-02   1.5172E-03  0.0465
   2.5537E-02   2.6158E-02   1.5606E-03  0.0453
   2.6158E-02   2.6795E-02   1.4066E-03  0.0472
   2.6795E-02   2.7447E-02   1.5059E-03  0.0450
   2.7447E-02   2.8114E-02   1.3974E-03  0.0461
   2.8114E-02   2.8799E-02   1.2527E-03  0.0481
   2.8799E-02   2.9499E-02   1.3210E-03  0.0463
   2.9499E-02   3.0217E-02   1.2878E-03  0.0463
   3.0217E-02   3.0952E-02   1.2675E-03  0.0462
   3.0952E-02   3.1705E-02   1.2442E-03  0.0461
   3.1705E-02   3.2477E-02   1.2302E-03  0.0457
   3.2477E-02   3.3267E-02   1.2315E-03  0.0451
   3.3267E-02   3.4076E-02   1.2060E-03  0.0451
   3.4076E-02   3.4905E-02   1.2124E-03  0.0444
   3.4905E-02   3.5755E-02   1.1024E-03  0.0461
   3.5755E-02   3.6625E-02   1.1174E-03  0.0452
   3.6625E-02   3.7516E-02   1.1187E-03  0.0446
   3.7516E-02   3.8428E-02   1.0393E-03  0.0458
   3.8428E-02   3.9363E-02   1.0347E-03  0.0453
   3.9363E-02   4.0321E-02   9.7051E-04  0.0462
   4.0321E-02   4.1302E-02   1.0482E-03  0.0439
   4.1302E-02   4.2307E-02   1.0567E-03  0.0432
   4.2307E-02   4.3337E-02   9.7130E-04  0.0445
   4.3337E-02   4.4391E-02   9.7692E-04  0.0439
   4.4391E-02   4.5471E-02   9.0098E-04  0.0451
   4.5471E-02   4.6577E-02   9.2354E-04  0.0441
   4.6577E-02   4.7711E-02   8.8726E-04  0.0444
   4.7711E-02   4.8871E-02   8.8380E-04  0.0440
   4.8871E-02   5.0061E-02   7.9684E-04  0.0457
   5.0061E-02   5.1279E-02   8.3198E-04  0.0442
   5.1279E-02   5.2526E-02   8.3337E-04  0.0436
   5.2526E-02   5.3804E-02   7.9936E-04  0.0441
   5.3804E-02   5.5113E-02   7.9135E-04  0.0437
   5.5113E-02   5.6454E-02   7.5223E-04  0.0443
   5.6454E-02   5.7828E-02   8.2315E-04  0.0419
   5.7828E-02   5.9235E-02   7.5185E-04  0.0433
   5.9235E-02   6.0676E-02   7.5002E-04  0.0429
   6.0676E-02   6.2152E-02   7.8369E-04  0.0414
   6.2152E-02   6.3665E-02   6.9187E-04  0.0435
   6.3665E-02   6.5214E-02   6.7182E-04  0.0437
   6.5214E-02   6.6800E-02   6.6959E-04  0.0432
   6.6800E-02   6.8426E-02   6.6038E-04  0.0430
   6.8426E-02   7.0090E-02   6.4723E-04  0.0429
   7.0090E-02   7.1796E-02   6.6799E-04  0.0417
   7.1796E-02   7.3543E-02   6.1789E-04  0.0429
   7.3543E-02   7.5332E-02   6.1724E-04  0.0424
   7.5332E-02   7.7165E-02   5.4817E-04  0.0444
   7.7165E-02   7.9042E-02   5.4090E-04  0.0442
   7.9042E-02   8.0965E-02   5.5009E-04  0.0433
   8.0965E-02   8.2935E-02   5.7480E-04  0.0418
   8.2935E-02   8.4953E-02   5.6660E-04  0.0417
   8.4953E-02   8.7020E-02   5.3900E-04  0.0422
   8.7020E-02   8.9138E-02   5.4189E-04  0.0416
   8.9138E-02   9.1306E-02   5.0422E-04  0.0427
   9.1306E-02   9.3528E-02   4.6354E-04  0.0439
   9.3528E-02   9.5804E-02   4.9074E-04  0.0422
   9.5804E-02   9.8134E-02   4.8713E-04  0.0418
   9.8134E-02   1.0052E-01   4.6753E-04  0.0422
   1.0052E-01   1.0297E-01   4.5159E-04  0.0424
   1.0297E-01   1.0547E-01   4.5926E-04  0.0415
   1.0547E-01   1.0804E-01   4.1770E-04  0.0431
   1.0804E-01   1.1067E-01   4.4392E-04  0.0413
   1.1067E-01   1.1336E-01   4.3284E-04  0.0413
   1.1336E-01   1.1612E-01   4.0239E-04  0.0423
   1.1612E-01   1.1894E-01   4.1802E-04  0.0410
   1.1894E-01   1.2184E-01   4.3614E-04  0.0396
   1.2184E-01   1.2480E-01   3.9486E-04  0.0412
   1.2480E-01   1.2784E-01   3.8410E-04  0.0412
   1.2784E-01   1.3095E-01   3.9717E-04  0.0401
   1.3095E-01   1.3414E-01   3.6786E-04  0.0411
   1.3414E-01   1.3740E-01   3.7797E-04  0.0401
   1.3740E-01   1.4074E-01   3.4606E-04  0.0414
   1.4074E-01   1.4417E-01   3.4880E-04  0.0408
   1.4417E-01   1.4767E-01   3.3862E-04  0.0409
   1.4767E-01   1.5127E-01   2.9895E-04  0.0430
   1.5127E-01   1.5495E-01   3.3543E-04  0.0401
   1.5495E-01   1.5872E-01   3.2996E-04  0.0400
   1.5872E-01   1.6258E-01   3.0675E-04  0.0409
   1.6258E-01   1.6654E-01   3.2382E-04  0.0393
   1.6654E-01   1.7059E-01   2.8700E-04  0.0412
   1.7059E-01   1.7474E-01   2.9698E-04  0.0402
   1.7474E-01   1.7899E-01   2.5810E-04  0.0425
   1.7899E-01   1.8334E-01   2.9659E-04  0.0392
   1.8334E-01   1.8781E-01   2.8383E-04  0.0396
   1.8781E-01   1.9237E-01   2.7490E-04  0.0397
   1.9237E-01   1.9706E-01   2.7995E-04  0.0388
   1.9706E-01   2.0185E-01   2.9405E-04  0.0375
   2.0185E-01   2.0676E-01   2.7037E-04  0.0387
   2.0676E-01   2.1179E-01   2.8251E-04  0.0373
   2.1179E-01   2.1694E-01   2.8422E-04  0.0368
   2.1694E-01   2.2222E-01   2.9155E-04  0.0359
   2.2222E-01   2.2763E-01   3.0811E-04  0.0345
   2.2763E-01   2.3317E-01   3.0520E-04  0.0342
   2.3317E-01   2.3884E-01   3.2128E-04  0.0330
   2.3884E-01   2.4465E-01   3.3996E-04  0.0317
   2.4465E-01   2.5061E-01   3.5800E-04  0.0305
   2.5061E-01   2.5670E-01   3.6102E-04  0.0301
   2.5670E-01   2.6295E-01   3.5635E-04  0.0299
   2.6295E-01   2.6935E-01   3.5848E-04  0.0294
   2.6935E-01   2.7590E-01   3.8875E-04  0.0279
   2.7590E-01   2.8261E-01   4.0072E-04  0.0272
   2.8261E-01   2.8949E-01   3.9936E-04  0.0269
   2.8949E-01   2.9653E-01   4.0041E-04  0.0265
   2.9653E-01   3.0375E-01   4.2826E-04  0.0253
   3.0375E-01   3.1114E-01   4.4240E-04  0.0246
   3.1114E-01   3.1871E-01   4.4298E-04  0.0243
   3.1871E-01   3.2646E-01   4.6708E-04  0.0234
   3.2646E-01   3.3441E-01   4.5728E-04  0.0234
   3.3441E-01   3.4254E-01   4.7047E-04  0.0228
   3.4254E-01   3.5088E-01   5.0652E-04  0.0217
   3.5088E-01   3.5941E-01   5.2600E-04  0.0210
   3.5941E-01   3.6816E-01   5.0869E-04  0.0211
   3.6816E-01   3.7712E-01   5.1882E-04  0.0207
   3.7712E-01   3.8629E-01   5.3542E-04  0.0201
   3.8629E-01   3.9569E-01   5.4581E-04  0.0196
   3.9569E-01   4.0532E-01   5.7786E-04  0.0189
   4.0532E-01   4.1518E-01   5.5821E-04  0.0190
   4.1518E-01   4.2528E-01   5.6326E-04  0.0187
   4.2528E-01   4.3563E-01   5.9746E-04  0.0179
   4.3563E-01   4.4623E-01   5.8875E-04  0.0178
   4.4623E-01   4.5708E-01   6.0437E-04  0.0174
   4.5708E-01   4.6821E-01   6.0074E-04  0.0172
   4.6821E-01   4.7960E-01   6.1101E-04  0.0169
   4.7960E-01   4.9127E-01   6.3438E-04  0.0164
   4.9127E-01   5.0322E-01   6.4844E-04  0.0160
   5.0322E-01   5.1546E-01   6.6096E-04  0.0157
   5.1546E-01   5.2800E-01   6.5372E-04  0.0156
   5.2800E-01   5.4085E-01   6.5264E-04  0.0154
   5.4085E-01   5.5401E-01   7.0656E-04  0.0146
   5.5401E-01   5.6749E-01   6.8508E-04  0.0146
   5.6749E-01   5.8130E-01   6.8803E-04  0.0145
   5.8130E-01   5.9544E-01   6.8908E-04  0.0143
   5.9544E-01   6.0993E-01   7.0147E-04  0.0140
   6.0993E-01   6.2477E-01   7.1602E-04  0.0137
   6.2477E-01   6.3997E-01   7.0868E-04  0.0136
   6.3997E-01   6.5554E-01   7.0346E-04  0.0135
   6.5554E-01   6.7149E-01   7.2381E-04  0.0131
   6.7149E-01   6.8783E-01   7.2653E-04  0.0129
   6.8783E-01   7.0456E-01   7.2044E-04  0.0128
   7.0456E-01   7.2171E-01   7.1231E-04  0.0127
   7.2171E-01   7.3927E-01   7.3583E-04  0.0124
   7.3927E-01   7.5725E-01   7.5110E-04  0.0121
   7.5725E-01   7.7568E-01   7.2895E-04  0.0121
   7.7568E-01   7.9455E-01   7.4846E-04  0.0118
   7.9455E-01   8.1388E-01   7.4442E-04  0.0117
   8.1388E-01   8.3368E-01   7.3963E-04  0.0116
   8.3368E-01   8.5397E-01   7.4036E-04  0.0115
   8.5397E-01   8.7475E-01   7.4051E-04  0.0114
   8.7475E-01   8.9603E-01   7.3973E-04  0.0112
   8.9603E-01   9.1783E-01   7.4161E-04  0.0111
   9.1783E-01   9.4016E-01   7.3777E-04  0.0110
   9.4016E-01   9.6304E-01   7.4036E-04  0.0108
   9.6304E-01   9.8647E-01   7.4685E-04  0.0106
   9.8647E-01   1.0105E+00   7.3803E-04  0.0106
   1.0105E+00   1.0351E+00   7.4882E-04  0.0104
   1.0351E+00   1.0602E+00   7.2900E-04  0.0104
   1.0602E+00   1.0860E+00   7.3032E-04  0.0103
   1.0860E+00   1.1125E+00   7.4108E-04  0.0101
   1.1125E+00   1.1395E+00   7.2104E-04  0.0101
   1.1395E+00   1.1673E+00   7.1819E-04  0.0100
   1.1673E+00   1.1957E+00   7.1365E-04  0.0099
   1.1957E+00   1.2247E+00   7.1812E-04  0.0097
   1.2247E+00   1.2545E+00   7.1366E-04  0.0097
   1.2545E+00   1.2851E+00   7.0683E-04  0.0096
   1.2851E+00   1.3163E+00   7.1915E-04  0.0094
   1.3163E+00   1.3484E+00   7.0199E-04  0.0094
   1.3484E+00   1.3812E+00   7.0003E-04  0.0093
   1.3812E+00   1.4148E+00   6.9710E-04  0.0092
   1.4148E+00   1.4492E+00   6.9700E-04  0.0091
   1.4492E+00   1.4845E+00   6.9812E-04  0.0090
   1.4845E+00   1.5206E+00   6.8893E-04  0.0089
   1.5206E+00   1.5576E+00   6.9678E-04  0.0088
   1.5576E+00   1.5955E+00   6.8322E-04  0.0087
   1.5955E+00   1.6343E+00   6.7582E-04  0.0087
   1.6343E+00   1.6741E+00   6.8234E-04  0.0085
   1.6741E+00   1.7148E+00   6.6244E-04  0.0086
   1.7148E+00   1.7565E+00   6.6474E-04  0.0084
   1.7565E+00   1.7992E+00   6.5911E-04  0.0084
   1.7992E+00   1.8430E+00   6.4038E-04  0.0084
   1.8430E+00   1.8879E+00   6.5141E-04  0.0082
   1.8879E+00   1.9338E+00   6.4051E-04  0.0082
   1.9338E+00   1.9808E+00   6.4756E-04  0.0081
   1.9808E+00   2.0290E+00   6.5063E-04  0.0079
   2.0290E+00   2.0784E+00   6.4350E-04  0.0079
   2.0784E+00   2.1290E+00   6.3670E-04  0.0078
   2.1290E+00   2.1808E+00   6.3312E-04  0.0078
   2.1808E+00   2.2338E+00   6.1814E-04  0.0078
   2.2338E+00   2.2882E+00   6.0946E-04  0.0077
   2.2882E+00   2.3439E+00   6.1188E-04  0.0076
   2.3439E+00   2.4009E+00   6.0617E-04  0.0076
   2.4009E+00   2.4593E+00   5.9973E-04  0.0075
   2.4593E+00   2.5191E+00   5.9617E-04  0.0075
   2.5191E+00   2.5804E+00   5.8937E-04  0.0074
   2.5804E+00   2.6432E+00   5.8452E-04  0.0074
   2.6432E+00   2.7075E+00   5.7726E-04  0.0073
   2.7075E+00   2.7734E+00   5.7006E-04  0.0073
   2.7734E+00   2.8409E+00   5.6319E-04  0.0072
   2.8409E+00   2.9100E+00   5.6842E-04  0.0071
   2.9100E+00   2.9808E+00   5.5861E-04  0.0071
   2.9808E+00   3.0533E+00   5.5362E-04  0.0070
   3.0533E+00   3.1276E+00   5.5092E-04  0.0070
   3.1276E+00   3.2037E+00   5.3935E-04  0.0070
   3.2037E+00   3.2817E+00   5.3105E-04  0.0069
   3.2817E+00   3.3615E+00   5.2595E-04  0.0069
   3.3615E+00   3.4433E+00   5.2094E-04  0.0068
   3.4433E+00   3.5271E+00   5.1817E-04  0.0068
   3.5271E+00   3.6129E+00   5.0668E-04  0.0068
   3.6129E+00   3.7008E+00   4.9824E-04  0.0067
   3.7008E+00   3.7908E+00   4.8802E-04  0.0067
   3.7908E+00   3.8831E+00   4.8935E-04  0.0066
   3.8831E+00   3.9776E+00   4.7536E-04  0.0067
   3.9776E+00   4.0743E+00   4.7275E-04  0.0066
   4.0743E+00   4.1735E+00   4.6472E-04  0.0066
   4.1735E+00   4.2750E+00   4.5993E-04  0.0065
   4.2750E+00   4.3790E+00   4.4856E-04  0.0065
   4.3790E+00   4.4856E+00   4.4239E-04  0.0065
   4.4856E+00   4.5947E+00   4.3417E-04  0.0065
   4.5947E+00   4.7065E+00   4.2627E-04  0.0065
   4.7065E+00   4.8210E+00   4.2124E-04  0.0064
   4.8210E+00   4.9383E+00   4.2010E-04  0.0064
   4.9383E+00   5.0585E+00   4.1382E-04  0.0063
   5.0585E+00   5.1815E+00   4.2202E-04  0.0062
   5.1815E+00   5.3076E+00   4.2742E-04  0.0061
   5.3076E+00   5.4368E+00   4.1262E-04  0.0061
   5.4368E+00   5.5690E+00   4.0717E-04  0.0061
   5.5690E+00   5.7045E+00   3.9887E-04  0.0061
   5.7045E+00   5.8433E+00   3.9166E-04  0.0061
   5.8433E+00   5.9855E+00   3.8314E-04  0.0060
   5.9855E+00   6.1311E+00   3.7666E-04  0.0060
   6.1311E+00   6.2803E+00   3.7212E-04  0.0060
   6.2803E+00   6.4331E+00   3.6534E-04  0.0060
   6.4331E+00   6.5896E+00   3.6012E-04  0.0059
   6.5896E+00   6.7500E+00   3.5336E-04  0.0059
   6.7500E+00   6.9142E+00   3.4250E-04  0.0060
   6.9142E+00   7.0824E+00   3.4264E-04  0.0059
   7.0824E+00   7.2548E+00   3.3756E-04  0.0059
   7.2548E+00   7.4313E+00   3.2904E-04  0.0059
   7.4313E+00   7.6121E+00   3.2448E-04  0.0058
   7.6121E+00   7.7973E+00   3.1901E-04  0.0058
   7.7973E+00   7.9870E+00   3.1456E-04  0.0058
   7.9870E+00   8.1813E+00   3.1214E-04  0.0057
   8.1813E+00   8.3804E+00   3.0674E-04  0.0057
   8.3804E+00   8.5843E+00   3.0263E-04  0.0057
   8.5843E+00   8.7931E+00   2.9899E-04  0.0057
   8.7931E+00   9.0071E+00   2.9099E-04  0.0057
   9.0071E+00   9.2262E+00   2.9020E-04  0.0056
   9.2262E+00   9.4507E+00   2.8474E-04  0.0056
   9.4507E+00   9.6807E+00   2.8089E-04  0.0056
   9.6807E+00   9.9162E+00   2.7842E-04  0.0055
   9.9162E+00   1.0157E+01   2.7553E-04  0.0055
   1.0157E+01   1.0405E+01   2.7335E-04  0.0054
   1.0405E+01   1.0658E+01   2.6822E-04  0.0054
   1.0658E+01   1.0917E+01   2.6705E-04  0.0054
   1.0917E+01   1.1183E+01   2.6513E-04  0.0053
   1.1183E+01   1.1455E+01   2.6109E-04  0.0053
   1.1455E+01   1.1733E+01   2.6146E-04  0.0052
   1.1733E+01   1.2019E+01   2.5400E-04  0.0053
   1.2019E+01   1.2311E+01   2.5509E-04  0.0052
   1.2311E+01   1.2611E+01   2.5197E-04  0.0051
   1.2611E+01   1.2918E+01   2.4966E-04  0.0051
   1.2918E+01   1.3232E+01   2.4792E-04  0.0051
   1.3232E+01   1.3554E+01   2.4515E-04  0.0050
   1.3554E+01   1.3884E+01   2.4153E-04  0.0050
   1.3884E+01   1.4222E+01   2.4018E-04  0.0050
   1.4222E+01   1.4568E+01   2.3821E-04  0.0049
   1.4568E+01   1.4922E+01   2.3706E-04  0.0049
   1.4922E+01   1.5285E+01   2.3449E-04  0.0048
   1.5285E+01   1.5657E+01   2.3267E-04  0.0048
   1.5657E+01   1.6038E+01   2.3202E-04  0.0048
   1.6038E+01   1.6428E+01   2.2918E-04  0.0047
   1.6428E+01   1.6828E+01   2.2603E-04  0.0047
   1.6828E+01   1.7237E+01   2.2437E-04  0.0047
   1.7237E+01   1.7657E+01   2.2594E-04  0.0046
   1.7657E+01   1.8086E+01   2.2081E-04  0.0046
   1.8086E+01   1.8526E+01   2.2049E-04  0.0045
   1.8526E+01   1.8977E+01   2.1867E-04  0.0045
   1.8977E+01   1.9439E+01   2.1650E-04  0.0045
   1.9439E+01   1.9912E+01   2.1573E-04  0.0044
   1.9912E+01   2.0396E+01   2.1585E-04  0.0044
   2.0396E+01   2.0893E+01   2.1536E-04  0.0043
   2.0893E+01   2.1401E+01   2.1226E-04  0.0043
   2.1401E+01   2.1922E+01   2.1048E-04  0.0043
   2.1922E+01   2.2455E+01   2.0900E-04  0.0042
   2.2455E+01   2.3001E+01   2.0270E-04  0.0043
   2.3001E+01   2.3561E+01   2.0351E-04  0.0042
   2.3561E+01   2.4134E+01   2.0285E-04  0.0041
   2.4134E+01   2.4721E+01   1.9729E-04  0.0042
   2.4721E+01   2.5323E+01   1.9489E-04  0.0041
   2.5323E+01   2.5939E+01   1.9168E-04  0.0041
   2.5939E+01   2.6570E+01   1.8811E-04  0.0041
   2.6570E+01   2.7217E+01   1.8514E-04  0.0041
   2.7217E+01   2.7879E+01   1.8260E-04  0.0041
   2.7879E+01   2.8557E+01   1.7804E-04  0.0041
   2.8557E+01   2.9252E+01   1.7437E-04  0.0041
   2.9252E+01   2.9964E+01   1.6829E-04  0.0041
   2.9964E+01   3.0693E+01   1.6623E-04  0.0041
   3.0693E+01   3.1440E+01   1.6239E-04  0.0041
   3.1440E+01   3.2205E+01   1.5596E-04  0.0041
   3.2205E+01   3.2988E+01   1.5080E-04  0.0041
   3.2988E+01   3.3791E+01   1.4693E-04  0.0041
   3.3791E+01   3.4613E+01   1.3985E-04  0.0042
   3.4613E+01   3.5455E+01   1.3519E-04  0.0042
   3.5455E+01   3.6318E+01   1.2897E-04  0.0042
   3.6318E+01   3.7201E+01   1.2458E-04  0.0043
   3.7201E+01   3.8106E+01   1.1815E-04  0.0043
   3.8106E+01   3.9034E+01   1.1347E-04  0.0044
   3.9034E+01   3.9983E+01   1.0652E-04  0.0044
   3.9983E+01   4.0956E+01   1.0192E-04  0.0045
   4.0956E+01   4.1953E+01   9.6269E-05  0.0046
   4.1953E+01   4.2973E+01   9.1206E-05  0.0046
   4.2973E+01   4.4019E+01   8.5245E-05  0.0047
   4.4019E+01   4.5090E+01   8.0751E-05  0.0048
   4.5090E+01   4.6187E+01   7.5267E-05  0.0049
   4.6187E+01   4.7311E+01   7.0947E-05  0.0050
   4.7311E+01   4.8462E+01   6.5909E-05  0.0051
   4.8462E+01   4.9641E+01   6.1802E-05  0.0052
   4.9641E+01   5.0849E+01   5.8042E-05  0.0053
   5.0849E+01   5.2086E+01   5.4098E-05  0.0055
   5.2086E+01   5.3353E+01   5.0765E-05  0.0056
   5.3353E+01   5.4651E+01   4.6881E-05  0.0057
   5.4651E+01   5.5981E+01   4.4044E-05  0.0058
   5.5981E+01   5.7343E+01   4.0500E-05  0.0060
   5.7343E+01   5.8738E+01   3.7402E-05  0.0062
   5.8738E+01   6.0168E+01   3.4989E-05  0.0063
   6.0168E+01   6.1632E+01   3.2246E-05  0.0065
   6.1632E+01   6.3131E+01   2.9500E-05  0.0067
   6.3131E+01   6.4667E+01   2.6936E-05  0.0070
   6.4667E+01   6.6240E+01   2.4839E-05  0.0072
   6.6240E+01   6.7852E+01   2.2620E-05  0.0074
   6.7852E+01   6.9503E+01   2.0265E-05  0.0077
   6.9503E+01   7.1194E+01   1.8037E-05  0.0081
   7.1194E+01   7.2926E+01   1.6273E-05  0.0084
   7.2926E+01   7.4701E+01   1.4294E-05  0.0089
   7.4701E+01   7.6518E+01   1.2744E-05  0.0093
   7.6518E+01   7.8380E+01   1.1965E-05  0.0095
   7.8380E+01   8.0287E+01   1.0773E-05  0.0099
   8.0287E+01   8.2240E+01   9.7121E-06  0.0103
   8.2240E+01   8.4241E+01   8.4999E-06  0.0108
   8.4241E+01   8.6291E+01   7.0773E-06  0.0117
   8.6291E+01   8.8391E+01   5.6479E-06  0.0130
   8.8391E+01   9.0541E+01   4.6582E-06  0.0141
   9.0541E+01   9.2744E+01   3.9066E-06  0.0152
   9.2744E+01   9.5001E+01   3.1003E-06  0.0169
   9.5001E+01   9.7312E+01   1.7513E-06  0.0222
   9.7312E+01   9.9680E+01   7.9149E-07  0.0327
   9.9680E+01   1.0211E+02   1.2287E-07  0.0819
   1.0211E+02   1.0459E+02   1.6101E-09  0.7071
   1.0459E+02   1.0713E+02   0.0000E+00  0.0000
   1.0713E+02   1.0974E+02   0.0000E+00  0.0000
   1.0974E+02   1.1241E+02   0.0000E+00  0.0000
   1.1241E+02   1.1515E+02   0.0000E+00  0.0000
   1.1515E+02   1.1795E+02   0.0000E+00  0.0000
   1.1795E+02   1.2082E+02   0.0000E+00  0.0000
   1.2082E+02   1.2376E+02   0.0000E+00  0.0000
   1.2376E+02   1.2677E+02   0.0000E+00  0.0000
   1.2677E+02   1.2985E+02   0.0000E+00  0.0000
   1.2985E+02   1.3301E+02   0.0000E+00  0.0000
   1.3301E+02   1.3625E+02   0.0000E+00  0.0000
   1.3625E+02   1.3956E+02   0.0000E+00  0.0000
   1.3956E+02   1.4296E+02   0.0000E+00  0.0000
   1.4296E+02   1.4644E+02   0.0000E+00  0.0000
   1.4644E+02   1.5000E+02   0.0000E+00  0.0000

#   sum over                 7.9753E-05
'no. =    1   reg = 107 - 207'
msuc: {\huge [t-cross] in region mesh}
msdr: {\it plotted by \ANGEL \version}
msdl: {\it calculated by \PHITS  3.26}
wt: s(0.7)
\vspace{-3}
  region surface crossing
  area  &=&   1.0000E+00 [cm^2]
e:
 
# Information for Restart Calculation
# This calculation was newly started
# istdev =  2 # 1:Batch variance, 2:History variance
# resc2  = 5.00000000000000000E+08 # Total source weight or Total source weight / maxcas
# resc3  = 5.00000000000000000E+08 # Total history number or Total batch number
# maxcas =   500000000 # History / Batch, only used for istdev=1
# bitrseed = 1101101111010011011000101101110001100110110010110001010100010001 # bit data of rseed
