[ T-Cross ]
    title = [t-cross] in region mesh
     mesh =  reg            # mesh type is region-wise
      reg =    1            # number of crossing regions
      non     r-from    r-to       area
      1       111       211        1.000000    
   e-type =    3            # e-mesh is log given by emin, emax and ne
     emin =  1.0000000E-02  # minimum value of e-mesh points
     emax =   150.0000      # maximum value of e-mesh points
#    edel =  2.4039514E-02  # mesh width of e-mesh points
       ne =    400          # number of e-mesh points
#    data = ( e(i), i = 1, ne + 1 )
#           1.00000E-02  1.02433E-02  1.04925E-02  1.07478E-02  1.10093E-02
#           1.12772E-02  1.15516E-02  1.18326E-02  1.21205E-02  1.24154E-02
#           1.27175E-02  1.30269E-02  1.33439E-02  1.36686E-02  1.40011E-02
#           1.43418E-02  1.46907E-02  1.50482E-02  1.54143E-02  1.57894E-02
#           1.61735E-02  1.65670E-02  1.69701E-02  1.73830E-02  1.78060E-02
#           1.82392E-02  1.86830E-02  1.91375E-02  1.96032E-02  2.00801E-02
#           2.05687E-02  2.10692E-02  2.15818E-02  2.21069E-02  2.26448E-02
#           2.31957E-02  2.37601E-02  2.43382E-02  2.49304E-02  2.55369E-02
#           2.61583E-02  2.67947E-02  2.74467E-02  2.81145E-02  2.87985E-02
#           2.94992E-02  3.02169E-02  3.09521E-02  3.17052E-02  3.24766E-02
#           3.32668E-02  3.40762E-02  3.49053E-02  3.57546E-02  3.66246E-02
#           3.75157E-02  3.84284E-02  3.93634E-02  4.03212E-02  4.13022E-02
#           4.23071E-02  4.33365E-02  4.43909E-02  4.54710E-02  4.65773E-02
#           4.77106E-02  4.88714E-02  5.00605E-02  5.12785E-02  5.25262E-02
#           5.38042E-02  5.51133E-02  5.64542E-02  5.78278E-02  5.92348E-02
#           6.06760E-02  6.21523E-02  6.36645E-02  6.52135E-02  6.68002E-02
#           6.84255E-02  7.00904E-02  7.17957E-02  7.35426E-02  7.53319E-02
#           7.71648E-02  7.90423E-02  8.09655E-02  8.29354E-02  8.49533E-02
#           8.70203E-02  8.91376E-02  9.13064E-02  9.35279E-02  9.58035E-02
#           9.81345E-02  1.00522E-01  1.02968E-01  1.05473E-01  1.08040E-01
#           1.10668E-01  1.13361E-01  1.16119E-01  1.18944E-01  1.21838E-01
#           1.24803E-01  1.27839E-01  1.30950E-01  1.34136E-01  1.37399E-01
#           1.40742E-01  1.44167E-01  1.47675E-01  1.51268E-01  1.54948E-01
#           1.58718E-01  1.62580E-01  1.66535E-01  1.70587E-01  1.74738E-01
#           1.78989E-01  1.83344E-01  1.87805E-01  1.92375E-01  1.97055E-01
#           2.01850E-01  2.06761E-01  2.11792E-01  2.16945E-01  2.22223E-01
#           2.27630E-01  2.33169E-01  2.38842E-01  2.44653E-01  2.50605E-01
#           2.56703E-01  2.62949E-01  2.69346E-01  2.75900E-01  2.82613E-01
#           2.89489E-01  2.96532E-01  3.03747E-01  3.11138E-01  3.18708E-01
#           3.26462E-01  3.34405E-01  3.42542E-01  3.50876E-01  3.59413E-01
#           3.68158E-01  3.77116E-01  3.86291E-01  3.95690E-01  4.05317E-01
#           4.15179E-01  4.25281E-01  4.35628E-01  4.46227E-01  4.57084E-01
#           4.68205E-01  4.79597E-01  4.91266E-01  5.03219E-01  5.15463E-01
#           5.28005E-01  5.40851E-01  5.54011E-01  5.67490E-01  5.81298E-01
#           5.95441E-01  6.09929E-01  6.24769E-01  6.39970E-01  6.55541E-01
#           6.71491E-01  6.87828E-01  7.04564E-01  7.21706E-01  7.39266E-01
#           7.57253E-01  7.75678E-01  7.94551E-01  8.13883E-01  8.33685E-01
#           8.53969E-01  8.74747E-01  8.96030E-01  9.17831E-01  9.40163E-01
#           9.63038E-01  9.86469E-01  1.01047E+00  1.03506E+00  1.06024E+00
#           1.08604E+00  1.11246E+00  1.13953E+00  1.16725E+00  1.19565E+00
#           1.22474E+00  1.25454E+00  1.28507E+00  1.31633E+00  1.34836E+00
#           1.38117E+00  1.41477E+00  1.44920E+00  1.48446E+00  1.52057E+00
#           1.55757E+00  1.59547E+00  1.63429E+00  1.67405E+00  1.71478E+00
#           1.75650E+00  1.79924E+00  1.84302E+00  1.88786E+00  1.93379E+00
#           1.98084E+00  2.02904E+00  2.07841E+00  2.12898E+00  2.18078E+00
#           2.23384E+00  2.28819E+00  2.34386E+00  2.40089E+00  2.45930E+00
#           2.51914E+00  2.58043E+00  2.64322E+00  2.70753E+00  2.77341E+00
#           2.84088E+00  2.91001E+00  2.98081E+00  3.05333E+00  3.12762E+00
#           3.20372E+00  3.28167E+00  3.36152E+00  3.44330E+00  3.52708E+00
#           3.61290E+00  3.70080E+00  3.79085E+00  3.88308E+00  3.97756E+00
#           4.07434E+00  4.17347E+00  4.27501E+00  4.37903E+00  4.48557E+00
#           4.59471E+00  4.70650E+00  4.82102E+00  4.93832E+00  5.05847E+00
#           5.18155E+00  5.30762E+00  5.43676E+00  5.56904E+00  5.70453E+00
#           5.84333E+00  5.98550E+00  6.13114E+00  6.28031E+00  6.43312E+00
#           6.58964E+00  6.74997E+00  6.91420E+00  7.08243E+00  7.25475E+00
#           7.43126E+00  7.61207E+00  7.79728E+00  7.98700E+00  8.18133E+00
#           8.38038E+00  8.58428E+00  8.79315E+00  9.00709E+00  9.22624E+00
#           9.45072E+00  9.68067E+00  9.91620E+00  1.01575E+01  1.04046E+01
#           1.06578E+01  1.09171E+01  1.11827E+01  1.14548E+01  1.17335E+01
#           1.20190E+01  1.23114E+01  1.26109E+01  1.29178E+01  1.32321E+01
#           1.35540E+01  1.38838E+01  1.42216E+01  1.45676E+01  1.49221E+01
#           1.52851E+01  1.56570E+01  1.60380E+01  1.64282E+01  1.68279E+01
#           1.72374E+01  1.76568E+01  1.80864E+01  1.85264E+01  1.89772E+01
#           1.94389E+01  1.99119E+01  2.03963E+01  2.08926E+01  2.14009E+01
#           2.19216E+01  2.24550E+01  2.30014E+01  2.35610E+01  2.41343E+01
#           2.47215E+01  2.53230E+01  2.59391E+01  2.65702E+01  2.72167E+01
#           2.78789E+01  2.85572E+01  2.92520E+01  2.99637E+01  3.06928E+01
#           3.14396E+01  3.22045E+01  3.29881E+01  3.37907E+01  3.46128E+01
#           3.54550E+01  3.63177E+01  3.72013E+01  3.81064E+01  3.90336E+01
#           3.99833E+01  4.09561E+01  4.19526E+01  4.29734E+01  4.40189E+01
#           4.50900E+01  4.61870E+01  4.73108E+01  4.84619E+01  4.96410E+01
#           5.08488E+01  5.20860E+01  5.33533E+01  5.46514E+01  5.59812E+01
#           5.73432E+01  5.87384E+01  6.01676E+01  6.16315E+01  6.31311E+01
#           6.46671E+01  6.62405E+01  6.78522E+01  6.95031E+01  7.11941E+01
#           7.29263E+01  7.47007E+01  7.65182E+01  7.83800E+01  8.02870E+01
#           8.22405E+01  8.42414E+01  8.62911E+01  8.83906E+01  9.05412E+01
#           9.27442E+01  9.50007E+01  9.73122E+01  9.96799E+01  1.02105E+02
#           1.04589E+02  1.07134E+02  1.09741E+02  1.12411E+02  1.15146E+02
#           1.17948E+02  1.20817E+02  1.23757E+02  1.26768E+02  1.29852E+02
#           1.33012E+02  1.36248E+02  1.39563E+02  1.42959E+02  1.46437E+02
#           1.50000E+02
     unit =    2            # unit is [1/cm^2/(MeV/n)/source]
     axis =  eng            # axis of output
     file = detector-12.out  # file name of output for the above axis
   output = f-curr          # surface crossing forward current spectrum
     part =  neutron  
# kf/name :  2112     
#    used :        main (  %)        temp (  %)       total (  %)
#  memory :         414 (  0)           0 (  0)         414 (  0)

#------------------------------------------------------------------------------
#newpage:
#   no. =    1   reg = 111 - 211

x: Energy [MeV/n]
y:  F-Curr [1/cm^2/(MeV/n)/source]         
p: xlog ylog afac(0.8) form(0.9)
h: n            x            y(neutron ),hh0l   n 
#  e-lower      e-upper      neutron     r.err 
   1.0000E-02   1.0243E-02   2.3704E-04  0.0588
   1.0243E-02   1.0493E-02   2.3090E-04  0.0589
   1.0493E-02   1.0748E-02   2.0614E-04  0.0616
   1.0748E-02   1.1009E-02   2.0153E-04  0.0616
   1.1009E-02   1.1277E-02   1.7661E-04  0.0649
   1.1277E-02   1.1552E-02   1.9169E-04  0.0616
   1.1552E-02   1.1833E-02   1.8102E-04  0.0626
   1.1833E-02   1.2121E-02   2.0147E-04  0.0586
   1.2121E-02   1.2415E-02   1.9093E-04  0.0595
   1.2415E-02   1.2718E-02   1.8150E-04  0.0603
   1.2718E-02   1.3027E-02   1.6520E-04  0.0624
   1.3027E-02   1.3344E-02   1.8747E-04  0.0579
   1.3344E-02   1.3669E-02   1.7777E-04  0.0588
   1.3669E-02   1.4001E-02   1.6023E-04  0.0612
   1.4001E-02   1.4342E-02   1.5726E-04  0.0610
   1.4342E-02   1.4691E-02   1.5274E-04  0.0612
   1.4691E-02   1.5048E-02   1.4550E-04  0.0619
   1.5048E-02   1.5414E-02   1.5014E-04  0.0602
   1.5414E-02   1.5789E-02   1.4481E-04  0.0606
   1.5789E-02   1.6174E-02   1.3831E-04  0.0612
   1.6174E-02   1.6567E-02   1.3045E-04  0.0623
   1.6567E-02   1.6970E-02   1.3965E-04  0.0595
   1.6970E-02   1.7383E-02   1.2952E-04  0.0611
   1.7383E-02   1.7806E-02   1.2766E-04  0.0608
   1.7806E-02   1.8239E-02   1.2812E-04  0.0600
   1.8239E-02   1.8683E-02   1.2904E-04  0.0590
   1.8683E-02   1.9138E-02   1.3064E-04  0.0579
   1.9138E-02   1.9603E-02   1.1389E-04  0.0613
   1.9603E-02   2.0080E-02   1.0363E-04  0.0635
   2.0080E-02   2.0569E-02   1.1583E-04  0.0593
   2.0569E-02   2.1069E-02   1.0974E-04  0.0603
   2.1069E-02   2.1582E-02   9.8432E-05  0.0628
   2.1582E-02   2.2107E-02   1.0225E-04  0.0610
   2.2107E-02   2.2645E-02   1.0130E-04  0.0605
   2.2645E-02   2.3196E-02   9.6795E-05  0.0612
   2.3196E-02   2.3760E-02   1.0358E-04  0.0584
   2.3760E-02   2.4338E-02   8.8621E-05  0.0624
   2.4338E-02   2.4930E-02   9.1540E-05  0.0606
   2.4930E-02   2.5537E-02   8.4048E-05  0.0626
   2.5537E-02   2.6158E-02   9.6462E-05  0.0577
   2.6158E-02   2.6795E-02   8.6083E-05  0.0604
   2.6795E-02   2.7447E-02   8.8594E-05  0.0587
   2.7447E-02   2.8114E-02   8.1952E-05  0.0603
   2.8114E-02   2.8799E-02   8.0559E-05  0.0602
   2.8799E-02   2.9499E-02   7.5155E-05  0.0616
   2.9499E-02   3.0217E-02   8.0055E-05  0.0589
   3.0217E-02   3.0952E-02   7.6703E-05  0.0595
   3.0952E-02   3.1705E-02   8.2712E-05  0.0565
   3.1705E-02   3.2477E-02   7.2427E-05  0.0597
   3.2477E-02   3.3267E-02   6.9728E-05  0.0601
   3.3267E-02   3.4076E-02   7.5061E-05  0.0573
   3.4076E-02   3.4905E-02   6.4029E-05  0.0612
   3.4905E-02   3.5755E-02   6.6108E-05  0.0595
   3.5755E-02   3.6625E-02   6.5340E-05  0.0592
   3.6625E-02   3.7516E-02   6.1194E-05  0.0605
   3.7516E-02   3.8428E-02   6.3628E-05  0.0586
   3.8428E-02   3.9363E-02   5.8119E-05  0.0606
   3.9363E-02   4.0321E-02   5.5746E-05  0.0611
   4.0321E-02   4.1302E-02   6.1699E-05  0.0574
   4.1302E-02   4.2307E-02   4.6112E-05  0.0656
   4.2307E-02   4.3337E-02   5.7753E-05  0.0579
   4.3337E-02   4.4391E-02   5.7309E-05  0.0575
   4.4391E-02   4.5471E-02   5.0612E-05  0.0604
   4.5471E-02   4.6577E-02   5.4346E-05  0.0576
   4.6577E-02   4.7711E-02   4.8831E-05  0.0600
   4.7711E-02   4.8871E-02   4.4598E-05  0.0620
   4.8871E-02   5.0061E-02   4.8595E-05  0.0587
   5.0061E-02   5.1279E-02   4.1538E-05  0.0628
   5.1279E-02   5.2526E-02   4.7084E-05  0.0582
   5.2526E-02   5.3804E-02   4.7128E-05  0.0575
   5.3804E-02   5.5113E-02   4.0707E-05  0.0611
   5.5113E-02   5.6454E-02   4.1994E-05  0.0594
   5.6454E-02   5.7828E-02   3.9414E-05  0.0607
   5.7828E-02   5.9235E-02   4.0156E-05  0.0594
   5.9235E-02   6.0676E-02   3.7416E-05  0.0607
   6.0676E-02   6.2152E-02   3.9344E-05  0.0586
   6.2152E-02   6.3665E-02   3.4496E-05  0.0618
   6.3665E-02   6.5214E-02   3.9941E-05  0.0568
   6.5214E-02   6.6800E-02   3.9224E-05  0.0566
   6.6800E-02   6.8426E-02   3.1460E-05  0.0624
   6.8426E-02   7.0090E-02   3.3532E-05  0.0597
   7.0090E-02   7.1796E-02   3.3233E-05  0.0593
   7.1796E-02   7.3543E-02   3.3184E-05  0.0586
   7.3543E-02   7.5332E-02   3.3301E-05  0.0578
   7.5332E-02   7.7165E-02   3.1518E-05  0.0588
   7.7165E-02   7.9042E-02   3.1459E-05  0.0581
   7.9042E-02   8.0965E-02   3.0863E-05  0.0580
   8.0965E-02   8.2935E-02   3.1514E-05  0.0567
   8.2935E-02   8.4953E-02   3.0803E-05  0.0566
   8.4953E-02   8.7020E-02   3.0159E-05  0.0565
   8.7020E-02   8.9138E-02   2.8776E-05  0.0573
   8.9138E-02   9.1306E-02   2.9033E-05  0.0562
   9.1306E-02   9.3528E-02   2.9542E-05  0.0551
   9.3528E-02   9.5804E-02   2.9495E-05  0.0545
   9.5804E-02   9.8134E-02   2.8101E-05  0.0552
   9.8134E-02   1.0052E-01   2.8146E-05  0.0545
   1.0052E-01   1.0297E-01   3.0176E-05  0.0520
   1.0297E-01   1.0547E-01   2.9695E-05  0.0518
   1.0547E-01   1.0804E-01   3.2016E-05  0.0493
   1.0804E-01   1.1067E-01   3.0168E-05  0.0502
   1.1067E-01   1.1336E-01   3.3123E-05  0.0473
   1.1336E-01   1.1612E-01   3.4331E-05  0.0459
   1.1612E-01   1.1894E-01   3.6454E-05  0.0440
   1.1894E-01   1.2184E-01   3.6668E-05  0.0433
   1.2184E-01   1.2480E-01   3.8085E-05  0.0420
   1.2480E-01   1.2784E-01   3.9374E-05  0.0408
   1.2784E-01   1.3095E-01   4.1509E-05  0.0393
   1.3095E-01   1.3414E-01   4.0674E-05  0.0392
   1.3414E-01   1.3740E-01   4.2236E-05  0.0380
   1.3740E-01   1.4074E-01   4.3828E-05  0.0369
   1.4074E-01   1.4417E-01   4.7338E-05  0.0351
   1.4417E-01   1.4767E-01   4.9604E-05  0.0339
   1.4767E-01   1.5127E-01   5.1258E-05  0.0329
   1.5127E-01   1.5495E-01   5.2783E-05  0.0320
   1.5495E-01   1.5872E-01   5.3654E-05  0.0314
   1.5872E-01   1.6258E-01   5.8956E-05  0.0296
   1.6258E-01   1.6654E-01   5.9353E-05  0.0291
   1.6654E-01   1.7059E-01   5.4753E-05  0.0300
   1.7059E-01   1.7474E-01   6.0056E-05  0.0283
   1.7474E-01   1.7899E-01   6.4498E-05  0.0270
   1.7899E-01   1.8334E-01   6.2693E-05  0.0270
   1.8334E-01   1.8781E-01   6.6008E-05  0.0260
   1.8781E-01   1.9237E-01   6.7316E-05  0.0255
   1.9237E-01   1.9706E-01   7.0608E-05  0.0246
   1.9706E-01   2.0185E-01   7.1993E-05  0.0240
   2.0185E-01   2.0676E-01   6.9140E-05  0.0242
   2.0676E-01   2.1179E-01   7.5367E-05  0.0229
   2.1179E-01   2.1694E-01   7.7653E-05  0.0223
   2.1694E-01   2.2222E-01   8.0121E-05  0.0217
   2.2222E-01   2.2763E-01   8.1879E-05  0.0212
   2.2763E-01   2.3317E-01   8.4955E-05  0.0206
   2.3317E-01   2.3884E-01   8.6443E-05  0.0202
   2.3884E-01   2.4465E-01   8.8760E-05  0.0197
   2.4465E-01   2.5061E-01   8.7057E-05  0.0196
   2.5061E-01   2.5670E-01   9.1177E-05  0.0189
   2.5670E-01   2.6295E-01   9.4145E-05  0.0184
   2.6295E-01   2.6935E-01   9.8975E-05  0.0177
   2.6935E-01   2.7590E-01   1.0006E-04  0.0174
   2.7590E-01   2.8261E-01   1.0285E-04  0.0170
   2.8261E-01   2.8949E-01   1.0468E-04  0.0166
   2.8949E-01   2.9653E-01   1.0548E-04  0.0164
   2.9653E-01   3.0375E-01   1.0749E-04  0.0160
   3.0375E-01   3.1114E-01   1.1391E-04  0.0154
   3.1114E-01   3.1871E-01   1.1310E-04  0.0153
   3.1871E-01   3.2646E-01   1.1680E-04  0.0148
   3.2646E-01   3.3441E-01   1.1840E-04  0.0146
   3.3441E-01   3.4254E-01   1.2231E-04  0.0141
   3.4254E-01   3.5088E-01   1.2355E-04  0.0139
   3.5088E-01   3.5941E-01   1.2794E-04  0.0135
   3.5941E-01   3.6816E-01   1.3136E-04  0.0132
   3.6816E-01   3.7712E-01   1.3096E-04  0.0130
   3.7712E-01   3.8629E-01   1.3229E-04  0.0128
   3.8629E-01   3.9569E-01   1.3477E-04  0.0125
   3.9569E-01   4.0532E-01   1.3819E-04  0.0122
   4.0532E-01   4.1518E-01   1.3889E-04  0.0121
   4.1518E-01   4.2528E-01   1.4253E-04  0.0118
   4.2528E-01   4.3563E-01   1.4563E-04  0.0115
   4.3563E-01   4.4623E-01   1.4994E-04  0.0112
   4.4623E-01   4.5708E-01   1.4922E-04  0.0111
   4.5708E-01   4.6821E-01   1.5300E-04  0.0108
   4.6821E-01   4.7960E-01   1.5334E-04  0.0107
   4.7960E-01   4.9127E-01   1.5773E-04  0.0104
   4.9127E-01   5.0322E-01   1.5695E-04  0.0103
   5.0322E-01   5.1546E-01   1.5975E-04  0.0101
   5.1546E-01   5.2800E-01   1.6276E-04  0.0099
   5.2800E-01   5.4085E-01   1.6246E-04  0.0098
   5.4085E-01   5.5401E-01   1.6704E-04  0.0095
   5.5401E-01   5.6749E-01   1.6942E-04  0.0093
   5.6749E-01   5.8130E-01   1.7122E-04  0.0092
   5.8130E-01   5.9544E-01   1.7137E-04  0.0091
   5.9544E-01   6.0993E-01   1.7266E-04  0.0089
   6.0993E-01   6.2477E-01   1.7332E-04  0.0088
   6.2477E-01   6.3997E-01   1.7278E-04  0.0087
   6.3997E-01   6.5554E-01   1.7604E-04  0.0085
   6.5554E-01   6.7149E-01   1.7727E-04  0.0084
   6.7149E-01   6.8783E-01   1.7830E-04  0.0083
   6.8783E-01   7.0456E-01   1.7666E-04  0.0082
   7.0456E-01   7.2171E-01   1.7761E-04  0.0081
   7.2171E-01   7.3927E-01   1.7925E-04  0.0079
   7.3927E-01   7.5725E-01   1.7798E-04  0.0079
   7.5725E-01   7.7568E-01   1.7672E-04  0.0078
   7.7568E-01   7.9455E-01   1.7765E-04  0.0077
   7.9455E-01   8.1388E-01   1.7405E-04  0.0077
   8.1388E-01   8.3368E-01   1.7223E-04  0.0076
   8.3368E-01   8.5397E-01   1.7218E-04  0.0075
   8.5397E-01   8.7475E-01   1.6916E-04  0.0075
   8.7475E-01   8.9603E-01   1.6803E-04  0.0074
   8.9603E-01   9.1783E-01   1.6280E-04  0.0075
   9.1783E-01   9.4016E-01   1.5950E-04  0.0075
   9.4016E-01   9.6304E-01   1.5509E-04  0.0075
   9.6304E-01   9.8647E-01   1.4826E-04  0.0076
   9.8647E-01   1.0105E+00   1.4607E-04  0.0075
   1.0105E+00   1.0351E+00   1.4587E-04  0.0074
   1.0351E+00   1.0602E+00   1.4733E-04  0.0073
   1.0602E+00   1.0860E+00   1.5057E-04  0.0071
   1.0860E+00   1.1125E+00   1.5225E-04  0.0070
   1.1125E+00   1.1395E+00   1.5619E-04  0.0068
   1.1395E+00   1.1673E+00   1.6237E-04  0.0066
   1.1673E+00   1.1957E+00   1.6707E-04  0.0064
   1.1957E+00   1.2247E+00   1.7163E-04  0.0063
   1.2247E+00   1.2545E+00   1.7200E-04  0.0062
   1.2545E+00   1.2851E+00   1.7504E-04  0.0061
   1.2851E+00   1.3163E+00   1.7838E-04  0.0059
   1.3163E+00   1.3484E+00   1.8355E-04  0.0058
   1.3484E+00   1.3812E+00   1.8257E-04  0.0057
   1.3812E+00   1.4148E+00   1.9044E-04  0.0055
   1.4148E+00   1.4492E+00   1.9269E-04  0.0054
   1.4492E+00   1.4845E+00   1.9403E-04  0.0054
   1.4845E+00   1.5206E+00   1.9391E-04  0.0053
   1.5206E+00   1.5576E+00   1.9589E-04  0.0052
   1.5576E+00   1.5955E+00   1.9813E-04  0.0051
   1.5955E+00   1.6343E+00   1.9863E-04  0.0050
   1.6343E+00   1.6741E+00   1.9869E-04  0.0050
   1.6741E+00   1.7148E+00   2.0168E-04  0.0049
   1.7148E+00   1.7565E+00   2.0114E-04  0.0048
   1.7565E+00   1.7992E+00   1.9444E-04  0.0048
   1.7992E+00   1.8430E+00   1.8798E-04  0.0049
   1.8430E+00   1.8879E+00   1.8403E-04  0.0048
   1.8879E+00   1.9338E+00   1.8480E-04  0.0048
   1.9338E+00   1.9808E+00   1.8235E-04  0.0047
   1.9808E+00   2.0290E+00   1.8524E-04  0.0046
   2.0290E+00   2.0784E+00   1.8599E-04  0.0046
   2.0784E+00   2.1290E+00   1.8827E-04  0.0045
   2.1290E+00   2.1808E+00   1.9227E-04  0.0044
   2.1808E+00   2.2338E+00   1.9448E-04  0.0043
   2.2338E+00   2.2882E+00   1.9205E-04  0.0043
   2.2882E+00   2.3439E+00   1.8862E-04  0.0043
   2.3439E+00   2.4009E+00   1.8846E-04  0.0042
   2.4009E+00   2.4593E+00   1.8815E-04  0.0042
   2.4593E+00   2.5191E+00   1.8768E-04  0.0041
   2.5191E+00   2.5804E+00   1.8604E-04  0.0041
   2.5804E+00   2.6432E+00   1.8444E-04  0.0041
   2.6432E+00   2.7075E+00   1.8330E-04  0.0040
   2.7075E+00   2.7734E+00   1.8088E-04  0.0040
   2.7734E+00   2.8409E+00   1.8119E-04  0.0040
   2.8409E+00   2.9100E+00   1.7903E-04  0.0039
   2.9100E+00   2.9808E+00   1.7928E-04  0.0039
   2.9808E+00   3.0533E+00   1.7752E-04  0.0039
   3.0533E+00   3.1276E+00   1.7500E-04  0.0039
   3.1276E+00   3.2037E+00   1.7226E-04  0.0038
   3.2037E+00   3.2817E+00   1.7081E-04  0.0038
   3.2817E+00   3.3615E+00   1.6788E-04  0.0038
   3.3615E+00   3.4433E+00   1.6658E-04  0.0038
   3.4433E+00   3.5271E+00   1.6487E-04  0.0038
   3.5271E+00   3.6129E+00   1.6317E-04  0.0037
   3.6129E+00   3.7008E+00   1.6041E-04  0.0037
   3.7008E+00   3.7908E+00   1.5853E-04  0.0037
   3.7908E+00   3.8831E+00   1.5485E-04  0.0037
   3.8831E+00   3.9776E+00   1.5320E-04  0.0037
   3.9776E+00   4.0743E+00   1.4907E-04  0.0037
   4.0743E+00   4.1735E+00   1.4673E-04  0.0037
   4.1735E+00   4.2750E+00   1.4273E-04  0.0037
   4.2750E+00   4.3790E+00   1.3898E-04  0.0037
   4.3790E+00   4.4856E+00   1.3530E-04  0.0037
   4.4856E+00   4.5947E+00   1.3145E-04  0.0037
   4.5947E+00   4.7065E+00   1.2873E-04  0.0037
   4.7065E+00   4.8210E+00   1.2561E-04  0.0037
   4.8210E+00   4.9383E+00   1.2365E-04  0.0037
   4.9383E+00   5.0585E+00   1.2064E-04  0.0037
   5.0585E+00   5.1815E+00   1.1708E-04  0.0037
   5.1815E+00   5.3076E+00   1.1369E-04  0.0037
   5.3076E+00   5.4368E+00   1.1135E-04  0.0037
   5.4368E+00   5.5690E+00   1.0837E-04  0.0037
   5.5690E+00   5.7045E+00   1.0447E-04  0.0037
   5.7045E+00   5.8433E+00   1.0340E-04  0.0037
   5.8433E+00   5.9855E+00   9.9533E-05  0.0037
   5.9855E+00   6.1311E+00   9.8466E-05  0.0037
   6.1311E+00   6.2803E+00   9.5125E-05  0.0037
   6.2803E+00   6.4331E+00   9.2109E-05  0.0037
   6.4331E+00   6.5896E+00   8.9234E-05  0.0037
   6.5896E+00   6.7500E+00   8.6016E-05  0.0038
   6.7500E+00   6.9142E+00   8.3452E-05  0.0038
   6.9142E+00   7.0824E+00   8.0250E-05  0.0038
   7.0824E+00   7.2548E+00   7.7754E-05  0.0038
   7.2548E+00   7.4313E+00   7.4813E-05  0.0039
   7.4313E+00   7.6121E+00   7.2140E-05  0.0039
   7.6121E+00   7.7973E+00   6.8261E-05  0.0039
   7.7973E+00   7.9870E+00   6.6086E-05  0.0040
   7.9870E+00   8.1813E+00   6.2884E-05  0.0040
   8.1813E+00   8.3804E+00   5.8926E-05  0.0041
   8.3804E+00   8.5843E+00   5.6232E-05  0.0041
   8.5843E+00   8.7931E+00   5.2921E-05  0.0042
   8.7931E+00   9.0071E+00   5.0590E-05  0.0043
   9.0071E+00   9.2262E+00   4.7929E-05  0.0043
   9.2262E+00   9.4507E+00   4.5634E-05  0.0044
   9.4507E+00   9.6807E+00   4.3419E-05  0.0044
   9.6807E+00   9.9162E+00   4.1802E-05  0.0045
   9.9162E+00   1.0157E+01   4.1664E-05  0.0044
   1.0157E+01   1.0405E+01   4.0109E-05  0.0045
   1.0405E+01   1.0658E+01   3.7819E-05  0.0046
   1.0658E+01   1.0917E+01   3.5773E-05  0.0046
   1.0917E+01   1.1183E+01   3.3381E-05  0.0047
   1.1183E+01   1.1455E+01   3.2052E-05  0.0048
   1.1455E+01   1.1733E+01   3.0526E-05  0.0048
   1.1733E+01   1.2019E+01   2.9363E-05  0.0049
   1.2019E+01   1.2311E+01   2.8104E-05  0.0049
   1.2311E+01   1.2611E+01   2.6601E-05  0.0050
   1.2611E+01   1.2918E+01   2.5373E-05  0.0051
   1.2918E+01   1.3232E+01   2.4252E-05  0.0051
   1.3232E+01   1.3554E+01   2.3212E-05  0.0052
   1.3554E+01   1.3884E+01   2.1957E-05  0.0052
   1.3884E+01   1.4222E+01   2.1074E-05  0.0053
   1.4222E+01   1.4568E+01   2.0017E-05  0.0054
   1.4568E+01   1.4922E+01   1.8970E-05  0.0054
   1.4922E+01   1.5285E+01   1.7946E-05  0.0055
   1.5285E+01   1.5657E+01   1.7064E-05  0.0056
   1.5657E+01   1.6038E+01   1.6255E-05  0.0057
   1.6038E+01   1.6428E+01   1.5354E-05  0.0058
   1.6428E+01   1.6828E+01   1.4573E-05  0.0059
   1.6828E+01   1.7237E+01   1.3774E-05  0.0060
   1.7237E+01   1.7657E+01   1.2893E-05  0.0061
   1.7657E+01   1.8086E+01   1.2356E-05  0.0061
   1.8086E+01   1.8526E+01   1.1387E-05  0.0063
   1.8526E+01   1.8977E+01   1.0708E-05  0.0064
   1.8977E+01   1.9439E+01   9.9711E-06  0.0066
   1.9439E+01   1.9912E+01   9.3630E-06  0.0067
   1.9912E+01   2.0396E+01   8.9198E-06  0.0068
   2.0396E+01   2.0893E+01   8.2308E-06  0.0070
   2.0893E+01   2.1401E+01   7.6887E-06  0.0072
   2.1401E+01   2.1922E+01   7.0309E-06  0.0074
   2.1922E+01   2.2455E+01   6.5613E-06  0.0076
   2.2455E+01   2.3001E+01   6.1415E-06  0.0077
   2.3001E+01   2.3561E+01   6.3948E-06  0.0075
   2.3561E+01   2.4134E+01   6.4683E-06  0.0073
   2.4134E+01   2.4721E+01   6.0299E-06  0.0075
   2.4721E+01   2.5323E+01   5.5858E-06  0.0077
   2.5323E+01   2.5939E+01   5.1879E-06  0.0079
   2.5939E+01   2.6570E+01   4.6124E-06  0.0083
   2.6570E+01   2.7217E+01   4.1796E-06  0.0086
   2.7217E+01   2.7879E+01   3.7194E-06  0.0090
   2.7879E+01   2.8557E+01   3.2708E-06  0.0095
   2.8557E+01   2.9252E+01   2.8652E-06  0.0100
   2.9252E+01   2.9964E+01   2.4450E-06  0.0107
   2.9964E+01   3.0693E+01   2.1115E-06  0.0114
   3.0693E+01   3.1440E+01   1.7737E-06  0.0123
   3.1440E+01   3.2205E+01   1.4328E-06  0.0135
   3.2205E+01   3.2988E+01   1.2652E-06  0.0142
   3.2988E+01   3.3791E+01   1.0787E-06  0.0152
   3.3791E+01   3.4613E+01   8.9716E-07  0.0165
   3.4613E+01   3.5455E+01   7.6660E-07  0.0176
   3.5455E+01   3.6318E+01   6.4847E-07  0.0189
   3.6318E+01   3.7201E+01   5.3167E-07  0.0206
   3.7201E+01   3.8106E+01   4.2579E-07  0.0228
   3.8106E+01   3.9034E+01   3.1969E-07  0.0260
   3.9034E+01   3.9983E+01   1.9606E-07  0.0328
   3.9983E+01   4.0956E+01   9.0047E-08  0.0478
   4.0956E+01   4.1953E+01   3.9940E-08  0.0709
   4.1953E+01   4.2973E+01   1.6459E-08  0.1091
   4.2973E+01   4.4019E+01   5.9297E-09  0.1796
   4.4019E+01   4.5090E+01   7.4695E-10  0.5000
   4.5090E+01   4.6187E+01   0.0000E+00  0.0000
   4.6187E+01   4.7311E+01   0.0000E+00  0.0000
   4.7311E+01   4.8462E+01   0.0000E+00  0.0000
   4.8462E+01   4.9641E+01   0.0000E+00  0.0000
   4.9641E+01   5.0849E+01   0.0000E+00  0.0000
   5.0849E+01   5.2086E+01   0.0000E+00  0.0000
   5.2086E+01   5.3353E+01   0.0000E+00  0.0000
   5.3353E+01   5.4651E+01   0.0000E+00  0.0000
   5.4651E+01   5.5981E+01   0.0000E+00  0.0000
   5.5981E+01   5.7343E+01   0.0000E+00  0.0000
   5.7343E+01   5.8738E+01   0.0000E+00  0.0000
   5.8738E+01   6.0168E+01   0.0000E+00  0.0000
   6.0168E+01   6.1632E+01   0.0000E+00  0.0000
   6.1632E+01   6.3131E+01   0.0000E+00  0.0000
   6.3131E+01   6.4667E+01   0.0000E+00  0.0000
   6.4667E+01   6.6240E+01   0.0000E+00  0.0000
   6.6240E+01   6.7852E+01   0.0000E+00  0.0000
   6.7852E+01   6.9503E+01   0.0000E+00  0.0000
   6.9503E+01   7.1194E+01   0.0000E+00  0.0000
   7.1194E+01   7.2926E+01   0.0000E+00  0.0000
   7.2926E+01   7.4701E+01   0.0000E+00  0.0000
   7.4701E+01   7.6518E+01   0.0000E+00  0.0000
   7.6518E+01   7.8380E+01   0.0000E+00  0.0000
   7.8380E+01   8.0287E+01   0.0000E+00  0.0000
   8.0287E+01   8.2240E+01   0.0000E+00  0.0000
   8.2240E+01   8.4241E+01   0.0000E+00  0.0000
   8.4241E+01   8.6291E+01   0.0000E+00  0.0000
   8.6291E+01   8.8391E+01   0.0000E+00  0.0000
   8.8391E+01   9.0541E+01   0.0000E+00  0.0000
   9.0541E+01   9.2744E+01   0.0000E+00  0.0000
   9.2744E+01   9.5001E+01   0.0000E+00  0.0000
   9.5001E+01   9.7312E+01   0.0000E+00  0.0000
   9.7312E+01   9.9680E+01   0.0000E+00  0.0000
   9.9680E+01   1.0211E+02   0.0000E+00  0.0000
   1.0211E+02   1.0459E+02   0.0000E+00  0.0000
   1.0459E+02   1.0713E+02   0.0000E+00  0.0000
   1.0713E+02   1.0974E+02   0.0000E+00  0.0000
   1.0974E+02   1.1241E+02   0.0000E+00  0.0000
   1.1241E+02   1.1515E+02   0.0000E+00  0.0000
   1.1515E+02   1.1795E+02   0.0000E+00  0.0000
   1.1795E+02   1.2082E+02   0.0000E+00  0.0000
   1.2082E+02   1.2376E+02   0.0000E+00  0.0000
   1.2376E+02   1.2677E+02   0.0000E+00  0.0000
   1.2677E+02   1.2985E+02   0.0000E+00  0.0000
   1.2985E+02   1.3301E+02   0.0000E+00  0.0000
   1.3301E+02   1.3625E+02   0.0000E+00  0.0000
   1.3625E+02   1.3956E+02   0.0000E+00  0.0000
   1.3956E+02   1.4296E+02   0.0000E+00  0.0000
   1.4296E+02   1.4644E+02   0.0000E+00  0.0000
   1.4644E+02   1.5000E+02   0.0000E+00  0.0000

#   sum over                 9.5675E-06
'no. =    1   reg = 111 - 211'
msuc: {\huge [t-cross] in region mesh}
msdr: {\it plotted by \ANGEL \version}
msdl: {\it calculated by \PHITS  3.26}
wt: s(0.7)
\vspace{-3}
  region surface crossing
  area  &=&   1.0000E+00 [cm^2]
e:
 
# Information for Restart Calculation
# This calculation was newly started
# istdev =  2 # 1:Batch variance, 2:History variance
# resc2  = 5.00000000000000000E+09 # Total source weight or Total source weight / maxcas
# resc3  = 5.00000000000000000E+09 # Total history number or Total batch number
# maxcas =   100000000 # History / Batch, only used for istdev=1
# bitrseed = 0110100000100010111000001110001111001110100100011111101000111001 # bit data of rseed
