19 <--- number of remaining batches 

-------------------------------------------------------------------------------
bat[      31] ncas =     3100000000.
 bitrseed = 0110110011111001100110101011100000010010001000001101100100111101
          cpu time = -56.188 s.

 date = 2022-05-02
 time = 11h 47m 08s

