[ T-Cross ]
    title = [t-cross] in region mesh
     mesh =  reg            # mesh type is region-wise
      reg =    1            # number of crossing regions
      non     r-from    r-to       area
      1       106       206        1.000000    
   e-type =    3            # e-mesh is log given by emin, emax and ne
     emin =  1.0000000E-02  # minimum value of e-mesh points
     emax =   150.0000      # maximum value of e-mesh points
#    edel =  2.4039514E-02  # mesh width of e-mesh points
       ne =    400          # number of e-mesh points
#    data = ( e(i), i = 1, ne + 1 )
#           1.00000E-02  1.02433E-02  1.04925E-02  1.07478E-02  1.10093E-02
#           1.12772E-02  1.15516E-02  1.18326E-02  1.21205E-02  1.24154E-02
#           1.27175E-02  1.30269E-02  1.33439E-02  1.36686E-02  1.40011E-02
#           1.43418E-02  1.46907E-02  1.50482E-02  1.54143E-02  1.57894E-02
#           1.61735E-02  1.65670E-02  1.69701E-02  1.73830E-02  1.78060E-02
#           1.82392E-02  1.86830E-02  1.91375E-02  1.96032E-02  2.00801E-02
#           2.05687E-02  2.10692E-02  2.15818E-02  2.21069E-02  2.26448E-02
#           2.31957E-02  2.37601E-02  2.43382E-02  2.49304E-02  2.55369E-02
#           2.61583E-02  2.67947E-02  2.74467E-02  2.81145E-02  2.87985E-02
#           2.94992E-02  3.02169E-02  3.09521E-02  3.17052E-02  3.24766E-02
#           3.32668E-02  3.40762E-02  3.49053E-02  3.57546E-02  3.66246E-02
#           3.75157E-02  3.84284E-02  3.93634E-02  4.03212E-02  4.13022E-02
#           4.23071E-02  4.33365E-02  4.43909E-02  4.54710E-02  4.65773E-02
#           4.77106E-02  4.88714E-02  5.00605E-02  5.12785E-02  5.25262E-02
#           5.38042E-02  5.51133E-02  5.64542E-02  5.78278E-02  5.92348E-02
#           6.06760E-02  6.21523E-02  6.36645E-02  6.52135E-02  6.68002E-02
#           6.84255E-02  7.00904E-02  7.17957E-02  7.35426E-02  7.53319E-02
#           7.71648E-02  7.90423E-02  8.09655E-02  8.29354E-02  8.49533E-02
#           8.70203E-02  8.91376E-02  9.13064E-02  9.35279E-02  9.58035E-02
#           9.81345E-02  1.00522E-01  1.02968E-01  1.05473E-01  1.08040E-01
#           1.10668E-01  1.13361E-01  1.16119E-01  1.18944E-01  1.21838E-01
#           1.24803E-01  1.27839E-01  1.30950E-01  1.34136E-01  1.37399E-01
#           1.40742E-01  1.44167E-01  1.47675E-01  1.51268E-01  1.54948E-01
#           1.58718E-01  1.62580E-01  1.66535E-01  1.70587E-01  1.74738E-01
#           1.78989E-01  1.83344E-01  1.87805E-01  1.92375E-01  1.97055E-01
#           2.01850E-01  2.06761E-01  2.11792E-01  2.16945E-01  2.22223E-01
#           2.27630E-01  2.33169E-01  2.38842E-01  2.44653E-01  2.50605E-01
#           2.56703E-01  2.62949E-01  2.69346E-01  2.75900E-01  2.82613E-01
#           2.89489E-01  2.96532E-01  3.03747E-01  3.11138E-01  3.18708E-01
#           3.26462E-01  3.34405E-01  3.42542E-01  3.50876E-01  3.59413E-01
#           3.68158E-01  3.77116E-01  3.86291E-01  3.95690E-01  4.05317E-01
#           4.15179E-01  4.25281E-01  4.35628E-01  4.46227E-01  4.57084E-01
#           4.68205E-01  4.79597E-01  4.91266E-01  5.03219E-01  5.15463E-01
#           5.28005E-01  5.40851E-01  5.54011E-01  5.67490E-01  5.81298E-01
#           5.95441E-01  6.09929E-01  6.24769E-01  6.39970E-01  6.55541E-01
#           6.71491E-01  6.87828E-01  7.04564E-01  7.21706E-01  7.39266E-01
#           7.57253E-01  7.75678E-01  7.94551E-01  8.13883E-01  8.33685E-01
#           8.53969E-01  8.74747E-01  8.96030E-01  9.17831E-01  9.40163E-01
#           9.63038E-01  9.86469E-01  1.01047E+00  1.03506E+00  1.06024E+00
#           1.08604E+00  1.11246E+00  1.13953E+00  1.16725E+00  1.19565E+00
#           1.22474E+00  1.25454E+00  1.28507E+00  1.31633E+00  1.34836E+00
#           1.38117E+00  1.41477E+00  1.44920E+00  1.48446E+00  1.52057E+00
#           1.55757E+00  1.59547E+00  1.63429E+00  1.67405E+00  1.71478E+00
#           1.75650E+00  1.79924E+00  1.84302E+00  1.88786E+00  1.93379E+00
#           1.98084E+00  2.02904E+00  2.07841E+00  2.12898E+00  2.18078E+00
#           2.23384E+00  2.28819E+00  2.34386E+00  2.40089E+00  2.45930E+00
#           2.51914E+00  2.58043E+00  2.64322E+00  2.70753E+00  2.77341E+00
#           2.84088E+00  2.91001E+00  2.98081E+00  3.05333E+00  3.12762E+00
#           3.20372E+00  3.28167E+00  3.36152E+00  3.44330E+00  3.52708E+00
#           3.61290E+00  3.70080E+00  3.79085E+00  3.88308E+00  3.97756E+00
#           4.07434E+00  4.17347E+00  4.27501E+00  4.37903E+00  4.48557E+00
#           4.59471E+00  4.70650E+00  4.82102E+00  4.93832E+00  5.05847E+00
#           5.18155E+00  5.30762E+00  5.43676E+00  5.56904E+00  5.70453E+00
#           5.84333E+00  5.98550E+00  6.13114E+00  6.28031E+00  6.43312E+00
#           6.58964E+00  6.74997E+00  6.91420E+00  7.08243E+00  7.25475E+00
#           7.43126E+00  7.61207E+00  7.79728E+00  7.98700E+00  8.18133E+00
#           8.38038E+00  8.58428E+00  8.79315E+00  9.00709E+00  9.22624E+00
#           9.45072E+00  9.68067E+00  9.91620E+00  1.01575E+01  1.04046E+01
#           1.06578E+01  1.09171E+01  1.11827E+01  1.14548E+01  1.17335E+01
#           1.20190E+01  1.23114E+01  1.26109E+01  1.29178E+01  1.32321E+01
#           1.35540E+01  1.38838E+01  1.42216E+01  1.45676E+01  1.49221E+01
#           1.52851E+01  1.56570E+01  1.60380E+01  1.64282E+01  1.68279E+01
#           1.72374E+01  1.76568E+01  1.80864E+01  1.85264E+01  1.89772E+01
#           1.94389E+01  1.99119E+01  2.03963E+01  2.08926E+01  2.14009E+01
#           2.19216E+01  2.24550E+01  2.30014E+01  2.35610E+01  2.41343E+01
#           2.47215E+01  2.53230E+01  2.59391E+01  2.65702E+01  2.72167E+01
#           2.78789E+01  2.85572E+01  2.92520E+01  2.99637E+01  3.06928E+01
#           3.14396E+01  3.22045E+01  3.29881E+01  3.37907E+01  3.46128E+01
#           3.54550E+01  3.63177E+01  3.72013E+01  3.81064E+01  3.90336E+01
#           3.99833E+01  4.09561E+01  4.19526E+01  4.29734E+01  4.40189E+01
#           4.50900E+01  4.61870E+01  4.73108E+01  4.84619E+01  4.96410E+01
#           5.08488E+01  5.20860E+01  5.33533E+01  5.46514E+01  5.59812E+01
#           5.73432E+01  5.87384E+01  6.01676E+01  6.16315E+01  6.31311E+01
#           6.46671E+01  6.62405E+01  6.78522E+01  6.95031E+01  7.11941E+01
#           7.29263E+01  7.47007E+01  7.65182E+01  7.83800E+01  8.02870E+01
#           8.22405E+01  8.42414E+01  8.62911E+01  8.83906E+01  9.05412E+01
#           9.27442E+01  9.50007E+01  9.73122E+01  9.96799E+01  1.02105E+02
#           1.04589E+02  1.07134E+02  1.09741E+02  1.12411E+02  1.15146E+02
#           1.17948E+02  1.20817E+02  1.23757E+02  1.26768E+02  1.29852E+02
#           1.33012E+02  1.36248E+02  1.39563E+02  1.42959E+02  1.46437E+02
#           1.50000E+02
     unit =    2            # unit is [1/cm^2/(MeV/n)/source]
     axis =  eng            # axis of output
     file = detector-07.out  # file name of output for the above axis
   output = f-curr          # surface crossing forward current spectrum
     part =  neutron  
# kf/name :  2112     
#    used :        main (  %)        temp (  %)       total (  %)
#  memory :         414 (  0)           0 (  0)         414 (  0)

#------------------------------------------------------------------------------
#newpage:
#   no. =    1   reg = 106 - 206

x: Energy [MeV/n]
y:  F-Curr [1/cm^2/(MeV/n)/source]         
p: xlog ylog afac(0.8) form(0.9)
h: n            x            y(neutron ),hh0l   n 
#  e-lower      e-upper      neutron     r.err 
   1.0000E-02   1.0243E-02   4.0597E-05  0.4472
   1.0243E-02   1.0493E-02   8.7774E-05  0.3015
   1.0493E-02   1.0748E-02   6.2092E-05  0.3536
   1.0748E-02   1.1009E-02   1.2540E-04  0.2434
   1.1009E-02   1.1277E-02   7.4126E-05  0.3162
   1.1277E-02   1.1552E-02   8.6017E-05  0.2890
   1.1552E-02   1.1833E-02   9.3840E-05  0.2723
   1.1833E-02   1.2121E-02   9.5122E-05  0.2675
   1.2121E-02   1.2415E-02   1.1467E-04  0.2425
   1.2415E-02   1.2718E-02   1.5800E-04  0.2041
   1.2718E-02   1.3027E-02   1.0758E-04  0.2428
   1.3027E-02   1.3344E-02   6.0982E-05  0.3094
   1.3344E-02   1.3669E-02   3.6643E-05  0.4083
   1.3669E-02   1.4001E-02   7.2555E-05  0.2855
   1.4001E-02   1.4342E-02   6.4062E-05  0.3015
   1.4342E-02   1.4691E-02   6.2371E-05  0.3015
   1.4691E-02   1.5048E-02   6.6784E-05  0.2887
   1.5048E-02   1.5414E-02   7.0234E-05  0.2774
   1.5414E-02   1.5789E-02   7.5299E-05  0.2635
   1.5789E-02   1.6174E-02   1.0799E-04  0.2183
   1.6174E-02   1.6567E-02   4.6638E-05  0.3264
   1.6567E-02   1.6970E-02   7.7126E-05  0.2506
   1.6970E-02   1.7383E-02   7.1886E-05  0.2583
   1.7383E-02   1.7806E-02   7.5315E-05  0.2500
   1.7806E-02   1.8239E-02   8.2425E-05  0.2357
   1.8239E-02   1.8683E-02   7.0781E-05  0.2488
   1.8683E-02   1.9138E-02   6.6902E-05  0.2542
   1.9138E-02   1.9603E-02   4.7009E-05  0.3015
   1.9603E-02   2.0080E-02   3.7448E-05  0.3334
   2.0080E-02   2.0569E-02   4.0754E-05  0.3162
   2.0569E-02   2.1069E-02   3.0436E-05  0.3559
   2.1069E-02   2.1582E-02   2.7232E-05  0.3780
   2.1582E-02   2.2107E-02   5.1691E-05  0.2683
   2.2107E-02   2.2645E-02   4.2310E-05  0.2926
   2.2645E-02   2.3196E-02   1.8051E-05  0.4472
   2.3196E-02   2.3760E-02   4.2330E-05  0.2887
   2.3760E-02   2.4338E-02   2.1410E-05  0.3950
   2.4338E-02   2.4930E-02   5.9586E-05  0.2360
   2.4930E-02   2.5537E-02   4.3353E-05  0.2732
   2.5537E-02   2.6158E-02   3.4718E-05  0.3016
   2.6158E-02   2.6795E-02   4.4446E-05  0.2632
   2.6795E-02   2.7447E-02   3.4495E-05  0.2910
   2.7447E-02   2.8114E-02   6.4527E-05  0.2137
   2.8114E-02   2.8799E-02   4.0757E-05  0.2673
   2.8799E-02   2.9499E-02   5.0972E-05  0.2357
   2.9499E-02   3.0217E-02   4.6601E-05  0.2428
   3.0217E-02   3.0952E-02   4.5728E-05  0.2426
   3.0952E-02   3.1705E-02   1.8036E-05  0.3786
   3.1705E-02   3.2477E-02   3.6169E-05  0.2630
   3.2477E-02   3.3267E-02   2.5201E-05  0.3162
   3.3267E-02   3.4076E-02   3.6061E-05  0.2586
   3.4076E-02   3.4905E-02   3.4912E-05  0.2594
   3.4905E-02   3.5755E-02   3.6643E-05  0.2504
   3.5755E-02   3.6625E-02   3.8806E-05  0.2425
   3.6625E-02   3.7516E-02   3.7393E-05  0.2406
   3.7516E-02   3.8428E-02   2.2507E-05  0.3079
   3.8428E-02   3.9363E-02   2.8374E-05  0.2681
   3.9363E-02   4.0321E-02   2.6803E-05  0.2743
   4.0321E-02   4.1302E-02   3.0345E-05  0.2582
   4.1302E-02   4.2307E-02   2.2074E-05  0.2952
   4.2307E-02   4.3337E-02   3.1977E-05  0.2432
   4.3337E-02   4.4391E-02   3.5351E-05  0.2281
   4.4391E-02   4.5471E-02   2.6490E-05  0.2595
   4.5471E-02   4.6577E-02   2.5115E-05  0.2673
   4.6577E-02   4.7711E-02   1.9299E-05  0.2977
   4.7711E-02   4.8871E-02   3.3225E-05  0.2259
   4.8871E-02   5.0061E-02   1.8504E-05  0.2963
   5.0061E-02   5.1279E-02   1.9591E-05  0.2887
   5.1279E-02   5.2526E-02   3.2056E-05  0.2219
   5.2526E-02   5.3804E-02   2.3297E-05  0.2582
   5.3804E-02   5.5113E-02   1.6405E-05  0.3021
   5.5113E-02   5.6454E-02   2.1544E-05  0.2594
   5.6454E-02   5.7828E-02   1.4012E-05  0.3177
   5.7828E-02   5.9235E-02   2.2609E-05  0.2500
   5.9235E-02   6.0676E-02   1.6291E-05  0.2890
   6.0676E-02   6.2152E-02   2.8229E-05  0.2182
   6.2152E-02   6.3665E-02   1.7155E-05  0.2732
   6.3665E-02   6.5214E-02   1.6642E-05  0.2742
   6.5214E-02   6.6800E-02   1.9227E-05  0.2489
   6.6800E-02   6.8426E-02   2.2224E-05  0.2324
   6.8426E-02   7.0090E-02   1.6613E-05  0.2673
   7.0090E-02   7.1796E-02   2.2991E-05  0.2240
   7.1796E-02   7.3543E-02   1.3660E-05  0.2887
   7.3543E-02   7.5332E-02   1.9841E-05  0.2358
   7.5332E-02   7.7165E-02   1.4989E-05  0.2676
   7.7165E-02   7.9042E-02   1.6687E-05  0.2471
   7.9042E-02   8.0965E-02   1.3085E-05  0.2779
   8.0965E-02   8.2935E-02   1.9379E-05  0.2269
   8.2935E-02   8.4953E-02   1.7553E-05  0.2359
   8.4953E-02   8.7020E-02   1.7312E-05  0.2357
   8.7020E-02   8.9138E-02   1.7787E-05  0.2294
   8.9138E-02   9.1306E-02   1.7397E-05  0.2294
   9.1306E-02   9.3528E-02   1.1613E-05  0.2774
   9.3528E-02   9.5804E-02   1.5818E-05  0.2302
   9.5804E-02   9.8134E-02   1.4655E-05  0.2371
   9.8134E-02   1.0052E-01   1.2314E-05  0.2585
   1.0052E-01   1.0297E-01   1.4820E-05  0.2306
   1.0297E-01   1.0547E-01   1.5834E-05  0.2236
   1.0547E-01   1.0804E-01   2.1660E-05  0.1890
   1.0804E-01   1.1067E-01   1.7252E-05  0.2086
   1.1067E-01   1.1336E-01   1.9203E-05  0.1961
   1.1336E-01   1.1612E-01   1.7303E-05  0.2041
   1.1612E-01   1.1894E-01   2.6545E-05  0.1623
   1.1894E-01   1.2184E-01   2.0988E-05  0.1798
   1.2184E-01   1.2480E-01   1.0043E-05  0.2582
   1.2480E-01   1.2784E-01   1.8305E-05  0.1880
   1.2784E-01   1.3095E-01   2.6655E-05  0.1538
   1.3095E-01   1.3414E-01   2.1375E-05  0.1696
   1.3414E-01   1.3740E-01   2.5118E-05  0.1548
   1.3740E-01   1.4074E-01   3.2596E-05  0.1342
   1.4074E-01   1.4417E-01   2.8086E-05  0.1431
   1.4417E-01   1.4767E-01   2.4023E-05  0.1527
   1.4767E-01   1.5127E-01   2.4770E-05  0.1491
   1.5127E-01   1.5495E-01   2.9757E-05  0.1338
   1.5495E-01   1.5872E-01   3.3787E-05  0.1242
   1.5872E-01   1.6258E-01   2.7703E-05  0.1357
   1.6258E-01   1.6654E-01   3.1989E-05  0.1244
   1.6654E-01   1.7059E-01   4.3186E-05  0.1062
   1.7059E-01   1.7474E-01   3.1269E-05  0.1227
   1.7474E-01   1.7899E-01   3.1978E-05  0.1201
   1.7899E-01   1.8334E-01   4.1828E-05  0.1043
   1.8334E-01   1.8781E-01   4.6015E-05  0.0981
   1.8781E-01   1.9237E-01   3.7808E-05  0.1067
   1.9237E-01   1.9706E-01   4.4395E-05  0.0976
   1.9706E-01   2.0185E-01   4.2158E-05  0.0988
   2.0185E-01   2.0676E-01   4.8164E-05  0.0911
   2.0676E-01   2.1179E-01   4.1384E-05  0.0972
   2.1179E-01   2.1694E-01   5.4260E-05  0.0838
   2.1694E-01   2.2222E-01   4.5362E-05  0.0909
   2.2222E-01   2.2763E-01   5.0637E-05  0.0848
   2.2763E-01   2.3317E-01   5.0065E-05  0.0842
   2.3317E-01   2.3884E-01   4.7034E-05  0.0858
   2.3884E-01   2.4465E-01   5.3825E-05  0.0794
   2.4465E-01   2.5061E-01   6.0259E-05  0.0741
   2.5061E-01   2.5670E-01   6.7386E-05  0.0693
   2.5670E-01   2.6295E-01   5.9138E-05  0.0729
   2.6295E-01   2.6935E-01   7.0425E-05  0.0661
   2.6935E-01   2.7590E-01   7.2906E-05  0.0641
   2.7590E-01   2.8261E-01   6.2593E-05  0.0683
   2.8261E-01   2.8949E-01   7.2312E-05  0.0630
   2.8949E-01   2.9653E-01   6.4142E-05  0.0660
   2.9653E-01   3.0375E-01   7.4888E-05  0.0603
   3.0375E-01   3.1114E-01   7.9647E-05  0.0578
   3.1114E-01   3.1871E-01   8.0976E-05  0.0567
   3.1871E-01   3.2646E-01   8.3923E-05  0.0550
   3.2646E-01   3.3441E-01   8.4558E-05  0.0541
   3.3441E-01   3.4254E-01   8.7095E-05  0.0527
   3.4254E-01   3.5088E-01   8.7339E-05  0.0520
   3.5088E-01   3.5941E-01   8.9222E-05  0.0508
   3.5941E-01   3.6816E-01   8.8362E-05  0.0505
   3.6816E-01   3.7712E-01   9.3348E-05  0.0485
   3.7712E-01   3.8629E-01   9.2776E-05  0.0481
   3.8629E-01   3.9569E-01   9.6044E-05  0.0466
   3.9569E-01   4.0532E-01   9.8738E-05  0.0454
   4.0532E-01   4.1518E-01   9.7509E-05  0.0452
   4.1518E-01   4.2528E-01   1.0225E-04  0.0436
   4.2528E-01   4.3563E-01   1.0894E-04  0.0418
   4.3563E-01   4.4623E-01   1.1272E-04  0.0405
   4.4623E-01   4.5708E-01   1.0668E-04  0.0412
   4.5708E-01   4.6821E-01   1.1132E-04  0.0399
   4.6821E-01   4.7960E-01   1.0788E-04  0.0399
   4.7960E-01   4.9127E-01   1.1025E-04  0.0390
   4.9127E-01   5.0322E-01   1.1391E-04  0.0379
   5.0322E-01   5.1546E-01   1.2004E-04  0.0365
   5.1546E-01   5.2800E-01   1.1326E-04  0.0372
   5.2800E-01   5.4085E-01   1.1328E-04  0.0367
   5.4085E-01   5.5401E-01   1.1516E-04  0.0360
   5.5401E-01   5.6749E-01   1.1257E-04  0.0359
   5.6749E-01   5.8130E-01   1.1155E-04  0.0356
   5.8130E-01   5.9544E-01   1.2485E-04  0.0333
   5.9544E-01   6.0993E-01   1.1422E-04  0.0343
   6.0993E-01   6.2477E-01   1.1361E-04  0.0341
   6.2477E-01   6.3997E-01   1.1875E-04  0.0330
   6.3997E-01   6.5554E-01   1.1584E-04  0.0330
   6.5554E-01   6.7149E-01   1.1651E-04  0.0325
   6.7149E-01   6.8783E-01   1.1605E-04  0.0321
   6.8783E-01   7.0456E-01   1.1078E-04  0.0325
   7.0456E-01   7.2171E-01   1.1193E-04  0.0319
   7.2171E-01   7.3927E-01   1.0929E-04  0.0319
   7.3927E-01   7.5725E-01   1.0423E-04  0.0323
   7.5725E-01   7.7568E-01   1.0148E-04  0.0323
   7.7568E-01   7.9455E-01   9.5526E-05  0.0328
   7.9455E-01   8.1388E-01   1.0218E-04  0.0314
   8.1388E-01   8.3368E-01   9.8371E-05  0.0316
   8.3368E-01   8.5397E-01   9.1683E-05  0.0323
   8.5397E-01   8.7475E-01   9.0994E-05  0.0321
   8.7475E-01   8.9603E-01   9.0549E-05  0.0318
   8.9603E-01   9.1783E-01   8.6094E-05  0.0321
   9.1783E-01   9.4016E-01   8.6576E-05  0.0317
   9.4016E-01   9.6304E-01   8.1459E-05  0.0323
   9.6304E-01   9.8647E-01   8.1902E-05  0.0318
   9.8647E-01   1.0105E+00   7.9705E-05  0.0318
   1.0105E+00   1.0351E+00   8.0350E-05  0.0313
   1.0351E+00   1.0602E+00   7.9013E-05  0.0312
   1.0602E+00   1.0860E+00   8.1864E-05  0.0302
   1.0860E+00   1.1125E+00   8.8180E-05  0.0288
   1.1125E+00   1.1395E+00   9.0942E-05  0.0280
   1.1395E+00   1.1673E+00   9.9857E-05  0.0264
   1.1673E+00   1.1957E+00   9.8889E-05  0.0262
   1.1957E+00   1.2247E+00   1.0162E-04  0.0256
   1.2247E+00   1.2545E+00   1.1045E-04  0.0242
   1.2545E+00   1.2851E+00   1.0513E-04  0.0245
   1.2851E+00   1.3163E+00   1.1212E-04  0.0234
   1.3163E+00   1.3484E+00   1.1863E-04  0.0225
   1.3484E+00   1.3812E+00   1.1774E-04  0.0223
   1.3812E+00   1.4148E+00   1.2416E-04  0.0215
   1.4148E+00   1.4492E+00   1.1928E-04  0.0216
   1.4492E+00   1.4845E+00   1.2459E-04  0.0209
   1.4845E+00   1.5206E+00   1.2804E-04  0.0204
   1.5206E+00   1.5576E+00   1.2551E-04  0.0203
   1.5576E+00   1.5955E+00   1.2701E-04  0.0200
   1.5955E+00   1.6343E+00   1.3049E-04  0.0194
   1.6343E+00   1.6741E+00   1.3170E-04  0.0191
   1.6741E+00   1.7148E+00   1.3217E-04  0.0188
   1.7148E+00   1.7565E+00   1.2459E-04  0.0191
   1.7565E+00   1.7992E+00   1.2604E-04  0.0187
   1.7992E+00   1.8430E+00   1.2251E-04  0.0187
   1.8430E+00   1.8879E+00   1.2338E-04  0.0184
   1.8879E+00   1.9338E+00   1.1879E-04  0.0185
   1.9338E+00   1.9808E+00   1.2118E-04  0.0181
   1.9808E+00   2.0290E+00   1.2270E-04  0.0177
   2.0290E+00   2.0784E+00   1.2146E-04  0.0176
   2.0784E+00   2.1290E+00   1.3057E-04  0.0167
   2.1290E+00   2.1808E+00   1.3991E-04  0.0159
   2.1808E+00   2.2338E+00   1.3646E-04  0.0160
   2.2338E+00   2.2882E+00   1.3479E-04  0.0159
   2.2882E+00   2.3439E+00   1.3094E-04  0.0160
   2.3439E+00   2.4009E+00   1.3390E-04  0.0156
   2.4009E+00   2.4593E+00   1.3784E-04  0.0153
   2.4593E+00   2.5191E+00   1.3771E-04  0.0151
   2.5191E+00   2.5804E+00   1.4309E-04  0.0146
   2.5804E+00   2.6432E+00   1.3670E-04  0.0148
   2.6432E+00   2.7075E+00   1.3636E-04  0.0146
   2.7075E+00   2.7734E+00   1.3834E-04  0.0144
   2.7734E+00   2.8409E+00   1.4029E-04  0.0141
   2.8409E+00   2.9100E+00   1.4144E-04  0.0139
   2.9100E+00   2.9808E+00   1.4033E-04  0.0138
   2.9808E+00   3.0533E+00   1.4080E-04  0.0136
   3.0533E+00   3.1276E+00   1.3823E-04  0.0136
   3.1276E+00   3.2037E+00   1.4263E-04  0.0132
   3.2037E+00   3.2817E+00   1.4090E-04  0.0131
   3.2817E+00   3.3615E+00   1.4182E-04  0.0129
   3.3615E+00   3.4433E+00   1.4312E-04  0.0128
   3.4433E+00   3.5271E+00   1.4107E-04  0.0127
   3.5271E+00   3.6129E+00   1.3864E-04  0.0127
   3.6129E+00   3.7008E+00   1.4018E-04  0.0125
   3.7008E+00   3.7908E+00   1.4093E-04  0.0123
   3.7908E+00   3.8831E+00   1.4191E-04  0.0121
   3.8831E+00   3.9776E+00   1.3810E-04  0.0121
   3.9776E+00   4.0743E+00   1.3801E-04  0.0120
   4.0743E+00   4.1735E+00   1.3659E-04  0.0119
   4.1735E+00   4.2750E+00   1.3599E-04  0.0118
   4.2750E+00   4.3790E+00   1.3463E-04  0.0117
   4.3790E+00   4.4856E+00   1.2833E-04  0.0118
   4.4856E+00   4.5947E+00   1.2610E-04  0.0118
   4.5947E+00   4.7065E+00   1.2907E-04  0.0115
   4.7065E+00   4.8210E+00   1.2716E-04  0.0115
   4.8210E+00   4.9383E+00   1.2807E-04  0.0113
   4.9383E+00   5.0585E+00   1.2488E-04  0.0113
   5.0585E+00   5.1815E+00   1.2405E-04  0.0112
   5.1815E+00   5.3076E+00   1.2349E-04  0.0111
   5.3076E+00   5.4368E+00   1.2153E-04  0.0111
   5.4368E+00   5.5690E+00   1.2026E-04  0.0110
   5.5690E+00   5.7045E+00   1.1943E-04  0.0109
   5.7045E+00   5.8433E+00   1.1779E-04  0.0109
   5.8433E+00   5.9855E+00   1.2023E-04  0.0106
   5.9855E+00   6.1311E+00   1.1890E-04  0.0106
   6.1311E+00   6.2803E+00   1.1732E-04  0.0105
   6.2803E+00   6.4331E+00   1.1486E-04  0.0105
   6.4331E+00   6.5896E+00   1.1499E-04  0.0104
   6.5896E+00   6.7500E+00   1.1562E-04  0.0102
   6.7500E+00   6.9142E+00   1.1187E-04  0.0103
   6.9142E+00   7.0824E+00   1.1022E-04  0.0102
   7.0824E+00   7.2548E+00   1.1218E-04  0.0100
   7.2548E+00   7.4313E+00   1.1004E-04  0.0100
   7.4313E+00   7.6121E+00   1.0723E-04  0.0100
   7.6121E+00   7.7973E+00   1.0783E-04  0.0099
   7.7973E+00   7.9870E+00   1.0724E-04  0.0098
   7.9870E+00   8.1813E+00   1.0640E-04  0.0097
   8.1813E+00   8.3804E+00   1.0462E-04  0.0097
   8.3804E+00   8.5843E+00   1.0309E-04  0.0096
   8.5843E+00   8.7931E+00   1.0181E-04  0.0096
   8.7931E+00   9.0071E+00   9.9069E-05  0.0096
   9.0071E+00   9.2262E+00   9.8644E-05  0.0095
   9.2262E+00   9.4507E+00   9.6277E-05  0.0095
   9.4507E+00   9.6807E+00   9.2830E-05  0.0096
   9.6807E+00   9.9162E+00   9.3252E-05  0.0095
   9.9162E+00   1.0157E+01   9.6734E-05  0.0092
   1.0157E+01   1.0405E+01   9.7255E-05  0.0091
   1.0405E+01   1.0658E+01   9.4795E-05  0.0091
   1.0658E+01   1.0917E+01   9.3414E-05  0.0091
   1.0917E+01   1.1183E+01   8.9609E-05  0.0091
   1.1183E+01   1.1455E+01   8.7881E-05  0.0091
   1.1455E+01   1.1733E+01   8.6812E-05  0.0091
   1.1733E+01   1.2019E+01   8.5095E-05  0.0090
   1.2019E+01   1.2311E+01   8.5181E-05  0.0089
   1.2311E+01   1.2611E+01   8.4794E-05  0.0089
   1.2611E+01   1.2918E+01   8.2591E-05  0.0089
   1.2918E+01   1.3232E+01   8.1605E-05  0.0088
   1.3232E+01   1.3554E+01   8.0922E-05  0.0087
   1.3554E+01   1.3884E+01   8.1416E-05  0.0086
   1.3884E+01   1.4222E+01   8.0584E-05  0.0086
   1.4222E+01   1.4568E+01   7.8698E-05  0.0086
   1.4568E+01   1.4922E+01   7.9347E-05  0.0084
   1.4922E+01   1.5285E+01   7.7652E-05  0.0084
   1.5285E+01   1.5657E+01   7.4693E-05  0.0085
   1.5657E+01   1.6038E+01   7.5814E-05  0.0083
   1.6038E+01   1.6428E+01   7.4075E-05  0.0083
   1.6428E+01   1.6828E+01   7.5707E-05  0.0081
   1.6828E+01   1.7237E+01   7.3560E-05  0.0081
   1.7237E+01   1.7657E+01   7.2908E-05  0.0081
   1.7657E+01   1.8086E+01   7.1091E-05  0.0081
   1.8086E+01   1.8526E+01   7.1108E-05  0.0080
   1.8526E+01   1.8977E+01   6.9586E-05  0.0080
   1.8977E+01   1.9439E+01   6.9064E-05  0.0079
   1.9439E+01   1.9912E+01   6.8260E-05  0.0079
   1.9912E+01   2.0396E+01   6.7707E-05  0.0078
   2.0396E+01   2.0893E+01   6.7158E-05  0.0077
   2.0893E+01   2.1401E+01   6.6334E-05  0.0077
   2.1401E+01   2.1922E+01   6.5619E-05  0.0077
   2.1922E+01   2.2455E+01   6.4799E-05  0.0076
   2.2455E+01   2.3001E+01   6.3037E-05  0.0076
   2.3001E+01   2.3561E+01   6.1822E-05  0.0076
   2.3561E+01   2.4134E+01   6.1337E-05  0.0075
   2.4134E+01   2.4721E+01   5.9012E-05  0.0076
   2.4721E+01   2.5323E+01   5.8112E-05  0.0076
   2.5323E+01   2.5939E+01   5.7508E-05  0.0075
   2.5939E+01   2.6570E+01   5.6148E-05  0.0075
   2.6570E+01   2.7217E+01   5.5582E-05  0.0075
   2.7217E+01   2.7879E+01   5.4699E-05  0.0074
   2.7879E+01   2.8557E+01   5.7153E-05  0.0072
   2.8557E+01   2.9252E+01   5.5718E-05  0.0072
   2.9252E+01   2.9964E+01   5.5269E-05  0.0071
   2.9964E+01   3.0693E+01   5.4090E-05  0.0071
   3.0693E+01   3.1440E+01   5.2548E-05  0.0071
   3.1440E+01   3.2205E+01   5.2205E-05  0.0071
   3.2205E+01   3.2988E+01   5.0835E-05  0.0071
   3.2988E+01   3.3791E+01   4.8780E-05  0.0071
   3.3791E+01   3.4613E+01   4.7446E-05  0.0072
   3.4613E+01   3.5455E+01   4.6310E-05  0.0072
   3.5455E+01   3.6318E+01   4.4433E-05  0.0072
   3.6318E+01   3.7201E+01   4.3036E-05  0.0073
   3.7201E+01   3.8106E+01   4.1561E-05  0.0073
   3.8106E+01   3.9034E+01   4.0366E-05  0.0073
   3.9034E+01   3.9983E+01   3.8216E-05  0.0074
   3.9983E+01   4.0956E+01   3.6068E-05  0.0075
   4.0956E+01   4.1953E+01   3.4940E-05  0.0076
   4.1953E+01   4.2973E+01   3.2555E-05  0.0078
   4.2973E+01   4.4019E+01   3.1016E-05  0.0079
   4.4019E+01   4.5090E+01   2.8041E-05  0.0082
   4.5090E+01   4.6187E+01   2.5603E-05  0.0084
   4.6187E+01   4.7311E+01   2.3257E-05  0.0087
   4.7311E+01   4.8462E+01   1.8358E-05  0.0097
   4.8462E+01   4.9641E+01   1.4641E-05  0.0108
   4.9641E+01   5.0849E+01   1.2259E-05  0.0116
   5.0849E+01   5.2086E+01   9.9871E-06  0.0127
   5.2086E+01   5.3353E+01   7.5878E-06  0.0144
   5.3353E+01   5.4651E+01   5.5203E-06  0.0167
   5.4651E+01   5.5981E+01   4.0520E-06  0.0193
   5.5981E+01   5.7343E+01   3.2759E-06  0.0212
   5.7343E+01   5.8738E+01   2.8498E-06  0.0224
   5.8738E+01   6.0168E+01   2.3315E-06  0.0245
   6.0168E+01   6.1632E+01   4.5221E-07  0.0550
   6.1632E+01   6.3131E+01   0.0000E+00  0.0000
   6.3131E+01   6.4667E+01   0.0000E+00  0.0000
   6.4667E+01   6.6240E+01   0.0000E+00  0.0000
   6.6240E+01   6.7852E+01   0.0000E+00  0.0000
   6.7852E+01   6.9503E+01   0.0000E+00  0.0000
   6.9503E+01   7.1194E+01   0.0000E+00  0.0000
   7.1194E+01   7.2926E+01   0.0000E+00  0.0000
   7.2926E+01   7.4701E+01   0.0000E+00  0.0000
   7.4701E+01   7.6518E+01   0.0000E+00  0.0000
   7.6518E+01   7.8380E+01   0.0000E+00  0.0000
   7.8380E+01   8.0287E+01   0.0000E+00  0.0000
   8.0287E+01   8.2240E+01   0.0000E+00  0.0000
   8.2240E+01   8.4241E+01   0.0000E+00  0.0000
   8.4241E+01   8.6291E+01   0.0000E+00  0.0000
   8.6291E+01   8.8391E+01   0.0000E+00  0.0000
   8.8391E+01   9.0541E+01   0.0000E+00  0.0000
   9.0541E+01   9.2744E+01   0.0000E+00  0.0000
   9.2744E+01   9.5001E+01   0.0000E+00  0.0000
   9.5001E+01   9.7312E+01   0.0000E+00  0.0000
   9.7312E+01   9.9680E+01   0.0000E+00  0.0000
   9.9680E+01   1.0211E+02   0.0000E+00  0.0000
   1.0211E+02   1.0459E+02   0.0000E+00  0.0000
   1.0459E+02   1.0713E+02   0.0000E+00  0.0000
   1.0713E+02   1.0974E+02   0.0000E+00  0.0000
   1.0974E+02   1.1241E+02   0.0000E+00  0.0000
   1.1241E+02   1.1515E+02   0.0000E+00  0.0000
   1.1515E+02   1.1795E+02   0.0000E+00  0.0000
   1.1795E+02   1.2082E+02   0.0000E+00  0.0000
   1.2082E+02   1.2376E+02   0.0000E+00  0.0000
   1.2376E+02   1.2677E+02   0.0000E+00  0.0000
   1.2677E+02   1.2985E+02   0.0000E+00  0.0000
   1.2985E+02   1.3301E+02   0.0000E+00  0.0000
   1.3301E+02   1.3625E+02   0.0000E+00  0.0000
   1.3625E+02   1.3956E+02   0.0000E+00  0.0000
   1.3956E+02   1.4296E+02   0.0000E+00  0.0000
   1.4296E+02   1.4644E+02   0.0000E+00  0.0000
   1.4644E+02   1.5000E+02   0.0000E+00  0.0000

#   sum over                 2.2112E-05
'no. =    1   reg = 106 - 206'
msuc: {\huge [t-cross] in region mesh}
msdr: {\it plotted by \ANGEL \version}
msdl: {\it calculated by \PHITS  3.26}
wt: s(0.7)
\vspace{-3}
  region surface crossing
  area  &=&   1.0000E+00 [cm^2]
e:
 
# Information for Restart Calculation
# This calculation was newly started
# istdev =  2 # 1:Batch variance, 2:History variance
# resc2  = 5.00000000000000000E+08 # Total source weight or Total source weight / maxcas
# resc3  = 5.00000000000000000E+08 # Total history number or Total batch number
# maxcas =   100000000 # History / Batch, only used for istdev=1
# bitrseed = 1101101111010011011000101101110001100110110010110001010100010001 # bit data of rseed
