[ T-Cross ]
    title = [t-cross] in region mesh
     mesh =  reg            # mesh type is region-wise
      reg =    1            # number of crossing regions
      non     r-from    r-to       area
      1       113       213        1.000000    
   e-type =    3            # e-mesh is log given by emin, emax and ne
     emin =  1.0000000E-02  # minimum value of e-mesh points
     emax =   150.0000      # maximum value of e-mesh points
#    edel =  2.4039514E-02  # mesh width of e-mesh points
       ne =    400          # number of e-mesh points
#    data = ( e(i), i = 1, ne + 1 )
#           1.00000E-02  1.02433E-02  1.04925E-02  1.07478E-02  1.10093E-02
#           1.12772E-02  1.15516E-02  1.18326E-02  1.21205E-02  1.24154E-02
#           1.27175E-02  1.30269E-02  1.33439E-02  1.36686E-02  1.40011E-02
#           1.43418E-02  1.46907E-02  1.50482E-02  1.54143E-02  1.57894E-02
#           1.61735E-02  1.65670E-02  1.69701E-02  1.73830E-02  1.78060E-02
#           1.82392E-02  1.86830E-02  1.91375E-02  1.96032E-02  2.00801E-02
#           2.05687E-02  2.10692E-02  2.15818E-02  2.21069E-02  2.26448E-02
#           2.31957E-02  2.37601E-02  2.43382E-02  2.49304E-02  2.55369E-02
#           2.61583E-02  2.67947E-02  2.74467E-02  2.81145E-02  2.87985E-02
#           2.94992E-02  3.02169E-02  3.09521E-02  3.17052E-02  3.24766E-02
#           3.32668E-02  3.40762E-02  3.49053E-02  3.57546E-02  3.66246E-02
#           3.75157E-02  3.84284E-02  3.93634E-02  4.03212E-02  4.13022E-02
#           4.23071E-02  4.33365E-02  4.43909E-02  4.54710E-02  4.65773E-02
#           4.77106E-02  4.88714E-02  5.00605E-02  5.12785E-02  5.25262E-02
#           5.38042E-02  5.51133E-02  5.64542E-02  5.78278E-02  5.92348E-02
#           6.06760E-02  6.21523E-02  6.36645E-02  6.52135E-02  6.68002E-02
#           6.84255E-02  7.00904E-02  7.17957E-02  7.35426E-02  7.53319E-02
#           7.71648E-02  7.90423E-02  8.09655E-02  8.29354E-02  8.49533E-02
#           8.70203E-02  8.91376E-02  9.13064E-02  9.35279E-02  9.58035E-02
#           9.81345E-02  1.00522E-01  1.02968E-01  1.05473E-01  1.08040E-01
#           1.10668E-01  1.13361E-01  1.16119E-01  1.18944E-01  1.21838E-01
#           1.24803E-01  1.27839E-01  1.30950E-01  1.34136E-01  1.37399E-01
#           1.40742E-01  1.44167E-01  1.47675E-01  1.51268E-01  1.54948E-01
#           1.58718E-01  1.62580E-01  1.66535E-01  1.70587E-01  1.74738E-01
#           1.78989E-01  1.83344E-01  1.87805E-01  1.92375E-01  1.97055E-01
#           2.01850E-01  2.06761E-01  2.11792E-01  2.16945E-01  2.22223E-01
#           2.27630E-01  2.33169E-01  2.38842E-01  2.44653E-01  2.50605E-01
#           2.56703E-01  2.62949E-01  2.69346E-01  2.75900E-01  2.82613E-01
#           2.89489E-01  2.96532E-01  3.03747E-01  3.11138E-01  3.18708E-01
#           3.26462E-01  3.34405E-01  3.42542E-01  3.50876E-01  3.59413E-01
#           3.68158E-01  3.77116E-01  3.86291E-01  3.95690E-01  4.05317E-01
#           4.15179E-01  4.25281E-01  4.35628E-01  4.46227E-01  4.57084E-01
#           4.68205E-01  4.79597E-01  4.91266E-01  5.03219E-01  5.15463E-01
#           5.28005E-01  5.40851E-01  5.54011E-01  5.67490E-01  5.81298E-01
#           5.95441E-01  6.09929E-01  6.24769E-01  6.39970E-01  6.55541E-01
#           6.71491E-01  6.87828E-01  7.04564E-01  7.21706E-01  7.39266E-01
#           7.57253E-01  7.75678E-01  7.94551E-01  8.13883E-01  8.33685E-01
#           8.53969E-01  8.74747E-01  8.96030E-01  9.17831E-01  9.40163E-01
#           9.63038E-01  9.86469E-01  1.01047E+00  1.03506E+00  1.06024E+00
#           1.08604E+00  1.11246E+00  1.13953E+00  1.16725E+00  1.19565E+00
#           1.22474E+00  1.25454E+00  1.28507E+00  1.31633E+00  1.34836E+00
#           1.38117E+00  1.41477E+00  1.44920E+00  1.48446E+00  1.52057E+00
#           1.55757E+00  1.59547E+00  1.63429E+00  1.67405E+00  1.71478E+00
#           1.75650E+00  1.79924E+00  1.84302E+00  1.88786E+00  1.93379E+00
#           1.98084E+00  2.02904E+00  2.07841E+00  2.12898E+00  2.18078E+00
#           2.23384E+00  2.28819E+00  2.34386E+00  2.40089E+00  2.45930E+00
#           2.51914E+00  2.58043E+00  2.64322E+00  2.70753E+00  2.77341E+00
#           2.84088E+00  2.91001E+00  2.98081E+00  3.05333E+00  3.12762E+00
#           3.20372E+00  3.28167E+00  3.36152E+00  3.44330E+00  3.52708E+00
#           3.61290E+00  3.70080E+00  3.79085E+00  3.88308E+00  3.97756E+00
#           4.07434E+00  4.17347E+00  4.27501E+00  4.37903E+00  4.48557E+00
#           4.59471E+00  4.70650E+00  4.82102E+00  4.93832E+00  5.05847E+00
#           5.18155E+00  5.30762E+00  5.43676E+00  5.56904E+00  5.70453E+00
#           5.84333E+00  5.98550E+00  6.13114E+00  6.28031E+00  6.43312E+00
#           6.58964E+00  6.74997E+00  6.91420E+00  7.08243E+00  7.25475E+00
#           7.43126E+00  7.61207E+00  7.79728E+00  7.98700E+00  8.18133E+00
#           8.38038E+00  8.58428E+00  8.79315E+00  9.00709E+00  9.22624E+00
#           9.45072E+00  9.68067E+00  9.91620E+00  1.01575E+01  1.04046E+01
#           1.06578E+01  1.09171E+01  1.11827E+01  1.14548E+01  1.17335E+01
#           1.20190E+01  1.23114E+01  1.26109E+01  1.29178E+01  1.32321E+01
#           1.35540E+01  1.38838E+01  1.42216E+01  1.45676E+01  1.49221E+01
#           1.52851E+01  1.56570E+01  1.60380E+01  1.64282E+01  1.68279E+01
#           1.72374E+01  1.76568E+01  1.80864E+01  1.85264E+01  1.89772E+01
#           1.94389E+01  1.99119E+01  2.03963E+01  2.08926E+01  2.14009E+01
#           2.19216E+01  2.24550E+01  2.30014E+01  2.35610E+01  2.41343E+01
#           2.47215E+01  2.53230E+01  2.59391E+01  2.65702E+01  2.72167E+01
#           2.78789E+01  2.85572E+01  2.92520E+01  2.99637E+01  3.06928E+01
#           3.14396E+01  3.22045E+01  3.29881E+01  3.37907E+01  3.46128E+01
#           3.54550E+01  3.63177E+01  3.72013E+01  3.81064E+01  3.90336E+01
#           3.99833E+01  4.09561E+01  4.19526E+01  4.29734E+01  4.40189E+01
#           4.50900E+01  4.61870E+01  4.73108E+01  4.84619E+01  4.96410E+01
#           5.08488E+01  5.20860E+01  5.33533E+01  5.46514E+01  5.59812E+01
#           5.73432E+01  5.87384E+01  6.01676E+01  6.16315E+01  6.31311E+01
#           6.46671E+01  6.62405E+01  6.78522E+01  6.95031E+01  7.11941E+01
#           7.29263E+01  7.47007E+01  7.65182E+01  7.83800E+01  8.02870E+01
#           8.22405E+01  8.42414E+01  8.62911E+01  8.83906E+01  9.05412E+01
#           9.27442E+01  9.50007E+01  9.73122E+01  9.96799E+01  1.02105E+02
#           1.04589E+02  1.07134E+02  1.09741E+02  1.12411E+02  1.15146E+02
#           1.17948E+02  1.20817E+02  1.23757E+02  1.26768E+02  1.29852E+02
#           1.33012E+02  1.36248E+02  1.39563E+02  1.42959E+02  1.46437E+02
#           1.50000E+02
     unit =    2            # unit is [1/cm^2/(MeV/n)/source]
     axis =  eng            # axis of output
     file = detector-14.out  # file name of output for the above axis
   output = f-curr          # surface crossing forward current spectrum
     part =  neutron  
# kf/name :  2112     
#    used :        main (  %)        temp (  %)       total (  %)
#  memory :         414 (  0)           0 (  0)         414 (  0)

#------------------------------------------------------------------------------
#newpage:
#   no. =    1   reg = 113 - 213

x: Energy [MeV/n]
y:  F-Curr [1/cm^2/(MeV/n)/source]         
p: xlog ylog afac(0.8) form(0.9)
h: n            x            y(neutron ),hh0l   n 
#  e-lower      e-upper      neutron     r.err 
   1.0000E-02   1.0243E-02   1.0960E-04  0.1118
   1.0243E-02   1.0493E-02   9.0948E-05  0.1213
   1.0493E-02   1.0748E-02   9.9233E-05  0.1147
   1.0748E-02   1.1009E-02   1.0197E-04  0.1118
   1.1009E-02   1.1277E-02   1.0329E-04  0.1098
   1.1277E-02   1.1552E-02   1.0812E-04  0.1060
   1.1552E-02   1.1833E-02   8.8949E-05  0.1155
   1.1833E-02   1.2121E-02   8.9152E-05  0.1140
   1.2121E-02   1.2415E-02   1.0060E-04  0.1060
   1.2415E-02   1.2718E-02   1.0814E-04  0.1010
   1.2718E-02   1.3027E-02   9.2644E-05  0.1078
   1.3027E-02   1.3344E-02   9.8331E-05  0.1033
   1.3344E-02   1.3669E-02   8.3162E-05  0.1111
   1.3669E-02   1.4001E-02   8.4194E-05  0.1091
   1.4001E-02   1.4342E-02   9.0022E-05  0.1043
   1.4342E-02   1.4691E-02   9.1704E-05  0.1021
   1.4691E-02   1.5048E-02   8.9526E-05  0.1021
   1.5048E-02   1.5414E-02   8.7400E-05  0.1021
   1.5414E-02   1.5789E-02   8.9768E-05  0.0995
   1.5789E-02   1.6174E-02   9.0238E-05  0.0981
   1.6174E-02   1.6567E-02   8.3860E-05  0.1005
   1.6567E-02   1.6970E-02   8.2695E-05  0.1000
   1.6970E-02   1.7383E-02   8.5574E-05  0.0971
   1.7383E-02   1.7806E-02   8.6694E-05  0.0953
   1.7806E-02   1.8239E-02   1.0233E-04  0.0867
   1.8239E-02   1.8683E-02   7.6616E-05  0.0990
   1.8683E-02   1.9138E-02   8.4329E-05  0.0933
   1.9138E-02   1.9603E-02   7.9462E-05  0.0949
   1.9603E-02   2.0080E-02   7.3381E-05  0.0976
   2.0080E-02   2.0569E-02   1.0302E-04  0.0814
   2.0569E-02   2.1069E-02   7.9928E-05  0.0913
   2.1069E-02   2.1582E-02   8.7133E-05  0.0864
   2.1582E-02   2.2107E-02   7.8715E-05  0.0898
   2.2107E-02   2.2645E-02   8.0563E-05  0.0877
   2.2645E-02   2.3196E-02   7.8650E-05  0.0877
   2.3196E-02   2.3760E-02   7.9144E-05  0.0864
   2.3760E-02   2.4338E-02   8.9373E-05  0.0803
   2.4338E-02   2.4930E-02   7.5992E-05  0.0861
   2.4930E-02   2.5537E-02   8.5727E-05  0.0801
   2.5537E-02   2.6158E-02   6.9206E-05  0.0880
   2.6158E-02   2.6795E-02   7.8037E-05  0.0819
   2.6795E-02   2.7447E-02   7.8228E-05  0.0808
   2.7447E-02   2.8114E-02   6.9382E-05  0.0848
   2.8114E-02   2.8799E-02   7.7480E-05  0.0793
   2.8799E-02   2.9499E-02   6.5174E-05  0.0854
   2.9499E-02   3.0217E-02   7.4772E-05  0.0788
   3.0217E-02   3.0952E-02   8.4331E-05  0.0733
   3.0952E-02   3.1705E-02   8.1000E-05  0.0739
   3.1705E-02   3.2477E-02   8.1668E-05  0.0727
   3.2477E-02   3.3267E-02   7.7619E-05  0.0737
   3.3267E-02   3.4076E-02   8.4012E-05  0.0700
   3.4076E-02   3.4905E-02   8.2419E-05  0.0698
   3.4905E-02   3.5755E-02   7.1041E-05  0.0743
   3.5755E-02   3.6625E-02   7.9699E-05  0.0693
   3.6625E-02   3.7516E-02   8.3417E-05  0.0670
   3.7516E-02   3.8428E-02   6.8654E-05  0.0729
   3.8428E-02   3.9363E-02   7.3084E-05  0.0698
   3.9363E-02   4.0321E-02   7.8657E-05  0.0665
   4.0321E-02   4.1302E-02   7.4410E-05  0.0676
   4.1302E-02   4.2307E-02   7.6623E-05  0.0658
   4.2307E-02   4.3337E-02   7.8689E-05  0.0642
   4.3337E-02   4.4391E-02   7.6188E-05  0.0644
   4.4391E-02   4.5471E-02   7.2218E-05  0.0654
   4.5471E-02   4.6577E-02   6.7188E-05  0.0670
   4.6577E-02   4.7711E-02   7.0593E-05  0.0645
   4.7711E-02   4.8871E-02   6.8629E-05  0.0647
   4.8871E-02   5.0061E-02   7.3446E-05  0.0618
   5.0061E-02   5.1279E-02   7.3344E-05  0.0611
   5.1279E-02   5.2526E-02   6.2518E-05  0.0654
   5.2526E-02   5.3804E-02   6.4163E-05  0.0638
   5.3804E-02   5.5113E-02   6.8750E-05  0.0609
   5.5113E-02   5.6454E-02   7.1840E-05  0.0588
   5.6454E-02   5.7828E-02   5.8242E-05  0.0645
   5.7828E-02   5.9235E-02   6.5861E-05  0.0600
   5.9235E-02   6.0676E-02   6.4528E-05  0.0599
   6.0676E-02   6.2152E-02   6.6382E-05  0.0583
   6.2152E-02   6.3665E-02   5.5989E-05  0.0627
   6.3665E-02   6.5214E-02   6.1760E-05  0.0590
   6.5214E-02   6.6800E-02   6.1238E-05  0.0585
   6.6800E-02   6.8426E-02   6.8090E-05  0.0549
   6.8426E-02   7.0090E-02   6.6272E-05  0.0550
   7.0090E-02   7.1796E-02   6.5285E-05  0.0547
   7.1796E-02   7.3543E-02   5.9917E-05  0.0564
   7.3543E-02   7.5332E-02   6.5387E-05  0.0534
   7.5332E-02   7.7165E-02   6.1470E-05  0.0544
   7.7165E-02   7.9042E-02   5.6636E-05  0.0560
   7.9042E-02   8.0965E-02   5.7717E-05  0.0548
   8.0965E-02   8.2935E-02   5.8377E-05  0.0538
   8.2935E-02   8.4953E-02   5.9799E-05  0.0526
   8.4953E-02   8.7020E-02   5.5637E-05  0.0538
   8.7020E-02   8.9138E-02   5.7779E-05  0.0522
   8.9138E-02   9.1306E-02   5.6099E-05  0.0523
   9.1306E-02   9.3528E-02   5.0790E-05  0.0543
   9.3528E-02   9.5804E-02   5.8299E-05  0.0501
   9.5804E-02   9.8134E-02   5.2911E-05  0.0520
   9.8134E-02   1.0052E-01   5.5982E-05  0.0499
   1.0052E-01   1.0297E-01   5.0154E-05  0.0521
   1.0297E-01   1.0547E-01   5.5616E-05  0.0489
   1.0547E-01   1.0804E-01   4.9618E-05  0.0512
   1.0804E-01   1.1067E-01   5.6809E-05  0.0472
   1.1067E-01   1.1336E-01   5.0508E-05  0.0495
   1.1336E-01   1.1612E-01   5.3176E-05  0.0477
   1.1612E-01   1.1894E-01   5.0851E-05  0.0482
   1.1894E-01   1.2184E-01   4.8721E-05  0.0486
   1.2184E-01   1.2480E-01   4.7002E-05  0.0489
   1.2480E-01   1.2784E-01   5.3624E-05  0.0452
   1.2784E-01   1.3095E-01   4.6832E-05  0.0478
   1.3095E-01   1.3414E-01   4.6870E-05  0.0472
   1.3414E-01   1.3740E-01   4.4735E-05  0.0478
   1.3740E-01   1.4074E-01   4.4620E-05  0.0473
   1.4074E-01   1.4417E-01   5.0228E-05  0.0440
   1.4417E-01   1.4767E-01   4.3904E-05  0.0465
   1.4767E-01   1.5127E-01   4.2907E-05  0.0465
   1.5127E-01   1.5495E-01   4.1752E-05  0.0466
   1.5495E-01   1.5872E-01   4.6861E-05  0.0434
   1.5872E-01   1.6258E-01   4.4367E-05  0.0441
   1.6258E-01   1.6654E-01   4.3482E-05  0.0440
   1.6654E-01   1.7059E-01   3.9816E-05  0.0455
   1.7059E-01   1.7474E-01   4.0156E-05  0.0447
   1.7474E-01   1.7899E-01   4.2887E-05  0.0428
   1.7899E-01   1.8334E-01   4.0375E-05  0.0435
   1.8334E-01   1.8781E-01   3.9529E-05  0.0435
   1.8781E-01   1.9237E-01   4.0085E-05  0.0426
   1.9237E-01   1.9706E-01   3.6177E-05  0.0444
   1.9706E-01   2.0185E-01   4.3731E-05  0.0399
   2.0185E-01   2.0676E-01   3.8552E-05  0.0420
   2.0676E-01   2.1179E-01   3.6377E-05  0.0427
   2.1179E-01   2.1694E-01   4.1399E-05  0.0395
   2.1694E-01   2.2222E-01   3.7258E-05  0.0412
   2.2222E-01   2.2763E-01   3.6250E-05  0.0412
   2.2763E-01   2.3317E-01   3.3824E-05  0.0422
   2.3317E-01   2.3884E-01   3.8779E-05  0.0389
   2.3884E-01   2.4465E-01   3.8518E-05  0.0386
   2.4465E-01   2.5061E-01   3.6819E-05  0.0390
   2.5061E-01   2.5670E-01   3.6272E-05  0.0388
   2.5670E-01   2.6295E-01   3.3142E-05  0.0401
   2.6295E-01   2.6935E-01   3.2980E-05  0.0397
   2.6935E-01   2.7590E-01   3.2095E-05  0.0398
   2.7590E-01   2.8261E-01   3.2127E-05  0.0393
   2.8261E-01   2.8949E-01   3.5630E-05  0.0369
   2.8949E-01   2.9653E-01   3.4713E-05  0.0369
   2.9653E-01   3.0375E-01   3.3796E-05  0.0370
   3.0375E-01   3.1114E-01   3.4279E-05  0.0363
   3.1114E-01   3.1871E-01   3.1703E-05  0.0373
   3.1871E-01   3.2646E-01   3.1165E-05  0.0371
   3.2646E-01   3.3441E-01   3.1852E-05  0.0363
   3.3441E-01   3.4254E-01   3.0829E-05  0.0364
   3.4254E-01   3.5088E-01   3.1016E-05  0.0359
   3.5088E-01   3.5941E-01   2.9655E-05  0.0363
   3.5941E-01   3.6816E-01   2.9770E-05  0.0358
   3.6816E-01   3.7712E-01   2.8598E-05  0.0361
   3.7712E-01   3.8629E-01   2.9226E-05  0.0353
   3.8629E-01   3.9569E-01   2.8692E-05  0.0351
   3.9569E-01   4.0532E-01   2.8028E-05  0.0351
   4.0532E-01   4.1518E-01   2.8663E-05  0.0343
   4.1518E-01   4.2528E-01   2.6794E-05  0.0351
   4.2528E-01   4.3563E-01   2.6802E-05  0.0347
   4.3563E-01   4.4623E-01   2.7046E-05  0.0341
   4.4623E-01   4.5708E-01   2.9075E-05  0.0325
   4.5708E-01   4.6821E-01   2.4458E-05  0.0350
   4.6821E-01   4.7960E-01   2.6700E-05  0.0331
   4.7960E-01   4.9127E-01   2.5081E-05  0.0337
   4.9127E-01   5.0322E-01   2.6465E-05  0.0325
   5.0322E-01   5.1546E-01   2.4448E-05  0.0334
   5.1546E-01   5.2800E-01   2.4585E-05  0.0329
   5.2800E-01   5.4085E-01   2.4338E-05  0.0326
   5.4085E-01   5.5401E-01   2.4520E-05  0.0321
   5.5401E-01   5.6749E-01   2.3282E-05  0.0326
   5.6749E-01   5.8130E-01   2.2959E-05  0.0324
   5.8130E-01   5.9544E-01   2.2484E-05  0.0324
   5.9544E-01   6.0993E-01   2.3365E-05  0.0314
   6.0993E-01   6.2477E-01   2.2226E-05  0.0318
   6.2477E-01   6.3997E-01   2.1468E-05  0.0320
   6.3997E-01   6.5554E-01   2.1118E-05  0.0318
   6.5554E-01   6.7149E-01   2.1118E-05  0.0315
   6.7149E-01   6.8783E-01   2.0137E-05  0.0318
   6.8783E-01   7.0456E-01   2.0814E-05  0.0309
   7.0456E-01   7.2171E-01   2.0718E-05  0.0306
   7.2171E-01   7.3927E-01   1.9306E-05  0.0314
   7.3927E-01   7.5725E-01   1.9301E-05  0.0310
   7.5725E-01   7.7568E-01   1.9811E-05  0.0302
   7.7568E-01   7.9455E-01   1.9667E-05  0.0300
   7.9455E-01   8.1388E-01   1.8286E-05  0.0307
   8.1388E-01   8.3368E-01   1.7910E-05  0.0307
   8.3368E-01   8.5397E-01   1.7214E-05  0.0309
   8.5397E-01   8.7475E-01   1.6099E-05  0.0316
   8.7475E-01   8.9603E-01   1.6367E-05  0.0309
   8.9603E-01   9.1783E-01   1.6383E-05  0.0305
   9.1783E-01   9.4016E-01   1.5621E-05  0.0309
   9.4016E-01   9.6304E-01   1.4936E-05  0.0312
   9.6304E-01   9.8647E-01   1.4624E-05  0.0312
   9.8647E-01   1.0105E+00   1.5103E-05  0.0303
   1.0105E+00   1.0351E+00   1.3775E-05  0.0314
   1.0351E+00   1.0602E+00   1.4619E-05  0.0301
   1.0602E+00   1.0860E+00   1.4640E-05  0.0297
   1.0860E+00   1.1125E+00   1.5497E-05  0.0285
   1.1125E+00   1.1395E+00   1.5751E-05  0.0280
   1.1395E+00   1.1673E+00   1.6369E-05  0.0271
   1.1673E+00   1.1957E+00   1.6960E-05  0.0263
   1.1957E+00   1.2247E+00   1.6637E-05  0.0262
   1.2247E+00   1.2545E+00   1.7417E-05  0.0253
   1.2545E+00   1.2851E+00   1.7980E-05  0.0246
   1.2851E+00   1.3163E+00   1.8753E-05  0.0238
   1.3163E+00   1.3484E+00   1.9135E-05  0.0233
   1.3484E+00   1.3812E+00   1.9173E-05  0.0230
   1.3812E+00   1.4148E+00   2.0171E-05  0.0222
   1.4148E+00   1.4492E+00   2.0670E-05  0.0216
   1.4492E+00   1.4845E+00   2.1653E-05  0.0209
   1.4845E+00   1.5206E+00   2.1600E-05  0.0207
   1.5206E+00   1.5576E+00   2.1943E-05  0.0203
   1.5576E+00   1.5955E+00   2.2654E-05  0.0197
   1.5955E+00   1.6343E+00   2.2893E-05  0.0194
   1.6343E+00   1.6741E+00   2.4449E-05  0.0185
   1.6741E+00   1.7148E+00   2.5353E-05  0.0180
   1.7148E+00   1.7565E+00   2.5570E-05  0.0177
   1.7565E+00   1.7992E+00   2.6694E-05  0.0171
   1.7992E+00   1.8430E+00   2.6399E-05  0.0170
   1.8430E+00   1.8879E+00   2.8381E-05  0.0162
   1.8879E+00   1.9338E+00   2.8262E-05  0.0160
   1.9338E+00   1.9808E+00   3.0456E-05  0.0153
   1.9808E+00   2.0290E+00   3.2614E-05  0.0146
   2.0290E+00   2.0784E+00   3.2102E-05  0.0145
   2.0784E+00   2.1290E+00   3.1742E-05  0.0144
   2.1290E+00   2.1808E+00   3.2999E-05  0.0140
   2.1808E+00   2.2338E+00   3.4995E-05  0.0134
   2.2338E+00   2.2882E+00   3.4982E-05  0.0132
   2.2882E+00   2.3439E+00   3.5903E-05  0.0129
   2.3439E+00   2.4009E+00   3.9077E-05  0.0122
   2.4009E+00   2.4593E+00   3.9935E-05  0.0120
   2.4593E+00   2.5191E+00   3.9992E-05  0.0118
   2.5191E+00   2.5804E+00   4.0241E-05  0.0116
   2.5804E+00   2.6432E+00   4.1109E-05  0.0114
   2.6432E+00   2.7075E+00   4.1740E-05  0.0111
   2.7075E+00   2.7734E+00   4.3992E-05  0.0107
   2.7734E+00   2.8409E+00   4.5399E-05  0.0104
   2.8409E+00   2.9100E+00   4.6903E-05  0.0101
   2.9100E+00   2.9808E+00   4.8331E-05  0.0099
   2.9808E+00   3.0533E+00   4.8093E-05  0.0098
   3.0533E+00   3.1276E+00   4.9486E-05  0.0095
   3.1276E+00   3.2037E+00   4.9154E-05  0.0094
   3.2037E+00   3.2817E+00   4.9556E-05  0.0093
   3.2817E+00   3.3615E+00   4.9688E-05  0.0092
   3.3615E+00   3.4433E+00   4.9883E-05  0.0090
   3.4433E+00   3.5271E+00   5.1354E-05  0.0088
   3.5271E+00   3.6129E+00   5.3026E-05  0.0086
   3.6129E+00   3.7008E+00   5.2929E-05  0.0085
   3.7008E+00   3.7908E+00   5.3437E-05  0.0083
   3.7908E+00   3.8831E+00   5.3505E-05  0.0082
   3.8831E+00   3.9776E+00   5.3234E-05  0.0081
   3.9776E+00   4.0743E+00   5.4235E-05  0.0080
   4.0743E+00   4.1735E+00   5.3321E-05  0.0079
   4.1735E+00   4.2750E+00   5.2662E-05  0.0079
   4.2750E+00   4.3790E+00   5.1784E-05  0.0079
   4.3790E+00   4.4856E+00   5.0872E-05  0.0078
   4.4856E+00   4.5947E+00   5.1122E-05  0.0077
   4.5947E+00   4.7065E+00   4.9870E-05  0.0077
   4.7065E+00   4.8210E+00   5.0175E-05  0.0076
   4.8210E+00   4.9383E+00   4.9691E-05  0.0076
   4.9383E+00   5.0585E+00   4.9204E-05  0.0075
   5.0585E+00   5.1815E+00   4.7783E-05  0.0075
   5.1815E+00   5.3076E+00   4.7118E-05  0.0075
   5.3076E+00   5.4368E+00   4.5791E-05  0.0075
   5.4368E+00   5.5690E+00   4.4169E-05  0.0075
   5.5690E+00   5.7045E+00   4.3095E-05  0.0076
   5.7045E+00   5.8433E+00   4.2596E-05  0.0075
   5.8433E+00   5.9855E+00   4.1457E-05  0.0075
   5.9855E+00   6.1311E+00   4.0870E-05  0.0075
   6.1311E+00   6.2803E+00   3.9851E-05  0.0075
   6.2803E+00   6.4331E+00   3.7668E-05  0.0076
   6.4331E+00   6.5896E+00   3.6590E-05  0.0076
   6.5896E+00   6.7500E+00   3.5638E-05  0.0076
   6.7500E+00   6.9142E+00   3.4560E-05  0.0077
   6.9142E+00   7.0824E+00   3.4030E-05  0.0076
   7.0824E+00   7.2548E+00   3.2403E-05  0.0077
   7.2548E+00   7.4313E+00   3.1564E-05  0.0077
   7.4313E+00   7.6121E+00   3.0143E-05  0.0078
   7.6121E+00   7.7973E+00   2.9250E-05  0.0078
   7.7973E+00   7.9870E+00   2.7970E-05  0.0079
   7.9870E+00   8.1813E+00   2.7019E-05  0.0080
   8.1813E+00   8.3804E+00   2.6304E-05  0.0080
   8.3804E+00   8.5843E+00   2.4586E-05  0.0081
   8.5843E+00   8.7931E+00   2.4062E-05  0.0081
   8.7931E+00   9.0071E+00   2.3440E-05  0.0081
   9.0071E+00   9.2262E+00   2.2378E-05  0.0082
   9.2262E+00   9.4507E+00   2.1323E-05  0.0083
   9.4507E+00   9.6807E+00   2.0610E-05  0.0084
   9.6807E+00   9.9162E+00   1.9538E-05  0.0085
   9.9162E+00   1.0157E+01   1.8990E-05  0.0085
   1.0157E+01   1.0405E+01   1.8256E-05  0.0086
   1.0405E+01   1.0658E+01   1.7389E-05  0.0087
   1.0658E+01   1.0917E+01   1.6688E-05  0.0088
   1.0917E+01   1.1183E+01   1.6294E-05  0.0088
   1.1183E+01   1.1455E+01   1.5358E-05  0.0089
   1.1455E+01   1.1733E+01   1.4812E-05  0.0090
   1.1733E+01   1.2019E+01   1.4334E-05  0.0090
   1.2019E+01   1.2311E+01   1.3771E-05  0.0091
   1.2311E+01   1.2611E+01   1.2898E-05  0.0093
   1.2611E+01   1.2918E+01   1.2305E-05  0.0094
   1.2918E+01   1.3232E+01   1.1885E-05  0.0094
   1.3232E+01   1.3554E+01   1.1339E-05  0.0096
   1.3554E+01   1.3884E+01   1.0802E-05  0.0097
   1.3884E+01   1.4222E+01   1.0433E-05  0.0097
   1.4222E+01   1.4568E+01   9.9555E-06  0.0098
   1.4568E+01   1.4922E+01   9.3866E-06  0.0100
   1.4922E+01   1.5285E+01   8.9052E-06  0.0102
   1.5285E+01   1.5657E+01   8.5086E-06  0.0103
   1.5657E+01   1.6038E+01   7.7478E-06  0.0106
   1.6038E+01   1.6428E+01   7.6603E-06  0.0106
   1.6428E+01   1.6828E+01   7.1864E-06  0.0108
   1.6828E+01   1.7237E+01   6.7393E-06  0.0110
   1.7237E+01   1.7657E+01   6.4545E-06  0.0111
   1.7657E+01   1.8086E+01   5.9660E-06  0.0114
   1.8086E+01   1.8526E+01   5.5133E-06  0.0117
   1.8526E+01   1.8977E+01   5.1953E-06  0.0119
   1.8977E+01   1.9439E+01   4.9098E-06  0.0121
   1.9439E+01   1.9912E+01   4.6896E-06  0.0123
   1.9912E+01   2.0396E+01   4.5968E-06  0.0122
   2.0396E+01   2.0893E+01   4.2612E-06  0.0126
   2.0893E+01   2.1401E+01   3.9810E-06  0.0128
   2.1401E+01   2.1922E+01   3.5791E-06  0.0134
   2.1922E+01   2.2455E+01   3.4141E-06  0.0135
   2.2455E+01   2.3001E+01   3.0402E-06  0.0142
   2.3001E+01   2.3561E+01   2.8417E-06  0.0145
   2.3561E+01   2.4134E+01   2.5794E-06  0.0150
   2.4134E+01   2.4721E+01   2.3036E-06  0.0157
   2.4721E+01   2.5323E+01   2.0787E-06  0.0163
   2.5323E+01   2.5939E+01   1.9866E-06  0.0165
   2.5939E+01   2.6570E+01   1.7493E-06  0.0174
   2.6570E+01   2.7217E+01   1.5432E-06  0.0183
   2.7217E+01   2.7879E+01   1.4296E-06  0.0188
   2.7879E+01   2.8557E+01   1.2187E-06  0.0201
   2.8557E+01   2.9252E+01   1.0861E-06  0.0210
   2.9252E+01   2.9964E+01   1.0051E-06  0.0216
   2.9964E+01   3.0693E+01   8.7741E-07  0.0228
   3.0693E+01   3.1440E+01   7.4185E-07  0.0245
   3.1440E+01   3.2205E+01   6.6540E-07  0.0256
   3.2205E+01   3.2988E+01   5.6920E-07  0.0273
   3.2988E+01   3.3791E+01   4.9172E-07  0.0291
   3.3791E+01   3.4613E+01   4.1679E-07  0.0312
   3.4613E+01   3.5455E+01   3.4673E-07  0.0338
   3.5455E+01   3.6318E+01   2.9908E-07  0.0359
   3.6318E+01   3.7201E+01   2.4444E-07  0.0393
   3.7201E+01   3.8106E+01   1.9150E-07  0.0439
   3.8106E+01   3.9034E+01   1.6214E-07  0.0471
   3.9034E+01   3.9983E+01   1.2214E-07  0.0536
   3.9983E+01   4.0956E+01   1.0039E-07  0.0584
   4.0956E+01   4.1953E+01   7.8609E-08  0.0652
   4.1953E+01   4.2973E+01   5.0290E-08  0.0806
   4.2973E+01   4.4019E+01   3.2518E-08  0.0990
   4.4019E+01   4.5090E+01   1.4317E-08  0.1474
   4.5090E+01   4.6187E+01   6.9883E-09  0.2085
   4.6187E+01   4.7311E+01   2.9662E-09  0.3162
   4.7311E+01   4.8462E+01   0.0000E+00  0.0000
   4.8462E+01   4.9641E+01   0.0000E+00  0.0000
   4.9641E+01   5.0849E+01   0.0000E+00  0.0000
   5.0849E+01   5.2086E+01   0.0000E+00  0.0000
   5.2086E+01   5.3353E+01   0.0000E+00  0.0000
   5.3353E+01   5.4651E+01   0.0000E+00  0.0000
   5.4651E+01   5.5981E+01   0.0000E+00  0.0000
   5.5981E+01   5.7343E+01   0.0000E+00  0.0000
   5.7343E+01   5.8738E+01   0.0000E+00  0.0000
   5.8738E+01   6.0168E+01   0.0000E+00  0.0000
   6.0168E+01   6.1632E+01   0.0000E+00  0.0000
   6.1632E+01   6.3131E+01   0.0000E+00  0.0000
   6.3131E+01   6.4667E+01   0.0000E+00  0.0000
   6.4667E+01   6.6240E+01   0.0000E+00  0.0000
   6.6240E+01   6.7852E+01   0.0000E+00  0.0000
   6.7852E+01   6.9503E+01   0.0000E+00  0.0000
   6.9503E+01   7.1194E+01   0.0000E+00  0.0000
   7.1194E+01   7.2926E+01   0.0000E+00  0.0000
   7.2926E+01   7.4701E+01   0.0000E+00  0.0000
   7.4701E+01   7.6518E+01   0.0000E+00  0.0000
   7.6518E+01   7.8380E+01   0.0000E+00  0.0000
   7.8380E+01   8.0287E+01   0.0000E+00  0.0000
   8.0287E+01   8.2240E+01   0.0000E+00  0.0000
   8.2240E+01   8.4241E+01   0.0000E+00  0.0000
   8.4241E+01   8.6291E+01   0.0000E+00  0.0000
   8.6291E+01   8.8391E+01   0.0000E+00  0.0000
   8.8391E+01   9.0541E+01   0.0000E+00  0.0000
   9.0541E+01   9.2744E+01   0.0000E+00  0.0000
   9.2744E+01   9.5001E+01   0.0000E+00  0.0000
   9.5001E+01   9.7312E+01   0.0000E+00  0.0000
   9.7312E+01   9.9680E+01   0.0000E+00  0.0000
   9.9680E+01   1.0211E+02   0.0000E+00  0.0000
   1.0211E+02   1.0459E+02   0.0000E+00  0.0000
   1.0459E+02   1.0713E+02   0.0000E+00  0.0000
   1.0713E+02   1.0974E+02   0.0000E+00  0.0000
   1.0974E+02   1.1241E+02   0.0000E+00  0.0000
   1.1241E+02   1.1515E+02   0.0000E+00  0.0000
   1.1515E+02   1.1795E+02   0.0000E+00  0.0000
   1.1795E+02   1.2082E+02   0.0000E+00  0.0000
   1.2082E+02   1.2376E+02   0.0000E+00  0.0000
   1.2376E+02   1.2677E+02   0.0000E+00  0.0000
   1.2677E+02   1.2985E+02   0.0000E+00  0.0000
   1.2985E+02   1.3301E+02   0.0000E+00  0.0000
   1.3301E+02   1.3625E+02   0.0000E+00  0.0000
   1.3625E+02   1.3956E+02   0.0000E+00  0.0000
   1.3956E+02   1.4296E+02   0.0000E+00  0.0000
   1.4296E+02   1.4644E+02   0.0000E+00  0.0000
   1.4644E+02   1.5000E+02   0.0000E+00  0.0000

#   sum over                 3.1931E-06
'no. =    1   reg = 113 - 213'
msuc: {\huge [t-cross] in region mesh}
msdr: {\it plotted by \ANGEL \version}
msdl: {\it calculated by \PHITS  3.26}
wt: s(0.7)
\vspace{-3}
  region surface crossing
  area  &=&   1.0000E+00 [cm^2]
e:
 
# Information for Restart Calculation
# This calculation was newly started
# istdev =  2 # 1:Batch variance, 2:History variance
# resc2  = 3.00000000000000000E+09 # Total source weight or Total source weight / maxcas
# resc3  = 3.00000000000000000E+09 # Total history number or Total batch number
# maxcas =   500000000 # History / Batch, only used for istdev=1
# bitrseed = 0110110011111001100110101011100000010010001000001101100100111101 # bit data of rseed
