[ T-Cross ]
    title = [t-cross] in region mesh
     mesh =  reg            # mesh type is region-wise
      reg =    1            # number of crossing regions
      non     r-from    r-to       area
      1       110       210        1.000000    
   e-type =    3            # e-mesh is log given by emin, emax and ne
     emin =  1.0000000E-02  # minimum value of e-mesh points
     emax =   150.0000      # maximum value of e-mesh points
#    edel =  2.4039514E-02  # mesh width of e-mesh points
       ne =    400          # number of e-mesh points
#    data = ( e(i), i = 1, ne + 1 )
#           1.00000E-02  1.02433E-02  1.04925E-02  1.07478E-02  1.10093E-02
#           1.12772E-02  1.15516E-02  1.18326E-02  1.21205E-02  1.24154E-02
#           1.27175E-02  1.30269E-02  1.33439E-02  1.36686E-02  1.40011E-02
#           1.43418E-02  1.46907E-02  1.50482E-02  1.54143E-02  1.57894E-02
#           1.61735E-02  1.65670E-02  1.69701E-02  1.73830E-02  1.78060E-02
#           1.82392E-02  1.86830E-02  1.91375E-02  1.96032E-02  2.00801E-02
#           2.05687E-02  2.10692E-02  2.15818E-02  2.21069E-02  2.26448E-02
#           2.31957E-02  2.37601E-02  2.43382E-02  2.49304E-02  2.55369E-02
#           2.61583E-02  2.67947E-02  2.74467E-02  2.81145E-02  2.87985E-02
#           2.94992E-02  3.02169E-02  3.09521E-02  3.17052E-02  3.24766E-02
#           3.32668E-02  3.40762E-02  3.49053E-02  3.57546E-02  3.66246E-02
#           3.75157E-02  3.84284E-02  3.93634E-02  4.03212E-02  4.13022E-02
#           4.23071E-02  4.33365E-02  4.43909E-02  4.54710E-02  4.65773E-02
#           4.77106E-02  4.88714E-02  5.00605E-02  5.12785E-02  5.25262E-02
#           5.38042E-02  5.51133E-02  5.64542E-02  5.78278E-02  5.92348E-02
#           6.06760E-02  6.21523E-02  6.36645E-02  6.52135E-02  6.68002E-02
#           6.84255E-02  7.00904E-02  7.17957E-02  7.35426E-02  7.53319E-02
#           7.71648E-02  7.90423E-02  8.09655E-02  8.29354E-02  8.49533E-02
#           8.70203E-02  8.91376E-02  9.13064E-02  9.35279E-02  9.58035E-02
#           9.81345E-02  1.00522E-01  1.02968E-01  1.05473E-01  1.08040E-01
#           1.10668E-01  1.13361E-01  1.16119E-01  1.18944E-01  1.21838E-01
#           1.24803E-01  1.27839E-01  1.30950E-01  1.34136E-01  1.37399E-01
#           1.40742E-01  1.44167E-01  1.47675E-01  1.51268E-01  1.54948E-01
#           1.58718E-01  1.62580E-01  1.66535E-01  1.70587E-01  1.74738E-01
#           1.78989E-01  1.83344E-01  1.87805E-01  1.92375E-01  1.97055E-01
#           2.01850E-01  2.06761E-01  2.11792E-01  2.16945E-01  2.22223E-01
#           2.27630E-01  2.33169E-01  2.38842E-01  2.44653E-01  2.50605E-01
#           2.56703E-01  2.62949E-01  2.69346E-01  2.75900E-01  2.82613E-01
#           2.89489E-01  2.96532E-01  3.03747E-01  3.11138E-01  3.18708E-01
#           3.26462E-01  3.34405E-01  3.42542E-01  3.50876E-01  3.59413E-01
#           3.68158E-01  3.77116E-01  3.86291E-01  3.95690E-01  4.05317E-01
#           4.15179E-01  4.25281E-01  4.35628E-01  4.46227E-01  4.57084E-01
#           4.68205E-01  4.79597E-01  4.91266E-01  5.03219E-01  5.15463E-01
#           5.28005E-01  5.40851E-01  5.54011E-01  5.67490E-01  5.81298E-01
#           5.95441E-01  6.09929E-01  6.24769E-01  6.39970E-01  6.55541E-01
#           6.71491E-01  6.87828E-01  7.04564E-01  7.21706E-01  7.39266E-01
#           7.57253E-01  7.75678E-01  7.94551E-01  8.13883E-01  8.33685E-01
#           8.53969E-01  8.74747E-01  8.96030E-01  9.17831E-01  9.40163E-01
#           9.63038E-01  9.86469E-01  1.01047E+00  1.03506E+00  1.06024E+00
#           1.08604E+00  1.11246E+00  1.13953E+00  1.16725E+00  1.19565E+00
#           1.22474E+00  1.25454E+00  1.28507E+00  1.31633E+00  1.34836E+00
#           1.38117E+00  1.41477E+00  1.44920E+00  1.48446E+00  1.52057E+00
#           1.55757E+00  1.59547E+00  1.63429E+00  1.67405E+00  1.71478E+00
#           1.75650E+00  1.79924E+00  1.84302E+00  1.88786E+00  1.93379E+00
#           1.98084E+00  2.02904E+00  2.07841E+00  2.12898E+00  2.18078E+00
#           2.23384E+00  2.28819E+00  2.34386E+00  2.40089E+00  2.45930E+00
#           2.51914E+00  2.58043E+00  2.64322E+00  2.70753E+00  2.77341E+00
#           2.84088E+00  2.91001E+00  2.98081E+00  3.05333E+00  3.12762E+00
#           3.20372E+00  3.28167E+00  3.36152E+00  3.44330E+00  3.52708E+00
#           3.61290E+00  3.70080E+00  3.79085E+00  3.88308E+00  3.97756E+00
#           4.07434E+00  4.17347E+00  4.27501E+00  4.37903E+00  4.48557E+00
#           4.59471E+00  4.70650E+00  4.82102E+00  4.93832E+00  5.05847E+00
#           5.18155E+00  5.30762E+00  5.43676E+00  5.56904E+00  5.70453E+00
#           5.84333E+00  5.98550E+00  6.13114E+00  6.28031E+00  6.43312E+00
#           6.58964E+00  6.74997E+00  6.91420E+00  7.08243E+00  7.25475E+00
#           7.43126E+00  7.61207E+00  7.79728E+00  7.98700E+00  8.18133E+00
#           8.38038E+00  8.58428E+00  8.79315E+00  9.00709E+00  9.22624E+00
#           9.45072E+00  9.68067E+00  9.91620E+00  1.01575E+01  1.04046E+01
#           1.06578E+01  1.09171E+01  1.11827E+01  1.14548E+01  1.17335E+01
#           1.20190E+01  1.23114E+01  1.26109E+01  1.29178E+01  1.32321E+01
#           1.35540E+01  1.38838E+01  1.42216E+01  1.45676E+01  1.49221E+01
#           1.52851E+01  1.56570E+01  1.60380E+01  1.64282E+01  1.68279E+01
#           1.72374E+01  1.76568E+01  1.80864E+01  1.85264E+01  1.89772E+01
#           1.94389E+01  1.99119E+01  2.03963E+01  2.08926E+01  2.14009E+01
#           2.19216E+01  2.24550E+01  2.30014E+01  2.35610E+01  2.41343E+01
#           2.47215E+01  2.53230E+01  2.59391E+01  2.65702E+01  2.72167E+01
#           2.78789E+01  2.85572E+01  2.92520E+01  2.99637E+01  3.06928E+01
#           3.14396E+01  3.22045E+01  3.29881E+01  3.37907E+01  3.46128E+01
#           3.54550E+01  3.63177E+01  3.72013E+01  3.81064E+01  3.90336E+01
#           3.99833E+01  4.09561E+01  4.19526E+01  4.29734E+01  4.40189E+01
#           4.50900E+01  4.61870E+01  4.73108E+01  4.84619E+01  4.96410E+01
#           5.08488E+01  5.20860E+01  5.33533E+01  5.46514E+01  5.59812E+01
#           5.73432E+01  5.87384E+01  6.01676E+01  6.16315E+01  6.31311E+01
#           6.46671E+01  6.62405E+01  6.78522E+01  6.95031E+01  7.11941E+01
#           7.29263E+01  7.47007E+01  7.65182E+01  7.83800E+01  8.02870E+01
#           8.22405E+01  8.42414E+01  8.62911E+01  8.83906E+01  9.05412E+01
#           9.27442E+01  9.50007E+01  9.73122E+01  9.96799E+01  1.02105E+02
#           1.04589E+02  1.07134E+02  1.09741E+02  1.12411E+02  1.15146E+02
#           1.17948E+02  1.20817E+02  1.23757E+02  1.26768E+02  1.29852E+02
#           1.33012E+02  1.36248E+02  1.39563E+02  1.42959E+02  1.46437E+02
#           1.50000E+02
     unit =    2            # unit is [1/cm^2/(MeV/n)/source]
     axis =  eng            # axis of output
     file = detector-11.out  # file name of output for the above axis
   output = f-curr          # surface crossing forward current spectrum
     part =  neutron  
# kf/name :  2112     
#    used :        main (  %)        temp (  %)       total (  %)
#  memory :         414 (  0)           0 (  0)         414 (  0)

#------------------------------------------------------------------------------
#newpage:
#   no. =    1   reg = 110 - 210

x: Energy [MeV/n]
y:  F-Curr [1/cm^2/(MeV/n)/source]         
p: xlog ylog afac(0.8) form(0.9)
h: n            x            y(neutron ),hh0l   n 
#  e-lower      e-upper      neutron     r.err 
   1.0000E-02   1.0243E-02   2.0146E-05  0.2002
   1.0243E-02   1.0493E-02   1.9143E-05  0.2041
   1.0493E-02   1.0748E-02   2.1758E-05  0.1890
   1.0748E-02   1.1009E-02   1.0539E-05  0.2676
   1.1009E-02   1.1277E-02   2.0758E-05  0.1890
   1.1277E-02   1.1552E-02   1.8045E-05  0.1980
   1.1552E-02   1.1833E-02   1.2765E-05  0.2357
   1.1833E-02   1.2121E-02   1.5049E-05  0.2135
   1.2121E-02   1.2415E-02   1.8627E-05  0.1891
   1.2415E-02   1.2718E-02   1.4323E-05  0.2134
   1.2718E-02   1.3027E-02   1.6663E-05  0.1961
   1.3027E-02   1.3344E-02   1.3520E-05  0.2141
   1.3344E-02   1.3669E-02   1.7554E-05  0.1858
   1.3669E-02   1.4001E-02   1.2945E-05  0.2135
   1.4001E-02   1.4342E-02   1.2637E-05  0.2136
   1.4342E-02   1.4691E-02   1.4351E-05  0.1989
   1.4691E-02   1.5048E-02   1.4358E-05  0.1963
   1.5048E-02   1.5414E-02   1.6236E-05  0.1826
   1.5414E-02   1.5789E-02   1.5198E-05  0.1859
   1.5789E-02   1.6174E-02   1.2387E-05  0.2042
   1.6174E-02   1.6567E-02   1.1192E-05  0.2115
   1.6567E-02   1.6970E-02   1.1433E-05  0.2072
   1.6970E-02   1.7383E-02   1.6890E-05  0.1685
   1.7383E-02   1.7806E-02   1.5022E-05  0.1768
   1.7806E-02   1.8239E-02   1.2377E-05  0.1925
   1.8239E-02   1.8683E-02   1.2958E-05  0.1858
   1.8683E-02   1.9138E-02   1.1842E-05  0.1925
   1.9138E-02   1.9603E-02   1.1124E-05  0.1961
   1.9603E-02   2.0080E-02   9.8111E-06  0.2045
   2.0080E-02   2.0569E-02   8.0819E-06  0.2238
   2.0569E-02   2.1069E-02   1.1135E-05  0.1890
   2.1069E-02   2.1582E-02   8.1574E-06  0.2182
   2.1582E-02   2.2107E-02   1.0131E-05  0.1926
   2.2107E-02   2.2645E-02   1.1766E-05  0.1769
   2.2645E-02   2.3196E-02   1.0329E-05  0.1860
   2.3196E-02   2.3760E-02   1.1292E-05  0.1768
   2.3760E-02   2.4338E-02   9.2629E-06  0.1925
   2.4338E-02   2.4930E-02   8.3446E-06  0.2001
   2.4930E-02   2.5537E-02   5.6245E-06  0.2406
   2.5537E-02   2.6158E-02   8.6439E-06  0.1925
   2.6158E-02   2.6795E-02   7.4405E-06  0.2042
   2.6795E-02   2.7447E-02   1.1034E-05  0.1656
   2.7447E-02   2.8114E-02   7.0675E-06  0.2043
   2.8114E-02   2.8799E-02   8.4065E-06  0.1857
   2.8799E-02   2.9499E-02   5.9206E-06  0.2184
   2.9499E-02   3.0217E-02   5.2959E-06  0.2270
   3.0217E-02   3.0952E-02   7.4039E-06  0.1897
   3.0952E-02   3.1705E-02   5.8606E-06  0.2118
   3.1705E-02   3.2477E-02   6.3650E-06  0.2003
   3.2477E-02   3.3267E-02   7.7541E-06  0.1797
   3.3267E-02   3.4076E-02   1.0776E-05  0.1508
   3.4076E-02   3.4905E-02   6.6130E-06  0.1881
   3.4905E-02   3.5755E-02   6.0646E-06  0.1962
   3.5755E-02   3.6625E-02   4.7770E-06  0.2183
   3.6625E-02   3.7516E-02   6.8602E-06  0.1797
   3.7516E-02   3.8428E-02   6.8797E-06  0.1771
   3.8428E-02   3.9363E-02   4.6195E-06  0.2134
   3.9363E-02   4.0321E-02   5.9504E-06  0.1842
   4.0321E-02   4.1302E-02   7.6964E-06  0.1611
   4.1302E-02   4.2307E-02   6.2509E-06  0.1771
   4.2307E-02   4.3337E-02   6.2772E-06  0.1743
   4.3337E-02   4.4391E-02   6.8161E-06  0.1658
   4.4391E-02   4.5471E-02   5.5093E-06  0.1826
   4.5471E-02   4.6577E-02   4.8567E-06  0.1925
   4.6577E-02   4.7711E-02   6.1516E-06  0.1690
   4.7711E-02   4.8871E-02   4.5679E-06  0.1927
   4.8871E-02   5.0061E-02   5.0543E-06  0.1802
   5.0061E-02   5.1279E-02   5.1314E-06  0.1777
   5.1279E-02   5.2526E-02   3.8962E-06  0.1994
   5.2526E-02   5.3804E-02   4.7793E-06  0.1797
   5.3804E-02   5.5113E-02   3.4089E-06  0.2094
   5.5113E-02   5.6454E-02   5.1148E-06  0.1693
   5.6454E-02   5.7828E-02   5.6804E-06  0.1595
   5.7828E-02   5.9235E-02   4.9547E-06  0.1690
   5.9235E-02   6.0676E-02   3.9537E-06  0.1862
   6.0676E-02   6.2152E-02   4.5419E-06  0.1718
   6.2152E-02   6.3665E-02   3.4928E-06  0.1928
   6.3665E-02   6.5214E-02   3.5623E-06  0.1891
   6.5214E-02   6.6800E-02   3.4869E-06  0.1891
   6.6800E-02   6.8426E-02   3.6278E-06  0.1828
   6.8426E-02   7.0090E-02   3.6074E-06  0.1806
   7.0090E-02   7.1796E-02   4.6658E-06  0.1581
   7.1796E-02   7.3543E-02   4.4188E-06  0.1602
   7.3543E-02   7.5332E-02   2.7467E-06  0.2004
   7.5332E-02   7.7165E-02   4.4559E-06  0.1554
   7.7165E-02   7.9042E-02   3.6457E-06  0.1693
   7.9042E-02   8.0965E-02   4.0052E-06  0.1602
   8.0965E-02   8.2935E-02   3.1616E-06  0.1780
   8.2935E-02   8.4953E-02   2.6618E-06  0.1925
   8.4953E-02   8.7020E-02   2.9578E-06  0.1797
   8.7020E-02   8.9138E-02   3.0737E-06  0.1742
   8.9138E-02   9.1306E-02   3.5286E-06  0.1603
   9.1306E-02   9.3528E-02   3.7419E-06  0.1544
   9.3528E-02   9.5804E-02   2.5150E-06  0.1849
   9.5804E-02   9.8134E-02   3.0513E-06  0.1667
   9.8134E-02   1.0052E-01   4.0617E-06  0.1429
   1.0052E-01   1.0297E-01   3.2425E-06  0.1582
   1.0297E-01   1.0547E-01   3.7033E-06  0.1460
   1.0547E-01   1.0804E-01   3.9965E-06  0.1389
   1.0804E-01   1.1067E-01   2.8836E-06  0.1616
   1.1067E-01   1.1336E-01   3.8705E-06  0.1375
   1.1336E-01   1.1612E-01   4.3943E-06  0.1280
   1.1612E-01   1.1894E-01   6.0345E-06  0.1079
   1.1894E-01   1.2184E-01   3.7655E-06  0.1349
   1.2184E-01   1.2480E-01   4.6779E-06  0.1192
   1.2480E-01   1.2784E-01   3.8517E-06  0.1302
   1.2784E-01   1.3095E-01   4.5431E-06  0.1187
   1.3095E-01   1.3414E-01   6.6830E-06  0.0963
   1.3414E-01   1.3740E-01   4.7460E-06  0.1132
   1.3740E-01   1.4074E-01   4.7580E-06  0.1116
   1.4074E-01   1.4417E-01   5.2052E-06  0.1052
   1.4417E-01   1.4767E-01   6.4990E-06  0.0929
   1.4767E-01   1.5127E-01   5.5991E-06  0.0991
   1.5127E-01   1.5495E-01   5.8121E-06  0.0963
   1.5495E-01   1.5872E-01   7.0484E-06  0.0863
   1.5872E-01   1.6258E-01   6.7936E-06  0.0868
   1.6258E-01   1.6654E-01   7.7444E-06  0.0804
   1.6654E-01   1.7059E-01   7.4510E-06  0.0810
   1.7059E-01   1.7474E-01   8.0716E-06  0.0769
   1.7474E-01   1.7899E-01   8.3747E-06  0.0745
   1.7899E-01   1.8334E-01   7.2004E-06  0.0795
   1.8334E-01   1.8781E-01   8.9398E-06  0.0704
   1.8781E-01   1.9237E-01   9.4771E-06  0.0675
   1.9237E-01   1.9706E-01   8.5963E-06  0.0702
   1.9706E-01   2.0185E-01   9.8019E-06  0.0650
   2.0185E-01   2.0676E-01   9.8383E-06  0.0640
   2.0676E-01   2.1179E-01   1.1487E-05  0.0585
   2.1179E-01   2.1694E-01   1.1438E-05  0.0580
   2.1694E-01   2.2222E-01   1.1227E-05  0.0578
   2.2222E-01   2.2763E-01   1.1731E-05  0.0559
   2.2763E-01   2.3317E-01   1.2433E-05  0.0536
   2.3317E-01   2.3884E-01   1.1521E-05  0.0551
   2.3884E-01   2.4465E-01   1.1473E-05  0.0545
   2.4465E-01   2.5061E-01   1.2817E-05  0.0509
   2.5061E-01   2.5670E-01   1.4132E-05  0.0480
   2.5670E-01   2.6295E-01   1.3781E-05  0.0480
   2.6295E-01   2.6935E-01   1.2792E-05  0.0492
   2.6935E-01   2.7590E-01   1.4712E-05  0.0453
   2.7590E-01   2.8261E-01   1.4957E-05  0.0444
   2.8261E-01   2.8949E-01   1.6720E-05  0.0416
   2.8949E-01   2.9653E-01   1.7055E-05  0.0406
   2.9653E-01   3.0375E-01   1.6082E-05  0.0413
   3.0375E-01   3.1114E-01   1.6627E-05  0.0401
   3.1114E-01   3.1871E-01   1.8487E-05  0.0376
   3.1871E-01   3.2646E-01   1.8640E-05  0.0370
   3.2646E-01   3.3441E-01   1.7833E-05  0.0374
   3.3441E-01   3.4254E-01   2.0587E-05  0.0344
   3.4254E-01   3.5088E-01   1.8468E-05  0.0359
   3.5088E-01   3.5941E-01   2.0678E-05  0.0335
   3.5941E-01   3.6816E-01   2.0963E-05  0.0329
   3.6816E-01   3.7712E-01   2.1772E-05  0.0319
   3.7712E-01   3.8629E-01   2.1464E-05  0.0317
   3.8629E-01   3.9569E-01   2.2290E-05  0.0307
   3.9569E-01   4.0532E-01   2.2627E-05  0.0301
   4.0532E-01   4.1518E-01   2.3247E-05  0.0294
   4.1518E-01   4.2528E-01   2.5381E-05  0.0278
   4.2528E-01   4.3563E-01   2.4144E-05  0.0281
   4.3563E-01   4.4623E-01   2.4199E-05  0.0278
   4.4623E-01   4.5708E-01   2.3757E-05  0.0277
   4.5708E-01   4.6821E-01   2.4421E-05  0.0270
   4.6821E-01   4.7960E-01   2.5291E-05  0.0262
   4.7960E-01   4.9127E-01   2.5192E-05  0.0259
   4.9127E-01   5.0322E-01   2.6786E-05  0.0249
   5.0322E-01   5.1546E-01   2.6397E-05  0.0247
   5.1546E-01   5.2800E-01   2.6685E-05  0.0243
   5.2800E-01   5.4085E-01   2.8260E-05  0.0233
   5.4085E-01   5.5401E-01   2.8617E-05  0.0229
   5.5401E-01   5.6749E-01   2.8133E-05  0.0228
   5.6749E-01   5.8130E-01   2.7988E-05  0.0226
   5.8130E-01   5.9544E-01   2.7986E-05  0.0223
   5.9544E-01   6.0993E-01   2.8249E-05  0.0220
   6.0993E-01   6.2477E-01   2.8968E-05  0.0214
   6.2477E-01   6.3997E-01   2.7559E-05  0.0217
   6.3997E-01   6.5554E-01   2.8999E-05  0.0209
   6.5554E-01   6.7149E-01   2.9382E-05  0.0205
   6.7149E-01   6.8783E-01   2.9618E-05  0.0202
   6.8783E-01   7.0456E-01   2.8825E-05  0.0202
   7.0456E-01   7.2171E-01   2.8294E-05  0.0202
   7.2171E-01   7.3927E-01   2.7887E-05  0.0201
   7.3927E-01   7.5725E-01   2.7981E-05  0.0198
   7.5725E-01   7.7568E-01   2.7670E-05  0.0197
   7.7568E-01   7.9455E-01   2.7816E-05  0.0194
   7.9455E-01   8.1388E-01   2.6904E-05  0.0194
   8.1388E-01   8.3368E-01   2.6546E-05  0.0193
   8.3368E-01   8.5397E-01   2.6222E-05  0.0192
   8.5397E-01   8.7475E-01   2.4922E-05  0.0195
   8.7475E-01   8.9603E-01   2.4792E-05  0.0193
   8.9603E-01   9.1783E-01   2.3571E-05  0.0195
   9.1783E-01   9.4016E-01   2.2824E-05  0.0196
   9.4016E-01   9.6304E-01   2.1944E-05  0.0198
   9.6304E-01   9.8647E-01   2.1850E-05  0.0196
   9.8647E-01   1.0105E+00   2.1886E-05  0.0193
   1.0105E+00   1.0351E+00   2.1856E-05  0.0191
   1.0351E+00   1.0602E+00   2.1861E-05  0.0189
   1.0602E+00   1.0860E+00   2.2410E-05  0.0184
   1.0860E+00   1.1125E+00   2.3823E-05  0.0176
   1.1125E+00   1.1395E+00   2.4353E-05  0.0172
   1.1395E+00   1.1673E+00   2.5035E-05  0.0168
   1.1673E+00   1.1957E+00   2.6772E-05  0.0160
   1.1957E+00   1.2247E+00   2.8026E-05  0.0155
   1.2247E+00   1.2545E+00   2.7894E-05  0.0153
   1.2545E+00   1.2851E+00   2.9181E-05  0.0148
   1.2851E+00   1.3163E+00   2.8945E-05  0.0147
   1.3163E+00   1.3484E+00   2.9903E-05  0.0143
   1.3484E+00   1.3812E+00   3.1296E-05  0.0138
   1.3812E+00   1.4148E+00   3.2242E-05  0.0134
   1.4148E+00   1.4492E+00   3.2400E-05  0.0132
   1.4492E+00   1.4845E+00   3.2685E-05  0.0130
   1.4845E+00   1.5206E+00   3.2728E-05  0.0128
   1.5206E+00   1.5576E+00   3.3538E-05  0.0125
   1.5576E+00   1.5955E+00   3.3006E-05  0.0124
   1.5955E+00   1.6343E+00   3.3762E-05  0.0121
   1.6343E+00   1.6741E+00   3.3539E-05  0.0120
   1.6741E+00   1.7148E+00   3.4724E-05  0.0117
   1.7148E+00   1.7565E+00   3.3119E-05  0.0118
   1.7565E+00   1.7992E+00   3.1870E-05  0.0119
   1.7992E+00   1.8430E+00   3.0650E-05  0.0119
   1.8430E+00   1.8879E+00   2.9390E-05  0.0120
   1.8879E+00   1.9338E+00   2.9588E-05  0.0118
   1.9338E+00   1.9808E+00   2.9958E-05  0.0115
   1.9808E+00   2.0290E+00   3.1044E-05  0.0112
   2.0290E+00   2.0784E+00   3.1870E-05  0.0109
   2.0784E+00   2.1290E+00   3.1929E-05  0.0107
   2.1290E+00   2.1808E+00   3.3136E-05  0.0104
   2.1808E+00   2.2338E+00   3.2866E-05  0.0103
   2.2338E+00   2.2882E+00   3.2656E-05  0.0103
   2.2882E+00   2.3439E+00   3.1967E-05  0.0103
   2.3439E+00   2.4009E+00   3.2165E-05  0.0101
   2.4009E+00   2.4593E+00   3.2246E-05  0.0100
   2.4593E+00   2.5191E+00   3.2623E-05  0.0098
   2.5191E+00   2.5804E+00   3.1564E-05  0.0099
   2.5804E+00   2.6432E+00   3.1811E-05  0.0097
   2.6432E+00   2.7075E+00   3.1973E-05  0.0096
   2.7075E+00   2.7734E+00   3.1478E-05  0.0096
   2.7734E+00   2.8409E+00   3.1374E-05  0.0095
   2.8409E+00   2.9100E+00   3.1471E-05  0.0093
   2.9100E+00   2.9808E+00   3.1353E-05  0.0093
   2.9808E+00   3.0533E+00   3.1696E-05  0.0091
   3.0533E+00   3.1276E+00   3.0970E-05  0.0091
   3.1276E+00   3.2037E+00   3.0231E-05  0.0091
   3.2037E+00   3.2817E+00   3.0375E-05  0.0090
   3.2817E+00   3.3615E+00   2.9370E-05  0.0090
   3.3615E+00   3.4433E+00   2.9422E-05  0.0089
   3.4433E+00   3.5271E+00   2.9182E-05  0.0089
   3.5271E+00   3.6129E+00   2.9102E-05  0.0088
   3.6129E+00   3.7008E+00   2.8279E-05  0.0088
   3.7008E+00   3.7908E+00   2.7786E-05  0.0088
   3.7908E+00   3.8831E+00   2.7292E-05  0.0087
   3.8831E+00   3.9776E+00   2.6356E-05  0.0088
   3.9776E+00   4.0743E+00   2.5919E-05  0.0088
   4.0743E+00   4.1735E+00   2.4701E-05  0.0089
   4.1735E+00   4.2750E+00   2.4285E-05  0.0088
   4.2750E+00   4.3790E+00   2.3324E-05  0.0089
   4.3790E+00   4.4856E+00   2.2555E-05  0.0089
   4.4856E+00   4.5947E+00   2.1868E-05  0.0090
   4.5947E+00   4.7065E+00   2.1056E-05  0.0090
   4.7065E+00   4.8210E+00   2.0577E-05  0.0090
   4.8210E+00   4.9383E+00   2.0173E-05  0.0090
   4.9383E+00   5.0585E+00   1.9429E-05  0.0091
   5.0585E+00   5.1815E+00   1.9071E-05  0.0090
   5.1815E+00   5.3076E+00   1.8494E-05  0.0091
   5.3076E+00   5.4368E+00   1.7531E-05  0.0092
   5.4368E+00   5.5690E+00   1.7160E-05  0.0092
   5.5690E+00   5.7045E+00   1.6608E-05  0.0093
   5.7045E+00   5.8433E+00   1.6078E-05  0.0093
   5.8433E+00   5.9855E+00   1.5707E-05  0.0093
   5.9855E+00   6.1311E+00   1.4937E-05  0.0094
   6.1311E+00   6.2803E+00   1.4414E-05  0.0095
   6.2803E+00   6.4331E+00   1.4002E-05  0.0095
   6.4331E+00   6.5896E+00   1.3055E-05  0.0097
   6.5896E+00   6.7500E+00   1.2861E-05  0.0097
   6.7500E+00   6.9142E+00   1.2082E-05  0.0099
   6.9142E+00   7.0824E+00   1.1444E-05  0.0100
   7.0824E+00   7.2548E+00   1.0891E-05  0.0102
   7.2548E+00   7.4313E+00   1.0296E-05  0.0103
   7.4313E+00   7.6121E+00   9.9094E-06  0.0104
   7.6121E+00   7.7973E+00   8.9550E-06  0.0108
   7.7973E+00   7.9870E+00   8.7295E-06  0.0108
   7.9870E+00   8.1813E+00   8.0186E-06  0.0112
   8.1813E+00   8.3804E+00   7.2517E-06  0.0116
   8.3804E+00   8.5843E+00   6.3097E-06  0.0123
   8.5843E+00   8.7931E+00   5.6888E-06  0.0128
   8.7931E+00   9.0071E+00   5.0765E-06  0.0134
   9.0071E+00   9.2262E+00   4.6217E-06  0.0139
   9.2262E+00   9.4507E+00   4.2536E-06  0.0143
   9.4507E+00   9.6807E+00   4.0184E-06  0.0146
   9.6807E+00   9.9162E+00   3.7512E-06  0.0150
   9.9162E+00   1.0157E+01   3.6985E-06  0.0149
   1.0157E+01   1.0405E+01   3.5307E-06  0.0151
   1.0405E+01   1.0658E+01   3.2526E-06  0.0155
   1.0658E+01   1.0917E+01   2.9838E-06  0.0160
   1.0917E+01   1.1183E+01   2.6134E-06  0.0169
   1.1183E+01   1.1455E+01   2.4696E-06  0.0172
   1.1455E+01   1.1733E+01   2.2592E-06  0.0178
   1.1733E+01   1.2019E+01   1.9804E-06  0.0188
   1.2019E+01   1.2311E+01   1.8274E-06  0.0193
   1.2311E+01   1.2611E+01   1.6713E-06  0.0199
   1.2611E+01   1.2918E+01   1.4575E-06  0.0211
   1.2918E+01   1.3232E+01   1.3488E-06  0.0217
   1.3232E+01   1.3554E+01   1.2053E-06  0.0227
   1.3554E+01   1.3884E+01   1.0432E-06  0.0241
   1.3884E+01   1.4222E+01   8.5390E-07  0.0263
   1.4222E+01   1.4568E+01   7.4955E-07  0.0277
   1.4568E+01   1.4922E+01   6.5832E-07  0.0293
   1.4922E+01   1.5285E+01   5.2950E-07  0.0322
   1.5285E+01   1.5657E+01   3.9936E-07  0.0367
   1.5657E+01   1.6038E+01   3.3586E-07  0.0395
   1.6038E+01   1.6428E+01   2.3480E-07  0.0467
   1.6428E+01   1.6828E+01   1.7276E-07  0.0538
   1.6828E+01   1.7237E+01   1.2256E-07  0.0631
   1.7237E+01   1.7657E+01   7.0559E-08  0.0821
   1.7657E+01   1.8086E+01   2.5381E-08  0.1351
   1.8086E+01   1.8526E+01   1.0453E-08  0.2085
   1.8526E+01   1.8977E+01   5.3243E-09  0.2887
   1.8977E+01   1.9439E+01   1.7326E-09  0.5000
   1.9439E+01   1.9912E+01   8.4573E-10  0.7071
   1.9912E+01   2.0396E+01   0.0000E+00  0.0000
   2.0396E+01   2.0893E+01   4.0302E-10  1.0000
   2.0893E+01   2.1401E+01   0.0000E+00  0.0000
   2.1401E+01   2.1922E+01   0.0000E+00  0.0000
   2.1922E+01   2.2455E+01   0.0000E+00  0.0000
   2.2455E+01   2.3001E+01   3.6607E-10  1.0000
   2.3001E+01   2.3561E+01   0.0000E+00  0.0000
   2.3561E+01   2.4134E+01   3.4888E-10  1.0000
   2.4134E+01   2.4721E+01   0.0000E+00  0.0000
   2.4721E+01   2.5323E+01   0.0000E+00  0.0000
   2.5323E+01   2.5939E+01   0.0000E+00  0.0000
   2.5939E+01   2.6570E+01   0.0000E+00  0.0000
   2.6570E+01   2.7217E+01   0.0000E+00  0.0000
   2.7217E+01   2.7879E+01   0.0000E+00  0.0000
   2.7879E+01   2.8557E+01   0.0000E+00  0.0000
   2.8557E+01   2.9252E+01   0.0000E+00  0.0000
   2.9252E+01   2.9964E+01   0.0000E+00  0.0000
   2.9964E+01   3.0693E+01   0.0000E+00  0.0000
   3.0693E+01   3.1440E+01   0.0000E+00  0.0000
   3.1440E+01   3.2205E+01   0.0000E+00  0.0000
   3.2205E+01   3.2988E+01   0.0000E+00  0.0000
   3.2988E+01   3.3791E+01   0.0000E+00  0.0000
   3.3791E+01   3.4613E+01   0.0000E+00  0.0000
   3.4613E+01   3.5455E+01   0.0000E+00  0.0000
   3.5455E+01   3.6318E+01   0.0000E+00  0.0000
   3.6318E+01   3.7201E+01   0.0000E+00  0.0000
   3.7201E+01   3.8106E+01   0.0000E+00  0.0000
   3.8106E+01   3.9034E+01   0.0000E+00  0.0000
   3.9034E+01   3.9983E+01   0.0000E+00  0.0000
   3.9983E+01   4.0956E+01   0.0000E+00  0.0000
   4.0956E+01   4.1953E+01   0.0000E+00  0.0000
   4.1953E+01   4.2973E+01   0.0000E+00  0.0000
   4.2973E+01   4.4019E+01   0.0000E+00  0.0000
   4.4019E+01   4.5090E+01   0.0000E+00  0.0000
   4.5090E+01   4.6187E+01   0.0000E+00  0.0000
   4.6187E+01   4.7311E+01   0.0000E+00  0.0000
   4.7311E+01   4.8462E+01   0.0000E+00  0.0000
   4.8462E+01   4.9641E+01   0.0000E+00  0.0000
   4.9641E+01   5.0849E+01   0.0000E+00  0.0000
   5.0849E+01   5.2086E+01   0.0000E+00  0.0000
   5.2086E+01   5.3353E+01   0.0000E+00  0.0000
   5.3353E+01   5.4651E+01   0.0000E+00  0.0000
   5.4651E+01   5.5981E+01   0.0000E+00  0.0000
   5.5981E+01   5.7343E+01   0.0000E+00  0.0000
   5.7343E+01   5.8738E+01   0.0000E+00  0.0000
   5.8738E+01   6.0168E+01   0.0000E+00  0.0000
   6.0168E+01   6.1632E+01   0.0000E+00  0.0000
   6.1632E+01   6.3131E+01   0.0000E+00  0.0000
   6.3131E+01   6.4667E+01   0.0000E+00  0.0000
   6.4667E+01   6.6240E+01   0.0000E+00  0.0000
   6.6240E+01   6.7852E+01   0.0000E+00  0.0000
   6.7852E+01   6.9503E+01   0.0000E+00  0.0000
   6.9503E+01   7.1194E+01   0.0000E+00  0.0000
   7.1194E+01   7.2926E+01   0.0000E+00  0.0000
   7.2926E+01   7.4701E+01   0.0000E+00  0.0000
   7.4701E+01   7.6518E+01   0.0000E+00  0.0000
   7.6518E+01   7.8380E+01   0.0000E+00  0.0000
   7.8380E+01   8.0287E+01   0.0000E+00  0.0000
   8.0287E+01   8.2240E+01   0.0000E+00  0.0000
   8.2240E+01   8.4241E+01   0.0000E+00  0.0000
   8.4241E+01   8.6291E+01   0.0000E+00  0.0000
   8.6291E+01   8.8391E+01   0.0000E+00  0.0000
   8.8391E+01   9.0541E+01   0.0000E+00  0.0000
   9.0541E+01   9.2744E+01   0.0000E+00  0.0000
   9.2744E+01   9.5001E+01   0.0000E+00  0.0000
   9.5001E+01   9.7312E+01   0.0000E+00  0.0000
   9.7312E+01   9.9680E+01   0.0000E+00  0.0000
   9.9680E+01   1.0211E+02   0.0000E+00  0.0000
   1.0211E+02   1.0459E+02   0.0000E+00  0.0000
   1.0459E+02   1.0713E+02   0.0000E+00  0.0000
   1.0713E+02   1.0974E+02   0.0000E+00  0.0000
   1.0974E+02   1.1241E+02   0.0000E+00  0.0000
   1.1241E+02   1.1515E+02   0.0000E+00  0.0000
   1.1515E+02   1.1795E+02   0.0000E+00  0.0000
   1.1795E+02   1.2082E+02   0.0000E+00  0.0000
   1.2082E+02   1.2376E+02   0.0000E+00  0.0000
   1.2376E+02   1.2677E+02   0.0000E+00  0.0000
   1.2677E+02   1.2985E+02   0.0000E+00  0.0000
   1.2985E+02   1.3301E+02   0.0000E+00  0.0000
   1.3301E+02   1.3625E+02   0.0000E+00  0.0000
   1.3625E+02   1.3956E+02   0.0000E+00  0.0000
   1.3956E+02   1.4296E+02   0.0000E+00  0.0000
   1.4296E+02   1.4644E+02   0.0000E+00  0.0000
   1.4644E+02   1.5000E+02   0.0000E+00  0.0000

#   sum over                 1.2940E-06
'no. =    1   reg = 110 - 210'
msuc: {\huge [t-cross] in region mesh}
msdr: {\it plotted by \ANGEL \version}
msdl: {\it calculated by \PHITS  3.26}
wt: s(0.7)
\vspace{-3}
  region surface crossing
  area  &=&   1.0000E+00 [cm^2]
e:
 
# Information for Restart Calculation
# This calculation was newly started
# istdev =  2 # 1:Batch variance, 2:History variance
# resc2  = 5.00000000000000000E+09 # Total source weight or Total source weight / maxcas
# resc3  = 5.00000000000000000E+09 # Total history number or Total batch number
# maxcas =   100000000 # History / Batch, only used for istdev=1
# bitrseed = 0110100000100010111000001110001111001110100100011111101000111001 # bit data of rseed
