9 <--- number of remaining batches 

-------------------------------------------------------------------------------
bat[       1] ncas =      500000000.
 bitrseed = 0100001010011000001011101100011110011000110110100110010000000000
          cpu time =  10 h. 10 m.  2.31 s.

 date = 2022-06-03
 time = 03h 03m 38s

