[ T-Cross ]
    title = [t-cross] in region mesh
     mesh =  reg            # mesh type is region-wise
      reg =    1            # number of crossing regions
      non     r-from    r-to       area
      1       104       204        1.000000    
   e-type =    3            # e-mesh is log given by emin, emax and ne
     emin =  1.0000000E-02  # minimum value of e-mesh points
     emax =   150.0000      # maximum value of e-mesh points
#    edel =  2.4039514E-02  # mesh width of e-mesh points
       ne =    400          # number of e-mesh points
#    data = ( e(i), i = 1, ne + 1 )
#           1.00000E-02  1.02433E-02  1.04925E-02  1.07478E-02  1.10093E-02
#           1.12772E-02  1.15516E-02  1.18326E-02  1.21205E-02  1.24154E-02
#           1.27175E-02  1.30269E-02  1.33439E-02  1.36686E-02  1.40011E-02
#           1.43418E-02  1.46907E-02  1.50482E-02  1.54143E-02  1.57894E-02
#           1.61735E-02  1.65670E-02  1.69701E-02  1.73830E-02  1.78060E-02
#           1.82392E-02  1.86830E-02  1.91375E-02  1.96032E-02  2.00801E-02
#           2.05687E-02  2.10692E-02  2.15818E-02  2.21069E-02  2.26448E-02
#           2.31957E-02  2.37601E-02  2.43382E-02  2.49304E-02  2.55369E-02
#           2.61583E-02  2.67947E-02  2.74467E-02  2.81145E-02  2.87985E-02
#           2.94992E-02  3.02169E-02  3.09521E-02  3.17052E-02  3.24766E-02
#           3.32668E-02  3.40762E-02  3.49053E-02  3.57546E-02  3.66246E-02
#           3.75157E-02  3.84284E-02  3.93634E-02  4.03212E-02  4.13022E-02
#           4.23071E-02  4.33365E-02  4.43909E-02  4.54710E-02  4.65773E-02
#           4.77106E-02  4.88714E-02  5.00605E-02  5.12785E-02  5.25262E-02
#           5.38042E-02  5.51133E-02  5.64542E-02  5.78278E-02  5.92348E-02
#           6.06760E-02  6.21523E-02  6.36645E-02  6.52135E-02  6.68002E-02
#           6.84255E-02  7.00904E-02  7.17957E-02  7.35426E-02  7.53319E-02
#           7.71648E-02  7.90423E-02  8.09655E-02  8.29354E-02  8.49533E-02
#           8.70203E-02  8.91376E-02  9.13064E-02  9.35279E-02  9.58035E-02
#           9.81345E-02  1.00522E-01  1.02968E-01  1.05473E-01  1.08040E-01
#           1.10668E-01  1.13361E-01  1.16119E-01  1.18944E-01  1.21838E-01
#           1.24803E-01  1.27839E-01  1.30950E-01  1.34136E-01  1.37399E-01
#           1.40742E-01  1.44167E-01  1.47675E-01  1.51268E-01  1.54948E-01
#           1.58718E-01  1.62580E-01  1.66535E-01  1.70587E-01  1.74738E-01
#           1.78989E-01  1.83344E-01  1.87805E-01  1.92375E-01  1.97055E-01
#           2.01850E-01  2.06761E-01  2.11792E-01  2.16945E-01  2.22223E-01
#           2.27630E-01  2.33169E-01  2.38842E-01  2.44653E-01  2.50605E-01
#           2.56703E-01  2.62949E-01  2.69346E-01  2.75900E-01  2.82613E-01
#           2.89489E-01  2.96532E-01  3.03747E-01  3.11138E-01  3.18708E-01
#           3.26462E-01  3.34405E-01  3.42542E-01  3.50876E-01  3.59413E-01
#           3.68158E-01  3.77116E-01  3.86291E-01  3.95690E-01  4.05317E-01
#           4.15179E-01  4.25281E-01  4.35628E-01  4.46227E-01  4.57084E-01
#           4.68205E-01  4.79597E-01  4.91266E-01  5.03219E-01  5.15463E-01
#           5.28005E-01  5.40851E-01  5.54011E-01  5.67490E-01  5.81298E-01
#           5.95441E-01  6.09929E-01  6.24769E-01  6.39970E-01  6.55541E-01
#           6.71491E-01  6.87828E-01  7.04564E-01  7.21706E-01  7.39266E-01
#           7.57253E-01  7.75678E-01  7.94551E-01  8.13883E-01  8.33685E-01
#           8.53969E-01  8.74747E-01  8.96030E-01  9.17831E-01  9.40163E-01
#           9.63038E-01  9.86469E-01  1.01047E+00  1.03506E+00  1.06024E+00
#           1.08604E+00  1.11246E+00  1.13953E+00  1.16725E+00  1.19565E+00
#           1.22474E+00  1.25454E+00  1.28507E+00  1.31633E+00  1.34836E+00
#           1.38117E+00  1.41477E+00  1.44920E+00  1.48446E+00  1.52057E+00
#           1.55757E+00  1.59547E+00  1.63429E+00  1.67405E+00  1.71478E+00
#           1.75650E+00  1.79924E+00  1.84302E+00  1.88786E+00  1.93379E+00
#           1.98084E+00  2.02904E+00  2.07841E+00  2.12898E+00  2.18078E+00
#           2.23384E+00  2.28819E+00  2.34386E+00  2.40089E+00  2.45930E+00
#           2.51914E+00  2.58043E+00  2.64322E+00  2.70753E+00  2.77341E+00
#           2.84088E+00  2.91001E+00  2.98081E+00  3.05333E+00  3.12762E+00
#           3.20372E+00  3.28167E+00  3.36152E+00  3.44330E+00  3.52708E+00
#           3.61290E+00  3.70080E+00  3.79085E+00  3.88308E+00  3.97756E+00
#           4.07434E+00  4.17347E+00  4.27501E+00  4.37903E+00  4.48557E+00
#           4.59471E+00  4.70650E+00  4.82102E+00  4.93832E+00  5.05847E+00
#           5.18155E+00  5.30762E+00  5.43676E+00  5.56904E+00  5.70453E+00
#           5.84333E+00  5.98550E+00  6.13114E+00  6.28031E+00  6.43312E+00
#           6.58964E+00  6.74997E+00  6.91420E+00  7.08243E+00  7.25475E+00
#           7.43126E+00  7.61207E+00  7.79728E+00  7.98700E+00  8.18133E+00
#           8.38038E+00  8.58428E+00  8.79315E+00  9.00709E+00  9.22624E+00
#           9.45072E+00  9.68067E+00  9.91620E+00  1.01575E+01  1.04046E+01
#           1.06578E+01  1.09171E+01  1.11827E+01  1.14548E+01  1.17335E+01
#           1.20190E+01  1.23114E+01  1.26109E+01  1.29178E+01  1.32321E+01
#           1.35540E+01  1.38838E+01  1.42216E+01  1.45676E+01  1.49221E+01
#           1.52851E+01  1.56570E+01  1.60380E+01  1.64282E+01  1.68279E+01
#           1.72374E+01  1.76568E+01  1.80864E+01  1.85264E+01  1.89772E+01
#           1.94389E+01  1.99119E+01  2.03963E+01  2.08926E+01  2.14009E+01
#           2.19216E+01  2.24550E+01  2.30014E+01  2.35610E+01  2.41343E+01
#           2.47215E+01  2.53230E+01  2.59391E+01  2.65702E+01  2.72167E+01
#           2.78789E+01  2.85572E+01  2.92520E+01  2.99637E+01  3.06928E+01
#           3.14396E+01  3.22045E+01  3.29881E+01  3.37907E+01  3.46128E+01
#           3.54550E+01  3.63177E+01  3.72013E+01  3.81064E+01  3.90336E+01
#           3.99833E+01  4.09561E+01  4.19526E+01  4.29734E+01  4.40189E+01
#           4.50900E+01  4.61870E+01  4.73108E+01  4.84619E+01  4.96410E+01
#           5.08488E+01  5.20860E+01  5.33533E+01  5.46514E+01  5.59812E+01
#           5.73432E+01  5.87384E+01  6.01676E+01  6.16315E+01  6.31311E+01
#           6.46671E+01  6.62405E+01  6.78522E+01  6.95031E+01  7.11941E+01
#           7.29263E+01  7.47007E+01  7.65182E+01  7.83800E+01  8.02870E+01
#           8.22405E+01  8.42414E+01  8.62911E+01  8.83906E+01  9.05412E+01
#           9.27442E+01  9.50007E+01  9.73122E+01  9.96799E+01  1.02105E+02
#           1.04589E+02  1.07134E+02  1.09741E+02  1.12411E+02  1.15146E+02
#           1.17948E+02  1.20817E+02  1.23757E+02  1.26768E+02  1.29852E+02
#           1.33012E+02  1.36248E+02  1.39563E+02  1.42959E+02  1.46437E+02
#           1.50000E+02
     unit =    2            # unit is [1/cm^2/(MeV/n)/source]
     axis =  eng            # axis of output
     file = detector-05.out  # file name of output for the above axis
   output = f-curr          # surface crossing forward current spectrum
     part =  neutron  
# kf/name :  2112     
#    used :        main (  %)        temp (  %)       total (  %)
#  memory :         414 (  0)           0 (  0)         414 (  0)

#------------------------------------------------------------------------------
#newpage:
#   no. =    1   reg = 104 - 204

x: Energy [MeV/n]
y:  F-Curr [1/cm^2/(MeV/n)/source]         
p: xlog ylog afac(0.8) form(0.9)
h: n            x            y(neutron ),hh0l   n 
#  e-lower      e-upper      neutron     r.err 
   1.0000E-02   1.0243E-02   3.6222E-04  0.0868
   1.0243E-02   1.0493E-02   3.5409E-04  0.0868
   1.0493E-02   1.0748E-02   3.7082E-04  0.0839
   1.0748E-02   1.1009E-02   3.4767E-04  0.0854
   1.1009E-02   1.1277E-02   3.4801E-04  0.0844
   1.1277E-02   1.1552E-02   3.6038E-04  0.0820
   1.1552E-02   1.1833E-02   2.8497E-04  0.0912
   1.1833E-02   1.2121E-02   3.6124E-04  0.0801
   1.2121E-02   1.2415E-02   3.3953E-04  0.0814
   1.2415E-02   1.2718E-02   4.1711E-04  0.0727
   1.2718E-02   1.3027E-02   3.3290E-04  0.0803
   1.3027E-02   1.3344E-02   3.0288E-04  0.0833
   1.3344E-02   1.3669E-02   3.2443E-04  0.0794
   1.3669E-02   1.4001E-02   3.4111E-04  0.0766
   1.4001E-02   1.4342E-02   2.8802E-04  0.0822
   1.4342E-02   1.4691E-02   3.1007E-04  0.0784
   1.4691E-02   1.5048E-02   3.0892E-04  0.0776
   1.5048E-02   1.5414E-02   2.7859E-04  0.0808
   1.5414E-02   1.5789E-02   3.1940E-04  0.0745
   1.5789E-02   1.6174E-02   3.1381E-04  0.0743
   1.6174E-02   1.6567E-02   2.9018E-04  0.0764
   1.6567E-02   1.6970E-02   2.8664E-04  0.0759
   1.6970E-02   1.7383E-02   3.0860E-04  0.0723
   1.7383E-02   1.7806E-02   2.8816E-04  0.0739
   1.7806E-02   1.8239E-02   2.6622E-04  0.0760
   1.8239E-02   1.8683E-02   2.7820E-04  0.0735
   1.8683E-02   1.9138E-02   2.5856E-04  0.0753
   1.9138E-02   1.9603E-02   2.9949E-04  0.0691
   1.9603E-02   2.0080E-02   2.9376E-04  0.0689
   2.0080E-02   2.0569E-02   2.5673E-04  0.0729
   2.0569E-02   2.1069E-02   2.3692E-04  0.0749
   2.1069E-02   2.1582E-02   2.5659E-04  0.0711
   2.1582E-02   2.2107E-02   2.4646E-04  0.0718
   2.2107E-02   2.2645E-02   2.5367E-04  0.0698
   2.2645E-02   2.3196E-02   2.3595E-04  0.0716
   2.3196E-02   2.3760E-02   2.4629E-04  0.0691
   2.3760E-02   2.4338E-02   2.2290E-04  0.0719
   2.4338E-02   2.4930E-02   2.5214E-04  0.0667
   2.4930E-02   2.5537E-02   2.2066E-04  0.0705
   2.5537E-02   2.6158E-02   2.2979E-04  0.0683
   2.6158E-02   2.6795E-02   2.8036E-04  0.0610
   2.6795E-02   2.7447E-02   2.5019E-04  0.0638
   2.7447E-02   2.8114E-02   2.4118E-04  0.0643
   2.8114E-02   2.8799E-02   2.3621E-04  0.0642
   2.8799E-02   2.9499E-02   2.2597E-04  0.0649
   2.9499E-02   3.0217E-02   2.2524E-04  0.0642
   3.0217E-02   3.0952E-02   1.9899E-04  0.0674
   3.0952E-02   3.1705E-02   1.8648E-04  0.0687
   3.1705E-02   3.2477E-02   2.2497E-04  0.0619
   3.2477E-02   3.3267E-02   2.0755E-04  0.0636
   3.3267E-02   3.4076E-02   2.3995E-04  0.0586
   3.4076E-02   3.4905E-02   2.2578E-04  0.0596
   3.4905E-02   3.5755E-02   2.1071E-04  0.0610
   3.5755E-02   3.6625E-02   2.0626E-04  0.0609
   3.6625E-02   3.7516E-02   2.0436E-04  0.0605
   3.7516E-02   3.8428E-02   2.0216E-04  0.0601
   3.8428E-02   3.9363E-02   1.9012E-04  0.0612
   3.9363E-02   4.0321E-02   1.8396E-04  0.0615
   4.0321E-02   4.1302E-02   1.9254E-04  0.0594
   4.1302E-02   4.2307E-02   1.7336E-04  0.0618
   4.2307E-02   4.3337E-02   1.9795E-04  0.0572
   4.3337E-02   4.4391E-02   1.8550E-04  0.0583
   4.4391E-02   4.5471E-02   1.8895E-04  0.0571
   4.5471E-02   4.6577E-02   1.9194E-04  0.0559
   4.6577E-02   4.7711E-02   1.8165E-04  0.0569
   4.7711E-02   4.8871E-02   1.8012E-04  0.0564
   4.8871E-02   5.0061E-02   1.5818E-04  0.0595
   5.0061E-02   5.1279E-02   1.7064E-04  0.0566
   5.1279E-02   5.2526E-02   1.7066E-04  0.0559
   5.2526E-02   5.3804E-02   1.7093E-04  0.0552
   5.3804E-02   5.5113E-02   1.6500E-04  0.0554
   5.5113E-02   5.6454E-02   1.5478E-04  0.0566
   5.6454E-02   5.7828E-02   1.3566E-04  0.0598
   5.7828E-02   5.9235E-02   1.3487E-04  0.0592
   5.9235E-02   6.0676E-02   1.4839E-04  0.0558
   6.0676E-02   6.2152E-02   1.6211E-04  0.0527
   6.2152E-02   6.3665E-02   1.4892E-04  0.0544
   6.3665E-02   6.5214E-02   1.5536E-04  0.0526
   6.5214E-02   6.6800E-02   1.3251E-04  0.0563
   6.6800E-02   6.8426E-02   1.2619E-04  0.0569
   6.8426E-02   7.0090E-02   1.3438E-04  0.0545
   7.0090E-02   7.1796E-02   1.3317E-04  0.0541
   7.1796E-02   7.3543E-02   1.3847E-04  0.0524
   7.3543E-02   7.5332E-02   1.4776E-04  0.0501
   7.5332E-02   7.7165E-02   1.3355E-04  0.0521
   7.7165E-02   7.9042E-02   1.3656E-04  0.0510
   7.9042E-02   8.0965E-02   1.3622E-04  0.0504
   8.0965E-02   8.2935E-02   1.1607E-04  0.0539
   8.2935E-02   8.4953E-02   1.1954E-04  0.0525
   8.4953E-02   8.7020E-02   1.1966E-04  0.0519
   8.7020E-02   8.9138E-02   1.2584E-04  0.0500
   8.9138E-02   9.1306E-02   1.1536E-04  0.0516
   9.1306E-02   9.3528E-02   1.1667E-04  0.0507
   9.3528E-02   9.5804E-02   1.2446E-04  0.0485
   9.5804E-02   9.8134E-02   1.1220E-04  0.0504
   9.8134E-02   1.0052E-01   9.9714E-05  0.0529
   1.0052E-01   1.0297E-01   1.1111E-04  0.0495
   1.0297E-01   1.0547E-01   1.0155E-04  0.0512
   1.0547E-01   1.0804E-01   1.1075E-04  0.0484
   1.0804E-01   1.1067E-01   1.0841E-04  0.0483
   1.1067E-01   1.1336E-01   1.0208E-04  0.0492
   1.1336E-01   1.1612E-01   9.8081E-05  0.0496
   1.1612E-01   1.1894E-01   9.8490E-05  0.0489
   1.1894E-01   1.2184E-01   9.5633E-05  0.0490
   1.2184E-01   1.2480E-01   9.2152E-05  0.0493
   1.2480E-01   1.2784E-01   8.8797E-05  0.0497
   1.2784E-01   1.3095E-01   9.2130E-05  0.0482
   1.3095E-01   1.3414E-01   8.8008E-05  0.0486
   1.3414E-01   1.3740E-01   9.1409E-05  0.0472
   1.3740E-01   1.4074E-01   7.3482E-05  0.0521
   1.4074E-01   1.4417E-01   8.0175E-05  0.0492
   1.4417E-01   1.4767E-01   8.2626E-05  0.0479
   1.4767E-01   1.5127E-01   8.0372E-05  0.0480
   1.5127E-01   1.5495E-01   8.1908E-05  0.0470
   1.5495E-01   1.5872E-01   7.8352E-05  0.0474
   1.5872E-01   1.6258E-01   7.3631E-05  0.0484
   1.6258E-01   1.6654E-01   7.0327E-05  0.0489
   1.6654E-01   1.7059E-01   6.8741E-05  0.0489
   1.7059E-01   1.7474E-01   6.7414E-05  0.0487
   1.7474E-01   1.7899E-01   7.1789E-05  0.0467
   1.7899E-01   1.8334E-01   6.8703E-05  0.0472
   1.8334E-01   1.8781E-01   6.8400E-05  0.0467
   1.8781E-01   1.9237E-01   6.5028E-05  0.0473
   1.9237E-01   1.9706E-01   5.7682E-05  0.0496
   1.9706E-01   2.0185E-01   6.2538E-05  0.0471
   2.0185E-01   2.0676E-01   5.7447E-05  0.0485
   2.0676E-01   2.1179E-01   6.2314E-05  0.0460
   2.1179E-01   2.1694E-01   6.1001E-05  0.0460
   2.1694E-01   2.2222E-01   6.5490E-05  0.0438
   2.2222E-01   2.2763E-01   6.5034E-05  0.0435
   2.2763E-01   2.3317E-01   7.3965E-05  0.0403
   2.3317E-01   2.3884E-01   6.6640E-05  0.0419
   2.3884E-01   2.4465E-01   7.1558E-05  0.0400
   2.4465E-01   2.5061E-01   7.4184E-05  0.0388
   2.5061E-01   2.5670E-01   7.0078E-05  0.0395
   2.5670E-01   2.6295E-01   7.4330E-05  0.0378
   2.6295E-01   2.6935E-01   7.2138E-05  0.0379
   2.6935E-01   2.7590E-01   7.1779E-05  0.0376
   2.7590E-01   2.8261E-01   7.9328E-05  0.0353
   2.8261E-01   2.8949E-01   7.5016E-05  0.0359
   2.8949E-01   2.9653E-01   7.5869E-05  0.0353
   2.9653E-01   3.0375E-01   8.2590E-05  0.0334
   3.0375E-01   3.1114E-01   8.1220E-05  0.0333
   3.1114E-01   3.1871E-01   8.4623E-05  0.0322
   3.1871E-01   3.2646E-01   8.1591E-05  0.0324
   3.2646E-01   3.3441E-01   8.1792E-05  0.0320
   3.3441E-01   3.4254E-01   8.1192E-05  0.0317
   3.4254E-01   3.5088E-01   8.2388E-05  0.0311
   3.5088E-01   3.5941E-01   8.7923E-05  0.0298
   3.5941E-01   3.6816E-01   8.1901E-05  0.0305
   3.6816E-01   3.7712E-01   8.4728E-05  0.0296
   3.7712E-01   3.8629E-01   8.8767E-05  0.0286
   3.8629E-01   3.9569E-01   8.5280E-05  0.0288
   3.9569E-01   4.0532E-01   8.4491E-05  0.0286
   4.0532E-01   4.1518E-01   8.2874E-05  0.0285
   4.1518E-01   4.2528E-01   9.0101E-05  0.0270
   4.2528E-01   4.3563E-01   8.6762E-05  0.0272
   4.3563E-01   4.4623E-01   8.9391E-05  0.0265
   4.4623E-01   4.5708E-01   8.9899E-05  0.0261
   4.5708E-01   4.6821E-01   8.6054E-05  0.0264
   4.6821E-01   4.7960E-01   8.8662E-05  0.0257
   4.7960E-01   4.9127E-01   9.0174E-05  0.0251
   4.9127E-01   5.0322E-01   8.9647E-05  0.0249
   5.0322E-01   5.1546E-01   9.2936E-05  0.0242
   5.1546E-01   5.2800E-01   9.1248E-05  0.0241
   5.2800E-01   5.4085E-01   9.2258E-05  0.0237
   5.4085E-01   5.5401E-01   9.3142E-05  0.0233
   5.5401E-01   5.6749E-01   9.3081E-05  0.0230
   5.6749E-01   5.8130E-01   9.4458E-05  0.0226
   5.8130E-01   5.9544E-01   9.2222E-05  0.0226
   5.9544E-01   6.0993E-01   9.3674E-05  0.0221
   6.0993E-01   6.2477E-01   9.5769E-05  0.0216
   6.2477E-01   6.3997E-01   9.3177E-05  0.0217
   6.3997E-01   6.5554E-01   9.5232E-05  0.0212
   6.5554E-01   6.7149E-01   9.4119E-05  0.0210
   6.7149E-01   6.8783E-01   9.3542E-05  0.0209
   6.8783E-01   7.0456E-01   9.2997E-05  0.0207
   7.0456E-01   7.2171E-01   9.4091E-05  0.0203
   7.2171E-01   7.3927E-01   9.2862E-05  0.0202
   7.3927E-01   7.5725E-01   9.6116E-05  0.0196
   7.5725E-01   7.7568E-01   9.0615E-05  0.0200
   7.7568E-01   7.9455E-01   9.1319E-05  0.0196
   7.9455E-01   8.1388E-01   9.4238E-05  0.0191
   8.1388E-01   8.3368E-01   9.5749E-05  0.0187
   8.3368E-01   8.5397E-01   9.3402E-05  0.0187
   8.5397E-01   8.7475E-01   9.0980E-05  0.0187
   8.7475E-01   8.9603E-01   9.2969E-05  0.0183
   8.9603E-01   9.1783E-01   9.1049E-05  0.0183
   9.1783E-01   9.4016E-01   9.0246E-05  0.0182
   9.4016E-01   9.6304E-01   8.7921E-05  0.0182
   9.6304E-01   9.8647E-01   8.6160E-05  0.0181
   9.8647E-01   1.0105E+00   8.4098E-05  0.0181
   1.0105E+00   1.0351E+00   8.3215E-05  0.0180
   1.0351E+00   1.0602E+00   8.0363E-05  0.0181
   1.0602E+00   1.0860E+00   8.5881E-05  0.0173
   1.0860E+00   1.1125E+00   7.9359E-05  0.0178
   1.1125E+00   1.1395E+00   8.0601E-05  0.0174
   1.1395E+00   1.1673E+00   7.6950E-05  0.0176
   1.1673E+00   1.1957E+00   7.6846E-05  0.0174
   1.1957E+00   1.2247E+00   7.7693E-05  0.0171
   1.2247E+00   1.2545E+00   8.0728E-05  0.0166
   1.2545E+00   1.2851E+00   7.8235E-05  0.0167
   1.2851E+00   1.3163E+00   7.8695E-05  0.0164
   1.3163E+00   1.3484E+00   7.6399E-05  0.0165
   1.3484E+00   1.3812E+00   7.4595E-05  0.0165
   1.3812E+00   1.4148E+00   7.5571E-05  0.0162
   1.4148E+00   1.4492E+00   7.4872E-05  0.0161
   1.4492E+00   1.4845E+00   7.3947E-05  0.0160
   1.4845E+00   1.5206E+00   7.2834E-05  0.0159
   1.5206E+00   1.5576E+00   7.1418E-05  0.0159
   1.5576E+00   1.5955E+00   7.0854E-05  0.0157
   1.5955E+00   1.6343E+00   7.0610E-05  0.0156
   1.6343E+00   1.6741E+00   6.9898E-05  0.0155
   1.6741E+00   1.7148E+00   6.7758E-05  0.0155
   1.7148E+00   1.7565E+00   6.9236E-05  0.0152
   1.7565E+00   1.7992E+00   6.8248E-05  0.0151
   1.7992E+00   1.8430E+00   6.8037E-05  0.0149
   1.8430E+00   1.8879E+00   6.9710E-05  0.0146
   1.8879E+00   1.9338E+00   6.7627E-05  0.0146
   1.9338E+00   1.9808E+00   6.5344E-05  0.0147
   1.9808E+00   2.0290E+00   6.6597E-05  0.0144
   2.0290E+00   2.0784E+00   6.5400E-05  0.0143
   2.0784E+00   2.1290E+00   6.5005E-05  0.0142
   2.1290E+00   2.1808E+00   6.2804E-05  0.0143
   2.1808E+00   2.2338E+00   6.2860E-05  0.0141
   2.2338E+00   2.2882E+00   6.2073E-05  0.0140
   2.2882E+00   2.3439E+00   6.0387E-05  0.0140
   2.3439E+00   2.4009E+00   6.1629E-05  0.0137
   2.4009E+00   2.4593E+00   6.1658E-05  0.0136
   2.4593E+00   2.5191E+00   6.0193E-05  0.0136
   2.5191E+00   2.5804E+00   5.8048E-05  0.0137
   2.5804E+00   2.6432E+00   5.8643E-05  0.0134
   2.6432E+00   2.7075E+00   5.7201E-05  0.0134
   2.7075E+00   2.7734E+00   5.6804E-05  0.0133
   2.7734E+00   2.8409E+00   5.5975E-05  0.0133
   2.8409E+00   2.9100E+00   5.7098E-05  0.0130
   2.9100E+00   2.9808E+00   5.6877E-05  0.0128
   2.9808E+00   3.0533E+00   5.6662E-05  0.0127
   3.0533E+00   3.1276E+00   5.5989E-05  0.0126
   3.1276E+00   3.2037E+00   5.5125E-05  0.0126
   3.2037E+00   3.2817E+00   5.3430E-05  0.0126
   3.2817E+00   3.3615E+00   5.3635E-05  0.0125
   3.3615E+00   3.4433E+00   5.2539E-05  0.0124
   3.4433E+00   3.5271E+00   5.2455E-05  0.0123
   3.5271E+00   3.6129E+00   5.1392E-05  0.0123
   3.6129E+00   3.7008E+00   5.1211E-05  0.0121
   3.7008E+00   3.7908E+00   5.1040E-05  0.0120
   3.7908E+00   3.8831E+00   5.0737E-05  0.0119
   3.8831E+00   3.9776E+00   4.8957E-05  0.0120
   3.9776E+00   4.0743E+00   4.8034E-05  0.0120
   4.0743E+00   4.1735E+00   4.7760E-05  0.0118
   4.1735E+00   4.2750E+00   4.6374E-05  0.0119
   4.2750E+00   4.3790E+00   4.7561E-05  0.0116
   4.3790E+00   4.4856E+00   4.6046E-05  0.0116
   4.4856E+00   4.5947E+00   4.5708E-05  0.0115
   4.5947E+00   4.7065E+00   4.5081E-05  0.0115
   4.7065E+00   4.8210E+00   4.5221E-05  0.0113
   4.8210E+00   4.9383E+00   4.4632E-05  0.0113
   4.9383E+00   5.0585E+00   4.4305E-05  0.0112
   5.0585E+00   5.1815E+00   4.4143E-05  0.0111
   5.1815E+00   5.3076E+00   4.3381E-05  0.0110
   5.3076E+00   5.4368E+00   4.2368E-05  0.0110
   5.4368E+00   5.5690E+00   4.2269E-05  0.0109
   5.5690E+00   5.7045E+00   4.1854E-05  0.0108
   5.7045E+00   5.8433E+00   4.1845E-05  0.0107
   5.8433E+00   5.9855E+00   4.0513E-05  0.0107
   5.9855E+00   6.1311E+00   3.9332E-05  0.0108
   6.1311E+00   6.2803E+00   3.9300E-05  0.0107
   6.2803E+00   6.4331E+00   3.8905E-05  0.0106
   6.4331E+00   6.5896E+00   3.8613E-05  0.0105
   6.5896E+00   6.7500E+00   3.8484E-05  0.0104
   6.7500E+00   6.9142E+00   3.7633E-05  0.0104
   6.9142E+00   7.0824E+00   3.7347E-05  0.0103
   7.0824E+00   7.2548E+00   3.6615E-05  0.0103
   7.2548E+00   7.4313E+00   3.6408E-05  0.0102
   7.4313E+00   7.6121E+00   3.5620E-05  0.0102
   7.6121E+00   7.7973E+00   3.6027E-05  0.0100
   7.7973E+00   7.9870E+00   3.5175E-05  0.0100
   7.9870E+00   8.1813E+00   3.4673E-05  0.0099
   8.1813E+00   8.3804E+00   3.4531E-05  0.0098
   8.3804E+00   8.5843E+00   3.4270E-05  0.0098
   8.5843E+00   8.7931E+00   3.3703E-05  0.0097
   8.7931E+00   9.0071E+00   3.3319E-05  0.0097
   9.0071E+00   9.2262E+00   3.3237E-05  0.0096
   9.2262E+00   9.4507E+00   3.2646E-05  0.0095
   9.4507E+00   9.6807E+00   3.2540E-05  0.0094
   9.6807E+00   9.9162E+00   3.1825E-05  0.0094
   9.9162E+00   1.0157E+01   3.1883E-05  0.0093
   1.0157E+01   1.0405E+01   3.1623E-05  0.0092
   1.0405E+01   1.0658E+01   3.1957E-05  0.0091
   1.0658E+01   1.0917E+01   3.1923E-05  0.0090
   1.0917E+01   1.1183E+01   3.1805E-05  0.0089
   1.1183E+01   1.1455E+01   3.2041E-05  0.0087
   1.1455E+01   1.1733E+01   3.1632E-05  0.0087
   1.1733E+01   1.2019E+01   3.1917E-05  0.0086
   1.2019E+01   1.2311E+01   3.2298E-05  0.0084
   1.2311E+01   1.2611E+01   3.2450E-05  0.0083
   1.2611E+01   1.2918E+01   3.2563E-05  0.0082
   1.2918E+01   1.3232E+01   3.2354E-05  0.0081
   1.3232E+01   1.3554E+01   3.3111E-05  0.0079
   1.3554E+01   1.3884E+01   3.3171E-05  0.0078
   1.3884E+01   1.4222E+01   3.3600E-05  0.0077
   1.4222E+01   1.4568E+01   3.3811E-05  0.0075
   1.4568E+01   1.4922E+01   3.4425E-05  0.0074
   1.4922E+01   1.5285E+01   3.4935E-05  0.0073
   1.5285E+01   1.5657E+01   3.5397E-05  0.0071
   1.5657E+01   1.6038E+01   3.6218E-05  0.0070
   1.6038E+01   1.6428E+01   3.7038E-05  0.0068
   1.6428E+01   1.6828E+01   3.7812E-05  0.0066
   1.6828E+01   1.7237E+01   3.8600E-05  0.0065
   1.7237E+01   1.7657E+01   3.9392E-05  0.0064
   1.7657E+01   1.8086E+01   4.0755E-05  0.0062
   1.8086E+01   1.8526E+01   4.1838E-05  0.0060
   1.8526E+01   1.8977E+01   4.2539E-05  0.0059
   1.8977E+01   1.9439E+01   4.4048E-05  0.0057
   1.9439E+01   1.9912E+01   4.5639E-05  0.0056
   1.9912E+01   2.0396E+01   4.7494E-05  0.0054
   2.0396E+01   2.0893E+01   4.9228E-05  0.0052
   2.0893E+01   2.1401E+01   5.1332E-05  0.0051
   2.1401E+01   2.1922E+01   5.3365E-05  0.0049
   2.1922E+01   2.2455E+01   5.5430E-05  0.0047
   2.2455E+01   2.3001E+01   5.8178E-05  0.0046
   2.3001E+01   2.3561E+01   6.0229E-05  0.0044
   2.3561E+01   2.4134E+01   6.2684E-05  0.0043
   2.4134E+01   2.4721E+01   6.5742E-05  0.0042
   2.4721E+01   2.5323E+01   6.8981E-05  0.0040
   2.5323E+01   2.5939E+01   7.3052E-05  0.0038
   2.5939E+01   2.6570E+01   7.6171E-05  0.0037
   2.6570E+01   2.7217E+01   7.9935E-05  0.0036
   2.7217E+01   2.7879E+01   8.4756E-05  0.0034
   2.7879E+01   2.8557E+01   8.8456E-05  0.0033
   2.8557E+01   2.9252E+01   9.3754E-05  0.0032
   2.9252E+01   2.9964E+01   9.8633E-05  0.0031
   2.9964E+01   3.0693E+01   1.0469E-04  0.0030
   3.0693E+01   3.1440E+01   1.1019E-04  0.0028
   3.1440E+01   3.2205E+01   1.1644E-04  0.0027
   3.2205E+01   3.2988E+01   1.2248E-04  0.0026
   3.2988E+01   3.3791E+01   1.2948E-04  0.0025
   3.3791E+01   3.4613E+01   1.3684E-04  0.0024
   3.4613E+01   3.5455E+01   1.4374E-04  0.0023
   3.5455E+01   3.6318E+01   1.5144E-04  0.0023
   3.6318E+01   3.7201E+01   1.5815E-04  0.0022
   3.7201E+01   3.8106E+01   1.6466E-04  0.0021
   3.8106E+01   3.9034E+01   1.7190E-04  0.0020
   3.9034E+01   3.9983E+01   1.7717E-04  0.0020
   3.9983E+01   4.0956E+01   1.8180E-04  0.0019
   4.0956E+01   4.1953E+01   1.8567E-04  0.0019
   4.1953E+01   4.2973E+01   1.8802E-04  0.0019
   4.2973E+01   4.4019E+01   1.8919E-04  0.0018
   4.4019E+01   4.5090E+01   1.8840E-04  0.0018
   4.5090E+01   4.6187E+01   1.8578E-04  0.0018
   4.6187E+01   4.7311E+01   1.8208E-04  0.0018
   4.7311E+01   4.8462E+01   1.7690E-04  0.0018
   4.8462E+01   4.9641E+01   1.6946E-04  0.0018
   4.9641E+01   5.0849E+01   1.6087E-04  0.0019
   5.0849E+01   5.2086E+01   1.5129E-04  0.0019
   5.2086E+01   5.3353E+01   1.4125E-04  0.0019
   5.3353E+01   5.4651E+01   1.3090E-04  0.0020
   5.4651E+01   5.5981E+01   1.1997E-04  0.0020
   5.5981E+01   5.7343E+01   1.0904E-04  0.0021
   5.7343E+01   5.8738E+01   9.8631E-05  0.0022
   5.8738E+01   6.0168E+01   8.8437E-05  0.0023
   6.0168E+01   6.1632E+01   7.9259E-05  0.0024
   6.1632E+01   6.3131E+01   7.0732E-05  0.0025
   6.3131E+01   6.4667E+01   6.2222E-05  0.0026
   6.4667E+01   6.6240E+01   5.4861E-05  0.0028
   6.6240E+01   6.7852E+01   4.8301E-05  0.0029
   6.7852E+01   6.9503E+01   4.2240E-05  0.0031
   6.9503E+01   7.1194E+01   3.7076E-05  0.0033
   7.1194E+01   7.2926E+01   3.2383E-05  0.0034
   7.2926E+01   7.4701E+01   2.8056E-05  0.0037
   7.4701E+01   7.6518E+01   2.4446E-05  0.0039
   7.6518E+01   7.8380E+01   2.1398E-05  0.0041
   7.8380E+01   8.0287E+01   1.8925E-05  0.0043
   8.0287E+01   8.2240E+01   1.6813E-05  0.0045
   8.2240E+01   8.4241E+01   1.4999E-05  0.0047
   8.4241E+01   8.6291E+01   1.3255E-05  0.0050
   8.6291E+01   8.8391E+01   1.1996E-05  0.0051
   8.8391E+01   9.0541E+01   1.1402E-05  0.0052
   9.0541E+01   9.2744E+01   1.1111E-05  0.0052
   9.2744E+01   9.5001E+01   1.0145E-05  0.0054
   9.5001E+01   9.7312E+01   9.1937E-06  0.0056
   9.7312E+01   9.9680E+01   7.5021E-06  0.0061
   9.9680E+01   1.0211E+02   6.1458E-06  0.0067
   1.0211E+02   1.0459E+02   5.0227E-06  0.0073
   1.0459E+02   1.0713E+02   3.8883E-06  0.0082
   1.0713E+02   1.0974E+02   2.4586E-06  0.0102
   1.0974E+02   1.1241E+02   8.8487E-07  0.0168
   1.1241E+02   1.1515E+02   1.5819E-07  0.0393
   1.1515E+02   1.1795E+02   0.0000E+00  0.0000
   1.1795E+02   1.2082E+02   0.0000E+00  0.0000
   1.2082E+02   1.2376E+02   0.0000E+00  0.0000
   1.2376E+02   1.2677E+02   0.0000E+00  0.0000
   1.2677E+02   1.2985E+02   0.0000E+00  0.0000
   1.2985E+02   1.3301E+02   0.0000E+00  0.0000
   1.3301E+02   1.3625E+02   0.0000E+00  0.0000
   1.3625E+02   1.3956E+02   0.0000E+00  0.0000
   1.3956E+02   1.4296E+02   0.0000E+00  0.0000
   1.4296E+02   1.4644E+02   0.0000E+00  0.0000
   1.4644E+02   1.5000E+02   0.0000E+00  0.0000

#   sum over                 4.7916E-05
'no. =    1   reg = 104 - 204'
msuc: {\huge [t-cross] in region mesh}
msdr: {\it plotted by \ANGEL \version}
msdl: {\it calculated by \PHITS  3.26}
wt: s(0.7)
\vspace{-3}
  region surface crossing
  area  &=&   1.0000E+00 [cm^2]
e:
 
# Information for Restart Calculation
# This calculation was newly started
# istdev =  2 # 1:Batch variance, 2:History variance
# resc2  = 1.50000000000000000E+09 # Total source weight or Total source weight / maxcas
# resc3  = 1.50000000000000000E+09 # Total history number or Total batch number
# maxcas =   500000000 # History / Batch, only used for istdev=1
# bitrseed = 0000010101110101110110100110011001100101000001100111100100101101 # bit data of rseed
