[ T-Cross ]
    title = [t-cross] in region mesh
     mesh =  reg            # mesh type is region-wise
      reg =    1            # number of crossing regions
      non     r-from    r-to       area
      1       100       200        1.000000    
   e-type =    3            # e-mesh is log given by emin, emax and ne
     emin =  1.0000000E-02  # minimum value of e-mesh points
     emax =   150.0000      # maximum value of e-mesh points
#    edel =  2.4039514E-02  # mesh width of e-mesh points
       ne =    400          # number of e-mesh points
#    data = ( e(i), i = 1, ne + 1 )
#           1.00000E-02  1.02433E-02  1.04925E-02  1.07478E-02  1.10093E-02
#           1.12772E-02  1.15516E-02  1.18326E-02  1.21205E-02  1.24154E-02
#           1.27175E-02  1.30269E-02  1.33439E-02  1.36686E-02  1.40011E-02
#           1.43418E-02  1.46907E-02  1.50482E-02  1.54143E-02  1.57894E-02
#           1.61735E-02  1.65670E-02  1.69701E-02  1.73830E-02  1.78060E-02
#           1.82392E-02  1.86830E-02  1.91375E-02  1.96032E-02  2.00801E-02
#           2.05687E-02  2.10692E-02  2.15818E-02  2.21069E-02  2.26448E-02
#           2.31957E-02  2.37601E-02  2.43382E-02  2.49304E-02  2.55369E-02
#           2.61583E-02  2.67947E-02  2.74467E-02  2.81145E-02  2.87985E-02
#           2.94992E-02  3.02169E-02  3.09521E-02  3.17052E-02  3.24766E-02
#           3.32668E-02  3.40762E-02  3.49053E-02  3.57546E-02  3.66246E-02
#           3.75157E-02  3.84284E-02  3.93634E-02  4.03212E-02  4.13022E-02
#           4.23071E-02  4.33365E-02  4.43909E-02  4.54710E-02  4.65773E-02
#           4.77106E-02  4.88714E-02  5.00605E-02  5.12785E-02  5.25262E-02
#           5.38042E-02  5.51133E-02  5.64542E-02  5.78278E-02  5.92348E-02
#           6.06760E-02  6.21523E-02  6.36645E-02  6.52135E-02  6.68002E-02
#           6.84255E-02  7.00904E-02  7.17957E-02  7.35426E-02  7.53319E-02
#           7.71648E-02  7.90423E-02  8.09655E-02  8.29354E-02  8.49533E-02
#           8.70203E-02  8.91376E-02  9.13064E-02  9.35279E-02  9.58035E-02
#           9.81345E-02  1.00522E-01  1.02968E-01  1.05473E-01  1.08040E-01
#           1.10668E-01  1.13361E-01  1.16119E-01  1.18944E-01  1.21838E-01
#           1.24803E-01  1.27839E-01  1.30950E-01  1.34136E-01  1.37399E-01
#           1.40742E-01  1.44167E-01  1.47675E-01  1.51268E-01  1.54948E-01
#           1.58718E-01  1.62580E-01  1.66535E-01  1.70587E-01  1.74738E-01
#           1.78989E-01  1.83344E-01  1.87805E-01  1.92375E-01  1.97055E-01
#           2.01850E-01  2.06761E-01  2.11792E-01  2.16945E-01  2.22223E-01
#           2.27630E-01  2.33169E-01  2.38842E-01  2.44653E-01  2.50605E-01
#           2.56703E-01  2.62949E-01  2.69346E-01  2.75900E-01  2.82613E-01
#           2.89489E-01  2.96532E-01  3.03747E-01  3.11138E-01  3.18708E-01
#           3.26462E-01  3.34405E-01  3.42542E-01  3.50876E-01  3.59413E-01
#           3.68158E-01  3.77116E-01  3.86291E-01  3.95690E-01  4.05317E-01
#           4.15179E-01  4.25281E-01  4.35628E-01  4.46227E-01  4.57084E-01
#           4.68205E-01  4.79597E-01  4.91266E-01  5.03219E-01  5.15463E-01
#           5.28005E-01  5.40851E-01  5.54011E-01  5.67490E-01  5.81298E-01
#           5.95441E-01  6.09929E-01  6.24769E-01  6.39970E-01  6.55541E-01
#           6.71491E-01  6.87828E-01  7.04564E-01  7.21706E-01  7.39266E-01
#           7.57253E-01  7.75678E-01  7.94551E-01  8.13883E-01  8.33685E-01
#           8.53969E-01  8.74747E-01  8.96030E-01  9.17831E-01  9.40163E-01
#           9.63038E-01  9.86469E-01  1.01047E+00  1.03506E+00  1.06024E+00
#           1.08604E+00  1.11246E+00  1.13953E+00  1.16725E+00  1.19565E+00
#           1.22474E+00  1.25454E+00  1.28507E+00  1.31633E+00  1.34836E+00
#           1.38117E+00  1.41477E+00  1.44920E+00  1.48446E+00  1.52057E+00
#           1.55757E+00  1.59547E+00  1.63429E+00  1.67405E+00  1.71478E+00
#           1.75650E+00  1.79924E+00  1.84302E+00  1.88786E+00  1.93379E+00
#           1.98084E+00  2.02904E+00  2.07841E+00  2.12898E+00  2.18078E+00
#           2.23384E+00  2.28819E+00  2.34386E+00  2.40089E+00  2.45930E+00
#           2.51914E+00  2.58043E+00  2.64322E+00  2.70753E+00  2.77341E+00
#           2.84088E+00  2.91001E+00  2.98081E+00  3.05333E+00  3.12762E+00
#           3.20372E+00  3.28167E+00  3.36152E+00  3.44330E+00  3.52708E+00
#           3.61290E+00  3.70080E+00  3.79085E+00  3.88308E+00  3.97756E+00
#           4.07434E+00  4.17347E+00  4.27501E+00  4.37903E+00  4.48557E+00
#           4.59471E+00  4.70650E+00  4.82102E+00  4.93832E+00  5.05847E+00
#           5.18155E+00  5.30762E+00  5.43676E+00  5.56904E+00  5.70453E+00
#           5.84333E+00  5.98550E+00  6.13114E+00  6.28031E+00  6.43312E+00
#           6.58964E+00  6.74997E+00  6.91420E+00  7.08243E+00  7.25475E+00
#           7.43126E+00  7.61207E+00  7.79728E+00  7.98700E+00  8.18133E+00
#           8.38038E+00  8.58428E+00  8.79315E+00  9.00709E+00  9.22624E+00
#           9.45072E+00  9.68067E+00  9.91620E+00  1.01575E+01  1.04046E+01
#           1.06578E+01  1.09171E+01  1.11827E+01  1.14548E+01  1.17335E+01
#           1.20190E+01  1.23114E+01  1.26109E+01  1.29178E+01  1.32321E+01
#           1.35540E+01  1.38838E+01  1.42216E+01  1.45676E+01  1.49221E+01
#           1.52851E+01  1.56570E+01  1.60380E+01  1.64282E+01  1.68279E+01
#           1.72374E+01  1.76568E+01  1.80864E+01  1.85264E+01  1.89772E+01
#           1.94389E+01  1.99119E+01  2.03963E+01  2.08926E+01  2.14009E+01
#           2.19216E+01  2.24550E+01  2.30014E+01  2.35610E+01  2.41343E+01
#           2.47215E+01  2.53230E+01  2.59391E+01  2.65702E+01  2.72167E+01
#           2.78789E+01  2.85572E+01  2.92520E+01  2.99637E+01  3.06928E+01
#           3.14396E+01  3.22045E+01  3.29881E+01  3.37907E+01  3.46128E+01
#           3.54550E+01  3.63177E+01  3.72013E+01  3.81064E+01  3.90336E+01
#           3.99833E+01  4.09561E+01  4.19526E+01  4.29734E+01  4.40189E+01
#           4.50900E+01  4.61870E+01  4.73108E+01  4.84619E+01  4.96410E+01
#           5.08488E+01  5.20860E+01  5.33533E+01  5.46514E+01  5.59812E+01
#           5.73432E+01  5.87384E+01  6.01676E+01  6.16315E+01  6.31311E+01
#           6.46671E+01  6.62405E+01  6.78522E+01  6.95031E+01  7.11941E+01
#           7.29263E+01  7.47007E+01  7.65182E+01  7.83800E+01  8.02870E+01
#           8.22405E+01  8.42414E+01  8.62911E+01  8.83906E+01  9.05412E+01
#           9.27442E+01  9.50007E+01  9.73122E+01  9.96799E+01  1.02105E+02
#           1.04589E+02  1.07134E+02  1.09741E+02  1.12411E+02  1.15146E+02
#           1.17948E+02  1.20817E+02  1.23757E+02  1.26768E+02  1.29852E+02
#           1.33012E+02  1.36248E+02  1.39563E+02  1.42959E+02  1.46437E+02
#           1.50000E+02
     unit =    2            # unit is [1/cm^2/(MeV/n)/source]
     axis =  eng            # axis of output
     file = detector-01.out  # file name of output for the above axis
   output = f-curr          # surface crossing forward current spectrum
     part =  neutron  
# kf/name :  2112     
#    used :        main (  %)        temp (  %)       total (  %)
#  memory :         414 (  0)           0 (  0)         414 (  0)

#------------------------------------------------------------------------------
#newpage:
#   no. =    1   reg = 100 - 200

x: Energy [MeV/n]
y:  F-Curr [1/cm^2/(MeV/n)/source]         
p: xlog ylog afac(0.8) form(0.9)
h: n            x            y(neutron ),hh0l   n 
#  e-lower      e-upper      neutron     r.err 
   1.0000E-02   1.0243E-02   1.3607E-04  0.1414
   1.0243E-02   1.0493E-02   1.1502E-04  0.1525
   1.0493E-02   1.0748E-02   1.5929E-04  0.1280
   1.0748E-02   1.1009E-02   1.3512E-04  0.1374
   1.1009E-02   1.1277E-02   1.1773E-04  0.1450
   1.1277E-02   1.1552E-02   8.5039E-05  0.1690
   1.1552E-02   1.1833E-02   9.0447E-05  0.1617
   1.1833E-02   1.2121E-02   9.9572E-05  0.1525
   1.2121E-02   1.2415E-02   1.2051E-04  0.1366
   1.2415E-02   1.2718E-02   1.1697E-04  0.1374
   1.2718E-02   1.3027E-02   1.2525E-04  0.1310
   1.3027E-02   1.3344E-02   9.0444E-05  0.1525
   1.3344E-02   1.3669E-02   1.3244E-04  0.1243
   1.3669E-02   1.4001E-02   1.1853E-04  0.1299
   1.4001E-02   1.4342E-02   1.0568E-04  0.1361
   1.4342E-02   1.4691E-02   1.0317E-04  0.1361
   1.4691E-02   1.5048E-02   1.0283E-04  0.1345
   1.5048E-02   1.5414E-02   1.0743E-04  0.1302
   1.5414E-02   1.5789E-02   8.7358E-05  0.1425
   1.5789E-02   1.6174E-02   9.5444E-05  0.1348
   1.6174E-02   1.6567E-02   8.6401E-05  0.1400
   1.6567E-02   1.6970E-02   8.6219E-05  0.1384
   1.6970E-02   1.7383E-02   7.7501E-05  0.1443
   1.7383E-02   1.7806E-02   7.5928E-05  0.1439
   1.7806E-02   1.8239E-02   9.2117E-05  0.1287
   1.8239E-02   1.8683E-02   9.3140E-05  0.1270
   1.8683E-02   1.9138E-02   7.0396E-05  0.1443
   1.9138E-02   1.9603E-02   1.1597E-04  0.1111
   1.9603E-02   2.0080E-02   8.5494E-05  0.1277
   2.0080E-02   2.0569E-02   9.8929E-05  0.1172
   2.0569E-02   2.1069E-02   8.5256E-05  0.1250
   2.1069E-02   2.1582E-02   7.6729E-05  0.1302
   2.1582E-02   2.2107E-02   8.9085E-05  0.1188
   2.2107E-02   2.2645E-02   7.5162E-05  0.1280
   2.2645E-02   2.3196E-02   9.7577E-05  0.1111
   2.3196E-02   2.3760E-02   9.2138E-05  0.1132
   2.3760E-02   2.4338E-02   8.7256E-05  0.1147
   2.4338E-02   2.4930E-02   6.6278E-05  0.1297
   2.4930E-02   2.5537E-02   6.8364E-05  0.1266
   2.5537E-02   2.6158E-02   8.3691E-05  0.1129
   2.6158E-02   2.6795E-02   9.4410E-05  0.1053
   2.6795E-02   2.7447E-02   1.0124E-04  0.1002
   2.7447E-02   2.8114E-02   9.1844E-05  0.1043
   2.8114E-02   2.8799E-02   7.8100E-05  0.1116
   2.8799E-02   2.9499E-02   7.5164E-05  0.1125
   2.9499E-02   3.0217E-02   7.2450E-05  0.1132
   3.0217E-02   3.0952E-02   7.3449E-05  0.1111
   3.0952E-02   3.1705E-02   6.7395E-05  0.1145
   3.1705E-02   3.2477E-02   6.8273E-05  0.1125
   3.2477E-02   3.3267E-02   7.0026E-05  0.1094
   3.3267E-02   3.4076E-02   6.7697E-05  0.1102
   3.4076E-02   3.4905E-02   7.7996E-05  0.1015
   3.4905E-02   3.5755E-02   7.3146E-05  0.1035
   3.5755E-02   3.6625E-02   8.0697E-05  0.0973
   3.6625E-02   3.7516E-02   6.7469E-05  0.1052
   3.7516E-02   3.8428E-02   7.2306E-05  0.1005
   3.8428E-02   3.9363E-02   7.2283E-05  0.0989
   3.9363E-02   4.0321E-02   6.1951E-05  0.1060
   4.0321E-02   4.1302E-02   7.4071E-05  0.0958
   4.1302E-02   4.2307E-02   7.5062E-05  0.0940
   4.2307E-02   4.3337E-02   4.4688E-05  0.1204
   4.3337E-02   4.4391E-02   5.5203E-05  0.1069
   4.4391E-02   4.5471E-02   7.0983E-05  0.0933
   4.5471E-02   4.6577E-02   6.1464E-05  0.0990
   4.6577E-02   4.7711E-02   5.7762E-05  0.1008
   4.7711E-02   4.8871E-02   6.4321E-05  0.0945
   4.8871E-02   5.0061E-02   5.4944E-05  0.1010
   5.0061E-02   5.1279E-02   5.8371E-05  0.0967
   5.1279E-02   5.2526E-02   5.2288E-05  0.1008
   5.2526E-02   5.3804E-02   5.4393E-05  0.0978
   5.3804E-02   5.5113E-02   6.2556E-05  0.0900
   5.5113E-02   5.6454E-02   5.3287E-05  0.0965
   5.6454E-02   5.7828E-02   5.5213E-05  0.0934
   5.7828E-02   5.9235E-02   5.3779E-05  0.0938
   5.9235E-02   6.0676E-02   5.4412E-05  0.0921
   6.0676E-02   6.2152E-02   4.4846E-05  0.1002
   6.2152E-02   6.3665E-02   4.6240E-05  0.0974
   6.3665E-02   6.5214E-02   5.3593E-05  0.0893
   6.5214E-02   6.6800E-02   4.7898E-05  0.0937
   6.6800E-02   6.8426E-02   4.3532E-05  0.0970
   6.8426E-02   7.0090E-02   5.3320E-05  0.0866
   7.0090E-02   7.1796E-02   5.0429E-05  0.0880
   7.1796E-02   7.3543E-02   4.6433E-05  0.0905
   7.3543E-02   7.5332E-02   4.5827E-05  0.0902
   7.5332E-02   7.7165E-02   5.1232E-05  0.0841
   7.7165E-02   7.9042E-02   4.2082E-05  0.0917
   7.9042E-02   8.0965E-02   4.8924E-05  0.0841
   8.0965E-02   8.2935E-02   4.1214E-05  0.0904
   8.2935E-02   8.4953E-02   4.3994E-05  0.0866
   8.4953E-02   8.7020E-02   4.1978E-05  0.0876
   8.7020E-02   8.9138E-02   4.1716E-05  0.0867
   8.9138E-02   9.1306E-02   3.9386E-05  0.0883
   9.1306E-02   9.3528E-02   3.5270E-05  0.0921
   9.3528E-02   9.5804E-02   3.2719E-05  0.0945
   9.5804E-02   9.8134E-02   4.1470E-05  0.0830
   9.8134E-02   1.0052E-01   4.0051E-05  0.0832
   1.0052E-01   1.0297E-01   3.9296E-05  0.0832
   1.0297E-01   1.0547E-01   3.5231E-05  0.0866
   1.0547E-01   1.0804E-01   3.9236E-05  0.0812
   1.0804E-01   1.1067E-01   3.8856E-05  0.0807
   1.1067E-01   1.1336E-01   3.7510E-05  0.0812
   1.1336E-01   1.1612E-01   3.1664E-05  0.0874
   1.1612E-01   1.1894E-01   2.8247E-05  0.0912
   1.1894E-01   1.2184E-01   3.2411E-05  0.0842
   1.2184E-01   1.2480E-01   3.3244E-05  0.0821
   1.2480E-01   1.2784E-01   3.2969E-05  0.0816
   1.2784E-01   1.3095E-01   2.9007E-05  0.0859
   1.3095E-01   1.3414E-01   3.1671E-05  0.0812
   1.3414E-01   1.3740E-01   3.2409E-05  0.0793
   1.3740E-01   1.4074E-01   2.9549E-05  0.0821
   1.4074E-01   1.4417E-01   2.5637E-05  0.0870
   1.4417E-01   1.4767E-01   2.5915E-05  0.0855
   1.4767E-01   1.5127E-01   3.0244E-05  0.0783
   1.5127E-01   1.5495E-01   2.4966E-05  0.0849
   1.5495E-01   1.5872E-01   2.3873E-05  0.0861
   1.5872E-01   1.6258E-01   2.5865E-05  0.0816
   1.6258E-01   1.6654E-01   2.5172E-05  0.0817
   1.6654E-01   1.7059E-01   2.3225E-05  0.0841
   1.7059E-01   1.7474E-01   2.3933E-05  0.0819
   1.7474E-01   1.7899E-01   2.2368E-05  0.0836
   1.7899E-01   1.8334E-01   2.4723E-05  0.0786
   1.8334E-01   1.8781E-01   2.3314E-05  0.0799
   1.8781E-01   1.9237E-01   2.4710E-05  0.0767
   1.9237E-01   1.9706E-01   2.0225E-05  0.0839
   1.9706E-01   2.0185E-01   1.9210E-05  0.0849
   2.0185E-01   2.0676E-01   2.3281E-05  0.0762
   2.0676E-01   2.1179E-01   1.9925E-05  0.0813
   2.1179E-01   2.1694E-01   2.3501E-05  0.0741
   2.1694E-01   2.2222E-01   2.0970E-05  0.0774
   2.2222E-01   2.2763E-01   2.1412E-05  0.0758
   2.2763E-01   2.3317E-01   2.1166E-05  0.0753
   2.3317E-01   2.3884E-01   2.1332E-05  0.0740
   2.3884E-01   2.4465E-01   2.2763E-05  0.0709
   2.4465E-01   2.5061E-01   2.5290E-05  0.0665
   2.5061E-01   2.5670E-01   2.3688E-05  0.0679
   2.5670E-01   2.6295E-01   2.9458E-05  0.0601
   2.6295E-01   2.6935E-01   2.7385E-05  0.0616
   2.6935E-01   2.7590E-01   2.4572E-05  0.0642
   2.7590E-01   2.8261E-01   2.3041E-05  0.0656
   2.8261E-01   2.8949E-01   2.6231E-05  0.0607
   2.8949E-01   2.9653E-01   2.4279E-05  0.0622
   2.9653E-01   3.0375E-01   2.7145E-05  0.0582
   3.0375E-01   3.1114E-01   2.5633E-05  0.0593
   3.1114E-01   3.1871E-01   2.6109E-05  0.0580
   3.1871E-01   3.2646E-01   2.9103E-05  0.0543
   3.2646E-01   3.3441E-01   2.8438E-05  0.0543
   3.3441E-01   3.4254E-01   2.6162E-05  0.0559
   3.4254E-01   3.5088E-01   2.7208E-05  0.0541
   3.5088E-01   3.5941E-01   2.6028E-05  0.0548
   3.5941E-01   3.6816E-01   2.9056E-05  0.0511
   3.6816E-01   3.7712E-01   3.1181E-05  0.0488
   3.7712E-01   3.8629E-01   2.8894E-05  0.0500
   3.8629E-01   3.9569E-01   3.1959E-05  0.0471
   3.9569E-01   4.0532E-01   2.8443E-05  0.0493
   4.0532E-01   4.1518E-01   2.8762E-05  0.0484
   4.1518E-01   4.2528E-01   3.0112E-05  0.0467
   4.2528E-01   4.3563E-01   3.0783E-05  0.0457
   4.3563E-01   4.4623E-01   2.8251E-05  0.0471
   4.4623E-01   4.5708E-01   3.0330E-05  0.0449
   4.5708E-01   4.6821E-01   3.3021E-05  0.0426
   4.6821E-01   4.7960E-01   3.2109E-05  0.0427
   4.7960E-01   4.9127E-01   3.2476E-05  0.0419
   4.9127E-01   5.0322E-01   3.1075E-05  0.0423
   5.0322E-01   5.1546E-01   3.3966E-05  0.0400
   5.1546E-01   5.2800E-01   2.9906E-05  0.0421
   5.2800E-01   5.4085E-01   3.4686E-05  0.0386
   5.4085E-01   5.5401E-01   3.2515E-05  0.0394
   5.5401E-01   5.6749E-01   3.1187E-05  0.0397
   5.6749E-01   5.8130E-01   3.2197E-05  0.0387
   5.8130E-01   5.9544E-01   3.1056E-05  0.0389
   5.9544E-01   6.0993E-01   3.2727E-05  0.0374
   6.0993E-01   6.2477E-01   2.9804E-05  0.0388
   6.2477E-01   6.3997E-01   3.2094E-05  0.0369
   6.3997E-01   6.5554E-01   2.9492E-05  0.0380
   6.5554E-01   6.7149E-01   2.9845E-05  0.0373
   6.7149E-01   6.8783E-01   3.1323E-05  0.0360
   6.8783E-01   7.0456E-01   3.3956E-05  0.0342
   7.0456E-01   7.2171E-01   2.9475E-05  0.0362
   7.2171E-01   7.3927E-01   3.1965E-05  0.0344
   7.3927E-01   7.5725E-01   3.1934E-05  0.0340
   7.5725E-01   7.7568E-01   3.0813E-05  0.0342
   7.7568E-01   7.9455E-01   3.0565E-05  0.0339
   7.9455E-01   8.1388E-01   3.2639E-05  0.0325
   8.1388E-01   8.3368E-01   3.2978E-05  0.0319
   8.3368E-01   8.5397E-01   3.2109E-05  0.0319
   8.5397E-01   8.7475E-01   2.9878E-05  0.0327
   8.7475E-01   8.9603E-01   3.2821E-05  0.0308
   8.9603E-01   9.1783E-01   3.0676E-05  0.0315
   9.1783E-01   9.4016E-01   2.9713E-05  0.0316
   9.4016E-01   9.6304E-01   2.9776E-05  0.0312
   9.6304E-01   9.8647E-01   2.9594E-05  0.0309
   9.8647E-01   1.0105E+00   2.6833E-05  0.0321
   1.0105E+00   1.0351E+00   2.8151E-05  0.0310
   1.0351E+00   1.0602E+00   2.6928E-05  0.0313
   1.0602E+00   1.0860E+00   2.7816E-05  0.0305
   1.0860E+00   1.1125E+00   2.6178E-05  0.0310
   1.1125E+00   1.1395E+00   2.7123E-05  0.0301
   1.1395E+00   1.1673E+00   2.6009E-05  0.0304
   1.1673E+00   1.1957E+00   2.6332E-05  0.0298
   1.1957E+00   1.2247E+00   2.5836E-05  0.0297
   1.2247E+00   1.2545E+00   2.6056E-05  0.0292
   1.2545E+00   1.2851E+00   2.6529E-05  0.0286
   1.2851E+00   1.3163E+00   2.5839E-05  0.0287
   1.3163E+00   1.3484E+00   2.6294E-05  0.0281
   1.3484E+00   1.3812E+00   2.5366E-05  0.0282
   1.3812E+00   1.4148E+00   2.5360E-05  0.0279
   1.4148E+00   1.4492E+00   2.6461E-05  0.0270
   1.4492E+00   1.4845E+00   2.4290E-05  0.0278
   1.4845E+00   1.5206E+00   2.4295E-05  0.0275
   1.5206E+00   1.5576E+00   2.5220E-05  0.0267
   1.5576E+00   1.5955E+00   2.2767E-05  0.0277
   1.5955E+00   1.6343E+00   2.3644E-05  0.0269
   1.6343E+00   1.6741E+00   2.2839E-05  0.0270
   1.6741E+00   1.7148E+00   2.3244E-05  0.0265
   1.7148E+00   1.7565E+00   2.3558E-05  0.0260
   1.7565E+00   1.7992E+00   2.2065E-05  0.0265
   1.7992E+00   1.8430E+00   2.2557E-05  0.0259
   1.8430E+00   1.8879E+00   2.1770E-05  0.0261
   1.8879E+00   1.9338E+00   2.2795E-05  0.0252
   1.9338E+00   1.9808E+00   2.1620E-05  0.0255
   1.9808E+00   2.0290E+00   2.1150E-05  0.0255
   2.0290E+00   2.0784E+00   2.2939E-05  0.0242
   2.0784E+00   2.1290E+00   2.2141E-05  0.0244
   2.1290E+00   2.1808E+00   2.0544E-05  0.0250
   2.1808E+00   2.2338E+00   2.1385E-05  0.0242
   2.2338E+00   2.2882E+00   2.0641E-05  0.0243
   2.2882E+00   2.3439E+00   1.9804E-05  0.0245
   2.3439E+00   2.4009E+00   2.1163E-05  0.0234
   2.4009E+00   2.4593E+00   1.9912E-05  0.0239
   2.4593E+00   2.5191E+00   2.0779E-05  0.0231
   2.5191E+00   2.5804E+00   1.9922E-05  0.0233
   2.5804E+00   2.6432E+00   2.0089E-05  0.0229
   2.6432E+00   2.7075E+00   1.8931E-05  0.0234
   2.7075E+00   2.7734E+00   1.9601E-05  0.0227
   2.7734E+00   2.8409E+00   1.9142E-05  0.0227
   2.8409E+00   2.9100E+00   1.8673E-05  0.0227
   2.9100E+00   2.9808E+00   1.8882E-05  0.0223
   2.9808E+00   3.0533E+00   1.8333E-05  0.0223
   3.0533E+00   3.1276E+00   1.8100E-05  0.0222
   3.1276E+00   3.2037E+00   1.8384E-05  0.0218
   3.2037E+00   3.2817E+00   1.7903E-05  0.0218
   3.2817E+00   3.3615E+00   1.8313E-05  0.0213
   3.3615E+00   3.4433E+00   1.8335E-05  0.0211
   3.4433E+00   3.5271E+00   1.7269E-05  0.0214
   3.5271E+00   3.6129E+00   1.7386E-05  0.0211
   3.6129E+00   3.7008E+00   1.7080E-05  0.0210
   3.7008E+00   3.7908E+00   1.7457E-05  0.0206
   3.7908E+00   3.8831E+00   1.6941E-05  0.0206
   3.8831E+00   3.9776E+00   1.6595E-05  0.0206
   3.9776E+00   4.0743E+00   1.6406E-05  0.0205
   4.0743E+00   4.1735E+00   1.6501E-05  0.0201
   4.1735E+00   4.2750E+00   1.5749E-05  0.0204
   4.2750E+00   4.3790E+00   1.5530E-05  0.0203
   4.3790E+00   4.4856E+00   1.5782E-05  0.0199
   4.4856E+00   4.5947E+00   1.5630E-05  0.0197
   4.5947E+00   4.7065E+00   1.5797E-05  0.0194
   4.7065E+00   4.8210E+00   1.5237E-05  0.0195
   4.8210E+00   4.9383E+00   1.5012E-05  0.0194
   4.9383E+00   5.0585E+00   1.5384E-05  0.0190
   5.0585E+00   5.1815E+00   1.4768E-05  0.0191
   5.1815E+00   5.3076E+00   1.4663E-05  0.0190
   5.3076E+00   5.4368E+00   1.4446E-05  0.0189
   5.4368E+00   5.5690E+00   1.4414E-05  0.0187
   5.5690E+00   5.7045E+00   1.3962E-05  0.0187
   5.7045E+00   5.8433E+00   1.3845E-05  0.0186
   5.8433E+00   5.9855E+00   1.3764E-05  0.0184
   5.9855E+00   6.1311E+00   1.3765E-05  0.0182
   6.1311E+00   6.2803E+00   1.3023E-05  0.0185
   6.2803E+00   6.4331E+00   1.2834E-05  0.0184
   6.4331E+00   6.5896E+00   1.2950E-05  0.0181
   6.5896E+00   6.7500E+00   1.2833E-05  0.0180
   6.7500E+00   6.9142E+00   1.3035E-05  0.0176
   6.9142E+00   7.0824E+00   1.2612E-05  0.0177
   7.0824E+00   7.2548E+00   1.2331E-05  0.0177
   7.2548E+00   7.4313E+00   1.2209E-05  0.0176
   7.4313E+00   7.6121E+00   1.2743E-05  0.0170
   7.6121E+00   7.7973E+00   1.2241E-05  0.0171
   7.7973E+00   7.9870E+00   1.2141E-05  0.0170
   7.9870E+00   8.1813E+00   1.1990E-05  0.0169
   8.1813E+00   8.3804E+00   1.2054E-05  0.0167
   8.3804E+00   8.5843E+00   1.1511E-05  0.0168
   8.5843E+00   8.7931E+00   1.1553E-05  0.0166
   8.7931E+00   9.0071E+00   1.1430E-05  0.0165
   9.0071E+00   9.2262E+00   1.1352E-05  0.0164
   9.2262E+00   9.4507E+00   1.1705E-05  0.0159
   9.4507E+00   9.6807E+00   1.1652E-05  0.0158
   9.6807E+00   9.9162E+00   1.1304E-05  0.0158
   9.9162E+00   1.0157E+01   1.1436E-05  0.0155
   1.0157E+01   1.0405E+01   1.1201E-05  0.0155
   1.0405E+01   1.0658E+01   1.1491E-05  0.0151
   1.0658E+01   1.0917E+01   1.1235E-05  0.0151
   1.0917E+01   1.1183E+01   1.1525E-05  0.0148
   1.1183E+01   1.1455E+01   1.1217E-05  0.0148
   1.1455E+01   1.1733E+01   1.1446E-05  0.0145
   1.1733E+01   1.2019E+01   1.1749E-05  0.0141
   1.2019E+01   1.2311E+01   1.1671E-05  0.0140
   1.2311E+01   1.2611E+01   1.1453E-05  0.0139
   1.2611E+01   1.2918E+01   1.1991E-05  0.0135
   1.2918E+01   1.3232E+01   1.2249E-05  0.0132
   1.3232E+01   1.3554E+01   1.2175E-05  0.0130
   1.3554E+01   1.3884E+01   1.2743E-05  0.0126
   1.3884E+01   1.4222E+01   1.2808E-05  0.0124
   1.4222E+01   1.4568E+01   1.3130E-05  0.0121
   1.4568E+01   1.4922E+01   1.3110E-05  0.0120
   1.4922E+01   1.5285E+01   1.3655E-05  0.0116
   1.5285E+01   1.5657E+01   1.3714E-05  0.0114
   1.5657E+01   1.6038E+01   1.4293E-05  0.0111
   1.6038E+01   1.6428E+01   1.4784E-05  0.0107
   1.6428E+01   1.6828E+01   1.5408E-05  0.0104
   1.6828E+01   1.7237E+01   1.5810E-05  0.0101
   1.7237E+01   1.7657E+01   1.6589E-05  0.0098
   1.7657E+01   1.8086E+01   1.6915E-05  0.0096
   1.8086E+01   1.8526E+01   1.7638E-05  0.0093
   1.8526E+01   1.8977E+01   1.8226E-05  0.0090
   1.8977E+01   1.9439E+01   1.9241E-05  0.0087
   1.9439E+01   1.9912E+01   2.0123E-05  0.0084
   1.9912E+01   2.0396E+01   2.1352E-05  0.0080
   2.0396E+01   2.0893E+01   2.2373E-05  0.0077
   2.0893E+01   2.1401E+01   2.3302E-05  0.0075
   2.1401E+01   2.1922E+01   2.4712E-05  0.0072
   2.1922E+01   2.2455E+01   2.6171E-05  0.0069
   2.2455E+01   2.3001E+01   2.7803E-05  0.0066
   2.3001E+01   2.3561E+01   2.9251E-05  0.0064
   2.3561E+01   2.4134E+01   3.1004E-05  0.0061
   2.4134E+01   2.4721E+01   3.2765E-05  0.0059
   2.4721E+01   2.5323E+01   3.4950E-05  0.0056
   2.5323E+01   2.5939E+01   3.7262E-05  0.0054
   2.5939E+01   2.6570E+01   3.9465E-05  0.0052
   2.6570E+01   2.7217E+01   4.1639E-05  0.0050
   2.7217E+01   2.7879E+01   4.4569E-05  0.0048
   2.7879E+01   2.8557E+01   4.7772E-05  0.0045
   2.8557E+01   2.9252E+01   5.1552E-05  0.0043
   2.9252E+01   2.9964E+01   5.5012E-05  0.0041
   2.9964E+01   3.0693E+01   5.9214E-05  0.0039
   3.0693E+01   3.1440E+01   6.3125E-05  0.0038
   3.1440E+01   3.2205E+01   6.7983E-05  0.0036
   3.2205E+01   3.2988E+01   7.2654E-05  0.0034
   3.2988E+01   3.3791E+01   7.8278E-05  0.0033
   3.3791E+01   3.4613E+01   8.3578E-05  0.0031
   3.4613E+01   3.5455E+01   8.9240E-05  0.0030
   3.5455E+01   3.6318E+01   9.6186E-05  0.0028
   3.6318E+01   3.7201E+01   1.0242E-04  0.0027
   3.7201E+01   3.8106E+01   1.0850E-04  0.0026
   3.8106E+01   3.9034E+01   1.1479E-04  0.0025
   3.9034E+01   3.9983E+01   1.2115E-04  0.0024
   3.9983E+01   4.0956E+01   1.2607E-04  0.0023
   4.0956E+01   4.1953E+01   1.3049E-04  0.0023
   4.1953E+01   4.2973E+01   1.3357E-04  0.0022
   4.2973E+01   4.4019E+01   1.3595E-04  0.0022
   4.4019E+01   4.5090E+01   1.3647E-04  0.0021
   4.5090E+01   4.6187E+01   1.3503E-04  0.0021
   4.6187E+01   4.7311E+01   1.3237E-04  0.0021
   4.7311E+01   4.8462E+01   1.2796E-04  0.0021
   4.8462E+01   4.9641E+01   1.2172E-04  0.0022
   4.9641E+01   5.0849E+01   1.1443E-04  0.0022
   5.0849E+01   5.2086E+01   1.0628E-04  0.0023
   5.2086E+01   5.3353E+01   9.7376E-05  0.0023
   5.3353E+01   5.4651E+01   8.8160E-05  0.0024
   5.4651E+01   5.5981E+01   7.9557E-05  0.0025
   5.5981E+01   5.7343E+01   7.0559E-05  0.0026
   5.7343E+01   5.8738E+01   6.1954E-05  0.0028
   5.8738E+01   6.0168E+01   5.4234E-05  0.0029
   6.0168E+01   6.1632E+01   4.7201E-05  0.0031
   6.1632E+01   6.3131E+01   4.0941E-05  0.0033
   6.3131E+01   6.4667E+01   3.5194E-05  0.0035
   6.4667E+01   6.6240E+01   3.0198E-05  0.0037
   6.6240E+01   6.7852E+01   2.6111E-05  0.0040
   6.7852E+01   6.9503E+01   2.2321E-05  0.0043
   6.9503E+01   7.1194E+01   1.9025E-05  0.0046
   7.1194E+01   7.2926E+01   1.6286E-05  0.0049
   7.2926E+01   7.4701E+01   1.3939E-05  0.0052
   7.4701E+01   7.6518E+01   1.1927E-05  0.0055
   7.6518E+01   7.8380E+01   1.0275E-05  0.0059
   7.8380E+01   8.0287E+01   8.9077E-06  0.0063
   8.0287E+01   8.2240E+01   7.8463E-06  0.0066
   8.2240E+01   8.4241E+01   6.8217E-06  0.0070
   8.4241E+01   8.6291E+01   6.0296E-06  0.0073
   8.6291E+01   8.8391E+01   5.4187E-06  0.0077
   8.8391E+01   9.0541E+01   4.9676E-06  0.0079
   9.0541E+01   9.2744E+01   4.7739E-06  0.0080
   9.2744E+01   9.5001E+01   4.5172E-06  0.0081
   9.5001E+01   9.7312E+01   3.9418E-06  0.0086
   9.7312E+01   9.9680E+01   3.3104E-06  0.0092
   9.9680E+01   1.0211E+02   2.6309E-06  0.0102
   1.0211E+02   1.0459E+02   2.1549E-06  0.0112
   1.0459E+02   1.0713E+02   1.6520E-06  0.0126
   1.0713E+02   1.0974E+02   1.1074E-06  0.0152
   1.0974E+02   1.1241E+02   4.3270E-07  0.0240
   1.1241E+02   1.1515E+02   8.6287E-08  0.0531
   1.1515E+02   1.1795E+02   9.5184E-10  0.5000
   1.1795E+02   1.2082E+02   0.0000E+00  0.0000
   1.2082E+02   1.2376E+02   0.0000E+00  0.0000
   1.2376E+02   1.2677E+02   0.0000E+00  0.0000
   1.2677E+02   1.2985E+02   0.0000E+00  0.0000
   1.2985E+02   1.3301E+02   0.0000E+00  0.0000
   1.3301E+02   1.3625E+02   0.0000E+00  0.0000
   1.3625E+02   1.3956E+02   0.0000E+00  0.0000
   1.3956E+02   1.4296E+02   0.0000E+00  0.0000
   1.4296E+02   1.4644E+02   0.0000E+00  0.0000
   1.4644E+02   1.5000E+02   0.0000E+00  0.0000

#   sum over                 2.8593E-05
'no. =    1   reg = 100 - 200'
msuc: {\huge [t-cross] in region mesh}
msdr: {\it plotted by \ANGEL \version}
msdl: {\it calculated by \PHITS  3.26}
wt: s(0.7)
\vspace{-3}
  region surface crossing
  area  &=&   1.0000E+00 [cm^2]
e:
 
# Information for Restart Calculation
# This calculation was newly started
# istdev =  2 # 1:Batch variance, 2:History variance
# resc2  = 1.50000000000000000E+09 # Total source weight or Total source weight / maxcas
# resc3  = 1.50000000000000000E+09 # Total history number or Total batch number
# maxcas =   500000000 # History / Batch, only used for istdev=1
# bitrseed = 0000010101110101110110100110011001100101000001100111100100101101 # bit data of rseed
