[ T-Cross ]
    title = [t-cross] in region mesh
     mesh =  reg            # mesh type is region-wise
      reg =    1            # number of crossing regions
      non     r-from    r-to       area
      1       109       209        1.000000    
   e-type =    3            # e-mesh is log given by emin, emax and ne
     emin =  1.0000000E-02  # minimum value of e-mesh points
     emax =   150.0000      # maximum value of e-mesh points
#    edel =  2.4039514E-02  # mesh width of e-mesh points
       ne =    400          # number of e-mesh points
#    data = ( e(i), i = 1, ne + 1 )
#           1.00000E-02  1.02433E-02  1.04925E-02  1.07478E-02  1.10093E-02
#           1.12772E-02  1.15516E-02  1.18326E-02  1.21205E-02  1.24154E-02
#           1.27175E-02  1.30269E-02  1.33439E-02  1.36686E-02  1.40011E-02
#           1.43418E-02  1.46907E-02  1.50482E-02  1.54143E-02  1.57894E-02
#           1.61735E-02  1.65670E-02  1.69701E-02  1.73830E-02  1.78060E-02
#           1.82392E-02  1.86830E-02  1.91375E-02  1.96032E-02  2.00801E-02
#           2.05687E-02  2.10692E-02  2.15818E-02  2.21069E-02  2.26448E-02
#           2.31957E-02  2.37601E-02  2.43382E-02  2.49304E-02  2.55369E-02
#           2.61583E-02  2.67947E-02  2.74467E-02  2.81145E-02  2.87985E-02
#           2.94992E-02  3.02169E-02  3.09521E-02  3.17052E-02  3.24766E-02
#           3.32668E-02  3.40762E-02  3.49053E-02  3.57546E-02  3.66246E-02
#           3.75157E-02  3.84284E-02  3.93634E-02  4.03212E-02  4.13022E-02
#           4.23071E-02  4.33365E-02  4.43909E-02  4.54710E-02  4.65773E-02
#           4.77106E-02  4.88714E-02  5.00605E-02  5.12785E-02  5.25262E-02
#           5.38042E-02  5.51133E-02  5.64542E-02  5.78278E-02  5.92348E-02
#           6.06760E-02  6.21523E-02  6.36645E-02  6.52135E-02  6.68002E-02
#           6.84255E-02  7.00904E-02  7.17957E-02  7.35426E-02  7.53319E-02
#           7.71648E-02  7.90423E-02  8.09655E-02  8.29354E-02  8.49533E-02
#           8.70203E-02  8.91376E-02  9.13064E-02  9.35279E-02  9.58035E-02
#           9.81345E-02  1.00522E-01  1.02968E-01  1.05473E-01  1.08040E-01
#           1.10668E-01  1.13361E-01  1.16119E-01  1.18944E-01  1.21838E-01
#           1.24803E-01  1.27839E-01  1.30950E-01  1.34136E-01  1.37399E-01
#           1.40742E-01  1.44167E-01  1.47675E-01  1.51268E-01  1.54948E-01
#           1.58718E-01  1.62580E-01  1.66535E-01  1.70587E-01  1.74738E-01
#           1.78989E-01  1.83344E-01  1.87805E-01  1.92375E-01  1.97055E-01
#           2.01850E-01  2.06761E-01  2.11792E-01  2.16945E-01  2.22223E-01
#           2.27630E-01  2.33169E-01  2.38842E-01  2.44653E-01  2.50605E-01
#           2.56703E-01  2.62949E-01  2.69346E-01  2.75900E-01  2.82613E-01
#           2.89489E-01  2.96532E-01  3.03747E-01  3.11138E-01  3.18708E-01
#           3.26462E-01  3.34405E-01  3.42542E-01  3.50876E-01  3.59413E-01
#           3.68158E-01  3.77116E-01  3.86291E-01  3.95690E-01  4.05317E-01
#           4.15179E-01  4.25281E-01  4.35628E-01  4.46227E-01  4.57084E-01
#           4.68205E-01  4.79597E-01  4.91266E-01  5.03219E-01  5.15463E-01
#           5.28005E-01  5.40851E-01  5.54011E-01  5.67490E-01  5.81298E-01
#           5.95441E-01  6.09929E-01  6.24769E-01  6.39970E-01  6.55541E-01
#           6.71491E-01  6.87828E-01  7.04564E-01  7.21706E-01  7.39266E-01
#           7.57253E-01  7.75678E-01  7.94551E-01  8.13883E-01  8.33685E-01
#           8.53969E-01  8.74747E-01  8.96030E-01  9.17831E-01  9.40163E-01
#           9.63038E-01  9.86469E-01  1.01047E+00  1.03506E+00  1.06024E+00
#           1.08604E+00  1.11246E+00  1.13953E+00  1.16725E+00  1.19565E+00
#           1.22474E+00  1.25454E+00  1.28507E+00  1.31633E+00  1.34836E+00
#           1.38117E+00  1.41477E+00  1.44920E+00  1.48446E+00  1.52057E+00
#           1.55757E+00  1.59547E+00  1.63429E+00  1.67405E+00  1.71478E+00
#           1.75650E+00  1.79924E+00  1.84302E+00  1.88786E+00  1.93379E+00
#           1.98084E+00  2.02904E+00  2.07841E+00  2.12898E+00  2.18078E+00
#           2.23384E+00  2.28819E+00  2.34386E+00  2.40089E+00  2.45930E+00
#           2.51914E+00  2.58043E+00  2.64322E+00  2.70753E+00  2.77341E+00
#           2.84088E+00  2.91001E+00  2.98081E+00  3.05333E+00  3.12762E+00
#           3.20372E+00  3.28167E+00  3.36152E+00  3.44330E+00  3.52708E+00
#           3.61290E+00  3.70080E+00  3.79085E+00  3.88308E+00  3.97756E+00
#           4.07434E+00  4.17347E+00  4.27501E+00  4.37903E+00  4.48557E+00
#           4.59471E+00  4.70650E+00  4.82102E+00  4.93832E+00  5.05847E+00
#           5.18155E+00  5.30762E+00  5.43676E+00  5.56904E+00  5.70453E+00
#           5.84333E+00  5.98550E+00  6.13114E+00  6.28031E+00  6.43312E+00
#           6.58964E+00  6.74997E+00  6.91420E+00  7.08243E+00  7.25475E+00
#           7.43126E+00  7.61207E+00  7.79728E+00  7.98700E+00  8.18133E+00
#           8.38038E+00  8.58428E+00  8.79315E+00  9.00709E+00  9.22624E+00
#           9.45072E+00  9.68067E+00  9.91620E+00  1.01575E+01  1.04046E+01
#           1.06578E+01  1.09171E+01  1.11827E+01  1.14548E+01  1.17335E+01
#           1.20190E+01  1.23114E+01  1.26109E+01  1.29178E+01  1.32321E+01
#           1.35540E+01  1.38838E+01  1.42216E+01  1.45676E+01  1.49221E+01
#           1.52851E+01  1.56570E+01  1.60380E+01  1.64282E+01  1.68279E+01
#           1.72374E+01  1.76568E+01  1.80864E+01  1.85264E+01  1.89772E+01
#           1.94389E+01  1.99119E+01  2.03963E+01  2.08926E+01  2.14009E+01
#           2.19216E+01  2.24550E+01  2.30014E+01  2.35610E+01  2.41343E+01
#           2.47215E+01  2.53230E+01  2.59391E+01  2.65702E+01  2.72167E+01
#           2.78789E+01  2.85572E+01  2.92520E+01  2.99637E+01  3.06928E+01
#           3.14396E+01  3.22045E+01  3.29881E+01  3.37907E+01  3.46128E+01
#           3.54550E+01  3.63177E+01  3.72013E+01  3.81064E+01  3.90336E+01
#           3.99833E+01  4.09561E+01  4.19526E+01  4.29734E+01  4.40189E+01
#           4.50900E+01  4.61870E+01  4.73108E+01  4.84619E+01  4.96410E+01
#           5.08488E+01  5.20860E+01  5.33533E+01  5.46514E+01  5.59812E+01
#           5.73432E+01  5.87384E+01  6.01676E+01  6.16315E+01  6.31311E+01
#           6.46671E+01  6.62405E+01  6.78522E+01  6.95031E+01  7.11941E+01
#           7.29263E+01  7.47007E+01  7.65182E+01  7.83800E+01  8.02870E+01
#           8.22405E+01  8.42414E+01  8.62911E+01  8.83906E+01  9.05412E+01
#           9.27442E+01  9.50007E+01  9.73122E+01  9.96799E+01  1.02105E+02
#           1.04589E+02  1.07134E+02  1.09741E+02  1.12411E+02  1.15146E+02
#           1.17948E+02  1.20817E+02  1.23757E+02  1.26768E+02  1.29852E+02
#           1.33012E+02  1.36248E+02  1.39563E+02  1.42959E+02  1.46437E+02
#           1.50000E+02
     unit =    2            # unit is [1/cm^2/(MeV/n)/source]
     axis =  eng            # axis of output
     file = detector-10.out  # file name of output for the above axis
   output = f-curr          # surface crossing forward current spectrum
     part =  neutron  
# kf/name :  2112     
#    used :        main (  %)        temp (  %)       total (  %)
#  memory :         414 (  0)           0 (  0)         414 (  0)

#------------------------------------------------------------------------------
#newpage:
#   no. =    1   reg = 109 - 209

x: Energy [MeV/n]
y:  F-Curr [1/cm^2/(MeV/n)/source]         
p: xlog ylog afac(0.8) form(0.9)
h: n            x            y(neutron ),hh0l   n 
#  e-lower      e-upper      neutron     r.err 
   1.0000E-02   1.0243E-02   2.1395E-03  0.0357
   1.0243E-02   1.0493E-02   2.2532E-03  0.0344
   1.0493E-02   1.0748E-02   2.2676E-03  0.0339
   1.0748E-02   1.1009E-02   2.2680E-03  0.0335
   1.1009E-02   1.1277E-02   2.1472E-03  0.0340
   1.1277E-02   1.1552E-02   2.1416E-03  0.0336
   1.1552E-02   1.1833E-02   2.1071E-03  0.0335
   1.1833E-02   1.2121E-02   1.9783E-03  0.0342
   1.2121E-02   1.2415E-02   2.0190E-03  0.0334
   1.2415E-02   1.2718E-02   2.0880E-03  0.0325
   1.2718E-02   1.3027E-02   1.9959E-03  0.0328
   1.3027E-02   1.3344E-02   1.9834E-03  0.0325
   1.3344E-02   1.3669E-02   2.0275E-03  0.0318
   1.3669E-02   1.4001E-02   2.0533E-03  0.0312
   1.4001E-02   1.4342E-02   1.9129E-03  0.0320
   1.4342E-02   1.4691E-02   1.9002E-03  0.0317
   1.4691E-02   1.5048E-02   2.0289E-03  0.0303
   1.5048E-02   1.5414E-02   1.8767E-03  0.0311
   1.5414E-02   1.5789E-02   1.8275E-03  0.0312
   1.5789E-02   1.6174E-02   1.7893E-03  0.0311
   1.6174E-02   1.6567E-02   1.8061E-03  0.0306
   1.6567E-02   1.6970E-02   1.8295E-03  0.0300
   1.6970E-02   1.7383E-02   1.7923E-03  0.0300
   1.7383E-02   1.7806E-02   1.9280E-03  0.0286
   1.7806E-02   1.8239E-02   1.7853E-03  0.0293
   1.8239E-02   1.8683E-02   1.7655E-03  0.0292
   1.8683E-02   1.9138E-02   1.6259E-03  0.0300
   1.9138E-02   1.9603E-02   1.6400E-03  0.0295
   1.9603E-02   2.0080E-02   1.6212E-03  0.0293
   2.0080E-02   2.0569E-02   1.5188E-03  0.0299
   2.0569E-02   2.1069E-02   1.6603E-03  0.0283
   2.1069E-02   2.1582E-02   1.6081E-03  0.0284
   2.1582E-02   2.2107E-02   1.5400E-03  0.0287
   2.2107E-02   2.2645E-02   1.6368E-03  0.0275
   2.2645E-02   2.3196E-02   1.6166E-03  0.0273
   2.3196E-02   2.3760E-02   1.5747E-03  0.0274
   2.3760E-02   2.4338E-02   1.6271E-03  0.0266
   2.4338E-02   2.4930E-02   1.5294E-03  0.0271
   2.4930E-02   2.5537E-02   1.5245E-03  0.0268
   2.5537E-02   2.6158E-02   1.3821E-03  0.0278
   2.6158E-02   2.6795E-02   1.4520E-03  0.0268
   2.6795E-02   2.7447E-02   1.4819E-03  0.0262
   2.7447E-02   2.8114E-02   1.4720E-03  0.0260
   2.8114E-02   2.8799E-02   1.4570E-03  0.0258
   2.8799E-02   2.9499E-02   1.3766E-03  0.0263
   2.9499E-02   3.0217E-02   1.3755E-03  0.0259
   3.0217E-02   3.0952E-02   1.3487E-03  0.0259
   3.0952E-02   3.1705E-02   1.3515E-03  0.0256
   3.1705E-02   3.2477E-02   1.3639E-03  0.0251
   3.2477E-02   3.3267E-02   1.3332E-03  0.0251
   3.3267E-02   3.4076E-02   1.3442E-03  0.0247
   3.4076E-02   3.4905E-02   1.3673E-03  0.0242
   3.4905E-02   3.5755E-02   1.3018E-03  0.0245
   3.5755E-02   3.6625E-02   1.2389E-03  0.0248
   3.6625E-02   3.7516E-02   1.2568E-03  0.0244
   3.7516E-02   3.8428E-02   1.2275E-03  0.0244
   3.8428E-02   3.9363E-02   1.2594E-03  0.0238
   3.9363E-02   4.0321E-02   1.1914E-03  0.0241
   4.0321E-02   4.1302E-02   1.1993E-03  0.0238
   4.1302E-02   4.2307E-02   1.1840E-03  0.0237
   4.2307E-02   4.3337E-02   1.1695E-03  0.0235
   4.3337E-02   4.4391E-02   1.1038E-03  0.0239
   4.4391E-02   4.5471E-02   1.1237E-03  0.0234
   4.5471E-02   4.6577E-02   1.0561E-03  0.0239
   4.6577E-02   4.7711E-02   1.1130E-03  0.0230
   4.7711E-02   4.8871E-02   1.0596E-03  0.0232
   4.8871E-02   5.0061E-02   1.0668E-03  0.0229
   5.0061E-02   5.1279E-02   1.0490E-03  0.0228
   5.1279E-02   5.2526E-02   1.0659E-03  0.0224
   5.2526E-02   5.3804E-02   1.0440E-03  0.0223
   5.3804E-02   5.5113E-02   1.0245E-03  0.0223
   5.5113E-02   5.6454E-02   9.8006E-04  0.0225
   5.6454E-02   5.7828E-02   9.9312E-04  0.0221
   5.7828E-02   5.9235E-02   1.0400E-03  0.0213
   5.9235E-02   6.0676E-02   9.8803E-04  0.0216
   6.0676E-02   6.2152E-02   9.7305E-04  0.0215
   6.2152E-02   6.3665E-02   9.4646E-04  0.0216
   6.3665E-02   6.5214E-02   9.5803E-04  0.0212
   6.5214E-02   6.6800E-02   8.7829E-04  0.0218
   6.6800E-02   6.8426E-02   9.3983E-04  0.0209
   6.8426E-02   7.0090E-02   9.1447E-04  0.0209
   7.0090E-02   7.1796E-02   8.5648E-04  0.0213
   7.1796E-02   7.3543E-02   8.3187E-04  0.0214
   7.3543E-02   7.5332E-02   8.6278E-04  0.0208
   7.5332E-02   7.7165E-02   8.2720E-04  0.0209
   7.7165E-02   7.9042E-02   8.1638E-04  0.0208
   7.9042E-02   8.0965E-02   7.8490E-04  0.0210
   8.0965E-02   8.2935E-02   7.8575E-04  0.0207
   8.2935E-02   8.4953E-02   7.9892E-04  0.0203
   8.4953E-02   8.7020E-02   7.8046E-04  0.0203
   8.7020E-02   8.9138E-02   7.5982E-04  0.0203
   8.9138E-02   9.1306E-02   7.4065E-04  0.0204
   9.1306E-02   9.3528E-02   7.3528E-04  0.0202
   9.3528E-02   9.5804E-02   7.4877E-04  0.0198
   9.5804E-02   9.8134E-02   7.0653E-04  0.0201
   9.8134E-02   1.0052E-01   6.9005E-04  0.0201
   1.0052E-01   1.0297E-01   6.7162E-04  0.0201
   1.0297E-01   1.0547E-01   7.0302E-04  0.0194
   1.0547E-01   1.0804E-01   6.6825E-04  0.0197
   1.0804E-01   1.1067E-01   6.7122E-04  0.0194
   1.1067E-01   1.1336E-01   6.3354E-04  0.0197
   1.1336E-01   1.1612E-01   6.2577E-04  0.0196
   1.1612E-01   1.1894E-01   6.0518E-04  0.0197
   1.1894E-01   1.2184E-01   6.1088E-04  0.0194
   1.2184E-01   1.2480E-01   5.8102E-04  0.0196
   1.2480E-01   1.2784E-01   5.5724E-04  0.0198
   1.2784E-01   1.3095E-01   5.7890E-04  0.0192
   1.3095E-01   1.3414E-01   5.6766E-04  0.0192
   1.3414E-01   1.3740E-01   5.2123E-04  0.0198
   1.3740E-01   1.4074E-01   5.3783E-04  0.0192
   1.4074E-01   1.4417E-01   5.3454E-04  0.0191
   1.4417E-01   1.4767E-01   5.2944E-04  0.0189
   1.4767E-01   1.5127E-01   5.2032E-04  0.0189
   1.5127E-01   1.5495E-01   5.0803E-04  0.0189
   1.5495E-01   1.5872E-01   4.7848E-04  0.0192
   1.5872E-01   1.6258E-01   4.8101E-04  0.0189
   1.6258E-01   1.6654E-01   4.6372E-04  0.0190
   1.6654E-01   1.7059E-01   4.5340E-04  0.0190
   1.7059E-01   1.7474E-01   4.5460E-04  0.0188
   1.7474E-01   1.7899E-01   4.3960E-04  0.0189
   1.7899E-01   1.8334E-01   4.4571E-04  0.0185
   1.8334E-01   1.8781E-01   4.1560E-04  0.0189
   1.8781E-01   1.9237E-01   4.0362E-04  0.0190
   1.9237E-01   1.9706E-01   4.1434E-04  0.0185
   1.9706E-01   2.0185E-01   3.9363E-04  0.0188
   2.0185E-01   2.0676E-01   4.0438E-04  0.0183
   2.0676E-01   2.1179E-01   4.0404E-04  0.0181
   2.1179E-01   2.1694E-01   4.1279E-04  0.0177
   2.1694E-01   2.2222E-01   4.2622E-04  0.0172
   2.2222E-01   2.2763E-01   4.4045E-04  0.0167
   2.2763E-01   2.3317E-01   4.3536E-04  0.0166
   2.3317E-01   2.3884E-01   4.5063E-04  0.0161
   2.3884E-01   2.4465E-01   4.6609E-04  0.0157
   2.4465E-01   2.5061E-01   4.8660E-04  0.0152
   2.5061E-01   2.5670E-01   4.7675E-04  0.0151
   2.5670E-01   2.6295E-01   5.0192E-04  0.0146
   2.6295E-01   2.6935E-01   4.9486E-04  0.0145
   2.6935E-01   2.7590E-01   4.8602E-04  0.0144
   2.7590E-01   2.8261E-01   5.2540E-04  0.0137
   2.8261E-01   2.8949E-01   5.2547E-04  0.0136
   2.8949E-01   2.9653E-01   5.4729E-04  0.0131
   2.9653E-01   3.0375E-01   5.4369E-04  0.0130
   3.0375E-01   3.1114E-01   5.5929E-04  0.0127
   3.1114E-01   3.1871E-01   5.6014E-04  0.0125
   3.1871E-01   3.2646E-01   5.7029E-04  0.0123
   3.2646E-01   3.3441E-01   5.7173E-04  0.0121
   3.3441E-01   3.4254E-01   5.8517E-04  0.0118
   3.4254E-01   3.5088E-01   5.9032E-04  0.0116
   3.5088E-01   3.5941E-01   6.0778E-04  0.0113
   3.5941E-01   3.6816E-01   5.9928E-04  0.0113
   3.6816E-01   3.7712E-01   6.1076E-04  0.0110
   3.7712E-01   3.8629E-01   6.2668E-04  0.0108
   3.8629E-01   3.9569E-01   6.2898E-04  0.0106
   3.9569E-01   4.0532E-01   6.2961E-04  0.0105
   4.0532E-01   4.1518E-01   6.4247E-04  0.0102
   4.1518E-01   4.2528E-01   6.5924E-04  0.0100
   4.2528E-01   4.3563E-01   6.5099E-04  0.0099
   4.3563E-01   4.4623E-01   6.6874E-04  0.0097
   4.4623E-01   4.5708E-01   6.6383E-04  0.0096
   4.5708E-01   4.6821E-01   6.5951E-04  0.0095
   4.6821E-01   4.7960E-01   6.9112E-04  0.0092
   4.7960E-01   4.9127E-01   6.9040E-04  0.0091
   4.9127E-01   5.0322E-01   7.0230E-04  0.0089
   5.0322E-01   5.1546E-01   6.9833E-04  0.0088
   5.1546E-01   5.2800E-01   7.0710E-04  0.0087
   5.2800E-01   5.4085E-01   7.0643E-04  0.0086
   5.4085E-01   5.5401E-01   7.1209E-04  0.0084
   5.5401E-01   5.6749E-01   7.1102E-04  0.0083
   5.6749E-01   5.8130E-01   7.2312E-04  0.0082
   5.8130E-01   5.9544E-01   7.3606E-04  0.0080
   5.9544E-01   6.0993E-01   7.3283E-04  0.0079
   6.0993E-01   6.2477E-01   7.4801E-04  0.0077
   6.2477E-01   6.3997E-01   7.2903E-04  0.0077
   6.3997E-01   6.5554E-01   7.3644E-04  0.0076
   6.5554E-01   6.7149E-01   7.5062E-04  0.0074
   6.7149E-01   6.8783E-01   7.5237E-04  0.0074
   6.8783E-01   7.0456E-01   7.4546E-04  0.0073
   7.0456E-01   7.2171E-01   7.4825E-04  0.0072
   7.2171E-01   7.3927E-01   7.4444E-04  0.0071
   7.3927E-01   7.5725E-01   7.4165E-04  0.0071
   7.5725E-01   7.7568E-01   7.5897E-04  0.0069
   7.7568E-01   7.9455E-01   7.4975E-04  0.0069
   7.9455E-01   8.1388E-01   7.3276E-04  0.0068
   8.1388E-01   8.3368E-01   7.3837E-04  0.0067
   8.3368E-01   8.5397E-01   7.3854E-04  0.0067
   8.5397E-01   8.7475E-01   7.2848E-04  0.0066
   8.7475E-01   8.9603E-01   7.2568E-04  0.0066
   8.9603E-01   9.1783E-01   7.2054E-04  0.0065
   9.1783E-01   9.4016E-01   7.1156E-04  0.0065
   9.4016E-01   9.6304E-01   6.9999E-04  0.0064
   9.6304E-01   9.8647E-01   6.8867E-04  0.0064
   9.8647E-01   1.0105E+00   6.6358E-04  0.0065
   1.0105E+00   1.0351E+00   6.6480E-04  0.0064
   1.0351E+00   1.0602E+00   6.5897E-04  0.0063
   1.0602E+00   1.0860E+00   6.5734E-04  0.0063
   1.0860E+00   1.1125E+00   6.7035E-04  0.0061
   1.1125E+00   1.1395E+00   6.6626E-04  0.0061
   1.1395E+00   1.1673E+00   6.7326E-04  0.0060
   1.1673E+00   1.1957E+00   6.7535E-04  0.0059
   1.1957E+00   1.2247E+00   6.8718E-04  0.0058
   1.2247E+00   1.2545E+00   6.8809E-04  0.0057
   1.2545E+00   1.2851E+00   6.8689E-04  0.0056
   1.2851E+00   1.3163E+00   6.8394E-04  0.0056
   1.3163E+00   1.3484E+00   6.7943E-04  0.0055
   1.3484E+00   1.3812E+00   6.9461E-04  0.0054
   1.3812E+00   1.4148E+00   7.0083E-04  0.0053
   1.4148E+00   1.4492E+00   6.9720E-04  0.0053
   1.4492E+00   1.4845E+00   6.9002E-04  0.0052
   1.4845E+00   1.5206E+00   6.9023E-04  0.0052
   1.5206E+00   1.5576E+00   6.7819E-04  0.0051
   1.5576E+00   1.5955E+00   6.8268E-04  0.0051
   1.5955E+00   1.6343E+00   6.7797E-04  0.0050
   1.6343E+00   1.6741E+00   6.7442E-04  0.0050
   1.6741E+00   1.7148E+00   6.7965E-04  0.0049
   1.7148E+00   1.7565E+00   6.7089E-04  0.0049
   1.7565E+00   1.7992E+00   6.6849E-04  0.0048
   1.7992E+00   1.8430E+00   6.6360E-04  0.0048
   1.8430E+00   1.8879E+00   6.5589E-04  0.0047
   1.8879E+00   1.9338E+00   6.5625E-04  0.0047
   1.9338E+00   1.9808E+00   6.5096E-04  0.0047
   1.9808E+00   2.0290E+00   6.5085E-04  0.0046
   2.0290E+00   2.0784E+00   6.4277E-04  0.0046
   2.0784E+00   2.1290E+00   6.4085E-04  0.0045
   2.1290E+00   2.1808E+00   6.3298E-04  0.0045
   2.1808E+00   2.2338E+00   6.2248E-04  0.0045
   2.2338E+00   2.2882E+00   6.1364E-04  0.0045
   2.2882E+00   2.3439E+00   6.1051E-04  0.0044
   2.3439E+00   2.4009E+00   6.0313E-04  0.0044
   2.4009E+00   2.4593E+00   6.0131E-04  0.0043
   2.4593E+00   2.5191E+00   5.9036E-04  0.0043
   2.5191E+00   2.5804E+00   5.8946E-04  0.0043
   2.5804E+00   2.6432E+00   5.7799E-04  0.0043
   2.6432E+00   2.7075E+00   5.7624E-04  0.0042
   2.7075E+00   2.7734E+00   5.6504E-04  0.0042
   2.7734E+00   2.8409E+00   5.6008E-04  0.0042
   2.8409E+00   2.9100E+00   5.5986E-04  0.0041
   2.9100E+00   2.9808E+00   5.5154E-04  0.0041
   2.9808E+00   3.0533E+00   5.4932E-04  0.0041
   3.0533E+00   3.1276E+00   5.4280E-04  0.0041
   3.1276E+00   3.2037E+00   5.3418E-04  0.0040
   3.2037E+00   3.2817E+00   5.2382E-04  0.0040
   3.2817E+00   3.3615E+00   5.1669E-04  0.0040
   3.3615E+00   3.4433E+00   5.1258E-04  0.0040
   3.4433E+00   3.5271E+00   5.0324E-04  0.0040
   3.5271E+00   3.6129E+00   4.9858E-04  0.0039
   3.6129E+00   3.7008E+00   4.9262E-04  0.0039
   3.7008E+00   3.7908E+00   4.8640E-04  0.0039
   3.7908E+00   3.8831E+00   4.8207E-04  0.0039
   3.8831E+00   3.9776E+00   4.7339E-04  0.0039
   3.9776E+00   4.0743E+00   4.6589E-04  0.0038
   4.0743E+00   4.1735E+00   4.6039E-04  0.0038
   4.1735E+00   4.2750E+00   4.5624E-04  0.0038
   4.2750E+00   4.3790E+00   4.5028E-04  0.0038
   4.3790E+00   4.4856E+00   4.4732E-04  0.0037
   4.4856E+00   4.5947E+00   4.4485E-04  0.0037
   4.5947E+00   4.7065E+00   4.4099E-04  0.0037
   4.7065E+00   4.8210E+00   4.4441E-04  0.0036
   4.8210E+00   4.9383E+00   4.3450E-04  0.0036
   4.9383E+00   5.0585E+00   4.3253E-04  0.0036
   5.0585E+00   5.1815E+00   4.2743E-04  0.0036
   5.1815E+00   5.3076E+00   4.2284E-04  0.0035
   5.3076E+00   5.4368E+00   4.1822E-04  0.0035
   5.4368E+00   5.5690E+00   4.1244E-04  0.0035
   5.5690E+00   5.7045E+00   4.0424E-04  0.0035
   5.7045E+00   5.8433E+00   3.9907E-04  0.0035
   5.8433E+00   5.9855E+00   3.9419E-04  0.0034
   5.9855E+00   6.1311E+00   3.8872E-04  0.0034
   6.1311E+00   6.2803E+00   3.8046E-04  0.0034
   6.2803E+00   6.4331E+00   3.7588E-04  0.0034
   6.4331E+00   6.5896E+00   3.6871E-04  0.0034
   6.5896E+00   6.7500E+00   3.6495E-04  0.0034
   6.7500E+00   6.9142E+00   3.6000E-04  0.0034
   6.9142E+00   7.0824E+00   3.5321E-04  0.0033
   7.0824E+00   7.2548E+00   3.5013E-04  0.0033
   7.2548E+00   7.4313E+00   3.4559E-04  0.0033
   7.4313E+00   7.6121E+00   3.4162E-04  0.0033
   7.6121E+00   7.7973E+00   3.3412E-04  0.0033
   7.7973E+00   7.9870E+00   3.3051E-04  0.0033
   7.9870E+00   8.1813E+00   3.2535E-04  0.0032
   8.1813E+00   8.3804E+00   3.2100E-04  0.0032
   8.3804E+00   8.5843E+00   3.1334E-04  0.0032
   8.5843E+00   8.7931E+00   3.0744E-04  0.0032
   8.7931E+00   9.0071E+00   3.0242E-04  0.0032
   9.0071E+00   9.2262E+00   3.0008E-04  0.0032
   9.2262E+00   9.4507E+00   2.9280E-04  0.0032
   9.4507E+00   9.6807E+00   2.8788E-04  0.0032
   9.6807E+00   9.9162E+00   2.8440E-04  0.0032
   9.9162E+00   1.0157E+01   2.8043E-04  0.0031
   1.0157E+01   1.0405E+01   2.7433E-04  0.0031
   1.0405E+01   1.0658E+01   2.7173E-04  0.0031
   1.0658E+01   1.0917E+01   2.6879E-04  0.0031
   1.0917E+01   1.1183E+01   2.6640E-04  0.0031
   1.1183E+01   1.1455E+01   2.6146E-04  0.0031
   1.1455E+01   1.1733E+01   2.5710E-04  0.0031
   1.1733E+01   1.2019E+01   2.5360E-04  0.0030
   1.2019E+01   1.2311E+01   2.4930E-04  0.0030
   1.2311E+01   1.2611E+01   2.4353E-04  0.0030
   1.2611E+01   1.2918E+01   2.4144E-04  0.0030
   1.2918E+01   1.3232E+01   2.3830E-04  0.0030
   1.3232E+01   1.3554E+01   2.3393E-04  0.0030
   1.3554E+01   1.3884E+01   2.2900E-04  0.0030
   1.3884E+01   1.4222E+01   2.2574E-04  0.0030
   1.4222E+01   1.4568E+01   2.2097E-04  0.0030
   1.4568E+01   1.4922E+01   2.1810E-04  0.0029
   1.4922E+01   1.5285E+01   2.1377E-04  0.0029
   1.5285E+01   1.5657E+01   2.0951E-04  0.0029
   1.5657E+01   1.6038E+01   2.0625E-04  0.0029
   1.6038E+01   1.6428E+01   2.0128E-04  0.0029
   1.6428E+01   1.6828E+01   1.9800E-04  0.0029
   1.6828E+01   1.7237E+01   1.9319E-04  0.0029
   1.7237E+01   1.7657E+01   1.8956E-04  0.0029
   1.7657E+01   1.8086E+01   1.8509E-04  0.0029
   1.8086E+01   1.8526E+01   1.8105E-04  0.0029
   1.8526E+01   1.8977E+01   1.7670E-04  0.0029
   1.8977E+01   1.9439E+01   1.7236E-04  0.0029
   1.9439E+01   1.9912E+01   1.6892E-04  0.0029
   1.9912E+01   2.0396E+01   1.6676E-04  0.0029
   2.0396E+01   2.0893E+01   1.6344E-04  0.0029
   2.0893E+01   2.1401E+01   1.5736E-04  0.0029
   2.1401E+01   2.1922E+01   1.5303E-04  0.0029
   2.1922E+01   2.2455E+01   1.4810E-04  0.0029
   2.2455E+01   2.3001E+01   1.4354E-04  0.0029
   2.3001E+01   2.3561E+01   1.3850E-04  0.0029
   2.3561E+01   2.4134E+01   1.3348E-04  0.0030
   2.4134E+01   2.4721E+01   1.2856E-04  0.0030
   2.4721E+01   2.5323E+01   1.2373E-04  0.0030
   2.5323E+01   2.5939E+01   1.1859E-04  0.0030
   2.5939E+01   2.6570E+01   1.1381E-04  0.0030
   2.6570E+01   2.7217E+01   1.0837E-04  0.0031
   2.7217E+01   2.7879E+01   1.0342E-04  0.0031
   2.7879E+01   2.8557E+01   9.8550E-05  0.0032
   2.8557E+01   2.9252E+01   9.3311E-05  0.0032
   2.9252E+01   2.9964E+01   8.9328E-05  0.0032
   2.9964E+01   3.0693E+01   8.4484E-05  0.0033
   3.0693E+01   3.1440E+01   7.9721E-05  0.0033
   3.1440E+01   3.2205E+01   7.5661E-05  0.0034
   3.2205E+01   3.2988E+01   7.0682E-05  0.0035
   3.2988E+01   3.3791E+01   6.6641E-05  0.0035
   3.3791E+01   3.4613E+01   6.2449E-05  0.0036
   3.4613E+01   3.5455E+01   5.8641E-05  0.0037
   3.5455E+01   3.6318E+01   5.4471E-05  0.0038
   3.6318E+01   3.7201E+01   5.1049E-05  0.0038
   3.7201E+01   3.8106E+01   4.7736E-05  0.0039
   3.8106E+01   3.9034E+01   4.4018E-05  0.0040
   3.9034E+01   3.9983E+01   4.1017E-05  0.0041
   3.9983E+01   4.0956E+01   3.8245E-05  0.0042
   4.0956E+01   4.1953E+01   3.5205E-05  0.0044
   4.1953E+01   4.2973E+01   3.2339E-05  0.0045
   4.2973E+01   4.4019E+01   3.0097E-05  0.0046
   4.4019E+01   4.5090E+01   2.7606E-05  0.0047
   4.5090E+01   4.6187E+01   2.5443E-05  0.0049
   4.6187E+01   4.7311E+01   2.3402E-05  0.0050
   4.7311E+01   4.8462E+01   2.1599E-05  0.0052
   4.8462E+01   4.9641E+01   1.9719E-05  0.0054
   4.9641E+01   5.0849E+01   1.7860E-05  0.0056
   5.0849E+01   5.2086E+01   1.6564E-05  0.0057
   5.2086E+01   5.3353E+01   1.5020E-05  0.0059
   5.3353E+01   5.4651E+01   1.3675E-05  0.0061
   5.4651E+01   5.5981E+01   1.2402E-05  0.0064
   5.5981E+01   5.7343E+01   1.1462E-05  0.0065
   5.7343E+01   5.8738E+01   1.0381E-05  0.0068
   5.8738E+01   6.0168E+01   9.4154E-06  0.0070
   6.0168E+01   6.1632E+01   8.4877E-06  0.0073
   6.1632E+01   6.3131E+01   7.6485E-06  0.0076
   6.3131E+01   6.4667E+01   6.7998E-06  0.0080
   6.4667E+01   6.6240E+01   6.0650E-06  0.0084
   6.6240E+01   6.7852E+01   5.5015E-06  0.0087
   6.7852E+01   6.9503E+01   4.9000E-06  0.0091
   6.9503E+01   7.1194E+01   4.3949E-06  0.0095
   7.1194E+01   7.2926E+01   3.7928E-06  0.0101
   7.2926E+01   7.4701E+01   3.4337E-06  0.0105
   7.4701E+01   7.6518E+01   2.9744E-06  0.0111
   7.6518E+01   7.8380E+01   2.5925E-06  0.0118
   7.8380E+01   8.0287E+01   2.2884E-06  0.0124
   8.0287E+01   8.2240E+01   2.0217E-06  0.0130
   8.2240E+01   8.4241E+01   1.8451E-06  0.0134
   8.4241E+01   8.6291E+01   1.6312E-06  0.0141
   8.6291E+01   8.8391E+01   1.3613E-06  0.0153
   8.8391E+01   9.0541E+01   1.1423E-06  0.0165
   9.0541E+01   9.2744E+01   9.2755E-07  0.0181
   9.2744E+01   9.5001E+01   7.4834E-07  0.0199
   9.5001E+01   9.7312E+01   5.5377E-07  0.0228
   9.7312E+01   9.9680E+01   3.9138E-07  0.0268
   9.9680E+01   1.0211E+02   2.4822E-07  0.0333
   1.0211E+02   1.0459E+02   1.0627E-07  0.0503
   1.0459E+02   1.0713E+02   3.5891E-08  0.0854
   1.0713E+02   1.0974E+02   2.5576E-10  1.0000
   1.0974E+02   1.1241E+02   0.0000E+00  0.0000
   1.1241E+02   1.1515E+02   0.0000E+00  0.0000
   1.1515E+02   1.1795E+02   0.0000E+00  0.0000
   1.1795E+02   1.2082E+02   0.0000E+00  0.0000
   1.2082E+02   1.2376E+02   0.0000E+00  0.0000
   1.2376E+02   1.2677E+02   0.0000E+00  0.0000
   1.2677E+02   1.2985E+02   0.0000E+00  0.0000
   1.2985E+02   1.3301E+02   0.0000E+00  0.0000
   1.3301E+02   1.3625E+02   0.0000E+00  0.0000
   1.3625E+02   1.3956E+02   0.0000E+00  0.0000
   1.3956E+02   1.4296E+02   0.0000E+00  0.0000
   1.4296E+02   1.4644E+02   0.0000E+00  0.0000
   1.4644E+02   1.5000E+02   0.0000E+00  0.0000

#   sum over                 6.1285E-05
'no. =    1   reg = 109 - 209'
msuc: {\huge [t-cross] in region mesh}
msdr: {\it plotted by \ANGEL \version}
msdl: {\it calculated by \PHITS  3.26}
wt: s(0.7)
\vspace{-3}
  region surface crossing
  area  &=&   1.0000E+00 [cm^2]
e:
 
# Information for Restart Calculation
# This calculation was newly started
# istdev =  2 # 1:Batch variance, 2:History variance
# resc2  = 1.50000000000000000E+09 # Total source weight or Total source weight / maxcas
# resc3  = 1.50000000000000000E+09 # Total history number or Total batch number
# maxcas =   500000000 # History / Batch, only used for istdev=1
# bitrseed = 0000010101110101110110100110011001100101000001100111100100101101 # bit data of rseed
