[ T-Cross ]
    title = [t-cross] in region mesh
     mesh =  reg            # mesh type is region-wise
      reg =    1            # number of crossing regions
      non     r-from    r-to       area
      1       121       221        1.000000    
   e-type =    3            # e-mesh is log given by emin, emax and ne
     emin =  1.0000000E-02  # minimum value of e-mesh points
     emax =   150.0000      # maximum value of e-mesh points
#    edel =  2.4039514E-02  # mesh width of e-mesh points
       ne =    400          # number of e-mesh points
#    data = ( e(i), i = 1, ne + 1 )
#           1.00000E-02  1.02433E-02  1.04925E-02  1.07478E-02  1.10093E-02
#           1.12772E-02  1.15516E-02  1.18326E-02  1.21205E-02  1.24154E-02
#           1.27175E-02  1.30269E-02  1.33439E-02  1.36686E-02  1.40011E-02
#           1.43418E-02  1.46907E-02  1.50482E-02  1.54143E-02  1.57894E-02
#           1.61735E-02  1.65670E-02  1.69701E-02  1.73830E-02  1.78060E-02
#           1.82392E-02  1.86830E-02  1.91375E-02  1.96032E-02  2.00801E-02
#           2.05687E-02  2.10692E-02  2.15818E-02  2.21069E-02  2.26448E-02
#           2.31957E-02  2.37601E-02  2.43382E-02  2.49304E-02  2.55369E-02
#           2.61583E-02  2.67947E-02  2.74467E-02  2.81145E-02  2.87985E-02
#           2.94992E-02  3.02169E-02  3.09521E-02  3.17052E-02  3.24766E-02
#           3.32668E-02  3.40762E-02  3.49053E-02  3.57546E-02  3.66246E-02
#           3.75157E-02  3.84284E-02  3.93634E-02  4.03212E-02  4.13022E-02
#           4.23071E-02  4.33365E-02  4.43909E-02  4.54710E-02  4.65773E-02
#           4.77106E-02  4.88714E-02  5.00605E-02  5.12785E-02  5.25262E-02
#           5.38042E-02  5.51133E-02  5.64542E-02  5.78278E-02  5.92348E-02
#           6.06760E-02  6.21523E-02  6.36645E-02  6.52135E-02  6.68002E-02
#           6.84255E-02  7.00904E-02  7.17957E-02  7.35426E-02  7.53319E-02
#           7.71648E-02  7.90423E-02  8.09655E-02  8.29354E-02  8.49533E-02
#           8.70203E-02  8.91376E-02  9.13064E-02  9.35279E-02  9.58035E-02
#           9.81345E-02  1.00522E-01  1.02968E-01  1.05473E-01  1.08040E-01
#           1.10668E-01  1.13361E-01  1.16119E-01  1.18944E-01  1.21838E-01
#           1.24803E-01  1.27839E-01  1.30950E-01  1.34136E-01  1.37399E-01
#           1.40742E-01  1.44167E-01  1.47675E-01  1.51268E-01  1.54948E-01
#           1.58718E-01  1.62580E-01  1.66535E-01  1.70587E-01  1.74738E-01
#           1.78989E-01  1.83344E-01  1.87805E-01  1.92375E-01  1.97055E-01
#           2.01850E-01  2.06761E-01  2.11792E-01  2.16945E-01  2.22223E-01
#           2.27630E-01  2.33169E-01  2.38842E-01  2.44653E-01  2.50605E-01
#           2.56703E-01  2.62949E-01  2.69346E-01  2.75900E-01  2.82613E-01
#           2.89489E-01  2.96532E-01  3.03747E-01  3.11138E-01  3.18708E-01
#           3.26462E-01  3.34405E-01  3.42542E-01  3.50876E-01  3.59413E-01
#           3.68158E-01  3.77116E-01  3.86291E-01  3.95690E-01  4.05317E-01
#           4.15179E-01  4.25281E-01  4.35628E-01  4.46227E-01  4.57084E-01
#           4.68205E-01  4.79597E-01  4.91266E-01  5.03219E-01  5.15463E-01
#           5.28005E-01  5.40851E-01  5.54011E-01  5.67490E-01  5.81298E-01
#           5.95441E-01  6.09929E-01  6.24769E-01  6.39970E-01  6.55541E-01
#           6.71491E-01  6.87828E-01  7.04564E-01  7.21706E-01  7.39266E-01
#           7.57253E-01  7.75678E-01  7.94551E-01  8.13883E-01  8.33685E-01
#           8.53969E-01  8.74747E-01  8.96030E-01  9.17831E-01  9.40163E-01
#           9.63038E-01  9.86469E-01  1.01047E+00  1.03506E+00  1.06024E+00
#           1.08604E+00  1.11246E+00  1.13953E+00  1.16725E+00  1.19565E+00
#           1.22474E+00  1.25454E+00  1.28507E+00  1.31633E+00  1.34836E+00
#           1.38117E+00  1.41477E+00  1.44920E+00  1.48446E+00  1.52057E+00
#           1.55757E+00  1.59547E+00  1.63429E+00  1.67405E+00  1.71478E+00
#           1.75650E+00  1.79924E+00  1.84302E+00  1.88786E+00  1.93379E+00
#           1.98084E+00  2.02904E+00  2.07841E+00  2.12898E+00  2.18078E+00
#           2.23384E+00  2.28819E+00  2.34386E+00  2.40089E+00  2.45930E+00
#           2.51914E+00  2.58043E+00  2.64322E+00  2.70753E+00  2.77341E+00
#           2.84088E+00  2.91001E+00  2.98081E+00  3.05333E+00  3.12762E+00
#           3.20372E+00  3.28167E+00  3.36152E+00  3.44330E+00  3.52708E+00
#           3.61290E+00  3.70080E+00  3.79085E+00  3.88308E+00  3.97756E+00
#           4.07434E+00  4.17347E+00  4.27501E+00  4.37903E+00  4.48557E+00
#           4.59471E+00  4.70650E+00  4.82102E+00  4.93832E+00  5.05847E+00
#           5.18155E+00  5.30762E+00  5.43676E+00  5.56904E+00  5.70453E+00
#           5.84333E+00  5.98550E+00  6.13114E+00  6.28031E+00  6.43312E+00
#           6.58964E+00  6.74997E+00  6.91420E+00  7.08243E+00  7.25475E+00
#           7.43126E+00  7.61207E+00  7.79728E+00  7.98700E+00  8.18133E+00
#           8.38038E+00  8.58428E+00  8.79315E+00  9.00709E+00  9.22624E+00
#           9.45072E+00  9.68067E+00  9.91620E+00  1.01575E+01  1.04046E+01
#           1.06578E+01  1.09171E+01  1.11827E+01  1.14548E+01  1.17335E+01
#           1.20190E+01  1.23114E+01  1.26109E+01  1.29178E+01  1.32321E+01
#           1.35540E+01  1.38838E+01  1.42216E+01  1.45676E+01  1.49221E+01
#           1.52851E+01  1.56570E+01  1.60380E+01  1.64282E+01  1.68279E+01
#           1.72374E+01  1.76568E+01  1.80864E+01  1.85264E+01  1.89772E+01
#           1.94389E+01  1.99119E+01  2.03963E+01  2.08926E+01  2.14009E+01
#           2.19216E+01  2.24550E+01  2.30014E+01  2.35610E+01  2.41343E+01
#           2.47215E+01  2.53230E+01  2.59391E+01  2.65702E+01  2.72167E+01
#           2.78789E+01  2.85572E+01  2.92520E+01  2.99637E+01  3.06928E+01
#           3.14396E+01  3.22045E+01  3.29881E+01  3.37907E+01  3.46128E+01
#           3.54550E+01  3.63177E+01  3.72013E+01  3.81064E+01  3.90336E+01
#           3.99833E+01  4.09561E+01  4.19526E+01  4.29734E+01  4.40189E+01
#           4.50900E+01  4.61870E+01  4.73108E+01  4.84619E+01  4.96410E+01
#           5.08488E+01  5.20860E+01  5.33533E+01  5.46514E+01  5.59812E+01
#           5.73432E+01  5.87384E+01  6.01676E+01  6.16315E+01  6.31311E+01
#           6.46671E+01  6.62405E+01  6.78522E+01  6.95031E+01  7.11941E+01
#           7.29263E+01  7.47007E+01  7.65182E+01  7.83800E+01  8.02870E+01
#           8.22405E+01  8.42414E+01  8.62911E+01  8.83906E+01  9.05412E+01
#           9.27442E+01  9.50007E+01  9.73122E+01  9.96799E+01  1.02105E+02
#           1.04589E+02  1.07134E+02  1.09741E+02  1.12411E+02  1.15146E+02
#           1.17948E+02  1.20817E+02  1.23757E+02  1.26768E+02  1.29852E+02
#           1.33012E+02  1.36248E+02  1.39563E+02  1.42959E+02  1.46437E+02
#           1.50000E+02
     unit =    2            # unit is [1/cm^2/(MeV/n)/source]
     axis =  eng            # axis of output
     file = detector-22.out  # file name of output for the above axis
   output = f-curr          # surface crossing forward current spectrum
     part =  neutron  
# kf/name :  2112     
#    used :        main (  %)        temp (  %)       total (  %)
#  memory :         414 (  0)           0 (  0)         414 (  0)

#------------------------------------------------------------------------------
#newpage:
#   no. =    1   reg = 121 - 221

x: Energy [MeV/n]
y:  F-Curr [1/cm^2/(MeV/n)/source]         
p: xlog ylog afac(0.8) form(0.9)
h: n            x            y(neutron ),hh0l   n 
#  e-lower      e-upper      neutron     r.err 
   1.0000E-02   1.0243E-02   7.6446E-04  0.1037
   1.0243E-02   1.0493E-02   7.2351E-04  0.1052
   1.0493E-02   1.0748E-02   6.9516E-04  0.1055
   1.0748E-02   1.1009E-02   7.7075E-04  0.0994
   1.1009E-02   1.1277E-02   6.6235E-04  0.1059
   1.1277E-02   1.1552E-02   6.3261E-04  0.1070
   1.1552E-02   1.1833E-02   6.5584E-04  0.1041
   1.1833E-02   1.2121E-02   6.8405E-04  0.1006
   1.2121E-02   1.2415E-02   6.7480E-04  0.1001
   1.2415E-02   1.2718E-02   5.6277E-04  0.1085
   1.2718E-02   1.3027E-02   5.7202E-04  0.1061
   1.3027E-02   1.3344E-02   5.6398E-04  0.1056
   1.3344E-02   1.3669E-02   6.7282E-04  0.0956
   1.3669E-02   1.4001E-02   6.0238E-04  0.0998
   1.4001E-02   1.4342E-02   5.2935E-04  0.1052
   1.4342E-02   1.4691E-02   6.3620E-04  0.0949
   1.4691E-02   1.5048E-02   6.9103E-04  0.0899
   1.5048E-02   1.5414E-02   5.8995E-04  0.0960
   1.5414E-02   1.5789E-02   6.0074E-04  0.0941
   1.5789E-02   1.6174E-02   5.6043E-04  0.0962
   1.6174E-02   1.6567E-02   5.7939E-04  0.0937
   1.6567E-02   1.6970E-02   4.8207E-04  0.1014
   1.6970E-02   1.7383E-02   5.0679E-04  0.0976
   1.7383E-02   1.7806E-02   4.7919E-04  0.0992
   1.7806E-02   1.8239E-02   4.8934E-04  0.0971
   1.8239E-02   1.8683E-02   5.4238E-04  0.0908
   1.8683E-02   1.9138E-02   5.6676E-04  0.0879
   1.9138E-02   1.9603E-02   5.8181E-04  0.0858
   1.9603E-02   2.0080E-02   4.9753E-04  0.0915
   2.0080E-02   2.0569E-02   4.4144E-04  0.0961
   2.0569E-02   2.1069E-02   3.6285E-04  0.1047
   2.1069E-02   2.1582E-02   4.9023E-04  0.0889
   2.1582E-02   2.2107E-02   4.5439E-04  0.0913
   2.2107E-02   2.2645E-02   3.8175E-04  0.0985
   2.2645E-02   2.3196E-02   4.1019E-04  0.0939
   2.3196E-02   2.3760E-02   4.0622E-04  0.0933
   2.3760E-02   2.4338E-02   4.5042E-04  0.0876
   2.4338E-02   2.4930E-02   4.7159E-04  0.0845
   2.4930E-02   2.5537E-02   4.5612E-04  0.0848
   2.5537E-02   2.6158E-02   3.9317E-04  0.0901
   2.6158E-02   2.6795E-02   3.4567E-04  0.0953
   2.6795E-02   2.7447E-02   4.0234E-04  0.0873
   2.7447E-02   2.8114E-02   3.8580E-04  0.0878
   2.8114E-02   2.8799E-02   4.7343E-04  0.0784
   2.8799E-02   2.9499E-02   3.1683E-04  0.0949
   2.9499E-02   3.0217E-02   3.7714E-04  0.0859
   3.0217E-02   3.0952E-02   3.5636E-04  0.0874
   3.0952E-02   3.1705E-02   3.8674E-04  0.0827
   3.1705E-02   3.2477E-02   3.6724E-04  0.0839
   3.2477E-02   3.3267E-02   3.6321E-04  0.0834
   3.3267E-02   3.4076E-02   3.5087E-04  0.0839
   3.4076E-02   3.4905E-02   3.5101E-04  0.0828
   3.4905E-02   3.5755E-02   3.4618E-04  0.0823
   3.5755E-02   3.6625E-02   2.7588E-04  0.0911
   3.6625E-02   3.7516E-02   3.3701E-04  0.0816
   3.7516E-02   3.8428E-02   3.4828E-04  0.0792
   3.8428E-02   3.9363E-02   3.0410E-04  0.0838
   3.9363E-02   4.0321E-02   3.0040E-04  0.0831
   4.0321E-02   4.1302E-02   3.3068E-04  0.0785
   4.1302E-02   4.2307E-02   2.9127E-04  0.0824
   4.2307E-02   4.3337E-02   3.1281E-04  0.0788
   4.3337E-02   4.4391E-02   3.1105E-04  0.0779
   4.4391E-02   4.5471E-02   3.0120E-04  0.0783
   4.5471E-02   4.6577E-02   2.7167E-04  0.0815
   4.6577E-02   4.7711E-02   2.4290E-04  0.0851
   4.7711E-02   4.8871E-02   2.8600E-04  0.0776
   4.8871E-02   5.0061E-02   2.9204E-04  0.0758
   5.0061E-02   5.1279E-02   2.5690E-04  0.0797
   5.1279E-02   5.2526E-02   2.8213E-04  0.0754
   5.2526E-02   5.3804E-02   2.6315E-04  0.0770
   5.3804E-02   5.5113E-02   2.5735E-04  0.0770
   5.5113E-02   5.6454E-02   2.3486E-04  0.0796
   5.6454E-02   5.7828E-02   2.4044E-04  0.0778
   5.7828E-02   5.9235E-02   2.5284E-04  0.0749
   5.9235E-02   6.0676E-02   2.5024E-04  0.0744
   6.0676E-02   6.2152E-02   2.2732E-04  0.0771
   6.2152E-02   6.3665E-02   2.1779E-04  0.0778
   6.3665E-02   6.5214E-02   2.3241E-04  0.0745
   6.5214E-02   6.6800E-02   2.2097E-04  0.0754
   6.6800E-02   6.8426E-02   2.0692E-04  0.0771
   6.8426E-02   7.0090E-02   2.1739E-04  0.0742
   7.0090E-02   7.1796E-02   2.2008E-04  0.0729
   7.1796E-02   7.3543E-02   2.2326E-04  0.0715
   7.3543E-02   7.5332E-02   1.9130E-04  0.0763
   7.5332E-02   7.7165E-02   2.0783E-04  0.0724
   7.7165E-02   7.9042E-02   2.0773E-04  0.0716
   7.9042E-02   8.0965E-02   1.7783E-04  0.0765
   8.0965E-02   8.2935E-02   2.0021E-04  0.0711
   8.2935E-02   8.4953E-02   1.9610E-04  0.0709
   8.4953E-02   8.7020E-02   1.8510E-04  0.0723
   8.7020E-02   8.9138E-02   1.6888E-04  0.0747
   8.9138E-02   9.1306E-02   1.9379E-04  0.0690
   9.1306E-02   9.3528E-02   1.5947E-04  0.0750
   9.3528E-02   9.5804E-02   1.6979E-04  0.0718
   9.5804E-02   9.8134E-02   1.7119E-04  0.0706
   9.8134E-02   1.0052E-01   1.5929E-04  0.0725
   1.0052E-01   1.0297E-01   1.7114E-04  0.0690
   1.0297E-01   1.0547E-01   1.6788E-04  0.0688
   1.0547E-01   1.0804E-01   1.7325E-04  0.0670
   1.0804E-01   1.1067E-01   1.6422E-04  0.0680
   1.1067E-01   1.1336E-01   1.4410E-04  0.0717
   1.1336E-01   1.1612E-01   1.5525E-04  0.0682
   1.1612E-01   1.1894E-01   1.5575E-04  0.0673
   1.1894E-01   1.2184E-01   1.3852E-04  0.0706
   1.2184E-01   1.2480E-01   1.5343E-04  0.0663
   1.2480E-01   1.2784E-01   1.4643E-04  0.0670
   1.2784E-01   1.3095E-01   1.4050E-04  0.0676
   1.3095E-01   1.3414E-01   1.3853E-04  0.0672
   1.3414E-01   1.3740E-01   1.2337E-04  0.0703
   1.3740E-01   1.4074E-01   1.1229E-04  0.0729
   1.4074E-01   1.4417E-01   1.1318E-04  0.0717
   1.4417E-01   1.4767E-01   1.2629E-04  0.0671
   1.4767E-01   1.5127E-01   1.2450E-04  0.0668
   1.5127E-01   1.5495E-01   1.1167E-04  0.0697
   1.5495E-01   1.5872E-01   9.7523E-05  0.0736
   1.5872E-01   1.6258E-01   1.1187E-04  0.0680
   1.6258E-01   1.6654E-01   1.0981E-04  0.0676
   1.6654E-01   1.7059E-01   1.0273E-04  0.0692
   1.7059E-01   1.7474E-01   1.0123E-04  0.0689
   1.7474E-01   1.7899E-01   9.0920E-05  0.0719
   1.7899E-01   1.8334E-01   9.2444E-05  0.0703
   1.8334E-01   1.8781E-01   9.3256E-05  0.0692
   1.8781E-01   1.9237E-01   1.0928E-04  0.0632
   1.9237E-01   1.9706E-01   9.7786E-05  0.0660
   1.9706E-01   2.0185E-01   7.8552E-05  0.0728
   2.0185E-01   2.0676E-01   8.1826E-05  0.0704
   2.0676E-01   2.1179E-01   9.0356E-05  0.0662
   2.1179E-01   2.1694E-01   9.0478E-05  0.0654
   2.1694E-01   2.2222E-01   9.4023E-05  0.0634
   2.2222E-01   2.2763E-01   9.2845E-05  0.0631
   2.2763E-01   2.3317E-01   9.1940E-05  0.0625
   2.3317E-01   2.3884E-01   8.6472E-05  0.0638
   2.3884E-01   2.4465E-01   9.6043E-05  0.0597
   2.4465E-01   2.5061E-01   1.0689E-04  0.0560
   2.5061E-01   2.5670E-01   1.0090E-04  0.0569
   2.5670E-01   2.6295E-01   9.6051E-05  0.0577
   2.6295E-01   2.6935E-01   9.3055E-05  0.0579
   2.6935E-01   2.7590E-01   1.0849E-04  0.0530
   2.7590E-01   2.8261E-01   1.1070E-04  0.0518
   2.8261E-01   2.8949E-01   1.0740E-04  0.0519
   2.8949E-01   2.9653E-01   1.0310E-04  0.0523
   2.9653E-01   3.0375E-01   1.1541E-04  0.0489
   3.0375E-01   3.1114E-01   1.0285E-04  0.0512
   3.1114E-01   3.1871E-01   1.0991E-04  0.0489
   3.1871E-01   3.2646E-01   1.1338E-04  0.0476
   3.2646E-01   3.3441E-01   1.1299E-04  0.0471
   3.3441E-01   3.4254E-01   1.0684E-04  0.0479
   3.4254E-01   3.5088E-01   1.1588E-04  0.0454
   3.5088E-01   3.5941E-01   1.1115E-04  0.0458
   3.5941E-01   3.6816E-01   1.1840E-04  0.0438
   3.6816E-01   3.7712E-01   1.2278E-04  0.0425
   3.7712E-01   3.8629E-01   1.1218E-04  0.0440
   3.8629E-01   3.9569E-01   1.1805E-04  0.0424
   3.9569E-01   4.0532E-01   1.1531E-04  0.0424
   4.0532E-01   4.1518E-01   1.1704E-04  0.0415
   4.1518E-01   4.2528E-01   1.1537E-04  0.0413
   4.2528E-01   4.3563E-01   1.1982E-04  0.0401
   4.3563E-01   4.4623E-01   1.1522E-04  0.0403
   4.4623E-01   4.5708E-01   1.2119E-04  0.0389
   4.5708E-01   4.6821E-01   1.1499E-04  0.0395
   4.6821E-01   4.7960E-01   1.1155E-04  0.0396
   4.7960E-01   4.9127E-01   1.1774E-04  0.0380
   4.9127E-01   5.0322E-01   1.1998E-04  0.0372
   5.0322E-01   5.1546E-01   1.1816E-04  0.0371
   5.1546E-01   5.2800E-01   1.2029E-04  0.0363
   5.2800E-01   5.4085E-01   1.1746E-04  0.0363
   5.4085E-01   5.5401E-01   1.1399E-04  0.0365
   5.5401E-01   5.6749E-01   1.1181E-04  0.0363
   5.6749E-01   5.8130E-01   1.1767E-04  0.0350
   5.8130E-01   5.9544E-01   1.1696E-04  0.0347
   5.9544E-01   6.0993E-01   1.1724E-04  0.0342
   6.0993E-01   6.2477E-01   1.2195E-04  0.0331
   6.2477E-01   6.3997E-01   1.2068E-04  0.0329
   6.3997E-01   6.5554E-01   1.1910E-04  0.0327
   6.5554E-01   6.7149E-01   1.1350E-04  0.0331
   6.7149E-01   6.8783E-01   1.1941E-04  0.0319
   6.8783E-01   7.0456E-01   1.1283E-04  0.0325
   7.0456E-01   7.2171E-01   1.1262E-04  0.0321
   7.2171E-01   7.3927E-01   1.1725E-04  0.0311
   7.3927E-01   7.5725E-01   1.0693E-04  0.0321
   7.5725E-01   7.7568E-01   1.1074E-04  0.0312
   7.7568E-01   7.9455E-01   1.0966E-04  0.0310
   7.9455E-01   8.1388E-01   1.0942E-04  0.0306
   8.1388E-01   8.3368E-01   1.0412E-04  0.0311
   8.3368E-01   8.5397E-01   1.0328E-04  0.0308
   8.5397E-01   8.7475E-01   1.0386E-04  0.0304
   8.7475E-01   8.9603E-01   9.6972E-05  0.0310
   8.9603E-01   9.1783E-01   9.4464E-05  0.0311
   9.1783E-01   9.4016E-01   9.1916E-05  0.0311
   9.4016E-01   9.6304E-01   9.1276E-05  0.0309
   9.6304E-01   9.8647E-01   9.1564E-05  0.0304
   9.8647E-01   1.0105E+00   8.7194E-05  0.0308
   1.0105E+00   1.0351E+00   8.3044E-05  0.0312
   1.0351E+00   1.0602E+00   7.9070E-05  0.0316
   1.0602E+00   1.0860E+00   7.9402E-05  0.0311
   1.0860E+00   1.1125E+00   7.7697E-05  0.0311
   1.1125E+00   1.1395E+00   7.4877E-05  0.0313
   1.1395E+00   1.1673E+00   7.4795E-05  0.0309
   1.1673E+00   1.1957E+00   7.3213E-05  0.0309
   1.1957E+00   1.2247E+00   6.7971E-05  0.0316
   1.2247E+00   1.2545E+00   6.8946E-05  0.0310
   1.2545E+00   1.2851E+00   6.6472E-05  0.0312
   1.2851E+00   1.3163E+00   6.2324E-05  0.0319
   1.3163E+00   1.3484E+00   6.5096E-05  0.0308
   1.3484E+00   1.3812E+00   6.0318E-05  0.0317
   1.3812E+00   1.4148E+00   5.9126E-05  0.0316
   1.4148E+00   1.4492E+00   5.7258E-05  0.0317
   1.4492E+00   1.4845E+00   5.3924E-05  0.0323
   1.4845E+00   1.5206E+00   5.5474E-05  0.0314
   1.5206E+00   1.5576E+00   5.0106E-05  0.0327
   1.5576E+00   1.5955E+00   5.0474E-05  0.0322
   1.5955E+00   1.6343E+00   4.8799E-05  0.0324
   1.6343E+00   1.6741E+00   4.8342E-05  0.0321
   1.6741E+00   1.7148E+00   4.3522E-05  0.0334
   1.7148E+00   1.7565E+00   4.6461E-05  0.0319
   1.7565E+00   1.7992E+00   4.3806E-05  0.0325
   1.7992E+00   1.8430E+00   4.2235E-05  0.0327
   1.8430E+00   1.8879E+00   4.1938E-05  0.0325
   1.8879E+00   1.9338E+00   4.0899E-05  0.0324
   1.9338E+00   1.9808E+00   3.8206E-05  0.0332
   1.9808E+00   2.0290E+00   3.7526E-05  0.0331
   2.0290E+00   2.0784E+00   3.8610E-05  0.0322
   2.0784E+00   2.1290E+00   3.7582E-05  0.0322
   2.1290E+00   2.1808E+00   3.8264E-05  0.0316
   2.1808E+00   2.2338E+00   3.4496E-05  0.0329
   2.2338E+00   2.2882E+00   3.5665E-05  0.0320
   2.2882E+00   2.3439E+00   3.3740E-05  0.0324
   2.3439E+00   2.4009E+00   3.3091E-05  0.0324
   2.4009E+00   2.4593E+00   3.1754E-05  0.0326
   2.4593E+00   2.5191E+00   2.9744E-05  0.0333
   2.5191E+00   2.5804E+00   2.9401E-05  0.0331
   2.5804E+00   2.6432E+00   2.9874E-05  0.0324
   2.6432E+00   2.7075E+00   2.9446E-05  0.0323
   2.7075E+00   2.7734E+00   2.8145E-05  0.0327
   2.7734E+00   2.8409E+00   2.6623E-05  0.0331
   2.8409E+00   2.9100E+00   2.7909E-05  0.0321
   2.9100E+00   2.9808E+00   2.5507E-05  0.0331
   2.9808E+00   3.0533E+00   2.3693E-05  0.0339
   3.0533E+00   3.1276E+00   2.2623E-05  0.0343
   3.1276E+00   3.2037E+00   2.2848E-05  0.0337
   3.2037E+00   3.2817E+00   2.1709E-05  0.0342
   3.2817E+00   3.3615E+00   2.1162E-05  0.0342
   3.3615E+00   3.4433E+00   1.9392E-05  0.0353
   3.4433E+00   3.5271E+00   2.0424E-05  0.0340
   3.5271E+00   3.6129E+00   1.8953E-05  0.0349
   3.6129E+00   3.7008E+00   1.7676E-05  0.0357
   3.7008E+00   3.7908E+00   1.8115E-05  0.0348
   3.7908E+00   3.8831E+00   1.7508E-05  0.0350
   3.8831E+00   3.9776E+00   1.6851E-05  0.0353
   3.9776E+00   4.0743E+00   1.5962E-05  0.0359
   4.0743E+00   4.1735E+00   1.7134E-05  0.0342
   4.1735E+00   4.2750E+00   1.4594E-05  0.0366
   4.2750E+00   4.3790E+00   1.4907E-05  0.0358
   4.3790E+00   4.4856E+00   1.3940E-05  0.0365
   4.4856E+00   4.5947E+00   1.3574E-05  0.0366
   4.5947E+00   4.7065E+00   1.3393E-05  0.0364
   4.7065E+00   4.8210E+00   1.2565E-05  0.0371
   4.8210E+00   4.9383E+00   1.1298E-05  0.0387
   4.9383E+00   5.0585E+00   1.1118E-05  0.0385
   5.0585E+00   5.1815E+00   1.0905E-05  0.0385
   5.1815E+00   5.3076E+00   9.3819E-06  0.0410
   5.3076E+00   5.4368E+00   9.7911E-06  0.0396
   5.4368E+00   5.5690E+00   9.1986E-06  0.0403
   5.5690E+00   5.7045E+00   8.7460E-06  0.0409
   5.7045E+00   5.8433E+00   8.0836E-06  0.0421
   5.8433E+00   5.9855E+00   7.9851E-06  0.0418
   5.9855E+00   6.1311E+00   7.5187E-06  0.0426
   6.1311E+00   6.2803E+00   6.6242E-06  0.0449
   6.2803E+00   6.4331E+00   6.4952E-06  0.0447
   6.4331E+00   6.5896E+00   6.5162E-06  0.0442
   6.5896E+00   6.7500E+00   6.0346E-06  0.0453
   6.7500E+00   6.9142E+00   5.7223E-06  0.0460
   6.9142E+00   7.0824E+00   5.1032E-06  0.0481
   7.0824E+00   7.2548E+00   4.7954E-06  0.0491
   7.2548E+00   7.4313E+00   4.6139E-06  0.0495
   7.4313E+00   7.6121E+00   4.4456E-06  0.0498
   7.6121E+00   7.7973E+00   4.4708E-06  0.0490
   7.7973E+00   7.9870E+00   3.7688E-06  0.0528
   7.9870E+00   8.1813E+00   3.6759E-06  0.0528
   8.1813E+00   8.3804E+00   3.4648E-06  0.0538
   8.3804E+00   8.5843E+00   3.3317E-06  0.0541
   8.5843E+00   8.7931E+00   3.1872E-06  0.0548
   8.7931E+00   9.0071E+00   3.1691E-06  0.0542
   9.0071E+00   9.2262E+00   3.0193E-06  0.0549
   9.2262E+00   9.4507E+00   2.9967E-06  0.0545
   9.4507E+00   9.6807E+00   2.7074E-06  0.0565
   9.6807E+00   9.9162E+00   2.3594E-06  0.0599
   9.9162E+00   1.0157E+01   2.5326E-06  0.0571
   1.0157E+01   1.0405E+01   2.4748E-06  0.0571
   1.0405E+01   1.0658E+01   2.4755E-06  0.0564
   1.0658E+01   1.0917E+01   2.4860E-06  0.0557
   1.0917E+01   1.1183E+01   2.4609E-06  0.0552
   1.1183E+01   1.1455E+01   2.4451E-06  0.0548
   1.1455E+01   1.1733E+01   2.2617E-06  0.0562
   1.1733E+01   1.2019E+01   1.8331E-06  0.0618
   1.2019E+01   1.2311E+01   1.8864E-06  0.0602
   1.2311E+01   1.2611E+01   1.7516E-06  0.0616
   1.2611E+01   1.2918E+01   1.6122E-06  0.0635
   1.2918E+01   1.3232E+01   1.7119E-06  0.0608
   1.3232E+01   1.3554E+01   1.3325E-06  0.0682
   1.3554E+01   1.3884E+01   1.7274E-06  0.0592
   1.3884E+01   1.4222E+01   1.2366E-06  0.0691
   1.4222E+01   1.4568E+01   1.2912E-06  0.0668
   1.4568E+01   1.4922E+01   1.2083E-06  0.0683
   1.4922E+01   1.5285E+01   1.1017E-06  0.0706
   1.5285E+01   1.5657E+01   9.8683E-07  0.0738
   1.5657E+01   1.6038E+01   1.0133E-06  0.0720
   1.6038E+01   1.6428E+01   1.0148E-06  0.0711
   1.6428E+01   1.6828E+01   7.3053E-07  0.0828
   1.6828E+01   1.7237E+01   8.1087E-07  0.0776
   1.7237E+01   1.7657E+01   6.1994E-07  0.0877
   1.7657E+01   1.8086E+01   7.5040E-07  0.0787
   1.8086E+01   1.8526E+01   5.9083E-07  0.0877
   1.8526E+01   1.8977E+01   5.9969E-07  0.0860
   1.8977E+01   1.9439E+01   5.2845E-07  0.0905
   1.9439E+01   1.9912E+01   4.8629E-07  0.0933
   1.9912E+01   2.0396E+01   3.7980E-07  0.1043
   2.0396E+01   2.0893E+01   3.4256E-07  0.1085
   2.0893E+01   2.1401E+01   3.0295E-07  0.1140
   2.1401E+01   2.1922E+01   2.7655E-07  0.1179
   2.1922E+01   2.2455E+01   1.8374E-07  0.1429
   2.2455E+01   2.3001E+01   1.7937E-07  0.1429
   2.3001E+01   2.3561E+01   1.3223E-07  0.1644
   2.3561E+01   2.4134E+01   1.3955E-07  0.1581
   2.4134E+01   2.4721E+01   1.1580E-07  0.1715
   2.4721E+01   2.5323E+01   8.6452E-08  0.1961
   2.5323E+01   2.5939E+01   2.2723E-08  0.3780
   2.5939E+01   2.6570E+01   2.8521E-08  0.3333
   2.6570E+01   2.7217E+01   1.2375E-08  0.5000
   2.7217E+01   2.7879E+01   3.0202E-09  1.0000
   2.7879E+01   2.8557E+01   2.9485E-09  1.0000
   2.8557E+01   2.9252E+01   2.8784E-09  1.0000
   2.9252E+01   2.9964E+01   5.6202E-09  0.7071
   2.9964E+01   3.0693E+01   0.0000E+00  0.0000
   3.0693E+01   3.1440E+01   1.0713E-08  0.5000
   3.1440E+01   3.2205E+01   0.0000E+00  0.0000
   3.2205E+01   3.2988E+01   5.1049E-09  0.7071
   3.2988E+01   3.3791E+01   0.0000E+00  0.0000
   3.3791E+01   3.4613E+01   0.0000E+00  0.0000
   3.4613E+01   3.5455E+01   2.3749E-09  1.0000
   3.5455E+01   3.6318E+01   0.0000E+00  0.0000
   3.6318E+01   3.7201E+01   0.0000E+00  0.0000
   3.7201E+01   3.8106E+01   0.0000E+00  0.0000
   3.8106E+01   3.9034E+01   0.0000E+00  0.0000
   3.9034E+01   3.9983E+01   0.0000E+00  0.0000
   3.9983E+01   4.0956E+01   0.0000E+00  0.0000
   4.0956E+01   4.1953E+01   0.0000E+00  0.0000
   4.1953E+01   4.2973E+01   0.0000E+00  0.0000
   4.2973E+01   4.4019E+01   0.0000E+00  0.0000
   4.4019E+01   4.5090E+01   0.0000E+00  0.0000
   4.5090E+01   4.6187E+01   0.0000E+00  0.0000
   4.6187E+01   4.7311E+01   0.0000E+00  0.0000
   4.7311E+01   4.8462E+01   0.0000E+00  0.0000
   4.8462E+01   4.9641E+01   0.0000E+00  0.0000
   4.9641E+01   5.0849E+01   0.0000E+00  0.0000
   5.0849E+01   5.2086E+01   0.0000E+00  0.0000
   5.2086E+01   5.3353E+01   0.0000E+00  0.0000
   5.3353E+01   5.4651E+01   0.0000E+00  0.0000
   5.4651E+01   5.5981E+01   0.0000E+00  0.0000
   5.5981E+01   5.7343E+01   0.0000E+00  0.0000
   5.7343E+01   5.8738E+01   0.0000E+00  0.0000
   5.8738E+01   6.0168E+01   0.0000E+00  0.0000
   6.0168E+01   6.1632E+01   0.0000E+00  0.0000
   6.1632E+01   6.3131E+01   0.0000E+00  0.0000
   6.3131E+01   6.4667E+01   0.0000E+00  0.0000
   6.4667E+01   6.6240E+01   0.0000E+00  0.0000
   6.6240E+01   6.7852E+01   0.0000E+00  0.0000
   6.7852E+01   6.9503E+01   0.0000E+00  0.0000
   6.9503E+01   7.1194E+01   0.0000E+00  0.0000
   7.1194E+01   7.2926E+01   0.0000E+00  0.0000
   7.2926E+01   7.4701E+01   0.0000E+00  0.0000
   7.4701E+01   7.6518E+01   0.0000E+00  0.0000
   7.6518E+01   7.8380E+01   0.0000E+00  0.0000
   7.8380E+01   8.0287E+01   0.0000E+00  0.0000
   8.0287E+01   8.2240E+01   0.0000E+00  0.0000
   8.2240E+01   8.4241E+01   0.0000E+00  0.0000
   8.4241E+01   8.6291E+01   0.0000E+00  0.0000
   8.6291E+01   8.8391E+01   0.0000E+00  0.0000
   8.8391E+01   9.0541E+01   0.0000E+00  0.0000
   9.0541E+01   9.2744E+01   0.0000E+00  0.0000
   9.2744E+01   9.5001E+01   0.0000E+00  0.0000
   9.5001E+01   9.7312E+01   0.0000E+00  0.0000
   9.7312E+01   9.9680E+01   0.0000E+00  0.0000
   9.9680E+01   1.0211E+02   0.0000E+00  0.0000
   1.0211E+02   1.0459E+02   0.0000E+00  0.0000
   1.0459E+02   1.0713E+02   0.0000E+00  0.0000
   1.0713E+02   1.0974E+02   0.0000E+00  0.0000
   1.0974E+02   1.1241E+02   0.0000E+00  0.0000
   1.1241E+02   1.1515E+02   0.0000E+00  0.0000
   1.1515E+02   1.1795E+02   0.0000E+00  0.0000
   1.1795E+02   1.2082E+02   0.0000E+00  0.0000
   1.2082E+02   1.2376E+02   0.0000E+00  0.0000
   1.2376E+02   1.2677E+02   0.0000E+00  0.0000
   1.2677E+02   1.2985E+02   0.0000E+00  0.0000
   1.2985E+02   1.3301E+02   0.0000E+00  0.0000
   1.3301E+02   1.3625E+02   0.0000E+00  0.0000
   1.3625E+02   1.3956E+02   0.0000E+00  0.0000
   1.3956E+02   1.4296E+02   0.0000E+00  0.0000
   1.4296E+02   1.4644E+02   0.0000E+00  0.0000
   1.4644E+02   1.5000E+02   0.0000E+00  0.0000

#   sum over                 1.9168E-06
'no. =    1   reg = 121 - 221'
msuc: {\huge [t-cross] in region mesh}
msdr: {\it plotted by \ANGEL \version}
msdl: {\it calculated by \PHITS  3.26}
wt: s(0.7)
\vspace{-3}
  region surface crossing
  area  &=&   1.0000E+00 [cm^2]
e:
 
# Information for Restart Calculation
# This calculation was newly started
# istdev =  2 # 1:Batch variance, 2:History variance
# resc2  = 5.00000000000000000E+08 # Total source weight or Total source weight / maxcas
# resc3  = 5.00000000000000000E+08 # Total history number or Total batch number
# maxcas =   500000000 # History / Batch, only used for istdev=1
# bitrseed = 1101101111010011011000101101110001100110110010110001010100010001 # bit data of rseed
