[ T-Cross ]
    title = [t-cross] in region mesh
     mesh =  reg            # mesh type is region-wise
      reg =    1            # number of crossing regions
      non     r-from    r-to       area
      1       104       204        1.000000    
   e-type =    3            # e-mesh is log given by emin, emax and ne
     emin =  1.0000000E-02  # minimum value of e-mesh points
     emax =   150.0000      # maximum value of e-mesh points
#    edel =  2.4039514E-02  # mesh width of e-mesh points
       ne =    400          # number of e-mesh points
#    data = ( e(i), i = 1, ne + 1 )
#           1.00000E-02  1.02433E-02  1.04925E-02  1.07478E-02  1.10093E-02
#           1.12772E-02  1.15516E-02  1.18326E-02  1.21205E-02  1.24154E-02
#           1.27175E-02  1.30269E-02  1.33439E-02  1.36686E-02  1.40011E-02
#           1.43418E-02  1.46907E-02  1.50482E-02  1.54143E-02  1.57894E-02
#           1.61735E-02  1.65670E-02  1.69701E-02  1.73830E-02  1.78060E-02
#           1.82392E-02  1.86830E-02  1.91375E-02  1.96032E-02  2.00801E-02
#           2.05687E-02  2.10692E-02  2.15818E-02  2.21069E-02  2.26448E-02
#           2.31957E-02  2.37601E-02  2.43382E-02  2.49304E-02  2.55369E-02
#           2.61583E-02  2.67947E-02  2.74467E-02  2.81145E-02  2.87985E-02
#           2.94992E-02  3.02169E-02  3.09521E-02  3.17052E-02  3.24766E-02
#           3.32668E-02  3.40762E-02  3.49053E-02  3.57546E-02  3.66246E-02
#           3.75157E-02  3.84284E-02  3.93634E-02  4.03212E-02  4.13022E-02
#           4.23071E-02  4.33365E-02  4.43909E-02  4.54710E-02  4.65773E-02
#           4.77106E-02  4.88714E-02  5.00605E-02  5.12785E-02  5.25262E-02
#           5.38042E-02  5.51133E-02  5.64542E-02  5.78278E-02  5.92348E-02
#           6.06760E-02  6.21523E-02  6.36645E-02  6.52135E-02  6.68002E-02
#           6.84255E-02  7.00904E-02  7.17957E-02  7.35426E-02  7.53319E-02
#           7.71648E-02  7.90423E-02  8.09655E-02  8.29354E-02  8.49533E-02
#           8.70203E-02  8.91376E-02  9.13064E-02  9.35279E-02  9.58035E-02
#           9.81345E-02  1.00522E-01  1.02968E-01  1.05473E-01  1.08040E-01
#           1.10668E-01  1.13361E-01  1.16119E-01  1.18944E-01  1.21838E-01
#           1.24803E-01  1.27839E-01  1.30950E-01  1.34136E-01  1.37399E-01
#           1.40742E-01  1.44167E-01  1.47675E-01  1.51268E-01  1.54948E-01
#           1.58718E-01  1.62580E-01  1.66535E-01  1.70587E-01  1.74738E-01
#           1.78989E-01  1.83344E-01  1.87805E-01  1.92375E-01  1.97055E-01
#           2.01850E-01  2.06761E-01  2.11792E-01  2.16945E-01  2.22223E-01
#           2.27630E-01  2.33169E-01  2.38842E-01  2.44653E-01  2.50605E-01
#           2.56703E-01  2.62949E-01  2.69346E-01  2.75900E-01  2.82613E-01
#           2.89489E-01  2.96532E-01  3.03747E-01  3.11138E-01  3.18708E-01
#           3.26462E-01  3.34405E-01  3.42542E-01  3.50876E-01  3.59413E-01
#           3.68158E-01  3.77116E-01  3.86291E-01  3.95690E-01  4.05317E-01
#           4.15179E-01  4.25281E-01  4.35628E-01  4.46227E-01  4.57084E-01
#           4.68205E-01  4.79597E-01  4.91266E-01  5.03219E-01  5.15463E-01
#           5.28005E-01  5.40851E-01  5.54011E-01  5.67490E-01  5.81298E-01
#           5.95441E-01  6.09929E-01  6.24769E-01  6.39970E-01  6.55541E-01
#           6.71491E-01  6.87828E-01  7.04564E-01  7.21706E-01  7.39266E-01
#           7.57253E-01  7.75678E-01  7.94551E-01  8.13883E-01  8.33685E-01
#           8.53969E-01  8.74747E-01  8.96030E-01  9.17831E-01  9.40163E-01
#           9.63038E-01  9.86469E-01  1.01047E+00  1.03506E+00  1.06024E+00
#           1.08604E+00  1.11246E+00  1.13953E+00  1.16725E+00  1.19565E+00
#           1.22474E+00  1.25454E+00  1.28507E+00  1.31633E+00  1.34836E+00
#           1.38117E+00  1.41477E+00  1.44920E+00  1.48446E+00  1.52057E+00
#           1.55757E+00  1.59547E+00  1.63429E+00  1.67405E+00  1.71478E+00
#           1.75650E+00  1.79924E+00  1.84302E+00  1.88786E+00  1.93379E+00
#           1.98084E+00  2.02904E+00  2.07841E+00  2.12898E+00  2.18078E+00
#           2.23384E+00  2.28819E+00  2.34386E+00  2.40089E+00  2.45930E+00
#           2.51914E+00  2.58043E+00  2.64322E+00  2.70753E+00  2.77341E+00
#           2.84088E+00  2.91001E+00  2.98081E+00  3.05333E+00  3.12762E+00
#           3.20372E+00  3.28167E+00  3.36152E+00  3.44330E+00  3.52708E+00
#           3.61290E+00  3.70080E+00  3.79085E+00  3.88308E+00  3.97756E+00
#           4.07434E+00  4.17347E+00  4.27501E+00  4.37903E+00  4.48557E+00
#           4.59471E+00  4.70650E+00  4.82102E+00  4.93832E+00  5.05847E+00
#           5.18155E+00  5.30762E+00  5.43676E+00  5.56904E+00  5.70453E+00
#           5.84333E+00  5.98550E+00  6.13114E+00  6.28031E+00  6.43312E+00
#           6.58964E+00  6.74997E+00  6.91420E+00  7.08243E+00  7.25475E+00
#           7.43126E+00  7.61207E+00  7.79728E+00  7.98700E+00  8.18133E+00
#           8.38038E+00  8.58428E+00  8.79315E+00  9.00709E+00  9.22624E+00
#           9.45072E+00  9.68067E+00  9.91620E+00  1.01575E+01  1.04046E+01
#           1.06578E+01  1.09171E+01  1.11827E+01  1.14548E+01  1.17335E+01
#           1.20190E+01  1.23114E+01  1.26109E+01  1.29178E+01  1.32321E+01
#           1.35540E+01  1.38838E+01  1.42216E+01  1.45676E+01  1.49221E+01
#           1.52851E+01  1.56570E+01  1.60380E+01  1.64282E+01  1.68279E+01
#           1.72374E+01  1.76568E+01  1.80864E+01  1.85264E+01  1.89772E+01
#           1.94389E+01  1.99119E+01  2.03963E+01  2.08926E+01  2.14009E+01
#           2.19216E+01  2.24550E+01  2.30014E+01  2.35610E+01  2.41343E+01
#           2.47215E+01  2.53230E+01  2.59391E+01  2.65702E+01  2.72167E+01
#           2.78789E+01  2.85572E+01  2.92520E+01  2.99637E+01  3.06928E+01
#           3.14396E+01  3.22045E+01  3.29881E+01  3.37907E+01  3.46128E+01
#           3.54550E+01  3.63177E+01  3.72013E+01  3.81064E+01  3.90336E+01
#           3.99833E+01  4.09561E+01  4.19526E+01  4.29734E+01  4.40189E+01
#           4.50900E+01  4.61870E+01  4.73108E+01  4.84619E+01  4.96410E+01
#           5.08488E+01  5.20860E+01  5.33533E+01  5.46514E+01  5.59812E+01
#           5.73432E+01  5.87384E+01  6.01676E+01  6.16315E+01  6.31311E+01
#           6.46671E+01  6.62405E+01  6.78522E+01  6.95031E+01  7.11941E+01
#           7.29263E+01  7.47007E+01  7.65182E+01  7.83800E+01  8.02870E+01
#           8.22405E+01  8.42414E+01  8.62911E+01  8.83906E+01  9.05412E+01
#           9.27442E+01  9.50007E+01  9.73122E+01  9.96799E+01  1.02105E+02
#           1.04589E+02  1.07134E+02  1.09741E+02  1.12411E+02  1.15146E+02
#           1.17948E+02  1.20817E+02  1.23757E+02  1.26768E+02  1.29852E+02
#           1.33012E+02  1.36248E+02  1.39563E+02  1.42959E+02  1.46437E+02
#           1.50000E+02
     unit =    2            # unit is [1/cm^2/(MeV/n)/source]
     axis =  eng            # axis of output
     file = detector-05.out  # file name of output for the above axis
   output = f-curr          # surface crossing forward current spectrum
     part =  neutron  
# kf/name :  2112     
#    used :        main (  %)        temp (  %)       total (  %)
#  memory :         414 (  0)           0 (  0)         414 (  0)

#------------------------------------------------------------------------------
#newpage:
#   no. =    1   reg = 104 - 204

x: Energy [MeV/n]
y:  F-Curr [1/cm^2/(MeV/n)/source]         
p: xlog ylog afac(0.8) form(0.9)
h: n            x            y(neutron ),hh0l   n 
#  e-lower      e-upper      neutron     r.err 
   1.0000E-02   1.0243E-02   3.0414E-04  0.1644
   1.0243E-02   1.0493E-02   2.8488E-04  0.1672
   1.0493E-02   1.0748E-02   3.0553E-04  0.1601
   1.0748E-02   1.1009E-02   3.4034E-04  0.1495
   1.1009E-02   1.1277E-02   3.2106E-04  0.1525
   1.1277E-02   1.1552E-02   2.9885E-04  0.1562
   1.1552E-02   1.1833E-02   3.0003E-04  0.1528
   1.1833E-02   1.2121E-02   3.1956E-04  0.1474
   1.2121E-02   1.2415E-02   2.6195E-04  0.1602
   1.2415E-02   1.2718E-02   2.7910E-04  0.1538
   1.2718E-02   1.3027E-02   2.8521E-04  0.1504
   1.3027E-02   1.3344E-02   2.3119E-04  0.1632
   1.3344E-02   1.3669E-02   3.1635E-04  0.1392
   1.3669E-02   1.4001E-02   2.7062E-04  0.1491
   1.4001E-02   1.4342E-02   2.5245E-04  0.1525
   1.4342E-02   1.4691E-02   2.7018E-04  0.1455
   1.4691E-02   1.5048E-02   2.6954E-04  0.1439
   1.5048E-02   1.5414E-02   3.1859E-04  0.1306
   1.5414E-02   1.5789E-02   2.2931E-04  0.1525
   1.5789E-02   1.6174E-02   2.5658E-04  0.1421
   1.6174E-02   1.6567E-02   2.7699E-04  0.1351
   1.6567E-02   1.6970E-02   1.7428E-04  0.1685
   1.6970E-02   1.7383E-02   2.6399E-04  0.1351
   1.7383E-02   1.7806E-02   1.5931E-04  0.1713
   1.7806E-02   1.8239E-02   2.2992E-04  0.1410
   1.8239E-02   1.8683E-02   1.6675E-04  0.1644
   1.8683E-02   1.9138E-02   1.5399E-04  0.1690
   1.9138E-02   1.9603E-02   1.3835E-04  0.1757
   1.9603E-02   2.0080E-02   2.0756E-04  0.1418
   2.0080E-02   2.0569E-02   1.5965E-04  0.1601
   2.0569E-02   2.1069E-02   1.5304E-04  0.1611
   2.1069E-02   2.1582E-02   1.6386E-04  0.1543
   2.1582E-02   2.2107E-02   1.2569E-04  0.1741
   2.2107E-02   2.2645E-02   1.8406E-04  0.1418
   2.2645E-02   2.3196E-02   1.4935E-04  0.1557
   2.3196E-02   2.3760E-02   2.0199E-04  0.1325
   2.3760E-02   2.4338E-02   1.8100E-04  0.1379
   2.4338E-02   2.4930E-02   1.7954E-04  0.1370
   2.4930E-02   2.5537E-02   1.5551E-04  0.1454
   2.5537E-02   2.6158E-02   1.1759E-04  0.1645
   2.6158E-02   2.6795E-02   1.2570E-04  0.1581
   2.6795E-02   2.7447E-02   1.4419E-04  0.1459
   2.7447E-02   2.8114E-02   1.2632E-04  0.1537
   2.8114E-02   2.8799E-02   1.6415E-04  0.1333
   2.8799E-02   2.9499E-02   1.2603E-04  0.1503
   2.9499E-02   3.0217E-02   1.2586E-04  0.1486
   3.0217E-02   3.0952E-02   1.2857E-04  0.1443
   3.0952E-02   3.1705E-02   1.3407E-04  0.1395
   3.1705E-02   3.2477E-02   1.1408E-04  0.1508
   3.2477E-02   3.3267E-02   1.1769E-04  0.1463
   3.3267E-02   3.4076E-02   7.6599E-05  0.1796
   3.4076E-02   3.4905E-02   7.4780E-05  0.1796
   3.4905E-02   3.5755E-02   1.0671E-04  0.1473
   3.5755E-02   3.6625E-02   1.2415E-04  0.1361
   3.6625E-02   3.7516E-02   9.9112E-05  0.1503
   3.7516E-02   3.8428E-02   9.4535E-05  0.1520
   3.8428E-02   3.9363E-02   9.7702E-05  0.1473
   3.9363E-02   4.0321E-02   7.5460E-05  0.1661
   4.0321E-02   4.1302E-02   9.6159E-05  0.1454
   4.1302E-02   4.2307E-02   9.9511E-05  0.1414
   4.2307E-02   4.3337E-02   8.8719E-05  0.1474
   4.3337E-02   4.4391E-02   6.7336E-05  0.1672
   4.4391E-02   4.5471E-02   8.4254E-05  0.1478
   4.5471E-02   4.6577E-02   8.1349E-05  0.1491
   4.6577E-02   4.7711E-02   1.0261E-04  0.1310
   4.7711E-02   4.8871E-02   8.1252E-05  0.1454
   4.8871E-02   5.0061E-02   8.2150E-05  0.1423
   5.0061E-02   5.1279E-02   7.0937E-05  0.1510
   5.1279E-02   5.2526E-02   7.5619E-05  0.1454
   5.2526E-02   5.3804E-02   5.9722E-05  0.1616
   5.3804E-02   5.5113E-02   7.4861E-05  0.1429
   5.5113E-02   5.6454E-02   7.5574E-05  0.1399
   5.6454E-02   5.7828E-02   4.7042E-05  0.1752
   5.7828E-02   5.9235E-02   6.9652E-05  0.1429
   5.9235E-02   6.0676E-02   6.2447E-05  0.1491
   6.0676E-02   6.2152E-02   7.4705E-05  0.1345
   6.2152E-02   6.3665E-02   6.0289E-05  0.1473
   6.3665E-02   6.5214E-02   4.6014E-05  0.1666
   6.5214E-02   6.6800E-02   6.1084E-05  0.1421
   6.6800E-02   6.8426E-02   5.4144E-05  0.1508
   6.8426E-02   7.0090E-02   4.6851E-05  0.1601
   7.0090E-02   7.1796E-02   5.4708E-05  0.1458
   7.1796E-02   7.3543E-02   4.5797E-05  0.1581
   7.3543E-02   7.5332E-02   5.4429E-05  0.1427
   7.5332E-02   7.7165E-02   4.5829E-05  0.1534
   7.7165E-02   7.9042E-02   5.0275E-05  0.1453
   7.9042E-02   8.0965E-02   4.2294E-05  0.1561
   8.0965E-02   8.2935E-02   3.9595E-05  0.1601
   8.2935E-02   8.4953E-02   4.6583E-05  0.1451
   8.4953E-02   8.7020E-02   5.0500E-05  0.1382
   8.7020E-02   8.9138E-02   4.8175E-05  0.1400
   8.9138E-02   9.1306E-02   3.7955E-05  0.1537
   9.1306E-02   9.3528E-02   3.7811E-05  0.1534
   9.3528E-02   9.5804E-02   4.9202E-05  0.1329
   9.5804E-02   9.8134E-02   3.7181E-05  0.1514
   9.8134E-02   1.0052E-01   4.1044E-05  0.1421
   1.0052E-01   1.0297E-01   4.2522E-05  0.1380
   1.0297E-01   1.0547E-01   3.6145E-05  0.1482
   1.0547E-01   1.0804E-01   2.8453E-05  0.1645
   1.0804E-01   1.1067E-01   3.6140E-05  0.1447
   1.1067E-01   1.1336E-01   3.5523E-05  0.1436
   1.1336E-01   1.1612E-01   2.7917E-05  0.1606
   1.1612E-01   1.1894E-01   4.3890E-05  0.1270
   1.1894E-01   1.2184E-01   3.3380E-05  0.1435
   1.2184E-01   1.2480E-01   3.3733E-05  0.1414
   1.2480E-01   1.2784E-01   3.2273E-05  0.1429
   1.2784E-01   1.3095E-01   2.4755E-05  0.1606
   1.3095E-01   1.3414E-01   3.8605E-05  0.1273
   1.3414E-01   1.3740E-01   2.6759E-05  0.1507
   1.3740E-01   1.4074E-01   3.3482E-05  0.1329
   1.4074E-01   1.4417E-01   2.6023E-05  0.1490
   1.4417E-01   1.4767E-01   2.6892E-05  0.1454
   1.4767E-01   1.5127E-01   2.1152E-05  0.1612
   1.5127E-01   1.5495E-01   2.5978E-05  0.1439
   1.5495E-01   1.5872E-01   2.8187E-05  0.1370
   1.5872E-01   1.6258E-01   2.9003E-05  0.1336
   1.6258E-01   1.6654E-01   2.2752E-05  0.1491
   1.6654E-01   1.7059E-01   1.9250E-05  0.1601
   1.7059E-01   1.7474E-01   2.1128E-05  0.1501
   1.7474E-01   1.7899E-01   2.4993E-05  0.1370
   1.7899E-01   1.8334E-01   2.4230E-05  0.1370
   1.8334E-01   1.8781E-01   2.3538E-05  0.1377
   1.8781E-01   1.9237E-01   1.9629E-05  0.1467
   1.9237E-01   1.9706E-01   1.5016E-05  0.1684
   1.9706E-01   2.0185E-01   2.3627E-05  0.1324
   2.0185E-01   2.0676E-01   2.6551E-05  0.1237
   2.0676E-01   2.1179E-01   2.3905E-05  0.1288
   2.1179E-01   2.1694E-01   2.8721E-05  0.1157
   2.1694E-01   2.2222E-01   2.9554E-05  0.1132
   2.2222E-01   2.2763E-01   2.5941E-05  0.1193
   2.2763E-01   2.3317E-01   2.5639E-05  0.1183
   2.3317E-01   2.3884E-01   2.1752E-05  0.1267
   2.3884E-01   2.4465E-01   2.7361E-05  0.1120
   2.4465E-01   2.5061E-01   2.2055E-05  0.1226
   2.5061E-01   2.5670E-01   2.4437E-05  0.1153
   2.5670E-01   2.6295E-01   2.8231E-05  0.1061
   2.6295E-01   2.6935E-01   3.1661E-05  0.0990
   2.6935E-01   2.7590E-01   2.7266E-05  0.1052
   2.7590E-01   2.8261E-01   3.2234E-05  0.0958
   2.8261E-01   2.8949E-01   2.9220E-05  0.0996
   2.8949E-01   2.9653E-01   2.9012E-05  0.0989
   2.9653E-01   3.0375E-01   2.6378E-05  0.1022
   3.0375E-01   3.1114E-01   3.3628E-05  0.0894
   3.1114E-01   3.1871E-01   4.5395E-05  0.0761
   3.1871E-01   3.2646E-01   3.3944E-05  0.0868
   3.2646E-01   3.3441E-01   4.1244E-05  0.0780
   3.3441E-01   3.4254E-01   3.3963E-05  0.0848
   3.4254E-01   3.5088E-01   3.8699E-05  0.0785
   3.5088E-01   3.5941E-01   4.2441E-05  0.0741
   3.5941E-01   3.6816E-01   4.3108E-05  0.0725
   3.6816E-01   3.7712E-01   4.1904E-05  0.0727
   3.7712E-01   3.8629E-01   4.6653E-05  0.0682
   3.8629E-01   3.9569E-01   4.5925E-05  0.0680
   3.9569E-01   4.0532E-01   4.4078E-05  0.0684
   4.0532E-01   4.1518E-01   4.5862E-05  0.0663
   4.1518E-01   4.2528E-01   4.7251E-05  0.0644
   4.2528E-01   4.3563E-01   4.9507E-05  0.0624
   4.3563E-01   4.4623E-01   4.5795E-05  0.0640
   4.4623E-01   4.5708E-01   5.2792E-05  0.0588
   4.5708E-01   4.6821E-01   4.5299E-05  0.0627
   4.6821E-01   4.7960E-01   5.1695E-05  0.0581
   4.7960E-01   4.9127E-01   5.0960E-05  0.0578
   4.9127E-01   5.0322E-01   5.3935E-05  0.0556
   5.0322E-01   5.1546E-01   5.4302E-05  0.0548
   5.1546E-01   5.2800E-01   4.9202E-05  0.0567
   5.2800E-01   5.4085E-01   5.4158E-05  0.0534
   5.4085E-01   5.5401E-01   5.7164E-05  0.0514
   5.5401E-01   5.6749E-01   5.4162E-05  0.0522
   5.6749E-01   5.8130E-01   5.0346E-05  0.0534
   5.8130E-01   5.9544E-01   5.0289E-05  0.0529
   5.9544E-01   6.0993E-01   5.1529E-05  0.0516
   6.0993E-01   6.2477E-01   5.8252E-05  0.0480
   6.2477E-01   6.3997E-01   5.6563E-05  0.0481
   6.3997E-01   6.5554E-01   5.1419E-05  0.0499
   6.5554E-01   6.7149E-01   5.6540E-05  0.0470
   6.7149E-01   6.8783E-01   5.6885E-05  0.0462
   6.8783E-01   7.0456E-01   5.2645E-05  0.0474
   7.0456E-01   7.2171E-01   5.3483E-05  0.0465
   7.2171E-01   7.3927E-01   5.8820E-05  0.0439
   7.3927E-01   7.5725E-01   5.5988E-05  0.0445
   7.5725E-01   7.7568E-01   5.5958E-05  0.0439
   7.7568E-01   7.9455E-01   5.4200E-05  0.0441
   7.9455E-01   8.1388E-01   5.6823E-05  0.0425
   8.1388E-01   8.3368E-01   5.4497E-05  0.0430
   8.3368E-01   8.5397E-01   5.6746E-05  0.0416
   8.5397E-01   8.7475E-01   5.1329E-05  0.0431
   8.7475E-01   8.9603E-01   4.7256E-05  0.0444
   8.9603E-01   9.1783E-01   5.1247E-05  0.0422
   9.1783E-01   9.4016E-01   5.0425E-05  0.0420
   9.4016E-01   9.6304E-01   4.6056E-05  0.0434
   9.6304E-01   9.8647E-01   4.5321E-05  0.0432
   9.8647E-01   1.0105E+00   4.5291E-05  0.0427
   1.0105E+00   1.0351E+00   4.4894E-05  0.0425
   1.0351E+00   1.0602E+00   4.6301E-05  0.0413
   1.0602E+00   1.0860E+00   4.8640E-05  0.0398
   1.0860E+00   1.1125E+00   4.4023E-05  0.0413
   1.1125E+00   1.1395E+00   5.2550E-05  0.0373
   1.1395E+00   1.1673E+00   4.8856E-05  0.0383
   1.1673E+00   1.1957E+00   5.1689E-05  0.0368
   1.1957E+00   1.2247E+00   5.3681E-05  0.0357
   1.2247E+00   1.2545E+00   5.3677E-05  0.0353
   1.2545E+00   1.2851E+00   5.4443E-05  0.0346
   1.2851E+00   1.3163E+00   5.4564E-05  0.0341
   1.3163E+00   1.3484E+00   5.4445E-05  0.0337
   1.3484E+00   1.3812E+00   5.1921E-05  0.0342
   1.3812E+00   1.4148E+00   5.6144E-05  0.0325
   1.4148E+00   1.4492E+00   5.9428E-05  0.0312
   1.4492E+00   1.4845E+00   5.8695E-05  0.0310
   1.4845E+00   1.5206E+00   5.8845E-05  0.0306
   1.5206E+00   1.5576E+00   5.9227E-05  0.0301
   1.5576E+00   1.5955E+00   5.7058E-05  0.0303
   1.5955E+00   1.6343E+00   5.5588E-05  0.0303
   1.6343E+00   1.6741E+00   5.9407E-05  0.0290
   1.6741E+00   1.7148E+00   6.1416E-05  0.0282
   1.7148E+00   1.7565E+00   6.1487E-05  0.0278
   1.7565E+00   1.7992E+00   6.4784E-05  0.0268
   1.7992E+00   1.8430E+00   6.2457E-05  0.0270
   1.8430E+00   1.8879E+00   5.9407E-05  0.0273
   1.8879E+00   1.9338E+00   6.1972E-05  0.0264
   1.9338E+00   1.9808E+00   6.3631E-05  0.0258
   1.9808E+00   2.0290E+00   6.4307E-05  0.0253
   2.0290E+00   2.0784E+00   6.1157E-05  0.0257
   2.0784E+00   2.1290E+00   6.7931E-05  0.0241
   2.1290E+00   2.1808E+00   6.3332E-05  0.0246
   2.1808E+00   2.2338E+00   6.2392E-05  0.0245
   2.2338E+00   2.2882E+00   6.3491E-05  0.0240
   2.2882E+00   2.3439E+00   6.8781E-05  0.0228
   2.3439E+00   2.4009E+00   6.6928E-05  0.0228
   2.4009E+00   2.4593E+00   6.5378E-05  0.0228
   2.4593E+00   2.5191E+00   6.5845E-05  0.0225
   2.5191E+00   2.5804E+00   6.6522E-05  0.0221
   2.5804E+00   2.6432E+00   6.5448E-05  0.0220
   2.6432E+00   2.7075E+00   6.8950E-05  0.0212
   2.7075E+00   2.7734E+00   6.6743E-05  0.0213
   2.7734E+00   2.8409E+00   6.9400E-05  0.0206
   2.8409E+00   2.9100E+00   6.6930E-05  0.0207
   2.9100E+00   2.9808E+00   6.7789E-05  0.0204
   2.9808E+00   3.0533E+00   7.0894E-05  0.0197
   3.0533E+00   3.1276E+00   7.2404E-05  0.0192
   3.1276E+00   3.2037E+00   6.9495E-05  0.0194
   3.2037E+00   3.2817E+00   7.1813E-05  0.0189
   3.2817E+00   3.3615E+00   7.1250E-05  0.0187
   3.3615E+00   3.4433E+00   7.2556E-05  0.0183
   3.4433E+00   3.5271E+00   7.3446E-05  0.0180
   3.5271E+00   3.6129E+00   7.5046E-05  0.0176
   3.6129E+00   3.7008E+00   7.3961E-05  0.0175
   3.7008E+00   3.7908E+00   7.3196E-05  0.0174
   3.7908E+00   3.8831E+00   7.6202E-05  0.0168
   3.8831E+00   3.9776E+00   7.4528E-05  0.0168
   3.9776E+00   4.0743E+00   7.5436E-05  0.0165
   4.0743E+00   4.1735E+00   7.4838E-05  0.0164
   4.1735E+00   4.2750E+00   7.5245E-05  0.0162
   4.2750E+00   4.3790E+00   7.9182E-05  0.0156
   4.3790E+00   4.4856E+00   7.7791E-05  0.0155
   4.4856E+00   4.5947E+00   8.0842E-05  0.0150
   4.5947E+00   4.7065E+00   7.8395E-05  0.0151
   4.7065E+00   4.8210E+00   7.9084E-05  0.0148
   4.8210E+00   4.9383E+00   8.1666E-05  0.0144
   4.9383E+00   5.0585E+00   8.1640E-05  0.0143
   5.0585E+00   5.1815E+00   8.1428E-05  0.0141
   5.1815E+00   5.3076E+00   8.0543E-05  0.0140
   5.3076E+00   5.4368E+00   8.2698E-05  0.0137
   5.4368E+00   5.5690E+00   8.3985E-05  0.0134
   5.5690E+00   5.7045E+00   8.4617E-05  0.0132
   5.7045E+00   5.8433E+00   8.5018E-05  0.0130
   5.8433E+00   5.9855E+00   8.7795E-05  0.0127
   5.9855E+00   6.1311E+00   8.7592E-05  0.0125
   6.1311E+00   6.2803E+00   8.6166E-05  0.0125
   6.2803E+00   6.4331E+00   8.7572E-05  0.0122
   6.4331E+00   6.5896E+00   8.8162E-05  0.0120
   6.5896E+00   6.7500E+00   8.9194E-05  0.0118
   6.7500E+00   6.9142E+00   8.7451E-05  0.0118
   6.9142E+00   7.0824E+00   8.9830E-05  0.0115
   7.0824E+00   7.2548E+00   9.0301E-05  0.0113
   7.2548E+00   7.4313E+00   9.0154E-05  0.0112
   7.4313E+00   7.6121E+00   9.0050E-05  0.0111
   7.6121E+00   7.7973E+00   9.1901E-05  0.0108
   7.7973E+00   7.9870E+00   9.0619E-05  0.0108
   7.9870E+00   8.1813E+00   9.2412E-05  0.0105
   8.1813E+00   8.3804E+00   9.1928E-05  0.0104
   8.3804E+00   8.5843E+00   9.0512E-05  0.0104
   8.5843E+00   8.7931E+00   9.1552E-05  0.0102
   8.7931E+00   9.0071E+00   9.2531E-05  0.0100
   9.0071E+00   9.2262E+00   9.2047E-05  0.0100
   9.2262E+00   9.4507E+00   9.2577E-05  0.0098
   9.4507E+00   9.6807E+00   9.2868E-05  0.0097
   9.6807E+00   9.9162E+00   9.3979E-05  0.0095
   9.9162E+00   1.0157E+01   9.3710E-05  0.0094
   1.0157E+01   1.0405E+01   9.3153E-05  0.0093
   1.0405E+01   1.0658E+01   9.2332E-05  0.0092
   1.0658E+01   1.0917E+01   9.4584E-05  0.0090
   1.0917E+01   1.1183E+01   9.5104E-05  0.0089
   1.1183E+01   1.1455E+01   9.3681E-05  0.0089
   1.1455E+01   1.1733E+01   9.2416E-05  0.0088
   1.1733E+01   1.2019E+01   9.3171E-05  0.0087
   1.2019E+01   1.2311E+01   9.4022E-05  0.0085
   1.2311E+01   1.2611E+01   9.2787E-05  0.0085
   1.2611E+01   1.2918E+01   9.2237E-05  0.0084
   1.2918E+01   1.3232E+01   8.9588E-05  0.0084
   1.3232E+01   1.3554E+01   8.9863E-05  0.0083
   1.3554E+01   1.3884E+01   8.6610E-05  0.0084
   1.3884E+01   1.4222E+01   8.6895E-05  0.0083
   1.4222E+01   1.4568E+01   8.5537E-05  0.0082
   1.4568E+01   1.4922E+01   8.3378E-05  0.0082
   1.4922E+01   1.5285E+01   8.3026E-05  0.0081
   1.5285E+01   1.5657E+01   8.0314E-05  0.0082
   1.5657E+01   1.6038E+01   7.8574E-05  0.0082
   1.6038E+01   1.6428E+01   7.5794E-05  0.0082
   1.6428E+01   1.6828E+01   7.3543E-05  0.0082
   1.6828E+01   1.7237E+01   7.0783E-05  0.0083
   1.7237E+01   1.7657E+01   6.7406E-05  0.0084
   1.7657E+01   1.8086E+01   6.5010E-05  0.0085
   1.8086E+01   1.8526E+01   6.2056E-05  0.0086
   1.8526E+01   1.8977E+01   5.8630E-05  0.0087
   1.8977E+01   1.9439E+01   5.6316E-05  0.0088
   1.9439E+01   1.9912E+01   5.2841E-05  0.0089
   1.9912E+01   2.0396E+01   5.1433E-05  0.0090
   2.0396E+01   2.0893E+01   4.7761E-05  0.0092
   2.0893E+01   2.1401E+01   4.5277E-05  0.0093
   2.1401E+01   2.1922E+01   4.1651E-05  0.0096
   2.1922E+01   2.2455E+01   3.8896E-05  0.0098
   2.2455E+01   2.3001E+01   3.6438E-05  0.0100
   2.3001E+01   2.3561E+01   3.3993E-05  0.0103
   2.3561E+01   2.4134E+01   3.0618E-05  0.0107
   2.4134E+01   2.4721E+01   2.8123E-05  0.0110
   2.4721E+01   2.5323E+01   2.6241E-05  0.0113
   2.5323E+01   2.5939E+01   2.4641E-05  0.0115
   2.5939E+01   2.6570E+01   2.2012E-05  0.0120
   2.6570E+01   2.7217E+01   2.0641E-05  0.0122
   2.7217E+01   2.7879E+01   1.8082E-05  0.0129
   2.7879E+01   2.8557E+01   1.7022E-05  0.0132
   2.8557E+01   2.9252E+01   1.5552E-05  0.0136
   2.9252E+01   2.9964E+01   1.3980E-05  0.0142
   2.9964E+01   3.0693E+01   1.3500E-05  0.0143
   3.0693E+01   3.1440E+01   1.1744E-05  0.0151
   3.1440E+01   3.2205E+01   1.0837E-05  0.0155
   3.2205E+01   3.2988E+01   1.0108E-05  0.0159
   3.2988E+01   3.3791E+01   8.9182E-06  0.0167
   3.3791E+01   3.4613E+01   8.0423E-06  0.0174
   3.4613E+01   3.5455E+01   7.5188E-06  0.0178
   3.5455E+01   3.6318E+01   6.6841E-06  0.0186
   3.6318E+01   3.7201E+01   5.8848E-06  0.0196
   3.7201E+01   3.8106E+01   5.1948E-06  0.0206
   3.8106E+01   3.9034E+01   4.8859E-06  0.0210
   3.9034E+01   3.9983E+01   4.2518E-06  0.0223
   3.9983E+01   4.0956E+01   4.0172E-06  0.0226
   4.0956E+01   4.1953E+01   3.6990E-06  0.0233
   4.1953E+01   4.2973E+01   3.0938E-06  0.0252
   4.2973E+01   4.4019E+01   2.4771E-06  0.0278
   4.4019E+01   4.5090E+01   1.9122E-06  0.0312
   4.5090E+01   4.6187E+01   1.5441E-06  0.0344
   4.6187E+01   4.7311E+01   1.1159E-06  0.0399
   4.7311E+01   4.8462E+01   8.0965E-07  0.0463
   4.8462E+01   4.9641E+01   4.9698E-07  0.0584
   4.9641E+01   5.0849E+01   2.5998E-07  0.0798
   5.0849E+01   5.2086E+01   1.9075E-07  0.0921
   5.2086E+01   5.3353E+01   8.0486E-08  0.1400
   5.3353E+01   5.4651E+01   0.0000E+00  0.0000
   5.4651E+01   5.5981E+01   0.0000E+00  0.0000
   5.5981E+01   5.7343E+01   0.0000E+00  0.0000
   5.7343E+01   5.8738E+01   0.0000E+00  0.0000
   5.8738E+01   6.0168E+01   0.0000E+00  0.0000
   6.0168E+01   6.1632E+01   0.0000E+00  0.0000
   6.1632E+01   6.3131E+01   0.0000E+00  0.0000
   6.3131E+01   6.4667E+01   0.0000E+00  0.0000
   6.4667E+01   6.6240E+01   0.0000E+00  0.0000
   6.6240E+01   6.7852E+01   0.0000E+00  0.0000
   6.7852E+01   6.9503E+01   0.0000E+00  0.0000
   6.9503E+01   7.1194E+01   0.0000E+00  0.0000
   7.1194E+01   7.2926E+01   0.0000E+00  0.0000
   7.2926E+01   7.4701E+01   0.0000E+00  0.0000
   7.4701E+01   7.6518E+01   0.0000E+00  0.0000
   7.6518E+01   7.8380E+01   0.0000E+00  0.0000
   7.8380E+01   8.0287E+01   0.0000E+00  0.0000
   8.0287E+01   8.2240E+01   0.0000E+00  0.0000
   8.2240E+01   8.4241E+01   0.0000E+00  0.0000
   8.4241E+01   8.6291E+01   0.0000E+00  0.0000
   8.6291E+01   8.8391E+01   0.0000E+00  0.0000
   8.8391E+01   9.0541E+01   0.0000E+00  0.0000
   9.0541E+01   9.2744E+01   0.0000E+00  0.0000
   9.2744E+01   9.5001E+01   0.0000E+00  0.0000
   9.5001E+01   9.7312E+01   0.0000E+00  0.0000
   9.7312E+01   9.9680E+01   0.0000E+00  0.0000
   9.9680E+01   1.0211E+02   0.0000E+00  0.0000
   1.0211E+02   1.0459E+02   0.0000E+00  0.0000
   1.0459E+02   1.0713E+02   0.0000E+00  0.0000
   1.0713E+02   1.0974E+02   0.0000E+00  0.0000
   1.0974E+02   1.1241E+02   0.0000E+00  0.0000
   1.1241E+02   1.1515E+02   0.0000E+00  0.0000
   1.1515E+02   1.1795E+02   0.0000E+00  0.0000
   1.1795E+02   1.2082E+02   0.0000E+00  0.0000
   1.2082E+02   1.2376E+02   0.0000E+00  0.0000
   1.2376E+02   1.2677E+02   0.0000E+00  0.0000
   1.2677E+02   1.2985E+02   0.0000E+00  0.0000
   1.2985E+02   1.3301E+02   0.0000E+00  0.0000
   1.3301E+02   1.3625E+02   0.0000E+00  0.0000
   1.3625E+02   1.3956E+02   0.0000E+00  0.0000
   1.3956E+02   1.4296E+02   0.0000E+00  0.0000
   1.4296E+02   1.4644E+02   0.0000E+00  0.0000
   1.4644E+02   1.5000E+02   0.0000E+00  0.0000

#   sum over                 1.2970E-05
'no. =    1   reg = 104 - 204'
msuc: {\huge [t-cross] in region mesh}
msdr: {\it plotted by \ANGEL \version}
msdl: {\it calculated by \PHITS  3.26}
wt: s(0.7)
\vspace{-3}
  region surface crossing
  area  &=&   1.0000E+00 [cm^2]
e:
 
# Information for Restart Calculation
# This calculation was newly started
# istdev =  2 # 1:Batch variance, 2:History variance
# resc2  = 5.00000000000000000E+08 # Total source weight or Total source weight / maxcas
# resc3  = 5.00000000000000000E+08 # Total history number or Total batch number
# maxcas =   500000000 # History / Batch, only used for istdev=1
# bitrseed = 1101101111010011011000101101110001100110110010110001010100010001 # bit data of rseed
