[ T-Cross ]
    title = [t-cross] in region mesh
     mesh =  reg            # mesh type is region-wise
      reg =    1            # number of crossing regions
      non     r-from    r-to       area
      1       100       200        1.000000    
   e-type =    3            # e-mesh is log given by emin, emax and ne
     emin =  1.0000000E-02  # minimum value of e-mesh points
     emax =   150.0000      # maximum value of e-mesh points
#    edel =  2.4039514E-02  # mesh width of e-mesh points
       ne =    400          # number of e-mesh points
#    data = ( e(i), i = 1, ne + 1 )
#           1.00000E-02  1.02433E-02  1.04925E-02  1.07478E-02  1.10093E-02
#           1.12772E-02  1.15516E-02  1.18326E-02  1.21205E-02  1.24154E-02
#           1.27175E-02  1.30269E-02  1.33439E-02  1.36686E-02  1.40011E-02
#           1.43418E-02  1.46907E-02  1.50482E-02  1.54143E-02  1.57894E-02
#           1.61735E-02  1.65670E-02  1.69701E-02  1.73830E-02  1.78060E-02
#           1.82392E-02  1.86830E-02  1.91375E-02  1.96032E-02  2.00801E-02
#           2.05687E-02  2.10692E-02  2.15818E-02  2.21069E-02  2.26448E-02
#           2.31957E-02  2.37601E-02  2.43382E-02  2.49304E-02  2.55369E-02
#           2.61583E-02  2.67947E-02  2.74467E-02  2.81145E-02  2.87985E-02
#           2.94992E-02  3.02169E-02  3.09521E-02  3.17052E-02  3.24766E-02
#           3.32668E-02  3.40762E-02  3.49053E-02  3.57546E-02  3.66246E-02
#           3.75157E-02  3.84284E-02  3.93634E-02  4.03212E-02  4.13022E-02
#           4.23071E-02  4.33365E-02  4.43909E-02  4.54710E-02  4.65773E-02
#           4.77106E-02  4.88714E-02  5.00605E-02  5.12785E-02  5.25262E-02
#           5.38042E-02  5.51133E-02  5.64542E-02  5.78278E-02  5.92348E-02
#           6.06760E-02  6.21523E-02  6.36645E-02  6.52135E-02  6.68002E-02
#           6.84255E-02  7.00904E-02  7.17957E-02  7.35426E-02  7.53319E-02
#           7.71648E-02  7.90423E-02  8.09655E-02  8.29354E-02  8.49533E-02
#           8.70203E-02  8.91376E-02  9.13064E-02  9.35279E-02  9.58035E-02
#           9.81345E-02  1.00522E-01  1.02968E-01  1.05473E-01  1.08040E-01
#           1.10668E-01  1.13361E-01  1.16119E-01  1.18944E-01  1.21838E-01
#           1.24803E-01  1.27839E-01  1.30950E-01  1.34136E-01  1.37399E-01
#           1.40742E-01  1.44167E-01  1.47675E-01  1.51268E-01  1.54948E-01
#           1.58718E-01  1.62580E-01  1.66535E-01  1.70587E-01  1.74738E-01
#           1.78989E-01  1.83344E-01  1.87805E-01  1.92375E-01  1.97055E-01
#           2.01850E-01  2.06761E-01  2.11792E-01  2.16945E-01  2.22223E-01
#           2.27630E-01  2.33169E-01  2.38842E-01  2.44653E-01  2.50605E-01
#           2.56703E-01  2.62949E-01  2.69346E-01  2.75900E-01  2.82613E-01
#           2.89489E-01  2.96532E-01  3.03747E-01  3.11138E-01  3.18708E-01
#           3.26462E-01  3.34405E-01  3.42542E-01  3.50876E-01  3.59413E-01
#           3.68158E-01  3.77116E-01  3.86291E-01  3.95690E-01  4.05317E-01
#           4.15179E-01  4.25281E-01  4.35628E-01  4.46227E-01  4.57084E-01
#           4.68205E-01  4.79597E-01  4.91266E-01  5.03219E-01  5.15463E-01
#           5.28005E-01  5.40851E-01  5.54011E-01  5.67490E-01  5.81298E-01
#           5.95441E-01  6.09929E-01  6.24769E-01  6.39970E-01  6.55541E-01
#           6.71491E-01  6.87828E-01  7.04564E-01  7.21706E-01  7.39266E-01
#           7.57253E-01  7.75678E-01  7.94551E-01  8.13883E-01  8.33685E-01
#           8.53969E-01  8.74747E-01  8.96030E-01  9.17831E-01  9.40163E-01
#           9.63038E-01  9.86469E-01  1.01047E+00  1.03506E+00  1.06024E+00
#           1.08604E+00  1.11246E+00  1.13953E+00  1.16725E+00  1.19565E+00
#           1.22474E+00  1.25454E+00  1.28507E+00  1.31633E+00  1.34836E+00
#           1.38117E+00  1.41477E+00  1.44920E+00  1.48446E+00  1.52057E+00
#           1.55757E+00  1.59547E+00  1.63429E+00  1.67405E+00  1.71478E+00
#           1.75650E+00  1.79924E+00  1.84302E+00  1.88786E+00  1.93379E+00
#           1.98084E+00  2.02904E+00  2.07841E+00  2.12898E+00  2.18078E+00
#           2.23384E+00  2.28819E+00  2.34386E+00  2.40089E+00  2.45930E+00
#           2.51914E+00  2.58043E+00  2.64322E+00  2.70753E+00  2.77341E+00
#           2.84088E+00  2.91001E+00  2.98081E+00  3.05333E+00  3.12762E+00
#           3.20372E+00  3.28167E+00  3.36152E+00  3.44330E+00  3.52708E+00
#           3.61290E+00  3.70080E+00  3.79085E+00  3.88308E+00  3.97756E+00
#           4.07434E+00  4.17347E+00  4.27501E+00  4.37903E+00  4.48557E+00
#           4.59471E+00  4.70650E+00  4.82102E+00  4.93832E+00  5.05847E+00
#           5.18155E+00  5.30762E+00  5.43676E+00  5.56904E+00  5.70453E+00
#           5.84333E+00  5.98550E+00  6.13114E+00  6.28031E+00  6.43312E+00
#           6.58964E+00  6.74997E+00  6.91420E+00  7.08243E+00  7.25475E+00
#           7.43126E+00  7.61207E+00  7.79728E+00  7.98700E+00  8.18133E+00
#           8.38038E+00  8.58428E+00  8.79315E+00  9.00709E+00  9.22624E+00
#           9.45072E+00  9.68067E+00  9.91620E+00  1.01575E+01  1.04046E+01
#           1.06578E+01  1.09171E+01  1.11827E+01  1.14548E+01  1.17335E+01
#           1.20190E+01  1.23114E+01  1.26109E+01  1.29178E+01  1.32321E+01
#           1.35540E+01  1.38838E+01  1.42216E+01  1.45676E+01  1.49221E+01
#           1.52851E+01  1.56570E+01  1.60380E+01  1.64282E+01  1.68279E+01
#           1.72374E+01  1.76568E+01  1.80864E+01  1.85264E+01  1.89772E+01
#           1.94389E+01  1.99119E+01  2.03963E+01  2.08926E+01  2.14009E+01
#           2.19216E+01  2.24550E+01  2.30014E+01  2.35610E+01  2.41343E+01
#           2.47215E+01  2.53230E+01  2.59391E+01  2.65702E+01  2.72167E+01
#           2.78789E+01  2.85572E+01  2.92520E+01  2.99637E+01  3.06928E+01
#           3.14396E+01  3.22045E+01  3.29881E+01  3.37907E+01  3.46128E+01
#           3.54550E+01  3.63177E+01  3.72013E+01  3.81064E+01  3.90336E+01
#           3.99833E+01  4.09561E+01  4.19526E+01  4.29734E+01  4.40189E+01
#           4.50900E+01  4.61870E+01  4.73108E+01  4.84619E+01  4.96410E+01
#           5.08488E+01  5.20860E+01  5.33533E+01  5.46514E+01  5.59812E+01
#           5.73432E+01  5.87384E+01  6.01676E+01  6.16315E+01  6.31311E+01
#           6.46671E+01  6.62405E+01  6.78522E+01  6.95031E+01  7.11941E+01
#           7.29263E+01  7.47007E+01  7.65182E+01  7.83800E+01  8.02870E+01
#           8.22405E+01  8.42414E+01  8.62911E+01  8.83906E+01  9.05412E+01
#           9.27442E+01  9.50007E+01  9.73122E+01  9.96799E+01  1.02105E+02
#           1.04589E+02  1.07134E+02  1.09741E+02  1.12411E+02  1.15146E+02
#           1.17948E+02  1.20817E+02  1.23757E+02  1.26768E+02  1.29852E+02
#           1.33012E+02  1.36248E+02  1.39563E+02  1.42959E+02  1.46437E+02
#           1.50000E+02
     unit =    2            # unit is [1/cm^2/(MeV/n)/source]
     axis =  eng            # axis of output
     file = detector-01.out  # file name of output for the above axis
   output = f-curr          # surface crossing forward current spectrum
     part =  neutron  
# kf/name :  2112     
#    used :        main (  %)        temp (  %)       total (  %)
#  memory :         414 (  0)           0 (  0)         414 (  0)

#------------------------------------------------------------------------------
#newpage:
#   no. =    1   reg = 100 - 200

x: Energy [MeV/n]
y:  F-Curr [1/cm^2/(MeV/n)/source]         
p: xlog ylog afac(0.8) form(0.9)
h: n            x            y(neutron ),hh0l   n 
#  e-lower      e-upper      neutron     r.err 
   1.0000E-02   1.0243E-02   1.0028E-03  0.0905
   1.0243E-02   1.0493E-02   9.9507E-04  0.0898
   1.0493E-02   1.0748E-02   1.0184E-03  0.0877
   1.0748E-02   1.1009E-02   8.6423E-04  0.0941
   1.1009E-02   1.1277E-02   9.4077E-04  0.0891
   1.1277E-02   1.1552E-02   8.6740E-04  0.0917
   1.1552E-02   1.1833E-02   1.1172E-03  0.0798
   1.1833E-02   1.2121E-02   8.4058E-04  0.0909
   1.2121E-02   1.2415E-02   8.3417E-04  0.0902
   1.2415E-02   1.2718E-02   9.9312E-04  0.0816
   1.2718E-02   1.3027E-02   9.8246E-04  0.0811
   1.3027E-02   1.3344E-02   8.4554E-04  0.0864
   1.3344E-02   1.3669E-02   1.0349E-03  0.0772
   1.3669E-02   1.4001E-02   8.0585E-04  0.0864
   1.4001E-02   1.4342E-02   9.1000E-04  0.0803
   1.4342E-02   1.4691E-02   8.7119E-04  0.0811
   1.4691E-02   1.5048E-02   8.3931E-04  0.0816
   1.5048E-02   1.5414E-02   9.5593E-04  0.0756
   1.5414E-02   1.5789E-02   9.1190E-04  0.0765
   1.5789E-02   1.6174E-02   1.0204E-03  0.0714
   1.6174E-02   1.6567E-02   7.9286E-04  0.0801
   1.6567E-02   1.6970E-02   9.4768E-04  0.0724
   1.6970E-02   1.7383E-02   8.6220E-04  0.0750
   1.7383E-02   1.7806E-02   8.7955E-04  0.0733
   1.7806E-02   1.8239E-02   9.4637E-04  0.0698
   1.8239E-02   1.8683E-02   8.2474E-04  0.0739
   1.8683E-02   1.9138E-02   9.4595E-04  0.0682
   1.9138E-02   1.9603E-02   8.3757E-04  0.0716
   1.9603E-02   2.0080E-02   9.0573E-04  0.0680
   2.0080E-02   2.0569E-02   9.0469E-04  0.0673
   2.0569E-02   2.1069E-02   7.9928E-04  0.0707
   2.1069E-02   2.1582E-02   9.9097E-04  0.0627
   2.1582E-02   2.2107E-02   7.3890E-04  0.0718
   2.2107E-02   2.2645E-02   8.9240E-04  0.0645
   2.2645E-02   2.3196E-02   7.5141E-04  0.0695
   2.3196E-02   2.3760E-02   7.7254E-04  0.0677
   2.3760E-02   2.4338E-02   7.2998E-04  0.0688
   2.4338E-02   2.4930E-02   8.9839E-04  0.0613
   2.4930E-02   2.5537E-02   7.9462E-04  0.0644
   2.5537E-02   2.6158E-02   6.7275E-04  0.0692
   2.6158E-02   2.6795E-02   7.5418E-04  0.0645
   2.6795E-02   2.7447E-02   7.2706E-04  0.0650
   2.7447E-02   2.8114E-02   7.8467E-04  0.0618
   2.8114E-02   2.8799E-02   7.2802E-04  0.0634
   2.8799E-02   2.9499E-02   6.8218E-04  0.0647
   2.9499E-02   3.0217E-02   7.0221E-04  0.0630
   3.0217E-02   3.0952E-02   7.4537E-04  0.0604
   3.0952E-02   3.1705E-02   6.7190E-04  0.0629
   3.1705E-02   3.2477E-02   7.0001E-04  0.0609
   3.2477E-02   3.3267E-02   7.7704E-04  0.0571
   3.3267E-02   3.4076E-02   7.3881E-04  0.0578
   3.4076E-02   3.4905E-02   7.3332E-04  0.0574
   3.4905E-02   3.5755E-02   6.5232E-04  0.0601
   3.5755E-02   3.6625E-02   7.3798E-04  0.0558
   3.6625E-02   3.7516E-02   7.2045E-04  0.0558
   3.7516E-02   3.8428E-02   6.9458E-04  0.0562
   3.8428E-02   3.9363E-02   6.8450E-04  0.0559
   3.9363E-02   4.0321E-02   7.0374E-04  0.0545
   4.0321E-02   4.1302E-02   7.0537E-04  0.0538
   4.1302E-02   4.2307E-02   6.6075E-04  0.0549
   4.2307E-02   4.3337E-02   6.9169E-04  0.0530
   4.3337E-02   4.4391E-02   6.5250E-04  0.0539
   4.4391E-02   4.5471E-02   6.8329E-04  0.0521
   4.5471E-02   4.6577E-02   6.7610E-04  0.0517
   4.6577E-02   4.7711E-02   6.4769E-04  0.0522
   4.7711E-02   4.8871E-02   6.4006E-04  0.0519
   4.8871E-02   5.0061E-02   6.9634E-04  0.0491
   5.0061E-02   5.1279E-02   5.7963E-04  0.0532
   5.1279E-02   5.2526E-02   6.5083E-04  0.0496
   5.2526E-02   5.3804E-02   5.8529E-04  0.0517
   5.3804E-02   5.5113E-02   5.8208E-04  0.0512
   5.5113E-02   5.6454E-02   5.9808E-04  0.0499
   5.6454E-02   5.7828E-02   5.9844E-04  0.0493
   5.7828E-02   5.9235E-02   5.9417E-04  0.0489
   5.9235E-02   6.0676E-02   6.0088E-04  0.0481
   6.0676E-02   6.2152E-02   6.1505E-04  0.0469
   6.2152E-02   6.3665E-02   5.6341E-04  0.0485
   6.3665E-02   6.5214E-02   5.5326E-04  0.0483
   6.5214E-02   6.6800E-02   5.6848E-04  0.0471
   6.6800E-02   6.8426E-02   6.0666E-04  0.0450
   6.8426E-02   7.0090E-02   5.8143E-04  0.0455
   7.0090E-02   7.1796E-02   5.6880E-04  0.0454
   7.1796E-02   7.3543E-02   5.2552E-04  0.0467
   7.3543E-02   7.5332E-02   5.6780E-04  0.0444
   7.5332E-02   7.7165E-02   5.5377E-04  0.0444
   7.7165E-02   7.9042E-02   5.5926E-04  0.0436
   7.9042E-02   8.0965E-02   5.5326E-04  0.0434
   8.0965E-02   8.2935E-02   4.9747E-04  0.0452
   8.2935E-02   8.4953E-02   5.4909E-04  0.0425
   8.4953E-02   8.7020E-02   5.4185E-04  0.0423
   8.7020E-02   8.9138E-02   5.1859E-04  0.0427
   8.9138E-02   9.1306E-02   5.0258E-04  0.0428
   9.1306E-02   9.3528E-02   5.2036E-04  0.0416
   9.3528E-02   9.5804E-02   5.3964E-04  0.0404
   9.5804E-02   9.8134E-02   5.2081E-04  0.0406
   9.8134E-02   1.0052E-01   5.0886E-04  0.0406
   1.0052E-01   1.0297E-01   4.8737E-04  0.0410
   1.0297E-01   1.0547E-01   5.1092E-04  0.0395
   1.0547E-01   1.0804E-01   5.0775E-04  0.0392
   1.0804E-01   1.1067E-01   4.8922E-04  0.0394
   1.1067E-01   1.1336E-01   4.8280E-04  0.0392
   1.1336E-01   1.1612E-01   4.6625E-04  0.0394
   1.1612E-01   1.1894E-01   4.9624E-04  0.0378
   1.1894E-01   1.2184E-01   4.4022E-04  0.0396
   1.2184E-01   1.2480E-01   4.5675E-04  0.0384
   1.2480E-01   1.2784E-01   4.7817E-04  0.0371
   1.2784E-01   1.3095E-01   4.4560E-04  0.0380
   1.3095E-01   1.3414E-01   4.4035E-04  0.0377
   1.3414E-01   1.3740E-01   4.2162E-04  0.0381
   1.3740E-01   1.4074E-01   4.4331E-04  0.0367
   1.4074E-01   1.4417E-01   4.6373E-04  0.0355
   1.4417E-01   1.4767E-01   4.4873E-04  0.0356
   1.4767E-01   1.5127E-01   4.3083E-04  0.0359
   1.5127E-01   1.5495E-01   4.1978E-04  0.0360
   1.5495E-01   1.5872E-01   4.1644E-04  0.0357
   1.5872E-01   1.6258E-01   4.2442E-04  0.0349
   1.6258E-01   1.6654E-01   4.0650E-04  0.0353
   1.6654E-01   1.7059E-01   4.0968E-04  0.0347
   1.7059E-01   1.7474E-01   4.1007E-04  0.0343
   1.7474E-01   1.7899E-01   3.8198E-04  0.0351
   1.7899E-01   1.8334E-01   3.8990E-04  0.0343
   1.8334E-01   1.8781E-01   3.8781E-04  0.0340
   1.8781E-01   1.9237E-01   3.7554E-04  0.0341
   1.9237E-01   1.9706E-01   3.8072E-04  0.0335
   1.9706E-01   2.0185E-01   3.9754E-04  0.0324
   2.0185E-01   2.0676E-01   3.3882E-04  0.0347
   2.0676E-01   2.1179E-01   3.3157E-04  0.0346
   2.1179E-01   2.1694E-01   3.6250E-04  0.0327
   2.1694E-01   2.2222E-01   3.4631E-04  0.0331
   2.2222E-01   2.2763E-01   3.6084E-04  0.0320
   2.2763E-01   2.3317E-01   3.5497E-04  0.0319
   2.3317E-01   2.3884E-01   3.5994E-04  0.0313
   2.3884E-01   2.4465E-01   3.3831E-04  0.0319
   2.4465E-01   2.5061E-01   3.3599E-04  0.0316
   2.5061E-01   2.5670E-01   3.2013E-04  0.0320
   2.5670E-01   2.6295E-01   3.2534E-04  0.0314
   2.6295E-01   2.6935E-01   3.3449E-04  0.0306
   2.6935E-01   2.7590E-01   3.1617E-04  0.0311
   2.7590E-01   2.8261E-01   3.0479E-04  0.0313
   2.8261E-01   2.8949E-01   3.0337E-04  0.0310
   2.8949E-01   2.9653E-01   3.1518E-04  0.0300
   2.9653E-01   3.0375E-01   3.0354E-04  0.0302
   3.0375E-01   3.1114E-01   2.9281E-04  0.0304
   3.1114E-01   3.1871E-01   2.8850E-04  0.0303
   3.1871E-01   3.2646E-01   2.9016E-04  0.0298
   3.2646E-01   3.3441E-01   2.7747E-04  0.0301
   3.3441E-01   3.4254E-01   2.8367E-04  0.0294
   3.4254E-01   3.5088E-01   2.6589E-04  0.0300
   3.5088E-01   3.5941E-01   2.5618E-04  0.0302
   3.5941E-01   3.6816E-01   2.6004E-04  0.0297
   3.6816E-01   3.7712E-01   2.6570E-04  0.0290
   3.7712E-01   3.8629E-01   2.6244E-04  0.0288
   3.8629E-01   3.9569E-01   2.4982E-04  0.0292
   3.9569E-01   4.0532E-01   2.4555E-04  0.0291
   4.0532E-01   4.1518E-01   2.3830E-04  0.0292
   4.1518E-01   4.2528E-01   2.4333E-04  0.0285
   4.2528E-01   4.3563E-01   2.3262E-04  0.0288
   4.3563E-01   4.4623E-01   2.2624E-04  0.0289
   4.4623E-01   4.5708E-01   2.1848E-04  0.0290
   4.5708E-01   4.6821E-01   2.1347E-04  0.0290
   4.6821E-01   4.7960E-01   2.2876E-04  0.0277
   4.7960E-01   4.9127E-01   2.1090E-04  0.0285
   4.9127E-01   5.0322E-01   2.1384E-04  0.0280
   5.0322E-01   5.1546E-01   2.0353E-04  0.0283
   5.1546E-01   5.2800E-01   1.9160E-04  0.0288
   5.2800E-01   5.4085E-01   1.9071E-04  0.0286
   5.4085E-01   5.5401E-01   1.8405E-04  0.0287
   5.5401E-01   5.6749E-01   1.8294E-04  0.0285
   5.6749E-01   5.8130E-01   1.8439E-04  0.0280
   5.8130E-01   5.9544E-01   1.8609E-04  0.0276
   5.9544E-01   6.0993E-01   1.7374E-04  0.0282
   6.0993E-01   6.2477E-01   1.6550E-04  0.0285
   6.2477E-01   6.3997E-01   1.6446E-04  0.0283
   6.3997E-01   6.5554E-01   1.6120E-04  0.0282
   6.5554E-01   6.7149E-01   1.5937E-04  0.0280
   6.7149E-01   6.8783E-01   1.5792E-04  0.0278
   6.8783E-01   7.0456E-01   1.4891E-04  0.0283
   7.0456E-01   7.2171E-01   1.3954E-04  0.0289
   7.2171E-01   7.3927E-01   1.4431E-04  0.0281
   7.3927E-01   7.5725E-01   1.2576E-04  0.0297
   7.5725E-01   7.7568E-01   1.2896E-04  0.0290
   7.7568E-01   7.9455E-01   1.2738E-04  0.0288
   7.9455E-01   8.1388E-01   1.2001E-04  0.0294
   8.1388E-01   8.3368E-01   1.0928E-04  0.0304
   8.3368E-01   8.5397E-01   1.1181E-04  0.0297
   8.5397E-01   8.7475E-01   1.0444E-04  0.0304
   8.7475E-01   8.9603E-01   1.0525E-04  0.0299
   8.9603E-01   9.1783E-01   9.6876E-05  0.0308
   9.1783E-01   9.4016E-01   9.4664E-05  0.0308
   9.4016E-01   9.6304E-01   9.2591E-05  0.0307
   9.6304E-01   9.8647E-01   8.9495E-05  0.0309
   9.8647E-01   1.0105E+00   8.5703E-05  0.0312
   1.0105E+00   1.0351E+00   8.7450E-05  0.0305
   1.0351E+00   1.0602E+00   8.8907E-05  0.0299
   1.0602E+00   1.0860E+00   8.7996E-05  0.0297
   1.0860E+00   1.1125E+00   9.2643E-05  0.0286
   1.1125E+00   1.1395E+00   9.1772E-05  0.0284
   1.1395E+00   1.1673E+00   9.5507E-05  0.0275
   1.1673E+00   1.1957E+00   9.5985E-05  0.0271
   1.1957E+00   1.2247E+00   1.0546E-04  0.0255
   1.2247E+00   1.2545E+00   1.0380E-04  0.0254
   1.2545E+00   1.2851E+00   1.0241E-04  0.0253
   1.2851E+00   1.3163E+00   1.0548E-04  0.0246
   1.3163E+00   1.3484E+00   1.0454E-04  0.0244
   1.3484E+00   1.3812E+00   1.0620E-04  0.0240
   1.3812E+00   1.4148E+00   1.1248E-04  0.0230
   1.4148E+00   1.4492E+00   1.1458E-04  0.0225
   1.4492E+00   1.4845E+00   1.0998E-04  0.0227
   1.4845E+00   1.5206E+00   1.1186E-04  0.0222
   1.5206E+00   1.5576E+00   1.0912E-04  0.0223
   1.5576E+00   1.5955E+00   1.1389E-04  0.0215
   1.5955E+00   1.6343E+00   1.1067E-04  0.0216
   1.6343E+00   1.6741E+00   1.1488E-04  0.0209
   1.6741E+00   1.7148E+00   1.1981E-04  0.0202
   1.7148E+00   1.7565E+00   1.1505E-04  0.0204
   1.7565E+00   1.7992E+00   1.1278E-04  0.0204
   1.7992E+00   1.8430E+00   1.1376E-04  0.0200
   1.8430E+00   1.8879E+00   1.1034E-04  0.0201
   1.8879E+00   1.9338E+00   1.1129E-04  0.0198
   1.9338E+00   1.9808E+00   1.1570E-04  0.0192
   1.9808E+00   2.0290E+00   1.1433E-04  0.0191
   2.0290E+00   2.0784E+00   1.1155E-04  0.0191
   2.0784E+00   2.1290E+00   1.1161E-04  0.0188
   2.1290E+00   2.1808E+00   1.0481E-04  0.0192
   2.1808E+00   2.2338E+00   1.0460E-04  0.0190
   2.2338E+00   2.2882E+00   1.0530E-04  0.0187
   2.2882E+00   2.3439E+00   1.0096E-04  0.0189
   2.3439E+00   2.4009E+00   1.0328E-04  0.0184
   2.4009E+00   2.4593E+00   1.0006E-04  0.0185
   2.4593E+00   2.5191E+00   9.5109E-05  0.0188
   2.5191E+00   2.5804E+00   1.0226E-04  0.0179
   2.5804E+00   2.6432E+00   9.4881E-05  0.0183
   2.6432E+00   2.7075E+00   9.4135E-05  0.0182
   2.7075E+00   2.7734E+00   8.9622E-05  0.0184
   2.7734E+00   2.8409E+00   9.1199E-05  0.0180
   2.8409E+00   2.9100E+00   8.5097E-05  0.0184
   2.9100E+00   2.9808E+00   8.6169E-05  0.0181
   2.9808E+00   3.0533E+00   8.3447E-05  0.0182
   3.0533E+00   3.1276E+00   8.0751E-05  0.0183
   3.1276E+00   3.2037E+00   7.9569E-05  0.0182
   3.2037E+00   3.2817E+00   7.6383E-05  0.0183
   3.2817E+00   3.3615E+00   7.1112E-05  0.0188
   3.3615E+00   3.4433E+00   7.3543E-05  0.0182
   3.4433E+00   3.5271E+00   6.7177E-05  0.0188
   3.5271E+00   3.6129E+00   6.6700E-05  0.0187
   3.6129E+00   3.7008E+00   6.4024E-05  0.0188
   3.7008E+00   3.7908E+00   6.3392E-05  0.0187
   3.7908E+00   3.8831E+00   6.3490E-05  0.0185
   3.8831E+00   3.9776E+00   5.9294E-05  0.0189
   3.9776E+00   4.0743E+00   6.0758E-05  0.0184
   4.0743E+00   4.1735E+00   5.6591E-05  0.0189
   4.1735E+00   4.2750E+00   5.5661E-05  0.0188
   4.2750E+00   4.3790E+00   5.3733E-05  0.0189
   4.3790E+00   4.4856E+00   5.1903E-05  0.0190
   4.4856E+00   4.5947E+00   5.2503E-05  0.0187
   4.5947E+00   4.7065E+00   5.0227E-05  0.0189
   4.7065E+00   4.8210E+00   4.8099E-05  0.0191
   4.8210E+00   4.9383E+00   4.5601E-05  0.0193
   4.9383E+00   5.0585E+00   4.8238E-05  0.0186
   5.0585E+00   5.1815E+00   4.5655E-05  0.0189
   5.1815E+00   5.3076E+00   4.3967E-05  0.0190
   5.3076E+00   5.4368E+00   4.2056E-05  0.0192
   5.4368E+00   5.5690E+00   4.2637E-05  0.0188
   5.5690E+00   5.7045E+00   4.2775E-05  0.0186
   5.7045E+00   5.8433E+00   4.3243E-05  0.0182
   5.8433E+00   5.9855E+00   4.3384E-05  0.0180
   5.9855E+00   6.1311E+00   4.3287E-05  0.0178
   6.1311E+00   6.2803E+00   4.1300E-05  0.0180
   6.2803E+00   6.4331E+00   4.0666E-05  0.0179
   6.4331E+00   6.5896E+00   4.0371E-05  0.0178
   6.5896E+00   6.7500E+00   4.0310E-05  0.0176
   6.7500E+00   6.9142E+00   4.0315E-05  0.0174
   6.9142E+00   7.0824E+00   4.0742E-05  0.0171
   7.0824E+00   7.2548E+00   3.9403E-05  0.0172
   7.2548E+00   7.4313E+00   4.0308E-05  0.0168
   7.4313E+00   7.6121E+00   4.0701E-05  0.0165
   7.6121E+00   7.7973E+00   4.1175E-05  0.0162
   7.7973E+00   7.9870E+00   4.0498E-05  0.0161
   7.9870E+00   8.1813E+00   4.0925E-05  0.0159
   8.1813E+00   8.3804E+00   4.1596E-05  0.0155
   8.3804E+00   8.5843E+00   4.1388E-05  0.0154
   8.5843E+00   8.7931E+00   4.1970E-05  0.0151
   8.7931E+00   9.0071E+00   4.2820E-05  0.0148
   9.0071E+00   9.2262E+00   4.2752E-05  0.0146
   9.2262E+00   9.4507E+00   4.2003E-05  0.0146
   9.4507E+00   9.6807E+00   4.4237E-05  0.0140
   9.6807E+00   9.9162E+00   4.4171E-05  0.0139
   9.9162E+00   1.0157E+01   4.5563E-05  0.0135
   1.0157E+01   1.0405E+01   4.5080E-05  0.0134
   1.0405E+01   1.0658E+01   4.6707E-05  0.0130
   1.0658E+01   1.0917E+01   4.7869E-05  0.0127
   1.0917E+01   1.1183E+01   4.7711E-05  0.0126
   1.1183E+01   1.1455E+01   4.9040E-05  0.0122
   1.1455E+01   1.1733E+01   5.0609E-05  0.0119
   1.1733E+01   1.2019E+01   5.1190E-05  0.0117
   1.2019E+01   1.2311E+01   5.1390E-05  0.0115
   1.2311E+01   1.2611E+01   5.3000E-05  0.0112
   1.2611E+01   1.2918E+01   5.3257E-05  0.0111
   1.2918E+01   1.3232E+01   5.4855E-05  0.0108
   1.3232E+01   1.3554E+01   5.6242E-05  0.0105
   1.3554E+01   1.3884E+01   5.8991E-05  0.0101
   1.3884E+01   1.4222E+01   5.8649E-05  0.0100
   1.4222E+01   1.4568E+01   5.9990E-05  0.0098
   1.4568E+01   1.4922E+01   6.1872E-05  0.0096
   1.4922E+01   1.5285E+01   6.2159E-05  0.0094
   1.5285E+01   1.5657E+01   6.5109E-05  0.0091
   1.5657E+01   1.6038E+01   6.6193E-05  0.0089
   1.6038E+01   1.6428E+01   6.6750E-05  0.0088
   1.6428E+01   1.6828E+01   7.0086E-05  0.0084
   1.6828E+01   1.7237E+01   6.9945E-05  0.0084
   1.7237E+01   1.7657E+01   7.2036E-05  0.0081
   1.7657E+01   1.8086E+01   7.3496E-05  0.0080
   1.8086E+01   1.8526E+01   7.5191E-05  0.0078
   1.8526E+01   1.8977E+01   7.6883E-05  0.0076
   1.8977E+01   1.9439E+01   7.8418E-05  0.0074
   1.9439E+01   1.9912E+01   8.0657E-05  0.0072
   1.9912E+01   2.0396E+01   8.4637E-05  0.0070
   2.0396E+01   2.0893E+01   8.9042E-05  0.0067
   2.0893E+01   2.1401E+01   9.1239E-05  0.0066
   2.1401E+01   2.1922E+01   9.3654E-05  0.0064
   2.1922E+01   2.2455E+01   9.4396E-05  0.0063
   2.2455E+01   2.3001E+01   9.7147E-05  0.0061
   2.3001E+01   2.3561E+01   9.9296E-05  0.0060
   2.3561E+01   2.4134E+01   1.0071E-04  0.0059
   2.4134E+01   2.4721E+01   1.0299E-04  0.0058
   2.4721E+01   2.5323E+01   1.0537E-04  0.0056
   2.5323E+01   2.5939E+01   1.0869E-04  0.0055
   2.5939E+01   2.6570E+01   1.1085E-04  0.0053
   2.6570E+01   2.7217E+01   1.1259E-04  0.0052
   2.7217E+01   2.7879E+01   1.1404E-04  0.0051
   2.7879E+01   2.8557E+01   1.1598E-04  0.0050
   2.8557E+01   2.9252E+01   1.1874E-04  0.0049
   2.9252E+01   2.9964E+01   1.2156E-04  0.0048
   2.9964E+01   3.0693E+01   1.2291E-04  0.0047
   3.0693E+01   3.1440E+01   1.2581E-04  0.0046
   3.1440E+01   3.2205E+01   1.2728E-04  0.0045
   3.2205E+01   3.2988E+01   1.2933E-04  0.0044
   3.2988E+01   3.3791E+01   1.2973E-04  0.0044
   3.3791E+01   3.4613E+01   1.3186E-04  0.0043
   3.4613E+01   3.5455E+01   1.3336E-04  0.0042
   3.5455E+01   3.6318E+01   1.3524E-04  0.0041
   3.6318E+01   3.7201E+01   1.3459E-04  0.0041
   3.7201E+01   3.8106E+01   1.3391E-04  0.0041
   3.8106E+01   3.9034E+01   1.3360E-04  0.0040
   3.9034E+01   3.9983E+01   1.3304E-04  0.0040
   3.9983E+01   4.0956E+01   1.3054E-04  0.0040
   4.0956E+01   4.1953E+01   1.2783E-04  0.0040
   4.1953E+01   4.2973E+01   1.2457E-04  0.0040
   4.2973E+01   4.4019E+01   1.2004E-04  0.0040
   4.4019E+01   4.5090E+01   1.1549E-04  0.0040
   4.5090E+01   4.6187E+01   1.1012E-04  0.0041
   4.6187E+01   4.7311E+01   1.0351E-04  0.0041
   4.7311E+01   4.8462E+01   9.6382E-05  0.0042
   4.8462E+01   4.9641E+01   8.9431E-05  0.0044
   4.9641E+01   5.0849E+01   8.1058E-05  0.0045
   5.0849E+01   5.2086E+01   7.3214E-05  0.0047
   5.2086E+01   5.3353E+01   6.6303E-05  0.0049
   5.3353E+01   5.4651E+01   5.9464E-05  0.0051
   5.4651E+01   5.5981E+01   5.2166E-05  0.0054
   5.5981E+01   5.7343E+01   4.6114E-05  0.0056
   5.7343E+01   5.8738E+01   4.0251E-05  0.0060
   5.8738E+01   6.0168E+01   3.5101E-05  0.0063
   6.0168E+01   6.1632E+01   3.0362E-05  0.0067
   6.1632E+01   6.3131E+01   2.5988E-05  0.0072
   6.3131E+01   6.4667E+01   2.2980E-05  0.0075
   6.4667E+01   6.6240E+01   1.9333E-05  0.0081
   6.6240E+01   6.7852E+01   1.7091E-05  0.0085
   6.7852E+01   6.9503E+01   1.4568E-05  0.0091
   6.9503E+01   7.1194E+01   1.2730E-05  0.0096
   7.1194E+01   7.2926E+01   1.0879E-05  0.0103
   7.2926E+01   7.4701E+01   9.3104E-06  0.0110
   7.4701E+01   7.6518E+01   8.0241E-06  0.0117
   7.6518E+01   7.8380E+01   6.9408E-06  0.0124
   7.8380E+01   8.0287E+01   5.9243E-06  0.0133
   8.0287E+01   8.2240E+01   4.9001E-06  0.0145
   8.2240E+01   8.4241E+01   4.2829E-06  0.0153
   8.4241E+01   8.6291E+01   3.7070E-06  0.0162
   8.6291E+01   8.8391E+01   3.1578E-06  0.0174
   8.8391E+01   9.0541E+01   2.6830E-06  0.0186
   9.0541E+01   9.2744E+01   2.2007E-06  0.0203
   9.2744E+01   9.5001E+01   1.7168E-06  0.0227
   9.5001E+01   9.7312E+01   1.3602E-06  0.0252
   9.7312E+01   9.9680E+01   1.0432E-06  0.0285
   9.9680E+01   1.0211E+02   6.4157E-07  0.0359
   1.0211E+02   1.0459E+02   3.1961E-07  0.0502
   1.0459E+02   1.0713E+02   4.1654E-08  0.1374
   1.0713E+02   1.0974E+02   0.0000E+00  0.0000
   1.0974E+02   1.1241E+02   0.0000E+00  0.0000
   1.1241E+02   1.1515E+02   0.0000E+00  0.0000
   1.1515E+02   1.1795E+02   0.0000E+00  0.0000
   1.1795E+02   1.2082E+02   0.0000E+00  0.0000
   1.2082E+02   1.2376E+02   0.0000E+00  0.0000
   1.2376E+02   1.2677E+02   0.0000E+00  0.0000
   1.2677E+02   1.2985E+02   0.0000E+00  0.0000
   1.2985E+02   1.3301E+02   0.0000E+00  0.0000
   1.3301E+02   1.3625E+02   0.0000E+00  0.0000
   1.3625E+02   1.3956E+02   0.0000E+00  0.0000
   1.3956E+02   1.4296E+02   0.0000E+00  0.0000
   1.4296E+02   1.4644E+02   0.0000E+00  0.0000
   1.4644E+02   1.5000E+02   0.0000E+00  0.0000

#   sum over                 3.8689E-05
'no. =    1   reg = 100 - 200'
msuc: {\huge [t-cross] in region mesh}
msdr: {\it plotted by \ANGEL \version}
msdl: {\it calculated by \PHITS  3.26}
wt: s(0.7)
\vspace{-3}
  region surface crossing
  area  &=&   1.0000E+00 [cm^2]
e:
 
# Information for Restart Calculation
# This calculation was newly started
# istdev =  2 # 1:Batch variance, 2:History variance
# resc2  = 5.00000000000000000E+08 # Total source weight or Total source weight / maxcas
# resc3  = 5.00000000000000000E+08 # Total history number or Total batch number
# maxcas =   500000000 # History / Batch, only used for istdev=1
# bitrseed = 1101101111010011011000101101110001100110110010110001010100010001 # bit data of rseed
