[ T-Cross ]
    title = [t-cross] in region mesh
     mesh =  reg            # mesh type is region-wise
      reg =    1            # number of crossing regions
      non     r-from    r-to       area
      1       104       204        1.000000    
   e-type =    3            # e-mesh is log given by emin, emax and ne
     emin =  1.0000000E-02  # minimum value of e-mesh points
     emax =   150.0000      # maximum value of e-mesh points
#    edel =  2.4039514E-02  # mesh width of e-mesh points
       ne =    400          # number of e-mesh points
#    data = ( e(i), i = 1, ne + 1 )
#           1.00000E-02  1.02433E-02  1.04925E-02  1.07478E-02  1.10093E-02
#           1.12772E-02  1.15516E-02  1.18326E-02  1.21205E-02  1.24154E-02
#           1.27175E-02  1.30269E-02  1.33439E-02  1.36686E-02  1.40011E-02
#           1.43418E-02  1.46907E-02  1.50482E-02  1.54143E-02  1.57894E-02
#           1.61735E-02  1.65670E-02  1.69701E-02  1.73830E-02  1.78060E-02
#           1.82392E-02  1.86830E-02  1.91375E-02  1.96032E-02  2.00801E-02
#           2.05687E-02  2.10692E-02  2.15818E-02  2.21069E-02  2.26448E-02
#           2.31957E-02  2.37601E-02  2.43382E-02  2.49304E-02  2.55369E-02
#           2.61583E-02  2.67947E-02  2.74467E-02  2.81145E-02  2.87985E-02
#           2.94992E-02  3.02169E-02  3.09521E-02  3.17052E-02  3.24766E-02
#           3.32668E-02  3.40762E-02  3.49053E-02  3.57546E-02  3.66246E-02
#           3.75157E-02  3.84284E-02  3.93634E-02  4.03212E-02  4.13022E-02
#           4.23071E-02  4.33365E-02  4.43909E-02  4.54710E-02  4.65773E-02
#           4.77106E-02  4.88714E-02  5.00605E-02  5.12785E-02  5.25262E-02
#           5.38042E-02  5.51133E-02  5.64542E-02  5.78278E-02  5.92348E-02
#           6.06760E-02  6.21523E-02  6.36645E-02  6.52135E-02  6.68002E-02
#           6.84255E-02  7.00904E-02  7.17957E-02  7.35426E-02  7.53319E-02
#           7.71648E-02  7.90423E-02  8.09655E-02  8.29354E-02  8.49533E-02
#           8.70203E-02  8.91376E-02  9.13064E-02  9.35279E-02  9.58035E-02
#           9.81345E-02  1.00522E-01  1.02968E-01  1.05473E-01  1.08040E-01
#           1.10668E-01  1.13361E-01  1.16119E-01  1.18944E-01  1.21838E-01
#           1.24803E-01  1.27839E-01  1.30950E-01  1.34136E-01  1.37399E-01
#           1.40742E-01  1.44167E-01  1.47675E-01  1.51268E-01  1.54948E-01
#           1.58718E-01  1.62580E-01  1.66535E-01  1.70587E-01  1.74738E-01
#           1.78989E-01  1.83344E-01  1.87805E-01  1.92375E-01  1.97055E-01
#           2.01850E-01  2.06761E-01  2.11792E-01  2.16945E-01  2.22223E-01
#           2.27630E-01  2.33169E-01  2.38842E-01  2.44653E-01  2.50605E-01
#           2.56703E-01  2.62949E-01  2.69346E-01  2.75900E-01  2.82613E-01
#           2.89489E-01  2.96532E-01  3.03747E-01  3.11138E-01  3.18708E-01
#           3.26462E-01  3.34405E-01  3.42542E-01  3.50876E-01  3.59413E-01
#           3.68158E-01  3.77116E-01  3.86291E-01  3.95690E-01  4.05317E-01
#           4.15179E-01  4.25281E-01  4.35628E-01  4.46227E-01  4.57084E-01
#           4.68205E-01  4.79597E-01  4.91266E-01  5.03219E-01  5.15463E-01
#           5.28005E-01  5.40851E-01  5.54011E-01  5.67490E-01  5.81298E-01
#           5.95441E-01  6.09929E-01  6.24769E-01  6.39970E-01  6.55541E-01
#           6.71491E-01  6.87828E-01  7.04564E-01  7.21706E-01  7.39266E-01
#           7.57253E-01  7.75678E-01  7.94551E-01  8.13883E-01  8.33685E-01
#           8.53969E-01  8.74747E-01  8.96030E-01  9.17831E-01  9.40163E-01
#           9.63038E-01  9.86469E-01  1.01047E+00  1.03506E+00  1.06024E+00
#           1.08604E+00  1.11246E+00  1.13953E+00  1.16725E+00  1.19565E+00
#           1.22474E+00  1.25454E+00  1.28507E+00  1.31633E+00  1.34836E+00
#           1.38117E+00  1.41477E+00  1.44920E+00  1.48446E+00  1.52057E+00
#           1.55757E+00  1.59547E+00  1.63429E+00  1.67405E+00  1.71478E+00
#           1.75650E+00  1.79924E+00  1.84302E+00  1.88786E+00  1.93379E+00
#           1.98084E+00  2.02904E+00  2.07841E+00  2.12898E+00  2.18078E+00
#           2.23384E+00  2.28819E+00  2.34386E+00  2.40089E+00  2.45930E+00
#           2.51914E+00  2.58043E+00  2.64322E+00  2.70753E+00  2.77341E+00
#           2.84088E+00  2.91001E+00  2.98081E+00  3.05333E+00  3.12762E+00
#           3.20372E+00  3.28167E+00  3.36152E+00  3.44330E+00  3.52708E+00
#           3.61290E+00  3.70080E+00  3.79085E+00  3.88308E+00  3.97756E+00
#           4.07434E+00  4.17347E+00  4.27501E+00  4.37903E+00  4.48557E+00
#           4.59471E+00  4.70650E+00  4.82102E+00  4.93832E+00  5.05847E+00
#           5.18155E+00  5.30762E+00  5.43676E+00  5.56904E+00  5.70453E+00
#           5.84333E+00  5.98550E+00  6.13114E+00  6.28031E+00  6.43312E+00
#           6.58964E+00  6.74997E+00  6.91420E+00  7.08243E+00  7.25475E+00
#           7.43126E+00  7.61207E+00  7.79728E+00  7.98700E+00  8.18133E+00
#           8.38038E+00  8.58428E+00  8.79315E+00  9.00709E+00  9.22624E+00
#           9.45072E+00  9.68067E+00  9.91620E+00  1.01575E+01  1.04046E+01
#           1.06578E+01  1.09171E+01  1.11827E+01  1.14548E+01  1.17335E+01
#           1.20190E+01  1.23114E+01  1.26109E+01  1.29178E+01  1.32321E+01
#           1.35540E+01  1.38838E+01  1.42216E+01  1.45676E+01  1.49221E+01
#           1.52851E+01  1.56570E+01  1.60380E+01  1.64282E+01  1.68279E+01
#           1.72374E+01  1.76568E+01  1.80864E+01  1.85264E+01  1.89772E+01
#           1.94389E+01  1.99119E+01  2.03963E+01  2.08926E+01  2.14009E+01
#           2.19216E+01  2.24550E+01  2.30014E+01  2.35610E+01  2.41343E+01
#           2.47215E+01  2.53230E+01  2.59391E+01  2.65702E+01  2.72167E+01
#           2.78789E+01  2.85572E+01  2.92520E+01  2.99637E+01  3.06928E+01
#           3.14396E+01  3.22045E+01  3.29881E+01  3.37907E+01  3.46128E+01
#           3.54550E+01  3.63177E+01  3.72013E+01  3.81064E+01  3.90336E+01
#           3.99833E+01  4.09561E+01  4.19526E+01  4.29734E+01  4.40189E+01
#           4.50900E+01  4.61870E+01  4.73108E+01  4.84619E+01  4.96410E+01
#           5.08488E+01  5.20860E+01  5.33533E+01  5.46514E+01  5.59812E+01
#           5.73432E+01  5.87384E+01  6.01676E+01  6.16315E+01  6.31311E+01
#           6.46671E+01  6.62405E+01  6.78522E+01  6.95031E+01  7.11941E+01
#           7.29263E+01  7.47007E+01  7.65182E+01  7.83800E+01  8.02870E+01
#           8.22405E+01  8.42414E+01  8.62911E+01  8.83906E+01  9.05412E+01
#           9.27442E+01  9.50007E+01  9.73122E+01  9.96799E+01  1.02105E+02
#           1.04589E+02  1.07134E+02  1.09741E+02  1.12411E+02  1.15146E+02
#           1.17948E+02  1.20817E+02  1.23757E+02  1.26768E+02  1.29852E+02
#           1.33012E+02  1.36248E+02  1.39563E+02  1.42959E+02  1.46437E+02
#           1.50000E+02
     unit =    2            # unit is [1/cm^2/(MeV/n)/source]
     axis =  eng            # axis of output
     file = detector-05.out  # file name of output for the above axis
   output = f-curr          # surface crossing forward current spectrum
     part =  neutron  
# kf/name :  2112     
#    used :        main (  %)        temp (  %)       total (  %)
#  memory :         414 (  0)           0 (  0)         414 (  0)

#------------------------------------------------------------------------------
#newpage:
#   no. =    1   reg = 104 - 204

x: Energy [MeV/n]
y:  F-Curr [1/cm^2/(MeV/n)/source]         
p: xlog ylog afac(0.8) form(0.9)
h: n            x            y(neutron ),hh0l   n 
#  e-lower      e-upper      neutron     r.err 
   1.0000E-02   1.0243E-02   3.9951E-05  0.1430
   1.0243E-02   1.0493E-02   3.6100E-05  0.1491
   1.0493E-02   1.0748E-02   5.8607E-05  0.1155
   1.0748E-02   1.1009E-02   3.2102E-05  0.1543
   1.1009E-02   1.1277E-02   4.5526E-05  0.1280
   1.1277E-02   1.1552E-02   4.3723E-05  0.1291
   1.1552E-02   1.1833E-02   3.0590E-05  0.1525
   1.1833E-02   1.2121E-02   3.1254E-05  0.1491
   1.2121E-02   1.2415E-02   3.2545E-05  0.1443
   1.2415E-02   1.2718E-02   3.3095E-05  0.1414
   1.2718E-02   1.3027E-02   3.1652E-05  0.1429
   1.3027E-02   1.3344E-02   3.7161E-05  0.1302
   1.3344E-02   1.3669E-02   2.9554E-05  0.1443
   1.3669E-02   1.4001E-02   3.0662E-05  0.1400
   1.4001E-02   1.4342E-02   2.8759E-05  0.1429
   1.4342E-02   1.4691E-02   3.4036E-05  0.1294
   1.4691E-02   1.5048E-02   2.5170E-05  0.1491
   1.5048E-02   1.5414E-02   3.1674E-05  0.1313
   1.5414E-02   1.5789E-02   3.1443E-05  0.1302
   1.5789E-02   1.6174E-02   2.1335E-05  0.1562
   1.6174E-02   1.6567E-02   2.5773E-05  0.1401
   1.6567E-02   1.6970E-02   2.6785E-05  0.1361
   1.6970E-02   1.7383E-02   2.5550E-05  0.1374
   1.7383E-02   1.7806E-02   2.3633E-05  0.1414
   1.7806E-02   1.8239E-02   2.5839E-05  0.1336
   1.8239E-02   1.8683E-02   2.7025E-05  0.1291
   1.8683E-02   1.9138E-02   2.5584E-05  0.1310
   1.9138E-02   1.9603E-02   2.4440E-05  0.1325
   1.9603E-02   2.0080E-02   2.3475E-05  0.1336
   2.0080E-02   2.0569E-02   2.5772E-05  0.1260
   2.0569E-02   2.1069E-02   2.4833E-05  0.1267
   2.1069E-02   2.1582E-02   1.9074E-05  0.1429
   2.1582E-02   2.2107E-02   1.4466E-05  0.1622
   2.2107E-02   2.2645E-02   1.5944E-05  0.1525
   2.2645E-02   2.3196E-02   1.8530E-05  0.1396
   2.3196E-02   2.3760E-02   2.1426E-05  0.1281
   2.3760E-02   2.4338E-02   1.9716E-05  0.1325
   2.4338E-02   2.4930E-02   2.0596E-05  0.1280
   2.4930E-02   2.5537E-02   2.0736E-05  0.1260
   2.5537E-02   2.6158E-02   1.8584E-05  0.1314
   2.6158E-02   2.6795E-02   1.6651E-05  0.1374
   2.6795E-02   2.7447E-02   1.9293E-05  0.1260
   2.7447E-02   2.8114E-02   1.5866E-05  0.1374
   2.8114E-02   2.8799E-02   2.1335E-05  0.1170
   2.8799E-02   2.9499E-02   1.5786E-05  0.1342
   2.9499E-02   3.0217E-02   1.6987E-05  0.1280
   3.0217E-02   3.0952E-02   1.6726E-05  0.1271
   3.0952E-02   3.1705E-02   1.3589E-05  0.1396
   3.1705E-02   3.2477E-02   2.0731E-05  0.1118
   3.2477E-02   3.3267E-02   1.3661E-05  0.1361
   3.3267E-02   3.4076E-02   1.5809E-05  0.1250
   3.4076E-02   3.4905E-02   1.6397E-05  0.1213
   3.4905E-02   3.5755E-02   1.3839E-05  0.1302
   3.5755E-02   3.6625E-02   1.2642E-05  0.1348
   3.6625E-02   3.7516E-02   1.1664E-05  0.1387
   3.7516E-02   3.8428E-02   1.2673E-05  0.1313
   3.8428E-02   3.9363E-02   1.2314E-05  0.1315
   3.9363E-02   4.0321E-02   9.8093E-06  0.1459
   4.0321E-02   4.1302E-02   1.3853E-05  0.1213
   4.1302E-02   4.2307E-02   1.2122E-05  0.1280
   4.2307E-02   4.3337E-02   1.1217E-05  0.1314
   4.3337E-02   4.4391E-02   1.3271E-05  0.1195
   4.4391E-02   4.5471E-02   1.0139E-05  0.1349
   4.5471E-02   4.6577E-02   9.3812E-06  0.1387
   4.6577E-02   4.7711E-02   1.1130E-05  0.1256
   4.7711E-02   4.8871E-02   1.0502E-05  0.1280
   4.8871E-02   5.0061E-02   1.0747E-05  0.1250
   5.0061E-02   5.1279E-02   1.0641E-05  0.1241
   5.1279E-02   5.2526E-02   8.9720E-06  0.1336
   5.2526E-02   5.3804E-02   7.9793E-06  0.1400
   5.3804E-02   5.5113E-02   9.0105E-06  0.1302
   5.5113E-02   5.6454E-02   8.3213E-06  0.1337
   5.6454E-02   5.7828E-02   6.5498E-06  0.1491
   5.7828E-02   5.9235E-02   1.0232E-05  0.1179
   5.9235E-02   6.0676E-02   9.5710E-06  0.1204
   6.0676E-02   6.2152E-02   7.9367E-06  0.1304
   6.2152E-02   6.3665E-02   6.6100E-06  0.1414
   6.3665E-02   6.5214E-02   7.6485E-06  0.1293
   6.5214E-02   6.6800E-02   6.2995E-06  0.1414
   6.6800E-02   6.8426E-02   7.1227E-06  0.1313
   6.8426E-02   7.0090E-02   8.0778E-06  0.1218
   7.0090E-02   7.1796E-02   6.2118E-06  0.1374
   7.1796E-02   7.3543E-02   7.7823E-06  0.1213
   7.3543E-02   7.5332E-02   6.7215E-06  0.1288
   7.5332E-02   7.7165E-02   6.0964E-06  0.1336
   7.7165E-02   7.9042E-02   7.7717E-06  0.1170
   7.9042E-02   8.0965E-02   6.2364E-06  0.1291
   8.0965E-02   8.2935E-02   6.4932E-06  0.1250
   8.2935E-02   8.4953E-02   5.3496E-06  0.1361
   8.4953E-02   8.7020E-02   6.8663E-06  0.1187
   8.7020E-02   8.9138E-02   7.1533E-06  0.1147
   8.9138E-02   9.1306E-02   5.6951E-06  0.1270
   9.1306E-02   9.3528E-02   6.2914E-06  0.1195
   9.3528E-02   9.5804E-02   6.6761E-06  0.1147
   9.5804E-02   9.8134E-02   5.9962E-06  0.1195
   9.8134E-02   1.0052E-01   5.0233E-06  0.1291
   1.0052E-01   1.0297E-01   5.9655E-06  0.1170
   1.0297E-01   1.0547E-01   4.5479E-06  0.1325
   1.0547E-01   1.0804E-01   5.5300E-06  0.1187
   1.0804E-01   1.1067E-01   6.0695E-06  0.1118
   1.1067E-01   1.1336E-01   6.4590E-06  0.1072
   1.1336E-01   1.1612E-01   6.4493E-06  0.1060
   1.1612E-01   1.1894E-01   5.8339E-06  0.1099
   1.1894E-01   1.2184E-01   6.8281E-06  0.1003
   1.2184E-01   1.2480E-01   7.2148E-06  0.0967
   1.2480E-01   1.2784E-01   6.9632E-06  0.0971
   1.2784E-01   1.3095E-01   7.1277E-06  0.0949
   1.3095E-01   1.3414E-01   7.2079E-06  0.0933
   1.3414E-01   1.3740E-01   7.5813E-06  0.0898
   1.3740E-01   1.4074E-01   9.0287E-06  0.0814
   1.4074E-01   1.4417E-01   9.2151E-06  0.0796
   1.4417E-01   1.4767E-01   8.8052E-06  0.0804
   1.4767E-01   1.5127E-01   8.8438E-06  0.0793
   1.5127E-01   1.5495E-01   1.0042E-05  0.0735
   1.5495E-01   1.5872E-01   1.0236E-05  0.0719
   1.5872E-01   1.6258E-01   9.3248E-06  0.0745
   1.6258E-01   1.6654E-01   9.8592E-06  0.0715
   1.6654E-01   1.7059E-01   1.0317E-05  0.0691
   1.7059E-01   1.7474E-01   9.8970E-06  0.0697
   1.7474E-01   1.7899E-01   1.0389E-05  0.0673
   1.7899E-01   1.8334E-01   1.0610E-05  0.0657
   1.8334E-01   1.8781E-01   1.0349E-05  0.0658
   1.8781E-01   1.9237E-01   1.2858E-05  0.0583
   1.9237E-01   1.9706E-01   1.0872E-05  0.0626
   1.9706E-01   2.0185E-01   1.2843E-05  0.0569
   2.0185E-01   2.0676E-01   1.2846E-05  0.0563
   2.0676E-01   2.1179E-01   1.3259E-05  0.0547
   2.1179E-01   2.1694E-01   1.2091E-05  0.0566
   2.1694E-01   2.2222E-01   1.4951E-05  0.0503
   2.2222E-01   2.2763E-01   1.3996E-05  0.0513
   2.2763E-01   2.3317E-01   1.4020E-05  0.0507
   2.3317E-01   2.3884E-01   1.5081E-05  0.0483
   2.3884E-01   2.4465E-01   1.4630E-05  0.0485
   2.4465E-01   2.5061E-01   1.3718E-05  0.0494
   2.5061E-01   2.5670E-01   1.4476E-05  0.0475
   2.5670E-01   2.6295E-01   1.4432E-05  0.0470
   2.6295E-01   2.6935E-01   1.5603E-05  0.0447
   2.6935E-01   2.7590E-01   1.4577E-05  0.0457
   2.7590E-01   2.8261E-01   1.6171E-05  0.0429
   2.8261E-01   2.8949E-01   1.6551E-05  0.0419
   2.8949E-01   2.9653E-01   1.7048E-05  0.0408
   2.9653E-01   3.0375E-01   1.7804E-05  0.0394
   3.0375E-01   3.1114E-01   1.8078E-05  0.0386
   3.1114E-01   3.1871E-01   1.8587E-05  0.0377
   3.1871E-01   3.2646E-01   1.9177E-05  0.0366
   3.2646E-01   3.3441E-01   1.8597E-05  0.0368
   3.3441E-01   3.4254E-01   1.7718E-05  0.0372
   3.4254E-01   3.5088E-01   1.9143E-05  0.0354
   3.5088E-01   3.5941E-01   2.0577E-05  0.0337
   3.5941E-01   3.6816E-01   2.1421E-05  0.0326
   3.6816E-01   3.7712E-01   2.0097E-05  0.0333
   3.7712E-01   3.8629E-01   1.9836E-05  0.0331
   3.8629E-01   3.9569E-01   2.1003E-05  0.0318
   3.9569E-01   4.0532E-01   2.0477E-05  0.0318
   4.0532E-01   4.1518E-01   2.1992E-05  0.0303
   4.1518E-01   4.2528E-01   2.2769E-05  0.0294
   4.2528E-01   4.3563E-01   2.2466E-05  0.0293
   4.3563E-01   4.4623E-01   2.3096E-05  0.0285
   4.4623E-01   4.5708E-01   2.2652E-05  0.0285
   4.5708E-01   4.6821E-01   2.3095E-05  0.0279
   4.6821E-01   4.7960E-01   2.3935E-05  0.0270
   4.7960E-01   4.9127E-01   2.3716E-05  0.0268
   4.9127E-01   5.0322E-01   2.6050E-05  0.0253
   5.0322E-01   5.1546E-01   2.5005E-05  0.0255
   5.1546E-01   5.2800E-01   2.4810E-05  0.0253
   5.2800E-01   5.4085E-01   2.6967E-05  0.0240
   5.4085E-01   5.5401E-01   2.4352E-05  0.0249
   5.5401E-01   5.6749E-01   2.5862E-05  0.0239
   5.6749E-01   5.8130E-01   2.6198E-05  0.0235
   5.8130E-01   5.9544E-01   2.5980E-05  0.0233
   5.9544E-01   6.0993E-01   2.7296E-05  0.0224
   6.0993E-01   6.2477E-01   2.6905E-05  0.0223
   6.2477E-01   6.3997E-01   2.6781E-05  0.0221
   6.3997E-01   6.5554E-01   2.8382E-05  0.0212
   6.5554E-01   6.7149E-01   2.8321E-05  0.0210
   6.7149E-01   6.8783E-01   2.7622E-05  0.0210
   6.8783E-01   7.0456E-01   2.8324E-05  0.0205
   7.0456E-01   7.2171E-01   2.7833E-05  0.0204
   7.2171E-01   7.3927E-01   2.8569E-05  0.0199
   7.3927E-01   7.5725E-01   2.8330E-05  0.0198
   7.5725E-01   7.7568E-01   2.8501E-05  0.0195
   7.7568E-01   7.9455E-01   2.9270E-05  0.0190
   7.9455E-01   8.1388E-01   3.0096E-05  0.0185
   8.1388E-01   8.3368E-01   2.9196E-05  0.0186
   8.3368E-01   8.5397E-01   2.9732E-05  0.0182
   8.5397E-01   8.7475E-01   2.9724E-05  0.0179
   8.7475E-01   8.9603E-01   2.9133E-05  0.0179
   8.9603E-01   9.1783E-01   2.9190E-05  0.0177
   9.1783E-01   9.4016E-01   3.0333E-05  0.0171
   9.4016E-01   9.6304E-01   2.8814E-05  0.0174
   9.6304E-01   9.8647E-01   2.8579E-05  0.0172
   9.8647E-01   1.0105E+00   2.8432E-05  0.0171
   1.0105E+00   1.0351E+00   2.8735E-05  0.0168
   1.0351E+00   1.0602E+00   2.9280E-05  0.0164
   1.0602E+00   1.0860E+00   2.8142E-05  0.0165
   1.0860E+00   1.1125E+00   2.7967E-05  0.0164
   1.1125E+00   1.1395E+00   2.8494E-05  0.0160
   1.1395E+00   1.1673E+00   2.7385E-05  0.0162
   1.1673E+00   1.1957E+00   2.8985E-05  0.0155
   1.1957E+00   1.2247E+00   2.7491E-05  0.0158
   1.2247E+00   1.2545E+00   2.8110E-05  0.0154
   1.2545E+00   1.2851E+00   2.8834E-05  0.0150
   1.2851E+00   1.3163E+00   2.7972E-05  0.0151
   1.3163E+00   1.3484E+00   2.7804E-05  0.0149
   1.3484E+00   1.3812E+00   2.7970E-05  0.0147
   1.3812E+00   1.4148E+00   2.7185E-05  0.0147
   1.4148E+00   1.4492E+00   2.7555E-05  0.0144
   1.4492E+00   1.4845E+00   2.7911E-05  0.0142
   1.4845E+00   1.5206E+00   2.6746E-05  0.0143
   1.5206E+00   1.5576E+00   2.7463E-05  0.0139
   1.5576E+00   1.5955E+00   2.7039E-05  0.0139
   1.5955E+00   1.6343E+00   2.6900E-05  0.0137
   1.6343E+00   1.6741E+00   2.6493E-05  0.0137
   1.6741E+00   1.7148E+00   2.6438E-05  0.0135
   1.7148E+00   1.7565E+00   2.6317E-05  0.0134
   1.7565E+00   1.7992E+00   2.5844E-05  0.0133
   1.7992E+00   1.8430E+00   2.4121E-05  0.0136
   1.8430E+00   1.8879E+00   2.3135E-05  0.0137
   1.8879E+00   1.9338E+00   2.4106E-05  0.0133
   1.9338E+00   1.9808E+00   2.3028E-05  0.0134
   1.9808E+00   2.0290E+00   2.3311E-05  0.0132
   2.0290E+00   2.0784E+00   2.2413E-05  0.0132
   2.0784E+00   2.1290E+00   2.2849E-05  0.0129
   2.1290E+00   2.1808E+00   2.3435E-05  0.0126
   2.1808E+00   2.2338E+00   2.3427E-05  0.0125
   2.2338E+00   2.2882E+00   2.3605E-05  0.0123
   2.2882E+00   2.3439E+00   2.2759E-05  0.0124
   2.3439E+00   2.4009E+00   2.2223E-05  0.0124
   2.4009E+00   2.4593E+00   2.2478E-05  0.0122
   2.4593E+00   2.5191E+00   2.2101E-05  0.0121
   2.5191E+00   2.5804E+00   2.2406E-05  0.0119
   2.5804E+00   2.6432E+00   2.1564E-05  0.0120
   2.6432E+00   2.7075E+00   2.2022E-05  0.0117
   2.7075E+00   2.7734E+00   2.1609E-05  0.0117
   2.7734E+00   2.8409E+00   2.1351E-05  0.0116
   2.8409E+00   2.9100E+00   2.0624E-05  0.0117
   2.9100E+00   2.9808E+00   2.1341E-05  0.0113
   2.9808E+00   3.0533E+00   2.1273E-05  0.0112
   3.0533E+00   3.1276E+00   2.0871E-05  0.0112
   3.1276E+00   3.2037E+00   2.0575E-05  0.0112
   3.2037E+00   3.2817E+00   2.0707E-05  0.0110
   3.2817E+00   3.3615E+00   2.0384E-05  0.0110
   3.3615E+00   3.4433E+00   1.9811E-05  0.0110
   3.4433E+00   3.5271E+00   1.9879E-05  0.0108
   3.5271E+00   3.6129E+00   1.9290E-05  0.0109
   3.6129E+00   3.7008E+00   1.9250E-05  0.0108
   3.7008E+00   3.7908E+00   1.8948E-05  0.0107
   3.7908E+00   3.8831E+00   1.8845E-05  0.0106
   3.8831E+00   3.9776E+00   1.8412E-05  0.0106
   3.9776E+00   4.0743E+00   1.8180E-05  0.0106
   4.0743E+00   4.1735E+00   1.8176E-05  0.0104
   4.1735E+00   4.2750E+00   1.7962E-05  0.0104
   4.2750E+00   4.3790E+00   1.7795E-05  0.0103
   4.3790E+00   4.4856E+00   1.7498E-05  0.0103
   4.4856E+00   4.5947E+00   1.7200E-05  0.0102
   4.5947E+00   4.7065E+00   1.7037E-05  0.0101
   4.7065E+00   4.8210E+00   1.6887E-05  0.0101
   4.8210E+00   4.9383E+00   1.6577E-05  0.0100
   4.9383E+00   5.0585E+00   1.6596E-05  0.0099
   5.0585E+00   5.1815E+00   1.6275E-05  0.0099
   5.1815E+00   5.3076E+00   1.6106E-05  0.0098
   5.3076E+00   5.4368E+00   1.5874E-05  0.0098
   5.4368E+00   5.5690E+00   1.5866E-05  0.0097
   5.5690E+00   5.7045E+00   1.5542E-05  0.0096
   5.7045E+00   5.8433E+00   1.5674E-05  0.0095
   5.8433E+00   5.9855E+00   1.5545E-05  0.0094
   5.9855E+00   6.1311E+00   1.5390E-05  0.0094
   6.1311E+00   6.2803E+00   1.5309E-05  0.0093
   6.2803E+00   6.4331E+00   1.5154E-05  0.0092
   6.4331E+00   6.5896E+00   1.5201E-05  0.0091
   6.5896E+00   6.7500E+00   1.5097E-05  0.0090
   6.7500E+00   6.9142E+00   1.5021E-05  0.0089
   6.9142E+00   7.0824E+00   1.4851E-05  0.0089
   7.0824E+00   7.2548E+00   1.4868E-05  0.0088
   7.2548E+00   7.4313E+00   1.4785E-05  0.0087
   7.4313E+00   7.6121E+00   1.4644E-05  0.0086
   7.6121E+00   7.7973E+00   1.4631E-05  0.0085
   7.7973E+00   7.9870E+00   1.4629E-05  0.0084
   7.9870E+00   8.1813E+00   1.4213E-05  0.0085
   8.1813E+00   8.3804E+00   1.4301E-05  0.0083
   8.3804E+00   8.5843E+00   1.4170E-05  0.0083
   8.5843E+00   8.7931E+00   1.4004E-05  0.0082
   8.7931E+00   9.0071E+00   1.3949E-05  0.0081
   9.0071E+00   9.2262E+00   1.3927E-05  0.0081
   9.2262E+00   9.4507E+00   1.3682E-05  0.0080
   9.4507E+00   9.6807E+00   1.3570E-05  0.0080
   9.6807E+00   9.9162E+00   1.3780E-05  0.0078
   9.9162E+00   1.0157E+01   1.3944E-05  0.0077
   1.0157E+01   1.0405E+01   1.3774E-05  0.0077
   1.0405E+01   1.0658E+01   1.3895E-05  0.0075
   1.0658E+01   1.0917E+01   1.4003E-05  0.0074
   1.0917E+01   1.1183E+01   1.3927E-05  0.0073
   1.1183E+01   1.1455E+01   1.3744E-05  0.0073
   1.1455E+01   1.1733E+01   1.3726E-05  0.0072
   1.1733E+01   1.2019E+01   1.3724E-05  0.0071
   1.2019E+01   1.2311E+01   1.3534E-05  0.0071
   1.2311E+01   1.2611E+01   1.3553E-05  0.0070
   1.2611E+01   1.2918E+01   1.3659E-05  0.0069
   1.2918E+01   1.3232E+01   1.3423E-05  0.0069
   1.3232E+01   1.3554E+01   1.3327E-05  0.0068
   1.3554E+01   1.3884E+01   1.3279E-05  0.0068
   1.3884E+01   1.4222E+01   1.3154E-05  0.0067
   1.4222E+01   1.4568E+01   1.3136E-05  0.0066
   1.4568E+01   1.4922E+01   1.3145E-05  0.0065
   1.4922E+01   1.5285E+01   1.3017E-05  0.0065
   1.5285E+01   1.5657E+01   1.2777E-05  0.0065
   1.5657E+01   1.6038E+01   1.2764E-05  0.0064
   1.6038E+01   1.6428E+01   1.2614E-05  0.0064
   1.6428E+01   1.6828E+01   1.2575E-05  0.0063
   1.6828E+01   1.7237E+01   1.2519E-05  0.0062
   1.7237E+01   1.7657E+01   1.2390E-05  0.0062
   1.7657E+01   1.8086E+01   1.2299E-05  0.0062
   1.8086E+01   1.8526E+01   1.2257E-05  0.0061
   1.8526E+01   1.8977E+01   1.2282E-05  0.0060
   1.8977E+01   1.9439E+01   1.1926E-05  0.0060
   1.9439E+01   1.9912E+01   1.2102E-05  0.0059
   1.9912E+01   2.0396E+01   1.1887E-05  0.0059
   2.0396E+01   2.0893E+01   1.1756E-05  0.0059
   2.0893E+01   2.1401E+01   1.1769E-05  0.0058
   2.1401E+01   2.1922E+01   1.1758E-05  0.0057
   2.1922E+01   2.2455E+01   1.1595E-05  0.0057
   2.2455E+01   2.3001E+01   1.1445E-05  0.0057
   2.3001E+01   2.3561E+01   1.1478E-05  0.0056
   2.3561E+01   2.4134E+01   1.1323E-05  0.0056
   2.4134E+01   2.4721E+01   1.1332E-05  0.0055
   2.4721E+01   2.5323E+01   1.1200E-05  0.0054
   2.5323E+01   2.5939E+01   1.1049E-05  0.0054
   2.5939E+01   2.6570E+01   1.1073E-05  0.0053
   2.6570E+01   2.7217E+01   1.1027E-05  0.0053
   2.7217E+01   2.7879E+01   1.0887E-05  0.0053
   2.7879E+01   2.8557E+01   1.1196E-05  0.0051
   2.8557E+01   2.9252E+01   1.3215E-05  0.0047
   2.9252E+01   2.9964E+01   1.9028E-05  0.0038
   2.9964E+01   3.0693E+01   2.2119E-05  0.0035
   3.0693E+01   3.1440E+01   2.1943E-05  0.0035
   3.1440E+01   3.2205E+01   2.1682E-05  0.0035
   3.2205E+01   3.2988E+01   2.1562E-05  0.0034
   3.2988E+01   3.3791E+01   2.1524E-05  0.0034
   3.3791E+01   3.4613E+01   2.1231E-05  0.0034
   3.4613E+01   3.5455E+01   2.1156E-05  0.0034
   3.5455E+01   3.6318E+01   2.0956E-05  0.0033
   3.6318E+01   3.7201E+01   2.0822E-05  0.0033
   3.7201E+01   3.8106E+01   2.0578E-05  0.0033
   3.8106E+01   3.9034E+01   2.0255E-05  0.0033
   3.9034E+01   3.9983E+01   1.9920E-05  0.0033
   3.9983E+01   4.0956E+01   1.9601E-05  0.0032
   4.0956E+01   4.1953E+01   1.9277E-05  0.0032
   4.1953E+01   4.2973E+01   1.8857E-05  0.0032
   4.2973E+01   4.4019E+01   1.8418E-05  0.0032
   4.4019E+01   4.5090E+01   1.8031E-05  0.0032
   4.5090E+01   4.6187E+01   1.7698E-05  0.0032
   4.6187E+01   4.7311E+01   1.7073E-05  0.0032
   4.7311E+01   4.8462E+01   1.3777E-05  0.0036
   4.8462E+01   4.9641E+01   7.5643E-06  0.0047
   4.9641E+01   5.0849E+01   7.0617E-06  0.0048
   5.0849E+01   5.2086E+01   6.5201E-06  0.0050
   5.2086E+01   5.3353E+01   4.7740E-06  0.0057
   5.3353E+01   5.4651E+01   3.0814E-10  0.7071
   5.4651E+01   5.5981E+01   4.5123E-10  0.5774
   5.5981E+01   5.7343E+01   0.0000E+00  0.0000
   5.7343E+01   5.8738E+01   1.4335E-10  1.0000
   5.8738E+01   6.0168E+01   0.0000E+00  0.0000
   6.0168E+01   6.1632E+01   0.0000E+00  0.0000
   6.1632E+01   6.3131E+01   0.0000E+00  0.0000
   6.3131E+01   6.4667E+01   0.0000E+00  0.0000
   6.4667E+01   6.6240E+01   0.0000E+00  0.0000
   6.6240E+01   6.7852E+01   0.0000E+00  0.0000
   6.7852E+01   6.9503E+01   0.0000E+00  0.0000
   6.9503E+01   7.1194E+01   0.0000E+00  0.0000
   7.1194E+01   7.2926E+01   0.0000E+00  0.0000
   7.2926E+01   7.4701E+01   0.0000E+00  0.0000
   7.4701E+01   7.6518E+01   0.0000E+00  0.0000
   7.6518E+01   7.8380E+01   0.0000E+00  0.0000
   7.8380E+01   8.0287E+01   0.0000E+00  0.0000
   8.0287E+01   8.2240E+01   0.0000E+00  0.0000
   8.2240E+01   8.4241E+01   0.0000E+00  0.0000
   8.4241E+01   8.6291E+01   0.0000E+00  0.0000
   8.6291E+01   8.8391E+01   0.0000E+00  0.0000
   8.8391E+01   9.0541E+01   0.0000E+00  0.0000
   9.0541E+01   9.2744E+01   0.0000E+00  0.0000
   9.2744E+01   9.5001E+01   0.0000E+00  0.0000
   9.5001E+01   9.7312E+01   0.0000E+00  0.0000
   9.7312E+01   9.9680E+01   0.0000E+00  0.0000
   9.9680E+01   1.0211E+02   0.0000E+00  0.0000
   1.0211E+02   1.0459E+02   0.0000E+00  0.0000
   1.0459E+02   1.0713E+02   0.0000E+00  0.0000
   1.0713E+02   1.0974E+02   0.0000E+00  0.0000
   1.0974E+02   1.1241E+02   0.0000E+00  0.0000
   1.1241E+02   1.1515E+02   0.0000E+00  0.0000
   1.1515E+02   1.1795E+02   0.0000E+00  0.0000
   1.1795E+02   1.2082E+02   0.0000E+00  0.0000
   1.2082E+02   1.2376E+02   0.0000E+00  0.0000
   1.2376E+02   1.2677E+02   0.0000E+00  0.0000
   1.2677E+02   1.2985E+02   0.0000E+00  0.0000
   1.2985E+02   1.3301E+02   0.0000E+00  0.0000
   1.3301E+02   1.3625E+02   0.0000E+00  0.0000
   1.3625E+02   1.3956E+02   0.0000E+00  0.0000
   1.3956E+02   1.4296E+02   0.0000E+00  0.0000
   1.4296E+02   1.4644E+02   0.0000E+00  0.0000
   1.4644E+02   1.5000E+02   0.0000E+00  0.0000

#   sum over                 5.4971E-06
'no. =    1   reg = 104 - 204'
msuc: {\huge [t-cross] in region mesh}
msdr: {\it plotted by \ANGEL \version}
msdl: {\it calculated by \PHITS  3.26}
wt: s(0.7)
\vspace{-3}
  region surface crossing
  area  &=&   1.0000E+00 [cm^2]
e:
 
# Information for Restart Calculation
# This calculation was newly started
# istdev =  2 # 1:Batch variance, 2:History variance
# resc2  = 5.00000000000000000E+09 # Total source weight or Total source weight / maxcas
# resc3  = 5.00000000000000000E+09 # Total history number or Total batch number
# maxcas =   100000000 # History / Batch, only used for istdev=1
# bitrseed = 0110100000100010111000001110001111001110100100011111101000111001 # bit data of rseed
