[ T-Cross ]
    title = [t-cross] in region mesh
     mesh =  reg            # mesh type is region-wise
      reg =    1            # number of crossing regions
      non     r-from    r-to       area
      1       113       213        1.000000    
   e-type =    3            # e-mesh is log given by emin, emax and ne
     emin =  1.0000000E-02  # minimum value of e-mesh points
     emax =   150.0000      # maximum value of e-mesh points
#    edel =  2.4039514E-02  # mesh width of e-mesh points
       ne =    400          # number of e-mesh points
#    data = ( e(i), i = 1, ne + 1 )
#           1.00000E-02  1.02433E-02  1.04925E-02  1.07478E-02  1.10093E-02
#           1.12772E-02  1.15516E-02  1.18326E-02  1.21205E-02  1.24154E-02
#           1.27175E-02  1.30269E-02  1.33439E-02  1.36686E-02  1.40011E-02
#           1.43418E-02  1.46907E-02  1.50482E-02  1.54143E-02  1.57894E-02
#           1.61735E-02  1.65670E-02  1.69701E-02  1.73830E-02  1.78060E-02
#           1.82392E-02  1.86830E-02  1.91375E-02  1.96032E-02  2.00801E-02
#           2.05687E-02  2.10692E-02  2.15818E-02  2.21069E-02  2.26448E-02
#           2.31957E-02  2.37601E-02  2.43382E-02  2.49304E-02  2.55369E-02
#           2.61583E-02  2.67947E-02  2.74467E-02  2.81145E-02  2.87985E-02
#           2.94992E-02  3.02169E-02  3.09521E-02  3.17052E-02  3.24766E-02
#           3.32668E-02  3.40762E-02  3.49053E-02  3.57546E-02  3.66246E-02
#           3.75157E-02  3.84284E-02  3.93634E-02  4.03212E-02  4.13022E-02
#           4.23071E-02  4.33365E-02  4.43909E-02  4.54710E-02  4.65773E-02
#           4.77106E-02  4.88714E-02  5.00605E-02  5.12785E-02  5.25262E-02
#           5.38042E-02  5.51133E-02  5.64542E-02  5.78278E-02  5.92348E-02
#           6.06760E-02  6.21523E-02  6.36645E-02  6.52135E-02  6.68002E-02
#           6.84255E-02  7.00904E-02  7.17957E-02  7.35426E-02  7.53319E-02
#           7.71648E-02  7.90423E-02  8.09655E-02  8.29354E-02  8.49533E-02
#           8.70203E-02  8.91376E-02  9.13064E-02  9.35279E-02  9.58035E-02
#           9.81345E-02  1.00522E-01  1.02968E-01  1.05473E-01  1.08040E-01
#           1.10668E-01  1.13361E-01  1.16119E-01  1.18944E-01  1.21838E-01
#           1.24803E-01  1.27839E-01  1.30950E-01  1.34136E-01  1.37399E-01
#           1.40742E-01  1.44167E-01  1.47675E-01  1.51268E-01  1.54948E-01
#           1.58718E-01  1.62580E-01  1.66535E-01  1.70587E-01  1.74738E-01
#           1.78989E-01  1.83344E-01  1.87805E-01  1.92375E-01  1.97055E-01
#           2.01850E-01  2.06761E-01  2.11792E-01  2.16945E-01  2.22223E-01
#           2.27630E-01  2.33169E-01  2.38842E-01  2.44653E-01  2.50605E-01
#           2.56703E-01  2.62949E-01  2.69346E-01  2.75900E-01  2.82613E-01
#           2.89489E-01  2.96532E-01  3.03747E-01  3.11138E-01  3.18708E-01
#           3.26462E-01  3.34405E-01  3.42542E-01  3.50876E-01  3.59413E-01
#           3.68158E-01  3.77116E-01  3.86291E-01  3.95690E-01  4.05317E-01
#           4.15179E-01  4.25281E-01  4.35628E-01  4.46227E-01  4.57084E-01
#           4.68205E-01  4.79597E-01  4.91266E-01  5.03219E-01  5.15463E-01
#           5.28005E-01  5.40851E-01  5.54011E-01  5.67490E-01  5.81298E-01
#           5.95441E-01  6.09929E-01  6.24769E-01  6.39970E-01  6.55541E-01
#           6.71491E-01  6.87828E-01  7.04564E-01  7.21706E-01  7.39266E-01
#           7.57253E-01  7.75678E-01  7.94551E-01  8.13883E-01  8.33685E-01
#           8.53969E-01  8.74747E-01  8.96030E-01  9.17831E-01  9.40163E-01
#           9.63038E-01  9.86469E-01  1.01047E+00  1.03506E+00  1.06024E+00
#           1.08604E+00  1.11246E+00  1.13953E+00  1.16725E+00  1.19565E+00
#           1.22474E+00  1.25454E+00  1.28507E+00  1.31633E+00  1.34836E+00
#           1.38117E+00  1.41477E+00  1.44920E+00  1.48446E+00  1.52057E+00
#           1.55757E+00  1.59547E+00  1.63429E+00  1.67405E+00  1.71478E+00
#           1.75650E+00  1.79924E+00  1.84302E+00  1.88786E+00  1.93379E+00
#           1.98084E+00  2.02904E+00  2.07841E+00  2.12898E+00  2.18078E+00
#           2.23384E+00  2.28819E+00  2.34386E+00  2.40089E+00  2.45930E+00
#           2.51914E+00  2.58043E+00  2.64322E+00  2.70753E+00  2.77341E+00
#           2.84088E+00  2.91001E+00  2.98081E+00  3.05333E+00  3.12762E+00
#           3.20372E+00  3.28167E+00  3.36152E+00  3.44330E+00  3.52708E+00
#           3.61290E+00  3.70080E+00  3.79085E+00  3.88308E+00  3.97756E+00
#           4.07434E+00  4.17347E+00  4.27501E+00  4.37903E+00  4.48557E+00
#           4.59471E+00  4.70650E+00  4.82102E+00  4.93832E+00  5.05847E+00
#           5.18155E+00  5.30762E+00  5.43676E+00  5.56904E+00  5.70453E+00
#           5.84333E+00  5.98550E+00  6.13114E+00  6.28031E+00  6.43312E+00
#           6.58964E+00  6.74997E+00  6.91420E+00  7.08243E+00  7.25475E+00
#           7.43126E+00  7.61207E+00  7.79728E+00  7.98700E+00  8.18133E+00
#           8.38038E+00  8.58428E+00  8.79315E+00  9.00709E+00  9.22624E+00
#           9.45072E+00  9.68067E+00  9.91620E+00  1.01575E+01  1.04046E+01
#           1.06578E+01  1.09171E+01  1.11827E+01  1.14548E+01  1.17335E+01
#           1.20190E+01  1.23114E+01  1.26109E+01  1.29178E+01  1.32321E+01
#           1.35540E+01  1.38838E+01  1.42216E+01  1.45676E+01  1.49221E+01
#           1.52851E+01  1.56570E+01  1.60380E+01  1.64282E+01  1.68279E+01
#           1.72374E+01  1.76568E+01  1.80864E+01  1.85264E+01  1.89772E+01
#           1.94389E+01  1.99119E+01  2.03963E+01  2.08926E+01  2.14009E+01
#           2.19216E+01  2.24550E+01  2.30014E+01  2.35610E+01  2.41343E+01
#           2.47215E+01  2.53230E+01  2.59391E+01  2.65702E+01  2.72167E+01
#           2.78789E+01  2.85572E+01  2.92520E+01  2.99637E+01  3.06928E+01
#           3.14396E+01  3.22045E+01  3.29881E+01  3.37907E+01  3.46128E+01
#           3.54550E+01  3.63177E+01  3.72013E+01  3.81064E+01  3.90336E+01
#           3.99833E+01  4.09561E+01  4.19526E+01  4.29734E+01  4.40189E+01
#           4.50900E+01  4.61870E+01  4.73108E+01  4.84619E+01  4.96410E+01
#           5.08488E+01  5.20860E+01  5.33533E+01  5.46514E+01  5.59812E+01
#           5.73432E+01  5.87384E+01  6.01676E+01  6.16315E+01  6.31311E+01
#           6.46671E+01  6.62405E+01  6.78522E+01  6.95031E+01  7.11941E+01
#           7.29263E+01  7.47007E+01  7.65182E+01  7.83800E+01  8.02870E+01
#           8.22405E+01  8.42414E+01  8.62911E+01  8.83906E+01  9.05412E+01
#           9.27442E+01  9.50007E+01  9.73122E+01  9.96799E+01  1.02105E+02
#           1.04589E+02  1.07134E+02  1.09741E+02  1.12411E+02  1.15146E+02
#           1.17948E+02  1.20817E+02  1.23757E+02  1.26768E+02  1.29852E+02
#           1.33012E+02  1.36248E+02  1.39563E+02  1.42959E+02  1.46437E+02
#           1.50000E+02
     unit =    2            # unit is [1/cm^2/(MeV/n)/source]
     axis =  eng            # axis of output
     file = detector-14.out  # file name of output for the above axis
   output = f-curr          # surface crossing forward current spectrum
     part =  neutron  
# kf/name :  2112     
#    used :        main (  %)        temp (  %)       total (  %)
#  memory :         414 (  0)           0 (  0)         414 (  0)

#------------------------------------------------------------------------------
#newpage:
#   no. =    1   reg = 113 - 213

x: Energy [MeV/n]
y:  F-Curr [1/cm^2/(MeV/n)/source]         
p: xlog ylog afac(0.8) form(0.9)
h: n            x            y(neutron ),hh0l   n 
#  e-lower      e-upper      neutron     r.err 
   1.0000E-02   1.0243E-02   1.9728E-05  0.2041
   1.0243E-02   1.0493E-02   2.3272E-05  0.1857
   1.0493E-02   1.0748E-02   1.8019E-05  0.2085
   1.0748E-02   1.1009E-02   2.1415E-05  0.1890
   1.1009E-02   1.1277E-02   2.2399E-05  0.1826
   1.1277E-02   1.1552E-02   2.0409E-05  0.1890
   1.1552E-02   1.1833E-02   2.6329E-05  0.1644
   1.1833E-02   1.2121E-02   2.8482E-05  0.1562
   1.2121E-02   1.2415E-02   2.7128E-05  0.1581
   1.2415E-02   1.2718E-02   2.0525E-05  0.1796
   1.2718E-02   1.3027E-02   2.0683E-05  0.1768
   1.3027E-02   1.3344E-02   2.4609E-05  0.1601
   1.3344E-02   1.3669E-02   2.8337E-05  0.1474
   1.3669E-02   1.4001E-02   2.4657E-05  0.1562
   1.4001E-02   1.4342E-02   1.7613E-05  0.1826
   1.4342E-02   1.4691E-02   2.4072E-05  0.1543
   1.4691E-02   1.5048E-02   3.0775E-05  0.1348
   1.5048E-02   1.5414E-02   2.5127E-05  0.1474
   1.5414E-02   1.5789E-02   2.3997E-05  0.1491
   1.5789E-02   1.6174E-02   2.7072E-05  0.1387
   1.6174E-02   1.6567E-02   1.8805E-05  0.1644
   1.6567E-02   1.6970E-02   1.7366E-05  0.1690
   1.6970E-02   1.7383E-02   2.6157E-05  0.1361
   1.7383E-02   1.7806E-02   2.2225E-05  0.1459
   1.7806E-02   1.8239E-02   2.1236E-05  0.1474
   1.8239E-02   1.8683E-02   2.2534E-05  0.1414
   1.8683E-02   1.9138E-02   2.2879E-05  0.1387
   1.9138E-02   1.9603E-02   2.2335E-05  0.1387
   1.9603E-02   2.0080E-02   3.1449E-05  0.1155
   2.0080E-02   2.0569E-02   2.4971E-05  0.1280
   2.0569E-02   2.1069E-02   2.1181E-05  0.1374
   2.1069E-02   2.1582E-02   2.8871E-05  0.1162
   2.1582E-02   2.2107E-02   2.6661E-05  0.1195
   2.2107E-02   2.2645E-02   2.7887E-05  0.1155
   2.2645E-02   2.3196E-02   2.1417E-05  0.1302
   2.3196E-02   2.3760E-02   2.4452E-05  0.1204
   2.3760E-02   2.4338E-02   1.9374E-05  0.1336
   2.4338E-02   2.4930E-02   2.4993E-05  0.1162
   2.4930E-02   2.5537E-02   2.8356E-05  0.1078
   2.5537E-02   2.6158E-02   2.3498E-05  0.1170
   2.6158E-02   2.6795E-02   2.6396E-05  0.1091
   2.6795E-02   2.7447E-02   2.4849E-05  0.1111
   2.7447E-02   2.8114E-02   2.6056E-05  0.1072
   2.8114E-02   2.8799E-02   2.5144E-05  0.1078
   2.8799E-02   2.9499E-02   2.2549E-05  0.1125
   2.9499E-02   3.0217E-02   2.9537E-05  0.0971
   3.0217E-02   3.0952E-02   2.7475E-05  0.0995
   3.0952E-02   3.1705E-02   2.7354E-05  0.0985
   3.1705E-02   3.2477E-02   2.4371E-05  0.1031
   3.2477E-02   3.3267E-02   2.2273E-05  0.1066
   3.3267E-02   3.4076E-02   2.4215E-05  0.1010
   3.4076E-02   3.4905E-02   2.7741E-05  0.0933
   3.4905E-02   3.5755E-02   2.8495E-05  0.0909
   3.5755E-02   3.6625E-02   2.7358E-05  0.0917
   3.6625E-02   3.7516E-02   2.5362E-05  0.0941
   3.7516E-02   3.8428E-02   2.9799E-05  0.0857
   3.8428E-02   3.9363E-02   2.6524E-05  0.0898
   3.9363E-02   4.0321E-02   2.3179E-05  0.0949
   4.0321E-02   4.1302E-02   2.7522E-05  0.0861
   4.1302E-02   4.2307E-02   2.8659E-05  0.0833
   4.2307E-02   4.3337E-02   2.4481E-05  0.0891
   4.3337E-02   4.4391E-02   2.4374E-05  0.0881
   4.4391E-02   4.5471E-02   2.4998E-05  0.0861
   4.5471E-02   4.6577E-02   2.8924E-05  0.0791
   4.6577E-02   4.7711E-02   2.2237E-05  0.0891
   4.7711E-02   4.8871E-02   2.7049E-05  0.0798
   4.8871E-02   5.0061E-02   2.5230E-05  0.0816
   5.0061E-02   5.1279E-02   2.7093E-05  0.0778
   5.1279E-02   5.2526E-02   2.6450E-05  0.0778
   5.2526E-02   5.3804E-02   2.4100E-05  0.0806
   5.3804E-02   5.5113E-02   2.5667E-05  0.0772
   5.5113E-02   5.6454E-02   2.3565E-05  0.0796
   5.6454E-02   5.7828E-02   2.7083E-05  0.0733
   5.7828E-02   5.9235E-02   2.8572E-05  0.0705
   5.9235E-02   6.0676E-02   2.4701E-05  0.0750
   6.0676E-02   6.2152E-02   2.5198E-05  0.0733
   6.2152E-02   6.3665E-02   2.6848E-05  0.0702
   6.3665E-02   6.5214E-02   2.8405E-05  0.0674
   6.5214E-02   6.6800E-02   2.6344E-05  0.0692
   6.6800E-02   6.8426E-02   2.5226E-05  0.0698
   6.8426E-02   7.0090E-02   2.7270E-05  0.0664
   7.0090E-02   7.1796E-02   2.8029E-05  0.0647
   7.1796E-02   7.3543E-02   2.5074E-05  0.0676
   7.3543E-02   7.5332E-02   2.7049E-05  0.0643
   7.5332E-02   7.7165E-02   2.6952E-05  0.0636
   7.7165E-02   7.9042E-02   2.8975E-05  0.0606
   7.9042E-02   8.0965E-02   2.7143E-05  0.0619
   8.0965E-02   8.2935E-02   2.8935E-05  0.0592
   8.2935E-02   8.4953E-02   2.9040E-05  0.0584
   8.4953E-02   8.7020E-02   3.0866E-05  0.0560
   8.7020E-02   8.9138E-02   2.6733E-05  0.0594
   8.9138E-02   9.1306E-02   2.6190E-05  0.0593
   9.1306E-02   9.3528E-02   3.0519E-05  0.0543
   9.3528E-02   9.5804E-02   3.0673E-05  0.0535
   9.5804E-02   9.8134E-02   3.0374E-05  0.0531
   9.8134E-02   1.0052E-01   3.0322E-05  0.0526
   1.0052E-01   1.0297E-01   2.8539E-05  0.0535
   1.0297E-01   1.0547E-01   2.9937E-05  0.0516
   1.0547E-01   1.0804E-01   3.3200E-05  0.0485
   1.0804E-01   1.1067E-01   3.0966E-05  0.0496
   1.1067E-01   1.1336E-01   2.8299E-05  0.0512
   1.1336E-01   1.1612E-01   3.1398E-05  0.0481
   1.1612E-01   1.1894E-01   3.0298E-05  0.0483
   1.1894E-01   1.2184E-01   2.9233E-05  0.0486
   1.2184E-01   1.2480E-01   2.8336E-05  0.0488
   1.2480E-01   1.2784E-01   2.9145E-05  0.0475
   1.2784E-01   1.3095E-01   3.2471E-05  0.0445
   1.3095E-01   1.3414E-01   3.0696E-05  0.0452
   1.3414E-01   1.3740E-01   3.0947E-05  0.0445
   1.3740E-01   1.4074E-01   3.1648E-05  0.0435
   1.4074E-01   1.4417E-01   3.1714E-05  0.0429
   1.4417E-01   1.4767E-01   3.0276E-05  0.0434
   1.4767E-01   1.5127E-01   3.3287E-05  0.0409
   1.5127E-01   1.5495E-01   3.2170E-05  0.0411
   1.5495E-01   1.5872E-01   3.2891E-05  0.0402
   1.5872E-01   1.6258E-01   3.2058E-05  0.0402
   1.6258E-01   1.6654E-01   3.2965E-05  0.0391
   1.6654E-01   1.7059E-01   3.5341E-05  0.0374
   1.7059E-01   1.7474E-01   3.1900E-05  0.0389
   1.7474E-01   1.7899E-01   3.2436E-05  0.0381
   1.7899E-01   1.8334E-01   3.1964E-05  0.0379
   1.8334E-01   1.8781E-01   3.3401E-05  0.0366
   1.8781E-01   1.9237E-01   3.3264E-05  0.0363
   1.9237E-01   1.9706E-01   3.4354E-05  0.0353
   1.9706E-01   2.0185E-01   3.3455E-05  0.0353
   2.0185E-01   2.0676E-01   3.1439E-05  0.0360
   2.0676E-01   2.1179E-01   3.3475E-05  0.0345
   2.1179E-01   2.1694E-01   3.6483E-05  0.0326
   2.1694E-01   2.2222E-01   3.5541E-05  0.0327
   2.2222E-01   2.2763E-01   3.4826E-05  0.0326
   2.2763E-01   2.3317E-01   3.4739E-05  0.0322
   2.3317E-01   2.3884E-01   3.5430E-05  0.0315
   2.3884E-01   2.4465E-01   3.3521E-05  0.0320
   2.4465E-01   2.5061E-01   3.5682E-05  0.0307
   2.5061E-01   2.5670E-01   3.5556E-05  0.0304
   2.5670E-01   2.6295E-01   3.5640E-05  0.0300
   2.6295E-01   2.6935E-01   3.6763E-05  0.0292
   2.6935E-01   2.7590E-01   3.5264E-05  0.0294
   2.7590E-01   2.8261E-01   3.5603E-05  0.0289
   2.8261E-01   2.8949E-01   3.4350E-05  0.0291
   2.8949E-01   2.9653E-01   3.8830E-05  0.0270
   2.9653E-01   3.0375E-01   3.6023E-05  0.0277
   3.0375E-01   3.1114E-01   3.6047E-05  0.0274
   3.1114E-01   3.1871E-01   3.6300E-05  0.0270
   3.1871E-01   3.2646E-01   3.8688E-05  0.0258
   3.2646E-01   3.3441E-01   3.8247E-05  0.0257
   3.3441E-01   3.4254E-01   3.7658E-05  0.0255
   3.4254E-01   3.5088E-01   3.7508E-05  0.0253
   3.5088E-01   3.5941E-01   3.7132E-05  0.0251
   3.5941E-01   3.6816E-01   3.7165E-05  0.0248
   3.6816E-01   3.7712E-01   3.7064E-05  0.0245
   3.7712E-01   3.8629E-01   3.8537E-05  0.0238
   3.8629E-01   3.9569E-01   3.9133E-05  0.0233
   3.9569E-01   4.0532E-01   3.8349E-05  0.0233
   4.0532E-01   4.1518E-01   3.8168E-05  0.0231
   4.1518E-01   4.2528E-01   3.9182E-05  0.0225
   4.2528E-01   4.3563E-01   3.9256E-05  0.0222
   4.3563E-01   4.4623E-01   3.8984E-05  0.0220
   4.4623E-01   4.5708E-01   4.0416E-05  0.0213
   4.5708E-01   4.6821E-01   3.7981E-05  0.0218
   4.6821E-01   4.7960E-01   3.8694E-05  0.0213
   4.7960E-01   4.9127E-01   3.8358E-05  0.0211
   4.9127E-01   5.0322E-01   3.8008E-05  0.0210
   5.0322E-01   5.1546E-01   3.9457E-05  0.0203
   5.1546E-01   5.2800E-01   3.9580E-05  0.0201
   5.2800E-01   5.4085E-01   3.9263E-05  0.0199
   5.4085E-01   5.5401E-01   3.9531E-05  0.0196
   5.5401E-01   5.6749E-01   3.8903E-05  0.0195
   5.6749E-01   5.8130E-01   3.8501E-05  0.0194
   5.8130E-01   5.9544E-01   3.8407E-05  0.0192
   5.9544E-01   6.0993E-01   3.8820E-05  0.0189
   6.0993E-01   6.2477E-01   3.8699E-05  0.0187
   6.2477E-01   6.3997E-01   3.8523E-05  0.0185
   6.3997E-01   6.5554E-01   3.7891E-05  0.0184
   6.5554E-01   6.7149E-01   3.7631E-05  0.0183
   6.7149E-01   6.8783E-01   3.7385E-05  0.0181
   6.8783E-01   7.0456E-01   3.7262E-05  0.0179
   7.0456E-01   7.2171E-01   3.7976E-05  0.0175
   7.2171E-01   7.3927E-01   3.6982E-05  0.0175
   7.3927E-01   7.5725E-01   3.6304E-05  0.0175
   7.5725E-01   7.7568E-01   3.5648E-05  0.0175
   7.7568E-01   7.9455E-01   3.5215E-05  0.0173
   7.9455E-01   8.1388E-01   3.4285E-05  0.0174
   8.1388E-01   8.3368E-01   3.4077E-05  0.0172
   8.3368E-01   8.5397E-01   3.3016E-05  0.0173
   8.5397E-01   8.7475E-01   3.1428E-05  0.0175
   8.7475E-01   8.9603E-01   3.1189E-05  0.0174
   8.9603E-01   9.1783E-01   3.0998E-05  0.0172
   9.1783E-01   9.4016E-01   3.0410E-05  0.0172
   9.4016E-01   9.6304E-01   2.9561E-05  0.0172
   9.6304E-01   9.8647E-01   2.7920E-05  0.0175
   9.8647E-01   1.0105E+00   2.6132E-05  0.0179
   1.0105E+00   1.0351E+00   2.7659E-05  0.0171
   1.0351E+00   1.0602E+00   2.6501E-05  0.0173
   1.0602E+00   1.0860E+00   2.7624E-05  0.0168
   1.0860E+00   1.1125E+00   2.8050E-05  0.0164
   1.1125E+00   1.1395E+00   2.8485E-05  0.0161
   1.1395E+00   1.1673E+00   2.8847E-05  0.0158
   1.1673E+00   1.1957E+00   2.8936E-05  0.0156
   1.1957E+00   1.2247E+00   2.9542E-05  0.0153
   1.2247E+00   1.2545E+00   2.9464E-05  0.0151
   1.2545E+00   1.2851E+00   2.9125E-05  0.0150
   1.2851E+00   1.3163E+00   2.9834E-05  0.0146
   1.3163E+00   1.3484E+00   3.1204E-05  0.0141
   1.3484E+00   1.3812E+00   3.1109E-05  0.0140
   1.3812E+00   1.4148E+00   3.1918E-05  0.0137
   1.4148E+00   1.4492E+00   3.2490E-05  0.0134
   1.4492E+00   1.4845E+00   3.1339E-05  0.0135
   1.4845E+00   1.5206E+00   3.1663E-05  0.0132
   1.5206E+00   1.5576E+00   3.2354E-05  0.0129
   1.5576E+00   1.5955E+00   3.2230E-05  0.0128
   1.5955E+00   1.6343E+00   3.3932E-05  0.0123
   1.6343E+00   1.6741E+00   3.2364E-05  0.0125
   1.6741E+00   1.7148E+00   3.3670E-05  0.0121
   1.7148E+00   1.7565E+00   3.3551E-05  0.0120
   1.7565E+00   1.7992E+00   3.4663E-05  0.0116
   1.7992E+00   1.8430E+00   3.4509E-05  0.0115
   1.8430E+00   1.8879E+00   3.4207E-05  0.0114
   1.8879E+00   1.9338E+00   3.4696E-05  0.0112
   1.9338E+00   1.9808E+00   3.4941E-05  0.0110
   1.9808E+00   2.0290E+00   3.5381E-05  0.0108
   2.0290E+00   2.0784E+00   3.6088E-05  0.0106
   2.0784E+00   2.1290E+00   3.6040E-05  0.0105
   2.1290E+00   2.1808E+00   3.6610E-05  0.0103
   2.1808E+00   2.2338E+00   3.6086E-05  0.0102
   2.2338E+00   2.2882E+00   3.6862E-05  0.0100
   2.2882E+00   2.3439E+00   3.7041E-05  0.0098
   2.3439E+00   2.4009E+00   3.7862E-05  0.0096
   2.4009E+00   2.4593E+00   3.7872E-05  0.0095
   2.4593E+00   2.5191E+00   3.7967E-05  0.0094
   2.5191E+00   2.5804E+00   3.8269E-05  0.0092
   2.5804E+00   2.6432E+00   3.8591E-05  0.0091
   2.6432E+00   2.7075E+00   3.8212E-05  0.0090
   2.7075E+00   2.7734E+00   3.9108E-05  0.0088
   2.7734E+00   2.8409E+00   3.9237E-05  0.0087
   2.8409E+00   2.9100E+00   3.9920E-05  0.0085
   2.9100E+00   2.9808E+00   4.0284E-05  0.0084
   2.9808E+00   3.0533E+00   4.0520E-05  0.0082
   3.0533E+00   3.1276E+00   4.0634E-05  0.0081
   3.1276E+00   3.2037E+00   4.0787E-05  0.0080
   3.2037E+00   3.2817E+00   4.0194E-05  0.0080
   3.2817E+00   3.3615E+00   4.0795E-05  0.0078
   3.3615E+00   3.4433E+00   4.1175E-05  0.0077
   3.4433E+00   3.5271E+00   4.1957E-05  0.0075
   3.5271E+00   3.6129E+00   4.2151E-05  0.0074
   3.6129E+00   3.7008E+00   4.3301E-05  0.0072
   3.7008E+00   3.7908E+00   4.2356E-05  0.0072
   3.7908E+00   3.8831E+00   4.2559E-05  0.0071
   3.8831E+00   3.9776E+00   4.3453E-05  0.0070
   3.9776E+00   4.0743E+00   4.3560E-05  0.0069
   4.0743E+00   4.1735E+00   4.2657E-05  0.0069
   4.1735E+00   4.2750E+00   4.2071E-05  0.0068
   4.2750E+00   4.3790E+00   4.2362E-05  0.0067
   4.3790E+00   4.4856E+00   4.1908E-05  0.0067
   4.4856E+00   4.5947E+00   4.1921E-05  0.0066
   4.5947E+00   4.7065E+00   4.2548E-05  0.0065
   4.7065E+00   4.8210E+00   4.2297E-05  0.0064
   4.8210E+00   4.9383E+00   4.2338E-05  0.0063
   4.9383E+00   5.0585E+00   4.2274E-05  0.0063
   5.0585E+00   5.1815E+00   4.1832E-05  0.0062
   5.1815E+00   5.3076E+00   4.1456E-05  0.0062
   5.3076E+00   5.4368E+00   4.0958E-05  0.0061
   5.4368E+00   5.5690E+00   4.0199E-05  0.0061
   5.5690E+00   5.7045E+00   3.9500E-05  0.0061
   5.7045E+00   5.8433E+00   3.9177E-05  0.0061
   5.8433E+00   5.9855E+00   3.9340E-05  0.0060
   5.9855E+00   6.1311E+00   3.8761E-05  0.0060
   6.1311E+00   6.2803E+00   3.8417E-05  0.0059
   6.2803E+00   6.4331E+00   3.7249E-05  0.0059
   6.4331E+00   6.5896E+00   3.6751E-05  0.0059
   6.5896E+00   6.7500E+00   3.6136E-05  0.0059
   6.7500E+00   6.9142E+00   3.5522E-05  0.0059
   6.9142E+00   7.0824E+00   3.5328E-05  0.0058
   7.0824E+00   7.2548E+00   3.4273E-05  0.0058
   7.2548E+00   7.4313E+00   3.3775E-05  0.0058
   7.4313E+00   7.6121E+00   3.2807E-05  0.0058
   7.6121E+00   7.7973E+00   3.2846E-05  0.0057
   7.7973E+00   7.9870E+00   3.2035E-05  0.0057
   7.9870E+00   8.1813E+00   3.1522E-05  0.0057
   8.1813E+00   8.3804E+00   3.0865E-05  0.0057
   8.3804E+00   8.5843E+00   2.9865E-05  0.0057
   8.5843E+00   8.7931E+00   2.9642E-05  0.0057
   8.7931E+00   9.0071E+00   2.8970E-05  0.0057
   9.0071E+00   9.2262E+00   2.8789E-05  0.0056
   9.2262E+00   9.4507E+00   2.7809E-05  0.0057
   9.4507E+00   9.6807E+00   2.7261E-05  0.0056
   9.6807E+00   9.9162E+00   2.6926E-05  0.0056
   9.9162E+00   1.0157E+01   2.6644E-05  0.0056
   1.0157E+01   1.0405E+01   2.6015E-05  0.0056
   1.0405E+01   1.0658E+01   2.5353E-05  0.0056
   1.0658E+01   1.0917E+01   2.5230E-05  0.0055
   1.0917E+01   1.1183E+01   2.4712E-05  0.0055
   1.1183E+01   1.1455E+01   2.4555E-05  0.0055
   1.1455E+01   1.1733E+01   2.3867E-05  0.0055
   1.1733E+01   1.2019E+01   2.3610E-05  0.0054
   1.2019E+01   1.2311E+01   2.3018E-05  0.0055
   1.2311E+01   1.2611E+01   2.2764E-05  0.0054
   1.2611E+01   1.2918E+01   2.2197E-05  0.0054
   1.2918E+01   1.3232E+01   2.1962E-05  0.0054
   1.3232E+01   1.3554E+01   2.1798E-05  0.0053
   1.3554E+01   1.3884E+01   2.1328E-05  0.0053
   1.3884E+01   1.4222E+01   2.0940E-05  0.0053
   1.4222E+01   1.4568E+01   2.0525E-05  0.0053
   1.4568E+01   1.4922E+01   2.0157E-05  0.0053
   1.4922E+01   1.5285E+01   1.9820E-05  0.0053
   1.5285E+01   1.5657E+01   1.9339E-05  0.0053
   1.5657E+01   1.6038E+01   1.9185E-05  0.0052
   1.6038E+01   1.6428E+01   1.8751E-05  0.0052
   1.6428E+01   1.6828E+01   1.8270E-05  0.0052
   1.6828E+01   1.7237E+01   1.7879E-05  0.0052
   1.7237E+01   1.7657E+01   1.7372E-05  0.0052
   1.7657E+01   1.8086E+01   1.6800E-05  0.0053
   1.8086E+01   1.8526E+01   1.6532E-05  0.0052
   1.8526E+01   1.8977E+01   1.6085E-05  0.0053
   1.8977E+01   1.9439E+01   1.5822E-05  0.0052
   1.9439E+01   1.9912E+01   1.5429E-05  0.0052
   1.9912E+01   2.0396E+01   1.6639E-05  0.0050
   2.0396E+01   2.0893E+01   1.6537E-05  0.0049
   2.0893E+01   2.1401E+01   1.6037E-05  0.0050
   2.1401E+01   2.1922E+01   1.5246E-05  0.0050
   2.1922E+01   2.2455E+01   1.4802E-05  0.0050
   2.2455E+01   2.3001E+01   1.3983E-05  0.0051
   2.3001E+01   2.3561E+01   1.3408E-05  0.0052
   2.3561E+01   2.4134E+01   1.2715E-05  0.0052
   2.4134E+01   2.4721E+01   1.2249E-05  0.0053
   2.4721E+01   2.5323E+01   1.1444E-05  0.0054
   2.5323E+01   2.5939E+01   1.0858E-05  0.0055
   2.5939E+01   2.6570E+01   1.0216E-05  0.0056
   2.6570E+01   2.7217E+01   9.7854E-06  0.0056
   2.7217E+01   2.7879E+01   9.1712E-06  0.0057
   2.7879E+01   2.8557E+01   8.5244E-06  0.0059
   2.8557E+01   2.9252E+01   8.0317E-06  0.0060
   2.9252E+01   2.9964E+01   7.5184E-06  0.0061
   2.9964E+01   3.0693E+01   6.9790E-06  0.0063
   3.0693E+01   3.1440E+01   6.3711E-06  0.0065
   3.1440E+01   3.2205E+01   5.9842E-06  0.0066
   3.2205E+01   3.2988E+01   5.5169E-06  0.0068
   3.2988E+01   3.3791E+01   5.0581E-06  0.0070
   3.3791E+01   3.4613E+01   4.6502E-06  0.0072
   3.4613E+01   3.5455E+01   4.2070E-06  0.0075
   3.5455E+01   3.6318E+01   3.8027E-06  0.0078
   3.6318E+01   3.7201E+01   3.4559E-06  0.0081
   3.7201E+01   3.8106E+01   3.0957E-06  0.0084
   3.8106E+01   3.9034E+01   2.7989E-06  0.0088
   3.9034E+01   3.9983E+01   2.5073E-06  0.0092
   3.9983E+01   4.0956E+01   2.2592E-06  0.0095
   4.0956E+01   4.1953E+01   2.0197E-06  0.0100
   4.1953E+01   4.2973E+01   1.7556E-06  0.0106
   4.2973E+01   4.4019E+01   1.5415E-06  0.0111
   4.4019E+01   4.5090E+01   1.3636E-06  0.0117
   4.5090E+01   4.6187E+01   1.2085E-06  0.0123
   4.6187E+01   4.7311E+01   1.0728E-06  0.0129
   4.7311E+01   4.8462E+01   9.2137E-07  0.0137
   4.8462E+01   4.9641E+01   8.1095E-07  0.0145
   4.9641E+01   5.0849E+01   6.8885E-07  0.0155
   5.0849E+01   5.2086E+01   6.2205E-07  0.0161
   5.2086E+01   5.3353E+01   5.2348E-07  0.0174
   5.3353E+01   5.4651E+01   4.6267E-07  0.0182
   5.4651E+01   5.5981E+01   4.0400E-07  0.0193
   5.5981E+01   5.7343E+01   3.3963E-07  0.0208
   5.7343E+01   5.8738E+01   2.8254E-07  0.0225
   5.8738E+01   6.0168E+01   2.4616E-07  0.0238
   6.0168E+01   6.1632E+01   1.8157E-07  0.0274
   6.1632E+01   6.3131E+01   1.6378E-07  0.0285
   6.3131E+01   6.4667E+01   1.3541E-07  0.0310
   6.4667E+01   6.6240E+01   1.1516E-07  0.0332
   6.6240E+01   6.7852E+01   9.1457E-08  0.0368
   6.7852E+01   6.9503E+01   7.0992E-08  0.0413
   6.9503E+01   7.1194E+01   5.2866E-08  0.0473
   7.1194E+01   7.2926E+01   3.6023E-08  0.0566
   7.2926E+01   7.4701E+01   2.4460E-08  0.0679
   7.4701E+01   7.6518E+01   1.3205E-08  0.0913
   7.6518E+01   7.8380E+01   4.4045E-09  0.1562
   7.8380E+01   8.0287E+01   7.3412E-10  0.3780
   8.0287E+01   8.2240E+01   2.0477E-10  0.7071
   8.2240E+01   8.4241E+01   0.0000E+00  0.0000
   8.4241E+01   8.6291E+01   0.0000E+00  0.0000
   8.6291E+01   8.8391E+01   0.0000E+00  0.0000
   8.8391E+01   9.0541E+01   0.0000E+00  0.0000
   9.0541E+01   9.2744E+01   0.0000E+00  0.0000
   9.2744E+01   9.5001E+01   0.0000E+00  0.0000
   9.5001E+01   9.7312E+01   0.0000E+00  0.0000
   9.7312E+01   9.9680E+01   0.0000E+00  0.0000
   9.9680E+01   1.0211E+02   0.0000E+00  0.0000
   1.0211E+02   1.0459E+02   0.0000E+00  0.0000
   1.0459E+02   1.0713E+02   0.0000E+00  0.0000
   1.0713E+02   1.0974E+02   0.0000E+00  0.0000
   1.0974E+02   1.1241E+02   0.0000E+00  0.0000
   1.1241E+02   1.1515E+02   0.0000E+00  0.0000
   1.1515E+02   1.1795E+02   0.0000E+00  0.0000
   1.1795E+02   1.2082E+02   0.0000E+00  0.0000
   1.2082E+02   1.2376E+02   0.0000E+00  0.0000
   1.2376E+02   1.2677E+02   0.0000E+00  0.0000
   1.2677E+02   1.2985E+02   0.0000E+00  0.0000
   1.2985E+02   1.3301E+02   0.0000E+00  0.0000
   1.3301E+02   1.3625E+02   0.0000E+00  0.0000
   1.3625E+02   1.3956E+02   0.0000E+00  0.0000
   1.3956E+02   1.4296E+02   0.0000E+00  0.0000
   1.4296E+02   1.4644E+02   0.0000E+00  0.0000
   1.4644E+02   1.5000E+02   0.0000E+00  0.0000

#   sum over                 4.9303E-06
'no. =    1   reg = 113 - 213'
msuc: {\huge [t-cross] in region mesh}
msdr: {\it plotted by \ANGEL \version}
msdl: {\it calculated by \PHITS  3.26}
wt: s(0.7)
\vspace{-3}
  region surface crossing
  area  &=&   1.0000E+00 [cm^2]
e:
 
# Information for Restart Calculation
# This calculation was newly started
# istdev =  2 # 1:Batch variance, 2:History variance
# resc2  = 5.00000000000000000E+09 # Total source weight or Total source weight / maxcas
# resc3  = 5.00000000000000000E+09 # Total history number or Total batch number
# maxcas =   500000000 # History / Batch, only used for istdev=1
# bitrseed = 0110100000100010111000001110001111001110100100011111101000111001 # bit data of rseed
