[ T-Cross ]
    title = [t-cross] in region mesh
     mesh =  reg            # mesh type is region-wise
      reg =    1            # number of crossing regions
      non     r-from    r-to       area
      1       112       212        1.000000    
   e-type =    3            # e-mesh is log given by emin, emax and ne
     emin =  1.0000000E-02  # minimum value of e-mesh points
     emax =   150.0000      # maximum value of e-mesh points
#    edel =  2.4039514E-02  # mesh width of e-mesh points
       ne =    400          # number of e-mesh points
#    data = ( e(i), i = 1, ne + 1 )
#           1.00000E-02  1.02433E-02  1.04925E-02  1.07478E-02  1.10093E-02
#           1.12772E-02  1.15516E-02  1.18326E-02  1.21205E-02  1.24154E-02
#           1.27175E-02  1.30269E-02  1.33439E-02  1.36686E-02  1.40011E-02
#           1.43418E-02  1.46907E-02  1.50482E-02  1.54143E-02  1.57894E-02
#           1.61735E-02  1.65670E-02  1.69701E-02  1.73830E-02  1.78060E-02
#           1.82392E-02  1.86830E-02  1.91375E-02  1.96032E-02  2.00801E-02
#           2.05687E-02  2.10692E-02  2.15818E-02  2.21069E-02  2.26448E-02
#           2.31957E-02  2.37601E-02  2.43382E-02  2.49304E-02  2.55369E-02
#           2.61583E-02  2.67947E-02  2.74467E-02  2.81145E-02  2.87985E-02
#           2.94992E-02  3.02169E-02  3.09521E-02  3.17052E-02  3.24766E-02
#           3.32668E-02  3.40762E-02  3.49053E-02  3.57546E-02  3.66246E-02
#           3.75157E-02  3.84284E-02  3.93634E-02  4.03212E-02  4.13022E-02
#           4.23071E-02  4.33365E-02  4.43909E-02  4.54710E-02  4.65773E-02
#           4.77106E-02  4.88714E-02  5.00605E-02  5.12785E-02  5.25262E-02
#           5.38042E-02  5.51133E-02  5.64542E-02  5.78278E-02  5.92348E-02
#           6.06760E-02  6.21523E-02  6.36645E-02  6.52135E-02  6.68002E-02
#           6.84255E-02  7.00904E-02  7.17957E-02  7.35426E-02  7.53319E-02
#           7.71648E-02  7.90423E-02  8.09655E-02  8.29354E-02  8.49533E-02
#           8.70203E-02  8.91376E-02  9.13064E-02  9.35279E-02  9.58035E-02
#           9.81345E-02  1.00522E-01  1.02968E-01  1.05473E-01  1.08040E-01
#           1.10668E-01  1.13361E-01  1.16119E-01  1.18944E-01  1.21838E-01
#           1.24803E-01  1.27839E-01  1.30950E-01  1.34136E-01  1.37399E-01
#           1.40742E-01  1.44167E-01  1.47675E-01  1.51268E-01  1.54948E-01
#           1.58718E-01  1.62580E-01  1.66535E-01  1.70587E-01  1.74738E-01
#           1.78989E-01  1.83344E-01  1.87805E-01  1.92375E-01  1.97055E-01
#           2.01850E-01  2.06761E-01  2.11792E-01  2.16945E-01  2.22223E-01
#           2.27630E-01  2.33169E-01  2.38842E-01  2.44653E-01  2.50605E-01
#           2.56703E-01  2.62949E-01  2.69346E-01  2.75900E-01  2.82613E-01
#           2.89489E-01  2.96532E-01  3.03747E-01  3.11138E-01  3.18708E-01
#           3.26462E-01  3.34405E-01  3.42542E-01  3.50876E-01  3.59413E-01
#           3.68158E-01  3.77116E-01  3.86291E-01  3.95690E-01  4.05317E-01
#           4.15179E-01  4.25281E-01  4.35628E-01  4.46227E-01  4.57084E-01
#           4.68205E-01  4.79597E-01  4.91266E-01  5.03219E-01  5.15463E-01
#           5.28005E-01  5.40851E-01  5.54011E-01  5.67490E-01  5.81298E-01
#           5.95441E-01  6.09929E-01  6.24769E-01  6.39970E-01  6.55541E-01
#           6.71491E-01  6.87828E-01  7.04564E-01  7.21706E-01  7.39266E-01
#           7.57253E-01  7.75678E-01  7.94551E-01  8.13883E-01  8.33685E-01
#           8.53969E-01  8.74747E-01  8.96030E-01  9.17831E-01  9.40163E-01
#           9.63038E-01  9.86469E-01  1.01047E+00  1.03506E+00  1.06024E+00
#           1.08604E+00  1.11246E+00  1.13953E+00  1.16725E+00  1.19565E+00
#           1.22474E+00  1.25454E+00  1.28507E+00  1.31633E+00  1.34836E+00
#           1.38117E+00  1.41477E+00  1.44920E+00  1.48446E+00  1.52057E+00
#           1.55757E+00  1.59547E+00  1.63429E+00  1.67405E+00  1.71478E+00
#           1.75650E+00  1.79924E+00  1.84302E+00  1.88786E+00  1.93379E+00
#           1.98084E+00  2.02904E+00  2.07841E+00  2.12898E+00  2.18078E+00
#           2.23384E+00  2.28819E+00  2.34386E+00  2.40089E+00  2.45930E+00
#           2.51914E+00  2.58043E+00  2.64322E+00  2.70753E+00  2.77341E+00
#           2.84088E+00  2.91001E+00  2.98081E+00  3.05333E+00  3.12762E+00
#           3.20372E+00  3.28167E+00  3.36152E+00  3.44330E+00  3.52708E+00
#           3.61290E+00  3.70080E+00  3.79085E+00  3.88308E+00  3.97756E+00
#           4.07434E+00  4.17347E+00  4.27501E+00  4.37903E+00  4.48557E+00
#           4.59471E+00  4.70650E+00  4.82102E+00  4.93832E+00  5.05847E+00
#           5.18155E+00  5.30762E+00  5.43676E+00  5.56904E+00  5.70453E+00
#           5.84333E+00  5.98550E+00  6.13114E+00  6.28031E+00  6.43312E+00
#           6.58964E+00  6.74997E+00  6.91420E+00  7.08243E+00  7.25475E+00
#           7.43126E+00  7.61207E+00  7.79728E+00  7.98700E+00  8.18133E+00
#           8.38038E+00  8.58428E+00  8.79315E+00  9.00709E+00  9.22624E+00
#           9.45072E+00  9.68067E+00  9.91620E+00  1.01575E+01  1.04046E+01
#           1.06578E+01  1.09171E+01  1.11827E+01  1.14548E+01  1.17335E+01
#           1.20190E+01  1.23114E+01  1.26109E+01  1.29178E+01  1.32321E+01
#           1.35540E+01  1.38838E+01  1.42216E+01  1.45676E+01  1.49221E+01
#           1.52851E+01  1.56570E+01  1.60380E+01  1.64282E+01  1.68279E+01
#           1.72374E+01  1.76568E+01  1.80864E+01  1.85264E+01  1.89772E+01
#           1.94389E+01  1.99119E+01  2.03963E+01  2.08926E+01  2.14009E+01
#           2.19216E+01  2.24550E+01  2.30014E+01  2.35610E+01  2.41343E+01
#           2.47215E+01  2.53230E+01  2.59391E+01  2.65702E+01  2.72167E+01
#           2.78789E+01  2.85572E+01  2.92520E+01  2.99637E+01  3.06928E+01
#           3.14396E+01  3.22045E+01  3.29881E+01  3.37907E+01  3.46128E+01
#           3.54550E+01  3.63177E+01  3.72013E+01  3.81064E+01  3.90336E+01
#           3.99833E+01  4.09561E+01  4.19526E+01  4.29734E+01  4.40189E+01
#           4.50900E+01  4.61870E+01  4.73108E+01  4.84619E+01  4.96410E+01
#           5.08488E+01  5.20860E+01  5.33533E+01  5.46514E+01  5.59812E+01
#           5.73432E+01  5.87384E+01  6.01676E+01  6.16315E+01  6.31311E+01
#           6.46671E+01  6.62405E+01  6.78522E+01  6.95031E+01  7.11941E+01
#           7.29263E+01  7.47007E+01  7.65182E+01  7.83800E+01  8.02870E+01
#           8.22405E+01  8.42414E+01  8.62911E+01  8.83906E+01  9.05412E+01
#           9.27442E+01  9.50007E+01  9.73122E+01  9.96799E+01  1.02105E+02
#           1.04589E+02  1.07134E+02  1.09741E+02  1.12411E+02  1.15146E+02
#           1.17948E+02  1.20817E+02  1.23757E+02  1.26768E+02  1.29852E+02
#           1.33012E+02  1.36248E+02  1.39563E+02  1.42959E+02  1.46437E+02
#           1.50000E+02
     unit =    2            # unit is [1/cm^2/(MeV/n)/source]
     axis =  eng            # axis of output
     file = detector-13.out  # file name of output for the above axis
   output = f-curr          # surface crossing forward current spectrum
     part =  neutron  
# kf/name :  2112     
#    used :        main (  %)        temp (  %)       total (  %)
#  memory :         414 (  0)           0 (  0)         414 (  0)

#------------------------------------------------------------------------------
#newpage:
#   no. =    1   reg = 112 - 212

x: Energy [MeV/n]
y:  F-Curr [1/cm^2/(MeV/n)/source]         
p: xlog ylog afac(0.8) form(0.9)
h: n            x            y(neutron ),hh0l   n 
#  e-lower      e-upper      neutron     r.err 
   1.0000E-02   1.0243E-02   5.0564E-03  0.0146
   1.0243E-02   1.0493E-02   5.1718E-03  0.0143
   1.0493E-02   1.0748E-02   4.8531E-03  0.0146
   1.0748E-02   1.1009E-02   5.0296E-03  0.0141
   1.1009E-02   1.1277E-02   4.8581E-03  0.0142
   1.1277E-02   1.1552E-02   4.7724E-03  0.0142
   1.1552E-02   1.1833E-02   4.5963E-03  0.0143
   1.1833E-02   1.2121E-02   4.6590E-03  0.0140
   1.2121E-02   1.2415E-02   4.4778E-03  0.0141
   1.2415E-02   1.2718E-02   4.3959E-03  0.0141
   1.2718E-02   1.3027E-02   4.4658E-03  0.0138
   1.3027E-02   1.3344E-02   4.1547E-03  0.0141
   1.3344E-02   1.3669E-02   4.1281E-03  0.0140
   1.3669E-02   1.4001E-02   4.1088E-03  0.0139
   1.4001E-02   1.4342E-02   3.9992E-03  0.0139
   1.4342E-02   1.4691E-02   4.0581E-03  0.0136
   1.4691E-02   1.5048E-02   3.9904E-03  0.0136
   1.5048E-02   1.5414E-02   3.9625E-03  0.0135
   1.5414E-02   1.5789E-02   3.7750E-03  0.0136
   1.5789E-02   1.6174E-02   3.7079E-03  0.0136
   1.6174E-02   1.6567E-02   3.6801E-03  0.0135
   1.6567E-02   1.6970E-02   3.5887E-03  0.0135
   1.6970E-02   1.7383E-02   3.5691E-03  0.0134
   1.7383E-02   1.7806E-02   3.5640E-03  0.0132
   1.7806E-02   1.8239E-02   3.4131E-03  0.0133
   1.8239E-02   1.8683E-02   3.4495E-03  0.0131
   1.8683E-02   1.9138E-02   3.3427E-03  0.0132
   1.9138E-02   1.9603E-02   3.2909E-03  0.0131
   1.9603E-02   2.0080E-02   3.2343E-03  0.0131
   2.0080E-02   2.0569E-02   3.1149E-03  0.0131
   2.0569E-02   2.1069E-02   3.1566E-03  0.0129
   2.1069E-02   2.1582E-02   3.1001E-03  0.0129
   2.1582E-02   2.2107E-02   3.0513E-03  0.0128
   2.2107E-02   2.2645E-02   3.0143E-03  0.0127
   2.2645E-02   2.3196E-02   2.9315E-03  0.0128
   2.3196E-02   2.3760E-02   2.8369E-03  0.0128
   2.3760E-02   2.4338E-02   2.8055E-03  0.0127
   2.4338E-02   2.4930E-02   2.8095E-03  0.0126
   2.4930E-02   2.5537E-02   2.7293E-03  0.0126
   2.5537E-02   2.6158E-02   2.6676E-03  0.0126
   2.6158E-02   2.6795E-02   2.6194E-03  0.0126
   2.6795E-02   2.7447E-02   2.5788E-03  0.0125
   2.7447E-02   2.8114E-02   2.6213E-03  0.0123
   2.8114E-02   2.8799E-02   2.5370E-03  0.0123
   2.8799E-02   2.9499E-02   2.4577E-03  0.0124
   2.9499E-02   3.0217E-02   2.3594E-03  0.0125
   3.0217E-02   3.0952E-02   2.3298E-03  0.0124
   3.0952E-02   3.1705E-02   2.3346E-03  0.0122
   3.1705E-02   3.2477E-02   2.3334E-03  0.0121
   3.2477E-02   3.3267E-02   2.2763E-03  0.0121
   3.3267E-02   3.4076E-02   2.2326E-03  0.0121
   3.4076E-02   3.4905E-02   2.1856E-03  0.0121
   3.4905E-02   3.5755E-02   2.0940E-03  0.0122
   3.5755E-02   3.6625E-02   2.1360E-03  0.0119
   3.6625E-02   3.7516E-02   2.0641E-03  0.0120
   3.7516E-02   3.8428E-02   1.9783E-03  0.0121
   3.8428E-02   3.9363E-02   1.9372E-03  0.0121
   3.9363E-02   4.0321E-02   1.9220E-03  0.0120
   4.0321E-02   4.1302E-02   1.8790E-03  0.0119
   4.1302E-02   4.2307E-02   1.8797E-03  0.0118
   4.2307E-02   4.3337E-02   1.8172E-03  0.0119
   4.3337E-02   4.4391E-02   1.8027E-03  0.0118
   4.4391E-02   4.5471E-02   1.7728E-03  0.0117
   4.5471E-02   4.6577E-02   1.7083E-03  0.0118
   4.6577E-02   4.7711E-02   1.6933E-03  0.0117
   4.7711E-02   4.8871E-02   1.6689E-03  0.0117
   4.8871E-02   5.0061E-02   1.5877E-03  0.0118
   5.0061E-02   5.1279E-02   1.5798E-03  0.0117
   5.1279E-02   5.2526E-02   1.5184E-03  0.0118
   5.2526E-02   5.3804E-02   1.5394E-03  0.0116
   5.3804E-02   5.5113E-02   1.4946E-03  0.0116
   5.5113E-02   5.6454E-02   1.4722E-03  0.0115
   5.6454E-02   5.7828E-02   1.4480E-03  0.0115
   5.7828E-02   5.9235E-02   1.4136E-03  0.0115
   5.9235E-02   6.0676E-02   1.4083E-03  0.0114
   6.0676E-02   6.2152E-02   1.3492E-03  0.0115
   6.2152E-02   6.3665E-02   1.3020E-03  0.0116
   6.3665E-02   6.5214E-02   1.3166E-03  0.0114
   6.5214E-02   6.6800E-02   1.2895E-03  0.0113
   6.6800E-02   6.8426E-02   1.2322E-03  0.0115
   6.8426E-02   7.0090E-02   1.2249E-03  0.0114
   7.0090E-02   7.1796E-02   1.1749E-03  0.0115
   7.1796E-02   7.3543E-02   1.1624E-03  0.0114
   7.3543E-02   7.5332E-02   1.1361E-03  0.0114
   7.5332E-02   7.7165E-02   1.1197E-03  0.0113
   7.7165E-02   7.9042E-02   1.1009E-03  0.0113
   7.9042E-02   8.0965E-02   1.0800E-03  0.0113
   8.0965E-02   8.2935E-02   1.0374E-03  0.0113
   8.2935E-02   8.4953E-02   1.0106E-03  0.0114
   8.4953E-02   8.7020E-02   9.9134E-04  0.0113
   8.7020E-02   8.9138E-02   9.7668E-04  0.0113
   8.9138E-02   9.1306E-02   9.6416E-04  0.0112
   9.1306E-02   9.3528E-02   9.1591E-04  0.0114
   9.3528E-02   9.5804E-02   9.0999E-04  0.0113
   9.5804E-02   9.8134E-02   8.7370E-04  0.0114
   9.8134E-02   1.0052E-01   8.6981E-04  0.0113
   1.0052E-01   1.0297E-01   8.5066E-04  0.0112
   1.0297E-01   1.0547E-01   8.1165E-04  0.0114
   1.0547E-01   1.0804E-01   8.1421E-04  0.0112
   1.0804E-01   1.1067E-01   7.8997E-04  0.0113
   1.1067E-01   1.1336E-01   7.8176E-04  0.0112
   1.1336E-01   1.1612E-01   7.2169E-04  0.0115
   1.1612E-01   1.1894E-01   7.3305E-04  0.0113
   1.1894E-01   1.2184E-01   7.1695E-04  0.0113
   1.2184E-01   1.2480E-01   6.9890E-04  0.0113
   1.2480E-01   1.2784E-01   6.9062E-04  0.0112
   1.2784E-01   1.3095E-01   6.6313E-04  0.0113
   1.3095E-01   1.3414E-01   6.6101E-04  0.0112
   1.3414E-01   1.3740E-01   6.2991E-04  0.0113
   1.3740E-01   1.4074E-01   6.1262E-04  0.0113
   1.4074E-01   1.4417E-01   5.9412E-04  0.0114
   1.4417E-01   1.4767E-01   5.8259E-04  0.0113
   1.4767E-01   1.5127E-01   5.5619E-04  0.0115
   1.5127E-01   1.5495E-01   5.4831E-04  0.0114
   1.5495E-01   1.5872E-01   5.4310E-04  0.0113
   1.5872E-01   1.6258E-01   5.1681E-04  0.0115
   1.6258E-01   1.6654E-01   4.9815E-04  0.0116
   1.6654E-01   1.7059E-01   4.9216E-04  0.0115
   1.7059E-01   1.7474E-01   4.8203E-04  0.0115
   1.7474E-01   1.7899E-01   4.6213E-04  0.0116
   1.7899E-01   1.8334E-01   4.5112E-04  0.0116
   1.8334E-01   1.8781E-01   4.3560E-04  0.0116
   1.8781E-01   1.9237E-01   4.1376E-04  0.0118
   1.9237E-01   1.9706E-01   4.2285E-04  0.0115
   1.9706E-01   2.0185E-01   4.0666E-04  0.0116
   2.0185E-01   2.0676E-01   3.9555E-04  0.0116
   2.0676E-01   2.1179E-01   3.7985E-04  0.0117
   2.1179E-01   2.1694E-01   3.6156E-04  0.0119
   2.1694E-01   2.2222E-01   3.5123E-04  0.0119
   2.2222E-01   2.2763E-01   3.3968E-04  0.0120
   2.2763E-01   2.3317E-01   3.2899E-04  0.0120
   2.3317E-01   2.3884E-01   3.1478E-04  0.0121
   2.3884E-01   2.4465E-01   3.0952E-04  0.0121
   2.4465E-01   2.5061E-01   2.9708E-04  0.0122
   2.5061E-01   2.5670E-01   2.9180E-04  0.0122
   2.5670E-01   2.6295E-01   2.8533E-04  0.0122
   2.6295E-01   2.6935E-01   2.6784E-04  0.0124
   2.6935E-01   2.7590E-01   2.6318E-04  0.0124
   2.7590E-01   2.8261E-01   2.5164E-04  0.0125
   2.8261E-01   2.8949E-01   2.4553E-04  0.0125
   2.8949E-01   2.9653E-01   2.3620E-04  0.0126
   2.9653E-01   3.0375E-01   2.2968E-04  0.0126
   3.0375E-01   3.1114E-01   2.1819E-04  0.0128
   3.1114E-01   3.1871E-01   2.1111E-04  0.0128
   3.1871E-01   3.2646E-01   2.0216E-04  0.0130
   3.2646E-01   3.3441E-01   1.9984E-04  0.0129
   3.3441E-01   3.4254E-01   1.8792E-04  0.0131
   3.4254E-01   3.5088E-01   1.7922E-04  0.0133
   3.5088E-01   3.5941E-01   1.7475E-04  0.0133
   3.5941E-01   3.6816E-01   1.7346E-04  0.0132
   3.6816E-01   3.7712E-01   1.6536E-04  0.0133
   3.7712E-01   3.8629E-01   1.5551E-04  0.0136
   3.8629E-01   3.9569E-01   1.5125E-04  0.0136
   3.9569E-01   4.0532E-01   1.4001E-04  0.0140
   4.0532E-01   4.1518E-01   1.4204E-04  0.0137
   4.1518E-01   4.2528E-01   1.3428E-04  0.0139
   4.2528E-01   4.3563E-01   1.3264E-04  0.0138
   4.3563E-01   4.4623E-01   1.2270E-04  0.0142
   4.4623E-01   4.5708E-01   1.1527E-04  0.0145
   4.5708E-01   4.6821E-01   1.1188E-04  0.0145
   4.6821E-01   4.7960E-01   1.0991E-04  0.0145
   4.7960E-01   4.9127E-01   1.0069E-04  0.0150
   4.9127E-01   5.0322E-01   9.8688E-05  0.0149
   5.0322E-01   5.1546E-01   9.4280E-05  0.0151
   5.1546E-01   5.2800E-01   9.0604E-05  0.0152
   5.2800E-01   5.4085E-01   8.7550E-05  0.0153
   5.4085E-01   5.5401E-01   8.5461E-05  0.0153
   5.5401E-01   5.6749E-01   7.8970E-05  0.0157
   5.6749E-01   5.8130E-01   7.6065E-05  0.0158
   5.8130E-01   5.9544E-01   7.2918E-05  0.0160
   5.9544E-01   6.0993E-01   6.9334E-05  0.0162
   6.0993E-01   6.2477E-01   6.7536E-05  0.0162
   6.2477E-01   6.3997E-01   6.3655E-05  0.0165
   6.3997E-01   6.5554E-01   6.2059E-05  0.0165
   6.5554E-01   6.7149E-01   5.9364E-05  0.0167
   6.7149E-01   6.8783E-01   5.6665E-05  0.0169
   6.8783E-01   7.0456E-01   5.4391E-05  0.0170
   7.0456E-01   7.2171E-01   5.3476E-05  0.0169
   7.2171E-01   7.3927E-01   4.9178E-05  0.0175
   7.3927E-01   7.5725E-01   4.8003E-05  0.0175
   7.5725E-01   7.7568E-01   4.7634E-05  0.0173
   7.7568E-01   7.9455E-01   4.5512E-05  0.0175
   7.9455E-01   8.1388E-01   4.2491E-05  0.0179
   8.1388E-01   8.3368E-01   4.1309E-05  0.0179
   8.3368E-01   8.5397E-01   3.9673E-05  0.0181
   8.5397E-01   8.7475E-01   3.8775E-05  0.0181
   8.7475E-01   8.9603E-01   3.6958E-05  0.0183
   8.9603E-01   9.1783E-01   3.6309E-05  0.0182
   9.1783E-01   9.4016E-01   3.4834E-05  0.0184
   9.4016E-01   9.6304E-01   3.3690E-05  0.0185
   9.6304E-01   9.8647E-01   3.2738E-05  0.0185
   9.8647E-01   1.0105E+00   3.2240E-05  0.0184
   1.0105E+00   1.0351E+00   3.2090E-05  0.0183
   1.0351E+00   1.0602E+00   3.3846E-05  0.0176
   1.0602E+00   1.0860E+00   3.6164E-05  0.0168
   1.0860E+00   1.1125E+00   3.7247E-05  0.0164
   1.1125E+00   1.1395E+00   3.9104E-05  0.0158
   1.1395E+00   1.1673E+00   4.1952E-05  0.0150
   1.1673E+00   1.1957E+00   4.2934E-05  0.0147
   1.1957E+00   1.2247E+00   4.5311E-05  0.0141
   1.2247E+00   1.2545E+00   4.6553E-05  0.0138
   1.2545E+00   1.2851E+00   4.8460E-05  0.0133
   1.2851E+00   1.3163E+00   4.9439E-05  0.0130
   1.3163E+00   1.3484E+00   5.1715E-05  0.0126
   1.3484E+00   1.3812E+00   5.3760E-05  0.0122
   1.3812E+00   1.4148E+00   5.7142E-05  0.0117
   1.4148E+00   1.4492E+00   5.7100E-05  0.0116
   1.4492E+00   1.4845E+00   5.6949E-05  0.0114
   1.4845E+00   1.5206E+00   5.8212E-05  0.0112
   1.5206E+00   1.5576E+00   5.9717E-05  0.0109
   1.5576E+00   1.5955E+00   6.0295E-05  0.0107
   1.5955E+00   1.6343E+00   6.2605E-05  0.0104
   1.6343E+00   1.6741E+00   6.5605E-05  0.0100
   1.6741E+00   1.7148E+00   6.7503E-05  0.0098
   1.7148E+00   1.7565E+00   6.8786E-05  0.0096
   1.7565E+00   1.7992E+00   6.7472E-05  0.0096
   1.7992E+00   1.8430E+00   6.8229E-05  0.0094
   1.8430E+00   1.8879E+00   6.7984E-05  0.0093
   1.8879E+00   1.9338E+00   7.0457E-05  0.0090
   1.9338E+00   1.9808E+00   7.0199E-05  0.0089
   1.9808E+00   2.0290E+00   7.1455E-05  0.0087
   2.0290E+00   2.0784E+00   7.0603E-05  0.0087
   2.0784E+00   2.1290E+00   6.8809E-05  0.0087
   2.1290E+00   2.1808E+00   6.8310E-05  0.0086
   2.1808E+00   2.2338E+00   6.6571E-05  0.0086
   2.2338E+00   2.2882E+00   6.7519E-05  0.0085
   2.2882E+00   2.3439E+00   6.7660E-05  0.0084
   2.3439E+00   2.4009E+00   6.8851E-05  0.0082
   2.4009E+00   2.4593E+00   6.7389E-05  0.0082
   2.4593E+00   2.5191E+00   6.6052E-05  0.0082
   2.5191E+00   2.5804E+00   6.4533E-05  0.0082
   2.5804E+00   2.6432E+00   6.1866E-05  0.0082
   2.6432E+00   2.7075E+00   6.0560E-05  0.0082
   2.7075E+00   2.7734E+00   5.9571E-05  0.0082
   2.7734E+00   2.8409E+00   5.8806E-05  0.0081
   2.8409E+00   2.9100E+00   5.8463E-05  0.0081
   2.9100E+00   2.9808E+00   5.8205E-05  0.0080
   2.9808E+00   3.0533E+00   5.5461E-05  0.0081
   3.0533E+00   3.1276E+00   5.3836E-05  0.0081
   3.1276E+00   3.2037E+00   5.1039E-05  0.0082
   3.2037E+00   3.2817E+00   4.9449E-05  0.0083
   3.2817E+00   3.3615E+00   4.6877E-05  0.0084
   3.3615E+00   3.4433E+00   4.5802E-05  0.0084
   3.4433E+00   3.5271E+00   4.4706E-05  0.0084
   3.5271E+00   3.6129E+00   4.4121E-05  0.0083
   3.6129E+00   3.7008E+00   4.1955E-05  0.0084
   3.7008E+00   3.7908E+00   4.0393E-05  0.0085
   3.7908E+00   3.8831E+00   3.8306E-05  0.0086
   3.8831E+00   3.9776E+00   3.7745E-05  0.0086
   3.9776E+00   4.0743E+00   3.6754E-05  0.0086
   4.0743E+00   4.1735E+00   3.5790E-05  0.0086
   4.1735E+00   4.2750E+00   3.3194E-05  0.0088
   4.2750E+00   4.3790E+00   3.2110E-05  0.0089
   4.3790E+00   4.4856E+00   3.1027E-05  0.0089
   4.4856E+00   4.5947E+00   2.9130E-05  0.0091
   4.5947E+00   4.7065E+00   2.8212E-05  0.0091
   4.7065E+00   4.8210E+00   2.8042E-05  0.0091
   4.8210E+00   4.9383E+00   2.6392E-05  0.0092
   4.9383E+00   5.0585E+00   2.5927E-05  0.0092
   5.0585E+00   5.1815E+00   2.4969E-05  0.0093
   5.1815E+00   5.3076E+00   2.4343E-05  0.0093
   5.3076E+00   5.4368E+00   2.3182E-05  0.0094
   5.4368E+00   5.5690E+00   2.2269E-05  0.0095
   5.5690E+00   5.7045E+00   2.1496E-05  0.0095
   5.7045E+00   5.8433E+00   2.1313E-05  0.0094
   5.8433E+00   5.9855E+00   2.0977E-05  0.0094
   5.9855E+00   6.1311E+00   2.0368E-05  0.0094
   6.1311E+00   6.2803E+00   1.9984E-05  0.0094
   6.2803E+00   6.4331E+00   1.9398E-05  0.0094
   6.4331E+00   6.5896E+00   1.8846E-05  0.0094
   6.5896E+00   6.7500E+00   1.8759E-05  0.0094
   6.7500E+00   6.9142E+00   1.8579E-05  0.0093
   6.9142E+00   7.0824E+00   1.8430E-05  0.0092
   7.0824E+00   7.2548E+00   1.8431E-05  0.0091
   7.2548E+00   7.4313E+00   1.7936E-05  0.0091
   7.4313E+00   7.6121E+00   1.7757E-05  0.0091
   7.6121E+00   7.7973E+00   1.7707E-05  0.0090
   7.7973E+00   7.9870E+00   1.7681E-05  0.0089
   7.9870E+00   8.1813E+00   1.7682E-05  0.0087
   8.1813E+00   8.3804E+00   1.7347E-05  0.0087
   8.3804E+00   8.5843E+00   1.7391E-05  0.0086
   8.5843E+00   8.7931E+00   1.7439E-05  0.0085
   8.7931E+00   9.0071E+00   1.7219E-05  0.0084
   9.0071E+00   9.2262E+00   1.7167E-05  0.0084
   9.2262E+00   9.4507E+00   1.7265E-05  0.0082
   9.4507E+00   9.6807E+00   1.7453E-05  0.0081
   9.6807E+00   9.9162E+00   1.7052E-05  0.0081
   9.9162E+00   1.0157E+01   1.7233E-05  0.0080
   1.0157E+01   1.0405E+01   1.7006E-05  0.0079
   1.0405E+01   1.0658E+01   1.6809E-05  0.0079
   1.0658E+01   1.0917E+01   1.6931E-05  0.0077
   1.0917E+01   1.1183E+01   1.7003E-05  0.0076
   1.1183E+01   1.1455E+01   1.6596E-05  0.0076
   1.1455E+01   1.1733E+01   1.6575E-05  0.0075
   1.1733E+01   1.2019E+01   1.6446E-05  0.0075
   1.2019E+01   1.2311E+01   1.5966E-05  0.0075
   1.2311E+01   1.2611E+01   1.6074E-05  0.0074
   1.2611E+01   1.2918E+01   1.5972E-05  0.0073
   1.2918E+01   1.3232E+01   1.5671E-05  0.0073
   1.3232E+01   1.3554E+01   1.5492E-05  0.0073
   1.3554E+01   1.3884E+01   1.5144E-05  0.0073
   1.3884E+01   1.4222E+01   1.4891E-05  0.0072
   1.4222E+01   1.4568E+01   1.4726E-05  0.0072
   1.4568E+01   1.4922E+01   1.4609E-05  0.0071
   1.4922E+01   1.5285E+01   1.3938E-05  0.0072
   1.5285E+01   1.5657E+01   1.3775E-05  0.0072
   1.5657E+01   1.6038E+01   1.3524E-05  0.0071
   1.6038E+01   1.6428E+01   1.3285E-05  0.0071
   1.6428E+01   1.6828E+01   1.2756E-05  0.0072
   1.6828E+01   1.7237E+01   1.2119E-05  0.0073
   1.7237E+01   1.7657E+01   1.2000E-05  0.0072
   1.7657E+01   1.8086E+01   1.1623E-05  0.0072
   1.8086E+01   1.8526E+01   1.1186E-05  0.0073
   1.8526E+01   1.8977E+01   1.0934E-05  0.0073
   1.8977E+01   1.9439E+01   1.0548E-05  0.0073
   1.9439E+01   1.9912E+01   9.7974E-06  0.0075
   1.9912E+01   2.0396E+01   9.5343E-06  0.0075
   2.0396E+01   2.0893E+01   1.0087E-05  0.0073
   2.0893E+01   2.1401E+01   9.5850E-06  0.0073
   2.1401E+01   2.1922E+01   9.1678E-06  0.0074
   2.1922E+01   2.2455E+01   8.7625E-06  0.0075
   2.2455E+01   2.3001E+01   8.2683E-06  0.0076
   2.3001E+01   2.3561E+01   7.9097E-06  0.0077
   2.3561E+01   2.4134E+01   7.5111E-06  0.0078
   2.4134E+01   2.4721E+01   7.1373E-06  0.0079
   2.4721E+01   2.5323E+01   6.6707E-06  0.0081
   2.5323E+01   2.5939E+01   6.3299E-06  0.0082
   2.5939E+01   2.6570E+01   5.8630E-06  0.0084
   2.6570E+01   2.7217E+01   5.5186E-06  0.0086
   2.7217E+01   2.7879E+01   5.1411E-06  0.0088
   2.7879E+01   2.8557E+01   4.8320E-06  0.0090
   2.8557E+01   2.9252E+01   4.4699E-06  0.0092
   2.9252E+01   2.9964E+01   4.0720E-06  0.0095
   2.9964E+01   3.0693E+01   3.7425E-06  0.0098
   3.0693E+01   3.1440E+01   3.4147E-06  0.0102
   3.1440E+01   3.2205E+01   3.1285E-06  0.0105
   3.2205E+01   3.2988E+01   2.8799E-06  0.0108
   3.2988E+01   3.3791E+01   2.5387E-06  0.0114
   3.3791E+01   3.4613E+01   2.2928E-06  0.0118
   3.4613E+01   3.5455E+01   2.0489E-06  0.0123
   3.5455E+01   3.6318E+01   1.7791E-06  0.0131
   3.6318E+01   3.7201E+01   1.5632E-06  0.0138
   3.7201E+01   3.8106E+01   1.3473E-06  0.0147
   3.8106E+01   3.9034E+01   1.1592E-06  0.0156
   3.9034E+01   3.9983E+01   9.6538E-07  0.0169
   3.9983E+01   4.0956E+01   8.3425E-07  0.0180
   4.0956E+01   4.1953E+01   6.7817E-07  0.0197
   4.1953E+01   4.2973E+01   5.3315E-07  0.0220
   4.2973E+01   4.4019E+01   4.3970E-07  0.0239
   4.4019E+01   4.5090E+01   3.1549E-07  0.0279
   4.5090E+01   4.6187E+01   2.4779E-07  0.0311
   4.6187E+01   4.7311E+01   1.7025E-07  0.0371
   4.7311E+01   4.8462E+01   1.0996E-07  0.0456
   4.8462E+01   4.9641E+01   6.6955E-08  0.0577
   4.9641E+01   5.0849E+01   3.4425E-08  0.0796
   5.0849E+01   5.2086E+01   1.6166E-08  0.1147
   5.2086E+01   5.3353E+01   3.5301E-09  0.2425
   5.3353E+01   5.4651E+01   0.0000E+00  0.0000
   5.4651E+01   5.5981E+01   0.0000E+00  0.0000
   5.5981E+01   5.7343E+01   0.0000E+00  0.0000
   5.7343E+01   5.8738E+01   0.0000E+00  0.0000
   5.8738E+01   6.0168E+01   0.0000E+00  0.0000
   6.0168E+01   6.1632E+01   0.0000E+00  0.0000
   6.1632E+01   6.3131E+01   0.0000E+00  0.0000
   6.3131E+01   6.4667E+01   0.0000E+00  0.0000
   6.4667E+01   6.6240E+01   0.0000E+00  0.0000
   6.6240E+01   6.7852E+01   0.0000E+00  0.0000
   6.7852E+01   6.9503E+01   0.0000E+00  0.0000
   6.9503E+01   7.1194E+01   0.0000E+00  0.0000
   7.1194E+01   7.2926E+01   0.0000E+00  0.0000
   7.2926E+01   7.4701E+01   0.0000E+00  0.0000
   7.4701E+01   7.6518E+01   0.0000E+00  0.0000
   7.6518E+01   7.8380E+01   0.0000E+00  0.0000
   7.8380E+01   8.0287E+01   0.0000E+00  0.0000
   8.0287E+01   8.2240E+01   0.0000E+00  0.0000
   8.2240E+01   8.4241E+01   0.0000E+00  0.0000
   8.4241E+01   8.6291E+01   0.0000E+00  0.0000
   8.6291E+01   8.8391E+01   0.0000E+00  0.0000
   8.8391E+01   9.0541E+01   0.0000E+00  0.0000
   9.0541E+01   9.2744E+01   0.0000E+00  0.0000
   9.2744E+01   9.5001E+01   0.0000E+00  0.0000
   9.5001E+01   9.7312E+01   0.0000E+00  0.0000
   9.7312E+01   9.9680E+01   0.0000E+00  0.0000
   9.9680E+01   1.0211E+02   0.0000E+00  0.0000
   1.0211E+02   1.0459E+02   0.0000E+00  0.0000
   1.0459E+02   1.0713E+02   0.0000E+00  0.0000
   1.0713E+02   1.0974E+02   0.0000E+00  0.0000
   1.0974E+02   1.1241E+02   0.0000E+00  0.0000
   1.1241E+02   1.1515E+02   0.0000E+00  0.0000
   1.1515E+02   1.1795E+02   0.0000E+00  0.0000
   1.1795E+02   1.2082E+02   0.0000E+00  0.0000
   1.2082E+02   1.2376E+02   0.0000E+00  0.0000
   1.2376E+02   1.2677E+02   0.0000E+00  0.0000
   1.2677E+02   1.2985E+02   0.0000E+00  0.0000
   1.2985E+02   1.3301E+02   0.0000E+00  0.0000
   1.3301E+02   1.3625E+02   0.0000E+00  0.0000
   1.3625E+02   1.3956E+02   0.0000E+00  0.0000
   1.3956E+02   1.4296E+02   0.0000E+00  0.0000
   1.4296E+02   1.4644E+02   0.0000E+00  0.0000
   1.4644E+02   1.5000E+02   0.0000E+00  0.0000

#   sum over                 5.5624E-06
'no. =    1   reg = 112 - 212'
msuc: {\huge [t-cross] in region mesh}
msdr: {\it plotted by \ANGEL \version}
msdl: {\it calculated by \PHITS  3.26}
wt: s(0.7)
\vspace{-3}
  region surface crossing
  area  &=&   1.0000E+00 [cm^2]
e:
 
# Information for Restart Calculation
# This calculation was newly started
# istdev =  2 # 1:Batch variance, 2:History variance
# resc2  = 3.80000000000000000E+09 # Total source weight or Total source weight / maxcas
# resc3  = 3.80000000000000000E+09 # Total history number or Total batch number
# maxcas =   100000000 # History / Batch, only used for istdev=1
# bitrseed = 1100100011111111101010110001000011010010001011000111110010001001 # bit data of rseed
