[ T-Cross ]
    title = [t-cross] in region mesh
     mesh =  reg            # mesh type is region-wise
      reg =    1            # number of crossing regions
      non     r-from    r-to       area
      1       125       225        1.000000    
   e-type =    3            # e-mesh is log given by emin, emax and ne
     emin =  1.0000000E-02  # minimum value of e-mesh points
     emax =   150.0000      # maximum value of e-mesh points
#    edel =  2.4039514E-02  # mesh width of e-mesh points
       ne =    400          # number of e-mesh points
#    data = ( e(i), i = 1, ne + 1 )
#           1.00000E-02  1.02433E-02  1.04925E-02  1.07478E-02  1.10093E-02
#           1.12772E-02  1.15516E-02  1.18326E-02  1.21205E-02  1.24154E-02
#           1.27175E-02  1.30269E-02  1.33439E-02  1.36686E-02  1.40011E-02
#           1.43418E-02  1.46907E-02  1.50482E-02  1.54143E-02  1.57894E-02
#           1.61735E-02  1.65670E-02  1.69701E-02  1.73830E-02  1.78060E-02
#           1.82392E-02  1.86830E-02  1.91375E-02  1.96032E-02  2.00801E-02
#           2.05687E-02  2.10692E-02  2.15818E-02  2.21069E-02  2.26448E-02
#           2.31957E-02  2.37601E-02  2.43382E-02  2.49304E-02  2.55369E-02
#           2.61583E-02  2.67947E-02  2.74467E-02  2.81145E-02  2.87985E-02
#           2.94992E-02  3.02169E-02  3.09521E-02  3.17052E-02  3.24766E-02
#           3.32668E-02  3.40762E-02  3.49053E-02  3.57546E-02  3.66246E-02
#           3.75157E-02  3.84284E-02  3.93634E-02  4.03212E-02  4.13022E-02
#           4.23071E-02  4.33365E-02  4.43909E-02  4.54710E-02  4.65773E-02
#           4.77106E-02  4.88714E-02  5.00605E-02  5.12785E-02  5.25262E-02
#           5.38042E-02  5.51133E-02  5.64542E-02  5.78278E-02  5.92348E-02
#           6.06760E-02  6.21523E-02  6.36645E-02  6.52135E-02  6.68002E-02
#           6.84255E-02  7.00904E-02  7.17957E-02  7.35426E-02  7.53319E-02
#           7.71648E-02  7.90423E-02  8.09655E-02  8.29354E-02  8.49533E-02
#           8.70203E-02  8.91376E-02  9.13064E-02  9.35279E-02  9.58035E-02
#           9.81345E-02  1.00522E-01  1.02968E-01  1.05473E-01  1.08040E-01
#           1.10668E-01  1.13361E-01  1.16119E-01  1.18944E-01  1.21838E-01
#           1.24803E-01  1.27839E-01  1.30950E-01  1.34136E-01  1.37399E-01
#           1.40742E-01  1.44167E-01  1.47675E-01  1.51268E-01  1.54948E-01
#           1.58718E-01  1.62580E-01  1.66535E-01  1.70587E-01  1.74738E-01
#           1.78989E-01  1.83344E-01  1.87805E-01  1.92375E-01  1.97055E-01
#           2.01850E-01  2.06761E-01  2.11792E-01  2.16945E-01  2.22223E-01
#           2.27630E-01  2.33169E-01  2.38842E-01  2.44653E-01  2.50605E-01
#           2.56703E-01  2.62949E-01  2.69346E-01  2.75900E-01  2.82613E-01
#           2.89489E-01  2.96532E-01  3.03747E-01  3.11138E-01  3.18708E-01
#           3.26462E-01  3.34405E-01  3.42542E-01  3.50876E-01  3.59413E-01
#           3.68158E-01  3.77116E-01  3.86291E-01  3.95690E-01  4.05317E-01
#           4.15179E-01  4.25281E-01  4.35628E-01  4.46227E-01  4.57084E-01
#           4.68205E-01  4.79597E-01  4.91266E-01  5.03219E-01  5.15463E-01
#           5.28005E-01  5.40851E-01  5.54011E-01  5.67490E-01  5.81298E-01
#           5.95441E-01  6.09929E-01  6.24769E-01  6.39970E-01  6.55541E-01
#           6.71491E-01  6.87828E-01  7.04564E-01  7.21706E-01  7.39266E-01
#           7.57253E-01  7.75678E-01  7.94551E-01  8.13883E-01  8.33685E-01
#           8.53969E-01  8.74747E-01  8.96030E-01  9.17831E-01  9.40163E-01
#           9.63038E-01  9.86469E-01  1.01047E+00  1.03506E+00  1.06024E+00
#           1.08604E+00  1.11246E+00  1.13953E+00  1.16725E+00  1.19565E+00
#           1.22474E+00  1.25454E+00  1.28507E+00  1.31633E+00  1.34836E+00
#           1.38117E+00  1.41477E+00  1.44920E+00  1.48446E+00  1.52057E+00
#           1.55757E+00  1.59547E+00  1.63429E+00  1.67405E+00  1.71478E+00
#           1.75650E+00  1.79924E+00  1.84302E+00  1.88786E+00  1.93379E+00
#           1.98084E+00  2.02904E+00  2.07841E+00  2.12898E+00  2.18078E+00
#           2.23384E+00  2.28819E+00  2.34386E+00  2.40089E+00  2.45930E+00
#           2.51914E+00  2.58043E+00  2.64322E+00  2.70753E+00  2.77341E+00
#           2.84088E+00  2.91001E+00  2.98081E+00  3.05333E+00  3.12762E+00
#           3.20372E+00  3.28167E+00  3.36152E+00  3.44330E+00  3.52708E+00
#           3.61290E+00  3.70080E+00  3.79085E+00  3.88308E+00  3.97756E+00
#           4.07434E+00  4.17347E+00  4.27501E+00  4.37903E+00  4.48557E+00
#           4.59471E+00  4.70650E+00  4.82102E+00  4.93832E+00  5.05847E+00
#           5.18155E+00  5.30762E+00  5.43676E+00  5.56904E+00  5.70453E+00
#           5.84333E+00  5.98550E+00  6.13114E+00  6.28031E+00  6.43312E+00
#           6.58964E+00  6.74997E+00  6.91420E+00  7.08243E+00  7.25475E+00
#           7.43126E+00  7.61207E+00  7.79728E+00  7.98700E+00  8.18133E+00
#           8.38038E+00  8.58428E+00  8.79315E+00  9.00709E+00  9.22624E+00
#           9.45072E+00  9.68067E+00  9.91620E+00  1.01575E+01  1.04046E+01
#           1.06578E+01  1.09171E+01  1.11827E+01  1.14548E+01  1.17335E+01
#           1.20190E+01  1.23114E+01  1.26109E+01  1.29178E+01  1.32321E+01
#           1.35540E+01  1.38838E+01  1.42216E+01  1.45676E+01  1.49221E+01
#           1.52851E+01  1.56570E+01  1.60380E+01  1.64282E+01  1.68279E+01
#           1.72374E+01  1.76568E+01  1.80864E+01  1.85264E+01  1.89772E+01
#           1.94389E+01  1.99119E+01  2.03963E+01  2.08926E+01  2.14009E+01
#           2.19216E+01  2.24550E+01  2.30014E+01  2.35610E+01  2.41343E+01
#           2.47215E+01  2.53230E+01  2.59391E+01  2.65702E+01  2.72167E+01
#           2.78789E+01  2.85572E+01  2.92520E+01  2.99637E+01  3.06928E+01
#           3.14396E+01  3.22045E+01  3.29881E+01  3.37907E+01  3.46128E+01
#           3.54550E+01  3.63177E+01  3.72013E+01  3.81064E+01  3.90336E+01
#           3.99833E+01  4.09561E+01  4.19526E+01  4.29734E+01  4.40189E+01
#           4.50900E+01  4.61870E+01  4.73108E+01  4.84619E+01  4.96410E+01
#           5.08488E+01  5.20860E+01  5.33533E+01  5.46514E+01  5.59812E+01
#           5.73432E+01  5.87384E+01  6.01676E+01  6.16315E+01  6.31311E+01
#           6.46671E+01  6.62405E+01  6.78522E+01  6.95031E+01  7.11941E+01
#           7.29263E+01  7.47007E+01  7.65182E+01  7.83800E+01  8.02870E+01
#           8.22405E+01  8.42414E+01  8.62911E+01  8.83906E+01  9.05412E+01
#           9.27442E+01  9.50007E+01  9.73122E+01  9.96799E+01  1.02105E+02
#           1.04589E+02  1.07134E+02  1.09741E+02  1.12411E+02  1.15146E+02
#           1.17948E+02  1.20817E+02  1.23757E+02  1.26768E+02  1.29852E+02
#           1.33012E+02  1.36248E+02  1.39563E+02  1.42959E+02  1.46437E+02
#           1.50000E+02
     unit =    2            # unit is [1/cm^2/(MeV/n)/source]
     axis =  eng            # axis of output
     file = detector-26.out  # file name of output for the above axis
   output = f-curr          # surface crossing forward current spectrum
     part =  neutron  
# kf/name :  2112     
#    used :        main (  %)        temp (  %)       total (  %)
#  memory :         414 (  0)           0 (  0)         414 (  0)

#------------------------------------------------------------------------------
#newpage:
#   no. =    1   reg = 125 - 225

x: Energy [MeV/n]
y:  F-Curr [1/cm^2/(MeV/n)/source]         
p: xlog ylog afac(0.8) form(0.9)
h: n            x            y(neutron ),hh0l   n 
#  e-lower      e-upper      neutron     r.err 
   1.0000E-02   1.0243E-02   9.4413E-05  0.1098
   1.0243E-02   1.0493E-02   1.1782E-04  0.0971
   1.0493E-02   1.0748E-02   1.0199E-04  0.1032
   1.0748E-02   1.1009E-02   9.7430E-05  0.1043
   1.1009E-02   1.1277E-02   7.9773E-05  0.1140
   1.1277E-02   1.1552E-02   9.9030E-05  0.1010
   1.1552E-02   1.1833E-02   9.1757E-05  0.1037
   1.1833E-02   1.2121E-02   9.5401E-05  0.1005
   1.2121E-02   1.2415E-02   7.0176E-05  0.1156
   1.2415E-02   1.2718E-02   9.5290E-05  0.0981
   1.2718E-02   1.3027E-02   9.0596E-05  0.0995
   1.3027E-02   1.3344E-02   8.5807E-05  0.1010
   1.3344E-02   1.3669E-02   6.4630E-05  0.1148
   1.3669E-02   1.4001E-02   7.9861E-05  0.1021
   1.4001E-02   1.4342E-02   6.1734E-05  0.1147
   1.4342E-02   1.4691E-02   7.6717E-05  0.1016
   1.4691E-02   1.5048E-02   7.6033E-05  0.1010
   1.5048E-02   1.5414E-02   7.1260E-05  0.1031
   1.5414E-02   1.5789E-02   6.4398E-05  0.1072
   1.5789E-02   1.6174E-02   7.7690E-05  0.0963
   1.6174E-02   1.6567E-02   5.9928E-05  0.1085
   1.6567E-02   1.6970E-02   6.3765E-05  0.1038
   1.6970E-02   1.7383E-02   5.8471E-05  0.1072
   1.7383E-02   1.7806E-02   6.3462E-05  0.1016
   1.7806E-02   1.8239E-02   6.0192E-05  0.1031
   1.8239E-02   1.8683E-02   6.6275E-05  0.0971
   1.8683E-02   1.9138E-02   4.9921E-05  0.1105
   1.9138E-02   1.9603E-02   5.5306E-05  0.1037
   1.9603E-02   2.0080E-02   5.5170E-05  0.1026
   2.0080E-02   2.0569E-02   6.6846E-05  0.0921
   2.0569E-02   2.1069E-02   5.5303E-05  0.1000
   2.1069E-02   2.1582E-02   5.1926E-05  0.1021
   2.1582E-02   2.2107E-02   6.4045E-05  0.0907
   2.2107E-02   2.2645E-02   5.1236E-05  0.1002
   2.2645E-02   2.3196E-02   4.9516E-05  0.1006
   2.3196E-02   2.3760E-02   4.3154E-05  0.1066
   2.3760E-02   2.4338E-02   4.6395E-05  0.1016
   2.4338E-02   2.4930E-02   4.9663E-05  0.0970
   2.4930E-02   2.5537E-02   5.5332E-05  0.0909
   2.5537E-02   2.6158E-02   4.3319E-05  0.1015
   2.6158E-02   2.6795E-02   3.6127E-05  0.1098
   2.6795E-02   2.7447E-02   4.2048E-05  0.1005
   2.7447E-02   2.8114E-02   4.6149E-05  0.0948
   2.8114E-02   2.8799E-02   3.8814E-05  0.1021
   2.8799E-02   2.9499E-02   4.0485E-05  0.0988
   2.9499E-02   3.0217E-02   3.5963E-05  0.1037
   3.0217E-02   3.0952E-02   2.9065E-05  0.1140
   3.0952E-02   3.1705E-02   3.8686E-05  0.0976
   3.1705E-02   3.2477E-02   4.3360E-05  0.0910
   3.2477E-02   3.3267E-02   3.8978E-05  0.0949
   3.3267E-02   3.4076E-02   3.1523E-05  0.1043
   3.4076E-02   3.4905E-02   3.5751E-05  0.0967
   3.4905E-02   3.5755E-02   3.1341E-05  0.1021
   3.5755E-02   3.6625E-02   3.3812E-05  0.0971
   3.6625E-02   3.7516E-02   3.6790E-05  0.0919
   3.7516E-02   3.8428E-02   3.2233E-05  0.0971
   3.8428E-02   3.9363E-02   2.8342E-05  0.1022
   3.9363E-02   4.0321E-02   2.8098E-05  0.1015
   4.0321E-02   4.1302E-02   3.5067E-05  0.0898
   4.1302E-02   4.2307E-02   2.5682E-05  0.1037
   4.2307E-02   4.3337E-02   2.8537E-05  0.0971
   4.3337E-02   4.4391E-02   2.7593E-05  0.0976
   4.4391E-02   4.5471E-02   2.4673E-05  0.1021
   4.5471E-02   4.6577E-02   3.0328E-05  0.0909
   4.6577E-02   4.7711E-02   2.2651E-05  0.1038
   4.7711E-02   4.8871E-02   2.7944E-05  0.0923
   4.8871E-02   5.0061E-02   2.1233E-05  0.1048
   5.0061E-02   5.1279E-02   2.5909E-05  0.0937
   5.1279E-02   5.2526E-02   2.0641E-05  0.1037
   5.2526E-02   5.3804E-02   2.8188E-05  0.0877
   5.3804E-02   5.5113E-02   2.1621E-05  0.0990
   5.5113E-02   5.6454E-02   2.2599E-05  0.0955
   5.6454E-02   5.7828E-02   2.5862E-05  0.0884
   5.7828E-02   5.9235E-02   2.3909E-05  0.0907
   5.9235E-02   6.0676E-02   1.8821E-05  0.1010
   6.0676E-02   6.2152E-02   2.0661E-05  0.0953
   6.2152E-02   6.3665E-02   1.9818E-05  0.0962
   6.3665E-02   6.5214E-02   2.0623E-05  0.0931
   6.5214E-02   6.6800E-02   1.9053E-05  0.0958
   6.6800E-02   6.8426E-02   1.9631E-05  0.0933
   6.8426E-02   7.0090E-02   2.0832E-05  0.0894
   7.0090E-02   7.1796E-02   1.9392E-05  0.0915
   7.1796E-02   7.3543E-02   1.8114E-05  0.0937
   7.3543E-02   7.5332E-02   1.9032E-05  0.0902
   7.5332E-02   7.7165E-02   1.6748E-05  0.0950
   7.7165E-02   7.9042E-02   1.4750E-05  0.1000
   7.9042E-02   8.0965E-02   1.5057E-05  0.0978
   8.0965E-02   8.2935E-02   1.4315E-05  0.0990
   8.2935E-02   8.4953E-02   1.3978E-05  0.0991
   8.4953E-02   8.7020E-02   1.5951E-05  0.0917
   8.7020E-02   8.9138E-02   1.4366E-05  0.0954
   8.9138E-02   9.1306E-02   1.4201E-05  0.0949
   9.1306E-02   9.3528E-02   1.4933E-05  0.0913
   9.3528E-02   9.5804E-02   1.3653E-05  0.0945
   9.5804E-02   9.8134E-02   1.4936E-05  0.0891
   9.8134E-02   1.0052E-01   1.2853E-05  0.0949
   1.0052E-01   1.0297E-01   1.4521E-05  0.0884
   1.0297E-01   1.0547E-01   1.3594E-05  0.0902
   1.0547E-01   1.0804E-01   1.3384E-05  0.0897
   1.0804E-01   1.1067E-01   1.6581E-05  0.0797
   1.1067E-01   1.1336E-01   1.4460E-05  0.0843
   1.1336E-01   1.1612E-01   1.6036E-05  0.0791
   1.1612E-01   1.1894E-01   1.5218E-05  0.0803
   1.1894E-01   1.2184E-01   1.5855E-05  0.0776
   1.2184E-01   1.2480E-01   1.8729E-05  0.0706
   1.2480E-01   1.2784E-01   1.7788E-05  0.0716
   1.2784E-01   1.3095E-01   1.8198E-05  0.0699
   1.3095E-01   1.3414E-01   2.0642E-05  0.0649
   1.3414E-01   1.3740E-01   2.0663E-05  0.0640
   1.3740E-01   1.4074E-01   2.1146E-05  0.0625
   1.4074E-01   1.4417E-01   2.1451E-05  0.0614
   1.4417E-01   1.4767E-01   2.3026E-05  0.0585
   1.4767E-01   1.5127E-01   2.2686E-05  0.0583
   1.5127E-01   1.5495E-01   2.3375E-05  0.0567
   1.5495E-01   1.5872E-01   2.3359E-05  0.0561
   1.5872E-01   1.6258E-01   2.3490E-05  0.0552
   1.6258E-01   1.6654E-01   2.3489E-05  0.0546
   1.6654E-01   1.7059E-01   2.4841E-05  0.0525
   1.7059E-01   1.7474E-01   2.7779E-05  0.0490
   1.7474E-01   1.7899E-01   2.5136E-05  0.0509
   1.7899E-01   1.8334E-01   2.6667E-05  0.0489
   1.8334E-01   1.8781E-01   2.5988E-05  0.0489
   1.8781E-01   1.9237E-01   2.8220E-05  0.0463
   1.9237E-01   1.9706E-01   3.0848E-05  0.0438
   1.9706E-01   2.0185E-01   2.9373E-05  0.0443
   2.0185E-01   2.0676E-01   2.6260E-05  0.0463
   2.0676E-01   2.1179E-01   3.0448E-05  0.0425
   2.1179E-01   2.1694E-01   3.0923E-05  0.0417
   2.1694E-01   2.2222E-01   3.0427E-05  0.0415
   2.2222E-01   2.2763E-01   3.2548E-05  0.0397
   2.2763E-01   2.3317E-01   3.1254E-05  0.0400
   2.3317E-01   2.3884E-01   3.1245E-05  0.0395
   2.3884E-01   2.4465E-01   3.4281E-05  0.0373
   2.4465E-01   2.5061E-01   3.2945E-05  0.0376
   2.5061E-01   2.5670E-01   3.3980E-05  0.0366
   2.5670E-01   2.6295E-01   3.4841E-05  0.0356
   2.6295E-01   2.6935E-01   3.6605E-05  0.0344
   2.6935E-01   2.7590E-01   3.5773E-05  0.0344
   2.7590E-01   2.8261E-01   3.7114E-05  0.0333
   2.8261E-01   2.8949E-01   3.7937E-05  0.0326
   2.8949E-01   2.9653E-01   3.7725E-05  0.0323
   2.9653E-01   3.0375E-01   3.8947E-05  0.0314
   3.0375E-01   3.1114E-01   3.9200E-05  0.0309
   3.1114E-01   3.1871E-01   4.0622E-05  0.0300
   3.1871E-01   3.2646E-01   4.1256E-05  0.0294
   3.2646E-01   3.3441E-01   4.1492E-05  0.0290
   3.3441E-01   3.4254E-01   4.2322E-05  0.0283
   3.4254E-01   3.5088E-01   4.3521E-05  0.0276
   3.5088E-01   3.5941E-01   4.1558E-05  0.0279
   3.5941E-01   3.6816E-01   4.1078E-05  0.0277
   3.6816E-01   3.7712E-01   4.3063E-05  0.0268
   3.7712E-01   3.8629E-01   4.2946E-05  0.0265
   3.8629E-01   3.9569E-01   4.6757E-05  0.0251
   3.9569E-01   4.0532E-01   4.5407E-05  0.0251
   4.0532E-01   4.1518E-01   4.3574E-05  0.0254
   4.1518E-01   4.2528E-01   4.4422E-05  0.0248
   4.2528E-01   4.3563E-01   4.6407E-05  0.0240
   4.3563E-01   4.4623E-01   4.4637E-05  0.0242
   4.4623E-01   4.5708E-01   4.6683E-05  0.0233
   4.5708E-01   4.6821E-01   4.7174E-05  0.0230
   4.6821E-01   4.7960E-01   4.7762E-05  0.0225
   4.7960E-01   4.9127E-01   4.5115E-05  0.0229
   4.9127E-01   5.0322E-01   4.7569E-05  0.0220
   5.0322E-01   5.1546E-01   4.8213E-05  0.0216
   5.1546E-01   5.2800E-01   4.8873E-05  0.0212
   5.2800E-01   5.4085E-01   4.7894E-05  0.0212
   5.4085E-01   5.5401E-01   4.6765E-05  0.0212
   5.5401E-01   5.6749E-01   4.6711E-05  0.0209
   5.6749E-01   5.8130E-01   4.9114E-05  0.0202
   5.8130E-01   5.9544E-01   4.8694E-05  0.0200
   5.9544E-01   6.0993E-01   4.8633E-05  0.0198
   6.0993E-01   6.2477E-01   5.0093E-05  0.0193
   6.2477E-01   6.3997E-01   4.9175E-05  0.0192
   6.3997E-01   6.5554E-01   4.7541E-05  0.0193
   6.5554E-01   6.7149E-01   4.7610E-05  0.0191
   6.7149E-01   6.8783E-01   4.6847E-05  0.0190
   6.8783E-01   7.0456E-01   4.7603E-05  0.0186
   7.0456E-01   7.2171E-01   4.7483E-05  0.0184
   7.2171E-01   7.3927E-01   4.5979E-05  0.0185
   7.3927E-01   7.5725E-01   4.5737E-05  0.0183
   7.5725E-01   7.7568E-01   4.6252E-05  0.0180
   7.7568E-01   7.9455E-01   4.4454E-05  0.0181
   7.9455E-01   8.1388E-01   4.4811E-05  0.0178
   8.1388E-01   8.3368E-01   4.3559E-05  0.0179
   8.3368E-01   8.5397E-01   4.3263E-05  0.0177
   8.5397E-01   8.7475E-01   4.2606E-05  0.0176
   8.7475E-01   8.9603E-01   4.2354E-05  0.0175
   8.9603E-01   9.1783E-01   3.9456E-05  0.0179
   9.1783E-01   9.4016E-01   4.0512E-05  0.0174
   9.4016E-01   9.6304E-01   3.6675E-05  0.0181
   9.6304E-01   9.8647E-01   3.6591E-05  0.0179
   9.8647E-01   1.0105E+00   3.5642E-05  0.0179
   1.0105E+00   1.0351E+00   3.3639E-05  0.0182
   1.0351E+00   1.0602E+00   3.3476E-05  0.0180
   1.0602E+00   1.0860E+00   3.2170E-05  0.0182
   1.0860E+00   1.1125E+00   3.2244E-05  0.0179
   1.1125E+00   1.1395E+00   3.2999E-05  0.0175
   1.1395E+00   1.1673E+00   3.3215E-05  0.0172
   1.1673E+00   1.1957E+00   3.2522E-05  0.0172
   1.1957E+00   1.2247E+00   3.1299E-05  0.0173
   1.2247E+00   1.2545E+00   3.2088E-05  0.0169
   1.2545E+00   1.2851E+00   3.1372E-05  0.0169
   1.2851E+00   1.3163E+00   3.0987E-05  0.0168
   1.3163E+00   1.3484E+00   2.9633E-05  0.0169
   1.3484E+00   1.3812E+00   2.9436E-05  0.0168
   1.3812E+00   1.4148E+00   2.9138E-05  0.0167
   1.4148E+00   1.4492E+00   2.8558E-05  0.0166
   1.4492E+00   1.4845E+00   2.7984E-05  0.0166
   1.4845E+00   1.5206E+00   2.7839E-05  0.0164
   1.5206E+00   1.5576E+00   2.6927E-05  0.0165
   1.5576E+00   1.5955E+00   2.6238E-05  0.0165
   1.5955E+00   1.6343E+00   2.4834E-05  0.0167
   1.6343E+00   1.6741E+00   2.5238E-05  0.0164
   1.6741E+00   1.7148E+00   2.4354E-05  0.0164
   1.7148E+00   1.7565E+00   2.2198E-05  0.0170
   1.7565E+00   1.7992E+00   2.2743E-05  0.0166
   1.7992E+00   1.8430E+00   2.1768E-05  0.0167
   1.8430E+00   1.8879E+00   2.0507E-05  0.0170
   1.8879E+00   1.9338E+00   2.0085E-05  0.0169
   1.9338E+00   1.9808E+00   1.9842E-05  0.0169
   1.9808E+00   2.0290E+00   1.9407E-05  0.0169
   2.0290E+00   2.0784E+00   1.9130E-05  0.0168
   2.0784E+00   2.1290E+00   1.8275E-05  0.0169
   2.1290E+00   2.1808E+00   1.8566E-05  0.0166
   2.1808E+00   2.2338E+00   1.7996E-05  0.0167
   2.2338E+00   2.2882E+00   1.7114E-05  0.0169
   2.2882E+00   2.3439E+00   1.7024E-05  0.0168
   2.3439E+00   2.4009E+00   1.7122E-05  0.0165
   2.4009E+00   2.4593E+00   1.5722E-05  0.0170
   2.4593E+00   2.5191E+00   1.5595E-05  0.0169
   2.5191E+00   2.5804E+00   1.5459E-05  0.0168
   2.5804E+00   2.6432E+00   1.4731E-05  0.0170
   2.6432E+00   2.7075E+00   1.4440E-05  0.0169
   2.7075E+00   2.7734E+00   1.4563E-05  0.0167
   2.7734E+00   2.8409E+00   1.3652E-05  0.0170
   2.8409E+00   2.9100E+00   1.3599E-05  0.0168
   2.9100E+00   2.9808E+00   1.3124E-05  0.0170
   2.9808E+00   3.0533E+00   1.3006E-05  0.0169
   3.0533E+00   3.1276E+00   1.2747E-05  0.0169
   3.1276E+00   3.2037E+00   1.2450E-05  0.0168
   3.2037E+00   3.2817E+00   1.2033E-05  0.0169
   3.2817E+00   3.3615E+00   1.1785E-05  0.0169
   3.3615E+00   3.4433E+00   1.1248E-05  0.0171
   3.4433E+00   3.5271E+00   1.1453E-05  0.0167
   3.5271E+00   3.6129E+00   1.0631E-05  0.0172
   3.6129E+00   3.7008E+00   1.0442E-05  0.0171
   3.7008E+00   3.7908E+00   9.9105E-06  0.0174
   3.7908E+00   3.8831E+00   9.8977E-06  0.0172
   3.8831E+00   3.9776E+00   9.3542E-06  0.0175
   3.9776E+00   4.0743E+00   9.2125E-06  0.0174
   4.0743E+00   4.1735E+00   9.0999E-06  0.0173
   4.1735E+00   4.2750E+00   8.6990E-06  0.0175
   4.2750E+00   4.3790E+00   8.6297E-06  0.0173
   4.3790E+00   4.4856E+00   8.0822E-06  0.0177
   4.4856E+00   4.5947E+00   7.7513E-06  0.0179
   4.5947E+00   4.7065E+00   7.7059E-06  0.0177
   4.7065E+00   4.8210E+00   7.2497E-06  0.0180
   4.8210E+00   4.9383E+00   6.7674E-06  0.0185
   4.9383E+00   5.0585E+00   6.7676E-06  0.0182
   5.0585E+00   5.1815E+00   6.4453E-06  0.0185
   5.1815E+00   5.3076E+00   6.2584E-06  0.0185
   5.3076E+00   5.4368E+00   6.0038E-06  0.0187
   5.4368E+00   5.5690E+00   5.9329E-06  0.0186
   5.5690E+00   5.7045E+00   5.3452E-06  0.0193
   5.7045E+00   5.8433E+00   5.1194E-06  0.0195
   5.8433E+00   5.9855E+00   4.9629E-06  0.0196
   5.9855E+00   6.1311E+00   4.5112E-06  0.0203
   6.1311E+00   6.2803E+00   4.4115E-06  0.0203
   6.2803E+00   6.4331E+00   4.1549E-06  0.0207
   6.4331E+00   6.5896E+00   3.8080E-06  0.0214
   6.5896E+00   6.7500E+00   3.7443E-06  0.0213
   6.7500E+00   6.9142E+00   3.3973E-06  0.0221
   6.9142E+00   7.0824E+00   3.0986E-06  0.0229
   7.0824E+00   7.2548E+00   3.0176E-06  0.0229
   7.2548E+00   7.4313E+00   2.5479E-06  0.0246
   7.4313E+00   7.6121E+00   2.5328E-06  0.0244
   7.6121E+00   7.7973E+00   2.3141E-06  0.0252
   7.7973E+00   7.9870E+00   2.1615E-06  0.0258
   7.9870E+00   8.1813E+00   1.9721E-06  0.0267
   8.1813E+00   8.3804E+00   1.8975E-06  0.0269
   8.3804E+00   8.5843E+00   1.6974E-06  0.0281
   8.5843E+00   8.7931E+00   1.5693E-06  0.0289
   8.7931E+00   9.0071E+00   1.4700E-06  0.0295
   9.0071E+00   9.2262E+00   1.3764E-06  0.0302
   9.2262E+00   9.4507E+00   1.2687E-06  0.0310
   9.4507E+00   9.6807E+00   1.1718E-06  0.0320
   9.6807E+00   9.9162E+00   1.0722E-06  0.0329
   9.9162E+00   1.0157E+01   1.1374E-06  0.0317
   1.0157E+01   1.0405E+01   9.5024E-07  0.0343
   1.0405E+01   1.0658E+01   8.5455E-07  0.0357
   1.0658E+01   1.0917E+01   7.5482E-07  0.0375
   1.0917E+01   1.1183E+01   7.5088E-07  0.0372
   1.1183E+01   1.1455E+01   6.7021E-07  0.0388
   1.1455E+01   1.1733E+01   6.2725E-07  0.0397
   1.1733E+01   1.2019E+01   6.0090E-07  0.0401
   1.2019E+01   1.2311E+01   5.0136E-07  0.0434
   1.2311E+01   1.2611E+01   5.1769E-07  0.0422
   1.2611E+01   1.2918E+01   4.7514E-07  0.0436
   1.2918E+01   1.3232E+01   4.7376E-07  0.0431
   1.3232E+01   1.3554E+01   3.8619E-07  0.0472
   1.3554E+01   1.3884E+01   3.7028E-07  0.0476
   1.3884E+01   1.4222E+01   3.1011E-07  0.0514
   1.4222E+01   1.4568E+01   3.1481E-07  0.0504
   1.4568E+01   1.4922E+01   2.8000E-07  0.0528
   1.4922E+01   1.5285E+01   2.4519E-07  0.0558
   1.5285E+01   1.5657E+01   2.2724E-07  0.0572
   1.5657E+01   1.6038E+01   2.1070E-07  0.0587
   1.6038E+01   1.6428E+01   2.0890E-07  0.0583
   1.6428E+01   1.6828E+01   1.6770E-07  0.0643
   1.6828E+01   1.7237E+01   1.7571E-07  0.0621
   1.7237E+01   1.7657E+01   1.4637E-07  0.0673
   1.7657E+01   1.8086E+01   1.2803E-07  0.0711
   1.8086E+01   1.8526E+01   1.2062E-07  0.0722
   1.8526E+01   1.8977E+01   1.0414E-07  0.0769
   1.8977E+01   1.9439E+01   8.4826E-08  0.0842
   1.9439E+01   1.9912E+01   8.4573E-08  0.0833
   1.9912E+01   2.0396E+01   7.9697E-08  0.0848
   2.0396E+01   2.0893E+01   6.9408E-08  0.0898
   2.0893E+01   2.1401E+01   4.6995E-08  0.1078
   2.1401E+01   2.1922E+01   4.9079E-08  0.1043
   2.1922E+01   2.2455E+01   4.7913E-08  0.1043
   2.2455E+01   2.3001E+01   4.1183E-08  0.1111
   2.3001E+01   2.3561E+01   2.8788E-08  0.1313
   2.3561E+01   2.4134E+01   1.8898E-08  0.1601
   2.4134E+01   2.4721E+01   2.8383E-08  0.1291
   2.4721E+01   2.5323E+01   1.8011E-08  0.1601
   2.5323E+01   2.5939E+01   1.5780E-08  0.1690
   2.5939E+01   2.6570E+01   1.1444E-08  0.1961
   2.6570E+01   2.7217E+01   9.8827E-09  0.2085
   2.7217E+01   2.7879E+01   8.3895E-09  0.2236
   2.7879E+01   2.8557E+01   5.3236E-09  0.2774
   2.8557E+01   2.9252E+01   3.1983E-09  0.3536
   2.9252E+01   2.9964E+01   5.0737E-09  0.2774
   2.9964E+01   3.0693E+01   3.8102E-09  0.3162
   3.0693E+01   3.1440E+01   7.4394E-10  0.7071
   3.1440E+01   3.2205E+01   1.8157E-09  0.4472
   3.2205E+01   3.2988E+01   3.5451E-10  1.0000
   3.2988E+01   3.3791E+01   3.4609E-10  1.0000
   3.3791E+01   3.4613E+01   3.3787E-10  1.0000
   3.4613E+01   3.5455E+01   0.0000E+00  0.0000
   3.5455E+01   3.6318E+01   3.2201E-10  1.0000
   3.6318E+01   3.7201E+01   3.1436E-10  1.0000
   3.7201E+01   3.8106E+01   3.0689E-10  1.0000
   3.8106E+01   3.9034E+01   2.9960E-10  1.0000
   3.9034E+01   3.9983E+01   0.0000E+00  0.0000
   3.9983E+01   4.0956E+01   0.0000E+00  0.0000
   4.0956E+01   4.1953E+01   0.0000E+00  0.0000
   4.1953E+01   4.2973E+01   0.0000E+00  0.0000
   4.2973E+01   4.4019E+01   0.0000E+00  0.0000
   4.4019E+01   4.5090E+01   0.0000E+00  0.0000
   4.5090E+01   4.6187E+01   0.0000E+00  0.0000
   4.6187E+01   4.7311E+01   0.0000E+00  0.0000
   4.7311E+01   4.8462E+01   0.0000E+00  0.0000
   4.8462E+01   4.9641E+01   0.0000E+00  0.0000
   4.9641E+01   5.0849E+01   0.0000E+00  0.0000
   5.0849E+01   5.2086E+01   0.0000E+00  0.0000
   5.2086E+01   5.3353E+01   0.0000E+00  0.0000
   5.3353E+01   5.4651E+01   0.0000E+00  0.0000
   5.4651E+01   5.5981E+01   0.0000E+00  0.0000
   5.5981E+01   5.7343E+01   0.0000E+00  0.0000
   5.7343E+01   5.8738E+01   0.0000E+00  0.0000
   5.8738E+01   6.0168E+01   0.0000E+00  0.0000
   6.0168E+01   6.1632E+01   0.0000E+00  0.0000
   6.1632E+01   6.3131E+01   0.0000E+00  0.0000
   6.3131E+01   6.4667E+01   0.0000E+00  0.0000
   6.4667E+01   6.6240E+01   0.0000E+00  0.0000
   6.6240E+01   6.7852E+01   0.0000E+00  0.0000
   6.7852E+01   6.9503E+01   0.0000E+00  0.0000
   6.9503E+01   7.1194E+01   0.0000E+00  0.0000
   7.1194E+01   7.2926E+01   0.0000E+00  0.0000
   7.2926E+01   7.4701E+01   0.0000E+00  0.0000
   7.4701E+01   7.6518E+01   0.0000E+00  0.0000
   7.6518E+01   7.8380E+01   0.0000E+00  0.0000
   7.8380E+01   8.0287E+01   0.0000E+00  0.0000
   8.0287E+01   8.2240E+01   0.0000E+00  0.0000
   8.2240E+01   8.4241E+01   0.0000E+00  0.0000
   8.4241E+01   8.6291E+01   0.0000E+00  0.0000
   8.6291E+01   8.8391E+01   0.0000E+00  0.0000
   8.8391E+01   9.0541E+01   0.0000E+00  0.0000
   9.0541E+01   9.2744E+01   0.0000E+00  0.0000
   9.2744E+01   9.5001E+01   0.0000E+00  0.0000
   9.5001E+01   9.7312E+01   0.0000E+00  0.0000
   9.7312E+01   9.9680E+01   0.0000E+00  0.0000
   9.9680E+01   1.0211E+02   0.0000E+00  0.0000
   1.0211E+02   1.0459E+02   0.0000E+00  0.0000
   1.0459E+02   1.0713E+02   0.0000E+00  0.0000
   1.0713E+02   1.0974E+02   0.0000E+00  0.0000
   1.0974E+02   1.1241E+02   0.0000E+00  0.0000
   1.1241E+02   1.1515E+02   0.0000E+00  0.0000
   1.1515E+02   1.1795E+02   0.0000E+00  0.0000
   1.1795E+02   1.2082E+02   0.0000E+00  0.0000
   1.2082E+02   1.2376E+02   0.0000E+00  0.0000
   1.2376E+02   1.2677E+02   0.0000E+00  0.0000
   1.2677E+02   1.2985E+02   0.0000E+00  0.0000
   1.2985E+02   1.3301E+02   0.0000E+00  0.0000
   1.3301E+02   1.3625E+02   0.0000E+00  0.0000
   1.3625E+02   1.3956E+02   0.0000E+00  0.0000
   1.3956E+02   1.4296E+02   0.0000E+00  0.0000
   1.4296E+02   1.4644E+02   0.0000E+00  0.0000
   1.4644E+02   1.5000E+02   0.0000E+00  0.0000

#   sum over                 8.0201E-07
'no. =    1   reg = 125 - 225'
msuc: {\huge [t-cross] in region mesh}
msdr: {\it plotted by \ANGEL \version}
msdl: {\it calculated by \PHITS  3.26}
wt: s(0.7)
\vspace{-3}
  region surface crossing
  area  &=&   1.0000E+00 [cm^2]
e:
 
# Information for Restart Calculation
# This calculation was newly started
# istdev =  2 # 1:Batch variance, 2:History variance
# resc2  = 3.60000000000000000E+09 # Total source weight or Total source weight / maxcas
# resc3  = 3.60000000000000000E+09 # Total history number or Total batch number
# maxcas =   100000000 # History / Batch, only used for istdev=1
# bitrseed = 1010011101100010001000010100101110111010010010111011010100011000 # bit data of rseed
