8 <--- number of remaining batches 

-------------------------------------------------------------------------------
bat[       2] ncas =     1000000000.
 bitrseed = 1101101111010011011000101101110001100110110010110001010100010001
          cpu time =   3 h. 12 m. 26.05 s.

 date = 2022-05-29
 time = 22h 46m 40s

