[ T-Cross ]
    title = [t-cross] in region mesh
     mesh =  reg            # mesh type is region-wise
      reg =    1            # number of crossing regions
      non     r-from    r-to       area
      1       109       209        1.000000    
   e-type =    3            # e-mesh is log given by emin, emax and ne
     emin =  1.0000000E-02  # minimum value of e-mesh points
     emax =   150.0000      # maximum value of e-mesh points
#    edel =  2.4039514E-02  # mesh width of e-mesh points
       ne =    400          # number of e-mesh points
#    data = ( e(i), i = 1, ne + 1 )
#           1.00000E-02  1.02433E-02  1.04925E-02  1.07478E-02  1.10093E-02
#           1.12772E-02  1.15516E-02  1.18326E-02  1.21205E-02  1.24154E-02
#           1.27175E-02  1.30269E-02  1.33439E-02  1.36686E-02  1.40011E-02
#           1.43418E-02  1.46907E-02  1.50482E-02  1.54143E-02  1.57894E-02
#           1.61735E-02  1.65670E-02  1.69701E-02  1.73830E-02  1.78060E-02
#           1.82392E-02  1.86830E-02  1.91375E-02  1.96032E-02  2.00801E-02
#           2.05687E-02  2.10692E-02  2.15818E-02  2.21069E-02  2.26448E-02
#           2.31957E-02  2.37601E-02  2.43382E-02  2.49304E-02  2.55369E-02
#           2.61583E-02  2.67947E-02  2.74467E-02  2.81145E-02  2.87985E-02
#           2.94992E-02  3.02169E-02  3.09521E-02  3.17052E-02  3.24766E-02
#           3.32668E-02  3.40762E-02  3.49053E-02  3.57546E-02  3.66246E-02
#           3.75157E-02  3.84284E-02  3.93634E-02  4.03212E-02  4.13022E-02
#           4.23071E-02  4.33365E-02  4.43909E-02  4.54710E-02  4.65773E-02
#           4.77106E-02  4.88714E-02  5.00605E-02  5.12785E-02  5.25262E-02
#           5.38042E-02  5.51133E-02  5.64542E-02  5.78278E-02  5.92348E-02
#           6.06760E-02  6.21523E-02  6.36645E-02  6.52135E-02  6.68002E-02
#           6.84255E-02  7.00904E-02  7.17957E-02  7.35426E-02  7.53319E-02
#           7.71648E-02  7.90423E-02  8.09655E-02  8.29354E-02  8.49533E-02
#           8.70203E-02  8.91376E-02  9.13064E-02  9.35279E-02  9.58035E-02
#           9.81345E-02  1.00522E-01  1.02968E-01  1.05473E-01  1.08040E-01
#           1.10668E-01  1.13361E-01  1.16119E-01  1.18944E-01  1.21838E-01
#           1.24803E-01  1.27839E-01  1.30950E-01  1.34136E-01  1.37399E-01
#           1.40742E-01  1.44167E-01  1.47675E-01  1.51268E-01  1.54948E-01
#           1.58718E-01  1.62580E-01  1.66535E-01  1.70587E-01  1.74738E-01
#           1.78989E-01  1.83344E-01  1.87805E-01  1.92375E-01  1.97055E-01
#           2.01850E-01  2.06761E-01  2.11792E-01  2.16945E-01  2.22223E-01
#           2.27630E-01  2.33169E-01  2.38842E-01  2.44653E-01  2.50605E-01
#           2.56703E-01  2.62949E-01  2.69346E-01  2.75900E-01  2.82613E-01
#           2.89489E-01  2.96532E-01  3.03747E-01  3.11138E-01  3.18708E-01
#           3.26462E-01  3.34405E-01  3.42542E-01  3.50876E-01  3.59413E-01
#           3.68158E-01  3.77116E-01  3.86291E-01  3.95690E-01  4.05317E-01
#           4.15179E-01  4.25281E-01  4.35628E-01  4.46227E-01  4.57084E-01
#           4.68205E-01  4.79597E-01  4.91266E-01  5.03219E-01  5.15463E-01
#           5.28005E-01  5.40851E-01  5.54011E-01  5.67490E-01  5.81298E-01
#           5.95441E-01  6.09929E-01  6.24769E-01  6.39970E-01  6.55541E-01
#           6.71491E-01  6.87828E-01  7.04564E-01  7.21706E-01  7.39266E-01
#           7.57253E-01  7.75678E-01  7.94551E-01  8.13883E-01  8.33685E-01
#           8.53969E-01  8.74747E-01  8.96030E-01  9.17831E-01  9.40163E-01
#           9.63038E-01  9.86469E-01  1.01047E+00  1.03506E+00  1.06024E+00
#           1.08604E+00  1.11246E+00  1.13953E+00  1.16725E+00  1.19565E+00
#           1.22474E+00  1.25454E+00  1.28507E+00  1.31633E+00  1.34836E+00
#           1.38117E+00  1.41477E+00  1.44920E+00  1.48446E+00  1.52057E+00
#           1.55757E+00  1.59547E+00  1.63429E+00  1.67405E+00  1.71478E+00
#           1.75650E+00  1.79924E+00  1.84302E+00  1.88786E+00  1.93379E+00
#           1.98084E+00  2.02904E+00  2.07841E+00  2.12898E+00  2.18078E+00
#           2.23384E+00  2.28819E+00  2.34386E+00  2.40089E+00  2.45930E+00
#           2.51914E+00  2.58043E+00  2.64322E+00  2.70753E+00  2.77341E+00
#           2.84088E+00  2.91001E+00  2.98081E+00  3.05333E+00  3.12762E+00
#           3.20372E+00  3.28167E+00  3.36152E+00  3.44330E+00  3.52708E+00
#           3.61290E+00  3.70080E+00  3.79085E+00  3.88308E+00  3.97756E+00
#           4.07434E+00  4.17347E+00  4.27501E+00  4.37903E+00  4.48557E+00
#           4.59471E+00  4.70650E+00  4.82102E+00  4.93832E+00  5.05847E+00
#           5.18155E+00  5.30762E+00  5.43676E+00  5.56904E+00  5.70453E+00
#           5.84333E+00  5.98550E+00  6.13114E+00  6.28031E+00  6.43312E+00
#           6.58964E+00  6.74997E+00  6.91420E+00  7.08243E+00  7.25475E+00
#           7.43126E+00  7.61207E+00  7.79728E+00  7.98700E+00  8.18133E+00
#           8.38038E+00  8.58428E+00  8.79315E+00  9.00709E+00  9.22624E+00
#           9.45072E+00  9.68067E+00  9.91620E+00  1.01575E+01  1.04046E+01
#           1.06578E+01  1.09171E+01  1.11827E+01  1.14548E+01  1.17335E+01
#           1.20190E+01  1.23114E+01  1.26109E+01  1.29178E+01  1.32321E+01
#           1.35540E+01  1.38838E+01  1.42216E+01  1.45676E+01  1.49221E+01
#           1.52851E+01  1.56570E+01  1.60380E+01  1.64282E+01  1.68279E+01
#           1.72374E+01  1.76568E+01  1.80864E+01  1.85264E+01  1.89772E+01
#           1.94389E+01  1.99119E+01  2.03963E+01  2.08926E+01  2.14009E+01
#           2.19216E+01  2.24550E+01  2.30014E+01  2.35610E+01  2.41343E+01
#           2.47215E+01  2.53230E+01  2.59391E+01  2.65702E+01  2.72167E+01
#           2.78789E+01  2.85572E+01  2.92520E+01  2.99637E+01  3.06928E+01
#           3.14396E+01  3.22045E+01  3.29881E+01  3.37907E+01  3.46128E+01
#           3.54550E+01  3.63177E+01  3.72013E+01  3.81064E+01  3.90336E+01
#           3.99833E+01  4.09561E+01  4.19526E+01  4.29734E+01  4.40189E+01
#           4.50900E+01  4.61870E+01  4.73108E+01  4.84619E+01  4.96410E+01
#           5.08488E+01  5.20860E+01  5.33533E+01  5.46514E+01  5.59812E+01
#           5.73432E+01  5.87384E+01  6.01676E+01  6.16315E+01  6.31311E+01
#           6.46671E+01  6.62405E+01  6.78522E+01  6.95031E+01  7.11941E+01
#           7.29263E+01  7.47007E+01  7.65182E+01  7.83800E+01  8.02870E+01
#           8.22405E+01  8.42414E+01  8.62911E+01  8.83906E+01  9.05412E+01
#           9.27442E+01  9.50007E+01  9.73122E+01  9.96799E+01  1.02105E+02
#           1.04589E+02  1.07134E+02  1.09741E+02  1.12411E+02  1.15146E+02
#           1.17948E+02  1.20817E+02  1.23757E+02  1.26768E+02  1.29852E+02
#           1.33012E+02  1.36248E+02  1.39563E+02  1.42959E+02  1.46437E+02
#           1.50000E+02
     unit =    2            # unit is [1/cm^2/(MeV/n)/source]
     axis =  eng            # axis of output
     file = detector-10.out  # file name of output for the above axis
   output = f-curr          # surface crossing forward current spectrum
     part =  neutron  
# kf/name :  2112     
#    used :        main (  %)        temp (  %)       total (  %)
#  memory :         414 (  0)           0 (  0)         414 (  0)

#------------------------------------------------------------------------------
#newpage:
#   no. =    1   reg = 109 - 209

x: Energy [MeV/n]
y:  F-Curr [1/cm^2/(MeV/n)/source]         
p: xlog ylog afac(0.8) form(0.9)
h: n            x            y(neutron ),hh0l   n 
#  e-lower      e-upper      neutron     r.err 
   1.0000E-02   1.0243E-02   8.6721E-04  0.0688
   1.0243E-02   1.0493E-02   9.4291E-04  0.0652
   1.0493E-02   1.0748E-02   8.5980E-04  0.0675
   1.0748E-02   1.1009E-02   8.5850E-04  0.0667
   1.1009E-02   1.1277E-02   8.4744E-04  0.0664
   1.1277E-02   1.1552E-02   7.9934E-04  0.0675
   1.1552E-02   1.1833E-02   7.9581E-04  0.0668
   1.1833E-02   1.2121E-02   8.8573E-04  0.0626
   1.2121E-02   1.2415E-02   8.2739E-04  0.0640
   1.2415E-02   1.2718E-02   8.1211E-04  0.0638
   1.2718E-02   1.3027E-02   8.0794E-04  0.0632
   1.3027E-02   1.3344E-02   8.7078E-04  0.0602
   1.3344E-02   1.3669E-02   8.5974E-04  0.0598
   1.3669E-02   1.4001E-02   9.6721E-04  0.0557
   1.4001E-02   1.4342E-02   8.5908E-04  0.0584
   1.4342E-02   1.4691E-02   8.3491E-04  0.0586
   1.4691E-02   1.5048E-02   8.7848E-04  0.0564
   1.5048E-02   1.5414E-02   7.1558E-04  0.0618
   1.5414E-02   1.5789E-02   8.5097E-04  0.0560
   1.5789E-02   1.6174E-02   8.1774E-04  0.0564
   1.6174E-02   1.6567E-02   7.5634E-04  0.0579
   1.6567E-02   1.6970E-02   8.4597E-04  0.0542
   1.6970E-02   1.7383E-02   7.5757E-04  0.0565
   1.7383E-02   1.7806E-02   8.4409E-04  0.0529
   1.7806E-02   1.8239E-02   7.8133E-04  0.0543
   1.8239E-02   1.8683E-02   8.3523E-04  0.0519
   1.8683E-02   1.9138E-02   7.9790E-04  0.0525
   1.9138E-02   1.9603E-02   8.3616E-04  0.0507
   1.9603E-02   2.0080E-02   8.2921E-04  0.0503
   2.0080E-02   2.0569E-02   7.6583E-04  0.0517
   2.0569E-02   2.1069E-02   8.0227E-04  0.0499
   2.1069E-02   2.1582E-02   7.8224E-04  0.0499
   2.1582E-02   2.2107E-02   8.2117E-04  0.0481
   2.2107E-02   2.2645E-02   8.4256E-04  0.0469
   2.2645E-02   2.3196E-02   7.8013E-04  0.0482
   2.3196E-02   2.3760E-02   7.6133E-04  0.0482
   2.3760E-02   2.4338E-02   7.6572E-04  0.0475
   2.4338E-02   2.4930E-02   7.7390E-04  0.0467
   2.4930E-02   2.5537E-02   7.2509E-04  0.0477
   2.5537E-02   2.6158E-02   7.7626E-04  0.0455
   2.6158E-02   2.6795E-02   8.0155E-04  0.0443
   2.6795E-02   2.7447E-02   7.9609E-04  0.0439
   2.7447E-02   2.8114E-02   7.2367E-04  0.0455
   2.8114E-02   2.8799E-02   7.0246E-04  0.0456
   2.8799E-02   2.9499E-02   7.8264E-04  0.0427
   2.9499E-02   3.0217E-02   6.8516E-04  0.0450
   3.0217E-02   3.0952E-02   7.3471E-04  0.0430
   3.0952E-02   3.1705E-02   7.3073E-04  0.0426
   3.1705E-02   3.2477E-02   7.4199E-04  0.0418
   3.2477E-02   3.3267E-02   6.7878E-04  0.0431
   3.3267E-02   3.4076E-02   7.6649E-04  0.0401
   3.4076E-02   3.4905E-02   7.1054E-04  0.0412
   3.4905E-02   3.5755E-02   7.2789E-04  0.0402
   3.5755E-02   3.6625E-02   7.0696E-04  0.0403
   3.6625E-02   3.7516E-02   6.9624E-04  0.0401
   3.7516E-02   3.8428E-02   6.7611E-04  0.0402
   3.8428E-02   3.9363E-02   6.8906E-04  0.0394
   3.9363E-02   4.0321E-02   7.2298E-04  0.0380
   4.0321E-02   4.1302E-02   7.0059E-04  0.0381
   4.1302E-02   4.2307E-02   7.5564E-04  0.0363
   4.2307E-02   4.3337E-02   6.8318E-04  0.0377
   4.3337E-02   4.4391E-02   6.6696E-04  0.0377
   4.4391E-02   4.5471E-02   7.0810E-04  0.0361
   4.5471E-02   4.6577E-02   6.7797E-04  0.0365
   4.6577E-02   4.7711E-02   6.8923E-04  0.0358
   4.7711E-02   4.8871E-02   6.2564E-04  0.0371
   4.8871E-02   5.0061E-02   6.6298E-04  0.0356
   5.0061E-02   5.1279E-02   6.4186E-04  0.0357
   5.1279E-02   5.2526E-02   6.7722E-04  0.0344
   5.2526E-02   5.3804E-02   6.4551E-04  0.0348
   5.3804E-02   5.5113E-02   6.5616E-04  0.0341
   5.5113E-02   5.6454E-02   6.3080E-04  0.0344
   5.6454E-02   5.7828E-02   6.5135E-04  0.0334
   5.7828E-02   5.9235E-02   6.3079E-04  0.0335
   5.9235E-02   6.0676E-02   6.5894E-04  0.0324
   6.0676E-02   6.2152E-02   5.8839E-04  0.0339
   6.2152E-02   6.3665E-02   6.0019E-04  0.0332
   6.3665E-02   6.5214E-02   5.9702E-04  0.0329
   6.5214E-02   6.6800E-02   6.2341E-04  0.0318
   6.6800E-02   6.8426E-02   6.1790E-04  0.0315
   6.8426E-02   7.0090E-02   6.0693E-04  0.0314
   7.0090E-02   7.1796E-02   6.0544E-04  0.0311
   7.1796E-02   7.3543E-02   5.7544E-04  0.0315
   7.3543E-02   7.5332E-02   5.8825E-04  0.0308
   7.5332E-02   7.7165E-02   5.6166E-04  0.0311
   7.7165E-02   7.9042E-02   5.7296E-04  0.0305
   7.9042E-02   8.0965E-02   5.7728E-04  0.0300
   8.0965E-02   8.2935E-02   5.5507E-04  0.0302
   8.2935E-02   8.4953E-02   5.4876E-04  0.0300
   8.4953E-02   8.7020E-02   5.6546E-04  0.0292
   8.7020E-02   8.9138E-02   5.2801E-04  0.0299
   8.9138E-02   9.1306E-02   5.5291E-04  0.0289
   9.1306E-02   9.3528E-02   5.3666E-04  0.0289
   9.3528E-02   9.5804E-02   5.3523E-04  0.0286
   9.5804E-02   9.8134E-02   5.1791E-04  0.0288
   9.8134E-02   1.0052E-01   5.1336E-04  0.0285
   1.0052E-01   1.0297E-01   4.9349E-04  0.0288
   1.0297E-01   1.0547E-01   4.9432E-04  0.0284
   1.0547E-01   1.0804E-01   4.9180E-04  0.0281
   1.0804E-01   1.1067E-01   4.8505E-04  0.0280
   1.1067E-01   1.1336E-01   4.7258E-04  0.0280
   1.1336E-01   1.1612E-01   4.7945E-04  0.0275
   1.1612E-01   1.1894E-01   4.6376E-04  0.0276
   1.1894E-01   1.2184E-01   4.6185E-04  0.0273
   1.2184E-01   1.2480E-01   4.5221E-04  0.0273
   1.2480E-01   1.2784E-01   4.5708E-04  0.0268
   1.2784E-01   1.3095E-01   4.5029E-04  0.0267
   1.3095E-01   1.3414E-01   4.5557E-04  0.0262
   1.3414E-01   1.3740E-01   3.8850E-04  0.0281
   1.3740E-01   1.4074E-01   4.2794E-04  0.0264
   1.4074E-01   1.4417E-01   4.1338E-04  0.0266
   1.4417E-01   1.4767E-01   4.0012E-04  0.0267
   1.4767E-01   1.5127E-01   3.8245E-04  0.0270
   1.5127E-01   1.5495E-01   3.8701E-04  0.0265
   1.5495E-01   1.5872E-01   3.9541E-04  0.0259
   1.5872E-01   1.6258E-01   3.4342E-04  0.0274
   1.6258E-01   1.6654E-01   3.6649E-04  0.0262
   1.6654E-01   1.7059E-01   3.7162E-04  0.0258
   1.7059E-01   1.7474E-01   3.4117E-04  0.0266
   1.7474E-01   1.7899E-01   3.4844E-04  0.0260
   1.7899E-01   1.8334E-01   3.4252E-04  0.0259
   1.8334E-01   1.8781E-01   3.3115E-04  0.0260
   1.8781E-01   1.9237E-01   3.1817E-04  0.0262
   1.9237E-01   1.9706E-01   3.0992E-04  0.0262
   1.9706E-01   2.0185E-01   3.1843E-04  0.0256
   2.0185E-01   2.0676E-01   3.0547E-04  0.0258
   2.0676E-01   2.1179E-01   3.0957E-04  0.0253
   2.1179E-01   2.1694E-01   3.2022E-04  0.0246
   2.1694E-01   2.2222E-01   3.3377E-04  0.0238
   2.2222E-01   2.2763E-01   3.3622E-04  0.0234
   2.2763E-01   2.3317E-01   3.4981E-04  0.0227
   2.3317E-01   2.3884E-01   3.4186E-04  0.0227
   2.3884E-01   2.4465E-01   3.5659E-04  0.0219
   2.4465E-01   2.5061E-01   3.6120E-04  0.0215
   2.5061E-01   2.5670E-01   3.6011E-04  0.0213
   2.5670E-01   2.6295E-01   3.8102E-04  0.0205
   2.6295E-01   2.6935E-01   3.7076E-04  0.0205
   2.6935E-01   2.7590E-01   3.7719E-04  0.0201
   2.7590E-01   2.8261E-01   3.9229E-04  0.0195
   2.8261E-01   2.8949E-01   3.9679E-04  0.0191
   2.8949E-01   2.9653E-01   3.9371E-04  0.0190
   2.9653E-01   3.0375E-01   3.8722E-04  0.0189
   3.0375E-01   3.1114E-01   4.1083E-04  0.0181
   3.1114E-01   3.1871E-01   4.2642E-04  0.0176
   3.1871E-01   3.2646E-01   4.0901E-04  0.0177
   3.2646E-01   3.3441E-01   4.1402E-04  0.0174
   3.3441E-01   3.4254E-01   4.2229E-04  0.0170
   3.4254E-01   3.5088E-01   4.3882E-04  0.0165
   3.5088E-01   3.5941E-01   4.4581E-04  0.0162
   3.5941E-01   3.6816E-01   4.4337E-04  0.0160
   3.6816E-01   3.7712E-01   4.5574E-04  0.0156
   3.7712E-01   3.8629E-01   4.6591E-04  0.0153
   3.8629E-01   3.9569E-01   4.5914E-04  0.0152
   3.9569E-01   4.0532E-01   4.5294E-04  0.0151
   4.0532E-01   4.1518E-01   4.4795E-04  0.0150
   4.1518E-01   4.2528E-01   4.6425E-04  0.0146
   4.2528E-01   4.3563E-01   4.6378E-04  0.0144
   4.3563E-01   4.4623E-01   4.8065E-04  0.0140
   4.4623E-01   4.5708E-01   4.8330E-04  0.0138
   4.5708E-01   4.6821E-01   4.8406E-04  0.0136
   4.6821E-01   4.7960E-01   4.9345E-04  0.0133
   4.7960E-01   4.9127E-01   5.0192E-04  0.0131
   4.9127E-01   5.0322E-01   5.0324E-04  0.0129
   5.0322E-01   5.1546E-01   5.0912E-04  0.0127
   5.1546E-01   5.2800E-01   5.1150E-04  0.0125
   5.2800E-01   5.4085E-01   5.0216E-04  0.0124
   5.4085E-01   5.5401E-01   5.1708E-04  0.0121
   5.5401E-01   5.6749E-01   5.1757E-04  0.0120
   5.6749E-01   5.8130E-01   5.2595E-04  0.0117
   5.8130E-01   5.9544E-01   5.1957E-04  0.0117
   5.9544E-01   6.0993E-01   5.3851E-04  0.0113
   6.0993E-01   6.2477E-01   5.3196E-04  0.0112
   6.2477E-01   6.3997E-01   5.2665E-04  0.0112
   6.3997E-01   6.5554E-01   5.3886E-04  0.0109
   6.5554E-01   6.7149E-01   5.4380E-04  0.0107
   6.7149E-01   6.8783E-01   5.4592E-04  0.0106
   6.8783E-01   7.0456E-01   5.3380E-04  0.0106
   7.0456E-01   7.2171E-01   5.4529E-04  0.0103
   7.2171E-01   7.3927E-01   5.3927E-04  0.0103
   7.3927E-01   7.5725E-01   5.4698E-04  0.0101
   7.5725E-01   7.7568E-01   5.6352E-04  0.0098
   7.7568E-01   7.9455E-01   5.4518E-04  0.0098
   7.9455E-01   8.1388E-01   5.4596E-04  0.0097
   8.1388E-01   8.3368E-01   5.5151E-04  0.0096
   8.3368E-01   8.5397E-01   5.4644E-04  0.0095
   8.5397E-01   8.7475E-01   5.5118E-04  0.0093
   8.7475E-01   8.9603E-01   5.4628E-04  0.0093
   8.9603E-01   9.1783E-01   5.3345E-04  0.0093
   9.1783E-01   9.4016E-01   5.3746E-04  0.0091
   9.4016E-01   9.6304E-01   5.3518E-04  0.0090
   9.6304E-01   9.8647E-01   5.2165E-04  0.0090
   9.8647E-01   1.0105E+00   5.1358E-04  0.0090
   1.0105E+00   1.0351E+00   5.1508E-04  0.0089
   1.0351E+00   1.0602E+00   5.0412E-04  0.0089
   1.0602E+00   1.0860E+00   5.0958E-04  0.0087
   1.0860E+00   1.1125E+00   5.1559E-04  0.0086
   1.1125E+00   1.1395E+00   5.1567E-04  0.0085
   1.1395E+00   1.1673E+00   5.1778E-04  0.0083
   1.1673E+00   1.1957E+00   5.2903E-04  0.0081
   1.1957E+00   1.2247E+00   5.2293E-04  0.0081
   1.2247E+00   1.2545E+00   5.2324E-04  0.0080
   1.2545E+00   1.2851E+00   5.2736E-04  0.0079
   1.2851E+00   1.3163E+00   5.2186E-04  0.0078
   1.3163E+00   1.3484E+00   5.2094E-04  0.0077
   1.3484E+00   1.3812E+00   5.1857E-04  0.0077
   1.3812E+00   1.4148E+00   5.1718E-04  0.0076
   1.4148E+00   1.4492E+00   5.2580E-04  0.0074
   1.4492E+00   1.4845E+00   5.1782E-04  0.0074
   1.4845E+00   1.5206E+00   5.1554E-04  0.0073
   1.5206E+00   1.5576E+00   5.1355E-04  0.0072
   1.5576E+00   1.5955E+00   5.1375E-04  0.0072
   1.5955E+00   1.6343E+00   5.0382E-04  0.0071
   1.6343E+00   1.6741E+00   5.0769E-04  0.0070
   1.6741E+00   1.7148E+00   5.0856E-04  0.0069
   1.7148E+00   1.7565E+00   5.1271E-04  0.0068
   1.7565E+00   1.7992E+00   5.0401E-04  0.0068
   1.7992E+00   1.8430E+00   4.9668E-04  0.0068
   1.8430E+00   1.8879E+00   4.9526E-04  0.0067
   1.8879E+00   1.9338E+00   4.9595E-04  0.0066
   1.9338E+00   1.9808E+00   4.7810E-04  0.0067
   1.9808E+00   2.0290E+00   4.7797E-04  0.0066
   2.0290E+00   2.0784E+00   4.7294E-04  0.0065
   2.0784E+00   2.1290E+00   4.6957E-04  0.0065
   2.1290E+00   2.1808E+00   4.6859E-04  0.0064
   2.1808E+00   2.2338E+00   4.5983E-04  0.0064
   2.2338E+00   2.2882E+00   4.5556E-04  0.0063
   2.2882E+00   2.3439E+00   4.4819E-04  0.0063
   2.3439E+00   2.4009E+00   4.5155E-04  0.0062
   2.4009E+00   2.4593E+00   4.4317E-04  0.0062
   2.4593E+00   2.5191E+00   4.4016E-04  0.0062
   2.5191E+00   2.5804E+00   4.3245E-04  0.0061
   2.5804E+00   2.6432E+00   4.2549E-04  0.0061
   2.6432E+00   2.7075E+00   4.1896E-04  0.0061
   2.7075E+00   2.7734E+00   4.1734E-04  0.0060
   2.7734E+00   2.8409E+00   4.1084E-04  0.0060
   2.8409E+00   2.9100E+00   4.1296E-04  0.0059
   2.9100E+00   2.9808E+00   4.0951E-04  0.0059
   2.9808E+00   3.0533E+00   4.0539E-04  0.0058
   3.0533E+00   3.1276E+00   3.9765E-04  0.0058
   3.1276E+00   3.2037E+00   3.8962E-04  0.0058
   3.2037E+00   3.2817E+00   3.8761E-04  0.0057
   3.2817E+00   3.3615E+00   3.8425E-04  0.0057
   3.3615E+00   3.4433E+00   3.8263E-04  0.0056
   3.4433E+00   3.5271E+00   3.7624E-04  0.0056
   3.5271E+00   3.6129E+00   3.7248E-04  0.0056
   3.6129E+00   3.7008E+00   3.6965E-04  0.0055
   3.7008E+00   3.7908E+00   3.6492E-04  0.0055
   3.7908E+00   3.8831E+00   3.5701E-04  0.0055
   3.8831E+00   3.9776E+00   3.5629E-04  0.0054
   3.9776E+00   4.0743E+00   3.5110E-04  0.0054
   4.0743E+00   4.1735E+00   3.4635E-04  0.0054
   4.1735E+00   4.2750E+00   3.4127E-04  0.0054
   4.2750E+00   4.3790E+00   3.3643E-04  0.0053
   4.3790E+00   4.4856E+00   3.3445E-04  0.0053
   4.4856E+00   4.5947E+00   3.3317E-04  0.0052
   4.5947E+00   4.7065E+00   3.3690E-04  0.0051
   4.7065E+00   4.8210E+00   3.3470E-04  0.0051
   4.8210E+00   4.9383E+00   3.2931E-04  0.0051
   4.9383E+00   5.0585E+00   3.2590E-04  0.0050
   5.0585E+00   5.1815E+00   3.2517E-04  0.0050
   5.1815E+00   5.3076E+00   3.2266E-04  0.0050
   5.3076E+00   5.4368E+00   3.1759E-04  0.0049
   5.4368E+00   5.5690E+00   3.1307E-04  0.0049
   5.5690E+00   5.7045E+00   3.0763E-04  0.0049
   5.7045E+00   5.8433E+00   3.0434E-04  0.0049
   5.8433E+00   5.9855E+00   2.9911E-04  0.0048
   5.9855E+00   6.1311E+00   2.9479E-04  0.0048
   6.1311E+00   6.2803E+00   2.8957E-04  0.0048
   6.2803E+00   6.4331E+00   2.8754E-04  0.0048
   6.4331E+00   6.5896E+00   2.8080E-04  0.0048
   6.5896E+00   6.7500E+00   2.7568E-04  0.0048
   6.7500E+00   6.9142E+00   2.7200E-04  0.0047
   6.9142E+00   7.0824E+00   2.7085E-04  0.0047
   7.0824E+00   7.2548E+00   2.6732E-04  0.0047
   7.2548E+00   7.4313E+00   2.6189E-04  0.0046
   7.4313E+00   7.6121E+00   2.5858E-04  0.0046
   7.6121E+00   7.7973E+00   2.5351E-04  0.0046
   7.7973E+00   7.9870E+00   2.4769E-04  0.0046
   7.9870E+00   8.1813E+00   2.4475E-04  0.0046
   8.1813E+00   8.3804E+00   2.4175E-04  0.0046
   8.3804E+00   8.5843E+00   2.3744E-04  0.0045
   8.5843E+00   8.7931E+00   2.3210E-04  0.0045
   8.7931E+00   9.0071E+00   2.2683E-04  0.0045
   9.0071E+00   9.2262E+00   2.2274E-04  0.0045
   9.2262E+00   9.4507E+00   2.2025E-04  0.0045
   9.4507E+00   9.6807E+00   2.1633E-04  0.0045
   9.6807E+00   9.9162E+00   2.1041E-04  0.0045
   9.9162E+00   1.0157E+01   2.0608E-04  0.0045
   1.0157E+01   1.0405E+01   2.0438E-04  0.0044
   1.0405E+01   1.0658E+01   2.0239E-04  0.0044
   1.0658E+01   1.0917E+01   1.9808E-04  0.0044
   1.0917E+01   1.1183E+01   1.9371E-04  0.0044
   1.1183E+01   1.1455E+01   1.9197E-04  0.0044
   1.1455E+01   1.1733E+01   1.8682E-04  0.0044
   1.1733E+01   1.2019E+01   1.8340E-04  0.0044
   1.2019E+01   1.2311E+01   1.7926E-04  0.0044
   1.2311E+01   1.2611E+01   1.7542E-04  0.0044
   1.2611E+01   1.2918E+01   1.7220E-04  0.0044
   1.2918E+01   1.3232E+01   1.7019E-04  0.0043
   1.3232E+01   1.3554E+01   1.6475E-04  0.0043
   1.3554E+01   1.3884E+01   1.6122E-04  0.0043
   1.3884E+01   1.4222E+01   1.5701E-04  0.0043
   1.4222E+01   1.4568E+01   1.5269E-04  0.0044
   1.4568E+01   1.4922E+01   1.4973E-04  0.0043
   1.4922E+01   1.5285E+01   1.4492E-04  0.0044
   1.5285E+01   1.5657E+01   1.4200E-04  0.0044
   1.5657E+01   1.6038E+01   1.3841E-04  0.0044
   1.6038E+01   1.6428E+01   1.3515E-04  0.0044
   1.6428E+01   1.6828E+01   1.3000E-04  0.0044
   1.6828E+01   1.7237E+01   1.2660E-04  0.0044
   1.7237E+01   1.7657E+01   1.2161E-04  0.0044
   1.7657E+01   1.8086E+01   1.1823E-04  0.0044
   1.8086E+01   1.8526E+01   1.1420E-04  0.0045
   1.8526E+01   1.8977E+01   1.1061E-04  0.0045
   1.8977E+01   1.9439E+01   1.0660E-04  0.0045
   1.9439E+01   1.9912E+01   1.0366E-04  0.0045
   1.9912E+01   2.0396E+01   1.0058E-04  0.0045
   2.0396E+01   2.0893E+01   9.6720E-05  0.0046
   2.0893E+01   2.1401E+01   9.2894E-05  0.0046
   2.1401E+01   2.1922E+01   8.8317E-05  0.0047
   2.1922E+01   2.2455E+01   8.4635E-05  0.0047
   2.2455E+01   2.3001E+01   8.0778E-05  0.0048
   2.3001E+01   2.3561E+01   7.7058E-05  0.0048
   2.3561E+01   2.4134E+01   7.3056E-05  0.0049
   2.4134E+01   2.4721E+01   6.9603E-05  0.0049
   2.4721E+01   2.5323E+01   6.6051E-05  0.0050
   2.5323E+01   2.5939E+01   6.1817E-05  0.0051
   2.5939E+01   2.6570E+01   5.8377E-05  0.0052
   2.6570E+01   2.7217E+01   5.5141E-05  0.0053
   2.7217E+01   2.7879E+01   5.2306E-05  0.0054
   2.7879E+01   2.8557E+01   4.9487E-05  0.0055
   2.8557E+01   2.9252E+01   4.5508E-05  0.0056
   2.9252E+01   2.9964E+01   4.2987E-05  0.0057
   2.9964E+01   3.0693E+01   4.0519E-05  0.0058
   3.0693E+01   3.1440E+01   3.7493E-05  0.0060
   3.1440E+01   3.2205E+01   3.4981E-05  0.0061
   3.2205E+01   3.2988E+01   3.2602E-05  0.0063
   3.2988E+01   3.3791E+01   3.0282E-05  0.0064
   3.3791E+01   3.4613E+01   2.7692E-05  0.0066
   3.4613E+01   3.5455E+01   2.6196E-05  0.0067
   3.5455E+01   3.6318E+01   2.3886E-05  0.0070
   3.6318E+01   3.7201E+01   2.1743E-05  0.0072
   3.7201E+01   3.8106E+01   2.0281E-05  0.0074
   3.8106E+01   3.9034E+01   1.8342E-05  0.0077
   3.9034E+01   3.9983E+01   1.7364E-05  0.0078
   3.9983E+01   4.0956E+01   1.5723E-05  0.0081
   4.0956E+01   4.1953E+01   1.4665E-05  0.0083
   4.1953E+01   4.2973E+01   1.3243E-05  0.0086
   4.2973E+01   4.4019E+01   1.2148E-05  0.0089
   4.4019E+01   4.5090E+01   1.1042E-05  0.0092
   4.5090E+01   4.6187E+01   1.0250E-05  0.0094
   4.6187E+01   4.7311E+01   9.2403E-06  0.0098
   4.7311E+01   4.8462E+01   8.5118E-06  0.0101
   4.8462E+01   4.9641E+01   7.5361E-06  0.0106
   4.9641E+01   5.0849E+01   6.9779E-06  0.0109
   5.0849E+01   5.2086E+01   6.2989E-06  0.0113
   5.2086E+01   5.3353E+01   5.8076E-06  0.0117
   5.3353E+01   5.4651E+01   5.0858E-06  0.0123
   5.4651E+01   5.5981E+01   4.6063E-06  0.0128
   5.5981E+01   5.7343E+01   4.2215E-06  0.0132
   5.7343E+01   5.8738E+01   3.9722E-06  0.0134
   5.8738E+01   6.0168E+01   3.5182E-06  0.0141
   6.0168E+01   6.1632E+01   3.2228E-06  0.0146
   6.1632E+01   6.3131E+01   2.8982E-06  0.0152
   6.3131E+01   6.4667E+01   2.5566E-06  0.0160
   6.4667E+01   6.6240E+01   2.4622E-06  0.0161
   6.6240E+01   6.7852E+01   2.2387E-06  0.0166
   6.7852E+01   6.9503E+01   2.0371E-06  0.0172
   6.9503E+01   7.1194E+01   1.7918E-06  0.0182
   7.1194E+01   7.2926E+01   1.5096E-06  0.0196
   7.2926E+01   7.4701E+01   1.2681E-06  0.0211
   7.4701E+01   7.6518E+01   1.0030E-06  0.0234
   7.6518E+01   7.8380E+01   8.0569E-07  0.0258
   7.8380E+01   8.0287E+01   5.9201E-07  0.0298
   8.0287E+01   8.2240E+01   3.2404E-07  0.0397
   8.2240E+01   8.4241E+01   1.3443E-07  0.0610
   8.4241E+01   8.6291E+01   2.9761E-08  0.1280
   8.6291E+01   8.8391E+01   4.7630E-10  1.0000
   8.8391E+01   9.0541E+01   0.0000E+00  0.0000
   9.0541E+01   9.2744E+01   0.0000E+00  0.0000
   9.2744E+01   9.5001E+01   0.0000E+00  0.0000
   9.5001E+01   9.7312E+01   0.0000E+00  0.0000
   9.7312E+01   9.9680E+01   0.0000E+00  0.0000
   9.9680E+01   1.0211E+02   0.0000E+00  0.0000
   1.0211E+02   1.0459E+02   0.0000E+00  0.0000
   1.0459E+02   1.0713E+02   0.0000E+00  0.0000
   1.0713E+02   1.0974E+02   0.0000E+00  0.0000
   1.0974E+02   1.1241E+02   0.0000E+00  0.0000
   1.1241E+02   1.1515E+02   0.0000E+00  0.0000
   1.1515E+02   1.1795E+02   0.0000E+00  0.0000
   1.1795E+02   1.2082E+02   0.0000E+00  0.0000
   1.2082E+02   1.2376E+02   0.0000E+00  0.0000
   1.2376E+02   1.2677E+02   0.0000E+00  0.0000
   1.2677E+02   1.2985E+02   0.0000E+00  0.0000
   1.2985E+02   1.3301E+02   0.0000E+00  0.0000
   1.3301E+02   1.3625E+02   0.0000E+00  0.0000
   1.3625E+02   1.3956E+02   0.0000E+00  0.0000
   1.3956E+02   1.4296E+02   0.0000E+00  0.0000
   1.4296E+02   1.4644E+02   0.0000E+00  0.0000
   1.4644E+02   1.5000E+02   0.0000E+00  0.0000

#   sum over                 4.0677E-05
'no. =    1   reg = 109 - 209'
msuc: {\huge [t-cross] in region mesh}
msdr: {\it plotted by \ANGEL \version}
msdl: {\it calculated by \PHITS  3.26}
wt: s(0.7)
\vspace{-3}
  region surface crossing
  area  &=&   1.0000E+00 [cm^2]
e:
 
# Information for Restart Calculation
# This calculation was newly started
# istdev =  2 # 1:Batch variance, 2:History variance
# resc2  = 1.00000000000000000E+09 # Total source weight or Total source weight / maxcas
# resc3  = 1.00000000000000000E+09 # Total history number or Total batch number
# maxcas =   500000000 # History / Batch, only used for istdev=1
# bitrseed = 0001001110011001001001110000100100110111001111011100001000101100 # bit data of rseed
