[ T-Cross ]
    title = [t-cross] in region mesh
     mesh =  reg            # mesh type is region-wise
      reg =    1            # number of crossing regions
      non     r-from    r-to       area
      1       114       214        1.000000    
   e-type =    3            # e-mesh is log given by emin, emax and ne
     emin =  1.0000000E-02  # minimum value of e-mesh points
     emax =   150.0000      # maximum value of e-mesh points
#    edel =  2.4039514E-02  # mesh width of e-mesh points
       ne =    400          # number of e-mesh points
#    data = ( e(i), i = 1, ne + 1 )
#           1.00000E-02  1.02433E-02  1.04925E-02  1.07478E-02  1.10093E-02
#           1.12772E-02  1.15516E-02  1.18326E-02  1.21205E-02  1.24154E-02
#           1.27175E-02  1.30269E-02  1.33439E-02  1.36686E-02  1.40011E-02
#           1.43418E-02  1.46907E-02  1.50482E-02  1.54143E-02  1.57894E-02
#           1.61735E-02  1.65670E-02  1.69701E-02  1.73830E-02  1.78060E-02
#           1.82392E-02  1.86830E-02  1.91375E-02  1.96032E-02  2.00801E-02
#           2.05687E-02  2.10692E-02  2.15818E-02  2.21069E-02  2.26448E-02
#           2.31957E-02  2.37601E-02  2.43382E-02  2.49304E-02  2.55369E-02
#           2.61583E-02  2.67947E-02  2.74467E-02  2.81145E-02  2.87985E-02
#           2.94992E-02  3.02169E-02  3.09521E-02  3.17052E-02  3.24766E-02
#           3.32668E-02  3.40762E-02  3.49053E-02  3.57546E-02  3.66246E-02
#           3.75157E-02  3.84284E-02  3.93634E-02  4.03212E-02  4.13022E-02
#           4.23071E-02  4.33365E-02  4.43909E-02  4.54710E-02  4.65773E-02
#           4.77106E-02  4.88714E-02  5.00605E-02  5.12785E-02  5.25262E-02
#           5.38042E-02  5.51133E-02  5.64542E-02  5.78278E-02  5.92348E-02
#           6.06760E-02  6.21523E-02  6.36645E-02  6.52135E-02  6.68002E-02
#           6.84255E-02  7.00904E-02  7.17957E-02  7.35426E-02  7.53319E-02
#           7.71648E-02  7.90423E-02  8.09655E-02  8.29354E-02  8.49533E-02
#           8.70203E-02  8.91376E-02  9.13064E-02  9.35279E-02  9.58035E-02
#           9.81345E-02  1.00522E-01  1.02968E-01  1.05473E-01  1.08040E-01
#           1.10668E-01  1.13361E-01  1.16119E-01  1.18944E-01  1.21838E-01
#           1.24803E-01  1.27839E-01  1.30950E-01  1.34136E-01  1.37399E-01
#           1.40742E-01  1.44167E-01  1.47675E-01  1.51268E-01  1.54948E-01
#           1.58718E-01  1.62580E-01  1.66535E-01  1.70587E-01  1.74738E-01
#           1.78989E-01  1.83344E-01  1.87805E-01  1.92375E-01  1.97055E-01
#           2.01850E-01  2.06761E-01  2.11792E-01  2.16945E-01  2.22223E-01
#           2.27630E-01  2.33169E-01  2.38842E-01  2.44653E-01  2.50605E-01
#           2.56703E-01  2.62949E-01  2.69346E-01  2.75900E-01  2.82613E-01
#           2.89489E-01  2.96532E-01  3.03747E-01  3.11138E-01  3.18708E-01
#           3.26462E-01  3.34405E-01  3.42542E-01  3.50876E-01  3.59413E-01
#           3.68158E-01  3.77116E-01  3.86291E-01  3.95690E-01  4.05317E-01
#           4.15179E-01  4.25281E-01  4.35628E-01  4.46227E-01  4.57084E-01
#           4.68205E-01  4.79597E-01  4.91266E-01  5.03219E-01  5.15463E-01
#           5.28005E-01  5.40851E-01  5.54011E-01  5.67490E-01  5.81298E-01
#           5.95441E-01  6.09929E-01  6.24769E-01  6.39970E-01  6.55541E-01
#           6.71491E-01  6.87828E-01  7.04564E-01  7.21706E-01  7.39266E-01
#           7.57253E-01  7.75678E-01  7.94551E-01  8.13883E-01  8.33685E-01
#           8.53969E-01  8.74747E-01  8.96030E-01  9.17831E-01  9.40163E-01
#           9.63038E-01  9.86469E-01  1.01047E+00  1.03506E+00  1.06024E+00
#           1.08604E+00  1.11246E+00  1.13953E+00  1.16725E+00  1.19565E+00
#           1.22474E+00  1.25454E+00  1.28507E+00  1.31633E+00  1.34836E+00
#           1.38117E+00  1.41477E+00  1.44920E+00  1.48446E+00  1.52057E+00
#           1.55757E+00  1.59547E+00  1.63429E+00  1.67405E+00  1.71478E+00
#           1.75650E+00  1.79924E+00  1.84302E+00  1.88786E+00  1.93379E+00
#           1.98084E+00  2.02904E+00  2.07841E+00  2.12898E+00  2.18078E+00
#           2.23384E+00  2.28819E+00  2.34386E+00  2.40089E+00  2.45930E+00
#           2.51914E+00  2.58043E+00  2.64322E+00  2.70753E+00  2.77341E+00
#           2.84088E+00  2.91001E+00  2.98081E+00  3.05333E+00  3.12762E+00
#           3.20372E+00  3.28167E+00  3.36152E+00  3.44330E+00  3.52708E+00
#           3.61290E+00  3.70080E+00  3.79085E+00  3.88308E+00  3.97756E+00
#           4.07434E+00  4.17347E+00  4.27501E+00  4.37903E+00  4.48557E+00
#           4.59471E+00  4.70650E+00  4.82102E+00  4.93832E+00  5.05847E+00
#           5.18155E+00  5.30762E+00  5.43676E+00  5.56904E+00  5.70453E+00
#           5.84333E+00  5.98550E+00  6.13114E+00  6.28031E+00  6.43312E+00
#           6.58964E+00  6.74997E+00  6.91420E+00  7.08243E+00  7.25475E+00
#           7.43126E+00  7.61207E+00  7.79728E+00  7.98700E+00  8.18133E+00
#           8.38038E+00  8.58428E+00  8.79315E+00  9.00709E+00  9.22624E+00
#           9.45072E+00  9.68067E+00  9.91620E+00  1.01575E+01  1.04046E+01
#           1.06578E+01  1.09171E+01  1.11827E+01  1.14548E+01  1.17335E+01
#           1.20190E+01  1.23114E+01  1.26109E+01  1.29178E+01  1.32321E+01
#           1.35540E+01  1.38838E+01  1.42216E+01  1.45676E+01  1.49221E+01
#           1.52851E+01  1.56570E+01  1.60380E+01  1.64282E+01  1.68279E+01
#           1.72374E+01  1.76568E+01  1.80864E+01  1.85264E+01  1.89772E+01
#           1.94389E+01  1.99119E+01  2.03963E+01  2.08926E+01  2.14009E+01
#           2.19216E+01  2.24550E+01  2.30014E+01  2.35610E+01  2.41343E+01
#           2.47215E+01  2.53230E+01  2.59391E+01  2.65702E+01  2.72167E+01
#           2.78789E+01  2.85572E+01  2.92520E+01  2.99637E+01  3.06928E+01
#           3.14396E+01  3.22045E+01  3.29881E+01  3.37907E+01  3.46128E+01
#           3.54550E+01  3.63177E+01  3.72013E+01  3.81064E+01  3.90336E+01
#           3.99833E+01  4.09561E+01  4.19526E+01  4.29734E+01  4.40189E+01
#           4.50900E+01  4.61870E+01  4.73108E+01  4.84619E+01  4.96410E+01
#           5.08488E+01  5.20860E+01  5.33533E+01  5.46514E+01  5.59812E+01
#           5.73432E+01  5.87384E+01  6.01676E+01  6.16315E+01  6.31311E+01
#           6.46671E+01  6.62405E+01  6.78522E+01  6.95031E+01  7.11941E+01
#           7.29263E+01  7.47007E+01  7.65182E+01  7.83800E+01  8.02870E+01
#           8.22405E+01  8.42414E+01  8.62911E+01  8.83906E+01  9.05412E+01
#           9.27442E+01  9.50007E+01  9.73122E+01  9.96799E+01  1.02105E+02
#           1.04589E+02  1.07134E+02  1.09741E+02  1.12411E+02  1.15146E+02
#           1.17948E+02  1.20817E+02  1.23757E+02  1.26768E+02  1.29852E+02
#           1.33012E+02  1.36248E+02  1.39563E+02  1.42959E+02  1.46437E+02
#           1.50000E+02
     unit =    2            # unit is [1/cm^2/(MeV/n)/source]
     axis =  eng            # axis of output
     file = detector-15.out  # file name of output for the above axis
   output = f-curr          # surface crossing forward current spectrum
     part =  neutron  
# kf/name :  2112     
#    used :        main (  %)        temp (  %)       total (  %)
#  memory :         414 (  0)           0 (  0)         414 (  0)

#------------------------------------------------------------------------------
#newpage:
#   no. =    1   reg = 114 - 214

x: Energy [MeV/n]
y:  F-Curr [1/cm^2/(MeV/n)/source]         
p: xlog ylog afac(0.8) form(0.9)
h: n            x            y(neutron ),hh0l   n 
#  e-lower      e-upper      neutron     r.err 
   1.0000E-02   1.0243E-02   1.6029E-04  0.1601
   1.0243E-02   1.0493E-02   1.6050E-04  0.1581
   1.0493E-02   1.0748E-02   1.4493E-04  0.1644
   1.0748E-02   1.1009E-02   1.5750E-04  0.1555
   1.1009E-02   1.1277E-02   1.3253E-04  0.1672
   1.1277E-02   1.1552E-02   1.6469E-04  0.1485
   1.1552E-02   1.1833E-02   1.2453E-04  0.1690
   1.1833E-02   1.2121E-02   1.4936E-04  0.1525
   1.2121E-02   1.2415E-02   1.7294E-04  0.1400
   1.2415E-02   1.2718E-02   1.1255E-04  0.1715
   1.2718E-02   1.3027E-02   1.1958E-04  0.1644
   1.3027E-02   1.3344E-02   1.4513E-04  0.1474
   1.3344E-02   1.3669E-02   1.3594E-04  0.1503
   1.3669E-02   1.4001E-02   1.4433E-04  0.1443
   1.4001E-02   1.4342E-02   1.3210E-04  0.1491
   1.4342E-02   1.4691E-02   1.6048E-04  0.1336
   1.4691E-02   1.5048E-02   1.2590E-04  0.1491
   1.5048E-02   1.5414E-02   1.8572E-04  0.1213
   1.5414E-02   1.5789E-02   1.9238E-04  0.1176
   1.5789E-02   1.6174E-02   1.3536E-04  0.1387
   1.6174E-02   1.6567E-02   1.6137E-04  0.1252
   1.6567E-02   1.6970E-02   1.6125E-04  0.1240
   1.6970E-02   1.7383E-02   1.5985E-04  0.1231
   1.7383E-02   1.7806E-02   1.1822E-04  0.1414
   1.7806E-02   1.8239E-02   1.6850E-04  0.1170
   1.8239E-02   1.8683E-02   1.3567E-04  0.1287
   1.8683E-02   1.9138E-02   1.0339E-04  0.1459
   1.9138E-02   1.9603E-02   1.1919E-04  0.1339
   1.9603E-02   2.0080E-02   1.3457E-04  0.1247
   2.0080E-02   2.0569E-02   1.6374E-04  0.1118
   2.0569E-02   2.1069E-02   1.4587E-04  0.1170
   2.1069E-02   2.1582E-02   1.4630E-04  0.1155
   2.1582E-02   2.2107E-02   1.4664E-04  0.1140
   2.2107E-02   2.2645E-02   1.7848E-04  0.1021
   2.2645E-02   2.3196E-02   1.3340E-04  0.1164
   2.3196E-02   2.3760E-02   1.6161E-04  0.1046
   2.3760E-02   2.4338E-02   1.5049E-04  0.1072
   2.4338E-02   2.4930E-02   1.3341E-04  0.1125
   2.4930E-02   2.5537E-02   1.6074E-04  0.1011
   2.5537E-02   2.6158E-02   1.3867E-04  0.1076
   2.6158E-02   2.6795E-02   1.3512E-04  0.1078
   2.6795E-02   2.7447E-02   1.2425E-04  0.1111
   2.7447E-02   2.8114E-02   1.2579E-04  0.1091
   2.8114E-02   2.8799E-02   1.3888E-04  0.1026
   2.8799E-02   2.9499E-02   1.2630E-04  0.1061
   2.9499E-02   3.0217E-02   1.4211E-04  0.0990
   3.0217E-02   3.0952E-02   1.3891E-04  0.0989
   3.0952E-02   3.1705E-02   1.3478E-04  0.0991
   3.1705E-02   3.2477E-02   9.4631E-05  0.1170
   3.2477E-02   3.3267E-02   1.2276E-04  0.1015
   3.3267E-02   3.4076E-02   1.2416E-04  0.0996
   3.4076E-02   3.4905E-02   1.2302E-04  0.0990
   3.4905E-02   3.5755E-02   1.2834E-04  0.0958
   3.5755E-02   3.6625E-02   1.4960E-04  0.0876
   3.6625E-02   3.7516E-02   1.3207E-04  0.0920
   3.7516E-02   3.8428E-02   1.2380E-04  0.0941
   3.8428E-02   3.9363E-02   1.3155E-04  0.0902
   3.9363E-02   4.0321E-02   1.2648E-04  0.0908
   4.0321E-02   4.1302E-02   1.2365E-04  0.0907
   4.1302E-02   4.2307E-02   1.1958E-04  0.0912
   4.2307E-02   4.3337E-02   1.3568E-04  0.0845
   4.3337E-02   4.4391E-02   1.3339E-04  0.0842
   4.4391E-02   4.5471E-02   1.3022E-04  0.0842
   4.5471E-02   4.6577E-02   1.1675E-04  0.0879
   4.6577E-02   4.7711E-02   1.3633E-04  0.0804
   4.7711E-02   4.8871E-02   1.2620E-04  0.0825
   4.8871E-02   5.0061E-02   1.1449E-04  0.0857
   5.0061E-02   5.1279E-02   1.1125E-04  0.0858
   5.1279E-02   5.2526E-02   1.0324E-04  0.0879
   5.2526E-02   5.3804E-02   1.1111E-04  0.0839
   5.3804E-02   5.5113E-02   1.1623E-04  0.0810
   5.5113E-02   5.6454E-02   1.2355E-04  0.0776
   5.6454E-02   5.7828E-02   1.0784E-04  0.0821
   5.7828E-02   5.9235E-02   1.1030E-04  0.0802
   5.9235E-02   6.0676E-02   1.0928E-04  0.0796
   6.0676E-02   6.2152E-02   8.2394E-05  0.0905
   6.2152E-02   6.3665E-02   1.2135E-04  0.0738
   6.3665E-02   6.5214E-02   1.1039E-04  0.0765
   6.5214E-02   6.6800E-02   1.0336E-04  0.0781
   6.6800E-02   6.8426E-02   9.0526E-05  0.0824
   6.8426E-02   7.0090E-02   1.1192E-04  0.0732
   7.0090E-02   7.1796E-02   1.0299E-04  0.0754
   7.1796E-02   7.3543E-02   1.1489E-04  0.0705
   7.3543E-02   7.5332E-02   1.0178E-04  0.0741
   7.5332E-02   7.7165E-02   1.0366E-04  0.0725
   7.7165E-02   7.9042E-02   9.6139E-05  0.0744
   7.9042E-02   8.0965E-02   9.2216E-05  0.0749
   8.0965E-02   8.2935E-02   1.0806E-04  0.0685
   8.2935E-02   8.4953E-02   9.0592E-05  0.0739
   8.4953E-02   8.7020E-02   9.5066E-05  0.0713
   8.7020E-02   8.9138E-02   9.0376E-05  0.0722
   8.9138E-02   9.1306E-02   9.7440E-05  0.0687
   9.1306E-02   9.3528E-02   9.3017E-05  0.0695
   9.3528E-02   9.5804E-02   8.8607E-05  0.0703
   9.5804E-02   9.8134E-02   8.5856E-05  0.0707
   9.8134E-02   1.0052E-01   8.1459E-05  0.0716
   1.0052E-01   1.0297E-01   9.8214E-05  0.0645
   1.0297E-01   1.0547E-01   8.7948E-05  0.0673
   1.0547E-01   1.0804E-01   8.3905E-05  0.0680
   1.0804E-01   1.1067E-01   8.6045E-05  0.0664
   1.1067E-01   1.1336E-01   8.4482E-05  0.0662
   1.1336E-01   1.1612E-01   8.0978E-05  0.0668
   1.1612E-01   1.1894E-01   7.6807E-05  0.0679
   1.1894E-01   1.2184E-01   7.8092E-05  0.0665
   1.2184E-01   1.2480E-01   6.9439E-05  0.0696
   1.2480E-01   1.2784E-01   7.3212E-05  0.0670
   1.2784E-01   1.3095E-01   7.2389E-05  0.0665
   1.3095E-01   1.3414E-01   7.2241E-05  0.0659
   1.3414E-01   1.3740E-01   6.8797E-05  0.0667
   1.3740E-01   1.4074E-01   6.4364E-05  0.0680
   1.4074E-01   1.4417E-01   7.1150E-05  0.0640
   1.4417E-01   1.4767E-01   5.7957E-05  0.0701
   1.4767E-01   1.5127E-01   6.5876E-05  0.0649
   1.5127E-01   1.5495E-01   6.0904E-05  0.0667
   1.5495E-01   1.5872E-01   6.2960E-05  0.0649
   1.5872E-01   1.6258E-01   6.4521E-05  0.0633
   1.6258E-01   1.6654E-01   5.8399E-05  0.0657
   1.6654E-01   1.7059E-01   5.9891E-05  0.0641
   1.7059E-01   1.7474E-01   5.8779E-05  0.0639
   1.7474E-01   1.7899E-01   5.4042E-05  0.0659
   1.7899E-01   1.8334E-01   5.9587E-05  0.0620
   1.8334E-01   1.8781E-01   5.8776E-05  0.0617
   1.8781E-01   1.9237E-01   5.2999E-05  0.0642
   1.9237E-01   1.9706E-01   5.2237E-05  0.0639
   1.9706E-01   2.0185E-01   4.2696E-05  0.0698
   2.0185E-01   2.0676E-01   5.0902E-05  0.0632
   2.0676E-01   2.1179E-01   5.4936E-05  0.0601
   2.1179E-01   2.1694E-01   5.3013E-05  0.0605
   2.1694E-01   2.2222E-01   5.4119E-05  0.0591
   2.2222E-01   2.2763E-01   5.0612E-05  0.0604
   2.2763E-01   2.3317E-01   5.7477E-05  0.0560
   2.3317E-01   2.3884E-01   6.0780E-05  0.0538
   2.3884E-01   2.4465E-01   5.8131E-05  0.0544
   2.4465E-01   2.5061E-01   5.9916E-05  0.0529
   2.5061E-01   2.5670E-01   6.8556E-05  0.0488
   2.5670E-01   2.6295E-01   6.3627E-05  0.0501
   2.6295E-01   2.6935E-01   6.7028E-05  0.0483
   2.6935E-01   2.7590E-01   6.9281E-05  0.0470
   2.7590E-01   2.8261E-01   7.2408E-05  0.0453
   2.8261E-01   2.8949E-01   6.8886E-05  0.0459
   2.8949E-01   2.9653E-01   7.1630E-05  0.0445
   2.9653E-01   3.0375E-01   7.1520E-05  0.0440
   3.0375E-01   3.1114E-01   7.7223E-05  0.0418
   3.1114E-01   3.1871E-01   7.2318E-05  0.0427
   3.1871E-01   3.2646E-01   7.8635E-05  0.0405
   3.2646E-01   3.3441E-01   8.3425E-05  0.0388
   3.3441E-01   3.4254E-01   7.7243E-05  0.0398
   3.4254E-01   3.5088E-01   8.0408E-05  0.0386
   3.5088E-01   3.5941E-01   8.2901E-05  0.0375
   3.5941E-01   3.6816E-01   8.5390E-05  0.0365
   3.6816E-01   3.7712E-01   8.0077E-05  0.0373
   3.7712E-01   3.8629E-01   8.8548E-05  0.0350
   3.8629E-01   3.9569E-01   8.8558E-05  0.0346
   3.9569E-01   4.0532E-01   9.0383E-05  0.0339
   4.0532E-01   4.1518E-01   8.8394E-05  0.0338
   4.1518E-01   4.2528E-01   9.2207E-05  0.0327
   4.2528E-01   4.3563E-01   9.6922E-05  0.0315
   4.3563E-01   4.4623E-01   9.0410E-05  0.0323
   4.4623E-01   4.5708E-01   9.9525E-05  0.0304
   4.5708E-01   4.6821E-01   9.4172E-05  0.0309
   4.6821E-01   4.7960E-01   9.7345E-05  0.0300
   4.7960E-01   4.9127E-01   1.0022E-04  0.0292
   4.9127E-01   5.0322E-01   9.3069E-05  0.0299
   5.0322E-01   5.1546E-01   1.0309E-04  0.0281
   5.1546E-01   5.2800E-01   1.0707E-04  0.0273
   5.2800E-01   5.4085E-01   1.0423E-04  0.0273
   5.4085E-01   5.5401E-01   1.0619E-04  0.0267
   5.5401E-01   5.6749E-01   1.0334E-04  0.0267
   5.6749E-01   5.8130E-01   1.0212E-04  0.0266
   5.8130E-01   5.9544E-01   1.0040E-04  0.0265
   5.9544E-01   6.0993E-01   1.0708E-04  0.0253
   6.0993E-01   6.2477E-01   1.0688E-04  0.0251
   6.2477E-01   6.3997E-01   1.0934E-04  0.0245
   6.3997E-01   6.5554E-01   1.0121E-04  0.0252
   6.5554E-01   6.7149E-01   1.1185E-04  0.0236
   6.7149E-01   6.8783E-01   1.0752E-04  0.0238
   6.8783E-01   7.0456E-01   1.0775E-04  0.0235
   7.0456E-01   7.2171E-01   1.0993E-04  0.0230
   7.2171E-01   7.3927E-01   1.0888E-04  0.0228
   7.3927E-01   7.5725E-01   1.0757E-04  0.0227
   7.5725E-01   7.7568E-01   1.1077E-04  0.0221
   7.7568E-01   7.9455E-01   1.1067E-04  0.0218
   7.9455E-01   8.1388E-01   1.0957E-04  0.0217
   8.1388E-01   8.3368E-01   1.0800E-04  0.0216
   8.3368E-01   8.5397E-01   1.0926E-04  0.0212
   8.5397E-01   8.7475E-01   1.1068E-04  0.0208
   8.7475E-01   8.9603E-01   1.1055E-04  0.0206
   8.9603E-01   9.1783E-01   1.0832E-04  0.0206
   9.1783E-01   9.4016E-01   1.0726E-04  0.0204
   9.4016E-01   9.6304E-01   1.0126E-04  0.0207
   9.6304E-01   9.8647E-01   1.0290E-04  0.0203
   9.8647E-01   1.0105E+00   1.0108E-04  0.0203
   1.0105E+00   1.0351E+00   1.0360E-04  0.0198
   1.0351E+00   1.0602E+00   9.9648E-05  0.0199
   1.0602E+00   1.0860E+00   1.0803E-04  0.0189
   1.0860E+00   1.1125E+00   1.0418E-04  0.0190
   1.1125E+00   1.1395E+00   1.0506E-04  0.0187
   1.1395E+00   1.1673E+00   1.0970E-04  0.0181
   1.1673E+00   1.1957E+00   1.1211E-04  0.0177
   1.1957E+00   1.2247E+00   1.1261E-04  0.0174
   1.2247E+00   1.2545E+00   1.1268E-04  0.0172
   1.2545E+00   1.2851E+00   1.1682E-04  0.0167
   1.2851E+00   1.3163E+00   1.2034E-04  0.0163
   1.3163E+00   1.3484E+00   1.1928E-04  0.0161
   1.3484E+00   1.3812E+00   1.2684E-04  0.0155
   1.3812E+00   1.4148E+00   1.2965E-04  0.0151
   1.4148E+00   1.4492E+00   1.3201E-04  0.0148
   1.4492E+00   1.4845E+00   1.3058E-04  0.0147
   1.4845E+00   1.5206E+00   1.3350E-04  0.0144
   1.5206E+00   1.5576E+00   1.3400E-04  0.0142
   1.5576E+00   1.5955E+00   1.3832E-04  0.0138
   1.5955E+00   1.6343E+00   1.4234E-04  0.0134
   1.6343E+00   1.6741E+00   1.4520E-04  0.0131
   1.6741E+00   1.7148E+00   1.4581E-04  0.0129
   1.7148E+00   1.7565E+00   1.4643E-04  0.0128
   1.7565E+00   1.7992E+00   1.5311E-04  0.0123
   1.7992E+00   1.8430E+00   1.4966E-04  0.0123
   1.8430E+00   1.8879E+00   1.5281E-04  0.0120
   1.8879E+00   1.9338E+00   1.5361E-04  0.0119
   1.9338E+00   1.9808E+00   1.5923E-04  0.0115
   1.9808E+00   2.0290E+00   1.6433E-04  0.0112
   2.0290E+00   2.0784E+00   1.6125E-04  0.0112
   2.0784E+00   2.1290E+00   1.6488E-04  0.0109
   2.1290E+00   2.1808E+00   1.6177E-04  0.0109
   2.1808E+00   2.2338E+00   1.6335E-04  0.0107
   2.2338E+00   2.2882E+00   1.6415E-04  0.0106
   2.2882E+00   2.3439E+00   1.6802E-04  0.0103
   2.3439E+00   2.4009E+00   1.7366E-04  0.0100
   2.4009E+00   2.4593E+00   1.7276E-04  0.0099
   2.4593E+00   2.5191E+00   1.7239E-04  0.0098
   2.5191E+00   2.5804E+00   1.7148E-04  0.0097
   2.5804E+00   2.6432E+00   1.7250E-04  0.0096
   2.6432E+00   2.7075E+00   1.7689E-04  0.0094
   2.7075E+00   2.7734E+00   1.7585E-04  0.0093
   2.7734E+00   2.8409E+00   1.7483E-04  0.0092
   2.8409E+00   2.9100E+00   1.7641E-04  0.0090
   2.9100E+00   2.9808E+00   1.8028E-04  0.0088
   2.9808E+00   3.0533E+00   1.7634E-04  0.0088
   3.0533E+00   3.1276E+00   1.7781E-04  0.0087
   3.1276E+00   3.2037E+00   1.7545E-04  0.0086
   3.2037E+00   3.2817E+00   1.7667E-04  0.0085
   3.2817E+00   3.3615E+00   1.7241E-04  0.0085
   3.3615E+00   3.4433E+00   1.7524E-04  0.0083
   3.4433E+00   3.5271E+00   1.7244E-04  0.0083
   3.5271E+00   3.6129E+00   1.7230E-04  0.0082
   3.6129E+00   3.7008E+00   1.7246E-04  0.0081
   3.7008E+00   3.7908E+00   1.6997E-04  0.0081
   3.7908E+00   3.8831E+00   1.6744E-04  0.0080
   3.8831E+00   3.9776E+00   1.6666E-04  0.0080
   3.9776E+00   4.0743E+00   1.6559E-04  0.0079
   4.0743E+00   4.1735E+00   1.6379E-04  0.0078
   4.1735E+00   4.2750E+00   1.6192E-04  0.0078
   4.2750E+00   4.3790E+00   1.6064E-04  0.0077
   4.3790E+00   4.4856E+00   1.5526E-04  0.0078
   4.4856E+00   4.5947E+00   1.5290E-04  0.0077
   4.5947E+00   4.7065E+00   1.5425E-04  0.0076
   4.7065E+00   4.8210E+00   1.4945E-04  0.0076
   4.8210E+00   4.9383E+00   1.4873E-04  0.0076
   4.9383E+00   5.0585E+00   1.4574E-04  0.0075
   5.0585E+00   5.1815E+00   1.4125E-04  0.0076
   5.1815E+00   5.3076E+00   1.3679E-04  0.0076
   5.3076E+00   5.4368E+00   1.3542E-04  0.0075
   5.4368E+00   5.5690E+00   1.2968E-04  0.0076
   5.5690E+00   5.7045E+00   1.2685E-04  0.0076
   5.7045E+00   5.8433E+00   1.2521E-04  0.0076
   5.8433E+00   5.9855E+00   1.2270E-04  0.0076
   5.9855E+00   6.1311E+00   1.1745E-04  0.0076
   6.1311E+00   6.2803E+00   1.1607E-04  0.0076
   6.2803E+00   6.4331E+00   1.1110E-04  0.0077
   6.4331E+00   6.5896E+00   1.0797E-04  0.0077
   6.5896E+00   6.7500E+00   1.0515E-04  0.0077
   6.7500E+00   6.9142E+00   1.0068E-04  0.0078
   6.9142E+00   7.0824E+00   9.7741E-05  0.0078
   7.0824E+00   7.2548E+00   9.4188E-05  0.0078
   7.2548E+00   7.4313E+00   9.0605E-05  0.0079
   7.4313E+00   7.6121E+00   8.6063E-05  0.0080
   7.6121E+00   7.7973E+00   8.3486E-05  0.0080
   7.7973E+00   7.9870E+00   7.9502E-05  0.0081
   7.9870E+00   8.1813E+00   7.5754E-05  0.0082
   8.1813E+00   8.3804E+00   7.2771E-05  0.0083
   8.3804E+00   8.5843E+00   7.0975E-05  0.0083
   8.5843E+00   8.7931E+00   6.7542E-05  0.0084
   8.7931E+00   9.0071E+00   6.5232E-05  0.0085
   9.0071E+00   9.2262E+00   6.2000E-05  0.0086
   9.2262E+00   9.4507E+00   5.9591E-05  0.0086
   9.4507E+00   9.6807E+00   5.6445E-05  0.0088
   9.6807E+00   9.9162E+00   5.3539E-05  0.0089
   9.9162E+00   1.0157E+01   5.2249E-05  0.0089
   1.0157E+01   1.0405E+01   4.9707E-05  0.0090
   1.0405E+01   1.0658E+01   4.7766E-05  0.0091
   1.0658E+01   1.0917E+01   4.5601E-05  0.0092
   1.0917E+01   1.1183E+01   4.3991E-05  0.0092
   1.1183E+01   1.1455E+01   4.1890E-05  0.0094
   1.1455E+01   1.1733E+01   4.0861E-05  0.0094
   1.1733E+01   1.2019E+01   3.8552E-05  0.0095
   1.2019E+01   1.2311E+01   3.6632E-05  0.0097
   1.2311E+01   1.2611E+01   3.4506E-05  0.0098
   1.2611E+01   1.2918E+01   3.3433E-05  0.0099
   1.2918E+01   1.3232E+01   3.1454E-05  0.0101
   1.3232E+01   1.3554E+01   3.0613E-05  0.0101
   1.3554E+01   1.3884E+01   2.8627E-05  0.0103
   1.3884E+01   1.4222E+01   2.7535E-05  0.0104
   1.4222E+01   1.4568E+01   2.5767E-05  0.0106
   1.4568E+01   1.4922E+01   2.4835E-05  0.0107
   1.4922E+01   1.5285E+01   2.3906E-05  0.0107
   1.5285E+01   1.5657E+01   2.2010E-05  0.0111
   1.5657E+01   1.6038E+01   2.1575E-05  0.0110
   1.6038E+01   1.6428E+01   1.9967E-05  0.0113
   1.6428E+01   1.6828E+01   1.8945E-05  0.0115
   1.6828E+01   1.7237E+01   1.8277E-05  0.0116
   1.7237E+01   1.7657E+01   1.7316E-05  0.0117
   1.7657E+01   1.8086E+01   1.6687E-05  0.0118
   1.8086E+01   1.8526E+01   1.5335E-05  0.0122
   1.8526E+01   1.8977E+01   1.4496E-05  0.0124
   1.8977E+01   1.9439E+01   1.4097E-05  0.0124
   1.9439E+01   1.9912E+01   1.3300E-05  0.0126
   1.9912E+01   2.0396E+01   1.3111E-05  0.0125
   2.0396E+01   2.0893E+01   1.2244E-05  0.0128
   2.0893E+01   2.1401E+01   1.1534E-05  0.0131
   2.1401E+01   2.1922E+01   1.0835E-05  0.0133
   2.1922E+01   2.2455E+01   9.9481E-06  0.0137
   2.2455E+01   2.3001E+01   9.2889E-06  0.0140
   2.3001E+01   2.3561E+01   8.7538E-06  0.0143
   2.3561E+01   2.4134E+01   7.8917E-06  0.0149
   2.4134E+01   2.4721E+01   7.5221E-06  0.0150
   2.4721E+01   2.5323E+01   7.0259E-06  0.0154
   2.5323E+01   2.5939E+01   6.2649E-06  0.0161
   2.5939E+01   2.6570E+01   5.7660E-06  0.0166
   2.6570E+01   2.7217E+01   5.4944E-06  0.0168
   2.7217E+01   2.7879E+01   4.8897E-06  0.0176
   2.7879E+01   2.8557E+01   4.4950E-06  0.0181
   2.8557E+01   2.9252E+01   4.0226E-06  0.0189
   2.9252E+01   2.9964E+01   3.6714E-06  0.0196
   2.9964E+01   3.0693E+01   3.2152E-06  0.0207
   3.0693E+01   3.1440E+01   2.9232E-06  0.0214
   3.1440E+01   3.2205E+01   2.5596E-06  0.0226
   3.2205E+01   3.2988E+01   2.2576E-06  0.0238
   3.2988E+01   3.3791E+01   2.0483E-06  0.0247
   3.3791E+01   3.4613E+01   1.6931E-06  0.0268
   3.4613E+01   3.5455E+01   1.5472E-06  0.0277
   3.5455E+01   3.6318E+01   1.3911E-06  0.0289
   3.6318E+01   3.7201E+01   1.2381E-06  0.0302
   3.7201E+01   3.8106E+01   1.0440E-06  0.0325
   3.8106E+01   3.9034E+01   8.5314E-07  0.0356
   3.9034E+01   3.9983E+01   7.5391E-07  0.0374
   3.9983E+01   4.0956E+01   6.4657E-07  0.0399
   4.0956E+01   4.1953E+01   6.1516E-07  0.0404
   4.1953E+01   4.2973E+01   5.2903E-07  0.0430
   4.2973E+01   4.4019E+01   4.7534E-07  0.0449
   4.4019E+01   4.5090E+01   4.0336E-07  0.0481
   4.5090E+01   4.6187E+01   3.3544E-07  0.0521
   4.6187E+01   4.7311E+01   3.0789E-07  0.0538
   4.7311E+01   4.8462E+01   2.5541E-07  0.0583
   4.8462E+01   4.9641E+01   2.0100E-07  0.0650
   4.9641E+01   5.0849E+01   1.8877E-07  0.0662
   5.0849E+01   5.2086E+01   1.7055E-07  0.0688
   5.2086E+01   5.3353E+01   1.6334E-07  0.0695
   5.3353E+01   5.4651E+01   1.2788E-07  0.0776
   5.4651E+01   5.5981E+01   9.5509E-08  0.0887
   5.5981E+01   5.7343E+01   9.3975E-08  0.0884
   5.7343E+01   5.8738E+01   6.9524E-08  0.1015
   5.8738E+01   6.0168E+01   6.7872E-08  0.1015
   6.0168E+01   6.1632E+01   5.6697E-08  0.1098
   6.1632E+01   6.3131E+01   3.3343E-08  0.1414
   6.3131E+01   6.4667E+01   2.4739E-08  0.1622
   6.4667E+01   6.6240E+01   2.0974E-08  0.1741
   6.6240E+01   6.7852E+01   1.3650E-08  0.2132
   6.7852E+01   6.9503E+01   6.0573E-09  0.3162
   6.9503E+01   7.1194E+01   6.5048E-09  0.3015
   7.1194E+01   7.2926E+01   4.6184E-09  0.3536
   7.2926E+01   7.4701E+01   2.2543E-09  0.5000
   7.4701E+01   7.6518E+01   1.6506E-09  0.5774
   7.6518E+01   7.8380E+01   0.0000E+00  0.0000
   7.8380E+01   8.0287E+01   0.0000E+00  0.0000
   8.0287E+01   8.2240E+01   0.0000E+00  0.0000
   8.2240E+01   8.4241E+01   0.0000E+00  0.0000
   8.4241E+01   8.6291E+01   0.0000E+00  0.0000
   8.6291E+01   8.8391E+01   0.0000E+00  0.0000
   8.8391E+01   9.0541E+01   0.0000E+00  0.0000
   9.0541E+01   9.2744E+01   0.0000E+00  0.0000
   9.2744E+01   9.5001E+01   0.0000E+00  0.0000
   9.5001E+01   9.7312E+01   0.0000E+00  0.0000
   9.7312E+01   9.9680E+01   0.0000E+00  0.0000
   9.9680E+01   1.0211E+02   0.0000E+00  0.0000
   1.0211E+02   1.0459E+02   0.0000E+00  0.0000
   1.0459E+02   1.0713E+02   0.0000E+00  0.0000
   1.0713E+02   1.0974E+02   0.0000E+00  0.0000
   1.0974E+02   1.1241E+02   0.0000E+00  0.0000
   1.1241E+02   1.1515E+02   0.0000E+00  0.0000
   1.1515E+02   1.1795E+02   0.0000E+00  0.0000
   1.1795E+02   1.2082E+02   0.0000E+00  0.0000
   1.2082E+02   1.2376E+02   0.0000E+00  0.0000
   1.2376E+02   1.2677E+02   0.0000E+00  0.0000
   1.2677E+02   1.2985E+02   0.0000E+00  0.0000
   1.2985E+02   1.3301E+02   0.0000E+00  0.0000
   1.3301E+02   1.3625E+02   0.0000E+00  0.0000
   1.3625E+02   1.3956E+02   0.0000E+00  0.0000
   1.3956E+02   1.4296E+02   0.0000E+00  0.0000
   1.4296E+02   1.4644E+02   0.0000E+00  0.0000
   1.4644E+02   1.5000E+02   0.0000E+00  0.0000

#   sum over                 1.0298E-05
'no. =    1   reg = 114 - 214'
msuc: {\huge [t-cross] in region mesh}
msdr: {\it plotted by \ANGEL \version}
msdl: {\it calculated by \PHITS  3.26}
wt: s(0.7)
\vspace{-3}
  region surface crossing
  area  &=&   1.0000E+00 [cm^2]
e:
 
# Information for Restart Calculation
# This calculation was newly started
# istdev =  2 # 1:Batch variance, 2:History variance
# resc2  = 1.00000000000000000E+09 # Total source weight or Total source weight / maxcas
# resc3  = 1.00000000000000000E+09 # Total history number or Total batch number
# maxcas =   500000000 # History / Batch, only used for istdev=1
# bitrseed = 0001001110011001001001110000100100110111001111011100001000101100 # bit data of rseed
