[ T-Cross ]
    title = [t-cross] in region mesh
     mesh =  reg            # mesh type is region-wise
      reg =    1            # number of crossing regions
      non     r-from    r-to       area
      1       120       220        1.000000    
   e-type =    3            # e-mesh is log given by emin, emax and ne
     emin =  1.0000000E-02  # minimum value of e-mesh points
     emax =   150.0000      # maximum value of e-mesh points
#    edel =  2.4039514E-02  # mesh width of e-mesh points
       ne =    400          # number of e-mesh points
#    data = ( e(i), i = 1, ne + 1 )
#           1.00000E-02  1.02433E-02  1.04925E-02  1.07478E-02  1.10093E-02
#           1.12772E-02  1.15516E-02  1.18326E-02  1.21205E-02  1.24154E-02
#           1.27175E-02  1.30269E-02  1.33439E-02  1.36686E-02  1.40011E-02
#           1.43418E-02  1.46907E-02  1.50482E-02  1.54143E-02  1.57894E-02
#           1.61735E-02  1.65670E-02  1.69701E-02  1.73830E-02  1.78060E-02
#           1.82392E-02  1.86830E-02  1.91375E-02  1.96032E-02  2.00801E-02
#           2.05687E-02  2.10692E-02  2.15818E-02  2.21069E-02  2.26448E-02
#           2.31957E-02  2.37601E-02  2.43382E-02  2.49304E-02  2.55369E-02
#           2.61583E-02  2.67947E-02  2.74467E-02  2.81145E-02  2.87985E-02
#           2.94992E-02  3.02169E-02  3.09521E-02  3.17052E-02  3.24766E-02
#           3.32668E-02  3.40762E-02  3.49053E-02  3.57546E-02  3.66246E-02
#           3.75157E-02  3.84284E-02  3.93634E-02  4.03212E-02  4.13022E-02
#           4.23071E-02  4.33365E-02  4.43909E-02  4.54710E-02  4.65773E-02
#           4.77106E-02  4.88714E-02  5.00605E-02  5.12785E-02  5.25262E-02
#           5.38042E-02  5.51133E-02  5.64542E-02  5.78278E-02  5.92348E-02
#           6.06760E-02  6.21523E-02  6.36645E-02  6.52135E-02  6.68002E-02
#           6.84255E-02  7.00904E-02  7.17957E-02  7.35426E-02  7.53319E-02
#           7.71648E-02  7.90423E-02  8.09655E-02  8.29354E-02  8.49533E-02
#           8.70203E-02  8.91376E-02  9.13064E-02  9.35279E-02  9.58035E-02
#           9.81345E-02  1.00522E-01  1.02968E-01  1.05473E-01  1.08040E-01
#           1.10668E-01  1.13361E-01  1.16119E-01  1.18944E-01  1.21838E-01
#           1.24803E-01  1.27839E-01  1.30950E-01  1.34136E-01  1.37399E-01
#           1.40742E-01  1.44167E-01  1.47675E-01  1.51268E-01  1.54948E-01
#           1.58718E-01  1.62580E-01  1.66535E-01  1.70587E-01  1.74738E-01
#           1.78989E-01  1.83344E-01  1.87805E-01  1.92375E-01  1.97055E-01
#           2.01850E-01  2.06761E-01  2.11792E-01  2.16945E-01  2.22223E-01
#           2.27630E-01  2.33169E-01  2.38842E-01  2.44653E-01  2.50605E-01
#           2.56703E-01  2.62949E-01  2.69346E-01  2.75900E-01  2.82613E-01
#           2.89489E-01  2.96532E-01  3.03747E-01  3.11138E-01  3.18708E-01
#           3.26462E-01  3.34405E-01  3.42542E-01  3.50876E-01  3.59413E-01
#           3.68158E-01  3.77116E-01  3.86291E-01  3.95690E-01  4.05317E-01
#           4.15179E-01  4.25281E-01  4.35628E-01  4.46227E-01  4.57084E-01
#           4.68205E-01  4.79597E-01  4.91266E-01  5.03219E-01  5.15463E-01
#           5.28005E-01  5.40851E-01  5.54011E-01  5.67490E-01  5.81298E-01
#           5.95441E-01  6.09929E-01  6.24769E-01  6.39970E-01  6.55541E-01
#           6.71491E-01  6.87828E-01  7.04564E-01  7.21706E-01  7.39266E-01
#           7.57253E-01  7.75678E-01  7.94551E-01  8.13883E-01  8.33685E-01
#           8.53969E-01  8.74747E-01  8.96030E-01  9.17831E-01  9.40163E-01
#           9.63038E-01  9.86469E-01  1.01047E+00  1.03506E+00  1.06024E+00
#           1.08604E+00  1.11246E+00  1.13953E+00  1.16725E+00  1.19565E+00
#           1.22474E+00  1.25454E+00  1.28507E+00  1.31633E+00  1.34836E+00
#           1.38117E+00  1.41477E+00  1.44920E+00  1.48446E+00  1.52057E+00
#           1.55757E+00  1.59547E+00  1.63429E+00  1.67405E+00  1.71478E+00
#           1.75650E+00  1.79924E+00  1.84302E+00  1.88786E+00  1.93379E+00
#           1.98084E+00  2.02904E+00  2.07841E+00  2.12898E+00  2.18078E+00
#           2.23384E+00  2.28819E+00  2.34386E+00  2.40089E+00  2.45930E+00
#           2.51914E+00  2.58043E+00  2.64322E+00  2.70753E+00  2.77341E+00
#           2.84088E+00  2.91001E+00  2.98081E+00  3.05333E+00  3.12762E+00
#           3.20372E+00  3.28167E+00  3.36152E+00  3.44330E+00  3.52708E+00
#           3.61290E+00  3.70080E+00  3.79085E+00  3.88308E+00  3.97756E+00
#           4.07434E+00  4.17347E+00  4.27501E+00  4.37903E+00  4.48557E+00
#           4.59471E+00  4.70650E+00  4.82102E+00  4.93832E+00  5.05847E+00
#           5.18155E+00  5.30762E+00  5.43676E+00  5.56904E+00  5.70453E+00
#           5.84333E+00  5.98550E+00  6.13114E+00  6.28031E+00  6.43312E+00
#           6.58964E+00  6.74997E+00  6.91420E+00  7.08243E+00  7.25475E+00
#           7.43126E+00  7.61207E+00  7.79728E+00  7.98700E+00  8.18133E+00
#           8.38038E+00  8.58428E+00  8.79315E+00  9.00709E+00  9.22624E+00
#           9.45072E+00  9.68067E+00  9.91620E+00  1.01575E+01  1.04046E+01
#           1.06578E+01  1.09171E+01  1.11827E+01  1.14548E+01  1.17335E+01
#           1.20190E+01  1.23114E+01  1.26109E+01  1.29178E+01  1.32321E+01
#           1.35540E+01  1.38838E+01  1.42216E+01  1.45676E+01  1.49221E+01
#           1.52851E+01  1.56570E+01  1.60380E+01  1.64282E+01  1.68279E+01
#           1.72374E+01  1.76568E+01  1.80864E+01  1.85264E+01  1.89772E+01
#           1.94389E+01  1.99119E+01  2.03963E+01  2.08926E+01  2.14009E+01
#           2.19216E+01  2.24550E+01  2.30014E+01  2.35610E+01  2.41343E+01
#           2.47215E+01  2.53230E+01  2.59391E+01  2.65702E+01  2.72167E+01
#           2.78789E+01  2.85572E+01  2.92520E+01  2.99637E+01  3.06928E+01
#           3.14396E+01  3.22045E+01  3.29881E+01  3.37907E+01  3.46128E+01
#           3.54550E+01  3.63177E+01  3.72013E+01  3.81064E+01  3.90336E+01
#           3.99833E+01  4.09561E+01  4.19526E+01  4.29734E+01  4.40189E+01
#           4.50900E+01  4.61870E+01  4.73108E+01  4.84619E+01  4.96410E+01
#           5.08488E+01  5.20860E+01  5.33533E+01  5.46514E+01  5.59812E+01
#           5.73432E+01  5.87384E+01  6.01676E+01  6.16315E+01  6.31311E+01
#           6.46671E+01  6.62405E+01  6.78522E+01  6.95031E+01  7.11941E+01
#           7.29263E+01  7.47007E+01  7.65182E+01  7.83800E+01  8.02870E+01
#           8.22405E+01  8.42414E+01  8.62911E+01  8.83906E+01  9.05412E+01
#           9.27442E+01  9.50007E+01  9.73122E+01  9.96799E+01  1.02105E+02
#           1.04589E+02  1.07134E+02  1.09741E+02  1.12411E+02  1.15146E+02
#           1.17948E+02  1.20817E+02  1.23757E+02  1.26768E+02  1.29852E+02
#           1.33012E+02  1.36248E+02  1.39563E+02  1.42959E+02  1.46437E+02
#           1.50000E+02
     unit =    2            # unit is [1/cm^2/(MeV/n)/source]
     axis =  eng            # axis of output
     file = detector-21.out  # file name of output for the above axis
   output = f-curr          # surface crossing forward current spectrum
     part =  neutron  
# kf/name :  2112     
#    used :        main (  %)        temp (  %)       total (  %)
#  memory :         414 (  0)           0 (  0)         414 (  0)

#------------------------------------------------------------------------------
#newpage:
#   no. =    1   reg = 120 - 220

x: Energy [MeV/n]
y:  F-Curr [1/cm^2/(MeV/n)/source]         
p: xlog ylog afac(0.8) form(0.9)
h: n            x            y(neutron ),hh0l   n 
#  e-lower      e-upper      neutron     r.err 
   1.0000E-02   1.0243E-02   9.2064E-04  0.0945
   1.0243E-02   1.0493E-02   9.3088E-04  0.0928
   1.0493E-02   1.0748E-02   9.3227E-04  0.0917
   1.0748E-02   1.1009E-02   9.1777E-04  0.0913
   1.1009E-02   1.1277E-02   9.2584E-04  0.0898
   1.1277E-02   1.1552E-02   9.6216E-04  0.0870
   1.1552E-02   1.1833E-02   9.1796E-04  0.0880
   1.1833E-02   1.2121E-02   1.0073E-03  0.0830
   1.2121E-02   1.2415E-02   1.0241E-03  0.0814
   1.2415E-02   1.2718E-02   1.0196E-03  0.0806
   1.2718E-02   1.3027E-02   9.2429E-04  0.0836
   1.3027E-02   1.3344E-02   9.4650E-04  0.0816
   1.3344E-02   1.3669E-02   9.3634E-04  0.0811
   1.3669E-02   1.4001E-02   1.0464E-03  0.0758
   1.4001E-02   1.4342E-02   1.0216E-03  0.0758
   1.4342E-02   1.4691E-02   9.5716E-04  0.0774
   1.4691E-02   1.5048E-02   9.2883E-04  0.0776
   1.5048E-02   1.5414E-02   1.0106E-03  0.0735
   1.5414E-02   1.5789E-02   1.0399E-03  0.0716
   1.5789E-02   1.6174E-02   9.6833E-04  0.0733
   1.6174E-02   1.6567E-02   1.0266E-03  0.0704
   1.6567E-02   1.6970E-02   1.0618E-03  0.0684
   1.6970E-02   1.7383E-02   1.1238E-03  0.0657
   1.7383E-02   1.7806E-02   1.0120E-03  0.0684
   1.7806E-02   1.8239E-02   1.0664E-03  0.0658
   1.8239E-02   1.8683E-02   1.1492E-03  0.0626
   1.8683E-02   1.9138E-02   1.0823E-03  0.0638
   1.9138E-02   1.9603E-02   9.9220E-04  0.0658
   1.9603E-02   2.0080E-02   9.8541E-04  0.0652
   2.0080E-02   2.0569E-02   1.0521E-03  0.0624
   2.0569E-02   2.1069E-02   9.5913E-04  0.0645
   2.1069E-02   2.1582E-02   1.0690E-03  0.0604
   2.1582E-02   2.2107E-02   1.0665E-03  0.0598
   2.2107E-02   2.2645E-02   1.1136E-03  0.0578
   2.2645E-02   2.3196E-02   1.1071E-03  0.0573
   2.3196E-02   2.3760E-02   1.0206E-03  0.0589
   2.3760E-02   2.4338E-02   1.0759E-03  0.0567
   2.4338E-02   2.4930E-02   1.0504E-03  0.0567
   2.4930E-02   2.5537E-02   1.1573E-03  0.0534
   2.5537E-02   2.6158E-02   1.0397E-03  0.0556
   2.6158E-02   2.6795E-02   1.0276E-03  0.0553
   2.6795E-02   2.7447E-02   1.1013E-03  0.0528
   2.7447E-02   2.8114E-02   1.1381E-03  0.0513
   2.8114E-02   2.8799E-02   1.2368E-03  0.0486
   2.8799E-02   2.9499E-02   9.9616E-04  0.0535
   2.9499E-02   3.0217E-02   1.0394E-03  0.0518
   3.0217E-02   3.0952E-02   1.0963E-03  0.0498
   3.0952E-02   3.1705E-02   1.1154E-03  0.0488
   3.1705E-02   3.2477E-02   1.1304E-03  0.0479
   3.2477E-02   3.3267E-02   1.0403E-03  0.0493
   3.3267E-02   3.4076E-02   1.1490E-03  0.0464
   3.4076E-02   3.4905E-02   1.0903E-03  0.0470
   3.4905E-02   3.5755E-02   1.0762E-03  0.0468
   3.5755E-02   3.6625E-02   1.1909E-03  0.0439
   3.6625E-02   3.7516E-02   1.1626E-03  0.0439
   3.7516E-02   3.8428E-02   1.2708E-03  0.0415
   3.8428E-02   3.9363E-02   1.1829E-03  0.0425
   3.9363E-02   4.0321E-02   1.2258E-03  0.0413
   4.0321E-02   4.1302E-02   1.1661E-03  0.0418
   4.1302E-02   4.2307E-02   1.1603E-03  0.0414
   4.2307E-02   4.3337E-02   1.1172E-03  0.0417
   4.3337E-02   4.4391E-02   1.1703E-03  0.0403
   4.4391E-02   4.5471E-02   1.1722E-03  0.0397
   4.5471E-02   4.6577E-02   1.2311E-03  0.0383
   4.6577E-02   4.7711E-02   1.1948E-03  0.0384
   4.7711E-02   4.8871E-02   1.1991E-03  0.0379
   4.8871E-02   5.0061E-02   1.1522E-03  0.0382
   5.0061E-02   5.1279E-02   1.1116E-03  0.0384
   5.1279E-02   5.2526E-02   1.1029E-03  0.0381
   5.2526E-02   5.3804E-02   1.2410E-03  0.0355
   5.3804E-02   5.5113E-02   1.2046E-03  0.0356
   5.5113E-02   5.6454E-02   1.2812E-03  0.0341
   5.6454E-02   5.7828E-02   1.2143E-03  0.0346
   5.7828E-02   5.9235E-02   1.1443E-03  0.0352
   5.9235E-02   6.0676E-02   1.2656E-03  0.0331
   6.0676E-02   6.2152E-02   1.2464E-03  0.0330
   6.2152E-02   6.3665E-02   1.2511E-03  0.0325
   6.3665E-02   6.5214E-02   1.2937E-03  0.0316
   6.5214E-02   6.6800E-02   1.2882E-03  0.0313
   6.6800E-02   6.8426E-02   1.2699E-03  0.0311
   6.8426E-02   7.0090E-02   1.2578E-03  0.0309
   7.0090E-02   7.1796E-02   1.2127E-03  0.0311
   7.1796E-02   7.3543E-02   1.3075E-03  0.0296
   7.3543E-02   7.5332E-02   1.2563E-03  0.0298
   7.5332E-02   7.7165E-02   1.2832E-03  0.0292
   7.7165E-02   7.9042E-02   1.2719E-03  0.0289
   7.9042E-02   8.0965E-02   1.3270E-03  0.0280
   8.0965E-02   8.2935E-02   1.3472E-03  0.0275
   8.2935E-02   8.4953E-02   1.2815E-03  0.0278
   8.4953E-02   8.7020E-02   1.2864E-03  0.0274
   8.7020E-02   8.9138E-02   1.3262E-03  0.0267
   8.9138E-02   9.1306E-02   1.3270E-03  0.0264
   9.1306E-02   9.3528E-02   1.3045E-03  0.0263
   9.3528E-02   9.5804E-02   1.2761E-03  0.0262
   9.5804E-02   9.8134E-02   1.2904E-03  0.0258
   9.8134E-02   1.0052E-01   1.3335E-03  0.0251
   1.0052E-01   1.0297E-01   1.3493E-03  0.0246
   1.0297E-01   1.0547E-01   1.3436E-03  0.0244
   1.0547E-01   1.0804E-01   1.3257E-03  0.0242
   1.0804E-01   1.1067E-01   1.3992E-03  0.0233
   1.1067E-01   1.1336E-01   1.4046E-03  0.0230
   1.1336E-01   1.1612E-01   1.3770E-03  0.0229
   1.1612E-01   1.1894E-01   1.3783E-03  0.0227
   1.1894E-01   1.2184E-01   1.3559E-03  0.0226
   1.2184E-01   1.2480E-01   1.3885E-03  0.0220
   1.2480E-01   1.2784E-01   1.3976E-03  0.0217
   1.2784E-01   1.3095E-01   1.3940E-03  0.0215
   1.3095E-01   1.3414E-01   1.4306E-03  0.0209
   1.3414E-01   1.3740E-01   1.4450E-03  0.0206
   1.3740E-01   1.4074E-01   1.4209E-03  0.0205
   1.4074E-01   1.4417E-01   1.4832E-03  0.0198
   1.4417E-01   1.4767E-01   1.4317E-03  0.0200
   1.4767E-01   1.5127E-01   1.4083E-03  0.0199
   1.5127E-01   1.5495E-01   1.4745E-03  0.0192
   1.5495E-01   1.5872E-01   1.4281E-03  0.0193
   1.5872E-01   1.6258E-01   1.4532E-03  0.0189
   1.6258E-01   1.6654E-01   1.4521E-03  0.0187
   1.6654E-01   1.7059E-01   1.5035E-03  0.0181
   1.7059E-01   1.7474E-01   1.4675E-03  0.0181
   1.7474E-01   1.7899E-01   1.4743E-03  0.0179
   1.7899E-01   1.8334E-01   1.5102E-03  0.0174
   1.8334E-01   1.8781E-01   1.4889E-03  0.0174
   1.8781E-01   1.9237E-01   1.4680E-03  0.0173
   1.9237E-01   1.9706E-01   1.5306E-03  0.0167
   1.9706E-01   2.0185E-01   1.4921E-03  0.0167
   2.0185E-01   2.0676E-01   1.4913E-03  0.0165
   2.0676E-01   2.1179E-01   1.4958E-03  0.0163
   2.1179E-01   2.1694E-01   1.5428E-03  0.0159
   2.1694E-01   2.2222E-01   1.5626E-03  0.0156
   2.2222E-01   2.2763E-01   1.5310E-03  0.0155
   2.2763E-01   2.3317E-01   1.5178E-03  0.0154
   2.3317E-01   2.3884E-01   1.5926E-03  0.0149
   2.3884E-01   2.4465E-01   1.5745E-03  0.0148
   2.4465E-01   2.5061E-01   1.5298E-03  0.0148
   2.5061E-01   2.5670E-01   1.5889E-03  0.0144
   2.5670E-01   2.6295E-01   1.5841E-03  0.0142
   2.6295E-01   2.6935E-01   1.6042E-03  0.0140
   2.6935E-01   2.7590E-01   1.5497E-03  0.0140
   2.7590E-01   2.8261E-01   1.5953E-03  0.0137
   2.8261E-01   2.8949E-01   1.5581E-03  0.0137
   2.8949E-01   2.9653E-01   1.5901E-03  0.0134
   2.9653E-01   3.0375E-01   1.5566E-03  0.0133
   3.0375E-01   3.1114E-01   1.5747E-03  0.0131
   3.1114E-01   3.1871E-01   1.5966E-03  0.0129
   3.1871E-01   3.2646E-01   1.6032E-03  0.0127
   3.2646E-01   3.3441E-01   1.6234E-03  0.0125
   3.3441E-01   3.4254E-01   1.5884E-03  0.0124
   3.4254E-01   3.5088E-01   1.5737E-03  0.0123
   3.5088E-01   3.5941E-01   1.6064E-03  0.0121
   3.5941E-01   3.6816E-01   1.6106E-03  0.0119
   3.6816E-01   3.7712E-01   1.5912E-03  0.0118
   3.7712E-01   3.8629E-01   1.5720E-03  0.0118
   3.8629E-01   3.9569E-01   1.5796E-03  0.0116
   3.9569E-01   4.0532E-01   1.5616E-03  0.0115
   4.0532E-01   4.1518E-01   1.6206E-03  0.0112
   4.1518E-01   4.2528E-01   1.5942E-03  0.0111
   4.2528E-01   4.3563E-01   1.5740E-03  0.0111
   4.3563E-01   4.4623E-01   1.5619E-03  0.0110
   4.4623E-01   4.5708E-01   1.5873E-03  0.0108
   4.5708E-01   4.6821E-01   1.5616E-03  0.0107
   4.6821E-01   4.7960E-01   1.5506E-03  0.0106
   4.7960E-01   4.9127E-01   1.5603E-03  0.0105
   4.9127E-01   5.0322E-01   1.5027E-03  0.0106
   5.0322E-01   5.1546E-01   1.5482E-03  0.0103
   5.1546E-01   5.2800E-01   1.5322E-03  0.0102
   5.2800E-01   5.4085E-01   1.5426E-03  0.0100
   5.4085E-01   5.5401E-01   1.4967E-03  0.0101
   5.5401E-01   5.6749E-01   1.5032E-03  0.0099
   5.6749E-01   5.8130E-01   1.4761E-03  0.0099
   5.8130E-01   5.9544E-01   1.4623E-03  0.0098
   5.9544E-01   6.0993E-01   1.4393E-03  0.0098
   6.0993E-01   6.2477E-01   1.4204E-03  0.0097
   6.2477E-01   6.3997E-01   1.4261E-03  0.0096
   6.3997E-01   6.5554E-01   1.3946E-03  0.0096
   6.5554E-01   6.7149E-01   1.3660E-03  0.0096
   6.7149E-01   6.8783E-01   1.3573E-03  0.0095
   6.8783E-01   7.0456E-01   1.3416E-03  0.0094
   7.0456E-01   7.2171E-01   1.3133E-03  0.0094
   7.2171E-01   7.3927E-01   1.2826E-03  0.0094
   7.3927E-01   7.5725E-01   1.2522E-03  0.0094
   7.5725E-01   7.7568E-01   1.2322E-03  0.0094
   7.7568E-01   7.9455E-01   1.2017E-03  0.0094
   7.9455E-01   8.1388E-01   1.1582E-03  0.0095
   8.1388E-01   8.3368E-01   1.1278E-03  0.0095
   8.3368E-01   8.5397E-01   1.1109E-03  0.0094
   8.5397E-01   8.7475E-01   1.0682E-03  0.0095
   8.7475E-01   8.9603E-01   1.0431E-03  0.0095
   8.9603E-01   9.1783E-01   9.9394E-04  0.0096
   9.1783E-01   9.4016E-01   9.7145E-04  0.0096
   9.4016E-01   9.6304E-01   9.3255E-04  0.0097
   9.6304E-01   9.8647E-01   8.8944E-04  0.0098
   9.8647E-01   1.0105E+00   8.6232E-04  0.0098
   1.0105E+00   1.0351E+00   8.4269E-04  0.0098
   1.0351E+00   1.0602E+00   8.4463E-04  0.0097
   1.0602E+00   1.0860E+00   8.5624E-04  0.0095
   1.0860E+00   1.1125E+00   8.4268E-04  0.0095
   1.1125E+00   1.1395E+00   8.6541E-04  0.0092
   1.1395E+00   1.1673E+00   8.5737E-04  0.0092
   1.1673E+00   1.1957E+00   8.7767E-04  0.0090
   1.1957E+00   1.2247E+00   8.8515E-04  0.0088
   1.2247E+00   1.2545E+00   8.8020E-04  0.0087
   1.2545E+00   1.2851E+00   8.6784E-04  0.0087
   1.2851E+00   1.3163E+00   8.8001E-04  0.0085
   1.3163E+00   1.3484E+00   8.7472E-04  0.0085
   1.3484E+00   1.3812E+00   8.7720E-04  0.0083
   1.3812E+00   1.4148E+00   8.7097E-04  0.0083
   1.4148E+00   1.4492E+00   8.6568E-04  0.0082
   1.4492E+00   1.4845E+00   8.5329E-04  0.0082
   1.4845E+00   1.5206E+00   8.4127E-04  0.0081
   1.5206E+00   1.5576E+00   8.1250E-04  0.0082
   1.5576E+00   1.5955E+00   8.0249E-04  0.0081
   1.5955E+00   1.6343E+00   8.0056E-04  0.0080
   1.6343E+00   1.6741E+00   7.9485E-04  0.0080
   1.6741E+00   1.7148E+00   7.9345E-04  0.0079
   1.7148E+00   1.7565E+00   7.6784E-04  0.0079
   1.7565E+00   1.7992E+00   7.5815E-04  0.0079
   1.7992E+00   1.8430E+00   7.4409E-04  0.0078
   1.8430E+00   1.8879E+00   7.2071E-04  0.0079
   1.8879E+00   1.9338E+00   6.9272E-04  0.0079
   1.9338E+00   1.9808E+00   6.9004E-04  0.0079
   1.9808E+00   2.0290E+00   6.7992E-04  0.0078
   2.0290E+00   2.0784E+00   6.6675E-04  0.0078
   2.0784E+00   2.1290E+00   6.3030E-04  0.0079
   2.1290E+00   2.1808E+00   6.2659E-04  0.0079
   2.1808E+00   2.2338E+00   5.9602E-04  0.0080
   2.2338E+00   2.2882E+00   5.7467E-04  0.0080
   2.2882E+00   2.3439E+00   5.6126E-04  0.0080
   2.3439E+00   2.4009E+00   5.3973E-04  0.0081
   2.4009E+00   2.4593E+00   5.2275E-04  0.0081
   2.4593E+00   2.5191E+00   4.9942E-04  0.0082
   2.5191E+00   2.5804E+00   4.7692E-04  0.0083
   2.5804E+00   2.6432E+00   4.6431E-04  0.0083
   2.6432E+00   2.7075E+00   4.4529E-04  0.0084
   2.7075E+00   2.7734E+00   4.1803E-04  0.0085
   2.7734E+00   2.8409E+00   3.9504E-04  0.0087
   2.8409E+00   2.9100E+00   3.8098E-04  0.0087
   2.9100E+00   2.9808E+00   3.5672E-04  0.0089
   2.9808E+00   3.0533E+00   3.4307E-04  0.0090
   3.0533E+00   3.1276E+00   3.2823E-04  0.0091
   3.1276E+00   3.2037E+00   3.1064E-04  0.0092
   3.2037E+00   3.2817E+00   3.0018E-04  0.0092
   3.2817E+00   3.3615E+00   2.7440E-04  0.0096
   3.3615E+00   3.4433E+00   2.6434E-04  0.0096
   3.4433E+00   3.5271E+00   2.4454E-04  0.0099
   3.5271E+00   3.6129E+00   2.3081E-04  0.0100
   3.6129E+00   3.7008E+00   2.2147E-04  0.0101
   3.7008E+00   3.7908E+00   2.0086E-04  0.0105
   3.7908E+00   3.8831E+00   1.8877E-04  0.0107
   3.8831E+00   3.9776E+00   1.8508E-04  0.0107
   3.9776E+00   4.0743E+00   1.6813E-04  0.0111
   4.0743E+00   4.1735E+00   1.5890E-04  0.0113
   4.1735E+00   4.2750E+00   1.4771E-04  0.0115
   4.2750E+00   4.3790E+00   1.4121E-04  0.0117
   4.3790E+00   4.4856E+00   1.2977E-04  0.0120
   4.4856E+00   4.5947E+00   1.1989E-04  0.0124
   4.5947E+00   4.7065E+00   1.1345E-04  0.0126
   4.7065E+00   4.8210E+00   1.0545E-04  0.0129
   4.8210E+00   4.9383E+00   9.9421E-05  0.0131
   4.9383E+00   5.0585E+00   8.9819E-05  0.0136
   5.0585E+00   5.1815E+00   8.2518E-05  0.0140
   5.1815E+00   5.3076E+00   7.8464E-05  0.0142
   5.3076E+00   5.4368E+00   7.2333E-05  0.0146
   5.4368E+00   5.5690E+00   6.7327E-05  0.0150
   5.5690E+00   5.7045E+00   6.4059E-05  0.0152
   5.7045E+00   5.8433E+00   5.9317E-05  0.0156
   5.8433E+00   5.9855E+00   5.3723E-05  0.0162
   5.9855E+00   6.1311E+00   5.0305E-05  0.0165
   6.1311E+00   6.2803E+00   4.7662E-05  0.0168
   6.2803E+00   6.4331E+00   4.1465E-05  0.0178
   6.4331E+00   6.5896E+00   3.9841E-05  0.0179
   6.5896E+00   6.7500E+00   3.7566E-05  0.0182
   6.7500E+00   6.9142E+00   3.3824E-05  0.0190
   6.9142E+00   7.0824E+00   3.0780E-05  0.0196
   7.0824E+00   7.2548E+00   2.9399E-05  0.0199
   7.2548E+00   7.4313E+00   2.6485E-05  0.0207
   7.4313E+00   7.6121E+00   2.4335E-05  0.0213
   7.6121E+00   7.7973E+00   2.1905E-05  0.0222
   7.7973E+00   7.9870E+00   2.0420E-05  0.0227
   7.9870E+00   8.1813E+00   1.8602E-05  0.0235
   8.1813E+00   8.3804E+00   1.6643E-05  0.0246
   8.3804E+00   8.5843E+00   1.5566E-05  0.0251
   8.5843E+00   8.7931E+00   1.4287E-05  0.0259
   8.7931E+00   9.0071E+00   1.2536E-05  0.0273
   9.0071E+00   9.2262E+00   1.1609E-05  0.0280
   9.2262E+00   9.4507E+00   1.1030E-05  0.0284
   9.4507E+00   9.6807E+00   1.0116E-05  0.0293
   9.6807E+00   9.9162E+00   9.3276E-06  0.0301
   9.9162E+00   1.0157E+01   8.3061E-06  0.0316
   1.0157E+01   1.0405E+01   7.4735E-06  0.0329
   1.0405E+01   1.0658E+01   7.2288E-06  0.0330
   1.0658E+01   1.0917E+01   6.4825E-06  0.0345
   1.0917E+01   1.1183E+01   6.0688E-06  0.0352
   1.1183E+01   1.1455E+01   5.5277E-06  0.0364
   1.1455E+01   1.1733E+01   4.7434E-06  0.0389
   1.1733E+01   1.2019E+01   4.3085E-06  0.0403
   1.2019E+01   1.2311E+01   4.2916E-06  0.0399
   1.2311E+01   1.2611E+01   3.8959E-06  0.0414
   1.2611E+01   1.2918E+01   3.4514E-06  0.0434
   1.2918E+01   1.3232E+01   3.6271E-06  0.0419
   1.3232E+01   1.3554E+01   2.7582E-06  0.0474
   1.3554E+01   1.3884E+01   2.8261E-06  0.0463
   1.3884E+01   1.4222E+01   2.3564E-06  0.0501
   1.4222E+01   1.4568E+01   2.1733E-06  0.0516
   1.4568E+01   1.4922E+01   2.0060E-06  0.0530
   1.4922E+01   1.5285E+01   2.0878E-06  0.0514
   1.5285E+01   1.5657E+01   1.8769E-06  0.0535
   1.5657E+01   1.6038E+01   1.7535E-06  0.0547
   1.6038E+01   1.6428E+01   1.6350E-06  0.0560
   1.6428E+01   1.6828E+01   1.6662E-06  0.0548
   1.6828E+01   1.7237E+01   1.3922E-06  0.0592
   1.7237E+01   1.7657E+01   1.2685E-06  0.0613
   1.7657E+01   1.8086E+01   1.2989E-06  0.0599
   1.8086E+01   1.8526E+01   1.1317E-06  0.0634
   1.8526E+01   1.8977E+01   1.1980E-06  0.0609
   1.8977E+01   1.9439E+01   1.0656E-06  0.0638
   1.9439E+01   1.9912E+01   1.0233E-06  0.0643
   1.9912E+01   2.0396E+01   8.8756E-07  0.0682
   2.0396E+01   2.0893E+01   9.4306E-07  0.0654
   2.0893E+01   2.1401E+01   9.0885E-07  0.0658
   2.1401E+01   2.1922E+01   9.1799E-07  0.0647
   2.1922E+01   2.2455E+01   7.4245E-07  0.0711
   2.2455E+01   2.3001E+01   6.4428E-07  0.0754
   2.3001E+01   2.3561E+01   6.6471E-07  0.0733
   2.3561E+01   2.4134E+01   6.8381E-07  0.0714
   2.4134E+01   2.4721E+01   5.4155E-07  0.0793
   2.4721E+01   2.5323E+01   4.4888E-07  0.0861
   2.5323E+01   2.5939E+01   4.4796E-07  0.0851
   2.5939E+01   2.6570E+01   4.3732E-07  0.0851
   2.6570E+01   2.7217E+01   4.3003E-07  0.0848
   2.7217E+01   2.7879E+01   3.5941E-07  0.0917
   2.7879E+01   2.8557E+01   3.5087E-07  0.0917
   2.8557E+01   2.9252E+01   3.3102E-07  0.0933
   2.9252E+01   2.9964E+01   3.1754E-07  0.0941
   2.9964E+01   3.0693E+01   2.6062E-07  0.1026
   3.0693E+01   3.1440E+01   3.0531E-07  0.0937
   3.1440E+01   3.2205E+01   2.3531E-07  0.1054
   3.2205E+01   3.2988E+01   2.2206E-07  0.1072
   3.2988E+01   3.3791E+01   2.0931E-07  0.1091
   3.3791E+01   3.4613E+01   1.2406E-07  0.1400
   3.4613E+01   3.5455E+01   1.1637E-07  0.1429
   3.5455E+01   3.6318E+01   1.4374E-07  0.1270
   3.6318E+01   3.7201E+01   1.0864E-07  0.1443
   3.7201E+01   3.8106E+01   1.3479E-07  0.1280
   3.8106E+01   3.9034E+01   1.0138E-07  0.1459
   3.9034E+01   3.9983E+01   7.3706E-08  0.1690
   3.9983E+01   4.0956E+01   9.4570E-08  0.1474
   4.0956E+01   4.1953E+01   6.6232E-08  0.1741
   4.1953E+01   4.2973E+01   4.7025E-08  0.2041
   4.2973E+01   4.4019E+01   5.7385E-08  0.1826
   4.4019E+01   4.5090E+01   4.4817E-08  0.2041
   4.5090E+01   4.6187E+01   4.1930E-08  0.2085
   4.6187E+01   4.7311E+01   3.0255E-08  0.2425
   4.7311E+01   4.8462E+01   3.8224E-08  0.2132
   4.8462E+01   4.9641E+01   2.5443E-08  0.2582
   4.9641E+01   5.0849E+01   2.4838E-08  0.2582
   5.0849E+01   5.2086E+01   1.9399E-08  0.2887
   5.2086E+01   5.3353E+01   2.2094E-08  0.2673
   5.3353E+01   5.4651E+01   1.5407E-08  0.3162
   5.4651E+01   5.5981E+01   7.5204E-09  0.4472
   5.5981E+01   5.7343E+01   7.3418E-09  0.4472
   5.7343E+01   5.8738E+01   5.7339E-09  0.5000
   5.8738E+01   6.0168E+01   8.3966E-09  0.4082
   6.0168E+01   6.1632E+01   5.4648E-09  0.5000
   6.1632E+01   6.3131E+01   2.6675E-09  0.7071
   6.3131E+01   6.4667E+01   5.2082E-09  0.5000
   6.4667E+01   6.6240E+01   3.8134E-09  0.5774
   6.6240E+01   6.7852E+01   1.2409E-09  1.0000
   6.7852E+01   6.9503E+01   0.0000E+00  0.0000
   6.9503E+01   7.1194E+01   0.0000E+00  0.0000
   7.1194E+01   7.2926E+01   0.0000E+00  0.0000
   7.2926E+01   7.4701E+01   0.0000E+00  0.0000
   7.4701E+01   7.6518E+01   0.0000E+00  0.0000
   7.6518E+01   7.8380E+01   0.0000E+00  0.0000
   7.8380E+01   8.0287E+01   0.0000E+00  0.0000
   8.0287E+01   8.2240E+01   0.0000E+00  0.0000
   8.2240E+01   8.4241E+01   0.0000E+00  0.0000
   8.4241E+01   8.6291E+01   0.0000E+00  0.0000
   8.6291E+01   8.8391E+01   0.0000E+00  0.0000
   8.8391E+01   9.0541E+01   0.0000E+00  0.0000
   9.0541E+01   9.2744E+01   0.0000E+00  0.0000
   9.2744E+01   9.5001E+01   0.0000E+00  0.0000
   9.5001E+01   9.7312E+01   0.0000E+00  0.0000
   9.7312E+01   9.9680E+01   0.0000E+00  0.0000
   9.9680E+01   1.0211E+02   0.0000E+00  0.0000
   1.0211E+02   1.0459E+02   0.0000E+00  0.0000
   1.0459E+02   1.0713E+02   0.0000E+00  0.0000
   1.0713E+02   1.0974E+02   0.0000E+00  0.0000
   1.0974E+02   1.1241E+02   0.0000E+00  0.0000
   1.1241E+02   1.1515E+02   0.0000E+00  0.0000
   1.1515E+02   1.1795E+02   0.0000E+00  0.0000
   1.1795E+02   1.2082E+02   0.0000E+00  0.0000
   1.2082E+02   1.2376E+02   0.0000E+00  0.0000
   1.2376E+02   1.2677E+02   0.0000E+00  0.0000
   1.2677E+02   1.2985E+02   0.0000E+00  0.0000
   1.2985E+02   1.3301E+02   0.0000E+00  0.0000
   1.3301E+02   1.3625E+02   0.0000E+00  0.0000
   1.3625E+02   1.3956E+02   0.0000E+00  0.0000
   1.3956E+02   1.4296E+02   0.0000E+00  0.0000
   1.4296E+02   1.4644E+02   0.0000E+00  0.0000
   1.4644E+02   1.5000E+02   0.0000E+00  0.0000

#   sum over                 2.1512E-05
'no. =    1   reg = 120 - 220'
msuc: {\huge [t-cross] in region mesh}
msdr: {\it plotted by \ANGEL \version}
msdl: {\it calculated by \PHITS  3.26}
wt: s(0.7)
\vspace{-3}
  region surface crossing
  area  &=&   1.0000E+00 [cm^2]
e:
 
# Information for Restart Calculation
# This calculation was newly started
# istdev =  2 # 1:Batch variance, 2:History variance
# resc2  = 5.00000000000000000E+08 # Total source weight or Total source weight / maxcas
# resc3  = 5.00000000000000000E+08 # Total history number or Total batch number
# maxcas =   500000000 # History / Batch, only used for istdev=1
# bitrseed = 1101101111010011011000101101110001100110110010110001010100010001 # bit data of rseed
