[ T-Cross ]
    title = [t-cross] in region mesh
     mesh =  reg            # mesh type is region-wise
      reg =    1            # number of crossing regions
      non     r-from    r-to       area
      1       115       215        1.000000    
   e-type =    3            # e-mesh is log given by emin, emax and ne
     emin =  1.0000000E-02  # minimum value of e-mesh points
     emax =   150.0000      # maximum value of e-mesh points
#    edel =  2.4039514E-02  # mesh width of e-mesh points
       ne =    400          # number of e-mesh points
#    data = ( e(i), i = 1, ne + 1 )
#           1.00000E-02  1.02433E-02  1.04925E-02  1.07478E-02  1.10093E-02
#           1.12772E-02  1.15516E-02  1.18326E-02  1.21205E-02  1.24154E-02
#           1.27175E-02  1.30269E-02  1.33439E-02  1.36686E-02  1.40011E-02
#           1.43418E-02  1.46907E-02  1.50482E-02  1.54143E-02  1.57894E-02
#           1.61735E-02  1.65670E-02  1.69701E-02  1.73830E-02  1.78060E-02
#           1.82392E-02  1.86830E-02  1.91375E-02  1.96032E-02  2.00801E-02
#           2.05687E-02  2.10692E-02  2.15818E-02  2.21069E-02  2.26448E-02
#           2.31957E-02  2.37601E-02  2.43382E-02  2.49304E-02  2.55369E-02
#           2.61583E-02  2.67947E-02  2.74467E-02  2.81145E-02  2.87985E-02
#           2.94992E-02  3.02169E-02  3.09521E-02  3.17052E-02  3.24766E-02
#           3.32668E-02  3.40762E-02  3.49053E-02  3.57546E-02  3.66246E-02
#           3.75157E-02  3.84284E-02  3.93634E-02  4.03212E-02  4.13022E-02
#           4.23071E-02  4.33365E-02  4.43909E-02  4.54710E-02  4.65773E-02
#           4.77106E-02  4.88714E-02  5.00605E-02  5.12785E-02  5.25262E-02
#           5.38042E-02  5.51133E-02  5.64542E-02  5.78278E-02  5.92348E-02
#           6.06760E-02  6.21523E-02  6.36645E-02  6.52135E-02  6.68002E-02
#           6.84255E-02  7.00904E-02  7.17957E-02  7.35426E-02  7.53319E-02
#           7.71648E-02  7.90423E-02  8.09655E-02  8.29354E-02  8.49533E-02
#           8.70203E-02  8.91376E-02  9.13064E-02  9.35279E-02  9.58035E-02
#           9.81345E-02  1.00522E-01  1.02968E-01  1.05473E-01  1.08040E-01
#           1.10668E-01  1.13361E-01  1.16119E-01  1.18944E-01  1.21838E-01
#           1.24803E-01  1.27839E-01  1.30950E-01  1.34136E-01  1.37399E-01
#           1.40742E-01  1.44167E-01  1.47675E-01  1.51268E-01  1.54948E-01
#           1.58718E-01  1.62580E-01  1.66535E-01  1.70587E-01  1.74738E-01
#           1.78989E-01  1.83344E-01  1.87805E-01  1.92375E-01  1.97055E-01
#           2.01850E-01  2.06761E-01  2.11792E-01  2.16945E-01  2.22223E-01
#           2.27630E-01  2.33169E-01  2.38842E-01  2.44653E-01  2.50605E-01
#           2.56703E-01  2.62949E-01  2.69346E-01  2.75900E-01  2.82613E-01
#           2.89489E-01  2.96532E-01  3.03747E-01  3.11138E-01  3.18708E-01
#           3.26462E-01  3.34405E-01  3.42542E-01  3.50876E-01  3.59413E-01
#           3.68158E-01  3.77116E-01  3.86291E-01  3.95690E-01  4.05317E-01
#           4.15179E-01  4.25281E-01  4.35628E-01  4.46227E-01  4.57084E-01
#           4.68205E-01  4.79597E-01  4.91266E-01  5.03219E-01  5.15463E-01
#           5.28005E-01  5.40851E-01  5.54011E-01  5.67490E-01  5.81298E-01
#           5.95441E-01  6.09929E-01  6.24769E-01  6.39970E-01  6.55541E-01
#           6.71491E-01  6.87828E-01  7.04564E-01  7.21706E-01  7.39266E-01
#           7.57253E-01  7.75678E-01  7.94551E-01  8.13883E-01  8.33685E-01
#           8.53969E-01  8.74747E-01  8.96030E-01  9.17831E-01  9.40163E-01
#           9.63038E-01  9.86469E-01  1.01047E+00  1.03506E+00  1.06024E+00
#           1.08604E+00  1.11246E+00  1.13953E+00  1.16725E+00  1.19565E+00
#           1.22474E+00  1.25454E+00  1.28507E+00  1.31633E+00  1.34836E+00
#           1.38117E+00  1.41477E+00  1.44920E+00  1.48446E+00  1.52057E+00
#           1.55757E+00  1.59547E+00  1.63429E+00  1.67405E+00  1.71478E+00
#           1.75650E+00  1.79924E+00  1.84302E+00  1.88786E+00  1.93379E+00
#           1.98084E+00  2.02904E+00  2.07841E+00  2.12898E+00  2.18078E+00
#           2.23384E+00  2.28819E+00  2.34386E+00  2.40089E+00  2.45930E+00
#           2.51914E+00  2.58043E+00  2.64322E+00  2.70753E+00  2.77341E+00
#           2.84088E+00  2.91001E+00  2.98081E+00  3.05333E+00  3.12762E+00
#           3.20372E+00  3.28167E+00  3.36152E+00  3.44330E+00  3.52708E+00
#           3.61290E+00  3.70080E+00  3.79085E+00  3.88308E+00  3.97756E+00
#           4.07434E+00  4.17347E+00  4.27501E+00  4.37903E+00  4.48557E+00
#           4.59471E+00  4.70650E+00  4.82102E+00  4.93832E+00  5.05847E+00
#           5.18155E+00  5.30762E+00  5.43676E+00  5.56904E+00  5.70453E+00
#           5.84333E+00  5.98550E+00  6.13114E+00  6.28031E+00  6.43312E+00
#           6.58964E+00  6.74997E+00  6.91420E+00  7.08243E+00  7.25475E+00
#           7.43126E+00  7.61207E+00  7.79728E+00  7.98700E+00  8.18133E+00
#           8.38038E+00  8.58428E+00  8.79315E+00  9.00709E+00  9.22624E+00
#           9.45072E+00  9.68067E+00  9.91620E+00  1.01575E+01  1.04046E+01
#           1.06578E+01  1.09171E+01  1.11827E+01  1.14548E+01  1.17335E+01
#           1.20190E+01  1.23114E+01  1.26109E+01  1.29178E+01  1.32321E+01
#           1.35540E+01  1.38838E+01  1.42216E+01  1.45676E+01  1.49221E+01
#           1.52851E+01  1.56570E+01  1.60380E+01  1.64282E+01  1.68279E+01
#           1.72374E+01  1.76568E+01  1.80864E+01  1.85264E+01  1.89772E+01
#           1.94389E+01  1.99119E+01  2.03963E+01  2.08926E+01  2.14009E+01
#           2.19216E+01  2.24550E+01  2.30014E+01  2.35610E+01  2.41343E+01
#           2.47215E+01  2.53230E+01  2.59391E+01  2.65702E+01  2.72167E+01
#           2.78789E+01  2.85572E+01  2.92520E+01  2.99637E+01  3.06928E+01
#           3.14396E+01  3.22045E+01  3.29881E+01  3.37907E+01  3.46128E+01
#           3.54550E+01  3.63177E+01  3.72013E+01  3.81064E+01  3.90336E+01
#           3.99833E+01  4.09561E+01  4.19526E+01  4.29734E+01  4.40189E+01
#           4.50900E+01  4.61870E+01  4.73108E+01  4.84619E+01  4.96410E+01
#           5.08488E+01  5.20860E+01  5.33533E+01  5.46514E+01  5.59812E+01
#           5.73432E+01  5.87384E+01  6.01676E+01  6.16315E+01  6.31311E+01
#           6.46671E+01  6.62405E+01  6.78522E+01  6.95031E+01  7.11941E+01
#           7.29263E+01  7.47007E+01  7.65182E+01  7.83800E+01  8.02870E+01
#           8.22405E+01  8.42414E+01  8.62911E+01  8.83906E+01  9.05412E+01
#           9.27442E+01  9.50007E+01  9.73122E+01  9.96799E+01  1.02105E+02
#           1.04589E+02  1.07134E+02  1.09741E+02  1.12411E+02  1.15146E+02
#           1.17948E+02  1.20817E+02  1.23757E+02  1.26768E+02  1.29852E+02
#           1.33012E+02  1.36248E+02  1.39563E+02  1.42959E+02  1.46437E+02
#           1.50000E+02
     unit =    2            # unit is [1/cm^2/(MeV/n)/source]
     axis =  eng            # axis of output
     file = detector-16.out  # file name of output for the above axis
   output = f-curr          # surface crossing forward current spectrum
     part =  neutron  
# kf/name :  2112     
#    used :        main (  %)        temp (  %)       total (  %)
#  memory :         414 (  0)           0 (  0)         414 (  0)

#------------------------------------------------------------------------------
#newpage:
#   no. =    1   reg = 115 - 215

x: Energy [MeV/n]
y:  F-Curr [1/cm^2/(MeV/n)/source]         
p: xlog ylog afac(0.8) form(0.9)
h: n            x            y(neutron ),hh0l   n 
#  e-lower      e-upper      neutron     r.err 
   1.0000E-02   1.0243E-02   8.1789E-03  0.0317
   1.0243E-02   1.0493E-02   8.4982E-03  0.0307
   1.0493E-02   1.0748E-02   8.2729E-03  0.0308
   1.0748E-02   1.1009E-02   8.6882E-03  0.0297
   1.1009E-02   1.1277E-02   8.6835E-03  0.0293
   1.1277E-02   1.1552E-02   8.4408E-03  0.0294
   1.1552E-02   1.1833E-02   8.2474E-03  0.0294
   1.1833E-02   1.2121E-02   8.4544E-03  0.0287
   1.2121E-02   1.2415E-02   8.5825E-03  0.0281
   1.2415E-02   1.2718E-02   7.8589E-03  0.0290
   1.2718E-02   1.3027E-02   8.0988E-03  0.0283
   1.3027E-02   1.3344E-02   7.7866E-03  0.0285
   1.3344E-02   1.3669E-02   8.0513E-03  0.0277
   1.3669E-02   1.4001E-02   7.6376E-03  0.0281
   1.4001E-02   1.4342E-02   8.0198E-03  0.0271
   1.4342E-02   1.4691E-02   7.7318E-03  0.0272
   1.4691E-02   1.5048E-02   7.5426E-03  0.0272
   1.5048E-02   1.5414E-02   8.0763E-03  0.0260
   1.5414E-02   1.5789E-02   7.7591E-03  0.0262
   1.5789E-02   1.6174E-02   7.6789E-03  0.0260
   1.6174E-02   1.6567E-02   7.3771E-03  0.0262
   1.6567E-02   1.6970E-02   7.7700E-03  0.0253
   1.6970E-02   1.7383E-02   7.4353E-03  0.0255
   1.7383E-02   1.7806E-02   7.4786E-03  0.0251
   1.7806E-02   1.8239E-02   7.4140E-03  0.0250
   1.8239E-02   1.8683E-02   7.5669E-03  0.0244
   1.8683E-02   1.9138E-02   7.5192E-03  0.0242
   1.9138E-02   1.9603E-02   7.3577E-03  0.0242
   1.9603E-02   2.0080E-02   7.1327E-03  0.0242
   2.0080E-02   2.0569E-02   7.2600E-03  0.0237
   2.0569E-02   2.1069E-02   7.1176E-03  0.0237
   2.1069E-02   2.1582E-02   7.0538E-03  0.0235
   2.1582E-02   2.2107E-02   6.9701E-03  0.0234
   2.2107E-02   2.2645E-02   7.1057E-03  0.0229
   2.2645E-02   2.3196E-02   6.9405E-03  0.0229
   2.3196E-02   2.3760E-02   7.0468E-03  0.0224
   2.3760E-02   2.4338E-02   6.7808E-03  0.0226
   2.4338E-02   2.4930E-02   6.6890E-03  0.0225
   2.4930E-02   2.5537E-02   6.8747E-03  0.0219
   2.5537E-02   2.6158E-02   6.7806E-03  0.0218
   2.6158E-02   2.6795E-02   6.6054E-03  0.0218
   2.6795E-02   2.7447E-02   6.6433E-03  0.0215
   2.7447E-02   2.8114E-02   6.4885E-03  0.0215
   2.8114E-02   2.8799E-02   6.5229E-03  0.0212
   2.8799E-02   2.9499E-02   6.2467E-03  0.0214
   2.9499E-02   3.0217E-02   6.1471E-03  0.0213
   3.0217E-02   3.0952E-02   6.2785E-03  0.0208
   3.0952E-02   3.1705E-02   6.1799E-03  0.0207
   3.1705E-02   3.2477E-02   6.3325E-03  0.0202
   3.2477E-02   3.3267E-02   6.2201E-03  0.0202
   3.3267E-02   3.4076E-02   6.2614E-03  0.0199
   3.4076E-02   3.4905E-02   6.1271E-03  0.0198
   3.4905E-02   3.5755E-02   5.9251E-03  0.0199
   3.5755E-02   3.6625E-02   6.0533E-03  0.0195
   3.6625E-02   3.7516E-02   5.8669E-03  0.0196
   3.7516E-02   3.8428E-02   5.7166E-03  0.0196
   3.8428E-02   3.9363E-02   5.8696E-03  0.0191
   3.9363E-02   4.0321E-02   5.9202E-03  0.0188
   4.0321E-02   4.1302E-02   5.7296E-03  0.0189
   4.1302E-02   4.2307E-02   5.7438E-03  0.0186
   4.2307E-02   4.3337E-02   5.5228E-03  0.0188
   4.3337E-02   4.4391E-02   5.6648E-03  0.0183
   4.4391E-02   4.5471E-02   5.4441E-03  0.0184
   4.5471E-02   4.6577E-02   5.5742E-03  0.0180
   4.6577E-02   4.7711E-02   5.3792E-03  0.0181
   4.7711E-02   4.8871E-02   5.2824E-03  0.0181
   4.8871E-02   5.0061E-02   5.4227E-03  0.0176
   5.0061E-02   5.1279E-02   5.4466E-03  0.0174
   5.1279E-02   5.2526E-02   5.2371E-03  0.0175
   5.2526E-02   5.3804E-02   5.2934E-03  0.0172
   5.3804E-02   5.5113E-02   5.2525E-03  0.0171
   5.5113E-02   5.6454E-02   5.0181E-03  0.0172
   5.6454E-02   5.7828E-02   5.2112E-03  0.0167
   5.7828E-02   5.9235E-02   5.0206E-03  0.0168
   5.9235E-02   6.0676E-02   4.8819E-03  0.0169
   6.0676E-02   6.2152E-02   5.0220E-03  0.0164
   6.2152E-02   6.3665E-02   4.8512E-03  0.0165
   6.3665E-02   6.5214E-02   4.7385E-03  0.0165
   6.5214E-02   6.6800E-02   4.8976E-03  0.0160
   6.6800E-02   6.8426E-02   4.8871E-03  0.0159
   6.8426E-02   7.0090E-02   4.7061E-03  0.0160
   7.0090E-02   7.1796E-02   4.7017E-03  0.0158
   7.1796E-02   7.3543E-02   4.7291E-03  0.0156
   7.3543E-02   7.5332E-02   4.5972E-03  0.0156
   7.5332E-02   7.7165E-02   4.6659E-03  0.0153
   7.7165E-02   7.9042E-02   4.5263E-03  0.0153
   7.9042E-02   8.0965E-02   4.4682E-03  0.0153
   8.0965E-02   8.2935E-02   4.6539E-03  0.0148
   8.2935E-02   8.4953E-02   4.4730E-03  0.0149
   8.4953E-02   8.7020E-02   4.3639E-03  0.0149
   8.7020E-02   8.9138E-02   4.4283E-03  0.0146
   8.9138E-02   9.1306E-02   4.3024E-03  0.0146
   9.1306E-02   9.3528E-02   4.2866E-03  0.0145
   9.3528E-02   9.5804E-02   4.2028E-03  0.0145
   9.5804E-02   9.8134E-02   4.1879E-03  0.0143
   9.8134E-02   1.0052E-01   4.1178E-03  0.0143
   1.0052E-01   1.0297E-01   4.0539E-03  0.0142
   1.0297E-01   1.0547E-01   4.0618E-03  0.0140
   1.0547E-01   1.0804E-01   3.9899E-03  0.0140
   1.0804E-01   1.1067E-01   3.9845E-03  0.0138
   1.1067E-01   1.1336E-01   4.0340E-03  0.0136
   1.1336E-01   1.1612E-01   3.8678E-03  0.0137
   1.1612E-01   1.1894E-01   3.8099E-03  0.0136
   1.1894E-01   1.2184E-01   3.8970E-03  0.0133
   1.2184E-01   1.2480E-01   3.7869E-03  0.0133
   1.2480E-01   1.2784E-01   3.7589E-03  0.0132
   1.2784E-01   1.3095E-01   3.7072E-03  0.0132
   1.3095E-01   1.3414E-01   3.5912E-03  0.0132
   1.3414E-01   1.3740E-01   3.6674E-03  0.0129
   1.3740E-01   1.4074E-01   3.5255E-03  0.0130
   1.4074E-01   1.4417E-01   3.5554E-03  0.0128
   1.4417E-01   1.4767E-01   3.5337E-03  0.0127
   1.4767E-01   1.5127E-01   3.4275E-03  0.0127
   1.5127E-01   1.5495E-01   3.3349E-03  0.0128
   1.5495E-01   1.5872E-01   3.4053E-03  0.0125
   1.5872E-01   1.6258E-01   3.2721E-03  0.0126
   1.6258E-01   1.6654E-01   3.2776E-03  0.0124
   1.6654E-01   1.7059E-01   3.2784E-03  0.0123
   1.7059E-01   1.7474E-01   3.3104E-03  0.0121
   1.7474E-01   1.7899E-01   3.1847E-03  0.0122
   1.7899E-01   1.8334E-01   3.0703E-03  0.0122
   1.8334E-01   1.8781E-01   3.1543E-03  0.0119
   1.8781E-01   1.9237E-01   3.1041E-03  0.0119
   1.9237E-01   1.9706E-01   3.0539E-03  0.0118
   1.9706E-01   2.0185E-01   3.0570E-03  0.0117
   2.0185E-01   2.0676E-01   2.9647E-03  0.0117
   2.0676E-01   2.1179E-01   2.9730E-03  0.0116
   2.1179E-01   2.1694E-01   2.9221E-03  0.0115
   2.1694E-01   2.2222E-01   2.8848E-03  0.0115
   2.2222E-01   2.2763E-01   2.8836E-03  0.0113
   2.2763E-01   2.3317E-01   2.8107E-03  0.0113
   2.3317E-01   2.3884E-01   2.7551E-03  0.0113
   2.3884E-01   2.4465E-01   2.7142E-03  0.0113
   2.4465E-01   2.5061E-01   2.6345E-03  0.0113
   2.5061E-01   2.5670E-01   2.6749E-03  0.0111
   2.5670E-01   2.6295E-01   2.6363E-03  0.0110
   2.6295E-01   2.6935E-01   2.5643E-03  0.0110
   2.6935E-01   2.7590E-01   2.5309E-03  0.0110
   2.7590E-01   2.8261E-01   2.5530E-03  0.0108
   2.8261E-01   2.8949E-01   2.5005E-03  0.0108
   2.8949E-01   2.9653E-01   2.4519E-03  0.0108
   2.9653E-01   3.0375E-01   2.4535E-03  0.0106
   3.0375E-01   3.1114E-01   2.3923E-03  0.0106
   3.1114E-01   3.1871E-01   2.3471E-03  0.0106
   3.1871E-01   3.2646E-01   2.3389E-03  0.0105
   3.2646E-01   3.3441E-01   2.2527E-03  0.0106
   3.3441E-01   3.4254E-01   2.2837E-03  0.0104
   3.4254E-01   3.5088E-01   2.2382E-03  0.0104
   3.5088E-01   3.5941E-01   2.2150E-03  0.0103
   3.5941E-01   3.6816E-01   2.1262E-03  0.0104
   3.6816E-01   3.7712E-01   2.1174E-03  0.0103
   3.7712E-01   3.8629E-01   2.0700E-03  0.0103
   3.8629E-01   3.9569E-01   2.0634E-03  0.0102
   3.9569E-01   4.0532E-01   2.0384E-03  0.0101
   4.0532E-01   4.1518E-01   1.9620E-03  0.0102
   4.1518E-01   4.2528E-01   1.9577E-03  0.0101
   4.2528E-01   4.3563E-01   1.9064E-03  0.0101
   4.3563E-01   4.4623E-01   1.8824E-03  0.0100
   4.4623E-01   4.5708E-01   1.9002E-03  0.0098
   4.5708E-01   4.6821E-01   1.7941E-03  0.0100
   4.6821E-01   4.7960E-01   1.8085E-03  0.0099
   4.7960E-01   4.9127E-01   1.7435E-03  0.0099
   4.9127E-01   5.0322E-01   1.7388E-03  0.0098
   5.0322E-01   5.1546E-01   1.7013E-03  0.0098
   5.1546E-01   5.2800E-01   1.6490E-03  0.0098
   5.2800E-01   5.4085E-01   1.6059E-03  0.0098
   5.4085E-01   5.5401E-01   1.5809E-03  0.0098
   5.5401E-01   5.6749E-01   1.5729E-03  0.0097
   5.6749E-01   5.8130E-01   1.5275E-03  0.0097
   5.8130E-01   5.9544E-01   1.5126E-03  0.0097
   5.9544E-01   6.0993E-01   1.4920E-03  0.0096
   6.0993E-01   6.2477E-01   1.4137E-03  0.0098
   6.2477E-01   6.3997E-01   1.4108E-03  0.0097
   6.3997E-01   6.5554E-01   1.3746E-03  0.0097
   6.5554E-01   6.7149E-01   1.3547E-03  0.0096
   6.7149E-01   6.8783E-01   1.2877E-03  0.0098
   6.8783E-01   7.0456E-01   1.2774E-03  0.0097
   7.0456E-01   7.2171E-01   1.2305E-03  0.0097
   7.2171E-01   7.3927E-01   1.1949E-03  0.0098
   7.3927E-01   7.5725E-01   1.1759E-03  0.0097
   7.5725E-01   7.7568E-01   1.1296E-03  0.0098
   7.7568E-01   7.9455E-01   1.1002E-03  0.0098
   7.9455E-01   8.1388E-01   1.0870E-03  0.0098
   8.1388E-01   8.3368E-01   1.0506E-03  0.0098
   8.3368E-01   8.5397E-01   1.0081E-03  0.0099
   8.5397E-01   8.7475E-01   9.9563E-04  0.0098
   8.7475E-01   8.9603E-01   9.4915E-04  0.0099
   8.9603E-01   9.1783E-01   9.3536E-04  0.0099
   9.1783E-01   9.4016E-01   8.8610E-04  0.0101
   9.4016E-01   9.6304E-01   8.7117E-04  0.0100
   9.6304E-01   9.8647E-01   8.3533E-04  0.0101
   9.8647E-01   1.0105E+00   8.0628E-04  0.0102
   1.0105E+00   1.0351E+00   8.2280E-04  0.0099
   1.0351E+00   1.0602E+00   8.3427E-04  0.0098
   1.0602E+00   1.0860E+00   8.5295E-04  0.0095
   1.0860E+00   1.1125E+00   8.6497E-04  0.0094
   1.1125E+00   1.1395E+00   8.9869E-04  0.0091
   1.1395E+00   1.1673E+00   9.1594E-04  0.0089
   1.1673E+00   1.1957E+00   9.4390E-04  0.0086
   1.1957E+00   1.2247E+00   9.6173E-04  0.0085
   1.2247E+00   1.2545E+00   9.8393E-04  0.0083
   1.2545E+00   1.2851E+00   9.8801E-04  0.0081
   1.2851E+00   1.3163E+00   1.0050E-03  0.0080
   1.3163E+00   1.3484E+00   1.0257E-03  0.0078
   1.3484E+00   1.3812E+00   1.0513E-03  0.0076
   1.3812E+00   1.4148E+00   1.0878E-03  0.0074
   1.4148E+00   1.4492E+00   1.0811E-03  0.0073
   1.4492E+00   1.4845E+00   1.0836E-03  0.0072
   1.4845E+00   1.5206E+00   1.0888E-03  0.0071
   1.5206E+00   1.5576E+00   1.0777E-03  0.0071
   1.5576E+00   1.5955E+00   1.1220E-03  0.0069
   1.5955E+00   1.6343E+00   1.1232E-03  0.0068
   1.6343E+00   1.6741E+00   1.1518E-03  0.0066
   1.6741E+00   1.7148E+00   1.1891E-03  0.0064
   1.7148E+00   1.7565E+00   1.1893E-03  0.0064
   1.7565E+00   1.7992E+00   1.1690E-03  0.0063
   1.7992E+00   1.8430E+00   1.1960E-03  0.0062
   1.8430E+00   1.8879E+00   1.1868E-03  0.0061
   1.8879E+00   1.9338E+00   1.1985E-03  0.0060
   1.9338E+00   1.9808E+00   1.2275E-03  0.0059
   1.9808E+00   2.0290E+00   1.2234E-03  0.0058
   2.0290E+00   2.0784E+00   1.2352E-03  0.0057
   2.0784E+00   2.1290E+00   1.2089E-03  0.0057
   2.1290E+00   2.1808E+00   1.1964E-03  0.0057
   2.1808E+00   2.2338E+00   1.2067E-03  0.0056
   2.2338E+00   2.2882E+00   1.2180E-03  0.0055
   2.2882E+00   2.3439E+00   1.2120E-03  0.0054
   2.3439E+00   2.4009E+00   1.2340E-03  0.0053
   2.4009E+00   2.4593E+00   1.2482E-03  0.0052
   2.4593E+00   2.5191E+00   1.2176E-03  0.0052
   2.5191E+00   2.5804E+00   1.2000E-03  0.0052
   2.5804E+00   2.6432E+00   1.1831E-03  0.0052
   2.6432E+00   2.7075E+00   1.1742E-03  0.0051
   2.7075E+00   2.7734E+00   1.1728E-03  0.0051
   2.7734E+00   2.8409E+00   1.1594E-03  0.0051
   2.8409E+00   2.9100E+00   1.1551E-03  0.0050
   2.9100E+00   2.9808E+00   1.1666E-03  0.0049
   2.9808E+00   3.0533E+00   1.1499E-03  0.0049
   3.0533E+00   3.1276E+00   1.1281E-03  0.0049
   3.1276E+00   3.2037E+00   1.1066E-03  0.0049
   3.2037E+00   3.2817E+00   1.0849E-03  0.0049
   3.2817E+00   3.3615E+00   1.0703E-03  0.0048
   3.3615E+00   3.4433E+00   1.0512E-03  0.0048
   3.4433E+00   3.5271E+00   1.0452E-03  0.0048
   3.5271E+00   3.6129E+00   1.0272E-03  0.0048
   3.6129E+00   3.7008E+00   1.0130E-03  0.0047
   3.7008E+00   3.7908E+00   9.9021E-04  0.0047
   3.7908E+00   3.8831E+00   9.6502E-04  0.0047
   3.8831E+00   3.9776E+00   9.4493E-04  0.0047
   3.9776E+00   4.0743E+00   9.2484E-04  0.0047
   4.0743E+00   4.1735E+00   8.9876E-04  0.0047
   4.1735E+00   4.2750E+00   8.7036E-04  0.0048
   4.2750E+00   4.3790E+00   8.5340E-04  0.0047
   4.3790E+00   4.4856E+00   8.2300E-04  0.0048
   4.4856E+00   4.5947E+00   8.0563E-04  0.0048
   4.5947E+00   4.7065E+00   7.7415E-04  0.0048
   4.7065E+00   4.8210E+00   7.5391E-04  0.0048
   4.8210E+00   4.9383E+00   7.3653E-04  0.0048
   4.9383E+00   5.0585E+00   7.1058E-04  0.0048
   5.0585E+00   5.1815E+00   6.8634E-04  0.0049
   5.1815E+00   5.3076E+00   6.6225E-04  0.0049
   5.3076E+00   5.4368E+00   6.3107E-04  0.0050
   5.4368E+00   5.5690E+00   6.1302E-04  0.0050
   5.5690E+00   5.7045E+00   5.8183E-04  0.0050
   5.7045E+00   5.8433E+00   5.5874E-04  0.0051
   5.8433E+00   5.9855E+00   5.4181E-04  0.0051
   5.9855E+00   6.1311E+00   5.1447E-04  0.0052
   6.1311E+00   6.2803E+00   4.9876E-04  0.0052
   6.2803E+00   6.4331E+00   4.6639E-04  0.0053
   6.4331E+00   6.5896E+00   4.4871E-04  0.0053
   6.5896E+00   6.7500E+00   4.2349E-04  0.0054
   6.7500E+00   6.9142E+00   4.0113E-04  0.0055
   6.9142E+00   7.0824E+00   3.8343E-04  0.0056
   7.0824E+00   7.2548E+00   3.6113E-04  0.0057
   7.2548E+00   7.4313E+00   3.4756E-04  0.0057
   7.4313E+00   7.6121E+00   3.3044E-04  0.0058
   7.6121E+00   7.7973E+00   3.1282E-04  0.0059
   7.7973E+00   7.9870E+00   2.9107E-04  0.0060
   7.9870E+00   8.1813E+00   2.7507E-04  0.0061
   8.1813E+00   8.3804E+00   2.6190E-04  0.0062
   8.3804E+00   8.5843E+00   2.4477E-04  0.0063
   8.5843E+00   8.7931E+00   2.3633E-04  0.0064
   8.7931E+00   9.0071E+00   2.2015E-04  0.0065
   9.0071E+00   9.2262E+00   2.0677E-04  0.0066
   9.2262E+00   9.4507E+00   1.9510E-04  0.0068
   9.4507E+00   9.6807E+00   1.8756E-04  0.0068
   9.6807E+00   9.9162E+00   1.7561E-04  0.0070
   9.9162E+00   1.0157E+01   1.6249E-04  0.0071
   1.0157E+01   1.0405E+01   1.5636E-04  0.0072
   1.0405E+01   1.0658E+01   1.4777E-04  0.0073
   1.0658E+01   1.0917E+01   1.3911E-04  0.0074
   1.0917E+01   1.1183E+01   1.3033E-04  0.0076
   1.1183E+01   1.1455E+01   1.2378E-04  0.0077
   1.1455E+01   1.1733E+01   1.1745E-04  0.0078
   1.1733E+01   1.2019E+01   1.1035E-04  0.0080
   1.2019E+01   1.2311E+01   1.0474E-04  0.0081
   1.2311E+01   1.2611E+01   9.9223E-05  0.0082
   1.2611E+01   1.2918E+01   9.4826E-05  0.0083
   1.2918E+01   1.3232E+01   8.9338E-05  0.0084
   1.3232E+01   1.3554E+01   8.4141E-05  0.0086
   1.3554E+01   1.3884E+01   8.0605E-05  0.0087
   1.3884E+01   1.4222E+01   7.6778E-05  0.0088
   1.4222E+01   1.4568E+01   7.2643E-05  0.0089
   1.4568E+01   1.4922E+01   6.8812E-05  0.0091
   1.4922E+01   1.5285E+01   6.5448E-05  0.0092
   1.5285E+01   1.5657E+01   6.3299E-05  0.0092
   1.5657E+01   1.6038E+01   6.0229E-05  0.0093
   1.6038E+01   1.6428E+01   5.7840E-05  0.0094
   1.6428E+01   1.6828E+01   5.5470E-05  0.0095
   1.6828E+01   1.7237E+01   5.1893E-05  0.0097
   1.7237E+01   1.7657E+01   5.1002E-05  0.0097
   1.7657E+01   1.8086E+01   4.8575E-05  0.0098
   1.8086E+01   1.8526E+01   4.6621E-05  0.0099
   1.8526E+01   1.8977E+01   4.5516E-05  0.0099
   1.8977E+01   1.9439E+01   4.3567E-05  0.0100
   1.9439E+01   1.9912E+01   4.2409E-05  0.0100
   1.9912E+01   2.0396E+01   3.9552E-05  0.0102
   2.0396E+01   2.0893E+01   3.8355E-05  0.0103
   2.0893E+01   2.1401E+01   3.7003E-05  0.0103
   2.1401E+01   2.1922E+01   3.6313E-05  0.0103
   2.1922E+01   2.2455E+01   3.4749E-05  0.0104
   2.2455E+01   2.3001E+01   3.3901E-05  0.0104
   2.3001E+01   2.3561E+01   3.2249E-05  0.0105
   2.3561E+01   2.4134E+01   3.0827E-05  0.0106
   2.4134E+01   2.4721E+01   2.9891E-05  0.0107
   2.4721E+01   2.5323E+01   2.8579E-05  0.0108
   2.5323E+01   2.5939E+01   2.7660E-05  0.0108
   2.5939E+01   2.6570E+01   2.7225E-05  0.0108
   2.6570E+01   2.7217E+01   2.5641E-05  0.0110
   2.7217E+01   2.7879E+01   2.4748E-05  0.0110
   2.7879E+01   2.8557E+01   2.4095E-05  0.0111
   2.8557E+01   2.9252E+01   2.2400E-05  0.0113
   2.9252E+01   2.9964E+01   2.2000E-05  0.0113
   2.9964E+01   3.0693E+01   2.0331E-05  0.0116
   3.0693E+01   3.1440E+01   1.9709E-05  0.0117
   3.1440E+01   3.2205E+01   1.8974E-05  0.0117
   3.2205E+01   3.2988E+01   1.7890E-05  0.0119
   3.2988E+01   3.3791E+01   1.7049E-05  0.0121
   3.3791E+01   3.4613E+01   1.6304E-05  0.0122
   3.4613E+01   3.5455E+01   1.5161E-05  0.0125
   3.5455E+01   3.6318E+01   1.4314E-05  0.0127
   3.6318E+01   3.7201E+01   1.3397E-05  0.0130
   3.7201E+01   3.8106E+01   1.2407E-05  0.0133
   3.8106E+01   3.9034E+01   1.1866E-05  0.0135
   3.9034E+01   3.9983E+01   1.0677E-05  0.0140
   3.9983E+01   4.0956E+01   1.0281E-05  0.0141
   4.0956E+01   4.1953E+01   9.6538E-06  0.0144
   4.1953E+01   4.2973E+01   8.8230E-06  0.0149
   4.2973E+01   4.4019E+01   8.3629E-06  0.0151
   4.4019E+01   4.5090E+01   7.7627E-06  0.0155
   4.5090E+01   4.6187E+01   7.0059E-06  0.0161
   4.6187E+01   4.7311E+01   6.4515E-06  0.0166
   4.7311E+01   4.8462E+01   5.7683E-06  0.0174
   4.8462E+01   4.9641E+01   5.2192E-06  0.0180
   4.9641E+01   5.0849E+01   4.8766E-06  0.0184
   5.0849E+01   5.2086E+01   4.3744E-06  0.0192
   5.2086E+01   5.3353E+01   4.0764E-06  0.0197
   5.3353E+01   5.4651E+01   3.6052E-06  0.0207
   5.4651E+01   5.5981E+01   3.1601E-06  0.0218
   5.5981E+01   5.7343E+01   2.8736E-06  0.0226
   5.7343E+01   5.8738E+01   2.6620E-06  0.0232
   5.8738E+01   6.0168E+01   2.3790E-06  0.0243
   6.0168E+01   6.1632E+01   2.0274E-06  0.0260
   6.1632E+01   6.3131E+01   1.8152E-06  0.0271
   6.3131E+01   6.4667E+01   1.5638E-06  0.0289
   6.4667E+01   6.6240E+01   1.3817E-06  0.0303
   6.6240E+01   6.7852E+01   1.1950E-06  0.0322
   6.7852E+01   6.9503E+01   1.0394E-06  0.0341
   6.9503E+01   7.1194E+01   9.6744E-07  0.0350
   7.1194E+01   7.2926E+01   7.5395E-07  0.0391
   7.2926E+01   7.4701E+01   6.6503E-07  0.0412
   7.4701E+01   7.6518E+01   5.9531E-07  0.0430
   7.6518E+01   7.8380E+01   5.0168E-07  0.0463
   7.8380E+01   8.0287E+01   4.2369E-07  0.0498
   8.0287E+01   8.2240E+01   3.4913E-07  0.0542
   8.2240E+01   8.4241E+01   2.7287E-07  0.0605
   8.4241E+01   8.6291E+01   2.4199E-07  0.0635
   8.6291E+01   8.8391E+01   1.9528E-07  0.0698
   8.8391E+01   9.0541E+01   1.4879E-07  0.0791
   9.0541E+01   9.2744E+01   1.2710E-07  0.0845
   9.2744E+01   9.5001E+01   1.0813E-07  0.0905
   9.5001E+01   9.7312E+01   7.3547E-08  0.1085
   9.7312E+01   9.9680E+01   5.3217E-08  0.1260
   9.9680E+01   1.0211E+02   5.2777E-08  0.1250
   1.0211E+02   1.0459E+02   4.3473E-08  0.1361
   1.0459E+02   1.0713E+02   2.5150E-08  0.1768
   1.0713E+02   1.0974E+02   2.6854E-08  0.1690
   1.0974E+02   1.1241E+02   1.3483E-08  0.2357
   1.1241E+02   1.1515E+02   1.3162E-08  0.2357
   1.1515E+02   1.1795E+02   7.8527E-09  0.3015
   1.1795E+02   1.2082E+02   6.2723E-09  0.3333
   1.2082E+02   1.2376E+02   6.8037E-10  1.0000
   1.2376E+02   1.2677E+02   3.3210E-09  0.4472
   1.2677E+02   1.2985E+02   1.9453E-09  0.5774
   1.2985E+02   1.3301E+02   1.2661E-09  0.7071
   1.3301E+02   1.3625E+02   6.1799E-10  1.0000
   1.3625E+02   1.3956E+02   0.0000E+00  0.0000
   1.3956E+02   1.4296E+02   5.8898E-10  1.0000
   1.4296E+02   1.4644E+02   0.0000E+00  0.0000
   1.4644E+02   1.5000E+02   0.0000E+00  0.0000

#   sum over                 6.2904E-05
'no. =    1   reg = 115 - 215'
msuc: {\huge [t-cross] in region mesh}
msdr: {\it plotted by \ANGEL \version}
msdl: {\it calculated by \PHITS  3.26}
wt: s(0.7)
\vspace{-3}
  region surface crossing
  area  &=&   1.0000E+00 [cm^2]
e:
 
# Information for Restart Calculation
# This calculation was newly started
# istdev =  2 # 1:Batch variance, 2:History variance
# resc2  = 5.00000000000000000E+08 # Total source weight or Total source weight / maxcas
# resc3  = 5.00000000000000000E+08 # Total history number or Total batch number
# maxcas =   500000000 # History / Batch, only used for istdev=1
# bitrseed = 1101101111010011011000101101110001100110110010110001010100010001 # bit data of rseed
