[ T-Cross ]
    title = [t-cross] in region mesh
     mesh =  reg            # mesh type is region-wise
      reg =    1            # number of crossing regions
      non     r-from    r-to       area
      1       108       208        1.000000    
   e-type =    3            # e-mesh is log given by emin, emax and ne
     emin =  1.0000000E-02  # minimum value of e-mesh points
     emax =   150.0000      # maximum value of e-mesh points
#    edel =  2.4039514E-02  # mesh width of e-mesh points
       ne =    400          # number of e-mesh points
#    data = ( e(i), i = 1, ne + 1 )
#           1.00000E-02  1.02433E-02  1.04925E-02  1.07478E-02  1.10093E-02
#           1.12772E-02  1.15516E-02  1.18326E-02  1.21205E-02  1.24154E-02
#           1.27175E-02  1.30269E-02  1.33439E-02  1.36686E-02  1.40011E-02
#           1.43418E-02  1.46907E-02  1.50482E-02  1.54143E-02  1.57894E-02
#           1.61735E-02  1.65670E-02  1.69701E-02  1.73830E-02  1.78060E-02
#           1.82392E-02  1.86830E-02  1.91375E-02  1.96032E-02  2.00801E-02
#           2.05687E-02  2.10692E-02  2.15818E-02  2.21069E-02  2.26448E-02
#           2.31957E-02  2.37601E-02  2.43382E-02  2.49304E-02  2.55369E-02
#           2.61583E-02  2.67947E-02  2.74467E-02  2.81145E-02  2.87985E-02
#           2.94992E-02  3.02169E-02  3.09521E-02  3.17052E-02  3.24766E-02
#           3.32668E-02  3.40762E-02  3.49053E-02  3.57546E-02  3.66246E-02
#           3.75157E-02  3.84284E-02  3.93634E-02  4.03212E-02  4.13022E-02
#           4.23071E-02  4.33365E-02  4.43909E-02  4.54710E-02  4.65773E-02
#           4.77106E-02  4.88714E-02  5.00605E-02  5.12785E-02  5.25262E-02
#           5.38042E-02  5.51133E-02  5.64542E-02  5.78278E-02  5.92348E-02
#           6.06760E-02  6.21523E-02  6.36645E-02  6.52135E-02  6.68002E-02
#           6.84255E-02  7.00904E-02  7.17957E-02  7.35426E-02  7.53319E-02
#           7.71648E-02  7.90423E-02  8.09655E-02  8.29354E-02  8.49533E-02
#           8.70203E-02  8.91376E-02  9.13064E-02  9.35279E-02  9.58035E-02
#           9.81345E-02  1.00522E-01  1.02968E-01  1.05473E-01  1.08040E-01
#           1.10668E-01  1.13361E-01  1.16119E-01  1.18944E-01  1.21838E-01
#           1.24803E-01  1.27839E-01  1.30950E-01  1.34136E-01  1.37399E-01
#           1.40742E-01  1.44167E-01  1.47675E-01  1.51268E-01  1.54948E-01
#           1.58718E-01  1.62580E-01  1.66535E-01  1.70587E-01  1.74738E-01
#           1.78989E-01  1.83344E-01  1.87805E-01  1.92375E-01  1.97055E-01
#           2.01850E-01  2.06761E-01  2.11792E-01  2.16945E-01  2.22223E-01
#           2.27630E-01  2.33169E-01  2.38842E-01  2.44653E-01  2.50605E-01
#           2.56703E-01  2.62949E-01  2.69346E-01  2.75900E-01  2.82613E-01
#           2.89489E-01  2.96532E-01  3.03747E-01  3.11138E-01  3.18708E-01
#           3.26462E-01  3.34405E-01  3.42542E-01  3.50876E-01  3.59413E-01
#           3.68158E-01  3.77116E-01  3.86291E-01  3.95690E-01  4.05317E-01
#           4.15179E-01  4.25281E-01  4.35628E-01  4.46227E-01  4.57084E-01
#           4.68205E-01  4.79597E-01  4.91266E-01  5.03219E-01  5.15463E-01
#           5.28005E-01  5.40851E-01  5.54011E-01  5.67490E-01  5.81298E-01
#           5.95441E-01  6.09929E-01  6.24769E-01  6.39970E-01  6.55541E-01
#           6.71491E-01  6.87828E-01  7.04564E-01  7.21706E-01  7.39266E-01
#           7.57253E-01  7.75678E-01  7.94551E-01  8.13883E-01  8.33685E-01
#           8.53969E-01  8.74747E-01  8.96030E-01  9.17831E-01  9.40163E-01
#           9.63038E-01  9.86469E-01  1.01047E+00  1.03506E+00  1.06024E+00
#           1.08604E+00  1.11246E+00  1.13953E+00  1.16725E+00  1.19565E+00
#           1.22474E+00  1.25454E+00  1.28507E+00  1.31633E+00  1.34836E+00
#           1.38117E+00  1.41477E+00  1.44920E+00  1.48446E+00  1.52057E+00
#           1.55757E+00  1.59547E+00  1.63429E+00  1.67405E+00  1.71478E+00
#           1.75650E+00  1.79924E+00  1.84302E+00  1.88786E+00  1.93379E+00
#           1.98084E+00  2.02904E+00  2.07841E+00  2.12898E+00  2.18078E+00
#           2.23384E+00  2.28819E+00  2.34386E+00  2.40089E+00  2.45930E+00
#           2.51914E+00  2.58043E+00  2.64322E+00  2.70753E+00  2.77341E+00
#           2.84088E+00  2.91001E+00  2.98081E+00  3.05333E+00  3.12762E+00
#           3.20372E+00  3.28167E+00  3.36152E+00  3.44330E+00  3.52708E+00
#           3.61290E+00  3.70080E+00  3.79085E+00  3.88308E+00  3.97756E+00
#           4.07434E+00  4.17347E+00  4.27501E+00  4.37903E+00  4.48557E+00
#           4.59471E+00  4.70650E+00  4.82102E+00  4.93832E+00  5.05847E+00
#           5.18155E+00  5.30762E+00  5.43676E+00  5.56904E+00  5.70453E+00
#           5.84333E+00  5.98550E+00  6.13114E+00  6.28031E+00  6.43312E+00
#           6.58964E+00  6.74997E+00  6.91420E+00  7.08243E+00  7.25475E+00
#           7.43126E+00  7.61207E+00  7.79728E+00  7.98700E+00  8.18133E+00
#           8.38038E+00  8.58428E+00  8.79315E+00  9.00709E+00  9.22624E+00
#           9.45072E+00  9.68067E+00  9.91620E+00  1.01575E+01  1.04046E+01
#           1.06578E+01  1.09171E+01  1.11827E+01  1.14548E+01  1.17335E+01
#           1.20190E+01  1.23114E+01  1.26109E+01  1.29178E+01  1.32321E+01
#           1.35540E+01  1.38838E+01  1.42216E+01  1.45676E+01  1.49221E+01
#           1.52851E+01  1.56570E+01  1.60380E+01  1.64282E+01  1.68279E+01
#           1.72374E+01  1.76568E+01  1.80864E+01  1.85264E+01  1.89772E+01
#           1.94389E+01  1.99119E+01  2.03963E+01  2.08926E+01  2.14009E+01
#           2.19216E+01  2.24550E+01  2.30014E+01  2.35610E+01  2.41343E+01
#           2.47215E+01  2.53230E+01  2.59391E+01  2.65702E+01  2.72167E+01
#           2.78789E+01  2.85572E+01  2.92520E+01  2.99637E+01  3.06928E+01
#           3.14396E+01  3.22045E+01  3.29881E+01  3.37907E+01  3.46128E+01
#           3.54550E+01  3.63177E+01  3.72013E+01  3.81064E+01  3.90336E+01
#           3.99833E+01  4.09561E+01  4.19526E+01  4.29734E+01  4.40189E+01
#           4.50900E+01  4.61870E+01  4.73108E+01  4.84619E+01  4.96410E+01
#           5.08488E+01  5.20860E+01  5.33533E+01  5.46514E+01  5.59812E+01
#           5.73432E+01  5.87384E+01  6.01676E+01  6.16315E+01  6.31311E+01
#           6.46671E+01  6.62405E+01  6.78522E+01  6.95031E+01  7.11941E+01
#           7.29263E+01  7.47007E+01  7.65182E+01  7.83800E+01  8.02870E+01
#           8.22405E+01  8.42414E+01  8.62911E+01  8.83906E+01  9.05412E+01
#           9.27442E+01  9.50007E+01  9.73122E+01  9.96799E+01  1.02105E+02
#           1.04589E+02  1.07134E+02  1.09741E+02  1.12411E+02  1.15146E+02
#           1.17948E+02  1.20817E+02  1.23757E+02  1.26768E+02  1.29852E+02
#           1.33012E+02  1.36248E+02  1.39563E+02  1.42959E+02  1.46437E+02
#           1.50000E+02
     unit =    2            # unit is [1/cm^2/(MeV/n)/source]
     axis =  eng            # axis of output
     file = detector-09.out  # file name of output for the above axis
   output = f-curr          # surface crossing forward current spectrum
     part =  neutron  
# kf/name :  2112     
#    used :        main (  %)        temp (  %)       total (  %)
#  memory :         414 (  0)           0 (  0)         414 (  0)

#------------------------------------------------------------------------------
#newpage:
#   no. =    1   reg = 108 - 208

x: Energy [MeV/n]
y:  F-Curr [1/cm^2/(MeV/n)/source]         
p: xlog ylog afac(0.8) form(0.9)
h: n            x            y(neutron ),hh0l   n 
#  e-lower      e-upper      neutron     r.err 
   1.0000E-02   1.0243E-02   3.0285E-04  0.1616
   1.0243E-02   1.0493E-02   3.0688E-04  0.1597
   1.0493E-02   1.0748E-02   3.8894E-04  0.1392
   1.0748E-02   1.1009E-02   3.0778E-04  0.1560
   1.1009E-02   1.1277E-02   2.8070E-04  0.1603
   1.1277E-02   1.1552E-02   2.8331E-04  0.1590
   1.1552E-02   1.1833E-02   2.5730E-04  0.1642
   1.1833E-02   1.2121E-02   2.9616E-04  0.1505
   1.2121E-02   1.2415E-02   3.3117E-04  0.1414
   1.2415E-02   1.2718E-02   2.4566E-04  0.1611
   1.2718E-02   1.3027E-02   3.4220E-04  0.1367
   1.3027E-02   1.3344E-02   2.6208E-04  0.1532
   1.3344E-02   1.3669E-02   2.1115E-04  0.1667
   1.3669E-02   1.4001E-02   2.5653E-04  0.1501
   1.4001E-02   1.4342E-02   2.7796E-04  0.1415
   1.4342E-02   1.4691E-02   2.2713E-04  0.1553
   1.4691E-02   1.5048E-02   2.0520E-04  0.1626
   1.5048E-02   1.5414E-02   2.4638E-04  0.1455
   1.5414E-02   1.5789E-02   2.0157E-04  0.1585
   1.5789E-02   1.6174E-02   1.5974E-04  0.1774
   1.6174E-02   1.6567E-02   1.7370E-04  0.1691
   1.6567E-02   1.6970E-02   2.2971E-04  0.1443
   1.6970E-02   1.7383E-02   2.0363E-04  0.1504
   1.7383E-02   1.7806E-02   2.2258E-04  0.1414
   1.7806E-02   1.8239E-02   1.9400E-04  0.1516
   1.8239E-02   1.8683E-02   1.7181E-04  0.1587
   1.8683E-02   1.9138E-02   1.7822E-04  0.1535
   1.9138E-02   1.9603E-02   1.9060E-04  0.1461
   1.9603E-02   2.0080E-02   2.1475E-04  0.1374
   2.0080E-02   2.0569E-02   1.6970E-04  0.1532
   2.0569E-02   2.1069E-02   1.7896E-04  0.1450
   2.1069E-02   2.1582E-02   1.5976E-04  0.1524
   2.1582E-02   2.2107E-02   1.2822E-04  0.1693
   2.2107E-02   2.2645E-02   1.4522E-04  0.1583
   2.2645E-02   2.3196E-02   1.2867E-04  0.1652
   2.3196E-02   2.3760E-02   1.3499E-04  0.1560
   2.3760E-02   2.4338E-02   1.5578E-04  0.1466
   2.4338E-02   2.4930E-02   1.3722E-04  0.1535
   2.4930E-02   2.5537E-02   1.1857E-04  0.1624
   2.5537E-02   2.6158E-02   1.3471E-04  0.1512
   2.6158E-02   2.6795E-02   1.9577E-04  0.1257
   2.6795E-02   2.7447E-02   1.4523E-04  0.1428
   2.7447E-02   2.8114E-02   1.2723E-04  0.1505
   2.8114E-02   2.8799E-02   1.1307E-04  0.1567
   2.8799E-02   2.9499E-02   1.3403E-04  0.1435
   2.9499E-02   3.0217E-02   1.1519E-04  0.1538
   3.0217E-02   3.0952E-02   1.5699E-04  0.1301
   3.0952E-02   3.1705E-02   1.2457E-04  0.1437
   3.1705E-02   3.2477E-02   1.0901E-04  0.1506
   3.2477E-02   3.3267E-02   1.3477E-04  0.1333
   3.3267E-02   3.4076E-02   9.0085E-05  0.1619
   3.4076E-02   3.4905E-02   9.6608E-05  0.1536
   3.4905E-02   3.5755E-02   1.0580E-04  0.1461
   3.5755E-02   3.6625E-02   1.1341E-04  0.1401
   3.6625E-02   3.7516E-02   1.1291E-04  0.1377
   3.7516E-02   3.8428E-02   9.7058E-05  0.1487
   3.8428E-02   3.9363E-02   1.0745E-04  0.1387
   3.9363E-02   4.0321E-02   9.2757E-05  0.1470
   4.0321E-02   4.1302E-02   9.2161E-05  0.1463
   4.1302E-02   4.2307E-02   9.6477E-05  0.1396
   4.2307E-02   4.3337E-02   8.6892E-05  0.1462
   4.3337E-02   4.4391E-02   9.7386E-05  0.1373
   4.4391E-02   4.5471E-02   9.5811E-05  0.1363
   4.5471E-02   4.6577E-02   7.2053E-05  0.1570
   4.6577E-02   4.7711E-02   9.4269E-05  0.1346
   4.7711E-02   4.8871E-02   7.8736E-05  0.1449
   4.8871E-02   5.0061E-02   8.3351E-05  0.1403
   5.0061E-02   5.1279E-02   9.4686E-05  0.1295
   5.1279E-02   5.2526E-02   6.6572E-05  0.1518
   5.2526E-02   5.3804E-02   5.3492E-05  0.1655
   5.3804E-02   5.5113E-02   7.7058E-05  0.1383
   5.5113E-02   5.6454E-02   7.7440E-05  0.1358
   5.6454E-02   5.7828E-02   8.1335E-05  0.1322
   5.7828E-02   5.9235E-02   6.9885E-05  0.1394
   5.9235E-02   6.0676E-02   7.0557E-05  0.1393
   6.0676E-02   6.2152E-02   5.6830E-05  0.1503
   6.2152E-02   6.3665E-02   6.3966E-05  0.1422
   6.3665E-02   6.5214E-02   4.8472E-05  0.1591
   6.5214E-02   6.6800E-02   5.6596E-05  0.1456
   6.6800E-02   6.8426E-02   5.9535E-05  0.1421
   6.8426E-02   7.0090E-02   5.7387E-05  0.1425
   7.0090E-02   7.1796E-02   6.6530E-05  0.1305
   7.1796E-02   7.3543E-02   6.8816E-05  0.1272
   7.3543E-02   7.5332E-02   7.2445E-05  0.1216
   7.5332E-02   7.7165E-02   4.5476E-05  0.1524
   7.7165E-02   7.9042E-02   6.6174E-05  0.1245
   7.9042E-02   8.0965E-02   4.9503E-05  0.1411
   8.0965E-02   8.2935E-02   5.0493E-05  0.1399
   8.2935E-02   8.4953E-02   4.5039E-05  0.1465
   8.4953E-02   8.7020E-02   5.1150E-05  0.1356
   8.7020E-02   8.9138E-02   4.6511E-05  0.1400
   8.9138E-02   9.1306E-02   4.4540E-05  0.1404
   9.1306E-02   9.3528E-02   4.8694E-05  0.1341
   9.3528E-02   9.5804E-02   4.4966E-05  0.1366
   9.5804E-02   9.8134E-02   3.8793E-05  0.1460
   9.8134E-02   1.0052E-01   4.2281E-05  0.1372
   1.0052E-01   1.0297E-01   3.4836E-05  0.1509
   1.0297E-01   1.0547E-01   4.8543E-05  0.1257
   1.0547E-01   1.0804E-01   3.7830E-05  0.1406
   1.0804E-01   1.1067E-01   4.0999E-05  0.1339
   1.1067E-01   1.1336E-01   4.8686E-05  0.1207
   1.1336E-01   1.1612E-01   4.2722E-05  0.1281
   1.1612E-01   1.1894E-01   3.4484E-05  0.1405
   1.1894E-01   1.2184E-01   3.4767E-05  0.1368
   1.2184E-01   1.2480E-01   3.6136E-05  0.1342
   1.2480E-01   1.2784E-01   3.6139E-05  0.1324
   1.2784E-01   1.3095E-01   2.8556E-05  0.1465
   1.3095E-01   1.3414E-01   3.1428E-05  0.1392
   1.3414E-01   1.3740E-01   3.8848E-05  0.1245
   1.3740E-01   1.4074E-01   3.8780E-05  0.1230
   1.4074E-01   1.4417E-01   3.7392E-05  0.1230
   1.4417E-01   1.4767E-01   2.7507E-05  0.1415
   1.4767E-01   1.5127E-01   3.3960E-05  0.1265
   1.5127E-01   1.5495E-01   3.8299E-05  0.1166
   1.5495E-01   1.5872E-01   2.6222E-05  0.1376
   1.5872E-01   1.6258E-01   2.9944E-05  0.1288
   1.6258E-01   1.6654E-01   3.4606E-05  0.1187
   1.6654E-01   1.7059E-01   2.3009E-05  0.1445
   1.7059E-01   1.7474E-01   3.0230E-05  0.1238
   1.7474E-01   1.7899E-01   2.1096E-05  0.1461
   1.7899E-01   1.8334E-01   3.0149E-05  0.1217
   1.8334E-01   1.8781E-01   3.8023E-05  0.1069
   1.8781E-01   1.9237E-01   2.4821E-05  0.1303
   1.9237E-01   1.9706E-01   2.6637E-05  0.1241
   1.9706E-01   2.0185E-01   2.5464E-05  0.1251
   2.0185E-01   2.0676E-01   2.9216E-05  0.1166
   2.0676E-01   2.1179E-01   2.4870E-05  0.1225
   2.1179E-01   2.1694E-01   3.1701E-05  0.1071
   2.1694E-01   2.2222E-01   2.8715E-05  0.1127
   2.2222E-01   2.2763E-01   2.9362E-05  0.1100
   2.2763E-01   2.3317E-01   3.0799E-05  0.1059
   2.3317E-01   2.3884E-01   4.0781E-05  0.0916
   2.3884E-01   2.4465E-01   4.2433E-05  0.0887
   2.4465E-01   2.5061E-01   3.8810E-05  0.0918
   2.5061E-01   2.5670E-01   4.2950E-05  0.0858
   2.5670E-01   2.6295E-01   5.1022E-05  0.0781
   2.6295E-01   2.6935E-01   4.7988E-05  0.0795
   2.6935E-01   2.7590E-01   4.3054E-05  0.0828
   2.7590E-01   2.8261E-01   4.8852E-05  0.0767
   2.8261E-01   2.8949E-01   5.3872E-05  0.0722
   2.8949E-01   2.9653E-01   5.3619E-05  0.0714
   2.9653E-01   3.0375E-01   5.9177E-05  0.0673
   3.0375E-01   3.1114E-01   6.1246E-05  0.0653
   3.1114E-01   3.1871E-01   6.6099E-05  0.0623
   3.1871E-01   3.2646E-01   6.0259E-05  0.0647
   3.2646E-01   3.3441E-01   6.2911E-05  0.0621
   3.3441E-01   3.4254E-01   6.1161E-05  0.0624
   3.4254E-01   3.5088E-01   7.0872E-05  0.0575
   3.5088E-01   3.5941E-01   7.7697E-05  0.0542
   3.5941E-01   3.6816E-01   7.2641E-05  0.0549
   3.6816E-01   3.7712E-01   7.9887E-05  0.0521
   3.7712E-01   3.8629E-01   8.7472E-05  0.0490
   3.8629E-01   3.9569E-01   8.8688E-05  0.0482
   3.9569E-01   4.0532E-01   8.7122E-05  0.0482
   4.0532E-01   4.1518E-01   9.0317E-05  0.0464
   4.1518E-01   4.2528E-01   9.0309E-05  0.0461
   4.2528E-01   4.3563E-01   9.3687E-05  0.0448
   4.3563E-01   4.4623E-01   1.0311E-04  0.0421
   4.4623E-01   4.5708E-01   1.0882E-04  0.0405
   4.5708E-01   4.6821E-01   1.1534E-04  0.0389
   4.6821E-01   4.7960E-01   1.1116E-04  0.0391
   4.7960E-01   4.9127E-01   1.2137E-04  0.0370
   4.9127E-01   5.0322E-01   1.2777E-04  0.0356
   5.0322E-01   5.1546E-01   1.2713E-04  0.0353
   5.1546E-01   5.2800E-01   1.3143E-04  0.0344
   5.2800E-01   5.4085E-01   1.3727E-04  0.0332
   5.4085E-01   5.5401E-01   1.4419E-04  0.0320
   5.5401E-01   5.6749E-01   1.5404E-04  0.0306
   5.6749E-01   5.8130E-01   1.5255E-04  0.0304
   5.8130E-01   5.9544E-01   1.6862E-04  0.0286
   5.9544E-01   6.0993E-01   1.6282E-04  0.0287
   6.0993E-01   6.2477E-01   1.7498E-04  0.0274
   6.2477E-01   6.3997E-01   1.7827E-04  0.0268
   6.3997E-01   6.5554E-01   1.8578E-04  0.0260
   6.5554E-01   6.7149E-01   1.9243E-04  0.0252
   6.7149E-01   6.8783E-01   1.9037E-04  0.0250
   6.8783E-01   7.0456E-01   2.0113E-04  0.0240
   7.0456E-01   7.2171E-01   2.1195E-04  0.0232
   7.2171E-01   7.3927E-01   2.1596E-04  0.0227
   7.3927E-01   7.5725E-01   2.3065E-04  0.0217
   7.5725E-01   7.7568E-01   2.2204E-04  0.0218
   7.7568E-01   7.9455E-01   2.3952E-04  0.0208
   7.9455E-01   8.1388E-01   2.3939E-04  0.0205
   8.1388E-01   8.3368E-01   2.4845E-04  0.0199
   8.3368E-01   8.5397E-01   2.5189E-04  0.0195
   8.5397E-01   8.7475E-01   2.6594E-04  0.0188
   8.7475E-01   8.9603E-01   2.7406E-04  0.0183
   8.9603E-01   9.1783E-01   2.7956E-04  0.0179
   9.1783E-01   9.4016E-01   2.9115E-04  0.0173
   9.4016E-01   9.6304E-01   2.8949E-04  0.0172
   9.6304E-01   9.8647E-01   2.9773E-04  0.0167
   9.8647E-01   1.0105E+00   3.0530E-04  0.0163
   1.0105E+00   1.0351E+00   3.0916E-04  0.0160
   1.0351E+00   1.0602E+00   3.1430E-04  0.0157
   1.0602E+00   1.0860E+00   3.1582E-04  0.0155
   1.0860E+00   1.1125E+00   3.2417E-04  0.0151
   1.1125E+00   1.1395E+00   3.2244E-04  0.0150
   1.1395E+00   1.1673E+00   3.3887E-04  0.0144
   1.1673E+00   1.1957E+00   3.3184E-04  0.0144
   1.1957E+00   1.2247E+00   3.5531E-04  0.0137
   1.2247E+00   1.2545E+00   3.3941E-04  0.0139
   1.2545E+00   1.2851E+00   3.3940E-04  0.0137
   1.2851E+00   1.3163E+00   3.4690E-04  0.0134
   1.3163E+00   1.3484E+00   3.5070E-04  0.0132
   1.3484E+00   1.3812E+00   3.6978E-04  0.0127
   1.3812E+00   1.4148E+00   3.7713E-04  0.0124
   1.4148E+00   1.4492E+00   3.8543E-04  0.0121
   1.4492E+00   1.4845E+00   3.9237E-04  0.0119
   1.4845E+00   1.5206E+00   3.9364E-04  0.0117
   1.5206E+00   1.5576E+00   3.9445E-04  0.0116
   1.5576E+00   1.5955E+00   4.0118E-04  0.0113
   1.5955E+00   1.6343E+00   3.9070E-04  0.0113
   1.6343E+00   1.6741E+00   3.8609E-04  0.0113
   1.6741E+00   1.7148E+00   3.8593E-04  0.0111
   1.7148E+00   1.7565E+00   3.8837E-04  0.0110
   1.7565E+00   1.7992E+00   3.9461E-04  0.0107
   1.7992E+00   1.8430E+00   3.9372E-04  0.0106
   1.8430E+00   1.8879E+00   3.9883E-04  0.0105
   1.8879E+00   1.9338E+00   3.9814E-04  0.0103
   1.9338E+00   1.9808E+00   4.0314E-04  0.0101
   1.9808E+00   2.0290E+00   4.0644E-04  0.0100
   2.0290E+00   2.0784E+00   3.9813E-04  0.0100
   2.0784E+00   2.1290E+00   3.9463E-04  0.0099
   2.1290E+00   2.1808E+00   3.8998E-04  0.0098
   2.1808E+00   2.2338E+00   3.8726E-04  0.0098
   2.2338E+00   2.2882E+00   3.8108E-04  0.0097
   2.2882E+00   2.3439E+00   3.8032E-04  0.0096
   2.3439E+00   2.4009E+00   3.8285E-04  0.0095
   2.4009E+00   2.4593E+00   3.8720E-04  0.0093
   2.4593E+00   2.5191E+00   3.8375E-04  0.0092
   2.5191E+00   2.5804E+00   3.8707E-04  0.0091
   2.5804E+00   2.6432E+00   3.8341E-04  0.0090
   2.6432E+00   2.7075E+00   3.7219E-04  0.0090
   2.7075E+00   2.7734E+00   3.6826E-04  0.0090
   2.7734E+00   2.8409E+00   3.6192E-04  0.0090
   2.8409E+00   2.9100E+00   3.5974E-04  0.0089
   2.9100E+00   2.9808E+00   3.6562E-04  0.0087
   2.9808E+00   3.0533E+00   3.6596E-04  0.0086
   3.0533E+00   3.1276E+00   3.5570E-04  0.0086
   3.1276E+00   3.2037E+00   3.4702E-04  0.0086
   3.2037E+00   3.2817E+00   3.3918E-04  0.0086
   3.2817E+00   3.3615E+00   3.3836E-04  0.0085
   3.3615E+00   3.4433E+00   3.2808E-04  0.0086
   3.4433E+00   3.5271E+00   3.3196E-04  0.0084
   3.5271E+00   3.6129E+00   3.2917E-04  0.0083
   3.6129E+00   3.7008E+00   3.2431E-04  0.0083
   3.7008E+00   3.7908E+00   3.1343E-04  0.0083
   3.7908E+00   3.8831E+00   3.0973E-04  0.0083
   3.8831E+00   3.9776E+00   3.0807E-04  0.0082
   3.9776E+00   4.0743E+00   3.0585E-04  0.0081
   4.0743E+00   4.1735E+00   3.0326E-04  0.0081
   4.1735E+00   4.2750E+00   2.9407E-04  0.0081
   4.2750E+00   4.3790E+00   2.8942E-04  0.0081
   4.3790E+00   4.4856E+00   2.8210E-04  0.0081
   4.4856E+00   4.5947E+00   2.8231E-04  0.0080
   4.5947E+00   4.7065E+00   2.7732E-04  0.0080
   4.7065E+00   4.8210E+00   2.7096E-04  0.0080
   4.8210E+00   4.9383E+00   2.6978E-04  0.0079
   4.9383E+00   5.0585E+00   2.6514E-04  0.0079
   5.0585E+00   5.1815E+00   2.5823E-04  0.0079
   5.1815E+00   5.3076E+00   2.5237E-04  0.0079
   5.3076E+00   5.4368E+00   2.5066E-04  0.0078
   5.4368E+00   5.5690E+00   2.4431E-04  0.0078
   5.5690E+00   5.7045E+00   2.3708E-04  0.0078
   5.7045E+00   5.8433E+00   2.3138E-04  0.0078
   5.8433E+00   5.9855E+00   2.2324E-04  0.0079
   5.9855E+00   6.1311E+00   2.2390E-04  0.0078
   6.1311E+00   6.2803E+00   2.1216E-04  0.0079
   6.2803E+00   6.4331E+00   2.0615E-04  0.0079
   6.4331E+00   6.5896E+00   2.0308E-04  0.0079
   6.5896E+00   6.7500E+00   1.9405E-04  0.0080
   6.7500E+00   6.9142E+00   1.9184E-04  0.0079
   6.9142E+00   7.0824E+00   1.8408E-04  0.0080
   7.0824E+00   7.2548E+00   1.7678E-04  0.0081
   7.2548E+00   7.4313E+00   1.7270E-04  0.0081
   7.4313E+00   7.6121E+00   1.6598E-04  0.0081
   7.6121E+00   7.7973E+00   1.6078E-04  0.0082
   7.7973E+00   7.9870E+00   1.5889E-04  0.0081
   7.9870E+00   8.1813E+00   1.5398E-04  0.0081
   8.1813E+00   8.3804E+00   1.4697E-04  0.0082
   8.3804E+00   8.5843E+00   1.4381E-04  0.0082
   8.5843E+00   8.7931E+00   1.3738E-04  0.0083
   8.7931E+00   9.0071E+00   1.3310E-04  0.0083
   9.0071E+00   9.2262E+00   1.3072E-04  0.0083
   9.2262E+00   9.4507E+00   1.2466E-04  0.0084
   9.4507E+00   9.6807E+00   1.2031E-04  0.0085
   9.6807E+00   9.9162E+00   1.1908E-04  0.0084
   9.9162E+00   1.0157E+01   1.1297E-04  0.0085
   1.0157E+01   1.0405E+01   1.1015E-04  0.0085
   1.0405E+01   1.0658E+01   1.0292E-04  0.0087
   1.0658E+01   1.0917E+01   1.0044E-04  0.0087
   1.0917E+01   1.1183E+01   9.5272E-05  0.0089
   1.1183E+01   1.1455E+01   9.1355E-05  0.0089
   1.1455E+01   1.1733E+01   8.8226E-05  0.0090
   1.1733E+01   1.2019E+01   8.4519E-05  0.0091
   1.2019E+01   1.2311E+01   8.0857E-05  0.0092
   1.2311E+01   1.2611E+01   7.5024E-05  0.0094
   1.2611E+01   1.2918E+01   7.2242E-05  0.0095
   1.2918E+01   1.3232E+01   6.8758E-05  0.0096
   1.3232E+01   1.3554E+01   6.5136E-05  0.0098
   1.3554E+01   1.3884E+01   6.2418E-05  0.0098
   1.3884E+01   1.4222E+01   5.8432E-05  0.0101
   1.4222E+01   1.4568E+01   5.4770E-05  0.0103
   1.4568E+01   1.4922E+01   5.2145E-05  0.0104
   1.4922E+01   1.5285E+01   4.7818E-05  0.0107
   1.5285E+01   1.5657E+01   4.5960E-05  0.0108
   1.5657E+01   1.6038E+01   4.2774E-05  0.0111
   1.6038E+01   1.6428E+01   3.8869E-05  0.0115
   1.6428E+01   1.6828E+01   3.7346E-05  0.0116
   1.6828E+01   1.7237E+01   3.4498E-05  0.0119
   1.7237E+01   1.7657E+01   3.2158E-05  0.0122
   1.7657E+01   1.8086E+01   2.9748E-05  0.0125
   1.8086E+01   1.8526E+01   2.7810E-05  0.0128
   1.8526E+01   1.8977E+01   2.6227E-05  0.0130
   1.8977E+01   1.9439E+01   2.6393E-05  0.0128
   1.9439E+01   1.9912E+01   2.6666E-05  0.0126
   1.9912E+01   2.0396E+01   2.5719E-05  0.0127
   2.0396E+01   2.0893E+01   2.4233E-05  0.0129
   2.0893E+01   2.1401E+01   2.3182E-05  0.0130
   2.1401E+01   2.1922E+01   2.1548E-05  0.0134
   2.1922E+01   2.2455E+01   2.0069E-05  0.0137
   2.2455E+01   2.3001E+01   1.8139E-05  0.0142
   2.3001E+01   2.3561E+01   1.7747E-05  0.0142
   2.3561E+01   2.4134E+01   1.7524E-05  0.0141
   2.4134E+01   2.4721E+01   1.7204E-05  0.0141
   2.4721E+01   2.5323E+01   1.6492E-05  0.0142
   2.5323E+01   2.5939E+01   1.6312E-05  0.0141
   2.5939E+01   2.6570E+01   1.5141E-05  0.0145
   2.6570E+01   2.7217E+01   1.4030E-05  0.0148
   2.7217E+01   2.7879E+01   1.2380E-05  0.0156
   2.7879E+01   2.8557E+01   1.0924E-05  0.0164
   2.8557E+01   2.9252E+01   9.7694E-06  0.0172
   2.9252E+01   2.9964E+01   8.3656E-06  0.0183
   2.9964E+01   3.0693E+01   6.9927E-06  0.0198
   3.0693E+01   3.1440E+01   5.2465E-06  0.0226
   3.1440E+01   3.2205E+01   3.9558E-06  0.0257
   3.2205E+01   3.2988E+01   2.6520E-06  0.0310
   3.2988E+01   3.3791E+01   1.6870E-06  0.0384
   3.3791E+01   3.4613E+01   9.0737E-07  0.0518
   3.4613E+01   3.5455E+01   4.3460E-07  0.0739
   3.5455E+01   3.6318E+01   1.2983E-07  0.1336
   3.6318E+01   3.7201E+01   4.5267E-09  0.7071
   3.7201E+01   3.8106E+01   0.0000E+00  0.0000
   3.8106E+01   3.9034E+01   0.0000E+00  0.0000
   3.9034E+01   3.9983E+01   0.0000E+00  0.0000
   3.9983E+01   4.0956E+01   0.0000E+00  0.0000
   4.0956E+01   4.1953E+01   0.0000E+00  0.0000
   4.1953E+01   4.2973E+01   0.0000E+00  0.0000
   4.2973E+01   4.4019E+01   0.0000E+00  0.0000
   4.4019E+01   4.5090E+01   0.0000E+00  0.0000
   4.5090E+01   4.6187E+01   0.0000E+00  0.0000
   4.6187E+01   4.7311E+01   0.0000E+00  0.0000
   4.7311E+01   4.8462E+01   0.0000E+00  0.0000
   4.8462E+01   4.9641E+01   0.0000E+00  0.0000
   4.9641E+01   5.0849E+01   0.0000E+00  0.0000
   5.0849E+01   5.2086E+01   0.0000E+00  0.0000
   5.2086E+01   5.3353E+01   0.0000E+00  0.0000
   5.3353E+01   5.4651E+01   0.0000E+00  0.0000
   5.4651E+01   5.5981E+01   0.0000E+00  0.0000
   5.5981E+01   5.7343E+01   0.0000E+00  0.0000
   5.7343E+01   5.8738E+01   0.0000E+00  0.0000
   5.8738E+01   6.0168E+01   0.0000E+00  0.0000
   6.0168E+01   6.1632E+01   0.0000E+00  0.0000
   6.1632E+01   6.3131E+01   0.0000E+00  0.0000
   6.3131E+01   6.4667E+01   0.0000E+00  0.0000
   6.4667E+01   6.6240E+01   0.0000E+00  0.0000
   6.6240E+01   6.7852E+01   0.0000E+00  0.0000
   6.7852E+01   6.9503E+01   0.0000E+00  0.0000
   6.9503E+01   7.1194E+01   0.0000E+00  0.0000
   7.1194E+01   7.2926E+01   0.0000E+00  0.0000
   7.2926E+01   7.4701E+01   0.0000E+00  0.0000
   7.4701E+01   7.6518E+01   0.0000E+00  0.0000
   7.6518E+01   7.8380E+01   0.0000E+00  0.0000
   7.8380E+01   8.0287E+01   0.0000E+00  0.0000
   8.0287E+01   8.2240E+01   0.0000E+00  0.0000
   8.2240E+01   8.4241E+01   0.0000E+00  0.0000
   8.4241E+01   8.6291E+01   0.0000E+00  0.0000
   8.6291E+01   8.8391E+01   0.0000E+00  0.0000
   8.8391E+01   9.0541E+01   0.0000E+00  0.0000
   9.0541E+01   9.2744E+01   0.0000E+00  0.0000
   9.2744E+01   9.5001E+01   0.0000E+00  0.0000
   9.5001E+01   9.7312E+01   0.0000E+00  0.0000
   9.7312E+01   9.9680E+01   0.0000E+00  0.0000
   9.9680E+01   1.0211E+02   0.0000E+00  0.0000
   1.0211E+02   1.0459E+02   0.0000E+00  0.0000
   1.0459E+02   1.0713E+02   0.0000E+00  0.0000
   1.0713E+02   1.0974E+02   0.0000E+00  0.0000
   1.0974E+02   1.1241E+02   0.0000E+00  0.0000
   1.1241E+02   1.1515E+02   0.0000E+00  0.0000
   1.1515E+02   1.1795E+02   0.0000E+00  0.0000
   1.1795E+02   1.2082E+02   0.0000E+00  0.0000
   1.2082E+02   1.2376E+02   0.0000E+00  0.0000
   1.2376E+02   1.2677E+02   0.0000E+00  0.0000
   1.2677E+02   1.2985E+02   0.0000E+00  0.0000
   1.2985E+02   1.3301E+02   0.0000E+00  0.0000
   1.3301E+02   1.3625E+02   0.0000E+00  0.0000
   1.3625E+02   1.3956E+02   0.0000E+00  0.0000
   1.3956E+02   1.4296E+02   0.0000E+00  0.0000
   1.4296E+02   1.4644E+02   0.0000E+00  0.0000
   1.4644E+02   1.5000E+02   0.0000E+00  0.0000

#   sum over                 2.0833E-05
'no. =    1   reg = 108 - 208'
msuc: {\huge [t-cross] in region mesh}
msdr: {\it plotted by \ANGEL \version}
msdl: {\it calculated by \PHITS  3.26}
wt: s(0.7)
\vspace{-3}
  region surface crossing
  area  &=&   1.0000E+00 [cm^2]
e:
 
# Information for Restart Calculation
# This calculation was newly started
# istdev =  2 # 1:Batch variance, 2:History variance
# resc2  = 5.00000000000000000E+08 # Total source weight or Total source weight / maxcas
# resc3  = 5.00000000000000000E+08 # Total history number or Total batch number
# maxcas =   500000000 # History / Batch, only used for istdev=1
# bitrseed = 1101101111010011011000101101110001100110110010110001010100010001 # bit data of rseed
