[ T-Cross ]
    title = [t-cross] in region mesh
     mesh =  reg            # mesh type is region-wise
      reg =    1            # number of crossing regions
      non     r-from    r-to       area
      1       119       219        1.000000    
   e-type =    3            # e-mesh is log given by emin, emax and ne
     emin =  1.0000000E-02  # minimum value of e-mesh points
     emax =   150.0000      # maximum value of e-mesh points
#    edel =  2.4039514E-02  # mesh width of e-mesh points
       ne =    400          # number of e-mesh points
#    data = ( e(i), i = 1, ne + 1 )
#           1.00000E-02  1.02433E-02  1.04925E-02  1.07478E-02  1.10093E-02
#           1.12772E-02  1.15516E-02  1.18326E-02  1.21205E-02  1.24154E-02
#           1.27175E-02  1.30269E-02  1.33439E-02  1.36686E-02  1.40011E-02
#           1.43418E-02  1.46907E-02  1.50482E-02  1.54143E-02  1.57894E-02
#           1.61735E-02  1.65670E-02  1.69701E-02  1.73830E-02  1.78060E-02
#           1.82392E-02  1.86830E-02  1.91375E-02  1.96032E-02  2.00801E-02
#           2.05687E-02  2.10692E-02  2.15818E-02  2.21069E-02  2.26448E-02
#           2.31957E-02  2.37601E-02  2.43382E-02  2.49304E-02  2.55369E-02
#           2.61583E-02  2.67947E-02  2.74467E-02  2.81145E-02  2.87985E-02
#           2.94992E-02  3.02169E-02  3.09521E-02  3.17052E-02  3.24766E-02
#           3.32668E-02  3.40762E-02  3.49053E-02  3.57546E-02  3.66246E-02
#           3.75157E-02  3.84284E-02  3.93634E-02  4.03212E-02  4.13022E-02
#           4.23071E-02  4.33365E-02  4.43909E-02  4.54710E-02  4.65773E-02
#           4.77106E-02  4.88714E-02  5.00605E-02  5.12785E-02  5.25262E-02
#           5.38042E-02  5.51133E-02  5.64542E-02  5.78278E-02  5.92348E-02
#           6.06760E-02  6.21523E-02  6.36645E-02  6.52135E-02  6.68002E-02
#           6.84255E-02  7.00904E-02  7.17957E-02  7.35426E-02  7.53319E-02
#           7.71648E-02  7.90423E-02  8.09655E-02  8.29354E-02  8.49533E-02
#           8.70203E-02  8.91376E-02  9.13064E-02  9.35279E-02  9.58035E-02
#           9.81345E-02  1.00522E-01  1.02968E-01  1.05473E-01  1.08040E-01
#           1.10668E-01  1.13361E-01  1.16119E-01  1.18944E-01  1.21838E-01
#           1.24803E-01  1.27839E-01  1.30950E-01  1.34136E-01  1.37399E-01
#           1.40742E-01  1.44167E-01  1.47675E-01  1.51268E-01  1.54948E-01
#           1.58718E-01  1.62580E-01  1.66535E-01  1.70587E-01  1.74738E-01
#           1.78989E-01  1.83344E-01  1.87805E-01  1.92375E-01  1.97055E-01
#           2.01850E-01  2.06761E-01  2.11792E-01  2.16945E-01  2.22223E-01
#           2.27630E-01  2.33169E-01  2.38842E-01  2.44653E-01  2.50605E-01
#           2.56703E-01  2.62949E-01  2.69346E-01  2.75900E-01  2.82613E-01
#           2.89489E-01  2.96532E-01  3.03747E-01  3.11138E-01  3.18708E-01
#           3.26462E-01  3.34405E-01  3.42542E-01  3.50876E-01  3.59413E-01
#           3.68158E-01  3.77116E-01  3.86291E-01  3.95690E-01  4.05317E-01
#           4.15179E-01  4.25281E-01  4.35628E-01  4.46227E-01  4.57084E-01
#           4.68205E-01  4.79597E-01  4.91266E-01  5.03219E-01  5.15463E-01
#           5.28005E-01  5.40851E-01  5.54011E-01  5.67490E-01  5.81298E-01
#           5.95441E-01  6.09929E-01  6.24769E-01  6.39970E-01  6.55541E-01
#           6.71491E-01  6.87828E-01  7.04564E-01  7.21706E-01  7.39266E-01
#           7.57253E-01  7.75678E-01  7.94551E-01  8.13883E-01  8.33685E-01
#           8.53969E-01  8.74747E-01  8.96030E-01  9.17831E-01  9.40163E-01
#           9.63038E-01  9.86469E-01  1.01047E+00  1.03506E+00  1.06024E+00
#           1.08604E+00  1.11246E+00  1.13953E+00  1.16725E+00  1.19565E+00
#           1.22474E+00  1.25454E+00  1.28507E+00  1.31633E+00  1.34836E+00
#           1.38117E+00  1.41477E+00  1.44920E+00  1.48446E+00  1.52057E+00
#           1.55757E+00  1.59547E+00  1.63429E+00  1.67405E+00  1.71478E+00
#           1.75650E+00  1.79924E+00  1.84302E+00  1.88786E+00  1.93379E+00
#           1.98084E+00  2.02904E+00  2.07841E+00  2.12898E+00  2.18078E+00
#           2.23384E+00  2.28819E+00  2.34386E+00  2.40089E+00  2.45930E+00
#           2.51914E+00  2.58043E+00  2.64322E+00  2.70753E+00  2.77341E+00
#           2.84088E+00  2.91001E+00  2.98081E+00  3.05333E+00  3.12762E+00
#           3.20372E+00  3.28167E+00  3.36152E+00  3.44330E+00  3.52708E+00
#           3.61290E+00  3.70080E+00  3.79085E+00  3.88308E+00  3.97756E+00
#           4.07434E+00  4.17347E+00  4.27501E+00  4.37903E+00  4.48557E+00
#           4.59471E+00  4.70650E+00  4.82102E+00  4.93832E+00  5.05847E+00
#           5.18155E+00  5.30762E+00  5.43676E+00  5.56904E+00  5.70453E+00
#           5.84333E+00  5.98550E+00  6.13114E+00  6.28031E+00  6.43312E+00
#           6.58964E+00  6.74997E+00  6.91420E+00  7.08243E+00  7.25475E+00
#           7.43126E+00  7.61207E+00  7.79728E+00  7.98700E+00  8.18133E+00
#           8.38038E+00  8.58428E+00  8.79315E+00  9.00709E+00  9.22624E+00
#           9.45072E+00  9.68067E+00  9.91620E+00  1.01575E+01  1.04046E+01
#           1.06578E+01  1.09171E+01  1.11827E+01  1.14548E+01  1.17335E+01
#           1.20190E+01  1.23114E+01  1.26109E+01  1.29178E+01  1.32321E+01
#           1.35540E+01  1.38838E+01  1.42216E+01  1.45676E+01  1.49221E+01
#           1.52851E+01  1.56570E+01  1.60380E+01  1.64282E+01  1.68279E+01
#           1.72374E+01  1.76568E+01  1.80864E+01  1.85264E+01  1.89772E+01
#           1.94389E+01  1.99119E+01  2.03963E+01  2.08926E+01  2.14009E+01
#           2.19216E+01  2.24550E+01  2.30014E+01  2.35610E+01  2.41343E+01
#           2.47215E+01  2.53230E+01  2.59391E+01  2.65702E+01  2.72167E+01
#           2.78789E+01  2.85572E+01  2.92520E+01  2.99637E+01  3.06928E+01
#           3.14396E+01  3.22045E+01  3.29881E+01  3.37907E+01  3.46128E+01
#           3.54550E+01  3.63177E+01  3.72013E+01  3.81064E+01  3.90336E+01
#           3.99833E+01  4.09561E+01  4.19526E+01  4.29734E+01  4.40189E+01
#           4.50900E+01  4.61870E+01  4.73108E+01  4.84619E+01  4.96410E+01
#           5.08488E+01  5.20860E+01  5.33533E+01  5.46514E+01  5.59812E+01
#           5.73432E+01  5.87384E+01  6.01676E+01  6.16315E+01  6.31311E+01
#           6.46671E+01  6.62405E+01  6.78522E+01  6.95031E+01  7.11941E+01
#           7.29263E+01  7.47007E+01  7.65182E+01  7.83800E+01  8.02870E+01
#           8.22405E+01  8.42414E+01  8.62911E+01  8.83906E+01  9.05412E+01
#           9.27442E+01  9.50007E+01  9.73122E+01  9.96799E+01  1.02105E+02
#           1.04589E+02  1.07134E+02  1.09741E+02  1.12411E+02  1.15146E+02
#           1.17948E+02  1.20817E+02  1.23757E+02  1.26768E+02  1.29852E+02
#           1.33012E+02  1.36248E+02  1.39563E+02  1.42959E+02  1.46437E+02
#           1.50000E+02
     unit =    2            # unit is [1/cm^2/(MeV/n)/source]
     axis =  eng            # axis of output
     file = detector-20.out  # file name of output for the above axis
   output = f-curr          # surface crossing forward current spectrum
     part =  neutron  
# kf/name :  2112     
#    used :        main (  %)        temp (  %)       total (  %)
#  memory :         414 (  0)           0 (  0)         414 (  0)

#------------------------------------------------------------------------------
#newpage:
#   no. =    1   reg = 119 - 219

x: Energy [MeV/n]
y:  F-Curr [1/cm^2/(MeV/n)/source]         
p: xlog ylog afac(0.8) form(0.9)
h: n            x            y(neutron ),hh0l   n 
#  e-lower      e-upper      neutron     r.err 
   1.0000E-02   1.0243E-02   1.4467E-04  0.1066
   1.0243E-02   1.0493E-02   1.5729E-04  0.1008
   1.0493E-02   1.0748E-02   1.6452E-04  0.0976
   1.0748E-02   1.1009E-02   1.7438E-04  0.0937
   1.1009E-02   1.1277E-02   1.5997E-04  0.0966
   1.1277E-02   1.1552E-02   1.7640E-04  0.0909
   1.1552E-02   1.1833E-02   1.5839E-04  0.0947
   1.1833E-02   1.2121E-02   1.4888E-04  0.0965
   1.2121E-02   1.2415E-02   1.7535E-04  0.0879
   1.2415E-02   1.2718E-02   1.5294E-04  0.0929
   1.2718E-02   1.3027E-02   1.5788E-04  0.0904
   1.3027E-02   1.3344E-02   1.3503E-04  0.0964
   1.3344E-02   1.3669E-02   1.3676E-04  0.0947
   1.3669E-02   1.4001E-02   1.5896E-04  0.0869
   1.4001E-02   1.4342E-02   1.5030E-04  0.0884
   1.4342E-02   1.4691E-02   1.5149E-04  0.0869
   1.4691E-02   1.5048E-02   1.2667E-04  0.0937
   1.5048E-02   1.5414E-02   1.4967E-04  0.0854
   1.5414E-02   1.5789E-02   1.5908E-04  0.0817
   1.5789E-02   1.6174E-02   1.4733E-04  0.0840
   1.6174E-02   1.6567E-02   1.3163E-04  0.0876
   1.6567E-02   1.6970E-02   1.1525E-04  0.0927
   1.6970E-02   1.7383E-02   1.3044E-04  0.0861
   1.7383E-02   1.7806E-02   1.4306E-04  0.0811
   1.7806E-02   1.8239E-02   1.2926E-04  0.0845
   1.8239E-02   1.8683E-02   1.1035E-04  0.0901
   1.8683E-02   1.9138E-02   1.2891E-04  0.0825
   1.9138E-02   1.9603E-02   1.2811E-04  0.0819
   1.9603E-02   2.0080E-02   1.0781E-04  0.0880
   2.0080E-02   2.0569E-02   1.0338E-04  0.0889
   2.0569E-02   2.1069E-02   1.0670E-04  0.0865
   2.1069E-02   2.1582E-02   1.1924E-04  0.0806
   2.1582E-02   2.2107E-02   1.1191E-04  0.0823
   2.2107E-02   2.2645E-02   1.1713E-04  0.0796
   2.2645E-02   2.3196E-02   1.2001E-04  0.0777
   2.3196E-02   2.3760E-02   1.2459E-04  0.0753
   2.3760E-02   2.4338E-02   1.1196E-04  0.0785
   2.4338E-02   2.4930E-02   9.6701E-05  0.0835
   2.4930E-02   2.5537E-02   1.1054E-04  0.0772
   2.5537E-02   2.6158E-02   1.0825E-04  0.0771
   2.6158E-02   2.6795E-02   9.6787E-05  0.0806
   2.6795E-02   2.7447E-02   1.0195E-04  0.0775
   2.7447E-02   2.8114E-02   1.0153E-04  0.0768
   2.8114E-02   2.8799E-02   9.6485E-05  0.0777
   2.8799E-02   2.9499E-02   8.3346E-05  0.0828
   2.9499E-02   3.0217E-02   7.6881E-05  0.0849
   3.0217E-02   3.0952E-02   9.4556E-05  0.0757
   3.0952E-02   3.1705E-02   9.3367E-05  0.0753
   3.1705E-02   3.2477E-02   9.3854E-05  0.0743
   3.2477E-02   3.3267E-02   9.3118E-05  0.0736
   3.3267E-02   3.4076E-02   6.5974E-05  0.0865
   3.4076E-02   3.4905E-02   9.7033E-05  0.0705
   3.4905E-02   3.5755E-02   8.4512E-05  0.0745
   3.5755E-02   3.6625E-02   7.8626E-05  0.0764
   3.6625E-02   3.7516E-02   9.0963E-05  0.0702
   3.7516E-02   3.8428E-02   7.7346E-05  0.0752
   3.8428E-02   3.9363E-02   8.8052E-05  0.0696
   3.9363E-02   4.0321E-02   8.6512E-05  0.0695
   4.0321E-02   4.1302E-02   8.0435E-05  0.0712
   4.1302E-02   4.2307E-02   7.0306E-05  0.0752
   4.2307E-02   4.3337E-02   7.4415E-05  0.0722
   4.3337E-02   4.4391E-02   7.6632E-05  0.0702
   4.4391E-02   4.5471E-02   7.8813E-05  0.0685
   4.5471E-02   4.6577E-02   7.9413E-05  0.0673
   4.6577E-02   4.7711E-02   6.4817E-05  0.0737
   4.7711E-02   4.8871E-02   6.1047E-05  0.0751
   4.8871E-02   5.0061E-02   5.9878E-05  0.0750
   5.0061E-02   5.1279E-02   6.9672E-05  0.0686
   5.1279E-02   5.2526E-02   6.9185E-05  0.0679
   5.2526E-02   5.3804E-02   6.7960E-05  0.0678
   5.3804E-02   5.5113E-02   6.9497E-05  0.0663
   5.5113E-02   5.6454E-02   6.1292E-05  0.0697
   5.6454E-02   5.7828E-02   6.2692E-05  0.0680
   5.7828E-02   5.9235E-02   6.7643E-05  0.0647
   5.9235E-02   6.0676E-02   6.4614E-05  0.0655
   6.0676E-02   6.2152E-02   5.9010E-05  0.0676
   6.2152E-02   6.3665E-02   6.5942E-05  0.0633
   6.3665E-02   6.5214E-02   5.9694E-05  0.0657
   6.5214E-02   6.6800E-02   6.2348E-05  0.0634
   6.6800E-02   6.8426E-02   6.1519E-05  0.0631
   6.8426E-02   7.0090E-02   5.4247E-05  0.0665
   7.0090E-02   7.1796E-02   6.4151E-05  0.0604
   7.1796E-02   7.3543E-02   5.8926E-05  0.0622
   7.3543E-02   7.5332E-02   6.1081E-05  0.0604
   7.5332E-02   7.7165E-02   5.1352E-05  0.0652
   7.7165E-02   7.9042E-02   6.0151E-05  0.0595
   7.9042E-02   8.0965E-02   4.5793E-05  0.0673
   8.0965E-02   8.2935E-02   5.6583E-05  0.0599
   8.2935E-02   8.4953E-02   5.1967E-05  0.0617
   8.4953E-02   8.7020E-02   5.1379E-05  0.0613
   8.7020E-02   8.9138E-02   5.4505E-05  0.0588
   8.9138E-02   9.1306E-02   4.5918E-05  0.0633
   9.1306E-02   9.3528E-02   4.6088E-05  0.0624
   9.3528E-02   9.5804E-02   5.3839E-05  0.0571
   9.5804E-02   9.8134E-02   4.4694E-05  0.0619
   9.8134E-02   1.0052E-01   4.1903E-05  0.0632
   1.0052E-01   1.0297E-01   4.2789E-05  0.0618
   1.0297E-01   1.0547E-01   4.7286E-05  0.0581
   1.0547E-01   1.0804E-01   4.6449E-05  0.0579
   1.0804E-01   1.1067E-01   4.2708E-05  0.0596
   1.1067E-01   1.1336E-01   3.9563E-05  0.0612
   1.1336E-01   1.1612E-01   4.7154E-05  0.0554
   1.1612E-01   1.1894E-01   3.8645E-05  0.0605
   1.1894E-01   1.2184E-01   4.1735E-05  0.0575
   1.2184E-01   1.2480E-01   4.3084E-05  0.0559
   1.2480E-01   1.2784E-01   4.0827E-05  0.0567
   1.2784E-01   1.3095E-01   3.8773E-05  0.0576
   1.3095E-01   1.3414E-01   3.7887E-05  0.0575
   1.3414E-01   1.3740E-01   3.8075E-05  0.0567
   1.3740E-01   1.4074E-01   3.6227E-05  0.0574
   1.4074E-01   1.4417E-01   3.6583E-05  0.0564
   1.4417E-01   1.4767E-01   3.4418E-05  0.0574
   1.4767E-01   1.5127E-01   3.6644E-05  0.0551
   1.5127E-01   1.5495E-01   3.3795E-05  0.0566
   1.5495E-01   1.5872E-01   3.6159E-05  0.0541
   1.5872E-01   1.6258E-01   3.3353E-05  0.0557
   1.6258E-01   1.6654E-01   2.9830E-05  0.0582
   1.6654E-01   1.7059E-01   3.1985E-05  0.0556
   1.7059E-01   1.7474E-01   3.2959E-05  0.0540
   1.7474E-01   1.7899E-01   3.2977E-05  0.0534
   1.7899E-01   1.8334E-01   2.5378E-05  0.0601
   1.8334E-01   1.8781E-01   2.7304E-05  0.0573
   1.8781E-01   1.9237E-01   2.5278E-05  0.0587
   1.9237E-01   1.9706E-01   2.8725E-05  0.0545
   1.9706E-01   2.0185E-01   2.9117E-05  0.0535
   2.0185E-01   2.0676E-01   2.6784E-05  0.0551
   2.0676E-01   2.1179E-01   2.4183E-05  0.0573
   2.1179E-01   2.1694E-01   2.7274E-05  0.0532
   2.1694E-01   2.2222E-01   2.5727E-05  0.0542
   2.2222E-01   2.2763E-01   2.2843E-05  0.0569
   2.2763E-01   2.3317E-01   2.4911E-05  0.0537
   2.3317E-01   2.3884E-01   2.6568E-05  0.0515
   2.3884E-01   2.4465E-01   2.6422E-05  0.0509
   2.4465E-01   2.5061E-01   2.6474E-05  0.0503
   2.5061E-01   2.5670E-01   2.5919E-05  0.0502
   2.5670E-01   2.6295E-01   2.4791E-05  0.0507
   2.6295E-01   2.6935E-01   2.2893E-05  0.0522
   2.6935E-01   2.7590E-01   2.2941E-05  0.0515
   2.7590E-01   2.8261E-01   2.5371E-05  0.0483
   2.8261E-01   2.8949E-01   2.4323E-05  0.0488
   2.8949E-01   2.9653E-01   2.4023E-05  0.0485
   2.9653E-01   3.0375E-01   2.4062E-05  0.0479
   3.0375E-01   3.1114E-01   2.3278E-05  0.0481
   3.1114E-01   3.1871E-01   2.2000E-05  0.0489
   3.1871E-01   3.2646E-01   2.2068E-05  0.0482
   3.2646E-01   3.3441E-01   2.2186E-05  0.0475
   3.3441E-01   3.4254E-01   2.2532E-05  0.0465
   3.4254E-01   3.5088E-01   2.1823E-05  0.0467
   3.5088E-01   3.5941E-01   2.0605E-05  0.0475
   3.5941E-01   3.6816E-01   1.9546E-05  0.0482
   3.6816E-01   3.7712E-01   1.9685E-05  0.0475
   3.7712E-01   3.8629E-01   2.0323E-05  0.0462
   3.8629E-01   3.9569E-01   2.0615E-05  0.0453
   3.9569E-01   4.0532E-01   1.8194E-05  0.0476
   4.0532E-01   4.1518E-01   1.9204E-05  0.0457
   4.1518E-01   4.2528E-01   2.0796E-05  0.0435
   4.2528E-01   4.3563E-01   1.8717E-05  0.0452
   4.3563E-01   4.4623E-01   1.8209E-05  0.0453
   4.4623E-01   4.5708E-01   1.7803E-05  0.0454
   4.5708E-01   4.6821E-01   1.8078E-05  0.0445
   4.6821E-01   4.7960E-01   1.9194E-05  0.0426
   4.7960E-01   4.9127E-01   1.8630E-05  0.0427
   4.9127E-01   5.0322E-01   1.6868E-05  0.0443
   5.0322E-01   5.1546E-01   1.7465E-05  0.0431
   5.1546E-01   5.2800E-01   1.7610E-05  0.0424
   5.2800E-01   5.4085E-01   1.6772E-05  0.0429
   5.4085E-01   5.5401E-01   1.6110E-05  0.0432
   5.5401E-01   5.6749E-01   1.6469E-05  0.0422
   5.6749E-01   5.8130E-01   1.5269E-05  0.0433
   5.8130E-01   5.9544E-01   1.4839E-05  0.0435
   5.9544E-01   6.0993E-01   1.6279E-05  0.0410
   6.0993E-01   6.2477E-01   1.4637E-05  0.0427
   6.2477E-01   6.3997E-01   1.3576E-05  0.0438
   6.3997E-01   6.5554E-01   1.5145E-05  0.0410
   6.5554E-01   6.7149E-01   1.3047E-05  0.0436
   6.7149E-01   6.8783E-01   1.3594E-05  0.0421
   6.8783E-01   7.0456E-01   1.5089E-05  0.0396
   7.0456E-01   7.2171E-01   1.3831E-05  0.0409
   7.2171E-01   7.3927E-01   1.4100E-05  0.0399
   7.3927E-01   7.5725E-01   1.3347E-05  0.0406
   7.5725E-01   7.7568E-01   1.2561E-05  0.0413
   7.7568E-01   7.9455E-01   1.2273E-05  0.0413
   7.9455E-01   8.1388E-01   1.2875E-05  0.0399
   8.1388E-01   8.3368E-01   1.3629E-05  0.0383
   8.3368E-01   8.5397E-01   1.1925E-05  0.0404
   8.5397E-01   8.7475E-01   1.2038E-05  0.0397
   8.7475E-01   8.9603E-01   1.2768E-05  0.0381
   8.9603E-01   9.1783E-01   1.2063E-05  0.0387
   9.1783E-01   9.4016E-01   1.1767E-05  0.0388
   9.4016E-01   9.6304E-01   1.2121E-05  0.0378
   9.6304E-01   9.8647E-01   1.1278E-05  0.0386
   9.8647E-01   1.0105E+00   1.0810E-05  0.0390
   1.0105E+00   1.0351E+00   1.2068E-05  0.0364
   1.0351E+00   1.0602E+00   1.1047E-05  0.0376
   1.0602E+00   1.0860E+00   1.0819E-05  0.0376
   1.0860E+00   1.1125E+00   1.0824E-05  0.0371
   1.1125E+00   1.1395E+00   1.0906E-05  0.0366
   1.1395E+00   1.1673E+00   1.0944E-05  0.0361
   1.1673E+00   1.1957E+00   1.1140E-05  0.0353
   1.1957E+00   1.2247E+00   1.0318E-05  0.0362
   1.2247E+00   1.2545E+00   1.0681E-05  0.0352
   1.2545E+00   1.2851E+00   1.0920E-05  0.0345
   1.2851E+00   1.3163E+00   1.0142E-05  0.0353
   1.3163E+00   1.3484E+00   1.0564E-05  0.0341
   1.3484E+00   1.3812E+00   9.9889E-06  0.0347
   1.3812E+00   1.4148E+00   9.8273E-06  0.0346
   1.4148E+00   1.4492E+00   9.5256E-06  0.0347
   1.4492E+00   1.4845E+00   9.6396E-06  0.0341
   1.4845E+00   1.5206E+00   1.0012E-05  0.0330
   1.5206E+00   1.5576E+00   9.8662E-06  0.0329
   1.5576E+00   1.5955E+00   9.5526E-06  0.0330
   1.5955E+00   1.6343E+00   9.3138E-06  0.0331
   1.6343E+00   1.6741E+00   1.0035E-05  0.0315
   1.6741E+00   1.7148E+00   9.4076E-06  0.0321
   1.7148E+00   1.7565E+00   9.2590E-06  0.0320
   1.7565E+00   1.7992E+00   9.1312E-06  0.0318
   1.7992E+00   1.8430E+00   8.7948E-06  0.0320
   1.8430E+00   1.8879E+00   8.7620E-06  0.0317
   1.8879E+00   1.9338E+00   9.0823E-06  0.0308
   1.9338E+00   1.9808E+00   8.3070E-06  0.0318
   1.9808E+00   2.0290E+00   8.2566E-06  0.0315
   2.0290E+00   2.0784E+00   8.3535E-06  0.0310
   2.0784E+00   2.1290E+00   8.3252E-06  0.0306
   2.1290E+00   2.1808E+00   7.8743E-06  0.0311
   2.1808E+00   2.2338E+00   7.5652E-06  0.0314
   2.2338E+00   2.2882E+00   7.6350E-06  0.0309
   2.2882E+00   2.3439E+00   7.4238E-06  0.0309
   2.3439E+00   2.4009E+00   7.9440E-06  0.0296
   2.4009E+00   2.4593E+00   7.5358E-06  0.0300
   2.4593E+00   2.5191E+00   7.7264E-06  0.0293
   2.5191E+00   2.5804E+00   7.8558E-06  0.0287
   2.5804E+00   2.6432E+00   8.0231E-06  0.0281
   2.6432E+00   2.7075E+00   8.1879E-06  0.0274
   2.7075E+00   2.7734E+00   7.8381E-06  0.0277
   2.7734E+00   2.8409E+00   7.8409E-06  0.0274
   2.8409E+00   2.9100E+00   8.4699E-06  0.0260
   2.9100E+00   2.9808E+00   8.0122E-06  0.0264
   2.9808E+00   3.0533E+00   7.9220E-06  0.0263
   3.0533E+00   3.1276E+00   6.6666E-06  0.0283
   3.1276E+00   3.2037E+00   5.4737E-06  0.0308
   3.2037E+00   3.2817E+00   5.1038E-06  0.0315
   3.2817E+00   3.3615E+00   5.0535E-06  0.0314
   3.3615E+00   3.4433E+00   5.3743E-06  0.0300
   3.4433E+00   3.5271E+00   4.9986E-06  0.0308
   3.5271E+00   3.6129E+00   4.9237E-06  0.0306
   3.6129E+00   3.7008E+00   5.0203E-06  0.0300
   3.7008E+00   3.7908E+00   4.7929E-06  0.0303
   3.7908E+00   3.8831E+00   4.7682E-06  0.0301
   3.8831E+00   3.9776E+00   4.5518E-06  0.0304
   3.9776E+00   4.0743E+00   4.4774E-06  0.0303
   4.0743E+00   4.1735E+00   4.6829E-06  0.0293
   4.1735E+00   4.2750E+00   4.3604E-06  0.0300
   4.2750E+00   4.3790E+00   4.0546E-06  0.0307
   4.3790E+00   4.4856E+00   4.1898E-06  0.0299
   4.4856E+00   4.5947E+00   3.8942E-06  0.0306
   4.5947E+00   4.7065E+00   3.8427E-06  0.0304
   4.7065E+00   4.8210E+00   3.7867E-06  0.0303
   4.8210E+00   4.9383E+00   3.9281E-06  0.0294
   4.9383E+00   5.0585E+00   3.5322E-06  0.0306
   5.0585E+00   5.1815E+00   3.3299E-06  0.0312
   5.1815E+00   5.3076E+00   3.1745E-06  0.0316
   5.3076E+00   5.4368E+00   3.1099E-06  0.0315
   5.4368E+00   5.5690E+00   3.1483E-06  0.0310
   5.5690E+00   5.7045E+00   3.0570E-06  0.0310
   5.7045E+00   5.8433E+00   2.9393E-06  0.0313
   5.8433E+00   5.9855E+00   2.9750E-06  0.0307
   5.9855E+00   6.1311E+00   2.8173E-06  0.0312
   6.1311E+00   6.2803E+00   2.5964E-06  0.0321
   6.2803E+00   6.4331E+00   2.7784E-06  0.0307
   6.4331E+00   6.5896E+00   2.5684E-06  0.0315
   6.5896E+00   6.7500E+00   2.6021E-06  0.0310
   6.7500E+00   6.9142E+00   2.4493E-06  0.0315
   6.9142E+00   7.0824E+00   2.3472E-06  0.0318
   7.0824E+00   7.2548E+00   2.2564E-06  0.0321
   7.2548E+00   7.4313E+00   2.2155E-06  0.0320
   7.4313E+00   7.6121E+00   2.1787E-06  0.0318
   7.6121E+00   7.7973E+00   2.0931E-06  0.0321
   7.7973E+00   7.9870E+00   2.0553E-06  0.0320
   7.9870E+00   8.1813E+00   1.9469E-06  0.0325
   8.1813E+00   8.3804E+00   2.0618E-06  0.0312
   8.3804E+00   8.5843E+00   1.9117E-06  0.0320
   8.5843E+00   8.7931E+00   1.8299E-06  0.0323
   8.7931E+00   9.0071E+00   1.7746E-06  0.0325
   9.0071E+00   9.2262E+00   1.6430E-06  0.0333
   9.2262E+00   9.4507E+00   1.5873E-06  0.0335
   9.4507E+00   9.6807E+00   1.6711E-06  0.0323
   9.6807E+00   9.9162E+00   1.4525E-06  0.0342
   9.9162E+00   1.0157E+01   1.3368E-06  0.0352
   1.0157E+01   1.0405E+01   1.3377E-06  0.0348
   1.0405E+01   1.0658E+01   1.5583E-06  0.0318
   1.0658E+01   1.0917E+01   1.5307E-06  0.0317
   1.0917E+01   1.1183E+01   1.3411E-06  0.0335
   1.1183E+01   1.1455E+01   1.2820E-06  0.0338
   1.1455E+01   1.1733E+01   1.1574E-06  0.0352
   1.1733E+01   1.2019E+01   1.0119E-06  0.0372
   1.2019E+01   1.2311E+01   8.7323E-07  0.0395
   1.2311E+01   1.2611E+01   8.6613E-07  0.0392
   1.2611E+01   1.2918E+01   6.9048E-07  0.0434
   1.2918E+01   1.3232E+01   7.8183E-07  0.0403
   1.3232E+01   1.3554E+01   7.1383E-07  0.0417
   1.3554E+01   1.3884E+01   5.5747E-07  0.0466
   1.3884E+01   1.4222E+01   3.0957E-07  0.0618
   1.4222E+01   1.4568E+01   1.8296E-07  0.0791
   1.4568E+01   1.4922E+01   9.2879E-08  0.1101
   1.4922E+01   1.5285E+01   4.7553E-08  0.1508
   1.5285E+01   1.5657E+01   2.3977E-08  0.2106
   1.5657E+01   1.6038E+01   2.3930E-08  0.2072
   1.6038E+01   1.6428E+01   1.5039E-08  0.2561
   1.6428E+01   1.6828E+01   1.2009E-08  0.2887
   1.6828E+01   1.7237E+01   9.7695E-09  0.3162
   1.7237E+01   1.7657E+01   1.5260E-08  0.2500
   1.7657E+01   1.8086E+01   9.3109E-09  0.3162
   1.8086E+01   1.8526E+01   3.9438E-09  0.4643
   1.8526E+01   1.8977E+01   4.4369E-09  0.4472
   1.8977E+01   1.9439E+01   3.4652E-09  0.5000
   1.9439E+01   1.9912E+01   2.5372E-09  0.5774
   1.9912E+01   2.0396E+01   0.0000E+00  0.0000
   2.0396E+01   2.0893E+01   0.0000E+00  0.0000
   2.0893E+01   2.1401E+01   0.0000E+00  0.0000
   2.1401E+01   2.1922E+01   0.0000E+00  0.0000
   2.1922E+01   2.2455E+01   0.0000E+00  0.0000
   2.2455E+01   2.3001E+01   0.0000E+00  0.0000
   2.3001E+01   2.3561E+01   0.0000E+00  0.0000
   2.3561E+01   2.4134E+01   0.0000E+00  0.0000
   2.4134E+01   2.4721E+01   0.0000E+00  0.0000
   2.4721E+01   2.5323E+01   0.0000E+00  0.0000
   2.5323E+01   2.5939E+01   0.0000E+00  0.0000
   2.5939E+01   2.6570E+01   0.0000E+00  0.0000
   2.6570E+01   2.7217E+01   0.0000E+00  0.0000
   2.7217E+01   2.7879E+01   0.0000E+00  0.0000
   2.7879E+01   2.8557E+01   0.0000E+00  0.0000
   2.8557E+01   2.9252E+01   0.0000E+00  0.0000
   2.9252E+01   2.9964E+01   0.0000E+00  0.0000
   2.9964E+01   3.0693E+01   0.0000E+00  0.0000
   3.0693E+01   3.1440E+01   0.0000E+00  0.0000
   3.1440E+01   3.2205E+01   0.0000E+00  0.0000
   3.2205E+01   3.2988E+01   0.0000E+00  0.0000
   3.2988E+01   3.3791E+01   0.0000E+00  0.0000
   3.3791E+01   3.4613E+01   0.0000E+00  0.0000
   3.4613E+01   3.5455E+01   0.0000E+00  0.0000
   3.5455E+01   3.6318E+01   0.0000E+00  0.0000
   3.6318E+01   3.7201E+01   0.0000E+00  0.0000
   3.7201E+01   3.8106E+01   0.0000E+00  0.0000
   3.8106E+01   3.9034E+01   0.0000E+00  0.0000
   3.9034E+01   3.9983E+01   0.0000E+00  0.0000
   3.9983E+01   4.0956E+01   0.0000E+00  0.0000
   4.0956E+01   4.1953E+01   0.0000E+00  0.0000
   4.1953E+01   4.2973E+01   0.0000E+00  0.0000
   4.2973E+01   4.4019E+01   0.0000E+00  0.0000
   4.4019E+01   4.5090E+01   0.0000E+00  0.0000
   4.5090E+01   4.6187E+01   0.0000E+00  0.0000
   4.6187E+01   4.7311E+01   0.0000E+00  0.0000
   4.7311E+01   4.8462E+01   0.0000E+00  0.0000
   4.8462E+01   4.9641E+01   0.0000E+00  0.0000
   4.9641E+01   5.0849E+01   0.0000E+00  0.0000
   5.0849E+01   5.2086E+01   0.0000E+00  0.0000
   5.2086E+01   5.3353E+01   0.0000E+00  0.0000
   5.3353E+01   5.4651E+01   0.0000E+00  0.0000
   5.4651E+01   5.5981E+01   0.0000E+00  0.0000
   5.5981E+01   5.7343E+01   0.0000E+00  0.0000
   5.7343E+01   5.8738E+01   0.0000E+00  0.0000
   5.8738E+01   6.0168E+01   0.0000E+00  0.0000
   6.0168E+01   6.1632E+01   0.0000E+00  0.0000
   6.1632E+01   6.3131E+01   0.0000E+00  0.0000
   6.3131E+01   6.4667E+01   0.0000E+00  0.0000
   6.4667E+01   6.6240E+01   0.0000E+00  0.0000
   6.6240E+01   6.7852E+01   0.0000E+00  0.0000
   6.7852E+01   6.9503E+01   0.0000E+00  0.0000
   6.9503E+01   7.1194E+01   0.0000E+00  0.0000
   7.1194E+01   7.2926E+01   0.0000E+00  0.0000
   7.2926E+01   7.4701E+01   0.0000E+00  0.0000
   7.4701E+01   7.6518E+01   0.0000E+00  0.0000
   7.6518E+01   7.8380E+01   0.0000E+00  0.0000
   7.8380E+01   8.0287E+01   0.0000E+00  0.0000
   8.0287E+01   8.2240E+01   0.0000E+00  0.0000
   8.2240E+01   8.4241E+01   0.0000E+00  0.0000
   8.4241E+01   8.6291E+01   0.0000E+00  0.0000
   8.6291E+01   8.8391E+01   0.0000E+00  0.0000
   8.8391E+01   9.0541E+01   0.0000E+00  0.0000
   9.0541E+01   9.2744E+01   0.0000E+00  0.0000
   9.2744E+01   9.5001E+01   0.0000E+00  0.0000
   9.5001E+01   9.7312E+01   0.0000E+00  0.0000
   9.7312E+01   9.9680E+01   0.0000E+00  0.0000
   9.9680E+01   1.0211E+02   0.0000E+00  0.0000
   1.0211E+02   1.0459E+02   0.0000E+00  0.0000
   1.0459E+02   1.0713E+02   0.0000E+00  0.0000
   1.0713E+02   1.0974E+02   0.0000E+00  0.0000
   1.0974E+02   1.1241E+02   0.0000E+00  0.0000
   1.1241E+02   1.1515E+02   0.0000E+00  0.0000
   1.1515E+02   1.1795E+02   0.0000E+00  0.0000
   1.1795E+02   1.2082E+02   0.0000E+00  0.0000
   1.2082E+02   1.2376E+02   0.0000E+00  0.0000
   1.2376E+02   1.2677E+02   0.0000E+00  0.0000
   1.2677E+02   1.2985E+02   0.0000E+00  0.0000
   1.2985E+02   1.3301E+02   0.0000E+00  0.0000
   1.3301E+02   1.3625E+02   0.0000E+00  0.0000
   1.3625E+02   1.3956E+02   0.0000E+00  0.0000
   1.3956E+02   1.4296E+02   0.0000E+00  0.0000
   1.4296E+02   1.4644E+02   0.0000E+00  0.0000
   1.4644E+02   1.5000E+02   0.0000E+00  0.0000

#   sum over                 4.4360E-07
'no. =    1   reg = 119 - 219'
msuc: {\huge [t-cross] in region mesh}
msdr: {\it plotted by \ANGEL \version}
msdl: {\it calculated by \PHITS  3.26}
wt: s(0.7)
\vspace{-3}
  region surface crossing
  area  &=&   1.0000E+00 [cm^2]
e:
 
# Information for Restart Calculation
# This calculation was newly started
# istdev =  2 # 1:Batch variance, 2:History variance
# resc2  = 2.50000000000000000E+09 # Total source weight or Total source weight / maxcas
# resc3  = 2.50000000000000000E+09 # Total history number or Total batch number
# maxcas =   500000000 # History / Batch, only used for istdev=1
# bitrseed = 1100001110001001100010001100011001110101000011000110100101010100 # bit data of rseed
