[ T-Cross ]
    title = [t-cross] in region mesh
     mesh =  reg            # mesh type is region-wise
      reg =    1            # number of crossing regions
      non     r-from    r-to       area
      1       117       217        1.000000    
   e-type =    3            # e-mesh is log given by emin, emax and ne
     emin =  1.0000000E-02  # minimum value of e-mesh points
     emax =   150.0000      # maximum value of e-mesh points
#    edel =  2.4039514E-02  # mesh width of e-mesh points
       ne =    400          # number of e-mesh points
#    data = ( e(i), i = 1, ne + 1 )
#           1.00000E-02  1.02433E-02  1.04925E-02  1.07478E-02  1.10093E-02
#           1.12772E-02  1.15516E-02  1.18326E-02  1.21205E-02  1.24154E-02
#           1.27175E-02  1.30269E-02  1.33439E-02  1.36686E-02  1.40011E-02
#           1.43418E-02  1.46907E-02  1.50482E-02  1.54143E-02  1.57894E-02
#           1.61735E-02  1.65670E-02  1.69701E-02  1.73830E-02  1.78060E-02
#           1.82392E-02  1.86830E-02  1.91375E-02  1.96032E-02  2.00801E-02
#           2.05687E-02  2.10692E-02  2.15818E-02  2.21069E-02  2.26448E-02
#           2.31957E-02  2.37601E-02  2.43382E-02  2.49304E-02  2.55369E-02
#           2.61583E-02  2.67947E-02  2.74467E-02  2.81145E-02  2.87985E-02
#           2.94992E-02  3.02169E-02  3.09521E-02  3.17052E-02  3.24766E-02
#           3.32668E-02  3.40762E-02  3.49053E-02  3.57546E-02  3.66246E-02
#           3.75157E-02  3.84284E-02  3.93634E-02  4.03212E-02  4.13022E-02
#           4.23071E-02  4.33365E-02  4.43909E-02  4.54710E-02  4.65773E-02
#           4.77106E-02  4.88714E-02  5.00605E-02  5.12785E-02  5.25262E-02
#           5.38042E-02  5.51133E-02  5.64542E-02  5.78278E-02  5.92348E-02
#           6.06760E-02  6.21523E-02  6.36645E-02  6.52135E-02  6.68002E-02
#           6.84255E-02  7.00904E-02  7.17957E-02  7.35426E-02  7.53319E-02
#           7.71648E-02  7.90423E-02  8.09655E-02  8.29354E-02  8.49533E-02
#           8.70203E-02  8.91376E-02  9.13064E-02  9.35279E-02  9.58035E-02
#           9.81345E-02  1.00522E-01  1.02968E-01  1.05473E-01  1.08040E-01
#           1.10668E-01  1.13361E-01  1.16119E-01  1.18944E-01  1.21838E-01
#           1.24803E-01  1.27839E-01  1.30950E-01  1.34136E-01  1.37399E-01
#           1.40742E-01  1.44167E-01  1.47675E-01  1.51268E-01  1.54948E-01
#           1.58718E-01  1.62580E-01  1.66535E-01  1.70587E-01  1.74738E-01
#           1.78989E-01  1.83344E-01  1.87805E-01  1.92375E-01  1.97055E-01
#           2.01850E-01  2.06761E-01  2.11792E-01  2.16945E-01  2.22223E-01
#           2.27630E-01  2.33169E-01  2.38842E-01  2.44653E-01  2.50605E-01
#           2.56703E-01  2.62949E-01  2.69346E-01  2.75900E-01  2.82613E-01
#           2.89489E-01  2.96532E-01  3.03747E-01  3.11138E-01  3.18708E-01
#           3.26462E-01  3.34405E-01  3.42542E-01  3.50876E-01  3.59413E-01
#           3.68158E-01  3.77116E-01  3.86291E-01  3.95690E-01  4.05317E-01
#           4.15179E-01  4.25281E-01  4.35628E-01  4.46227E-01  4.57084E-01
#           4.68205E-01  4.79597E-01  4.91266E-01  5.03219E-01  5.15463E-01
#           5.28005E-01  5.40851E-01  5.54011E-01  5.67490E-01  5.81298E-01
#           5.95441E-01  6.09929E-01  6.24769E-01  6.39970E-01  6.55541E-01
#           6.71491E-01  6.87828E-01  7.04564E-01  7.21706E-01  7.39266E-01
#           7.57253E-01  7.75678E-01  7.94551E-01  8.13883E-01  8.33685E-01
#           8.53969E-01  8.74747E-01  8.96030E-01  9.17831E-01  9.40163E-01
#           9.63038E-01  9.86469E-01  1.01047E+00  1.03506E+00  1.06024E+00
#           1.08604E+00  1.11246E+00  1.13953E+00  1.16725E+00  1.19565E+00
#           1.22474E+00  1.25454E+00  1.28507E+00  1.31633E+00  1.34836E+00
#           1.38117E+00  1.41477E+00  1.44920E+00  1.48446E+00  1.52057E+00
#           1.55757E+00  1.59547E+00  1.63429E+00  1.67405E+00  1.71478E+00
#           1.75650E+00  1.79924E+00  1.84302E+00  1.88786E+00  1.93379E+00
#           1.98084E+00  2.02904E+00  2.07841E+00  2.12898E+00  2.18078E+00
#           2.23384E+00  2.28819E+00  2.34386E+00  2.40089E+00  2.45930E+00
#           2.51914E+00  2.58043E+00  2.64322E+00  2.70753E+00  2.77341E+00
#           2.84088E+00  2.91001E+00  2.98081E+00  3.05333E+00  3.12762E+00
#           3.20372E+00  3.28167E+00  3.36152E+00  3.44330E+00  3.52708E+00
#           3.61290E+00  3.70080E+00  3.79085E+00  3.88308E+00  3.97756E+00
#           4.07434E+00  4.17347E+00  4.27501E+00  4.37903E+00  4.48557E+00
#           4.59471E+00  4.70650E+00  4.82102E+00  4.93832E+00  5.05847E+00
#           5.18155E+00  5.30762E+00  5.43676E+00  5.56904E+00  5.70453E+00
#           5.84333E+00  5.98550E+00  6.13114E+00  6.28031E+00  6.43312E+00
#           6.58964E+00  6.74997E+00  6.91420E+00  7.08243E+00  7.25475E+00
#           7.43126E+00  7.61207E+00  7.79728E+00  7.98700E+00  8.18133E+00
#           8.38038E+00  8.58428E+00  8.79315E+00  9.00709E+00  9.22624E+00
#           9.45072E+00  9.68067E+00  9.91620E+00  1.01575E+01  1.04046E+01
#           1.06578E+01  1.09171E+01  1.11827E+01  1.14548E+01  1.17335E+01
#           1.20190E+01  1.23114E+01  1.26109E+01  1.29178E+01  1.32321E+01
#           1.35540E+01  1.38838E+01  1.42216E+01  1.45676E+01  1.49221E+01
#           1.52851E+01  1.56570E+01  1.60380E+01  1.64282E+01  1.68279E+01
#           1.72374E+01  1.76568E+01  1.80864E+01  1.85264E+01  1.89772E+01
#           1.94389E+01  1.99119E+01  2.03963E+01  2.08926E+01  2.14009E+01
#           2.19216E+01  2.24550E+01  2.30014E+01  2.35610E+01  2.41343E+01
#           2.47215E+01  2.53230E+01  2.59391E+01  2.65702E+01  2.72167E+01
#           2.78789E+01  2.85572E+01  2.92520E+01  2.99637E+01  3.06928E+01
#           3.14396E+01  3.22045E+01  3.29881E+01  3.37907E+01  3.46128E+01
#           3.54550E+01  3.63177E+01  3.72013E+01  3.81064E+01  3.90336E+01
#           3.99833E+01  4.09561E+01  4.19526E+01  4.29734E+01  4.40189E+01
#           4.50900E+01  4.61870E+01  4.73108E+01  4.84619E+01  4.96410E+01
#           5.08488E+01  5.20860E+01  5.33533E+01  5.46514E+01  5.59812E+01
#           5.73432E+01  5.87384E+01  6.01676E+01  6.16315E+01  6.31311E+01
#           6.46671E+01  6.62405E+01  6.78522E+01  6.95031E+01  7.11941E+01
#           7.29263E+01  7.47007E+01  7.65182E+01  7.83800E+01  8.02870E+01
#           8.22405E+01  8.42414E+01  8.62911E+01  8.83906E+01  9.05412E+01
#           9.27442E+01  9.50007E+01  9.73122E+01  9.96799E+01  1.02105E+02
#           1.04589E+02  1.07134E+02  1.09741E+02  1.12411E+02  1.15146E+02
#           1.17948E+02  1.20817E+02  1.23757E+02  1.26768E+02  1.29852E+02
#           1.33012E+02  1.36248E+02  1.39563E+02  1.42959E+02  1.46437E+02
#           1.50000E+02
     unit =    2            # unit is [1/cm^2/(MeV/n)/source]
     axis =  eng            # axis of output
     file = detector-18.out  # file name of output for the above axis
   output = f-curr          # surface crossing forward current spectrum
     part =  neutron  
# kf/name :  2112     
#    used :        main (  %)        temp (  %)       total (  %)
#  memory :         414 (  0)           0 (  0)         414 (  0)

#------------------------------------------------------------------------------
#newpage:
#   no. =    1   reg = 117 - 217

x: Energy [MeV/n]
y:  F-Curr [1/cm^2/(MeV/n)/source]         
p: xlog ylog afac(0.8) form(0.9)
h: n            x            y(neutron ),hh0l   n 
#  e-lower      e-upper      neutron     r.err 
   1.0000E-02   1.0243E-02   3.4182E-03  0.0489
   1.0243E-02   1.0493E-02   3.2550E-03  0.0495
   1.0493E-02   1.0748E-02   3.5763E-03  0.0467
   1.0748E-02   1.1009E-02   3.1261E-03  0.0494
   1.1009E-02   1.1277E-02   3.3405E-03  0.0472
   1.1277E-02   1.1552E-02   3.3867E-03  0.0463
   1.1552E-02   1.1833E-02   3.0991E-03  0.0478
   1.1833E-02   1.2121E-02   2.8770E-03  0.0491
   1.2121E-02   1.2415E-02   2.9262E-03  0.0480
   1.2415E-02   1.2718E-02   2.8996E-03  0.0476
   1.2718E-02   1.3027E-02   2.8028E-03  0.0478
   1.3027E-02   1.3344E-02   2.8565E-03  0.0468
   1.3344E-02   1.3669E-02   2.6551E-03  0.0481
   1.3669E-02   1.4001E-02   2.6651E-03  0.0474
   1.4001E-02   1.4342E-02   2.5383E-03  0.0480
   1.4342E-02   1.4691E-02   2.4234E-03  0.0486
   1.4691E-02   1.5048E-02   2.3286E-03  0.0489
   1.5048E-02   1.5414E-02   2.2922E-03  0.0488
   1.5414E-02   1.5789E-02   2.3281E-03  0.0477
   1.5789E-02   1.6174E-02   2.5061E-03  0.0455
   1.6174E-02   1.6567E-02   2.4233E-03  0.0457
   1.6567E-02   1.6970E-02   2.3983E-03  0.0453
   1.6970E-02   1.7383E-02   2.1144E-03  0.0478
   1.7383E-02   1.7806E-02   2.3744E-03  0.0446
   1.7806E-02   1.8239E-02   2.1640E-03  0.0461
   1.8239E-02   1.8683E-02   2.0254E-03  0.0470
   1.8683E-02   1.9138E-02   2.0008E-03  0.0468
   1.9138E-02   1.9603E-02   1.8927E-03  0.0475
   1.9603E-02   2.0080E-02   1.7737E-03  0.0485
   2.0080E-02   2.0569E-02   1.8490E-03  0.0470
   2.0569E-02   2.1069E-02   1.7432E-03  0.0478
   2.1069E-02   2.1582E-02   1.6862E-03  0.0480
   2.1582E-02   2.2107E-02   1.8767E-03  0.0450
   2.2107E-02   2.2645E-02   1.6543E-03  0.0473
   2.2645E-02   2.3196E-02   1.7403E-03  0.0456
   2.3196E-02   2.3760E-02   1.6136E-03  0.0468
   2.3760E-02   2.4338E-02   1.6027E-03  0.0463
   2.4338E-02   2.4930E-02   1.5274E-03  0.0469
   2.4930E-02   2.5537E-02   1.5095E-03  0.0466
   2.5537E-02   2.6158E-02   1.6720E-03  0.0437
   2.6158E-02   2.6795E-02   1.3634E-03  0.0479
   2.6795E-02   2.7447E-02   1.4187E-03  0.0464
   2.7447E-02   2.8114E-02   1.4295E-03  0.0457
   2.8114E-02   2.8799E-02   1.4544E-03  0.0448
   2.8799E-02   2.9499E-02   1.4273E-03  0.0446
   2.9499E-02   3.0217E-02   1.3292E-03  0.0457
   3.0217E-02   3.0952E-02   1.2573E-03  0.0464
   3.0952E-02   3.1705E-02   1.2457E-03  0.0461
   3.1705E-02   3.2477E-02   1.2167E-03  0.0461
   3.2477E-02   3.3267E-02   1.2496E-03  0.0448
   3.3267E-02   3.4076E-02   1.1650E-03  0.0460
   3.4076E-02   3.4905E-02   1.1745E-03  0.0452
   3.4905E-02   3.5755E-02   1.1479E-03  0.0452
   3.5755E-02   3.6625E-02   1.1535E-03  0.0445
   3.6625E-02   3.7516E-02   1.0655E-03  0.0457
   3.7516E-02   3.8428E-02   1.0358E-03  0.0459
   3.8428E-02   3.9363E-02   9.9278E-04  0.0464
   3.9363E-02   4.0321E-02   1.0440E-03  0.0446
   4.0321E-02   4.1302E-02   9.6207E-04  0.0460
   4.1302E-02   4.2307E-02   9.6596E-04  0.0453
   4.2307E-02   4.3337E-02   9.7182E-04  0.0446
   4.3337E-02   4.4391E-02   9.0349E-04  0.0457
   4.4391E-02   4.5471E-02   9.0914E-04  0.0450
   4.5471E-02   4.6577E-02   9.4729E-04  0.0435
   4.6577E-02   4.7711E-02   8.6771E-04  0.0450
   4.7711E-02   4.8871E-02   8.5529E-04  0.0448
   4.8871E-02   5.0061E-02   8.8724E-04  0.0434
   5.0061E-02   5.1279E-02   8.3297E-04  0.0443
   5.1279E-02   5.2526E-02   8.1208E-04  0.0443
   5.2526E-02   5.3804E-02   8.0639E-04  0.0440
   5.3804E-02   5.5113E-02   7.2620E-04  0.0457
   5.5113E-02   5.6454E-02   7.5066E-04  0.0444
   5.6454E-02   5.7828E-02   6.8476E-04  0.0460
   5.7828E-02   5.9235E-02   7.8431E-04  0.0425
   5.9235E-02   6.0676E-02   7.0924E-04  0.0441
   6.0676E-02   6.2152E-02   6.6594E-04  0.0450
   6.2152E-02   6.3665E-02   6.6517E-04  0.0444
   6.3665E-02   6.5214E-02   6.9666E-04  0.0430
   6.5214E-02   6.6800E-02   6.7411E-04  0.0432
   6.6800E-02   6.8426E-02   6.3186E-04  0.0442
   6.8426E-02   7.0090E-02   6.2949E-04  0.0436
   7.0090E-02   7.1796E-02   6.3022E-04  0.0430
   7.1796E-02   7.3543E-02   6.0190E-04  0.0435
   7.3543E-02   7.5332E-02   5.7724E-04  0.0439
   7.5332E-02   7.7165E-02   5.6333E-04  0.0439
   7.7165E-02   7.9042E-02   5.2591E-04  0.0449
   7.9042E-02   8.0965E-02   5.0396E-04  0.0453
   8.0965E-02   8.2935E-02   5.5049E-04  0.0429
   8.2935E-02   8.4953E-02   5.2973E-04  0.0432
   8.4953E-02   8.7020E-02   5.0898E-04  0.0435
   8.7020E-02   8.9138E-02   4.7825E-04  0.0443
   8.9138E-02   9.1306E-02   4.8479E-04  0.0435
   9.1306E-02   9.3528E-02   4.3596E-04  0.0454
   9.3528E-02   9.5804E-02   4.7847E-04  0.0428
   9.5804E-02   9.8134E-02   4.1908E-04  0.0451
   9.8134E-02   1.0052E-01   4.5057E-04  0.0430
   1.0052E-01   1.0297E-01   4.3627E-04  0.0431
   1.0297E-01   1.0547E-01   4.0483E-04  0.0443
   1.0547E-01   1.0804E-01   4.1111E-04  0.0434
   1.0804E-01   1.1067E-01   4.2336E-04  0.0423
   1.1067E-01   1.1336E-01   3.7948E-04  0.0441
   1.1336E-01   1.1612E-01   4.1885E-04  0.0416
   1.1612E-01   1.1894E-01   3.7312E-04  0.0434
   1.1894E-01   1.2184E-01   3.7283E-04  0.0430
   1.2184E-01   1.2480E-01   3.5899E-04  0.0432
   1.2480E-01   1.2784E-01   3.7404E-04  0.0419
   1.2784E-01   1.3095E-01   3.7155E-04  0.0415
   1.3095E-01   1.3414E-01   3.5858E-04  0.0417
   1.3414E-01   1.3740E-01   3.2404E-04  0.0434
   1.3740E-01   1.4074E-01   3.3198E-04  0.0424
   1.4074E-01   1.4417E-01   3.2776E-04  0.0421
   1.4417E-01   1.4767E-01   3.1549E-04  0.0424
   1.4767E-01   1.5127E-01   3.0251E-04  0.0428
   1.5127E-01   1.5495E-01   3.0425E-04  0.0422
   1.5495E-01   1.5872E-01   2.9092E-04  0.0426
   1.5872E-01   1.6258E-01   3.0113E-04  0.0413
   1.6258E-01   1.6654E-01   2.7661E-04  0.0426
   1.6654E-01   1.7059E-01   2.7763E-04  0.0421
   1.7059E-01   1.7474E-01   2.6355E-04  0.0427
   1.7474E-01   1.7899E-01   2.6771E-04  0.0418
   1.7899E-01   1.8334E-01   2.6750E-04  0.0414
   1.8334E-01   1.8781E-01   2.6147E-04  0.0413
   1.8781E-01   1.9237E-01   2.4147E-04  0.0425
   1.9237E-01   1.9706E-01   2.4448E-04  0.0417
   1.9706E-01   2.0185E-01   2.3889E-04  0.0417
   2.0185E-01   2.0676E-01   2.4815E-04  0.0404
   2.0676E-01   2.1179E-01   2.5700E-04  0.0392
   2.1179E-01   2.1694E-01   2.6116E-04  0.0385
   2.1694E-01   2.2222E-01   2.6494E-04  0.0377
   2.2222E-01   2.2763E-01   2.9138E-04  0.0355
   2.2763E-01   2.3317E-01   2.7225E-04  0.0363
   2.3317E-01   2.3884E-01   3.0642E-04  0.0339
   2.3884E-01   2.4465E-01   3.0188E-04  0.0337
   2.4465E-01   2.5061E-01   3.2783E-04  0.0319
   2.5061E-01   2.5670E-01   3.0374E-04  0.0328
   2.5670E-01   2.6295E-01   3.3267E-04  0.0309
   2.6295E-01   2.6935E-01   3.2678E-04  0.0308
   2.6935E-01   2.7590E-01   3.5820E-04  0.0291
   2.7590E-01   2.8261E-01   3.5476E-04  0.0289
   2.8261E-01   2.8949E-01   3.6724E-04  0.0281
   2.8949E-01   2.9653E-01   3.8082E-04  0.0272
   2.9653E-01   3.0375E-01   3.6464E-04  0.0275
   3.0375E-01   3.1114E-01   3.8498E-04  0.0264
   3.1114E-01   3.1871E-01   3.9775E-04  0.0257
   3.1871E-01   3.2646E-01   4.1319E-04  0.0249
   3.2646E-01   3.3441E-01   4.0904E-04  0.0247
   3.3441E-01   3.4254E-01   4.2192E-04  0.0241
   3.4254E-01   3.5088E-01   4.2984E-04  0.0235
   3.5088E-01   3.5941E-01   4.3958E-04  0.0230
   3.5941E-01   3.6816E-01   4.3186E-04  0.0230
   3.6816E-01   3.7712E-01   4.5253E-04  0.0222
   3.7712E-01   3.8629E-01   4.3377E-04  0.0224
   3.8629E-01   3.9569E-01   4.6159E-04  0.0214
   3.9569E-01   4.0532E-01   4.6315E-04  0.0211
   4.0532E-01   4.1518E-01   4.7654E-04  0.0206
   4.1518E-01   4.2528E-01   4.6989E-04  0.0205
   4.2528E-01   4.3563E-01   4.6665E-04  0.0203
   4.3563E-01   4.4623E-01   4.7618E-04  0.0198
   4.4623E-01   4.5708E-01   5.0373E-04  0.0191
   4.5708E-01   4.6821E-01   4.9655E-04  0.0190
   4.6821E-01   4.7960E-01   5.0395E-04  0.0186
   4.7960E-01   4.9127E-01   4.8578E-04  0.0187
   4.9127E-01   5.0322E-01   5.0768E-04  0.0181
   5.0322E-01   5.1546E-01   5.1117E-04  0.0178
   5.1546E-01   5.2800E-01   5.2110E-04  0.0174
   5.2800E-01   5.4085E-01   4.9591E-04  0.0177
   5.4085E-01   5.5401E-01   5.1968E-04  0.0170
   5.5401E-01   5.6749E-01   5.1881E-04  0.0168
   5.6749E-01   5.8130E-01   5.2968E-04  0.0165
   5.8130E-01   5.9544E-01   5.2041E-04  0.0164
   5.9544E-01   6.0993E-01   5.1856E-04  0.0163
   6.0993E-01   6.2477E-01   5.1465E-04  0.0161
   6.2477E-01   6.3997E-01   4.9599E-04  0.0162
   6.3997E-01   6.5554E-01   5.0008E-04  0.0160
   6.5554E-01   6.7149E-01   5.1083E-04  0.0156
   6.7149E-01   6.8783E-01   4.9438E-04  0.0157
   6.8783E-01   7.0456E-01   4.8936E-04  0.0156
   7.0456E-01   7.2171E-01   4.8449E-04  0.0155
   7.2171E-01   7.3927E-01   4.8696E-04  0.0152
   7.3927E-01   7.5725E-01   4.8358E-04  0.0151
   7.5725E-01   7.7568E-01   4.8398E-04  0.0149
   7.7568E-01   7.9455E-01   4.6648E-04  0.0150
   7.9455E-01   8.1388E-01   4.6555E-04  0.0148
   8.1388E-01   8.3368E-01   4.6415E-04  0.0147
   8.3368E-01   8.5397E-01   4.6575E-04  0.0145
   8.5397E-01   8.7475E-01   4.4668E-04  0.0146
   8.7475E-01   8.9603E-01   4.6283E-04  0.0142
   8.9603E-01   9.1783E-01   4.4150E-04  0.0143
   9.1783E-01   9.4016E-01   4.3857E-04  0.0142
   9.4016E-01   9.6304E-01   4.3044E-04  0.0142
   9.6304E-01   9.8647E-01   4.2811E-04  0.0140
   9.8647E-01   1.0105E+00   4.1876E-04  0.0140
   1.0105E+00   1.0351E+00   4.1423E-04  0.0139
   1.0351E+00   1.0602E+00   4.0729E-04  0.0139
   1.0602E+00   1.0860E+00   3.9026E-04  0.0140
   1.0860E+00   1.1125E+00   3.8532E-04  0.0139
   1.1125E+00   1.1395E+00   3.9136E-04  0.0137
   1.1395E+00   1.1673E+00   3.7115E-04  0.0138
   1.1673E+00   1.1957E+00   3.7609E-04  0.0136
   1.1957E+00   1.2247E+00   3.7124E-04  0.0135
   1.2247E+00   1.2545E+00   3.5781E-04  0.0136
   1.2545E+00   1.2851E+00   3.5258E-04  0.0135
   1.2851E+00   1.3163E+00   3.4642E-04  0.0135
   1.3163E+00   1.3484E+00   3.2441E-04  0.0138
   1.3484E+00   1.3812E+00   3.2128E-04  0.0137
   1.3812E+00   1.4148E+00   3.2185E-04  0.0135
   1.4148E+00   1.4492E+00   3.1806E-04  0.0134
   1.4492E+00   1.4845E+00   3.1352E-04  0.0133
   1.4845E+00   1.5206E+00   3.1282E-04  0.0132
   1.5206E+00   1.5576E+00   2.9960E-04  0.0133
   1.5576E+00   1.5955E+00   3.0119E-04  0.0131
   1.5955E+00   1.6343E+00   2.8317E-04  0.0134
   1.6343E+00   1.6741E+00   2.8504E-04  0.0132
   1.6741E+00   1.7148E+00   2.7685E-04  0.0132
   1.7148E+00   1.7565E+00   2.7632E-04  0.0131
   1.7565E+00   1.7992E+00   2.6717E-04  0.0131
   1.7992E+00   1.8430E+00   2.6196E-04  0.0131
   1.8430E+00   1.8879E+00   2.6133E-04  0.0129
   1.8879E+00   1.9338E+00   2.5099E-04  0.0130
   1.9338E+00   1.9808E+00   2.4666E-04  0.0130
   1.9808E+00   2.0290E+00   2.4915E-04  0.0128
   2.0290E+00   2.0784E+00   2.4682E-04  0.0127
   2.0784E+00   2.1290E+00   2.3764E-04  0.0128
   2.1290E+00   2.1808E+00   2.3115E-04  0.0128
   2.1808E+00   2.2338E+00   2.2588E-04  0.0128
   2.2338E+00   2.2882E+00   2.1619E-04  0.0129
   2.2882E+00   2.3439E+00   2.2094E-04  0.0126
   2.3439E+00   2.4009E+00   2.1563E-04  0.0126
   2.4009E+00   2.4593E+00   2.0962E-04  0.0126
   2.4593E+00   2.5191E+00   2.0814E-04  0.0125
   2.5191E+00   2.5804E+00   2.0969E-04  0.0123
   2.5804E+00   2.6432E+00   2.0194E-04  0.0124
   2.6432E+00   2.7075E+00   2.0102E-04  0.0123
   2.7075E+00   2.7734E+00   1.9344E-04  0.0124
   2.7734E+00   2.8409E+00   1.9449E-04  0.0122
   2.8409E+00   2.9100E+00   1.8936E-04  0.0122
   2.9100E+00   2.9808E+00   1.8814E-04  0.0121
   2.9808E+00   3.0533E+00   1.8466E-04  0.0121
   3.0533E+00   3.1276E+00   1.8616E-04  0.0119
   3.1276E+00   3.2037E+00   1.8268E-04  0.0119
   3.2037E+00   3.2817E+00   1.7756E-04  0.0119
   3.2817E+00   3.3615E+00   1.7514E-04  0.0118
   3.3615E+00   3.4433E+00   1.7820E-04  0.0116
   3.4433E+00   3.5271E+00   1.6922E-04  0.0118
   3.5271E+00   3.6129E+00   1.7073E-04  0.0116
   3.6129E+00   3.7008E+00   1.6744E-04  0.0115
   3.7008E+00   3.7908E+00   1.6686E-04  0.0114
   3.7908E+00   3.8831E+00   1.6276E-04  0.0114
   3.8831E+00   3.9776E+00   1.6039E-04  0.0114
   3.9776E+00   4.0743E+00   1.5859E-04  0.0113
   4.0743E+00   4.1735E+00   1.5897E-04  0.0112
   4.1735E+00   4.2750E+00   1.5314E-04  0.0112
   4.2750E+00   4.3790E+00   1.5228E-04  0.0111
   4.3790E+00   4.4856E+00   1.4902E-04  0.0111
   4.4856E+00   4.5947E+00   1.4964E-04  0.0110
   4.5947E+00   4.7065E+00   1.4592E-04  0.0110
   4.7065E+00   4.8210E+00   1.4372E-04  0.0109
   4.8210E+00   4.9383E+00   1.3869E-04  0.0110
   4.9383E+00   5.0585E+00   1.3169E-04  0.0112
   5.0585E+00   5.1815E+00   1.2729E-04  0.0112
   5.1815E+00   5.3076E+00   1.2721E-04  0.0111
   5.3076E+00   5.4368E+00   1.2527E-04  0.0110
   5.4368E+00   5.5690E+00   1.2165E-04  0.0111
   5.5690E+00   5.7045E+00   1.2007E-04  0.0110
   5.7045E+00   5.8433E+00   1.1574E-04  0.0111
   5.8433E+00   5.9855E+00   1.1345E-04  0.0111
   5.9855E+00   6.1311E+00   1.1199E-04  0.0110
   6.1311E+00   6.2803E+00   1.0837E-04  0.0111
   6.2803E+00   6.4331E+00   1.0720E-04  0.0110
   6.4331E+00   6.5896E+00   1.0412E-04  0.0110
   6.5896E+00   6.7500E+00   1.0252E-04  0.0110
   6.7500E+00   6.9142E+00   9.8147E-05  0.0111
   6.9142E+00   7.0824E+00   9.7132E-05  0.0110
   7.0824E+00   7.2548E+00   9.3624E-05  0.0111
   7.2548E+00   7.4313E+00   9.2799E-05  0.0110
   7.4313E+00   7.6121E+00   8.9730E-05  0.0111
   7.6121E+00   7.7973E+00   8.6312E-05  0.0112
   7.7973E+00   7.9870E+00   8.2814E-05  0.0113
   7.9870E+00   8.1813E+00   8.0987E-05  0.0112
   8.1813E+00   8.3804E+00   7.9709E-05  0.0112
   8.3804E+00   8.5843E+00   7.6733E-05  0.0113
   8.5843E+00   8.7931E+00   7.5190E-05  0.0113
   8.7931E+00   9.0071E+00   7.1313E-05  0.0114
   9.0071E+00   9.2262E+00   6.8312E-05  0.0115
   9.2262E+00   9.4507E+00   6.6116E-05  0.0116
   9.4507E+00   9.6807E+00   6.3147E-05  0.0117
   9.6807E+00   9.9162E+00   6.1324E-05  0.0117
   9.9162E+00   1.0157E+01   5.9777E-05  0.0118
   1.0157E+01   1.0405E+01   5.8959E-05  0.0117
   1.0405E+01   1.0658E+01   6.0275E-05  0.0114
   1.0658E+01   1.0917E+01   5.8589E-05  0.0115
   1.0917E+01   1.1183E+01   5.6792E-05  0.0115
   1.1183E+01   1.1455E+01   5.4619E-05  0.0116
   1.1455E+01   1.1733E+01   5.1665E-05  0.0118
   1.1733E+01   1.2019E+01   4.8195E-05  0.0120
   1.2019E+01   1.2311E+01   4.6533E-05  0.0121
   1.2311E+01   1.2611E+01   4.3636E-05  0.0124
   1.2611E+01   1.2918E+01   4.1296E-05  0.0126
   1.2918E+01   1.3232E+01   4.0293E-05  0.0126
   1.3232E+01   1.3554E+01   3.8856E-05  0.0126
   1.3554E+01   1.3884E+01   3.5302E-05  0.0131
   1.3884E+01   1.4222E+01   3.3468E-05  0.0133
   1.4222E+01   1.4568E+01   3.1625E-05  0.0135
   1.4568E+01   1.4922E+01   2.9107E-05  0.0139
   1.4922E+01   1.5285E+01   2.7602E-05  0.0141
   1.5285E+01   1.5657E+01   2.5112E-05  0.0146
   1.5657E+01   1.6038E+01   2.2887E-05  0.0151
   1.6038E+01   1.6428E+01   2.1769E-05  0.0153
   1.6428E+01   1.6828E+01   1.9485E-05  0.0160
   1.6828E+01   1.7237E+01   1.8337E-05  0.0163
   1.7237E+01   1.7657E+01   1.6981E-05  0.0168
   1.7657E+01   1.8086E+01   1.5260E-05  0.0175
   1.8086E+01   1.8526E+01   1.4868E-05  0.0175
   1.8526E+01   1.8977E+01   1.2935E-05  0.0185
   1.8977E+01   1.9439E+01   1.1562E-05  0.0194
   1.9439E+01   1.9912E+01   1.0825E-05  0.0198
   1.9912E+01   2.0396E+01   9.5362E-06  0.0208
   2.0396E+01   2.0893E+01   8.3061E-06  0.0220
   2.0893E+01   2.1401E+01   7.4557E-06  0.0230
   2.1401E+01   2.1922E+01   6.8446E-06  0.0237
   2.1922E+01   2.2455E+01   6.2433E-06  0.0245
   2.2455E+01   2.3001E+01   4.9126E-06  0.0273
   2.3001E+01   2.3561E+01   4.2670E-06  0.0289
   2.3561E+01   2.4134E+01   3.8133E-06  0.0302
   2.4134E+01   2.4721E+01   3.2323E-06  0.0325
   2.4721E+01   2.5323E+01   2.7897E-06  0.0345
   2.5323E+01   2.5939E+01   2.4508E-06  0.0364
   2.5939E+01   2.6570E+01   2.1486E-06  0.0384
   2.6570E+01   2.7217E+01   1.7170E-06  0.0424
   2.7217E+01   2.7879E+01   1.4829E-06  0.0451
   2.7879E+01   2.8557E+01   1.1588E-06  0.0504
   2.8557E+01   2.9252E+01   1.0909E-06  0.0514
   2.9252E+01   2.9964E+01   8.5988E-07  0.0572
   2.9964E+01   3.0693E+01   6.3645E-07  0.0657
   3.0693E+01   3.1440E+01   4.8475E-07  0.0743
   3.1440E+01   3.2205E+01   4.4447E-07  0.0767
   3.2205E+01   3.2988E+01   3.5479E-07  0.0848
   3.2988E+01   3.3791E+01   3.2144E-07  0.0880
   3.3791E+01   3.4613E+01   2.7002E-07  0.0949
   3.4613E+01   3.5455E+01   1.9236E-07  0.1111
   3.5455E+01   3.6318E+01   1.3447E-07  0.1313
   3.6318E+01   3.7201E+01   1.2901E-07  0.1325
   3.7201E+01   3.8106E+01   1.3479E-07  0.1280
   3.8106E+01   3.9034E+01   1.0570E-07  0.1429
   3.9034E+01   3.9983E+01   8.8447E-08  0.1543
   3.9983E+01   4.0956E+01   1.0485E-07  0.1400
   4.0956E+01   4.1953E+01   5.8204E-08  0.1857
   4.1953E+01   4.2973E+01   5.6821E-08  0.1857
   4.2973E+01   4.4019E+01   2.4867E-08  0.2774
   4.4019E+01   4.5090E+01   5.2287E-08  0.1890
   4.5090E+01   4.6187E+01   2.7345E-08  0.2582
   4.6187E+01   4.7311E+01   2.4916E-08  0.2673
   4.7311E+01   4.8462E+01   2.6062E-08  0.2582
   4.8462E+01   4.9641E+01   1.8658E-08  0.3015
   4.9641E+01   5.0849E+01   1.1591E-08  0.3780
   5.0849E+01   5.2086E+01   8.0828E-09  0.4472
   5.2086E+01   5.3353E+01   3.1563E-09  0.7071
   5.3353E+01   5.4651E+01   0.0000E+00  0.0000
   5.4651E+01   5.5981E+01   1.5041E-09  1.0000
   5.5981E+01   5.7343E+01   1.4684E-09  1.0000
   5.7343E+01   5.8738E+01   0.0000E+00  0.0000
   5.8738E+01   6.0168E+01   0.0000E+00  0.0000
   6.0168E+01   6.1632E+01   0.0000E+00  0.0000
   6.1632E+01   6.3131E+01   0.0000E+00  0.0000
   6.3131E+01   6.4667E+01   0.0000E+00  0.0000
   6.4667E+01   6.6240E+01   0.0000E+00  0.0000
   6.6240E+01   6.7852E+01   0.0000E+00  0.0000
   6.7852E+01   6.9503E+01   0.0000E+00  0.0000
   6.9503E+01   7.1194E+01   0.0000E+00  0.0000
   7.1194E+01   7.2926E+01   0.0000E+00  0.0000
   7.2926E+01   7.4701E+01   0.0000E+00  0.0000
   7.4701E+01   7.6518E+01   0.0000E+00  0.0000
   7.6518E+01   7.8380E+01   0.0000E+00  0.0000
   7.8380E+01   8.0287E+01   0.0000E+00  0.0000
   8.0287E+01   8.2240E+01   0.0000E+00  0.0000
   8.2240E+01   8.4241E+01   0.0000E+00  0.0000
   8.4241E+01   8.6291E+01   0.0000E+00  0.0000
   8.6291E+01   8.8391E+01   0.0000E+00  0.0000
   8.8391E+01   9.0541E+01   0.0000E+00  0.0000
   9.0541E+01   9.2744E+01   0.0000E+00  0.0000
   9.2744E+01   9.5001E+01   0.0000E+00  0.0000
   9.5001E+01   9.7312E+01   0.0000E+00  0.0000
   9.7312E+01   9.9680E+01   0.0000E+00  0.0000
   9.9680E+01   1.0211E+02   0.0000E+00  0.0000
   1.0211E+02   1.0459E+02   0.0000E+00  0.0000
   1.0459E+02   1.0713E+02   0.0000E+00  0.0000
   1.0713E+02   1.0974E+02   0.0000E+00  0.0000
   1.0974E+02   1.1241E+02   0.0000E+00  0.0000
   1.1241E+02   1.1515E+02   0.0000E+00  0.0000
   1.1515E+02   1.1795E+02   0.0000E+00  0.0000
   1.1795E+02   1.2082E+02   0.0000E+00  0.0000
   1.2082E+02   1.2376E+02   0.0000E+00  0.0000
   1.2376E+02   1.2677E+02   0.0000E+00  0.0000
   1.2677E+02   1.2985E+02   0.0000E+00  0.0000
   1.2985E+02   1.3301E+02   0.0000E+00  0.0000
   1.3301E+02   1.3625E+02   0.0000E+00  0.0000
   1.3625E+02   1.3956E+02   0.0000E+00  0.0000
   1.3956E+02   1.4296E+02   0.0000E+00  0.0000
   1.4296E+02   1.4644E+02   0.0000E+00  0.0000
   1.4644E+02   1.5000E+02   0.0000E+00  0.0000

#   sum over                 1.4255E-05
'no. =    1   reg = 117 - 217'
msuc: {\huge [t-cross] in region mesh}
msdr: {\it plotted by \ANGEL \version}
msdl: {\it calculated by \PHITS  3.26}
wt: s(0.7)
\vspace{-3}
  region surface crossing
  area  &=&   1.0000E+00 [cm^2]
e:
 
# Information for Restart Calculation
# This calculation was newly started
# istdev =  2 # 1:Batch variance, 2:History variance
# resc2  = 5.00000000000000000E+08 # Total source weight or Total source weight / maxcas
# resc3  = 5.00000000000000000E+08 # Total history number or Total batch number
# maxcas =   500000000 # History / Batch, only used for istdev=1
# bitrseed = 1101101111010011011000101101110001100110110010110001010100010001 # bit data of rseed
