[ T-Cross ]
    title = [t-cross] in region mesh
     mesh =  reg            # mesh type is region-wise
      reg =    1            # number of crossing regions
      non     r-from    r-to       area
      1       120       220        1.000000    
   e-type =    3            # e-mesh is log given by emin, emax and ne
     emin =  1.0000000E-02  # minimum value of e-mesh points
     emax =   150.0000      # maximum value of e-mesh points
#    edel =  2.4039514E-02  # mesh width of e-mesh points
       ne =    400          # number of e-mesh points
#    data = ( e(i), i = 1, ne + 1 )
#           1.00000E-02  1.02433E-02  1.04925E-02  1.07478E-02  1.10093E-02
#           1.12772E-02  1.15516E-02  1.18326E-02  1.21205E-02  1.24154E-02
#           1.27175E-02  1.30269E-02  1.33439E-02  1.36686E-02  1.40011E-02
#           1.43418E-02  1.46907E-02  1.50482E-02  1.54143E-02  1.57894E-02
#           1.61735E-02  1.65670E-02  1.69701E-02  1.73830E-02  1.78060E-02
#           1.82392E-02  1.86830E-02  1.91375E-02  1.96032E-02  2.00801E-02
#           2.05687E-02  2.10692E-02  2.15818E-02  2.21069E-02  2.26448E-02
#           2.31957E-02  2.37601E-02  2.43382E-02  2.49304E-02  2.55369E-02
#           2.61583E-02  2.67947E-02  2.74467E-02  2.81145E-02  2.87985E-02
#           2.94992E-02  3.02169E-02  3.09521E-02  3.17052E-02  3.24766E-02
#           3.32668E-02  3.40762E-02  3.49053E-02  3.57546E-02  3.66246E-02
#           3.75157E-02  3.84284E-02  3.93634E-02  4.03212E-02  4.13022E-02
#           4.23071E-02  4.33365E-02  4.43909E-02  4.54710E-02  4.65773E-02
#           4.77106E-02  4.88714E-02  5.00605E-02  5.12785E-02  5.25262E-02
#           5.38042E-02  5.51133E-02  5.64542E-02  5.78278E-02  5.92348E-02
#           6.06760E-02  6.21523E-02  6.36645E-02  6.52135E-02  6.68002E-02
#           6.84255E-02  7.00904E-02  7.17957E-02  7.35426E-02  7.53319E-02
#           7.71648E-02  7.90423E-02  8.09655E-02  8.29354E-02  8.49533E-02
#           8.70203E-02  8.91376E-02  9.13064E-02  9.35279E-02  9.58035E-02
#           9.81345E-02  1.00522E-01  1.02968E-01  1.05473E-01  1.08040E-01
#           1.10668E-01  1.13361E-01  1.16119E-01  1.18944E-01  1.21838E-01
#           1.24803E-01  1.27839E-01  1.30950E-01  1.34136E-01  1.37399E-01
#           1.40742E-01  1.44167E-01  1.47675E-01  1.51268E-01  1.54948E-01
#           1.58718E-01  1.62580E-01  1.66535E-01  1.70587E-01  1.74738E-01
#           1.78989E-01  1.83344E-01  1.87805E-01  1.92375E-01  1.97055E-01
#           2.01850E-01  2.06761E-01  2.11792E-01  2.16945E-01  2.22223E-01
#           2.27630E-01  2.33169E-01  2.38842E-01  2.44653E-01  2.50605E-01
#           2.56703E-01  2.62949E-01  2.69346E-01  2.75900E-01  2.82613E-01
#           2.89489E-01  2.96532E-01  3.03747E-01  3.11138E-01  3.18708E-01
#           3.26462E-01  3.34405E-01  3.42542E-01  3.50876E-01  3.59413E-01
#           3.68158E-01  3.77116E-01  3.86291E-01  3.95690E-01  4.05317E-01
#           4.15179E-01  4.25281E-01  4.35628E-01  4.46227E-01  4.57084E-01
#           4.68205E-01  4.79597E-01  4.91266E-01  5.03219E-01  5.15463E-01
#           5.28005E-01  5.40851E-01  5.54011E-01  5.67490E-01  5.81298E-01
#           5.95441E-01  6.09929E-01  6.24769E-01  6.39970E-01  6.55541E-01
#           6.71491E-01  6.87828E-01  7.04564E-01  7.21706E-01  7.39266E-01
#           7.57253E-01  7.75678E-01  7.94551E-01  8.13883E-01  8.33685E-01
#           8.53969E-01  8.74747E-01  8.96030E-01  9.17831E-01  9.40163E-01
#           9.63038E-01  9.86469E-01  1.01047E+00  1.03506E+00  1.06024E+00
#           1.08604E+00  1.11246E+00  1.13953E+00  1.16725E+00  1.19565E+00
#           1.22474E+00  1.25454E+00  1.28507E+00  1.31633E+00  1.34836E+00
#           1.38117E+00  1.41477E+00  1.44920E+00  1.48446E+00  1.52057E+00
#           1.55757E+00  1.59547E+00  1.63429E+00  1.67405E+00  1.71478E+00
#           1.75650E+00  1.79924E+00  1.84302E+00  1.88786E+00  1.93379E+00
#           1.98084E+00  2.02904E+00  2.07841E+00  2.12898E+00  2.18078E+00
#           2.23384E+00  2.28819E+00  2.34386E+00  2.40089E+00  2.45930E+00
#           2.51914E+00  2.58043E+00  2.64322E+00  2.70753E+00  2.77341E+00
#           2.84088E+00  2.91001E+00  2.98081E+00  3.05333E+00  3.12762E+00
#           3.20372E+00  3.28167E+00  3.36152E+00  3.44330E+00  3.52708E+00
#           3.61290E+00  3.70080E+00  3.79085E+00  3.88308E+00  3.97756E+00
#           4.07434E+00  4.17347E+00  4.27501E+00  4.37903E+00  4.48557E+00
#           4.59471E+00  4.70650E+00  4.82102E+00  4.93832E+00  5.05847E+00
#           5.18155E+00  5.30762E+00  5.43676E+00  5.56904E+00  5.70453E+00
#           5.84333E+00  5.98550E+00  6.13114E+00  6.28031E+00  6.43312E+00
#           6.58964E+00  6.74997E+00  6.91420E+00  7.08243E+00  7.25475E+00
#           7.43126E+00  7.61207E+00  7.79728E+00  7.98700E+00  8.18133E+00
#           8.38038E+00  8.58428E+00  8.79315E+00  9.00709E+00  9.22624E+00
#           9.45072E+00  9.68067E+00  9.91620E+00  1.01575E+01  1.04046E+01
#           1.06578E+01  1.09171E+01  1.11827E+01  1.14548E+01  1.17335E+01
#           1.20190E+01  1.23114E+01  1.26109E+01  1.29178E+01  1.32321E+01
#           1.35540E+01  1.38838E+01  1.42216E+01  1.45676E+01  1.49221E+01
#           1.52851E+01  1.56570E+01  1.60380E+01  1.64282E+01  1.68279E+01
#           1.72374E+01  1.76568E+01  1.80864E+01  1.85264E+01  1.89772E+01
#           1.94389E+01  1.99119E+01  2.03963E+01  2.08926E+01  2.14009E+01
#           2.19216E+01  2.24550E+01  2.30014E+01  2.35610E+01  2.41343E+01
#           2.47215E+01  2.53230E+01  2.59391E+01  2.65702E+01  2.72167E+01
#           2.78789E+01  2.85572E+01  2.92520E+01  2.99637E+01  3.06928E+01
#           3.14396E+01  3.22045E+01  3.29881E+01  3.37907E+01  3.46128E+01
#           3.54550E+01  3.63177E+01  3.72013E+01  3.81064E+01  3.90336E+01
#           3.99833E+01  4.09561E+01  4.19526E+01  4.29734E+01  4.40189E+01
#           4.50900E+01  4.61870E+01  4.73108E+01  4.84619E+01  4.96410E+01
#           5.08488E+01  5.20860E+01  5.33533E+01  5.46514E+01  5.59812E+01
#           5.73432E+01  5.87384E+01  6.01676E+01  6.16315E+01  6.31311E+01
#           6.46671E+01  6.62405E+01  6.78522E+01  6.95031E+01  7.11941E+01
#           7.29263E+01  7.47007E+01  7.65182E+01  7.83800E+01  8.02870E+01
#           8.22405E+01  8.42414E+01  8.62911E+01  8.83906E+01  9.05412E+01
#           9.27442E+01  9.50007E+01  9.73122E+01  9.96799E+01  1.02105E+02
#           1.04589E+02  1.07134E+02  1.09741E+02  1.12411E+02  1.15146E+02
#           1.17948E+02  1.20817E+02  1.23757E+02  1.26768E+02  1.29852E+02
#           1.33012E+02  1.36248E+02  1.39563E+02  1.42959E+02  1.46437E+02
#           1.50000E+02
     unit =    2            # unit is [1/cm^2/(MeV/n)/source]
     axis =  eng            # axis of output
     file = detector-21.out  # file name of output for the above axis
   output = f-curr          # surface crossing forward current spectrum
     part =  neutron  
# kf/name :  2112     
#    used :        main (  %)        temp (  %)       total (  %)
#  memory :         414 (  0)           0 (  0)         414 (  0)

#------------------------------------------------------------------------------
#newpage:
#   no. =    1   reg = 120 - 220

x: Energy [MeV/n]
y:  F-Curr [1/cm^2/(MeV/n)/source]         
p: xlog ylog afac(0.8) form(0.9)
h: n            x            y(neutron ),hh0l   n 
#  e-lower      e-upper      neutron     r.err 
   1.0000E-02   1.0243E-02   4.0823E-04  0.0448
   1.0243E-02   1.0493E-02   3.5152E-04  0.0477
   1.0493E-02   1.0748E-02   3.8482E-04  0.0451
   1.0748E-02   1.1009E-02   3.4737E-04  0.0469
   1.1009E-02   1.1277E-02   3.9256E-04  0.0436
   1.1277E-02   1.1552E-02   3.5485E-04  0.0453
   1.1552E-02   1.1833E-02   3.4883E-04  0.0451
   1.1833E-02   1.2121E-02   3.4373E-04  0.0449
   1.2121E-02   1.2415E-02   3.3874E-04  0.0447
   1.2415E-02   1.2718E-02   3.3949E-04  0.0441
   1.2718E-02   1.3027E-02   3.3906E-04  0.0436
   1.3027E-02   1.3344E-02   3.0431E-04  0.0455
   1.3344E-02   1.3669E-02   3.0583E-04  0.0449
   1.3669E-02   1.4001E-02   3.2008E-04  0.0433
   1.4001E-02   1.4342E-02   2.9642E-04  0.0445
   1.4342E-02   1.4691E-02   2.8326E-04  0.0450
   1.4691E-02   1.5048E-02   3.1067E-04  0.0424
   1.5048E-02   1.5414E-02   3.0798E-04  0.0421
   1.5414E-02   1.5789E-02   2.7705E-04  0.0439
   1.5789E-02   1.6174E-02   2.5408E-04  0.0452
   1.6174E-02   1.6567E-02   2.7579E-04  0.0429
   1.6567E-02   1.6970E-02   2.6433E-04  0.0433
   1.6970E-02   1.7383E-02   2.5246E-04  0.0438
   1.7383E-02   1.7806E-02   2.4162E-04  0.0442
   1.7806E-02   1.8239E-02   2.4178E-04  0.0437
   1.8239E-02   1.8683E-02   2.4252E-04  0.0431
   1.8683E-02   1.9138E-02   2.2518E-04  0.0442
   1.9138E-02   1.9603E-02   2.2658E-04  0.0435
   1.9603E-02   2.0080E-02   2.2867E-04  0.0428
   2.0080E-02   2.0569E-02   2.1875E-04  0.0432
   2.0569E-02   2.1069E-02   2.2617E-04  0.0420
   2.1069E-02   2.1582E-02   2.0973E-04  0.0431
   2.1582E-02   2.2107E-02   2.0055E-04  0.0436
   2.2107E-02   2.2645E-02   1.8659E-04  0.0446
   2.2645E-02   2.3196E-02   1.9044E-04  0.0436
   2.3196E-02   2.3760E-02   2.0856E-04  0.0412
   2.3760E-02   2.4338E-02   2.0019E-04  0.0416
   2.4338E-02   2.4930E-02   1.8814E-04  0.0423
   2.4930E-02   2.5537E-02   1.8665E-04  0.0420
   2.5537E-02   2.6158E-02   1.6825E-04  0.0437
   2.6158E-02   2.6795E-02   1.7899E-04  0.0419
   2.6795E-02   2.7447E-02   1.6141E-04  0.0436
   2.7447E-02   2.8114E-02   1.6730E-04  0.0423
   2.8114E-02   2.8799E-02   1.6591E-04  0.0420
   2.8799E-02   2.9499E-02   1.7364E-04  0.0405
   2.9499E-02   3.0217E-02   1.5286E-04  0.0426
   3.0217E-02   3.0952E-02   1.5234E-04  0.0422
   3.0952E-02   3.1705E-02   1.5763E-04  0.0410
   3.1705E-02   3.2477E-02   1.4877E-04  0.0417
   3.2477E-02   3.3267E-02   1.5416E-04  0.0405
   3.3267E-02   3.4076E-02   1.3432E-04  0.0429
   3.4076E-02   3.4905E-02   1.4264E-04  0.0411
   3.4905E-02   3.5755E-02   1.4118E-04  0.0408
   3.5755E-02   3.6625E-02   1.3605E-04  0.0411
   3.6625E-02   3.7516E-02   1.2030E-04  0.0432
   3.7516E-02   3.8428E-02   1.3253E-04  0.0406
   3.8428E-02   3.9363E-02   1.2253E-04  0.0417
   3.9363E-02   4.0321E-02   1.1452E-04  0.0427
   4.0321E-02   4.1302E-02   1.2846E-04  0.0398
   4.1302E-02   4.2307E-02   1.1489E-04  0.0416
   4.2307E-02   4.3337E-02   1.1980E-04  0.0402
   4.3337E-02   4.4391E-02   1.1540E-04  0.0405
   4.4391E-02   4.5471E-02   1.1453E-04  0.0402
   4.5471E-02   4.6577E-02   1.0886E-04  0.0407
   4.6577E-02   4.7711E-02   1.0110E-04  0.0417
   4.7711E-02   4.8871E-02   1.0079E-04  0.0413
   4.8871E-02   5.0061E-02   9.9248E-05  0.0411
   5.0061E-02   5.1279E-02   1.0362E-04  0.0398
   5.1279E-02   5.2526E-02   9.3300E-05  0.0414
   5.2526E-02   5.3804E-02   9.3807E-05  0.0408
   5.3804E-02   5.5113E-02   8.9918E-05  0.0412
   5.5113E-02   5.6454E-02   8.7614E-05  0.0412
   5.6454E-02   5.7828E-02   8.2355E-05  0.0420
   5.7828E-02   5.9235E-02   8.1934E-05  0.0416
   5.9235E-02   6.0676E-02   8.0106E-05  0.0416
   6.0676E-02   6.2152E-02   8.0538E-05  0.0410
   6.2152E-02   6.3665E-02   7.4835E-05  0.0420
   6.3665E-02   6.5214E-02   7.4441E-05  0.0416
   6.5214E-02   6.6800E-02   7.3747E-05  0.0413
   6.6800E-02   6.8426E-02   7.7324E-05  0.0399
   6.8426E-02   7.0090E-02   7.2157E-05  0.0408
   7.0090E-02   7.1796E-02   6.7394E-05  0.0417
   7.1796E-02   7.3543E-02   6.5719E-05  0.0417
   7.3543E-02   7.5332E-02   6.6042E-05  0.0411
   7.5332E-02   7.7165E-02   6.3797E-05  0.0413
   7.7165E-02   7.9042E-02   6.4146E-05  0.0407
   7.9042E-02   8.0965E-02   6.4746E-05  0.0401
   8.0965E-02   8.2935E-02   6.3069E-05  0.0401
   8.2935E-02   8.4953E-02   5.6613E-05  0.0418
   8.4953E-02   8.7020E-02   5.9993E-05  0.0401
   8.7020E-02   8.9138E-02   5.8916E-05  0.0400
   8.9138E-02   9.1306E-02   5.6954E-05  0.0402
   9.1306E-02   9.3528E-02   5.7398E-05  0.0396
   9.3528E-02   9.5804E-02   5.9719E-05  0.0383
   9.5804E-02   9.8134E-02   5.8039E-05  0.0384
   9.8134E-02   1.0052E-01   4.6324E-05  0.0425
   1.0052E-01   1.0297E-01   4.9093E-05  0.0407
   1.0297E-01   1.0547E-01   5.3013E-05  0.0388
   1.0547E-01   1.0804E-01   5.5997E-05  0.0373
   1.0804E-01   1.1067E-01   5.4119E-05  0.0375
   1.1067E-01   1.1336E-01   5.7206E-05  0.0360
   1.1336E-01   1.1612E-01   5.9024E-05  0.0350
   1.1612E-01   1.1894E-01   6.2866E-05  0.0335
   1.1894E-01   1.2184E-01   5.9875E-05  0.0339
   1.2184E-01   1.2480E-01   6.3454E-05  0.0326
   1.2480E-01   1.2784E-01   6.8471E-05  0.0310
   1.2784E-01   1.3095E-01   6.7634E-05  0.0308
   1.3095E-01   1.3414E-01   7.3207E-05  0.0293
   1.3414E-01   1.3740E-01   7.0753E-05  0.0294
   1.3740E-01   1.4074E-01   7.3045E-05  0.0286
   1.4074E-01   1.4417E-01   7.8217E-05  0.0273
   1.4417E-01   1.4767E-01   7.5094E-05  0.0275
   1.4767E-01   1.5127E-01   7.3320E-05  0.0275
   1.5127E-01   1.5495E-01   7.8350E-05  0.0263
   1.5495E-01   1.5872E-01   8.3828E-05  0.0251
   1.5872E-01   1.6258E-01   8.3951E-05  0.0248
   1.6258E-01   1.6654E-01   8.4974E-05  0.0244
   1.6654E-01   1.7059E-01   8.6561E-05  0.0239
   1.7059E-01   1.7474E-01   8.8635E-05  0.0233
   1.7474E-01   1.7899E-01   9.0248E-05  0.0228
   1.7899E-01   1.8334E-01   9.1827E-05  0.0223
   1.8334E-01   1.8781E-01   9.6288E-05  0.0216
   1.8781E-01   1.9237E-01   9.3097E-05  0.0217
   1.9237E-01   1.9706E-01   9.6905E-05  0.0210
   1.9706E-01   2.0185E-01   9.8751E-05  0.0205
   2.0185E-01   2.0676E-01   9.7746E-05  0.0204
   2.0676E-01   2.1179E-01   1.0080E-04  0.0198
   2.1179E-01   2.1694E-01   1.0341E-04  0.0193
   2.1694E-01   2.2222E-01   1.0321E-04  0.0191
   2.2222E-01   2.2763E-01   1.0308E-04  0.0189
   2.2763E-01   2.3317E-01   1.0601E-04  0.0184
   2.3317E-01   2.3884E-01   1.1060E-04  0.0178
   2.3884E-01   2.4465E-01   1.1084E-04  0.0176
   2.4465E-01   2.5061E-01   1.1248E-04  0.0173
   2.5061E-01   2.5670E-01   1.1362E-04  0.0170
   2.5670E-01   2.6295E-01   1.1508E-04  0.0167
   2.6295E-01   2.6935E-01   1.1593E-04  0.0164
   2.6935E-01   2.7590E-01   1.1607E-04  0.0162
   2.7590E-01   2.8261E-01   1.1652E-04  0.0160
   2.8261E-01   2.8949E-01   1.1662E-04  0.0158
   2.8949E-01   2.9653E-01   1.2028E-04  0.0153
   2.9653E-01   3.0375E-01   1.2159E-04  0.0151
   3.0375E-01   3.1114E-01   1.2329E-04  0.0148
   3.1114E-01   3.1871E-01   1.2337E-04  0.0146
   3.1871E-01   3.2646E-01   1.2549E-04  0.0143
   3.2646E-01   3.3441E-01   1.2503E-04  0.0142
   3.3441E-01   3.4254E-01   1.2563E-04  0.0140
   3.4254E-01   3.5088E-01   1.2883E-04  0.0136
   3.5088E-01   3.5941E-01   1.2956E-04  0.0134
   3.5941E-01   3.6816E-01   1.3066E-04  0.0132
   3.6816E-01   3.7712E-01   1.2980E-04  0.0131
   3.7712E-01   3.8629E-01   1.3425E-04  0.0127
   3.8629E-01   3.9569E-01   1.3154E-04  0.0127
   3.9569E-01   4.0532E-01   1.3392E-04  0.0124
   4.0532E-01   4.1518E-01   1.3474E-04  0.0122
   4.1518E-01   4.2528E-01   1.3590E-04  0.0120
   4.2528E-01   4.3563E-01   1.3380E-04  0.0120
   4.3563E-01   4.4623E-01   1.3661E-04  0.0117
   4.4623E-01   4.5708E-01   1.3837E-04  0.0115
   4.5708E-01   4.6821E-01   1.3526E-04  0.0115
   4.6821E-01   4.7960E-01   1.3775E-04  0.0113
   4.7960E-01   4.9127E-01   1.4027E-04  0.0110
   4.9127E-01   5.0322E-01   1.3731E-04  0.0110
   5.0322E-01   5.1546E-01   1.3884E-04  0.0108
   5.1546E-01   5.2800E-01   1.3962E-04  0.0107
   5.2800E-01   5.4085E-01   1.4252E-04  0.0104
   5.4085E-01   5.5401E-01   1.3826E-04  0.0105
   5.5401E-01   5.6749E-01   1.4233E-04  0.0102
   5.6749E-01   5.8130E-01   1.4043E-04  0.0101
   5.8130E-01   5.9544E-01   1.4227E-04  0.0099
   5.9544E-01   6.0993E-01   1.4258E-04  0.0098
   6.0993E-01   6.2477E-01   1.4387E-04  0.0097
   6.2477E-01   6.3997E-01   1.4171E-04  0.0096
   6.3997E-01   6.5554E-01   1.4267E-04  0.0095
   6.5554E-01   6.7149E-01   1.4111E-04  0.0094
   6.7149E-01   6.8783E-01   1.4198E-04  0.0093
   6.8783E-01   7.0456E-01   1.4126E-04  0.0092
   7.0456E-01   7.2171E-01   1.4134E-04  0.0091
   7.2171E-01   7.3927E-01   1.3922E-04  0.0090
   7.3927E-01   7.5725E-01   1.3899E-04  0.0089
   7.5725E-01   7.7568E-01   1.3863E-04  0.0088
   7.7568E-01   7.9455E-01   1.3603E-04  0.0088
   7.9455E-01   8.1388E-01   1.3394E-04  0.0088
   8.1388E-01   8.3368E-01   1.3460E-04  0.0086
   8.3368E-01   8.5397E-01   1.3234E-04  0.0086
   8.5397E-01   8.7475E-01   1.3165E-04  0.0085
   8.7475E-01   8.9603E-01   1.2735E-04  0.0086
   8.9603E-01   9.1783E-01   1.2575E-04  0.0085
   9.1783E-01   9.4016E-01   1.2443E-04  0.0085
   9.4016E-01   9.6304E-01   1.1875E-04  0.0085
   9.6304E-01   9.8647E-01   1.1422E-04  0.0086
   9.8647E-01   1.0105E+00   1.0912E-04  0.0087
   1.0105E+00   1.0351E+00   1.0859E-04  0.0086
   1.0351E+00   1.0602E+00   1.0592E-04  0.0086
   1.0602E+00   1.0860E+00   1.0423E-04  0.0086
   1.0860E+00   1.1125E+00   1.0400E-04  0.0085
   1.1125E+00   1.1395E+00   1.0003E-04  0.0085
   1.1395E+00   1.1673E+00   9.9871E-05  0.0084
   1.1673E+00   1.1957E+00   9.8315E-05  0.0084
   1.1957E+00   1.2247E+00   9.6704E-05  0.0084
   1.2247E+00   1.2545E+00   9.4446E-05  0.0084
   1.2545E+00   1.2851E+00   9.2353E-05  0.0084
   1.2851E+00   1.3163E+00   9.0124E-05  0.0084
   1.3163E+00   1.3484E+00   8.8761E-05  0.0083
   1.3484E+00   1.3812E+00   8.7976E-05  0.0082
   1.3812E+00   1.4148E+00   8.6826E-05  0.0082
   1.4148E+00   1.4492E+00   8.4489E-05  0.0082
   1.4492E+00   1.4845E+00   8.1630E-05  0.0082
   1.4845E+00   1.5206E+00   8.0021E-05  0.0082
   1.5206E+00   1.5576E+00   7.7893E-05  0.0082
   1.5576E+00   1.5955E+00   7.4927E-05  0.0083
   1.5955E+00   1.6343E+00   7.4612E-05  0.0082
   1.6343E+00   1.6741E+00   7.2742E-05  0.0082
   1.6741E+00   1.7148E+00   7.0848E-05  0.0082
   1.7148E+00   1.7565E+00   6.8287E-05  0.0083
   1.7565E+00   1.7992E+00   6.6749E-05  0.0082
   1.7992E+00   1.8430E+00   6.4906E-05  0.0083
   1.8430E+00   1.8879E+00   6.2003E-05  0.0083
   1.8879E+00   1.9338E+00   6.0384E-05  0.0083
   1.9338E+00   1.9808E+00   5.8927E-05  0.0083
   1.9808E+00   2.0290E+00   5.7822E-05  0.0083
   2.0290E+00   2.0784E+00   5.6522E-05  0.0083
   2.0784E+00   2.1290E+00   5.5489E-05  0.0083
   2.1290E+00   2.1808E+00   5.4469E-05  0.0083
   2.1808E+00   2.2338E+00   5.2450E-05  0.0083
   2.2338E+00   2.2882E+00   5.2179E-05  0.0082
   2.2882E+00   2.3439E+00   4.9565E-05  0.0084
   2.3439E+00   2.4009E+00   4.9064E-05  0.0083
   2.4009E+00   2.4593E+00   4.7698E-05  0.0083
   2.4593E+00   2.5191E+00   4.7129E-05  0.0083
   2.5191E+00   2.5804E+00   4.6323E-05  0.0083
   2.5804E+00   2.6432E+00   4.4525E-05  0.0083
   2.6432E+00   2.7075E+00   4.3782E-05  0.0083
   2.7075E+00   2.7734E+00   4.2351E-05  0.0083
   2.7734E+00   2.8409E+00   4.1252E-05  0.0083
   2.8409E+00   2.9100E+00   4.0782E-05  0.0083
   2.9100E+00   2.9808E+00   3.9267E-05  0.0084
   2.9808E+00   3.0533E+00   3.7820E-05  0.0084
   3.0533E+00   3.1276E+00   3.7203E-05  0.0084
   3.1276E+00   3.2037E+00   3.6679E-05  0.0084
   3.2037E+00   3.2817E+00   3.4899E-05  0.0085
   3.2817E+00   3.3615E+00   3.4785E-05  0.0084
   3.3615E+00   3.4433E+00   3.2848E-05  0.0085
   3.4433E+00   3.5271E+00   3.2513E-05  0.0085
   3.5271E+00   3.6129E+00   3.1598E-05  0.0085
   3.6129E+00   3.7008E+00   3.0531E-05  0.0085
   3.7008E+00   3.7908E+00   2.9544E-05  0.0086
   3.7908E+00   3.8831E+00   2.8917E-05  0.0086
   3.8831E+00   3.9776E+00   2.7514E-05  0.0087
   3.9776E+00   4.0743E+00   2.6618E-05  0.0087
   4.0743E+00   4.1735E+00   2.5704E-05  0.0088
   4.1735E+00   4.2750E+00   2.4662E-05  0.0088
   4.2750E+00   4.3790E+00   2.4265E-05  0.0088
   4.3790E+00   4.4856E+00   2.3087E-05  0.0089
   4.4856E+00   4.5947E+00   2.2270E-05  0.0090
   4.5947E+00   4.7065E+00   2.0868E-05  0.0092
   4.7065E+00   4.8210E+00   2.0542E-05  0.0091
   4.8210E+00   4.9383E+00   1.9935E-05  0.0091
   4.9383E+00   5.0585E+00   1.8696E-05  0.0093
   5.0585E+00   5.1815E+00   1.8233E-05  0.0093
   5.1815E+00   5.3076E+00   1.7153E-05  0.0095
   5.3076E+00   5.4368E+00   1.6404E-05  0.0096
   5.4368E+00   5.5690E+00   1.5653E-05  0.0097
   5.5690E+00   5.7045E+00   1.4593E-05  0.0100
   5.7045E+00   5.8433E+00   1.4004E-05  0.0100
   5.8433E+00   5.9855E+00   1.2972E-05  0.0103
   5.9855E+00   6.1311E+00   1.2103E-05  0.0106
   6.1311E+00   6.2803E+00   1.1325E-05  0.0108
   6.2803E+00   6.4331E+00   1.0628E-05  0.0110
   6.4331E+00   6.5896E+00   9.8215E-06  0.0113
   6.5896E+00   6.7500E+00   8.8048E-06  0.0118
   6.7500E+00   6.9142E+00   8.1804E-06  0.0121
   6.9142E+00   7.0824E+00   6.9738E-06  0.0130
   7.0824E+00   7.2548E+00   6.1942E-06  0.0136
   7.2548E+00   7.4313E+00   5.7276E-06  0.0140
   7.4313E+00   7.6121E+00   5.3232E-06  0.0143
   7.6121E+00   7.7973E+00   4.7831E-06  0.0149
   7.7973E+00   7.9870E+00   4.5520E-06  0.0151
   7.9870E+00   8.1813E+00   4.1128E-06  0.0157
   8.1813E+00   8.3804E+00   3.8923E-06  0.0160
   8.3804E+00   8.5843E+00   3.4745E-06  0.0167
   8.5843E+00   8.7931E+00   3.1498E-06  0.0173
   8.7931E+00   9.0071E+00   2.9238E-06  0.0178
   9.0071E+00   9.2262E+00   2.6211E-06  0.0186
   9.2262E+00   9.4507E+00   2.3148E-06  0.0195
   9.4507E+00   9.6807E+00   2.2326E-06  0.0196
   9.6807E+00   9.9162E+00   1.9212E-06  0.0209
   9.9162E+00   1.0157E+01   1.8827E-06  0.0209
   1.0157E+01   1.0405E+01   1.6825E-06  0.0218
   1.0405E+01   1.0658E+01   1.4875E-06  0.0229
   1.0658E+01   1.0917E+01   1.3857E-06  0.0235
   1.0917E+01   1.1183E+01   1.2348E-06  0.0246
   1.1183E+01   1.1455E+01   1.1285E-06  0.0254
   1.1455E+01   1.1733E+01   9.9461E-07  0.0268
   1.1733E+01   1.2019E+01   9.6906E-07  0.0268
   1.2019E+01   1.2311E+01   8.7947E-07  0.0278
   1.2311E+01   1.2611E+01   7.8734E-07  0.0290
   1.2611E+01   1.2918E+01   7.1336E-07  0.0302
   1.2918E+01   1.3232E+01   6.6886E-07  0.0308
   1.3232E+01   1.3554E+01   6.1644E-07  0.0317
   1.3554E+01   1.3884E+01   5.4118E-07  0.0334
   1.3884E+01   1.4222E+01   4.8251E-07  0.0349
   1.4222E+01   1.4568E+01   4.4797E-07  0.0359
   1.4568E+01   1.4922E+01   4.0239E-07  0.0373
   1.4922E+01   1.5285E+01   3.8117E-07  0.0380
   1.5285E+01   1.5657E+01   3.2632E-07  0.0405
   1.5657E+01   1.6038E+01   2.7100E-07  0.0439
   1.6038E+01   1.6428E+01   2.5188E-07  0.0450
   1.6428E+01   1.6828E+01   2.2120E-07  0.0475
   1.6828E+01   1.7237E+01   1.8954E-07  0.0507
   1.7237E+01   1.7657E+01   1.9336E-07  0.0496
   1.7657E+01   1.8086E+01   1.6525E-07  0.0530
   1.8086E+01   1.8526E+01   1.3432E-07  0.0581
   1.8526E+01   1.8977E+01   1.0116E-07  0.0662
   1.8977E+01   1.9439E+01   8.6866E-08  0.0706
   1.9439E+01   1.9912E+01   8.4573E-08  0.0707
   1.9912E+01   2.0396E+01   7.5959E-08  0.0737
   2.0396E+01   2.0893E+01   5.3601E-08  0.0867
   2.0893E+01   2.1401E+01   5.1541E-08  0.0874
   2.1401E+01   2.1922E+01   4.4171E-08  0.0933
   2.1922E+01   2.2455E+01   3.5248E-08  0.1031
   2.2455E+01   2.3001E+01   3.6241E-08  0.1005
   2.3001E+01   2.3561E+01   1.5367E-08  0.1525
   2.3561E+01   2.4134E+01   8.7221E-09  0.2000
   2.4134E+01   2.4721E+01   4.7683E-09  0.2673
   2.4721E+01   2.5323E+01   3.9901E-09  0.2887
   2.5323E+01   2.5939E+01   3.2461E-09  0.3162
   2.5939E+01   2.6570E+01   2.8521E-09  0.3333
   2.6570E+01   2.7217E+01   3.7124E-09  0.2887
   2.7217E+01   2.7879E+01   1.5101E-09  0.4472
   2.7879E+01   2.8557E+01   3.5382E-09  0.2887
   2.8557E+01   2.9252E+01   1.1514E-09  0.5000
   2.9252E+01   2.9964E+01   5.6202E-10  0.7071
   2.9964E+01   3.0693E+01   5.4867E-10  0.7071
   3.0693E+01   3.1440E+01   5.3563E-10  0.7071
   3.1440E+01   3.2205E+01   2.6146E-10  1.0000
   3.2205E+01   3.2988E+01   0.0000E+00  0.0000
   3.2988E+01   3.3791E+01   0.0000E+00  0.0000
   3.3791E+01   3.4613E+01   0.0000E+00  0.0000
   3.4613E+01   3.5455E+01   0.0000E+00  0.0000
   3.5455E+01   3.6318E+01   0.0000E+00  0.0000
   3.6318E+01   3.7201E+01   0.0000E+00  0.0000
   3.7201E+01   3.8106E+01   0.0000E+00  0.0000
   3.8106E+01   3.9034E+01   0.0000E+00  0.0000
   3.9034E+01   3.9983E+01   0.0000E+00  0.0000
   3.9983E+01   4.0956E+01   0.0000E+00  0.0000
   4.0956E+01   4.1953E+01   0.0000E+00  0.0000
   4.1953E+01   4.2973E+01   0.0000E+00  0.0000
   4.2973E+01   4.4019E+01   0.0000E+00  0.0000
   4.4019E+01   4.5090E+01   0.0000E+00  0.0000
   4.5090E+01   4.6187E+01   0.0000E+00  0.0000
   4.6187E+01   4.7311E+01   0.0000E+00  0.0000
   4.7311E+01   4.8462E+01   0.0000E+00  0.0000
   4.8462E+01   4.9641E+01   0.0000E+00  0.0000
   4.9641E+01   5.0849E+01   0.0000E+00  0.0000
   5.0849E+01   5.2086E+01   0.0000E+00  0.0000
   5.2086E+01   5.3353E+01   0.0000E+00  0.0000
   5.3353E+01   5.4651E+01   0.0000E+00  0.0000
   5.4651E+01   5.5981E+01   0.0000E+00  0.0000
   5.5981E+01   5.7343E+01   0.0000E+00  0.0000
   5.7343E+01   5.8738E+01   0.0000E+00  0.0000
   5.8738E+01   6.0168E+01   0.0000E+00  0.0000
   6.0168E+01   6.1632E+01   0.0000E+00  0.0000
   6.1632E+01   6.3131E+01   0.0000E+00  0.0000
   6.3131E+01   6.4667E+01   0.0000E+00  0.0000
   6.4667E+01   6.6240E+01   0.0000E+00  0.0000
   6.6240E+01   6.7852E+01   0.0000E+00  0.0000
   6.7852E+01   6.9503E+01   0.0000E+00  0.0000
   6.9503E+01   7.1194E+01   0.0000E+00  0.0000
   7.1194E+01   7.2926E+01   0.0000E+00  0.0000
   7.2926E+01   7.4701E+01   0.0000E+00  0.0000
   7.4701E+01   7.6518E+01   0.0000E+00  0.0000
   7.6518E+01   7.8380E+01   0.0000E+00  0.0000
   7.8380E+01   8.0287E+01   0.0000E+00  0.0000
   8.0287E+01   8.2240E+01   0.0000E+00  0.0000
   8.2240E+01   8.4241E+01   0.0000E+00  0.0000
   8.4241E+01   8.6291E+01   0.0000E+00  0.0000
   8.6291E+01   8.8391E+01   0.0000E+00  0.0000
   8.8391E+01   9.0541E+01   0.0000E+00  0.0000
   9.0541E+01   9.2744E+01   0.0000E+00  0.0000
   9.2744E+01   9.5001E+01   0.0000E+00  0.0000
   9.5001E+01   9.7312E+01   0.0000E+00  0.0000
   9.7312E+01   9.9680E+01   0.0000E+00  0.0000
   9.9680E+01   1.0211E+02   0.0000E+00  0.0000
   1.0211E+02   1.0459E+02   0.0000E+00  0.0000
   1.0459E+02   1.0713E+02   0.0000E+00  0.0000
   1.0713E+02   1.0974E+02   0.0000E+00  0.0000
   1.0974E+02   1.1241E+02   0.0000E+00  0.0000
   1.1241E+02   1.1515E+02   0.0000E+00  0.0000
   1.1515E+02   1.1795E+02   0.0000E+00  0.0000
   1.1795E+02   1.2082E+02   0.0000E+00  0.0000
   1.2082E+02   1.2376E+02   0.0000E+00  0.0000
   1.2376E+02   1.2677E+02   0.0000E+00  0.0000
   1.2677E+02   1.2985E+02   0.0000E+00  0.0000
   1.2985E+02   1.3301E+02   0.0000E+00  0.0000
   1.3301E+02   1.3625E+02   0.0000E+00  0.0000
   1.3625E+02   1.3956E+02   0.0000E+00  0.0000
   1.3956E+02   1.4296E+02   0.0000E+00  0.0000
   1.4296E+02   1.4644E+02   0.0000E+00  0.0000
   1.4644E+02   1.5000E+02   0.0000E+00  0.0000

#   sum over                 2.3251E-06
'no. =    1   reg = 120 - 220'
msuc: {\huge [t-cross] in region mesh}
msdr: {\it plotted by \ANGEL \version}
msdl: {\it calculated by \PHITS  3.26}
wt: s(0.7)
\vspace{-3}
  region surface crossing
  area  &=&   1.0000E+00 [cm^2]
e:
 
# Information for Restart Calculation
# This calculation was newly started
# istdev =  2 # 1:Batch variance, 2:History variance
# resc2  = 5.00000000000000000E+09 # Total source weight or Total source weight / maxcas
# resc3  = 5.00000000000000000E+09 # Total history number or Total batch number
# maxcas =   100000000 # History / Batch, only used for istdev=1
# bitrseed = 0110100000100010111000001110001111001110100100011111101000111001 # bit data of rseed
