[ T-Cross ]
    title = [t-cross] in region mesh
     mesh =  reg            # mesh type is region-wise
      reg =    1            # number of crossing regions
      non     r-from    r-to       area
      1       108       208        1.000000    
   e-type =    3            # e-mesh is log given by emin, emax and ne
     emin =  1.0000000E-02  # minimum value of e-mesh points
     emax =   150.0000      # maximum value of e-mesh points
#    edel =  2.4039514E-02  # mesh width of e-mesh points
       ne =    400          # number of e-mesh points
#    data = ( e(i), i = 1, ne + 1 )
#           1.00000E-02  1.02433E-02  1.04925E-02  1.07478E-02  1.10093E-02
#           1.12772E-02  1.15516E-02  1.18326E-02  1.21205E-02  1.24154E-02
#           1.27175E-02  1.30269E-02  1.33439E-02  1.36686E-02  1.40011E-02
#           1.43418E-02  1.46907E-02  1.50482E-02  1.54143E-02  1.57894E-02
#           1.61735E-02  1.65670E-02  1.69701E-02  1.73830E-02  1.78060E-02
#           1.82392E-02  1.86830E-02  1.91375E-02  1.96032E-02  2.00801E-02
#           2.05687E-02  2.10692E-02  2.15818E-02  2.21069E-02  2.26448E-02
#           2.31957E-02  2.37601E-02  2.43382E-02  2.49304E-02  2.55369E-02
#           2.61583E-02  2.67947E-02  2.74467E-02  2.81145E-02  2.87985E-02
#           2.94992E-02  3.02169E-02  3.09521E-02  3.17052E-02  3.24766E-02
#           3.32668E-02  3.40762E-02  3.49053E-02  3.57546E-02  3.66246E-02
#           3.75157E-02  3.84284E-02  3.93634E-02  4.03212E-02  4.13022E-02
#           4.23071E-02  4.33365E-02  4.43909E-02  4.54710E-02  4.65773E-02
#           4.77106E-02  4.88714E-02  5.00605E-02  5.12785E-02  5.25262E-02
#           5.38042E-02  5.51133E-02  5.64542E-02  5.78278E-02  5.92348E-02
#           6.06760E-02  6.21523E-02  6.36645E-02  6.52135E-02  6.68002E-02
#           6.84255E-02  7.00904E-02  7.17957E-02  7.35426E-02  7.53319E-02
#           7.71648E-02  7.90423E-02  8.09655E-02  8.29354E-02  8.49533E-02
#           8.70203E-02  8.91376E-02  9.13064E-02  9.35279E-02  9.58035E-02
#           9.81345E-02  1.00522E-01  1.02968E-01  1.05473E-01  1.08040E-01
#           1.10668E-01  1.13361E-01  1.16119E-01  1.18944E-01  1.21838E-01
#           1.24803E-01  1.27839E-01  1.30950E-01  1.34136E-01  1.37399E-01
#           1.40742E-01  1.44167E-01  1.47675E-01  1.51268E-01  1.54948E-01
#           1.58718E-01  1.62580E-01  1.66535E-01  1.70587E-01  1.74738E-01
#           1.78989E-01  1.83344E-01  1.87805E-01  1.92375E-01  1.97055E-01
#           2.01850E-01  2.06761E-01  2.11792E-01  2.16945E-01  2.22223E-01
#           2.27630E-01  2.33169E-01  2.38842E-01  2.44653E-01  2.50605E-01
#           2.56703E-01  2.62949E-01  2.69346E-01  2.75900E-01  2.82613E-01
#           2.89489E-01  2.96532E-01  3.03747E-01  3.11138E-01  3.18708E-01
#           3.26462E-01  3.34405E-01  3.42542E-01  3.50876E-01  3.59413E-01
#           3.68158E-01  3.77116E-01  3.86291E-01  3.95690E-01  4.05317E-01
#           4.15179E-01  4.25281E-01  4.35628E-01  4.46227E-01  4.57084E-01
#           4.68205E-01  4.79597E-01  4.91266E-01  5.03219E-01  5.15463E-01
#           5.28005E-01  5.40851E-01  5.54011E-01  5.67490E-01  5.81298E-01
#           5.95441E-01  6.09929E-01  6.24769E-01  6.39970E-01  6.55541E-01
#           6.71491E-01  6.87828E-01  7.04564E-01  7.21706E-01  7.39266E-01
#           7.57253E-01  7.75678E-01  7.94551E-01  8.13883E-01  8.33685E-01
#           8.53969E-01  8.74747E-01  8.96030E-01  9.17831E-01  9.40163E-01
#           9.63038E-01  9.86469E-01  1.01047E+00  1.03506E+00  1.06024E+00
#           1.08604E+00  1.11246E+00  1.13953E+00  1.16725E+00  1.19565E+00
#           1.22474E+00  1.25454E+00  1.28507E+00  1.31633E+00  1.34836E+00
#           1.38117E+00  1.41477E+00  1.44920E+00  1.48446E+00  1.52057E+00
#           1.55757E+00  1.59547E+00  1.63429E+00  1.67405E+00  1.71478E+00
#           1.75650E+00  1.79924E+00  1.84302E+00  1.88786E+00  1.93379E+00
#           1.98084E+00  2.02904E+00  2.07841E+00  2.12898E+00  2.18078E+00
#           2.23384E+00  2.28819E+00  2.34386E+00  2.40089E+00  2.45930E+00
#           2.51914E+00  2.58043E+00  2.64322E+00  2.70753E+00  2.77341E+00
#           2.84088E+00  2.91001E+00  2.98081E+00  3.05333E+00  3.12762E+00
#           3.20372E+00  3.28167E+00  3.36152E+00  3.44330E+00  3.52708E+00
#           3.61290E+00  3.70080E+00  3.79085E+00  3.88308E+00  3.97756E+00
#           4.07434E+00  4.17347E+00  4.27501E+00  4.37903E+00  4.48557E+00
#           4.59471E+00  4.70650E+00  4.82102E+00  4.93832E+00  5.05847E+00
#           5.18155E+00  5.30762E+00  5.43676E+00  5.56904E+00  5.70453E+00
#           5.84333E+00  5.98550E+00  6.13114E+00  6.28031E+00  6.43312E+00
#           6.58964E+00  6.74997E+00  6.91420E+00  7.08243E+00  7.25475E+00
#           7.43126E+00  7.61207E+00  7.79728E+00  7.98700E+00  8.18133E+00
#           8.38038E+00  8.58428E+00  8.79315E+00  9.00709E+00  9.22624E+00
#           9.45072E+00  9.68067E+00  9.91620E+00  1.01575E+01  1.04046E+01
#           1.06578E+01  1.09171E+01  1.11827E+01  1.14548E+01  1.17335E+01
#           1.20190E+01  1.23114E+01  1.26109E+01  1.29178E+01  1.32321E+01
#           1.35540E+01  1.38838E+01  1.42216E+01  1.45676E+01  1.49221E+01
#           1.52851E+01  1.56570E+01  1.60380E+01  1.64282E+01  1.68279E+01
#           1.72374E+01  1.76568E+01  1.80864E+01  1.85264E+01  1.89772E+01
#           1.94389E+01  1.99119E+01  2.03963E+01  2.08926E+01  2.14009E+01
#           2.19216E+01  2.24550E+01  2.30014E+01  2.35610E+01  2.41343E+01
#           2.47215E+01  2.53230E+01  2.59391E+01  2.65702E+01  2.72167E+01
#           2.78789E+01  2.85572E+01  2.92520E+01  2.99637E+01  3.06928E+01
#           3.14396E+01  3.22045E+01  3.29881E+01  3.37907E+01  3.46128E+01
#           3.54550E+01  3.63177E+01  3.72013E+01  3.81064E+01  3.90336E+01
#           3.99833E+01  4.09561E+01  4.19526E+01  4.29734E+01  4.40189E+01
#           4.50900E+01  4.61870E+01  4.73108E+01  4.84619E+01  4.96410E+01
#           5.08488E+01  5.20860E+01  5.33533E+01  5.46514E+01  5.59812E+01
#           5.73432E+01  5.87384E+01  6.01676E+01  6.16315E+01  6.31311E+01
#           6.46671E+01  6.62405E+01  6.78522E+01  6.95031E+01  7.11941E+01
#           7.29263E+01  7.47007E+01  7.65182E+01  7.83800E+01  8.02870E+01
#           8.22405E+01  8.42414E+01  8.62911E+01  8.83906E+01  9.05412E+01
#           9.27442E+01  9.50007E+01  9.73122E+01  9.96799E+01  1.02105E+02
#           1.04589E+02  1.07134E+02  1.09741E+02  1.12411E+02  1.15146E+02
#           1.17948E+02  1.20817E+02  1.23757E+02  1.26768E+02  1.29852E+02
#           1.33012E+02  1.36248E+02  1.39563E+02  1.42959E+02  1.46437E+02
#           1.50000E+02
     unit =    2            # unit is [1/cm^2/(MeV/n)/source]
     axis =  eng            # axis of output
     file = detector-09.out  # file name of output for the above axis
   output = f-curr          # surface crossing forward current spectrum
     part =  neutron  
# kf/name :  2112     
#    used :        main (  %)        temp (  %)       total (  %)
#  memory :         414 (  0)           0 (  0)         414 (  0)

#------------------------------------------------------------------------------
#newpage:
#   no. =    1   reg = 108 - 208

x: Energy [MeV/n]
y:  F-Curr [1/cm^2/(MeV/n)/source]         
p: xlog ylog afac(0.8) form(0.9)
h: n            x            y(neutron ),hh0l   n 
#  e-lower      e-upper      neutron     r.err 
   1.0000E-02   1.0243E-02   7.2747E-03  0.0336
   1.0243E-02   1.0493E-02   7.1421E-03  0.0335
   1.0493E-02   1.0748E-02   6.9724E-03  0.0335
   1.0748E-02   1.1009E-02   6.6844E-03  0.0338
   1.1009E-02   1.1277E-02   7.1454E-03  0.0323
   1.1277E-02   1.1552E-02   7.2308E-03  0.0318
   1.1552E-02   1.1833E-02   6.7530E-03  0.0325
   1.1833E-02   1.2121E-02   7.2178E-03  0.0310
   1.2121E-02   1.2415E-02   6.9379E-03  0.0313
   1.2415E-02   1.2718E-02   6.7135E-03  0.0314
   1.2718E-02   1.3027E-02   7.1293E-03  0.0301
   1.3027E-02   1.3344E-02   6.7517E-03  0.0306
   1.3344E-02   1.3669E-02   6.7946E-03  0.0301
   1.3669E-02   1.4001E-02   6.9159E-03  0.0295
   1.4001E-02   1.4342E-02   7.0334E-03  0.0289
   1.4342E-02   1.4691E-02   6.7345E-03  0.0292
   1.4691E-02   1.5048E-02   6.5242E-03  0.0293
   1.5048E-02   1.5414E-02   6.9701E-03  0.0280
   1.5414E-02   1.5789E-02   6.8472E-03  0.0279
   1.5789E-02   1.6174E-02   6.6377E-03  0.0280
   1.6174E-02   1.6567E-02   6.8460E-03  0.0272
   1.6567E-02   1.6970E-02   6.9464E-03  0.0267
   1.6970E-02   1.7383E-02   6.7426E-03  0.0268
   1.7383E-02   1.7806E-02   6.8047E-03  0.0264
   1.7806E-02   1.8239E-02   6.8877E-03  0.0259
   1.8239E-02   1.8683E-02   6.8503E-03  0.0256
   1.8683E-02   1.9138E-02   6.6348E-03  0.0258
   1.9138E-02   1.9603E-02   6.6963E-03  0.0253
   1.9603E-02   2.0080E-02   6.5875E-03  0.0252
   2.0080E-02   2.0569E-02   6.7258E-03  0.0247
   2.0569E-02   2.1069E-02   6.5780E-03  0.0246
   2.1069E-02   2.1582E-02   6.9719E-03  0.0237
   2.1582E-02   2.2107E-02   6.5778E-03  0.0241
   2.2107E-02   2.2645E-02   6.5442E-03  0.0238
   2.2645E-02   2.3196E-02   6.4759E-03  0.0237
   2.3196E-02   2.3760E-02   6.5064E-03  0.0234
   2.3760E-02   2.4338E-02   6.5732E-03  0.0229
   2.4338E-02   2.4930E-02   6.5454E-03  0.0227
   2.4930E-02   2.5537E-02   6.5103E-03  0.0225
   2.5537E-02   2.6158E-02   6.4007E-03  0.0224
   2.6158E-02   2.6795E-02   6.4137E-03  0.0221
   2.6795E-02   2.7447E-02   6.5497E-03  0.0216
   2.7447E-02   2.8114E-02   6.4720E-03  0.0215
   2.8114E-02   2.8799E-02   6.6165E-03  0.0210
   2.8799E-02   2.9499E-02   6.4137E-03  0.0211
   2.9499E-02   3.0217E-02   6.5233E-03  0.0207
   3.0217E-02   3.0952E-02   6.2758E-03  0.0208
   3.0952E-02   3.1705E-02   6.1719E-03  0.0207
   3.1705E-02   3.2477E-02   6.2625E-03  0.0203
   3.2477E-02   3.3267E-02   6.2644E-03  0.0201
   3.3267E-02   3.4076E-02   6.3602E-03  0.0197
   3.4076E-02   3.4905E-02   6.2429E-03  0.0197
   3.4905E-02   3.5755E-02   6.1935E-03  0.0195
   3.5755E-02   3.6625E-02   6.4303E-03  0.0189
   3.6625E-02   3.7516E-02   6.0689E-03  0.0192
   3.7516E-02   3.8428E-02   6.2030E-03  0.0188
   3.8428E-02   3.9363E-02   6.1712E-03  0.0186
   3.9363E-02   4.0321E-02   6.2480E-03  0.0183
   4.0321E-02   4.1302E-02   6.0130E-03  0.0184
   4.1302E-02   4.2307E-02   6.1040E-03  0.0181
   4.2307E-02   4.3337E-02   6.2466E-03  0.0176
   4.3337E-02   4.4391E-02   6.1361E-03  0.0176
   4.4391E-02   4.5471E-02   5.9848E-03  0.0176
   4.5471E-02   4.6577E-02   5.8734E-03  0.0175
   4.6577E-02   4.7711E-02   5.9315E-03  0.0172
   4.7711E-02   4.8871E-02   5.8389E-03  0.0172
   4.8871E-02   5.0061E-02   5.8718E-03  0.0169
   5.0061E-02   5.1279E-02   5.9852E-03  0.0166
   5.1279E-02   5.2526E-02   5.8222E-03  0.0166
   5.2526E-02   5.3804E-02   5.7512E-03  0.0165
   5.3804E-02   5.5113E-02   5.8865E-03  0.0161
   5.5113E-02   5.6454E-02   5.6288E-03  0.0163
   5.6454E-02   5.7828E-02   5.7529E-03  0.0159
   5.7828E-02   5.9235E-02   5.7513E-03  0.0157
   5.9235E-02   6.0676E-02   5.6452E-03  0.0157
   6.0676E-02   6.2152E-02   5.6019E-03  0.0156
   6.2152E-02   6.3665E-02   5.5111E-03  0.0155
   6.3665E-02   6.5214E-02   5.5700E-03  0.0152
   6.5214E-02   6.6800E-02   5.5020E-03  0.0151
   6.6800E-02   6.8426E-02   5.4205E-03  0.0151
   6.8426E-02   7.0090E-02   5.4119E-03  0.0149
   7.0090E-02   7.1796E-02   5.2576E-03  0.0149
   7.1796E-02   7.3543E-02   5.4716E-03  0.0145
   7.3543E-02   7.5332E-02   5.3763E-03  0.0144
   7.5332E-02   7.7165E-02   5.2737E-03  0.0144
   7.7165E-02   7.9042E-02   5.3103E-03  0.0142
   7.9042E-02   8.0965E-02   5.2476E-03  0.0141
   8.0965E-02   8.2935E-02   5.3027E-03  0.0139
   8.2935E-02   8.4953E-02   5.1524E-03  0.0139
   8.4953E-02   8.7020E-02   5.2434E-03  0.0136
   8.7020E-02   8.9138E-02   5.1193E-03  0.0136
   8.9138E-02   9.1306E-02   5.0535E-03  0.0135
   9.1306E-02   9.3528E-02   5.0856E-03  0.0133
   9.3528E-02   9.5804E-02   5.0255E-03  0.0132
   9.5804E-02   9.8134E-02   4.9842E-03  0.0131
   9.8134E-02   1.0052E-01   4.9504E-03  0.0130
   1.0052E-01   1.0297E-01   4.8663E-03  0.0130
   1.0297E-01   1.0547E-01   4.9312E-03  0.0127
   1.0547E-01   1.0804E-01   4.8888E-03  0.0126
   1.0804E-01   1.1067E-01   4.8321E-03  0.0126
   1.1067E-01   1.1336E-01   4.7663E-03  0.0125
   1.1336E-01   1.1612E-01   4.6683E-03  0.0125
   1.1612E-01   1.1894E-01   4.6519E-03  0.0123
   1.1894E-01   1.2184E-01   4.6462E-03  0.0122
   1.2184E-01   1.2480E-01   4.5952E-03  0.0121
   1.2480E-01   1.2784E-01   4.4458E-03  0.0122
   1.2784E-01   1.3095E-01   4.6013E-03  0.0118
   1.3095E-01   1.3414E-01   4.4926E-03  0.0118
   1.3414E-01   1.3740E-01   4.3786E-03  0.0118
   1.3740E-01   1.4074E-01   4.2955E-03  0.0118
   1.4074E-01   1.4417E-01   4.3395E-03  0.0116
   1.4417E-01   1.4767E-01   4.2980E-03  0.0115
   1.4767E-01   1.5127E-01   4.2460E-03  0.0115
   1.5127E-01   1.5495E-01   4.2337E-03  0.0113
   1.5495E-01   1.5872E-01   4.1300E-03  0.0113
   1.5872E-01   1.6258E-01   4.2113E-03  0.0111
   1.6258E-01   1.6654E-01   4.0397E-03  0.0112
   1.6654E-01   1.7059E-01   4.0149E-03  0.0111
   1.7059E-01   1.7474E-01   3.9619E-03  0.0110
   1.7474E-01   1.7899E-01   3.9943E-03  0.0109
   1.7899E-01   1.8334E-01   3.8634E-03  0.0109
   1.8334E-01   1.8781E-01   3.8261E-03  0.0108
   1.8781E-01   1.9237E-01   3.7606E-03  0.0108
   1.9237E-01   1.9706E-01   3.6867E-03  0.0108
   1.9706E-01   2.0185E-01   3.6500E-03  0.0107
   2.0185E-01   2.0676E-01   3.6093E-03  0.0106
   2.0676E-01   2.1179E-01   3.5196E-03  0.0106
   2.1179E-01   2.1694E-01   3.4904E-03  0.0106
   2.1694E-01   2.2222E-01   3.4162E-03  0.0105
   2.2222E-01   2.2763E-01   3.3831E-03  0.0105
   2.2763E-01   2.3317E-01   3.3143E-03  0.0104
   2.3317E-01   2.3884E-01   3.2666E-03  0.0104
   2.3884E-01   2.4465E-01   3.2272E-03  0.0103
   2.4465E-01   2.5061E-01   3.1385E-03  0.0104
   2.5061E-01   2.5670E-01   3.1699E-03  0.0102
   2.5670E-01   2.6295E-01   3.0369E-03  0.0103
   2.6295E-01   2.6935E-01   3.0533E-03  0.0101
   2.6935E-01   2.7590E-01   3.0088E-03  0.0101
   2.7590E-01   2.8261E-01   2.8903E-03  0.0102
   2.8261E-01   2.8949E-01   2.8559E-03  0.0101
   2.8949E-01   2.9653E-01   2.8761E-03  0.0099
   2.9653E-01   3.0375E-01   2.7754E-03  0.0100
   3.0375E-01   3.1114E-01   2.7406E-03  0.0099
   3.1114E-01   3.1871E-01   2.6307E-03  0.0100
   3.1871E-01   3.2646E-01   2.5304E-03  0.0101
   3.2646E-01   3.3441E-01   2.5145E-03  0.0100
   3.3441E-01   3.4254E-01   2.4709E-03  0.0100
   3.4254E-01   3.5088E-01   2.4267E-03  0.0099
   3.5088E-01   3.5941E-01   2.4060E-03  0.0099
   3.5941E-01   3.6816E-01   2.3205E-03  0.0099
   3.6816E-01   3.7712E-01   2.2611E-03  0.0099
   3.7712E-01   3.8629E-01   2.2314E-03  0.0099
   3.8629E-01   3.9569E-01   2.1528E-03  0.0099
   3.9569E-01   4.0532E-01   2.0861E-03  0.0100
   4.0532E-01   4.1518E-01   2.0066E-03  0.0101
   4.1518E-01   4.2528E-01   1.9924E-03  0.0100
   4.2528E-01   4.3563E-01   1.9164E-03  0.0100
   4.3563E-01   4.4623E-01   1.8614E-03  0.0101
   4.4623E-01   4.5708E-01   1.7961E-03  0.0101
   4.5708E-01   4.6821E-01   1.7629E-03  0.0101
   4.6821E-01   4.7960E-01   1.7019E-03  0.0102
   4.7960E-01   4.9127E-01   1.6528E-03  0.0102
   4.9127E-01   5.0322E-01   1.5750E-03  0.0103
   5.0322E-01   5.1546E-01   1.5452E-03  0.0103
   5.1546E-01   5.2800E-01   1.4961E-03  0.0103
   5.2800E-01   5.4085E-01   1.4159E-03  0.0105
   5.4085E-01   5.5401E-01   1.3724E-03  0.0105
   5.5401E-01   5.6749E-01   1.3051E-03  0.0107
   5.6749E-01   5.8130E-01   1.2774E-03  0.0107
   5.8130E-01   5.9544E-01   1.2341E-03  0.0107
   5.9544E-01   6.0993E-01   1.1633E-03  0.0109
   6.0993E-01   6.2477E-01   1.1313E-03  0.0109
   6.2477E-01   6.3997E-01   1.0849E-03  0.0110
   6.3997E-01   6.5554E-01   1.0489E-03  0.0111
   6.5554E-01   6.7149E-01   1.0077E-03  0.0112
   6.7149E-01   6.8783E-01   9.3562E-04  0.0114
   6.8783E-01   7.0456E-01   9.1781E-04  0.0114
   7.0456E-01   7.2171E-01   8.5413E-04  0.0117
   7.2171E-01   7.3927E-01   8.2974E-04  0.0117
   7.3927E-01   7.5725E-01   7.8490E-04  0.0119
   7.5725E-01   7.7568E-01   7.5682E-04  0.0120
   7.7568E-01   7.9455E-01   7.1203E-04  0.0122
   7.9455E-01   8.1388E-01   6.7070E-04  0.0124
   8.1388E-01   8.3368E-01   6.3326E-04  0.0126
   8.3368E-01   8.5397E-01   6.0904E-04  0.0127
   8.5397E-01   8.7475E-01   5.7071E-04  0.0130
   8.7475E-01   8.9603E-01   5.2652E-04  0.0134
   8.9603E-01   9.1783E-01   5.2658E-04  0.0132
   9.1783E-01   9.4016E-01   4.8461E-04  0.0136
   9.4016E-01   9.6304E-01   4.6645E-04  0.0137
   9.6304E-01   9.8647E-01   4.5008E-04  0.0138
   9.8647E-01   1.0105E+00   4.3755E-04  0.0138
   1.0105E+00   1.0351E+00   4.3233E-04  0.0137
   1.0351E+00   1.0602E+00   4.4473E-04  0.0134
   1.0602E+00   1.0860E+00   4.5402E-04  0.0131
   1.0860E+00   1.1125E+00   4.8244E-04  0.0125
   1.1125E+00   1.1395E+00   4.8834E-04  0.0123
   1.1395E+00   1.1673E+00   5.0387E-04  0.0120
   1.1673E+00   1.1957E+00   5.2500E-04  0.0116
   1.1957E+00   1.2247E+00   5.4436E-04  0.0112
   1.2247E+00   1.2545E+00   5.4324E-04  0.0111
   1.2545E+00   1.2851E+00   5.4632E-04  0.0110
   1.2851E+00   1.3163E+00   5.7278E-04  0.0106
   1.3163E+00   1.3484E+00   5.7775E-04  0.0104
   1.3484E+00   1.3812E+00   5.8232E-04  0.0102
   1.3812E+00   1.4148E+00   5.9679E-04  0.0100
   1.4148E+00   1.4492E+00   5.9240E-04  0.0099
   1.4492E+00   1.4845E+00   5.8843E-04  0.0098
   1.4845E+00   1.5206E+00   5.8170E-04  0.0098
   1.5206E+00   1.5576E+00   5.9357E-04  0.0096
   1.5576E+00   1.5955E+00   5.8934E-04  0.0095
   1.5955E+00   1.6343E+00   5.9254E-04  0.0093
   1.6343E+00   1.6741E+00   6.1484E-04  0.0091
   1.6741E+00   1.7148E+00   6.1369E-04  0.0089
   1.7148E+00   1.7565E+00   6.1301E-04  0.0088
   1.7565E+00   1.7992E+00   5.9850E-04  0.0088
   1.7992E+00   1.8430E+00   5.9735E-04  0.0088
   1.8430E+00   1.8879E+00   5.9591E-04  0.0087
   1.8879E+00   1.9338E+00   5.8148E-04  0.0087
   1.9338E+00   1.9808E+00   5.9255E-04  0.0085
   1.9808E+00   2.0290E+00   5.8429E-04  0.0084
   2.0290E+00   2.0784E+00   5.6077E-04  0.0085
   2.0784E+00   2.1290E+00   5.6473E-04  0.0084
   2.1290E+00   2.1808E+00   5.4244E-04  0.0084
   2.1808E+00   2.2338E+00   5.3012E-04  0.0084
   2.2338E+00   2.2882E+00   5.1778E-04  0.0084
   2.2882E+00   2.3439E+00   5.0872E-04  0.0084
   2.3439E+00   2.4009E+00   5.1301E-04  0.0083
   2.4009E+00   2.4593E+00   5.0861E-04  0.0082
   2.4593E+00   2.5191E+00   4.8087E-04  0.0083
   2.5191E+00   2.5804E+00   4.6795E-04  0.0084
   2.5804E+00   2.6432E+00   4.5935E-04  0.0083
   2.6432E+00   2.7075E+00   4.4309E-04  0.0084
   2.7075E+00   2.7734E+00   4.2161E-04  0.0085
   2.7734E+00   2.8409E+00   4.2370E-04  0.0084
   2.8409E+00   2.9100E+00   4.0405E-04  0.0085
   2.9100E+00   2.9808E+00   4.0075E-04  0.0084
   2.9808E+00   3.0533E+00   3.8793E-04  0.0084
   3.0533E+00   3.1276E+00   3.7341E-04  0.0085
   3.1276E+00   3.2037E+00   3.5954E-04  0.0086
   3.2037E+00   3.2817E+00   3.4299E-04  0.0087
   3.2817E+00   3.3615E+00   3.3369E-04  0.0087
   3.3615E+00   3.4433E+00   3.2080E-04  0.0087
   3.4433E+00   3.5271E+00   3.1115E-04  0.0088
   3.5271E+00   3.6129E+00   3.0358E-04  0.0088
   3.6129E+00   3.7008E+00   2.9029E-04  0.0089
   3.7008E+00   3.7908E+00   2.8280E-04  0.0089
   3.7908E+00   3.8831E+00   2.7090E-04  0.0090
   3.8831E+00   3.9776E+00   2.6068E-04  0.0090
   3.9776E+00   4.0743E+00   2.5436E-04  0.0090
   4.0743E+00   4.1735E+00   2.4723E-04  0.0090
   4.1735E+00   4.2750E+00   2.3653E-04  0.0091
   4.2750E+00   4.3790E+00   2.2718E-04  0.0092
   4.3790E+00   4.4856E+00   2.1899E-04  0.0093
   4.4856E+00   4.5947E+00   2.1215E-04  0.0093
   4.5947E+00   4.7065E+00   2.0473E-04  0.0094
   4.7065E+00   4.8210E+00   1.9998E-04  0.0093
   4.8210E+00   4.9383E+00   1.9335E-04  0.0094
   4.9383E+00   5.0585E+00   1.8833E-04  0.0094
   5.0585E+00   5.1815E+00   1.8231E-04  0.0094
   5.1815E+00   5.3076E+00   1.7738E-04  0.0095
   5.3076E+00   5.4368E+00   1.7454E-04  0.0094
   5.4368E+00   5.5690E+00   1.6704E-04  0.0095
   5.5690E+00   5.7045E+00   1.6475E-04  0.0095
   5.7045E+00   5.8433E+00   1.6151E-04  0.0094
   5.8433E+00   5.9855E+00   1.5414E-04  0.0096
   5.9855E+00   6.1311E+00   1.5207E-04  0.0095
   6.1311E+00   6.2803E+00   1.5094E-04  0.0094
   6.2803E+00   6.4331E+00   1.4711E-04  0.0094
   6.4331E+00   6.5896E+00   1.4279E-04  0.0095
   6.5896E+00   6.7500E+00   1.4068E-04  0.0094
   6.7500E+00   6.9142E+00   1.3825E-04  0.0094
   6.9142E+00   7.0824E+00   1.3472E-04  0.0094
   7.0824E+00   7.2548E+00   1.3265E-04  0.0094
   7.2548E+00   7.4313E+00   1.3180E-04  0.0093
   7.4313E+00   7.6121E+00   1.2684E-04  0.0093
   7.6121E+00   7.7973E+00   1.2756E-04  0.0092
   7.7973E+00   7.9870E+00   1.2418E-04  0.0092
   7.9870E+00   8.1813E+00   1.2255E-04  0.0092
   8.1813E+00   8.3804E+00   1.2000E-04  0.0092
   8.3804E+00   8.5843E+00   1.1920E-04  0.0091
   8.5843E+00   8.7931E+00   1.1725E-04  0.0090
   8.7931E+00   9.0071E+00   1.1391E-04  0.0091
   9.0071E+00   9.2262E+00   1.1449E-04  0.0089
   9.2262E+00   9.4507E+00   1.1073E-04  0.0090
   9.4507E+00   9.6807E+00   1.1001E-04  0.0089
   9.6807E+00   9.9162E+00   1.0851E-04  0.0088
   9.9162E+00   1.0157E+01   1.0623E-04  0.0088
   1.0157E+01   1.0405E+01   1.0471E-04  0.0088
   1.0405E+01   1.0658E+01   1.0148E-04  0.0088
   1.0658E+01   1.0917E+01   1.0040E-04  0.0088
   1.0917E+01   1.1183E+01   9.7583E-05  0.0088
   1.1183E+01   1.1455E+01   9.5294E-05  0.0088
   1.1455E+01   1.1733E+01   9.4735E-05  0.0087
   1.1733E+01   1.2019E+01   9.1627E-05  0.0087
   1.2019E+01   1.2311E+01   8.9806E-05  0.0087
   1.2311E+01   1.2611E+01   8.8003E-05  0.0087
   1.2611E+01   1.2918E+01   8.3495E-05  0.0088
   1.2918E+01   1.3232E+01   8.3551E-05  0.0087
   1.3232E+01   1.3554E+01   8.0460E-05  0.0088
   1.3554E+01   1.3884E+01   7.8149E-05  0.0088
   1.3884E+01   1.4222E+01   7.5929E-05  0.0088
   1.4222E+01   1.4568E+01   7.3799E-05  0.0089
   1.4568E+01   1.4922E+01   7.1507E-05  0.0089
   1.4922E+01   1.5285E+01   6.9133E-05  0.0089
   1.5285E+01   1.5657E+01   6.5526E-05  0.0091
   1.5657E+01   1.6038E+01   6.2505E-05  0.0092
   1.6038E+01   1.6428E+01   6.1048E-05  0.0092
   1.6428E+01   1.6828E+01   5.7424E-05  0.0093
   1.6828E+01   1.7237E+01   5.5066E-05  0.0094
   1.7237E+01   1.7657E+01   5.2830E-05  0.0095
   1.7657E+01   1.8086E+01   5.0584E-05  0.0096
   1.8086E+01   1.8526E+01   4.7242E-05  0.0098
   1.8526E+01   1.8977E+01   4.5343E-05  0.0099
   1.8977E+01   1.9439E+01   4.3363E-05  0.0100
   1.9439E+01   1.9912E+01   4.1119E-05  0.0101
   1.9912E+01   2.0396E+01   3.5414E-05  0.0108
   2.0396E+01   2.0893E+01   3.3620E-05  0.0109
   2.0893E+01   2.1401E+01   3.1885E-05  0.0111
   2.1401E+01   2.1922E+01   2.9568E-05  0.0114
   2.1922E+01   2.2455E+01   2.7594E-05  0.0117
   2.2455E+01   2.3001E+01   2.6284E-05  0.0118
   2.3001E+01   2.3561E+01   2.3973E-05  0.0122
   2.3561E+01   2.4134E+01   2.2388E-05  0.0125
   2.4134E+01   2.4721E+01   2.0538E-05  0.0129
   2.4721E+01   2.5323E+01   1.9222E-05  0.0132
   2.5323E+01   2.5939E+01   1.7642E-05  0.0136
   2.5939E+01   2.6570E+01   1.6273E-05  0.0140
   2.6570E+01   2.7217E+01   1.5168E-05  0.0143
   2.7217E+01   2.7879E+01   1.4029E-05  0.0147
   2.7879E+01   2.8557E+01   1.3050E-05  0.0150
   2.8557E+01   2.9252E+01   1.1908E-05  0.0155
   2.9252E+01   2.9964E+01   1.1001E-05  0.0160
   2.9964E+01   3.0693E+01   1.0041E-05  0.0165
   3.0693E+01   3.1440E+01   9.2209E-06  0.0170
   3.1440E+01   3.2205E+01   8.1574E-06  0.0179
   3.2205E+01   3.2988E+01   7.8615E-06  0.0180
   3.2988E+01   3.3791E+01   7.0369E-06  0.0188
   3.3791E+01   3.4613E+01   6.2105E-06  0.0198
   3.4613E+01   3.5455E+01   5.5192E-06  0.0207
   3.5455E+01   3.6318E+01   5.3510E-06  0.0208
   3.6318E+01   3.7201E+01   4.4498E-06  0.0226
   3.7201E+01   3.8106E+01   4.1298E-06  0.0231
   3.8106E+01   3.9034E+01   3.5851E-06  0.0245
   3.9034E+01   3.9983E+01   3.2683E-06  0.0254
   3.9983E+01   4.0956E+01   2.7816E-06  0.0272
   4.0956E+01   4.1953E+01   2.4265E-06  0.0288
   4.1953E+01   4.2973E+01   2.0495E-06  0.0309
   4.2973E+01   4.4019E+01   1.8382E-06  0.0323
   4.4019E+01   4.5090E+01   1.5835E-06  0.0343
   4.5090E+01   4.6187E+01   1.2269E-06  0.0385
   4.6187E+01   4.7311E+01   1.1088E-06  0.0401
   4.7311E+01   4.8462E+01   8.5657E-07  0.0450
   4.8462E+01   4.9641E+01   7.1918E-07  0.0486
   4.9641E+01   5.0849E+01   5.4810E-07  0.0550
   5.0849E+01   5.2086E+01   4.3001E-07  0.0613
   5.2086E+01   5.3353E+01   3.6140E-07  0.0661
   5.3353E+01   5.4651E+01   2.2186E-07  0.0833
   5.4651E+01   5.5981E+01   1.3838E-07  0.1043
   5.5981E+01   5.7343E+01   7.0481E-08  0.1443
   5.7343E+01   5.8738E+01   1.8635E-08  0.2774
   5.8738E+01   6.0168E+01   0.0000E+00  0.0000
   6.0168E+01   6.1632E+01   0.0000E+00  0.0000
   6.1632E+01   6.3131E+01   0.0000E+00  0.0000
   6.3131E+01   6.4667E+01   0.0000E+00  0.0000
   6.4667E+01   6.6240E+01   0.0000E+00  0.0000
   6.6240E+01   6.7852E+01   0.0000E+00  0.0000
   6.7852E+01   6.9503E+01   0.0000E+00  0.0000
   6.9503E+01   7.1194E+01   0.0000E+00  0.0000
   7.1194E+01   7.2926E+01   0.0000E+00  0.0000
   7.2926E+01   7.4701E+01   0.0000E+00  0.0000
   7.4701E+01   7.6518E+01   0.0000E+00  0.0000
   7.6518E+01   7.8380E+01   0.0000E+00  0.0000
   7.8380E+01   8.0287E+01   0.0000E+00  0.0000
   8.0287E+01   8.2240E+01   0.0000E+00  0.0000
   8.2240E+01   8.4241E+01   0.0000E+00  0.0000
   8.4241E+01   8.6291E+01   0.0000E+00  0.0000
   8.6291E+01   8.8391E+01   0.0000E+00  0.0000
   8.8391E+01   9.0541E+01   0.0000E+00  0.0000
   9.0541E+01   9.2744E+01   0.0000E+00  0.0000
   9.2744E+01   9.5001E+01   0.0000E+00  0.0000
   9.5001E+01   9.7312E+01   0.0000E+00  0.0000
   9.7312E+01   9.9680E+01   0.0000E+00  0.0000
   9.9680E+01   1.0211E+02   0.0000E+00  0.0000
   1.0211E+02   1.0459E+02   0.0000E+00  0.0000
   1.0459E+02   1.0713E+02   0.0000E+00  0.0000
   1.0713E+02   1.0974E+02   0.0000E+00  0.0000
   1.0974E+02   1.1241E+02   0.0000E+00  0.0000
   1.1241E+02   1.1515E+02   0.0000E+00  0.0000
   1.1515E+02   1.1795E+02   0.0000E+00  0.0000
   1.1795E+02   1.2082E+02   0.0000E+00  0.0000
   1.2082E+02   1.2376E+02   0.0000E+00  0.0000
   1.2376E+02   1.2677E+02   0.0000E+00  0.0000
   1.2677E+02   1.2985E+02   0.0000E+00  0.0000
   1.2985E+02   1.3301E+02   0.0000E+00  0.0000
   1.3301E+02   1.3625E+02   0.0000E+00  0.0000
   1.3625E+02   1.3956E+02   0.0000E+00  0.0000
   1.3956E+02   1.4296E+02   0.0000E+00  0.0000
   1.4296E+02   1.4644E+02   0.0000E+00  0.0000
   1.4644E+02   1.5000E+02   0.0000E+00  0.0000

#   sum over                 3.5686E-05
'no. =    1   reg = 108 - 208'
msuc: {\huge [t-cross] in region mesh}
msdr: {\it plotted by \ANGEL \version}
msdl: {\it calculated by \PHITS  3.26}
wt: s(0.7)
\vspace{-3}
  region surface crossing
  area  &=&   1.0000E+00 [cm^2]
e:
 
# Information for Restart Calculation
# This calculation was newly started
# istdev =  2 # 1:Batch variance, 2:History variance
# resc2  = 5.00000000000000000E+08 # Total source weight or Total source weight / maxcas
# resc3  = 5.00000000000000000E+08 # Total history number or Total batch number
# maxcas =   500000000 # History / Batch, only used for istdev=1
# bitrseed = 1101101111010011011000101101110001100110110010110001010100010001 # bit data of rseed
