[ T-Cross ]
    title = [t-cross] in region mesh
     mesh =  reg            # mesh type is region-wise
      reg =    1            # number of crossing regions
      non     r-from    r-to       area
      1       121       221        1.000000    
   e-type =    3            # e-mesh is log given by emin, emax and ne
     emin =  1.0000000E-02  # minimum value of e-mesh points
     emax =   150.0000      # maximum value of e-mesh points
#    edel =  2.4039514E-02  # mesh width of e-mesh points
       ne =    400          # number of e-mesh points
#    data = ( e(i), i = 1, ne + 1 )
#           1.00000E-02  1.02433E-02  1.04925E-02  1.07478E-02  1.10093E-02
#           1.12772E-02  1.15516E-02  1.18326E-02  1.21205E-02  1.24154E-02
#           1.27175E-02  1.30269E-02  1.33439E-02  1.36686E-02  1.40011E-02
#           1.43418E-02  1.46907E-02  1.50482E-02  1.54143E-02  1.57894E-02
#           1.61735E-02  1.65670E-02  1.69701E-02  1.73830E-02  1.78060E-02
#           1.82392E-02  1.86830E-02  1.91375E-02  1.96032E-02  2.00801E-02
#           2.05687E-02  2.10692E-02  2.15818E-02  2.21069E-02  2.26448E-02
#           2.31957E-02  2.37601E-02  2.43382E-02  2.49304E-02  2.55369E-02
#           2.61583E-02  2.67947E-02  2.74467E-02  2.81145E-02  2.87985E-02
#           2.94992E-02  3.02169E-02  3.09521E-02  3.17052E-02  3.24766E-02
#           3.32668E-02  3.40762E-02  3.49053E-02  3.57546E-02  3.66246E-02
#           3.75157E-02  3.84284E-02  3.93634E-02  4.03212E-02  4.13022E-02
#           4.23071E-02  4.33365E-02  4.43909E-02  4.54710E-02  4.65773E-02
#           4.77106E-02  4.88714E-02  5.00605E-02  5.12785E-02  5.25262E-02
#           5.38042E-02  5.51133E-02  5.64542E-02  5.78278E-02  5.92348E-02
#           6.06760E-02  6.21523E-02  6.36645E-02  6.52135E-02  6.68002E-02
#           6.84255E-02  7.00904E-02  7.17957E-02  7.35426E-02  7.53319E-02
#           7.71648E-02  7.90423E-02  8.09655E-02  8.29354E-02  8.49533E-02
#           8.70203E-02  8.91376E-02  9.13064E-02  9.35279E-02  9.58035E-02
#           9.81345E-02  1.00522E-01  1.02968E-01  1.05473E-01  1.08040E-01
#           1.10668E-01  1.13361E-01  1.16119E-01  1.18944E-01  1.21838E-01
#           1.24803E-01  1.27839E-01  1.30950E-01  1.34136E-01  1.37399E-01
#           1.40742E-01  1.44167E-01  1.47675E-01  1.51268E-01  1.54948E-01
#           1.58718E-01  1.62580E-01  1.66535E-01  1.70587E-01  1.74738E-01
#           1.78989E-01  1.83344E-01  1.87805E-01  1.92375E-01  1.97055E-01
#           2.01850E-01  2.06761E-01  2.11792E-01  2.16945E-01  2.22223E-01
#           2.27630E-01  2.33169E-01  2.38842E-01  2.44653E-01  2.50605E-01
#           2.56703E-01  2.62949E-01  2.69346E-01  2.75900E-01  2.82613E-01
#           2.89489E-01  2.96532E-01  3.03747E-01  3.11138E-01  3.18708E-01
#           3.26462E-01  3.34405E-01  3.42542E-01  3.50876E-01  3.59413E-01
#           3.68158E-01  3.77116E-01  3.86291E-01  3.95690E-01  4.05317E-01
#           4.15179E-01  4.25281E-01  4.35628E-01  4.46227E-01  4.57084E-01
#           4.68205E-01  4.79597E-01  4.91266E-01  5.03219E-01  5.15463E-01
#           5.28005E-01  5.40851E-01  5.54011E-01  5.67490E-01  5.81298E-01
#           5.95441E-01  6.09929E-01  6.24769E-01  6.39970E-01  6.55541E-01
#           6.71491E-01  6.87828E-01  7.04564E-01  7.21706E-01  7.39266E-01
#           7.57253E-01  7.75678E-01  7.94551E-01  8.13883E-01  8.33685E-01
#           8.53969E-01  8.74747E-01  8.96030E-01  9.17831E-01  9.40163E-01
#           9.63038E-01  9.86469E-01  1.01047E+00  1.03506E+00  1.06024E+00
#           1.08604E+00  1.11246E+00  1.13953E+00  1.16725E+00  1.19565E+00
#           1.22474E+00  1.25454E+00  1.28507E+00  1.31633E+00  1.34836E+00
#           1.38117E+00  1.41477E+00  1.44920E+00  1.48446E+00  1.52057E+00
#           1.55757E+00  1.59547E+00  1.63429E+00  1.67405E+00  1.71478E+00
#           1.75650E+00  1.79924E+00  1.84302E+00  1.88786E+00  1.93379E+00
#           1.98084E+00  2.02904E+00  2.07841E+00  2.12898E+00  2.18078E+00
#           2.23384E+00  2.28819E+00  2.34386E+00  2.40089E+00  2.45930E+00
#           2.51914E+00  2.58043E+00  2.64322E+00  2.70753E+00  2.77341E+00
#           2.84088E+00  2.91001E+00  2.98081E+00  3.05333E+00  3.12762E+00
#           3.20372E+00  3.28167E+00  3.36152E+00  3.44330E+00  3.52708E+00
#           3.61290E+00  3.70080E+00  3.79085E+00  3.88308E+00  3.97756E+00
#           4.07434E+00  4.17347E+00  4.27501E+00  4.37903E+00  4.48557E+00
#           4.59471E+00  4.70650E+00  4.82102E+00  4.93832E+00  5.05847E+00
#           5.18155E+00  5.30762E+00  5.43676E+00  5.56904E+00  5.70453E+00
#           5.84333E+00  5.98550E+00  6.13114E+00  6.28031E+00  6.43312E+00
#           6.58964E+00  6.74997E+00  6.91420E+00  7.08243E+00  7.25475E+00
#           7.43126E+00  7.61207E+00  7.79728E+00  7.98700E+00  8.18133E+00
#           8.38038E+00  8.58428E+00  8.79315E+00  9.00709E+00  9.22624E+00
#           9.45072E+00  9.68067E+00  9.91620E+00  1.01575E+01  1.04046E+01
#           1.06578E+01  1.09171E+01  1.11827E+01  1.14548E+01  1.17335E+01
#           1.20190E+01  1.23114E+01  1.26109E+01  1.29178E+01  1.32321E+01
#           1.35540E+01  1.38838E+01  1.42216E+01  1.45676E+01  1.49221E+01
#           1.52851E+01  1.56570E+01  1.60380E+01  1.64282E+01  1.68279E+01
#           1.72374E+01  1.76568E+01  1.80864E+01  1.85264E+01  1.89772E+01
#           1.94389E+01  1.99119E+01  2.03963E+01  2.08926E+01  2.14009E+01
#           2.19216E+01  2.24550E+01  2.30014E+01  2.35610E+01  2.41343E+01
#           2.47215E+01  2.53230E+01  2.59391E+01  2.65702E+01  2.72167E+01
#           2.78789E+01  2.85572E+01  2.92520E+01  2.99637E+01  3.06928E+01
#           3.14396E+01  3.22045E+01  3.29881E+01  3.37907E+01  3.46128E+01
#           3.54550E+01  3.63177E+01  3.72013E+01  3.81064E+01  3.90336E+01
#           3.99833E+01  4.09561E+01  4.19526E+01  4.29734E+01  4.40189E+01
#           4.50900E+01  4.61870E+01  4.73108E+01  4.84619E+01  4.96410E+01
#           5.08488E+01  5.20860E+01  5.33533E+01  5.46514E+01  5.59812E+01
#           5.73432E+01  5.87384E+01  6.01676E+01  6.16315E+01  6.31311E+01
#           6.46671E+01  6.62405E+01  6.78522E+01  6.95031E+01  7.11941E+01
#           7.29263E+01  7.47007E+01  7.65182E+01  7.83800E+01  8.02870E+01
#           8.22405E+01  8.42414E+01  8.62911E+01  8.83906E+01  9.05412E+01
#           9.27442E+01  9.50007E+01  9.73122E+01  9.96799E+01  1.02105E+02
#           1.04589E+02  1.07134E+02  1.09741E+02  1.12411E+02  1.15146E+02
#           1.17948E+02  1.20817E+02  1.23757E+02  1.26768E+02  1.29852E+02
#           1.33012E+02  1.36248E+02  1.39563E+02  1.42959E+02  1.46437E+02
#           1.50000E+02
     unit =    2            # unit is [1/cm^2/(MeV/n)/source]
     axis =  eng            # axis of output
     file = detector-22.out  # file name of output for the above axis
   output = f-curr          # surface crossing forward current spectrum
     part =  neutron  
# kf/name :  2112     
#    used :        main (  %)        temp (  %)       total (  %)
#  memory :         414 (  0)           0 (  0)         414 (  0)

#------------------------------------------------------------------------------
#newpage:
#   no. =    1   reg = 121 - 221

x: Energy [MeV/n]
y:  F-Curr [1/cm^2/(MeV/n)/source]         
p: xlog ylog afac(0.8) form(0.9)
h: n            x            y(neutron ),hh0l   n 
#  e-lower      e-upper      neutron     r.err 
   1.0000E-02   1.0243E-02   1.8166E-03  0.0673
   1.0243E-02   1.0493E-02   1.8618E-03  0.0657
   1.0493E-02   1.0748E-02   1.7940E-03  0.0661
   1.0748E-02   1.1009E-02   1.9120E-03  0.0632
   1.1009E-02   1.1277E-02   1.7322E-03  0.0657
   1.1277E-02   1.1552E-02   2.1649E-03  0.0580
   1.1552E-02   1.1833E-02   2.1490E-03  0.0575
   1.1833E-02   1.2121E-02   2.0146E-03  0.0587
   1.2121E-02   1.2415E-02   1.8243E-03  0.0610
   1.2415E-02   1.2718E-02   1.9068E-03  0.0589
   1.2718E-02   1.3027E-02   1.8680E-03  0.0588
   1.3027E-02   1.3344E-02   2.2337E-03  0.0531
   1.3344E-02   1.3669E-02   1.8850E-03  0.0572
   1.3669E-02   1.4001E-02   2.0387E-03  0.0543
   1.4001E-02   1.4342E-02   2.0490E-03  0.0535
   1.4342E-02   1.4691E-02   1.9086E-03  0.0548
   1.4691E-02   1.5048E-02   2.1598E-03  0.0509
   1.5048E-02   1.5414E-02   1.9009E-03  0.0536
   1.5414E-02   1.5789E-02   1.8665E-03  0.0535
   1.5789E-02   1.6174E-02   1.8742E-03  0.0527
   1.6174E-02   1.6567E-02   1.8347E-03  0.0526
   1.6567E-02   1.6970E-02   1.6125E-03  0.0555
   1.6970E-02   1.7383E-02   1.8213E-03  0.0516
   1.7383E-02   1.7806E-02   1.8631E-03  0.0504
   1.7806E-02   1.8239E-02   1.8281E-03  0.0503
   1.8239E-02   1.8683E-02   1.8253E-03  0.0497
   1.8683E-02   1.9138E-02   1.8611E-03  0.0486
   1.9138E-02   1.9603E-02   1.7482E-03  0.0496
   1.9603E-02   2.0080E-02   1.8953E-03  0.0470
   2.0080E-02   2.0569E-02   1.8339E-03  0.0472
   2.0569E-02   2.1069E-02   1.7464E-03  0.0478
   2.1069E-02   2.1582E-02   1.8688E-03  0.0457
   2.1582E-02   2.2107E-02   2.0606E-03  0.0430
   2.2107E-02   2.2645E-02   1.8145E-03  0.0453
   2.2645E-02   2.3196E-02   1.9166E-03  0.0435
   2.3196E-02   2.3760E-02   1.7435E-03  0.0451
   2.3760E-02   2.4338E-02   1.7160E-03  0.0449
   2.4338E-02   2.4930E-02   1.7427E-03  0.0440
   2.4930E-02   2.5537E-02   1.7970E-03  0.0428
   2.5537E-02   2.6158E-02   1.7479E-03  0.0429
   2.6158E-02   2.6795E-02   1.8038E-03  0.0417
   2.6795E-02   2.7447E-02   1.8652E-03  0.0406
   2.7447E-02   2.8114E-02   1.8568E-03  0.0402
   2.8114E-02   2.8799E-02   1.8303E-03  0.0400
   2.8799E-02   2.9499E-02   1.7754E-03  0.0401
   2.9499E-02   3.0217E-02   1.8753E-03  0.0385
   3.0217E-02   3.0952E-02   1.7981E-03  0.0389
   3.0952E-02   3.1705E-02   1.7568E-03  0.0389
   3.1705E-02   3.2477E-02   1.7786E-03  0.0382
   3.2477E-02   3.3267E-02   1.8679E-03  0.0368
   3.3267E-02   3.4076E-02   1.6555E-03  0.0386
   3.4076E-02   3.4905E-02   1.7634E-03  0.0370
   3.4905E-02   3.5755E-02   1.8227E-03  0.0359
   3.5755E-02   3.6625E-02   1.7220E-03  0.0365
   3.6625E-02   3.7516E-02   1.8606E-03  0.0347
   3.7516E-02   3.8428E-02   1.8646E-03  0.0343
   3.8428E-02   3.9363E-02   1.7476E-03  0.0350
   3.9363E-02   4.0321E-02   1.8857E-03  0.0333
   4.0321E-02   4.1302E-02   1.6860E-03  0.0348
   4.1302E-02   4.2307E-02   1.6638E-03  0.0346
   4.2307E-02   4.3337E-02   1.7642E-03  0.0332
   4.3337E-02   4.4391E-02   1.7963E-03  0.0325
   4.4391E-02   4.5471E-02   1.7777E-03  0.0323
   4.5471E-02   4.6577E-02   1.7336E-03  0.0323
   4.6577E-02   4.7711E-02   1.6660E-03  0.0325
   4.7711E-02   4.8871E-02   1.6850E-03  0.0320
   4.8871E-02   5.0061E-02   1.7207E-03  0.0313
   5.0061E-02   5.1279E-02   1.7258E-03  0.0308
   5.1279E-02   5.2526E-02   1.7970E-03  0.0299
   5.2526E-02   5.3804E-02   1.7355E-03  0.0300
   5.3804E-02   5.5113E-02   1.7569E-03  0.0295
   5.5113E-02   5.6454E-02   1.7928E-03  0.0288
   5.6454E-02   5.7828E-02   1.6643E-03  0.0296
   5.7828E-02   5.9235E-02   1.6361E-03  0.0295
   5.9235E-02   6.0676E-02   1.6847E-03  0.0287
   6.0676E-02   6.2152E-02   1.5986E-03  0.0291
   6.2152E-02   6.3665E-02   1.6942E-03  0.0279
   6.3665E-02   6.5214E-02   1.7418E-03  0.0272
   6.5214E-02   6.6800E-02   1.6474E-03  0.0277
   6.6800E-02   6.8426E-02   1.6391E-03  0.0274
   6.8426E-02   7.0090E-02   1.5989E-03  0.0274
   7.0090E-02   7.1796E-02   1.6653E-03  0.0265
   7.1796E-02   7.3543E-02   1.6590E-03  0.0263
   7.3543E-02   7.5332E-02   1.6196E-03  0.0263
   7.5332E-02   7.7165E-02   1.7055E-03  0.0253
   7.7165E-02   7.9042E-02   1.5681E-03  0.0261
   7.9042E-02   8.0965E-02   1.6702E-03  0.0250
   8.0965E-02   8.2935E-02   1.6000E-03  0.0252
   8.2935E-02   8.4953E-02   1.6869E-03  0.0242
   8.4953E-02   8.7020E-02   1.5723E-03  0.0248
   8.7020E-02   8.9138E-02   1.6757E-03  0.0237
   8.9138E-02   9.1306E-02   1.6166E-03  0.0239
   9.1306E-02   9.3528E-02   1.6007E-03  0.0237
   9.3528E-02   9.5804E-02   1.6145E-03  0.0233
   9.5804E-02   9.8134E-02   1.5968E-03  0.0232
   9.8134E-02   1.0052E-01   1.5672E-03  0.0231
   1.0052E-01   1.0297E-01   1.5684E-03  0.0228
   1.0297E-01   1.0547E-01   1.6118E-03  0.0223
   1.0547E-01   1.0804E-01   1.5673E-03  0.0223
   1.0804E-01   1.1067E-01   1.5095E-03  0.0225
   1.1067E-01   1.1336E-01   1.5405E-03  0.0220
   1.1336E-01   1.1612E-01   1.6090E-03  0.0212
   1.1612E-01   1.1894E-01   1.5822E-03  0.0212
   1.1894E-01   1.2184E-01   1.5155E-03  0.0214
   1.2184E-01   1.2480E-01   1.4937E-03  0.0213
   1.2480E-01   1.2784E-01   1.5485E-03  0.0206
   1.2784E-01   1.3095E-01   1.4808E-03  0.0208
   1.3095E-01   1.3414E-01   1.5455E-03  0.0202
   1.3414E-01   1.3740E-01   1.5038E-03  0.0202
   1.3740E-01   1.4074E-01   1.5375E-03  0.0197
   1.4074E-01   1.4417E-01   1.4823E-03  0.0198
   1.4417E-01   1.4767E-01   1.5304E-03  0.0193
   1.4767E-01   1.5127E-01   1.4684E-03  0.0195
   1.5127E-01   1.5495E-01   1.4794E-03  0.0192
   1.5495E-01   1.5872E-01   1.4117E-03  0.0194
   1.5872E-01   1.6258E-01   1.4367E-03  0.0190
   1.6258E-01   1.6654E-01   1.4799E-03  0.0185
   1.6654E-01   1.7059E-01   1.4492E-03  0.0185
   1.7059E-01   1.7474E-01   1.4196E-03  0.0184
   1.7474E-01   1.7899E-01   1.4202E-03  0.0182
   1.7899E-01   1.8334E-01   1.4021E-03  0.0181
   1.8334E-01   1.8781E-01   1.4037E-03  0.0179
   1.8781E-01   1.9237E-01   1.4059E-03  0.0176
   1.9237E-01   1.9706E-01   1.3836E-03  0.0176
   1.9706E-01   2.0185E-01   1.4041E-03  0.0172
   2.0185E-01   2.0676E-01   1.3642E-03  0.0173
   2.0676E-01   2.1179E-01   1.3243E-03  0.0173
   2.1179E-01   2.1694E-01   1.3382E-03  0.0170
   2.1694E-01   2.2222E-01   1.3432E-03  0.0168
   2.2222E-01   2.2763E-01   1.3420E-03  0.0166
   2.2763E-01   2.3317E-01   1.3130E-03  0.0166
   2.3317E-01   2.3884E-01   1.3322E-03  0.0163
   2.3884E-01   2.4465E-01   1.2951E-03  0.0163
   2.4465E-01   2.5061E-01   1.3288E-03  0.0159
   2.5061E-01   2.5670E-01   1.2658E-03  0.0161
   2.5670E-01   2.6295E-01   1.2642E-03  0.0159
   2.6295E-01   2.6935E-01   1.2933E-03  0.0156
   2.6935E-01   2.7590E-01   1.3053E-03  0.0153
   2.7590E-01   2.8261E-01   1.2498E-03  0.0154
   2.8261E-01   2.8949E-01   1.1969E-03  0.0156
   2.8949E-01   2.9653E-01   1.2551E-03  0.0150
   2.9653E-01   3.0375E-01   1.1878E-03  0.0153
   3.0375E-01   3.1114E-01   1.1886E-03  0.0151
   3.1114E-01   3.1871E-01   1.1864E-03  0.0149
   3.1871E-01   3.2646E-01   1.1784E-03  0.0148
   3.2646E-01   3.3441E-01   1.1127E-03  0.0150
   3.3441E-01   3.4254E-01   1.1742E-03  0.0145
   3.4254E-01   3.5088E-01   1.1312E-03  0.0146
   3.5088E-01   3.5941E-01   1.1395E-03  0.0143
   3.5941E-01   3.6816E-01   1.1056E-03  0.0144
   3.6816E-01   3.7712E-01   1.0782E-03  0.0144
   3.7712E-01   3.8629E-01   1.0687E-03  0.0143
   3.8629E-01   3.9569E-01   1.0276E-03  0.0144
   3.9569E-01   4.0532E-01   1.0416E-03  0.0141
   4.0532E-01   4.1518E-01   1.0223E-03  0.0141
   4.1518E-01   4.2528E-01   1.0359E-03  0.0138
   4.2528E-01   4.3563E-01   1.0252E-03  0.0137
   4.3563E-01   4.4623E-01   9.7215E-04  0.0139
   4.4623E-01   4.5708E-01   9.6702E-04  0.0138
   4.5708E-01   4.6821E-01   9.3902E-04  0.0138
   4.6821E-01   4.7960E-01   9.4559E-04  0.0136
   4.7960E-01   4.9127E-01   9.2656E-04  0.0136
   4.9127E-01   5.0322E-01   9.3057E-04  0.0134
   5.0322E-01   5.1546E-01   8.7588E-04  0.0137
   5.1546E-01   5.2800E-01   8.6958E-04  0.0135
   5.2800E-01   5.4085E-01   8.6138E-04  0.0134
   5.4085E-01   5.5401E-01   8.4715E-04  0.0134
   5.5401E-01   5.6749E-01   8.3215E-04  0.0134
   5.6749E-01   5.8130E-01   8.1608E-04  0.0133
   5.8130E-01   5.9544E-01   7.9019E-04  0.0134
   5.9544E-01   6.0993E-01   7.9213E-04  0.0132
   6.0993E-01   6.2477E-01   7.5660E-04  0.0134
   6.2477E-01   6.3997E-01   7.4902E-04  0.0133
   6.3997E-01   6.5554E-01   7.3098E-04  0.0133
   6.5554E-01   6.7149E-01   7.0283E-04  0.0134
   6.7149E-01   6.8783E-01   6.7855E-04  0.0134
   6.8783E-01   7.0456E-01   6.6075E-04  0.0135
   7.0456E-01   7.2171E-01   6.4593E-04  0.0134
   7.2171E-01   7.3927E-01   6.2598E-04  0.0135
   7.3927E-01   7.5725E-01   6.0133E-04  0.0136
   7.5725E-01   7.7568E-01   5.8769E-04  0.0136
   7.7568E-01   7.9455E-01   5.7766E-04  0.0135
   7.9455E-01   8.1388E-01   5.4128E-04  0.0138
   8.1388E-01   8.3368E-01   5.2337E-04  0.0139
   8.3368E-01   8.5397E-01   5.1538E-04  0.0138
   8.5397E-01   8.7475E-01   4.9938E-04  0.0139
   8.7475E-01   8.9603E-01   4.7013E-04  0.0141
   8.9603E-01   9.1783E-01   4.5594E-04  0.0142
   9.1783E-01   9.4016E-01   4.3078E-04  0.0144
   9.4016E-01   9.6304E-01   4.1408E-04  0.0145
   9.6304E-01   9.8647E-01   3.8913E-04  0.0148
   9.8647E-01   1.0105E+00   3.7248E-04  0.0150
   1.0105E+00   1.0351E+00   3.6704E-04  0.0149
   1.0351E+00   1.0602E+00   3.7135E-04  0.0146
   1.0602E+00   1.0860E+00   3.6408E-04  0.0146
   1.0860E+00   1.1125E+00   3.6338E-04  0.0144
   1.1125E+00   1.1395E+00   3.6894E-04  0.0142
   1.1395E+00   1.1673E+00   3.7359E-04  0.0139
   1.1673E+00   1.1957E+00   3.7067E-04  0.0138
   1.1957E+00   1.2247E+00   3.7709E-04  0.0135
   1.2247E+00   1.2545E+00   3.7629E-04  0.0134
   1.2545E+00   1.2851E+00   3.6732E-04  0.0134
   1.2851E+00   1.3163E+00   3.6486E-04  0.0132
   1.3163E+00   1.3484E+00   3.5751E-04  0.0132
   1.3484E+00   1.3812E+00   3.5919E-04  0.0130
   1.3812E+00   1.4148E+00   3.6001E-04  0.0129
   1.4148E+00   1.4492E+00   3.5029E-04  0.0129
   1.4492E+00   1.4845E+00   3.5910E-04  0.0126
   1.4845E+00   1.5206E+00   3.4265E-04  0.0127
   1.5206E+00   1.5576E+00   3.3803E-04  0.0127
   1.5576E+00   1.5955E+00   3.2119E-04  0.0128
   1.5955E+00   1.6343E+00   3.2190E-04  0.0127
   1.6343E+00   1.6741E+00   3.0913E-04  0.0128
   1.6741E+00   1.7148E+00   3.1332E-04  0.0125
   1.7148E+00   1.7565E+00   3.0574E-04  0.0125
   1.7565E+00   1.7992E+00   2.9417E-04  0.0126
   1.7992E+00   1.8430E+00   2.8275E-04  0.0127
   1.8430E+00   1.8879E+00   2.7626E-04  0.0127
   1.8879E+00   1.9338E+00   2.6761E-04  0.0128
   1.9338E+00   1.9808E+00   2.6333E-04  0.0127
   1.9808E+00   2.0290E+00   2.5998E-04  0.0126
   2.0290E+00   2.0784E+00   2.4955E-04  0.0127
   2.0784E+00   2.1290E+00   2.3631E-04  0.0129
   2.1290E+00   2.1808E+00   2.2224E-04  0.0132
   2.1808E+00   2.2338E+00   2.1794E-04  0.0132
   2.2338E+00   2.2882E+00   2.0279E-04  0.0135
   2.2882E+00   2.3439E+00   1.9683E-04  0.0135
   2.3439E+00   2.4009E+00   1.9531E-04  0.0134
   2.4009E+00   2.4593E+00   1.8505E-04  0.0136
   2.4593E+00   2.5191E+00   1.7265E-04  0.0139
   2.5191E+00   2.5804E+00   1.6436E-04  0.0141
   2.5804E+00   2.6432E+00   1.5772E-04  0.0142
   2.6432E+00   2.7075E+00   1.4595E-04  0.0146
   2.7075E+00   2.7734E+00   1.4011E-04  0.0147
   2.7734E+00   2.8409E+00   1.3142E-04  0.0150
   2.8409E+00   2.9100E+00   1.2182E-04  0.0154
   2.9100E+00   2.9808E+00   1.1793E-04  0.0155
   2.9808E+00   3.0533E+00   1.1166E-04  0.0157
   3.0533E+00   3.1276E+00   1.0516E-04  0.0160
   3.1276E+00   3.2037E+00   9.5325E-05  0.0166
   3.2037E+00   3.2817E+00   8.8314E-05  0.0170
   3.2817E+00   3.3615E+00   8.3186E-05  0.0174
   3.3615E+00   3.4433E+00   7.8471E-05  0.0177
   3.4433E+00   3.5271E+00   7.0639E-05  0.0184
   3.5271E+00   3.6129E+00   6.8681E-05  0.0184
   3.6129E+00   3.7008E+00   6.4433E-05  0.0188
   3.7008E+00   3.7908E+00   5.7772E-05  0.0196
   3.7908E+00   3.8831E+00   5.4708E-05  0.0199
   3.8831E+00   3.9776E+00   4.7969E-05  0.0210
   3.9776E+00   4.0743E+00   4.5734E-05  0.0213
   4.0743E+00   4.1735E+00   4.1238E-05  0.0221
   4.1735E+00   4.2750E+00   3.9018E-05  0.0225
   4.2750E+00   4.3790E+00   3.6053E-05  0.0231
   4.3790E+00   4.4856E+00   3.1949E-05  0.0243
   4.4856E+00   4.5947E+00   2.9211E-05  0.0250
   4.5947E+00   4.7065E+00   2.7193E-05  0.0256
   4.7065E+00   4.8210E+00   2.3875E-05  0.0270
   4.8210E+00   4.9383E+00   2.2319E-05  0.0276
   4.9383E+00   5.0585E+00   1.9625E-05  0.0291
   5.0585E+00   5.1815E+00   1.7631E-05  0.0304
   5.1815E+00   5.3076E+00   1.7260E-05  0.0303
   5.3076E+00   5.4368E+00   1.5580E-05  0.0315
   5.4368E+00   5.5690E+00   1.3396E-05  0.0336
   5.5690E+00   5.7045E+00   1.1675E-05  0.0356
   5.7045E+00   5.8433E+00   1.1067E-05  0.0361
   5.8433E+00   5.9855E+00   9.7909E-06  0.0379
   5.9855E+00   6.1311E+00   8.7755E-06  0.0396
   6.1311E+00   6.2803E+00   7.5884E-06  0.0420
   6.2803E+00   6.4331E+00   7.2511E-06  0.0425
   6.4331E+00   6.5896E+00   6.7338E-06  0.0436
   6.5896E+00   6.7500E+00   6.4741E-06  0.0439
   6.7500E+00   6.9142E+00   5.3461E-06  0.0477
   6.9142E+00   7.0824E+00   4.4820E-06  0.0515
   7.0824E+00   7.2548E+00   4.2479E-06  0.0523
   7.2548E+00   7.4313E+00   4.1696E-06  0.0521
   7.4313E+00   7.6121E+00   3.4401E-06  0.0567
   7.6121E+00   7.7973E+00   3.2828E-06  0.0574
   7.7973E+00   7.9870E+00   2.8569E-06  0.0607
   7.9870E+00   8.1813E+00   2.2848E-06  0.0671
   8.1813E+00   8.3804E+00   2.2606E-06  0.0667
   8.3804E+00   8.5843E+00   1.9421E-06  0.0710
   8.5843E+00   8.7931E+00   1.9917E-06  0.0693
   8.7931E+00   9.0071E+00   1.4630E-06  0.0797
   9.0071E+00   9.2262E+00   1.6883E-06  0.0735
   9.2262E+00   9.4507E+00   1.3008E-06  0.0826
   9.4507E+00   9.6807E+00   1.2090E-06  0.0844
   9.6807E+00   9.9162E+00   1.1803E-06  0.0848
   9.9162E+00   1.0157E+01   7.7507E-07  0.1030
   1.0157E+01   1.0405E+01   9.2660E-07  0.0931
   1.0405E+01   1.0658E+01   8.3349E-07  0.0972
   1.0658E+01   1.0917E+01   6.6715E-07  0.1071
   1.0917E+01   1.1183E+01   6.8142E-07  0.1047
   1.1183E+01   1.1455E+01   6.3583E-07  0.1074
   1.1455E+01   1.1733E+01   6.0638E-07  0.1083
   1.1733E+01   1.2019E+01   5.2892E-07  0.1145
   1.2019E+01   1.2311E+01   5.3688E-07  0.1127
   1.2311E+01   1.2611E+01   4.3733E-07  0.1233
   1.2611E+01   1.2918E+01   4.4975E-07  0.1204
   1.2918E+01   1.3232E+01   4.1998E-07  0.1222
   1.3232E+01   1.3554E+01   3.4167E-07  0.1342
   1.3554E+01   1.3884E+01   3.8207E-07  0.1250
   1.3884E+01   1.4222E+01   2.9899E-07  0.1404
   1.4222E+01   1.4568E+01   2.9189E-07  0.1404
   1.4568E+01   1.4922E+01   1.9749E-07  0.1690
   1.4922E+01   1.5285E+01   2.6992E-07  0.1429
   1.5285E+01   1.5657E+01   2.0167E-07  0.1628
   1.5657E+01   1.6038E+01   2.4150E-07  0.1474
   1.6038E+01   1.6428E+01   2.3320E-07  0.1478
   1.6428E+01   1.6828E+01   2.1015E-07  0.1543
   1.6828E+01   1.7237E+01   2.5889E-07  0.1374
   1.7237E+01   1.7657E+01   1.8598E-07  0.1591
   1.7657E+01   1.8086E+01   1.6294E-07  0.1690
   1.8086E+01   1.8526E+01   1.7271E-07  0.1622
   1.8526E+01   1.8977E+01   1.5529E-07  0.1690
   1.8977E+01   1.9439E+01   9.5294E-08  0.2132
   1.9439E+01   1.9912E+01   1.4166E-07  0.1721
   1.9912E+01   2.0396E+01   1.1972E-07  0.1857
   2.0396E+01   2.0893E+01   8.8663E-08  0.2132
   2.0893E+01   2.1401E+01   1.1410E-07  0.1857
   2.1401E+01   2.1922E+01   6.9137E-08  0.2357
   2.1922E+01   2.2455E+01   1.0124E-07  0.1925
   2.2455E+01   2.3001E+01   5.1249E-08  0.2673
   2.3001E+01   2.3561E+01   6.7901E-08  0.2294
   2.3561E+01   2.4134E+01   6.9777E-08  0.2236
   2.4134E+01   2.4721E+01   4.4278E-08  0.2774
   2.4721E+01   2.5323E+01   8.6452E-08  0.1961
   2.5323E+01   2.5939E+01   7.4660E-08  0.2085
   2.5939E+01   2.6570E+01   4.7535E-08  0.2582
   2.6570E+01   2.7217E+01   4.9499E-08  0.2500
   2.7217E+01   2.7879E+01   3.3222E-08  0.3015
   2.7879E+01   2.8557E+01   3.5382E-08  0.2887
   2.8557E+01   2.9252E+01   2.8784E-08  0.3162
   2.9252E+01   2.9964E+01   2.8101E-08  0.3162
   2.9964E+01   3.0693E+01   1.9203E-08  0.3780
   3.0693E+01   3.1440E+01   8.0345E-09  0.5774
   3.1440E+01   3.2205E+01   1.3073E-08  0.4472
   3.2205E+01   3.2988E+01   1.5315E-08  0.4082
   3.2988E+01   3.3791E+01   1.4951E-08  0.4082
   3.3791E+01   3.4613E+01   1.4596E-08  0.4082
   3.4613E+01   3.5455E+01   4.7497E-09  0.7071
   3.5455E+01   3.6318E+01   9.2738E-09  0.5000
   3.6318E+01   3.7201E+01   1.3580E-08  0.4082
   3.7201E+01   3.8106E+01   6.6288E-09  0.5774
   3.8106E+01   3.9034E+01   2.1571E-09  1.0000
   3.9034E+01   3.9983E+01   0.0000E+00  0.0000
   3.9983E+01   4.0956E+01   6.1676E-09  0.5774
   4.0956E+01   4.1953E+01   2.0070E-09  1.0000
   4.1953E+01   4.2973E+01   1.9594E-09  1.0000
   4.2973E+01   4.4019E+01   1.9128E-09  1.0000
   4.4019E+01   4.5090E+01   3.7348E-09  0.7071
   4.5090E+01   4.6187E+01   0.0000E+00  0.0000
   4.6187E+01   4.7311E+01   0.0000E+00  0.0000
   4.7311E+01   4.8462E+01   0.0000E+00  0.0000
   4.8462E+01   4.9641E+01   0.0000E+00  0.0000
   4.9641E+01   5.0849E+01   0.0000E+00  0.0000
   5.0849E+01   5.2086E+01   0.0000E+00  0.0000
   5.2086E+01   5.3353E+01   0.0000E+00  0.0000
   5.3353E+01   5.4651E+01   0.0000E+00  0.0000
   5.4651E+01   5.5981E+01   0.0000E+00  0.0000
   5.5981E+01   5.7343E+01   0.0000E+00  0.0000
   5.7343E+01   5.8738E+01   0.0000E+00  0.0000
   5.8738E+01   6.0168E+01   0.0000E+00  0.0000
   6.0168E+01   6.1632E+01   0.0000E+00  0.0000
   6.1632E+01   6.3131E+01   0.0000E+00  0.0000
   6.3131E+01   6.4667E+01   0.0000E+00  0.0000
   6.4667E+01   6.6240E+01   0.0000E+00  0.0000
   6.6240E+01   6.7852E+01   0.0000E+00  0.0000
   6.7852E+01   6.9503E+01   0.0000E+00  0.0000
   6.9503E+01   7.1194E+01   0.0000E+00  0.0000
   7.1194E+01   7.2926E+01   0.0000E+00  0.0000
   7.2926E+01   7.4701E+01   0.0000E+00  0.0000
   7.4701E+01   7.6518E+01   0.0000E+00  0.0000
   7.6518E+01   7.8380E+01   0.0000E+00  0.0000
   7.8380E+01   8.0287E+01   0.0000E+00  0.0000
   8.0287E+01   8.2240E+01   0.0000E+00  0.0000
   8.2240E+01   8.4241E+01   0.0000E+00  0.0000
   8.4241E+01   8.6291E+01   0.0000E+00  0.0000
   8.6291E+01   8.8391E+01   0.0000E+00  0.0000
   8.8391E+01   9.0541E+01   0.0000E+00  0.0000
   9.0541E+01   9.2744E+01   0.0000E+00  0.0000
   9.2744E+01   9.5001E+01   0.0000E+00  0.0000
   9.5001E+01   9.7312E+01   0.0000E+00  0.0000
   9.7312E+01   9.9680E+01   0.0000E+00  0.0000
   9.9680E+01   1.0211E+02   0.0000E+00  0.0000
   1.0211E+02   1.0459E+02   0.0000E+00  0.0000
   1.0459E+02   1.0713E+02   0.0000E+00  0.0000
   1.0713E+02   1.0974E+02   0.0000E+00  0.0000
   1.0974E+02   1.1241E+02   0.0000E+00  0.0000
   1.1241E+02   1.1515E+02   0.0000E+00  0.0000
   1.1515E+02   1.1795E+02   0.0000E+00  0.0000
   1.1795E+02   1.2082E+02   0.0000E+00  0.0000
   1.2082E+02   1.2376E+02   0.0000E+00  0.0000
   1.2376E+02   1.2677E+02   0.0000E+00  0.0000
   1.2677E+02   1.2985E+02   0.0000E+00  0.0000
   1.2985E+02   1.3301E+02   0.0000E+00  0.0000
   1.3301E+02   1.3625E+02   0.0000E+00  0.0000
   1.3625E+02   1.3956E+02   0.0000E+00  0.0000
   1.3956E+02   1.4296E+02   0.0000E+00  0.0000
   1.4296E+02   1.4644E+02   0.0000E+00  0.0000
   1.4644E+02   1.5000E+02   0.0000E+00  0.0000

#   sum over                 1.0636E-05
'no. =    1   reg = 121 - 221'
msuc: {\huge [t-cross] in region mesh}
msdr: {\it plotted by \ANGEL \version}
msdl: {\it calculated by \PHITS  3.26}
wt: s(0.7)
\vspace{-3}
  region surface crossing
  area  &=&   1.0000E+00 [cm^2]
e:
 
# Information for Restart Calculation
# This calculation was newly started
# istdev =  2 # 1:Batch variance, 2:History variance
# resc2  = 5.00000000000000000E+08 # Total source weight or Total source weight / maxcas
# resc3  = 5.00000000000000000E+08 # Total history number or Total batch number
# maxcas =   500000000 # History / Batch, only used for istdev=1
# bitrseed = 1101101111010011011000101101110001100110110010110001010100010001 # bit data of rseed
