[ T-Cross ]
    title = [t-cross] in region mesh
     mesh =  reg            # mesh type is region-wise
      reg =    1            # number of crossing regions
      non     r-from    r-to       area
      1       110       210        1.000000    
   e-type =    3            # e-mesh is log given by emin, emax and ne
     emin =  1.0000000E-02  # minimum value of e-mesh points
     emax =   150.0000      # maximum value of e-mesh points
#    edel =  2.4039514E-02  # mesh width of e-mesh points
       ne =    400          # number of e-mesh points
#    data = ( e(i), i = 1, ne + 1 )
#           1.00000E-02  1.02433E-02  1.04925E-02  1.07478E-02  1.10093E-02
#           1.12772E-02  1.15516E-02  1.18326E-02  1.21205E-02  1.24154E-02
#           1.27175E-02  1.30269E-02  1.33439E-02  1.36686E-02  1.40011E-02
#           1.43418E-02  1.46907E-02  1.50482E-02  1.54143E-02  1.57894E-02
#           1.61735E-02  1.65670E-02  1.69701E-02  1.73830E-02  1.78060E-02
#           1.82392E-02  1.86830E-02  1.91375E-02  1.96032E-02  2.00801E-02
#           2.05687E-02  2.10692E-02  2.15818E-02  2.21069E-02  2.26448E-02
#           2.31957E-02  2.37601E-02  2.43382E-02  2.49304E-02  2.55369E-02
#           2.61583E-02  2.67947E-02  2.74467E-02  2.81145E-02  2.87985E-02
#           2.94992E-02  3.02169E-02  3.09521E-02  3.17052E-02  3.24766E-02
#           3.32668E-02  3.40762E-02  3.49053E-02  3.57546E-02  3.66246E-02
#           3.75157E-02  3.84284E-02  3.93634E-02  4.03212E-02  4.13022E-02
#           4.23071E-02  4.33365E-02  4.43909E-02  4.54710E-02  4.65773E-02
#           4.77106E-02  4.88714E-02  5.00605E-02  5.12785E-02  5.25262E-02
#           5.38042E-02  5.51133E-02  5.64542E-02  5.78278E-02  5.92348E-02
#           6.06760E-02  6.21523E-02  6.36645E-02  6.52135E-02  6.68002E-02
#           6.84255E-02  7.00904E-02  7.17957E-02  7.35426E-02  7.53319E-02
#           7.71648E-02  7.90423E-02  8.09655E-02  8.29354E-02  8.49533E-02
#           8.70203E-02  8.91376E-02  9.13064E-02  9.35279E-02  9.58035E-02
#           9.81345E-02  1.00522E-01  1.02968E-01  1.05473E-01  1.08040E-01
#           1.10668E-01  1.13361E-01  1.16119E-01  1.18944E-01  1.21838E-01
#           1.24803E-01  1.27839E-01  1.30950E-01  1.34136E-01  1.37399E-01
#           1.40742E-01  1.44167E-01  1.47675E-01  1.51268E-01  1.54948E-01
#           1.58718E-01  1.62580E-01  1.66535E-01  1.70587E-01  1.74738E-01
#           1.78989E-01  1.83344E-01  1.87805E-01  1.92375E-01  1.97055E-01
#           2.01850E-01  2.06761E-01  2.11792E-01  2.16945E-01  2.22223E-01
#           2.27630E-01  2.33169E-01  2.38842E-01  2.44653E-01  2.50605E-01
#           2.56703E-01  2.62949E-01  2.69346E-01  2.75900E-01  2.82613E-01
#           2.89489E-01  2.96532E-01  3.03747E-01  3.11138E-01  3.18708E-01
#           3.26462E-01  3.34405E-01  3.42542E-01  3.50876E-01  3.59413E-01
#           3.68158E-01  3.77116E-01  3.86291E-01  3.95690E-01  4.05317E-01
#           4.15179E-01  4.25281E-01  4.35628E-01  4.46227E-01  4.57084E-01
#           4.68205E-01  4.79597E-01  4.91266E-01  5.03219E-01  5.15463E-01
#           5.28005E-01  5.40851E-01  5.54011E-01  5.67490E-01  5.81298E-01
#           5.95441E-01  6.09929E-01  6.24769E-01  6.39970E-01  6.55541E-01
#           6.71491E-01  6.87828E-01  7.04564E-01  7.21706E-01  7.39266E-01
#           7.57253E-01  7.75678E-01  7.94551E-01  8.13883E-01  8.33685E-01
#           8.53969E-01  8.74747E-01  8.96030E-01  9.17831E-01  9.40163E-01
#           9.63038E-01  9.86469E-01  1.01047E+00  1.03506E+00  1.06024E+00
#           1.08604E+00  1.11246E+00  1.13953E+00  1.16725E+00  1.19565E+00
#           1.22474E+00  1.25454E+00  1.28507E+00  1.31633E+00  1.34836E+00
#           1.38117E+00  1.41477E+00  1.44920E+00  1.48446E+00  1.52057E+00
#           1.55757E+00  1.59547E+00  1.63429E+00  1.67405E+00  1.71478E+00
#           1.75650E+00  1.79924E+00  1.84302E+00  1.88786E+00  1.93379E+00
#           1.98084E+00  2.02904E+00  2.07841E+00  2.12898E+00  2.18078E+00
#           2.23384E+00  2.28819E+00  2.34386E+00  2.40089E+00  2.45930E+00
#           2.51914E+00  2.58043E+00  2.64322E+00  2.70753E+00  2.77341E+00
#           2.84088E+00  2.91001E+00  2.98081E+00  3.05333E+00  3.12762E+00
#           3.20372E+00  3.28167E+00  3.36152E+00  3.44330E+00  3.52708E+00
#           3.61290E+00  3.70080E+00  3.79085E+00  3.88308E+00  3.97756E+00
#           4.07434E+00  4.17347E+00  4.27501E+00  4.37903E+00  4.48557E+00
#           4.59471E+00  4.70650E+00  4.82102E+00  4.93832E+00  5.05847E+00
#           5.18155E+00  5.30762E+00  5.43676E+00  5.56904E+00  5.70453E+00
#           5.84333E+00  5.98550E+00  6.13114E+00  6.28031E+00  6.43312E+00
#           6.58964E+00  6.74997E+00  6.91420E+00  7.08243E+00  7.25475E+00
#           7.43126E+00  7.61207E+00  7.79728E+00  7.98700E+00  8.18133E+00
#           8.38038E+00  8.58428E+00  8.79315E+00  9.00709E+00  9.22624E+00
#           9.45072E+00  9.68067E+00  9.91620E+00  1.01575E+01  1.04046E+01
#           1.06578E+01  1.09171E+01  1.11827E+01  1.14548E+01  1.17335E+01
#           1.20190E+01  1.23114E+01  1.26109E+01  1.29178E+01  1.32321E+01
#           1.35540E+01  1.38838E+01  1.42216E+01  1.45676E+01  1.49221E+01
#           1.52851E+01  1.56570E+01  1.60380E+01  1.64282E+01  1.68279E+01
#           1.72374E+01  1.76568E+01  1.80864E+01  1.85264E+01  1.89772E+01
#           1.94389E+01  1.99119E+01  2.03963E+01  2.08926E+01  2.14009E+01
#           2.19216E+01  2.24550E+01  2.30014E+01  2.35610E+01  2.41343E+01
#           2.47215E+01  2.53230E+01  2.59391E+01  2.65702E+01  2.72167E+01
#           2.78789E+01  2.85572E+01  2.92520E+01  2.99637E+01  3.06928E+01
#           3.14396E+01  3.22045E+01  3.29881E+01  3.37907E+01  3.46128E+01
#           3.54550E+01  3.63177E+01  3.72013E+01  3.81064E+01  3.90336E+01
#           3.99833E+01  4.09561E+01  4.19526E+01  4.29734E+01  4.40189E+01
#           4.50900E+01  4.61870E+01  4.73108E+01  4.84619E+01  4.96410E+01
#           5.08488E+01  5.20860E+01  5.33533E+01  5.46514E+01  5.59812E+01
#           5.73432E+01  5.87384E+01  6.01676E+01  6.16315E+01  6.31311E+01
#           6.46671E+01  6.62405E+01  6.78522E+01  6.95031E+01  7.11941E+01
#           7.29263E+01  7.47007E+01  7.65182E+01  7.83800E+01  8.02870E+01
#           8.22405E+01  8.42414E+01  8.62911E+01  8.83906E+01  9.05412E+01
#           9.27442E+01  9.50007E+01  9.73122E+01  9.96799E+01  1.02105E+02
#           1.04589E+02  1.07134E+02  1.09741E+02  1.12411E+02  1.15146E+02
#           1.17948E+02  1.20817E+02  1.23757E+02  1.26768E+02  1.29852E+02
#           1.33012E+02  1.36248E+02  1.39563E+02  1.42959E+02  1.46437E+02
#           1.50000E+02
     unit =    2            # unit is [1/cm^2/(MeV/n)/source]
     axis =  eng            # axis of output
     file = detector-11.out  # file name of output for the above axis
   output = f-curr          # surface crossing forward current spectrum
     part =  neutron  
# kf/name :  2112     
#    used :        main (  %)        temp (  %)       total (  %)
#  memory :         414 (  0)           0 (  0)         414 (  0)

#------------------------------------------------------------------------------
#newpage:
#   no. =    1   reg = 110 - 210

x: Energy [MeV/n]
y:  F-Curr [1/cm^2/(MeV/n)/source]         
p: xlog ylog afac(0.8) form(0.9)
h: n            x            y(neutron ),hh0l   n 
#  e-lower      e-upper      neutron     r.err 
   1.0000E-02   1.0243E-02   1.5865E-04  0.0720
   1.0243E-02   1.0493E-02   1.3963E-04  0.0758
   1.0493E-02   1.0748E-02   1.3945E-04  0.0750
   1.0748E-02   1.1009E-02   1.5602E-04  0.0700
   1.1009E-02   1.1277E-02   1.2096E-04  0.0786
   1.1277E-02   1.1552E-02   1.4432E-04  0.0711
   1.1552E-02   1.1833E-02   1.5726E-04  0.0673
   1.1833E-02   1.2121E-02   1.3755E-04  0.0711
   1.2121E-02   1.2415E-02   1.4242E-04  0.0690
   1.2415E-02   1.2718E-02   1.2712E-04  0.0722
   1.2718E-02   1.3027E-02   1.3703E-04  0.0687
   1.3027E-02   1.3344E-02   1.3188E-04  0.0692
   1.3344E-02   1.3669E-02   1.3491E-04  0.0676
   1.3669E-02   1.4001E-02   1.5335E-04  0.0626
   1.4001E-02   1.4342E-02   1.3856E-04  0.0651
   1.4342E-02   1.4691E-02   1.4042E-04  0.0639
   1.4691E-02   1.5048E-02   1.4492E-04  0.0621
   1.5048E-02   1.5414E-02   1.3820E-04  0.0629
   1.5414E-02   1.5789E-02   1.4132E-04  0.0614
   1.5789E-02   1.6174E-02   1.3952E-04  0.0611
   1.6174E-02   1.6567E-02   1.4942E-04  0.0583
   1.6567E-02   1.6970E-02   1.2851E-04  0.0621
   1.6970E-02   1.7383E-02   1.4919E-04  0.0570
   1.7383E-02   1.7806E-02   1.1917E-04  0.0630
   1.7806E-02   1.8239E-02   1.3388E-04  0.0587
   1.8239E-02   1.8683E-02   1.3565E-04  0.0576
   1.8683E-02   1.9138E-02   1.2055E-04  0.0604
   1.9138E-02   1.9603E-02   1.3100E-04  0.0573
   1.9603E-02   2.0080E-02   1.3963E-04  0.0548
   2.0080E-02   2.0569E-02   1.3591E-04  0.0549
   2.0569E-02   2.1069E-02   1.3148E-04  0.0551
   2.1069E-02   2.1582E-02   1.2368E-04  0.0562
   2.1582E-02   2.2107E-02   1.2988E-04  0.0542
   2.2107E-02   2.2645E-02   1.3609E-04  0.0523
   2.2645E-02   2.3196E-02   1.2523E-04  0.0538
   2.3196E-02   2.3760E-02   1.3112E-04  0.0520
   2.3760E-02   2.4338E-02   1.2766E-04  0.0521
   2.4338E-02   2.4930E-02   1.2463E-04  0.0521
   2.4930E-02   2.5537E-02   1.4348E-04  0.0479
   2.5537E-02   2.6158E-02   1.4517E-04  0.0471
   2.6158E-02   2.6795E-02   1.2915E-04  0.0493
   2.6795E-02   2.7447E-02   1.3774E-04  0.0472
   2.7447E-02   2.8114E-02   1.3327E-04  0.0474
   2.8114E-02   2.8799E-02   1.4063E-04  0.0456
   2.8799E-02   2.9499E-02   1.2873E-04  0.0471
   2.9499E-02   3.0217E-02   1.3208E-04  0.0459
   3.0217E-02   3.0952E-02   1.3574E-04  0.0448
   3.0952E-02   3.1705E-02   1.3093E-04  0.0450
   3.1705E-02   3.2477E-02   1.2626E-04  0.0453
   3.2477E-02   3.3267E-02   1.2832E-04  0.0444
   3.3267E-02   3.4076E-02   1.2033E-04  0.0453
   3.4076E-02   3.4905E-02   1.2785E-04  0.0434
   3.4905E-02   3.5755E-02   1.3588E-04  0.0416
   3.5755E-02   3.6625E-02   1.1886E-04  0.0440
   3.6625E-02   3.7516E-02   1.2950E-04  0.0416
   3.7516E-02   3.8428E-02   1.2708E-04  0.0415
   3.8428E-02   3.9363E-02   1.2834E-04  0.0408
   3.9363E-02   4.0321E-02   1.2112E-04  0.0415
   4.0321E-02   4.1302E-02   1.2680E-04  0.0401
   4.1302E-02   4.2307E-02   1.3116E-04  0.0390
   4.2307E-02   4.3337E-02   1.2765E-04  0.0390
   4.3337E-02   4.4391E-02   1.3524E-04  0.0375
   4.4391E-02   4.5471E-02   1.2777E-04  0.0381
   4.5471E-02   4.6577E-02   1.2853E-04  0.0375
   4.6577E-02   4.7711E-02   1.3430E-04  0.0362
   4.7711E-02   4.8871E-02   1.1664E-04  0.0384
   4.8871E-02   5.0061E-02   1.2951E-04  0.0360
   5.0061E-02   5.1279E-02   1.2594E-04  0.0361
   5.1279E-02   5.2526E-02   1.2199E-04  0.0362
   5.2526E-02   5.3804E-02   1.3834E-04  0.0336
   5.3804E-02   5.5113E-02   1.3215E-04  0.0340
   5.5113E-02   5.6454E-02   1.2245E-04  0.0349
   5.6454E-02   5.7828E-02   1.3352E-04  0.0330
   5.7828E-02   5.9235E-02   1.2537E-04  0.0337
   5.9235E-02   6.0676E-02   1.3169E-04  0.0325
   6.0676E-02   6.2152E-02   1.3900E-04  0.0312
   6.2152E-02   6.3665E-02   1.3265E-04  0.0316
   6.3665E-02   6.5214E-02   1.2602E-04  0.0320
   6.5214E-02   6.6800E-02   1.2781E-04  0.0314
   6.6800E-02   6.8426E-02   1.3314E-04  0.0304
   6.8426E-02   7.0090E-02   1.2193E-04  0.0314
   7.0090E-02   7.1796E-02   1.3440E-04  0.0295
   7.1796E-02   7.3543E-02   1.2743E-04  0.0300
   7.3543E-02   7.5332E-02   1.3290E-04  0.0290
   7.5332E-02   7.7165E-02   1.2920E-04  0.0291
   7.7165E-02   7.9042E-02   1.3571E-04  0.0280
   7.9042E-02   8.0965E-02   1.2833E-04  0.0285
   8.0965E-02   8.2935E-02   1.2792E-04  0.0282
   8.2935E-02   8.4953E-02   1.2905E-04  0.0277
   8.4953E-02   8.7020E-02   1.3266E-04  0.0270
   8.7020E-02   8.9138E-02   1.3612E-04  0.0263
   8.9138E-02   9.1306E-02   1.2791E-04  0.0269
   9.1306E-02   9.3528E-02   1.2694E-04  0.0266
   9.3528E-02   9.5804E-02   1.3456E-04  0.0256
   9.5804E-02   9.8134E-02   1.3814E-04  0.0249
   9.8134E-02   1.0052E-01   1.3209E-04  0.0252
   1.0052E-01   1.0297E-01   1.3386E-04  0.0247
   1.0297E-01   1.0547E-01   1.2669E-04  0.0251
   1.0547E-01   1.0804E-01   1.3179E-04  0.0243
   1.0804E-01   1.1067E-01   1.3604E-04  0.0236
   1.1067E-01   1.1336E-01   1.3882E-04  0.0231
   1.1336E-01   1.1612E-01   1.3582E-04  0.0231
   1.1612E-01   1.1894E-01   1.3776E-04  0.0227
   1.1894E-01   1.2184E-01   1.4077E-04  0.0222
   1.2184E-01   1.2480E-01   1.4121E-04  0.0219
   1.2480E-01   1.2784E-01   1.3983E-04  0.0217
   1.2784E-01   1.3095E-01   1.4095E-04  0.0214
   1.3095E-01   1.3414E-01   1.3622E-04  0.0215
   1.3414E-01   1.3740E-01   1.3635E-04  0.0212
   1.3740E-01   1.4074E-01   1.4149E-04  0.0206
   1.4074E-01   1.4417E-01   1.4116E-04  0.0203
   1.4417E-01   1.4767E-01   1.4266E-04  0.0200
   1.4767E-01   1.5127E-01   1.3721E-04  0.0201
   1.5127E-01   1.5495E-01   1.4351E-04  0.0195
   1.5495E-01   1.5872E-01   1.4477E-04  0.0191
   1.5872E-01   1.6258E-01   1.4714E-04  0.0188
   1.6258E-01   1.6654E-01   1.4207E-04  0.0189
   1.6654E-01   1.7059E-01   1.4176E-04  0.0187
   1.7059E-01   1.7474E-01   1.4268E-04  0.0184
   1.7474E-01   1.7899E-01   1.4696E-04  0.0179
   1.7899E-01   1.8334E-01   1.4939E-04  0.0175
   1.8334E-01   1.8781E-01   1.4782E-04  0.0174
   1.8781E-01   1.9237E-01   1.4645E-04  0.0173
   1.9237E-01   1.9706E-01   1.4925E-04  0.0169
   1.9706E-01   2.0185E-01   1.5021E-04  0.0167
   2.0185E-01   2.0676E-01   1.4559E-04  0.0167
   2.0676E-01   2.1179E-01   1.5064E-04  0.0162
   2.1179E-01   2.1694E-01   1.5195E-04  0.0160
   2.1694E-01   2.2222E-01   1.5126E-04  0.0158
   2.2222E-01   2.2763E-01   1.4978E-04  0.0157
   2.2763E-01   2.3317E-01   1.4835E-04  0.0156
   2.3317E-01   2.3884E-01   1.5074E-04  0.0153
   2.3884E-01   2.4465E-01   1.5215E-04  0.0150
   2.4465E-01   2.5061E-01   1.5247E-04  0.0148
   2.5061E-01   2.5670E-01   1.5269E-04  0.0147
   2.5670E-01   2.6295E-01   1.5220E-04  0.0145
   2.6295E-01   2.6935E-01   1.5262E-04  0.0143
   2.6935E-01   2.7590E-01   1.5931E-04  0.0138
   2.7590E-01   2.8261E-01   1.5838E-04  0.0137
   2.8261E-01   2.8949E-01   1.5671E-04  0.0136
   2.8949E-01   2.9653E-01   1.6262E-04  0.0132
   2.9653E-01   3.0375E-01   1.5718E-04  0.0133
   3.0375E-01   3.1114E-01   1.5967E-04  0.0130
   3.1114E-01   3.1871E-01   1.5661E-04  0.0130
   3.1871E-01   3.2646E-01   1.6303E-04  0.0126
   3.2646E-01   3.3441E-01   1.6155E-04  0.0125
   3.3441E-01   3.4254E-01   1.6098E-04  0.0124
   3.4254E-01   3.5088E-01   1.6488E-04  0.0121
   3.5088E-01   3.5941E-01   1.6507E-04  0.0119
   3.5941E-01   3.6816E-01   1.6419E-04  0.0118
   3.6816E-01   3.7712E-01   1.6473E-04  0.0116
   3.7712E-01   3.8629E-01   1.6298E-04  0.0116
   3.8629E-01   3.9569E-01   1.6798E-04  0.0113
   3.9569E-01   4.0532E-01   1.6738E-04  0.0111
   4.0532E-01   4.1518E-01   1.6867E-04  0.0110
   4.1518E-01   4.2528E-01   1.6936E-04  0.0108
   4.2528E-01   4.3563E-01   1.6918E-04  0.0107
   4.3563E-01   4.4623E-01   1.6682E-04  0.0106
   4.4623E-01   4.5708E-01   1.7141E-04  0.0104
   4.5708E-01   4.6821E-01   1.6876E-04  0.0103
   4.6821E-01   4.7960E-01   1.6968E-04  0.0102
   4.7960E-01   4.9127E-01   1.7309E-04  0.0100
   4.9127E-01   5.0322E-01   1.7062E-04  0.0099
   5.0322E-01   5.1546E-01   1.7207E-04  0.0097
   5.1546E-01   5.2800E-01   1.7282E-04  0.0096
   5.2800E-01   5.4085E-01   1.6957E-04  0.0096
   5.4085E-01   5.5401E-01   1.7349E-04  0.0094
   5.5401E-01   5.6749E-01   1.7373E-04  0.0092
   5.6749E-01   5.8130E-01   1.7441E-04  0.0091
   5.8130E-01   5.9544E-01   1.7273E-04  0.0090
   5.9544E-01   6.0993E-01   1.7235E-04  0.0089
   6.0993E-01   6.2477E-01   1.7298E-04  0.0088
   6.2477E-01   6.3997E-01   1.7229E-04  0.0087
   6.3997E-01   6.5554E-01   1.7398E-04  0.0086
   6.5554E-01   6.7149E-01   1.7161E-04  0.0085
   6.7149E-01   6.8783E-01   1.7050E-04  0.0085
   6.8783E-01   7.0456E-01   1.7438E-04  0.0083
   7.0456E-01   7.2171E-01   1.7389E-04  0.0082
   7.2171E-01   7.3927E-01   1.7246E-04  0.0081
   7.3927E-01   7.5725E-01   1.7018E-04  0.0081
   7.5725E-01   7.7568E-01   1.7337E-04  0.0079
   7.7568E-01   7.9455E-01   1.7162E-04  0.0079
   7.9455E-01   8.1388E-01   1.7371E-04  0.0077
   8.1388E-01   8.3368E-01   1.7245E-04  0.0077
   8.3368E-01   8.5397E-01   1.7129E-04  0.0076
   8.5397E-01   8.7475E-01   1.7259E-04  0.0075
   8.7475E-01   8.9603E-01   1.6573E-04  0.0075
   8.9603E-01   9.1783E-01   1.6463E-04  0.0075
   9.1783E-01   9.4016E-01   1.6414E-04  0.0074
   9.4016E-01   9.6304E-01   1.6186E-04  0.0073
   9.6304E-01   9.8647E-01   1.5728E-04  0.0074
   9.8647E-01   1.0105E+00   1.4983E-04  0.0075
   1.0105E+00   1.0351E+00   1.5113E-04  0.0073
   1.0351E+00   1.0602E+00   1.5156E-04  0.0072
   1.0602E+00   1.0860E+00   1.5045E-04  0.0072
   1.0860E+00   1.1125E+00   1.5207E-04  0.0071
   1.1125E+00   1.1395E+00   1.5153E-04  0.0070
   1.1395E+00   1.1673E+00   1.5348E-04  0.0069
   1.1673E+00   1.1957E+00   1.5602E-04  0.0067
   1.1957E+00   1.2247E+00   1.5797E-04  0.0066
   1.2247E+00   1.2545E+00   1.5858E-04  0.0065
   1.2545E+00   1.2851E+00   1.5784E-04  0.0064
   1.2851E+00   1.3163E+00   1.6058E-04  0.0063
   1.3163E+00   1.3484E+00   1.5860E-04  0.0063
   1.3484E+00   1.3812E+00   1.6048E-04  0.0062
   1.3812E+00   1.4148E+00   1.6491E-04  0.0060
   1.4148E+00   1.4492E+00   1.6413E-04  0.0060
   1.4492E+00   1.4845E+00   1.6279E-04  0.0059
   1.4845E+00   1.5206E+00   1.6108E-04  0.0059
   1.5206E+00   1.5576E+00   1.6143E-04  0.0058
   1.5576E+00   1.5955E+00   1.5854E-04  0.0058
   1.5955E+00   1.6343E+00   1.6113E-04  0.0057
   1.6343E+00   1.6741E+00   1.6185E-04  0.0056
   1.6741E+00   1.7148E+00   1.6283E-04  0.0055
   1.7148E+00   1.7565E+00   1.6189E-04  0.0054
   1.7565E+00   1.7992E+00   1.5990E-04  0.0054
   1.7992E+00   1.8430E+00   1.6041E-04  0.0053
   1.8430E+00   1.8879E+00   1.5756E-04  0.0053
   1.8879E+00   1.9338E+00   1.5776E-04  0.0053
   1.9338E+00   1.9808E+00   1.5701E-04  0.0052
   1.9808E+00   2.0290E+00   1.5693E-04  0.0051
   2.0290E+00   2.0784E+00   1.5245E-04  0.0052
   2.0784E+00   2.1290E+00   1.5154E-04  0.0051
   2.1290E+00   2.1808E+00   1.4662E-04  0.0051
   2.1808E+00   2.2338E+00   1.4641E-04  0.0051
   2.2338E+00   2.2882E+00   1.4312E-04  0.0051
   2.2882E+00   2.3439E+00   1.4164E-04  0.0050
   2.3439E+00   2.4009E+00   1.3995E-04  0.0050
   2.4009E+00   2.4593E+00   1.3590E-04  0.0050
   2.4593E+00   2.5191E+00   1.3346E-04  0.0050
   2.5191E+00   2.5804E+00   1.2960E-04  0.0050
   2.5804E+00   2.6432E+00   1.2543E-04  0.0050
   2.6432E+00   2.7075E+00   1.2275E-04  0.0050
   2.7075E+00   2.7734E+00   1.2041E-04  0.0050
   2.7734E+00   2.8409E+00   1.1646E-04  0.0050
   2.8409E+00   2.9100E+00   1.1260E-04  0.0051
   2.9100E+00   2.9808E+00   1.0988E-04  0.0051
   2.9808E+00   3.0533E+00   1.0610E-04  0.0051
   3.0533E+00   3.1276E+00   1.0252E-04  0.0051
   3.1276E+00   3.2037E+00   9.8641E-05  0.0052
   3.2037E+00   3.2817E+00   9.5082E-05  0.0052
   3.2817E+00   3.3615E+00   9.1359E-05  0.0052
   3.3615E+00   3.4433E+00   8.7145E-05  0.0053
   3.4433E+00   3.5271E+00   8.4008E-05  0.0053
   3.5271E+00   3.6129E+00   7.9220E-05  0.0054
   3.6129E+00   3.7008E+00   7.7630E-05  0.0054
   3.7008E+00   3.7908E+00   7.2915E-05  0.0055
   3.7908E+00   3.8831E+00   7.0081E-05  0.0056
   3.8831E+00   3.9776E+00   6.6560E-05  0.0056
   3.9776E+00   4.0743E+00   6.3060E-05  0.0057
   4.0743E+00   4.1735E+00   5.9665E-05  0.0058
   4.1735E+00   4.2750E+00   5.7095E-05  0.0059
   4.2750E+00   4.3790E+00   5.3434E-05  0.0060
   4.3790E+00   4.4856E+00   5.0869E-05  0.0061
   4.4856E+00   4.5947E+00   4.7893E-05  0.0062
   4.5947E+00   4.7065E+00   4.5399E-05  0.0063
   4.7065E+00   4.8210E+00   4.2350E-05  0.0064
   4.8210E+00   4.9383E+00   3.9636E-05  0.0066
   4.9383E+00   5.0585E+00   3.8050E-05  0.0066
   5.0585E+00   5.1815E+00   3.5225E-05  0.0068
   5.1815E+00   5.3076E+00   3.3522E-05  0.0069
   5.3076E+00   5.4368E+00   3.1060E-05  0.0071
   5.4368E+00   5.5690E+00   2.9282E-05  0.0072
   5.5690E+00   5.7045E+00   2.7494E-05  0.0073
   5.7045E+00   5.8433E+00   2.5730E-05  0.0075
   5.8433E+00   5.9855E+00   2.3910E-05  0.0077
   5.9855E+00   6.1311E+00   2.2021E-05  0.0079
   6.1311E+00   6.2803E+00   2.0538E-05  0.0081
   6.2803E+00   6.4331E+00   1.9275E-05  0.0082
   6.4331E+00   6.5896E+00   1.8017E-05  0.0084
   6.5896E+00   6.7500E+00   1.6850E-05  0.0086
   6.7500E+00   6.9142E+00   1.5522E-05  0.0089
   6.9142E+00   7.0824E+00   1.4351E-05  0.0091
   7.0824E+00   7.2548E+00   1.3694E-05  0.0092
   7.2548E+00   7.4313E+00   1.2565E-05  0.0095
   7.4313E+00   7.6121E+00   1.1657E-05  0.0097
   7.6121E+00   7.7973E+00   1.0988E-05  0.0099
   7.7973E+00   7.9870E+00   1.0065E-05  0.0102
   7.9870E+00   8.1813E+00   9.5060E-06  0.0104
   8.1813E+00   8.3804E+00   8.8658E-06  0.0106
   8.3804E+00   8.5843E+00   8.1382E-06  0.0110
   8.5843E+00   8.7931E+00   7.5715E-06  0.0112
   8.7931E+00   9.0071E+00   6.9501E-06  0.0116
   9.0071E+00   9.2262E+00   6.5109E-06  0.0118
   9.2262E+00   9.4507E+00   6.2110E-06  0.0120
   9.4507E+00   9.6807E+00   5.5640E-06  0.0125
   9.6807E+00   9.9162E+00   5.2660E-06  0.0127
   9.9162E+00   1.0157E+01   4.7952E-06  0.0131
   1.0157E+01   1.0405E+01   4.3982E-06  0.0136
   1.0405E+01   1.0658E+01   4.1087E-06  0.0139
   1.0658E+01   1.0917E+01   3.7597E-06  0.0143
   1.0917E+01   1.1183E+01   3.4847E-06  0.0147
   1.1183E+01   1.1455E+01   3.1070E-06  0.0154
   1.1455E+01   1.1733E+01   2.9404E-06  0.0156
   1.1733E+01   1.2019E+01   2.7959E-06  0.0158
   1.2019E+01   1.2311E+01   2.5239E-06  0.0165
   1.2311E+01   1.2611E+01   2.2772E-06  0.0171
   1.2611E+01   1.2918E+01   2.0587E-06  0.0178
   1.2918E+01   1.3232E+01   1.8825E-06  0.0184
   1.3232E+01   1.3554E+01   1.7271E-06  0.0190
   1.3554E+01   1.3884E+01   1.5396E-06  0.0198
   1.3884E+01   1.4222E+01   1.4155E-06  0.0204
   1.4222E+01   1.4568E+01   1.2099E-06  0.0219
   1.4568E+01   1.4922E+01   1.0879E-06  0.0228
   1.4922E+01   1.5285E+01   8.9886E-07  0.0247
   1.5285E+01   1.5657E+01   7.9316E-07  0.0260
   1.5657E+01   1.6038E+01   6.9036E-07  0.0276
   1.6038E+01   1.6428E+01   5.9785E-07  0.0293
   1.6428E+01   1.6828E+01   4.9736E-07  0.0317
   1.6828E+01   1.7237E+01   4.0592E-07  0.0347
   1.7237E+01   1.7657E+01   3.1782E-07  0.0387
   1.7657E+01   1.8086E+01   2.3510E-07  0.0445
   1.8086E+01   1.8526E+01   1.8952E-07  0.0490
   1.8526E+01   1.8977E+01   1.3577E-07  0.0572
   1.8977E+01   1.9439E+01   7.8834E-08  0.0741
   1.9439E+01   1.9912E+01   4.4401E-08  0.0976
   1.9912E+01   2.0396E+01   2.2705E-08  0.1348
   2.0396E+01   2.0893E+01   7.2543E-09  0.2357
   2.0893E+01   2.1401E+01   3.9344E-10  1.0000
   2.1401E+01   2.1922E+01   0.0000E+00  0.0000
   2.1922E+01   2.2455E+01   0.0000E+00  0.0000
   2.2455E+01   2.3001E+01   0.0000E+00  0.0000
   2.3001E+01   2.3561E+01   0.0000E+00  0.0000
   2.3561E+01   2.4134E+01   0.0000E+00  0.0000
   2.4134E+01   2.4721E+01   0.0000E+00  0.0000
   2.4721E+01   2.5323E+01   0.0000E+00  0.0000
   2.5323E+01   2.5939E+01   0.0000E+00  0.0000
   2.5939E+01   2.6570E+01   0.0000E+00  0.0000
   2.6570E+01   2.7217E+01   0.0000E+00  0.0000
   2.7217E+01   2.7879E+01   0.0000E+00  0.0000
   2.7879E+01   2.8557E+01   0.0000E+00  0.0000
   2.8557E+01   2.9252E+01   0.0000E+00  0.0000
   2.9252E+01   2.9964E+01   0.0000E+00  0.0000
   2.9964E+01   3.0693E+01   0.0000E+00  0.0000
   3.0693E+01   3.1440E+01   0.0000E+00  0.0000
   3.1440E+01   3.2205E+01   0.0000E+00  0.0000
   3.2205E+01   3.2988E+01   0.0000E+00  0.0000
   3.2988E+01   3.3791E+01   0.0000E+00  0.0000
   3.3791E+01   3.4613E+01   0.0000E+00  0.0000
   3.4613E+01   3.5455E+01   0.0000E+00  0.0000
   3.5455E+01   3.6318E+01   0.0000E+00  0.0000
   3.6318E+01   3.7201E+01   0.0000E+00  0.0000
   3.7201E+01   3.8106E+01   0.0000E+00  0.0000
   3.8106E+01   3.9034E+01   0.0000E+00  0.0000
   3.9034E+01   3.9983E+01   0.0000E+00  0.0000
   3.9983E+01   4.0956E+01   0.0000E+00  0.0000
   4.0956E+01   4.1953E+01   0.0000E+00  0.0000
   4.1953E+01   4.2973E+01   0.0000E+00  0.0000
   4.2973E+01   4.4019E+01   0.0000E+00  0.0000
   4.4019E+01   4.5090E+01   0.0000E+00  0.0000
   4.5090E+01   4.6187E+01   0.0000E+00  0.0000
   4.6187E+01   4.7311E+01   0.0000E+00  0.0000
   4.7311E+01   4.8462E+01   0.0000E+00  0.0000
   4.8462E+01   4.9641E+01   0.0000E+00  0.0000
   4.9641E+01   5.0849E+01   0.0000E+00  0.0000
   5.0849E+01   5.2086E+01   0.0000E+00  0.0000
   5.2086E+01   5.3353E+01   0.0000E+00  0.0000
   5.3353E+01   5.4651E+01   0.0000E+00  0.0000
   5.4651E+01   5.5981E+01   0.0000E+00  0.0000
   5.5981E+01   5.7343E+01   0.0000E+00  0.0000
   5.7343E+01   5.8738E+01   0.0000E+00  0.0000
   5.8738E+01   6.0168E+01   0.0000E+00  0.0000
   6.0168E+01   6.1632E+01   0.0000E+00  0.0000
   6.1632E+01   6.3131E+01   0.0000E+00  0.0000
   6.3131E+01   6.4667E+01   0.0000E+00  0.0000
   6.4667E+01   6.6240E+01   0.0000E+00  0.0000
   6.6240E+01   6.7852E+01   0.0000E+00  0.0000
   6.7852E+01   6.9503E+01   0.0000E+00  0.0000
   6.9503E+01   7.1194E+01   0.0000E+00  0.0000
   7.1194E+01   7.2926E+01   0.0000E+00  0.0000
   7.2926E+01   7.4701E+01   0.0000E+00  0.0000
   7.4701E+01   7.6518E+01   0.0000E+00  0.0000
   7.6518E+01   7.8380E+01   0.0000E+00  0.0000
   7.8380E+01   8.0287E+01   0.0000E+00  0.0000
   8.0287E+01   8.2240E+01   0.0000E+00  0.0000
   8.2240E+01   8.4241E+01   0.0000E+00  0.0000
   8.4241E+01   8.6291E+01   0.0000E+00  0.0000
   8.6291E+01   8.8391E+01   0.0000E+00  0.0000
   8.8391E+01   9.0541E+01   0.0000E+00  0.0000
   9.0541E+01   9.2744E+01   0.0000E+00  0.0000
   9.2744E+01   9.5001E+01   0.0000E+00  0.0000
   9.5001E+01   9.7312E+01   0.0000E+00  0.0000
   9.7312E+01   9.9680E+01   0.0000E+00  0.0000
   9.9680E+01   1.0211E+02   0.0000E+00  0.0000
   1.0211E+02   1.0459E+02   0.0000E+00  0.0000
   1.0459E+02   1.0713E+02   0.0000E+00  0.0000
   1.0713E+02   1.0974E+02   0.0000E+00  0.0000
   1.0974E+02   1.1241E+02   0.0000E+00  0.0000
   1.1241E+02   1.1515E+02   0.0000E+00  0.0000
   1.1515E+02   1.1795E+02   0.0000E+00  0.0000
   1.1795E+02   1.2082E+02   0.0000E+00  0.0000
   1.2082E+02   1.2376E+02   0.0000E+00  0.0000
   1.2376E+02   1.2677E+02   0.0000E+00  0.0000
   1.2677E+02   1.2985E+02   0.0000E+00  0.0000
   1.2985E+02   1.3301E+02   0.0000E+00  0.0000
   1.3301E+02   1.3625E+02   0.0000E+00  0.0000
   1.3625E+02   1.3956E+02   0.0000E+00  0.0000
   1.3956E+02   1.4296E+02   0.0000E+00  0.0000
   1.4296E+02   1.4644E+02   0.0000E+00  0.0000
   1.4644E+02   1.5000E+02   0.0000E+00  0.0000

#   sum over                 4.4761E-06
'no. =    1   reg = 110 - 210'
msuc: {\huge [t-cross] in region mesh}
msdr: {\it plotted by \ANGEL \version}
msdl: {\it calculated by \PHITS  3.26}
wt: s(0.7)
\vspace{-3}
  region surface crossing
  area  &=&   1.0000E+00 [cm^2]
e:
 
# Information for Restart Calculation
# This calculation was newly started
# istdev =  2 # 1:Batch variance, 2:History variance
# resc2  = 5.00000000000000000E+09 # Total source weight or Total source weight / maxcas
# resc3  = 5.00000000000000000E+09 # Total history number or Total batch number
# maxcas =   100000000 # History / Batch, only used for istdev=1
# bitrseed = 0110100000100010111000001110001111001110100100011111101000111001 # bit data of rseed
