[ T-Cross ]
    title = [t-cross] in region mesh
     mesh =  reg            # mesh type is region-wise
      reg =    1            # number of crossing regions
      non     r-from    r-to       area
      1       114       214        1.000000    
   e-type =    3            # e-mesh is log given by emin, emax and ne
     emin =  1.0000000E-02  # minimum value of e-mesh points
     emax =   150.0000      # maximum value of e-mesh points
#    edel =  2.4039514E-02  # mesh width of e-mesh points
       ne =    400          # number of e-mesh points
#    data = ( e(i), i = 1, ne + 1 )
#           1.00000E-02  1.02433E-02  1.04925E-02  1.07478E-02  1.10093E-02
#           1.12772E-02  1.15516E-02  1.18326E-02  1.21205E-02  1.24154E-02
#           1.27175E-02  1.30269E-02  1.33439E-02  1.36686E-02  1.40011E-02
#           1.43418E-02  1.46907E-02  1.50482E-02  1.54143E-02  1.57894E-02
#           1.61735E-02  1.65670E-02  1.69701E-02  1.73830E-02  1.78060E-02
#           1.82392E-02  1.86830E-02  1.91375E-02  1.96032E-02  2.00801E-02
#           2.05687E-02  2.10692E-02  2.15818E-02  2.21069E-02  2.26448E-02
#           2.31957E-02  2.37601E-02  2.43382E-02  2.49304E-02  2.55369E-02
#           2.61583E-02  2.67947E-02  2.74467E-02  2.81145E-02  2.87985E-02
#           2.94992E-02  3.02169E-02  3.09521E-02  3.17052E-02  3.24766E-02
#           3.32668E-02  3.40762E-02  3.49053E-02  3.57546E-02  3.66246E-02
#           3.75157E-02  3.84284E-02  3.93634E-02  4.03212E-02  4.13022E-02
#           4.23071E-02  4.33365E-02  4.43909E-02  4.54710E-02  4.65773E-02
#           4.77106E-02  4.88714E-02  5.00605E-02  5.12785E-02  5.25262E-02
#           5.38042E-02  5.51133E-02  5.64542E-02  5.78278E-02  5.92348E-02
#           6.06760E-02  6.21523E-02  6.36645E-02  6.52135E-02  6.68002E-02
#           6.84255E-02  7.00904E-02  7.17957E-02  7.35426E-02  7.53319E-02
#           7.71648E-02  7.90423E-02  8.09655E-02  8.29354E-02  8.49533E-02
#           8.70203E-02  8.91376E-02  9.13064E-02  9.35279E-02  9.58035E-02
#           9.81345E-02  1.00522E-01  1.02968E-01  1.05473E-01  1.08040E-01
#           1.10668E-01  1.13361E-01  1.16119E-01  1.18944E-01  1.21838E-01
#           1.24803E-01  1.27839E-01  1.30950E-01  1.34136E-01  1.37399E-01
#           1.40742E-01  1.44167E-01  1.47675E-01  1.51268E-01  1.54948E-01
#           1.58718E-01  1.62580E-01  1.66535E-01  1.70587E-01  1.74738E-01
#           1.78989E-01  1.83344E-01  1.87805E-01  1.92375E-01  1.97055E-01
#           2.01850E-01  2.06761E-01  2.11792E-01  2.16945E-01  2.22223E-01
#           2.27630E-01  2.33169E-01  2.38842E-01  2.44653E-01  2.50605E-01
#           2.56703E-01  2.62949E-01  2.69346E-01  2.75900E-01  2.82613E-01
#           2.89489E-01  2.96532E-01  3.03747E-01  3.11138E-01  3.18708E-01
#           3.26462E-01  3.34405E-01  3.42542E-01  3.50876E-01  3.59413E-01
#           3.68158E-01  3.77116E-01  3.86291E-01  3.95690E-01  4.05317E-01
#           4.15179E-01  4.25281E-01  4.35628E-01  4.46227E-01  4.57084E-01
#           4.68205E-01  4.79597E-01  4.91266E-01  5.03219E-01  5.15463E-01
#           5.28005E-01  5.40851E-01  5.54011E-01  5.67490E-01  5.81298E-01
#           5.95441E-01  6.09929E-01  6.24769E-01  6.39970E-01  6.55541E-01
#           6.71491E-01  6.87828E-01  7.04564E-01  7.21706E-01  7.39266E-01
#           7.57253E-01  7.75678E-01  7.94551E-01  8.13883E-01  8.33685E-01
#           8.53969E-01  8.74747E-01  8.96030E-01  9.17831E-01  9.40163E-01
#           9.63038E-01  9.86469E-01  1.01047E+00  1.03506E+00  1.06024E+00
#           1.08604E+00  1.11246E+00  1.13953E+00  1.16725E+00  1.19565E+00
#           1.22474E+00  1.25454E+00  1.28507E+00  1.31633E+00  1.34836E+00
#           1.38117E+00  1.41477E+00  1.44920E+00  1.48446E+00  1.52057E+00
#           1.55757E+00  1.59547E+00  1.63429E+00  1.67405E+00  1.71478E+00
#           1.75650E+00  1.79924E+00  1.84302E+00  1.88786E+00  1.93379E+00
#           1.98084E+00  2.02904E+00  2.07841E+00  2.12898E+00  2.18078E+00
#           2.23384E+00  2.28819E+00  2.34386E+00  2.40089E+00  2.45930E+00
#           2.51914E+00  2.58043E+00  2.64322E+00  2.70753E+00  2.77341E+00
#           2.84088E+00  2.91001E+00  2.98081E+00  3.05333E+00  3.12762E+00
#           3.20372E+00  3.28167E+00  3.36152E+00  3.44330E+00  3.52708E+00
#           3.61290E+00  3.70080E+00  3.79085E+00  3.88308E+00  3.97756E+00
#           4.07434E+00  4.17347E+00  4.27501E+00  4.37903E+00  4.48557E+00
#           4.59471E+00  4.70650E+00  4.82102E+00  4.93832E+00  5.05847E+00
#           5.18155E+00  5.30762E+00  5.43676E+00  5.56904E+00  5.70453E+00
#           5.84333E+00  5.98550E+00  6.13114E+00  6.28031E+00  6.43312E+00
#           6.58964E+00  6.74997E+00  6.91420E+00  7.08243E+00  7.25475E+00
#           7.43126E+00  7.61207E+00  7.79728E+00  7.98700E+00  8.18133E+00
#           8.38038E+00  8.58428E+00  8.79315E+00  9.00709E+00  9.22624E+00
#           9.45072E+00  9.68067E+00  9.91620E+00  1.01575E+01  1.04046E+01
#           1.06578E+01  1.09171E+01  1.11827E+01  1.14548E+01  1.17335E+01
#           1.20190E+01  1.23114E+01  1.26109E+01  1.29178E+01  1.32321E+01
#           1.35540E+01  1.38838E+01  1.42216E+01  1.45676E+01  1.49221E+01
#           1.52851E+01  1.56570E+01  1.60380E+01  1.64282E+01  1.68279E+01
#           1.72374E+01  1.76568E+01  1.80864E+01  1.85264E+01  1.89772E+01
#           1.94389E+01  1.99119E+01  2.03963E+01  2.08926E+01  2.14009E+01
#           2.19216E+01  2.24550E+01  2.30014E+01  2.35610E+01  2.41343E+01
#           2.47215E+01  2.53230E+01  2.59391E+01  2.65702E+01  2.72167E+01
#           2.78789E+01  2.85572E+01  2.92520E+01  2.99637E+01  3.06928E+01
#           3.14396E+01  3.22045E+01  3.29881E+01  3.37907E+01  3.46128E+01
#           3.54550E+01  3.63177E+01  3.72013E+01  3.81064E+01  3.90336E+01
#           3.99833E+01  4.09561E+01  4.19526E+01  4.29734E+01  4.40189E+01
#           4.50900E+01  4.61870E+01  4.73108E+01  4.84619E+01  4.96410E+01
#           5.08488E+01  5.20860E+01  5.33533E+01  5.46514E+01  5.59812E+01
#           5.73432E+01  5.87384E+01  6.01676E+01  6.16315E+01  6.31311E+01
#           6.46671E+01  6.62405E+01  6.78522E+01  6.95031E+01  7.11941E+01
#           7.29263E+01  7.47007E+01  7.65182E+01  7.83800E+01  8.02870E+01
#           8.22405E+01  8.42414E+01  8.62911E+01  8.83906E+01  9.05412E+01
#           9.27442E+01  9.50007E+01  9.73122E+01  9.96799E+01  1.02105E+02
#           1.04589E+02  1.07134E+02  1.09741E+02  1.12411E+02  1.15146E+02
#           1.17948E+02  1.20817E+02  1.23757E+02  1.26768E+02  1.29852E+02
#           1.33012E+02  1.36248E+02  1.39563E+02  1.42959E+02  1.46437E+02
#           1.50000E+02
     unit =    2            # unit is [1/cm^2/(MeV/n)/source]
     axis =  eng            # axis of output
     file = detector-15.out  # file name of output for the above axis
   output = f-curr          # surface crossing forward current spectrum
     part =  neutron  
# kf/name :  2112     
#    used :        main (  %)        temp (  %)       total (  %)
#  memory :         414 (  0)           0 (  0)         414 (  0)

#------------------------------------------------------------------------------
#newpage:
#   no. =    1   reg = 114 - 214

x: Energy [MeV/n]
y:  F-Curr [1/cm^2/(MeV/n)/source]         
p: xlog ylog afac(0.8) form(0.9)
h: n            x            y(neutron ),hh0l   n 
#  e-lower      e-upper      neutron     r.err 
   1.0000E-02   1.0243E-02   2.7151E-04  0.0547
   1.0243E-02   1.0493E-02   2.7433E-04  0.0538
   1.0493E-02   1.0748E-02   2.6868E-04  0.0537
   1.0748E-02   1.1009E-02   2.6228E-04  0.0537
   1.1009E-02   1.1277E-02   2.6020E-04  0.0533
   1.1277E-02   1.1552E-02   2.4375E-04  0.0543
   1.1552E-02   1.1833E-02   2.3070E-04  0.0552
   1.1833E-02   1.2121E-02   2.3564E-04  0.0540
   1.2121E-02   1.2415E-02   2.3412E-04  0.0535
   1.2415E-02   1.2718E-02   2.3192E-04  0.0532
   1.2718E-02   1.3027E-02   2.3532E-04  0.0521
   1.3027E-02   1.3344E-02   2.2193E-04  0.0531
   1.3344E-02   1.3669E-02   2.1590E-04  0.0531
   1.3669E-02   1.4001E-02   2.3815E-04  0.0499
   1.4001E-02   1.4342E-02   2.3608E-04  0.0495
   1.4342E-02   1.4691E-02   1.9860E-04  0.0533
   1.4691E-02   1.5048E-02   1.9566E-04  0.0532
   1.5048E-02   1.5414E-02   1.7549E-04  0.0555
   1.5414E-02   1.5789E-02   1.9331E-04  0.0522
   1.5789E-02   1.6174E-02   1.7594E-04  0.0541
   1.6174E-02   1.6567E-02   1.8611E-04  0.0520
   1.6567E-02   1.6970E-02   1.6704E-04  0.0540
   1.6970E-02   1.7383E-02   1.8088E-04  0.0515
   1.7383E-02   1.7806E-02   1.5859E-04  0.0542
   1.7806E-02   1.8239E-02   1.8056E-04  0.0503
   1.8239E-02   1.8683E-02   1.6594E-04  0.0518
   1.8683E-02   1.9138E-02   1.5982E-04  0.0522
   1.9138E-02   1.9603E-02   1.6106E-04  0.0514
   1.9603E-02   2.0080E-02   1.4319E-04  0.0537
   2.0080E-02   2.0569E-02   1.5278E-04  0.0515
   2.0569E-02   2.1069E-02   1.3722E-04  0.0536
   2.1069E-02   2.1582E-02   1.4756E-04  0.0511
   2.1582E-02   2.2107E-02   1.3737E-04  0.0524
   2.2107E-02   2.2645E-02   1.4395E-04  0.0505
   2.2645E-02   2.3196E-02   1.3189E-04  0.0522
   2.3196E-02   2.3760E-02   1.2737E-04  0.0524
   2.3760E-02   2.4338E-02   1.3332E-04  0.0506
   2.4338E-02   2.4930E-02   1.2076E-04  0.0526
   2.4930E-02   2.5537E-02   1.1726E-04  0.0528
   2.5537E-02   2.6158E-02   1.2840E-04  0.0498
   2.6158E-02   2.6795E-02   1.2585E-04  0.0496
   2.6795E-02   2.7447E-02   1.1875E-04  0.0505
   2.7447E-02   2.8114E-02   1.1950E-04  0.0498
   2.8114E-02   2.8799E-02   1.1716E-04  0.0496
   2.8799E-02   2.9499E-02   1.1000E-04  0.0506
   2.9499E-02   3.0217E-02   1.0614E-04  0.0509
   3.0217E-02   3.0952E-02   1.0456E-04  0.0507
   3.0952E-02   3.1705E-02   1.0208E-04  0.0507
   3.1705E-02   3.2477E-02   1.0334E-04  0.0498
   3.2477E-02   3.3267E-02   9.7765E-05  0.0506
   3.3267E-02   3.4076E-02   8.9027E-05  0.0524
   3.4076E-02   3.4905E-02   9.2472E-05  0.0508
   3.4905E-02   3.5755E-02   9.5818E-05  0.0494
   3.5755E-02   3.6625E-02   9.0360E-05  0.0502
   3.6625E-02   3.7516E-02   8.0532E-05  0.0524
   3.7516E-02   3.8428E-02   8.2224E-05  0.0514
   3.8428E-02   3.9363E-02   8.7863E-05  0.0491
   3.9363E-02   4.0321E-02   8.9652E-05  0.0480
   4.0321E-02   4.1302E-02   8.3959E-05  0.0490
   4.1302E-02   4.2307E-02   8.1391E-05  0.0491
   4.2307E-02   4.3337E-02   8.4352E-05  0.0477
   4.3337E-02   4.4391E-02   7.1264E-05  0.0512
   4.4391E-02   4.5471E-02   7.4025E-05  0.0497
   4.5471E-02   4.6577E-02   6.9229E-05  0.0508
   4.6577E-02   4.7711E-02   7.3534E-05  0.0487
   4.7711E-02   4.8871E-02   7.5297E-05  0.0476
   4.8871E-02   5.0061E-02   6.7927E-05  0.0495
   5.0061E-02   5.1279E-02   6.2916E-05  0.0508
   5.1279E-02   5.2526E-02   6.6902E-05  0.0487
   5.2526E-02   5.3804E-02   6.0687E-05  0.0504
   5.3804E-02   5.5113E-02   6.1679E-05  0.0495
   5.5113E-02   5.6454E-02   6.2758E-05  0.0485
   5.6454E-02   5.7828E-02   6.4754E-05  0.0471
   5.7828E-02   5.9235E-02   6.0514E-05  0.0482
   5.9235E-02   6.0676E-02   5.4419E-05  0.0502
   6.0676E-02   6.2152E-02   5.4921E-05  0.0494
   6.2152E-02   6.3665E-02   5.6538E-05  0.0481
   6.3665E-02   6.5214E-02   5.6509E-05  0.0475
   6.5214E-02   6.6800E-02   5.1268E-05  0.0493
   6.6800E-02   6.8426E-02   5.1587E-05  0.0486
   6.8426E-02   7.0090E-02   5.2219E-05  0.0476
   7.0090E-02   7.1796E-02   5.5253E-05  0.0458
   7.1796E-02   7.3543E-02   4.8571E-05  0.0482
   7.3543E-02   7.5332E-02   5.0278E-05  0.0468
   7.5332E-02   7.7165E-02   4.4634E-05  0.0491
   7.7165E-02   7.9042E-02   4.9881E-05  0.0459
   7.9042E-02   8.0965E-02   4.7659E-05  0.0464
   8.0965E-02   8.2935E-02   4.7151E-05  0.0461
   8.2935E-02   8.4953E-02   5.0207E-05  0.0442
   8.4953E-02   8.7020E-02   4.4664E-05  0.0463
   8.7020E-02   8.9138E-02   4.7285E-05  0.0444
   8.9138E-02   9.1306E-02   3.8894E-05  0.0484
   9.1306E-02   9.3528E-02   4.5517E-05  0.0442
   9.3528E-02   9.5804E-02   4.5444E-05  0.0437
   9.5804E-02   9.8134E-02   4.1979E-05  0.0450
   9.8134E-02   1.0052E-01   4.4662E-05  0.0430
   1.0052E-01   1.0297E-01   4.3098E-05  0.0434
   1.0297E-01   1.0547E-01   4.4341E-05  0.0422
   1.0547E-01   1.0804E-01   4.8737E-05  0.0397
   1.0804E-01   1.1067E-01   4.4709E-05  0.0409
   1.1067E-01   1.1336E-01   5.0948E-05  0.0380
   1.1336E-01   1.1612E-01   5.0148E-05  0.0378
   1.1612E-01   1.1894E-01   5.1699E-05  0.0368
   1.1894E-01   1.2184E-01   5.5545E-05  0.0350
   1.2184E-01   1.2480E-01   5.7697E-05  0.0340
   1.2480E-01   1.2784E-01   6.0115E-05  0.0329
   1.2784E-01   1.3095E-01   6.3486E-05  0.0316
   1.3095E-01   1.3414E-01   6.8461E-05  0.0301
   1.3414E-01   1.3740E-01   6.8365E-05  0.0297
   1.3740E-01   1.4074E-01   7.2064E-05  0.0286
   1.4074E-01   1.4417E-01   7.4828E-05  0.0278
   1.4417E-01   1.4767E-01   7.5880E-05  0.0273
   1.4767E-01   1.5127E-01   8.0161E-05  0.0262
   1.5127E-01   1.5495E-01   8.4269E-05  0.0252
   1.5495E-01   1.5872E-01   8.9170E-05  0.0242
   1.5872E-01   1.6258E-01   9.0189E-05  0.0238
   1.6258E-01   1.6654E-01   8.8597E-05  0.0237
   1.6654E-01   1.7059E-01   9.6436E-05  0.0225
   1.7059E-01   1.7474E-01   1.0077E-04  0.0217
   1.7474E-01   1.7899E-01   1.0506E-04  0.0210
   1.7899E-01   1.8334E-01   1.0603E-04  0.0207
   1.8334E-01   1.8781E-01   1.1504E-04  0.0196
   1.8781E-01   1.9237E-01   1.1887E-04  0.0191
   1.9237E-01   1.9706E-01   1.2021E-04  0.0187
   1.9706E-01   2.0185E-01   1.2188E-04  0.0184
   2.0185E-01   2.0676E-01   1.3053E-04  0.0176
   2.0676E-01   2.1179E-01   1.3380E-04  0.0171
   2.1179E-01   2.1694E-01   1.3695E-04  0.0167
   2.1694E-01   2.2222E-01   1.4160E-04  0.0163
   2.2222E-01   2.2763E-01   1.4760E-04  0.0157
   2.2763E-01   2.3317E-01   1.5225E-04  0.0153
   2.3317E-01   2.3884E-01   1.5765E-04  0.0149
   2.3884E-01   2.4465E-01   1.5804E-04  0.0147
   2.4465E-01   2.5061E-01   1.6544E-04  0.0142
   2.5061E-01   2.5670E-01   1.7351E-04  0.0137
   2.5670E-01   2.6295E-01   1.7471E-04  0.0135
   2.6295E-01   2.6935E-01   1.8099E-04  0.0131
   2.6935E-01   2.7590E-01   1.8545E-04  0.0128
   2.7590E-01   2.8261E-01   1.8988E-04  0.0124
   2.8261E-01   2.8949E-01   2.0158E-04  0.0119
   2.8949E-01   2.9653E-01   2.0104E-04  0.0118
   2.9653E-01   3.0375E-01   2.0400E-04  0.0116
   3.0375E-01   3.1114E-01   2.1627E-04  0.0111
   3.1114E-01   3.1871E-01   2.1985E-04  0.0109
   3.1871E-01   3.2646E-01   2.2534E-04  0.0106
   3.2646E-01   3.3441E-01   2.2744E-04  0.0105
   3.3441E-01   3.4254E-01   2.3485E-04  0.0102
   3.4254E-01   3.5088E-01   2.4102E-04  0.0099
   3.5088E-01   3.5941E-01   2.4761E-04  0.0097
   3.5941E-01   3.6816E-01   2.5318E-04  0.0094
   3.6816E-01   3.7712E-01   2.6072E-04  0.0092
   3.7712E-01   3.8629E-01   2.6266E-04  0.0090
   3.8629E-01   3.9569E-01   2.6727E-04  0.0089
   3.9569E-01   4.0532E-01   2.7182E-04  0.0087
   4.0532E-01   4.1518E-01   2.7497E-04  0.0085
   4.1518E-01   4.2528E-01   2.7592E-04  0.0084
   4.2528E-01   4.3563E-01   2.8218E-04  0.0082
   4.3563E-01   4.4623E-01   2.8952E-04  0.0080
   4.4623E-01   4.5708E-01   2.9203E-04  0.0079
   4.5708E-01   4.6821E-01   2.9837E-04  0.0077
   4.6821E-01   4.7960E-01   2.9929E-04  0.0076
   4.7960E-01   4.9127E-01   2.9938E-04  0.0075
   4.9127E-01   5.0322E-01   3.0459E-04  0.0074
   5.0322E-01   5.1546E-01   3.0517E-04  0.0073
   5.1546E-01   5.2800E-01   3.1342E-04  0.0071
   5.2800E-01   5.4085E-01   3.1183E-04  0.0070
   5.4085E-01   5.5401E-01   3.1584E-04  0.0069
   5.5401E-01   5.6749E-01   3.1146E-04  0.0068
   5.6749E-01   5.8130E-01   3.1378E-04  0.0067
   5.8130E-01   5.9544E-01   3.1866E-04  0.0066
   5.9544E-01   6.0993E-01   3.1571E-04  0.0066
   6.0993E-01   6.2477E-01   3.1698E-04  0.0065
   6.2477E-01   6.3997E-01   3.1520E-04  0.0064
   6.3997E-01   6.5554E-01   3.1726E-04  0.0063
   6.5554E-01   6.7149E-01   3.1348E-04  0.0063
   6.7149E-01   6.8783E-01   3.1074E-04  0.0062
   6.8783E-01   7.0456E-01   3.1051E-04  0.0061
   7.0456E-01   7.2171E-01   3.0681E-04  0.0061
   7.2171E-01   7.3927E-01   2.9788E-04  0.0061
   7.3927E-01   7.5725E-01   2.9872E-04  0.0060
   7.5725E-01   7.7568E-01   2.9150E-04  0.0060
   7.7568E-01   7.9455E-01   2.8718E-04  0.0060
   7.9455E-01   8.1388E-01   2.8057E-04  0.0060
   8.1388E-01   8.3368E-01   2.7303E-04  0.0060
   8.3368E-01   8.5397E-01   2.6465E-04  0.0060
   8.5397E-01   8.7475E-01   2.5880E-04  0.0060
   8.7475E-01   8.9603E-01   2.4992E-04  0.0061
   8.9603E-01   9.1783E-01   2.3982E-04  0.0061
   9.1783E-01   9.4016E-01   2.3629E-04  0.0061
   9.4016E-01   9.6304E-01   2.2453E-04  0.0062
   9.6304E-01   9.8647E-01   2.1861E-04  0.0062
   9.8647E-01   1.0105E+00   2.1285E-04  0.0062
   1.0105E+00   1.0351E+00   2.1464E-04  0.0061
   1.0351E+00   1.0602E+00   2.1798E-04  0.0060
   1.0602E+00   1.0860E+00   2.2249E-04  0.0058
   1.0860E+00   1.1125E+00   2.3080E-04  0.0056
   1.1125E+00   1.1395E+00   2.3786E-04  0.0055
   1.1395E+00   1.1673E+00   2.4739E-04  0.0053
   1.1673E+00   1.1957E+00   2.5652E-04  0.0052
   1.1957E+00   1.2247E+00   2.6148E-04  0.0050
   1.2247E+00   1.2545E+00   2.6760E-04  0.0049
   1.2545E+00   1.2851E+00   2.7024E-04  0.0048
   1.2851E+00   1.3163E+00   2.7467E-04  0.0047
   1.3163E+00   1.3484E+00   2.8133E-04  0.0046
   1.3484E+00   1.3812E+00   2.8530E-04  0.0045
   1.3812E+00   1.4148E+00   2.8932E-04  0.0045
   1.4148E+00   1.4492E+00   2.9193E-04  0.0044
   1.4492E+00   1.4845E+00   2.9225E-04  0.0043
   1.4845E+00   1.5206E+00   2.9080E-04  0.0043
   1.5206E+00   1.5576E+00   2.9093E-04  0.0042
   1.5576E+00   1.5955E+00   2.8864E-04  0.0042
   1.5955E+00   1.6343E+00   2.8983E-04  0.0041
   1.6343E+00   1.6741E+00   2.8820E-04  0.0041
   1.6741E+00   1.7148E+00   2.9083E-04  0.0040
   1.7148E+00   1.7565E+00   2.8025E-04  0.0040
   1.7565E+00   1.7992E+00   2.6885E-04  0.0041
   1.7992E+00   1.8430E+00   2.5394E-04  0.0041
   1.8430E+00   1.8879E+00   2.4696E-04  0.0041
   1.8879E+00   1.9338E+00   2.4495E-04  0.0041
   1.9338E+00   1.9808E+00   2.4223E-04  0.0040
   1.9808E+00   2.0290E+00   2.4460E-04  0.0040
   2.0290E+00   2.0784E+00   2.4706E-04  0.0039
   2.0784E+00   2.1290E+00   2.4852E-04  0.0038
   2.1290E+00   2.1808E+00   2.5067E-04  0.0038
   2.1808E+00   2.2338E+00   2.5114E-04  0.0037
   2.2338E+00   2.2882E+00   2.4392E-04  0.0037
   2.2882E+00   2.3439E+00   2.3693E-04  0.0038
   2.3439E+00   2.4009E+00   2.3506E-04  0.0037
   2.4009E+00   2.4593E+00   2.3533E-04  0.0037
   2.4593E+00   2.5191E+00   2.3057E-04  0.0037
   2.5191E+00   2.5804E+00   2.2779E-04  0.0037
   2.5804E+00   2.6432E+00   2.2458E-04  0.0036
   2.6432E+00   2.7075E+00   2.1996E-04  0.0036
   2.7075E+00   2.7734E+00   2.1644E-04  0.0036
   2.7734E+00   2.8409E+00   2.1294E-04  0.0036
   2.8409E+00   2.9100E+00   2.1115E-04  0.0036
   2.9100E+00   2.9808E+00   2.1142E-04  0.0035
   2.9808E+00   3.0533E+00   2.0625E-04  0.0035
   3.0533E+00   3.1276E+00   2.0140E-04  0.0035
   3.1276E+00   3.2037E+00   1.9817E-04  0.0035
   3.2037E+00   3.2817E+00   1.9411E-04  0.0035
   3.2817E+00   3.3615E+00   1.9217E-04  0.0035
   3.3615E+00   3.4433E+00   1.8913E-04  0.0035
   3.4433E+00   3.5271E+00   1.8669E-04  0.0035
   3.5271E+00   3.6129E+00   1.8392E-04  0.0035
   3.6129E+00   3.7008E+00   1.7953E-04  0.0035
   3.7008E+00   3.7908E+00   1.7574E-04  0.0035
   3.7908E+00   3.8831E+00   1.7155E-04  0.0035
   3.8831E+00   3.9776E+00   1.6655E-04  0.0035
   3.9776E+00   4.0743E+00   1.6479E-04  0.0035
   4.0743E+00   4.1735E+00   1.5876E-04  0.0035
   4.1735E+00   4.2750E+00   1.5464E-04  0.0035
   4.2750E+00   4.3790E+00   1.4932E-04  0.0035
   4.3790E+00   4.4856E+00   1.4475E-04  0.0035
   4.4856E+00   4.5947E+00   1.4103E-04  0.0035
   4.5947E+00   4.7065E+00   1.3694E-04  0.0035
   4.7065E+00   4.8210E+00   1.3212E-04  0.0035
   4.8210E+00   4.9383E+00   1.2938E-04  0.0035
   4.9383E+00   5.0585E+00   1.2551E-04  0.0036
   5.0585E+00   5.1815E+00   1.2172E-04  0.0036
   5.1815E+00   5.3076E+00   1.1923E-04  0.0036
   5.3076E+00   5.4368E+00   1.1548E-04  0.0036
   5.4368E+00   5.5690E+00   1.1203E-04  0.0036
   5.5690E+00   5.7045E+00   1.0845E-04  0.0036
   5.7045E+00   5.8433E+00   1.0483E-04  0.0036
   5.8433E+00   5.9855E+00   1.0140E-04  0.0036
   5.9855E+00   6.1311E+00   9.8893E-05  0.0036
   6.1311E+00   6.2803E+00   9.5695E-05  0.0037
   6.2803E+00   6.4331E+00   9.1929E-05  0.0037
   6.4331E+00   6.5896E+00   8.8364E-05  0.0037
   6.5896E+00   6.7500E+00   8.4996E-05  0.0037
   6.7500E+00   6.9142E+00   8.0912E-05  0.0038
   6.9142E+00   7.0824E+00   7.7500E-05  0.0038
   7.0824E+00   7.2548E+00   7.3861E-05  0.0039
   7.2548E+00   7.4313E+00   7.0598E-05  0.0039
   7.4313E+00   7.6121E+00   6.6308E-05  0.0040
   7.6121E+00   7.7973E+00   6.2635E-05  0.0041
   7.7973E+00   7.9870E+00   5.8854E-05  0.0041
   7.9870E+00   8.1813E+00   5.4568E-05  0.0043
   8.1813E+00   8.3804E+00   5.1785E-05  0.0043
   8.3804E+00   8.5843E+00   4.8877E-05  0.0044
   8.5843E+00   8.7931E+00   4.6489E-05  0.0045
   8.7931E+00   9.0071E+00   4.3837E-05  0.0045
   9.0071E+00   9.2262E+00   4.0905E-05  0.0046
   9.2262E+00   9.4507E+00   3.8683E-05  0.0047
   9.4507E+00   9.6807E+00   3.6319E-05  0.0048
   9.6807E+00   9.9162E+00   3.4694E-05  0.0049
   9.9162E+00   1.0157E+01   3.4433E-05  0.0049
   1.0157E+01   1.0405E+01   3.2458E-05  0.0049
   1.0405E+01   1.0658E+01   3.0775E-05  0.0050
   1.0658E+01   1.0917E+01   2.8469E-05  0.0052
   1.0917E+01   1.1183E+01   2.6474E-05  0.0053
   1.1183E+01   1.1455E+01   2.5110E-05  0.0054
   1.1455E+01   1.1733E+01   2.3806E-05  0.0054
   1.1733E+01   1.2019E+01   2.2363E-05  0.0056
   1.2019E+01   1.2311E+01   2.1469E-05  0.0056
   1.2311E+01   1.2611E+01   2.0265E-05  0.0057
   1.2611E+01   1.2918E+01   1.9196E-05  0.0058
   1.2918E+01   1.3232E+01   1.7991E-05  0.0059
   1.3232E+01   1.3554E+01   1.6998E-05  0.0060
   1.3554E+01   1.3884E+01   1.5997E-05  0.0061
   1.3884E+01   1.4222E+01   1.5131E-05  0.0062
   1.4222E+01   1.4568E+01   1.4343E-05  0.0063
   1.4568E+01   1.4922E+01   1.3516E-05  0.0064
   1.4922E+01   1.5285E+01   1.2801E-05  0.0065
   1.5285E+01   1.5657E+01   1.2181E-05  0.0066
   1.5657E+01   1.6038E+01   1.1494E-05  0.0067
   1.6038E+01   1.6428E+01   1.0750E-05  0.0069
   1.6428E+01   1.6828E+01   1.0245E-05  0.0070
   1.6828E+01   1.7237E+01   9.6903E-06  0.0071
   1.7237E+01   1.7657E+01   9.0118E-06  0.0073
   1.7657E+01   1.8086E+01   8.3845E-06  0.0074
   1.8086E+01   1.8526E+01   7.8045E-06  0.0076
   1.8526E+01   1.8977E+01   7.0019E-06  0.0080
   1.8977E+01   1.9439E+01   6.7151E-06  0.0080
   1.9439E+01   1.9912E+01   6.1628E-06  0.0083
   1.9912E+01   2.0396E+01   5.9884E-06  0.0083
   2.0396E+01   2.0893E+01   5.6072E-06  0.0085
   2.0893E+01   2.1401E+01   5.2052E-06  0.0087
   2.1401E+01   2.1922E+01   4.7517E-06  0.0090
   2.1922E+01   2.2455E+01   4.3711E-06  0.0093
   2.2455E+01   2.3001E+01   4.1058E-06  0.0094
   2.3001E+01   2.3561E+01   3.7478E-06  0.0098
   2.3561E+01   2.4134E+01   3.3646E-06  0.0102
   2.4134E+01   2.4721E+01   3.0793E-06  0.0105
   2.4721E+01   2.5323E+01   2.8020E-06  0.0109
   2.5323E+01   2.5939E+01   2.5167E-06  0.0114
   2.5939E+01   2.6570E+01   2.2728E-06  0.0118
   2.6570E+01   2.7217E+01   2.0060E-06  0.0124
   2.7217E+01   2.7879E+01   1.7544E-06  0.0131
   2.7879E+01   2.8557E+01   1.5730E-06  0.0137
   2.8557E+01   2.9252E+01   1.3825E-06  0.0144
   2.9252E+01   2.9964E+01   1.1918E-06  0.0154
   2.9964E+01   3.0693E+01   1.0279E-06  0.0163
   3.0693E+01   3.1440E+01   8.6853E-07  0.0176
   3.1440E+01   3.2205E+01   7.4332E-07  0.0188
   3.2205E+01   3.2988E+01   5.9319E-07  0.0207
   3.2988E+01   3.3791E+01   5.2627E-07  0.0218
   3.3791E+01   3.4613E+01   4.0528E-07  0.0245
   3.4613E+01   3.5455E+01   3.4103E-07  0.0264
   3.5455E+01   3.6318E+01   2.5526E-07  0.0301
   3.6318E+01   3.7201E+01   2.0302E-07  0.0334
   3.7201E+01   3.8106E+01   1.7434E-07  0.0356
   3.8106E+01   3.9034E+01   1.4841E-07  0.0381
   3.9034E+01   3.9983E+01   9.9187E-08  0.0461
   3.9983E+01   4.0956E+01   6.7227E-08  0.0553
   4.0956E+01   4.1953E+01   3.7130E-08  0.0735
   4.1953E+01   4.2973E+01   2.8999E-08  0.0822
   4.2973E+01   4.4019E+01   1.7215E-08  0.1054
   4.4019E+01   4.5090E+01   1.0457E-08  0.1336
   4.5090E+01   4.6187E+01   4.1930E-09  0.2085
   4.6187E+01   4.7311E+01   2.8476E-09  0.2500
   4.7311E+01   4.8462E+01   1.3900E-09  0.3536
   4.8462E+01   4.9641E+01   0.0000E+00  0.0000
   4.9641E+01   5.0849E+01   1.6559E-10  1.0000
   5.0849E+01   5.2086E+01   0.0000E+00  0.0000
   5.2086E+01   5.3353E+01   0.0000E+00  0.0000
   5.3353E+01   5.4651E+01   0.0000E+00  0.0000
   5.4651E+01   5.5981E+01   0.0000E+00  0.0000
   5.5981E+01   5.7343E+01   0.0000E+00  0.0000
   5.7343E+01   5.8738E+01   0.0000E+00  0.0000
   5.8738E+01   6.0168E+01   0.0000E+00  0.0000
   6.0168E+01   6.1632E+01   0.0000E+00  0.0000
   6.1632E+01   6.3131E+01   0.0000E+00  0.0000
   6.3131E+01   6.4667E+01   0.0000E+00  0.0000
   6.4667E+01   6.6240E+01   0.0000E+00  0.0000
   6.6240E+01   6.7852E+01   0.0000E+00  0.0000
   6.7852E+01   6.9503E+01   0.0000E+00  0.0000
   6.9503E+01   7.1194E+01   0.0000E+00  0.0000
   7.1194E+01   7.2926E+01   0.0000E+00  0.0000
   7.2926E+01   7.4701E+01   0.0000E+00  0.0000
   7.4701E+01   7.6518E+01   0.0000E+00  0.0000
   7.6518E+01   7.8380E+01   0.0000E+00  0.0000
   7.8380E+01   8.0287E+01   0.0000E+00  0.0000
   8.0287E+01   8.2240E+01   0.0000E+00  0.0000
   8.2240E+01   8.4241E+01   0.0000E+00  0.0000
   8.4241E+01   8.6291E+01   0.0000E+00  0.0000
   8.6291E+01   8.8391E+01   0.0000E+00  0.0000
   8.8391E+01   9.0541E+01   0.0000E+00  0.0000
   9.0541E+01   9.2744E+01   0.0000E+00  0.0000
   9.2744E+01   9.5001E+01   0.0000E+00  0.0000
   9.5001E+01   9.7312E+01   0.0000E+00  0.0000
   9.7312E+01   9.9680E+01   0.0000E+00  0.0000
   9.9680E+01   1.0211E+02   0.0000E+00  0.0000
   1.0211E+02   1.0459E+02   0.0000E+00  0.0000
   1.0459E+02   1.0713E+02   0.0000E+00  0.0000
   1.0713E+02   1.0974E+02   0.0000E+00  0.0000
   1.0974E+02   1.1241E+02   0.0000E+00  0.0000
   1.1241E+02   1.1515E+02   0.0000E+00  0.0000
   1.1515E+02   1.1795E+02   0.0000E+00  0.0000
   1.1795E+02   1.2082E+02   0.0000E+00  0.0000
   1.2082E+02   1.2376E+02   0.0000E+00  0.0000
   1.2376E+02   1.2677E+02   0.0000E+00  0.0000
   1.2677E+02   1.2985E+02   0.0000E+00  0.0000
   1.2985E+02   1.3301E+02   0.0000E+00  0.0000
   1.3301E+02   1.3625E+02   0.0000E+00  0.0000
   1.3625E+02   1.3956E+02   0.0000E+00  0.0000
   1.3956E+02   1.4296E+02   0.0000E+00  0.0000
   1.4296E+02   1.4644E+02   0.0000E+00  0.0000
   1.4644E+02   1.5000E+02   0.0000E+00  0.0000

#   sum over                 1.0614E-05
'no. =    1   reg = 114 - 214'
msuc: {\huge [t-cross] in region mesh}
msdr: {\it plotted by \ANGEL \version}
msdl: {\it calculated by \PHITS  3.26}
wt: s(0.7)
\vspace{-3}
  region surface crossing
  area  &=&   1.0000E+00 [cm^2]
e:
 
# Information for Restart Calculation
# This calculation was newly started
# istdev =  2 # 1:Batch variance, 2:History variance
# resc2  = 5.00000000000000000E+09 # Total source weight or Total source weight / maxcas
# resc3  = 5.00000000000000000E+09 # Total history number or Total batch number
# maxcas =   100000000 # History / Batch, only used for istdev=1
# bitrseed = 0110100000100010111000001110001111001110100100011111101000111001 # bit data of rseed
