[ T-Cross ]
    title = [t-cross] in region mesh
     mesh =  reg            # mesh type is region-wise
      reg =    1            # number of crossing regions
      non     r-from    r-to       area
      1       100       200        1.000000    
   e-type =    3            # e-mesh is log given by emin, emax and ne
     emin =  1.0000000E-02  # minimum value of e-mesh points
     emax =   150.0000      # maximum value of e-mesh points
#    edel =  2.4039514E-02  # mesh width of e-mesh points
       ne =    400          # number of e-mesh points
#    data = ( e(i), i = 1, ne + 1 )
#           1.00000E-02  1.02433E-02  1.04925E-02  1.07478E-02  1.10093E-02
#           1.12772E-02  1.15516E-02  1.18326E-02  1.21205E-02  1.24154E-02
#           1.27175E-02  1.30269E-02  1.33439E-02  1.36686E-02  1.40011E-02
#           1.43418E-02  1.46907E-02  1.50482E-02  1.54143E-02  1.57894E-02
#           1.61735E-02  1.65670E-02  1.69701E-02  1.73830E-02  1.78060E-02
#           1.82392E-02  1.86830E-02  1.91375E-02  1.96032E-02  2.00801E-02
#           2.05687E-02  2.10692E-02  2.15818E-02  2.21069E-02  2.26448E-02
#           2.31957E-02  2.37601E-02  2.43382E-02  2.49304E-02  2.55369E-02
#           2.61583E-02  2.67947E-02  2.74467E-02  2.81145E-02  2.87985E-02
#           2.94992E-02  3.02169E-02  3.09521E-02  3.17052E-02  3.24766E-02
#           3.32668E-02  3.40762E-02  3.49053E-02  3.57546E-02  3.66246E-02
#           3.75157E-02  3.84284E-02  3.93634E-02  4.03212E-02  4.13022E-02
#           4.23071E-02  4.33365E-02  4.43909E-02  4.54710E-02  4.65773E-02
#           4.77106E-02  4.88714E-02  5.00605E-02  5.12785E-02  5.25262E-02
#           5.38042E-02  5.51133E-02  5.64542E-02  5.78278E-02  5.92348E-02
#           6.06760E-02  6.21523E-02  6.36645E-02  6.52135E-02  6.68002E-02
#           6.84255E-02  7.00904E-02  7.17957E-02  7.35426E-02  7.53319E-02
#           7.71648E-02  7.90423E-02  8.09655E-02  8.29354E-02  8.49533E-02
#           8.70203E-02  8.91376E-02  9.13064E-02  9.35279E-02  9.58035E-02
#           9.81345E-02  1.00522E-01  1.02968E-01  1.05473E-01  1.08040E-01
#           1.10668E-01  1.13361E-01  1.16119E-01  1.18944E-01  1.21838E-01
#           1.24803E-01  1.27839E-01  1.30950E-01  1.34136E-01  1.37399E-01
#           1.40742E-01  1.44167E-01  1.47675E-01  1.51268E-01  1.54948E-01
#           1.58718E-01  1.62580E-01  1.66535E-01  1.70587E-01  1.74738E-01
#           1.78989E-01  1.83344E-01  1.87805E-01  1.92375E-01  1.97055E-01
#           2.01850E-01  2.06761E-01  2.11792E-01  2.16945E-01  2.22223E-01
#           2.27630E-01  2.33169E-01  2.38842E-01  2.44653E-01  2.50605E-01
#           2.56703E-01  2.62949E-01  2.69346E-01  2.75900E-01  2.82613E-01
#           2.89489E-01  2.96532E-01  3.03747E-01  3.11138E-01  3.18708E-01
#           3.26462E-01  3.34405E-01  3.42542E-01  3.50876E-01  3.59413E-01
#           3.68158E-01  3.77116E-01  3.86291E-01  3.95690E-01  4.05317E-01
#           4.15179E-01  4.25281E-01  4.35628E-01  4.46227E-01  4.57084E-01
#           4.68205E-01  4.79597E-01  4.91266E-01  5.03219E-01  5.15463E-01
#           5.28005E-01  5.40851E-01  5.54011E-01  5.67490E-01  5.81298E-01
#           5.95441E-01  6.09929E-01  6.24769E-01  6.39970E-01  6.55541E-01
#           6.71491E-01  6.87828E-01  7.04564E-01  7.21706E-01  7.39266E-01
#           7.57253E-01  7.75678E-01  7.94551E-01  8.13883E-01  8.33685E-01
#           8.53969E-01  8.74747E-01  8.96030E-01  9.17831E-01  9.40163E-01
#           9.63038E-01  9.86469E-01  1.01047E+00  1.03506E+00  1.06024E+00
#           1.08604E+00  1.11246E+00  1.13953E+00  1.16725E+00  1.19565E+00
#           1.22474E+00  1.25454E+00  1.28507E+00  1.31633E+00  1.34836E+00
#           1.38117E+00  1.41477E+00  1.44920E+00  1.48446E+00  1.52057E+00
#           1.55757E+00  1.59547E+00  1.63429E+00  1.67405E+00  1.71478E+00
#           1.75650E+00  1.79924E+00  1.84302E+00  1.88786E+00  1.93379E+00
#           1.98084E+00  2.02904E+00  2.07841E+00  2.12898E+00  2.18078E+00
#           2.23384E+00  2.28819E+00  2.34386E+00  2.40089E+00  2.45930E+00
#           2.51914E+00  2.58043E+00  2.64322E+00  2.70753E+00  2.77341E+00
#           2.84088E+00  2.91001E+00  2.98081E+00  3.05333E+00  3.12762E+00
#           3.20372E+00  3.28167E+00  3.36152E+00  3.44330E+00  3.52708E+00
#           3.61290E+00  3.70080E+00  3.79085E+00  3.88308E+00  3.97756E+00
#           4.07434E+00  4.17347E+00  4.27501E+00  4.37903E+00  4.48557E+00
#           4.59471E+00  4.70650E+00  4.82102E+00  4.93832E+00  5.05847E+00
#           5.18155E+00  5.30762E+00  5.43676E+00  5.56904E+00  5.70453E+00
#           5.84333E+00  5.98550E+00  6.13114E+00  6.28031E+00  6.43312E+00
#           6.58964E+00  6.74997E+00  6.91420E+00  7.08243E+00  7.25475E+00
#           7.43126E+00  7.61207E+00  7.79728E+00  7.98700E+00  8.18133E+00
#           8.38038E+00  8.58428E+00  8.79315E+00  9.00709E+00  9.22624E+00
#           9.45072E+00  9.68067E+00  9.91620E+00  1.01575E+01  1.04046E+01
#           1.06578E+01  1.09171E+01  1.11827E+01  1.14548E+01  1.17335E+01
#           1.20190E+01  1.23114E+01  1.26109E+01  1.29178E+01  1.32321E+01
#           1.35540E+01  1.38838E+01  1.42216E+01  1.45676E+01  1.49221E+01
#           1.52851E+01  1.56570E+01  1.60380E+01  1.64282E+01  1.68279E+01
#           1.72374E+01  1.76568E+01  1.80864E+01  1.85264E+01  1.89772E+01
#           1.94389E+01  1.99119E+01  2.03963E+01  2.08926E+01  2.14009E+01
#           2.19216E+01  2.24550E+01  2.30014E+01  2.35610E+01  2.41343E+01
#           2.47215E+01  2.53230E+01  2.59391E+01  2.65702E+01  2.72167E+01
#           2.78789E+01  2.85572E+01  2.92520E+01  2.99637E+01  3.06928E+01
#           3.14396E+01  3.22045E+01  3.29881E+01  3.37907E+01  3.46128E+01
#           3.54550E+01  3.63177E+01  3.72013E+01  3.81064E+01  3.90336E+01
#           3.99833E+01  4.09561E+01  4.19526E+01  4.29734E+01  4.40189E+01
#           4.50900E+01  4.61870E+01  4.73108E+01  4.84619E+01  4.96410E+01
#           5.08488E+01  5.20860E+01  5.33533E+01  5.46514E+01  5.59812E+01
#           5.73432E+01  5.87384E+01  6.01676E+01  6.16315E+01  6.31311E+01
#           6.46671E+01  6.62405E+01  6.78522E+01  6.95031E+01  7.11941E+01
#           7.29263E+01  7.47007E+01  7.65182E+01  7.83800E+01  8.02870E+01
#           8.22405E+01  8.42414E+01  8.62911E+01  8.83906E+01  9.05412E+01
#           9.27442E+01  9.50007E+01  9.73122E+01  9.96799E+01  1.02105E+02
#           1.04589E+02  1.07134E+02  1.09741E+02  1.12411E+02  1.15146E+02
#           1.17948E+02  1.20817E+02  1.23757E+02  1.26768E+02  1.29852E+02
#           1.33012E+02  1.36248E+02  1.39563E+02  1.42959E+02  1.46437E+02
#           1.50000E+02
     unit =    2            # unit is [1/cm^2/(MeV/n)/source]
     axis =  eng            # axis of output
     file = detector-01.out  # file name of output for the above axis
   output = f-curr          # surface crossing forward current spectrum
     part =  neutron  
# kf/name :  2112     
#    used :        main (  %)        temp (  %)       total (  %)
#  memory :         414 (  0)           0 (  0)         414 (  0)

#------------------------------------------------------------------------------
#newpage:
#   no. =    1   reg = 100 - 200

x: Energy [MeV/n]
y:  F-Curr [1/cm^2/(MeV/n)/source]         
p: xlog ylog afac(0.8) form(0.9)
h: n            x            y(neutron ),hh0l   n 
#  e-lower      e-upper      neutron     r.err 
   1.0000E-02   1.0243E-02   3.4961E-04  0.1526
   1.0243E-02   1.0493E-02   3.4624E-04  0.1520
   1.0493E-02   1.0748E-02   4.4237E-04  0.1327
   1.0748E-02   1.1009E-02   2.6004E-04  0.1715
   1.1009E-02   1.1277E-02   3.6350E-04  0.1425
   1.1277E-02   1.1552E-02   3.5716E-04  0.1429
   1.1552E-02   1.1833E-02   3.4868E-04  0.1429
   1.1833E-02   1.2121E-02   3.3111E-04  0.1441
   1.2121E-02   1.2415E-02   2.5205E-04  0.1637
   1.2415E-02   1.2718E-02   3.0069E-04  0.1479
   1.2718E-02   1.3027E-02   3.1995E-04  0.1418
   1.3027E-02   1.3344E-02   3.1810E-04  0.1404
   1.3344E-02   1.3669E-02   2.6812E-04  0.1509
   1.3669E-02   1.4001E-02   2.7363E-04  0.1478
   1.4001E-02   1.4342E-02   3.0572E-04  0.1375
   1.4342E-02   1.4691E-02   2.6078E-04  0.1478
   1.4691E-02   1.5048E-02   3.4203E-04  0.1271
   1.5048E-02   1.5414E-02   2.7552E-04  0.1403
   1.5414E-02   1.5789E-02   2.9565E-04  0.1339
   1.5789E-02   1.6174E-02   2.5630E-04  0.1423
   1.6174E-02   1.6567E-02   2.4024E-04  0.1451
   1.6567E-02   1.6970E-02   2.5097E-04  0.1400
   1.6970E-02   1.7383E-02   2.1999E-04  0.1479
   1.7383E-02   1.7806E-02   2.5249E-04  0.1365
   1.7806E-02   1.8239E-02   2.4084E-04  0.1374
   1.8239E-02   1.8683E-02   1.9460E-04  0.1519
   1.8683E-02   1.9138E-02   2.3194E-04  0.1372
   1.9138E-02   1.9603E-02   2.4912E-04  0.1313
   1.9603E-02   2.0080E-02   2.3579E-04  0.1331
   2.0080E-02   2.0569E-02   1.6579E-04  0.1566
   2.0569E-02   2.1069E-02   2.2480E-04  0.1331
   2.1069E-02   2.1582E-02   2.0288E-04  0.1387
   2.1582E-02   2.2107E-02   2.2003E-04  0.1311
   2.2107E-02   2.2645E-02   1.9096E-04  0.1391
   2.2645E-02   2.3196E-02   2.0034E-04  0.1338
   2.3196E-02   2.3760E-02   1.9844E-04  0.1327
   2.3760E-02   2.4338E-02   1.7287E-04  0.1406
   2.4338E-02   2.4930E-02   2.0354E-04  0.1286
   2.4930E-02   2.5537E-02   1.6219E-04  0.1424
   2.5537E-02   2.6158E-02   1.8917E-04  0.1299
   2.6158E-02   2.6795E-02   1.7912E-04  0.1325
   2.6795E-02   2.7447E-02   1.5843E-04  0.1385
   2.7447E-02   2.8114E-02   2.0712E-04  0.1201
   2.8114E-02   2.8799E-02   1.5204E-04  0.1387
   2.8799E-02   2.9499E-02   1.6389E-04  0.1316
   2.9499E-02   3.0217E-02   1.3779E-04  0.1417
   3.0217E-02   3.0952E-02   1.5616E-04  0.1309
   3.0952E-02   3.1705E-02   1.6326E-04  0.1272
   3.1705E-02   3.2477E-02   1.4916E-04  0.1314
   3.2477E-02   3.3267E-02   1.3520E-04  0.1364
   3.3267E-02   3.4076E-02   1.4133E-04  0.1320
   3.4076E-02   3.4905E-02   1.4639E-04  0.1279
   3.4905E-02   3.5755E-02   1.1890E-04  0.1402
   3.5755E-02   3.6625E-02   1.3193E-04  0.1317
   3.6625E-02   3.7516E-02   1.3586E-04  0.1281
   3.7516E-02   3.8428E-02   1.0346E-04  0.1453
   3.8428E-02   3.9363E-02   1.5053E-04  0.1189
   3.9363E-02   4.0321E-02   1.2099E-04  0.1307
   4.0321E-02   4.1302E-02   1.4875E-04  0.1166
   4.1302E-02   4.2307E-02   1.1874E-04  0.1289
   4.2307E-02   4.3337E-02   1.4135E-04  0.1169
   4.3337E-02   4.4391E-02   1.1291E-04  0.1292
   4.4391E-02   4.5471E-02   9.2605E-05  0.1403
   4.5471E-02   4.6577E-02   1.3181E-04  0.1165
   4.6577E-02   4.7711E-02   1.1068E-04  0.1259
   4.7711E-02   4.8871E-02   9.6934E-05  0.1331
   4.8871E-02   5.0061E-02   9.6043E-05  0.1315
   5.0061E-02   5.1279E-02   9.7621E-05  0.1293
   5.1279E-02   5.2526E-02   8.3991E-05  0.1377
   5.2526E-02   5.3804E-02   7.8673E-05  0.1408
   5.3804E-02   5.5113E-02   9.0952E-05  0.1292
   5.5113E-02   5.6454E-02   1.0965E-04  0.1163
   5.6454E-02   5.7828E-02   9.8854E-05  0.1204
   5.7828E-02   5.9235E-02   8.5288E-05  0.1291
   5.9235E-02   6.0676E-02   8.6410E-05  0.1265
   6.0676E-02   6.2152E-02   8.4456E-05  0.1257
   6.2152E-02   6.3665E-02   6.6388E-05  0.1409
   6.3665E-02   6.5214E-02   6.4557E-05  0.1414
   6.5214E-02   6.6800E-02   5.8947E-05  0.1453
   6.6800E-02   6.8426E-02   8.2922E-05  0.1215
   6.8426E-02   7.0090E-02   7.0479E-05  0.1301
   7.0090E-02   7.1796E-02   7.8749E-05  0.1214
   7.1796E-02   7.3543E-02   6.6409E-05  0.1306
   7.3543E-02   7.5332E-02   7.3938E-05  0.1228
   7.5332E-02   7.7165E-02   6.6989E-05  0.1273
   7.7165E-02   7.9042E-02   5.9538E-05  0.1331
   7.9042E-02   8.0965E-02   7.5996E-05  0.1163
   8.0965E-02   8.2935E-02   6.2946E-05  0.1270
   8.2935E-02   8.4953E-02   6.4766E-05  0.1228
   8.4953E-02   8.7020E-02   9.2710E-05  0.1015
   8.7020E-02   8.9138E-02   5.8512E-05  0.1264
   8.9138E-02   9.1306E-02   5.1077E-05  0.1332
   9.1306E-02   9.3528E-02   6.8202E-05  0.1145
   9.3528E-02   9.5804E-02   6.1759E-05  0.1191
   9.5804E-02   9.8134E-02   7.8376E-05  0.1045
   9.8134E-02   1.0052E-01   6.2335E-05  0.1157
   1.0052E-01   1.0297E-01   5.2887E-05  0.1239
   1.0297E-01   1.0547E-01   5.4820E-05  0.1202
   1.0547E-01   1.0804E-01   5.6892E-05  0.1170
   1.0804E-01   1.1067E-01   4.9454E-05  0.1240
   1.1067E-01   1.1336E-01   5.1064E-05  0.1202
   1.1336E-01   1.1612E-01   4.9107E-05  0.1211
   1.1612E-01   1.1894E-01   4.8030E-05  0.1202
   1.1894E-01   1.2184E-01   6.3294E-05  0.1042
   1.2184E-01   1.2480E-01   4.6831E-05  0.1197
   1.2480E-01   1.2784E-01   3.8402E-05  0.1307
   1.2784E-01   1.3095E-01   3.6654E-05  0.1317
   1.3095E-01   1.3414E-01   4.5401E-05  0.1174
   1.3414E-01   1.3740E-01   4.5129E-05  0.1161
   1.3740E-01   1.4074E-01   4.2132E-05  0.1189
   1.4074E-01   1.4417E-01   4.3178E-05  0.1158
   1.4417E-01   1.4767E-01   3.3614E-05  0.1296
   1.4767E-01   1.5127E-01   3.4867E-05  0.1258
   1.5127E-01   1.5495E-01   3.8039E-05  0.1195
   1.5495E-01   1.5872E-01   3.6385E-05  0.1203
   1.5872E-01   1.6258E-01   3.3059E-05  0.1246
   1.6258E-01   1.6654E-01   2.8495E-05  0.1321
   1.6654E-01   1.7059E-01   3.4815E-05  0.1187
   1.7059E-01   1.7474E-01   3.6622E-05  0.1147
   1.7474E-01   1.7899E-01   3.7270E-05  0.1122
   1.7899E-01   1.8334E-01   3.0951E-05  0.1215
   1.8334E-01   1.8781E-01   2.9142E-05  0.1240
   1.8781E-01   1.9237E-01   2.9499E-05  0.1215
   1.9237E-01   1.9706E-01   3.2162E-05  0.1151
   1.9706E-01   2.0185E-01   2.4289E-05  0.1309
   2.0185E-01   2.0676E-01   3.9502E-05  0.1011
   2.0676E-01   2.1179E-01   2.7340E-05  0.1202
   2.1179E-01   2.1694E-01   2.9174E-05  0.1152
   2.1694E-01   2.2222E-01   3.7108E-05  0.1007
   2.2222E-01   2.2763E-01   3.5539E-05  0.1016
   2.2763E-01   2.3317E-01   4.5387E-05  0.0891
   2.3317E-01   2.3884E-01   4.1423E-05  0.0922
   2.3884E-01   2.4465E-01   4.4389E-05  0.0878
   2.4465E-01   2.5061E-01   4.0991E-05  0.0905
   2.5061E-01   2.5670E-01   5.1106E-05  0.0799
   2.5670E-01   2.6295E-01   4.1064E-05  0.0878
   2.6295E-01   2.6935E-01   5.1808E-05  0.0775
   2.6935E-01   2.7590E-01   4.2017E-05  0.0847
   2.7590E-01   2.8261E-01   5.1770E-05  0.0756
   2.8261E-01   2.8949E-01   5.3447E-05  0.0736
   2.8949E-01   2.9653E-01   5.2312E-05  0.0735
   2.9653E-01   3.0375E-01   4.6046E-05  0.0773
   3.0375E-01   3.1114E-01   5.6500E-05  0.0691
   3.1114E-01   3.1871E-01   5.4582E-05  0.0694
   3.1871E-01   3.2646E-01   5.1810E-05  0.0703
   3.2646E-01   3.3441E-01   6.1170E-05  0.0640
   3.3441E-01   3.4254E-01   5.5524E-05  0.0663
   3.4254E-01   3.5088E-01   6.4883E-05  0.0606
   3.5088E-01   3.5941E-01   5.6420E-05  0.0642
   3.5941E-01   3.6816E-01   6.3328E-05  0.0599
   3.6816E-01   3.7712E-01   6.3265E-05  0.0591
   3.7712E-01   3.8629E-01   6.3406E-05  0.0584
   3.8629E-01   3.9569E-01   6.4714E-05  0.0571
   3.9569E-01   4.0532E-01   6.8356E-05  0.0549
   4.0532E-01   4.1518E-01   6.8149E-05  0.0544
   4.1518E-01   4.2528E-01   7.0988E-05  0.0527
   4.2528E-01   4.3563E-01   7.7250E-05  0.0498
   4.3563E-01   4.4623E-01   7.2805E-05  0.0507
   4.4623E-01   4.5708E-01   6.5852E-05  0.0527
   4.5708E-01   4.6821E-01   7.1867E-05  0.0499
   4.6821E-01   4.7960E-01   8.0593E-05  0.0465
   4.7960E-01   4.9127E-01   7.5119E-05  0.0476
   4.9127E-01   5.0322E-01   7.7365E-05  0.0463
   5.0322E-01   5.1546E-01   8.1356E-05  0.0447
   5.1546E-01   5.2800E-01   8.2124E-05  0.0439
   5.2800E-01   5.4085E-01   8.4743E-05  0.0428
   5.4085E-01   5.5401E-01   8.0441E-05  0.0433
   5.5401E-01   5.6749E-01   8.2240E-05  0.0423
   5.6749E-01   5.8130E-01   7.9301E-05  0.0426
   5.8130E-01   5.9544E-01   8.6013E-05  0.0404
   5.9544E-01   6.0993E-01   8.3708E-05  0.0405
   6.0993E-01   6.2477E-01   8.4695E-05  0.0397
   6.2477E-01   6.3997E-01   9.0410E-05  0.0381
   6.3997E-01   6.5554E-01   9.0182E-05  0.0376
   6.5554E-01   6.7149E-01   8.9333E-05  0.0373
   6.7149E-01   6.8783E-01   8.9930E-05  0.0368
   6.8783E-01   7.0456E-01   8.9982E-05  0.0363
   7.0456E-01   7.2171E-01   8.3333E-05  0.0372
   7.2171E-01   7.3927E-01   8.5217E-05  0.0364
   7.3927E-01   7.5725E-01   8.7005E-05  0.0356
   7.5725E-01   7.7568E-01   8.9247E-05  0.0347
   7.7568E-01   7.9455E-01   9.1590E-05  0.0339
   7.9455E-01   8.1388E-01   8.6621E-05  0.0344
   8.1388E-01   8.3368E-01   8.3955E-05  0.0346
   8.3368E-01   8.5397E-01   8.4935E-05  0.0340
   8.5397E-01   8.7475E-01   8.7686E-05  0.0330
   8.7475E-01   8.9603E-01   8.8338E-05  0.0325
   8.9603E-01   9.1783E-01   9.0997E-05  0.0317
   9.1783E-01   9.4016E-01   8.4410E-05  0.0325
   9.4016E-01   9.6304E-01   8.8063E-05  0.0314
   9.6304E-01   9.8647E-01   9.1106E-05  0.0305
   9.8647E-01   1.0105E+00   8.5477E-05  0.0311
   1.0105E+00   1.0351E+00   8.8320E-05  0.0302
   1.0351E+00   1.0602E+00   8.1210E-05  0.0312
   1.0602E+00   1.0860E+00   8.9872E-05  0.0293
   1.0860E+00   1.1125E+00   8.6941E-05  0.0294
   1.1125E+00   1.1395E+00   8.3979E-05  0.0296
   1.1395E+00   1.1673E+00   8.8209E-05  0.0285
   1.1673E+00   1.1957E+00   8.5569E-05  0.0286
   1.1957E+00   1.2247E+00   8.6184E-05  0.0282
   1.2247E+00   1.2545E+00   8.4495E-05  0.0281
   1.2545E+00   1.2851E+00   8.1463E-05  0.0282
   1.2851E+00   1.3163E+00   8.2983E-05  0.0277
   1.3163E+00   1.3484E+00   8.6598E-05  0.0268
   1.3484E+00   1.3812E+00   8.1945E-05  0.0272
   1.3812E+00   1.4148E+00   8.4944E-05  0.0264
   1.4148E+00   1.4492E+00   8.3087E-05  0.0263
   1.4492E+00   1.4845E+00   8.2051E-05  0.0262
   1.4845E+00   1.5206E+00   8.3096E-05  0.0257
   1.5206E+00   1.5576E+00   8.2404E-05  0.0255
   1.5576E+00   1.5955E+00   8.2694E-05  0.0252
   1.5955E+00   1.6343E+00   8.3763E-05  0.0247
   1.6343E+00   1.6741E+00   7.7121E-05  0.0254
   1.6741E+00   1.7148E+00   8.3844E-05  0.0241
   1.7148E+00   1.7565E+00   7.9804E-05  0.0244
   1.7565E+00   1.7992E+00   8.0749E-05  0.0240
   1.7992E+00   1.8430E+00   8.0190E-05  0.0238
   1.8430E+00   1.8879E+00   7.8933E-05  0.0237
   1.8879E+00   1.9338E+00   8.0803E-05  0.0231
   1.9338E+00   1.9808E+00   7.6806E-05  0.0234
   1.9808E+00   2.0290E+00   8.2192E-05  0.0224
   2.0290E+00   2.0784E+00   8.2518E-05  0.0221
   2.0784E+00   2.1290E+00   7.9645E-05  0.0222
   2.1290E+00   2.1808E+00   7.8226E-05  0.0221
   2.1808E+00   2.2338E+00   7.8512E-05  0.0218
   2.2338E+00   2.2882E+00   7.3670E-05  0.0222
   2.2882E+00   2.3439E+00   7.8320E-05  0.0213
   2.3439E+00   2.4009E+00   7.8132E-05  0.0211
   2.4009E+00   2.4593E+00   7.7160E-05  0.0210
   2.4593E+00   2.5191E+00   7.8131E-05  0.0206
   2.5191E+00   2.5804E+00   7.5449E-05  0.0207
   2.5804E+00   2.6432E+00   7.7147E-05  0.0203
   2.6432E+00   2.7075E+00   7.7232E-05  0.0200
   2.7075E+00   2.7734E+00   7.5180E-05  0.0200
   2.7734E+00   2.8409E+00   7.3793E-05  0.0200
   2.8409E+00   2.9100E+00   7.5847E-05  0.0195
   2.9100E+00   2.9808E+00   7.5047E-05  0.0193
   2.9808E+00   3.0533E+00   7.4231E-05  0.0192
   3.0533E+00   3.1276E+00   7.4779E-05  0.0189
   3.1276E+00   3.2037E+00   7.3380E-05  0.0189
   3.2037E+00   3.2817E+00   7.7275E-05  0.0182
   3.2817E+00   3.3615E+00   7.3315E-05  0.0184
   3.3615E+00   3.4433E+00   7.2339E-05  0.0183
   3.4433E+00   3.5271E+00   7.1278E-05  0.0183
   3.5271E+00   3.6129E+00   7.4927E-05  0.0176
   3.6129E+00   3.7008E+00   7.1658E-05  0.0178
   3.7008E+00   3.7908E+00   7.1479E-05  0.0176
   3.7908E+00   3.8831E+00   7.1235E-05  0.0174
   3.8831E+00   3.9776E+00   6.9783E-05  0.0174
   3.9776E+00   4.0743E+00   6.9648E-05  0.0172
   4.0743E+00   4.1735E+00   7.3278E-05  0.0165
   4.1735E+00   4.2750E+00   7.3243E-05  0.0164
   4.2750E+00   4.3790E+00   7.4130E-05  0.0161
   4.3790E+00   4.4856E+00   7.0746E-05  0.0163
   4.4856E+00   4.5947E+00   7.1334E-05  0.0160
   4.5947E+00   4.7065E+00   7.0642E-05  0.0159
   4.7065E+00   4.8210E+00   6.9908E-05  0.0158
   4.8210E+00   4.9383E+00   7.1814E-05  0.0154
   4.9383E+00   5.0585E+00   7.1022E-05  0.0153
   5.0585E+00   5.1815E+00   7.1384E-05  0.0151
   5.1815E+00   5.3076E+00   7.2950E-05  0.0147
   5.3076E+00   5.4368E+00   7.3665E-05  0.0145
   5.4368E+00   5.5690E+00   7.3518E-05  0.0143
   5.5690E+00   5.7045E+00   7.3768E-05  0.0141
   5.7045E+00   5.8433E+00   7.3874E-05  0.0140
   5.8433E+00   5.9855E+00   7.3348E-05  0.0138
   5.9855E+00   6.1311E+00   7.5344E-05  0.0135
   6.1311E+00   6.2803E+00   7.6434E-05  0.0132
   6.2803E+00   6.4331E+00   7.4734E-05  0.0132
   6.4331E+00   6.5896E+00   7.8342E-05  0.0128
   6.5896E+00   6.7500E+00   7.8288E-05  0.0126
   6.7500E+00   6.9142E+00   7.9425E-05  0.0124
   6.9142E+00   7.0824E+00   7.7412E-05  0.0124
   7.0824E+00   7.2548E+00   7.9818E-05  0.0120
   7.2548E+00   7.4313E+00   8.2441E-05  0.0117
   7.4313E+00   7.6121E+00   8.2690E-05  0.0116
   7.6121E+00   7.7973E+00   8.4903E-05  0.0113
   7.7973E+00   7.9870E+00   8.4603E-05  0.0112
   7.9870E+00   8.1813E+00   8.3945E-05  0.0111
   8.1813E+00   8.3804E+00   8.6964E-05  0.0107
   8.3804E+00   8.5843E+00   8.5603E-05  0.0107
   8.5843E+00   8.7931E+00   9.1008E-05  0.0103
   8.7931E+00   9.0071E+00   9.2841E-05  0.0100
   9.0071E+00   9.2262E+00   9.3619E-05  0.0099
   9.2262E+00   9.4507E+00   9.5392E-05  0.0097
   9.4507E+00   9.6807E+00   9.6387E-05  0.0095
   9.6807E+00   9.9162E+00   9.9415E-05  0.0092
   9.9162E+00   1.0157E+01   1.0088E-04  0.0091
   1.0157E+01   1.0405E+01   1.0308E-04  0.0089
   1.0405E+01   1.0658E+01   1.0468E-04  0.0087
   1.0658E+01   1.0917E+01   1.0614E-04  0.0085
   1.0917E+01   1.1183E+01   1.1047E-04  0.0083
   1.1183E+01   1.1455E+01   1.1139E-04  0.0081
   1.1455E+01   1.1733E+01   1.1373E-04  0.0079
   1.1733E+01   1.2019E+01   1.1593E-04  0.0078
   1.2019E+01   1.2311E+01   1.1940E-04  0.0076
   1.2311E+01   1.2611E+01   1.2355E-04  0.0074
   1.2611E+01   1.2918E+01   1.2106E-04  0.0073
   1.2918E+01   1.3232E+01   1.2432E-04  0.0072
   1.3232E+01   1.3554E+01   1.2867E-04  0.0069
   1.3554E+01   1.3884E+01   1.3169E-04  0.0068
   1.3884E+01   1.4222E+01   1.3467E-04  0.0066
   1.4222E+01   1.4568E+01   1.3452E-04  0.0066
   1.4568E+01   1.4922E+01   1.3910E-04  0.0064
   1.4922E+01   1.5285E+01   1.4231E-04  0.0062
   1.5285E+01   1.5657E+01   1.4637E-04  0.0061
   1.5657E+01   1.6038E+01   1.4759E-04  0.0060
   1.6038E+01   1.6428E+01   1.4783E-04  0.0059
   1.6428E+01   1.6828E+01   1.5209E-04  0.0057
   1.6828E+01   1.7237E+01   1.5460E-04  0.0056
   1.7237E+01   1.7657E+01   1.5734E-04  0.0055
   1.7657E+01   1.8086E+01   1.5948E-04  0.0054
   1.8086E+01   1.8526E+01   1.6348E-04  0.0053
   1.8526E+01   1.8977E+01   1.6606E-04  0.0052
   1.8977E+01   1.9439E+01   1.6547E-04  0.0051
   1.9439E+01   1.9912E+01   1.6770E-04  0.0050
   1.9912E+01   2.0396E+01   1.7236E-04  0.0049
   2.0396E+01   2.0893E+01   1.7529E-04  0.0048
   2.0893E+01   2.1401E+01   1.7627E-04  0.0047
   2.1401E+01   2.1922E+01   1.7693E-04  0.0047
   2.1922E+01   2.2455E+01   1.7739E-04  0.0046
   2.2455E+01   2.3001E+01   1.7695E-04  0.0045
   2.3001E+01   2.3561E+01   1.7868E-04  0.0045
   2.3561E+01   2.4134E+01   1.7919E-04  0.0044
   2.4134E+01   2.4721E+01   1.7838E-04  0.0044
   2.4721E+01   2.5323E+01   1.7644E-04  0.0043
   2.5323E+01   2.5939E+01   1.7256E-04  0.0043
   2.5939E+01   2.6570E+01   1.7111E-04  0.0043
   2.6570E+01   2.7217E+01   1.6926E-04  0.0043
   2.7217E+01   2.7879E+01   1.6680E-04  0.0043
   2.7879E+01   2.8557E+01   1.6038E-04  0.0043
   2.8557E+01   2.9252E+01   1.5549E-04  0.0043
   2.9252E+01   2.9964E+01   1.5045E-04  0.0043
   2.9964E+01   3.0693E+01   1.4317E-04  0.0044
   3.0693E+01   3.1440E+01   1.3621E-04  0.0044
   3.1440E+01   3.2205E+01   1.2865E-04  0.0045
   3.2205E+01   3.2988E+01   1.1943E-04  0.0046
   3.2988E+01   3.3791E+01   1.1173E-04  0.0047
   3.3791E+01   3.4613E+01   1.0237E-04  0.0049
   3.4613E+01   3.5455E+01   9.3856E-05  0.0050
   3.5455E+01   3.6318E+01   8.5442E-05  0.0052
   3.6318E+01   3.7201E+01   7.6855E-05  0.0054
   3.7201E+01   3.8106E+01   6.9280E-05  0.0056
   3.8106E+01   3.9034E+01   6.1508E-05  0.0059
   3.9034E+01   3.9983E+01   5.4616E-05  0.0062
   3.9983E+01   4.0956E+01   4.7998E-05  0.0065
   4.0956E+01   4.1953E+01   4.1690E-05  0.0069
   4.1953E+01   4.2973E+01   3.6556E-05  0.0073
   4.2973E+01   4.4019E+01   3.1870E-05  0.0077
   4.4019E+01   4.5090E+01   2.7822E-05  0.0082
   4.5090E+01   4.6187E+01   2.3626E-05  0.0088
   4.6187E+01   4.7311E+01   2.0780E-05  0.0093
   4.7311E+01   4.8462E+01   1.7901E-05  0.0099
   4.8462E+01   4.9641E+01   1.5496E-05  0.0105
   4.9641E+01   5.0849E+01   1.3303E-05  0.0112
   5.0849E+01   5.2086E+01   1.1848E-05  0.0117
   5.2086E+01   5.3353E+01   1.0070E-05  0.0125
   5.3353E+01   5.4651E+01   9.0592E-06  0.0130
   5.4651E+01   5.5981E+01   8.0363E-06  0.0137
   5.5981E+01   5.7343E+01   6.9086E-06  0.0146
   5.7343E+01   5.8738E+01   6.4005E-06  0.0150
   5.8738E+01   6.0168E+01   5.6943E-06  0.0157
   6.0168E+01   6.1632E+01   5.3295E-06  0.0160
   6.1632E+01   6.3131E+01   4.5801E-06  0.0171
   6.3131E+01   6.4667E+01   3.1575E-06  0.0203
   6.4667E+01   6.6240E+01   2.0020E-06  0.0252
   6.6240E+01   6.7852E+01   9.6917E-07  0.0358
   6.7852E+01   6.9503E+01   1.7082E-07  0.0842
   6.9503E+01   7.1194E+01   0.0000E+00  0.0000
   7.1194E+01   7.2926E+01   0.0000E+00  0.0000
   7.2926E+01   7.4701E+01   0.0000E+00  0.0000
   7.4701E+01   7.6518E+01   0.0000E+00  0.0000
   7.6518E+01   7.8380E+01   0.0000E+00  0.0000
   7.8380E+01   8.0287E+01   0.0000E+00  0.0000
   8.0287E+01   8.2240E+01   0.0000E+00  0.0000
   8.2240E+01   8.4241E+01   0.0000E+00  0.0000
   8.4241E+01   8.6291E+01   0.0000E+00  0.0000
   8.6291E+01   8.8391E+01   0.0000E+00  0.0000
   8.8391E+01   9.0541E+01   0.0000E+00  0.0000
   9.0541E+01   9.2744E+01   0.0000E+00  0.0000
   9.2744E+01   9.5001E+01   0.0000E+00  0.0000
   9.5001E+01   9.7312E+01   0.0000E+00  0.0000
   9.7312E+01   9.9680E+01   0.0000E+00  0.0000
   9.9680E+01   1.0211E+02   0.0000E+00  0.0000
   1.0211E+02   1.0459E+02   0.0000E+00  0.0000
   1.0459E+02   1.0713E+02   0.0000E+00  0.0000
   1.0713E+02   1.0974E+02   0.0000E+00  0.0000
   1.0974E+02   1.1241E+02   0.0000E+00  0.0000
   1.1241E+02   1.1515E+02   0.0000E+00  0.0000
   1.1515E+02   1.1795E+02   0.0000E+00  0.0000
   1.1795E+02   1.2082E+02   0.0000E+00  0.0000
   1.2082E+02   1.2376E+02   0.0000E+00  0.0000
   1.2376E+02   1.2677E+02   0.0000E+00  0.0000
   1.2677E+02   1.2985E+02   0.0000E+00  0.0000
   1.2985E+02   1.3301E+02   0.0000E+00  0.0000
   1.3301E+02   1.3625E+02   0.0000E+00  0.0000
   1.3625E+02   1.3956E+02   0.0000E+00  0.0000
   1.3956E+02   1.4296E+02   0.0000E+00  0.0000
   1.4296E+02   1.4644E+02   0.0000E+00  0.0000
   1.4644E+02   1.5000E+02   0.0000E+00  0.0000

#   sum over                 3.4975E-05
'no. =    1   reg = 100 - 200'
msuc: {\huge [t-cross] in region mesh}
msdr: {\it plotted by \ANGEL \version}
msdl: {\it calculated by \PHITS  3.26}
wt: s(0.7)
\vspace{-3}
  region surface crossing
  area  &=&   1.0000E+00 [cm^2]
e:
 
# Information for Restart Calculation
# This calculation was newly started
# istdev =  2 # 1:Batch variance, 2:History variance
# resc2  = 5.00000000000000000E+08 # Total source weight or Total source weight / maxcas
# resc3  = 5.00000000000000000E+08 # Total history number or Total batch number
# maxcas =   500000000 # History / Batch, only used for istdev=1
# bitrseed = 1101101111010011011000101101110001100110110010110001010100010001 # bit data of rseed
