[ T-Cross ]
    title = [t-cross] in region mesh
     mesh =  reg            # mesh type is region-wise
      reg =    1            # number of crossing regions
      non     r-from    r-to       area
      1       112       212        1.000000    
   e-type =    3            # e-mesh is log given by emin, emax and ne
     emin =  1.0000000E-02  # minimum value of e-mesh points
     emax =   150.0000      # maximum value of e-mesh points
#    edel =  2.4039514E-02  # mesh width of e-mesh points
       ne =    400          # number of e-mesh points
#    data = ( e(i), i = 1, ne + 1 )
#           1.00000E-02  1.02433E-02  1.04925E-02  1.07478E-02  1.10093E-02
#           1.12772E-02  1.15516E-02  1.18326E-02  1.21205E-02  1.24154E-02
#           1.27175E-02  1.30269E-02  1.33439E-02  1.36686E-02  1.40011E-02
#           1.43418E-02  1.46907E-02  1.50482E-02  1.54143E-02  1.57894E-02
#           1.61735E-02  1.65670E-02  1.69701E-02  1.73830E-02  1.78060E-02
#           1.82392E-02  1.86830E-02  1.91375E-02  1.96032E-02  2.00801E-02
#           2.05687E-02  2.10692E-02  2.15818E-02  2.21069E-02  2.26448E-02
#           2.31957E-02  2.37601E-02  2.43382E-02  2.49304E-02  2.55369E-02
#           2.61583E-02  2.67947E-02  2.74467E-02  2.81145E-02  2.87985E-02
#           2.94992E-02  3.02169E-02  3.09521E-02  3.17052E-02  3.24766E-02
#           3.32668E-02  3.40762E-02  3.49053E-02  3.57546E-02  3.66246E-02
#           3.75157E-02  3.84284E-02  3.93634E-02  4.03212E-02  4.13022E-02
#           4.23071E-02  4.33365E-02  4.43909E-02  4.54710E-02  4.65773E-02
#           4.77106E-02  4.88714E-02  5.00605E-02  5.12785E-02  5.25262E-02
#           5.38042E-02  5.51133E-02  5.64542E-02  5.78278E-02  5.92348E-02
#           6.06760E-02  6.21523E-02  6.36645E-02  6.52135E-02  6.68002E-02
#           6.84255E-02  7.00904E-02  7.17957E-02  7.35426E-02  7.53319E-02
#           7.71648E-02  7.90423E-02  8.09655E-02  8.29354E-02  8.49533E-02
#           8.70203E-02  8.91376E-02  9.13064E-02  9.35279E-02  9.58035E-02
#           9.81345E-02  1.00522E-01  1.02968E-01  1.05473E-01  1.08040E-01
#           1.10668E-01  1.13361E-01  1.16119E-01  1.18944E-01  1.21838E-01
#           1.24803E-01  1.27839E-01  1.30950E-01  1.34136E-01  1.37399E-01
#           1.40742E-01  1.44167E-01  1.47675E-01  1.51268E-01  1.54948E-01
#           1.58718E-01  1.62580E-01  1.66535E-01  1.70587E-01  1.74738E-01
#           1.78989E-01  1.83344E-01  1.87805E-01  1.92375E-01  1.97055E-01
#           2.01850E-01  2.06761E-01  2.11792E-01  2.16945E-01  2.22223E-01
#           2.27630E-01  2.33169E-01  2.38842E-01  2.44653E-01  2.50605E-01
#           2.56703E-01  2.62949E-01  2.69346E-01  2.75900E-01  2.82613E-01
#           2.89489E-01  2.96532E-01  3.03747E-01  3.11138E-01  3.18708E-01
#           3.26462E-01  3.34405E-01  3.42542E-01  3.50876E-01  3.59413E-01
#           3.68158E-01  3.77116E-01  3.86291E-01  3.95690E-01  4.05317E-01
#           4.15179E-01  4.25281E-01  4.35628E-01  4.46227E-01  4.57084E-01
#           4.68205E-01  4.79597E-01  4.91266E-01  5.03219E-01  5.15463E-01
#           5.28005E-01  5.40851E-01  5.54011E-01  5.67490E-01  5.81298E-01
#           5.95441E-01  6.09929E-01  6.24769E-01  6.39970E-01  6.55541E-01
#           6.71491E-01  6.87828E-01  7.04564E-01  7.21706E-01  7.39266E-01
#           7.57253E-01  7.75678E-01  7.94551E-01  8.13883E-01  8.33685E-01
#           8.53969E-01  8.74747E-01  8.96030E-01  9.17831E-01  9.40163E-01
#           9.63038E-01  9.86469E-01  1.01047E+00  1.03506E+00  1.06024E+00
#           1.08604E+00  1.11246E+00  1.13953E+00  1.16725E+00  1.19565E+00
#           1.22474E+00  1.25454E+00  1.28507E+00  1.31633E+00  1.34836E+00
#           1.38117E+00  1.41477E+00  1.44920E+00  1.48446E+00  1.52057E+00
#           1.55757E+00  1.59547E+00  1.63429E+00  1.67405E+00  1.71478E+00
#           1.75650E+00  1.79924E+00  1.84302E+00  1.88786E+00  1.93379E+00
#           1.98084E+00  2.02904E+00  2.07841E+00  2.12898E+00  2.18078E+00
#           2.23384E+00  2.28819E+00  2.34386E+00  2.40089E+00  2.45930E+00
#           2.51914E+00  2.58043E+00  2.64322E+00  2.70753E+00  2.77341E+00
#           2.84088E+00  2.91001E+00  2.98081E+00  3.05333E+00  3.12762E+00
#           3.20372E+00  3.28167E+00  3.36152E+00  3.44330E+00  3.52708E+00
#           3.61290E+00  3.70080E+00  3.79085E+00  3.88308E+00  3.97756E+00
#           4.07434E+00  4.17347E+00  4.27501E+00  4.37903E+00  4.48557E+00
#           4.59471E+00  4.70650E+00  4.82102E+00  4.93832E+00  5.05847E+00
#           5.18155E+00  5.30762E+00  5.43676E+00  5.56904E+00  5.70453E+00
#           5.84333E+00  5.98550E+00  6.13114E+00  6.28031E+00  6.43312E+00
#           6.58964E+00  6.74997E+00  6.91420E+00  7.08243E+00  7.25475E+00
#           7.43126E+00  7.61207E+00  7.79728E+00  7.98700E+00  8.18133E+00
#           8.38038E+00  8.58428E+00  8.79315E+00  9.00709E+00  9.22624E+00
#           9.45072E+00  9.68067E+00  9.91620E+00  1.01575E+01  1.04046E+01
#           1.06578E+01  1.09171E+01  1.11827E+01  1.14548E+01  1.17335E+01
#           1.20190E+01  1.23114E+01  1.26109E+01  1.29178E+01  1.32321E+01
#           1.35540E+01  1.38838E+01  1.42216E+01  1.45676E+01  1.49221E+01
#           1.52851E+01  1.56570E+01  1.60380E+01  1.64282E+01  1.68279E+01
#           1.72374E+01  1.76568E+01  1.80864E+01  1.85264E+01  1.89772E+01
#           1.94389E+01  1.99119E+01  2.03963E+01  2.08926E+01  2.14009E+01
#           2.19216E+01  2.24550E+01  2.30014E+01  2.35610E+01  2.41343E+01
#           2.47215E+01  2.53230E+01  2.59391E+01  2.65702E+01  2.72167E+01
#           2.78789E+01  2.85572E+01  2.92520E+01  2.99637E+01  3.06928E+01
#           3.14396E+01  3.22045E+01  3.29881E+01  3.37907E+01  3.46128E+01
#           3.54550E+01  3.63177E+01  3.72013E+01  3.81064E+01  3.90336E+01
#           3.99833E+01  4.09561E+01  4.19526E+01  4.29734E+01  4.40189E+01
#           4.50900E+01  4.61870E+01  4.73108E+01  4.84619E+01  4.96410E+01
#           5.08488E+01  5.20860E+01  5.33533E+01  5.46514E+01  5.59812E+01
#           5.73432E+01  5.87384E+01  6.01676E+01  6.16315E+01  6.31311E+01
#           6.46671E+01  6.62405E+01  6.78522E+01  6.95031E+01  7.11941E+01
#           7.29263E+01  7.47007E+01  7.65182E+01  7.83800E+01  8.02870E+01
#           8.22405E+01  8.42414E+01  8.62911E+01  8.83906E+01  9.05412E+01
#           9.27442E+01  9.50007E+01  9.73122E+01  9.96799E+01  1.02105E+02
#           1.04589E+02  1.07134E+02  1.09741E+02  1.12411E+02  1.15146E+02
#           1.17948E+02  1.20817E+02  1.23757E+02  1.26768E+02  1.29852E+02
#           1.33012E+02  1.36248E+02  1.39563E+02  1.42959E+02  1.46437E+02
#           1.50000E+02
     unit =    2            # unit is [1/cm^2/(MeV/n)/source]
     axis =  eng            # axis of output
     file = detector-13.out  # file name of output for the above axis
   output = f-curr          # surface crossing forward current spectrum
     part =  neutron  
# kf/name :  2112     
#    used :        main (  %)        temp (  %)       total (  %)
#  memory :         414 (  0)           0 (  0)         414 (  0)

#------------------------------------------------------------------------------
#newpage:
#   no. =    1   reg = 112 - 212

x: Energy [MeV/n]
y:  F-Curr [1/cm^2/(MeV/n)/source]         
p: xlog ylog afac(0.8) form(0.9)
h: n            x            y(neutron ),hh0l   n 
#  e-lower      e-upper      neutron     r.err 
   1.0000E-02   1.0243E-02   2.0854E-02  0.0140
   1.0243E-02   1.0493E-02   2.0798E-02  0.0139
   1.0493E-02   1.0748E-02   2.0189E-02  0.0139
   1.0748E-02   1.1009E-02   2.0028E-02  0.0138
   1.1009E-02   1.1277E-02   1.9620E-02  0.0138
   1.1277E-02   1.1552E-02   1.9110E-02  0.0138
   1.1552E-02   1.1833E-02   1.9138E-02  0.0136
   1.1833E-02   1.2121E-02   1.9031E-02  0.0135
   1.2121E-02   1.2415E-02   1.8745E-02  0.0134
   1.2415E-02   1.2718E-02   1.7747E-02  0.0137
   1.2718E-02   1.3027E-02   1.7581E-02  0.0136
   1.3027E-02   1.3344E-02   1.7547E-02  0.0134
   1.3344E-02   1.3669E-02   1.7310E-02  0.0133
   1.3669E-02   1.4001E-02   1.6794E-02  0.0134
   1.4001E-02   1.4342E-02   1.6790E-02  0.0132
   1.4342E-02   1.4691E-02   1.6153E-02  0.0133
   1.4691E-02   1.5048E-02   1.5689E-02  0.0134
   1.5048E-02   1.5414E-02   1.5344E-02  0.0133
   1.5414E-02   1.5789E-02   1.5305E-02  0.0132
   1.5789E-02   1.6174E-02   1.4928E-02  0.0132
   1.6174E-02   1.6567E-02   1.5262E-02  0.0129
   1.6567E-02   1.6970E-02   1.4740E-02  0.0130
   1.6970E-02   1.7383E-02   1.4795E-02  0.0128
   1.7383E-02   1.7806E-02   1.4267E-02  0.0129
   1.7806E-02   1.8239E-02   1.3801E-02  0.0129
   1.8239E-02   1.8683E-02   1.3295E-02  0.0130
   1.8683E-02   1.9138E-02   1.3040E-02  0.0130
   1.9138E-02   1.9603E-02   1.3069E-02  0.0128
   1.9603E-02   2.0080E-02   1.2607E-02  0.0129
   2.0080E-02   2.0569E-02   1.2585E-02  0.0128
   2.0569E-02   2.1069E-02   1.1996E-02  0.0129
   2.1069E-02   2.1582E-02   1.1976E-02  0.0128
   2.1582E-02   2.2107E-02   1.2181E-02  0.0125
   2.2107E-02   2.2645E-02   1.1776E-02  0.0126
   2.2645E-02   2.3196E-02   1.1358E-02  0.0126
   2.3196E-02   2.3760E-02   1.1266E-02  0.0125
   2.3760E-02   2.4338E-02   1.1074E-02  0.0125
   2.4338E-02   2.4930E-02   1.0798E-02  0.0125
   2.4930E-02   2.5537E-02   1.0840E-02  0.0123
   2.5537E-02   2.6158E-02   1.0608E-02  0.0123
   2.6158E-02   2.6795E-02   1.0306E-02  0.0123
   2.6795E-02   2.7447E-02   1.0062E-02  0.0123
   2.7447E-02   2.8114E-02   9.9072E-03  0.0123
   2.8114E-02   2.8799E-02   9.7223E-03  0.0123
   2.8799E-02   2.9499E-02   9.4992E-03  0.0123
   2.9499E-02   3.0217E-02   9.5912E-03  0.0121
   3.0217E-02   3.0952E-02   9.2274E-03  0.0121
   3.0952E-02   3.1705E-02   9.1383E-03  0.0121
   3.1705E-02   3.2477E-02   9.0140E-03  0.0120
   3.2477E-02   3.3267E-02   8.5803E-03  0.0121
   3.3267E-02   3.4076E-02   8.6236E-03  0.0120
   3.4076E-02   3.4905E-02   8.4218E-03  0.0120
   3.4905E-02   3.5755E-02   8.0710E-03  0.0121
   3.5755E-02   3.6625E-02   8.1672E-03  0.0119
   3.6625E-02   3.7516E-02   7.8173E-03  0.0120
   3.7516E-02   3.8428E-02   7.7198E-03  0.0119
   3.8428E-02   3.9363E-02   7.5947E-03  0.0119
   3.9363E-02   4.0321E-02   7.5198E-03  0.0118
   4.0321E-02   4.1302E-02   7.4247E-03  0.0117
   4.1302E-02   4.2307E-02   7.3519E-03  0.0116
   4.2307E-02   4.3337E-02   7.1695E-03  0.0116
   4.3337E-02   4.4391E-02   7.1253E-03  0.0115
   4.4391E-02   4.5471E-02   6.9315E-03  0.0116
   4.5471E-02   4.6577E-02   6.8378E-03  0.0115
   4.6577E-02   4.7711E-02   6.6767E-03  0.0115
   4.7711E-02   4.8871E-02   6.5160E-03  0.0115
   4.8871E-02   5.0061E-02   6.4495E-03  0.0114
   5.0061E-02   5.1279E-02   6.3308E-03  0.0114
   5.1279E-02   5.2526E-02   6.1868E-03  0.0114
   5.2526E-02   5.3804E-02   6.0622E-03  0.0114
   5.3804E-02   5.5113E-02   6.0102E-03  0.0113
   5.5113E-02   5.6454E-02   5.8093E-03  0.0113
   5.6454E-02   5.7828E-02   5.8977E-03  0.0111
   5.7828E-02   5.9235E-02   5.5679E-03  0.0113
   5.9235E-02   6.0676E-02   5.6920E-03  0.0110
   6.0676E-02   6.2152E-02   5.3973E-03  0.0112
   6.2152E-02   6.3665E-02   5.3832E-03  0.0111
   6.3665E-02   6.5214E-02   5.3150E-03  0.0110
   6.5214E-02   6.6800E-02   5.2225E-03  0.0110
   6.6800E-02   6.8426E-02   5.0587E-03  0.0110
   6.8426E-02   7.0090E-02   5.0362E-03  0.0109
   7.0090E-02   7.1796E-02   4.8993E-03  0.0109
   7.1796E-02   7.3543E-02   4.8616E-03  0.0109
   7.3543E-02   7.5332E-02   4.7213E-03  0.0109
   7.5332E-02   7.7165E-02   4.6170E-03  0.0109
   7.7165E-02   7.9042E-02   4.5039E-03  0.0109
   7.9042E-02   8.0965E-02   4.4583E-03  0.0108
   8.0965E-02   8.2935E-02   4.3671E-03  0.0108
   8.2935E-02   8.4953E-02   4.2768E-03  0.0108
   8.4953E-02   8.7020E-02   4.3803E-03  0.0105
   8.7020E-02   8.9138E-02   4.2007E-03  0.0106
   8.9138E-02   9.1306E-02   4.1196E-03  0.0106
   9.1306E-02   9.3528E-02   4.0098E-03  0.0106
   9.3528E-02   9.5804E-02   3.9704E-03  0.0105
   9.5804E-02   9.8134E-02   3.9172E-03  0.0105
   9.8134E-02   1.0052E-01   3.8673E-03  0.0104
   1.0052E-01   1.0297E-01   3.7473E-03  0.0104
   1.0297E-01   1.0547E-01   3.6517E-03  0.0105
   1.0547E-01   1.0804E-01   3.6797E-03  0.0103
   1.0804E-01   1.1067E-01   3.6062E-03  0.0103
   1.1067E-01   1.1336E-01   3.5174E-03  0.0103
   1.1336E-01   1.1612E-01   3.4509E-03  0.0102
   1.1612E-01   1.1894E-01   3.4144E-03  0.0102
   1.1894E-01   1.2184E-01   3.3486E-03  0.0102
   1.2184E-01   1.2480E-01   3.2839E-03  0.0101
   1.2480E-01   1.2784E-01   3.2441E-03  0.0101
   1.2784E-01   1.3095E-01   3.1824E-03  0.0101
   1.3095E-01   1.3414E-01   3.1447E-03  0.0100
   1.3414E-01   1.3740E-01   3.0209E-03  0.0101
   1.3740E-01   1.4074E-01   2.9807E-03  0.0100
   1.4074E-01   1.4417E-01   2.8994E-03  0.0100
   1.4417E-01   1.4767E-01   2.8820E-03  0.0099
   1.4767E-01   1.5127E-01   2.8533E-03  0.0099
   1.5127E-01   1.5495E-01   2.7941E-03  0.0099
   1.5495E-01   1.5872E-01   2.7443E-03  0.0098
   1.5872E-01   1.6258E-01   2.6840E-03  0.0098
   1.6258E-01   1.6654E-01   2.6794E-03  0.0097
   1.6654E-01   1.7059E-01   2.5955E-03  0.0098
   1.7059E-01   1.7474E-01   2.5727E-03  0.0097
   1.7474E-01   1.7899E-01   2.5073E-03  0.0097
   1.7899E-01   1.8334E-01   2.4280E-03  0.0097
   1.8334E-01   1.8781E-01   2.3947E-03  0.0097
   1.8781E-01   1.9237E-01   2.3786E-03  0.0096
   1.9237E-01   1.9706E-01   2.3812E-03  0.0095
   1.9706E-01   2.0185E-01   2.3114E-03  0.0095
   2.0185E-01   2.0676E-01   2.2585E-03  0.0095
   2.0676E-01   2.1179E-01   2.2140E-03  0.0095
   2.1179E-01   2.1694E-01   2.1848E-03  0.0094
   2.1694E-01   2.2222E-01   2.1548E-03  0.0094
   2.2222E-01   2.2763E-01   2.1092E-03  0.0094
   2.2763E-01   2.3317E-01   2.0966E-03  0.0093
   2.3317E-01   2.3884E-01   2.0307E-03  0.0093
   2.3884E-01   2.4465E-01   1.9586E-03  0.0094
   2.4465E-01   2.5061E-01   1.9825E-03  0.0092
   2.5061E-01   2.5670E-01   1.9169E-03  0.0093
   2.5670E-01   2.6295E-01   1.9050E-03  0.0092
   2.6295E-01   2.6935E-01   1.8555E-03  0.0092
   2.6935E-01   2.7590E-01   1.8158E-03  0.0092
   2.7590E-01   2.8261E-01   1.7905E-03  0.0091
   2.8261E-01   2.8949E-01   1.7876E-03  0.0090
   2.8949E-01   2.9653E-01   1.7113E-03  0.0091
   2.9653E-01   3.0375E-01   1.7147E-03  0.0090
   3.0375E-01   3.1114E-01   1.6643E-03  0.0090
   3.1114E-01   3.1871E-01   1.6224E-03  0.0090
   3.1871E-01   3.2646E-01   1.5892E-03  0.0090
   3.2646E-01   3.3441E-01   1.5615E-03  0.0090
   3.3441E-01   3.4254E-01   1.5374E-03  0.0089
   3.4254E-01   3.5088E-01   1.4975E-03  0.0090
   3.5088E-01   3.5941E-01   1.4841E-03  0.0089
   3.5941E-01   3.6816E-01   1.4712E-03  0.0088
   3.6816E-01   3.7712E-01   1.4154E-03  0.0089
   3.7712E-01   3.8629E-01   1.4038E-03  0.0088
   3.8629E-01   3.9569E-01   1.3509E-03  0.0089
   3.9569E-01   4.0532E-01   1.3361E-03  0.0088
   4.0532E-01   4.1518E-01   1.2986E-03  0.0088
   4.1518E-01   4.2528E-01   1.2748E-03  0.0088
   4.2528E-01   4.3563E-01   1.2535E-03  0.0088
   4.3563E-01   4.4623E-01   1.2344E-03  0.0087
   4.4623E-01   4.5708E-01   1.1849E-03  0.0088
   4.5708E-01   4.6821E-01   1.1700E-03  0.0088
   4.6821E-01   4.7960E-01   1.1564E-03  0.0087
   4.7960E-01   4.9127E-01   1.1205E-03  0.0087
   4.9127E-01   5.0322E-01   1.0804E-03  0.0088
   5.0322E-01   5.1546E-01   1.0674E-03  0.0087
   5.1546E-01   5.2800E-01   1.0442E-03  0.0087
   5.2800E-01   5.4085E-01   1.0140E-03  0.0088
   5.4085E-01   5.5401E-01   9.9534E-04  0.0087
   5.5401E-01   5.6749E-01   9.8349E-04  0.0087
   5.6749E-01   5.8130E-01   9.4847E-04  0.0087
   5.8130E-01   5.9544E-01   9.1887E-04  0.0088
   5.9544E-01   6.0993E-01   9.0001E-04  0.0088
   6.0993E-01   6.2477E-01   8.8706E-04  0.0087
   6.2477E-01   6.3997E-01   8.4178E-04  0.0088
   6.3997E-01   6.5554E-01   8.3559E-04  0.0088
   6.5554E-01   6.7149E-01   8.2490E-04  0.0087
   6.7149E-01   6.8783E-01   7.9974E-04  0.0087
   6.8783E-01   7.0456E-01   7.6879E-04  0.0088
   7.0456E-01   7.2171E-01   7.4490E-04  0.0088
   7.2171E-01   7.3927E-01   7.2840E-04  0.0088
   7.3927E-01   7.5725E-01   7.0562E-04  0.0089
   7.5725E-01   7.7568E-01   6.8615E-04  0.0089
   7.7568E-01   7.9455E-01   6.6482E-04  0.0089
   7.9455E-01   8.1388E-01   6.4181E-04  0.0090
   8.1388E-01   8.3368E-01   6.1205E-04  0.0091
   8.3368E-01   8.5397E-01   5.9943E-04  0.0091
   8.5397E-01   8.7475E-01   5.6712E-04  0.0092
   8.7475E-01   8.9603E-01   5.5605E-04  0.0092
   8.9603E-01   9.1783E-01   5.3869E-04  0.0092
   9.1783E-01   9.4016E-01   5.1291E-04  0.0093
   9.4016E-01   9.6304E-01   4.8800E-04  0.0095
   9.6304E-01   9.8647E-01   4.6694E-04  0.0096
   9.8647E-01   1.0105E+00   4.4891E-04  0.0096
   1.0105E+00   1.0351E+00   4.5203E-04  0.0095
   1.0351E+00   1.0602E+00   4.6173E-04  0.0093
   1.0602E+00   1.0860E+00   4.6392E-04  0.0091
   1.0860E+00   1.1125E+00   4.7752E-04  0.0089
   1.1125E+00   1.1395E+00   4.8197E-04  0.0088
   1.1395E+00   1.1673E+00   5.0354E-04  0.0085
   1.1673E+00   1.1957E+00   5.1521E-04  0.0083
   1.1957E+00   1.2247E+00   5.2435E-04  0.0081
   1.2247E+00   1.2545E+00   5.3703E-04  0.0079
   1.2545E+00   1.2851E+00   5.3664E-04  0.0078
   1.2851E+00   1.3163E+00   5.4718E-04  0.0076
   1.3163E+00   1.3484E+00   5.6124E-04  0.0075
   1.3484E+00   1.3812E+00   5.6766E-04  0.0073
   1.3812E+00   1.4148E+00   5.8158E-04  0.0072
   1.4148E+00   1.4492E+00   5.9022E-04  0.0070
   1.4492E+00   1.4845E+00   5.7564E-04  0.0070
   1.4845E+00   1.5206E+00   5.8568E-04  0.0069
   1.5206E+00   1.5576E+00   5.8621E-04  0.0068
   1.5576E+00   1.5955E+00   5.8846E-04  0.0067
   1.5955E+00   1.6343E+00   5.9236E-04  0.0066
   1.6343E+00   1.6741E+00   6.0456E-04  0.0065
   1.6741E+00   1.7148E+00   6.1852E-04  0.0063
   1.7148E+00   1.7565E+00   6.1773E-04  0.0062
   1.7565E+00   1.7992E+00   6.1530E-04  0.0062
   1.7992E+00   1.8430E+00   6.1135E-04  0.0061
   1.8430E+00   1.8879E+00   6.0531E-04  0.0061
   1.8879E+00   1.9338E+00   6.0970E-04  0.0060
   1.9338E+00   1.9808E+00   6.2128E-04  0.0059
   1.9808E+00   2.0290E+00   6.1761E-04  0.0058
   2.0290E+00   2.0784E+00   6.1165E-04  0.0058
   2.0784E+00   2.1290E+00   6.0380E-04  0.0057
   2.1290E+00   2.1808E+00   5.9395E-04  0.0057
   2.1808E+00   2.2338E+00   5.8590E-04  0.0057
   2.2338E+00   2.2882E+00   5.8050E-04  0.0056
   2.2882E+00   2.3439E+00   5.8046E-04  0.0056
   2.3439E+00   2.4009E+00   5.8743E-04  0.0055
   2.4009E+00   2.4593E+00   5.7561E-04  0.0055
   2.4593E+00   2.5191E+00   5.5857E-04  0.0055
   2.5191E+00   2.5804E+00   5.4179E-04  0.0055
   2.5804E+00   2.6432E+00   5.3436E-04  0.0055
   2.6432E+00   2.7075E+00   5.2147E-04  0.0055
   2.7075E+00   2.7734E+00   5.0950E-04  0.0055
   2.7734E+00   2.8409E+00   5.0664E-04  0.0054
   2.8409E+00   2.9100E+00   5.0898E-04  0.0053
   2.9100E+00   2.9808E+00   4.9560E-04  0.0053
   2.9808E+00   3.0533E+00   4.8713E-04  0.0053
   3.0533E+00   3.1276E+00   4.7439E-04  0.0053
   3.1276E+00   3.2037E+00   4.5469E-04  0.0054
   3.2037E+00   3.2817E+00   4.4328E-04  0.0054
   3.2817E+00   3.3615E+00   4.2768E-04  0.0054
   3.3615E+00   3.4433E+00   4.1341E-04  0.0054
   3.4433E+00   3.5271E+00   4.0746E-04  0.0054
   3.5271E+00   3.6129E+00   3.9680E-04  0.0054
   3.6129E+00   3.7008E+00   3.8693E-04  0.0054
   3.7008E+00   3.7908E+00   3.7079E-04  0.0055
   3.7908E+00   3.8831E+00   3.5563E-04  0.0055
   3.8831E+00   3.9776E+00   3.4849E-04  0.0055
   3.9776E+00   4.0743E+00   3.4060E-04  0.0055
   4.0743E+00   4.1735E+00   3.2573E-04  0.0056
   4.1735E+00   4.2750E+00   3.0980E-04  0.0056
   4.2750E+00   4.3790E+00   2.9910E-04  0.0057
   4.3790E+00   4.4856E+00   2.8551E-04  0.0057
   4.4856E+00   4.5947E+00   2.8197E-04  0.0057
   4.5947E+00   4.7065E+00   2.6737E-04  0.0058
   4.7065E+00   4.8210E+00   2.6171E-04  0.0058
   4.8210E+00   4.9383E+00   2.5193E-04  0.0058
   4.9383E+00   5.0585E+00   2.4249E-04  0.0059
   5.0585E+00   5.1815E+00   2.3462E-04  0.0059
   5.1815E+00   5.3076E+00   2.1957E-04  0.0060
   5.3076E+00   5.4368E+00   2.1700E-04  0.0060
   5.4368E+00   5.5690E+00   2.0639E-04  0.0061
   5.5690E+00   5.7045E+00   2.0004E-04  0.0061
   5.7045E+00   5.8433E+00   1.9221E-04  0.0061
   5.8433E+00   5.9855E+00   1.8356E-04  0.0062
   5.9855E+00   6.1311E+00   1.7970E-04  0.0062
   6.1311E+00   6.2803E+00   1.7533E-04  0.0062
   6.2803E+00   6.4331E+00   1.6790E-04  0.0062
   6.4331E+00   6.5896E+00   1.6351E-04  0.0063
   6.5896E+00   6.7500E+00   1.5411E-04  0.0064
   6.7500E+00   6.9142E+00   1.4957E-04  0.0064
   6.9142E+00   7.0824E+00   1.4722E-04  0.0064
   7.0824E+00   7.2548E+00   1.4232E-04  0.0064
   7.2548E+00   7.4313E+00   1.3749E-04  0.0064
   7.4313E+00   7.6121E+00   1.3219E-04  0.0065
   7.6121E+00   7.7973E+00   1.3123E-04  0.0064
   7.7973E+00   7.9870E+00   1.2924E-04  0.0064
   7.9870E+00   8.1813E+00   1.2533E-04  0.0064
   8.1813E+00   8.3804E+00   1.2192E-04  0.0064
   8.3804E+00   8.5843E+00   1.1963E-04  0.0064
   8.5843E+00   8.7931E+00   1.1704E-04  0.0064
   8.7931E+00   9.0071E+00   1.1510E-04  0.0064
   9.0071E+00   9.2262E+00   1.1493E-04  0.0063
   9.2262E+00   9.4507E+00   1.1180E-04  0.0063
   9.4507E+00   9.6807E+00   1.1020E-04  0.0063
   9.6807E+00   9.9162E+00   1.0859E-04  0.0062
   9.9162E+00   1.0157E+01   1.0766E-04  0.0062
   1.0157E+01   1.0405E+01   1.0633E-04  0.0062
   1.0405E+01   1.0658E+01   1.0655E-04  0.0061
   1.0658E+01   1.0917E+01   1.0397E-04  0.0061
   1.0917E+01   1.1183E+01   1.0494E-04  0.0060
   1.1183E+01   1.1455E+01   1.0463E-04  0.0059
   1.1455E+01   1.1733E+01   1.0352E-04  0.0059
   1.1733E+01   1.2019E+01   1.0264E-04  0.0058
   1.2019E+01   1.2311E+01   1.0206E-04  0.0058
   1.2311E+01   1.2611E+01   1.0273E-04  0.0057
   1.2611E+01   1.2918E+01   1.0164E-04  0.0057
   1.2918E+01   1.3232E+01   1.0241E-04  0.0056
   1.3232E+01   1.3554E+01   1.0096E-04  0.0055
   1.3554E+01   1.3884E+01   1.0023E-04  0.0055
   1.3884E+01   1.4222E+01   1.0156E-04  0.0054
   1.4222E+01   1.4568E+01   1.0066E-04  0.0054
   1.4568E+01   1.4922E+01   1.0007E-04  0.0053
   1.4922E+01   1.5285E+01   9.9399E-05  0.0053
   1.5285E+01   1.5657E+01   9.8372E-05  0.0052
   1.5657E+01   1.6038E+01   9.8194E-05  0.0052
   1.6038E+01   1.6428E+01   9.7547E-05  0.0051
   1.6428E+01   1.6828E+01   9.6707E-05  0.0051
   1.6828E+01   1.7237E+01   9.5937E-05  0.0050
   1.7237E+01   1.7657E+01   9.4973E-05  0.0050
   1.7657E+01   1.8086E+01   9.3463E-05  0.0050
   1.8086E+01   1.8526E+01   9.3101E-05  0.0049
   1.8526E+01   1.8977E+01   9.1156E-05  0.0049
   1.8977E+01   1.9439E+01   9.0376E-05  0.0049
   1.9439E+01   1.9912E+01   8.9457E-05  0.0049
   1.9912E+01   2.0396E+01   9.4587E-05  0.0047
   2.0396E+01   2.0893E+01   1.0074E-04  0.0045
   2.0893E+01   2.1401E+01   9.8142E-05  0.0045
   2.1401E+01   2.1922E+01   9.4903E-05  0.0045
   2.1922E+01   2.2455E+01   9.3719E-05  0.0045
   2.2455E+01   2.3001E+01   9.0523E-05  0.0045
   2.3001E+01   2.3561E+01   8.8569E-05  0.0045
   2.3561E+01   2.4134E+01   8.6847E-05  0.0045
   2.4134E+01   2.4721E+01   8.3460E-05  0.0045
   2.4721E+01   2.5323E+01   8.1210E-05  0.0045
   2.5323E+01   2.5939E+01   7.9006E-05  0.0045
   2.5939E+01   2.6570E+01   7.6981E-05  0.0045
   2.6570E+01   2.7217E+01   7.5171E-05  0.0045
   2.7217E+01   2.7879E+01   7.1776E-05  0.0046
   2.7879E+01   2.8557E+01   6.9643E-05  0.0046
   2.8557E+01   2.9252E+01   6.6997E-05  0.0046
   2.9252E+01   2.9964E+01   6.4657E-05  0.0047
   2.9964E+01   3.0693E+01   6.2187E-05  0.0047
   3.0693E+01   3.1440E+01   6.0018E-05  0.0047
   3.1440E+01   3.2205E+01   5.7636E-05  0.0048
   3.2205E+01   3.2988E+01   5.5003E-05  0.0048
   3.2988E+01   3.3791E+01   5.3156E-05  0.0048
   3.3791E+01   3.4613E+01   5.0488E-05  0.0049
   3.4613E+01   3.5455E+01   4.8502E-05  0.0049
   3.5455E+01   3.6318E+01   4.5840E-05  0.0050
   3.6318E+01   3.7201E+01   4.3855E-05  0.0051
   3.7201E+01   3.8106E+01   4.1488E-05  0.0052
   3.8106E+01   3.9034E+01   3.9272E-05  0.0052
   3.9034E+01   3.9983E+01   3.7037E-05  0.0053
   3.9983E+01   4.0956E+01   3.5078E-05  0.0054
   4.0956E+01   4.1953E+01   3.3023E-05  0.0055
   4.1953E+01   4.2973E+01   3.0833E-05  0.0056
   4.2973E+01   4.4019E+01   2.9124E-05  0.0057
   4.4019E+01   4.5090E+01   2.7312E-05  0.0058
   4.5090E+01   4.6187E+01   2.5469E-05  0.0060
   4.6187E+01   4.7311E+01   2.3574E-05  0.0061
   4.7311E+01   4.8462E+01   2.2088E-05  0.0063
   4.8462E+01   4.9641E+01   2.0297E-05  0.0065
   4.9641E+01   5.0849E+01   1.8743E-05  0.0066
   5.0849E+01   5.2086E+01   1.7294E-05  0.0068
   5.2086E+01   5.3353E+01   1.5658E-05  0.0071
   5.3353E+01   5.4651E+01   1.4352E-05  0.0073
   5.4651E+01   5.5981E+01   1.3049E-05  0.0076
   5.5981E+01   5.7343E+01   1.1811E-05  0.0079
   5.7343E+01   5.8738E+01   1.0653E-05  0.0082
   5.8738E+01   6.0168E+01   9.6295E-06  0.0085
   6.0168E+01   6.1632E+01   8.6227E-06  0.0089
   6.1632E+01   6.3131E+01   7.7183E-06  0.0093
   6.3131E+01   6.4667E+01   6.8957E-06  0.0097
   6.4667E+01   6.6240E+01   6.0036E-06  0.0103
   6.6240E+01   6.7852E+01   5.3373E-06  0.0108
   6.7852E+01   6.9503E+01   4.6417E-06  0.0114
   6.9503E+01   7.1194E+01   4.0637E-06  0.0121
   7.1194E+01   7.2926E+01   3.5654E-06  0.0127
   7.2926E+01   7.4701E+01   2.9842E-06  0.0137
   7.4701E+01   7.6518E+01   2.5628E-06  0.0147
   7.6518E+01   7.8380E+01   2.2033E-06  0.0156
   7.8380E+01   8.0287E+01   1.8710E-06  0.0167
   8.0287E+01   8.2240E+01   1.5905E-06  0.0179
   8.2240E+01   8.4241E+01   1.2864E-06  0.0197
   8.4241E+01   8.6291E+01   1.0646E-06  0.0214
   8.6291E+01   8.8391E+01   8.7115E-07  0.0234
   8.8391E+01   9.0541E+01   7.3700E-07  0.0251
   9.0541E+01   9.2744E+01   5.8059E-07  0.0280
   9.2744E+01   9.5001E+01   4.7152E-07  0.0307
   9.5001E+01   9.7312E+01   3.7033E-07  0.0342
   9.7312E+01   9.9680E+01   2.6524E-07  0.0399
   9.9680E+01   1.0211E+02   2.3502E-07  0.0419
   1.0211E+02   1.0459E+02   1.6584E-07  0.0493
   1.0459E+02   1.0713E+02   1.3439E-07  0.0541
   1.0713E+02   1.0974E+02   1.0051E-07  0.0618
   1.0974E+02   1.1241E+02   8.2394E-08  0.0674
   1.1241E+02   1.1515E+02   6.2522E-08  0.0765
   1.1515E+02   1.1795E+02   4.3547E-08  0.0905
   1.1795E+02   1.2082E+02   3.1013E-08  0.1060
   1.2082E+02   1.2376E+02   1.9050E-08  0.1336
   1.2376E+02   1.2677E+02   1.0959E-08  0.1741
   1.2677E+02   1.2985E+02   1.0375E-08  0.1768
   1.2985E+02   1.3301E+02   7.9129E-09  0.2000
   1.3301E+02   1.3625E+02   2.1630E-09  0.3780
   1.3625E+02   1.3956E+02   1.2066E-09  0.5000
   1.3956E+02   1.4296E+02   8.8348E-10  0.5774
   1.4296E+02   1.4644E+02   0.0000E+00  0.0000
   1.4644E+02   1.5000E+02   0.0000E+00  0.0000

#   sum over                 4.7623E-05
'no. =    1   reg = 112 - 212'
msuc: {\huge [t-cross] in region mesh}
msdr: {\it plotted by \ANGEL \version}
msdl: {\it calculated by \PHITS  3.26}
wt: s(0.7)
\vspace{-3}
  region surface crossing
  area  &=&   1.0000E+00 [cm^2]
e:
 
# Information for Restart Calculation
# This calculation was newly started
# istdev =  2 # 1:Batch variance, 2:History variance
# resc2  = 1.00000000000000000E+09 # Total source weight or Total source weight / maxcas
# resc3  = 1.00000000000000000E+09 # Total history number or Total batch number
# maxcas =   500000000 # History / Batch, only used for istdev=1
# bitrseed = 0001001110011001001001110000100100110111001111011100001000101100 # bit data of rseed
