[ T-Cross ]
    title = [t-cross] in region mesh
     mesh =  reg            # mesh type is region-wise
      reg =    1            # number of crossing regions
      non     r-from    r-to       area
      1       113       213        1.000000    
   e-type =    3            # e-mesh is log given by emin, emax and ne
     emin =  1.0000000E-02  # minimum value of e-mesh points
     emax =   150.0000      # maximum value of e-mesh points
#    edel =  2.4039514E-02  # mesh width of e-mesh points
       ne =    400          # number of e-mesh points
#    data = ( e(i), i = 1, ne + 1 )
#           1.00000E-02  1.02433E-02  1.04925E-02  1.07478E-02  1.10093E-02
#           1.12772E-02  1.15516E-02  1.18326E-02  1.21205E-02  1.24154E-02
#           1.27175E-02  1.30269E-02  1.33439E-02  1.36686E-02  1.40011E-02
#           1.43418E-02  1.46907E-02  1.50482E-02  1.54143E-02  1.57894E-02
#           1.61735E-02  1.65670E-02  1.69701E-02  1.73830E-02  1.78060E-02
#           1.82392E-02  1.86830E-02  1.91375E-02  1.96032E-02  2.00801E-02
#           2.05687E-02  2.10692E-02  2.15818E-02  2.21069E-02  2.26448E-02
#           2.31957E-02  2.37601E-02  2.43382E-02  2.49304E-02  2.55369E-02
#           2.61583E-02  2.67947E-02  2.74467E-02  2.81145E-02  2.87985E-02
#           2.94992E-02  3.02169E-02  3.09521E-02  3.17052E-02  3.24766E-02
#           3.32668E-02  3.40762E-02  3.49053E-02  3.57546E-02  3.66246E-02
#           3.75157E-02  3.84284E-02  3.93634E-02  4.03212E-02  4.13022E-02
#           4.23071E-02  4.33365E-02  4.43909E-02  4.54710E-02  4.65773E-02
#           4.77106E-02  4.88714E-02  5.00605E-02  5.12785E-02  5.25262E-02
#           5.38042E-02  5.51133E-02  5.64542E-02  5.78278E-02  5.92348E-02
#           6.06760E-02  6.21523E-02  6.36645E-02  6.52135E-02  6.68002E-02
#           6.84255E-02  7.00904E-02  7.17957E-02  7.35426E-02  7.53319E-02
#           7.71648E-02  7.90423E-02  8.09655E-02  8.29354E-02  8.49533E-02
#           8.70203E-02  8.91376E-02  9.13064E-02  9.35279E-02  9.58035E-02
#           9.81345E-02  1.00522E-01  1.02968E-01  1.05473E-01  1.08040E-01
#           1.10668E-01  1.13361E-01  1.16119E-01  1.18944E-01  1.21838E-01
#           1.24803E-01  1.27839E-01  1.30950E-01  1.34136E-01  1.37399E-01
#           1.40742E-01  1.44167E-01  1.47675E-01  1.51268E-01  1.54948E-01
#           1.58718E-01  1.62580E-01  1.66535E-01  1.70587E-01  1.74738E-01
#           1.78989E-01  1.83344E-01  1.87805E-01  1.92375E-01  1.97055E-01
#           2.01850E-01  2.06761E-01  2.11792E-01  2.16945E-01  2.22223E-01
#           2.27630E-01  2.33169E-01  2.38842E-01  2.44653E-01  2.50605E-01
#           2.56703E-01  2.62949E-01  2.69346E-01  2.75900E-01  2.82613E-01
#           2.89489E-01  2.96532E-01  3.03747E-01  3.11138E-01  3.18708E-01
#           3.26462E-01  3.34405E-01  3.42542E-01  3.50876E-01  3.59413E-01
#           3.68158E-01  3.77116E-01  3.86291E-01  3.95690E-01  4.05317E-01
#           4.15179E-01  4.25281E-01  4.35628E-01  4.46227E-01  4.57084E-01
#           4.68205E-01  4.79597E-01  4.91266E-01  5.03219E-01  5.15463E-01
#           5.28005E-01  5.40851E-01  5.54011E-01  5.67490E-01  5.81298E-01
#           5.95441E-01  6.09929E-01  6.24769E-01  6.39970E-01  6.55541E-01
#           6.71491E-01  6.87828E-01  7.04564E-01  7.21706E-01  7.39266E-01
#           7.57253E-01  7.75678E-01  7.94551E-01  8.13883E-01  8.33685E-01
#           8.53969E-01  8.74747E-01  8.96030E-01  9.17831E-01  9.40163E-01
#           9.63038E-01  9.86469E-01  1.01047E+00  1.03506E+00  1.06024E+00
#           1.08604E+00  1.11246E+00  1.13953E+00  1.16725E+00  1.19565E+00
#           1.22474E+00  1.25454E+00  1.28507E+00  1.31633E+00  1.34836E+00
#           1.38117E+00  1.41477E+00  1.44920E+00  1.48446E+00  1.52057E+00
#           1.55757E+00  1.59547E+00  1.63429E+00  1.67405E+00  1.71478E+00
#           1.75650E+00  1.79924E+00  1.84302E+00  1.88786E+00  1.93379E+00
#           1.98084E+00  2.02904E+00  2.07841E+00  2.12898E+00  2.18078E+00
#           2.23384E+00  2.28819E+00  2.34386E+00  2.40089E+00  2.45930E+00
#           2.51914E+00  2.58043E+00  2.64322E+00  2.70753E+00  2.77341E+00
#           2.84088E+00  2.91001E+00  2.98081E+00  3.05333E+00  3.12762E+00
#           3.20372E+00  3.28167E+00  3.36152E+00  3.44330E+00  3.52708E+00
#           3.61290E+00  3.70080E+00  3.79085E+00  3.88308E+00  3.97756E+00
#           4.07434E+00  4.17347E+00  4.27501E+00  4.37903E+00  4.48557E+00
#           4.59471E+00  4.70650E+00  4.82102E+00  4.93832E+00  5.05847E+00
#           5.18155E+00  5.30762E+00  5.43676E+00  5.56904E+00  5.70453E+00
#           5.84333E+00  5.98550E+00  6.13114E+00  6.28031E+00  6.43312E+00
#           6.58964E+00  6.74997E+00  6.91420E+00  7.08243E+00  7.25475E+00
#           7.43126E+00  7.61207E+00  7.79728E+00  7.98700E+00  8.18133E+00
#           8.38038E+00  8.58428E+00  8.79315E+00  9.00709E+00  9.22624E+00
#           9.45072E+00  9.68067E+00  9.91620E+00  1.01575E+01  1.04046E+01
#           1.06578E+01  1.09171E+01  1.11827E+01  1.14548E+01  1.17335E+01
#           1.20190E+01  1.23114E+01  1.26109E+01  1.29178E+01  1.32321E+01
#           1.35540E+01  1.38838E+01  1.42216E+01  1.45676E+01  1.49221E+01
#           1.52851E+01  1.56570E+01  1.60380E+01  1.64282E+01  1.68279E+01
#           1.72374E+01  1.76568E+01  1.80864E+01  1.85264E+01  1.89772E+01
#           1.94389E+01  1.99119E+01  2.03963E+01  2.08926E+01  2.14009E+01
#           2.19216E+01  2.24550E+01  2.30014E+01  2.35610E+01  2.41343E+01
#           2.47215E+01  2.53230E+01  2.59391E+01  2.65702E+01  2.72167E+01
#           2.78789E+01  2.85572E+01  2.92520E+01  2.99637E+01  3.06928E+01
#           3.14396E+01  3.22045E+01  3.29881E+01  3.37907E+01  3.46128E+01
#           3.54550E+01  3.63177E+01  3.72013E+01  3.81064E+01  3.90336E+01
#           3.99833E+01  4.09561E+01  4.19526E+01  4.29734E+01  4.40189E+01
#           4.50900E+01  4.61870E+01  4.73108E+01  4.84619E+01  4.96410E+01
#           5.08488E+01  5.20860E+01  5.33533E+01  5.46514E+01  5.59812E+01
#           5.73432E+01  5.87384E+01  6.01676E+01  6.16315E+01  6.31311E+01
#           6.46671E+01  6.62405E+01  6.78522E+01  6.95031E+01  7.11941E+01
#           7.29263E+01  7.47007E+01  7.65182E+01  7.83800E+01  8.02870E+01
#           8.22405E+01  8.42414E+01  8.62911E+01  8.83906E+01  9.05412E+01
#           9.27442E+01  9.50007E+01  9.73122E+01  9.96799E+01  1.02105E+02
#           1.04589E+02  1.07134E+02  1.09741E+02  1.12411E+02  1.15146E+02
#           1.17948E+02  1.20817E+02  1.23757E+02  1.26768E+02  1.29852E+02
#           1.33012E+02  1.36248E+02  1.39563E+02  1.42959E+02  1.46437E+02
#           1.50000E+02
     unit =    2            # unit is [1/cm^2/(MeV/n)/source]
     axis =  eng            # axis of output
     file = detector-14.out  # file name of output for the above axis
   output = f-curr          # surface crossing forward current spectrum
     part =  neutron  
# kf/name :  2112     
#    used :        main (  %)        temp (  %)       total (  %)
#  memory :         414 (  0)           0 (  0)         414 (  0)

#------------------------------------------------------------------------------
#newpage:
#   no. =    1   reg = 113 - 213

x: Energy [MeV/n]
y:  F-Curr [1/cm^2/(MeV/n)/source]         
p: xlog ylog afac(0.8) form(0.9)
h: n            x            y(neutron ),hh0l   n 
#  e-lower      e-upper      neutron     r.err 
   1.0000E-02   1.0243E-02   2.8277E-03  0.0381
   1.0243E-02   1.0493E-02   2.7003E-03  0.0385
   1.0493E-02   1.0748E-02   2.8125E-03  0.0373
   1.0748E-02   1.1009E-02   2.6424E-03  0.0380
   1.1009E-02   1.1277E-02   2.3202E-03  0.0401
   1.1277E-02   1.1552E-02   2.4163E-03  0.0388
   1.1552E-02   1.1833E-02   2.4087E-03  0.0384
   1.1833E-02   1.2121E-02   2.4436E-03  0.0377
   1.2121E-02   1.2415E-02   2.2957E-03  0.0384
   1.2415E-02   1.2718E-02   2.2908E-03  0.0380
   1.2718E-02   1.3027E-02   2.3640E-03  0.0370
   1.3027E-02   1.3344E-02   2.3852E-03  0.0364
   1.3344E-02   1.3669E-02   2.4148E-03  0.0357
   1.3669E-02   1.4001E-02   2.2371E-03  0.0367
   1.4001E-02   1.4342E-02   2.2691E-03  0.0360
   1.4342E-02   1.4691E-02   2.0376E-03  0.0375
   1.4691E-02   1.5048E-02   2.0004E-03  0.0374
   1.5048E-02   1.5414E-02   1.8217E-03  0.0387
   1.5414E-02   1.5789E-02   2.0424E-03  0.0361
   1.5789E-02   1.6174E-02   1.9471E-03  0.0366
   1.6174E-02   1.6567E-02   1.8500E-03  0.0371
   1.6567E-02   1.6970E-02   1.9549E-03  0.0356
   1.6970E-02   1.7383E-02   1.8576E-03  0.0361
   1.7383E-02   1.7806E-02   1.7851E-03  0.0364
   1.7806E-02   1.8239E-02   1.7612E-03  0.0362
   1.8239E-02   1.8683E-02   1.7892E-03  0.0355
   1.8683E-02   1.9138E-02   1.8061E-03  0.0349
   1.9138E-02   1.9603E-02   1.6408E-03  0.0362
   1.9603E-02   2.0080E-02   1.6228E-03  0.0359
   2.0080E-02   2.0569E-02   1.6067E-03  0.0357
   2.0569E-02   2.1069E-02   1.6505E-03  0.0348
   2.1069E-02   2.1582E-02   1.6845E-03  0.0340
   2.1582E-02   2.2107E-02   1.4854E-03  0.0358
   2.2107E-02   2.2645E-02   1.5719E-03  0.0344
   2.2645E-02   2.3196E-02   1.4393E-03  0.0355
   2.3196E-02   2.3760E-02   1.4955E-03  0.0344
   2.3760E-02   2.4338E-02   1.4098E-03  0.0350
   2.4338E-02   2.4930E-02   1.4016E-03  0.0347
   2.4930E-02   2.5537E-02   1.4335E-03  0.0339
   2.5537E-02   2.6158E-02   1.4034E-03  0.0339
   2.6158E-02   2.6795E-02   1.2633E-03  0.0353
   2.6795E-02   2.7447E-02   1.2624E-03  0.0349
   2.7447E-02   2.8114E-02   1.2975E-03  0.0340
   2.8114E-02   2.8799E-02   1.3245E-03  0.0332
   2.8799E-02   2.9499E-02   1.2573E-03  0.0337
   2.9499E-02   3.0217E-02   1.2609E-03  0.0332
   3.0217E-02   3.0952E-02   1.2418E-03  0.0331
   3.0952E-02   3.1705E-02   1.2176E-03  0.0330
   3.1705E-02   3.2477E-02   1.1006E-03  0.0343
   3.2477E-02   3.3267E-02   1.0947E-03  0.0340
   3.3267E-02   3.4076E-02   1.0897E-03  0.0337
   3.4076E-02   3.4905E-02   1.1398E-03  0.0325
   3.4905E-02   3.5755E-02   1.0609E-03  0.0333
   3.5755E-02   3.6625E-02   1.0949E-03  0.0324
   3.6625E-02   3.7516E-02   1.0190E-03  0.0332
   3.7516E-02   3.8428E-02   1.0408E-03  0.0324
   3.8428E-02   3.9363E-02   9.9787E-04  0.0327
   3.9363E-02   4.0321E-02   9.9714E-04  0.0324
   4.0321E-02   4.1302E-02   9.4491E-04  0.0328
   4.1302E-02   4.2307E-02   9.2446E-04  0.0328
   4.2307E-02   4.3337E-02   9.2387E-04  0.0324
   4.3337E-02   4.4391E-02   9.0714E-04  0.0323
   4.4391E-02   4.5471E-02   9.4994E-04  0.0312
   4.5471E-02   4.6577E-02   9.1020E-04  0.0315
   4.6577E-02   4.7711E-02   8.6741E-04  0.0319
   4.7711E-02   4.8871E-02   8.9547E-04  0.0310
   4.8871E-02   5.0061E-02   8.2333E-04  0.0320
   5.0061E-02   5.1279E-02   8.3661E-04  0.0313
   5.1279E-02   5.2526E-02   7.8067E-04  0.0320
   5.2526E-02   5.3804E-02   7.4961E-04  0.0323
   5.3804E-02   5.5113E-02   8.0513E-04  0.0308
   5.5113E-02   5.6454E-02   7.5991E-04  0.0313
   5.6454E-02   5.7828E-02   7.3239E-04  0.0315
   5.7828E-02   5.9235E-02   7.4627E-04  0.0309
   5.9235E-02   6.0676E-02   7.4589E-04  0.0305
   6.0676E-02   6.2152E-02   7.0176E-04  0.0311
   6.2152E-02   6.3665E-02   7.4758E-04  0.0298
   6.3665E-02   6.5214E-02   6.9270E-04  0.0305
   6.5214E-02   6.6800E-02   7.0492E-04  0.0299
   6.6800E-02   6.8426E-02   6.6941E-04  0.0303
   6.8426E-02   7.0090E-02   6.5471E-04  0.0303
   7.0090E-02   7.1796E-02   6.0750E-04  0.0311
   7.1796E-02   7.3543E-02   6.2684E-04  0.0302
   7.3543E-02   7.5332E-02   6.4549E-04  0.0294
   7.5332E-02   7.7165E-02   5.8105E-04  0.0306
   7.7165E-02   7.9042E-02   6.4155E-04  0.0288
   7.9042E-02   8.0965E-02   6.0213E-04  0.0294
   8.0965E-02   8.2935E-02   5.9798E-04  0.0291
   8.2935E-02   8.4953E-02   5.7486E-04  0.0294
   8.4953E-02   8.7020E-02   5.5443E-04  0.0295
   8.7020E-02   8.9138E-02   5.1954E-04  0.0302
   8.9138E-02   9.1306E-02   5.5423E-04  0.0288
   9.1306E-02   9.3528E-02   5.3521E-04  0.0290
   9.3528E-02   9.5804E-02   4.9525E-04  0.0298
   9.5804E-02   9.8134E-02   5.1738E-04  0.0288
   9.8134E-02   1.0052E-01   4.9043E-04  0.0292
   1.0052E-01   1.0297E-01   4.8737E-04  0.0290
   1.0297E-01   1.0547E-01   4.9495E-04  0.0284
   1.0547E-01   1.0804E-01   4.7813E-04  0.0285
   1.0804E-01   1.1067E-01   4.8427E-04  0.0280
   1.1067E-01   1.1336E-01   4.5012E-04  0.0287
   1.1336E-01   1.1612E-01   4.8909E-04  0.0272
   1.1612E-01   1.1894E-01   4.3890E-04  0.0284
   1.1894E-01   1.2184E-01   4.2916E-04  0.0284
   1.2184E-01   1.2480E-01   4.4224E-04  0.0276
   1.2480E-01   1.2784E-01   4.3931E-04  0.0274
   1.2784E-01   1.3095E-01   4.2936E-04  0.0274
   1.3095E-01   1.3414E-01   4.1367E-04  0.0275
   1.3414E-01   1.3740E-01   3.8944E-04  0.0280
   1.3740E-01   1.4074E-01   3.6284E-04  0.0287
   1.4074E-01   1.4417E-01   3.8693E-04  0.0275
   1.4417E-01   1.4767E-01   3.9143E-04  0.0270
   1.4767E-01   1.5127E-01   3.7990E-04  0.0271
   1.5127E-01   1.5495E-01   3.6544E-04  0.0273
   1.5495E-01   1.5872E-01   3.5278E-04  0.0274
   1.5872E-01   1.6258E-01   3.6331E-04  0.0267
   1.6258E-01   1.6654E-01   3.4836E-04  0.0269
   1.6654E-01   1.7059E-01   3.4280E-04  0.0268
   1.7059E-01   1.7474E-01   3.4225E-04  0.0265
   1.7474E-01   1.7899E-01   3.2153E-04  0.0270
   1.7899E-01   1.8334E-01   3.2354E-04  0.0266
   1.8334E-01   1.8781E-01   3.2023E-04  0.0265
   1.8781E-01   1.9237E-01   3.0780E-04  0.0267
   1.9237E-01   1.9706E-01   3.0872E-04  0.0263
   1.9706E-01   2.0185E-01   2.9847E-04  0.0264
   2.0185E-01   2.0676E-01   2.9789E-04  0.0261
   2.0676E-01   2.1179E-01   2.8446E-04  0.0264
   2.1179E-01   2.1694E-01   3.0060E-04  0.0254
   2.1694E-01   2.2222E-01   2.6750E-04  0.0266
   2.2222E-01   2.2763E-01   2.8713E-04  0.0254
   2.2763E-01   2.3317E-01   2.5639E-04  0.0265
   2.3317E-01   2.3884E-01   2.6722E-04  0.0257
   2.3884E-01   2.4465E-01   2.4676E-04  0.0264
   2.4465E-01   2.5061E-01   2.7005E-04  0.0249
   2.5061E-01   2.5670E-01   2.5601E-04  0.0253
   2.5670E-01   2.6295E-01   2.6274E-04  0.0247
   2.6295E-01   2.6935E-01   2.3305E-04  0.0259
   2.6935E-01   2.7590E-01   2.3362E-04  0.0256
   2.7590E-01   2.8261E-01   2.3313E-04  0.0253
   2.8261E-01   2.8949E-01   2.2629E-04  0.0253
   2.8949E-01   2.9653E-01   2.3348E-04  0.0247
   2.9653E-01   3.0375E-01   2.3022E-04  0.0245
   3.0375E-01   3.1114E-01   2.2313E-04  0.0246
   3.1114E-01   3.1871E-01   2.1228E-04  0.0249
   3.1871E-01   3.2646E-01   2.0885E-04  0.0248
   3.2646E-01   3.3441E-01   2.0974E-04  0.0245
   3.3441E-01   3.4254E-01   2.0605E-04  0.0244
   3.4254E-01   3.5088E-01   2.0722E-04  0.0241
   3.5088E-01   3.5941E-01   1.9175E-04  0.0247
   3.5941E-01   3.6816E-01   1.9240E-04  0.0244
   3.6816E-01   3.7712E-01   1.8794E-04  0.0244
   3.7712E-01   3.8629E-01   1.8637E-04  0.0242
   3.8629E-01   3.9569E-01   1.8103E-04  0.0242
   3.9569E-01   4.0532E-01   1.7969E-04  0.0240
   4.0532E-01   4.1518E-01   1.7472E-04  0.0241
   4.1518E-01   4.2528E-01   1.7235E-04  0.0240
   4.2528E-01   4.3563E-01   1.6594E-04  0.0241
   4.3563E-01   4.4623E-01   1.6199E-04  0.0241
   4.4623E-01   4.5708E-01   1.5759E-04  0.0242
   4.5708E-01   4.6821E-01   1.5862E-04  0.0238
   4.6821E-01   4.7960E-01   1.5551E-04  0.0238
   4.7960E-01   4.9127E-01   1.5271E-04  0.0237
   4.9127E-01   5.0322E-01   1.4566E-04  0.0240
   5.0322E-01   5.1546E-01   1.4224E-04  0.0240
   5.1546E-01   5.2800E-01   1.4177E-04  0.0237
   5.2800E-01   5.4085E-01   1.4548E-04  0.0231
   5.4085E-01   5.5401E-01   1.3716E-04  0.0235
   5.5401E-01   5.6749E-01   1.3339E-04  0.0236
   5.6749E-01   5.8130E-01   1.2486E-04  0.0241
   5.8130E-01   5.9544E-01   1.2585E-04  0.0237
   5.9544E-01   6.0993E-01   1.1921E-04  0.0241
   6.0993E-01   6.2477E-01   1.1893E-04  0.0238
   6.2477E-01   6.3997E-01   1.1611E-04  0.0238
   6.3997E-01   6.5554E-01   1.1322E-04  0.0238
   6.5554E-01   6.7149E-01   1.0702E-04  0.0242
   6.7149E-01   6.8783E-01   1.0610E-04  0.0240
   6.8783E-01   7.0456E-01   1.0517E-04  0.0238
   7.0456E-01   7.2171E-01   9.3772E-05  0.0249
   7.2171E-01   7.3927E-01   1.0026E-04  0.0238
   7.3927E-01   7.5725E-01   9.5847E-05  0.0241
   7.5725E-01   7.7568E-01   9.3679E-05  0.0241
   7.7568E-01   7.9455E-01   9.1560E-05  0.0241
   7.9455E-01   8.1388E-01   9.2618E-05  0.0236
   8.1388E-01   8.3368E-01   8.5444E-05  0.0243
   8.3368E-01   8.5397E-01   8.3365E-05  0.0243
   8.5397E-01   8.7475E-01   7.8546E-05  0.0248
   8.7475E-01   8.9603E-01   7.5975E-05  0.0249
   8.9603E-01   9.1783E-01   7.1602E-05  0.0253
   9.1783E-01   9.4016E-01   6.9408E-05  0.0254
   9.4016E-01   9.6304E-01   6.5224E-05  0.0259
   9.6304E-01   9.8647E-01   6.6278E-05  0.0254
   9.8647E-01   1.0105E+00   6.3912E-05  0.0255
   1.0105E+00   1.0351E+00   6.2069E-05  0.0256
   1.0351E+00   1.0602E+00   6.1945E-05  0.0253
   1.0602E+00   1.0860E+00   6.4873E-05  0.0244
   1.0860E+00   1.1125E+00   6.5092E-05  0.0241
   1.1125E+00   1.1395E+00   6.3103E-05  0.0242
   1.1395E+00   1.1673E+00   6.6779E-05  0.0232
   1.1673E+00   1.1957E+00   7.0598E-05  0.0223
   1.1957E+00   1.2247E+00   7.0262E-05  0.0221
   1.2247E+00   1.2545E+00   7.3257E-05  0.0214
   1.2545E+00   1.2851E+00   7.4106E-05  0.0210
   1.2851E+00   1.3163E+00   7.5799E-05  0.0205
   1.3163E+00   1.3484E+00   7.3468E-05  0.0206
   1.3484E+00   1.3812E+00   7.8033E-05  0.0198
   1.3812E+00   1.4148E+00   7.6641E-05  0.0197
   1.4148E+00   1.4492E+00   7.9454E-05  0.0191
   1.4492E+00   1.4845E+00   8.0573E-05  0.0188
   1.4845E+00   1.5206E+00   8.0985E-05  0.0185
   1.5206E+00   1.5576E+00   8.1791E-05  0.0182
   1.5576E+00   1.5955E+00   7.7711E-05  0.0184
   1.5955E+00   1.6343E+00   7.7720E-05  0.0182
   1.6343E+00   1.6741E+00   8.4248E-05  0.0173
   1.6741E+00   1.7148E+00   8.2812E-05  0.0172
   1.7148E+00   1.7565E+00   8.3122E-05  0.0170
   1.7565E+00   1.7992E+00   8.4505E-05  0.0166
   1.7992E+00   1.8430E+00   8.3948E-05  0.0165
   1.8430E+00   1.8879E+00   8.5366E-05  0.0162
   1.8879E+00   1.9338E+00   8.2881E-05  0.0162
   1.9338E+00   1.9808E+00   8.5248E-05  0.0158
   1.9808E+00   2.0290E+00   8.2207E-05  0.0159
   2.0290E+00   2.0784E+00   8.0882E-05  0.0158
   2.0784E+00   2.1290E+00   8.1205E-05  0.0156
   2.1290E+00   2.1808E+00   8.2278E-05  0.0153
   2.1808E+00   2.2338E+00   7.8232E-05  0.0155
   2.2338E+00   2.2882E+00   7.9796E-05  0.0152
   2.2882E+00   2.3439E+00   8.0335E-05  0.0150
   2.3439E+00   2.4009E+00   8.1399E-05  0.0147
   2.4009E+00   2.4593E+00   7.9919E-05  0.0146
   2.4593E+00   2.5191E+00   7.6892E-05  0.0147
   2.5191E+00   2.5804E+00   7.5784E-05  0.0147
   2.5804E+00   2.6432E+00   7.3904E-05  0.0147
   2.6432E+00   2.7075E+00   7.1185E-05  0.0148
   2.7075E+00   2.7734E+00   7.1361E-05  0.0146
   2.7734E+00   2.8409E+00   6.8569E-05  0.0147
   2.8409E+00   2.9100E+00   7.0963E-05  0.0143
   2.9100E+00   2.9808E+00   6.7935E-05  0.0144
   2.9808E+00   3.0533E+00   6.5811E-05  0.0145
   3.0533E+00   3.1276E+00   6.5837E-05  0.0143
   3.1276E+00   3.2037E+00   6.4338E-05  0.0143
   3.2037E+00   3.2817E+00   6.1373E-05  0.0145
   3.2817E+00   3.3615E+00   5.8601E-05  0.0146
   3.3615E+00   3.4433E+00   5.8028E-05  0.0145
   3.4433E+00   3.5271E+00   5.6721E-05  0.0145
   3.5271E+00   3.6129E+00   5.5088E-05  0.0145
   3.6129E+00   3.7008E+00   5.5577E-05  0.0143
   3.7008E+00   3.7908E+00   5.4407E-05  0.0143
   3.7908E+00   3.8831E+00   5.0946E-05  0.0146
   3.8831E+00   3.9776E+00   5.0223E-05  0.0145
   3.9776E+00   4.0743E+00   4.7935E-05  0.0147
   4.0743E+00   4.1735E+00   4.7835E-05  0.0145
   4.1735E+00   4.2750E+00   4.5389E-05  0.0147
   4.2750E+00   4.3790E+00   4.5037E-05  0.0146
   4.3790E+00   4.4856E+00   4.2930E-05  0.0148
   4.4856E+00   4.5947E+00   4.3028E-05  0.0146
   4.5947E+00   4.7065E+00   4.1550E-05  0.0147
   4.7065E+00   4.8210E+00   3.9642E-05  0.0148
   4.8210E+00   4.9383E+00   4.0077E-05  0.0146
   4.9383E+00   5.0585E+00   3.9591E-05  0.0145
   5.0585E+00   5.1815E+00   3.8683E-05  0.0145
   5.1815E+00   5.3076E+00   3.6511E-05  0.0147
   5.3076E+00   5.4368E+00   3.6008E-05  0.0147
   5.4368E+00   5.5690E+00   3.5085E-05  0.0147
   5.5690E+00   5.7045E+00   3.3207E-05  0.0149
   5.7045E+00   5.8433E+00   3.3171E-05  0.0147
   5.8433E+00   5.9855E+00   3.4356E-05  0.0143
   5.9855E+00   6.1311E+00   3.3039E-05  0.0144
   6.1311E+00   6.2803E+00   3.2103E-05  0.0145
   6.2803E+00   6.4331E+00   3.1625E-05  0.0144
   6.4331E+00   6.5896E+00   3.1110E-05  0.0143
   6.5896E+00   6.7500E+00   3.1373E-05  0.0141
   6.7500E+00   6.9142E+00   3.0624E-05  0.0141
   6.9142E+00   7.0824E+00   3.0708E-05  0.0139
   7.0824E+00   7.2548E+00   2.9787E-05  0.0140
   7.2548E+00   7.4313E+00   2.9510E-05  0.0139
   7.4313E+00   7.6121E+00   2.9725E-05  0.0136
   7.6121E+00   7.7973E+00   2.9372E-05  0.0136
   7.7973E+00   7.9870E+00   2.8764E-05  0.0135
   7.9870E+00   8.1813E+00   2.8781E-05  0.0134
   8.1813E+00   8.3804E+00   2.9198E-05  0.0131
   8.3804E+00   8.5843E+00   2.8749E-05  0.0131
   8.5843E+00   8.7931E+00   2.8830E-05  0.0129
   8.7931E+00   9.0071E+00   2.8535E-05  0.0128
   9.0071E+00   9.2262E+00   2.9466E-05  0.0124
   9.2262E+00   9.4507E+00   2.8922E-05  0.0124
   9.4507E+00   9.6807E+00   2.9281E-05  0.0122
   9.6807E+00   9.9162E+00   2.9135E-05  0.0121
   9.9162E+00   1.0157E+01   2.9287E-05  0.0119
   1.0157E+01   1.0405E+01   2.8415E-05  0.0119
   1.0405E+01   1.0658E+01   2.9802E-05  0.0115
   1.0658E+01   1.0917E+01   2.9893E-05  0.0113
   1.0917E+01   1.1183E+01   3.0297E-05  0.0111
   1.1183E+01   1.1455E+01   3.1145E-05  0.0108
   1.1455E+01   1.1733E+01   3.0889E-05  0.0108
   1.1733E+01   1.2019E+01   3.1305E-05  0.0106
   1.2019E+01   1.2311E+01   3.0841E-05  0.0105
   1.2311E+01   1.2611E+01   3.2691E-05  0.0101
   1.2611E+01   1.2918E+01   3.2364E-05  0.0100
   1.2918E+01   1.3232E+01   3.3077E-05  0.0098
   1.3232E+01   1.3554E+01   3.2786E-05  0.0097
   1.3554E+01   1.3884E+01   3.3792E-05  0.0095
   1.3884E+01   1.4222E+01   3.4615E-05  0.0092
   1.4222E+01   1.4568E+01   3.4261E-05  0.0092
   1.4568E+01   1.4922E+01   3.4917E-05  0.0090
   1.4922E+01   1.5285E+01   3.4943E-05  0.0089
   1.5285E+01   1.5657E+01   3.5177E-05  0.0087
   1.5657E+01   1.6038E+01   3.6131E-05  0.0085
   1.6038E+01   1.6428E+01   3.5298E-05  0.0085
   1.6428E+01   1.6828E+01   3.6229E-05  0.0083
   1.6828E+01   1.7237E+01   3.6361E-05  0.0082
   1.7237E+01   1.7657E+01   3.6834E-05  0.0080
   1.7657E+01   1.8086E+01   3.7374E-05  0.0079
   1.8086E+01   1.8526E+01   3.6811E-05  0.0079
   1.8526E+01   1.8977E+01   3.7262E-05  0.0077
   1.8977E+01   1.9439E+01   3.7535E-05  0.0076
   1.9439E+01   1.9912E+01   3.6815E-05  0.0076
   1.9912E+01   2.0396E+01   5.9368E-05  0.0059
   2.0396E+01   2.0893E+01   6.5943E-05  0.0055
   2.0893E+01   2.1401E+01   6.4501E-05  0.0055
   2.1401E+01   2.1922E+01   6.3115E-05  0.0055
   2.1922E+01   2.2455E+01   6.0836E-05  0.0056
   2.2455E+01   2.3001E+01   5.9632E-05  0.0055
   2.3001E+01   2.3561E+01   5.8110E-05  0.0055
   2.3561E+01   2.4134E+01   5.6732E-05  0.0055
   2.4134E+01   2.4721E+01   5.5255E-05  0.0056
   2.4721E+01   2.5323E+01   5.4084E-05  0.0055
   2.5323E+01   2.5939E+01   5.2478E-05  0.0056
   2.5939E+01   2.6570E+01   5.0159E-05  0.0056
   2.6570E+01   2.7217E+01   4.9176E-05  0.0056
   2.7217E+01   2.7879E+01   4.7733E-05  0.0056
   2.7879E+01   2.8557E+01   4.5780E-05  0.0057
   2.8557E+01   2.9252E+01   4.4453E-05  0.0057
   2.9252E+01   2.9964E+01   4.3005E-05  0.0057
   2.9964E+01   3.0693E+01   4.1246E-05  0.0058
   3.0693E+01   3.1440E+01   3.9133E-05  0.0059
   3.1440E+01   3.2205E+01   3.7754E-05  0.0059
   3.2205E+01   3.2988E+01   3.6106E-05  0.0059
   3.2988E+01   3.3791E+01   3.4645E-05  0.0060
   3.3791E+01   3.4613E+01   3.2803E-05  0.0061
   3.4613E+01   3.5455E+01   3.1255E-05  0.0062
   3.5455E+01   3.6318E+01   2.9486E-05  0.0063
   3.6318E+01   3.7201E+01   2.7765E-05  0.0064
   3.7201E+01   3.8106E+01   2.6768E-05  0.0064
   3.8106E+01   3.9034E+01   2.5225E-05  0.0065
   3.9034E+01   3.9983E+01   2.3724E-05  0.0067
   3.9983E+01   4.0956E+01   2.2440E-05  0.0068
   4.0956E+01   4.1953E+01   2.0647E-05  0.0070
   4.1953E+01   4.2973E+01   1.9234E-05  0.0071
   4.2973E+01   4.4019E+01   1.7968E-05  0.0073
   4.4019E+01   4.5090E+01   1.6578E-05  0.0075
   4.5090E+01   4.6187E+01   1.5386E-05  0.0077
   4.6187E+01   4.7311E+01   1.4470E-05  0.0078
   4.7311E+01   4.8462E+01   1.3234E-05  0.0081
   4.8462E+01   4.9641E+01   1.2099E-05  0.0084
   4.9641E+01   5.0849E+01   1.1123E-05  0.0086
   5.0849E+01   5.2086E+01   1.0300E-05  0.0089
   5.2086E+01   5.3353E+01   9.1731E-06  0.0093
   5.3353E+01   5.4651E+01   8.2858E-06  0.0096
   5.4651E+01   5.5981E+01   7.5475E-06  0.0100
   5.5981E+01   5.7343E+01   6.8315E-06  0.0104
   5.7343E+01   5.8738E+01   5.9833E-06  0.0109
   5.8738E+01   6.0168E+01   5.4536E-06  0.0113
   6.0168E+01   6.1632E+01   4.7742E-06  0.0120
   6.1632E+01   6.3131E+01   4.3307E-06  0.0124
   6.3131E+01   6.4667E+01   3.8040E-06  0.0131
   6.4667E+01   6.6240E+01   3.3196E-06  0.0138
   6.6240E+01   6.7852E+01   2.9814E-06  0.0144
   6.7852E+01   6.9503E+01   2.4617E-06  0.0157
   6.9503E+01   7.1194E+01   2.1832E-06  0.0165
   7.1194E+01   7.2926E+01   1.8785E-06  0.0175
   7.2926E+01   7.4701E+01   1.5679E-06  0.0190
   7.4701E+01   7.6518E+01   1.3590E-06  0.0201
   7.6518E+01   7.8380E+01   1.1833E-06  0.0213
   7.8380E+01   8.0287E+01   1.0126E-06  0.0228
   8.0287E+01   8.2240E+01   7.7811E-07  0.0256
   8.2240E+01   8.4241E+01   6.5018E-07  0.0277
   8.4241E+01   8.6291E+01   5.6839E-07  0.0293
   8.6291E+01   8.8391E+01   4.5534E-07  0.0323
   8.8391E+01   9.0541E+01   3.8780E-07  0.0346
   9.0541E+01   9.2744E+01   2.9506E-07  0.0392
   9.2744E+01   9.5001E+01   2.4063E-07  0.0429
   9.5001E+01   9.7312E+01   1.8646E-07  0.0482
   9.7312E+01   9.9680E+01   1.5458E-07  0.0523
   9.9680E+01   1.0211E+02   1.1586E-07  0.0597
   1.0211E+02   1.0459E+02   8.9361E-08  0.0671
   1.0459E+02   1.0713E+02   7.1520E-08  0.0741
   1.0713E+02   1.0974E+02   5.3709E-08  0.0845
   1.0974E+02   1.1241E+02   4.0823E-08  0.0958
   1.1241E+02   1.1515E+02   2.9981E-08  0.1104
   1.1515E+02   1.1795E+02   1.7490E-08  0.1429
   1.1795E+02   1.2082E+02   1.1848E-08  0.1715
   1.2082E+02   1.2376E+02   6.4635E-09  0.2294
   1.2376E+02   1.2677E+02   7.6384E-09  0.2085
   1.2677E+02   1.2985E+02   4.5390E-09  0.2673
   1.2985E+02   1.3301E+02   2.8486E-09  0.3333
   1.3301E+02   1.3625E+02   9.2699E-10  0.5774
   1.3625E+02   1.3956E+02   6.0331E-10  0.7071
   1.3956E+02   1.4296E+02   2.9449E-10  1.0000
   1.4296E+02   1.4644E+02   0.0000E+00  0.0000
   1.4644E+02   1.5000E+02   0.0000E+00  0.0000

#   sum over                 1.4319E-05
'no. =    1   reg = 113 - 213'
msuc: {\huge [t-cross] in region mesh}
msdr: {\it plotted by \ANGEL \version}
msdl: {\it calculated by \PHITS  3.26}
wt: s(0.7)
\vspace{-3}
  region surface crossing
  area  &=&   1.0000E+00 [cm^2]
e:
 
# Information for Restart Calculation
# This calculation was newly started
# istdev =  2 # 1:Batch variance, 2:History variance
# resc2  = 1.00000000000000000E+09 # Total source weight or Total source weight / maxcas
# resc3  = 1.00000000000000000E+09 # Total history number or Total batch number
# maxcas =   500000000 # History / Batch, only used for istdev=1
# bitrseed = 0001001110011001001001110000100100110111001111011100001000101100 # bit data of rseed
