[ T-Cross ]
    title = [t-cross] in region mesh
     mesh =  reg            # mesh type is region-wise
      reg =    1            # number of crossing regions
      non     r-from    r-to       area
      1       105       205        1.000000    
   e-type =    3            # e-mesh is log given by emin, emax and ne
     emin =  1.0000000E-02  # minimum value of e-mesh points
     emax =   150.0000      # maximum value of e-mesh points
#    edel =  2.4039514E-02  # mesh width of e-mesh points
       ne =    400          # number of e-mesh points
#    data = ( e(i), i = 1, ne + 1 )
#           1.00000E-02  1.02433E-02  1.04925E-02  1.07478E-02  1.10093E-02
#           1.12772E-02  1.15516E-02  1.18326E-02  1.21205E-02  1.24154E-02
#           1.27175E-02  1.30269E-02  1.33439E-02  1.36686E-02  1.40011E-02
#           1.43418E-02  1.46907E-02  1.50482E-02  1.54143E-02  1.57894E-02
#           1.61735E-02  1.65670E-02  1.69701E-02  1.73830E-02  1.78060E-02
#           1.82392E-02  1.86830E-02  1.91375E-02  1.96032E-02  2.00801E-02
#           2.05687E-02  2.10692E-02  2.15818E-02  2.21069E-02  2.26448E-02
#           2.31957E-02  2.37601E-02  2.43382E-02  2.49304E-02  2.55369E-02
#           2.61583E-02  2.67947E-02  2.74467E-02  2.81145E-02  2.87985E-02
#           2.94992E-02  3.02169E-02  3.09521E-02  3.17052E-02  3.24766E-02
#           3.32668E-02  3.40762E-02  3.49053E-02  3.57546E-02  3.66246E-02
#           3.75157E-02  3.84284E-02  3.93634E-02  4.03212E-02  4.13022E-02
#           4.23071E-02  4.33365E-02  4.43909E-02  4.54710E-02  4.65773E-02
#           4.77106E-02  4.88714E-02  5.00605E-02  5.12785E-02  5.25262E-02
#           5.38042E-02  5.51133E-02  5.64542E-02  5.78278E-02  5.92348E-02
#           6.06760E-02  6.21523E-02  6.36645E-02  6.52135E-02  6.68002E-02
#           6.84255E-02  7.00904E-02  7.17957E-02  7.35426E-02  7.53319E-02
#           7.71648E-02  7.90423E-02  8.09655E-02  8.29354E-02  8.49533E-02
#           8.70203E-02  8.91376E-02  9.13064E-02  9.35279E-02  9.58035E-02
#           9.81345E-02  1.00522E-01  1.02968E-01  1.05473E-01  1.08040E-01
#           1.10668E-01  1.13361E-01  1.16119E-01  1.18944E-01  1.21838E-01
#           1.24803E-01  1.27839E-01  1.30950E-01  1.34136E-01  1.37399E-01
#           1.40742E-01  1.44167E-01  1.47675E-01  1.51268E-01  1.54948E-01
#           1.58718E-01  1.62580E-01  1.66535E-01  1.70587E-01  1.74738E-01
#           1.78989E-01  1.83344E-01  1.87805E-01  1.92375E-01  1.97055E-01
#           2.01850E-01  2.06761E-01  2.11792E-01  2.16945E-01  2.22223E-01
#           2.27630E-01  2.33169E-01  2.38842E-01  2.44653E-01  2.50605E-01
#           2.56703E-01  2.62949E-01  2.69346E-01  2.75900E-01  2.82613E-01
#           2.89489E-01  2.96532E-01  3.03747E-01  3.11138E-01  3.18708E-01
#           3.26462E-01  3.34405E-01  3.42542E-01  3.50876E-01  3.59413E-01
#           3.68158E-01  3.77116E-01  3.86291E-01  3.95690E-01  4.05317E-01
#           4.15179E-01  4.25281E-01  4.35628E-01  4.46227E-01  4.57084E-01
#           4.68205E-01  4.79597E-01  4.91266E-01  5.03219E-01  5.15463E-01
#           5.28005E-01  5.40851E-01  5.54011E-01  5.67490E-01  5.81298E-01
#           5.95441E-01  6.09929E-01  6.24769E-01  6.39970E-01  6.55541E-01
#           6.71491E-01  6.87828E-01  7.04564E-01  7.21706E-01  7.39266E-01
#           7.57253E-01  7.75678E-01  7.94551E-01  8.13883E-01  8.33685E-01
#           8.53969E-01  8.74747E-01  8.96030E-01  9.17831E-01  9.40163E-01
#           9.63038E-01  9.86469E-01  1.01047E+00  1.03506E+00  1.06024E+00
#           1.08604E+00  1.11246E+00  1.13953E+00  1.16725E+00  1.19565E+00
#           1.22474E+00  1.25454E+00  1.28507E+00  1.31633E+00  1.34836E+00
#           1.38117E+00  1.41477E+00  1.44920E+00  1.48446E+00  1.52057E+00
#           1.55757E+00  1.59547E+00  1.63429E+00  1.67405E+00  1.71478E+00
#           1.75650E+00  1.79924E+00  1.84302E+00  1.88786E+00  1.93379E+00
#           1.98084E+00  2.02904E+00  2.07841E+00  2.12898E+00  2.18078E+00
#           2.23384E+00  2.28819E+00  2.34386E+00  2.40089E+00  2.45930E+00
#           2.51914E+00  2.58043E+00  2.64322E+00  2.70753E+00  2.77341E+00
#           2.84088E+00  2.91001E+00  2.98081E+00  3.05333E+00  3.12762E+00
#           3.20372E+00  3.28167E+00  3.36152E+00  3.44330E+00  3.52708E+00
#           3.61290E+00  3.70080E+00  3.79085E+00  3.88308E+00  3.97756E+00
#           4.07434E+00  4.17347E+00  4.27501E+00  4.37903E+00  4.48557E+00
#           4.59471E+00  4.70650E+00  4.82102E+00  4.93832E+00  5.05847E+00
#           5.18155E+00  5.30762E+00  5.43676E+00  5.56904E+00  5.70453E+00
#           5.84333E+00  5.98550E+00  6.13114E+00  6.28031E+00  6.43312E+00
#           6.58964E+00  6.74997E+00  6.91420E+00  7.08243E+00  7.25475E+00
#           7.43126E+00  7.61207E+00  7.79728E+00  7.98700E+00  8.18133E+00
#           8.38038E+00  8.58428E+00  8.79315E+00  9.00709E+00  9.22624E+00
#           9.45072E+00  9.68067E+00  9.91620E+00  1.01575E+01  1.04046E+01
#           1.06578E+01  1.09171E+01  1.11827E+01  1.14548E+01  1.17335E+01
#           1.20190E+01  1.23114E+01  1.26109E+01  1.29178E+01  1.32321E+01
#           1.35540E+01  1.38838E+01  1.42216E+01  1.45676E+01  1.49221E+01
#           1.52851E+01  1.56570E+01  1.60380E+01  1.64282E+01  1.68279E+01
#           1.72374E+01  1.76568E+01  1.80864E+01  1.85264E+01  1.89772E+01
#           1.94389E+01  1.99119E+01  2.03963E+01  2.08926E+01  2.14009E+01
#           2.19216E+01  2.24550E+01  2.30014E+01  2.35610E+01  2.41343E+01
#           2.47215E+01  2.53230E+01  2.59391E+01  2.65702E+01  2.72167E+01
#           2.78789E+01  2.85572E+01  2.92520E+01  2.99637E+01  3.06928E+01
#           3.14396E+01  3.22045E+01  3.29881E+01  3.37907E+01  3.46128E+01
#           3.54550E+01  3.63177E+01  3.72013E+01  3.81064E+01  3.90336E+01
#           3.99833E+01  4.09561E+01  4.19526E+01  4.29734E+01  4.40189E+01
#           4.50900E+01  4.61870E+01  4.73108E+01  4.84619E+01  4.96410E+01
#           5.08488E+01  5.20860E+01  5.33533E+01  5.46514E+01  5.59812E+01
#           5.73432E+01  5.87384E+01  6.01676E+01  6.16315E+01  6.31311E+01
#           6.46671E+01  6.62405E+01  6.78522E+01  6.95031E+01  7.11941E+01
#           7.29263E+01  7.47007E+01  7.65182E+01  7.83800E+01  8.02870E+01
#           8.22405E+01  8.42414E+01  8.62911E+01  8.83906E+01  9.05412E+01
#           9.27442E+01  9.50007E+01  9.73122E+01  9.96799E+01  1.02105E+02
#           1.04589E+02  1.07134E+02  1.09741E+02  1.12411E+02  1.15146E+02
#           1.17948E+02  1.20817E+02  1.23757E+02  1.26768E+02  1.29852E+02
#           1.33012E+02  1.36248E+02  1.39563E+02  1.42959E+02  1.46437E+02
#           1.50000E+02
     unit =    2            # unit is [1/cm^2/(MeV/n)/source]
     axis =  eng            # axis of output
     file = detector-06.out  # file name of output for the above axis
   output = f-curr          # surface crossing forward current spectrum
     part =  neutron  
# kf/name :  2112     
#    used :        main (  %)        temp (  %)       total (  %)
#  memory :         414 (  0)           0 (  0)         414 (  0)

#------------------------------------------------------------------------------
#newpage:
#   no. =    1   reg = 105 - 205

x: Energy [MeV/n]
y:  F-Curr [1/cm^2/(MeV/n)/source]         
p: xlog ylog afac(0.8) form(0.9)
h: n            x            y(neutron ),hh0l   n 
#  e-lower      e-upper      neutron     r.err 
   1.0000E-02   1.0243E-02   8.3390E-05  0.0991
   1.0243E-02   1.0493E-02   8.1945E-05  0.0988
   1.0493E-02   1.0748E-02   8.8453E-05  0.0941
   1.0748E-02   1.1009E-02   7.6163E-05  0.1000
   1.1009E-02   1.1277E-02   8.1173E-05  0.0958
   1.1277E-02   1.1552E-02   6.5550E-05  0.1054
   1.1552E-02   1.1833E-02   6.6800E-05  0.1031
   1.1833E-02   1.2121E-02   7.2767E-05  0.0976
   1.2121E-02   1.2415E-02   7.3283E-05  0.0960
   1.2415E-02   1.2718E-02   6.3536E-05  0.1021
   1.2718E-02   1.3027E-02   5.6771E-05  0.1064
   1.3027E-02   1.3344E-02   6.4331E-05  0.0990
   1.3344E-02   1.3669E-02   5.5405E-05  0.1054
   1.3669E-02   1.4001E-02   6.4746E-05  0.0962
   1.4001E-02   1.4342E-02   5.7644E-05  0.1008
   1.4342E-02   1.4691E-02   5.9524E-05  0.0981
   1.4691E-02   1.5048E-02   6.4271E-05  0.0933
   1.5048E-02   1.5414E-02   5.4197E-05  0.1003
   1.5414E-02   1.5789E-02   6.0738E-05  0.0935
   1.5789E-02   1.6174E-02   4.4557E-05  0.1079
   1.6174E-02   1.6567E-02   4.5711E-05  0.1054
   1.6567E-02   1.6970E-02   4.8942E-05  0.1006
   1.6970E-02   1.7383E-02   4.7928E-05  0.1003
   1.7383E-02   1.7806E-02   4.7736E-05  0.0995
   1.7806E-02   1.8239E-02   5.3522E-05  0.0928
   1.8239E-02   1.8683E-02   4.6943E-05  0.0979
   1.8683E-02   1.9138E-02   3.7281E-05  0.1085
   1.9138E-02   1.9603E-02   5.1553E-05  0.0912
   1.9603E-02   2.0080E-02   3.5001E-05  0.1092
   2.0080E-02   2.0569E-02   4.1326E-05  0.0995
   2.0569E-02   2.1069E-02   3.3951E-05  0.1085
   2.1069E-02   2.1582E-02   4.6372E-05  0.0917
   2.1582E-02   2.2107E-02   3.4644E-05  0.1048
   2.2107E-02   2.2645E-02   3.4157E-05  0.1043
   2.2645E-02   2.3196E-02   4.5652E-05  0.0891
   2.3196E-02   2.3760E-02   3.8723E-05  0.0955
   2.3760E-02   2.4338E-02   3.8980E-05  0.0941
   2.4338E-02   2.4930E-02   3.5703E-05  0.0971
   2.4930E-02   2.5537E-02   3.6396E-05  0.0950
   2.5537E-02   2.6158E-02   3.6308E-05  0.0941
   2.6158E-02   2.6795E-02   4.0538E-05  0.0879
   2.6795E-02   2.7447E-02   3.7304E-05  0.0906
   2.7447E-02   2.8114E-02   3.3289E-05  0.0946
   2.8114E-02   2.8799E-02   3.0881E-05  0.0972
   2.8799E-02   2.9499E-02   2.9880E-05  0.0976
   2.9499E-02   3.0217E-02   3.2780E-05  0.0921
   3.0217E-02   3.0952E-02   2.5739E-05  0.1026
   3.0952E-02   3.1705E-02   3.0463E-05  0.0932
   3.1705E-02   3.2477E-02   3.0836E-05  0.0917
   3.2477E-02   3.3267E-02   3.0764E-05  0.0904
   3.3267E-02   3.4076E-02   3.0623E-05  0.0898
   3.4076E-02   3.4905E-02   2.4352E-05  0.0995
   3.4905E-02   3.5755E-02   2.5163E-05  0.0967
   3.5755E-02   3.6625E-02   2.5692E-05  0.0945
   3.6625E-02   3.7516E-02   2.8304E-05  0.0889
   3.7516E-02   3.8428E-02   2.5386E-05  0.0926
   3.8428E-02   3.9363E-02   2.6556E-05  0.0897
   3.9363E-02   4.0321E-02   2.6639E-05  0.0883
   4.0321E-02   4.1302E-02   2.4253E-05  0.0916
   4.1302E-02   4.2307E-02   2.4619E-05  0.0898
   4.2307E-02   4.3337E-02   2.0750E-05  0.0967
   4.3337E-02   4.4391E-02   2.3099E-05  0.0905
   4.4391E-02   4.5471E-02   2.0647E-05  0.0945
   4.5471E-02   4.6577E-02   2.1579E-05  0.0913
   4.6577E-02   4.7711E-02   2.0922E-05  0.0917
   4.7711E-02   4.8871E-02   1.7685E-05  0.0986
   4.8871E-02   5.0061E-02   2.1013E-05  0.0894
   5.0061E-02   5.1279E-02   1.6776E-05  0.0988
   5.1279E-02   5.2526E-02   2.0506E-05  0.0884
   5.2526E-02   5.3804E-02   1.8438E-05  0.0921
   5.3804E-02   5.5113E-02   1.9186E-05  0.0891
   5.5113E-02   5.6454E-02   1.6167E-05  0.0959
   5.6454E-02   5.7828E-02   1.8479E-05  0.0887
   5.7828E-02   5.9235E-02   2.0859E-05  0.0825
   5.9235E-02   6.0676E-02   1.5871E-05  0.0933
   6.0676E-02   6.2152E-02   1.7563E-05  0.0877
   6.2152E-02   6.3665E-02   1.8117E-05  0.0853
   6.3665E-02   6.5214E-02   1.8295E-05  0.0839
   6.5214E-02   6.6800E-02   1.3695E-05  0.0958
   6.6800E-02   6.8426E-02   1.5971E-05  0.0877
   6.8426E-02   7.0090E-02   1.4423E-05  0.0912
   7.0090E-02   7.1796E-02   1.5123E-05  0.0879
   7.1796E-02   7.3543E-02   1.5834E-05  0.0848
   7.3543E-02   7.5332E-02   1.5966E-05  0.0836
   7.5332E-02   7.7165E-02   1.4851E-05  0.0856
   7.7165E-02   7.9042E-02   1.2729E-05  0.0913
   7.9042E-02   8.0965E-02   1.2680E-05  0.0905
   8.0965E-02   8.2935E-02   1.2766E-05  0.0891
   8.2935E-02   8.4953E-02   1.3141E-05  0.0867
   8.4953E-02   8.7020E-02   1.2254E-05  0.0886
   8.7020E-02   8.9138E-02   1.1603E-05  0.0900
   8.9138E-02   9.1306E-02   1.0966E-05  0.0917
   9.1306E-02   9.3528E-02   1.2224E-05  0.0858
   9.3528E-02   9.5804E-02   1.3431E-05  0.0808
   9.5804E-02   9.8134E-02   1.2080E-05  0.0842
   9.8134E-02   1.0052E-01   1.1285E-05  0.0861
   1.0052E-01   1.0297E-01   1.1276E-05  0.0851
   1.0297E-01   1.0547E-01   1.1828E-05  0.0821
   1.0547E-01   1.0804E-01   1.1966E-05  0.0806
   1.0804E-01   1.1067E-01   1.2419E-05  0.0781
   1.1067E-01   1.1336E-01   1.3779E-05  0.0733
   1.1336E-01   1.1612E-01   1.3163E-05  0.0741
   1.1612E-01   1.1894E-01   1.2844E-05  0.0741
   1.1894E-01   1.2184E-01   1.3532E-05  0.0714
   1.2184E-01   1.2480E-01   1.4882E-05  0.0672
   1.2480E-01   1.2784E-01   1.4507E-05  0.0673
   1.2784E-01   1.3095E-01   1.6809E-05  0.0618
   1.3095E-01   1.3414E-01   1.6794E-05  0.0611
   1.3414E-01   1.3740E-01   1.5157E-05  0.0634
   1.3740E-01   1.4074E-01   1.7733E-05  0.0580
   1.4074E-01   1.4417E-01   1.6612E-05  0.0592
   1.4417E-01   1.4767E-01   1.8314E-05  0.0557
   1.4767E-01   1.5127E-01   1.9888E-05  0.0529
   1.5127E-01   1.5495E-01   1.9642E-05  0.0525
   1.5495E-01   1.5872E-01   2.0525E-05  0.0508
   1.5872E-01   1.6258E-01   2.0529E-05  0.0502
   1.6258E-01   1.6654E-01   1.7773E-05  0.0532
   1.6654E-01   1.7059E-01   2.3115E-05  0.0461
   1.7059E-01   1.7474E-01   2.3623E-05  0.0451
   1.7474E-01   1.7899E-01   2.5399E-05  0.0429
   1.7899E-01   1.8334E-01   2.2457E-05  0.0452
   1.8334E-01   1.8781E-01   2.2412E-05  0.0446
   1.8781E-01   1.9237E-01   2.4764E-05  0.0420
   1.9237E-01   1.9706E-01   2.5461E-05  0.0409
   1.9706E-01   2.0185E-01   2.5572E-05  0.0403
   2.0185E-01   2.0676E-01   2.5368E-05  0.0400
   2.0676E-01   2.1179E-01   2.6676E-05  0.0385
   2.1179E-01   2.1694E-01   2.8939E-05  0.0366
   2.1694E-01   2.2222E-01   2.8049E-05  0.0367
   2.2222E-01   2.2763E-01   2.9459E-05  0.0354
   2.2763E-01   2.3317E-01   3.0571E-05  0.0343
   2.3317E-01   2.3884E-01   3.0442E-05  0.0340
   2.3884E-01   2.4465E-01   3.2383E-05  0.0326
   2.4465E-01   2.5061E-01   3.2879E-05  0.0319
   2.5061E-01   2.5670E-01   3.3400E-05  0.0313
   2.5670E-01   2.6295E-01   3.5810E-05  0.0299
   2.6295E-01   2.6935E-01   3.5726E-05  0.0295
   2.6935E-01   2.7590E-01   3.3961E-05  0.0299
   2.7590E-01   2.8261E-01   3.7396E-05  0.0282
   2.8261E-01   2.8949E-01   3.5911E-05  0.0284
   2.8949E-01   2.9653E-01   3.7582E-05  0.0274
   2.9653E-01   3.0375E-01   4.0577E-05  0.0261
   3.0375E-01   3.1114E-01   4.1884E-05  0.0254
   3.1114E-01   3.1871E-01   4.1031E-05  0.0253
   3.1871E-01   3.2646E-01   4.3127E-05  0.0244
   3.2646E-01   3.3441E-01   4.2888E-05  0.0242
   3.3441E-01   3.4254E-01   4.5070E-05  0.0233
   3.4254E-01   3.5088E-01   4.4553E-05  0.0232
   3.5088E-01   3.5941E-01   4.7381E-05  0.0222
   3.5941E-01   3.6816E-01   4.8613E-05  0.0216
   3.6816E-01   3.7712E-01   4.7997E-05  0.0215
   3.7712E-01   3.8629E-01   4.8128E-05  0.0212
   3.8629E-01   3.9569E-01   5.1461E-05  0.0203
   3.9569E-01   4.0532E-01   5.1372E-05  0.0201
   4.0532E-01   4.1518E-01   5.2072E-05  0.0197
   4.1518E-01   4.2528E-01   5.3875E-05  0.0191
   4.2528E-01   4.3563E-01   5.4698E-05  0.0188
   4.3563E-01   4.4623E-01   5.7485E-05  0.0181
   4.4623E-01   4.5708E-01   5.8259E-05  0.0177
   4.5708E-01   4.6821E-01   5.9063E-05  0.0174
   4.6821E-01   4.7960E-01   6.0798E-05  0.0169
   4.7960E-01   4.9127E-01   6.1544E-05  0.0166
   4.9127E-01   5.0322E-01   6.4150E-05  0.0161
   5.0322E-01   5.1546E-01   6.4240E-05  0.0159
   5.1546E-01   5.2800E-01   6.5730E-05  0.0155
   5.2800E-01   5.4085E-01   6.7302E-05  0.0152
   5.4085E-01   5.5401E-01   7.0071E-05  0.0147
   5.5401E-01   5.6749E-01   7.1754E-05  0.0143
   5.6749E-01   5.8130E-01   6.9081E-05  0.0144
   5.8130E-01   5.9544E-01   7.4149E-05  0.0138
   5.9544E-01   6.0993E-01   7.3748E-05  0.0136
   6.0993E-01   6.2477E-01   7.5652E-05  0.0133
   6.2477E-01   6.3997E-01   7.7176E-05  0.0130
   6.3997E-01   6.5554E-01   8.0073E-05  0.0126
   6.5554E-01   6.7149E-01   7.9224E-05  0.0125
   6.7149E-01   6.8783E-01   7.9777E-05  0.0123
   6.8783E-01   7.0456E-01   8.3505E-05  0.0119
   7.0456E-01   7.2171E-01   8.5119E-05  0.0117
   7.2171E-01   7.3927E-01   8.4338E-05  0.0116
   7.3927E-01   7.5725E-01   8.6482E-05  0.0113
   7.5725E-01   7.7568E-01   8.9785E-05  0.0110
   7.7568E-01   7.9455E-01   8.8350E-05  0.0109
   7.9455E-01   8.1388E-01   8.8515E-05  0.0108
   8.1388E-01   8.3368E-01   9.0266E-05  0.0105
   8.3368E-01   8.5397E-01   9.1847E-05  0.0103
   8.5397E-01   8.7475E-01   9.3150E-05  0.0101
   8.7475E-01   8.9603E-01   9.2311E-05  0.0100
   8.9603E-01   9.1783E-01   9.4380E-05  0.0098
   9.1783E-01   9.4016E-01   9.3581E-05  0.0097
   9.4016E-01   9.6304E-01   9.4002E-05  0.0096
   9.6304E-01   9.8647E-01   9.2011E-05  0.0096
   9.8647E-01   1.0105E+00   9.1784E-05  0.0095
   1.0105E+00   1.0351E+00   9.1595E-05  0.0094
   1.0351E+00   1.0602E+00   9.1249E-05  0.0093
   1.0602E+00   1.0860E+00   9.1666E-05  0.0091
   1.0860E+00   1.1125E+00   9.1178E-05  0.0091
   1.1125E+00   1.1395E+00   9.3885E-05  0.0088
   1.1395E+00   1.1673E+00   9.3784E-05  0.0087
   1.1673E+00   1.1957E+00   9.4643E-05  0.0086
   1.1957E+00   1.2247E+00   9.4932E-05  0.0085
   1.2247E+00   1.2545E+00   9.5477E-05  0.0083
   1.2545E+00   1.2851E+00   9.6481E-05  0.0082
   1.2851E+00   1.3163E+00   9.6355E-05  0.0081
   1.3163E+00   1.3484E+00   9.7141E-05  0.0080
   1.3484E+00   1.3812E+00   9.8241E-05  0.0078
   1.3812E+00   1.4148E+00   9.5672E-05  0.0078
   1.4148E+00   1.4492E+00   9.6800E-05  0.0077
   1.4492E+00   1.4845E+00   9.6075E-05  0.0076
   1.4845E+00   1.5206E+00   9.5828E-05  0.0075
   1.5206E+00   1.5576E+00   9.6324E-05  0.0074
   1.5576E+00   1.5955E+00   9.4964E-05  0.0074
   1.5955E+00   1.6343E+00   9.3861E-05  0.0073
   1.6343E+00   1.6741E+00   9.3165E-05  0.0073
   1.6741E+00   1.7148E+00   9.3666E-05  0.0072
   1.7148E+00   1.7565E+00   9.0846E-05  0.0072
   1.7565E+00   1.7992E+00   8.5691E-05  0.0073
   1.7992E+00   1.8430E+00   7.9730E-05  0.0075
   1.8430E+00   1.8879E+00   7.7321E-05  0.0075
   1.8879E+00   1.9338E+00   7.3613E-05  0.0075
   1.9338E+00   1.9808E+00   7.0852E-05  0.0076
   1.9808E+00   2.0290E+00   7.1050E-05  0.0075
   2.0290E+00   2.0784E+00   7.0692E-05  0.0074
   2.0784E+00   2.1290E+00   7.2416E-05  0.0072
   2.1290E+00   2.1808E+00   7.3497E-05  0.0070
   2.1808E+00   2.2338E+00   7.5879E-05  0.0068
   2.2338E+00   2.2882E+00   7.4631E-05  0.0068
   2.2882E+00   2.3439E+00   7.1965E-05  0.0069
   2.3439E+00   2.4009E+00   7.1328E-05  0.0068
   2.4009E+00   2.4593E+00   6.9760E-05  0.0068
   2.4593E+00   2.5191E+00   6.8756E-05  0.0068
   2.5191E+00   2.5804E+00   6.8711E-05  0.0067
   2.5804E+00   2.6432E+00   6.8801E-05  0.0066
   2.6432E+00   2.7075E+00   6.8062E-05  0.0066
   2.7075E+00   2.7734E+00   6.7567E-05  0.0065
   2.7734E+00   2.8409E+00   6.5548E-05  0.0066
   2.8409E+00   2.9100E+00   6.6380E-05  0.0065
   2.9100E+00   2.9808E+00   6.4978E-05  0.0064
   2.9808E+00   3.0533E+00   6.5065E-05  0.0064
   3.0533E+00   3.1276E+00   6.4208E-05  0.0063
   3.1276E+00   3.2037E+00   6.3496E-05  0.0063
   3.2037E+00   3.2817E+00   6.2528E-05  0.0063
   3.2817E+00   3.3615E+00   6.2115E-05  0.0062
   3.3615E+00   3.4433E+00   6.2208E-05  0.0062
   3.4433E+00   3.5271E+00   6.1044E-05  0.0061
   3.5271E+00   3.6129E+00   6.0902E-05  0.0061
   3.6129E+00   3.7008E+00   6.0054E-05  0.0061
   3.7008E+00   3.7908E+00   5.9229E-05  0.0060
   3.7908E+00   3.8831E+00   5.8491E-05  0.0060
   3.8831E+00   3.9776E+00   5.7507E-05  0.0060
   3.9776E+00   4.0743E+00   5.6787E-05  0.0059
   4.0743E+00   4.1735E+00   5.6092E-05  0.0059
   4.1735E+00   4.2750E+00   5.5234E-05  0.0059
   4.2750E+00   4.3790E+00   5.3626E-05  0.0059
   4.3790E+00   4.4856E+00   5.3031E-05  0.0059
   4.4856E+00   4.5947E+00   5.1799E-05  0.0059
   4.5947E+00   4.7065E+00   5.0424E-05  0.0059
   4.7065E+00   4.8210E+00   5.0485E-05  0.0058
   4.8210E+00   4.9383E+00   4.9600E-05  0.0058
   4.9383E+00   5.0585E+00   4.9089E-05  0.0057
   5.0585E+00   5.1815E+00   4.9028E-05  0.0057
   5.1815E+00   5.3076E+00   4.8035E-05  0.0057
   5.3076E+00   5.4368E+00   4.7926E-05  0.0056
   5.4368E+00   5.5690E+00   4.7661E-05  0.0055
   5.5690E+00   5.7045E+00   4.6702E-05  0.0055
   5.7045E+00   5.8433E+00   4.5863E-05  0.0055
   5.8433E+00   5.9855E+00   4.5389E-05  0.0055
   5.9855E+00   6.1311E+00   4.5916E-05  0.0054
   6.1311E+00   6.2803E+00   4.5236E-05  0.0054
   6.2803E+00   6.4331E+00   4.4884E-05  0.0053
   6.4331E+00   6.5896E+00   4.4692E-05  0.0053
   6.5896E+00   6.7500E+00   4.4144E-05  0.0052
   6.7500E+00   6.9142E+00   4.4010E-05  0.0052
   6.9142E+00   7.0824E+00   4.3440E-05  0.0052
   7.0824E+00   7.2548E+00   4.3281E-05  0.0051
   7.2548E+00   7.4313E+00   4.2942E-05  0.0051
   7.4313E+00   7.6121E+00   4.2385E-05  0.0050
   7.6121E+00   7.7973E+00   4.2349E-05  0.0050
   7.7973E+00   7.9870E+00   4.2325E-05  0.0049
   7.9870E+00   8.1813E+00   4.1864E-05  0.0049
   8.1813E+00   8.3804E+00   4.1564E-05  0.0049
   8.3804E+00   8.5843E+00   4.1073E-05  0.0048
   8.5843E+00   8.7931E+00   4.0752E-05  0.0048
   8.7931E+00   9.0071E+00   4.0199E-05  0.0048
   9.0071E+00   9.2262E+00   4.0018E-05  0.0047
   9.2262E+00   9.4507E+00   3.9644E-05  0.0047
   9.4507E+00   9.6807E+00   3.8572E-05  0.0047
   9.6807E+00   9.9162E+00   3.8954E-05  0.0046
   9.9162E+00   1.0157E+01   4.0621E-05  0.0045
   1.0157E+01   1.0405E+01   4.0109E-05  0.0045
   1.0405E+01   1.0658E+01   3.9955E-05  0.0044
   1.0658E+01   1.0917E+01   3.9127E-05  0.0044
   1.0917E+01   1.1183E+01   3.8387E-05  0.0044
   1.1183E+01   1.1455E+01   3.7960E-05  0.0044
   1.1455E+01   1.1733E+01   3.8328E-05  0.0043
   1.1733E+01   1.2019E+01   3.7747E-05  0.0043
   1.2019E+01   1.2311E+01   3.7455E-05  0.0043
   1.2311E+01   1.2611E+01   3.7471E-05  0.0042
   1.2611E+01   1.2918E+01   3.7040E-05  0.0042
   1.2918E+01   1.3232E+01   3.7391E-05  0.0041
   1.3232E+01   1.3554E+01   3.7053E-05  0.0041
   1.3554E+01   1.3884E+01   3.7002E-05  0.0040
   1.3884E+01   1.4222E+01   3.6915E-05  0.0040
   1.4222E+01   1.4568E+01   3.6836E-05  0.0040
   1.4568E+01   1.4922E+01   3.6715E-05  0.0039
   1.4922E+01   1.5285E+01   3.6390E-05  0.0039
   1.5285E+01   1.5657E+01   3.6597E-05  0.0038
   1.5657E+01   1.6038E+01   3.6281E-05  0.0038
   1.6038E+01   1.6428E+01   3.6250E-05  0.0038
   1.6428E+01   1.6828E+01   3.5941E-05  0.0037
   1.6828E+01   1.7237E+01   3.6248E-05  0.0037
   1.7237E+01   1.7657E+01   3.5881E-05  0.0036
   1.7657E+01   1.8086E+01   3.5767E-05  0.0036
   1.8086E+01   1.8526E+01   3.5609E-05  0.0036
   1.8526E+01   1.8977E+01   3.5618E-05  0.0035
   1.8977E+01   1.9439E+01   3.5530E-05  0.0035
   1.9439E+01   1.9912E+01   3.5732E-05  0.0034
   1.9912E+01   2.0396E+01   3.5934E-05  0.0034
   2.0396E+01   2.0893E+01   3.5817E-05  0.0034
   2.0893E+01   2.1401E+01   3.5856E-05  0.0033
   2.1401E+01   2.1922E+01   3.5557E-05  0.0033
   2.1922E+01   2.2455E+01   3.5581E-05  0.0032
   2.2455E+01   2.3001E+01   3.5728E-05  0.0032
   2.3001E+01   2.3561E+01   3.5723E-05  0.0032
   2.3561E+01   2.4134E+01   3.5517E-05  0.0031
   2.4134E+01   2.4721E+01   3.5272E-05  0.0031
   2.4721E+01   2.5323E+01   3.5349E-05  0.0031
   2.5323E+01   2.5939E+01   3.5440E-05  0.0030
   2.5939E+01   2.6570E+01   3.5611E-05  0.0030
   2.6570E+01   2.7217E+01   3.5304E-05  0.0030
   2.7217E+01   2.7879E+01   3.5616E-05  0.0029
   2.7879E+01   2.8557E+01   3.5604E-05  0.0029
   2.8557E+01   2.9252E+01   3.5566E-05  0.0028
   2.9252E+01   2.9964E+01   3.5525E-05  0.0028
   2.9964E+01   3.0693E+01   3.5459E-05  0.0028
   3.0693E+01   3.1440E+01   3.5572E-05  0.0027
   3.1440E+01   3.2205E+01   3.5271E-05  0.0027
   3.2205E+01   3.2988E+01   3.6525E-05  0.0026
   3.2988E+01   3.3791E+01   3.9378E-05  0.0025
   3.3791E+01   3.4613E+01   4.4127E-05  0.0023
   3.4613E+01   3.5455E+01   4.7270E-05  0.0022
   3.5455E+01   3.6318E+01   4.7796E-05  0.0022
   3.6318E+01   3.7201E+01   4.7508E-05  0.0022
   3.7201E+01   3.8106E+01   4.6897E-05  0.0022
   3.8106E+01   3.9034E+01   4.5887E-05  0.0022
   3.9034E+01   3.9983E+01   4.5344E-05  0.0022
   3.9983E+01   4.0956E+01   4.4474E-05  0.0021
   4.0956E+01   4.1953E+01   4.3812E-05  0.0021
   4.1953E+01   4.2973E+01   4.3018E-05  0.0021
   4.2973E+01   4.4019E+01   4.2110E-05  0.0021
   4.4019E+01   4.5090E+01   4.1441E-05  0.0021
   4.5090E+01   4.6187E+01   4.0499E-05  0.0021
   4.6187E+01   4.7311E+01   3.9623E-05  0.0021
   4.7311E+01   4.8462E+01   3.2822E-05  0.0023
   4.8462E+01   4.9641E+01   2.7769E-05  0.0025
   4.9641E+01   5.0849E+01   2.7025E-05  0.0025
   5.0849E+01   5.2086E+01   2.6264E-05  0.0025
   5.2086E+01   5.3353E+01   2.5318E-05  0.0025
   5.3353E+01   5.4651E+01   2.4494E-05  0.0025
   5.4651E+01   5.5981E+01   2.3596E-05  0.0025
   5.5981E+01   5.7343E+01   2.2720E-05  0.0025
   5.7343E+01   5.8738E+01   2.1765E-05  0.0026
   5.8738E+01   6.0168E+01   2.0826E-05  0.0026
   6.0168E+01   6.1632E+01   1.9892E-05  0.0026
   6.1632E+01   6.3131E+01   1.8883E-05  0.0027
   6.3131E+01   6.4667E+01   1.7883E-05  0.0027
   6.4667E+01   6.6240E+01   1.6778E-05  0.0028
   6.6240E+01   6.7852E+01   1.5718E-05  0.0028
   6.7852E+01   6.9503E+01   1.4610E-05  0.0029
   6.9503E+01   7.1194E+01   1.3407E-05  0.0030
   7.1194E+01   7.2926E+01   1.2229E-05  0.0031
   7.2926E+01   7.4701E+01   1.0937E-05  0.0032
   7.4701E+01   7.6518E+01   9.6407E-06  0.0034
   7.6518E+01   7.8380E+01   8.3188E-06  0.0036
   7.8380E+01   8.0287E+01   7.0669E-06  0.0039
   8.0287E+01   8.2240E+01   6.1153E-06  0.0041
   8.2240E+01   8.4241E+01   1.5943E-06  0.0079
   8.4241E+01   8.6291E+01   0.0000E+00  0.0000
   8.6291E+01   8.8391E+01   0.0000E+00  0.0000
   8.8391E+01   9.0541E+01   0.0000E+00  0.0000
   9.0541E+01   9.2744E+01   0.0000E+00  0.0000
   9.2744E+01   9.5001E+01   0.0000E+00  0.0000
   9.5001E+01   9.7312E+01   0.0000E+00  0.0000
   9.7312E+01   9.9680E+01   0.0000E+00  0.0000
   9.9680E+01   1.0211E+02   0.0000E+00  0.0000
   1.0211E+02   1.0459E+02   0.0000E+00  0.0000
   1.0459E+02   1.0713E+02   0.0000E+00  0.0000
   1.0713E+02   1.0974E+02   0.0000E+00  0.0000
   1.0974E+02   1.1241E+02   0.0000E+00  0.0000
   1.1241E+02   1.1515E+02   0.0000E+00  0.0000
   1.1515E+02   1.1795E+02   0.0000E+00  0.0000
   1.1795E+02   1.2082E+02   0.0000E+00  0.0000
   1.2082E+02   1.2376E+02   0.0000E+00  0.0000
   1.2376E+02   1.2677E+02   0.0000E+00  0.0000
   1.2677E+02   1.2985E+02   0.0000E+00  0.0000
   1.2985E+02   1.3301E+02   0.0000E+00  0.0000
   1.3301E+02   1.3625E+02   0.0000E+00  0.0000
   1.3625E+02   1.3956E+02   0.0000E+00  0.0000
   1.3956E+02   1.4296E+02   0.0000E+00  0.0000
   1.4296E+02   1.4644E+02   0.0000E+00  0.0000
   1.4644E+02   1.5000E+02   0.0000E+00  0.0000

#   sum over                 1.7429E-05
'no. =    1   reg = 105 - 205'
msuc: {\huge [t-cross] in region mesh}
msdr: {\it plotted by \ANGEL \version}
msdl: {\it calculated by \PHITS  3.26}
wt: s(0.7)
\vspace{-3}
  region surface crossing
  area  &=&   1.0000E+00 [cm^2]
e:
 
# Information for Restart Calculation
# This calculation was newly started
# istdev =  2 # 1:Batch variance, 2:History variance
# resc2  = 5.00000000000000000E+09 # Total source weight or Total source weight / maxcas
# resc3  = 5.00000000000000000E+09 # Total history number or Total batch number
# maxcas =   100000000 # History / Batch, only used for istdev=1
# bitrseed = 0110100000100010111000001110001111001110100100011111101000111001 # bit data of rseed
