[ T-Cross ]
    title = [t-cross] in region mesh
     mesh =  reg            # mesh type is region-wise
      reg =    1            # number of crossing regions
      non     r-from    r-to       area
      1       109       209        1.000000    
   e-type =    3            # e-mesh is log given by emin, emax and ne
     emin =  1.0000000E-02  # minimum value of e-mesh points
     emax =   150.0000      # maximum value of e-mesh points
#    edel =  2.4039514E-02  # mesh width of e-mesh points
       ne =    400          # number of e-mesh points
#    data = ( e(i), i = 1, ne + 1 )
#           1.00000E-02  1.02433E-02  1.04925E-02  1.07478E-02  1.10093E-02
#           1.12772E-02  1.15516E-02  1.18326E-02  1.21205E-02  1.24154E-02
#           1.27175E-02  1.30269E-02  1.33439E-02  1.36686E-02  1.40011E-02
#           1.43418E-02  1.46907E-02  1.50482E-02  1.54143E-02  1.57894E-02
#           1.61735E-02  1.65670E-02  1.69701E-02  1.73830E-02  1.78060E-02
#           1.82392E-02  1.86830E-02  1.91375E-02  1.96032E-02  2.00801E-02
#           2.05687E-02  2.10692E-02  2.15818E-02  2.21069E-02  2.26448E-02
#           2.31957E-02  2.37601E-02  2.43382E-02  2.49304E-02  2.55369E-02
#           2.61583E-02  2.67947E-02  2.74467E-02  2.81145E-02  2.87985E-02
#           2.94992E-02  3.02169E-02  3.09521E-02  3.17052E-02  3.24766E-02
#           3.32668E-02  3.40762E-02  3.49053E-02  3.57546E-02  3.66246E-02
#           3.75157E-02  3.84284E-02  3.93634E-02  4.03212E-02  4.13022E-02
#           4.23071E-02  4.33365E-02  4.43909E-02  4.54710E-02  4.65773E-02
#           4.77106E-02  4.88714E-02  5.00605E-02  5.12785E-02  5.25262E-02
#           5.38042E-02  5.51133E-02  5.64542E-02  5.78278E-02  5.92348E-02
#           6.06760E-02  6.21523E-02  6.36645E-02  6.52135E-02  6.68002E-02
#           6.84255E-02  7.00904E-02  7.17957E-02  7.35426E-02  7.53319E-02
#           7.71648E-02  7.90423E-02  8.09655E-02  8.29354E-02  8.49533E-02
#           8.70203E-02  8.91376E-02  9.13064E-02  9.35279E-02  9.58035E-02
#           9.81345E-02  1.00522E-01  1.02968E-01  1.05473E-01  1.08040E-01
#           1.10668E-01  1.13361E-01  1.16119E-01  1.18944E-01  1.21838E-01
#           1.24803E-01  1.27839E-01  1.30950E-01  1.34136E-01  1.37399E-01
#           1.40742E-01  1.44167E-01  1.47675E-01  1.51268E-01  1.54948E-01
#           1.58718E-01  1.62580E-01  1.66535E-01  1.70587E-01  1.74738E-01
#           1.78989E-01  1.83344E-01  1.87805E-01  1.92375E-01  1.97055E-01
#           2.01850E-01  2.06761E-01  2.11792E-01  2.16945E-01  2.22223E-01
#           2.27630E-01  2.33169E-01  2.38842E-01  2.44653E-01  2.50605E-01
#           2.56703E-01  2.62949E-01  2.69346E-01  2.75900E-01  2.82613E-01
#           2.89489E-01  2.96532E-01  3.03747E-01  3.11138E-01  3.18708E-01
#           3.26462E-01  3.34405E-01  3.42542E-01  3.50876E-01  3.59413E-01
#           3.68158E-01  3.77116E-01  3.86291E-01  3.95690E-01  4.05317E-01
#           4.15179E-01  4.25281E-01  4.35628E-01  4.46227E-01  4.57084E-01
#           4.68205E-01  4.79597E-01  4.91266E-01  5.03219E-01  5.15463E-01
#           5.28005E-01  5.40851E-01  5.54011E-01  5.67490E-01  5.81298E-01
#           5.95441E-01  6.09929E-01  6.24769E-01  6.39970E-01  6.55541E-01
#           6.71491E-01  6.87828E-01  7.04564E-01  7.21706E-01  7.39266E-01
#           7.57253E-01  7.75678E-01  7.94551E-01  8.13883E-01  8.33685E-01
#           8.53969E-01  8.74747E-01  8.96030E-01  9.17831E-01  9.40163E-01
#           9.63038E-01  9.86469E-01  1.01047E+00  1.03506E+00  1.06024E+00
#           1.08604E+00  1.11246E+00  1.13953E+00  1.16725E+00  1.19565E+00
#           1.22474E+00  1.25454E+00  1.28507E+00  1.31633E+00  1.34836E+00
#           1.38117E+00  1.41477E+00  1.44920E+00  1.48446E+00  1.52057E+00
#           1.55757E+00  1.59547E+00  1.63429E+00  1.67405E+00  1.71478E+00
#           1.75650E+00  1.79924E+00  1.84302E+00  1.88786E+00  1.93379E+00
#           1.98084E+00  2.02904E+00  2.07841E+00  2.12898E+00  2.18078E+00
#           2.23384E+00  2.28819E+00  2.34386E+00  2.40089E+00  2.45930E+00
#           2.51914E+00  2.58043E+00  2.64322E+00  2.70753E+00  2.77341E+00
#           2.84088E+00  2.91001E+00  2.98081E+00  3.05333E+00  3.12762E+00
#           3.20372E+00  3.28167E+00  3.36152E+00  3.44330E+00  3.52708E+00
#           3.61290E+00  3.70080E+00  3.79085E+00  3.88308E+00  3.97756E+00
#           4.07434E+00  4.17347E+00  4.27501E+00  4.37903E+00  4.48557E+00
#           4.59471E+00  4.70650E+00  4.82102E+00  4.93832E+00  5.05847E+00
#           5.18155E+00  5.30762E+00  5.43676E+00  5.56904E+00  5.70453E+00
#           5.84333E+00  5.98550E+00  6.13114E+00  6.28031E+00  6.43312E+00
#           6.58964E+00  6.74997E+00  6.91420E+00  7.08243E+00  7.25475E+00
#           7.43126E+00  7.61207E+00  7.79728E+00  7.98700E+00  8.18133E+00
#           8.38038E+00  8.58428E+00  8.79315E+00  9.00709E+00  9.22624E+00
#           9.45072E+00  9.68067E+00  9.91620E+00  1.01575E+01  1.04046E+01
#           1.06578E+01  1.09171E+01  1.11827E+01  1.14548E+01  1.17335E+01
#           1.20190E+01  1.23114E+01  1.26109E+01  1.29178E+01  1.32321E+01
#           1.35540E+01  1.38838E+01  1.42216E+01  1.45676E+01  1.49221E+01
#           1.52851E+01  1.56570E+01  1.60380E+01  1.64282E+01  1.68279E+01
#           1.72374E+01  1.76568E+01  1.80864E+01  1.85264E+01  1.89772E+01
#           1.94389E+01  1.99119E+01  2.03963E+01  2.08926E+01  2.14009E+01
#           2.19216E+01  2.24550E+01  2.30014E+01  2.35610E+01  2.41343E+01
#           2.47215E+01  2.53230E+01  2.59391E+01  2.65702E+01  2.72167E+01
#           2.78789E+01  2.85572E+01  2.92520E+01  2.99637E+01  3.06928E+01
#           3.14396E+01  3.22045E+01  3.29881E+01  3.37907E+01  3.46128E+01
#           3.54550E+01  3.63177E+01  3.72013E+01  3.81064E+01  3.90336E+01
#           3.99833E+01  4.09561E+01  4.19526E+01  4.29734E+01  4.40189E+01
#           4.50900E+01  4.61870E+01  4.73108E+01  4.84619E+01  4.96410E+01
#           5.08488E+01  5.20860E+01  5.33533E+01  5.46514E+01  5.59812E+01
#           5.73432E+01  5.87384E+01  6.01676E+01  6.16315E+01  6.31311E+01
#           6.46671E+01  6.62405E+01  6.78522E+01  6.95031E+01  7.11941E+01
#           7.29263E+01  7.47007E+01  7.65182E+01  7.83800E+01  8.02870E+01
#           8.22405E+01  8.42414E+01  8.62911E+01  8.83906E+01  9.05412E+01
#           9.27442E+01  9.50007E+01  9.73122E+01  9.96799E+01  1.02105E+02
#           1.04589E+02  1.07134E+02  1.09741E+02  1.12411E+02  1.15146E+02
#           1.17948E+02  1.20817E+02  1.23757E+02  1.26768E+02  1.29852E+02
#           1.33012E+02  1.36248E+02  1.39563E+02  1.42959E+02  1.46437E+02
#           1.50000E+02
     unit =    2            # unit is [1/cm^2/(MeV/n)/source]
     axis =  eng            # axis of output
     file = detector-10.out  # file name of output for the above axis
   output = f-curr          # surface crossing forward current spectrum
     part =  neutron  
# kf/name :  2112     
#    used :        main (  %)        temp (  %)       total (  %)
#  memory :         414 (  0)           0 (  0)         414 (  0)

#------------------------------------------------------------------------------
#newpage:
#   no. =    1   reg = 109 - 209

x: Energy [MeV/n]
y:  F-Curr [1/cm^2/(MeV/n)/source]         
p: xlog ylog afac(0.8) form(0.9)
h: n            x            y(neutron ),hh0l   n 
#  e-lower      e-upper      neutron     r.err 
   1.0000E-02   1.0243E-02   3.2846E-05  0.5000
   1.0243E-02   1.0493E-02   2.9634E-05  0.5019
   1.0493E-02   1.0748E-02   6.9700E-05  0.3334
   1.0748E-02   1.1009E-02   3.0551E-05  0.5000
   1.1009E-02   1.1277E-02   5.2178E-05  0.3780
   1.1277E-02   1.1552E-02   4.3631E-05  0.4082
   1.1552E-02   1.1833E-02   4.2610E-05  0.4083
   1.1833E-02   1.2121E-02   5.0493E-05  0.3654
   1.2121E-02   1.2415E-02   2.6079E-05  0.5012
   1.2415E-02   1.2718E-02   3.0388E-05  0.4541
   1.2718E-02   1.3027E-02   3.2289E-05  0.4472
   1.3027E-02   1.3344E-02   2.5173E-05  0.5000
   1.3344E-02   1.3669E-02   4.2995E-05  0.3780
   1.3669E-02   1.4001E-02   3.5860E-05  0.4083
   1.4001E-02   1.4342E-02   2.3445E-05  0.5000
   1.4342E-02   1.4691E-02   1.7138E-05  0.5774
   1.4691E-02   1.5048E-02   3.2630E-05  0.4090
   1.5048E-02   1.5414E-02   1.6353E-05  0.5774
   1.5414E-02   1.5789E-02   2.6541E-05  0.4472
   1.5789E-02   1.6174E-02   4.6730E-05  0.3333
   1.6174E-02   1.6567E-02   2.5365E-05  0.4472
   1.6567E-02   1.6970E-02   2.4761E-05  0.4472
   1.6970E-02   1.7383E-02   2.4184E-05  0.4472
   1.7383E-02   1.7806E-02   4.6365E-05  0.3166
   1.7806E-02   1.8239E-02   1.3826E-05  0.5774
   1.8239E-02   1.8683E-02   1.3504E-05  0.5774
   1.8683E-02   1.9138E-02   8.7899E-06  0.7071
   1.9138E-02   1.9603E-02   2.1458E-05  0.4472
   1.9603E-02   2.0080E-02   1.2570E-05  0.5774
   2.0080E-02   2.0569E-02   3.2649E-05  0.3536
   2.0569E-02   2.1069E-02   2.3953E-05  0.4082
   2.1069E-02   2.1582E-02   3.8924E-05  0.3162
   2.1582E-02   2.2107E-02   4.1734E-05  0.3015
   2.2107E-02   2.2645E-02   2.9389E-05  0.3537
   2.2645E-02   2.3196E-02   1.7469E-05  0.4485
   2.3196E-02   2.3760E-02   1.4128E-05  0.5000
   2.3760E-02   2.4338E-02   1.7278E-05  0.4472
   2.4338E-02   2.4930E-02   9.8553E-06  0.5778
   2.4930E-02   2.5537E-02   1.9743E-05  0.4082
   2.5537E-02   2.6158E-02   2.8868E-05  0.3333
   2.6158E-02   2.6795E-02   1.5373E-05  0.4475
   2.6795E-02   2.7447E-02   1.5320E-05  0.4472
   2.7447E-02   2.8114E-02   8.9801E-06  0.5774
   2.8114E-02   2.8799E-02   1.4584E-05  0.4472
   2.8799E-02   2.9499E-02   1.1400E-05  0.5000
   2.9499E-02   3.0217E-02   1.3906E-05  0.4472
   3.0217E-02   3.0952E-02   1.5792E-05  0.4093
   3.0952E-02   3.1705E-02   1.2619E-05  0.4492
   3.1705E-02   3.2477E-02   2.3263E-05  0.3333
   3.2477E-02   3.3267E-02   1.0089E-05  0.5000
   3.3267E-02   3.4076E-02   1.4797E-05  0.4082
   3.4076E-02   3.4905E-02   1.6488E-05  0.3785
   3.4905E-02   3.5755E-02   9.3953E-06  0.5000
   3.5755E-02   3.6625E-02   9.1558E-06  0.5000
   3.6625E-02   3.7516E-02   8.9698E-06  0.5000
   3.7516E-02   3.8428E-02   9.3352E-06  0.4725
   3.8428E-02   3.9363E-02   1.6733E-05  0.3540
   3.9363E-02   4.0321E-02   4.1700E-06  0.7071
   4.0321E-02   4.1302E-02   1.3304E-05  0.3836
   4.1302E-02   4.2307E-02   7.9337E-06  0.5000
   4.2307E-02   4.3337E-02   7.7609E-06  0.5000
   4.3337E-02   4.4391E-02   1.8906E-05  0.3162
   4.4391E-02   4.5471E-02   1.2715E-05  0.3784
   4.5471E-02   4.6577E-02   1.6244E-05  0.3333
   4.6577E-02   4.7711E-02   7.0463E-06  0.5000
   4.7711E-02   4.8871E-02   8.5992E-06  0.4472
   4.8871E-02   5.0061E-02   2.0021E-05  0.2887
   5.0061E-02   5.1279E-02   8.2007E-06  0.4472
   5.1279E-02   5.2526E-02   4.7958E-06  0.5774
   5.2526E-02   5.3804E-02   1.5606E-05  0.3162
   5.3804E-02   5.5113E-02   1.5230E-05  0.3162
   5.5113E-02   5.6454E-02   1.6363E-05  0.3015
   5.6454E-02   5.7828E-02   1.2673E-05  0.3347
   5.7828E-02   5.9235E-02   9.4320E-06  0.3812
   5.9235E-02   6.0676E-02   1.2085E-05  0.3347
   6.0676E-02   6.2152E-02   9.4611E-06  0.3780
   6.2152E-02   6.3665E-02   6.3884E-06  0.4483
   6.3665E-02   6.5214E-02   8.9764E-06  0.3780
   6.5214E-02   6.6800E-02   8.4812E-06  0.3786
   6.6800E-02   6.8426E-02   1.0620E-05  0.3343
   6.8426E-02   7.0090E-02   1.1991E-05  0.3162
   7.0090E-02   7.1796E-02   4.8992E-06  0.4798
   7.1796E-02   7.3543E-02   6.5887E-06  0.4097
   7.3543E-02   7.5332E-02   1.0023E-05  0.3333
   7.5332E-02   7.7165E-02   9.3776E-06  0.3359
   7.7165E-02   7.9042E-02   7.3610E-06  0.3781
   7.9042E-02   8.0965E-02   6.2333E-06  0.4082
   8.0965E-02   8.2935E-02   1.1971E-05  0.2891
   8.2935E-02   8.4953E-02   5.9339E-06  0.4082
   8.4953E-02   8.7020E-02   6.7643E-06  0.3780
   8.7020E-02   8.9138E-02   9.4248E-06  0.3162
   8.9138E-02   9.1306E-02   7.3462E-06  0.3536
   9.1306E-02   9.3528E-02   9.8780E-06  0.3015
   9.3528E-02   9.5804E-02   7.8981E-06  0.3333
   9.5804E-02   9.8134E-02   4.2766E-06  0.4472
   9.8134E-02   1.0052E-01   1.0644E-05  0.2777
   1.0052E-01   1.0297E-01   9.7977E-06  0.2887
   1.0297E-01   1.0547E-01   1.1030E-05  0.2675
   1.0547E-01   1.0804E-01   6.2180E-06  0.3536
   1.0804E-01   1.1067E-01   8.1893E-06  0.3021
   1.1067E-01   1.1336E-01   7.4139E-06  0.3162
   1.1336E-01   1.1612E-01   7.1217E-06  0.3166
   1.1612E-01   1.1894E-01   5.4851E-06  0.3544
   1.1894E-01   1.2184E-01   7.3550E-06  0.3030
   1.2184E-01   1.2480E-01   1.4139E-05  0.2182
   1.2480E-01   1.2784E-01   1.1704E-05  0.2359
   1.2784E-01   1.3095E-01   1.3340E-05  0.2184
   1.3095E-01   1.3414E-01   1.4000E-05  0.2097
   1.3414E-01   1.3740E-01   1.1604E-05  0.2294
   1.3740E-01   1.4074E-01   1.6688E-05  0.1890
   1.4074E-01   1.4417E-01   1.3191E-05  0.2088
   1.4417E-01   1.4767E-01   1.5194E-05  0.1927
   1.4767E-01   1.5127E-01   1.8793E-05  0.1716
   1.5127E-01   1.5495E-01   2.6817E-05  0.1416
   1.5495E-01   1.5872E-01   1.1135E-05  0.2168
   1.5872E-01   1.6258E-01   1.2905E-05  0.2000
   1.6258E-01   1.6654E-01   1.4128E-05  0.1890
   1.6654E-01   1.7059E-01   1.7901E-05  0.1646
   1.7059E-01   1.7474E-01   1.8280E-05  0.1614
   1.7474E-01   1.7899E-01   1.5046E-05  0.1760
   1.7899E-01   1.8334E-01   2.4288E-05  0.1368
   1.8334E-01   1.8781E-01   2.1863E-05  0.1424
   1.8781E-01   1.9237E-01   2.4548E-05  0.1331
   1.9237E-01   1.9706E-01   2.6629E-05  0.1261
   1.9706E-01   2.0185E-01   2.2158E-05  0.1367
   2.0185E-01   2.0676E-01   2.2219E-05  0.1349
   2.0676E-01   2.1179E-01   2.6393E-05  0.1223
   2.1179E-01   2.1694E-01   3.1527E-05  0.1104
   2.1694E-01   2.2222E-01   2.6073E-05  0.1204
   2.2222E-01   2.2763E-01   2.8556E-05  0.1133
   2.2763E-01   2.3317E-01   2.8719E-05  0.1118
   2.3317E-01   2.3884E-01   3.5482E-05  0.0991
   2.3884E-01   2.4465E-01   4.1906E-05  0.0903
   2.4465E-01   2.5061E-01   3.5585E-05  0.0969
   2.5061E-01   2.5670E-01   4.5340E-05  0.0847
   2.5670E-01   2.6295E-01   3.8120E-05  0.0912
   2.6295E-01   2.6935E-01   4.9481E-05  0.0792
   2.6935E-01   2.7590E-01   4.5686E-05  0.0812
   2.7590E-01   2.8261E-01   4.9294E-05  0.0774
   2.8261E-01   2.8949E-01   5.3486E-05  0.0735
   2.8949E-01   2.9653E-01   5.1739E-05  0.0737
   2.9653E-01   3.0375E-01   5.5148E-05  0.0707
   3.0375E-01   3.1114E-01   6.2174E-05  0.0656
   3.1114E-01   3.1871E-01   5.4943E-05  0.0690
   3.1871E-01   3.2646E-01   5.5898E-05  0.0676
   3.2646E-01   3.3441E-01   7.8705E-05  0.0563
   3.3441E-01   3.4254E-01   6.1340E-05  0.0629
   3.4254E-01   3.5088E-01   7.6956E-05  0.0556
   3.5088E-01   3.5941E-01   7.6064E-05  0.0553
   3.5941E-01   3.6816E-01   7.8488E-05  0.0537
   3.6816E-01   3.7712E-01   8.2796E-05  0.0517
   3.7712E-01   3.8629E-01   8.4538E-05  0.0505
   3.8629E-01   3.9569E-01   8.7505E-05  0.0491
   3.9569E-01   4.0532E-01   9.2921E-05  0.0470
   4.0532E-01   4.1518E-01   1.0418E-04  0.0439
   4.1518E-01   4.2528E-01   9.3201E-05  0.0459
   4.2528E-01   4.3563E-01   1.0555E-04  0.0426
   4.3563E-01   4.4623E-01   1.0368E-04  0.0425
   4.4623E-01   4.5708E-01   1.0430E-04  0.0419
   4.5708E-01   4.6821E-01   1.1176E-04  0.0399
   4.6821E-01   4.7960E-01   1.1503E-04  0.0389
   4.7960E-01   4.9127E-01   1.2385E-04  0.0370
   4.9127E-01   5.0322E-01   1.2543E-04  0.0364
   5.0322E-01   5.1546E-01   1.3210E-04  0.0350
   5.1546E-01   5.2800E-01   1.3823E-04  0.0338
   5.2800E-01   5.4085E-01   1.4266E-04  0.0329
   5.4085E-01   5.5401E-01   1.3999E-04  0.0328
   5.5401E-01   5.6749E-01   1.4938E-04  0.0314
   5.6749E-01   5.8130E-01   1.5142E-04  0.0308
   5.8130E-01   5.9544E-01   1.5511E-04  0.0301
   5.9544E-01   6.0993E-01   1.5813E-04  0.0294
   6.0993E-01   6.2477E-01   1.6888E-04  0.0281
   6.2477E-01   6.3997E-01   1.6962E-04  0.0277
   6.3997E-01   6.5554E-01   1.6965E-04  0.0274
   6.5554E-01   6.7149E-01   1.8026E-04  0.0262
   6.7149E-01   6.8783E-01   1.7617E-04  0.0262
   6.8783E-01   7.0456E-01   1.7272E-04  0.0262
   7.0456E-01   7.2171E-01   1.8860E-04  0.0248
   7.2171E-01   7.3927E-01   1.8499E-04  0.0247
   7.3927E-01   7.5725E-01   1.9147E-04  0.0240
   7.5725E-01   7.7568E-01   1.9174E-04  0.0237
   7.7568E-01   7.9455E-01   2.0396E-04  0.0227
   7.9455E-01   8.1388E-01   2.0057E-04  0.0226
   8.1388E-01   8.3368E-01   2.1003E-04  0.0218
   8.3368E-01   8.5397E-01   2.1057E-04  0.0215
   8.5397E-01   8.7475E-01   2.0912E-04  0.0213
   8.7475E-01   8.9603E-01   2.1178E-04  0.0209
   8.9603E-01   9.1783E-01   2.1343E-04  0.0206
   9.1783E-01   9.4016E-01   2.1341E-04  0.0204
   9.4016E-01   9.6304E-01   2.0864E-04  0.0204
   9.6304E-01   9.8647E-01   2.1146E-04  0.0200
   9.8647E-01   1.0105E+00   2.0814E-04  0.0199
   1.0105E+00   1.0351E+00   2.0344E-04  0.0199
   1.0351E+00   1.0602E+00   2.0416E-04  0.0196
   1.0602E+00   1.0860E+00   2.1032E-04  0.0191
   1.0860E+00   1.1125E+00   2.0897E-04  0.0189
   1.1125E+00   1.1395E+00   2.2550E-04  0.0180
   1.1395E+00   1.1673E+00   2.1644E-04  0.0181
   1.1673E+00   1.1957E+00   2.2684E-04  0.0175
   1.1957E+00   1.2247E+00   2.2785E-04  0.0172
   1.2247E+00   1.2545E+00   2.3468E-04  0.0168
   1.2545E+00   1.2851E+00   2.2866E-04  0.0168
   1.2851E+00   1.3163E+00   2.2204E-04  0.0168
   1.3163E+00   1.3484E+00   2.3139E-04  0.0163
   1.3484E+00   1.3812E+00   2.3254E-04  0.0160
   1.3812E+00   1.4148E+00   2.2638E-04  0.0161
   1.4148E+00   1.4492E+00   2.3266E-04  0.0156
   1.4492E+00   1.4845E+00   2.3338E-04  0.0154
   1.4845E+00   1.5206E+00   2.4127E-04  0.0150
   1.5206E+00   1.5576E+00   2.3147E-04  0.0151
   1.5576E+00   1.5955E+00   2.3486E-04  0.0148
   1.5955E+00   1.6343E+00   2.3319E-04  0.0147
   1.6343E+00   1.6741E+00   2.2902E-04  0.0146
   1.6741E+00   1.7148E+00   2.2639E-04  0.0145
   1.7148E+00   1.7565E+00   2.2598E-04  0.0143
   1.7565E+00   1.7992E+00   2.1898E-04  0.0144
   1.7992E+00   1.8430E+00   2.0179E-04  0.0148
   1.8430E+00   1.8879E+00   1.8782E-04  0.0151
   1.8879E+00   1.9338E+00   1.8485E-04  0.0150
   1.9338E+00   1.9808E+00   1.8194E-04  0.0149
   1.9808E+00   2.0290E+00   1.8750E-04  0.0145
   2.0290E+00   2.0784E+00   1.8250E-04  0.0145
   2.0784E+00   2.1290E+00   1.8301E-04  0.0143
   2.1290E+00   2.1808E+00   1.8808E-04  0.0138
   2.1808E+00   2.2338E+00   1.9617E-04  0.0134
   2.2338E+00   2.2882E+00   1.9159E-04  0.0134
   2.2882E+00   2.3439E+00   1.8419E-04  0.0136
   2.3439E+00   2.4009E+00   1.7795E-04  0.0137
   2.4009E+00   2.4593E+00   1.7788E-04  0.0135
   2.4593E+00   2.5191E+00   1.7704E-04  0.0133
   2.5191E+00   2.5804E+00   1.7787E-04  0.0132
   2.5804E+00   2.6432E+00   1.7387E-04  0.0132
   2.6432E+00   2.7075E+00   1.7364E-04  0.0130
   2.7075E+00   2.7734E+00   1.7753E-04  0.0127
   2.7734E+00   2.8409E+00   1.7299E-04  0.0127
   2.8409E+00   2.9100E+00   1.7386E-04  0.0126
   2.9100E+00   2.9808E+00   1.7181E-04  0.0125
   2.9808E+00   3.0533E+00   1.6847E-04  0.0125
   3.0533E+00   3.1276E+00   1.6551E-04  0.0124
   3.1276E+00   3.2037E+00   1.6867E-04  0.0122
   3.2037E+00   3.2817E+00   1.6211E-04  0.0123
   3.2817E+00   3.3615E+00   1.6358E-04  0.0121
   3.3615E+00   3.4433E+00   1.6433E-04  0.0119
   3.4433E+00   3.5271E+00   1.6138E-04  0.0119
   3.5271E+00   3.6129E+00   1.5748E-04  0.0119
   3.6129E+00   3.7008E+00   1.5951E-04  0.0117
   3.7008E+00   3.7908E+00   1.5895E-04  0.0116
   3.7908E+00   3.8831E+00   1.5593E-04  0.0116
   3.8831E+00   3.9776E+00   1.5513E-04  0.0115
   3.9776E+00   4.0743E+00   1.5217E-04  0.0114
   4.0743E+00   4.1735E+00   1.4639E-04  0.0115
   4.1735E+00   4.2750E+00   1.4594E-04  0.0114
   4.2750E+00   4.3790E+00   1.4435E-04  0.0113
   4.3790E+00   4.4856E+00   1.3956E-04  0.0114
   4.4856E+00   4.5947E+00   1.3863E-04  0.0113
   4.5947E+00   4.7065E+00   1.3524E-04  0.0113
   4.7065E+00   4.8210E+00   1.3358E-04  0.0112
   4.8210E+00   4.9383E+00   1.3460E-04  0.0110
   4.9383E+00   5.0585E+00   1.3079E-04  0.0111
   5.0585E+00   5.1815E+00   1.2843E-04  0.0110
   5.1815E+00   5.3076E+00   1.3104E-04  0.0108
   5.3076E+00   5.4368E+00   1.2589E-04  0.0109
   5.4368E+00   5.5690E+00   1.2642E-04  0.0107
   5.5690E+00   5.7045E+00   1.2379E-04  0.0107
   5.7045E+00   5.8433E+00   1.2222E-04  0.0107
   5.8433E+00   5.9855E+00   1.2338E-04  0.0105
   5.9855E+00   6.1311E+00   1.2222E-04  0.0104
   6.1311E+00   6.2803E+00   1.1988E-04  0.0104
   6.2803E+00   6.4331E+00   1.1796E-04  0.0104
   6.4331E+00   6.5896E+00   1.1600E-04  0.0103
   6.5896E+00   6.7500E+00   1.1661E-04  0.0102
   6.7500E+00   6.9142E+00   1.1418E-04  0.0102
   6.9142E+00   7.0824E+00   1.1369E-04  0.0101
   7.0824E+00   7.2548E+00   1.1181E-04  0.0100
   7.2548E+00   7.4313E+00   1.1212E-04  0.0099
   7.4313E+00   7.6121E+00   1.0765E-04  0.0100
   7.6121E+00   7.7973E+00   1.0680E-04  0.0099
   7.7973E+00   7.9870E+00   1.0473E-04  0.0099
   7.9870E+00   8.1813E+00   1.0423E-04  0.0098
   8.1813E+00   8.3804E+00   1.0224E-04  0.0098
   8.3804E+00   8.5843E+00   1.0015E-04  0.0098
   8.5843E+00   8.7931E+00   9.9070E-05  0.0097
   8.7931E+00   9.0071E+00   9.5752E-05  0.0098
   9.0071E+00   9.2262E+00   9.4940E-05  0.0097
   9.2262E+00   9.4507E+00   9.0363E-05  0.0098
   9.4507E+00   9.6807E+00   8.8788E-05  0.0098
   9.6807E+00   9.9162E+00   8.7409E-05  0.0098
   9.9162E+00   1.0157E+01   9.0823E-05  0.0095
   1.0157E+01   1.0405E+01   8.7005E-05  0.0096
   1.0405E+01   1.0658E+01   8.6090E-05  0.0096
   1.0658E+01   1.0917E+01   8.1238E-05  0.0097
   1.0917E+01   1.1183E+01   7.9932E-05  0.0097
   1.1183E+01   1.1455E+01   7.5436E-05  0.0098
   1.1455E+01   1.1733E+01   7.4499E-05  0.0098
   1.1733E+01   1.2019E+01   7.1604E-05  0.0099
   1.2019E+01   1.2311E+01   6.9725E-05  0.0099
   1.2311E+01   1.2611E+01   6.6984E-05  0.0100
   1.2611E+01   1.2918E+01   6.3967E-05  0.0101
   1.2918E+01   1.3232E+01   6.2377E-05  0.0101
   1.3232E+01   1.3554E+01   5.9722E-05  0.0102
   1.3554E+01   1.3884E+01   5.6870E-05  0.0103
   1.3884E+01   1.4222E+01   5.6355E-05  0.0102
   1.4222E+01   1.4568E+01   5.2809E-05  0.0105
   1.4568E+01   1.4922E+01   5.1147E-05  0.0105
   1.4922E+01   1.5285E+01   4.7455E-05  0.0108
   1.5285E+01   1.5657E+01   4.4987E-05  0.0109
   1.5657E+01   1.6038E+01   4.3398E-05  0.0110
   1.6038E+01   1.6428E+01   4.1041E-05  0.0112
   1.6428E+01   1.6828E+01   3.8805E-05  0.0114
   1.6828E+01   1.7237E+01   3.5981E-05  0.0116
   1.7237E+01   1.7657E+01   3.4451E-05  0.0118
   1.7657E+01   1.8086E+01   3.2373E-05  0.0120
   1.8086E+01   1.8526E+01   2.9647E-05  0.0124
   1.8526E+01   1.8977E+01   2.7642E-05  0.0127
   1.8977E+01   1.9439E+01   2.4837E-05  0.0132
   1.9439E+01   1.9912E+01   2.3380E-05  0.0134
   1.9912E+01   2.0396E+01   2.2313E-05  0.0136
   2.0396E+01   2.0893E+01   2.0308E-05  0.0141
   2.0893E+01   2.1401E+01   1.7949E-05  0.0148
   2.1401E+01   2.1922E+01   1.5944E-05  0.0155
   2.1922E+01   2.2455E+01   1.4346E-05  0.0162
   2.2455E+01   2.3001E+01   1.2626E-05  0.0170
   2.3001E+01   2.3561E+01   1.0953E-05  0.0181
   2.3561E+01   2.4134E+01   9.5071E-06  0.0192
   2.4134E+01   2.4721E+01   8.2424E-06  0.0203
   2.4721E+01   2.5323E+01   7.3850E-06  0.0212
   2.5323E+01   2.5939E+01   9.2870E-06  0.0187
   2.5939E+01   2.6570E+01   1.4067E-05  0.0150
   2.6570E+01   2.7217E+01   1.5097E-05  0.0143
   2.7217E+01   2.7879E+01   1.4527E-05  0.0144
   2.7879E+01   2.8557E+01   1.3740E-05  0.0146
   2.8557E+01   2.9252E+01   1.2714E-05  0.0150
   2.9252E+01   2.9964E+01   1.2100E-05  0.0152
   2.9964E+01   3.0693E+01   1.1744E-05  0.0153
   3.0693E+01   3.1440E+01   1.1138E-05  0.0155
   3.1440E+01   3.2205E+01   1.0976E-05  0.0154
   3.2205E+01   3.2988E+01   1.0355E-05  0.0157
   3.2988E+01   3.3791E+01   1.0099E-05  0.0157
   3.3791E+01   3.4613E+01   6.5170E-06  0.0193
   3.4613E+01   3.5455E+01   1.2040E-06  0.0444
   3.5455E+01   3.6318E+01   6.0279E-08  0.1961
   3.6318E+01   3.7201E+01   0.0000E+00  0.0000
   3.7201E+01   3.8106E+01   2.2096E-09  1.0000
   3.8106E+01   3.9034E+01   0.0000E+00  0.0000
   3.9034E+01   3.9983E+01   0.0000E+00  0.0000
   3.9983E+01   4.0956E+01   0.0000E+00  0.0000
   4.0956E+01   4.1953E+01   0.0000E+00  0.0000
   4.1953E+01   4.2973E+01   0.0000E+00  0.0000
   4.2973E+01   4.4019E+01   0.0000E+00  0.0000
   4.4019E+01   4.5090E+01   0.0000E+00  0.0000
   4.5090E+01   4.6187E+01   0.0000E+00  0.0000
   4.6187E+01   4.7311E+01   0.0000E+00  0.0000
   4.7311E+01   4.8462E+01   0.0000E+00  0.0000
   4.8462E+01   4.9641E+01   0.0000E+00  0.0000
   4.9641E+01   5.0849E+01   0.0000E+00  0.0000
   5.0849E+01   5.2086E+01   0.0000E+00  0.0000
   5.2086E+01   5.3353E+01   0.0000E+00  0.0000
   5.3353E+01   5.4651E+01   0.0000E+00  0.0000
   5.4651E+01   5.5981E+01   0.0000E+00  0.0000
   5.5981E+01   5.7343E+01   0.0000E+00  0.0000
   5.7343E+01   5.8738E+01   0.0000E+00  0.0000
   5.8738E+01   6.0168E+01   0.0000E+00  0.0000
   6.0168E+01   6.1632E+01   0.0000E+00  0.0000
   6.1632E+01   6.3131E+01   0.0000E+00  0.0000
   6.3131E+01   6.4667E+01   0.0000E+00  0.0000
   6.4667E+01   6.6240E+01   0.0000E+00  0.0000
   6.6240E+01   6.7852E+01   0.0000E+00  0.0000
   6.7852E+01   6.9503E+01   0.0000E+00  0.0000
   6.9503E+01   7.1194E+01   0.0000E+00  0.0000
   7.1194E+01   7.2926E+01   0.0000E+00  0.0000
   7.2926E+01   7.4701E+01   0.0000E+00  0.0000
   7.4701E+01   7.6518E+01   0.0000E+00  0.0000
   7.6518E+01   7.8380E+01   0.0000E+00  0.0000
   7.8380E+01   8.0287E+01   0.0000E+00  0.0000
   8.0287E+01   8.2240E+01   0.0000E+00  0.0000
   8.2240E+01   8.4241E+01   0.0000E+00  0.0000
   8.4241E+01   8.6291E+01   0.0000E+00  0.0000
   8.6291E+01   8.8391E+01   0.0000E+00  0.0000
   8.8391E+01   9.0541E+01   0.0000E+00  0.0000
   9.0541E+01   9.2744E+01   0.0000E+00  0.0000
   9.2744E+01   9.5001E+01   0.0000E+00  0.0000
   9.5001E+01   9.7312E+01   0.0000E+00  0.0000
   9.7312E+01   9.9680E+01   0.0000E+00  0.0000
   9.9680E+01   1.0211E+02   0.0000E+00  0.0000
   1.0211E+02   1.0459E+02   0.0000E+00  0.0000
   1.0459E+02   1.0713E+02   0.0000E+00  0.0000
   1.0713E+02   1.0974E+02   0.0000E+00  0.0000
   1.0974E+02   1.1241E+02   0.0000E+00  0.0000
   1.1241E+02   1.1515E+02   0.0000E+00  0.0000
   1.1515E+02   1.1795E+02   0.0000E+00  0.0000
   1.1795E+02   1.2082E+02   0.0000E+00  0.0000
   1.2082E+02   1.2376E+02   0.0000E+00  0.0000
   1.2376E+02   1.2677E+02   0.0000E+00  0.0000
   1.2677E+02   1.2985E+02   0.0000E+00  0.0000
   1.2985E+02   1.3301E+02   0.0000E+00  0.0000
   1.3301E+02   1.3625E+02   0.0000E+00  0.0000
   1.3625E+02   1.3956E+02   0.0000E+00  0.0000
   1.3956E+02   1.4296E+02   0.0000E+00  0.0000
   1.4296E+02   1.4644E+02   0.0000E+00  0.0000
   1.4644E+02   1.5000E+02   0.0000E+00  0.0000

#   sum over                 1.3666E-05
'no. =    1   reg = 109 - 209'
msuc: {\huge [t-cross] in region mesh}
msdr: {\it plotted by \ANGEL \version}
msdl: {\it calculated by \PHITS  3.26}
wt: s(0.7)
\vspace{-3}
  region surface crossing
  area  &=&   1.0000E+00 [cm^2]
e:
 
# Information for Restart Calculation
# This calculation was newly started
# istdev =  2 # 1:Batch variance, 2:History variance
# resc2  = 5.00000000000000000E+08 # Total source weight or Total source weight / maxcas
# resc3  = 5.00000000000000000E+08 # Total history number or Total batch number
# maxcas =   100000000 # History / Batch, only used for istdev=1
# bitrseed = 1101101111010011011000101101110001100110110010110001010100010001 # bit data of rseed
