[ T-Cross ]
    title = [t-cross] in region mesh
     mesh =  reg            # mesh type is region-wise
      reg =    1            # number of crossing regions
      non     r-from    r-to       area
      1       113       213        1.000000    
   e-type =    3            # e-mesh is log given by emin, emax and ne
     emin =  1.0000000E-02  # minimum value of e-mesh points
     emax =   150.0000      # maximum value of e-mesh points
#    edel =  2.4039514E-02  # mesh width of e-mesh points
       ne =    400          # number of e-mesh points
#    data = ( e(i), i = 1, ne + 1 )
#           1.00000E-02  1.02433E-02  1.04925E-02  1.07478E-02  1.10093E-02
#           1.12772E-02  1.15516E-02  1.18326E-02  1.21205E-02  1.24154E-02
#           1.27175E-02  1.30269E-02  1.33439E-02  1.36686E-02  1.40011E-02
#           1.43418E-02  1.46907E-02  1.50482E-02  1.54143E-02  1.57894E-02
#           1.61735E-02  1.65670E-02  1.69701E-02  1.73830E-02  1.78060E-02
#           1.82392E-02  1.86830E-02  1.91375E-02  1.96032E-02  2.00801E-02
#           2.05687E-02  2.10692E-02  2.15818E-02  2.21069E-02  2.26448E-02
#           2.31957E-02  2.37601E-02  2.43382E-02  2.49304E-02  2.55369E-02
#           2.61583E-02  2.67947E-02  2.74467E-02  2.81145E-02  2.87985E-02
#           2.94992E-02  3.02169E-02  3.09521E-02  3.17052E-02  3.24766E-02
#           3.32668E-02  3.40762E-02  3.49053E-02  3.57546E-02  3.66246E-02
#           3.75157E-02  3.84284E-02  3.93634E-02  4.03212E-02  4.13022E-02
#           4.23071E-02  4.33365E-02  4.43909E-02  4.54710E-02  4.65773E-02
#           4.77106E-02  4.88714E-02  5.00605E-02  5.12785E-02  5.25262E-02
#           5.38042E-02  5.51133E-02  5.64542E-02  5.78278E-02  5.92348E-02
#           6.06760E-02  6.21523E-02  6.36645E-02  6.52135E-02  6.68002E-02
#           6.84255E-02  7.00904E-02  7.17957E-02  7.35426E-02  7.53319E-02
#           7.71648E-02  7.90423E-02  8.09655E-02  8.29354E-02  8.49533E-02
#           8.70203E-02  8.91376E-02  9.13064E-02  9.35279E-02  9.58035E-02
#           9.81345E-02  1.00522E-01  1.02968E-01  1.05473E-01  1.08040E-01
#           1.10668E-01  1.13361E-01  1.16119E-01  1.18944E-01  1.21838E-01
#           1.24803E-01  1.27839E-01  1.30950E-01  1.34136E-01  1.37399E-01
#           1.40742E-01  1.44167E-01  1.47675E-01  1.51268E-01  1.54948E-01
#           1.58718E-01  1.62580E-01  1.66535E-01  1.70587E-01  1.74738E-01
#           1.78989E-01  1.83344E-01  1.87805E-01  1.92375E-01  1.97055E-01
#           2.01850E-01  2.06761E-01  2.11792E-01  2.16945E-01  2.22223E-01
#           2.27630E-01  2.33169E-01  2.38842E-01  2.44653E-01  2.50605E-01
#           2.56703E-01  2.62949E-01  2.69346E-01  2.75900E-01  2.82613E-01
#           2.89489E-01  2.96532E-01  3.03747E-01  3.11138E-01  3.18708E-01
#           3.26462E-01  3.34405E-01  3.42542E-01  3.50876E-01  3.59413E-01
#           3.68158E-01  3.77116E-01  3.86291E-01  3.95690E-01  4.05317E-01
#           4.15179E-01  4.25281E-01  4.35628E-01  4.46227E-01  4.57084E-01
#           4.68205E-01  4.79597E-01  4.91266E-01  5.03219E-01  5.15463E-01
#           5.28005E-01  5.40851E-01  5.54011E-01  5.67490E-01  5.81298E-01
#           5.95441E-01  6.09929E-01  6.24769E-01  6.39970E-01  6.55541E-01
#           6.71491E-01  6.87828E-01  7.04564E-01  7.21706E-01  7.39266E-01
#           7.57253E-01  7.75678E-01  7.94551E-01  8.13883E-01  8.33685E-01
#           8.53969E-01  8.74747E-01  8.96030E-01  9.17831E-01  9.40163E-01
#           9.63038E-01  9.86469E-01  1.01047E+00  1.03506E+00  1.06024E+00
#           1.08604E+00  1.11246E+00  1.13953E+00  1.16725E+00  1.19565E+00
#           1.22474E+00  1.25454E+00  1.28507E+00  1.31633E+00  1.34836E+00
#           1.38117E+00  1.41477E+00  1.44920E+00  1.48446E+00  1.52057E+00
#           1.55757E+00  1.59547E+00  1.63429E+00  1.67405E+00  1.71478E+00
#           1.75650E+00  1.79924E+00  1.84302E+00  1.88786E+00  1.93379E+00
#           1.98084E+00  2.02904E+00  2.07841E+00  2.12898E+00  2.18078E+00
#           2.23384E+00  2.28819E+00  2.34386E+00  2.40089E+00  2.45930E+00
#           2.51914E+00  2.58043E+00  2.64322E+00  2.70753E+00  2.77341E+00
#           2.84088E+00  2.91001E+00  2.98081E+00  3.05333E+00  3.12762E+00
#           3.20372E+00  3.28167E+00  3.36152E+00  3.44330E+00  3.52708E+00
#           3.61290E+00  3.70080E+00  3.79085E+00  3.88308E+00  3.97756E+00
#           4.07434E+00  4.17347E+00  4.27501E+00  4.37903E+00  4.48557E+00
#           4.59471E+00  4.70650E+00  4.82102E+00  4.93832E+00  5.05847E+00
#           5.18155E+00  5.30762E+00  5.43676E+00  5.56904E+00  5.70453E+00
#           5.84333E+00  5.98550E+00  6.13114E+00  6.28031E+00  6.43312E+00
#           6.58964E+00  6.74997E+00  6.91420E+00  7.08243E+00  7.25475E+00
#           7.43126E+00  7.61207E+00  7.79728E+00  7.98700E+00  8.18133E+00
#           8.38038E+00  8.58428E+00  8.79315E+00  9.00709E+00  9.22624E+00
#           9.45072E+00  9.68067E+00  9.91620E+00  1.01575E+01  1.04046E+01
#           1.06578E+01  1.09171E+01  1.11827E+01  1.14548E+01  1.17335E+01
#           1.20190E+01  1.23114E+01  1.26109E+01  1.29178E+01  1.32321E+01
#           1.35540E+01  1.38838E+01  1.42216E+01  1.45676E+01  1.49221E+01
#           1.52851E+01  1.56570E+01  1.60380E+01  1.64282E+01  1.68279E+01
#           1.72374E+01  1.76568E+01  1.80864E+01  1.85264E+01  1.89772E+01
#           1.94389E+01  1.99119E+01  2.03963E+01  2.08926E+01  2.14009E+01
#           2.19216E+01  2.24550E+01  2.30014E+01  2.35610E+01  2.41343E+01
#           2.47215E+01  2.53230E+01  2.59391E+01  2.65702E+01  2.72167E+01
#           2.78789E+01  2.85572E+01  2.92520E+01  2.99637E+01  3.06928E+01
#           3.14396E+01  3.22045E+01  3.29881E+01  3.37907E+01  3.46128E+01
#           3.54550E+01  3.63177E+01  3.72013E+01  3.81064E+01  3.90336E+01
#           3.99833E+01  4.09561E+01  4.19526E+01  4.29734E+01  4.40189E+01
#           4.50900E+01  4.61870E+01  4.73108E+01  4.84619E+01  4.96410E+01
#           5.08488E+01  5.20860E+01  5.33533E+01  5.46514E+01  5.59812E+01
#           5.73432E+01  5.87384E+01  6.01676E+01  6.16315E+01  6.31311E+01
#           6.46671E+01  6.62405E+01  6.78522E+01  6.95031E+01  7.11941E+01
#           7.29263E+01  7.47007E+01  7.65182E+01  7.83800E+01  8.02870E+01
#           8.22405E+01  8.42414E+01  8.62911E+01  8.83906E+01  9.05412E+01
#           9.27442E+01  9.50007E+01  9.73122E+01  9.96799E+01  1.02105E+02
#           1.04589E+02  1.07134E+02  1.09741E+02  1.12411E+02  1.15146E+02
#           1.17948E+02  1.20817E+02  1.23757E+02  1.26768E+02  1.29852E+02
#           1.33012E+02  1.36248E+02  1.39563E+02  1.42959E+02  1.46437E+02
#           1.50000E+02
     unit =    2            # unit is [1/cm^2/(MeV/n)/source]
     axis =  eng            # axis of output
     file = detector-14.out  # file name of output for the above axis
   output = f-curr          # surface crossing forward current spectrum
     part =  neutron  
# kf/name :  2112     
#    used :        main (  %)        temp (  %)       total (  %)
#  memory :         414 (  0)           0 (  0)         414 (  0)

#------------------------------------------------------------------------------
#newpage:
#   no. =    1   reg = 113 - 213

x: Energy [MeV/n]
y:  F-Curr [1/cm^2/(MeV/n)/source]         
p: xlog ylog afac(0.8) form(0.9)
h: n            x            y(neutron ),hh0l   n 
#  e-lower      e-upper      neutron     r.err 
   1.0000E-02   1.0243E-02   4.0278E-05  0.1429
   1.0243E-02   1.0493E-02   3.5309E-05  0.1508
   1.0493E-02   1.0748E-02   2.9770E-05  0.1622
   1.0748E-02   1.1009E-02   2.8298E-05  0.1644
   1.1009E-02   1.1277E-02   3.0612E-05  0.1562
   1.1277E-02   1.1552E-02   3.3530E-05  0.1474
   1.1552E-02   1.1833E-02   2.9887E-05  0.1543
   1.1833E-02   1.2121E-02   2.8482E-05  0.1562
   1.2121E-02   1.2415E-02   3.5944E-05  0.1374
   1.2415E-02   1.2718E-02   3.5752E-05  0.1361
   1.2718E-02   1.3027E-02   2.5854E-05  0.1581
   1.3027E-02   1.3344E-02   3.0288E-05  0.1443
   1.3344E-02   1.3669E-02   3.6961E-05  0.1291
   1.3669E-02   1.4001E-02   3.0069E-05  0.1414
   1.4001E-02   1.4342E-02   3.6400E-05  0.1270
   1.4342E-02   1.4691E-02   2.9231E-05  0.1400
   1.4691E-02   1.5048E-02   4.0846E-05  0.1170
   1.5048E-02   1.5414E-02   3.8784E-05  0.1187
   1.5414E-02   1.5789E-02   3.2530E-05  0.1280
   1.5789E-02   1.6174E-02   3.5401E-05  0.1213
   1.6174E-02   1.6567E-02   2.8461E-05  0.1336
   1.6567E-02   1.6970E-02   3.8205E-05  0.1140
   1.6970E-02   1.7383E-02   3.3907E-05  0.1195
   1.7383E-02   1.7806E-02   3.7357E-05  0.1125
   1.7806E-02   1.8239E-02   3.2777E-05  0.1187
   1.8239E-02   1.8683E-02   3.8308E-05  0.1085
   1.8683E-02   1.9138E-02   3.2998E-05  0.1155
   1.9138E-02   1.9603E-02   3.6939E-05  0.1078
   1.9603E-02   2.0080E-02   4.1094E-05  0.1010
   2.0080E-02   2.0569E-02   4.0936E-05  0.1000
   2.0569E-02   2.1069E-02   3.7166E-05  0.1037
   2.1069E-02   2.1582E-02   4.1355E-05  0.0971
   2.1582E-02   2.2107E-02   3.8850E-05  0.0990
   2.2107E-02   2.2645E-02   4.1273E-05  0.0949
   2.2645E-02   2.3196E-02   3.5574E-05  0.1010
   2.3196E-02   2.3760E-02   3.7918E-05  0.0967
   2.3760E-02   2.4338E-02   3.7364E-05  0.0962
   2.4338E-02   2.4930E-02   3.4450E-05  0.0990
   2.4930E-02   2.5537E-02   3.2642E-05  0.1005
   2.5537E-02   2.6158E-02   4.2167E-05  0.0874
   2.6158E-02   2.6795E-02   3.4881E-05  0.0949
   2.6795E-02   2.7447E-02   3.7427E-05  0.0905
   2.7447E-02   2.8114E-02   3.9533E-05  0.0870
   2.8114E-02   2.8799E-02   3.4793E-05  0.0917
   2.8799E-02   2.9499E-02   4.3100E-05  0.0814
   2.9499E-02   3.0217E-02   3.0095E-05  0.0962
   3.0217E-02   3.0952E-02   3.6317E-05  0.0865
   3.0952E-02   3.1705E-02   4.1695E-05  0.0798
   3.1705E-02   3.2477E-02   3.7075E-05  0.0836
   3.2477E-02   3.3267E-02   4.1256E-05  0.0783
   3.3267E-02   3.4076E-02   4.0029E-05  0.0786
   3.4076E-02   3.4905E-02   3.6425E-05  0.0814
   3.4905E-02   3.5755E-02   4.1447E-05  0.0754
   3.5755E-02   3.6625E-02   3.8853E-05  0.0769
   3.6625E-02   3.7516E-02   4.0848E-05  0.0741
   3.7516E-02   3.8428E-02   3.5277E-05  0.0788
   3.8428E-02   3.9363E-02   4.3851E-05  0.0698
   3.9363E-02   4.0321E-02   3.7171E-05  0.0750
   4.0321E-02   4.1302E-02   4.0365E-05  0.0711
   4.1302E-02   4.2307E-02   3.5426E-05  0.0750
   4.2307E-02   4.3337E-02   3.8470E-05  0.0711
   4.3337E-02   4.4391E-02   4.2298E-05  0.0670
   4.4391E-02   4.5471E-02   4.0368E-05  0.0677
   4.5471E-02   4.6577E-02   4.2301E-05  0.0654
   4.6577E-02   4.7711E-02   4.2532E-05  0.0644
   4.7711E-02   4.8871E-02   4.1349E-05  0.0645
   4.8871E-02   5.0061E-02   4.3899E-05  0.0619
   5.0061E-02   5.1279E-02   4.1707E-05  0.0627
   5.1279E-02   5.2526E-02   4.7129E-05  0.0583
   5.2526E-02   5.3804E-02   4.1940E-05  0.0611
   5.3804E-02   5.5113E-02   4.2014E-05  0.0603
   5.5113E-02   5.6454E-02   4.1612E-05  0.0599
   5.6454E-02   5.7828E-02   4.3536E-05  0.0578
   5.7828E-02   5.9235E-02   3.8522E-05  0.0607
   5.9235E-02   6.0676E-02   3.9758E-05  0.0591
   6.0676E-02   6.2152E-02   4.4165E-05  0.0554
   6.2152E-02   6.3665E-02   4.4703E-05  0.0544
   6.3665E-02   6.5214E-02   4.3124E-05  0.0547
   6.5214E-02   6.6800E-02   3.6176E-05  0.0590
   6.6800E-02   6.8426E-02   3.9254E-05  0.0560
   6.8426E-02   7.0090E-02   4.9013E-05  0.0495
   7.0090E-02   7.1796E-02   4.6794E-05  0.0501
   7.1796E-02   7.3543E-02   4.4881E-05  0.0505
   7.3543E-02   7.5332E-02   4.8286E-05  0.0481
   7.5332E-02   7.7165E-02   4.2010E-05  0.0510
   7.7165E-02   7.9042E-02   4.1438E-05  0.0507
   7.9042E-02   8.0965E-02   4.3574E-05  0.0489
   8.0965E-02   8.2935E-02   4.8580E-05  0.0457
   8.2935E-02   8.4953E-02   4.7079E-05  0.0459
   8.4953E-02   8.7020E-02   4.5574E-05  0.0461
   8.7020E-02   8.9138E-02   4.5341E-05  0.0456
   8.9138E-02   9.1306E-02   4.7861E-05  0.0439
   9.1306E-02   9.3528E-02   4.4518E-05  0.0450
   9.3528E-02   9.5804E-02   4.5614E-05  0.0439
   9.5804E-02   9.8134E-02   4.7620E-05  0.0424
   9.8134E-02   1.0052E-01   4.7829E-05  0.0418
   1.0052E-01   1.0297E-01   4.5057E-05  0.0426
   1.0297E-01   1.0547E-01   4.5304E-05  0.0420
   1.0547E-01   1.0804E-01   4.6293E-05  0.0410
   1.0804E-01   1.1067E-01   4.8617E-05  0.0396
   1.1067E-01   1.1336E-01   4.7388E-05  0.0396
   1.1336E-01   1.1612E-01   4.8366E-05  0.0387
   1.1612E-01   1.1894E-01   4.6792E-05  0.0389
   1.1894E-01   1.2184E-01   4.8099E-05  0.0379
   1.2184E-01   1.2480E-01   4.9251E-05  0.0370
   1.2480E-01   1.2784E-01   4.8476E-05  0.0369
   1.2784E-01   1.3095E-01   4.9061E-05  0.0362
   1.3095E-01   1.3414E-01   4.6891E-05  0.0366
   1.3414E-01   1.3740E-01   5.0680E-05  0.0348
   1.3740E-01   1.4074E-01   4.8997E-05  0.0349
   1.4074E-01   1.4417E-01   4.6899E-05  0.0353
   1.4417E-01   1.4767E-01   4.9605E-05  0.0339
   1.4767E-01   1.5127E-01   4.6646E-05  0.0345
   1.5127E-01   1.5495E-01   5.0918E-05  0.0327
   1.5495E-01   1.5872E-01   4.9761E-05  0.0327
   1.5872E-01   1.6258E-01   4.7025E-05  0.0332
   1.6258E-01   1.6654E-01   5.2734E-05  0.0310
   1.6654E-01   1.7059E-01   5.0470E-05  0.0313
   1.7059E-01   1.7474E-01   4.8669E-05  0.0315
   1.7474E-01   1.7899E-01   5.1276E-05  0.0303
   1.7899E-01   1.8334E-01   4.8726E-05  0.0307
   1.8334E-01   1.8781E-01   5.1335E-05  0.0296
   1.8781E-01   1.9237E-01   5.1866E-05  0.0290
   1.9237E-01   1.9706E-01   5.1617E-05  0.0288
   1.9706E-01   2.0185E-01   4.9390E-05  0.0291
   2.0185E-01   2.0676E-01   5.0049E-05  0.0285
   2.0676E-01   2.1179E-01   5.2597E-05  0.0275
   2.1179E-01   2.1694E-01   5.3444E-05  0.0269
   2.1694E-01   2.2222E-01   5.1777E-05  0.0270
   2.2222E-01   2.2763E-01   5.0787E-05  0.0270
   2.2763E-01   2.3317E-01   5.4384E-05  0.0258
   2.3317E-01   2.3884E-01   5.2017E-05  0.0260
   2.3884E-01   2.4465E-01   5.2468E-05  0.0256
   2.4465E-01   2.5061E-01   5.2044E-05  0.0254
   2.5061E-01   2.5670E-01   5.1661E-05  0.0252
   2.5670E-01   2.6295E-01   5.2307E-05  0.0247
   2.6295E-01   2.6935E-01   5.3613E-05  0.0241
   2.6935E-01   2.7590E-01   5.3926E-05  0.0238
   2.7590E-01   2.8261E-01   5.2154E-05  0.0239
   2.8261E-01   2.8949E-01   5.3445E-05  0.0233
   2.8949E-01   2.9653E-01   5.4249E-05  0.0229
   2.9653E-01   3.0375E-01   5.2614E-05  0.0230
   3.0375E-01   3.1114E-01   5.5125E-05  0.0222
   3.1114E-01   3.1871E-01   5.4582E-05  0.0220
   3.1871E-01   3.2646E-01   5.2357E-05  0.0222
   3.2646E-01   3.3441E-01   5.5898E-05  0.0212
   3.3441E-01   3.4254E-01   5.1546E-05  0.0218
   3.4254E-01   3.5088E-01   5.4426E-05  0.0210
   3.5088E-01   3.5941E-01   5.3601E-05  0.0209
   3.5941E-01   3.6816E-01   5.4226E-05  0.0205
   3.6816E-01   3.7712E-01   5.1733E-05  0.0208
   3.7712E-01   3.8629E-01   5.2030E-05  0.0205
   3.8629E-01   3.9569E-01   5.3986E-05  0.0199
   3.9569E-01   4.0532E-01   5.4854E-05  0.0195
   4.0532E-01   4.1518E-01   5.3622E-05  0.0194
   4.1518E-01   4.2528E-01   5.4853E-05  0.0190
   4.2528E-01   4.3563E-01   5.2815E-05  0.0191
   4.3563E-01   4.4623E-01   5.2853E-05  0.0189
   4.4623E-01   4.5708E-01   5.3191E-05  0.0186
   4.5708E-01   4.6821E-01   5.2674E-05  0.0185
   4.6821E-01   4.7960E-01   5.1748E-05  0.0184
   4.7960E-01   4.9127E-01   5.2464E-05  0.0181
   4.9127E-01   5.0322E-01   5.3025E-05  0.0178
   5.0322E-01   5.1546E-01   5.1422E-05  0.0178
   5.1546E-01   5.2800E-01   5.0448E-05  0.0178
   5.2800E-01   5.4085E-01   5.0931E-05  0.0175
   5.4085E-01   5.5401E-01   5.0702E-05  0.0173
   5.5401E-01   5.6749E-01   4.9727E-05  0.0173
   5.6749E-01   5.8130E-01   5.0082E-05  0.0170
   5.8130E-01   5.9544E-01   4.9479E-05  0.0169
   5.9544E-01   6.0993E-01   4.8055E-05  0.0169
   6.0993E-01   6.2477E-01   4.8679E-05  0.0166
   6.2477E-01   6.3997E-01   4.7023E-05  0.0167
   6.3997E-01   6.5554E-01   4.7666E-05  0.0164
   6.5554E-01   6.7149E-01   4.9267E-05  0.0160
   6.7149E-01   6.8783E-01   4.6885E-05  0.0162
   6.8783E-01   7.0456E-01   4.5723E-05  0.0162
   7.0456E-01   7.2171E-01   4.5804E-05  0.0160
   7.2171E-01   7.3927E-01   4.4688E-05  0.0160
   7.3927E-01   7.5725E-01   4.3632E-05  0.0160
   7.5725E-01   7.7568E-01   4.4175E-05  0.0157
   7.7568E-01   7.9455E-01   4.2447E-05  0.0158
   7.9455E-01   8.1388E-01   4.0575E-05  0.0160
   8.1388E-01   8.3368E-01   3.8561E-05  0.0162
   8.3368E-01   8.5397E-01   3.9597E-05  0.0158
   8.5397E-01   8.7475E-01   3.9032E-05  0.0157
   8.7475E-01   8.9603E-01   3.5925E-05  0.0162
   8.9603E-01   9.1783E-01   3.6700E-05  0.0158
   9.1783E-01   9.4016E-01   3.4037E-05  0.0162
   9.4016E-01   9.6304E-01   3.4378E-05  0.0159
   9.6304E-01   9.8647E-01   3.1940E-05  0.0163
   9.8647E-01   1.0105E+00   3.1831E-05  0.0162
   1.0105E+00   1.0351E+00   3.1815E-05  0.0160
   1.0351E+00   1.0602E+00   3.1584E-05  0.0159
   1.0602E+00   1.0860E+00   3.2636E-05  0.0154
   1.0860E+00   1.1125E+00   3.3432E-05  0.0150
   1.1125E+00   1.1395E+00   3.3218E-05  0.0149
   1.1395E+00   1.1673E+00   3.4409E-05  0.0145
   1.1673E+00   1.1957E+00   3.4764E-05  0.0142
   1.1957E+00   1.2247E+00   3.6018E-05  0.0138
   1.2247E+00   1.2545E+00   3.6172E-05  0.0136
   1.2545E+00   1.2851E+00   3.7010E-05  0.0133
   1.2851E+00   1.3163E+00   3.6505E-05  0.0132
   1.3163E+00   1.3484E+00   3.7596E-05  0.0129
   1.3484E+00   1.3812E+00   3.8849E-05  0.0125
   1.3812E+00   1.4148E+00   3.9679E-05  0.0122
   1.4148E+00   1.4492E+00   3.9657E-05  0.0121
   1.4492E+00   1.4845E+00   3.9444E-05  0.0120
   1.4845E+00   1.5206E+00   3.9842E-05  0.0118
   1.5206E+00   1.5576E+00   4.0517E-05  0.0116
   1.5576E+00   1.5955E+00   4.1666E-05  0.0113
   1.5955E+00   1.6343E+00   4.2322E-05  0.0110
   1.6343E+00   1.6741E+00   4.2167E-05  0.0109
   1.6741E+00   1.7148E+00   4.3753E-05  0.0106
   1.7148E+00   1.7565E+00   4.4379E-05  0.0104
   1.7565E+00   1.7992E+00   4.5108E-05  0.0102
   1.7992E+00   1.8430E+00   4.5506E-05  0.0100
   1.8430E+00   1.8879E+00   4.5966E-05  0.0099
   1.8879E+00   1.9338E+00   4.7236E-05  0.0096
   1.9338E+00   1.9808E+00   4.7933E-05  0.0094
   1.9808E+00   2.0290E+00   4.9436E-05  0.0092
   2.0290E+00   2.0784E+00   5.0768E-05  0.0089
   2.0784E+00   2.1290E+00   5.1065E-05  0.0088
   2.1290E+00   2.1808E+00   5.1543E-05  0.0087
   2.1808E+00   2.2338E+00   5.2467E-05  0.0085
   2.2338E+00   2.2882E+00   5.3545E-05  0.0083
   2.2882E+00   2.3439E+00   5.5242E-05  0.0081
   2.3439E+00   2.4009E+00   5.5204E-05  0.0080
   2.4009E+00   2.4593E+00   5.7159E-05  0.0077
   2.4593E+00   2.5191E+00   5.8253E-05  0.0076
   2.5191E+00   2.5804E+00   5.8826E-05  0.0074
   2.5804E+00   2.6432E+00   6.0326E-05  0.0073
   2.6432E+00   2.7075E+00   6.0583E-05  0.0072
   2.7075E+00   2.7734E+00   6.2450E-05  0.0070
   2.7734E+00   2.8409E+00   6.5075E-05  0.0067
   2.8409E+00   2.9100E+00   6.6016E-05  0.0066
   2.9100E+00   2.9808E+00   6.8219E-05  0.0064
   2.9808E+00   3.0533E+00   6.9100E-05  0.0063
   3.0533E+00   3.1276E+00   6.8910E-05  0.0063
   3.1276E+00   3.2037E+00   7.0801E-05  0.0061
   3.2037E+00   3.2817E+00   7.1053E-05  0.0060
   3.2817E+00   3.3615E+00   7.1773E-05  0.0059
   3.3615E+00   3.4433E+00   7.3155E-05  0.0058
   3.4433E+00   3.5271E+00   7.4902E-05  0.0056
   3.5271E+00   3.6129E+00   7.6978E-05  0.0055
   3.6129E+00   3.7008E+00   7.8652E-05  0.0054
   3.7008E+00   3.7908E+00   7.8522E-05  0.0053
   3.7908E+00   3.8831E+00   7.9594E-05  0.0052
   3.8831E+00   3.9776E+00   8.0594E-05  0.0051
   3.9776E+00   4.0743E+00   8.1243E-05  0.0050
   4.0743E+00   4.1735E+00   8.1281E-05  0.0050
   4.1735E+00   4.2750E+00   8.0949E-05  0.0049
   4.2750E+00   4.3790E+00   8.1222E-05  0.0049
   4.3790E+00   4.4856E+00   8.0546E-05  0.0048
   4.4856E+00   4.5947E+00   8.1538E-05  0.0047
   4.5947E+00   4.7065E+00   8.1594E-05  0.0047
   4.7065E+00   4.8210E+00   8.1825E-05  0.0046
   4.8210E+00   4.9383E+00   8.2389E-05  0.0045
   4.9383E+00   5.0585E+00   8.2903E-05  0.0045
   5.0585E+00   5.1815E+00   8.1840E-05  0.0045
   5.1815E+00   5.3076E+00   8.0993E-05  0.0044
   5.3076E+00   5.4368E+00   7.9131E-05  0.0044
   5.4368E+00   5.5690E+00   7.8458E-05  0.0044
   5.5690E+00   5.7045E+00   7.8072E-05  0.0043
   5.7045E+00   5.8433E+00   7.7285E-05  0.0043
   5.8433E+00   5.9855E+00   7.6522E-05  0.0043
   5.9855E+00   6.1311E+00   7.6756E-05  0.0042
   6.1311E+00   6.2803E+00   7.4951E-05  0.0042
   6.2803E+00   6.4331E+00   7.3734E-05  0.0042
   6.4331E+00   6.5896E+00   7.2048E-05  0.0042
   6.5896E+00   6.7500E+00   7.1132E-05  0.0042
   6.7500E+00   6.9142E+00   7.0099E-05  0.0042
   6.9142E+00   7.0824E+00   6.9058E-05  0.0041
   7.0824E+00   7.2548E+00   6.8084E-05  0.0041
   7.2548E+00   7.4313E+00   6.6118E-05  0.0041
   7.4313E+00   7.6121E+00   6.4197E-05  0.0041
   7.6121E+00   7.7973E+00   6.2836E-05  0.0041
   7.7973E+00   7.9870E+00   6.1685E-05  0.0041
   7.9870E+00   8.1813E+00   6.0359E-05  0.0041
   8.1813E+00   8.3804E+00   5.8869E-05  0.0041
   8.3804E+00   8.5843E+00   5.7485E-05  0.0041
   8.5843E+00   8.7931E+00   5.6542E-05  0.0041
   8.7931E+00   9.0071E+00   5.4972E-05  0.0041
   9.0071E+00   9.2262E+00   5.3610E-05  0.0041
   9.2262E+00   9.4507E+00   5.2786E-05  0.0041
   9.4507E+00   9.6807E+00   5.1361E-05  0.0041
   9.6807E+00   9.9162E+00   5.0156E-05  0.0041
   9.9162E+00   1.0157E+01   4.9163E-05  0.0041
   1.0157E+01   1.0405E+01   4.8192E-05  0.0041
   1.0405E+01   1.0658E+01   4.6490E-05  0.0041
   1.0658E+01   1.0917E+01   4.5826E-05  0.0041
   1.0917E+01   1.1183E+01   4.4984E-05  0.0041
   1.1183E+01   1.1455E+01   4.4025E-05  0.0041
   1.1455E+01   1.1733E+01   4.2828E-05  0.0041
   1.1733E+01   1.2019E+01   4.1929E-05  0.0041
   1.2019E+01   1.2311E+01   4.0964E-05  0.0041
   1.2311E+01   1.2611E+01   4.0429E-05  0.0041
   1.2611E+01   1.2918E+01   3.9070E-05  0.0041
   1.2918E+01   1.3232E+01   3.8581E-05  0.0041
   1.3232E+01   1.3554E+01   3.7595E-05  0.0041
   1.3554E+01   1.3884E+01   3.6763E-05  0.0041
   1.3884E+01   1.4222E+01   3.6092E-05  0.0041
   1.4222E+01   1.4568E+01   3.5327E-05  0.0040
   1.4568E+01   1.4922E+01   3.4619E-05  0.0040
   1.4922E+01   1.5285E+01   3.3806E-05  0.0040
   1.5285E+01   1.5657E+01   3.3158E-05  0.0040
   1.5657E+01   1.6038E+01   3.2372E-05  0.0040
   1.6038E+01   1.6428E+01   3.1693E-05  0.0040
   1.6428E+01   1.6828E+01   3.1019E-05  0.0040
   1.6828E+01   1.7237E+01   3.0404E-05  0.0040
   1.7237E+01   1.7657E+01   2.9831E-05  0.0040
   1.7657E+01   1.8086E+01   2.8993E-05  0.0040
   1.8086E+01   1.8526E+01   2.8501E-05  0.0040
   1.8526E+01   1.8977E+01   2.7926E-05  0.0040
   1.8977E+01   1.9439E+01   2.6982E-05  0.0040
   1.9439E+01   1.9912E+01   2.6557E-05  0.0040
   1.9912E+01   2.0396E+01   2.8547E-05  0.0038
   2.0396E+01   2.0893E+01   2.8413E-05  0.0038
   2.0893E+01   2.1401E+01   2.7560E-05  0.0038
   2.1401E+01   2.1922E+01   2.6792E-05  0.0038
   2.1922E+01   2.2455E+01   2.6168E-05  0.0038
   2.2455E+01   2.3001E+01   2.5052E-05  0.0038
   2.3001E+01   2.3561E+01   2.4323E-05  0.0038
   2.3561E+01   2.4134E+01   2.3725E-05  0.0038
   2.4134E+01   2.4721E+01   2.2712E-05  0.0039
   2.4721E+01   2.5323E+01   2.1922E-05  0.0039
   2.5323E+01   2.5939E+01   2.1074E-05  0.0039
   2.5939E+01   2.6570E+01   2.0237E-05  0.0040
   2.6570E+01   2.7217E+01   1.9330E-05  0.0040
   2.7217E+01   2.7879E+01   1.8718E-05  0.0040
   2.7879E+01   2.8557E+01   1.7981E-05  0.0040
   2.8557E+01   2.9252E+01   1.7190E-05  0.0041
   2.9252E+01   2.9964E+01   1.6303E-05  0.0042
   2.9964E+01   3.0693E+01   1.5595E-05  0.0042
   3.0693E+01   3.1440E+01   1.4930E-05  0.0042
   3.1440E+01   3.2205E+01   1.4193E-05  0.0043
   3.2205E+01   3.2988E+01   1.3470E-05  0.0044
   3.2988E+01   3.3791E+01   1.2731E-05  0.0044
   3.3791E+01   3.4613E+01   1.2041E-05  0.0045
   3.4613E+01   3.5455E+01   1.1418E-05  0.0046
   3.5455E+01   3.6318E+01   1.0623E-05  0.0047
   3.6318E+01   3.7201E+01   1.0034E-05  0.0047
   3.7201E+01   3.8106E+01   9.3626E-06  0.0049
   3.8106E+01   3.9034E+01   8.7357E-06  0.0050
   3.9034E+01   3.9983E+01   8.1641E-06  0.0051
   3.9983E+01   4.0956E+01   7.6688E-06  0.0052
   4.0956E+01   4.1953E+01   7.0870E-06  0.0053
   4.1953E+01   4.2973E+01   6.5884E-06  0.0055
   4.2973E+01   4.4019E+01   6.0061E-06  0.0056
   4.4019E+01   4.5090E+01   5.5525E-06  0.0058
   4.5090E+01   4.6187E+01   5.1774E-06  0.0059
   4.6187E+01   4.7311E+01   4.6930E-06  0.0062
   4.7311E+01   4.8462E+01   4.3271E-06  0.0063
   4.8462E+01   4.9641E+01   3.9177E-06  0.0066
   4.9641E+01   5.0849E+01   3.5534E-06  0.0068
   5.0849E+01   5.2086E+01   3.2205E-06  0.0071
   5.2086E+01   5.3353E+01   2.8959E-06  0.0074
   5.3353E+01   5.4651E+01   2.6230E-06  0.0077
   5.4651E+01   5.5981E+01   2.3306E-06  0.0080
   5.5981E+01   5.7343E+01   2.0837E-06  0.0084
   5.7343E+01   5.8738E+01   1.8301E-06  0.0089
   5.8738E+01   6.0168E+01   1.6351E-06  0.0093
   6.0168E+01   6.1632E+01   1.4476E-06  0.0097
   6.1632E+01   6.3131E+01   1.2655E-06  0.0103
   6.3131E+01   6.4667E+01   1.1030E-06  0.0109
   6.4667E+01   6.6240E+01   9.7051E-07  0.0114
   6.6240E+01   6.7852E+01   8.3515E-07  0.0122
   6.7852E+01   6.9503E+01   7.1113E-07  0.0131
   6.9503E+01   7.1194E+01   6.3262E-07  0.0137
   7.1194E+01   7.2926E+01   5.1945E-07  0.0149
   7.2926E+01   7.4701E+01   4.5369E-07  0.0158
   7.4701E+01   7.6518E+01   3.9196E-07  0.0168
   7.6518E+01   7.8380E+01   3.1358E-07  0.0185
   7.8380E+01   8.0287E+01   2.8652E-07  0.0191
   8.0287E+01   8.2240E+01   2.3210E-07  0.0210
   8.2240E+01   8.4241E+01   1.9441E-07  0.0227
   8.4241E+01   8.6291E+01   1.6813E-07  0.0241
   8.6291E+01   8.8391E+01   1.3994E-07  0.0261
   8.8391E+01   9.0541E+01   1.2778E-07  0.0270
   9.0541E+01   9.2744E+01   1.0777E-07  0.0290
   9.2744E+01   9.5001E+01   9.6519E-08  0.0303
   9.5001E+01   9.7312E+01   8.0642E-08  0.0328
   9.7312E+01   9.9680E+01   6.5718E-08  0.0359
   9.9680E+01   1.0211E+02   5.7972E-08  0.0377
   1.0211E+02   1.0459E+02   4.6291E-08  0.0417
   1.0459E+02   1.0713E+02   3.6074E-08  0.0467
   1.0713E+02   1.0974E+02   2.3018E-08  0.0577
   1.0974E+02   1.1241E+02   1.6479E-08  0.0674
   1.1241E+02   1.1515E+02   7.8244E-09  0.0967
   1.1515E+02   1.1795E+02   1.1422E-09  0.2500
   1.1795E+02   1.2082E+02   3.4846E-10  0.4472
   1.2082E+02   1.2376E+02   6.8037E-11  1.0000
   1.2376E+02   1.2677E+02   0.0000E+00  0.0000
   1.2677E+02   1.2985E+02   0.0000E+00  0.0000
   1.2985E+02   1.3301E+02   0.0000E+00  0.0000
   1.3301E+02   1.3625E+02   0.0000E+00  0.0000
   1.3625E+02   1.3956E+02   0.0000E+00  0.0000
   1.3956E+02   1.4296E+02   0.0000E+00  0.0000
   1.4296E+02   1.4644E+02   0.0000E+00  0.0000
   1.4644E+02   1.5000E+02   0.0000E+00  0.0000

#   sum over                 9.4268E-06
'no. =    1   reg = 113 - 213'
msuc: {\huge [t-cross] in region mesh}
msdr: {\it plotted by \ANGEL \version}
msdl: {\it calculated by \PHITS  3.26}
wt: s(0.7)
\vspace{-3}
  region surface crossing
  area  &=&   1.0000E+00 [cm^2]
e:
 
# Information for Restart Calculation
# This calculation was newly started
# istdev =  2 # 1:Batch variance, 2:History variance
# resc2  = 5.00000000000000000E+09 # Total source weight or Total source weight / maxcas
# resc3  = 5.00000000000000000E+09 # Total history number or Total batch number
# maxcas =   500000000 # History / Batch, only used for istdev=1
# bitrseed = 0110100000100010111000001110001111001110100100011111101000111001 # bit data of rseed
