[ T-Cross ]
    title = [t-cross] in region mesh
     mesh =  reg            # mesh type is region-wise
      reg =    1            # number of crossing regions
      non     r-from    r-to       area
      1       116       216        1.000000    
   e-type =    3            # e-mesh is log given by emin, emax and ne
     emin =  1.0000000E-02  # minimum value of e-mesh points
     emax =   150.0000      # maximum value of e-mesh points
#    edel =  2.4039514E-02  # mesh width of e-mesh points
       ne =    400          # number of e-mesh points
#    data = ( e(i), i = 1, ne + 1 )
#           1.00000E-02  1.02433E-02  1.04925E-02  1.07478E-02  1.10093E-02
#           1.12772E-02  1.15516E-02  1.18326E-02  1.21205E-02  1.24154E-02
#           1.27175E-02  1.30269E-02  1.33439E-02  1.36686E-02  1.40011E-02
#           1.43418E-02  1.46907E-02  1.50482E-02  1.54143E-02  1.57894E-02
#           1.61735E-02  1.65670E-02  1.69701E-02  1.73830E-02  1.78060E-02
#           1.82392E-02  1.86830E-02  1.91375E-02  1.96032E-02  2.00801E-02
#           2.05687E-02  2.10692E-02  2.15818E-02  2.21069E-02  2.26448E-02
#           2.31957E-02  2.37601E-02  2.43382E-02  2.49304E-02  2.55369E-02
#           2.61583E-02  2.67947E-02  2.74467E-02  2.81145E-02  2.87985E-02
#           2.94992E-02  3.02169E-02  3.09521E-02  3.17052E-02  3.24766E-02
#           3.32668E-02  3.40762E-02  3.49053E-02  3.57546E-02  3.66246E-02
#           3.75157E-02  3.84284E-02  3.93634E-02  4.03212E-02  4.13022E-02
#           4.23071E-02  4.33365E-02  4.43909E-02  4.54710E-02  4.65773E-02
#           4.77106E-02  4.88714E-02  5.00605E-02  5.12785E-02  5.25262E-02
#           5.38042E-02  5.51133E-02  5.64542E-02  5.78278E-02  5.92348E-02
#           6.06760E-02  6.21523E-02  6.36645E-02  6.52135E-02  6.68002E-02
#           6.84255E-02  7.00904E-02  7.17957E-02  7.35426E-02  7.53319E-02
#           7.71648E-02  7.90423E-02  8.09655E-02  8.29354E-02  8.49533E-02
#           8.70203E-02  8.91376E-02  9.13064E-02  9.35279E-02  9.58035E-02
#           9.81345E-02  1.00522E-01  1.02968E-01  1.05473E-01  1.08040E-01
#           1.10668E-01  1.13361E-01  1.16119E-01  1.18944E-01  1.21838E-01
#           1.24803E-01  1.27839E-01  1.30950E-01  1.34136E-01  1.37399E-01
#           1.40742E-01  1.44167E-01  1.47675E-01  1.51268E-01  1.54948E-01
#           1.58718E-01  1.62580E-01  1.66535E-01  1.70587E-01  1.74738E-01
#           1.78989E-01  1.83344E-01  1.87805E-01  1.92375E-01  1.97055E-01
#           2.01850E-01  2.06761E-01  2.11792E-01  2.16945E-01  2.22223E-01
#           2.27630E-01  2.33169E-01  2.38842E-01  2.44653E-01  2.50605E-01
#           2.56703E-01  2.62949E-01  2.69346E-01  2.75900E-01  2.82613E-01
#           2.89489E-01  2.96532E-01  3.03747E-01  3.11138E-01  3.18708E-01
#           3.26462E-01  3.34405E-01  3.42542E-01  3.50876E-01  3.59413E-01
#           3.68158E-01  3.77116E-01  3.86291E-01  3.95690E-01  4.05317E-01
#           4.15179E-01  4.25281E-01  4.35628E-01  4.46227E-01  4.57084E-01
#           4.68205E-01  4.79597E-01  4.91266E-01  5.03219E-01  5.15463E-01
#           5.28005E-01  5.40851E-01  5.54011E-01  5.67490E-01  5.81298E-01
#           5.95441E-01  6.09929E-01  6.24769E-01  6.39970E-01  6.55541E-01
#           6.71491E-01  6.87828E-01  7.04564E-01  7.21706E-01  7.39266E-01
#           7.57253E-01  7.75678E-01  7.94551E-01  8.13883E-01  8.33685E-01
#           8.53969E-01  8.74747E-01  8.96030E-01  9.17831E-01  9.40163E-01
#           9.63038E-01  9.86469E-01  1.01047E+00  1.03506E+00  1.06024E+00
#           1.08604E+00  1.11246E+00  1.13953E+00  1.16725E+00  1.19565E+00
#           1.22474E+00  1.25454E+00  1.28507E+00  1.31633E+00  1.34836E+00
#           1.38117E+00  1.41477E+00  1.44920E+00  1.48446E+00  1.52057E+00
#           1.55757E+00  1.59547E+00  1.63429E+00  1.67405E+00  1.71478E+00
#           1.75650E+00  1.79924E+00  1.84302E+00  1.88786E+00  1.93379E+00
#           1.98084E+00  2.02904E+00  2.07841E+00  2.12898E+00  2.18078E+00
#           2.23384E+00  2.28819E+00  2.34386E+00  2.40089E+00  2.45930E+00
#           2.51914E+00  2.58043E+00  2.64322E+00  2.70753E+00  2.77341E+00
#           2.84088E+00  2.91001E+00  2.98081E+00  3.05333E+00  3.12762E+00
#           3.20372E+00  3.28167E+00  3.36152E+00  3.44330E+00  3.52708E+00
#           3.61290E+00  3.70080E+00  3.79085E+00  3.88308E+00  3.97756E+00
#           4.07434E+00  4.17347E+00  4.27501E+00  4.37903E+00  4.48557E+00
#           4.59471E+00  4.70650E+00  4.82102E+00  4.93832E+00  5.05847E+00
#           5.18155E+00  5.30762E+00  5.43676E+00  5.56904E+00  5.70453E+00
#           5.84333E+00  5.98550E+00  6.13114E+00  6.28031E+00  6.43312E+00
#           6.58964E+00  6.74997E+00  6.91420E+00  7.08243E+00  7.25475E+00
#           7.43126E+00  7.61207E+00  7.79728E+00  7.98700E+00  8.18133E+00
#           8.38038E+00  8.58428E+00  8.79315E+00  9.00709E+00  9.22624E+00
#           9.45072E+00  9.68067E+00  9.91620E+00  1.01575E+01  1.04046E+01
#           1.06578E+01  1.09171E+01  1.11827E+01  1.14548E+01  1.17335E+01
#           1.20190E+01  1.23114E+01  1.26109E+01  1.29178E+01  1.32321E+01
#           1.35540E+01  1.38838E+01  1.42216E+01  1.45676E+01  1.49221E+01
#           1.52851E+01  1.56570E+01  1.60380E+01  1.64282E+01  1.68279E+01
#           1.72374E+01  1.76568E+01  1.80864E+01  1.85264E+01  1.89772E+01
#           1.94389E+01  1.99119E+01  2.03963E+01  2.08926E+01  2.14009E+01
#           2.19216E+01  2.24550E+01  2.30014E+01  2.35610E+01  2.41343E+01
#           2.47215E+01  2.53230E+01  2.59391E+01  2.65702E+01  2.72167E+01
#           2.78789E+01  2.85572E+01  2.92520E+01  2.99637E+01  3.06928E+01
#           3.14396E+01  3.22045E+01  3.29881E+01  3.37907E+01  3.46128E+01
#           3.54550E+01  3.63177E+01  3.72013E+01  3.81064E+01  3.90336E+01
#           3.99833E+01  4.09561E+01  4.19526E+01  4.29734E+01  4.40189E+01
#           4.50900E+01  4.61870E+01  4.73108E+01  4.84619E+01  4.96410E+01
#           5.08488E+01  5.20860E+01  5.33533E+01  5.46514E+01  5.59812E+01
#           5.73432E+01  5.87384E+01  6.01676E+01  6.16315E+01  6.31311E+01
#           6.46671E+01  6.62405E+01  6.78522E+01  6.95031E+01  7.11941E+01
#           7.29263E+01  7.47007E+01  7.65182E+01  7.83800E+01  8.02870E+01
#           8.22405E+01  8.42414E+01  8.62911E+01  8.83906E+01  9.05412E+01
#           9.27442E+01  9.50007E+01  9.73122E+01  9.96799E+01  1.02105E+02
#           1.04589E+02  1.07134E+02  1.09741E+02  1.12411E+02  1.15146E+02
#           1.17948E+02  1.20817E+02  1.23757E+02  1.26768E+02  1.29852E+02
#           1.33012E+02  1.36248E+02  1.39563E+02  1.42959E+02  1.46437E+02
#           1.50000E+02
     unit =    2            # unit is [1/cm^2/(MeV/n)/source]
     axis =  eng            # axis of output
     file = detector-17.out  # file name of output for the above axis
   output = f-curr          # surface crossing forward current spectrum
     part =  neutron  
# kf/name :  2112     
#    used :        main (  %)        temp (  %)       total (  %)
#  memory :         414 (  0)           0 (  0)         414 (  0)

#------------------------------------------------------------------------------
#newpage:
#   no. =    1   reg = 116 - 216

x: Energy [MeV/n]
y:  F-Curr [1/cm^2/(MeV/n)/source]         
p: xlog ylog afac(0.8) form(0.9)
h: n            x            y(neutron ),hh0l   n 
#  e-lower      e-upper      neutron     r.err 
   1.0000E-02   1.0243E-02   3.2469E-04  0.1125
   1.0243E-02   1.0493E-02   3.7315E-04  0.1037
   1.0493E-02   1.0748E-02   3.2512E-04  0.1098
   1.0748E-02   1.1009E-02   3.6328E-04  0.1026
   1.1009E-02   1.1277E-02   4.0319E-04  0.0962
   1.1277E-02   1.1552E-02   3.3585E-04  0.1041
   1.1552E-02   1.1833E-02   3.9493E-04  0.0949
   1.1833E-02   1.2121E-02   2.9872E-04  0.1078
   1.2121E-02   1.2415E-02   3.5944E-04  0.0971
   1.2415E-02   1.2718E-02   3.7629E-04  0.0936
   1.2718E-02   1.3027E-02   3.7650E-04  0.0925
   1.3027E-02   1.3344E-02   3.8807E-04  0.0902
   1.3344E-02   1.3669E-02   3.5113E-04  0.0937
   1.3669E-02   1.4001E-02   3.4880E-04  0.0928
   1.4001E-02   1.4342E-02   3.5226E-04  0.0913
   1.4342E-02   1.4691E-02   3.5249E-04  0.0902
   1.4691E-02   1.5048E-02   3.6370E-04  0.0877
   1.5048E-02   1.5414E-02   4.2061E-04  0.0806
   1.5414E-02   1.5789E-02   4.0703E-04  0.0808
   1.5789E-02   1.6174E-02   3.3357E-04  0.0883
   1.6174E-02   1.6567E-02   3.4687E-04  0.0855
   1.6567E-02   1.6970E-02   3.6220E-04  0.0828
   1.6970E-02   1.7383E-02   3.6571E-04  0.0814
   1.7383E-02   1.7806E-02   3.9249E-04  0.0776
   1.7806E-02   1.8239E-02   3.6008E-04  0.0806
   1.8239E-02   1.8683E-02   3.7406E-04  0.0776
   1.8683E-02   1.9138E-02   3.5198E-04  0.0791
   1.9138E-02   1.9603E-02   3.8158E-04  0.0749
   1.9603E-02   2.0080E-02   3.5258E-04  0.0771
   2.0080E-02   2.0569E-02   4.2574E-04  0.0693
   2.0569E-02   2.1069E-02   3.9464E-04  0.0711
   2.1069E-02   2.1582E-02   3.3826E-04  0.0759
   2.1582E-02   2.2107E-02   3.7517E-04  0.0712
   2.2107E-02   2.2645E-02   3.3279E-04  0.0747
   2.2645E-02   2.3196E-02   3.7314E-04  0.0697
   2.3196E-02   2.3760E-02   3.7741E-04  0.0685
   2.3760E-02   2.4338E-02   3.6876E-04  0.0685
   2.4338E-02   2.4930E-02   3.8731E-04  0.0660
   2.4930E-02   2.5537E-02   3.5637E-04  0.0680
   2.5537E-02   2.6158E-02   3.4467E-04  0.0683
   2.6158E-02   2.6795E-02   3.3624E-04  0.0684
   2.6795E-02   2.7447E-02   3.6948E-04  0.0644
   2.7447E-02   2.8114E-02   3.5490E-04  0.0650
   2.8114E-02   2.8799E-02   3.4227E-04  0.0653
   2.8799E-02   2.9499E-02   3.5108E-04  0.0638
   2.9499E-02   3.0217E-02   3.4901E-04  0.0632
   3.0217E-02   3.0952E-02   3.7019E-04  0.0606
   3.0952E-02   3.1705E-02   3.1758E-04  0.0646
   3.1705E-02   3.2477E-02   3.5222E-04  0.0606
   3.2477E-02   3.3267E-02   3.5732E-04  0.0595
   3.3267E-02   3.4076E-02   3.5046E-04  0.0593
   3.4076E-02   3.4905E-02   3.1800E-04  0.0615
   3.4905E-02   3.5755E-02   3.6271E-04  0.0569
   3.5755E-02   3.6625E-02   3.7033E-04  0.0557
   3.6625E-02   3.7516E-02   3.4745E-04  0.0568
   3.7516E-02   3.8428E-02   3.7759E-04  0.0538
   3.8428E-02   3.9363E-02   3.4813E-04  0.0556
   3.9363E-02   4.0321E-02   3.3742E-04  0.0556
   4.0321E-02   4.1302E-02   3.6084E-04  0.0531
   4.1302E-02   4.2307E-02   3.6819E-04  0.0519
   4.2307E-02   4.3337E-02   3.4486E-04  0.0530
   4.3337E-02   4.4391E-02   3.5403E-04  0.0517
   4.4391E-02   4.5471E-02   3.5383E-04  0.0511
   4.5471E-02   4.6577E-02   3.3624E-04  0.0518
   4.6577E-02   4.7711E-02   3.5162E-04  0.0501
   4.7711E-02   4.8871E-02   3.4139E-04  0.0502
   4.8871E-02   5.0061E-02   3.3541E-04  0.0500
   5.0061E-02   5.1279E-02   3.5919E-04  0.0478
   5.1279E-02   5.2526E-02   3.5801E-04  0.0473
   5.2526E-02   5.3804E-02   3.1758E-04  0.0496
   5.3804E-02   5.5113E-02   3.5750E-04  0.0462
   5.5113E-02   5.6454E-02   3.4068E-04  0.0467
   5.6454E-02   5.7828E-02   3.0742E-04  0.0486
   5.7828E-02   5.9235E-02   3.3082E-04  0.0463
   5.9235E-02   6.0676E-02   3.3677E-04  0.0454
   6.0676E-02   6.2152E-02   3.1804E-04  0.0461
   6.2152E-02   6.3665E-02   3.2943E-04  0.0448
   6.3665E-02   6.5214E-02   3.1343E-04  0.0454
   6.5214E-02   6.6800E-02   3.3277E-04  0.0435
   6.6800E-02   6.8426E-02   3.2632E-04  0.0434
   6.8426E-02   7.0090E-02   2.9341E-04  0.0452
   7.0090E-02   7.1796E-02   3.2261E-04  0.0426
   7.1796E-02   7.3543E-02   3.0417E-04  0.0434
   7.3543E-02   7.5332E-02   3.1492E-04  0.0421
   7.5332E-02   7.7165E-02   3.0008E-04  0.0426
   7.7165E-02   7.9042E-02   2.9728E-04  0.0423
   7.9042E-02   8.0965E-02   2.9578E-04  0.0419
   8.0965E-02   8.2935E-02   2.8826E-04  0.0419
   8.2935E-02   8.4953E-02   3.2014E-04  0.0393
   8.4953E-02   8.7020E-02   2.8556E-04  0.0411
   8.7020E-02   8.9138E-02   2.8235E-04  0.0409
   8.9138E-02   9.1306E-02   2.8565E-04  0.0401
   9.1306E-02   9.3528E-02   2.8544E-04  0.0397
   9.3528E-02   9.5804E-02   2.7309E-04  0.0401
   9.5804E-02   9.8134E-02   2.9784E-04  0.0379
   9.8134E-02   1.0052E-01   2.9616E-04  0.0376
   1.0052E-01   1.0297E-01   2.7959E-04  0.0382
   1.0297E-01   1.0547E-01   2.7169E-04  0.0383
   1.0547E-01   1.0804E-01   2.7150E-04  0.0379
   1.0804E-01   1.1067E-01   2.7636E-04  0.0371
   1.1067E-01   1.1336E-01   2.5916E-04  0.0378
   1.1336E-01   1.1612E-01   2.4963E-04  0.0381
   1.1612E-01   1.1894E-01   2.7015E-04  0.0362
   1.1894E-01   1.2184E-01   2.4969E-04  0.0372
   1.2184E-01   1.2480E-01   2.3865E-04  0.0376
   1.2480E-01   1.2784E-01   2.4658E-04  0.0365
   1.2784E-01   1.3095E-01   2.4390E-04  0.0363
   1.3095E-01   1.3414E-01   2.2178E-04  0.0376
   1.3414E-01   1.3740E-01   2.3928E-04  0.0358
   1.3740E-01   1.4074E-01   2.3015E-04  0.0360
   1.4074E-01   1.4417E-01   2.3838E-04  0.0350
   1.4417E-01   1.4767E-01   2.2838E-04  0.0353
   1.4767E-01   1.5127E-01   2.1206E-04  0.0362
   1.5127E-01   1.5495E-01   2.1387E-04  0.0356
   1.5495E-01   1.5872E-01   2.0062E-04  0.0363
   1.5872E-01   1.6258E-01   2.0487E-04  0.0355
   1.6258E-01   1.6654E-01   2.0183E-04  0.0354
   1.6654E-01   1.7059E-01   1.9238E-04  0.0358
   1.7059E-01   1.7474E-01   1.8713E-04  0.0358
   1.7474E-01   1.7899E-01   1.8073E-04  0.0361
   1.7899E-01   1.8334E-01   1.7730E-04  0.0360
   1.8334E-01   1.8781E-01   1.7309E-04  0.0360
   1.8781E-01   1.9237E-01   1.7412E-04  0.0354
   1.9237E-01   1.9706E-01   1.7984E-04  0.0344
   1.9706E-01   2.0185E-01   1.7332E-04  0.0347
   2.0185E-01   2.0676E-01   1.6873E-04  0.0347
   2.0676E-01   2.1179E-01   1.6839E-04  0.0343
   2.1179E-01   2.1694E-01   1.6586E-04  0.0342
   2.1694E-01   2.2222E-01   1.7264E-04  0.0331
   2.2222E-01   2.2763E-01   1.9125E-04  0.0311
   2.2763E-01   2.3317E-01   1.8659E-04  0.0311
   2.3317E-01   2.3884E-01   1.7759E-04  0.0315
   2.3884E-01   2.4465E-01   1.9683E-04  0.0296
   2.4465E-01   2.5061E-01   1.9430E-04  0.0294
   2.5061E-01   2.5670E-01   1.8872E-04  0.0295
   2.5670E-01   2.6295E-01   2.0305E-04  0.0281
   2.6295E-01   2.6935E-01   2.0231E-04  0.0278
   2.6935E-01   2.7590E-01   2.0569E-04  0.0272
   2.7590E-01   2.8261E-01   2.1002E-04  0.0266
   2.8261E-01   2.8949E-01   2.1023E-04  0.0263
   2.8949E-01   2.9653E-01   2.1307E-04  0.0258
   2.9653E-01   3.0375E-01   2.2107E-04  0.0250
   3.0375E-01   3.1114E-01   2.1646E-04  0.0250
   3.1114E-01   3.1871E-01   2.2664E-04  0.0241
   3.1871E-01   3.2646E-01   2.2707E-04  0.0238
   3.2646E-01   3.3441E-01   2.2449E-04  0.0237
   3.3441E-01   3.4254E-01   2.3030E-04  0.0231
   3.4254E-01   3.5088E-01   2.3391E-04  0.0226
   3.5088E-01   3.5941E-01   2.3331E-04  0.0224
   3.5941E-01   3.6816E-01   2.4533E-04  0.0216
   3.6816E-01   3.7712E-01   2.5327E-04  0.0210
   3.7712E-01   3.8629E-01   2.5367E-04  0.0207
   3.8629E-01   3.9569E-01   2.5312E-04  0.0205
   3.9569E-01   4.0532E-01   2.4561E-04  0.0205
   4.0532E-01   4.1518E-01   2.4854E-04  0.0202
   4.1518E-01   4.2528E-01   2.5148E-04  0.0198
   4.2528E-01   4.3563E-01   2.6505E-04  0.0191
   4.3563E-01   4.4623E-01   2.7091E-04  0.0186
   4.4623E-01   4.5708E-01   2.6670E-04  0.0186
   4.5708E-01   4.6821E-01   2.6947E-04  0.0182
   4.6821E-01   4.7960E-01   2.7005E-04  0.0180
   4.7960E-01   4.9127E-01   2.7196E-04  0.0177
   4.9127E-01   5.0322E-01   2.7849E-04  0.0173
   5.0322E-01   5.1546E-01   2.6889E-04  0.0174
   5.1546E-01   5.2800E-01   2.7103E-04  0.0171
   5.2800E-01   5.4085E-01   2.7930E-04  0.0167
   5.4085E-01   5.5401E-01   2.7987E-04  0.0165
   5.5401E-01   5.6749E-01   2.7922E-04  0.0163
   5.6749E-01   5.8130E-01   2.8468E-04  0.0159
   5.8130E-01   5.9544E-01   2.9140E-04  0.0156
   5.9544E-01   6.0993E-01   2.8929E-04  0.0154
   6.0993E-01   6.2477E-01   2.7909E-04  0.0155
   6.2477E-01   6.3997E-01   2.9149E-04  0.0150
   6.3997E-01   6.5554E-01   2.9301E-04  0.0148
   6.5554E-01   6.7149E-01   2.9480E-04  0.0146
   6.7149E-01   6.8783E-01   2.9969E-04  0.0143
   6.8783E-01   7.0456E-01   2.9601E-04  0.0142
   7.0456E-01   7.2171E-01   3.0373E-04  0.0138
   7.2171E-01   7.3927E-01   3.0143E-04  0.0137
   7.3927E-01   7.5725E-01   2.9239E-04  0.0138
   7.5725E-01   7.7568E-01   2.9570E-04  0.0135
   7.7568E-01   7.9455E-01   2.9936E-04  0.0133
   7.9455E-01   8.1388E-01   2.9257E-04  0.0133
   8.1388E-01   8.3368E-01   2.9072E-04  0.0132
   8.3368E-01   8.5397E-01   2.9445E-04  0.0129
   8.5397E-01   8.7475E-01   2.8645E-04  0.0129
   8.7475E-01   8.9603E-01   2.8619E-04  0.0128
   8.9603E-01   9.1783E-01   2.8475E-04  0.0127
   9.1783E-01   9.4016E-01   2.7792E-04  0.0127
   9.4016E-01   9.6304E-01   2.7412E-04  0.0126
   9.6304E-01   9.8647E-01   2.7768E-04  0.0124
   9.8647E-01   1.0105E+00   2.6873E-04  0.0124
   1.0105E+00   1.0351E+00   2.6552E-04  0.0124
   1.0351E+00   1.0602E+00   2.7042E-04  0.0121
   1.0602E+00   1.0860E+00   2.6204E-04  0.0121
   1.0860E+00   1.1125E+00   2.6574E-04  0.0119
   1.1125E+00   1.1395E+00   2.7276E-04  0.0116
   1.1395E+00   1.1673E+00   2.7051E-04  0.0115
   1.1673E+00   1.1957E+00   2.6854E-04  0.0114
   1.1957E+00   1.2247E+00   2.7275E-04  0.0112
   1.2247E+00   1.2545E+00   2.6968E-04  0.0111
   1.2545E+00   1.2851E+00   2.7139E-04  0.0110
   1.2851E+00   1.3163E+00   2.7272E-04  0.0108
   1.3163E+00   1.3484E+00   2.7472E-04  0.0106
   1.3484E+00   1.3812E+00   2.7529E-04  0.0105
   1.3812E+00   1.4148E+00   2.7780E-04  0.0103
   1.4148E+00   1.4492E+00   2.7377E-04  0.0103
   1.4492E+00   1.4845E+00   2.7031E-04  0.0102
   1.4845E+00   1.5206E+00   2.6965E-04  0.0101
   1.5206E+00   1.5576E+00   2.6657E-04  0.0101
   1.5576E+00   1.5955E+00   2.6362E-04  0.0100
   1.5955E+00   1.6343E+00   2.6547E-04  0.0098
   1.6343E+00   1.6741E+00   2.6388E-04  0.0097
   1.6741E+00   1.7148E+00   2.6206E-04  0.0097
   1.7148E+00   1.7565E+00   2.6042E-04  0.0096
   1.7565E+00   1.7992E+00   2.5950E-04  0.0095
   1.7992E+00   1.8430E+00   2.5547E-04  0.0094
   1.8430E+00   1.8879E+00   2.5163E-04  0.0094
   1.8879E+00   1.9338E+00   2.4815E-04  0.0093
   1.9338E+00   1.9808E+00   2.4591E-04  0.0093
   1.9808E+00   2.0290E+00   2.4417E-04  0.0092
   2.0290E+00   2.0784E+00   2.4457E-04  0.0091
   2.0784E+00   2.1290E+00   2.3666E-04  0.0091
   2.1290E+00   2.1808E+00   2.3278E-04  0.0091
   2.1808E+00   2.2338E+00   2.3034E-04  0.0090
   2.2338E+00   2.2882E+00   2.2492E-04  0.0090
   2.2882E+00   2.3439E+00   2.1922E-04  0.0090
   2.3439E+00   2.4009E+00   2.1586E-04  0.0090
   2.4009E+00   2.4593E+00   2.1597E-04  0.0089
   2.4593E+00   2.5191E+00   2.1156E-04  0.0089
   2.5191E+00   2.5804E+00   2.0740E-04  0.0088
   2.5804E+00   2.6432E+00   2.0227E-04  0.0089
   2.6432E+00   2.7075E+00   1.9641E-04  0.0089
   2.7075E+00   2.7734E+00   1.9157E-04  0.0089
   2.7734E+00   2.8409E+00   1.8856E-04  0.0088
   2.8409E+00   2.9100E+00   1.8274E-04  0.0089
   2.9100E+00   2.9808E+00   1.7817E-04  0.0089
   2.9808E+00   3.0533E+00   1.7720E-04  0.0088
   3.0533E+00   3.1276E+00   1.7379E-04  0.0088
   3.1276E+00   3.2037E+00   1.6808E-04  0.0088
   3.2037E+00   3.2817E+00   1.6444E-04  0.0088
   3.2817E+00   3.3615E+00   1.6050E-04  0.0088
   3.3615E+00   3.4433E+00   1.5679E-04  0.0088
   3.4433E+00   3.5271E+00   1.5187E-04  0.0088
   3.5271E+00   3.6129E+00   1.4880E-04  0.0088
   3.6129E+00   3.7008E+00   1.4238E-04  0.0089
   3.7008E+00   3.7908E+00   1.4008E-04  0.0089
   3.7908E+00   3.8831E+00   1.4048E-04  0.0088
   3.8831E+00   3.9776E+00   1.3509E-04  0.0088
   3.9776E+00   4.0743E+00   1.3110E-04  0.0089
   4.0743E+00   4.1735E+00   1.2796E-04  0.0089
   4.1735E+00   4.2750E+00   1.2449E-04  0.0089
   4.2750E+00   4.3790E+00   1.1945E-04  0.0090
   4.3790E+00   4.4856E+00   1.1440E-04  0.0090
   4.4856E+00   4.5947E+00   1.1404E-04  0.0089
   4.5947E+00   4.7065E+00   1.0827E-04  0.0091
   4.7065E+00   4.8210E+00   1.0718E-04  0.0090
   4.8210E+00   4.9383E+00   1.0259E-04  0.0091
   4.9383E+00   5.0585E+00   1.0064E-04  0.0091
   5.0585E+00   5.1815E+00   9.4642E-05  0.0092
   5.1815E+00   5.3076E+00   9.2351E-05  0.0092
   5.3076E+00   5.4368E+00   8.8633E-05  0.0093
   5.4368E+00   5.5690E+00   8.5965E-05  0.0094
   5.5690E+00   5.7045E+00   8.3412E-05  0.0094
   5.7045E+00   5.8433E+00   7.9889E-05  0.0095
   5.8433E+00   5.9855E+00   7.6364E-05  0.0096
   5.9855E+00   6.1311E+00   7.4499E-05  0.0096
   6.1311E+00   6.2803E+00   7.0146E-05  0.0098
   6.2803E+00   6.4331E+00   6.8183E-05  0.0098
   6.4331E+00   6.5896E+00   6.5514E-05  0.0099
   6.5896E+00   6.7500E+00   6.0307E-05  0.0102
   6.7500E+00   6.9142E+00   5.9373E-05  0.0101
   6.9142E+00   7.0824E+00   5.6012E-05  0.0103
   7.0824E+00   7.2548E+00   5.4384E-05  0.0103
   7.2548E+00   7.4313E+00   5.0767E-05  0.0105
   7.4313E+00   7.6121E+00   4.7837E-05  0.0107
   7.6121E+00   7.7973E+00   4.4979E-05  0.0109
   7.7973E+00   7.9870E+00   4.3331E-05  0.0110
   7.9870E+00   8.1813E+00   4.1634E-05  0.0111
   8.1813E+00   8.3804E+00   3.8603E-05  0.0114
   8.3804E+00   8.5843E+00   3.6788E-05  0.0115
   8.5843E+00   8.7931E+00   3.4658E-05  0.0117
   8.7931E+00   9.0071E+00   3.3069E-05  0.0119
   9.0071E+00   9.2262E+00   3.1209E-05  0.0121
   9.2262E+00   9.4507E+00   2.9484E-05  0.0123
   9.4507E+00   9.6807E+00   2.7400E-05  0.0126
   9.6807E+00   9.9162E+00   2.6306E-05  0.0127
   9.9162E+00   1.0157E+01   2.4135E-05  0.0131
   1.0157E+01   1.0405E+01   2.3948E-05  0.0130
   1.0405E+01   1.0658E+01   2.2547E-05  0.0132
   1.0658E+01   1.0917E+01   2.1893E-05  0.0133
   1.0917E+01   1.1183E+01   2.0861E-05  0.0134
   1.1183E+01   1.1455E+01   1.9799E-05  0.0136
   1.1455E+01   1.1733E+01   1.8324E-05  0.0140
   1.1733E+01   1.2019E+01   1.7556E-05  0.0141
   1.2019E+01   1.2311E+01   1.6532E-05  0.0144
   1.2311E+01   1.2611E+01   1.5580E-05  0.0146
   1.2611E+01   1.2918E+01   1.4685E-05  0.0149
   1.2918E+01   1.3232E+01   1.3880E-05  0.0151
   1.3232E+01   1.3554E+01   1.2805E-05  0.0156
   1.3554E+01   1.3884E+01   1.2489E-05  0.0156
   1.3884E+01   1.4222E+01   1.1575E-05  0.0160
   1.4222E+01   1.4568E+01   1.0855E-05  0.0163
   1.4568E+01   1.4922E+01   1.0077E-05  0.0167
   1.4922E+01   1.5285E+01   9.6861E-06  0.0169
   1.5285E+01   1.5657E+01   8.8739E-06  0.0174
   1.5657E+01   1.6038E+01   8.2653E-06  0.0178
   1.6038E+01   1.6428E+01   7.8080E-06  0.0181
   1.6428E+01   1.6828E+01   7.2329E-06  0.0186
   1.6828E+01   1.7237E+01   6.5677E-06  0.0193
   1.7237E+01   1.7657E+01   6.2065E-06  0.0196
   1.7657E+01   1.8086E+01   5.6614E-06  0.0203
   1.8086E+01   1.8526E+01   5.1915E-06  0.0209
   1.8526E+01   1.8977E+01   4.8965E-06  0.0213
   1.8977E+01   1.9439E+01   4.5611E-06  0.0218
   1.9439E+01   1.9912E+01   4.1846E-06  0.0225
   1.9912E+01   2.0396E+01   3.9837E-06  0.0228
   2.0396E+01   2.0893E+01   3.5606E-06  0.0238
   2.0893E+01   2.1401E+01   3.1849E-06  0.0249
   2.1401E+01   2.1922E+01   2.7789E-06  0.0263
   2.1922E+01   2.2455E+01   2.6061E-06  0.0268
   2.2455E+01   2.3001E+01   2.3117E-06  0.0281
   2.3001E+01   2.3561E+01   2.0299E-06  0.0297
   2.3561E+01   2.4134E+01   1.9363E-06  0.0300
   2.4134E+01   2.4721E+01   1.6979E-06  0.0317
   2.4721E+01   2.5323E+01   1.4215E-06  0.0342
   2.5323E+01   2.5939E+01   1.3114E-06  0.0352
   2.5939E+01   2.6570E+01   1.1709E-06  0.0368
   2.6570E+01   2.7217E+01   1.0689E-06  0.0380
   2.7217E+01   2.7879E+01   9.8912E-07  0.0391
   2.7879E+01   2.8557E+01   7.9462E-07  0.0431
   2.8557E+01   2.9252E+01   7.3544E-07  0.0442
   2.9252E+01   2.9964E+01   6.4491E-07  0.0467
   2.9964E+01   3.0693E+01   4.9654E-07  0.0526
   3.0693E+01   3.1440E+01   4.8743E-07  0.0524
   3.1440E+01   3.2205E+01   4.2617E-07  0.0554
   3.2205E+01   3.2988E+01   3.2927E-07  0.0623
   3.2988E+01   3.3791E+01   3.2892E-07  0.0615
   3.3791E+01   3.4613E+01   2.5543E-07  0.0690
   3.4613E+01   3.5455E+01   2.4698E-07  0.0693
   3.5455E+01   3.6318E+01   2.3300E-07  0.0705
   3.6318E+01   3.7201E+01   1.7654E-07  0.0801
   3.7201E+01   3.8106E+01   1.8782E-07  0.0767
   3.8106E+01   3.9034E+01   1.4345E-07  0.0867
   3.9034E+01   3.9983E+01   1.3267E-07  0.0891
   3.9983E+01   4.0956E+01   1.2335E-07  0.0913
   4.0956E+01   4.1953E+01   1.2143E-07  0.0909
   4.1953E+01   4.2973E+01   8.6212E-08  0.1066
   4.2973E+01   4.4019E+01   8.4164E-08  0.1066
   4.4019E+01   4.5090E+01   7.8430E-08  0.1091
   4.5090E+01   4.6187E+01   5.7425E-08  0.1260
   4.6187E+01   4.7311E+01   5.1612E-08  0.1313
   4.7311E+01   4.8462E+01   3.2143E-08  0.1644
   4.8462E+01   4.9641E+01   2.7987E-08  0.1741
   4.9641E+01   5.0849E+01   1.7387E-08  0.2182
   5.0849E+01   5.2086E+01   1.5357E-08  0.2294
   5.2086E+01   5.3353E+01   8.6799E-09  0.3015
   5.3353E+01   5.4651E+01   9.2441E-09  0.2887
   5.4651E+01   5.5981E+01   6.7684E-09  0.3333
   5.5981E+01   5.7343E+01   3.6709E-09  0.4472
   5.7343E+01   5.8738E+01   5.7339E-09  0.3536
   5.8738E+01   6.0168E+01   1.3994E-09  0.7071
   6.0168E+01   6.1632E+01   2.7324E-09  0.5000
   6.1632E+01   6.3131E+01   2.0006E-09  0.5774
   6.3131E+01   6.4667E+01   0.0000E+00  0.0000
   6.4667E+01   6.6240E+01   0.0000E+00  0.0000
   6.6240E+01   6.7852E+01   0.0000E+00  0.0000
   6.7852E+01   6.9503E+01   0.0000E+00  0.0000
   6.9503E+01   7.1194E+01   0.0000E+00  0.0000
   7.1194E+01   7.2926E+01   0.0000E+00  0.0000
   7.2926E+01   7.4701E+01   0.0000E+00  0.0000
   7.4701E+01   7.6518E+01   0.0000E+00  0.0000
   7.6518E+01   7.8380E+01   0.0000E+00  0.0000
   7.8380E+01   8.0287E+01   0.0000E+00  0.0000
   8.0287E+01   8.2240E+01   0.0000E+00  0.0000
   8.2240E+01   8.4241E+01   0.0000E+00  0.0000
   8.4241E+01   8.6291E+01   0.0000E+00  0.0000
   8.6291E+01   8.8391E+01   0.0000E+00  0.0000
   8.8391E+01   9.0541E+01   0.0000E+00  0.0000
   9.0541E+01   9.2744E+01   0.0000E+00  0.0000
   9.2744E+01   9.5001E+01   0.0000E+00  0.0000
   9.5001E+01   9.7312E+01   0.0000E+00  0.0000
   9.7312E+01   9.9680E+01   0.0000E+00  0.0000
   9.9680E+01   1.0211E+02   0.0000E+00  0.0000
   1.0211E+02   1.0459E+02   0.0000E+00  0.0000
   1.0459E+02   1.0713E+02   0.0000E+00  0.0000
   1.0713E+02   1.0974E+02   0.0000E+00  0.0000
   1.0974E+02   1.1241E+02   0.0000E+00  0.0000
   1.1241E+02   1.1515E+02   0.0000E+00  0.0000
   1.1515E+02   1.1795E+02   0.0000E+00  0.0000
   1.1795E+02   1.2082E+02   0.0000E+00  0.0000
   1.2082E+02   1.2376E+02   0.0000E+00  0.0000
   1.2376E+02   1.2677E+02   0.0000E+00  0.0000
   1.2677E+02   1.2985E+02   0.0000E+00  0.0000
   1.2985E+02   1.3301E+02   0.0000E+00  0.0000
   1.3301E+02   1.3625E+02   0.0000E+00  0.0000
   1.3625E+02   1.3956E+02   0.0000E+00  0.0000
   1.3956E+02   1.4296E+02   0.0000E+00  0.0000
   1.4296E+02   1.4644E+02   0.0000E+00  0.0000
   1.4644E+02   1.5000E+02   0.0000E+00  0.0000

#   sum over                 9.3681E-06
'no. =    1   reg = 116 - 216'
msuc: {\huge [t-cross] in region mesh}
msdr: {\it plotted by \ANGEL \version}
msdl: {\it calculated by \PHITS  3.26}
wt: s(0.7)
\vspace{-3}
  region surface crossing
  area  &=&   1.0000E+00 [cm^2]
e:
 
# Information for Restart Calculation
# This calculation was newly started
# istdev =  2 # 1:Batch variance, 2:History variance
# resc2  = 1.00000000000000000E+09 # Total source weight or Total source weight / maxcas
# resc3  = 1.00000000000000000E+09 # Total history number or Total batch number
# maxcas =   500000000 # History / Batch, only used for istdev=1
# bitrseed = 0001001110011001001001110000100100110111001111011100001000101100 # bit data of rseed
