9 <--- number of remaining batches 

-------------------------------------------------------------------------------
bat[       1] ncas =      500000000.
 bitrseed = 0100001010011000001011101100011110011000110110100110010000000000
          cpu time =   4 h.  7 m.  0.71 s.

 date = 2022-06-01
 time = 02h 19m 34s

