[ T-Cross ]
    title = [t-cross] in region mesh
     mesh =  reg            # mesh type is region-wise
      reg =    1            # number of crossing regions
      non     r-from    r-to       area
      1       121       221        1.000000    
   e-type =    3            # e-mesh is log given by emin, emax and ne
     emin =  1.0000000E-02  # minimum value of e-mesh points
     emax =   150.0000      # maximum value of e-mesh points
#    edel =  2.4039514E-02  # mesh width of e-mesh points
       ne =    400          # number of e-mesh points
#    data = ( e(i), i = 1, ne + 1 )
#           1.00000E-02  1.02433E-02  1.04925E-02  1.07478E-02  1.10093E-02
#           1.12772E-02  1.15516E-02  1.18326E-02  1.21205E-02  1.24154E-02
#           1.27175E-02  1.30269E-02  1.33439E-02  1.36686E-02  1.40011E-02
#           1.43418E-02  1.46907E-02  1.50482E-02  1.54143E-02  1.57894E-02
#           1.61735E-02  1.65670E-02  1.69701E-02  1.73830E-02  1.78060E-02
#           1.82392E-02  1.86830E-02  1.91375E-02  1.96032E-02  2.00801E-02
#           2.05687E-02  2.10692E-02  2.15818E-02  2.21069E-02  2.26448E-02
#           2.31957E-02  2.37601E-02  2.43382E-02  2.49304E-02  2.55369E-02
#           2.61583E-02  2.67947E-02  2.74467E-02  2.81145E-02  2.87985E-02
#           2.94992E-02  3.02169E-02  3.09521E-02  3.17052E-02  3.24766E-02
#           3.32668E-02  3.40762E-02  3.49053E-02  3.57546E-02  3.66246E-02
#           3.75157E-02  3.84284E-02  3.93634E-02  4.03212E-02  4.13022E-02
#           4.23071E-02  4.33365E-02  4.43909E-02  4.54710E-02  4.65773E-02
#           4.77106E-02  4.88714E-02  5.00605E-02  5.12785E-02  5.25262E-02
#           5.38042E-02  5.51133E-02  5.64542E-02  5.78278E-02  5.92348E-02
#           6.06760E-02  6.21523E-02  6.36645E-02  6.52135E-02  6.68002E-02
#           6.84255E-02  7.00904E-02  7.17957E-02  7.35426E-02  7.53319E-02
#           7.71648E-02  7.90423E-02  8.09655E-02  8.29354E-02  8.49533E-02
#           8.70203E-02  8.91376E-02  9.13064E-02  9.35279E-02  9.58035E-02
#           9.81345E-02  1.00522E-01  1.02968E-01  1.05473E-01  1.08040E-01
#           1.10668E-01  1.13361E-01  1.16119E-01  1.18944E-01  1.21838E-01
#           1.24803E-01  1.27839E-01  1.30950E-01  1.34136E-01  1.37399E-01
#           1.40742E-01  1.44167E-01  1.47675E-01  1.51268E-01  1.54948E-01
#           1.58718E-01  1.62580E-01  1.66535E-01  1.70587E-01  1.74738E-01
#           1.78989E-01  1.83344E-01  1.87805E-01  1.92375E-01  1.97055E-01
#           2.01850E-01  2.06761E-01  2.11792E-01  2.16945E-01  2.22223E-01
#           2.27630E-01  2.33169E-01  2.38842E-01  2.44653E-01  2.50605E-01
#           2.56703E-01  2.62949E-01  2.69346E-01  2.75900E-01  2.82613E-01
#           2.89489E-01  2.96532E-01  3.03747E-01  3.11138E-01  3.18708E-01
#           3.26462E-01  3.34405E-01  3.42542E-01  3.50876E-01  3.59413E-01
#           3.68158E-01  3.77116E-01  3.86291E-01  3.95690E-01  4.05317E-01
#           4.15179E-01  4.25281E-01  4.35628E-01  4.46227E-01  4.57084E-01
#           4.68205E-01  4.79597E-01  4.91266E-01  5.03219E-01  5.15463E-01
#           5.28005E-01  5.40851E-01  5.54011E-01  5.67490E-01  5.81298E-01
#           5.95441E-01  6.09929E-01  6.24769E-01  6.39970E-01  6.55541E-01
#           6.71491E-01  6.87828E-01  7.04564E-01  7.21706E-01  7.39266E-01
#           7.57253E-01  7.75678E-01  7.94551E-01  8.13883E-01  8.33685E-01
#           8.53969E-01  8.74747E-01  8.96030E-01  9.17831E-01  9.40163E-01
#           9.63038E-01  9.86469E-01  1.01047E+00  1.03506E+00  1.06024E+00
#           1.08604E+00  1.11246E+00  1.13953E+00  1.16725E+00  1.19565E+00
#           1.22474E+00  1.25454E+00  1.28507E+00  1.31633E+00  1.34836E+00
#           1.38117E+00  1.41477E+00  1.44920E+00  1.48446E+00  1.52057E+00
#           1.55757E+00  1.59547E+00  1.63429E+00  1.67405E+00  1.71478E+00
#           1.75650E+00  1.79924E+00  1.84302E+00  1.88786E+00  1.93379E+00
#           1.98084E+00  2.02904E+00  2.07841E+00  2.12898E+00  2.18078E+00
#           2.23384E+00  2.28819E+00  2.34386E+00  2.40089E+00  2.45930E+00
#           2.51914E+00  2.58043E+00  2.64322E+00  2.70753E+00  2.77341E+00
#           2.84088E+00  2.91001E+00  2.98081E+00  3.05333E+00  3.12762E+00
#           3.20372E+00  3.28167E+00  3.36152E+00  3.44330E+00  3.52708E+00
#           3.61290E+00  3.70080E+00  3.79085E+00  3.88308E+00  3.97756E+00
#           4.07434E+00  4.17347E+00  4.27501E+00  4.37903E+00  4.48557E+00
#           4.59471E+00  4.70650E+00  4.82102E+00  4.93832E+00  5.05847E+00
#           5.18155E+00  5.30762E+00  5.43676E+00  5.56904E+00  5.70453E+00
#           5.84333E+00  5.98550E+00  6.13114E+00  6.28031E+00  6.43312E+00
#           6.58964E+00  6.74997E+00  6.91420E+00  7.08243E+00  7.25475E+00
#           7.43126E+00  7.61207E+00  7.79728E+00  7.98700E+00  8.18133E+00
#           8.38038E+00  8.58428E+00  8.79315E+00  9.00709E+00  9.22624E+00
#           9.45072E+00  9.68067E+00  9.91620E+00  1.01575E+01  1.04046E+01
#           1.06578E+01  1.09171E+01  1.11827E+01  1.14548E+01  1.17335E+01
#           1.20190E+01  1.23114E+01  1.26109E+01  1.29178E+01  1.32321E+01
#           1.35540E+01  1.38838E+01  1.42216E+01  1.45676E+01  1.49221E+01
#           1.52851E+01  1.56570E+01  1.60380E+01  1.64282E+01  1.68279E+01
#           1.72374E+01  1.76568E+01  1.80864E+01  1.85264E+01  1.89772E+01
#           1.94389E+01  1.99119E+01  2.03963E+01  2.08926E+01  2.14009E+01
#           2.19216E+01  2.24550E+01  2.30014E+01  2.35610E+01  2.41343E+01
#           2.47215E+01  2.53230E+01  2.59391E+01  2.65702E+01  2.72167E+01
#           2.78789E+01  2.85572E+01  2.92520E+01  2.99637E+01  3.06928E+01
#           3.14396E+01  3.22045E+01  3.29881E+01  3.37907E+01  3.46128E+01
#           3.54550E+01  3.63177E+01  3.72013E+01  3.81064E+01  3.90336E+01
#           3.99833E+01  4.09561E+01  4.19526E+01  4.29734E+01  4.40189E+01
#           4.50900E+01  4.61870E+01  4.73108E+01  4.84619E+01  4.96410E+01
#           5.08488E+01  5.20860E+01  5.33533E+01  5.46514E+01  5.59812E+01
#           5.73432E+01  5.87384E+01  6.01676E+01  6.16315E+01  6.31311E+01
#           6.46671E+01  6.62405E+01  6.78522E+01  6.95031E+01  7.11941E+01
#           7.29263E+01  7.47007E+01  7.65182E+01  7.83800E+01  8.02870E+01
#           8.22405E+01  8.42414E+01  8.62911E+01  8.83906E+01  9.05412E+01
#           9.27442E+01  9.50007E+01  9.73122E+01  9.96799E+01  1.02105E+02
#           1.04589E+02  1.07134E+02  1.09741E+02  1.12411E+02  1.15146E+02
#           1.17948E+02  1.20817E+02  1.23757E+02  1.26768E+02  1.29852E+02
#           1.33012E+02  1.36248E+02  1.39563E+02  1.42959E+02  1.46437E+02
#           1.50000E+02
     unit =    2            # unit is [1/cm^2/(MeV/n)/source]
     axis =  eng            # axis of output
     file = detector-22.out  # file name of output for the above axis
   output = f-curr          # surface crossing forward current spectrum
     part =  neutron  
# kf/name :  2112     
#    used :        main (  %)        temp (  %)       total (  %)
#  memory :         414 (  0)           0 (  0)         414 (  0)

#------------------------------------------------------------------------------
#newpage:
#   no. =    1   reg = 121 - 221

x: Energy [MeV/n]
y:  F-Curr [1/cm^2/(MeV/n)/source]         
p: xlog ylog afac(0.8) form(0.9)
h: n            x            y(neutron ),hh0l   n 
#  e-lower      e-upper      neutron     r.err 
   1.0000E-02   1.0243E-02   1.5999E-03  0.0716
   1.0243E-02   1.0493E-02   1.8056E-03  0.0667
   1.0493E-02   1.0748E-02   1.6961E-03  0.0678
   1.0748E-02   1.1009E-02   1.5648E-03  0.0697
   1.1009E-02   1.1277E-02   1.5537E-03  0.0692
   1.1277E-02   1.1552E-02   1.2366E-03  0.0765
   1.1552E-02   1.1833E-02   1.3308E-03  0.0730
   1.1833E-02   1.2121E-02   1.3512E-03  0.0717
   1.2121E-02   1.2415E-02   1.2635E-03  0.0731
   1.2415E-02   1.2718E-02   1.2921E-03  0.0713
   1.2718E-02   1.3027E-02   1.4680E-03  0.0663
   1.3027E-02   1.3344E-02   1.3703E-03  0.0678
   1.3344E-02   1.3669E-02   1.3830E-03  0.0667
   1.3669E-02   1.4001E-02   1.1879E-03  0.0711
   1.4001E-02   1.4342E-02   1.2943E-03  0.0672
   1.4342E-02   1.4691E-02   1.2092E-03  0.0686
   1.4691E-02   1.5048E-02   1.2180E-03  0.0675
   1.5048E-02   1.5414E-02   1.1098E-03  0.0700
   1.5414E-02   1.5789E-02   1.0764E-03  0.0703
   1.5789E-02   1.6174E-02   1.1740E-03  0.0666
   1.6174E-02   1.6567E-02   1.1163E-03  0.0672
   1.6567E-02   1.6970E-02   1.1039E-03  0.0669
   1.6970E-02   1.7383E-02   9.8003E-04  0.0703
   1.7383E-02   1.7806E-02   1.0680E-03  0.0664
   1.7806E-02   1.8239E-02   8.6072E-04  0.0730
   1.8239E-02   1.8683E-02   1.1421E-03  0.0627
   1.8683E-02   1.9138E-02   1.0084E-03  0.0659
   1.9138E-02   1.9603E-02   8.7894E-04  0.0696
   1.9603E-02   2.0080E-02   8.8414E-04  0.0688
   2.0080E-02   2.0569E-02   9.3366E-04  0.0660
   2.0569E-02   2.1069E-02   8.9793E-04  0.0666
   2.1069E-02   2.1582E-02   8.1735E-04  0.0689
   2.1582E-02   2.2107E-02   7.2794E-04  0.0721
   2.2107E-02   2.2645E-02   7.9924E-04  0.0680
   2.2645E-02   2.3196E-02   8.7307E-04  0.0643
   2.3196E-02   2.3760E-02   7.2376E-04  0.0698
   2.3760E-02   2.4338E-02   8.3478E-04  0.0643
   2.4338E-02   2.4930E-02   7.7350E-04  0.0660
   2.4930E-02   2.5537E-02   7.7028E-04  0.0653
   2.5537E-02   2.6158E-02   6.8781E-04  0.0682
   2.6158E-02   2.6795E-02   7.6145E-04  0.0642
   2.6795E-02   2.7447E-02   6.9729E-04  0.0662
   2.7447E-02   2.8114E-02   7.3265E-04  0.0638
   2.8114E-02   2.8799E-02   6.1947E-04  0.0684
   2.8799E-02   2.9499E-02   7.2687E-04  0.0626
   2.9499E-02   3.0217E-02   6.6119E-04  0.0648
   3.0217E-02   3.0952E-02   6.8062E-04  0.0631
   3.0952E-02   3.1705E-02   6.3005E-04  0.0647
   3.1705E-02   3.2477E-02   5.8109E-04  0.0666
   3.2477E-02   3.3267E-02   5.7247E-04  0.0664
   3.3267E-02   3.4076E-02   6.0167E-04  0.0640
   3.4076E-02   3.4905E-02   6.0506E-04  0.0630
   3.4905E-02   3.5755E-02   5.7576E-04  0.0638
   3.5755E-02   3.6625E-02   5.4890E-04  0.0646
   3.6625E-02   3.7516E-02   6.2097E-04  0.0600
   3.7516E-02   3.8428E-02   5.7807E-04  0.0613
   3.8428E-02   3.9363E-02   5.7367E-04  0.0610
   3.9363E-02   4.0321E-02   5.7205E-04  0.0603
   4.0321E-02   4.1302E-02   5.0226E-04  0.0636
   4.1302E-02   4.2307E-02   4.9465E-04  0.0633
   4.2307E-02   4.3337E-02   5.2286E-04  0.0609
   4.3337E-02   4.4391E-02   5.0093E-04  0.0614
   4.4391E-02   4.5471E-02   3.9187E-04  0.0687
   4.5471E-02   4.6577E-02   4.6478E-04  0.0622
   4.6577E-02   4.7711E-02   4.3241E-04  0.0637
   4.7711E-02   4.8871E-02   4.3575E-04  0.0627
   4.8871E-02   5.0061E-02   4.1770E-04  0.0633
   5.0061E-02   5.1279E-02   3.8007E-04  0.0656
   5.1279E-02   5.2526E-02   4.1648E-04  0.0619
   5.2526E-02   5.3804E-02   3.9883E-04  0.0626
   5.3804E-02   5.5113E-02   3.9081E-04  0.0624
   5.5113E-02   5.6454E-02   3.9264E-04  0.0615
   5.6454E-02   5.7828E-02   4.0564E-04  0.0597
   5.7828E-02   5.9235E-02   4.0365E-04  0.0592
   5.9235E-02   6.0676E-02   3.3416E-04  0.0644
   6.0676E-02   6.2152E-02   3.7544E-04  0.0600
   6.2152E-02   6.3665E-02   3.5206E-04  0.0612
   6.3665E-02   6.5214E-02   3.5330E-04  0.0603
   6.5214E-02   6.6800E-02   3.2748E-04  0.0619
   6.6800E-02   6.8426E-02   3.5312E-04  0.0590
   6.8426E-02   7.0090E-02   3.5248E-04  0.0582
   7.0090E-02   7.1796E-02   3.5373E-04  0.0575
   7.1796E-02   7.3543E-02   2.7290E-04  0.0646
   7.3543E-02   7.5332E-02   3.0885E-04  0.0601
   7.5332E-02   7.7165E-02   2.5671E-04  0.0649
   7.7165E-02   7.9042E-02   2.7038E-04  0.0626
   7.9042E-02   8.0965E-02   2.7736E-04  0.0609
   8.0965E-02   8.2935E-02   2.7223E-04  0.0609
   8.2935E-02   8.4953E-02   2.6623E-04  0.0609
   8.4953E-02   8.7020E-02   2.4144E-04  0.0631
   8.7020E-02   8.9138E-02   2.6183E-04  0.0599
   8.9138E-02   9.1306E-02   2.3773E-04  0.0622
   9.1306E-02   9.3528E-02   2.5080E-04  0.0598
   9.3528E-02   9.5804E-02   2.5965E-04  0.0581
   9.5804E-02   9.8134E-02   2.2709E-04  0.0613
   9.8134E-02   1.0052E-01   2.0568E-04  0.0637
   1.0052E-01   1.0297E-01   2.4031E-04  0.0582
   1.0297E-01   1.0547E-01   2.3062E-04  0.0586
   1.0547E-01   1.0804E-01   2.0946E-04  0.0609
   1.0804E-01   1.1067E-01   2.1326E-04  0.0595
   1.1067E-01   1.1336E-01   1.9730E-04  0.0612
   1.1336E-01   1.1612E-01   2.1460E-04  0.0580
   1.1612E-01   1.1894E-01   2.0052E-04  0.0594
   1.1894E-01   1.2184E-01   1.9777E-04  0.0590
   1.2184E-01   1.2480E-01   1.8214E-04  0.0607
   1.2480E-01   1.2784E-01   1.7639E-04  0.0610
   1.2784E-01   1.3095E-01   1.6642E-04  0.0620
   1.3095E-01   1.3414E-01   1.6431E-04  0.0617
   1.3414E-01   1.3740E-01   1.7978E-04  0.0582
   1.3740E-01   1.4074E-01   1.7106E-04  0.0591
   1.4074E-01   1.4417E-01   1.6245E-04  0.0599
   1.4417E-01   1.4767E-01   1.5783E-04  0.0600
   1.4767E-01   1.5127E-01   1.7564E-04  0.0562
   1.5127E-01   1.5495E-01   1.6146E-04  0.0579
   1.5495E-01   1.5872E-01   1.5836E-04  0.0578
   1.5872E-01   1.6258E-01   1.4913E-04  0.0589
   1.6258E-01   1.6654E-01   1.4052E-04  0.0599
   1.6654E-01   1.7059E-01   1.4561E-04  0.0582
   1.7059E-01   1.7474E-01   1.4531E-04  0.0575
   1.7474E-01   1.7899E-01   1.4324E-04  0.0573
   1.7899E-01   1.8334E-01   1.4073E-04  0.0570
   1.8334E-01   1.8781E-01   1.4452E-04  0.0556
   1.8781E-01   1.9237E-01   1.3285E-04  0.0574
   1.9237E-01   1.9706E-01   1.2597E-04  0.0582
   1.9706E-01   2.0185E-01   1.1962E-04  0.0589
   2.0185E-01   2.0676E-01   1.2736E-04  0.0562
   2.0676E-01   2.1179E-01   1.3350E-04  0.0545
   2.1179E-01   2.1694E-01   1.3454E-04  0.0536
   2.1694E-01   2.2222E-01   1.3337E-04  0.0532
   2.2222E-01   2.2763E-01   1.4462E-04  0.0504
   2.2763E-01   2.3317E-01   1.4050E-04  0.0506
   2.3317E-01   2.3884E-01   1.3957E-04  0.0501
   2.3884E-01   2.4465E-01   1.6016E-04  0.0462
   2.4465E-01   2.5061E-01   1.4230E-04  0.0485
   2.5061E-01   2.5670E-01   1.5133E-04  0.0465
   2.5670E-01   2.6295E-01   1.4994E-04  0.0461
   2.6295E-01   2.6935E-01   1.5949E-04  0.0442
   2.6935E-01   2.7590E-01   1.7154E-04  0.0421
   2.7590E-01   2.8261E-01   1.6256E-04  0.0427
   2.8261E-01   2.8949E-01   1.6611E-04  0.0418
   2.8949E-01   2.9653E-01   1.5463E-04  0.0427
   2.9653E-01   3.0375E-01   1.8285E-04  0.0388
   3.0375E-01   3.1114E-01   1.6872E-04  0.0399
   3.1114E-01   3.1871E-01   1.8998E-04  0.0372
   3.1871E-01   3.2646E-01   1.8713E-04  0.0370
   3.2646E-01   3.3441E-01   2.0038E-04  0.0354
   3.3441E-01   3.4254E-01   1.9053E-04  0.0358
   3.4254E-01   3.5088E-01   1.8749E-04  0.0357
   3.5088E-01   3.5941E-01   1.9233E-04  0.0348
   3.5941E-01   3.6816E-01   2.0386E-04  0.0334
   3.6816E-01   3.7712E-01   2.0078E-04  0.0332
   3.7712E-01   3.8629E-01   1.9796E-04  0.0331
   3.8629E-01   3.9569E-01   2.1090E-04  0.0317
   3.9569E-01   4.0532E-01   2.1625E-04  0.0309
   4.0532E-01   4.1518E-01   2.2030E-04  0.0303
   4.1518E-01   4.2528E-01   2.0531E-04  0.0310
   4.2528E-01   4.3563E-01   2.1234E-04  0.0301
   4.3563E-01   4.4623E-01   2.1679E-04  0.0294
   4.4623E-01   4.5708E-01   2.2473E-04  0.0286
   4.5708E-01   4.6821E-01   2.1598E-04  0.0288
   4.6821E-01   4.7960E-01   2.2673E-04  0.0277
   4.7960E-01   4.9127E-01   2.1698E-04  0.0280
   4.9127E-01   5.0322E-01   2.2538E-04  0.0272
   5.0322E-01   5.1546E-01   2.2672E-04  0.0268
   5.1546E-01   5.2800E-01   2.2241E-04  0.0267
   5.2800E-01   5.4085E-01   2.2642E-04  0.0262
   5.4085E-01   5.5401E-01   2.1290E-04  0.0266
   5.5401E-01   5.6749E-01   2.2893E-04  0.0254
   5.6749E-01   5.8130E-01   2.2563E-04  0.0253
   5.8130E-01   5.9544E-01   2.2693E-04  0.0249
   5.9544E-01   6.0993E-01   2.2229E-04  0.0248
   6.0993E-01   6.2477E-01   2.2997E-04  0.0241
   6.2477E-01   6.3997E-01   2.1919E-04  0.0244
   6.3997E-01   6.5554E-01   2.1382E-04  0.0244
   6.5554E-01   6.7149E-01   2.2584E-04  0.0235
   6.7149E-01   6.8783E-01   2.1164E-04  0.0240
   6.8783E-01   7.0456E-01   2.1044E-04  0.0237
   7.0456E-01   7.2171E-01   2.1813E-04  0.0230
   7.2171E-01   7.3927E-01   2.2057E-04  0.0226
   7.3927E-01   7.5725E-01   2.0902E-04  0.0230
   7.5725E-01   7.7568E-01   2.0325E-04  0.0230
   7.7568E-01   7.9455E-01   2.0294E-04  0.0228
   7.9455E-01   8.1388E-01   2.0633E-04  0.0223
   8.1388E-01   8.3368E-01   1.9739E-04  0.0226
   8.3368E-01   8.5397E-01   1.9054E-04  0.0227
   8.5397E-01   8.7475E-01   1.8332E-04  0.0228
   8.7475E-01   8.9603E-01   1.8873E-04  0.0222
   8.9603E-01   9.1783E-01   1.8281E-04  0.0223
   9.1783E-01   9.4016E-01   1.7260E-04  0.0227
   9.4016E-01   9.6304E-01   1.6436E-04  0.0230
   9.6304E-01   9.8647E-01   1.5910E-04  0.0231
   9.8647E-01   1.0105E+00   1.5359E-04  0.0232
   1.0105E+00   1.0351E+00   1.5169E-04  0.0231
   1.0351E+00   1.0602E+00   1.4647E-04  0.0232
   1.0602E+00   1.0860E+00   1.4668E-04  0.0229
   1.0860E+00   1.1125E+00   1.4743E-04  0.0226
   1.1125E+00   1.1395E+00   1.4686E-04  0.0223
   1.1395E+00   1.1673E+00   1.5123E-04  0.0218
   1.1673E+00   1.1957E+00   1.4437E-04  0.0220
   1.1957E+00   1.2247E+00   1.4174E-04  0.0219
   1.2247E+00   1.2545E+00   1.4262E-04  0.0216
   1.2545E+00   1.2851E+00   1.4282E-04  0.0213
   1.2851E+00   1.3163E+00   1.3930E-04  0.0213
   1.3163E+00   1.3484E+00   1.3211E-04  0.0216
   1.3484E+00   1.3812E+00   1.3145E-04  0.0214
   1.3812E+00   1.4148E+00   1.3030E-04  0.0213
   1.4148E+00   1.4492E+00   1.3282E-04  0.0208
   1.4492E+00   1.4845E+00   1.2862E-04  0.0209
   1.4845E+00   1.5206E+00   1.2560E-04  0.0209
   1.5206E+00   1.5576E+00   1.2134E-04  0.0210
   1.5576E+00   1.5955E+00   1.2087E-04  0.0208
   1.5955E+00   1.6343E+00   1.1927E-04  0.0207
   1.6343E+00   1.6741E+00   1.1605E-04  0.0207
   1.6741E+00   1.7148E+00   1.0870E-04  0.0211
   1.7148E+00   1.7565E+00   1.1157E-04  0.0206
   1.7565E+00   1.7992E+00   1.0506E-04  0.0210
   1.7992E+00   1.8430E+00   1.0508E-04  0.0207
   1.8430E+00   1.8879E+00   1.0346E-04  0.0206
   1.8879E+00   1.9338E+00   9.7687E-05  0.0210
   1.9338E+00   1.9808E+00   9.4990E-05  0.0210
   1.9808E+00   2.0290E+00   9.4759E-05  0.0208
   2.0290E+00   2.0784E+00   9.4614E-05  0.0206
   2.0784E+00   2.1290E+00   9.2553E-05  0.0205
   2.1290E+00   2.1808E+00   8.6661E-05  0.0209
   2.1808E+00   2.2338E+00   8.4773E-05  0.0209
   2.2338E+00   2.2882E+00   8.2218E-05  0.0210
   2.2882E+00   2.3439E+00   8.1471E-05  0.0209
   2.3439E+00   2.4009E+00   8.0783E-05  0.0207
   2.4009E+00   2.4593E+00   8.2001E-05  0.0203
   2.4593E+00   2.5191E+00   7.7698E-05  0.0206
   2.5191E+00   2.5804E+00   7.4120E-05  0.0208
   2.5804E+00   2.6432E+00   7.1103E-05  0.0210
   2.6432E+00   2.7075E+00   7.1205E-05  0.0208
   2.7075E+00   2.7734E+00   6.9092E-05  0.0208
   2.7734E+00   2.8409E+00   6.9313E-05  0.0205
   2.8409E+00   2.9100E+00   6.6757E-05  0.0207
   2.9100E+00   2.9808E+00   6.4646E-05  0.0208
   2.9808E+00   3.0533E+00   6.3654E-05  0.0206
   3.0533E+00   3.1276E+00   6.2815E-05  0.0206
   3.1276E+00   3.2037E+00   6.1181E-05  0.0206
   3.2037E+00   3.2817E+00   5.7903E-05  0.0209
   3.2817E+00   3.3615E+00   5.6822E-05  0.0208
   3.3615E+00   3.4433E+00   5.6294E-05  0.0207
   3.4433E+00   3.5271E+00   5.5408E-05  0.0206
   3.5271E+00   3.6129E+00   5.3962E-05  0.0206
   3.6129E+00   3.7008E+00   5.4057E-05  0.0204
   3.7008E+00   3.7908E+00   5.0395E-05  0.0208
   3.7908E+00   3.8831E+00   5.1999E-05  0.0203
   3.8831E+00   3.9776E+00   4.8972E-05  0.0207
   3.9776E+00   4.0743E+00   4.8194E-05  0.0206
   4.0743E+00   4.1735E+00   4.7532E-05  0.0205
   4.1735E+00   4.2750E+00   4.4892E-05  0.0208
   4.2750E+00   4.3790E+00   4.3581E-05  0.0209
   4.3790E+00   4.4856E+00   4.2273E-05  0.0209
   4.4856E+00   4.5947E+00   4.3277E-05  0.0205
   4.5947E+00   4.7065E+00   3.8492E-05  0.0214
   4.7065E+00   4.8210E+00   3.8181E-05  0.0213
   4.8210E+00   4.9383E+00   3.7068E-05  0.0213
   4.9383E+00   5.0585E+00   3.5262E-05  0.0216
   5.0585E+00   5.1815E+00   3.5463E-05  0.0213
   5.1815E+00   5.3076E+00   3.3316E-05  0.0217
   5.3076E+00   5.4368E+00   3.2288E-05  0.0218
   5.4368E+00   5.5690E+00   3.0897E-05  0.0220
   5.5690E+00   5.7045E+00   2.9912E-05  0.0221
   5.7045E+00   5.8433E+00   2.8265E-05  0.0225
   5.8433E+00   5.9855E+00   2.7127E-05  0.0227
   5.9855E+00   6.1311E+00   2.7816E-05  0.0221
   6.1311E+00   6.2803E+00   2.5274E-05  0.0229
   6.2803E+00   6.4331E+00   2.5039E-05  0.0228
   6.4331E+00   6.5896E+00   2.3661E-05  0.0231
   6.5896E+00   6.7500E+00   2.3391E-05  0.0230
   6.7500E+00   6.9142E+00   2.2096E-05  0.0234
   6.9142E+00   7.0824E+00   2.1402E-05  0.0235
   7.0824E+00   7.2548E+00   1.9841E-05  0.0241
   7.2548E+00   7.4313E+00   1.9371E-05  0.0241
   7.4313E+00   7.6121E+00   1.7965E-05  0.0248
   7.6121E+00   7.7973E+00   1.8109E-05  0.0244
   7.7973E+00   7.9870E+00   1.6127E-05  0.0255
   7.9870E+00   8.1813E+00   1.6272E-05  0.0251
   8.1813E+00   8.3804E+00   1.5436E-05  0.0254
   8.3804E+00   8.5843E+00   1.4714E-05  0.0258
   8.5843E+00   8.7931E+00   1.4311E-05  0.0258
   8.7931E+00   9.0071E+00   1.3096E-05  0.0267
   9.0071E+00   9.2262E+00   1.2655E-05  0.0268
   9.2262E+00   9.4507E+00   1.1923E-05  0.0273
   9.4507E+00   9.6807E+00   1.1347E-05  0.0276
   9.6807E+00   9.9162E+00   1.1100E-05  0.0276
   9.9162E+00   1.0157E+01   9.8838E-06  0.0289
   1.0157E+01   1.0405E+01   9.5928E-06  0.0290
   1.0405E+01   1.0658E+01   9.4378E-06  0.0289
   1.0658E+01   1.0917E+01   9.0482E-06  0.0292
   1.0917E+01   1.1183E+01   8.9162E-06  0.0290
   1.1183E+01   1.1455E+01   9.0870E-06  0.0284
   1.1455E+01   1.1733E+01   8.4218E-06  0.0291
   1.1733E+01   1.2019E+01   7.4847E-06  0.0306
   1.2019E+01   1.2311E+01   7.3985E-06  0.0304
   1.2311E+01   1.2611E+01   6.7740E-06  0.0314
   1.2611E+01   1.2918E+01   6.1649E-06  0.0325
   1.2918E+01   1.3232E+01   5.6274E-06  0.0336
   1.3232E+01   1.3554E+01   5.3368E-06  0.0341
   1.3554E+01   1.3884E+01   5.4480E-06  0.0333
   1.3884E+01   1.4222E+01   4.9099E-06  0.0347
   1.4222E+01   1.4568E+01   4.6968E-06  0.0350
   1.4568E+01   1.4922E+01   4.1237E-06  0.0369
   1.4922E+01   1.5285E+01   3.5089E-06  0.0396
   1.5285E+01   1.5657E+01   3.3781E-06  0.0399
   1.5657E+01   1.6038E+01   3.2997E-06  0.0399
   1.6038E+01   1.6428E+01   2.9492E-06  0.0417
   1.6428E+01   1.6828E+01   2.9136E-06  0.0414
   1.6828E+01   1.7237E+01   2.5312E-06  0.0439
   1.7237E+01   1.7657E+01   2.2716E-06  0.0458
   1.7657E+01   1.8086E+01   1.9670E-06  0.0486
   1.8086E+01   1.8526E+01   2.0543E-06  0.0470
   1.8526E+01   1.8977E+01   1.7970E-06  0.0497
   1.8977E+01   1.9439E+01   1.5940E-06  0.0521
   1.9439E+01   1.9912E+01   1.4293E-06  0.0544
   1.9912E+01   2.0396E+01   1.3706E-06  0.0549
   2.0396E+01   2.0893E+01   1.2171E-06  0.0575
   2.0893E+01   2.1401E+01   1.0741E-06  0.0605
   2.1401E+01   2.1922E+01   8.9495E-07  0.0655
   2.1922E+01   2.2455E+01   8.8494E-07  0.0651
   2.2455E+01   2.3001E+01   8.4928E-07  0.0657
   2.3001E+01   2.3561E+01   7.0760E-07  0.0711
   2.3561E+01   2.4134E+01   6.9428E-07  0.0709
   2.4134E+01   2.4721E+01   6.8460E-07  0.0705
   2.4721E+01   2.5323E+01   6.3841E-07  0.0722
   2.5323E+01   2.5939E+01   4.4796E-07  0.0851
   2.5939E+01   2.6570E+01   4.5316E-07  0.0836
   2.6570E+01   2.7217E+01   4.0218E-07  0.0877
   2.7217E+01   2.7879E+01   3.6847E-07  0.0905
   2.7879E+01   2.8557E+01   3.1844E-07  0.0962
   2.8557E+01   2.9252E+01   3.0512E-07  0.0971
   2.9252E+01   2.9964E+01   2.4448E-07  0.1072
   2.9964E+01   3.0693E+01   2.3593E-07  0.1078
   3.0693E+01   3.1440E+01   1.9015E-07  0.1187
   3.1440E+01   3.2205E+01   1.8302E-07  0.1195
   3.2205E+01   3.2988E+01   1.3017E-07  0.1400
   3.2988E+01   3.3791E+01   1.6695E-07  0.1222
   3.3791E+01   3.4613E+01   7.7844E-08  0.1768
   3.4613E+01   3.5455E+01   1.0449E-07  0.1508
   3.5455E+01   3.6318E+01   6.7235E-08  0.1857
   3.6318E+01   3.7201E+01   7.0165E-08  0.1796
   3.7201E+01   3.8106E+01   7.7336E-08  0.1690
   3.8106E+01   3.9034E+01   4.7457E-08  0.2132
   3.9034E+01   3.9983E+01   4.0012E-08  0.2294
   3.9983E+01   4.0956E+01   3.4950E-08  0.2425
   4.0956E+01   4.1953E+01   4.2148E-08  0.2182
   4.1953E+01   4.2973E+01   2.5472E-08  0.2774
   4.2973E+01   4.4019E+01   2.1041E-08  0.3015
   4.4019E+01   4.5090E+01   2.0541E-08  0.3015
   4.5090E+01   4.6187E+01   9.1152E-09  0.4472
   4.6187E+01   4.7311E+01   1.7797E-08  0.3162
   4.7311E+01   4.8462E+01   1.5637E-08  0.3333
   4.8462E+01   4.9641E+01   1.0177E-08  0.4082
   4.9641E+01   5.0849E+01   6.6236E-09  0.5000
   5.0849E+01   5.2086E+01   6.4663E-09  0.5000
   5.2086E+01   5.3353E+01   4.7345E-09  0.5774
   5.3353E+01   5.4651E+01   6.1627E-09  0.5000
   5.4651E+01   5.5981E+01   4.5123E-09  0.5774
   5.5981E+01   5.7343E+01   5.8734E-09  0.5000
   5.7343E+01   5.8738E+01   1.4335E-09  1.0000
   5.8738E+01   6.0168E+01   2.7989E-09  0.7071
   6.0168E+01   6.1632E+01   0.0000E+00  0.0000
   6.1632E+01   6.3131E+01   0.0000E+00  0.0000
   6.3131E+01   6.4667E+01   2.6041E-09  0.7071
   6.4667E+01   6.6240E+01   0.0000E+00  0.0000
   6.6240E+01   6.7852E+01   0.0000E+00  0.0000
   6.7852E+01   6.9503E+01   1.2115E-09  1.0000
   6.9503E+01   7.1194E+01   0.0000E+00  0.0000
   7.1194E+01   7.2926E+01   0.0000E+00  0.0000
   7.2926E+01   7.4701E+01   0.0000E+00  0.0000
   7.4701E+01   7.6518E+01   0.0000E+00  0.0000
   7.6518E+01   7.8380E+01   0.0000E+00  0.0000
   7.8380E+01   8.0287E+01   0.0000E+00  0.0000
   8.0287E+01   8.2240E+01   0.0000E+00  0.0000
   8.2240E+01   8.4241E+01   0.0000E+00  0.0000
   8.4241E+01   8.6291E+01   0.0000E+00  0.0000
   8.6291E+01   8.8391E+01   0.0000E+00  0.0000
   8.8391E+01   9.0541E+01   0.0000E+00  0.0000
   9.0541E+01   9.2744E+01   0.0000E+00  0.0000
   9.2744E+01   9.5001E+01   0.0000E+00  0.0000
   9.5001E+01   9.7312E+01   0.0000E+00  0.0000
   9.7312E+01   9.9680E+01   0.0000E+00  0.0000
   9.9680E+01   1.0211E+02   0.0000E+00  0.0000
   1.0211E+02   1.0459E+02   0.0000E+00  0.0000
   1.0459E+02   1.0713E+02   0.0000E+00  0.0000
   1.0713E+02   1.0974E+02   0.0000E+00  0.0000
   1.0974E+02   1.1241E+02   0.0000E+00  0.0000
   1.1241E+02   1.1515E+02   0.0000E+00  0.0000
   1.1515E+02   1.1795E+02   0.0000E+00  0.0000
   1.1795E+02   1.2082E+02   0.0000E+00  0.0000
   1.2082E+02   1.2376E+02   0.0000E+00  0.0000
   1.2376E+02   1.2677E+02   0.0000E+00  0.0000
   1.2677E+02   1.2985E+02   0.0000E+00  0.0000
   1.2985E+02   1.3301E+02   0.0000E+00  0.0000
   1.3301E+02   1.3625E+02   0.0000E+00  0.0000
   1.3625E+02   1.3956E+02   0.0000E+00  0.0000
   1.3956E+02   1.4296E+02   0.0000E+00  0.0000
   1.4296E+02   1.4644E+02   0.0000E+00  0.0000
   1.4644E+02   1.5000E+02   0.0000E+00  0.0000

#   sum over                 4.4868E-06
'no. =    1   reg = 121 - 221'
msuc: {\huge [t-cross] in region mesh}
msdr: {\it plotted by \ANGEL \version}
msdl: {\it calculated by \PHITS  3.26}
wt: s(0.7)
\vspace{-3}
  region surface crossing
  area  &=&   1.0000E+00 [cm^2]
e:
 
# Information for Restart Calculation
# This calculation was newly started
# istdev =  2 # 1:Batch variance, 2:History variance
# resc2  = 5.00000000000000000E+08 # Total source weight or Total source weight / maxcas
# resc3  = 5.00000000000000000E+08 # Total history number or Total batch number
# maxcas =   500000000 # History / Batch, only used for istdev=1
# bitrseed = 1101101111010011011000101101110001100110110010110001010100010001 # bit data of rseed
