[ T-Cross ]
    title = [t-cross] in region mesh
     mesh =  reg            # mesh type is region-wise
      reg =    1            # number of crossing regions
      non     r-from    r-to       area
      1       110       210        1.000000    
   e-type =    3            # e-mesh is log given by emin, emax and ne
     emin =  1.0000000E-02  # minimum value of e-mesh points
     emax =   150.0000      # maximum value of e-mesh points
#    edel =  2.4039514E-02  # mesh width of e-mesh points
       ne =    400          # number of e-mesh points
#    data = ( e(i), i = 1, ne + 1 )
#           1.00000E-02  1.02433E-02  1.04925E-02  1.07478E-02  1.10093E-02
#           1.12772E-02  1.15516E-02  1.18326E-02  1.21205E-02  1.24154E-02
#           1.27175E-02  1.30269E-02  1.33439E-02  1.36686E-02  1.40011E-02
#           1.43418E-02  1.46907E-02  1.50482E-02  1.54143E-02  1.57894E-02
#           1.61735E-02  1.65670E-02  1.69701E-02  1.73830E-02  1.78060E-02
#           1.82392E-02  1.86830E-02  1.91375E-02  1.96032E-02  2.00801E-02
#           2.05687E-02  2.10692E-02  2.15818E-02  2.21069E-02  2.26448E-02
#           2.31957E-02  2.37601E-02  2.43382E-02  2.49304E-02  2.55369E-02
#           2.61583E-02  2.67947E-02  2.74467E-02  2.81145E-02  2.87985E-02
#           2.94992E-02  3.02169E-02  3.09521E-02  3.17052E-02  3.24766E-02
#           3.32668E-02  3.40762E-02  3.49053E-02  3.57546E-02  3.66246E-02
#           3.75157E-02  3.84284E-02  3.93634E-02  4.03212E-02  4.13022E-02
#           4.23071E-02  4.33365E-02  4.43909E-02  4.54710E-02  4.65773E-02
#           4.77106E-02  4.88714E-02  5.00605E-02  5.12785E-02  5.25262E-02
#           5.38042E-02  5.51133E-02  5.64542E-02  5.78278E-02  5.92348E-02
#           6.06760E-02  6.21523E-02  6.36645E-02  6.52135E-02  6.68002E-02
#           6.84255E-02  7.00904E-02  7.17957E-02  7.35426E-02  7.53319E-02
#           7.71648E-02  7.90423E-02  8.09655E-02  8.29354E-02  8.49533E-02
#           8.70203E-02  8.91376E-02  9.13064E-02  9.35279E-02  9.58035E-02
#           9.81345E-02  1.00522E-01  1.02968E-01  1.05473E-01  1.08040E-01
#           1.10668E-01  1.13361E-01  1.16119E-01  1.18944E-01  1.21838E-01
#           1.24803E-01  1.27839E-01  1.30950E-01  1.34136E-01  1.37399E-01
#           1.40742E-01  1.44167E-01  1.47675E-01  1.51268E-01  1.54948E-01
#           1.58718E-01  1.62580E-01  1.66535E-01  1.70587E-01  1.74738E-01
#           1.78989E-01  1.83344E-01  1.87805E-01  1.92375E-01  1.97055E-01
#           2.01850E-01  2.06761E-01  2.11792E-01  2.16945E-01  2.22223E-01
#           2.27630E-01  2.33169E-01  2.38842E-01  2.44653E-01  2.50605E-01
#           2.56703E-01  2.62949E-01  2.69346E-01  2.75900E-01  2.82613E-01
#           2.89489E-01  2.96532E-01  3.03747E-01  3.11138E-01  3.18708E-01
#           3.26462E-01  3.34405E-01  3.42542E-01  3.50876E-01  3.59413E-01
#           3.68158E-01  3.77116E-01  3.86291E-01  3.95690E-01  4.05317E-01
#           4.15179E-01  4.25281E-01  4.35628E-01  4.46227E-01  4.57084E-01
#           4.68205E-01  4.79597E-01  4.91266E-01  5.03219E-01  5.15463E-01
#           5.28005E-01  5.40851E-01  5.54011E-01  5.67490E-01  5.81298E-01
#           5.95441E-01  6.09929E-01  6.24769E-01  6.39970E-01  6.55541E-01
#           6.71491E-01  6.87828E-01  7.04564E-01  7.21706E-01  7.39266E-01
#           7.57253E-01  7.75678E-01  7.94551E-01  8.13883E-01  8.33685E-01
#           8.53969E-01  8.74747E-01  8.96030E-01  9.17831E-01  9.40163E-01
#           9.63038E-01  9.86469E-01  1.01047E+00  1.03506E+00  1.06024E+00
#           1.08604E+00  1.11246E+00  1.13953E+00  1.16725E+00  1.19565E+00
#           1.22474E+00  1.25454E+00  1.28507E+00  1.31633E+00  1.34836E+00
#           1.38117E+00  1.41477E+00  1.44920E+00  1.48446E+00  1.52057E+00
#           1.55757E+00  1.59547E+00  1.63429E+00  1.67405E+00  1.71478E+00
#           1.75650E+00  1.79924E+00  1.84302E+00  1.88786E+00  1.93379E+00
#           1.98084E+00  2.02904E+00  2.07841E+00  2.12898E+00  2.18078E+00
#           2.23384E+00  2.28819E+00  2.34386E+00  2.40089E+00  2.45930E+00
#           2.51914E+00  2.58043E+00  2.64322E+00  2.70753E+00  2.77341E+00
#           2.84088E+00  2.91001E+00  2.98081E+00  3.05333E+00  3.12762E+00
#           3.20372E+00  3.28167E+00  3.36152E+00  3.44330E+00  3.52708E+00
#           3.61290E+00  3.70080E+00  3.79085E+00  3.88308E+00  3.97756E+00
#           4.07434E+00  4.17347E+00  4.27501E+00  4.37903E+00  4.48557E+00
#           4.59471E+00  4.70650E+00  4.82102E+00  4.93832E+00  5.05847E+00
#           5.18155E+00  5.30762E+00  5.43676E+00  5.56904E+00  5.70453E+00
#           5.84333E+00  5.98550E+00  6.13114E+00  6.28031E+00  6.43312E+00
#           6.58964E+00  6.74997E+00  6.91420E+00  7.08243E+00  7.25475E+00
#           7.43126E+00  7.61207E+00  7.79728E+00  7.98700E+00  8.18133E+00
#           8.38038E+00  8.58428E+00  8.79315E+00  9.00709E+00  9.22624E+00
#           9.45072E+00  9.68067E+00  9.91620E+00  1.01575E+01  1.04046E+01
#           1.06578E+01  1.09171E+01  1.11827E+01  1.14548E+01  1.17335E+01
#           1.20190E+01  1.23114E+01  1.26109E+01  1.29178E+01  1.32321E+01
#           1.35540E+01  1.38838E+01  1.42216E+01  1.45676E+01  1.49221E+01
#           1.52851E+01  1.56570E+01  1.60380E+01  1.64282E+01  1.68279E+01
#           1.72374E+01  1.76568E+01  1.80864E+01  1.85264E+01  1.89772E+01
#           1.94389E+01  1.99119E+01  2.03963E+01  2.08926E+01  2.14009E+01
#           2.19216E+01  2.24550E+01  2.30014E+01  2.35610E+01  2.41343E+01
#           2.47215E+01  2.53230E+01  2.59391E+01  2.65702E+01  2.72167E+01
#           2.78789E+01  2.85572E+01  2.92520E+01  2.99637E+01  3.06928E+01
#           3.14396E+01  3.22045E+01  3.29881E+01  3.37907E+01  3.46128E+01
#           3.54550E+01  3.63177E+01  3.72013E+01  3.81064E+01  3.90336E+01
#           3.99833E+01  4.09561E+01  4.19526E+01  4.29734E+01  4.40189E+01
#           4.50900E+01  4.61870E+01  4.73108E+01  4.84619E+01  4.96410E+01
#           5.08488E+01  5.20860E+01  5.33533E+01  5.46514E+01  5.59812E+01
#           5.73432E+01  5.87384E+01  6.01676E+01  6.16315E+01  6.31311E+01
#           6.46671E+01  6.62405E+01  6.78522E+01  6.95031E+01  7.11941E+01
#           7.29263E+01  7.47007E+01  7.65182E+01  7.83800E+01  8.02870E+01
#           8.22405E+01  8.42414E+01  8.62911E+01  8.83906E+01  9.05412E+01
#           9.27442E+01  9.50007E+01  9.73122E+01  9.96799E+01  1.02105E+02
#           1.04589E+02  1.07134E+02  1.09741E+02  1.12411E+02  1.15146E+02
#           1.17948E+02  1.20817E+02  1.23757E+02  1.26768E+02  1.29852E+02
#           1.33012E+02  1.36248E+02  1.39563E+02  1.42959E+02  1.46437E+02
#           1.50000E+02
     unit =    2            # unit is [1/cm^2/(MeV/n)/source]
     axis =  eng            # axis of output
     file = detector-11.out  # file name of output for the above axis
   output = f-curr          # surface crossing forward current spectrum
     part =  neutron  
# kf/name :  2112     
#    used :        main (  %)        temp (  %)       total (  %)
#  memory :         414 (  0)           0 (  0)         414 (  0)

#------------------------------------------------------------------------------
#newpage:
#   no. =    1   reg = 110 - 210

x: Energy [MeV/n]
y:  F-Curr [1/cm^2/(MeV/n)/source]         
p: xlog ylog afac(0.8) form(0.9)
h: n            x            y(neutron ),hh0l   n 
#  e-lower      e-upper      neutron     r.err 
   1.0000E-02   1.0243E-02   5.0811E-03  0.0402
   1.0243E-02   1.0493E-02   4.7316E-03  0.0411
   1.0493E-02   1.0748E-02   4.9644E-03  0.0396
   1.0748E-02   1.1009E-02   4.8296E-03  0.0397
   1.1009E-02   1.1277E-02   4.8194E-03  0.0393
   1.1277E-02   1.1552E-02   4.8672E-03  0.0386
   1.1552E-02   1.1833E-02   4.4542E-03  0.0399
   1.1833E-02   1.2121E-02   4.8465E-03  0.0378
   1.2121E-02   1.2415E-02   4.3660E-03  0.0393
   1.2415E-02   1.2718E-02   4.4648E-03  0.0384
   1.2718E-02   1.3027E-02   4.2935E-03  0.0387
   1.3027E-02   1.3344E-02   4.0477E-03  0.0394
   1.3344E-02   1.3669E-02   4.3461E-03  0.0376
   1.3669E-02   1.4001E-02   4.0135E-03  0.0386
   1.4001E-02   1.4342E-02   3.8615E-03  0.0389
   1.4342E-02   1.4691E-02   3.7398E-03  0.0391
   1.4691E-02   1.5048E-02   3.9047E-03  0.0378
   1.5048E-02   1.5414E-02   3.7076E-03  0.0383
   1.5414E-02   1.5789E-02   3.6818E-03  0.0380
   1.5789E-02   1.6174E-02   3.6540E-03  0.0377
   1.6174E-02   1.6567E-02   3.5960E-03  0.0375
   1.6567E-02   1.6970E-02   3.4052E-03  0.0381
   1.6970E-02   1.7383E-02   3.4017E-03  0.0377
   1.7383E-02   1.7806E-02   3.4511E-03  0.0369
   1.7806E-02   1.8239E-02   3.2260E-03  0.0378
   1.8239E-02   1.8683E-02   3.2435E-03  0.0372
   1.8683E-02   1.9138E-02   3.1947E-03  0.0370
   1.9138E-02   1.9603E-02   3.1635E-03  0.0367
   1.9603E-02   2.0080E-02   2.9739E-03  0.0374
   2.0080E-02   2.0569E-02   3.1215E-03  0.0361
   2.0569E-02   2.1069E-02   2.9101E-03  0.0370
   2.1069E-02   2.1582E-02   2.7716E-03  0.0374
   2.1582E-02   2.2107E-02   2.8162E-03  0.0367
   2.2107E-02   2.2645E-02   2.7611E-03  0.0366
   2.2645E-02   2.3196E-02   2.7730E-03  0.0361
   2.3196E-02   2.3760E-02   2.5962E-03  0.0369
   2.3760E-02   2.4338E-02   2.6680E-03  0.0359
   2.4338E-02   2.4930E-02   2.6316E-03  0.0357
   2.4930E-02   2.5537E-02   2.4087E-03  0.0369
   2.5537E-02   2.6158E-02   2.5654E-03  0.0353
   2.6158E-02   2.6795E-02   2.2765E-03  0.0371
   2.6795E-02   2.7447E-02   2.3403E-03  0.0361
   2.7447E-02   2.8114E-02   2.2315E-03  0.0366
   2.8114E-02   2.8799E-02   2.2037E-03  0.0363
   2.8799E-02   2.9499E-02   2.3033E-03  0.0351
   2.9499E-02   3.0217E-02   2.2671E-03  0.0349
   3.0217E-02   3.0952E-02   2.1315E-03  0.0356
   3.0952E-02   3.1705E-02   2.2146E-03  0.0346
   3.1705E-02   3.2477E-02   2.0777E-03  0.0353
   3.2477E-02   3.3267E-02   2.1032E-03  0.0346
   3.3267E-02   3.4076E-02   2.0829E-03  0.0344
   3.4076E-02   3.4905E-02   1.9821E-03  0.0348
   3.4905E-02   3.5755E-02   1.9227E-03  0.0349
   3.5755E-02   3.6625E-02   1.8546E-03  0.0351
   3.6625E-02   3.7516E-02   1.8961E-03  0.0343
   3.7516E-02   3.8428E-02   1.8337E-03  0.0345
   3.8428E-02   3.9363E-02   1.8417E-03  0.0340
   3.9363E-02   4.0321E-02   1.5954E-03  0.0361
   4.0321E-02   4.1302E-02   1.6545E-03  0.0350
   4.1302E-02   4.2307E-02   1.6454E-03  0.0347
   4.2307E-02   4.3337E-02   1.6171E-03  0.0346
   4.3337E-02   4.4391E-02   1.5609E-03  0.0348
   4.4391E-02   4.5471E-02   1.5001E-03  0.0350
   4.5471E-02   4.6577E-02   1.4545E-03  0.0352
   4.6577E-02   4.7711E-02   1.4783E-03  0.0345
   4.7711E-02   4.8871E-02   1.5027E-03  0.0338
   4.8871E-02   5.0061E-02   1.5467E-03  0.0329
   5.0061E-02   5.1279E-02   1.4455E-03  0.0336
   5.1279E-02   5.2526E-02   1.3972E-03  0.0338
   5.2526E-02   5.3804E-02   1.3750E-03  0.0337
   5.3804E-02   5.5113E-02   1.2954E-03  0.0343
   5.5113E-02   5.6454E-02   1.3075E-03  0.0337
   5.6454E-02   5.7828E-02   1.2323E-03  0.0343
   5.7828E-02   5.9235E-02   1.2933E-03  0.0331
   5.9235E-02   6.0676E-02   1.2930E-03  0.0327
   6.0676E-02   6.2152E-02   1.2291E-03  0.0331
   6.2152E-02   6.3665E-02   1.2086E-03  0.0330
   6.3665E-02   6.5214E-02   1.1800E-03  0.0330
   6.5214E-02   6.6800E-02   1.1577E-03  0.0329
   6.6800E-02   6.8426E-02   1.0971E-03  0.0334
   6.8426E-02   7.0090E-02   1.1651E-03  0.0320
   7.0090E-02   7.1796E-02   1.1291E-03  0.0322
   7.1796E-02   7.3543E-02   1.0914E-03  0.0323
   7.3543E-02   7.5332E-02   1.0616E-03  0.0324
   7.5332E-02   7.7165E-02   1.0210E-03  0.0326
   7.7165E-02   7.9042E-02   1.0492E-03  0.0318
   7.9042E-02   8.0965E-02   1.0063E-03  0.0320
   8.0965E-02   8.2935E-02   9.8035E-04  0.0321
   8.2935E-02   8.4953E-02   9.7845E-04  0.0317
   8.4953E-02   8.7020E-02   9.6699E-04  0.0315
   8.7020E-02   8.9138E-02   9.4730E-04  0.0315
   8.9138E-02   9.1306E-02   8.8975E-04  0.0321
   9.1306E-02   9.3528E-02   8.2195E-04  0.0330
   9.3528E-02   9.5804E-02   8.9494E-04  0.0313
   9.5804E-02   9.8134E-02   8.3055E-04  0.0321
   9.8134E-02   1.0052E-01   9.0693E-04  0.0303
   1.0052E-01   1.0297E-01   8.4612E-04  0.0310
   1.0297E-01   1.0547E-01   8.0921E-04  0.0313
   1.0547E-01   1.0804E-01   7.9643E-04  0.0312
   1.0804E-01   1.1067E-01   7.6833E-04  0.0314
   1.1067E-01   1.1336E-01   7.2568E-04  0.0319
   1.1336E-01   1.1612E-01   7.4042E-04  0.0312
   1.1612E-01   1.1894E-01   7.3105E-04  0.0310
   1.1894E-01   1.2184E-01   7.3352E-04  0.0306
   1.2184E-01   1.2480E-01   6.8735E-04  0.0313
   1.2480E-01   1.2784E-01   7.0135E-04  0.0306
   1.2784E-01   1.3095E-01   6.6846E-04  0.0309
   1.3095E-01   1.3414E-01   6.1600E-04  0.0319
   1.3414E-01   1.3740E-01   6.4653E-04  0.0307
   1.3740E-01   1.4074E-01   6.3796E-04  0.0306
   1.4074E-01   1.4417E-01   6.2681E-04  0.0304
   1.4417E-01   1.4767E-01   6.3805E-04  0.0298
   1.4767E-01   1.5127E-01   5.8833E-04  0.0307
   1.5127E-01   1.5495E-01   5.7704E-04  0.0306
   1.5495E-01   1.5872E-01   5.4324E-04  0.0312
   1.5872E-01   1.6258E-01   5.6721E-04  0.0301
   1.6258E-01   1.6654E-01   5.4115E-04  0.0305
   1.6654E-01   1.7059E-01   5.5832E-04  0.0297
   1.7059E-01   1.7474E-01   5.5104E-04  0.0295
   1.7474E-01   1.7899E-01   5.1237E-04  0.0302
   1.7899E-01   1.8334E-01   5.0775E-04  0.0300
   1.8334E-01   1.8781E-01   4.7698E-04  0.0306
   1.8781E-01   1.9237E-01   4.7596E-04  0.0302
   1.9237E-01   1.9706E-01   4.8074E-04  0.0297
   1.9706E-01   2.0185E-01   4.7161E-04  0.0297
   2.0185E-01   2.0676E-01   4.8965E-04  0.0288
   2.0676E-01   2.1179E-01   4.7409E-04  0.0289
   2.1179E-01   2.1694E-01   5.1595E-04  0.0273
   2.1694E-01   2.2222E-01   5.7321E-04  0.0256
   2.2222E-01   2.2763E-01   5.3356E-04  0.0263
   2.2763E-01   2.3317E-01   5.3195E-04  0.0260
   2.3317E-01   2.3884E-01   5.7516E-04  0.0247
   2.3884E-01   2.4465E-01   5.8180E-04  0.0243
   2.4465E-01   2.5061E-01   5.9530E-04  0.0237
   2.5061E-01   2.5670E-01   6.0630E-04  0.0232
   2.5670E-01   2.6295E-01   6.3927E-04  0.0223
   2.6295E-01   2.6935E-01   6.4503E-04  0.0220
   2.6935E-01   2.7590E-01   6.6808E-04  0.0213
   2.7590E-01   2.8261E-01   6.8916E-04  0.0207
   2.8261E-01   2.8949E-01   6.7324E-04  0.0207
   2.8949E-01   2.9653E-01   7.1008E-04  0.0199
   2.9653E-01   3.0375E-01   6.9719E-04  0.0199
   3.0375E-01   3.1114E-01   7.3736E-04  0.0191
   3.1114E-01   3.1871E-01   7.7191E-04  0.0184
   3.1871E-01   3.2646E-01   7.7041E-04  0.0182
   3.2646E-01   3.3441E-01   7.8779E-04  0.0178
   3.3441E-01   3.4254E-01   7.9542E-04  0.0175
   3.4254E-01   3.5088E-01   8.0927E-04  0.0172
   3.5088E-01   3.5941E-01   8.4246E-04  0.0166
   3.5941E-01   3.6816E-01   8.4286E-04  0.0164
   3.6816E-01   3.7712E-01   8.4135E-04  0.0163
   3.7712E-01   3.8629E-01   8.6103E-04  0.0159
   3.8629E-01   3.9569E-01   8.7926E-04  0.0155
   3.9569E-01   4.0532E-01   8.8453E-04  0.0153
   4.0532E-01   4.1518E-01   9.0730E-04  0.0149
   4.1518E-01   4.2528E-01   9.1858E-04  0.0146
   4.2528E-01   4.3563E-01   9.0831E-04  0.0146
   4.3563E-01   4.4623E-01   9.4174E-04  0.0141
   4.4623E-01   4.5708E-01   9.4239E-04  0.0139
   4.5708E-01   4.6821E-01   9.3746E-04  0.0138
   4.6821E-01   4.7960E-01   9.5770E-04  0.0135
   4.7960E-01   4.9127E-01   9.8453E-04  0.0132
   4.9127E-01   5.0322E-01   9.7891E-04  0.0130
   5.0322E-01   5.1546E-01   9.6912E-04  0.0129
   5.1546E-01   5.2800E-01   9.9262E-04  0.0126
   5.2800E-01   5.4085E-01   9.9293E-04  0.0125
   5.4085E-01   5.5401E-01   1.0112E-03  0.0122
   5.5401E-01   5.6749E-01   9.9690E-04  0.0122
   5.6749E-01   5.8130E-01   1.0104E-03  0.0119
   5.8130E-01   5.9544E-01   1.0046E-03  0.0118
   5.9544E-01   6.0993E-01   1.0316E-03  0.0115
   6.0993E-01   6.2477E-01   1.0183E-03  0.0115
   6.2477E-01   6.3997E-01   1.0203E-03  0.0113
   6.3997E-01   6.5554E-01   9.9982E-04  0.0113
   6.5554E-01   6.7149E-01   1.0269E-03  0.0110
   6.7149E-01   6.8783E-01   1.0114E-03  0.0110
   6.8783E-01   7.0456E-01   1.0110E-03  0.0108
   7.0456E-01   7.2171E-01   1.0205E-03  0.0107
   7.2171E-01   7.3927E-01   1.0116E-03  0.0106
   7.3927E-01   7.5725E-01   1.0131E-03  0.0104
   7.5725E-01   7.7568E-01   1.0072E-03  0.0103
   7.7568E-01   7.9455E-01   9.9629E-04  0.0103
   7.9455E-01   8.1388E-01   9.6021E-04  0.0103
   8.1388E-01   8.3368E-01   9.6372E-04  0.0102
   8.3368E-01   8.5397E-01   9.5985E-04  0.0101
   8.5397E-01   8.7475E-01   9.3903E-04  0.0101
   8.7475E-01   8.9603E-01   9.1578E-04  0.0101
   8.9603E-01   9.1783E-01   8.8687E-04  0.0101
   9.1783E-01   9.4016E-01   8.6715E-04  0.0101
   9.4016E-01   9.6304E-01   8.5040E-04  0.0101
   9.6304E-01   9.8647E-01   8.4359E-04  0.0100
   9.8647E-01   1.0105E+00   8.1454E-04  0.0101
   1.0105E+00   1.0351E+00   8.3615E-04  0.0098
   1.0351E+00   1.0602E+00   8.3226E-04  0.0097
   1.0602E+00   1.0860E+00   8.3886E-04  0.0096
   1.0860E+00   1.1125E+00   8.3944E-04  0.0095
   1.1125E+00   1.1395E+00   8.5170E-04  0.0093
   1.1395E+00   1.1673E+00   8.6663E-04  0.0091
   1.1673E+00   1.1957E+00   8.8273E-04  0.0089
   1.1957E+00   1.2247E+00   8.9036E-04  0.0087
   1.2247E+00   1.2545E+00   8.8874E-04  0.0087
   1.2545E+00   1.2851E+00   9.1164E-04  0.0084
   1.2851E+00   1.3163E+00   9.1013E-04  0.0083
   1.3163E+00   1.3484E+00   9.2173E-04  0.0082
   1.3484E+00   1.3812E+00   9.2916E-04  0.0081
   1.3812E+00   1.4148E+00   9.5896E-04  0.0078
   1.4148E+00   1.4492E+00   9.5120E-04  0.0078
   1.4492E+00   1.4845E+00   9.3570E-04  0.0078
   1.4845E+00   1.5206E+00   9.3643E-04  0.0077
   1.5206E+00   1.5576E+00   9.4490E-04  0.0075
   1.5576E+00   1.5955E+00   9.2915E-04  0.0075
   1.5955E+00   1.6343E+00   9.3074E-04  0.0074
   1.6343E+00   1.6741E+00   9.3729E-04  0.0073
   1.6741E+00   1.7148E+00   9.5889E-04  0.0071
   1.7148E+00   1.7565E+00   9.7423E-04  0.0070
   1.7565E+00   1.7992E+00   9.5490E-04  0.0070
   1.7992E+00   1.8430E+00   9.5235E-04  0.0069
   1.8430E+00   1.8879E+00   9.4763E-04  0.0068
   1.8879E+00   1.9338E+00   9.3854E-04  0.0068
   1.9338E+00   1.9808E+00   9.4439E-04  0.0067
   1.9808E+00   2.0290E+00   9.5052E-04  0.0066
   2.0290E+00   2.0784E+00   9.4192E-04  0.0065
   2.0784E+00   2.1290E+00   9.3085E-04  0.0065
   2.1290E+00   2.1808E+00   9.3056E-04  0.0064
   2.1808E+00   2.2338E+00   9.2046E-04  0.0064
   2.2338E+00   2.2882E+00   9.2097E-04  0.0063
   2.2882E+00   2.3439E+00   9.0607E-04  0.0063
   2.3439E+00   2.4009E+00   9.1474E-04  0.0062
   2.4009E+00   2.4593E+00   9.1603E-04  0.0061
   2.4593E+00   2.5191E+00   9.0156E-04  0.0061
   2.5191E+00   2.5804E+00   8.9483E-04  0.0060
   2.5804E+00   2.6432E+00   8.8689E-04  0.0060
   2.6432E+00   2.7075E+00   8.7670E-04  0.0059
   2.7075E+00   2.7734E+00   8.7049E-04  0.0059
   2.7734E+00   2.8409E+00   8.5595E-04  0.0059
   2.8409E+00   2.9100E+00   8.6009E-04  0.0058
   2.9100E+00   2.9808E+00   8.5705E-04  0.0057
   2.9808E+00   3.0533E+00   8.5277E-04  0.0057
   3.0533E+00   3.1276E+00   8.3463E-04  0.0057
   3.1276E+00   3.2037E+00   8.2747E-04  0.0056
   3.2037E+00   3.2817E+00   8.2230E-04  0.0056
   3.2817E+00   3.3615E+00   8.0982E-04  0.0055
   3.3615E+00   3.4433E+00   7.9343E-04  0.0055
   3.4433E+00   3.5271E+00   7.9918E-04  0.0054
   3.5271E+00   3.6129E+00   7.8854E-04  0.0054
   3.6129E+00   3.7008E+00   7.7416E-04  0.0054
   3.7008E+00   3.7908E+00   7.5941E-04  0.0054
   3.7908E+00   3.8831E+00   7.6215E-04  0.0053
   3.8831E+00   3.9776E+00   7.5037E-04  0.0053
   3.9776E+00   4.0743E+00   7.4517E-04  0.0052
   4.0743E+00   4.1735E+00   7.2832E-04  0.0052
   4.1735E+00   4.2750E+00   7.2127E-04  0.0052
   4.2750E+00   4.3790E+00   7.1003E-04  0.0052
   4.3790E+00   4.4856E+00   6.9424E-04  0.0052
   4.4856E+00   4.5947E+00   6.9130E-04  0.0051
   4.5947E+00   4.7065E+00   6.8619E-04  0.0051
   4.7065E+00   4.8210E+00   6.7695E-04  0.0051
   4.8210E+00   4.9383E+00   6.7188E-04  0.0050
   4.9383E+00   5.0585E+00   6.6660E-04  0.0050
   5.0585E+00   5.1815E+00   6.5332E-04  0.0050
   5.1815E+00   5.3076E+00   6.4372E-04  0.0049
   5.3076E+00   5.4368E+00   6.3424E-04  0.0049
   5.4368E+00   5.5690E+00   6.2099E-04  0.0049
   5.5690E+00   5.7045E+00   6.1246E-04  0.0049
   5.7045E+00   5.8433E+00   6.0013E-04  0.0049
   5.8433E+00   5.9855E+00   5.8611E-04  0.0049
   5.9855E+00   6.1311E+00   5.8445E-04  0.0048
   6.1311E+00   6.2803E+00   5.7351E-04  0.0048
   6.2803E+00   6.4331E+00   5.5992E-04  0.0048
   6.4331E+00   6.5896E+00   5.5430E-04  0.0048
   6.5896E+00   6.7500E+00   5.4417E-04  0.0048
   6.7500E+00   6.9142E+00   5.3330E-04  0.0048
   6.9142E+00   7.0824E+00   5.2549E-04  0.0047
   7.0824E+00   7.2548E+00   5.2278E-04  0.0047
   7.2548E+00   7.4313E+00   5.1196E-04  0.0047
   7.4313E+00   7.6121E+00   5.0293E-04  0.0047
   7.6121E+00   7.7973E+00   4.9175E-04  0.0047
   7.7973E+00   7.9870E+00   4.8627E-04  0.0046
   7.9870E+00   8.1813E+00   4.7585E-04  0.0046
   8.1813E+00   8.3804E+00   4.6917E-04  0.0046
   8.3804E+00   8.5843E+00   4.5932E-04  0.0046
   8.5843E+00   8.7931E+00   4.4837E-04  0.0046
   8.7931E+00   9.0071E+00   4.4250E-04  0.0046
   9.0071E+00   9.2262E+00   4.3006E-04  0.0046
   9.2262E+00   9.4507E+00   4.2171E-04  0.0046
   9.4507E+00   9.6807E+00   4.1393E-04  0.0046
   9.6807E+00   9.9162E+00   4.1051E-04  0.0045
   9.9162E+00   1.0157E+01   4.0530E-04  0.0045
   1.0157E+01   1.0405E+01   3.9527E-04  0.0045
   1.0405E+01   1.0658E+01   3.9151E-04  0.0045
   1.0658E+01   1.0917E+01   3.8758E-04  0.0045
   1.0917E+01   1.1183E+01   3.8002E-04  0.0044
   1.1183E+01   1.1455E+01   3.7441E-04  0.0044
   1.1455E+01   1.1733E+01   3.6561E-04  0.0044
   1.1733E+01   1.2019E+01   3.5989E-04  0.0044
   1.2019E+01   1.2311E+01   3.5183E-04  0.0044
   1.2311E+01   1.2611E+01   3.4589E-04  0.0044
   1.2611E+01   1.2918E+01   3.3762E-04  0.0044
   1.2918E+01   1.3232E+01   3.3531E-04  0.0044
   1.3232E+01   1.3554E+01   3.2859E-04  0.0043
   1.3554E+01   1.3884E+01   3.2333E-04  0.0043
   1.3884E+01   1.4222E+01   3.1406E-04  0.0043
   1.4222E+01   1.4568E+01   3.0813E-04  0.0043
   1.4568E+01   1.4922E+01   3.0289E-04  0.0043
   1.4922E+01   1.5285E+01   2.9495E-04  0.0043
   1.5285E+01   1.5657E+01   2.9119E-04  0.0043
   1.5657E+01   1.6038E+01   2.8366E-04  0.0043
   1.6038E+01   1.6428E+01   2.7608E-04  0.0043
   1.6428E+01   1.6828E+01   2.7321E-04  0.0043
   1.6828E+01   1.7237E+01   2.6673E-04  0.0043
   1.7237E+01   1.7657E+01   2.6163E-04  0.0043
   1.7657E+01   1.8086E+01   2.5338E-04  0.0043
   1.8086E+01   1.8526E+01   2.5066E-04  0.0043
   1.8526E+01   1.8977E+01   2.4663E-04  0.0042
   1.8977E+01   1.9439E+01   2.4148E-04  0.0042
   1.9439E+01   1.9912E+01   2.4108E-04  0.0042
   1.9912E+01   2.0396E+01   2.4277E-04  0.0041
   2.0396E+01   2.0893E+01   2.3745E-04  0.0041
   2.0893E+01   2.1401E+01   2.3268E-04  0.0041
   2.1401E+01   2.1922E+01   2.2772E-04  0.0041
   2.1922E+01   2.2455E+01   2.2046E-04  0.0041
   2.2455E+01   2.3001E+01   2.1521E-04  0.0041
   2.3001E+01   2.3561E+01   2.1061E-04  0.0041
   2.3561E+01   2.4134E+01   2.0374E-04  0.0041
   2.4134E+01   2.4721E+01   1.9726E-04  0.0042
   2.4721E+01   2.5323E+01   1.9231E-04  0.0042
   2.5323E+01   2.5939E+01   1.8732E-04  0.0042
   2.5939E+01   2.6570E+01   1.8150E-04  0.0042
   2.6570E+01   2.7217E+01   1.7552E-04  0.0042
   2.7217E+01   2.7879E+01   1.6992E-04  0.0042
   2.7879E+01   2.8557E+01   1.6493E-04  0.0042
   2.8557E+01   2.9252E+01   1.5943E-04  0.0043
   2.9252E+01   2.9964E+01   1.5337E-04  0.0043
   2.9964E+01   3.0693E+01   1.4877E-04  0.0043
   3.0693E+01   3.1440E+01   1.4166E-04  0.0043
   3.1440E+01   3.2205E+01   1.3678E-04  0.0044
   3.2205E+01   3.2988E+01   1.3062E-04  0.0044
   3.2988E+01   3.3791E+01   1.2555E-04  0.0045
   3.3791E+01   3.4613E+01   1.2012E-04  0.0045
   3.4613E+01   3.5455E+01   1.1454E-04  0.0046
   3.5455E+01   3.6318E+01   1.1007E-04  0.0046
   3.6318E+01   3.7201E+01   1.0544E-04  0.0046
   3.7201E+01   3.8106E+01   9.9722E-05  0.0047
   3.8106E+01   3.9034E+01   9.4614E-05  0.0048
   3.9034E+01   3.9983E+01   9.0237E-05  0.0048
   3.9983E+01   4.0956E+01   8.5271E-05  0.0049
   4.0956E+01   4.1953E+01   8.0255E-05  0.0050
   4.1953E+01   4.2973E+01   7.6674E-05  0.0051
   4.2973E+01   4.4019E+01   7.1758E-05  0.0052
   4.4019E+01   4.5090E+01   6.7939E-05  0.0052
   4.5090E+01   4.6187E+01   6.3622E-05  0.0054
   4.6187E+01   4.7311E+01   5.9980E-05  0.0054
   4.7311E+01   4.8462E+01   5.5635E-05  0.0056
   4.8462E+01   4.9641E+01   5.2234E-05  0.0057
   4.9641E+01   5.0849E+01   4.8698E-05  0.0058
   5.0849E+01   5.2086E+01   4.5249E-05  0.0060
   5.2086E+01   5.3353E+01   4.2232E-05  0.0061
   5.3353E+01   5.4651E+01   3.9112E-05  0.0063
   5.4651E+01   5.5981E+01   3.5569E-05  0.0065
   5.5981E+01   5.7343E+01   3.3245E-05  0.0066
   5.7343E+01   5.8738E+01   3.0239E-05  0.0069
   5.8738E+01   6.0168E+01   2.7912E-05  0.0071
   6.0168E+01   6.1632E+01   2.5433E-05  0.0073
   6.1632E+01   6.3131E+01   2.3271E-05  0.0076
   6.3131E+01   6.4667E+01   2.0731E-05  0.0079
   6.4667E+01   6.6240E+01   1.9419E-05  0.0081
   6.6240E+01   6.7852E+01   1.7278E-05  0.0085
   6.7852E+01   6.9503E+01   1.5355E-05  0.0089
   6.9503E+01   7.1194E+01   1.3997E-05  0.0092
   7.1194E+01   7.2926E+01   1.2328E-05  0.0097
   7.2926E+01   7.4701E+01   1.1036E-05  0.0101
   7.4701E+01   7.6518E+01   9.8684E-06  0.0106
   7.6518E+01   7.8380E+01   8.6113E-06  0.0112
   7.8380E+01   8.0287E+01   7.7041E-06  0.0117
   8.0287E+01   8.2240E+01   6.8290E-06  0.0122
   8.2240E+01   8.4241E+01   5.7802E-06  0.0131
   8.4241E+01   8.6291E+01   5.1179E-06  0.0138
   8.6291E+01   8.8391E+01   4.3219E-06  0.0148
   8.8391E+01   9.0541E+01   3.8129E-06  0.0156
   9.0541E+01   9.2744E+01   3.2802E-06  0.0166
   9.2744E+01   9.5001E+01   2.7848E-06  0.0178
   9.5001E+01   9.7312E+01   2.4314E-06  0.0189
   9.7312E+01   9.9680E+01   1.9935E-06  0.0206
   9.9680E+01   1.0211E+02   1.6724E-06  0.0222
   1.0211E+02   1.0459E+02   1.3960E-06  0.0240
   1.0459E+02   1.0713E+02   1.1003E-06  0.0267
   1.0713E+02   1.0974E+02   9.5755E-07  0.0283
   1.0974E+02   1.1241E+02   7.8499E-07  0.0309
   1.1241E+02   1.1515E+02   6.3107E-07  0.0340
   1.1515E+02   1.1795E+02   4.6759E-07  0.0391
   1.1795E+02   1.2082E+02   4.0212E-07  0.0416
   1.2082E+02   1.2376E+02   3.3406E-07  0.0451
   1.2376E+02   1.2677E+02   2.6768E-07  0.0498
   1.2677E+02   1.2985E+02   1.8934E-07  0.0585
   1.2985E+02   1.3301E+02   1.3673E-07  0.0680
   1.3301E+02   1.3625E+02   9.4553E-08  0.0808
   1.3625E+02   1.3956E+02   6.3951E-08  0.0971
   1.3956E+02   1.4296E+02   3.2394E-08  0.1348
   1.4296E+02   1.4644E+02   1.6100E-08  0.1890
   1.4644E+02   1.5000E+02   4.4907E-09  0.3536

#   sum over                 9.6050E-05
'no. =    1   reg = 110 - 210'
msuc: {\huge [t-cross] in region mesh}
msdr: {\it plotted by \ANGEL \version}
msdl: {\it calculated by \PHITS  3.26}
wt: s(0.7)
\vspace{-3}
  region surface crossing
  area  &=&   1.0000E+00 [cm^2]
e:
 
# Information for Restart Calculation
# This calculation was newly started
# istdev =  2 # 1:Batch variance, 2:History variance
# resc2  = 5.00000000000000000E+08 # Total source weight or Total source weight / maxcas
# resc3  = 5.00000000000000000E+08 # Total history number or Total batch number
# maxcas =   500000000 # History / Batch, only used for istdev=1
# bitrseed = 1101101111010011011000101101110001100110110010110001010100010001 # bit data of rseed
