[ T-Cross ]
    title = [t-cross] in region mesh
     mesh =  reg            # mesh type is region-wise
      reg =    1            # number of crossing regions
      non     r-from    r-to       area
      1       112       212        1.000000    
   e-type =    3            # e-mesh is log given by emin, emax and ne
     emin =  1.0000000E-02  # minimum value of e-mesh points
     emax =   150.0000      # maximum value of e-mesh points
#    edel =  2.4039514E-02  # mesh width of e-mesh points
       ne =    400          # number of e-mesh points
#    data = ( e(i), i = 1, ne + 1 )
#           1.00000E-02  1.02433E-02  1.04925E-02  1.07478E-02  1.10093E-02
#           1.12772E-02  1.15516E-02  1.18326E-02  1.21205E-02  1.24154E-02
#           1.27175E-02  1.30269E-02  1.33439E-02  1.36686E-02  1.40011E-02
#           1.43418E-02  1.46907E-02  1.50482E-02  1.54143E-02  1.57894E-02
#           1.61735E-02  1.65670E-02  1.69701E-02  1.73830E-02  1.78060E-02
#           1.82392E-02  1.86830E-02  1.91375E-02  1.96032E-02  2.00801E-02
#           2.05687E-02  2.10692E-02  2.15818E-02  2.21069E-02  2.26448E-02
#           2.31957E-02  2.37601E-02  2.43382E-02  2.49304E-02  2.55369E-02
#           2.61583E-02  2.67947E-02  2.74467E-02  2.81145E-02  2.87985E-02
#           2.94992E-02  3.02169E-02  3.09521E-02  3.17052E-02  3.24766E-02
#           3.32668E-02  3.40762E-02  3.49053E-02  3.57546E-02  3.66246E-02
#           3.75157E-02  3.84284E-02  3.93634E-02  4.03212E-02  4.13022E-02
#           4.23071E-02  4.33365E-02  4.43909E-02  4.54710E-02  4.65773E-02
#           4.77106E-02  4.88714E-02  5.00605E-02  5.12785E-02  5.25262E-02
#           5.38042E-02  5.51133E-02  5.64542E-02  5.78278E-02  5.92348E-02
#           6.06760E-02  6.21523E-02  6.36645E-02  6.52135E-02  6.68002E-02
#           6.84255E-02  7.00904E-02  7.17957E-02  7.35426E-02  7.53319E-02
#           7.71648E-02  7.90423E-02  8.09655E-02  8.29354E-02  8.49533E-02
#           8.70203E-02  8.91376E-02  9.13064E-02  9.35279E-02  9.58035E-02
#           9.81345E-02  1.00522E-01  1.02968E-01  1.05473E-01  1.08040E-01
#           1.10668E-01  1.13361E-01  1.16119E-01  1.18944E-01  1.21838E-01
#           1.24803E-01  1.27839E-01  1.30950E-01  1.34136E-01  1.37399E-01
#           1.40742E-01  1.44167E-01  1.47675E-01  1.51268E-01  1.54948E-01
#           1.58718E-01  1.62580E-01  1.66535E-01  1.70587E-01  1.74738E-01
#           1.78989E-01  1.83344E-01  1.87805E-01  1.92375E-01  1.97055E-01
#           2.01850E-01  2.06761E-01  2.11792E-01  2.16945E-01  2.22223E-01
#           2.27630E-01  2.33169E-01  2.38842E-01  2.44653E-01  2.50605E-01
#           2.56703E-01  2.62949E-01  2.69346E-01  2.75900E-01  2.82613E-01
#           2.89489E-01  2.96532E-01  3.03747E-01  3.11138E-01  3.18708E-01
#           3.26462E-01  3.34405E-01  3.42542E-01  3.50876E-01  3.59413E-01
#           3.68158E-01  3.77116E-01  3.86291E-01  3.95690E-01  4.05317E-01
#           4.15179E-01  4.25281E-01  4.35628E-01  4.46227E-01  4.57084E-01
#           4.68205E-01  4.79597E-01  4.91266E-01  5.03219E-01  5.15463E-01
#           5.28005E-01  5.40851E-01  5.54011E-01  5.67490E-01  5.81298E-01
#           5.95441E-01  6.09929E-01  6.24769E-01  6.39970E-01  6.55541E-01
#           6.71491E-01  6.87828E-01  7.04564E-01  7.21706E-01  7.39266E-01
#           7.57253E-01  7.75678E-01  7.94551E-01  8.13883E-01  8.33685E-01
#           8.53969E-01  8.74747E-01  8.96030E-01  9.17831E-01  9.40163E-01
#           9.63038E-01  9.86469E-01  1.01047E+00  1.03506E+00  1.06024E+00
#           1.08604E+00  1.11246E+00  1.13953E+00  1.16725E+00  1.19565E+00
#           1.22474E+00  1.25454E+00  1.28507E+00  1.31633E+00  1.34836E+00
#           1.38117E+00  1.41477E+00  1.44920E+00  1.48446E+00  1.52057E+00
#           1.55757E+00  1.59547E+00  1.63429E+00  1.67405E+00  1.71478E+00
#           1.75650E+00  1.79924E+00  1.84302E+00  1.88786E+00  1.93379E+00
#           1.98084E+00  2.02904E+00  2.07841E+00  2.12898E+00  2.18078E+00
#           2.23384E+00  2.28819E+00  2.34386E+00  2.40089E+00  2.45930E+00
#           2.51914E+00  2.58043E+00  2.64322E+00  2.70753E+00  2.77341E+00
#           2.84088E+00  2.91001E+00  2.98081E+00  3.05333E+00  3.12762E+00
#           3.20372E+00  3.28167E+00  3.36152E+00  3.44330E+00  3.52708E+00
#           3.61290E+00  3.70080E+00  3.79085E+00  3.88308E+00  3.97756E+00
#           4.07434E+00  4.17347E+00  4.27501E+00  4.37903E+00  4.48557E+00
#           4.59471E+00  4.70650E+00  4.82102E+00  4.93832E+00  5.05847E+00
#           5.18155E+00  5.30762E+00  5.43676E+00  5.56904E+00  5.70453E+00
#           5.84333E+00  5.98550E+00  6.13114E+00  6.28031E+00  6.43312E+00
#           6.58964E+00  6.74997E+00  6.91420E+00  7.08243E+00  7.25475E+00
#           7.43126E+00  7.61207E+00  7.79728E+00  7.98700E+00  8.18133E+00
#           8.38038E+00  8.58428E+00  8.79315E+00  9.00709E+00  9.22624E+00
#           9.45072E+00  9.68067E+00  9.91620E+00  1.01575E+01  1.04046E+01
#           1.06578E+01  1.09171E+01  1.11827E+01  1.14548E+01  1.17335E+01
#           1.20190E+01  1.23114E+01  1.26109E+01  1.29178E+01  1.32321E+01
#           1.35540E+01  1.38838E+01  1.42216E+01  1.45676E+01  1.49221E+01
#           1.52851E+01  1.56570E+01  1.60380E+01  1.64282E+01  1.68279E+01
#           1.72374E+01  1.76568E+01  1.80864E+01  1.85264E+01  1.89772E+01
#           1.94389E+01  1.99119E+01  2.03963E+01  2.08926E+01  2.14009E+01
#           2.19216E+01  2.24550E+01  2.30014E+01  2.35610E+01  2.41343E+01
#           2.47215E+01  2.53230E+01  2.59391E+01  2.65702E+01  2.72167E+01
#           2.78789E+01  2.85572E+01  2.92520E+01  2.99637E+01  3.06928E+01
#           3.14396E+01  3.22045E+01  3.29881E+01  3.37907E+01  3.46128E+01
#           3.54550E+01  3.63177E+01  3.72013E+01  3.81064E+01  3.90336E+01
#           3.99833E+01  4.09561E+01  4.19526E+01  4.29734E+01  4.40189E+01
#           4.50900E+01  4.61870E+01  4.73108E+01  4.84619E+01  4.96410E+01
#           5.08488E+01  5.20860E+01  5.33533E+01  5.46514E+01  5.59812E+01
#           5.73432E+01  5.87384E+01  6.01676E+01  6.16315E+01  6.31311E+01
#           6.46671E+01  6.62405E+01  6.78522E+01  6.95031E+01  7.11941E+01
#           7.29263E+01  7.47007E+01  7.65182E+01  7.83800E+01  8.02870E+01
#           8.22405E+01  8.42414E+01  8.62911E+01  8.83906E+01  9.05412E+01
#           9.27442E+01  9.50007E+01  9.73122E+01  9.96799E+01  1.02105E+02
#           1.04589E+02  1.07134E+02  1.09741E+02  1.12411E+02  1.15146E+02
#           1.17948E+02  1.20817E+02  1.23757E+02  1.26768E+02  1.29852E+02
#           1.33012E+02  1.36248E+02  1.39563E+02  1.42959E+02  1.46437E+02
#           1.50000E+02
     unit =    2            # unit is [1/cm^2/(MeV/n)/source]
     axis =  eng            # axis of output
     file = detector-13.out  # file name of output for the above axis
   output = f-curr          # surface crossing forward current spectrum
     part =  neutron  
# kf/name :  2112     
#    used :        main (  %)        temp (  %)       total (  %)
#  memory :         414 (  0)           0 (  0)         414 (  0)

#------------------------------------------------------------------------------
#newpage:
#   no. =    1   reg = 112 - 212

x: Energy [MeV/n]
y:  F-Curr [1/cm^2/(MeV/n)/source]         
p: xlog ylog afac(0.8) form(0.9)
h: n            x            y(neutron ),hh0l   n 
#  e-lower      e-upper      neutron     r.err 
   1.0000E-02   1.0243E-02   3.9647E-04  0.0595
   1.0243E-02   1.0493E-02   4.0991E-04  0.0579
   1.0493E-02   1.0748E-02   4.3585E-04  0.0555
   1.0748E-02   1.1009E-02   4.3794E-04  0.0546
   1.1009E-02   1.1277E-02   3.8252E-04  0.0578
   1.1277E-02   1.1552E-02   3.8553E-04  0.0569
   1.1552E-02   1.1833E-02   3.3726E-04  0.0601
   1.1833E-02   1.2121E-02   3.9005E-04  0.0552
   1.2121E-02   1.2415E-02   3.5684E-04  0.0571
   1.2415E-02   1.2718E-02   3.3524E-04  0.0581
   1.2718E-02   1.3027E-02   3.3136E-04  0.0578
   1.3027E-02   1.3344E-02   2.9669E-04  0.0604
   1.3344E-02   1.3669E-02   3.4068E-04  0.0556
   1.3669E-02   1.4001E-02   3.4640E-04  0.0545
   1.4001E-02   1.4342E-02   3.0418E-04  0.0574
   1.4342E-02   1.4691E-02   3.1816E-04  0.0554
   1.4691E-02   1.5048E-02   2.9472E-04  0.0570
   1.5048E-02   1.5414E-02   2.7239E-04  0.0586
   1.5414E-02   1.5789E-02   2.8135E-04  0.0569
   1.5789E-02   1.6174E-02   2.4930E-04  0.0598
   1.6174E-02   1.6567E-02   2.7001E-04  0.0568
   1.6567E-02   1.6970E-02   2.8941E-04  0.0541
   1.6970E-02   1.7383E-02   2.5284E-04  0.0573
   1.7383E-02   1.7806E-02   2.5281E-04  0.0566
   1.7806E-02   1.8239E-02   2.2988E-04  0.0587
   1.8239E-02   1.8683E-02   2.6098E-04  0.0543
   1.8683E-02   1.9138E-02   2.1523E-04  0.0591
   1.9138E-02   1.9603E-02   2.1074E-04  0.0590
   1.9603E-02   2.0080E-02   2.2306E-04  0.0568
   2.0080E-02   2.0569E-02   2.2486E-04  0.0559
   2.0569E-02   2.1069E-02   2.1348E-04  0.0566
   2.1069E-02   2.1582E-02   2.0754E-04  0.0568
   2.1582E-02   2.2107E-02   1.9612E-04  0.0577
   2.2107E-02   2.2645E-02   1.9490E-04  0.0571
   2.2645E-02   2.3196E-02   2.0709E-04  0.0547
   2.3196E-02   2.3760E-02   1.9393E-04  0.0559
   2.3760E-02   2.4338E-02   1.7157E-04  0.0588
   2.4338E-02   2.4930E-02   1.8344E-04  0.0562
   2.4930E-02   2.5537E-02   1.7521E-04  0.0568
   2.5537E-02   2.6158E-02   1.6313E-04  0.0581
   2.6158E-02   2.6795E-02   1.6931E-04  0.0564
   2.6795E-02   2.7447E-02   1.6146E-04  0.0571
   2.7447E-02   2.8114E-02   1.6368E-04  0.0560
   2.8114E-02   2.8799E-02   1.5498E-04  0.0569
   2.8799E-02   2.9499E-02   1.5453E-04  0.0562
   2.9499E-02   3.0217E-02   1.4867E-04  0.0567
   3.0217E-02   3.0952E-02   1.3855E-04  0.0580
   3.0952E-02   3.1705E-02   1.4869E-04  0.0553
   3.1705E-02   3.2477E-02   1.4359E-04  0.0556
   3.2477E-02   3.3267E-02   1.5627E-04  0.0526
   3.3267E-02   3.4076E-02   1.4995E-04  0.0531
   3.4076E-02   3.4905E-02   1.2532E-04  0.0573
   3.4905E-02   3.5755E-02   1.4899E-04  0.0520
   3.5755E-02   3.6625E-02   1.1397E-04  0.0588
   3.6625E-02   3.7516E-02   1.3355E-04  0.0537
   3.7516E-02   3.8428E-02   1.1568E-04  0.0569
   3.8428E-02   3.9363E-02   1.2599E-04  0.0539
   3.9363E-02   4.0321E-02   1.2856E-04  0.0527
   4.0321E-02   4.1302E-02   1.2410E-04  0.0530
   4.1302E-02   4.2307E-02   1.2015E-04  0.0533
   4.2307E-02   4.3337E-02   1.1222E-04  0.0545
   4.3337E-02   4.4391E-02   1.1503E-04  0.0531
   4.4391E-02   4.5471E-02   9.6923E-05  0.0572
   4.5471E-02   4.6577E-02   1.0144E-04  0.0553
   4.6577E-02   4.7711E-02   1.0667E-04  0.0532
   4.7711E-02   4.8871E-02   9.6191E-05  0.0554
   4.8871E-02   5.0061E-02   1.0683E-04  0.0519
   5.0061E-02   5.1279E-02   1.0310E-04  0.0522
   5.1279E-02   5.2526E-02   9.1758E-05  0.0547
   5.2526E-02   5.3804E-02   9.2755E-05  0.0538
   5.3804E-02   5.5113E-02   9.1016E-05  0.0536
   5.5113E-02   5.6454E-02   9.4710E-05  0.0519
   5.6454E-02   5.7828E-02   8.1939E-05  0.0551
   5.7828E-02   5.9235E-02   8.8941E-05  0.0524
   5.9235E-02   6.0676E-02   8.0738E-05  0.0542
   6.0676E-02   6.2152E-02   8.8698E-05  0.0511
   6.2152E-02   6.3665E-02   7.9083E-05  0.0535
   6.3665E-02   6.5214E-02   7.5614E-05  0.0540
   6.5214E-02   6.6800E-02   7.3443E-05  0.0543
   6.6800E-02   6.8426E-02   7.9086E-05  0.0516
   6.8426E-02   7.0090E-02   7.8333E-05  0.0513
   7.0090E-02   7.1796E-02   7.4129E-05  0.0521
   7.1796E-02   7.3543E-02   7.2040E-05  0.0521
   7.3543E-02   7.5332E-02   7.4485E-05  0.0507
   7.5332E-02   7.7165E-02   6.5450E-05  0.0534
   7.7165E-02   7.9042E-02   7.1750E-05  0.0504
   7.9042E-02   8.0965E-02   7.0096E-05  0.0504
   8.0965E-02   8.2935E-02   6.6473E-05  0.0512
   8.2935E-02   8.4953E-02   6.2191E-05  0.0522
   8.4953E-02   8.7020E-02   6.5709E-05  0.0502
   8.7020E-02   8.9138E-02   6.5556E-05  0.0497
   8.9138E-02   9.1306E-02   6.6660E-05  0.0487
   9.1306E-02   9.3528E-02   6.2083E-05  0.0499
   9.3528E-02   9.5804E-02   6.3318E-05  0.0487
   9.5804E-02   9.8134E-02   6.2565E-05  0.0485
   9.8134E-02   1.0052E-01   6.3810E-05  0.0474
   1.0052E-01   1.0297E-01   6.0580E-05  0.0481
   1.0297E-01   1.0547E-01   6.2523E-05  0.0468
   1.0547E-01   1.0804E-01   6.6426E-05  0.0448
   1.0804E-01   1.1067E-01   6.8260E-05  0.0437
   1.1067E-01   1.1336E-01   8.2414E-05  0.0393
   1.1336E-01   1.1612E-01   7.8088E-05  0.0399
   1.1612E-01   1.1894E-01   8.5959E-05  0.0376
   1.1894E-01   1.2184E-01   8.7691E-05  0.0367
   1.2184E-01   1.2480E-01   8.7798E-05  0.0363
   1.2480E-01   1.2784E-01   1.0043E-04  0.0335
   1.2784E-01   1.3095E-01   1.0284E-04  0.0327
   1.3095E-01   1.3414E-01   1.0408E-04  0.0322
   1.3414E-01   1.3740E-01   1.1156E-04  0.0307
   1.3740E-01   1.4074E-01   1.1197E-04  0.0303
   1.4074E-01   1.4417E-01   1.1403E-04  0.0296
   1.4417E-01   1.4767E-01   1.1779E-04  0.0288
   1.4767E-01   1.5127E-01   1.3425E-04  0.0267
   1.5127E-01   1.5495E-01   1.3797E-04  0.0260
   1.5495E-01   1.5872E-01   1.4254E-04  0.0253
   1.5872E-01   1.6258E-01   1.4787E-04  0.0245
   1.6258E-01   1.6654E-01   1.5015E-04  0.0240
   1.6654E-01   1.7059E-01   1.6362E-04  0.0227
   1.7059E-01   1.7474E-01   1.6480E-04  0.0224
   1.7474E-01   1.7899E-01   1.7796E-04  0.0213
   1.7899E-01   1.8334E-01   1.8532E-04  0.0206
   1.8334E-01   1.8781E-01   1.9045E-04  0.0201
   1.8781E-01   1.9237E-01   1.9505E-04  0.0196
   1.9237E-01   1.9706E-01   2.1095E-04  0.0186
   1.9706E-01   2.0185E-01   2.1433E-04  0.0183
   2.0185E-01   2.0676E-01   2.2754E-04  0.0175
   2.0676E-01   2.1179E-01   2.3923E-04  0.0169
   2.1179E-01   2.1694E-01   2.5178E-04  0.0163
   2.1694E-01   2.2222E-01   2.6167E-04  0.0158
   2.2222E-01   2.2763E-01   2.6196E-04  0.0156
   2.2763E-01   2.3317E-01   2.7770E-04  0.0149
   2.3317E-01   2.3884E-01   2.8726E-04  0.0145
   2.3884E-01   2.4465E-01   2.9318E-04  0.0142
   2.4465E-01   2.5061E-01   3.1337E-04  0.0136
   2.5061E-01   2.5670E-01   3.2330E-04  0.0132
   2.5670E-01   2.6295E-01   3.3589E-04  0.0128
   2.6295E-01   2.6935E-01   3.5891E-04  0.0122
   2.6935E-01   2.7590E-01   3.6828E-04  0.0119
   2.7590E-01   2.8261E-01   3.6859E-04  0.0118
   2.8261E-01   2.8949E-01   3.8784E-04  0.0113
   2.8949E-01   2.9653E-01   4.0519E-04  0.0110
   2.9653E-01   3.0375E-01   4.2308E-04  0.0106
   3.0375E-01   3.1114E-01   4.2347E-04  0.0105
   3.1114E-01   3.1871E-01   4.3777E-04  0.0102
   3.1871E-01   3.2646E-01   4.5904E-04  0.0098
   3.2646E-01   3.3441E-01   4.6935E-04  0.0096
   3.3441E-01   3.4254E-01   4.8763E-04  0.0093
   3.4254E-01   3.5088E-01   5.0348E-04  0.0090
   3.5088E-01   3.5941E-01   5.1766E-04  0.0088
   3.5941E-01   3.6816E-01   5.2909E-04  0.0086
   3.6816E-01   3.7712E-01   5.4264E-04  0.0084
   3.7712E-01   3.8629E-01   5.6060E-04  0.0082
   3.8629E-01   3.9569E-01   5.6723E-04  0.0080
   3.9569E-01   4.0532E-01   5.8331E-04  0.0078
   4.0532E-01   4.1518E-01   5.9752E-04  0.0076
   4.1518E-01   4.2528E-01   6.0782E-04  0.0075
   4.2528E-01   4.3563E-01   6.1943E-04  0.0073
   4.3563E-01   4.4623E-01   6.2374E-04  0.0072
   4.4623E-01   4.5708E-01   6.3706E-04  0.0070
   4.5708E-01   4.6821E-01   6.4319E-04  0.0069
   4.6821E-01   4.7960E-01   6.5190E-04  0.0068
   4.7960E-01   4.9127E-01   6.6528E-04  0.0066
   4.9127E-01   5.0322E-01   6.7447E-04  0.0065
   5.0322E-01   5.1546E-01   6.7334E-04  0.0064
   5.1546E-01   5.2800E-01   6.9166E-04  0.0063
   5.2800E-01   5.4085E-01   6.9707E-04  0.0062
   5.4085E-01   5.5401E-01   6.9957E-04  0.0061
   5.5401E-01   5.6749E-01   7.0744E-04  0.0060
   5.6749E-01   5.8130E-01   7.1690E-04  0.0059
   5.8130E-01   5.9544E-01   7.2164E-04  0.0058
   5.9544E-01   6.0993E-01   7.2861E-04  0.0057
   6.0993E-01   6.2477E-01   7.3212E-04  0.0056
   6.2477E-01   6.3997E-01   7.4273E-04  0.0055
   6.3997E-01   6.5554E-01   7.2899E-04  0.0055
   6.5554E-01   6.7149E-01   7.3358E-04  0.0054
   6.7149E-01   6.8783E-01   7.3687E-04  0.0053
   6.8783E-01   7.0456E-01   7.4715E-04  0.0052
   7.0456E-01   7.2171E-01   7.4031E-04  0.0052
   7.2171E-01   7.3927E-01   7.3336E-04  0.0052
   7.3927E-01   7.5725E-01   7.3732E-04  0.0051
   7.5725E-01   7.7568E-01   7.3935E-04  0.0050
   7.7568E-01   7.9455E-01   7.4203E-04  0.0049
   7.9455E-01   8.1388E-01   7.3116E-04  0.0049
   8.1388E-01   8.3368E-01   7.3381E-04  0.0049
   8.3368E-01   8.5397E-01   7.3637E-04  0.0048
   8.5397E-01   8.7475E-01   7.2943E-04  0.0047
   8.7475E-01   8.9603E-01   7.2399E-04  0.0047
   8.9603E-01   9.1783E-01   7.1947E-04  0.0047
   9.1783E-01   9.4016E-01   7.1648E-04  0.0046
   9.4016E-01   9.6304E-01   7.0446E-04  0.0046
   9.6304E-01   9.8647E-01   6.9817E-04  0.0046
   9.8647E-01   1.0105E+00   6.8317E-04  0.0046
   1.0105E+00   1.0351E+00   6.7451E-04  0.0045
   1.0351E+00   1.0602E+00   6.7069E-04  0.0045
   1.0602E+00   1.0860E+00   6.6054E-04  0.0045
   1.0860E+00   1.1125E+00   6.6077E-04  0.0044
   1.1125E+00   1.1395E+00   6.6684E-04  0.0043
   1.1395E+00   1.1673E+00   6.6386E-04  0.0043
   1.1673E+00   1.1957E+00   6.6480E-04  0.0042
   1.1957E+00   1.2247E+00   6.6575E-04  0.0042
   1.2247E+00   1.2545E+00   6.6161E-04  0.0041
   1.2545E+00   1.2851E+00   6.5597E-04  0.0041
   1.2851E+00   1.3163E+00   6.5281E-04  0.0041
   1.3163E+00   1.3484E+00   6.4529E-04  0.0040
   1.3484E+00   1.3812E+00   6.4954E-04  0.0040
   1.3812E+00   1.4148E+00   6.3765E-04  0.0040
   1.4148E+00   1.4492E+00   6.3880E-04  0.0039
   1.4492E+00   1.4845E+00   6.3415E-04  0.0039
   1.4845E+00   1.5206E+00   6.2695E-04  0.0039
   1.5206E+00   1.5576E+00   6.1780E-04  0.0038
   1.5576E+00   1.5955E+00   6.1156E-04  0.0038
   1.5955E+00   1.6343E+00   6.0463E-04  0.0038
   1.6343E+00   1.6741E+00   5.9363E-04  0.0038
   1.6741E+00   1.7148E+00   5.8313E-04  0.0038
   1.7148E+00   1.7565E+00   5.6751E-04  0.0038
   1.7565E+00   1.7992E+00   5.4539E-04  0.0038
   1.7992E+00   1.8430E+00   5.1272E-04  0.0038
   1.8430E+00   1.8879E+00   4.8503E-04  0.0039
   1.8879E+00   1.9338E+00   4.6849E-04  0.0039
   1.9338E+00   1.9808E+00   4.5775E-04  0.0039
   1.9808E+00   2.0290E+00   4.5058E-04  0.0039
   2.0290E+00   2.0784E+00   4.4377E-04  0.0039
   2.0784E+00   2.1290E+00   4.4425E-04  0.0038
   2.1290E+00   2.1808E+00   4.4486E-04  0.0037
   2.1808E+00   2.2338E+00   4.4693E-04  0.0037
   2.2338E+00   2.2882E+00   4.3798E-04  0.0037
   2.2882E+00   2.3439E+00   4.1644E-04  0.0038
   2.3439E+00   2.4009E+00   4.0840E-04  0.0037
   2.4009E+00   2.4593E+00   4.0142E-04  0.0037
   2.4593E+00   2.5191E+00   3.9186E-04  0.0037
   2.5191E+00   2.5804E+00   3.8651E-04  0.0037
   2.5804E+00   2.6432E+00   3.7819E-04  0.0037
   2.6432E+00   2.7075E+00   3.7215E-04  0.0037
   2.7075E+00   2.7734E+00   3.6613E-04  0.0037
   2.7734E+00   2.8409E+00   3.5704E-04  0.0037
   2.8409E+00   2.9100E+00   3.4896E-04  0.0037
   2.9100E+00   2.9808E+00   3.4311E-04  0.0037
   2.9808E+00   3.0533E+00   3.3902E-04  0.0037
   3.0533E+00   3.1276E+00   3.2875E-04  0.0037
   3.1276E+00   3.2037E+00   3.2429E-04  0.0037
   3.2037E+00   3.2817E+00   3.1864E-04  0.0036
   3.2817E+00   3.3615E+00   3.1348E-04  0.0036
   3.3615E+00   3.4433E+00   3.0692E-04  0.0036
   3.4433E+00   3.5271E+00   3.0491E-04  0.0036
   3.5271E+00   3.6129E+00   3.0008E-04  0.0036
   3.6129E+00   3.7008E+00   2.9374E-04  0.0036
   3.7008E+00   3.7908E+00   2.9031E-04  0.0036
   3.7908E+00   3.8831E+00   2.8472E-04  0.0036
   3.8831E+00   3.9776E+00   2.7752E-04  0.0036
   3.9776E+00   4.0743E+00   2.7081E-04  0.0036
   4.0743E+00   4.1735E+00   2.6629E-04  0.0035
   4.1735E+00   4.2750E+00   2.6158E-04  0.0035
   4.2750E+00   4.3790E+00   2.5571E-04  0.0035
   4.3790E+00   4.4856E+00   2.4997E-04  0.0035
   4.4856E+00   4.5947E+00   2.4319E-04  0.0035
   4.5947E+00   4.7065E+00   2.3908E-04  0.0035
   4.7065E+00   4.8210E+00   2.3514E-04  0.0035
   4.8210E+00   4.9383E+00   2.2945E-04  0.0035
   4.9383E+00   5.0585E+00   2.2844E-04  0.0035
   5.0585E+00   5.1815E+00   2.2398E-04  0.0035
   5.1815E+00   5.3076E+00   2.2104E-04  0.0034
   5.3076E+00   5.4368E+00   2.1778E-04  0.0034
   5.4368E+00   5.5690E+00   2.1377E-04  0.0034
   5.5690E+00   5.7045E+00   2.1136E-04  0.0034
   5.7045E+00   5.8433E+00   2.0850E-04  0.0034
   5.8433E+00   5.9855E+00   2.0613E-04  0.0034
   5.9855E+00   6.1311E+00   2.0531E-04  0.0033
   6.1311E+00   6.2803E+00   2.0145E-04  0.0033
   6.2803E+00   6.4331E+00   1.9917E-04  0.0033
   6.4331E+00   6.5896E+00   1.9540E-04  0.0033
   6.5896E+00   6.7500E+00   1.9292E-04  0.0033
   6.7500E+00   6.9142E+00   1.9057E-04  0.0033
   6.9142E+00   7.0824E+00   1.8733E-04  0.0033
   7.0824E+00   7.2548E+00   1.8356E-04  0.0033
   7.2548E+00   7.4313E+00   1.8188E-04  0.0032
   7.4313E+00   7.6121E+00   1.7925E-04  0.0032
   7.6121E+00   7.7973E+00   1.7611E-04  0.0032
   7.7973E+00   7.9870E+00   1.7226E-04  0.0032
   7.9870E+00   8.1813E+00   1.6863E-04  0.0032
   8.1813E+00   8.3804E+00   1.6640E-04  0.0032
   8.3804E+00   8.5843E+00   1.6287E-04  0.0032
   8.5843E+00   8.7931E+00   1.5853E-04  0.0032
   8.7931E+00   9.0071E+00   1.5523E-04  0.0032
   9.0071E+00   9.2262E+00   1.5226E-04  0.0032
   9.2262E+00   9.4507E+00   1.4864E-04  0.0032
   9.4507E+00   9.6807E+00   1.4346E-04  0.0032
   9.6807E+00   9.9162E+00   1.4226E-04  0.0032
   9.9162E+00   1.0157E+01   1.4537E-04  0.0031
   1.0157E+01   1.0405E+01   1.4171E-04  0.0031
   1.0405E+01   1.0658E+01   1.3747E-04  0.0031
   1.0658E+01   1.0917E+01   1.3331E-04  0.0031
   1.0917E+01   1.1183E+01   1.2855E-04  0.0032
   1.1183E+01   1.1455E+01   1.2524E-04  0.0032
   1.1455E+01   1.1733E+01   1.2129E-04  0.0032
   1.1733E+01   1.2019E+01   1.1915E-04  0.0032
   1.2019E+01   1.2311E+01   1.1581E-04  0.0032
   1.2311E+01   1.2611E+01   1.1253E-04  0.0032
   1.2611E+01   1.2918E+01   1.0973E-04  0.0032
   1.2918E+01   1.3232E+01   1.0644E-04  0.0032
   1.3232E+01   1.3554E+01   1.0304E-04  0.0032
   1.3554E+01   1.3884E+01   1.0002E-04  0.0032
   1.3884E+01   1.4222E+01   9.6706E-05  0.0032
   1.4222E+01   1.4568E+01   9.3406E-05  0.0033
   1.4568E+01   1.4922E+01   9.0655E-05  0.0033
   1.4922E+01   1.5285E+01   8.7507E-05  0.0033
   1.5285E+01   1.5657E+01   8.5013E-05  0.0033
   1.5657E+01   1.6038E+01   8.1687E-05  0.0033
   1.6038E+01   1.6428E+01   7.9190E-05  0.0033
   1.6428E+01   1.6828E+01   7.5783E-05  0.0034
   1.6828E+01   1.7237E+01   7.2600E-05  0.0034
   1.7237E+01   1.7657E+01   6.9863E-05  0.0034
   1.7657E+01   1.8086E+01   6.6897E-05  0.0035
   1.8086E+01   1.8526E+01   6.4380E-05  0.0035
   1.8526E+01   1.8977E+01   6.1279E-05  0.0035
   1.8977E+01   1.9439E+01   5.8797E-05  0.0036
   1.9439E+01   1.9912E+01   5.6731E-05  0.0036
   1.9912E+01   2.0396E+01   5.4316E-05  0.0036
   2.0396E+01   2.0893E+01   5.1967E-05  0.0037
   2.0893E+01   2.1401E+01   4.9442E-05  0.0037
   2.1401E+01   2.1922E+01   4.7102E-05  0.0037
   2.1922E+01   2.2455E+01   4.4688E-05  0.0038
   2.2455E+01   2.3001E+01   4.2374E-05  0.0039
   2.3001E+01   2.3561E+01   3.9964E-05  0.0039
   2.3561E+01   2.4134E+01   3.7593E-05  0.0040
   2.4134E+01   2.4721E+01   3.5263E-05  0.0041
   2.4721E+01   2.5323E+01   3.3262E-05  0.0042
   2.5323E+01   2.5939E+01   3.1238E-05  0.0042
   2.5939E+01   2.6570E+01   2.8980E-05  0.0043
   2.6570E+01   2.7217E+01   2.6893E-05  0.0045
   2.7217E+01   2.7879E+01   2.5054E-05  0.0046
   2.7879E+01   2.8557E+01   2.3065E-05  0.0047
   2.8557E+01   2.9252E+01   2.1339E-05  0.0048
   2.9252E+01   2.9964E+01   1.9602E-05  0.0050
   2.9964E+01   3.0693E+01   1.7742E-05  0.0052
   3.0693E+01   3.1440E+01   1.6341E-05  0.0053
   3.1440E+01   3.2205E+01   1.4721E-05  0.0055
   3.2205E+01   3.2988E+01   1.3449E-05  0.0057
   3.2988E+01   3.3791E+01   1.2255E-05  0.0059
   3.3791E+01   3.4613E+01   1.1099E-05  0.0061
   3.4613E+01   3.5455E+01   1.0060E-05  0.0064
   3.5455E+01   3.6318E+01   8.9728E-06  0.0067
   3.6318E+01   3.7201E+01   7.9881E-06  0.0070
   3.7201E+01   3.8106E+01   6.9165E-06  0.0074
   3.8106E+01   3.9034E+01   6.1203E-06  0.0078
   3.9034E+01   3.9983E+01   5.2894E-06  0.0083
   3.9983E+01   4.0956E+01   4.6399E-06  0.0087
   4.0956E+01   4.1953E+01   4.0023E-06  0.0093
   4.1953E+01   4.2973E+01   3.4052E-06  0.0100
   4.2973E+01   4.4019E+01   2.8959E-06  0.0107
   4.4019E+01   4.5090E+01   2.4833E-06  0.0114
   4.5090E+01   4.6187E+01   2.0852E-06  0.0123
   4.6187E+01   4.7311E+01   1.6999E-06  0.0134
   4.7311E+01   4.8462E+01   1.3858E-06  0.0147
   4.8462E+01   4.9641E+01   1.1104E-06  0.0162
   4.9641E+01   5.0849E+01   9.1303E-07  0.0177
   5.0849E+01   5.2086E+01   7.1296E-07  0.0198
   5.2086E+01   5.3353E+01   5.6651E-07  0.0219
   5.3353E+01   5.4651E+01   4.6699E-07  0.0239
   5.4651E+01   5.5981E+01   4.1985E-07  0.0249
   5.5981E+01   5.7343E+01   3.6481E-07  0.0263
   5.7343E+01   5.8738E+01   3.8037E-07  0.0255
   5.8738E+01   6.0168E+01   3.8195E-07  0.0251
   6.0168E+01   6.1632E+01   3.6557E-07  0.0254
   6.1632E+01   6.3131E+01   2.0443E-07  0.0335
   6.3131E+01   6.4667E+01   3.7715E-08  0.0772
   6.4667E+01   6.6240E+01   1.7095E-08  0.1132
   6.6240E+01   6.7852E+01   3.2093E-09  0.2582
   6.7852E+01   6.9503E+01   0.0000E+00  0.0000
   6.9503E+01   7.1194E+01   0.0000E+00  0.0000
   7.1194E+01   7.2926E+01   0.0000E+00  0.0000
   7.2926E+01   7.4701E+01   0.0000E+00  0.0000
   7.4701E+01   7.6518E+01   0.0000E+00  0.0000
   7.6518E+01   7.8380E+01   0.0000E+00  0.0000
   7.8380E+01   8.0287E+01   0.0000E+00  0.0000
   8.0287E+01   8.2240E+01   0.0000E+00  0.0000
   8.2240E+01   8.4241E+01   0.0000E+00  0.0000
   8.4241E+01   8.6291E+01   0.0000E+00  0.0000
   8.6291E+01   8.8391E+01   0.0000E+00  0.0000
   8.8391E+01   9.0541E+01   0.0000E+00  0.0000
   9.0541E+01   9.2744E+01   0.0000E+00  0.0000
   9.2744E+01   9.5001E+01   0.0000E+00  0.0000
   9.5001E+01   9.7312E+01   0.0000E+00  0.0000
   9.7312E+01   9.9680E+01   0.0000E+00  0.0000
   9.9680E+01   1.0211E+02   0.0000E+00  0.0000
   1.0211E+02   1.0459E+02   0.0000E+00  0.0000
   1.0459E+02   1.0713E+02   0.0000E+00  0.0000
   1.0713E+02   1.0974E+02   0.0000E+00  0.0000
   1.0974E+02   1.1241E+02   0.0000E+00  0.0000
   1.1241E+02   1.1515E+02   0.0000E+00  0.0000
   1.1515E+02   1.1795E+02   0.0000E+00  0.0000
   1.1795E+02   1.2082E+02   0.0000E+00  0.0000
   1.2082E+02   1.2376E+02   0.0000E+00  0.0000
   1.2376E+02   1.2677E+02   0.0000E+00  0.0000
   1.2677E+02   1.2985E+02   0.0000E+00  0.0000
   1.2985E+02   1.3301E+02   0.0000E+00  0.0000
   1.3301E+02   1.3625E+02   0.0000E+00  0.0000
   1.3625E+02   1.3956E+02   0.0000E+00  0.0000
   1.3956E+02   1.4296E+02   0.0000E+00  0.0000
   1.4296E+02   1.4644E+02   0.0000E+00  0.0000
   1.4644E+02   1.5000E+02   0.0000E+00  0.0000

#   sum over                 2.9194E-05
'no. =    1   reg = 112 - 212'
msuc: {\huge [t-cross] in region mesh}
msdr: {\it plotted by \ANGEL \version}
msdl: {\it calculated by \PHITS  3.26}
wt: s(0.7)
\vspace{-3}
  region surface crossing
  area  &=&   1.0000E+00 [cm^2]
e:
 
# Information for Restart Calculation
# This calculation was newly started
# istdev =  2 # 1:Batch variance, 2:History variance
# resc2  = 2.90000000000000000E+09 # Total source weight or Total source weight / maxcas
# resc3  = 2.90000000000000000E+09 # Total history number or Total batch number
# maxcas =   100000000 # History / Batch, only used for istdev=1
# bitrseed = 1001010110000101011111100111000010011110001100100100010101000100 # bit data of rseed
