[ T-Cross ]
    title = [t-cross] in region mesh
     mesh =  reg            # mesh type is region-wise
      reg =    1            # number of crossing regions
      non     r-from    r-to       area
      1       119       219        1.000000    
   e-type =    3            # e-mesh is log given by emin, emax and ne
     emin =  1.0000000E-02  # minimum value of e-mesh points
     emax =   150.0000      # maximum value of e-mesh points
#    edel =  2.4039514E-02  # mesh width of e-mesh points
       ne =    400          # number of e-mesh points
#    data = ( e(i), i = 1, ne + 1 )
#           1.00000E-02  1.02433E-02  1.04925E-02  1.07478E-02  1.10093E-02
#           1.12772E-02  1.15516E-02  1.18326E-02  1.21205E-02  1.24154E-02
#           1.27175E-02  1.30269E-02  1.33439E-02  1.36686E-02  1.40011E-02
#           1.43418E-02  1.46907E-02  1.50482E-02  1.54143E-02  1.57894E-02
#           1.61735E-02  1.65670E-02  1.69701E-02  1.73830E-02  1.78060E-02
#           1.82392E-02  1.86830E-02  1.91375E-02  1.96032E-02  2.00801E-02
#           2.05687E-02  2.10692E-02  2.15818E-02  2.21069E-02  2.26448E-02
#           2.31957E-02  2.37601E-02  2.43382E-02  2.49304E-02  2.55369E-02
#           2.61583E-02  2.67947E-02  2.74467E-02  2.81145E-02  2.87985E-02
#           2.94992E-02  3.02169E-02  3.09521E-02  3.17052E-02  3.24766E-02
#           3.32668E-02  3.40762E-02  3.49053E-02  3.57546E-02  3.66246E-02
#           3.75157E-02  3.84284E-02  3.93634E-02  4.03212E-02  4.13022E-02
#           4.23071E-02  4.33365E-02  4.43909E-02  4.54710E-02  4.65773E-02
#           4.77106E-02  4.88714E-02  5.00605E-02  5.12785E-02  5.25262E-02
#           5.38042E-02  5.51133E-02  5.64542E-02  5.78278E-02  5.92348E-02
#           6.06760E-02  6.21523E-02  6.36645E-02  6.52135E-02  6.68002E-02
#           6.84255E-02  7.00904E-02  7.17957E-02  7.35426E-02  7.53319E-02
#           7.71648E-02  7.90423E-02  8.09655E-02  8.29354E-02  8.49533E-02
#           8.70203E-02  8.91376E-02  9.13064E-02  9.35279E-02  9.58035E-02
#           9.81345E-02  1.00522E-01  1.02968E-01  1.05473E-01  1.08040E-01
#           1.10668E-01  1.13361E-01  1.16119E-01  1.18944E-01  1.21838E-01
#           1.24803E-01  1.27839E-01  1.30950E-01  1.34136E-01  1.37399E-01
#           1.40742E-01  1.44167E-01  1.47675E-01  1.51268E-01  1.54948E-01
#           1.58718E-01  1.62580E-01  1.66535E-01  1.70587E-01  1.74738E-01
#           1.78989E-01  1.83344E-01  1.87805E-01  1.92375E-01  1.97055E-01
#           2.01850E-01  2.06761E-01  2.11792E-01  2.16945E-01  2.22223E-01
#           2.27630E-01  2.33169E-01  2.38842E-01  2.44653E-01  2.50605E-01
#           2.56703E-01  2.62949E-01  2.69346E-01  2.75900E-01  2.82613E-01
#           2.89489E-01  2.96532E-01  3.03747E-01  3.11138E-01  3.18708E-01
#           3.26462E-01  3.34405E-01  3.42542E-01  3.50876E-01  3.59413E-01
#           3.68158E-01  3.77116E-01  3.86291E-01  3.95690E-01  4.05317E-01
#           4.15179E-01  4.25281E-01  4.35628E-01  4.46227E-01  4.57084E-01
#           4.68205E-01  4.79597E-01  4.91266E-01  5.03219E-01  5.15463E-01
#           5.28005E-01  5.40851E-01  5.54011E-01  5.67490E-01  5.81298E-01
#           5.95441E-01  6.09929E-01  6.24769E-01  6.39970E-01  6.55541E-01
#           6.71491E-01  6.87828E-01  7.04564E-01  7.21706E-01  7.39266E-01
#           7.57253E-01  7.75678E-01  7.94551E-01  8.13883E-01  8.33685E-01
#           8.53969E-01  8.74747E-01  8.96030E-01  9.17831E-01  9.40163E-01
#           9.63038E-01  9.86469E-01  1.01047E+00  1.03506E+00  1.06024E+00
#           1.08604E+00  1.11246E+00  1.13953E+00  1.16725E+00  1.19565E+00
#           1.22474E+00  1.25454E+00  1.28507E+00  1.31633E+00  1.34836E+00
#           1.38117E+00  1.41477E+00  1.44920E+00  1.48446E+00  1.52057E+00
#           1.55757E+00  1.59547E+00  1.63429E+00  1.67405E+00  1.71478E+00
#           1.75650E+00  1.79924E+00  1.84302E+00  1.88786E+00  1.93379E+00
#           1.98084E+00  2.02904E+00  2.07841E+00  2.12898E+00  2.18078E+00
#           2.23384E+00  2.28819E+00  2.34386E+00  2.40089E+00  2.45930E+00
#           2.51914E+00  2.58043E+00  2.64322E+00  2.70753E+00  2.77341E+00
#           2.84088E+00  2.91001E+00  2.98081E+00  3.05333E+00  3.12762E+00
#           3.20372E+00  3.28167E+00  3.36152E+00  3.44330E+00  3.52708E+00
#           3.61290E+00  3.70080E+00  3.79085E+00  3.88308E+00  3.97756E+00
#           4.07434E+00  4.17347E+00  4.27501E+00  4.37903E+00  4.48557E+00
#           4.59471E+00  4.70650E+00  4.82102E+00  4.93832E+00  5.05847E+00
#           5.18155E+00  5.30762E+00  5.43676E+00  5.56904E+00  5.70453E+00
#           5.84333E+00  5.98550E+00  6.13114E+00  6.28031E+00  6.43312E+00
#           6.58964E+00  6.74997E+00  6.91420E+00  7.08243E+00  7.25475E+00
#           7.43126E+00  7.61207E+00  7.79728E+00  7.98700E+00  8.18133E+00
#           8.38038E+00  8.58428E+00  8.79315E+00  9.00709E+00  9.22624E+00
#           9.45072E+00  9.68067E+00  9.91620E+00  1.01575E+01  1.04046E+01
#           1.06578E+01  1.09171E+01  1.11827E+01  1.14548E+01  1.17335E+01
#           1.20190E+01  1.23114E+01  1.26109E+01  1.29178E+01  1.32321E+01
#           1.35540E+01  1.38838E+01  1.42216E+01  1.45676E+01  1.49221E+01
#           1.52851E+01  1.56570E+01  1.60380E+01  1.64282E+01  1.68279E+01
#           1.72374E+01  1.76568E+01  1.80864E+01  1.85264E+01  1.89772E+01
#           1.94389E+01  1.99119E+01  2.03963E+01  2.08926E+01  2.14009E+01
#           2.19216E+01  2.24550E+01  2.30014E+01  2.35610E+01  2.41343E+01
#           2.47215E+01  2.53230E+01  2.59391E+01  2.65702E+01  2.72167E+01
#           2.78789E+01  2.85572E+01  2.92520E+01  2.99637E+01  3.06928E+01
#           3.14396E+01  3.22045E+01  3.29881E+01  3.37907E+01  3.46128E+01
#           3.54550E+01  3.63177E+01  3.72013E+01  3.81064E+01  3.90336E+01
#           3.99833E+01  4.09561E+01  4.19526E+01  4.29734E+01  4.40189E+01
#           4.50900E+01  4.61870E+01  4.73108E+01  4.84619E+01  4.96410E+01
#           5.08488E+01  5.20860E+01  5.33533E+01  5.46514E+01  5.59812E+01
#           5.73432E+01  5.87384E+01  6.01676E+01  6.16315E+01  6.31311E+01
#           6.46671E+01  6.62405E+01  6.78522E+01  6.95031E+01  7.11941E+01
#           7.29263E+01  7.47007E+01  7.65182E+01  7.83800E+01  8.02870E+01
#           8.22405E+01  8.42414E+01  8.62911E+01  8.83906E+01  9.05412E+01
#           9.27442E+01  9.50007E+01  9.73122E+01  9.96799E+01  1.02105E+02
#           1.04589E+02  1.07134E+02  1.09741E+02  1.12411E+02  1.15146E+02
#           1.17948E+02  1.20817E+02  1.23757E+02  1.26768E+02  1.29852E+02
#           1.33012E+02  1.36248E+02  1.39563E+02  1.42959E+02  1.46437E+02
#           1.50000E+02
     unit =    2            # unit is [1/cm^2/(MeV/n)/source]
     axis =  eng            # axis of output
     file = detector-20.out  # file name of output for the above axis
   output = f-curr          # surface crossing forward current spectrum
     part =  neutron  
# kf/name :  2112     
#    used :        main (  %)        temp (  %)       total (  %)
#  memory :         414 (  0)           0 (  0)         414 (  0)

#------------------------------------------------------------------------------
#newpage:
#   no. =    1   reg = 119 - 219

x: Energy [MeV/n]
y:  F-Curr [1/cm^2/(MeV/n)/source]         
p: xlog ylog afac(0.8) form(0.9)
h: n            x            y(neutron ),hh0l   n 
#  e-lower      e-upper      neutron     r.err 
   1.0000E-02   1.0243E-02   2.3296E-04  0.0779
   1.0243E-02   1.0493E-02   2.2637E-04  0.0781
   1.0493E-02   1.0748E-02   2.4663E-04  0.0739
   1.0748E-02   1.1009E-02   2.3483E-04  0.0748
   1.1009E-02   1.1277E-02   2.4378E-04  0.0726
   1.1277E-02   1.1552E-02   2.2394E-04  0.0748
   1.1552E-02   1.1833E-02   2.1635E-04  0.0752
   1.1833E-02   1.2121E-02   2.1642E-04  0.0742
   1.2121E-02   1.2415E-02   2.0727E-04  0.0749
   1.2415E-02   1.2718E-02   2.1127E-04  0.0734
   1.2718E-02   1.3027E-02   2.0404E-04  0.0738
   1.3027E-02   1.3344E-02   1.9656E-04  0.0743
   1.3344E-02   1.3669E-02   2.0287E-04  0.0723
   1.3669E-02   1.4001E-02   1.6073E-04  0.0801
   1.4001E-02   1.4342E-02   2.0474E-04  0.0702
   1.4342E-02   1.4691E-02   1.9877E-04  0.0704
   1.4691E-02   1.5048E-02   1.6869E-04  0.0756
   1.5048E-02   1.5414E-02   1.7006E-04  0.0742
   1.5414E-02   1.5789E-02   1.8183E-04  0.0710
   1.5789E-02   1.6174E-02   1.7066E-04  0.0724
   1.6174E-02   1.6567E-02   1.3912E-04  0.0792
   1.6567E-02   1.6970E-02   1.5776E-04  0.0735
   1.6970E-02   1.7383E-02   1.5415E-04  0.0735
   1.7383E-02   1.7806E-02   1.6056E-04  0.0712
   1.7806E-02   1.8239E-02   1.1929E-04  0.0816
   1.8239E-02   1.8683E-02   1.4846E-04  0.0722
   1.8683E-02   1.9138E-02   1.4327E-04  0.0727
   1.9138E-02   1.9603E-02   1.4228E-04  0.0721
   1.9603E-02   2.0080E-02   1.4362E-04  0.0709
   2.0080E-02   2.0569E-02   1.2568E-04  0.0748
   2.0569E-02   2.1069E-02   1.2432E-04  0.0743
   2.1069E-02   2.1582E-02   1.3208E-04  0.0712
   2.1582E-02   2.2107E-02   1.1401E-04  0.0757
   2.2107E-02   2.2645E-02   1.1170E-04  0.0756
   2.2645E-02   2.3196E-02   1.3370E-04  0.0684
   2.3196E-02   2.3760E-02   1.1013E-04  0.0744
   2.3760E-02   2.4338E-02   1.1547E-04  0.0717
   2.4338E-02   2.4930E-02   1.1275E-04  0.0717
   2.4930E-02   2.5537E-02   1.1500E-04  0.0702
   2.5537E-02   2.6158E-02   1.0197E-04  0.0737
   2.6158E-02   2.6795E-02   1.0870E-04  0.0704
   2.6795E-02   2.7447E-02   1.0505E-04  0.0708
   2.7447E-02   2.8114E-02   9.3496E-05  0.0742
   2.8114E-02   2.8799E-02   8.8162E-05  0.0754
   2.8799E-02   2.9499E-02   1.0309E-04  0.0690
   2.9499E-02   3.0217E-02   1.0356E-04  0.0680
   3.0217E-02   3.0952E-02   1.0547E-04  0.0665
   3.0952E-02   3.1705E-02   8.6605E-05  0.0726
   3.1705E-02   3.2477E-02   8.3280E-05  0.0732
   3.2477E-02   3.3267E-02   8.6889E-05  0.0707
   3.3267E-02   3.4076E-02   8.2805E-05  0.0716
   3.4076E-02   3.4905E-02   7.4739E-05  0.0745
   3.4905E-02   3.5755E-02   8.3003E-05  0.0699
   3.5755E-02   3.6625E-02   8.2472E-05  0.0692
   3.6625E-02   3.7516E-02   7.5657E-05  0.0714
   3.7516E-02   3.8428E-02   7.4087E-05  0.0713
   3.8428E-02   3.9363E-02   6.8068E-05  0.0735
   3.9363E-02   4.0321E-02   6.6171E-05  0.0737
   4.0321E-02   4.1302E-02   7.2812E-05  0.0694
   4.1302E-02   4.2307E-02   6.4051E-05  0.0730
   4.2307E-02   4.3337E-02   6.8267E-05  0.0700
   4.3337E-02   4.4391E-02   6.6549E-05  0.0700
   4.4391E-02   4.5471E-02   6.0950E-05  0.0722
   4.5471E-02   4.6577E-02   6.2877E-05  0.0703
   4.6577E-02   4.7711E-02   6.7679E-05  0.0669
   4.7711E-02   4.8871E-02   5.5504E-05  0.0731
   4.8871E-02   5.0061E-02   6.3679E-05  0.0674
   5.0061E-02   5.1279E-02   6.0672E-05  0.0681
   5.1279E-02   5.2526E-02   5.2089E-05  0.0727
   5.2526E-02   5.3804E-02   5.9037E-05  0.0676
   5.3804E-02   5.5113E-02   6.6164E-05  0.0630
   5.5113E-02   5.6454E-02   5.6279E-05  0.0675
   5.6454E-02   5.7828E-02   5.5751E-05  0.0670
   5.7828E-02   5.9235E-02   5.3231E-05  0.0678
   5.9235E-02   6.0676E-02   4.9039E-05  0.0697
   6.0676E-02   6.2152E-02   4.7108E-05  0.0704
   6.2152E-02   6.3665E-02   5.0231E-05  0.0673
   6.3665E-02   6.5214E-02   4.4285E-05  0.0708
   6.5214E-02   6.6800E-02   5.0519E-05  0.0655
   6.6800E-02   6.8426E-02   4.4204E-05  0.0691
   6.8426E-02   7.0090E-02   4.3019E-05  0.0692
   7.0090E-02   7.1796E-02   4.5972E-05  0.0661
   7.1796E-02   7.3543E-02   4.2136E-05  0.0683
   7.3543E-02   7.5332E-02   4.7775E-05  0.0635
   7.5332E-02   7.7165E-02   3.9056E-05  0.0693
   7.7165E-02   7.9042E-02   4.1508E-05  0.0664
   7.9042E-02   8.0965E-02   3.7789E-05  0.0688
   8.0965E-02   8.2935E-02   4.0191E-05  0.0659
   8.2935E-02   8.4953E-02   3.8462E-05  0.0665
   8.4953E-02   8.7020E-02   3.6603E-05  0.0674
   8.7020E-02   8.9138E-02   3.6075E-05  0.0671
   8.9138E-02   9.1306E-02   3.8343E-05  0.0643
   9.1306E-02   9.3528E-02   3.3906E-05  0.0675
   9.3528E-02   9.5804E-02   3.7175E-05  0.0637
   9.5804E-02   9.8134E-02   3.6514E-05  0.0635
   9.8134E-02   1.0052E-01   3.3120E-05  0.0659
   1.0052E-01   1.0297E-01   3.7553E-05  0.0612
   1.0297E-01   1.0547E-01   3.7215E-05  0.0606
   1.0547E-01   1.0804E-01   3.8019E-05  0.0593
   1.0804E-01   1.1067E-01   4.2397E-05  0.0555
   1.1067E-01   1.1336E-01   4.6386E-05  0.0525
   1.1336E-01   1.1612E-01   4.1335E-05  0.0549
   1.1612E-01   1.1894E-01   4.2957E-05  0.0532
   1.1894E-01   1.2184E-01   4.7496E-05  0.0500
   1.2184E-01   1.2480E-01   4.9878E-05  0.0482
   1.2480E-01   1.2784E-01   4.4373E-05  0.0505
   1.2784E-01   1.3095E-01   5.2931E-05  0.0457
   1.3095E-01   1.3414E-01   5.7864E-05  0.0432
   1.3414E-01   1.3740E-01   5.3710E-05  0.0443
   1.3740E-01   1.4074E-01   5.6299E-05  0.0427
   1.4074E-01   1.4417E-01   5.8571E-05  0.0414
   1.4417E-01   1.4767E-01   6.5838E-05  0.0386
   1.4767E-01   1.5127E-01   6.2971E-05  0.0390
   1.5127E-01   1.5495E-01   6.4131E-05  0.0382
   1.5495E-01   1.5872E-01   6.6665E-05  0.0370
   1.5872E-01   1.6258E-01   6.5246E-05  0.0369
   1.6258E-01   1.6654E-01   7.0040E-05  0.0352
   1.6654E-01   1.7059E-01   7.1253E-05  0.0345
   1.7059E-01   1.7474E-01   7.3961E-05  0.0335
   1.7474E-01   1.7899E-01   7.6008E-05  0.0326
   1.7899E-01   1.8334E-01   7.9247E-05  0.0316
   1.8334E-01   1.8781E-01   8.3643E-05  0.0303
   1.8781E-01   1.9237E-01   8.4785E-05  0.0298
   1.9237E-01   1.9706E-01   8.9147E-05  0.0287
   1.9706E-01   2.0185E-01   9.5301E-05  0.0274
   2.0185E-01   2.0676E-01   9.1023E-05  0.0277
   2.0676E-01   2.1179E-01   9.6043E-05  0.0267
   2.1179E-01   2.1694E-01   9.5517E-05  0.0264
   2.1694E-01   2.2222E-01   1.0123E-04  0.0254
   2.2222E-01   2.2763E-01   1.0066E-04  0.0251
   2.2763E-01   2.3317E-01   1.0350E-04  0.0245
   2.3317E-01   2.3884E-01   1.1017E-04  0.0234
   2.3884E-01   2.4465E-01   1.1467E-04  0.0227
   2.4465E-01   2.5061E-01   1.1411E-04  0.0225
   2.5061E-01   2.5670E-01   1.1695E-04  0.0219
   2.5670E-01   2.6295E-01   1.1921E-04  0.0215
   2.6295E-01   2.6935E-01   1.2359E-04  0.0208
   2.6935E-01   2.7590E-01   1.2348E-04  0.0206
   2.7590E-01   2.8261E-01   1.2154E-04  0.0205
   2.8261E-01   2.8949E-01   1.3353E-04  0.0193
   2.8949E-01   2.9653E-01   1.3482E-04  0.0190
   2.9653E-01   3.0375E-01   1.3364E-04  0.0189
   3.0375E-01   3.1114E-01   1.4088E-04  0.0182
   3.1114E-01   3.1871E-01   1.4708E-04  0.0176
   3.1871E-01   3.2646E-01   1.4137E-04  0.0177
   3.2646E-01   3.3441E-01   1.4366E-04  0.0173
   3.3441E-01   3.4254E-01   1.4854E-04  0.0169
   3.4254E-01   3.5088E-01   1.5602E-04  0.0162
   3.5088E-01   3.5941E-01   1.5332E-04  0.0162
   3.5941E-01   3.6816E-01   1.5629E-04  0.0158
   3.6816E-01   3.7712E-01   1.6069E-04  0.0154
   3.7712E-01   3.8629E-01   1.6642E-04  0.0150
   3.8629E-01   3.9569E-01   1.6365E-04  0.0149
   3.9569E-01   4.0532E-01   1.6734E-04  0.0146
   4.0532E-01   4.1518E-01   1.6805E-04  0.0144
   4.1518E-01   4.2528E-01   1.7137E-04  0.0141
   4.2528E-01   4.3563E-01   1.6970E-04  0.0140
   4.3563E-01   4.4623E-01   1.7786E-04  0.0135
   4.4623E-01   4.5708E-01   1.7526E-04  0.0134
   4.5708E-01   4.6821E-01   1.7854E-04  0.0131
   4.6821E-01   4.7960E-01   1.7940E-04  0.0129
   4.7960E-01   4.9127E-01   1.8288E-04  0.0127
   4.9127E-01   5.0322E-01   1.8168E-04  0.0126
   5.0322E-01   5.1546E-01   1.8493E-04  0.0123
   5.1546E-01   5.2800E-01   1.8797E-04  0.0120
   5.2800E-01   5.4085E-01   1.9243E-04  0.0118
   5.4085E-01   5.5401E-01   1.9253E-04  0.0116
   5.5401E-01   5.6749E-01   1.9552E-04  0.0114
   5.6749E-01   5.8130E-01   1.9661E-04  0.0112
   5.8130E-01   5.9544E-01   1.9577E-04  0.0111
   5.9544E-01   6.0993E-01   1.9954E-04  0.0109
   6.0993E-01   6.2477E-01   1.9906E-04  0.0108
   6.2477E-01   6.3997E-01   2.0150E-04  0.0106
   6.3997E-01   6.5554E-01   1.9948E-04  0.0105
   6.5554E-01   6.7149E-01   2.0186E-04  0.0103
   6.7149E-01   6.8783E-01   1.9802E-04  0.0103
   6.8783E-01   7.0456E-01   2.0010E-04  0.0101
   7.0456E-01   7.2171E-01   2.0394E-04  0.0099
   7.2171E-01   7.3927E-01   2.0118E-04  0.0098
   7.3927E-01   7.5725E-01   1.9871E-04  0.0098
   7.5725E-01   7.7568E-01   1.9528E-04  0.0097
   7.7568E-01   7.9455E-01   1.9745E-04  0.0096
   7.9455E-01   8.1388E-01   1.9389E-04  0.0095
   8.1388E-01   8.3368E-01   1.9587E-04  0.0094
   8.3368E-01   8.5397E-01   1.9032E-04  0.0094
   8.5397E-01   8.7475E-01   1.9142E-04  0.0093
   8.7475E-01   8.9603E-01   1.8886E-04  0.0092
   8.9603E-01   9.1783E-01   1.8547E-04  0.0092
   9.1783E-01   9.4016E-01   1.8404E-04  0.0091
   9.4016E-01   9.6304E-01   1.7873E-04  0.0091
   9.6304E-01   9.8647E-01   1.7724E-04  0.0090
   9.8647E-01   1.0105E+00   1.7125E-04  0.0091
   1.0105E+00   1.0351E+00   1.6834E-04  0.0091
   1.0351E+00   1.0602E+00   1.6235E-04  0.0091
   1.0602E+00   1.0860E+00   1.6266E-04  0.0090
   1.0860E+00   1.1125E+00   1.6450E-04  0.0088
   1.1125E+00   1.1395E+00   1.6450E-04  0.0087
   1.1395E+00   1.1673E+00   1.6530E-04  0.0086
   1.1673E+00   1.1957E+00   1.6642E-04  0.0084
   1.1957E+00   1.2247E+00   1.6456E-04  0.0084
   1.2247E+00   1.2545E+00   1.6101E-04  0.0083
   1.2545E+00   1.2851E+00   1.6124E-04  0.0082
   1.2851E+00   1.3163E+00   1.5908E-04  0.0082
   1.3163E+00   1.3484E+00   1.5692E-04  0.0081
   1.3484E+00   1.3812E+00   1.5406E-04  0.0081
   1.3812E+00   1.4148E+00   1.5457E-04  0.0080
   1.4148E+00   1.4492E+00   1.5193E-04  0.0079
   1.4492E+00   1.4845E+00   1.5123E-04  0.0079
   1.4845E+00   1.5206E+00   1.4812E-04  0.0078
   1.5206E+00   1.5576E+00   1.4541E-04  0.0078
   1.5576E+00   1.5955E+00   1.4323E-04  0.0078
   1.5955E+00   1.6343E+00   1.4116E-04  0.0077
   1.6343E+00   1.6741E+00   1.3592E-04  0.0077
   1.6741E+00   1.7148E+00   1.3429E-04  0.0077
   1.7148E+00   1.7565E+00   1.2904E-04  0.0077
   1.7565E+00   1.7992E+00   1.2122E-04  0.0079
   1.7992E+00   1.8430E+00   1.0946E-04  0.0082
   1.8430E+00   1.8879E+00   1.0192E-04  0.0083
   1.8879E+00   1.9338E+00   9.8919E-05  0.0083
   1.9338E+00   1.9808E+00   9.4590E-05  0.0084
   1.9808E+00   2.0290E+00   9.1813E-05  0.0084
   2.0290E+00   2.0784E+00   8.9952E-05  0.0084
   2.0784E+00   2.1290E+00   9.0870E-05  0.0082
   2.1290E+00   2.1808E+00   9.2519E-05  0.0080
   2.1808E+00   2.2338E+00   9.2898E-05  0.0079
   2.2338E+00   2.2882E+00   9.1471E-05  0.0079
   2.2882E+00   2.3439E+00   8.6878E-05  0.0080
   2.3439E+00   2.4009E+00   8.3273E-05  0.0081
   2.4009E+00   2.4593E+00   8.2153E-05  0.0081
   2.4593E+00   2.5191E+00   8.1187E-05  0.0080
   2.5191E+00   2.5804E+00   7.9228E-05  0.0080
   2.5804E+00   2.6432E+00   7.7592E-05  0.0080
   2.6432E+00   2.7075E+00   7.7354E-05  0.0079
   2.7075E+00   2.7734E+00   7.4037E-05  0.0080
   2.7734E+00   2.8409E+00   7.2457E-05  0.0080
   2.8409E+00   2.9100E+00   7.1253E-05  0.0080
   2.9100E+00   2.9808E+00   7.0035E-05  0.0080
   2.9808E+00   3.0533E+00   6.8793E-05  0.0080
   3.0533E+00   3.1276E+00   6.7590E-05  0.0080
   3.1276E+00   3.2037E+00   6.5946E-05  0.0080
   3.2037E+00   3.2817E+00   6.5540E-05  0.0079
   3.2817E+00   3.3615E+00   6.5228E-05  0.0078
   3.3615E+00   3.4433E+00   6.6265E-05  0.0077
   3.4433E+00   3.5271E+00   6.5114E-05  0.0077
   3.5271E+00   3.6129E+00   6.4221E-05  0.0076
   3.6129E+00   3.7008E+00   6.4270E-05  0.0076
   3.7008E+00   3.7908E+00   6.3417E-05  0.0075
   3.7908E+00   3.8831E+00   6.1634E-05  0.0075
   3.8831E+00   3.9776E+00   6.2043E-05  0.0074
   3.9776E+00   4.0743E+00   6.0703E-05  0.0074
   4.0743E+00   4.1735E+00   6.0055E-05  0.0074
   4.1735E+00   4.2750E+00   5.9016E-05  0.0074
   4.2750E+00   4.3790E+00   5.7510E-05  0.0074
   4.3790E+00   4.4856E+00   5.6613E-05  0.0073
   4.4856E+00   4.5947E+00   5.5194E-05  0.0073
   4.5947E+00   4.7065E+00   5.5245E-05  0.0073
   4.7065E+00   4.8210E+00   5.4080E-05  0.0073
   4.8210E+00   4.9383E+00   5.2671E-05  0.0073
   4.9383E+00   5.0585E+00   5.2143E-05  0.0072
   5.0585E+00   5.1815E+00   5.1128E-05  0.0072
   5.1815E+00   5.3076E+00   5.1859E-05  0.0071
   5.3076E+00   5.4368E+00   5.0672E-05  0.0071
   5.4368E+00   5.5690E+00   5.0218E-05  0.0070
   5.5690E+00   5.7045E+00   4.8715E-05  0.0070
   5.7045E+00   5.8433E+00   4.7613E-05  0.0071
   5.8433E+00   5.9855E+00   4.7646E-05  0.0070
   5.9855E+00   6.1311E+00   4.6897E-05  0.0070
   6.1311E+00   6.2803E+00   4.6267E-05  0.0069
   6.2803E+00   6.4331E+00   4.5847E-05  0.0069
   6.4331E+00   6.5896E+00   4.4229E-05  0.0069
   6.5896E+00   6.7500E+00   4.4661E-05  0.0068
   6.7500E+00   6.9142E+00   4.2940E-05  0.0069
   6.9142E+00   7.0824E+00   4.2648E-05  0.0068
   7.0824E+00   7.2548E+00   4.1458E-05  0.0068
   7.2548E+00   7.4313E+00   4.1140E-05  0.0068
   7.4313E+00   7.6121E+00   4.0068E-05  0.0068
   7.6121E+00   7.7973E+00   3.9030E-05  0.0068
   7.7973E+00   7.9870E+00   3.8318E-05  0.0068
   7.9870E+00   8.1813E+00   3.7588E-05  0.0068
   8.1813E+00   8.3804E+00   3.6383E-05  0.0068
   8.3804E+00   8.5843E+00   3.5839E-05  0.0068
   8.5843E+00   8.7931E+00   3.4860E-05  0.0068
   8.7931E+00   9.0071E+00   3.3627E-05  0.0069
   9.0071E+00   9.2262E+00   3.2822E-05  0.0069
   9.2262E+00   9.4507E+00   3.1686E-05  0.0069
   9.4507E+00   9.6807E+00   3.0399E-05  0.0070
   9.6807E+00   9.9162E+00   2.9785E-05  0.0070
   9.9162E+00   1.0157E+01   3.0564E-05  0.0068
   1.0157E+01   1.0405E+01   2.9704E-05  0.0068
   1.0405E+01   1.0658E+01   2.8090E-05  0.0069
   1.0658E+01   1.0917E+01   2.7129E-05  0.0070
   1.0917E+01   1.1183E+01   2.5482E-05  0.0071
   1.1183E+01   1.1455E+01   2.4879E-05  0.0071
   1.1455E+01   1.1733E+01   2.3730E-05  0.0072
   1.1733E+01   1.2019E+01   2.3155E-05  0.0072
   1.2019E+01   1.2311E+01   2.2125E-05  0.0073
   1.2311E+01   1.2611E+01   2.1664E-05  0.0073
   1.2611E+01   1.2918E+01   2.0575E-05  0.0074
   1.2918E+01   1.3232E+01   1.9585E-05  0.0075
   1.3232E+01   1.3554E+01   1.8937E-05  0.0075
   1.3554E+01   1.3884E+01   1.7937E-05  0.0076
   1.3884E+01   1.4222E+01   1.7221E-05  0.0077
   1.4222E+01   1.4568E+01   1.6455E-05  0.0078
   1.4568E+01   1.4922E+01   1.5680E-05  0.0079
   1.4922E+01   1.5285E+01   1.4801E-05  0.0080
   1.5285E+01   1.5657E+01   1.4239E-05  0.0081
   1.5657E+01   1.6038E+01   1.3196E-05  0.0083
   1.6038E+01   1.6428E+01   1.2431E-05  0.0084
   1.6428E+01   1.6828E+01   1.1539E-05  0.0086
   1.6828E+01   1.7237E+01   1.0856E-05  0.0088
   1.7237E+01   1.7657E+01   1.0058E-05  0.0090
   1.7657E+01   1.8086E+01   9.2802E-06  0.0093
   1.8086E+01   1.8526E+01   8.6166E-06  0.0095
   1.8526E+01   1.8977E+01   7.8972E-06  0.0098
   1.8977E+01   1.9439E+01   7.2150E-06  0.0102
   1.9439E+01   1.9912E+01   6.6368E-06  0.0105
   1.9912E+01   2.0396E+01   5.9446E-06  0.0109
   2.0396E+01   2.0893E+01   5.3122E-06  0.0114
   2.0893E+01   2.1401E+01   4.7803E-06  0.0119
   2.1401E+01   2.1922E+01   4.3006E-06  0.0124
   2.1922E+01   2.2455E+01   3.7381E-06  0.0132
   2.2455E+01   2.3001E+01   3.3167E-06  0.0138
   2.3001E+01   2.3561E+01   2.8731E-06  0.0146
   2.3561E+01   2.4134E+01   2.5029E-06  0.0155
   2.4134E+01   2.4721E+01   2.1839E-06  0.0164
   2.4721E+01   2.5323E+01   1.8414E-06  0.0176
   2.5323E+01   2.5939E+01   1.6264E-06  0.0186
   2.5939E+01   2.6570E+01   1.3124E-06  0.0204
   2.6570E+01   2.7217E+01   1.1591E-06  0.0215
   2.7217E+01   2.7879E+01   9.2742E-07  0.0237
   2.7879E+01   2.8557E+01   7.9253E-07  0.0253
   2.8557E+01   2.9252E+01   6.2830E-07  0.0281
   2.9252E+01   2.9964E+01   4.8207E-07  0.0317
   2.9964E+01   3.0693E+01   4.2332E-07  0.0334
   3.0693E+01   3.1440E+01   3.0152E-07  0.0391
   3.1440E+01   3.2205E+01   2.6100E-07  0.0416
   3.2205E+01   3.2988E+01   1.8175E-07  0.0492
   3.2988E+01   3.3791E+01   1.6154E-07  0.0516
   3.3791E+01   3.4613E+01   1.1870E-07  0.0594
   3.4613E+01   3.5455E+01   9.3766E-08  0.0661
   3.5455E+01   3.6318E+01   7.1152E-08  0.0750
   3.6318E+01   3.7201E+01   5.8926E-08  0.0814
   3.7201E+01   3.8106E+01   5.1050E-08  0.0864
   3.8106E+01   3.9034E+01   4.4630E-08  0.0913
   3.9034E+01   3.9983E+01   3.0136E-08  0.1098
   3.9983E+01   4.0956E+01   3.2256E-08  0.1048
   4.0956E+01   4.1953E+01   2.5261E-08  0.1170
   4.1953E+01   4.2973E+01   2.5337E-08  0.1155
   4.2973E+01   4.4019E+01   1.9458E-08  0.1302
   4.4019E+01   4.5090E+01   2.5757E-09  0.3536
   4.5090E+01   4.6187E+01   6.2863E-10  0.7071
   4.6187E+01   4.7311E+01   0.0000E+00  0.0000
   4.7311E+01   4.8462E+01   2.9956E-10  1.0000
   4.8462E+01   4.9641E+01   0.0000E+00  0.0000
   4.9641E+01   5.0849E+01   0.0000E+00  0.0000
   5.0849E+01   5.2086E+01   0.0000E+00  0.0000
   5.2086E+01   5.3353E+01   0.0000E+00  0.0000
   5.3353E+01   5.4651E+01   0.0000E+00  0.0000
   5.4651E+01   5.5981E+01   0.0000E+00  0.0000
   5.5981E+01   5.7343E+01   0.0000E+00  0.0000
   5.7343E+01   5.8738E+01   0.0000E+00  0.0000
   5.8738E+01   6.0168E+01   0.0000E+00  0.0000
   6.0168E+01   6.1632E+01   0.0000E+00  0.0000
   6.1632E+01   6.3131E+01   0.0000E+00  0.0000
   6.3131E+01   6.4667E+01   0.0000E+00  0.0000
   6.4667E+01   6.6240E+01   0.0000E+00  0.0000
   6.6240E+01   6.7852E+01   0.0000E+00  0.0000
   6.7852E+01   6.9503E+01   0.0000E+00  0.0000
   6.9503E+01   7.1194E+01   0.0000E+00  0.0000
   7.1194E+01   7.2926E+01   0.0000E+00  0.0000
   7.2926E+01   7.4701E+01   0.0000E+00  0.0000
   7.4701E+01   7.6518E+01   0.0000E+00  0.0000
   7.6518E+01   7.8380E+01   0.0000E+00  0.0000
   7.8380E+01   8.0287E+01   0.0000E+00  0.0000
   8.0287E+01   8.2240E+01   0.0000E+00  0.0000
   8.2240E+01   8.4241E+01   0.0000E+00  0.0000
   8.4241E+01   8.6291E+01   0.0000E+00  0.0000
   8.6291E+01   8.8391E+01   0.0000E+00  0.0000
   8.8391E+01   9.0541E+01   0.0000E+00  0.0000
   9.0541E+01   9.2744E+01   0.0000E+00  0.0000
   9.2744E+01   9.5001E+01   0.0000E+00  0.0000
   9.5001E+01   9.7312E+01   0.0000E+00  0.0000
   9.7312E+01   9.9680E+01   0.0000E+00  0.0000
   9.9680E+01   1.0211E+02   0.0000E+00  0.0000
   1.0211E+02   1.0459E+02   0.0000E+00  0.0000
   1.0459E+02   1.0713E+02   0.0000E+00  0.0000
   1.0713E+02   1.0974E+02   0.0000E+00  0.0000
   1.0974E+02   1.1241E+02   0.0000E+00  0.0000
   1.1241E+02   1.1515E+02   0.0000E+00  0.0000
   1.1515E+02   1.1795E+02   0.0000E+00  0.0000
   1.1795E+02   1.2082E+02   0.0000E+00  0.0000
   1.2082E+02   1.2376E+02   0.0000E+00  0.0000
   1.2376E+02   1.2677E+02   0.0000E+00  0.0000
   1.2677E+02   1.2985E+02   0.0000E+00  0.0000
   1.2985E+02   1.3301E+02   0.0000E+00  0.0000
   1.3301E+02   1.3625E+02   0.0000E+00  0.0000
   1.3625E+02   1.3956E+02   0.0000E+00  0.0000
   1.3956E+02   1.4296E+02   0.0000E+00  0.0000
   1.4296E+02   1.4644E+02   0.0000E+00  0.0000
   1.4644E+02   1.5000E+02   0.0000E+00  0.0000

#   sum over                 5.8846E-06
'no. =    1   reg = 119 - 219'
msuc: {\huge [t-cross] in region mesh}
msdr: {\it plotted by \ANGEL \version}
msdl: {\it calculated by \PHITS  3.26}
wt: s(0.7)
\vspace{-3}
  region surface crossing
  area  &=&   1.0000E+00 [cm^2]
e:
 
# Information for Restart Calculation
# This calculation was newly started
# istdev =  2 # 1:Batch variance, 2:History variance
# resc2  = 2.90000000000000000E+09 # Total source weight or Total source weight / maxcas
# resc3  = 2.90000000000000000E+09 # Total history number or Total batch number
# maxcas =   100000000 # History / Batch, only used for istdev=1
# bitrseed = 1001010110000101011111100111000010011110001100100100010101000100 # bit data of rseed
