[ T-Cross ]
    title = [t-cross] in region mesh
     mesh =  reg            # mesh type is region-wise
      reg =    1            # number of crossing regions
      non     r-from    r-to       area
      1       117       217        1.000000    
   e-type =    3            # e-mesh is log given by emin, emax and ne
     emin =  1.0000000E-02  # minimum value of e-mesh points
     emax =   150.0000      # maximum value of e-mesh points
#    edel =  2.4039514E-02  # mesh width of e-mesh points
       ne =    400          # number of e-mesh points
#    data = ( e(i), i = 1, ne + 1 )
#           1.00000E-02  1.02433E-02  1.04925E-02  1.07478E-02  1.10093E-02
#           1.12772E-02  1.15516E-02  1.18326E-02  1.21205E-02  1.24154E-02
#           1.27175E-02  1.30269E-02  1.33439E-02  1.36686E-02  1.40011E-02
#           1.43418E-02  1.46907E-02  1.50482E-02  1.54143E-02  1.57894E-02
#           1.61735E-02  1.65670E-02  1.69701E-02  1.73830E-02  1.78060E-02
#           1.82392E-02  1.86830E-02  1.91375E-02  1.96032E-02  2.00801E-02
#           2.05687E-02  2.10692E-02  2.15818E-02  2.21069E-02  2.26448E-02
#           2.31957E-02  2.37601E-02  2.43382E-02  2.49304E-02  2.55369E-02
#           2.61583E-02  2.67947E-02  2.74467E-02  2.81145E-02  2.87985E-02
#           2.94992E-02  3.02169E-02  3.09521E-02  3.17052E-02  3.24766E-02
#           3.32668E-02  3.40762E-02  3.49053E-02  3.57546E-02  3.66246E-02
#           3.75157E-02  3.84284E-02  3.93634E-02  4.03212E-02  4.13022E-02
#           4.23071E-02  4.33365E-02  4.43909E-02  4.54710E-02  4.65773E-02
#           4.77106E-02  4.88714E-02  5.00605E-02  5.12785E-02  5.25262E-02
#           5.38042E-02  5.51133E-02  5.64542E-02  5.78278E-02  5.92348E-02
#           6.06760E-02  6.21523E-02  6.36645E-02  6.52135E-02  6.68002E-02
#           6.84255E-02  7.00904E-02  7.17957E-02  7.35426E-02  7.53319E-02
#           7.71648E-02  7.90423E-02  8.09655E-02  8.29354E-02  8.49533E-02
#           8.70203E-02  8.91376E-02  9.13064E-02  9.35279E-02  9.58035E-02
#           9.81345E-02  1.00522E-01  1.02968E-01  1.05473E-01  1.08040E-01
#           1.10668E-01  1.13361E-01  1.16119E-01  1.18944E-01  1.21838E-01
#           1.24803E-01  1.27839E-01  1.30950E-01  1.34136E-01  1.37399E-01
#           1.40742E-01  1.44167E-01  1.47675E-01  1.51268E-01  1.54948E-01
#           1.58718E-01  1.62580E-01  1.66535E-01  1.70587E-01  1.74738E-01
#           1.78989E-01  1.83344E-01  1.87805E-01  1.92375E-01  1.97055E-01
#           2.01850E-01  2.06761E-01  2.11792E-01  2.16945E-01  2.22223E-01
#           2.27630E-01  2.33169E-01  2.38842E-01  2.44653E-01  2.50605E-01
#           2.56703E-01  2.62949E-01  2.69346E-01  2.75900E-01  2.82613E-01
#           2.89489E-01  2.96532E-01  3.03747E-01  3.11138E-01  3.18708E-01
#           3.26462E-01  3.34405E-01  3.42542E-01  3.50876E-01  3.59413E-01
#           3.68158E-01  3.77116E-01  3.86291E-01  3.95690E-01  4.05317E-01
#           4.15179E-01  4.25281E-01  4.35628E-01  4.46227E-01  4.57084E-01
#           4.68205E-01  4.79597E-01  4.91266E-01  5.03219E-01  5.15463E-01
#           5.28005E-01  5.40851E-01  5.54011E-01  5.67490E-01  5.81298E-01
#           5.95441E-01  6.09929E-01  6.24769E-01  6.39970E-01  6.55541E-01
#           6.71491E-01  6.87828E-01  7.04564E-01  7.21706E-01  7.39266E-01
#           7.57253E-01  7.75678E-01  7.94551E-01  8.13883E-01  8.33685E-01
#           8.53969E-01  8.74747E-01  8.96030E-01  9.17831E-01  9.40163E-01
#           9.63038E-01  9.86469E-01  1.01047E+00  1.03506E+00  1.06024E+00
#           1.08604E+00  1.11246E+00  1.13953E+00  1.16725E+00  1.19565E+00
#           1.22474E+00  1.25454E+00  1.28507E+00  1.31633E+00  1.34836E+00
#           1.38117E+00  1.41477E+00  1.44920E+00  1.48446E+00  1.52057E+00
#           1.55757E+00  1.59547E+00  1.63429E+00  1.67405E+00  1.71478E+00
#           1.75650E+00  1.79924E+00  1.84302E+00  1.88786E+00  1.93379E+00
#           1.98084E+00  2.02904E+00  2.07841E+00  2.12898E+00  2.18078E+00
#           2.23384E+00  2.28819E+00  2.34386E+00  2.40089E+00  2.45930E+00
#           2.51914E+00  2.58043E+00  2.64322E+00  2.70753E+00  2.77341E+00
#           2.84088E+00  2.91001E+00  2.98081E+00  3.05333E+00  3.12762E+00
#           3.20372E+00  3.28167E+00  3.36152E+00  3.44330E+00  3.52708E+00
#           3.61290E+00  3.70080E+00  3.79085E+00  3.88308E+00  3.97756E+00
#           4.07434E+00  4.17347E+00  4.27501E+00  4.37903E+00  4.48557E+00
#           4.59471E+00  4.70650E+00  4.82102E+00  4.93832E+00  5.05847E+00
#           5.18155E+00  5.30762E+00  5.43676E+00  5.56904E+00  5.70453E+00
#           5.84333E+00  5.98550E+00  6.13114E+00  6.28031E+00  6.43312E+00
#           6.58964E+00  6.74997E+00  6.91420E+00  7.08243E+00  7.25475E+00
#           7.43126E+00  7.61207E+00  7.79728E+00  7.98700E+00  8.18133E+00
#           8.38038E+00  8.58428E+00  8.79315E+00  9.00709E+00  9.22624E+00
#           9.45072E+00  9.68067E+00  9.91620E+00  1.01575E+01  1.04046E+01
#           1.06578E+01  1.09171E+01  1.11827E+01  1.14548E+01  1.17335E+01
#           1.20190E+01  1.23114E+01  1.26109E+01  1.29178E+01  1.32321E+01
#           1.35540E+01  1.38838E+01  1.42216E+01  1.45676E+01  1.49221E+01
#           1.52851E+01  1.56570E+01  1.60380E+01  1.64282E+01  1.68279E+01
#           1.72374E+01  1.76568E+01  1.80864E+01  1.85264E+01  1.89772E+01
#           1.94389E+01  1.99119E+01  2.03963E+01  2.08926E+01  2.14009E+01
#           2.19216E+01  2.24550E+01  2.30014E+01  2.35610E+01  2.41343E+01
#           2.47215E+01  2.53230E+01  2.59391E+01  2.65702E+01  2.72167E+01
#           2.78789E+01  2.85572E+01  2.92520E+01  2.99637E+01  3.06928E+01
#           3.14396E+01  3.22045E+01  3.29881E+01  3.37907E+01  3.46128E+01
#           3.54550E+01  3.63177E+01  3.72013E+01  3.81064E+01  3.90336E+01
#           3.99833E+01  4.09561E+01  4.19526E+01  4.29734E+01  4.40189E+01
#           4.50900E+01  4.61870E+01  4.73108E+01  4.84619E+01  4.96410E+01
#           5.08488E+01  5.20860E+01  5.33533E+01  5.46514E+01  5.59812E+01
#           5.73432E+01  5.87384E+01  6.01676E+01  6.16315E+01  6.31311E+01
#           6.46671E+01  6.62405E+01  6.78522E+01  6.95031E+01  7.11941E+01
#           7.29263E+01  7.47007E+01  7.65182E+01  7.83800E+01  8.02870E+01
#           8.22405E+01  8.42414E+01  8.62911E+01  8.83906E+01  9.05412E+01
#           9.27442E+01  9.50007E+01  9.73122E+01  9.96799E+01  1.02105E+02
#           1.04589E+02  1.07134E+02  1.09741E+02  1.12411E+02  1.15146E+02
#           1.17948E+02  1.20817E+02  1.23757E+02  1.26768E+02  1.29852E+02
#           1.33012E+02  1.36248E+02  1.39563E+02  1.42959E+02  1.46437E+02
#           1.50000E+02
     unit =    2            # unit is [1/cm^2/(MeV/n)/source]
     axis =  eng            # axis of output
     file = detector-18.out  # file name of output for the above axis
   output = f-curr          # surface crossing forward current spectrum
     part =  neutron  
# kf/name :  2112     
#    used :        main (  %)        temp (  %)       total (  %)
#  memory :         414 (  0)           0 (  0)         414 (  0)

#------------------------------------------------------------------------------
#newpage:
#   no. =    1   reg = 117 - 217

x: Energy [MeV/n]
y:  F-Curr [1/cm^2/(MeV/n)/source]         
p: xlog ylog afac(0.8) form(0.9)
h: n            x            y(neutron ),hh0l   n 
#  e-lower      e-upper      neutron     r.err 
   1.0000E-02   1.0243E-02   5.5285E-03  0.0385
   1.0243E-02   1.0493E-02   5.1546E-03  0.0394
   1.0493E-02   1.0748E-02   4.9824E-03  0.0396
   1.0748E-02   1.1009E-02   4.9606E-03  0.0391
   1.1009E-02   1.1277E-02   5.1156E-03  0.0381
   1.1277E-02   1.1552E-02   4.6939E-03  0.0393
   1.1552E-02   1.1833E-02   4.3812E-03  0.0402
   1.1833E-02   1.2121E-02   4.4840E-03  0.0392
   1.2121E-02   1.2415E-02   4.4262E-03  0.0390
   1.2415E-02   1.2718E-02   4.2434E-03  0.0394
   1.2718E-02   1.3027E-02   3.9929E-03  0.0401
   1.3027E-02   1.3344E-02   4.1053E-03  0.0391
   1.3344E-02   1.3669E-02   4.0620E-03  0.0389
   1.3669E-02   1.4001E-02   3.4703E-03  0.0415
   1.4001E-02   1.4342E-02   3.7190E-03  0.0396
   1.4342E-02   1.4691E-02   3.6414E-03  0.0396
   1.4691E-02   1.5048E-02   3.6773E-03  0.0389
   1.5048E-02   1.5414E-02   3.3397E-03  0.0403
   1.5414E-02   1.5789E-02   3.4317E-03  0.0393
   1.5789E-02   1.6174E-02   3.2549E-03  0.0399
   1.6174E-02   1.6567E-02   3.1812E-03  0.0398
   1.6567E-02   1.6970E-02   3.0858E-03  0.0400
   1.6970E-02   1.7383E-02   3.1379E-03  0.0392
   1.7383E-02   1.7806E-02   3.2140E-03  0.0382
   1.7806E-02   1.8239E-02   2.8771E-03  0.0399
   1.8239E-02   1.8683E-02   3.0562E-03  0.0383
   1.8683E-02   1.9138E-02   2.7698E-03  0.0397
   1.9138E-02   1.9603E-02   2.9099E-03  0.0383
   1.9603E-02   2.0080E-02   2.6793E-03  0.0395
   2.0080E-02   2.0569E-02   2.6407E-03  0.0393
   2.0569E-02   2.1069E-02   2.6754E-03  0.0385
   2.1069E-02   2.1582E-02   2.3237E-03  0.0409
   2.1582E-02   2.2107E-02   2.5230E-03  0.0388
   2.2107E-02   2.2645E-02   2.3314E-03  0.0399
   2.2645E-02   2.3196E-02   2.2803E-03  0.0398
   2.3196E-02   2.3760E-02   2.1786E-03  0.0402
   2.3760E-02   2.4338E-02   2.1913E-03  0.0396
   2.4338E-02   2.4930E-02   2.1570E-03  0.0395
   2.4930E-02   2.5537E-02   2.0957E-03  0.0396
   2.5537E-02   2.6158E-02   1.9828E-03  0.0402
   2.6158E-02   2.6795E-02   2.0600E-03  0.0390
   2.6795E-02   2.7447E-02   2.0214E-03  0.0389
   2.7447E-02   2.8114E-02   1.7499E-03  0.0413
   2.8114E-02   2.8799E-02   1.9216E-03  0.0389
   2.8799E-02   2.9499E-02   1.8457E-03  0.0392
   2.9499E-02   3.0217E-02   1.8419E-03  0.0388
   3.0217E-02   3.0952E-02   1.8732E-03  0.0380
   3.0952E-02   3.1705E-02   1.7899E-03  0.0384
   3.1705E-02   3.2477E-02   1.7583E-03  0.0383
   3.2477E-02   3.3267E-02   1.7853E-03  0.0375
   3.3267E-02   3.4076E-02   1.5991E-03  0.0392
   3.4076E-02   3.4905E-02   1.6001E-03  0.0387
   3.4905E-02   3.5755E-02   1.5241E-03  0.0392
   3.5755E-02   3.6625E-02   1.5379E-03  0.0386
   3.6625E-02   3.7516E-02   1.4607E-03  0.0390
   3.7516E-02   3.8428E-02   1.4475E-03  0.0388
   3.8428E-02   3.9363E-02   1.3951E-03  0.0391
   3.9363E-02   4.0321E-02   1.3861E-03  0.0387
   4.0321E-02   4.1302E-02   1.3244E-03  0.0391
   4.1302E-02   4.2307E-02   1.3321E-03  0.0386
   4.2307E-02   4.3337E-02   1.1726E-03  0.0406
   4.3337E-02   4.4391E-02   1.2179E-03  0.0393
   4.4391E-02   4.5471E-02   1.1934E-03  0.0393
   4.5471E-02   4.6577E-02   1.1862E-03  0.0389
   4.6577E-02   4.7711E-02   1.1514E-03  0.0391
   4.7711E-02   4.8871E-02   1.1516E-03  0.0386
   4.8871E-02   5.0061E-02   1.1510E-03  0.0381
   5.0061E-02   5.1279E-02   1.0445E-03  0.0395
   5.1279E-02   5.2526E-02   1.0315E-03  0.0393
   5.2526E-02   5.3804E-02   1.0287E-03  0.0389
   5.3804E-02   5.5113E-02   1.0402E-03  0.0382
   5.5113E-02   5.6454E-02   1.0137E-03  0.0383
   5.6454E-02   5.7828E-02   1.0008E-03  0.0380
   5.7828E-02   5.9235E-02   8.7425E-04  0.0402
   5.9235E-02   6.0676E-02   9.2304E-04  0.0386
   6.0676E-02   6.2152E-02   8.8275E-04  0.0391
   6.2152E-02   6.3665E-02   8.8511E-04  0.0385
   6.3665E-02   6.5214E-02   8.8118E-04  0.0381
   6.5214E-02   6.6800E-02   8.1558E-04  0.0392
   6.6800E-02   6.8426E-02   8.5636E-04  0.0378
   6.8426E-02   7.0090E-02   8.4752E-04  0.0375
   7.0090E-02   7.1796E-02   7.8526E-04  0.0385
   7.1796E-02   7.3543E-02   8.1447E-04  0.0374
   7.3543E-02   7.5332E-02   7.3861E-04  0.0387
   7.5332E-02   7.7165E-02   7.4787E-04  0.0381
   7.7165E-02   7.9042E-02   7.5856E-04  0.0374
   7.9042E-02   8.0965E-02   7.6337E-04  0.0368
   8.0965E-02   8.2935E-02   6.9887E-04  0.0380
   8.2935E-02   8.4953E-02   6.7430E-04  0.0382
   8.4953E-02   8.7020E-02   6.3678E-04  0.0389
   8.7020E-02   8.9138E-02   6.6519E-04  0.0376
   8.9138E-02   9.1306E-02   6.9326E-04  0.0364
   9.1306E-02   9.3528E-02   5.8822E-04  0.0390
   9.3528E-02   9.5804E-02   6.2032E-04  0.0375
   9.5804E-02   9.8134E-02   5.8902E-04  0.0380
   9.8134E-02   1.0052E-01   5.4483E-04  0.0391
   1.0052E-01   1.0297E-01   5.8879E-04  0.0371
   1.0297E-01   1.0547E-01   5.6688E-04  0.0374
   1.0547E-01   1.0804E-01   5.1750E-04  0.0387
   1.0804E-01   1.1067E-01   5.7954E-04  0.0361
   1.1067E-01   1.1336E-01   5.1687E-04  0.0378
   1.1336E-01   1.1612E-01   5.2801E-04  0.0370
   1.1612E-01   1.1894E-01   5.2995E-04  0.0364
   1.1894E-01   1.2184E-01   4.5979E-04  0.0387
   1.2184E-01   1.2480E-01   5.0672E-04  0.0364
   1.2480E-01   1.2784E-01   4.6342E-04  0.0376
   1.2784E-01   1.3095E-01   4.6677E-04  0.0370
   1.3095E-01   1.3414E-01   4.5316E-04  0.0371
   1.3414E-01   1.3740E-01   4.5006E-04  0.0367
   1.3740E-01   1.4074E-01   4.3644E-04  0.0369
   1.4074E-01   1.4417E-01   4.2810E-04  0.0368
   1.4417E-01   1.4767E-01   4.0931E-04  0.0372
   1.4767E-01   1.5127E-01   3.8666E-04  0.0378
   1.5127E-01   1.5495E-01   3.9718E-04  0.0369
   1.5495E-01   1.5872E-01   4.0217E-04  0.0362
   1.5872E-01   1.6258E-01   3.6818E-04  0.0374
   1.6258E-01   1.6654E-01   3.7848E-04  0.0364
   1.6654E-01   1.7059E-01   3.6041E-04  0.0369
   1.7059E-01   1.7474E-01   3.6473E-04  0.0362
   1.7474E-01   1.7899E-01   3.5639E-04  0.0362
   1.7899E-01   1.8334E-01   3.5193E-04  0.0360
   1.8334E-01   1.8781E-01   3.4638E-04  0.0358
   1.8781E-01   1.9237E-01   3.5097E-04  0.0352
   1.9237E-01   1.9706E-01   3.3027E-04  0.0359
   1.9706E-01   2.0185E-01   3.2574E-04  0.0357
   2.0185E-01   2.0676E-01   3.2467E-04  0.0353
   2.0676E-01   2.1179E-01   3.5193E-04  0.0335
   2.1179E-01   2.1694E-01   3.6571E-04  0.0325
   2.1694E-01   2.2222E-01   3.7489E-04  0.0317
   2.2222E-01   2.2763E-01   3.6866E-04  0.0315
   2.2763E-01   2.3317E-01   3.8725E-04  0.0304
   2.3317E-01   2.3884E-01   3.9175E-04  0.0299
   2.3884E-01   2.4465E-01   4.1967E-04  0.0285
   2.4465E-01   2.5061E-01   4.3765E-04  0.0276
   2.5061E-01   2.5670E-01   4.5114E-04  0.0269
   2.5670E-01   2.6295E-01   4.4929E-04  0.0266
   2.6295E-01   2.6935E-01   4.7093E-04  0.0257
   2.6935E-01   2.7590E-01   4.8217E-04  0.0251
   2.7590E-01   2.8261E-01   5.0598E-04  0.0242
   2.8261E-01   2.8949E-01   5.2435E-04  0.0235
   2.8949E-01   2.9653E-01   5.2858E-04  0.0231
   2.9653E-01   3.0375E-01   5.5583E-04  0.0223
   3.0375E-01   3.1114E-01   5.6518E-04  0.0218
   3.1114E-01   3.1871E-01   5.7350E-04  0.0214
   3.1871E-01   3.2646E-01   6.0001E-04  0.0207
   3.2646E-01   3.3441E-01   6.2537E-04  0.0200
   3.3441E-01   3.4254E-01   6.3005E-04  0.0197
   3.4254E-01   3.5088E-01   6.4772E-04  0.0192
   3.5088E-01   3.5941E-01   6.6699E-04  0.0187
   3.5941E-01   3.6816E-01   6.9618E-04  0.0181
   3.6816E-01   3.7712E-01   6.8358E-04  0.0180
   3.7712E-01   3.8629E-01   6.9021E-04  0.0177
   3.8629E-01   3.9569E-01   6.8806E-04  0.0175
   3.9569E-01   4.0532E-01   7.4556E-04  0.0166
   4.0532E-01   4.1518E-01   7.3377E-04  0.0166
   4.1518E-01   4.2528E-01   7.3897E-04  0.0163
   4.2528E-01   4.3563E-01   7.5541E-04  0.0159
   4.3563E-01   4.4623E-01   7.8116E-04  0.0155
   4.4623E-01   4.5708E-01   7.9062E-04  0.0152
   4.5708E-01   4.6821E-01   8.0827E-04  0.0149
   4.6821E-01   4.7960E-01   7.9670E-04  0.0148
   4.7960E-01   4.9127E-01   8.1363E-04  0.0145
   4.9127E-01   5.0322E-01   8.3083E-04  0.0141
   5.0322E-01   5.1546E-01   8.2661E-04  0.0140
   5.1546E-01   5.2800E-01   8.1367E-04  0.0139
   5.2800E-01   5.4085E-01   8.3325E-04  0.0136
   5.4085E-01   5.5401E-01   8.2945E-04  0.0135
   5.5401E-01   5.6749E-01   8.3862E-04  0.0132
   5.6749E-01   5.8130E-01   8.4587E-04  0.0130
   5.8130E-01   5.9544E-01   8.2984E-04  0.0130
   5.9544E-01   6.0993E-01   8.4836E-04  0.0127
   6.0993E-01   6.2477E-01   8.3735E-04  0.0126
   6.2477E-01   6.3997E-01   8.4845E-04  0.0124
   6.3997E-01   6.5554E-01   8.5161E-04  0.0122
   6.5554E-01   6.7149E-01   8.5917E-04  0.0120
   6.7149E-01   6.8783E-01   8.4832E-04  0.0120
   6.8783E-01   7.0456E-01   8.4522E-04  0.0118
   7.0456E-01   7.2171E-01   8.4511E-04  0.0117
   7.2171E-01   7.3927E-01   8.4078E-04  0.0116
   7.3927E-01   7.5725E-01   8.3819E-04  0.0115
   7.5725E-01   7.7568E-01   8.2499E-04  0.0114
   7.7568E-01   7.9455E-01   8.0573E-04  0.0114
   7.9455E-01   8.1388E-01   7.9517E-04  0.0113
   8.1388E-01   8.3368E-01   8.0939E-04  0.0111
   8.3368E-01   8.5397E-01   7.9137E-04  0.0111
   8.5397E-01   8.7475E-01   8.0141E-04  0.0109
   8.7475E-01   8.9603E-01   7.6984E-04  0.0110
   8.9603E-01   9.1783E-01   7.7302E-04  0.0108
   9.1783E-01   9.4016E-01   7.7061E-04  0.0107
   9.4016E-01   9.6304E-01   7.5936E-04  0.0107
   9.6304E-01   9.8647E-01   7.3369E-04  0.0107
   9.8647E-01   1.0105E+00   7.4587E-04  0.0105
   1.0105E+00   1.0351E+00   7.3624E-04  0.0104
   1.0351E+00   1.0602E+00   7.1167E-04  0.0105
   1.0602E+00   1.0860E+00   7.0754E-04  0.0104
   1.0860E+00   1.1125E+00   6.8990E-04  0.0104
   1.1125E+00   1.1395E+00   6.6899E-04  0.0104
   1.1395E+00   1.1673E+00   6.5886E-04  0.0104
   1.1673E+00   1.1957E+00   6.4818E-04  0.0103
   1.1957E+00   1.2247E+00   6.5423E-04  0.0102
   1.2247E+00   1.2545E+00   6.3381E-04  0.0102
   1.2545E+00   1.2851E+00   6.3616E-04  0.0101
   1.2851E+00   1.3163E+00   6.1828E-04  0.0101
   1.3163E+00   1.3484E+00   5.8538E-04  0.0102
   1.3484E+00   1.3812E+00   5.9321E-04  0.0101
   1.3812E+00   1.4148E+00   5.7227E-04  0.0101
   1.4148E+00   1.4492E+00   5.6484E-04  0.0101
   1.4492E+00   1.4845E+00   5.4982E-04  0.0101
   1.4845E+00   1.5206E+00   5.4178E-04  0.0100
   1.5206E+00   1.5576E+00   5.3097E-04  0.0100
   1.5576E+00   1.5955E+00   5.2169E-04  0.0100
   1.5955E+00   1.6343E+00   5.0935E-04  0.0100
   1.6343E+00   1.6741E+00   4.8929E-04  0.0100
   1.6741E+00   1.7148E+00   4.8777E-04  0.0099
   1.7148E+00   1.7565E+00   4.7320E-04  0.0100
   1.7565E+00   1.7992E+00   4.6321E-04  0.0099
   1.7992E+00   1.8430E+00   4.6715E-04  0.0098
   1.8430E+00   1.8879E+00   4.5360E-04  0.0098
   1.8879E+00   1.9338E+00   4.4029E-04  0.0098
   1.9338E+00   1.9808E+00   4.2507E-04  0.0099
   1.9808E+00   2.0290E+00   4.1970E-04  0.0098
   2.0290E+00   2.0784E+00   4.1044E-04  0.0098
   2.0784E+00   2.1290E+00   4.0289E-04  0.0098
   2.1290E+00   2.1808E+00   4.0282E-04  0.0097
   2.1808E+00   2.2338E+00   3.8207E-04  0.0098
   2.2338E+00   2.2882E+00   3.7671E-04  0.0098
   2.2882E+00   2.3439E+00   3.7037E-04  0.0097
   2.3439E+00   2.4009E+00   3.6483E-04  0.0097
   2.4009E+00   2.4593E+00   3.6089E-04  0.0096
   2.4593E+00   2.5191E+00   3.6001E-04  0.0095
   2.5191E+00   2.5804E+00   3.5368E-04  0.0095
   2.5804E+00   2.6432E+00   3.3783E-04  0.0096
   2.6432E+00   2.7075E+00   3.3422E-04  0.0095
   2.7075E+00   2.7734E+00   3.3045E-04  0.0095
   2.7734E+00   2.8409E+00   3.2388E-04  0.0094
   2.8409E+00   2.9100E+00   3.1615E-04  0.0095
   2.9100E+00   2.9808E+00   3.1591E-04  0.0093
   2.9808E+00   3.0533E+00   3.0953E-04  0.0093
   3.0533E+00   3.1276E+00   3.0690E-04  0.0093
   3.1276E+00   3.2037E+00   3.0348E-04  0.0092
   3.2037E+00   3.2817E+00   2.9661E-04  0.0092
   3.2817E+00   3.3615E+00   2.9218E-04  0.0092
   3.3615E+00   3.4433E+00   2.9295E-04  0.0090
   3.4433E+00   3.5271E+00   2.8791E-04  0.0090
   3.5271E+00   3.6129E+00   2.7817E-04  0.0090
   3.6129E+00   3.7008E+00   2.7794E-04  0.0089
   3.7008E+00   3.7908E+00   2.7598E-04  0.0089
   3.7908E+00   3.8831E+00   2.7633E-04  0.0088
   3.8831E+00   3.9776E+00   2.7110E-04  0.0087
   3.9776E+00   4.0743E+00   2.6595E-04  0.0087
   4.0743E+00   4.1735E+00   2.6308E-04  0.0087
   4.1735E+00   4.2750E+00   2.5707E-04  0.0087
   4.2750E+00   4.3790E+00   2.5183E-04  0.0087
   4.3790E+00   4.4856E+00   2.4491E-04  0.0087
   4.4856E+00   4.5947E+00   2.4311E-04  0.0086
   4.5947E+00   4.7065E+00   2.3821E-04  0.0086
   4.7065E+00   4.8210E+00   2.3833E-04  0.0085
   4.8210E+00   4.9383E+00   2.2923E-04  0.0086
   4.9383E+00   5.0585E+00   2.1994E-04  0.0086
   5.0585E+00   5.1815E+00   2.1220E-04  0.0087
   5.1815E+00   5.3076E+00   2.0794E-04  0.0087
   5.3076E+00   5.4368E+00   2.0492E-04  0.0086
   5.4368E+00   5.5690E+00   2.0177E-04  0.0086
   5.5690E+00   5.7045E+00   1.9634E-04  0.0086
   5.7045E+00   5.8433E+00   1.9445E-04  0.0085
   5.8433E+00   5.9855E+00   1.8638E-04  0.0086
   5.9855E+00   6.1311E+00   1.8337E-04  0.0086
   6.1311E+00   6.2803E+00   1.8027E-04  0.0086
   6.2803E+00   6.4331E+00   1.7880E-04  0.0085
   6.4331E+00   6.5896E+00   1.7434E-04  0.0085
   6.5896E+00   6.7500E+00   1.7125E-04  0.0085
   6.7500E+00   6.9142E+00   1.6832E-04  0.0085
   6.9142E+00   7.0824E+00   1.6310E-04  0.0085
   7.0824E+00   7.2548E+00   1.5834E-04  0.0085
   7.2548E+00   7.4313E+00   1.5478E-04  0.0085
   7.4313E+00   7.6121E+00   1.5015E-04  0.0085
   7.6121E+00   7.7973E+00   1.4788E-04  0.0085
   7.7973E+00   7.9870E+00   1.4267E-04  0.0086
   7.9870E+00   8.1813E+00   1.4023E-04  0.0085
   8.1813E+00   8.3804E+00   1.3554E-04  0.0086
   8.3804E+00   8.5843E+00   1.3200E-04  0.0086
   8.5843E+00   8.7931E+00   1.2925E-04  0.0086
   8.7931E+00   9.0071E+00   1.2439E-04  0.0086
   9.0071E+00   9.2262E+00   1.2106E-04  0.0087
   9.2262E+00   9.4507E+00   1.1844E-04  0.0087
   9.4507E+00   9.6807E+00   1.1346E-04  0.0087
   9.6807E+00   9.9162E+00   1.1097E-04  0.0087
   9.9162E+00   1.0157E+01   1.0549E-04  0.0088
   1.0157E+01   1.0405E+01   1.0748E-04  0.0087
   1.0405E+01   1.0658E+01   1.1040E-04  0.0084
   1.0658E+01   1.0917E+01   1.0878E-04  0.0084
   1.0917E+01   1.1183E+01   1.0491E-04  0.0085
   1.1183E+01   1.1455E+01   9.9689E-05  0.0086
   1.1455E+01   1.1733E+01   9.6313E-05  0.0086
   1.1733E+01   1.2019E+01   9.1845E-05  0.0087
   1.2019E+01   1.2311E+01   8.7564E-05  0.0088
   1.2311E+01   1.2611E+01   8.1575E-05  0.0090
   1.2611E+01   1.2918E+01   7.8123E-05  0.0091
   1.2918E+01   1.3232E+01   7.6089E-05  0.0091
   1.3232E+01   1.3554E+01   7.3256E-05  0.0092
   1.3554E+01   1.3884E+01   7.0209E-05  0.0093
   1.3884E+01   1.4222E+01   6.6934E-05  0.0094
   1.4222E+01   1.4568E+01   6.2766E-05  0.0096
   1.4568E+01   1.4922E+01   5.8708E-05  0.0098
   1.4922E+01   1.5285E+01   5.3905E-05  0.0101
   1.5285E+01   1.5657E+01   5.2038E-05  0.0102
   1.5657E+01   1.6038E+01   4.7928E-05  0.0105
   1.6038E+01   1.6428E+01   4.4500E-05  0.0107
   1.6428E+01   1.6828E+01   4.1697E-05  0.0110
   1.6828E+01   1.7237E+01   3.9536E-05  0.0111
   1.7237E+01   1.7657E+01   3.6332E-05  0.0115
   1.7657E+01   1.8086E+01   3.4536E-05  0.0116
   1.8086E+01   1.8526E+01   3.1527E-05  0.0120
   1.8526E+01   1.8977E+01   2.9284E-05  0.0123
   1.8977E+01   1.9439E+01   2.7569E-05  0.0125
   1.9439E+01   1.9912E+01   2.6030E-05  0.0127
   1.9912E+01   2.0396E+01   2.3283E-05  0.0133
   2.0396E+01   2.0893E+01   2.1207E-05  0.0138
   2.0893E+01   2.1401E+01   1.8952E-05  0.0144
   2.1401E+01   2.1922E+01   1.7868E-05  0.0147
   2.1922E+01   2.2455E+01   1.6244E-05  0.0152
   2.2455E+01   2.3001E+01   1.4127E-05  0.0161
   2.3001E+01   2.3561E+01   1.3201E-05  0.0165
   2.3561E+01   2.4134E+01   1.1653E-05  0.0173
   2.4134E+01   2.4721E+01   1.0388E-05  0.0181
   2.4721E+01   2.5323E+01   9.5695E-06  0.0186
   2.5323E+01   2.5939E+01   8.2808E-06  0.0198
   2.5939E+01   2.6570E+01   7.2633E-06  0.0209
   2.6570E+01   2.7217E+01   6.3607E-06  0.0221
   2.7217E+01   2.7879E+01   5.7747E-06  0.0229
   2.7879E+01   2.8557E+01   4.9918E-06  0.0243
   2.8557E+01   2.9252E+01   4.0644E-06  0.0266
   2.9252E+01   2.9964E+01   3.5098E-06  0.0283
   2.9964E+01   3.0693E+01   3.1054E-06  0.0297
   3.0693E+01   3.1440E+01   2.6969E-06  0.0315
   3.1440E+01   3.2205E+01   2.1544E-06  0.0348
   3.2205E+01   3.2988E+01   1.8199E-06  0.0375
   3.2988E+01   3.3791E+01   1.6745E-06  0.0386
   3.3791E+01   3.4613E+01   1.2625E-06  0.0439
   3.4613E+01   3.5455E+01   9.9506E-07  0.0489
   3.5455E+01   3.6318E+01   8.1145E-07  0.0535
   3.6318E+01   3.7201E+01   6.8807E-07  0.0574
   3.7201E+01   3.8106E+01   5.4135E-07  0.0639
   3.8106E+01   3.9034E+01   4.0338E-07  0.0731
   3.9034E+01   3.9983E+01   3.7695E-07  0.0747
   3.9983E+01   4.0956E+01   2.9193E-07  0.0839
   4.0956E+01   4.1953E+01   2.1676E-07  0.0962
   4.1953E+01   4.2973E+01   1.6263E-07  0.1098
   4.2973E+01   4.4019E+01   1.4729E-07  0.1140
   4.4019E+01   4.5090E+01   1.2511E-07  0.1222
   4.5090E+01   4.6187E+01   6.9275E-08  0.1622
   4.6187E+01   4.7311E+01   7.2969E-08  0.1562
   4.7311E+01   4.8462E+01   5.5599E-08  0.1768
   4.8462E+01   4.9641E+01   3.7316E-08  0.2132
   4.9641E+01   5.0849E+01   2.9806E-08  0.2357
   5.0849E+01   5.2086E+01   2.2632E-08  0.2673
   5.2086E+01   5.3353E+01   2.2094E-08  0.2673
   5.3353E+01   5.4651E+01   1.6947E-08  0.3015
   5.4651E+01   5.5981E+01   1.3537E-08  0.3333
   5.5981E+01   5.7343E+01   1.1747E-08  0.3536
   5.7343E+01   5.8738E+01   5.7339E-09  0.5000
   5.8738E+01   6.0168E+01   1.3994E-08  0.3162
   6.0168E+01   6.1632E+01   4.0986E-09  0.5774
   6.1632E+01   6.3131E+01   2.6675E-09  0.7071
   6.3131E+01   6.4667E+01   3.9062E-09  0.5774
   6.4667E+01   6.6240E+01   3.8134E-09  0.5774
   6.6240E+01   6.7852E+01   1.2409E-09  1.0000
   6.7852E+01   6.9503E+01   0.0000E+00  0.0000
   6.9503E+01   7.1194E+01   0.0000E+00  0.0000
   7.1194E+01   7.2926E+01   0.0000E+00  0.0000
   7.2926E+01   7.4701E+01   0.0000E+00  0.0000
   7.4701E+01   7.6518E+01   0.0000E+00  0.0000
   7.6518E+01   7.8380E+01   0.0000E+00  0.0000
   7.8380E+01   8.0287E+01   0.0000E+00  0.0000
   8.0287E+01   8.2240E+01   0.0000E+00  0.0000
   8.2240E+01   8.4241E+01   0.0000E+00  0.0000
   8.4241E+01   8.6291E+01   0.0000E+00  0.0000
   8.6291E+01   8.8391E+01   0.0000E+00  0.0000
   8.8391E+01   9.0541E+01   0.0000E+00  0.0000
   9.0541E+01   9.2744E+01   0.0000E+00  0.0000
   9.2744E+01   9.5001E+01   0.0000E+00  0.0000
   9.5001E+01   9.7312E+01   0.0000E+00  0.0000
   9.7312E+01   9.9680E+01   0.0000E+00  0.0000
   9.9680E+01   1.0211E+02   0.0000E+00  0.0000
   1.0211E+02   1.0459E+02   0.0000E+00  0.0000
   1.0459E+02   1.0713E+02   0.0000E+00  0.0000
   1.0713E+02   1.0974E+02   0.0000E+00  0.0000
   1.0974E+02   1.1241E+02   0.0000E+00  0.0000
   1.1241E+02   1.1515E+02   0.0000E+00  0.0000
   1.1515E+02   1.1795E+02   0.0000E+00  0.0000
   1.1795E+02   1.2082E+02   0.0000E+00  0.0000
   1.2082E+02   1.2376E+02   0.0000E+00  0.0000
   1.2376E+02   1.2677E+02   0.0000E+00  0.0000
   1.2677E+02   1.2985E+02   0.0000E+00  0.0000
   1.2985E+02   1.3301E+02   0.0000E+00  0.0000
   1.3301E+02   1.3625E+02   0.0000E+00  0.0000
   1.3625E+02   1.3956E+02   0.0000E+00  0.0000
   1.3956E+02   1.4296E+02   0.0000E+00  0.0000
   1.4296E+02   1.4644E+02   0.0000E+00  0.0000
   1.4644E+02   1.5000E+02   0.0000E+00  0.0000

#   sum over                 2.4728E-05
'no. =    1   reg = 117 - 217'
msuc: {\huge [t-cross] in region mesh}
msdr: {\it plotted by \ANGEL \version}
msdl: {\it calculated by \PHITS  3.26}
wt: s(0.7)
\vspace{-3}
  region surface crossing
  area  &=&   1.0000E+00 [cm^2]
e:
 
# Information for Restart Calculation
# This calculation was newly started
# istdev =  2 # 1:Batch variance, 2:History variance
# resc2  = 5.00000000000000000E+08 # Total source weight or Total source weight / maxcas
# resc3  = 5.00000000000000000E+08 # Total history number or Total batch number
# maxcas =   500000000 # History / Batch, only used for istdev=1
# bitrseed = 1101101111010011011000101101110001100110110010110001010100010001 # bit data of rseed
