[ T-Cross ]
    title = [t-cross] in region mesh
     mesh =  reg            # mesh type is region-wise
      reg =    1            # number of crossing regions
      non     r-from    r-to       area
      1       100       200        1.000000    
   e-type =    3            # e-mesh is log given by emin, emax and ne
     emin =  1.0000000E-02  # minimum value of e-mesh points
     emax =   150.0000      # maximum value of e-mesh points
#    edel =  2.4039514E-02  # mesh width of e-mesh points
       ne =    400          # number of e-mesh points
#    data = ( e(i), i = 1, ne + 1 )
#           1.00000E-02  1.02433E-02  1.04925E-02  1.07478E-02  1.10093E-02
#           1.12772E-02  1.15516E-02  1.18326E-02  1.21205E-02  1.24154E-02
#           1.27175E-02  1.30269E-02  1.33439E-02  1.36686E-02  1.40011E-02
#           1.43418E-02  1.46907E-02  1.50482E-02  1.54143E-02  1.57894E-02
#           1.61735E-02  1.65670E-02  1.69701E-02  1.73830E-02  1.78060E-02
#           1.82392E-02  1.86830E-02  1.91375E-02  1.96032E-02  2.00801E-02
#           2.05687E-02  2.10692E-02  2.15818E-02  2.21069E-02  2.26448E-02
#           2.31957E-02  2.37601E-02  2.43382E-02  2.49304E-02  2.55369E-02
#           2.61583E-02  2.67947E-02  2.74467E-02  2.81145E-02  2.87985E-02
#           2.94992E-02  3.02169E-02  3.09521E-02  3.17052E-02  3.24766E-02
#           3.32668E-02  3.40762E-02  3.49053E-02  3.57546E-02  3.66246E-02
#           3.75157E-02  3.84284E-02  3.93634E-02  4.03212E-02  4.13022E-02
#           4.23071E-02  4.33365E-02  4.43909E-02  4.54710E-02  4.65773E-02
#           4.77106E-02  4.88714E-02  5.00605E-02  5.12785E-02  5.25262E-02
#           5.38042E-02  5.51133E-02  5.64542E-02  5.78278E-02  5.92348E-02
#           6.06760E-02  6.21523E-02  6.36645E-02  6.52135E-02  6.68002E-02
#           6.84255E-02  7.00904E-02  7.17957E-02  7.35426E-02  7.53319E-02
#           7.71648E-02  7.90423E-02  8.09655E-02  8.29354E-02  8.49533E-02
#           8.70203E-02  8.91376E-02  9.13064E-02  9.35279E-02  9.58035E-02
#           9.81345E-02  1.00522E-01  1.02968E-01  1.05473E-01  1.08040E-01
#           1.10668E-01  1.13361E-01  1.16119E-01  1.18944E-01  1.21838E-01
#           1.24803E-01  1.27839E-01  1.30950E-01  1.34136E-01  1.37399E-01
#           1.40742E-01  1.44167E-01  1.47675E-01  1.51268E-01  1.54948E-01
#           1.58718E-01  1.62580E-01  1.66535E-01  1.70587E-01  1.74738E-01
#           1.78989E-01  1.83344E-01  1.87805E-01  1.92375E-01  1.97055E-01
#           2.01850E-01  2.06761E-01  2.11792E-01  2.16945E-01  2.22223E-01
#           2.27630E-01  2.33169E-01  2.38842E-01  2.44653E-01  2.50605E-01
#           2.56703E-01  2.62949E-01  2.69346E-01  2.75900E-01  2.82613E-01
#           2.89489E-01  2.96532E-01  3.03747E-01  3.11138E-01  3.18708E-01
#           3.26462E-01  3.34405E-01  3.42542E-01  3.50876E-01  3.59413E-01
#           3.68158E-01  3.77116E-01  3.86291E-01  3.95690E-01  4.05317E-01
#           4.15179E-01  4.25281E-01  4.35628E-01  4.46227E-01  4.57084E-01
#           4.68205E-01  4.79597E-01  4.91266E-01  5.03219E-01  5.15463E-01
#           5.28005E-01  5.40851E-01  5.54011E-01  5.67490E-01  5.81298E-01
#           5.95441E-01  6.09929E-01  6.24769E-01  6.39970E-01  6.55541E-01
#           6.71491E-01  6.87828E-01  7.04564E-01  7.21706E-01  7.39266E-01
#           7.57253E-01  7.75678E-01  7.94551E-01  8.13883E-01  8.33685E-01
#           8.53969E-01  8.74747E-01  8.96030E-01  9.17831E-01  9.40163E-01
#           9.63038E-01  9.86469E-01  1.01047E+00  1.03506E+00  1.06024E+00
#           1.08604E+00  1.11246E+00  1.13953E+00  1.16725E+00  1.19565E+00
#           1.22474E+00  1.25454E+00  1.28507E+00  1.31633E+00  1.34836E+00
#           1.38117E+00  1.41477E+00  1.44920E+00  1.48446E+00  1.52057E+00
#           1.55757E+00  1.59547E+00  1.63429E+00  1.67405E+00  1.71478E+00
#           1.75650E+00  1.79924E+00  1.84302E+00  1.88786E+00  1.93379E+00
#           1.98084E+00  2.02904E+00  2.07841E+00  2.12898E+00  2.18078E+00
#           2.23384E+00  2.28819E+00  2.34386E+00  2.40089E+00  2.45930E+00
#           2.51914E+00  2.58043E+00  2.64322E+00  2.70753E+00  2.77341E+00
#           2.84088E+00  2.91001E+00  2.98081E+00  3.05333E+00  3.12762E+00
#           3.20372E+00  3.28167E+00  3.36152E+00  3.44330E+00  3.52708E+00
#           3.61290E+00  3.70080E+00  3.79085E+00  3.88308E+00  3.97756E+00
#           4.07434E+00  4.17347E+00  4.27501E+00  4.37903E+00  4.48557E+00
#           4.59471E+00  4.70650E+00  4.82102E+00  4.93832E+00  5.05847E+00
#           5.18155E+00  5.30762E+00  5.43676E+00  5.56904E+00  5.70453E+00
#           5.84333E+00  5.98550E+00  6.13114E+00  6.28031E+00  6.43312E+00
#           6.58964E+00  6.74997E+00  6.91420E+00  7.08243E+00  7.25475E+00
#           7.43126E+00  7.61207E+00  7.79728E+00  7.98700E+00  8.18133E+00
#           8.38038E+00  8.58428E+00  8.79315E+00  9.00709E+00  9.22624E+00
#           9.45072E+00  9.68067E+00  9.91620E+00  1.01575E+01  1.04046E+01
#           1.06578E+01  1.09171E+01  1.11827E+01  1.14548E+01  1.17335E+01
#           1.20190E+01  1.23114E+01  1.26109E+01  1.29178E+01  1.32321E+01
#           1.35540E+01  1.38838E+01  1.42216E+01  1.45676E+01  1.49221E+01
#           1.52851E+01  1.56570E+01  1.60380E+01  1.64282E+01  1.68279E+01
#           1.72374E+01  1.76568E+01  1.80864E+01  1.85264E+01  1.89772E+01
#           1.94389E+01  1.99119E+01  2.03963E+01  2.08926E+01  2.14009E+01
#           2.19216E+01  2.24550E+01  2.30014E+01  2.35610E+01  2.41343E+01
#           2.47215E+01  2.53230E+01  2.59391E+01  2.65702E+01  2.72167E+01
#           2.78789E+01  2.85572E+01  2.92520E+01  2.99637E+01  3.06928E+01
#           3.14396E+01  3.22045E+01  3.29881E+01  3.37907E+01  3.46128E+01
#           3.54550E+01  3.63177E+01  3.72013E+01  3.81064E+01  3.90336E+01
#           3.99833E+01  4.09561E+01  4.19526E+01  4.29734E+01  4.40189E+01
#           4.50900E+01  4.61870E+01  4.73108E+01  4.84619E+01  4.96410E+01
#           5.08488E+01  5.20860E+01  5.33533E+01  5.46514E+01  5.59812E+01
#           5.73432E+01  5.87384E+01  6.01676E+01  6.16315E+01  6.31311E+01
#           6.46671E+01  6.62405E+01  6.78522E+01  6.95031E+01  7.11941E+01
#           7.29263E+01  7.47007E+01  7.65182E+01  7.83800E+01  8.02870E+01
#           8.22405E+01  8.42414E+01  8.62911E+01  8.83906E+01  9.05412E+01
#           9.27442E+01  9.50007E+01  9.73122E+01  9.96799E+01  1.02105E+02
#           1.04589E+02  1.07134E+02  1.09741E+02  1.12411E+02  1.15146E+02
#           1.17948E+02  1.20817E+02  1.23757E+02  1.26768E+02  1.29852E+02
#           1.33012E+02  1.36248E+02  1.39563E+02  1.42959E+02  1.46437E+02
#           1.50000E+02
     unit =    2            # unit is [1/cm^2/(MeV/n)/source]
     axis =  eng            # axis of output
     file = detector-01.out  # file name of output for the above axis
   output = f-curr          # surface crossing forward current spectrum
     part =  neutron  
# kf/name :  2112     
#    used :        main (  %)        temp (  %)       total (  %)
#  memory :         414 (  0)           0 (  0)         414 (  0)

#------------------------------------------------------------------------------
#newpage:
#   no. =    1   reg = 100 - 200

x: Energy [MeV/n]
y:  F-Curr [1/cm^2/(MeV/n)/source]         
p: xlog ylog afac(0.8) form(0.9)
h: n            x            y(neutron ),hh0l   n 
#  e-lower      e-upper      neutron     r.err 
   1.0000E-02   1.0243E-02   9.8640E-04  0.0289
   1.0243E-02   1.0493E-02   9.6699E-04  0.0288
   1.0493E-02   1.0748E-02   9.0641E-04  0.0294
   1.0748E-02   1.1009E-02   9.4607E-04  0.0284
   1.1009E-02   1.1277E-02   9.2434E-04  0.0284
   1.1277E-02   1.1552E-02   9.0093E-04  0.0284
   1.1552E-02   1.1833E-02   9.1902E-04  0.0278
   1.1833E-02   1.2121E-02   8.8782E-04  0.0280
   1.2121E-02   1.2415E-02   9.1352E-04  0.0272
   1.2415E-02   1.2718E-02   8.7494E-04  0.0275
   1.2718E-02   1.3027E-02   8.6159E-04  0.0274
   1.3027E-02   1.3344E-02   8.1589E-04  0.0278
   1.3344E-02   1.3669E-02   8.6519E-04  0.0267
   1.3669E-02   1.4001E-02   8.8283E-04  0.0261
   1.4001E-02   1.4342E-02   8.3133E-04  0.0266
   1.4342E-02   1.4691E-02   8.2706E-04  0.0263
   1.4691E-02   1.5048E-02   8.6561E-04  0.0254
   1.5048E-02   1.5414E-02   8.3494E-04  0.0256
   1.5414E-02   1.5789E-02   8.4044E-04  0.0252
   1.5789E-02   1.6174E-02   8.7254E-04  0.0244
   1.6174E-02   1.6567E-02   8.4470E-04  0.0245
   1.6567E-02   1.6970E-02   8.1372E-04  0.0247
   1.6970E-02   1.7383E-02   8.1473E-04  0.0244
   1.7383E-02   1.7806E-02   8.2375E-04  0.0240
   1.7806E-02   1.8239E-02   8.1642E-04  0.0238
   1.8239E-02   1.8683E-02   7.9545E-04  0.0238
   1.8683E-02   1.9138E-02   8.1527E-04  0.0232
   1.9138E-02   1.9603E-02   7.7916E-04  0.0235
   1.9603E-02   2.0080E-02   7.8539E-04  0.0231
   2.0080E-02   2.0569E-02   7.9948E-04  0.0226
   2.0569E-02   2.1069E-02   7.8409E-04  0.0226
   2.1069E-02   2.1582E-02   7.7951E-04  0.0224
   2.1582E-02   2.2107E-02   7.7166E-04  0.0222
   2.2107E-02   2.2645E-02   7.6430E-04  0.0221
   2.2645E-02   2.3196E-02   7.2346E-04  0.0224
   2.3196E-02   2.3760E-02   7.4455E-04  0.0218
   2.3760E-02   2.4338E-02   7.4554E-04  0.0215
   2.4338E-02   2.4930E-02   7.7681E-04  0.0209
   2.4930E-02   2.5537E-02   7.1434E-04  0.0215
   2.5537E-02   2.6158E-02   7.1974E-04  0.0211
   2.6158E-02   2.6795E-02   7.0469E-04  0.0211
   2.6795E-02   2.7447E-02   7.2001E-04  0.0206
   2.7447E-02   2.8114E-02   7.2896E-04  0.0203
   2.8114E-02   2.8799E-02   7.0945E-04  0.0203
   2.8799E-02   2.9499E-02   6.8875E-04  0.0204
   2.9499E-02   3.0217E-02   7.0583E-04  0.0199
   3.0217E-02   3.0952E-02   7.3354E-04  0.0193
   3.0952E-02   3.1705E-02   6.9208E-04  0.0196
   3.1705E-02   3.2477E-02   6.8705E-04  0.0194
   3.2477E-02   3.3267E-02   6.9503E-04  0.0191
   3.3267E-02   3.4076E-02   6.6715E-04  0.0192
   3.4076E-02   3.4905E-02   6.8339E-04  0.0188
   3.4905E-02   3.5755E-02   6.7964E-04  0.0186
   3.5755E-02   3.6625E-02   6.8200E-04  0.0184
   3.6625E-02   3.7516E-02   6.5593E-04  0.0185
   3.7516E-02   3.8428E-02   6.5689E-04  0.0183
   3.8428E-02   3.9363E-02   6.5230E-04  0.0181
   3.9363E-02   4.0321E-02   6.3754E-04  0.0181
   4.0321E-02   4.1302E-02   6.3565E-04  0.0179
   4.1302E-02   4.2307E-02   6.5598E-04  0.0174
   4.2307E-02   4.3337E-02   6.3835E-04  0.0174
   4.3337E-02   4.4391E-02   6.2556E-04  0.0174
   4.4391E-02   4.5471E-02   6.4876E-04  0.0169
   4.5471E-02   4.6577E-02   6.0632E-04  0.0173
   4.6577E-02   4.7711E-02   6.1345E-04  0.0170
   4.7711E-02   4.8871E-02   6.2041E-04  0.0167
   4.8871E-02   5.0061E-02   6.0778E-04  0.0166
   5.0061E-02   5.1279E-02   6.0229E-04  0.0165
   5.1279E-02   5.2526E-02   6.0514E-04  0.0163
   5.2526E-02   5.3804E-02   5.7903E-04  0.0164
   5.3804E-02   5.5113E-02   5.8193E-04  0.0162
   5.5113E-02   5.6454E-02   5.8734E-04  0.0159
   5.6454E-02   5.7828E-02   5.8410E-04  0.0158
   5.7828E-02   5.9235E-02   5.7840E-04  0.0157
   5.9235E-02   6.0676E-02   5.6216E-04  0.0157
   6.0676E-02   6.2152E-02   5.8064E-04  0.0153
   6.2152E-02   6.3665E-02   5.6930E-04  0.0152
   6.3665E-02   6.5214E-02   5.6281E-04  0.0151
   6.5214E-02   6.6800E-02   5.5871E-04  0.0150
   6.6800E-02   6.8426E-02   5.4716E-04  0.0150
   6.8426E-02   7.0090E-02   5.4335E-04  0.0149
   7.0090E-02   7.1796E-02   5.3719E-04  0.0148
   7.1796E-02   7.3543E-02   5.4567E-04  0.0145
   7.3543E-02   7.5332E-02   5.2477E-04  0.0146
   7.5332E-02   7.7165E-02   5.3004E-04  0.0143
   7.7165E-02   7.9042E-02   5.2411E-04  0.0143
   7.9042E-02   8.0965E-02   5.1805E-04  0.0142
   8.0965E-02   8.2935E-02   5.1362E-04  0.0141
   8.2935E-02   8.4953E-02   5.1232E-04  0.0139
   8.4953E-02   8.7020E-02   5.0591E-04  0.0138
   8.7020E-02   8.9138E-02   4.9219E-04  0.0139
   8.9138E-02   9.1306E-02   5.0512E-04  0.0135
   9.1306E-02   9.3528E-02   4.9546E-04  0.0135
   9.3528E-02   9.5804E-02   4.7992E-04  0.0135
   9.5804E-02   9.8134E-02   4.8495E-04  0.0133
   9.8134E-02   1.0052E-01   4.7632E-04  0.0133
   1.0052E-01   1.0297E-01   4.7310E-04  0.0131
   1.0297E-01   1.0547E-01   4.6793E-04  0.0131
   1.0547E-01   1.0804E-01   4.6437E-04  0.0130
   1.0804E-01   1.1067E-01   4.5958E-04  0.0129
   1.1067E-01   1.1336E-01   4.5420E-04  0.0128
   1.1336E-01   1.1612E-01   4.3975E-04  0.0128
   1.1612E-01   1.1894E-01   4.4413E-04  0.0126
   1.1894E-01   1.2184E-01   4.5090E-04  0.0124
   1.2184E-01   1.2480E-01   4.3998E-04  0.0124
   1.2480E-01   1.2784E-01   4.3497E-04  0.0123
   1.2784E-01   1.3095E-01   4.2583E-04  0.0123
   1.3095E-01   1.3414E-01   4.2026E-04  0.0122
   1.3414E-01   1.3740E-01   4.1203E-04  0.0122
   1.3740E-01   1.4074E-01   4.1986E-04  0.0119
   1.4074E-01   1.4417E-01   4.0910E-04  0.0119
   1.4417E-01   1.4767E-01   4.0688E-04  0.0118
   1.4767E-01   1.5127E-01   4.0044E-04  0.0118
   1.5127E-01   1.5495E-01   3.9620E-04  0.0117
   1.5495E-01   1.5872E-01   3.8756E-04  0.0117
   1.5872E-01   1.6258E-01   3.7553E-04  0.0117
   1.6258E-01   1.6654E-01   3.7973E-04  0.0115
   1.6654E-01   1.7059E-01   3.7222E-04  0.0115
   1.7059E-01   1.7474E-01   3.7957E-04  0.0113
   1.7474E-01   1.7899E-01   3.6693E-04  0.0113
   1.7899E-01   1.8334E-01   3.6680E-04  0.0112
   1.8334E-01   1.8781E-01   3.5085E-04  0.0113
   1.8781E-01   1.9237E-01   3.5597E-04  0.0111
   1.9237E-01   1.9706E-01   3.4568E-04  0.0111
   1.9706E-01   2.0185E-01   3.4727E-04  0.0110
   2.0185E-01   2.0676E-01   3.4303E-04  0.0109
   2.0676E-01   2.1179E-01   3.2926E-04  0.0110
   2.1179E-01   2.1694E-01   3.2953E-04  0.0109
   2.1694E-01   2.2222E-01   3.2671E-04  0.0108
   2.2222E-01   2.2763E-01   3.2512E-04  0.0107
   2.2763E-01   2.3317E-01   3.1617E-04  0.0107
   2.3317E-01   2.3884E-01   3.1272E-04  0.0106
   2.3884E-01   2.4465E-01   3.1092E-04  0.0105
   2.4465E-01   2.5061E-01   3.0471E-04  0.0105
   2.5061E-01   2.5670E-01   3.0410E-04  0.0104
   2.5670E-01   2.6295E-01   2.9373E-04  0.0104
   2.6295E-01   2.6935E-01   2.8623E-04  0.0105
   2.6935E-01   2.7590E-01   2.8680E-04  0.0103
   2.7590E-01   2.8261E-01   2.8055E-04  0.0103
   2.8261E-01   2.8949E-01   2.7789E-04  0.0102
   2.8949E-01   2.9653E-01   2.7664E-04  0.0101
   2.9653E-01   3.0375E-01   2.6929E-04  0.0101
   3.0375E-01   3.1114E-01   2.6406E-04  0.0101
   3.1114E-01   3.1871E-01   2.6426E-04  0.0100
   3.1871E-01   3.2646E-01   2.5618E-04  0.0100
   3.2646E-01   3.3441E-01   2.5364E-04  0.0100
   3.3441E-01   3.4254E-01   2.5098E-04  0.0099
   3.4254E-01   3.5088E-01   2.4033E-04  0.0100
   3.5088E-01   3.5941E-01   2.4012E-04  0.0099
   3.5941E-01   3.6816E-01   2.3805E-04  0.0098
   3.6816E-01   3.7712E-01   2.3341E-04  0.0098
   3.7712E-01   3.8629E-01   2.2690E-04  0.0098
   3.8629E-01   3.9569E-01   2.2478E-04  0.0097
   3.9569E-01   4.0532E-01   2.1947E-04  0.0097
   4.0532E-01   4.1518E-01   2.1483E-04  0.0097
   4.1518E-01   4.2528E-01   2.1074E-04  0.0097
   4.2528E-01   4.3563E-01   2.0740E-04  0.0097
   4.3563E-01   4.4623E-01   2.0032E-04  0.0097
   4.4623E-01   4.5708E-01   1.9656E-04  0.0097
   4.5708E-01   4.6821E-01   1.9396E-04  0.0096
   4.6821E-01   4.7960E-01   1.9036E-04  0.0096
   4.7960E-01   4.9127E-01   1.8504E-04  0.0096
   4.9127E-01   5.0322E-01   1.7891E-04  0.0097
   5.0322E-01   5.1546E-01   1.7412E-04  0.0097
   5.1546E-01   5.2800E-01   1.7342E-04  0.0096
   5.2800E-01   5.4085E-01   1.6701E-04  0.0097
   5.4085E-01   5.5401E-01   1.6219E-04  0.0097
   5.5401E-01   5.6749E-01   1.5958E-04  0.0096
   5.6749E-01   5.8130E-01   1.5521E-04  0.0097
   5.8130E-01   5.9544E-01   1.5064E-04  0.0097
   5.9544E-01   6.0993E-01   1.4615E-04  0.0097
   6.0993E-01   6.2477E-01   1.4444E-04  0.0097
   6.2477E-01   6.3997E-01   1.3932E-04  0.0097
   6.3997E-01   6.5554E-01   1.3475E-04  0.0098
   6.5554E-01   6.7149E-01   1.2921E-04  0.0099
   6.7149E-01   6.8783E-01   1.2931E-04  0.0097
   6.8783E-01   7.0456E-01   1.2349E-04  0.0098
   7.0456E-01   7.2171E-01   1.2006E-04  0.0099
   7.2171E-01   7.3927E-01   1.1674E-04  0.0099
   7.3927E-01   7.5725E-01   1.1171E-04  0.0100
   7.5725E-01   7.7568E-01   1.0871E-04  0.0100
   7.7568E-01   7.9455E-01   1.0495E-04  0.0100
   7.9455E-01   8.1388E-01   1.0010E-04  0.0102
   8.1388E-01   8.3368E-01   9.8730E-05  0.0101
   8.3368E-01   8.5397E-01   9.4729E-05  0.0102
   8.5397E-01   8.7475E-01   8.9379E-05  0.0104
   8.7475E-01   8.9603E-01   8.6100E-05  0.0104
   8.9603E-01   9.1783E-01   8.3684E-05  0.0105
   9.1783E-01   9.4016E-01   8.0393E-05  0.0106
   9.4016E-01   9.6304E-01   7.7631E-05  0.0106
   9.6304E-01   9.8647E-01   7.4601E-05  0.0107
   9.8647E-01   1.0105E+00   7.1387E-05  0.0108
   1.0105E+00   1.0351E+00   7.1111E-05  0.0107
   1.0351E+00   1.0602E+00   7.2876E-05  0.0104
   1.0602E+00   1.0860E+00   7.5150E-05  0.0102
   1.0860E+00   1.1125E+00   7.6498E-05  0.0099
   1.1125E+00   1.1395E+00   7.9968E-05  0.0096
   1.1395E+00   1.1673E+00   8.1600E-05  0.0094
   1.1673E+00   1.1957E+00   8.5330E-05  0.0091
   1.1957E+00   1.2247E+00   8.5638E-05  0.0090
   1.2247E+00   1.2545E+00   8.8647E-05  0.0087
   1.2545E+00   1.2851E+00   8.8311E-05  0.0086
   1.2851E+00   1.3163E+00   9.1442E-05  0.0084
   1.3163E+00   1.3484E+00   9.1909E-05  0.0082
   1.3484E+00   1.3812E+00   9.4118E-05  0.0080
   1.3812E+00   1.4148E+00   9.4995E-05  0.0079
   1.4148E+00   1.4492E+00   9.7651E-05  0.0077
   1.4492E+00   1.4845E+00   9.7717E-05  0.0076
   1.4845E+00   1.5206E+00   9.7337E-05  0.0075
   1.5206E+00   1.5576E+00   9.8009E-05  0.0074
   1.5576E+00   1.5955E+00   9.7467E-05  0.0074
   1.5955E+00   1.6343E+00   1.0117E-04  0.0071
   1.6343E+00   1.6741E+00   1.0161E-04  0.0070
   1.6741E+00   1.7148E+00   1.0282E-04  0.0069
   1.7148E+00   1.7565E+00   1.0419E-04  0.0068
   1.7565E+00   1.7992E+00   1.0267E-04  0.0068
   1.7992E+00   1.8430E+00   1.0279E-04  0.0067
   1.8430E+00   1.8879E+00   1.0082E-04  0.0067
   1.8879E+00   1.9338E+00   1.0142E-04  0.0066
   1.9338E+00   1.9808E+00   1.0273E-04  0.0064
   1.9808E+00   2.0290E+00   1.0145E-04  0.0064
   2.0290E+00   2.0784E+00   1.0087E-04  0.0063
   2.0784E+00   2.1290E+00   9.9220E-05  0.0063
   2.1290E+00   2.1808E+00   9.7838E-05  0.0063
   2.1808E+00   2.2338E+00   9.6591E-05  0.0062
   2.2338E+00   2.2882E+00   9.4331E-05  0.0062
   2.2882E+00   2.3439E+00   9.5839E-05  0.0061
   2.3439E+00   2.4009E+00   9.4713E-05  0.0061
   2.4009E+00   2.4593E+00   9.3549E-05  0.0060
   2.4593E+00   2.5191E+00   9.1534E-05  0.0060
   2.5191E+00   2.5804E+00   8.8369E-05  0.0061
   2.5804E+00   2.6432E+00   8.6771E-05  0.0061
   2.6432E+00   2.7075E+00   8.4122E-05  0.0061
   2.7075E+00   2.7734E+00   8.3686E-05  0.0060
   2.7734E+00   2.8409E+00   8.0293E-05  0.0061
   2.8409E+00   2.9100E+00   7.9030E-05  0.0061
   2.9100E+00   2.9808E+00   7.8469E-05  0.0060
   2.9808E+00   3.0533E+00   7.7065E-05  0.0060
   3.0533E+00   3.1276E+00   7.3948E-05  0.0060
   3.1276E+00   3.2037E+00   7.1732E-05  0.0061
   3.2037E+00   3.2817E+00   6.9420E-05  0.0061
   3.2817E+00   3.3615E+00   6.7156E-05  0.0061
   3.3615E+00   3.4433E+00   6.5777E-05  0.0061
   3.4433E+00   3.5271E+00   6.4447E-05  0.0061
   3.5271E+00   3.6129E+00   6.1670E-05  0.0061
   3.6129E+00   3.7008E+00   6.0576E-05  0.0061
   3.7008E+00   3.7908E+00   5.9153E-05  0.0061
   3.7908E+00   3.8831E+00   5.7552E-05  0.0061
   3.8831E+00   3.9776E+00   5.5587E-05  0.0062
   3.9776E+00   4.0743E+00   5.4472E-05  0.0062
   4.0743E+00   4.1735E+00   5.3159E-05  0.0062
   4.1735E+00   4.2750E+00   5.1138E-05  0.0062
   4.2750E+00   4.3790E+00   4.9940E-05  0.0062
   4.3790E+00   4.4856E+00   4.8804E-05  0.0062
   4.4856E+00   4.5947E+00   4.7401E-05  0.0062
   4.5947E+00   4.7065E+00   4.6744E-05  0.0062
   4.7065E+00   4.8210E+00   4.5028E-05  0.0062
   4.8210E+00   4.9383E+00   4.4533E-05  0.0062
   4.9383E+00   5.0585E+00   4.3529E-05  0.0062
   5.0585E+00   5.1815E+00   4.2458E-05  0.0062
   5.1815E+00   5.3076E+00   4.1965E-05  0.0061
   5.3076E+00   5.4368E+00   4.0728E-05  0.0062
   5.4368E+00   5.5690E+00   4.0581E-05  0.0061
   5.5690E+00   5.7045E+00   3.9639E-05  0.0061
   5.7045E+00   5.8433E+00   3.9320E-05  0.0061
   5.8433E+00   5.9855E+00   3.8445E-05  0.0060
   5.9855E+00   6.1311E+00   3.8546E-05  0.0060
   6.1311E+00   6.2803E+00   3.8018E-05  0.0059
   6.2803E+00   6.4331E+00   3.7710E-05  0.0059
   6.4331E+00   6.5896E+00   3.7582E-05  0.0058
   6.5896E+00   6.7500E+00   3.7779E-05  0.0057
   6.7500E+00   6.9142E+00   3.7895E-05  0.0057
   6.9142E+00   7.0824E+00   3.7922E-05  0.0056
   7.0824E+00   7.2548E+00   3.7477E-05  0.0056
   7.2548E+00   7.4313E+00   3.7410E-05  0.0055
   7.4313E+00   7.6121E+00   3.7781E-05  0.0054
   7.6121E+00   7.7973E+00   3.8134E-05  0.0053
   7.7973E+00   7.9870E+00   3.8065E-05  0.0053
   7.9870E+00   8.1813E+00   3.8670E-05  0.0052
   8.1813E+00   8.3804E+00   3.8176E-05  0.0051
   8.3804E+00   8.5843E+00   3.8997E-05  0.0050
   8.5843E+00   8.7931E+00   3.9761E-05  0.0049
   8.7931E+00   9.0071E+00   3.9818E-05  0.0048
   9.0071E+00   9.2262E+00   4.0576E-05  0.0047
   9.2262E+00   9.4507E+00   4.0868E-05  0.0047
   9.4507E+00   9.6807E+00   4.1568E-05  0.0046
   9.6807E+00   9.9162E+00   4.2027E-05  0.0045
   9.9162E+00   1.0157E+01   4.3048E-05  0.0044
   1.0157E+01   1.0405E+01   4.3193E-05  0.0043
   1.0405E+01   1.0658E+01   4.4301E-05  0.0042
   1.0658E+01   1.0917E+01   4.5156E-05  0.0041
   1.0917E+01   1.1183E+01   4.5634E-05  0.0041
   1.1183E+01   1.1455E+01   4.6506E-05  0.0040
   1.1455E+01   1.1733E+01   4.7714E-05  0.0039
   1.1733E+01   1.2019E+01   4.8735E-05  0.0038
   1.2019E+01   1.2311E+01   4.9778E-05  0.0037
   1.2311E+01   1.2611E+01   5.0717E-05  0.0036
   1.2611E+01   1.2918E+01   5.1909E-05  0.0035
   1.2918E+01   1.3232E+01   5.2781E-05  0.0035
   1.3232E+01   1.3554E+01   5.4394E-05  0.0034
   1.3554E+01   1.3884E+01   5.5245E-05  0.0033
   1.3884E+01   1.4222E+01   5.6614E-05  0.0032
   1.4222E+01   1.4568E+01   5.7667E-05  0.0032
   1.4568E+01   1.4922E+01   5.9080E-05  0.0031
   1.4922E+01   1.5285E+01   6.0440E-05  0.0030
   1.5285E+01   1.5657E+01   6.2278E-05  0.0029
   1.5657E+01   1.6038E+01   6.3546E-05  0.0029
   1.6038E+01   1.6428E+01   6.4797E-05  0.0028
   1.6428E+01   1.6828E+01   6.6228E-05  0.0027
   1.6828E+01   1.7237E+01   6.7942E-05  0.0027
   1.7237E+01   1.7657E+01   6.9637E-05  0.0026
   1.7657E+01   1.8086E+01   7.1054E-05  0.0026
   1.8086E+01   1.8526E+01   7.2824E-05  0.0025
   1.8526E+01   1.8977E+01   7.4355E-05  0.0024
   1.8977E+01   1.9439E+01   7.6374E-05  0.0024
   1.9439E+01   1.9912E+01   7.8170E-05  0.0023
   1.9912E+01   2.0396E+01   8.3996E-05  0.0022
   2.0396E+01   2.0893E+01   8.7057E-05  0.0022
   2.0893E+01   2.1401E+01   8.8857E-05  0.0021
   2.1401E+01   2.1922E+01   9.0930E-05  0.0021
   2.1922E+01   2.2455E+01   9.2702E-05  0.0020
   2.2455E+01   2.3001E+01   9.5108E-05  0.0020
   2.3001E+01   2.3561E+01   9.7282E-05  0.0019
   2.3561E+01   2.4134E+01   9.9296E-05  0.0019
   2.4134E+01   2.4721E+01   1.0162E-04  0.0018
   2.4721E+01   2.5323E+01   1.0351E-04  0.0018
   2.5323E+01   2.5939E+01   1.0549E-04  0.0018
   2.5939E+01   2.6570E+01   1.0732E-04  0.0017
   2.6570E+01   2.7217E+01   1.0968E-04  0.0017
   2.7217E+01   2.7879E+01   1.1166E-04  0.0016
   2.7879E+01   2.8557E+01   1.1381E-04  0.0016
   2.8557E+01   2.9252E+01   1.1589E-04  0.0016
   2.9252E+01   2.9964E+01   1.1799E-04  0.0015
   2.9964E+01   3.0693E+01   1.1941E-04  0.0015
   3.0693E+01   3.1440E+01   1.2100E-04  0.0015
   3.1440E+01   3.2205E+01   1.2286E-04  0.0015
   3.2205E+01   3.2988E+01   1.2421E-04  0.0014
   3.2988E+01   3.3791E+01   1.2514E-04  0.0014
   3.3791E+01   3.4613E+01   1.2589E-04  0.0014
   3.4613E+01   3.5455E+01   1.2635E-04  0.0014
   3.5455E+01   3.6318E+01   1.2624E-04  0.0014
   3.6318E+01   3.7201E+01   1.2570E-04  0.0013
   3.7201E+01   3.8106E+01   1.2490E-04  0.0013
   3.8106E+01   3.9034E+01   1.2343E-04  0.0013
   3.9034E+01   3.9983E+01   1.2113E-04  0.0013
   3.9983E+01   4.0956E+01   1.1820E-04  0.0013
   4.0956E+01   4.1953E+01   1.1431E-04  0.0013
   4.1953E+01   4.2973E+01   1.0989E-04  0.0013
   4.2973E+01   4.4019E+01   1.0456E-04  0.0014
   4.4019E+01   4.5090E+01   9.8670E-05  0.0014
   4.5090E+01   4.6187E+01   9.2497E-05  0.0014
   4.6187E+01   4.7311E+01   8.5525E-05  0.0014
   4.7311E+01   4.8462E+01   7.8707E-05  0.0015
   4.8462E+01   4.9641E+01   7.1430E-05  0.0015
   4.9641E+01   5.0849E+01   6.4654E-05  0.0016
   5.0849E+01   5.2086E+01   5.7801E-05  0.0017
   5.2086E+01   5.3353E+01   5.1282E-05  0.0018
   5.3353E+01   5.4651E+01   4.5419E-05  0.0018
   5.4651E+01   5.5981E+01   3.9712E-05  0.0019
   5.5981E+01   5.7343E+01   3.4921E-05  0.0021
   5.7343E+01   5.8738E+01   3.0335E-05  0.0022
   5.8738E+01   6.0168E+01   2.6345E-05  0.0023
   6.0168E+01   6.1632E+01   2.2856E-05  0.0024
   6.1632E+01   6.3131E+01   1.9752E-05  0.0026
   6.3131E+01   6.4667E+01   1.7206E-05  0.0028
   6.4667E+01   6.6240E+01   1.4797E-05  0.0029
   6.6240E+01   6.7852E+01   1.2842E-05  0.0031
   6.7852E+01   6.9503E+01   1.1117E-05  0.0033
   6.9503E+01   7.1194E+01   9.5216E-06  0.0035
   7.1194E+01   7.2926E+01   8.2189E-06  0.0037
   7.2926E+01   7.4701E+01   7.0917E-06  0.0040
   7.4701E+01   7.6518E+01   6.0951E-06  0.0042
   7.6518E+01   7.8380E+01   5.1791E-06  0.0046
   7.8380E+01   8.0287E+01   4.4695E-06  0.0048
   8.0287E+01   8.2240E+01   3.8001E-06  0.0052
   8.2240E+01   8.4241E+01   3.2284E-06  0.0056
   8.4241E+01   8.6291E+01   2.7515E-06  0.0060
   8.6291E+01   8.8391E+01   2.3224E-06  0.0064
   8.8391E+01   9.0541E+01   1.8383E-06  0.0071
   9.0541E+01   9.2744E+01   1.4315E-06  0.0080
   9.2744E+01   9.5001E+01   1.1328E-06  0.0088
   9.5001E+01   9.7312E+01   7.8505E-07  0.0105
   9.7312E+01   9.9680E+01   4.3013E-07  0.0140
   9.9680E+01   1.0211E+02   1.2914E-07  0.0253
   1.0211E+02   1.0459E+02   0.0000E+00  0.0000
   1.0459E+02   1.0713E+02   0.0000E+00  0.0000
   1.0713E+02   1.0974E+02   0.0000E+00  0.0000
   1.0974E+02   1.1241E+02   0.0000E+00  0.0000
   1.1241E+02   1.1515E+02   0.0000E+00  0.0000
   1.1515E+02   1.1795E+02   0.0000E+00  0.0000
   1.1795E+02   1.2082E+02   0.0000E+00  0.0000
   1.2082E+02   1.2376E+02   0.0000E+00  0.0000
   1.2376E+02   1.2677E+02   0.0000E+00  0.0000
   1.2677E+02   1.2985E+02   0.0000E+00  0.0000
   1.2985E+02   1.3301E+02   0.0000E+00  0.0000
   1.3301E+02   1.3625E+02   0.0000E+00  0.0000
   1.3625E+02   1.3956E+02   0.0000E+00  0.0000
   1.3956E+02   1.4296E+02   0.0000E+00  0.0000
   1.4296E+02   1.4644E+02   0.0000E+00  0.0000
   1.4644E+02   1.5000E+02   0.0000E+00  0.0000

#   sum over                 3.4896E-05
'no. =    1   reg = 100 - 200'
msuc: {\huge [t-cross] in region mesh}
msdr: {\it plotted by \ANGEL \version}
msdl: {\it calculated by \PHITS  3.26}
wt: s(0.7)
\vspace{-3}
  region surface crossing
  area  &=&   1.0000E+00 [cm^2]
e:
 
# Information for Restart Calculation
# This calculation was newly started
# istdev =  2 # 1:Batch variance, 2:History variance
# resc2  = 5.00000000000000000E+09 # Total source weight or Total source weight / maxcas
# resc3  = 5.00000000000000000E+09 # Total history number or Total batch number
# maxcas =   500000000 # History / Batch, only used for istdev=1
# bitrseed = 0110100000100010111000001110001111001110100100011111101000111001 # bit data of rseed
