[ T-Cross ]
    title = [t-cross] in region mesh
     mesh =  reg            # mesh type is region-wise
      reg =    1            # number of crossing regions
      non     r-from    r-to       area
      1       118       218        1.000000    
   e-type =    3            # e-mesh is log given by emin, emax and ne
     emin =  1.0000000E-02  # minimum value of e-mesh points
     emax =   150.0000      # maximum value of e-mesh points
#    edel =  2.4039514E-02  # mesh width of e-mesh points
       ne =    400          # number of e-mesh points
#    data = ( e(i), i = 1, ne + 1 )
#           1.00000E-02  1.02433E-02  1.04925E-02  1.07478E-02  1.10093E-02
#           1.12772E-02  1.15516E-02  1.18326E-02  1.21205E-02  1.24154E-02
#           1.27175E-02  1.30269E-02  1.33439E-02  1.36686E-02  1.40011E-02
#           1.43418E-02  1.46907E-02  1.50482E-02  1.54143E-02  1.57894E-02
#           1.61735E-02  1.65670E-02  1.69701E-02  1.73830E-02  1.78060E-02
#           1.82392E-02  1.86830E-02  1.91375E-02  1.96032E-02  2.00801E-02
#           2.05687E-02  2.10692E-02  2.15818E-02  2.21069E-02  2.26448E-02
#           2.31957E-02  2.37601E-02  2.43382E-02  2.49304E-02  2.55369E-02
#           2.61583E-02  2.67947E-02  2.74467E-02  2.81145E-02  2.87985E-02
#           2.94992E-02  3.02169E-02  3.09521E-02  3.17052E-02  3.24766E-02
#           3.32668E-02  3.40762E-02  3.49053E-02  3.57546E-02  3.66246E-02
#           3.75157E-02  3.84284E-02  3.93634E-02  4.03212E-02  4.13022E-02
#           4.23071E-02  4.33365E-02  4.43909E-02  4.54710E-02  4.65773E-02
#           4.77106E-02  4.88714E-02  5.00605E-02  5.12785E-02  5.25262E-02
#           5.38042E-02  5.51133E-02  5.64542E-02  5.78278E-02  5.92348E-02
#           6.06760E-02  6.21523E-02  6.36645E-02  6.52135E-02  6.68002E-02
#           6.84255E-02  7.00904E-02  7.17957E-02  7.35426E-02  7.53319E-02
#           7.71648E-02  7.90423E-02  8.09655E-02  8.29354E-02  8.49533E-02
#           8.70203E-02  8.91376E-02  9.13064E-02  9.35279E-02  9.58035E-02
#           9.81345E-02  1.00522E-01  1.02968E-01  1.05473E-01  1.08040E-01
#           1.10668E-01  1.13361E-01  1.16119E-01  1.18944E-01  1.21838E-01
#           1.24803E-01  1.27839E-01  1.30950E-01  1.34136E-01  1.37399E-01
#           1.40742E-01  1.44167E-01  1.47675E-01  1.51268E-01  1.54948E-01
#           1.58718E-01  1.62580E-01  1.66535E-01  1.70587E-01  1.74738E-01
#           1.78989E-01  1.83344E-01  1.87805E-01  1.92375E-01  1.97055E-01
#           2.01850E-01  2.06761E-01  2.11792E-01  2.16945E-01  2.22223E-01
#           2.27630E-01  2.33169E-01  2.38842E-01  2.44653E-01  2.50605E-01
#           2.56703E-01  2.62949E-01  2.69346E-01  2.75900E-01  2.82613E-01
#           2.89489E-01  2.96532E-01  3.03747E-01  3.11138E-01  3.18708E-01
#           3.26462E-01  3.34405E-01  3.42542E-01  3.50876E-01  3.59413E-01
#           3.68158E-01  3.77116E-01  3.86291E-01  3.95690E-01  4.05317E-01
#           4.15179E-01  4.25281E-01  4.35628E-01  4.46227E-01  4.57084E-01
#           4.68205E-01  4.79597E-01  4.91266E-01  5.03219E-01  5.15463E-01
#           5.28005E-01  5.40851E-01  5.54011E-01  5.67490E-01  5.81298E-01
#           5.95441E-01  6.09929E-01  6.24769E-01  6.39970E-01  6.55541E-01
#           6.71491E-01  6.87828E-01  7.04564E-01  7.21706E-01  7.39266E-01
#           7.57253E-01  7.75678E-01  7.94551E-01  8.13883E-01  8.33685E-01
#           8.53969E-01  8.74747E-01  8.96030E-01  9.17831E-01  9.40163E-01
#           9.63038E-01  9.86469E-01  1.01047E+00  1.03506E+00  1.06024E+00
#           1.08604E+00  1.11246E+00  1.13953E+00  1.16725E+00  1.19565E+00
#           1.22474E+00  1.25454E+00  1.28507E+00  1.31633E+00  1.34836E+00
#           1.38117E+00  1.41477E+00  1.44920E+00  1.48446E+00  1.52057E+00
#           1.55757E+00  1.59547E+00  1.63429E+00  1.67405E+00  1.71478E+00
#           1.75650E+00  1.79924E+00  1.84302E+00  1.88786E+00  1.93379E+00
#           1.98084E+00  2.02904E+00  2.07841E+00  2.12898E+00  2.18078E+00
#           2.23384E+00  2.28819E+00  2.34386E+00  2.40089E+00  2.45930E+00
#           2.51914E+00  2.58043E+00  2.64322E+00  2.70753E+00  2.77341E+00
#           2.84088E+00  2.91001E+00  2.98081E+00  3.05333E+00  3.12762E+00
#           3.20372E+00  3.28167E+00  3.36152E+00  3.44330E+00  3.52708E+00
#           3.61290E+00  3.70080E+00  3.79085E+00  3.88308E+00  3.97756E+00
#           4.07434E+00  4.17347E+00  4.27501E+00  4.37903E+00  4.48557E+00
#           4.59471E+00  4.70650E+00  4.82102E+00  4.93832E+00  5.05847E+00
#           5.18155E+00  5.30762E+00  5.43676E+00  5.56904E+00  5.70453E+00
#           5.84333E+00  5.98550E+00  6.13114E+00  6.28031E+00  6.43312E+00
#           6.58964E+00  6.74997E+00  6.91420E+00  7.08243E+00  7.25475E+00
#           7.43126E+00  7.61207E+00  7.79728E+00  7.98700E+00  8.18133E+00
#           8.38038E+00  8.58428E+00  8.79315E+00  9.00709E+00  9.22624E+00
#           9.45072E+00  9.68067E+00  9.91620E+00  1.01575E+01  1.04046E+01
#           1.06578E+01  1.09171E+01  1.11827E+01  1.14548E+01  1.17335E+01
#           1.20190E+01  1.23114E+01  1.26109E+01  1.29178E+01  1.32321E+01
#           1.35540E+01  1.38838E+01  1.42216E+01  1.45676E+01  1.49221E+01
#           1.52851E+01  1.56570E+01  1.60380E+01  1.64282E+01  1.68279E+01
#           1.72374E+01  1.76568E+01  1.80864E+01  1.85264E+01  1.89772E+01
#           1.94389E+01  1.99119E+01  2.03963E+01  2.08926E+01  2.14009E+01
#           2.19216E+01  2.24550E+01  2.30014E+01  2.35610E+01  2.41343E+01
#           2.47215E+01  2.53230E+01  2.59391E+01  2.65702E+01  2.72167E+01
#           2.78789E+01  2.85572E+01  2.92520E+01  2.99637E+01  3.06928E+01
#           3.14396E+01  3.22045E+01  3.29881E+01  3.37907E+01  3.46128E+01
#           3.54550E+01  3.63177E+01  3.72013E+01  3.81064E+01  3.90336E+01
#           3.99833E+01  4.09561E+01  4.19526E+01  4.29734E+01  4.40189E+01
#           4.50900E+01  4.61870E+01  4.73108E+01  4.84619E+01  4.96410E+01
#           5.08488E+01  5.20860E+01  5.33533E+01  5.46514E+01  5.59812E+01
#           5.73432E+01  5.87384E+01  6.01676E+01  6.16315E+01  6.31311E+01
#           6.46671E+01  6.62405E+01  6.78522E+01  6.95031E+01  7.11941E+01
#           7.29263E+01  7.47007E+01  7.65182E+01  7.83800E+01  8.02870E+01
#           8.22405E+01  8.42414E+01  8.62911E+01  8.83906E+01  9.05412E+01
#           9.27442E+01  9.50007E+01  9.73122E+01  9.96799E+01  1.02105E+02
#           1.04589E+02  1.07134E+02  1.09741E+02  1.12411E+02  1.15146E+02
#           1.17948E+02  1.20817E+02  1.23757E+02  1.26768E+02  1.29852E+02
#           1.33012E+02  1.36248E+02  1.39563E+02  1.42959E+02  1.46437E+02
#           1.50000E+02
     unit =    2            # unit is [1/cm^2/(MeV/n)/source]
     axis =  eng            # axis of output
     file = detector-19.out  # file name of output for the above axis
   output = f-curr          # surface crossing forward current spectrum
     part =  neutron  
# kf/name :  2112     
#    used :        main (  %)        temp (  %)       total (  %)
#  memory :         414 (  0)           0 (  0)         414 (  0)

#------------------------------------------------------------------------------
#newpage:
#   no. =    1   reg = 118 - 218

x: Energy [MeV/n]
y:  F-Curr [1/cm^2/(MeV/n)/source]         
p: xlog ylog afac(0.8) form(0.9)
h: n            x            y(neutron ),hh0l   n 
#  e-lower      e-upper      neutron     r.err 
   1.0000E-02   1.0243E-02   8.8135E-04  0.0308
   1.0243E-02   1.0493E-02   8.7603E-04  0.0305
   1.0493E-02   1.0748E-02   8.3932E-04  0.0308
   1.0748E-02   1.1009E-02   7.9780E-04  0.0312
   1.1009E-02   1.1277E-02   7.6344E-04  0.0315
   1.1277E-02   1.1552E-02   7.9212E-04  0.0305
   1.1552E-02   1.1833E-02   7.6234E-04  0.0308
   1.1833E-02   1.2121E-02   6.8001E-04  0.0322
   1.2121E-02   1.2415E-02   6.8876E-04  0.0316
   1.2415E-02   1.2718E-02   7.0202E-04  0.0309
   1.2718E-02   1.3027E-02   6.8819E-04  0.0309
   1.3027E-02   1.3344E-02   6.7977E-04  0.0307
   1.3344E-02   1.3669E-02   6.6943E-04  0.0306
   1.3669E-02   1.4001E-02   6.5287E-04  0.0306
   1.4001E-02   1.4342E-02   6.3651E-04  0.0306
   1.4342E-02   1.4691E-02   5.5784E-04  0.0323
   1.4691E-02   1.5048E-02   5.9375E-04  0.0309
   1.5048E-02   1.5414E-02   6.0024E-04  0.0304
   1.5414E-02   1.5789E-02   5.4989E-04  0.0314
   1.5789E-02   1.6174E-02   5.4778E-04  0.0311
   1.6174E-02   1.6567E-02   5.6464E-04  0.0302
   1.6567E-02   1.6970E-02   5.4703E-04  0.0304
   1.6970E-02   1.7383E-02   5.3414E-04  0.0304
   1.7383E-02   1.7806E-02   5.0399E-04  0.0308
   1.7806E-02   1.8239E-02   5.1408E-04  0.0302
   1.8239E-02   1.8683E-02   5.0025E-04  0.0302
   1.8683E-02   1.9138E-02   4.8735E-04  0.0303
   1.9138E-02   1.9603E-02   4.7691E-04  0.0302
   1.9603E-02   2.0080E-02   4.4966E-04  0.0308
   2.0080E-02   2.0569E-02   4.3200E-04  0.0310
   2.0569E-02   2.1069E-02   4.3576E-04  0.0305
   2.1069E-02   2.1582E-02   4.4620E-04  0.0298
   2.1582E-02   2.2107E-02   4.1896E-04  0.0304
   2.2107E-02   2.2645E-02   4.0859E-04  0.0304
   2.2645E-02   2.3196E-02   4.0828E-04  0.0300
   2.3196E-02   2.3760E-02   3.9749E-04  0.0301
   2.3760E-02   2.4338E-02   3.7966E-04  0.0304
   2.4338E-02   2.4930E-02   3.9861E-04  0.0293
   2.4930E-02   2.5537E-02   3.6935E-04  0.0301
   2.5537E-02   2.6158E-02   3.5844E-04  0.0302
   2.6158E-02   2.6795E-02   3.6372E-04  0.0296
   2.6795E-02   2.7447E-02   3.5519E-04  0.0296
   2.7447E-02   2.8114E-02   3.2934E-04  0.0303
   2.8114E-02   2.8799E-02   3.2271E-04  0.0303
   2.8799E-02   2.9499E-02   3.1941E-04  0.0301
   2.9499E-02   3.0217E-02   3.2153E-04  0.0296
   3.0217E-02   3.0952E-02   3.2969E-04  0.0289
   3.0952E-02   3.1705E-02   3.2136E-04  0.0290
   3.1705E-02   3.2477E-02   2.8342E-04  0.0305
   3.2477E-02   3.3267E-02   3.0893E-04  0.0288
   3.3267E-02   3.4076E-02   3.0290E-04  0.0288
   3.4076E-02   3.4905E-02   2.8798E-04  0.0292
   3.4905E-02   3.5755E-02   2.6589E-04  0.0300
   3.5755E-02   3.6625E-02   2.7463E-04  0.0292
   3.6625E-02   3.7516E-02   2.6514E-04  0.0293
   3.7516E-02   3.8428E-02   2.7129E-04  0.0286
   3.8428E-02   3.9363E-02   2.5199E-04  0.0294
   3.9363E-02   4.0321E-02   2.4995E-04  0.0291
   4.0321E-02   4.1302E-02   2.3871E-04  0.0294
   4.1302E-02   4.2307E-02   2.4022E-04  0.0290
   4.2307E-02   4.3337E-02   2.4343E-04  0.0285
   4.3337E-02   4.4391E-02   2.3934E-04  0.0284
   4.4391E-02   4.5471E-02   2.2922E-04  0.0286
   4.5471E-02   4.6577E-02   2.2437E-04  0.0286
   4.6577E-02   4.7711E-02   2.1473E-04  0.0289
   4.7711E-02   4.8871E-02   2.0969E-04  0.0289
   4.8871E-02   5.0061E-02   2.1272E-04  0.0283
   5.0061E-02   5.1279E-02   2.0196E-04  0.0287
   5.1279E-02   5.2526E-02   2.0472E-04  0.0282
   5.2526E-02   5.3804E-02   1.9671E-04  0.0284
   5.3804E-02   5.5113E-02   1.9309E-04  0.0283
   5.5113E-02   5.6454E-02   1.9337E-04  0.0280
   5.6454E-02   5.7828E-02   1.8625E-04  0.0282
   5.7828E-02   5.9235E-02   1.8031E-04  0.0283
   5.9235E-02   6.0676E-02   1.7822E-04  0.0281
   6.0676E-02   6.2152E-02   1.6674E-04  0.0287
   6.2152E-02   6.3665E-02   1.7259E-04  0.0279
   6.3665E-02   6.5214E-02   1.6808E-04  0.0279
   6.5214E-02   6.6800E-02   1.5714E-04  0.0285
   6.6800E-02   6.8426E-02   1.5627E-04  0.0283
   6.8426E-02   7.0090E-02   1.5186E-04  0.0283
   7.0090E-02   7.1796E-02   1.5871E-04  0.0274
   7.1796E-02   7.3543E-02   1.5414E-04  0.0275
   7.3543E-02   7.5332E-02   1.4813E-04  0.0277
   7.5332E-02   7.7165E-02   1.3809E-04  0.0283
   7.7165E-02   7.9042E-02   1.3437E-04  0.0284
   7.9042E-02   8.0965E-02   1.3475E-04  0.0280
   8.0965E-02   8.2935E-02   1.2964E-04  0.0282
   8.2935E-02   8.4953E-02   1.3610E-04  0.0272
   8.4953E-02   8.7020E-02   1.3010E-04  0.0275
   8.7020E-02   8.9138E-02   1.2797E-04  0.0274
   8.9138E-02   9.1306E-02   1.2828E-04  0.0270
   9.1306E-02   9.3528E-02   1.2164E-04  0.0274
   9.3528E-02   9.5804E-02   1.2068E-04  0.0272
   9.5804E-02   9.8134E-02   1.1839E-04  0.0271
   9.8134E-02   1.0052E-01   1.1894E-04  0.0267
   1.0052E-01   1.0297E-01   1.2011E-04  0.0263
   1.0297E-01   1.0547E-01   1.2662E-04  0.0253
   1.0547E-01   1.0804E-01   1.2779E-04  0.0249
   1.0804E-01   1.1067E-01   1.3695E-04  0.0238
   1.1067E-01   1.1336E-01   1.4274E-04  0.0230
   1.1336E-01   1.1612E-01   1.4348E-04  0.0226
   1.1612E-01   1.1894E-01   1.4972E-04  0.0219
   1.1894E-01   1.2184E-01   1.6069E-04  0.0209
   1.2184E-01   1.2480E-01   1.5603E-04  0.0209
   1.2480E-01   1.2784E-01   1.6433E-04  0.0202
   1.2784E-01   1.3095E-01   1.7237E-04  0.0194
   1.3095E-01   1.3414E-01   1.8302E-04  0.0187
   1.3414E-01   1.3740E-01   1.7796E-04  0.0187
   1.3740E-01   1.4074E-01   1.8824E-04  0.0179
   1.4074E-01   1.4417E-01   1.9772E-04  0.0173
   1.4417E-01   1.4767E-01   2.0690E-04  0.0167
   1.4767E-01   1.5127E-01   2.0617E-04  0.0165
   1.5127E-01   1.5495E-01   2.1375E-04  0.0161
   1.5495E-01   1.5872E-01   2.2651E-04  0.0154
   1.5872E-01   1.6258E-01   2.2611E-04  0.0152
   1.6258E-01   1.6654E-01   2.4006E-04  0.0146
   1.6654E-01   1.7059E-01   2.3649E-04  0.0146
   1.7059E-01   1.7474E-01   2.5376E-04  0.0139
   1.7474E-01   1.7899E-01   2.5224E-04  0.0137
   1.7899E-01   1.8334E-01   2.6471E-04  0.0133
   1.8334E-01   1.8781E-01   2.7441E-04  0.0129
   1.8781E-01   1.9237E-01   2.8381E-04  0.0125
   1.9237E-01   1.9706E-01   2.8640E-04  0.0123
   1.9706E-01   2.0185E-01   2.9786E-04  0.0119
   2.0185E-01   2.0676E-01   2.9948E-04  0.0117
   2.0676E-01   2.1179E-01   3.1734E-04  0.0113
   2.1179E-01   2.1694E-01   3.1728E-04  0.0111
   2.1694E-01   2.2222E-01   3.3264E-04  0.0107
   2.2222E-01   2.2763E-01   3.3951E-04  0.0105
   2.2763E-01   2.3317E-01   3.4342E-04  0.0103
   2.3317E-01   2.3884E-01   3.4950E-04  0.0101
   2.3884E-01   2.4465E-01   3.6802E-04  0.0097
   2.4465E-01   2.5061E-01   3.6895E-04  0.0096
   2.5061E-01   2.5670E-01   3.8133E-04  0.0093
   2.5670E-01   2.6295E-01   3.8777E-04  0.0091
   2.6295E-01   2.6935E-01   4.0132E-04  0.0089
   2.6935E-01   2.7590E-01   4.0526E-04  0.0087
   2.7590E-01   2.8261E-01   4.1595E-04  0.0085
   2.8261E-01   2.8949E-01   4.2432E-04  0.0083
   2.8949E-01   2.9653E-01   4.3206E-04  0.0082
   2.9653E-01   3.0375E-01   4.3770E-04  0.0080
   3.0375E-01   3.1114E-01   4.5293E-04  0.0078
   3.1114E-01   3.1871E-01   4.5645E-04  0.0077
   3.1871E-01   3.2646E-01   4.6727E-04  0.0075
   3.2646E-01   3.3441E-01   4.7244E-04  0.0073
   3.3441E-01   3.4254E-01   4.8099E-04  0.0072
   3.4254E-01   3.5088E-01   4.9445E-04  0.0070
   3.5088E-01   3.5941E-01   4.9452E-04  0.0069
   3.5941E-01   3.6816E-01   5.0794E-04  0.0067
   3.6816E-01   3.7712E-01   5.1558E-04  0.0066
   3.7712E-01   3.8629E-01   5.2545E-04  0.0065
   3.8629E-01   3.9569E-01   5.3549E-04  0.0063
   3.9569E-01   4.0532E-01   5.3313E-04  0.0063
   4.0532E-01   4.1518E-01   5.4592E-04  0.0061
   4.1518E-01   4.2528E-01   5.4434E-04  0.0061
   4.2528E-01   4.3563E-01   5.4658E-04  0.0060
   4.3563E-01   4.4623E-01   5.5959E-04  0.0058
   4.4623E-01   4.5708E-01   5.6290E-04  0.0057
   4.5708E-01   4.6821E-01   5.7341E-04  0.0056
   4.6821E-01   4.7960E-01   5.6963E-04  0.0056
   4.7960E-01   4.9127E-01   5.8058E-04  0.0055
   4.9127E-01   5.0322E-01   5.8317E-04  0.0054
   5.0322E-01   5.1546E-01   5.8007E-04  0.0053
   5.1546E-01   5.2800E-01   5.8137E-04  0.0053
   5.2800E-01   5.4085E-01   5.9051E-04  0.0052
   5.4085E-01   5.5401E-01   5.9230E-04  0.0051
   5.5401E-01   5.6749E-01   5.9171E-04  0.0050
   5.6749E-01   5.8130E-01   5.8817E-04  0.0050
   5.8130E-01   5.9544E-01   5.8790E-04  0.0049
   5.9544E-01   6.0993E-01   5.8913E-04  0.0049
   6.0993E-01   6.2477E-01   5.8542E-04  0.0048
   6.2477E-01   6.3997E-01   5.8833E-04  0.0047
   6.3997E-01   6.5554E-01   5.8796E-04  0.0047
   6.5554E-01   6.7149E-01   5.7748E-04  0.0047
   6.7149E-01   6.8783E-01   5.7196E-04  0.0046
   6.8783E-01   7.0456E-01   5.6694E-04  0.0046
   7.0456E-01   7.2171E-01   5.6251E-04  0.0046
   7.2171E-01   7.3927E-01   5.5221E-04  0.0046
   7.3927E-01   7.5725E-01   5.4552E-04  0.0045
   7.5725E-01   7.7568E-01   5.3496E-04  0.0045
   7.7568E-01   7.9455E-01   5.2381E-04  0.0045
   7.9455E-01   8.1388E-01   5.1501E-04  0.0045
   8.1388E-01   8.3368E-01   5.0312E-04  0.0045
   8.3368E-01   8.5397E-01   4.9592E-04  0.0045
   8.5397E-01   8.7475E-01   4.8165E-04  0.0045
   8.7475E-01   8.9603E-01   4.6795E-04  0.0045
   8.9603E-01   9.1783E-01   4.5110E-04  0.0045
   9.1783E-01   9.4016E-01   4.3504E-04  0.0045
   9.4016E-01   9.6304E-01   4.1851E-04  0.0046
   9.6304E-01   9.8647E-01   4.0557E-04  0.0046
   9.8647E-01   1.0105E+00   3.8626E-04  0.0046
   1.0105E+00   1.0351E+00   3.8473E-04  0.0046
   1.0351E+00   1.0602E+00   3.8622E-04  0.0045
   1.0602E+00   1.0860E+00   3.8832E-04  0.0045
   1.0860E+00   1.1125E+00   3.9161E-04  0.0044
   1.1125E+00   1.1395E+00   3.9745E-04  0.0043
   1.1395E+00   1.1673E+00   3.9695E-04  0.0043
   1.1673E+00   1.1957E+00   4.0493E-04  0.0042
   1.1957E+00   1.2247E+00   4.0849E-04  0.0041
   1.2247E+00   1.2545E+00   4.0876E-04  0.0040
   1.2545E+00   1.2851E+00   4.0579E-04  0.0040
   1.2851E+00   1.3163E+00   4.0497E-04  0.0040
   1.3163E+00   1.3484E+00   4.0605E-04  0.0039
   1.3484E+00   1.3812E+00   4.0839E-04  0.0038
   1.3812E+00   1.4148E+00   4.0956E-04  0.0038
   1.4148E+00   1.4492E+00   4.0843E-04  0.0037
   1.4492E+00   1.4845E+00   3.9888E-04  0.0037
   1.4845E+00   1.5206E+00   3.9296E-04  0.0037
   1.5206E+00   1.5576E+00   3.9085E-04  0.0037
   1.5576E+00   1.5955E+00   3.8352E-04  0.0037
   1.5955E+00   1.6343E+00   3.7647E-04  0.0037
   1.6343E+00   1.6741E+00   3.7767E-04  0.0036
   1.6741E+00   1.7148E+00   3.7130E-04  0.0036
   1.7148E+00   1.7565E+00   3.5748E-04  0.0036
   1.7565E+00   1.7992E+00   3.4103E-04  0.0036
   1.7992E+00   1.8430E+00   3.2291E-04  0.0037
   1.8430E+00   1.8879E+00   3.1124E-04  0.0037
   1.8879E+00   1.9338E+00   3.0707E-04  0.0037
   1.9338E+00   1.9808E+00   3.0175E-04  0.0037
   1.9808E+00   2.0290E+00   2.9689E-04  0.0037
   2.0290E+00   2.0784E+00   2.9644E-04  0.0036
   2.0784E+00   2.1290E+00   2.9743E-04  0.0036
   2.1290E+00   2.1808E+00   2.9773E-04  0.0035
   2.1808E+00   2.2338E+00   2.9228E-04  0.0035
   2.2338E+00   2.2882E+00   2.8655E-04  0.0035
   2.2882E+00   2.3439E+00   2.7582E-04  0.0035
   2.3439E+00   2.4009E+00   2.7394E-04  0.0035
   2.4009E+00   2.4593E+00   2.6997E-04  0.0035
   2.4593E+00   2.5191E+00   2.6453E-04  0.0035
   2.5191E+00   2.5804E+00   2.6031E-04  0.0035
   2.5804E+00   2.6432E+00   2.5301E-04  0.0035
   2.6432E+00   2.7075E+00   2.4970E-04  0.0035
   2.7075E+00   2.7734E+00   2.4276E-04  0.0035
   2.7734E+00   2.8409E+00   2.3755E-04  0.0035
   2.8409E+00   2.9100E+00   2.3447E-04  0.0034
   2.9100E+00   2.9808E+00   2.3095E-04  0.0034
   2.9808E+00   3.0533E+00   2.2586E-04  0.0034
   3.0533E+00   3.1276E+00   2.1871E-04  0.0035
   3.1276E+00   3.2037E+00   2.1483E-04  0.0034
   3.2037E+00   3.2817E+00   2.1114E-04  0.0034
   3.2817E+00   3.3615E+00   2.0760E-04  0.0034
   3.3615E+00   3.4433E+00   2.0198E-04  0.0034
   3.4433E+00   3.5271E+00   2.0035E-04  0.0034
   3.5271E+00   3.6129E+00   1.9618E-04  0.0034
   3.6129E+00   3.7008E+00   1.9140E-04  0.0034
   3.7008E+00   3.7908E+00   1.8782E-04  0.0034
   3.7908E+00   3.8831E+00   1.8216E-04  0.0034
   3.8831E+00   3.9776E+00   1.7662E-04  0.0034
   3.9776E+00   4.0743E+00   1.7298E-04  0.0034
   4.0743E+00   4.1735E+00   1.6865E-04  0.0034
   4.1735E+00   4.2750E+00   1.6368E-04  0.0034
   4.2750E+00   4.3790E+00   1.5831E-04  0.0034
   4.3790E+00   4.4856E+00   1.5311E-04  0.0035
   4.4856E+00   4.5947E+00   1.4910E-04  0.0035
   4.5947E+00   4.7065E+00   1.4313E-04  0.0035
   4.7065E+00   4.8210E+00   1.4029E-04  0.0035
   4.8210E+00   4.9383E+00   1.3578E-04  0.0035
   4.9383E+00   5.0585E+00   1.3089E-04  0.0035
   5.0585E+00   5.1815E+00   1.2829E-04  0.0035
   5.1815E+00   5.3076E+00   1.2344E-04  0.0035
   5.3076E+00   5.4368E+00   1.1930E-04  0.0036
   5.4368E+00   5.5690E+00   1.1610E-04  0.0036
   5.5690E+00   5.7045E+00   1.1213E-04  0.0036
   5.7045E+00   5.8433E+00   1.0812E-04  0.0036
   5.8433E+00   5.9855E+00   1.0400E-04  0.0036
   5.9855E+00   6.1311E+00   1.0092E-04  0.0037
   6.1311E+00   6.2803E+00   9.7082E-05  0.0037
   6.2803E+00   6.4331E+00   9.2909E-05  0.0037
   6.4331E+00   6.5896E+00   8.8518E-05  0.0038
   6.5896E+00   6.7500E+00   8.4867E-05  0.0038
   6.7500E+00   6.9142E+00   8.0507E-05  0.0039
   6.9142E+00   7.0824E+00   7.6554E-05  0.0039
   7.0824E+00   7.2548E+00   7.1710E-05  0.0040
   7.2548E+00   7.4313E+00   6.8723E-05  0.0040
   7.4313E+00   7.6121E+00   6.5387E-05  0.0041
   7.6121E+00   7.7973E+00   6.1848E-05  0.0042
   7.7973E+00   7.9870E+00   5.7959E-05  0.0043
   7.9870E+00   8.1813E+00   5.5525E-05  0.0043
   8.1813E+00   8.3804E+00   5.2340E-05  0.0044
   8.3804E+00   8.5843E+00   4.9549E-05  0.0044
   8.5843E+00   8.7931E+00   4.7238E-05  0.0045
   8.7931E+00   9.0071E+00   4.4329E-05  0.0046
   9.0071E+00   9.2262E+00   4.2040E-05  0.0047
   9.2262E+00   9.4507E+00   3.9511E-05  0.0048
   9.4507E+00   9.6807E+00   3.6753E-05  0.0049
   9.6807E+00   9.9162E+00   3.5281E-05  0.0049
   9.9162E+00   1.0157E+01   3.4242E-05  0.0049
   1.0157E+01   1.0405E+01   3.2472E-05  0.0050
   1.0405E+01   1.0658E+01   3.0331E-05  0.0051
   1.0658E+01   1.0917E+01   2.8270E-05  0.0053
   1.0917E+01   1.1183E+01   2.6654E-05  0.0053
   1.1183E+01   1.1455E+01   2.4994E-05  0.0055
   1.1455E+01   1.1733E+01   2.3525E-05  0.0056
   1.1733E+01   1.2019E+01   2.2236E-05  0.0056
   1.2019E+01   1.2311E+01   2.0936E-05  0.0058
   1.2311E+01   1.2611E+01   1.9582E-05  0.0059
   1.2611E+01   1.2918E+01   1.8424E-05  0.0060
   1.2918E+01   1.3232E+01   1.7301E-05  0.0061
   1.3232E+01   1.3554E+01   1.6027E-05  0.0063
   1.3554E+01   1.3884E+01   1.4892E-05  0.0064
   1.3884E+01   1.4222E+01   1.4061E-05  0.0065
   1.4222E+01   1.4568E+01   1.3115E-05  0.0067
   1.4568E+01   1.4922E+01   1.2195E-05  0.0069
   1.4922E+01   1.5285E+01   1.1524E-05  0.0070
   1.5285E+01   1.5657E+01   1.0643E-05  0.0072
   1.5657E+01   1.6038E+01   9.8765E-06  0.0074
   1.6038E+01   1.6428E+01   9.2920E-06  0.0075
   1.6428E+01   1.6828E+01   8.6422E-06  0.0077
   1.6828E+01   1.7237E+01   8.0416E-06  0.0079
   1.7237E+01   1.7657E+01   7.3166E-06  0.0081
   1.7657E+01   1.8086E+01   6.9356E-06  0.0083
   1.8086E+01   1.8526E+01   6.4184E-06  0.0085
   1.8526E+01   1.8977E+01   5.8785E-06  0.0088
   1.8977E+01   1.9439E+01   5.4508E-06  0.0090
   1.9439E+01   1.9912E+01   4.9787E-06  0.0093
   1.9912E+01   2.0396E+01   4.5389E-06  0.0096
   2.0396E+01   2.0893E+01   4.1835E-06  0.0099
   2.0893E+01   2.1401E+01   3.8252E-06  0.0102
   2.1401E+01   2.1922E+01   3.4330E-06  0.0107
   2.1922E+01   2.2455E+01   3.1678E-06  0.0110
   2.2455E+01   2.3001E+01   2.8068E-06  0.0115
   2.3001E+01   2.3561E+01   2.5647E-06  0.0119
   2.3561E+01   2.4134E+01   2.2553E-06  0.0126
   2.4134E+01   2.4721E+01   2.0206E-06  0.0131
   2.4721E+01   2.5323E+01   1.8301E-06  0.0136
   2.5323E+01   2.5939E+01   1.6052E-06  0.0144
   2.5939E+01   2.6570E+01   1.4509E-06  0.0149
   2.6570E+01   2.7217E+01   1.2810E-06  0.0157
   2.7217E+01   2.7879E+01   1.1468E-06  0.0164
   2.7879E+01   2.8557E+01   9.7811E-07  0.0175
   2.8557E+01   2.9252E+01   8.8615E-07  0.0182
   2.9252E+01   2.9964E+01   7.4754E-07  0.0196
   2.9964E+01   3.0693E+01   6.5308E-07  0.0207
   3.0693E+01   3.1440E+01   5.5531E-07  0.0222
   3.1440E+01   3.2205E+01   4.8262E-07  0.0235
   3.2205E+01   3.2988E+01   4.1126E-07  0.0252
   3.2988E+01   3.3791E+01   3.4555E-07  0.0271
   3.3791E+01   3.4613E+01   2.9341E-07  0.0291
   3.4613E+01   3.5455E+01   2.5227E-07  0.0310
   3.5455E+01   3.6318E+01   2.1481E-07  0.0332
   3.6318E+01   3.7201E+01   1.7645E-07  0.0362
   3.7201E+01   3.8106E+01   1.5355E-07  0.0383
   3.8106E+01   3.9034E+01   1.2613E-07  0.0418
   3.9034E+01   3.9983E+01   1.1303E-07  0.0436
   3.9983E+01   4.0956E+01   8.8738E-08  0.0486
   4.0956E+01   4.1953E+01   7.8233E-08  0.0512
   4.1953E+01   4.2973E+01   6.3979E-08  0.0559
   4.2973E+01   4.4019E+01   5.3286E-08  0.0605
   4.4019E+01   4.5090E+01   5.2592E-08  0.0602
   4.5090E+01   4.6187E+01   3.5530E-08  0.0724
   4.6187E+01   4.7311E+01   3.0691E-08  0.0769
   4.7311E+01   4.8462E+01   2.5885E-08  0.0828
   4.8462E+01   4.9641E+01   2.0250E-08  0.0925
   4.9641E+01   5.0849E+01   1.7235E-08  0.0990
   5.0849E+01   5.2086E+01   1.0722E-08  0.1240
   5.2086E+01   5.3353E+01   6.9246E-09  0.1525
   5.3353E+01   5.4651E+01   5.0308E-09  0.1768
   5.4651E+01   5.5981E+01   3.5300E-09  0.2085
   5.5981E+01   5.7343E+01   2.8468E-09  0.2294
   5.7343E+01   5.8738E+01   1.6090E-09  0.3015
   5.8738E+01   6.0168E+01   1.8564E-09  0.2774
   6.0168E+01   6.1632E+01   6.9704E-10  0.4472
   6.1632E+01   6.3131E+01   5.4438E-10  0.5000
   6.3131E+01   6.4667E+01   3.9859E-10  0.5774
   6.4667E+01   6.6240E+01   1.2971E-10  1.0000
   6.6240E+01   6.7852E+01   1.2663E-10  1.0000
   6.7852E+01   6.9503E+01   2.4724E-10  0.7071
   6.9503E+01   7.1194E+01   0.0000E+00  0.0000
   7.1194E+01   7.2926E+01   0.0000E+00  0.0000
   7.2926E+01   7.4701E+01   0.0000E+00  0.0000
   7.4701E+01   7.6518E+01   0.0000E+00  0.0000
   7.6518E+01   7.8380E+01   0.0000E+00  0.0000
   7.8380E+01   8.0287E+01   0.0000E+00  0.0000
   8.0287E+01   8.2240E+01   0.0000E+00  0.0000
   8.2240E+01   8.4241E+01   0.0000E+00  0.0000
   8.4241E+01   8.6291E+01   0.0000E+00  0.0000
   8.6291E+01   8.8391E+01   0.0000E+00  0.0000
   8.8391E+01   9.0541E+01   0.0000E+00  0.0000
   9.0541E+01   9.2744E+01   0.0000E+00  0.0000
   9.2744E+01   9.5001E+01   0.0000E+00  0.0000
   9.5001E+01   9.7312E+01   0.0000E+00  0.0000
   9.7312E+01   9.9680E+01   0.0000E+00  0.0000
   9.9680E+01   1.0211E+02   0.0000E+00  0.0000
   1.0211E+02   1.0459E+02   0.0000E+00  0.0000
   1.0459E+02   1.0713E+02   0.0000E+00  0.0000
   1.0713E+02   1.0974E+02   0.0000E+00  0.0000
   1.0974E+02   1.1241E+02   0.0000E+00  0.0000
   1.1241E+02   1.1515E+02   0.0000E+00  0.0000
   1.1515E+02   1.1795E+02   0.0000E+00  0.0000
   1.1795E+02   1.2082E+02   0.0000E+00  0.0000
   1.2082E+02   1.2376E+02   0.0000E+00  0.0000
   1.2376E+02   1.2677E+02   0.0000E+00  0.0000
   1.2677E+02   1.2985E+02   0.0000E+00  0.0000
   1.2985E+02   1.3301E+02   0.0000E+00  0.0000
   1.3301E+02   1.3625E+02   0.0000E+00  0.0000
   1.3625E+02   1.3956E+02   0.0000E+00  0.0000
   1.3956E+02   1.4296E+02   0.0000E+00  0.0000
   1.4296E+02   1.4644E+02   0.0000E+00  0.0000
   1.4644E+02   1.5000E+02   0.0000E+00  0.0000

#   sum over                 1.3075E-05
'no. =    1   reg = 118 - 218'
msuc: {\huge [t-cross] in region mesh}
msdr: {\it plotted by \ANGEL \version}
msdl: {\it calculated by \PHITS  3.26}
wt: s(0.7)
\vspace{-3}
  region surface crossing
  area  &=&   1.0000E+00 [cm^2]
e:
 
# Information for Restart Calculation
# This calculation was newly started
# istdev =  2 # 1:Batch variance, 2:History variance
# resc2  = 4.90000000000000000E+09 # Total source weight or Total source weight / maxcas
# resc3  = 4.90000000000000000E+09 # Total history number or Total batch number
# maxcas =   100000000 # History / Batch, only used for istdev=1
# bitrseed = 1010100001101100001010110100011000011010110011110100001101011000 # bit data of rseed
