[ T-Cross ]
    title = [t-cross] in region mesh
     mesh =  reg            # mesh type is region-wise
      reg =    1            # number of crossing regions
      non     r-from    r-to       area
      1       107       207        1.000000    
   e-type =    3            # e-mesh is log given by emin, emax and ne
     emin =  1.0000000E-02  # minimum value of e-mesh points
     emax =   150.0000      # maximum value of e-mesh points
#    edel =  2.4039514E-02  # mesh width of e-mesh points
       ne =    400          # number of e-mesh points
#    data = ( e(i), i = 1, ne + 1 )
#           1.00000E-02  1.02433E-02  1.04925E-02  1.07478E-02  1.10093E-02
#           1.12772E-02  1.15516E-02  1.18326E-02  1.21205E-02  1.24154E-02
#           1.27175E-02  1.30269E-02  1.33439E-02  1.36686E-02  1.40011E-02
#           1.43418E-02  1.46907E-02  1.50482E-02  1.54143E-02  1.57894E-02
#           1.61735E-02  1.65670E-02  1.69701E-02  1.73830E-02  1.78060E-02
#           1.82392E-02  1.86830E-02  1.91375E-02  1.96032E-02  2.00801E-02
#           2.05687E-02  2.10692E-02  2.15818E-02  2.21069E-02  2.26448E-02
#           2.31957E-02  2.37601E-02  2.43382E-02  2.49304E-02  2.55369E-02
#           2.61583E-02  2.67947E-02  2.74467E-02  2.81145E-02  2.87985E-02
#           2.94992E-02  3.02169E-02  3.09521E-02  3.17052E-02  3.24766E-02
#           3.32668E-02  3.40762E-02  3.49053E-02  3.57546E-02  3.66246E-02
#           3.75157E-02  3.84284E-02  3.93634E-02  4.03212E-02  4.13022E-02
#           4.23071E-02  4.33365E-02  4.43909E-02  4.54710E-02  4.65773E-02
#           4.77106E-02  4.88714E-02  5.00605E-02  5.12785E-02  5.25262E-02
#           5.38042E-02  5.51133E-02  5.64542E-02  5.78278E-02  5.92348E-02
#           6.06760E-02  6.21523E-02  6.36645E-02  6.52135E-02  6.68002E-02
#           6.84255E-02  7.00904E-02  7.17957E-02  7.35426E-02  7.53319E-02
#           7.71648E-02  7.90423E-02  8.09655E-02  8.29354E-02  8.49533E-02
#           8.70203E-02  8.91376E-02  9.13064E-02  9.35279E-02  9.58035E-02
#           9.81345E-02  1.00522E-01  1.02968E-01  1.05473E-01  1.08040E-01
#           1.10668E-01  1.13361E-01  1.16119E-01  1.18944E-01  1.21838E-01
#           1.24803E-01  1.27839E-01  1.30950E-01  1.34136E-01  1.37399E-01
#           1.40742E-01  1.44167E-01  1.47675E-01  1.51268E-01  1.54948E-01
#           1.58718E-01  1.62580E-01  1.66535E-01  1.70587E-01  1.74738E-01
#           1.78989E-01  1.83344E-01  1.87805E-01  1.92375E-01  1.97055E-01
#           2.01850E-01  2.06761E-01  2.11792E-01  2.16945E-01  2.22223E-01
#           2.27630E-01  2.33169E-01  2.38842E-01  2.44653E-01  2.50605E-01
#           2.56703E-01  2.62949E-01  2.69346E-01  2.75900E-01  2.82613E-01
#           2.89489E-01  2.96532E-01  3.03747E-01  3.11138E-01  3.18708E-01
#           3.26462E-01  3.34405E-01  3.42542E-01  3.50876E-01  3.59413E-01
#           3.68158E-01  3.77116E-01  3.86291E-01  3.95690E-01  4.05317E-01
#           4.15179E-01  4.25281E-01  4.35628E-01  4.46227E-01  4.57084E-01
#           4.68205E-01  4.79597E-01  4.91266E-01  5.03219E-01  5.15463E-01
#           5.28005E-01  5.40851E-01  5.54011E-01  5.67490E-01  5.81298E-01
#           5.95441E-01  6.09929E-01  6.24769E-01  6.39970E-01  6.55541E-01
#           6.71491E-01  6.87828E-01  7.04564E-01  7.21706E-01  7.39266E-01
#           7.57253E-01  7.75678E-01  7.94551E-01  8.13883E-01  8.33685E-01
#           8.53969E-01  8.74747E-01  8.96030E-01  9.17831E-01  9.40163E-01
#           9.63038E-01  9.86469E-01  1.01047E+00  1.03506E+00  1.06024E+00
#           1.08604E+00  1.11246E+00  1.13953E+00  1.16725E+00  1.19565E+00
#           1.22474E+00  1.25454E+00  1.28507E+00  1.31633E+00  1.34836E+00
#           1.38117E+00  1.41477E+00  1.44920E+00  1.48446E+00  1.52057E+00
#           1.55757E+00  1.59547E+00  1.63429E+00  1.67405E+00  1.71478E+00
#           1.75650E+00  1.79924E+00  1.84302E+00  1.88786E+00  1.93379E+00
#           1.98084E+00  2.02904E+00  2.07841E+00  2.12898E+00  2.18078E+00
#           2.23384E+00  2.28819E+00  2.34386E+00  2.40089E+00  2.45930E+00
#           2.51914E+00  2.58043E+00  2.64322E+00  2.70753E+00  2.77341E+00
#           2.84088E+00  2.91001E+00  2.98081E+00  3.05333E+00  3.12762E+00
#           3.20372E+00  3.28167E+00  3.36152E+00  3.44330E+00  3.52708E+00
#           3.61290E+00  3.70080E+00  3.79085E+00  3.88308E+00  3.97756E+00
#           4.07434E+00  4.17347E+00  4.27501E+00  4.37903E+00  4.48557E+00
#           4.59471E+00  4.70650E+00  4.82102E+00  4.93832E+00  5.05847E+00
#           5.18155E+00  5.30762E+00  5.43676E+00  5.56904E+00  5.70453E+00
#           5.84333E+00  5.98550E+00  6.13114E+00  6.28031E+00  6.43312E+00
#           6.58964E+00  6.74997E+00  6.91420E+00  7.08243E+00  7.25475E+00
#           7.43126E+00  7.61207E+00  7.79728E+00  7.98700E+00  8.18133E+00
#           8.38038E+00  8.58428E+00  8.79315E+00  9.00709E+00  9.22624E+00
#           9.45072E+00  9.68067E+00  9.91620E+00  1.01575E+01  1.04046E+01
#           1.06578E+01  1.09171E+01  1.11827E+01  1.14548E+01  1.17335E+01
#           1.20190E+01  1.23114E+01  1.26109E+01  1.29178E+01  1.32321E+01
#           1.35540E+01  1.38838E+01  1.42216E+01  1.45676E+01  1.49221E+01
#           1.52851E+01  1.56570E+01  1.60380E+01  1.64282E+01  1.68279E+01
#           1.72374E+01  1.76568E+01  1.80864E+01  1.85264E+01  1.89772E+01
#           1.94389E+01  1.99119E+01  2.03963E+01  2.08926E+01  2.14009E+01
#           2.19216E+01  2.24550E+01  2.30014E+01  2.35610E+01  2.41343E+01
#           2.47215E+01  2.53230E+01  2.59391E+01  2.65702E+01  2.72167E+01
#           2.78789E+01  2.85572E+01  2.92520E+01  2.99637E+01  3.06928E+01
#           3.14396E+01  3.22045E+01  3.29881E+01  3.37907E+01  3.46128E+01
#           3.54550E+01  3.63177E+01  3.72013E+01  3.81064E+01  3.90336E+01
#           3.99833E+01  4.09561E+01  4.19526E+01  4.29734E+01  4.40189E+01
#           4.50900E+01  4.61870E+01  4.73108E+01  4.84619E+01  4.96410E+01
#           5.08488E+01  5.20860E+01  5.33533E+01  5.46514E+01  5.59812E+01
#           5.73432E+01  5.87384E+01  6.01676E+01  6.16315E+01  6.31311E+01
#           6.46671E+01  6.62405E+01  6.78522E+01  6.95031E+01  7.11941E+01
#           7.29263E+01  7.47007E+01  7.65182E+01  7.83800E+01  8.02870E+01
#           8.22405E+01  8.42414E+01  8.62911E+01  8.83906E+01  9.05412E+01
#           9.27442E+01  9.50007E+01  9.73122E+01  9.96799E+01  1.02105E+02
#           1.04589E+02  1.07134E+02  1.09741E+02  1.12411E+02  1.15146E+02
#           1.17948E+02  1.20817E+02  1.23757E+02  1.26768E+02  1.29852E+02
#           1.33012E+02  1.36248E+02  1.39563E+02  1.42959E+02  1.46437E+02
#           1.50000E+02
     unit =    2            # unit is [1/cm^2/(MeV/n)/source]
     axis =  eng            # axis of output
     file = detector-08.out  # file name of output for the above axis
   output = f-curr          # surface crossing forward current spectrum
     part =  neutron  
# kf/name :  2112     
#    used :        main (  %)        temp (  %)       total (  %)
#  memory :         414 (  0)           0 (  0)         414 (  0)

#------------------------------------------------------------------------------
#newpage:
#   no. =    1   reg = 107 - 207

x: Energy [MeV/n]
y:  F-Curr [1/cm^2/(MeV/n)/source]         
p: xlog ylog afac(0.8) form(0.9)
h: n            x            y(neutron ),hh0l   n 
#  e-lower      e-upper      neutron     r.err 
   1.0000E-02   1.0243E-02   3.5057E-03  0.0153
   1.0243E-02   1.0493E-02   3.3990E-03  0.0153
   1.0493E-02   1.0748E-02   3.4404E-03  0.0151
   1.0748E-02   1.1009E-02   3.3170E-03  0.0152
   1.1009E-02   1.1277E-02   3.1707E-03  0.0153
   1.1277E-02   1.1552E-02   3.2350E-03  0.0150
   1.1552E-02   1.1833E-02   3.1237E-03  0.0151
   1.1833E-02   1.2121E-02   3.0954E-03  0.0150
   1.2121E-02   1.2415E-02   3.0269E-03  0.0149
   1.2415E-02   1.2718E-02   3.1052E-03  0.0146
   1.2718E-02   1.3027E-02   2.9914E-03  0.0147
   1.3027E-02   1.3344E-02   2.9458E-03  0.0146
   1.3344E-02   1.3669E-02   2.9728E-03  0.0144
   1.3669E-02   1.4001E-02   3.0037E-03  0.0141
   1.4001E-02   1.4342E-02   2.8338E-03  0.0144
   1.4342E-02   1.4691E-02   2.8982E-03  0.0140
   1.4691E-02   1.5048E-02   2.8008E-03  0.0141
   1.5048E-02   1.5414E-02   2.8031E-03  0.0139
   1.5414E-02   1.5789E-02   2.6647E-03  0.0141
   1.5789E-02   1.6174E-02   2.6688E-03  0.0139
   1.6174E-02   1.6567E-02   2.6254E-03  0.0139
   1.6567E-02   1.6970E-02   2.6463E-03  0.0137
   1.6970E-02   1.7383E-02   2.5551E-03  0.0138
   1.7383E-02   1.7806E-02   2.5472E-03  0.0136
   1.7806E-02   1.8239E-02   2.5047E-03  0.0136
   1.8239E-02   1.8683E-02   2.4770E-03  0.0135
   1.8683E-02   1.9138E-02   2.4287E-03  0.0134
   1.9138E-02   1.9603E-02   2.4216E-03  0.0133
   1.9603E-02   2.0080E-02   2.3061E-03  0.0135
   2.0080E-02   2.0569E-02   2.3017E-03  0.0133
   2.0569E-02   2.1069E-02   2.3572E-03  0.0130
   2.1069E-02   2.1582E-02   2.2497E-03  0.0132
   2.1582E-02   2.2107E-02   2.2338E-03  0.0130
   2.2107E-02   2.2645E-02   2.1995E-03  0.0130
   2.2645E-02   2.3196E-02   2.1770E-03  0.0129
   2.3196E-02   2.3760E-02   2.1526E-03  0.0128
   2.3760E-02   2.4338E-02   2.0993E-03  0.0128
   2.4338E-02   2.4930E-02   2.0756E-03  0.0127
   2.4930E-02   2.5537E-02   2.0561E-03  0.0126
   2.5537E-02   2.6158E-02   2.0037E-03  0.0127
   2.6158E-02   2.6795E-02   2.0359E-03  0.0124
   2.6795E-02   2.7447E-02   1.9311E-03  0.0126
   2.7447E-02   2.8114E-02   1.9523E-03  0.0124
   2.8114E-02   2.8799E-02   1.8992E-03  0.0124
   2.8799E-02   2.9499E-02   1.8956E-03  0.0123
   2.9499E-02   3.0217E-02   1.8205E-03  0.0124
   3.0217E-02   3.0952E-02   1.8358E-03  0.0122
   3.0952E-02   3.1705E-02   1.8225E-03  0.0121
   3.1705E-02   3.2477E-02   1.7768E-03  0.0121
   3.2477E-02   3.3267E-02   1.7273E-03  0.0121
   3.3267E-02   3.4076E-02   1.6861E-03  0.0121
   3.4076E-02   3.4905E-02   1.6860E-03  0.0119
   3.4905E-02   3.5755E-02   1.6718E-03  0.0119
   3.5755E-02   3.6625E-02   1.6630E-03  0.0117
   3.6625E-02   3.7516E-02   1.6340E-03  0.0117
   3.7516E-02   3.8428E-02   1.5821E-03  0.0118
   3.8428E-02   3.9363E-02   1.5960E-03  0.0116
   3.9363E-02   4.0321E-02   1.5533E-03  0.0116
   4.0321E-02   4.1302E-02   1.5492E-03  0.0115
   4.1302E-02   4.2307E-02   1.5163E-03  0.0114
   4.2307E-02   4.3337E-02   1.4789E-03  0.0114
   4.3337E-02   4.4391E-02   1.4694E-03  0.0113
   4.4391E-02   4.5471E-02   1.4514E-03  0.0113
   4.5471E-02   4.6577E-02   1.3941E-03  0.0114
   4.6577E-02   4.7711E-02   1.3934E-03  0.0112
   4.7711E-02   4.8871E-02   1.3732E-03  0.0112
   4.8871E-02   5.0061E-02   1.3585E-03  0.0111
   5.0061E-02   5.1279E-02   1.3436E-03  0.0110
   5.1279E-02   5.2526E-02   1.3056E-03  0.0111
   5.2526E-02   5.3804E-02   1.2641E-03  0.0111
   5.3804E-02   5.5113E-02   1.2724E-03  0.0109
   5.5113E-02   5.6454E-02   1.2682E-03  0.0108
   5.6454E-02   5.7828E-02   1.2262E-03  0.0109
   5.7828E-02   5.9235E-02   1.2132E-03  0.0108
   5.9235E-02   6.0676E-02   1.1879E-03  0.0108
   6.0676E-02   6.2152E-02   1.1905E-03  0.0107
   6.2152E-02   6.3665E-02   1.1722E-03  0.0106
   6.3665E-02   6.5214E-02   1.1549E-03  0.0106
   6.5214E-02   6.6800E-02   1.1062E-03  0.0107
   6.6800E-02   6.8426E-02   1.0835E-03  0.0106
   6.8426E-02   7.0090E-02   1.0746E-03  0.0106
   7.0090E-02   7.1796E-02   1.0678E-03  0.0105
   7.1796E-02   7.3543E-02   1.0544E-03  0.0104
   7.3543E-02   7.5332E-02   1.0382E-03  0.0104
   7.5332E-02   7.7165E-02   1.0064E-03  0.0104
   7.7165E-02   7.9042E-02   1.0002E-03  0.0103
   7.9042E-02   8.0965E-02   9.7029E-04  0.0103
   8.0965E-02   8.2935E-02   9.5030E-04  0.0103
   8.2935E-02   8.4953E-02   9.3936E-04  0.0103
   8.4953E-02   8.7020E-02   9.2366E-04  0.0102
   8.7020E-02   8.9138E-02   9.1573E-04  0.0101
   8.9138E-02   9.1306E-02   9.0021E-04  0.0101
   9.1306E-02   9.3528E-02   8.8811E-04  0.0101
   9.3528E-02   9.5804E-02   8.6847E-04  0.0100
   9.5804E-02   9.8134E-02   8.5260E-04  0.0100
   9.8134E-02   1.0052E-01   8.1205E-04  0.0101
   1.0052E-01   1.0297E-01   8.1221E-04  0.0100
   1.0297E-01   1.0547E-01   8.1056E-04  0.0099
   1.0547E-01   1.0804E-01   7.8434E-04  0.0100
   1.0804E-01   1.1067E-01   7.8301E-04  0.0098
   1.1067E-01   1.1336E-01   7.5135E-04  0.0099
   1.1336E-01   1.1612E-01   7.4116E-04  0.0099
   1.1612E-01   1.1894E-01   7.3306E-04  0.0098
   1.1894E-01   1.2184E-01   7.2056E-04  0.0098
   1.2184E-01   1.2480E-01   6.9940E-04  0.0098
   1.2480E-01   1.2784E-01   6.9783E-04  0.0097
   1.2784E-01   1.3095E-01   6.9323E-04  0.0096
   1.3095E-01   1.3414E-01   6.6071E-04  0.0097
   1.3414E-01   1.3740E-01   6.4383E-04  0.0097
   1.3740E-01   1.4074E-01   6.3458E-04  0.0097
   1.4074E-01   1.4417E-01   6.2543E-04  0.0097
   1.4417E-01   1.4767E-01   6.1720E-04  0.0096
   1.4767E-01   1.5127E-01   5.9584E-04  0.0097
   1.5127E-01   1.5495E-01   5.7075E-04  0.0097
   1.5495E-01   1.5872E-01   5.6877E-04  0.0096
   1.5872E-01   1.6258E-01   5.5265E-04  0.0097
   1.6258E-01   1.6654E-01   5.3873E-04  0.0097
   1.6654E-01   1.7059E-01   5.3203E-04  0.0096
   1.7059E-01   1.7474E-01   5.2351E-04  0.0096
   1.7474E-01   1.7899E-01   5.0824E-04  0.0096
   1.7899E-01   1.8334E-01   5.0286E-04  0.0095
   1.8334E-01   1.8781E-01   4.8505E-04  0.0096
   1.8781E-01   1.9237E-01   4.7791E-04  0.0096
   1.9237E-01   1.9706E-01   4.7438E-04  0.0095
   1.9706E-01   2.0185E-01   4.5653E-04  0.0095
   2.0185E-01   2.0676E-01   4.6317E-04  0.0094
   2.0676E-01   2.1179E-01   4.7503E-04  0.0091
   2.1179E-01   2.1694E-01   4.9457E-04  0.0088
   2.1694E-01   2.2222E-01   5.0291E-04  0.0087
   2.2222E-01   2.2763E-01   5.1169E-04  0.0085
   2.2763E-01   2.3317E-01   5.1956E-04  0.0083
   2.3317E-01   2.3884E-01   5.2669E-04  0.0082
   2.3884E-01   2.4465E-01   5.3523E-04  0.0080
   2.4465E-01   2.5061E-01   5.4168E-04  0.0079
   2.5061E-01   2.5670E-01   5.5741E-04  0.0077
   2.5670E-01   2.6295E-01   5.6590E-04  0.0075
   2.6295E-01   2.6935E-01   5.7532E-04  0.0074
   2.6935E-01   2.7590E-01   5.8646E-04  0.0072
   2.7590E-01   2.8261E-01   6.0168E-04  0.0070
   2.8261E-01   2.8949E-01   6.0291E-04  0.0069
   2.8949E-01   2.9653E-01   6.1663E-04  0.0068
   2.9653E-01   3.0375E-01   6.2511E-04  0.0066
   3.0375E-01   3.1114E-01   6.3378E-04  0.0065
   3.1114E-01   3.1871E-01   6.4130E-04  0.0064
   3.1871E-01   3.2646E-01   6.4941E-04  0.0063
   3.2646E-01   3.3441E-01   6.6129E-04  0.0062
   3.3441E-01   3.4254E-01   6.6527E-04  0.0061
   3.4254E-01   3.5088E-01   6.7824E-04  0.0059
   3.5088E-01   3.5941E-01   6.8727E-04  0.0058
   3.5941E-01   3.6816E-01   6.8782E-04  0.0058
   3.6816E-01   3.7712E-01   6.9807E-04  0.0056
   3.7712E-01   3.8629E-01   7.1226E-04  0.0055
   3.8629E-01   3.9569E-01   7.1321E-04  0.0055
   3.9569E-01   4.0532E-01   7.1883E-04  0.0054
   4.0532E-01   4.1518E-01   7.3157E-04  0.0053
   4.1518E-01   4.2528E-01   7.3547E-04  0.0052
   4.2528E-01   4.3563E-01   7.3717E-04  0.0051
   4.3563E-01   4.4623E-01   7.4185E-04  0.0050
   4.4623E-01   4.5708E-01   7.5182E-04  0.0049
   4.5708E-01   4.6821E-01   7.4807E-04  0.0049
   4.6821E-01   4.7960E-01   7.5398E-04  0.0048
   4.7960E-01   4.9127E-01   7.6944E-04  0.0047
   4.9127E-01   5.0322E-01   7.8070E-04  0.0046
   5.0322E-01   5.1546E-01   7.7585E-04  0.0046
   5.1546E-01   5.2800E-01   7.8690E-04  0.0045
   5.2800E-01   5.4085E-01   7.8527E-04  0.0044
   5.4085E-01   5.5401E-01   7.9107E-04  0.0044
   5.5401E-01   5.6749E-01   7.9090E-04  0.0043
   5.6749E-01   5.8130E-01   7.9121E-04  0.0043
   5.8130E-01   5.9544E-01   8.0311E-04  0.0042
   5.9544E-01   6.0993E-01   8.0585E-04  0.0041
   6.0993E-01   6.2477E-01   8.0624E-04  0.0041
   6.2477E-01   6.3997E-01   8.0346E-04  0.0040
   6.3997E-01   6.5554E-01   8.1265E-04  0.0040
   6.5554E-01   6.7149E-01   8.0705E-04  0.0039
   6.7149E-01   6.8783E-01   8.0592E-04  0.0039
   6.8783E-01   7.0456E-01   8.0858E-04  0.0038
   7.0456E-01   7.2171E-01   8.0825E-04  0.0038
   7.2171E-01   7.3927E-01   8.0628E-04  0.0038
   7.3927E-01   7.5725E-01   8.0099E-04  0.0037
   7.5725E-01   7.7568E-01   8.0377E-04  0.0037
   7.7568E-01   7.9455E-01   7.9787E-04  0.0036
   7.9455E-01   8.1388E-01   7.9845E-04  0.0036
   8.1388E-01   8.3368E-01   7.8706E-04  0.0036
   8.3368E-01   8.5397E-01   7.8215E-04  0.0035
   8.5397E-01   8.7475E-01   7.7394E-04  0.0035
   8.7475E-01   8.9603E-01   7.6671E-04  0.0035
   8.9603E-01   9.1783E-01   7.5758E-04  0.0035
   9.1783E-01   9.4016E-01   7.4396E-04  0.0035
   9.4016E-01   9.6304E-01   7.2997E-04  0.0035
   9.6304E-01   9.8647E-01   7.1448E-04  0.0034
   9.8647E-01   1.0105E+00   6.9838E-04  0.0034
   1.0105E+00   1.0351E+00   6.9112E-04  0.0034
   1.0351E+00   1.0602E+00   6.8388E-04  0.0034
   1.0602E+00   1.0860E+00   6.7909E-04  0.0034
   1.0860E+00   1.1125E+00   6.8347E-04  0.0033
   1.1125E+00   1.1395E+00   6.7997E-04  0.0033
   1.1395E+00   1.1673E+00   6.8008E-04  0.0032
   1.1673E+00   1.1957E+00   6.8603E-04  0.0032
   1.1957E+00   1.2247E+00   6.8418E-04  0.0032
   1.2247E+00   1.2545E+00   6.7738E-04  0.0031
   1.2545E+00   1.2851E+00   6.7359E-04  0.0031
   1.2851E+00   1.3163E+00   6.7063E-04  0.0031
   1.3163E+00   1.3484E+00   6.6570E-04  0.0031
   1.3484E+00   1.3812E+00   6.6553E-04  0.0030
   1.3812E+00   1.4148E+00   6.6889E-04  0.0030
   1.4148E+00   1.4492E+00   6.6538E-04  0.0029
   1.4492E+00   1.4845E+00   6.5383E-04  0.0029
   1.4845E+00   1.5206E+00   6.4776E-04  0.0029
   1.5206E+00   1.5576E+00   6.4250E-04  0.0029
   1.5576E+00   1.5955E+00   6.3804E-04  0.0029
   1.5955E+00   1.6343E+00   6.2886E-04  0.0029
   1.6343E+00   1.6741E+00   6.2164E-04  0.0028
   1.6741E+00   1.7148E+00   6.2502E-04  0.0028
   1.7148E+00   1.7565E+00   6.1690E-04  0.0028
   1.7565E+00   1.7992E+00   6.1380E-04  0.0028
   1.7992E+00   1.8430E+00   6.0811E-04  0.0027
   1.8430E+00   1.8879E+00   5.9821E-04  0.0027
   1.8879E+00   1.9338E+00   5.9076E-04  0.0027
   1.9338E+00   1.9808E+00   5.8835E-04  0.0027
   1.9808E+00   2.0290E+00   5.8170E-04  0.0027
   2.0290E+00   2.0784E+00   5.7664E-04  0.0026
   2.0784E+00   2.1290E+00   5.7037E-04  0.0026
   2.1290E+00   2.1808E+00   5.6168E-04  0.0026
   2.1808E+00   2.2338E+00   5.5417E-04  0.0026
   2.2338E+00   2.2882E+00   5.4945E-04  0.0026
   2.2882E+00   2.3439E+00   5.3964E-04  0.0026
   2.3439E+00   2.4009E+00   5.3715E-04  0.0025
   2.4009E+00   2.4593E+00   5.3303E-04  0.0025
   2.4593E+00   2.5191E+00   5.2926E-04  0.0025
   2.5191E+00   2.5804E+00   5.2111E-04  0.0025
   2.5804E+00   2.6432E+00   5.1133E-04  0.0025
   2.6432E+00   2.7075E+00   5.0621E-04  0.0025
   2.7075E+00   2.7734E+00   5.0105E-04  0.0025
   2.7734E+00   2.8409E+00   4.9633E-04  0.0024
   2.8409E+00   2.9100E+00   4.9519E-04  0.0024
   2.9100E+00   2.9808E+00   4.8840E-04  0.0024
   2.9808E+00   3.0533E+00   4.8511E-04  0.0024
   3.0533E+00   3.1276E+00   4.7929E-04  0.0024
   3.1276E+00   3.2037E+00   4.7180E-04  0.0024
   3.2037E+00   3.2817E+00   4.6871E-04  0.0023
   3.2817E+00   3.3615E+00   4.5898E-04  0.0023
   3.3615E+00   3.4433E+00   4.5504E-04  0.0023
   3.4433E+00   3.5271E+00   4.5022E-04  0.0023
   3.5271E+00   3.6129E+00   4.4347E-04  0.0023
   3.6129E+00   3.7008E+00   4.3895E-04  0.0023
   3.7008E+00   3.7908E+00   4.3355E-04  0.0023
   3.7908E+00   3.8831E+00   4.2882E-04  0.0022
   3.8831E+00   3.9776E+00   4.2222E-04  0.0022
   3.9776E+00   4.0743E+00   4.1642E-04  0.0022
   4.0743E+00   4.1735E+00   4.1143E-04  0.0022
   4.1735E+00   4.2750E+00   4.0507E-04  0.0022
   4.2750E+00   4.3790E+00   4.0086E-04  0.0022
   4.3790E+00   4.4856E+00   3.9577E-04  0.0022
   4.4856E+00   4.5947E+00   3.9074E-04  0.0022
   4.5947E+00   4.7065E+00   3.9123E-04  0.0021
   4.7065E+00   4.8210E+00   3.8757E-04  0.0021
   4.8210E+00   4.9383E+00   3.8442E-04  0.0021
   4.9383E+00   5.0585E+00   3.8036E-04  0.0021
   5.0585E+00   5.1815E+00   3.7391E-04  0.0021
   5.1815E+00   5.3076E+00   3.7160E-04  0.0021
   5.3076E+00   5.4368E+00   3.6490E-04  0.0021
   5.4368E+00   5.5690E+00   3.5890E-04  0.0020
   5.5690E+00   5.7045E+00   3.5478E-04  0.0020
   5.7045E+00   5.8433E+00   3.5016E-04  0.0020
   5.8433E+00   5.9855E+00   3.4374E-04  0.0020
   5.9855E+00   6.1311E+00   3.3864E-04  0.0020
   6.1311E+00   6.2803E+00   3.3404E-04  0.0020
   6.2803E+00   6.4331E+00   3.2816E-04  0.0020
   6.4331E+00   6.5896E+00   3.2260E-04  0.0020
   6.5896E+00   6.7500E+00   3.1817E-04  0.0020
   6.7500E+00   6.9142E+00   3.1355E-04  0.0020
   6.9142E+00   7.0824E+00   3.0935E-04  0.0020
   7.0824E+00   7.2548E+00   3.0706E-04  0.0019
   7.2548E+00   7.4313E+00   3.0332E-04  0.0019
   7.4313E+00   7.6121E+00   2.9796E-04  0.0019
   7.6121E+00   7.7973E+00   2.9278E-04  0.0019
   7.7973E+00   7.9870E+00   2.8898E-04  0.0019
   7.9870E+00   8.1813E+00   2.8434E-04  0.0019
   8.1813E+00   8.3804E+00   2.7960E-04  0.0019
   8.3804E+00   8.5843E+00   2.7552E-04  0.0019
   8.5843E+00   8.7931E+00   2.7134E-04  0.0019
   8.7931E+00   9.0071E+00   2.6716E-04  0.0019
   9.0071E+00   9.2262E+00   2.6326E-04  0.0019
   9.2262E+00   9.4507E+00   2.5931E-04  0.0019
   9.4507E+00   9.6807E+00   2.5679E-04  0.0018
   9.6807E+00   9.9162E+00   2.5154E-04  0.0018
   9.9162E+00   1.0157E+01   2.4829E-04  0.0018
   1.0157E+01   1.0405E+01   2.4653E-04  0.0018
   1.0405E+01   1.0658E+01   2.4261E-04  0.0018
   1.0658E+01   1.0917E+01   2.4046E-04  0.0018
   1.0917E+01   1.1183E+01   2.3865E-04  0.0018
   1.1183E+01   1.1455E+01   2.3564E-04  0.0018
   1.1455E+01   1.1733E+01   2.3292E-04  0.0018
   1.1733E+01   1.2019E+01   2.3016E-04  0.0017
   1.2019E+01   1.2311E+01   2.2818E-04  0.0017
   1.2311E+01   1.2611E+01   2.2490E-04  0.0017
   1.2611E+01   1.2918E+01   2.2330E-04  0.0017
   1.2918E+01   1.3232E+01   2.2161E-04  0.0017
   1.3232E+01   1.3554E+01   2.1887E-04  0.0017
   1.3554E+01   1.3884E+01   2.1664E-04  0.0017
   1.3884E+01   1.4222E+01   2.1532E-04  0.0017
   1.4222E+01   1.4568E+01   2.1306E-04  0.0016
   1.4568E+01   1.4922E+01   2.1191E-04  0.0016
   1.4922E+01   1.5285E+01   2.1061E-04  0.0016
   1.5285E+01   1.5657E+01   2.0781E-04  0.0016
   1.5657E+01   1.6038E+01   2.0634E-04  0.0016
   1.6038E+01   1.6428E+01   2.0490E-04  0.0016
   1.6428E+01   1.6828E+01   2.0413E-04  0.0016
   1.6828E+01   1.7237E+01   2.0238E-04  0.0016
   1.7237E+01   1.7657E+01   2.0109E-04  0.0015
   1.7657E+01   1.8086E+01   2.0054E-04  0.0015
   1.8086E+01   1.8526E+01   1.9902E-04  0.0015
   1.8526E+01   1.8977E+01   1.9861E-04  0.0015
   1.8977E+01   1.9439E+01   1.9836E-04  0.0015
   1.9439E+01   1.9912E+01   1.9767E-04  0.0015
   1.9912E+01   2.0396E+01   1.9863E-04  0.0014
   2.0396E+01   2.0893E+01   1.9848E-04  0.0014
   2.0893E+01   2.1401E+01   1.9762E-04  0.0014
   2.1401E+01   2.1922E+01   1.9674E-04  0.0014
   2.1922E+01   2.2455E+01   1.9547E-04  0.0014
   2.2455E+01   2.3001E+01   1.9434E-04  0.0014
   2.3001E+01   2.3561E+01   1.9368E-04  0.0014
   2.3561E+01   2.4134E+01   1.9270E-04  0.0013
   2.4134E+01   2.4721E+01   1.9119E-04  0.0013
   2.4721E+01   2.5323E+01   1.9024E-04  0.0013
   2.5323E+01   2.5939E+01   1.8956E-04  0.0013
   2.5939E+01   2.6570E+01   1.8711E-04  0.0013
   2.6570E+01   2.7217E+01   1.8535E-04  0.0013
   2.7217E+01   2.7879E+01   1.8425E-04  0.0013
   2.7879E+01   2.8557E+01   1.8223E-04  0.0013
   2.8557E+01   2.9252E+01   1.8023E-04  0.0013
   2.9252E+01   2.9964E+01   1.7770E-04  0.0013
   2.9964E+01   3.0693E+01   1.7506E-04  0.0013
   3.0693E+01   3.1440E+01   1.7250E-04  0.0012
   3.1440E+01   3.2205E+01   1.6941E-04  0.0012
   3.2205E+01   3.2988E+01   1.6679E-04  0.0012
   3.2988E+01   3.3791E+01   1.6271E-04  0.0012
   3.3791E+01   3.4613E+01   1.5955E-04  0.0012
   3.4613E+01   3.5455E+01   1.5539E-04  0.0012
   3.5455E+01   3.6318E+01   1.5079E-04  0.0012
   3.6318E+01   3.7201E+01   1.4634E-04  0.0012
   3.7201E+01   3.8106E+01   1.4175E-04  0.0012
   3.8106E+01   3.9034E+01   1.3654E-04  0.0013
   3.9034E+01   3.9983E+01   1.3126E-04  0.0013
   3.9983E+01   4.0956E+01   1.2575E-04  0.0013
   4.0956E+01   4.1953E+01   1.1991E-04  0.0013
   4.1953E+01   4.2973E+01   1.1404E-04  0.0013
   4.2973E+01   4.4019E+01   1.0822E-04  0.0013
   4.4019E+01   4.5090E+01   1.0252E-04  0.0013
   4.5090E+01   4.6187E+01   9.6815E-05  0.0014
   4.6187E+01   4.7311E+01   9.1235E-05  0.0014
   4.7311E+01   4.8462E+01   8.5122E-05  0.0014
   4.8462E+01   4.9641E+01   7.9437E-05  0.0015
   4.9641E+01   5.0849E+01   7.4179E-05  0.0015
   5.0849E+01   5.2086E+01   6.8947E-05  0.0015
   5.2086E+01   5.3353E+01   6.4155E-05  0.0016
   5.3353E+01   5.4651E+01   5.9410E-05  0.0016
   5.4651E+01   5.5981E+01   5.4988E-05  0.0017
   5.5981E+01   5.7343E+01   5.0767E-05  0.0017
   5.7343E+01   5.8738E+01   4.6959E-05  0.0017
   5.8738E+01   6.0168E+01   4.3141E-05  0.0018
   6.0168E+01   6.1632E+01   3.9732E-05  0.0019
   6.1632E+01   6.3131E+01   3.6672E-05  0.0019
   6.3131E+01   6.4667E+01   3.3711E-05  0.0020
   6.4667E+01   6.6240E+01   3.1023E-05  0.0020
   6.6240E+01   6.7852E+01   2.8621E-05  0.0021
   6.7852E+01   6.9503E+01   2.6157E-05  0.0022
   6.9503E+01   7.1194E+01   2.4113E-05  0.0022
   7.1194E+01   7.2926E+01   2.2209E-05  0.0023
   7.2926E+01   7.4701E+01   2.0270E-05  0.0024
   7.4701E+01   7.6518E+01   1.8557E-05  0.0024
   7.6518E+01   7.8380E+01   1.6962E-05  0.0025
   7.8380E+01   8.0287E+01   1.5445E-05  0.0026
   8.0287E+01   8.2240E+01   1.4035E-05  0.0027
   8.2240E+01   8.4241E+01   1.2799E-05  0.0028
   8.4241E+01   8.6291E+01   1.1644E-05  0.0029
   8.6291E+01   8.8391E+01   1.0716E-05  0.0030
   8.8391E+01   9.0541E+01   9.8030E-06  0.0031
   9.0541E+01   9.2744E+01   8.8843E-06  0.0032
   9.2744E+01   9.5001E+01   8.1632E-06  0.0033
   9.5001E+01   9.7312E+01   7.8379E-06  0.0033
   9.7312E+01   9.9680E+01   7.3727E-06  0.0034
   9.9680E+01   1.0211E+02   6.7373E-06  0.0035
   1.0211E+02   1.0459E+02   5.7716E-06  0.0037
   1.0459E+02   1.0713E+02   4.7807E-06  0.0041
   1.0713E+02   1.0974E+02   3.8669E-06  0.0045
   1.0974E+02   1.1241E+02   3.0142E-06  0.0050
   1.1241E+02   1.1515E+02   2.3444E-06  0.0056
   1.1515E+02   1.1795E+02   1.4338E-06  0.0071
   1.1795E+02   1.2082E+02   5.1837E-07  0.0116
   1.2082E+02   1.2376E+02   4.4700E-08  0.0390
   1.2376E+02   1.2677E+02   1.9926E-10  0.5774
   1.2677E+02   1.2985E+02   0.0000E+00  0.0000
   1.2985E+02   1.3301E+02   0.0000E+00  0.0000
   1.3301E+02   1.3625E+02   0.0000E+00  0.0000
   1.3625E+02   1.3956E+02   0.0000E+00  0.0000
   1.3956E+02   1.4296E+02   0.0000E+00  0.0000
   1.4296E+02   1.4644E+02   0.0000E+00  0.0000
   1.4644E+02   1.5000E+02   0.0000E+00  0.0000

#   sum over                 8.1737E-05
'no. =    1   reg = 107 - 207'
msuc: {\huge [t-cross] in region mesh}
msdr: {\it plotted by \ANGEL \version}
msdl: {\it calculated by \PHITS  3.28}
wt: s(0.7)
\vspace{-3}
  region surface crossing
  area  &=&   1.0000E+00 [cm^2]
e:
 
# Information for Restart Calculation
# This calculation was newly started
# istdev =  2 # 1:Batch variance, 2:History variance
# resc2  = 5.00000000000000000E+09 # Total source weight or Total source weight / maxcas
# resc3  = 5.00000000000000000E+09 # Total history number or Total batch number
# maxcas =   500000000 # History / Batch, only used for istdev=1
# bitrseed = 0110100000100010111000001110001111001110100100011111101000111001 # bit data of rseed
