[ T-Cross ]
    title = [t-cross] in region mesh
     mesh =  reg            # mesh type is region-wise
      reg =    1            # number of crossing regions
      non     r-from    r-to       area
      1       126       226        1.000000    
   e-type =    3            # e-mesh is log given by emin, emax and ne
     emin =  1.0000000E-02  # minimum value of e-mesh points
     emax =   150.0000      # maximum value of e-mesh points
#    edel =  2.4039514E-02  # mesh width of e-mesh points
       ne =    400          # number of e-mesh points
#    data = ( e(i), i = 1, ne + 1 )
#           1.00000E-02  1.02433E-02  1.04925E-02  1.07478E-02  1.10093E-02
#           1.12772E-02  1.15516E-02  1.18326E-02  1.21205E-02  1.24154E-02
#           1.27175E-02  1.30269E-02  1.33439E-02  1.36686E-02  1.40011E-02
#           1.43418E-02  1.46907E-02  1.50482E-02  1.54143E-02  1.57894E-02
#           1.61735E-02  1.65670E-02  1.69701E-02  1.73830E-02  1.78060E-02
#           1.82392E-02  1.86830E-02  1.91375E-02  1.96032E-02  2.00801E-02
#           2.05687E-02  2.10692E-02  2.15818E-02  2.21069E-02  2.26448E-02
#           2.31957E-02  2.37601E-02  2.43382E-02  2.49304E-02  2.55369E-02
#           2.61583E-02  2.67947E-02  2.74467E-02  2.81145E-02  2.87985E-02
#           2.94992E-02  3.02169E-02  3.09521E-02  3.17052E-02  3.24766E-02
#           3.32668E-02  3.40762E-02  3.49053E-02  3.57546E-02  3.66246E-02
#           3.75157E-02  3.84284E-02  3.93634E-02  4.03212E-02  4.13022E-02
#           4.23071E-02  4.33365E-02  4.43909E-02  4.54710E-02  4.65773E-02
#           4.77106E-02  4.88714E-02  5.00605E-02  5.12785E-02  5.25262E-02
#           5.38042E-02  5.51133E-02  5.64542E-02  5.78278E-02  5.92348E-02
#           6.06760E-02  6.21523E-02  6.36645E-02  6.52135E-02  6.68002E-02
#           6.84255E-02  7.00904E-02  7.17957E-02  7.35426E-02  7.53319E-02
#           7.71648E-02  7.90423E-02  8.09655E-02  8.29354E-02  8.49533E-02
#           8.70203E-02  8.91376E-02  9.13064E-02  9.35279E-02  9.58035E-02
#           9.81345E-02  1.00522E-01  1.02968E-01  1.05473E-01  1.08040E-01
#           1.10668E-01  1.13361E-01  1.16119E-01  1.18944E-01  1.21838E-01
#           1.24803E-01  1.27839E-01  1.30950E-01  1.34136E-01  1.37399E-01
#           1.40742E-01  1.44167E-01  1.47675E-01  1.51268E-01  1.54948E-01
#           1.58718E-01  1.62580E-01  1.66535E-01  1.70587E-01  1.74738E-01
#           1.78989E-01  1.83344E-01  1.87805E-01  1.92375E-01  1.97055E-01
#           2.01850E-01  2.06761E-01  2.11792E-01  2.16945E-01  2.22223E-01
#           2.27630E-01  2.33169E-01  2.38842E-01  2.44653E-01  2.50605E-01
#           2.56703E-01  2.62949E-01  2.69346E-01  2.75900E-01  2.82613E-01
#           2.89489E-01  2.96532E-01  3.03747E-01  3.11138E-01  3.18708E-01
#           3.26462E-01  3.34405E-01  3.42542E-01  3.50876E-01  3.59413E-01
#           3.68158E-01  3.77116E-01  3.86291E-01  3.95690E-01  4.05317E-01
#           4.15179E-01  4.25281E-01  4.35628E-01  4.46227E-01  4.57084E-01
#           4.68205E-01  4.79597E-01  4.91266E-01  5.03219E-01  5.15463E-01
#           5.28005E-01  5.40851E-01  5.54011E-01  5.67490E-01  5.81298E-01
#           5.95441E-01  6.09929E-01  6.24769E-01  6.39970E-01  6.55541E-01
#           6.71491E-01  6.87828E-01  7.04564E-01  7.21706E-01  7.39266E-01
#           7.57253E-01  7.75678E-01  7.94551E-01  8.13883E-01  8.33685E-01
#           8.53969E-01  8.74747E-01  8.96030E-01  9.17831E-01  9.40163E-01
#           9.63038E-01  9.86469E-01  1.01047E+00  1.03506E+00  1.06024E+00
#           1.08604E+00  1.11246E+00  1.13953E+00  1.16725E+00  1.19565E+00
#           1.22474E+00  1.25454E+00  1.28507E+00  1.31633E+00  1.34836E+00
#           1.38117E+00  1.41477E+00  1.44920E+00  1.48446E+00  1.52057E+00
#           1.55757E+00  1.59547E+00  1.63429E+00  1.67405E+00  1.71478E+00
#           1.75650E+00  1.79924E+00  1.84302E+00  1.88786E+00  1.93379E+00
#           1.98084E+00  2.02904E+00  2.07841E+00  2.12898E+00  2.18078E+00
#           2.23384E+00  2.28819E+00  2.34386E+00  2.40089E+00  2.45930E+00
#           2.51914E+00  2.58043E+00  2.64322E+00  2.70753E+00  2.77341E+00
#           2.84088E+00  2.91001E+00  2.98081E+00  3.05333E+00  3.12762E+00
#           3.20372E+00  3.28167E+00  3.36152E+00  3.44330E+00  3.52708E+00
#           3.61290E+00  3.70080E+00  3.79085E+00  3.88308E+00  3.97756E+00
#           4.07434E+00  4.17347E+00  4.27501E+00  4.37903E+00  4.48557E+00
#           4.59471E+00  4.70650E+00  4.82102E+00  4.93832E+00  5.05847E+00
#           5.18155E+00  5.30762E+00  5.43676E+00  5.56904E+00  5.70453E+00
#           5.84333E+00  5.98550E+00  6.13114E+00  6.28031E+00  6.43312E+00
#           6.58964E+00  6.74997E+00  6.91420E+00  7.08243E+00  7.25475E+00
#           7.43126E+00  7.61207E+00  7.79728E+00  7.98700E+00  8.18133E+00
#           8.38038E+00  8.58428E+00  8.79315E+00  9.00709E+00  9.22624E+00
#           9.45072E+00  9.68067E+00  9.91620E+00  1.01575E+01  1.04046E+01
#           1.06578E+01  1.09171E+01  1.11827E+01  1.14548E+01  1.17335E+01
#           1.20190E+01  1.23114E+01  1.26109E+01  1.29178E+01  1.32321E+01
#           1.35540E+01  1.38838E+01  1.42216E+01  1.45676E+01  1.49221E+01
#           1.52851E+01  1.56570E+01  1.60380E+01  1.64282E+01  1.68279E+01
#           1.72374E+01  1.76568E+01  1.80864E+01  1.85264E+01  1.89772E+01
#           1.94389E+01  1.99119E+01  2.03963E+01  2.08926E+01  2.14009E+01
#           2.19216E+01  2.24550E+01  2.30014E+01  2.35610E+01  2.41343E+01
#           2.47215E+01  2.53230E+01  2.59391E+01  2.65702E+01  2.72167E+01
#           2.78789E+01  2.85572E+01  2.92520E+01  2.99637E+01  3.06928E+01
#           3.14396E+01  3.22045E+01  3.29881E+01  3.37907E+01  3.46128E+01
#           3.54550E+01  3.63177E+01  3.72013E+01  3.81064E+01  3.90336E+01
#           3.99833E+01  4.09561E+01  4.19526E+01  4.29734E+01  4.40189E+01
#           4.50900E+01  4.61870E+01  4.73108E+01  4.84619E+01  4.96410E+01
#           5.08488E+01  5.20860E+01  5.33533E+01  5.46514E+01  5.59812E+01
#           5.73432E+01  5.87384E+01  6.01676E+01  6.16315E+01  6.31311E+01
#           6.46671E+01  6.62405E+01  6.78522E+01  6.95031E+01  7.11941E+01
#           7.29263E+01  7.47007E+01  7.65182E+01  7.83800E+01  8.02870E+01
#           8.22405E+01  8.42414E+01  8.62911E+01  8.83906E+01  9.05412E+01
#           9.27442E+01  9.50007E+01  9.73122E+01  9.96799E+01  1.02105E+02
#           1.04589E+02  1.07134E+02  1.09741E+02  1.12411E+02  1.15146E+02
#           1.17948E+02  1.20817E+02  1.23757E+02  1.26768E+02  1.29852E+02
#           1.33012E+02  1.36248E+02  1.39563E+02  1.42959E+02  1.46437E+02
#           1.50000E+02
     unit =    2            # unit is [1/cm^2/(MeV/n)/source]
     axis =  eng            # axis of output
     file = detector-27.out  # file name of output for the above axis
   output = f-curr          # surface crossing forward current spectrum
     part =  neutron  
# kf/name :  2112     
#    used :        main (  %)        temp (  %)       total (  %)
#  memory :         414 (  0)           0 (  0)         414 (  0)

#------------------------------------------------------------------------------
#newpage:
#   no. =    1   reg = 126 - 226

x: Energy [MeV/n]
y:  F-Curr [1/cm^2/(MeV/n)/source]         
p: xlog ylog afac(0.8) form(0.9)
h: n            x            y(neutron ),hh0l   n 
#  e-lower      e-upper      neutron     r.err 
   1.0000E-02   1.0243E-02   1.5552E-04  0.0727
   1.0243E-02   1.0493E-02   1.6114E-04  0.0705
   1.0493E-02   1.0748E-02   1.8019E-04  0.0659
   1.0748E-02   1.1009E-02   1.6992E-04  0.0669
   1.1009E-02   1.1277E-02   1.8994E-04  0.0625
   1.1277E-02   1.1552E-02   1.5125E-04  0.0694
   1.1552E-02   1.1833E-02   1.6021E-04  0.0666
   1.1833E-02   1.2121E-02   1.7736E-04  0.0625
   1.2121E-02   1.2415E-02   1.4179E-04  0.0690
   1.2415E-02   1.2718E-02   1.5249E-04  0.0659
   1.2718E-02   1.3027E-02   1.4622E-04  0.0663
   1.3027E-02   1.3344E-02   1.5764E-04  0.0632
   1.3344E-02   1.3669E-02   1.6438E-04  0.0612
   1.3669E-02   1.4001E-02   1.7139E-04  0.0592
   1.4001E-02   1.4342E-02   1.3787E-04  0.0652
   1.4342E-02   1.4691E-02   1.3823E-04  0.0644
   1.4691E-02   1.5048E-02   1.3960E-04  0.0633
   1.5048E-02   1.5414E-02   1.4430E-04  0.0615
   1.5414E-02   1.5789E-02   1.2190E-04  0.0661
   1.5789E-02   1.6174E-02   1.4134E-04  0.0607
   1.6174E-02   1.6567E-02   1.3501E-04  0.0613
   1.6567E-02   1.6970E-02   1.3394E-04  0.0607
   1.6970E-02   1.7383E-02   1.3712E-04  0.0594
   1.7383E-02   1.7806E-02   1.3038E-04  0.0602
   1.7806E-02   1.8239E-02   1.3371E-04  0.0586
   1.8239E-02   1.8683E-02   1.4122E-04  0.0564
   1.8683E-02   1.9138E-02   1.3507E-04  0.0571
   1.9138E-02   1.9603E-02   1.1296E-04  0.0616
   1.9603E-02   2.0080E-02   1.2901E-04  0.0570
   2.0080E-02   2.0569E-02   1.2395E-04  0.0574
   2.0569E-02   2.1069E-02   1.2016E-04  0.0576
   2.1069E-02   2.1582E-02   1.2172E-04  0.0565
   2.1582E-02   2.2107E-02   1.1306E-04  0.0580
   2.2107E-02   2.2645E-02   1.1154E-04  0.0577
   2.2645E-02   2.3196E-02   1.1234E-04  0.0567
   2.3196E-02   2.3760E-02   1.0650E-04  0.0576
   2.3760E-02   2.4338E-02   1.1239E-04  0.0554
   2.4338E-02   2.4930E-02   1.1122E-04  0.0550
   2.4930E-02   2.5537E-02   1.1164E-04  0.0543
   2.5537E-02   2.6158E-02   1.0416E-04  0.0555
   2.6158E-02   2.6795E-02   9.4719E-05  0.0576
   2.6795E-02   2.7447E-02   1.0677E-04  0.0535
   2.7447E-02   2.8114E-02   9.3938E-05  0.0564
   2.8114E-02   2.8799E-02   1.0227E-04  0.0534
   2.8799E-02   2.9499E-02   1.0338E-04  0.0525
   2.9499E-02   3.0217E-02   9.1122E-05  0.0552
   3.0217E-02   3.0952E-02   9.7822E-05  0.0527
   3.0952E-02   3.1705E-02   9.0257E-05  0.0542
   3.1705E-02   3.2477E-02   8.5901E-05  0.0549
   3.2477E-02   3.3267E-02   9.0487E-05  0.0528
   3.3267E-02   3.4076E-02   8.8546E-05  0.0528
   3.4076E-02   3.4905E-02   8.8754E-05  0.0521
   3.4905E-02   3.5755E-02   8.1422E-05  0.0537
   3.5755E-02   3.6625E-02   7.6938E-05  0.0546
   3.6625E-02   3.7516E-02   8.6538E-05  0.0508
   3.7516E-02   3.8428E-02   7.6168E-05  0.0536
   3.8428E-02   3.9363E-02   8.4547E-05  0.0503
   3.9363E-02   4.0321E-02   7.9874E-05  0.0510
   4.0321E-02   4.1302E-02   7.9949E-05  0.0504
   4.1302E-02   4.2307E-02   6.8958E-05  0.0537
   4.2307E-02   4.3337E-02   7.9639E-05  0.0493
   4.3337E-02   4.4391E-02   7.2994E-05  0.0509
   4.4391E-02   4.5471E-02   7.7474E-05  0.0488
   4.5471E-02   4.6577E-02   6.2997E-05  0.0535
   4.6577E-02   4.7711E-02   6.6350E-05  0.0515
   4.7711E-02   4.8871E-02   6.4903E-05  0.0514
   4.8871E-02   5.0061E-02   6.5800E-05  0.0504
   5.0061E-02   5.1279E-02   6.5433E-05  0.0500
   5.1279E-02   5.2526E-02   6.1362E-05  0.0511
   5.2526E-02   5.3804E-02   6.3074E-05  0.0497
   5.3804E-02   5.5113E-02   6.1231E-05  0.0499
   5.5113E-02   5.6454E-02   6.3805E-05  0.0483
   5.6454E-02   5.7828E-02   6.2508E-05  0.0481
   5.7828E-02   5.9235E-02   6.2089E-05  0.0478
   5.9235E-02   6.0676E-02   5.9066E-05  0.0483
   6.0676E-02   6.2152E-02   5.2937E-05  0.0505
   6.2152E-02   6.3665E-02   5.9051E-05  0.0473
   6.3665E-02   6.5214E-02   5.3427E-05  0.0491
   6.5214E-02   6.6800E-02   5.1821E-05  0.0493
   6.6800E-02   6.8426E-02   5.3446E-05  0.0479
   6.8426E-02   7.0090E-02   5.1957E-05  0.0480
   7.0090E-02   7.1796E-02   5.4911E-05  0.0461
   7.1796E-02   7.3543E-02   5.0064E-05  0.0478
   7.3543E-02   7.5332E-02   4.5622E-05  0.0495
   7.5332E-02   7.7165E-02   4.7993E-05  0.0476
   7.7165E-02   7.9042E-02   4.3907E-05  0.0492
   7.9042E-02   8.0965E-02   4.6939E-05  0.0471
   8.0965E-02   8.2935E-02   4.1932E-05  0.0491
   8.2935E-02   8.4953E-02   4.2852E-05  0.0480
   8.4953E-02   8.7020E-02   4.4899E-05  0.0464
   8.7020E-02   8.9138E-02   4.2140E-05  0.0473
   8.9138E-02   9.1306E-02   4.0307E-05  0.0477
   9.1306E-02   9.3528E-02   4.0430E-05  0.0471
   9.3528E-02   9.5804E-02   4.2392E-05  0.0455
   9.5804E-02   9.8134E-02   3.9650E-05  0.0464
   9.8134E-02   1.0052E-01   3.7328E-05  0.0472
   1.0052E-01   1.0297E-01   3.9903E-05  0.0452
   1.0297E-01   1.0547E-01   3.6269E-05  0.0468
   1.0547E-01   1.0804E-01   3.7731E-05  0.0454
   1.0804E-01   1.1067E-01   3.6171E-05  0.0458
   1.1067E-01   1.1336E-01   3.4995E-05  0.0460
   1.1336E-01   1.1612E-01   3.4430E-05  0.0458
   1.1612E-01   1.1894E-01   3.4413E-05  0.0453
   1.1894E-01   1.2184E-01   3.1273E-05  0.0469
   1.2184E-01   1.2480E-01   3.0589E-05  0.0469
   1.2480E-01   1.2784E-01   3.4289E-05  0.0438
   1.2784E-01   1.3095E-01   3.1358E-05  0.0452
   1.3095E-01   1.3414E-01   2.9859E-05  0.0458
   1.3414E-01   1.3740E-01   3.2944E-05  0.0431
   1.3740E-01   1.4074E-01   2.7527E-05  0.0465
   1.4074E-01   1.4417E-01   2.8686E-05  0.0451
   1.4417E-01   1.4767E-01   2.7862E-05  0.0452
   1.4767E-01   1.5127E-01   2.7272E-05  0.0451
   1.5127E-01   1.5495E-01   2.7826E-05  0.0441
   1.5495E-01   1.5872E-01   2.6367E-05  0.0448
   1.5872E-01   1.6258E-01   2.7255E-05  0.0435
   1.6258E-01   1.6654E-01   2.2557E-05  0.0472
   1.6654E-01   1.7059E-01   2.2516E-05  0.0468
   1.7059E-01   1.7474E-01   2.1688E-05  0.0471
   1.7474E-01   1.7899E-01   2.2481E-05  0.0457
   1.7899E-01   1.8334E-01   2.2986E-05  0.0447
   1.8334E-01   1.8781E-01   2.2063E-05  0.0450
   1.8781E-01   1.9237E-01   1.8978E-05  0.0479
   1.9237E-01   1.9706E-01   2.0537E-05  0.0455
   1.9706E-01   2.0185E-01   1.9524E-05  0.0462
   2.0185E-01   2.0676E-01   1.9983E-05  0.0451
   2.0676E-01   2.1179E-01   1.9453E-05  0.0452
   2.1179E-01   2.1694E-01   2.0221E-05  0.0438
   2.1694E-01   2.2222E-01   2.0474E-05  0.0430
   2.2222E-01   2.2763E-01   2.1059E-05  0.0418
   2.2763E-01   2.3317E-01   2.1926E-05  0.0405
   2.3317E-01   2.3884E-01   2.3157E-05  0.0390
   2.3884E-01   2.4465E-01   2.3580E-05  0.0382
   2.4465E-01   2.5061E-01   2.4064E-05  0.0373
   2.5061E-01   2.5670E-01   2.2665E-05  0.0380
   2.5670E-01   2.6295E-01   2.5227E-05  0.0356
   2.6295E-01   2.6935E-01   2.3452E-05  0.0364
   2.6935E-01   2.7590E-01   2.4482E-05  0.0353
   2.7590E-01   2.8261E-01   2.5424E-05  0.0342
   2.8261E-01   2.8949E-01   2.7258E-05  0.0326
   2.8949E-01   2.9653E-01   2.5211E-05  0.0335
   2.9653E-01   3.0375E-01   2.5690E-05  0.0328
   3.0375E-01   3.1114E-01   2.5317E-05  0.0326
   3.1114E-01   3.1871E-01   2.7050E-05  0.0312
   3.1871E-01   3.2646E-01   2.7144E-05  0.0308
   3.2646E-01   3.3441E-01   2.8925E-05  0.0294
   3.3441E-01   3.4254E-01   2.7103E-05  0.0301
   3.4254E-01   3.5088E-01   2.8520E-05  0.0290
   3.5088E-01   3.5941E-01   2.9409E-05  0.0282
   3.5941E-01   3.6816E-01   2.8158E-05  0.0284
   3.6816E-01   3.7712E-01   2.7606E-05  0.0284
   3.7712E-01   3.8629E-01   2.9466E-05  0.0271
   3.8629E-01   3.9569E-01   2.8621E-05  0.0272
   3.9569E-01   4.0532E-01   2.9626E-05  0.0264
   4.0532E-01   4.1518E-01   2.9883E-05  0.0260
   4.1518E-01   4.2528E-01   3.1349E-05  0.0251
   4.2528E-01   4.3563E-01   3.0045E-05  0.0253
   4.3563E-01   4.4623E-01   3.0383E-05  0.0249
   4.4623E-01   4.5708E-01   3.0569E-05  0.0245
   4.5708E-01   4.6821E-01   2.8398E-05  0.0251
   4.6821E-01   4.7960E-01   3.1272E-05  0.0236
   4.7960E-01   4.9127E-01   2.9427E-05  0.0241
   4.9127E-01   5.0322E-01   3.1479E-05  0.0230
   5.0322E-01   5.1546E-01   2.9244E-05  0.0236
   5.1546E-01   5.2800E-01   3.0692E-05  0.0228
   5.2800E-01   5.4085E-01   3.0464E-05  0.0225
   5.4085E-01   5.5401E-01   3.0664E-05  0.0222
   5.5401E-01   5.6749E-01   2.9885E-05  0.0222
   5.6749E-01   5.8130E-01   2.9472E-05  0.0221
   5.8130E-01   5.9544E-01   3.1243E-05  0.0212
   5.9544E-01   6.0993E-01   3.0555E-05  0.0212
   6.0993E-01   6.2477E-01   2.9813E-05  0.0212
   6.2477E-01   6.3997E-01   3.0106E-05  0.0209
   6.3997E-01   6.5554E-01   3.0267E-05  0.0206
   6.5554E-01   6.7149E-01   2.9523E-05  0.0206
   6.7149E-01   6.8783E-01   2.9468E-05  0.0203
   6.8783E-01   7.0456E-01   3.0220E-05  0.0198
   7.0456E-01   7.2171E-01   2.9389E-05  0.0199
   7.2171E-01   7.3927E-01   2.9814E-05  0.0195
   7.3927E-01   7.5725E-01   2.8814E-05  0.0196
   7.5725E-01   7.7568E-01   2.9226E-05  0.0192
   7.7568E-01   7.9455E-01   2.7092E-05  0.0197
   7.9455E-01   8.1388E-01   2.8085E-05  0.0191
   8.1388E-01   8.3368E-01   2.7541E-05  0.0191
   8.3368E-01   8.5397E-01   2.6437E-05  0.0192
   8.5397E-01   8.7475E-01   2.6000E-05  0.0192
   8.7475E-01   8.9603E-01   2.5761E-05  0.0190
   8.9603E-01   9.1783E-01   2.4932E-05  0.0191
   9.1783E-01   9.4016E-01   2.4070E-05  0.0192
   9.4016E-01   9.6304E-01   2.3561E-05  0.0192
   9.6304E-01   9.8647E-01   2.2761E-05  0.0193
   9.8647E-01   1.0105E+00   2.1828E-05  0.0195
   1.0105E+00   1.0351E+00   2.0947E-05  0.0196
   1.0351E+00   1.0602E+00   2.1534E-05  0.0191
   1.0602E+00   1.0860E+00   2.0751E-05  0.0193
   1.0860E+00   1.1125E+00   2.0571E-05  0.0191
   1.1125E+00   1.1395E+00   1.9968E-05  0.0192
   1.1395E+00   1.1673E+00   1.9888E-05  0.0190
   1.1673E+00   1.1957E+00   1.9451E-05  0.0190
   1.1957E+00   1.2247E+00   1.8697E-05  0.0191
   1.2247E+00   1.2545E+00   1.8669E-05  0.0189
   1.2545E+00   1.2851E+00   1.8512E-05  0.0187
   1.2851E+00   1.3163E+00   1.7648E-05  0.0190
   1.3163E+00   1.3484E+00   1.7549E-05  0.0188
   1.3484E+00   1.3812E+00   1.6275E-05  0.0193
   1.3812E+00   1.4148E+00   1.6225E-05  0.0191
   1.4148E+00   1.4492E+00   1.5743E-05  0.0191
   1.4492E+00   1.4845E+00   1.5153E-05  0.0193
   1.4845E+00   1.5206E+00   1.4966E-05  0.0191
   1.5206E+00   1.5576E+00   1.4877E-05  0.0190
   1.5576E+00   1.5955E+00   1.4273E-05  0.0191
   1.5955E+00   1.6343E+00   1.3842E-05  0.0192
   1.6343E+00   1.6741E+00   1.3587E-05  0.0192
   1.6741E+00   1.7148E+00   1.2948E-05  0.0194
   1.7148E+00   1.7565E+00   1.2509E-05  0.0195
   1.7565E+00   1.7992E+00   1.1803E-05  0.0198
   1.7992E+00   1.8430E+00   1.1927E-05  0.0195
   1.8430E+00   1.8879E+00   1.1930E-05  0.0192
   1.8879E+00   1.9338E+00   1.1275E-05  0.0195
   1.9338E+00   1.9808E+00   1.1204E-05  0.0194
   1.9808E+00   2.0290E+00   1.1010E-05  0.0193
   2.0290E+00   2.0784E+00   1.0871E-05  0.0192
   2.0784E+00   2.1290E+00   1.0401E-05  0.0194
   2.1290E+00   2.1808E+00   1.0061E-05  0.0195
   2.1808E+00   2.2338E+00   9.7884E-06  0.0195
   2.2338E+00   2.2882E+00   9.9700E-06  0.0191
   2.2882E+00   2.3439E+00   9.1721E-06  0.0197
   2.3439E+00   2.4009E+00   9.4439E-06  0.0192
   2.4009E+00   2.4593E+00   9.1731E-06  0.0192
   2.4593E+00   2.5191E+00   8.9852E-06  0.0192
   2.5191E+00   2.5804E+00   8.7041E-06  0.0193
   2.5804E+00   2.6432E+00   8.4665E-06  0.0193
   2.6432E+00   2.7075E+00   8.3772E-06  0.0192
   2.7075E+00   2.7734E+00   8.1913E-06  0.0191
   2.7734E+00   2.8409E+00   7.7349E-06  0.0195
   2.8409E+00   2.9100E+00   7.6603E-06  0.0193
   2.9100E+00   2.9808E+00   7.6855E-06  0.0191
   2.9808E+00   3.0533E+00   7.2689E-06  0.0194
   3.0533E+00   3.1276E+00   7.3197E-06  0.0191
   3.1276E+00   3.2037E+00   7.2271E-06  0.0190
   3.2037E+00   3.2817E+00   6.9937E-06  0.0191
   3.2817E+00   3.3615E+00   6.7838E-06  0.0191
   3.3615E+00   3.4433E+00   6.7362E-06  0.0190
   3.4433E+00   3.5271E+00   6.4984E-06  0.0191
   3.5271E+00   3.6129E+00   6.2115E-06  0.0193
   3.6129E+00   3.7008E+00   6.3185E-06  0.0189
   3.7008E+00   3.7908E+00   6.1299E-06  0.0189
   3.7908E+00   3.8831E+00   5.8150E-06  0.0192
   3.8831E+00   3.9776E+00   5.7335E-06  0.0191
   3.9776E+00   4.0743E+00   5.6206E-06  0.0191
   4.0743E+00   4.1735E+00   5.5867E-06  0.0189
   4.1735E+00   4.2750E+00   5.2803E-06  0.0192
   4.2750E+00   4.3790E+00   5.1355E-06  0.0193
   4.3790E+00   4.4856E+00   5.2654E-06  0.0188
   4.4856E+00   4.5947E+00   4.7761E-06  0.0195
   4.5947E+00   4.7065E+00   4.6213E-06  0.0196
   4.7065E+00   4.8210E+00   4.6136E-06  0.0194
   4.8210E+00   4.9383E+00   4.3338E-06  0.0198
   4.9383E+00   5.0585E+00   4.1991E-06  0.0198
   5.0585E+00   5.1815E+00   4.0220E-06  0.0200
   5.1815E+00   5.3076E+00   3.9165E-06  0.0201
   5.3076E+00   5.4368E+00   3.7322E-06  0.0203
   5.4368E+00   5.5690E+00   3.6474E-06  0.0203
   5.5690E+00   5.7045E+00   3.5539E-06  0.0203
   5.7045E+00   5.8433E+00   3.4271E-06  0.0204
   5.8433E+00   5.9855E+00   3.1325E-06  0.0211
   5.9855E+00   6.1311E+00   3.1092E-06  0.0210
   6.1311E+00   6.2803E+00   2.9747E-06  0.0212
   6.2803E+00   6.4331E+00   2.6984E-06  0.0219
   6.4331E+00   6.5896E+00   2.7856E-06  0.0213
   6.5896E+00   6.7500E+00   2.5979E-06  0.0219
   6.7500E+00   6.9142E+00   2.4938E-06  0.0220
   6.9142E+00   7.0824E+00   2.3383E-06  0.0225
   7.0824E+00   7.2548E+00   2.0765E-06  0.0236
   7.2548E+00   7.4313E+00   2.1959E-06  0.0227
   7.4313E+00   7.6121E+00   2.0555E-06  0.0231
   7.6121E+00   7.7973E+00   1.8459E-06  0.0241
   7.7973E+00   7.9870E+00   1.8211E-06  0.0240
   7.9870E+00   8.1813E+00   1.6940E-06  0.0246
   8.1813E+00   8.3804E+00   1.6022E-06  0.0250
   8.3804E+00   8.5843E+00   1.5148E-06  0.0254
   8.5843E+00   8.7931E+00   1.4257E-06  0.0259
   8.7931E+00   9.0071E+00   1.3941E-06  0.0259
   9.0071E+00   9.2262E+00   1.3213E-06  0.0262
   9.2262E+00   9.4507E+00   1.2132E-06  0.0271
   9.4507E+00   9.6807E+00   1.1555E-06  0.0274
   9.6807E+00   9.9162E+00   1.0697E-06  0.0281
   9.9162E+00   1.0157E+01   1.0157E-06  0.0285
   1.0157E+01   1.0405E+01   9.6493E-07  0.0289
   1.0405E+01   1.0658E+01   9.7980E-07  0.0284
   1.0658E+01   1.0917E+01   9.4551E-07  0.0285
   1.0917E+01   1.1183E+01   8.7076E-07  0.0294
   1.1183E+01   1.1455E+01   8.1825E-07  0.0299
   1.1455E+01   1.1733E+01   7.8704E-07  0.0302
   1.1733E+01   1.2019E+01   7.2103E-07  0.0311
   1.2019E+01   1.2311E+01   7.0421E-07  0.0311
   1.2311E+01   1.2611E+01   6.0617E-07  0.0332
   1.2611E+01   1.2918E+01   5.8306E-07  0.0334
   1.2918E+01   1.3232E+01   5.8493E-07  0.0330
   1.3232E+01   1.3554E+01   4.9721E-07  0.0353
   1.3554E+01   1.3884E+01   4.8640E-07  0.0353
   1.3884E+01   1.4222E+01   4.3379E-07  0.0369
   1.4222E+01   1.4568E+01   4.1396E-07  0.0374
   1.4568E+01   1.4922E+01   3.4937E-07  0.0402
   1.4922E+01   1.5285E+01   3.3713E-07  0.0404
   1.5285E+01   1.5657E+01   2.9623E-07  0.0426
   1.5657E+01   1.6038E+01   2.9153E-07  0.0424
   1.6038E+01   1.6428E+01   2.5073E-07  0.0452
   1.6428E+01   1.6828E+01   2.4734E-07  0.0450
   1.6828E+01   1.7237E+01   2.1411E-07  0.0477
   1.7237E+01   1.7657E+01   1.7930E-07  0.0516
   1.7657E+01   1.8086E+01   1.6806E-07  0.0526
   1.8086E+01   1.8526E+01   1.5430E-07  0.0543
   1.8526E+01   1.8977E+01   1.5396E-07  0.0537
   1.8977E+01   1.9439E+01   1.2475E-07  0.0589
   1.9439E+01   1.9912E+01   1.0580E-07  0.0632
   1.9912E+01   2.0396E+01   9.9903E-08  0.0643
   2.0396E+01   2.0893E+01   9.3097E-08  0.0658
   2.0893E+01   2.1401E+01   7.8688E-08  0.0707
   2.1401E+01   2.1922E+01   7.2978E-08  0.0725
   2.1922E+01   2.2455E+01   7.5370E-08  0.0705
   2.2455E+01   2.3001E+01   5.4910E-08  0.0816
   2.3001E+01   2.3561E+01   4.9317E-08  0.0851
   2.3561E+01   2.4134E+01   4.9541E-08  0.0839
   2.4134E+01   2.4721E+01   3.8487E-08  0.0941
   2.4721E+01   2.5323E+01   4.4556E-08  0.0864
   2.5323E+01   2.5939E+01   3.2461E-08  0.1000
   2.5939E+01   2.6570E+01   2.7887E-08  0.1066
   2.6570E+01   2.7217E+01   2.3203E-08  0.1155
   2.7217E+01   2.7879E+01   1.8725E-08  0.1270
   2.7879E+01   2.8557E+01   1.7101E-08  0.1313
   2.8557E+01   2.9252E+01   2.0437E-08  0.1187
   2.9252E+01   2.9964E+01   1.3488E-08  0.1443
   2.9964E+01   3.0693E+01   1.1522E-08  0.1543
   3.0693E+01   3.1440E+01   1.3123E-08  0.1429
   3.1440E+01   3.2205E+01   7.5822E-09  0.1857
   3.2205E+01   3.2988E+01   5.6154E-09  0.2132
   3.2988E+01   3.3791E+01   6.4787E-09  0.1961
   3.3791E+01   3.4613E+01   6.3248E-09  0.1961
   3.4613E+01   3.5455E+01   4.7497E-09  0.2236
   3.5455E+01   3.6318E+01   3.9414E-09  0.2425
   3.6318E+01   3.7201E+01   3.3951E-09  0.2582
   3.7201E+01   3.8106E+01   3.7563E-09  0.2425
   3.8106E+01   3.9034E+01   3.4514E-09  0.2500
   3.9034E+01   3.9983E+01   1.8953E-09  0.3333
   3.9983E+01   4.0956E+01   1.6447E-09  0.3536
   4.0956E+01   4.1953E+01   8.0281E-10  0.5000
   4.1953E+01   4.2973E+01   9.7968E-10  0.4472
   4.2973E+01   4.4019E+01   1.1477E-09  0.4082
   4.4019E+01   4.5090E+01   5.6022E-10  0.5774
   4.5090E+01   4.6187E+01   1.2761E-09  0.3780
   4.6187E+01   4.7311E+01   8.8986E-10  0.4472
   4.7311E+01   4.8462E+01   1.7375E-10  1.0000
   4.8462E+01   4.9641E+01   5.0886E-10  0.5774
   4.9641E+01   5.0849E+01   3.3118E-10  0.7071
   5.0849E+01   5.2086E+01   4.8497E-10  0.5774
   5.2086E+01   5.3353E+01   3.1563E-10  0.7071
   5.3353E+01   5.4651E+01   0.0000E+00  0.0000
   5.4651E+01   5.5981E+01   0.0000E+00  0.0000
   5.5981E+01   5.7343E+01   0.0000E+00  0.0000
   5.7343E+01   5.8738E+01   0.0000E+00  0.0000
   5.8738E+01   6.0168E+01   1.3994E-10  1.0000
   6.0168E+01   6.1632E+01   0.0000E+00  0.0000
   6.1632E+01   6.3131E+01   0.0000E+00  0.0000
   6.3131E+01   6.4667E+01   0.0000E+00  0.0000
   6.4667E+01   6.6240E+01   0.0000E+00  0.0000
   6.6240E+01   6.7852E+01   1.2409E-10  1.0000
   6.7852E+01   6.9503E+01   0.0000E+00  0.0000
   6.9503E+01   7.1194E+01   0.0000E+00  0.0000
   7.1194E+01   7.2926E+01   0.0000E+00  0.0000
   7.2926E+01   7.4701E+01   0.0000E+00  0.0000
   7.4701E+01   7.6518E+01   0.0000E+00  0.0000
   7.6518E+01   7.8380E+01   0.0000E+00  0.0000
   7.8380E+01   8.0287E+01   0.0000E+00  0.0000
   8.0287E+01   8.2240E+01   0.0000E+00  0.0000
   8.2240E+01   8.4241E+01   0.0000E+00  0.0000
   8.4241E+01   8.6291E+01   0.0000E+00  0.0000
   8.6291E+01   8.8391E+01   0.0000E+00  0.0000
   8.8391E+01   9.0541E+01   0.0000E+00  0.0000
   9.0541E+01   9.2744E+01   0.0000E+00  0.0000
   9.2744E+01   9.5001E+01   0.0000E+00  0.0000
   9.5001E+01   9.7312E+01   0.0000E+00  0.0000
   9.7312E+01   9.9680E+01   0.0000E+00  0.0000
   9.9680E+01   1.0211E+02   0.0000E+00  0.0000
   1.0211E+02   1.0459E+02   0.0000E+00  0.0000
   1.0459E+02   1.0713E+02   0.0000E+00  0.0000
   1.0713E+02   1.0974E+02   0.0000E+00  0.0000
   1.0974E+02   1.1241E+02   0.0000E+00  0.0000
   1.1241E+02   1.1515E+02   0.0000E+00  0.0000
   1.1515E+02   1.1795E+02   0.0000E+00  0.0000
   1.1795E+02   1.2082E+02   0.0000E+00  0.0000
   1.2082E+02   1.2376E+02   0.0000E+00  0.0000
   1.2376E+02   1.2677E+02   0.0000E+00  0.0000
   1.2677E+02   1.2985E+02   0.0000E+00  0.0000
   1.2985E+02   1.3301E+02   0.0000E+00  0.0000
   1.3301E+02   1.3625E+02   0.0000E+00  0.0000
   1.3625E+02   1.3956E+02   0.0000E+00  0.0000
   1.3956E+02   1.4296E+02   0.0000E+00  0.0000
   1.4296E+02   1.4644E+02   0.0000E+00  0.0000
   1.4644E+02   1.5000E+02   0.0000E+00  0.0000

#   sum over                 5.5486E-07
'no. =    1   reg = 126 - 226'
msuc: {\huge [t-cross] in region mesh}
msdr: {\it plotted by \ANGEL \version}
msdl: {\it calculated by \PHITS  3.28}
wt: s(0.7)
\vspace{-3}
  region surface crossing
  area  &=&   1.0000E+00 [cm^2]
e:
 
# Information for Restart Calculation
# This calculation was newly started
# istdev =  2 # 1:Batch variance, 2:History variance
# resc2  = 5.00000000000000000E+09 # Total source weight or Total source weight / maxcas
# resc3  = 5.00000000000000000E+09 # Total history number or Total batch number
# maxcas =   500000000 # History / Batch, only used for istdev=1
# bitrseed = 0110100000100010111000001110001111001110100100011111101000111001 # bit data of rseed
