[ T-Cross ]
    title = [t-cross] in region mesh
     mesh =  reg            # mesh type is region-wise
      reg =    1            # number of crossing regions
      non     r-from    r-to       area
      1       114       214        1.000000    
   e-type =    3            # e-mesh is log given by emin, emax and ne
     emin =  1.0000000E-02  # minimum value of e-mesh points
     emax =   150.0000      # maximum value of e-mesh points
#    edel =  2.4039514E-02  # mesh width of e-mesh points
       ne =    400          # number of e-mesh points
#    data = ( e(i), i = 1, ne + 1 )
#           1.00000E-02  1.02433E-02  1.04925E-02  1.07478E-02  1.10093E-02
#           1.12772E-02  1.15516E-02  1.18326E-02  1.21205E-02  1.24154E-02
#           1.27175E-02  1.30269E-02  1.33439E-02  1.36686E-02  1.40011E-02
#           1.43418E-02  1.46907E-02  1.50482E-02  1.54143E-02  1.57894E-02
#           1.61735E-02  1.65670E-02  1.69701E-02  1.73830E-02  1.78060E-02
#           1.82392E-02  1.86830E-02  1.91375E-02  1.96032E-02  2.00801E-02
#           2.05687E-02  2.10692E-02  2.15818E-02  2.21069E-02  2.26448E-02
#           2.31957E-02  2.37601E-02  2.43382E-02  2.49304E-02  2.55369E-02
#           2.61583E-02  2.67947E-02  2.74467E-02  2.81145E-02  2.87985E-02
#           2.94992E-02  3.02169E-02  3.09521E-02  3.17052E-02  3.24766E-02
#           3.32668E-02  3.40762E-02  3.49053E-02  3.57546E-02  3.66246E-02
#           3.75157E-02  3.84284E-02  3.93634E-02  4.03212E-02  4.13022E-02
#           4.23071E-02  4.33365E-02  4.43909E-02  4.54710E-02  4.65773E-02
#           4.77106E-02  4.88714E-02  5.00605E-02  5.12785E-02  5.25262E-02
#           5.38042E-02  5.51133E-02  5.64542E-02  5.78278E-02  5.92348E-02
#           6.06760E-02  6.21523E-02  6.36645E-02  6.52135E-02  6.68002E-02
#           6.84255E-02  7.00904E-02  7.17957E-02  7.35426E-02  7.53319E-02
#           7.71648E-02  7.90423E-02  8.09655E-02  8.29354E-02  8.49533E-02
#           8.70203E-02  8.91376E-02  9.13064E-02  9.35279E-02  9.58035E-02
#           9.81345E-02  1.00522E-01  1.02968E-01  1.05473E-01  1.08040E-01
#           1.10668E-01  1.13361E-01  1.16119E-01  1.18944E-01  1.21838E-01
#           1.24803E-01  1.27839E-01  1.30950E-01  1.34136E-01  1.37399E-01
#           1.40742E-01  1.44167E-01  1.47675E-01  1.51268E-01  1.54948E-01
#           1.58718E-01  1.62580E-01  1.66535E-01  1.70587E-01  1.74738E-01
#           1.78989E-01  1.83344E-01  1.87805E-01  1.92375E-01  1.97055E-01
#           2.01850E-01  2.06761E-01  2.11792E-01  2.16945E-01  2.22223E-01
#           2.27630E-01  2.33169E-01  2.38842E-01  2.44653E-01  2.50605E-01
#           2.56703E-01  2.62949E-01  2.69346E-01  2.75900E-01  2.82613E-01
#           2.89489E-01  2.96532E-01  3.03747E-01  3.11138E-01  3.18708E-01
#           3.26462E-01  3.34405E-01  3.42542E-01  3.50876E-01  3.59413E-01
#           3.68158E-01  3.77116E-01  3.86291E-01  3.95690E-01  4.05317E-01
#           4.15179E-01  4.25281E-01  4.35628E-01  4.46227E-01  4.57084E-01
#           4.68205E-01  4.79597E-01  4.91266E-01  5.03219E-01  5.15463E-01
#           5.28005E-01  5.40851E-01  5.54011E-01  5.67490E-01  5.81298E-01
#           5.95441E-01  6.09929E-01  6.24769E-01  6.39970E-01  6.55541E-01
#           6.71491E-01  6.87828E-01  7.04564E-01  7.21706E-01  7.39266E-01
#           7.57253E-01  7.75678E-01  7.94551E-01  8.13883E-01  8.33685E-01
#           8.53969E-01  8.74747E-01  8.96030E-01  9.17831E-01  9.40163E-01
#           9.63038E-01  9.86469E-01  1.01047E+00  1.03506E+00  1.06024E+00
#           1.08604E+00  1.11246E+00  1.13953E+00  1.16725E+00  1.19565E+00
#           1.22474E+00  1.25454E+00  1.28507E+00  1.31633E+00  1.34836E+00
#           1.38117E+00  1.41477E+00  1.44920E+00  1.48446E+00  1.52057E+00
#           1.55757E+00  1.59547E+00  1.63429E+00  1.67405E+00  1.71478E+00
#           1.75650E+00  1.79924E+00  1.84302E+00  1.88786E+00  1.93379E+00
#           1.98084E+00  2.02904E+00  2.07841E+00  2.12898E+00  2.18078E+00
#           2.23384E+00  2.28819E+00  2.34386E+00  2.40089E+00  2.45930E+00
#           2.51914E+00  2.58043E+00  2.64322E+00  2.70753E+00  2.77341E+00
#           2.84088E+00  2.91001E+00  2.98081E+00  3.05333E+00  3.12762E+00
#           3.20372E+00  3.28167E+00  3.36152E+00  3.44330E+00  3.52708E+00
#           3.61290E+00  3.70080E+00  3.79085E+00  3.88308E+00  3.97756E+00
#           4.07434E+00  4.17347E+00  4.27501E+00  4.37903E+00  4.48557E+00
#           4.59471E+00  4.70650E+00  4.82102E+00  4.93832E+00  5.05847E+00
#           5.18155E+00  5.30762E+00  5.43676E+00  5.56904E+00  5.70453E+00
#           5.84333E+00  5.98550E+00  6.13114E+00  6.28031E+00  6.43312E+00
#           6.58964E+00  6.74997E+00  6.91420E+00  7.08243E+00  7.25475E+00
#           7.43126E+00  7.61207E+00  7.79728E+00  7.98700E+00  8.18133E+00
#           8.38038E+00  8.58428E+00  8.79315E+00  9.00709E+00  9.22624E+00
#           9.45072E+00  9.68067E+00  9.91620E+00  1.01575E+01  1.04046E+01
#           1.06578E+01  1.09171E+01  1.11827E+01  1.14548E+01  1.17335E+01
#           1.20190E+01  1.23114E+01  1.26109E+01  1.29178E+01  1.32321E+01
#           1.35540E+01  1.38838E+01  1.42216E+01  1.45676E+01  1.49221E+01
#           1.52851E+01  1.56570E+01  1.60380E+01  1.64282E+01  1.68279E+01
#           1.72374E+01  1.76568E+01  1.80864E+01  1.85264E+01  1.89772E+01
#           1.94389E+01  1.99119E+01  2.03963E+01  2.08926E+01  2.14009E+01
#           2.19216E+01  2.24550E+01  2.30014E+01  2.35610E+01  2.41343E+01
#           2.47215E+01  2.53230E+01  2.59391E+01  2.65702E+01  2.72167E+01
#           2.78789E+01  2.85572E+01  2.92520E+01  2.99637E+01  3.06928E+01
#           3.14396E+01  3.22045E+01  3.29881E+01  3.37907E+01  3.46128E+01
#           3.54550E+01  3.63177E+01  3.72013E+01  3.81064E+01  3.90336E+01
#           3.99833E+01  4.09561E+01  4.19526E+01  4.29734E+01  4.40189E+01
#           4.50900E+01  4.61870E+01  4.73108E+01  4.84619E+01  4.96410E+01
#           5.08488E+01  5.20860E+01  5.33533E+01  5.46514E+01  5.59812E+01
#           5.73432E+01  5.87384E+01  6.01676E+01  6.16315E+01  6.31311E+01
#           6.46671E+01  6.62405E+01  6.78522E+01  6.95031E+01  7.11941E+01
#           7.29263E+01  7.47007E+01  7.65182E+01  7.83800E+01  8.02870E+01
#           8.22405E+01  8.42414E+01  8.62911E+01  8.83906E+01  9.05412E+01
#           9.27442E+01  9.50007E+01  9.73122E+01  9.96799E+01  1.02105E+02
#           1.04589E+02  1.07134E+02  1.09741E+02  1.12411E+02  1.15146E+02
#           1.17948E+02  1.20817E+02  1.23757E+02  1.26768E+02  1.29852E+02
#           1.33012E+02  1.36248E+02  1.39563E+02  1.42959E+02  1.46437E+02
#           1.50000E+02
     unit =    2            # unit is [1/cm^2/(MeV/n)/source]
     axis =  eng            # axis of output
     file = detector-15.out  # file name of output for the above axis
   output = f-curr          # surface crossing forward current spectrum
     part =  neutron  
# kf/name :  2112     
#    used :        main (  %)        temp (  %)       total (  %)
#  memory :         414 (  0)           0 (  0)         414 (  0)

#------------------------------------------------------------------------------
#newpage:
#   no. =    1   reg = 114 - 214

x: Energy [MeV/n]
y:  F-Curr [1/cm^2/(MeV/n)/source]         
p: xlog ylog afac(0.8) form(0.9)
h: n            x            y(neutron ),hh0l   n 
#  e-lower      e-upper      neutron     r.err 
   1.0000E-02   1.0243E-02   6.3818E-04  0.0358
   1.0243E-02   1.0493E-02   6.3040E-04  0.0356
   1.0493E-02   1.0748E-02   6.0688E-04  0.0359
   1.0748E-02   1.1009E-02   6.5628E-04  0.0341
   1.1009E-02   1.1277E-02   6.4473E-04  0.0340
   1.1277E-02   1.1552E-02   6.4921E-04  0.0335
   1.1552E-02   1.1833E-02   6.3305E-04  0.0335
   1.1833E-02   1.2121E-02   5.7838E-04  0.0346
   1.2121E-02   1.2415E-02   5.9559E-04  0.0337
   1.2415E-02   1.2718E-02   6.0376E-04  0.0331
   1.2718E-02   1.3027E-02   5.7855E-04  0.0334
   1.3027E-02   1.3344E-02   5.9298E-04  0.0326
   1.3344E-02   1.3669E-02   5.5366E-04  0.0333
   1.3669E-02   1.4001E-02   5.3986E-04  0.0333
   1.4001E-02   1.4342E-02   5.6444E-04  0.0322
   1.4342E-02   1.4691E-02   5.3949E-04  0.0326
   1.4691E-02   1.5048E-02   5.4834E-04  0.0319
   1.5048E-02   1.5414E-02   5.3551E-04  0.0319
   1.5414E-02   1.5789E-02   5.3782E-04  0.0314
   1.5789E-02   1.6174E-02   5.2065E-04  0.0316
   1.6174E-02   1.6567E-02   5.0004E-04  0.0318
   1.6567E-02   1.6970E-02   5.0837E-04  0.0312
   1.6970E-02   1.7383E-02   4.8600E-04  0.0315
   1.7383E-02   1.7806E-02   4.6818E-04  0.0317
   1.7806E-02   1.8239E-02   4.4888E-04  0.0320
   1.8239E-02   1.8683E-02   4.5537E-04  0.0314
   1.8683E-02   1.9138E-02   4.7426E-04  0.0304
   1.9138E-02   1.9603E-02   4.4602E-04  0.0310
   1.9603E-02   2.0080E-02   4.4366E-04  0.0307
   2.0080E-02   2.0569E-02   4.2439E-04  0.0310
   2.0569E-02   2.1069E-02   4.1753E-04  0.0309
   2.1069E-02   2.1582E-02   3.8999E-04  0.0316
   2.1582E-02   2.2107E-02   4.1152E-04  0.0304
   2.2107E-02   2.2645E-02   4.3457E-04  0.0292
   2.2645E-02   2.3196E-02   4.0105E-04  0.0300
   2.3196E-02   2.3760E-02   3.9717E-04  0.0298
   2.3760E-02   2.4338E-02   3.7378E-04  0.0304
   2.4338E-02   2.4930E-02   3.9220E-04  0.0293
   2.4930E-02   2.5537E-02   3.9575E-04  0.0288
   2.5537E-02   2.6158E-02   3.8427E-04  0.0289
   2.6158E-02   2.6795E-02   3.6833E-04  0.0292
   2.6795E-02   2.7447E-02   3.5599E-04  0.0293
   2.7447E-02   2.8114E-02   3.7091E-04  0.0284
   2.8114E-02   2.8799E-02   3.5439E-04  0.0287
   2.8799E-02   2.9499E-02   3.4284E-04  0.0288
   2.9499E-02   3.0217E-02   3.3697E-04  0.0287
   3.0217E-02   3.0952E-02   3.4041E-04  0.0282
   3.0952E-02   3.1705E-02   3.3174E-04  0.0282
   3.1705E-02   3.2477E-02   3.3065E-04  0.0279
   3.2477E-02   3.3267E-02   3.2714E-04  0.0278
   3.3267E-02   3.4076E-02   3.0485E-04  0.0284
   3.4076E-02   3.4905E-02   3.1243E-04  0.0278
   3.4905E-02   3.5755E-02   3.2636E-04  0.0268
   3.5755E-02   3.6625E-02   2.8086E-04  0.0285
   3.6625E-02   3.7516E-02   2.9058E-04  0.0278
   3.7516E-02   3.8428E-02   2.8680E-04  0.0276
   3.8428E-02   3.9363E-02   3.0272E-04  0.0265
   3.9363E-02   4.0321E-02   2.7945E-04  0.0273
   4.0321E-02   4.1302E-02   2.7920E-04  0.0270
   4.1302E-02   4.2307E-02   2.6301E-04  0.0275
   4.2307E-02   4.3337E-02   2.6454E-04  0.0271
   4.3337E-02   4.4391E-02   2.6728E-04  0.0266
   4.4391E-02   4.5471E-02   2.7755E-04  0.0258
   4.5471E-02   4.6577E-02   2.6103E-04  0.0263
   4.6577E-02   4.7711E-02   2.6539E-04  0.0257
   4.7711E-02   4.8871E-02   2.3558E-04  0.0270
   4.8871E-02   5.0061E-02   2.4259E-04  0.0263
   5.0061E-02   5.1279E-02   2.5384E-04  0.0254
   5.1279E-02   5.2526E-02   2.4019E-04  0.0258
   5.2526E-02   5.3804E-02   2.2739E-04  0.0262
   5.3804E-02   5.5113E-02   2.3416E-04  0.0255
   5.5113E-02   5.6454E-02   2.2909E-04  0.0255
   5.6454E-02   5.7828E-02   2.2781E-04  0.0252
   5.7828E-02   5.9235E-02   2.1948E-04  0.0254
   5.9235E-02   6.0676E-02   2.2054E-04  0.0250
   6.0676E-02   6.2152E-02   2.0596E-04  0.0256
   6.2152E-02   6.3665E-02   2.0256E-04  0.0255
   6.3665E-02   6.5214E-02   1.9915E-04  0.0254
   6.5214E-02   6.6800E-02   2.1210E-04  0.0243
   6.6800E-02   6.8426E-02   1.8919E-04  0.0254
   6.8426E-02   7.0090E-02   1.9671E-04  0.0247
   7.0090E-02   7.1796E-02   1.8481E-04  0.0251
   7.1796E-02   7.3543E-02   1.9637E-04  0.0241
   7.3543E-02   7.5332E-02   1.8458E-04  0.0246
   7.5332E-02   7.7165E-02   1.7251E-04  0.0251
   7.7165E-02   7.9042E-02   1.7418E-04  0.0247
   7.9042E-02   8.0965E-02   1.7064E-04  0.0246
   8.0965E-02   8.2935E-02   1.7153E-04  0.0243
   8.2935E-02   8.4953E-02   1.6464E-04  0.0245
   8.4953E-02   8.7020E-02   1.6656E-04  0.0241
   8.7020E-02   8.9138E-02   1.5949E-04  0.0243
   8.9138E-02   9.1306E-02   1.6899E-04  0.0233
   9.1306E-02   9.3528E-02   1.5441E-04  0.0241
   9.3528E-02   9.5804E-02   1.4393E-04  0.0247
   9.5804E-02   9.8134E-02   1.4995E-04  0.0239
   9.8134E-02   1.0052E-01   1.4420E-04  0.0241
   1.0052E-01   1.0297E-01   1.4822E-04  0.0235
   1.0297E-01   1.0547E-01   1.3832E-04  0.0240
   1.0547E-01   1.0804E-01   1.4331E-04  0.0233
   1.0804E-01   1.1067E-01   1.3695E-04  0.0235
   1.1067E-01   1.1336E-01   1.3016E-04  0.0238
   1.1336E-01   1.1612E-01   1.2717E-04  0.0238
   1.1612E-01   1.1894E-01   1.2779E-04  0.0235
   1.1894E-01   1.2184E-01   1.2445E-04  0.0235
   1.2184E-01   1.2480E-01   1.2086E-04  0.0236
   1.2480E-01   1.2784E-01   1.1454E-04  0.0239
   1.2784E-01   1.3095E-01   1.1253E-04  0.0239
   1.3095E-01   1.3414E-01   1.1809E-04  0.0230
   1.3414E-01   1.3740E-01   1.1687E-04  0.0229
   1.3740E-01   1.4074E-01   1.0882E-04  0.0234
   1.4074E-01   1.4417E-01   1.1063E-04  0.0229
   1.4417E-01   1.4767E-01   1.0534E-04  0.0232
   1.4767E-01   1.5127E-01   1.0302E-04  0.0232
   1.5127E-01   1.5495E-01   1.0503E-04  0.0227
   1.5495E-01   1.5872E-01   9.9156E-05  0.0231
   1.5872E-01   1.6258E-01   9.8711E-05  0.0229
   1.6258E-01   1.6654E-01   9.7150E-05  0.0228
   1.6654E-01   1.7059E-01   9.4169E-05  0.0228
   1.7059E-01   1.7474E-01   9.1061E-05  0.0230
   1.7474E-01   1.7899E-01   8.9298E-05  0.0229
   1.7899E-01   1.8334E-01   9.0798E-05  0.0225
   1.8334E-01   1.8781E-01   9.0600E-05  0.0222
   1.8781E-01   1.9237E-01   8.3139E-05  0.0229
   1.9237E-01   1.9706E-01   8.6567E-05  0.0222
   1.9706E-01   2.0185E-01   8.1234E-05  0.0226
   2.0185E-01   2.0676E-01   8.4640E-05  0.0219
   2.0676E-01   2.1179E-01   8.7514E-05  0.0213
   2.1179E-01   2.1694E-01   8.9025E-05  0.0208
   2.1694E-01   2.2222E-01   9.2010E-05  0.0203
   2.2222E-01   2.2763E-01   9.5770E-05  0.0196
   2.2763E-01   2.3317E-01   9.5143E-05  0.0194
   2.3317E-01   2.3884E-01   1.0081E-04  0.0187
   2.3884E-01   2.4465E-01   1.0021E-04  0.0185
   2.4465E-01   2.5061E-01   1.0040E-04  0.0183
   2.5061E-01   2.5670E-01   1.0799E-04  0.0174
   2.5670E-01   2.6295E-01   1.0949E-04  0.0171
   2.6295E-01   2.6935E-01   1.1195E-04  0.0167
   2.6935E-01   2.7590E-01   1.1622E-04  0.0162
   2.7590E-01   2.8261E-01   1.1685E-04  0.0159
   2.8261E-01   2.8949E-01   1.1949E-04  0.0156
   2.8949E-01   2.9653E-01   1.2183E-04  0.0152
   2.9653E-01   3.0375E-01   1.2357E-04  0.0149
   3.0375E-01   3.1114E-01   1.2527E-04  0.0147
   3.1114E-01   3.1871E-01   1.3000E-04  0.0142
   3.1871E-01   3.2646E-01   1.3319E-04  0.0139
   3.2646E-01   3.3441E-01   1.3164E-04  0.0138
   3.3441E-01   3.4254E-01   1.3626E-04  0.0134
   3.4254E-01   3.5088E-01   1.4041E-04  0.0130
   3.5088E-01   3.5941E-01   1.4286E-04  0.0128
   3.5941E-01   3.6816E-01   1.4452E-04  0.0125
   3.6816E-01   3.7712E-01   1.5180E-04  0.0121
   3.7712E-01   3.8629E-01   1.5126E-04  0.0120
   3.8629E-01   3.9569E-01   1.5623E-04  0.0116
   3.9569E-01   4.0532E-01   1.5917E-04  0.0114
   4.0532E-01   4.1518E-01   1.5803E-04  0.0113
   4.1518E-01   4.2528E-01   1.6350E-04  0.0110
   4.2528E-01   4.3563E-01   1.6179E-04  0.0109
   4.3563E-01   4.4623E-01   1.6582E-04  0.0106
   4.4623E-01   4.5708E-01   1.6711E-04  0.0105
   4.5708E-01   4.6821E-01   1.7071E-04  0.0102
   4.6821E-01   4.7960E-01   1.7538E-04  0.0100
   4.7960E-01   4.9127E-01   1.7515E-04  0.0099
   4.9127E-01   5.0322E-01   1.7578E-04  0.0097
   5.0322E-01   5.1546E-01   1.7527E-04  0.0096
   5.1546E-01   5.2800E-01   1.7852E-04  0.0094
   5.2800E-01   5.4085E-01   1.8202E-04  0.0092
   5.4085E-01   5.5401E-01   1.8437E-04  0.0091
   5.5401E-01   5.6749E-01   1.8165E-04  0.0090
   5.6749E-01   5.8130E-01   1.8709E-04  0.0088
   5.8130E-01   5.9544E-01   1.8900E-04  0.0086
   5.9544E-01   6.0993E-01   1.8686E-04  0.0086
   6.0993E-01   6.2477E-01   1.9109E-04  0.0084
   6.2477E-01   6.3997E-01   1.8995E-04  0.0083
   6.3997E-01   6.5554E-01   1.9145E-04  0.0082
   6.5554E-01   6.7149E-01   1.9056E-04  0.0081
   6.7149E-01   6.8783E-01   1.9158E-04  0.0080
   6.8783E-01   7.0456E-01   1.9144E-04  0.0079
   7.0456E-01   7.2171E-01   1.9582E-04  0.0077
   7.2171E-01   7.3927E-01   1.9042E-04  0.0077
   7.3927E-01   7.5725E-01   1.8606E-04  0.0077
   7.5725E-01   7.7568E-01   1.8964E-04  0.0075
   7.7568E-01   7.9455E-01   1.8961E-04  0.0075
   7.9455E-01   8.1388E-01   1.8431E-04  0.0075
   8.1388E-01   8.3368E-01   1.8472E-04  0.0074
   8.3368E-01   8.5397E-01   1.8241E-04  0.0073
   8.5397E-01   8.7475E-01   1.7948E-04  0.0073
   8.7475E-01   8.9603E-01   1.7864E-04  0.0072
   8.9603E-01   9.1783E-01   1.7392E-04  0.0072
   9.1783E-01   9.4016E-01   1.7181E-04  0.0072
   9.4016E-01   9.6304E-01   1.6953E-04  0.0072
   9.6304E-01   9.8647E-01   1.6583E-04  0.0072
   9.8647E-01   1.0105E+00   1.6092E-04  0.0072
   1.0105E+00   1.0351E+00   1.6323E-04  0.0070
   1.0351E+00   1.0602E+00   1.6540E-04  0.0069
   1.0602E+00   1.0860E+00   1.7127E-04  0.0067
   1.0860E+00   1.1125E+00   1.7027E-04  0.0066
   1.1125E+00   1.1395E+00   1.7675E-04  0.0064
   1.1395E+00   1.1673E+00   1.8130E-04  0.0063
   1.1673E+00   1.1957E+00   1.8789E-04  0.0061
   1.1957E+00   1.2247E+00   1.9520E-04  0.0059
   1.2247E+00   1.2545E+00   1.9425E-04  0.0059
   1.2545E+00   1.2851E+00   1.9911E-04  0.0057
   1.2851E+00   1.3163E+00   2.0195E-04  0.0056
   1.3163E+00   1.3484E+00   2.0745E-04  0.0055
   1.3484E+00   1.3812E+00   2.1433E-04  0.0053
   1.3812E+00   1.4148E+00   2.2281E-04  0.0051
   1.4148E+00   1.4492E+00   2.2342E-04  0.0051
   1.4492E+00   1.4845E+00   2.2464E-04  0.0050
   1.4845E+00   1.5206E+00   2.2876E-04  0.0049
   1.5206E+00   1.5576E+00   2.3272E-04  0.0048
   1.5576E+00   1.5955E+00   2.3501E-04  0.0047
   1.5955E+00   1.6343E+00   2.3937E-04  0.0046
   1.6343E+00   1.6741E+00   2.4652E-04  0.0045
   1.6741E+00   1.7148E+00   2.5279E-04  0.0044
   1.7148E+00   1.7565E+00   2.5606E-04  0.0043
   1.7565E+00   1.7992E+00   2.5804E-04  0.0042
   1.7992E+00   1.8430E+00   2.6322E-04  0.0041
   1.8430E+00   1.8879E+00   2.6504E-04  0.0041
   1.8879E+00   1.9338E+00   2.6790E-04  0.0040
   1.9338E+00   1.9808E+00   2.7232E-04  0.0039
   1.9808E+00   2.0290E+00   2.7860E-04  0.0038
   2.0290E+00   2.0784E+00   2.7838E-04  0.0038
   2.0784E+00   2.1290E+00   2.7895E-04  0.0037
   2.1290E+00   2.1808E+00   2.8043E-04  0.0037
   2.1808E+00   2.2338E+00   2.8227E-04  0.0036
   2.2338E+00   2.2882E+00   2.8604E-04  0.0036
   2.2882E+00   2.3439E+00   2.8862E-04  0.0035
   2.3439E+00   2.4009E+00   2.9362E-04  0.0034
   2.4009E+00   2.4593E+00   2.9784E-04  0.0034
   2.4593E+00   2.5191E+00   2.9933E-04  0.0033
   2.5191E+00   2.5804E+00   2.9614E-04  0.0033
   2.5804E+00   2.6432E+00   2.9798E-04  0.0033
   2.6432E+00   2.7075E+00   2.9827E-04  0.0032
   2.7075E+00   2.7734E+00   2.9825E-04  0.0032
   2.7734E+00   2.8409E+00   2.9757E-04  0.0031
   2.8409E+00   2.9100E+00   3.0153E-04  0.0031
   2.9100E+00   2.9808E+00   3.0263E-04  0.0030
   2.9808E+00   3.0533E+00   3.0357E-04  0.0030
   3.0533E+00   3.1276E+00   3.0117E-04  0.0030
   3.1276E+00   3.2037E+00   2.9899E-04  0.0030
   3.2037E+00   3.2817E+00   2.9829E-04  0.0029
   3.2817E+00   3.3615E+00   2.9673E-04  0.0029
   3.3615E+00   3.4433E+00   2.9423E-04  0.0029
   3.4433E+00   3.5271E+00   2.9274E-04  0.0028
   3.5271E+00   3.6129E+00   2.9155E-04  0.0028
   3.6129E+00   3.7008E+00   2.9001E-04  0.0028
   3.7008E+00   3.7908E+00   2.8573E-04  0.0028
   3.7908E+00   3.8831E+00   2.8416E-04  0.0028
   3.8831E+00   3.9776E+00   2.7924E-04  0.0027
   3.9776E+00   4.0743E+00   2.7907E-04  0.0027
   4.0743E+00   4.1735E+00   2.7498E-04  0.0027
   4.1735E+00   4.2750E+00   2.7079E-04  0.0027
   4.2750E+00   4.3790E+00   2.6660E-04  0.0027
   4.3790E+00   4.4856E+00   2.6199E-04  0.0027
   4.4856E+00   4.5947E+00   2.5908E-04  0.0026
   4.5947E+00   4.7065E+00   2.5500E-04  0.0026
   4.7065E+00   4.8210E+00   2.5122E-04  0.0026
   4.8210E+00   4.9383E+00   2.4752E-04  0.0026
   4.9383E+00   5.0585E+00   2.4127E-04  0.0026
   5.0585E+00   5.1815E+00   2.3667E-04  0.0026
   5.1815E+00   5.3076E+00   2.3113E-04  0.0026
   5.3076E+00   5.4368E+00   2.2610E-04  0.0026
   5.4368E+00   5.5690E+00   2.2064E-04  0.0026
   5.5690E+00   5.7045E+00   2.1513E-04  0.0026
   5.7045E+00   5.8433E+00   2.1066E-04  0.0026
   5.8433E+00   5.9855E+00   2.0569E-04  0.0026
   5.9855E+00   6.1311E+00   2.0059E-04  0.0026
   6.1311E+00   6.2803E+00   1.9493E-04  0.0026
   6.2803E+00   6.4331E+00   1.8895E-04  0.0026
   6.4331E+00   6.5896E+00   1.8348E-04  0.0026
   6.5896E+00   6.7500E+00   1.7969E-04  0.0026
   6.7500E+00   6.9142E+00   1.7382E-04  0.0026
   6.9142E+00   7.0824E+00   1.6925E-04  0.0026
   7.0824E+00   7.2548E+00   1.6379E-04  0.0027
   7.2548E+00   7.4313E+00   1.5787E-04  0.0027
   7.4313E+00   7.6121E+00   1.5248E-04  0.0027
   7.6121E+00   7.7973E+00   1.4706E-04  0.0027
   7.7973E+00   7.9870E+00   1.4129E-04  0.0027
   7.9870E+00   8.1813E+00   1.3633E-04  0.0027
   8.1813E+00   8.3804E+00   1.3188E-04  0.0028
   8.3804E+00   8.5843E+00   1.2540E-04  0.0028
   8.5843E+00   8.7931E+00   1.2114E-04  0.0028
   8.7931E+00   9.0071E+00   1.1667E-04  0.0028
   9.0071E+00   9.2262E+00   1.1222E-04  0.0028
   9.2262E+00   9.4507E+00   1.0747E-04  0.0029
   9.4507E+00   9.6807E+00   1.0399E-04  0.0029
   9.6807E+00   9.9162E+00   9.9843E-05  0.0029
   9.9162E+00   1.0157E+01   9.6184E-05  0.0029
   1.0157E+01   1.0405E+01   9.2990E-05  0.0029
   1.0405E+01   1.0658E+01   9.0841E-05  0.0029
   1.0658E+01   1.0917E+01   8.8518E-05  0.0029
   1.0917E+01   1.1183E+01   8.4768E-05  0.0030
   1.1183E+01   1.1455E+01   8.1599E-05  0.0030
   1.1455E+01   1.1733E+01   7.7577E-05  0.0030
   1.1733E+01   1.2019E+01   7.4909E-05  0.0031
   1.2019E+01   1.2311E+01   7.0980E-05  0.0031
   1.2311E+01   1.2611E+01   6.7687E-05  0.0031
   1.2611E+01   1.2918E+01   6.4686E-05  0.0032
   1.2918E+01   1.3232E+01   6.2236E-05  0.0032
   1.3232E+01   1.3554E+01   5.9717E-05  0.0032
   1.3554E+01   1.3884E+01   5.7166E-05  0.0033
   1.3884E+01   1.4222E+01   5.4562E-05  0.0033
   1.4222E+01   1.4568E+01   5.1818E-05  0.0033
   1.4568E+01   1.4922E+01   4.9239E-05  0.0034
   1.4922E+01   1.5285E+01   4.7175E-05  0.0034
   1.5285E+01   1.5657E+01   4.4501E-05  0.0035
   1.5657E+01   1.6038E+01   4.2558E-05  0.0035
   1.6038E+01   1.6428E+01   4.0356E-05  0.0036
   1.6428E+01   1.6828E+01   3.8417E-05  0.0036
   1.6828E+01   1.7237E+01   3.6564E-05  0.0037
   1.7237E+01   1.7657E+01   3.5088E-05  0.0037
   1.7657E+01   1.8086E+01   3.2995E-05  0.0038
   1.8086E+01   1.8526E+01   3.1759E-05  0.0038
   1.8526E+01   1.8977E+01   3.0169E-05  0.0038
   1.8977E+01   1.9439E+01   2.8896E-05  0.0039
   1.9439E+01   1.9912E+01   2.8326E-05  0.0039
   1.9912E+01   2.0396E+01   2.7450E-05  0.0039
   2.0396E+01   2.0893E+01   2.6400E-05  0.0039
   2.0893E+01   2.1401E+01   2.4958E-05  0.0040
   2.1401E+01   2.1922E+01   2.3670E-05  0.0040
   2.1922E+01   2.2455E+01   2.2417E-05  0.0041
   2.2455E+01   2.3001E+01   2.1296E-05  0.0041
   2.3001E+01   2.3561E+01   1.9987E-05  0.0042
   2.3561E+01   2.4134E+01   1.8934E-05  0.0043
   2.4134E+01   2.4721E+01   1.7725E-05  0.0044
   2.4721E+01   2.5323E+01   1.6684E-05  0.0045
   2.5323E+01   2.5939E+01   1.5635E-05  0.0046
   2.5939E+01   2.6570E+01   1.4618E-05  0.0047
   2.6570E+01   2.7217E+01   1.3683E-05  0.0048
   2.7217E+01   2.7879E+01   1.2869E-05  0.0048
   2.7879E+01   2.8557E+01   1.2021E-05  0.0050
   2.8557E+01   2.9252E+01   1.1095E-05  0.0051
   2.9252E+01   2.9964E+01   1.0428E-05  0.0052
   2.9964E+01   3.0693E+01   9.6982E-06  0.0053
   3.0693E+01   3.1440E+01   8.9250E-06  0.0055
   3.1440E+01   3.2205E+01   8.2209E-06  0.0056
   3.2205E+01   3.2988E+01   7.5685E-06  0.0058
   3.2988E+01   3.3791E+01   6.9607E-06  0.0060
   3.3791E+01   3.4613E+01   6.3180E-06  0.0062
   3.4613E+01   3.5455E+01   5.7794E-06  0.0064
   3.5455E+01   3.6318E+01   5.3201E-06  0.0066
   3.6318E+01   3.7201E+01   4.8180E-06  0.0069
   3.7201E+01   3.8106E+01   4.3914E-06  0.0071
   3.8106E+01   3.9034E+01   3.9055E-06  0.0074
   3.9034E+01   3.9983E+01   3.5413E-06  0.0077
   3.9983E+01   4.0956E+01   3.1268E-06  0.0081
   4.0956E+01   4.1953E+01   2.8448E-06  0.0084
   4.1953E+01   4.2973E+01   2.4823E-06  0.0089
   4.2973E+01   4.4019E+01   2.2445E-06  0.0092
   4.4019E+01   4.5090E+01   1.9423E-06  0.0098
   4.5090E+01   4.6187E+01   1.7270E-06  0.0103
   4.6187E+01   4.7311E+01   1.5238E-06  0.0108
   4.7311E+01   4.8462E+01   1.3363E-06  0.0114
   4.8462E+01   4.9641E+01   1.1892E-06  0.0119
   4.9641E+01   5.0849E+01   1.0228E-06  0.0127
   5.0849E+01   5.2086E+01   8.8345E-07  0.0135
   5.2086E+01   5.3353E+01   7.3779E-07  0.0146
   5.3353E+01   5.4651E+01   6.6573E-07  0.0152
   5.4651E+01   5.5981E+01   5.4493E-07  0.0166
   5.5981E+01   5.7343E+01   4.7457E-07  0.0176
   5.7343E+01   5.8738E+01   4.0037E-07  0.0189
   5.8738E+01   6.0168E+01   3.5112E-07  0.0200
   6.0168E+01   6.1632E+01   2.9236E-07  0.0216
   6.1632E+01   6.3131E+01   2.4434E-07  0.0234
   6.3131E+01   6.4667E+01   2.1237E-07  0.0248
   6.4667E+01   6.6240E+01   1.8546E-07  0.0262
   6.6240E+01   6.7852E+01   1.6418E-07  0.0275
   6.7852E+01   6.9503E+01   1.3665E-07  0.0298
   6.9503E+01   7.1194E+01   1.1827E-07  0.0316
   7.1194E+01   7.2926E+01   9.2252E-08  0.0354
   7.2926E+01   7.4701E+01   7.8451E-08  0.0379
   7.4701E+01   7.6518E+01   6.5253E-08  0.0411
   7.6518E+01   7.8380E+01   5.3176E-08  0.0449
   7.8380E+01   8.0287E+01   3.9328E-08  0.0516
   8.0287E+01   8.2240E+01   3.1944E-08  0.0566
   8.2240E+01   8.4241E+01   2.3888E-08  0.0647
   8.4241E+01   8.6291E+01   1.5320E-08  0.0798
   8.6291E+01   8.8391E+01   9.6212E-09  0.0995
   8.8391E+01   9.0541E+01   6.6958E-09  0.1179
   9.0541E+01   9.2744E+01   4.3578E-09  0.1443
   9.2744E+01   9.5001E+01   3.7225E-09  0.1543
   9.5001E+01   9.7312E+01   2.7688E-09  0.1768
   9.7312E+01   9.9680E+01   1.0981E-09  0.2774
   9.9680E+01   1.0211E+02   1.2370E-09  0.2582
   1.0211E+02   1.0459E+02   1.6101E-10  0.7071
   1.0459E+02   1.0713E+02   0.0000E+00  0.0000
   1.0713E+02   1.0974E+02   7.6727E-11  1.0000
   1.0974E+02   1.1241E+02   0.0000E+00  0.0000
   1.1241E+02   1.1515E+02   0.0000E+00  0.0000
   1.1515E+02   1.1795E+02   0.0000E+00  0.0000
   1.1795E+02   1.2082E+02   0.0000E+00  0.0000
   1.2082E+02   1.2376E+02   0.0000E+00  0.0000
   1.2376E+02   1.2677E+02   0.0000E+00  0.0000
   1.2677E+02   1.2985E+02   0.0000E+00  0.0000
   1.2985E+02   1.3301E+02   0.0000E+00  0.0000
   1.3301E+02   1.3625E+02   0.0000E+00  0.0000
   1.3625E+02   1.3956E+02   0.0000E+00  0.0000
   1.3956E+02   1.4296E+02   0.0000E+00  0.0000
   1.4296E+02   1.4644E+02   0.0000E+00  0.0000
   1.4644E+02   1.5000E+02   0.0000E+00  0.0000

#   sum over                 1.8799E-05
'no. =    1   reg = 114 - 214'
msuc: {\huge [t-cross] in region mesh}
msdr: {\it plotted by \ANGEL \version}
msdl: {\it calculated by \PHITS  3.28}
wt: s(0.7)
\vspace{-3}
  region surface crossing
  area  &=&   1.0000E+00 [cm^2]
e:
 
# Information for Restart Calculation
# This calculation was newly started
# istdev =  2 # 1:Batch variance, 2:History variance
# resc2  = 5.00000000000000000E+09 # Total source weight or Total source weight / maxcas
# resc3  = 5.00000000000000000E+09 # Total history number or Total batch number
# maxcas =   500000000 # History / Batch, only used for istdev=1
# bitrseed = 0110100000100010111000001110001111001110100100011111101000111001 # bit data of rseed
