[ T-Cross ]
    title = [t-cross] in region mesh
     mesh =  reg            # mesh type is region-wise
      reg =    1            # number of crossing regions
      non     r-from    r-to       area
      1       107       207        1.000000    
   e-type =    3            # e-mesh is log given by emin, emax and ne
     emin =  1.0000000E-02  # minimum value of e-mesh points
     emax =   150.0000      # maximum value of e-mesh points
#    edel =  2.4039514E-02  # mesh width of e-mesh points
       ne =    400          # number of e-mesh points
#    data = ( e(i), i = 1, ne + 1 )
#           1.00000E-02  1.02433E-02  1.04925E-02  1.07478E-02  1.10093E-02
#           1.12772E-02  1.15516E-02  1.18326E-02  1.21205E-02  1.24154E-02
#           1.27175E-02  1.30269E-02  1.33439E-02  1.36686E-02  1.40011E-02
#           1.43418E-02  1.46907E-02  1.50482E-02  1.54143E-02  1.57894E-02
#           1.61735E-02  1.65670E-02  1.69701E-02  1.73830E-02  1.78060E-02
#           1.82392E-02  1.86830E-02  1.91375E-02  1.96032E-02  2.00801E-02
#           2.05687E-02  2.10692E-02  2.15818E-02  2.21069E-02  2.26448E-02
#           2.31957E-02  2.37601E-02  2.43382E-02  2.49304E-02  2.55369E-02
#           2.61583E-02  2.67947E-02  2.74467E-02  2.81145E-02  2.87985E-02
#           2.94992E-02  3.02169E-02  3.09521E-02  3.17052E-02  3.24766E-02
#           3.32668E-02  3.40762E-02  3.49053E-02  3.57546E-02  3.66246E-02
#           3.75157E-02  3.84284E-02  3.93634E-02  4.03212E-02  4.13022E-02
#           4.23071E-02  4.33365E-02  4.43909E-02  4.54710E-02  4.65773E-02
#           4.77106E-02  4.88714E-02  5.00605E-02  5.12785E-02  5.25262E-02
#           5.38042E-02  5.51133E-02  5.64542E-02  5.78278E-02  5.92348E-02
#           6.06760E-02  6.21523E-02  6.36645E-02  6.52135E-02  6.68002E-02
#           6.84255E-02  7.00904E-02  7.17957E-02  7.35426E-02  7.53319E-02
#           7.71648E-02  7.90423E-02  8.09655E-02  8.29354E-02  8.49533E-02
#           8.70203E-02  8.91376E-02  9.13064E-02  9.35279E-02  9.58035E-02
#           9.81345E-02  1.00522E-01  1.02968E-01  1.05473E-01  1.08040E-01
#           1.10668E-01  1.13361E-01  1.16119E-01  1.18944E-01  1.21838E-01
#           1.24803E-01  1.27839E-01  1.30950E-01  1.34136E-01  1.37399E-01
#           1.40742E-01  1.44167E-01  1.47675E-01  1.51268E-01  1.54948E-01
#           1.58718E-01  1.62580E-01  1.66535E-01  1.70587E-01  1.74738E-01
#           1.78989E-01  1.83344E-01  1.87805E-01  1.92375E-01  1.97055E-01
#           2.01850E-01  2.06761E-01  2.11792E-01  2.16945E-01  2.22223E-01
#           2.27630E-01  2.33169E-01  2.38842E-01  2.44653E-01  2.50605E-01
#           2.56703E-01  2.62949E-01  2.69346E-01  2.75900E-01  2.82613E-01
#           2.89489E-01  2.96532E-01  3.03747E-01  3.11138E-01  3.18708E-01
#           3.26462E-01  3.34405E-01  3.42542E-01  3.50876E-01  3.59413E-01
#           3.68158E-01  3.77116E-01  3.86291E-01  3.95690E-01  4.05317E-01
#           4.15179E-01  4.25281E-01  4.35628E-01  4.46227E-01  4.57084E-01
#           4.68205E-01  4.79597E-01  4.91266E-01  5.03219E-01  5.15463E-01
#           5.28005E-01  5.40851E-01  5.54011E-01  5.67490E-01  5.81298E-01
#           5.95441E-01  6.09929E-01  6.24769E-01  6.39970E-01  6.55541E-01
#           6.71491E-01  6.87828E-01  7.04564E-01  7.21706E-01  7.39266E-01
#           7.57253E-01  7.75678E-01  7.94551E-01  8.13883E-01  8.33685E-01
#           8.53969E-01  8.74747E-01  8.96030E-01  9.17831E-01  9.40163E-01
#           9.63038E-01  9.86469E-01  1.01047E+00  1.03506E+00  1.06024E+00
#           1.08604E+00  1.11246E+00  1.13953E+00  1.16725E+00  1.19565E+00
#           1.22474E+00  1.25454E+00  1.28507E+00  1.31633E+00  1.34836E+00
#           1.38117E+00  1.41477E+00  1.44920E+00  1.48446E+00  1.52057E+00
#           1.55757E+00  1.59547E+00  1.63429E+00  1.67405E+00  1.71478E+00
#           1.75650E+00  1.79924E+00  1.84302E+00  1.88786E+00  1.93379E+00
#           1.98084E+00  2.02904E+00  2.07841E+00  2.12898E+00  2.18078E+00
#           2.23384E+00  2.28819E+00  2.34386E+00  2.40089E+00  2.45930E+00
#           2.51914E+00  2.58043E+00  2.64322E+00  2.70753E+00  2.77341E+00
#           2.84088E+00  2.91001E+00  2.98081E+00  3.05333E+00  3.12762E+00
#           3.20372E+00  3.28167E+00  3.36152E+00  3.44330E+00  3.52708E+00
#           3.61290E+00  3.70080E+00  3.79085E+00  3.88308E+00  3.97756E+00
#           4.07434E+00  4.17347E+00  4.27501E+00  4.37903E+00  4.48557E+00
#           4.59471E+00  4.70650E+00  4.82102E+00  4.93832E+00  5.05847E+00
#           5.18155E+00  5.30762E+00  5.43676E+00  5.56904E+00  5.70453E+00
#           5.84333E+00  5.98550E+00  6.13114E+00  6.28031E+00  6.43312E+00
#           6.58964E+00  6.74997E+00  6.91420E+00  7.08243E+00  7.25475E+00
#           7.43126E+00  7.61207E+00  7.79728E+00  7.98700E+00  8.18133E+00
#           8.38038E+00  8.58428E+00  8.79315E+00  9.00709E+00  9.22624E+00
#           9.45072E+00  9.68067E+00  9.91620E+00  1.01575E+01  1.04046E+01
#           1.06578E+01  1.09171E+01  1.11827E+01  1.14548E+01  1.17335E+01
#           1.20190E+01  1.23114E+01  1.26109E+01  1.29178E+01  1.32321E+01
#           1.35540E+01  1.38838E+01  1.42216E+01  1.45676E+01  1.49221E+01
#           1.52851E+01  1.56570E+01  1.60380E+01  1.64282E+01  1.68279E+01
#           1.72374E+01  1.76568E+01  1.80864E+01  1.85264E+01  1.89772E+01
#           1.94389E+01  1.99119E+01  2.03963E+01  2.08926E+01  2.14009E+01
#           2.19216E+01  2.24550E+01  2.30014E+01  2.35610E+01  2.41343E+01
#           2.47215E+01  2.53230E+01  2.59391E+01  2.65702E+01  2.72167E+01
#           2.78789E+01  2.85572E+01  2.92520E+01  2.99637E+01  3.06928E+01
#           3.14396E+01  3.22045E+01  3.29881E+01  3.37907E+01  3.46128E+01
#           3.54550E+01  3.63177E+01  3.72013E+01  3.81064E+01  3.90336E+01
#           3.99833E+01  4.09561E+01  4.19526E+01  4.29734E+01  4.40189E+01
#           4.50900E+01  4.61870E+01  4.73108E+01  4.84619E+01  4.96410E+01
#           5.08488E+01  5.20860E+01  5.33533E+01  5.46514E+01  5.59812E+01
#           5.73432E+01  5.87384E+01  6.01676E+01  6.16315E+01  6.31311E+01
#           6.46671E+01  6.62405E+01  6.78522E+01  6.95031E+01  7.11941E+01
#           7.29263E+01  7.47007E+01  7.65182E+01  7.83800E+01  8.02870E+01
#           8.22405E+01  8.42414E+01  8.62911E+01  8.83906E+01  9.05412E+01
#           9.27442E+01  9.50007E+01  9.73122E+01  9.96799E+01  1.02105E+02
#           1.04589E+02  1.07134E+02  1.09741E+02  1.12411E+02  1.15146E+02
#           1.17948E+02  1.20817E+02  1.23757E+02  1.26768E+02  1.29852E+02
#           1.33012E+02  1.36248E+02  1.39563E+02  1.42959E+02  1.46437E+02
#           1.50000E+02
     unit =    2            # unit is [1/cm^2/(MeV/n)/source]
     axis =  eng            # axis of output
     file = detector-08.out  # file name of output for the above axis
   output = f-curr          # surface crossing forward current spectrum
     part =  neutron  
# kf/name :  2112     
#    used :        main (  %)        temp (  %)       total (  %)
#  memory :         414 (  0)           0 (  0)         414 (  0)

#------------------------------------------------------------------------------
#newpage:
#   no. =    1   reg = 107 - 207

x: Energy [MeV/n]
y:  F-Curr [1/cm^2/(MeV/n)/source]         
p: xlog ylog afac(0.8) form(0.9)
h: n            x            y(neutron ),hh0l   n 
#  e-lower      e-upper      neutron     r.err 
   1.0000E-02   1.0243E-02   7.3786E-06  0.3333
   1.0243E-02   1.0493E-02   4.9787E-06  0.3952
   1.0493E-02   1.0748E-02   9.0817E-06  0.2898
   1.0748E-02   1.1009E-02   9.1635E-06  0.2887
   1.1009E-02   1.1277E-02   5.6464E-06  0.3552
   1.1277E-02   1.1552E-02   9.4559E-06  0.2774
   1.1552E-02   1.1833E-02   7.2034E-06  0.3117
   1.1833E-02   1.2121E-02   3.2116E-06  0.4494
   1.2121E-02   1.2415E-02   4.7404E-06  0.3780
   1.2415E-02   1.2718E-02   4.5067E-06  0.3787
   1.2718E-02   1.3027E-02   6.3943E-06  0.3100
   1.3027E-02   1.3344E-02   7.0564E-06  0.2964
   1.3344E-02   1.3669E-02   6.7514E-06  0.3015
   1.3669E-02   1.4001E-02   6.4525E-06  0.3019
   1.4001E-02   1.4342E-02   3.6803E-06  0.3930
   1.4342E-02   1.4691E-02   6.7578E-06  0.2891
   1.4691E-02   1.5048E-02   4.4252E-06  0.3537
   1.5048E-02   1.5414E-02   8.8295E-06  0.2436
   1.5414E-02   1.5789E-02   4.2163E-06  0.3537
   1.5789E-02   1.6174E-02   4.2763E-06  0.3449
   1.6174E-02   1.6567E-02   5.5487E-06  0.2972
   1.6567E-02   1.6970E-02   5.9382E-06  0.2887
   1.6970E-02   1.7383E-02   8.5449E-06  0.2341
   1.7383E-02   1.7806E-02   4.9115E-06  0.3034
   1.7806E-02   1.8239E-02   6.7581E-06  0.2588
   1.8239E-02   1.8683E-02   5.3919E-06  0.2887
   1.8683E-02   1.9138E-02   4.3884E-06  0.3162
   1.9138E-02   1.9603E-02   5.3786E-06  0.2783
   1.9603E-02   2.0080E-02   4.8128E-06  0.2895
   2.0080E-02   2.0569E-02   2.7443E-06  0.3790
   2.0569E-02   2.1069E-02   4.7817E-06  0.2887
   2.1069E-02   2.1582E-02   4.7659E-06  0.2789
   2.1582E-02   2.2107E-02   3.4205E-06  0.3333
   2.2107E-02   2.2645E-02   2.5388E-06  0.3786
   2.2645E-02   2.3196E-02   2.7707E-06  0.3559
   2.3196E-02   2.3760E-02   1.8279E-06  0.4340
   2.3760E-02   2.4338E-02   2.3618E-06  0.3786
   2.4338E-02   2.4930E-02   5.3155E-06  0.2482
   2.4930E-02   2.5537E-02   2.9630E-06  0.3333
   2.5537E-02   2.6158E-02   3.5022E-06  0.3016
   2.6158E-02   2.6795E-02   3.8366E-06  0.2799
   2.6795E-02   2.7447E-02   3.9335E-06  0.2776
   2.7447E-02   2.8114E-02   2.3447E-06  0.3540
   2.8114E-02   2.8799E-02   3.0614E-06  0.3037
   2.8799E-02   2.9499E-02   1.1379E-06  0.5000
   2.9499E-02   3.0217E-02   2.2008E-06  0.3537
   3.0217E-02   3.0952E-02   4.2591E-06  0.2503
   3.0952E-02   3.1705E-02   1.5884E-06  0.4082
   3.1705E-02   3.2477E-02   4.8512E-06  0.2275
   3.2477E-02   3.3267E-02   2.2336E-06  0.3337
   3.3267E-02   3.4076E-02   3.1016E-06  0.2778
   3.4076E-02   3.4905E-02   2.6969E-06  0.2964
   3.4905E-02   3.5755E-02   2.7182E-06  0.2909
   3.5755E-02   3.6625E-02   2.7062E-06  0.2891
   3.6625E-02   3.7516E-02   2.4130E-06  0.3021
   3.7516E-02   3.8428E-02   1.3112E-06  0.4083
   3.8428E-02   3.9363E-02   2.5583E-06  0.2887
   3.9363E-02   4.0321E-02   1.7315E-06  0.3425
   4.0321E-02   4.1302E-02   2.1604E-06  0.3033
   4.1302E-02   4.2307E-02   2.9470E-06  0.2551
   4.2307E-02   4.3337E-02   1.6767E-06  0.3355
   4.3337E-02   4.4391E-02   1.3539E-06  0.3682
   4.4391E-02   4.5471E-02   1.2914E-06  0.3780
   4.5471E-02   4.6577E-02   3.2458E-06  0.2357
   4.6577E-02   4.7711E-02   1.6618E-06  0.3198
   4.7711E-02   4.8871E-02   1.0109E-06  0.4087
   4.8871E-02   5.0061E-02   1.2922E-06  0.3544
   5.0061E-02   5.1279E-02   1.4150E-06  0.3357
   5.1279E-02   5.2526E-02   1.2802E-06  0.3536
   5.2526E-02   5.3804E-02   2.1841E-06  0.2673
   5.3804E-02   5.5113E-02   1.5122E-06  0.3119
   5.5113E-02   5.6454E-02   1.6207E-06  0.3017
   5.6454E-02   5.7828E-02   1.5840E-06  0.3016
   5.7828E-02   5.9235E-02   1.1786E-06  0.3381
   5.9235E-02   6.0676E-02   1.4525E-06  0.3033
   6.0676E-02   6.2152E-02   1.7367E-06  0.2776
   6.2152E-02   6.3665E-02   1.7423E-06  0.2714
   6.3665E-02   6.5214E-02   7.7226E-07  0.4083
   6.5214E-02   6.6800E-02   1.0283E-06  0.3469
   6.6800E-02   6.8426E-02   9.5441E-07  0.3543
   6.8426E-02   7.0090E-02   2.3957E-06  0.2236
   7.0090E-02   7.1796E-02   1.3620E-06  0.2902
   7.1796E-02   7.3543E-02   1.3339E-06  0.2899
   7.3543E-02   7.5332E-02   9.7782E-07  0.3342
   7.5332E-02   7.7165E-02   1.3905E-06  0.2776
   7.7165E-02   7.9042E-02   1.4189E-06  0.2691
   7.9042E-02   8.0965E-02   1.2279E-06  0.2888
   8.0965E-02   8.2935E-02   1.6194E-06  0.2500
   8.2935E-02   8.4953E-02   1.0118E-06  0.3098
   8.4953E-02   8.7020E-02   1.1586E-06  0.2887
   8.7020E-02   8.9138E-02   1.3194E-06  0.2673
   8.9138E-02   9.1306E-02   1.3830E-06  0.2548
   9.1306E-02   9.3528E-02   1.3052E-06  0.2591
   9.3528E-02   9.5804E-02   1.0359E-06  0.2889
   9.5804E-02   9.8134E-02   1.1133E-06  0.2774
   9.8134E-02   1.0052E-01   9.9452E-07  0.2888
   1.0052E-01   1.0297E-01   1.5345E-06  0.2296
   1.0297E-01   1.0547E-01   1.0548E-06  0.2729
   1.0547E-01   1.0804E-01   1.2282E-06  0.2503
   1.0804E-01   1.1067E-01   1.6139E-06  0.2152
   1.1067E-01   1.1336E-01   1.4445E-06  0.2240
   1.1336E-01   1.1612E-01   1.5918E-06  0.2132
   1.1612E-01   1.1894E-01   1.9440E-06  0.1893
   1.1894E-01   1.2184E-01   1.1193E-06  0.2466
   1.2184E-01   1.2480E-01   2.2303E-06  0.1731
   1.2480E-01   1.2784E-01   1.3684E-06  0.2184
   1.2784E-01   1.3095E-01   1.6444E-06  0.1952
   1.3095E-01   1.3414E-01   2.1764E-06  0.1684
   1.3414E-01   1.3740E-01   2.4171E-06  0.1583
   1.3740E-01   1.4074E-01   2.0369E-06  0.1704
   1.4074E-01   1.4417E-01   1.8462E-06  0.1769
   1.4417E-01   1.4767E-01   2.2824E-06  0.1570
   1.4767E-01   1.5127E-01   3.1999E-06  0.1304
   1.5127E-01   1.5495E-01   2.8647E-06  0.1363
   1.5495E-01   1.5872E-01   3.1539E-06  0.1284
   1.5872E-01   1.6258E-01   3.2691E-06  0.1252
   1.6258E-01   1.6654E-01   3.2053E-06  0.1248
   1.6654E-01   1.7059E-01   3.5767E-06  0.1168
   1.7059E-01   1.7474E-01   3.2368E-06  0.1214
   1.7474E-01   1.7899E-01   3.8410E-06  0.1096
   1.7899E-01   1.8334E-01   3.9140E-06  0.1077
   1.8334E-01   1.8781E-01   4.6366E-06  0.0976
   1.8781E-01   1.9237E-01   4.0691E-06  0.1029
   1.9237E-01   1.9706E-01   4.3676E-06  0.0982
   1.9706E-01   2.0185E-01   4.8642E-06  0.0922
   2.0185E-01   2.0676E-01   5.0820E-06  0.0891
   2.0676E-01   2.1179E-01   5.0070E-06  0.0888
   2.1179E-01   2.1694E-01   6.1972E-06  0.0788
   2.1694E-01   2.2222E-01   5.5080E-06  0.0825
   2.2222E-01   2.2763E-01   6.2051E-06  0.0770
   2.2763E-01   2.3317E-01   5.9740E-06  0.0773
   2.3317E-01   2.3884E-01   6.4184E-06  0.0736
   2.3884E-01   2.4465E-01   6.8912E-06  0.0703
   2.4465E-01   2.5061E-01   7.3928E-06  0.0671
   2.5061E-01   2.5670E-01   7.8120E-06  0.0644
   2.5670E-01   2.6295E-01   7.8165E-06  0.0637
   2.6295E-01   2.6935E-01   8.0201E-06  0.0622
   2.6935E-01   2.7590E-01   8.4420E-06  0.0598
   2.7590E-01   2.8261E-01   8.5660E-06  0.0587
   2.8261E-01   2.8949E-01   9.8430E-06  0.0541
   2.8949E-01   2.9653E-01   8.7293E-06  0.0568
   2.9653E-01   3.0375E-01   1.0871E-05  0.0503
   3.0375E-01   3.1114E-01   1.0605E-05  0.0503
   3.1114E-01   3.1871E-01   1.1696E-05  0.0473
   3.1871E-01   3.2646E-01   1.2695E-05  0.0449
   3.2646E-01   3.3441E-01   1.2735E-05  0.0442
   3.3441E-01   3.4254E-01   1.3397E-05  0.0426
   3.4254E-01   3.5088E-01   1.4727E-05  0.0401
   3.5088E-01   3.5941E-01   1.4790E-05  0.0396
   3.5941E-01   3.6816E-01   1.5750E-05  0.0379
   3.6816E-01   3.7712E-01   1.6328E-05  0.0368
   3.7712E-01   3.8629E-01   1.7272E-05  0.0354
   3.8629E-01   3.9569E-01   1.7950E-05  0.0343
   3.9569E-01   4.0532E-01   1.8992E-05  0.0329
   4.0532E-01   4.1518E-01   2.0133E-05  0.0316
   4.1518E-01   4.2528E-01   2.0473E-05  0.0309
   4.2528E-01   4.3563E-01   2.0552E-05  0.0305
   4.3563E-01   4.4623E-01   2.1579E-05  0.0294
   4.4623E-01   4.5708E-01   2.2811E-05  0.0283
   4.5708E-01   4.6821E-01   2.4149E-05  0.0272
   4.6821E-01   4.7960E-01   2.3593E-05  0.0271
   4.7960E-01   4.9127E-01   2.6012E-05  0.0255
   4.9127E-01   5.0322E-01   2.7024E-05  0.0247
   5.0322E-01   5.1546E-01   2.8104E-05  0.0240
   5.1546E-01   5.2800E-01   2.8636E-05  0.0235
   5.2800E-01   5.4085E-01   2.9776E-05  0.0228
   5.4085E-01   5.5401E-01   3.1778E-05  0.0217
   5.5401E-01   5.6749E-01   3.0606E-05  0.0219
   5.6749E-01   5.8130E-01   3.4032E-05  0.0205
   5.8130E-01   5.9544E-01   3.4811E-05  0.0201
   5.9544E-01   6.0993E-01   3.5452E-05  0.0196
   6.0993E-01   6.2477E-01   3.6060E-05  0.0192
   6.2477E-01   6.3997E-01   3.7277E-05  0.0187
   6.3997E-01   6.5554E-01   3.8112E-05  0.0183
   6.5554E-01   6.7149E-01   4.0481E-05  0.0175
   6.7149E-01   6.8783E-01   4.0309E-05  0.0173
   6.8783E-01   7.0456E-01   4.1399E-05  0.0169
   7.0456E-01   7.2171E-01   4.3996E-05  0.0162
   7.2171E-01   7.3927E-01   4.6243E-05  0.0156
   7.3927E-01   7.5725E-01   4.5269E-05  0.0156
   7.5725E-01   7.7568E-01   4.8051E-05  0.0150
   7.7568E-01   7.9455E-01   4.9493E-05  0.0146
   7.9455E-01   8.1388E-01   4.9703E-05  0.0144
   8.1388E-01   8.3368E-01   5.0778E-05  0.0140
   8.3368E-01   8.5397E-01   5.2078E-05  0.0137
   8.5397E-01   8.7475E-01   5.4809E-05  0.0132
   8.7475E-01   8.9603E-01   5.5157E-05  0.0130
   8.9603E-01   9.1783E-01   5.4924E-05  0.0128
   9.1783E-01   9.4016E-01   5.6826E-05  0.0125
   9.4016E-01   9.6304E-01   5.5553E-05  0.0125
   9.6304E-01   9.8647E-01   5.6176E-05  0.0122
   9.8647E-01   1.0105E+00   5.6150E-05  0.0121
   1.0105E+00   1.0351E+00   5.6231E-05  0.0120
   1.0351E+00   1.0602E+00   5.6869E-05  0.0117
   1.0602E+00   1.0860E+00   5.7641E-05  0.0115
   1.0860E+00   1.1125E+00   5.8884E-05  0.0113
   1.1125E+00   1.1395E+00   6.1373E-05  0.0109
   1.1395E+00   1.1673E+00   6.2562E-05  0.0107
   1.1673E+00   1.1957E+00   6.3704E-05  0.0104
   1.1957E+00   1.2247E+00   6.4932E-05  0.0102
   1.2247E+00   1.2545E+00   6.9638E-05  0.0097
   1.2545E+00   1.2851E+00   6.7300E-05  0.0098
   1.2851E+00   1.3163E+00   7.1047E-05  0.0094
   1.3163E+00   1.3484E+00   7.1980E-05  0.0092
   1.3484E+00   1.3812E+00   7.2526E-05  0.0091
   1.3812E+00   1.4148E+00   7.3724E-05  0.0089
   1.4148E+00   1.4492E+00   7.4079E-05  0.0088
   1.4492E+00   1.4845E+00   7.5913E-05  0.0086
   1.4845E+00   1.5206E+00   7.7718E-05  0.0084
   1.5206E+00   1.5576E+00   7.6410E-05  0.0083
   1.5576E+00   1.5955E+00   7.7749E-05  0.0082
   1.5955E+00   1.6343E+00   7.8370E-05  0.0080
   1.6343E+00   1.6741E+00   7.8339E-05  0.0079
   1.6741E+00   1.7148E+00   7.8589E-05  0.0078
   1.7148E+00   1.7565E+00   7.5500E-05  0.0079
   1.7565E+00   1.7992E+00   7.2338E-05  0.0079
   1.7992E+00   1.8430E+00   6.6097E-05  0.0082
   1.8430E+00   1.8879E+00   6.1448E-05  0.0083
   1.8879E+00   1.9338E+00   6.0698E-05  0.0083
   1.9338E+00   1.9808E+00   5.8654E-05  0.0083
   1.9808E+00   2.0290E+00   5.9355E-05  0.0081
   2.0290E+00   2.0784E+00   5.9853E-05  0.0080
   2.0784E+00   2.1290E+00   6.2219E-05  0.0077
   2.1290E+00   2.1808E+00   6.5589E-05  0.0074
   2.1808E+00   2.2338E+00   6.8773E-05  0.0071
   2.2338E+00   2.2882E+00   6.7459E-05  0.0071
   2.2882E+00   2.3439E+00   6.4321E-05  0.0072
   2.3439E+00   2.4009E+00   6.3952E-05  0.0072
   2.4009E+00   2.4593E+00   6.4530E-05  0.0071
   2.4593E+00   2.5191E+00   6.4435E-05  0.0070
   2.5191E+00   2.5804E+00   6.5101E-05  0.0069
   2.5804E+00   2.6432E+00   6.4461E-05  0.0068
   2.6432E+00   2.7075E+00   6.4693E-05  0.0067
   2.7075E+00   2.7734E+00   6.4649E-05  0.0067
   2.7734E+00   2.8409E+00   6.4562E-05  0.0066
   2.8409E+00   2.9100E+00   6.3993E-05  0.0065
   2.9100E+00   2.9808E+00   6.3933E-05  0.0065
   2.9808E+00   3.0533E+00   6.4148E-05  0.0064
   3.0533E+00   3.1276E+00   6.2833E-05  0.0064
   3.1276E+00   3.2037E+00   6.3568E-05  0.0063
   3.2037E+00   3.2817E+00   6.4319E-05  0.0062
   3.2817E+00   3.3615E+00   6.3735E-05  0.0061
   3.3615E+00   3.4433E+00   6.4405E-05  0.0060
   3.4433E+00   3.5271E+00   6.4810E-05  0.0060
   3.5271E+00   3.6129E+00   6.3846E-05  0.0059
   3.6129E+00   3.7008E+00   6.3873E-05  0.0059
   3.7008E+00   3.7908E+00   6.4340E-05  0.0058
   3.7908E+00   3.8831E+00   6.4227E-05  0.0057
   3.8831E+00   3.9776E+00   6.2929E-05  0.0057
   3.9776E+00   4.0743E+00   6.2097E-05  0.0057
   4.0743E+00   4.1735E+00   6.1213E-05  0.0057
   4.1735E+00   4.2750E+00   6.0922E-05  0.0056
   4.2750E+00   4.3790E+00   6.0168E-05  0.0056
   4.3790E+00   4.4856E+00   5.8965E-05  0.0055
   4.4856E+00   4.5947E+00   5.7207E-05  0.0056
   4.5947E+00   4.7065E+00   5.6519E-05  0.0055
   4.7065E+00   4.8210E+00   5.6139E-05  0.0055
   4.8210E+00   4.9383E+00   5.5914E-05  0.0054
   4.9383E+00   5.0585E+00   5.5777E-05  0.0054
   5.0585E+00   5.1815E+00   5.5391E-05  0.0053
   5.1815E+00   5.3076E+00   5.5655E-05  0.0053
   5.3076E+00   5.4368E+00   5.4494E-05  0.0052
   5.4368E+00   5.5690E+00   5.3780E-05  0.0052
   5.5690E+00   5.7045E+00   5.3333E-05  0.0052
   5.7045E+00   5.8433E+00   5.2648E-05  0.0052
   5.8433E+00   5.9855E+00   5.2397E-05  0.0051
   5.9855E+00   6.1311E+00   5.2477E-05  0.0050
   6.1311E+00   6.2803E+00   5.1895E-05  0.0050
   6.2803E+00   6.4331E+00   5.1691E-05  0.0050
   6.4331E+00   6.5896E+00   5.1374E-05  0.0049
   6.5896E+00   6.7500E+00   5.0923E-05  0.0049
   6.7500E+00   6.9142E+00   5.0795E-05  0.0048
   6.9142E+00   7.0824E+00   5.0695E-05  0.0048
   7.0824E+00   7.2548E+00   5.0374E-05  0.0047
   7.2548E+00   7.4313E+00   5.0119E-05  0.0047
   7.4313E+00   7.6121E+00   4.9235E-05  0.0047
   7.6121E+00   7.7973E+00   4.9210E-05  0.0046
   7.7973E+00   7.9870E+00   4.8894E-05  0.0046
   7.9870E+00   8.1813E+00   4.8422E-05  0.0046
   8.1813E+00   8.3804E+00   4.7636E-05  0.0045
   8.3804E+00   8.5843E+00   4.6217E-05  0.0046
   8.5843E+00   8.7931E+00   4.5856E-05  0.0045
   8.7931E+00   9.0071E+00   4.5595E-05  0.0045
   9.0071E+00   9.2262E+00   4.4157E-05  0.0045
   9.2262E+00   9.4507E+00   4.3072E-05  0.0045
   9.4507E+00   9.6807E+00   4.1898E-05  0.0045
   9.6807E+00   9.9162E+00   4.1631E-05  0.0045
   9.9162E+00   1.0157E+01   4.4145E-05  0.0043
   1.0157E+01   1.0405E+01   4.2206E-05  0.0044
   1.0405E+01   1.0658E+01   3.9802E-05  0.0044
   1.0658E+01   1.0917E+01   3.7921E-05  0.0045
   1.0917E+01   1.1183E+01   3.6064E-05  0.0046
   1.1183E+01   1.1455E+01   3.4545E-05  0.0046
   1.1455E+01   1.1733E+01   3.2985E-05  0.0047
   1.1733E+01   1.2019E+01   3.1834E-05  0.0047
   1.2019E+01   1.2311E+01   3.0441E-05  0.0047
   1.2311E+01   1.2611E+01   2.9234E-05  0.0048
   1.2611E+01   1.2918E+01   2.8047E-05  0.0048
   1.2918E+01   1.3232E+01   2.6722E-05  0.0049
   1.3232E+01   1.3554E+01   2.4898E-05  0.0050
   1.3554E+01   1.3884E+01   2.3408E-05  0.0051
   1.3884E+01   1.4222E+01   2.1770E-05  0.0052
   1.4222E+01   1.4568E+01   2.0655E-05  0.0053
   1.4568E+01   1.4922E+01   1.9137E-05  0.0054
   1.4922E+01   1.5285E+01   1.7476E-05  0.0056
   1.5285E+01   1.5657E+01   1.5794E-05  0.0058
   1.5657E+01   1.6038E+01   1.4448E-05  0.0060
   1.6038E+01   1.6428E+01   1.3019E-05  0.0063
   1.6428E+01   1.6828E+01   1.1545E-05  0.0066
   1.6828E+01   1.7237E+01   1.0289E-05  0.0069
   1.7237E+01   1.7657E+01   8.8325E-06  0.0073
   1.7657E+01   1.8086E+01   7.7356E-06  0.0078
   1.8086E+01   1.8526E+01   6.6130E-06  0.0083
   1.8526E+01   1.8977E+01   5.4831E-06  0.0090
   1.8977E+01   1.9439E+01   4.4902E-06  0.0098
   1.9439E+01   1.9912E+01   3.7978E-06  0.0106
   1.9912E+01   2.0396E+01   3.0524E-06  0.0116
   2.0396E+01   2.0893E+01   2.3661E-06  0.0131
   2.0893E+01   2.1401E+01   1.7276E-06  0.0151
   2.1401E+01   2.1922E+01   1.2460E-06  0.0176
   2.1922E+01   2.2455E+01   8.2119E-07  0.0214
   2.2455E+01   2.3001E+01   4.7186E-07  0.0279
   2.3001E+01   2.3561E+01   2.5052E-07  0.0378
   2.3561E+01   2.4134E+01   7.9196E-08  0.0664
   2.4134E+01   2.4721E+01   8.5149E-09  0.2000
   2.4721E+01   2.5323E+01   1.3300E-09  0.5000
   2.5323E+01   2.5939E+01   1.9476E-09  0.4082
   2.5939E+01   2.6570E+01   9.5069E-10  0.5774
   2.6570E+01   2.7217E+01   9.2811E-10  0.5774
   2.7217E+01   2.7879E+01   0.0000E+00  0.0000
   2.7879E+01   2.8557E+01   5.8970E-10  0.7071
   2.8557E+01   2.9252E+01   0.0000E+00  0.0000
   2.9252E+01   2.9964E+01   2.8101E-10  1.0000
   2.9964E+01   3.0693E+01   5.4867E-10  0.7071
   3.0693E+01   3.1440E+01   2.6782E-10  1.0000
   3.1440E+01   3.2205E+01   0.0000E+00  0.0000
   3.2205E+01   3.2988E+01   0.0000E+00  0.0000
   3.2988E+01   3.3791E+01   0.0000E+00  0.0000
   3.3791E+01   3.4613E+01   0.0000E+00  0.0000
   3.4613E+01   3.5455E+01   0.0000E+00  0.0000
   3.5455E+01   3.6318E+01   0.0000E+00  0.0000
   3.6318E+01   3.7201E+01   0.0000E+00  0.0000
   3.7201E+01   3.8106E+01   0.0000E+00  0.0000
   3.8106E+01   3.9034E+01   0.0000E+00  0.0000
   3.9034E+01   3.9983E+01   0.0000E+00  0.0000
   3.9983E+01   4.0956E+01   0.0000E+00  0.0000
   4.0956E+01   4.1953E+01   0.0000E+00  0.0000
   4.1953E+01   4.2973E+01   0.0000E+00  0.0000
   4.2973E+01   4.4019E+01   0.0000E+00  0.0000
   4.4019E+01   4.5090E+01   0.0000E+00  0.0000
   4.5090E+01   4.6187E+01   0.0000E+00  0.0000
   4.6187E+01   4.7311E+01   0.0000E+00  0.0000
   4.7311E+01   4.8462E+01   0.0000E+00  0.0000
   4.8462E+01   4.9641E+01   0.0000E+00  0.0000
   4.9641E+01   5.0849E+01   0.0000E+00  0.0000
   5.0849E+01   5.2086E+01   0.0000E+00  0.0000
   5.2086E+01   5.3353E+01   0.0000E+00  0.0000
   5.3353E+01   5.4651E+01   0.0000E+00  0.0000
   5.4651E+01   5.5981E+01   0.0000E+00  0.0000
   5.5981E+01   5.7343E+01   0.0000E+00  0.0000
   5.7343E+01   5.8738E+01   0.0000E+00  0.0000
   5.8738E+01   6.0168E+01   0.0000E+00  0.0000
   6.0168E+01   6.1632E+01   0.0000E+00  0.0000
   6.1632E+01   6.3131E+01   0.0000E+00  0.0000
   6.3131E+01   6.4667E+01   0.0000E+00  0.0000
   6.4667E+01   6.6240E+01   0.0000E+00  0.0000
   6.6240E+01   6.7852E+01   0.0000E+00  0.0000
   6.7852E+01   6.9503E+01   0.0000E+00  0.0000
   6.9503E+01   7.1194E+01   0.0000E+00  0.0000
   7.1194E+01   7.2926E+01   0.0000E+00  0.0000
   7.2926E+01   7.4701E+01   0.0000E+00  0.0000
   7.4701E+01   7.6518E+01   0.0000E+00  0.0000
   7.6518E+01   7.8380E+01   0.0000E+00  0.0000
   7.8380E+01   8.0287E+01   0.0000E+00  0.0000
   8.0287E+01   8.2240E+01   0.0000E+00  0.0000
   8.2240E+01   8.4241E+01   0.0000E+00  0.0000
   8.4241E+01   8.6291E+01   0.0000E+00  0.0000
   8.6291E+01   8.8391E+01   0.0000E+00  0.0000
   8.8391E+01   9.0541E+01   0.0000E+00  0.0000
   9.0541E+01   9.2744E+01   0.0000E+00  0.0000
   9.2744E+01   9.5001E+01   0.0000E+00  0.0000
   9.5001E+01   9.7312E+01   0.0000E+00  0.0000
   9.7312E+01   9.9680E+01   0.0000E+00  0.0000
   9.9680E+01   1.0211E+02   0.0000E+00  0.0000
   1.0211E+02   1.0459E+02   0.0000E+00  0.0000
   1.0459E+02   1.0713E+02   0.0000E+00  0.0000
   1.0713E+02   1.0974E+02   0.0000E+00  0.0000
   1.0974E+02   1.1241E+02   0.0000E+00  0.0000
   1.1241E+02   1.1515E+02   0.0000E+00  0.0000
   1.1515E+02   1.1795E+02   0.0000E+00  0.0000
   1.1795E+02   1.2082E+02   0.0000E+00  0.0000
   1.2082E+02   1.2376E+02   0.0000E+00  0.0000
   1.2376E+02   1.2677E+02   0.0000E+00  0.0000
   1.2677E+02   1.2985E+02   0.0000E+00  0.0000
   1.2985E+02   1.3301E+02   0.0000E+00  0.0000
   1.3301E+02   1.3625E+02   0.0000E+00  0.0000
   1.3625E+02   1.3956E+02   0.0000E+00  0.0000
   1.3956E+02   1.4296E+02   0.0000E+00  0.0000
   1.4296E+02   1.4644E+02   0.0000E+00  0.0000
   1.4644E+02   1.5000E+02   0.0000E+00  0.0000

#   sum over                 4.8448E-06
'no. =    1   reg = 107 - 207'
msuc: {\huge [t-cross] in region mesh}
msdr: {\it plotted by \ANGEL \version}
msdl: {\it calculated by \PHITS  3.26}
wt: s(0.7)
\vspace{-3}
  region surface crossing
  area  &=&   1.0000E+00 [cm^2]
e:
 
# Information for Restart Calculation
# This calculation was newly started
# istdev =  2 # 1:Batch variance, 2:History variance
# resc2  = 5.00000000000000000E+09 # Total source weight or Total source weight / maxcas
# resc3  = 5.00000000000000000E+09 # Total history number or Total batch number
# maxcas =   100000000 # History / Batch, only used for istdev=1
# bitrseed = 0110100000100010111000001110001111001110100100011111101000111001 # bit data of rseed
