6 <--- number of remaining batches 

-------------------------------------------------------------------------------
bat[       4] ncas =     2000000000.
 bitrseed = 0000010101110101110110100110011001100101000001100111100100101101
          cpu time =   4 h. 34 m. 58.00 s.

 date = 2022-06-01
 time = 16h 30m 45s

