[ T-Cross ]
    title = [t-cross] in region mesh
     mesh =  reg            # mesh type is region-wise
      reg =    1            # number of crossing regions
      non     r-from    r-to       area
      1       107       207        1.000000    
   e-type =    3            # e-mesh is log given by emin, emax and ne
     emin =  1.0000000E-02  # minimum value of e-mesh points
     emax =   150.0000      # maximum value of e-mesh points
#    edel =  2.4039514E-02  # mesh width of e-mesh points
       ne =    400          # number of e-mesh points
#    data = ( e(i), i = 1, ne + 1 )
#           1.00000E-02  1.02433E-02  1.04925E-02  1.07478E-02  1.10093E-02
#           1.12772E-02  1.15516E-02  1.18326E-02  1.21205E-02  1.24154E-02
#           1.27175E-02  1.30269E-02  1.33439E-02  1.36686E-02  1.40011E-02
#           1.43418E-02  1.46907E-02  1.50482E-02  1.54143E-02  1.57894E-02
#           1.61735E-02  1.65670E-02  1.69701E-02  1.73830E-02  1.78060E-02
#           1.82392E-02  1.86830E-02  1.91375E-02  1.96032E-02  2.00801E-02
#           2.05687E-02  2.10692E-02  2.15818E-02  2.21069E-02  2.26448E-02
#           2.31957E-02  2.37601E-02  2.43382E-02  2.49304E-02  2.55369E-02
#           2.61583E-02  2.67947E-02  2.74467E-02  2.81145E-02  2.87985E-02
#           2.94992E-02  3.02169E-02  3.09521E-02  3.17052E-02  3.24766E-02
#           3.32668E-02  3.40762E-02  3.49053E-02  3.57546E-02  3.66246E-02
#           3.75157E-02  3.84284E-02  3.93634E-02  4.03212E-02  4.13022E-02
#           4.23071E-02  4.33365E-02  4.43909E-02  4.54710E-02  4.65773E-02
#           4.77106E-02  4.88714E-02  5.00605E-02  5.12785E-02  5.25262E-02
#           5.38042E-02  5.51133E-02  5.64542E-02  5.78278E-02  5.92348E-02
#           6.06760E-02  6.21523E-02  6.36645E-02  6.52135E-02  6.68002E-02
#           6.84255E-02  7.00904E-02  7.17957E-02  7.35426E-02  7.53319E-02
#           7.71648E-02  7.90423E-02  8.09655E-02  8.29354E-02  8.49533E-02
#           8.70203E-02  8.91376E-02  9.13064E-02  9.35279E-02  9.58035E-02
#           9.81345E-02  1.00522E-01  1.02968E-01  1.05473E-01  1.08040E-01
#           1.10668E-01  1.13361E-01  1.16119E-01  1.18944E-01  1.21838E-01
#           1.24803E-01  1.27839E-01  1.30950E-01  1.34136E-01  1.37399E-01
#           1.40742E-01  1.44167E-01  1.47675E-01  1.51268E-01  1.54948E-01
#           1.58718E-01  1.62580E-01  1.66535E-01  1.70587E-01  1.74738E-01
#           1.78989E-01  1.83344E-01  1.87805E-01  1.92375E-01  1.97055E-01
#           2.01850E-01  2.06761E-01  2.11792E-01  2.16945E-01  2.22223E-01
#           2.27630E-01  2.33169E-01  2.38842E-01  2.44653E-01  2.50605E-01
#           2.56703E-01  2.62949E-01  2.69346E-01  2.75900E-01  2.82613E-01
#           2.89489E-01  2.96532E-01  3.03747E-01  3.11138E-01  3.18708E-01
#           3.26462E-01  3.34405E-01  3.42542E-01  3.50876E-01  3.59413E-01
#           3.68158E-01  3.77116E-01  3.86291E-01  3.95690E-01  4.05317E-01
#           4.15179E-01  4.25281E-01  4.35628E-01  4.46227E-01  4.57084E-01
#           4.68205E-01  4.79597E-01  4.91266E-01  5.03219E-01  5.15463E-01
#           5.28005E-01  5.40851E-01  5.54011E-01  5.67490E-01  5.81298E-01
#           5.95441E-01  6.09929E-01  6.24769E-01  6.39970E-01  6.55541E-01
#           6.71491E-01  6.87828E-01  7.04564E-01  7.21706E-01  7.39266E-01
#           7.57253E-01  7.75678E-01  7.94551E-01  8.13883E-01  8.33685E-01
#           8.53969E-01  8.74747E-01  8.96030E-01  9.17831E-01  9.40163E-01
#           9.63038E-01  9.86469E-01  1.01047E+00  1.03506E+00  1.06024E+00
#           1.08604E+00  1.11246E+00  1.13953E+00  1.16725E+00  1.19565E+00
#           1.22474E+00  1.25454E+00  1.28507E+00  1.31633E+00  1.34836E+00
#           1.38117E+00  1.41477E+00  1.44920E+00  1.48446E+00  1.52057E+00
#           1.55757E+00  1.59547E+00  1.63429E+00  1.67405E+00  1.71478E+00
#           1.75650E+00  1.79924E+00  1.84302E+00  1.88786E+00  1.93379E+00
#           1.98084E+00  2.02904E+00  2.07841E+00  2.12898E+00  2.18078E+00
#           2.23384E+00  2.28819E+00  2.34386E+00  2.40089E+00  2.45930E+00
#           2.51914E+00  2.58043E+00  2.64322E+00  2.70753E+00  2.77341E+00
#           2.84088E+00  2.91001E+00  2.98081E+00  3.05333E+00  3.12762E+00
#           3.20372E+00  3.28167E+00  3.36152E+00  3.44330E+00  3.52708E+00
#           3.61290E+00  3.70080E+00  3.79085E+00  3.88308E+00  3.97756E+00
#           4.07434E+00  4.17347E+00  4.27501E+00  4.37903E+00  4.48557E+00
#           4.59471E+00  4.70650E+00  4.82102E+00  4.93832E+00  5.05847E+00
#           5.18155E+00  5.30762E+00  5.43676E+00  5.56904E+00  5.70453E+00
#           5.84333E+00  5.98550E+00  6.13114E+00  6.28031E+00  6.43312E+00
#           6.58964E+00  6.74997E+00  6.91420E+00  7.08243E+00  7.25475E+00
#           7.43126E+00  7.61207E+00  7.79728E+00  7.98700E+00  8.18133E+00
#           8.38038E+00  8.58428E+00  8.79315E+00  9.00709E+00  9.22624E+00
#           9.45072E+00  9.68067E+00  9.91620E+00  1.01575E+01  1.04046E+01
#           1.06578E+01  1.09171E+01  1.11827E+01  1.14548E+01  1.17335E+01
#           1.20190E+01  1.23114E+01  1.26109E+01  1.29178E+01  1.32321E+01
#           1.35540E+01  1.38838E+01  1.42216E+01  1.45676E+01  1.49221E+01
#           1.52851E+01  1.56570E+01  1.60380E+01  1.64282E+01  1.68279E+01
#           1.72374E+01  1.76568E+01  1.80864E+01  1.85264E+01  1.89772E+01
#           1.94389E+01  1.99119E+01  2.03963E+01  2.08926E+01  2.14009E+01
#           2.19216E+01  2.24550E+01  2.30014E+01  2.35610E+01  2.41343E+01
#           2.47215E+01  2.53230E+01  2.59391E+01  2.65702E+01  2.72167E+01
#           2.78789E+01  2.85572E+01  2.92520E+01  2.99637E+01  3.06928E+01
#           3.14396E+01  3.22045E+01  3.29881E+01  3.37907E+01  3.46128E+01
#           3.54550E+01  3.63177E+01  3.72013E+01  3.81064E+01  3.90336E+01
#           3.99833E+01  4.09561E+01  4.19526E+01  4.29734E+01  4.40189E+01
#           4.50900E+01  4.61870E+01  4.73108E+01  4.84619E+01  4.96410E+01
#           5.08488E+01  5.20860E+01  5.33533E+01  5.46514E+01  5.59812E+01
#           5.73432E+01  5.87384E+01  6.01676E+01  6.16315E+01  6.31311E+01
#           6.46671E+01  6.62405E+01  6.78522E+01  6.95031E+01  7.11941E+01
#           7.29263E+01  7.47007E+01  7.65182E+01  7.83800E+01  8.02870E+01
#           8.22405E+01  8.42414E+01  8.62911E+01  8.83906E+01  9.05412E+01
#           9.27442E+01  9.50007E+01  9.73122E+01  9.96799E+01  1.02105E+02
#           1.04589E+02  1.07134E+02  1.09741E+02  1.12411E+02  1.15146E+02
#           1.17948E+02  1.20817E+02  1.23757E+02  1.26768E+02  1.29852E+02
#           1.33012E+02  1.36248E+02  1.39563E+02  1.42959E+02  1.46437E+02
#           1.50000E+02
     unit =    2            # unit is [1/cm^2/(MeV/n)/source]
     axis =  eng            # axis of output
     file = detector-08.out  # file name of output for the above axis
   output = f-curr          # surface crossing forward current spectrum
     part =  neutron  
# kf/name :  2112     
#    used :        main (  %)        temp (  %)       total (  %)
#  memory :         414 (  0)           0 (  0)         414 (  0)

#------------------------------------------------------------------------------
#newpage:
#   no. =    1   reg = 107 - 207

x: Energy [MeV/n]
y:  F-Curr [1/cm^2/(MeV/n)/source]         
p: xlog ylog afac(0.8) form(0.9)
h: n            x            y(neutron ),hh0l   n 
#  e-lower      e-upper      neutron     r.err 
   1.0000E-02   1.0243E-02   1.7262E-03  0.0345
   1.0243E-02   1.0493E-02   1.5729E-03  0.0357
   1.0493E-02   1.0748E-02   1.6961E-03  0.0340
   1.0748E-02   1.1009E-02   1.7017E-03  0.0335
   1.1009E-02   1.1277E-02   1.6445E-03  0.0337
   1.1277E-02   1.1552E-02   1.5708E-03  0.0341
   1.1552E-02   1.1833E-02   1.6687E-03  0.0327
   1.1833E-02   1.2121E-02   1.6464E-03  0.0325
   1.2121E-02   1.2415E-02   1.6802E-03  0.0318
   1.2415E-02   1.2718E-02   1.7148E-03  0.0311
   1.2718E-02   1.3027E-02   1.6046E-03  0.0317
   1.3027E-02   1.3344E-02   1.6990E-03  0.0305
   1.3344E-02   1.3669E-02   1.6833E-03  0.0302
   1.3669E-02   1.4001E-02   1.5846E-03  0.0308
   1.4001E-02   1.4342E-02   1.6160E-03  0.0301
   1.4342E-02   1.4691E-02   1.6779E-03  0.0292
   1.4691E-02   1.5048E-02   1.5793E-03  0.0298
   1.5048E-02   1.5414E-02   1.6224E-03  0.0290
   1.5414E-02   1.5789E-02   1.5638E-03  0.0292
   1.5789E-02   1.6174E-02   1.6803E-03  0.0278
   1.6174E-02   1.6567E-02   1.5870E-03  0.0283
   1.6567E-02   1.6970E-02   1.6746E-03  0.0272
   1.6970E-02   1.7383E-02   1.5918E-03  0.0276
   1.7383E-02   1.7806E-02   1.6279E-03  0.0269
   1.7806E-02   1.8239E-02   1.6325E-03  0.0266
   1.8239E-02   1.8683E-02   1.6157E-03  0.0264
   1.8683E-02   1.9138E-02   1.6323E-03  0.0260
   1.9138E-02   1.9603E-02   1.6204E-03  0.0257
   1.9603E-02   2.0080E-02   1.6008E-03  0.0256
   2.0080E-02   2.0569E-02   1.5899E-03  0.0254
   2.0569E-02   2.1069E-02   1.5806E-03  0.0251
   2.1069E-02   2.1582E-02   1.5820E-03  0.0248
   2.1582E-02   2.2107E-02   1.5892E-03  0.0245
   2.2107E-02   2.2645E-02   1.5938E-03  0.0241
   2.2645E-02   2.3196E-02   1.6226E-03  0.0236
   2.3196E-02   2.3760E-02   1.5770E-03  0.0237
   2.3760E-02   2.4338E-02   1.6386E-03  0.0230
   2.4338E-02   2.4930E-02   1.5283E-03  0.0235
   2.4930E-02   2.5537E-02   1.5835E-03  0.0228
   2.5537E-02   2.6158E-02   1.5724E-03  0.0226
   2.6158E-02   2.6795E-02   1.5751E-03  0.0223
   2.6795E-02   2.7447E-02   1.6114E-03  0.0218
   2.7447E-02   2.8114E-02   1.6030E-03  0.0216
   2.8114E-02   2.8799E-02   1.5737E-03  0.0216
   2.8799E-02   2.9499E-02   1.5538E-03  0.0214
   2.9499E-02   3.0217E-02   1.5591E-03  0.0211
   3.0217E-02   3.0952E-02   1.5611E-03  0.0209
   3.0952E-02   3.1705E-02   1.6326E-03  0.0202
   3.1705E-02   3.2477E-02   1.5621E-03  0.0204
   3.2477E-02   3.3267E-02   1.5832E-03  0.0200
   3.3267E-02   3.4076E-02   1.5264E-03  0.0201
   3.4076E-02   3.4905E-02   1.5797E-03  0.0195
   3.4905E-02   3.5755E-02   1.6058E-03  0.0191
   3.5755E-02   3.6625E-02   1.5274E-03  0.0194
   3.6625E-02   3.7516E-02   1.5402E-03  0.0191
   3.7516E-02   3.8428E-02   1.5420E-03  0.0188
   3.8428E-02   3.9363E-02   1.5415E-03  0.0186
   3.9363E-02   4.0321E-02   1.5294E-03  0.0185
   4.0321E-02   4.1302E-02   1.5410E-03  0.0182
   4.1302E-02   4.2307E-02   1.5758E-03  0.0178
   4.2307E-02   4.3337E-02   1.5578E-03  0.0177
   4.3337E-02   4.4391E-02   1.5146E-03  0.0177
   4.4391E-02   4.5471E-02   1.5487E-03  0.0173
   4.5471E-02   4.6577E-02   1.5486E-03  0.0171
   4.6577E-02   4.7711E-02   1.5138E-03  0.0171
   4.7711E-02   4.8871E-02   1.5584E-03  0.0166
   4.8871E-02   5.0061E-02   1.5361E-03  0.0165
   5.0061E-02   5.1279E-02   1.5070E-03  0.0165
   5.1279E-02   5.2526E-02   1.4844E-03  0.0164
   5.2526E-02   5.3804E-02   1.5123E-03  0.0161
   5.3804E-02   5.5113E-02   1.4777E-03  0.0161
   5.5113E-02   5.6454E-02   1.4680E-03  0.0159
   5.6454E-02   5.7828E-02   1.4948E-03  0.0156
   5.7828E-02   5.9235E-02   1.5203E-03  0.0153
   5.9235E-02   6.0676E-02   1.4970E-03  0.0152
   6.0676E-02   6.2152E-02   1.5017E-03  0.0150
   6.2152E-02   6.3665E-02   1.4308E-03  0.0152
   6.3665E-02   6.5214E-02   1.4753E-03  0.0148
   6.5214E-02   6.6800E-02   1.5099E-03  0.0144
   6.6800E-02   6.8426E-02   1.4583E-03  0.0145
   6.8426E-02   7.0090E-02   1.4632E-03  0.0143
   7.0090E-02   7.1796E-02   1.4516E-03  0.0142
   7.1796E-02   7.3543E-02   1.4572E-03  0.0140
   7.3543E-02   7.5332E-02   1.4380E-03  0.0139
   7.5332E-02   7.7165E-02   1.4210E-03  0.0139
   7.7165E-02   7.9042E-02   1.4344E-03  0.0136
   7.9042E-02   8.0965E-02   1.4600E-03  0.0133
   8.0965E-02   8.2935E-02   1.4252E-03  0.0133
   8.2935E-02   8.4953E-02   1.4028E-03  0.0133
   8.4953E-02   8.7020E-02   1.4146E-03  0.0131
   8.7020E-02   8.9138E-02   1.4177E-03  0.0129
   8.9138E-02   9.1306E-02   1.3830E-03  0.0129
   9.1306E-02   9.3528E-02   1.4005E-03  0.0127
   9.3528E-02   9.5804E-02   1.4067E-03  0.0125
   9.5804E-02   9.8134E-02   1.3583E-03  0.0126
   9.8134E-02   1.0052E-01   1.3737E-03  0.0123
   1.0052E-01   1.0297E-01   1.3665E-03  0.0122
   1.0297E-01   1.0547E-01   1.3509E-03  0.0122
   1.0547E-01   1.0804E-01   1.3509E-03  0.0120
   1.0804E-01   1.1067E-01   1.3776E-03  0.0118
   1.1067E-01   1.1336E-01   1.3420E-03  0.0118
   1.1336E-01   1.1612E-01   1.3782E-03  0.0115
   1.1612E-01   1.1894E-01   1.3362E-03  0.0115
   1.1894E-01   1.2184E-01   1.3161E-03  0.0115
   1.2184E-01   1.2480E-01   1.3242E-03  0.0113
   1.2480E-01   1.2784E-01   1.3288E-03  0.0111
   1.2784E-01   1.3095E-01   1.3279E-03  0.0110
   1.3095E-01   1.3414E-01   1.2580E-03  0.0112
   1.3414E-01   1.3740E-01   1.3094E-03  0.0108
   1.3740E-01   1.4074E-01   1.2699E-03  0.0109
   1.4074E-01   1.4417E-01   1.2619E-03  0.0108
   1.4417E-01   1.4767E-01   1.2458E-03  0.0107
   1.4767E-01   1.5127E-01   1.2738E-03  0.0105
   1.5127E-01   1.5495E-01   1.2369E-03  0.0105
   1.5495E-01   1.5872E-01   1.2406E-03  0.0103
   1.5872E-01   1.6258E-01   1.2219E-03  0.0103
   1.6258E-01   1.6654E-01   1.1927E-03  0.0103
   1.6654E-01   1.7059E-01   1.1975E-03  0.0102
   1.7059E-01   1.7474E-01   1.1957E-03  0.0100
   1.7474E-01   1.7899E-01   1.1849E-03  0.0100
   1.7899E-01   1.8334E-01   1.1743E-03  0.0099
   1.8334E-01   1.8781E-01   1.1578E-03  0.0098
   1.8781E-01   1.9237E-01   1.1652E-03  0.0097
   1.9237E-01   1.9706E-01   1.1324E-03  0.0097
   1.9706E-01   2.0185E-01   1.1298E-03  0.0096
   2.0185E-01   2.0676E-01   1.1047E-03  0.0096
   2.0676E-01   2.1179E-01   1.1173E-03  0.0094
   2.1179E-01   2.1694E-01   1.0983E-03  0.0094
   2.1694E-01   2.2222E-01   1.0750E-03  0.0094
   2.2222E-01   2.2763E-01   1.0619E-03  0.0093
   2.2763E-01   2.3317E-01   1.0544E-03  0.0093
   2.3317E-01   2.3884E-01   1.0469E-03  0.0092
   2.3884E-01   2.4465E-01   1.0340E-03  0.0091
   2.4465E-01   2.5061E-01   1.0100E-03  0.0091
   2.5061E-01   2.5670E-01   1.0199E-03  0.0090
   2.5670E-01   2.6295E-01   1.0045E-03  0.0089
   2.6295E-01   2.6935E-01   9.8406E-04  0.0089
   2.6935E-01   2.7590E-01   9.8056E-04  0.0088
   2.7590E-01   2.8261E-01   9.7164E-04  0.0088
   2.8261E-01   2.8949E-01   9.5587E-04  0.0087
   2.8949E-01   2.9653E-01   9.3955E-04  0.0087
   2.9653E-01   3.0375E-01   9.2604E-04  0.0087
   3.0375E-01   3.1114E-01   9.0800E-04  0.0086
   3.1114E-01   3.1871E-01   8.9535E-04  0.0086
   3.1871E-01   3.2646E-01   8.7144E-04  0.0086
   3.2646E-01   3.3441E-01   8.5952E-04  0.0086
   3.3441E-01   3.4254E-01   8.5674E-04  0.0085
   3.4254E-01   3.5088E-01   8.4275E-04  0.0084
   3.5088E-01   3.5941E-01   8.1860E-04  0.0085
   3.5941E-01   3.6816E-01   8.1611E-04  0.0084
   3.6816E-01   3.7712E-01   8.0669E-04  0.0083
   3.7712E-01   3.8629E-01   7.8056E-04  0.0084
   3.8629E-01   3.9569E-01   7.5869E-04  0.0084
   3.9569E-01   4.0532E-01   7.4768E-04  0.0083
   4.0532E-01   4.1518E-01   7.3443E-04  0.0083
   4.1518E-01   4.2528E-01   7.1117E-04  0.0083
   4.2528E-01   4.3563E-01   7.0008E-04  0.0083
   4.3563E-01   4.4623E-01   6.9451E-04  0.0082
   4.4623E-01   4.5708E-01   6.6542E-04  0.0083
   4.5708E-01   4.6821E-01   6.5674E-04  0.0083
   4.6821E-01   4.7960E-01   6.3467E-04  0.0083
   4.7960E-01   4.9127E-01   6.3352E-04  0.0082
   4.9127E-01   5.0322E-01   5.9912E-04  0.0084
   5.0322E-01   5.1546E-01   5.8775E-04  0.0083
   5.1546E-01   5.2800E-01   5.7435E-04  0.0083
   5.2800E-01   5.4085E-01   5.6717E-04  0.0083
   5.4085E-01   5.5401E-01   5.5121E-04  0.0083
   5.5401E-01   5.6749E-01   5.2932E-04  0.0084
   5.6749E-01   5.8130E-01   5.2200E-04  0.0083
   5.8130E-01   5.9544E-01   4.9401E-04  0.0085
   5.9544E-01   6.0993E-01   4.7832E-04  0.0085
   6.0993E-01   6.2477E-01   4.6592E-04  0.0085
   6.2477E-01   6.3997E-01   4.4952E-04  0.0086
   6.3997E-01   6.5554E-01   4.2945E-04  0.0086
   6.5554E-01   6.7149E-01   4.1651E-04  0.0087
   6.7149E-01   6.8783E-01   4.0346E-04  0.0087
   6.8783E-01   7.0456E-01   3.8677E-04  0.0088
   7.0456E-01   7.2171E-01   3.6457E-04  0.0089
   7.2171E-01   7.3927E-01   3.5372E-04  0.0090
   7.3927E-01   7.5725E-01   3.4325E-04  0.0090
   7.5725E-01   7.7568E-01   3.2974E-04  0.0091
   7.7568E-01   7.9455E-01   3.1557E-04  0.0092
   7.9455E-01   8.1388E-01   3.0307E-04  0.0092
   8.1388E-01   8.3368E-01   2.8658E-04  0.0094
   8.3368E-01   8.5397E-01   2.8686E-04  0.0093
   8.5397E-01   8.7475E-01   2.6954E-04  0.0094
   8.7475E-01   8.9603E-01   2.6067E-04  0.0095
   8.9603E-01   9.1783E-01   2.5137E-04  0.0096
   9.1783E-01   9.4016E-01   2.4041E-04  0.0096
   9.4016E-01   9.6304E-01   2.3368E-04  0.0097
   9.6304E-01   9.8647E-01   2.3031E-04  0.0096
   9.8647E-01   1.0105E+00   2.2338E-04  0.0097
   1.0105E+00   1.0351E+00   2.2941E-04  0.0094
   1.0351E+00   1.0602E+00   2.3878E-04  0.0091
   1.0602E+00   1.0860E+00   2.4180E-04  0.0090
   1.0860E+00   1.1125E+00   2.5300E-04  0.0086
   1.1125E+00   1.1395E+00   2.5945E-04  0.0084
   1.1395E+00   1.1673E+00   2.6859E-04  0.0082
   1.1673E+00   1.1957E+00   2.8344E-04  0.0079
   1.1957E+00   1.2247E+00   2.9102E-04  0.0077
   1.2247E+00   1.2545E+00   2.9829E-04  0.0075
   1.2545E+00   1.2851E+00   3.0523E-04  0.0073
   1.2851E+00   1.3163E+00   3.1221E-04  0.0072
   1.3163E+00   1.3484E+00   3.2477E-04  0.0069
   1.3484E+00   1.3812E+00   3.3121E-04  0.0068
   1.3812E+00   1.4148E+00   3.4301E-04  0.0066
   1.4148E+00   1.4492E+00   3.4351E-04  0.0065
   1.4492E+00   1.4845E+00   3.5200E-04  0.0063
   1.4845E+00   1.5206E+00   3.5424E-04  0.0063
   1.5206E+00   1.5576E+00   3.5777E-04  0.0061
   1.5576E+00   1.5955E+00   3.6012E-04  0.0061
   1.5955E+00   1.6343E+00   3.7846E-04  0.0058
   1.6343E+00   1.6741E+00   3.8273E-04  0.0057
   1.6741E+00   1.7148E+00   3.9363E-04  0.0056
   1.7148E+00   1.7565E+00   3.9235E-04  0.0055
   1.7565E+00   1.7992E+00   3.9568E-04  0.0054
   1.7992E+00   1.8430E+00   3.9546E-04  0.0054
   1.8430E+00   1.8879E+00   3.9907E-04  0.0053
   1.8879E+00   1.9338E+00   4.0284E-04  0.0052
   1.9338E+00   1.9808E+00   4.1423E-04  0.0051
   1.9808E+00   2.0290E+00   4.2168E-04  0.0050
   2.0290E+00   2.0784E+00   4.1531E-04  0.0049
   2.0784E+00   2.1290E+00   4.1396E-04  0.0049
   2.1290E+00   2.1808E+00   4.1056E-04  0.0049
   2.1808E+00   2.2338E+00   4.0595E-04  0.0048
   2.2338E+00   2.2882E+00   4.0509E-04  0.0048
   2.2882E+00   2.3439E+00   4.0879E-04  0.0047
   2.3439E+00   2.4009E+00   4.1610E-04  0.0046
   2.4009E+00   2.4593E+00   4.1545E-04  0.0045
   2.4593E+00   2.5191E+00   4.0732E-04  0.0045
   2.5191E+00   2.5804E+00   3.9807E-04  0.0045
   2.5804E+00   2.6432E+00   3.9393E-04  0.0045
   2.6432E+00   2.7075E+00   3.9074E-04  0.0045
   2.7075E+00   2.7734E+00   3.8618E-04  0.0044
   2.7734E+00   2.8409E+00   3.8013E-04  0.0044
   2.8409E+00   2.9100E+00   3.8289E-04  0.0043
   2.9100E+00   2.9808E+00   3.8316E-04  0.0043
   2.9808E+00   3.0533E+00   3.7399E-04  0.0043
   3.0533E+00   3.1276E+00   3.6371E-04  0.0043
   3.1276E+00   3.2037E+00   3.5795E-04  0.0043
   3.2037E+00   3.2817E+00   3.5329E-04  0.0043
   3.2817E+00   3.3615E+00   3.4471E-04  0.0043
   3.3615E+00   3.4433E+00   3.3792E-04  0.0043
   3.4433E+00   3.5271E+00   3.3291E-04  0.0042
   3.5271E+00   3.6129E+00   3.2746E-04  0.0042
   3.6129E+00   3.7008E+00   3.2474E-04  0.0042
   3.7008E+00   3.7908E+00   3.1639E-04  0.0042
   3.7908E+00   3.8831E+00   3.0956E-04  0.0042
   3.8831E+00   3.9776E+00   3.0127E-04  0.0042
   3.9776E+00   4.0743E+00   2.9580E-04  0.0042
   4.0743E+00   4.1735E+00   2.9094E-04  0.0042
   4.1735E+00   4.2750E+00   2.8493E-04  0.0042
   4.2750E+00   4.3790E+00   2.7728E-04  0.0042
   4.3790E+00   4.4856E+00   2.7009E-04  0.0042
   4.4856E+00   4.5947E+00   2.6375E-04  0.0042
   4.5947E+00   4.7065E+00   2.5814E-04  0.0042
   4.7065E+00   4.8210E+00   2.5276E-04  0.0042
   4.8210E+00   4.9383E+00   2.5024E-04  0.0041
   4.9383E+00   5.0585E+00   2.4304E-04  0.0041
   5.0585E+00   5.1815E+00   2.3920E-04  0.0041
   5.1815E+00   5.3076E+00   2.3417E-04  0.0041
   5.3076E+00   5.4368E+00   2.3055E-04  0.0041
   5.4368E+00   5.5690E+00   2.2494E-04  0.0041
   5.5690E+00   5.7045E+00   2.2147E-04  0.0041
   5.7045E+00   5.8433E+00   2.1740E-04  0.0041
   5.8433E+00   5.9855E+00   2.1376E-04  0.0041
   5.9855E+00   6.1311E+00   2.1109E-04  0.0040
   6.1311E+00   6.2803E+00   2.0768E-04  0.0040
   6.2803E+00   6.4331E+00   2.0394E-04  0.0040
   6.4331E+00   6.5896E+00   2.0051E-04  0.0040
   6.5896E+00   6.7500E+00   1.9815E-04  0.0040
   6.7500E+00   6.9142E+00   1.9491E-04  0.0040
   6.9142E+00   7.0824E+00   1.9101E-04  0.0039
   7.0824E+00   7.2548E+00   1.8943E-04  0.0039
   7.2548E+00   7.4313E+00   1.8748E-04  0.0039
   7.4313E+00   7.6121E+00   1.8428E-04  0.0039
   7.6121E+00   7.7973E+00   1.8103E-04  0.0039
   7.7973E+00   7.9870E+00   1.7804E-04  0.0038
   7.9870E+00   8.1813E+00   1.7769E-04  0.0038
   8.1813E+00   8.3804E+00   1.7484E-04  0.0038
   8.3804E+00   8.5843E+00   1.7195E-04  0.0038
   8.5843E+00   8.7931E+00   1.6865E-04  0.0038
   8.7931E+00   9.0071E+00   1.6746E-04  0.0037
   9.0071E+00   9.2262E+00   1.6453E-04  0.0037
   9.2262E+00   9.4507E+00   1.6276E-04  0.0037
   9.4507E+00   9.6807E+00   1.5950E-04  0.0037
   9.6807E+00   9.9162E+00   1.5702E-04  0.0037
   9.9162E+00   1.0157E+01   1.5458E-04  0.0037
   1.0157E+01   1.0405E+01   1.5114E-04  0.0037
   1.0405E+01   1.0658E+01   1.4900E-04  0.0036
   1.0658E+01   1.0917E+01   1.4664E-04  0.0036
   1.0917E+01   1.1183E+01   1.4338E-04  0.0036
   1.1183E+01   1.1455E+01   1.4109E-04  0.0036
   1.1455E+01   1.1733E+01   1.3746E-04  0.0036
   1.1733E+01   1.2019E+01   1.3467E-04  0.0036
   1.2019E+01   1.2311E+01   1.3215E-04  0.0036
   1.2311E+01   1.2611E+01   1.2916E-04  0.0036
   1.2611E+01   1.2918E+01   1.2522E-04  0.0036
   1.2918E+01   1.3232E+01   1.2100E-04  0.0036
   1.3232E+01   1.3554E+01   1.1891E-04  0.0036
   1.3554E+01   1.3884E+01   1.1572E-04  0.0036
   1.3884E+01   1.4222E+01   1.1197E-04  0.0036
   1.4222E+01   1.4568E+01   1.0855E-04  0.0036
   1.4568E+01   1.4922E+01   1.0529E-04  0.0037
   1.4922E+01   1.5285E+01   1.0260E-04  0.0037
   1.5285E+01   1.5657E+01   9.8623E-05  0.0037
   1.5657E+01   1.6038E+01   9.5360E-05  0.0037
   1.6038E+01   1.6428E+01   9.1596E-05  0.0037
   1.6428E+01   1.6828E+01   8.8384E-05  0.0038
   1.6828E+01   1.7237E+01   8.5030E-05  0.0038
   1.7237E+01   1.7657E+01   8.1846E-05  0.0038
   1.7657E+01   1.8086E+01   7.7700E-05  0.0039
   1.8086E+01   1.8526E+01   7.4306E-05  0.0039
   1.8526E+01   1.8977E+01   7.1617E-05  0.0039
   1.8977E+01   1.9439E+01   6.7766E-05  0.0040
   1.9439E+01   1.9912E+01   6.4768E-05  0.0040
   1.9912E+01   2.0396E+01   5.9687E-05  0.0042
   2.0396E+01   2.0893E+01   5.7203E-05  0.0042
   2.0893E+01   2.1401E+01   5.4154E-05  0.0043
   2.1401E+01   2.1922E+01   5.1529E-05  0.0043
   2.1922E+01   2.2455E+01   4.8805E-05  0.0044
   2.2455E+01   2.3001E+01   4.6342E-05  0.0044
   2.3001E+01   2.3561E+01   4.3455E-05  0.0045
   2.3561E+01   2.4134E+01   4.1496E-05  0.0046
   2.4134E+01   2.4721E+01   3.8865E-05  0.0047
   2.4721E+01   2.5323E+01   3.6670E-05  0.0048
   2.5323E+01   2.5939E+01   3.4335E-05  0.0049
   2.5939E+01   2.6570E+01   3.2287E-05  0.0050
   2.6570E+01   2.7217E+01   3.0285E-05  0.0051
   2.7217E+01   2.7879E+01   2.8395E-05  0.0052
   2.7879E+01   2.8557E+01   2.6370E-05  0.0053
   2.8557E+01   2.9252E+01   2.4847E-05  0.0054
   2.9252E+01   2.9964E+01   2.3129E-05  0.0055
   2.9964E+01   3.0693E+01   2.1508E-05  0.0056
   3.0693E+01   3.1440E+01   1.9943E-05  0.0058
   3.1440E+01   3.2205E+01   1.8399E-05  0.0060
   3.2205E+01   3.2988E+01   1.7076E-05  0.0061
   3.2988E+01   3.3791E+01   1.5654E-05  0.0063
   3.3791E+01   3.4613E+01   1.4706E-05  0.0064
   3.4613E+01   3.5455E+01   1.3455E-05  0.0066
   3.5455E+01   3.6318E+01   1.2185E-05  0.0069
   3.6318E+01   3.7201E+01   1.1293E-05  0.0071
   3.7201E+01   3.8106E+01   1.0328E-05  0.0073
   3.8106E+01   3.9034E+01   9.3425E-06  0.0076
   3.9034E+01   3.9983E+01   8.3441E-06  0.0079
   3.9983E+01   4.0956E+01   7.5759E-06  0.0082
   4.0956E+01   4.1953E+01   6.5996E-06  0.0087
   4.1953E+01   4.2973E+01   5.7414E-06  0.0092
   4.2973E+01   4.4019E+01   4.9437E-06  0.0098
   4.4019E+01   4.5090E+01   4.2758E-06  0.0104
   4.5090E+01   4.6187E+01   3.6196E-06  0.0112
   4.6187E+01   4.7311E+01   3.0985E-06  0.0120
   4.7311E+01   4.8462E+01   2.4294E-06  0.0134
   4.8462E+01   4.9641E+01   1.8387E-06  0.0152
   4.9641E+01   5.0849E+01   1.3156E-06  0.0177
   5.0849E+01   5.2086E+01   7.6302E-07  0.0230
   5.2086E+01   5.3353E+01   2.9117E-07  0.0368
   5.3353E+01   5.4651E+01   1.5407E-08  0.1581
   5.4651E+01   5.5981E+01   0.0000E+00  0.0000
   5.5981E+01   5.7343E+01   0.0000E+00  0.0000
   5.7343E+01   5.8738E+01   0.0000E+00  0.0000
   5.8738E+01   6.0168E+01   0.0000E+00  0.0000
   6.0168E+01   6.1632E+01   0.0000E+00  0.0000
   6.1632E+01   6.3131E+01   0.0000E+00  0.0000
   6.3131E+01   6.4667E+01   0.0000E+00  0.0000
   6.4667E+01   6.6240E+01   0.0000E+00  0.0000
   6.6240E+01   6.7852E+01   0.0000E+00  0.0000
   6.7852E+01   6.9503E+01   0.0000E+00  0.0000
   6.9503E+01   7.1194E+01   0.0000E+00  0.0000
   7.1194E+01   7.2926E+01   0.0000E+00  0.0000
   7.2926E+01   7.4701E+01   0.0000E+00  0.0000
   7.4701E+01   7.6518E+01   0.0000E+00  0.0000
   7.6518E+01   7.8380E+01   0.0000E+00  0.0000
   7.8380E+01   8.0287E+01   0.0000E+00  0.0000
   8.0287E+01   8.2240E+01   0.0000E+00  0.0000
   8.2240E+01   8.4241E+01   0.0000E+00  0.0000
   8.4241E+01   8.6291E+01   0.0000E+00  0.0000
   8.6291E+01   8.8391E+01   0.0000E+00  0.0000
   8.8391E+01   9.0541E+01   0.0000E+00  0.0000
   9.0541E+01   9.2744E+01   0.0000E+00  0.0000
   9.2744E+01   9.5001E+01   0.0000E+00  0.0000
   9.5001E+01   9.7312E+01   0.0000E+00  0.0000
   9.7312E+01   9.9680E+01   0.0000E+00  0.0000
   9.9680E+01   1.0211E+02   0.0000E+00  0.0000
   1.0211E+02   1.0459E+02   0.0000E+00  0.0000
   1.0459E+02   1.0713E+02   0.0000E+00  0.0000
   1.0713E+02   1.0974E+02   0.0000E+00  0.0000
   1.0974E+02   1.1241E+02   0.0000E+00  0.0000
   1.1241E+02   1.1515E+02   0.0000E+00  0.0000
   1.1515E+02   1.1795E+02   0.0000E+00  0.0000
   1.1795E+02   1.2082E+02   0.0000E+00  0.0000
   1.2082E+02   1.2376E+02   0.0000E+00  0.0000
   1.2376E+02   1.2677E+02   0.0000E+00  0.0000
   1.2677E+02   1.2985E+02   0.0000E+00  0.0000
   1.2985E+02   1.3301E+02   0.0000E+00  0.0000
   1.3301E+02   1.3625E+02   0.0000E+00  0.0000
   1.3625E+02   1.3956E+02   0.0000E+00  0.0000
   1.3956E+02   1.4296E+02   0.0000E+00  0.0000
   1.4296E+02   1.4644E+02   0.0000E+00  0.0000
   1.4644E+02   1.5000E+02   0.0000E+00  0.0000

#   sum over                 3.0688E-05
'no. =    1   reg = 107 - 207'
msuc: {\huge [t-cross] in region mesh}
msdr: {\it plotted by \ANGEL \version}
msdl: {\it calculated by \PHITS  3.26}
wt: s(0.7)
\vspace{-3}
  region surface crossing
  area  &=&   1.0000E+00 [cm^2]
e:
 
# Information for Restart Calculation
# This calculation was newly started
# istdev =  2 # 1:Batch variance, 2:History variance
# resc2  = 2.00000000000000000E+09 # Total source weight or Total source weight / maxcas
# resc3  = 2.00000000000000000E+09 # Total history number or Total batch number
# maxcas =   500000000 # History / Batch, only used for istdev=1
# bitrseed = 0011011010010000100111110110001101100001010011100000011100000110 # bit data of rseed
