[ T-Cross ]
    title = [t-cross] in region mesh
     mesh =  reg            # mesh type is region-wise
      reg =    1            # number of crossing regions
      non     r-from    r-to       area
      1       105       205        1.000000    
   e-type =    3            # e-mesh is log given by emin, emax and ne
     emin =  1.0000000E-02  # minimum value of e-mesh points
     emax =   150.0000      # maximum value of e-mesh points
#    edel =  2.4039514E-02  # mesh width of e-mesh points
       ne =    400          # number of e-mesh points
#    data = ( e(i), i = 1, ne + 1 )
#           1.00000E-02  1.02433E-02  1.04925E-02  1.07478E-02  1.10093E-02
#           1.12772E-02  1.15516E-02  1.18326E-02  1.21205E-02  1.24154E-02
#           1.27175E-02  1.30269E-02  1.33439E-02  1.36686E-02  1.40011E-02
#           1.43418E-02  1.46907E-02  1.50482E-02  1.54143E-02  1.57894E-02
#           1.61735E-02  1.65670E-02  1.69701E-02  1.73830E-02  1.78060E-02
#           1.82392E-02  1.86830E-02  1.91375E-02  1.96032E-02  2.00801E-02
#           2.05687E-02  2.10692E-02  2.15818E-02  2.21069E-02  2.26448E-02
#           2.31957E-02  2.37601E-02  2.43382E-02  2.49304E-02  2.55369E-02
#           2.61583E-02  2.67947E-02  2.74467E-02  2.81145E-02  2.87985E-02
#           2.94992E-02  3.02169E-02  3.09521E-02  3.17052E-02  3.24766E-02
#           3.32668E-02  3.40762E-02  3.49053E-02  3.57546E-02  3.66246E-02
#           3.75157E-02  3.84284E-02  3.93634E-02  4.03212E-02  4.13022E-02
#           4.23071E-02  4.33365E-02  4.43909E-02  4.54710E-02  4.65773E-02
#           4.77106E-02  4.88714E-02  5.00605E-02  5.12785E-02  5.25262E-02
#           5.38042E-02  5.51133E-02  5.64542E-02  5.78278E-02  5.92348E-02
#           6.06760E-02  6.21523E-02  6.36645E-02  6.52135E-02  6.68002E-02
#           6.84255E-02  7.00904E-02  7.17957E-02  7.35426E-02  7.53319E-02
#           7.71648E-02  7.90423E-02  8.09655E-02  8.29354E-02  8.49533E-02
#           8.70203E-02  8.91376E-02  9.13064E-02  9.35279E-02  9.58035E-02
#           9.81345E-02  1.00522E-01  1.02968E-01  1.05473E-01  1.08040E-01
#           1.10668E-01  1.13361E-01  1.16119E-01  1.18944E-01  1.21838E-01
#           1.24803E-01  1.27839E-01  1.30950E-01  1.34136E-01  1.37399E-01
#           1.40742E-01  1.44167E-01  1.47675E-01  1.51268E-01  1.54948E-01
#           1.58718E-01  1.62580E-01  1.66535E-01  1.70587E-01  1.74738E-01
#           1.78989E-01  1.83344E-01  1.87805E-01  1.92375E-01  1.97055E-01
#           2.01850E-01  2.06761E-01  2.11792E-01  2.16945E-01  2.22223E-01
#           2.27630E-01  2.33169E-01  2.38842E-01  2.44653E-01  2.50605E-01
#           2.56703E-01  2.62949E-01  2.69346E-01  2.75900E-01  2.82613E-01
#           2.89489E-01  2.96532E-01  3.03747E-01  3.11138E-01  3.18708E-01
#           3.26462E-01  3.34405E-01  3.42542E-01  3.50876E-01  3.59413E-01
#           3.68158E-01  3.77116E-01  3.86291E-01  3.95690E-01  4.05317E-01
#           4.15179E-01  4.25281E-01  4.35628E-01  4.46227E-01  4.57084E-01
#           4.68205E-01  4.79597E-01  4.91266E-01  5.03219E-01  5.15463E-01
#           5.28005E-01  5.40851E-01  5.54011E-01  5.67490E-01  5.81298E-01
#           5.95441E-01  6.09929E-01  6.24769E-01  6.39970E-01  6.55541E-01
#           6.71491E-01  6.87828E-01  7.04564E-01  7.21706E-01  7.39266E-01
#           7.57253E-01  7.75678E-01  7.94551E-01  8.13883E-01  8.33685E-01
#           8.53969E-01  8.74747E-01  8.96030E-01  9.17831E-01  9.40163E-01
#           9.63038E-01  9.86469E-01  1.01047E+00  1.03506E+00  1.06024E+00
#           1.08604E+00  1.11246E+00  1.13953E+00  1.16725E+00  1.19565E+00
#           1.22474E+00  1.25454E+00  1.28507E+00  1.31633E+00  1.34836E+00
#           1.38117E+00  1.41477E+00  1.44920E+00  1.48446E+00  1.52057E+00
#           1.55757E+00  1.59547E+00  1.63429E+00  1.67405E+00  1.71478E+00
#           1.75650E+00  1.79924E+00  1.84302E+00  1.88786E+00  1.93379E+00
#           1.98084E+00  2.02904E+00  2.07841E+00  2.12898E+00  2.18078E+00
#           2.23384E+00  2.28819E+00  2.34386E+00  2.40089E+00  2.45930E+00
#           2.51914E+00  2.58043E+00  2.64322E+00  2.70753E+00  2.77341E+00
#           2.84088E+00  2.91001E+00  2.98081E+00  3.05333E+00  3.12762E+00
#           3.20372E+00  3.28167E+00  3.36152E+00  3.44330E+00  3.52708E+00
#           3.61290E+00  3.70080E+00  3.79085E+00  3.88308E+00  3.97756E+00
#           4.07434E+00  4.17347E+00  4.27501E+00  4.37903E+00  4.48557E+00
#           4.59471E+00  4.70650E+00  4.82102E+00  4.93832E+00  5.05847E+00
#           5.18155E+00  5.30762E+00  5.43676E+00  5.56904E+00  5.70453E+00
#           5.84333E+00  5.98550E+00  6.13114E+00  6.28031E+00  6.43312E+00
#           6.58964E+00  6.74997E+00  6.91420E+00  7.08243E+00  7.25475E+00
#           7.43126E+00  7.61207E+00  7.79728E+00  7.98700E+00  8.18133E+00
#           8.38038E+00  8.58428E+00  8.79315E+00  9.00709E+00  9.22624E+00
#           9.45072E+00  9.68067E+00  9.91620E+00  1.01575E+01  1.04046E+01
#           1.06578E+01  1.09171E+01  1.11827E+01  1.14548E+01  1.17335E+01
#           1.20190E+01  1.23114E+01  1.26109E+01  1.29178E+01  1.32321E+01
#           1.35540E+01  1.38838E+01  1.42216E+01  1.45676E+01  1.49221E+01
#           1.52851E+01  1.56570E+01  1.60380E+01  1.64282E+01  1.68279E+01
#           1.72374E+01  1.76568E+01  1.80864E+01  1.85264E+01  1.89772E+01
#           1.94389E+01  1.99119E+01  2.03963E+01  2.08926E+01  2.14009E+01
#           2.19216E+01  2.24550E+01  2.30014E+01  2.35610E+01  2.41343E+01
#           2.47215E+01  2.53230E+01  2.59391E+01  2.65702E+01  2.72167E+01
#           2.78789E+01  2.85572E+01  2.92520E+01  2.99637E+01  3.06928E+01
#           3.14396E+01  3.22045E+01  3.29881E+01  3.37907E+01  3.46128E+01
#           3.54550E+01  3.63177E+01  3.72013E+01  3.81064E+01  3.90336E+01
#           3.99833E+01  4.09561E+01  4.19526E+01  4.29734E+01  4.40189E+01
#           4.50900E+01  4.61870E+01  4.73108E+01  4.84619E+01  4.96410E+01
#           5.08488E+01  5.20860E+01  5.33533E+01  5.46514E+01  5.59812E+01
#           5.73432E+01  5.87384E+01  6.01676E+01  6.16315E+01  6.31311E+01
#           6.46671E+01  6.62405E+01  6.78522E+01  6.95031E+01  7.11941E+01
#           7.29263E+01  7.47007E+01  7.65182E+01  7.83800E+01  8.02870E+01
#           8.22405E+01  8.42414E+01  8.62911E+01  8.83906E+01  9.05412E+01
#           9.27442E+01  9.50007E+01  9.73122E+01  9.96799E+01  1.02105E+02
#           1.04589E+02  1.07134E+02  1.09741E+02  1.12411E+02  1.15146E+02
#           1.17948E+02  1.20817E+02  1.23757E+02  1.26768E+02  1.29852E+02
#           1.33012E+02  1.36248E+02  1.39563E+02  1.42959E+02  1.46437E+02
#           1.50000E+02
     unit =    2            # unit is [1/cm^2/(MeV/n)/source]
     axis =  eng            # axis of output
     file = detector-06.out  # file name of output for the above axis
   output = f-curr          # surface crossing forward current spectrum
     part =  neutron  
# kf/name :  2112     
#    used :        main (  %)        temp (  %)       total (  %)
#  memory :         414 (  0)           0 (  0)         414 (  0)

#------------------------------------------------------------------------------
#newpage:
#   no. =    1   reg = 105 - 205

x: Energy [MeV/n]
y:  F-Curr [1/cm^2/(MeV/n)/source]         
p: xlog ylog afac(0.8) form(0.9)
h: n            x            y(neutron ),hh0l   n 
#  e-lower      e-upper      neutron     r.err 
   1.0000E-02   1.0243E-02   4.4388E-04  0.0680
   1.0243E-02   1.0493E-02   4.2331E-04  0.0688
   1.0493E-02   1.0748E-02   4.4459E-04  0.0664
   1.0748E-02   1.1009E-02   4.1300E-04  0.0680
   1.1009E-02   1.1277E-02   4.1252E-04  0.0673
   1.1277E-02   1.1552E-02   4.2641E-04  0.0654
   1.1552E-02   1.1833E-02   4.8033E-04  0.0609
   1.1833E-02   1.2121E-02   4.5155E-04  0.0620
   1.2121E-02   1.2415E-02   4.1031E-04  0.0643
   1.2415E-02   1.2718E-02   4.6180E-04  0.0599
   1.2718E-02   1.3027E-02   4.6699E-04  0.0588
   1.3027E-02   1.3344E-02   4.5590E-04  0.0588
   1.3344E-02   1.3669E-02   4.0811E-04  0.0614
   1.3669E-02   1.4001E-02   4.1195E-04  0.0604
   1.4001E-02   1.4342E-02   3.9482E-04  0.0610
   1.4342E-02   1.4691E-02   4.4419E-04  0.0568
   1.4691E-02   1.5048E-02   3.8888E-04  0.0600
   1.5048E-02   1.5414E-02   4.0559E-04  0.0580
   1.5414E-02   1.5789E-02   4.0662E-04  0.0573
   1.5789E-02   1.6174E-02   4.4902E-04  0.0538
   1.6174E-02   1.6567E-02   4.3455E-04  0.0541
   1.6567E-02   1.6970E-02   4.2422E-04  0.0541
   1.6970E-02   1.7383E-02   4.3352E-04  0.0529
   1.7383E-02   1.7806E-02   3.9603E-04  0.0546
   1.7806E-02   1.8239E-02   4.0740E-04  0.0532
   1.8239E-02   1.8683E-02   4.4167E-04  0.0505
   1.8683E-02   1.9138E-02   4.2458E-04  0.0509
   1.9138E-02   1.9603E-02   4.2416E-04  0.0503
   1.9603E-02   2.0080E-02   4.2351E-04  0.0498
   2.0080E-02   2.0569E-02   4.3136E-04  0.0487
   2.0569E-02   2.1069E-02   4.1662E-04  0.0490
   2.1069E-02   2.1582E-02   4.0770E-04  0.0489
   2.1582E-02   2.2107E-02   3.9516E-04  0.0491
   2.2107E-02   2.2645E-02   3.9414E-04  0.0486
   2.2645E-02   2.3196E-02   4.1926E-04  0.0465
   2.3196E-02   2.3760E-02   4.3013E-04  0.0454
   2.3760E-02   2.4338E-02   4.4629E-04  0.0440
   2.4338E-02   2.4930E-02   3.9431E-04  0.0463
   2.4930E-02   2.5537E-02   4.0968E-04  0.0449
   2.5537E-02   2.6158E-02   4.3053E-04  0.0432
   2.6158E-02   2.6795E-02   4.0302E-04  0.0442
   2.6795E-02   2.7447E-02   3.9958E-04  0.0438
   2.7447E-02   2.8114E-02   4.2004E-04  0.0422
   2.8114E-02   2.8799E-02   4.4588E-04  0.0405
   2.8799E-02   2.9499E-02   4.1316E-04  0.0416
   2.9499E-02   3.0217E-02   4.1310E-04  0.0411
   3.0217E-02   3.0952E-02   4.1757E-04  0.0404
   3.0952E-02   3.1705E-02   3.8774E-04  0.0414
   3.1705E-02   3.2477E-02   3.7723E-04  0.0415
   3.2477E-02   3.3267E-02   3.7460E-04  0.0411
   3.3267E-02   3.4076E-02   4.2006E-04  0.0383
   3.4076E-02   3.4905E-02   4.0164E-04  0.0387
   3.4905E-02   3.5755E-02   4.1977E-04  0.0375
   3.5755E-02   3.6625E-02   3.8738E-04  0.0385
   3.6625E-02   3.7516E-02   3.8884E-04  0.0380
   3.7516E-02   3.8428E-02   3.8728E-04  0.0376
   3.8428E-02   3.9363E-02   4.1925E-04  0.0357
   3.9363E-02   4.0321E-02   4.2600E-04  0.0350
   4.0321E-02   4.1302E-02   4.0059E-04  0.0357
   4.1302E-02   4.2307E-02   4.1944E-04  0.0344
   4.2307E-02   4.3337E-02   3.8252E-04  0.0356
   4.3337E-02   4.4391E-02   3.8932E-04  0.0349
   4.4391E-02   4.5471E-02   4.0044E-04  0.0340
   4.5471E-02   4.6577E-02   3.9499E-04  0.0338
   4.6577E-02   4.7711E-02   3.9797E-04  0.0333
   4.7711E-02   4.8871E-02   3.8744E-04  0.0333
   4.8871E-02   5.0061E-02   3.9253E-04  0.0327
   5.0061E-02   5.1279E-02   4.0517E-04  0.0318
   5.1279E-02   5.2526E-02   4.1398E-04  0.0311
   5.2526E-02   5.3804E-02   4.0610E-04  0.0310
   5.3804E-02   5.5113E-02   3.8500E-04  0.0315
   5.5113E-02   5.6454E-02   3.9039E-04  0.0309
   5.6454E-02   5.7828E-02   3.8804E-04  0.0306
   5.7828E-02   5.9235E-02   4.1187E-04  0.0294
   5.9235E-02   6.0676E-02   3.7433E-04  0.0304
   6.0676E-02   6.2152E-02   3.9118E-04  0.0294
   6.2152E-02   6.3665E-02   3.8520E-04  0.0293
   6.3665E-02   6.5214E-02   3.8283E-04  0.0290
   6.5214E-02   6.6800E-02   3.9721E-04  0.0282
   6.6800E-02   6.8426E-02   3.8377E-04  0.0283
   6.8426E-02   7.0090E-02   3.9793E-04  0.0275
   7.0090E-02   7.1796E-02   3.9288E-04  0.0273
   7.1796E-02   7.3543E-02   3.8999E-04  0.0271
   7.3543E-02   7.5332E-02   3.8492E-04  0.0269
   7.5332E-02   7.7165E-02   3.6964E-04  0.0272
   7.7165E-02   7.9042E-02   3.7044E-04  0.0268
   7.9042E-02   8.0965E-02   3.6203E-04  0.0268
   8.0965E-02   8.2935E-02   3.8630E-04  0.0256
   8.2935E-02   8.4953E-02   3.7762E-04  0.0256
   8.4953E-02   8.7020E-02   3.8317E-04  0.0251
   8.7020E-02   8.9138E-02   3.6297E-04  0.0255
   8.9138E-02   9.1306E-02   3.6772E-04  0.0250
   9.1306E-02   9.3528E-02   3.7282E-04  0.0246
   9.3528E-02   9.5804E-02   3.6803E-04  0.0244
   9.5804E-02   9.8134E-02   3.5994E-04  0.0244
   9.8134E-02   1.0052E-01   3.6353E-04  0.0240
   1.0052E-01   1.0297E-01   3.4304E-04  0.0244
   1.0297E-01   1.0547E-01   3.5734E-04  0.0236
   1.0547E-01   1.0804E-01   3.6454E-04  0.0231
   1.0804E-01   1.1067E-01   3.5189E-04  0.0232
   1.1067E-01   1.1336E-01   3.6089E-04  0.0227
   1.1336E-01   1.1612E-01   3.5585E-04  0.0226
   1.1612E-01   1.1894E-01   3.4050E-04  0.0228
   1.1894E-01   1.2184E-01   3.4589E-04  0.0223
   1.2184E-01   1.2480E-01   3.4113E-04  0.0222
   1.2480E-01   1.2784E-01   3.5032E-04  0.0217
   1.2784E-01   1.3095E-01   3.4272E-04  0.0217
   1.3095E-01   1.3414E-01   3.4399E-04  0.0214
   1.3414E-01   1.3740E-01   3.2678E-04  0.0217
   1.3740E-01   1.4074E-01   3.4385E-04  0.0209
   1.4074E-01   1.4417E-01   3.2984E-04  0.0210
   1.4417E-01   1.4767E-01   3.1894E-04  0.0211
   1.4767E-01   1.5127E-01   3.2653E-04  0.0206
   1.5127E-01   1.5495E-01   3.1436E-04  0.0208
   1.5495E-01   1.5872E-01   3.0292E-04  0.0209
   1.5872E-01   1.6258E-01   3.2531E-04  0.0199
   1.6258E-01   1.6654E-01   3.1038E-04  0.0202
   1.6654E-01   1.7059E-01   3.2608E-04  0.0195
   1.7059E-01   1.7474E-01   3.0478E-04  0.0199
   1.7474E-01   1.7899E-01   3.0266E-04  0.0197
   1.7899E-01   1.8334E-01   3.0402E-04  0.0194
   1.8334E-01   1.8781E-01   3.0319E-04  0.0192
   1.8781E-01   1.9237E-01   3.1530E-04  0.0186
   1.9237E-01   1.9706E-01   3.0407E-04  0.0187
   1.9706E-01   2.0185E-01   2.9841E-04  0.0187
   2.0185E-01   2.0676E-01   2.9204E-04  0.0187
   2.0676E-01   2.1179E-01   2.8913E-04  0.0185
   2.1179E-01   2.1694E-01   2.8473E-04  0.0185
   2.1694E-01   2.2222E-01   2.9156E-04  0.0180
   2.2222E-01   2.2763E-01   2.7946E-04  0.0182
   2.2763E-01   2.3317E-01   2.7955E-04  0.0180
   2.3317E-01   2.3884E-01   2.7687E-04  0.0178
   2.3884E-01   2.4465E-01   2.7206E-04  0.0178
   2.4465E-01   2.5061E-01   2.7874E-04  0.0174
   2.5061E-01   2.5670E-01   2.5740E-04  0.0178
   2.5670E-01   2.6295E-01   2.6938E-04  0.0172
   2.6295E-01   2.6935E-01   2.5724E-04  0.0174
   2.6935E-01   2.7590E-01   2.4846E-04  0.0175
   2.7590E-01   2.8261E-01   2.5205E-04  0.0172
   2.8261E-01   2.8949E-01   2.5007E-04  0.0171
   2.8949E-01   2.9653E-01   2.5325E-04  0.0167
   2.9653E-01   3.0375E-01   2.4983E-04  0.0167
   3.0375E-01   3.1114E-01   2.4251E-04  0.0167
   3.1114E-01   3.1871E-01   2.3332E-04  0.0168
   3.1871E-01   3.2646E-01   2.3445E-04  0.0166
   3.2646E-01   3.3441E-01   2.3454E-04  0.0164
   3.3441E-01   3.4254E-01   2.2793E-04  0.0164
   3.4254E-01   3.5088E-01   2.1393E-04  0.0167
   3.5088E-01   3.5941E-01   2.1562E-04  0.0165
   3.5941E-01   3.6816E-01   2.1035E-04  0.0165
   3.6816E-01   3.7712E-01   2.1161E-04  0.0162
   3.7712E-01   3.8629E-01   2.0876E-04  0.0162
   3.8629E-01   3.9569E-01   2.0199E-04  0.0162
   3.9569E-01   4.0532E-01   2.0091E-04  0.0161
   4.0532E-01   4.1518E-01   1.9185E-04  0.0163
   4.1518E-01   4.2528E-01   1.8819E-04  0.0162
   4.2528E-01   4.3563E-01   1.7802E-04  0.0165
   4.3563E-01   4.4623E-01   1.8671E-04  0.0159
   4.4623E-01   4.5708E-01   1.7834E-04  0.0161
   4.5708E-01   4.6821E-01   1.7233E-04  0.0162
   4.6821E-01   4.7960E-01   1.6758E-04  0.0162
   4.7960E-01   4.9127E-01   1.7118E-04  0.0158
   4.9127E-01   5.0322E-01   1.6444E-04  0.0159
   5.0322E-01   5.1546E-01   1.6137E-04  0.0159
   5.1546E-01   5.2800E-01   1.5375E-04  0.0161
   5.2800E-01   5.4085E-01   1.4434E-04  0.0164
   5.4085E-01   5.5401E-01   1.4138E-04  0.0164
   5.5401E-01   5.6749E-01   1.3806E-04  0.0164
   5.6749E-01   5.8130E-01   1.3498E-04  0.0164
   5.8130E-01   5.9544E-01   1.2988E-04  0.0165
   5.9544E-01   6.0993E-01   1.2847E-04  0.0164
   6.0993E-01   6.2477E-01   1.1990E-04  0.0168
   6.2477E-01   6.3997E-01   1.1910E-04  0.0166
   6.3997E-01   6.5554E-01   1.1257E-04  0.0169
   6.5554E-01   6.7149E-01   1.1063E-04  0.0168
   6.7149E-01   6.8783E-01   1.0737E-04  0.0169
   6.8783E-01   7.0456E-01   1.0207E-04  0.0171
   7.0456E-01   7.2171E-01   9.6295E-05  0.0174
   7.2171E-01   7.3927E-01   9.6442E-05  0.0172
   7.3927E-01   7.5725E-01   9.0760E-05  0.0175
   7.5725E-01   7.7568E-01   8.8998E-05  0.0175
   7.7568E-01   7.9455E-01   8.4049E-05  0.0178
   7.9455E-01   8.1388E-01   8.0423E-05  0.0179
   8.1388E-01   8.3368E-01   7.6986E-05  0.0181
   8.3368E-01   8.5397E-01   7.5034E-05  0.0181
   8.5397E-01   8.7475E-01   7.1531E-05  0.0183
   8.7475E-01   8.9603E-01   6.9244E-05  0.0184
   8.9603E-01   9.1783E-01   6.5020E-05  0.0188
   9.1783E-01   9.4016E-01   6.2871E-05  0.0189
   9.4016E-01   9.6304E-01   6.2678E-05  0.0187
   9.6304E-01   9.8647E-01   6.1157E-05  0.0187
   9.8647E-01   1.0105E+00   6.0611E-05  0.0185
   1.0105E+00   1.0351E+00   5.9944E-05  0.0184
   1.0351E+00   1.0602E+00   6.3563E-05  0.0177
   1.0602E+00   1.0860E+00   6.4040E-05  0.0174
   1.0860E+00   1.1125E+00   6.4732E-05  0.0171
   1.1125E+00   1.1395E+00   7.0085E-05  0.0162
   1.1395E+00   1.1673E+00   7.2613E-05  0.0158
   1.1673E+00   1.1957E+00   7.3838E-05  0.0154
   1.1957E+00   1.2247E+00   7.9543E-05  0.0147
   1.2247E+00   1.2545E+00   7.6966E-05  0.0148
   1.2545E+00   1.2851E+00   8.1903E-05  0.0141
   1.2851E+00   1.3163E+00   8.0685E-05  0.0141
   1.3163E+00   1.3484E+00   8.3795E-05  0.0136
   1.3484E+00   1.3812E+00   8.7292E-05  0.0132
   1.3812E+00   1.4148E+00   9.0954E-05  0.0128
   1.4148E+00   1.4492E+00   8.8866E-05  0.0128
   1.4492E+00   1.4845E+00   9.2364E-05  0.0124
   1.4845E+00   1.5206E+00   9.2641E-05  0.0122
   1.5206E+00   1.5576E+00   9.4799E-05  0.0119
   1.5576E+00   1.5955E+00   9.6076E-05  0.0117
   1.5955E+00   1.6343E+00   9.8830E-05  0.0114
   1.6343E+00   1.6741E+00   1.0055E-04  0.0112
   1.6741E+00   1.7148E+00   1.0386E-04  0.0109
   1.7148E+00   1.7565E+00   1.0325E-04  0.0108
   1.7565E+00   1.7992E+00   1.0310E-04  0.0107
   1.7992E+00   1.8430E+00   1.0433E-04  0.0105
   1.8430E+00   1.8879E+00   1.0524E-04  0.0103
   1.8879E+00   1.9338E+00   1.0671E-04  0.0101
   1.9338E+00   1.9808E+00   1.0720E-04  0.0100
   1.9808E+00   2.0290E+00   1.1072E-04  0.0097
   2.0290E+00   2.0784E+00   1.0940E-04  0.0096
   2.0784E+00   2.1290E+00   1.0889E-04  0.0095
   2.1290E+00   2.1808E+00   1.0755E-04  0.0095
   2.1808E+00   2.2338E+00   1.0702E-04  0.0094
   2.2338E+00   2.2882E+00   1.0651E-04  0.0093
   2.2882E+00   2.3439E+00   1.0614E-04  0.0092
   2.3439E+00   2.4009E+00   1.0674E-04  0.0091
   2.4009E+00   2.4593E+00   1.0881E-04  0.0089
   2.4593E+00   2.5191E+00   1.0551E-04  0.0089
   2.5191E+00   2.5804E+00   1.0486E-04  0.0088
   2.5804E+00   2.6432E+00   1.0199E-04  0.0088
   2.6432E+00   2.7075E+00   9.9609E-05  0.0088
   2.7075E+00   2.7734E+00   9.8875E-05  0.0088
   2.7734E+00   2.8409E+00   9.8104E-05  0.0087
   2.8409E+00   2.9100E+00   9.6975E-05  0.0086
   2.9100E+00   2.9808E+00   9.6500E-05  0.0086
   2.9808E+00   3.0533E+00   9.5784E-05  0.0085
   3.0533E+00   3.1276E+00   9.3344E-05  0.0085
   3.1276E+00   3.2037E+00   9.2953E-05  0.0084
   3.2037E+00   3.2817E+00   9.0052E-05  0.0084
   3.2817E+00   3.3615E+00   8.7102E-05  0.0085
   3.3615E+00   3.4433E+00   8.7607E-05  0.0084
   3.4433E+00   3.5271E+00   8.4565E-05  0.0084
   3.5271E+00   3.6129E+00   8.3390E-05  0.0084
   3.6129E+00   3.7008E+00   8.0573E-05  0.0084
   3.7008E+00   3.7908E+00   7.9412E-05  0.0084
   3.7908E+00   3.8831E+00   7.9249E-05  0.0083
   3.8831E+00   3.9776E+00   7.6986E-05  0.0083
   3.9776E+00   4.0743E+00   7.6986E-05  0.0082
   4.0743E+00   4.1735E+00   7.4678E-05  0.0082
   4.1735E+00   4.2750E+00   7.2215E-05  0.0083
   4.2750E+00   4.3790E+00   7.2125E-05  0.0082
   4.3790E+00   4.4856E+00   7.0008E-05  0.0082
   4.4856E+00   4.5947E+00   6.9763E-05  0.0081
   4.5947E+00   4.7065E+00   6.8629E-05  0.0081
   4.7065E+00   4.8210E+00   6.7942E-05  0.0080
   4.8210E+00   4.9383E+00   6.7432E-05  0.0079
   4.9383E+00   5.0585E+00   6.6742E-05  0.0079
   5.0585E+00   5.1815E+00   6.7864E-05  0.0077
   5.1815E+00   5.3076E+00   6.6324E-05  0.0077
   5.3076E+00   5.4368E+00   6.5230E-05  0.0077
   5.4368E+00   5.5690E+00   6.5898E-05  0.0076
   5.5690E+00   5.7045E+00   6.4545E-05  0.0076
   5.7045E+00   5.8433E+00   6.4462E-05  0.0075
   5.8433E+00   5.9855E+00   6.5299E-05  0.0073
   5.9855E+00   6.1311E+00   6.4498E-05  0.0073
   6.1311E+00   6.2803E+00   6.5589E-05  0.0071
   6.2803E+00   6.4331E+00   6.6339E-05  0.0070
   6.4331E+00   6.5896E+00   6.6366E-05  0.0069
   6.5896E+00   6.7500E+00   6.7647E-05  0.0068
   6.7500E+00   6.9142E+00   6.7018E-05  0.0067
   6.9142E+00   7.0824E+00   6.7392E-05  0.0066
   7.0824E+00   7.2548E+00   6.9384E-05  0.0065
   7.2548E+00   7.4313E+00   6.8827E-05  0.0064
   7.4313E+00   7.6121E+00   6.9816E-05  0.0063
   7.6121E+00   7.7973E+00   7.1676E-05  0.0061
   7.7973E+00   7.9870E+00   7.1605E-05  0.0061
   7.9870E+00   8.1813E+00   7.3311E-05  0.0059
   8.1813E+00   8.3804E+00   7.3506E-05  0.0058
   8.3804E+00   8.5843E+00   7.5516E-05  0.0057
   8.5843E+00   8.7931E+00   7.5705E-05  0.0056
   8.7931E+00   9.0071E+00   7.6888E-05  0.0055
   9.0071E+00   9.2262E+00   7.7905E-05  0.0054
   9.2262E+00   9.4507E+00   7.9867E-05  0.0053
   9.4507E+00   9.6807E+00   7.9942E-05  0.0052
   9.6807E+00   9.9162E+00   8.1203E-05  0.0051
   9.9162E+00   1.0157E+01   8.2567E-05  0.0050
   1.0157E+01   1.0405E+01   8.3260E-05  0.0049
   1.0405E+01   1.0658E+01   8.4649E-05  0.0048
   1.0658E+01   1.0917E+01   8.5214E-05  0.0048
   1.0917E+01   1.1183E+01   8.5795E-05  0.0047
   1.1183E+01   1.1455E+01   8.7523E-05  0.0046
   1.1455E+01   1.1733E+01   8.8329E-05  0.0045
   1.1733E+01   1.2019E+01   8.8720E-05  0.0044
   1.2019E+01   1.2311E+01   9.0098E-05  0.0044
   1.2311E+01   1.2611E+01   9.1086E-05  0.0043
   1.2611E+01   1.2918E+01   9.0129E-05  0.0043
   1.2918E+01   1.3232E+01   9.1261E-05  0.0042
   1.3232E+01   1.3554E+01   9.1857E-05  0.0041
   1.3554E+01   1.3884E+01   9.1873E-05  0.0041
   1.3884E+01   1.4222E+01   9.1890E-05  0.0040
   1.4222E+01   1.4568E+01   9.1419E-05  0.0040
   1.4568E+01   1.4922E+01   9.1803E-05  0.0039
   1.4922E+01   1.5285E+01   9.1518E-05  0.0039
   1.5285E+01   1.5657E+01   9.1646E-05  0.0038
   1.5657E+01   1.6038E+01   9.0297E-05  0.0038
   1.6038E+01   1.6428E+01   8.9498E-05  0.0038
   1.6428E+01   1.6828E+01   8.8054E-05  0.0038
   1.6828E+01   1.7237E+01   8.7057E-05  0.0037
   1.7237E+01   1.7657E+01   8.5527E-05  0.0037
   1.7657E+01   1.8086E+01   8.4273E-05  0.0037
   1.8086E+01   1.8526E+01   8.2406E-05  0.0037
   1.8526E+01   1.8977E+01   8.0845E-05  0.0037
   1.8977E+01   1.9439E+01   7.8507E-05  0.0037
   1.9439E+01   1.9912E+01   7.6366E-05  0.0037
   1.9912E+01   2.0396E+01   7.4514E-05  0.0037
   2.0396E+01   2.0893E+01   7.3011E-05  0.0037
   2.0893E+01   2.1401E+01   7.0157E-05  0.0037
   2.1401E+01   2.1922E+01   6.6881E-05  0.0038
   2.1922E+01   2.2455E+01   6.3780E-05  0.0038
   2.2455E+01   2.3001E+01   6.0748E-05  0.0039
   2.3001E+01   2.3561E+01   5.7705E-05  0.0039
   2.3561E+01   2.4134E+01   5.4441E-05  0.0040
   2.4134E+01   2.4721E+01   5.1852E-05  0.0041
   2.4721E+01   2.5323E+01   4.8347E-05  0.0041
   2.5323E+01   2.5939E+01   4.5331E-05  0.0042
   2.5939E+01   2.6570E+01   4.2600E-05  0.0043
   2.6570E+01   2.7217E+01   3.9798E-05  0.0044
   2.7217E+01   2.7879E+01   3.6791E-05  0.0045
   2.7879E+01   2.8557E+01   3.4476E-05  0.0046
   2.8557E+01   2.9252E+01   3.1805E-05  0.0048
   2.9252E+01   2.9964E+01   2.9516E-05  0.0049
   2.9964E+01   3.0693E+01   2.7051E-05  0.0050
   3.0693E+01   3.1440E+01   2.4849E-05  0.0052
   3.1440E+01   3.2205E+01   2.3025E-05  0.0053
   3.2205E+01   3.2988E+01   2.1273E-05  0.0055
   3.2988E+01   3.3791E+01   1.9267E-05  0.0057
   3.3791E+01   3.4613E+01   1.7843E-05  0.0058
   3.4613E+01   3.5455E+01   1.6219E-05  0.0061
   3.5455E+01   3.6318E+01   1.4808E-05  0.0063
   3.6318E+01   3.7201E+01   1.3425E-05  0.0065
   3.7201E+01   3.8106E+01   1.2316E-05  0.0067
   3.8106E+01   3.9034E+01   1.1022E-05  0.0070
   3.9034E+01   3.9983E+01   9.9045E-06  0.0073
   3.9983E+01   4.0956E+01   8.7040E-06  0.0077
   4.0956E+01   4.1953E+01   7.6719E-06  0.0081
   4.1953E+01   4.2973E+01   6.6853E-06  0.0086
   4.2973E+01   4.4019E+01   5.5701E-06  0.0093
   4.4019E+01   4.5090E+01   4.8221E-06  0.0098
   4.5090E+01   4.6187E+01   4.1597E-06  0.0105
   4.6187E+01   4.7311E+01   3.5074E-06  0.0113
   4.7311E+01   4.8462E+01   2.8403E-06  0.0124
   4.8462E+01   4.9641E+01   2.2067E-06  0.0139
   4.9641E+01   5.0849E+01   1.5421E-06  0.0164
   5.0849E+01   5.2086E+01   9.8610E-07  0.0202
   5.2086E+01   5.3353E+01   4.8410E-07  0.0285
   5.3353E+01   5.4651E+01   6.3938E-08  0.0776
   5.4651E+01   5.5981E+01   0.0000E+00  0.0000
   5.5981E+01   5.7343E+01   0.0000E+00  0.0000
   5.7343E+01   5.8738E+01   0.0000E+00  0.0000
   5.8738E+01   6.0168E+01   0.0000E+00  0.0000
   6.0168E+01   6.1632E+01   0.0000E+00  0.0000
   6.1632E+01   6.3131E+01   0.0000E+00  0.0000
   6.3131E+01   6.4667E+01   0.0000E+00  0.0000
   6.4667E+01   6.6240E+01   0.0000E+00  0.0000
   6.6240E+01   6.7852E+01   0.0000E+00  0.0000
   6.7852E+01   6.9503E+01   0.0000E+00  0.0000
   6.9503E+01   7.1194E+01   0.0000E+00  0.0000
   7.1194E+01   7.2926E+01   0.0000E+00  0.0000
   7.2926E+01   7.4701E+01   0.0000E+00  0.0000
   7.4701E+01   7.6518E+01   0.0000E+00  0.0000
   7.6518E+01   7.8380E+01   0.0000E+00  0.0000
   7.8380E+01   8.0287E+01   0.0000E+00  0.0000
   8.0287E+01   8.2240E+01   0.0000E+00  0.0000
   8.2240E+01   8.4241E+01   0.0000E+00  0.0000
   8.4241E+01   8.6291E+01   0.0000E+00  0.0000
   8.6291E+01   8.8391E+01   0.0000E+00  0.0000
   8.8391E+01   9.0541E+01   0.0000E+00  0.0000
   9.0541E+01   9.2744E+01   0.0000E+00  0.0000
   9.2744E+01   9.5001E+01   0.0000E+00  0.0000
   9.5001E+01   9.7312E+01   0.0000E+00  0.0000
   9.7312E+01   9.9680E+01   0.0000E+00  0.0000
   9.9680E+01   1.0211E+02   0.0000E+00  0.0000
   1.0211E+02   1.0459E+02   0.0000E+00  0.0000
   1.0459E+02   1.0713E+02   0.0000E+00  0.0000
   1.0713E+02   1.0974E+02   0.0000E+00  0.0000
   1.0974E+02   1.1241E+02   0.0000E+00  0.0000
   1.1241E+02   1.1515E+02   0.0000E+00  0.0000
   1.1515E+02   1.1795E+02   0.0000E+00  0.0000
   1.1795E+02   1.2082E+02   0.0000E+00  0.0000
   1.2082E+02   1.2376E+02   0.0000E+00  0.0000
   1.2376E+02   1.2677E+02   0.0000E+00  0.0000
   1.2677E+02   1.2985E+02   0.0000E+00  0.0000
   1.2985E+02   1.3301E+02   0.0000E+00  0.0000
   1.3301E+02   1.3625E+02   0.0000E+00  0.0000
   1.3625E+02   1.3956E+02   0.0000E+00  0.0000
   1.3956E+02   1.4296E+02   0.0000E+00  0.0000
   1.4296E+02   1.4644E+02   0.0000E+00  0.0000
   1.4644E+02   1.5000E+02   0.0000E+00  0.0000

#   sum over                 1.6545E-05
'no. =    1   reg = 105 - 205'
msuc: {\huge [t-cross] in region mesh}
msdr: {\it plotted by \ANGEL \version}
msdl: {\it calculated by \PHITS  3.26}
wt: s(0.7)
\vspace{-3}
  region surface crossing
  area  &=&   1.0000E+00 [cm^2]
e:
 
# Information for Restart Calculation
# This calculation was newly started
# istdev =  2 # 1:Batch variance, 2:History variance
# resc2  = 2.00000000000000000E+09 # Total source weight or Total source weight / maxcas
# resc3  = 2.00000000000000000E+09 # Total history number or Total batch number
# maxcas =   500000000 # History / Batch, only used for istdev=1
# bitrseed = 0011011010010000100111110110001101100001010011100000011100000110 # bit data of rseed
