[ T-Cross ]
    title = [t-cross] in region mesh
     mesh =  reg            # mesh type is region-wise
      reg =    1            # number of crossing regions
      non     r-from    r-to       area
      1       116       216        1.000000    
   e-type =    3            # e-mesh is log given by emin, emax and ne
     emin =  1.0000000E-02  # minimum value of e-mesh points
     emax =   150.0000      # maximum value of e-mesh points
#    edel =  2.4039514E-02  # mesh width of e-mesh points
       ne =    400          # number of e-mesh points
#    data = ( e(i), i = 1, ne + 1 )
#           1.00000E-02  1.02433E-02  1.04925E-02  1.07478E-02  1.10093E-02
#           1.12772E-02  1.15516E-02  1.18326E-02  1.21205E-02  1.24154E-02
#           1.27175E-02  1.30269E-02  1.33439E-02  1.36686E-02  1.40011E-02
#           1.43418E-02  1.46907E-02  1.50482E-02  1.54143E-02  1.57894E-02
#           1.61735E-02  1.65670E-02  1.69701E-02  1.73830E-02  1.78060E-02
#           1.82392E-02  1.86830E-02  1.91375E-02  1.96032E-02  2.00801E-02
#           2.05687E-02  2.10692E-02  2.15818E-02  2.21069E-02  2.26448E-02
#           2.31957E-02  2.37601E-02  2.43382E-02  2.49304E-02  2.55369E-02
#           2.61583E-02  2.67947E-02  2.74467E-02  2.81145E-02  2.87985E-02
#           2.94992E-02  3.02169E-02  3.09521E-02  3.17052E-02  3.24766E-02
#           3.32668E-02  3.40762E-02  3.49053E-02  3.57546E-02  3.66246E-02
#           3.75157E-02  3.84284E-02  3.93634E-02  4.03212E-02  4.13022E-02
#           4.23071E-02  4.33365E-02  4.43909E-02  4.54710E-02  4.65773E-02
#           4.77106E-02  4.88714E-02  5.00605E-02  5.12785E-02  5.25262E-02
#           5.38042E-02  5.51133E-02  5.64542E-02  5.78278E-02  5.92348E-02
#           6.06760E-02  6.21523E-02  6.36645E-02  6.52135E-02  6.68002E-02
#           6.84255E-02  7.00904E-02  7.17957E-02  7.35426E-02  7.53319E-02
#           7.71648E-02  7.90423E-02  8.09655E-02  8.29354E-02  8.49533E-02
#           8.70203E-02  8.91376E-02  9.13064E-02  9.35279E-02  9.58035E-02
#           9.81345E-02  1.00522E-01  1.02968E-01  1.05473E-01  1.08040E-01
#           1.10668E-01  1.13361E-01  1.16119E-01  1.18944E-01  1.21838E-01
#           1.24803E-01  1.27839E-01  1.30950E-01  1.34136E-01  1.37399E-01
#           1.40742E-01  1.44167E-01  1.47675E-01  1.51268E-01  1.54948E-01
#           1.58718E-01  1.62580E-01  1.66535E-01  1.70587E-01  1.74738E-01
#           1.78989E-01  1.83344E-01  1.87805E-01  1.92375E-01  1.97055E-01
#           2.01850E-01  2.06761E-01  2.11792E-01  2.16945E-01  2.22223E-01
#           2.27630E-01  2.33169E-01  2.38842E-01  2.44653E-01  2.50605E-01
#           2.56703E-01  2.62949E-01  2.69346E-01  2.75900E-01  2.82613E-01
#           2.89489E-01  2.96532E-01  3.03747E-01  3.11138E-01  3.18708E-01
#           3.26462E-01  3.34405E-01  3.42542E-01  3.50876E-01  3.59413E-01
#           3.68158E-01  3.77116E-01  3.86291E-01  3.95690E-01  4.05317E-01
#           4.15179E-01  4.25281E-01  4.35628E-01  4.46227E-01  4.57084E-01
#           4.68205E-01  4.79597E-01  4.91266E-01  5.03219E-01  5.15463E-01
#           5.28005E-01  5.40851E-01  5.54011E-01  5.67490E-01  5.81298E-01
#           5.95441E-01  6.09929E-01  6.24769E-01  6.39970E-01  6.55541E-01
#           6.71491E-01  6.87828E-01  7.04564E-01  7.21706E-01  7.39266E-01
#           7.57253E-01  7.75678E-01  7.94551E-01  8.13883E-01  8.33685E-01
#           8.53969E-01  8.74747E-01  8.96030E-01  9.17831E-01  9.40163E-01
#           9.63038E-01  9.86469E-01  1.01047E+00  1.03506E+00  1.06024E+00
#           1.08604E+00  1.11246E+00  1.13953E+00  1.16725E+00  1.19565E+00
#           1.22474E+00  1.25454E+00  1.28507E+00  1.31633E+00  1.34836E+00
#           1.38117E+00  1.41477E+00  1.44920E+00  1.48446E+00  1.52057E+00
#           1.55757E+00  1.59547E+00  1.63429E+00  1.67405E+00  1.71478E+00
#           1.75650E+00  1.79924E+00  1.84302E+00  1.88786E+00  1.93379E+00
#           1.98084E+00  2.02904E+00  2.07841E+00  2.12898E+00  2.18078E+00
#           2.23384E+00  2.28819E+00  2.34386E+00  2.40089E+00  2.45930E+00
#           2.51914E+00  2.58043E+00  2.64322E+00  2.70753E+00  2.77341E+00
#           2.84088E+00  2.91001E+00  2.98081E+00  3.05333E+00  3.12762E+00
#           3.20372E+00  3.28167E+00  3.36152E+00  3.44330E+00  3.52708E+00
#           3.61290E+00  3.70080E+00  3.79085E+00  3.88308E+00  3.97756E+00
#           4.07434E+00  4.17347E+00  4.27501E+00  4.37903E+00  4.48557E+00
#           4.59471E+00  4.70650E+00  4.82102E+00  4.93832E+00  5.05847E+00
#           5.18155E+00  5.30762E+00  5.43676E+00  5.56904E+00  5.70453E+00
#           5.84333E+00  5.98550E+00  6.13114E+00  6.28031E+00  6.43312E+00
#           6.58964E+00  6.74997E+00  6.91420E+00  7.08243E+00  7.25475E+00
#           7.43126E+00  7.61207E+00  7.79728E+00  7.98700E+00  8.18133E+00
#           8.38038E+00  8.58428E+00  8.79315E+00  9.00709E+00  9.22624E+00
#           9.45072E+00  9.68067E+00  9.91620E+00  1.01575E+01  1.04046E+01
#           1.06578E+01  1.09171E+01  1.11827E+01  1.14548E+01  1.17335E+01
#           1.20190E+01  1.23114E+01  1.26109E+01  1.29178E+01  1.32321E+01
#           1.35540E+01  1.38838E+01  1.42216E+01  1.45676E+01  1.49221E+01
#           1.52851E+01  1.56570E+01  1.60380E+01  1.64282E+01  1.68279E+01
#           1.72374E+01  1.76568E+01  1.80864E+01  1.85264E+01  1.89772E+01
#           1.94389E+01  1.99119E+01  2.03963E+01  2.08926E+01  2.14009E+01
#           2.19216E+01  2.24550E+01  2.30014E+01  2.35610E+01  2.41343E+01
#           2.47215E+01  2.53230E+01  2.59391E+01  2.65702E+01  2.72167E+01
#           2.78789E+01  2.85572E+01  2.92520E+01  2.99637E+01  3.06928E+01
#           3.14396E+01  3.22045E+01  3.29881E+01  3.37907E+01  3.46128E+01
#           3.54550E+01  3.63177E+01  3.72013E+01  3.81064E+01  3.90336E+01
#           3.99833E+01  4.09561E+01  4.19526E+01  4.29734E+01  4.40189E+01
#           4.50900E+01  4.61870E+01  4.73108E+01  4.84619E+01  4.96410E+01
#           5.08488E+01  5.20860E+01  5.33533E+01  5.46514E+01  5.59812E+01
#           5.73432E+01  5.87384E+01  6.01676E+01  6.16315E+01  6.31311E+01
#           6.46671E+01  6.62405E+01  6.78522E+01  6.95031E+01  7.11941E+01
#           7.29263E+01  7.47007E+01  7.65182E+01  7.83800E+01  8.02870E+01
#           8.22405E+01  8.42414E+01  8.62911E+01  8.83906E+01  9.05412E+01
#           9.27442E+01  9.50007E+01  9.73122E+01  9.96799E+01  1.02105E+02
#           1.04589E+02  1.07134E+02  1.09741E+02  1.12411E+02  1.15146E+02
#           1.17948E+02  1.20817E+02  1.23757E+02  1.26768E+02  1.29852E+02
#           1.33012E+02  1.36248E+02  1.39563E+02  1.42959E+02  1.46437E+02
#           1.50000E+02
     unit =    2            # unit is [1/cm^2/(MeV/n)/source]
     axis =  eng            # axis of output
     file = detector-17.out  # file name of output for the above axis
   output = f-curr          # surface crossing forward current spectrum
     part =  neutron  
# kf/name :  2112     
#    used :        main (  %)        temp (  %)       total (  %)
#  memory :         414 (  0)           0 (  0)         414 (  0)

#------------------------------------------------------------------------------
#newpage:
#   no. =    1   reg = 116 - 216

x: Energy [MeV/n]
y:  F-Curr [1/cm^2/(MeV/n)/source]         
p: xlog ylog afac(0.8) form(0.9)
h: n            x            y(neutron ),hh0l   n 
#  e-lower      e-upper      neutron     r.err 
   1.0000E-02   1.0243E-02   1.8475E-03  0.0334
   1.0243E-02   1.0493E-02   1.7334E-03  0.0340
   1.0493E-02   1.0748E-02   1.8077E-03  0.0329
   1.0748E-02   1.1009E-02   1.8222E-03  0.0324
   1.1009E-02   1.1277E-02   1.8573E-03  0.0317
   1.1277E-02   1.1552E-02   1.8004E-03  0.0318
   1.1552E-02   1.1833E-02   1.8555E-03  0.0310
   1.1833E-02   1.2121E-02   1.9069E-03  0.0302
   1.2121E-02   1.2415E-02   1.8888E-03  0.0300
   1.2415E-02   1.2718E-02   1.7429E-03  0.0308
   1.2718E-02   1.3027E-02   1.7330E-03  0.0305
   1.3027E-02   1.3344E-02   1.7329E-03  0.0302
   1.3344E-02   1.3669E-02   1.8511E-03  0.0288
   1.3669E-02   1.4001E-02   1.7711E-03  0.0291
   1.4001E-02   1.4342E-02   1.7862E-03  0.0287
   1.4342E-02   1.4691E-02   1.7768E-03  0.0284
   1.4691E-02   1.5048E-02   1.8059E-03  0.0278
   1.5048E-02   1.5414E-02   1.8190E-03  0.0274
   1.5414E-02   1.5789E-02   1.7665E-03  0.0275
   1.5789E-02   1.6174E-02   1.8234E-03  0.0267
   1.6174E-02   1.6567E-02   1.8195E-03  0.0264
   1.6567E-02   1.6970E-02   1.7304E-03  0.0268
   1.6970E-02   1.7383E-02   1.8213E-03  0.0258
   1.7383E-02   1.7806E-02   1.8005E-03  0.0256
   1.7806E-02   1.8239E-02   1.8073E-03  0.0253
   1.8239E-02   1.8683E-02   1.7954E-03  0.0250
   1.8683E-02   1.9138E-02   1.8204E-03  0.0246
   1.9138E-02   1.9603E-02   1.7879E-03  0.0245
   1.9603E-02   2.0080E-02   1.6972E-03  0.0249
   2.0080E-02   2.0569E-02   1.8160E-03  0.0237
   2.0569E-02   2.1069E-02   1.7454E-03  0.0239
   2.1069E-02   2.1582E-02   1.8707E-03  0.0228
   2.1582E-02   2.2107E-02   1.7235E-03  0.0235
   2.2107E-02   2.2645E-02   1.7583E-03  0.0230
   2.2645E-02   2.3196E-02   1.8359E-03  0.0222
   2.3196E-02   2.3760E-02   1.7887E-03  0.0223
   2.3760E-02   2.4338E-02   1.7644E-03  0.0221
   2.4338E-02   2.4930E-02   1.7715E-03  0.0218
   2.4930E-02   2.5537E-02   1.7067E-03  0.0220
   2.5537E-02   2.6158E-02   1.8167E-03  0.0210
   2.6158E-02   2.6795E-02   1.8360E-03  0.0207
   2.6795E-02   2.7447E-02   1.7279E-03  0.0211
   2.7447E-02   2.8114E-02   1.7423E-03  0.0207
   2.8114E-02   2.8799E-02   1.8010E-03  0.0201
   2.8799E-02   2.9499E-02   1.8193E-03  0.0198
   2.9499E-02   3.0217E-02   1.7618E-03  0.0199
   3.0217E-02   3.0952E-02   1.8617E-03  0.0191
   3.0952E-02   3.1705E-02   1.8026E-03  0.0192
   3.1705E-02   3.2477E-02   1.7873E-03  0.0190
   3.2477E-02   3.3267E-02   1.7730E-03  0.0189
   3.3267E-02   3.4076E-02   1.7828E-03  0.0186
   3.4076E-02   3.4905E-02   1.7579E-03  0.0185
   3.4905E-02   3.5755E-02   1.7132E-03  0.0185
   3.5755E-02   3.6625E-02   1.7832E-03  0.0180
   3.6625E-02   3.7516E-02   1.7961E-03  0.0177
   3.7516E-02   3.8428E-02   1.7200E-03  0.0178
   3.8428E-02   3.9363E-02   1.7856E-03  0.0173
   3.9363E-02   4.0321E-02   1.7452E-03  0.0173
   4.0321E-02   4.1302E-02   1.7655E-03  0.0170
   4.1302E-02   4.2307E-02   1.7865E-03  0.0167
   4.2307E-02   4.3337E-02   1.7486E-03  0.0167
   4.3337E-02   4.4391E-02   1.7865E-03  0.0163
   4.4391E-02   4.5471E-02   1.7605E-03  0.0162
   4.5471E-02   4.6577E-02   1.7397E-03  0.0161
   4.6577E-02   4.7711E-02   1.7000E-03  0.0161
   4.7711E-02   4.8871E-02   1.7935E-03  0.0155
   4.8871E-02   5.0061E-02   1.7871E-03  0.0153
   5.0061E-02   5.1279E-02   1.7405E-03  0.0154
   5.1279E-02   5.2526E-02   1.7617E-03  0.0151
   5.2526E-02   5.3804E-02   1.7586E-03  0.0149
   5.3804E-02   5.5113E-02   1.7447E-03  0.0148
   5.5113E-02   5.6454E-02   1.7605E-03  0.0146
   5.6454E-02   5.7828E-02   1.7138E-03  0.0146
   5.7828E-02   5.9235E-02   1.7466E-03  0.0143
   5.9235E-02   6.0676E-02   1.7627E-03  0.0140
   6.0676E-02   6.2152E-02   1.7971E-03  0.0137
   6.2152E-02   6.3665E-02   1.7364E-03  0.0138
   6.3665E-02   6.5214E-02   1.7318E-03  0.0137
   6.5214E-02   6.6800E-02   1.7401E-03  0.0135
   6.6800E-02   6.8426E-02   1.7095E-03  0.0134
   6.8426E-02   7.0090E-02   1.7518E-03  0.0131
   7.0090E-02   7.1796E-02   1.7301E-03  0.0130
   7.1796E-02   7.3543E-02   1.7032E-03  0.0130
   7.3543E-02   7.5332E-02   1.7409E-03  0.0127
   7.5332E-02   7.7165E-02   1.7031E-03  0.0127
   7.7165E-02   7.9042E-02   1.7655E-03  0.0123
   7.9042E-02   8.0965E-02   1.7382E-03  0.0122
   8.0965E-02   8.2935E-02   1.7764E-03  0.0120
   8.2935E-02   8.4953E-02   1.7025E-03  0.0121
   8.4953E-02   8.7020E-02   1.7152E-03  0.0119
   8.7020E-02   8.9138E-02   1.7208E-03  0.0117
   8.9138E-02   9.1306E-02   1.7102E-03  0.0116
   9.1306E-02   9.3528E-02   1.7312E-03  0.0114
   9.3528E-02   9.5804E-02   1.6912E-03  0.0114
   9.5804E-02   9.8134E-02   1.6949E-03  0.0112
   9.8134E-02   1.0052E-01   1.6874E-03  0.0111
   1.0052E-01   1.0297E-01   1.6805E-03  0.0110
   1.0297E-01   1.0547E-01   1.6865E-03  0.0109
   1.0547E-01   1.0804E-01   1.6851E-03  0.0108
   1.0804E-01   1.1067E-01   1.7094E-03  0.0105
   1.1067E-01   1.1336E-01   1.6911E-03  0.0105
   1.1336E-01   1.1612E-01   1.6920E-03  0.0104
   1.1612E-01   1.1894E-01   1.6823E-03  0.0103
   1.1894E-01   1.2184E-01   1.6933E-03  0.0101
   1.2184E-01   1.2480E-01   1.6893E-03  0.0100
   1.2480E-01   1.2784E-01   1.6707E-03  0.0099
   1.2784E-01   1.3095E-01   1.7258E-03  0.0097
   1.3095E-01   1.3414E-01   1.6552E-03  0.0097
   1.3414E-01   1.3740E-01   1.6793E-03  0.0096
   1.3740E-01   1.4074E-01   1.6878E-03  0.0094
   1.4074E-01   1.4417E-01   1.6715E-03  0.0093
   1.4417E-01   1.4767E-01   1.6805E-03  0.0092
   1.4767E-01   1.5127E-01   1.6631E-03  0.0091
   1.5127E-01   1.5495E-01   1.6808E-03  0.0090
   1.5495E-01   1.5872E-01   1.6577E-03  0.0089
   1.5872E-01   1.6258E-01   1.6391E-03  0.0089
   1.6258E-01   1.6654E-01   1.6320E-03  0.0088
   1.6654E-01   1.7059E-01   1.6411E-03  0.0087
   1.7059E-01   1.7474E-01   1.6515E-03  0.0085
   1.7474E-01   1.7899E-01   1.6379E-03  0.0085
   1.7899E-01   1.8334E-01   1.6322E-03  0.0084
   1.8334E-01   1.8781E-01   1.6143E-03  0.0083
   1.8781E-01   1.9237E-01   1.6239E-03  0.0082
   1.9237E-01   1.9706E-01   1.6266E-03  0.0081
   1.9706E-01   2.0185E-01   1.6375E-03  0.0080
   2.0185E-01   2.0676E-01   1.6157E-03  0.0079
   2.0676E-01   2.1179E-01   1.6070E-03  0.0079
   2.1179E-01   2.1694E-01   1.6069E-03  0.0078
   2.1694E-01   2.2222E-01   1.5976E-03  0.0077
   2.2222E-01   2.2763E-01   1.6000E-03  0.0076
   2.2763E-01   2.3317E-01   1.6027E-03  0.0075
   2.3317E-01   2.3884E-01   1.5935E-03  0.0074
   2.3884E-01   2.4465E-01   1.5785E-03  0.0074
   2.4465E-01   2.5061E-01   1.5789E-03  0.0073
   2.5061E-01   2.5670E-01   1.5731E-03  0.0072
   2.5670E-01   2.6295E-01   1.5621E-03  0.0072
   2.6295E-01   2.6935E-01   1.5526E-03  0.0071
   2.6935E-01   2.7590E-01   1.5542E-03  0.0070
   2.7590E-01   2.8261E-01   1.5592E-03  0.0069
   2.8261E-01   2.8949E-01   1.5216E-03  0.0069
   2.8949E-01   2.9653E-01   1.5313E-03  0.0068
   2.9653E-01   3.0375E-01   1.5102E-03  0.0068
   3.0375E-01   3.1114E-01   1.5033E-03  0.0067
   3.1114E-01   3.1871E-01   1.5104E-03  0.0066
   3.1871E-01   3.2646E-01   1.4994E-03  0.0066
   3.2646E-01   3.3441E-01   1.5210E-03  0.0064
   3.3441E-01   3.4254E-01   1.4880E-03  0.0064
   3.4254E-01   3.5088E-01   1.4752E-03  0.0064
   3.5088E-01   3.5941E-01   1.4712E-03  0.0063
   3.5941E-01   3.6816E-01   1.4633E-03  0.0063
   3.6816E-01   3.7712E-01   1.4362E-03  0.0062
   3.7712E-01   3.8629E-01   1.4414E-03  0.0061
   3.8629E-01   3.9569E-01   1.4392E-03  0.0061
   3.9569E-01   4.0532E-01   1.4323E-03  0.0060
   4.0532E-01   4.1518E-01   1.4154E-03  0.0060
   4.1518E-01   4.2528E-01   1.4150E-03  0.0059
   4.2528E-01   4.3563E-01   1.3924E-03  0.0059
   4.3563E-01   4.4623E-01   1.3962E-03  0.0058
   4.4623E-01   4.5708E-01   1.3820E-03  0.0058
   4.5708E-01   4.6821E-01   1.3667E-03  0.0057
   4.6821E-01   4.7960E-01   1.3593E-03  0.0057
   4.7960E-01   4.9127E-01   1.3544E-03  0.0056
   4.9127E-01   5.0322E-01   1.3381E-03  0.0056
   5.0322E-01   5.1546E-01   1.3119E-03  0.0056
   5.1546E-01   5.2800E-01   1.3076E-03  0.0055
   5.2800E-01   5.4085E-01   1.2846E-03  0.0055
   5.4085E-01   5.5401E-01   1.2824E-03  0.0054
   5.5401E-01   5.6749E-01   1.2651E-03  0.0054
   5.6749E-01   5.8130E-01   1.2561E-03  0.0054
   5.8130E-01   5.9544E-01   1.2383E-03  0.0053
   5.9544E-01   6.0993E-01   1.2168E-03  0.0053
   6.0993E-01   6.2477E-01   1.2093E-03  0.0053
   6.2477E-01   6.3997E-01   1.1945E-03  0.0052
   6.3997E-01   6.5554E-01   1.1792E-03  0.0052
   6.5554E-01   6.7149E-01   1.1621E-03  0.0052
   6.7149E-01   6.8783E-01   1.1333E-03  0.0052
   6.8783E-01   7.0456E-01   1.1267E-03  0.0052
   7.0456E-01   7.2171E-01   1.1122E-03  0.0051
   7.2171E-01   7.3927E-01   1.0859E-03  0.0051
   7.3927E-01   7.5725E-01   1.0697E-03  0.0051
   7.5725E-01   7.7568E-01   1.0455E-03  0.0051
   7.7568E-01   7.9455E-01   1.0320E-03  0.0051
   7.9455E-01   8.1388E-01   1.0036E-03  0.0051
   8.1388E-01   8.3368E-01   9.8872E-04  0.0051
   8.3368E-01   8.5397E-01   9.4578E-04  0.0051
   8.5397E-01   8.7475E-01   9.2674E-04  0.0051
   8.7475E-01   8.9603E-01   9.1183E-04  0.0051
   8.9603E-01   9.1783E-01   8.7295E-04  0.0051
   9.1783E-01   9.4016E-01   8.4069E-04  0.0052
   9.4016E-01   9.6304E-01   8.0750E-04  0.0052
   9.6304E-01   9.8647E-01   7.8014E-04  0.0052
   9.8647E-01   1.0105E+00   7.4969E-04  0.0053
   1.0105E+00   1.0351E+00   7.3634E-04  0.0053
   1.0351E+00   1.0602E+00   7.4591E-04  0.0052
   1.0602E+00   1.0860E+00   7.3959E-04  0.0051
   1.0860E+00   1.1125E+00   7.4495E-04  0.0050
   1.1125E+00   1.1395E+00   7.5269E-04  0.0050
   1.1395E+00   1.1673E+00   7.6088E-04  0.0049
   1.1673E+00   1.1957E+00   7.7572E-04  0.0048
   1.1957E+00   1.2247E+00   7.8648E-04  0.0047
   1.2247E+00   1.2545E+00   7.8057E-04  0.0046
   1.2545E+00   1.2851E+00   7.7769E-04  0.0046
   1.2851E+00   1.3163E+00   7.7866E-04  0.0045
   1.3163E+00   1.3484E+00   7.8017E-04  0.0045
   1.3484E+00   1.3812E+00   7.9190E-04  0.0044
   1.3812E+00   1.4148E+00   7.9595E-04  0.0043
   1.4148E+00   1.4492E+00   7.8926E-04  0.0043
   1.4492E+00   1.4845E+00   7.8461E-04  0.0043
   1.4845E+00   1.5206E+00   7.7019E-04  0.0042
   1.5206E+00   1.5576E+00   7.7653E-04  0.0042
   1.5576E+00   1.5955E+00   7.6063E-04  0.0042
   1.5955E+00   1.6343E+00   7.6046E-04  0.0041
   1.6343E+00   1.6741E+00   7.6255E-04  0.0041
   1.6741E+00   1.7148E+00   7.7272E-04  0.0040
   1.7148E+00   1.7565E+00   7.6259E-04  0.0040
   1.7565E+00   1.7992E+00   7.5915E-04  0.0039
   1.7992E+00   1.8430E+00   7.4318E-04  0.0039
   1.8430E+00   1.8879E+00   7.3592E-04  0.0039
   1.8879E+00   1.9338E+00   7.2741E-04  0.0039
   1.9338E+00   1.9808E+00   7.2695E-04  0.0038
   1.9808E+00   2.0290E+00   7.2710E-04  0.0038
   2.0290E+00   2.0784E+00   7.1246E-04  0.0038
   2.0784E+00   2.1290E+00   6.9527E-04  0.0038
   2.1290E+00   2.1808E+00   6.8534E-04  0.0038
   2.1808E+00   2.2338E+00   6.7724E-04  0.0037
   2.2338E+00   2.2882E+00   6.6329E-04  0.0037
   2.2882E+00   2.3439E+00   6.5596E-04  0.0037
   2.3439E+00   2.4009E+00   6.4562E-04  0.0037
   2.4009E+00   2.4593E+00   6.4142E-04  0.0037
   2.4593E+00   2.5191E+00   6.2297E-04  0.0037
   2.5191E+00   2.5804E+00   6.0459E-04  0.0037
   2.5804E+00   2.6432E+00   5.9493E-04  0.0037
   2.6432E+00   2.7075E+00   5.7668E-04  0.0037
   2.7075E+00   2.7734E+00   5.6612E-04  0.0037
   2.7734E+00   2.8409E+00   5.4998E-04  0.0037
   2.8409E+00   2.9100E+00   5.3893E-04  0.0037
   2.9100E+00   2.9808E+00   5.2745E-04  0.0037
   2.9808E+00   3.0533E+00   5.1023E-04  0.0037
   3.0533E+00   3.1276E+00   4.9495E-04  0.0037
   3.1276E+00   3.2037E+00   4.7860E-04  0.0037
   3.2037E+00   3.2817E+00   4.5955E-04  0.0037
   3.2817E+00   3.3615E+00   4.4019E-04  0.0038
   3.3615E+00   3.4433E+00   4.2477E-04  0.0038
   3.4433E+00   3.5271E+00   4.0992E-04  0.0038
   3.5271E+00   3.6129E+00   3.9449E-04  0.0038
   3.6129E+00   3.7008E+00   3.8047E-04  0.0039
   3.7008E+00   3.7908E+00   3.6440E-04  0.0039
   3.7908E+00   3.8831E+00   3.4916E-04  0.0039
   3.8831E+00   3.9776E+00   3.3201E-04  0.0040
   3.9776E+00   4.0743E+00   3.1822E-04  0.0040
   4.0743E+00   4.1735E+00   3.0040E-04  0.0041
   4.1735E+00   4.2750E+00   2.8708E-04  0.0041
   4.2750E+00   4.3790E+00   2.6968E-04  0.0042
   4.3790E+00   4.4856E+00   2.5547E-04  0.0043
   4.4856E+00   4.5947E+00   2.4412E-04  0.0043
   4.5947E+00   4.7065E+00   2.2481E-04  0.0045
   4.7065E+00   4.8210E+00   2.1200E-04  0.0045
   4.8210E+00   4.9383E+00   2.0164E-04  0.0046
   4.9383E+00   5.0585E+00   1.8883E-04  0.0047
   5.0585E+00   5.1815E+00   1.7895E-04  0.0048
   5.1815E+00   5.3076E+00   1.6519E-04  0.0049
   5.3076E+00   5.4368E+00   1.5392E-04  0.0050
   5.4368E+00   5.5690E+00   1.4488E-04  0.0051
   5.5690E+00   5.7045E+00   1.3375E-04  0.0053
   5.7045E+00   5.8433E+00   1.2460E-04  0.0054
   5.8433E+00   5.9855E+00   1.1501E-04  0.0055
   5.9855E+00   6.1311E+00   1.0656E-04  0.0057
   6.1311E+00   6.2803E+00   9.9217E-05  0.0058
   6.2803E+00   6.4331E+00   9.0869E-05  0.0060
   6.4331E+00   6.5896E+00   8.4338E-05  0.0062
   6.5896E+00   6.7500E+00   7.7491E-05  0.0063
   6.7500E+00   6.9142E+00   7.1738E-05  0.0065
   6.9142E+00   7.0824E+00   6.4974E-05  0.0068
   7.0824E+00   7.2548E+00   6.0203E-05  0.0069
   7.2548E+00   7.4313E+00   5.5748E-05  0.0071
   7.4313E+00   7.6121E+00   5.0819E-05  0.0074
   7.6121E+00   7.7973E+00   4.6231E-05  0.0076
   7.7973E+00   7.9870E+00   4.2778E-05  0.0078
   7.9870E+00   8.1813E+00   3.9915E-05  0.0080
   8.1813E+00   8.3804E+00   3.6484E-05  0.0083
   8.3804E+00   8.5843E+00   3.3645E-05  0.0085
   8.5843E+00   8.7931E+00   3.1230E-05  0.0087
   8.7931E+00   9.0071E+00   2.8176E-05  0.0091
   9.0071E+00   9.2262E+00   2.6302E-05  0.0093
   9.2262E+00   9.4507E+00   2.3950E-05  0.0096
   9.4507E+00   9.6807E+00   2.1662E-05  0.0100
   9.6807E+00   9.9162E+00   2.0754E-05  0.0101
   9.9162E+00   1.0157E+01   1.8859E-05  0.0105
   1.0157E+01   1.0405E+01   1.7498E-05  0.0107
   1.0405E+01   1.0658E+01   1.6159E-05  0.0110
   1.0658E+01   1.0917E+01   1.5046E-05  0.0113
   1.0917E+01   1.1183E+01   1.4191E-05  0.0115
   1.1183E+01   1.1455E+01   1.3051E-05  0.0119
   1.1455E+01   1.1733E+01   1.2000E-05  0.0122
   1.1733E+01   1.2019E+01   1.1163E-05  0.0125
   1.2019E+01   1.2311E+01   1.0520E-05  0.0127
   1.2311E+01   1.2611E+01   9.5553E-06  0.0132
   1.2611E+01   1.2918E+01   9.0619E-06  0.0134
   1.2918E+01   1.3232E+01   8.5675E-06  0.0136
   1.3232E+01   1.3554E+01   7.6542E-06  0.0142
   1.3554E+01   1.3884E+01   7.2859E-06  0.0144
   1.3884E+01   1.4222E+01   6.9360E-06  0.0146
   1.4222E+01   1.4568E+01   6.3038E-06  0.0151
   1.4568E+01   1.4922E+01   6.0045E-06  0.0153
   1.4922E+01   1.5285E+01   5.4405E-06  0.0159
   1.5285E+01   1.5657E+01   5.1667E-06  0.0161
   1.5657E+01   1.6038E+01   4.7172E-06  0.0167
   1.6038E+01   1.6428E+01   4.3943E-06  0.0171
   1.6428E+01   1.6828E+01   4.0298E-06  0.0176
   1.6828E+01   1.7237E+01   3.8816E-06  0.0177
   1.7237E+01   1.7657E+01   3.5509E-06  0.0183
   1.7657E+01   1.8086E+01   3.2972E-06  0.0188
   1.8086E+01   1.8526E+01   3.0201E-06  0.0194
   1.8526E+01   1.8977E+01   2.7354E-06  0.0201
   1.8977E+01   1.9439E+01   2.7018E-06  0.0200
   1.9439E+01   1.9912E+01   2.4262E-06  0.0209
   1.9912E+01   2.0396E+01   2.1642E-06  0.0218
   2.0396E+01   2.0893E+01   2.0161E-06  0.0224
   2.0893E+01   2.1401E+01   1.8620E-06  0.0230
   2.1401E+01   2.1922E+01   1.7697E-06  0.0233
   2.1922E+01   2.2455E+01   1.5111E-06  0.0249
   2.2455E+01   2.3001E+01   1.4551E-06  0.0251
   2.3001E+01   2.3561E+01   1.3089E-06  0.0261
   2.3561E+01   2.4134E+01   1.2071E-06  0.0269
   2.4134E+01   2.4721E+01   1.0848E-06  0.0280
   2.4721E+01   2.5323E+01   9.6593E-07  0.0293
   2.5323E+01   2.5939E+01   9.0728E-07  0.0299
   2.5939E+01   2.6570E+01   8.6830E-07  0.0302
   2.6570E+01   2.7217E+01   7.1697E-07  0.0328
   2.7217E+01   2.7879E+01   5.9347E-07  0.0357
   2.7879E+01   2.8557E+01   6.0223E-07  0.0350
   2.8557E+01   2.9252E+01   5.2748E-07  0.0369
   2.9252E+01   2.9964E+01   4.5242E-07  0.0394
   2.9964E+01   3.0693E+01   3.7858E-07  0.0426
   3.0693E+01   3.1440E+01   3.7494E-07  0.0423
   3.1440E+01   3.2205E+01   3.0133E-07  0.0466
   3.2205E+01   3.2988E+01   2.4248E-07  0.0513
   3.2988E+01   3.3791E+01   2.2738E-07  0.0523
   3.3791E+01   3.4613E+01   1.9826E-07  0.0554
   3.4613E+01   3.5455E+01   1.7811E-07  0.0577
   3.5455E+01   3.6318E+01   1.3389E-07  0.0658
   3.6318E+01   3.7201E+01   9.6759E-08  0.0765
   3.7201E+01   3.8106E+01   1.0219E-07  0.0735
   3.8106E+01   3.9034E+01   7.3342E-08  0.0857
   3.9034E+01   3.9983E+01   6.5283E-08  0.0898
   3.9983E+01   4.0956E+01   6.3218E-08  0.0902
   4.0956E+01   4.1953E+01   4.8671E-08  0.1015
   4.1953E+01   4.2973E+01   3.3799E-08  0.1204
   4.2973E+01   4.4019E+01   2.4388E-08  0.1400
   4.4019E+01   4.5090E+01   1.4472E-08  0.1796
   4.5090E+01   4.6187E+01   5.0133E-09  0.3015
   4.6187E+01   4.7311E+01   4.4493E-09  0.3162
   4.7311E+01   4.8462E+01   3.0405E-09  0.3780
   4.8462E+01   4.9641E+01   0.0000E+00  0.0000
   4.9641E+01   5.0849E+01   0.0000E+00  0.0000
   5.0849E+01   5.2086E+01   0.0000E+00  0.0000
   5.2086E+01   5.3353E+01   0.0000E+00  0.0000
   5.3353E+01   5.4651E+01   0.0000E+00  0.0000
   5.4651E+01   5.5981E+01   0.0000E+00  0.0000
   5.5981E+01   5.7343E+01   0.0000E+00  0.0000
   5.7343E+01   5.8738E+01   0.0000E+00  0.0000
   5.8738E+01   6.0168E+01   0.0000E+00  0.0000
   6.0168E+01   6.1632E+01   0.0000E+00  0.0000
   6.1632E+01   6.3131E+01   0.0000E+00  0.0000
   6.3131E+01   6.4667E+01   0.0000E+00  0.0000
   6.4667E+01   6.6240E+01   0.0000E+00  0.0000
   6.6240E+01   6.7852E+01   0.0000E+00  0.0000
   6.7852E+01   6.9503E+01   0.0000E+00  0.0000
   6.9503E+01   7.1194E+01   0.0000E+00  0.0000
   7.1194E+01   7.2926E+01   0.0000E+00  0.0000
   7.2926E+01   7.4701E+01   0.0000E+00  0.0000
   7.4701E+01   7.6518E+01   0.0000E+00  0.0000
   7.6518E+01   7.8380E+01   0.0000E+00  0.0000
   7.8380E+01   8.0287E+01   0.0000E+00  0.0000
   8.0287E+01   8.2240E+01   0.0000E+00  0.0000
   8.2240E+01   8.4241E+01   0.0000E+00  0.0000
   8.4241E+01   8.6291E+01   0.0000E+00  0.0000
   8.6291E+01   8.8391E+01   0.0000E+00  0.0000
   8.8391E+01   9.0541E+01   0.0000E+00  0.0000
   9.0541E+01   9.2744E+01   0.0000E+00  0.0000
   9.2744E+01   9.5001E+01   0.0000E+00  0.0000
   9.5001E+01   9.7312E+01   0.0000E+00  0.0000
   9.7312E+01   9.9680E+01   0.0000E+00  0.0000
   9.9680E+01   1.0211E+02   0.0000E+00  0.0000
   1.0211E+02   1.0459E+02   0.0000E+00  0.0000
   1.0459E+02   1.0713E+02   0.0000E+00  0.0000
   1.0713E+02   1.0974E+02   0.0000E+00  0.0000
   1.0974E+02   1.1241E+02   0.0000E+00  0.0000
   1.1241E+02   1.1515E+02   0.0000E+00  0.0000
   1.1515E+02   1.1795E+02   0.0000E+00  0.0000
   1.1795E+02   1.2082E+02   0.0000E+00  0.0000
   1.2082E+02   1.2376E+02   0.0000E+00  0.0000
   1.2376E+02   1.2677E+02   0.0000E+00  0.0000
   1.2677E+02   1.2985E+02   0.0000E+00  0.0000
   1.2985E+02   1.3301E+02   0.0000E+00  0.0000
   1.3301E+02   1.3625E+02   0.0000E+00  0.0000
   1.3625E+02   1.3956E+02   0.0000E+00  0.0000
   1.3956E+02   1.4296E+02   0.0000E+00  0.0000
   1.4296E+02   1.4644E+02   0.0000E+00  0.0000
   1.4644E+02   1.5000E+02   0.0000E+00  0.0000

#   sum over                 2.5058E-05
'no. =    1   reg = 116 - 216'
msuc: {\huge [t-cross] in region mesh}
msdr: {\it plotted by \ANGEL \version}
msdl: {\it calculated by \PHITS  3.26}
wt: s(0.7)
\vspace{-3}
  region surface crossing
  area  &=&   1.0000E+00 [cm^2]
e:
 
# Information for Restart Calculation
# This calculation was newly started
# istdev =  2 # 1:Batch variance, 2:History variance
# resc2  = 2.00000000000000000E+09 # Total source weight or Total source weight / maxcas
# resc3  = 2.00000000000000000E+09 # Total history number or Total batch number
# maxcas =   500000000 # History / Batch, only used for istdev=1
# bitrseed = 0011011010010000100111110110001101100001010011100000011100000110 # bit data of rseed
