[ T-Cross ]
    title = [t-cross] in region mesh
     mesh =  reg            # mesh type is region-wise
      reg =    1            # number of crossing regions
      non     r-from    r-to       area
      1       112       212        1.000000    
   e-type =    3            # e-mesh is log given by emin, emax and ne
     emin =  1.0000000E-02  # minimum value of e-mesh points
     emax =   150.0000      # maximum value of e-mesh points
#    edel =  2.4039514E-02  # mesh width of e-mesh points
       ne =    400          # number of e-mesh points
#    data = ( e(i), i = 1, ne + 1 )
#           1.00000E-02  1.02433E-02  1.04925E-02  1.07478E-02  1.10093E-02
#           1.12772E-02  1.15516E-02  1.18326E-02  1.21205E-02  1.24154E-02
#           1.27175E-02  1.30269E-02  1.33439E-02  1.36686E-02  1.40011E-02
#           1.43418E-02  1.46907E-02  1.50482E-02  1.54143E-02  1.57894E-02
#           1.61735E-02  1.65670E-02  1.69701E-02  1.73830E-02  1.78060E-02
#           1.82392E-02  1.86830E-02  1.91375E-02  1.96032E-02  2.00801E-02
#           2.05687E-02  2.10692E-02  2.15818E-02  2.21069E-02  2.26448E-02
#           2.31957E-02  2.37601E-02  2.43382E-02  2.49304E-02  2.55369E-02
#           2.61583E-02  2.67947E-02  2.74467E-02  2.81145E-02  2.87985E-02
#           2.94992E-02  3.02169E-02  3.09521E-02  3.17052E-02  3.24766E-02
#           3.32668E-02  3.40762E-02  3.49053E-02  3.57546E-02  3.66246E-02
#           3.75157E-02  3.84284E-02  3.93634E-02  4.03212E-02  4.13022E-02
#           4.23071E-02  4.33365E-02  4.43909E-02  4.54710E-02  4.65773E-02
#           4.77106E-02  4.88714E-02  5.00605E-02  5.12785E-02  5.25262E-02
#           5.38042E-02  5.51133E-02  5.64542E-02  5.78278E-02  5.92348E-02
#           6.06760E-02  6.21523E-02  6.36645E-02  6.52135E-02  6.68002E-02
#           6.84255E-02  7.00904E-02  7.17957E-02  7.35426E-02  7.53319E-02
#           7.71648E-02  7.90423E-02  8.09655E-02  8.29354E-02  8.49533E-02
#           8.70203E-02  8.91376E-02  9.13064E-02  9.35279E-02  9.58035E-02
#           9.81345E-02  1.00522E-01  1.02968E-01  1.05473E-01  1.08040E-01
#           1.10668E-01  1.13361E-01  1.16119E-01  1.18944E-01  1.21838E-01
#           1.24803E-01  1.27839E-01  1.30950E-01  1.34136E-01  1.37399E-01
#           1.40742E-01  1.44167E-01  1.47675E-01  1.51268E-01  1.54948E-01
#           1.58718E-01  1.62580E-01  1.66535E-01  1.70587E-01  1.74738E-01
#           1.78989E-01  1.83344E-01  1.87805E-01  1.92375E-01  1.97055E-01
#           2.01850E-01  2.06761E-01  2.11792E-01  2.16945E-01  2.22223E-01
#           2.27630E-01  2.33169E-01  2.38842E-01  2.44653E-01  2.50605E-01
#           2.56703E-01  2.62949E-01  2.69346E-01  2.75900E-01  2.82613E-01
#           2.89489E-01  2.96532E-01  3.03747E-01  3.11138E-01  3.18708E-01
#           3.26462E-01  3.34405E-01  3.42542E-01  3.50876E-01  3.59413E-01
#           3.68158E-01  3.77116E-01  3.86291E-01  3.95690E-01  4.05317E-01
#           4.15179E-01  4.25281E-01  4.35628E-01  4.46227E-01  4.57084E-01
#           4.68205E-01  4.79597E-01  4.91266E-01  5.03219E-01  5.15463E-01
#           5.28005E-01  5.40851E-01  5.54011E-01  5.67490E-01  5.81298E-01
#           5.95441E-01  6.09929E-01  6.24769E-01  6.39970E-01  6.55541E-01
#           6.71491E-01  6.87828E-01  7.04564E-01  7.21706E-01  7.39266E-01
#           7.57253E-01  7.75678E-01  7.94551E-01  8.13883E-01  8.33685E-01
#           8.53969E-01  8.74747E-01  8.96030E-01  9.17831E-01  9.40163E-01
#           9.63038E-01  9.86469E-01  1.01047E+00  1.03506E+00  1.06024E+00
#           1.08604E+00  1.11246E+00  1.13953E+00  1.16725E+00  1.19565E+00
#           1.22474E+00  1.25454E+00  1.28507E+00  1.31633E+00  1.34836E+00
#           1.38117E+00  1.41477E+00  1.44920E+00  1.48446E+00  1.52057E+00
#           1.55757E+00  1.59547E+00  1.63429E+00  1.67405E+00  1.71478E+00
#           1.75650E+00  1.79924E+00  1.84302E+00  1.88786E+00  1.93379E+00
#           1.98084E+00  2.02904E+00  2.07841E+00  2.12898E+00  2.18078E+00
#           2.23384E+00  2.28819E+00  2.34386E+00  2.40089E+00  2.45930E+00
#           2.51914E+00  2.58043E+00  2.64322E+00  2.70753E+00  2.77341E+00
#           2.84088E+00  2.91001E+00  2.98081E+00  3.05333E+00  3.12762E+00
#           3.20372E+00  3.28167E+00  3.36152E+00  3.44330E+00  3.52708E+00
#           3.61290E+00  3.70080E+00  3.79085E+00  3.88308E+00  3.97756E+00
#           4.07434E+00  4.17347E+00  4.27501E+00  4.37903E+00  4.48557E+00
#           4.59471E+00  4.70650E+00  4.82102E+00  4.93832E+00  5.05847E+00
#           5.18155E+00  5.30762E+00  5.43676E+00  5.56904E+00  5.70453E+00
#           5.84333E+00  5.98550E+00  6.13114E+00  6.28031E+00  6.43312E+00
#           6.58964E+00  6.74997E+00  6.91420E+00  7.08243E+00  7.25475E+00
#           7.43126E+00  7.61207E+00  7.79728E+00  7.98700E+00  8.18133E+00
#           8.38038E+00  8.58428E+00  8.79315E+00  9.00709E+00  9.22624E+00
#           9.45072E+00  9.68067E+00  9.91620E+00  1.01575E+01  1.04046E+01
#           1.06578E+01  1.09171E+01  1.11827E+01  1.14548E+01  1.17335E+01
#           1.20190E+01  1.23114E+01  1.26109E+01  1.29178E+01  1.32321E+01
#           1.35540E+01  1.38838E+01  1.42216E+01  1.45676E+01  1.49221E+01
#           1.52851E+01  1.56570E+01  1.60380E+01  1.64282E+01  1.68279E+01
#           1.72374E+01  1.76568E+01  1.80864E+01  1.85264E+01  1.89772E+01
#           1.94389E+01  1.99119E+01  2.03963E+01  2.08926E+01  2.14009E+01
#           2.19216E+01  2.24550E+01  2.30014E+01  2.35610E+01  2.41343E+01
#           2.47215E+01  2.53230E+01  2.59391E+01  2.65702E+01  2.72167E+01
#           2.78789E+01  2.85572E+01  2.92520E+01  2.99637E+01  3.06928E+01
#           3.14396E+01  3.22045E+01  3.29881E+01  3.37907E+01  3.46128E+01
#           3.54550E+01  3.63177E+01  3.72013E+01  3.81064E+01  3.90336E+01
#           3.99833E+01  4.09561E+01  4.19526E+01  4.29734E+01  4.40189E+01
#           4.50900E+01  4.61870E+01  4.73108E+01  4.84619E+01  4.96410E+01
#           5.08488E+01  5.20860E+01  5.33533E+01  5.46514E+01  5.59812E+01
#           5.73432E+01  5.87384E+01  6.01676E+01  6.16315E+01  6.31311E+01
#           6.46671E+01  6.62405E+01  6.78522E+01  6.95031E+01  7.11941E+01
#           7.29263E+01  7.47007E+01  7.65182E+01  7.83800E+01  8.02870E+01
#           8.22405E+01  8.42414E+01  8.62911E+01  8.83906E+01  9.05412E+01
#           9.27442E+01  9.50007E+01  9.73122E+01  9.96799E+01  1.02105E+02
#           1.04589E+02  1.07134E+02  1.09741E+02  1.12411E+02  1.15146E+02
#           1.17948E+02  1.20817E+02  1.23757E+02  1.26768E+02  1.29852E+02
#           1.33012E+02  1.36248E+02  1.39563E+02  1.42959E+02  1.46437E+02
#           1.50000E+02
     unit =    2            # unit is [1/cm^2/(MeV/n)/source]
     axis =  eng            # axis of output
     file = detector-13.out  # file name of output for the above axis
   output = f-curr          # surface crossing forward current spectrum
     part =  neutron  
# kf/name :  2112     
#    used :        main (  %)        temp (  %)       total (  %)
#  memory :         414 (  0)           0 (  0)         414 (  0)

#------------------------------------------------------------------------------
#newpage:
#   no. =    1   reg = 112 - 212

x: Energy [MeV/n]
y:  F-Curr [1/cm^2/(MeV/n)/source]         
p: xlog ylog afac(0.8) form(0.9)
h: n            x            y(neutron ),hh0l   n 
#  e-lower      e-upper      neutron     r.err 
   1.0000E-02   1.0243E-02   3.5116E-03  0.0216
   1.0243E-02   1.0493E-02   3.4234E-03  0.0217
   1.0493E-02   1.0748E-02   3.3922E-03  0.0215
   1.0748E-02   1.1009E-02   3.5151E-03  0.0209
   1.1009E-02   1.1277E-02   3.2912E-03  0.0213
   1.1277E-02   1.1552E-02   3.2509E-03  0.0212
   1.1552E-02   1.1833E-02   3.2548E-03  0.0209
   1.1833E-02   1.2121E-02   3.1539E-03  0.0210
   1.2121E-02   1.2415E-02   3.0397E-03  0.0211
   1.2415E-02   1.2718E-02   3.0641E-03  0.0208
   1.2718E-02   1.3027E-02   3.0237E-03  0.0207
   1.3027E-02   1.3344E-02   3.0421E-03  0.0204
   1.3344E-02   1.3669E-02   3.0160E-03  0.0202
   1.3669E-02   1.4001E-02   2.8253E-03  0.0206
   1.4001E-02   1.4342E-02   2.8369E-03  0.0203
   1.4342E-02   1.4691E-02   2.6388E-03  0.0208
   1.4691E-02   1.5048E-02   2.7596E-03  0.0201
   1.5048E-02   1.5414E-02   2.7149E-03  0.0201
   1.5414E-02   1.5789E-02   2.6493E-03  0.0201
   1.5789E-02   1.6174E-02   2.4630E-03  0.0206
   1.6174E-02   1.6567E-02   2.5798E-03  0.0198
   1.6567E-02   1.6970E-02   2.5265E-03  0.0198
   1.6970E-02   1.7383E-02   2.5217E-03  0.0196
   1.7383E-02   1.7806E-02   2.3483E-03  0.0201
   1.7806E-02   1.8239E-02   2.3461E-03  0.0198
   1.8239E-02   1.8683E-02   2.3187E-03  0.0197
   1.8683E-02   1.9138E-02   2.2131E-03  0.0199
   1.9138E-02   1.9603E-02   2.2541E-03  0.0195
   1.9603E-02   2.0080E-02   2.1696E-03  0.0197
   2.0080E-02   2.0569E-02   2.1901E-03  0.0193
   2.0569E-02   2.1069E-02   2.1101E-03  0.0195
   2.1069E-02   2.1582E-02   2.0978E-03  0.0193
   2.1582E-02   2.2107E-02   2.0430E-03  0.0193
   2.2107E-02   2.2645E-02   2.0213E-03  0.0192
   2.2645E-02   2.3196E-02   1.8869E-03  0.0196
   2.3196E-02   2.3760E-02   1.9810E-03  0.0189
   2.3760E-02   2.4338E-02   1.9408E-03  0.0189
   2.4338E-02   2.4930E-02   1.9157E-03  0.0188
   2.4930E-02   2.5537E-02   1.8557E-03  0.0189
   2.5537E-02   2.6158E-02   1.8225E-03  0.0188
   2.6158E-02   2.6795E-02   1.8195E-03  0.0186
   2.6795E-02   2.7447E-02   1.7940E-03  0.0185
   2.7447E-02   2.8114E-02   1.7275E-03  0.0186
   2.8114E-02   2.8799E-02   1.6478E-03  0.0188
   2.8799E-02   2.9499E-02   1.6475E-03  0.0186
   2.9499E-02   3.0217E-02   1.5956E-03  0.0187
   3.0217E-02   3.0952E-02   1.5966E-03  0.0185
   3.0952E-02   3.1705E-02   1.5401E-03  0.0186
   3.1705E-02   3.2477E-02   1.4939E-03  0.0186
   3.2477E-02   3.3267E-02   1.4943E-03  0.0184
   3.3267E-02   3.4076E-02   1.4450E-03  0.0185
   3.4076E-02   3.4905E-02   1.4121E-03  0.0185
   3.4905E-02   3.5755E-02   1.4450E-03  0.0181
   3.5755E-02   3.6625E-02   1.4304E-03  0.0179
   3.6625E-02   3.7516E-02   1.3646E-03  0.0181
   3.7516E-02   3.8428E-02   1.3725E-03  0.0179
   3.8428E-02   3.9363E-02   1.3147E-03  0.0180
   3.9363E-02   4.0321E-02   1.2939E-03  0.0180
   4.0321E-02   4.1302E-02   1.2672E-03  0.0179
   4.1302E-02   4.2307E-02   1.2240E-03  0.0180
   4.2307E-02   4.3337E-02   1.2198E-03  0.0178
   4.3337E-02   4.4391E-02   1.1957E-03  0.0178
   4.4391E-02   4.5471E-02   1.1736E-03  0.0178
   4.5471E-02   4.6577E-02   1.1259E-03  0.0179
   4.6577E-02   4.7711E-02   1.1485E-03  0.0175
   4.7711E-02   4.8871E-02   1.0923E-03  0.0178
   4.8871E-02   5.0061E-02   1.0795E-03  0.0177
   5.0061E-02   5.1279E-02   1.0752E-03  0.0175
   5.1279E-02   5.2526E-02   1.0442E-03  0.0175
   5.2526E-02   5.3804E-02   1.0410E-03  0.0173
   5.3804E-02   5.5113E-02   1.0031E-03  0.0175
   5.5113E-02   5.6454E-02   9.8706E-04  0.0174
   5.6454E-02   5.7828E-02   9.5401E-04  0.0175
   5.7828E-02   5.9235E-02   9.2708E-04  0.0175
   5.9235E-02   6.0676E-02   9.1686E-04  0.0174
   6.0676E-02   6.2152E-02   8.7652E-04  0.0176
   6.2152E-02   6.3665E-02   8.5411E-04  0.0176
   6.3665E-02   6.5214E-02   8.5732E-04  0.0174
   6.5214E-02   6.6800E-02   8.2158E-04  0.0175
   6.6800E-02   6.8426E-02   8.1880E-04  0.0173
   6.8426E-02   7.0090E-02   7.7869E-04  0.0176
   7.0090E-02   7.1796E-02   7.7321E-04  0.0174
   7.1796E-02   7.3543E-02   7.5553E-04  0.0174
   7.3543E-02   7.5332E-02   7.4485E-04  0.0173
   7.5332E-02   7.7165E-02   7.2956E-04  0.0173
   7.7165E-02   7.9042E-02   6.9476E-04  0.0175
   7.9042E-02   8.0965E-02   6.9885E-04  0.0173
   8.0965E-02   8.2935E-02   6.6377E-04  0.0175
   8.2935E-02   8.4953E-02   6.3393E-04  0.0177
   8.4953E-02   8.7020E-02   6.4616E-04  0.0173
   8.7020E-02   8.9138E-02   6.2892E-04  0.0173
   8.9138E-02   9.1306E-02   6.0937E-04  0.0174
   9.1306E-02   9.3528E-02   6.0516E-04  0.0172
   9.3528E-02   9.5804E-02   5.8428E-04  0.0173
   9.5804E-02   9.8134E-02   5.8001E-04  0.0172
   9.8134E-02   1.0052E-01   5.6305E-04  0.0172
   1.0052E-01   1.0297E-01   5.3791E-04  0.0174
   1.0297E-01   1.0547E-01   5.3519E-04  0.0173
   1.0547E-01   1.0804E-01   5.1453E-04  0.0174
   1.0804E-01   1.1067E-01   4.9743E-04  0.0175
   1.1067E-01   1.1336E-01   4.8755E-04  0.0175
   1.1336E-01   1.1612E-01   4.8380E-04  0.0173
   1.1612E-01   1.1894E-01   4.5999E-04  0.0175
   1.1894E-01   1.2184E-01   4.5017E-04  0.0175
   1.2184E-01   1.2480E-01   4.3685E-04  0.0176
   1.2480E-01   1.2784E-01   4.3444E-04  0.0174
   1.2784E-01   1.3095E-01   4.1512E-04  0.0176
   1.3095E-01   1.3414E-01   4.0714E-04  0.0176
   1.3414E-01   1.3740E-01   3.9808E-04  0.0175
   1.3740E-01   1.4074E-01   3.7128E-04  0.0180
   1.4074E-01   1.4417E-01   3.6363E-04  0.0179
   1.4417E-01   1.4767E-01   3.5978E-04  0.0178
   1.4767E-01   1.5127E-01   3.5480E-04  0.0177
   1.5127E-01   1.5495E-01   3.4012E-04  0.0179
   1.5495E-01   1.5872E-01   3.3188E-04  0.0179
   1.5872E-01   1.6258E-01   3.1747E-04  0.0181
   1.6258E-01   1.6654E-01   3.0953E-04  0.0181
   1.6654E-01   1.7059E-01   2.9892E-04  0.0182
   1.7059E-01   1.7474E-01   3.0521E-04  0.0178
   1.7474E-01   1.7899E-01   2.7887E-04  0.0184
   1.7899E-01   1.8334E-01   2.6939E-04  0.0185
   1.8334E-01   1.8781E-01   2.6694E-04  0.0183
   1.8781E-01   1.9237E-01   2.5631E-04  0.0185
   1.9237E-01   1.9706E-01   2.5283E-04  0.0184
   1.9706E-01   2.0185E-01   2.4194E-04  0.0186
   2.0185E-01   2.0676E-01   2.2944E-04  0.0188
   2.0676E-01   2.1179E-01   2.1182E-04  0.0194
   2.1179E-01   2.1694E-01   2.1587E-04  0.0190
   2.1694E-01   2.2222E-01   2.0658E-04  0.0192
   2.2222E-01   2.2763E-01   2.0293E-04  0.0191
   2.2763E-01   2.3317E-01   1.9413E-04  0.0193
   2.3317E-01   2.3884E-01   1.8917E-04  0.0193
   2.3884E-01   2.4465E-01   1.8075E-04  0.0195
   2.4465E-01   2.5061E-01   1.7055E-04  0.0199
   2.5061E-01   2.5670E-01   1.7010E-04  0.0196
   2.5670E-01   2.6295E-01   1.6632E-04  0.0196
   2.6295E-01   2.6935E-01   1.5831E-04  0.0199
   2.6935E-01   2.7590E-01   1.5503E-04  0.0198
   2.7590E-01   2.8261E-01   1.4384E-04  0.0204
   2.8261E-01   2.8949E-01   1.3903E-04  0.0205
   2.8949E-01   2.9653E-01   1.3175E-04  0.0208
   2.9653E-01   3.0375E-01   1.3162E-04  0.0205
   3.0375E-01   3.1114E-01   1.3001E-04  0.0204
   3.1114E-01   3.1871E-01   1.1566E-04  0.0214
   3.1871E-01   3.2646E-01   1.1611E-04  0.0211
   3.2646E-01   3.3441E-01   1.1562E-04  0.0209
   3.3441E-01   3.4254E-01   1.1057E-04  0.0211
   3.4254E-01   3.5088E-01   1.0266E-04  0.0216
   3.5088E-01   3.5941E-01   9.5489E-05  0.0222
   3.5941E-01   3.6816E-01   9.7292E-05  0.0217
   3.6816E-01   3.7712E-01   9.0962E-05  0.0222
   3.7712E-01   3.8629E-01   8.5009E-05  0.0226
   3.8629E-01   3.9569E-01   8.5884E-05  0.0223
   3.9569E-01   4.0532E-01   8.2140E-05  0.0225
   4.0532E-01   4.1518E-01   7.8851E-05  0.0227
   4.1518E-01   4.2528E-01   6.9771E-05  0.0238
   4.2528E-01   4.3563E-01   7.3487E-05  0.0229
   4.3563E-01   4.4623E-01   6.7892E-05  0.0236
   4.4623E-01   4.5708E-01   6.2448E-05  0.0243
   4.5708E-01   4.6821E-01   6.1900E-05  0.0241
   4.6821E-01   4.7960E-01   6.1377E-05  0.0239
   4.7960E-01   4.9127E-01   5.7914E-05  0.0243
   4.9127E-01   5.0322E-01   5.4698E-05  0.0247
   5.0322E-01   5.1546E-01   5.0638E-05  0.0254
   5.1546E-01   5.2800E-01   5.0456E-05  0.0251
   5.2800E-01   5.4085E-01   5.0939E-05  0.0247
   5.4085E-01   5.5401E-01   4.6552E-05  0.0256
   5.5401E-01   5.6749E-01   4.3459E-05  0.0261
   5.6749E-01   5.8130E-01   4.1803E-05  0.0263
   5.8130E-01   5.9544E-01   3.9990E-05  0.0266
   5.9544E-01   6.0993E-01   3.9344E-05  0.0265
   6.0993E-01   6.2477E-01   3.9030E-05  0.0263
   6.2477E-01   6.3997E-01   3.6103E-05  0.0270
   6.3997E-01   6.5554E-01   3.6221E-05  0.0266
   6.5554E-01   6.7149E-01   3.5185E-05  0.0267
   6.7149E-01   6.8783E-01   3.1583E-05  0.0278
   6.8783E-01   7.0456E-01   3.2147E-05  0.0273
   7.0456E-01   7.2171E-01   3.0987E-05  0.0274
   7.2171E-01   7.3927E-01   2.9966E-05  0.0276
   7.3927E-01   7.5725E-01   2.8776E-05  0.0278
   7.5725E-01   7.7568E-01   2.7659E-05  0.0280
   7.7568E-01   7.9455E-01   2.5709E-05  0.0287
   7.9455E-01   8.1388E-01   2.4726E-05  0.0290
   8.1388E-01   8.3368E-01   2.3553E-05  0.0293
   8.3368E-01   8.5397E-01   2.4650E-05  0.0283
   8.5397E-01   8.7475E-01   2.3140E-05  0.0288
   8.7475E-01   8.9603E-01   2.1153E-05  0.0298
   8.9603E-01   9.1783E-01   2.2182E-05  0.0288
   9.1783E-01   9.4016E-01   2.0294E-05  0.0297
   9.4016E-01   9.6304E-01   2.0512E-05  0.0292
   9.6304E-01   9.8647E-01   1.9410E-05  0.0297
   9.8647E-01   1.0105E+00   1.9099E-05  0.0295
   1.0105E+00   1.0351E+00   1.9345E-05  0.0290
   1.0351E+00   1.0602E+00   2.0823E-05  0.0276
   1.0602E+00   1.0860E+00   2.2282E-05  0.0264
   1.0860E+00   1.1125E+00   2.1011E-05  0.0268
   1.1125E+00   1.1395E+00   2.3852E-05  0.0249
   1.1395E+00   1.1673E+00   2.5074E-05  0.0240
   1.1673E+00   1.1957E+00   2.6507E-05  0.0231
   1.1957E+00   1.2247E+00   2.7438E-05  0.0224
   1.2247E+00   1.2545E+00   2.9182E-05  0.0214
   1.2545E+00   1.2851E+00   2.9904E-05  0.0209
   1.2851E+00   1.3163E+00   3.0121E-05  0.0206
   1.3163E+00   1.3484E+00   3.2322E-05  0.0197
   1.3484E+00   1.3812E+00   3.3969E-05  0.0189
   1.3812E+00   1.4148E+00   3.4864E-05  0.0185
   1.4148E+00   1.4492E+00   3.6035E-05  0.0180
   1.4492E+00   1.4845E+00   3.6336E-05  0.0177
   1.4845E+00   1.5206E+00   3.6691E-05  0.0174
   1.5206E+00   1.5576E+00   3.5473E-05  0.0175
   1.5576E+00   1.5955E+00   3.8531E-05  0.0166
   1.5955E+00   1.6343E+00   4.0475E-05  0.0160
   1.6343E+00   1.6741E+00   4.0525E-05  0.0158
   1.6741E+00   1.7148E+00   4.2493E-05  0.0152
   1.7148E+00   1.7565E+00   4.1839E-05  0.0151
   1.7565E+00   1.7992E+00   4.2413E-05  0.0149
   1.7992E+00   1.8430E+00   4.2516E-05  0.0147
   1.8430E+00   1.8879E+00   4.4543E-05  0.0142
   1.8879E+00   1.9338E+00   4.5484E-05  0.0138
   1.9338E+00   1.9808E+00   4.5712E-05  0.0136
   1.9808E+00   2.0290E+00   4.5797E-05  0.0135
   2.0290E+00   2.0784E+00   4.5770E-05  0.0133
   2.0784E+00   2.1290E+00   4.5419E-05  0.0132
   2.1290E+00   2.1808E+00   4.4471E-05  0.0132
   2.1808E+00   2.2338E+00   4.4470E-05  0.0130
   2.2338E+00   2.2882E+00   4.5361E-05  0.0127
   2.2882E+00   2.3439E+00   4.5824E-05  0.0125
   2.3439E+00   2.4009E+00   4.4480E-05  0.0126
   2.4009E+00   2.4593E+00   4.3899E-05  0.0125
   2.4593E+00   2.5191E+00   4.4087E-05  0.0123
   2.5191E+00   2.5804E+00   4.1669E-05  0.0125
   2.5804E+00   2.6432E+00   4.0998E-05  0.0125
   2.6432E+00   2.7075E+00   4.0652E-05  0.0124
   2.7075E+00   2.7734E+00   3.9371E-05  0.0124
   2.7734E+00   2.8409E+00   3.9366E-05  0.0123
   2.8409E+00   2.9100E+00   3.9149E-05  0.0122
   2.9100E+00   2.9808E+00   3.9578E-05  0.0119
   2.9808E+00   3.0533E+00   3.8519E-05  0.0120
   3.0533E+00   3.1276E+00   3.6783E-05  0.0121
   3.1276E+00   3.2037E+00   3.4811E-05  0.0123
   3.2037E+00   3.2817E+00   3.3245E-05  0.0124
   3.2817E+00   3.3615E+00   3.2403E-05  0.0124
   3.3615E+00   3.4433E+00   3.1740E-05  0.0124
   3.4433E+00   3.5271E+00   3.0815E-05  0.0124
   3.5271E+00   3.6129E+00   3.0381E-05  0.0124
   3.6129E+00   3.7008E+00   2.8947E-05  0.0125
   3.7008E+00   3.7908E+00   2.8542E-05  0.0125
   3.7908E+00   3.8831E+00   2.6571E-05  0.0128
   3.8831E+00   3.9776E+00   2.5606E-05  0.0129
   3.9776E+00   4.0743E+00   2.5361E-05  0.0128
   4.0743E+00   4.1735E+00   2.4674E-05  0.0128
   4.1735E+00   4.2750E+00   2.2528E-05  0.0132
   4.2750E+00   4.3790E+00   2.2283E-05  0.0131
   4.3790E+00   4.4856E+00   2.1658E-05  0.0132
   4.4856E+00   4.5947E+00   2.0755E-05  0.0133
   4.5947E+00   4.7065E+00   2.0345E-05  0.0133
   4.7065E+00   4.8210E+00   1.9629E-05  0.0133
   4.8210E+00   4.9383E+00   1.8940E-05  0.0134
   4.9383E+00   5.0585E+00   1.8936E-05  0.0133
   5.0585E+00   5.1815E+00   1.8223E-05  0.0134
   5.1815E+00   5.3076E+00   1.7568E-05  0.0134
   5.3076E+00   5.4368E+00   1.6727E-05  0.0136
   5.4368E+00   5.5690E+00   1.6005E-05  0.0137
   5.5690E+00   5.7045E+00   1.6040E-05  0.0136
   5.7045E+00   5.8433E+00   1.5981E-05  0.0134
   5.8433E+00   5.9855E+00   1.5688E-05  0.0134
   5.9855E+00   6.1311E+00   1.5400E-05  0.0134
   6.1311E+00   6.2803E+00   1.4805E-05  0.0135
   6.2803E+00   6.4331E+00   1.4725E-05  0.0133
   6.4331E+00   6.5896E+00   1.4663E-05  0.0132
   6.5896E+00   6.7500E+00   1.4078E-05  0.0133
   6.7500E+00   6.9142E+00   1.4297E-05  0.0130
   6.9142E+00   7.0824E+00   1.4342E-05  0.0129
   7.0824E+00   7.2548E+00   1.4021E-05  0.0129
   7.2548E+00   7.4313E+00   1.3802E-05  0.0128
   7.4313E+00   7.6121E+00   1.3862E-05  0.0126
   7.6121E+00   7.7973E+00   1.3570E-05  0.0126
   7.7973E+00   7.9870E+00   1.3752E-05  0.0124
   7.9870E+00   8.1813E+00   1.3687E-05  0.0123
   8.1813E+00   8.3804E+00   1.3833E-05  0.0120
   8.3804E+00   8.5843E+00   1.3603E-05  0.0120
   8.5843E+00   8.7931E+00   1.3627E-05  0.0119
   8.7931E+00   9.0071E+00   1.3680E-05  0.0117
   9.0071E+00   9.2262E+00   1.3483E-05  0.0116
   9.2262E+00   9.4507E+00   1.3453E-05  0.0115
   9.4507E+00   9.6807E+00   1.3316E-05  0.0114
   9.6807E+00   9.9162E+00   1.3636E-05  0.0112
   9.9162E+00   1.0157E+01   1.3271E-05  0.0112
   1.0157E+01   1.0405E+01   1.3430E-05  0.0110
   1.0405E+01   1.0658E+01   1.3117E-05  0.0110
   1.0658E+01   1.0917E+01   1.3169E-05  0.0108
   1.0917E+01   1.1183E+01   1.3278E-05  0.0106
   1.1183E+01   1.1455E+01   1.3172E-05  0.0106
   1.1455E+01   1.1733E+01   1.3041E-05  0.0105
   1.1733E+01   1.2019E+01   1.2575E-05  0.0105
   1.2019E+01   1.2311E+01   1.2584E-05  0.0104
   1.2311E+01   1.2611E+01   1.2522E-05  0.0103
   1.2611E+01   1.2918E+01   1.2270E-05  0.0103
   1.2918E+01   1.3232E+01   1.2206E-05  0.0102
   1.3232E+01   1.3554E+01   1.1708E-05  0.0103
   1.3554E+01   1.3884E+01   1.1725E-05  0.0102
   1.3884E+01   1.4222E+01   1.1267E-05  0.0102
   1.4222E+01   1.4568E+01   1.0956E-05  0.0103
   1.4568E+01   1.4922E+01   1.0873E-05  0.0102
   1.4922E+01   1.5285E+01   1.0616E-05  0.0102
   1.5285E+01   1.5657E+01   1.0296E-05  0.0102
   1.5657E+01   1.6038E+01   1.0003E-05  0.0102
   1.6038E+01   1.6428E+01   9.5613E-06  0.0103
   1.6428E+01   1.6828E+01   9.3823E-06  0.0103
   1.6828E+01   1.7237E+01   8.9332E-06  0.0104
   1.7237E+01   1.7657E+01   8.5999E-06  0.0105
   1.7657E+01   1.8086E+01   8.4604E-06  0.0105
   1.8086E+01   1.8526E+01   8.1385E-06  0.0106
   1.8526E+01   1.8977E+01   7.6213E-06  0.0108
   1.8977E+01   1.9439E+01   7.3407E-06  0.0109
   1.9439E+01   1.9912E+01   6.8432E-06  0.0111
   1.9912E+01   2.0396E+01   6.6406E-06  0.0112
   2.0396E+01   2.0893E+01   6.7215E-06  0.0110
   2.0893E+01   2.1401E+01   6.5374E-06  0.0110
   2.1401E+01   2.1922E+01   6.1310E-06  0.0112
   2.1922E+01   2.2455E+01   5.7566E-06  0.0114
   2.2455E+01   2.3001E+01   5.5708E-06  0.0115
   2.3001E+01   2.3561E+01   5.1805E-06  0.0117
   2.3561E+01   2.4134E+01   4.8132E-06  0.0120
   2.4134E+01   2.4721E+01   4.5422E-06  0.0122
   2.4721E+01   2.5323E+01   4.3292E-06  0.0124
   2.5323E+01   2.5939E+01   3.9985E-06  0.0127
   2.5939E+01   2.6570E+01   3.7280E-06  0.0130
   2.6570E+01   2.7217E+01   3.3697E-06  0.0136
   2.7217E+01   2.7879E+01   3.1265E-06  0.0139
   2.7879E+01   2.8557E+01   2.9143E-06  0.0142
   2.8557E+01   2.9252E+01   2.6251E-06  0.0148
   2.9252E+01   2.9964E+01   2.4228E-06  0.0152
   2.9964E+01   3.0693E+01   2.0838E-06  0.0162
   3.0693E+01   3.1440E+01   1.9267E-06  0.0167
   3.1440E+01   3.2205E+01   1.6927E-06  0.0176
   3.2205E+01   3.2988E+01   1.4901E-06  0.0185
   3.2988E+01   3.3791E+01   1.2489E-06  0.0200
   3.3791E+01   3.4613E+01   1.1122E-06  0.0209
   3.4613E+01   3.5455E+01   9.5707E-07  0.0223
   3.5455E+01   3.6318E+01   7.6323E-07  0.0246
   3.6318E+01   3.7201E+01   6.6407E-07  0.0261
   3.7201E+01   3.8106E+01   5.3517E-07  0.0287
   3.8106E+01   3.9034E+01   4.0770E-07  0.0325
   3.9034E+01   3.9983E+01   3.4158E-07  0.0351
   3.9983E+01   4.0956E+01   2.3190E-07  0.0421
   4.0956E+01   4.1953E+01   1.7622E-07  0.0477
   4.1953E+01   4.2973E+01   1.1913E-07  0.0574
   4.2973E+01   4.4019E+01   7.3070E-08  0.0724
   4.4019E+01   4.5090E+01   4.4070E-08  0.0921
   4.5090E+01   4.6187E+01   2.0783E-08  0.1325
   4.6187E+01   4.7311E+01   4.9832E-09  0.2673
   4.7311E+01   4.8462E+01   0.0000E+00  0.0000
   4.8462E+01   4.9641E+01   0.0000E+00  0.0000
   4.9641E+01   5.0849E+01   0.0000E+00  0.0000
   5.0849E+01   5.2086E+01   0.0000E+00  0.0000
   5.2086E+01   5.3353E+01   0.0000E+00  0.0000
   5.3353E+01   5.4651E+01   0.0000E+00  0.0000
   5.4651E+01   5.5981E+01   0.0000E+00  0.0000
   5.5981E+01   5.7343E+01   0.0000E+00  0.0000
   5.7343E+01   5.8738E+01   0.0000E+00  0.0000
   5.8738E+01   6.0168E+01   0.0000E+00  0.0000
   6.0168E+01   6.1632E+01   0.0000E+00  0.0000
   6.1632E+01   6.3131E+01   0.0000E+00  0.0000
   6.3131E+01   6.4667E+01   0.0000E+00  0.0000
   6.4667E+01   6.6240E+01   0.0000E+00  0.0000
   6.6240E+01   6.7852E+01   0.0000E+00  0.0000
   6.7852E+01   6.9503E+01   0.0000E+00  0.0000
   6.9503E+01   7.1194E+01   0.0000E+00  0.0000
   7.1194E+01   7.2926E+01   0.0000E+00  0.0000
   7.2926E+01   7.4701E+01   0.0000E+00  0.0000
   7.4701E+01   7.6518E+01   0.0000E+00  0.0000
   7.6518E+01   7.8380E+01   0.0000E+00  0.0000
   7.8380E+01   8.0287E+01   0.0000E+00  0.0000
   8.0287E+01   8.2240E+01   0.0000E+00  0.0000
   8.2240E+01   8.4241E+01   0.0000E+00  0.0000
   8.4241E+01   8.6291E+01   0.0000E+00  0.0000
   8.6291E+01   8.8391E+01   0.0000E+00  0.0000
   8.8391E+01   9.0541E+01   0.0000E+00  0.0000
   9.0541E+01   9.2744E+01   0.0000E+00  0.0000
   9.2744E+01   9.5001E+01   0.0000E+00  0.0000
   9.5001E+01   9.7312E+01   0.0000E+00  0.0000
   9.7312E+01   9.9680E+01   0.0000E+00  0.0000
   9.9680E+01   1.0211E+02   0.0000E+00  0.0000
   1.0211E+02   1.0459E+02   0.0000E+00  0.0000
   1.0459E+02   1.0713E+02   0.0000E+00  0.0000
   1.0713E+02   1.0974E+02   0.0000E+00  0.0000
   1.0974E+02   1.1241E+02   0.0000E+00  0.0000
   1.1241E+02   1.1515E+02   0.0000E+00  0.0000
   1.1515E+02   1.1795E+02   0.0000E+00  0.0000
   1.1795E+02   1.2082E+02   0.0000E+00  0.0000
   1.2082E+02   1.2376E+02   0.0000E+00  0.0000
   1.2376E+02   1.2677E+02   0.0000E+00  0.0000
   1.2677E+02   1.2985E+02   0.0000E+00  0.0000
   1.2985E+02   1.3301E+02   0.0000E+00  0.0000
   1.3301E+02   1.3625E+02   0.0000E+00  0.0000
   1.3625E+02   1.3956E+02   0.0000E+00  0.0000
   1.3956E+02   1.4296E+02   0.0000E+00  0.0000
   1.4296E+02   1.4644E+02   0.0000E+00  0.0000
   1.4644E+02   1.5000E+02   0.0000E+00  0.0000

#   sum over                 3.7289E-06
'no. =    1   reg = 112 - 212'
msuc: {\huge [t-cross] in region mesh}
msdr: {\it plotted by \ANGEL \version}
msdl: {\it calculated by \PHITS  3.26}
wt: s(0.7)
\vspace{-3}
  region surface crossing
  area  &=&   1.0000E+00 [cm^2]
e:
 
# Information for Restart Calculation
# This calculation was newly started
# istdev =  2 # 1:Batch variance, 2:History variance
# resc2  = 2.50000000000000000E+09 # Total source weight or Total source weight / maxcas
# resc3  = 2.50000000000000000E+09 # Total history number or Total batch number
# maxcas =   100000000 # History / Batch, only used for istdev=1
# bitrseed = 1100001110001001100010001100011001110101000011000110100101010100 # bit data of rseed
