[ T-Cross ]
    title = [t-cross] in region mesh
     mesh =  reg            # mesh type is region-wise
      reg =    1            # number of crossing regions
      non     r-from    r-to       area
      1       116       216        1.000000    
   e-type =    3            # e-mesh is log given by emin, emax and ne
     emin =  1.0000000E-02  # minimum value of e-mesh points
     emax =   150.0000      # maximum value of e-mesh points
#    edel =  2.4039514E-02  # mesh width of e-mesh points
       ne =    400          # number of e-mesh points
#    data = ( e(i), i = 1, ne + 1 )
#           1.00000E-02  1.02433E-02  1.04925E-02  1.07478E-02  1.10093E-02
#           1.12772E-02  1.15516E-02  1.18326E-02  1.21205E-02  1.24154E-02
#           1.27175E-02  1.30269E-02  1.33439E-02  1.36686E-02  1.40011E-02
#           1.43418E-02  1.46907E-02  1.50482E-02  1.54143E-02  1.57894E-02
#           1.61735E-02  1.65670E-02  1.69701E-02  1.73830E-02  1.78060E-02
#           1.82392E-02  1.86830E-02  1.91375E-02  1.96032E-02  2.00801E-02
#           2.05687E-02  2.10692E-02  2.15818E-02  2.21069E-02  2.26448E-02
#           2.31957E-02  2.37601E-02  2.43382E-02  2.49304E-02  2.55369E-02
#           2.61583E-02  2.67947E-02  2.74467E-02  2.81145E-02  2.87985E-02
#           2.94992E-02  3.02169E-02  3.09521E-02  3.17052E-02  3.24766E-02
#           3.32668E-02  3.40762E-02  3.49053E-02  3.57546E-02  3.66246E-02
#           3.75157E-02  3.84284E-02  3.93634E-02  4.03212E-02  4.13022E-02
#           4.23071E-02  4.33365E-02  4.43909E-02  4.54710E-02  4.65773E-02
#           4.77106E-02  4.88714E-02  5.00605E-02  5.12785E-02  5.25262E-02
#           5.38042E-02  5.51133E-02  5.64542E-02  5.78278E-02  5.92348E-02
#           6.06760E-02  6.21523E-02  6.36645E-02  6.52135E-02  6.68002E-02
#           6.84255E-02  7.00904E-02  7.17957E-02  7.35426E-02  7.53319E-02
#           7.71648E-02  7.90423E-02  8.09655E-02  8.29354E-02  8.49533E-02
#           8.70203E-02  8.91376E-02  9.13064E-02  9.35279E-02  9.58035E-02
#           9.81345E-02  1.00522E-01  1.02968E-01  1.05473E-01  1.08040E-01
#           1.10668E-01  1.13361E-01  1.16119E-01  1.18944E-01  1.21838E-01
#           1.24803E-01  1.27839E-01  1.30950E-01  1.34136E-01  1.37399E-01
#           1.40742E-01  1.44167E-01  1.47675E-01  1.51268E-01  1.54948E-01
#           1.58718E-01  1.62580E-01  1.66535E-01  1.70587E-01  1.74738E-01
#           1.78989E-01  1.83344E-01  1.87805E-01  1.92375E-01  1.97055E-01
#           2.01850E-01  2.06761E-01  2.11792E-01  2.16945E-01  2.22223E-01
#           2.27630E-01  2.33169E-01  2.38842E-01  2.44653E-01  2.50605E-01
#           2.56703E-01  2.62949E-01  2.69346E-01  2.75900E-01  2.82613E-01
#           2.89489E-01  2.96532E-01  3.03747E-01  3.11138E-01  3.18708E-01
#           3.26462E-01  3.34405E-01  3.42542E-01  3.50876E-01  3.59413E-01
#           3.68158E-01  3.77116E-01  3.86291E-01  3.95690E-01  4.05317E-01
#           4.15179E-01  4.25281E-01  4.35628E-01  4.46227E-01  4.57084E-01
#           4.68205E-01  4.79597E-01  4.91266E-01  5.03219E-01  5.15463E-01
#           5.28005E-01  5.40851E-01  5.54011E-01  5.67490E-01  5.81298E-01
#           5.95441E-01  6.09929E-01  6.24769E-01  6.39970E-01  6.55541E-01
#           6.71491E-01  6.87828E-01  7.04564E-01  7.21706E-01  7.39266E-01
#           7.57253E-01  7.75678E-01  7.94551E-01  8.13883E-01  8.33685E-01
#           8.53969E-01  8.74747E-01  8.96030E-01  9.17831E-01  9.40163E-01
#           9.63038E-01  9.86469E-01  1.01047E+00  1.03506E+00  1.06024E+00
#           1.08604E+00  1.11246E+00  1.13953E+00  1.16725E+00  1.19565E+00
#           1.22474E+00  1.25454E+00  1.28507E+00  1.31633E+00  1.34836E+00
#           1.38117E+00  1.41477E+00  1.44920E+00  1.48446E+00  1.52057E+00
#           1.55757E+00  1.59547E+00  1.63429E+00  1.67405E+00  1.71478E+00
#           1.75650E+00  1.79924E+00  1.84302E+00  1.88786E+00  1.93379E+00
#           1.98084E+00  2.02904E+00  2.07841E+00  2.12898E+00  2.18078E+00
#           2.23384E+00  2.28819E+00  2.34386E+00  2.40089E+00  2.45930E+00
#           2.51914E+00  2.58043E+00  2.64322E+00  2.70753E+00  2.77341E+00
#           2.84088E+00  2.91001E+00  2.98081E+00  3.05333E+00  3.12762E+00
#           3.20372E+00  3.28167E+00  3.36152E+00  3.44330E+00  3.52708E+00
#           3.61290E+00  3.70080E+00  3.79085E+00  3.88308E+00  3.97756E+00
#           4.07434E+00  4.17347E+00  4.27501E+00  4.37903E+00  4.48557E+00
#           4.59471E+00  4.70650E+00  4.82102E+00  4.93832E+00  5.05847E+00
#           5.18155E+00  5.30762E+00  5.43676E+00  5.56904E+00  5.70453E+00
#           5.84333E+00  5.98550E+00  6.13114E+00  6.28031E+00  6.43312E+00
#           6.58964E+00  6.74997E+00  6.91420E+00  7.08243E+00  7.25475E+00
#           7.43126E+00  7.61207E+00  7.79728E+00  7.98700E+00  8.18133E+00
#           8.38038E+00  8.58428E+00  8.79315E+00  9.00709E+00  9.22624E+00
#           9.45072E+00  9.68067E+00  9.91620E+00  1.01575E+01  1.04046E+01
#           1.06578E+01  1.09171E+01  1.11827E+01  1.14548E+01  1.17335E+01
#           1.20190E+01  1.23114E+01  1.26109E+01  1.29178E+01  1.32321E+01
#           1.35540E+01  1.38838E+01  1.42216E+01  1.45676E+01  1.49221E+01
#           1.52851E+01  1.56570E+01  1.60380E+01  1.64282E+01  1.68279E+01
#           1.72374E+01  1.76568E+01  1.80864E+01  1.85264E+01  1.89772E+01
#           1.94389E+01  1.99119E+01  2.03963E+01  2.08926E+01  2.14009E+01
#           2.19216E+01  2.24550E+01  2.30014E+01  2.35610E+01  2.41343E+01
#           2.47215E+01  2.53230E+01  2.59391E+01  2.65702E+01  2.72167E+01
#           2.78789E+01  2.85572E+01  2.92520E+01  2.99637E+01  3.06928E+01
#           3.14396E+01  3.22045E+01  3.29881E+01  3.37907E+01  3.46128E+01
#           3.54550E+01  3.63177E+01  3.72013E+01  3.81064E+01  3.90336E+01
#           3.99833E+01  4.09561E+01  4.19526E+01  4.29734E+01  4.40189E+01
#           4.50900E+01  4.61870E+01  4.73108E+01  4.84619E+01  4.96410E+01
#           5.08488E+01  5.20860E+01  5.33533E+01  5.46514E+01  5.59812E+01
#           5.73432E+01  5.87384E+01  6.01676E+01  6.16315E+01  6.31311E+01
#           6.46671E+01  6.62405E+01  6.78522E+01  6.95031E+01  7.11941E+01
#           7.29263E+01  7.47007E+01  7.65182E+01  7.83800E+01  8.02870E+01
#           8.22405E+01  8.42414E+01  8.62911E+01  8.83906E+01  9.05412E+01
#           9.27442E+01  9.50007E+01  9.73122E+01  9.96799E+01  1.02105E+02
#           1.04589E+02  1.07134E+02  1.09741E+02  1.12411E+02  1.15146E+02
#           1.17948E+02  1.20817E+02  1.23757E+02  1.26768E+02  1.29852E+02
#           1.33012E+02  1.36248E+02  1.39563E+02  1.42959E+02  1.46437E+02
#           1.50000E+02
     unit =    2            # unit is [1/cm^2/(MeV/n)/source]
     axis =  eng            # axis of output
     file = detector-17.out  # file name of output for the above axis
   output = f-curr          # surface crossing forward current spectrum
     part =  neutron  
# kf/name :  2112     
#    used :        main (  %)        temp (  %)       total (  %)
#  memory :         414 (  0)           0 (  0)         414 (  0)

#------------------------------------------------------------------------------
#newpage:
#   no. =    1   reg = 116 - 216

x: Energy [MeV/n]
y:  F-Curr [1/cm^2/(MeV/n)/source]         
p: xlog ylog afac(0.8) form(0.9)
h: n            x            y(neutron ),hh0l   n 
#  e-lower      e-upper      neutron     r.err 
   1.0000E-02   1.0243E-02   5.0888E-03  0.0401
   1.0243E-02   1.0493E-02   4.6274E-03  0.0416
   1.0493E-02   1.0748E-02   4.4680E-03  0.0418
   1.0748E-02   1.1009E-02   4.5056E-03  0.0411
   1.1009E-02   1.1277E-02   4.3171E-03  0.0415
   1.1277E-02   1.1552E-02   4.2114E-03  0.0415
   1.1552E-02   1.1833E-02   4.2895E-03  0.0406
   1.1833E-02   1.2121E-02   3.9409E-03  0.0419
   1.2121E-02   1.2415E-02   4.1758E-03  0.0402
   1.2415E-02   1.2718E-02   4.1261E-03  0.0400
   1.2718E-02   1.3027E-02   4.0444E-03  0.0399
   1.3027E-02   1.3344E-02   3.8946E-03  0.0402
   1.3344E-02   1.3669E-02   3.8480E-03  0.0400
   1.3669E-02   1.4001E-02   3.7187E-03  0.0401
   1.4001E-02   1.4342E-02   3.8442E-03  0.0390
   1.4342E-02   1.4691E-02   3.6037E-03  0.0398
   1.4691E-02   1.5048E-02   3.6737E-03  0.0390
   1.5048E-02   1.5414E-02   3.5971E-03  0.0389
   1.5414E-02   1.5789E-02   3.5114E-03  0.0389
   1.5789E-02   1.6174E-02   3.4549E-03  0.0387
   1.6174E-02   1.6567E-02   3.2713E-03  0.0393
   1.6567E-02   1.6970E-02   3.1674E-03  0.0395
   1.6970E-02   1.7383E-02   3.1407E-03  0.0392
   1.7383E-02   1.7806E-02   3.0152E-03  0.0396
   1.7806E-02   1.8239E-02   3.1793E-03  0.0380
   1.8239E-02   1.8683E-02   3.2363E-03  0.0373
   1.8683E-02   1.9138E-02   2.9725E-03  0.0384
   1.9138E-02   1.9603E-02   2.9534E-03  0.0381
   1.9603E-02   2.0080E-02   2.7764E-03  0.0388
   2.0080E-02   2.0569E-02   2.7017E-03  0.0389
   2.0569E-02   2.1069E-02   2.9110E-03  0.0369
   2.1069E-02   2.1582E-02   2.6985E-03  0.0380
   2.1582E-02   2.2107E-02   2.4557E-03  0.0393
   2.2107E-02   2.2645E-02   2.4968E-03  0.0385
   2.2645E-02   2.3196E-02   2.6139E-03  0.0372
   2.3196E-02   2.3760E-02   2.5420E-03  0.0372
   2.3760E-02   2.4338E-02   2.3905E-03  0.0380
   2.4338E-02   2.4930E-02   2.5046E-03  0.0366
   2.4930E-02   2.5537E-02   2.3811E-03  0.0371
   2.5537E-02   2.6158E-02   2.2943E-03  0.0374
   2.6158E-02   2.6795E-02   2.2747E-03  0.0371
   2.6795E-02   2.7447E-02   2.3750E-03  0.0359
   2.7447E-02   2.8114E-02   2.1863E-03  0.0369
   2.8114E-02   2.8799E-02   2.3200E-03  0.0354
   2.8799E-02   2.9499E-02   2.1214E-03  0.0366
   2.9499E-02   3.0217E-02   2.1583E-03  0.0359
   3.0217E-02   3.0952E-02   2.0372E-03  0.0365
   3.0952E-02   3.1705E-02   2.0535E-03  0.0359
   3.1705E-02   3.2477E-02   1.9293E-03  0.0366
   3.2477E-02   3.3267E-02   1.9162E-03  0.0363
   3.3267E-02   3.4076E-02   1.8306E-03  0.0367
   3.4076E-02   3.4905E-02   1.8134E-03  0.0364
   3.4905E-02   3.5755E-02   1.8108E-03  0.0360
   3.5755E-02   3.6625E-02   1.8153E-03  0.0355
   3.6625E-02   3.7516E-02   1.8209E-03  0.0351
   3.7516E-02   3.8428E-02   1.7934E-03  0.0349
   3.8428E-02   3.9363E-02   1.6153E-03  0.0363
   3.9363E-02   4.0321E-02   1.5253E-03  0.0369
   4.0321E-02   4.1302E-02   1.5851E-03  0.0358
   4.1302E-02   4.2307E-02   1.6125E-03  0.0351
   4.2307E-02   4.3337E-02   1.5497E-03  0.0353
   4.3337E-02   4.4391E-02   1.4929E-03  0.0356
   4.4391E-02   4.5471E-02   1.5075E-03  0.0350
   4.5471E-02   4.6577E-02   1.5253E-03  0.0344
   4.6577E-02   4.7711E-02   1.3364E-03  0.0362
   4.7711E-02   4.8871E-02   1.4216E-03  0.0347
   4.8871E-02   5.0061E-02   1.3640E-03  0.0351
   5.0061E-02   5.1279E-02   1.2924E-03  0.0356
   5.1279E-02   5.2526E-02   1.3750E-03  0.0341
   5.2526E-02   5.3804E-02   1.3909E-03  0.0335
   5.3804E-02   5.5113E-02   1.2235E-03  0.0353
   5.5113E-02   5.6454E-02   1.2662E-03  0.0343
   5.6454E-02   5.7828E-02   1.1830E-03  0.0350
   5.7828E-02   5.9235E-02   1.2224E-03  0.0340
   5.9235E-02   6.0676E-02   1.1562E-03  0.0346
   6.0676E-02   6.2152E-02   1.1493E-03  0.0343
   6.2152E-02   6.3665E-02   1.1334E-03  0.0341
   6.3665E-02   6.5214E-02   1.0920E-03  0.0343
   6.5214E-02   6.6800E-02   1.0560E-03  0.0345
   6.6800E-02   6.8426E-02   1.0626E-03  0.0340
   6.8426E-02   7.0090E-02   1.0735E-03  0.0334
   7.0090E-02   7.1796E-02   1.0187E-03  0.0338
   7.1796E-02   7.3543E-02   1.0296E-03  0.0333
   7.3543E-02   7.5332E-02   1.0228E-03  0.0330
   7.5332E-02   7.7165E-02   9.5963E-04  0.0336
   7.7165E-02   7.9042E-02   9.9230E-04  0.0327
   7.9042E-02   8.0965E-02   8.9638E-04  0.0340
   8.0965E-02   8.2935E-02   9.1107E-04  0.0333
   8.2935E-02   8.4953E-02   8.8217E-04  0.0335
   8.4953E-02   8.7020E-02   8.8787E-04  0.0329
   8.7020E-02   8.9138E-02   8.2476E-04  0.0338
   8.9138E-02   9.1306E-02   8.6791E-04  0.0325
   9.1306E-02   9.3528E-02   8.6941E-04  0.0321
   9.3528E-02   9.5804E-02   8.3556E-04  0.0324
   9.5804E-02   9.8134E-02   7.7977E-04  0.0331
   9.8134E-02   1.0052E-01   8.0882E-04  0.0321
   1.0052E-01   1.0297E-01   7.6156E-04  0.0327
   1.0297E-01   1.0547E-01   7.7771E-04  0.0320
   1.0547E-01   1.0804E-01   7.5055E-04  0.0322
   1.0804E-01   1.1067E-01   7.0209E-04  0.0329
   1.1067E-01   1.1336E-01   6.8741E-04  0.0328
   1.1336E-01   1.1612E-01   6.7012E-04  0.0328
   1.1612E-01   1.1894E-01   6.9731E-04  0.0318
   1.1894E-01   1.2184E-01   6.7933E-04  0.0318
   1.2184E-01   1.2480E-01   6.2497E-04  0.0328
   1.2480E-01   1.2784E-01   6.3316E-04  0.0322
   1.2784E-01   1.3095E-01   6.1371E-04  0.0323
   1.3095E-01   1.3414E-01   5.8944E-04  0.0326
   1.3414E-01   1.3740E-01   5.8315E-04  0.0323
   1.3740E-01   1.4074E-01   6.0231E-04  0.0314
   1.4074E-01   1.4417E-01   5.6835E-04  0.0320
   1.4417E-01   1.4767E-01   5.9007E-04  0.0310
   1.4767E-01   1.5127E-01   5.3578E-04  0.0322
   1.5127E-01   1.5495E-01   5.4146E-04  0.0317
   1.5495E-01   1.5872E-01   5.2190E-04  0.0318
   1.5872E-01   1.6258E-01   5.4259E-04  0.0308
   1.6258E-01   1.6654E-01   5.0614E-04  0.0315
   1.6654E-01   1.7059E-01   4.8757E-04  0.0317
   1.7059E-01   1.7474E-01   4.8735E-04  0.0314
   1.7474E-01   1.7899E-01   4.6049E-04  0.0319
   1.7899E-01   1.8334E-01   4.6005E-04  0.0315
   1.8334E-01   1.8781E-01   4.3337E-04  0.0320
   1.8781E-01   1.9237E-01   4.1603E-04  0.0324
   1.9237E-01   1.9706E-01   4.0848E-04  0.0322
   1.9706E-01   2.0185E-01   4.5990E-04  0.0300
   2.0185E-01   2.0676E-01   4.6235E-04  0.0296
   2.0676E-01   2.1179E-01   4.4954E-04  0.0297
   2.1179E-01   2.1694E-01   4.5707E-04  0.0291
   2.1694E-01   2.2222E-01   4.8472E-04  0.0279
   2.2222E-01   2.2763E-01   4.8291E-04  0.0276
   2.2763E-01   2.3317E-01   5.1425E-04  0.0264
   2.3317E-01   2.3884E-01   4.9732E-04  0.0266
   2.3884E-01   2.4465E-01   5.0679E-04  0.0260
   2.4465E-01   2.5061E-01   5.1015E-04  0.0256
   2.5061E-01   2.5670E-01   5.3206E-04  0.0248
   2.5670E-01   2.6295E-01   5.4418E-04  0.0242
   2.6295E-01   2.6935E-01   5.6366E-04  0.0235
   2.6935E-01   2.7590E-01   5.9458E-04  0.0226
   2.7590E-01   2.8261E-01   6.0734E-04  0.0221
   2.8261E-01   2.8949E-01   6.0053E-04  0.0220
   2.8949E-01   2.9653E-01   6.1368E-04  0.0214
   2.9653E-01   3.0375E-01   6.1389E-04  0.0212
   3.0375E-01   3.1114E-01   6.3340E-04  0.0206
   3.1114E-01   3.1871E-01   6.7199E-04  0.0198
   3.1871E-01   3.2646E-01   6.8454E-04  0.0194
   3.2646E-01   3.3441E-01   6.9314E-04  0.0190
   3.3441E-01   3.4254E-01   6.8869E-04  0.0188
   3.4254E-01   3.5088E-01   7.1120E-04  0.0183
   3.5088E-01   3.5941E-01   7.1248E-04  0.0181
   3.5941E-01   3.6816E-01   7.0864E-04  0.0179
   3.6816E-01   3.7712E-01   7.5786E-04  0.0171
   3.7712E-01   3.8629E-01   7.7563E-04  0.0167
   3.8629E-01   3.9569E-01   7.5244E-04  0.0168
   3.9569E-01   4.0532E-01   7.7188E-04  0.0164
   4.0532E-01   4.1518E-01   7.8628E-04  0.0160
   4.1518E-01   4.2528E-01   7.9592E-04  0.0157
   4.2528E-01   4.3563E-01   8.0205E-04  0.0155
   4.3563E-01   4.4623E-01   7.9914E-04  0.0153
   4.4623E-01   4.5708E-01   8.2989E-04  0.0149
   4.5708E-01   4.6821E-01   8.4225E-04  0.0146
   4.6821E-01   4.7960E-01   8.2857E-04  0.0145
   4.7960E-01   4.9127E-01   8.2255E-04  0.0144
   4.9127E-01   5.0322E-01   8.4407E-04  0.0140
   5.0322E-01   5.1546E-01   8.5435E-04  0.0138
   5.1546E-01   5.2800E-01   8.6143E-04  0.0136
   5.2800E-01   5.4085E-01   8.7907E-04  0.0133
   5.4085E-01   5.5401E-01   8.6741E-04  0.0132
   5.5401E-01   5.6749E-01   8.6658E-04  0.0130
   5.6749E-01   5.8130E-01   8.6180E-04  0.0129
   5.8130E-01   5.9544E-01   8.8795E-04  0.0126
   5.9544E-01   6.0993E-01   8.8359E-04  0.0125
   6.0993E-01   6.2477E-01   8.9286E-04  0.0122
   6.2477E-01   6.3997E-01   8.8190E-04  0.0122
   6.3997E-01   6.5554E-01   8.8861E-04  0.0120
   6.5554E-01   6.7149E-01   8.7562E-04  0.0119
   6.7149E-01   6.8783E-01   8.9653E-04  0.0116
   6.8783E-01   7.0456E-01   8.7306E-04  0.0117
   7.0456E-01   7.2171E-01   8.8021E-04  0.0115
   7.2171E-01   7.3927E-01   8.7361E-04  0.0114
   7.3927E-01   7.5725E-01   8.7580E-04  0.0112
   7.5725E-01   7.7568E-01   8.6535E-04  0.0112
   7.7568E-01   7.9455E-01   8.4410E-04  0.0112
   7.9455E-01   8.1388E-01   8.2450E-04  0.0112
   8.1388E-01   8.3368E-01   8.2633E-04  0.0110
   8.3368E-01   8.5397E-01   8.1350E-04  0.0110
   8.5397E-01   8.7475E-01   8.0310E-04  0.0109
   8.7475E-01   8.9603E-01   7.6830E-04  0.0110
   8.9603E-01   9.1783E-01   7.3771E-04  0.0111
   9.1783E-01   9.4016E-01   7.3575E-04  0.0110
   9.4016E-01   9.6304E-01   7.0899E-04  0.0111
   9.6304E-01   9.8647E-01   7.0702E-04  0.0110
   9.8647E-01   1.0105E+00   6.9801E-04  0.0109
   1.0105E+00   1.0351E+00   6.7484E-04  0.0109
   1.0351E+00   1.0602E+00   6.8561E-04  0.0107
   1.0602E+00   1.0860E+00   6.7191E-04  0.0107
   1.0860E+00   1.1125E+00   6.8656E-04  0.0105
   1.1125E+00   1.1395E+00   6.8956E-04  0.0103
   1.1395E+00   1.1673E+00   6.9421E-04  0.0102
   1.1673E+00   1.1957E+00   7.0648E-04  0.0099
   1.1957E+00   1.2247E+00   7.2277E-04  0.0097
   1.2247E+00   1.2545E+00   7.3203E-04  0.0095
   1.2545E+00   1.2851E+00   7.1422E-04  0.0095
   1.2851E+00   1.3163E+00   7.2598E-04  0.0093
   1.3163E+00   1.3484E+00   7.3387E-04  0.0092
   1.3484E+00   1.3812E+00   7.3123E-04  0.0091
   1.3812E+00   1.4148E+00   7.5273E-04  0.0089
   1.4148E+00   1.4492E+00   7.5155E-04  0.0088
   1.4492E+00   1.4845E+00   7.3585E-04  0.0087
   1.4845E+00   1.5206E+00   7.3921E-04  0.0086
   1.5206E+00   1.5576E+00   7.2886E-04  0.0086
   1.5576E+00   1.5955E+00   7.3004E-04  0.0085
   1.5955E+00   1.6343E+00   7.3370E-04  0.0083
   1.6343E+00   1.6741E+00   7.4450E-04  0.0082
   1.6741E+00   1.7148E+00   7.5003E-04  0.0081
   1.7148E+00   1.7565E+00   7.3917E-04  0.0080
   1.7565E+00   1.7992E+00   7.3617E-04  0.0079
   1.7992E+00   1.8430E+00   7.3743E-04  0.0078
   1.8430E+00   1.8879E+00   7.3753E-04  0.0077
   1.8879E+00   1.9338E+00   7.1449E-04  0.0078
   1.9338E+00   1.9808E+00   7.2809E-04  0.0076
   1.9808E+00   2.0290E+00   7.1974E-04  0.0076
   2.0290E+00   2.0784E+00   7.1117E-04  0.0075
   2.0784E+00   2.1290E+00   7.0569E-04  0.0074
   2.1290E+00   2.1808E+00   6.8759E-04  0.0075
   2.1808E+00   2.2338E+00   6.7364E-04  0.0074
   2.2338E+00   2.2882E+00   6.6592E-04  0.0074
   2.2882E+00   2.3439E+00   6.6987E-04  0.0073
   2.3439E+00   2.4009E+00   6.5881E-04  0.0073
   2.4009E+00   2.4593E+00   6.5926E-04  0.0072
   2.4593E+00   2.5191E+00   6.5288E-04  0.0071
   2.5191E+00   2.5804E+00   6.3807E-04  0.0071
   2.5804E+00   2.6432E+00   6.3662E-04  0.0070
   2.6432E+00   2.7075E+00   6.1179E-04  0.0071
   2.7075E+00   2.7734E+00   6.0913E-04  0.0070
   2.7734E+00   2.8409E+00   5.9829E-04  0.0070
   2.8409E+00   2.9100E+00   5.8102E-04  0.0070
   2.9100E+00   2.9808E+00   5.7577E-04  0.0070
   2.9808E+00   3.0533E+00   5.7471E-04  0.0069
   3.0533E+00   3.1276E+00   5.5753E-04  0.0069
   3.1276E+00   3.2037E+00   5.4765E-04  0.0069
   3.2037E+00   3.2817E+00   5.3557E-04  0.0069
   3.2817E+00   3.3615E+00   5.2369E-04  0.0069
   3.3615E+00   3.4433E+00   5.0651E-04  0.0069
   3.4433E+00   3.5271E+00   4.9878E-04  0.0069
   3.5271E+00   3.6129E+00   4.8809E-04  0.0069
   3.6129E+00   3.7008E+00   4.7684E-04  0.0069
   3.7008E+00   3.7908E+00   4.7462E-04  0.0068
   3.7908E+00   3.8831E+00   4.5863E-04  0.0068
   3.8831E+00   3.9776E+00   4.4351E-04  0.0069
   3.9776E+00   4.0743E+00   4.3909E-04  0.0068
   4.0743E+00   4.1735E+00   4.2557E-04  0.0069
   4.1735E+00   4.2750E+00   4.1769E-04  0.0068
   4.2750E+00   4.3790E+00   4.0203E-04  0.0069
   4.3790E+00   4.4856E+00   3.9059E-04  0.0069
   4.4856E+00   4.5947E+00   3.8068E-04  0.0069
   4.5947E+00   4.7065E+00   3.7002E-04  0.0069
   4.7065E+00   4.8210E+00   3.5582E-04  0.0070
   4.8210E+00   4.9383E+00   3.4321E-04  0.0070
   4.9383E+00   5.0585E+00   3.3228E-04  0.0070
   5.0585E+00   5.1815E+00   3.1627E-04  0.0071
   5.1815E+00   5.3076E+00   3.0802E-04  0.0071
   5.3076E+00   5.4368E+00   2.9831E-04  0.0072
   5.4368E+00   5.5690E+00   2.8984E-04  0.0072
   5.5690E+00   5.7045E+00   2.7438E-04  0.0073
   5.7045E+00   5.8433E+00   2.6781E-04  0.0073
   5.8433E+00   5.9855E+00   2.5655E-04  0.0074
   5.9855E+00   6.1311E+00   2.4425E-04  0.0075
   6.1311E+00   6.2803E+00   2.3480E-04  0.0075
   6.2803E+00   6.4331E+00   2.2662E-04  0.0076
   6.4331E+00   6.5896E+00   2.1580E-04  0.0077
   6.5896E+00   6.7500E+00   2.0600E-04  0.0078
   6.7500E+00   6.9142E+00   1.9630E-04  0.0078
   6.9142E+00   7.0824E+00   1.8703E-04  0.0079
   7.0824E+00   7.2548E+00   1.7940E-04  0.0080
   7.2548E+00   7.4313E+00   1.7113E-04  0.0081
   7.4313E+00   7.6121E+00   1.6071E-04  0.0083
   7.6121E+00   7.7973E+00   1.5162E-04  0.0084
   7.7973E+00   7.9870E+00   1.4438E-04  0.0085
   7.9870E+00   8.1813E+00   1.3511E-04  0.0087
   8.1813E+00   8.3804E+00   1.2876E-04  0.0088
   8.3804E+00   8.5843E+00   1.2163E-04  0.0090
   8.5843E+00   8.7931E+00   1.1567E-04  0.0091
   8.7931E+00   9.0071E+00   1.0957E-04  0.0092
   9.0071E+00   9.2262E+00   1.0539E-04  0.0093
   9.2262E+00   9.4507E+00   9.9452E-05  0.0094
   9.4507E+00   9.6807E+00   9.5897E-05  0.0095
   9.6807E+00   9.9162E+00   8.9235E-05  0.0097
   9.9162E+00   1.0157E+01   8.5497E-05  0.0098
   1.0157E+01   1.0405E+01   8.3145E-05  0.0098
   1.0405E+01   1.0658E+01   8.2715E-05  0.0098
   1.0658E+01   1.0917E+01   8.0163E-05  0.0098
   1.0917E+01   1.1183E+01   7.5166E-05  0.0100
   1.1183E+01   1.1455E+01   7.2821E-05  0.0100
   1.1455E+01   1.1733E+01   6.9775E-05  0.0101
   1.1733E+01   1.2019E+01   6.4662E-05  0.0104
   1.2019E+01   1.2311E+01   6.0571E-05  0.0106
   1.2311E+01   1.2611E+01   5.5749E-05  0.0109
   1.2611E+01   1.2918E+01   5.2935E-05  0.0111
   1.2918E+01   1.3232E+01   5.1274E-05  0.0111
   1.3232E+01   1.3554E+01   4.9087E-05  0.0112
   1.3554E+01   1.3884E+01   4.5007E-05  0.0116
   1.3884E+01   1.4222E+01   4.2971E-05  0.0117
   1.4222E+01   1.4568E+01   3.9983E-05  0.0120
   1.4568E+01   1.4922E+01   3.7275E-05  0.0123
   1.4922E+01   1.5285E+01   3.3851E-05  0.0127
   1.5285E+01   1.5657E+01   3.2651E-05  0.0128
   1.5657E+01   1.6038E+01   2.9684E-05  0.0133
   1.6038E+01   1.6428E+01   2.7281E-05  0.0137
   1.6428E+01   1.6828E+01   2.5783E-05  0.0139
   1.6828E+01   1.7237E+01   2.3341E-05  0.0145
   1.7237E+01   1.7657E+01   2.2110E-05  0.0147
   1.7657E+01   1.8086E+01   2.0352E-05  0.0151
   1.8086E+01   1.8526E+01   1.9150E-05  0.0154
   1.8526E+01   1.8977E+01   1.7612E-05  0.0159
   1.8977E+01   1.9439E+01   1.6885E-05  0.0160
   1.9439E+01   1.9912E+01   1.6083E-05  0.0162
   1.9912E+01   2.0396E+01   1.4127E-05  0.0171
   2.0396E+01   2.0893E+01   1.3360E-05  0.0174
   2.0893E+01   2.1401E+01   1.2287E-05  0.0179
   2.1401E+01   2.1922E+01   1.1604E-05  0.0182
   2.1922E+01   2.2455E+01   1.0773E-05  0.0187
   2.2455E+01   2.3001E+01   9.3310E-06  0.0198
   2.3001E+01   2.3561E+01   8.8164E-06  0.0201
   2.3561E+01   2.4134E+01   8.1011E-06  0.0208
   2.4134E+01   2.4721E+01   7.3637E-06  0.0215
   2.4721E+01   2.5323E+01   6.7133E-06  0.0223
   2.5323E+01   2.5939E+01   5.9760E-06  0.0233
   2.5939E+01   2.6570E+01   5.5109E-06  0.0240
   2.6570E+01   2.7217E+01   4.8138E-06  0.0254
   2.7217E+01   2.7879E+01   4.2585E-06  0.0266
   2.7879E+01   2.8557E+01   3.9008E-06  0.0275
   2.8557E+01   2.9252E+01   3.4685E-06  0.0288
   2.9252E+01   2.9964E+01   3.1304E-06  0.0300
   2.9964E+01   3.0693E+01   2.6555E-06  0.0321
   3.0693E+01   3.1440E+01   2.3675E-06  0.0336
   3.1440E+01   3.2205E+01   2.0812E-06  0.0354
   3.2205E+01   3.2988E+01   1.7101E-06  0.0386
   3.2988E+01   3.3791E+01   1.4129E-06  0.0420
   3.3791E+01   3.4613E+01   1.3939E-06  0.0418
   3.4613E+01   3.5455E+01   1.1851E-06  0.0448
   3.5455E+01   3.6318E+01   9.9461E-07  0.0483
   3.6318E+01   3.7201E+01   8.3745E-07  0.0520
   3.7201E+01   3.8106E+01   6.3195E-07  0.0591
   3.8106E+01   3.9034E+01   5.5870E-07  0.0621
   3.9034E+01   3.9983E+01   5.0120E-07  0.0648
   3.9983E+01   4.0956E+01   3.8856E-07  0.0727
   4.0956E+01   4.1953E+01   3.5725E-07  0.0750
   4.1953E+01   4.2973E+01   2.8607E-07  0.0828
   4.2973E+01   4.4019E+01   2.9649E-07  0.0803
   4.4019E+01   4.5090E+01   2.3716E-07  0.0887
   4.5090E+01   4.6187E+01   1.9689E-07  0.0962
   4.6187E+01   4.7311E+01   1.4060E-07  0.1125
   4.7311E+01   4.8462E+01   1.5116E-07  0.1072
   4.8462E+01   4.9641E+01   1.1534E-07  0.1213
   4.9641E+01   5.0849E+01   8.7762E-08  0.1374
   5.0849E+01   5.2086E+01   8.8911E-08  0.1348
   5.2086E+01   5.3353E+01   5.9970E-08  0.1622
   5.3353E+01   5.4651E+01   5.5464E-08  0.1667
   5.4651E+01   5.5981E+01   4.9635E-08  0.1741
   5.5981E+01   5.7343E+01   3.2304E-08  0.2132
   5.7343E+01   5.8738E+01   3.0103E-08  0.2182
   5.8738E+01   6.0168E+01   1.3994E-08  0.3162
   6.0168E+01   6.1632E+01   1.3662E-08  0.3162
   6.1632E+01   6.3131E+01   6.6687E-09  0.4472
   6.3131E+01   6.4667E+01   7.8124E-09  0.4082
   6.4667E+01   6.6240E+01   1.0169E-08  0.3536
   6.6240E+01   6.7852E+01   2.4819E-09  0.7071
   6.7852E+01   6.9503E+01   3.6344E-09  0.5774
   6.9503E+01   7.1194E+01   1.1827E-09  1.0000
   7.1194E+01   7.2926E+01   0.0000E+00  0.0000
   7.2926E+01   7.4701E+01   0.0000E+00  0.0000
   7.4701E+01   7.6518E+01   0.0000E+00  0.0000
   7.6518E+01   7.8380E+01   0.0000E+00  0.0000
   7.8380E+01   8.0287E+01   0.0000E+00  0.0000
   8.0287E+01   8.2240E+01   0.0000E+00  0.0000
   8.2240E+01   8.4241E+01   0.0000E+00  0.0000
   8.4241E+01   8.6291E+01   0.0000E+00  0.0000
   8.6291E+01   8.8391E+01   0.0000E+00  0.0000
   8.8391E+01   9.0541E+01   0.0000E+00  0.0000
   9.0541E+01   9.2744E+01   0.0000E+00  0.0000
   9.2744E+01   9.5001E+01   0.0000E+00  0.0000
   9.5001E+01   9.7312E+01   0.0000E+00  0.0000
   9.7312E+01   9.9680E+01   0.0000E+00  0.0000
   9.9680E+01   1.0211E+02   0.0000E+00  0.0000
   1.0211E+02   1.0459E+02   0.0000E+00  0.0000
   1.0459E+02   1.0713E+02   0.0000E+00  0.0000
   1.0713E+02   1.0974E+02   0.0000E+00  0.0000
   1.0974E+02   1.1241E+02   0.0000E+00  0.0000
   1.1241E+02   1.1515E+02   0.0000E+00  0.0000
   1.1515E+02   1.1795E+02   0.0000E+00  0.0000
   1.1795E+02   1.2082E+02   0.0000E+00  0.0000
   1.2082E+02   1.2376E+02   0.0000E+00  0.0000
   1.2376E+02   1.2677E+02   0.0000E+00  0.0000
   1.2677E+02   1.2985E+02   0.0000E+00  0.0000
   1.2985E+02   1.3301E+02   0.0000E+00  0.0000
   1.3301E+02   1.3625E+02   0.0000E+00  0.0000
   1.3625E+02   1.3956E+02   0.0000E+00  0.0000
   1.3956E+02   1.4296E+02   0.0000E+00  0.0000
   1.4296E+02   1.4644E+02   0.0000E+00  0.0000
   1.4644E+02   1.5000E+02   0.0000E+00  0.0000

#   sum over                 2.9734E-05
'no. =    1   reg = 116 - 216'
msuc: {\huge [t-cross] in region mesh}
msdr: {\it plotted by \ANGEL \version}
msdl: {\it calculated by \PHITS  3.26}
wt: s(0.7)
\vspace{-3}
  region surface crossing
  area  &=&   1.0000E+00 [cm^2]
e:
 
# Information for Restart Calculation
# This calculation was newly started
# istdev =  2 # 1:Batch variance, 2:History variance
# resc2  = 5.00000000000000000E+08 # Total source weight or Total source weight / maxcas
# resc3  = 5.00000000000000000E+08 # Total history number or Total batch number
# maxcas =   500000000 # History / Batch, only used for istdev=1
# bitrseed = 1101101111010011011000101101110001100110110010110001010100010001 # bit data of rseed
