[ T-Cross ]
    title = [t-cross] in region mesh
     mesh =  reg            # mesh type is region-wise
      reg =    1            # number of crossing regions
      non     r-from    r-to       area
      1       110       210        1.000000    
   e-type =    3            # e-mesh is log given by emin, emax and ne
     emin =  1.0000000E-02  # minimum value of e-mesh points
     emax =   150.0000      # maximum value of e-mesh points
#    edel =  2.4039514E-02  # mesh width of e-mesh points
       ne =    400          # number of e-mesh points
#    data = ( e(i), i = 1, ne + 1 )
#           1.00000E-02  1.02433E-02  1.04925E-02  1.07478E-02  1.10093E-02
#           1.12772E-02  1.15516E-02  1.18326E-02  1.21205E-02  1.24154E-02
#           1.27175E-02  1.30269E-02  1.33439E-02  1.36686E-02  1.40011E-02
#           1.43418E-02  1.46907E-02  1.50482E-02  1.54143E-02  1.57894E-02
#           1.61735E-02  1.65670E-02  1.69701E-02  1.73830E-02  1.78060E-02
#           1.82392E-02  1.86830E-02  1.91375E-02  1.96032E-02  2.00801E-02
#           2.05687E-02  2.10692E-02  2.15818E-02  2.21069E-02  2.26448E-02
#           2.31957E-02  2.37601E-02  2.43382E-02  2.49304E-02  2.55369E-02
#           2.61583E-02  2.67947E-02  2.74467E-02  2.81145E-02  2.87985E-02
#           2.94992E-02  3.02169E-02  3.09521E-02  3.17052E-02  3.24766E-02
#           3.32668E-02  3.40762E-02  3.49053E-02  3.57546E-02  3.66246E-02
#           3.75157E-02  3.84284E-02  3.93634E-02  4.03212E-02  4.13022E-02
#           4.23071E-02  4.33365E-02  4.43909E-02  4.54710E-02  4.65773E-02
#           4.77106E-02  4.88714E-02  5.00605E-02  5.12785E-02  5.25262E-02
#           5.38042E-02  5.51133E-02  5.64542E-02  5.78278E-02  5.92348E-02
#           6.06760E-02  6.21523E-02  6.36645E-02  6.52135E-02  6.68002E-02
#           6.84255E-02  7.00904E-02  7.17957E-02  7.35426E-02  7.53319E-02
#           7.71648E-02  7.90423E-02  8.09655E-02  8.29354E-02  8.49533E-02
#           8.70203E-02  8.91376E-02  9.13064E-02  9.35279E-02  9.58035E-02
#           9.81345E-02  1.00522E-01  1.02968E-01  1.05473E-01  1.08040E-01
#           1.10668E-01  1.13361E-01  1.16119E-01  1.18944E-01  1.21838E-01
#           1.24803E-01  1.27839E-01  1.30950E-01  1.34136E-01  1.37399E-01
#           1.40742E-01  1.44167E-01  1.47675E-01  1.51268E-01  1.54948E-01
#           1.58718E-01  1.62580E-01  1.66535E-01  1.70587E-01  1.74738E-01
#           1.78989E-01  1.83344E-01  1.87805E-01  1.92375E-01  1.97055E-01
#           2.01850E-01  2.06761E-01  2.11792E-01  2.16945E-01  2.22223E-01
#           2.27630E-01  2.33169E-01  2.38842E-01  2.44653E-01  2.50605E-01
#           2.56703E-01  2.62949E-01  2.69346E-01  2.75900E-01  2.82613E-01
#           2.89489E-01  2.96532E-01  3.03747E-01  3.11138E-01  3.18708E-01
#           3.26462E-01  3.34405E-01  3.42542E-01  3.50876E-01  3.59413E-01
#           3.68158E-01  3.77116E-01  3.86291E-01  3.95690E-01  4.05317E-01
#           4.15179E-01  4.25281E-01  4.35628E-01  4.46227E-01  4.57084E-01
#           4.68205E-01  4.79597E-01  4.91266E-01  5.03219E-01  5.15463E-01
#           5.28005E-01  5.40851E-01  5.54011E-01  5.67490E-01  5.81298E-01
#           5.95441E-01  6.09929E-01  6.24769E-01  6.39970E-01  6.55541E-01
#           6.71491E-01  6.87828E-01  7.04564E-01  7.21706E-01  7.39266E-01
#           7.57253E-01  7.75678E-01  7.94551E-01  8.13883E-01  8.33685E-01
#           8.53969E-01  8.74747E-01  8.96030E-01  9.17831E-01  9.40163E-01
#           9.63038E-01  9.86469E-01  1.01047E+00  1.03506E+00  1.06024E+00
#           1.08604E+00  1.11246E+00  1.13953E+00  1.16725E+00  1.19565E+00
#           1.22474E+00  1.25454E+00  1.28507E+00  1.31633E+00  1.34836E+00
#           1.38117E+00  1.41477E+00  1.44920E+00  1.48446E+00  1.52057E+00
#           1.55757E+00  1.59547E+00  1.63429E+00  1.67405E+00  1.71478E+00
#           1.75650E+00  1.79924E+00  1.84302E+00  1.88786E+00  1.93379E+00
#           1.98084E+00  2.02904E+00  2.07841E+00  2.12898E+00  2.18078E+00
#           2.23384E+00  2.28819E+00  2.34386E+00  2.40089E+00  2.45930E+00
#           2.51914E+00  2.58043E+00  2.64322E+00  2.70753E+00  2.77341E+00
#           2.84088E+00  2.91001E+00  2.98081E+00  3.05333E+00  3.12762E+00
#           3.20372E+00  3.28167E+00  3.36152E+00  3.44330E+00  3.52708E+00
#           3.61290E+00  3.70080E+00  3.79085E+00  3.88308E+00  3.97756E+00
#           4.07434E+00  4.17347E+00  4.27501E+00  4.37903E+00  4.48557E+00
#           4.59471E+00  4.70650E+00  4.82102E+00  4.93832E+00  5.05847E+00
#           5.18155E+00  5.30762E+00  5.43676E+00  5.56904E+00  5.70453E+00
#           5.84333E+00  5.98550E+00  6.13114E+00  6.28031E+00  6.43312E+00
#           6.58964E+00  6.74997E+00  6.91420E+00  7.08243E+00  7.25475E+00
#           7.43126E+00  7.61207E+00  7.79728E+00  7.98700E+00  8.18133E+00
#           8.38038E+00  8.58428E+00  8.79315E+00  9.00709E+00  9.22624E+00
#           9.45072E+00  9.68067E+00  9.91620E+00  1.01575E+01  1.04046E+01
#           1.06578E+01  1.09171E+01  1.11827E+01  1.14548E+01  1.17335E+01
#           1.20190E+01  1.23114E+01  1.26109E+01  1.29178E+01  1.32321E+01
#           1.35540E+01  1.38838E+01  1.42216E+01  1.45676E+01  1.49221E+01
#           1.52851E+01  1.56570E+01  1.60380E+01  1.64282E+01  1.68279E+01
#           1.72374E+01  1.76568E+01  1.80864E+01  1.85264E+01  1.89772E+01
#           1.94389E+01  1.99119E+01  2.03963E+01  2.08926E+01  2.14009E+01
#           2.19216E+01  2.24550E+01  2.30014E+01  2.35610E+01  2.41343E+01
#           2.47215E+01  2.53230E+01  2.59391E+01  2.65702E+01  2.72167E+01
#           2.78789E+01  2.85572E+01  2.92520E+01  2.99637E+01  3.06928E+01
#           3.14396E+01  3.22045E+01  3.29881E+01  3.37907E+01  3.46128E+01
#           3.54550E+01  3.63177E+01  3.72013E+01  3.81064E+01  3.90336E+01
#           3.99833E+01  4.09561E+01  4.19526E+01  4.29734E+01  4.40189E+01
#           4.50900E+01  4.61870E+01  4.73108E+01  4.84619E+01  4.96410E+01
#           5.08488E+01  5.20860E+01  5.33533E+01  5.46514E+01  5.59812E+01
#           5.73432E+01  5.87384E+01  6.01676E+01  6.16315E+01  6.31311E+01
#           6.46671E+01  6.62405E+01  6.78522E+01  6.95031E+01  7.11941E+01
#           7.29263E+01  7.47007E+01  7.65182E+01  7.83800E+01  8.02870E+01
#           8.22405E+01  8.42414E+01  8.62911E+01  8.83906E+01  9.05412E+01
#           9.27442E+01  9.50007E+01  9.73122E+01  9.96799E+01  1.02105E+02
#           1.04589E+02  1.07134E+02  1.09741E+02  1.12411E+02  1.15146E+02
#           1.17948E+02  1.20817E+02  1.23757E+02  1.26768E+02  1.29852E+02
#           1.33012E+02  1.36248E+02  1.39563E+02  1.42959E+02  1.46437E+02
#           1.50000E+02
     unit =    2            # unit is [1/cm^2/(MeV/n)/source]
     axis =  eng            # axis of output
     file = detector-11.out  # file name of output for the above axis
   output = f-curr          # surface crossing forward current spectrum
     part =  neutron  
# kf/name :  2112     
#    used :        main (  %)        temp (  %)       total (  %)
#  memory :         414 (  0)           0 (  0)         414 (  0)

#------------------------------------------------------------------------------
#newpage:
#   no. =    1   reg = 110 - 210

x: Energy [MeV/n]
y:  F-Curr [1/cm^2/(MeV/n)/source]         
p: xlog ylog afac(0.8) form(0.9)
h: n            x            y(neutron ),hh0l   n 
#  e-lower      e-upper      neutron     r.err 
   1.0000E-02   1.0243E-02   5.1748E-03  0.0398
   1.0243E-02   1.0493E-02   4.6328E-03  0.0415
   1.0493E-02   1.0748E-02   4.5139E-03  0.0416
   1.0748E-02   1.1009E-02   4.6320E-03  0.0405
   1.1009E-02   1.1277E-02   4.5034E-03  0.0406
   1.1277E-02   1.1552E-02   4.5888E-03  0.0398
   1.1552E-02   1.1833E-02   4.3777E-03  0.0403
   1.1833E-02   1.2121E-02   4.7021E-03  0.0384
   1.2121E-02   1.2415E-02   4.0954E-03  0.0406
   1.2415E-02   1.2718E-02   4.2401E-03  0.0394
   1.2718E-02   1.3027E-02   4.5793E-03  0.0375
   1.3027E-02   1.3344E-02   4.0049E-03  0.0396
   1.3344E-02   1.3669E-02   4.3609E-03  0.0375
   1.3669E-02   1.4001E-02   4.1264E-03  0.0381
   1.4001E-02   1.4342E-02   4.1063E-03  0.0377
   1.4342E-02   1.4691E-02   3.7112E-03  0.0392
   1.4691E-02   1.5048E-02   3.8147E-03  0.0382
   1.5048E-02   1.5414E-02   3.2301E-03  0.0410
   1.5414E-02   1.5789E-02   3.5345E-03  0.0388
   1.5789E-02   1.6174E-02   3.5405E-03  0.0383
   1.6174E-02   1.6567E-02   3.3539E-03  0.0389
   1.6567E-02   1.6970E-02   3.4468E-03  0.0379
   1.6970E-02   1.7383E-02   3.4466E-03  0.0374
   1.7383E-02   1.7806E-02   3.3921E-03  0.0373
   1.7806E-02   1.8239E-02   3.3911E-03  0.0368
   1.8239E-02   1.8683E-02   3.1843E-03  0.0375
   1.8683E-02   1.9138E-02   3.1511E-03  0.0373
   1.9138E-02   1.9603E-02   3.2230E-03  0.0365
   1.9603E-02   2.0080E-02   3.0409E-03  0.0371
   2.0080E-02   2.0569E-02   3.0628E-03  0.0365
   2.0569E-02   2.1069E-02   2.9952E-03  0.0365
   2.1069E-02   2.1582E-02   2.8493E-03  0.0369
   2.1582E-02   2.2107E-02   2.7759E-03  0.0370
   2.2107E-02   2.2645E-02   2.6567E-03  0.0374
   2.2645E-02   2.3196E-02   2.6158E-03  0.0372
   2.3196E-02   2.3760E-02   2.7513E-03  0.0358
   2.3760E-02   2.4338E-02   2.6101E-03  0.0363
   2.4338E-02   2.4930E-02   2.5338E-03  0.0364
   2.4930E-02   2.5537E-02   2.6324E-03  0.0353
   2.5537E-02   2.6158E-02   2.6992E-03  0.0345
   2.6158E-02   2.6795E-02   2.5415E-03  0.0351
   2.6795E-02   2.7447E-02   2.5757E-03  0.0344
   2.7447E-02   2.8114E-02   2.3265E-03  0.0359
   2.8114E-02   2.8799E-02   2.2544E-03  0.0359
   2.8799E-02   2.9499E-02   2.4088E-03  0.0344
   2.9499E-02   3.0217E-02   2.3321E-03  0.0345
   3.0217E-02   3.0952E-02   2.3228E-03  0.0341
   3.0952E-02   3.1705E-02   2.0940E-03  0.0355
   3.1705E-02   3.2477E-02   2.1410E-03  0.0347
   3.2477E-02   3.3267E-02   2.0563E-03  0.0350
   3.3267E-02   3.4076E-02   2.0760E-03  0.0344
   3.4076E-02   3.4905E-02   1.9952E-03  0.0347
   3.4905E-02   3.5755E-02   1.9183E-03  0.0350
   3.5755E-02   3.6625E-02   2.0365E-03  0.0336
   3.6625E-02   3.7516E-02   1.9332E-03  0.0340
   3.7516E-02   3.8428E-02   1.9667E-03  0.0334
   3.8428E-02   3.9363E-02   1.7714E-03  0.0347
   3.9363E-02   4.0321E-02   1.8380E-03  0.0336
   4.0321E-02   4.1302E-02   1.7810E-03  0.0338
   4.1302E-02   4.2307E-02   1.7823E-03  0.0333
   4.2307E-02   4.3337E-02   1.7938E-03  0.0329
   4.3337E-02   4.4391E-02   1.6569E-03  0.0338
   4.4391E-02   4.5471E-02   1.6477E-03  0.0335
   4.5471E-02   4.6577E-02   1.7386E-03  0.0322
   4.6577E-02   4.7711E-02   1.6638E-03  0.0325
   4.7711E-02   4.8871E-02   1.5208E-03  0.0336
   4.8871E-02   5.0061E-02   1.6603E-03  0.0318
   5.0061E-02   5.1279E-02   1.5251E-03  0.0327
   5.1279E-02   5.2526E-02   1.4601E-03  0.0331
   5.2526E-02   5.3804E-02   1.4943E-03  0.0323
   5.3804E-02   5.5113E-02   1.3870E-03  0.0331
   5.5113E-02   5.6454E-02   1.3848E-03  0.0327
   5.6454E-02   5.7828E-02   1.3464E-03  0.0328
   5.7828E-02   5.9235E-02   1.3060E-03  0.0329
   5.9235E-02   6.0676E-02   1.3472E-03  0.0320
   6.0676E-02   6.2152E-02   1.3549E-03  0.0315
   6.2152E-02   6.3665E-02   1.2397E-03  0.0326
   6.3665E-02   6.5214E-02   1.2610E-03  0.0319
   6.5214E-02   6.6800E-02   1.2756E-03  0.0314
   6.6800E-02   6.8426E-02   1.1833E-03  0.0322
   6.8426E-02   7.0090E-02   1.2059E-03  0.0315
   7.0090E-02   7.1796E-02   1.2455E-03  0.0306
   7.1796E-02   7.3543E-02   1.1629E-03  0.0313
   7.3543E-02   7.5332E-02   1.1045E-03  0.0317
   7.5332E-02   7.7165E-02   1.1035E-03  0.0314
   7.7165E-02   7.9042E-02   1.1317E-03  0.0306
   7.9042E-02   8.0965E-02   1.0709E-03  0.0311
   8.0965E-02   8.2935E-02   9.8882E-04  0.0320
   8.2935E-02   8.4953E-02   1.0546E-03  0.0306
   8.4953E-02   8.7020E-02   1.0372E-03  0.0305
   8.7020E-02   8.9138E-02   8.8861E-04  0.0325
   8.9138E-02   9.1306E-02   9.6570E-04  0.0308
   9.1306E-02   9.3528E-02   9.5841E-04  0.0306
   9.3528E-02   9.5804E-02   9.2088E-04  0.0308
   9.5804E-02   9.8134E-02   8.6538E-04  0.0314
   9.8134E-02   1.0052E-01   9.0256E-04  0.0304
   1.0052E-01   1.0297E-01   8.6934E-04  0.0306
   1.0297E-01   1.0547E-01   8.7135E-04  0.0302
   1.0547E-01   1.0804E-01   7.9981E-04  0.0311
   1.0804E-01   1.1067E-01   7.9259E-04  0.0309
   1.1067E-01   1.1336E-01   7.5565E-04  0.0313
   1.1336E-01   1.1612E-01   7.9755E-04  0.0301
   1.1612E-01   1.1894E-01   8.1411E-04  0.0294
   1.1894E-01   1.2184E-01   7.9280E-04  0.0295
   1.2184E-01   1.2480E-01   7.6693E-04  0.0296
   1.2480E-01   1.2784E-01   7.0651E-04  0.0305
   1.2784E-01   1.3095E-01   7.3905E-04  0.0294
   1.3095E-01   1.3414E-01   7.0326E-04  0.0298
   1.3414E-01   1.3740E-01   6.9000E-04  0.0297
   1.3740E-01   1.4074E-01   6.7683E-04  0.0297
   1.4074E-01   1.4417E-01   6.6741E-04  0.0295
   1.4417E-01   1.4767E-01   6.4675E-04  0.0296
   1.4767E-01   1.5127E-01   6.1540E-04  0.0300
   1.5127E-01   1.5495E-01   6.3323E-04  0.0292
   1.5495E-01   1.5872E-01   6.4602E-04  0.0286
   1.5872E-01   1.6258E-01   5.8511E-04  0.0297
   1.6258E-01   1.6654E-01   5.7689E-04  0.0295
   1.6654E-01   1.7059E-01   5.8715E-04  0.0289
   1.7059E-01   1.7474E-01   5.5934E-04  0.0293
   1.7474E-01   1.7899E-01   5.8715E-04  0.0283
   1.7899E-01   1.8334E-01   5.6183E-04  0.0285
   1.8334E-01   1.8781E-01   5.2511E-04  0.0291
   1.8781E-01   1.9237E-01   5.2082E-04  0.0289
   1.9237E-01   1.9706E-01   5.0036E-04  0.0291
   1.9706E-01   2.0185E-01   5.2009E-04  0.0283
   2.0185E-01   2.0676E-01   5.1645E-04  0.0280
   2.0676E-01   2.1179E-01   5.3564E-04  0.0272
   2.1179E-01   2.1694E-01   5.7841E-04  0.0258
   2.1694E-01   2.2222E-01   5.8773E-04  0.0253
   2.2222E-01   2.2763E-01   5.5180E-04  0.0258
   2.2763E-01   2.3317E-01   5.6705E-04  0.0252
   2.3317E-01   2.3884E-01   6.1045E-04  0.0240
   2.3884E-01   2.4465E-01   6.1380E-04  0.0236
   2.4465E-01   2.5061E-01   6.5948E-04  0.0225
   2.5061E-01   2.5670E-01   6.4526E-04  0.0225
   2.5670E-01   2.6295E-01   6.7579E-04  0.0217
   2.6295E-01   2.6935E-01   6.9881E-04  0.0211
   2.6935E-01   2.7590E-01   7.0159E-04  0.0208
   2.7590E-01   2.8261E-01   7.0636E-04  0.0205
   2.8261E-01   2.8949E-01   7.4085E-04  0.0198
   2.8949E-01   2.9653E-01   7.7190E-04  0.0191
   2.9653E-01   3.0375E-01   7.4150E-04  0.0193
   3.0375E-01   3.1114E-01   7.6702E-04  0.0187
   3.1114E-01   3.1871E-01   7.9220E-04  0.0182
   3.1871E-01   3.2646E-01   8.2147E-04  0.0177
   3.2646E-01   3.3441E-01   8.2031E-04  0.0175
   3.3441E-01   3.4254E-01   8.4160E-04  0.0170
   3.4254E-01   3.5088E-01   8.3142E-04  0.0169
   3.5088E-01   3.5941E-01   8.5835E-04  0.0165
   3.5941E-01   3.6816E-01   8.8501E-04  0.0160
   3.6816E-01   3.7712E-01   8.6757E-04  0.0160
   3.7712E-01   3.8629E-01   9.3869E-04  0.0152
   3.8629E-01   3.9569E-01   9.2480E-04  0.0151
   3.9569E-01   4.0532E-01   9.0501E-04  0.0151
   4.0532E-01   4.1518E-01   9.3644E-04  0.0147
   4.1518E-01   4.2528E-01   9.7349E-04  0.0142
   4.2528E-01   4.3563E-01   9.6996E-04  0.0141
   4.3563E-01   4.4623E-01   9.8998E-04  0.0138
   4.4623E-01   4.5708E-01   9.7229E-04  0.0137
   4.5708E-01   4.6821E-01   1.0079E-03  0.0133
   4.6821E-01   4.7960E-01   1.0137E-03  0.0131
   4.7960E-01   4.9127E-01   1.0162E-03  0.0129
   4.9127E-01   5.0322E-01   1.0439E-03  0.0126
   5.0322E-01   5.1546E-01   1.0621E-03  0.0124
   5.1546E-01   5.2800E-01   1.0512E-03  0.0123
   5.2800E-01   5.4085E-01   1.0710E-03  0.0120
   5.4085E-01   5.5401E-01   1.0858E-03  0.0118
   5.5401E-01   5.6749E-01   1.0828E-03  0.0117
   5.6749E-01   5.8130E-01   1.0572E-03  0.0117
   5.8130E-01   5.9544E-01   1.0577E-03  0.0115
   5.9544E-01   6.0993E-01   1.1020E-03  0.0112
   6.0993E-01   6.2477E-01   1.1018E-03  0.0110
   6.2477E-01   6.3997E-01   1.0982E-03  0.0109
   6.3997E-01   6.5554E-01   1.1207E-03  0.0107
   6.5554E-01   6.7149E-01   1.1217E-03  0.0105
   6.7149E-01   6.8783E-01   1.1104E-03  0.0105
   6.8783E-01   7.0456E-01   1.1187E-03  0.0103
   7.0456E-01   7.2171E-01   1.1270E-03  0.0101
   7.2171E-01   7.3927E-01   1.1060E-03  0.0101
   7.3927E-01   7.5725E-01   1.1024E-03  0.0100
   7.5725E-01   7.7568E-01   1.1018E-03  0.0099
   7.7568E-01   7.9455E-01   1.0740E-03  0.0099
   7.9455E-01   8.1388E-01   1.0974E-03  0.0097
   8.1388E-01   8.3368E-01   1.0830E-03  0.0096
   8.3368E-01   8.5397E-01   1.0685E-03  0.0096
   8.5397E-01   8.7475E-01   1.0592E-03  0.0095
   8.7475E-01   8.9603E-01   1.0324E-03  0.0095
   8.9603E-01   9.1783E-01   1.0345E-03  0.0094
   9.1783E-01   9.4016E-01   1.0194E-03  0.0093
   9.4016E-01   9.6304E-01   9.9365E-04  0.0093
   9.6304E-01   9.8647E-01   9.6210E-04  0.0094
   9.8647E-01   1.0105E+00   9.5306E-04  0.0093
   1.0105E+00   1.0351E+00   9.6178E-04  0.0092
   1.0351E+00   1.0602E+00   9.6722E-04  0.0090
   1.0602E+00   1.0860E+00   9.6696E-04  0.0089
   1.0860E+00   1.1125E+00   9.9065E-04  0.0087
   1.1125E+00   1.1395E+00   9.9693E-04  0.0086
   1.1395E+00   1.1673E+00   1.0020E-03  0.0085
   1.1673E+00   1.1957E+00   1.0276E-03  0.0082
   1.1957E+00   1.2247E+00   1.0313E-03  0.0081
   1.2247E+00   1.2545E+00   1.0589E-03  0.0079
   1.2545E+00   1.2851E+00   1.0544E-03  0.0079
   1.2851E+00   1.3163E+00   1.0544E-03  0.0078
   1.3163E+00   1.3484E+00   1.0792E-03  0.0076
   1.3484E+00   1.3812E+00   1.0887E-03  0.0075
   1.3812E+00   1.4148E+00   1.1103E-03  0.0073
   1.4148E+00   1.4492E+00   1.1059E-03  0.0072
   1.4492E+00   1.4845E+00   1.1172E-03  0.0071
   1.4845E+00   1.5206E+00   1.1237E-03  0.0070
   1.5206E+00   1.5576E+00   1.1200E-03  0.0069
   1.5576E+00   1.5955E+00   1.1218E-03  0.0068
   1.5955E+00   1.6343E+00   1.1362E-03  0.0067
   1.6343E+00   1.6741E+00   1.1301E-03  0.0066
   1.6741E+00   1.7148E+00   1.1523E-03  0.0065
   1.7148E+00   1.7565E+00   1.1450E-03  0.0064
   1.7565E+00   1.7992E+00   1.1340E-03  0.0064
   1.7992E+00   1.8430E+00   1.1370E-03  0.0063
   1.8430E+00   1.8879E+00   1.1446E-03  0.0062
   1.8879E+00   1.9338E+00   1.1513E-03  0.0061
   1.9338E+00   1.9808E+00   1.1555E-03  0.0060
   1.9808E+00   2.0290E+00   1.1550E-03  0.0060
   2.0290E+00   2.0784E+00   1.1505E-03  0.0059
   2.0784E+00   2.1290E+00   1.1312E-03  0.0059
   2.1290E+00   2.1808E+00   1.1333E-03  0.0058
   2.1808E+00   2.2338E+00   1.1239E-03  0.0058
   2.2338E+00   2.2882E+00   1.1156E-03  0.0057
   2.2882E+00   2.3439E+00   1.1031E-03  0.0057
   2.3439E+00   2.4009E+00   1.1018E-03  0.0056
   2.4009E+00   2.4593E+00   1.1198E-03  0.0055
   2.4593E+00   2.5191E+00   1.0945E-03  0.0055
   2.5191E+00   2.5804E+00   1.1036E-03  0.0054
   2.5804E+00   2.6432E+00   1.0808E-03  0.0054
   2.6432E+00   2.7075E+00   1.0691E-03  0.0054
   2.7075E+00   2.7734E+00   1.0581E-03  0.0053
   2.7734E+00   2.8409E+00   1.0572E-03  0.0053
   2.8409E+00   2.9100E+00   1.0498E-03  0.0052
   2.9100E+00   2.9808E+00   1.0506E-03  0.0052
   2.9808E+00   3.0533E+00   1.0389E-03  0.0051
   3.0533E+00   3.1276E+00   1.0267E-03  0.0051
   3.1276E+00   3.2037E+00   1.0205E-03  0.0051
   3.2037E+00   3.2817E+00   1.0038E-03  0.0050
   3.2817E+00   3.3615E+00   9.8367E-04  0.0050
   3.3615E+00   3.4433E+00   9.7758E-04  0.0050
   3.4433E+00   3.5271E+00   9.6352E-04  0.0050
   3.5271E+00   3.6129E+00   9.5816E-04  0.0049
   3.6129E+00   3.7008E+00   9.4601E-04  0.0049
   3.7008E+00   3.7908E+00   9.3620E-04  0.0049
   3.7908E+00   3.8831E+00   9.1020E-04  0.0049
   3.8831E+00   3.9776E+00   8.9447E-04  0.0048
   3.9776E+00   4.0743E+00   9.0420E-04  0.0048
   4.0743E+00   4.1735E+00   8.8277E-04  0.0048
   4.1735E+00   4.2750E+00   8.7112E-04  0.0047
   4.2750E+00   4.3790E+00   8.5318E-04  0.0047
   4.3790E+00   4.4856E+00   8.4977E-04  0.0047
   4.4856E+00   4.5947E+00   8.3895E-04  0.0047
   4.5947E+00   4.7065E+00   8.3057E-04  0.0046
   4.7065E+00   4.8210E+00   8.2989E-04  0.0046
   4.8210E+00   4.9383E+00   8.1000E-04  0.0046
   4.9383E+00   5.0585E+00   8.0425E-04  0.0045
   5.0585E+00   5.1815E+00   7.9128E-04  0.0045
   5.1815E+00   5.3076E+00   7.6969E-04  0.0045
   5.3076E+00   5.4368E+00   7.5722E-04  0.0045
   5.4368E+00   5.5690E+00   7.4954E-04  0.0045
   5.5690E+00   5.7045E+00   7.2894E-04  0.0045
   5.7045E+00   5.8433E+00   7.1765E-04  0.0045
   5.8433E+00   5.9855E+00   7.0244E-04  0.0045
   5.9855E+00   6.1311E+00   6.8808E-04  0.0045
   6.1311E+00   6.2803E+00   6.6995E-04  0.0045
   6.2803E+00   6.4331E+00   6.6133E-04  0.0044
   6.4331E+00   6.5896E+00   6.4482E-04  0.0044
   6.5896E+00   6.7500E+00   6.3282E-04  0.0044
   6.7500E+00   6.9142E+00   6.1367E-04  0.0044
   6.9142E+00   7.0824E+00   6.0185E-04  0.0044
   7.0824E+00   7.2548E+00   5.9330E-04  0.0044
   7.2548E+00   7.4313E+00   5.7906E-04  0.0044
   7.4313E+00   7.6121E+00   5.6425E-04  0.0044
   7.6121E+00   7.7973E+00   5.4921E-04  0.0044
   7.7973E+00   7.9870E+00   5.3839E-04  0.0044
   7.9870E+00   8.1813E+00   5.2212E-04  0.0044
   8.1813E+00   8.3804E+00   5.0942E-04  0.0044
   8.3804E+00   8.5843E+00   4.9604E-04  0.0044
   8.5843E+00   8.7931E+00   4.8481E-04  0.0044
   8.7931E+00   9.0071E+00   4.6904E-04  0.0045
   9.0071E+00   9.2262E+00   4.5587E-04  0.0045
   9.2262E+00   9.4507E+00   4.4069E-04  0.0045
   9.4507E+00   9.6807E+00   4.3081E-04  0.0045
   9.6807E+00   9.9162E+00   4.1788E-04  0.0045
   9.9162E+00   1.0157E+01   4.0764E-04  0.0045
   1.0157E+01   1.0405E+01   3.9586E-04  0.0045
   1.0405E+01   1.0658E+01   3.9033E-04  0.0045
   1.0658E+01   1.0917E+01   3.8035E-04  0.0045
   1.0917E+01   1.1183E+01   3.6754E-04  0.0045
   1.1183E+01   1.1455E+01   3.5794E-04  0.0045
   1.1455E+01   1.1733E+01   3.4865E-04  0.0045
   1.1733E+01   1.2019E+01   3.4141E-04  0.0045
   1.2019E+01   1.2311E+01   3.2692E-04  0.0046
   1.2311E+01   1.2611E+01   3.1897E-04  0.0046
   1.2611E+01   1.2918E+01   3.0882E-04  0.0046
   1.2918E+01   1.3232E+01   2.9676E-04  0.0046
   1.3232E+01   1.3554E+01   2.8499E-04  0.0047
   1.3554E+01   1.3884E+01   2.7762E-04  0.0047
   1.3884E+01   1.4222E+01   2.6986E-04  0.0047
   1.4222E+01   1.4568E+01   2.5881E-04  0.0047
   1.4568E+01   1.4922E+01   2.4864E-04  0.0048
   1.4922E+01   1.5285E+01   2.4017E-04  0.0048
   1.5285E+01   1.5657E+01   2.3311E-04  0.0048
   1.5657E+01   1.6038E+01   2.2160E-04  0.0049
   1.6038E+01   1.6428E+01   2.1429E-04  0.0049
   1.6428E+01   1.6828E+01   2.0520E-04  0.0049
   1.6828E+01   1.7237E+01   1.9805E-04  0.0050
   1.7237E+01   1.7657E+01   1.8932E-04  0.0050
   1.7657E+01   1.8086E+01   1.8198E-04  0.0051
   1.8086E+01   1.8526E+01   1.7334E-04  0.0051
   1.8526E+01   1.8977E+01   1.6633E-04  0.0052
   1.8977E+01   1.9439E+01   1.6163E-04  0.0052
   1.9439E+01   1.9912E+01   1.5827E-04  0.0052
   1.9912E+01   2.0396E+01   1.5263E-04  0.0052
   2.0396E+01   2.0893E+01   1.4702E-04  0.0052
   2.0893E+01   2.1401E+01   1.3799E-04  0.0053
   2.1401E+01   2.1922E+01   1.3324E-04  0.0054
   2.1922E+01   2.2455E+01   1.2666E-04  0.0054
   2.2455E+01   2.3001E+01   1.2084E-04  0.0055
   2.3001E+01   2.3561E+01   1.1358E-04  0.0056
   2.3561E+01   2.4134E+01   1.0728E-04  0.0057
   2.4134E+01   2.4721E+01   1.0195E-04  0.0058
   2.4721E+01   2.5323E+01   9.4342E-05  0.0059
   2.5323E+01   2.5939E+01   8.8946E-05  0.0060
   2.5939E+01   2.6570E+01   8.3949E-05  0.0061
   2.6570E+01   2.7217E+01   7.9217E-05  0.0062
   2.7217E+01   2.7879E+01   7.4243E-05  0.0064
   2.7879E+01   2.8557E+01   6.9478E-05  0.0065
   2.8557E+01   2.9252E+01   6.5182E-05  0.0066
   2.9252E+01   2.9964E+01   6.0242E-05  0.0068
   2.9964E+01   3.0693E+01   5.5355E-05  0.0070
   3.0693E+01   3.1440E+01   5.1927E-05  0.0072
   3.1440E+01   3.2205E+01   4.7799E-05  0.0074
   3.2205E+01   3.2988E+01   4.4563E-05  0.0076
   3.2988E+01   3.3791E+01   4.1068E-05  0.0078
   3.3791E+01   3.4613E+01   3.8080E-05  0.0080
   3.4613E+01   3.5455E+01   3.5043E-05  0.0082
   3.5455E+01   3.6318E+01   3.2609E-05  0.0084
   3.6318E+01   3.7201E+01   3.0345E-05  0.0086
   3.7201E+01   3.8106E+01   2.7083E-05  0.0090
   3.8106E+01   3.9034E+01   2.5493E-05  0.0092
   3.9034E+01   3.9983E+01   2.3097E-05  0.0095
   3.9983E+01   4.0956E+01   2.1214E-05  0.0098
   4.0956E+01   4.1953E+01   1.9404E-05  0.0102
   4.1953E+01   4.2973E+01   1.7403E-05  0.0106
   4.2973E+01   4.4019E+01   1.6112E-05  0.0109
   4.4019E+01   4.5090E+01   1.4265E-05  0.0114
   4.5090E+01   4.6187E+01   1.3038E-05  0.0118
   4.6187E+01   4.7311E+01   1.2054E-05  0.0122
   4.7311E+01   4.8462E+01   1.0367E-05  0.0129
   4.8462E+01   4.9641E+01   9.3460E-06  0.0135
   4.9641E+01   5.0849E+01   8.3043E-06  0.0141
   5.0849E+01   5.2086E+01   7.2438E-06  0.0149
   5.2086E+01   5.3353E+01   6.2369E-06  0.0159
   5.3353E+01   5.4651E+01   5.3739E-06  0.0169
   5.4651E+01   5.5981E+01   4.5273E-06  0.0182
   5.5981E+01   5.7343E+01   3.9176E-06  0.0194
   5.7343E+01   5.8738E+01   3.3228E-06  0.0208
   5.8738E+01   6.0168E+01   2.8366E-06  0.0222
   6.0168E+01   6.1632E+01   2.4988E-06  0.0234
   6.1632E+01   6.3131E+01   1.9419E-06  0.0262
   6.3131E+01   6.4667E+01   1.6836E-06  0.0278
   6.4667E+01   6.6240E+01   1.3995E-06  0.0301
   6.6240E+01   6.7852E+01   1.1789E-06  0.0324
   6.7852E+01   6.9503E+01   9.1708E-07  0.0363
   6.9503E+01   7.1194E+01   7.7348E-07  0.0391
   7.1194E+01   7.2926E+01   5.9346E-07  0.0441
   7.2926E+01   7.4701E+01   5.0272E-07  0.0474
   7.4701E+01   7.6518E+01   3.7634E-07  0.0541
   7.6518E+01   7.8380E+01   2.6749E-07  0.0634
   7.8380E+01   8.0287E+01   1.5731E-07  0.0816
   8.0287E+01   8.2240E+01   9.5216E-08  0.1037
   8.2240E+01   8.4241E+01   6.5968E-08  0.1231
   8.4241E+01   8.6291E+01   3.0249E-08  0.1796
   8.6291E+01   8.8391E+01   1.2384E-08  0.2774
   8.8391E+01   9.0541E+01   1.8599E-09  0.7071
   9.0541E+01   9.2744E+01   9.0788E-10  1.0000
   9.2744E+01   9.5001E+01   0.0000E+00  0.0000
   9.5001E+01   9.7312E+01   0.0000E+00  0.0000
   9.7312E+01   9.9680E+01   0.0000E+00  0.0000
   9.9680E+01   1.0211E+02   0.0000E+00  0.0000
   1.0211E+02   1.0459E+02   0.0000E+00  0.0000
   1.0459E+02   1.0713E+02   0.0000E+00  0.0000
   1.0713E+02   1.0974E+02   0.0000E+00  0.0000
   1.0974E+02   1.1241E+02   0.0000E+00  0.0000
   1.1241E+02   1.1515E+02   0.0000E+00  0.0000
   1.1515E+02   1.1795E+02   0.0000E+00  0.0000
   1.1795E+02   1.2082E+02   0.0000E+00  0.0000
   1.2082E+02   1.2376E+02   0.0000E+00  0.0000
   1.2376E+02   1.2677E+02   0.0000E+00  0.0000
   1.2677E+02   1.2985E+02   0.0000E+00  0.0000
   1.2985E+02   1.3301E+02   0.0000E+00  0.0000
   1.3301E+02   1.3625E+02   0.0000E+00  0.0000
   1.3625E+02   1.3956E+02   0.0000E+00  0.0000
   1.3956E+02   1.4296E+02   0.0000E+00  0.0000
   1.4296E+02   1.4644E+02   0.0000E+00  0.0000
   1.4644E+02   1.5000E+02   0.0000E+00  0.0000

#   sum over                 8.0176E-05
'no. =    1   reg = 110 - 210'
msuc: {\huge [t-cross] in region mesh}
msdr: {\it plotted by \ANGEL \version}
msdl: {\it calculated by \PHITS  3.26}
wt: s(0.7)
\vspace{-3}
  region surface crossing
  area  &=&   1.0000E+00 [cm^2]
e:
 
# Information for Restart Calculation
# This calculation was newly started
# istdev =  2 # 1:Batch variance, 2:History variance
# resc2  = 5.00000000000000000E+08 # Total source weight or Total source weight / maxcas
# resc3  = 5.00000000000000000E+08 # Total history number or Total batch number
# maxcas =   500000000 # History / Batch, only used for istdev=1
# bitrseed = 1101101111010011011000101101110001100110110010110001010100010001 # bit data of rseed
