[ T-Cross ]
    title = [t-cross] in region mesh
     mesh =  reg            # mesh type is region-wise
      reg =    1            # number of crossing regions
      non     r-from    r-to       area
      1       106       206        1.000000    
   e-type =    3            # e-mesh is log given by emin, emax and ne
     emin =  1.0000000E-02  # minimum value of e-mesh points
     emax =   150.0000      # maximum value of e-mesh points
#    edel =  2.4039514E-02  # mesh width of e-mesh points
       ne =    400          # number of e-mesh points
#    data = ( e(i), i = 1, ne + 1 )
#           1.00000E-02  1.02433E-02  1.04925E-02  1.07478E-02  1.10093E-02
#           1.12772E-02  1.15516E-02  1.18326E-02  1.21205E-02  1.24154E-02
#           1.27175E-02  1.30269E-02  1.33439E-02  1.36686E-02  1.40011E-02
#           1.43418E-02  1.46907E-02  1.50482E-02  1.54143E-02  1.57894E-02
#           1.61735E-02  1.65670E-02  1.69701E-02  1.73830E-02  1.78060E-02
#           1.82392E-02  1.86830E-02  1.91375E-02  1.96032E-02  2.00801E-02
#           2.05687E-02  2.10692E-02  2.15818E-02  2.21069E-02  2.26448E-02
#           2.31957E-02  2.37601E-02  2.43382E-02  2.49304E-02  2.55369E-02
#           2.61583E-02  2.67947E-02  2.74467E-02  2.81145E-02  2.87985E-02
#           2.94992E-02  3.02169E-02  3.09521E-02  3.17052E-02  3.24766E-02
#           3.32668E-02  3.40762E-02  3.49053E-02  3.57546E-02  3.66246E-02
#           3.75157E-02  3.84284E-02  3.93634E-02  4.03212E-02  4.13022E-02
#           4.23071E-02  4.33365E-02  4.43909E-02  4.54710E-02  4.65773E-02
#           4.77106E-02  4.88714E-02  5.00605E-02  5.12785E-02  5.25262E-02
#           5.38042E-02  5.51133E-02  5.64542E-02  5.78278E-02  5.92348E-02
#           6.06760E-02  6.21523E-02  6.36645E-02  6.52135E-02  6.68002E-02
#           6.84255E-02  7.00904E-02  7.17957E-02  7.35426E-02  7.53319E-02
#           7.71648E-02  7.90423E-02  8.09655E-02  8.29354E-02  8.49533E-02
#           8.70203E-02  8.91376E-02  9.13064E-02  9.35279E-02  9.58035E-02
#           9.81345E-02  1.00522E-01  1.02968E-01  1.05473E-01  1.08040E-01
#           1.10668E-01  1.13361E-01  1.16119E-01  1.18944E-01  1.21838E-01
#           1.24803E-01  1.27839E-01  1.30950E-01  1.34136E-01  1.37399E-01
#           1.40742E-01  1.44167E-01  1.47675E-01  1.51268E-01  1.54948E-01
#           1.58718E-01  1.62580E-01  1.66535E-01  1.70587E-01  1.74738E-01
#           1.78989E-01  1.83344E-01  1.87805E-01  1.92375E-01  1.97055E-01
#           2.01850E-01  2.06761E-01  2.11792E-01  2.16945E-01  2.22223E-01
#           2.27630E-01  2.33169E-01  2.38842E-01  2.44653E-01  2.50605E-01
#           2.56703E-01  2.62949E-01  2.69346E-01  2.75900E-01  2.82613E-01
#           2.89489E-01  2.96532E-01  3.03747E-01  3.11138E-01  3.18708E-01
#           3.26462E-01  3.34405E-01  3.42542E-01  3.50876E-01  3.59413E-01
#           3.68158E-01  3.77116E-01  3.86291E-01  3.95690E-01  4.05317E-01
#           4.15179E-01  4.25281E-01  4.35628E-01  4.46227E-01  4.57084E-01
#           4.68205E-01  4.79597E-01  4.91266E-01  5.03219E-01  5.15463E-01
#           5.28005E-01  5.40851E-01  5.54011E-01  5.67490E-01  5.81298E-01
#           5.95441E-01  6.09929E-01  6.24769E-01  6.39970E-01  6.55541E-01
#           6.71491E-01  6.87828E-01  7.04564E-01  7.21706E-01  7.39266E-01
#           7.57253E-01  7.75678E-01  7.94551E-01  8.13883E-01  8.33685E-01
#           8.53969E-01  8.74747E-01  8.96030E-01  9.17831E-01  9.40163E-01
#           9.63038E-01  9.86469E-01  1.01047E+00  1.03506E+00  1.06024E+00
#           1.08604E+00  1.11246E+00  1.13953E+00  1.16725E+00  1.19565E+00
#           1.22474E+00  1.25454E+00  1.28507E+00  1.31633E+00  1.34836E+00
#           1.38117E+00  1.41477E+00  1.44920E+00  1.48446E+00  1.52057E+00
#           1.55757E+00  1.59547E+00  1.63429E+00  1.67405E+00  1.71478E+00
#           1.75650E+00  1.79924E+00  1.84302E+00  1.88786E+00  1.93379E+00
#           1.98084E+00  2.02904E+00  2.07841E+00  2.12898E+00  2.18078E+00
#           2.23384E+00  2.28819E+00  2.34386E+00  2.40089E+00  2.45930E+00
#           2.51914E+00  2.58043E+00  2.64322E+00  2.70753E+00  2.77341E+00
#           2.84088E+00  2.91001E+00  2.98081E+00  3.05333E+00  3.12762E+00
#           3.20372E+00  3.28167E+00  3.36152E+00  3.44330E+00  3.52708E+00
#           3.61290E+00  3.70080E+00  3.79085E+00  3.88308E+00  3.97756E+00
#           4.07434E+00  4.17347E+00  4.27501E+00  4.37903E+00  4.48557E+00
#           4.59471E+00  4.70650E+00  4.82102E+00  4.93832E+00  5.05847E+00
#           5.18155E+00  5.30762E+00  5.43676E+00  5.56904E+00  5.70453E+00
#           5.84333E+00  5.98550E+00  6.13114E+00  6.28031E+00  6.43312E+00
#           6.58964E+00  6.74997E+00  6.91420E+00  7.08243E+00  7.25475E+00
#           7.43126E+00  7.61207E+00  7.79728E+00  7.98700E+00  8.18133E+00
#           8.38038E+00  8.58428E+00  8.79315E+00  9.00709E+00  9.22624E+00
#           9.45072E+00  9.68067E+00  9.91620E+00  1.01575E+01  1.04046E+01
#           1.06578E+01  1.09171E+01  1.11827E+01  1.14548E+01  1.17335E+01
#           1.20190E+01  1.23114E+01  1.26109E+01  1.29178E+01  1.32321E+01
#           1.35540E+01  1.38838E+01  1.42216E+01  1.45676E+01  1.49221E+01
#           1.52851E+01  1.56570E+01  1.60380E+01  1.64282E+01  1.68279E+01
#           1.72374E+01  1.76568E+01  1.80864E+01  1.85264E+01  1.89772E+01
#           1.94389E+01  1.99119E+01  2.03963E+01  2.08926E+01  2.14009E+01
#           2.19216E+01  2.24550E+01  2.30014E+01  2.35610E+01  2.41343E+01
#           2.47215E+01  2.53230E+01  2.59391E+01  2.65702E+01  2.72167E+01
#           2.78789E+01  2.85572E+01  2.92520E+01  2.99637E+01  3.06928E+01
#           3.14396E+01  3.22045E+01  3.29881E+01  3.37907E+01  3.46128E+01
#           3.54550E+01  3.63177E+01  3.72013E+01  3.81064E+01  3.90336E+01
#           3.99833E+01  4.09561E+01  4.19526E+01  4.29734E+01  4.40189E+01
#           4.50900E+01  4.61870E+01  4.73108E+01  4.84619E+01  4.96410E+01
#           5.08488E+01  5.20860E+01  5.33533E+01  5.46514E+01  5.59812E+01
#           5.73432E+01  5.87384E+01  6.01676E+01  6.16315E+01  6.31311E+01
#           6.46671E+01  6.62405E+01  6.78522E+01  6.95031E+01  7.11941E+01
#           7.29263E+01  7.47007E+01  7.65182E+01  7.83800E+01  8.02870E+01
#           8.22405E+01  8.42414E+01  8.62911E+01  8.83906E+01  9.05412E+01
#           9.27442E+01  9.50007E+01  9.73122E+01  9.96799E+01  1.02105E+02
#           1.04589E+02  1.07134E+02  1.09741E+02  1.12411E+02  1.15146E+02
#           1.17948E+02  1.20817E+02  1.23757E+02  1.26768E+02  1.29852E+02
#           1.33012E+02  1.36248E+02  1.39563E+02  1.42959E+02  1.46437E+02
#           1.50000E+02
     unit =    2            # unit is [1/cm^2/(MeV/n)/source]
     axis =  eng            # axis of output
     file = detector-07.out  # file name of output for the above axis
   output = f-curr          # surface crossing forward current spectrum
     part =  neutron  
# kf/name :  2112     
#    used :        main (  %)        temp (  %)       total (  %)
#  memory :         414 (  0)           0 (  0)         414 (  0)

#------------------------------------------------------------------------------
#newpage:
#   no. =    1   reg = 106 - 206

x: Energy [MeV/n]
y:  F-Curr [1/cm^2/(MeV/n)/source]         
p: xlog ylog afac(0.8) form(0.9)
h: n            x            y(neutron ),hh0l   n 
#  e-lower      e-upper      neutron     r.err 
   1.0000E-02   1.0243E-02   1.6906E-04  0.0766
   1.0243E-02   1.0493E-02   1.6927E-04  0.0755
   1.0493E-02   1.0748E-02   1.5367E-04  0.0780
   1.0748E-02   1.1009E-02   1.4755E-04  0.0790
   1.1009E-02   1.1277E-02   1.5832E-04  0.0753
   1.1277E-02   1.1552E-02   1.5241E-04  0.0759
   1.1552E-02   1.1833E-02   1.3299E-04  0.0800
   1.1833E-02   1.2121E-02   1.4963E-04  0.0747
   1.2121E-02   1.2415E-02   1.4929E-04  0.0740
   1.2415E-02   1.2718E-02   1.1673E-04  0.0826
   1.2718E-02   1.3027E-02   1.2834E-04  0.0778
   1.3027E-02   1.3344E-02   1.2863E-04  0.0768
   1.3344E-02   1.3669E-02   1.2645E-04  0.0765
   1.3669E-02   1.4001E-02   1.3760E-04  0.0724
   1.4001E-02   1.4342E-02   1.1486E-04  0.0785
   1.4342E-02   1.4691E-02   1.0352E-04  0.0815
   1.4691E-02   1.5048E-02   1.1741E-04  0.0758
   1.5048E-02   1.5414E-02   1.1264E-04  0.0764
   1.5414E-02   1.5789E-02   1.0777E-04  0.0772
   1.5789E-02   1.6174E-02   1.2748E-04  0.0701
   1.6174E-02   1.6567E-02   1.1990E-04  0.0714
   1.6567E-02   1.6970E-02   1.1144E-04  0.0732
   1.6970E-02   1.7383E-02   1.0855E-04  0.0732
   1.7383E-02   1.7806E-02   9.8417E-05  0.0760
   1.7806E-02   1.8239E-02   1.0488E-04  0.0729
   1.8239E-02   1.8683E-02   9.5379E-05  0.0755
   1.8683E-02   1.9138E-02   1.0281E-04  0.0718
   1.9138E-02   1.9603E-02   1.0672E-04  0.0696
   1.9603E-02   2.0080E-02   8.0000E-05  0.0794
   2.0080E-02   2.0569E-02   8.7204E-05  0.0752
   2.0569E-02   2.1069E-02   8.2421E-05  0.0763
   2.1069E-02   2.1582E-02   8.1164E-05  0.0759
   2.1582E-02   2.2107E-02   7.9847E-05  0.0756
   2.2107E-02   2.2645E-02   7.5321E-05  0.0770
   2.2645E-02   2.3196E-02   7.7609E-05  0.0751
   2.3196E-02   2.3760E-02   7.7415E-05  0.0741
   2.3760E-02   2.4338E-02   7.0004E-05  0.0771
   2.4338E-02   2.4930E-02   7.0443E-05  0.0758
   2.4930E-02   2.5537E-02   7.5557E-05  0.0725
   2.5537E-02   2.6158E-02   6.6846E-05  0.0761
   2.6158E-02   2.6795E-02   7.3405E-05  0.0717
   2.6795E-02   2.7447E-02   6.7627E-05  0.0739
   2.7447E-02   2.8114E-02   7.4455E-05  0.0696
   2.8114E-02   2.8799E-02   6.0041E-05  0.0766
   2.8799E-02   2.9499E-02   6.3756E-05  0.0734
   2.9499E-02   3.0217E-02   6.6993E-05  0.0707
   3.0217E-02   3.0952E-02   6.3292E-05  0.0718
   3.0952E-02   3.1705E-02   5.6933E-05  0.0750
   3.1705E-02   3.2477E-02   5.8667E-05  0.0730
   3.2477E-02   3.3267E-02   5.6917E-05  0.0733
   3.3267E-02   3.4076E-02   5.4862E-05  0.0736
   3.4076E-02   3.4905E-02   5.6574E-05  0.0716
   3.4905E-02   3.5755E-02   5.3062E-05  0.0727
   3.5755E-02   3.6625E-02   5.8452E-05  0.0685
   3.6625E-02   3.7516E-02   5.0224E-05  0.0734
   3.7516E-02   3.8428E-02   4.9285E-05  0.0730
   3.8428E-02   3.9363E-02   3.9636E-05  0.0806
   3.9363E-02   4.0321E-02   4.9853E-05  0.0708
   4.0321E-02   4.1302E-02   4.3966E-05  0.0747
   4.1302E-02   4.2307E-02   4.7726E-05  0.0709
   4.2307E-02   4.3337E-02   4.9095E-05  0.0690
   4.3337E-02   4.4391E-02   4.4421E-05  0.0716
   4.4391E-02   4.5471E-02   4.4209E-05  0.0710
   4.5471E-02   4.6577E-02   4.4403E-05  0.0700
   4.6577E-02   4.7711E-02   4.4640E-05  0.0688
   4.7711E-02   4.8871E-02   4.2191E-05  0.0700
   4.8871E-02   5.0061E-02   4.2615E-05  0.0688
   5.0061E-02   5.1279E-02   3.5567E-05  0.0746
   5.1279E-02   5.2526E-02   3.8542E-05  0.0708
   5.2526E-02   5.3804E-02   3.9026E-05  0.0694
   5.3804E-02   5.5113E-02   4.0721E-05  0.0671
   5.5113E-02   5.6454E-02   3.6322E-05  0.0702
   5.6454E-02   5.7828E-02   3.8293E-05  0.0676
   5.7828E-02   5.9235E-02   3.6061E-05  0.0688
   5.9235E-02   6.0676E-02   3.8628E-05  0.0658
   6.0676E-02   6.2152E-02   3.7434E-05  0.0661
   6.2152E-02   6.3665E-02   3.3379E-05  0.0691
   6.3665E-02   6.5214E-02   3.5192E-05  0.0664
   6.5214E-02   6.6800E-02   3.0535E-05  0.0703
   6.6800E-02   6.8426E-02   3.4047E-05  0.0659
   6.8426E-02   7.0090E-02   2.9888E-05  0.0695
   7.0090E-02   7.1796E-02   2.9278E-05  0.0694
   7.1796E-02   7.3543E-02   3.1652E-05  0.0661
   7.3543E-02   7.5332E-02   3.0435E-05  0.0664
   7.5332E-02   7.7165E-02   2.7888E-05  0.0686
   7.7165E-02   7.9042E-02   3.1214E-05  0.0640
   7.9042E-02   8.0965E-02   2.7572E-05  0.0673
   8.0965E-02   8.2935E-02   2.8610E-05  0.0655
   8.2935E-02   8.4953E-02   2.7889E-05  0.0654
   8.4953E-02   8.7020E-02   2.5402E-05  0.0678
   8.7020E-02   8.9138E-02   2.9413E-05  0.0621
   8.9138E-02   9.1306E-02   2.4823E-05  0.0669
   9.1306E-02   9.3528E-02   2.8021E-05  0.0622
   9.3528E-02   9.5804E-02   2.3400E-05  0.0671
   9.5804E-02   9.8134E-02   2.2646E-05  0.0675
   9.8134E-02   1.0052E-01   2.5410E-05  0.0629
   1.0052E-01   1.0297E-01   2.6378E-05  0.0611
   1.0297E-01   1.0547E-01   2.8504E-05  0.0581
   1.0547E-01   1.0804E-01   2.6267E-05  0.0597
   1.0804E-01   1.1067E-01   3.3480E-05  0.0524
   1.1067E-01   1.1336E-01   3.0373E-05  0.0543
   1.1336E-01   1.1612E-01   3.3088E-05  0.0514
   1.1612E-01   1.1894E-01   3.6131E-05  0.0486
   1.1894E-01   1.2184E-01   3.4402E-05  0.0491
   1.2184E-01   1.2480E-01   3.5334E-05  0.0479
   1.2480E-01   1.2784E-01   3.5068E-05  0.0476
   1.2784E-01   1.3095E-01   4.0232E-05  0.0439
   1.3095E-01   1.3414E-01   4.0415E-05  0.0433
   1.3414E-01   1.3740E-01   4.2095E-05  0.0419
   1.3740E-01   1.4074E-01   4.2282E-05  0.0413
   1.4074E-01   1.4417E-01   4.3297E-05  0.0403
   1.4417E-01   1.4767E-01   4.8142E-05  0.0377
   1.4767E-01   1.5127E-01   4.9093E-05  0.0370
   1.5127E-01   1.5495E-01   5.0762E-05  0.0359
   1.5495E-01   1.5872E-01   5.3954E-05  0.0344
   1.5872E-01   1.6258E-01   5.5940E-05  0.0333
   1.6258E-01   1.6654E-01   5.5680E-05  0.0330
   1.6654E-01   1.7059E-01   5.7406E-05  0.0322
   1.7059E-01   1.7474E-01   6.3623E-05  0.0302
   1.7474E-01   1.7899E-01   6.2889E-05  0.0300
   1.7899E-01   1.8334E-01   6.3038E-05  0.0296
   1.8334E-01   1.8781E-01   6.8365E-05  0.0281
   1.8781E-01   1.9237E-01   6.8113E-05  0.0278
   1.9237E-01   1.9706E-01   7.5640E-05  0.0261
   1.9706E-01   2.0185E-01   7.5849E-05  0.0257
   2.0185E-01   2.0676E-01   7.9064E-05  0.0249
   2.0676E-01   2.1179E-01   8.1056E-05  0.0243
   2.1179E-01   2.1694E-01   8.5080E-05  0.0234
   2.1694E-01   2.2222E-01   8.8902E-05  0.0227
   2.2222E-01   2.2763E-01   9.1140E-05  0.0221
   2.2763E-01   2.3317E-01   9.2453E-05  0.0217
   2.3317E-01   2.3884E-01   9.7413E-05  0.0209
   2.3884E-01   2.4465E-01   9.7300E-05  0.0206
   2.4465E-01   2.5061E-01   1.0003E-04  0.0201
   2.5061E-01   2.5670E-01   1.0258E-04  0.0196
   2.5670E-01   2.6295E-01   1.0671E-04  0.0190
   2.6295E-01   2.6935E-01   1.0928E-04  0.0185
   2.6935E-01   2.7590E-01   1.1377E-04  0.0180
   2.7590E-01   2.8261E-01   1.1804E-04  0.0174
   2.8261E-01   2.8949E-01   1.2119E-04  0.0170
   2.8949E-01   2.9653E-01   1.2340E-04  0.0166
   2.9653E-01   3.0375E-01   1.2486E-04  0.0163
   3.0375E-01   3.1114E-01   1.3138E-04  0.0157
   3.1114E-01   3.1871E-01   1.3302E-04  0.0154
   3.1871E-01   3.2646E-01   1.3340E-04  0.0152
   3.2646E-01   3.3441E-01   1.3538E-04  0.0150
   3.3441E-01   3.4254E-01   1.4237E-04  0.0144
   3.4254E-01   3.5088E-01   1.4537E-04  0.0141
   3.5088E-01   3.5941E-01   1.5090E-04  0.0137
   3.5941E-01   3.6816E-01   1.5359E-04  0.0134
   3.6816E-01   3.7712E-01   1.5739E-04  0.0131
   3.7712E-01   3.8629E-01   1.6092E-04  0.0128
   3.8629E-01   3.9569E-01   1.5993E-04  0.0126
   3.9569E-01   4.0532E-01   1.6658E-04  0.0122
   4.0532E-01   4.1518E-01   1.6826E-04  0.0120
   4.1518E-01   4.2528E-01   1.7150E-04  0.0118
   4.2528E-01   4.3563E-01   1.7337E-04  0.0116
   4.3563E-01   4.4623E-01   1.7695E-04  0.0113
   4.4623E-01   4.5708E-01   1.7822E-04  0.0111
   4.5708E-01   4.6821E-01   1.8521E-04  0.0108
   4.6821E-01   4.7960E-01   1.8157E-04  0.0108
   4.7960E-01   4.9127E-01   1.8072E-04  0.0107
   4.9127E-01   5.0322E-01   1.8546E-04  0.0104
   5.0322E-01   5.1546E-01   1.8791E-04  0.0102
   5.1546E-01   5.2800E-01   1.9071E-04  0.0100
   5.2800E-01   5.4085E-01   1.8858E-04  0.0100
   5.4085E-01   5.5401E-01   1.9258E-04  0.0097
   5.5401E-01   5.6749E-01   1.9265E-04  0.0096
   5.6749E-01   5.8130E-01   1.8866E-04  0.0096
   5.8130E-01   5.9544E-01   1.9238E-04  0.0094
   5.9544E-01   6.0993E-01   1.9320E-04  0.0093
   6.0993E-01   6.2477E-01   1.9224E-04  0.0092
   6.2477E-01   6.3997E-01   1.9022E-04  0.0091
   6.3997E-01   6.5554E-01   1.9376E-04  0.0089
   6.5554E-01   6.7149E-01   1.8865E-04  0.0089
   6.7149E-01   6.8783E-01   1.8965E-04  0.0088
   6.8783E-01   7.0456E-01   1.8414E-04  0.0088
   7.0456E-01   7.2171E-01   1.8324E-04  0.0087
   7.2171E-01   7.3927E-01   1.7867E-04  0.0087
   7.3927E-01   7.5725E-01   1.7741E-04  0.0087
   7.5725E-01   7.7568E-01   1.7561E-04  0.0086
   7.7568E-01   7.9455E-01   1.7015E-04  0.0086
   7.9455E-01   8.1388E-01   1.6725E-04  0.0086
   8.1388E-01   8.3368E-01   1.6282E-04  0.0086
   8.3368E-01   8.5397E-01   1.6183E-04  0.0085
   8.5397E-01   8.7475E-01   1.5614E-04  0.0086
   8.7475E-01   8.9603E-01   1.5114E-04  0.0086
   8.9603E-01   9.1783E-01   1.4601E-04  0.0086
   9.1783E-01   9.4016E-01   1.4021E-04  0.0087
   9.4016E-01   9.6304E-01   1.3800E-04  0.0087
   9.6304E-01   9.8647E-01   1.3242E-04  0.0088
   9.8647E-01   1.0105E+00   1.3014E-04  0.0087
   1.0105E+00   1.0351E+00   1.3252E-04  0.0085
   1.0351E+00   1.0602E+00   1.3494E-04  0.0084
   1.0602E+00   1.0860E+00   1.3704E-04  0.0082
   1.0860E+00   1.1125E+00   1.4092E-04  0.0080
   1.1125E+00   1.1395E+00   1.4894E-04  0.0077
   1.1395E+00   1.1673E+00   1.5650E-04  0.0074
   1.1673E+00   1.1957E+00   1.5874E-04  0.0072
   1.1957E+00   1.2247E+00   1.6597E-04  0.0070
   1.2247E+00   1.2545E+00   1.6955E-04  0.0068
   1.2545E+00   1.2851E+00   1.7255E-04  0.0067
   1.2851E+00   1.3163E+00   1.7679E-04  0.0065
   1.3163E+00   1.3484E+00   1.8083E-04  0.0064
   1.3484E+00   1.3812E+00   1.8679E-04  0.0062
   1.3812E+00   1.4148E+00   1.9074E-04  0.0061
   1.4148E+00   1.4492E+00   1.9458E-04  0.0059
   1.4492E+00   1.4845E+00   1.9485E-04  0.0059
   1.4845E+00   1.5206E+00   1.9745E-04  0.0057
   1.5206E+00   1.5576E+00   1.9686E-04  0.0057
   1.5576E+00   1.5955E+00   1.9848E-04  0.0056
   1.5955E+00   1.6343E+00   1.9950E-04  0.0055
   1.6343E+00   1.6741E+00   2.0325E-04  0.0054
   1.6741E+00   1.7148E+00   2.0378E-04  0.0053
   1.7148E+00   1.7565E+00   1.9976E-04  0.0053
   1.7565E+00   1.7992E+00   1.9210E-04  0.0053
   1.7992E+00   1.8430E+00   1.8497E-04  0.0053
   1.8430E+00   1.8879E+00   1.8038E-04  0.0053
   1.8879E+00   1.9338E+00   1.7966E-04  0.0053
   1.9338E+00   1.9808E+00   1.8076E-04  0.0052
   1.9808E+00   2.0290E+00   1.8603E-04  0.0050
   2.0290E+00   2.0784E+00   1.8827E-04  0.0049
   2.0784E+00   2.1290E+00   1.9366E-04  0.0048
   2.1290E+00   2.1808E+00   1.9847E-04  0.0047
   2.1808E+00   2.2338E+00   2.0055E-04  0.0046
   2.2338E+00   2.2882E+00   1.9769E-04  0.0046
   2.2882E+00   2.3439E+00   1.9408E-04  0.0046
   2.3439E+00   2.4009E+00   1.9572E-04  0.0045
   2.4009E+00   2.4593E+00   1.9753E-04  0.0045
   2.4593E+00   2.5191E+00   1.9834E-04  0.0044
   2.5191E+00   2.5804E+00   1.9708E-04  0.0044
   2.5804E+00   2.6432E+00   1.9585E-04  0.0043
   2.6432E+00   2.7075E+00   1.9543E-04  0.0043
   2.7075E+00   2.7734E+00   1.9580E-04  0.0042
   2.7734E+00   2.8409E+00   1.9558E-04  0.0042
   2.8409E+00   2.9100E+00   1.9883E-04  0.0041
   2.9100E+00   2.9808E+00   1.9870E-04  0.0041
   2.9808E+00   3.0533E+00   1.9805E-04  0.0040
   3.0533E+00   3.1276E+00   1.9563E-04  0.0040
   3.1276E+00   3.2037E+00   1.9523E-04  0.0040
   3.2037E+00   3.2817E+00   1.9459E-04  0.0039
   3.2817E+00   3.3615E+00   1.9522E-04  0.0039
   3.3615E+00   3.4433E+00   1.9442E-04  0.0038
   3.4433E+00   3.5271E+00   1.9543E-04  0.0038
   3.5271E+00   3.6129E+00   1.9297E-04  0.0038
   3.6129E+00   3.7008E+00   1.9200E-04  0.0037
   3.7008E+00   3.7908E+00   1.9211E-04  0.0037
   3.7908E+00   3.8831E+00   1.8960E-04  0.0037
   3.8831E+00   3.9776E+00   1.8701E-04  0.0036
   3.9776E+00   4.0743E+00   1.8618E-04  0.0036
   4.0743E+00   4.1735E+00   1.8487E-04  0.0036
   4.1735E+00   4.2750E+00   1.8129E-04  0.0036
   4.2750E+00   4.3790E+00   1.7865E-04  0.0036
   4.3790E+00   4.4856E+00   1.7677E-04  0.0035
   4.4856E+00   4.5947E+00   1.7321E-04  0.0035
   4.5947E+00   4.7065E+00   1.7019E-04  0.0035
   4.7065E+00   4.8210E+00   1.6925E-04  0.0035
   4.8210E+00   4.9383E+00   1.6726E-04  0.0035
   4.9383E+00   5.0585E+00   1.6791E-04  0.0034
   5.0585E+00   5.1815E+00   1.6590E-04  0.0034
   5.1815E+00   5.3076E+00   1.6353E-04  0.0034
   5.3076E+00   5.4368E+00   1.6166E-04  0.0034
   5.4368E+00   5.5690E+00   1.6047E-04  0.0033
   5.5690E+00   5.7045E+00   1.5889E-04  0.0033
   5.7045E+00   5.8433E+00   1.5734E-04  0.0033
   5.8433E+00   5.9855E+00   1.5620E-04  0.0033
   5.9855E+00   6.1311E+00   1.5525E-04  0.0032
   6.1311E+00   6.2803E+00   1.5431E-04  0.0032
   6.2803E+00   6.4331E+00   1.5291E-04  0.0032
   6.4331E+00   6.5896E+00   1.5099E-04  0.0032
   6.5896E+00   6.7500E+00   1.5015E-04  0.0031
   6.7500E+00   6.9142E+00   1.4814E-04  0.0031
   6.9142E+00   7.0824E+00   1.4676E-04  0.0031
   7.0824E+00   7.2548E+00   1.4503E-04  0.0031
   7.2548E+00   7.4313E+00   1.4383E-04  0.0031
   7.4313E+00   7.6121E+00   1.4210E-04  0.0030
   7.6121E+00   7.7973E+00   1.4008E-04  0.0030
   7.7973E+00   7.9870E+00   1.3893E-04  0.0030
   7.9870E+00   8.1813E+00   1.3635E-04  0.0030
   8.1813E+00   8.3804E+00   1.3384E-04  0.0030
   8.3804E+00   8.5843E+00   1.3182E-04  0.0030
   8.5843E+00   8.7931E+00   1.3042E-04  0.0030
   8.7931E+00   9.0071E+00   1.2735E-04  0.0030
   9.0071E+00   9.2262E+00   1.2566E-04  0.0029
   9.2262E+00   9.4507E+00   1.2254E-04  0.0029
   9.4507E+00   9.6807E+00   1.2036E-04  0.0029
   9.6807E+00   9.9162E+00   1.1948E-04  0.0029
   9.9162E+00   1.0157E+01   1.2410E-04  0.0028
   1.0157E+01   1.0405E+01   1.2194E-04  0.0028
   1.0405E+01   1.0658E+01   1.1970E-04  0.0028
   1.0658E+01   1.0917E+01   1.1622E-04  0.0028
   1.0917E+01   1.1183E+01   1.1306E-04  0.0028
   1.1183E+01   1.1455E+01   1.1194E-04  0.0028
   1.1455E+01   1.1733E+01   1.1050E-04  0.0028
   1.1733E+01   1.2019E+01   1.0876E-04  0.0028
   1.2019E+01   1.2311E+01   1.0794E-04  0.0028
   1.2311E+01   1.2611E+01   1.0675E-04  0.0028
   1.2611E+01   1.2918E+01   1.0574E-04  0.0027
   1.2918E+01   1.3232E+01   1.0430E-04  0.0027
   1.3232E+01   1.3554E+01   1.0335E-04  0.0027
   1.3554E+01   1.3884E+01   1.0275E-04  0.0027
   1.3884E+01   1.4222E+01   1.0166E-04  0.0027
   1.4222E+01   1.4568E+01   1.0055E-04  0.0026
   1.4568E+01   1.4922E+01   9.9204E-05  0.0026
   1.4922E+01   1.5285E+01   9.8091E-05  0.0026
   1.5285E+01   1.5657E+01   9.7084E-05  0.0026
   1.5657E+01   1.6038E+01   9.6428E-05  0.0026
   1.6038E+01   1.6428E+01   9.5049E-05  0.0026
   1.6428E+01   1.6828E+01   9.3826E-05  0.0025
   1.6828E+01   1.7237E+01   9.2832E-05  0.0025
   1.7237E+01   1.7657E+01   9.2009E-05  0.0025
   1.7657E+01   1.8086E+01   9.0518E-05  0.0025
   1.8086E+01   1.8526E+01   9.0006E-05  0.0025
   1.8526E+01   1.8977E+01   8.8509E-05  0.0025
   1.8977E+01   1.9439E+01   8.7408E-05  0.0025
   1.9439E+01   1.9912E+01   8.7026E-05  0.0024
   1.9912E+01   2.0396E+01   8.7173E-05  0.0024
   2.0396E+01   2.0893E+01   8.6543E-05  0.0024
   2.0893E+01   2.1401E+01   8.4936E-05  0.0024
   2.1401E+01   2.1922E+01   8.4045E-05  0.0024
   2.1922E+01   2.2455E+01   8.2844E-05  0.0023
   2.2455E+01   2.3001E+01   8.1703E-05  0.0023
   2.3001E+01   2.3561E+01   8.0611E-05  0.0023
   2.3561E+01   2.4134E+01   7.9695E-05  0.0023
   2.4134E+01   2.4721E+01   7.8601E-05  0.0023
   2.4721E+01   2.5323E+01   7.7551E-05  0.0023
   2.5323E+01   2.5939E+01   7.6246E-05  0.0023
   2.5939E+01   2.6570E+01   7.4805E-05  0.0023
   2.6570E+01   2.7217E+01   7.4052E-05  0.0023
   2.7217E+01   2.7879E+01   7.4314E-05  0.0022
   2.7879E+01   2.8557E+01   7.6326E-05  0.0022
   2.8557E+01   2.9252E+01   7.5775E-05  0.0022
   2.9252E+01   2.9964E+01   7.4447E-05  0.0021
   2.9964E+01   3.0693E+01   7.3307E-05  0.0021
   3.0693E+01   3.1440E+01   7.1950E-05  0.0021
   3.1440E+01   3.2205E+01   7.1215E-05  0.0021
   3.2205E+01   3.2988E+01   6.9607E-05  0.0021
   3.2988E+01   3.3791E+01   6.8713E-05  0.0021
   3.3791E+01   3.4613E+01   6.7213E-05  0.0021
   3.4613E+01   3.5455E+01   6.5979E-05  0.0021
   3.5455E+01   3.6318E+01   6.4897E-05  0.0021
   3.6318E+01   3.7201E+01   6.3353E-05  0.0021
   3.7201E+01   3.8106E+01   6.2181E-05  0.0021
   3.8106E+01   3.9034E+01   6.0516E-05  0.0021
   3.9034E+01   3.9983E+01   5.8955E-05  0.0021
   3.9983E+01   4.0956E+01   5.7439E-05  0.0021
   4.0956E+01   4.1953E+01   5.5652E-05  0.0021
   4.1953E+01   4.2973E+01   5.3967E-05  0.0021
   4.2973E+01   4.4019E+01   5.2288E-05  0.0021
   4.4019E+01   4.5090E+01   5.0483E-05  0.0021
   4.5090E+01   4.6187E+01   4.8456E-05  0.0021
   4.6187E+01   4.7311E+01   4.6205E-05  0.0022
   4.7311E+01   4.8462E+01   4.1931E-05  0.0022
   4.8462E+01   4.9641E+01   3.9245E-05  0.0023
   4.9641E+01   5.0849E+01   3.6904E-05  0.0023
   5.0849E+01   5.2086E+01   3.4703E-05  0.0024
   5.2086E+01   5.3353E+01   3.2209E-05  0.0024
   5.3353E+01   5.4651E+01   2.9652E-05  0.0025
   5.4651E+01   5.5981E+01   2.6879E-05  0.0026
   5.5981E+01   5.7343E+01   2.3798E-05  0.0027
   5.7343E+01   5.8738E+01   2.0571E-05  0.0029
   5.8738E+01   6.0168E+01   1.7306E-05  0.0031
   6.0168E+01   6.1632E+01   1.3990E-05  0.0035
   6.1632E+01   6.3131E+01   1.0941E-05  0.0039
   6.3131E+01   6.4667E+01   8.1645E-06  0.0044
   6.4667E+01   6.6240E+01   5.8309E-06  0.0052
   6.6240E+01   6.7852E+01   4.1777E-06  0.0060
   6.7852E+01   6.9503E+01   3.1872E-06  0.0068
   6.9503E+01   7.1194E+01   2.7076E-06  0.0073
   7.1194E+01   7.2926E+01   1.3623E-06  0.0102
   7.2926E+01   7.4701E+01   1.7870E-09  0.2774
   7.4701E+01   7.6518E+01   0.0000E+00  0.0000
   7.6518E+01   7.8380E+01   0.0000E+00  0.0000
   7.8380E+01   8.0287E+01   0.0000E+00  0.0000
   8.0287E+01   8.2240E+01   0.0000E+00  0.0000
   8.2240E+01   8.4241E+01   0.0000E+00  0.0000
   8.4241E+01   8.6291E+01   0.0000E+00  0.0000
   8.6291E+01   8.8391E+01   0.0000E+00  0.0000
   8.8391E+01   9.0541E+01   0.0000E+00  0.0000
   9.0541E+01   9.2744E+01   0.0000E+00  0.0000
   9.2744E+01   9.5001E+01   0.0000E+00  0.0000
   9.5001E+01   9.7312E+01   0.0000E+00  0.0000
   9.7312E+01   9.9680E+01   0.0000E+00  0.0000
   9.9680E+01   1.0211E+02   0.0000E+00  0.0000
   1.0211E+02   1.0459E+02   0.0000E+00  0.0000
   1.0459E+02   1.0713E+02   0.0000E+00  0.0000
   1.0713E+02   1.0974E+02   0.0000E+00  0.0000
   1.0974E+02   1.1241E+02   0.0000E+00  0.0000
   1.1241E+02   1.1515E+02   0.0000E+00  0.0000
   1.1515E+02   1.1795E+02   0.0000E+00  0.0000
   1.1795E+02   1.2082E+02   0.0000E+00  0.0000
   1.2082E+02   1.2376E+02   0.0000E+00  0.0000
   1.2376E+02   1.2677E+02   0.0000E+00  0.0000
   1.2677E+02   1.2985E+02   0.0000E+00  0.0000
   1.2985E+02   1.3301E+02   0.0000E+00  0.0000
   1.3301E+02   1.3625E+02   0.0000E+00  0.0000
   1.3625E+02   1.3956E+02   0.0000E+00  0.0000
   1.3956E+02   1.4296E+02   0.0000E+00  0.0000
   1.4296E+02   1.4644E+02   0.0000E+00  0.0000
   1.4644E+02   1.5000E+02   0.0000E+00  0.0000

#   sum over                 3.2528E-05
'no. =    1   reg = 106 - 206'
msuc: {\huge [t-cross] in region mesh}
msdr: {\it plotted by \ANGEL \version}
msdl: {\it calculated by \PHITS  3.26}
wt: s(0.7)
\vspace{-3}
  region surface crossing
  area  &=&   1.0000E+00 [cm^2]
e:
 
# Information for Restart Calculation
# This calculation was newly started
# istdev =  2 # 1:Batch variance, 2:History variance
# resc2  = 4.10000000000000000E+09 # Total source weight or Total source weight / maxcas
# resc3  = 4.10000000000000000E+09 # Total history number or Total batch number
# maxcas =   100000000 # History / Batch, only used for istdev=1
# bitrseed = 1001101000111111111010111110111110001011101110101001001100101111 # bit data of rseed
