[ T-Cross ]
    title = [t-cross] in region mesh
     mesh =  reg            # mesh type is region-wise
      reg =    1            # number of crossing regions
      non     r-from    r-to       area
      1       126       226        1.000000    
   e-type =    3            # e-mesh is log given by emin, emax and ne
     emin =  1.0000000E-02  # minimum value of e-mesh points
     emax =   150.0000      # maximum value of e-mesh points
#    edel =  2.4039514E-02  # mesh width of e-mesh points
       ne =    400          # number of e-mesh points
#    data = ( e(i), i = 1, ne + 1 )
#           1.00000E-02  1.02433E-02  1.04925E-02  1.07478E-02  1.10093E-02
#           1.12772E-02  1.15516E-02  1.18326E-02  1.21205E-02  1.24154E-02
#           1.27175E-02  1.30269E-02  1.33439E-02  1.36686E-02  1.40011E-02
#           1.43418E-02  1.46907E-02  1.50482E-02  1.54143E-02  1.57894E-02
#           1.61735E-02  1.65670E-02  1.69701E-02  1.73830E-02  1.78060E-02
#           1.82392E-02  1.86830E-02  1.91375E-02  1.96032E-02  2.00801E-02
#           2.05687E-02  2.10692E-02  2.15818E-02  2.21069E-02  2.26448E-02
#           2.31957E-02  2.37601E-02  2.43382E-02  2.49304E-02  2.55369E-02
#           2.61583E-02  2.67947E-02  2.74467E-02  2.81145E-02  2.87985E-02
#           2.94992E-02  3.02169E-02  3.09521E-02  3.17052E-02  3.24766E-02
#           3.32668E-02  3.40762E-02  3.49053E-02  3.57546E-02  3.66246E-02
#           3.75157E-02  3.84284E-02  3.93634E-02  4.03212E-02  4.13022E-02
#           4.23071E-02  4.33365E-02  4.43909E-02  4.54710E-02  4.65773E-02
#           4.77106E-02  4.88714E-02  5.00605E-02  5.12785E-02  5.25262E-02
#           5.38042E-02  5.51133E-02  5.64542E-02  5.78278E-02  5.92348E-02
#           6.06760E-02  6.21523E-02  6.36645E-02  6.52135E-02  6.68002E-02
#           6.84255E-02  7.00904E-02  7.17957E-02  7.35426E-02  7.53319E-02
#           7.71648E-02  7.90423E-02  8.09655E-02  8.29354E-02  8.49533E-02
#           8.70203E-02  8.91376E-02  9.13064E-02  9.35279E-02  9.58035E-02
#           9.81345E-02  1.00522E-01  1.02968E-01  1.05473E-01  1.08040E-01
#           1.10668E-01  1.13361E-01  1.16119E-01  1.18944E-01  1.21838E-01
#           1.24803E-01  1.27839E-01  1.30950E-01  1.34136E-01  1.37399E-01
#           1.40742E-01  1.44167E-01  1.47675E-01  1.51268E-01  1.54948E-01
#           1.58718E-01  1.62580E-01  1.66535E-01  1.70587E-01  1.74738E-01
#           1.78989E-01  1.83344E-01  1.87805E-01  1.92375E-01  1.97055E-01
#           2.01850E-01  2.06761E-01  2.11792E-01  2.16945E-01  2.22223E-01
#           2.27630E-01  2.33169E-01  2.38842E-01  2.44653E-01  2.50605E-01
#           2.56703E-01  2.62949E-01  2.69346E-01  2.75900E-01  2.82613E-01
#           2.89489E-01  2.96532E-01  3.03747E-01  3.11138E-01  3.18708E-01
#           3.26462E-01  3.34405E-01  3.42542E-01  3.50876E-01  3.59413E-01
#           3.68158E-01  3.77116E-01  3.86291E-01  3.95690E-01  4.05317E-01
#           4.15179E-01  4.25281E-01  4.35628E-01  4.46227E-01  4.57084E-01
#           4.68205E-01  4.79597E-01  4.91266E-01  5.03219E-01  5.15463E-01
#           5.28005E-01  5.40851E-01  5.54011E-01  5.67490E-01  5.81298E-01
#           5.95441E-01  6.09929E-01  6.24769E-01  6.39970E-01  6.55541E-01
#           6.71491E-01  6.87828E-01  7.04564E-01  7.21706E-01  7.39266E-01
#           7.57253E-01  7.75678E-01  7.94551E-01  8.13883E-01  8.33685E-01
#           8.53969E-01  8.74747E-01  8.96030E-01  9.17831E-01  9.40163E-01
#           9.63038E-01  9.86469E-01  1.01047E+00  1.03506E+00  1.06024E+00
#           1.08604E+00  1.11246E+00  1.13953E+00  1.16725E+00  1.19565E+00
#           1.22474E+00  1.25454E+00  1.28507E+00  1.31633E+00  1.34836E+00
#           1.38117E+00  1.41477E+00  1.44920E+00  1.48446E+00  1.52057E+00
#           1.55757E+00  1.59547E+00  1.63429E+00  1.67405E+00  1.71478E+00
#           1.75650E+00  1.79924E+00  1.84302E+00  1.88786E+00  1.93379E+00
#           1.98084E+00  2.02904E+00  2.07841E+00  2.12898E+00  2.18078E+00
#           2.23384E+00  2.28819E+00  2.34386E+00  2.40089E+00  2.45930E+00
#           2.51914E+00  2.58043E+00  2.64322E+00  2.70753E+00  2.77341E+00
#           2.84088E+00  2.91001E+00  2.98081E+00  3.05333E+00  3.12762E+00
#           3.20372E+00  3.28167E+00  3.36152E+00  3.44330E+00  3.52708E+00
#           3.61290E+00  3.70080E+00  3.79085E+00  3.88308E+00  3.97756E+00
#           4.07434E+00  4.17347E+00  4.27501E+00  4.37903E+00  4.48557E+00
#           4.59471E+00  4.70650E+00  4.82102E+00  4.93832E+00  5.05847E+00
#           5.18155E+00  5.30762E+00  5.43676E+00  5.56904E+00  5.70453E+00
#           5.84333E+00  5.98550E+00  6.13114E+00  6.28031E+00  6.43312E+00
#           6.58964E+00  6.74997E+00  6.91420E+00  7.08243E+00  7.25475E+00
#           7.43126E+00  7.61207E+00  7.79728E+00  7.98700E+00  8.18133E+00
#           8.38038E+00  8.58428E+00  8.79315E+00  9.00709E+00  9.22624E+00
#           9.45072E+00  9.68067E+00  9.91620E+00  1.01575E+01  1.04046E+01
#           1.06578E+01  1.09171E+01  1.11827E+01  1.14548E+01  1.17335E+01
#           1.20190E+01  1.23114E+01  1.26109E+01  1.29178E+01  1.32321E+01
#           1.35540E+01  1.38838E+01  1.42216E+01  1.45676E+01  1.49221E+01
#           1.52851E+01  1.56570E+01  1.60380E+01  1.64282E+01  1.68279E+01
#           1.72374E+01  1.76568E+01  1.80864E+01  1.85264E+01  1.89772E+01
#           1.94389E+01  1.99119E+01  2.03963E+01  2.08926E+01  2.14009E+01
#           2.19216E+01  2.24550E+01  2.30014E+01  2.35610E+01  2.41343E+01
#           2.47215E+01  2.53230E+01  2.59391E+01  2.65702E+01  2.72167E+01
#           2.78789E+01  2.85572E+01  2.92520E+01  2.99637E+01  3.06928E+01
#           3.14396E+01  3.22045E+01  3.29881E+01  3.37907E+01  3.46128E+01
#           3.54550E+01  3.63177E+01  3.72013E+01  3.81064E+01  3.90336E+01
#           3.99833E+01  4.09561E+01  4.19526E+01  4.29734E+01  4.40189E+01
#           4.50900E+01  4.61870E+01  4.73108E+01  4.84619E+01  4.96410E+01
#           5.08488E+01  5.20860E+01  5.33533E+01  5.46514E+01  5.59812E+01
#           5.73432E+01  5.87384E+01  6.01676E+01  6.16315E+01  6.31311E+01
#           6.46671E+01  6.62405E+01  6.78522E+01  6.95031E+01  7.11941E+01
#           7.29263E+01  7.47007E+01  7.65182E+01  7.83800E+01  8.02870E+01
#           8.22405E+01  8.42414E+01  8.62911E+01  8.83906E+01  9.05412E+01
#           9.27442E+01  9.50007E+01  9.73122E+01  9.96799E+01  1.02105E+02
#           1.04589E+02  1.07134E+02  1.09741E+02  1.12411E+02  1.15146E+02
#           1.17948E+02  1.20817E+02  1.23757E+02  1.26768E+02  1.29852E+02
#           1.33012E+02  1.36248E+02  1.39563E+02  1.42959E+02  1.46437E+02
#           1.50000E+02
     unit =    2            # unit is [1/cm^2/(MeV/n)/source]
     axis =  eng            # axis of output
     file = detector-27.out  # file name of output for the above axis
   output = f-curr          # surface crossing forward current spectrum
     part =  neutron  
# kf/name :  2112     
#    used :        main (  %)        temp (  %)       total (  %)
#  memory :         414 (  0)           0 (  0)         414 (  0)

#------------------------------------------------------------------------------
#newpage:
#   no. =    1   reg = 126 - 226

x: Energy [MeV/n]
y:  F-Curr [1/cm^2/(MeV/n)/source]         
p: xlog ylog afac(0.8) form(0.9)
h: n            x            y(neutron ),hh0l   n 
#  e-lower      e-upper      neutron     r.err 
   1.0000E-02   1.0243E-02   4.5674E-05  0.1475
   1.0243E-02   1.0493E-02   3.4223E-05  0.1690
   1.0493E-02   1.0748E-02   3.6654E-05  0.1604
   1.0748E-02   1.1009E-02   4.0044E-05  0.1525
   1.1009E-02   1.1277E-02   4.4528E-05  0.1429
   1.1277E-02   1.1552E-02   4.1702E-05  0.1453
   1.1552E-02   1.1833E-02   3.1131E-05  0.1667
   1.1833E-02   1.2121E-02   3.3851E-05  0.1581
   1.2121E-02   1.2415E-02   2.6419E-05  0.1768
   1.2415E-02   1.2718E-02   5.1577E-05  0.1250
   1.2718E-02   1.3027E-02   3.9364E-05  0.1414
   1.3027E-02   1.3344E-02   3.4565E-05  0.1491
   1.3344E-02   1.3669E-02   2.6014E-05  0.1693
   1.3669E-02   1.4001E-02   3.0607E-05  0.1544
   1.4001E-02   1.4342E-02   2.2823E-05  0.1768
   1.4342E-02   1.4691E-02   3.2934E-05  0.1453
   1.4691E-02   1.5048E-02   2.3689E-05  0.1691
   1.5048E-02   1.5414E-02   2.4598E-05  0.1644
   1.5414E-02   1.5789E-02   2.8574E-05  0.1508
   1.5789E-02   1.6174E-02   2.9789E-05  0.1459
   1.6174E-02   1.6567E-02   3.4024E-05  0.1348
   1.6567E-02   1.6970E-02   2.4180E-05  0.1581
   1.6970E-02   1.7383E-02   2.4905E-05  0.1536
   1.7383E-02   1.7806E-02   2.2543E-05  0.1596
   1.7806E-02   1.8239E-02   1.7903E-05  0.1769
   1.8239E-02   1.8683E-02   2.8393E-05  0.1387
   1.8683E-02   1.9138E-02   2.1427E-05  0.1581
   1.9138E-02   1.9603E-02   2.1345E-05  0.1562
   1.9603E-02   2.0080E-02   2.3483E-05  0.1474
   2.0080E-02   2.0569E-02   2.1857E-05  0.1508
   2.0569E-02   2.1069E-02   2.1002E-05  0.1518
   2.1069E-02   2.1582E-02   1.7574E-05  0.1644
   2.1582E-02   2.2107E-02   2.0398E-05  0.1508
   2.2107E-02   2.2645E-02   1.5296E-05  0.1716
   2.2645E-02   2.3196E-02   1.4742E-05  0.1725
   2.3196E-02   2.3760E-02   1.3294E-05  0.1797
   2.3760E-02   2.4338E-02   1.8471E-05  0.1508
   2.4338E-02   2.4930E-02   2.2121E-05  0.1361
   2.4930E-02   2.5537E-02   1.7225E-05  0.1525
   2.5537E-02   2.6158E-02   2.1411E-05  0.1350
   2.6158E-02   2.6795E-02   1.8297E-05  0.1444
   2.6795E-02   2.7447E-02   2.0858E-05  0.1331
   2.7447E-02   2.8114E-02   1.8591E-05  0.1400
   2.8114E-02   2.8799E-02   1.2325E-05  0.1693
   2.8799E-02   2.9499E-02   1.5964E-05  0.1474
   2.9499E-02   3.0217E-02   1.4675E-05  0.1517
   3.0217E-02   3.0952E-02   1.7560E-05  0.1374
   3.0952E-02   3.1705E-02   1.6970E-05  0.1377
   3.1705E-02   3.2477E-02   1.6087E-05  0.1397
   3.2477E-02   3.3267E-02   1.6019E-05  0.1387
   3.3267E-02   3.4076E-02   1.7915E-05  0.1292
   3.4076E-02   3.4905E-02   1.3785E-05  0.1459
   3.4905E-02   3.5755E-02   1.1178E-05  0.1601
   3.5755E-02   3.6625E-02   1.1648E-05  0.1544
   3.6625E-02   3.7516E-02   1.0339E-05  0.1623
   3.7516E-02   3.8428E-02   1.2183E-05  0.1476
   3.8428E-02   3.9363E-02   1.4109E-05  0.1355
   3.9363E-02   4.0321E-02   1.0420E-05  0.1562
   4.0321E-02   4.1302E-02   1.3307E-05  0.1360
   4.1302E-02   4.2307E-02   1.0958E-05  0.1484
   4.2307E-02   4.3337E-02   1.3956E-05  0.1302
   4.3337E-02   4.4391E-02   1.1261E-05  0.1423
   4.4391E-02   4.5471E-02   1.1101E-05  0.1422
   4.5471E-02   4.6577E-02   1.1669E-05  0.1374
   4.6577E-02   4.7711E-02   9.2312E-06  0.1525
   4.7711E-02   4.8871E-02   9.3328E-06  0.1495
   4.8871E-02   5.0061E-02   9.9733E-06  0.1429
   5.0061E-02   5.1279E-02   7.1872E-06  0.1667
   5.1279E-02   5.2526E-02   1.1511E-05  0.1302
   5.2526E-02   5.3804E-02   7.3794E-06  0.1602
   5.3804E-02   5.5113E-02   1.0600E-05  0.1325
   5.5113E-02   5.6454E-02   9.0702E-06  0.1414
   5.6454E-02   5.7828E-02   8.5433E-06  0.1438
   5.7828E-02   5.9235E-02   9.1609E-06  0.1374
   5.9235E-02   6.0676E-02   8.3743E-06  0.1411
   6.0676E-02   6.2152E-02   7.5748E-06  0.1475
   6.2152E-02   6.3665E-02   8.4228E-06  0.1375
   6.3665E-02   6.5214E-02   7.0721E-06  0.1491
   6.5214E-02   6.6800E-02   6.0994E-06  0.1582
   6.6800E-02   6.8426E-02   7.0690E-06  0.1453
   6.8426E-02   7.0090E-02   4.3222E-06  0.1832
   7.0090E-02   7.1796E-02   7.4169E-06  0.1387
   7.1796E-02   7.3543E-02   8.3967E-06  0.1287
   7.3543E-02   7.5332E-02   6.2522E-06  0.1474
   7.5332E-02   7.7165E-02   6.0845E-06  0.1475
   7.7165E-02   7.9042E-02   6.4775E-06  0.1414
   7.9042E-02   8.0965E-02   7.2455E-06  0.1319
   8.0965E-02   8.2935E-02   6.2453E-06  0.1398
   8.2935E-02   8.4953E-02   6.7470E-06  0.1336
   8.4953E-02   8.7020E-02   6.0013E-06  0.1400
   8.7020E-02   8.9138E-02   6.4894E-06  0.1328
   8.9138E-02   9.1306E-02   4.7155E-06  0.1543
   9.1306E-02   9.3528E-02   6.2368E-06  0.1325
   9.3528E-02   9.5804E-02   5.9884E-06  0.1336
   9.5804E-02   9.8134E-02   7.1473E-06  0.1207
   9.8134E-02   1.0052E-01   5.1671E-06  0.1401
   1.0052E-01   1.0297E-01   5.1677E-06  0.1387
   1.0297E-01   1.0547E-01   4.7500E-06  0.1429
   1.0547E-01   1.0804E-01   6.4591E-06  0.1209
   1.0804E-01   1.1067E-01   6.7413E-06  0.1171
   1.1067E-01   1.1336E-01   8.3077E-06  0.1043
   1.1336E-01   1.1612E-01   6.6198E-06  0.1155
   1.1612E-01   1.1894E-01   6.7151E-06  0.1132
   1.1894E-01   1.2184E-01   7.1035E-06  0.1086
   1.2184E-01   1.2480E-01   7.2794E-06  0.1060
   1.2480E-01   1.2784E-01   6.5590E-06  0.1100
   1.2784E-01   1.3095E-01   7.5336E-06  0.1017
   1.3095E-01   1.3414E-01   7.3290E-06  0.1021
   1.3414E-01   1.3740E-01   9.7293E-06  0.0874
   1.3740E-01   1.4074E-01   6.6866E-06  0.1040
   1.4074E-01   1.4417E-01   9.0777E-06  0.0884
   1.4417E-01   1.4767E-01   1.0229E-05  0.0820
   1.4767E-01   1.5127E-01   8.9397E-06  0.0870
   1.5127E-01   1.5495E-01   1.0243E-05  0.0801
   1.5495E-01   1.5872E-01   1.0853E-05  0.0770
   1.5872E-01   1.6258E-01   1.1360E-05  0.0744
   1.6258E-01   1.6654E-01   9.9698E-06  0.0783
   1.6654E-01   1.7059E-01   1.0617E-05  0.0752
   1.7059E-01   1.7474E-01   1.0877E-05  0.0732
   1.7474E-01   1.7899E-01   1.3406E-05  0.0652
   1.7899E-01   1.8334E-01   1.2137E-05  0.0677
   1.8334E-01   1.8781E-01   1.1564E-05  0.0686
   1.8781E-01   1.9237E-01   1.3221E-05  0.0633
   1.9237E-01   1.9706E-01   1.2239E-05  0.0651
   1.9706E-01   2.0185E-01   1.3571E-05  0.0611
   2.0185E-01   2.0676E-01   1.4159E-05  0.0590
   2.0676E-01   2.1179E-01   1.5503E-05  0.0558
   2.1179E-01   2.1694E-01   1.4126E-05  0.0577
   2.1694E-01   2.2222E-01   1.3396E-05  0.0586
   2.2222E-01   2.2763E-01   1.4640E-05  0.0553
   2.2763E-01   2.3317E-01   1.5880E-05  0.0525
   2.3317E-01   2.3884E-01   1.4984E-05  0.0534
   2.3884E-01   2.4465E-01   1.4437E-05  0.0538
   2.4465E-01   2.5061E-01   1.5567E-05  0.0511
   2.5061E-01   2.5670E-01   1.5758E-05  0.0502
   2.5670E-01   2.6295E-01   1.6416E-05  0.0486
   2.6295E-01   2.6935E-01   1.6357E-05  0.0481
   2.6935E-01   2.7590E-01   1.7752E-05  0.0456
   2.7590E-01   2.8261E-01   1.8268E-05  0.0444
   2.8261E-01   2.8949E-01   2.0504E-05  0.0414
   2.8949E-01   2.9653E-01   1.9436E-05  0.0421
   2.9653E-01   3.0375E-01   1.9124E-05  0.0419
   3.0375E-01   3.1114E-01   1.8462E-05  0.0421
   3.1114E-01   3.1871E-01   1.9521E-05  0.0405
   3.1871E-01   3.2646E-01   1.9699E-05  0.0398
   3.2646E-01   3.3441E-01   2.0405E-05  0.0386
   3.3441E-01   3.4254E-01   2.0286E-05  0.0383
   3.4254E-01   3.5088E-01   2.0854E-05  0.0373
   3.5088E-01   3.5941E-01   2.0044E-05  0.0376
   3.5941E-01   3.6816E-01   2.1676E-05  0.0357
   3.6816E-01   3.7712E-01   2.2095E-05  0.0349
   3.7712E-01   3.8629E-01   2.0784E-05  0.0356
   3.8629E-01   3.9569E-01   2.2646E-05  0.0337
   3.9569E-01   4.0532E-01   2.2383E-05  0.0335
   4.0532E-01   4.1518E-01   2.2180E-05  0.0332
   4.1518E-01   4.2528E-01   2.3151E-05  0.0322
   4.2528E-01   4.3563E-01   2.3113E-05  0.0318
   4.3563E-01   4.4623E-01   2.1456E-05  0.0326
   4.4623E-01   4.5708E-01   2.2579E-05  0.0314
   4.5708E-01   4.6821E-01   2.2084E-05  0.0314
   4.6821E-01   4.7960E-01   2.2810E-05  0.0305
   4.7960E-01   4.9127E-01   2.2993E-05  0.0300
   4.9127E-01   5.0322E-01   2.4501E-05  0.0287
   5.0322E-01   5.1546E-01   2.3676E-05  0.0289
   5.1546E-01   5.2800E-01   2.3391E-05  0.0287
   5.2800E-01   5.4085E-01   2.3334E-05  0.0284
   5.4085E-01   5.5401E-01   2.3904E-05  0.0277
   5.5401E-01   5.6749E-01   2.4143E-05  0.0272
   5.6749E-01   5.8130E-01   2.3948E-05  0.0270
   5.8130E-01   5.9544E-01   2.3142E-05  0.0272
   5.9544E-01   6.0993E-01   2.3157E-05  0.0268
   6.0993E-01   6.2477E-01   2.4473E-05  0.0258
   6.2477E-01   6.3997E-01   2.3313E-05  0.0261
   6.3997E-01   6.5554E-01   2.3829E-05  0.0255
   6.5554E-01   6.7149E-01   2.3147E-05  0.0256
   6.7149E-01   6.8783E-01   2.3920E-05  0.0248
   6.8783E-01   7.0456E-01   2.3788E-05  0.0246
   7.0456E-01   7.2171E-01   2.2673E-05  0.0249
   7.2171E-01   7.3927E-01   2.2388E-05  0.0247
   7.3927E-01   7.5725E-01   2.2428E-05  0.0244
   7.5725E-01   7.7568E-01   2.2554E-05  0.0241
   7.7568E-01   7.9455E-01   2.0928E-05  0.0247
   7.9455E-01   8.1388E-01   2.1285E-05  0.0242
   8.1388E-01   8.3368E-01   2.0289E-05  0.0245
   8.3368E-01   8.5397E-01   2.0821E-05  0.0239
   8.5397E-01   8.7475E-01   1.9740E-05  0.0242
   8.7475E-01   8.9603E-01   1.8797E-05  0.0245
   8.9603E-01   9.1783E-01   1.7851E-05  0.0248
   9.1783E-01   9.4016E-01   1.8420E-05  0.0242
   9.4016E-01   9.6304E-01   1.7018E-05  0.0248
   9.6304E-01   9.8647E-01   1.6194E-05  0.0251
   9.8647E-01   1.0105E+00   1.5822E-05  0.0251
   1.0105E+00   1.0351E+00   1.5105E-05  0.0254
   1.0351E+00   1.0602E+00   1.5676E-05  0.0246
   1.0602E+00   1.0860E+00   1.6067E-05  0.0240
   1.0860E+00   1.1125E+00   1.5543E-05  0.0241
   1.1125E+00   1.1395E+00   1.5967E-05  0.0235
   1.1395E+00   1.1673E+00   1.5138E-05  0.0238
   1.1673E+00   1.1957E+00   1.5349E-05  0.0233
   1.1957E+00   1.2247E+00   1.5469E-05  0.0230
   1.2247E+00   1.2545E+00   1.5341E-05  0.0228
   1.2545E+00   1.2851E+00   1.5012E-05  0.0227
   1.2851E+00   1.3163E+00   1.4753E-05  0.0227
   1.3163E+00   1.3484E+00   1.4395E-05  0.0226
   1.3484E+00   1.3812E+00   1.4854E-05  0.0220
   1.3812E+00   1.4148E+00   1.4802E-05  0.0218
   1.4148E+00   1.4492E+00   1.4344E-05  0.0219
   1.4492E+00   1.4845E+00   1.3995E-05  0.0218
   1.4845E+00   1.5206E+00   1.4695E-05  0.0210
   1.5206E+00   1.5576E+00   1.3838E-05  0.0214
   1.5576E+00   1.5955E+00   1.3195E-05  0.0216
   1.5955E+00   1.6343E+00   1.2693E-05  0.0217
   1.6343E+00   1.6741E+00   1.2732E-05  0.0214
   1.6741E+00   1.7148E+00   1.2948E-05  0.0210
   1.7148E+00   1.7565E+00   1.2281E-05  0.0213
   1.7565E+00   1.7992E+00   1.1230E-05  0.0220
   1.7992E+00   1.8430E+00   1.1053E-05  0.0218
   1.8430E+00   1.8879E+00   1.1012E-05  0.0216
   1.8879E+00   1.9338E+00   1.0713E-05  0.0216
   1.9338E+00   1.9808E+00   1.0276E-05  0.0218
   1.9808E+00   2.0290E+00   1.0266E-05  0.0215
   2.0290E+00   2.0784E+00   9.7057E-06  0.0219
   2.0784E+00   2.1290E+00   1.0008E-05  0.0212
   2.1290E+00   2.1808E+00   1.0118E-05  0.0209
   2.1808E+00   2.2338E+00   9.6954E-06  0.0211
   2.2338E+00   2.2882E+00   9.4449E-06  0.0211
   2.2882E+00   2.3439E+00   9.2757E-06  0.0211
   2.3439E+00   2.4009E+00   8.9798E-06  0.0211
   2.4009E+00   2.4593E+00   8.6843E-06  0.0213
   2.4593E+00   2.5191E+00   8.2616E-06  0.0216
   2.5191E+00   2.5804E+00   8.2070E-06  0.0214
   2.5804E+00   2.6432E+00   7.9914E-06  0.0214
   2.6432E+00   2.7075E+00   7.9022E-06  0.0213
   2.7075E+00   2.7734E+00   7.7019E-06  0.0213
   2.7734E+00   2.8409E+00   7.0340E-06  0.0220
   2.8409E+00   2.9100E+00   7.0586E-06  0.0217
   2.9100E+00   2.9808E+00   6.9737E-06  0.0217
   2.9808E+00   3.0533E+00   7.0917E-06  0.0212
   3.0533E+00   3.1276E+00   6.7980E-06  0.0215
   3.1276E+00   3.2037E+00   6.4841E-06  0.0217
   3.2037E+00   3.2817E+00   6.3380E-06  0.0217
   3.2817E+00   3.3615E+00   6.2295E-06  0.0216
   3.3615E+00   3.4433E+00   6.1514E-06  0.0215
   3.4433E+00   3.5271E+00   6.0000E-06  0.0215
   3.5271E+00   3.6129E+00   5.8653E-06  0.0215
   3.6129E+00   3.7008E+00   5.9745E-06  0.0211
   3.7008E+00   3.7908E+00   5.6492E-06  0.0214
   3.7908E+00   3.8831E+00   5.4916E-06  0.0215
   3.8831E+00   3.9776E+00   5.0256E-06  0.0222
   3.9776E+00   4.0743E+00   4.9210E-06  0.0221
   4.0743E+00   4.1735E+00   4.8688E-06  0.0220
   4.1735E+00   4.2750E+00   4.7036E-06  0.0221
   4.2750E+00   4.3790E+00   4.4981E-06  0.0224
   4.3790E+00   4.4856E+00   4.3989E-06  0.0224
   4.4856E+00   4.5947E+00   4.4026E-06  0.0221
   4.5947E+00   4.7065E+00   4.0538E-06  0.0227
   4.7065E+00   4.8210E+00   3.8908E-06  0.0229
   4.8210E+00   4.9383E+00   3.8496E-06  0.0228
   4.9383E+00   5.0585E+00   3.6730E-06  0.0231
   5.0585E+00   5.1815E+00   3.4659E-06  0.0234
   5.1815E+00   5.3076E+00   3.1528E-06  0.0243
   5.3076E+00   5.4368E+00   3.2177E-06  0.0238
   5.4368E+00   5.5690E+00   3.2136E-06  0.0235
   5.5690E+00   5.7045E+00   3.0637E-06  0.0238
   5.7045E+00   5.8433E+00   2.8776E-06  0.0243
   5.8433E+00   5.9855E+00   2.7978E-06  0.0243
   5.9855E+00   6.1311E+00   2.6211E-06  0.0249
   6.1311E+00   6.2803E+00   2.5263E-06  0.0250
   6.2803E+00   6.4331E+00   2.4374E-06  0.0252
   6.4331E+00   6.5896E+00   2.1770E-06  0.0264
   6.5896E+00   6.7500E+00   2.0024E-06  0.0272
   6.7500E+00   6.9142E+00   1.9907E-06  0.0270
   6.9142E+00   7.0824E+00   1.8618E-06  0.0276
   7.0824E+00   7.2548E+00   1.6949E-06  0.0285
   7.2548E+00   7.4313E+00   1.6088E-06  0.0290
   7.4313E+00   7.6121E+00   1.4316E-06  0.0303
   7.6121E+00   7.7973E+00   1.3994E-06  0.0303
   7.7973E+00   7.9870E+00   1.3627E-06  0.0304
   7.9870E+00   8.1813E+00   1.2696E-06  0.0311
   8.1813E+00   8.3804E+00   1.1640E-06  0.0321
   8.3804E+00   8.5843E+00   1.1156E-06  0.0324
   8.5843E+00   8.7931E+00   1.0383E-06  0.0332
   8.7931E+00   9.0071E+00   9.6202E-07  0.0341
   9.0071E+00   9.2262E+00   9.2023E-07  0.0344
   9.2262E+00   9.4507E+00   8.4645E-07  0.0355
   9.4507E+00   9.6807E+00   8.3057E-07  0.0355
   9.6807E+00   9.9162E+00   7.2221E-07  0.0377
   9.9162E+00   1.0157E+01   6.7985E-07  0.0383
   1.0157E+01   1.0405E+01   6.5927E-07  0.0384
   1.0405E+01   1.0658E+01   6.4813E-07  0.0383
   1.0658E+01   1.0917E+01   6.0462E-07  0.0392
   1.0917E+01   1.1183E+01   5.5242E-07  0.0406
   1.1183E+01   1.1455E+01   5.3798E-07  0.0406
   1.1455E+01   1.1733E+01   4.3169E-07  0.0448
   1.1733E+01   1.2019E+01   4.1299E-07  0.0453
   1.2019E+01   1.2311E+01   3.7317E-07  0.0470
   1.2311E+01   1.2611E+01   3.8599E-07  0.0457
   1.2611E+01   1.2918E+01   3.2463E-07  0.0493
   1.2918E+01   1.3232E+01   3.3108E-07  0.0482
   1.3232E+01   1.3554E+01   3.1532E-07  0.0489
   1.3554E+01   1.3884E+01   2.8820E-07  0.0506
   1.3884E+01   1.4222E+01   2.7129E-07  0.0514
   1.4222E+01   1.4568E+01   2.6008E-07  0.0519
   1.4568E+01   1.4922E+01   2.2942E-07  0.0547
   1.4922E+01   1.5285E+01   2.2471E-07  0.0546
   1.5285E+01   1.5657E+01   1.8723E-07  0.0591
   1.5657E+01   1.6038E+01   1.8806E-07  0.0583
   1.6038E+01   1.6428E+01   1.6380E-07  0.0617
   1.6428E+01   1.6828E+01   1.4885E-07  0.0640
   1.6828E+01   1.7237E+01   1.3194E-07  0.0672
   1.7237E+01   1.7657E+01   1.2097E-07  0.0693
   1.7657E+01   1.8086E+01   1.1128E-07  0.0714
   1.8086E+01   1.8526E+01   9.7821E-08  0.0752
   1.8526E+01   1.8977E+01   8.8739E-08  0.0781
   1.8977E+01   1.9439E+01   7.6594E-08  0.0830
   1.9439E+01   1.9912E+01   5.8273E-08  0.0941
   1.9912E+01   2.0396E+01   6.3937E-08  0.0887
   2.0396E+01   2.0893E+01   7.0282E-08  0.0836
   2.0893E+01   2.1401E+01   5.5658E-08  0.0928
   2.1401E+01   2.1922E+01   5.0588E-08  0.0962
   2.1922E+01   2.2455E+01   3.8412E-08  0.1091
   2.2455E+01   2.3001E+01   3.9732E-08  0.1060
   2.3001E+01   2.3561E+01   2.8764E-08  0.1231
   2.3561E+01   2.4134E+01   2.5103E-08  0.1302
   2.4134E+01   2.4721E+01   2.7829E-08  0.1222
   2.4721E+01   2.5323E+01   2.2302E-08  0.1348
   2.5323E+01   2.5939E+01   1.9397E-08  0.1429
   2.5939E+01   2.6570E+01   1.4686E-08  0.1622
   2.6570E+01   2.7217E+01   1.2450E-08  0.1741
   2.7217E+01   2.7879E+01   7.3664E-09  0.2236
   2.7879E+01   2.8557E+01   6.4723E-09  0.2357
   2.8557E+01   2.9252E+01   4.9144E-09  0.2673
   2.9252E+01   2.9964E+01   4.4550E-09  0.2774
   2.9964E+01   3.0693E+01   6.0219E-09  0.2357
   3.0693E+01   3.1440E+01   5.2257E-09  0.2500
   3.1440E+01   3.2205E+01   3.1885E-09  0.3162
   3.2205E+01   3.2988E+01   3.4240E-09  0.3015
   3.2988E+01   3.3791E+01   3.0388E-10  1.0000
   3.3791E+01   3.4613E+01   1.1867E-09  0.5000
   3.4613E+01   3.5455E+01   1.4481E-09  0.4472
   3.5455E+01   3.6318E+01   1.4137E-09  0.4472
   3.6318E+01   3.7201E+01   8.2806E-10  0.5774
   3.7201E+01   3.8106E+01   8.0839E-10  0.5774
   3.8106E+01   3.9034E+01   2.6306E-10  1.0000
   3.9034E+01   3.9983E+01   5.1363E-10  0.7071
   3.9983E+01   4.0956E+01   0.0000E+00  0.0000
   4.0956E+01   4.1953E+01   0.0000E+00  0.0000
   4.1953E+01   4.2973E+01   0.0000E+00  0.0000
   4.2973E+01   4.4019E+01   0.0000E+00  0.0000
   4.4019E+01   4.5090E+01   0.0000E+00  0.0000
   4.5090E+01   4.6187E+01   0.0000E+00  0.0000
   4.6187E+01   4.7311E+01   0.0000E+00  0.0000
   4.7311E+01   4.8462E+01   0.0000E+00  0.0000
   4.8462E+01   4.9641E+01   0.0000E+00  0.0000
   4.9641E+01   5.0849E+01   0.0000E+00  0.0000
   5.0849E+01   5.2086E+01   0.0000E+00  0.0000
   5.2086E+01   5.3353E+01   0.0000E+00  0.0000
   5.3353E+01   5.4651E+01   1.8789E-10  1.0000
   5.4651E+01   5.5981E+01   1.8342E-10  1.0000
   5.5981E+01   5.7343E+01   0.0000E+00  0.0000
   5.7343E+01   5.8738E+01   0.0000E+00  0.0000
   5.8738E+01   6.0168E+01   0.0000E+00  0.0000
   6.0168E+01   6.1632E+01   0.0000E+00  0.0000
   6.1632E+01   6.3131E+01   0.0000E+00  0.0000
   6.3131E+01   6.4667E+01   0.0000E+00  0.0000
   6.4667E+01   6.6240E+01   0.0000E+00  0.0000
   6.6240E+01   6.7852E+01   0.0000E+00  0.0000
   6.7852E+01   6.9503E+01   0.0000E+00  0.0000
   6.9503E+01   7.1194E+01   0.0000E+00  0.0000
   7.1194E+01   7.2926E+01   0.0000E+00  0.0000
   7.2926E+01   7.4701E+01   0.0000E+00  0.0000
   7.4701E+01   7.6518E+01   0.0000E+00  0.0000
   7.6518E+01   7.8380E+01   0.0000E+00  0.0000
   7.8380E+01   8.0287E+01   0.0000E+00  0.0000
   8.0287E+01   8.2240E+01   0.0000E+00  0.0000
   8.2240E+01   8.4241E+01   0.0000E+00  0.0000
   8.4241E+01   8.6291E+01   0.0000E+00  0.0000
   8.6291E+01   8.8391E+01   0.0000E+00  0.0000
   8.8391E+01   9.0541E+01   0.0000E+00  0.0000
   9.0541E+01   9.2744E+01   0.0000E+00  0.0000
   9.2744E+01   9.5001E+01   0.0000E+00  0.0000
   9.5001E+01   9.7312E+01   0.0000E+00  0.0000
   9.7312E+01   9.9680E+01   0.0000E+00  0.0000
   9.9680E+01   1.0211E+02   0.0000E+00  0.0000
   1.0211E+02   1.0459E+02   0.0000E+00  0.0000
   1.0459E+02   1.0713E+02   0.0000E+00  0.0000
   1.0713E+02   1.0974E+02   0.0000E+00  0.0000
   1.0974E+02   1.1241E+02   0.0000E+00  0.0000
   1.1241E+02   1.1515E+02   0.0000E+00  0.0000
   1.1515E+02   1.1795E+02   0.0000E+00  0.0000
   1.1795E+02   1.2082E+02   0.0000E+00  0.0000
   1.2082E+02   1.2376E+02   0.0000E+00  0.0000
   1.2376E+02   1.2677E+02   0.0000E+00  0.0000
   1.2677E+02   1.2985E+02   0.0000E+00  0.0000
   1.2985E+02   1.3301E+02   0.0000E+00  0.0000
   1.3301E+02   1.3625E+02   0.0000E+00  0.0000
   1.3625E+02   1.3956E+02   0.0000E+00  0.0000
   1.3956E+02   1.4296E+02   0.0000E+00  0.0000
   1.4296E+02   1.4644E+02   0.0000E+00  0.0000
   1.4644E+02   1.5000E+02   0.0000E+00  0.0000

#   sum over                 4.1832E-07
'no. =    1   reg = 126 - 226'
msuc: {\huge [t-cross] in region mesh}
msdr: {\it plotted by \ANGEL \version}
msdl: {\it calculated by \PHITS  3.26}
wt: s(0.7)
\vspace{-3}
  region surface crossing
  area  &=&   1.0000E+00 [cm^2]
e:
 
# Information for Restart Calculation
# This calculation was newly started
# istdev =  2 # 1:Batch variance, 2:History variance
# resc2  = 4.10000000000000000E+09 # Total source weight or Total source weight / maxcas
# resc3  = 4.10000000000000000E+09 # Total history number or Total batch number
# maxcas =   100000000 # History / Batch, only used for istdev=1
# bitrseed = 1001101000111111111010111110111110001011101110101001001100101111 # bit data of rseed
