[ T-Cross ]
    title = [t-cross] in region mesh
     mesh =  reg            # mesh type is region-wise
      reg =    1            # number of crossing regions
      non     r-from    r-to       area
      1       112       212        1.000000    
   e-type =    3            # e-mesh is log given by emin, emax and ne
     emin =  1.0000000E-02  # minimum value of e-mesh points
     emax =   150.0000      # maximum value of e-mesh points
#    edel =  2.4039514E-02  # mesh width of e-mesh points
       ne =    400          # number of e-mesh points
#    data = ( e(i), i = 1, ne + 1 )
#           1.00000E-02  1.02433E-02  1.04925E-02  1.07478E-02  1.10093E-02
#           1.12772E-02  1.15516E-02  1.18326E-02  1.21205E-02  1.24154E-02
#           1.27175E-02  1.30269E-02  1.33439E-02  1.36686E-02  1.40011E-02
#           1.43418E-02  1.46907E-02  1.50482E-02  1.54143E-02  1.57894E-02
#           1.61735E-02  1.65670E-02  1.69701E-02  1.73830E-02  1.78060E-02
#           1.82392E-02  1.86830E-02  1.91375E-02  1.96032E-02  2.00801E-02
#           2.05687E-02  2.10692E-02  2.15818E-02  2.21069E-02  2.26448E-02
#           2.31957E-02  2.37601E-02  2.43382E-02  2.49304E-02  2.55369E-02
#           2.61583E-02  2.67947E-02  2.74467E-02  2.81145E-02  2.87985E-02
#           2.94992E-02  3.02169E-02  3.09521E-02  3.17052E-02  3.24766E-02
#           3.32668E-02  3.40762E-02  3.49053E-02  3.57546E-02  3.66246E-02
#           3.75157E-02  3.84284E-02  3.93634E-02  4.03212E-02  4.13022E-02
#           4.23071E-02  4.33365E-02  4.43909E-02  4.54710E-02  4.65773E-02
#           4.77106E-02  4.88714E-02  5.00605E-02  5.12785E-02  5.25262E-02
#           5.38042E-02  5.51133E-02  5.64542E-02  5.78278E-02  5.92348E-02
#           6.06760E-02  6.21523E-02  6.36645E-02  6.52135E-02  6.68002E-02
#           6.84255E-02  7.00904E-02  7.17957E-02  7.35426E-02  7.53319E-02
#           7.71648E-02  7.90423E-02  8.09655E-02  8.29354E-02  8.49533E-02
#           8.70203E-02  8.91376E-02  9.13064E-02  9.35279E-02  9.58035E-02
#           9.81345E-02  1.00522E-01  1.02968E-01  1.05473E-01  1.08040E-01
#           1.10668E-01  1.13361E-01  1.16119E-01  1.18944E-01  1.21838E-01
#           1.24803E-01  1.27839E-01  1.30950E-01  1.34136E-01  1.37399E-01
#           1.40742E-01  1.44167E-01  1.47675E-01  1.51268E-01  1.54948E-01
#           1.58718E-01  1.62580E-01  1.66535E-01  1.70587E-01  1.74738E-01
#           1.78989E-01  1.83344E-01  1.87805E-01  1.92375E-01  1.97055E-01
#           2.01850E-01  2.06761E-01  2.11792E-01  2.16945E-01  2.22223E-01
#           2.27630E-01  2.33169E-01  2.38842E-01  2.44653E-01  2.50605E-01
#           2.56703E-01  2.62949E-01  2.69346E-01  2.75900E-01  2.82613E-01
#           2.89489E-01  2.96532E-01  3.03747E-01  3.11138E-01  3.18708E-01
#           3.26462E-01  3.34405E-01  3.42542E-01  3.50876E-01  3.59413E-01
#           3.68158E-01  3.77116E-01  3.86291E-01  3.95690E-01  4.05317E-01
#           4.15179E-01  4.25281E-01  4.35628E-01  4.46227E-01  4.57084E-01
#           4.68205E-01  4.79597E-01  4.91266E-01  5.03219E-01  5.15463E-01
#           5.28005E-01  5.40851E-01  5.54011E-01  5.67490E-01  5.81298E-01
#           5.95441E-01  6.09929E-01  6.24769E-01  6.39970E-01  6.55541E-01
#           6.71491E-01  6.87828E-01  7.04564E-01  7.21706E-01  7.39266E-01
#           7.57253E-01  7.75678E-01  7.94551E-01  8.13883E-01  8.33685E-01
#           8.53969E-01  8.74747E-01  8.96030E-01  9.17831E-01  9.40163E-01
#           9.63038E-01  9.86469E-01  1.01047E+00  1.03506E+00  1.06024E+00
#           1.08604E+00  1.11246E+00  1.13953E+00  1.16725E+00  1.19565E+00
#           1.22474E+00  1.25454E+00  1.28507E+00  1.31633E+00  1.34836E+00
#           1.38117E+00  1.41477E+00  1.44920E+00  1.48446E+00  1.52057E+00
#           1.55757E+00  1.59547E+00  1.63429E+00  1.67405E+00  1.71478E+00
#           1.75650E+00  1.79924E+00  1.84302E+00  1.88786E+00  1.93379E+00
#           1.98084E+00  2.02904E+00  2.07841E+00  2.12898E+00  2.18078E+00
#           2.23384E+00  2.28819E+00  2.34386E+00  2.40089E+00  2.45930E+00
#           2.51914E+00  2.58043E+00  2.64322E+00  2.70753E+00  2.77341E+00
#           2.84088E+00  2.91001E+00  2.98081E+00  3.05333E+00  3.12762E+00
#           3.20372E+00  3.28167E+00  3.36152E+00  3.44330E+00  3.52708E+00
#           3.61290E+00  3.70080E+00  3.79085E+00  3.88308E+00  3.97756E+00
#           4.07434E+00  4.17347E+00  4.27501E+00  4.37903E+00  4.48557E+00
#           4.59471E+00  4.70650E+00  4.82102E+00  4.93832E+00  5.05847E+00
#           5.18155E+00  5.30762E+00  5.43676E+00  5.56904E+00  5.70453E+00
#           5.84333E+00  5.98550E+00  6.13114E+00  6.28031E+00  6.43312E+00
#           6.58964E+00  6.74997E+00  6.91420E+00  7.08243E+00  7.25475E+00
#           7.43126E+00  7.61207E+00  7.79728E+00  7.98700E+00  8.18133E+00
#           8.38038E+00  8.58428E+00  8.79315E+00  9.00709E+00  9.22624E+00
#           9.45072E+00  9.68067E+00  9.91620E+00  1.01575E+01  1.04046E+01
#           1.06578E+01  1.09171E+01  1.11827E+01  1.14548E+01  1.17335E+01
#           1.20190E+01  1.23114E+01  1.26109E+01  1.29178E+01  1.32321E+01
#           1.35540E+01  1.38838E+01  1.42216E+01  1.45676E+01  1.49221E+01
#           1.52851E+01  1.56570E+01  1.60380E+01  1.64282E+01  1.68279E+01
#           1.72374E+01  1.76568E+01  1.80864E+01  1.85264E+01  1.89772E+01
#           1.94389E+01  1.99119E+01  2.03963E+01  2.08926E+01  2.14009E+01
#           2.19216E+01  2.24550E+01  2.30014E+01  2.35610E+01  2.41343E+01
#           2.47215E+01  2.53230E+01  2.59391E+01  2.65702E+01  2.72167E+01
#           2.78789E+01  2.85572E+01  2.92520E+01  2.99637E+01  3.06928E+01
#           3.14396E+01  3.22045E+01  3.29881E+01  3.37907E+01  3.46128E+01
#           3.54550E+01  3.63177E+01  3.72013E+01  3.81064E+01  3.90336E+01
#           3.99833E+01  4.09561E+01  4.19526E+01  4.29734E+01  4.40189E+01
#           4.50900E+01  4.61870E+01  4.73108E+01  4.84619E+01  4.96410E+01
#           5.08488E+01  5.20860E+01  5.33533E+01  5.46514E+01  5.59812E+01
#           5.73432E+01  5.87384E+01  6.01676E+01  6.16315E+01  6.31311E+01
#           6.46671E+01  6.62405E+01  6.78522E+01  6.95031E+01  7.11941E+01
#           7.29263E+01  7.47007E+01  7.65182E+01  7.83800E+01  8.02870E+01
#           8.22405E+01  8.42414E+01  8.62911E+01  8.83906E+01  9.05412E+01
#           9.27442E+01  9.50007E+01  9.73122E+01  9.96799E+01  1.02105E+02
#           1.04589E+02  1.07134E+02  1.09741E+02  1.12411E+02  1.15146E+02
#           1.17948E+02  1.20817E+02  1.23757E+02  1.26768E+02  1.29852E+02
#           1.33012E+02  1.36248E+02  1.39563E+02  1.42959E+02  1.46437E+02
#           1.50000E+02
     unit =    2            # unit is [1/cm^2/(MeV/n)/source]
     axis =  eng            # axis of output
     file = detector-13.out  # file name of output for the above axis
   output = f-curr          # surface crossing forward current spectrum
     part =  neutron  
# kf/name :  2112     
#    used :        main (  %)        temp (  %)       total (  %)
#  memory :         414 (  0)           0 (  0)         414 (  0)

#------------------------------------------------------------------------------
#newpage:
#   no. =    1   reg = 112 - 212

x: Energy [MeV/n]
y:  F-Curr [1/cm^2/(MeV/n)/source]         
p: xlog ylog afac(0.8) form(0.9)
h: n            x            y(neutron ),hh0l   n 
#  e-lower      e-upper      neutron     r.err 
   1.0000E-02   1.0243E-02   2.7043E-04  0.0621
   1.0243E-02   1.0493E-02   2.8552E-04  0.0598
   1.0493E-02   1.0748E-02   2.5766E-04  0.0622
   1.0748E-02   1.1009E-02   2.5747E-04  0.0614
   1.1009E-02   1.1277E-02   2.6520E-04  0.0599
   1.1277E-02   1.1552E-02   2.2873E-04  0.0637
   1.1552E-02   1.1833E-02   2.1458E-04  0.0649
   1.1833E-02   1.2121E-02   2.3321E-04  0.0616
   1.2121E-02   1.2415E-02   2.4447E-04  0.0594
   1.2415E-02   1.2718E-02   2.3841E-04  0.0594
   1.2718E-02   1.3027E-02   2.1865E-04  0.0613
   1.3027E-02   1.3344E-02   2.4117E-04  0.0576
   1.3344E-02   1.3669E-02   2.2422E-04  0.0590
   1.3669E-02   1.4001E-02   1.9991E-04  0.0619
   1.4001E-02   1.4342E-02   1.9331E-04  0.0621
   1.4342E-02   1.4691E-02   1.7745E-04  0.0641
   1.4691E-02   1.5048E-02   1.7240E-04  0.0643
   1.5048E-02   1.5414E-02   1.7707E-04  0.0627
   1.5414E-02   1.5789E-02   1.9851E-04  0.0584
   1.5789E-02   1.6174E-02   1.8328E-04  0.0601
   1.6174E-02   1.6567E-02   1.9879E-04  0.0570
   1.6567E-02   1.6970E-02   1.6671E-04  0.0615
   1.6970E-02   1.7383E-02   1.5959E-04  0.0621
   1.7383E-02   1.7806E-02   1.5834E-04  0.0616
   1.7806E-02   1.8239E-02   1.8442E-04  0.0564
   1.8239E-02   1.8683E-02   1.5339E-04  0.0610
   1.8683E-02   1.9138E-02   1.5183E-04  0.0607
   1.9138E-02   1.9603E-02   1.4756E-04  0.0609
   1.9603E-02   2.0080E-02   1.5666E-04  0.0583
   2.0080E-02   2.0569E-02   1.3479E-04  0.0622
   2.0569E-02   2.1069E-02   1.4296E-04  0.0596
   2.1069E-02   2.1582E-02   1.2630E-04  0.0628
   2.1582E-02   2.2107E-02   1.3588E-04  0.0597
   2.2107E-02   2.2645E-02   1.3429E-04  0.0593
   2.2645E-02   2.3196E-02   1.2555E-04  0.0605
   2.3196E-02   2.3760E-02   1.3204E-04  0.0585
   2.3760E-02   2.4338E-02   1.2374E-04  0.0597
   2.4338E-02   2.4930E-02   1.1709E-04  0.0605
   2.4930E-02   2.5537E-02   1.3596E-04  0.0555
   2.5537E-02   2.6158E-02   1.1836E-04  0.0588
   2.6158E-02   2.6795E-02   1.2026E-04  0.0577
   2.6795E-02   2.7447E-02   1.1600E-04  0.0580
   2.7447E-02   2.8114E-02   1.1416E-04  0.0577
   2.8114E-02   2.8799E-02   9.8069E-05  0.0615
   2.8799E-02   2.9499E-02   1.0490E-04  0.0587
   2.9499E-02   3.0217E-02   9.8386E-05  0.0599
   3.0217E-02   3.0952E-02   9.5290E-05  0.0602
   3.0952E-02   3.1705E-02   1.0266E-04  0.0573
   3.1705E-02   3.2477E-02   9.7316E-05  0.0582
   3.2477E-02   3.3267E-02   8.7647E-05  0.0605
   3.3267E-02   3.4076E-02   9.7144E-05  0.0568
   3.4076E-02   3.4905E-02   8.3509E-05  0.0606
   3.4905E-02   3.5755E-02   9.1991E-05  0.0571
   3.5755E-02   3.6625E-02   8.2674E-05  0.0594
   3.6625E-02   3.7516E-02   8.0258E-05  0.0596
   3.7516E-02   3.8428E-02   8.3239E-05  0.0578
   3.8428E-02   3.9363E-02   8.3379E-05  0.0571
   3.9363E-02   4.0321E-02   8.4575E-05  0.0561
   4.0321E-02   4.1302E-02   7.2187E-05  0.0600
   4.1302E-02   4.2307E-02   7.8391E-05  0.0568
   4.2307E-02   4.3337E-02   7.5978E-05  0.0571
   4.3337E-02   4.4391E-02   7.8273E-05  0.0555
   4.4391E-02   4.5471E-02   7.4764E-05  0.0561
   4.5471E-02   4.6577E-02   7.3478E-05  0.0560
   4.6577E-02   4.7711E-02   7.3513E-05  0.0553
   4.7711E-02   4.8871E-02   6.4444E-05  0.0582
   4.8871E-02   5.0061E-02   7.2515E-05  0.0543
   5.0061E-02   5.1279E-02   6.5406E-05  0.0564
   5.1279E-02   5.2526E-02   6.6019E-05  0.0555
   5.2526E-02   5.3804E-02   6.8364E-05  0.0540
   5.3804E-02   5.5113E-02   5.9971E-05  0.0569
   5.5113E-02   5.6454E-02   6.1032E-05  0.0557
   5.6454E-02   5.7828E-02   6.2471E-05  0.0545
   5.7828E-02   5.9235E-02   5.8954E-05  0.0555
   5.9235E-02   6.0676E-02   5.2848E-05  0.0578
   6.0676E-02   6.2152E-02   5.6795E-05  0.0550
   6.2152E-02   6.3665E-02   5.3686E-05  0.0559
   6.3665E-02   6.5214E-02   5.4191E-05  0.0551
   6.5214E-02   6.6800E-02   5.1881E-05  0.0556
   6.6800E-02   6.8426E-02   5.0057E-05  0.0559
   6.8426E-02   7.0090E-02   4.9286E-05  0.0556
   7.0090E-02   7.1796E-02   5.0715E-05  0.0543
   7.1796E-02   7.3543E-02   5.0997E-05  0.0534
   7.3543E-02   7.5332E-02   4.8088E-05  0.0543
   7.5332E-02   7.7165E-02   4.8416E-05  0.0535
   7.7165E-02   7.9042E-02   4.7658E-05  0.0533
   7.9042E-02   8.0965E-02   4.5729E-05  0.0539
   8.0965E-02   8.2935E-02   4.5677E-05  0.0532
   8.2935E-02   8.4953E-02   4.5556E-05  0.0526
   8.4953E-02   8.7020E-02   4.3083E-05  0.0535
   8.7020E-02   8.9138E-02   4.1740E-05  0.0537
   8.9138E-02   9.1306E-02   4.2709E-05  0.0524
   9.1306E-02   9.3528E-02   4.5273E-05  0.0503
   9.3528E-02   9.5804E-02   4.2053E-05  0.0516
   9.5804E-02   9.8134E-02   4.3974E-05  0.0498
   9.8134E-02   1.0052E-01   4.4372E-05  0.0490
   1.0052E-01   1.0297E-01   4.1709E-05  0.0499
   1.0297E-01   1.0547E-01   4.4462E-05  0.0478
   1.0547E-01   1.0804E-01   5.0466E-05  0.0444
   1.0804E-01   1.1067E-01   4.7965E-05  0.0449
   1.1067E-01   1.1336E-01   5.0379E-05  0.0433
   1.1336E-01   1.1612E-01   5.0011E-05  0.0430
   1.1612E-01   1.1894E-01   5.3292E-05  0.0411
   1.1894E-01   1.2184E-01   5.9042E-05  0.0386
   1.2184E-01   1.2480E-01   6.3186E-05  0.0369
   1.2480E-01   1.2784E-01   6.4571E-05  0.0360
   1.2784E-01   1.3095E-01   6.8290E-05  0.0346
   1.3095E-01   1.3414E-01   6.8500E-05  0.0342
   1.3414E-01   1.3740E-01   7.2366E-05  0.0328
   1.3740E-01   1.4074E-01   7.5263E-05  0.0318
   1.4074E-01   1.4417E-01   8.0312E-05  0.0304
   1.4417E-01   1.4767E-01   8.6288E-05  0.0290
   1.4767E-01   1.5127E-01   8.9349E-05  0.0282
   1.5127E-01   1.5495E-01   9.4633E-05  0.0270
   1.5495E-01   1.5872E-01   9.6741E-05  0.0264
   1.5872E-01   1.6258E-01   9.8738E-05  0.0258
   1.6258E-01   1.6654E-01   1.0294E-04  0.0250
   1.6654E-01   1.7059E-01   1.0631E-04  0.0243
   1.7059E-01   1.7474E-01   1.1197E-04  0.0234
   1.7474E-01   1.7899E-01   1.1834E-04  0.0225
   1.7899E-01   1.8334E-01   1.2965E-04  0.0212
   1.8334E-01   1.8781E-01   1.2820E-04  0.0211
   1.8781E-01   1.9237E-01   1.3473E-04  0.0204
   1.9237E-01   1.9706E-01   1.4128E-04  0.0196
   1.9706E-01   2.0185E-01   1.5338E-04  0.0186
   2.0185E-01   2.0676E-01   1.5909E-04  0.0181
   2.0676E-01   2.1179E-01   1.6486E-04  0.0175
   2.1179E-01   2.1694E-01   1.6572E-04  0.0173
   2.1694E-01   2.2222E-01   1.7585E-04  0.0166
   2.2222E-01   2.2763E-01   1.8463E-04  0.0160
   2.2763E-01   2.3317E-01   1.8620E-04  0.0157
   2.3317E-01   2.3884E-01   1.9510E-04  0.0152
   2.3884E-01   2.4465E-01   2.0500E-04  0.0146
   2.4465E-01   2.5061E-01   2.1519E-04  0.0141
   2.5061E-01   2.5670E-01   2.2437E-04  0.0136
   2.5670E-01   2.6295E-01   2.3210E-04  0.0133
   2.6295E-01   2.6935E-01   2.3915E-04  0.0129
   2.6935E-01   2.7590E-01   2.4769E-04  0.0125
   2.7590E-01   2.8261E-01   2.5529E-04  0.0122
   2.8261E-01   2.8949E-01   2.7246E-04  0.0117
   2.8949E-01   2.9653E-01   2.7427E-04  0.0115
   2.9653E-01   3.0375E-01   2.8355E-04  0.0112
   3.0375E-01   3.1114E-01   2.9932E-04  0.0107
   3.1114E-01   3.1871E-01   3.0977E-04  0.0104
   3.1871E-01   3.2646E-01   3.1544E-04  0.0102
   3.2646E-01   3.3441E-01   3.2535E-04  0.0099
   3.3441E-01   3.4254E-01   3.3518E-04  0.0097
   3.4254E-01   3.5088E-01   3.4092E-04  0.0095
   3.5088E-01   3.5941E-01   3.5711E-04  0.0091
   3.5941E-01   3.6816E-01   3.6473E-04  0.0089
   3.6816E-01   3.7712E-01   3.7083E-04  0.0088
   3.7712E-01   3.8629E-01   3.8648E-04  0.0085
   3.8629E-01   3.9569E-01   3.9490E-04  0.0083
   3.9569E-01   4.0532E-01   4.0911E-04  0.0080
   4.0532E-01   4.1518E-01   4.1425E-04  0.0079
   4.1518E-01   4.2528E-01   4.2099E-04  0.0077
   4.2528E-01   4.3563E-01   4.3002E-04  0.0076
   4.3563E-01   4.4623E-01   4.3514E-04  0.0074
   4.4623E-01   4.5708E-01   4.4400E-04  0.0073
   4.5708E-01   4.6821E-01   4.5236E-04  0.0071
   4.6821E-01   4.7960E-01   4.5468E-04  0.0070
   4.7960E-01   4.9127E-01   4.6212E-04  0.0069
   4.9127E-01   5.0322E-01   4.6689E-04  0.0068
   5.0322E-01   5.1546E-01   4.8239E-04  0.0066
   5.1546E-01   5.2800E-01   4.7983E-04  0.0065
   5.2800E-01   5.4085E-01   4.8605E-04  0.0064
   5.4085E-01   5.5401E-01   4.9571E-04  0.0062
   5.5401E-01   5.6749E-01   4.9973E-04  0.0061
   5.6749E-01   5.8130E-01   4.9978E-04  0.0061
   5.8130E-01   5.9544E-01   5.0253E-04  0.0060
   5.9544E-01   6.0993E-01   5.0831E-04  0.0059
   6.0993E-01   6.2477E-01   5.1363E-04  0.0058
   6.2477E-01   6.3997E-01   5.1388E-04  0.0057
   6.3997E-01   6.5554E-01   5.1918E-04  0.0056
   6.5554E-01   6.7149E-01   5.1985E-04  0.0055
   6.7149E-01   6.8783E-01   5.1482E-04  0.0055
   6.8783E-01   7.0456E-01   5.1578E-04  0.0054
   7.0456E-01   7.2171E-01   5.2006E-04  0.0053
   7.2171E-01   7.3927E-01   5.2162E-04  0.0053
   7.3927E-01   7.5725E-01   5.1600E-04  0.0052
   7.5725E-01   7.7568E-01   5.1712E-04  0.0052
   7.7568E-01   7.9455E-01   5.1753E-04  0.0051
   7.9455E-01   8.1388E-01   5.1909E-04  0.0050
   8.1388E-01   8.3368E-01   5.1871E-04  0.0050
   8.3368E-01   8.5397E-01   5.0705E-04  0.0050
   8.5397E-01   8.7475E-01   5.1758E-04  0.0049
   8.7475E-01   8.9603E-01   5.0812E-04  0.0048
   8.9603E-01   9.1783E-01   5.0448E-04  0.0048
   9.1783E-01   9.4016E-01   5.0345E-04  0.0048
   9.4016E-01   9.6304E-01   4.9464E-04  0.0047
   9.6304E-01   9.8647E-01   4.8867E-04  0.0047
   9.8647E-01   1.0105E+00   4.7915E-04  0.0047
   1.0105E+00   1.0351E+00   4.7749E-04  0.0046
   1.0351E+00   1.0602E+00   4.7119E-04  0.0046
   1.0602E+00   1.0860E+00   4.7121E-04  0.0046
   1.0860E+00   1.1125E+00   4.6954E-04  0.0045
   1.1125E+00   1.1395E+00   4.6759E-04  0.0045
   1.1395E+00   1.1673E+00   4.7245E-04  0.0044
   1.1673E+00   1.1957E+00   4.7123E-04  0.0043
   1.1957E+00   1.2247E+00   4.6788E-04  0.0043
   1.2247E+00   1.2545E+00   4.7309E-04  0.0042
   1.2545E+00   1.2851E+00   4.6698E-04  0.0042
   1.2851E+00   1.3163E+00   4.6528E-04  0.0042
   1.3163E+00   1.3484E+00   4.6974E-04  0.0041
   1.3484E+00   1.3812E+00   4.5984E-04  0.0041
   1.3812E+00   1.4148E+00   4.6310E-04  0.0040
   1.4148E+00   1.4492E+00   4.5746E-04  0.0040
   1.4492E+00   1.4845E+00   4.5576E-04  0.0039
   1.4845E+00   1.5206E+00   4.5017E-04  0.0039
   1.5206E+00   1.5576E+00   4.5460E-04  0.0038
   1.5576E+00   1.5955E+00   4.4553E-04  0.0038
   1.5955E+00   1.6343E+00   4.3849E-04  0.0038
   1.6343E+00   1.6741E+00   4.3231E-04  0.0038
   1.6741E+00   1.7148E+00   4.2634E-04  0.0038
   1.7148E+00   1.7565E+00   4.1961E-04  0.0038
   1.7565E+00   1.7992E+00   4.0125E-04  0.0038
   1.7992E+00   1.8430E+00   3.7748E-04  0.0039
   1.8430E+00   1.8879E+00   3.5536E-04  0.0039
   1.8879E+00   1.9338E+00   3.4445E-04  0.0039
   1.9338E+00   1.9808E+00   3.3817E-04  0.0039
   1.9808E+00   2.0290E+00   3.2931E-04  0.0039
   2.0290E+00   2.0784E+00   3.2655E-04  0.0039
   2.0784E+00   2.1290E+00   3.2381E-04  0.0038
   2.1290E+00   2.1808E+00   3.3088E-04  0.0037
   2.1808E+00   2.2338E+00   3.2806E-04  0.0037
   2.2338E+00   2.2882E+00   3.2359E-04  0.0037
   2.2882E+00   2.3439E+00   3.0875E-04  0.0037
   2.3439E+00   2.4009E+00   3.0421E-04  0.0037
   2.4009E+00   2.4593E+00   2.9382E-04  0.0038
   2.4593E+00   2.5191E+00   2.9054E-04  0.0037
   2.5191E+00   2.5804E+00   2.8537E-04  0.0037
   2.5804E+00   2.6432E+00   2.7771E-04  0.0037
   2.6432E+00   2.7075E+00   2.7647E-04  0.0037
   2.7075E+00   2.7734E+00   2.6772E-04  0.0037
   2.7734E+00   2.8409E+00   2.6380E-04  0.0037
   2.8409E+00   2.9100E+00   2.5817E-04  0.0037
   2.9100E+00   2.9808E+00   2.5435E-04  0.0037
   2.9808E+00   3.0533E+00   2.5245E-04  0.0036
   3.0533E+00   3.1276E+00   2.4554E-04  0.0037
   3.1276E+00   3.2037E+00   2.4098E-04  0.0036
   3.2037E+00   3.2817E+00   2.3567E-04  0.0036
   3.2817E+00   3.3615E+00   2.3242E-04  0.0036
   3.3615E+00   3.4433E+00   2.3132E-04  0.0036
   3.4433E+00   3.5271E+00   2.2573E-04  0.0036
   3.5271E+00   3.6129E+00   2.2006E-04  0.0036
   3.6129E+00   3.7008E+00   2.1820E-04  0.0036
   3.7008E+00   3.7908E+00   2.1343E-04  0.0036
   3.7908E+00   3.8831E+00   2.0958E-04  0.0036
   3.8831E+00   3.9776E+00   2.0367E-04  0.0036
   3.9776E+00   4.0743E+00   1.9821E-04  0.0036
   4.0743E+00   4.1735E+00   1.9649E-04  0.0035
   4.1735E+00   4.2750E+00   1.9040E-04  0.0036
   4.2750E+00   4.3790E+00   1.8595E-04  0.0036
   4.3790E+00   4.4856E+00   1.8034E-04  0.0036
   4.4856E+00   4.5947E+00   1.7694E-04  0.0036
   4.5947E+00   4.7065E+00   1.7261E-04  0.0036
   4.7065E+00   4.8210E+00   1.6907E-04  0.0036
   4.8210E+00   4.9383E+00   1.6664E-04  0.0035
   4.9383E+00   5.0585E+00   1.6394E-04  0.0035
   5.0585E+00   5.1815E+00   1.6099E-04  0.0035
   5.1815E+00   5.3076E+00   1.5879E-04  0.0035
   5.3076E+00   5.4368E+00   1.5549E-04  0.0035
   5.4368E+00   5.5690E+00   1.5259E-04  0.0035
   5.5690E+00   5.7045E+00   1.4944E-04  0.0035
   5.7045E+00   5.8433E+00   1.4813E-04  0.0035
   5.8433E+00   5.9855E+00   1.4589E-04  0.0034
   5.9855E+00   6.1311E+00   1.4280E-04  0.0034
   6.1311E+00   6.2803E+00   1.4256E-04  0.0034
   6.2803E+00   6.4331E+00   1.3869E-04  0.0034
   6.4331E+00   6.5896E+00   1.3690E-04  0.0034
   6.5896E+00   6.7500E+00   1.3539E-04  0.0034
   6.7500E+00   6.9142E+00   1.3287E-04  0.0034
   6.9142E+00   7.0824E+00   1.3009E-04  0.0034
   7.0824E+00   7.2548E+00   1.2706E-04  0.0034
   7.2548E+00   7.4313E+00   1.2510E-04  0.0033
   7.4313E+00   7.6121E+00   1.2267E-04  0.0033
   7.6121E+00   7.7973E+00   1.1995E-04  0.0033
   7.7973E+00   7.9870E+00   1.1765E-04  0.0033
   7.9870E+00   8.1813E+00   1.1472E-04  0.0033
   8.1813E+00   8.3804E+00   1.1269E-04  0.0033
   8.3804E+00   8.5843E+00   1.0937E-04  0.0033
   8.5843E+00   8.7931E+00   1.0701E-04  0.0033
   8.7931E+00   9.0071E+00   1.0387E-04  0.0034
   9.0071E+00   9.2262E+00   1.0034E-04  0.0034
   9.2262E+00   9.4507E+00   9.7559E-05  0.0034
   9.4507E+00   9.6807E+00   9.3724E-05  0.0034
   9.6807E+00   9.9162E+00   9.2195E-05  0.0034
   9.9162E+00   1.0157E+01   9.4394E-05  0.0033
   1.0157E+01   1.0405E+01   9.1339E-05  0.0034
   1.0405E+01   1.0658E+01   8.8955E-05  0.0034
   1.0658E+01   1.0917E+01   8.5973E-05  0.0034
   1.0917E+01   1.1183E+01   8.2027E-05  0.0034
   1.1183E+01   1.1455E+01   7.9209E-05  0.0034
   1.1455E+01   1.1733E+01   7.6693E-05  0.0035
   1.1733E+01   1.2019E+01   7.4314E-05  0.0035
   1.2019E+01   1.2311E+01   7.1495E-05  0.0035
   1.2311E+01   1.2611E+01   6.9621E-05  0.0035
   1.2611E+01   1.2918E+01   6.7108E-05  0.0035
   1.2918E+01   1.3232E+01   6.4758E-05  0.0035
   1.3232E+01   1.3554E+01   6.1838E-05  0.0036
   1.3554E+01   1.3884E+01   5.9530E-05  0.0036
   1.3884E+01   1.4222E+01   5.7393E-05  0.0036
   1.4222E+01   1.4568E+01   5.5241E-05  0.0037
   1.4568E+01   1.4922E+01   5.2694E-05  0.0037
   1.4922E+01   1.5285E+01   5.0696E-05  0.0037
   1.5285E+01   1.5657E+01   4.8551E-05  0.0038
   1.5657E+01   1.6038E+01   4.6319E-05  0.0038
   1.6038E+01   1.6428E+01   4.4268E-05  0.0039
   1.6428E+01   1.6828E+01   4.2090E-05  0.0039
   1.6828E+01   1.7237E+01   4.0028E-05  0.0040
   1.7237E+01   1.7657E+01   3.8099E-05  0.0040
   1.7657E+01   1.8086E+01   3.5935E-05  0.0041
   1.8086E+01   1.8526E+01   3.4076E-05  0.0041
   1.8526E+01   1.8977E+01   3.2205E-05  0.0042
   1.8977E+01   1.9439E+01   3.0585E-05  0.0043
   1.9439E+01   1.9912E+01   2.9003E-05  0.0043
   1.9912E+01   2.0396E+01   2.7352E-05  0.0044
   2.0396E+01   2.0893E+01   2.5756E-05  0.0045
   2.0893E+01   2.1401E+01   2.3963E-05  0.0046
   2.1401E+01   2.1922E+01   2.2679E-05  0.0047
   2.1922E+01   2.2455E+01   2.1863E-05  0.0047
   2.2455E+01   2.3001E+01   2.1344E-05  0.0047
   2.3001E+01   2.3561E+01   2.0082E-05  0.0048
   2.3561E+01   2.4134E+01   1.8727E-05  0.0049
   2.4134E+01   2.4721E+01   1.7650E-05  0.0050
   2.4721E+01   2.5323E+01   1.6337E-05  0.0051
   2.5323E+01   2.5939E+01   1.5009E-05  0.0053
   2.5939E+01   2.6570E+01   1.3703E-05  0.0054
   2.6570E+01   2.7217E+01   1.2484E-05  0.0056
   2.7217E+01   2.7879E+01   1.1247E-05  0.0059
   2.7879E+01   2.8557E+01   1.0001E-05  0.0061
   2.8557E+01   2.9252E+01   8.8247E-06  0.0065
   2.9252E+01   2.9964E+01   7.7176E-06  0.0068
   2.9964E+01   3.0693E+01   6.7451E-06  0.0072
   3.0693E+01   3.1440E+01   5.7883E-06  0.0077
   3.1440E+01   3.2205E+01   5.0307E-06  0.0082
   3.2205E+01   3.2988E+01   4.4138E-06  0.0086
   3.2988E+01   3.3791E+01   3.8384E-06  0.0091
   3.3791E+01   3.4613E+01   3.2554E-06  0.0098
   3.4613E+01   3.5455E+01   2.7892E-06  0.0104
   3.5455E+01   3.6318E+01   2.3360E-06  0.0113
   3.6318E+01   3.7201E+01   1.9378E-06  0.0122
   3.7201E+01   3.8106E+01   1.6113E-06  0.0133
   3.8106E+01   3.9034E+01   1.2470E-06  0.0149
   3.9034E+01   3.9983E+01   8.9284E-07  0.0174
   3.9983E+01   4.0956E+01   6.6499E-07  0.0199
   4.0956E+01   4.1953E+01   5.1179E-07  0.0224
   4.1953E+01   4.2973E+01   4.0293E-07  0.0250
   4.2973E+01   4.4019E+01   3.1513E-07  0.0279
   4.4019E+01   4.5090E+01   2.6957E-07  0.0298
   4.5090E+01   4.6187E+01   2.3840E-07  0.0313
   4.6187E+01   4.7311E+01   2.0946E-07  0.0330
   4.7311E+01   4.8462E+01   9.8456E-08  0.0476
   4.8462E+01   4.9641E+01   3.9360E-08  0.0743
   4.9641E+01   5.0849E+01   1.8045E-08  0.1085
   5.0849E+01   5.2086E+01   3.1088E-09  0.2582
   5.2086E+01   5.3353E+01   6.0699E-10  0.5774
   5.3353E+01   5.4651E+01   0.0000E+00  0.0000
   5.4651E+01   5.5981E+01   0.0000E+00  0.0000
   5.5981E+01   5.7343E+01   0.0000E+00  0.0000
   5.7343E+01   5.8738E+01   0.0000E+00  0.0000
   5.8738E+01   6.0168E+01   0.0000E+00  0.0000
   6.0168E+01   6.1632E+01   0.0000E+00  0.0000
   6.1632E+01   6.3131E+01   0.0000E+00  0.0000
   6.3131E+01   6.4667E+01   0.0000E+00  0.0000
   6.4667E+01   6.6240E+01   0.0000E+00  0.0000
   6.6240E+01   6.7852E+01   0.0000E+00  0.0000
   6.7852E+01   6.9503E+01   0.0000E+00  0.0000
   6.9503E+01   7.1194E+01   0.0000E+00  0.0000
   7.1194E+01   7.2926E+01   0.0000E+00  0.0000
   7.2926E+01   7.4701E+01   0.0000E+00  0.0000
   7.4701E+01   7.6518E+01   0.0000E+00  0.0000
   7.6518E+01   7.8380E+01   0.0000E+00  0.0000
   7.8380E+01   8.0287E+01   0.0000E+00  0.0000
   8.0287E+01   8.2240E+01   0.0000E+00  0.0000
   8.2240E+01   8.4241E+01   0.0000E+00  0.0000
   8.4241E+01   8.6291E+01   0.0000E+00  0.0000
   8.6291E+01   8.8391E+01   0.0000E+00  0.0000
   8.8391E+01   9.0541E+01   0.0000E+00  0.0000
   9.0541E+01   9.2744E+01   0.0000E+00  0.0000
   9.2744E+01   9.5001E+01   0.0000E+00  0.0000
   9.5001E+01   9.7312E+01   0.0000E+00  0.0000
   9.7312E+01   9.9680E+01   0.0000E+00  0.0000
   9.9680E+01   1.0211E+02   0.0000E+00  0.0000
   1.0211E+02   1.0459E+02   0.0000E+00  0.0000
   1.0459E+02   1.0713E+02   0.0000E+00  0.0000
   1.0713E+02   1.0974E+02   0.0000E+00  0.0000
   1.0974E+02   1.1241E+02   0.0000E+00  0.0000
   1.1241E+02   1.1515E+02   0.0000E+00  0.0000
   1.1515E+02   1.1795E+02   0.0000E+00  0.0000
   1.1795E+02   1.2082E+02   0.0000E+00  0.0000
   1.2082E+02   1.2376E+02   0.0000E+00  0.0000
   1.2376E+02   1.2677E+02   0.0000E+00  0.0000
   1.2677E+02   1.2985E+02   0.0000E+00  0.0000
   1.2985E+02   1.3301E+02   0.0000E+00  0.0000
   1.3301E+02   1.3625E+02   0.0000E+00  0.0000
   1.3625E+02   1.3956E+02   0.0000E+00  0.0000
   1.3956E+02   1.4296E+02   0.0000E+00  0.0000
   1.4296E+02   1.4644E+02   0.0000E+00  0.0000
   1.4644E+02   1.5000E+02   0.0000E+00  0.0000

#   sum over                 1.9083E-05
'no. =    1   reg = 112 - 212'
msuc: {\huge [t-cross] in region mesh}
msdr: {\it plotted by \ANGEL \version}
msdl: {\it calculated by \PHITS  3.26}
wt: s(0.7)
\vspace{-3}
  region surface crossing
  area  &=&   1.0000E+00 [cm^2]
e:
 
# Information for Restart Calculation
# This calculation was newly started
# istdev =  2 # 1:Batch variance, 2:History variance
# resc2  = 3.90000000000000000E+09 # Total source weight or Total source weight / maxcas
# resc3  = 3.90000000000000000E+09 # Total history number or Total batch number
# maxcas =   100000000 # History / Batch, only used for istdev=1
# bitrseed = 1001000100011001100110111101101111001101001011101000111110000101 # bit data of rseed
