[ T-Cross ]
    title = [t-cross] in region mesh
     mesh =  reg            # mesh type is region-wise
      reg =    1            # number of crossing regions
      non     r-from    r-to       area
      1       113       213        1.000000    
   e-type =    3            # e-mesh is log given by emin, emax and ne
     emin =  1.0000000E-02  # minimum value of e-mesh points
     emax =   150.0000      # maximum value of e-mesh points
#    edel =  2.4039514E-02  # mesh width of e-mesh points
       ne =    400          # number of e-mesh points
#    data = ( e(i), i = 1, ne + 1 )
#           1.00000E-02  1.02433E-02  1.04925E-02  1.07478E-02  1.10093E-02
#           1.12772E-02  1.15516E-02  1.18326E-02  1.21205E-02  1.24154E-02
#           1.27175E-02  1.30269E-02  1.33439E-02  1.36686E-02  1.40011E-02
#           1.43418E-02  1.46907E-02  1.50482E-02  1.54143E-02  1.57894E-02
#           1.61735E-02  1.65670E-02  1.69701E-02  1.73830E-02  1.78060E-02
#           1.82392E-02  1.86830E-02  1.91375E-02  1.96032E-02  2.00801E-02
#           2.05687E-02  2.10692E-02  2.15818E-02  2.21069E-02  2.26448E-02
#           2.31957E-02  2.37601E-02  2.43382E-02  2.49304E-02  2.55369E-02
#           2.61583E-02  2.67947E-02  2.74467E-02  2.81145E-02  2.87985E-02
#           2.94992E-02  3.02169E-02  3.09521E-02  3.17052E-02  3.24766E-02
#           3.32668E-02  3.40762E-02  3.49053E-02  3.57546E-02  3.66246E-02
#           3.75157E-02  3.84284E-02  3.93634E-02  4.03212E-02  4.13022E-02
#           4.23071E-02  4.33365E-02  4.43909E-02  4.54710E-02  4.65773E-02
#           4.77106E-02  4.88714E-02  5.00605E-02  5.12785E-02  5.25262E-02
#           5.38042E-02  5.51133E-02  5.64542E-02  5.78278E-02  5.92348E-02
#           6.06760E-02  6.21523E-02  6.36645E-02  6.52135E-02  6.68002E-02
#           6.84255E-02  7.00904E-02  7.17957E-02  7.35426E-02  7.53319E-02
#           7.71648E-02  7.90423E-02  8.09655E-02  8.29354E-02  8.49533E-02
#           8.70203E-02  8.91376E-02  9.13064E-02  9.35279E-02  9.58035E-02
#           9.81345E-02  1.00522E-01  1.02968E-01  1.05473E-01  1.08040E-01
#           1.10668E-01  1.13361E-01  1.16119E-01  1.18944E-01  1.21838E-01
#           1.24803E-01  1.27839E-01  1.30950E-01  1.34136E-01  1.37399E-01
#           1.40742E-01  1.44167E-01  1.47675E-01  1.51268E-01  1.54948E-01
#           1.58718E-01  1.62580E-01  1.66535E-01  1.70587E-01  1.74738E-01
#           1.78989E-01  1.83344E-01  1.87805E-01  1.92375E-01  1.97055E-01
#           2.01850E-01  2.06761E-01  2.11792E-01  2.16945E-01  2.22223E-01
#           2.27630E-01  2.33169E-01  2.38842E-01  2.44653E-01  2.50605E-01
#           2.56703E-01  2.62949E-01  2.69346E-01  2.75900E-01  2.82613E-01
#           2.89489E-01  2.96532E-01  3.03747E-01  3.11138E-01  3.18708E-01
#           3.26462E-01  3.34405E-01  3.42542E-01  3.50876E-01  3.59413E-01
#           3.68158E-01  3.77116E-01  3.86291E-01  3.95690E-01  4.05317E-01
#           4.15179E-01  4.25281E-01  4.35628E-01  4.46227E-01  4.57084E-01
#           4.68205E-01  4.79597E-01  4.91266E-01  5.03219E-01  5.15463E-01
#           5.28005E-01  5.40851E-01  5.54011E-01  5.67490E-01  5.81298E-01
#           5.95441E-01  6.09929E-01  6.24769E-01  6.39970E-01  6.55541E-01
#           6.71491E-01  6.87828E-01  7.04564E-01  7.21706E-01  7.39266E-01
#           7.57253E-01  7.75678E-01  7.94551E-01  8.13883E-01  8.33685E-01
#           8.53969E-01  8.74747E-01  8.96030E-01  9.17831E-01  9.40163E-01
#           9.63038E-01  9.86469E-01  1.01047E+00  1.03506E+00  1.06024E+00
#           1.08604E+00  1.11246E+00  1.13953E+00  1.16725E+00  1.19565E+00
#           1.22474E+00  1.25454E+00  1.28507E+00  1.31633E+00  1.34836E+00
#           1.38117E+00  1.41477E+00  1.44920E+00  1.48446E+00  1.52057E+00
#           1.55757E+00  1.59547E+00  1.63429E+00  1.67405E+00  1.71478E+00
#           1.75650E+00  1.79924E+00  1.84302E+00  1.88786E+00  1.93379E+00
#           1.98084E+00  2.02904E+00  2.07841E+00  2.12898E+00  2.18078E+00
#           2.23384E+00  2.28819E+00  2.34386E+00  2.40089E+00  2.45930E+00
#           2.51914E+00  2.58043E+00  2.64322E+00  2.70753E+00  2.77341E+00
#           2.84088E+00  2.91001E+00  2.98081E+00  3.05333E+00  3.12762E+00
#           3.20372E+00  3.28167E+00  3.36152E+00  3.44330E+00  3.52708E+00
#           3.61290E+00  3.70080E+00  3.79085E+00  3.88308E+00  3.97756E+00
#           4.07434E+00  4.17347E+00  4.27501E+00  4.37903E+00  4.48557E+00
#           4.59471E+00  4.70650E+00  4.82102E+00  4.93832E+00  5.05847E+00
#           5.18155E+00  5.30762E+00  5.43676E+00  5.56904E+00  5.70453E+00
#           5.84333E+00  5.98550E+00  6.13114E+00  6.28031E+00  6.43312E+00
#           6.58964E+00  6.74997E+00  6.91420E+00  7.08243E+00  7.25475E+00
#           7.43126E+00  7.61207E+00  7.79728E+00  7.98700E+00  8.18133E+00
#           8.38038E+00  8.58428E+00  8.79315E+00  9.00709E+00  9.22624E+00
#           9.45072E+00  9.68067E+00  9.91620E+00  1.01575E+01  1.04046E+01
#           1.06578E+01  1.09171E+01  1.11827E+01  1.14548E+01  1.17335E+01
#           1.20190E+01  1.23114E+01  1.26109E+01  1.29178E+01  1.32321E+01
#           1.35540E+01  1.38838E+01  1.42216E+01  1.45676E+01  1.49221E+01
#           1.52851E+01  1.56570E+01  1.60380E+01  1.64282E+01  1.68279E+01
#           1.72374E+01  1.76568E+01  1.80864E+01  1.85264E+01  1.89772E+01
#           1.94389E+01  1.99119E+01  2.03963E+01  2.08926E+01  2.14009E+01
#           2.19216E+01  2.24550E+01  2.30014E+01  2.35610E+01  2.41343E+01
#           2.47215E+01  2.53230E+01  2.59391E+01  2.65702E+01  2.72167E+01
#           2.78789E+01  2.85572E+01  2.92520E+01  2.99637E+01  3.06928E+01
#           3.14396E+01  3.22045E+01  3.29881E+01  3.37907E+01  3.46128E+01
#           3.54550E+01  3.63177E+01  3.72013E+01  3.81064E+01  3.90336E+01
#           3.99833E+01  4.09561E+01  4.19526E+01  4.29734E+01  4.40189E+01
#           4.50900E+01  4.61870E+01  4.73108E+01  4.84619E+01  4.96410E+01
#           5.08488E+01  5.20860E+01  5.33533E+01  5.46514E+01  5.59812E+01
#           5.73432E+01  5.87384E+01  6.01676E+01  6.16315E+01  6.31311E+01
#           6.46671E+01  6.62405E+01  6.78522E+01  6.95031E+01  7.11941E+01
#           7.29263E+01  7.47007E+01  7.65182E+01  7.83800E+01  8.02870E+01
#           8.22405E+01  8.42414E+01  8.62911E+01  8.83906E+01  9.05412E+01
#           9.27442E+01  9.50007E+01  9.73122E+01  9.96799E+01  1.02105E+02
#           1.04589E+02  1.07134E+02  1.09741E+02  1.12411E+02  1.15146E+02
#           1.17948E+02  1.20817E+02  1.23757E+02  1.26768E+02  1.29852E+02
#           1.33012E+02  1.36248E+02  1.39563E+02  1.42959E+02  1.46437E+02
#           1.50000E+02
     unit =    2            # unit is [1/cm^2/(MeV/n)/source]
     axis =  eng            # axis of output
     file = detector-14.out  # file name of output for the above axis
   output = f-curr          # surface crossing forward current spectrum
     part =  neutron  
# kf/name :  2112     
#    used :        main (  %)        temp (  %)       total (  %)
#  memory :         414 (  0)           0 (  0)         414 (  0)

#------------------------------------------------------------------------------
#newpage:
#   no. =    1   reg = 113 - 213

x: Energy [MeV/n]
y:  F-Curr [1/cm^2/(MeV/n)/source]         
p: xlog ylog afac(0.8) form(0.9)
h: n            x            y(neutron ),hh0l   n 
#  e-lower      e-upper      neutron     r.err 
   1.0000E-02   1.0243E-02   6.7065E-05  0.1236
   1.0243E-02   1.0493E-02   5.6839E-05  0.1324
   1.0493E-02   1.0748E-02   5.3359E-05  0.1350
   1.0748E-02   1.1009E-02   4.7131E-05  0.1421
   1.1009E-02   1.1277E-02   4.2499E-05  0.1475
   1.1277E-02   1.1552E-02   4.5348E-05  0.1411
   1.1552E-02   1.1833E-02   4.3896E-05  0.1410
   1.1833E-02   1.2121E-02   5.5460E-05  0.1246
   1.2121E-02   1.2415E-02   4.3475E-05  0.1385
   1.2415E-02   1.2718E-02   4.7311E-05  0.1312
   1.2718E-02   1.3027E-02   4.3161E-05  0.1364
   1.3027E-02   1.3344E-02   4.8722E-05  0.1268
   1.3344E-02   1.3669E-02   3.0513E-05  0.1581
   1.3669E-02   1.4001E-02   4.2158E-05  0.1327
   1.4001E-02   1.4342E-02   3.2856E-05  0.1487
   1.4342E-02   1.4691E-02   3.2978E-05  0.1464
   1.4691E-02   1.5048E-02   4.3136E-05  0.1268
   1.5048E-02   1.5414E-02   3.8763E-05  0.1322
   1.5414E-02   1.5789E-02   3.2033E-05  0.1432
   1.5789E-02   1.6174E-02   4.0899E-05  0.1248
   1.6174E-02   1.6567E-02   2.6219E-05  0.1543
   1.6567E-02   1.6970E-02   4.0567E-05  0.1233
   1.6970E-02   1.7383E-02   3.3033E-05  0.1348
   1.7383E-02   1.7806E-02   3.2661E-05  0.1343
   1.7806E-02   1.8239E-02   4.1844E-05  0.1171
   1.8239E-02   1.8683E-02   3.6183E-05  0.1240
   1.8683E-02   1.9138E-02   3.1049E-05  0.1321
   1.9138E-02   1.9603E-02   3.1408E-05  0.1303
   1.9603E-02   2.0080E-02   3.1124E-05  0.1294
   2.0080E-02   2.0569E-02   2.6292E-05  0.1384
   2.0569E-02   2.1069E-02   2.6558E-05  0.1362
   2.1069E-02   2.1582E-02   2.5116E-05  0.1390
   2.1582E-02   2.2107E-02   3.4103E-05  0.1177
   2.2107E-02   2.2645E-02   2.5407E-05  0.1348
   2.2645E-02   2.3196E-02   2.3038E-05  0.1395
   2.3196E-02   2.3760E-02   2.9847E-05  0.1215
   2.3760E-02   2.4338E-02   2.2728E-05  0.1373
   2.4338E-02   2.4930E-02   2.4337E-05  0.1313
   2.4930E-02   2.5537E-02   2.2570E-05  0.1344
   2.5537E-02   2.6158E-02   2.5012E-05  0.1267
   2.6158E-02   2.6795E-02   2.4357E-05  0.1262
   2.6795E-02   2.7447E-02   2.7287E-05  0.1184
   2.7447E-02   2.8114E-02   2.7470E-05  0.1160
   2.8114E-02   2.8799E-02   2.2421E-05  0.1274
   2.8799E-02   2.9499E-02   2.1280E-05  0.1291
   2.9499E-02   3.0217E-02   2.3720E-05  0.1201
   3.0217E-02   3.0952E-02   1.8577E-05  0.1346
   3.0952E-02   3.1705E-02   2.0887E-05  0.1255
   3.1705E-02   3.2477E-02   2.1275E-05  0.1231
   3.2477E-02   3.3267E-02   2.1603E-05  0.1198
   3.3267E-02   3.4076E-02   1.9283E-05  0.1262
   3.4076E-02   3.4905E-02   2.0660E-05  0.1205
   3.4905E-02   3.5755E-02   1.6826E-05  0.1315
   3.5755E-02   3.6625E-02   1.8344E-05  0.1246
   3.6625E-02   3.7516E-02   1.5640E-05  0.1326
   3.7516E-02   3.8428E-02   1.2736E-05  0.1455
   3.8428E-02   3.9363E-02   1.7690E-05  0.1224
   3.9363E-02   4.0321E-02   1.4844E-05  0.1318
   4.0321E-02   4.1302E-02   1.3173E-05  0.1370
   4.1302E-02   4.2307E-02   1.7412E-05  0.1190
   4.2307E-02   4.3337E-02   1.5981E-05  0.1216
   4.3337E-02   4.4391E-02   1.6683E-05  0.1185
   4.4391E-02   4.5471E-02   1.2521E-05  0.1349
   4.5471E-02   4.6577E-02   1.5188E-05  0.1218
   4.6577E-02   4.7711E-02   1.5429E-05  0.1191
   4.7711E-02   4.8871E-02   1.4946E-05  0.1198
   4.8871E-02   5.0061E-02   1.0265E-05  0.1422
   5.0061E-02   5.1279E-02   1.4368E-05  0.1195
   5.1279E-02   5.2526E-02   1.1165E-05  0.1325
   5.2526E-02   5.3804E-02   1.1969E-05  0.1265
   5.3804E-02   5.5113E-02   1.4692E-05  0.1136
   5.5113E-02   5.6454E-02   1.3381E-05  0.1176
   5.6454E-02   5.7828E-02   1.5507E-05  0.1079
   5.7828E-02   5.9235E-02   1.3745E-05  0.1130
   5.9235E-02   6.0676E-02   1.1362E-05  0.1229
   6.0676E-02   6.2152E-02   1.0943E-05  0.1239
   6.2152E-02   6.3665E-02   1.0574E-05  0.1238
   6.3665E-02   6.5214E-02   1.0050E-05  0.1265
   6.5214E-02   6.6800E-02   1.0989E-05  0.1192
   6.6800E-02   6.8426E-02   1.1992E-05  0.1123
   6.8426E-02   7.0090E-02   1.0034E-05  0.1219
   7.0090E-02   7.1796E-02   1.0832E-05  0.1154
   7.1796E-02   7.3543E-02   9.7256E-06  0.1206
   7.3543E-02   7.5332E-02   1.0792E-05  0.1127
   7.5332E-02   7.7165E-02   1.0089E-05  0.1158
   7.7165E-02   7.9042E-02   9.4733E-06  0.1179
   7.9042E-02   8.0965E-02   9.5228E-06  0.1163
   8.0965E-02   8.2935E-02   9.8987E-06  0.1129
   8.2935E-02   8.4953E-02   8.2282E-06  0.1219
   8.4953E-02   8.7020E-02   8.6864E-06  0.1176
   8.7020E-02   8.9138E-02   8.3301E-06  0.1183
   8.9138E-02   9.1306E-02   8.2323E-06  0.1172
   9.1306E-02   9.3528E-02   8.0820E-06  0.1171
   9.3528E-02   9.5804E-02   9.0157E-06  0.1095
   9.5804E-02   9.8134E-02   6.8860E-06  0.1246
   9.8134E-02   1.0052E-01   6.7124E-06  0.1242
   1.0052E-01   1.0297E-01   6.5365E-06  0.1245
   1.0297E-01   1.0547E-01   7.8424E-06  0.1117
   1.0547E-01   1.0804E-01   7.3979E-06  0.1139
   1.0804E-01   1.1067E-01   7.1612E-06  0.1141
   1.1067E-01   1.1336E-01   5.6812E-06  0.1270
   1.1336E-01   1.1612E-01   7.2027E-06  0.1116
   1.1612E-01   1.1894E-01   7.5996E-06  0.1076
   1.1894E-01   1.2184E-01   6.7418E-06  0.1126
   1.2184E-01   1.2480E-01   7.5502E-06  0.1051
   1.2480E-01   1.2784E-01   7.6152E-06  0.1038
   1.2784E-01   1.3095E-01   8.4137E-06  0.0969
   1.3095E-01   1.3414E-01   5.5532E-06  0.1183
   1.3414E-01   1.3740E-01   6.8694E-06  0.1050
   1.3740E-01   1.4074E-01   7.6145E-06  0.0988
   1.4074E-01   1.4417E-01   6.6904E-06  0.1038
   1.4417E-01   1.4767E-01   6.7189E-06  0.1029
   1.4767E-01   1.5127E-01   5.5250E-06  0.1120
   1.5127E-01   1.5495E-01   6.1181E-06  0.1046
   1.5495E-01   1.5872E-01   6.0968E-06  0.1040
   1.5872E-01   1.6258E-01   5.4334E-06  0.1087
   1.6258E-01   1.6654E-01   5.4274E-06  0.1076
   1.6654E-01   1.7059E-01   4.2115E-06  0.1208
   1.7059E-01   1.7474E-01   5.3735E-06  0.1058
   1.7474E-01   1.7899E-01   5.3428E-06  0.1046
   1.7899E-01   1.8334E-01   5.8066E-06  0.0991
   1.8334E-01   1.8781E-01   5.1852E-06  0.1037
   1.8781E-01   1.9237E-01   5.0548E-06  0.1039
   1.9237E-01   1.9706E-01   5.9313E-06  0.0943
   1.9706E-01   2.0185E-01   5.5937E-06  0.0961
   2.0185E-01   2.0676E-01   5.8128E-06  0.0931
   2.0676E-01   2.1179E-01   5.8044E-06  0.0920
   2.1179E-01   2.1694E-01   6.3123E-06  0.0874
   2.1694E-01   2.2222E-01   6.3615E-06  0.0857
   2.2222E-01   2.2763E-01   5.3877E-06  0.0919
   2.2763E-01   2.3317E-01   6.8064E-06  0.0811
   2.3317E-01   2.3884E-01   5.8149E-06  0.0864
   2.3884E-01   2.4465E-01   6.3825E-06  0.0817
   2.4465E-01   2.5061E-01   8.0695E-06  0.0717
   2.5061E-01   2.5670E-01   6.7699E-06  0.0773
   2.5670E-01   2.6295E-01   8.0827E-06  0.0699
   2.6295E-01   2.6935E-01   6.4853E-06  0.0772
   2.6935E-01   2.7590E-01   8.3444E-06  0.0674
   2.7590E-01   2.8261E-01   8.0485E-06  0.0675
   2.8261E-01   2.8949E-01   8.1290E-06  0.0665
   2.8949E-01   2.9653E-01   1.0824E-05  0.0571
   2.9653E-01   3.0375E-01   1.0830E-05  0.0563
   3.0375E-01   3.1114E-01   1.0055E-05  0.0577
   3.1114E-01   3.1871E-01   1.0783E-05  0.0549
   3.1871E-01   3.2646E-01   1.2805E-05  0.0499
   3.2646E-01   3.3441E-01   1.2334E-05  0.0502
   3.3441E-01   3.4254E-01   1.2591E-05  0.0492
   3.4254E-01   3.5088E-01   1.2773E-05  0.0481
   3.5088E-01   3.5941E-01   1.4288E-05  0.0451
   3.5941E-01   3.6816E-01   1.4314E-05  0.0444
   3.6816E-01   3.7712E-01   1.5130E-05  0.0428
   3.7712E-01   3.8629E-01   1.5766E-05  0.0413
   3.8629E-01   3.9569E-01   1.7161E-05  0.0392
   3.9569E-01   4.0532E-01   1.7605E-05  0.0382
   4.0532E-01   4.1518E-01   1.8815E-05  0.0366
   4.1518E-01   4.2528E-01   1.8271E-05  0.0367
   4.2528E-01   4.3563E-01   2.1092E-05  0.0337
   4.3563E-01   4.4623E-01   2.0386E-05  0.0339
   4.4623E-01   4.5708E-01   2.0250E-05  0.0336
   4.5708E-01   4.6821E-01   2.3031E-05  0.0311
   4.6821E-01   4.7960E-01   2.3074E-05  0.0307
   4.7960E-01   4.9127E-01   2.3969E-05  0.0297
   4.9127E-01   5.0322E-01   2.5400E-05  0.0286
   5.0322E-01   5.1546E-01   2.7262E-05  0.0272
   5.1546E-01   5.2800E-01   2.7822E-05  0.0266
   5.2800E-01   5.4085E-01   2.8991E-05  0.0258
   5.4085E-01   5.5401E-01   3.0024E-05  0.0250
   5.5401E-01   5.6749E-01   3.3361E-05  0.0235
   5.6749E-01   5.8130E-01   3.4857E-05  0.0227
   5.8130E-01   5.9544E-01   3.4421E-05  0.0226
   5.9544E-01   6.0993E-01   3.7387E-05  0.0214
   6.0993E-01   6.2477E-01   3.8276E-05  0.0209
   6.2477E-01   6.3997E-01   3.9732E-05  0.0203
   6.3997E-01   6.5554E-01   4.1359E-05  0.0196
   6.5554E-01   6.7149E-01   4.2135E-05  0.0192
   6.7149E-01   6.8783E-01   4.4172E-05  0.0185
   6.8783E-01   7.0456E-01   4.5664E-05  0.0180
   7.0456E-01   7.2171E-01   4.9025E-05  0.0172
   7.2171E-01   7.3927E-01   4.7841E-05  0.0172
   7.3927E-01   7.5725E-01   5.1768E-05  0.0163
   7.5725E-01   7.7568E-01   5.5082E-05  0.0156
   7.7568E-01   7.9455E-01   5.6723E-05  0.0152
   7.9455E-01   8.1388E-01   5.8662E-05  0.0148
   8.1388E-01   8.3368E-01   5.9251E-05  0.0145
   8.3368E-01   8.5397E-01   6.2368E-05  0.0140
   8.5397E-01   8.7475E-01   6.3504E-05  0.0137
   8.7475E-01   8.9603E-01   6.6400E-05  0.0132
   8.9603E-01   9.1783E-01   6.7991E-05  0.0129
   9.1783E-01   9.4016E-01   7.2303E-05  0.0124
   9.4016E-01   9.6304E-01   7.1859E-05  0.0123
   9.6304E-01   9.8647E-01   7.4757E-05  0.0119
   9.8647E-01   1.0105E+00   7.4875E-05  0.0117
   1.0105E+00   1.0351E+00   7.5159E-05  0.0116
   1.0351E+00   1.0602E+00   7.6366E-05  0.0113
   1.0602E+00   1.0860E+00   7.5271E-05  0.0113
   1.0860E+00   1.1125E+00   7.8936E-05  0.0109
   1.1125E+00   1.1395E+00   8.0637E-05  0.0106
   1.1395E+00   1.1673E+00   8.3327E-05  0.0104
   1.1673E+00   1.1957E+00   8.3900E-05  0.0102
   1.1957E+00   1.2247E+00   8.5767E-05  0.0100
   1.2247E+00   1.2545E+00   8.5808E-05  0.0098
   1.2545E+00   1.2851E+00   8.4684E-05  0.0098
   1.2851E+00   1.3163E+00   8.5836E-05  0.0096
   1.3163E+00   1.3484E+00   8.5683E-05  0.0095
   1.3484E+00   1.3812E+00   8.8687E-05  0.0092
   1.3812E+00   1.4148E+00   9.0300E-05  0.0090
   1.4148E+00   1.4492E+00   9.2706E-05  0.0088
   1.4492E+00   1.4845E+00   9.2167E-05  0.0087
   1.4845E+00   1.5206E+00   9.2644E-05  0.0086
   1.5206E+00   1.5576E+00   8.9290E-05  0.0087
   1.5576E+00   1.5955E+00   9.0779E-05  0.0085
   1.5955E+00   1.6343E+00   8.8451E-05  0.0085
   1.6343E+00   1.6741E+00   8.6141E-05  0.0085
   1.6741E+00   1.7148E+00   8.5247E-05  0.0084
   1.7148E+00   1.7565E+00   8.4273E-05  0.0084
   1.7565E+00   1.7992E+00   8.5620E-05  0.0082
   1.7992E+00   1.8430E+00   8.4717E-05  0.0082
   1.8430E+00   1.8879E+00   8.4385E-05  0.0081
   1.8879E+00   1.9338E+00   8.5578E-05  0.0079
   1.9338E+00   1.9808E+00   8.2107E-05  0.0080
   1.9808E+00   2.0290E+00   8.2072E-05  0.0079
   2.0290E+00   2.0784E+00   8.0196E-05  0.0079
   2.0784E+00   2.1290E+00   7.8859E-05  0.0079
   2.1290E+00   2.1808E+00   7.6685E-05  0.0079
   2.1808E+00   2.2338E+00   7.4862E-05  0.0079
   2.2338E+00   2.2882E+00   7.2968E-05  0.0079
   2.2882E+00   2.3439E+00   7.2373E-05  0.0078
   2.3439E+00   2.4009E+00   7.2201E-05  0.0077
   2.4009E+00   2.4593E+00   7.1944E-05  0.0077
   2.4593E+00   2.5191E+00   7.0559E-05  0.0077
   2.5191E+00   2.5804E+00   6.8950E-05  0.0076
   2.5804E+00   2.6432E+00   6.8013E-05  0.0076
   2.6432E+00   2.7075E+00   6.6400E-05  0.0076
   2.7075E+00   2.7734E+00   6.4790E-05  0.0076
   2.7734E+00   2.8409E+00   6.1837E-05  0.0077
   2.8409E+00   2.9100E+00   6.2071E-05  0.0076
   2.9100E+00   2.9808E+00   6.0589E-05  0.0076
   2.9808E+00   3.0533E+00   6.0682E-05  0.0075
   3.0533E+00   3.1276E+00   5.9335E-05  0.0075
   3.1276E+00   3.2037E+00   5.6702E-05  0.0076
   3.2037E+00   3.2817E+00   5.5411E-05  0.0076
   3.2817E+00   3.3615E+00   5.4054E-05  0.0076
   3.3615E+00   3.4433E+00   5.2643E-05  0.0076
   3.4433E+00   3.5271E+00   5.0619E-05  0.0076
   3.5271E+00   3.6129E+00   4.9452E-05  0.0076
   3.6129E+00   3.7008E+00   4.7783E-05  0.0077
   3.7008E+00   3.7908E+00   4.5502E-05  0.0078
   3.7908E+00   3.8831E+00   4.4437E-05  0.0078
   3.8831E+00   3.9776E+00   4.3316E-05  0.0078
   3.9776E+00   4.0743E+00   4.2859E-05  0.0077
   4.0743E+00   4.1735E+00   4.1539E-05  0.0077
   4.1735E+00   4.2750E+00   4.0876E-05  0.0077
   4.2750E+00   4.3790E+00   3.9640E-05  0.0077
   4.3790E+00   4.4856E+00   3.9383E-05  0.0077
   4.4856E+00   4.5947E+00   3.8412E-05  0.0077
   4.5947E+00   4.7065E+00   3.7581E-05  0.0077
   4.7065E+00   4.8210E+00   3.6594E-05  0.0077
   4.8210E+00   4.9383E+00   3.5087E-05  0.0078
   4.9383E+00   5.0585E+00   3.3553E-05  0.0078
   5.0585E+00   5.1815E+00   3.3065E-05  0.0078
   5.1815E+00   5.3076E+00   3.2362E-05  0.0078
   5.3076E+00   5.4368E+00   3.1350E-05  0.0078
   5.4368E+00   5.5690E+00   2.9530E-05  0.0080
   5.5690E+00   5.7045E+00   2.8448E-05  0.0080
   5.7045E+00   5.8433E+00   2.7202E-05  0.0081
   5.8433E+00   5.9855E+00   2.5810E-05  0.0082
   5.9855E+00   6.1311E+00   2.4496E-05  0.0083
   6.1311E+00   6.2803E+00   2.3486E-05  0.0084
   6.2803E+00   6.4331E+00   2.2306E-05  0.0085
   6.4331E+00   6.5896E+00   2.1069E-05  0.0087
   6.5896E+00   6.7500E+00   2.0235E-05  0.0087
   6.7500E+00   6.9142E+00   1.9246E-05  0.0089
   6.9142E+00   7.0824E+00   1.8494E-05  0.0089
   7.0824E+00   7.2548E+00   1.7959E-05  0.0090
   7.2548E+00   7.4313E+00   1.7173E-05  0.0090
   7.4313E+00   7.6121E+00   1.6765E-05  0.0091
   7.6121E+00   7.7973E+00   1.6029E-05  0.0091
   7.7973E+00   7.9870E+00   1.5817E-05  0.0091
   7.9870E+00   8.1813E+00   1.4776E-05  0.0093
   8.1813E+00   8.3804E+00   1.4254E-05  0.0094
   8.3804E+00   8.5843E+00   1.3794E-05  0.0094
   8.5843E+00   8.7931E+00   1.3149E-05  0.0095
   8.7931E+00   9.0071E+00   1.2510E-05  0.0096
   9.0071E+00   9.2262E+00   1.1978E-05  0.0097
   9.2262E+00   9.4507E+00   1.1408E-05  0.0099
   9.4507E+00   9.6807E+00   1.1142E-05  0.0099
   9.6807E+00   9.9162E+00   1.0450E-05  0.0101
   9.9162E+00   1.0157E+01   1.0039E-05  0.0101
   1.0157E+01   1.0405E+01   9.6751E-06  0.0102
   1.0405E+01   1.0658E+01   9.2814E-06  0.0103
   1.0658E+01   1.0917E+01   8.6988E-06  0.0105
   1.0917E+01   1.1183E+01   8.1042E-06  0.0108
   1.1183E+01   1.1455E+01   7.7526E-06  0.0109
   1.1455E+01   1.1733E+01   6.9875E-06  0.0113
   1.1733E+01   1.2019E+01   6.3285E-06  0.0118
   1.2019E+01   1.2311E+01   5.9444E-06  0.0120
   1.2311E+01   1.2611E+01   5.4018E-06  0.0124
   1.2611E+01   1.2918E+01   4.7547E-06  0.0131
   1.2918E+01   1.3232E+01   4.2958E-06  0.0136
   1.3232E+01   1.3554E+01   4.0358E-06  0.0139
   1.3554E+01   1.3884E+01   3.5187E-06  0.0147
   1.3884E+01   1.4222E+01   3.2862E-06  0.0150
   1.4222E+01   1.4568E+01   2.9388E-06  0.0157
   1.4568E+01   1.4922E+01   2.8230E-06  0.0158
   1.4922E+01   1.5285E+01   2.4919E-06  0.0166
   1.5285E+01   1.5657E+01   2.0325E-06  0.0182
   1.5657E+01   1.6038E+01   1.7699E-06  0.0193
   1.6038E+01   1.6428E+01   1.3428E-06  0.0218
   1.6428E+01   1.6828E+01   9.9822E-07  0.0250
   1.6828E+01   1.7237E+01   5.6007E-07  0.0330
   1.7237E+01   1.7657E+01   2.2950E-07  0.0510
   1.7657E+01   1.8086E+01   9.4273E-08  0.0786
   1.8086E+01   1.8526E+01   5.0562E-08  0.1060
   1.8526E+01   1.8977E+01   3.2722E-08  0.1302
   1.8977E+01   1.9439E+01   2.6531E-08  0.1429
   1.9439E+01   1.9912E+01   1.4272E-08  0.1925
   1.9912E+01   2.0396E+01   3.6122E-09  0.3780
   2.0396E+01   2.0893E+01   0.0000E+00  0.0000
   2.0893E+01   2.1401E+01   0.0000E+00  0.0000
   2.1401E+01   2.1922E+01   0.0000E+00  0.0000
   2.1922E+01   2.2455E+01   0.0000E+00  0.0000
   2.2455E+01   2.3001E+01   0.0000E+00  0.0000
   2.3001E+01   2.3561E+01   0.0000E+00  0.0000
   2.3561E+01   2.4134E+01   0.0000E+00  0.0000
   2.4134E+01   2.4721E+01   0.0000E+00  0.0000
   2.4721E+01   2.5323E+01   0.0000E+00  0.0000
   2.5323E+01   2.5939E+01   0.0000E+00  0.0000
   2.5939E+01   2.6570E+01   0.0000E+00  0.0000
   2.6570E+01   2.7217E+01   0.0000E+00  0.0000
   2.7217E+01   2.7879E+01   0.0000E+00  0.0000
   2.7879E+01   2.8557E+01   0.0000E+00  0.0000
   2.8557E+01   2.9252E+01   0.0000E+00  0.0000
   2.9252E+01   2.9964E+01   0.0000E+00  0.0000
   2.9964E+01   3.0693E+01   0.0000E+00  0.0000
   3.0693E+01   3.1440E+01   0.0000E+00  0.0000
   3.1440E+01   3.2205E+01   0.0000E+00  0.0000
   3.2205E+01   3.2988E+01   0.0000E+00  0.0000
   3.2988E+01   3.3791E+01   0.0000E+00  0.0000
   3.3791E+01   3.4613E+01   0.0000E+00  0.0000
   3.4613E+01   3.5455E+01   0.0000E+00  0.0000
   3.5455E+01   3.6318E+01   0.0000E+00  0.0000
   3.6318E+01   3.7201E+01   0.0000E+00  0.0000
   3.7201E+01   3.8106E+01   0.0000E+00  0.0000
   3.8106E+01   3.9034E+01   0.0000E+00  0.0000
   3.9034E+01   3.9983E+01   0.0000E+00  0.0000
   3.9983E+01   4.0956E+01   0.0000E+00  0.0000
   4.0956E+01   4.1953E+01   0.0000E+00  0.0000
   4.1953E+01   4.2973E+01   0.0000E+00  0.0000
   4.2973E+01   4.4019E+01   0.0000E+00  0.0000
   4.4019E+01   4.5090E+01   0.0000E+00  0.0000
   4.5090E+01   4.6187E+01   0.0000E+00  0.0000
   4.6187E+01   4.7311E+01   0.0000E+00  0.0000
   4.7311E+01   4.8462E+01   0.0000E+00  0.0000
   4.8462E+01   4.9641E+01   0.0000E+00  0.0000
   4.9641E+01   5.0849E+01   0.0000E+00  0.0000
   5.0849E+01   5.2086E+01   0.0000E+00  0.0000
   5.2086E+01   5.3353E+01   0.0000E+00  0.0000
   5.3353E+01   5.4651E+01   0.0000E+00  0.0000
   5.4651E+01   5.5981E+01   0.0000E+00  0.0000
   5.5981E+01   5.7343E+01   0.0000E+00  0.0000
   5.7343E+01   5.8738E+01   0.0000E+00  0.0000
   5.8738E+01   6.0168E+01   0.0000E+00  0.0000
   6.0168E+01   6.1632E+01   0.0000E+00  0.0000
   6.1632E+01   6.3131E+01   0.0000E+00  0.0000
   6.3131E+01   6.4667E+01   0.0000E+00  0.0000
   6.4667E+01   6.6240E+01   0.0000E+00  0.0000
   6.6240E+01   6.7852E+01   0.0000E+00  0.0000
   6.7852E+01   6.9503E+01   0.0000E+00  0.0000
   6.9503E+01   7.1194E+01   0.0000E+00  0.0000
   7.1194E+01   7.2926E+01   0.0000E+00  0.0000
   7.2926E+01   7.4701E+01   0.0000E+00  0.0000
   7.4701E+01   7.6518E+01   0.0000E+00  0.0000
   7.6518E+01   7.8380E+01   0.0000E+00  0.0000
   7.8380E+01   8.0287E+01   0.0000E+00  0.0000
   8.0287E+01   8.2240E+01   0.0000E+00  0.0000
   8.2240E+01   8.4241E+01   0.0000E+00  0.0000
   8.4241E+01   8.6291E+01   0.0000E+00  0.0000
   8.6291E+01   8.8391E+01   0.0000E+00  0.0000
   8.8391E+01   9.0541E+01   0.0000E+00  0.0000
   9.0541E+01   9.2744E+01   0.0000E+00  0.0000
   9.2744E+01   9.5001E+01   0.0000E+00  0.0000
   9.5001E+01   9.7312E+01   0.0000E+00  0.0000
   9.7312E+01   9.9680E+01   0.0000E+00  0.0000
   9.9680E+01   1.0211E+02   0.0000E+00  0.0000
   1.0211E+02   1.0459E+02   0.0000E+00  0.0000
   1.0459E+02   1.0713E+02   0.0000E+00  0.0000
   1.0713E+02   1.0974E+02   0.0000E+00  0.0000
   1.0974E+02   1.1241E+02   0.0000E+00  0.0000
   1.1241E+02   1.1515E+02   0.0000E+00  0.0000
   1.1515E+02   1.1795E+02   0.0000E+00  0.0000
   1.1795E+02   1.2082E+02   0.0000E+00  0.0000
   1.2082E+02   1.2376E+02   0.0000E+00  0.0000
   1.2376E+02   1.2677E+02   0.0000E+00  0.0000
   1.2677E+02   1.2985E+02   0.0000E+00  0.0000
   1.2985E+02   1.3301E+02   0.0000E+00  0.0000
   1.3301E+02   1.3625E+02   0.0000E+00  0.0000
   1.3625E+02   1.3956E+02   0.0000E+00  0.0000
   1.3956E+02   1.4296E+02   0.0000E+00  0.0000
   1.4296E+02   1.4644E+02   0.0000E+00  0.0000
   1.4644E+02   1.5000E+02   0.0000E+00  0.0000

#   sum over                 2.6777E-06
'no. =    1   reg = 113 - 213'
msuc: {\huge [t-cross] in region mesh}
msdr: {\it plotted by \ANGEL \version}
msdl: {\it calculated by \PHITS  3.26}
wt: s(0.7)
\vspace{-3}
  region surface crossing
  area  &=&   1.0000E+00 [cm^2]
e:
 
# Information for Restart Calculation
# This calculation was newly started
# istdev =  2 # 1:Batch variance, 2:History variance
# resc2  = 4.00000000000000000E+09 # Total source weight or Total source weight / maxcas
# resc3  = 4.00000000000000000E+09 # Total history number or Total batch number
# maxcas =   500000000 # History / Batch, only used for istdev=1
# bitrseed = 1000111101111101011101111011110101001010011101000111000001010111 # bit data of rseed
