[ T-Cross ]
    title = [t-cross] in region mesh
     mesh =  reg            # mesh type is region-wise
      reg =    1            # number of crossing regions
      non     r-from    r-to       area
      1       105       205        1.000000    
   e-type =    3            # e-mesh is log given by emin, emax and ne
     emin =  1.0000000E-02  # minimum value of e-mesh points
     emax =   150.0000      # maximum value of e-mesh points
#    edel =  2.4039514E-02  # mesh width of e-mesh points
       ne =    400          # number of e-mesh points
#    data = ( e(i), i = 1, ne + 1 )
#           1.00000E-02  1.02433E-02  1.04925E-02  1.07478E-02  1.10093E-02
#           1.12772E-02  1.15516E-02  1.18326E-02  1.21205E-02  1.24154E-02
#           1.27175E-02  1.30269E-02  1.33439E-02  1.36686E-02  1.40011E-02
#           1.43418E-02  1.46907E-02  1.50482E-02  1.54143E-02  1.57894E-02
#           1.61735E-02  1.65670E-02  1.69701E-02  1.73830E-02  1.78060E-02
#           1.82392E-02  1.86830E-02  1.91375E-02  1.96032E-02  2.00801E-02
#           2.05687E-02  2.10692E-02  2.15818E-02  2.21069E-02  2.26448E-02
#           2.31957E-02  2.37601E-02  2.43382E-02  2.49304E-02  2.55369E-02
#           2.61583E-02  2.67947E-02  2.74467E-02  2.81145E-02  2.87985E-02
#           2.94992E-02  3.02169E-02  3.09521E-02  3.17052E-02  3.24766E-02
#           3.32668E-02  3.40762E-02  3.49053E-02  3.57546E-02  3.66246E-02
#           3.75157E-02  3.84284E-02  3.93634E-02  4.03212E-02  4.13022E-02
#           4.23071E-02  4.33365E-02  4.43909E-02  4.54710E-02  4.65773E-02
#           4.77106E-02  4.88714E-02  5.00605E-02  5.12785E-02  5.25262E-02
#           5.38042E-02  5.51133E-02  5.64542E-02  5.78278E-02  5.92348E-02
#           6.06760E-02  6.21523E-02  6.36645E-02  6.52135E-02  6.68002E-02
#           6.84255E-02  7.00904E-02  7.17957E-02  7.35426E-02  7.53319E-02
#           7.71648E-02  7.90423E-02  8.09655E-02  8.29354E-02  8.49533E-02
#           8.70203E-02  8.91376E-02  9.13064E-02  9.35279E-02  9.58035E-02
#           9.81345E-02  1.00522E-01  1.02968E-01  1.05473E-01  1.08040E-01
#           1.10668E-01  1.13361E-01  1.16119E-01  1.18944E-01  1.21838E-01
#           1.24803E-01  1.27839E-01  1.30950E-01  1.34136E-01  1.37399E-01
#           1.40742E-01  1.44167E-01  1.47675E-01  1.51268E-01  1.54948E-01
#           1.58718E-01  1.62580E-01  1.66535E-01  1.70587E-01  1.74738E-01
#           1.78989E-01  1.83344E-01  1.87805E-01  1.92375E-01  1.97055E-01
#           2.01850E-01  2.06761E-01  2.11792E-01  2.16945E-01  2.22223E-01
#           2.27630E-01  2.33169E-01  2.38842E-01  2.44653E-01  2.50605E-01
#           2.56703E-01  2.62949E-01  2.69346E-01  2.75900E-01  2.82613E-01
#           2.89489E-01  2.96532E-01  3.03747E-01  3.11138E-01  3.18708E-01
#           3.26462E-01  3.34405E-01  3.42542E-01  3.50876E-01  3.59413E-01
#           3.68158E-01  3.77116E-01  3.86291E-01  3.95690E-01  4.05317E-01
#           4.15179E-01  4.25281E-01  4.35628E-01  4.46227E-01  4.57084E-01
#           4.68205E-01  4.79597E-01  4.91266E-01  5.03219E-01  5.15463E-01
#           5.28005E-01  5.40851E-01  5.54011E-01  5.67490E-01  5.81298E-01
#           5.95441E-01  6.09929E-01  6.24769E-01  6.39970E-01  6.55541E-01
#           6.71491E-01  6.87828E-01  7.04564E-01  7.21706E-01  7.39266E-01
#           7.57253E-01  7.75678E-01  7.94551E-01  8.13883E-01  8.33685E-01
#           8.53969E-01  8.74747E-01  8.96030E-01  9.17831E-01  9.40163E-01
#           9.63038E-01  9.86469E-01  1.01047E+00  1.03506E+00  1.06024E+00
#           1.08604E+00  1.11246E+00  1.13953E+00  1.16725E+00  1.19565E+00
#           1.22474E+00  1.25454E+00  1.28507E+00  1.31633E+00  1.34836E+00
#           1.38117E+00  1.41477E+00  1.44920E+00  1.48446E+00  1.52057E+00
#           1.55757E+00  1.59547E+00  1.63429E+00  1.67405E+00  1.71478E+00
#           1.75650E+00  1.79924E+00  1.84302E+00  1.88786E+00  1.93379E+00
#           1.98084E+00  2.02904E+00  2.07841E+00  2.12898E+00  2.18078E+00
#           2.23384E+00  2.28819E+00  2.34386E+00  2.40089E+00  2.45930E+00
#           2.51914E+00  2.58043E+00  2.64322E+00  2.70753E+00  2.77341E+00
#           2.84088E+00  2.91001E+00  2.98081E+00  3.05333E+00  3.12762E+00
#           3.20372E+00  3.28167E+00  3.36152E+00  3.44330E+00  3.52708E+00
#           3.61290E+00  3.70080E+00  3.79085E+00  3.88308E+00  3.97756E+00
#           4.07434E+00  4.17347E+00  4.27501E+00  4.37903E+00  4.48557E+00
#           4.59471E+00  4.70650E+00  4.82102E+00  4.93832E+00  5.05847E+00
#           5.18155E+00  5.30762E+00  5.43676E+00  5.56904E+00  5.70453E+00
#           5.84333E+00  5.98550E+00  6.13114E+00  6.28031E+00  6.43312E+00
#           6.58964E+00  6.74997E+00  6.91420E+00  7.08243E+00  7.25475E+00
#           7.43126E+00  7.61207E+00  7.79728E+00  7.98700E+00  8.18133E+00
#           8.38038E+00  8.58428E+00  8.79315E+00  9.00709E+00  9.22624E+00
#           9.45072E+00  9.68067E+00  9.91620E+00  1.01575E+01  1.04046E+01
#           1.06578E+01  1.09171E+01  1.11827E+01  1.14548E+01  1.17335E+01
#           1.20190E+01  1.23114E+01  1.26109E+01  1.29178E+01  1.32321E+01
#           1.35540E+01  1.38838E+01  1.42216E+01  1.45676E+01  1.49221E+01
#           1.52851E+01  1.56570E+01  1.60380E+01  1.64282E+01  1.68279E+01
#           1.72374E+01  1.76568E+01  1.80864E+01  1.85264E+01  1.89772E+01
#           1.94389E+01  1.99119E+01  2.03963E+01  2.08926E+01  2.14009E+01
#           2.19216E+01  2.24550E+01  2.30014E+01  2.35610E+01  2.41343E+01
#           2.47215E+01  2.53230E+01  2.59391E+01  2.65702E+01  2.72167E+01
#           2.78789E+01  2.85572E+01  2.92520E+01  2.99637E+01  3.06928E+01
#           3.14396E+01  3.22045E+01  3.29881E+01  3.37907E+01  3.46128E+01
#           3.54550E+01  3.63177E+01  3.72013E+01  3.81064E+01  3.90336E+01
#           3.99833E+01  4.09561E+01  4.19526E+01  4.29734E+01  4.40189E+01
#           4.50900E+01  4.61870E+01  4.73108E+01  4.84619E+01  4.96410E+01
#           5.08488E+01  5.20860E+01  5.33533E+01  5.46514E+01  5.59812E+01
#           5.73432E+01  5.87384E+01  6.01676E+01  6.16315E+01  6.31311E+01
#           6.46671E+01  6.62405E+01  6.78522E+01  6.95031E+01  7.11941E+01
#           7.29263E+01  7.47007E+01  7.65182E+01  7.83800E+01  8.02870E+01
#           8.22405E+01  8.42414E+01  8.62911E+01  8.83906E+01  9.05412E+01
#           9.27442E+01  9.50007E+01  9.73122E+01  9.96799E+01  1.02105E+02
#           1.04589E+02  1.07134E+02  1.09741E+02  1.12411E+02  1.15146E+02
#           1.17948E+02  1.20817E+02  1.23757E+02  1.26768E+02  1.29852E+02
#           1.33012E+02  1.36248E+02  1.39563E+02  1.42959E+02  1.46437E+02
#           1.50000E+02
     unit =    2            # unit is [1/cm^2/(MeV/n)/source]
     axis =  eng            # axis of output
     file = detector-06.out  # file name of output for the above axis
   output = f-curr          # surface crossing forward current spectrum
     part =  neutron  
# kf/name :  2112     
#    used :        main (  %)        temp (  %)       total (  %)
#  memory :         414 (  0)           0 (  0)         414 (  0)

#------------------------------------------------------------------------------
#newpage:
#   no. =    1   reg = 105 - 205

x: Energy [MeV/n]
y:  F-Curr [1/cm^2/(MeV/n)/source]         
p: xlog ylog afac(0.8) form(0.9)
h: n            x            y(neutron ),hh0l   n 
#  e-lower      e-upper      neutron     r.err 
   1.0000E-02   1.0243E-02   7.0179E-03  0.0271
   1.0243E-02   1.0493E-02   6.9214E-03  0.0269
   1.0493E-02   1.0748E-02   6.7423E-03  0.0269
   1.0748E-02   1.1009E-02   6.6634E-03  0.0268
   1.1009E-02   1.1277E-02   6.2671E-03  0.0273
   1.1277E-02   1.1552E-02   6.5602E-03  0.0264
   1.1552E-02   1.1833E-02   6.1820E-03  0.0268
   1.1833E-02   1.2121E-02   6.4780E-03  0.0259
   1.2121E-02   1.2415E-02   6.1419E-03  0.0263
   1.2415E-02   1.2718E-02   6.0663E-03  0.0261
   1.2718E-02   1.3027E-02   6.0838E-03  0.0258
   1.3027E-02   1.3344E-02   6.4283E-03  0.0248
   1.3344E-02   1.3669E-02   5.9753E-03  0.0254
   1.3669E-02   1.4001E-02   6.1040E-03  0.0248
   1.4001E-02   1.4342E-02   5.9334E-03  0.0249
   1.4342E-02   1.4691E-02   6.1148E-03  0.0242
   1.4691E-02   1.5048E-02   5.9329E-03  0.0243
   1.5048E-02   1.5414E-02   5.8551E-03  0.0241
   1.5414E-02   1.5789E-02   5.7094E-03  0.0242
   1.5789E-02   1.6174E-02   5.7983E-03  0.0237
   1.6174E-02   1.6567E-02   5.8194E-03  0.0234
   1.6567E-02   1.6970E-02   5.6935E-03  0.0233
   1.6970E-02   1.7383E-02   5.5674E-03  0.0233
   1.7383E-02   1.7806E-02   5.3435E-03  0.0235
   1.7806E-02   1.8239E-02   5.5253E-03  0.0229
   1.8239E-02   1.8683E-02   5.3546E-03  0.0229
   1.8683E-02   1.9138E-02   5.3979E-03  0.0226
   1.9138E-02   1.9603E-02   5.2939E-03  0.0225
   1.9603E-02   2.0080E-02   5.1917E-03  0.0225
   2.0080E-02   2.0569E-02   5.0556E-03  0.0225
   2.0569E-02   2.1069E-02   5.2702E-03  0.0218
   2.1069E-02   2.1582E-02   5.1548E-03  0.0217
   2.1582E-02   2.2107E-02   5.1085E-03  0.0216
   2.2107E-02   2.2645E-02   4.9082E-03  0.0218
   2.2645E-02   2.3196E-02   4.7281E-03  0.0219
   2.3196E-02   2.3760E-02   4.8660E-03  0.0213
   2.3760E-02   2.4338E-02   4.8218E-03  0.0212
   2.4338E-02   2.4930E-02   4.8635E-03  0.0208
   2.4930E-02   2.5537E-02   4.7480E-03  0.0208
   2.5537E-02   2.6158E-02   4.5668E-03  0.0210
   2.6158E-02   2.6795E-02   4.5978E-03  0.0207
   2.6795E-02   2.7447E-02   4.6266E-03  0.0204
   2.7447E-02   2.8114E-02   4.5261E-03  0.0203
   2.8114E-02   2.8799E-02   4.3583E-03  0.0205
   2.8799E-02   2.9499E-02   4.6222E-03  0.0196
   2.9499E-02   3.0217E-02   4.5629E-03  0.0195
   3.0217E-02   3.0952E-02   4.2709E-03  0.0200
   3.0952E-02   3.1705E-02   4.2882E-03  0.0197
   3.1705E-02   3.2477E-02   4.2211E-03  0.0196
   3.2477E-02   3.3267E-02   4.2522E-03  0.0193
   3.3267E-02   3.4076E-02   4.2052E-03  0.0192
   3.4076E-02   3.4905E-02   4.3375E-03  0.0186
   3.4905E-02   3.5755E-02   4.0373E-03  0.0191
   3.5755E-02   3.6625E-02   3.9414E-03  0.0191
   3.6625E-02   3.7516E-02   3.8751E-03  0.0190
   3.7516E-02   3.8428E-02   3.9056E-03  0.0187
   3.8428E-02   3.9363E-02   3.8810E-03  0.0186
   3.9363E-02   4.0321E-02   3.7706E-03  0.0186
   4.0321E-02   4.1302E-02   3.8849E-03  0.0181
   4.1302E-02   4.2307E-02   3.7715E-03  0.0182
   4.2307E-02   4.3337E-02   3.6624E-03  0.0182
   4.3337E-02   4.4391E-02   3.6169E-03  0.0181
   4.4391E-02   4.5471E-02   3.6294E-03  0.0179
   4.5471E-02   4.6577E-02   3.5443E-03  0.0179
   4.6577E-02   4.7711E-02   3.5638E-03  0.0176
   4.7711E-02   4.8871E-02   3.5136E-03  0.0175
   4.8871E-02   5.0061E-02   3.4470E-03  0.0175
   5.0061E-02   5.1279E-02   3.4421E-03  0.0173
   5.1279E-02   5.2526E-02   3.3824E-03  0.0172
   5.2526E-02   5.3804E-02   3.3949E-03  0.0170
   5.3804E-02   5.5113E-02   3.3172E-03  0.0170
   5.5113E-02   5.6454E-02   3.3008E-03  0.0168
   5.6454E-02   5.7828E-02   3.2161E-03  0.0168
   5.7828E-02   5.9235E-02   3.1796E-03  0.0167
   5.9235E-02   6.0676E-02   3.1527E-03  0.0166
   6.0676E-02   6.2152E-02   3.0575E-03  0.0166
   6.2152E-02   6.3665E-02   3.1320E-03  0.0162
   6.3665E-02   6.5214E-02   3.0988E-03  0.0161
   6.5214E-02   6.6800E-02   3.0228E-03  0.0161
   6.6800E-02   6.8426E-02   2.9756E-03  0.0161
   6.8426E-02   7.0090E-02   2.9184E-03  0.0160
   7.0090E-02   7.1796E-02   2.9649E-03  0.0157
   7.1796E-02   7.3543E-02   2.9160E-03  0.0157
   7.3543E-02   7.5332E-02   2.8753E-03  0.0156
   7.5332E-02   7.7165E-02   2.8371E-03  0.0155
   7.7165E-02   7.9042E-02   2.7544E-03  0.0155
   7.9042E-02   8.0965E-02   2.7000E-03  0.0155
   8.0965E-02   8.2935E-02   2.6796E-03  0.0154
   8.2935E-02   8.4953E-02   2.6680E-03  0.0152
   8.4953E-02   8.7020E-02   2.6028E-03  0.0152
   8.7020E-02   8.9138E-02   2.6178E-03  0.0150
   8.9138E-02   9.1306E-02   2.6322E-03  0.0148
   9.1306E-02   9.3528E-02   2.5635E-03  0.0148
   9.3528E-02   9.5804E-02   2.5389E-03  0.0147
   9.5804E-02   9.8134E-02   2.4389E-03  0.0148
   9.8134E-02   1.0052E-01   2.3956E-03  0.0148
   1.0052E-01   1.0297E-01   2.4302E-03  0.0145
   1.0297E-01   1.0547E-01   2.4019E-03  0.0144
   1.0547E-01   1.0804E-01   2.3765E-03  0.0143
   1.0804E-01   1.1067E-01   2.3058E-03  0.0144
   1.1067E-01   1.1336E-01   2.2366E-03  0.0144
   1.1336E-01   1.1612E-01   2.1976E-03  0.0144
   1.1612E-01   1.1894E-01   2.1993E-03  0.0142
   1.1894E-01   1.2184E-01   2.2819E-03  0.0138
   1.2184E-01   1.2480E-01   2.1353E-03  0.0141
   1.2480E-01   1.2784E-01   2.1632E-03  0.0138
   1.2784E-01   1.3095E-01   2.0771E-03  0.0139
   1.3095E-01   1.3414E-01   2.0209E-03  0.0139
   1.3414E-01   1.3740E-01   2.1150E-03  0.0135
   1.3740E-01   1.4074E-01   1.9847E-03  0.0137
   1.4074E-01   1.4417E-01   1.9996E-03  0.0135
   1.4417E-01   1.4767E-01   1.9582E-03  0.0135
   1.4767E-01   1.5127E-01   1.9246E-03  0.0134
   1.5127E-01   1.5495E-01   1.8943E-03  0.0134
   1.5495E-01   1.5872E-01   1.8074E-03  0.0135
   1.5872E-01   1.6258E-01   1.8450E-03  0.0132
   1.6258E-01   1.6654E-01   1.7617E-03  0.0134
   1.6654E-01   1.7059E-01   1.7328E-03  0.0133
   1.7059E-01   1.7474E-01   1.7260E-03  0.0132
   1.7474E-01   1.7899E-01   1.7220E-03  0.0131
   1.7899E-01   1.8334E-01   1.6754E-03  0.0131
   1.8334E-01   1.8781E-01   1.5880E-03  0.0133
   1.8781E-01   1.9237E-01   1.6337E-03  0.0129
   1.9237E-01   1.9706E-01   1.5804E-03  0.0130
   1.9706E-01   2.0185E-01   1.5312E-03  0.0131
   2.0185E-01   2.0676E-01   1.5213E-03  0.0129
   2.0676E-01   2.1179E-01   1.5495E-03  0.0127
   2.1179E-01   2.1694E-01   1.4947E-03  0.0127
   2.1694E-01   2.2222E-01   1.4483E-03  0.0128
   2.2222E-01   2.2763E-01   1.4495E-03  0.0126
   2.2763E-01   2.3317E-01   1.4016E-03  0.0127
   2.3317E-01   2.3884E-01   1.3634E-03  0.0127
   2.3884E-01   2.4465E-01   1.3678E-03  0.0125
   2.4465E-01   2.5061E-01   1.3456E-03  0.0125
   2.5061E-01   2.5670E-01   1.2844E-03  0.0126
   2.5670E-01   2.6295E-01   1.2855E-03  0.0125
   2.6295E-01   2.6935E-01   1.2450E-03  0.0125
   2.6935E-01   2.7590E-01   1.2203E-03  0.0125
   2.7590E-01   2.8261E-01   1.1694E-03  0.0126
   2.8261E-01   2.8949E-01   1.1743E-03  0.0124
   2.8949E-01   2.9653E-01   1.1491E-03  0.0124
   2.9653E-01   3.0375E-01   1.1127E-03  0.0125
   3.0375E-01   3.1114E-01   1.0901E-03  0.0125
   3.1114E-01   3.1871E-01   1.0875E-03  0.0123
   3.1871E-01   3.2646E-01   1.0380E-03  0.0125
   3.2646E-01   3.3441E-01   1.0117E-03  0.0125
   3.3441E-01   3.4254E-01   9.8109E-04  0.0125
   3.4254E-01   3.5088E-01   9.6514E-04  0.0125
   3.5088E-01   3.5941E-01   9.2764E-04  0.0126
   3.5941E-01   3.6816E-01   8.9467E-04  0.0126
   3.6816E-01   3.7712E-01   8.9966E-04  0.0125
   3.7712E-01   3.8629E-01   8.7447E-04  0.0125
   3.8629E-01   3.9569E-01   8.3748E-04  0.0126
   3.9569E-01   4.0532E-01   8.2732E-04  0.0125
   4.0532E-01   4.1518E-01   8.0805E-04  0.0125
   4.1518E-01   4.2528E-01   8.0049E-04  0.0124
   4.2528E-01   4.3563E-01   7.7858E-04  0.0125
   4.3563E-01   4.4623E-01   7.4145E-04  0.0126
   4.4623E-01   4.5708E-01   7.1716E-04  0.0127
   4.5708E-01   4.6821E-01   6.9653E-04  0.0127
   4.6821E-01   4.7960E-01   6.7724E-04  0.0127
   4.7960E-01   4.9127E-01   6.4712E-04  0.0129
   4.9127E-01   5.0322E-01   6.4263E-04  0.0128
   5.0322E-01   5.1546E-01   6.1802E-04  0.0129
   5.1546E-01   5.2800E-01   5.8854E-04  0.0130
   5.2800E-01   5.4085E-01   5.8546E-04  0.0129
   5.4085E-01   5.5401E-01   5.5236E-04  0.0131
   5.5401E-01   5.6749E-01   5.3952E-04  0.0131
   5.6749E-01   5.8130E-01   5.2091E-04  0.0132
   5.8130E-01   5.9544E-01   5.0686E-04  0.0132
   5.9544E-01   6.0993E-01   4.7713E-04  0.0134
   6.0993E-01   6.2477E-01   4.5274E-04  0.0136
   6.2477E-01   6.3997E-01   4.3632E-04  0.0137
   6.3997E-01   6.5554E-01   4.2732E-04  0.0137
   6.5554E-01   6.7149E-01   4.0667E-04  0.0139
   6.7149E-01   6.8783E-01   3.8867E-04  0.0140
   6.8783E-01   7.0456E-01   3.8332E-04  0.0140
   7.0456E-01   7.2171E-01   3.6860E-04  0.0141
   7.2171E-01   7.3927E-01   3.3892E-04  0.0145
   7.3927E-01   7.5725E-01   3.3948E-04  0.0143
   7.5725E-01   7.7568E-01   3.1744E-04  0.0146
   7.7568E-01   7.9455E-01   3.0318E-04  0.0148
   7.9455E-01   8.1388E-01   2.8942E-04  0.0149
   8.1388E-01   8.3368E-01   2.7948E-04  0.0150
   8.3368E-01   8.5397E-01   2.6406E-04  0.0153
   8.5397E-01   8.7475E-01   2.5598E-04  0.0153
   8.7475E-01   8.9603E-01   2.3043E-04  0.0160
   8.9603E-01   9.1783E-01   2.2797E-04  0.0159
   9.1783E-01   9.4016E-01   2.0862E-04  0.0164
   9.4016E-01   9.6304E-01   2.0623E-04  0.0163
   9.6304E-01   9.8647E-01   1.9344E-04  0.0166
   9.8647E-01   1.0105E+00   1.8811E-04  0.0166
   1.0105E+00   1.0351E+00   1.8832E-04  0.0164
   1.0351E+00   1.0602E+00   1.9129E-04  0.0161
   1.0602E+00   1.0860E+00   1.9809E-04  0.0156
   1.0860E+00   1.1125E+00   2.0407E-04  0.0152
   1.1125E+00   1.1395E+00   2.0731E-04  0.0149
   1.1395E+00   1.1673E+00   2.1312E-04  0.0145
   1.1673E+00   1.1957E+00   2.2179E-04  0.0141
   1.1957E+00   1.2247E+00   2.2911E-04  0.0137
   1.2247E+00   1.2545E+00   2.3252E-04  0.0134
   1.2545E+00   1.2851E+00   2.3002E-04  0.0133
   1.2851E+00   1.3163E+00   2.3961E-04  0.0129
   1.3163E+00   1.3484E+00   2.4358E-04  0.0127
   1.3484E+00   1.3812E+00   2.4199E-04  0.0126
   1.3812E+00   1.4148E+00   2.5387E-04  0.0121
   1.4148E+00   1.4492E+00   2.4355E-04  0.0122
   1.4492E+00   1.4845E+00   2.4830E-04  0.0120
   1.4845E+00   1.5206E+00   2.5185E-04  0.0117
   1.5206E+00   1.5576E+00   2.5381E-04  0.0115
   1.5576E+00   1.5955E+00   2.5210E-04  0.0114
   1.5955E+00   1.6343E+00   2.5004E-04  0.0113
   1.6343E+00   1.6741E+00   2.5762E-04  0.0110
   1.6741E+00   1.7148E+00   2.5862E-04  0.0109
   1.7148E+00   1.7565E+00   2.5721E-04  0.0108
   1.7565E+00   1.7992E+00   2.5315E-04  0.0108
   1.7992E+00   1.8430E+00   2.4585E-04  0.0108
   1.8430E+00   1.8879E+00   2.4550E-04  0.0107
   1.8879E+00   1.9338E+00   2.4715E-04  0.0105
   1.9338E+00   1.9808E+00   2.4799E-04  0.0104
   1.9808E+00   2.0290E+00   2.4764E-04  0.0102
   2.0290E+00   2.0784E+00   2.3639E-04  0.0104
   2.0784E+00   2.1290E+00   2.3009E-04  0.0104
   2.1290E+00   2.1808E+00   2.2587E-04  0.0103
   2.1808E+00   2.2338E+00   2.2281E-04  0.0103
   2.2338E+00   2.2882E+00   2.1472E-04  0.0104
   2.2882E+00   2.3439E+00   2.1083E-04  0.0103
   2.3439E+00   2.4009E+00   2.1145E-04  0.0102
   2.4009E+00   2.4593E+00   2.0487E-04  0.0102
   2.4593E+00   2.5191E+00   1.9869E-04  0.0103
   2.5191E+00   2.5804E+00   1.8881E-04  0.0104
   2.5804E+00   2.6432E+00   1.7829E-04  0.0106
   2.6432E+00   2.7075E+00   1.7549E-04  0.0105
   2.7075E+00   2.7734E+00   1.6888E-04  0.0106
   2.7734E+00   2.8409E+00   1.6307E-04  0.0107
   2.8409E+00   2.9100E+00   1.5755E-04  0.0107
   2.9100E+00   2.9808E+00   1.5660E-04  0.0106
   2.9808E+00   3.0533E+00   1.4862E-04  0.0108
   3.0533E+00   3.1276E+00   1.3854E-04  0.0110
   3.1276E+00   3.2037E+00   1.3162E-04  0.0112
   3.2037E+00   3.2817E+00   1.2686E-04  0.0112
   3.2817E+00   3.3615E+00   1.2315E-04  0.0113
   3.3615E+00   3.4433E+00   1.1750E-04  0.0114
   3.4433E+00   3.5271E+00   1.1302E-04  0.0115
   3.5271E+00   3.6129E+00   1.1018E-04  0.0115
   3.6129E+00   3.7008E+00   1.0035E-04  0.0119
   3.7008E+00   3.7908E+00   9.5537E-05  0.0121
   3.7908E+00   3.8831E+00   8.9961E-05  0.0123
   3.8831E+00   3.9776E+00   8.6911E-05  0.0123
   3.9776E+00   4.0743E+00   8.1127E-05  0.0126
   4.0743E+00   4.1735E+00   7.6741E-05  0.0128
   4.1735E+00   4.2750E+00   7.2653E-05  0.0130
   4.2750E+00   4.3790E+00   6.9377E-05  0.0132
   4.3790E+00   4.4856E+00   6.5277E-05  0.0134
   4.4856E+00   4.5947E+00   6.1505E-05  0.0136
   4.5947E+00   4.7065E+00   5.7059E-05  0.0140
   4.7065E+00   4.8210E+00   5.5758E-05  0.0140
   4.8210E+00   4.9383E+00   5.1151E-05  0.0144
   4.9383E+00   5.0585E+00   4.7356E-05  0.0148
   5.0585E+00   5.1815E+00   4.4515E-05  0.0151
   5.1815E+00   5.3076E+00   4.2635E-05  0.0152
   5.3076E+00   5.4368E+00   3.9744E-05  0.0156
   5.4368E+00   5.5690E+00   3.8810E-05  0.0156
   5.5690E+00   5.7045E+00   3.6587E-05  0.0159
   5.7045E+00   5.8433E+00   3.5871E-05  0.0158
   5.8433E+00   5.9855E+00   3.3190E-05  0.0163
   5.9855E+00   6.1311E+00   3.1818E-05  0.0164
   6.1311E+00   6.2803E+00   3.0937E-05  0.0165
   6.2803E+00   6.4331E+00   2.9372E-05  0.0167
   6.4331E+00   6.5896E+00   2.8519E-05  0.0167
   6.5896E+00   6.7500E+00   2.7475E-05  0.0168
   6.7500E+00   6.9142E+00   2.6738E-05  0.0169
   6.9142E+00   7.0824E+00   2.5987E-05  0.0169
   7.0824E+00   7.2548E+00   2.4913E-05  0.0171
   7.2548E+00   7.4313E+00   2.4878E-05  0.0169
   7.4313E+00   7.6121E+00   2.4522E-05  0.0168
   7.6121E+00   7.7973E+00   2.3439E-05  0.0170
   7.7973E+00   7.9870E+00   2.3416E-05  0.0168
   7.9870E+00   8.1813E+00   2.3137E-05  0.0167
   8.1813E+00   8.3804E+00   2.2514E-05  0.0167
   8.3804E+00   8.5843E+00   2.2540E-05  0.0165
   8.5843E+00   8.7931E+00   2.2818E-05  0.0162
   8.7931E+00   9.0071E+00   2.2149E-05  0.0162
   9.0071E+00   9.2262E+00   2.2194E-05  0.0160
   9.2262E+00   9.4507E+00   2.2839E-05  0.0156
   9.4507E+00   9.6807E+00   2.2690E-05  0.0155
   9.6807E+00   9.9162E+00   2.1708E-05  0.0156
   9.9162E+00   1.0157E+01   2.1690E-05  0.0155
   1.0157E+01   1.0405E+01   2.1395E-05  0.0154
   1.0405E+01   1.0658E+01   2.1499E-05  0.0152
   1.0658E+01   1.0917E+01   2.2343E-05  0.0147
   1.0917E+01   1.1183E+01   2.1586E-05  0.0148
   1.1183E+01   1.1455E+01   2.1512E-05  0.0146
   1.1455E+01   1.1733E+01   2.1986E-05  0.0143
   1.1733E+01   1.2019E+01   2.2444E-05  0.0140
   1.2019E+01   1.2311E+01   2.1535E-05  0.0141
   1.2311E+01   1.2611E+01   2.1380E-05  0.0140
   1.2611E+01   1.2918E+01   2.1300E-05  0.0138
   1.2918E+01   1.3232E+01   2.1242E-05  0.0137
   1.3232E+01   1.3554E+01   2.1735E-05  0.0134
   1.3554E+01   1.3884E+01   2.1471E-05  0.0133
   1.3884E+01   1.4222E+01   2.1484E-05  0.0131
   1.4222E+01   1.4568E+01   2.1516E-05  0.0130
   1.4568E+01   1.4922E+01   2.1447E-05  0.0128
   1.4922E+01   1.5285E+01   2.1071E-05  0.0128
   1.5285E+01   1.5657E+01   2.0797E-05  0.0127
   1.5657E+01   1.6038E+01   2.1094E-05  0.0125
   1.6038E+01   1.6428E+01   2.0918E-05  0.0124
   1.6428E+01   1.6828E+01   2.0666E-05  0.0123
   1.6828E+01   1.7237E+01   2.0740E-05  0.0121
   1.7237E+01   1.7657E+01   2.0556E-05  0.0120
   1.7657E+01   1.8086E+01   1.9588E-05  0.0122
   1.8086E+01   1.8526E+01   2.0219E-05  0.0119
   1.8526E+01   1.8977E+01   1.9938E-05  0.0118
   1.8977E+01   1.9439E+01   1.9430E-05  0.0118
   1.9439E+01   1.9912E+01   1.9246E-05  0.0117
   1.9912E+01   2.0396E+01   1.8827E-05  0.0117
   2.0396E+01   2.0893E+01   1.8738E-05  0.0116
   2.0893E+01   2.1401E+01   1.8698E-05  0.0115
   2.1401E+01   2.1922E+01   1.8564E-05  0.0114
   2.1922E+01   2.2455E+01   1.8130E-05  0.0114
   2.2455E+01   2.3001E+01   1.7505E-05  0.0114
   2.3001E+01   2.3561E+01   1.7308E-05  0.0114
   2.3561E+01   2.4134E+01   1.6869E-05  0.0114
   2.4134E+01   2.4721E+01   1.6602E-05  0.0113
   2.4721E+01   2.5323E+01   1.6513E-05  0.0112
   2.5323E+01   2.5939E+01   1.6015E-05  0.0113
   2.5939E+01   2.6570E+01   1.5548E-05  0.0113
   2.6570E+01   2.7217E+01   1.5200E-05  0.0113
   2.7217E+01   2.7879E+01   1.4639E-05  0.0114
   2.7879E+01   2.8557E+01   1.4236E-05  0.0114
   2.8557E+01   2.9252E+01   1.3980E-05  0.0113
   2.9252E+01   2.9964E+01   1.3188E-05  0.0115
   2.9964E+01   3.0693E+01   1.3094E-05  0.0114
   3.0693E+01   3.1440E+01   1.2484E-05  0.0116
   3.1440E+01   3.2205E+01   1.2347E-05  0.0115
   3.2205E+01   3.2988E+01   1.1886E-05  0.0116
   3.2988E+01   3.3791E+01   1.1399E-05  0.0117
   3.3791E+01   3.4613E+01   1.1005E-05  0.0118
   3.4613E+01   3.5455E+01   1.0749E-05  0.0118
   3.5455E+01   3.6318E+01   1.0178E-05  0.0119
   3.6318E+01   3.7201E+01   9.5472E-06  0.0122
   3.7201E+01   3.8106E+01   9.4419E-06  0.0121
   3.8106E+01   3.9034E+01   8.9318E-06  0.0123
   3.9034E+01   3.9983E+01   8.4209E-06  0.0125
   3.9983E+01   4.0956E+01   8.2505E-06  0.0125
   4.0956E+01   4.1953E+01   7.8299E-06  0.0127
   4.1953E+01   4.2973E+01   7.4382E-06  0.0128
   4.2973E+01   4.4019E+01   6.8694E-06  0.0132
   4.4019E+01   4.5090E+01   6.6899E-06  0.0132
   4.5090E+01   4.6187E+01   6.3476E-06  0.0134
   4.6187E+01   4.7311E+01   5.7029E-06  0.0140
   4.7311E+01   4.8462E+01   5.2862E-06  0.0143
   4.8462E+01   4.9641E+01   4.7504E-06  0.0149
   4.9641E+01   5.0849E+01   4.3798E-06  0.0154
   5.0849E+01   5.2086E+01   3.7029E-06  0.0165
   5.2086E+01   5.3353E+01   3.1327E-06  0.0177
   5.3353E+01   5.4651E+01   2.3572E-06  0.0202
   5.4651E+01   5.5981E+01   1.5313E-06  0.0248
   5.5981E+01   5.7343E+01   6.4608E-07  0.0377
   5.7343E+01   5.8738E+01   1.1647E-07  0.0877
   5.8738E+01   6.0168E+01   0.0000E+00  0.0000
   6.0168E+01   6.1632E+01   0.0000E+00  0.0000
   6.1632E+01   6.3131E+01   0.0000E+00  0.0000
   6.3131E+01   6.4667E+01   0.0000E+00  0.0000
   6.4667E+01   6.6240E+01   0.0000E+00  0.0000
   6.6240E+01   6.7852E+01   0.0000E+00  0.0000
   6.7852E+01   6.9503E+01   0.0000E+00  0.0000
   6.9503E+01   7.1194E+01   0.0000E+00  0.0000
   7.1194E+01   7.2926E+01   0.0000E+00  0.0000
   7.2926E+01   7.4701E+01   0.0000E+00  0.0000
   7.4701E+01   7.6518E+01   0.0000E+00  0.0000
   7.6518E+01   7.8380E+01   0.0000E+00  0.0000
   7.8380E+01   8.0287E+01   0.0000E+00  0.0000
   8.0287E+01   8.2240E+01   0.0000E+00  0.0000
   8.2240E+01   8.4241E+01   0.0000E+00  0.0000
   8.4241E+01   8.6291E+01   0.0000E+00  0.0000
   8.6291E+01   8.8391E+01   0.0000E+00  0.0000
   8.8391E+01   9.0541E+01   0.0000E+00  0.0000
   9.0541E+01   9.2744E+01   0.0000E+00  0.0000
   9.2744E+01   9.5001E+01   0.0000E+00  0.0000
   9.5001E+01   9.7312E+01   0.0000E+00  0.0000
   9.7312E+01   9.9680E+01   0.0000E+00  0.0000
   9.9680E+01   1.0211E+02   0.0000E+00  0.0000
   1.0211E+02   1.0459E+02   0.0000E+00  0.0000
   1.0459E+02   1.0713E+02   0.0000E+00  0.0000
   1.0713E+02   1.0974E+02   0.0000E+00  0.0000
   1.0974E+02   1.1241E+02   0.0000E+00  0.0000
   1.1241E+02   1.1515E+02   0.0000E+00  0.0000
   1.1515E+02   1.1795E+02   0.0000E+00  0.0000
   1.1795E+02   1.2082E+02   0.0000E+00  0.0000
   1.2082E+02   1.2376E+02   0.0000E+00  0.0000
   1.2376E+02   1.2677E+02   0.0000E+00  0.0000
   1.2677E+02   1.2985E+02   0.0000E+00  0.0000
   1.2985E+02   1.3301E+02   0.0000E+00  0.0000
   1.3301E+02   1.3625E+02   0.0000E+00  0.0000
   1.3625E+02   1.3956E+02   0.0000E+00  0.0000
   1.3956E+02   1.4296E+02   0.0000E+00  0.0000
   1.4296E+02   1.4644E+02   0.0000E+00  0.0000
   1.4644E+02   1.5000E+02   0.0000E+00  0.0000

#   sum over                 1.5381E-05
'no. =    1   reg = 105 - 205'
msuc: {\huge [t-cross] in region mesh}
msdr: {\it plotted by \ANGEL \version}
msdl: {\it calculated by \PHITS  3.26}
wt: s(0.7)
\vspace{-3}
  region surface crossing
  area  &=&   1.0000E+00 [cm^2]
e:
 
# Information for Restart Calculation
# This calculation was newly started
# istdev =  2 # 1:Batch variance, 2:History variance
# resc2  = 8.00000000000000000E+08 # Total source weight or Total source weight / maxcas
# resc3  = 8.00000000000000000E+08 # Total history number or Total batch number
# maxcas =   100000000 # History / Batch, only used for istdev=1
# bitrseed = 0100001000001110010000000000111111001100010000001010100011010001 # bit data of rseed
