[ T-Cross ]
    title = [t-cross] in region mesh
     mesh =  reg            # mesh type is region-wise
      reg =    1            # number of crossing regions
      non     r-from    r-to       area
      1       114       214        1.000000    
   e-type =    3            # e-mesh is log given by emin, emax and ne
     emin =  1.0000000E-02  # minimum value of e-mesh points
     emax =   150.0000      # maximum value of e-mesh points
#    edel =  2.4039514E-02  # mesh width of e-mesh points
       ne =    400          # number of e-mesh points
#    data = ( e(i), i = 1, ne + 1 )
#           1.00000E-02  1.02433E-02  1.04925E-02  1.07478E-02  1.10093E-02
#           1.12772E-02  1.15516E-02  1.18326E-02  1.21205E-02  1.24154E-02
#           1.27175E-02  1.30269E-02  1.33439E-02  1.36686E-02  1.40011E-02
#           1.43418E-02  1.46907E-02  1.50482E-02  1.54143E-02  1.57894E-02
#           1.61735E-02  1.65670E-02  1.69701E-02  1.73830E-02  1.78060E-02
#           1.82392E-02  1.86830E-02  1.91375E-02  1.96032E-02  2.00801E-02
#           2.05687E-02  2.10692E-02  2.15818E-02  2.21069E-02  2.26448E-02
#           2.31957E-02  2.37601E-02  2.43382E-02  2.49304E-02  2.55369E-02
#           2.61583E-02  2.67947E-02  2.74467E-02  2.81145E-02  2.87985E-02
#           2.94992E-02  3.02169E-02  3.09521E-02  3.17052E-02  3.24766E-02
#           3.32668E-02  3.40762E-02  3.49053E-02  3.57546E-02  3.66246E-02
#           3.75157E-02  3.84284E-02  3.93634E-02  4.03212E-02  4.13022E-02
#           4.23071E-02  4.33365E-02  4.43909E-02  4.54710E-02  4.65773E-02
#           4.77106E-02  4.88714E-02  5.00605E-02  5.12785E-02  5.25262E-02
#           5.38042E-02  5.51133E-02  5.64542E-02  5.78278E-02  5.92348E-02
#           6.06760E-02  6.21523E-02  6.36645E-02  6.52135E-02  6.68002E-02
#           6.84255E-02  7.00904E-02  7.17957E-02  7.35426E-02  7.53319E-02
#           7.71648E-02  7.90423E-02  8.09655E-02  8.29354E-02  8.49533E-02
#           8.70203E-02  8.91376E-02  9.13064E-02  9.35279E-02  9.58035E-02
#           9.81345E-02  1.00522E-01  1.02968E-01  1.05473E-01  1.08040E-01
#           1.10668E-01  1.13361E-01  1.16119E-01  1.18944E-01  1.21838E-01
#           1.24803E-01  1.27839E-01  1.30950E-01  1.34136E-01  1.37399E-01
#           1.40742E-01  1.44167E-01  1.47675E-01  1.51268E-01  1.54948E-01
#           1.58718E-01  1.62580E-01  1.66535E-01  1.70587E-01  1.74738E-01
#           1.78989E-01  1.83344E-01  1.87805E-01  1.92375E-01  1.97055E-01
#           2.01850E-01  2.06761E-01  2.11792E-01  2.16945E-01  2.22223E-01
#           2.27630E-01  2.33169E-01  2.38842E-01  2.44653E-01  2.50605E-01
#           2.56703E-01  2.62949E-01  2.69346E-01  2.75900E-01  2.82613E-01
#           2.89489E-01  2.96532E-01  3.03747E-01  3.11138E-01  3.18708E-01
#           3.26462E-01  3.34405E-01  3.42542E-01  3.50876E-01  3.59413E-01
#           3.68158E-01  3.77116E-01  3.86291E-01  3.95690E-01  4.05317E-01
#           4.15179E-01  4.25281E-01  4.35628E-01  4.46227E-01  4.57084E-01
#           4.68205E-01  4.79597E-01  4.91266E-01  5.03219E-01  5.15463E-01
#           5.28005E-01  5.40851E-01  5.54011E-01  5.67490E-01  5.81298E-01
#           5.95441E-01  6.09929E-01  6.24769E-01  6.39970E-01  6.55541E-01
#           6.71491E-01  6.87828E-01  7.04564E-01  7.21706E-01  7.39266E-01
#           7.57253E-01  7.75678E-01  7.94551E-01  8.13883E-01  8.33685E-01
#           8.53969E-01  8.74747E-01  8.96030E-01  9.17831E-01  9.40163E-01
#           9.63038E-01  9.86469E-01  1.01047E+00  1.03506E+00  1.06024E+00
#           1.08604E+00  1.11246E+00  1.13953E+00  1.16725E+00  1.19565E+00
#           1.22474E+00  1.25454E+00  1.28507E+00  1.31633E+00  1.34836E+00
#           1.38117E+00  1.41477E+00  1.44920E+00  1.48446E+00  1.52057E+00
#           1.55757E+00  1.59547E+00  1.63429E+00  1.67405E+00  1.71478E+00
#           1.75650E+00  1.79924E+00  1.84302E+00  1.88786E+00  1.93379E+00
#           1.98084E+00  2.02904E+00  2.07841E+00  2.12898E+00  2.18078E+00
#           2.23384E+00  2.28819E+00  2.34386E+00  2.40089E+00  2.45930E+00
#           2.51914E+00  2.58043E+00  2.64322E+00  2.70753E+00  2.77341E+00
#           2.84088E+00  2.91001E+00  2.98081E+00  3.05333E+00  3.12762E+00
#           3.20372E+00  3.28167E+00  3.36152E+00  3.44330E+00  3.52708E+00
#           3.61290E+00  3.70080E+00  3.79085E+00  3.88308E+00  3.97756E+00
#           4.07434E+00  4.17347E+00  4.27501E+00  4.37903E+00  4.48557E+00
#           4.59471E+00  4.70650E+00  4.82102E+00  4.93832E+00  5.05847E+00
#           5.18155E+00  5.30762E+00  5.43676E+00  5.56904E+00  5.70453E+00
#           5.84333E+00  5.98550E+00  6.13114E+00  6.28031E+00  6.43312E+00
#           6.58964E+00  6.74997E+00  6.91420E+00  7.08243E+00  7.25475E+00
#           7.43126E+00  7.61207E+00  7.79728E+00  7.98700E+00  8.18133E+00
#           8.38038E+00  8.58428E+00  8.79315E+00  9.00709E+00  9.22624E+00
#           9.45072E+00  9.68067E+00  9.91620E+00  1.01575E+01  1.04046E+01
#           1.06578E+01  1.09171E+01  1.11827E+01  1.14548E+01  1.17335E+01
#           1.20190E+01  1.23114E+01  1.26109E+01  1.29178E+01  1.32321E+01
#           1.35540E+01  1.38838E+01  1.42216E+01  1.45676E+01  1.49221E+01
#           1.52851E+01  1.56570E+01  1.60380E+01  1.64282E+01  1.68279E+01
#           1.72374E+01  1.76568E+01  1.80864E+01  1.85264E+01  1.89772E+01
#           1.94389E+01  1.99119E+01  2.03963E+01  2.08926E+01  2.14009E+01
#           2.19216E+01  2.24550E+01  2.30014E+01  2.35610E+01  2.41343E+01
#           2.47215E+01  2.53230E+01  2.59391E+01  2.65702E+01  2.72167E+01
#           2.78789E+01  2.85572E+01  2.92520E+01  2.99637E+01  3.06928E+01
#           3.14396E+01  3.22045E+01  3.29881E+01  3.37907E+01  3.46128E+01
#           3.54550E+01  3.63177E+01  3.72013E+01  3.81064E+01  3.90336E+01
#           3.99833E+01  4.09561E+01  4.19526E+01  4.29734E+01  4.40189E+01
#           4.50900E+01  4.61870E+01  4.73108E+01  4.84619E+01  4.96410E+01
#           5.08488E+01  5.20860E+01  5.33533E+01  5.46514E+01  5.59812E+01
#           5.73432E+01  5.87384E+01  6.01676E+01  6.16315E+01  6.31311E+01
#           6.46671E+01  6.62405E+01  6.78522E+01  6.95031E+01  7.11941E+01
#           7.29263E+01  7.47007E+01  7.65182E+01  7.83800E+01  8.02870E+01
#           8.22405E+01  8.42414E+01  8.62911E+01  8.83906E+01  9.05412E+01
#           9.27442E+01  9.50007E+01  9.73122E+01  9.96799E+01  1.02105E+02
#           1.04589E+02  1.07134E+02  1.09741E+02  1.12411E+02  1.15146E+02
#           1.17948E+02  1.20817E+02  1.23757E+02  1.26768E+02  1.29852E+02
#           1.33012E+02  1.36248E+02  1.39563E+02  1.42959E+02  1.46437E+02
#           1.50000E+02
     unit =    2            # unit is [1/cm^2/(MeV/n)/source]
     axis =  eng            # axis of output
     file = detector-15.out  # file name of output for the above axis
   output = f-curr          # surface crossing forward current spectrum
     part =  neutron  
# kf/name :  2112     
#    used :        main (  %)        temp (  %)       total (  %)
#  memory :         414 (  0)           0 (  0)         414 (  0)

#------------------------------------------------------------------------------
#newpage:
#   no. =    1   reg = 114 - 214

x: Energy [MeV/n]
y:  F-Curr [1/cm^2/(MeV/n)/source]         
p: xlog ylog afac(0.8) form(0.9)
h: n            x            y(neutron ),hh0l   n 
#  e-lower      e-upper      neutron     r.err 
   1.0000E-02   1.0243E-02   1.5892E-04  0.1313
   1.0243E-02   1.0493E-02   2.3004E-04  0.1078
   1.0493E-02   1.0748E-02   1.4885E-04  0.1325
   1.0748E-02   1.1009E-02   1.7336E-04  0.1213
   1.1009E-02   1.1277E-02   1.4684E-04  0.1302
   1.1277E-02   1.1552E-02   1.5064E-04  0.1270
   1.1552E-02   1.1833E-02   1.3876E-04  0.1305
   1.1833E-02   1.2121E-02   1.4163E-04  0.1277
   1.2121E-02   1.2415E-02   2.0120E-04  0.1060
   1.2415E-02   1.2718E-02   1.9237E-04  0.1070
   1.2718E-02   1.3027E-02   1.2106E-04  0.1332
   1.3027E-02   1.3344E-02   1.5076E-04  0.1178
   1.3344E-02   1.3669E-02   1.7043E-04  0.1098
   1.3669E-02   1.4001E-02   1.4433E-04  0.1179
   1.4001E-02   1.4342E-02   1.6663E-04  0.1083
   1.4342E-02   1.4691E-02   1.6430E-04  0.1078
   1.4691E-02   1.5048E-02   1.6786E-04  0.1054
   1.5048E-02   1.5414E-02   1.3838E-04  0.1147
   1.5414E-02   1.5789E-02   1.3332E-04  0.1155
   1.5789E-02   1.6174E-02   1.6681E-04  0.1019
   1.6174E-02   1.6567E-02   1.4170E-04  0.1091
   1.6567E-02   1.6970E-02   1.8854E-04  0.0937
   1.6970E-02   1.7383E-02   1.4370E-04  0.1060
   1.7383E-02   1.7806E-02   1.3116E-04  0.1095
   1.7806E-02   1.8239E-02   1.5414E-04  0.0998
   1.8239E-02   1.8683E-02   1.6300E-04  0.0959
   1.8683E-02   1.9138E-02   1.7159E-04  0.0923
   1.9138E-02   1.9603E-02   1.4774E-04  0.0984
   1.9603E-02   2.0080E-02   1.4575E-04  0.0978
   2.0080E-02   2.0569E-02   1.4873E-04  0.0958
   2.0569E-02   2.1069E-02   1.4548E-04  0.0956
   2.1069E-02   2.1582E-02   1.3286E-04  0.0989
   2.1582E-02   2.2107E-02   1.6904E-04  0.0866
   2.2107E-02   2.2645E-02   1.6051E-04  0.0878
   2.2645E-02   2.3196E-02   1.5427E-04  0.0885
   2.3196E-02   2.3760E-02   1.6065E-04  0.0857
   2.3760E-02   2.4338E-02   1.4530E-04  0.0891
   2.4338E-02   2.4930E-02   1.5701E-04  0.0846
   2.4930E-02   2.5537E-02   1.6321E-04  0.0820
   2.5537E-02   2.6158E-02   1.3734E-04  0.0884
   2.6158E-02   2.6795E-02   1.6760E-04  0.0791
   2.6795E-02   2.7447E-02   1.3768E-04  0.0861
   2.7447E-02   2.8114E-02   1.4412E-04  0.0831
   2.8114E-02   2.8799E-02   1.4553E-04  0.0818
   2.8799E-02   2.9499E-02   1.4842E-04  0.0801
   2.9499E-02   3.0217E-02   1.3975E-04  0.0814
   3.0217E-02   3.0952E-02   1.1879E-04  0.0874
   3.0952E-02   3.1705E-02   1.3115E-04  0.0821
   3.1705E-02   3.2477E-02   1.4692E-04  0.0766
   3.2477E-02   3.3267E-02   1.3146E-04  0.0800
   3.3267E-02   3.4076E-02   1.3931E-04  0.0769
   3.4076E-02   3.4905E-02   1.3911E-04  0.0760
   3.4905E-02   3.5755E-02   1.3473E-04  0.0763
   3.5755E-02   3.6625E-02   1.3143E-04  0.0763
   3.6625E-02   3.7516E-02   1.3242E-04  0.0752
   3.7516E-02   3.8428E-02   1.2208E-04  0.0778
   3.8428E-02   3.9363E-02   1.3912E-04  0.0714
   3.9363E-02   4.0321E-02   1.2030E-04  0.0758
   4.0321E-02   4.1302E-02   1.2279E-04  0.0743
   4.1302E-02   4.2307E-02   1.3680E-04  0.0696
   4.2307E-02   4.3337E-02   1.3331E-04  0.0696
   4.3337E-02   4.4391E-02   1.2667E-04  0.0705
   4.4391E-02   4.5471E-02   1.2067E-04  0.0715
   4.5471E-02   4.6577E-02   1.0605E-04  0.0754
   4.6577E-02   4.7711E-02   1.1276E-04  0.0722
   4.7711E-02   4.8871E-02   1.1822E-04  0.0696
   4.8871E-02   5.0061E-02   1.0900E-04  0.0717
   5.0061E-02   5.1279E-02   1.1731E-04  0.0683
   5.1279E-02   5.2526E-02   1.2138E-04  0.0663
   5.2526E-02   5.3804E-02   1.1268E-04  0.0680
   5.3804E-02   5.5113E-02   1.0295E-04  0.0703
   5.5113E-02   5.6454E-02   1.2040E-04  0.0642
   5.6454E-02   5.7828E-02   1.0582E-04  0.0676
   5.7828E-02   5.9235E-02   1.0851E-04  0.0661
   5.9235E-02   6.0676E-02   1.1688E-04  0.0629
   6.0676E-02   6.2152E-02   1.1093E-04  0.0638
   6.2152E-02   6.3665E-02   1.1416E-04  0.0621
   6.3665E-02   6.5214E-02   1.1169E-04  0.0620
   6.5214E-02   6.6800E-02   1.0406E-04  0.0635
   6.6800E-02   6.8426E-02   1.0131E-04  0.0636
   6.8426E-02   7.0090E-02   1.1218E-04  0.0597
   7.0090E-02   7.1796E-02   1.1361E-04  0.0586
   7.1796E-02   7.3543E-02   1.1145E-04  0.0585
   7.3543E-02   7.5332E-02   1.1780E-04  0.0562
   7.5332E-02   7.7165E-02   1.0930E-04  0.0577
   7.7165E-02   7.9042E-02   1.0126E-04  0.0591
   7.9042E-02   8.0965E-02   1.0337E-04  0.0578
   8.0965E-02   8.2935E-02   9.9723E-05  0.0582
   8.2935E-02   8.4953E-02   1.0302E-04  0.0566
   8.4953E-02   8.7020E-02   9.5147E-05  0.0582
   8.7020E-02   8.9138E-02   9.2243E-05  0.0584
   8.9138E-02   9.1306E-02   9.2331E-05  0.0577
   9.1306E-02   9.3528E-02   8.7816E-05  0.0584
   9.3528E-02   9.5804E-02   8.9153E-05  0.0573
   9.5804E-02   9.8134E-02   8.8429E-05  0.0569
   9.8134E-02   1.0052E-01   9.3335E-05  0.0547
   1.0052E-01   1.0297E-01   8.5772E-05  0.0563
   1.0297E-01   1.0547E-01   8.9235E-05  0.0546
   1.0547E-01   1.0804E-01   8.5242E-05  0.0552
   1.0804E-01   1.1067E-01   8.2758E-05  0.0553
   1.1067E-01   1.1336E-01   9.0284E-05  0.0523
   1.1336E-01   1.1612E-01   7.9572E-05  0.0550
   1.1612E-01   1.1894E-01   7.8487E-05  0.0547
   1.1894E-01   1.2184E-01   8.6418E-05  0.0516
   1.2184E-01   1.2480E-01   7.7862E-05  0.0536
   1.2480E-01   1.2784E-01   7.9912E-05  0.0524
   1.2784E-01   1.3095E-01   7.3702E-05  0.0539
   1.3095E-01   1.3414E-01   7.0933E-05  0.0543
   1.3414E-01   1.3740E-01   7.0202E-05  0.0539
   1.3740E-01   1.4074E-01   6.9498E-05  0.0535
   1.4074E-01   1.4417E-01   7.0608E-05  0.0525
   1.4417E-01   1.4767E-01   7.0390E-05  0.0519
   1.4767E-01   1.5127E-01   6.3943E-05  0.0538
   1.5127E-01   1.5495E-01   6.0343E-05  0.0547
   1.5495E-01   1.5872E-01   6.4447E-05  0.0524
   1.5872E-01   1.6258E-01   5.9181E-05  0.0540
   1.6258E-01   1.6654E-01   6.4300E-05  0.0512
   1.6654E-01   1.7059E-01   6.0157E-05  0.0523
   1.7059E-01   1.7474E-01   5.6700E-05  0.0532
   1.7474E-01   1.7899E-01   5.5088E-05  0.0533
   1.7899E-01   1.8334E-01   5.6913E-05  0.0518
   1.8334E-01   1.8781E-01   5.1130E-05  0.0541
   1.8781E-01   1.9237E-01   5.3900E-05  0.0520
   1.9237E-01   1.9706E-01   5.4328E-05  0.0511
   1.9706E-01   2.0185E-01   4.8732E-05  0.0534
   2.0185E-01   2.0676E-01   5.2234E-05  0.0509
   2.0676E-01   2.1179E-01   5.1150E-05  0.0509
   2.1179E-01   2.1694E-01   5.3904E-05  0.0490
   2.1694E-01   2.2222E-01   5.7858E-05  0.0467
   2.2222E-01   2.2763E-01   5.4498E-05  0.0475
   2.2763E-01   2.3317E-01   5.7641E-05  0.0456
   2.3317E-01   2.3884E-01   6.5034E-05  0.0425
   2.3884E-01   2.4465E-01   6.0102E-05  0.0436
   2.4465E-01   2.5061E-01   5.6550E-05  0.0445
   2.5061E-01   2.5670E-01   6.1637E-05  0.0421
   2.5670E-01   2.6295E-01   6.2574E-05  0.0412
   2.6295E-01   2.6935E-01   6.2178E-05  0.0409
   2.6935E-01   2.7590E-01   6.6967E-05  0.0390
   2.7590E-01   2.8261E-01   7.0275E-05  0.0376
   2.8261E-01   2.8949E-01   7.4179E-05  0.0361
   2.8949E-01   2.9653E-01   7.0538E-05  0.0366
   2.9653E-01   3.0375E-01   7.3616E-05  0.0354
   3.0375E-01   3.1114E-01   7.4164E-05  0.0348
   3.1114E-01   3.1871E-01   7.6461E-05  0.0339
   3.1871E-01   3.2646E-01   7.8505E-05  0.0331
   3.2646E-01   3.3441E-01   7.8406E-05  0.0327
   3.3441E-01   3.4254E-01   8.1958E-05  0.0316
   3.4254E-01   3.5088E-01   8.3150E-05  0.0310
   3.5088E-01   3.5941E-01   8.2143E-05  0.0308
   3.5941E-01   3.6816E-01   8.6890E-05  0.0296
   3.6816E-01   3.7712E-01   8.6335E-05  0.0293
   3.7712E-01   3.8629E-01   9.0259E-05  0.0283
   3.8629E-01   3.9569E-01   8.9671E-05  0.0281
   3.9569E-01   4.0532E-01   8.6572E-05  0.0282
   4.0532E-01   4.1518E-01   8.9412E-05  0.0274
   4.1518E-01   4.2528E-01   8.9935E-05  0.0271
   4.2528E-01   4.3563E-01   9.6273E-05  0.0258
   4.3563E-01   4.4623E-01   9.5626E-05  0.0256
   4.4623E-01   4.5708E-01   9.6152E-05  0.0252
   4.5708E-01   4.6821E-01   9.1897E-05  0.0255
   4.6821E-01   4.7960E-01   9.8644E-05  0.0243
   4.7960E-01   4.9127E-01   9.5987E-05  0.0244
   4.9127E-01   5.0322E-01   9.9169E-05  0.0237
   5.0322E-01   5.1546E-01   1.0123E-04  0.0232
   5.1546E-01   5.2800E-01   1.0322E-04  0.0227
   5.2800E-01   5.4085E-01   9.8423E-05  0.0229
   5.4085E-01   5.5401E-01   1.0171E-04  0.0223
   5.5401E-01   5.6749E-01   1.0583E-04  0.0216
   5.6749E-01   5.8130E-01   1.0541E-04  0.0214
   5.8130E-01   5.9544E-01   1.0455E-04  0.0212
   5.9544E-01   6.0993E-01   1.0967E-04  0.0204
   6.0993E-01   6.2477E-01   1.0945E-04  0.0202
   6.2477E-01   6.3997E-01   1.0955E-04  0.0200
   6.3997E-01   6.5554E-01   1.1261E-04  0.0195
   6.5554E-01   6.7149E-01   1.1227E-04  0.0193
   6.7149E-01   6.8783E-01   1.1486E-04  0.0188
   6.8783E-01   7.0456E-01   1.1139E-04  0.0189
   7.0456E-01   7.2171E-01   1.1118E-04  0.0187
   7.2171E-01   7.3927E-01   1.1425E-04  0.0182
   7.3927E-01   7.5725E-01   1.0800E-04  0.0185
   7.5725E-01   7.7568E-01   1.1260E-04  0.0179
   7.7568E-01   7.9455E-01   1.1322E-04  0.0176
   7.9455E-01   8.1388E-01   1.1246E-04  0.0175
   8.1388E-01   8.3368E-01   1.1457E-04  0.0171
   8.3368E-01   8.5397E-01   1.1333E-04  0.0170
   8.5397E-01   8.7475E-01   1.1072E-04  0.0170
   8.7475E-01   8.9603E-01   1.0972E-04  0.0169
   8.9603E-01   9.1783E-01   1.1191E-04  0.0165
   9.1783E-01   9.4016E-01   1.0822E-04  0.0166
   9.4016E-01   9.6304E-01   1.0624E-04  0.0165
   9.6304E-01   9.8647E-01   1.0807E-04  0.0162
   9.8647E-01   1.0105E+00   1.0353E-04  0.0164
   1.0105E+00   1.0351E+00   1.0187E-04  0.0163
   1.0351E+00   1.0602E+00   1.0562E-04  0.0158
   1.0602E+00   1.0860E+00   1.0651E-04  0.0156
   1.0860E+00   1.1125E+00   1.0571E-04  0.0154
   1.1125E+00   1.1395E+00   1.0824E-04  0.0150
   1.1395E+00   1.1673E+00   1.1424E-04  0.0145
   1.1673E+00   1.1957E+00   1.1524E-04  0.0142
   1.1957E+00   1.2247E+00   1.1733E-04  0.0139
   1.2247E+00   1.2545E+00   1.2081E-04  0.0136
   1.2545E+00   1.2851E+00   1.2062E-04  0.0134
   1.2851E+00   1.3163E+00   1.2159E-04  0.0132
   1.3163E+00   1.3484E+00   1.2664E-04  0.0128
   1.3484E+00   1.3812E+00   1.2896E-04  0.0125
   1.3812E+00   1.4148E+00   1.3317E-04  0.0122
   1.4148E+00   1.4492E+00   1.3519E-04  0.0119
   1.4492E+00   1.4845E+00   1.3569E-04  0.0118
   1.4845E+00   1.5206E+00   1.3819E-04  0.0115
   1.5206E+00   1.5576E+00   1.4011E-04  0.0113
   1.5576E+00   1.5955E+00   1.4185E-04  0.0111
   1.5955E+00   1.6343E+00   1.4396E-04  0.0109
   1.6343E+00   1.6741E+00   1.4580E-04  0.0107
   1.6741E+00   1.7148E+00   1.4774E-04  0.0105
   1.7148E+00   1.7565E+00   1.5330E-04  0.0102
   1.7565E+00   1.7992E+00   1.5409E-04  0.0100
   1.7992E+00   1.8430E+00   1.5773E-04  0.0098
   1.8430E+00   1.8879E+00   1.5881E-04  0.0097
   1.8879E+00   1.9338E+00   1.5915E-04  0.0095
   1.9338E+00   1.9808E+00   1.6408E-04  0.0093
   1.9808E+00   2.0290E+00   1.6528E-04  0.0091
   2.0290E+00   2.0784E+00   1.6849E-04  0.0089
   2.0784E+00   2.1290E+00   1.6826E-04  0.0088
   2.1290E+00   2.1808E+00   1.6699E-04  0.0088
   2.1808E+00   2.2338E+00   1.7039E-04  0.0086
   2.2338E+00   2.2882E+00   1.7165E-04  0.0084
   2.2882E+00   2.3439E+00   1.7291E-04  0.0083
   2.3439E+00   2.4009E+00   1.7674E-04  0.0081
   2.4009E+00   2.4593E+00   1.7857E-04  0.0080
   2.4593E+00   2.5191E+00   1.7824E-04  0.0079
   2.5191E+00   2.5804E+00   1.7819E-04  0.0078
   2.5804E+00   2.6432E+00   1.7961E-04  0.0077
   2.6432E+00   2.7075E+00   1.7868E-04  0.0076
   2.7075E+00   2.7734E+00   1.8260E-04  0.0074
   2.7734E+00   2.8409E+00   1.8150E-04  0.0074
   2.8409E+00   2.9100E+00   1.8369E-04  0.0072
   2.9100E+00   2.9808E+00   1.8364E-04  0.0071
   2.9808E+00   3.0533E+00   1.8275E-04  0.0071
   3.0533E+00   3.1276E+00   1.8382E-04  0.0070
   3.1276E+00   3.2037E+00   1.8302E-04  0.0069
   3.2037E+00   3.2817E+00   1.8217E-04  0.0068
   3.2817E+00   3.3615E+00   1.7946E-04  0.0068
   3.3615E+00   3.4433E+00   1.8122E-04  0.0067
   3.4433E+00   3.5271E+00   1.7648E-04  0.0067
   3.5271E+00   3.6129E+00   1.7819E-04  0.0066
   3.6129E+00   3.7008E+00   1.7675E-04  0.0065
   3.7008E+00   3.7908E+00   1.7393E-04  0.0065
   3.7908E+00   3.8831E+00   1.7245E-04  0.0065
   3.8831E+00   3.9776E+00   1.7052E-04  0.0064
   3.9776E+00   4.0743E+00   1.7050E-04  0.0063
   4.0743E+00   4.1735E+00   1.6998E-04  0.0063
   4.1735E+00   4.2750E+00   1.6605E-04  0.0063
   4.2750E+00   4.3790E+00   1.6421E-04  0.0062
   4.3790E+00   4.4856E+00   1.6158E-04  0.0062
   4.4856E+00   4.5947E+00   1.6182E-04  0.0061
   4.5947E+00   4.7065E+00   1.5836E-04  0.0061
   4.7065E+00   4.8210E+00   1.5475E-04  0.0061
   4.8210E+00   4.9383E+00   1.5190E-04  0.0061
   4.9383E+00   5.0585E+00   1.5033E-04  0.0061
   5.0585E+00   5.1815E+00   1.4654E-04  0.0061
   5.1815E+00   5.3076E+00   1.4248E-04  0.0061
   5.3076E+00   5.4368E+00   1.4046E-04  0.0061
   5.4368E+00   5.5690E+00   1.3434E-04  0.0061
   5.5690E+00   5.7045E+00   1.3360E-04  0.0061
   5.7045E+00   5.8433E+00   1.2897E-04  0.0061
   5.8433E+00   5.9855E+00   1.2682E-04  0.0061
   5.9855E+00   6.1311E+00   1.2173E-04  0.0061
   6.1311E+00   6.2803E+00   1.1872E-04  0.0061
   6.2803E+00   6.4331E+00   1.1443E-04  0.0062
   6.4331E+00   6.5896E+00   1.1100E-04  0.0062
   6.5896E+00   6.7500E+00   1.0836E-04  0.0062
   6.7500E+00   6.9142E+00   1.0293E-04  0.0063
   6.9142E+00   7.0824E+00   1.0065E-04  0.0063
   7.0824E+00   7.2548E+00   9.6714E-05  0.0063
   7.2548E+00   7.4313E+00   9.1215E-05  0.0064
   7.4313E+00   7.6121E+00   8.8451E-05  0.0064
   7.6121E+00   7.7973E+00   8.4837E-05  0.0065
   7.7973E+00   7.9870E+00   8.1175E-05  0.0066
   7.9870E+00   8.1813E+00   7.7265E-05  0.0067
   8.1813E+00   8.3804E+00   7.4470E-05  0.0067
   8.3804E+00   8.5843E+00   7.1039E-05  0.0068
   8.5843E+00   8.7931E+00   6.7270E-05  0.0069
   8.7931E+00   9.0071E+00   6.5354E-05  0.0069
   9.0071E+00   9.2262E+00   6.1234E-05  0.0070
   9.2262E+00   9.4507E+00   5.8879E-05  0.0071
   9.4507E+00   9.6807E+00   5.6897E-05  0.0071
   9.6807E+00   9.9162E+00   5.5009E-05  0.0072
   9.9162E+00   1.0157E+01   5.2251E-05  0.0073
   1.0157E+01   1.0405E+01   4.9133E-05  0.0074
   1.0405E+01   1.0658E+01   4.7956E-05  0.0074
   1.0658E+01   1.0917E+01   4.5851E-05  0.0075
   1.0917E+01   1.1183E+01   4.3463E-05  0.0076
   1.1183E+01   1.1455E+01   4.1878E-05  0.0076
   1.1455E+01   1.1733E+01   3.9748E-05  0.0078
   1.1733E+01   1.2019E+01   3.7881E-05  0.0078
   1.2019E+01   1.2311E+01   3.6287E-05  0.0079
   1.2311E+01   1.2611E+01   3.4202E-05  0.0081
   1.2611E+01   1.2918E+01   3.3188E-05  0.0081
   1.2918E+01   1.3232E+01   3.1380E-05  0.0082
   1.3232E+01   1.3554E+01   3.0211E-05  0.0083
   1.3554E+01   1.3884E+01   2.8257E-05  0.0085
   1.3884E+01   1.4222E+01   2.7301E-05  0.0085
   1.4222E+01   1.4568E+01   2.5763E-05  0.0086
   1.4568E+01   1.4922E+01   2.4620E-05  0.0087
   1.4922E+01   1.5285E+01   2.3387E-05  0.0089
   1.5285E+01   1.5657E+01   2.1996E-05  0.0090
   1.5657E+01   1.6038E+01   2.0845E-05  0.0092
   1.6038E+01   1.6428E+01   2.0317E-05  0.0092
   1.6428E+01   1.6828E+01   1.8647E-05  0.0095
   1.6828E+01   1.7237E+01   1.7628E-05  0.0096
   1.7237E+01   1.7657E+01   1.6810E-05  0.0097
   1.7657E+01   1.8086E+01   1.5978E-05  0.0099
   1.8086E+01   1.8526E+01   1.4845E-05  0.0101
   1.8526E+01   1.8977E+01   1.4035E-05  0.0103
   1.8977E+01   1.9439E+01   1.3546E-05  0.0103
   1.9439E+01   1.9912E+01   1.2758E-05  0.0105
   1.9912E+01   2.0396E+01   1.2096E-05  0.0107
   2.0396E+01   2.0893E+01   1.1515E-05  0.0108
   2.0893E+01   2.1401E+01   1.0803E-05  0.0110
   2.1401E+01   2.1922E+01   1.0043E-05  0.0113
   2.1922E+01   2.2455E+01   9.1356E-06  0.0117
   2.2455E+01   2.3001E+01   8.4439E-06  0.0120
   2.3001E+01   2.3561E+01   7.8205E-06  0.0123
   2.3561E+01   2.4134E+01   7.2079E-06  0.0127
   2.4134E+01   2.4721E+01   6.6791E-06  0.0130
   2.4721E+01   2.5323E+01   6.0383E-06  0.0135
   2.5323E+01   2.5939E+01   5.6363E-06  0.0139
   2.5939E+01   2.6570E+01   5.0366E-06  0.0145
   2.6570E+01   2.7217E+01   4.5993E-06  0.0150
   2.7217E+01   2.7879E+01   4.1417E-06  0.0156
   2.7879E+01   2.8557E+01   3.6748E-06  0.0164
   2.8557E+01   2.9252E+01   3.2622E-06  0.0171
   2.9252E+01   2.9964E+01   2.9759E-06  0.0177
   2.9964E+01   3.0693E+01   2.6052E-06  0.0187
   3.0693E+01   3.1440E+01   2.3934E-06  0.0193
   3.1440E+01   3.2205E+01   2.1178E-06  0.0203
   3.2205E+01   3.2988E+01   1.8624E-06  0.0214
   3.2988E+01   3.3791E+01   1.5557E-06  0.0231
   3.3791E+01   3.4613E+01   1.4969E-06  0.0233
   3.4613E+01   3.5455E+01   1.2318E-06  0.0254
   3.5455E+01   3.6318E+01   1.0348E-06  0.0273
   3.6318E+01   3.7201E+01   9.5137E-07  0.0282
   3.7201E+01   3.8106E+01   8.3302E-07  0.0297
   3.8106E+01   3.9034E+01   7.0610E-07  0.0319
   3.9034E+01   3.9983E+01   6.4932E-07  0.0329
   3.9983E+01   4.0956E+01   5.5645E-07  0.0351
   4.0956E+01   4.1953E+01   4.8704E-07  0.0371
   4.1953E+01   4.2973E+01   4.0493E-07  0.0402
   4.2973E+01   4.4019E+01   3.6152E-07  0.0420
   4.4019E+01   4.5090E+01   3.2928E-07  0.0435
   4.5090E+01   4.6187E+01   3.0505E-07  0.0446
   4.6187E+01   4.7311E+01   2.6221E-07  0.0476
   4.7311E+01   4.8462E+01   2.1371E-07  0.0521
   4.8462E+01   4.9641E+01   1.7131E-07  0.0574
   4.9641E+01   5.0849E+01   1.5069E-07  0.0605
   5.0849E+01   5.2086E+01   1.2771E-07  0.0650
   5.2086E+01   5.3353E+01   1.1626E-07  0.0673
   5.3353E+01   5.4651E+01   8.2170E-08  0.0791
   5.4651E+01   5.5981E+01   8.8741E-08  0.0752
   5.5981E+01   5.7343E+01   6.0692E-08  0.0898
   5.7343E+01   5.8738E+01   4.2527E-08  0.1060
   5.8738E+01   6.0168E+01   3.4053E-08  0.1170
   6.0168E+01   6.1632E+01   2.2770E-08  0.1414
   6.1632E+01   6.3131E+01   1.3782E-08  0.1796
   6.3131E+01   6.4667E+01   1.1285E-08  0.1961
   6.4667E+01   6.6240E+01   7.6268E-09  0.2357
   6.6240E+01   6.7852E+01   5.7910E-09  0.2673
   6.7852E+01   6.9503E+01   2.0191E-09  0.4472
   6.9503E+01   7.1194E+01   7.8846E-10  0.7071
   7.1194E+01   7.2926E+01   0.0000E+00  0.0000
   7.2926E+01   7.4701E+01   0.0000E+00  0.0000
   7.4701E+01   7.6518E+01   0.0000E+00  0.0000
   7.6518E+01   7.8380E+01   0.0000E+00  0.0000
   7.8380E+01   8.0287E+01   0.0000E+00  0.0000
   8.0287E+01   8.2240E+01   0.0000E+00  0.0000
   8.2240E+01   8.4241E+01   0.0000E+00  0.0000
   8.4241E+01   8.6291E+01   0.0000E+00  0.0000
   8.6291E+01   8.8391E+01   0.0000E+00  0.0000
   8.8391E+01   9.0541E+01   0.0000E+00  0.0000
   9.0541E+01   9.2744E+01   0.0000E+00  0.0000
   9.2744E+01   9.5001E+01   0.0000E+00  0.0000
   9.5001E+01   9.7312E+01   0.0000E+00  0.0000
   9.7312E+01   9.9680E+01   0.0000E+00  0.0000
   9.9680E+01   1.0211E+02   0.0000E+00  0.0000
   1.0211E+02   1.0459E+02   0.0000E+00  0.0000
   1.0459E+02   1.0713E+02   0.0000E+00  0.0000
   1.0713E+02   1.0974E+02   0.0000E+00  0.0000
   1.0974E+02   1.1241E+02   0.0000E+00  0.0000
   1.1241E+02   1.1515E+02   0.0000E+00  0.0000
   1.1515E+02   1.1795E+02   0.0000E+00  0.0000
   1.1795E+02   1.2082E+02   0.0000E+00  0.0000
   1.2082E+02   1.2376E+02   0.0000E+00  0.0000
   1.2376E+02   1.2677E+02   0.0000E+00  0.0000
   1.2677E+02   1.2985E+02   0.0000E+00  0.0000
   1.2985E+02   1.3301E+02   0.0000E+00  0.0000
   1.3301E+02   1.3625E+02   0.0000E+00  0.0000
   1.3625E+02   1.3956E+02   0.0000E+00  0.0000
   1.3956E+02   1.4296E+02   0.0000E+00  0.0000
   1.4296E+02   1.4644E+02   0.0000E+00  0.0000
   1.4644E+02   1.5000E+02   0.0000E+00  0.0000

#   sum over                 1.0405E-05
'no. =    1   reg = 114 - 214'
msuc: {\huge [t-cross] in region mesh}
msdr: {\it plotted by \ANGEL \version}
msdl: {\it calculated by \PHITS  3.26}
wt: s(0.7)
\vspace{-3}
  region surface crossing
  area  &=&   1.0000E+00 [cm^2]
e:
 
# Information for Restart Calculation
# This calculation was newly started
# istdev =  2 # 1:Batch variance, 2:History variance
# resc2  = 1.50000000000000000E+09 # Total source weight or Total source weight / maxcas
# resc3  = 1.50000000000000000E+09 # Total history number or Total batch number
# maxcas =   500000000 # History / Batch, only used for istdev=1
# bitrseed = 0000010101110101110110100110011001100101000001100111100100101101 # bit data of rseed
