[ T-Cross ]
    title = [t-cross] in region mesh
     mesh =  reg            # mesh type is region-wise
      reg =    1            # number of crossing regions
      non     r-from    r-to       area
      1       104       204        1.000000    
   e-type =    3            # e-mesh is log given by emin, emax and ne
     emin =  1.0000000E-02  # minimum value of e-mesh points
     emax =   150.0000      # maximum value of e-mesh points
#    edel =  2.4039514E-02  # mesh width of e-mesh points
       ne =    400          # number of e-mesh points
#    data = ( e(i), i = 1, ne + 1 )
#           1.00000E-02  1.02433E-02  1.04925E-02  1.07478E-02  1.10093E-02
#           1.12772E-02  1.15516E-02  1.18326E-02  1.21205E-02  1.24154E-02
#           1.27175E-02  1.30269E-02  1.33439E-02  1.36686E-02  1.40011E-02
#           1.43418E-02  1.46907E-02  1.50482E-02  1.54143E-02  1.57894E-02
#           1.61735E-02  1.65670E-02  1.69701E-02  1.73830E-02  1.78060E-02
#           1.82392E-02  1.86830E-02  1.91375E-02  1.96032E-02  2.00801E-02
#           2.05687E-02  2.10692E-02  2.15818E-02  2.21069E-02  2.26448E-02
#           2.31957E-02  2.37601E-02  2.43382E-02  2.49304E-02  2.55369E-02
#           2.61583E-02  2.67947E-02  2.74467E-02  2.81145E-02  2.87985E-02
#           2.94992E-02  3.02169E-02  3.09521E-02  3.17052E-02  3.24766E-02
#           3.32668E-02  3.40762E-02  3.49053E-02  3.57546E-02  3.66246E-02
#           3.75157E-02  3.84284E-02  3.93634E-02  4.03212E-02  4.13022E-02
#           4.23071E-02  4.33365E-02  4.43909E-02  4.54710E-02  4.65773E-02
#           4.77106E-02  4.88714E-02  5.00605E-02  5.12785E-02  5.25262E-02
#           5.38042E-02  5.51133E-02  5.64542E-02  5.78278E-02  5.92348E-02
#           6.06760E-02  6.21523E-02  6.36645E-02  6.52135E-02  6.68002E-02
#           6.84255E-02  7.00904E-02  7.17957E-02  7.35426E-02  7.53319E-02
#           7.71648E-02  7.90423E-02  8.09655E-02  8.29354E-02  8.49533E-02
#           8.70203E-02  8.91376E-02  9.13064E-02  9.35279E-02  9.58035E-02
#           9.81345E-02  1.00522E-01  1.02968E-01  1.05473E-01  1.08040E-01
#           1.10668E-01  1.13361E-01  1.16119E-01  1.18944E-01  1.21838E-01
#           1.24803E-01  1.27839E-01  1.30950E-01  1.34136E-01  1.37399E-01
#           1.40742E-01  1.44167E-01  1.47675E-01  1.51268E-01  1.54948E-01
#           1.58718E-01  1.62580E-01  1.66535E-01  1.70587E-01  1.74738E-01
#           1.78989E-01  1.83344E-01  1.87805E-01  1.92375E-01  1.97055E-01
#           2.01850E-01  2.06761E-01  2.11792E-01  2.16945E-01  2.22223E-01
#           2.27630E-01  2.33169E-01  2.38842E-01  2.44653E-01  2.50605E-01
#           2.56703E-01  2.62949E-01  2.69346E-01  2.75900E-01  2.82613E-01
#           2.89489E-01  2.96532E-01  3.03747E-01  3.11138E-01  3.18708E-01
#           3.26462E-01  3.34405E-01  3.42542E-01  3.50876E-01  3.59413E-01
#           3.68158E-01  3.77116E-01  3.86291E-01  3.95690E-01  4.05317E-01
#           4.15179E-01  4.25281E-01  4.35628E-01  4.46227E-01  4.57084E-01
#           4.68205E-01  4.79597E-01  4.91266E-01  5.03219E-01  5.15463E-01
#           5.28005E-01  5.40851E-01  5.54011E-01  5.67490E-01  5.81298E-01
#           5.95441E-01  6.09929E-01  6.24769E-01  6.39970E-01  6.55541E-01
#           6.71491E-01  6.87828E-01  7.04564E-01  7.21706E-01  7.39266E-01
#           7.57253E-01  7.75678E-01  7.94551E-01  8.13883E-01  8.33685E-01
#           8.53969E-01  8.74747E-01  8.96030E-01  9.17831E-01  9.40163E-01
#           9.63038E-01  9.86469E-01  1.01047E+00  1.03506E+00  1.06024E+00
#           1.08604E+00  1.11246E+00  1.13953E+00  1.16725E+00  1.19565E+00
#           1.22474E+00  1.25454E+00  1.28507E+00  1.31633E+00  1.34836E+00
#           1.38117E+00  1.41477E+00  1.44920E+00  1.48446E+00  1.52057E+00
#           1.55757E+00  1.59547E+00  1.63429E+00  1.67405E+00  1.71478E+00
#           1.75650E+00  1.79924E+00  1.84302E+00  1.88786E+00  1.93379E+00
#           1.98084E+00  2.02904E+00  2.07841E+00  2.12898E+00  2.18078E+00
#           2.23384E+00  2.28819E+00  2.34386E+00  2.40089E+00  2.45930E+00
#           2.51914E+00  2.58043E+00  2.64322E+00  2.70753E+00  2.77341E+00
#           2.84088E+00  2.91001E+00  2.98081E+00  3.05333E+00  3.12762E+00
#           3.20372E+00  3.28167E+00  3.36152E+00  3.44330E+00  3.52708E+00
#           3.61290E+00  3.70080E+00  3.79085E+00  3.88308E+00  3.97756E+00
#           4.07434E+00  4.17347E+00  4.27501E+00  4.37903E+00  4.48557E+00
#           4.59471E+00  4.70650E+00  4.82102E+00  4.93832E+00  5.05847E+00
#           5.18155E+00  5.30762E+00  5.43676E+00  5.56904E+00  5.70453E+00
#           5.84333E+00  5.98550E+00  6.13114E+00  6.28031E+00  6.43312E+00
#           6.58964E+00  6.74997E+00  6.91420E+00  7.08243E+00  7.25475E+00
#           7.43126E+00  7.61207E+00  7.79728E+00  7.98700E+00  8.18133E+00
#           8.38038E+00  8.58428E+00  8.79315E+00  9.00709E+00  9.22624E+00
#           9.45072E+00  9.68067E+00  9.91620E+00  1.01575E+01  1.04046E+01
#           1.06578E+01  1.09171E+01  1.11827E+01  1.14548E+01  1.17335E+01
#           1.20190E+01  1.23114E+01  1.26109E+01  1.29178E+01  1.32321E+01
#           1.35540E+01  1.38838E+01  1.42216E+01  1.45676E+01  1.49221E+01
#           1.52851E+01  1.56570E+01  1.60380E+01  1.64282E+01  1.68279E+01
#           1.72374E+01  1.76568E+01  1.80864E+01  1.85264E+01  1.89772E+01
#           1.94389E+01  1.99119E+01  2.03963E+01  2.08926E+01  2.14009E+01
#           2.19216E+01  2.24550E+01  2.30014E+01  2.35610E+01  2.41343E+01
#           2.47215E+01  2.53230E+01  2.59391E+01  2.65702E+01  2.72167E+01
#           2.78789E+01  2.85572E+01  2.92520E+01  2.99637E+01  3.06928E+01
#           3.14396E+01  3.22045E+01  3.29881E+01  3.37907E+01  3.46128E+01
#           3.54550E+01  3.63177E+01  3.72013E+01  3.81064E+01  3.90336E+01
#           3.99833E+01  4.09561E+01  4.19526E+01  4.29734E+01  4.40189E+01
#           4.50900E+01  4.61870E+01  4.73108E+01  4.84619E+01  4.96410E+01
#           5.08488E+01  5.20860E+01  5.33533E+01  5.46514E+01  5.59812E+01
#           5.73432E+01  5.87384E+01  6.01676E+01  6.16315E+01  6.31311E+01
#           6.46671E+01  6.62405E+01  6.78522E+01  6.95031E+01  7.11941E+01
#           7.29263E+01  7.47007E+01  7.65182E+01  7.83800E+01  8.02870E+01
#           8.22405E+01  8.42414E+01  8.62911E+01  8.83906E+01  9.05412E+01
#           9.27442E+01  9.50007E+01  9.73122E+01  9.96799E+01  1.02105E+02
#           1.04589E+02  1.07134E+02  1.09741E+02  1.12411E+02  1.15146E+02
#           1.17948E+02  1.20817E+02  1.23757E+02  1.26768E+02  1.29852E+02
#           1.33012E+02  1.36248E+02  1.39563E+02  1.42959E+02  1.46437E+02
#           1.50000E+02
     unit =    2            # unit is [1/cm^2/(MeV/n)/source]
     axis =  eng            # axis of output
     file = detector-05.out  # file name of output for the above axis
   output = f-curr          # surface crossing forward current spectrum
     part =  neutron  
# kf/name :  2112     
#    used :        main (  %)        temp (  %)       total (  %)
#  memory :         414 (  0)           0 (  0)         414 (  0)

#------------------------------------------------------------------------------
#newpage:
#   no. =    1   reg = 104 - 204

x: Energy [MeV/n]
y:  F-Curr [1/cm^2/(MeV/n)/source]         
p: xlog ylog afac(0.8) form(0.9)
h: n            x            y(neutron ),hh0l   n 
#  e-lower      e-upper      neutron     r.err 
   1.0000E-02   1.0243E-02   1.2512E-04  0.1474
   1.0243E-02   1.0493E-02   1.4445E-04  0.1361
   1.0493E-02   1.0748E-02   1.1751E-04  0.1491
   1.0748E-02   1.1009E-02   1.3512E-04  0.1374
   1.1009E-02   1.1277E-02   1.4186E-04  0.1325
   1.1277E-02   1.1552E-02   1.2427E-04  0.1397
   1.1552E-02   1.1833E-02   1.2097E-04  0.1400
   1.1833E-02   1.2121E-02   1.2504E-04  0.1361
   1.2121E-02   1.2415E-02   1.3639E-04  0.1284
   1.2415E-02   1.2718E-02   1.2833E-04  0.1310
   1.2718E-02   1.3027E-02   1.2208E-04  0.1324
   1.3027E-02   1.3344E-02   1.5775E-04  0.1155
   1.3344E-02   1.3669E-02   1.5195E-04  0.1162
   1.3669E-02   1.4001E-02   1.1226E-04  0.1336
   1.4001E-02   1.4342E-02   1.2133E-04  0.1270
   1.4342E-02   1.4691E-02   1.5284E-04  0.1118
   1.4691E-02   1.5048E-02   1.2683E-04  0.1213
   1.5048E-02   1.5414E-02   1.4385E-04  0.1125
   1.5414E-02   1.5789E-02   1.5198E-04  0.1080
   1.5789E-02   1.6174E-02   1.1974E-04  0.1204
   1.6174E-02   1.6567E-02   1.5106E-04  0.1058
   1.6567E-02   1.6970E-02   1.4637E-04  0.1061
   1.6970E-02   1.7383E-02   1.1625E-04  0.1179
   1.7383E-02   1.7806E-02   1.3398E-04  0.1085
   1.7806E-02   1.8239E-02   1.3849E-04  0.1054
   1.8239E-02   1.8683E-02   1.1897E-04  0.1123
   1.8683E-02   1.9138E-02   1.2778E-04  0.1071
   1.9138E-02   1.9603E-02   1.1311E-04  0.1125
   1.9603E-02   2.0080E-02   1.2300E-04  0.1066
   2.0080E-02   2.0569E-02   1.1871E-04  0.1072
   2.0569E-02   2.1069E-02   1.0010E-04  0.1153
   2.1069E-02   2.1582E-02   1.1899E-04  0.1044
   2.1582E-02   2.2107E-02   1.2971E-04  0.0989
   2.2107E-02   2.2645E-02   1.2023E-04  0.1015
   2.2645E-02   2.3196E-02   1.0648E-04  0.1066
   2.3196E-02   2.3760E-02   1.3035E-04  0.0951
   2.3760E-02   2.4338E-02   1.3141E-04  0.0934
   2.4338E-02   2.4930E-02   1.4748E-04  0.0874
   2.4930E-02   2.5537E-02   1.1922E-04  0.0956
   2.5537E-02   2.6158E-02   1.4002E-04  0.0875
   2.6158E-02   2.6795E-02   1.2151E-04  0.0928
   2.6795E-02   2.7447E-02   1.1044E-04  0.0962
   2.7447E-02   2.8114E-02   1.2079E-04  0.0909
   2.8114E-02   2.8799E-02   1.3449E-04  0.0851
   2.8799E-02   2.9499E-02   1.1417E-04  0.0913
   2.9499E-02   3.0217E-02   1.1471E-04  0.0899
   3.0217E-02   3.0952E-02   1.1697E-04  0.0879
   3.0952E-02   3.1705E-02   1.0623E-04  0.0913
   3.1705E-02   3.2477E-02   1.2359E-04  0.0834
   3.2477E-02   3.3267E-02   1.2233E-04  0.0830
   3.3267E-02   3.4076E-02   1.1037E-04  0.0864
   3.4076E-02   3.4905E-02   1.0706E-04  0.0866
   3.4905E-02   3.5755E-02   1.2167E-04  0.0803
   3.5755E-02   3.6625E-02   1.1451E-04  0.0817
   3.6625E-02   3.7516E-02   1.2106E-04  0.0785
   3.7516E-02   3.8428E-02   1.1772E-04  0.0787
   3.8428E-02   3.9363E-02   1.1266E-04  0.0796
   3.9363E-02   4.0321E-02   9.0970E-05  0.0873
   4.0321E-02   4.1302E-02   1.1348E-04  0.0774
   4.1302E-02   4.2307E-02   1.2671E-04  0.0724
   4.2307E-02   4.3337E-02   1.2122E-04  0.0731
   4.3337E-02   4.4391E-02   1.1349E-04  0.0746
   4.4391E-02   4.5471E-02   1.1367E-04  0.0737
   4.5471E-02   4.6577E-02   1.0372E-04  0.0761
   4.6577E-02   4.7711E-02   1.2216E-04  0.0693
   4.7711E-02   4.8871E-02   9.1400E-05  0.0792
   4.8871E-02   5.0061E-02   1.0540E-04  0.0729
   5.0061E-02   5.1279E-02   1.0079E-04  0.0737
   5.1279E-02   5.2526E-02   1.0749E-04  0.0705
   5.2526E-02   5.3804E-02   9.8147E-05  0.0729
   5.3804E-02   5.5113E-02   1.0513E-04  0.0695
   5.5113E-02   5.6454E-02   1.0360E-04  0.0692
   5.6454E-02   5.7828E-02   1.0297E-04  0.0686
   5.7828E-02   5.9235E-02   9.5238E-05  0.0705
   5.9235E-02   6.0676E-02   9.6619E-05  0.0691
   6.0676E-02   6.2152E-02   9.8285E-05  0.0677
   6.2152E-02   6.3665E-02   9.6667E-05  0.0675
   6.3665E-02   6.5214E-02   9.7408E-05  0.0664
   6.5214E-02   6.6800E-02   9.9788E-05  0.0649
   6.6800E-02   6.8426E-02   9.8818E-05  0.0643
   6.8426E-02   7.0090E-02   9.9709E-05  0.0633
   7.0090E-02   7.1796E-02   8.8349E-05  0.0665
   7.1796E-02   7.3543E-02   9.4137E-05  0.0636
   7.3543E-02   7.5332E-02   8.9547E-05  0.0645
   7.5332E-02   7.7165E-02   9.8256E-05  0.0608
   7.7165E-02   7.9042E-02   9.5397E-05  0.0610
   7.9042E-02   8.0965E-02   9.3943E-05  0.0607
   8.0965E-02   8.2935E-02   8.9342E-05  0.0615
   8.2935E-02   8.4953E-02   8.6661E-05  0.0617
   8.4953E-02   8.7020E-02   8.6534E-05  0.0610
   8.7020E-02   8.9138E-02   7.7143E-05  0.0639
   8.9138E-02   9.1306E-02   8.9912E-05  0.0584
   9.1306E-02   9.3528E-02   9.4063E-05  0.0564
   9.3528E-02   9.5804E-02   8.1150E-05  0.0601
   9.5804E-02   9.8134E-02   8.2075E-05  0.0590
   9.8134E-02   1.0052E-01   7.2648E-05  0.0620
   1.0052E-01   1.0297E-01   7.4586E-05  0.0604
   1.0297E-01   1.0547E-01   7.8580E-05  0.0581
   1.0547E-01   1.0804E-01   8.1442E-05  0.0564
   1.0804E-01   1.1067E-01   7.0290E-05  0.0600
   1.1067E-01   1.1336E-01   7.3738E-05  0.0579
   1.1336E-01   1.1612E-01   7.4446E-05  0.0570
   1.1612E-01   1.1894E-01   7.3621E-05  0.0566
   1.1894E-01   1.2184E-01   6.6140E-05  0.0589
   1.2184E-01   1.2480E-01   7.2600E-05  0.0556
   1.2480E-01   1.2784E-01   6.5354E-05  0.0579
   1.2784E-01   1.3095E-01   7.0623E-05  0.0551
   1.3095E-01   1.3414E-01   6.9400E-05  0.0549
   1.3414E-01   1.3740E-01   6.7027E-05  0.0552
   1.3740E-01   1.4074E-01   6.5279E-05  0.0552
   1.4074E-01   1.4417E-01   6.4225E-05  0.0550
   1.4417E-01   1.4767E-01   5.7230E-05  0.0576
   1.4767E-01   1.5127E-01   6.6085E-05  0.0530
   1.5127E-01   1.5495E-01   5.9316E-05  0.0552
   1.5495E-01   1.5872E-01   6.1038E-05  0.0537
   1.5872E-01   1.6258E-01   6.0446E-05  0.0534
   1.6258E-01   1.6654E-01   6.1009E-05  0.0526
   1.6654E-01   1.7059E-01   5.8681E-05  0.0529
   1.7059E-01   1.7474E-01   5.6513E-05  0.0533
   1.7474E-01   1.7899E-01   5.2746E-05  0.0545
   1.7899E-01   1.8334E-01   5.8732E-05  0.0510
   1.8334E-01   1.8781E-01   5.2703E-05  0.0532
   1.8781E-01   1.9237E-01   4.7801E-05  0.0552
   1.9237E-01   1.9706E-01   4.6245E-05  0.0555
   1.9706E-01   2.0185E-01   4.7112E-05  0.0543
   2.0185E-01   2.0676E-01   4.7307E-05  0.0535
   2.0676E-01   2.1179E-01   5.0335E-05  0.0513
   2.1179E-01   2.1694E-01   5.2287E-05  0.0497
   2.1694E-01   2.2222E-01   5.5025E-05  0.0479
   2.2222E-01   2.2763E-01   5.0730E-05  0.0492
   2.2763E-01   2.3317E-01   5.0230E-05  0.0489
   2.3317E-01   2.3884E-01   5.3794E-05  0.0467
   2.3884E-01   2.4465E-01   5.3981E-05  0.0461
   2.4465E-01   2.5061E-01   5.4204E-05  0.0454
   2.5061E-01   2.5670E-01   5.2578E-05  0.0455
   2.5670E-01   2.6295E-01   5.6516E-05  0.0434
   2.6295E-01   2.6935E-01   5.2275E-05  0.0446
   2.6935E-01   2.7590E-01   5.9543E-05  0.0413
   2.7590E-01   2.8261E-01   5.6924E-05  0.0417
   2.8261E-01   2.8949E-01   5.7243E-05  0.0411
   2.8949E-01   2.9653E-01   5.1301E-05  0.0429
   2.9653E-01   3.0375E-01   5.4488E-05  0.0411
   3.0375E-01   3.1114E-01   5.8330E-05  0.0393
   3.1114E-01   3.1871E-01   5.8577E-05  0.0388
   3.1871E-01   3.2646E-01   6.0294E-05  0.0377
   3.2646E-01   3.3441E-01   6.3080E-05  0.0365
   3.3441E-01   3.4254E-01   5.6628E-05  0.0380
   3.4254E-01   3.5088E-01   5.8365E-05  0.0370
   3.5088E-01   3.5941E-01   5.6639E-05  0.0371
   3.5941E-01   3.6816E-01   5.7926E-05  0.0362
   3.6816E-01   3.7712E-01   6.0073E-05  0.0352
   3.7712E-01   3.8629E-01   5.8933E-05  0.0351
   3.8629E-01   3.9569E-01   6.2256E-05  0.0337
   3.9569E-01   4.0532E-01   6.0153E-05  0.0339
   4.0532E-01   4.1518E-01   5.9759E-05  0.0336
   4.1518E-01   4.2528E-01   6.0170E-05  0.0331
   4.2528E-01   4.3563E-01   6.3071E-05  0.0319
   4.3563E-01   4.4623E-01   6.3165E-05  0.0315
   4.4623E-01   4.5708E-01   6.1694E-05  0.0315
   4.5708E-01   4.6821E-01   6.3618E-05  0.0307
   4.6821E-01   4.7960E-01   6.2103E-05  0.0307
   4.7960E-01   4.9127E-01   5.9577E-05  0.0310
   4.9127E-01   5.0322E-01   6.1419E-05  0.0301
   5.0322E-01   5.1546E-01   6.0933E-05  0.0299
   5.1546E-01   5.2800E-01   6.4863E-05  0.0286
   5.2800E-01   5.4085E-01   6.4170E-05  0.0284
   5.4085E-01   5.5401E-01   6.3888E-05  0.0281
   5.5401E-01   5.6749E-01   6.4897E-05  0.0276
   5.6749E-01   5.8130E-01   6.5362E-05  0.0272
   5.8130E-01   5.9544E-01   6.5691E-05  0.0268
   5.9544E-01   6.0993E-01   6.6413E-05  0.0263
   6.0993E-01   6.2477E-01   6.7098E-05  0.0258
   6.2477E-01   6.3997E-01   6.1810E-05  0.0266
   6.3997E-01   6.5554E-01   6.6683E-05  0.0253
   6.5554E-01   6.7149E-01   6.6724E-05  0.0250
   6.7149E-01   6.8783E-01   6.5974E-05  0.0248
   6.8783E-01   7.0456E-01   6.5792E-05  0.0246
   7.0456E-01   7.2171E-01   6.8791E-05  0.0238
   7.2171E-01   7.3927E-01   6.3511E-05  0.0244
   7.3927E-01   7.5725E-01   6.6046E-05  0.0237
   7.5725E-01   7.7568E-01   6.5160E-05  0.0235
   7.7568E-01   7.9455E-01   6.8240E-05  0.0227
   7.9455E-01   8.1388E-01   6.5254E-05  0.0230
   8.1388E-01   8.3368E-01   6.7210E-05  0.0224
   8.3368E-01   8.5397E-01   6.3660E-05  0.0227
   8.5397E-01   8.7475E-01   6.2088E-05  0.0227
   8.7475E-01   8.9603E-01   6.3943E-05  0.0221
   8.9603E-01   9.1783E-01   6.5538E-05  0.0216
   9.1783E-01   9.4016E-01   6.3263E-05  0.0217
   9.4016E-01   9.6304E-01   6.3019E-05  0.0215
   9.6304E-01   9.8647E-01   6.0734E-05  0.0216
   9.8647E-01   1.0105E+00   6.2153E-05  0.0211
   1.0105E+00   1.0351E+00   6.2256E-05  0.0209
   1.0351E+00   1.0602E+00   6.0019E-05  0.0210
   1.0602E+00   1.0860E+00   6.0218E-05  0.0207
   1.0860E+00   1.1125E+00   6.0421E-05  0.0204
   1.1125E+00   1.1395E+00   6.1404E-05  0.0200
   1.1395E+00   1.1673E+00   6.0863E-05  0.0199
   1.1673E+00   1.1957E+00   5.9395E-05  0.0199
   1.1957E+00   1.2247E+00   6.0530E-05  0.0194
   1.2247E+00   1.2545E+00   5.9907E-05  0.0193
   1.2545E+00   1.2851E+00   5.7462E-05  0.0195
   1.2851E+00   1.3163E+00   5.9400E-05  0.0189
   1.3163E+00   1.3484E+00   5.9496E-05  0.0187
   1.3484E+00   1.3812E+00   5.7722E-05  0.0187
   1.3812E+00   1.4148E+00   5.5535E-05  0.0189
   1.4148E+00   1.4492E+00   5.7805E-05  0.0183
   1.4492E+00   1.4845E+00   5.5636E-05  0.0184
   1.4845E+00   1.5206E+00   5.5651E-05  0.0182
   1.5206E+00   1.5576E+00   5.8189E-05  0.0176
   1.5576E+00   1.5955E+00   5.6121E-05  0.0177
   1.5955E+00   1.6343E+00   5.5149E-05  0.0176
   1.6343E+00   1.6741E+00   5.5771E-05  0.0173
   1.6741E+00   1.7148E+00   5.5066E-05  0.0172
   1.7148E+00   1.7565E+00   5.4518E-05  0.0171
   1.7565E+00   1.7992E+00   5.5252E-05  0.0168
   1.7992E+00   1.8430E+00   5.4345E-05  0.0167
   1.8430E+00   1.8879E+00   5.4004E-05  0.0166
   1.8879E+00   1.9338E+00   5.3174E-05  0.0165
   1.9338E+00   1.9808E+00   5.4419E-05  0.0161
   1.9808E+00   2.0290E+00   5.3990E-05  0.0160
   2.0290E+00   2.0784E+00   5.2908E-05  0.0160
   2.0784E+00   2.1290E+00   5.2841E-05  0.0158
   2.1290E+00   2.1808E+00   5.3052E-05  0.0156
   2.1808E+00   2.2338E+00   5.3036E-05  0.0154
   2.2338E+00   2.2882E+00   5.2198E-05  0.0153
   2.2882E+00   2.3439E+00   5.1223E-05  0.0153
   2.3439E+00   2.4009E+00   5.2545E-05  0.0149
   2.4009E+00   2.4593E+00   5.2223E-05  0.0148
   2.4593E+00   2.5191E+00   5.0519E-05  0.0148
   2.5191E+00   2.5804E+00   5.1165E-05  0.0146
   2.5804E+00   2.6432E+00   5.1273E-05  0.0144
   2.6432E+00   2.7075E+00   5.0218E-05  0.0143
   2.7075E+00   2.7734E+00   5.0140E-05  0.0142
   2.7734E+00   2.8409E+00   4.9534E-05  0.0141
   2.8409E+00   2.9100E+00   4.9127E-05  0.0140
   2.9100E+00   2.9808E+00   4.9790E-05  0.0137
   2.9808E+00   3.0533E+00   4.8354E-05  0.0138
   3.0533E+00   3.1276E+00   4.9322E-05  0.0135
   3.1276E+00   3.2037E+00   4.8068E-05  0.0135
   3.2037E+00   3.2817E+00   4.7955E-05  0.0133
   3.2817E+00   3.3615E+00   4.8370E-05  0.0131
   3.3615E+00   3.4433E+00   4.7618E-05  0.0131
   3.4433E+00   3.5271E+00   4.7728E-05  0.0129
   3.5271E+00   3.6129E+00   4.6799E-05  0.0129
   3.6129E+00   3.7008E+00   4.7823E-05  0.0126
   3.7008E+00   3.7908E+00   4.5923E-05  0.0127
   3.7908E+00   3.8831E+00   4.5656E-05  0.0126
   3.8831E+00   3.9776E+00   4.5356E-05  0.0125
   3.9776E+00   4.0743E+00   4.5363E-05  0.0123
   4.0743E+00   4.1735E+00   4.5859E-05  0.0121
   4.1735E+00   4.2750E+00   4.4823E-05  0.0121
   4.2750E+00   4.3790E+00   4.4016E-05  0.0121
   4.3790E+00   4.4856E+00   4.3937E-05  0.0119
   4.4856E+00   4.5947E+00   4.5538E-05  0.0116
   4.5947E+00   4.7065E+00   4.5296E-05  0.0115
   4.7065E+00   4.8210E+00   4.4557E-05  0.0114
   4.8210E+00   4.9383E+00   4.6227E-05  0.0111
   4.9383E+00   5.0585E+00   4.3967E-05  0.0112
   5.0585E+00   5.1815E+00   4.5383E-05  0.0109
   5.1815E+00   5.3076E+00   4.4214E-05  0.0109
   5.3076E+00   5.4368E+00   4.4131E-05  0.0108
   5.4368E+00   5.5690E+00   4.4588E-05  0.0106
   5.5690E+00   5.7045E+00   4.4824E-05  0.0105
   5.7045E+00   5.8433E+00   4.3803E-05  0.0105
   5.8433E+00   5.9855E+00   4.4039E-05  0.0103
   5.9855E+00   6.1311E+00   4.3787E-05  0.0102
   6.1311E+00   6.2803E+00   4.3687E-05  0.0101
   6.2803E+00   6.4331E+00   4.3754E-05  0.0100
   6.4331E+00   6.5896E+00   4.3551E-05  0.0099
   6.5896E+00   6.7500E+00   4.3577E-05  0.0098
   6.7500E+00   6.9142E+00   4.3428E-05  0.0097
   6.9142E+00   7.0824E+00   4.3396E-05  0.0096
   7.0824E+00   7.2548E+00   4.3914E-05  0.0094
   7.2548E+00   7.4313E+00   4.3588E-05  0.0093
   7.4313E+00   7.6121E+00   4.3272E-05  0.0092
   7.6121E+00   7.7973E+00   4.3924E-05  0.0090
   7.7973E+00   7.9870E+00   4.3925E-05  0.0089
   7.9870E+00   8.1813E+00   4.4078E-05  0.0088
   8.1813E+00   8.3804E+00   4.4363E-05  0.0087
   8.3804E+00   8.5843E+00   4.4601E-05  0.0086
   8.5843E+00   8.7931E+00   4.4202E-05  0.0085
   8.7931E+00   9.0071E+00   4.5182E-05  0.0083
   9.0071E+00   9.2262E+00   4.5260E-05  0.0082
   9.2262E+00   9.4507E+00   4.5938E-05  0.0080
   9.4507E+00   9.6807E+00   4.6089E-05  0.0079
   9.6807E+00   9.9162E+00   4.6375E-05  0.0078
   9.9162E+00   1.0157E+01   4.6354E-05  0.0077
   1.0157E+01   1.0405E+01   4.6814E-05  0.0076
   1.0405E+01   1.0658E+01   4.7859E-05  0.0074
   1.0658E+01   1.0917E+01   4.8929E-05  0.0072
   1.0917E+01   1.1183E+01   4.9671E-05  0.0071
   1.1183E+01   1.1455E+01   5.0328E-05  0.0070
   1.1455E+01   1.1733E+01   5.0698E-05  0.0069
   1.1733E+01   1.2019E+01   5.1732E-05  0.0067
   1.2019E+01   1.2311E+01   5.2976E-05  0.0066
   1.2311E+01   1.2611E+01   5.3757E-05  0.0064
   1.2611E+01   1.2918E+01   5.5184E-05  0.0063
   1.2918E+01   1.3232E+01   5.5453E-05  0.0062
   1.3232E+01   1.3554E+01   5.6778E-05  0.0060
   1.3554E+01   1.3884E+01   5.8585E-05  0.0059
   1.3884E+01   1.4222E+01   5.9874E-05  0.0057
   1.4222E+01   1.4568E+01   6.1378E-05  0.0056
   1.4568E+01   1.4922E+01   6.3480E-05  0.0054
   1.4922E+01   1.5285E+01   6.4946E-05  0.0053
   1.5285E+01   1.5657E+01   6.6336E-05  0.0052
   1.5657E+01   1.6038E+01   6.8563E-05  0.0051
   1.6038E+01   1.6428E+01   7.0825E-05  0.0049
   1.6428E+01   1.6828E+01   7.2940E-05  0.0048
   1.6828E+01   1.7237E+01   7.4977E-05  0.0047
   1.7237E+01   1.7657E+01   7.7411E-05  0.0045
   1.7657E+01   1.8086E+01   8.0076E-05  0.0044
   1.8086E+01   1.8526E+01   8.2699E-05  0.0043
   1.8526E+01   1.8977E+01   8.5872E-05  0.0042
   1.8977E+01   1.9439E+01   9.0011E-05  0.0040
   1.9439E+01   1.9912E+01   9.2223E-05  0.0039
   1.9912E+01   2.0396E+01   9.6575E-05  0.0038
   2.0396E+01   2.0893E+01   9.9753E-05  0.0037
   2.0893E+01   2.1401E+01   1.0431E-04  0.0035
   2.1401E+01   2.1922E+01   1.0781E-04  0.0034
   2.1922E+01   2.2455E+01   1.1173E-04  0.0033
   2.2455E+01   2.3001E+01   1.1610E-04  0.0032
   2.3001E+01   2.3561E+01   1.2100E-04  0.0031
   2.3561E+01   2.4134E+01   1.2510E-04  0.0030
   2.4134E+01   2.4721E+01   1.3009E-04  0.0030
   2.4721E+01   2.5323E+01   1.3486E-04  0.0029
   2.5323E+01   2.5939E+01   1.3885E-04  0.0028
   2.5939E+01   2.6570E+01   1.4351E-04  0.0027
   2.6570E+01   2.7217E+01   1.4716E-04  0.0026
   2.7217E+01   2.7879E+01   1.4989E-04  0.0026
   2.7879E+01   2.8557E+01   1.5329E-04  0.0025
   2.8557E+01   2.9252E+01   1.5537E-04  0.0025
   2.9252E+01   2.9964E+01   1.5595E-04  0.0025
   2.9964E+01   3.0693E+01   1.5710E-04  0.0024
   3.0693E+01   3.1440E+01   1.5599E-04  0.0024
   3.1440E+01   3.2205E+01   1.5472E-04  0.0024
   3.2205E+01   3.2988E+01   1.5198E-04  0.0024
   3.2988E+01   3.3791E+01   1.4813E-04  0.0024
   3.3791E+01   3.4613E+01   1.4418E-04  0.0024
   3.4613E+01   3.5455E+01   1.3864E-04  0.0024
   3.5455E+01   3.6318E+01   1.3186E-04  0.0024
   3.6318E+01   3.7201E+01   1.2486E-04  0.0025
   3.7201E+01   3.8106E+01   1.1770E-04  0.0025
   3.8106E+01   3.9034E+01   1.0999E-04  0.0026
   3.9034E+01   3.9983E+01   1.0182E-04  0.0026
   3.9983E+01   4.0956E+01   9.3736E-05  0.0027
   4.0956E+01   4.1953E+01   8.5514E-05  0.0028
   4.1953E+01   4.2973E+01   7.8107E-05  0.0029
   4.2973E+01   4.4019E+01   7.0567E-05  0.0030
   4.4019E+01   4.5090E+01   6.4082E-05  0.0031
   4.5090E+01   4.6187E+01   5.7231E-05  0.0033
   4.6187E+01   4.7311E+01   5.1280E-05  0.0034
   4.7311E+01   4.8462E+01   4.5895E-05  0.0036
   4.8462E+01   4.9641E+01   4.0956E-05  0.0037
   4.9641E+01   5.0849E+01   3.6425E-05  0.0039
   5.0849E+01   5.2086E+01   3.1996E-05  0.0041
   5.2086E+01   5.3353E+01   2.8550E-05  0.0043
   5.3353E+01   5.4651E+01   2.5938E-05  0.0044
   5.4651E+01   5.5981E+01   2.3490E-05  0.0046
   5.5981E+01   5.7343E+01   2.1060E-05  0.0048
   5.7343E+01   5.8738E+01   1.9121E-05  0.0050
   5.8738E+01   6.0168E+01   1.7157E-05  0.0052
   6.0168E+01   6.1632E+01   1.5470E-05  0.0054
   6.1632E+01   6.3131E+01   1.4487E-05  0.0055
   6.3131E+01   6.4667E+01   1.3439E-05  0.0057
   6.4667E+01   6.6240E+01   1.2736E-05  0.0058
   6.6240E+01   6.7852E+01   1.2032E-05  0.0059
   6.7852E+01   6.9503E+01   1.1330E-05  0.0060
   6.9503E+01   7.1194E+01   1.0114E-05  0.0062
   7.1194E+01   7.2926E+01   8.6783E-06  0.0067
   7.2926E+01   7.4701E+01   7.3540E-06  0.0071
   7.4701E+01   7.6518E+01   6.1721E-06  0.0077
   7.6518E+01   7.8380E+01   5.2037E-06  0.0083
   7.8380E+01   8.0287E+01   3.8842E-06  0.0095
   8.0287E+01   8.2240E+01   2.6794E-06  0.0113
   8.2240E+01   8.4241E+01   1.2587E-06  0.0163
   8.4241E+01   8.6291E+01   4.4885E-07  0.0269
   8.6291E+01   8.8391E+01   7.1127E-08  0.0668
   8.8391E+01   9.0541E+01   0.0000E+00  0.0000
   9.0541E+01   9.2744E+01   0.0000E+00  0.0000
   9.2744E+01   9.5001E+01   0.0000E+00  0.0000
   9.5001E+01   9.7312E+01   0.0000E+00  0.0000
   9.7312E+01   9.9680E+01   0.0000E+00  0.0000
   9.9680E+01   1.0211E+02   0.0000E+00  0.0000
   1.0211E+02   1.0459E+02   0.0000E+00  0.0000
   1.0459E+02   1.0713E+02   0.0000E+00  0.0000
   1.0713E+02   1.0974E+02   0.0000E+00  0.0000
   1.0974E+02   1.1241E+02   0.0000E+00  0.0000
   1.1241E+02   1.1515E+02   0.0000E+00  0.0000
   1.1515E+02   1.1795E+02   0.0000E+00  0.0000
   1.1795E+02   1.2082E+02   0.0000E+00  0.0000
   1.2082E+02   1.2376E+02   0.0000E+00  0.0000
   1.2376E+02   1.2677E+02   0.0000E+00  0.0000
   1.2677E+02   1.2985E+02   0.0000E+00  0.0000
   1.2985E+02   1.3301E+02   0.0000E+00  0.0000
   1.3301E+02   1.3625E+02   0.0000E+00  0.0000
   1.3625E+02   1.3956E+02   0.0000E+00  0.0000
   1.3956E+02   1.4296E+02   0.0000E+00  0.0000
   1.4296E+02   1.4644E+02   0.0000E+00  0.0000
   1.4644E+02   1.5000E+02   0.0000E+00  0.0000

#   sum over                 3.2702E-05
'no. =    1   reg = 104 - 204'
msuc: {\huge [t-cross] in region mesh}
msdr: {\it plotted by \ANGEL \version}
msdl: {\it calculated by \PHITS  3.26}
wt: s(0.7)
\vspace{-3}
  region surface crossing
  area  &=&   1.0000E+00 [cm^2]
e:
 
# Information for Restart Calculation
# This calculation was newly started
# istdev =  2 # 1:Batch variance, 2:History variance
# resc2  = 1.50000000000000000E+09 # Total source weight or Total source weight / maxcas
# resc3  = 1.50000000000000000E+09 # Total history number or Total batch number
# maxcas =   500000000 # History / Batch, only used for istdev=1
# bitrseed = 0000010101110101110110100110011001100101000001100111100100101101 # bit data of rseed
