[ T-Cross ]
    title = [t-cross] in region mesh
     mesh =  reg            # mesh type is region-wise
      reg =    1            # number of crossing regions
      non     r-from    r-to       area
      1       116       216        1.000000    
   e-type =    3            # e-mesh is log given by emin, emax and ne
     emin =  1.0000000E-02  # minimum value of e-mesh points
     emax =   150.0000      # maximum value of e-mesh points
#    edel =  2.4039514E-02  # mesh width of e-mesh points
       ne =    400          # number of e-mesh points
#    data = ( e(i), i = 1, ne + 1 )
#           1.00000E-02  1.02433E-02  1.04925E-02  1.07478E-02  1.10093E-02
#           1.12772E-02  1.15516E-02  1.18326E-02  1.21205E-02  1.24154E-02
#           1.27175E-02  1.30269E-02  1.33439E-02  1.36686E-02  1.40011E-02
#           1.43418E-02  1.46907E-02  1.50482E-02  1.54143E-02  1.57894E-02
#           1.61735E-02  1.65670E-02  1.69701E-02  1.73830E-02  1.78060E-02
#           1.82392E-02  1.86830E-02  1.91375E-02  1.96032E-02  2.00801E-02
#           2.05687E-02  2.10692E-02  2.15818E-02  2.21069E-02  2.26448E-02
#           2.31957E-02  2.37601E-02  2.43382E-02  2.49304E-02  2.55369E-02
#           2.61583E-02  2.67947E-02  2.74467E-02  2.81145E-02  2.87985E-02
#           2.94992E-02  3.02169E-02  3.09521E-02  3.17052E-02  3.24766E-02
#           3.32668E-02  3.40762E-02  3.49053E-02  3.57546E-02  3.66246E-02
#           3.75157E-02  3.84284E-02  3.93634E-02  4.03212E-02  4.13022E-02
#           4.23071E-02  4.33365E-02  4.43909E-02  4.54710E-02  4.65773E-02
#           4.77106E-02  4.88714E-02  5.00605E-02  5.12785E-02  5.25262E-02
#           5.38042E-02  5.51133E-02  5.64542E-02  5.78278E-02  5.92348E-02
#           6.06760E-02  6.21523E-02  6.36645E-02  6.52135E-02  6.68002E-02
#           6.84255E-02  7.00904E-02  7.17957E-02  7.35426E-02  7.53319E-02
#           7.71648E-02  7.90423E-02  8.09655E-02  8.29354E-02  8.49533E-02
#           8.70203E-02  8.91376E-02  9.13064E-02  9.35279E-02  9.58035E-02
#           9.81345E-02  1.00522E-01  1.02968E-01  1.05473E-01  1.08040E-01
#           1.10668E-01  1.13361E-01  1.16119E-01  1.18944E-01  1.21838E-01
#           1.24803E-01  1.27839E-01  1.30950E-01  1.34136E-01  1.37399E-01
#           1.40742E-01  1.44167E-01  1.47675E-01  1.51268E-01  1.54948E-01
#           1.58718E-01  1.62580E-01  1.66535E-01  1.70587E-01  1.74738E-01
#           1.78989E-01  1.83344E-01  1.87805E-01  1.92375E-01  1.97055E-01
#           2.01850E-01  2.06761E-01  2.11792E-01  2.16945E-01  2.22223E-01
#           2.27630E-01  2.33169E-01  2.38842E-01  2.44653E-01  2.50605E-01
#           2.56703E-01  2.62949E-01  2.69346E-01  2.75900E-01  2.82613E-01
#           2.89489E-01  2.96532E-01  3.03747E-01  3.11138E-01  3.18708E-01
#           3.26462E-01  3.34405E-01  3.42542E-01  3.50876E-01  3.59413E-01
#           3.68158E-01  3.77116E-01  3.86291E-01  3.95690E-01  4.05317E-01
#           4.15179E-01  4.25281E-01  4.35628E-01  4.46227E-01  4.57084E-01
#           4.68205E-01  4.79597E-01  4.91266E-01  5.03219E-01  5.15463E-01
#           5.28005E-01  5.40851E-01  5.54011E-01  5.67490E-01  5.81298E-01
#           5.95441E-01  6.09929E-01  6.24769E-01  6.39970E-01  6.55541E-01
#           6.71491E-01  6.87828E-01  7.04564E-01  7.21706E-01  7.39266E-01
#           7.57253E-01  7.75678E-01  7.94551E-01  8.13883E-01  8.33685E-01
#           8.53969E-01  8.74747E-01  8.96030E-01  9.17831E-01  9.40163E-01
#           9.63038E-01  9.86469E-01  1.01047E+00  1.03506E+00  1.06024E+00
#           1.08604E+00  1.11246E+00  1.13953E+00  1.16725E+00  1.19565E+00
#           1.22474E+00  1.25454E+00  1.28507E+00  1.31633E+00  1.34836E+00
#           1.38117E+00  1.41477E+00  1.44920E+00  1.48446E+00  1.52057E+00
#           1.55757E+00  1.59547E+00  1.63429E+00  1.67405E+00  1.71478E+00
#           1.75650E+00  1.79924E+00  1.84302E+00  1.88786E+00  1.93379E+00
#           1.98084E+00  2.02904E+00  2.07841E+00  2.12898E+00  2.18078E+00
#           2.23384E+00  2.28819E+00  2.34386E+00  2.40089E+00  2.45930E+00
#           2.51914E+00  2.58043E+00  2.64322E+00  2.70753E+00  2.77341E+00
#           2.84088E+00  2.91001E+00  2.98081E+00  3.05333E+00  3.12762E+00
#           3.20372E+00  3.28167E+00  3.36152E+00  3.44330E+00  3.52708E+00
#           3.61290E+00  3.70080E+00  3.79085E+00  3.88308E+00  3.97756E+00
#           4.07434E+00  4.17347E+00  4.27501E+00  4.37903E+00  4.48557E+00
#           4.59471E+00  4.70650E+00  4.82102E+00  4.93832E+00  5.05847E+00
#           5.18155E+00  5.30762E+00  5.43676E+00  5.56904E+00  5.70453E+00
#           5.84333E+00  5.98550E+00  6.13114E+00  6.28031E+00  6.43312E+00
#           6.58964E+00  6.74997E+00  6.91420E+00  7.08243E+00  7.25475E+00
#           7.43126E+00  7.61207E+00  7.79728E+00  7.98700E+00  8.18133E+00
#           8.38038E+00  8.58428E+00  8.79315E+00  9.00709E+00  9.22624E+00
#           9.45072E+00  9.68067E+00  9.91620E+00  1.01575E+01  1.04046E+01
#           1.06578E+01  1.09171E+01  1.11827E+01  1.14548E+01  1.17335E+01
#           1.20190E+01  1.23114E+01  1.26109E+01  1.29178E+01  1.32321E+01
#           1.35540E+01  1.38838E+01  1.42216E+01  1.45676E+01  1.49221E+01
#           1.52851E+01  1.56570E+01  1.60380E+01  1.64282E+01  1.68279E+01
#           1.72374E+01  1.76568E+01  1.80864E+01  1.85264E+01  1.89772E+01
#           1.94389E+01  1.99119E+01  2.03963E+01  2.08926E+01  2.14009E+01
#           2.19216E+01  2.24550E+01  2.30014E+01  2.35610E+01  2.41343E+01
#           2.47215E+01  2.53230E+01  2.59391E+01  2.65702E+01  2.72167E+01
#           2.78789E+01  2.85572E+01  2.92520E+01  2.99637E+01  3.06928E+01
#           3.14396E+01  3.22045E+01  3.29881E+01  3.37907E+01  3.46128E+01
#           3.54550E+01  3.63177E+01  3.72013E+01  3.81064E+01  3.90336E+01
#           3.99833E+01  4.09561E+01  4.19526E+01  4.29734E+01  4.40189E+01
#           4.50900E+01  4.61870E+01  4.73108E+01  4.84619E+01  4.96410E+01
#           5.08488E+01  5.20860E+01  5.33533E+01  5.46514E+01  5.59812E+01
#           5.73432E+01  5.87384E+01  6.01676E+01  6.16315E+01  6.31311E+01
#           6.46671E+01  6.62405E+01  6.78522E+01  6.95031E+01  7.11941E+01
#           7.29263E+01  7.47007E+01  7.65182E+01  7.83800E+01  8.02870E+01
#           8.22405E+01  8.42414E+01  8.62911E+01  8.83906E+01  9.05412E+01
#           9.27442E+01  9.50007E+01  9.73122E+01  9.96799E+01  1.02105E+02
#           1.04589E+02  1.07134E+02  1.09741E+02  1.12411E+02  1.15146E+02
#           1.17948E+02  1.20817E+02  1.23757E+02  1.26768E+02  1.29852E+02
#           1.33012E+02  1.36248E+02  1.39563E+02  1.42959E+02  1.46437E+02
#           1.50000E+02
     unit =    2            # unit is [1/cm^2/(MeV/n)/source]
     axis =  eng            # axis of output
     file = detector-17.out  # file name of output for the above axis
   output = f-curr          # surface crossing forward current spectrum
     part =  neutron  
# kf/name :  2112     
#    used :        main (  %)        temp (  %)       total (  %)
#  memory :         414 (  0)           0 (  0)         414 (  0)

#------------------------------------------------------------------------------
#newpage:
#   no. =    1   reg = 116 - 216

x: Energy [MeV/n]
y:  F-Curr [1/cm^2/(MeV/n)/source]         
p: xlog ylog afac(0.8) form(0.9)
h: n            x            y(neutron ),hh0l   n 
#  e-lower      e-upper      neutron     r.err 
   1.0000E-02   1.0243E-02   6.2198E-04  0.0664
   1.0243E-02   1.0493E-02   6.3665E-04  0.0647
   1.0493E-02   1.0748E-02   6.5546E-04  0.0631
   1.0748E-02   1.1009E-02   6.3642E-04  0.0632
   1.1009E-02   1.1277E-02   5.9556E-04  0.0646
   1.1277E-02   1.1552E-02   6.4823E-04  0.0612
   1.1552E-02   1.1833E-02   6.8109E-04  0.0590
   1.1833E-02   1.2121E-02   6.3954E-04  0.0602
   1.2121E-02   1.2415E-02   6.6280E-04  0.0584
   1.2415E-02   1.2718E-02   6.4515E-04  0.0584
   1.2718E-02   1.3027E-02   6.1366E-04  0.0592
   1.3027E-02   1.3344E-02   6.6500E-04  0.0562
   1.3344E-02   1.3669E-02   5.8859E-04  0.0590
   1.3669E-02   1.4001E-02   5.4090E-04  0.0608
   1.4001E-02   1.4342E-02   5.9628E-04  0.0573
   1.4342E-02   1.4691E-02   6.2316E-04  0.0553
   1.4691E-02   1.5048E-02   5.5581E-04  0.0579
   1.5048E-02   1.5414E-02   5.9699E-04  0.0552
   1.5414E-02   1.5789E-02   6.2037E-04  0.0535
   1.5789E-02   1.6174E-02   5.8343E-04  0.0545
   1.6174E-02   1.6567E-02   6.1412E-04  0.0525
   1.6567E-02   1.6970E-02   5.4765E-04  0.0549
   1.6970E-02   1.7383E-02   5.9366E-04  0.0521
   1.7383E-02   1.7806E-02   5.5771E-04  0.0531
   1.7806E-02   1.8239E-02   6.0014E-04  0.0506
   1.8239E-02   1.8683E-02   6.1124E-04  0.0495
   1.8683E-02   1.9138E-02   5.8245E-04  0.0502
   1.9138E-02   1.9603E-02   5.5887E-04  0.0506
   1.9603E-02   2.0080E-02   5.7718E-04  0.0491
   2.0080E-02   2.0569E-02   5.8607E-04  0.0482
   2.0569E-02   2.1069E-02   5.8517E-04  0.0477
   2.1069E-02   2.1582E-02   5.9212E-04  0.0469
   2.1582E-02   2.2107E-02   5.5418E-04  0.0478
   2.2107E-02   2.2645E-02   6.4663E-04  0.0437
   2.2645E-02   2.3196E-02   5.3380E-04  0.0476
   2.3196E-02   2.3760E-02   6.1738E-04  0.0437
   2.3760E-02   2.4338E-02   5.5744E-04  0.0454
   2.4338E-02   2.4930E-02   5.7696E-04  0.0441
   2.4930E-02   2.5537E-02   5.9091E-04  0.0431
   2.5537E-02   2.6158E-02   5.8741E-04  0.0427
   2.6158E-02   2.6795E-02   5.2839E-04  0.0445
   2.6795E-02   2.7447E-02   5.3737E-04  0.0436
   2.7447E-02   2.8114E-02   5.7960E-04  0.0415
   2.8114E-02   2.8799E-02   5.5218E-04  0.0420
   2.8799E-02   2.9499E-02   5.3900E-04  0.0420
   2.9499E-02   3.0217E-02   5.5559E-04  0.0409
   3.0217E-02   3.0952E-02   5.4562E-04  0.0407
   3.0952E-02   3.1705E-02   5.4018E-04  0.0405
   3.1705E-02   3.2477E-02   5.4417E-04  0.0398
   3.2477E-02   3.3267E-02   5.2134E-04  0.0402
   3.3267E-02   3.4076E-02   5.1183E-04  0.0401
   3.4076E-02   3.4905E-02   5.3407E-04  0.0388
   3.4905E-02   3.5755E-02   5.3623E-04  0.0382
   3.5755E-02   3.6625E-02   5.2632E-04  0.0381
   3.6625E-02   3.7516E-02   5.2083E-04  0.0379
   3.7516E-02   3.8428E-02   5.1955E-04  0.0375
   3.8428E-02   3.9363E-02   5.2311E-04  0.0369
   3.9363E-02   4.0321E-02   5.0048E-04  0.0373
   4.0321E-02   4.1302E-02   5.0167E-04  0.0368
   4.1302E-02   4.2307E-02   4.9017E-04  0.0368
   4.2307E-02   4.3337E-02   4.6046E-04  0.0375
   4.3337E-02   4.4391E-02   4.6597E-04  0.0368
   4.4391E-02   4.5471E-02   4.8779E-04  0.0356
   4.5471E-02   4.6577E-02   5.0449E-04  0.0345
   4.6577E-02   4.7711E-02   4.7342E-04  0.0352
   4.7711E-02   4.8871E-02   5.0008E-04  0.0339
   4.8871E-02   5.0061E-02   4.4719E-04  0.0354
   5.0061E-02   5.1279E-02   4.6935E-04  0.0341
   5.1279E-02   5.2526E-02   4.5071E-04  0.0344
   5.2526E-02   5.3804E-02   4.8632E-04  0.0327
   5.3804E-02   5.5113E-02   4.7731E-04  0.0326
   5.5113E-02   5.6454E-02   4.7165E-04  0.0324
   5.6454E-02   5.7828E-02   4.5371E-04  0.0327
   5.7828E-02   5.9235E-02   4.5221E-04  0.0324
   5.9235E-02   6.0676E-02   4.6301E-04  0.0316
   6.0676E-02   6.2152E-02   4.3802E-04  0.0321
   6.2152E-02   6.3665E-02   4.1563E-04  0.0325
   6.3665E-02   6.5214E-02   4.3609E-04  0.0314
   6.5214E-02   6.6800E-02   4.2503E-04  0.0314
   6.6800E-02   6.8426E-02   4.3142E-04  0.0308
   6.8426E-02   7.0090E-02   4.2010E-04  0.0308
   7.0090E-02   7.1796E-02   3.8967E-04  0.0316
   7.1796E-02   7.3543E-02   4.1412E-04  0.0303
   7.3543E-02   7.5332E-02   4.1216E-04  0.0300
   7.5332E-02   7.7165E-02   3.9799E-04  0.0302
   7.7165E-02   7.9042E-02   3.9624E-04  0.0299
   7.9042E-02   8.0965E-02   3.9759E-04  0.0295
   8.0965E-02   8.2935E-02   3.9184E-04  0.0294
   8.2935E-02   8.4953E-02   3.9864E-04  0.0288
   8.4953E-02   8.7020E-02   3.7856E-04  0.0292
   8.7020E-02   8.9138E-02   3.6319E-04  0.0294
   8.9138E-02   9.1306E-02   3.7901E-04  0.0285
   9.1306E-02   9.3528E-02   3.6805E-04  0.0285
   9.3528E-02   9.5804E-02   3.5073E-04  0.0289
   9.5804E-02   9.8134E-02   3.4305E-04  0.0288
   9.8134E-02   1.0052E-01   3.4784E-04  0.0283
   1.0052E-01   1.0297E-01   3.4415E-04  0.0281
   1.0297E-01   1.0547E-01   3.3673E-04  0.0281
   1.0547E-01   1.0804E-01   3.4493E-04  0.0274
   1.0804E-01   1.1067E-01   3.2781E-04  0.0278
   1.1067E-01   1.1336E-01   3.3698E-04  0.0271
   1.1336E-01   1.1612E-01   3.3145E-04  0.0270
   1.1612E-01   1.1894E-01   3.2192E-04  0.0271
   1.1894E-01   1.2184E-01   3.0626E-04  0.0274
   1.2184E-01   1.2480E-01   2.9188E-04  0.0277
   1.2480E-01   1.2784E-01   3.1015E-04  0.0266
   1.2784E-01   1.3095E-01   2.9440E-04  0.0269
   1.3095E-01   1.3414E-01   2.8495E-04  0.0271
   1.3414E-01   1.3740E-01   2.9345E-04  0.0264
   1.3740E-01   1.4074E-01   2.7756E-04  0.0268
   1.4074E-01   1.4417E-01   2.7452E-04  0.0266
   1.4417E-01   1.4767E-01   2.6046E-04  0.0270
   1.4767E-01   1.5127E-01   2.5425E-04  0.0270
   1.5127E-01   1.5495E-01   2.5557E-04  0.0266
   1.5495E-01   1.5872E-01   2.5600E-04  0.0263
   1.5872E-01   1.6258E-01   2.3078E-04  0.0273
   1.6258E-01   1.6654E-01   2.4488E-04  0.0262
   1.6654E-01   1.7059E-01   2.2230E-04  0.0272
   1.7059E-01   1.7474E-01   2.3561E-04  0.0261
   1.7474E-01   1.7899E-01   2.3260E-04  0.0259
   1.7899E-01   1.8334E-01   2.1873E-04  0.0264
   1.8334E-01   1.8781E-01   2.0181E-04  0.0272
   1.8781E-01   1.9237E-01   2.1103E-04  0.0263
   1.9237E-01   1.9706E-01   2.0316E-04  0.0265
   1.9706E-01   2.0185E-01   1.9995E-04  0.0263
   2.0185E-01   2.0676E-01   2.1617E-04  0.0250
   2.0676E-01   2.1179E-01   1.9977E-04  0.0257
   2.1179E-01   2.1694E-01   2.1262E-04  0.0246
   2.1694E-01   2.2222E-01   2.0592E-04  0.0247
   2.2222E-01   2.2763E-01   2.2172E-04  0.0236
   2.2763E-01   2.3317E-01   2.2793E-04  0.0230
   2.3317E-01   2.3884E-01   2.2177E-04  0.0230
   2.3884E-01   2.4465E-01   2.2710E-04  0.0225
   2.4465E-01   2.5061E-01   2.4028E-04  0.0216
   2.5061E-01   2.5670E-01   2.3427E-04  0.0216
   2.5670E-01   2.6295E-01   2.3417E-04  0.0213
   2.6295E-01   2.6935E-01   2.4293E-04  0.0207
   2.6935E-01   2.7590E-01   2.5093E-04  0.0201
   2.7590E-01   2.8261E-01   2.5306E-04  0.0198
   2.8261E-01   2.8949E-01   2.6283E-04  0.0192
   2.8949E-01   2.9653E-01   2.5643E-04  0.0192
   2.9653E-01   3.0375E-01   2.7033E-04  0.0185
   3.0375E-01   3.1114E-01   2.7531E-04  0.0181
   3.1114E-01   3.1871E-01   2.7595E-04  0.0179
   3.1871E-01   3.2646E-01   2.7570E-04  0.0176
   3.2646E-01   3.3441E-01   2.8684E-04  0.0171
   3.3441E-01   3.4254E-01   2.8412E-04  0.0170
   3.4254E-01   3.5088E-01   2.9118E-04  0.0166
   3.5088E-01   3.5941E-01   3.0233E-04  0.0161
   3.5941E-01   3.6816E-01   3.0231E-04  0.0159
   3.6816E-01   3.7712E-01   2.9560E-04  0.0159
   3.7712E-01   3.8629E-01   2.9845E-04  0.0156
   3.8629E-01   3.9569E-01   3.1346E-04  0.0150
   3.9569E-01   4.0532E-01   3.0765E-04  0.0150
   4.0532E-01   4.1518E-01   3.1939E-04  0.0145
   4.1518E-01   4.2528E-01   3.1228E-04  0.0145
   4.2528E-01   4.3563E-01   3.2914E-04  0.0140
   4.3563E-01   4.4623E-01   3.1815E-04  0.0140
   4.4623E-01   4.5708E-01   3.2676E-04  0.0137
   4.5708E-01   4.6821E-01   3.3418E-04  0.0134
   4.6821E-01   4.7960E-01   3.3751E-04  0.0131
   4.7960E-01   4.9127E-01   3.4412E-04  0.0129
   4.9127E-01   5.0322E-01   3.3480E-04  0.0129
   5.0322E-01   5.1546E-01   3.3858E-04  0.0127
   5.1546E-01   5.2800E-01   3.4531E-04  0.0124
   5.2800E-01   5.4085E-01   3.3974E-04  0.0123
   5.4085E-01   5.5401E-01   3.5018E-04  0.0120
   5.5401E-01   5.6749E-01   3.4660E-04  0.0119
   5.6749E-01   5.8130E-01   3.5700E-04  0.0116
   5.8130E-01   5.9544E-01   3.5331E-04  0.0115
   5.9544E-01   6.0993E-01   3.5472E-04  0.0114
   6.0993E-01   6.2477E-01   3.5359E-04  0.0113
   6.2477E-01   6.3997E-01   3.5702E-04  0.0111
   6.3997E-01   6.5554E-01   3.5371E-04  0.0110
   6.5554E-01   6.7149E-01   3.6102E-04  0.0107
   6.7149E-01   6.8783E-01   3.5920E-04  0.0106
   6.8783E-01   7.0456E-01   3.6405E-04  0.0104
   7.0456E-01   7.2171E-01   3.5747E-04  0.0104
   7.2171E-01   7.3927E-01   3.6478E-04  0.0102
   7.3927E-01   7.5725E-01   3.5773E-04  0.0102
   7.5725E-01   7.7568E-01   3.5947E-04  0.0100
   7.7568E-01   7.9455E-01   3.5950E-04  0.0099
   7.9455E-01   8.1388E-01   3.5932E-04  0.0098
   8.1388E-01   8.3368E-01   3.5691E-04  0.0097
   8.3368E-01   8.5397E-01   3.5855E-04  0.0096
   8.5397E-01   8.7475E-01   3.4944E-04  0.0096
   8.7475E-01   8.9603E-01   3.5277E-04  0.0094
   8.9603E-01   9.1783E-01   3.5062E-04  0.0093
   9.1783E-01   9.4016E-01   3.3790E-04  0.0094
   9.4016E-01   9.6304E-01   3.3573E-04  0.0093
   9.6304E-01   9.8647E-01   3.2690E-04  0.0093
   9.8647E-01   1.0105E+00   3.2153E-04  0.0093
   1.0105E+00   1.0351E+00   3.2088E-04  0.0092
   1.0351E+00   1.0602E+00   3.2060E-04  0.0091
   1.0602E+00   1.0860E+00   3.2335E-04  0.0089
   1.0860E+00   1.1125E+00   3.1820E-04  0.0089
   1.1125E+00   1.1395E+00   3.2148E-04  0.0087
   1.1395E+00   1.1673E+00   3.1619E-04  0.0087
   1.1673E+00   1.1957E+00   3.2745E-04  0.0085
   1.1957E+00   1.2247E+00   3.2865E-04  0.0083
   1.2247E+00   1.2545E+00   3.2865E-04  0.0082
   1.2545E+00   1.2851E+00   3.3148E-04  0.0081
   1.2851E+00   1.3163E+00   3.3041E-04  0.0080
   1.3163E+00   1.3484E+00   3.2610E-04  0.0080
   1.3484E+00   1.3812E+00   3.3699E-04  0.0077
   1.3812E+00   1.4148E+00   3.3119E-04  0.0077
   1.4148E+00   1.4492E+00   3.3871E-04  0.0075
   1.4492E+00   1.4845E+00   3.2978E-04  0.0076
   1.4845E+00   1.5206E+00   3.2564E-04  0.0075
   1.5206E+00   1.5576E+00   3.2820E-04  0.0074
   1.5576E+00   1.5955E+00   3.2501E-04  0.0073
   1.5955E+00   1.6343E+00   3.2129E-04  0.0073
   1.6343E+00   1.6741E+00   3.2541E-04  0.0072
   1.6741E+00   1.7148E+00   3.2272E-04  0.0071
   1.7148E+00   1.7565E+00   3.1831E-04  0.0071
   1.7565E+00   1.7992E+00   3.2212E-04  0.0069
   1.7992E+00   1.8430E+00   3.1808E-04  0.0069
   1.8430E+00   1.8879E+00   3.1558E-04  0.0068
   1.8879E+00   1.9338E+00   3.1181E-04  0.0068
   1.9338E+00   1.9808E+00   3.0912E-04  0.0068
   1.9808E+00   2.0290E+00   3.0649E-04  0.0067
   2.0290E+00   2.0784E+00   3.0320E-04  0.0067
   2.0784E+00   2.1290E+00   2.9520E-04  0.0067
   2.1290E+00   2.1808E+00   2.9346E-04  0.0066
   2.1808E+00   2.2338E+00   2.8857E-04  0.0066
   2.2338E+00   2.2882E+00   2.7810E-04  0.0066
   2.2882E+00   2.3439E+00   2.7622E-04  0.0066
   2.3439E+00   2.4009E+00   2.7344E-04  0.0065
   2.4009E+00   2.4593E+00   2.7105E-04  0.0065
   2.4593E+00   2.5191E+00   2.6873E-04  0.0064
   2.5191E+00   2.5804E+00   2.5792E-04  0.0065
   2.5804E+00   2.6432E+00   2.5592E-04  0.0064
   2.6432E+00   2.7075E+00   2.5461E-04  0.0064
   2.7075E+00   2.7734E+00   2.4634E-04  0.0064
   2.7734E+00   2.8409E+00   2.3676E-04  0.0064
   2.8409E+00   2.9100E+00   2.3763E-04  0.0064
   2.9100E+00   2.9808E+00   2.3267E-04  0.0063
   2.9808E+00   3.0533E+00   2.2643E-04  0.0064
   3.0533E+00   3.1276E+00   2.1856E-04  0.0064
   3.1276E+00   3.2037E+00   2.1391E-04  0.0064
   3.2037E+00   3.2817E+00   2.1082E-04  0.0063
   3.2817E+00   3.3615E+00   2.0487E-04  0.0064
   3.3615E+00   3.4433E+00   1.9890E-04  0.0064
   3.4433E+00   3.5271E+00   1.9420E-04  0.0064
   3.5271E+00   3.6129E+00   1.8998E-04  0.0064
   3.6129E+00   3.7008E+00   1.8550E-04  0.0064
   3.7008E+00   3.7908E+00   1.8065E-04  0.0064
   3.7908E+00   3.8831E+00   1.7377E-04  0.0064
   3.8831E+00   3.9776E+00   1.6973E-04  0.0064
   3.9776E+00   4.0743E+00   1.6618E-04  0.0064
   4.0743E+00   4.1735E+00   1.6123E-04  0.0064
   4.1735E+00   4.2750E+00   1.5883E-04  0.0064
   4.2750E+00   4.3790E+00   1.5446E-04  0.0064
   4.3790E+00   4.4856E+00   1.4780E-04  0.0065
   4.4856E+00   4.5947E+00   1.4246E-04  0.0065
   4.5947E+00   4.7065E+00   1.3864E-04  0.0065
   4.7065E+00   4.8210E+00   1.3487E-04  0.0066
   4.8210E+00   4.9383E+00   1.2975E-04  0.0066
   4.9383E+00   5.0585E+00   1.2564E-04  0.0066
   5.0585E+00   5.1815E+00   1.2190E-04  0.0067
   5.1815E+00   5.3076E+00   1.1660E-04  0.0067
   5.3076E+00   5.4368E+00   1.1210E-04  0.0068
   5.4368E+00   5.5690E+00   1.0862E-04  0.0068
   5.5690E+00   5.7045E+00   1.0541E-04  0.0068
   5.7045E+00   5.8433E+00   1.0075E-04  0.0069
   5.8433E+00   5.9855E+00   9.5707E-05  0.0070
   5.9855E+00   6.1311E+00   9.2112E-05  0.0070
   6.1311E+00   6.2803E+00   9.0331E-05  0.0070
   6.2803E+00   6.4331E+00   8.6066E-05  0.0071
   6.4331E+00   6.5896E+00   8.0771E-05  0.0072
   6.5896E+00   6.7500E+00   7.8875E-05  0.0072
   6.7500E+00   6.9142E+00   7.4657E-05  0.0074
   6.9142E+00   7.0824E+00   7.0421E-05  0.0075
   7.0824E+00   7.2548E+00   6.7523E-05  0.0076
   7.2548E+00   7.4313E+00   6.4940E-05  0.0076
   7.4313E+00   7.6121E+00   6.1455E-05  0.0077
   7.6121E+00   7.7973E+00   5.7188E-05  0.0079
   7.7973E+00   7.9870E+00   5.3772E-05  0.0081
   7.9870E+00   8.1813E+00   5.1282E-05  0.0082
   8.1813E+00   8.3804E+00   4.8942E-05  0.0083
   8.3804E+00   8.5843E+00   4.6777E-05  0.0083
   8.5843E+00   8.7931E+00   4.3812E-05  0.0085
   8.7931E+00   9.0071E+00   4.2621E-05  0.0085
   9.0071E+00   9.2262E+00   3.9647E-05  0.0087
   9.2262E+00   9.4507E+00   3.7395E-05  0.0089
   9.4507E+00   9.6807E+00   3.5308E-05  0.0091
   9.6807E+00   9.9162E+00   3.3435E-05  0.0092
   9.9162E+00   1.0157E+01   3.1905E-05  0.0093
   1.0157E+01   1.0405E+01   3.0201E-05  0.0094
   1.0405E+01   1.0658E+01   2.9444E-05  0.0094
   1.0658E+01   1.0917E+01   2.8080E-05  0.0096
   1.0917E+01   1.1183E+01   2.6397E-05  0.0097
   1.1183E+01   1.1455E+01   2.5741E-05  0.0097
   1.1455E+01   1.1733E+01   2.3540E-05  0.0101
   1.1733E+01   1.2019E+01   2.2464E-05  0.0102
   1.2019E+01   1.2311E+01   2.1169E-05  0.0104
   1.2311E+01   1.2611E+01   1.9604E-05  0.0106
   1.2611E+01   1.2918E+01   1.8556E-05  0.0108
   1.2918E+01   1.3232E+01   1.8018E-05  0.0108
   1.3232E+01   1.3554E+01   1.6499E-05  0.0112
   1.3554E+01   1.3884E+01   1.5730E-05  0.0113
   1.3884E+01   1.4222E+01   1.4968E-05  0.0115
   1.4222E+01   1.4568E+01   1.4043E-05  0.0117
   1.4568E+01   1.4922E+01   1.3366E-05  0.0119
   1.4922E+01   1.5285E+01   1.2421E-05  0.0122
   1.5285E+01   1.5657E+01   1.1400E-05  0.0125
   1.5657E+01   1.6038E+01   1.0679E-05  0.0128
   1.6038E+01   1.6428E+01   9.7409E-06  0.0132
   1.6428E+01   1.6828E+01   9.2196E-06  0.0134
   1.6828E+01   1.7237E+01   8.4446E-06  0.0139
   1.7237E+01   1.7657E+01   8.0110E-06  0.0141
   1.7657E+01   1.8086E+01   7.6087E-06  0.0143
   1.8086E+01   1.8526E+01   6.8608E-06  0.0149
   1.8526E+01   1.8977E+01   6.5814E-06  0.0150
   1.8977E+01   1.9439E+01   6.0228E-06  0.0155
   1.9439E+01   1.9912E+01   5.6314E-06  0.0158
   1.9912E+01   2.0396E+01   5.1066E-06  0.0164
   2.0396E+01   2.0893E+01   4.8523E-06  0.0166
   2.0893E+01   2.1401E+01   4.2754E-06  0.0175
   2.1401E+01   2.1922E+01   3.8832E-06  0.0182
   2.1922E+01   2.2455E+01   3.3910E-06  0.0192
   2.2455E+01   2.3001E+01   3.0859E-06  0.0199
   2.3001E+01   2.3561E+01   2.9424E-06  0.0201
   2.3561E+01   2.4134E+01   2.6399E-06  0.0210
   2.4134E+01   2.4721E+01   2.2706E-06  0.0224
   2.4721E+01   2.5323E+01   2.0793E-06  0.0231
   2.5323E+01   2.5939E+01   1.7637E-06  0.0248
   2.5939E+01   2.6570E+01   1.6394E-06  0.0254
   2.6570E+01   2.7217E+01   1.4365E-06  0.0268
   2.7217E+01   2.7879E+01   1.1890E-06  0.0291
   2.7879E+01   2.8557E+01   1.1303E-06  0.0295
   2.8557E+01   2.9252E+01   9.8155E-07  0.0313
   2.9252E+01   2.9964E+01   8.4583E-07  0.0333
   2.9964E+01   3.0693E+01   7.5167E-07  0.0349
   3.0693E+01   3.1440E+01   6.5704E-07  0.0369
   3.1440E+01   3.2205E+01   5.4296E-07  0.0401
   3.2205E+01   3.2988E+01   4.6199E-07  0.0429
   3.2988E+01   3.3791E+01   4.3939E-07  0.0435
   3.3791E+01   3.4613E+01   3.6571E-07  0.0471
   3.4613E+01   3.5455E+01   3.3723E-07  0.0485
   3.5455E+01   3.6318E+01   2.6585E-07  0.0539
   3.6318E+01   3.7201E+01   2.5802E-07  0.0541
   3.7201E+01   3.8106E+01   2.1875E-07  0.0580
   3.8106E+01   3.9034E+01   2.0924E-07  0.0586
   3.9034E+01   3.9983E+01   1.8602E-07  0.0614
   3.9983E+01   4.0956E+01   1.5693E-07  0.0661
   4.0956E+01   4.1953E+01   1.4384E-07  0.0682
   4.1953E+01   4.2973E+01   1.2017E-07  0.0737
   4.2973E+01   4.4019E+01   1.1158E-07  0.0756
   4.4019E+01   4.5090E+01   8.9012E-08  0.0836
   4.5090E+01   4.6187E+01   8.5075E-08  0.0845
   4.6187E+01   4.7311E+01   5.6951E-08  0.1021
   4.7311E+01   4.8462E+01   5.6178E-08  0.1015
   4.8462E+01   4.9641E+01   3.5620E-08  0.1260
   4.9641E+01   5.0849E+01   3.5326E-08  0.1250
   5.0849E+01   5.2086E+01   2.2093E-08  0.1562
   5.2086E+01   5.3353E+01   1.8938E-08  0.1667
   5.3353E+01   5.4651E+01   1.7461E-08  0.1715
   5.4651E+01   5.5981E+01   1.3537E-08  0.1925
   5.5981E+01   5.7343E+01   9.2996E-09  0.2294
   5.7343E+01   5.8738E+01   1.0034E-08  0.2182
   5.8738E+01   6.0168E+01   5.5977E-09  0.2887
   6.0168E+01   6.1632E+01   4.0986E-09  0.3333
   6.1632E+01   6.3131E+01   2.6675E-09  0.4082
   6.3131E+01   6.4667E+01   0.0000E+00  0.0000
   6.4667E+01   6.6240E+01   8.4742E-10  0.7071
   6.6240E+01   6.7852E+01   4.1365E-10  1.0000
   6.7852E+01   6.9503E+01   4.0382E-10  1.0000
   6.9503E+01   7.1194E+01   0.0000E+00  0.0000
   7.1194E+01   7.2926E+01   0.0000E+00  0.0000
   7.2926E+01   7.4701E+01   0.0000E+00  0.0000
   7.4701E+01   7.6518E+01   0.0000E+00  0.0000
   7.6518E+01   7.8380E+01   0.0000E+00  0.0000
   7.8380E+01   8.0287E+01   0.0000E+00  0.0000
   8.0287E+01   8.2240E+01   0.0000E+00  0.0000
   8.2240E+01   8.4241E+01   0.0000E+00  0.0000
   8.4241E+01   8.6291E+01   0.0000E+00  0.0000
   8.6291E+01   8.8391E+01   0.0000E+00  0.0000
   8.8391E+01   9.0541E+01   0.0000E+00  0.0000
   9.0541E+01   9.2744E+01   0.0000E+00  0.0000
   9.2744E+01   9.5001E+01   0.0000E+00  0.0000
   9.5001E+01   9.7312E+01   0.0000E+00  0.0000
   9.7312E+01   9.9680E+01   0.0000E+00  0.0000
   9.9680E+01   1.0211E+02   0.0000E+00  0.0000
   1.0211E+02   1.0459E+02   0.0000E+00  0.0000
   1.0459E+02   1.0713E+02   0.0000E+00  0.0000
   1.0713E+02   1.0974E+02   0.0000E+00  0.0000
   1.0974E+02   1.1241E+02   0.0000E+00  0.0000
   1.1241E+02   1.1515E+02   0.0000E+00  0.0000
   1.1515E+02   1.1795E+02   0.0000E+00  0.0000
   1.1795E+02   1.2082E+02   0.0000E+00  0.0000
   1.2082E+02   1.2376E+02   0.0000E+00  0.0000
   1.2376E+02   1.2677E+02   0.0000E+00  0.0000
   1.2677E+02   1.2985E+02   0.0000E+00  0.0000
   1.2985E+02   1.3301E+02   0.0000E+00  0.0000
   1.3301E+02   1.3625E+02   0.0000E+00  0.0000
   1.3625E+02   1.3956E+02   0.0000E+00  0.0000
   1.3956E+02   1.4296E+02   0.0000E+00  0.0000
   1.4296E+02   1.4644E+02   0.0000E+00  0.0000
   1.4644E+02   1.5000E+02   0.0000E+00  0.0000

#   sum over                 1.1782E-05
'no. =    1   reg = 116 - 216'
msuc: {\huge [t-cross] in region mesh}
msdr: {\it plotted by \ANGEL \version}
msdl: {\it calculated by \PHITS  3.26}
wt: s(0.7)
\vspace{-3}
  region surface crossing
  area  &=&   1.0000E+00 [cm^2]
e:
 
# Information for Restart Calculation
# This calculation was newly started
# istdev =  2 # 1:Batch variance, 2:History variance
# resc2  = 1.50000000000000000E+09 # Total source weight or Total source weight / maxcas
# resc3  = 1.50000000000000000E+09 # Total history number or Total batch number
# maxcas =   500000000 # History / Batch, only used for istdev=1
# bitrseed = 0000010101110101110110100110011001100101000001100111100100101101 # bit data of rseed
