0 <--- number of remaining batches 

-------------------------------------------------------------------------------
bat[      50] ncas =     5000000000.
 bitrseed = 1010100001101100001010110100011000011010110011110100001101011000
          cpu time =  17 m. 47.61 s.

 date = 2022-04-28
 time = 01h 20m 00s

