[ T-Cross ]
    title = [t-cross] in region mesh
     mesh =  reg            # mesh type is region-wise
      reg =    1            # number of crossing regions
      non     r-from    r-to       area
      1       121       221        1.000000    
   e-type =    3            # e-mesh is log given by emin, emax and ne
     emin =  1.0000000E-02  # minimum value of e-mesh points
     emax =   150.0000      # maximum value of e-mesh points
#    edel =  2.4039514E-02  # mesh width of e-mesh points
       ne =    400          # number of e-mesh points
#    data = ( e(i), i = 1, ne + 1 )
#           1.00000E-02  1.02433E-02  1.04925E-02  1.07478E-02  1.10093E-02
#           1.12772E-02  1.15516E-02  1.18326E-02  1.21205E-02  1.24154E-02
#           1.27175E-02  1.30269E-02  1.33439E-02  1.36686E-02  1.40011E-02
#           1.43418E-02  1.46907E-02  1.50482E-02  1.54143E-02  1.57894E-02
#           1.61735E-02  1.65670E-02  1.69701E-02  1.73830E-02  1.78060E-02
#           1.82392E-02  1.86830E-02  1.91375E-02  1.96032E-02  2.00801E-02
#           2.05687E-02  2.10692E-02  2.15818E-02  2.21069E-02  2.26448E-02
#           2.31957E-02  2.37601E-02  2.43382E-02  2.49304E-02  2.55369E-02
#           2.61583E-02  2.67947E-02  2.74467E-02  2.81145E-02  2.87985E-02
#           2.94992E-02  3.02169E-02  3.09521E-02  3.17052E-02  3.24766E-02
#           3.32668E-02  3.40762E-02  3.49053E-02  3.57546E-02  3.66246E-02
#           3.75157E-02  3.84284E-02  3.93634E-02  4.03212E-02  4.13022E-02
#           4.23071E-02  4.33365E-02  4.43909E-02  4.54710E-02  4.65773E-02
#           4.77106E-02  4.88714E-02  5.00605E-02  5.12785E-02  5.25262E-02
#           5.38042E-02  5.51133E-02  5.64542E-02  5.78278E-02  5.92348E-02
#           6.06760E-02  6.21523E-02  6.36645E-02  6.52135E-02  6.68002E-02
#           6.84255E-02  7.00904E-02  7.17957E-02  7.35426E-02  7.53319E-02
#           7.71648E-02  7.90423E-02  8.09655E-02  8.29354E-02  8.49533E-02
#           8.70203E-02  8.91376E-02  9.13064E-02  9.35279E-02  9.58035E-02
#           9.81345E-02  1.00522E-01  1.02968E-01  1.05473E-01  1.08040E-01
#           1.10668E-01  1.13361E-01  1.16119E-01  1.18944E-01  1.21838E-01
#           1.24803E-01  1.27839E-01  1.30950E-01  1.34136E-01  1.37399E-01
#           1.40742E-01  1.44167E-01  1.47675E-01  1.51268E-01  1.54948E-01
#           1.58718E-01  1.62580E-01  1.66535E-01  1.70587E-01  1.74738E-01
#           1.78989E-01  1.83344E-01  1.87805E-01  1.92375E-01  1.97055E-01
#           2.01850E-01  2.06761E-01  2.11792E-01  2.16945E-01  2.22223E-01
#           2.27630E-01  2.33169E-01  2.38842E-01  2.44653E-01  2.50605E-01
#           2.56703E-01  2.62949E-01  2.69346E-01  2.75900E-01  2.82613E-01
#           2.89489E-01  2.96532E-01  3.03747E-01  3.11138E-01  3.18708E-01
#           3.26462E-01  3.34405E-01  3.42542E-01  3.50876E-01  3.59413E-01
#           3.68158E-01  3.77116E-01  3.86291E-01  3.95690E-01  4.05317E-01
#           4.15179E-01  4.25281E-01  4.35628E-01  4.46227E-01  4.57084E-01
#           4.68205E-01  4.79597E-01  4.91266E-01  5.03219E-01  5.15463E-01
#           5.28005E-01  5.40851E-01  5.54011E-01  5.67490E-01  5.81298E-01
#           5.95441E-01  6.09929E-01  6.24769E-01  6.39970E-01  6.55541E-01
#           6.71491E-01  6.87828E-01  7.04564E-01  7.21706E-01  7.39266E-01
#           7.57253E-01  7.75678E-01  7.94551E-01  8.13883E-01  8.33685E-01
#           8.53969E-01  8.74747E-01  8.96030E-01  9.17831E-01  9.40163E-01
#           9.63038E-01  9.86469E-01  1.01047E+00  1.03506E+00  1.06024E+00
#           1.08604E+00  1.11246E+00  1.13953E+00  1.16725E+00  1.19565E+00
#           1.22474E+00  1.25454E+00  1.28507E+00  1.31633E+00  1.34836E+00
#           1.38117E+00  1.41477E+00  1.44920E+00  1.48446E+00  1.52057E+00
#           1.55757E+00  1.59547E+00  1.63429E+00  1.67405E+00  1.71478E+00
#           1.75650E+00  1.79924E+00  1.84302E+00  1.88786E+00  1.93379E+00
#           1.98084E+00  2.02904E+00  2.07841E+00  2.12898E+00  2.18078E+00
#           2.23384E+00  2.28819E+00  2.34386E+00  2.40089E+00  2.45930E+00
#           2.51914E+00  2.58043E+00  2.64322E+00  2.70753E+00  2.77341E+00
#           2.84088E+00  2.91001E+00  2.98081E+00  3.05333E+00  3.12762E+00
#           3.20372E+00  3.28167E+00  3.36152E+00  3.44330E+00  3.52708E+00
#           3.61290E+00  3.70080E+00  3.79085E+00  3.88308E+00  3.97756E+00
#           4.07434E+00  4.17347E+00  4.27501E+00  4.37903E+00  4.48557E+00
#           4.59471E+00  4.70650E+00  4.82102E+00  4.93832E+00  5.05847E+00
#           5.18155E+00  5.30762E+00  5.43676E+00  5.56904E+00  5.70453E+00
#           5.84333E+00  5.98550E+00  6.13114E+00  6.28031E+00  6.43312E+00
#           6.58964E+00  6.74997E+00  6.91420E+00  7.08243E+00  7.25475E+00
#           7.43126E+00  7.61207E+00  7.79728E+00  7.98700E+00  8.18133E+00
#           8.38038E+00  8.58428E+00  8.79315E+00  9.00709E+00  9.22624E+00
#           9.45072E+00  9.68067E+00  9.91620E+00  1.01575E+01  1.04046E+01
#           1.06578E+01  1.09171E+01  1.11827E+01  1.14548E+01  1.17335E+01
#           1.20190E+01  1.23114E+01  1.26109E+01  1.29178E+01  1.32321E+01
#           1.35540E+01  1.38838E+01  1.42216E+01  1.45676E+01  1.49221E+01
#           1.52851E+01  1.56570E+01  1.60380E+01  1.64282E+01  1.68279E+01
#           1.72374E+01  1.76568E+01  1.80864E+01  1.85264E+01  1.89772E+01
#           1.94389E+01  1.99119E+01  2.03963E+01  2.08926E+01  2.14009E+01
#           2.19216E+01  2.24550E+01  2.30014E+01  2.35610E+01  2.41343E+01
#           2.47215E+01  2.53230E+01  2.59391E+01  2.65702E+01  2.72167E+01
#           2.78789E+01  2.85572E+01  2.92520E+01  2.99637E+01  3.06928E+01
#           3.14396E+01  3.22045E+01  3.29881E+01  3.37907E+01  3.46128E+01
#           3.54550E+01  3.63177E+01  3.72013E+01  3.81064E+01  3.90336E+01
#           3.99833E+01  4.09561E+01  4.19526E+01  4.29734E+01  4.40189E+01
#           4.50900E+01  4.61870E+01  4.73108E+01  4.84619E+01  4.96410E+01
#           5.08488E+01  5.20860E+01  5.33533E+01  5.46514E+01  5.59812E+01
#           5.73432E+01  5.87384E+01  6.01676E+01  6.16315E+01  6.31311E+01
#           6.46671E+01  6.62405E+01  6.78522E+01  6.95031E+01  7.11941E+01
#           7.29263E+01  7.47007E+01  7.65182E+01  7.83800E+01  8.02870E+01
#           8.22405E+01  8.42414E+01  8.62911E+01  8.83906E+01  9.05412E+01
#           9.27442E+01  9.50007E+01  9.73122E+01  9.96799E+01  1.02105E+02
#           1.04589E+02  1.07134E+02  1.09741E+02  1.12411E+02  1.15146E+02
#           1.17948E+02  1.20817E+02  1.23757E+02  1.26768E+02  1.29852E+02
#           1.33012E+02  1.36248E+02  1.39563E+02  1.42959E+02  1.46437E+02
#           1.50000E+02
     unit =    2            # unit is [1/cm^2/(MeV/n)/source]
     axis =  eng            # axis of output
     file = detector-22.out  # file name of output for the above axis
   output = f-curr          # surface crossing forward current spectrum
     part =  neutron  
# kf/name :  2112     
#    used :        main (  %)        temp (  %)       total (  %)
#  memory :         414 (  0)           0 (  0)         414 (  0)

#------------------------------------------------------------------------------
#newpage:
#   no. =    1   reg = 121 - 221

x: Energy [MeV/n]
y:  F-Curr [1/cm^2/(MeV/n)/source]         
p: xlog ylog afac(0.8) form(0.9)
h: n            x            y(neutron ),hh0l   n 
#  e-lower      e-upper      neutron     r.err 
   1.0000E-02   1.0243E-02   7.8090E-04  0.1026
   1.0243E-02   1.0493E-02   7.3558E-04  0.1042
   1.0493E-02   1.0748E-02   7.6043E-04  0.1011
   1.0748E-02   1.1009E-02   7.4932E-04  0.1007
   1.1009E-02   1.1277E-02   5.2265E-04  0.1195
   1.1277E-02   1.1552E-02   7.0363E-04  0.1016
   1.1552E-02   1.1833E-02   6.4183E-04  0.1052
   1.1833E-02   1.2121E-02   5.8811E-04  0.1084
   1.2121E-02   1.2415E-02   6.2504E-04  0.1041
   1.2415E-02   1.2718E-02   4.9686E-04  0.1149
   1.2718E-02   1.3027E-02   6.3343E-04  0.1010
   1.3027E-02   1.3344E-02   6.0676E-04  0.1019
   1.3344E-02   1.3669E-02   4.6513E-04  0.1148
   1.3669E-02   1.4001E-02   5.4317E-04  0.1051
   1.4001E-02   1.4342E-02   4.8142E-04  0.1104
   1.4342E-02   1.4691E-02   3.7255E-04  0.1240
   1.4691E-02   1.5048E-02   4.7758E-04  0.1081
   1.5048E-02   1.5414E-02   5.3532E-04  0.1008
   1.5414E-02   1.5789E-02   4.3987E-04  0.1098
   1.5789E-02   1.6174E-02   4.9090E-04  0.1028
   1.6174E-02   1.6567E-02   5.0316E-04  0.1005
   1.6567E-02   1.6970E-02   3.6880E-04  0.1158
   1.6970E-02   1.7383E-02   4.1750E-04  0.1076
   1.7383E-02   1.7806E-02   4.1079E-04  0.1070
   1.7806E-02   1.8239E-02   4.0757E-04  0.1063
   1.8239E-02   1.8683E-02   4.2456E-04  0.1029
   1.8683E-02   1.9138E-02   4.1578E-04  0.1027
   1.9138E-02   1.9603E-02   3.3718E-04  0.1127
   1.9603E-02   2.0080E-02   4.2481E-04  0.0992
   2.0080E-02   2.0569E-02   3.4703E-04  0.1083
   2.0569E-02   2.1069E-02   3.8045E-04  0.1024
   2.1069E-02   2.1582E-02   3.8039E-04  0.1011
   2.1582E-02   2.2107E-02   3.4780E-04  0.1045
   2.2107E-02   2.2645E-02   3.7418E-04  0.0995
   2.2645E-02   2.3196E-02   2.9161E-04  0.1114
   2.3196E-02   2.3760E-02   3.1286E-04  0.1063
   2.3760E-02   2.4338E-02   3.4056E-04  0.1006
   2.4338E-02   2.4930E-02   3.2596E-04  0.1016
   2.4930E-02   2.5537E-02   3.0994E-04  0.1031
   2.5537E-02   2.6158E-02   3.2992E-04  0.0986
   2.6158E-02   2.6795E-02   3.3355E-04  0.0968
   2.6795E-02   2.7447E-02   3.0615E-04  0.0999
   2.7447E-02   2.8114E-02   3.0736E-04  0.0985
   2.8114E-02   2.8799E-02   2.5591E-04  0.1066
   2.8799E-02   2.9499E-02   2.7674E-04  0.1011
   2.9499E-02   3.0217E-02   2.3407E-04  0.1087
   3.0217E-02   3.0952E-02   2.7971E-04  0.0984
   3.0952E-02   3.1705E-02   2.9965E-04  0.0939
   3.1705E-02   3.2477E-02   2.6702E-04  0.0982
   3.2477E-02   3.3267E-02   2.3363E-04  0.1039
   3.3267E-02   3.4076E-02   2.5744E-04  0.0979
   3.4076E-02   3.4905E-02   2.4002E-04  0.1001
   3.4905E-02   3.5755E-02   2.7082E-04  0.0933
   3.5755E-02   3.6625E-02   2.2617E-04  0.1004
   3.6625E-02   3.7516E-02   2.4801E-04  0.0950
   3.7516E-02   3.8428E-02   2.4102E-04  0.0953
   3.8428E-02   3.9363E-02   2.2567E-04  0.0972
   3.9363E-02   4.0321E-02   2.3179E-04  0.0949
   4.0321E-02   4.1302E-02   2.2862E-04  0.0944
   4.1302E-02   4.2307E-02   2.1649E-04  0.0957
   4.2307E-02   4.3337E-02   2.1987E-04  0.0939
   4.3337E-02   4.4391E-02   2.3960E-04  0.0889
   4.4391E-02   4.5471E-02   1.7157E-04  0.1036
   4.5471E-02   4.6577E-02   1.6954E-04  0.1030
   4.6577E-02   4.7711E-02   1.4267E-04  0.1109
   4.7711E-02   4.8871E-02   1.7119E-04  0.1002
   4.8871E-02   5.0061E-02   2.0461E-04  0.0905
   5.0061E-02   5.1279E-02   1.9811E-04  0.0909
   5.1279E-02   5.2526E-02   1.8880E-04  0.0919
   5.2526E-02   5.3804E-02   1.6531E-04  0.0971
   5.3804E-02   5.5113E-02   1.8784E-04  0.0900
   5.5113E-02   5.6454E-02   1.8996E-04  0.0885
   5.6454E-02   5.7828E-02   1.3084E-04  0.1052
   5.7828E-02   5.9235E-02   1.6203E-04  0.0934
   5.9235E-02   6.0676E-02   1.5053E-04  0.0958
   6.0676E-02   6.2152E-02   1.3587E-04  0.0995
   6.2152E-02   6.3665E-02   1.5358E-04  0.0925
   6.3665E-02   6.5214E-02   1.3064E-04  0.0993
   6.5214E-02   6.6800E-02   1.4377E-04  0.0933
   6.6800E-02   6.8426E-02   1.5689E-04  0.0885
   6.8426E-02   7.0090E-02   1.3737E-04  0.0934
   7.0090E-02   7.1796E-02   1.4237E-04  0.0906
   7.1796E-02   7.3543E-02   1.3153E-04  0.0931
   7.3543E-02   7.5332E-02   1.1456E-04  0.0983
   7.5332E-02   7.7165E-02   1.0802E-04  0.1002
   7.7165E-02   7.9042E-02   1.1306E-04  0.0970
   7.9042E-02   8.0965E-02   1.2721E-04  0.0903
   8.0965E-02   8.2935E-02   1.2282E-04  0.0907
   8.2935E-02   8.4953E-02   1.0903E-04  0.0953
   8.4953E-02   8.7020E-02   1.0638E-04  0.0951
   8.7020E-02   8.9138E-02   1.1477E-04  0.0906
   8.9138E-02   9.1306E-02   9.4984E-05  0.0985
   9.1306E-02   9.3528E-02   9.7401E-05  0.0961
   9.3528E-02   9.5804E-02   1.1486E-04  0.0873
   9.5804E-02   9.8134E-02   9.6233E-05  0.0941
   9.8134E-02   1.0052E-01   9.8457E-05  0.0921
   1.0052E-01   1.0297E-01   1.0958E-04  0.0864
   1.0297E-01   1.0547E-01   9.7516E-05  0.0901
   1.0547E-01   1.0804E-01   7.7693E-05  0.1000
   1.0804E-01   1.1067E-01   8.8637E-05  0.0925
   1.1067E-01   1.1336E-01   8.9229E-05  0.0909
   1.1336E-01   1.1612E-01   8.0273E-05  0.0949
   1.1612E-01   1.1894E-01   7.6910E-05  0.0958
   1.1894E-01   1.2184E-01   7.4128E-05  0.0965
   1.2184E-01   1.2480E-01   7.1948E-05  0.0967
   1.2480E-01   1.2784E-01   8.0781E-05  0.0902
   1.2784E-01   1.3095E-01   7.6065E-05  0.0918
   1.3095E-01   1.3414E-01   8.1708E-05  0.0874
   1.3414E-01   1.3740E-01   7.4763E-05  0.0904
   1.3740E-01   1.4074E-01   6.6407E-05  0.0947
   1.4074E-01   1.4417E-01   5.9751E-05  0.0987
   1.4417E-01   1.4767E-01   7.1355E-05  0.0893
   1.4767E-01   1.5127E-01   5.8260E-05  0.0976
   1.5127E-01   1.5495E-01   6.6931E-05  0.0901
   1.5495E-01   1.5872E-01   5.9666E-05  0.0941
   1.5872E-01   1.6258E-01   5.9041E-05  0.0937
   1.6258E-01   1.6654E-01   5.4100E-05  0.0964
   1.6654E-01   1.7059E-01   6.0218E-05  0.0905
   1.7059E-01   1.7474E-01   5.9433E-05  0.0899
   1.7474E-01   1.7899E-01   5.4945E-05  0.0923
   1.7899E-01   1.8334E-01   5.3484E-05  0.0925
   1.8334E-01   1.8781E-01   4.9068E-05  0.0954
   1.8781E-01   1.9237E-01   5.2594E-05  0.0912
   1.9237E-01   1.9706E-01   5.1275E-05  0.0913
   1.9706E-01   2.0185E-01   4.0606E-05  0.1012
   2.0185E-01   2.0676E-01   5.5925E-05  0.0852
   2.0676E-01   2.1179E-01   4.8304E-05  0.0906
   2.1179E-01   2.1694E-01   5.0524E-05  0.0874
   2.1694E-01   2.2222E-01   4.2238E-05  0.0943
   2.2222E-01   2.2763E-01   5.9422E-05  0.0788
   2.2763E-01   2.3317E-01   5.4159E-05  0.0815
   2.3317E-01   2.3884E-01   5.4295E-05  0.0804
   2.3884E-01   2.4465E-01   5.2086E-05  0.0812
   2.4465E-01   2.5061E-01   5.7565E-05  0.0762
   2.5061E-01   2.5670E-01   6.0013E-05  0.0738
   2.5670E-01   2.6295E-01   6.3441E-05  0.0708
   2.6295E-01   2.6935E-01   6.1189E-05  0.0712
   2.6935E-01   2.7590E-01   6.5690E-05  0.0678
   2.7590E-01   2.8261E-01   6.7724E-05  0.0661
   2.8261E-01   2.8949E-01   6.6672E-05  0.0659
   2.8949E-01   2.9653E-01   6.5440E-05  0.0657
   2.9653E-01   3.0375E-01   6.6419E-05  0.0645
   3.0375E-01   3.1114E-01   6.7067E-05  0.0633
   3.1114E-01   3.1871E-01   7.1790E-05  0.0604
   3.1871E-01   3.2646E-01   6.0903E-05  0.0650
   3.2646E-01   3.3441E-01   6.2887E-05  0.0631
   3.3441E-01   3.4254E-01   7.6925E-05  0.0564
   3.4254E-01   3.5088E-01   7.1809E-05  0.0577
   3.5088E-01   3.5941E-01   6.5667E-05  0.0595
   3.5941E-01   3.6816E-01   7.0370E-05  0.0568
   3.6816E-01   3.7712E-01   7.1755E-05  0.0557
   3.7712E-01   3.8629E-01   6.4846E-05  0.0578
   3.8629E-01   3.9569E-01   6.9895E-05  0.0550
   3.9569E-01   4.0532E-01   7.3367E-05  0.0530
   4.0532E-01   4.1518E-01   7.4364E-05  0.0521
   4.1518E-01   4.2528E-01   7.1779E-05  0.0524
   4.2528E-01   4.3563E-01   7.4987E-05  0.0507
   4.3563E-01   4.4623E-01   7.7187E-05  0.0493
   4.4623E-01   4.5708E-01   7.1780E-05  0.0505
   4.5708E-01   4.6821E-01   7.9388E-05  0.0475
   4.6821E-01   4.7960E-01   7.6382E-05  0.0478
   4.7960E-01   4.9127E-01   6.6658E-05  0.0505
   4.9127E-01   5.0322E-01   6.8677E-05  0.0492
   5.0322E-01   5.1546E-01   6.7997E-05  0.0488
   5.1546E-01   5.2800E-01   6.6446E-05  0.0488
   5.2800E-01   5.4085E-01   7.8903E-05  0.0442
   5.4085E-01   5.5401E-01   7.1489E-05  0.0460
   5.5401E-01   5.6749E-01   6.8669E-05  0.0463
   5.6749E-01   5.8130E-01   7.1770E-05  0.0448
   5.8130E-01   5.9544E-01   6.8994E-05  0.0450
   5.9544E-01   6.0993E-01   7.3724E-05  0.0430
   6.0993E-01   6.2477E-01   6.9489E-05  0.0439
   6.2477E-01   6.3997E-01   6.7286E-05  0.0441
   6.3997E-01   6.5554E-01   6.9302E-05  0.0429
   6.5554E-01   6.7149E-01   6.5093E-05  0.0437
   6.7149E-01   6.8783E-01   6.4678E-05  0.0433
   6.8783E-01   7.0456E-01   6.7588E-05  0.0418
   7.0456E-01   7.2171E-01   6.7253E-05  0.0415
   7.2171E-01   7.3927E-01   6.1140E-05  0.0429
   7.3927E-01   7.5725E-01   5.8230E-05  0.0434
   7.5725E-01   7.7568E-01   5.7961E-05  0.0431
   7.7568E-01   7.9455E-01   5.9267E-05  0.0421
   7.9455E-01   8.1388E-01   5.7604E-05  0.0422
   8.1388E-01   8.3368E-01   5.6673E-05  0.0420
   8.3368E-01   8.5397E-01   5.8238E-05  0.0409
   8.5397E-01   8.7475E-01   5.1155E-05  0.0432
   8.7475E-01   8.9603E-01   5.6930E-05  0.0404
   8.9603E-01   9.1783E-01   5.4787E-05  0.0407
   9.1783E-01   9.4016E-01   5.4908E-05  0.0402
   9.4016E-01   9.6304E-01   5.1622E-05  0.0409
   9.6304E-01   9.8647E-01   5.2964E-05  0.0399
   9.8647E-01   1.0105E+00   5.0445E-05  0.0404
   1.0105E+00   1.0351E+00   4.2914E-05  0.0434
   1.0351E+00   1.0602E+00   4.7301E-05  0.0408
   1.0602E+00   1.0860E+00   4.5954E-05  0.0409
   1.0860E+00   1.1125E+00   4.5984E-05  0.0403
   1.1125E+00   1.1395E+00   4.7738E-05  0.0390
   1.1395E+00   1.1673E+00   4.2745E-05  0.0407
   1.1673E+00   1.1957E+00   4.4496E-05  0.0395
   1.1957E+00   1.2247E+00   4.1921E-05  0.0402
   1.2247E+00   1.2545E+00   4.1391E-05  0.0399
   1.2545E+00   1.2851E+00   3.8715E-05  0.0408
   1.2851E+00   1.3163E+00   3.6434E-05  0.0415
   1.3163E+00   1.3484E+00   3.8205E-05  0.0401
   1.3484E+00   1.3812E+00   3.3705E-05  0.0421
   1.3812E+00   1.4148E+00   3.6410E-05  0.0401
   1.4148E+00   1.4492E+00   3.6250E-05  0.0396
   1.4492E+00   1.4845E+00   3.3283E-05  0.0409
   1.4845E+00   1.5206E+00   3.3539E-05  0.0403
   1.5206E+00   1.5576E+00   3.2801E-05  0.0402
   1.5576E+00   1.5955E+00   3.1601E-05  0.0404
   1.5955E+00   1.6343E+00   3.1579E-05  0.0400
   1.6343E+00   1.6741E+00   3.1127E-05  0.0398
   1.6741E+00   1.7148E+00   2.8707E-05  0.0410
   1.7148E+00   1.7565E+00   2.7821E-05  0.0412
   1.7565E+00   1.7992E+00   2.8325E-05  0.0402
   1.7992E+00   1.8430E+00   2.8277E-05  0.0398
   1.8430E+00   1.8879E+00   2.7109E-05  0.0401
   1.8879E+00   1.9338E+00   2.6720E-05  0.0400
   1.9338E+00   1.9808E+00   2.5088E-05  0.0407
   1.9808E+00   2.0290E+00   2.3636E-05  0.0414
   2.0290E+00   2.0784E+00   2.7651E-05  0.0378
   2.0784E+00   2.1290E+00   2.4186E-05  0.0400
   2.1290E+00   2.1808E+00   2.4606E-05  0.0391
   2.1808E+00   2.2338E+00   2.4556E-05  0.0387
   2.2338E+00   2.2882E+00   2.2208E-05  0.0402
   2.2882E+00   2.3439E+00   2.2004E-05  0.0399
   2.3439E+00   2.4009E+00   2.1174E-05  0.0402
   2.4009E+00   2.4593E+00   2.2191E-05  0.0389
   2.4593E+00   2.5191E+00   2.2448E-05  0.0381
   2.5191E+00   2.5804E+00   2.1217E-05  0.0388
   2.5804E+00   2.6432E+00   2.2938E-05  0.0369
   2.6432E+00   2.7075E+00   2.2072E-05  0.0371
   2.7075E+00   2.7734E+00   2.1660E-05  0.0370
   2.7734E+00   2.8409E+00   2.1766E-05  0.0365
   2.8409E+00   2.9100E+00   2.1009E-05  0.0367
   2.9100E+00   2.9808E+00   2.0100E-05  0.0371
   2.9808E+00   3.0533E+00   1.9428E-05  0.0373
   3.0533E+00   3.1276E+00   2.0721E-05  0.0357
   3.1276E+00   3.2037E+00   2.0478E-05  0.0355
   3.2037E+00   3.2817E+00   1.9156E-05  0.0362
   3.2817E+00   3.3615E+00   1.7377E-05  0.0376
   3.3615E+00   3.4433E+00   1.9949E-05  0.0347
   3.4433E+00   3.5271E+00   1.9277E-05  0.0349
   3.5271E+00   3.6129E+00   1.7562E-05  0.0361
   3.6129E+00   3.7008E+00   1.8086E-05  0.0351
   3.7008E+00   3.7908E+00   1.7652E-05  0.0351
   3.7908E+00   3.8831E+00   1.6505E-05  0.0359
   3.8831E+00   3.9776E+00   1.6512E-05  0.0355
   3.9776E+00   4.0743E+00   1.7766E-05  0.0338
   4.0743E+00   4.1735E+00   1.6224E-05  0.0349
   4.1735E+00   4.2750E+00   1.5468E-05  0.0353
   4.2750E+00   4.3790E+00   1.5567E-05  0.0348
   4.3790E+00   4.4856E+00   1.6215E-05  0.0337
   4.4856E+00   4.5947E+00   1.4925E-05  0.0348
   4.5947E+00   4.7065E+00   1.5596E-05  0.0336
   4.7065E+00   4.8210E+00   1.5099E-05  0.0338
   4.8210E+00   4.9383E+00   1.3794E-05  0.0349
   4.9383E+00   5.0585E+00   1.4631E-05  0.0335
   5.0585E+00   5.1815E+00   1.3263E-05  0.0349
   5.1815E+00   5.3076E+00   1.2298E-05  0.0357
   5.3076E+00   5.4368E+00   1.2596E-05  0.0349
   5.4368E+00   5.5690E+00   1.1697E-05  0.0358
   5.5690E+00   5.7045E+00   1.1705E-05  0.0354
   5.7045E+00   5.8433E+00   1.1683E-05  0.0349
   5.8433E+00   5.9855E+00   1.1742E-05  0.0344
   5.9855E+00   6.1311E+00   1.1205E-05  0.0348
   6.1311E+00   6.2803E+00   1.1357E-05  0.0342
   6.2803E+00   6.4331E+00   1.1056E-05  0.0343
   6.4331E+00   6.5896E+00   1.0900E-05  0.0341
   6.5896E+00   6.7500E+00   1.1106E-05  0.0334
   6.7500E+00   6.9142E+00   1.0041E-05  0.0347
   6.9142E+00   7.0824E+00   1.0146E-05  0.0341
   7.0824E+00   7.2548E+00   9.1783E-06  0.0355
   7.2548E+00   7.4313E+00   9.7474E-06  0.0340
   7.4313E+00   7.6121E+00   8.9518E-06  0.0350
   7.6121E+00   7.7973E+00   8.4240E-06  0.0357
   7.7973E+00   7.9870E+00   8.5566E-06  0.0350
   7.9870E+00   8.1813E+00   8.4673E-06  0.0348
   8.1813E+00   8.3804E+00   7.5040E-06  0.0365
   8.3804E+00   8.5843E+00   7.6888E-06  0.0357
   8.5843E+00   8.7931E+00   7.2116E-06  0.0364
   8.7931E+00   9.0071E+00   7.5410E-06  0.0351
   9.0071E+00   9.2262E+00   6.9785E-06  0.0361
   9.2262E+00   9.4507E+00   6.7794E-06  0.0362
   9.4507E+00   9.6807E+00   6.6183E-06  0.0362
   9.6807E+00   9.9162E+00   6.1507E-06  0.0371
   9.9162E+00   1.0157E+01   5.9179E-06  0.0374
   1.0157E+01   1.0405E+01   5.9886E-06  0.0367
   1.0405E+01   1.0658E+01   6.0155E-06  0.0362
   1.0658E+01   1.0917E+01   6.2529E-06  0.0351
   1.0917E+01   1.1183E+01   5.7646E-06  0.0361
   1.1183E+01   1.1455E+01   5.4771E-06  0.0366
   1.1455E+01   1.1733E+01   5.1311E-06  0.0374
   1.1733E+01   1.2019E+01   4.7984E-06  0.0382
   1.2019E+01   1.2311E+01   4.4354E-06  0.0392
   1.2311E+01   1.2611E+01   4.4380E-06  0.0388
   1.2611E+01   1.2918E+01   3.7514E-06  0.0416
   1.2918E+01   1.3232E+01   4.3365E-06  0.0383
   1.3232E+01   1.3554E+01   3.7718E-06  0.0406
   1.3554E+01   1.3884E+01   3.5808E-06  0.0411
   1.3884E+01   1.4222E+01   3.3727E-06  0.0418
   1.4222E+01   1.4568E+01   3.2031E-06  0.0424
   1.4568E+01   1.4922E+01   2.9387E-06  0.0438
   1.4922E+01   1.5285E+01   2.8297E-06  0.0441
   1.5285E+01   1.5657E+01   2.4175E-06  0.0471
   1.5657E+01   1.6038E+01   2.3327E-06  0.0474
   1.6038E+01   1.6428E+01   1.9536E-06  0.0512
   1.6428E+01   1.6828E+01   1.9772E-06  0.0503
   1.6828E+01   1.7237E+01   1.7131E-06  0.0534
   1.7237E+01   1.7657E+01   1.4545E-06  0.0573
   1.7657E+01   1.8086E+01   1.4067E-06  0.0575
   1.8086E+01   1.8526E+01   1.2453E-06  0.0604
   1.8526E+01   1.8977E+01   1.1588E-06  0.0619
   1.8977E+01   1.9439E+01   1.0136E-06  0.0654
   1.9439E+01   1.9912E+01   9.3453E-07  0.0673
   1.9912E+01   2.0396E+01   7.7198E-07  0.0731
   2.0396E+01   2.0893E+01   7.9394E-07  0.0712
   2.0893E+01   2.1401E+01   6.6098E-07  0.0772
   2.1401E+01   2.1922E+01   5.4542E-07  0.0839
   2.1922E+01   2.2455E+01   4.6497E-07  0.0898
   2.2455E+01   2.3001E+01   5.1249E-07  0.0845
   2.3001E+01   2.3561E+01   3.4665E-07  0.1015
   2.3561E+01   2.4134E+01   3.1399E-07  0.1054
   2.4134E+01   2.4721E+01   2.9291E-07  0.1078
   2.4721E+01   2.5323E+01   1.7955E-07  0.1361
   2.5323E+01   2.5939E+01   2.0126E-07  0.1270
   2.5939E+01   2.6570E+01   1.7746E-07  0.1336
   2.6570E+01   2.7217E+01   1.2994E-07  0.1543
   2.7217E+01   2.7879E+01   1.3893E-07  0.1474
   2.7879E+01   2.8557E+01   9.1403E-08  0.1796
   2.8557E+01   2.9252E+01   7.7718E-08  0.1925
   2.9252E+01   2.9964E+01   4.7771E-08  0.2425
   2.9964E+01   3.0693E+01   4.1150E-08  0.2582
   3.0693E+01   3.1440E+01   2.1425E-08  0.3536
   3.1440E+01   3.2205E+01   2.8760E-08  0.3015
   3.2205E+01   3.2988E+01   2.2972E-08  0.3333
   3.2988E+01   3.3791E+01   1.4951E-08  0.4082
   3.3791E+01   3.4613E+01   9.7305E-09  0.5000
   3.4613E+01   3.5455E+01   7.1246E-09  0.5774
   3.5455E+01   3.6318E+01   1.8548E-08  0.3536
   3.6318E+01   3.7201E+01   9.0535E-09  0.5000
   3.7201E+01   3.8106E+01   1.1048E-08  0.4472
   3.8106E+01   3.9034E+01   8.6285E-09  0.5000
   3.9034E+01   3.9983E+01   4.2118E-09  0.7071
   3.9983E+01   4.0956E+01   2.0559E-09  1.0000
   4.0956E+01   4.1953E+01   8.0281E-09  0.5000
   4.1953E+01   4.2973E+01   1.9594E-09  1.0000
   4.2973E+01   4.4019E+01   5.7385E-09  0.5774
   4.4019E+01   4.5090E+01   3.7348E-09  0.7071
   4.5090E+01   4.6187E+01   3.6461E-09  0.7071
   4.6187E+01   4.7311E+01   1.7797E-09  1.0000
   4.7311E+01   4.8462E+01   0.0000E+00  0.0000
   4.8462E+01   4.9641E+01   1.6962E-09  1.0000
   4.9641E+01   5.0849E+01   0.0000E+00  0.0000
   5.0849E+01   5.2086E+01   0.0000E+00  0.0000
   5.2086E+01   5.3353E+01   0.0000E+00  0.0000
   5.3353E+01   5.4651E+01   0.0000E+00  0.0000
   5.4651E+01   5.5981E+01   0.0000E+00  0.0000
   5.5981E+01   5.7343E+01   0.0000E+00  0.0000
   5.7343E+01   5.8738E+01   0.0000E+00  0.0000
   5.8738E+01   6.0168E+01   0.0000E+00  0.0000
   6.0168E+01   6.1632E+01   0.0000E+00  0.0000
   6.1632E+01   6.3131E+01   0.0000E+00  0.0000
   6.3131E+01   6.4667E+01   0.0000E+00  0.0000
   6.4667E+01   6.6240E+01   0.0000E+00  0.0000
   6.6240E+01   6.7852E+01   0.0000E+00  0.0000
   6.7852E+01   6.9503E+01   0.0000E+00  0.0000
   6.9503E+01   7.1194E+01   0.0000E+00  0.0000
   7.1194E+01   7.2926E+01   0.0000E+00  0.0000
   7.2926E+01   7.4701E+01   0.0000E+00  0.0000
   7.4701E+01   7.6518E+01   0.0000E+00  0.0000
   7.6518E+01   7.8380E+01   0.0000E+00  0.0000
   7.8380E+01   8.0287E+01   0.0000E+00  0.0000
   8.0287E+01   8.2240E+01   0.0000E+00  0.0000
   8.2240E+01   8.4241E+01   0.0000E+00  0.0000
   8.4241E+01   8.6291E+01   0.0000E+00  0.0000
   8.6291E+01   8.8391E+01   0.0000E+00  0.0000
   8.8391E+01   9.0541E+01   0.0000E+00  0.0000
   9.0541E+01   9.2744E+01   0.0000E+00  0.0000
   9.2744E+01   9.5001E+01   0.0000E+00  0.0000
   9.5001E+01   9.7312E+01   0.0000E+00  0.0000
   9.7312E+01   9.9680E+01   0.0000E+00  0.0000
   9.9680E+01   1.0211E+02   0.0000E+00  0.0000
   1.0211E+02   1.0459E+02   0.0000E+00  0.0000
   1.0459E+02   1.0713E+02   0.0000E+00  0.0000
   1.0713E+02   1.0974E+02   0.0000E+00  0.0000
   1.0974E+02   1.1241E+02   0.0000E+00  0.0000
   1.1241E+02   1.1515E+02   0.0000E+00  0.0000
   1.1515E+02   1.1795E+02   0.0000E+00  0.0000
   1.1795E+02   1.2082E+02   0.0000E+00  0.0000
   1.2082E+02   1.2376E+02   0.0000E+00  0.0000
   1.2376E+02   1.2677E+02   0.0000E+00  0.0000
   1.2677E+02   1.2985E+02   0.0000E+00  0.0000
   1.2985E+02   1.3301E+02   0.0000E+00  0.0000
   1.3301E+02   1.3625E+02   0.0000E+00  0.0000
   1.3625E+02   1.3956E+02   0.0000E+00  0.0000
   1.3956E+02   1.4296E+02   0.0000E+00  0.0000
   1.4296E+02   1.4644E+02   0.0000E+00  0.0000
   1.4644E+02   1.5000E+02   0.0000E+00  0.0000

#   sum over                 1.6531E-06
'no. =    1   reg = 121 - 221'
msuc: {\huge [t-cross] in region mesh}
msdr: {\it plotted by \ANGEL \version}
msdl: {\it calculated by \PHITS  3.26}
wt: s(0.7)
\vspace{-3}
  region surface crossing
  area  &=&   1.0000E+00 [cm^2]
e:
 
# Information for Restart Calculation
# This calculation was newly started
# istdev =  2 # 1:Batch variance, 2:History variance
# resc2  = 5.00000000000000000E+08 # Total source weight or Total source weight / maxcas
# resc3  = 5.00000000000000000E+08 # Total history number or Total batch number
# maxcas =   500000000 # History / Batch, only used for istdev=1
# bitrseed = 1101101111010011011000101101110001100110110010110001010100010001 # bit data of rseed
