[ T-Cross ]
    title = [t-cross] in region mesh
     mesh =  reg            # mesh type is region-wise
      reg =    1            # number of crossing regions
      non     r-from    r-to       area
      1       100       200        1.000000    
   e-type =    3            # e-mesh is log given by emin, emax and ne
     emin =  1.0000000E-02  # minimum value of e-mesh points
     emax =   150.0000      # maximum value of e-mesh points
#    edel =  2.4039514E-02  # mesh width of e-mesh points
       ne =    400          # number of e-mesh points
#    data = ( e(i), i = 1, ne + 1 )
#           1.00000E-02  1.02433E-02  1.04925E-02  1.07478E-02  1.10093E-02
#           1.12772E-02  1.15516E-02  1.18326E-02  1.21205E-02  1.24154E-02
#           1.27175E-02  1.30269E-02  1.33439E-02  1.36686E-02  1.40011E-02
#           1.43418E-02  1.46907E-02  1.50482E-02  1.54143E-02  1.57894E-02
#           1.61735E-02  1.65670E-02  1.69701E-02  1.73830E-02  1.78060E-02
#           1.82392E-02  1.86830E-02  1.91375E-02  1.96032E-02  2.00801E-02
#           2.05687E-02  2.10692E-02  2.15818E-02  2.21069E-02  2.26448E-02
#           2.31957E-02  2.37601E-02  2.43382E-02  2.49304E-02  2.55369E-02
#           2.61583E-02  2.67947E-02  2.74467E-02  2.81145E-02  2.87985E-02
#           2.94992E-02  3.02169E-02  3.09521E-02  3.17052E-02  3.24766E-02
#           3.32668E-02  3.40762E-02  3.49053E-02  3.57546E-02  3.66246E-02
#           3.75157E-02  3.84284E-02  3.93634E-02  4.03212E-02  4.13022E-02
#           4.23071E-02  4.33365E-02  4.43909E-02  4.54710E-02  4.65773E-02
#           4.77106E-02  4.88714E-02  5.00605E-02  5.12785E-02  5.25262E-02
#           5.38042E-02  5.51133E-02  5.64542E-02  5.78278E-02  5.92348E-02
#           6.06760E-02  6.21523E-02  6.36645E-02  6.52135E-02  6.68002E-02
#           6.84255E-02  7.00904E-02  7.17957E-02  7.35426E-02  7.53319E-02
#           7.71648E-02  7.90423E-02  8.09655E-02  8.29354E-02  8.49533E-02
#           8.70203E-02  8.91376E-02  9.13064E-02  9.35279E-02  9.58035E-02
#           9.81345E-02  1.00522E-01  1.02968E-01  1.05473E-01  1.08040E-01
#           1.10668E-01  1.13361E-01  1.16119E-01  1.18944E-01  1.21838E-01
#           1.24803E-01  1.27839E-01  1.30950E-01  1.34136E-01  1.37399E-01
#           1.40742E-01  1.44167E-01  1.47675E-01  1.51268E-01  1.54948E-01
#           1.58718E-01  1.62580E-01  1.66535E-01  1.70587E-01  1.74738E-01
#           1.78989E-01  1.83344E-01  1.87805E-01  1.92375E-01  1.97055E-01
#           2.01850E-01  2.06761E-01  2.11792E-01  2.16945E-01  2.22223E-01
#           2.27630E-01  2.33169E-01  2.38842E-01  2.44653E-01  2.50605E-01
#           2.56703E-01  2.62949E-01  2.69346E-01  2.75900E-01  2.82613E-01
#           2.89489E-01  2.96532E-01  3.03747E-01  3.11138E-01  3.18708E-01
#           3.26462E-01  3.34405E-01  3.42542E-01  3.50876E-01  3.59413E-01
#           3.68158E-01  3.77116E-01  3.86291E-01  3.95690E-01  4.05317E-01
#           4.15179E-01  4.25281E-01  4.35628E-01  4.46227E-01  4.57084E-01
#           4.68205E-01  4.79597E-01  4.91266E-01  5.03219E-01  5.15463E-01
#           5.28005E-01  5.40851E-01  5.54011E-01  5.67490E-01  5.81298E-01
#           5.95441E-01  6.09929E-01  6.24769E-01  6.39970E-01  6.55541E-01
#           6.71491E-01  6.87828E-01  7.04564E-01  7.21706E-01  7.39266E-01
#           7.57253E-01  7.75678E-01  7.94551E-01  8.13883E-01  8.33685E-01
#           8.53969E-01  8.74747E-01  8.96030E-01  9.17831E-01  9.40163E-01
#           9.63038E-01  9.86469E-01  1.01047E+00  1.03506E+00  1.06024E+00
#           1.08604E+00  1.11246E+00  1.13953E+00  1.16725E+00  1.19565E+00
#           1.22474E+00  1.25454E+00  1.28507E+00  1.31633E+00  1.34836E+00
#           1.38117E+00  1.41477E+00  1.44920E+00  1.48446E+00  1.52057E+00
#           1.55757E+00  1.59547E+00  1.63429E+00  1.67405E+00  1.71478E+00
#           1.75650E+00  1.79924E+00  1.84302E+00  1.88786E+00  1.93379E+00
#           1.98084E+00  2.02904E+00  2.07841E+00  2.12898E+00  2.18078E+00
#           2.23384E+00  2.28819E+00  2.34386E+00  2.40089E+00  2.45930E+00
#           2.51914E+00  2.58043E+00  2.64322E+00  2.70753E+00  2.77341E+00
#           2.84088E+00  2.91001E+00  2.98081E+00  3.05333E+00  3.12762E+00
#           3.20372E+00  3.28167E+00  3.36152E+00  3.44330E+00  3.52708E+00
#           3.61290E+00  3.70080E+00  3.79085E+00  3.88308E+00  3.97756E+00
#           4.07434E+00  4.17347E+00  4.27501E+00  4.37903E+00  4.48557E+00
#           4.59471E+00  4.70650E+00  4.82102E+00  4.93832E+00  5.05847E+00
#           5.18155E+00  5.30762E+00  5.43676E+00  5.56904E+00  5.70453E+00
#           5.84333E+00  5.98550E+00  6.13114E+00  6.28031E+00  6.43312E+00
#           6.58964E+00  6.74997E+00  6.91420E+00  7.08243E+00  7.25475E+00
#           7.43126E+00  7.61207E+00  7.79728E+00  7.98700E+00  8.18133E+00
#           8.38038E+00  8.58428E+00  8.79315E+00  9.00709E+00  9.22624E+00
#           9.45072E+00  9.68067E+00  9.91620E+00  1.01575E+01  1.04046E+01
#           1.06578E+01  1.09171E+01  1.11827E+01  1.14548E+01  1.17335E+01
#           1.20190E+01  1.23114E+01  1.26109E+01  1.29178E+01  1.32321E+01
#           1.35540E+01  1.38838E+01  1.42216E+01  1.45676E+01  1.49221E+01
#           1.52851E+01  1.56570E+01  1.60380E+01  1.64282E+01  1.68279E+01
#           1.72374E+01  1.76568E+01  1.80864E+01  1.85264E+01  1.89772E+01
#           1.94389E+01  1.99119E+01  2.03963E+01  2.08926E+01  2.14009E+01
#           2.19216E+01  2.24550E+01  2.30014E+01  2.35610E+01  2.41343E+01
#           2.47215E+01  2.53230E+01  2.59391E+01  2.65702E+01  2.72167E+01
#           2.78789E+01  2.85572E+01  2.92520E+01  2.99637E+01  3.06928E+01
#           3.14396E+01  3.22045E+01  3.29881E+01  3.37907E+01  3.46128E+01
#           3.54550E+01  3.63177E+01  3.72013E+01  3.81064E+01  3.90336E+01
#           3.99833E+01  4.09561E+01  4.19526E+01  4.29734E+01  4.40189E+01
#           4.50900E+01  4.61870E+01  4.73108E+01  4.84619E+01  4.96410E+01
#           5.08488E+01  5.20860E+01  5.33533E+01  5.46514E+01  5.59812E+01
#           5.73432E+01  5.87384E+01  6.01676E+01  6.16315E+01  6.31311E+01
#           6.46671E+01  6.62405E+01  6.78522E+01  6.95031E+01  7.11941E+01
#           7.29263E+01  7.47007E+01  7.65182E+01  7.83800E+01  8.02870E+01
#           8.22405E+01  8.42414E+01  8.62911E+01  8.83906E+01  9.05412E+01
#           9.27442E+01  9.50007E+01  9.73122E+01  9.96799E+01  1.02105E+02
#           1.04589E+02  1.07134E+02  1.09741E+02  1.12411E+02  1.15146E+02
#           1.17948E+02  1.20817E+02  1.23757E+02  1.26768E+02  1.29852E+02
#           1.33012E+02  1.36248E+02  1.39563E+02  1.42959E+02  1.46437E+02
#           1.50000E+02
     unit =    2            # unit is [1/cm^2/(MeV/n)/source]
     axis =  eng            # axis of output
     file = detector-01.out  # file name of output for the above axis
   output = f-curr          # surface crossing forward current spectrum
     part =  neutron  
# kf/name :  2112     
#    used :        main (  %)        temp (  %)       total (  %)
#  memory :         414 (  0)           0 (  0)         414 (  0)

#------------------------------------------------------------------------------
#newpage:
#   no. =    1   reg = 100 - 200

x: Energy [MeV/n]
y:  F-Curr [1/cm^2/(MeV/n)/source]         
p: xlog ylog afac(0.8) form(0.9)
h: n            x            y(neutron ),hh0l   n 
#  e-lower      e-upper      neutron     r.err 
   1.0000E-02   1.0243E-02   4.4388E-05  0.1361
   1.0243E-02   1.0493E-02   4.0124E-05  0.1414
   1.0493E-02   1.0748E-02   3.5254E-05  0.1491
   1.0748E-02   1.1009E-02   2.9063E-05  0.1622
   1.1009E-02   1.1277E-02   4.7038E-05  0.1260
   1.1277E-02   1.1552E-02   5.0295E-05  0.1204
   1.1552E-02   1.1833E-02   3.4868E-05  0.1429
   1.1833E-02   1.2121E-02   2.9872E-05  0.1525
   1.2121E-02   1.2415E-02   3.7979E-05  0.1336
   1.2415E-02   1.2718E-02   4.9656E-05  0.1155
   1.2718E-02   1.3027E-02   3.8135E-05  0.1302
   1.3027E-02   1.3344E-02   3.6598E-05  0.1313
   1.3344E-02   1.3669E-02   3.5729E-05  0.1313
   1.3669E-02   1.4001E-02   4.0894E-05  0.1213
   1.4001E-02   1.4342E-02   3.7574E-05  0.1250
   1.4342E-02   1.4691E-02   4.5279E-05  0.1125
   1.4691E-02   1.5048E-02   4.5323E-05  0.1111
   1.5048E-02   1.5414E-02   3.8784E-05  0.1187
   1.5414E-02   1.5789E-02   3.8396E-05  0.1179
   1.5789E-02   1.6174E-02   3.9566E-05  0.1147
   1.6174E-02   1.6567E-02   3.2527E-05  0.1250
   1.6567E-02   1.6970E-02   3.8205E-05  0.1140
   1.6970E-02   1.7383E-02   3.6813E-05  0.1147
   1.7383E-02   1.7806E-02   4.4450E-05  0.1031
   1.7806E-02   1.8239E-02   3.6008E-05  0.1132
   1.8239E-02   1.8683E-02   4.3265E-05  0.1021
   1.8683E-02   1.9138E-02   3.3438E-05  0.1147
   1.9138E-02   1.9603E-02   3.7369E-05  0.1072
   1.9603E-02   2.0080E-02   4.5287E-05  0.0962
   2.0080E-02   2.0569E-02   4.1755E-05  0.0990
   2.0569E-02   2.1069E-02   3.6367E-05  0.1048
   2.1069E-02   2.1582E-02   4.2526E-05  0.0958
   2.1582E-02   2.2107E-02   3.3517E-05  0.1066
   2.2107E-02   2.2645E-02   4.6903E-05  0.0890
   2.2645E-02   2.3196E-02   4.2471E-05  0.0925
   2.3196E-02   2.3760E-02   4.6069E-05  0.0877
   2.3760E-02   2.4338E-02   3.9093E-05  0.0941
   2.4338E-02   2.4930E-02   3.7152E-05  0.0953
   2.4930E-02   2.5537E-02   3.5280E-05  0.0967
   2.5537E-02   2.6158E-02   3.5730E-05  0.0949
   2.6158E-02   2.6795E-02   3.6497E-05  0.0927
   2.6795E-02   2.7447E-02   3.4052E-05  0.0949
   2.7447E-02   2.8114E-02   4.7619E-05  0.0793
   2.8114E-02   2.8799E-02   4.2102E-05  0.0833
   2.8799E-02   2.9499E-02   4.5098E-05  0.0796
   2.9499E-02   3.0217E-02   4.4720E-05  0.0789
   3.0217E-02   3.0952E-02   4.2206E-05  0.0803
   3.0952E-02   3.1705E-02   4.0367E-05  0.0811
   3.1705E-02   3.2477E-02   4.0445E-05  0.0801
   3.2477E-02   3.3267E-02   3.7966E-05  0.0816
   3.3267E-02   3.4076E-02   4.1265E-05  0.0774
   3.4076E-02   3.4905E-02   3.9078E-05  0.0786
   3.4905E-02   3.5755E-02   4.0270E-05  0.0765
   3.5755E-02   3.6625E-02   4.6670E-05  0.0702
   3.6625E-02   3.7516E-02   3.9950E-05  0.0750
   3.7516E-02   3.8428E-02   3.7941E-05  0.0760
   3.8428E-02   3.9363E-02   4.0428E-05  0.0727
   3.9363E-02   4.0321E-02   3.3621E-05  0.0788
   4.0321E-02   4.1302E-02   4.1996E-05  0.0697
   4.1302E-02   4.2307E-02   3.4033E-05  0.0765
   4.2307E-02   4.3337E-02   3.7499E-05  0.0720
   4.3337E-02   4.4391E-02   3.6608E-05  0.0720
   4.4391E-02   4.5471E-02   3.9812E-05  0.0682
   4.5471E-02   4.6577E-02   4.4109E-05  0.0640
   4.6577E-02   4.7711E-02   4.0414E-05  0.0661
   4.7711E-02   4.8871E-02   4.1694E-05  0.0643
   4.8871E-02   5.0061E-02   3.6162E-05  0.0682
   5.0061E-02   5.1279E-02   4.2857E-05  0.0619
   5.1279E-02   5.2526E-02   4.3762E-05  0.0605
   5.2526E-02   5.3804E-02   4.8200E-05  0.0570
   5.3804E-02   5.5113E-02   3.7736E-05  0.0636
   5.5113E-02   5.6454E-02   3.8480E-05  0.0623
   5.6454E-02   5.7828E-02   4.1498E-05  0.0592
   5.7828E-02   5.9235E-02   3.7669E-05  0.0614
   5.9235E-02   6.0676E-02   4.1215E-05  0.0580
   6.0676E-02   6.2152E-02   4.3758E-05  0.0556
   6.2152E-02   6.3665E-02   4.3512E-05  0.0551
   6.3665E-02   6.5214E-02   4.4416E-05  0.0539
   6.5214E-02   6.6800E-02   4.0227E-05  0.0560
   6.6800E-02   6.8426E-02   4.0977E-05  0.0548
   6.8426E-02   7.0090E-02   4.2406E-05  0.0532
   7.0090E-02   7.1796E-02   4.1282E-05  0.0533
   7.1796E-02   7.3543E-02   4.4079E-05  0.0510
   7.3543E-02   7.5332E-02   4.2585E-05  0.0512
   7.5332E-02   7.7165E-02   4.3974E-05  0.0498
   7.7165E-02   7.9042E-02   4.4102E-05  0.0491
   7.9042E-02   8.0965E-02   4.4926E-05  0.0481
   8.0965E-02   8.2935E-02   4.0712E-05  0.0499
   8.2935E-02   8.4953E-02   4.1671E-05  0.0488
   8.4953E-02   8.7020E-02   4.4219E-05  0.0468
   8.7020E-02   8.9138E-02   4.2035E-05  0.0474
   8.9138E-02   9.1306E-02   4.3066E-05  0.0463
   9.1306E-02   9.3528E-02   4.4583E-05  0.0449
   9.3528E-02   9.5804E-02   4.7636E-05  0.0430
   9.5804E-02   9.8134E-02   4.4960E-05  0.0437
   9.8134E-02   1.0052E-01   4.4729E-05  0.0433
   1.0052E-01   1.0297E-01   4.4894E-05  0.0427
   1.0297E-01   1.0547E-01   4.5663E-05  0.0418
   1.0547E-01   1.0804E-01   4.4670E-05  0.0418
   1.0804E-01   1.1067E-01   4.5878E-05  0.0407
   1.1067E-01   1.1336E-01   4.4194E-05  0.0410
   1.1336E-01   1.1612E-01   4.8293E-05  0.0387
   1.1612E-01   1.1894E-01   4.3748E-05  0.0402
   1.1894E-01   1.2184E-01   4.6786E-05  0.0384
   1.2184E-01   1.2480E-01   4.8239E-05  0.0374
   1.2480E-01   1.2784E-01   4.6237E-05  0.0377
   1.2784E-01   1.3095E-01   4.6702E-05  0.0371
   1.3095E-01   1.3414E-01   4.5824E-05  0.0370
   1.3414E-01   1.3740E-01   4.8179E-05  0.0357
   1.3740E-01   1.4074E-01   4.6186E-05  0.0360
   1.4074E-01   1.4417E-01   4.6510E-05  0.0354
   1.4417E-01   1.4767E-01   4.6127E-05  0.0352
   1.4767E-01   1.5127E-01   4.5993E-05  0.0348
   1.5127E-01   1.5495E-01   4.9450E-05  0.0331
   1.5495E-01   1.5872E-01   4.6154E-05  0.0339
   1.5872E-01   1.6258E-01   4.5938E-05  0.0336
   1.6258E-01   1.6654E-01   4.8133E-05  0.0324
   1.6654E-01   1.7059E-01   4.8000E-05  0.0321
   1.7059E-01   1.7474E-01   4.7271E-05  0.0319
   1.7474E-01   1.7899E-01   4.9771E-05  0.0307
   1.7899E-01   1.8334E-01   4.9920E-05  0.0303
   1.8334E-01   1.8781E-01   4.8017E-05  0.0306
   1.8781E-01   1.9237E-01   4.8452E-05  0.0301
   1.9237E-01   1.9706E-01   4.8370E-05  0.0297
   1.9706E-01   2.0185E-01   4.8055E-05  0.0295
   2.0185E-01   2.0676E-01   4.6913E-05  0.0295
   2.0676E-01   2.1179E-01   4.9099E-05  0.0285
   2.1179E-01   2.1694E-01   5.0844E-05  0.0276
   2.1694E-01   2.2222E-01   5.1682E-05  0.0271
   2.2222E-01   2.2763E-01   4.8087E-05  0.0277
   2.2763E-01   2.3317E-01   4.7342E-05  0.0276
   2.3317E-01   2.3884E-01   4.9355E-05  0.0267
   2.3884E-01   2.4465E-01   4.9043E-05  0.0265
   2.4465E-01   2.5061E-01   4.9675E-05  0.0260
   2.5061E-01   2.5670E-01   4.8020E-05  0.0261
   2.5670E-01   2.6295E-01   4.9954E-05  0.0253
   2.6295E-01   2.6935E-01   5.0268E-05  0.0249
   2.6935E-01   2.7590E-01   5.1515E-05  0.0243
   2.7590E-01   2.8261E-01   5.0589E-05  0.0243
   2.8261E-01   2.8949E-01   4.8922E-05  0.0244
   2.8949E-01   2.9653E-01   4.9322E-05  0.0240
   2.9653E-01   3.0375E-01   5.0210E-05  0.0235
   3.0375E-01   3.1114E-01   5.1120E-05  0.0230
   3.1114E-01   3.1871E-01   4.9439E-05  0.0231
   3.1871E-01   3.2646E-01   5.0903E-05  0.0225
   3.2646E-01   3.3441E-01   4.9225E-05  0.0226
   3.3441E-01   3.4254E-01   4.6729E-05  0.0229
   3.4254E-01   3.5088E-01   4.9650E-05  0.0220
   3.5088E-01   3.5941E-01   4.8298E-05  0.0220
   3.5941E-01   3.6816E-01   4.7960E-05  0.0218
   3.6816E-01   3.7712E-01   4.8339E-05  0.0215
   3.7712E-01   3.8629E-01   4.9065E-05  0.0211
   3.8629E-01   3.9569E-01   5.0075E-05  0.0206
   3.9569E-01   4.0532E-01   4.7448E-05  0.0209
   4.0532E-01   4.1518E-01   4.5899E-05  0.0210
   4.1518E-01   4.2528E-01   4.9457E-05  0.0200
   4.2528E-01   4.3563E-01   4.8015E-05  0.0201
   4.3563E-01   4.4623E-01   4.6937E-05  0.0200
   4.4623E-01   4.5708E-01   4.7324E-05  0.0197
   4.5708E-01   4.6821E-01   4.6236E-05  0.0197
   4.6821E-01   4.7960E-01   4.5612E-05  0.0196
   4.7960E-01   4.9127E-01   4.6623E-05  0.0192
   4.9127E-01   5.0322E-01   4.7079E-05  0.0189
   5.0322E-01   5.1546E-01   4.3010E-05  0.0195
   5.1546E-01   5.2800E-01   4.4020E-05  0.0190
   5.2800E-01   5.4085E-01   4.4603E-05  0.0187
   5.4085E-01   5.5401E-01   4.2814E-05  0.0188
   5.5401E-01   5.6749E-01   4.3553E-05  0.0185
   5.6749E-01   5.8130E-01   4.3379E-05  0.0183
   5.8130E-01   5.9544E-01   4.0605E-05  0.0187
   5.9544E-01   6.0993E-01   4.2060E-05  0.0181
   6.0993E-01   6.2477E-01   4.2116E-05  0.0179
   6.2477E-01   6.3997E-01   3.8855E-05  0.0184
   6.3997E-01   6.5554E-01   3.9015E-05  0.0181
   6.5554E-01   6.7149E-01   3.9703E-05  0.0178
   6.7149E-01   6.8783E-01   3.8356E-05  0.0179
   6.8783E-01   7.0456E-01   3.6725E-05  0.0180
   7.0456E-01   7.2171E-01   3.5460E-05  0.0181
   7.2171E-01   7.3927E-01   3.5185E-05  0.0180
   7.3927E-01   7.5725E-01   3.4083E-05  0.0181
   7.5725E-01   7.7568E-01   3.3150E-05  0.0181
   7.7568E-01   7.9455E-01   3.2055E-05  0.0182
   7.9455E-01   8.1388E-01   3.1919E-05  0.0180
   8.1388E-01   8.3368E-01   3.0104E-05  0.0183
   8.3368E-01   8.5397E-01   2.8395E-05  0.0186
   8.5397E-01   8.7475E-01   2.7568E-05  0.0187
   8.7475E-01   8.9603E-01   2.6673E-05  0.0188
   8.9603E-01   9.1783E-01   2.5125E-05  0.0191
   9.1783E-01   9.4016E-01   2.3447E-05  0.0195
   9.4016E-01   9.6304E-01   2.2633E-05  0.0197
   9.6304E-01   9.8647E-01   2.2620E-05  0.0194
   9.8647E-01   1.0105E+00   2.1558E-05  0.0197
   1.0105E+00   1.0351E+00   2.1704E-05  0.0194
   1.0351E+00   1.0602E+00   2.0933E-05  0.0195
   1.0602E+00   1.0860E+00   2.2126E-05  0.0187
   1.0860E+00   1.1125E+00   2.3090E-05  0.0181
   1.1125E+00   1.1395E+00   2.2144E-05  0.0183
   1.1395E+00   1.1673E+00   2.2428E-05  0.0179
   1.1673E+00   1.1957E+00   2.4473E-05  0.0170
   1.1957E+00   1.2247E+00   2.4522E-05  0.0167
   1.2247E+00   1.2545E+00   2.5252E-05  0.0163
   1.2545E+00   1.2851E+00   2.4225E-05  0.0164
   1.2851E+00   1.3163E+00   2.5206E-05  0.0159
   1.3163E+00   1.3484E+00   2.5413E-05  0.0157
   1.3484E+00   1.3812E+00   2.6701E-05  0.0151
   1.3812E+00   1.4148E+00   2.6287E-05  0.0150
   1.4148E+00   1.4492E+00   2.6349E-05  0.0148
   1.4492E+00   1.4845E+00   2.5891E-05  0.0148
   1.4845E+00   1.5206E+00   2.5538E-05  0.0147
   1.5206E+00   1.5576E+00   2.5649E-05  0.0145
   1.5576E+00   1.5955E+00   2.6205E-05  0.0142
   1.5955E+00   1.6343E+00   2.5800E-05  0.0141
   1.6343E+00   1.6741E+00   2.5717E-05  0.0140
   1.6741E+00   1.7148E+00   2.5000E-05  0.0140
   1.7148E+00   1.7565E+00   2.5664E-05  0.0137
   1.7565E+00   1.7992E+00   2.5513E-05  0.0135
   1.7992E+00   1.8430E+00   2.3919E-05  0.0138
   1.8430E+00   1.8879E+00   2.5036E-05  0.0133
   1.8879E+00   1.9338E+00   2.4526E-05  0.0133
   1.9338E+00   1.9808E+00   2.4145E-05  0.0133
   1.9808E+00   2.0290E+00   2.3407E-05  0.0133
   2.0290E+00   2.0784E+00   2.3327E-05  0.0132
   2.0784E+00   2.1290E+00   2.2859E-05  0.0131
   2.1290E+00   2.1808E+00   2.2506E-05  0.0131
   2.1808E+00   2.2338E+00   2.1823E-05  0.0131
   2.2338E+00   2.2882E+00   2.1291E-05  0.0131
   2.2882E+00   2.3439E+00   2.0797E-05  0.0131
   2.3439E+00   2.4009E+00   2.0192E-05  0.0132
   2.4009E+00   2.4593E+00   2.0250E-05  0.0130
   2.4593E+00   2.5191E+00   1.9774E-05  0.0130
   2.5191E+00   2.5804E+00   1.8617E-05  0.0132
   2.5804E+00   2.6432E+00   1.8436E-05  0.0131
   2.6432E+00   2.7075E+00   1.7483E-05  0.0133
   2.7075E+00   2.7734E+00   1.7154E-05  0.0133
   2.7734E+00   2.8409E+00   1.6674E-05  0.0133
   2.8409E+00   2.9100E+00   1.6084E-05  0.0134
   2.9100E+00   2.9808E+00   1.5687E-05  0.0134
   2.9808E+00   3.0533E+00   1.4830E-05  0.0136
   3.0533E+00   3.1276E+00   1.4613E-05  0.0136
   3.1276E+00   3.2037E+00   1.4378E-05  0.0135
   3.2037E+00   3.2817E+00   1.3839E-05  0.0136
   3.2817E+00   3.3615E+00   1.3311E-05  0.0137
   3.3615E+00   3.4433E+00   1.2625E-05  0.0139
   3.4433E+00   3.5271E+00   1.2213E-05  0.0140
   3.5271E+00   3.6129E+00   1.1753E-05  0.0141
   3.6129E+00   3.7008E+00   1.1463E-05  0.0141
   3.7008E+00   3.7908E+00   1.1064E-05  0.0141
   3.7908E+00   3.8831E+00   1.0631E-05  0.0143
   3.8831E+00   3.9776E+00   1.0358E-05  0.0143
   3.9776E+00   4.0743E+00   1.0131E-05  0.0143
   4.0743E+00   4.1735E+00   9.7518E-06  0.0144
   4.1735E+00   4.2750E+00   9.5086E-06  0.0144
   4.2750E+00   4.3790E+00   9.3252E-06  0.0143
   4.3790E+00   4.4856E+00   8.6262E-06  0.0147
   4.4856E+00   4.5947E+00   8.6029E-06  0.0146
   4.5947E+00   4.7065E+00   8.2378E-06  0.0147
   4.7065E+00   4.8210E+00   8.1130E-06  0.0146
   4.8210E+00   4.9383E+00   7.8275E-06  0.0147
   4.9383E+00   5.0585E+00   7.8026E-06  0.0146
   5.0585E+00   5.1815E+00   7.3845E-06  0.0148
   5.1815E+00   5.3076E+00   7.3892E-06  0.0146
   5.3076E+00   5.4368E+00   7.1845E-06  0.0147
   5.4368E+00   5.5690E+00   7.0170E-06  0.0147
   5.5690E+00   5.7045E+00   6.7052E-06  0.0148
   5.7045E+00   5.8433E+00   6.6481E-06  0.0147
   5.8433E+00   5.9855E+00   6.5709E-06  0.0146
   5.9855E+00   6.1311E+00   6.3089E-06  0.0147
   6.1311E+00   6.2803E+00   6.4206E-06  0.0144
   6.2803E+00   6.4331E+00   6.3386E-06  0.0143
   6.4331E+00   6.5896E+00   5.9121E-06  0.0147
   6.5896E+00   6.7500E+00   6.0092E-06  0.0144
   6.7500E+00   6.9142E+00   5.9150E-06  0.0143
   6.9142E+00   7.0824E+00   5.6739E-06  0.0145
   7.0824E+00   7.2548E+00   5.6478E-06  0.0143
   7.2548E+00   7.4313E+00   5.5345E-06  0.0143
   7.4313E+00   7.6121E+00   5.4230E-06  0.0143
   7.6121E+00   7.7973E+00   5.4081E-06  0.0141
   7.7973E+00   7.9870E+00   5.2857E-06  0.0141
   7.9870E+00   8.1813E+00   5.3034E-06  0.0139
   8.1813E+00   8.3804E+00   5.3384E-06  0.0137
   8.3804E+00   8.5843E+00   5.1733E-06  0.0138
   8.5843E+00   8.7931E+00   5.0717E-06  0.0137
   8.7931E+00   9.0071E+00   5.1725E-06  0.0134
   9.0071E+00   9.2262E+00   5.0754E-06  0.0134
   9.2262E+00   9.4507E+00   5.1683E-06  0.0131
   9.4507E+00   9.6807E+00   5.0661E-06  0.0131
   9.6807E+00   9.9162E+00   5.1007E-06  0.0129
   9.9162E+00   1.0157E+01   4.9985E-06  0.0129
   1.0157E+01   1.0405E+01   4.8295E-06  0.0129
   1.0405E+01   1.0658E+01   4.8313E-06  0.0128
   1.0658E+01   1.0917E+01   4.9399E-06  0.0125
   1.0917E+01   1.1183E+01   4.8062E-06  0.0125
   1.1183E+01   1.1455E+01   4.8939E-06  0.0123
   1.1455E+01   1.1733E+01   4.7857E-06  0.0122
   1.1733E+01   1.2019E+01   4.8418E-06  0.0120
   1.2019E+01   1.2311E+01   4.8546E-06  0.0119
   1.2311E+01   1.2611E+01   4.8916E-06  0.0117
   1.2611E+01   1.2918E+01   4.8226E-06  0.0116
   1.2918E+01   1.3232E+01   4.6885E-06  0.0116
   1.3232E+01   1.3554E+01   4.7050E-06  0.0115
   1.3554E+01   1.3884E+01   4.6082E-06  0.0115
   1.3884E+01   1.4222E+01   4.6841E-06  0.0112
   1.4222E+01   1.4568E+01   4.6186E-06  0.0112
   1.4568E+01   1.4922E+01   4.5405E-06  0.0111
   1.4922E+01   1.5285E+01   4.5745E-06  0.0110
   1.5285E+01   1.5657E+01   4.4657E-06  0.0110
   1.5657E+01   1.6038E+01   4.4709E-06  0.0108
   1.6038E+01   1.6428E+01   4.4011E-06  0.0108
   1.6428E+01   1.6828E+01   4.3644E-06  0.0107
   1.6828E+01   1.7237E+01   4.3410E-06  0.0106
   1.7237E+01   1.7657E+01   4.2599E-06  0.0106
   1.7657E+01   1.8086E+01   4.1552E-06  0.0106
   1.8086E+01   1.8526E+01   4.0983E-06  0.0105
   1.8526E+01   1.8977E+01   3.8954E-06  0.0107
   1.8977E+01   1.9439E+01   3.8928E-06  0.0105
   1.9439E+01   1.9912E+01   3.8117E-06  0.0105
   1.9912E+01   2.0396E+01   3.6436E-06  0.0106
   2.0396E+01   2.0893E+01   3.5054E-06  0.0107
   2.0893E+01   2.1401E+01   3.3702E-06  0.0108
   2.1401E+01   2.1922E+01   3.2414E-06  0.0109
   2.1922E+01   2.2455E+01   3.0482E-06  0.0111
   2.2455E+01   2.3001E+01   2.8711E-06  0.0113
   2.3001E+01   2.3561E+01   2.7496E-06  0.0114
   2.3561E+01   2.4134E+01   2.5413E-06  0.0117
   2.4134E+01   2.4721E+01   2.4574E-06  0.0118
   2.4721E+01   2.5323E+01   2.2983E-06  0.0120
   2.5323E+01   2.5939E+01   2.2164E-06  0.0121
   2.5939E+01   2.6570E+01   2.0975E-06  0.0123
   2.6570E+01   2.7217E+01   2.0428E-06  0.0123
   2.7217E+01   2.7879E+01   1.8964E-06  0.0126
   2.7879E+01   2.8557E+01   1.8369E-06  0.0127
   2.8557E+01   2.9252E+01   1.7190E-06  0.0129
   2.9252E+01   2.9964E+01   1.6124E-06  0.0132
   2.9964E+01   3.0693E+01   1.4784E-06  0.0136
   3.0693E+01   3.1440E+01   1.4012E-06  0.0138
   3.1440E+01   3.2205E+01   1.3237E-06  0.0141
   3.2205E+01   3.2988E+01   1.2165E-06  0.0145
   3.2988E+01   3.3791E+01   1.1333E-06  0.0148
   3.3791E+01   3.4613E+01   1.0402E-06  0.0153
   3.4613E+01   3.5455E+01   9.5873E-07  0.0157
   3.5455E+01   3.6318E+01   8.6802E-07  0.0163
   3.6318E+01   3.7201E+01   7.5529E-07  0.0173
   3.7201E+01   3.8106E+01   6.2863E-07  0.0187
   3.8106E+01   3.9034E+01   5.6452E-07  0.0195
   3.9034E+01   3.9983E+01   4.4561E-07  0.0217
   3.9983E+01   4.0956E+01   3.4929E-07  0.0243
   4.0956E+01   4.1953E+01   2.4646E-07  0.0285
   4.1953E+01   4.2973E+01   1.2050E-07  0.0403
   4.2973E+01   4.4019E+01   1.2051E-08  0.1260
   4.4019E+01   4.5090E+01   1.8674E-10  1.0000
   4.5090E+01   4.6187E+01   0.0000E+00  0.0000
   4.6187E+01   4.7311E+01   0.0000E+00  0.0000
   4.7311E+01   4.8462E+01   0.0000E+00  0.0000
   4.8462E+01   4.9641E+01   0.0000E+00  0.0000
   4.9641E+01   5.0849E+01   0.0000E+00  0.0000
   5.0849E+01   5.2086E+01   0.0000E+00  0.0000
   5.2086E+01   5.3353E+01   0.0000E+00  0.0000
   5.3353E+01   5.4651E+01   0.0000E+00  0.0000
   5.4651E+01   5.5981E+01   0.0000E+00  0.0000
   5.5981E+01   5.7343E+01   0.0000E+00  0.0000
   5.7343E+01   5.8738E+01   0.0000E+00  0.0000
   5.8738E+01   6.0168E+01   0.0000E+00  0.0000
   6.0168E+01   6.1632E+01   0.0000E+00  0.0000
   6.1632E+01   6.3131E+01   0.0000E+00  0.0000
   6.3131E+01   6.4667E+01   0.0000E+00  0.0000
   6.4667E+01   6.6240E+01   0.0000E+00  0.0000
   6.6240E+01   6.7852E+01   0.0000E+00  0.0000
   6.7852E+01   6.9503E+01   0.0000E+00  0.0000
   6.9503E+01   7.1194E+01   0.0000E+00  0.0000
   7.1194E+01   7.2926E+01   0.0000E+00  0.0000
   7.2926E+01   7.4701E+01   0.0000E+00  0.0000
   7.4701E+01   7.6518E+01   0.0000E+00  0.0000
   7.6518E+01   7.8380E+01   0.0000E+00  0.0000
   7.8380E+01   8.0287E+01   0.0000E+00  0.0000
   8.0287E+01   8.2240E+01   0.0000E+00  0.0000
   8.2240E+01   8.4241E+01   0.0000E+00  0.0000
   8.4241E+01   8.6291E+01   0.0000E+00  0.0000
   8.6291E+01   8.8391E+01   0.0000E+00  0.0000
   8.8391E+01   9.0541E+01   0.0000E+00  0.0000
   9.0541E+01   9.2744E+01   0.0000E+00  0.0000
   9.2744E+01   9.5001E+01   0.0000E+00  0.0000
   9.5001E+01   9.7312E+01   0.0000E+00  0.0000
   9.7312E+01   9.9680E+01   0.0000E+00  0.0000
   9.9680E+01   1.0211E+02   0.0000E+00  0.0000
   1.0211E+02   1.0459E+02   0.0000E+00  0.0000
   1.0459E+02   1.0713E+02   0.0000E+00  0.0000
   1.0713E+02   1.0974E+02   0.0000E+00  0.0000
   1.0974E+02   1.1241E+02   0.0000E+00  0.0000
   1.1241E+02   1.1515E+02   0.0000E+00  0.0000
   1.1515E+02   1.1795E+02   0.0000E+00  0.0000
   1.1795E+02   1.2082E+02   0.0000E+00  0.0000
   1.2082E+02   1.2376E+02   0.0000E+00  0.0000
   1.2376E+02   1.2677E+02   0.0000E+00  0.0000
   1.2677E+02   1.2985E+02   0.0000E+00  0.0000
   1.2985E+02   1.3301E+02   0.0000E+00  0.0000
   1.3301E+02   1.3625E+02   0.0000E+00  0.0000
   1.3625E+02   1.3956E+02   0.0000E+00  0.0000
   1.3956E+02   1.4296E+02   0.0000E+00  0.0000
   1.4296E+02   1.4644E+02   0.0000E+00  0.0000
   1.4644E+02   1.5000E+02   0.0000E+00  0.0000

#   sum over                 1.4231E-06
'no. =    1   reg = 100 - 200'
msuc: {\huge [t-cross] in region mesh}
msdr: {\it plotted by \ANGEL \version}
msdl: {\it calculated by \PHITS  3.26}
wt: s(0.7)
\vspace{-3}
  region surface crossing
  area  &=&   1.0000E+00 [cm^2]
e:
 
# Information for Restart Calculation
# This calculation was newly started
# istdev =  2 # 1:Batch variance, 2:History variance
# resc2  = 5.00000000000000000E+09 # Total source weight or Total source weight / maxcas
# resc3  = 5.00000000000000000E+09 # Total history number or Total batch number
# maxcas =   100000000 # History / Batch, only used for istdev=1
# bitrseed = 0110100000100010111000001110001111001110100100011111101000111001 # bit data of rseed
