[ T-Cross ]
    title = [t-cross] in region mesh
     mesh =  reg            # mesh type is region-wise
      reg =    1            # number of crossing regions
      non     r-from    r-to       area
      1       116       216        1.000000    
   e-type =    3            # e-mesh is log given by emin, emax and ne
     emin =  1.0000000E-02  # minimum value of e-mesh points
     emax =   150.0000      # maximum value of e-mesh points
#    edel =  2.4039514E-02  # mesh width of e-mesh points
       ne =    400          # number of e-mesh points
#    data = ( e(i), i = 1, ne + 1 )
#           1.00000E-02  1.02433E-02  1.04925E-02  1.07478E-02  1.10093E-02
#           1.12772E-02  1.15516E-02  1.18326E-02  1.21205E-02  1.24154E-02
#           1.27175E-02  1.30269E-02  1.33439E-02  1.36686E-02  1.40011E-02
#           1.43418E-02  1.46907E-02  1.50482E-02  1.54143E-02  1.57894E-02
#           1.61735E-02  1.65670E-02  1.69701E-02  1.73830E-02  1.78060E-02
#           1.82392E-02  1.86830E-02  1.91375E-02  1.96032E-02  2.00801E-02
#           2.05687E-02  2.10692E-02  2.15818E-02  2.21069E-02  2.26448E-02
#           2.31957E-02  2.37601E-02  2.43382E-02  2.49304E-02  2.55369E-02
#           2.61583E-02  2.67947E-02  2.74467E-02  2.81145E-02  2.87985E-02
#           2.94992E-02  3.02169E-02  3.09521E-02  3.17052E-02  3.24766E-02
#           3.32668E-02  3.40762E-02  3.49053E-02  3.57546E-02  3.66246E-02
#           3.75157E-02  3.84284E-02  3.93634E-02  4.03212E-02  4.13022E-02
#           4.23071E-02  4.33365E-02  4.43909E-02  4.54710E-02  4.65773E-02
#           4.77106E-02  4.88714E-02  5.00605E-02  5.12785E-02  5.25262E-02
#           5.38042E-02  5.51133E-02  5.64542E-02  5.78278E-02  5.92348E-02
#           6.06760E-02  6.21523E-02  6.36645E-02  6.52135E-02  6.68002E-02
#           6.84255E-02  7.00904E-02  7.17957E-02  7.35426E-02  7.53319E-02
#           7.71648E-02  7.90423E-02  8.09655E-02  8.29354E-02  8.49533E-02
#           8.70203E-02  8.91376E-02  9.13064E-02  9.35279E-02  9.58035E-02
#           9.81345E-02  1.00522E-01  1.02968E-01  1.05473E-01  1.08040E-01
#           1.10668E-01  1.13361E-01  1.16119E-01  1.18944E-01  1.21838E-01
#           1.24803E-01  1.27839E-01  1.30950E-01  1.34136E-01  1.37399E-01
#           1.40742E-01  1.44167E-01  1.47675E-01  1.51268E-01  1.54948E-01
#           1.58718E-01  1.62580E-01  1.66535E-01  1.70587E-01  1.74738E-01
#           1.78989E-01  1.83344E-01  1.87805E-01  1.92375E-01  1.97055E-01
#           2.01850E-01  2.06761E-01  2.11792E-01  2.16945E-01  2.22223E-01
#           2.27630E-01  2.33169E-01  2.38842E-01  2.44653E-01  2.50605E-01
#           2.56703E-01  2.62949E-01  2.69346E-01  2.75900E-01  2.82613E-01
#           2.89489E-01  2.96532E-01  3.03747E-01  3.11138E-01  3.18708E-01
#           3.26462E-01  3.34405E-01  3.42542E-01  3.50876E-01  3.59413E-01
#           3.68158E-01  3.77116E-01  3.86291E-01  3.95690E-01  4.05317E-01
#           4.15179E-01  4.25281E-01  4.35628E-01  4.46227E-01  4.57084E-01
#           4.68205E-01  4.79597E-01  4.91266E-01  5.03219E-01  5.15463E-01
#           5.28005E-01  5.40851E-01  5.54011E-01  5.67490E-01  5.81298E-01
#           5.95441E-01  6.09929E-01  6.24769E-01  6.39970E-01  6.55541E-01
#           6.71491E-01  6.87828E-01  7.04564E-01  7.21706E-01  7.39266E-01
#           7.57253E-01  7.75678E-01  7.94551E-01  8.13883E-01  8.33685E-01
#           8.53969E-01  8.74747E-01  8.96030E-01  9.17831E-01  9.40163E-01
#           9.63038E-01  9.86469E-01  1.01047E+00  1.03506E+00  1.06024E+00
#           1.08604E+00  1.11246E+00  1.13953E+00  1.16725E+00  1.19565E+00
#           1.22474E+00  1.25454E+00  1.28507E+00  1.31633E+00  1.34836E+00
#           1.38117E+00  1.41477E+00  1.44920E+00  1.48446E+00  1.52057E+00
#           1.55757E+00  1.59547E+00  1.63429E+00  1.67405E+00  1.71478E+00
#           1.75650E+00  1.79924E+00  1.84302E+00  1.88786E+00  1.93379E+00
#           1.98084E+00  2.02904E+00  2.07841E+00  2.12898E+00  2.18078E+00
#           2.23384E+00  2.28819E+00  2.34386E+00  2.40089E+00  2.45930E+00
#           2.51914E+00  2.58043E+00  2.64322E+00  2.70753E+00  2.77341E+00
#           2.84088E+00  2.91001E+00  2.98081E+00  3.05333E+00  3.12762E+00
#           3.20372E+00  3.28167E+00  3.36152E+00  3.44330E+00  3.52708E+00
#           3.61290E+00  3.70080E+00  3.79085E+00  3.88308E+00  3.97756E+00
#           4.07434E+00  4.17347E+00  4.27501E+00  4.37903E+00  4.48557E+00
#           4.59471E+00  4.70650E+00  4.82102E+00  4.93832E+00  5.05847E+00
#           5.18155E+00  5.30762E+00  5.43676E+00  5.56904E+00  5.70453E+00
#           5.84333E+00  5.98550E+00  6.13114E+00  6.28031E+00  6.43312E+00
#           6.58964E+00  6.74997E+00  6.91420E+00  7.08243E+00  7.25475E+00
#           7.43126E+00  7.61207E+00  7.79728E+00  7.98700E+00  8.18133E+00
#           8.38038E+00  8.58428E+00  8.79315E+00  9.00709E+00  9.22624E+00
#           9.45072E+00  9.68067E+00  9.91620E+00  1.01575E+01  1.04046E+01
#           1.06578E+01  1.09171E+01  1.11827E+01  1.14548E+01  1.17335E+01
#           1.20190E+01  1.23114E+01  1.26109E+01  1.29178E+01  1.32321E+01
#           1.35540E+01  1.38838E+01  1.42216E+01  1.45676E+01  1.49221E+01
#           1.52851E+01  1.56570E+01  1.60380E+01  1.64282E+01  1.68279E+01
#           1.72374E+01  1.76568E+01  1.80864E+01  1.85264E+01  1.89772E+01
#           1.94389E+01  1.99119E+01  2.03963E+01  2.08926E+01  2.14009E+01
#           2.19216E+01  2.24550E+01  2.30014E+01  2.35610E+01  2.41343E+01
#           2.47215E+01  2.53230E+01  2.59391E+01  2.65702E+01  2.72167E+01
#           2.78789E+01  2.85572E+01  2.92520E+01  2.99637E+01  3.06928E+01
#           3.14396E+01  3.22045E+01  3.29881E+01  3.37907E+01  3.46128E+01
#           3.54550E+01  3.63177E+01  3.72013E+01  3.81064E+01  3.90336E+01
#           3.99833E+01  4.09561E+01  4.19526E+01  4.29734E+01  4.40189E+01
#           4.50900E+01  4.61870E+01  4.73108E+01  4.84619E+01  4.96410E+01
#           5.08488E+01  5.20860E+01  5.33533E+01  5.46514E+01  5.59812E+01
#           5.73432E+01  5.87384E+01  6.01676E+01  6.16315E+01  6.31311E+01
#           6.46671E+01  6.62405E+01  6.78522E+01  6.95031E+01  7.11941E+01
#           7.29263E+01  7.47007E+01  7.65182E+01  7.83800E+01  8.02870E+01
#           8.22405E+01  8.42414E+01  8.62911E+01  8.83906E+01  9.05412E+01
#           9.27442E+01  9.50007E+01  9.73122E+01  9.96799E+01  1.02105E+02
#           1.04589E+02  1.07134E+02  1.09741E+02  1.12411E+02  1.15146E+02
#           1.17948E+02  1.20817E+02  1.23757E+02  1.26768E+02  1.29852E+02
#           1.33012E+02  1.36248E+02  1.39563E+02  1.42959E+02  1.46437E+02
#           1.50000E+02
     unit =    2            # unit is [1/cm^2/(MeV/n)/source]
     axis =  eng            # axis of output
     file = detector-17.out  # file name of output for the above axis
   output = f-curr          # surface crossing forward current spectrum
     part =  neutron  
# kf/name :  2112     
#    used :        main (  %)        temp (  %)       total (  %)
#  memory :         414 (  0)           0 (  0)         414 (  0)

#------------------------------------------------------------------------------
#newpage:
#   no. =    1   reg = 116 - 216

x: Energy [MeV/n]
y:  F-Curr [1/cm^2/(MeV/n)/source]         
p: xlog ylog afac(0.8) form(0.9)
h: n            x            y(neutron ),hh0l   n 
#  e-lower      e-upper      neutron     r.err 
   1.0000E-02   1.0243E-02   2.4868E-04  0.0574
   1.0243E-02   1.0493E-02   2.1342E-04  0.0611
   1.0493E-02   1.0748E-02   2.1170E-04  0.0607
   1.0748E-02   1.1009E-02   2.2782E-04  0.0578
   1.1009E-02   1.1277E-02   2.1258E-04  0.0592
   1.1277E-02   1.1552E-02   2.1622E-04  0.0580
   1.1552E-02   1.1833E-02   2.0293E-04  0.0591
   1.1833E-02   1.2121E-02   2.0416E-04  0.0581
   1.2121E-02   1.2415E-02   2.0525E-04  0.0574
   1.2415E-02   1.2718E-02   1.8895E-04  0.0591
   1.2718E-02   1.3027E-02   2.0095E-04  0.0566
   1.3027E-02   1.3344E-02   1.6350E-04  0.0620
   1.3344E-02   1.3669E-02   1.8930E-04  0.0569
   1.3669E-02   1.4001E-02   1.8502E-04  0.0569
   1.4001E-02   1.4342E-02   1.6571E-04  0.0594
   1.4342E-02   1.4691E-02   1.6015E-04  0.0597
   1.4691E-02   1.5048E-02   1.6146E-04  0.0588
   1.5048E-02   1.5414E-02   1.7326E-04  0.0560
   1.5414E-02   1.5789E-02   1.6716E-04  0.0564
   1.5789E-02   1.6174E-02   1.4077E-04  0.0608
   1.6174E-02   1.6567E-02   1.5123E-04  0.0578
   1.6567E-02   1.6970E-02   1.6025E-04  0.0555
   1.6970E-02   1.7383E-02   1.4089E-04  0.0585
   1.7383E-02   1.7806E-02   1.2357E-04  0.0617
   1.7806E-02   1.8239E-02   1.4421E-04  0.0565
   1.8239E-02   1.8683E-02   1.4193E-04  0.0563
   1.8683E-02   1.9138E-02   1.1114E-04  0.0628
   1.9138E-02   1.9603E-02   1.3764E-04  0.0557
   1.9603E-02   2.0080E-02   1.3871E-04  0.0549
   2.0080E-02   2.0569E-02   1.1208E-04  0.0603
   2.0569E-02   2.1069E-02   1.2575E-04  0.0562
   2.1069E-02   2.1582E-02   1.1889E-04  0.0571
   2.1582E-02   2.2107E-02   1.1393E-04  0.0577
   2.2107E-02   2.2645E-02   1.1449E-04  0.0569
   2.2645E-02   2.3196E-02   1.1522E-04  0.0560
   2.3196E-02   2.3760E-02   1.0402E-04  0.0582
   2.3760E-02   2.4338E-02   1.0103E-04  0.0584
   2.4338E-02   2.4930E-02   1.1534E-04  0.0540
   2.4930E-02   2.5537E-02   1.0391E-04  0.0562
   2.5537E-02   2.6158E-02   9.8727E-05  0.0570
   2.6158E-02   2.6795E-02   1.0179E-04  0.0555
   2.6795E-02   2.7447E-02   9.7585E-05  0.0559
   2.7447E-02   2.8114E-02   9.5450E-05  0.0559
   2.8114E-02   2.8799E-02   1.0088E-04  0.0538
   2.8799E-02   2.9499E-02   9.2575E-05  0.0554
   2.9499E-02   3.0217E-02   8.7081E-05  0.0565
   3.0217E-02   3.0952E-02   9.1453E-05  0.0545
   3.0952E-02   3.1705E-02   8.7706E-05  0.0548
   3.1705E-02   3.2477E-02   8.3394E-05  0.0556
   3.2477E-02   3.3267E-02   8.0239E-05  0.0561
   3.3267E-02   3.4076E-02   8.0672E-05  0.0552
   3.4076E-02   3.4905E-02   7.4855E-05  0.0566
   3.4905E-02   3.5755E-02   7.2717E-05  0.0568
   3.5755E-02   3.6625E-02   8.0592E-05  0.0533
   3.6625E-02   3.7516E-02   6.5467E-05  0.0585
   3.7516E-02   3.8428E-02   7.7221E-05  0.0532
   3.8428E-02   3.9363E-02   7.2819E-05  0.0541
   3.9363E-02   4.0321E-02   6.8101E-05  0.0552
   4.0321E-02   4.1302E-02   6.7979E-05  0.0546
   4.1302E-02   4.2307E-02   5.8085E-05  0.0584
   4.2307E-02   4.3337E-02   6.4916E-05  0.0546
   4.3337E-02   4.4391E-02   6.4794E-05  0.0540
   4.4391E-02   4.5471E-02   6.4022E-05  0.0537
   4.5471E-02   4.6577E-02   6.4817E-05  0.0527
   4.6577E-02   4.7711E-02   6.1261E-05  0.0535
   4.7711E-02   4.8871E-02   5.0210E-05  0.0584
   4.8871E-02   5.0061E-02   5.7771E-05  0.0539
   5.0061E-02   5.1279E-02   5.7111E-05  0.0535
   5.1279E-02   5.2526E-02   5.3542E-05  0.0546
   5.2526E-02   5.3804E-02   5.8404E-05  0.0517
   5.3804E-02   5.5113E-02   5.3742E-05  0.0532
   5.5113E-02   5.6454E-02   5.3656E-05  0.0526
   5.6454E-02   5.7828E-02   4.9309E-05  0.0542
   5.7828E-02   5.9235E-02   4.8381E-05  0.0541
   5.9235E-02   6.0676E-02   4.5324E-05  0.0553
   6.0676E-02   6.2152E-02   4.6344E-05  0.0539
   6.2152E-02   6.3665E-02   4.6429E-05  0.0532
   6.3665E-02   6.5214E-02   4.5462E-05  0.0532
   6.5214E-02   6.6800E-02   4.6732E-05  0.0518
   6.6800E-02   6.8426E-02   4.5916E-05  0.0517
   6.8426E-02   7.0090E-02   4.4907E-05  0.0516
   7.0090E-02   7.1796E-02   4.0106E-05  0.0539
   7.1796E-02   7.3543E-02   4.1298E-05  0.0526
   7.3543E-02   7.5332E-02   3.8034E-05  0.0542
   7.5332E-02   7.7165E-02   3.9252E-05  0.0526
   7.7165E-02   7.9042E-02   4.1028E-05  0.0509
   7.9042E-02   8.0965E-02   3.6165E-05  0.0535
   8.0965E-02   8.2935E-02   4.1370E-05  0.0494
   8.2935E-02   8.4953E-02   3.5800E-05  0.0525
   8.4953E-02   8.7020E-02   3.5270E-05  0.0523
   8.7020E-02   8.9138E-02   3.8640E-05  0.0493
   8.9138E-02   9.1306E-02   3.6213E-05  0.0504
   9.1306E-02   9.3528E-02   3.5595E-05  0.0502
   9.3528E-02   9.5804E-02   3.5452E-05  0.0497
   9.5804E-02   9.8134E-02   3.4847E-05  0.0495
   9.8134E-02   1.0052E-01   3.6278E-05  0.0479
   1.0052E-01   1.0297E-01   3.3589E-05  0.0493
   1.0297E-01   1.0547E-01   3.7418E-05  0.0461
   1.0547E-01   1.0804E-01   4.0488E-05  0.0438
   1.0804E-01   1.1067E-01   3.9127E-05  0.0440
   1.1067E-01   1.1336E-01   4.1881E-05  0.0420
   1.1336E-01   1.1612E-01   4.2469E-05  0.0413
   1.1612E-01   1.1894E-01   4.5919E-05  0.0392
   1.1894E-01   1.2184E-01   5.1159E-05  0.0367
   1.2184E-01   1.2480E-01   4.8347E-05  0.0373
   1.2480E-01   1.2784E-01   5.4704E-05  0.0346
   1.2784E-01   1.3095E-01   5.5217E-05  0.0340
   1.3095E-01   1.3414E-01   5.5653E-05  0.0336
   1.3414E-01   1.3740E-01   5.4945E-05  0.0333
   1.3740E-01   1.4074E-01   6.3080E-05  0.0307
   1.4074E-01   1.4417E-01   6.2050E-05  0.0306
   1.4417E-01   1.4767E-01   6.7033E-05  0.0291
   1.4767E-01   1.5127E-01   6.6940E-05  0.0288
   1.5127E-01   1.5495E-01   6.8818E-05  0.0280
   1.5495E-01   1.5872E-01   7.3600E-05  0.0268
   1.5872E-01   1.6258E-01   7.8657E-05  0.0256
   1.6258E-01   1.6654E-01   8.3153E-05  0.0246
   1.6654E-01   1.7059E-01   8.1846E-05  0.0245
   1.7059E-01   1.7474E-01   8.8246E-05  0.0233
   1.7474E-01   1.7899E-01   8.8926E-05  0.0229
   1.7899E-01   1.8334E-01   9.2915E-05  0.0222
   1.8334E-01   1.8781E-01   9.9300E-05  0.0212
   1.8781E-01   1.9237E-01   1.0424E-04  0.0205
   1.9237E-01   1.9706E-01   1.0863E-04  0.0198
   1.9706E-01   2.0185E-01   1.0477E-04  0.0199
   2.0185E-01   2.0676E-01   1.1264E-04  0.0190
   2.0676E-01   2.1179E-01   1.1507E-04  0.0185
   2.1179E-01   2.1694E-01   1.1714E-04  0.0182
   2.1694E-01   2.2222E-01   1.2472E-04  0.0174
   2.2222E-01   2.2763E-01   1.2716E-04  0.0170
   2.2763E-01   2.3317E-01   1.3454E-04  0.0164
   2.3317E-01   2.3884E-01   1.4025E-04  0.0158
   2.3884E-01   2.4465E-01   1.4321E-04  0.0155
   2.4465E-01   2.5061E-01   1.4883E-04  0.0150
   2.5061E-01   2.5670E-01   1.5586E-04  0.0145
   2.5670E-01   2.6295E-01   1.5946E-04  0.0141
   2.6295E-01   2.6935E-01   1.6055E-04  0.0139
   2.6935E-01   2.7590E-01   1.6654E-04  0.0135
   2.7590E-01   2.8261E-01   1.7106E-04  0.0132
   2.8261E-01   2.8949E-01   1.7516E-04  0.0129
   2.8949E-01   2.9653E-01   1.7887E-04  0.0126
   2.9653E-01   3.0375E-01   1.8350E-04  0.0123
   3.0375E-01   3.1114E-01   1.9076E-04  0.0119
   3.1114E-01   3.1871E-01   1.9094E-04  0.0117
   3.1871E-01   3.2646E-01   2.0200E-04  0.0113
   3.2646E-01   3.3441E-01   2.0844E-04  0.0110
   3.3441E-01   3.4254E-01   2.1149E-04  0.0108
   3.4254E-01   3.5088E-01   2.1711E-04  0.0105
   3.5088E-01   3.5941E-01   2.1813E-04  0.0103
   3.5941E-01   3.6816E-01   2.2758E-04  0.0100
   3.6816E-01   3.7712E-01   2.2447E-04  0.0099
   3.7712E-01   3.8629E-01   2.3452E-04  0.0096
   3.8629E-01   3.9569E-01   2.3241E-04  0.0095
   3.9569E-01   4.0532E-01   2.3872E-04  0.0093
   4.0532E-01   4.1518E-01   2.4498E-04  0.0091
   4.1518E-01   4.2528E-01   2.4857E-04  0.0089
   4.2528E-01   4.3563E-01   2.4486E-04  0.0089
   4.3563E-01   4.4623E-01   2.5141E-04  0.0086
   4.4623E-01   4.5708E-01   2.5677E-04  0.0084
   4.5708E-01   4.6821E-01   2.6120E-04  0.0083
   4.6821E-01   4.7960E-01   2.5860E-04  0.0082
   4.7960E-01   4.9127E-01   2.6254E-04  0.0081
   4.9127E-01   5.0322E-01   2.6256E-04  0.0080
   5.0322E-01   5.1546E-01   2.6992E-04  0.0078
   5.1546E-01   5.2800E-01   2.6864E-04  0.0077
   5.2800E-01   5.4085E-01   2.7298E-04  0.0075
   5.4085E-01   5.5401E-01   2.7414E-04  0.0074
   5.5401E-01   5.6749E-01   2.7339E-04  0.0073
   5.6749E-01   5.8130E-01   2.7919E-04  0.0072
   5.8130E-01   5.9544E-01   2.7634E-04  0.0071
   5.9544E-01   6.0993E-01   2.7843E-04  0.0070
   6.0993E-01   6.2477E-01   2.7682E-04  0.0070
   6.2477E-01   6.3997E-01   2.8011E-04  0.0068
   6.3997E-01   6.5554E-01   2.8110E-04  0.0067
   6.5554E-01   6.7149E-01   2.7791E-04  0.0067
   6.7149E-01   6.8783E-01   2.7813E-04  0.0066
   6.8783E-01   7.0456E-01   2.7671E-04  0.0065
   7.0456E-01   7.2171E-01   2.7640E-04  0.0065
   7.2171E-01   7.3927E-01   2.7459E-04  0.0064
   7.3927E-01   7.5725E-01   2.7291E-04  0.0064
   7.5725E-01   7.7568E-01   2.7171E-04  0.0063
   7.7568E-01   7.9455E-01   2.7131E-04  0.0062
   7.9455E-01   8.1388E-01   2.6801E-04  0.0062
   8.1388E-01   8.3368E-01   2.6668E-04  0.0061
   8.3368E-01   8.5397E-01   2.5840E-04  0.0061
   8.5397E-01   8.7475E-01   2.5829E-04  0.0061
   8.7475E-01   8.9603E-01   2.5471E-04  0.0060
   8.9603E-01   9.1783E-01   2.5212E-04  0.0060
   9.1783E-01   9.4016E-01   2.5119E-04  0.0059
   9.4016E-01   9.6304E-01   2.4345E-04  0.0060
   9.6304E-01   9.8647E-01   2.4073E-04  0.0059
   9.8647E-01   1.0105E+00   2.3443E-04  0.0059
   1.0105E+00   1.0351E+00   2.3038E-04  0.0059
   1.0351E+00   1.0602E+00   2.2383E-04  0.0059
   1.0602E+00   1.0860E+00   2.2382E-04  0.0058
   1.0860E+00   1.1125E+00   2.2333E-04  0.0058
   1.1125E+00   1.1395E+00   2.2311E-04  0.0057
   1.1395E+00   1.1673E+00   2.2217E-04  0.0056
   1.1673E+00   1.1957E+00   2.2155E-04  0.0056
   1.1957E+00   1.2247E+00   2.1664E-04  0.0056
   1.2247E+00   1.2545E+00   2.1562E-04  0.0055
   1.2545E+00   1.2851E+00   2.1410E-04  0.0055
   1.2851E+00   1.3163E+00   2.1185E-04  0.0054
   1.3163E+00   1.3484E+00   2.1025E-04  0.0054
   1.3484E+00   1.3812E+00   2.0883E-04  0.0053
   1.3812E+00   1.4148E+00   2.0499E-04  0.0053
   1.4148E+00   1.4492E+00   2.0304E-04  0.0053
   1.4492E+00   1.4845E+00   1.9847E-04  0.0053
   1.4845E+00   1.5206E+00   1.9731E-04  0.0052
   1.5206E+00   1.5576E+00   1.9234E-04  0.0052
   1.5576E+00   1.5955E+00   1.8925E-04  0.0052
   1.5955E+00   1.6343E+00   1.8632E-04  0.0052
   1.6343E+00   1.6741E+00   1.8070E-04  0.0052
   1.6741E+00   1.7148E+00   1.7650E-04  0.0052
   1.7148E+00   1.7565E+00   1.7026E-04  0.0052
   1.7565E+00   1.7992E+00   1.6409E-04  0.0052
   1.7992E+00   1.8430E+00   1.5095E-04  0.0054
   1.8430E+00   1.8879E+00   1.4303E-04  0.0054
   1.8879E+00   1.9338E+00   1.3816E-04  0.0054
   1.9338E+00   1.9808E+00   1.3367E-04  0.0055
   1.9808E+00   2.0290E+00   1.2983E-04  0.0055
   2.0290E+00   2.0784E+00   1.2764E-04  0.0054
   2.0784E+00   2.1290E+00   1.2585E-04  0.0054
   2.1290E+00   2.1808E+00   1.2425E-04  0.0054
   2.1808E+00   2.2338E+00   1.2679E-04  0.0052
   2.2338E+00   2.2882E+00   1.2194E-04  0.0053
   2.2882E+00   2.3439E+00   1.1761E-04  0.0053
   2.3439E+00   2.4009E+00   1.1317E-04  0.0054
   2.4009E+00   2.4593E+00   1.1111E-04  0.0054
   2.4593E+00   2.5191E+00   1.0767E-04  0.0054
   2.5191E+00   2.5804E+00   1.0600E-04  0.0054
   2.5804E+00   2.6432E+00   1.0319E-04  0.0054
   2.6432E+00   2.7075E+00   9.9967E-05  0.0054
   2.7075E+00   2.7734E+00   9.6947E-05  0.0054
   2.7734E+00   2.8409E+00   9.4489E-05  0.0054
   2.8409E+00   2.9100E+00   9.3004E-05  0.0054
   2.9100E+00   2.9808E+00   9.0409E-05  0.0054
   2.9808E+00   3.0533E+00   8.9305E-05  0.0054
   3.0533E+00   3.1276E+00   8.6821E-05  0.0054
   3.1276E+00   3.2037E+00   8.5323E-05  0.0054
   3.2037E+00   3.2817E+00   8.5430E-05  0.0053
   3.2817E+00   3.3615E+00   8.3193E-05  0.0053
   3.3615E+00   3.4433E+00   8.1486E-05  0.0053
   3.4433E+00   3.5271E+00   8.0764E-05  0.0053
   3.5271E+00   3.6129E+00   7.9429E-05  0.0053
   3.6129E+00   3.7008E+00   7.9315E-05  0.0052
   3.7008E+00   3.7908E+00   7.8743E-05  0.0052
   3.7908E+00   3.8831E+00   7.7255E-05  0.0052
   3.8831E+00   3.9776E+00   7.6180E-05  0.0051
   3.9776E+00   4.0743E+00   7.5140E-05  0.0051
   4.0743E+00   4.1735E+00   7.3555E-05  0.0051
   4.1735E+00   4.2750E+00   7.2778E-05  0.0051
   4.2750E+00   4.3790E+00   7.1707E-05  0.0051
   4.3790E+00   4.4856E+00   7.0382E-05  0.0050
   4.4856E+00   4.5947E+00   6.9053E-05  0.0050
   4.5947E+00   4.7065E+00   6.8172E-05  0.0050
   4.7065E+00   4.8210E+00   6.6627E-05  0.0050
   4.8210E+00   4.9383E+00   6.5726E-05  0.0050
   4.9383E+00   5.0585E+00   6.5435E-05  0.0049
   5.0585E+00   5.1815E+00   6.4747E-05  0.0049
   5.1815E+00   5.3076E+00   6.4283E-05  0.0049
   5.3076E+00   5.4368E+00   6.3407E-05  0.0048
   5.4368E+00   5.5690E+00   6.2939E-05  0.0048
   5.5690E+00   5.7045E+00   6.1431E-05  0.0048
   5.7045E+00   5.8433E+00   6.1012E-05  0.0048
   5.8433E+00   5.9855E+00   6.0368E-05  0.0047
   5.9855E+00   6.1311E+00   5.9763E-05  0.0047
   6.1311E+00   6.2803E+00   5.8603E-05  0.0047
   6.2803E+00   6.4331E+00   5.7199E-05  0.0047
   6.4331E+00   6.5896E+00   5.6829E-05  0.0047
   6.5896E+00   6.7500E+00   5.5697E-05  0.0047
   6.7500E+00   6.9142E+00   5.5078E-05  0.0046
   6.9142E+00   7.0824E+00   5.4032E-05  0.0046
   7.0824E+00   7.2548E+00   5.2929E-05  0.0046
   7.2548E+00   7.4313E+00   5.1895E-05  0.0046
   7.4313E+00   7.6121E+00   5.0680E-05  0.0046
   7.6121E+00   7.7973E+00   4.9606E-05  0.0046
   7.7973E+00   7.9870E+00   4.8122E-05  0.0046
   7.9870E+00   8.1813E+00   4.7558E-05  0.0046
   8.1813E+00   8.3804E+00   4.6009E-05  0.0046
   8.3804E+00   8.5843E+00   4.5155E-05  0.0046
   8.5843E+00   8.7931E+00   4.3884E-05  0.0046
   8.7931E+00   9.0071E+00   4.2487E-05  0.0046
   9.0071E+00   9.2262E+00   4.1319E-05  0.0047
   9.2262E+00   9.4507E+00   3.9970E-05  0.0047
   9.4507E+00   9.6807E+00   3.8890E-05  0.0047
   9.6807E+00   9.9162E+00   3.7962E-05  0.0047
   9.9162E+00   1.0157E+01   3.8164E-05  0.0046
   1.0157E+01   1.0405E+01   3.7007E-05  0.0047
   1.0405E+01   1.0658E+01   3.5659E-05  0.0047
   1.0658E+01   1.0917E+01   3.4181E-05  0.0047
   1.0917E+01   1.1183E+01   3.2669E-05  0.0048
   1.1183E+01   1.1455E+01   3.1373E-05  0.0048
   1.1455E+01   1.1733E+01   3.0526E-05  0.0048
   1.1733E+01   1.2019E+01   2.9456E-05  0.0049
   1.2019E+01   1.2311E+01   2.8094E-05  0.0049
   1.2311E+01   1.2611E+01   2.7011E-05  0.0050
   1.2611E+01   1.2918E+01   2.5964E-05  0.0050
   1.2918E+01   1.3232E+01   2.5068E-05  0.0050
   1.3232E+01   1.3554E+01   2.4015E-05  0.0051
   1.3554E+01   1.3884E+01   2.2981E-05  0.0051
   1.3884E+01   1.4222E+01   2.1948E-05  0.0052
   1.4222E+01   1.4568E+01   2.1102E-05  0.0052
   1.4568E+01   1.4922E+01   1.9903E-05  0.0053
   1.4922E+01   1.5285E+01   1.8797E-05  0.0054
   1.5285E+01   1.5657E+01   1.7697E-05  0.0055
   1.5657E+01   1.6038E+01   1.6686E-05  0.0056
   1.6038E+01   1.6428E+01   1.5690E-05  0.0057
   1.6428E+01   1.6828E+01   1.4895E-05  0.0058
   1.6828E+01   1.7237E+01   1.3842E-05  0.0059
   1.7237E+01   1.7657E+01   1.2965E-05  0.0061
   1.7657E+01   1.8086E+01   1.2469E-05  0.0061
   1.8086E+01   1.8526E+01   1.1669E-05  0.0062
   1.8526E+01   1.8977E+01   1.0703E-05  0.0064
   1.8977E+01   1.9439E+01   9.8384E-06  0.0066
   1.9439E+01   1.9912E+01   8.9711E-06  0.0069
   1.9912E+01   2.0396E+01   8.3505E-06  0.0070
   2.0396E+01   2.0893E+01   7.5219E-06  0.0073
   2.0893E+01   2.1401E+01   6.7058E-06  0.0077
   2.1401E+01   2.1922E+01   5.8871E-06  0.0081
   2.1922E+01   2.2455E+01   5.2838E-06  0.0084
   2.2455E+01   2.3001E+01   4.6593E-06  0.0089
   2.3001E+01   2.3561E+01   4.0694E-06  0.0094
   2.3561E+01   2.4134E+01   3.5387E-06  0.0099
   2.4134E+01   2.4721E+01   3.0374E-06  0.0106
   2.4721E+01   2.5323E+01   2.5862E-06  0.0113
   2.5323E+01   2.5939E+01   2.1830E-06  0.0122
   2.5939E+01   2.6570E+01   1.8706E-06  0.0130
   2.6570E+01   2.7217E+01   1.5524E-06  0.0141
   2.7217E+01   2.7879E+01   1.2969E-06  0.0153
   2.7879E+01   2.8557E+01   1.1381E-06  0.0161
   2.8557E+01   2.9252E+01   8.9635E-07  0.0179
   2.9252E+01   2.9964E+01   7.0364E-07  0.0200
   2.9964E+01   3.0693E+01   5.4537E-07  0.0224
   3.0693E+01   3.1440E+01   4.3975E-07  0.0247
   3.1440E+01   3.2205E+01   3.2185E-07  0.0285
   3.2205E+01   3.2988E+01   2.4784E-07  0.0321
   3.2988E+01   3.3791E+01   1.7891E-07  0.0373
   3.3791E+01   3.4613E+01   1.3331E-07  0.0427
   3.4613E+01   3.5455E+01   1.0236E-07  0.0482
   3.5455E+01   3.6318E+01   7.5581E-08  0.0554
   3.6318E+01   3.7201E+01   5.3642E-08  0.0650
   3.7201E+01   3.8106E+01   4.2425E-08  0.0722
   3.8106E+01   3.9034E+01   3.3004E-08  0.0808
   3.9034E+01   3.9983E+01   3.2431E-08  0.0806
   3.9983E+01   4.0956E+01   1.5419E-08  0.1155
   4.0956E+01   4.1953E+01   3.2113E-09  0.2500
   4.1953E+01   4.2973E+01   2.5472E-09  0.2774
   4.2973E+01   4.4019E+01   9.5641E-10  0.4472
   4.4019E+01   4.5090E+01   1.3072E-09  0.3780
   4.5090E+01   4.6187E+01   5.4691E-10  0.5774
   4.6187E+01   4.7311E+01   0.0000E+00  0.0000
   4.7311E+01   4.8462E+01   0.0000E+00  0.0000
   4.8462E+01   4.9641E+01   0.0000E+00  0.0000
   4.9641E+01   5.0849E+01   0.0000E+00  0.0000
   5.0849E+01   5.2086E+01   0.0000E+00  0.0000
   5.2086E+01   5.3353E+01   0.0000E+00  0.0000
   5.3353E+01   5.4651E+01   0.0000E+00  0.0000
   5.4651E+01   5.5981E+01   0.0000E+00  0.0000
   5.5981E+01   5.7343E+01   0.0000E+00  0.0000
   5.7343E+01   5.8738E+01   0.0000E+00  0.0000
   5.8738E+01   6.0168E+01   0.0000E+00  0.0000
   6.0168E+01   6.1632E+01   0.0000E+00  0.0000
   6.1632E+01   6.3131E+01   0.0000E+00  0.0000
   6.3131E+01   6.4667E+01   0.0000E+00  0.0000
   6.4667E+01   6.6240E+01   0.0000E+00  0.0000
   6.6240E+01   6.7852E+01   0.0000E+00  0.0000
   6.7852E+01   6.9503E+01   0.0000E+00  0.0000
   6.9503E+01   7.1194E+01   0.0000E+00  0.0000
   7.1194E+01   7.2926E+01   0.0000E+00  0.0000
   7.2926E+01   7.4701E+01   0.0000E+00  0.0000
   7.4701E+01   7.6518E+01   0.0000E+00  0.0000
   7.6518E+01   7.8380E+01   0.0000E+00  0.0000
   7.8380E+01   8.0287E+01   0.0000E+00  0.0000
   8.0287E+01   8.2240E+01   0.0000E+00  0.0000
   8.2240E+01   8.4241E+01   0.0000E+00  0.0000
   8.4241E+01   8.6291E+01   0.0000E+00  0.0000
   8.6291E+01   8.8391E+01   0.0000E+00  0.0000
   8.8391E+01   9.0541E+01   0.0000E+00  0.0000
   9.0541E+01   9.2744E+01   0.0000E+00  0.0000
   9.2744E+01   9.5001E+01   0.0000E+00  0.0000
   9.5001E+01   9.7312E+01   0.0000E+00  0.0000
   9.7312E+01   9.9680E+01   0.0000E+00  0.0000
   9.9680E+01   1.0211E+02   0.0000E+00  0.0000
   1.0211E+02   1.0459E+02   0.0000E+00  0.0000
   1.0459E+02   1.0713E+02   0.0000E+00  0.0000
   1.0713E+02   1.0974E+02   0.0000E+00  0.0000
   1.0974E+02   1.1241E+02   0.0000E+00  0.0000
   1.1241E+02   1.1515E+02   0.0000E+00  0.0000
   1.1515E+02   1.1795E+02   0.0000E+00  0.0000
   1.1795E+02   1.2082E+02   0.0000E+00  0.0000
   1.2082E+02   1.2376E+02   0.0000E+00  0.0000
   1.2376E+02   1.2677E+02   0.0000E+00  0.0000
   1.2677E+02   1.2985E+02   0.0000E+00  0.0000
   1.2985E+02   1.3301E+02   0.0000E+00  0.0000
   1.3301E+02   1.3625E+02   0.0000E+00  0.0000
   1.3625E+02   1.3956E+02   0.0000E+00  0.0000
   1.3956E+02   1.4296E+02   0.0000E+00  0.0000
   1.4296E+02   1.4644E+02   0.0000E+00  0.0000
   1.4644E+02   1.5000E+02   0.0000E+00  0.0000

#   sum over                 7.6739E-06
'no. =    1   reg = 116 - 216'
msuc: {\huge [t-cross] in region mesh}
msdr: {\it plotted by \ANGEL \version}
msdl: {\it calculated by \PHITS  3.26}
wt: s(0.7)
\vspace{-3}
  region surface crossing
  area  &=&   1.0000E+00 [cm^2]
e:
 
# Information for Restart Calculation
# This calculation was newly started
# istdev =  2 # 1:Batch variance, 2:History variance
# resc2  = 5.00000000000000000E+09 # Total source weight or Total source weight / maxcas
# resc3  = 5.00000000000000000E+09 # Total history number or Total batch number
# maxcas =   100000000 # History / Batch, only used for istdev=1
# bitrseed = 0110100000100010111000001110001111001110100100011111101000111001 # bit data of rseed
