[ T-Cross ]
    title = [t-cross] in region mesh
     mesh =  reg            # mesh type is region-wise
      reg =    1            # number of crossing regions
      non     r-from    r-to       area
      1       105       205        1.000000    
   e-type =    3            # e-mesh is log given by emin, emax and ne
     emin =  1.0000000E-02  # minimum value of e-mesh points
     emax =   150.0000      # maximum value of e-mesh points
#    edel =  2.4039514E-02  # mesh width of e-mesh points
       ne =    400          # number of e-mesh points
#    data = ( e(i), i = 1, ne + 1 )
#           1.00000E-02  1.02433E-02  1.04925E-02  1.07478E-02  1.10093E-02
#           1.12772E-02  1.15516E-02  1.18326E-02  1.21205E-02  1.24154E-02
#           1.27175E-02  1.30269E-02  1.33439E-02  1.36686E-02  1.40011E-02
#           1.43418E-02  1.46907E-02  1.50482E-02  1.54143E-02  1.57894E-02
#           1.61735E-02  1.65670E-02  1.69701E-02  1.73830E-02  1.78060E-02
#           1.82392E-02  1.86830E-02  1.91375E-02  1.96032E-02  2.00801E-02
#           2.05687E-02  2.10692E-02  2.15818E-02  2.21069E-02  2.26448E-02
#           2.31957E-02  2.37601E-02  2.43382E-02  2.49304E-02  2.55369E-02
#           2.61583E-02  2.67947E-02  2.74467E-02  2.81145E-02  2.87985E-02
#           2.94992E-02  3.02169E-02  3.09521E-02  3.17052E-02  3.24766E-02
#           3.32668E-02  3.40762E-02  3.49053E-02  3.57546E-02  3.66246E-02
#           3.75157E-02  3.84284E-02  3.93634E-02  4.03212E-02  4.13022E-02
#           4.23071E-02  4.33365E-02  4.43909E-02  4.54710E-02  4.65773E-02
#           4.77106E-02  4.88714E-02  5.00605E-02  5.12785E-02  5.25262E-02
#           5.38042E-02  5.51133E-02  5.64542E-02  5.78278E-02  5.92348E-02
#           6.06760E-02  6.21523E-02  6.36645E-02  6.52135E-02  6.68002E-02
#           6.84255E-02  7.00904E-02  7.17957E-02  7.35426E-02  7.53319E-02
#           7.71648E-02  7.90423E-02  8.09655E-02  8.29354E-02  8.49533E-02
#           8.70203E-02  8.91376E-02  9.13064E-02  9.35279E-02  9.58035E-02
#           9.81345E-02  1.00522E-01  1.02968E-01  1.05473E-01  1.08040E-01
#           1.10668E-01  1.13361E-01  1.16119E-01  1.18944E-01  1.21838E-01
#           1.24803E-01  1.27839E-01  1.30950E-01  1.34136E-01  1.37399E-01
#           1.40742E-01  1.44167E-01  1.47675E-01  1.51268E-01  1.54948E-01
#           1.58718E-01  1.62580E-01  1.66535E-01  1.70587E-01  1.74738E-01
#           1.78989E-01  1.83344E-01  1.87805E-01  1.92375E-01  1.97055E-01
#           2.01850E-01  2.06761E-01  2.11792E-01  2.16945E-01  2.22223E-01
#           2.27630E-01  2.33169E-01  2.38842E-01  2.44653E-01  2.50605E-01
#           2.56703E-01  2.62949E-01  2.69346E-01  2.75900E-01  2.82613E-01
#           2.89489E-01  2.96532E-01  3.03747E-01  3.11138E-01  3.18708E-01
#           3.26462E-01  3.34405E-01  3.42542E-01  3.50876E-01  3.59413E-01
#           3.68158E-01  3.77116E-01  3.86291E-01  3.95690E-01  4.05317E-01
#           4.15179E-01  4.25281E-01  4.35628E-01  4.46227E-01  4.57084E-01
#           4.68205E-01  4.79597E-01  4.91266E-01  5.03219E-01  5.15463E-01
#           5.28005E-01  5.40851E-01  5.54011E-01  5.67490E-01  5.81298E-01
#           5.95441E-01  6.09929E-01  6.24769E-01  6.39970E-01  6.55541E-01
#           6.71491E-01  6.87828E-01  7.04564E-01  7.21706E-01  7.39266E-01
#           7.57253E-01  7.75678E-01  7.94551E-01  8.13883E-01  8.33685E-01
#           8.53969E-01  8.74747E-01  8.96030E-01  9.17831E-01  9.40163E-01
#           9.63038E-01  9.86469E-01  1.01047E+00  1.03506E+00  1.06024E+00
#           1.08604E+00  1.11246E+00  1.13953E+00  1.16725E+00  1.19565E+00
#           1.22474E+00  1.25454E+00  1.28507E+00  1.31633E+00  1.34836E+00
#           1.38117E+00  1.41477E+00  1.44920E+00  1.48446E+00  1.52057E+00
#           1.55757E+00  1.59547E+00  1.63429E+00  1.67405E+00  1.71478E+00
#           1.75650E+00  1.79924E+00  1.84302E+00  1.88786E+00  1.93379E+00
#           1.98084E+00  2.02904E+00  2.07841E+00  2.12898E+00  2.18078E+00
#           2.23384E+00  2.28819E+00  2.34386E+00  2.40089E+00  2.45930E+00
#           2.51914E+00  2.58043E+00  2.64322E+00  2.70753E+00  2.77341E+00
#           2.84088E+00  2.91001E+00  2.98081E+00  3.05333E+00  3.12762E+00
#           3.20372E+00  3.28167E+00  3.36152E+00  3.44330E+00  3.52708E+00
#           3.61290E+00  3.70080E+00  3.79085E+00  3.88308E+00  3.97756E+00
#           4.07434E+00  4.17347E+00  4.27501E+00  4.37903E+00  4.48557E+00
#           4.59471E+00  4.70650E+00  4.82102E+00  4.93832E+00  5.05847E+00
#           5.18155E+00  5.30762E+00  5.43676E+00  5.56904E+00  5.70453E+00
#           5.84333E+00  5.98550E+00  6.13114E+00  6.28031E+00  6.43312E+00
#           6.58964E+00  6.74997E+00  6.91420E+00  7.08243E+00  7.25475E+00
#           7.43126E+00  7.61207E+00  7.79728E+00  7.98700E+00  8.18133E+00
#           8.38038E+00  8.58428E+00  8.79315E+00  9.00709E+00  9.22624E+00
#           9.45072E+00  9.68067E+00  9.91620E+00  1.01575E+01  1.04046E+01
#           1.06578E+01  1.09171E+01  1.11827E+01  1.14548E+01  1.17335E+01
#           1.20190E+01  1.23114E+01  1.26109E+01  1.29178E+01  1.32321E+01
#           1.35540E+01  1.38838E+01  1.42216E+01  1.45676E+01  1.49221E+01
#           1.52851E+01  1.56570E+01  1.60380E+01  1.64282E+01  1.68279E+01
#           1.72374E+01  1.76568E+01  1.80864E+01  1.85264E+01  1.89772E+01
#           1.94389E+01  1.99119E+01  2.03963E+01  2.08926E+01  2.14009E+01
#           2.19216E+01  2.24550E+01  2.30014E+01  2.35610E+01  2.41343E+01
#           2.47215E+01  2.53230E+01  2.59391E+01  2.65702E+01  2.72167E+01
#           2.78789E+01  2.85572E+01  2.92520E+01  2.99637E+01  3.06928E+01
#           3.14396E+01  3.22045E+01  3.29881E+01  3.37907E+01  3.46128E+01
#           3.54550E+01  3.63177E+01  3.72013E+01  3.81064E+01  3.90336E+01
#           3.99833E+01  4.09561E+01  4.19526E+01  4.29734E+01  4.40189E+01
#           4.50900E+01  4.61870E+01  4.73108E+01  4.84619E+01  4.96410E+01
#           5.08488E+01  5.20860E+01  5.33533E+01  5.46514E+01  5.59812E+01
#           5.73432E+01  5.87384E+01  6.01676E+01  6.16315E+01  6.31311E+01
#           6.46671E+01  6.62405E+01  6.78522E+01  6.95031E+01  7.11941E+01
#           7.29263E+01  7.47007E+01  7.65182E+01  7.83800E+01  8.02870E+01
#           8.22405E+01  8.42414E+01  8.62911E+01  8.83906E+01  9.05412E+01
#           9.27442E+01  9.50007E+01  9.73122E+01  9.96799E+01  1.02105E+02
#           1.04589E+02  1.07134E+02  1.09741E+02  1.12411E+02  1.15146E+02
#           1.17948E+02  1.20817E+02  1.23757E+02  1.26768E+02  1.29852E+02
#           1.33012E+02  1.36248E+02  1.39563E+02  1.42959E+02  1.46437E+02
#           1.50000E+02
     unit =    2            # unit is [1/cm^2/(MeV/n)/source]
     axis =  eng            # axis of output
     file = detector-06.out  # file name of output for the above axis
   output = f-curr          # surface crossing forward current spectrum
     part =  neutron  
# kf/name :  2112     
#    used :        main (  %)        temp (  %)       total (  %)
#  memory :         414 (  0)           0 (  0)         414 (  0)

#------------------------------------------------------------------------------
#newpage:
#   no. =    1   reg = 105 - 205

x: Energy [MeV/n]
y:  F-Curr [1/cm^2/(MeV/n)/source]         
p: xlog ylog afac(0.8) form(0.9)
h: n            x            y(neutron ),hh0l   n 
#  e-lower      e-upper      neutron     r.err 
   1.0000E-02   1.0243E-02   6.4891E-05  0.1123
   1.0243E-02   1.0493E-02   6.4022E-05  0.1116
   1.0493E-02   1.0748E-02   8.1654E-05  0.0978
   1.0748E-02   1.1009E-02   6.8650E-05  0.1054
   1.1009E-02   1.1277E-02   6.9561E-05  0.1035
   1.1277E-02   1.1552E-02   6.3386E-05  0.1072
   1.1552E-02   1.1833E-02   7.1074E-05  0.1000
   1.1833E-02   1.2121E-02   6.8615E-05  0.1005
   1.2121E-02   1.2415E-02   6.0528E-05  0.1057
   1.2415E-02   1.2718E-02   6.6723E-05  0.0995
   1.2718E-02   1.3027E-02   4.9747E-05  0.1140
   1.3027E-02   1.3344E-02   7.1763E-05  0.0937
   1.3344E-02   1.3669E-02   4.8597E-05  0.1125
   1.3669E-02   1.4001E-02   6.2420E-05  0.0981
   1.4001E-02   1.4342E-02   5.5646E-05  0.1026
   1.4342E-02   1.4691E-02   6.5312E-05  0.0937
   1.4691E-02   1.5048E-02   5.6371E-05  0.0995
   1.5048E-02   1.5414E-02   5.8308E-05  0.0967
   1.5414E-02   1.5789E-02   4.2063E-05  0.1125
   1.5789E-02   1.6174E-02   4.1617E-05  0.1118
   1.6174E-02   1.6567E-02   5.1804E-05  0.0990
   1.6567E-02   1.6970E-02   3.8768E-05  0.1130
   1.6970E-02   1.7383E-02   3.9225E-05  0.1111
   1.7383E-02   1.7806E-02   4.0579E-05  0.1078
   1.7806E-02   1.8239E-02   3.7378E-05  0.1111
   1.8239E-02   1.8683E-02   4.2478E-05  0.1025
   1.8683E-02   1.9138E-02   4.7490E-05  0.0962
   1.9138E-02   1.9603E-02   4.1894E-05  0.1009
   1.9603E-02   2.0080E-02   5.0670E-05  0.0909
   2.0080E-02   2.0569E-02   3.9227E-05  0.1019
   2.0569E-02   2.1069E-02   3.7468E-05  0.1032
   2.1069E-02   2.1582E-02   3.2457E-05  0.1095
   2.1582E-02   2.2107E-02   3.6224E-05  0.1025
   2.2107E-02   2.2645E-02   3.5028E-05  0.1029
   2.2645E-02   2.3196E-02   3.7309E-05  0.0985
   2.3196E-02   2.3760E-02   3.3296E-05  0.1031
   2.3760E-02   2.4338E-02   3.5958E-05  0.0981
   2.4338E-02   2.4930E-02   3.5446E-05  0.0976
   2.4930E-02   2.5537E-02   2.9333E-05  0.1060
   2.5537E-02   2.6158E-02   3.7256E-05  0.0929
   2.6158E-02   2.6795E-02   3.8907E-05  0.0898
   2.6795E-02   2.7447E-02   2.8517E-05  0.1037
   2.7447E-02   2.8114E-02   2.5409E-05  0.1082
   2.8114E-02   2.8799E-02   3.0403E-05  0.0978
   2.8799E-02   2.9499E-02   2.8666E-05  0.0995
   2.9499E-02   3.0217E-02   2.6031E-05  0.1031
   3.0217E-02   3.0952E-02   2.5502E-05  0.1032
   3.0952E-02   3.1705E-02   2.7295E-05  0.0985
   3.1705E-02   3.2477E-02   2.9520E-05  0.0935
   3.2477E-02   3.3267E-02   3.0870E-05  0.0905
   3.3267E-02   3.4076E-02   2.3439E-05  0.1026
   3.4076E-02   3.4905E-02   2.2758E-05  0.1025
   3.4905E-02   3.5755E-02   2.6601E-05  0.0941
   3.5755E-02   3.6625E-02   2.3222E-05  0.0993
   3.6625E-02   3.7516E-02   2.7144E-05  0.0909
   3.7516E-02   3.8428E-02   2.3262E-05  0.0969
   3.8428E-02   3.9363E-02   2.2620E-05  0.0971
   3.9363E-02   4.0321E-02   2.3354E-05  0.0944
   4.0321E-02   4.1302E-02   2.4303E-05  0.0913
   4.1302E-02   4.2307E-02   1.9030E-05  0.1021
   4.2307E-02   4.3337E-02   2.1304E-05  0.0954
   4.3337E-02   4.4391E-02   2.0350E-05  0.0963
   4.4391E-02   4.5471E-02   1.9942E-05  0.0961
   4.5471E-02   4.6577E-02   1.8331E-05  0.0991
   4.6577E-02   4.7711E-02   1.7817E-05  0.0995
   4.7711E-02   4.8871E-02   1.9805E-05  0.0933
   4.8871E-02   5.0061E-02   1.7780E-05  0.0969
   5.0061E-02   5.1279E-02   1.5758E-05  0.1021
   5.1279E-02   5.2526E-02   1.8349E-05  0.0931
   5.2526E-02   5.3804E-02   1.6907E-05  0.0960
   5.3804E-02   5.5113E-02   1.6032E-05  0.0976
   5.5113E-02   5.6454E-02   1.5206E-05  0.0990
   5.6454E-02   5.7828E-02   1.8454E-05  0.0887
   5.7828E-02   5.9235E-02   1.4064E-05  0.1005
   5.9235E-02   6.0676E-02   1.6643E-05  0.0913
   6.0676E-02   6.2152E-02   1.5143E-05  0.0945
   6.2152E-02   6.3665E-02   1.3998E-05  0.0971
   6.3665E-02   6.5214E-02   1.4510E-05  0.0942
   6.5214E-02   6.6800E-02   1.6339E-05  0.0877
   6.6800E-02   6.8426E-02   1.3038E-05  0.0971
   6.8426E-02   7.0090E-02   1.4529E-05  0.0908
   7.0090E-02   7.1796E-02   1.4534E-05  0.0898
   7.1796E-02   7.3543E-02   1.4937E-05  0.0872
   7.3543E-02   7.5332E-02   1.2142E-05  0.0958
   7.5332E-02   7.7165E-02   1.2196E-05  0.0945
   7.7165E-02   7.9042E-02   1.2885E-05  0.0909
   7.9042E-02   8.0965E-02   1.1369E-05  0.0955
   8.0965E-02   8.2935E-02   1.1241E-05  0.0949
   8.2935E-02   8.4953E-02   1.3708E-05  0.0849
   8.4953E-02   8.7020E-02   1.1130E-05  0.0931
   8.7020E-02   8.9138E-02   1.2068E-05  0.0884
   8.9138E-02   9.1306E-02   1.0139E-05  0.0953
   9.1306E-02   9.3528E-02   9.8711E-06  0.0954
   9.3528E-02   9.5804E-02   1.0465E-05  0.0915
   9.5804E-02   9.8134E-02   1.0621E-05  0.0897
   9.8134E-02   1.0052E-01   7.8171E-06  0.1033
   1.0052E-01   1.0297E-01   9.5613E-06  0.0925
   1.0297E-01   1.0547E-01   1.0227E-05  0.0883
   1.0547E-01   1.0804E-01   9.5308E-06  0.0902
   1.0804E-01   1.1067E-01   1.1228E-05  0.0822
   1.1067E-01   1.1336E-01   9.5764E-06  0.0880
   1.1336E-01   1.1612E-01   1.1704E-05  0.0786
   1.1612E-01   1.1894E-01   1.2218E-05  0.0760
   1.1894E-01   1.2184E-01   1.3397E-05  0.0718
   1.2184E-01   1.2480E-01   1.3597E-05  0.0704
   1.2480E-01   1.2784E-01   1.4200E-05  0.0680
   1.2784E-01   1.3095E-01   1.3920E-05  0.0679
   1.3095E-01   1.3414E-01   1.4679E-05  0.0653
   1.3414E-01   1.3740E-01   1.4913E-05  0.0640
   1.3740E-01   1.4074E-01   1.4541E-05  0.0640
   1.4074E-01   1.4417E-01   1.4694E-05  0.0630
   1.4417E-01   1.4767E-01   1.6508E-05  0.0587
   1.4767E-01   1.5127E-01   1.7953E-05  0.0556
   1.5127E-01   1.5495E-01   1.5200E-05  0.0597
   1.5495E-01   1.5872E-01   1.7502E-05  0.0550
   1.5872E-01   1.6258E-01   1.7405E-05  0.0545
   1.6258E-01   1.6654E-01   1.8798E-05  0.0518
   1.6654E-01   1.7059E-01   1.7980E-05  0.0524
   1.7059E-01   1.7474E-01   2.0074E-05  0.0489
   1.7474E-01   1.7899E-01   1.9049E-05  0.0496
   1.7899E-01   1.8334E-01   2.0268E-05  0.0476
   1.8334E-01   1.8781E-01   2.1548E-05  0.0455
   1.8781E-01   1.9237E-01   2.2666E-05  0.0439
   1.9237E-01   1.9706E-01   2.1792E-05  0.0442
   1.9706E-01   2.0185E-01   2.4229E-05  0.0414
   2.0185E-01   2.0676E-01   2.2587E-05  0.0424
   2.0676E-01   2.1179E-01   2.3758E-05  0.0408
   2.1179E-01   2.1694E-01   2.4840E-05  0.0395
   2.1694E-01   2.2222E-01   2.4423E-05  0.0394
   2.2222E-01   2.2763E-01   2.5459E-05  0.0381
   2.2763E-01   2.3317E-01   2.4555E-05  0.0383
   2.3317E-01   2.3884E-01   2.6863E-05  0.0362
   2.3884E-01   2.4465E-01   2.9117E-05  0.0343
   2.4465E-01   2.5061E-01   2.9354E-05  0.0338
   2.5061E-01   2.5670E-01   2.9568E-05  0.0332
   2.5670E-01   2.6295E-01   3.0149E-05  0.0325
   2.6295E-01   2.6935E-01   3.0690E-05  0.0319
   2.6935E-01   2.7590E-01   3.0727E-05  0.0315
   2.7590E-01   2.8261E-01   3.1849E-05  0.0305
   2.8261E-01   2.8949E-01   3.1342E-05  0.0304
   2.8949E-01   2.9653E-01   3.2694E-05  0.0294
   2.9653E-01   3.0375E-01   3.3288E-05  0.0288
   3.0375E-01   3.1114E-01   3.3658E-05  0.0283
   3.1114E-01   3.1871E-01   3.3859E-05  0.0279
   3.1871E-01   3.2646E-01   3.5550E-05  0.0269
   3.2646E-01   3.3441E-01   3.8031E-05  0.0257
   3.3441E-01   3.4254E-01   3.7050E-05  0.0257
   3.4254E-01   3.5088E-01   3.7142E-05  0.0254
   3.5088E-01   3.5941E-01   3.9708E-05  0.0243
   3.5941E-01   3.6816E-01   4.1317E-05  0.0235
   3.6816E-01   3.7712E-01   4.0908E-05  0.0233
   3.7712E-01   3.8629E-01   4.1585E-05  0.0229
   3.8629E-01   3.9569E-01   4.2502E-05  0.0223
   3.9569E-01   4.0532E-01   4.3806E-05  0.0217
   4.0532E-01   4.1518E-01   4.3209E-05  0.0216
   4.1518E-01   4.2528E-01   4.6598E-05  0.0206
   4.2528E-01   4.3563E-01   4.5923E-05  0.0205
   4.3563E-01   4.4623E-01   4.8381E-05  0.0197
   4.4623E-01   4.5708E-01   4.7463E-05  0.0197
   4.5708E-01   4.6821E-01   4.7940E-05  0.0193
   4.6821E-01   4.7960E-01   4.8201E-05  0.0190
   4.7960E-01   4.9127E-01   5.0464E-05  0.0184
   4.9127E-01   5.0322E-01   5.0278E-05  0.0182
   5.0322E-01   5.1546E-01   5.2267E-05  0.0176
   5.1546E-01   5.2800E-01   5.3999E-05  0.0172
   5.2800E-01   5.4085E-01   5.5097E-05  0.0168
   5.4085E-01   5.5401E-01   5.5600E-05  0.0165
   5.5401E-01   5.6749E-01   5.5924E-05  0.0163
   5.6749E-01   5.8130E-01   5.6858E-05  0.0159
   5.8130E-01   5.9544E-01   5.8162E-05  0.0156
   5.9544E-01   6.0993E-01   6.0916E-05  0.0150
   6.0993E-01   6.2477E-01   6.0645E-05  0.0149
   6.2477E-01   6.3997E-01   6.0694E-05  0.0147
   6.3997E-01   6.5554E-01   6.2247E-05  0.0143
   6.5554E-01   6.7149E-01   6.0752E-05  0.0143
   6.7149E-01   6.8783E-01   6.3574E-05  0.0138
   6.8783E-01   7.0456E-01   6.3599E-05  0.0137
   7.0456E-01   7.2171E-01   6.5134E-05  0.0133
   7.2171E-01   7.3927E-01   6.5527E-05  0.0131
   7.3927E-01   7.5725E-01   6.6202E-05  0.0129
   7.5725E-01   7.7568E-01   6.7798E-05  0.0126
   7.7568E-01   7.9455E-01   6.8264E-05  0.0124
   7.9455E-01   8.1388E-01   6.9045E-05  0.0122
   8.1388E-01   8.3368E-01   6.8244E-05  0.0121
   8.3368E-01   8.5397E-01   6.8325E-05  0.0120
   8.5397E-01   8.7475E-01   6.8093E-05  0.0118
   8.7475E-01   8.9603E-01   6.9756E-05  0.0116
   8.9603E-01   9.1783E-01   6.8837E-05  0.0115
   9.1783E-01   9.4016E-01   6.9448E-05  0.0113
   9.4016E-01   9.6304E-01   6.9379E-05  0.0112
   9.6304E-01   9.8647E-01   6.8191E-05  0.0111
   9.8647E-01   1.0105E+00   6.8184E-05  0.0110
   1.0105E+00   1.0351E+00   6.7782E-05  0.0109
   1.0351E+00   1.0602E+00   6.7865E-05  0.0108
   1.0602E+00   1.0860E+00   6.7741E-05  0.0107
   1.0860E+00   1.1125E+00   6.6585E-05  0.0106
   1.1125E+00   1.1395E+00   6.6749E-05  0.0105
   1.1395E+00   1.1673E+00   6.7731E-05  0.0103
   1.1673E+00   1.1957E+00   6.7329E-05  0.0102
   1.1957E+00   1.2247E+00   6.9201E-05  0.0099
   1.2247E+00   1.2545E+00   6.9185E-05  0.0098
   1.2545E+00   1.2851E+00   6.9834E-05  0.0096
   1.2851E+00   1.3163E+00   6.8556E-05  0.0096
   1.3163E+00   1.3484E+00   6.9959E-05  0.0094
   1.3484E+00   1.3812E+00   6.8647E-05  0.0094
   1.3812E+00   1.4148E+00   6.8900E-05  0.0092
   1.4148E+00   1.4492E+00   6.8460E-05  0.0092
   1.4492E+00   1.4845E+00   6.8485E-05  0.0090
   1.4845E+00   1.5206E+00   6.8173E-05  0.0089
   1.5206E+00   1.5576E+00   6.8432E-05  0.0088
   1.5576E+00   1.5955E+00   6.7084E-05  0.0088
   1.5955E+00   1.6343E+00   6.7377E-05  0.0087
   1.6343E+00   1.6741E+00   6.7034E-05  0.0086
   1.6741E+00   1.7148E+00   6.6528E-05  0.0085
   1.7148E+00   1.7565E+00   6.5596E-05  0.0085
   1.7565E+00   1.7992E+00   6.3465E-05  0.0085
   1.7992E+00   1.8430E+00   6.2123E-05  0.0085
   1.8430E+00   1.8879E+00   5.8185E-05  0.0086
   1.8879E+00   1.9338E+00   5.7837E-05  0.0085
   1.9338E+00   1.9808E+00   5.6903E-05  0.0085
   1.9808E+00   2.0290E+00   5.5977E-05  0.0085
   2.0290E+00   2.0784E+00   5.5698E-05  0.0084
   2.0784E+00   2.1290E+00   5.7386E-05  0.0081
   2.1290E+00   2.1808E+00   5.7725E-05  0.0080
   2.1808E+00   2.2338E+00   5.9059E-05  0.0078
   2.2338E+00   2.2882E+00   5.7774E-05  0.0078
   2.2882E+00   2.3439E+00   5.7015E-05  0.0078
   2.3439E+00   2.4009E+00   5.5857E-05  0.0078
   2.4009E+00   2.4593E+00   5.5739E-05  0.0077
   2.4593E+00   2.5191E+00   5.5221E-05  0.0076
   2.5191E+00   2.5804E+00   5.4789E-05  0.0076
   2.5804E+00   2.6432E+00   5.4642E-05  0.0075
   2.6432E+00   2.7075E+00   5.3823E-05  0.0075
   2.7075E+00   2.7734E+00   5.4050E-05  0.0074
   2.7734E+00   2.8409E+00   5.2113E-05  0.0074
   2.8409E+00   2.9100E+00   5.2153E-05  0.0073
   2.9100E+00   2.9808E+00   5.1974E-05  0.0073
   2.9808E+00   3.0533E+00   5.2302E-05  0.0072
   3.0533E+00   3.1276E+00   5.0714E-05  0.0072
   3.1276E+00   3.2037E+00   5.0510E-05  0.0071
   3.2037E+00   3.2817E+00   5.0061E-05  0.0071
   3.2817E+00   3.3615E+00   4.9337E-05  0.0070
   3.3615E+00   3.4433E+00   4.9342E-05  0.0069
   3.4433E+00   3.5271E+00   4.8773E-05  0.0069
   3.5271E+00   3.6129E+00   4.8053E-05  0.0069
   3.6129E+00   3.7008E+00   4.8839E-05  0.0067
   3.7008E+00   3.7908E+00   4.8228E-05  0.0067
   3.7908E+00   3.8831E+00   4.6523E-05  0.0067
   3.8831E+00   3.9776E+00   4.6596E-05  0.0067
   3.9776E+00   4.0743E+00   4.5808E-05  0.0066
   4.0743E+00   4.1735E+00   4.5378E-05  0.0066
   4.1735E+00   4.2750E+00   4.4961E-05  0.0065
   4.2750E+00   4.3790E+00   4.4295E-05  0.0065
   4.3790E+00   4.4856E+00   4.3346E-05  0.0065
   4.4856E+00   4.5947E+00   4.3110E-05  0.0064
   4.5947E+00   4.7065E+00   4.2288E-05  0.0064
   4.7065E+00   4.8210E+00   4.1499E-05  0.0064
   4.8210E+00   4.9383E+00   4.1733E-05  0.0063
   4.9383E+00   5.0585E+00   4.1313E-05  0.0063
   5.0585E+00   5.1815E+00   4.0571E-05  0.0063
   5.1815E+00   5.3076E+00   4.0511E-05  0.0062
   5.3076E+00   5.4368E+00   4.0302E-05  0.0061
   5.4368E+00   5.5690E+00   3.9701E-05  0.0061
   5.5690E+00   5.7045E+00   3.9602E-05  0.0060
   5.7045E+00   5.8433E+00   3.8892E-05  0.0060
   5.8433E+00   5.9855E+00   3.9062E-05  0.0059
   5.9855E+00   6.1311E+00   3.8529E-05  0.0059
   6.1311E+00   6.2803E+00   3.8181E-05  0.0059
   6.2803E+00   6.4331E+00   3.8323E-05  0.0058
   6.4331E+00   6.5896E+00   3.8080E-05  0.0057
   6.5896E+00   6.7500E+00   3.8198E-05  0.0057
   6.7500E+00   6.9142E+00   3.7545E-05  0.0056
   6.9142E+00   7.0824E+00   3.7409E-05  0.0056
   7.0824E+00   7.2548E+00   3.7114E-05  0.0055
   7.2548E+00   7.4313E+00   3.6873E-05  0.0055
   7.4313E+00   7.6121E+00   3.6193E-05  0.0055
   7.6121E+00   7.7973E+00   3.6199E-05  0.0054
   7.7973E+00   7.9870E+00   3.5890E-05  0.0054
   7.9870E+00   8.1813E+00   3.5842E-05  0.0053
   8.1813E+00   8.3804E+00   3.5619E-05  0.0053
   8.3804E+00   8.5843E+00   3.5512E-05  0.0052
   8.5843E+00   8.7931E+00   3.4781E-05  0.0052
   8.7931E+00   9.0071E+00   3.4560E-05  0.0052
   9.0071E+00   9.2262E+00   3.4314E-05  0.0051
   9.2262E+00   9.4507E+00   3.4060E-05  0.0051
   9.4507E+00   9.6807E+00   3.3516E-05  0.0051
   9.6807E+00   9.9162E+00   3.3693E-05  0.0050
   9.9162E+00   1.0157E+01   3.4460E-05  0.0049
   1.0157E+01   1.0405E+01   3.4670E-05  0.0048
   1.0405E+01   1.0658E+01   3.4268E-05  0.0048
   1.0658E+01   1.0917E+01   3.4187E-05  0.0047
   1.0917E+01   1.1183E+01   3.3556E-05  0.0047
   1.1183E+01   1.1455E+01   3.3255E-05  0.0047
   1.1455E+01   1.1733E+01   3.3359E-05  0.0046
   1.1733E+01   1.2019E+01   3.3072E-05  0.0046
   1.2019E+01   1.2311E+01   3.3106E-05  0.0045
   1.2311E+01   1.2611E+01   3.2797E-05  0.0045
   1.2611E+01   1.2918E+01   3.2693E-05  0.0045
   1.2918E+01   1.3232E+01   3.2748E-05  0.0044
   1.3232E+01   1.3554E+01   3.2493E-05  0.0044
   1.3554E+01   1.3884E+01   3.2305E-05  0.0043
   1.3884E+01   1.4222E+01   3.2278E-05  0.0043
   1.4222E+01   1.4568E+01   3.1944E-05  0.0043
   1.4568E+01   1.4922E+01   3.2097E-05  0.0042
   1.4922E+01   1.5285E+01   3.1852E-05  0.0042
   1.5285E+01   1.5657E+01   3.1627E-05  0.0041
   1.5657E+01   1.6038E+01   3.1440E-05  0.0041
   1.6038E+01   1.6428E+01   3.1833E-05  0.0040
   1.6428E+01   1.6828E+01   3.1248E-05  0.0040
   1.6828E+01   1.7237E+01   3.1274E-05  0.0040
   1.7237E+01   1.7657E+01   3.0986E-05  0.0039
   1.7657E+01   1.8086E+01   3.0794E-05  0.0039
   1.8086E+01   1.8526E+01   3.0765E-05  0.0038
   1.8526E+01   1.8977E+01   3.0476E-05  0.0038
   1.8977E+01   1.9439E+01   3.0569E-05  0.0038
   1.9439E+01   1.9912E+01   3.0565E-05  0.0037
   1.9912E+01   2.0396E+01   3.0549E-05  0.0037
   2.0396E+01   2.0893E+01   3.0417E-05  0.0036
   2.0893E+01   2.1401E+01   3.0441E-05  0.0036
   2.1401E+01   2.1922E+01   3.0261E-05  0.0036
   2.1922E+01   2.2455E+01   3.0017E-05  0.0035
   2.2455E+01   2.3001E+01   2.9879E-05  0.0035
   2.3001E+01   2.3561E+01   2.9606E-05  0.0035
   2.3561E+01   2.4134E+01   2.9382E-05  0.0034
   2.4134E+01   2.4721E+01   2.8916E-05  0.0034
   2.4721E+01   2.5323E+01   2.8276E-05  0.0034
   2.5323E+01   2.5939E+01   2.7562E-05  0.0034
   2.5939E+01   2.6570E+01   2.7127E-05  0.0034
   2.6570E+01   2.7217E+01   2.6348E-05  0.0034
   2.7217E+01   2.7879E+01   2.7000E-05  0.0033
   2.7879E+01   2.8557E+01   3.5673E-05  0.0029
   2.8557E+01   2.9252E+01   3.8198E-05  0.0027
   2.9252E+01   2.9964E+01   3.7781E-05  0.0027
   2.9964E+01   3.0693E+01   3.7270E-05  0.0027
   3.0693E+01   3.1440E+01   3.6594E-05  0.0027
   3.1440E+01   3.2205E+01   3.6177E-05  0.0027
   3.2205E+01   3.2988E+01   3.5690E-05  0.0027
   3.2988E+01   3.3791E+01   3.5597E-05  0.0026
   3.3791E+01   3.4613E+01   3.4831E-05  0.0026
   3.4613E+01   3.5455E+01   3.4337E-05  0.0026
   3.5455E+01   3.6318E+01   3.3725E-05  0.0026
   3.6318E+01   3.7201E+01   3.3426E-05  0.0026
   3.7201E+01   3.8106E+01   3.2970E-05  0.0026
   3.8106E+01   3.9034E+01   3.2148E-05  0.0026
   3.9034E+01   3.9983E+01   3.1698E-05  0.0026
   3.9983E+01   4.0956E+01   3.0975E-05  0.0026
   4.0956E+01   4.1953E+01   3.0144E-05  0.0026
   4.1953E+01   4.2973E+01   2.9629E-05  0.0026
   4.2973E+01   4.4019E+01   2.8625E-05  0.0026
   4.4019E+01   4.5090E+01   2.8089E-05  0.0026
   4.5090E+01   4.6187E+01   2.6986E-05  0.0026
   4.6187E+01   4.7311E+01   2.6198E-05  0.0026
   4.7311E+01   4.8462E+01   2.0327E-05  0.0029
   4.8462E+01   4.9641E+01   1.4592E-05  0.0034
   4.9641E+01   5.0849E+01   1.3651E-05  0.0035
   5.0849E+01   5.2086E+01   1.2712E-05  0.0036
   5.2086E+01   5.3353E+01   1.1795E-05  0.0037
   5.3353E+01   5.4651E+01   1.0693E-05  0.0038
   5.4651E+01   5.5981E+01   9.7570E-06  0.0039
   5.5981E+01   5.7343E+01   8.7251E-06  0.0041
   5.7343E+01   5.8738E+01   7.7894E-06  0.0043
   5.8738E+01   6.0168E+01   7.0605E-06  0.0045
   6.0168E+01   6.1632E+01   3.1963E-06  0.0065
   6.1632E+01   6.3131E+01   5.3350E-10  0.5000
   6.3131E+01   6.4667E+01   0.0000E+00  0.0000
   6.4667E+01   6.6240E+01   0.0000E+00  0.0000
   6.6240E+01   6.7852E+01   0.0000E+00  0.0000
   6.7852E+01   6.9503E+01   0.0000E+00  0.0000
   6.9503E+01   7.1194E+01   0.0000E+00  0.0000
   7.1194E+01   7.2926E+01   0.0000E+00  0.0000
   7.2926E+01   7.4701E+01   0.0000E+00  0.0000
   7.4701E+01   7.6518E+01   0.0000E+00  0.0000
   7.6518E+01   7.8380E+01   0.0000E+00  0.0000
   7.8380E+01   8.0287E+01   0.0000E+00  0.0000
   8.0287E+01   8.2240E+01   0.0000E+00  0.0000
   8.2240E+01   8.4241E+01   0.0000E+00  0.0000
   8.4241E+01   8.6291E+01   0.0000E+00  0.0000
   8.6291E+01   8.8391E+01   0.0000E+00  0.0000
   8.8391E+01   9.0541E+01   0.0000E+00  0.0000
   9.0541E+01   9.2744E+01   0.0000E+00  0.0000
   9.2744E+01   9.5001E+01   0.0000E+00  0.0000
   9.5001E+01   9.7312E+01   0.0000E+00  0.0000
   9.7312E+01   9.9680E+01   0.0000E+00  0.0000
   9.9680E+01   1.0211E+02   0.0000E+00  0.0000
   1.0211E+02   1.0459E+02   0.0000E+00  0.0000
   1.0459E+02   1.0713E+02   0.0000E+00  0.0000
   1.0713E+02   1.0974E+02   0.0000E+00  0.0000
   1.0974E+02   1.1241E+02   0.0000E+00  0.0000
   1.1241E+02   1.1515E+02   0.0000E+00  0.0000
   1.1515E+02   1.1795E+02   0.0000E+00  0.0000
   1.1795E+02   1.2082E+02   0.0000E+00  0.0000
   1.2082E+02   1.2376E+02   0.0000E+00  0.0000
   1.2376E+02   1.2677E+02   0.0000E+00  0.0000
   1.2677E+02   1.2985E+02   0.0000E+00  0.0000
   1.2985E+02   1.3301E+02   0.0000E+00  0.0000
   1.3301E+02   1.3625E+02   0.0000E+00  0.0000
   1.3625E+02   1.3956E+02   0.0000E+00  0.0000
   1.3956E+02   1.4296E+02   0.0000E+00  0.0000
   1.4296E+02   1.4644E+02   0.0000E+00  0.0000
   1.4644E+02   1.5000E+02   0.0000E+00  0.0000

#   sum over                 1.1836E-05
'no. =    1   reg = 105 - 205'
msuc: {\huge [t-cross] in region mesh}
msdr: {\it plotted by \ANGEL \version}
msdl: {\it calculated by \PHITS  3.26}
wt: s(0.7)
\vspace{-3}
  region surface crossing
  area  &=&   1.0000E+00 [cm^2]
e:
 
# Information for Restart Calculation
# This calculation was newly started
# istdev =  2 # 1:Batch variance, 2:History variance
# resc2  = 5.00000000000000000E+09 # Total source weight or Total source weight / maxcas
# resc3  = 5.00000000000000000E+09 # Total history number or Total batch number
# maxcas =   100000000 # History / Batch, only used for istdev=1
# bitrseed = 0110100000100010111000001110001111001110100100011111101000111001 # bit data of rseed
