[ T-Cross ]
    title = [t-cross] in region mesh
     mesh =  reg            # mesh type is region-wise
      reg =    1            # number of crossing regions
      non     r-from    r-to       area
      1       108       208        1.000000    
   e-type =    3            # e-mesh is log given by emin, emax and ne
     emin =  1.0000000E-02  # minimum value of e-mesh points
     emax =   150.0000      # maximum value of e-mesh points
#    edel =  2.4039514E-02  # mesh width of e-mesh points
       ne =    400          # number of e-mesh points
#    data = ( e(i), i = 1, ne + 1 )
#           1.00000E-02  1.02433E-02  1.04925E-02  1.07478E-02  1.10093E-02
#           1.12772E-02  1.15516E-02  1.18326E-02  1.21205E-02  1.24154E-02
#           1.27175E-02  1.30269E-02  1.33439E-02  1.36686E-02  1.40011E-02
#           1.43418E-02  1.46907E-02  1.50482E-02  1.54143E-02  1.57894E-02
#           1.61735E-02  1.65670E-02  1.69701E-02  1.73830E-02  1.78060E-02
#           1.82392E-02  1.86830E-02  1.91375E-02  1.96032E-02  2.00801E-02
#           2.05687E-02  2.10692E-02  2.15818E-02  2.21069E-02  2.26448E-02
#           2.31957E-02  2.37601E-02  2.43382E-02  2.49304E-02  2.55369E-02
#           2.61583E-02  2.67947E-02  2.74467E-02  2.81145E-02  2.87985E-02
#           2.94992E-02  3.02169E-02  3.09521E-02  3.17052E-02  3.24766E-02
#           3.32668E-02  3.40762E-02  3.49053E-02  3.57546E-02  3.66246E-02
#           3.75157E-02  3.84284E-02  3.93634E-02  4.03212E-02  4.13022E-02
#           4.23071E-02  4.33365E-02  4.43909E-02  4.54710E-02  4.65773E-02
#           4.77106E-02  4.88714E-02  5.00605E-02  5.12785E-02  5.25262E-02
#           5.38042E-02  5.51133E-02  5.64542E-02  5.78278E-02  5.92348E-02
#           6.06760E-02  6.21523E-02  6.36645E-02  6.52135E-02  6.68002E-02
#           6.84255E-02  7.00904E-02  7.17957E-02  7.35426E-02  7.53319E-02
#           7.71648E-02  7.90423E-02  8.09655E-02  8.29354E-02  8.49533E-02
#           8.70203E-02  8.91376E-02  9.13064E-02  9.35279E-02  9.58035E-02
#           9.81345E-02  1.00522E-01  1.02968E-01  1.05473E-01  1.08040E-01
#           1.10668E-01  1.13361E-01  1.16119E-01  1.18944E-01  1.21838E-01
#           1.24803E-01  1.27839E-01  1.30950E-01  1.34136E-01  1.37399E-01
#           1.40742E-01  1.44167E-01  1.47675E-01  1.51268E-01  1.54948E-01
#           1.58718E-01  1.62580E-01  1.66535E-01  1.70587E-01  1.74738E-01
#           1.78989E-01  1.83344E-01  1.87805E-01  1.92375E-01  1.97055E-01
#           2.01850E-01  2.06761E-01  2.11792E-01  2.16945E-01  2.22223E-01
#           2.27630E-01  2.33169E-01  2.38842E-01  2.44653E-01  2.50605E-01
#           2.56703E-01  2.62949E-01  2.69346E-01  2.75900E-01  2.82613E-01
#           2.89489E-01  2.96532E-01  3.03747E-01  3.11138E-01  3.18708E-01
#           3.26462E-01  3.34405E-01  3.42542E-01  3.50876E-01  3.59413E-01
#           3.68158E-01  3.77116E-01  3.86291E-01  3.95690E-01  4.05317E-01
#           4.15179E-01  4.25281E-01  4.35628E-01  4.46227E-01  4.57084E-01
#           4.68205E-01  4.79597E-01  4.91266E-01  5.03219E-01  5.15463E-01
#           5.28005E-01  5.40851E-01  5.54011E-01  5.67490E-01  5.81298E-01
#           5.95441E-01  6.09929E-01  6.24769E-01  6.39970E-01  6.55541E-01
#           6.71491E-01  6.87828E-01  7.04564E-01  7.21706E-01  7.39266E-01
#           7.57253E-01  7.75678E-01  7.94551E-01  8.13883E-01  8.33685E-01
#           8.53969E-01  8.74747E-01  8.96030E-01  9.17831E-01  9.40163E-01
#           9.63038E-01  9.86469E-01  1.01047E+00  1.03506E+00  1.06024E+00
#           1.08604E+00  1.11246E+00  1.13953E+00  1.16725E+00  1.19565E+00
#           1.22474E+00  1.25454E+00  1.28507E+00  1.31633E+00  1.34836E+00
#           1.38117E+00  1.41477E+00  1.44920E+00  1.48446E+00  1.52057E+00
#           1.55757E+00  1.59547E+00  1.63429E+00  1.67405E+00  1.71478E+00
#           1.75650E+00  1.79924E+00  1.84302E+00  1.88786E+00  1.93379E+00
#           1.98084E+00  2.02904E+00  2.07841E+00  2.12898E+00  2.18078E+00
#           2.23384E+00  2.28819E+00  2.34386E+00  2.40089E+00  2.45930E+00
#           2.51914E+00  2.58043E+00  2.64322E+00  2.70753E+00  2.77341E+00
#           2.84088E+00  2.91001E+00  2.98081E+00  3.05333E+00  3.12762E+00
#           3.20372E+00  3.28167E+00  3.36152E+00  3.44330E+00  3.52708E+00
#           3.61290E+00  3.70080E+00  3.79085E+00  3.88308E+00  3.97756E+00
#           4.07434E+00  4.17347E+00  4.27501E+00  4.37903E+00  4.48557E+00
#           4.59471E+00  4.70650E+00  4.82102E+00  4.93832E+00  5.05847E+00
#           5.18155E+00  5.30762E+00  5.43676E+00  5.56904E+00  5.70453E+00
#           5.84333E+00  5.98550E+00  6.13114E+00  6.28031E+00  6.43312E+00
#           6.58964E+00  6.74997E+00  6.91420E+00  7.08243E+00  7.25475E+00
#           7.43126E+00  7.61207E+00  7.79728E+00  7.98700E+00  8.18133E+00
#           8.38038E+00  8.58428E+00  8.79315E+00  9.00709E+00  9.22624E+00
#           9.45072E+00  9.68067E+00  9.91620E+00  1.01575E+01  1.04046E+01
#           1.06578E+01  1.09171E+01  1.11827E+01  1.14548E+01  1.17335E+01
#           1.20190E+01  1.23114E+01  1.26109E+01  1.29178E+01  1.32321E+01
#           1.35540E+01  1.38838E+01  1.42216E+01  1.45676E+01  1.49221E+01
#           1.52851E+01  1.56570E+01  1.60380E+01  1.64282E+01  1.68279E+01
#           1.72374E+01  1.76568E+01  1.80864E+01  1.85264E+01  1.89772E+01
#           1.94389E+01  1.99119E+01  2.03963E+01  2.08926E+01  2.14009E+01
#           2.19216E+01  2.24550E+01  2.30014E+01  2.35610E+01  2.41343E+01
#           2.47215E+01  2.53230E+01  2.59391E+01  2.65702E+01  2.72167E+01
#           2.78789E+01  2.85572E+01  2.92520E+01  2.99637E+01  3.06928E+01
#           3.14396E+01  3.22045E+01  3.29881E+01  3.37907E+01  3.46128E+01
#           3.54550E+01  3.63177E+01  3.72013E+01  3.81064E+01  3.90336E+01
#           3.99833E+01  4.09561E+01  4.19526E+01  4.29734E+01  4.40189E+01
#           4.50900E+01  4.61870E+01  4.73108E+01  4.84619E+01  4.96410E+01
#           5.08488E+01  5.20860E+01  5.33533E+01  5.46514E+01  5.59812E+01
#           5.73432E+01  5.87384E+01  6.01676E+01  6.16315E+01  6.31311E+01
#           6.46671E+01  6.62405E+01  6.78522E+01  6.95031E+01  7.11941E+01
#           7.29263E+01  7.47007E+01  7.65182E+01  7.83800E+01  8.02870E+01
#           8.22405E+01  8.42414E+01  8.62911E+01  8.83906E+01  9.05412E+01
#           9.27442E+01  9.50007E+01  9.73122E+01  9.96799E+01  1.02105E+02
#           1.04589E+02  1.07134E+02  1.09741E+02  1.12411E+02  1.15146E+02
#           1.17948E+02  1.20817E+02  1.23757E+02  1.26768E+02  1.29852E+02
#           1.33012E+02  1.36248E+02  1.39563E+02  1.42959E+02  1.46437E+02
#           1.50000E+02
     unit =    2            # unit is [1/cm^2/(MeV/n)/source]
     axis =  eng            # axis of output
     file = detector-09.out  # file name of output for the above axis
   output = f-curr          # surface crossing forward current spectrum
     part =  neutron  
# kf/name :  2112     
#    used :        main (  %)        temp (  %)       total (  %)
#  memory :         414 (  0)           0 (  0)         414 (  0)

#------------------------------------------------------------------------------
#newpage:
#   no. =    1   reg = 108 - 208

x: Energy [MeV/n]
y:  F-Curr [1/cm^2/(MeV/n)/source]         
p: xlog ylog afac(0.8) form(0.9)
h: n            x            y(neutron ),hh0l   n 
#  e-lower      e-upper      neutron     r.err 
   1.0000E-02   1.0243E-02   3.6990E-05  0.3333
   1.0243E-02   1.0493E-02   4.0124E-05  0.3162
   1.0493E-02   1.0748E-02   3.1337E-05  0.3536
   1.0748E-02   1.1009E-02   3.4416E-05  0.3333
   1.1009E-02   1.1277E-02   7.0931E-05  0.2294
   1.1277E-02   1.1552E-02   5.8313E-05  0.2500
   1.1552E-02   1.1833E-02   4.9812E-05  0.2673
   1.1833E-02   1.2121E-02   5.2102E-05  0.2582
   1.2121E-02   1.2415E-02   3.0519E-05  0.3333
   1.2415E-02   1.2718E-02   4.3035E-05  0.2774
   1.2718E-02   1.3027E-02   6.4636E-05  0.2236
   1.3027E-02   1.3344E-02   4.1015E-05  0.2774
   1.3344E-02   1.3669E-02   7.7002E-05  0.2000
   1.3669E-02   1.4001E-02   2.4055E-05  0.3536
   1.4001E-02   1.4342E-02   5.5774E-05  0.2294
   1.4342E-02   1.4691E-02   3.7255E-05  0.2774
   1.4691E-02   1.5048E-02   6.7145E-05  0.2041
   1.5048E-02   1.5414E-02   4.6431E-05  0.2425
   1.5414E-02   1.5789E-02   6.6659E-05  0.2000
   1.5789E-02   1.6174E-02   5.9870E-05  0.2085
   1.6174E-02   1.6567E-02   4.3200E-05  0.2425
   1.6567E-02   1.6970E-02   4.4655E-05  0.2357
   1.6970E-02   1.7383E-02   6.7814E-05  0.1890
   1.7383E-02   1.7806E-02   6.6203E-05  0.1890
   1.7806E-02   1.8239E-02   6.2322E-05  0.1925
   1.8239E-02   1.8683E-02   6.0842E-05  0.1925
   1.8683E-02   1.9138E-02   3.9598E-05  0.2357
   1.9138E-02   1.9603E-02   6.2281E-05  0.1857
   1.9603E-02   2.0080E-02   4.6125E-05  0.2132
   2.0080E-02   2.0569E-02   6.3451E-05  0.1796
   2.0569E-02   2.1069E-02   6.1944E-05  0.1796
   2.1069E-02   2.1582E-02   5.8522E-05  0.1826
   2.1582E-02   2.2107E-02   4.3801E-05  0.2085
   2.2107E-02   2.2645E-02   5.7634E-05  0.1796
   2.2645E-02   2.3196E-02   7.8045E-05  0.1525
   2.3196E-02   2.3760E-02   6.0244E-05  0.1715
   2.3760E-02   2.4338E-02   6.9192E-05  0.1581
   2.4338E-02   2.4930E-02   7.4303E-05  0.1508
   2.4930E-02   2.5537E-02   6.9241E-05  0.1543
   2.5537E-02   2.6158E-02   6.7596E-05  0.1543
   2.6158E-02   2.6795E-02   6.2848E-05  0.1581
   2.6795E-02   2.7447E-02   6.2890E-05  0.1562
   2.7447E-02   2.8114E-02   7.4873E-05  0.1414
   2.8114E-02   2.8799E-02   5.5552E-05  0.1622
   2.8799E-02   2.9499E-02   8.9911E-05  0.1260
   2.9499E-02   3.0217E-02   7.2450E-05  0.1387
   3.0217E-02   3.0952E-02   7.6170E-05  0.1336
   3.0952E-02   3.1705E-02   7.3032E-05  0.1348
   3.1705E-02   3.2477E-02   6.0927E-05  0.1459
   3.2477E-02   3.3267E-02   8.9220E-05  0.1189
   3.3267E-02   3.4076E-02   8.1541E-05  0.1231
   3.4076E-02   3.4905E-02   7.4780E-05  0.1270
   3.4905E-02   3.5755E-02   7.5358E-05  0.1250
   3.5755E-02   3.6625E-02   8.5064E-05  0.1162
   3.6625E-02   3.7516E-02   8.5287E-05  0.1147
   3.7516E-02   3.8428E-02   8.4357E-05  0.1140
   3.8428E-02   3.9363E-02   5.9893E-05  0.1336
   3.9363E-02   4.0321E-02   7.7265E-05  0.1162
   4.0321E-02   4.1302E-02   8.7662E-05  0.1078
   4.1302E-02   4.2307E-02   1.0548E-04  0.0971
   4.2307E-02   4.3337E-02   8.6461E-05  0.1060
   4.3337E-02   4.4391E-02   7.6820E-05  0.1111
   4.4391E-02   4.5471E-02   8.3328E-05  0.1054
   4.5471E-02   4.6577E-02   9.0388E-05  0.1000
   4.6577E-02   4.7711E-02   1.0412E-04  0.0921
   4.7711E-02   4.8871E-02   8.7868E-05  0.0990
   4.8871E-02   5.0061E-02   1.0176E-04  0.0909
   5.0061E-02   5.1279E-02   9.0311E-05  0.0953
   5.1279E-02   5.2526E-02   9.3777E-05  0.0925
   5.2526E-02   5.3804E-02   9.2332E-05  0.0921
   5.3804E-02   5.5113E-02   9.0902E-05  0.0917
   5.5113E-02   5.6454E-02   1.0217E-04  0.0854
   5.6454E-02   5.7828E-02   9.9740E-05  0.0854
   5.7828E-02   5.9235E-02   1.0661E-04  0.0816
   5.9235E-02   6.0676E-02   1.0963E-04  0.0796
   6.0676E-02   6.2152E-02   1.1583E-04  0.0765
   6.2152E-02   6.3665E-02   9.7208E-05  0.0825
   6.3665E-02   6.5214E-02   1.0006E-04  0.0803
   6.5214E-02   6.6800E-02   1.0903E-04  0.0760
   6.6800E-02   6.8426E-02   1.0337E-04  0.0772
   6.8426E-02   7.0090E-02   9.2501E-05  0.0806
   7.0090E-02   7.1796E-02   1.0438E-04  0.0750
   7.1796E-02   7.3543E-02   1.1175E-04  0.0715
   7.3543E-02   7.5332E-02   1.1624E-04  0.0693
   7.5332E-02   7.7165E-02   1.0257E-04  0.0729
   7.7165E-02   7.9042E-02   9.8536E-05  0.0735
   7.9042E-02   8.0965E-02   1.0920E-04  0.0690
   8.0965E-02   8.2935E-02   1.0254E-04  0.0704
   8.2935E-02   8.4953E-02   1.0415E-04  0.0690
   8.4953E-02   8.7020E-02   1.2192E-04  0.0630
   8.7020E-02   8.9138E-02   1.1194E-04  0.0650
   8.9138E-02   9.1306E-02   1.0974E-04  0.0648
   9.1306E-02   9.3528E-02   1.0398E-04  0.0658
   9.3528E-02   9.5804E-02   1.2656E-04  0.0589
   9.5804E-02   9.8134E-02   1.1378E-04  0.0614
   9.8134E-02   1.0052E-01   1.2020E-04  0.0590
   1.0052E-01   1.0297E-01   1.1498E-04  0.0596
   1.0297E-01   1.0547E-01   1.1386E-04  0.0592
   1.0547E-01   1.0804E-01   1.0833E-04  0.0600
   1.0804E-01   1.1067E-01   1.1641E-04  0.0572
   1.1067E-01   1.1336E-01   1.2218E-04  0.0551
   1.1336E-01   1.1612E-01   1.2168E-04  0.0545
   1.1612E-01   1.1894E-01   1.1013E-04  0.0567
   1.1894E-01   1.2184E-01   1.1411E-04  0.0550
   1.2184E-01   1.2480E-01   1.1166E-04  0.0550
   1.2480E-01   1.2784E-01   1.1296E-04  0.0540
   1.2784E-01   1.3095E-01   1.2056E-04  0.0516
   1.3095E-01   1.3414E-01   1.2743E-04  0.0496
   1.3414E-01   1.3740E-01   1.1405E-04  0.0518
   1.3740E-01   1.4074E-01   1.1584E-04  0.0508
   1.4074E-01   1.4417E-01   1.1831E-04  0.0497
   1.4417E-01   1.4767E-01   1.2145E-04  0.0485
   1.4767E-01   1.5127E-01   1.2524E-04  0.0471
   1.5127E-01   1.5495E-01   1.2504E-04  0.0466
   1.5495E-01   1.5872E-01   1.2440E-04  0.0462
   1.5872E-01   1.6258E-01   1.1264E-04  0.0479
   1.6258E-01   1.6654E-01   1.2109E-04  0.0457
   1.6654E-01   1.7059E-01   1.1454E-04  0.0464
   1.7059E-01   1.7474E-01   1.2649E-04  0.0436
   1.7474E-01   1.7899E-01   1.1505E-04  0.0452
   1.7899E-01   1.8334E-01   1.1022E-04  0.0456
   1.8334E-01   1.8781E-01   1.0832E-04  0.0456
   1.8781E-01   1.9237E-01   1.0289E-04  0.0461
   1.9237E-01   1.9706E-01   1.0276E-04  0.0456
   1.9706E-01   2.0185E-01   1.0595E-04  0.0444
   2.0185E-01   2.0676E-01   1.0099E-04  0.0449
   2.0676E-01   2.1179E-01   1.0675E-04  0.0432
   2.1179E-01   2.1694E-01   1.0634E-04  0.0427
   2.1694E-01   2.2222E-01   1.1408E-04  0.0407
   2.2222E-01   2.2763E-01   1.0709E-04  0.0416
   2.2763E-01   2.3317E-01   1.0563E-04  0.0413
   2.3317E-01   2.3884E-01   9.5714E-05  0.0429
   2.3884E-01   2.4465E-01   1.1013E-04  0.0395
   2.4465E-01   2.5061E-01   1.1625E-04  0.0380
   2.5061E-01   2.5670E-01   1.1491E-04  0.0378
   2.5670E-01   2.6295E-01   1.1023E-04  0.0381
   2.6295E-01   2.6935E-01   1.1098E-04  0.0375
   2.6935E-01   2.7590E-01   1.0865E-04  0.0375
   2.7590E-01   2.8261E-01   1.0830E-04  0.0371
   2.8261E-01   2.8949E-01   1.1169E-04  0.0361
   2.8949E-01   2.9653E-01   1.0790E-04  0.0363
   2.9653E-01   3.0375E-01   1.1116E-04  0.0353
   3.0375E-01   3.1114E-01   1.1515E-04  0.0343
   3.1114E-01   3.1871E-01   1.1760E-04  0.0335
   3.1871E-01   3.2646E-01   1.1857E-04  0.0330
   3.2646E-01   3.3441E-01   1.1079E-04  0.0337
   3.3441E-01   3.4254E-01   1.1701E-04  0.0324
   3.4254E-01   3.5088E-01   1.2419E-04  0.0311
   3.5088E-01   3.5941E-01   1.0905E-04  0.0328
   3.5941E-01   3.6816E-01   1.1275E-04  0.0318
   3.6816E-01   3.7712E-01   1.1672E-04  0.0309
   3.7712E-01   3.8629E-01   1.0912E-04  0.0316
   3.8629E-01   3.9569E-01   1.1352E-04  0.0306
   3.9569E-01   4.0532E-01   1.1885E-04  0.0296
   4.0532E-01   4.1518E-01   1.1134E-04  0.0302
   4.1518E-01   4.2528E-01   1.1176E-04  0.0298
   4.2528E-01   4.3563E-01   1.1761E-04  0.0287
   4.3563E-01   4.4623E-01   1.1881E-04  0.0282
   4.4623E-01   4.5708E-01   1.1292E-04  0.0286
   4.5708E-01   4.6821E-01   1.1512E-04  0.0279
   4.6821E-01   4.7960E-01   1.1019E-04  0.0282
   4.7960E-01   4.9127E-01   1.1158E-04  0.0277
   4.9127E-01   5.0322E-01   1.1294E-04  0.0272
   5.0322E-01   5.1546E-01   1.1379E-04  0.0268
   5.1546E-01   5.2800E-01   1.1903E-04  0.0259
   5.2800E-01   5.4085E-01   1.1217E-04  0.0263
   5.4085E-01   5.5401E-01   1.1127E-04  0.0261
   5.5401E-01   5.6749E-01   1.0862E-04  0.0261
   5.6749E-01   5.8130E-01   1.1751E-04  0.0248
   5.8130E-01   5.9544E-01   1.1521E-04  0.0248
   5.9544E-01   6.0993E-01   1.1312E-04  0.0247
   6.0993E-01   6.2477E-01   1.1687E-04  0.0240
   6.2477E-01   6.3997E-01   1.1492E-04  0.0239
   6.3997E-01   6.5554E-01   1.1461E-04  0.0237
   6.5554E-01   6.7149E-01   1.0749E-04  0.0241
   6.7149E-01   6.8783E-01   1.1357E-04  0.0232
   6.8783E-01   7.0456E-01   1.1284E-04  0.0230
   7.0456E-01   7.2171E-01   1.1140E-04  0.0229
   7.2171E-01   7.3927E-01   1.1362E-04  0.0224
   7.3927E-01   7.5725E-01   1.1038E-04  0.0224
   7.5725E-01   7.7568E-01   1.0974E-04  0.0222
   7.7568E-01   7.9455E-01   1.1426E-04  0.0215
   7.9455E-01   8.1388E-01   1.1310E-04  0.0214
   8.1388E-01   8.3368E-01   1.1518E-04  0.0209
   8.3368E-01   8.5397E-01   1.1202E-04  0.0210
   8.5397E-01   8.7475E-01   1.0713E-04  0.0212
   8.7475E-01   8.9603E-01   1.1054E-04  0.0206
   8.9603E-01   9.1783E-01   1.0729E-04  0.0207
   9.1783E-01   9.4016E-01   1.0677E-04  0.0205
   9.4016E-01   9.6304E-01   1.1120E-04  0.0198
   9.6304E-01   9.8647E-01   1.0558E-04  0.0201
   9.8647E-01   1.0105E+00   1.1025E-04  0.0194
   1.0105E+00   1.0351E+00   1.0885E-04  0.0193
   1.0351E+00   1.0602E+00   1.0833E-04  0.0191
   1.0602E+00   1.0860E+00   1.0624E-04  0.0191
   1.0860E+00   1.1125E+00   1.0325E-04  0.0191
   1.1125E+00   1.1395E+00   1.0671E-04  0.0186
   1.1395E+00   1.1673E+00   1.0382E-04  0.0186
   1.1673E+00   1.1957E+00   1.0319E-04  0.0185
   1.1957E+00   1.2247E+00   1.0053E-04  0.0185
   1.2247E+00   1.2545E+00   1.0165E-04  0.0182
   1.2545E+00   1.2851E+00   1.0610E-04  0.0176
   1.2851E+00   1.3163E+00   1.0218E-04  0.0177
   1.3163E+00   1.3484E+00   1.0099E-04  0.0176
   1.3484E+00   1.3812E+00   1.0175E-04  0.0173
   1.3812E+00   1.4148E+00   1.0175E-04  0.0171
   1.4148E+00   1.4492E+00   9.8666E-05  0.0172
   1.4492E+00   1.4845E+00   9.5769E-05  0.0172
   1.4845E+00   1.5206E+00   9.9747E-05  0.0167
   1.5206E+00   1.5576E+00   9.7428E-05  0.0167
   1.5576E+00   1.5955E+00   9.8051E-05  0.0164
   1.5955E+00   1.6343E+00   9.5486E-05  0.0164
   1.6343E+00   1.6741E+00   9.8812E-05  0.0160
   1.6741E+00   1.7148E+00   9.4654E-05  0.0161
   1.7148E+00   1.7565E+00   9.3544E-05  0.0160
   1.7565E+00   1.7992E+00   9.0922E-05  0.0160
   1.7992E+00   1.8430E+00   9.4348E-05  0.0156
   1.8430E+00   1.8879E+00   9.0352E-05  0.0157
   1.8879E+00   1.9338E+00   9.0302E-05  0.0155
   1.9338E+00   1.9808E+00   8.8856E-05  0.0155
   1.9808E+00   2.0290E+00   8.6771E-05  0.0155
   2.0290E+00   2.0784E+00   8.4811E-05  0.0155
   2.0784E+00   2.1290E+00   8.3930E-05  0.0154
   2.1290E+00   2.1808E+00   8.6767E-05  0.0149
   2.1808E+00   2.2338E+00   8.1582E-05  0.0152
   2.2338E+00   2.2882E+00   8.2557E-05  0.0149
   2.2882E+00   2.3439E+00   7.9556E-05  0.0150
   2.3439E+00   2.4009E+00   7.7948E-05  0.0150
   2.4009E+00   2.4593E+00   7.9330E-05  0.0147
   2.4593E+00   2.5191E+00   7.7192E-05  0.0147
   2.5191E+00   2.5804E+00   7.5763E-05  0.0147
   2.5804E+00   2.6432E+00   7.5066E-05  0.0146
   2.6432E+00   2.7075E+00   7.2154E-05  0.0147
   2.7075E+00   2.7734E+00   7.1486E-05  0.0146
   2.7734E+00   2.8409E+00   7.2659E-05  0.0143
   2.8409E+00   2.9100E+00   6.9948E-05  0.0144
   2.9100E+00   2.9808E+00   6.8654E-05  0.0143
   2.9808E+00   3.0533E+00   6.6868E-05  0.0144
   3.0533E+00   3.1276E+00   6.6460E-05  0.0142
   3.1276E+00   3.2037E+00   6.3739E-05  0.0144
   3.2037E+00   3.2817E+00   6.2381E-05  0.0143
   3.2817E+00   3.3615E+00   6.0687E-05  0.0144
   3.3615E+00   3.4433E+00   6.0315E-05  0.0142
   3.4433E+00   3.5271E+00   5.8096E-05  0.0143
   3.5271E+00   3.6129E+00   5.7965E-05  0.0142
   3.6129E+00   3.7008E+00   5.6906E-05  0.0141
   3.7008E+00   3.7908E+00   5.4876E-05  0.0142
   3.7908E+00   3.8831E+00   5.3114E-05  0.0143
   3.8831E+00   3.9776E+00   5.2269E-05  0.0142
   3.9776E+00   4.0743E+00   5.0951E-05  0.0142
   4.0743E+00   4.1735E+00   5.0504E-05  0.0141
   4.1735E+00   4.2750E+00   4.8949E-05  0.0142
   4.2750E+00   4.3790E+00   4.8199E-05  0.0141
   4.3790E+00   4.4856E+00   4.6457E-05  0.0142
   4.4856E+00   4.5947E+00   4.6627E-05  0.0140
   4.5947E+00   4.7065E+00   4.4841E-05  0.0141
   4.7065E+00   4.8210E+00   4.4663E-05  0.0140
   4.8210E+00   4.9383E+00   4.3178E-05  0.0140
   4.9383E+00   5.0585E+00   4.2109E-05  0.0141
   5.0585E+00   5.1815E+00   4.1917E-05  0.0139
   5.1815E+00   5.3076E+00   4.1338E-05  0.0139
   5.3076E+00   5.4368E+00   3.8439E-05  0.0142
   5.4368E+00   5.5690E+00   3.7945E-05  0.0141
   5.5690E+00   5.7045E+00   3.5225E-05  0.0145
   5.7045E+00   5.8433E+00   3.2484E-05  0.0149
   5.8433E+00   5.9855E+00   3.0459E-05  0.0152
   5.9855E+00   6.1311E+00   2.9034E-05  0.0154
   6.1311E+00   6.2803E+00   2.8818E-05  0.0153
   6.2803E+00   6.4331E+00   2.6654E-05  0.0157
   6.4331E+00   6.5896E+00   2.5948E-05  0.0157
   6.5896E+00   6.7500E+00   2.5493E-05  0.0156
   6.7500E+00   6.9142E+00   2.5107E-05  0.0156
   6.9142E+00   7.0824E+00   2.4405E-05  0.0156
   7.0824E+00   7.2548E+00   2.3234E-05  0.0158
   7.2548E+00   7.4313E+00   2.2258E-05  0.0160
   7.4313E+00   7.6121E+00   2.2490E-05  0.0157
   7.6121E+00   7.7973E+00   2.1124E-05  0.0160
   7.7973E+00   7.9870E+00   1.9895E-05  0.0163
   7.9870E+00   8.1813E+00   1.9344E-05  0.0163
   8.1813E+00   8.3804E+00   1.8412E-05  0.0165
   8.3804E+00   8.5843E+00   1.8143E-05  0.0164
   8.5843E+00   8.7931E+00   1.7188E-05  0.0167
   8.7931E+00   9.0071E+00   1.5808E-05  0.0172
   9.0071E+00   9.2262E+00   1.4675E-05  0.0176
   9.2262E+00   9.4507E+00   1.3987E-05  0.0178
   9.4507E+00   9.6807E+00   1.3388E-05  0.0180
   9.6807E+00   9.9162E+00   1.3229E-05  0.0179
   9.9162E+00   1.0157E+01   1.1788E-05  0.0188
   1.0157E+01   1.0405E+01   1.1181E-05  0.0190
   1.0405E+01   1.0658E+01   1.0962E-05  0.0190
   1.0658E+01   1.0917E+01   1.0228E-05  0.0194
   1.0917E+01   1.1183E+01   9.8619E-06  0.0195
   1.1183E+01   1.1455E+01   8.9357E-06  0.0203
   1.1455E+01   1.1733E+01   8.5477E-06  0.0205
   1.1733E+01   1.2019E+01   7.9023E-06  0.0211
   1.2019E+01   1.2311E+01   7.6907E-06  0.0211
   1.2311E+01   1.2611E+01   7.1441E-06  0.0216
   1.2611E+01   1.2918E+01   7.2565E-06  0.0212
   1.2918E+01   1.3232E+01   7.4483E-06  0.0207
   1.3232E+01   1.3554E+01   7.6015E-06  0.0202
   1.3554E+01   1.3884E+01   7.4534E-06  0.0202
   1.3884E+01   1.4222E+01   8.3776E-06  0.0188
   1.4222E+01   1.4568E+01   8.4763E-06  0.0185
   1.4568E+01   1.4922E+01   8.1206E-06  0.0186
   1.4922E+01   1.5285E+01   8.0812E-06  0.0185
   1.5285E+01   1.5657E+01   7.3111E-06  0.0192
   1.5657E+01   1.6038E+01   7.1460E-06  0.0192
   1.6038E+01   1.6428E+01   6.4759E-06  0.0199
   1.6428E+01   1.6828E+01   5.4689E-06  0.0214
   1.6828E+01   1.7237E+01   4.7431E-06  0.0227
   1.7237E+01   1.7657E+01   4.0010E-06  0.0244
   1.7657E+01   1.8086E+01   2.7374E-06  0.0292
   1.8086E+01   1.8526E+01   2.6701E-06  0.0292
   1.8526E+01   1.8977E+01   3.0415E-06  0.0270
   1.8977E+01   1.9439E+01   3.6190E-06  0.0245
   1.9439E+01   1.9912E+01   3.6240E-06  0.0242
   1.9912E+01   2.0396E+01   3.4512E-06  0.0245
   2.0396E+01   2.0893E+01   3.0166E-06  0.0258
   2.0893E+01   2.1401E+01   2.6341E-06  0.0273
   2.1401E+01   2.1922E+01   2.2374E-06  0.0293
   2.1922E+01   2.2455E+01   1.3687E-06  0.0370
   2.2455E+01   2.3001E+01   5.2531E-07  0.0590
   2.3001E+01   2.3561E+01   7.1474E-09  0.5000
   2.3561E+01   2.4134E+01   0.0000E+00  0.0000
   2.4134E+01   2.4721E+01   1.7030E-09  1.0000
   2.4721E+01   2.5323E+01   0.0000E+00  0.0000
   2.5323E+01   2.5939E+01   0.0000E+00  0.0000
   2.5939E+01   2.6570E+01   0.0000E+00  0.0000
   2.6570E+01   2.7217E+01   0.0000E+00  0.0000
   2.7217E+01   2.7879E+01   0.0000E+00  0.0000
   2.7879E+01   2.8557E+01   0.0000E+00  0.0000
   2.8557E+01   2.9252E+01   0.0000E+00  0.0000
   2.9252E+01   2.9964E+01   0.0000E+00  0.0000
   2.9964E+01   3.0693E+01   0.0000E+00  0.0000
   3.0693E+01   3.1440E+01   0.0000E+00  0.0000
   3.1440E+01   3.2205E+01   0.0000E+00  0.0000
   3.2205E+01   3.2988E+01   0.0000E+00  0.0000
   3.2988E+01   3.3791E+01   0.0000E+00  0.0000
   3.3791E+01   3.4613E+01   0.0000E+00  0.0000
   3.4613E+01   3.5455E+01   0.0000E+00  0.0000
   3.5455E+01   3.6318E+01   0.0000E+00  0.0000
   3.6318E+01   3.7201E+01   0.0000E+00  0.0000
   3.7201E+01   3.8106E+01   0.0000E+00  0.0000
   3.8106E+01   3.9034E+01   0.0000E+00  0.0000
   3.9034E+01   3.9983E+01   0.0000E+00  0.0000
   3.9983E+01   4.0956E+01   0.0000E+00  0.0000
   4.0956E+01   4.1953E+01   0.0000E+00  0.0000
   4.1953E+01   4.2973E+01   0.0000E+00  0.0000
   4.2973E+01   4.4019E+01   0.0000E+00  0.0000
   4.4019E+01   4.5090E+01   0.0000E+00  0.0000
   4.5090E+01   4.6187E+01   0.0000E+00  0.0000
   4.6187E+01   4.7311E+01   0.0000E+00  0.0000
   4.7311E+01   4.8462E+01   0.0000E+00  0.0000
   4.8462E+01   4.9641E+01   0.0000E+00  0.0000
   4.9641E+01   5.0849E+01   0.0000E+00  0.0000
   5.0849E+01   5.2086E+01   0.0000E+00  0.0000
   5.2086E+01   5.3353E+01   0.0000E+00  0.0000
   5.3353E+01   5.4651E+01   0.0000E+00  0.0000
   5.4651E+01   5.5981E+01   0.0000E+00  0.0000
   5.5981E+01   5.7343E+01   0.0000E+00  0.0000
   5.7343E+01   5.8738E+01   0.0000E+00  0.0000
   5.8738E+01   6.0168E+01   0.0000E+00  0.0000
   6.0168E+01   6.1632E+01   0.0000E+00  0.0000
   6.1632E+01   6.3131E+01   0.0000E+00  0.0000
   6.3131E+01   6.4667E+01   0.0000E+00  0.0000
   6.4667E+01   6.6240E+01   0.0000E+00  0.0000
   6.6240E+01   6.7852E+01   0.0000E+00  0.0000
   6.7852E+01   6.9503E+01   0.0000E+00  0.0000
   6.9503E+01   7.1194E+01   0.0000E+00  0.0000
   7.1194E+01   7.2926E+01   0.0000E+00  0.0000
   7.2926E+01   7.4701E+01   0.0000E+00  0.0000
   7.4701E+01   7.6518E+01   0.0000E+00  0.0000
   7.6518E+01   7.8380E+01   0.0000E+00  0.0000
   7.8380E+01   8.0287E+01   0.0000E+00  0.0000
   8.0287E+01   8.2240E+01   0.0000E+00  0.0000
   8.2240E+01   8.4241E+01   0.0000E+00  0.0000
   8.4241E+01   8.6291E+01   0.0000E+00  0.0000
   8.6291E+01   8.8391E+01   0.0000E+00  0.0000
   8.8391E+01   9.0541E+01   0.0000E+00  0.0000
   9.0541E+01   9.2744E+01   0.0000E+00  0.0000
   9.2744E+01   9.5001E+01   0.0000E+00  0.0000
   9.5001E+01   9.7312E+01   0.0000E+00  0.0000
   9.7312E+01   9.9680E+01   0.0000E+00  0.0000
   9.9680E+01   1.0211E+02   0.0000E+00  0.0000
   1.0211E+02   1.0459E+02   0.0000E+00  0.0000
   1.0459E+02   1.0713E+02   0.0000E+00  0.0000
   1.0713E+02   1.0974E+02   0.0000E+00  0.0000
   1.0974E+02   1.1241E+02   0.0000E+00  0.0000
   1.1241E+02   1.1515E+02   0.0000E+00  0.0000
   1.1515E+02   1.1795E+02   0.0000E+00  0.0000
   1.1795E+02   1.2082E+02   0.0000E+00  0.0000
   1.2082E+02   1.2376E+02   0.0000E+00  0.0000
   1.2376E+02   1.2677E+02   0.0000E+00  0.0000
   1.2677E+02   1.2985E+02   0.0000E+00  0.0000
   1.2985E+02   1.3301E+02   0.0000E+00  0.0000
   1.3301E+02   1.3625E+02   0.0000E+00  0.0000
   1.3625E+02   1.3956E+02   0.0000E+00  0.0000
   1.3956E+02   1.4296E+02   0.0000E+00  0.0000
   1.4296E+02   1.4644E+02   0.0000E+00  0.0000
   1.4644E+02   1.5000E+02   0.0000E+00  0.0000

#   sum over                 3.8631E-06
'no. =    1   reg = 108 - 208'
msuc: {\huge [t-cross] in region mesh}
msdr: {\it plotted by \ANGEL \version}
msdl: {\it calculated by \PHITS  3.26}
wt: s(0.7)
\vspace{-3}
  region surface crossing
  area  &=&   1.0000E+00 [cm^2]
e:
 
# Information for Restart Calculation
# This calculation was newly started
# istdev =  2 # 1:Batch variance, 2:History variance
# resc2  = 1.00000000000000000E+09 # Total source weight or Total source weight / maxcas
# resc3  = 1.00000000000000000E+09 # Total history number or Total batch number
# maxcas =   500000000 # History / Batch, only used for istdev=1
# bitrseed = 0001001110011001001001110000100100110111001111011100001000101100 # bit data of rseed
