[ T-Cross ]
    title = [t-cross] in region mesh
     mesh =  reg            # mesh type is region-wise
      reg =    1            # number of crossing regions
      non     r-from    r-to       area
      1       105       205        1.000000    
   e-type =    3            # e-mesh is log given by emin, emax and ne
     emin =  1.0000000E-02  # minimum value of e-mesh points
     emax =   150.0000      # maximum value of e-mesh points
#    edel =  2.4039514E-02  # mesh width of e-mesh points
       ne =    400          # number of e-mesh points
#    data = ( e(i), i = 1, ne + 1 )
#           1.00000E-02  1.02433E-02  1.04925E-02  1.07478E-02  1.10093E-02
#           1.12772E-02  1.15516E-02  1.18326E-02  1.21205E-02  1.24154E-02
#           1.27175E-02  1.30269E-02  1.33439E-02  1.36686E-02  1.40011E-02
#           1.43418E-02  1.46907E-02  1.50482E-02  1.54143E-02  1.57894E-02
#           1.61735E-02  1.65670E-02  1.69701E-02  1.73830E-02  1.78060E-02
#           1.82392E-02  1.86830E-02  1.91375E-02  1.96032E-02  2.00801E-02
#           2.05687E-02  2.10692E-02  2.15818E-02  2.21069E-02  2.26448E-02
#           2.31957E-02  2.37601E-02  2.43382E-02  2.49304E-02  2.55369E-02
#           2.61583E-02  2.67947E-02  2.74467E-02  2.81145E-02  2.87985E-02
#           2.94992E-02  3.02169E-02  3.09521E-02  3.17052E-02  3.24766E-02
#           3.32668E-02  3.40762E-02  3.49053E-02  3.57546E-02  3.66246E-02
#           3.75157E-02  3.84284E-02  3.93634E-02  4.03212E-02  4.13022E-02
#           4.23071E-02  4.33365E-02  4.43909E-02  4.54710E-02  4.65773E-02
#           4.77106E-02  4.88714E-02  5.00605E-02  5.12785E-02  5.25262E-02
#           5.38042E-02  5.51133E-02  5.64542E-02  5.78278E-02  5.92348E-02
#           6.06760E-02  6.21523E-02  6.36645E-02  6.52135E-02  6.68002E-02
#           6.84255E-02  7.00904E-02  7.17957E-02  7.35426E-02  7.53319E-02
#           7.71648E-02  7.90423E-02  8.09655E-02  8.29354E-02  8.49533E-02
#           8.70203E-02  8.91376E-02  9.13064E-02  9.35279E-02  9.58035E-02
#           9.81345E-02  1.00522E-01  1.02968E-01  1.05473E-01  1.08040E-01
#           1.10668E-01  1.13361E-01  1.16119E-01  1.18944E-01  1.21838E-01
#           1.24803E-01  1.27839E-01  1.30950E-01  1.34136E-01  1.37399E-01
#           1.40742E-01  1.44167E-01  1.47675E-01  1.51268E-01  1.54948E-01
#           1.58718E-01  1.62580E-01  1.66535E-01  1.70587E-01  1.74738E-01
#           1.78989E-01  1.83344E-01  1.87805E-01  1.92375E-01  1.97055E-01
#           2.01850E-01  2.06761E-01  2.11792E-01  2.16945E-01  2.22223E-01
#           2.27630E-01  2.33169E-01  2.38842E-01  2.44653E-01  2.50605E-01
#           2.56703E-01  2.62949E-01  2.69346E-01  2.75900E-01  2.82613E-01
#           2.89489E-01  2.96532E-01  3.03747E-01  3.11138E-01  3.18708E-01
#           3.26462E-01  3.34405E-01  3.42542E-01  3.50876E-01  3.59413E-01
#           3.68158E-01  3.77116E-01  3.86291E-01  3.95690E-01  4.05317E-01
#           4.15179E-01  4.25281E-01  4.35628E-01  4.46227E-01  4.57084E-01
#           4.68205E-01  4.79597E-01  4.91266E-01  5.03219E-01  5.15463E-01
#           5.28005E-01  5.40851E-01  5.54011E-01  5.67490E-01  5.81298E-01
#           5.95441E-01  6.09929E-01  6.24769E-01  6.39970E-01  6.55541E-01
#           6.71491E-01  6.87828E-01  7.04564E-01  7.21706E-01  7.39266E-01
#           7.57253E-01  7.75678E-01  7.94551E-01  8.13883E-01  8.33685E-01
#           8.53969E-01  8.74747E-01  8.96030E-01  9.17831E-01  9.40163E-01
#           9.63038E-01  9.86469E-01  1.01047E+00  1.03506E+00  1.06024E+00
#           1.08604E+00  1.11246E+00  1.13953E+00  1.16725E+00  1.19565E+00
#           1.22474E+00  1.25454E+00  1.28507E+00  1.31633E+00  1.34836E+00
#           1.38117E+00  1.41477E+00  1.44920E+00  1.48446E+00  1.52057E+00
#           1.55757E+00  1.59547E+00  1.63429E+00  1.67405E+00  1.71478E+00
#           1.75650E+00  1.79924E+00  1.84302E+00  1.88786E+00  1.93379E+00
#           1.98084E+00  2.02904E+00  2.07841E+00  2.12898E+00  2.18078E+00
#           2.23384E+00  2.28819E+00  2.34386E+00  2.40089E+00  2.45930E+00
#           2.51914E+00  2.58043E+00  2.64322E+00  2.70753E+00  2.77341E+00
#           2.84088E+00  2.91001E+00  2.98081E+00  3.05333E+00  3.12762E+00
#           3.20372E+00  3.28167E+00  3.36152E+00  3.44330E+00  3.52708E+00
#           3.61290E+00  3.70080E+00  3.79085E+00  3.88308E+00  3.97756E+00
#           4.07434E+00  4.17347E+00  4.27501E+00  4.37903E+00  4.48557E+00
#           4.59471E+00  4.70650E+00  4.82102E+00  4.93832E+00  5.05847E+00
#           5.18155E+00  5.30762E+00  5.43676E+00  5.56904E+00  5.70453E+00
#           5.84333E+00  5.98550E+00  6.13114E+00  6.28031E+00  6.43312E+00
#           6.58964E+00  6.74997E+00  6.91420E+00  7.08243E+00  7.25475E+00
#           7.43126E+00  7.61207E+00  7.79728E+00  7.98700E+00  8.18133E+00
#           8.38038E+00  8.58428E+00  8.79315E+00  9.00709E+00  9.22624E+00
#           9.45072E+00  9.68067E+00  9.91620E+00  1.01575E+01  1.04046E+01
#           1.06578E+01  1.09171E+01  1.11827E+01  1.14548E+01  1.17335E+01
#           1.20190E+01  1.23114E+01  1.26109E+01  1.29178E+01  1.32321E+01
#           1.35540E+01  1.38838E+01  1.42216E+01  1.45676E+01  1.49221E+01
#           1.52851E+01  1.56570E+01  1.60380E+01  1.64282E+01  1.68279E+01
#           1.72374E+01  1.76568E+01  1.80864E+01  1.85264E+01  1.89772E+01
#           1.94389E+01  1.99119E+01  2.03963E+01  2.08926E+01  2.14009E+01
#           2.19216E+01  2.24550E+01  2.30014E+01  2.35610E+01  2.41343E+01
#           2.47215E+01  2.53230E+01  2.59391E+01  2.65702E+01  2.72167E+01
#           2.78789E+01  2.85572E+01  2.92520E+01  2.99637E+01  3.06928E+01
#           3.14396E+01  3.22045E+01  3.29881E+01  3.37907E+01  3.46128E+01
#           3.54550E+01  3.63177E+01  3.72013E+01  3.81064E+01  3.90336E+01
#           3.99833E+01  4.09561E+01  4.19526E+01  4.29734E+01  4.40189E+01
#           4.50900E+01  4.61870E+01  4.73108E+01  4.84619E+01  4.96410E+01
#           5.08488E+01  5.20860E+01  5.33533E+01  5.46514E+01  5.59812E+01
#           5.73432E+01  5.87384E+01  6.01676E+01  6.16315E+01  6.31311E+01
#           6.46671E+01  6.62405E+01  6.78522E+01  6.95031E+01  7.11941E+01
#           7.29263E+01  7.47007E+01  7.65182E+01  7.83800E+01  8.02870E+01
#           8.22405E+01  8.42414E+01  8.62911E+01  8.83906E+01  9.05412E+01
#           9.27442E+01  9.50007E+01  9.73122E+01  9.96799E+01  1.02105E+02
#           1.04589E+02  1.07134E+02  1.09741E+02  1.12411E+02  1.15146E+02
#           1.17948E+02  1.20817E+02  1.23757E+02  1.26768E+02  1.29852E+02
#           1.33012E+02  1.36248E+02  1.39563E+02  1.42959E+02  1.46437E+02
#           1.50000E+02
     unit =    2            # unit is [1/cm^2/(MeV/n)/source]
     axis =  eng            # axis of output
     file = detector-06.out  # file name of output for the above axis
   output = f-curr          # surface crossing forward current spectrum
     part =  neutron  
# kf/name :  2112     
#    used :        main (  %)        temp (  %)       total (  %)
#  memory :         414 (  0)           0 (  0)         414 (  0)

#------------------------------------------------------------------------------
#newpage:
#   no. =    1   reg = 105 - 205

x: Energy [MeV/n]
y:  F-Curr [1/cm^2/(MeV/n)/source]         
p: xlog ylog afac(0.8) form(0.9)
h: n            x            y(neutron ),hh0l   n 
#  e-lower      e-upper      neutron     r.err 
   1.0000E-02   1.0243E-02   1.0166E-03  0.0282
   1.0243E-02   1.0493E-02   9.1529E-04  0.0294
   1.0493E-02   1.0748E-02   9.5069E-04  0.0285
   1.0748E-02   1.1009E-02   9.2022E-04  0.0286
   1.1009E-02   1.1277E-02   9.5482E-04  0.0277
   1.1277E-02   1.1552E-02   9.0610E-04  0.0281
   1.1552E-02   1.1833E-02   8.6924E-04  0.0284
   1.1833E-02   1.2121E-02   8.5175E-04  0.0283
   1.2121E-02   1.2415E-02   8.1181E-04  0.0287
   1.2415E-02   1.2718E-02   8.1741E-04  0.0283
   1.2718E-02   1.3027E-02   7.8606E-04  0.0285
   1.3027E-02   1.3344E-02   7.7944E-04  0.0283
   1.3344E-02   1.3669E-02   7.2202E-04  0.0290
   1.3669E-02   1.4001E-02   7.2876E-04  0.0285
   1.4001E-02   1.4342E-02   7.6680E-04  0.0275
   1.4342E-02   1.4691E-02   7.1303E-04  0.0282
   1.4691E-02   1.5048E-02   7.0407E-04  0.0280
   1.5048E-02   1.5414E-02   6.8283E-04  0.0281
   1.5414E-02   1.5789E-02   6.8789E-04  0.0277
   1.5789E-02   1.6174E-02   6.6966E-04  0.0277
   1.6174E-02   1.6567E-02   6.4193E-04  0.0280
   1.6567E-02   1.6970E-02   6.4295E-04  0.0276
   1.6970E-02   1.7383E-02   6.1985E-04  0.0278
   1.7383E-02   1.7806E-02   5.9528E-04  0.0280
   1.7806E-02   1.8239E-02   5.8552E-04  0.0279
   1.8239E-02   1.8683E-02   5.9890E-04  0.0272
   1.8683E-02   1.9138E-02   5.5893E-04  0.0278
   1.9138E-02   1.9603E-02   5.5618E-04  0.0276
   1.9603E-02   2.0080E-02   5.4084E-04  0.0276
   2.0080E-02   2.0569E-02   5.4385E-04  0.0272
   2.0569E-02   2.1069E-02   5.3494E-04  0.0271
   2.1069E-02   2.1582E-02   5.0143E-04  0.0277
   2.1582E-02   2.2107E-02   5.1131E-04  0.0271
   2.2107E-02   2.2645E-02   4.8366E-04  0.0275
   2.2645E-02   2.3196E-02   5.1349E-04  0.0264
   2.3196E-02   2.3760E-02   4.6367E-04  0.0274
   2.3760E-02   2.4338E-02   4.5765E-04  0.0273
   2.4338E-02   2.4930E-02   4.6126E-04  0.0268
   2.4930E-02   2.5537E-02   4.3404E-04  0.0274
   2.5537E-02   2.6158E-02   4.3052E-04  0.0271
   2.6158E-02   2.6795E-02   4.2051E-04  0.0271
   2.6795E-02   2.7447E-02   4.3770E-04  0.0263
   2.7447E-02   2.8114E-02   4.0807E-04  0.0269
   2.8114E-02   2.8799E-02   4.0596E-04  0.0266
   2.8799E-02   2.9499E-02   4.0083E-04  0.0265
   2.9499E-02   3.0217E-02   3.9105E-04  0.0265
   3.0217E-02   3.0952E-02   3.7306E-04  0.0268
   3.0952E-02   3.1705E-02   3.7017E-04  0.0266
   3.1705E-02   3.2477E-02   3.6570E-04  0.0264
   3.2477E-02   3.3267E-02   3.4015E-04  0.0270
   3.3267E-02   3.4076E-02   3.4729E-04  0.0265
   3.4076E-02   3.4905E-02   3.3447E-04  0.0267
   3.4905E-02   3.5755E-02   3.4217E-04  0.0260
   3.5755E-02   3.6625E-02   3.4799E-04  0.0255
   3.6625E-02   3.7516E-02   3.2687E-04  0.0260
   3.7516E-02   3.8428E-02   2.9565E-04  0.0270
   3.8428E-02   3.9363E-02   3.1032E-04  0.0261
   3.9363E-02   4.0321E-02   2.8344E-04  0.0269
   4.0321E-02   4.1302E-02   2.9718E-04  0.0260
   4.1302E-02   4.2307E-02   2.8667E-04  0.0262
   4.2307E-02   4.3337E-02   2.7282E-04  0.0265
   4.3337E-02   4.4391E-02   2.5406E-04  0.0271
   4.4391E-02   4.5471E-02   2.6762E-04  0.0261
   4.5471E-02   4.6577E-02   2.5864E-04  0.0262
   4.6577E-02   4.7711E-02   2.4867E-04  0.0265
   4.7711E-02   4.8871E-02   2.6867E-04  0.0252
   4.8871E-02   5.0061E-02   2.5591E-04  0.0255
   5.0061E-02   5.1279E-02   2.4584E-04  0.0257
   5.1279E-02   5.2526E-02   2.3913E-04  0.0257
   5.2526E-02   5.3804E-02   2.2945E-04  0.0260
   5.3804E-02   5.5113E-02   2.2571E-04  0.0258
   5.5113E-02   5.6454E-02   2.3205E-04  0.0252
   5.6454E-02   5.7828E-02   2.2280E-04  0.0254
   5.7828E-02   5.9235E-02   2.1846E-04  0.0253
   5.9235E-02   6.0676E-02   2.1819E-04  0.0251
   6.0676E-02   6.2152E-02   2.0858E-04  0.0253
   6.2152E-02   6.3665E-02   2.0122E-04  0.0255
   6.3665E-02   6.5214E-02   2.0460E-04  0.0250
   6.5214E-02   6.6800E-02   2.0183E-04  0.0248
   6.6800E-02   6.8426E-02   1.9169E-04  0.0252
   6.8426E-02   7.0090E-02   1.8620E-04  0.0252
   7.0090E-02   7.1796E-02   1.9014E-04  0.0246
   7.1796E-02   7.3543E-02   1.7940E-04  0.0251
   7.3543E-02   7.5332E-02   1.8611E-04  0.0243
   7.5332E-02   7.7165E-02   1.7511E-04  0.0248
   7.7165E-02   7.9042E-02   1.6407E-04  0.0253
   7.9042E-02   8.0965E-02   1.6772E-04  0.0247
   8.0965E-02   8.2935E-02   1.6670E-04  0.0245
   8.2935E-02   8.4953E-02   1.6325E-04  0.0245
   8.4953E-02   8.7020E-02   1.5704E-04  0.0246
   8.7020E-02   8.9138E-02   1.4954E-04  0.0249
   8.9138E-02   9.1306E-02   1.4754E-04  0.0248
   9.1306E-02   9.3528E-02   1.5164E-04  0.0242
   9.3528E-02   9.5804E-02   1.4144E-04  0.0247
   9.5804E-02   9.8134E-02   1.4501E-04  0.0242
   9.8134E-02   1.0052E-01   1.3597E-04  0.0246
   1.0052E-01   1.0297E-01   1.2987E-04  0.0249
   1.0297E-01   1.0547E-01   1.3029E-04  0.0246
   1.0547E-01   1.0804E-01   1.3184E-04  0.0241
   1.0804E-01   1.1067E-01   1.2265E-04  0.0247
   1.1067E-01   1.1336E-01   1.2723E-04  0.0240
   1.1336E-01   1.1612E-01   1.2310E-04  0.0241
   1.1612E-01   1.1894E-01   1.1730E-04  0.0244
   1.1894E-01   1.2184E-01   1.1306E-04  0.0245
   1.2184E-01   1.2480E-01   1.1232E-04  0.0243
   1.2480E-01   1.2784E-01   1.1429E-04  0.0238
   1.2784E-01   1.3095E-01   1.1246E-04  0.0238
   1.3095E-01   1.3414E-01   1.0305E-04  0.0245
   1.3414E-01   1.3740E-01   1.0758E-04  0.0237
   1.3740E-01   1.4074E-01   1.0419E-04  0.0238
   1.4074E-01   1.4417E-01   9.9393E-05  0.0241
   1.4417E-01   1.4767E-01   1.0224E-04  0.0235
   1.4767E-01   1.5127E-01   9.7093E-05  0.0238
   1.5127E-01   1.5495E-01   9.3380E-05  0.0239
   1.5495E-01   1.5872E-01   9.2860E-05  0.0237
   1.5872E-01   1.6258E-01   9.1355E-05  0.0237
   1.6258E-01   1.6654E-01   8.8059E-05  0.0238
   1.6654E-01   1.7059E-01   8.3914E-05  0.0241
   1.7059E-01   1.7474E-01   8.6349E-05  0.0234
   1.7474E-01   1.7899E-01   8.0385E-05  0.0240
   1.7899E-01   1.8334E-01   7.9171E-05  0.0239
   1.8334E-01   1.8781E-01   7.9169E-05  0.0236
   1.8781E-01   1.9237E-01   8.0022E-05  0.0232
   1.9237E-01   1.9706E-01   7.8475E-05  0.0232
   1.9706E-01   2.0185E-01   7.6122E-05  0.0232
   2.0185E-01   2.0676E-01   7.7674E-05  0.0227
   2.0676E-01   2.1179E-01   7.8872E-05  0.0223
   2.1179E-01   2.1694E-01   8.3367E-05  0.0214
   2.1694E-01   2.2222E-01   8.7052E-05  0.0207
   2.2222E-01   2.2763E-01   8.9136E-05  0.0202
   2.2763E-01   2.3317E-01   9.0224E-05  0.0199
   2.3317E-01   2.3884E-01   9.3106E-05  0.0193
   2.3884E-01   2.4465E-01   9.8480E-05  0.0186
   2.4465E-01   2.5061E-01   1.0310E-04  0.0179
   2.5061E-01   2.5670E-01   1.0393E-04  0.0176
   2.5670E-01   2.6295E-01   1.0952E-04  0.0170
   2.6295E-01   2.6935E-01   1.1244E-04  0.0165
   2.6935E-01   2.7590E-01   1.1477E-04  0.0162
   2.7590E-01   2.8261E-01   1.2196E-04  0.0155
   2.8261E-01   2.8949E-01   1.1980E-04  0.0155
   2.8949E-01   2.9653E-01   1.2519E-04  0.0149
   2.9653E-01   3.0375E-01   1.2799E-04  0.0146
   3.0375E-01   3.1114E-01   1.3563E-04  0.0140
   3.1114E-01   3.1871E-01   1.3657E-04  0.0138
   3.1871E-01   3.2646E-01   1.4171E-04  0.0134
   3.2646E-01   3.3441E-01   1.4418E-04  0.0131
   3.3441E-01   3.4254E-01   1.5009E-04  0.0127
   3.4254E-01   3.5088E-01   1.5275E-04  0.0124
   3.5088E-01   3.5941E-01   1.5407E-04  0.0122
   3.5941E-01   3.6816E-01   1.5944E-04  0.0119
   3.6816E-01   3.7712E-01   1.7273E-04  0.0113
   3.7712E-01   3.8629E-01   1.7377E-04  0.0111
   3.8629E-01   3.9569E-01   1.7639E-04  0.0109
   3.9569E-01   4.0532E-01   1.7809E-04  0.0107
   4.0532E-01   4.1518E-01   1.8452E-04  0.0104
   4.1518E-01   4.2528E-01   1.8918E-04  0.0101
   4.2528E-01   4.3563E-01   1.9195E-04  0.0100
   4.3563E-01   4.4623E-01   1.9534E-04  0.0098
   4.4623E-01   4.5708E-01   2.0417E-04  0.0094
   4.5708E-01   4.6821E-01   2.0458E-04  0.0093
   4.6821E-01   4.7960E-01   2.1153E-04  0.0090
   4.7960E-01   4.9127E-01   2.1509E-04  0.0089
   4.9127E-01   5.0322E-01   2.1926E-04  0.0087
   5.0322E-01   5.1546E-01   2.2561E-04  0.0084
   5.1546E-01   5.2800E-01   2.2988E-04  0.0083
   5.2800E-01   5.4085E-01   2.3344E-04  0.0081
   5.4085E-01   5.5401E-01   2.3682E-04  0.0079
   5.5401E-01   5.6749E-01   2.3890E-04  0.0078
   5.6749E-01   5.8130E-01   2.4784E-04  0.0076
   5.8130E-01   5.9544E-01   2.4778E-04  0.0075
   5.9544E-01   6.0993E-01   2.5310E-04  0.0073
   6.0993E-01   6.2477E-01   2.5546E-04  0.0072
   6.2477E-01   6.3997E-01   2.6100E-04  0.0070
   6.3997E-01   6.5554E-01   2.6378E-04  0.0069
   6.5554E-01   6.7149E-01   2.6551E-04  0.0068
   6.7149E-01   6.8783E-01   2.6883E-04  0.0067
   6.8783E-01   7.0456E-01   2.7219E-04  0.0066
   7.0456E-01   7.2171E-01   2.7894E-04  0.0064
   7.2171E-01   7.3927E-01   2.7693E-04  0.0064
   7.3927E-01   7.5725E-01   2.8484E-04  0.0062
   7.5725E-01   7.7568E-01   2.8690E-04  0.0061
   7.7568E-01   7.9455E-01   2.8891E-04  0.0060
   7.9455E-01   8.1388E-01   2.9173E-04  0.0059
   8.1388E-01   8.3368E-01   2.9478E-04  0.0058
   8.3368E-01   8.5397E-01   2.9802E-04  0.0057
   8.5397E-01   8.7475E-01   3.0025E-04  0.0056
   8.7475E-01   8.9603E-01   3.0310E-04  0.0055
   8.9603E-01   9.1783E-01   3.0650E-04  0.0054
   9.1783E-01   9.4016E-01   3.0396E-04  0.0054
   9.4016E-01   9.6304E-01   3.1394E-04  0.0052
   9.6304E-01   9.8647E-01   3.1374E-04  0.0052
   9.8647E-01   1.0105E+00   3.1659E-04  0.0051
   1.0105E+00   1.0351E+00   3.1159E-04  0.0051
   1.0351E+00   1.0602E+00   3.1450E-04  0.0050
   1.0602E+00   1.0860E+00   3.1234E-04  0.0049
   1.0860E+00   1.1125E+00   3.1230E-04  0.0049
   1.1125E+00   1.1395E+00   3.1156E-04  0.0048
   1.1395E+00   1.1673E+00   3.1343E-04  0.0048
   1.1673E+00   1.1957E+00   3.1861E-04  0.0047
   1.1957E+00   1.2247E+00   3.1914E-04  0.0046
   1.2247E+00   1.2545E+00   3.1420E-04  0.0046
   1.2545E+00   1.2851E+00   3.1434E-04  0.0045
   1.2851E+00   1.3163E+00   3.1678E-04  0.0044
   1.3163E+00   1.3484E+00   3.1729E-04  0.0044
   1.3484E+00   1.3812E+00   3.1719E-04  0.0043
   1.3812E+00   1.4148E+00   3.2235E-04  0.0043
   1.4148E+00   1.4492E+00   3.1976E-04  0.0042
   1.4492E+00   1.4845E+00   3.2132E-04  0.0042
   1.4845E+00   1.5206E+00   3.2294E-04  0.0041
   1.5206E+00   1.5576E+00   3.1783E-04  0.0041
   1.5576E+00   1.5955E+00   3.1710E-04  0.0040
   1.5955E+00   1.6343E+00   3.1523E-04  0.0040
   1.6343E+00   1.6741E+00   3.1162E-04  0.0040
   1.6741E+00   1.7148E+00   3.1000E-04  0.0039
   1.7148E+00   1.7565E+00   3.0804E-04  0.0039
   1.7565E+00   1.7992E+00   3.0744E-04  0.0039
   1.7992E+00   1.8430E+00   3.0799E-04  0.0038
   1.8430E+00   1.8879E+00   3.0562E-04  0.0038
   1.8879E+00   1.9338E+00   3.0286E-04  0.0038
   1.9338E+00   1.9808E+00   3.0475E-04  0.0037
   1.9808E+00   2.0290E+00   3.0464E-04  0.0037
   2.0290E+00   2.0784E+00   3.0074E-04  0.0036
   2.0784E+00   2.1290E+00   2.9688E-04  0.0036
   2.1290E+00   2.1808E+00   2.9364E-04  0.0036
   2.1808E+00   2.2338E+00   2.9269E-04  0.0036
   2.2338E+00   2.2882E+00   2.8509E-04  0.0036
   2.2882E+00   2.3439E+00   2.8453E-04  0.0035
   2.3439E+00   2.4009E+00   2.8412E-04  0.0035
   2.4009E+00   2.4593E+00   2.8211E-04  0.0035
   2.4593E+00   2.5191E+00   2.8181E-04  0.0034
   2.5191E+00   2.5804E+00   2.7967E-04  0.0034
   2.5804E+00   2.6432E+00   2.7572E-04  0.0034
   2.6432E+00   2.7075E+00   2.7181E-04  0.0034
   2.7075E+00   2.7734E+00   2.6932E-04  0.0033
   2.7734E+00   2.8409E+00   2.6555E-04  0.0033
   2.8409E+00   2.9100E+00   2.6092E-04  0.0033
   2.9100E+00   2.9808E+00   2.6000E-04  0.0033
   2.9808E+00   3.0533E+00   2.5731E-04  0.0032
   3.0533E+00   3.1276E+00   2.5348E-04  0.0032
   3.1276E+00   3.2037E+00   2.5141E-04  0.0032
   3.2037E+00   3.2817E+00   2.4597E-04  0.0032
   3.2817E+00   3.3615E+00   2.4253E-04  0.0032
   3.3615E+00   3.4433E+00   2.3897E-04  0.0032
   3.4433E+00   3.5271E+00   2.3756E-04  0.0031
   3.5271E+00   3.6129E+00   2.3463E-04  0.0031
   3.6129E+00   3.7008E+00   2.2934E-04  0.0031
   3.7008E+00   3.7908E+00   2.2533E-04  0.0031
   3.7908E+00   3.8831E+00   2.2291E-04  0.0031
   3.8831E+00   3.9776E+00   2.2004E-04  0.0031
   3.9776E+00   4.0743E+00   2.1548E-04  0.0031
   4.0743E+00   4.1735E+00   2.1252E-04  0.0031
   4.1735E+00   4.2750E+00   2.0893E-04  0.0030
   4.2750E+00   4.3790E+00   2.0595E-04  0.0030
   4.3790E+00   4.4856E+00   2.0132E-04  0.0030
   4.4856E+00   4.5947E+00   1.9910E-04  0.0030
   4.5947E+00   4.7065E+00   1.9524E-04  0.0030
   4.7065E+00   4.8210E+00   1.9362E-04  0.0030
   4.8210E+00   4.9383E+00   1.8976E-04  0.0030
   4.9383E+00   5.0585E+00   1.8856E-04  0.0030
   5.0585E+00   5.1815E+00   1.8795E-04  0.0029
   5.1815E+00   5.3076E+00   1.8688E-04  0.0029
   5.3076E+00   5.4368E+00   1.8245E-04  0.0029
   5.4368E+00   5.5690E+00   1.7872E-04  0.0029
   5.5690E+00   5.7045E+00   1.7358E-04  0.0029
   5.7045E+00   5.8433E+00   1.7104E-04  0.0029
   5.8433E+00   5.9855E+00   1.6653E-04  0.0029
   5.9855E+00   6.1311E+00   1.6362E-04  0.0029
   6.1311E+00   6.2803E+00   1.5913E-04  0.0029
   6.2803E+00   6.4331E+00   1.5603E-04  0.0029
   6.4331E+00   6.5896E+00   1.5200E-04  0.0029
   6.5896E+00   6.7500E+00   1.4937E-04  0.0029
   6.7500E+00   6.9142E+00   1.4475E-04  0.0029
   6.9142E+00   7.0824E+00   1.4225E-04  0.0029
   7.0824E+00   7.2548E+00   1.3811E-04  0.0029
   7.2548E+00   7.4313E+00   1.3512E-04  0.0029
   7.4313E+00   7.6121E+00   1.3190E-04  0.0029
   7.6121E+00   7.7973E+00   1.2897E-04  0.0029
   7.7973E+00   7.9870E+00   1.2701E-04  0.0029
   7.9870E+00   8.1813E+00   1.2443E-04  0.0029
   8.1813E+00   8.3804E+00   1.2195E-04  0.0029
   8.3804E+00   8.5843E+00   1.1933E-04  0.0029
   8.5843E+00   8.7931E+00   1.1589E-04  0.0029
   8.7931E+00   9.0071E+00   1.1380E-04  0.0029
   9.0071E+00   9.2262E+00   1.1109E-04  0.0029
   9.2262E+00   9.4507E+00   1.0977E-04  0.0028
   9.4507E+00   9.6807E+00   1.0770E-04  0.0028
   9.6807E+00   9.9162E+00   1.0473E-04  0.0028
   9.9162E+00   1.0157E+01   1.0385E-04  0.0028
   1.0157E+01   1.0405E+01   1.0092E-04  0.0028
   1.0405E+01   1.0658E+01   9.9449E-05  0.0028
   1.0658E+01   1.0917E+01   9.7494E-05  0.0028
   1.0917E+01   1.1183E+01   9.5595E-05  0.0028
   1.1183E+01   1.1455E+01   9.3932E-05  0.0028
   1.1455E+01   1.1733E+01   9.2780E-05  0.0028
   1.1733E+01   1.2019E+01   9.1220E-05  0.0028
   1.2019E+01   1.2311E+01   8.9714E-05  0.0028
   1.2311E+01   1.2611E+01   8.7967E-05  0.0028
   1.2611E+01   1.2918E+01   8.6662E-05  0.0027
   1.2918E+01   1.3232E+01   8.5240E-05  0.0027
   1.3232E+01   1.3554E+01   8.4285E-05  0.0027
   1.3554E+01   1.3884E+01   8.3367E-05  0.0027
   1.3884E+01   1.4222E+01   8.2006E-05  0.0027
   1.4222E+01   1.4568E+01   8.1182E-05  0.0027
   1.4568E+01   1.4922E+01   8.0273E-05  0.0027
   1.4922E+01   1.5285E+01   7.9065E-05  0.0026
   1.5285E+01   1.5657E+01   7.7839E-05  0.0026
   1.5657E+01   1.6038E+01   7.6875E-05  0.0026
   1.6038E+01   1.6428E+01   7.6364E-05  0.0026
   1.6428E+01   1.6828E+01   7.5511E-05  0.0026
   1.6828E+01   1.7237E+01   7.4663E-05  0.0026
   1.7237E+01   1.7657E+01   7.4148E-05  0.0025
   1.7657E+01   1.8086E+01   7.3138E-05  0.0025
   1.8086E+01   1.8526E+01   7.2496E-05  0.0025
   1.8526E+01   1.8977E+01   7.2066E-05  0.0025
   1.8977E+01   1.9439E+01   7.2702E-05  0.0024
   1.9439E+01   1.9912E+01   7.4534E-05  0.0024
   1.9912E+01   2.0396E+01   7.5749E-05  0.0023
   2.0396E+01   2.0893E+01   7.5644E-05  0.0023
   2.0893E+01   2.1401E+01   7.5768E-05  0.0023
   2.1401E+01   2.1922E+01   7.5286E-05  0.0023
   2.1922E+01   2.2455E+01   7.4952E-05  0.0022
   2.2455E+01   2.3001E+01   7.4851E-05  0.0022
   2.3001E+01   2.3561E+01   7.4601E-05  0.0022
   2.3561E+01   2.4134E+01   7.4506E-05  0.0022
   2.4134E+01   2.4721E+01   7.4627E-05  0.0021
   2.4721E+01   2.5323E+01   7.4622E-05  0.0021
   2.5323E+01   2.5939E+01   7.4686E-05  0.0021
   2.5939E+01   2.6570E+01   7.5368E-05  0.0021
   2.6570E+01   2.7217E+01   7.5690E-05  0.0020
   2.7217E+01   2.7879E+01   7.6136E-05  0.0020
   2.7879E+01   2.8557E+01   7.6405E-05  0.0020
   2.8557E+01   2.9252E+01   7.7075E-05  0.0019
   2.9252E+01   2.9964E+01   7.7632E-05  0.0019
   2.9964E+01   3.0693E+01   7.8314E-05  0.0019
   3.0693E+01   3.1440E+01   7.9532E-05  0.0018
   3.1440E+01   3.2205E+01   8.0972E-05  0.0018
   3.2205E+01   3.2988E+01   8.1933E-05  0.0018
   3.2988E+01   3.3791E+01   8.3328E-05  0.0017
   3.3791E+01   3.4613E+01   8.4777E-05  0.0017
   3.4613E+01   3.5455E+01   8.6509E-05  0.0017
   3.5455E+01   3.6318E+01   8.8738E-05  0.0016
   3.6318E+01   3.7201E+01   9.1115E-05  0.0016
   3.7201E+01   3.8106E+01   9.3427E-05  0.0015
   3.8106E+01   3.9034E+01   9.6090E-05  0.0015
   3.9034E+01   3.9983E+01   9.9273E-05  0.0015
   3.9983E+01   4.0956E+01   1.0256E-04  0.0014
   4.0956E+01   4.1953E+01   1.0630E-04  0.0014
   4.1953E+01   4.2973E+01   1.1002E-04  0.0013
   4.2973E+01   4.4019E+01   1.1479E-04  0.0013
   4.4019E+01   4.5090E+01   1.1886E-04  0.0013
   4.5090E+01   4.6187E+01   1.2446E-04  0.0012
   4.6187E+01   4.7311E+01   1.2985E-04  0.0012
   4.7311E+01   4.8462E+01   1.3569E-04  0.0011
   4.8462E+01   4.9641E+01   1.4212E-04  0.0011
   4.9641E+01   5.0849E+01   1.4832E-04  0.0011
   5.0849E+01   5.2086E+01   1.5524E-04  0.0010
   5.2086E+01   5.3353E+01   1.6168E-04  0.0010
   5.3353E+01   5.4651E+01   1.6926E-04  0.0010
   5.4651E+01   5.5981E+01   1.7636E-04  0.0009
   5.5981E+01   5.7343E+01   1.8370E-04  0.0009
   5.7343E+01   5.8738E+01   1.9081E-04  0.0009
   5.8738E+01   6.0168E+01   1.9771E-04  0.0008
   6.0168E+01   6.1632E+01   2.0447E-04  0.0008
   6.1632E+01   6.3131E+01   2.1015E-04  0.0008
   6.3131E+01   6.4667E+01   2.1561E-04  0.0008
   6.4667E+01   6.6240E+01   2.1960E-04  0.0008
   6.6240E+01   6.7852E+01   2.2329E-04  0.0007
   6.7852E+01   6.9503E+01   2.2506E-04  0.0007
   6.9503E+01   7.1194E+01   2.2620E-04  0.0007
   7.1194E+01   7.2926E+01   2.2517E-04  0.0007
   7.2926E+01   7.4701E+01   2.2306E-04  0.0007
   7.4701E+01   7.6518E+01   2.1957E-04  0.0007
   7.6518E+01   7.8380E+01   2.1403E-04  0.0007
   7.8380E+01   8.0287E+01   2.0773E-04  0.0007
   8.0287E+01   8.2240E+01   1.9998E-04  0.0007
   8.2240E+01   8.4241E+01   1.9117E-04  0.0007
   8.4241E+01   8.6291E+01   1.8142E-04  0.0007
   8.6291E+01   8.8391E+01   1.7072E-04  0.0007
   8.8391E+01   9.0541E+01   1.5975E-04  0.0008
   9.0541E+01   9.2744E+01   1.4861E-04  0.0008
   9.2744E+01   9.5001E+01   1.3730E-04  0.0008
   9.5001E+01   9.7312E+01   1.2634E-04  0.0008
   9.7312E+01   9.9680E+01   1.1555E-04  0.0009
   9.9680E+01   1.0211E+02   1.0508E-04  0.0009
   1.0211E+02   1.0459E+02   9.5064E-05  0.0009
   1.0459E+02   1.0713E+02   8.5760E-05  0.0010
   1.0713E+02   1.0974E+02   7.7147E-05  0.0010
   1.0974E+02   1.1241E+02   6.8607E-05  0.0010
   1.1241E+02   1.1515E+02   6.0743E-05  0.0011
   1.1515E+02   1.1795E+02   5.3604E-05  0.0012
   1.1795E+02   1.2082E+02   4.6945E-05  0.0012
   1.2082E+02   1.2376E+02   4.0519E-05  0.0013
   1.2376E+02   1.2677E+02   3.5756E-05  0.0014
   1.2677E+02   1.2985E+02   3.2160E-05  0.0014
   1.2985E+02   1.3301E+02   2.7927E-05  0.0015
   1.3301E+02   1.3625E+02   2.3389E-05  0.0016
   1.3625E+02   1.3956E+02   1.9283E-05  0.0018
   1.3956E+02   1.4296E+02   1.5605E-05  0.0019
   1.4296E+02   1.4644E+02   1.2565E-05  0.0021
   1.4644E+02   1.5000E+02   9.8983E-06  0.0024

#   sum over                 1.1372E-04
'no. =    1   reg = 105 - 205'
msuc: {\huge [t-cross] in region mesh}
msdr: {\it plotted by \ANGEL \version}
msdl: {\it calculated by \PHITS  3.28}
wt: s(0.7)
\vspace{-3}
  region surface crossing
  area  &=&   1.0000E+00 [cm^2]
e:
 
# Information for Restart Calculation
# This calculation was newly started
# istdev =  2 # 1:Batch variance, 2:History variance
# resc2  = 5.00000000000000000E+09 # Total source weight or Total source weight / maxcas
# resc3  = 5.00000000000000000E+09 # Total history number or Total batch number
# maxcas =   500000000 # History / Batch, only used for istdev=1
# bitrseed = 0110100000100010111000001110001111001110100100011111101000111001 # bit data of rseed
