[ T-Cross ]
    title = [t-cross] in region mesh
     mesh =  reg            # mesh type is region-wise
      reg =    1            # number of crossing regions
      non     r-from    r-to       area
      1       109       209        1.000000    
   e-type =    3            # e-mesh is log given by emin, emax and ne
     emin =  1.0000000E-02  # minimum value of e-mesh points
     emax =   150.0000      # maximum value of e-mesh points
#    edel =  2.4039514E-02  # mesh width of e-mesh points
       ne =    400          # number of e-mesh points
#    data = ( e(i), i = 1, ne + 1 )
#           1.00000E-02  1.02433E-02  1.04925E-02  1.07478E-02  1.10093E-02
#           1.12772E-02  1.15516E-02  1.18326E-02  1.21205E-02  1.24154E-02
#           1.27175E-02  1.30269E-02  1.33439E-02  1.36686E-02  1.40011E-02
#           1.43418E-02  1.46907E-02  1.50482E-02  1.54143E-02  1.57894E-02
#           1.61735E-02  1.65670E-02  1.69701E-02  1.73830E-02  1.78060E-02
#           1.82392E-02  1.86830E-02  1.91375E-02  1.96032E-02  2.00801E-02
#           2.05687E-02  2.10692E-02  2.15818E-02  2.21069E-02  2.26448E-02
#           2.31957E-02  2.37601E-02  2.43382E-02  2.49304E-02  2.55369E-02
#           2.61583E-02  2.67947E-02  2.74467E-02  2.81145E-02  2.87985E-02
#           2.94992E-02  3.02169E-02  3.09521E-02  3.17052E-02  3.24766E-02
#           3.32668E-02  3.40762E-02  3.49053E-02  3.57546E-02  3.66246E-02
#           3.75157E-02  3.84284E-02  3.93634E-02  4.03212E-02  4.13022E-02
#           4.23071E-02  4.33365E-02  4.43909E-02  4.54710E-02  4.65773E-02
#           4.77106E-02  4.88714E-02  5.00605E-02  5.12785E-02  5.25262E-02
#           5.38042E-02  5.51133E-02  5.64542E-02  5.78278E-02  5.92348E-02
#           6.06760E-02  6.21523E-02  6.36645E-02  6.52135E-02  6.68002E-02
#           6.84255E-02  7.00904E-02  7.17957E-02  7.35426E-02  7.53319E-02
#           7.71648E-02  7.90423E-02  8.09655E-02  8.29354E-02  8.49533E-02
#           8.70203E-02  8.91376E-02  9.13064E-02  9.35279E-02  9.58035E-02
#           9.81345E-02  1.00522E-01  1.02968E-01  1.05473E-01  1.08040E-01
#           1.10668E-01  1.13361E-01  1.16119E-01  1.18944E-01  1.21838E-01
#           1.24803E-01  1.27839E-01  1.30950E-01  1.34136E-01  1.37399E-01
#           1.40742E-01  1.44167E-01  1.47675E-01  1.51268E-01  1.54948E-01
#           1.58718E-01  1.62580E-01  1.66535E-01  1.70587E-01  1.74738E-01
#           1.78989E-01  1.83344E-01  1.87805E-01  1.92375E-01  1.97055E-01
#           2.01850E-01  2.06761E-01  2.11792E-01  2.16945E-01  2.22223E-01
#           2.27630E-01  2.33169E-01  2.38842E-01  2.44653E-01  2.50605E-01
#           2.56703E-01  2.62949E-01  2.69346E-01  2.75900E-01  2.82613E-01
#           2.89489E-01  2.96532E-01  3.03747E-01  3.11138E-01  3.18708E-01
#           3.26462E-01  3.34405E-01  3.42542E-01  3.50876E-01  3.59413E-01
#           3.68158E-01  3.77116E-01  3.86291E-01  3.95690E-01  4.05317E-01
#           4.15179E-01  4.25281E-01  4.35628E-01  4.46227E-01  4.57084E-01
#           4.68205E-01  4.79597E-01  4.91266E-01  5.03219E-01  5.15463E-01
#           5.28005E-01  5.40851E-01  5.54011E-01  5.67490E-01  5.81298E-01
#           5.95441E-01  6.09929E-01  6.24769E-01  6.39970E-01  6.55541E-01
#           6.71491E-01  6.87828E-01  7.04564E-01  7.21706E-01  7.39266E-01
#           7.57253E-01  7.75678E-01  7.94551E-01  8.13883E-01  8.33685E-01
#           8.53969E-01  8.74747E-01  8.96030E-01  9.17831E-01  9.40163E-01
#           9.63038E-01  9.86469E-01  1.01047E+00  1.03506E+00  1.06024E+00
#           1.08604E+00  1.11246E+00  1.13953E+00  1.16725E+00  1.19565E+00
#           1.22474E+00  1.25454E+00  1.28507E+00  1.31633E+00  1.34836E+00
#           1.38117E+00  1.41477E+00  1.44920E+00  1.48446E+00  1.52057E+00
#           1.55757E+00  1.59547E+00  1.63429E+00  1.67405E+00  1.71478E+00
#           1.75650E+00  1.79924E+00  1.84302E+00  1.88786E+00  1.93379E+00
#           1.98084E+00  2.02904E+00  2.07841E+00  2.12898E+00  2.18078E+00
#           2.23384E+00  2.28819E+00  2.34386E+00  2.40089E+00  2.45930E+00
#           2.51914E+00  2.58043E+00  2.64322E+00  2.70753E+00  2.77341E+00
#           2.84088E+00  2.91001E+00  2.98081E+00  3.05333E+00  3.12762E+00
#           3.20372E+00  3.28167E+00  3.36152E+00  3.44330E+00  3.52708E+00
#           3.61290E+00  3.70080E+00  3.79085E+00  3.88308E+00  3.97756E+00
#           4.07434E+00  4.17347E+00  4.27501E+00  4.37903E+00  4.48557E+00
#           4.59471E+00  4.70650E+00  4.82102E+00  4.93832E+00  5.05847E+00
#           5.18155E+00  5.30762E+00  5.43676E+00  5.56904E+00  5.70453E+00
#           5.84333E+00  5.98550E+00  6.13114E+00  6.28031E+00  6.43312E+00
#           6.58964E+00  6.74997E+00  6.91420E+00  7.08243E+00  7.25475E+00
#           7.43126E+00  7.61207E+00  7.79728E+00  7.98700E+00  8.18133E+00
#           8.38038E+00  8.58428E+00  8.79315E+00  9.00709E+00  9.22624E+00
#           9.45072E+00  9.68067E+00  9.91620E+00  1.01575E+01  1.04046E+01
#           1.06578E+01  1.09171E+01  1.11827E+01  1.14548E+01  1.17335E+01
#           1.20190E+01  1.23114E+01  1.26109E+01  1.29178E+01  1.32321E+01
#           1.35540E+01  1.38838E+01  1.42216E+01  1.45676E+01  1.49221E+01
#           1.52851E+01  1.56570E+01  1.60380E+01  1.64282E+01  1.68279E+01
#           1.72374E+01  1.76568E+01  1.80864E+01  1.85264E+01  1.89772E+01
#           1.94389E+01  1.99119E+01  2.03963E+01  2.08926E+01  2.14009E+01
#           2.19216E+01  2.24550E+01  2.30014E+01  2.35610E+01  2.41343E+01
#           2.47215E+01  2.53230E+01  2.59391E+01  2.65702E+01  2.72167E+01
#           2.78789E+01  2.85572E+01  2.92520E+01  2.99637E+01  3.06928E+01
#           3.14396E+01  3.22045E+01  3.29881E+01  3.37907E+01  3.46128E+01
#           3.54550E+01  3.63177E+01  3.72013E+01  3.81064E+01  3.90336E+01
#           3.99833E+01  4.09561E+01  4.19526E+01  4.29734E+01  4.40189E+01
#           4.50900E+01  4.61870E+01  4.73108E+01  4.84619E+01  4.96410E+01
#           5.08488E+01  5.20860E+01  5.33533E+01  5.46514E+01  5.59812E+01
#           5.73432E+01  5.87384E+01  6.01676E+01  6.16315E+01  6.31311E+01
#           6.46671E+01  6.62405E+01  6.78522E+01  6.95031E+01  7.11941E+01
#           7.29263E+01  7.47007E+01  7.65182E+01  7.83800E+01  8.02870E+01
#           8.22405E+01  8.42414E+01  8.62911E+01  8.83906E+01  9.05412E+01
#           9.27442E+01  9.50007E+01  9.73122E+01  9.96799E+01  1.02105E+02
#           1.04589E+02  1.07134E+02  1.09741E+02  1.12411E+02  1.15146E+02
#           1.17948E+02  1.20817E+02  1.23757E+02  1.26768E+02  1.29852E+02
#           1.33012E+02  1.36248E+02  1.39563E+02  1.42959E+02  1.46437E+02
#           1.50000E+02
     unit =    2            # unit is [1/cm^2/(MeV/n)/source]
     axis =  eng            # axis of output
     file = detector-10.out  # file name of output for the above axis
   output = f-curr          # surface crossing forward current spectrum
     part =  neutron  
# kf/name :  2112     
#    used :        main (  %)        temp (  %)       total (  %)
#  memory :         414 (  0)           0 (  0)         414 (  0)

#------------------------------------------------------------------------------
#newpage:
#   no. =    1   reg = 109 - 209

x: Energy [MeV/n]
y:  F-Curr [1/cm^2/(MeV/n)/source]         
p: xlog ylog afac(0.8) form(0.9)
h: n            x            y(neutron ),hh0l   n 
#  e-lower      e-upper      neutron     r.err 
   1.0000E-02   1.0243E-02   3.9292E-04  0.0457
   1.0243E-02   1.0493E-02   4.1167E-04  0.0442
   1.0493E-02   1.0748E-02   3.8113E-04  0.0453
   1.0748E-02   1.1009E-02   3.9311E-04  0.0441
   1.1009E-02   1.1277E-02   3.8751E-04  0.0439
   1.1277E-02   1.1552E-02   4.0090E-04  0.0426
   1.1552E-02   1.1833E-02   4.1557E-04  0.0414
   1.1833E-02   1.2121E-02   3.8972E-04  0.0422
   1.2121E-02   1.2415E-02   4.0827E-04  0.0408
   1.2415E-02   1.2718E-02   3.8997E-04  0.0412
   1.2718E-02   1.3027E-02   3.9105E-04  0.0407
   1.3027E-02   1.3344E-02   3.7545E-04  0.0410
   1.3344E-02   1.3669E-02   4.0472E-04  0.0390
   1.3669E-02   1.4001E-02   4.0954E-04  0.0383
   1.4001E-02   1.4342E-02   3.8484E-04  0.0391
   1.4342E-02   1.4691E-02   4.0465E-04  0.0376
   1.4691E-02   1.5048E-02   3.7489E-04  0.0386
   1.5048E-02   1.5414E-02   4.0149E-04  0.0369
   1.5414E-02   1.5789E-02   4.1702E-04  0.0358
   1.5789E-02   1.6174E-02   3.8004E-04  0.0370
   1.6174E-02   1.6567E-02   3.6542E-04  0.0373
   1.6567E-02   1.6970E-02   3.7262E-04  0.0365
   1.6970E-02   1.7383E-02   3.9671E-04  0.0349
   1.7383E-02   1.7806E-02   3.7074E-04  0.0357
   1.7806E-02   1.8239E-02   4.0625E-04  0.0337
   1.8239E-02   1.8683E-02   3.7136E-04  0.0348
   1.8683E-02   1.9138E-02   3.9994E-04  0.0332
   1.9138E-02   1.9603E-02   3.8528E-04  0.0334
   1.9603E-02   2.0080E-02   3.7110E-04  0.0336
   2.0080E-02   2.0569E-02   3.6269E-04  0.0336
   2.0569E-02   2.1069E-02   3.8905E-04  0.0320
   2.1069E-02   2.1582E-02   3.6498E-04  0.0327
   2.1582E-02   2.2107E-02   3.8659E-04  0.0314
   2.2107E-02   2.2645E-02   3.9823E-04  0.0306
   2.2645E-02   2.3196E-02   3.9894E-04  0.0302
   2.3196E-02   2.3760E-02   3.9513E-04  0.0299
   2.3760E-02   2.4338E-02   4.0270E-04  0.0293
   2.4338E-02   2.4930E-02   3.7523E-04  0.0300
   2.4930E-02   2.5537E-02   3.6071E-04  0.0302
   2.5537E-02   2.6158E-02   3.6277E-04  0.0298
   2.6158E-02   2.6795E-02   3.9343E-04  0.0283
   2.6795E-02   2.7447E-02   3.7013E-04  0.0288
   2.7447E-02   2.8114E-02   3.6508E-04  0.0286
   2.8114E-02   2.8799E-02   3.7644E-04  0.0279
   2.8799E-02   2.9499E-02   3.7649E-04  0.0275
   2.9499E-02   3.0217E-02   3.6894E-04  0.0275
   3.0217E-02   3.0952E-02   3.8194E-04  0.0267
   3.0952E-02   3.1705E-02   3.6954E-04  0.0268
   3.1705E-02   3.2477E-02   3.8449E-04  0.0260
   3.2477E-02   3.3267E-02   3.6409E-04  0.0264
   3.3267E-02   3.4076E-02   3.7249E-04  0.0258
   3.4076E-02   3.4905E-02   3.8246E-04  0.0251
   3.4905E-02   3.5755E-02   3.7444E-04  0.0251
   3.5755E-02   3.6625E-02   3.5761E-04  0.0254
   3.6625E-02   3.7516E-02   3.6674E-04  0.0247
   3.7516E-02   3.8428E-02   3.6613E-04  0.0245
   3.8428E-02   3.9363E-02   3.7198E-04  0.0240
   3.9363E-02   4.0321E-02   3.7171E-04  0.0237
   4.0321E-02   4.1302E-02   3.6797E-04  0.0235
   4.1302E-02   4.2307E-02   3.6899E-04  0.0232
   4.2307E-02   4.3337E-02   3.6547E-04  0.0231
   4.3337E-02   4.4391E-02   3.7405E-04  0.0225
   4.4391E-02   4.5471E-02   3.5961E-04  0.0227
   4.5471E-02   4.6577E-02   3.5369E-04  0.0226
   4.6577E-02   4.7711E-02   3.5102E-04  0.0224
   4.7711E-02   4.8871E-02   3.5724E-04  0.0220
   4.8871E-02   5.0061E-02   3.5086E-04  0.0219
   5.0061E-02   5.1279E-02   3.6075E-04  0.0213
   5.1279E-02   5.2526E-02   3.4705E-04  0.0215
   5.2526E-02   5.3804E-02   3.5383E-04  0.0210
   5.3804E-02   5.5113E-02   3.5765E-04  0.0207
   5.5113E-02   5.6454E-02   3.3954E-04  0.0210
   5.6454E-02   5.7828E-02   3.5469E-04  0.0203
   5.7828E-02   5.9235E-02   3.4613E-04  0.0203
   5.9235E-02   6.0676E-02   3.5130E-04  0.0199
   6.0676E-02   6.2152E-02   3.3801E-04  0.0200
   6.2152E-02   6.3665E-02   3.4737E-04  0.0195
   6.3665E-02   6.5214E-02   3.5584E-04  0.0190
   6.5214E-02   6.6800E-02   3.5281E-04  0.0189
   6.6800E-02   6.8426E-02   3.4061E-04  0.0190
   6.8426E-02   7.0090E-02   3.4442E-04  0.0187
   7.0090E-02   7.1796E-02   3.3694E-04  0.0187
   7.1796E-02   7.3543E-02   3.3432E-04  0.0185
   7.3543E-02   7.5332E-02   3.4499E-04  0.0180
   7.5332E-02   7.7165E-02   3.3210E-04  0.0181
   7.7165E-02   7.9042E-02   3.3849E-04  0.0177
   7.9042E-02   8.0965E-02   3.3143E-04  0.0177
   8.0965E-02   8.2935E-02   3.3595E-04  0.0174
   8.2935E-02   8.4953E-02   3.3193E-04  0.0173
   8.4953E-02   8.7020E-02   3.3058E-04  0.0171
   8.7020E-02   8.9138E-02   3.2532E-04  0.0170
   8.9138E-02   9.1306E-02   3.2894E-04  0.0167
   9.1306E-02   9.3528E-02   3.2608E-04  0.0166
   9.3528E-02   9.5804E-02   3.2418E-04  0.0165
   9.5804E-02   9.8134E-02   3.1884E-04  0.0164
   9.8134E-02   1.0052E-01   3.1734E-04  0.0162
   1.0052E-01   1.0297E-01   3.2137E-04  0.0160
   1.0297E-01   1.0547E-01   3.1386E-04  0.0159
   1.0547E-01   1.0804E-01   3.2016E-04  0.0156
   1.0804E-01   1.1067E-01   3.0209E-04  0.0159
   1.1067E-01   1.1336E-01   3.0620E-04  0.0156
   1.1336E-01   1.1612E-01   3.1213E-04  0.0152
   1.1612E-01   1.1894E-01   3.0617E-04  0.0152
   1.1894E-01   1.2184E-01   3.0214E-04  0.0151
   1.2184E-01   1.2480E-01   3.0694E-04  0.0148
   1.2480E-01   1.2784E-01   3.0018E-04  0.0148
   1.2784E-01   1.3095E-01   2.9092E-04  0.0149
   1.3095E-01   1.3414E-01   2.9782E-04  0.0145
   1.3414E-01   1.3740E-01   2.9654E-04  0.0144
   1.3740E-01   1.4074E-01   2.9748E-04  0.0142
   1.4074E-01   1.4417E-01   2.8718E-04  0.0143
   1.4417E-01   1.4767E-01   2.9310E-04  0.0139
   1.4767E-01   1.5127E-01   2.8970E-04  0.0139
   1.5127E-01   1.5495E-01   2.7977E-04  0.0139
   1.5495E-01   1.5872E-01   2.8570E-04  0.0136
   1.5872E-01   1.6258E-01   2.7954E-04  0.0136
   1.6258E-01   1.6654E-01   2.7889E-04  0.0135
   1.6654E-01   1.7059E-01   2.7296E-04  0.0134
   1.7059E-01   1.7474E-01   2.7336E-04  0.0133
   1.7474E-01   1.7899E-01   2.7421E-04  0.0131
   1.7899E-01   1.8334E-01   2.6228E-04  0.0132
   1.8334E-01   1.8781E-01   2.7138E-04  0.0129
   1.8781E-01   1.9237E-01   2.6537E-04  0.0128
   1.9237E-01   1.9706E-01   2.5973E-04  0.0128
   1.9706E-01   2.0185E-01   2.5779E-04  0.0127
   2.0185E-01   2.0676E-01   2.5080E-04  0.0127
   2.0676E-01   2.1179E-01   2.4790E-04  0.0127
   2.1179E-01   2.1694E-01   2.4983E-04  0.0125
   2.1694E-01   2.2222E-01   2.4663E-04  0.0124
   2.2222E-01   2.2763E-01   2.4095E-04  0.0124
   2.2763E-01   2.3317E-01   2.3870E-04  0.0123
   2.3317E-01   2.3884E-01   2.3898E-04  0.0121
   2.3884E-01   2.4465E-01   2.3525E-04  0.0121
   2.4465E-01   2.5061E-01   2.3153E-04  0.0120
   2.5061E-01   2.5670E-01   2.3052E-04  0.0119
   2.5670E-01   2.6295E-01   2.2911E-04  0.0118
   2.6295E-01   2.6935E-01   2.2710E-04  0.0117
   2.6935E-01   2.7590E-01   2.1978E-04  0.0118
   2.7590E-01   2.8261E-01   2.1901E-04  0.0117
   2.8261E-01   2.8949E-01   2.1157E-04  0.0117
   2.8949E-01   2.9653E-01   2.1215E-04  0.0116
   2.9653E-01   3.0375E-01   2.0476E-04  0.0116
   3.0375E-01   3.1114E-01   2.0578E-04  0.0115
   3.1114E-01   3.1871E-01   1.9902E-04  0.0115
   3.1871E-01   3.2646E-01   1.9711E-04  0.0114
   3.2646E-01   3.3441E-01   1.9521E-04  0.0114
   3.3441E-01   3.4254E-01   1.9398E-04  0.0113
   3.4254E-01   3.5088E-01   1.8841E-04  0.0113
   3.5088E-01   3.5941E-01   1.8066E-04  0.0114
   3.5941E-01   3.6816E-01   1.8407E-04  0.0111
   3.6816E-01   3.7712E-01   1.7972E-04  0.0111
   3.7712E-01   3.8629E-01   1.7366E-04  0.0112
   3.8629E-01   3.9569E-01   1.7291E-04  0.0111
   3.9569E-01   4.0532E-01   1.6748E-04  0.0111
   4.0532E-01   4.1518E-01   1.6552E-04  0.0111
   4.1518E-01   4.2528E-01   1.6167E-04  0.0111
   4.2528E-01   4.3563E-01   1.5857E-04  0.0110
   4.3563E-01   4.4623E-01   1.5163E-04  0.0112
   4.4623E-01   4.5708E-01   1.5041E-04  0.0111
   4.5708E-01   4.6821E-01   1.4473E-04  0.0111
   4.6821E-01   4.7960E-01   1.4126E-04  0.0111
   4.7960E-01   4.9127E-01   1.3964E-04  0.0111
   4.9127E-01   5.0322E-01   1.3578E-04  0.0111
   5.0322E-01   5.1546E-01   1.3346E-04  0.0111
   5.1546E-01   5.2800E-01   1.3006E-04  0.0111
   5.2800E-01   5.4085E-01   1.2644E-04  0.0111
   5.4085E-01   5.5401E-01   1.2207E-04  0.0112
   5.5401E-01   5.6749E-01   1.1866E-04  0.0112
   5.6749E-01   5.8130E-01   1.1183E-04  0.0114
   5.8130E-01   5.9544E-01   1.1019E-04  0.0113
   5.9544E-01   6.0993E-01   1.0700E-04  0.0114
   6.0993E-01   6.2477E-01   1.0280E-04  0.0115
   6.2477E-01   6.3997E-01   9.7526E-05  0.0116
   6.3997E-01   6.5554E-01   9.6616E-05  0.0115
   6.5554E-01   6.7149E-01   9.4396E-05  0.0115
   6.7149E-01   6.8783E-01   8.8690E-05  0.0117
   6.8783E-01   7.0456E-01   8.7455E-05  0.0117
   7.0456E-01   7.2171E-01   8.1446E-05  0.0120
   7.2171E-01   7.3927E-01   7.9722E-05  0.0120
   7.3927E-01   7.5725E-01   7.6961E-05  0.0120
   7.5725E-01   7.7568E-01   7.5524E-05  0.0120
   7.7568E-01   7.9455E-01   7.3063E-05  0.0120
   7.9455E-01   8.1388E-01   7.0189E-05  0.0121
   8.1388E-01   8.3368E-01   6.7770E-05  0.0122
   8.3368E-01   8.5397E-01   6.4104E-05  0.0124
   8.5397E-01   8.7475E-01   6.3082E-05  0.0124
   8.7475E-01   8.9603E-01   6.1880E-05  0.0123
   8.9603E-01   9.1783E-01   5.8924E-05  0.0125
   9.1783E-01   9.4016E-01   5.6946E-05  0.0125
   9.4016E-01   9.6304E-01   5.5305E-05  0.0126
   9.6304E-01   9.8647E-01   5.3496E-05  0.0126
   9.8647E-01   1.0105E+00   5.4913E-05  0.0123
   1.0105E+00   1.0351E+00   5.5386E-05  0.0121
   1.0351E+00   1.0602E+00   5.7227E-05  0.0118
   1.0602E+00   1.0860E+00   5.7771E-05  0.0116
   1.0860E+00   1.1125E+00   5.9729E-05  0.0113
   1.1125E+00   1.1395E+00   6.3247E-05  0.0108
   1.1395E+00   1.1673E+00   6.6321E-05  0.0104
   1.1673E+00   1.1957E+00   7.0602E-05  0.0100
   1.1957E+00   1.2247E+00   7.2926E-05  0.0097
   1.2247E+00   1.2545E+00   7.4986E-05  0.0095
   1.2545E+00   1.2851E+00   7.6776E-05  0.0092
   1.2851E+00   1.3163E+00   7.8694E-05  0.0090
   1.3163E+00   1.3484E+00   8.3041E-05  0.0087
   1.3484E+00   1.3812E+00   8.3806E-05  0.0085
   1.3812E+00   1.4148E+00   8.6487E-05  0.0083
   1.4148E+00   1.4492E+00   8.8285E-05  0.0081
   1.4492E+00   1.4845E+00   9.0176E-05  0.0079
   1.4845E+00   1.5206E+00   9.1528E-05  0.0078
   1.5206E+00   1.5576E+00   9.3424E-05  0.0076
   1.5576E+00   1.5955E+00   9.5045E-05  0.0075
   1.5955E+00   1.6343E+00   9.8516E-05  0.0072
   1.6343E+00   1.6741E+00   1.0151E-04  0.0070
   1.6741E+00   1.7148E+00   1.0561E-04  0.0068
   1.7148E+00   1.7565E+00   1.0623E-04  0.0067
   1.7565E+00   1.7992E+00   1.0657E-04  0.0066
   1.7992E+00   1.8430E+00   1.0647E-04  0.0066
   1.8430E+00   1.8879E+00   1.0882E-04  0.0064
   1.8879E+00   1.9338E+00   1.1140E-04  0.0063
   1.9338E+00   1.9808E+00   1.1343E-04  0.0061
   1.9808E+00   2.0290E+00   1.1579E-04  0.0060
   2.0290E+00   2.0784E+00   1.1543E-04  0.0059
   2.0784E+00   2.1290E+00   1.1553E-04  0.0059
   2.1290E+00   2.1808E+00   1.1555E-04  0.0058
   2.1808E+00   2.2338E+00   1.1604E-04  0.0057
   2.2338E+00   2.2882E+00   1.1711E-04  0.0056
   2.2882E+00   2.3439E+00   1.1940E-04  0.0055
   2.3439E+00   2.4009E+00   1.1997E-04  0.0054
   2.4009E+00   2.4593E+00   1.1986E-04  0.0053
   2.4593E+00   2.5191E+00   1.1926E-04  0.0053
   2.5191E+00   2.5804E+00   1.1906E-04  0.0052
   2.5804E+00   2.6432E+00   1.1798E-04  0.0052
   2.6432E+00   2.7075E+00   1.1652E-04  0.0052
   2.7075E+00   2.7734E+00   1.1674E-04  0.0051
   2.7734E+00   2.8409E+00   1.1781E-04  0.0050
   2.8409E+00   2.9100E+00   1.1725E-04  0.0050
   2.9100E+00   2.9808E+00   1.1700E-04  0.0049
   2.9808E+00   3.0533E+00   1.1628E-04  0.0049
   3.0533E+00   3.1276E+00   1.1487E-04  0.0048
   3.1276E+00   3.2037E+00   1.1288E-04  0.0048
   3.2037E+00   3.2817E+00   1.1153E-04  0.0048
   3.2817E+00   3.3615E+00   1.0831E-04  0.0048
   3.3615E+00   3.4433E+00   1.0723E-04  0.0048
   3.4433E+00   3.5271E+00   1.0657E-04  0.0047
   3.5271E+00   3.6129E+00   1.0702E-04  0.0047
   3.6129E+00   3.7008E+00   1.0392E-04  0.0047
   3.7008E+00   3.7908E+00   1.0252E-04  0.0047
   3.7908E+00   3.8831E+00   1.0053E-04  0.0046
   3.8831E+00   3.9776E+00   9.8907E-05  0.0046
   3.9776E+00   4.0743E+00   9.7052E-05  0.0046
   4.0743E+00   4.1735E+00   9.4817E-05  0.0046
   4.1735E+00   4.2750E+00   9.2889E-05  0.0046
   4.2750E+00   4.3790E+00   9.0393E-05  0.0046
   4.3790E+00   4.4856E+00   8.8871E-05  0.0046
   4.4856E+00   4.5947E+00   8.6396E-05  0.0046
   4.5947E+00   4.7065E+00   8.4184E-05  0.0046
   4.7065E+00   4.8210E+00   8.2264E-05  0.0046
   4.8210E+00   4.9383E+00   8.0666E-05  0.0046
   4.9383E+00   5.0585E+00   7.8360E-05  0.0046
   5.0585E+00   5.1815E+00   7.5994E-05  0.0046
   5.1815E+00   5.3076E+00   7.3665E-05  0.0046
   5.3076E+00   5.4368E+00   7.1312E-05  0.0047
   5.4368E+00   5.5690E+00   7.0081E-05  0.0046
   5.5690E+00   5.7045E+00   6.7972E-05  0.0047
   5.7045E+00   5.8433E+00   6.5392E-05  0.0047
   5.8433E+00   5.9855E+00   6.2451E-05  0.0047
   5.9855E+00   6.1311E+00   6.1020E-05  0.0047
   6.1311E+00   6.2803E+00   5.8711E-05  0.0048
   6.2803E+00   6.4331E+00   5.7174E-05  0.0048
   6.4331E+00   6.5896E+00   5.4869E-05  0.0048
   6.5896E+00   6.7500E+00   5.3145E-05  0.0048
   6.7500E+00   6.9142E+00   5.0848E-05  0.0049
   6.9142E+00   7.0824E+00   4.8901E-05  0.0049
   7.0824E+00   7.2548E+00   4.6746E-05  0.0050
   7.2548E+00   7.4313E+00   4.5149E-05  0.0050
   7.4313E+00   7.6121E+00   4.3149E-05  0.0051
   7.6121E+00   7.7973E+00   4.1648E-05  0.0051
   7.7973E+00   7.9870E+00   3.9734E-05  0.0051
   7.9870E+00   8.1813E+00   3.8002E-05  0.0052
   8.1813E+00   8.3804E+00   3.6349E-05  0.0053
   8.3804E+00   8.5843E+00   3.4466E-05  0.0053
   8.5843E+00   8.7931E+00   3.3260E-05  0.0054
   8.7931E+00   9.0071E+00   3.1655E-05  0.0054
   9.0071E+00   9.2262E+00   3.0254E-05  0.0055
   9.2262E+00   9.4507E+00   2.8642E-05  0.0056
   9.4507E+00   9.6807E+00   2.7074E-05  0.0057
   9.6807E+00   9.9162E+00   2.5461E-05  0.0058
   9.9162E+00   1.0157E+01   2.4535E-05  0.0058
   1.0157E+01   1.0405E+01   2.3443E-05  0.0059
   1.0405E+01   1.0658E+01   2.2281E-05  0.0060
   1.0658E+01   1.0917E+01   2.1118E-05  0.0060
   1.0917E+01   1.1183E+01   2.0124E-05  0.0061
   1.1183E+01   1.1455E+01   1.9112E-05  0.0062
   1.1455E+01   1.1733E+01   1.8153E-05  0.0063
   1.1733E+01   1.2019E+01   1.7129E-05  0.0064
   1.2019E+01   1.2311E+01   1.6116E-05  0.0065
   1.2311E+01   1.2611E+01   1.5439E-05  0.0066
   1.2611E+01   1.2918E+01   1.4754E-05  0.0066
   1.2918E+01   1.3232E+01   1.3767E-05  0.0068
   1.3232E+01   1.3554E+01   1.2928E-05  0.0069
   1.3554E+01   1.3884E+01   1.2253E-05  0.0070
   1.3884E+01   1.4222E+01   1.1650E-05  0.0071
   1.4222E+01   1.4568E+01   1.0772E-05  0.0073
   1.4568E+01   1.4922E+01   1.0190E-05  0.0074
   1.4922E+01   1.5285E+01   9.7043E-06  0.0075
   1.5285E+01   1.5657E+01   9.0836E-06  0.0077
   1.5657E+01   1.6038E+01   8.5838E-06  0.0078
   1.6038E+01   1.6428E+01   7.9699E-06  0.0080
   1.6428E+01   1.6828E+01   7.4759E-06  0.0082
   1.6828E+01   1.7237E+01   6.9808E-06  0.0084
   1.7237E+01   1.7657E+01   6.5522E-06  0.0085
   1.7657E+01   1.8086E+01   6.1659E-06  0.0087
   1.8086E+01   1.8526E+01   5.7779E-06  0.0089
   1.8526E+01   1.8977E+01   5.2476E-06  0.0092
   1.8977E+01   1.9439E+01   4.8946E-06  0.0094
   1.9439E+01   1.9912E+01   4.5054E-06  0.0097
   1.9912E+01   2.0396E+01   4.2314E-06  0.0099
   2.0396E+01   2.0893E+01   3.8250E-06  0.0103
   2.0893E+01   2.1401E+01   3.4741E-06  0.0106
   2.1401E+01   2.1922E+01   3.2245E-06  0.0109
   2.1922E+01   2.2455E+01   2.8854E-06  0.0114
   2.2455E+01   2.3001E+01   2.6613E-06  0.0117
   2.3001E+01   2.3561E+01   2.4008E-06  0.0122
   2.3561E+01   2.4134E+01   2.2231E-06  0.0125
   2.4134E+01   2.4721E+01   1.9291E-06  0.0133
   2.4721E+01   2.5323E+01   1.6938E-06  0.0140
   2.5323E+01   2.5939E+01   1.5338E-06  0.0145
   2.5939E+01   2.6570E+01   1.3430E-06  0.0154
   2.6570E+01   2.7217E+01   1.1586E-06  0.0163
   2.7217E+01   2.7879E+01   1.0036E-06  0.0173
   2.7879E+01   2.8557E+01   8.4150E-07  0.0187
   2.8557E+01   2.9252E+01   6.7903E-07  0.0206
   2.9252E+01   2.9964E+01   5.5218E-07  0.0226
   2.9964E+01   3.0693E+01   4.1699E-07  0.0256
   3.0693E+01   3.1440E+01   2.9058E-07  0.0304
   3.1440E+01   3.2205E+01   1.8067E-07  0.0380
   3.2205E+01   3.2988E+01   8.4486E-08  0.0550
   3.2988E+01   3.3791E+01   1.0964E-08  0.1508
   3.3791E+01   3.4613E+01   0.0000E+00  0.0000
   3.4613E+01   3.5455E+01   0.0000E+00  0.0000
   3.5455E+01   3.6318E+01   0.0000E+00  0.0000
   3.6318E+01   3.7201E+01   0.0000E+00  0.0000
   3.7201E+01   3.8106E+01   0.0000E+00  0.0000
   3.8106E+01   3.9034E+01   0.0000E+00  0.0000
   3.9034E+01   3.9983E+01   0.0000E+00  0.0000
   3.9983E+01   4.0956E+01   0.0000E+00  0.0000
   4.0956E+01   4.1953E+01   0.0000E+00  0.0000
   4.1953E+01   4.2973E+01   0.0000E+00  0.0000
   4.2973E+01   4.4019E+01   0.0000E+00  0.0000
   4.4019E+01   4.5090E+01   0.0000E+00  0.0000
   4.5090E+01   4.6187E+01   0.0000E+00  0.0000
   4.6187E+01   4.7311E+01   0.0000E+00  0.0000
   4.7311E+01   4.8462E+01   0.0000E+00  0.0000
   4.8462E+01   4.9641E+01   0.0000E+00  0.0000
   4.9641E+01   5.0849E+01   0.0000E+00  0.0000
   5.0849E+01   5.2086E+01   0.0000E+00  0.0000
   5.2086E+01   5.3353E+01   0.0000E+00  0.0000
   5.3353E+01   5.4651E+01   0.0000E+00  0.0000
   5.4651E+01   5.5981E+01   0.0000E+00  0.0000
   5.5981E+01   5.7343E+01   0.0000E+00  0.0000
   5.7343E+01   5.8738E+01   0.0000E+00  0.0000
   5.8738E+01   6.0168E+01   0.0000E+00  0.0000
   6.0168E+01   6.1632E+01   0.0000E+00  0.0000
   6.1632E+01   6.3131E+01   0.0000E+00  0.0000
   6.3131E+01   6.4667E+01   0.0000E+00  0.0000
   6.4667E+01   6.6240E+01   0.0000E+00  0.0000
   6.6240E+01   6.7852E+01   0.0000E+00  0.0000
   6.7852E+01   6.9503E+01   0.0000E+00  0.0000
   6.9503E+01   7.1194E+01   0.0000E+00  0.0000
   7.1194E+01   7.2926E+01   0.0000E+00  0.0000
   7.2926E+01   7.4701E+01   0.0000E+00  0.0000
   7.4701E+01   7.6518E+01   0.0000E+00  0.0000
   7.6518E+01   7.8380E+01   0.0000E+00  0.0000
   7.8380E+01   8.0287E+01   0.0000E+00  0.0000
   8.0287E+01   8.2240E+01   0.0000E+00  0.0000
   8.2240E+01   8.4241E+01   0.0000E+00  0.0000
   8.4241E+01   8.6291E+01   0.0000E+00  0.0000
   8.6291E+01   8.8391E+01   0.0000E+00  0.0000
   8.8391E+01   9.0541E+01   0.0000E+00  0.0000
   9.0541E+01   9.2744E+01   0.0000E+00  0.0000
   9.2744E+01   9.5001E+01   0.0000E+00  0.0000
   9.5001E+01   9.7312E+01   0.0000E+00  0.0000
   9.7312E+01   9.9680E+01   0.0000E+00  0.0000
   9.9680E+01   1.0211E+02   0.0000E+00  0.0000
   1.0211E+02   1.0459E+02   0.0000E+00  0.0000
   1.0459E+02   1.0713E+02   0.0000E+00  0.0000
   1.0713E+02   1.0974E+02   0.0000E+00  0.0000
   1.0974E+02   1.1241E+02   0.0000E+00  0.0000
   1.1241E+02   1.1515E+02   0.0000E+00  0.0000
   1.1515E+02   1.1795E+02   0.0000E+00  0.0000
   1.1795E+02   1.2082E+02   0.0000E+00  0.0000
   1.2082E+02   1.2376E+02   0.0000E+00  0.0000
   1.2376E+02   1.2677E+02   0.0000E+00  0.0000
   1.2677E+02   1.2985E+02   0.0000E+00  0.0000
   1.2985E+02   1.3301E+02   0.0000E+00  0.0000
   1.3301E+02   1.3625E+02   0.0000E+00  0.0000
   1.3625E+02   1.3956E+02   0.0000E+00  0.0000
   1.3956E+02   1.4296E+02   0.0000E+00  0.0000
   1.4296E+02   1.4644E+02   0.0000E+00  0.0000
   1.4644E+02   1.5000E+02   0.0000E+00  0.0000

#   sum over                 6.1615E-06
'no. =    1   reg = 109 - 209'
msuc: {\huge [t-cross] in region mesh}
msdr: {\it plotted by \ANGEL \version}
msdl: {\it calculated by \PHITS  3.26}
wt: s(0.7)
\vspace{-3}
  region surface crossing
  area  &=&   1.0000E+00 [cm^2]
e:
 
# Information for Restart Calculation
# This calculation was newly started
# istdev =  2 # 1:Batch variance, 2:History variance
# resc2  = 5.00000000000000000E+09 # Total source weight or Total source weight / maxcas
# resc3  = 5.00000000000000000E+09 # Total history number or Total batch number
# maxcas =   500000000 # History / Batch, only used for istdev=1
# bitrseed = 0110100000100010111000001110001111001110100100011111101000111001 # bit data of rseed
