[ T-Cross ]
    title = [t-cross] in region mesh
     mesh =  reg            # mesh type is region-wise
      reg =    1            # number of crossing regions
      non     r-from    r-to       area
      1       119       219        1.000000    
   e-type =    3            # e-mesh is log given by emin, emax and ne
     emin =  1.0000000E-02  # minimum value of e-mesh points
     emax =   150.0000      # maximum value of e-mesh points
#    edel =  2.4039514E-02  # mesh width of e-mesh points
       ne =    400          # number of e-mesh points
#    data = ( e(i), i = 1, ne + 1 )
#           1.00000E-02  1.02433E-02  1.04925E-02  1.07478E-02  1.10093E-02
#           1.12772E-02  1.15516E-02  1.18326E-02  1.21205E-02  1.24154E-02
#           1.27175E-02  1.30269E-02  1.33439E-02  1.36686E-02  1.40011E-02
#           1.43418E-02  1.46907E-02  1.50482E-02  1.54143E-02  1.57894E-02
#           1.61735E-02  1.65670E-02  1.69701E-02  1.73830E-02  1.78060E-02
#           1.82392E-02  1.86830E-02  1.91375E-02  1.96032E-02  2.00801E-02
#           2.05687E-02  2.10692E-02  2.15818E-02  2.21069E-02  2.26448E-02
#           2.31957E-02  2.37601E-02  2.43382E-02  2.49304E-02  2.55369E-02
#           2.61583E-02  2.67947E-02  2.74467E-02  2.81145E-02  2.87985E-02
#           2.94992E-02  3.02169E-02  3.09521E-02  3.17052E-02  3.24766E-02
#           3.32668E-02  3.40762E-02  3.49053E-02  3.57546E-02  3.66246E-02
#           3.75157E-02  3.84284E-02  3.93634E-02  4.03212E-02  4.13022E-02
#           4.23071E-02  4.33365E-02  4.43909E-02  4.54710E-02  4.65773E-02
#           4.77106E-02  4.88714E-02  5.00605E-02  5.12785E-02  5.25262E-02
#           5.38042E-02  5.51133E-02  5.64542E-02  5.78278E-02  5.92348E-02
#           6.06760E-02  6.21523E-02  6.36645E-02  6.52135E-02  6.68002E-02
#           6.84255E-02  7.00904E-02  7.17957E-02  7.35426E-02  7.53319E-02
#           7.71648E-02  7.90423E-02  8.09655E-02  8.29354E-02  8.49533E-02
#           8.70203E-02  8.91376E-02  9.13064E-02  9.35279E-02  9.58035E-02
#           9.81345E-02  1.00522E-01  1.02968E-01  1.05473E-01  1.08040E-01
#           1.10668E-01  1.13361E-01  1.16119E-01  1.18944E-01  1.21838E-01
#           1.24803E-01  1.27839E-01  1.30950E-01  1.34136E-01  1.37399E-01
#           1.40742E-01  1.44167E-01  1.47675E-01  1.51268E-01  1.54948E-01
#           1.58718E-01  1.62580E-01  1.66535E-01  1.70587E-01  1.74738E-01
#           1.78989E-01  1.83344E-01  1.87805E-01  1.92375E-01  1.97055E-01
#           2.01850E-01  2.06761E-01  2.11792E-01  2.16945E-01  2.22223E-01
#           2.27630E-01  2.33169E-01  2.38842E-01  2.44653E-01  2.50605E-01
#           2.56703E-01  2.62949E-01  2.69346E-01  2.75900E-01  2.82613E-01
#           2.89489E-01  2.96532E-01  3.03747E-01  3.11138E-01  3.18708E-01
#           3.26462E-01  3.34405E-01  3.42542E-01  3.50876E-01  3.59413E-01
#           3.68158E-01  3.77116E-01  3.86291E-01  3.95690E-01  4.05317E-01
#           4.15179E-01  4.25281E-01  4.35628E-01  4.46227E-01  4.57084E-01
#           4.68205E-01  4.79597E-01  4.91266E-01  5.03219E-01  5.15463E-01
#           5.28005E-01  5.40851E-01  5.54011E-01  5.67490E-01  5.81298E-01
#           5.95441E-01  6.09929E-01  6.24769E-01  6.39970E-01  6.55541E-01
#           6.71491E-01  6.87828E-01  7.04564E-01  7.21706E-01  7.39266E-01
#           7.57253E-01  7.75678E-01  7.94551E-01  8.13883E-01  8.33685E-01
#           8.53969E-01  8.74747E-01  8.96030E-01  9.17831E-01  9.40163E-01
#           9.63038E-01  9.86469E-01  1.01047E+00  1.03506E+00  1.06024E+00
#           1.08604E+00  1.11246E+00  1.13953E+00  1.16725E+00  1.19565E+00
#           1.22474E+00  1.25454E+00  1.28507E+00  1.31633E+00  1.34836E+00
#           1.38117E+00  1.41477E+00  1.44920E+00  1.48446E+00  1.52057E+00
#           1.55757E+00  1.59547E+00  1.63429E+00  1.67405E+00  1.71478E+00
#           1.75650E+00  1.79924E+00  1.84302E+00  1.88786E+00  1.93379E+00
#           1.98084E+00  2.02904E+00  2.07841E+00  2.12898E+00  2.18078E+00
#           2.23384E+00  2.28819E+00  2.34386E+00  2.40089E+00  2.45930E+00
#           2.51914E+00  2.58043E+00  2.64322E+00  2.70753E+00  2.77341E+00
#           2.84088E+00  2.91001E+00  2.98081E+00  3.05333E+00  3.12762E+00
#           3.20372E+00  3.28167E+00  3.36152E+00  3.44330E+00  3.52708E+00
#           3.61290E+00  3.70080E+00  3.79085E+00  3.88308E+00  3.97756E+00
#           4.07434E+00  4.17347E+00  4.27501E+00  4.37903E+00  4.48557E+00
#           4.59471E+00  4.70650E+00  4.82102E+00  4.93832E+00  5.05847E+00
#           5.18155E+00  5.30762E+00  5.43676E+00  5.56904E+00  5.70453E+00
#           5.84333E+00  5.98550E+00  6.13114E+00  6.28031E+00  6.43312E+00
#           6.58964E+00  6.74997E+00  6.91420E+00  7.08243E+00  7.25475E+00
#           7.43126E+00  7.61207E+00  7.79728E+00  7.98700E+00  8.18133E+00
#           8.38038E+00  8.58428E+00  8.79315E+00  9.00709E+00  9.22624E+00
#           9.45072E+00  9.68067E+00  9.91620E+00  1.01575E+01  1.04046E+01
#           1.06578E+01  1.09171E+01  1.11827E+01  1.14548E+01  1.17335E+01
#           1.20190E+01  1.23114E+01  1.26109E+01  1.29178E+01  1.32321E+01
#           1.35540E+01  1.38838E+01  1.42216E+01  1.45676E+01  1.49221E+01
#           1.52851E+01  1.56570E+01  1.60380E+01  1.64282E+01  1.68279E+01
#           1.72374E+01  1.76568E+01  1.80864E+01  1.85264E+01  1.89772E+01
#           1.94389E+01  1.99119E+01  2.03963E+01  2.08926E+01  2.14009E+01
#           2.19216E+01  2.24550E+01  2.30014E+01  2.35610E+01  2.41343E+01
#           2.47215E+01  2.53230E+01  2.59391E+01  2.65702E+01  2.72167E+01
#           2.78789E+01  2.85572E+01  2.92520E+01  2.99637E+01  3.06928E+01
#           3.14396E+01  3.22045E+01  3.29881E+01  3.37907E+01  3.46128E+01
#           3.54550E+01  3.63177E+01  3.72013E+01  3.81064E+01  3.90336E+01
#           3.99833E+01  4.09561E+01  4.19526E+01  4.29734E+01  4.40189E+01
#           4.50900E+01  4.61870E+01  4.73108E+01  4.84619E+01  4.96410E+01
#           5.08488E+01  5.20860E+01  5.33533E+01  5.46514E+01  5.59812E+01
#           5.73432E+01  5.87384E+01  6.01676E+01  6.16315E+01  6.31311E+01
#           6.46671E+01  6.62405E+01  6.78522E+01  6.95031E+01  7.11941E+01
#           7.29263E+01  7.47007E+01  7.65182E+01  7.83800E+01  8.02870E+01
#           8.22405E+01  8.42414E+01  8.62911E+01  8.83906E+01  9.05412E+01
#           9.27442E+01  9.50007E+01  9.73122E+01  9.96799E+01  1.02105E+02
#           1.04589E+02  1.07134E+02  1.09741E+02  1.12411E+02  1.15146E+02
#           1.17948E+02  1.20817E+02  1.23757E+02  1.26768E+02  1.29852E+02
#           1.33012E+02  1.36248E+02  1.39563E+02  1.42959E+02  1.46437E+02
#           1.50000E+02
     unit =    2            # unit is [1/cm^2/(MeV/n)/source]
     axis =  eng            # axis of output
     file = detector-20.out  # file name of output for the above axis
   output = f-curr          # surface crossing forward current spectrum
     part =  neutron  
# kf/name :  2112     
#    used :        main (  %)        temp (  %)       total (  %)
#  memory :         414 (  0)           0 (  0)         414 (  0)

#------------------------------------------------------------------------------
#newpage:
#   no. =    1   reg = 119 - 219

x: Energy [MeV/n]
y:  F-Curr [1/cm^2/(MeV/n)/source]         
p: xlog ylog afac(0.8) form(0.9)
h: n            x            y(neutron ),hh0l   n 
#  e-lower      e-upper      neutron     r.err 
   1.0000E-02   1.0243E-02   1.0686E-03  0.0439
   1.0243E-02   1.0493E-02   1.0813E-03  0.0431
   1.0493E-02   1.0748E-02   1.1301E-03  0.0416
   1.0748E-02   1.1009E-02   1.1176E-03  0.0414
   1.1009E-02   1.1277E-02   1.1088E-03  0.0410
   1.1277E-02   1.1552E-02   1.0952E-03  0.0408
   1.1552E-02   1.1833E-02   1.1848E-03  0.0387
   1.1833E-02   1.2121E-02   1.0907E-03  0.0399
   1.2121E-02   1.2415E-02   1.1105E-03  0.0391
   1.2415E-02   1.2718E-02   1.0875E-03  0.0390
   1.2718E-02   1.3027E-02   1.0115E-03  0.0400
   1.3027E-02   1.3344E-02   1.1374E-03  0.0372
   1.3344E-02   1.3669E-02   1.0642E-03  0.0380
   1.3669E-02   1.4001E-02   1.0945E-03  0.0371
   1.4001E-02   1.4342E-02   1.1258E-03  0.0361
   1.4342E-02   1.4691E-02   1.0231E-03  0.0374
   1.4691E-02   1.5048E-02   1.0981E-03  0.0357
   1.5048E-02   1.5414E-02   1.1239E-03  0.0349
   1.5414E-02   1.5789E-02   1.1399E-03  0.0342
   1.5789E-02   1.6174E-02   1.0738E-03  0.0348
   1.6174E-02   1.6567E-02   1.0571E-03  0.0347
   1.6567E-02   1.6970E-02   1.1412E-03  0.0330
   1.6970E-02   1.7383E-02   1.1104E-03  0.0330
   1.7383E-02   1.7806E-02   1.1207E-03  0.0325
   1.7806E-02   1.8239E-02   1.0733E-03  0.0328
   1.8239E-02   1.8683E-02   1.1008E-03  0.0320
   1.8683E-02   1.9138E-02   1.0548E-03  0.0323
   1.9138E-02   1.9603E-02   1.1415E-03  0.0307
   1.9603E-02   2.0080E-02   1.1626E-03  0.0300
   2.0080E-02   2.0569E-02   1.1114E-03  0.0303
   2.0569E-02   2.1069E-02   1.1789E-03  0.0291
   2.1069E-02   2.1582E-02   1.0797E-03  0.0301
   2.1582E-02   2.2107E-02   1.1088E-03  0.0293
   2.2107E-02   2.2645E-02   1.1490E-03  0.0284
   2.2645E-02   2.3196E-02   1.1062E-03  0.0286
   2.3196E-02   2.3760E-02   1.1854E-03  0.0273
   2.3760E-02   2.4338E-02   1.1469E-03  0.0275
   2.4338E-02   2.4930E-02   1.0791E-03  0.0280
   2.4930E-02   2.5537E-02   1.1408E-03  0.0269
   2.5537E-02   2.6158E-02   1.1314E-03  0.0267
   2.6158E-02   2.6795E-02   1.1415E-03  0.0262
   2.6795E-02   2.7447E-02   1.1650E-03  0.0257
   2.7447E-02   2.8114E-02   1.1119E-03  0.0259
   2.8114E-02   2.8799E-02   1.1944E-03  0.0247
   2.8799E-02   2.9499E-02   1.1482E-03  0.0249
   2.9499E-02   3.0217E-02   1.1543E-03  0.0246
   3.0217E-02   3.0952E-02   1.2010E-03  0.0238
   3.0952E-02   3.1705E-02   1.1572E-03  0.0240
   3.1705E-02   3.2477E-02   1.1570E-03  0.0237
   3.2477E-02   3.3267E-02   1.1510E-03  0.0234
   3.3267E-02   3.4076E-02   1.1768E-03  0.0229
   3.4076E-02   3.4905E-02   1.1199E-03  0.0232
   3.4905E-02   3.5755E-02   1.1763E-03  0.0224
   3.5755E-02   3.6625E-02   1.1478E-03  0.0224
   3.6625E-02   3.7516E-02   1.1559E-03  0.0220
   3.7516E-02   3.8428E-02   1.1887E-03  0.0215
   3.8428E-02   3.9363E-02   1.1824E-03  0.0213
   3.9363E-02   4.0321E-02   1.2159E-03  0.0207
   4.0321E-02   4.1302E-02   1.1804E-03  0.0208
   4.1302E-02   4.2307E-02   1.1732E-03  0.0206
   4.2307E-02   4.3337E-02   1.1745E-03  0.0203
   4.3337E-02   4.4391E-02   1.1817E-03  0.0200
   4.4391E-02   4.5471E-02   1.1851E-03  0.0198
   4.5471E-02   4.6577E-02   1.1479E-03  0.0198
   4.6577E-02   4.7711E-02   1.2036E-03  0.0191
   4.7711E-02   4.8871E-02   1.1694E-03  0.0192
   4.8871E-02   5.0061E-02   1.2165E-03  0.0186
   5.0061E-02   5.1279E-02   1.1548E-03  0.0189
   5.1279E-02   5.2526E-02   1.1407E-03  0.0187
   5.2526E-02   5.3804E-02   1.2257E-03  0.0179
   5.3804E-02   5.5113E-02   1.2211E-03  0.0177
   5.5113E-02   5.6454E-02   1.2711E-03  0.0171
   5.6454E-02   5.7828E-02   1.2245E-03  0.0172
   5.7828E-02   5.9235E-02   1.2456E-03  0.0169
   5.9235E-02   6.0676E-02   1.2462E-03  0.0167
   6.0676E-02   6.2152E-02   1.2064E-03  0.0168
   6.2152E-02   6.3665E-02   1.2548E-03  0.0162
   6.3665E-02   6.5214E-02   1.2579E-03  0.0160
   6.5214E-02   6.6800E-02   1.2800E-03  0.0157
   6.6800E-02   6.8426E-02   1.2407E-03  0.0157
   6.8426E-02   7.0090E-02   1.2410E-03  0.0156
   7.0090E-02   7.1796E-02   1.2933E-03  0.0151
   7.1796E-02   7.3543E-02   1.3278E-03  0.0147
   7.3543E-02   7.5332E-02   1.2792E-03  0.0148
   7.5332E-02   7.7165E-02   1.2611E-03  0.0147
   7.7165E-02   7.9042E-02   1.2666E-03  0.0145
   7.9042E-02   8.0965E-02   1.3005E-03  0.0141
   8.0965E-02   8.2935E-02   1.2763E-03  0.0141
   8.2935E-02   8.4953E-02   1.3108E-03  0.0137
   8.4953E-02   8.7020E-02   1.3286E-03  0.0135
   8.7020E-02   8.9138E-02   1.3014E-03  0.0135
   8.9138E-02   9.1306E-02   1.3245E-03  0.0132
   9.1306E-02   9.3528E-02   1.3175E-03  0.0131
   9.3528E-02   9.5804E-02   1.3032E-03  0.0130
   9.5804E-02   9.8134E-02   1.3325E-03  0.0127
   9.8134E-02   1.0052E-01   1.3354E-03  0.0125
   1.0052E-01   1.0297E-01   1.3020E-03  0.0125
   1.0297E-01   1.0547E-01   1.3647E-03  0.0121
   1.0547E-01   1.0804E-01   1.3327E-03  0.0121
   1.0804E-01   1.1067E-01   1.3185E-03  0.0120
   1.1067E-01   1.1336E-01   1.3737E-03  0.0116
   1.1336E-01   1.1612E-01   1.3533E-03  0.0116
   1.1612E-01   1.1894E-01   1.3799E-03  0.0113
   1.1894E-01   1.2184E-01   1.3682E-03  0.0112
   1.2184E-01   1.2480E-01   1.3797E-03  0.0111
   1.2480E-01   1.2784E-01   1.3758E-03  0.0109
   1.2784E-01   1.3095E-01   1.4034E-03  0.0107
   1.3095E-01   1.3414E-01   1.4239E-03  0.0105
   1.3414E-01   1.3740E-01   1.3793E-03  0.0105
   1.3740E-01   1.4074E-01   1.3887E-03  0.0104
   1.4074E-01   1.4417E-01   1.3876E-03  0.0103
   1.4417E-01   1.4767E-01   1.4126E-03  0.0100
   1.4767E-01   1.5127E-01   1.4176E-03  0.0099
   1.5127E-01   1.5495E-01   1.4154E-03  0.0098
   1.5495E-01   1.5872E-01   1.4223E-03  0.0097
   1.5872E-01   1.6258E-01   1.4157E-03  0.0096
   1.6258E-01   1.6654E-01   1.4439E-03  0.0094
   1.6654E-01   1.7059E-01   1.4502E-03  0.0092
   1.7059E-01   1.7474E-01   1.4468E-03  0.0091
   1.7474E-01   1.7899E-01   1.4667E-03  0.0090
   1.7899E-01   1.8334E-01   1.4765E-03  0.0088
   1.8334E-01   1.8781E-01   1.4658E-03  0.0087
   1.8781E-01   1.9237E-01   1.4520E-03  0.0087
   1.9237E-01   1.9706E-01   1.4629E-03  0.0085
   1.9706E-01   2.0185E-01   1.4633E-03  0.0084
   2.0185E-01   2.0676E-01   1.4726E-03  0.0083
   2.0676E-01   2.1179E-01   1.4732E-03  0.0082
   2.1179E-01   2.1694E-01   1.4844E-03  0.0081
   2.1694E-01   2.2222E-01   1.4765E-03  0.0080
   2.2222E-01   2.2763E-01   1.4978E-03  0.0079
   2.2763E-01   2.3317E-01   1.5002E-03  0.0078
   2.3317E-01   2.3884E-01   1.4885E-03  0.0077
   2.3884E-01   2.4465E-01   1.4869E-03  0.0076
   2.4465E-01   2.5061E-01   1.4966E-03  0.0075
   2.5061E-01   2.5670E-01   1.5115E-03  0.0074
   2.5670E-01   2.6295E-01   1.5322E-03  0.0072
   2.6295E-01   2.6935E-01   1.5105E-03  0.0072
   2.6935E-01   2.7590E-01   1.5050E-03  0.0071
   2.7590E-01   2.8261E-01   1.4991E-03  0.0070
   2.8261E-01   2.8949E-01   1.5055E-03  0.0069
   2.8949E-01   2.9653E-01   1.5269E-03  0.0068
   2.9653E-01   3.0375E-01   1.5161E-03  0.0068
   3.0375E-01   3.1114E-01   1.5129E-03  0.0067
   3.1114E-01   3.1871E-01   1.5284E-03  0.0066
   3.1871E-01   3.2646E-01   1.5293E-03  0.0065
   3.2646E-01   3.3441E-01   1.5389E-03  0.0064
   3.3441E-01   3.4254E-01   1.5178E-03  0.0064
   3.4254E-01   3.5088E-01   1.5349E-03  0.0063
   3.5088E-01   3.5941E-01   1.5169E-03  0.0062
   3.5941E-01   3.6816E-01   1.5255E-03  0.0061
   3.6816E-01   3.7712E-01   1.5112E-03  0.0061
   3.7712E-01   3.8629E-01   1.5282E-03  0.0060
   3.8629E-01   3.9569E-01   1.5280E-03  0.0059
   3.9569E-01   4.0532E-01   1.5232E-03  0.0058
   4.0532E-01   4.1518E-01   1.5310E-03  0.0058
   4.1518E-01   4.2528E-01   1.5122E-03  0.0057
   4.2528E-01   4.3563E-01   1.5038E-03  0.0057
   4.3563E-01   4.4623E-01   1.4935E-03  0.0056
   4.4623E-01   4.5708E-01   1.4900E-03  0.0056
   4.5708E-01   4.6821E-01   1.4957E-03  0.0055
   4.6821E-01   4.7960E-01   1.4866E-03  0.0054
   4.7960E-01   4.9127E-01   1.4714E-03  0.0054
   4.9127E-01   5.0322E-01   1.4569E-03  0.0054
   5.0322E-01   5.1546E-01   1.4571E-03  0.0053
   5.1546E-01   5.2800E-01   1.4514E-03  0.0052
   5.2800E-01   5.4085E-01   1.4329E-03  0.0052
   5.4085E-01   5.5401E-01   1.4325E-03  0.0052
   5.5401E-01   5.6749E-01   1.4245E-03  0.0051
   5.6749E-01   5.8130E-01   1.4238E-03  0.0050
   5.8130E-01   5.9544E-01   1.3996E-03  0.0050
   5.9544E-01   6.0993E-01   1.3993E-03  0.0050
   6.0993E-01   6.2477E-01   1.3783E-03  0.0049
   6.2477E-01   6.3997E-01   1.3660E-03  0.0049
   6.3997E-01   6.5554E-01   1.3665E-03  0.0048
   6.5554E-01   6.7149E-01   1.3263E-03  0.0049
   6.7149E-01   6.8783E-01   1.3227E-03  0.0048
   6.8783E-01   7.0456E-01   1.2964E-03  0.0048
   7.0456E-01   7.2171E-01   1.2756E-03  0.0048
   7.2171E-01   7.3927E-01   1.2653E-03  0.0047
   7.3927E-01   7.5725E-01   1.2458E-03  0.0047
   7.5725E-01   7.7568E-01   1.2156E-03  0.0047
   7.7568E-01   7.9455E-01   1.1945E-03  0.0047
   7.9455E-01   8.1388E-01   1.1711E-03  0.0047
   8.1388E-01   8.3368E-01   1.1365E-03  0.0047
   8.3368E-01   8.5397E-01   1.1159E-03  0.0047
   8.5397E-01   8.7475E-01   1.0766E-03  0.0047
   8.7475E-01   8.9603E-01   1.0593E-03  0.0047
   8.9603E-01   9.1783E-01   1.0103E-03  0.0048
   9.1783E-01   9.4016E-01   9.7538E-04  0.0048
   9.4016E-01   9.6304E-01   9.3932E-04  0.0048
   9.6304E-01   9.8647E-01   8.9877E-04  0.0049
   9.8647E-01   1.0105E+00   8.6693E-04  0.0049
   1.0105E+00   1.0351E+00   8.5105E-04  0.0049
   1.0351E+00   1.0602E+00   8.4372E-04  0.0049
   1.0602E+00   1.0860E+00   8.4095E-04  0.0048
   1.0860E+00   1.1125E+00   8.3613E-04  0.0048
   1.1125E+00   1.1395E+00   8.4004E-04  0.0047
   1.1395E+00   1.1673E+00   8.4368E-04  0.0046
   1.1673E+00   1.1957E+00   8.4399E-04  0.0046
   1.1957E+00   1.2247E+00   8.5704E-04  0.0045
   1.2247E+00   1.2545E+00   8.3908E-04  0.0045
   1.2545E+00   1.2851E+00   8.2496E-04  0.0045
   1.2851E+00   1.3163E+00   8.1540E-04  0.0044
   1.3163E+00   1.3484E+00   8.0881E-04  0.0044
   1.3484E+00   1.3812E+00   8.0967E-04  0.0043
   1.3812E+00   1.4148E+00   8.1045E-04  0.0043
   1.4148E+00   1.4492E+00   7.9117E-04  0.0043
   1.4492E+00   1.4845E+00   7.7570E-04  0.0043
   1.4845E+00   1.5206E+00   7.6173E-04  0.0043
   1.5206E+00   1.5576E+00   7.4504E-04  0.0043
   1.5576E+00   1.5955E+00   7.2399E-04  0.0043
   1.5955E+00   1.6343E+00   7.1129E-04  0.0043
   1.6343E+00   1.6741E+00   7.0834E-04  0.0042
   1.6741E+00   1.7148E+00   6.9273E-04  0.0042
   1.7148E+00   1.7565E+00   6.7988E-04  0.0042
   1.7565E+00   1.7992E+00   6.6074E-04  0.0042
   1.7992E+00   1.8430E+00   6.4132E-04  0.0042
   1.8430E+00   1.8879E+00   6.2517E-04  0.0042
   1.8879E+00   1.9338E+00   6.0397E-04  0.0042
   1.9338E+00   1.9808E+00   5.8670E-04  0.0043
   1.9808E+00   2.0290E+00   5.7085E-04  0.0043
   2.0290E+00   2.0784E+00   5.5692E-04  0.0043
   2.0784E+00   2.1290E+00   5.3527E-04  0.0043
   2.1290E+00   2.1808E+00   5.1573E-04  0.0043
   2.1808E+00   2.2338E+00   4.9598E-04  0.0044
   2.2338E+00   2.2882E+00   4.7924E-04  0.0044
   2.2882E+00   2.3439E+00   4.5626E-04  0.0044
   2.3439E+00   2.4009E+00   4.4105E-04  0.0045
   2.4009E+00   2.4593E+00   4.2782E-04  0.0045
   2.4593E+00   2.5191E+00   4.0504E-04  0.0045
   2.5191E+00   2.5804E+00   3.8873E-04  0.0046
   2.5804E+00   2.6432E+00   3.6968E-04  0.0046
   2.6432E+00   2.7075E+00   3.5148E-04  0.0047
   2.7075E+00   2.7734E+00   3.3279E-04  0.0048
   2.7734E+00   2.8409E+00   3.1589E-04  0.0048
   2.8409E+00   2.9100E+00   3.0111E-04  0.0049
   2.9100E+00   2.9808E+00   2.8539E-04  0.0050
   2.9808E+00   3.0533E+00   2.7209E-04  0.0050
   3.0533E+00   3.1276E+00   2.5690E-04  0.0051
   3.1276E+00   3.2037E+00   2.4184E-04  0.0052
   3.2037E+00   3.2817E+00   2.2729E-04  0.0053
   3.2817E+00   3.3615E+00   2.1432E-04  0.0054
   3.3615E+00   3.4433E+00   2.0062E-04  0.0055
   3.4433E+00   3.5271E+00   1.9056E-04  0.0056
   3.5271E+00   3.6129E+00   1.7560E-04  0.0058
   3.6129E+00   3.7008E+00   1.6433E-04  0.0059
   3.7008E+00   3.7908E+00   1.5407E-04  0.0060
   3.7908E+00   3.8831E+00   1.4553E-04  0.0061
   3.8831E+00   3.9776E+00   1.3494E-04  0.0063
   3.9776E+00   4.0743E+00   1.2664E-04  0.0064
   4.0743E+00   4.1735E+00   1.1764E-04  0.0065
   4.1735E+00   4.2750E+00   1.0913E-04  0.0067
   4.2750E+00   4.3790E+00   1.0201E-04  0.0069
   4.3790E+00   4.4856E+00   9.5830E-05  0.0070
   4.4856E+00   4.5947E+00   8.8228E-05  0.0072
   4.5947E+00   4.7065E+00   8.1260E-05  0.0074
   4.7065E+00   4.8210E+00   7.5481E-05  0.0076
   4.8210E+00   4.9383E+00   6.9536E-05  0.0078
   4.9383E+00   5.0585E+00   6.4297E-05  0.0080
   5.0585E+00   5.1815E+00   5.9959E-05  0.0082
   5.1815E+00   5.3076E+00   5.5766E-05  0.0084
   5.3076E+00   5.4368E+00   5.1501E-05  0.0087
   5.4368E+00   5.5690E+00   4.8391E-05  0.0088
   5.5690E+00   5.7045E+00   4.3840E-05  0.0092
   5.7045E+00   5.8433E+00   4.0619E-05  0.0094
   5.8433E+00   5.9855E+00   3.7242E-05  0.0097
   5.9855E+00   6.1311E+00   3.4446E-05  0.0100
   6.1311E+00   6.2803E+00   3.2363E-05  0.0102
   6.2803E+00   6.4331E+00   2.9217E-05  0.0106
   6.4331E+00   6.5896E+00   2.7252E-05  0.0108
   6.5896E+00   6.7500E+00   2.5084E-05  0.0111
   6.7500E+00   6.9142E+00   2.2960E-05  0.0115
   6.9142E+00   7.0824E+00   2.0920E-05  0.0119
   7.0824E+00   7.2548E+00   1.9455E-05  0.0122
   7.2548E+00   7.4313E+00   1.7786E-05  0.0126
   7.4313E+00   7.6121E+00   1.6740E-05  0.0128
   7.6121E+00   7.7973E+00   1.5064E-05  0.0134
   7.7973E+00   7.9870E+00   1.3837E-05  0.0138
   7.9870E+00   8.1813E+00   1.2712E-05  0.0142
   8.1813E+00   8.3804E+00   1.1902E-05  0.0145
   8.3804E+00   8.5843E+00   1.0908E-05  0.0150
   8.5843E+00   8.7931E+00   1.0034E-05  0.0154
   8.7931E+00   9.0071E+00   9.1437E-06  0.0160
   9.0071E+00   9.2262E+00   8.3550E-06  0.0165
   9.2262E+00   9.4507E+00   7.7590E-06  0.0169
   9.4507E+00   9.6807E+00   6.8604E-06  0.0178
   9.6807E+00   9.9162E+00   6.5234E-06  0.0180
   9.9162E+00   1.0157E+01   6.0379E-06  0.0185
   1.0157E+01   1.0405E+01   5.2602E-06  0.0196
   1.0405E+01   1.0658E+01   4.8884E-06  0.0201
   1.0658E+01   1.0917E+01   4.6913E-06  0.0203
   1.0917E+01   1.1183E+01   4.2438E-06  0.0210
   1.1183E+01   1.1455E+01   4.1513E-06  0.0210
   1.1455E+01   1.1733E+01   3.7163E-06  0.0219
   1.1733E+01   1.2019E+01   3.4660E-06  0.0225
   1.2019E+01   1.2311E+01   3.1948E-06  0.0231
   1.2311E+01   1.2611E+01   2.8977E-06  0.0240
   1.2611E+01   1.2918E+01   2.6945E-06  0.0246
   1.2918E+01   1.3232E+01   2.4491E-06  0.0255
   1.3232E+01   1.3554E+01   2.4010E-06  0.0254
   1.3554E+01   1.3884E+01   2.0688E-06  0.0271
   1.3884E+01   1.4222E+01   2.0012E-06  0.0272
   1.4222E+01   1.4568E+01   1.8929E-06  0.0276
   1.4568E+01   1.4922E+01   1.7824E-06  0.0281
   1.4922E+01   1.5285E+01   1.6430E-06  0.0290
   1.5285E+01   1.5657E+01   1.5011E-06  0.0299
   1.5657E+01   1.6038E+01   1.3919E-06  0.0307
   1.6038E+01   1.6428E+01   1.2858E-06  0.0316
   1.6428E+01   1.6828E+01   1.1796E-06  0.0326
   1.6828E+01   1.7237E+01   1.0490E-06  0.0341
   1.7237E+01   1.7657E+01   9.6805E-07  0.0351
   1.7657E+01   1.8086E+01   9.1480E-07  0.0357
   1.8086E+01   1.8526E+01   8.3285E-07  0.0369
   1.8526E+01   1.8977E+01   8.0974E-07  0.0370
   1.8977E+01   1.9439E+01   7.2120E-07  0.0387
   1.9439E+01   1.9912E+01   7.1147E-07  0.0385
   1.9912E+01   2.0396E+01   5.7795E-07  0.0423
   2.0396E+01   2.0893E+01   6.0956E-07  0.0407
   2.0893E+01   2.1401E+01   5.5377E-07  0.0421
   2.1401E+01   2.1922E+01   4.8204E-07  0.0446
   2.1922E+01   2.2455E+01   4.5653E-07  0.0453
   2.2455E+01   2.3001E+01   4.2738E-07  0.0463
   2.3001E+01   2.3561E+01   3.4754E-07  0.0507
   2.3561E+01   2.4134E+01   3.0963E-07  0.0531
   2.4134E+01   2.4721E+01   3.1335E-07  0.0521
   2.4721E+01   2.5323E+01   2.4938E-07  0.0577
   2.5323E+01   2.5939E+01   2.2966E-07  0.0594
   2.5939E+01   2.6570E+01   2.0281E-07  0.0625
   2.6570E+01   2.7217E+01   1.7943E-07  0.0657
   2.7217E+01   2.7879E+01   1.5856E-07  0.0690
   2.7879E+01   2.8557E+01   1.4153E-07  0.0722
   2.8557E+01   2.9252E+01   1.3385E-07  0.0733
   2.9252E+01   2.9964E+01   1.0819E-07  0.0806
   2.9964E+01   3.0693E+01   8.6415E-08  0.0891
   3.0693E+01   3.1440E+01   8.9049E-08  0.0867
   3.1440E+01   3.2205E+01   7.6476E-08  0.0925
   3.2205E+01   3.2988E+01   5.1687E-08  0.1111
   3.2988E+01   3.3791E+01   5.1705E-08  0.1098
   3.3791E+01   3.4613E+01   3.5273E-08  0.1313
   3.4613E+01   3.5455E+01   3.5623E-08  0.1291
   3.5455E+01   3.6318E+01   3.3038E-08  0.1325
   3.6318E+01   3.7201E+01   3.4516E-08  0.1280
   3.7201E+01   3.8106E+01   1.9334E-08  0.1690
   3.8106E+01   3.9034E+01   1.2943E-08  0.2041
   3.9034E+01   3.9983E+01   1.3688E-08  0.1961
   3.9983E+01   4.0956E+01   1.0793E-08  0.2182
   4.0956E+01   4.1953E+01   7.0246E-09  0.2673
   4.1953E+01   4.2973E+01   7.8374E-09  0.2500
   4.2973E+01   4.4019E+01   3.3474E-09  0.3780
   4.4019E+01   4.5090E+01   1.4005E-09  0.5774
   4.5090E+01   4.6187E+01   0.0000E+00  0.0000
   4.6187E+01   4.7311E+01   8.8986E-10  0.7071
   4.7311E+01   4.8462E+01   0.0000E+00  0.0000
   4.8462E+01   4.9641E+01   0.0000E+00  0.0000
   4.9641E+01   5.0849E+01   0.0000E+00  0.0000
   5.0849E+01   5.2086E+01   0.0000E+00  0.0000
   5.2086E+01   5.3353E+01   0.0000E+00  0.0000
   5.3353E+01   5.4651E+01   0.0000E+00  0.0000
   5.4651E+01   5.5981E+01   0.0000E+00  0.0000
   5.5981E+01   5.7343E+01   0.0000E+00  0.0000
   5.7343E+01   5.8738E+01   0.0000E+00  0.0000
   5.8738E+01   6.0168E+01   0.0000E+00  0.0000
   6.0168E+01   6.1632E+01   0.0000E+00  0.0000
   6.1632E+01   6.3131E+01   0.0000E+00  0.0000
   6.3131E+01   6.4667E+01   0.0000E+00  0.0000
   6.4667E+01   6.6240E+01   0.0000E+00  0.0000
   6.6240E+01   6.7852E+01   0.0000E+00  0.0000
   6.7852E+01   6.9503E+01   0.0000E+00  0.0000
   6.9503E+01   7.1194E+01   0.0000E+00  0.0000
   7.1194E+01   7.2926E+01   0.0000E+00  0.0000
   7.2926E+01   7.4701E+01   0.0000E+00  0.0000
   7.4701E+01   7.6518E+01   0.0000E+00  0.0000
   7.6518E+01   7.8380E+01   0.0000E+00  0.0000
   7.8380E+01   8.0287E+01   0.0000E+00  0.0000
   8.0287E+01   8.2240E+01   0.0000E+00  0.0000
   8.2240E+01   8.4241E+01   0.0000E+00  0.0000
   8.4241E+01   8.6291E+01   0.0000E+00  0.0000
   8.6291E+01   8.8391E+01   0.0000E+00  0.0000
   8.8391E+01   9.0541E+01   0.0000E+00  0.0000
   9.0541E+01   9.2744E+01   0.0000E+00  0.0000
   9.2744E+01   9.5001E+01   0.0000E+00  0.0000
   9.5001E+01   9.7312E+01   0.0000E+00  0.0000
   9.7312E+01   9.9680E+01   0.0000E+00  0.0000
   9.9680E+01   1.0211E+02   0.0000E+00  0.0000
   1.0211E+02   1.0459E+02   0.0000E+00  0.0000
   1.0459E+02   1.0713E+02   0.0000E+00  0.0000
   1.0713E+02   1.0974E+02   0.0000E+00  0.0000
   1.0974E+02   1.1241E+02   0.0000E+00  0.0000
   1.1241E+02   1.1515E+02   0.0000E+00  0.0000
   1.1515E+02   1.1795E+02   0.0000E+00  0.0000
   1.1795E+02   1.2082E+02   0.0000E+00  0.0000
   1.2082E+02   1.2376E+02   0.0000E+00  0.0000
   1.2376E+02   1.2677E+02   0.0000E+00  0.0000
   1.2677E+02   1.2985E+02   0.0000E+00  0.0000
   1.2985E+02   1.3301E+02   0.0000E+00  0.0000
   1.3301E+02   1.3625E+02   0.0000E+00  0.0000
   1.3625E+02   1.3956E+02   0.0000E+00  0.0000
   1.3956E+02   1.4296E+02   0.0000E+00  0.0000
   1.4296E+02   1.4644E+02   0.0000E+00  0.0000
   1.4644E+02   1.5000E+02   0.0000E+00  0.0000

#   sum over                 1.9224E-05
'no. =    1   reg = 119 - 219'
msuc: {\huge [t-cross] in region mesh}
msdr: {\it plotted by \ANGEL \version}
msdl: {\it calculated by \PHITS  3.26}
wt: s(0.7)
\vspace{-3}
  region surface crossing
  area  &=&   1.0000E+00 [cm^2]
e:
 
# Information for Restart Calculation
# This calculation was newly started
# istdev =  2 # 1:Batch variance, 2:History variance
# resc2  = 2.00000000000000000E+09 # Total source weight or Total source weight / maxcas
# resc3  = 2.00000000000000000E+09 # Total history number or Total batch number
# maxcas =   500000000 # History / Batch, only used for istdev=1
# bitrseed = 0011011010010000100111110110001101100001010011100000011100000110 # bit data of rseed
