[ T-Cross ]
    title = [t-cross] in region mesh
     mesh =  reg            # mesh type is region-wise
      reg =    1            # number of crossing regions
      non     r-from    r-to       area
      1       113       213        1.000000    
   e-type =    3            # e-mesh is log given by emin, emax and ne
     emin =  1.0000000E-02  # minimum value of e-mesh points
     emax =   150.0000      # maximum value of e-mesh points
#    edel =  2.4039514E-02  # mesh width of e-mesh points
       ne =    400          # number of e-mesh points
#    data = ( e(i), i = 1, ne + 1 )
#           1.00000E-02  1.02433E-02  1.04925E-02  1.07478E-02  1.10093E-02
#           1.12772E-02  1.15516E-02  1.18326E-02  1.21205E-02  1.24154E-02
#           1.27175E-02  1.30269E-02  1.33439E-02  1.36686E-02  1.40011E-02
#           1.43418E-02  1.46907E-02  1.50482E-02  1.54143E-02  1.57894E-02
#           1.61735E-02  1.65670E-02  1.69701E-02  1.73830E-02  1.78060E-02
#           1.82392E-02  1.86830E-02  1.91375E-02  1.96032E-02  2.00801E-02
#           2.05687E-02  2.10692E-02  2.15818E-02  2.21069E-02  2.26448E-02
#           2.31957E-02  2.37601E-02  2.43382E-02  2.49304E-02  2.55369E-02
#           2.61583E-02  2.67947E-02  2.74467E-02  2.81145E-02  2.87985E-02
#           2.94992E-02  3.02169E-02  3.09521E-02  3.17052E-02  3.24766E-02
#           3.32668E-02  3.40762E-02  3.49053E-02  3.57546E-02  3.66246E-02
#           3.75157E-02  3.84284E-02  3.93634E-02  4.03212E-02  4.13022E-02
#           4.23071E-02  4.33365E-02  4.43909E-02  4.54710E-02  4.65773E-02
#           4.77106E-02  4.88714E-02  5.00605E-02  5.12785E-02  5.25262E-02
#           5.38042E-02  5.51133E-02  5.64542E-02  5.78278E-02  5.92348E-02
#           6.06760E-02  6.21523E-02  6.36645E-02  6.52135E-02  6.68002E-02
#           6.84255E-02  7.00904E-02  7.17957E-02  7.35426E-02  7.53319E-02
#           7.71648E-02  7.90423E-02  8.09655E-02  8.29354E-02  8.49533E-02
#           8.70203E-02  8.91376E-02  9.13064E-02  9.35279E-02  9.58035E-02
#           9.81345E-02  1.00522E-01  1.02968E-01  1.05473E-01  1.08040E-01
#           1.10668E-01  1.13361E-01  1.16119E-01  1.18944E-01  1.21838E-01
#           1.24803E-01  1.27839E-01  1.30950E-01  1.34136E-01  1.37399E-01
#           1.40742E-01  1.44167E-01  1.47675E-01  1.51268E-01  1.54948E-01
#           1.58718E-01  1.62580E-01  1.66535E-01  1.70587E-01  1.74738E-01
#           1.78989E-01  1.83344E-01  1.87805E-01  1.92375E-01  1.97055E-01
#           2.01850E-01  2.06761E-01  2.11792E-01  2.16945E-01  2.22223E-01
#           2.27630E-01  2.33169E-01  2.38842E-01  2.44653E-01  2.50605E-01
#           2.56703E-01  2.62949E-01  2.69346E-01  2.75900E-01  2.82613E-01
#           2.89489E-01  2.96532E-01  3.03747E-01  3.11138E-01  3.18708E-01
#           3.26462E-01  3.34405E-01  3.42542E-01  3.50876E-01  3.59413E-01
#           3.68158E-01  3.77116E-01  3.86291E-01  3.95690E-01  4.05317E-01
#           4.15179E-01  4.25281E-01  4.35628E-01  4.46227E-01  4.57084E-01
#           4.68205E-01  4.79597E-01  4.91266E-01  5.03219E-01  5.15463E-01
#           5.28005E-01  5.40851E-01  5.54011E-01  5.67490E-01  5.81298E-01
#           5.95441E-01  6.09929E-01  6.24769E-01  6.39970E-01  6.55541E-01
#           6.71491E-01  6.87828E-01  7.04564E-01  7.21706E-01  7.39266E-01
#           7.57253E-01  7.75678E-01  7.94551E-01  8.13883E-01  8.33685E-01
#           8.53969E-01  8.74747E-01  8.96030E-01  9.17831E-01  9.40163E-01
#           9.63038E-01  9.86469E-01  1.01047E+00  1.03506E+00  1.06024E+00
#           1.08604E+00  1.11246E+00  1.13953E+00  1.16725E+00  1.19565E+00
#           1.22474E+00  1.25454E+00  1.28507E+00  1.31633E+00  1.34836E+00
#           1.38117E+00  1.41477E+00  1.44920E+00  1.48446E+00  1.52057E+00
#           1.55757E+00  1.59547E+00  1.63429E+00  1.67405E+00  1.71478E+00
#           1.75650E+00  1.79924E+00  1.84302E+00  1.88786E+00  1.93379E+00
#           1.98084E+00  2.02904E+00  2.07841E+00  2.12898E+00  2.18078E+00
#           2.23384E+00  2.28819E+00  2.34386E+00  2.40089E+00  2.45930E+00
#           2.51914E+00  2.58043E+00  2.64322E+00  2.70753E+00  2.77341E+00
#           2.84088E+00  2.91001E+00  2.98081E+00  3.05333E+00  3.12762E+00
#           3.20372E+00  3.28167E+00  3.36152E+00  3.44330E+00  3.52708E+00
#           3.61290E+00  3.70080E+00  3.79085E+00  3.88308E+00  3.97756E+00
#           4.07434E+00  4.17347E+00  4.27501E+00  4.37903E+00  4.48557E+00
#           4.59471E+00  4.70650E+00  4.82102E+00  4.93832E+00  5.05847E+00
#           5.18155E+00  5.30762E+00  5.43676E+00  5.56904E+00  5.70453E+00
#           5.84333E+00  5.98550E+00  6.13114E+00  6.28031E+00  6.43312E+00
#           6.58964E+00  6.74997E+00  6.91420E+00  7.08243E+00  7.25475E+00
#           7.43126E+00  7.61207E+00  7.79728E+00  7.98700E+00  8.18133E+00
#           8.38038E+00  8.58428E+00  8.79315E+00  9.00709E+00  9.22624E+00
#           9.45072E+00  9.68067E+00  9.91620E+00  1.01575E+01  1.04046E+01
#           1.06578E+01  1.09171E+01  1.11827E+01  1.14548E+01  1.17335E+01
#           1.20190E+01  1.23114E+01  1.26109E+01  1.29178E+01  1.32321E+01
#           1.35540E+01  1.38838E+01  1.42216E+01  1.45676E+01  1.49221E+01
#           1.52851E+01  1.56570E+01  1.60380E+01  1.64282E+01  1.68279E+01
#           1.72374E+01  1.76568E+01  1.80864E+01  1.85264E+01  1.89772E+01
#           1.94389E+01  1.99119E+01  2.03963E+01  2.08926E+01  2.14009E+01
#           2.19216E+01  2.24550E+01  2.30014E+01  2.35610E+01  2.41343E+01
#           2.47215E+01  2.53230E+01  2.59391E+01  2.65702E+01  2.72167E+01
#           2.78789E+01  2.85572E+01  2.92520E+01  2.99637E+01  3.06928E+01
#           3.14396E+01  3.22045E+01  3.29881E+01  3.37907E+01  3.46128E+01
#           3.54550E+01  3.63177E+01  3.72013E+01  3.81064E+01  3.90336E+01
#           3.99833E+01  4.09561E+01  4.19526E+01  4.29734E+01  4.40189E+01
#           4.50900E+01  4.61870E+01  4.73108E+01  4.84619E+01  4.96410E+01
#           5.08488E+01  5.20860E+01  5.33533E+01  5.46514E+01  5.59812E+01
#           5.73432E+01  5.87384E+01  6.01676E+01  6.16315E+01  6.31311E+01
#           6.46671E+01  6.62405E+01  6.78522E+01  6.95031E+01  7.11941E+01
#           7.29263E+01  7.47007E+01  7.65182E+01  7.83800E+01  8.02870E+01
#           8.22405E+01  8.42414E+01  8.62911E+01  8.83906E+01  9.05412E+01
#           9.27442E+01  9.50007E+01  9.73122E+01  9.96799E+01  1.02105E+02
#           1.04589E+02  1.07134E+02  1.09741E+02  1.12411E+02  1.15146E+02
#           1.17948E+02  1.20817E+02  1.23757E+02  1.26768E+02  1.29852E+02
#           1.33012E+02  1.36248E+02  1.39563E+02  1.42959E+02  1.46437E+02
#           1.50000E+02
     unit =    2            # unit is [1/cm^2/(MeV/n)/source]
     axis =  eng            # axis of output
     file = detector-14.out  # file name of output for the above axis
   output = f-curr          # surface crossing forward current spectrum
     part =  neutron  
# kf/name :  2112     
#    used :        main (  %)        temp (  %)       total (  %)
#  memory :         414 (  0)           0 (  0)         414 (  0)

#------------------------------------------------------------------------------
#newpage:
#   no. =    1   reg = 113 - 213

x: Energy [MeV/n]
y:  F-Curr [1/cm^2/(MeV/n)/source]         
p: xlog ylog afac(0.8) form(0.9)
h: n            x            y(neutron ),hh0l   n 
#  e-lower      e-upper      neutron     r.err 
   1.0000E-02   1.0243E-02   1.5700E-03  0.0512
   1.0243E-02   1.0493E-02   1.4244E-03  0.0531
   1.0493E-02   1.0748E-02   1.5355E-03  0.0505
   1.0748E-02   1.1009E-02   1.4837E-03  0.0508
   1.1009E-02   1.1277E-02   1.5194E-03  0.0496
   1.1277E-02   1.1552E-02   1.4542E-03  0.0501
   1.1552E-02   1.1833E-02   1.5299E-03  0.0482
   1.1833E-02   1.2121E-02   1.2713E-03  0.0523
   1.2121E-02   1.2415E-02   1.2784E-03  0.0515
   1.2415E-02   1.2718E-02   1.3043E-03  0.0504
   1.2718E-02   1.3027E-02   1.4640E-03  0.0470
   1.3027E-02   1.3344E-02   1.3914E-03  0.0476
   1.3344E-02   1.3669E-02   1.2844E-03  0.0490
   1.3669E-02   1.4001E-02   1.2028E-03  0.0500
   1.4001E-02   1.4342E-02   1.2505E-03  0.0485
   1.4342E-02   1.4691E-02   1.2925E-03  0.0471
   1.4691E-02   1.5048E-02   1.2478E-03  0.0474
   1.5048E-02   1.5414E-02   1.1635E-03  0.0485
   1.5414E-02   1.5789E-02   1.1252E-03  0.0487
   1.5789E-02   1.6174E-02   1.2169E-03  0.0462
   1.6174E-02   1.6567E-02   1.2198E-03  0.0456
   1.6567E-02   1.6970E-02   1.1883E-03  0.0457
   1.6970E-02   1.7383E-02   1.1262E-03  0.0464
   1.7383E-02   1.7806E-02   9.8595E-04  0.0490
   1.7806E-02   1.8239E-02   1.1010E-03  0.0458
   1.8239E-02   1.8683E-02   1.1582E-03  0.0441
   1.8683E-02   1.9138E-02   1.1043E-03  0.0446
   1.9138E-02   1.9603E-02   1.0566E-03  0.0451
   1.9603E-02   2.0080E-02   1.0504E-03  0.0447
   2.0080E-02   2.0569E-02   1.0766E-03  0.0436
   2.0569E-02   2.1069E-02   1.1090E-03  0.0424
   2.1069E-02   2.1582E-02   1.0397E-03  0.0433
   2.1582E-02   2.2107E-02   1.0227E-03  0.0432
   2.2107E-02   2.2645E-02   9.8349E-04  0.0435
   2.2645E-02   2.3196E-02   1.0382E-03  0.0418
   2.3196E-02   2.3760E-02   9.0189E-04  0.0443
   2.3760E-02   2.4338E-02   8.8393E-04  0.0442
   2.4338E-02   2.4930E-02   9.5412E-04  0.0421
   2.4930E-02   2.5537E-02   8.8695E-04  0.0431
   2.5537E-02   2.6158E-02   8.9807E-04  0.0423
   2.6158E-02   2.6795E-02   8.8302E-04  0.0422
   2.6795E-02   2.7447E-02   8.4211E-04  0.0427
   2.7447E-02   2.8114E-02   8.6403E-04  0.0416
   2.8114E-02   2.8799E-02   8.5374E-04  0.0414
   2.8799E-02   2.9499E-02   8.8484E-04  0.0402
   2.9499E-02   3.0217E-02   8.7497E-04  0.0399
   3.0217E-02   3.0952E-02   8.4875E-04  0.0400
   3.0952E-02   3.1705E-02   7.6618E-04  0.0416
   3.1705E-02   3.2477E-02   7.5964E-04  0.0413
   3.2477E-02   3.3267E-02   7.5046E-04  0.0411
   3.3267E-02   3.4076E-02   7.7835E-04  0.0398
   3.4076E-02   3.4905E-02   7.9845E-04  0.0389
   3.4905E-02   3.5755E-02   7.1944E-04  0.0405
   3.5755E-02   3.6625E-02   7.1614E-04  0.0401
   3.6625E-02   3.7516E-02   6.9913E-04  0.0401
   3.7516E-02   3.8428E-02   7.5812E-04  0.0380
   3.8428E-02   3.9363E-02   7.2033E-04  0.0385
   3.9363E-02   4.0321E-02   6.8912E-04  0.0389
   4.0321E-02   4.1302E-02   6.7479E-04  0.0389
   4.1302E-02   4.2307E-02   7.2046E-04  0.0372
   4.2307E-02   4.3337E-02   6.9752E-04  0.0373
   4.3337E-02   4.4391E-02   6.5629E-04  0.0380
   4.4391E-02   4.5471E-02   6.3607E-04  0.0382
   4.5471E-02   4.6577E-02   6.2639E-04  0.0380
   4.6577E-02   4.7711E-02   6.2121E-04  0.0377
   4.7711E-02   4.8871E-02   6.2283E-04  0.0372
   4.8871E-02   5.0061E-02   6.0677E-04  0.0372
   5.0061E-02   5.1279E-02   6.0016E-04  0.0370
   5.1279E-02   5.2526E-02   6.3159E-04  0.0356
   5.2526E-02   5.3804E-02   5.5751E-04  0.0375
   5.3804E-02   5.5113E-02   5.5534E-04  0.0371
   5.5113E-02   5.6454E-02   5.4663E-04  0.0369
   5.6454E-02   5.7828E-02   5.4165E-04  0.0367
   5.7828E-02   5.9235E-02   5.4549E-04  0.0361
   5.9235E-02   6.0676E-02   5.6202E-04  0.0351
   6.0676E-02   6.2152E-02   5.0261E-04  0.0367
   6.2152E-02   6.3665E-02   5.0324E-04  0.0362
   6.3665E-02   6.5214E-02   5.0936E-04  0.0356
   6.5214E-02   6.6800E-02   5.1049E-04  0.0351
   6.6800E-02   6.8426E-02   5.2606E-04  0.0342
   6.8426E-02   7.0090E-02   5.0215E-04  0.0346
   7.0090E-02   7.1796E-02   4.8260E-04  0.0349
   7.1796E-02   7.3543E-02   4.6426E-04  0.0351
   7.3543E-02   7.5332E-02   5.0242E-04  0.0334
   7.5332E-02   7.7165E-02   5.0030E-04  0.0330
   7.7165E-02   7.9042E-02   4.4155E-04  0.0347
   7.9042E-02   8.0965E-02   4.4250E-04  0.0343
   8.0965E-02   8.2935E-02   4.6295E-04  0.0331
   8.2935E-02   8.4953E-02   4.1479E-04  0.0346
   8.4953E-02   8.7020E-02   4.4606E-04  0.0329
   8.7020E-02   8.9138E-02   4.3405E-04  0.0330
   8.9138E-02   9.1306E-02   4.1867E-04  0.0332
   9.1306E-02   9.3528E-02   4.2785E-04  0.0324
   9.3528E-02   9.5804E-02   3.9638E-04  0.0333
   9.5804E-02   9.8134E-02   4.0713E-04  0.0325
   9.8134E-02   1.0052E-01   4.0960E-04  0.0320
   1.0052E-01   1.0297E-01   3.7391E-04  0.0331
   1.0297E-01   1.0547E-01   3.9117E-04  0.0319
   1.0547E-01   1.0804E-01   3.8500E-04  0.0318
   1.0804E-01   1.1067E-01   3.8080E-04  0.0316
   1.1067E-01   1.1336E-01   3.5894E-04  0.0322
   1.1336E-01   1.1612E-01   3.5966E-04  0.0318
   1.1612E-01   1.1894E-01   3.3731E-04  0.0324
   1.1894E-01   1.2184E-01   3.6282E-04  0.0309
   1.2184E-01   1.2480E-01   3.5353E-04  0.0309
   1.2480E-01   1.2784E-01   3.4743E-04  0.0308
   1.2784E-01   1.3095E-01   3.4465E-04  0.0305
   1.3095E-01   1.3414E-01   3.2704E-04  0.0310
   1.3414E-01   1.3740E-01   3.3429E-04  0.0303
   1.3740E-01   1.4074E-01   3.2037E-04  0.0306
   1.4074E-01   1.4417E-01   3.2152E-04  0.0301
   1.4417E-01   1.4767E-01   3.1417E-04  0.0301
   1.4767E-01   1.5127E-01   3.1032E-04  0.0299
   1.5127E-01   1.5495E-01   3.0594E-04  0.0298
   1.5495E-01   1.5872E-01   2.8302E-04  0.0306
   1.5872E-01   1.6258E-01   2.8226E-04  0.0303
   1.6258E-01   1.6654E-01   2.8339E-04  0.0299
   1.6654E-01   1.7059E-01   2.6531E-04  0.0305
   1.7059E-01   1.7474E-01   2.8888E-04  0.0289
   1.7474E-01   1.7899E-01   2.7684E-04  0.0291
   1.7899E-01   1.8334E-01   2.8198E-04  0.0285
   1.8334E-01   1.8781E-01   2.7461E-04  0.0286
   1.8781E-01   1.9237E-01   2.6327E-04  0.0288
   1.9237E-01   1.9706E-01   2.7272E-04  0.0280
   1.9706E-01   2.0185E-01   2.5602E-04  0.0285
   2.0185E-01   2.0676E-01   2.5371E-04  0.0283
   2.0676E-01   2.1179E-01   2.4172E-04  0.0287
   2.1179E-01   2.1694E-01   2.4180E-04  0.0283
   2.1694E-01   2.2222E-01   2.2886E-04  0.0288
   2.2222E-01   2.2763E-01   2.2786E-04  0.0285
   2.2763E-01   2.3317E-01   2.3472E-04  0.0277
   2.3317E-01   2.3884E-01   2.2950E-04  0.0277
   2.3884E-01   2.4465E-01   2.2732E-04  0.0275
   2.4465E-01   2.5061E-01   2.1201E-04  0.0281
   2.5061E-01   2.5670E-01   2.1370E-04  0.0277
   2.5670E-01   2.6295E-01   2.1374E-04  0.0274
   2.6295E-01   2.6935E-01   2.0867E-04  0.0274
   2.6935E-01   2.7590E-01   2.0280E-04  0.0274
   2.7590E-01   2.8261E-01   1.9991E-04  0.0273
   2.8261E-01   2.8949E-01   1.9851E-04  0.0271
   2.8949E-01   2.9653E-01   1.9848E-04  0.0267
   2.9653E-01   3.0375E-01   1.9515E-04  0.0267
   3.0375E-01   3.1114E-01   1.8538E-04  0.0270
   3.1114E-01   3.1871E-01   1.8520E-04  0.0267
   3.1871E-01   3.2646E-01   1.8544E-04  0.0264
   3.2646E-01   3.3441E-01   1.6794E-04  0.0274
   3.3441E-01   3.4254E-01   1.7600E-04  0.0264
   3.4254E-01   3.5088E-01   1.7218E-04  0.0264
   3.5088E-01   3.5941E-01   1.6053E-04  0.0270
   3.5941E-01   3.6816E-01   1.6833E-04  0.0261
   3.6816E-01   3.7712E-01   1.6076E-04  0.0264
   3.7712E-01   3.8629E-01   1.5269E-04  0.0267
   3.8629E-01   3.9569E-01   1.5949E-04  0.0258
   3.9569E-01   4.0532E-01   1.5123E-04  0.0262
   4.0532E-01   4.1518E-01   1.5586E-04  0.0255
   4.1518E-01   4.2528E-01   1.4800E-04  0.0259
   4.2528E-01   4.3563E-01   1.4235E-04  0.0261
   4.3563E-01   4.4623E-01   1.3227E-04  0.0267
   4.4623E-01   4.5708E-01   1.4065E-04  0.0256
   4.5708E-01   4.6821E-01   1.4063E-04  0.0253
   4.6821E-01   4.7960E-01   1.3062E-04  0.0259
   4.7960E-01   4.9127E-01   1.2940E-04  0.0257
   4.9127E-01   5.0322E-01   1.2599E-04  0.0258
   5.0322E-01   5.1546E-01   1.2749E-04  0.0253
   5.1546E-01   5.2800E-01   1.2295E-04  0.0255
   5.2800E-01   5.4085E-01   1.1583E-04  0.0259
   5.4085E-01   5.5401E-01   1.1741E-04  0.0254
   5.5401E-01   5.6749E-01   1.1410E-04  0.0255
   5.6749E-01   5.8130E-01   1.1001E-04  0.0257
   5.8130E-01   5.9544E-01   1.0754E-04  0.0256
   5.9544E-01   6.0993E-01   1.0298E-04  0.0259
   6.0993E-01   6.2477E-01   1.0172E-04  0.0257
   6.2477E-01   6.3997E-01   9.3546E-05  0.0265
   6.3997E-01   6.5554E-01   9.9287E-05  0.0254
   6.5554E-01   6.7149E-01   9.2728E-05  0.0260
   6.7149E-01   6.8783E-01   9.1811E-05  0.0258
   6.8783E-01   7.0456E-01   8.6583E-05  0.0263
   7.0456E-01   7.2171E-01   8.4118E-05  0.0263
   7.2171E-01   7.3927E-01   8.2689E-05  0.0262
   7.3927E-01   7.5725E-01   8.0503E-05  0.0263
   7.5725E-01   7.7568E-01   7.8536E-05  0.0263
   7.7568E-01   7.9455E-01   7.2485E-05  0.0270
   7.9455E-01   8.1388E-01   7.2212E-05  0.0268
   8.1388E-01   8.3368E-01   6.7972E-05  0.0273
   8.3368E-01   8.5397E-01   6.7195E-05  0.0271
   8.5397E-01   8.7475E-01   6.6706E-05  0.0269
   8.7475E-01   8.9603E-01   6.4323E-05  0.0270
   8.9603E-01   9.1783E-01   5.7658E-05  0.0282
   9.1783E-01   9.4016E-01   5.7542E-05  0.0279
   9.4016E-01   9.6304E-01   5.4120E-05  0.0284
   9.6304E-01   9.8647E-01   5.0786E-05  0.0290
   9.8647E-01   1.0105E+00   4.8622E-05  0.0293
   1.0105E+00   1.0351E+00   4.7386E-05  0.0293
   1.0351E+00   1.0602E+00   4.9238E-05  0.0284
   1.0602E+00   1.0860E+00   5.0394E-05  0.0278
   1.0860E+00   1.1125E+00   5.2452E-05  0.0269
   1.1125E+00   1.1395E+00   5.5584E-05  0.0258
   1.1395E+00   1.1673E+00   5.6698E-05  0.0252
   1.1673E+00   1.1957E+00   5.7957E-05  0.0246
   1.1957E+00   1.2247E+00   5.3521E-05  0.0253
   1.2247E+00   1.2545E+00   5.4599E-05  0.0248
   1.2545E+00   1.2851E+00   6.1394E-05  0.0231
   1.2851E+00   1.3163E+00   5.4211E-05  0.0243
   1.3163E+00   1.3484E+00   5.7263E-05  0.0234
   1.3484E+00   1.3812E+00   5.9165E-05  0.0227
   1.3812E+00   1.4148E+00   6.1271E-05  0.0220
   1.4148E+00   1.4492E+00   5.9612E-05  0.0221
   1.4492E+00   1.4845E+00   5.9586E-05  0.0218
   1.4845E+00   1.5206E+00   5.8669E-05  0.0217
   1.5206E+00   1.5576E+00   5.9194E-05  0.0214
   1.5576E+00   1.5955E+00   6.0796E-05  0.0208
   1.5955E+00   1.6343E+00   6.1027E-05  0.0205
   1.6343E+00   1.6741E+00   5.9602E-05  0.0205
   1.6741E+00   1.7148E+00   5.9463E-05  0.0203
   1.7148E+00   1.7565E+00   6.2126E-05  0.0196
   1.7565E+00   1.7992E+00   6.0931E-05  0.0196
   1.7992E+00   1.8430E+00   5.9209E-05  0.0196
   1.8430E+00   1.8879E+00   5.8561E-05  0.0195
   1.8879E+00   1.9338E+00   5.8215E-05  0.0193
   1.9338E+00   1.9808E+00   5.9383E-05  0.0189
   1.9808E+00   2.0290E+00   5.4030E-05  0.0196
   2.0290E+00   2.0784E+00   5.7193E-05  0.0188
   2.0784E+00   2.1290E+00   5.4757E-05  0.0190
   2.1290E+00   2.1808E+00   5.4865E-05  0.0188
   2.1808E+00   2.2338E+00   5.3637E-05  0.0188
   2.2338E+00   2.2882E+00   5.1517E-05  0.0189
   2.2882E+00   2.3439E+00   5.0886E-05  0.0188
   2.3439E+00   2.4009E+00   5.2115E-05  0.0183
   2.4009E+00   2.4593E+00   5.0517E-05  0.0184
   2.4593E+00   2.5191E+00   4.8031E-05  0.0187
   2.5191E+00   2.5804E+00   4.7102E-05  0.0186
   2.5804E+00   2.6432E+00   4.5736E-05  0.0187
   2.6432E+00   2.7075E+00   4.4129E-05  0.0188
   2.7075E+00   2.7734E+00   4.1897E-05  0.0190
   2.7734E+00   2.8409E+00   4.2843E-05  0.0186
   2.8409E+00   2.9100E+00   4.0928E-05  0.0188
   2.9100E+00   2.9808E+00   4.0126E-05  0.0188
   2.9808E+00   3.0533E+00   3.8655E-05  0.0189
   3.0533E+00   3.1276E+00   3.7946E-05  0.0188
   3.1276E+00   3.2037E+00   3.7899E-05  0.0186
   3.2037E+00   3.2817E+00   3.5870E-05  0.0189
   3.2817E+00   3.3615E+00   3.4191E-05  0.0191
   3.3615E+00   3.4433E+00   3.2119E-05  0.0195
   3.4433E+00   3.5271E+00   3.2037E-05  0.0193
   3.5271E+00   3.6129E+00   3.1789E-05  0.0191
   3.6129E+00   3.7008E+00   2.9805E-05  0.0195
   3.7008E+00   3.7908E+00   2.8731E-05  0.0197
   3.7908E+00   3.8831E+00   2.8612E-05  0.0195
   3.8831E+00   3.9776E+00   2.7943E-05  0.0195
   3.9776E+00   4.0743E+00   2.5771E-05  0.0200
   4.0743E+00   4.1735E+00   2.4483E-05  0.0203
   4.1735E+00   4.2750E+00   2.4689E-05  0.0200
   4.2750E+00   4.3790E+00   2.3035E-05  0.0204
   4.3790E+00   4.4856E+00   2.1840E-05  0.0207
   4.4856E+00   4.5947E+00   2.1743E-05  0.0205
   4.5947E+00   4.7065E+00   2.1280E-05  0.0205
   4.7065E+00   4.8210E+00   1.9631E-05  0.0211
   4.8210E+00   4.9383E+00   1.9318E-05  0.0210
   4.9383E+00   5.0585E+00   1.8818E-05  0.0210
   5.0585E+00   5.1815E+00   1.8338E-05  0.0210
   5.1815E+00   5.3076E+00   1.7807E-05  0.0211
   5.3076E+00   5.4368E+00   1.6966E-05  0.0214
   5.4368E+00   5.5690E+00   1.6541E-05  0.0214
   5.5690E+00   5.7045E+00   1.5727E-05  0.0217
   5.7045E+00   5.8433E+00   1.5022E-05  0.0219
   5.8433E+00   5.9855E+00   1.5583E-05  0.0212
   5.9855E+00   6.1311E+00   1.4794E-05  0.0215
   6.1311E+00   6.2803E+00   1.4285E-05  0.0217
   6.2803E+00   6.4331E+00   1.4073E-05  0.0216
   6.4331E+00   6.5896E+00   1.3107E-05  0.0221
   6.5896E+00   6.7500E+00   1.3154E-05  0.0218
   6.7500E+00   6.9142E+00   1.3201E-05  0.0215
   6.9142E+00   7.0824E+00   1.3072E-05  0.0213
   7.0824E+00   7.2548E+00   1.3324E-05  0.0209
   7.2548E+00   7.4313E+00   1.2908E-05  0.0209
   7.4313E+00   7.6121E+00   1.2699E-05  0.0209
   7.6121E+00   7.7973E+00   1.2562E-05  0.0207
   7.7973E+00   7.9870E+00   1.3149E-05  0.0200
   7.9870E+00   8.1813E+00   1.2981E-05  0.0199
   8.1813E+00   8.3804E+00   1.2647E-05  0.0199
   8.3804E+00   8.5843E+00   1.2734E-05  0.0196
   8.5843E+00   8.7931E+00   1.3028E-05  0.0192
   8.7931E+00   9.0071E+00   1.2693E-05  0.0192
   9.0071E+00   9.2262E+00   1.2758E-05  0.0189
   9.2262E+00   9.4507E+00   1.2894E-05  0.0186
   9.4507E+00   9.6807E+00   1.3021E-05  0.0183
   9.6807E+00   9.9162E+00   1.3371E-05  0.0178
   9.9162E+00   1.0157E+01   1.3680E-05  0.0174
   1.0157E+01   1.0405E+01   1.3553E-05  0.0172
   1.0405E+01   1.0658E+01   1.3962E-05  0.0168
   1.0658E+01   1.0917E+01   1.4409E-05  0.0163
   1.0917E+01   1.1183E+01   1.3933E-05  0.0164
   1.1183E+01   1.1455E+01   1.4418E-05  0.0159
   1.1455E+01   1.1733E+01   1.4490E-05  0.0157
   1.1733E+01   1.2019E+01   1.4622E-05  0.0154
   1.2019E+01   1.2311E+01   1.4689E-05  0.0152
   1.2311E+01   1.2611E+01   1.5024E-05  0.0149
   1.2611E+01   1.2918E+01   1.5241E-05  0.0146
   1.2918E+01   1.3232E+01   1.5356E-05  0.0144
   1.3232E+01   1.3554E+01   1.5711E-05  0.0140
   1.3554E+01   1.3884E+01   1.5394E-05  0.0140
   1.3884E+01   1.4222E+01   1.5802E-05  0.0137
   1.4222E+01   1.4568E+01   1.5534E-05  0.0136
   1.4568E+01   1.4922E+01   1.6045E-05  0.0133
   1.4922E+01   1.5285E+01   1.5997E-05  0.0131
   1.5285E+01   1.5657E+01   1.6437E-05  0.0128
   1.5657E+01   1.6038E+01   1.6223E-05  0.0127
   1.6038E+01   1.6428E+01   1.6108E-05  0.0126
   1.6428E+01   1.6828E+01   1.6213E-05  0.0124
   1.6828E+01   1.7237E+01   1.6213E-05  0.0123
   1.7237E+01   1.7657E+01   1.6450E-05  0.0120
   1.7657E+01   1.8086E+01   1.6648E-05  0.0118
   1.8086E+01   1.8526E+01   1.6157E-05  0.0119
   1.8526E+01   1.8977E+01   1.6163E-05  0.0117
   1.8977E+01   1.9439E+01   1.6164E-05  0.0116
   1.9439E+01   1.9912E+01   1.5693E-05  0.0116
   1.9912E+01   2.0396E+01   2.9405E-05  0.0084
   2.0396E+01   2.0893E+01   3.2296E-05  0.0079
   2.0893E+01   2.1401E+01   3.1098E-05  0.0080
   2.1401E+01   2.1922E+01   3.0092E-05  0.0080
   2.1922E+01   2.2455E+01   2.8925E-05  0.0081
   2.2455E+01   2.3001E+01   2.7966E-05  0.0081
   2.3001E+01   2.3561E+01   2.6622E-05  0.0082
   2.3561E+01   2.4134E+01   2.6041E-05  0.0082
   2.4134E+01   2.4721E+01   2.4523E-05  0.0083
   2.4721E+01   2.5323E+01   2.3741E-05  0.0084
   2.5323E+01   2.5939E+01   2.2862E-05  0.0084
   2.5939E+01   2.6570E+01   2.1364E-05  0.0086
   2.6570E+01   2.7217E+01   2.0287E-05  0.0087
   2.7217E+01   2.7879E+01   1.9594E-05  0.0088
   2.7879E+01   2.8557E+01   1.8559E-05  0.0089
   2.8557E+01   2.9252E+01   1.7347E-05  0.0091
   2.9252E+01   2.9964E+01   1.6540E-05  0.0092
   2.9964E+01   3.0693E+01   1.5375E-05  0.0094
   3.0693E+01   3.1440E+01   1.4449E-05  0.0096
   3.1440E+01   3.2205E+01   1.3685E-05  0.0098
   3.2205E+01   3.2988E+01   1.2450E-05  0.0101
   3.2988E+01   3.3791E+01   1.1825E-05  0.0103
   3.3791E+01   3.4613E+01   1.0912E-05  0.0106
   3.4613E+01   3.5455E+01   1.0024E-05  0.0109
   3.5455E+01   3.6318E+01   9.2506E-06  0.0112
   3.6318E+01   3.7201E+01   8.4299E-06  0.0116
   3.7201E+01   3.8106E+01   7.9789E-06  0.0118
   3.8106E+01   3.9034E+01   7.2717E-06  0.0122
   3.9034E+01   3.9983E+01   6.5588E-06  0.0127
   3.9983E+01   4.0956E+01   5.8376E-06  0.0133
   4.0956E+01   4.1953E+01   5.3839E-06  0.0137
   4.1953E+01   4.2973E+01   4.8553E-06  0.0142
   4.2973E+01   4.4019E+01   4.2895E-06  0.0149
   4.4019E+01   4.5090E+01   3.9346E-06  0.0154
   4.5090E+01   4.6187E+01   3.5276E-06  0.0161
   4.6187E+01   4.7311E+01   3.2017E-06  0.0167
   4.7311E+01   4.8462E+01   2.6861E-06  0.0180
   4.8462E+01   4.9641E+01   2.4332E-06  0.0187
   4.9641E+01   5.0849E+01   2.0450E-06  0.0201
   5.0849E+01   5.2086E+01   1.8073E-06  0.0211
   5.2086E+01   5.3353E+01   1.4953E-06  0.0230
   5.3353E+01   5.4651E+01   1.3620E-06  0.0238
   5.4651E+01   5.5981E+01   1.1401E-06  0.0257
   5.5981E+01   5.7343E+01   1.0212E-06  0.0268
   5.7343E+01   5.8738E+01   8.3787E-07  0.0292
   5.8738E+01   6.0168E+01   7.1441E-07  0.0313
   6.0168E+01   6.1632E+01   5.7038E-07  0.0346
   6.1632E+01   6.3131E+01   4.2013E-07  0.0398
   6.3131E+01   6.4667E+01   3.6913E-07  0.0420
   6.4667E+01   6.6240E+01   3.2732E-07  0.0441
   6.6240E+01   6.7852E+01   2.5129E-07  0.0497
   6.7852E+01   6.9503E+01   2.3381E-07  0.0509
   6.9503E+01   7.1194E+01   1.6735E-07  0.0594
   7.1194E+01   7.2926E+01   1.2008E-07  0.0693
   7.2926E+01   7.4701E+01   8.6228E-08  0.0808
   7.4701E+01   7.6518E+01   6.4373E-08  0.0925
   7.6518E+01   7.8380E+01   5.1027E-08  0.1026
   7.8380E+01   8.0287E+01   4.2998E-08  0.1104
   8.0287E+01   8.2240E+01   2.2524E-08  0.1508
   8.2240E+01   8.4241E+01   2.0490E-08  0.1562
   8.4241E+01   8.6291E+01   1.0733E-08  0.2132
   8.6291E+01   8.8391E+01   7.1445E-09  0.2582
   8.8391E+01   9.0541E+01   5.5798E-09  0.2887
   9.0541E+01   9.2744E+01   1.3618E-09  0.5774
   9.2744E+01   9.5001E+01   8.8631E-10  0.7071
   9.5001E+01   9.7312E+01   0.0000E+00  0.0000
   9.7312E+01   9.9680E+01   0.0000E+00  0.0000
   9.9680E+01   1.0211E+02   0.0000E+00  0.0000
   1.0211E+02   1.0459E+02   0.0000E+00  0.0000
   1.0459E+02   1.0713E+02   0.0000E+00  0.0000
   1.0713E+02   1.0974E+02   0.0000E+00  0.0000
   1.0974E+02   1.1241E+02   0.0000E+00  0.0000
   1.1241E+02   1.1515E+02   0.0000E+00  0.0000
   1.1515E+02   1.1795E+02   0.0000E+00  0.0000
   1.1795E+02   1.2082E+02   0.0000E+00  0.0000
   1.2082E+02   1.2376E+02   0.0000E+00  0.0000
   1.2376E+02   1.2677E+02   0.0000E+00  0.0000
   1.2677E+02   1.2985E+02   0.0000E+00  0.0000
   1.2985E+02   1.3301E+02   0.0000E+00  0.0000
   1.3301E+02   1.3625E+02   0.0000E+00  0.0000
   1.3625E+02   1.3956E+02   0.0000E+00  0.0000
   1.3956E+02   1.4296E+02   0.0000E+00  0.0000
   1.4296E+02   1.4644E+02   0.0000E+00  0.0000
   1.4644E+02   1.5000E+02   0.0000E+00  0.0000

#   sum over                 6.4698E-06
'no. =    1   reg = 113 - 213'
msuc: {\huge [t-cross] in region mesh}
msdr: {\it plotted by \ANGEL \version}
msdl: {\it calculated by \PHITS  3.26}
wt: s(0.7)
\vspace{-3}
  region surface crossing
  area  &=&   1.0000E+00 [cm^2]
e:
 
# Information for Restart Calculation
# This calculation was newly started
# istdev =  2 # 1:Batch variance, 2:History variance
# resc2  = 1.00000000000000000E+09 # Total source weight or Total source weight / maxcas
# resc3  = 1.00000000000000000E+09 # Total history number or Total batch number
# maxcas =   500000000 # History / Batch, only used for istdev=1
# bitrseed = 0001001110011001001001110000100100110111001111011100001000101100 # bit data of rseed
