[ T-Cross ]
    title = [t-cross] in region mesh
     mesh =  reg            # mesh type is region-wise
      reg =    1            # number of crossing regions
      non     r-from    r-to       area
      1       104       204        1.000000    
   e-type =    3            # e-mesh is log given by emin, emax and ne
     emin =  1.0000000E-02  # minimum value of e-mesh points
     emax =   150.0000      # maximum value of e-mesh points
#    edel =  2.4039514E-02  # mesh width of e-mesh points
       ne =    400          # number of e-mesh points
#    data = ( e(i), i = 1, ne + 1 )
#           1.00000E-02  1.02433E-02  1.04925E-02  1.07478E-02  1.10093E-02
#           1.12772E-02  1.15516E-02  1.18326E-02  1.21205E-02  1.24154E-02
#           1.27175E-02  1.30269E-02  1.33439E-02  1.36686E-02  1.40011E-02
#           1.43418E-02  1.46907E-02  1.50482E-02  1.54143E-02  1.57894E-02
#           1.61735E-02  1.65670E-02  1.69701E-02  1.73830E-02  1.78060E-02
#           1.82392E-02  1.86830E-02  1.91375E-02  1.96032E-02  2.00801E-02
#           2.05687E-02  2.10692E-02  2.15818E-02  2.21069E-02  2.26448E-02
#           2.31957E-02  2.37601E-02  2.43382E-02  2.49304E-02  2.55369E-02
#           2.61583E-02  2.67947E-02  2.74467E-02  2.81145E-02  2.87985E-02
#           2.94992E-02  3.02169E-02  3.09521E-02  3.17052E-02  3.24766E-02
#           3.32668E-02  3.40762E-02  3.49053E-02  3.57546E-02  3.66246E-02
#           3.75157E-02  3.84284E-02  3.93634E-02  4.03212E-02  4.13022E-02
#           4.23071E-02  4.33365E-02  4.43909E-02  4.54710E-02  4.65773E-02
#           4.77106E-02  4.88714E-02  5.00605E-02  5.12785E-02  5.25262E-02
#           5.38042E-02  5.51133E-02  5.64542E-02  5.78278E-02  5.92348E-02
#           6.06760E-02  6.21523E-02  6.36645E-02  6.52135E-02  6.68002E-02
#           6.84255E-02  7.00904E-02  7.17957E-02  7.35426E-02  7.53319E-02
#           7.71648E-02  7.90423E-02  8.09655E-02  8.29354E-02  8.49533E-02
#           8.70203E-02  8.91376E-02  9.13064E-02  9.35279E-02  9.58035E-02
#           9.81345E-02  1.00522E-01  1.02968E-01  1.05473E-01  1.08040E-01
#           1.10668E-01  1.13361E-01  1.16119E-01  1.18944E-01  1.21838E-01
#           1.24803E-01  1.27839E-01  1.30950E-01  1.34136E-01  1.37399E-01
#           1.40742E-01  1.44167E-01  1.47675E-01  1.51268E-01  1.54948E-01
#           1.58718E-01  1.62580E-01  1.66535E-01  1.70587E-01  1.74738E-01
#           1.78989E-01  1.83344E-01  1.87805E-01  1.92375E-01  1.97055E-01
#           2.01850E-01  2.06761E-01  2.11792E-01  2.16945E-01  2.22223E-01
#           2.27630E-01  2.33169E-01  2.38842E-01  2.44653E-01  2.50605E-01
#           2.56703E-01  2.62949E-01  2.69346E-01  2.75900E-01  2.82613E-01
#           2.89489E-01  2.96532E-01  3.03747E-01  3.11138E-01  3.18708E-01
#           3.26462E-01  3.34405E-01  3.42542E-01  3.50876E-01  3.59413E-01
#           3.68158E-01  3.77116E-01  3.86291E-01  3.95690E-01  4.05317E-01
#           4.15179E-01  4.25281E-01  4.35628E-01  4.46227E-01  4.57084E-01
#           4.68205E-01  4.79597E-01  4.91266E-01  5.03219E-01  5.15463E-01
#           5.28005E-01  5.40851E-01  5.54011E-01  5.67490E-01  5.81298E-01
#           5.95441E-01  6.09929E-01  6.24769E-01  6.39970E-01  6.55541E-01
#           6.71491E-01  6.87828E-01  7.04564E-01  7.21706E-01  7.39266E-01
#           7.57253E-01  7.75678E-01  7.94551E-01  8.13883E-01  8.33685E-01
#           8.53969E-01  8.74747E-01  8.96030E-01  9.17831E-01  9.40163E-01
#           9.63038E-01  9.86469E-01  1.01047E+00  1.03506E+00  1.06024E+00
#           1.08604E+00  1.11246E+00  1.13953E+00  1.16725E+00  1.19565E+00
#           1.22474E+00  1.25454E+00  1.28507E+00  1.31633E+00  1.34836E+00
#           1.38117E+00  1.41477E+00  1.44920E+00  1.48446E+00  1.52057E+00
#           1.55757E+00  1.59547E+00  1.63429E+00  1.67405E+00  1.71478E+00
#           1.75650E+00  1.79924E+00  1.84302E+00  1.88786E+00  1.93379E+00
#           1.98084E+00  2.02904E+00  2.07841E+00  2.12898E+00  2.18078E+00
#           2.23384E+00  2.28819E+00  2.34386E+00  2.40089E+00  2.45930E+00
#           2.51914E+00  2.58043E+00  2.64322E+00  2.70753E+00  2.77341E+00
#           2.84088E+00  2.91001E+00  2.98081E+00  3.05333E+00  3.12762E+00
#           3.20372E+00  3.28167E+00  3.36152E+00  3.44330E+00  3.52708E+00
#           3.61290E+00  3.70080E+00  3.79085E+00  3.88308E+00  3.97756E+00
#           4.07434E+00  4.17347E+00  4.27501E+00  4.37903E+00  4.48557E+00
#           4.59471E+00  4.70650E+00  4.82102E+00  4.93832E+00  5.05847E+00
#           5.18155E+00  5.30762E+00  5.43676E+00  5.56904E+00  5.70453E+00
#           5.84333E+00  5.98550E+00  6.13114E+00  6.28031E+00  6.43312E+00
#           6.58964E+00  6.74997E+00  6.91420E+00  7.08243E+00  7.25475E+00
#           7.43126E+00  7.61207E+00  7.79728E+00  7.98700E+00  8.18133E+00
#           8.38038E+00  8.58428E+00  8.79315E+00  9.00709E+00  9.22624E+00
#           9.45072E+00  9.68067E+00  9.91620E+00  1.01575E+01  1.04046E+01
#           1.06578E+01  1.09171E+01  1.11827E+01  1.14548E+01  1.17335E+01
#           1.20190E+01  1.23114E+01  1.26109E+01  1.29178E+01  1.32321E+01
#           1.35540E+01  1.38838E+01  1.42216E+01  1.45676E+01  1.49221E+01
#           1.52851E+01  1.56570E+01  1.60380E+01  1.64282E+01  1.68279E+01
#           1.72374E+01  1.76568E+01  1.80864E+01  1.85264E+01  1.89772E+01
#           1.94389E+01  1.99119E+01  2.03963E+01  2.08926E+01  2.14009E+01
#           2.19216E+01  2.24550E+01  2.30014E+01  2.35610E+01  2.41343E+01
#           2.47215E+01  2.53230E+01  2.59391E+01  2.65702E+01  2.72167E+01
#           2.78789E+01  2.85572E+01  2.92520E+01  2.99637E+01  3.06928E+01
#           3.14396E+01  3.22045E+01  3.29881E+01  3.37907E+01  3.46128E+01
#           3.54550E+01  3.63177E+01  3.72013E+01  3.81064E+01  3.90336E+01
#           3.99833E+01  4.09561E+01  4.19526E+01  4.29734E+01  4.40189E+01
#           4.50900E+01  4.61870E+01  4.73108E+01  4.84619E+01  4.96410E+01
#           5.08488E+01  5.20860E+01  5.33533E+01  5.46514E+01  5.59812E+01
#           5.73432E+01  5.87384E+01  6.01676E+01  6.16315E+01  6.31311E+01
#           6.46671E+01  6.62405E+01  6.78522E+01  6.95031E+01  7.11941E+01
#           7.29263E+01  7.47007E+01  7.65182E+01  7.83800E+01  8.02870E+01
#           8.22405E+01  8.42414E+01  8.62911E+01  8.83906E+01  9.05412E+01
#           9.27442E+01  9.50007E+01  9.73122E+01  9.96799E+01  1.02105E+02
#           1.04589E+02  1.07134E+02  1.09741E+02  1.12411E+02  1.15146E+02
#           1.17948E+02  1.20817E+02  1.23757E+02  1.26768E+02  1.29852E+02
#           1.33012E+02  1.36248E+02  1.39563E+02  1.42959E+02  1.46437E+02
#           1.50000E+02
     unit =    2            # unit is [1/cm^2/(MeV/n)/source]
     axis =  eng            # axis of output
     file = detector-05.out  # file name of output for the above axis
   output = f-curr          # surface crossing forward current spectrum
     part =  neutron  
# kf/name :  2112     
#    used :        main (  %)        temp (  %)       total (  %)
#  memory :         414 (  0)           0 (  0)         414 (  0)

#------------------------------------------------------------------------------
#newpage:
#   no. =    1   reg = 104 - 204

x: Energy [MeV/n]
y:  F-Curr [1/cm^2/(MeV/n)/source]         
p: xlog ylog afac(0.8) form(0.9)
h: n            x            y(neutron ),hh0l   n 
#  e-lower      e-upper      neutron     r.err 
   1.0000E-02   1.0243E-02   6.1650E-06  0.5774
   1.0243E-02   1.0493E-02   4.0124E-06  0.7071
   1.0493E-02   1.0748E-02   3.9171E-06  0.7071
   1.0748E-02   1.1009E-02   1.3384E-05  0.3780
   1.1009E-02   1.1277E-02   1.3066E-05  0.3780
   1.1277E-02   1.1552E-02   7.2891E-06  0.5000
   1.1552E-02   1.1833E-02   5.3370E-06  0.5774
   1.1833E-02   1.2121E-02   1.2157E-05  0.3780
   1.2121E-02   1.2415E-02   8.4774E-06  0.4472
   1.2415E-02   1.2718E-02   3.3104E-06  0.7071
   1.2718E-02   1.3027E-02   4.8477E-06  0.5774
   1.3027E-02   1.3344E-02   1.2620E-05  0.3536
   1.3344E-02   1.3669E-02   6.1601E-06  0.5000
   1.3669E-02   1.4001E-02   7.5173E-06  0.4472
   1.4001E-02   1.4342E-02   1.0274E-05  0.3780
   1.4342E-02   1.4691E-02   4.2986E-06  0.5774
   1.4691E-02   1.5048E-02   5.5954E-06  0.5000
   1.5048E-02   1.5414E-02   6.8281E-06  0.4472
   1.5414E-02   1.5789E-02   1.0665E-05  0.3536
   1.5789E-02   1.6174E-02   1.0412E-05  0.3536
   1.6174E-02   1.6567E-02   3.8118E-06  0.5774
   1.6567E-02   1.6970E-02   7.4425E-06  0.4082
   1.6970E-02   1.7383E-02   1.3321E-05  0.3015
   1.7383E-02   1.7806E-02   1.0640E-05  0.3333
   1.7806E-02   1.8239E-02   9.2329E-06  0.3536
   1.8239E-02   1.8683E-02   9.0136E-06  0.3536
   1.8683E-02   1.9138E-02   8.7995E-06  0.3536
   1.9138E-02   1.9603E-02   4.2952E-06  0.5000
   1.9603E-02   2.0080E-02   5.2415E-06  0.4472
   2.0080E-02   2.0569E-02   3.0702E-06  0.5774
   2.0569E-02   2.1069E-02   7.9928E-06  0.3536
   2.1069E-02   2.1582E-02   1.8532E-05  0.2294
   2.1582E-02   2.2107E-02   7.6176E-06  0.3536
   2.2107E-02   2.2645E-02   7.4366E-06  0.3536
   2.2645E-02   2.3196E-02   5.5755E-06  0.3994
   2.3196E-02   2.3760E-02   5.3157E-06  0.4082
   2.3760E-02   2.4338E-02   9.5139E-06  0.3015
   2.4338E-02   2.4930E-02   5.9105E-06  0.3780
   2.4930E-02   2.5537E-02   9.8916E-06  0.2887
   2.5537E-02   2.6158E-02   9.6566E-06  0.2887
   2.6158E-02   2.6795E-02   4.7136E-06  0.4082
   2.6795E-02   2.7447E-02   8.4364E-06  0.3015
   2.7447E-02   2.8114E-02   8.2360E-06  0.3015
   2.8114E-02   2.8799E-02   4.3857E-06  0.4082
   2.8799E-02   2.9499E-02   7.8494E-06  0.3015
   2.9499E-02   3.0217E-02   6.2697E-06  0.3333
   3.0217E-02   3.0952E-02   7.4809E-06  0.3015
   3.0952E-02   3.1705E-02   5.3114E-06  0.3536
   3.1705E-02   3.2477E-02   1.0371E-05  0.2500
   3.2477E-02   3.3267E-02   8.2259E-06  0.2774
   3.3267E-02   3.4076E-02   9.2660E-06  0.2582
   3.4076E-02   3.4905E-02   9.6490E-06  0.2500
   3.4905E-02   3.5755E-02   6.4761E-06  0.3015
   3.5755E-02   3.6625E-02   8.6213E-06  0.2582
   3.6625E-02   3.7516E-02   7.8554E-06  0.2673
   3.7516E-02   3.8428E-02   1.1503E-05  0.2182
   3.8428E-02   3.9363E-02   1.0695E-05  0.2236
   3.9363E-02   4.0321E-02   9.9191E-06  0.2294
   4.0321E-02   4.1302E-02   6.6256E-06  0.2774
   4.1302E-02   4.2307E-02   5.4731E-06  0.3015
   4.2307E-02   4.3337E-02   4.3716E-06  0.3333
   4.3337E-02   4.4391E-02   9.4840E-06  0.2236
   4.4391E-02   4.5471E-02   8.7958E-06  0.2294
   4.5471E-02   4.6577E-02   9.0388E-06  0.2236
   4.6577E-02   4.7711E-02   1.1030E-05  0.2000
   4.7711E-02   4.8871E-02   1.0337E-05  0.2041
   4.8871E-02   5.0061E-02   5.8869E-06  0.2673
   5.0061E-02   5.1279E-02   1.1494E-05  0.1890
   5.1279E-02   5.2526E-02   6.0113E-06  0.2582
   5.2526E-02   5.3804E-02   1.0955E-05  0.1890
   5.3804E-02   5.5113E-02   8.7847E-06  0.2085
   5.5113E-02   5.6454E-02   1.0813E-05  0.1857
   5.6454E-02   5.7828E-02   9.1003E-06  0.2000
   5.7828E-02   5.9235E-02   7.4627E-06  0.2182
   5.9235E-02   6.0676E-02   6.2447E-06  0.2357
   6.0676E-02   6.2152E-02   9.8219E-06  0.1857
   6.2152E-02   6.3665E-02   9.2579E-06  0.1890
   6.3665E-02   6.5214E-02   9.6836E-06  0.1826
   6.5214E-02   6.6800E-02   9.1385E-06  0.1857
   6.6800E-02   6.8426E-02   9.5367E-06  0.1796
   6.8426E-02   7.0090E-02   8.4092E-06  0.1890
   7.0090E-02   7.1796E-02   9.3822E-06  0.1768
   7.1796E-02   7.3543E-02   1.0591E-05  0.1644
   7.3543E-02   7.5332E-02   9.5446E-06  0.1708
   7.5332E-02   7.7165E-02   8.7294E-06  0.1768
   7.7165E-02   7.9042E-02   8.5221E-06  0.1768
   7.9042E-02   8.0965E-02   9.8796E-06  0.1622
   8.0965E-02   8.2935E-02   1.0914E-05  0.1525
   8.2935E-02   8.4953E-02   9.9114E-06  0.1581
   8.4953E-02   8.7020E-02   6.7732E-06  0.1890
   8.7020E-02   8.9138E-02   8.9738E-06  0.1622
   8.9138E-02   9.1306E-02   7.6079E-06  0.1741
   9.1306E-02   9.3528E-02   7.2022E-06  0.1768
   9.3528E-02   9.5804E-02   8.7889E-06  0.1581
   9.5804E-02   9.8134E-02   1.1154E-05  0.1387
   9.8134E-02   1.0052E-01   1.0470E-05  0.1414
   1.0052E-01   1.0297E-01   1.1653E-05  0.1325
   1.0297E-01   1.0547E-01   1.0178E-05  0.1400
   1.0547E-01   1.0804E-01   7.9883E-06  0.1562
   1.0804E-01   1.1067E-01   1.1250E-05  0.1299
   1.1067E-01   1.1336E-01   1.1141E-05  0.1291
   1.1336E-01   1.1612E-01   9.7891E-06  0.1361
   1.1612E-01   1.1894E-01   9.5566E-06  0.1361
   1.1894E-01   1.2184E-01   8.4658E-06  0.1429
   1.2184E-01   1.2480E-01   1.1807E-05  0.1195
   1.2480E-01   1.2784E-01   1.1225E-05  0.1210
   1.2784E-01   1.3095E-01   8.8642E-06  0.1345
   1.3095E-01   1.3414E-01   1.0357E-05  0.1231
   1.3414E-01   1.3740E-01   8.8858E-06  0.1313
   1.3740E-01   1.4074E-01   1.0918E-05  0.1170
   1.4074E-01   1.4417E-01   1.0951E-05  0.1155
   1.4417E-01   1.4767E-01   9.9781E-06  0.1195
   1.4767E-01   1.5127E-01   1.0715E-05  0.1140
   1.5127E-01   1.5495E-01   1.2363E-05  0.1048
   1.5495E-01   1.5872E-01   1.2732E-05  0.1021
   1.5872E-01   1.6258E-01   1.1283E-05  0.1070
   1.6258E-01   1.6654E-01   1.1755E-05  0.1037
   1.6654E-01   1.7059E-01   9.3782E-06  0.1147
   1.7059E-01   1.7474E-01   1.2167E-05  0.0995
   1.7474E-01   1.7899E-01   9.5260E-06  0.1111
   1.7899E-01   1.8334E-01   1.2285E-05  0.0967
   1.8334E-01   1.8781E-01   9.9755E-06  0.1060
   1.8781E-01   1.9237E-01   1.0614E-05  0.1015
   1.9237E-01   1.9706E-01   9.6141E-06  0.1054
   1.9706E-01   2.0185E-01   8.5514E-06  0.1104
   2.0185E-01   2.0676E-01   9.2646E-06  0.1048
   2.0676E-01   2.1179E-01   1.0734E-05  0.0962
   2.1179E-01   2.1694E-01   9.0238E-06  0.1037
   2.1694E-01   2.2222E-01   1.1083E-05  0.0925
   2.2222E-01   2.2763E-01   8.4152E-06  0.1048
   2.2763E-01   2.3317E-01   1.0292E-05  0.0937
   2.3317E-01   2.3884E-01   1.0224E-05  0.0928
   2.3884E-01   2.4465E-01   1.0927E-05  0.0887
   2.4465E-01   2.5061E-01   1.0752E-05  0.0884
   2.5061E-01   2.5670E-01   9.9222E-06  0.0909
   2.5670E-01   2.6295E-01   1.0727E-05  0.0864
   2.6295E-01   2.6935E-01   1.0785E-05  0.0851
   2.6935E-01   2.7590E-01   1.2360E-05  0.0786
   2.7590E-01   2.8261E-01   9.5339E-06  0.0884
   2.8261E-01   2.8949E-01   1.1998E-05  0.0778
   2.8949E-01   2.9653E-01   9.5833E-06  0.0861
   2.9653E-01   3.0375E-01   1.0187E-05  0.0825
   3.0375E-01   3.1114E-01   1.3396E-05  0.0711
   3.1114E-01   3.1871E-01   1.1228E-05  0.0767
   3.1871E-01   3.2646E-01   1.1284E-05  0.0756
   3.2646E-01   3.3441E-01   1.1205E-05  0.0750
   3.3441E-01   3.4254E-01   1.1615E-05  0.0727
   3.4254E-01   3.5088E-01   1.0439E-05  0.0758
   3.5088E-01   3.5941E-01   1.1245E-05  0.0722
   3.5941E-01   3.6816E-01   1.1778E-05  0.0697
   3.6816E-01   3.7712E-01   1.0773E-05  0.0720
   3.7712E-01   3.8629E-01   1.2533E-05  0.0659
   3.8629E-01   3.9569E-01   1.1438E-05  0.0682
   3.9569E-01   4.0532E-01   1.1538E-05  0.0671
   4.0532E-01   4.1518E-01   1.1212E-05  0.0672
   4.1518E-01   4.2528E-01   1.1582E-05  0.0654
   4.2528E-01   4.3563E-01   1.1935E-05  0.0636
   4.3563E-01   4.4623E-01   1.0567E-05  0.0668
   4.4623E-01   4.5708E-01   1.2941E-05  0.0597
   4.5708E-01   4.6821E-01   1.0970E-05  0.0640
   4.6821E-01   4.7960E-01   1.1587E-05  0.0615
   4.7960E-01   4.9127E-01   1.2469E-05  0.0586
   4.9127E-01   5.0322E-01   1.3177E-05  0.0563
   5.0322E-01   5.1546E-01   1.2353E-05  0.0575
   5.1546E-01   5.2800E-01   1.3076E-05  0.0552
   5.2800E-01   5.4085E-01   1.3700E-05  0.0533
   5.4085E-01   5.5401E-01   1.2881E-05  0.0543
   5.5401E-01   5.6749E-01   1.2816E-05  0.0538
   5.6749E-01   5.8130E-01   1.3404E-05  0.0520
   5.8130E-01   5.9544E-01   1.3540E-05  0.0511
   5.9544E-01   6.0993E-01   1.4553E-05  0.0487
   6.0993E-01   6.2477E-01   1.2938E-05  0.0510
   6.2477E-01   6.3997E-01   1.2487E-05  0.0513
   6.3997E-01   6.5554E-01   1.3760E-05  0.0483
   6.5554E-01   6.7149E-01   1.3605E-05  0.0480
   6.7149E-01   6.8783E-01   1.3863E-05  0.0470
   6.8783E-01   7.0456E-01   1.4392E-05  0.0455
   7.0456E-01   7.2171E-01   1.4059E-05  0.0455
   7.2171E-01   7.3927E-01   1.4294E-05  0.0446
   7.3927E-01   7.5725E-01   1.3059E-05  0.0461
   7.5725E-01   7.7568E-01   1.4220E-05  0.0437
   7.7568E-01   7.9455E-01   1.4399E-05  0.0429
   7.9455E-01   8.1388E-01   1.4191E-05  0.0427
   8.1388E-01   8.3368E-01   1.3887E-05  0.0426
   8.3368E-01   8.5397E-01   1.4399E-05  0.0414
   8.5397E-01   8.7475E-01   1.4053E-05  0.0414
   8.7475E-01   8.9603E-01   1.4577E-05  0.0401
   8.9603E-01   9.1783E-01   1.3703E-05  0.0409
   9.1783E-01   9.4016E-01   1.4419E-05  0.0394
   9.4016E-01   9.6304E-01   1.3960E-05  0.0396
   9.6304E-01   9.8647E-01   1.4841E-05  0.0379
   9.8647E-01   1.0105E+00   1.3707E-05  0.0390
   1.0105E+00   1.0351E+00   1.4338E-05  0.0376
   1.0351E+00   1.0602E+00   1.5218E-05  0.0361
   1.0602E+00   1.0860E+00   1.5099E-05  0.0358
   1.0860E+00   1.1125E+00   1.5349E-05  0.0351
   1.1125E+00   1.1395E+00   1.6194E-05  0.0338
   1.1395E+00   1.1673E+00   1.6402E-05  0.0332
   1.1673E+00   1.1957E+00   1.5830E-05  0.0333
   1.1957E+00   1.2247E+00   1.5666E-05  0.0331
   1.2247E+00   1.2545E+00   1.5756E-05  0.0326
   1.2545E+00   1.2851E+00   1.5822E-05  0.0322
   1.2851E+00   1.3163E+00   1.6826E-05  0.0308
   1.3163E+00   1.3484E+00   1.6231E-05  0.0310
   1.3484E+00   1.3812E+00   1.5944E-05  0.0309
   1.3812E+00   1.4148E+00   1.6011E-05  0.0305
   1.4148E+00   1.4492E+00   1.4687E-05  0.0314
   1.4492E+00   1.4845E+00   1.6043E-05  0.0297
   1.4845E+00   1.5206E+00   1.6792E-05  0.0287
   1.5206E+00   1.5576E+00   1.7029E-05  0.0282
   1.5576E+00   1.5955E+00   1.6391E-05  0.0284
   1.5955E+00   1.6343E+00   1.7063E-05  0.0275
   1.6343E+00   1.6741E+00   1.6707E-05  0.0274
   1.6741E+00   1.7148E+00   1.6339E-05  0.0274
   1.7148E+00   1.7565E+00   1.7163E-05  0.0264
   1.7565E+00   1.7992E+00   1.6656E-05  0.0265
   1.7992E+00   1.8430E+00   1.7022E-05  0.0259
   1.8430E+00   1.8879E+00   1.6806E-05  0.0258
   1.8879E+00   1.9338E+00   1.6868E-05  0.0254
   1.9338E+00   1.9808E+00   1.7049E-05  0.0250
   1.9808E+00   2.0290E+00   1.6460E-05  0.0251
   2.0290E+00   2.0784E+00   1.7047E-05  0.0244
   2.0784E+00   2.1290E+00   1.7073E-05  0.0241
   2.1290E+00   2.1808E+00   1.7545E-05  0.0235
   2.1808E+00   2.2338E+00   1.6861E-05  0.0236
   2.2338E+00   2.2882E+00   1.7197E-05  0.0231
   2.2882E+00   2.3439E+00   1.7240E-05  0.0228
   2.3439E+00   2.4009E+00   1.7902E-05  0.0221
   2.4009E+00   2.4593E+00   1.8184E-05  0.0217
   2.4593E+00   2.5191E+00   1.8057E-05  0.0215
   2.5191E+00   2.5804E+00   1.7661E-05  0.0215
   2.5804E+00   2.6432E+00   1.7860E-05  0.0211
   2.6432E+00   2.7075E+00   1.8462E-05  0.0205
   2.7075E+00   2.7734E+00   1.8131E-05  0.0205
   2.7734E+00   2.8409E+00   1.8183E-05  0.0202
   2.8409E+00   2.9100E+00   1.8269E-05  0.0199
   2.9100E+00   2.9808E+00   1.7920E-05  0.0199
   2.9808E+00   3.0533E+00   1.7405E-05  0.0199
   3.0533E+00   3.1276E+00   1.8495E-05  0.0191
   3.1276E+00   3.2037E+00   1.8742E-05  0.0187
   3.2037E+00   3.2817E+00   1.8742E-05  0.0185
   3.2817E+00   3.3615E+00   1.7868E-05  0.0187
   3.3615E+00   3.4433E+00   1.8304E-05  0.0183
   3.4433E+00   3.5271E+00   1.8795E-05  0.0178
   3.5271E+00   3.6129E+00   1.8693E-05  0.0177
   3.6129E+00   3.7008E+00   1.9077E-05  0.0173
   3.7008E+00   3.7908E+00   1.9012E-05  0.0171
   3.7908E+00   3.8831E+00   1.8730E-05  0.0170
   3.8831E+00   3.9776E+00   1.9239E-05  0.0166
   3.9776E+00   4.0743E+00   1.8695E-05  0.0166
   4.0743E+00   4.1735E+00   1.9608E-05  0.0160
   4.1735E+00   4.2750E+00   1.9259E-05  0.0160
   4.2750E+00   4.3790E+00   1.9561E-05  0.0157
   4.3790E+00   4.4856E+00   1.9208E-05  0.0156
   4.4856E+00   4.5947E+00   1.9788E-05  0.0152
   4.5947E+00   4.7065E+00   1.9961E-05  0.0150
   4.7065E+00   4.8210E+00   1.9513E-05  0.0150
   4.8210E+00   4.9383E+00   2.0049E-05  0.0146
   4.9383E+00   5.0585E+00   1.9768E-05  0.0145
   5.0585E+00   5.1815E+00   2.0253E-05  0.0142
   5.1815E+00   5.3076E+00   1.9829E-05  0.0141
   5.3076E+00   5.4368E+00   2.0333E-05  0.0138
   5.4368E+00   5.5690E+00   2.0477E-05  0.0136
   5.5690E+00   5.7045E+00   2.0691E-05  0.0134
   5.7045E+00   5.8433E+00   2.0693E-05  0.0132
   5.8433E+00   5.9855E+00   2.1117E-05  0.0129
   5.9855E+00   6.1311E+00   2.1857E-05  0.0125
   6.1311E+00   6.2803E+00   2.1451E-05  0.0125
   6.2803E+00   6.4331E+00   2.2111E-05  0.0122
   6.4331E+00   6.5896E+00   2.2513E-05  0.0119
   6.5896E+00   6.7500E+00   2.2271E-05  0.0118
   6.7500E+00   6.9142E+00   2.2668E-05  0.0116
   6.9142E+00   7.0824E+00   2.3436E-05  0.0113
   7.0824E+00   7.2548E+00   2.3204E-05  0.0112
   7.2548E+00   7.4313E+00   2.4567E-05  0.0107
   7.4313E+00   7.6121E+00   2.4604E-05  0.0106
   7.6121E+00   7.7973E+00   2.5287E-05  0.0103
   7.7973E+00   7.9870E+00   2.5918E-05  0.0101
   7.9870E+00   8.1813E+00   2.6338E-05  0.0099
   8.1813E+00   8.3804E+00   2.6408E-05  0.0098
   8.3804E+00   8.5843E+00   2.7117E-05  0.0095
   8.5843E+00   8.7931E+00   2.8150E-05  0.0092
   8.7931E+00   9.0071E+00   2.8683E-05  0.0090
   9.0071E+00   9.2262E+00   2.9323E-05  0.0088
   9.2262E+00   9.4507E+00   2.9474E-05  0.0087
   9.4507E+00   9.6807E+00   3.0423E-05  0.0085
   9.6807E+00   9.9162E+00   3.0677E-05  0.0083
   9.9162E+00   1.0157E+01   3.1024E-05  0.0082
   1.0157E+01   1.0405E+01   3.2142E-05  0.0079
   1.0405E+01   1.0658E+01   3.2393E-05  0.0078
   1.0658E+01   1.0917E+01   3.2951E-05  0.0076
   1.0917E+01   1.1183E+01   3.3008E-05  0.0076
   1.1183E+01   1.1455E+01   3.3192E-05  0.0074
   1.1455E+01   1.1733E+01   3.3434E-05  0.0073
   1.1733E+01   1.2019E+01   3.3325E-05  0.0072
   1.2019E+01   1.2311E+01   3.3129E-05  0.0072
   1.2311E+01   1.2611E+01   3.3312E-05  0.0071
   1.2611E+01   1.2918E+01   3.3173E-05  0.0070
   1.2918E+01   1.3232E+01   3.2733E-05  0.0070
   1.3232E+01   1.3554E+01   3.2375E-05  0.0069
   1.3554E+01   1.3884E+01   3.1500E-05  0.0069
   1.3884E+01   1.4222E+01   3.0975E-05  0.0069
   1.4222E+01   1.4568E+01   3.0088E-05  0.0069
   1.4568E+01   1.4922E+01   2.9217E-05  0.0069
   1.4922E+01   1.5285E+01   2.8236E-05  0.0070
   1.5285E+01   1.5657E+01   2.6874E-05  0.0071
   1.5657E+01   1.6038E+01   2.5657E-05  0.0072
   1.6038E+01   1.6428E+01   2.4238E-05  0.0073
   1.6428E+01   1.6828E+01   2.3203E-05  0.0073
   1.6828E+01   1.7237E+01   2.1898E-05  0.0075
   1.7237E+01   1.7657E+01   2.0608E-05  0.0076
   1.7657E+01   1.8086E+01   1.9302E-05  0.0078
   1.8086E+01   1.8526E+01   1.8280E-05  0.0079
   1.8526E+01   1.8977E+01   1.6863E-05  0.0081
   1.8977E+01   1.9439E+01   1.5416E-05  0.0084
   1.9439E+01   1.9912E+01   1.4622E-05  0.0085
   1.9912E+01   2.0396E+01   1.3886E-05  0.0086
   2.0396E+01   2.0893E+01   1.2814E-05  0.0089
   2.0893E+01   2.1401E+01   1.1934E-05  0.0091
   2.1401E+01   2.1922E+01   1.1378E-05  0.0092
   2.1922E+01   2.2455E+01   1.0456E-05  0.0095
   2.2455E+01   2.3001E+01   9.4793E-06  0.0098
   2.3001E+01   2.3561E+01   9.0719E-06  0.0099
   2.3561E+01   2.4134E+01   8.4212E-06  0.0102
   2.4134E+01   2.4721E+01   7.7826E-06  0.0105
   2.4721E+01   2.5323E+01   7.3168E-06  0.0107
   2.5323E+01   2.5939E+01   6.4776E-06  0.0112
   2.5939E+01   2.6570E+01   5.7739E-06  0.0117
   2.6570E+01   2.7217E+01   5.0752E-06  0.0123
   2.7217E+01   2.7879E+01   4.5870E-06  0.0128
   2.7879E+01   2.8557E+01   4.2738E-06  0.0131
   2.8557E+01   2.9252E+01   3.9694E-06  0.0135
   2.9252E+01   2.9964E+01   3.7606E-06  0.0137
   2.9964E+01   3.0693E+01   3.4614E-06  0.0141
   3.0693E+01   3.1440E+01   3.2888E-06  0.0143
   3.1440E+01   3.2205E+01   3.1786E-06  0.0143
   3.2205E+01   3.2988E+01   3.0540E-06  0.0145
   3.2988E+01   3.3791E+01   2.8830E-06  0.0147
   3.3791E+01   3.4613E+01   2.7543E-06  0.0149
   3.4613E+01   3.5455E+01   2.3695E-06  0.0158
   3.5455E+01   3.6318E+01   2.0536E-06  0.0168
   3.6318E+01   3.7201E+01   1.6709E-06  0.0184
   3.7201E+01   3.8106E+01   1.2937E-06  0.0207
   3.8106E+01   3.9034E+01   9.8473E-07  0.0234
   3.9034E+01   3.9983E+01   7.3969E-07  0.0267
   3.9983E+01   4.0956E+01   4.8827E-07  0.0324
   4.0956E+01   4.1953E+01   3.5173E-07  0.0378
   4.1953E+01   4.2973E+01   2.0818E-07  0.0485
   4.2973E+01   4.4019E+01   1.6976E-07  0.0531
   4.4019E+01   4.5090E+01   1.0364E-07  0.0671
   4.5090E+01   4.6187E+01   9.1152E-10  0.7071
   4.6187E+01   4.7311E+01   0.0000E+00  0.0000
   4.7311E+01   4.8462E+01   0.0000E+00  0.0000
   4.8462E+01   4.9641E+01   0.0000E+00  0.0000
   4.9641E+01   5.0849E+01   0.0000E+00  0.0000
   5.0849E+01   5.2086E+01   0.0000E+00  0.0000
   5.2086E+01   5.3353E+01   0.0000E+00  0.0000
   5.3353E+01   5.4651E+01   0.0000E+00  0.0000
   5.4651E+01   5.5981E+01   0.0000E+00  0.0000
   5.5981E+01   5.7343E+01   0.0000E+00  0.0000
   5.7343E+01   5.8738E+01   0.0000E+00  0.0000
   5.8738E+01   6.0168E+01   0.0000E+00  0.0000
   6.0168E+01   6.1632E+01   0.0000E+00  0.0000
   6.1632E+01   6.3131E+01   0.0000E+00  0.0000
   6.3131E+01   6.4667E+01   0.0000E+00  0.0000
   6.4667E+01   6.6240E+01   0.0000E+00  0.0000
   6.6240E+01   6.7852E+01   0.0000E+00  0.0000
   6.7852E+01   6.9503E+01   0.0000E+00  0.0000
   6.9503E+01   7.1194E+01   0.0000E+00  0.0000
   7.1194E+01   7.2926E+01   0.0000E+00  0.0000
   7.2926E+01   7.4701E+01   0.0000E+00  0.0000
   7.4701E+01   7.6518E+01   0.0000E+00  0.0000
   7.6518E+01   7.8380E+01   0.0000E+00  0.0000
   7.8380E+01   8.0287E+01   0.0000E+00  0.0000
   8.0287E+01   8.2240E+01   0.0000E+00  0.0000
   8.2240E+01   8.4241E+01   0.0000E+00  0.0000
   8.4241E+01   8.6291E+01   0.0000E+00  0.0000
   8.6291E+01   8.8391E+01   0.0000E+00  0.0000
   8.8391E+01   9.0541E+01   0.0000E+00  0.0000
   9.0541E+01   9.2744E+01   0.0000E+00  0.0000
   9.2744E+01   9.5001E+01   0.0000E+00  0.0000
   9.5001E+01   9.7312E+01   0.0000E+00  0.0000
   9.7312E+01   9.9680E+01   0.0000E+00  0.0000
   9.9680E+01   1.0211E+02   0.0000E+00  0.0000
   1.0211E+02   1.0459E+02   0.0000E+00  0.0000
   1.0459E+02   1.0713E+02   0.0000E+00  0.0000
   1.0713E+02   1.0974E+02   0.0000E+00  0.0000
   1.0974E+02   1.1241E+02   0.0000E+00  0.0000
   1.1241E+02   1.1515E+02   0.0000E+00  0.0000
   1.1515E+02   1.1795E+02   0.0000E+00  0.0000
   1.1795E+02   1.2082E+02   0.0000E+00  0.0000
   1.2082E+02   1.2376E+02   0.0000E+00  0.0000
   1.2376E+02   1.2677E+02   0.0000E+00  0.0000
   1.2677E+02   1.2985E+02   0.0000E+00  0.0000
   1.2985E+02   1.3301E+02   0.0000E+00  0.0000
   1.3301E+02   1.3625E+02   0.0000E+00  0.0000
   1.3625E+02   1.3956E+02   0.0000E+00  0.0000
   1.3956E+02   1.4296E+02   0.0000E+00  0.0000
   1.4296E+02   1.4644E+02   0.0000E+00  0.0000
   1.4644E+02   1.5000E+02   0.0000E+00  0.0000

#   sum over                 3.8177E-06
'no. =    1   reg = 104 - 204'
msuc: {\huge [t-cross] in region mesh}
msdr: {\it plotted by \ANGEL \version}
msdl: {\it calculated by \PHITS  3.26}
wt: s(0.7)
\vspace{-3}
  region surface crossing
  area  &=&   1.0000E+00 [cm^2]
e:
 
# Information for Restart Calculation
# This calculation was newly started
# istdev =  2 # 1:Batch variance, 2:History variance
# resc2  = 2.00000000000000000E+09 # Total source weight or Total source weight / maxcas
# resc3  = 2.00000000000000000E+09 # Total history number or Total batch number
# maxcas =   500000000 # History / Batch, only used for istdev=1
# bitrseed = 0011011010010000100111110110001101100001010011100000011100000110 # bit data of rseed
