[ T-Cross ]
    title = [t-cross] in region mesh
     mesh =  reg            # mesh type is region-wise
      reg =    1            # number of crossing regions
      non     r-from    r-to       area
      1       113       213        1.000000    
   e-type =    3            # e-mesh is log given by emin, emax and ne
     emin =  1.0000000E-02  # minimum value of e-mesh points
     emax =   150.0000      # maximum value of e-mesh points
#    edel =  2.4039514E-02  # mesh width of e-mesh points
       ne =    400          # number of e-mesh points
#    data = ( e(i), i = 1, ne + 1 )
#           1.00000E-02  1.02433E-02  1.04925E-02  1.07478E-02  1.10093E-02
#           1.12772E-02  1.15516E-02  1.18326E-02  1.21205E-02  1.24154E-02
#           1.27175E-02  1.30269E-02  1.33439E-02  1.36686E-02  1.40011E-02
#           1.43418E-02  1.46907E-02  1.50482E-02  1.54143E-02  1.57894E-02
#           1.61735E-02  1.65670E-02  1.69701E-02  1.73830E-02  1.78060E-02
#           1.82392E-02  1.86830E-02  1.91375E-02  1.96032E-02  2.00801E-02
#           2.05687E-02  2.10692E-02  2.15818E-02  2.21069E-02  2.26448E-02
#           2.31957E-02  2.37601E-02  2.43382E-02  2.49304E-02  2.55369E-02
#           2.61583E-02  2.67947E-02  2.74467E-02  2.81145E-02  2.87985E-02
#           2.94992E-02  3.02169E-02  3.09521E-02  3.17052E-02  3.24766E-02
#           3.32668E-02  3.40762E-02  3.49053E-02  3.57546E-02  3.66246E-02
#           3.75157E-02  3.84284E-02  3.93634E-02  4.03212E-02  4.13022E-02
#           4.23071E-02  4.33365E-02  4.43909E-02  4.54710E-02  4.65773E-02
#           4.77106E-02  4.88714E-02  5.00605E-02  5.12785E-02  5.25262E-02
#           5.38042E-02  5.51133E-02  5.64542E-02  5.78278E-02  5.92348E-02
#           6.06760E-02  6.21523E-02  6.36645E-02  6.52135E-02  6.68002E-02
#           6.84255E-02  7.00904E-02  7.17957E-02  7.35426E-02  7.53319E-02
#           7.71648E-02  7.90423E-02  8.09655E-02  8.29354E-02  8.49533E-02
#           8.70203E-02  8.91376E-02  9.13064E-02  9.35279E-02  9.58035E-02
#           9.81345E-02  1.00522E-01  1.02968E-01  1.05473E-01  1.08040E-01
#           1.10668E-01  1.13361E-01  1.16119E-01  1.18944E-01  1.21838E-01
#           1.24803E-01  1.27839E-01  1.30950E-01  1.34136E-01  1.37399E-01
#           1.40742E-01  1.44167E-01  1.47675E-01  1.51268E-01  1.54948E-01
#           1.58718E-01  1.62580E-01  1.66535E-01  1.70587E-01  1.74738E-01
#           1.78989E-01  1.83344E-01  1.87805E-01  1.92375E-01  1.97055E-01
#           2.01850E-01  2.06761E-01  2.11792E-01  2.16945E-01  2.22223E-01
#           2.27630E-01  2.33169E-01  2.38842E-01  2.44653E-01  2.50605E-01
#           2.56703E-01  2.62949E-01  2.69346E-01  2.75900E-01  2.82613E-01
#           2.89489E-01  2.96532E-01  3.03747E-01  3.11138E-01  3.18708E-01
#           3.26462E-01  3.34405E-01  3.42542E-01  3.50876E-01  3.59413E-01
#           3.68158E-01  3.77116E-01  3.86291E-01  3.95690E-01  4.05317E-01
#           4.15179E-01  4.25281E-01  4.35628E-01  4.46227E-01  4.57084E-01
#           4.68205E-01  4.79597E-01  4.91266E-01  5.03219E-01  5.15463E-01
#           5.28005E-01  5.40851E-01  5.54011E-01  5.67490E-01  5.81298E-01
#           5.95441E-01  6.09929E-01  6.24769E-01  6.39970E-01  6.55541E-01
#           6.71491E-01  6.87828E-01  7.04564E-01  7.21706E-01  7.39266E-01
#           7.57253E-01  7.75678E-01  7.94551E-01  8.13883E-01  8.33685E-01
#           8.53969E-01  8.74747E-01  8.96030E-01  9.17831E-01  9.40163E-01
#           9.63038E-01  9.86469E-01  1.01047E+00  1.03506E+00  1.06024E+00
#           1.08604E+00  1.11246E+00  1.13953E+00  1.16725E+00  1.19565E+00
#           1.22474E+00  1.25454E+00  1.28507E+00  1.31633E+00  1.34836E+00
#           1.38117E+00  1.41477E+00  1.44920E+00  1.48446E+00  1.52057E+00
#           1.55757E+00  1.59547E+00  1.63429E+00  1.67405E+00  1.71478E+00
#           1.75650E+00  1.79924E+00  1.84302E+00  1.88786E+00  1.93379E+00
#           1.98084E+00  2.02904E+00  2.07841E+00  2.12898E+00  2.18078E+00
#           2.23384E+00  2.28819E+00  2.34386E+00  2.40089E+00  2.45930E+00
#           2.51914E+00  2.58043E+00  2.64322E+00  2.70753E+00  2.77341E+00
#           2.84088E+00  2.91001E+00  2.98081E+00  3.05333E+00  3.12762E+00
#           3.20372E+00  3.28167E+00  3.36152E+00  3.44330E+00  3.52708E+00
#           3.61290E+00  3.70080E+00  3.79085E+00  3.88308E+00  3.97756E+00
#           4.07434E+00  4.17347E+00  4.27501E+00  4.37903E+00  4.48557E+00
#           4.59471E+00  4.70650E+00  4.82102E+00  4.93832E+00  5.05847E+00
#           5.18155E+00  5.30762E+00  5.43676E+00  5.56904E+00  5.70453E+00
#           5.84333E+00  5.98550E+00  6.13114E+00  6.28031E+00  6.43312E+00
#           6.58964E+00  6.74997E+00  6.91420E+00  7.08243E+00  7.25475E+00
#           7.43126E+00  7.61207E+00  7.79728E+00  7.98700E+00  8.18133E+00
#           8.38038E+00  8.58428E+00  8.79315E+00  9.00709E+00  9.22624E+00
#           9.45072E+00  9.68067E+00  9.91620E+00  1.01575E+01  1.04046E+01
#           1.06578E+01  1.09171E+01  1.11827E+01  1.14548E+01  1.17335E+01
#           1.20190E+01  1.23114E+01  1.26109E+01  1.29178E+01  1.32321E+01
#           1.35540E+01  1.38838E+01  1.42216E+01  1.45676E+01  1.49221E+01
#           1.52851E+01  1.56570E+01  1.60380E+01  1.64282E+01  1.68279E+01
#           1.72374E+01  1.76568E+01  1.80864E+01  1.85264E+01  1.89772E+01
#           1.94389E+01  1.99119E+01  2.03963E+01  2.08926E+01  2.14009E+01
#           2.19216E+01  2.24550E+01  2.30014E+01  2.35610E+01  2.41343E+01
#           2.47215E+01  2.53230E+01  2.59391E+01  2.65702E+01  2.72167E+01
#           2.78789E+01  2.85572E+01  2.92520E+01  2.99637E+01  3.06928E+01
#           3.14396E+01  3.22045E+01  3.29881E+01  3.37907E+01  3.46128E+01
#           3.54550E+01  3.63177E+01  3.72013E+01  3.81064E+01  3.90336E+01
#           3.99833E+01  4.09561E+01  4.19526E+01  4.29734E+01  4.40189E+01
#           4.50900E+01  4.61870E+01  4.73108E+01  4.84619E+01  4.96410E+01
#           5.08488E+01  5.20860E+01  5.33533E+01  5.46514E+01  5.59812E+01
#           5.73432E+01  5.87384E+01  6.01676E+01  6.16315E+01  6.31311E+01
#           6.46671E+01  6.62405E+01  6.78522E+01  6.95031E+01  7.11941E+01
#           7.29263E+01  7.47007E+01  7.65182E+01  7.83800E+01  8.02870E+01
#           8.22405E+01  8.42414E+01  8.62911E+01  8.83906E+01  9.05412E+01
#           9.27442E+01  9.50007E+01  9.73122E+01  9.96799E+01  1.02105E+02
#           1.04589E+02  1.07134E+02  1.09741E+02  1.12411E+02  1.15146E+02
#           1.17948E+02  1.20817E+02  1.23757E+02  1.26768E+02  1.29852E+02
#           1.33012E+02  1.36248E+02  1.39563E+02  1.42959E+02  1.46437E+02
#           1.50000E+02
     unit =    2            # unit is [1/cm^2/(MeV/n)/source]
     axis =  eng            # axis of output
     file = detector-14.out  # file name of output for the above axis
   output = f-curr          # surface crossing forward current spectrum
     part =  neutron  
# kf/name :  2112     
#    used :        main (  %)        temp (  %)       total (  %)
#  memory :         414 (  0)           0 (  0)         414 (  0)

#------------------------------------------------------------------------------
#newpage:
#   no. =    1   reg = 113 - 213

x: Energy [MeV/n]
y:  F-Curr [1/cm^2/(MeV/n)/source]         
p: xlog ylog afac(0.8) form(0.9)
h: n            x            y(neutron ),hh0l   n 
#  e-lower      e-upper      neutron     r.err 
   1.0000E-02   1.0243E-02   6.5966E-04  0.0789
   1.0243E-02   1.0493E-02   6.5402E-04  0.0783
   1.0493E-02   1.0748E-02   6.2673E-04  0.0791
   1.0748E-02   1.1009E-02   6.1950E-04  0.0786
   1.1009E-02   1.1277E-02   6.6078E-04  0.0752
   1.1277E-02   1.1552E-02   6.6695E-04  0.0739
   1.1552E-02   1.1833E-02   5.7283E-04  0.0788
   1.1833E-02   1.2121E-02   6.8774E-04  0.0711
   1.2121E-02   1.2415E-02   7.4940E-04  0.0673
   1.2415E-02   1.2718E-02   5.6939E-04  0.0762
   1.2718E-02   1.3027E-02   6.9483E-04  0.0682
   1.3027E-02   1.3344E-02   5.9945E-04  0.0725
   1.3344E-02   1.3669E-02   5.8213E-04  0.0727
   1.3669E-02   1.4001E-02   6.7956E-04  0.0665
   1.4001E-02   1.4342E-02   6.1939E-04  0.0688
   1.4342E-02   1.4691E-02   6.0181E-04  0.0690
   1.4691E-02   1.5048E-02   6.2668E-04  0.0668
   1.5048E-02   1.5414E-02   5.3805E-04  0.0712
   1.5414E-02   1.5789E-02   5.7593E-04  0.0680
   1.5789E-02   1.6174E-02   5.9609E-04  0.0661
   1.6174E-02   1.6567E-02   6.5055E-04  0.0625
   1.6567E-02   1.6970E-02   5.6563E-04  0.0662
   1.6970E-02   1.7383E-02   5.3282E-04  0.0674
   1.7383E-02   1.7806E-02   5.6036E-04  0.0650
   1.7806E-02   1.8239E-02   5.8629E-04  0.0627
   1.8239E-02   1.8683E-02   6.0616E-04  0.0610
   1.8683E-02   1.9138E-02   5.5877E-04  0.0627
   1.9138E-02   1.9603E-02   5.7556E-04  0.0611
   1.9603E-02   2.0080E-02   5.9544E-04  0.0593
   2.0080E-02   2.0569E-02   5.6083E-04  0.0604
   2.0569E-02   2.1069E-02   5.5650E-04  0.0599
   2.1069E-02   2.1582E-02   5.4230E-04  0.0600
   2.1582E-02   2.2107E-02   5.3704E-04  0.0595
   2.2107E-02   2.2645E-02   4.9825E-04  0.0611
   2.2645E-02   2.3196E-02   4.9549E-04  0.0605
   2.3196E-02   2.3760E-02   5.5460E-04  0.0565
   2.3760E-02   2.4338E-02   5.1029E-04  0.0582
   2.4338E-02   2.4930E-02   5.1506E-04  0.0573
   2.4930E-02   2.5537E-02   5.0282E-04  0.0573
   2.5537E-02   2.6158E-02   5.2790E-04  0.0552
   2.6158E-02   2.6795E-02   5.0593E-04  0.0557
   2.6795E-02   2.7447E-02   5.0158E-04  0.0553
   2.7447E-02   2.8114E-02   5.4957E-04  0.0522
   2.8114E-02   2.8799E-02   5.2555E-04  0.0527
   2.8799E-02   2.9499E-02   5.1092E-04  0.0529
   2.9499E-02   3.0217E-02   5.1551E-04  0.0520
   3.0217E-02   3.0952E-02   4.7470E-04  0.0535
   3.0952E-02   3.1705E-02   4.8998E-04  0.0521
   3.1705E-02   3.2477E-02   5.0232E-04  0.0508
   3.2477E-02   3.3267E-02   4.7268E-04  0.0517
   3.3267E-02   3.4076E-02   5.0284E-04  0.0496
   3.4076E-02   3.4905E-02   5.0114E-04  0.0490
   3.4905E-02   3.5755E-02   4.6746E-04  0.0502
   3.5755E-02   3.6625E-02   4.6325E-04  0.0498
   3.6625E-02   3.7516E-02   4.5674E-04  0.0496
   3.7516E-02   3.8428E-02   4.9628E-04  0.0470
   3.8428E-02   3.9363E-02   4.7915E-04  0.0472
   3.9363E-02   4.0321E-02   4.7769E-04  0.0467
   4.0321E-02   4.1302E-02   4.2200E-04  0.0491
   4.1302E-02   4.2307E-02   4.5775E-04  0.0466
   4.2307E-02   4.3337E-02   4.1676E-04  0.0483
   4.3337E-02   4.4391E-02   4.1255E-04  0.0479
   4.4391E-02   4.5471E-02   4.2868E-04  0.0465
   4.5471E-02   4.6577E-02   4.3025E-04  0.0458
   4.6577E-02   4.7711E-02   4.3503E-04  0.0450
   4.7711E-02   4.8871E-02   4.3503E-04  0.0445
   4.8871E-02   5.0061E-02   4.2722E-04  0.0444
   5.0061E-02   5.1279E-02   4.0804E-04  0.0449
   5.1279E-02   5.2526E-02   4.4003E-04  0.0427
   5.2526E-02   5.3804E-02   4.1784E-04  0.0433
   5.3804E-02   5.5113E-02   4.1899E-04  0.0427
   5.5113E-02   5.6454E-02   3.9823E-04  0.0433
   5.6454E-02   5.7828E-02   3.5455E-04  0.0453
   5.7828E-02   5.9235E-02   4.1294E-04  0.0415
   5.9235E-02   6.0676E-02   4.2741E-04  0.0403
   6.0676E-02   6.2152E-02   3.7323E-04  0.0426
   6.2152E-02   6.3665E-02   3.7495E-04  0.0420
   6.3665E-02   6.5214E-02   3.7895E-04  0.0413
   6.5214E-02   6.6800E-02   3.6302E-04  0.0417
   6.6800E-02   6.8426E-02   3.6916E-04  0.0408
   6.8426E-02   7.0090E-02   3.4538E-04  0.0417
   7.0090E-02   7.1796E-02   3.4949E-04  0.0410
   7.1796E-02   7.3543E-02   3.5149E-04  0.0404
   7.3543E-02   7.5332E-02   3.1799E-04  0.0419
   7.5332E-02   7.7165E-02   3.5954E-04  0.0390
   7.7165E-02   7.9042E-02   3.2277E-04  0.0406
   7.9042E-02   8.0965E-02   3.5852E-04  0.0381
   8.0965E-02   8.2935E-02   3.1980E-04  0.0398
   8.2935E-02   8.4953E-02   3.1493E-04  0.0397
   8.4953E-02   8.7020E-02   3.1108E-04  0.0394
   8.7020E-02   8.9138E-02   3.0464E-04  0.0394
   8.9138E-02   9.1306E-02   3.3267E-04  0.0372
   9.1306E-02   9.3528E-02   3.1870E-04  0.0376
   9.3528E-02   9.5804E-02   2.8762E-04  0.0391
   9.5804E-02   9.8134E-02   3.0588E-04  0.0375
   9.8134E-02   1.0052E-01   3.0867E-04  0.0368
   1.0052E-01   1.0297E-01   3.0379E-04  0.0367
   1.0297E-01   1.0547E-01   2.9338E-04  0.0369
   1.0547E-01   1.0804E-01   2.8057E-04  0.0373
   1.0804E-01   1.1067E-01   2.9825E-04  0.0357
   1.1067E-01   1.1336E-01   2.6498E-04  0.0374
   1.1336E-01   1.1612E-01   2.8316E-04  0.0358
   1.1612E-01   1.1894E-01   2.7573E-04  0.0358
   1.1894E-01   1.2184E-01   2.7505E-04  0.0354
   1.2184E-01   1.2480E-01   2.7594E-04  0.0350
   1.2480E-01   1.2784E-01   2.4534E-04  0.0366
   1.2784E-01   1.3095E-01   2.5013E-04  0.0359
   1.3095E-01   1.3414E-01   2.5109E-04  0.0354
   1.3414E-01   1.3740E-01   2.4620E-04  0.0353
   1.3740E-01   1.4074E-01   2.4992E-04  0.0346
   1.4074E-01   1.4417E-01   2.3493E-04  0.0353
   1.4417E-01   1.4767E-01   2.3463E-04  0.0349
   1.4767E-01   1.5127E-01   2.2961E-04  0.0348
   1.5127E-01   1.5495E-01   2.3924E-04  0.0337
   1.5495E-01   1.5872E-01   2.2148E-04  0.0346
   1.5872E-01   1.6258E-01   2.2270E-04  0.0341
   1.6258E-01   1.6654E-01   2.1058E-04  0.0346
   1.6654E-01   1.7059E-01   2.0830E-04  0.0344
   1.7059E-01   1.7474E-01   2.1636E-04  0.0334
   1.7474E-01   1.7899E-01   2.0887E-04  0.0336
   1.7899E-01   1.8334E-01   2.0609E-04  0.0334
   1.8334E-01   1.8781E-01   1.9592E-04  0.0338
   1.8781E-01   1.9237E-01   1.9291E-04  0.0337
   1.9237E-01   1.9706E-01   1.9314E-04  0.0333
   1.9706E-01   2.0185E-01   1.8657E-04  0.0334
   2.0185E-01   2.0676E-01   1.8936E-04  0.0328
   2.0676E-01   2.1179E-01   1.7503E-04  0.0337
   2.1179E-01   2.1694E-01   1.7388E-04  0.0334
   2.1694E-01   2.2222E-01   1.6880E-04  0.0335
   2.2222E-01   2.2763E-01   1.6202E-04  0.0338
   2.2763E-01   2.3317E-01   1.7622E-04  0.0320
   2.3317E-01   2.3884E-01   1.7186E-04  0.0320
   2.3884E-01   2.4465E-01   1.7440E-04  0.0314
   2.4465E-01   2.5061E-01   1.6606E-04  0.0318
   2.5061E-01   2.5670E-01   1.6540E-04  0.0315
   2.5670E-01   2.6295E-01   1.6131E-04  0.0315
   2.6295E-01   2.6935E-01   1.5865E-04  0.0314
   2.6935E-01   2.7590E-01   1.5015E-04  0.0319
   2.7590E-01   2.8261E-01   1.5344E-04  0.0312
   2.8261E-01   2.8949E-01   1.4448E-04  0.0317
   2.8949E-01   2.9653E-01   1.3850E-04  0.0320
   2.9653E-01   3.0375E-01   1.4595E-04  0.0308
   3.0375E-01   3.1114E-01   1.3605E-04  0.0315
   3.1114E-01   3.1871E-01   1.5244E-04  0.0294
   3.1871E-01   3.2646E-01   1.4263E-04  0.0301
   3.2646E-01   3.3441E-01   1.3849E-04  0.0302
   3.3441E-01   3.4254E-01   1.3298E-04  0.0304
   3.4254E-01   3.5088E-01   1.3798E-04  0.0295
   3.5088E-01   3.5941E-01   1.2569E-04  0.0305
   3.5941E-01   3.6816E-01   1.2699E-04  0.0300
   3.6816E-01   3.7712E-01   1.2325E-04  0.0301
   3.7712E-01   3.8629E-01   1.2081E-04  0.0300
   3.8629E-01   3.9569E-01   1.2033E-04  0.0297
   3.9569E-01   4.0532E-01   1.2854E-04  0.0284
   4.0532E-01   4.1518E-01   1.2336E-04  0.0287
   4.1518E-01   4.2528E-01   1.1770E-04  0.0290
   4.2528E-01   4.3563E-01   1.1104E-04  0.0295
   4.3563E-01   4.4623E-01   1.1407E-04  0.0288
   4.4623E-01   4.5708E-01   1.1122E-04  0.0288
   4.5708E-01   4.6821E-01   1.0547E-04  0.0292
   4.6821E-01   4.7960E-01   1.0806E-04  0.0285
   4.7960E-01   4.9127E-01   1.0789E-04  0.0282
   4.9127E-01   5.0322E-01   1.0232E-04  0.0286
   5.0322E-01   5.1546E-01   1.0556E-04  0.0278
   5.1546E-01   5.2800E-01   1.0294E-04  0.0278
   5.2800E-01   5.4085E-01   9.9908E-05  0.0279
   5.4085E-01   5.5401E-01   9.7573E-05  0.0279
   5.5401E-01   5.6749E-01   9.0879E-05  0.0286
   5.6749E-01   5.8130E-01   9.0857E-05  0.0282
   5.8130E-01   5.9544E-01   9.1138E-05  0.0279
   5.9544E-01   6.0993E-01   9.0802E-05  0.0276
   6.0993E-01   6.2477E-01   8.9791E-05  0.0274
   6.2477E-01   6.3997E-01   8.6605E-05  0.0276
   6.3997E-01   6.5554E-01   7.9828E-05  0.0284
   6.5554E-01   6.7149E-01   8.3042E-05  0.0275
   6.7149E-01   6.8783E-01   8.0488E-05  0.0276
   6.8783E-01   7.0456E-01   8.0010E-05  0.0273
   7.0456E-01   7.2171E-01   7.6826E-05  0.0276
   7.2171E-01   7.3927E-01   7.4233E-05  0.0277
   7.3927E-01   7.5725E-01   7.5221E-05  0.0272
   7.5725E-01   7.7568E-01   7.1264E-05  0.0276
   7.7568E-01   7.9455E-01   7.0180E-05  0.0275
   7.9455E-01   8.1388E-01   6.7375E-05  0.0277
   8.1388E-01   8.3368E-01   6.5851E-05  0.0277
   8.3368E-01   8.5397E-01   6.1452E-05  0.0283
   8.5397E-01   8.7475E-01   6.6393E-05  0.0269
   8.7475E-01   8.9603E-01   6.0353E-05  0.0279
   8.9603E-01   9.1783E-01   5.9263E-05  0.0278
   9.1783E-01   9.4016E-01   5.6870E-05  0.0281
   9.4016E-01   9.6304E-01   5.9847E-05  0.0270
   9.6304E-01   9.8647E-01   5.7508E-05  0.0272
   9.8647E-01   1.0105E+00   5.5476E-05  0.0274
   1.0105E+00   1.0351E+00   5.2470E-05  0.0278
   1.0351E+00   1.0602E+00   5.8470E-05  0.0261
   1.0602E+00   1.0860E+00   5.8322E-05  0.0258
   1.0860E+00   1.1125E+00   5.9794E-05  0.0252
   1.1125E+00   1.1395E+00   6.2659E-05  0.0243
   1.1395E+00   1.1673E+00   6.4940E-05  0.0236
   1.1673E+00   1.1957E+00   6.8661E-05  0.0226
   1.1957E+00   1.2247E+00   6.9007E-05  0.0223
   1.2247E+00   1.2545E+00   7.1278E-05  0.0217
   1.2545E+00   1.2851E+00   7.3385E-05  0.0211
   1.2851E+00   1.3163E+00   7.6327E-05  0.0205
   1.3163E+00   1.3484E+00   7.9229E-05  0.0199
   1.3484E+00   1.3812E+00   7.8642E-05  0.0197
   1.3812E+00   1.4148E+00   8.8305E-05  0.0184
   1.4148E+00   1.4492E+00   8.8648E-05  0.0181
   1.4492E+00   1.4845E+00   8.9790E-05  0.0178
   1.4845E+00   1.5206E+00   9.3319E-05  0.0172
   1.5206E+00   1.5576E+00   9.6887E-05  0.0167
   1.5576E+00   1.5955E+00   1.0077E-04  0.0162
   1.5955E+00   1.6343E+00   1.0808E-04  0.0154
   1.6343E+00   1.6741E+00   1.0736E-04  0.0153
   1.6741E+00   1.7148E+00   1.1483E-04  0.0146
   1.7148E+00   1.7565E+00   1.1869E-04  0.0142
   1.7565E+00   1.7992E+00   1.1958E-04  0.0140
   1.7992E+00   1.8430E+00   1.2539E-04  0.0135
   1.8430E+00   1.8879E+00   1.2910E-04  0.0131
   1.8879E+00   1.9338E+00   1.3368E-04  0.0128
   1.9338E+00   1.9808E+00   1.4017E-04  0.0123
   1.9808E+00   2.0290E+00   1.4654E-04  0.0119
   2.0290E+00   2.0784E+00   1.4586E-04  0.0118
   2.0784E+00   2.1290E+00   1.4963E-04  0.0115
   2.1290E+00   2.1808E+00   1.5419E-04  0.0112
   2.1808E+00   2.2338E+00   1.6068E-04  0.0108
   2.2338E+00   2.2882E+00   1.6839E-04  0.0105
   2.2882E+00   2.3439E+00   1.7625E-04  0.0101
   2.3439E+00   2.4009E+00   1.8539E-04  0.0097
   2.4009E+00   2.4593E+00   1.8565E-04  0.0096
   2.4593E+00   2.5191E+00   1.8987E-04  0.0094
   2.5191E+00   2.5804E+00   1.9394E-04  0.0092
   2.5804E+00   2.6432E+00   2.0097E-04  0.0089
   2.6432E+00   2.7075E+00   2.0419E-04  0.0087
   2.7075E+00   2.7734E+00   2.1211E-04  0.0085
   2.7734E+00   2.8409E+00   2.1927E-04  0.0082
   2.8409E+00   2.9100E+00   2.2635E-04  0.0080
   2.9100E+00   2.9808E+00   2.4062E-04  0.0077
   2.9808E+00   3.0533E+00   2.4119E-04  0.0076
   3.0533E+00   3.1276E+00   2.3894E-04  0.0075
   3.1276E+00   3.2037E+00   2.4503E-04  0.0073
   3.2037E+00   3.2817E+00   2.4787E-04  0.0072
   3.2817E+00   3.3615E+00   2.4693E-04  0.0071
   3.3615E+00   3.4433E+00   2.5353E-04  0.0069
   3.4433E+00   3.5271E+00   2.5928E-04  0.0068
   3.5271E+00   3.6129E+00   2.6537E-04  0.0066
   3.6129E+00   3.7008E+00   2.6840E-04  0.0065
   3.7008E+00   3.7908E+00   2.6984E-04  0.0064
   3.7908E+00   3.8831E+00   2.7046E-04  0.0063
   3.8831E+00   3.9776E+00   2.7381E-04  0.0062
   3.9776E+00   4.0743E+00   2.7605E-04  0.0061
   4.0743E+00   4.1735E+00   2.7716E-04  0.0060
   4.1735E+00   4.2750E+00   2.7432E-04  0.0060
   4.2750E+00   4.3790E+00   2.6885E-04  0.0060
   4.3790E+00   4.4856E+00   2.6900E-04  0.0059
   4.4856E+00   4.5947E+00   2.6648E-04  0.0059
   4.5947E+00   4.7065E+00   2.6887E-04  0.0058
   4.7065E+00   4.8210E+00   2.6816E-04  0.0057
   4.8210E+00   4.9383E+00   2.6658E-04  0.0057
   4.9383E+00   5.0585E+00   2.6616E-04  0.0056
   5.0585E+00   5.1815E+00   2.6399E-04  0.0055
   5.1815E+00   5.3076E+00   2.5757E-04  0.0055
   5.3076E+00   5.4368E+00   2.5361E-04  0.0055
   5.4368E+00   5.5690E+00   2.4947E-04  0.0055
   5.5690E+00   5.7045E+00   2.4392E-04  0.0055
   5.7045E+00   5.8433E+00   2.3883E-04  0.0055
   5.8433E+00   5.9855E+00   2.3651E-04  0.0055
   5.9855E+00   6.1311E+00   2.3378E-04  0.0054
   6.1311E+00   6.2803E+00   2.2938E-04  0.0054
   6.2803E+00   6.4331E+00   2.2313E-04  0.0054
   6.4331E+00   6.5896E+00   2.1793E-04  0.0054
   6.5896E+00   6.7500E+00   2.1249E-04  0.0054
   6.7500E+00   6.9142E+00   2.0800E-04  0.0054
   6.9142E+00   7.0824E+00   2.0120E-04  0.0054
   7.0824E+00   7.2548E+00   1.9653E-04  0.0054
   7.2548E+00   7.4313E+00   1.9196E-04  0.0054
   7.4313E+00   7.6121E+00   1.8572E-04  0.0055
   7.6121E+00   7.7973E+00   1.8165E-04  0.0055
   7.7973E+00   7.9870E+00   1.7684E-04  0.0055
   7.9870E+00   8.1813E+00   1.7038E-04  0.0055
   8.1813E+00   8.3804E+00   1.6450E-04  0.0055
   8.3804E+00   8.5843E+00   1.6095E-04  0.0055
   8.5843E+00   8.7931E+00   1.5588E-04  0.0055
   8.7931E+00   9.0071E+00   1.5109E-04  0.0056
   9.0071E+00   9.2262E+00   1.4635E-04  0.0056
   9.2262E+00   9.4507E+00   1.4039E-04  0.0056
   9.4507E+00   9.6807E+00   1.3669E-04  0.0056
   9.6807E+00   9.9162E+00   1.3206E-04  0.0057
   9.9162E+00   1.0157E+01   1.2832E-04  0.0057
   1.0157E+01   1.0405E+01   1.2422E-04  0.0057
   1.0405E+01   1.0658E+01   1.2074E-04  0.0057
   1.0658E+01   1.0917E+01   1.1737E-04  0.0057
   1.0917E+01   1.1183E+01   1.1422E-04  0.0057
   1.1183E+01   1.1455E+01   1.1006E-04  0.0058
   1.1455E+01   1.1733E+01   1.0648E-04  0.0058
   1.1733E+01   1.2019E+01   1.0353E-04  0.0058
   1.2019E+01   1.2311E+01   1.0128E-04  0.0058
   1.2311E+01   1.2611E+01   9.7656E-05  0.0058
   1.2611E+01   1.2918E+01   9.4957E-05  0.0059
   1.2918E+01   1.3232E+01   9.2022E-05  0.0059
   1.3232E+01   1.3554E+01   8.8524E-05  0.0059
   1.3554E+01   1.3884E+01   8.4954E-05  0.0060
   1.3884E+01   1.4222E+01   8.3442E-05  0.0060
   1.4222E+01   1.4568E+01   8.1428E-05  0.0060
   1.4568E+01   1.4922E+01   7.7051E-05  0.0061
   1.4922E+01   1.5285E+01   7.6640E-05  0.0060
   1.5285E+01   1.5657E+01   7.4504E-05  0.0060
   1.5657E+01   1.6038E+01   7.2333E-05  0.0060
   1.6038E+01   1.6428E+01   7.1068E-05  0.0060
   1.6428E+01   1.6828E+01   6.9095E-05  0.0060
   1.6828E+01   1.7237E+01   6.7026E-05  0.0060
   1.7237E+01   1.7657E+01   6.4645E-05  0.0061
   1.7657E+01   1.8086E+01   6.3494E-05  0.0061
   1.8086E+01   1.8526E+01   6.2109E-05  0.0060
   1.8526E+01   1.8977E+01   6.1116E-05  0.0060
   1.8977E+01   1.9439E+01   5.9615E-05  0.0060
   1.9439E+01   1.9912E+01   5.7560E-05  0.0061
   1.9912E+01   2.0396E+01   5.8610E-05  0.0059
   2.0396E+01   2.0893E+01   5.8967E-05  0.0058
   2.0893E+01   2.1401E+01   5.7110E-05  0.0059
   2.1401E+01   2.1922E+01   5.5896E-05  0.0059
   2.1922E+01   2.2455E+01   5.4171E-05  0.0059
   2.2455E+01   2.3001E+01   5.2948E-05  0.0059
   2.3001E+01   2.3561E+01   5.1324E-05  0.0059
   2.3561E+01   2.4134E+01   5.0108E-05  0.0059
   2.4134E+01   2.4721E+01   4.8377E-05  0.0059
   2.4721E+01   2.5323E+01   4.6840E-05  0.0060
   2.5323E+01   2.5939E+01   4.5549E-05  0.0060
   2.5939E+01   2.6570E+01   4.4201E-05  0.0060
   2.6570E+01   2.7217E+01   4.2911E-05  0.0060
   2.7217E+01   2.7879E+01   4.0916E-05  0.0061
   2.7879E+01   2.8557E+01   3.9722E-05  0.0061
   2.8557E+01   2.9252E+01   3.8132E-05  0.0061
   2.9252E+01   2.9964E+01   3.7099E-05  0.0062
   2.9964E+01   3.0693E+01   3.5997E-05  0.0062
   3.0693E+01   3.1440E+01   3.4622E-05  0.0062
   3.1440E+01   3.2205E+01   3.3201E-05  0.0063
   3.2205E+01   3.2988E+01   3.1934E-05  0.0063
   3.2988E+01   3.3791E+01   2.9918E-05  0.0065
   3.3791E+01   3.4613E+01   2.9137E-05  0.0065
   3.4613E+01   3.5455E+01   2.7595E-05  0.0066
   3.5455E+01   3.6318E+01   2.6438E-05  0.0066
   3.6318E+01   3.7201E+01   2.4998E-05  0.0067
   3.7201E+01   3.8106E+01   2.3860E-05  0.0068
   3.8106E+01   3.9034E+01   2.2758E-05  0.0069
   3.9034E+01   3.9983E+01   2.1423E-05  0.0070
   3.9983E+01   4.0956E+01   2.0307E-05  0.0071
   4.0956E+01   4.1953E+01   1.9164E-05  0.0072
   4.1953E+01   4.2973E+01   1.8067E-05  0.0074
   4.2973E+01   4.4019E+01   1.6739E-05  0.0076
   4.4019E+01   4.5090E+01   1.5888E-05  0.0077
   4.5090E+01   4.6187E+01   1.4891E-05  0.0078
   4.6187E+01   4.7311E+01   1.3756E-05  0.0080
   4.7311E+01   4.8462E+01   1.3079E-05  0.0082
   4.8462E+01   4.9641E+01   1.2239E-05  0.0083
   4.9641E+01   5.0849E+01   1.1294E-05  0.0086
   5.0849E+01   5.2086E+01   1.0447E-05  0.0088
   5.2086E+01   5.3353E+01   9.5416E-06  0.0091
   5.3353E+01   5.4651E+01   8.7603E-06  0.0094
   5.4651E+01   5.5981E+01   7.9739E-06  0.0097
   5.5981E+01   5.7343E+01   7.2177E-06  0.0101
   5.7343E+01   5.8738E+01   6.6040E-06  0.0104
   5.8738E+01   6.0168E+01   6.0833E-06  0.0107
   6.0168E+01   6.1632E+01   5.4654E-06  0.0112
   6.1632E+01   6.3131E+01   4.9388E-06  0.0116
   6.3131E+01   6.4667E+01   4.5487E-06  0.0120
   6.4667E+01   6.6240E+01   3.9914E-06  0.0126
   6.6240E+01   6.7852E+01   3.5975E-06  0.0131
   6.7852E+01   6.9503E+01   3.3230E-06  0.0135
   6.9503E+01   7.1194E+01   2.8781E-06  0.0143
   7.1194E+01   7.2926E+01   2.5372E-06  0.0151
   7.2926E+01   7.4701E+01   2.2667E-06  0.0158
   7.4701E+01   7.6518E+01   1.9615E-06  0.0167
   7.6518E+01   7.8380E+01   1.7102E-06  0.0177
   7.8380E+01   8.0287E+01   1.4625E-06  0.0189
   8.0287E+01   8.2240E+01   1.2921E-06  0.0199
   8.2240E+01   8.4241E+01   1.1354E-06  0.0210
   8.4241E+01   8.6291E+01   9.6357E-07  0.0225
   8.6291E+01   8.8391E+01   7.9065E-07  0.0245
   8.8391E+01   9.0541E+01   7.2212E-07  0.0254
   9.0541E+01   9.2744E+01   5.8195E-07  0.0279
   9.2744E+01   9.5001E+01   4.8703E-07  0.0302
   9.5001E+01   9.7312E+01   4.1316E-07  0.0324
   9.7312E+01   9.9680E+01   3.6238E-07  0.0341
   9.9680E+01   1.0211E+02   2.9563E-07  0.0373
   1.0211E+02   1.0459E+02   2.5440E-07  0.0398
   1.0459E+02   1.0713E+02   2.0631E-07  0.0436
   1.0713E+02   1.0974E+02   1.8414E-07  0.0456
   1.0974E+02   1.1241E+02   1.4232E-07  0.0513
   1.1241E+02   1.1515E+02   1.1773E-07  0.0557
   1.1515E+02   1.1795E+02   1.0316E-07  0.0588
   1.1795E+02   1.2082E+02   8.3631E-08  0.0645
   1.2082E+02   1.2376E+02   6.3615E-08  0.0731
   1.2376E+02   1.2677E+02   4.7823E-08  0.0833
   1.2677E+02   1.2985E+02   4.2796E-08  0.0870
   1.2985E+02   1.3301E+02   2.9436E-08  0.1037
   1.3301E+02   1.3625E+02   1.9467E-08  0.1260
   1.3625E+02   1.3956E+02   9.3514E-09  0.1796
   1.3956E+02   1.4296E+02   4.1229E-09  0.2673
   1.4296E+02   1.4644E+02   3.7375E-09  0.2774
   1.4644E+02   1.5000E+02   1.4033E-09  0.4472

#   sum over                 2.5400E-05
'no. =    1   reg = 113 - 213'
msuc: {\huge [t-cross] in region mesh}
msdr: {\it plotted by \ANGEL \version}
msdl: {\it calculated by \PHITS  3.26}
wt: s(0.7)
\vspace{-3}
  region surface crossing
  area  &=&   1.0000E+00 [cm^2]
e:
 
# Information for Restart Calculation
# This calculation was newly started
# istdev =  2 # 1:Batch variance, 2:History variance
# resc2  = 1.00000000000000000E+09 # Total source weight or Total source weight / maxcas
# resc3  = 1.00000000000000000E+09 # Total history number or Total batch number
# maxcas =   500000000 # History / Batch, only used for istdev=1
# bitrseed = 0001001110011001001001110000100100110111001111011100001000101100 # bit data of rseed
