[ T-Cross ]
    title = [t-cross] in region mesh
     mesh =  reg            # mesh type is region-wise
      reg =    1            # number of crossing regions
      non     r-from    r-to       area
      1       100       200        1.000000    
   e-type =    3            # e-mesh is log given by emin, emax and ne
     emin =  1.0000000E-02  # minimum value of e-mesh points
     emax =   150.0000      # maximum value of e-mesh points
#    edel =  2.4039514E-02  # mesh width of e-mesh points
       ne =    400          # number of e-mesh points
#    data = ( e(i), i = 1, ne + 1 )
#           1.00000E-02  1.02433E-02  1.04925E-02  1.07478E-02  1.10093E-02
#           1.12772E-02  1.15516E-02  1.18326E-02  1.21205E-02  1.24154E-02
#           1.27175E-02  1.30269E-02  1.33439E-02  1.36686E-02  1.40011E-02
#           1.43418E-02  1.46907E-02  1.50482E-02  1.54143E-02  1.57894E-02
#           1.61735E-02  1.65670E-02  1.69701E-02  1.73830E-02  1.78060E-02
#           1.82392E-02  1.86830E-02  1.91375E-02  1.96032E-02  2.00801E-02
#           2.05687E-02  2.10692E-02  2.15818E-02  2.21069E-02  2.26448E-02
#           2.31957E-02  2.37601E-02  2.43382E-02  2.49304E-02  2.55369E-02
#           2.61583E-02  2.67947E-02  2.74467E-02  2.81145E-02  2.87985E-02
#           2.94992E-02  3.02169E-02  3.09521E-02  3.17052E-02  3.24766E-02
#           3.32668E-02  3.40762E-02  3.49053E-02  3.57546E-02  3.66246E-02
#           3.75157E-02  3.84284E-02  3.93634E-02  4.03212E-02  4.13022E-02
#           4.23071E-02  4.33365E-02  4.43909E-02  4.54710E-02  4.65773E-02
#           4.77106E-02  4.88714E-02  5.00605E-02  5.12785E-02  5.25262E-02
#           5.38042E-02  5.51133E-02  5.64542E-02  5.78278E-02  5.92348E-02
#           6.06760E-02  6.21523E-02  6.36645E-02  6.52135E-02  6.68002E-02
#           6.84255E-02  7.00904E-02  7.17957E-02  7.35426E-02  7.53319E-02
#           7.71648E-02  7.90423E-02  8.09655E-02  8.29354E-02  8.49533E-02
#           8.70203E-02  8.91376E-02  9.13064E-02  9.35279E-02  9.58035E-02
#           9.81345E-02  1.00522E-01  1.02968E-01  1.05473E-01  1.08040E-01
#           1.10668E-01  1.13361E-01  1.16119E-01  1.18944E-01  1.21838E-01
#           1.24803E-01  1.27839E-01  1.30950E-01  1.34136E-01  1.37399E-01
#           1.40742E-01  1.44167E-01  1.47675E-01  1.51268E-01  1.54948E-01
#           1.58718E-01  1.62580E-01  1.66535E-01  1.70587E-01  1.74738E-01
#           1.78989E-01  1.83344E-01  1.87805E-01  1.92375E-01  1.97055E-01
#           2.01850E-01  2.06761E-01  2.11792E-01  2.16945E-01  2.22223E-01
#           2.27630E-01  2.33169E-01  2.38842E-01  2.44653E-01  2.50605E-01
#           2.56703E-01  2.62949E-01  2.69346E-01  2.75900E-01  2.82613E-01
#           2.89489E-01  2.96532E-01  3.03747E-01  3.11138E-01  3.18708E-01
#           3.26462E-01  3.34405E-01  3.42542E-01  3.50876E-01  3.59413E-01
#           3.68158E-01  3.77116E-01  3.86291E-01  3.95690E-01  4.05317E-01
#           4.15179E-01  4.25281E-01  4.35628E-01  4.46227E-01  4.57084E-01
#           4.68205E-01  4.79597E-01  4.91266E-01  5.03219E-01  5.15463E-01
#           5.28005E-01  5.40851E-01  5.54011E-01  5.67490E-01  5.81298E-01
#           5.95441E-01  6.09929E-01  6.24769E-01  6.39970E-01  6.55541E-01
#           6.71491E-01  6.87828E-01  7.04564E-01  7.21706E-01  7.39266E-01
#           7.57253E-01  7.75678E-01  7.94551E-01  8.13883E-01  8.33685E-01
#           8.53969E-01  8.74747E-01  8.96030E-01  9.17831E-01  9.40163E-01
#           9.63038E-01  9.86469E-01  1.01047E+00  1.03506E+00  1.06024E+00
#           1.08604E+00  1.11246E+00  1.13953E+00  1.16725E+00  1.19565E+00
#           1.22474E+00  1.25454E+00  1.28507E+00  1.31633E+00  1.34836E+00
#           1.38117E+00  1.41477E+00  1.44920E+00  1.48446E+00  1.52057E+00
#           1.55757E+00  1.59547E+00  1.63429E+00  1.67405E+00  1.71478E+00
#           1.75650E+00  1.79924E+00  1.84302E+00  1.88786E+00  1.93379E+00
#           1.98084E+00  2.02904E+00  2.07841E+00  2.12898E+00  2.18078E+00
#           2.23384E+00  2.28819E+00  2.34386E+00  2.40089E+00  2.45930E+00
#           2.51914E+00  2.58043E+00  2.64322E+00  2.70753E+00  2.77341E+00
#           2.84088E+00  2.91001E+00  2.98081E+00  3.05333E+00  3.12762E+00
#           3.20372E+00  3.28167E+00  3.36152E+00  3.44330E+00  3.52708E+00
#           3.61290E+00  3.70080E+00  3.79085E+00  3.88308E+00  3.97756E+00
#           4.07434E+00  4.17347E+00  4.27501E+00  4.37903E+00  4.48557E+00
#           4.59471E+00  4.70650E+00  4.82102E+00  4.93832E+00  5.05847E+00
#           5.18155E+00  5.30762E+00  5.43676E+00  5.56904E+00  5.70453E+00
#           5.84333E+00  5.98550E+00  6.13114E+00  6.28031E+00  6.43312E+00
#           6.58964E+00  6.74997E+00  6.91420E+00  7.08243E+00  7.25475E+00
#           7.43126E+00  7.61207E+00  7.79728E+00  7.98700E+00  8.18133E+00
#           8.38038E+00  8.58428E+00  8.79315E+00  9.00709E+00  9.22624E+00
#           9.45072E+00  9.68067E+00  9.91620E+00  1.01575E+01  1.04046E+01
#           1.06578E+01  1.09171E+01  1.11827E+01  1.14548E+01  1.17335E+01
#           1.20190E+01  1.23114E+01  1.26109E+01  1.29178E+01  1.32321E+01
#           1.35540E+01  1.38838E+01  1.42216E+01  1.45676E+01  1.49221E+01
#           1.52851E+01  1.56570E+01  1.60380E+01  1.64282E+01  1.68279E+01
#           1.72374E+01  1.76568E+01  1.80864E+01  1.85264E+01  1.89772E+01
#           1.94389E+01  1.99119E+01  2.03963E+01  2.08926E+01  2.14009E+01
#           2.19216E+01  2.24550E+01  2.30014E+01  2.35610E+01  2.41343E+01
#           2.47215E+01  2.53230E+01  2.59391E+01  2.65702E+01  2.72167E+01
#           2.78789E+01  2.85572E+01  2.92520E+01  2.99637E+01  3.06928E+01
#           3.14396E+01  3.22045E+01  3.29881E+01  3.37907E+01  3.46128E+01
#           3.54550E+01  3.63177E+01  3.72013E+01  3.81064E+01  3.90336E+01
#           3.99833E+01  4.09561E+01  4.19526E+01  4.29734E+01  4.40189E+01
#           4.50900E+01  4.61870E+01  4.73108E+01  4.84619E+01  4.96410E+01
#           5.08488E+01  5.20860E+01  5.33533E+01  5.46514E+01  5.59812E+01
#           5.73432E+01  5.87384E+01  6.01676E+01  6.16315E+01  6.31311E+01
#           6.46671E+01  6.62405E+01  6.78522E+01  6.95031E+01  7.11941E+01
#           7.29263E+01  7.47007E+01  7.65182E+01  7.83800E+01  8.02870E+01
#           8.22405E+01  8.42414E+01  8.62911E+01  8.83906E+01  9.05412E+01
#           9.27442E+01  9.50007E+01  9.73122E+01  9.96799E+01  1.02105E+02
#           1.04589E+02  1.07134E+02  1.09741E+02  1.12411E+02  1.15146E+02
#           1.17948E+02  1.20817E+02  1.23757E+02  1.26768E+02  1.29852E+02
#           1.33012E+02  1.36248E+02  1.39563E+02  1.42959E+02  1.46437E+02
#           1.50000E+02
     unit =    2            # unit is [1/cm^2/(MeV/n)/source]
     axis =  eng            # axis of output
     file = detector-01.out  # file name of output for the above axis
   output = f-curr          # surface crossing forward current spectrum
     part =  neutron  
# kf/name :  2112     
#    used :        main (  %)        temp (  %)       total (  %)
#  memory :         414 (  0)           0 (  0)         414 (  0)

#------------------------------------------------------------------------------
#newpage:
#   no. =    1   reg = 100 - 200

x: Energy [MeV/n]
y:  F-Curr [1/cm^2/(MeV/n)/source]         
p: xlog ylog afac(0.8) form(0.9)
h: n            x            y(neutron ),hh0l   n 
#  e-lower      e-upper      neutron     r.err 
   1.0000E-02   1.0243E-02   3.6579E-04  0.1060
   1.0243E-02   1.0493E-02   3.7716E-04  0.1031
   1.0493E-02   1.0748E-02   4.5830E-04  0.0925
   1.0748E-02   1.1009E-02   5.0860E-04  0.0867
   1.1009E-02   1.1277E-02   4.0319E-04  0.0962
   1.1277E-02   1.1552E-02   4.0454E-04  0.0949
   1.1552E-02   1.1833E-02   3.9849E-04  0.0945
   1.1833E-02   1.2121E-02   3.3693E-04  0.1015
   1.2121E-02   1.2415E-02   3.8996E-04  0.0933
   1.2415E-02   1.2718E-02   4.1380E-04  0.0894
   1.2718E-02   1.3027E-02   4.1044E-04  0.0887
   1.3027E-02   1.3344E-02   4.1331E-04  0.0874
   1.3344E-02   1.3669E-02   4.2505E-04  0.0851
   1.3669E-02   1.4001E-02   3.8789E-04  0.0880
   1.4001E-02   1.4342E-02   3.9923E-04  0.0857
   1.4342E-02   1.4691E-02   4.0407E-04  0.0842
   1.4691E-02   1.5048E-02   5.2317E-04  0.0731
   1.5048E-02   1.5414E-02   3.9603E-04  0.0830
   1.5414E-02   1.5789E-02   4.1329E-04  0.0803
   1.5789E-02   1.6174E-02   4.3210E-04  0.0776
   1.6174E-02   1.6567E-02   3.9389E-04  0.0803
   1.6567E-02   1.6970E-02   4.1182E-04  0.0776
   1.6970E-02   1.7383E-02   3.8024E-04  0.0798
   1.7383E-02   1.7806E-02   3.9012E-04  0.0778
   1.7806E-02   1.8239E-02   3.5777E-04  0.0803
   1.8239E-02   1.8683E-02   3.9660E-04  0.0754
   1.8683E-02   1.9138E-02   3.7398E-04  0.0767
   1.9138E-02   1.9603E-02   4.2308E-04  0.0712
   1.9603E-02   2.0080E-02   3.7320E-04  0.0750
   2.0080E-02   2.0569E-02   3.6843E-04  0.0745
   2.0569E-02   2.1069E-02   3.8765E-04  0.0718
   2.1069E-02   2.1582E-02   4.0380E-04  0.0695
   2.1582E-02   2.2107E-02   4.3801E-04  0.0659
   2.2107E-02   2.2645E-02   3.8113E-04  0.0698
   2.2645E-02   2.3196E-02   4.5919E-04  0.0629
   2.3196E-02   2.3760E-02   3.6678E-04  0.0695
   2.3760E-02   2.4338E-02   4.1688E-04  0.0644
   2.4338E-02   2.4930E-02   3.9347E-04  0.0655
   2.4930E-02   2.5537E-02   3.9237E-04  0.0648
   2.5537E-02   2.6158E-02   3.7178E-04  0.0658
   2.6158E-02   2.6795E-02   4.1323E-04  0.0617
   2.6795E-02   2.7447E-02   4.0648E-04  0.0614
   2.7447E-02   2.8114E-02   3.9084E-04  0.0619
   2.8114E-02   2.8799E-02   4.1956E-04  0.0590
   2.8799E-02   2.9499E-02   3.9390E-04  0.0602
   2.9499E-02   3.0217E-02   4.0126E-04  0.0589
   3.0217E-02   3.0952E-02   3.6589E-04  0.0610
   3.0952E-02   3.1705E-02   3.5985E-04  0.0607
   3.1705E-02   3.2477E-02   4.4723E-04  0.0538
   3.2477E-02   3.3267E-02   3.9358E-04  0.0567
   3.3267E-02   3.4076E-02   3.9844E-04  0.0557
   3.4076E-02   3.4905E-02   3.7390E-04  0.0568
   3.4905E-02   3.5755E-02   3.9210E-04  0.0548
   3.5755E-02   3.6625E-02   3.9313E-04  0.0541
   3.6625E-02   3.7516E-02   3.7257E-04  0.0549
   3.7516E-02   3.8428E-02   4.0097E-04  0.0523
   3.8428E-02   3.9363E-02   3.7754E-04  0.0532
   3.9363E-02   4.0321E-02   3.9677E-04  0.0513
   4.0321E-02   4.1302E-02   3.6797E-04  0.0526
   4.1302E-02   4.2307E-02   3.9605E-04  0.0501
   4.2307E-02   4.3337E-02   3.7790E-04  0.0507
   4.3337E-02   4.4391E-02   3.7082E-04  0.0506
   4.4391E-02   4.5471E-02   3.8701E-04  0.0489
   4.5471E-02   4.6577E-02   3.8596E-04  0.0484
   4.6577E-02   4.7711E-02   3.7679E-04  0.0484
   4.7711E-02   4.8871E-02   3.7128E-04  0.0482
   4.8871E-02   5.0061E-02   3.8854E-04  0.0465
   5.0061E-02   5.1279E-02   3.6453E-04  0.0475
   5.1279E-02   5.2526E-02   3.5106E-04  0.0478
   5.2526E-02   5.3804E-02   3.8419E-04  0.0451
   5.3804E-02   5.5113E-02   4.0180E-04  0.0436
   5.5113E-02   5.6454E-02   3.9375E-04  0.0435
   5.6454E-02   5.7828E-02   3.6147E-04  0.0449
   5.7828E-02   5.9235E-02   3.7953E-04  0.0433
   5.9235E-02   6.0676E-02   3.4068E-04  0.0451
   6.0676E-02   6.2152E-02   3.5833E-04  0.0435
   6.2152E-02   6.3665E-02   3.3990E-04  0.0441
   6.3665E-02   6.5214E-02   3.4409E-04  0.0433
   6.5214E-02   6.6800E-02   3.6554E-04  0.0415
   6.6800E-02   6.8426E-02   3.8362E-04  0.0400
   6.8426E-02   7.0090E-02   3.5679E-04  0.0410
   7.0090E-02   7.1796E-02   3.6356E-04  0.0402
   7.1796E-02   7.3543E-02   3.5435E-04  0.0402
   7.3543E-02   7.5332E-02   3.6466E-04  0.0391
   7.5332E-02   7.7165E-02   3.6718E-04  0.0385
   7.7165E-02   7.9042E-02   3.5207E-04  0.0389
   7.9042E-02   8.0965E-02   3.6268E-04  0.0379
   8.0965E-02   8.2935E-02   3.4899E-04  0.0381
   8.2935E-02   8.4953E-02   3.6028E-04  0.0371
   8.4953E-02   8.7020E-02   3.3624E-04  0.0379
   8.7020E-02   8.9138E-02   3.5423E-04  0.0365
   8.9138E-02   9.1306E-02   3.3682E-04  0.0370
   9.1306E-02   9.3528E-02   3.5291E-04  0.0357
   9.3528E-02   9.5804E-02   3.3002E-04  0.0365
   9.5804E-02   9.8134E-02   3.6380E-04  0.0343
   9.8134E-02   1.0052E-01   3.4804E-04  0.0347
   1.0052E-01   1.0297E-01   3.1769E-04  0.0359
   1.0297E-01   1.0547E-01   3.4367E-04  0.0341
   1.0547E-01   1.0804E-01   3.5499E-04  0.0331
   1.0804E-01   1.1067E-01   3.4276E-04  0.0333
   1.1067E-01   1.1336E-01   3.3536E-04  0.0333
   1.1336E-01   1.1612E-01   3.3066E-04  0.0331
   1.1612E-01   1.1894E-01   3.4298E-04  0.0321
   1.1894E-01   1.2184E-01   3.1755E-04  0.0330
   1.2184E-01   1.2480E-01   3.2789E-04  0.0321
   1.2480E-01   1.2784E-01   3.1747E-04  0.0322
   1.2784E-01   1.3095E-01   3.3790E-04  0.0308
   1.3095E-01   1.3414E-01   3.1449E-04  0.0316
   1.3414E-01   1.3740E-01   3.1836E-04  0.0310
   1.3740E-01   1.4074E-01   3.1379E-04  0.0309
   1.4074E-01   1.4417E-01   3.1101E-04  0.0306
   1.4417E-01   1.4767E-01   3.0248E-04  0.0307
   1.4767E-01   1.5127E-01   3.0253E-04  0.0303
   1.5127E-01   1.5495E-01   2.9806E-04  0.0302
   1.5495E-01   1.5872E-01   3.0292E-04  0.0296
   1.5872E-01   1.6258E-01   2.9883E-04  0.0294
   1.6258E-01   1.6654E-01   3.0917E-04  0.0286
   1.6654E-01   1.7059E-01   2.9838E-04  0.0288
   1.7059E-01   1.7474E-01   2.9177E-04  0.0287
   1.7474E-01   1.7899E-01   2.9942E-04  0.0280
   1.7899E-01   1.8334E-01   2.9977E-04  0.0277
   1.8334E-01   1.8781E-01   3.0644E-04  0.0270
   1.8781E-01   1.9237E-01   2.8472E-04  0.0277
   1.9237E-01   1.9706E-01   2.9868E-04  0.0267
   1.9706E-01   2.0185E-01   2.8470E-04  0.0271
   2.0185E-01   2.0676E-01   2.8608E-04  0.0267
   2.0676E-01   2.1179E-01   2.7561E-04  0.0269
   2.1179E-01   2.1694E-01   2.9031E-04  0.0259
   2.1694E-01   2.2222E-01   2.8342E-04  0.0259
   2.2222E-01   2.2763E-01   2.7484E-04  0.0259
   2.2763E-01   2.3317E-01   2.7174E-04  0.0258
   2.3317E-01   2.3884E-01   2.7040E-04  0.0255
   2.3884E-01   2.4465E-01   2.7671E-04  0.0249
   2.4465E-01   2.5061E-01   2.6131E-04  0.0254
   2.5061E-01   2.5670E-01   2.6847E-04  0.0247
   2.5670E-01   2.6295E-01   2.7362E-04  0.0242
   2.6295E-01   2.6935E-01   2.6322E-04  0.0244
   2.6935E-01   2.7590E-01   2.6040E-04  0.0242
   2.7590E-01   2.8261E-01   2.4930E-04  0.0244
   2.8261E-01   2.8949E-01   2.5814E-04  0.0237
   2.8949E-01   2.9653E-01   2.5825E-04  0.0234
   2.9653E-01   3.0375E-01   2.5350E-04  0.0234
   3.0375E-01   3.1114E-01   2.4796E-04  0.0234
   3.1114E-01   3.1871E-01   2.4834E-04  0.0231
   3.1871E-01   3.2646E-01   2.3625E-04  0.0234
   3.2646E-01   3.3441E-01   2.4386E-04  0.0227
   3.3441E-01   3.4254E-01   2.3598E-04  0.0228
   3.4254E-01   3.5088E-01   2.3169E-04  0.0228
   3.5088E-01   3.5941E-01   2.3925E-04  0.0221
   3.5941E-01   3.6816E-01   2.2882E-04  0.0224
   3.6816E-01   3.7712E-01   2.2685E-04  0.0222
   3.7712E-01   3.8629E-01   2.2865E-04  0.0218
   3.8629E-01   3.9569E-01   2.3046E-04  0.0215
   3.9569E-01   4.0532E-01   2.1740E-04  0.0219
   4.0532E-01   4.1518E-01   2.2349E-04  0.0213
   4.1518E-01   4.2528E-01   2.1160E-04  0.0216
   4.2528E-01   4.3563E-01   2.1319E-04  0.0213
   4.3563E-01   4.4623E-01   2.0266E-04  0.0216
   4.4623E-01   4.5708E-01   1.9826E-04  0.0216
   4.5708E-01   4.6821E-01   2.0052E-04  0.0212
   4.6821E-01   4.7960E-01   1.9255E-04  0.0214
   4.7960E-01   4.9127E-01   1.9239E-04  0.0211
   4.9127E-01   5.0322E-01   1.9585E-04  0.0207
   5.0322E-01   5.1546E-01   1.8438E-04  0.0210
   5.1546E-01   5.2800E-01   1.8459E-04  0.0208
   5.2800E-01   5.4085E-01   1.8285E-04  0.0206
   5.4085E-01   5.5401E-01   1.7387E-04  0.0209
   5.5401E-01   5.6749E-01   1.7501E-04  0.0206
   5.6749E-01   5.8130E-01   1.7393E-04  0.0204
   5.8130E-01   5.9544E-01   1.6725E-04  0.0206
   5.9544E-01   6.0993E-01   1.6987E-04  0.0202
   6.0993E-01   6.2477E-01   1.6536E-04  0.0202
   6.2477E-01   6.3997E-01   1.5650E-04  0.0205
   6.3997E-01   6.5554E-01   1.5548E-04  0.0203
   6.5554E-01   6.7149E-01   1.5107E-04  0.0204
   6.7149E-01   6.8783E-01   1.4788E-04  0.0203
   6.8783E-01   7.0456E-01   1.4592E-04  0.0202
   7.0456E-01   7.2171E-01   1.3752E-04  0.0206
   7.2171E-01   7.3927E-01   1.4032E-04  0.0201
   7.3927E-01   7.5725E-01   1.3137E-04  0.0206
   7.5725E-01   7.7568E-01   1.3254E-04  0.0202
   7.7568E-01   7.9455E-01   1.2489E-04  0.0206
   7.9455E-01   8.1388E-01   1.2177E-04  0.0206
   8.1388E-01   8.3368E-01   1.1824E-04  0.0207
   8.3368E-01   8.5397E-01   1.1322E-04  0.0209
   8.5397E-01   8.7475E-01   1.0928E-04  0.0210
   8.7475E-01   8.9603E-01   1.1098E-04  0.0206
   8.9603E-01   9.1783E-01   1.0371E-04  0.0210
   9.1783E-01   9.4016E-01   1.0196E-04  0.0210
   9.4016E-01   9.6304E-01   9.9279E-05  0.0210
   9.6304E-01   9.8647E-01   9.4211E-05  0.0213
   9.8647E-01   1.0105E+00   8.7661E-05  0.0218
   1.0105E+00   1.0351E+00   9.2737E-05  0.0209
   1.0351E+00   1.0602E+00   9.0098E-05  0.0210
   1.0602E+00   1.0860E+00   9.4199E-05  0.0203
   1.0860E+00   1.1125E+00   9.3570E-05  0.0201
   1.1125E+00   1.1395E+00   9.4912E-05  0.0197
   1.1395E+00   1.1673E+00   1.0267E-04  0.0187
   1.1673E+00   1.1957E+00   1.0201E-04  0.0186
   1.1957E+00   1.2247E+00   1.0362E-04  0.0182
   1.2247E+00   1.2545E+00   1.0547E-04  0.0178
   1.2545E+00   1.2851E+00   1.0628E-04  0.0176
   1.2851E+00   1.3163E+00   1.0486E-04  0.0175
   1.3163E+00   1.3484E+00   1.0650E-04  0.0171
   1.3484E+00   1.3812E+00   1.0608E-04  0.0170
   1.3812E+00   1.4148E+00   1.0835E-04  0.0166
   1.4148E+00   1.4492E+00   1.0723E-04  0.0165
   1.4492E+00   1.4845E+00   1.0698E-04  0.0163
   1.4845E+00   1.5206E+00   1.0532E-04  0.0162
   1.5206E+00   1.5576E+00   1.0771E-04  0.0158
   1.5576E+00   1.5955E+00   1.0955E-04  0.0155
   1.5955E+00   1.6343E+00   1.0731E-04  0.0155
   1.6343E+00   1.6741E+00   1.1083E-04  0.0151
   1.6741E+00   1.7148E+00   1.0879E-04  0.0150
   1.7148E+00   1.7565E+00   1.1311E-04  0.0146
   1.7565E+00   1.7992E+00   1.1023E-04  0.0146
   1.7992E+00   1.8430E+00   1.0575E-04  0.0147
   1.8430E+00   1.8879E+00   1.0695E-04  0.0144
   1.8879E+00   1.9338E+00   1.0718E-04  0.0143
   1.9338E+00   1.9808E+00   1.0227E-04  0.0144
   1.9808E+00   2.0290E+00   1.0567E-04  0.0140
   2.0290E+00   2.0784E+00   1.0267E-04  0.0140
   2.0784E+00   2.1290E+00   1.0052E-04  0.0140
   2.1290E+00   2.1808E+00   9.6352E-05  0.0142
   2.1808E+00   2.2338E+00   9.7738E-05  0.0139
   2.2338E+00   2.2882E+00   9.7248E-05  0.0138
   2.2882E+00   2.3439E+00   9.5369E-05  0.0137
   2.3439E+00   2.4009E+00   9.4077E-05  0.0137
   2.4009E+00   2.4593E+00   9.3537E-05  0.0135
   2.4593E+00   2.5191E+00   8.7254E-05  0.0138
   2.5191E+00   2.5804E+00   8.6911E-05  0.0137
   2.5804E+00   2.6432E+00   8.4034E-05  0.0138
   2.6432E+00   2.7075E+00   8.0732E-05  0.0139
   2.7075E+00   2.7734E+00   8.0135E-05  0.0138
   2.7734E+00   2.8409E+00   7.5734E-05  0.0140
   2.8409E+00   2.9100E+00   7.6518E-05  0.0137
   2.9100E+00   2.9808E+00   7.2977E-05  0.0139
   2.9808E+00   3.0533E+00   7.1982E-05  0.0138
   3.0533E+00   3.1276E+00   6.8784E-05  0.0140
   3.1276E+00   3.2037E+00   6.6802E-05  0.0140
   3.2037E+00   3.2817E+00   6.4080E-05  0.0141
   3.2817E+00   3.3615E+00   6.1224E-05  0.0143
   3.3615E+00   3.4433E+00   5.9348E-05  0.0144
   3.4433E+00   3.5271E+00   5.7073E-05  0.0145
   3.5271E+00   3.6129E+00   5.4436E-05  0.0146
   3.6129E+00   3.7008E+00   5.2278E-05  0.0148
   3.7008E+00   3.7908E+00   5.2708E-05  0.0145
   3.7908E+00   3.8831E+00   4.9201E-05  0.0148
   3.8831E+00   3.9776E+00   4.7445E-05  0.0149
   3.9776E+00   4.0743E+00   4.5455E-05  0.0151
   4.0743E+00   4.1735E+00   4.5177E-05  0.0149
   4.1735E+00   4.2750E+00   4.2420E-05  0.0152
   4.2750E+00   4.3790E+00   4.0297E-05  0.0154
   4.3790E+00   4.4856E+00   3.8303E-05  0.0157
   4.4856E+00   4.5947E+00   3.6976E-05  0.0157
   4.5947E+00   4.7065E+00   3.4846E-05  0.0160
   4.7065E+00   4.8210E+00   3.3961E-05  0.0160
   4.8210E+00   4.9383E+00   3.3214E-05  0.0160
   4.9383E+00   5.0585E+00   3.1672E-05  0.0162
   5.0585E+00   5.1815E+00   2.9721E-05  0.0165
   5.1815E+00   5.3076E+00   2.8607E-05  0.0166
   5.3076E+00   5.4368E+00   2.7517E-05  0.0168
   5.4368E+00   5.5690E+00   2.6572E-05  0.0169
   5.5690E+00   5.7045E+00   2.6281E-05  0.0168
   5.7045E+00   5.8433E+00   2.5138E-05  0.0169
   5.8433E+00   5.9855E+00   2.3651E-05  0.0172
   5.9855E+00   6.1311E+00   2.2818E-05  0.0173
   6.1311E+00   6.2803E+00   2.1740E-05  0.0176
   6.2803E+00   6.4331E+00   2.0536E-05  0.0178
   6.4331E+00   6.5896E+00   2.0023E-05  0.0179
   6.5896E+00   6.7500E+00   1.8546E-05  0.0183
   6.7500E+00   6.9142E+00   1.8367E-05  0.0182
   6.9142E+00   7.0824E+00   1.7797E-05  0.0183
   7.0824E+00   7.2548E+00   1.6945E-05  0.0185
   7.2548E+00   7.4313E+00   1.6356E-05  0.0186
   7.4313E+00   7.6121E+00   1.5221E-05  0.0191
   7.6121E+00   7.7973E+00   1.5264E-05  0.0188
   7.7973E+00   7.9870E+00   1.3934E-05  0.0194
   7.9870E+00   8.1813E+00   1.3994E-05  0.0192
   8.1813E+00   8.3804E+00   1.3205E-05  0.0195
   8.3804E+00   8.5843E+00   1.3070E-05  0.0194
   8.5843E+00   8.7931E+00   1.2360E-05  0.0197
   8.7931E+00   9.0071E+00   1.1695E-05  0.0200
   9.0071E+00   9.2262E+00   1.1611E-05  0.0198
   9.2262E+00   9.4507E+00   1.1310E-05  0.0198
   9.4507E+00   9.6807E+00   1.0779E-05  0.0201
   9.6807E+00   9.9162E+00   1.0421E-05  0.0202
   9.9162E+00   1.0157E+01   1.0121E-05  0.0202
   1.0157E+01   1.0405E+01   1.0174E-05  0.0199
   1.0405E+01   1.0658E+01   9.7372E-06  0.0201
   1.0658E+01   1.0917E+01   9.6698E-06  0.0200
   1.0917E+01   1.1183E+01   9.0881E-06  0.0204
   1.1183E+01   1.1455E+01   8.8392E-06  0.0204
   1.1455E+01   1.1733E+01   8.7656E-06  0.0202
   1.1733E+01   1.2019E+01   8.1948E-06  0.0207
   1.2019E+01   1.2311E+01   8.4704E-06  0.0201
   1.2311E+01   1.2611E+01   8.3142E-06  0.0200
   1.2611E+01   1.2918E+01   8.3351E-06  0.0198
   1.2918E+01   1.3232E+01   7.8635E-06  0.0201
   1.3232E+01   1.3554E+01   7.6037E-06  0.0202
   1.3554E+01   1.3884E+01   7.6869E-06  0.0199
   1.3884E+01   1.4222E+01   7.3060E-06  0.0201
   1.4222E+01   1.4568E+01   7.4923E-06  0.0196
   1.4568E+01   1.4922E+01   7.6148E-06  0.0192
   1.4922E+01   1.5285E+01   7.3912E-06  0.0193
   1.5285E+01   1.5657E+01   7.3030E-06  0.0192
   1.5657E+01   1.6038E+01   6.9878E-06  0.0194
   1.6038E+01   1.6428E+01   7.0627E-06  0.0190
   1.6428E+01   1.6828E+01   7.1276E-06  0.0187
   1.6828E+01   1.7237E+01   6.8216E-06  0.0189
   1.7237E+01   1.7657E+01   7.0899E-06  0.0183
   1.7657E+01   1.8086E+01   6.8179E-06  0.0185
   1.8086E+01   1.8526E+01   6.8537E-06  0.0182
   1.8526E+01   1.8977E+01   6.8551E-06  0.0180
   1.8977E+01   1.9439E+01   7.1665E-06  0.0174
   1.9439E+01   1.9912E+01   7.0936E-06  0.0173
   1.9912E+01   2.0396E+01   6.8776E-06  0.0173
   2.0396E+01   2.0893E+01   7.1213E-06  0.0168
   2.0893E+01   2.1401E+01   7.2059E-06  0.0165
   2.1401E+01   2.1922E+01   6.9541E-06  0.0166
   2.1922E+01   2.2455E+01   6.7120E-06  0.0167
   2.2455E+01   2.3001E+01   7.0614E-06  0.0161
   2.3001E+01   2.3561E+01   7.3351E-06  0.0156
   2.3561E+01   2.4134E+01   7.2742E-06  0.0155
   2.4134E+01   2.4721E+01   7.0742E-06  0.0155
   2.4721E+01   2.5323E+01   7.1871E-06  0.0152
   2.5323E+01   2.5939E+01   7.2177E-06  0.0150
   2.5939E+01   2.6570E+01   7.2031E-06  0.0148
   2.6570E+01   2.7217E+01   7.4001E-06  0.0145
   2.7217E+01   2.7879E+01   7.5309E-06  0.0142
   2.7879E+01   2.8557E+01   7.5511E-06  0.0140
   2.8557E+01   2.9252E+01   7.5631E-06  0.0138
   2.9252E+01   2.9964E+01   7.8907E-06  0.0133
   2.9964E+01   3.0693E+01   7.9886E-06  0.0131
   3.0693E+01   3.1440E+01   8.4791E-06  0.0126
   3.1440E+01   3.2205E+01   8.3313E-06  0.0125
   3.2205E+01   3.2988E+01   8.5303E-06  0.0122
   3.2988E+01   3.3791E+01   8.6803E-06  0.0120
   3.3791E+01   3.4613E+01   9.1370E-06  0.0115
   3.4613E+01   3.5455E+01   9.4828E-06  0.0112
   3.5455E+01   3.6318E+01   9.9623E-06  0.0108
   3.6318E+01   3.7201E+01   1.0357E-05  0.0105
   3.7201E+01   3.8106E+01   1.0977E-05  0.0100
   3.8106E+01   3.9034E+01   1.1647E-05  0.0096
   3.9034E+01   3.9983E+01   1.2248E-05  0.0093
   3.9983E+01   4.0956E+01   1.3006E-05  0.0089
   4.0956E+01   4.1953E+01   1.3799E-05  0.0085
   4.1953E+01   4.2973E+01   1.5347E-05  0.0080
   4.2973E+01   4.4019E+01   1.6692E-05  0.0076
   4.4019E+01   4.5090E+01   1.8147E-05  0.0072
   4.5090E+01   4.6187E+01   2.0312E-05  0.0067
   4.6187E+01   4.7311E+01   2.2835E-05  0.0062
   4.7311E+01   4.8462E+01   2.5494E-05  0.0058
   4.8462E+01   4.9641E+01   2.8509E-05  0.0055
   4.9641E+01   5.0849E+01   3.2336E-05  0.0051
   5.0849E+01   5.2086E+01   3.6690E-05  0.0047
   5.2086E+01   5.3353E+01   4.2173E-05  0.0043
   5.3353E+01   5.4651E+01   4.8472E-05  0.0040
   5.4651E+01   5.5981E+01   5.5848E-05  0.0037
   5.5981E+01   5.7343E+01   6.3754E-05  0.0034
   5.7343E+01   5.8738E+01   7.3683E-05  0.0031
   5.8738E+01   6.0168E+01   8.4258E-05  0.0029
   6.0168E+01   6.1632E+01   9.6128E-05  0.0027
   6.1632E+01   6.3131E+01   1.0878E-04  0.0025
   6.3131E+01   6.4667E+01   1.2255E-04  0.0023
   6.4667E+01   6.6240E+01   1.3670E-04  0.0022
   6.6240E+01   6.7852E+01   1.5029E-04  0.0020
   6.7852E+01   6.9503E+01   1.6367E-04  0.0019
   6.9503E+01   7.1194E+01   1.7417E-04  0.0018
   7.1194E+01   7.2926E+01   1.8335E-04  0.0018
   7.2926E+01   7.4701E+01   1.8833E-04  0.0017
   7.4701E+01   7.6518E+01   1.9066E-04  0.0017
   7.6518E+01   7.8380E+01   1.8893E-04  0.0017
   7.8380E+01   8.0287E+01   1.8430E-04  0.0017
   8.0287E+01   8.2240E+01   1.7476E-04  0.0017
   8.2240E+01   8.4241E+01   1.6331E-04  0.0017
   8.4241E+01   8.6291E+01   1.4919E-04  0.0018
   8.6291E+01   8.8391E+01   1.3344E-04  0.0019
   8.8391E+01   9.0541E+01   1.1758E-04  0.0020
   9.0541E+01   9.2744E+01   1.0266E-04  0.0021
   9.2744E+01   9.5001E+01   8.7771E-05  0.0022
   9.5001E+01   9.7312E+01   7.4566E-05  0.0024
   9.7312E+01   9.9680E+01   6.3222E-05  0.0026
   9.9680E+01   1.0211E+02   5.3289E-05  0.0028
   1.0211E+02   1.0459E+02   4.4607E-05  0.0030
   1.0459E+02   1.0713E+02   3.7208E-05  0.0032
   1.0713E+02   1.0974E+02   3.0907E-05  0.0035
   1.0974E+02   1.1241E+02   2.6057E-05  0.0038
   1.1241E+02   1.1515E+02   2.1740E-05  0.0041
   1.1515E+02   1.1795E+02   1.8338E-05  0.0044
   1.1795E+02   1.2082E+02   1.5368E-05  0.0048
   1.2082E+02   1.2376E+02   1.2829E-05  0.0051
   1.2376E+02   1.2677E+02   1.0739E-05  0.0056
   1.2677E+02   1.2985E+02   9.0430E-06  0.0060
   1.2985E+02   1.3301E+02   7.7419E-06  0.0064
   1.3301E+02   1.3625E+02   6.5096E-06  0.0069
   1.3625E+02   1.3956E+02   5.7420E-06  0.0072
   1.3956E+02   1.4296E+02   4.9531E-06  0.0077
   1.4296E+02   1.4644E+02   4.2049E-06  0.0083
   1.4644E+02   1.5000E+02   3.4985E-06  0.0090

#   sum over                 5.2777E-05
'no. =    1   reg = 100 - 200'
msuc: {\huge [t-cross] in region mesh}
msdr: {\it plotted by \ANGEL \version}
msdl: {\it calculated by \PHITS  3.26}
wt: s(0.7)
\vspace{-3}
  region surface crossing
  area  &=&   1.0000E+00 [cm^2]
e:
 
# Information for Restart Calculation
# This calculation was newly started
# istdev =  2 # 1:Batch variance, 2:History variance
# resc2  = 1.00000000000000000E+09 # Total source weight or Total source weight / maxcas
# resc3  = 1.00000000000000000E+09 # Total history number or Total batch number
# maxcas =   500000000 # History / Batch, only used for istdev=1
# bitrseed = 0001001110011001001001110000100100110111001111011100001000101100 # bit data of rseed
