[ T-Cross ]
    title = [t-cross] in region mesh
     mesh =  reg            # mesh type is region-wise
      reg =    1            # number of crossing regions
      non     r-from    r-to       area
      1       113       213        1.000000    
   e-type =    3            # e-mesh is log given by emin, emax and ne
     emin =  1.0000000E-02  # minimum value of e-mesh points
     emax =   150.0000      # maximum value of e-mesh points
#    edel =  2.4039514E-02  # mesh width of e-mesh points
       ne =    400          # number of e-mesh points
#    data = ( e(i), i = 1, ne + 1 )
#           1.00000E-02  1.02433E-02  1.04925E-02  1.07478E-02  1.10093E-02
#           1.12772E-02  1.15516E-02  1.18326E-02  1.21205E-02  1.24154E-02
#           1.27175E-02  1.30269E-02  1.33439E-02  1.36686E-02  1.40011E-02
#           1.43418E-02  1.46907E-02  1.50482E-02  1.54143E-02  1.57894E-02
#           1.61735E-02  1.65670E-02  1.69701E-02  1.73830E-02  1.78060E-02
#           1.82392E-02  1.86830E-02  1.91375E-02  1.96032E-02  2.00801E-02
#           2.05687E-02  2.10692E-02  2.15818E-02  2.21069E-02  2.26448E-02
#           2.31957E-02  2.37601E-02  2.43382E-02  2.49304E-02  2.55369E-02
#           2.61583E-02  2.67947E-02  2.74467E-02  2.81145E-02  2.87985E-02
#           2.94992E-02  3.02169E-02  3.09521E-02  3.17052E-02  3.24766E-02
#           3.32668E-02  3.40762E-02  3.49053E-02  3.57546E-02  3.66246E-02
#           3.75157E-02  3.84284E-02  3.93634E-02  4.03212E-02  4.13022E-02
#           4.23071E-02  4.33365E-02  4.43909E-02  4.54710E-02  4.65773E-02
#           4.77106E-02  4.88714E-02  5.00605E-02  5.12785E-02  5.25262E-02
#           5.38042E-02  5.51133E-02  5.64542E-02  5.78278E-02  5.92348E-02
#           6.06760E-02  6.21523E-02  6.36645E-02  6.52135E-02  6.68002E-02
#           6.84255E-02  7.00904E-02  7.17957E-02  7.35426E-02  7.53319E-02
#           7.71648E-02  7.90423E-02  8.09655E-02  8.29354E-02  8.49533E-02
#           8.70203E-02  8.91376E-02  9.13064E-02  9.35279E-02  9.58035E-02
#           9.81345E-02  1.00522E-01  1.02968E-01  1.05473E-01  1.08040E-01
#           1.10668E-01  1.13361E-01  1.16119E-01  1.18944E-01  1.21838E-01
#           1.24803E-01  1.27839E-01  1.30950E-01  1.34136E-01  1.37399E-01
#           1.40742E-01  1.44167E-01  1.47675E-01  1.51268E-01  1.54948E-01
#           1.58718E-01  1.62580E-01  1.66535E-01  1.70587E-01  1.74738E-01
#           1.78989E-01  1.83344E-01  1.87805E-01  1.92375E-01  1.97055E-01
#           2.01850E-01  2.06761E-01  2.11792E-01  2.16945E-01  2.22223E-01
#           2.27630E-01  2.33169E-01  2.38842E-01  2.44653E-01  2.50605E-01
#           2.56703E-01  2.62949E-01  2.69346E-01  2.75900E-01  2.82613E-01
#           2.89489E-01  2.96532E-01  3.03747E-01  3.11138E-01  3.18708E-01
#           3.26462E-01  3.34405E-01  3.42542E-01  3.50876E-01  3.59413E-01
#           3.68158E-01  3.77116E-01  3.86291E-01  3.95690E-01  4.05317E-01
#           4.15179E-01  4.25281E-01  4.35628E-01  4.46227E-01  4.57084E-01
#           4.68205E-01  4.79597E-01  4.91266E-01  5.03219E-01  5.15463E-01
#           5.28005E-01  5.40851E-01  5.54011E-01  5.67490E-01  5.81298E-01
#           5.95441E-01  6.09929E-01  6.24769E-01  6.39970E-01  6.55541E-01
#           6.71491E-01  6.87828E-01  7.04564E-01  7.21706E-01  7.39266E-01
#           7.57253E-01  7.75678E-01  7.94551E-01  8.13883E-01  8.33685E-01
#           8.53969E-01  8.74747E-01  8.96030E-01  9.17831E-01  9.40163E-01
#           9.63038E-01  9.86469E-01  1.01047E+00  1.03506E+00  1.06024E+00
#           1.08604E+00  1.11246E+00  1.13953E+00  1.16725E+00  1.19565E+00
#           1.22474E+00  1.25454E+00  1.28507E+00  1.31633E+00  1.34836E+00
#           1.38117E+00  1.41477E+00  1.44920E+00  1.48446E+00  1.52057E+00
#           1.55757E+00  1.59547E+00  1.63429E+00  1.67405E+00  1.71478E+00
#           1.75650E+00  1.79924E+00  1.84302E+00  1.88786E+00  1.93379E+00
#           1.98084E+00  2.02904E+00  2.07841E+00  2.12898E+00  2.18078E+00
#           2.23384E+00  2.28819E+00  2.34386E+00  2.40089E+00  2.45930E+00
#           2.51914E+00  2.58043E+00  2.64322E+00  2.70753E+00  2.77341E+00
#           2.84088E+00  2.91001E+00  2.98081E+00  3.05333E+00  3.12762E+00
#           3.20372E+00  3.28167E+00  3.36152E+00  3.44330E+00  3.52708E+00
#           3.61290E+00  3.70080E+00  3.79085E+00  3.88308E+00  3.97756E+00
#           4.07434E+00  4.17347E+00  4.27501E+00  4.37903E+00  4.48557E+00
#           4.59471E+00  4.70650E+00  4.82102E+00  4.93832E+00  5.05847E+00
#           5.18155E+00  5.30762E+00  5.43676E+00  5.56904E+00  5.70453E+00
#           5.84333E+00  5.98550E+00  6.13114E+00  6.28031E+00  6.43312E+00
#           6.58964E+00  6.74997E+00  6.91420E+00  7.08243E+00  7.25475E+00
#           7.43126E+00  7.61207E+00  7.79728E+00  7.98700E+00  8.18133E+00
#           8.38038E+00  8.58428E+00  8.79315E+00  9.00709E+00  9.22624E+00
#           9.45072E+00  9.68067E+00  9.91620E+00  1.01575E+01  1.04046E+01
#           1.06578E+01  1.09171E+01  1.11827E+01  1.14548E+01  1.17335E+01
#           1.20190E+01  1.23114E+01  1.26109E+01  1.29178E+01  1.32321E+01
#           1.35540E+01  1.38838E+01  1.42216E+01  1.45676E+01  1.49221E+01
#           1.52851E+01  1.56570E+01  1.60380E+01  1.64282E+01  1.68279E+01
#           1.72374E+01  1.76568E+01  1.80864E+01  1.85264E+01  1.89772E+01
#           1.94389E+01  1.99119E+01  2.03963E+01  2.08926E+01  2.14009E+01
#           2.19216E+01  2.24550E+01  2.30014E+01  2.35610E+01  2.41343E+01
#           2.47215E+01  2.53230E+01  2.59391E+01  2.65702E+01  2.72167E+01
#           2.78789E+01  2.85572E+01  2.92520E+01  2.99637E+01  3.06928E+01
#           3.14396E+01  3.22045E+01  3.29881E+01  3.37907E+01  3.46128E+01
#           3.54550E+01  3.63177E+01  3.72013E+01  3.81064E+01  3.90336E+01
#           3.99833E+01  4.09561E+01  4.19526E+01  4.29734E+01  4.40189E+01
#           4.50900E+01  4.61870E+01  4.73108E+01  4.84619E+01  4.96410E+01
#           5.08488E+01  5.20860E+01  5.33533E+01  5.46514E+01  5.59812E+01
#           5.73432E+01  5.87384E+01  6.01676E+01  6.16315E+01  6.31311E+01
#           6.46671E+01  6.62405E+01  6.78522E+01  6.95031E+01  7.11941E+01
#           7.29263E+01  7.47007E+01  7.65182E+01  7.83800E+01  8.02870E+01
#           8.22405E+01  8.42414E+01  8.62911E+01  8.83906E+01  9.05412E+01
#           9.27442E+01  9.50007E+01  9.73122E+01  9.96799E+01  1.02105E+02
#           1.04589E+02  1.07134E+02  1.09741E+02  1.12411E+02  1.15146E+02
#           1.17948E+02  1.20817E+02  1.23757E+02  1.26768E+02  1.29852E+02
#           1.33012E+02  1.36248E+02  1.39563E+02  1.42959E+02  1.46437E+02
#           1.50000E+02
     unit =    2            # unit is [1/cm^2/(MeV/n)/source]
     axis =  eng            # axis of output
     file = detector-14.out  # file name of output for the above axis
   output = f-curr          # surface crossing forward current spectrum
     part =  neutron  
# kf/name :  2112     
#    used :        main (  %)        temp (  %)       total (  %)
#  memory :         414 (  0)           0 (  0)         414 (  0)

#------------------------------------------------------------------------------
#newpage:
#   no. =    1   reg = 113 - 213

x: Energy [MeV/n]
y:  F-Curr [1/cm^2/(MeV/n)/source]         
p: xlog ylog afac(0.8) form(0.9)
h: n            x            y(neutron ),hh0l   n 
#  e-lower      e-upper      neutron     r.err 
   1.0000E-02   1.0243E-02   1.4815E-03  0.0355
   1.0243E-02   1.0493E-02   1.3569E-03  0.0367
   1.0493E-02   1.0748E-02   1.4422E-03  0.0351
   1.0748E-02   1.1009E-02   1.4358E-03  0.0348
   1.1009E-02   1.1277E-02   1.3728E-03  0.0352
   1.1277E-02   1.1552E-02   1.3899E-03  0.0346
   1.1552E-02   1.1833E-02   1.4038E-03  0.0339
   1.1833E-02   1.2121E-02   1.2931E-03  0.0349
   1.2121E-02   1.2415E-02   1.2685E-03  0.0349
   1.2415E-02   1.2718E-02   1.2625E-03  0.0345
   1.2718E-02   1.3027E-02   1.2633E-03  0.0341
   1.3027E-02   1.3344E-02   1.2376E-03  0.0340
   1.3344E-02   1.3669E-02   1.2292E-03  0.0337
   1.3669E-02   1.4001E-02   1.2383E-03  0.0332
   1.4001E-02   1.4342E-02   1.2422E-03  0.0328
   1.4342E-02   1.4691E-02   1.1867E-03  0.0331
   1.4691E-02   1.5048E-02   1.1674E-03  0.0330
   1.5048E-02   1.5414E-02   1.0341E-03  0.0346
   1.5414E-02   1.5789E-02   1.0908E-03  0.0333
   1.5789E-02   1.6174E-02   1.0897E-03  0.0330
   1.6174E-02   1.6567E-02   1.1424E-03  0.0318
   1.6567E-02   1.6970E-02   9.9572E-04  0.0337
   1.6970E-02   1.7383E-02   9.9739E-04  0.0332
   1.7383E-02   1.7806E-02   1.0199E-03  0.0325
   1.7806E-02   1.8239E-02   1.0193E-03  0.0321
   1.8239E-02   1.8683E-02   9.9662E-04  0.0321
   1.8683E-02   1.9138E-02   9.5695E-04  0.0323
   1.9138E-02   1.9603E-02   9.6643E-04  0.0318
   1.9603E-02   2.0080E-02   9.6063E-04  0.0315
   2.0080E-02   2.0569E-02   8.9222E-04  0.0323
   2.0569E-02   2.1069E-02   8.8193E-04  0.0321
   2.1069E-02   2.1582E-02   9.1596E-04  0.0311
   2.1582E-02   2.2107E-02   9.3791E-04  0.0304
   2.2107E-02   2.2645E-02   8.2141E-04  0.0321
   2.2645E-02   2.3196E-02   8.8027E-04  0.0306
   2.3196E-02   2.3760E-02   7.7198E-04  0.0323
   2.3760E-02   2.4338E-02   7.8863E-04  0.0316
   2.4338E-02   2.4930E-02   8.3476E-04  0.0303
   2.4930E-02   2.5537E-02   7.5910E-04  0.0314
   2.5537E-02   2.6158E-02   7.8131E-04  0.0306
   2.6158E-02   2.6795E-02   7.8989E-04  0.0301
   2.6795E-02   2.7447E-02   7.8019E-04  0.0299
   2.7447E-02   2.8114E-02   7.7255E-04  0.0297
   2.8114E-02   2.8799E-02   7.0968E-04  0.0306
   2.8799E-02   2.9499E-02   7.5899E-04  0.0292
   2.9499E-02   3.0217E-02   7.1816E-04  0.0297
   3.0217E-02   3.0952E-02   6.5288E-04  0.0308
   3.0952E-02   3.1705E-02   6.6695E-04  0.0301
   3.1705E-02   3.2477E-02   6.5995E-04  0.0299
   3.2477E-02   3.3267E-02   6.7361E-04  0.0292
   3.3267E-02   3.4076E-02   6.5255E-04  0.0293
   3.4076E-02   3.4905E-02   6.5843E-04  0.0289
   3.4905E-02   3.5755E-02   6.4654E-04  0.0288
   3.5755E-02   3.6625E-02   5.7946E-04  0.0300
   3.6625E-02   3.7516E-02   6.3302E-04  0.0284
   3.7516E-02   3.8428E-02   6.2297E-04  0.0283
   3.8428E-02   3.9363E-02   5.8143E-04  0.0289
   3.9363E-02   4.0321E-02   5.7664E-04  0.0287
   4.0321E-02   4.1302E-02   5.5136E-04  0.0290
   4.1302E-02   4.2307E-02   5.4957E-04  0.0287
   4.2307E-02   4.3337E-02   5.5551E-04  0.0282
   4.3337E-02   4.4391E-02   5.4447E-04  0.0281
   4.4391E-02   4.5471E-02   5.4079E-04  0.0279
   4.5471E-02   4.6577E-02   5.2425E-04  0.0280
   4.6577E-02   4.7711E-02   5.0217E-04  0.0283
   4.7711E-02   4.8871E-02   5.2548E-04  0.0273
   4.8871E-02   5.0061E-02   5.1300E-04  0.0273
   5.0061E-02   5.1279E-02   5.0082E-04  0.0273
   5.1279E-02   5.2526E-02   4.8783E-04  0.0273
   5.2526E-02   5.3804E-02   4.6059E-04  0.0278
   5.3804E-02   5.5113E-02   4.7396E-04  0.0271
   5.5113E-02   5.6454E-02   4.6507E-04  0.0270
   5.6454E-02   5.7828E-02   4.6610E-04  0.0266
   5.7828E-02   5.9235E-02   4.4259E-04  0.0270
   5.9235E-02   6.0676E-02   4.5826E-04  0.0262
   6.0676E-02   6.2152E-02   4.1196E-04  0.0273
   6.2152E-02   6.3665E-02   4.3254E-04  0.0264
   6.3665E-02   6.5214E-02   3.9967E-04  0.0271
   6.5214E-02   6.6800E-02   4.0335E-04  0.0267
   6.6800E-02   6.8426E-02   3.9965E-04  0.0265
   6.8426E-02   7.0090E-02   3.8961E-04  0.0265
   7.0090E-02   7.1796E-02   3.8035E-04  0.0265
   7.1796E-02   7.3543E-02   3.7262E-04  0.0264
   7.3543E-02   7.5332E-02   3.9501E-04  0.0254
   7.5332E-02   7.7165E-02   3.7472E-04  0.0257
   7.7165E-02   7.9042E-02   3.7211E-04  0.0255
   7.9042E-02   8.0965E-02   3.5358E-04  0.0259
   8.0965E-02   8.2935E-02   3.5280E-04  0.0256
   8.2935E-02   8.4953E-02   3.4510E-04  0.0255
   8.4953E-02   8.7020E-02   3.5867E-04  0.0248
   8.7020E-02   8.9138E-02   3.3018E-04  0.0255
   8.9138E-02   9.1306E-02   3.4183E-04  0.0248
   9.1306E-02   9.3528E-02   3.2778E-04  0.0250
   9.3528E-02   9.5804E-02   3.2519E-04  0.0248
   9.5804E-02   9.8134E-02   3.2273E-04  0.0246
   9.8134E-02   1.0052E-01   3.0402E-04  0.0250
   1.0052E-01   1.0297E-01   2.9847E-04  0.0250
   1.0297E-01   1.0547E-01   2.9991E-04  0.0246
   1.0547E-01   1.0804E-01   2.8428E-04  0.0250
   1.0804E-01   1.1067E-01   2.8462E-04  0.0246
   1.1067E-01   1.1336E-01   2.9491E-04  0.0239
   1.1336E-01   1.1612E-01   2.7241E-04  0.0246
   1.1612E-01   1.1894E-01   2.8171E-04  0.0239
   1.1894E-01   1.2184E-01   2.5766E-04  0.0247
   1.2184E-01   1.2480E-01   2.7815E-04  0.0235
   1.2480E-01   1.2784E-01   2.6316E-04  0.0239
   1.2784E-01   1.3095E-01   2.6801E-04  0.0234
   1.3095E-01   1.3414E-01   2.5808E-04  0.0235
   1.3414E-01   1.3740E-01   2.5070E-04  0.0236
   1.3740E-01   1.4074E-01   2.2775E-04  0.0244
   1.4074E-01   1.4417E-01   2.4596E-04  0.0232
   1.4417E-01   1.4767E-01   2.3708E-04  0.0234
   1.4767E-01   1.5127E-01   2.3480E-04  0.0232
   1.5127E-01   1.5495E-01   2.1650E-04  0.0239
   1.5495E-01   1.5872E-01   2.2028E-04  0.0234
   1.5872E-01   1.6258E-01   2.1528E-04  0.0234
   1.6258E-01   1.6654E-01   2.1936E-04  0.0229
   1.6654E-01   1.7059E-01   2.0349E-04  0.0235
   1.7059E-01   1.7474E-01   2.0895E-04  0.0229
   1.7474E-01   1.7899E-01   2.0004E-04  0.0231
   1.7899E-01   1.8334E-01   2.0061E-04  0.0228
   1.8334E-01   1.8781E-01   1.9829E-04  0.0227
   1.8781E-01   1.9237E-01   1.9616E-04  0.0225
   1.9237E-01   1.9706E-01   1.8995E-04  0.0226
   1.9706E-01   2.0185E-01   1.9122E-04  0.0223
   2.0185E-01   2.0676E-01   1.8761E-04  0.0222
   2.0676E-01   2.1179E-01   1.7899E-04  0.0225
   2.1179E-01   2.1694E-01   1.7289E-04  0.0226
   2.1694E-01   2.2222E-01   1.7300E-04  0.0223
   2.2222E-01   2.2763E-01   1.6284E-04  0.0227
   2.2763E-01   2.3317E-01   1.6751E-04  0.0221
   2.3317E-01   2.3884E-01   1.6313E-04  0.0222
   2.3884E-01   2.4465E-01   1.6027E-04  0.0221
   2.4465E-01   2.5061E-01   1.6043E-04  0.0218
   2.5061E-01   2.5670E-01   1.5096E-04  0.0222
   2.5670E-01   2.6295E-01   1.4519E-04  0.0224
   2.6295E-01   2.6935E-01   1.4668E-04  0.0220
   2.6935E-01   2.7590E-01   1.4718E-04  0.0217
   2.7590E-01   2.8261E-01   1.4169E-04  0.0219
   2.8261E-01   2.8949E-01   1.4331E-04  0.0215
   2.8949E-01   2.9653E-01   1.3920E-04  0.0215
   2.9653E-01   3.0375E-01   1.3060E-04  0.0220
   3.0375E-01   3.1114E-01   1.3165E-04  0.0216
   3.1114E-01   3.1871E-01   1.2795E-04  0.0217
   3.1871E-01   3.2646E-01   1.2298E-04  0.0218
   3.2646E-01   3.3441E-01   1.2412E-04  0.0215
   3.3441E-01   3.4254E-01   1.2229E-04  0.0214
   3.4254E-01   3.5088E-01   1.1650E-04  0.0216
   3.5088E-01   3.5941E-01   1.1692E-04  0.0213
   3.5941E-01   3.6816E-01   1.1519E-04  0.0212
   3.6816E-01   3.7712E-01   1.1012E-04  0.0215
   3.7712E-01   3.8629E-01   1.0795E-04  0.0214
   3.8629E-01   3.9569E-01   1.0557E-04  0.0214
   3.9569E-01   4.0532E-01   9.9479E-05  0.0218
   4.0532E-01   4.1518E-01   1.0007E-04  0.0215
   4.1518E-01   4.2528E-01   9.8949E-05  0.0213
   4.2528E-01   4.3563E-01   9.9915E-05  0.0210
   4.3563E-01   4.4623E-01   9.8078E-05  0.0209
   4.4623E-01   4.5708E-01   9.2880E-05  0.0212
   4.5708E-01   4.6821E-01   8.5994E-05  0.0218
   4.6821E-01   4.7960E-01   8.6865E-05  0.0214
   4.7960E-01   4.9127E-01   8.6087E-05  0.0213
   4.9127E-01   5.0322E-01   7.9441E-05  0.0219
   5.0322E-01   5.1546E-01   7.8686E-05  0.0217
   5.1546E-01   5.2800E-01   7.6926E-05  0.0217
   5.2800E-01   5.4085E-01   7.5399E-05  0.0217
   5.4085E-01   5.5401E-01   7.3297E-05  0.0217
   5.5401E-01   5.6749E-01   7.2804E-05  0.0215
   5.6749E-01   5.8130E-01   6.6762E-05  0.0222
   5.8130E-01   5.9544E-01   6.9194E-05  0.0216
   5.9544E-01   6.0993E-01   6.3534E-05  0.0222
   6.0993E-01   6.2477E-01   6.5701E-05  0.0216
   6.2477E-01   6.3997E-01   5.9326E-05  0.0225
   6.3997E-01   6.5554E-01   5.8617E-05  0.0223
   6.5554E-01   6.7149E-01   5.5373E-05  0.0227
   6.7149E-01   6.8783E-01   5.7201E-05  0.0221
   6.8783E-01   7.0456E-01   5.6766E-05  0.0219
   7.0456E-01   7.2171E-01   5.0844E-05  0.0228
   7.2171E-01   7.3927E-01   5.2030E-05  0.0223
   7.3927E-01   7.5725E-01   4.9278E-05  0.0226
   7.5725E-01   7.7568E-01   4.7713E-05  0.0227
   7.7568E-01   7.9455E-01   4.8025E-05  0.0224
   7.9455E-01   8.1388E-01   4.5356E-05  0.0228
   8.1388E-01   8.3368E-01   4.3590E-05  0.0229
   8.3368E-01   8.5397E-01   4.2599E-05  0.0229
   8.5397E-01   8.7475E-01   3.9137E-05  0.0236
   8.7475E-01   8.9603E-01   3.8357E-05  0.0236
   8.9603E-01   9.1783E-01   3.7654E-05  0.0235
   9.1783E-01   9.4016E-01   3.5071E-05  0.0241
   9.4016E-01   9.6304E-01   3.3284E-05  0.0244
   9.6304E-01   9.8647E-01   3.2173E-05  0.0246
   9.8647E-01   1.0105E+00   3.1040E-05  0.0247
   1.0105E+00   1.0351E+00   3.2382E-05  0.0239
   1.0351E+00   1.0602E+00   3.0774E-05  0.0242
   1.0602E+00   1.0860E+00   3.2334E-05  0.0233
   1.0860E+00   1.1125E+00   3.3182E-05  0.0228
   1.1125E+00   1.1395E+00   3.3797E-05  0.0223
   1.1395E+00   1.1673E+00   3.4469E-05  0.0218
   1.1673E+00   1.1957E+00   3.5499E-05  0.0212
   1.1957E+00   1.2247E+00   3.7390E-05  0.0204
   1.2247E+00   1.2545E+00   3.6960E-05  0.0203
   1.2545E+00   1.2851E+00   3.5963E-05  0.0203
   1.2851E+00   1.3163E+00   3.7253E-05  0.0198
   1.3163E+00   1.3484E+00   3.8461E-05  0.0192
   1.3484E+00   1.3812E+00   3.8712E-05  0.0189
   1.3812E+00   1.4148E+00   4.0186E-05  0.0183
   1.4148E+00   1.4492E+00   3.9403E-05  0.0183
   1.4492E+00   1.4845E+00   3.9151E-05  0.0182
   1.4845E+00   1.5206E+00   3.8145E-05  0.0182
   1.5206E+00   1.5576E+00   3.7976E-05  0.0180
   1.5576E+00   1.5955E+00   3.8873E-05  0.0176
   1.5955E+00   1.6343E+00   3.8313E-05  0.0175
   1.6343E+00   1.6741E+00   4.1255E-05  0.0166
   1.6741E+00   1.7148E+00   4.2005E-05  0.0163
   1.7148E+00   1.7565E+00   4.0789E-05  0.0163
   1.7565E+00   1.7992E+00   3.8975E-05  0.0165
   1.7992E+00   1.8430E+00   3.9342E-05  0.0162
   1.8430E+00   1.8879E+00   3.8661E-05  0.0162
   1.8879E+00   1.9338E+00   4.0870E-05  0.0156
   1.9338E+00   1.9808E+00   3.9382E-05  0.0157
   1.9808E+00   2.0290E+00   3.8489E-05  0.0157
   2.0290E+00   2.0784E+00   3.8376E-05  0.0155
   2.0784E+00   2.1290E+00   3.7347E-05  0.0155
   2.1290E+00   2.1808E+00   3.6890E-05  0.0154
   2.1808E+00   2.2338E+00   3.5153E-05  0.0156
   2.2338E+00   2.2882E+00   3.5890E-05  0.0153
   2.2882E+00   2.3439E+00   3.6838E-05  0.0149
   2.3439E+00   2.4009E+00   3.4361E-05  0.0152
   2.4009E+00   2.4593E+00   3.5766E-05  0.0148
   2.4593E+00   2.5191E+00   3.3584E-05  0.0150
   2.5191E+00   2.5804E+00   3.2237E-05  0.0152
   2.5804E+00   2.6432E+00   3.1855E-05  0.0151
   2.6432E+00   2.7075E+00   3.1042E-05  0.0151
   2.7075E+00   2.7734E+00   3.0198E-05  0.0151
   2.7734E+00   2.8409E+00   2.9336E-05  0.0152
   2.8409E+00   2.9100E+00   2.8889E-05  0.0151
   2.9100E+00   2.9808E+00   2.7869E-05  0.0152
   2.9808E+00   3.0533E+00   2.7815E-05  0.0150
   3.0533E+00   3.1276E+00   2.6775E-05  0.0151
   3.1276E+00   3.2037E+00   2.5810E-05  0.0152
   3.2037E+00   3.2817E+00   2.5425E-05  0.0151
   3.2817E+00   3.3615E+00   2.3494E-05  0.0156
   3.3615E+00   3.4433E+00   2.3303E-05  0.0154
   3.4433E+00   3.5271E+00   2.2001E-05  0.0157
   3.5271E+00   3.6129E+00   2.1971E-05  0.0155
   3.6129E+00   3.7008E+00   2.1723E-05  0.0154
   3.7008E+00   3.7908E+00   2.0576E-05  0.0157
   3.7908E+00   3.8831E+00   2.0181E-05  0.0156
   3.8831E+00   3.9776E+00   1.9225E-05  0.0158
   3.9776E+00   4.0743E+00   1.8642E-05  0.0159
   4.0743E+00   4.1735E+00   1.8428E-05  0.0158
   4.1735E+00   4.2750E+00   1.7417E-05  0.0160
   4.2750E+00   4.3790E+00   1.5819E-05  0.0166
   4.3790E+00   4.4856E+00   1.5892E-05  0.0164
   4.4856E+00   4.5947E+00   1.5689E-05  0.0163
   4.5947E+00   4.7065E+00   1.5223E-05  0.0163
   4.7065E+00   4.8210E+00   1.4913E-05  0.0163
   4.8210E+00   4.9383E+00   1.4287E-05  0.0165
   4.9383E+00   5.0585E+00   1.4137E-05  0.0164
   5.0585E+00   5.1815E+00   1.4016E-05  0.0162
   5.1815E+00   5.3076E+00   1.3120E-05  0.0166
   5.3076E+00   5.4368E+00   1.2884E-05  0.0165
   5.4368E+00   5.5690E+00   1.2243E-05  0.0168
   5.5690E+00   5.7045E+00   1.1869E-05  0.0168
   5.7045E+00   5.8433E+00   1.1652E-05  0.0168
   5.8433E+00   5.9855E+00   1.1622E-05  0.0166
   5.9855E+00   6.1311E+00   1.1581E-05  0.0164
   6.1311E+00   6.2803E+00   1.1507E-05  0.0163
   6.2803E+00   6.4331E+00   1.1262E-05  0.0163
   6.4331E+00   6.5896E+00   1.0676E-05  0.0165
   6.5896E+00   6.7500E+00   1.0465E-05  0.0165
   6.7500E+00   6.9142E+00   1.0571E-05  0.0162
   6.9142E+00   7.0824E+00   1.0567E-05  0.0160
   7.0824E+00   7.2548E+00   1.0110E-05  0.0161
   7.2548E+00   7.4313E+00   9.9544E-06  0.0161
   7.4313E+00   7.6121E+00   9.8547E-06  0.0160
   7.6121E+00   7.7973E+00   1.0124E-05  0.0156
   7.7973E+00   7.9870E+00   1.0045E-05  0.0154
   7.9870E+00   8.1813E+00   9.9798E-06  0.0153
   8.1813E+00   8.3804E+00   1.0025E-05  0.0151
   8.3804E+00   8.5843E+00   9.8062E-06  0.0151
   8.5843E+00   8.7931E+00   1.0235E-05  0.0146
   8.7931E+00   9.0071E+00   1.0303E-05  0.0144
   9.0071E+00   9.2262E+00   1.0356E-05  0.0141
   9.2262E+00   9.4507E+00   1.0214E-05  0.0141
   9.4507E+00   9.6807E+00   1.0432E-05  0.0138
   9.6807E+00   9.9162E+00   1.0683E-05  0.0134
   9.9162E+00   1.0157E+01   1.0760E-05  0.0132
   1.0157E+01   1.0405E+01   1.0933E-05  0.0130
   1.0405E+01   1.0658E+01   1.0809E-05  0.0129
   1.0658E+01   1.0917E+01   1.0800E-05  0.0127
   1.0917E+01   1.1183E+01   1.1134E-05  0.0124
   1.1183E+01   1.1455E+01   1.1408E-05  0.0121
   1.1455E+01   1.1733E+01   1.1460E-05  0.0119
   1.1733E+01   1.2019E+01   1.1530E-05  0.0117
   1.2019E+01   1.2311E+01   1.1922E-05  0.0114
   1.2311E+01   1.2611E+01   1.1804E-05  0.0113
   1.2611E+01   1.2918E+01   1.2016E-05  0.0111
   1.2918E+01   1.3232E+01   1.2228E-05  0.0109
   1.3232E+01   1.3554E+01   1.2302E-05  0.0107
   1.3554E+01   1.3884E+01   1.2178E-05  0.0106
   1.3884E+01   1.4222E+01   1.2356E-05  0.0104
   1.4222E+01   1.4568E+01   1.2496E-05  0.0102
   1.4568E+01   1.4922E+01   1.2477E-05  0.0101
   1.4922E+01   1.5285E+01   1.2883E-05  0.0098
   1.5285E+01   1.5657E+01   1.2904E-05  0.0097
   1.5657E+01   1.6038E+01   1.2595E-05  0.0097
   1.6038E+01   1.6428E+01   1.2828E-05  0.0095
   1.6428E+01   1.6828E+01   1.2774E-05  0.0094
   1.6828E+01   1.7237E+01   1.2632E-05  0.0094
   1.7237E+01   1.7657E+01   1.2731E-05  0.0092
   1.7657E+01   1.8086E+01   1.2902E-05  0.0090
   1.8086E+01   1.8526E+01   1.2696E-05  0.0090
   1.8526E+01   1.8977E+01   1.2828E-05  0.0089
   1.8977E+01   1.9439E+01   1.2511E-05  0.0089
   1.9439E+01   1.9912E+01   1.2215E-05  0.0089
   1.9912E+01   2.0396E+01   1.4992E-05  0.0079
   2.0396E+01   2.0893E+01   1.5964E-05  0.0076
   2.0893E+01   2.1401E+01   1.5345E-05  0.0076
   2.1401E+01   2.1922E+01   1.5039E-05  0.0076
   2.1922E+01   2.2455E+01   1.4473E-05  0.0077
   2.2455E+01   2.3001E+01   1.4097E-05  0.0077
   2.3001E+01   2.3561E+01   1.3293E-05  0.0078
   2.3561E+01   2.4134E+01   1.2998E-05  0.0078
   2.4134E+01   2.4721E+01   1.2554E-05  0.0079
   2.4721E+01   2.5323E+01   1.1946E-05  0.0080
   2.5323E+01   2.5939E+01   1.1386E-05  0.0080
   2.5939E+01   2.6570E+01   1.0964E-05  0.0081
   2.6570E+01   2.7217E+01   1.0345E-05  0.0082
   2.7217E+01   2.7879E+01   9.9303E-06  0.0083
   2.7879E+01   2.8557E+01   9.4405E-06  0.0084
   2.8557E+01   2.9252E+01   8.9500E-06  0.0085
   2.9252E+01   2.9964E+01   8.4289E-06  0.0087
   2.9964E+01   3.0693E+01   7.8846E-06  0.0089
   3.0693E+01   3.1440E+01   7.5226E-06  0.0090
   3.1440E+01   3.2205E+01   6.9737E-06  0.0092
   3.2205E+01   3.2988E+01   6.6433E-06  0.0093
   3.2988E+01   3.3791E+01   6.1474E-06  0.0096
   3.3791E+01   3.4613E+01   5.7161E-06  0.0098
   3.4613E+01   3.5455E+01   5.2932E-06  0.0101
   3.5455E+01   3.6318E+01   4.8988E-06  0.0104
   3.6318E+01   3.7201E+01   4.5221E-06  0.0107
   3.7201E+01   3.8106E+01   4.0597E-06  0.0111
   3.8106E+01   3.9034E+01   3.7088E-06  0.0115
   3.9034E+01   3.9983E+01   3.4225E-06  0.0118
   3.9983E+01   4.0956E+01   3.0646E-06  0.0123
   4.0956E+01   4.1953E+01   2.7921E-06  0.0128
   4.1953E+01   4.2973E+01   2.4483E-06  0.0135
   4.2973E+01   4.4019E+01   2.1863E-06  0.0141
   4.4019E+01   4.5090E+01   1.9629E-06  0.0147
   4.5090E+01   4.6187E+01   1.7555E-06  0.0154
   4.6187E+01   4.7311E+01   1.4541E-06  0.0167
   4.7311E+01   4.8462E+01   1.3596E-06  0.0170
   4.8462E+01   4.9641E+01   1.0994E-06  0.0187
   4.9641E+01   5.0849E+01   9.5628E-07  0.0198
   5.0849E+01   5.2086E+01   7.9652E-07  0.0215
   5.2086E+01   5.3353E+01   6.5709E-07  0.0234
   5.3353E+01   5.4651E+01   5.4449E-07  0.0254
   5.4651E+01   5.5981E+01   4.1191E-07  0.0288
   5.5981E+01   5.7343E+01   3.5508E-07  0.0307
   5.7343E+01   5.8738E+01   2.5151E-07  0.0360
   5.8738E+01   6.0168E+01   1.9687E-07  0.0402
   6.0168E+01   6.1632E+01   1.5897E-07  0.0442
   6.1632E+01   6.3131E+01   1.0003E-07  0.0550
   6.3131E+01   6.4667E+01   6.0664E-08  0.0698
   6.4667E+01   6.6240E+01   3.1200E-08  0.0962
   6.6240E+01   6.7852E+01   2.0870E-08  0.1162
   6.7852E+01   6.9503E+01   1.1289E-08  0.1562
   6.9503E+01   7.1194E+01   1.0752E-09  0.5000
   7.1194E+01   7.2926E+01   0.0000E+00  0.0000
   7.2926E+01   7.4701E+01   0.0000E+00  0.0000
   7.4701E+01   7.6518E+01   0.0000E+00  0.0000
   7.6518E+01   7.8380E+01   0.0000E+00  0.0000
   7.8380E+01   8.0287E+01   0.0000E+00  0.0000
   8.0287E+01   8.2240E+01   0.0000E+00  0.0000
   8.2240E+01   8.4241E+01   0.0000E+00  0.0000
   8.4241E+01   8.6291E+01   0.0000E+00  0.0000
   8.6291E+01   8.8391E+01   0.0000E+00  0.0000
   8.8391E+01   9.0541E+01   0.0000E+00  0.0000
   9.0541E+01   9.2744E+01   0.0000E+00  0.0000
   9.2744E+01   9.5001E+01   0.0000E+00  0.0000
   9.5001E+01   9.7312E+01   0.0000E+00  0.0000
   9.7312E+01   9.9680E+01   0.0000E+00  0.0000
   9.9680E+01   1.0211E+02   0.0000E+00  0.0000
   1.0211E+02   1.0459E+02   0.0000E+00  0.0000
   1.0459E+02   1.0713E+02   0.0000E+00  0.0000
   1.0713E+02   1.0974E+02   0.0000E+00  0.0000
   1.0974E+02   1.1241E+02   0.0000E+00  0.0000
   1.1241E+02   1.1515E+02   0.0000E+00  0.0000
   1.1515E+02   1.1795E+02   0.0000E+00  0.0000
   1.1795E+02   1.2082E+02   0.0000E+00  0.0000
   1.2082E+02   1.2376E+02   0.0000E+00  0.0000
   1.2376E+02   1.2677E+02   0.0000E+00  0.0000
   1.2677E+02   1.2985E+02   0.0000E+00  0.0000
   1.2985E+02   1.3301E+02   0.0000E+00  0.0000
   1.3301E+02   1.3625E+02   0.0000E+00  0.0000
   1.3625E+02   1.3956E+02   0.0000E+00  0.0000
   1.3956E+02   1.4296E+02   0.0000E+00  0.0000
   1.4296E+02   1.4644E+02   0.0000E+00  0.0000
   1.4644E+02   1.5000E+02   0.0000E+00  0.0000

#   sum over                 4.1530E-06
'no. =    1   reg = 113 - 213'
msuc: {\huge [t-cross] in region mesh}
msdr: {\it plotted by \ANGEL \version}
msdl: {\it calculated by \PHITS  3.26}
wt: s(0.7)
\vspace{-3}
  region surface crossing
  area  &=&   1.0000E+00 [cm^2]
e:
 
# Information for Restart Calculation
# This calculation was newly started
# istdev =  2 # 1:Batch variance, 2:History variance
# resc2  = 2.20000000000000000E+09 # Total source weight or Total source weight / maxcas
# resc3  = 2.20000000000000000E+09 # Total history number or Total batch number
# maxcas =   100000000 # History / Batch, only used for istdev=1
# bitrseed = 1100000100101001110100000101111010000011010111110101011101101000 # bit data of rseed
