[ T-Cross ]
    title = [t-cross] in region mesh
     mesh =  reg            # mesh type is region-wise
      reg =    1            # number of crossing regions
      non     r-from    r-to       area
      1       112       212        1.000000    
   e-type =    3            # e-mesh is log given by emin, emax and ne
     emin =  1.0000000E-02  # minimum value of e-mesh points
     emax =   150.0000      # maximum value of e-mesh points
#    edel =  2.4039514E-02  # mesh width of e-mesh points
       ne =    400          # number of e-mesh points
#    data = ( e(i), i = 1, ne + 1 )
#           1.00000E-02  1.02433E-02  1.04925E-02  1.07478E-02  1.10093E-02
#           1.12772E-02  1.15516E-02  1.18326E-02  1.21205E-02  1.24154E-02
#           1.27175E-02  1.30269E-02  1.33439E-02  1.36686E-02  1.40011E-02
#           1.43418E-02  1.46907E-02  1.50482E-02  1.54143E-02  1.57894E-02
#           1.61735E-02  1.65670E-02  1.69701E-02  1.73830E-02  1.78060E-02
#           1.82392E-02  1.86830E-02  1.91375E-02  1.96032E-02  2.00801E-02
#           2.05687E-02  2.10692E-02  2.15818E-02  2.21069E-02  2.26448E-02
#           2.31957E-02  2.37601E-02  2.43382E-02  2.49304E-02  2.55369E-02
#           2.61583E-02  2.67947E-02  2.74467E-02  2.81145E-02  2.87985E-02
#           2.94992E-02  3.02169E-02  3.09521E-02  3.17052E-02  3.24766E-02
#           3.32668E-02  3.40762E-02  3.49053E-02  3.57546E-02  3.66246E-02
#           3.75157E-02  3.84284E-02  3.93634E-02  4.03212E-02  4.13022E-02
#           4.23071E-02  4.33365E-02  4.43909E-02  4.54710E-02  4.65773E-02
#           4.77106E-02  4.88714E-02  5.00605E-02  5.12785E-02  5.25262E-02
#           5.38042E-02  5.51133E-02  5.64542E-02  5.78278E-02  5.92348E-02
#           6.06760E-02  6.21523E-02  6.36645E-02  6.52135E-02  6.68002E-02
#           6.84255E-02  7.00904E-02  7.17957E-02  7.35426E-02  7.53319E-02
#           7.71648E-02  7.90423E-02  8.09655E-02  8.29354E-02  8.49533E-02
#           8.70203E-02  8.91376E-02  9.13064E-02  9.35279E-02  9.58035E-02
#           9.81345E-02  1.00522E-01  1.02968E-01  1.05473E-01  1.08040E-01
#           1.10668E-01  1.13361E-01  1.16119E-01  1.18944E-01  1.21838E-01
#           1.24803E-01  1.27839E-01  1.30950E-01  1.34136E-01  1.37399E-01
#           1.40742E-01  1.44167E-01  1.47675E-01  1.51268E-01  1.54948E-01
#           1.58718E-01  1.62580E-01  1.66535E-01  1.70587E-01  1.74738E-01
#           1.78989E-01  1.83344E-01  1.87805E-01  1.92375E-01  1.97055E-01
#           2.01850E-01  2.06761E-01  2.11792E-01  2.16945E-01  2.22223E-01
#           2.27630E-01  2.33169E-01  2.38842E-01  2.44653E-01  2.50605E-01
#           2.56703E-01  2.62949E-01  2.69346E-01  2.75900E-01  2.82613E-01
#           2.89489E-01  2.96532E-01  3.03747E-01  3.11138E-01  3.18708E-01
#           3.26462E-01  3.34405E-01  3.42542E-01  3.50876E-01  3.59413E-01
#           3.68158E-01  3.77116E-01  3.86291E-01  3.95690E-01  4.05317E-01
#           4.15179E-01  4.25281E-01  4.35628E-01  4.46227E-01  4.57084E-01
#           4.68205E-01  4.79597E-01  4.91266E-01  5.03219E-01  5.15463E-01
#           5.28005E-01  5.40851E-01  5.54011E-01  5.67490E-01  5.81298E-01
#           5.95441E-01  6.09929E-01  6.24769E-01  6.39970E-01  6.55541E-01
#           6.71491E-01  6.87828E-01  7.04564E-01  7.21706E-01  7.39266E-01
#           7.57253E-01  7.75678E-01  7.94551E-01  8.13883E-01  8.33685E-01
#           8.53969E-01  8.74747E-01  8.96030E-01  9.17831E-01  9.40163E-01
#           9.63038E-01  9.86469E-01  1.01047E+00  1.03506E+00  1.06024E+00
#           1.08604E+00  1.11246E+00  1.13953E+00  1.16725E+00  1.19565E+00
#           1.22474E+00  1.25454E+00  1.28507E+00  1.31633E+00  1.34836E+00
#           1.38117E+00  1.41477E+00  1.44920E+00  1.48446E+00  1.52057E+00
#           1.55757E+00  1.59547E+00  1.63429E+00  1.67405E+00  1.71478E+00
#           1.75650E+00  1.79924E+00  1.84302E+00  1.88786E+00  1.93379E+00
#           1.98084E+00  2.02904E+00  2.07841E+00  2.12898E+00  2.18078E+00
#           2.23384E+00  2.28819E+00  2.34386E+00  2.40089E+00  2.45930E+00
#           2.51914E+00  2.58043E+00  2.64322E+00  2.70753E+00  2.77341E+00
#           2.84088E+00  2.91001E+00  2.98081E+00  3.05333E+00  3.12762E+00
#           3.20372E+00  3.28167E+00  3.36152E+00  3.44330E+00  3.52708E+00
#           3.61290E+00  3.70080E+00  3.79085E+00  3.88308E+00  3.97756E+00
#           4.07434E+00  4.17347E+00  4.27501E+00  4.37903E+00  4.48557E+00
#           4.59471E+00  4.70650E+00  4.82102E+00  4.93832E+00  5.05847E+00
#           5.18155E+00  5.30762E+00  5.43676E+00  5.56904E+00  5.70453E+00
#           5.84333E+00  5.98550E+00  6.13114E+00  6.28031E+00  6.43312E+00
#           6.58964E+00  6.74997E+00  6.91420E+00  7.08243E+00  7.25475E+00
#           7.43126E+00  7.61207E+00  7.79728E+00  7.98700E+00  8.18133E+00
#           8.38038E+00  8.58428E+00  8.79315E+00  9.00709E+00  9.22624E+00
#           9.45072E+00  9.68067E+00  9.91620E+00  1.01575E+01  1.04046E+01
#           1.06578E+01  1.09171E+01  1.11827E+01  1.14548E+01  1.17335E+01
#           1.20190E+01  1.23114E+01  1.26109E+01  1.29178E+01  1.32321E+01
#           1.35540E+01  1.38838E+01  1.42216E+01  1.45676E+01  1.49221E+01
#           1.52851E+01  1.56570E+01  1.60380E+01  1.64282E+01  1.68279E+01
#           1.72374E+01  1.76568E+01  1.80864E+01  1.85264E+01  1.89772E+01
#           1.94389E+01  1.99119E+01  2.03963E+01  2.08926E+01  2.14009E+01
#           2.19216E+01  2.24550E+01  2.30014E+01  2.35610E+01  2.41343E+01
#           2.47215E+01  2.53230E+01  2.59391E+01  2.65702E+01  2.72167E+01
#           2.78789E+01  2.85572E+01  2.92520E+01  2.99637E+01  3.06928E+01
#           3.14396E+01  3.22045E+01  3.29881E+01  3.37907E+01  3.46128E+01
#           3.54550E+01  3.63177E+01  3.72013E+01  3.81064E+01  3.90336E+01
#           3.99833E+01  4.09561E+01  4.19526E+01  4.29734E+01  4.40189E+01
#           4.50900E+01  4.61870E+01  4.73108E+01  4.84619E+01  4.96410E+01
#           5.08488E+01  5.20860E+01  5.33533E+01  5.46514E+01  5.59812E+01
#           5.73432E+01  5.87384E+01  6.01676E+01  6.16315E+01  6.31311E+01
#           6.46671E+01  6.62405E+01  6.78522E+01  6.95031E+01  7.11941E+01
#           7.29263E+01  7.47007E+01  7.65182E+01  7.83800E+01  8.02870E+01
#           8.22405E+01  8.42414E+01  8.62911E+01  8.83906E+01  9.05412E+01
#           9.27442E+01  9.50007E+01  9.73122E+01  9.96799E+01  1.02105E+02
#           1.04589E+02  1.07134E+02  1.09741E+02  1.12411E+02  1.15146E+02
#           1.17948E+02  1.20817E+02  1.23757E+02  1.26768E+02  1.29852E+02
#           1.33012E+02  1.36248E+02  1.39563E+02  1.42959E+02  1.46437E+02
#           1.50000E+02
     unit =    2            # unit is [1/cm^2/(MeV/n)/source]
     axis =  eng            # axis of output
     file = detector-13.out  # file name of output for the above axis
   output = f-curr          # surface crossing forward current spectrum
     part =  neutron  
# kf/name :  2112     
#    used :        main (  %)        temp (  %)       total (  %)
#  memory :         414 (  0)           0 (  0)         414 (  0)

#------------------------------------------------------------------------------
#newpage:
#   no. =    1   reg = 112 - 212

x: Energy [MeV/n]
y:  F-Curr [1/cm^2/(MeV/n)/source]         
p: xlog ylog afac(0.8) form(0.9)
h: n            x            y(neutron ),hh0l   n 
#  e-lower      e-upper      neutron     r.err 
   1.0000E-02   1.0243E-02   1.9810E-04  0.0644
   1.0243E-02   1.0493E-02   2.0784E-04  0.0621
   1.0493E-02   1.0748E-02   1.7000E-04  0.0679
   1.0748E-02   1.1009E-02   2.2256E-04  0.0586
   1.1009E-02   1.1277E-02   1.7546E-04  0.0652
   1.1277E-02   1.1552E-02   1.9535E-04  0.0611
   1.1552E-02   1.1833E-02   1.9142E-04  0.0610
   1.1833E-02   1.2121E-02   1.9486E-04  0.0597
   1.2121E-02   1.2415E-02   1.8379E-04  0.0607
   1.2415E-02   1.2718E-02   1.8207E-04  0.0603
   1.2718E-02   1.3027E-02   1.6676E-04  0.0623
   1.3027E-02   1.3344E-02   1.9624E-04  0.0567
   1.3344E-02   1.3669E-02   1.7556E-04  0.0592
   1.3669E-02   1.4001E-02   1.8102E-04  0.0576
   1.4001E-02   1.4342E-02   1.5499E-04  0.0615
   1.4342E-02   1.4691E-02   1.6564E-04  0.0588
   1.4691E-02   1.5048E-02   1.6898E-04  0.0575
   1.5048E-02   1.5414E-02   1.6224E-04  0.0580
   1.5414E-02   1.5789E-02   1.5998E-04  0.0577
   1.5789E-02   1.6174E-02   1.4993E-04  0.0589
   1.6174E-02   1.6567E-02   1.5806E-04  0.0567
   1.6567E-02   1.6970E-02   1.5679E-04  0.0563
   1.6970E-02   1.7383E-02   1.4483E-04  0.0578
   1.7383E-02   1.7806E-02   1.6409E-04  0.0537
   1.7806E-02   1.8239E-02   1.3480E-04  0.0585
   1.8239E-02   1.8683E-02   1.4782E-04  0.0552
   1.8683E-02   1.9138E-02   1.5553E-04  0.0532
   1.9138E-02   1.9603E-02   1.3315E-04  0.0568
   1.9603E-02   2.0080E-02   1.4047E-04  0.0546
   2.0080E-02   2.0569E-02   1.3918E-04  0.0542
   2.0569E-02   2.1069E-02   1.2868E-04  0.0557
   2.1069E-02   2.1582E-02   1.3304E-04  0.0542
   2.1582E-02   2.2107E-02   1.2302E-04  0.0556
   2.2107E-02   2.2645E-02   1.1973E-04  0.0557
   2.2645E-02   2.3196E-02   1.1652E-04  0.0558
   2.3196E-02   2.3760E-02   1.2191E-04  0.0539
   2.3760E-02   2.4338E-02   1.2628E-04  0.0523
   2.4338E-02   2.4930E-02   1.1855E-04  0.0534
   2.4930E-02   2.5537E-02   1.0650E-04  0.0556
   2.5537E-02   2.6158E-02   1.0300E-04  0.0559
   2.6158E-02   2.6795E-02   1.1784E-04  0.0516
   2.6795E-02   2.7447E-02   1.0737E-04  0.0535
   2.7447E-02   2.8114E-02   1.0153E-04  0.0543
   2.8114E-02   2.8799E-02   1.0555E-04  0.0526
   2.8799E-02   2.9499E-02   1.0047E-04  0.0533
   2.9499E-02   3.0217E-02   9.7250E-05  0.0535
   3.0217E-02   3.0952E-02   9.5484E-05  0.0534
   3.0952E-02   3.1705E-02   9.4013E-05  0.0531
   3.1705E-02   3.2477E-02   8.9965E-05  0.0537
   3.2477E-02   3.3267E-02   9.3649E-05  0.0520
   3.3267E-02   3.4076E-02   8.6483E-05  0.0535
   3.4076E-02   3.4905E-02   8.6359E-05  0.0529
   3.4905E-02   3.5755E-02   8.0068E-05  0.0542
   3.5755E-02   3.6625E-02   8.5753E-05  0.0518
   3.6625E-02   3.7516E-02   8.0125E-05  0.0529
   3.7516E-02   3.8428E-02   7.4497E-05  0.0542
   3.8428E-02   3.9363E-02   7.6150E-05  0.0530
   3.9363E-02   4.0321E-02   7.6221E-05  0.0523
   4.0321E-02   4.1302E-02   8.3584E-05  0.0494
   4.1302E-02   4.2307E-02   7.2245E-05  0.0525
   4.2307E-02   4.3337E-02   7.4220E-05  0.0512
   4.3337E-02   4.4391E-02   6.7715E-05  0.0529
   4.4391E-02   4.5471E-02   7.6106E-05  0.0493
   4.5471E-02   4.6577E-02   6.7610E-05  0.0517
   4.6577E-02   4.7711E-02   6.3886E-05  0.0526
   4.7711E-02   4.8871E-02   6.7968E-05  0.0503
   4.8871E-02   5.0061E-02   6.2065E-05  0.0521
   5.0061E-02   5.1279E-02   6.0591E-05  0.0521
   5.1279E-02   5.2526E-02   6.6686E-05  0.0490
   5.2526E-02   5.3804E-02   6.5571E-05  0.0489
   5.3804E-02   5.5113E-02   5.9736E-05  0.0506
   5.5113E-02   5.6454E-02   5.4439E-05  0.0523
   5.6454E-02   5.7828E-02   5.4893E-05  0.0515
   5.7828E-02   5.9235E-02   5.9844E-05  0.0487
   5.9235E-02   6.0676E-02   4.8292E-05  0.0536
   6.0676E-02   6.2152E-02   5.9338E-05  0.0478
   6.2152E-02   6.3665E-02   5.1448E-05  0.0507
   6.3665E-02   6.5214E-02   4.9709E-05  0.0510
   6.5214E-02   6.6800E-02   5.1428E-05  0.0495
   6.6800E-02   6.8426E-02   4.5407E-05  0.0521
   6.8426E-02   7.0090E-02   4.7572E-05  0.0503
   7.0090E-02   7.1796E-02   4.4214E-05  0.0515
   7.1796E-02   7.3543E-02   4.1332E-05  0.0526
   7.3543E-02   7.5332E-02   4.6386E-05  0.0491
   7.5332E-02   7.7165E-02   4.1137E-05  0.0515
   7.7165E-02   7.9042E-02   4.2610E-05  0.0500
   7.9042E-02   8.0965E-02   4.1390E-05  0.0501
   8.0965E-02   8.2935E-02   4.4570E-05  0.0477
   8.2935E-02   8.4953E-02   4.0141E-05  0.0497
   8.4953E-02   8.7020E-02   4.2574E-05  0.0477
   8.7020E-02   8.9138E-02   3.4384E-05  0.0524
   8.9138E-02   9.1306E-02   3.4397E-05  0.0518
   9.1306E-02   9.3528E-02   3.3670E-05  0.0517
   9.3528E-02   9.5804E-02   3.1464E-05  0.0529
   9.5804E-02   9.8134E-02   3.2690E-05  0.0512
   9.8134E-02   1.0052E-01   3.1746E-05  0.0514
   1.0052E-01   1.0297E-01   3.0910E-05  0.0514
   1.0297E-01   1.0547E-01   2.8500E-05  0.0529
   1.0547E-01   1.0804E-01   3.2265E-05  0.0491
   1.0804E-01   1.1067E-01   2.9520E-05  0.0508
   1.1067E-01   1.1336E-01   3.0231E-05  0.0496
   1.1336E-01   1.1612E-01   2.7917E-05  0.0510
   1.1612E-01   1.1894E-01   2.7891E-05  0.0504
   1.1894E-01   1.2184E-01   2.3981E-05  0.0537
   1.2184E-01   1.2480E-01   2.5772E-05  0.0512
   1.2480E-01   1.2784E-01   2.5226E-05  0.0511
   1.2784E-01   1.3095E-01   2.2826E-05  0.0531
   1.3095E-01   1.3414E-01   2.2347E-05  0.0530
   1.3414E-01   1.3740E-01   2.3777E-05  0.0508
   1.3740E-01   1.4074E-01   1.9922E-05  0.0548
   1.4074E-01   1.4417E-01   2.3011E-05  0.0504
   1.4417E-01   1.4767E-01   2.2066E-05  0.0508
   1.4767E-01   1.5127E-01   1.9482E-05  0.0535
   1.5127E-01   1.5495E-01   1.8096E-05  0.0548
   1.5495E-01   1.5872E-01   1.9098E-05  0.0527
   1.5872E-01   1.6258E-01   2.0302E-05  0.0505
   1.6258E-01   1.6654E-01   1.7999E-05  0.0530
   1.6654E-01   1.7059E-01   1.6387E-05  0.0549
   1.7059E-01   1.7474E-01   1.7733E-05  0.0521
   1.7474E-01   1.7899E-01   1.5148E-05  0.0557
   1.7899E-01   1.8334E-01   1.4926E-05  0.0555
   1.8334E-01   1.8781E-01   1.4773E-05  0.0551
   1.8781E-01   1.9237E-01   1.4269E-05  0.0554
   1.9237E-01   1.9706E-01   1.5169E-05  0.0531
   1.9706E-01   2.0185E-01   1.4016E-05  0.0546
   2.0185E-01   2.0676E-01   1.4742E-05  0.0526
   2.0676E-01   2.1179E-01   1.2682E-05  0.0560
   2.1179E-01   2.1694E-01   1.0634E-05  0.0604
   2.1694E-01   2.2222E-01   1.3034E-05  0.0539
   2.2222E-01   2.2763E-01   1.0357E-05  0.0598
   2.2763E-01   2.3317E-01   1.0328E-05  0.0591
   2.3317E-01   2.3884E-01   1.0858E-05  0.0570
   2.3884E-01   2.4465E-01   9.1891E-06  0.0612
   2.4465E-01   2.5061E-01   9.9116E-06  0.0582
   2.5061E-01   2.5670E-01   9.2826E-06  0.0594
   2.5670E-01   2.6295E-01   8.5498E-06  0.0612
   2.6295E-01   2.6935E-01   8.5343E-06  0.0605
   2.6935E-01   2.7590E-01   8.8198E-06  0.0588
   2.7590E-01   2.8261E-01   7.6569E-06  0.0624
   2.8261E-01   2.8949E-01   7.1697E-06  0.0637
   2.8949E-01   2.9653E-01   7.6383E-06  0.0610
   2.9653E-01   3.0375E-01   7.1519E-06  0.0623
   3.0375E-01   3.1114E-01   6.4949E-06  0.0645
   3.1114E-01   3.1871E-01   6.9483E-06  0.0617
   3.1871E-01   3.2646E-01   6.3448E-06  0.0638
   3.2646E-01   3.3441E-01   6.2822E-06  0.0633
   3.3441E-01   3.4254E-01   5.7520E-06  0.0654
   3.4254E-01   3.5088E-01   5.3874E-06  0.0667
   3.5088E-01   3.5941E-01   6.3253E-06  0.0609
   3.5941E-01   3.6816E-01   5.0087E-06  0.0676
   3.6816E-01   3.7712E-01   5.0683E-06  0.0664
   3.7712E-01   3.8629E-01   5.4275E-06  0.0634
   3.8629E-01   3.9569E-01   4.7879E-06  0.0667
   3.9569E-01   4.0532E-01   4.3521E-06  0.0690
   4.0532E-01   4.1518E-01   3.6099E-06  0.0750
   4.1518E-01   4.2528E-01   4.1181E-06  0.0693
   4.2528E-01   4.3563E-01   4.2909E-06  0.0671
   4.3563E-01   4.4623E-01   4.1324E-06  0.0676
   4.4623E-01   4.5708E-01   3.4079E-06  0.0735
   4.5708E-01   4.6821E-01   3.8125E-06  0.0687
   4.6821E-01   4.7960E-01   3.1075E-06  0.0752
   4.7960E-01   4.9127E-01   3.2051E-06  0.0731
   4.9127E-01   5.0322E-01   3.1708E-06  0.0726
   5.0322E-01   5.1546E-01   3.2670E-06  0.0707
   5.1546E-01   5.2800E-01   3.2372E-06  0.0702
   5.2800E-01   5.4085E-01   2.6933E-06  0.0760
   5.4085E-01   5.5401E-01   2.8421E-06  0.0731
   5.5401E-01   5.6749E-01   2.8488E-06  0.0722
   5.6749E-01   5.8130E-01   2.9622E-06  0.0699
   5.8130E-01   5.9544E-01   2.4605E-06  0.0758
   5.9544E-01   6.0993E-01   2.4297E-06  0.0754
   6.0993E-01   6.2477E-01   2.3181E-06  0.0762
   6.2477E-01   6.3997E-01   2.1709E-06  0.0778
   6.3997E-01   6.5554E-01   2.4661E-06  0.0722
   6.5554E-01   6.7149E-01   1.9436E-06  0.0803
   6.7149E-01   6.8783E-01   2.1178E-06  0.0760
   6.8783E-01   7.0456E-01   2.0436E-06  0.0765
   7.0456E-01   7.2171E-01   1.8550E-06  0.0793
   7.2171E-01   7.3927E-01   2.0274E-06  0.0750
   7.3927E-01   7.5725E-01   1.8569E-06  0.0774
   7.5725E-01   7.7568E-01   1.7694E-06  0.0783
   7.7568E-01   7.9455E-01   1.8333E-06  0.0760
   7.9455E-01   8.1388E-01   1.6967E-06  0.0781
   8.1388E-01   8.3368E-01   1.5049E-06  0.0819
   8.3368E-01   8.5397E-01   1.5381E-06  0.0801
   8.5397E-01   8.7475E-01   1.4246E-06  0.0822
   8.7475E-01   8.9603E-01   1.4847E-06  0.0796
   8.9603E-01   9.1783E-01   1.3852E-06  0.0814
   9.1783E-01   9.4016E-01   1.3523E-06  0.0814
   9.4016E-01   9.6304E-01   1.1803E-06  0.0861
   9.6304E-01   9.8647E-01   1.5705E-06  0.0737
   9.8647E-01   1.0105E+00   1.2499E-06  0.0816
   1.0105E+00   1.0351E+00   1.4480E-06  0.0750
   1.0351E+00   1.0602E+00   1.3064E-06  0.0779
   1.0602E+00   1.0860E+00   1.5118E-06  0.0716
   1.0860E+00   1.1125E+00   1.3397E-06  0.0752
   1.1125E+00   1.1395E+00   1.5665E-06  0.0687
   1.1395E+00   1.1673E+00   1.5221E-06  0.0688
   1.1673E+00   1.1957E+00   1.7183E-06  0.0640
   1.1957E+00   1.2247E+00   1.9869E-06  0.0588
   1.2247E+00   1.2545E+00   2.1209E-06  0.0563
   1.2545E+00   1.2851E+00   2.0377E-06  0.0567
   1.2851E+00   1.3163E+00   2.2580E-06  0.0532
   1.3163E+00   1.3484E+00   2.3855E-06  0.0512
   1.3484E+00   1.3812E+00   2.3898E-06  0.0505
   1.3812E+00   1.4148E+00   2.5889E-06  0.0479
   1.4148E+00   1.4492E+00   2.7250E-06  0.0462
   1.4492E+00   1.4845E+00   2.6489E-06  0.0463
   1.4845E+00   1.5206E+00   2.9016E-06  0.0437
   1.5206E+00   1.5576E+00   2.8705E-06  0.0434
   1.5576E+00   1.5955E+00   3.0768E-06  0.0414
   1.5955E+00   1.6343E+00   3.1119E-06  0.0407
   1.6343E+00   1.6741E+00   3.4303E-06  0.0383
   1.6741E+00   1.7148E+00   3.5256E-06  0.0373
   1.7148E+00   1.7565E+00   3.3867E-06  0.0376
   1.7565E+00   1.7992E+00   3.4092E-06  0.0370
   1.7992E+00   1.8430E+00   3.7463E-06  0.0349
   1.8430E+00   1.8879E+00   3.6394E-06  0.0350
   1.8879E+00   1.9338E+00   3.9623E-06  0.0331
   1.9338E+00   1.9808E+00   3.8044E-06  0.0334
   1.9808E+00   2.0290E+00   4.1664E-06  0.0316
   2.0290E+00   2.0784E+00   3.8446E-06  0.0325
   2.0784E+00   2.1290E+00   3.8877E-06  0.0319
   2.1290E+00   2.1808E+00   4.0000E-06  0.0311
   2.1808E+00   2.2338E+00   3.9126E-06  0.0310
   2.2338E+00   2.2882E+00   4.0036E-06  0.0303
   2.2882E+00   2.3439E+00   4.3719E-06  0.0287
   2.3439E+00   2.4009E+00   4.1523E-06  0.0291
   2.4009E+00   2.4593E+00   4.2934E-06  0.0282
   2.4593E+00   2.5191E+00   4.0811E-06  0.0286
   2.5191E+00   2.5804E+00   4.1375E-06  0.0281
   2.5804E+00   2.6432E+00   4.0424E-06  0.0281
   2.6432E+00   2.7075E+00   3.9837E-06  0.0279
   2.7075E+00   2.7734E+00   4.0530E-06  0.0274
   2.7734E+00   2.8409E+00   4.1554E-06  0.0267
   2.8409E+00   2.9100E+00   4.1782E-06  0.0263
   2.9100E+00   2.9808E+00   4.1157E-06  0.0262
   2.9808E+00   3.0533E+00   4.2909E-06  0.0254
   3.0533E+00   3.1276E+00   4.0988E-06  0.0256
   3.1276E+00   3.2037E+00   4.0658E-06  0.0254
   3.2037E+00   3.2817E+00   3.9000E-06  0.0256
   3.2817E+00   3.3615E+00   3.9226E-06  0.0253
   3.3615E+00   3.4433E+00   3.8147E-06  0.0253
   3.4433E+00   3.5271E+00   3.8399E-06  0.0249
   3.5271E+00   3.6129E+00   3.8804E-06  0.0245
   3.6129E+00   3.7008E+00   3.8747E-06  0.0242
   3.7008E+00   3.7908E+00   3.7471E-06  0.0243
   3.7908E+00   3.8831E+00   3.7296E-06  0.0241
   3.8831E+00   3.9776E+00   3.8866E-06  0.0233
   3.9776E+00   4.0743E+00   3.8687E-06  0.0231
   4.0743E+00   4.1735E+00   3.6013E-06  0.0237
   4.1735E+00   4.2750E+00   3.6004E-06  0.0234
   4.2750E+00   4.3790E+00   3.5034E-06  0.0234
   4.3790E+00   4.4856E+00   3.6304E-06  0.0228
   4.4856E+00   4.5947E+00   3.5661E-06  0.0227
   4.5947E+00   4.7065E+00   3.5763E-06  0.0224
   4.7065E+00   4.8210E+00   3.6293E-06  0.0219
   4.8210E+00   4.9383E+00   3.5141E-06  0.0220
   4.9383E+00   5.0585E+00   3.4806E-06  0.0219
   5.0585E+00   5.1815E+00   3.4206E-06  0.0218
   5.1815E+00   5.3076E+00   3.4203E-06  0.0215
   5.3076E+00   5.4368E+00   3.3840E-06  0.0214
   5.4368E+00   5.5690E+00   3.3036E-06  0.0214
   5.5690E+00   5.7045E+00   3.3196E-06  0.0211
   5.7045E+00   5.8433E+00   3.3949E-06  0.0206
   5.8433E+00   5.9855E+00   3.4057E-06  0.0203
   5.9855E+00   6.1311E+00   3.3962E-06  0.0201
   6.1311E+00   6.2803E+00   3.3236E-06  0.0201
   6.2803E+00   6.4331E+00   3.2473E-06  0.0201
   6.4331E+00   6.5896E+00   3.2813E-06  0.0197
   6.5896E+00   6.7500E+00   3.1235E-06  0.0200
   6.7500E+00   6.9142E+00   3.2795E-06  0.0193
   6.9142E+00   7.0824E+00   3.1784E-06  0.0193
   7.0824E+00   7.2548E+00   3.1325E-06  0.0192
   7.2548E+00   7.4313E+00   3.1641E-06  0.0189
   7.4313E+00   7.6121E+00   2.9949E-06  0.0192
   7.6121E+00   7.7973E+00   2.9875E-06  0.0190
   7.7973E+00   7.9870E+00   2.9465E-06  0.0189
   7.9870E+00   8.1813E+00   2.9033E-06  0.0188
   8.1813E+00   8.3804E+00   2.8745E-06  0.0187
   8.3804E+00   8.5843E+00   2.7871E-06  0.0188
   8.5843E+00   8.7931E+00   2.6812E-06  0.0189
   8.7931E+00   9.0071E+00   2.5698E-06  0.0191
   9.0071E+00   9.2262E+00   2.5864E-06  0.0188
   9.2262E+00   9.4507E+00   2.4701E-06  0.0190
   9.4507E+00   9.6807E+00   2.4349E-06  0.0189
   9.6807E+00   9.9162E+00   2.2531E-06  0.0194
   9.9162E+00   1.0157E+01   2.2514E-06  0.0192
   1.0157E+01   1.0405E+01   2.1085E-06  0.0196
   1.0405E+01   1.0658E+01   2.0245E-06  0.0197
   1.0658E+01   1.0917E+01   2.0026E-06  0.0196
   1.0917E+01   1.1183E+01   1.8545E-06  0.0201
   1.1183E+01   1.1455E+01   1.7160E-06  0.0207
   1.1455E+01   1.1733E+01   1.6150E-06  0.0211
   1.1733E+01   1.2019E+01   1.5370E-06  0.0213
   1.2019E+01   1.2311E+01   1.4458E-06  0.0217
   1.2311E+01   1.2611E+01   1.3767E-06  0.0220
   1.2611E+01   1.2918E+01   1.2974E-06  0.0224
   1.2918E+01   1.3232E+01   1.2479E-06  0.0225
   1.3232E+01   1.3554E+01   1.0871E-06  0.0239
   1.3554E+01   1.3884E+01   1.0543E-06  0.0240
   1.3884E+01   1.4222E+01   9.7690E-07  0.0246
   1.4222E+01   1.4568E+01   8.9763E-07  0.0254
   1.4568E+01   1.4922E+01   8.4245E-07  0.0259
   1.4922E+01   1.5285E+01   7.6873E-07  0.0267
   1.5285E+01   1.5657E+01   6.9266E-07  0.0278
   1.5657E+01   1.6038E+01   6.3237E-07  0.0288
   1.6038E+01   1.6428E+01   5.5815E-07  0.0303
   1.6428E+01   1.6828E+01   5.1162E-07  0.0312
   1.6828E+01   1.7237E+01   4.7382E-07  0.0321
   1.7237E+01   1.7657E+01   4.2108E-07  0.0336
   1.7657E+01   1.8086E+01   4.0479E-07  0.0339
   1.8086E+01   1.8526E+01   3.6700E-07  0.0352
   1.8526E+01   1.8977E+01   3.1325E-07  0.0376
   1.8977E+01   1.9439E+01   2.4971E-07  0.0416
   1.9439E+01   1.9912E+01   2.4780E-07  0.0413
   1.9912E+01   2.0396E+01   2.6710E-07  0.0393
   2.0396E+01   2.0893E+01   2.4705E-07  0.0404
   2.0893E+01   2.1401E+01   2.1521E-07  0.0428
   2.1401E+01   2.1922E+01   1.8974E-07  0.0450
   2.1922E+01   2.2455E+01   1.4961E-07  0.0501
   2.2455E+01   2.3001E+01   1.1897E-07  0.0555
   2.3001E+01   2.3561E+01   9.5418E-08  0.0612
   2.3561E+01   2.4134E+01   8.0592E-08  0.0658
   2.4134E+01   2.4721E+01   6.9482E-08  0.0700
   2.4721E+01   2.5323E+01   4.6883E-08  0.0842
   2.5323E+01   2.5939E+01   3.8304E-08  0.0921
   2.5939E+01   2.6570E+01   2.1549E-08  0.1213
   2.6570E+01   2.7217E+01   1.8872E-08  0.1280
   2.7217E+01   2.7879E+01   7.5506E-09  0.2000
   2.7879E+01   2.8557E+01   5.3073E-09  0.2357
   2.8557E+01   2.9252E+01   2.3028E-09  0.3536
   2.9252E+01   2.9964E+01   8.4302E-10  0.5774
   2.9964E+01   3.0693E+01   0.0000E+00  0.0000
   3.0693E+01   3.1440E+01   0.0000E+00  0.0000
   3.1440E+01   3.2205E+01   0.0000E+00  0.0000
   3.2205E+01   3.2988E+01   0.0000E+00  0.0000
   3.2988E+01   3.3791E+01   0.0000E+00  0.0000
   3.3791E+01   3.4613E+01   0.0000E+00  0.0000
   3.4613E+01   3.5455E+01   0.0000E+00  0.0000
   3.5455E+01   3.6318E+01   0.0000E+00  0.0000
   3.6318E+01   3.7201E+01   0.0000E+00  0.0000
   3.7201E+01   3.8106E+01   0.0000E+00  0.0000
   3.8106E+01   3.9034E+01   0.0000E+00  0.0000
   3.9034E+01   3.9983E+01   0.0000E+00  0.0000
   3.9983E+01   4.0956E+01   0.0000E+00  0.0000
   4.0956E+01   4.1953E+01   0.0000E+00  0.0000
   4.1953E+01   4.2973E+01   0.0000E+00  0.0000
   4.2973E+01   4.4019E+01   0.0000E+00  0.0000
   4.4019E+01   4.5090E+01   0.0000E+00  0.0000
   4.5090E+01   4.6187E+01   0.0000E+00  0.0000
   4.6187E+01   4.7311E+01   0.0000E+00  0.0000
   4.7311E+01   4.8462E+01   0.0000E+00  0.0000
   4.8462E+01   4.9641E+01   0.0000E+00  0.0000
   4.9641E+01   5.0849E+01   0.0000E+00  0.0000
   5.0849E+01   5.2086E+01   0.0000E+00  0.0000
   5.2086E+01   5.3353E+01   0.0000E+00  0.0000
   5.3353E+01   5.4651E+01   0.0000E+00  0.0000
   5.4651E+01   5.5981E+01   0.0000E+00  0.0000
   5.5981E+01   5.7343E+01   0.0000E+00  0.0000
   5.7343E+01   5.8738E+01   0.0000E+00  0.0000
   5.8738E+01   6.0168E+01   0.0000E+00  0.0000
   6.0168E+01   6.1632E+01   0.0000E+00  0.0000
   6.1632E+01   6.3131E+01   0.0000E+00  0.0000
   6.3131E+01   6.4667E+01   0.0000E+00  0.0000
   6.4667E+01   6.6240E+01   0.0000E+00  0.0000
   6.6240E+01   6.7852E+01   0.0000E+00  0.0000
   6.7852E+01   6.9503E+01   0.0000E+00  0.0000
   6.9503E+01   7.1194E+01   0.0000E+00  0.0000
   7.1194E+01   7.2926E+01   0.0000E+00  0.0000
   7.2926E+01   7.4701E+01   0.0000E+00  0.0000
   7.4701E+01   7.6518E+01   0.0000E+00  0.0000
   7.6518E+01   7.8380E+01   0.0000E+00  0.0000
   7.8380E+01   8.0287E+01   0.0000E+00  0.0000
   8.0287E+01   8.2240E+01   0.0000E+00  0.0000
   8.2240E+01   8.4241E+01   0.0000E+00  0.0000
   8.4241E+01   8.6291E+01   0.0000E+00  0.0000
   8.6291E+01   8.8391E+01   0.0000E+00  0.0000
   8.8391E+01   9.0541E+01   0.0000E+00  0.0000
   9.0541E+01   9.2744E+01   0.0000E+00  0.0000
   9.2744E+01   9.5001E+01   0.0000E+00  0.0000
   9.5001E+01   9.7312E+01   0.0000E+00  0.0000
   9.7312E+01   9.9680E+01   0.0000E+00  0.0000
   9.9680E+01   1.0211E+02   0.0000E+00  0.0000
   1.0211E+02   1.0459E+02   0.0000E+00  0.0000
   1.0459E+02   1.0713E+02   0.0000E+00  0.0000
   1.0713E+02   1.0974E+02   0.0000E+00  0.0000
   1.0974E+02   1.1241E+02   0.0000E+00  0.0000
   1.1241E+02   1.1515E+02   0.0000E+00  0.0000
   1.1515E+02   1.1795E+02   0.0000E+00  0.0000
   1.1795E+02   1.2082E+02   0.0000E+00  0.0000
   1.2082E+02   1.2376E+02   0.0000E+00  0.0000
   1.2376E+02   1.2677E+02   0.0000E+00  0.0000
   1.2677E+02   1.2985E+02   0.0000E+00  0.0000
   1.2985E+02   1.3301E+02   0.0000E+00  0.0000
   1.3301E+02   1.3625E+02   0.0000E+00  0.0000
   1.3625E+02   1.3956E+02   0.0000E+00  0.0000
   1.3956E+02   1.4296E+02   0.0000E+00  0.0000
   1.4296E+02   1.4644E+02   0.0000E+00  0.0000
   1.4644E+02   1.5000E+02   0.0000E+00  0.0000

#   sum over                 3.3982E-07
'no. =    1   reg = 112 - 212'
msuc: {\huge [t-cross] in region mesh}
msdr: {\it plotted by \ANGEL \version}
msdl: {\it calculated by \PHITS  3.26}
wt: s(0.7)
\vspace{-3}
  region surface crossing
  area  &=&   1.0000E+00 [cm^2]
e:
 
# Information for Restart Calculation
# This calculation was newly started
# istdev =  2 # 1:Batch variance, 2:History variance
# resc2  = 5.00000000000000000E+09 # Total source weight or Total source weight / maxcas
# resc3  = 5.00000000000000000E+09 # Total history number or Total batch number
# maxcas =   500000000 # History / Batch, only used for istdev=1
# bitrseed = 0110100000100010111000001110001111001110100100011111101000111001 # bit data of rseed
