[ T-Cross ]
    title = [t-cross] in region mesh
     mesh =  reg            # mesh type is region-wise
      reg =    1            # number of crossing regions
      non     r-from    r-to       area
      1       125       225        1.000000    
   e-type =    3            # e-mesh is log given by emin, emax and ne
     emin =  1.0000000E-02  # minimum value of e-mesh points
     emax =   150.0000      # maximum value of e-mesh points
#    edel =  2.4039514E-02  # mesh width of e-mesh points
       ne =    400          # number of e-mesh points
#    data = ( e(i), i = 1, ne + 1 )
#           1.00000E-02  1.02433E-02  1.04925E-02  1.07478E-02  1.10093E-02
#           1.12772E-02  1.15516E-02  1.18326E-02  1.21205E-02  1.24154E-02
#           1.27175E-02  1.30269E-02  1.33439E-02  1.36686E-02  1.40011E-02
#           1.43418E-02  1.46907E-02  1.50482E-02  1.54143E-02  1.57894E-02
#           1.61735E-02  1.65670E-02  1.69701E-02  1.73830E-02  1.78060E-02
#           1.82392E-02  1.86830E-02  1.91375E-02  1.96032E-02  2.00801E-02
#           2.05687E-02  2.10692E-02  2.15818E-02  2.21069E-02  2.26448E-02
#           2.31957E-02  2.37601E-02  2.43382E-02  2.49304E-02  2.55369E-02
#           2.61583E-02  2.67947E-02  2.74467E-02  2.81145E-02  2.87985E-02
#           2.94992E-02  3.02169E-02  3.09521E-02  3.17052E-02  3.24766E-02
#           3.32668E-02  3.40762E-02  3.49053E-02  3.57546E-02  3.66246E-02
#           3.75157E-02  3.84284E-02  3.93634E-02  4.03212E-02  4.13022E-02
#           4.23071E-02  4.33365E-02  4.43909E-02  4.54710E-02  4.65773E-02
#           4.77106E-02  4.88714E-02  5.00605E-02  5.12785E-02  5.25262E-02
#           5.38042E-02  5.51133E-02  5.64542E-02  5.78278E-02  5.92348E-02
#           6.06760E-02  6.21523E-02  6.36645E-02  6.52135E-02  6.68002E-02
#           6.84255E-02  7.00904E-02  7.17957E-02  7.35426E-02  7.53319E-02
#           7.71648E-02  7.90423E-02  8.09655E-02  8.29354E-02  8.49533E-02
#           8.70203E-02  8.91376E-02  9.13064E-02  9.35279E-02  9.58035E-02
#           9.81345E-02  1.00522E-01  1.02968E-01  1.05473E-01  1.08040E-01
#           1.10668E-01  1.13361E-01  1.16119E-01  1.18944E-01  1.21838E-01
#           1.24803E-01  1.27839E-01  1.30950E-01  1.34136E-01  1.37399E-01
#           1.40742E-01  1.44167E-01  1.47675E-01  1.51268E-01  1.54948E-01
#           1.58718E-01  1.62580E-01  1.66535E-01  1.70587E-01  1.74738E-01
#           1.78989E-01  1.83344E-01  1.87805E-01  1.92375E-01  1.97055E-01
#           2.01850E-01  2.06761E-01  2.11792E-01  2.16945E-01  2.22223E-01
#           2.27630E-01  2.33169E-01  2.38842E-01  2.44653E-01  2.50605E-01
#           2.56703E-01  2.62949E-01  2.69346E-01  2.75900E-01  2.82613E-01
#           2.89489E-01  2.96532E-01  3.03747E-01  3.11138E-01  3.18708E-01
#           3.26462E-01  3.34405E-01  3.42542E-01  3.50876E-01  3.59413E-01
#           3.68158E-01  3.77116E-01  3.86291E-01  3.95690E-01  4.05317E-01
#           4.15179E-01  4.25281E-01  4.35628E-01  4.46227E-01  4.57084E-01
#           4.68205E-01  4.79597E-01  4.91266E-01  5.03219E-01  5.15463E-01
#           5.28005E-01  5.40851E-01  5.54011E-01  5.67490E-01  5.81298E-01
#           5.95441E-01  6.09929E-01  6.24769E-01  6.39970E-01  6.55541E-01
#           6.71491E-01  6.87828E-01  7.04564E-01  7.21706E-01  7.39266E-01
#           7.57253E-01  7.75678E-01  7.94551E-01  8.13883E-01  8.33685E-01
#           8.53969E-01  8.74747E-01  8.96030E-01  9.17831E-01  9.40163E-01
#           9.63038E-01  9.86469E-01  1.01047E+00  1.03506E+00  1.06024E+00
#           1.08604E+00  1.11246E+00  1.13953E+00  1.16725E+00  1.19565E+00
#           1.22474E+00  1.25454E+00  1.28507E+00  1.31633E+00  1.34836E+00
#           1.38117E+00  1.41477E+00  1.44920E+00  1.48446E+00  1.52057E+00
#           1.55757E+00  1.59547E+00  1.63429E+00  1.67405E+00  1.71478E+00
#           1.75650E+00  1.79924E+00  1.84302E+00  1.88786E+00  1.93379E+00
#           1.98084E+00  2.02904E+00  2.07841E+00  2.12898E+00  2.18078E+00
#           2.23384E+00  2.28819E+00  2.34386E+00  2.40089E+00  2.45930E+00
#           2.51914E+00  2.58043E+00  2.64322E+00  2.70753E+00  2.77341E+00
#           2.84088E+00  2.91001E+00  2.98081E+00  3.05333E+00  3.12762E+00
#           3.20372E+00  3.28167E+00  3.36152E+00  3.44330E+00  3.52708E+00
#           3.61290E+00  3.70080E+00  3.79085E+00  3.88308E+00  3.97756E+00
#           4.07434E+00  4.17347E+00  4.27501E+00  4.37903E+00  4.48557E+00
#           4.59471E+00  4.70650E+00  4.82102E+00  4.93832E+00  5.05847E+00
#           5.18155E+00  5.30762E+00  5.43676E+00  5.56904E+00  5.70453E+00
#           5.84333E+00  5.98550E+00  6.13114E+00  6.28031E+00  6.43312E+00
#           6.58964E+00  6.74997E+00  6.91420E+00  7.08243E+00  7.25475E+00
#           7.43126E+00  7.61207E+00  7.79728E+00  7.98700E+00  8.18133E+00
#           8.38038E+00  8.58428E+00  8.79315E+00  9.00709E+00  9.22624E+00
#           9.45072E+00  9.68067E+00  9.91620E+00  1.01575E+01  1.04046E+01
#           1.06578E+01  1.09171E+01  1.11827E+01  1.14548E+01  1.17335E+01
#           1.20190E+01  1.23114E+01  1.26109E+01  1.29178E+01  1.32321E+01
#           1.35540E+01  1.38838E+01  1.42216E+01  1.45676E+01  1.49221E+01
#           1.52851E+01  1.56570E+01  1.60380E+01  1.64282E+01  1.68279E+01
#           1.72374E+01  1.76568E+01  1.80864E+01  1.85264E+01  1.89772E+01
#           1.94389E+01  1.99119E+01  2.03963E+01  2.08926E+01  2.14009E+01
#           2.19216E+01  2.24550E+01  2.30014E+01  2.35610E+01  2.41343E+01
#           2.47215E+01  2.53230E+01  2.59391E+01  2.65702E+01  2.72167E+01
#           2.78789E+01  2.85572E+01  2.92520E+01  2.99637E+01  3.06928E+01
#           3.14396E+01  3.22045E+01  3.29881E+01  3.37907E+01  3.46128E+01
#           3.54550E+01  3.63177E+01  3.72013E+01  3.81064E+01  3.90336E+01
#           3.99833E+01  4.09561E+01  4.19526E+01  4.29734E+01  4.40189E+01
#           4.50900E+01  4.61870E+01  4.73108E+01  4.84619E+01  4.96410E+01
#           5.08488E+01  5.20860E+01  5.33533E+01  5.46514E+01  5.59812E+01
#           5.73432E+01  5.87384E+01  6.01676E+01  6.16315E+01  6.31311E+01
#           6.46671E+01  6.62405E+01  6.78522E+01  6.95031E+01  7.11941E+01
#           7.29263E+01  7.47007E+01  7.65182E+01  7.83800E+01  8.02870E+01
#           8.22405E+01  8.42414E+01  8.62911E+01  8.83906E+01  9.05412E+01
#           9.27442E+01  9.50007E+01  9.73122E+01  9.96799E+01  1.02105E+02
#           1.04589E+02  1.07134E+02  1.09741E+02  1.12411E+02  1.15146E+02
#           1.17948E+02  1.20817E+02  1.23757E+02  1.26768E+02  1.29852E+02
#           1.33012E+02  1.36248E+02  1.39563E+02  1.42959E+02  1.46437E+02
#           1.50000E+02
     unit =    2            # unit is [1/cm^2/(MeV/n)/source]
     axis =  eng            # axis of output
     file = detector-26.out  # file name of output for the above axis
   output = f-curr          # surface crossing forward current spectrum
     part =  neutron  
# kf/name :  2112     
#    used :        main (  %)        temp (  %)       total (  %)
#  memory :         414 (  0)           0 (  0)         414 (  0)

#------------------------------------------------------------------------------
#newpage:
#   no. =    1   reg = 125 - 225

x: Energy [MeV/n]
y:  F-Curr [1/cm^2/(MeV/n)/source]         
p: xlog ylog afac(0.8) form(0.9)
h: n            x            y(neutron ),hh0l   n 
#  e-lower      e-upper      neutron     r.err 
   1.0000E-02   1.0243E-02   2.9056E-05  0.1925
   1.0243E-02   1.0493E-02   3.5880E-05  0.1715
   1.0493E-02   1.0748E-02   3.1948E-05  0.1796
   1.0748E-02   1.1009E-02   3.9213E-05  0.1601
   1.1009E-02   1.1277E-02   2.7491E-05  0.1890
   1.1277E-02   1.1552E-02   3.0666E-05  0.1768
   1.1552E-02   1.1833E-02   3.2725E-05  0.1690
   1.1833E-02   1.2121E-02   3.1051E-05  0.1715
   1.2121E-02   1.2415E-02   3.6561E-05  0.1562
   1.2415E-02   1.2718E-02   3.1177E-05  0.1668
   1.2718E-02   1.3027E-02   3.1451E-05  0.1644
   1.3027E-02   1.3344E-02   3.3125E-05  0.1581
   1.3344E-02   1.3669E-02   2.4299E-05  0.1826
   1.3669E-02   1.4001E-02   3.1635E-05  0.1581
   1.4001E-02   1.4342E-02   2.7327E-05  0.1672
   1.4342E-02   1.4691E-02   2.8065E-05  0.1635
   1.4691E-02   1.5048E-02   2.6483E-05  0.1667
   1.5048E-02   1.5414E-02   2.5862E-05  0.1667
   1.5414E-02   1.5789E-02   2.9464E-05  0.1543
   1.5789E-02   1.6174E-02   1.9849E-05  0.1857
   1.6174E-02   1.6567E-02   2.0052E-05  0.1826
   1.6567E-02   1.6970E-02   2.6541E-05  0.1564
   1.6970E-02   1.7383E-02   2.9940E-05  0.1459
   1.7383E-02   1.7806E-02   2.8596E-05  0.1474
   1.7806E-02   1.8239E-02   2.3070E-05  0.1622
   1.8239E-02   1.8683E-02   2.3709E-05  0.1581
   1.8683E-02   1.9138E-02   2.0827E-05  0.1667
   1.9138E-02   1.9603E-02   2.6502E-05  0.1459
   1.9603E-02   2.0080E-02   1.9850E-05  0.1667
   2.0080E-02   2.0569E-02   1.5551E-05  0.1857
   2.0569E-02   2.1069E-02   1.7787E-05  0.1716
   2.1069E-02   2.1582E-02   1.8373E-05  0.1667
   2.1582E-02   2.2107E-02   1.7527E-05  0.1690
   2.2107E-02   2.2645E-02   2.1028E-05  0.1525
   2.2645E-02   2.3196E-02   1.6708E-05  0.1690
   2.3196E-02   2.3760E-02   2.0031E-05  0.1525
   2.3760E-02   2.4338E-02   1.4559E-05  0.1768
   2.4338E-02   2.4930E-02   1.8658E-05  0.1543
   2.4930E-02   2.5537E-02   1.4312E-05  0.1741
   2.5537E-02   2.6158E-02   1.9543E-05  0.1470
   2.6158E-02   2.6795E-02   9.0925E-06  0.2132
   2.6795E-02   2.7447E-02   1.4839E-05  0.1645
   2.7447E-02   2.8114E-02   1.6116E-05  0.1562
   2.8114E-02   2.8799E-02   2.0465E-05  0.1368
   2.8799E-02   2.9499E-02   1.3890E-05  0.1644
   2.9499E-02   3.0217E-02   1.5018E-05  0.1562
   3.0217E-02   3.0952E-02   1.5022E-05  0.1543
   3.0952E-02   3.1705E-02   1.6115E-05  0.1470
   3.1705E-02   3.2477E-02   1.7703E-05  0.1387
   3.2477E-02   3.3267E-02   1.6639E-05  0.1414
   3.3267E-02   3.4076E-02   1.6246E-05  0.1414
   3.4076E-02   3.4905E-02   8.5636E-06  0.1925
   3.4905E-02   3.5755E-02   1.6385E-05  0.1374
   3.5755E-02   3.6625E-02   1.2693E-05  0.1543
   3.6625E-02   3.7516E-02   1.1512E-05  0.1601
   3.7516E-02   3.8428E-02   1.1238E-05  0.1601
   3.8428E-02   3.9363E-02   1.4065E-05  0.1414
   3.9363E-02   4.0321E-02   1.2579E-05  0.1475
   4.0321E-02   4.1302E-02   8.5788E-06  0.1768
   4.1302E-02   4.2307E-02   9.6807E-06  0.1644
   4.2307E-02   4.3337E-02   9.4533E-06  0.1644
   4.3337E-02   4.4391E-02   9.9807E-06  0.1581
   4.4391E-02   4.5471E-02   8.2798E-06  0.1715
   4.5471E-02   4.6577E-02   1.0450E-05  0.1508
   4.6577E-02   4.7711E-02   1.1139E-05  0.1443
   4.7711E-02   4.8871E-02   1.0197E-05  0.1491
   4.8871E-02   5.0061E-02   1.0743E-05  0.1431
   5.0061E-02   5.1279E-02   1.0117E-05  0.1459
   5.1279E-02   5.2526E-02   1.0120E-05  0.1443
   5.2526E-02   5.3804E-02   8.6432E-06  0.1543
   5.3804E-02   5.5113E-02   8.0365E-06  0.1581
   5.5113E-02   5.6454E-02   9.0281E-06  0.1467
   5.6454E-02   5.7828E-02   7.0833E-06  0.1644
   5.7828E-02   5.9235E-02   6.5431E-06  0.1690
   5.9235E-02   6.0676E-02   8.8588E-06  0.1430
   6.0676E-02   6.2152E-02   7.6590E-06  0.1525
   6.2152E-02   6.3665E-02   6.0865E-06  0.1690
   6.3665E-02   6.5214E-02   7.6397E-06  0.1491
   6.5214E-02   6.6800E-02   6.9364E-06  0.1537
   6.6800E-02   6.8426E-02   6.4576E-06  0.1581
   6.8426E-02   7.0090E-02   5.8453E-06  0.1644
   7.0090E-02   7.1796E-02   5.3021E-06  0.1697
   7.1796E-02   7.3543E-02   5.5686E-06  0.1644
   7.3543E-02   7.5332E-02   6.7564E-06  0.1474
   7.5332E-02   7.7165E-02   5.0228E-06  0.1690
   7.7165E-02   7.9042E-02   5.5143E-06  0.1589
   7.9042E-02   8.0965E-02   5.3313E-06  0.1601
   8.0965E-02   8.2935E-02   4.9398E-06  0.1644
   8.2935E-02   8.4953E-02   5.6045E-06  0.1525
   8.4953E-02   8.7020E-02   5.0884E-06  0.1581
   8.7020E-02   8.9138E-02   6.9199E-06  0.1337
   8.9138E-02   9.1306E-02   5.4565E-06  0.1491
   9.1306E-02   9.3528E-02   4.2621E-06  0.1667
   9.3528E-02   9.5804E-02   6.2385E-06  0.1361
   9.5804E-02   9.8134E-02   4.7375E-06  0.1543
   9.8134E-02   1.0052E-01   5.3974E-06  0.1429
   1.0052E-01   1.0297E-01   5.2684E-06  0.1429
   1.0297E-01   1.0547E-01   3.9894E-06  0.1622
   1.0547E-01   1.0804E-01   5.5335E-06  0.1361
   1.0804E-01   1.1067E-01   4.3988E-06  0.1508
   1.1067E-01   1.1336E-01   6.6408E-06  0.1213
   1.1336E-01   1.1612E-01   5.5086E-06  0.1314
   1.1612E-01   1.1894E-01   6.3276E-06  0.1213
   1.1894E-01   1.2184E-01   6.3416E-06  0.1196
   1.2184E-01   1.2480E-01   6.0285E-06  0.1213
   1.2480E-01   1.2784E-01   7.3281E-06  0.1086
   1.2784E-01   1.3095E-01   6.3539E-06  0.1152
   1.3095E-01   1.3414E-01   6.9313E-06  0.1091
   1.3414E-01   1.3740E-01   7.6540E-06  0.1026
   1.3740E-01   1.4074E-01   7.3938E-06  0.1031
   1.4074E-01   1.4417E-01   8.6116E-06  0.0944
   1.4417E-01   1.4767E-01   7.5712E-06  0.0995
   1.4767E-01   1.5127E-01   9.1472E-06  0.0894
   1.5127E-01   1.5495E-01   8.3498E-06  0.0923
   1.5495E-01   1.5872E-01   8.5037E-06  0.0904
   1.5872E-01   1.6258E-01   8.8821E-06  0.0874
   1.6258E-01   1.6654E-01   9.5511E-06  0.0834
   1.6654E-01   1.7059E-01   8.6817E-06  0.0864
   1.7059E-01   1.7474E-01   9.4289E-06  0.0819
   1.7474E-01   1.7899E-01   8.6395E-06  0.0845
   1.7899E-01   1.8334E-01   9.5388E-06  0.0796
   1.8334E-01   1.8781E-01   1.0106E-05  0.0763
   1.8781E-01   1.9237E-01   1.0499E-05  0.0740
   1.9237E-01   1.9706E-01   1.1254E-05  0.0705
   1.9706E-01   2.0185E-01   1.0824E-05  0.0710
   2.0185E-01   2.0676E-01   1.1452E-05  0.0684
   2.0676E-01   2.1179E-01   1.0807E-05  0.0695
   2.1179E-01   2.1694E-01   1.2939E-05  0.0628
   2.1694E-01   2.2222E-01   1.2245E-05  0.0638
   2.2222E-01   2.2763E-01   1.1650E-05  0.0646
   2.2763E-01   2.3317E-01   1.4436E-05  0.0573
   2.3317E-01   2.3884E-01   1.2271E-05  0.0614
   2.3884E-01   2.4465E-01   1.3473E-05  0.0579
   2.4465E-01   2.5061E-01   1.2480E-05  0.0594
   2.5061E-01   2.5670E-01   1.2991E-05  0.0575
   2.5670E-01   2.6295E-01   1.4819E-05  0.0532
   2.6295E-01   2.6935E-01   1.4303E-05  0.0535
   2.6935E-01   2.7590E-01   1.4375E-05  0.0528
   2.7590E-01   2.8261E-01   1.4943E-05  0.0511
   2.8261E-01   2.8949E-01   1.5456E-05  0.0497
   2.8949E-01   2.9653E-01   1.4338E-05  0.0510
   2.9653E-01   3.0375E-01   1.4935E-05  0.0493
   3.0375E-01   3.1114E-01   1.5644E-05  0.0476
   3.1114E-01   3.1871E-01   1.6011E-05  0.0465
   3.1871E-01   3.2646E-01   1.5907E-05  0.0461
   3.2646E-01   3.3441E-01   1.5239E-05  0.0465
   3.3441E-01   3.4254E-01   1.6090E-05  0.0448
   3.4254E-01   3.5088E-01   1.7925E-05  0.0419
   3.5088E-01   3.5941E-01   1.7996E-05  0.0413
   3.5941E-01   3.6816E-01   1.8822E-05  0.0399
   3.6816E-01   3.7712E-01   1.7751E-05  0.0406
   3.7712E-01   3.8629E-01   1.8454E-05  0.0393
   3.8629E-01   3.9569E-01   1.7527E-05  0.0399
   3.9569E-01   4.0532E-01   1.9685E-05  0.0372
   4.0532E-01   4.1518E-01   1.9747E-05  0.0367
   4.1518E-01   4.2528E-01   1.9002E-05  0.0369
   4.2528E-01   4.3563E-01   2.0361E-05  0.0352
   4.3563E-01   4.4623E-01   1.8248E-05  0.0368
   4.4623E-01   4.5708E-01   2.0378E-05  0.0344
   4.5708E-01   4.6821E-01   1.9658E-05  0.0346
   4.6821E-01   4.7960E-01   2.0356E-05  0.0336
   4.7960E-01   4.9127E-01   2.0654E-05  0.0329
   4.9127E-01   5.0322E-01   2.1008E-05  0.0323
   5.0322E-01   5.1546E-01   2.1649E-05  0.0314
   5.1546E-01   5.2800E-01   2.1659E-05  0.0310
   5.2800E-01   5.4085E-01   2.0352E-05  0.0316
   5.4085E-01   5.5401E-01   2.0917E-05  0.0308
   5.5401E-01   5.6749E-01   2.0922E-05  0.0304
   5.6749E-01   5.8130E-01   2.3013E-05  0.0287
   5.8130E-01   5.9544E-01   2.1327E-05  0.0294
   5.9544E-01   6.0993E-01   2.2509E-05  0.0283
   6.0993E-01   6.2477E-01   2.0766E-05  0.0291
   6.2477E-01   6.3997E-01   2.1749E-05  0.0281
   6.3997E-01   6.5554E-01   2.3036E-05  0.0270
   6.5554E-01   6.7149E-01   2.2611E-05  0.0269
   6.7149E-01   6.8783E-01   2.2329E-05  0.0267
   6.8783E-01   7.0456E-01   2.3075E-05  0.0260
   7.0456E-01   7.2171E-01   2.2457E-05  0.0260
   7.2171E-01   7.3927E-01   2.2031E-05  0.0259
   7.3927E-01   7.5725E-01   2.2069E-05  0.0256
   7.5725E-01   7.7568E-01   2.1416E-05  0.0257
   7.7568E-01   7.9455E-01   2.3487E-05  0.0242
   7.9455E-01   8.1388E-01   2.1642E-05  0.0249
   8.1388E-01   8.3368E-01   2.1863E-05  0.0245
   8.3368E-01   8.5397E-01   2.2398E-05  0.0239
   8.5397E-01   8.7475E-01   2.1569E-05  0.0241
   8.7475E-01   8.9603E-01   2.1379E-05  0.0239
   8.9603E-01   9.1783E-01   2.1681E-05  0.0234
   9.1783E-01   9.4016E-01   2.1548E-05  0.0232
   9.4016E-01   9.6304E-01   1.9584E-05  0.0240
   9.6304E-01   9.8647E-01   2.0020E-05  0.0235
   9.8647E-01   1.0105E+00   1.8809E-05  0.0240
   1.0105E+00   1.0351E+00   1.9315E-05  0.0233
   1.0351E+00   1.0602E+00   1.8648E-05  0.0234
   1.0602E+00   1.0860E+00   1.9093E-05  0.0229
   1.0860E+00   1.1125E+00   1.9233E-05  0.0225
   1.1125E+00   1.1395E+00   1.8558E-05  0.0226
   1.1395E+00   1.1673E+00   1.9858E-05  0.0216
   1.1673E+00   1.1957E+00   1.8764E-05  0.0219
   1.1957E+00   1.2247E+00   1.8589E-05  0.0217
   1.2247E+00   1.2545E+00   1.8464E-05  0.0215
   1.2545E+00   1.2851E+00   1.7815E-05  0.0216
   1.2851E+00   1.3163E+00   1.8198E-05  0.0211
   1.3163E+00   1.3484E+00   1.7949E-05  0.0210
   1.3484E+00   1.3812E+00   1.7568E-05  0.0209
   1.3812E+00   1.4148E+00   1.6939E-05  0.0210
   1.4148E+00   1.4492E+00   1.7578E-05  0.0204
   1.4492E+00   1.4845E+00   1.7410E-05  0.0202
   1.4845E+00   1.5206E+00   1.6744E-05  0.0203
   1.5206E+00   1.5576E+00   1.6491E-05  0.0202
   1.5576E+00   1.5955E+00   1.6709E-05  0.0198
   1.5955E+00   1.6343E+00   1.6165E-05  0.0198
   1.6343E+00   1.6741E+00   1.5769E-05  0.0198
   1.6741E+00   1.7148E+00   1.5346E-05  0.0198
   1.7148E+00   1.7565E+00   1.4640E-05  0.0200
   1.7565E+00   1.7992E+00   1.3853E-05  0.0203
   1.7992E+00   1.8430E+00   1.2588E-05  0.0210
   1.8430E+00   1.8879E+00   1.1446E-05  0.0216
   1.8879E+00   1.9338E+00   1.1064E-05  0.0216
   1.9338E+00   1.9808E+00   1.0620E-05  0.0219
   1.9808E+00   2.0290E+00   1.0406E-05  0.0218
   2.0290E+00   2.0784E+00   1.0300E-05  0.0216
   2.0784E+00   2.1290E+00   1.0530E-05  0.0211
   2.1290E+00   2.1808E+00   1.0595E-05  0.0207
   2.1808E+00   2.2338E+00   1.1197E-05  0.0199
   2.2338E+00   2.2882E+00   1.0548E-05  0.0202
   2.2882E+00   2.3439E+00   9.9803E-06  0.0206
   2.3439E+00   2.4009E+00   9.6813E-06  0.0207
   2.4009E+00   2.4593E+00   9.7985E-06  0.0203
   2.4593E+00   2.5191E+00   9.2854E-06  0.0206
   2.5191E+00   2.5804E+00   9.2233E-06  0.0205
   2.5804E+00   2.6432E+00   9.5869E-06  0.0199
   2.6432E+00   2.7075E+00   9.3018E-06  0.0199
   2.7075E+00   2.7734E+00   8.8735E-06  0.0201
   2.7734E+00   2.8409E+00   8.3548E-06  0.0206
   2.8409E+00   2.9100E+00   8.7451E-06  0.0199
   2.9100E+00   2.9808E+00   8.2735E-06  0.0203
   2.9808E+00   3.0533E+00   8.2236E-06  0.0201
   3.0533E+00   3.1276E+00   8.1819E-06  0.0199
   3.1276E+00   3.2037E+00   8.0572E-06  0.0199
   3.2037E+00   3.2817E+00   8.0879E-06  0.0197
   3.2817E+00   3.3615E+00   7.6815E-06  0.0199
   3.3615E+00   3.4433E+00   7.7315E-06  0.0197
   3.4433E+00   3.5271E+00   7.7352E-06  0.0194
   3.5271E+00   3.6129E+00   7.6533E-06  0.0193
   3.6129E+00   3.7008E+00   7.8161E-06  0.0189
   3.7008E+00   3.7908E+00   7.4496E-06  0.0191
   3.7908E+00   3.8831E+00   7.5994E-06  0.0188
   3.8831E+00   3.9776E+00   7.2773E-06  0.0190
   3.9776E+00   4.0743E+00   7.0974E-06  0.0190
   4.0743E+00   4.1735E+00   7.1724E-06  0.0186
   4.1735E+00   4.2750E+00   7.1381E-06  0.0185
   4.2750E+00   4.3790E+00   7.2819E-06  0.0181
   4.3790E+00   4.4856E+00   6.7692E-06  0.0186
   4.4856E+00   4.5947E+00   6.4906E-06  0.0187
   4.5947E+00   4.7065E+00   6.2545E-06  0.0188
   4.7065E+00   4.8210E+00   6.3719E-06  0.0185
   4.8210E+00   4.9383E+00   6.3101E-06  0.0183
   4.9383E+00   5.0585E+00   6.1727E-06  0.0183
   5.0585E+00   5.1815E+00   6.1695E-06  0.0181
   5.1815E+00   5.3076E+00   6.1617E-06  0.0179
   5.3076E+00   5.4368E+00   6.2364E-06  0.0176
   5.4368E+00   5.5690E+00   5.9667E-06  0.0178
   5.5690E+00   5.7045E+00   5.9712E-06  0.0176
   5.7045E+00   5.8433E+00   5.6175E-06  0.0179
   5.8433E+00   5.9855E+00   5.7254E-06  0.0176
   5.9855E+00   6.1311E+00   5.5769E-06  0.0176
   6.1311E+00   6.2803E+00   5.3395E-06  0.0178
   6.2803E+00   6.4331E+00   5.2812E-06  0.0177
   6.4331E+00   6.5896E+00   5.4721E-06  0.0172
   6.5896E+00   6.7500E+00   5.2277E-06  0.0174
   6.7500E+00   6.9142E+00   5.0848E-06  0.0175
   6.9142E+00   7.0824E+00   5.0123E-06  0.0174
   7.0824E+00   7.2548E+00   4.7638E-06  0.0176
   7.2548E+00   7.4313E+00   4.8361E-06  0.0173
   7.4313E+00   7.6121E+00   4.7040E-06  0.0173
   7.6121E+00   7.7973E+00   4.6674E-06  0.0172
   7.7973E+00   7.9870E+00   4.4365E-06  0.0174
   7.9870E+00   8.1813E+00   4.4157E-06  0.0173
   8.1813E+00   8.3804E+00   4.2487E-06  0.0174
   8.3804E+00   8.5843E+00   4.1078E-06  0.0175
   8.5843E+00   8.7931E+00   4.0999E-06  0.0173
   8.7931E+00   9.0071E+00   3.8515E-06  0.0177
   9.0071E+00   9.2262E+00   3.9255E-06  0.0173
   9.2262E+00   9.4507E+00   3.7091E-06  0.0176
   9.4507E+00   9.6807E+00   3.6149E-06  0.0177
   9.6807E+00   9.9162E+00   3.4898E-06  0.0178
   9.9162E+00   1.0157E+01   3.5115E-06  0.0176
   1.0157E+01   1.0405E+01   3.3952E-06  0.0177
   1.0405E+01   1.0658E+01   3.3273E-06  0.0176
   1.0658E+01   1.0917E+01   3.1117E-06  0.0180
   1.0917E+01   1.1183E+01   2.9986E-06  0.0181
   1.1183E+01   1.1455E+01   2.9114E-06  0.0182
   1.1455E+01   1.1733E+01   2.7184E-06  0.0186
   1.1733E+01   1.2019E+01   2.6865E-06  0.0185
   1.2019E+01   1.2311E+01   2.6065E-06  0.0186
   1.2311E+01   1.2611E+01   2.4506E-06  0.0189
   1.2611E+01   1.2918E+01   2.3199E-06  0.0192
   1.2918E+01   1.3232E+01   2.2641E-06  0.0192
   1.3232E+01   1.3554E+01   2.1820E-06  0.0193
   1.3554E+01   1.3884E+01   2.1085E-06  0.0194
   1.3884E+01   1.4222E+01   2.0120E-06  0.0197
   1.4222E+01   1.4568E+01   1.9473E-06  0.0198
   1.4568E+01   1.4922E+01   1.8324E-06  0.0201
   1.4922E+01   1.5285E+01   1.7226E-06  0.0205
   1.5285E+01   1.5657E+01   1.6233E-06  0.0209
   1.5657E+01   1.6038E+01   1.5303E-06  0.0212
   1.6038E+01   1.6428E+01   1.4603E-06  0.0215
   1.6428E+01   1.6828E+01   1.3105E-06  0.0224
   1.6828E+01   1.7237E+01   1.2627E-06  0.0226
   1.7237E+01   1.7657E+01   1.1012E-06  0.0239
   1.7657E+01   1.8086E+01   1.0170E-06  0.0245
   1.8086E+01   1.8526E+01   9.1077E-07  0.0256
   1.8526E+01   1.8977E+01   8.3368E-07  0.0265
   1.8977E+01   1.9439E+01   7.4776E-07  0.0276
   1.9439E+01   1.9912E+01   6.7046E-07  0.0288
   1.9912E+01   2.0396E+01   6.1380E-07  0.0297
   2.0396E+01   2.0893E+01   5.4460E-07  0.0312
   2.0893E+01   2.1401E+01   4.8093E-07  0.0328
   2.1401E+01   2.1922E+01   4.4171E-07  0.0338
   2.1922E+01   2.2455E+01   3.8237E-07  0.0359
   2.2455E+01   2.3001E+01   3.2272E-07  0.0386
   2.3001E+01   2.3561E+01   3.0236E-07  0.0394
   2.3561E+01   2.4134E+01   2.1438E-07  0.0463
   2.4134E+01   2.4721E+01   2.0705E-07  0.0465
   2.4721E+01   2.5323E+01   1.5750E-07  0.0527
   2.5323E+01   2.5939E+01   1.3668E-07  0.0559
   2.5939E+01   2.6570E+01   1.1383E-07  0.0605
   2.6570E+01   2.7217E+01   8.5484E-08  0.0690
   2.7217E+01   2.7879E+01   8.7825E-08  0.0673
   2.7879E+01   2.8557E+01   6.2849E-08  0.0786
   2.8557E+01   2.9252E+01   4.7722E-08  0.0891
   2.9252E+01   2.9964E+01   4.0302E-08  0.0958
   2.9964E+01   3.0693E+01   3.3570E-08  0.1037
   3.0693E+01   3.1440E+01   2.2201E-08  0.1260
   3.1440E+01   3.2205E+01   1.7545E-08  0.1400
   3.2205E+01   3.2988E+01   1.6121E-08  0.1443
   3.2988E+01   3.3791E+01   1.0492E-08  0.1768
   3.3791E+01   3.4613E+01   8.9623E-09  0.1890
   3.4613E+01   3.5455E+01   8.1245E-09  0.1961
   3.5455E+01   3.6318E+01   5.4910E-09  0.2357
   3.6318E+01   3.7201E+01   4.4672E-09  0.2582
   3.7201E+01   3.8106E+01   3.1981E-09  0.3015
   3.8106E+01   3.9034E+01   4.5413E-09  0.2500
   3.9034E+01   3.9983E+01   4.9876E-09  0.2357
   3.9983E+01   4.0956E+01   1.0820E-09  0.5000
   4.0956E+01   4.1953E+01   0.0000E+00  0.0000
   4.1953E+01   4.2973E+01   0.0000E+00  0.0000
   4.2973E+01   4.4019E+01   0.0000E+00  0.0000
   4.4019E+01   4.5090E+01   0.0000E+00  0.0000
   4.5090E+01   4.6187E+01   0.0000E+00  0.0000
   4.6187E+01   4.7311E+01   0.0000E+00  0.0000
   4.7311E+01   4.8462E+01   0.0000E+00  0.0000
   4.8462E+01   4.9641E+01   0.0000E+00  0.0000
   4.9641E+01   5.0849E+01   0.0000E+00  0.0000
   5.0849E+01   5.2086E+01   0.0000E+00  0.0000
   5.2086E+01   5.3353E+01   0.0000E+00  0.0000
   5.3353E+01   5.4651E+01   0.0000E+00  0.0000
   5.4651E+01   5.5981E+01   0.0000E+00  0.0000
   5.5981E+01   5.7343E+01   0.0000E+00  0.0000
   5.7343E+01   5.8738E+01   0.0000E+00  0.0000
   5.8738E+01   6.0168E+01   0.0000E+00  0.0000
   6.0168E+01   6.1632E+01   0.0000E+00  0.0000
   6.1632E+01   6.3131E+01   0.0000E+00  0.0000
   6.3131E+01   6.4667E+01   0.0000E+00  0.0000
   6.4667E+01   6.6240E+01   0.0000E+00  0.0000
   6.6240E+01   6.7852E+01   0.0000E+00  0.0000
   6.7852E+01   6.9503E+01   0.0000E+00  0.0000
   6.9503E+01   7.1194E+01   0.0000E+00  0.0000
   7.1194E+01   7.2926E+01   0.0000E+00  0.0000
   7.2926E+01   7.4701E+01   0.0000E+00  0.0000
   7.4701E+01   7.6518E+01   0.0000E+00  0.0000
   7.6518E+01   7.8380E+01   0.0000E+00  0.0000
   7.8380E+01   8.0287E+01   0.0000E+00  0.0000
   8.0287E+01   8.2240E+01   0.0000E+00  0.0000
   8.2240E+01   8.4241E+01   0.0000E+00  0.0000
   8.4241E+01   8.6291E+01   0.0000E+00  0.0000
   8.6291E+01   8.8391E+01   0.0000E+00  0.0000
   8.8391E+01   9.0541E+01   0.0000E+00  0.0000
   9.0541E+01   9.2744E+01   0.0000E+00  0.0000
   9.2744E+01   9.5001E+01   0.0000E+00  0.0000
   9.5001E+01   9.7312E+01   0.0000E+00  0.0000
   9.7312E+01   9.9680E+01   0.0000E+00  0.0000
   9.9680E+01   1.0211E+02   0.0000E+00  0.0000
   1.0211E+02   1.0459E+02   0.0000E+00  0.0000
   1.0459E+02   1.0713E+02   0.0000E+00  0.0000
   1.0713E+02   1.0974E+02   0.0000E+00  0.0000
   1.0974E+02   1.1241E+02   0.0000E+00  0.0000
   1.1241E+02   1.1515E+02   0.0000E+00  0.0000
   1.1515E+02   1.1795E+02   0.0000E+00  0.0000
   1.1795E+02   1.2082E+02   0.0000E+00  0.0000
   1.2082E+02   1.2376E+02   0.0000E+00  0.0000
   1.2376E+02   1.2677E+02   0.0000E+00  0.0000
   1.2677E+02   1.2985E+02   0.0000E+00  0.0000
   1.2985E+02   1.3301E+02   0.0000E+00  0.0000
   1.3301E+02   1.3625E+02   0.0000E+00  0.0000
   1.3625E+02   1.3956E+02   0.0000E+00  0.0000
   1.3956E+02   1.4296E+02   0.0000E+00  0.0000
   1.4296E+02   1.4644E+02   0.0000E+00  0.0000
   1.4644E+02   1.5000E+02   0.0000E+00  0.0000

#   sum over                 6.8124E-07
'no. =    1   reg = 125 - 225'
msuc: {\huge [t-cross] in region mesh}
msdr: {\it plotted by \ANGEL \version}
msdl: {\it calculated by \PHITS  3.26}
wt: s(0.7)
\vspace{-3}
  region surface crossing
  area  &=&   1.0000E+00 [cm^2]
e:
 
# Information for Restart Calculation
# This calculation was newly started
# istdev =  2 # 1:Batch variance, 2:History variance
# resc2  = 3.80000000000000000E+09 # Total source weight or Total source weight / maxcas
# resc3  = 3.80000000000000000E+09 # Total history number or Total batch number
# maxcas =   100000000 # History / Batch, only used for istdev=1
# bitrseed = 1100100011111111101010110001000011010010001011000111110010001001 # bit data of rseed
