[ T-Cross ]
    title = [t-cross] in region mesh
     mesh =  reg            # mesh type is region-wise
      reg =    1            # number of crossing regions
      non     r-from    r-to       area
      1       114       214        1.000000    
   e-type =    3            # e-mesh is log given by emin, emax and ne
     emin =  1.0000000E-02  # minimum value of e-mesh points
     emax =   150.0000      # maximum value of e-mesh points
#    edel =  2.4039514E-02  # mesh width of e-mesh points
       ne =    400          # number of e-mesh points
#    data = ( e(i), i = 1, ne + 1 )
#           1.00000E-02  1.02433E-02  1.04925E-02  1.07478E-02  1.10093E-02
#           1.12772E-02  1.15516E-02  1.18326E-02  1.21205E-02  1.24154E-02
#           1.27175E-02  1.30269E-02  1.33439E-02  1.36686E-02  1.40011E-02
#           1.43418E-02  1.46907E-02  1.50482E-02  1.54143E-02  1.57894E-02
#           1.61735E-02  1.65670E-02  1.69701E-02  1.73830E-02  1.78060E-02
#           1.82392E-02  1.86830E-02  1.91375E-02  1.96032E-02  2.00801E-02
#           2.05687E-02  2.10692E-02  2.15818E-02  2.21069E-02  2.26448E-02
#           2.31957E-02  2.37601E-02  2.43382E-02  2.49304E-02  2.55369E-02
#           2.61583E-02  2.67947E-02  2.74467E-02  2.81145E-02  2.87985E-02
#           2.94992E-02  3.02169E-02  3.09521E-02  3.17052E-02  3.24766E-02
#           3.32668E-02  3.40762E-02  3.49053E-02  3.57546E-02  3.66246E-02
#           3.75157E-02  3.84284E-02  3.93634E-02  4.03212E-02  4.13022E-02
#           4.23071E-02  4.33365E-02  4.43909E-02  4.54710E-02  4.65773E-02
#           4.77106E-02  4.88714E-02  5.00605E-02  5.12785E-02  5.25262E-02
#           5.38042E-02  5.51133E-02  5.64542E-02  5.78278E-02  5.92348E-02
#           6.06760E-02  6.21523E-02  6.36645E-02  6.52135E-02  6.68002E-02
#           6.84255E-02  7.00904E-02  7.17957E-02  7.35426E-02  7.53319E-02
#           7.71648E-02  7.90423E-02  8.09655E-02  8.29354E-02  8.49533E-02
#           8.70203E-02  8.91376E-02  9.13064E-02  9.35279E-02  9.58035E-02
#           9.81345E-02  1.00522E-01  1.02968E-01  1.05473E-01  1.08040E-01
#           1.10668E-01  1.13361E-01  1.16119E-01  1.18944E-01  1.21838E-01
#           1.24803E-01  1.27839E-01  1.30950E-01  1.34136E-01  1.37399E-01
#           1.40742E-01  1.44167E-01  1.47675E-01  1.51268E-01  1.54948E-01
#           1.58718E-01  1.62580E-01  1.66535E-01  1.70587E-01  1.74738E-01
#           1.78989E-01  1.83344E-01  1.87805E-01  1.92375E-01  1.97055E-01
#           2.01850E-01  2.06761E-01  2.11792E-01  2.16945E-01  2.22223E-01
#           2.27630E-01  2.33169E-01  2.38842E-01  2.44653E-01  2.50605E-01
#           2.56703E-01  2.62949E-01  2.69346E-01  2.75900E-01  2.82613E-01
#           2.89489E-01  2.96532E-01  3.03747E-01  3.11138E-01  3.18708E-01
#           3.26462E-01  3.34405E-01  3.42542E-01  3.50876E-01  3.59413E-01
#           3.68158E-01  3.77116E-01  3.86291E-01  3.95690E-01  4.05317E-01
#           4.15179E-01  4.25281E-01  4.35628E-01  4.46227E-01  4.57084E-01
#           4.68205E-01  4.79597E-01  4.91266E-01  5.03219E-01  5.15463E-01
#           5.28005E-01  5.40851E-01  5.54011E-01  5.67490E-01  5.81298E-01
#           5.95441E-01  6.09929E-01  6.24769E-01  6.39970E-01  6.55541E-01
#           6.71491E-01  6.87828E-01  7.04564E-01  7.21706E-01  7.39266E-01
#           7.57253E-01  7.75678E-01  7.94551E-01  8.13883E-01  8.33685E-01
#           8.53969E-01  8.74747E-01  8.96030E-01  9.17831E-01  9.40163E-01
#           9.63038E-01  9.86469E-01  1.01047E+00  1.03506E+00  1.06024E+00
#           1.08604E+00  1.11246E+00  1.13953E+00  1.16725E+00  1.19565E+00
#           1.22474E+00  1.25454E+00  1.28507E+00  1.31633E+00  1.34836E+00
#           1.38117E+00  1.41477E+00  1.44920E+00  1.48446E+00  1.52057E+00
#           1.55757E+00  1.59547E+00  1.63429E+00  1.67405E+00  1.71478E+00
#           1.75650E+00  1.79924E+00  1.84302E+00  1.88786E+00  1.93379E+00
#           1.98084E+00  2.02904E+00  2.07841E+00  2.12898E+00  2.18078E+00
#           2.23384E+00  2.28819E+00  2.34386E+00  2.40089E+00  2.45930E+00
#           2.51914E+00  2.58043E+00  2.64322E+00  2.70753E+00  2.77341E+00
#           2.84088E+00  2.91001E+00  2.98081E+00  3.05333E+00  3.12762E+00
#           3.20372E+00  3.28167E+00  3.36152E+00  3.44330E+00  3.52708E+00
#           3.61290E+00  3.70080E+00  3.79085E+00  3.88308E+00  3.97756E+00
#           4.07434E+00  4.17347E+00  4.27501E+00  4.37903E+00  4.48557E+00
#           4.59471E+00  4.70650E+00  4.82102E+00  4.93832E+00  5.05847E+00
#           5.18155E+00  5.30762E+00  5.43676E+00  5.56904E+00  5.70453E+00
#           5.84333E+00  5.98550E+00  6.13114E+00  6.28031E+00  6.43312E+00
#           6.58964E+00  6.74997E+00  6.91420E+00  7.08243E+00  7.25475E+00
#           7.43126E+00  7.61207E+00  7.79728E+00  7.98700E+00  8.18133E+00
#           8.38038E+00  8.58428E+00  8.79315E+00  9.00709E+00  9.22624E+00
#           9.45072E+00  9.68067E+00  9.91620E+00  1.01575E+01  1.04046E+01
#           1.06578E+01  1.09171E+01  1.11827E+01  1.14548E+01  1.17335E+01
#           1.20190E+01  1.23114E+01  1.26109E+01  1.29178E+01  1.32321E+01
#           1.35540E+01  1.38838E+01  1.42216E+01  1.45676E+01  1.49221E+01
#           1.52851E+01  1.56570E+01  1.60380E+01  1.64282E+01  1.68279E+01
#           1.72374E+01  1.76568E+01  1.80864E+01  1.85264E+01  1.89772E+01
#           1.94389E+01  1.99119E+01  2.03963E+01  2.08926E+01  2.14009E+01
#           2.19216E+01  2.24550E+01  2.30014E+01  2.35610E+01  2.41343E+01
#           2.47215E+01  2.53230E+01  2.59391E+01  2.65702E+01  2.72167E+01
#           2.78789E+01  2.85572E+01  2.92520E+01  2.99637E+01  3.06928E+01
#           3.14396E+01  3.22045E+01  3.29881E+01  3.37907E+01  3.46128E+01
#           3.54550E+01  3.63177E+01  3.72013E+01  3.81064E+01  3.90336E+01
#           3.99833E+01  4.09561E+01  4.19526E+01  4.29734E+01  4.40189E+01
#           4.50900E+01  4.61870E+01  4.73108E+01  4.84619E+01  4.96410E+01
#           5.08488E+01  5.20860E+01  5.33533E+01  5.46514E+01  5.59812E+01
#           5.73432E+01  5.87384E+01  6.01676E+01  6.16315E+01  6.31311E+01
#           6.46671E+01  6.62405E+01  6.78522E+01  6.95031E+01  7.11941E+01
#           7.29263E+01  7.47007E+01  7.65182E+01  7.83800E+01  8.02870E+01
#           8.22405E+01  8.42414E+01  8.62911E+01  8.83906E+01  9.05412E+01
#           9.27442E+01  9.50007E+01  9.73122E+01  9.96799E+01  1.02105E+02
#           1.04589E+02  1.07134E+02  1.09741E+02  1.12411E+02  1.15146E+02
#           1.17948E+02  1.20817E+02  1.23757E+02  1.26768E+02  1.29852E+02
#           1.33012E+02  1.36248E+02  1.39563E+02  1.42959E+02  1.46437E+02
#           1.50000E+02
     unit =    2            # unit is [1/cm^2/(MeV/n)/source]
     axis =  eng            # axis of output
     file = detector-15.out  # file name of output for the above axis
   output = f-curr          # surface crossing forward current spectrum
     part =  neutron  
# kf/name :  2112     
#    used :        main (  %)        temp (  %)       total (  %)
#  memory :         414 (  0)           0 (  0)         414 (  0)

#------------------------------------------------------------------------------
#newpage:
#   no. =    1   reg = 114 - 214

x: Energy [MeV/n]
y:  F-Curr [1/cm^2/(MeV/n)/source]         
p: xlog ylog afac(0.8) form(0.9)
h: n            x            y(neutron ),hh0l   n 
#  e-lower      e-upper      neutron     r.err 
   1.0000E-02   1.0243E-02   4.0683E-04  0.0514
   1.0243E-02   1.0493E-02   3.8513E-04  0.0522
   1.0493E-02   1.0748E-02   3.8853E-04  0.0513
   1.0748E-02   1.1009E-02   3.9093E-04  0.0506
   1.1009E-02   1.1277E-02   3.6135E-04  0.0519
   1.1277E-02   1.1552E-02   3.6970E-04  0.0508
   1.1552E-02   1.1833E-02   3.3943E-04  0.0523
   1.1833E-02   1.2121E-02   3.2173E-04  0.0531
   1.2121E-02   1.2415E-02   3.3485E-04  0.0515
   1.2415E-02   1.2718E-02   3.5293E-04  0.0495
   1.2718E-02   1.3027E-02   3.3094E-04  0.0505
   1.3027E-02   1.3344E-02   3.3632E-04  0.0495
   1.3344E-02   1.3669E-02   3.2366E-04  0.0499
   1.3669E-02   1.4001E-02   3.0322E-04  0.0509
   1.4001E-02   1.4342E-02   3.0766E-04  0.0500
   1.4342E-02   1.4691E-02   2.7796E-04  0.0519
   1.4691E-02   1.5048E-02   2.7307E-04  0.0518
   1.5048E-02   1.5414E-02   2.8549E-04  0.0500
   1.5414E-02   1.5789E-02   2.7372E-04  0.0505
   1.5789E-02   1.6174E-02   2.4329E-04  0.0529
   1.6174E-02   1.6567E-02   2.4663E-04  0.0519
   1.6567E-02   1.6970E-02   2.5166E-04  0.0508
   1.6970E-02   1.7383E-02   2.3626E-04  0.0517
   1.7383E-02   1.7806E-02   2.3141E-04  0.0516
   1.7806E-02   1.8239E-02   2.2464E-04  0.0518
   1.8239E-02   1.8683E-02   2.2470E-04  0.0511
   1.8683E-02   1.9138E-02   2.3828E-04  0.0491
   1.9138E-02   1.9603E-02   2.3038E-04  0.0494
   1.9603E-02   2.0080E-02   2.1618E-04  0.0503
   2.0080E-02   2.0569E-02   1.9826E-04  0.0519
   2.0569E-02   2.1069E-02   2.0806E-04  0.0501
   2.1069E-02   2.1582E-02   2.1283E-04  0.0489
   2.1582E-02   2.2107E-02   2.1031E-04  0.0487
   2.2107E-02   2.2645E-02   1.8886E-04  0.0507
   2.2645E-02   2.3196E-02   1.9145E-04  0.0498
   2.3196E-02   2.3760E-02   1.9314E-04  0.0489
   2.3760E-02   2.4338E-02   1.9671E-04  0.0480
   2.4338E-02   2.4930E-02   1.8602E-04  0.0486
   2.4930E-02   2.5537E-02   1.7159E-04  0.0500
   2.5537E-02   2.6158E-02   1.5587E-04  0.0519
   2.6158E-02   2.6795E-02   1.6744E-04  0.0496
   2.6795E-02   2.7447E-02   1.6612E-04  0.0492
   2.7447E-02   2.8114E-02   1.6605E-04  0.0485
   2.8114E-02   2.8799E-02   1.5325E-04  0.0499
   2.8799E-02   2.9499E-02   1.5497E-04  0.0491
   2.9499E-02   3.0217E-02   1.5278E-04  0.0489
   3.0217E-02   3.0952E-02   1.4451E-04  0.0496
   3.0952E-02   3.1705E-02   1.5070E-04  0.0480
   3.1705E-02   3.2477E-02   1.3985E-04  0.0492
   3.2477E-02   3.3267E-02   1.3527E-04  0.0495
   3.3267E-02   3.4076E-02   1.2755E-04  0.0503
   3.4076E-02   3.4905E-02   1.3892E-04  0.0477
   3.4905E-02   3.5755E-02   1.2697E-04  0.0492
   3.5755E-02   3.6625E-02   1.3211E-04  0.0477
   3.6625E-02   3.7516E-02   1.2399E-04  0.0486
   3.7516E-02   3.8428E-02   1.2464E-04  0.0479
   3.8428E-02   3.9363E-02   1.1847E-04  0.0486
   3.9363E-02   4.0321E-02   1.0969E-04  0.0498
   4.0321E-02   4.1302E-02   1.0686E-04  0.0499
   4.1302E-02   4.2307E-02   1.1375E-04  0.0478
   4.2307E-02   4.3337E-02   1.1019E-04  0.0480
   4.3337E-02   4.4391E-02   1.0889E-04  0.0477
   4.4391E-02   4.5471E-02   1.0475E-04  0.0481
   4.5471E-02   4.6577E-02   1.1004E-04  0.0463
   4.6577E-02   4.7711E-02   1.0971E-04  0.0459
   4.7711E-02   4.8871E-02   9.8195E-05  0.0479
   4.8871E-02   5.0061E-02   9.7217E-05  0.0475
   5.0061E-02   5.1279E-02   9.3705E-05  0.0478
   5.1279E-02   5.2526E-02   9.5352E-05  0.0469
   5.2526E-02   5.3804E-02   8.9469E-05  0.0478
   5.3804E-02   5.5113E-02   8.9973E-05  0.0471
   5.5113E-02   5.6454E-02   8.8001E-05  0.0470
   5.6454E-02   5.7828E-02   8.2836E-05  0.0479
   5.7828E-02   5.9235E-02   7.9985E-05  0.0482
   5.9235E-02   6.0676E-02   7.8191E-05  0.0481
   6.0676E-02   6.2152E-02   8.7053E-05  0.0451
   6.2152E-02   6.3665E-02   8.2214E-05  0.0459
   6.3665E-02   6.5214E-02   7.6360E-05  0.0471
   6.5214E-02   6.6800E-02   7.2371E-05  0.0478
   6.6800E-02   6.8426E-02   7.3515E-05  0.0467
   6.8426E-02   7.0090E-02   7.8961E-05  0.0446
   7.0090E-02   7.1796E-02   7.2140E-05  0.0461
   7.1796E-02   7.3543E-02   7.3389E-05  0.0451
   7.3543E-02   7.5332E-02   7.0896E-05  0.0454
   7.5332E-02   7.7165E-02   6.8711E-05  0.0456
   7.7165E-02   7.9042E-02   6.5941E-05  0.0460
   7.9042E-02   8.0965E-02   7.1447E-05  0.0436
   8.0965E-02   8.2935E-02   6.6100E-05  0.0448
   8.2935E-02   8.4953E-02   6.7705E-05  0.0437
   8.4953E-02   8.7020E-02   6.5129E-05  0.0440
   8.7020E-02   8.9138E-02   6.3414E-05  0.0441
   8.9138E-02   9.1306E-02   6.7612E-05  0.0422
   9.1306E-02   9.3528E-02   6.2336E-05  0.0435
   9.3528E-02   9.5804E-02   6.0191E-05  0.0437
   9.5804E-02   9.8134E-02   6.3207E-05  0.0421
   9.8134E-02   1.0052E-01   5.9749E-05  0.0428
   1.0052E-01   1.0297E-01   6.7962E-05  0.0397
   1.0297E-01   1.0547E-01   6.4997E-05  0.0401
   1.0547E-01   1.0804E-01   6.7563E-05  0.0388
   1.0804E-01   1.1067E-01   6.6158E-05  0.0388
   1.1067E-01   1.1336E-01   7.8850E-05  0.0351
   1.1336E-01   1.1612E-01   8.0974E-05  0.0342
   1.1612E-01   1.1894E-01   7.9061E-05  0.0342
   1.1894E-01   1.2184E-01   8.9172E-05  0.0318
   1.2184E-01   1.2480E-01   9.0558E-05  0.0312
   1.2480E-01   1.2784E-01   9.6508E-05  0.0299
   1.2784E-01   1.3095E-01   1.0019E-04  0.0290
   1.3095E-01   1.3414E-01   1.0307E-04  0.0282
   1.3414E-01   1.3740E-01   1.0999E-04  0.0270
   1.3740E-01   1.4074E-01   1.1568E-04  0.0260
   1.4074E-01   1.4417E-01   1.1371E-04  0.0259
   1.4417E-01   1.4767E-01   1.2218E-04  0.0247
   1.4767E-01   1.5127E-01   1.2936E-04  0.0237
   1.5127E-01   1.5495E-01   1.2945E-04  0.0234
   1.5495E-01   1.5872E-01   1.3897E-04  0.0223
   1.5872E-01   1.6258E-01   1.4410E-04  0.0217
   1.6258E-01   1.6654E-01   1.5292E-04  0.0208
   1.6654E-01   1.7059E-01   1.5632E-04  0.0203
   1.7059E-01   1.7474E-01   1.6842E-04  0.0194
   1.7474E-01   1.7899E-01   1.7002E-04  0.0190
   1.7899E-01   1.8334E-01   1.7483E-04  0.0185
   1.8334E-01   1.8781E-01   1.8928E-04  0.0176
   1.8781E-01   1.9237E-01   1.9248E-04  0.0172
   1.9237E-01   1.9706E-01   2.0140E-04  0.0167
   1.9706E-01   2.0185E-01   2.1790E-04  0.0158
   2.0185E-01   2.0676E-01   2.2477E-04  0.0154
   2.0676E-01   2.1179E-01   2.3355E-04  0.0149
   2.1179E-01   2.1694E-01   2.4305E-04  0.0145
   2.1694E-01   2.2222E-01   2.5251E-04  0.0140
   2.2222E-01   2.2763E-01   2.6241E-04  0.0136
   2.2763E-01   2.3317E-01   2.7206E-04  0.0132
   2.3317E-01   2.3884E-01   2.8593E-04  0.0127
   2.3884E-01   2.4465E-01   2.9810E-04  0.0123
   2.4465E-01   2.5061E-01   3.1006E-04  0.0119
   2.5061E-01   2.5670E-01   3.1318E-04  0.0117
   2.5670E-01   2.6295E-01   3.1950E-04  0.0115
   2.6295E-01   2.6935E-01   3.4509E-04  0.0109
   2.6935E-01   2.7590E-01   3.5936E-04  0.0105
   2.7590E-01   2.8261E-01   3.6791E-04  0.0103
   2.8261E-01   2.8949E-01   3.8065E-04  0.0100
   2.8949E-01   2.9653E-01   3.8508E-04  0.0098
   2.9653E-01   3.0375E-01   4.0238E-04  0.0095
   3.0375E-01   3.1114E-01   4.1949E-04  0.0092
   3.1114E-01   3.1871E-01   4.2519E-04  0.0090
   3.1871E-01   3.2646E-01   4.3779E-04  0.0088
   3.2646E-01   3.3441E-01   4.5171E-04  0.0085
   3.3441E-01   3.4254E-01   4.7515E-04  0.0082
   3.4254E-01   3.5088E-01   4.7719E-04  0.0081
   3.5088E-01   3.5941E-01   4.9120E-04  0.0079
   3.5941E-01   3.6816E-01   5.0512E-04  0.0077
   3.6816E-01   3.7712E-01   5.0695E-04  0.0076
   3.7712E-01   3.8629E-01   5.2315E-04  0.0074
   3.8629E-01   3.9569E-01   5.3377E-04  0.0072
   3.9569E-01   4.0532E-01   5.4505E-04  0.0071
   4.0532E-01   4.1518E-01   5.6040E-04  0.0069
   4.1518E-01   4.2528E-01   5.6752E-04  0.0068
   4.2528E-01   4.3563E-01   5.7457E-04  0.0066
   4.3563E-01   4.4623E-01   5.7720E-04  0.0065
   4.4623E-01   4.5708E-01   5.8525E-04  0.0064
   4.5708E-01   4.6821E-01   5.8301E-04  0.0064
   4.6821E-01   4.7960E-01   5.9886E-04  0.0062
   4.7960E-01   4.9127E-01   5.9963E-04  0.0061
   4.9127E-01   5.0322E-01   6.0837E-04  0.0060
   5.0322E-01   5.1546E-01   6.0593E-04  0.0059
   5.1546E-01   5.2800E-01   6.1771E-04  0.0058
   5.2800E-01   5.4085E-01   6.2104E-04  0.0057
   5.4085E-01   5.5401E-01   6.2907E-04  0.0056
   5.5401E-01   5.6749E-01   6.2575E-04  0.0056
   5.6749E-01   5.8130E-01   6.2716E-04  0.0055
   5.8130E-01   5.9544E-01   6.2900E-04  0.0054
   5.9544E-01   6.0993E-01   6.3256E-04  0.0053
   6.0993E-01   6.2477E-01   6.3449E-04  0.0053
   6.2477E-01   6.3997E-01   6.3704E-04  0.0052
   6.3997E-01   6.5554E-01   6.4015E-04  0.0051
   6.5554E-01   6.7149E-01   6.3439E-04  0.0051
   6.7149E-01   6.8783E-01   6.3162E-04  0.0050
   6.8783E-01   7.0456E-01   6.3516E-04  0.0050
   7.0456E-01   7.2171E-01   6.2790E-04  0.0049
   7.2171E-01   7.3927E-01   6.2416E-04  0.0049
   7.3927E-01   7.5725E-01   6.2746E-04  0.0048
   7.5725E-01   7.7568E-01   6.1826E-04  0.0048
   7.7568E-01   7.9455E-01   6.1886E-04  0.0047
   7.9455E-01   8.1388E-01   6.1184E-04  0.0047
   8.1388E-01   8.3368E-01   6.1111E-04  0.0046
   8.3368E-01   8.5397E-01   6.0224E-04  0.0046
   8.5397E-01   8.7475E-01   6.0413E-04  0.0046
   8.7475E-01   8.9603E-01   6.0018E-04  0.0045
   8.9603E-01   9.1783E-01   5.8680E-04  0.0045
   9.1783E-01   9.4016E-01   5.8183E-04  0.0045
   9.4016E-01   9.6304E-01   5.8259E-04  0.0044
   9.6304E-01   9.8647E-01   5.6552E-04  0.0044
   9.8647E-01   1.0105E+00   5.5117E-04  0.0044
   1.0105E+00   1.0351E+00   5.4620E-04  0.0044
   1.0351E+00   1.0602E+00   5.3732E-04  0.0044
   1.0602E+00   1.0860E+00   5.3891E-04  0.0043
   1.0860E+00   1.1125E+00   5.3004E-04  0.0043
   1.1125E+00   1.1395E+00   5.2846E-04  0.0043
   1.1395E+00   1.1673E+00   5.2694E-04  0.0042
   1.1673E+00   1.1957E+00   5.3170E-04  0.0041
   1.1957E+00   1.2247E+00   5.3079E-04  0.0041
   1.2247E+00   1.2545E+00   5.2130E-04  0.0041
   1.2545E+00   1.2851E+00   5.1792E-04  0.0040
   1.2851E+00   1.3163E+00   5.1910E-04  0.0040
   1.3163E+00   1.3484E+00   5.1103E-04  0.0040
   1.3484E+00   1.3812E+00   5.0882E-04  0.0039
   1.3812E+00   1.4148E+00   5.0728E-04  0.0039
   1.4148E+00   1.4492E+00   4.9954E-04  0.0039
   1.4492E+00   1.4845E+00   4.9981E-04  0.0038
   1.4845E+00   1.5206E+00   4.8890E-04  0.0038
   1.5206E+00   1.5576E+00   4.8145E-04  0.0038
   1.5576E+00   1.5955E+00   4.7442E-04  0.0038
   1.5955E+00   1.6343E+00   4.6988E-04  0.0037
   1.6343E+00   1.6741E+00   4.5776E-04  0.0037
   1.6741E+00   1.7148E+00   4.4705E-04  0.0037
   1.7148E+00   1.7565E+00   4.3547E-04  0.0037
   1.7565E+00   1.7992E+00   4.1822E-04  0.0038
   1.7992E+00   1.8430E+00   3.8929E-04  0.0038
   1.8430E+00   1.8879E+00   3.6606E-04  0.0039
   1.8879E+00   1.9338E+00   3.5329E-04  0.0039
   1.9338E+00   1.9808E+00   3.4495E-04  0.0039
   1.9808E+00   2.0290E+00   3.3366E-04  0.0039
   2.0290E+00   2.0784E+00   3.2894E-04  0.0039
   2.0784E+00   2.1290E+00   3.2534E-04  0.0039
   2.1290E+00   2.1808E+00   3.2897E-04  0.0038
   2.1808E+00   2.2338E+00   3.2790E-04  0.0037
   2.2338E+00   2.2882E+00   3.1850E-04  0.0038
   2.2882E+00   2.3439E+00   3.0642E-04  0.0038
   2.3439E+00   2.4009E+00   2.9385E-04  0.0038
   2.4009E+00   2.4593E+00   2.9058E-04  0.0038
   2.4593E+00   2.5191E+00   2.8428E-04  0.0038
   2.5191E+00   2.5804E+00   2.7845E-04  0.0038
   2.5804E+00   2.6432E+00   2.7117E-04  0.0038
   2.6432E+00   2.7075E+00   2.6365E-04  0.0038
   2.7075E+00   2.7734E+00   2.5602E-04  0.0038
   2.7734E+00   2.8409E+00   2.5114E-04  0.0038
   2.8409E+00   2.9100E+00   2.4598E-04  0.0038
   2.9100E+00   2.9808E+00   2.3868E-04  0.0038
   2.9808E+00   3.0533E+00   2.3607E-04  0.0038
   3.0533E+00   3.1276E+00   2.2867E-04  0.0038
   3.1276E+00   3.2037E+00   2.2392E-04  0.0038
   3.2037E+00   3.2817E+00   2.2200E-04  0.0038
   3.2817E+00   3.3615E+00   2.1832E-04  0.0038
   3.3615E+00   3.4433E+00   2.1434E-04  0.0038
   3.4433E+00   3.5271E+00   2.1214E-04  0.0037
   3.5271E+00   3.6129E+00   2.0699E-04  0.0038
   3.6129E+00   3.7008E+00   2.0452E-04  0.0037
   3.7008E+00   3.7908E+00   2.0144E-04  0.0037
   3.7908E+00   3.8831E+00   1.9690E-04  0.0037
   3.8831E+00   3.9776E+00   1.9370E-04  0.0037
   3.9776E+00   4.0743E+00   1.8851E-04  0.0037
   4.0743E+00   4.1735E+00   1.8490E-04  0.0037
   4.1735E+00   4.2750E+00   1.8111E-04  0.0037
   4.2750E+00   4.3790E+00   1.7753E-04  0.0037
   4.3790E+00   4.4856E+00   1.7268E-04  0.0037
   4.4856E+00   4.5947E+00   1.7035E-04  0.0037
   4.5947E+00   4.7065E+00   1.6653E-04  0.0037
   4.7065E+00   4.8210E+00   1.6313E-04  0.0037
   4.8210E+00   4.9383E+00   1.6051E-04  0.0037
   4.9383E+00   5.0585E+00   1.5794E-04  0.0036
   5.0585E+00   5.1815E+00   1.5637E-04  0.0036
   5.1815E+00   5.3076E+00   1.5490E-04  0.0036
   5.3076E+00   5.4368E+00   1.5144E-04  0.0036
   5.4368E+00   5.5690E+00   1.4933E-04  0.0036
   5.5690E+00   5.7045E+00   1.4688E-04  0.0036
   5.7045E+00   5.8433E+00   1.4467E-04  0.0035
   5.8433E+00   5.9855E+00   1.4266E-04  0.0035
   5.9855E+00   6.1311E+00   1.4074E-04  0.0035
   6.1311E+00   6.2803E+00   1.3897E-04  0.0035
   6.2803E+00   6.4331E+00   1.3716E-04  0.0035
   6.4331E+00   6.5896E+00   1.3453E-04  0.0035
   6.5896E+00   6.7500E+00   1.3249E-04  0.0035
   6.7500E+00   6.9142E+00   1.3070E-04  0.0034
   6.9142E+00   7.0824E+00   1.2721E-04  0.0034
   7.0824E+00   7.2548E+00   1.2537E-04  0.0034
   7.2548E+00   7.4313E+00   1.2222E-04  0.0034
   7.4313E+00   7.6121E+00   1.2050E-04  0.0034
   7.6121E+00   7.7973E+00   1.1763E-04  0.0034
   7.7973E+00   7.9870E+00   1.1556E-04  0.0034
   7.9870E+00   8.1813E+00   1.1282E-04  0.0034
   8.1813E+00   8.3804E+00   1.1024E-04  0.0034
   8.3804E+00   8.5843E+00   1.0782E-04  0.0034
   8.5843E+00   8.7931E+00   1.0539E-04  0.0034
   8.7931E+00   9.0071E+00   1.0210E-04  0.0034
   9.0071E+00   9.2262E+00   9.9846E-05  0.0034
   9.2262E+00   9.4507E+00   9.5697E-05  0.0035
   9.4507E+00   9.6807E+00   9.2783E-05  0.0035
   9.6807E+00   9.9162E+00   9.1194E-05  0.0035
   9.9162E+00   1.0157E+01   9.2201E-05  0.0034
   1.0157E+01   1.0405E+01   9.0415E-05  0.0034
   1.0405E+01   1.0658E+01   8.7439E-05  0.0034
   1.0658E+01   1.0917E+01   8.3548E-05  0.0035
   1.0917E+01   1.1183E+01   8.0198E-05  0.0035
   1.1183E+01   1.1455E+01   7.8125E-05  0.0035
   1.1455E+01   1.1733E+01   7.5710E-05  0.0035
   1.1733E+01   1.2019E+01   7.3457E-05  0.0035
   1.2019E+01   1.2311E+01   7.0883E-05  0.0036
   1.2311E+01   1.2611E+01   6.8585E-05  0.0036
   1.2611E+01   1.2918E+01   6.6131E-05  0.0036
   1.2918E+01   1.3232E+01   6.4011E-05  0.0036
   1.3232E+01   1.3554E+01   6.1725E-05  0.0036
   1.3554E+01   1.3884E+01   5.9270E-05  0.0037
   1.3884E+01   1.4222E+01   5.7049E-05  0.0037
   1.4222E+01   1.4568E+01   5.5018E-05  0.0037
   1.4568E+01   1.4922E+01   5.2472E-05  0.0038
   1.4922E+01   1.5285E+01   5.0481E-05  0.0038
   1.5285E+01   1.5657E+01   4.8735E-05  0.0038
   1.5657E+01   1.6038E+01   4.6710E-05  0.0038
   1.6038E+01   1.6428E+01   4.4446E-05  0.0039
   1.6428E+01   1.6828E+01   4.2611E-05  0.0039
   1.6828E+01   1.7237E+01   4.0254E-05  0.0040
   1.7237E+01   1.7657E+01   3.8211E-05  0.0041
   1.7657E+01   1.8086E+01   3.6292E-05  0.0041
   1.8086E+01   1.8526E+01   3.4284E-05  0.0042
   1.8526E+01   1.8977E+01   3.3154E-05  0.0042
   1.8977E+01   1.9439E+01   3.1387E-05  0.0043
   1.9439E+01   1.9912E+01   2.9978E-05  0.0043
   1.9912E+01   2.0396E+01   2.8455E-05  0.0044
   2.0396E+01   2.0893E+01   2.6609E-05  0.0045
   2.0893E+01   2.1401E+01   2.4909E-05  0.0046
   2.1401E+01   2.1922E+01   2.3183E-05  0.0047
   2.1922E+01   2.2455E+01   2.1597E-05  0.0048
   2.2455E+01   2.3001E+01   2.0186E-05  0.0049
   2.3001E+01   2.3561E+01   1.8503E-05  0.0050
   2.3561E+01   2.4134E+01   1.7106E-05  0.0052
   2.4134E+01   2.4721E+01   1.5537E-05  0.0054
   2.4721E+01   2.5323E+01   1.4183E-05  0.0056
   2.5323E+01   2.5939E+01   1.2880E-05  0.0058
   2.5939E+01   2.6570E+01   1.1707E-05  0.0060
   2.6570E+01   2.7217E+01   1.0609E-05  0.0062
   2.7217E+01   2.7879E+01   9.5431E-06  0.0065
   2.7879E+01   2.8557E+01   8.4528E-06  0.0068
   2.8557E+01   2.9252E+01   7.5400E-06  0.0071
   2.9252E+01   2.9964E+01   6.7431E-06  0.0074
   2.9964E+01   3.0693E+01   5.8909E-06  0.0078
   3.0693E+01   3.1440E+01   5.1562E-06  0.0083
   3.1440E+01   3.2205E+01   4.4984E-06  0.0087
   3.2205E+01   3.2988E+01   3.9486E-06  0.0092
   3.2988E+01   3.3791E+01   3.4171E-06  0.0098
   3.3791E+01   3.4613E+01   2.9150E-06  0.0105
   3.4613E+01   3.5455E+01   2.4252E-06  0.0114
   3.5455E+01   3.6318E+01   2.0778E-06  0.0121
   3.6318E+01   3.7201E+01   1.7648E-06  0.0130
   3.7201E+01   3.8106E+01   1.4432E-06  0.0142
   3.8106E+01   3.9034E+01   1.2381E-06  0.0151
   3.9034E+01   3.9983E+01   1.0000E-06  0.0166
   3.9983E+01   4.0956E+01   8.2613E-07  0.0181
   4.0956E+01   4.1953E+01   6.8741E-07  0.0196
   4.1953E+01   4.2973E+01   5.6125E-07  0.0214
   4.2973E+01   4.4019E+01   4.7544E-07  0.0230
   4.4019E+01   4.5090E+01   4.1598E-07  0.0243
   4.5090E+01   4.6187E+01   3.3342E-07  0.0268
   4.6187E+01   4.7311E+01   2.8101E-07  0.0289
   4.7311E+01   4.8462E+01   2.6222E-07  0.0295
   4.8462E+01   4.9641E+01   2.3233E-07  0.0310
   4.9641E+01   5.0849E+01   2.3183E-07  0.0307
   5.0849E+01   5.2086E+01   2.1398E-07  0.0315
   5.2086E+01   5.3353E+01   2.2032E-07  0.0307
   5.3353E+01   5.4651E+01   1.5954E-07  0.0356
   5.4651E+01   5.5981E+01   6.4715E-08  0.0553
   5.5981E+01   5.7343E+01   5.9894E-09  0.1796
   5.7343E+01   5.8738E+01   3.9609E-09  0.2182
   5.8738E+01   6.0168E+01   2.7620E-09  0.2582
   6.0168E+01   6.1632E+01   5.3929E-10  0.5774
   6.1632E+01   6.3131E+01   0.0000E+00  0.0000
   6.3131E+01   6.4667E+01   0.0000E+00  0.0000
   6.4667E+01   6.6240E+01   0.0000E+00  0.0000
   6.6240E+01   6.7852E+01   0.0000E+00  0.0000
   6.7852E+01   6.9503E+01   0.0000E+00  0.0000
   6.9503E+01   7.1194E+01   0.0000E+00  0.0000
   7.1194E+01   7.2926E+01   0.0000E+00  0.0000
   7.2926E+01   7.4701E+01   0.0000E+00  0.0000
   7.4701E+01   7.6518E+01   0.0000E+00  0.0000
   7.6518E+01   7.8380E+01   0.0000E+00  0.0000
   7.8380E+01   8.0287E+01   0.0000E+00  0.0000
   8.0287E+01   8.2240E+01   0.0000E+00  0.0000
   8.2240E+01   8.4241E+01   0.0000E+00  0.0000
   8.4241E+01   8.6291E+01   0.0000E+00  0.0000
   8.6291E+01   8.8391E+01   0.0000E+00  0.0000
   8.8391E+01   9.0541E+01   0.0000E+00  0.0000
   9.0541E+01   9.2744E+01   0.0000E+00  0.0000
   9.2744E+01   9.5001E+01   0.0000E+00  0.0000
   9.5001E+01   9.7312E+01   0.0000E+00  0.0000
   9.7312E+01   9.9680E+01   0.0000E+00  0.0000
   9.9680E+01   1.0211E+02   0.0000E+00  0.0000
   1.0211E+02   1.0459E+02   0.0000E+00  0.0000
   1.0459E+02   1.0713E+02   0.0000E+00  0.0000
   1.0713E+02   1.0974E+02   0.0000E+00  0.0000
   1.0974E+02   1.1241E+02   0.0000E+00  0.0000
   1.1241E+02   1.1515E+02   0.0000E+00  0.0000
   1.1515E+02   1.1795E+02   0.0000E+00  0.0000
   1.1795E+02   1.2082E+02   0.0000E+00  0.0000
   1.2082E+02   1.2376E+02   0.0000E+00  0.0000
   1.2376E+02   1.2677E+02   0.0000E+00  0.0000
   1.2677E+02   1.2985E+02   0.0000E+00  0.0000
   1.2985E+02   1.3301E+02   0.0000E+00  0.0000
   1.3301E+02   1.3625E+02   0.0000E+00  0.0000
   1.3625E+02   1.3956E+02   0.0000E+00  0.0000
   1.3956E+02   1.4296E+02   0.0000E+00  0.0000
   1.4296E+02   1.4644E+02   0.0000E+00  0.0000
   1.4644E+02   1.5000E+02   0.0000E+00  0.0000

#   sum over                 1.9608E-05
'no. =    1   reg = 114 - 214'
msuc: {\huge [t-cross] in region mesh}
msdr: {\it plotted by \ANGEL \version}
msdl: {\it calculated by \PHITS  3.26}
wt: s(0.7)
\vspace{-3}
  region surface crossing
  area  &=&   1.0000E+00 [cm^2]
e:
 
# Information for Restart Calculation
# This calculation was newly started
# istdev =  2 # 1:Batch variance, 2:History variance
# resc2  = 3.80000000000000000E+09 # Total source weight or Total source weight / maxcas
# resc3  = 3.80000000000000000E+09 # Total history number or Total batch number
# maxcas =   100000000 # History / Batch, only used for istdev=1
# bitrseed = 1100100011111111101010110001000011010010001011000111110010001001 # bit data of rseed
