[ T-Cross ]
    title = [t-cross] in region mesh
     mesh =  reg            # mesh type is region-wise
      reg =    1            # number of crossing regions
      non     r-from    r-to       area
      1       117       217        1.000000    
   e-type =    3            # e-mesh is log given by emin, emax and ne
     emin =  1.0000000E-02  # minimum value of e-mesh points
     emax =   150.0000      # maximum value of e-mesh points
#    edel =  2.4039514E-02  # mesh width of e-mesh points
       ne =    400          # number of e-mesh points
#    data = ( e(i), i = 1, ne + 1 )
#           1.00000E-02  1.02433E-02  1.04925E-02  1.07478E-02  1.10093E-02
#           1.12772E-02  1.15516E-02  1.18326E-02  1.21205E-02  1.24154E-02
#           1.27175E-02  1.30269E-02  1.33439E-02  1.36686E-02  1.40011E-02
#           1.43418E-02  1.46907E-02  1.50482E-02  1.54143E-02  1.57894E-02
#           1.61735E-02  1.65670E-02  1.69701E-02  1.73830E-02  1.78060E-02
#           1.82392E-02  1.86830E-02  1.91375E-02  1.96032E-02  2.00801E-02
#           2.05687E-02  2.10692E-02  2.15818E-02  2.21069E-02  2.26448E-02
#           2.31957E-02  2.37601E-02  2.43382E-02  2.49304E-02  2.55369E-02
#           2.61583E-02  2.67947E-02  2.74467E-02  2.81145E-02  2.87985E-02
#           2.94992E-02  3.02169E-02  3.09521E-02  3.17052E-02  3.24766E-02
#           3.32668E-02  3.40762E-02  3.49053E-02  3.57546E-02  3.66246E-02
#           3.75157E-02  3.84284E-02  3.93634E-02  4.03212E-02  4.13022E-02
#           4.23071E-02  4.33365E-02  4.43909E-02  4.54710E-02  4.65773E-02
#           4.77106E-02  4.88714E-02  5.00605E-02  5.12785E-02  5.25262E-02
#           5.38042E-02  5.51133E-02  5.64542E-02  5.78278E-02  5.92348E-02
#           6.06760E-02  6.21523E-02  6.36645E-02  6.52135E-02  6.68002E-02
#           6.84255E-02  7.00904E-02  7.17957E-02  7.35426E-02  7.53319E-02
#           7.71648E-02  7.90423E-02  8.09655E-02  8.29354E-02  8.49533E-02
#           8.70203E-02  8.91376E-02  9.13064E-02  9.35279E-02  9.58035E-02
#           9.81345E-02  1.00522E-01  1.02968E-01  1.05473E-01  1.08040E-01
#           1.10668E-01  1.13361E-01  1.16119E-01  1.18944E-01  1.21838E-01
#           1.24803E-01  1.27839E-01  1.30950E-01  1.34136E-01  1.37399E-01
#           1.40742E-01  1.44167E-01  1.47675E-01  1.51268E-01  1.54948E-01
#           1.58718E-01  1.62580E-01  1.66535E-01  1.70587E-01  1.74738E-01
#           1.78989E-01  1.83344E-01  1.87805E-01  1.92375E-01  1.97055E-01
#           2.01850E-01  2.06761E-01  2.11792E-01  2.16945E-01  2.22223E-01
#           2.27630E-01  2.33169E-01  2.38842E-01  2.44653E-01  2.50605E-01
#           2.56703E-01  2.62949E-01  2.69346E-01  2.75900E-01  2.82613E-01
#           2.89489E-01  2.96532E-01  3.03747E-01  3.11138E-01  3.18708E-01
#           3.26462E-01  3.34405E-01  3.42542E-01  3.50876E-01  3.59413E-01
#           3.68158E-01  3.77116E-01  3.86291E-01  3.95690E-01  4.05317E-01
#           4.15179E-01  4.25281E-01  4.35628E-01  4.46227E-01  4.57084E-01
#           4.68205E-01  4.79597E-01  4.91266E-01  5.03219E-01  5.15463E-01
#           5.28005E-01  5.40851E-01  5.54011E-01  5.67490E-01  5.81298E-01
#           5.95441E-01  6.09929E-01  6.24769E-01  6.39970E-01  6.55541E-01
#           6.71491E-01  6.87828E-01  7.04564E-01  7.21706E-01  7.39266E-01
#           7.57253E-01  7.75678E-01  7.94551E-01  8.13883E-01  8.33685E-01
#           8.53969E-01  8.74747E-01  8.96030E-01  9.17831E-01  9.40163E-01
#           9.63038E-01  9.86469E-01  1.01047E+00  1.03506E+00  1.06024E+00
#           1.08604E+00  1.11246E+00  1.13953E+00  1.16725E+00  1.19565E+00
#           1.22474E+00  1.25454E+00  1.28507E+00  1.31633E+00  1.34836E+00
#           1.38117E+00  1.41477E+00  1.44920E+00  1.48446E+00  1.52057E+00
#           1.55757E+00  1.59547E+00  1.63429E+00  1.67405E+00  1.71478E+00
#           1.75650E+00  1.79924E+00  1.84302E+00  1.88786E+00  1.93379E+00
#           1.98084E+00  2.02904E+00  2.07841E+00  2.12898E+00  2.18078E+00
#           2.23384E+00  2.28819E+00  2.34386E+00  2.40089E+00  2.45930E+00
#           2.51914E+00  2.58043E+00  2.64322E+00  2.70753E+00  2.77341E+00
#           2.84088E+00  2.91001E+00  2.98081E+00  3.05333E+00  3.12762E+00
#           3.20372E+00  3.28167E+00  3.36152E+00  3.44330E+00  3.52708E+00
#           3.61290E+00  3.70080E+00  3.79085E+00  3.88308E+00  3.97756E+00
#           4.07434E+00  4.17347E+00  4.27501E+00  4.37903E+00  4.48557E+00
#           4.59471E+00  4.70650E+00  4.82102E+00  4.93832E+00  5.05847E+00
#           5.18155E+00  5.30762E+00  5.43676E+00  5.56904E+00  5.70453E+00
#           5.84333E+00  5.98550E+00  6.13114E+00  6.28031E+00  6.43312E+00
#           6.58964E+00  6.74997E+00  6.91420E+00  7.08243E+00  7.25475E+00
#           7.43126E+00  7.61207E+00  7.79728E+00  7.98700E+00  8.18133E+00
#           8.38038E+00  8.58428E+00  8.79315E+00  9.00709E+00  9.22624E+00
#           9.45072E+00  9.68067E+00  9.91620E+00  1.01575E+01  1.04046E+01
#           1.06578E+01  1.09171E+01  1.11827E+01  1.14548E+01  1.17335E+01
#           1.20190E+01  1.23114E+01  1.26109E+01  1.29178E+01  1.32321E+01
#           1.35540E+01  1.38838E+01  1.42216E+01  1.45676E+01  1.49221E+01
#           1.52851E+01  1.56570E+01  1.60380E+01  1.64282E+01  1.68279E+01
#           1.72374E+01  1.76568E+01  1.80864E+01  1.85264E+01  1.89772E+01
#           1.94389E+01  1.99119E+01  2.03963E+01  2.08926E+01  2.14009E+01
#           2.19216E+01  2.24550E+01  2.30014E+01  2.35610E+01  2.41343E+01
#           2.47215E+01  2.53230E+01  2.59391E+01  2.65702E+01  2.72167E+01
#           2.78789E+01  2.85572E+01  2.92520E+01  2.99637E+01  3.06928E+01
#           3.14396E+01  3.22045E+01  3.29881E+01  3.37907E+01  3.46128E+01
#           3.54550E+01  3.63177E+01  3.72013E+01  3.81064E+01  3.90336E+01
#           3.99833E+01  4.09561E+01  4.19526E+01  4.29734E+01  4.40189E+01
#           4.50900E+01  4.61870E+01  4.73108E+01  4.84619E+01  4.96410E+01
#           5.08488E+01  5.20860E+01  5.33533E+01  5.46514E+01  5.59812E+01
#           5.73432E+01  5.87384E+01  6.01676E+01  6.16315E+01  6.31311E+01
#           6.46671E+01  6.62405E+01  6.78522E+01  6.95031E+01  7.11941E+01
#           7.29263E+01  7.47007E+01  7.65182E+01  7.83800E+01  8.02870E+01
#           8.22405E+01  8.42414E+01  8.62911E+01  8.83906E+01  9.05412E+01
#           9.27442E+01  9.50007E+01  9.73122E+01  9.96799E+01  1.02105E+02
#           1.04589E+02  1.07134E+02  1.09741E+02  1.12411E+02  1.15146E+02
#           1.17948E+02  1.20817E+02  1.23757E+02  1.26768E+02  1.29852E+02
#           1.33012E+02  1.36248E+02  1.39563E+02  1.42959E+02  1.46437E+02
#           1.50000E+02
     unit =    2            # unit is [1/cm^2/(MeV/n)/source]
     axis =  eng            # axis of output
     file = detector-18.out  # file name of output for the above axis
   output = f-curr          # surface crossing forward current spectrum
     part =  neutron  
# kf/name :  2112     
#    used :        main (  %)        temp (  %)       total (  %)
#  memory :         414 (  0)           0 (  0)         414 (  0)

#------------------------------------------------------------------------------
#newpage:
#   no. =    1   reg = 117 - 217

x: Energy [MeV/n]
y:  F-Curr [1/cm^2/(MeV/n)/source]         
p: xlog ylog afac(0.8) form(0.9)
h: n            x            y(neutron ),hh0l   n 
#  e-lower      e-upper      neutron     r.err 
   1.0000E-02   1.0243E-02   3.3126E-04  0.0570
   1.0243E-02   1.0493E-02   3.0142E-04  0.0590
   1.0493E-02   1.0748E-02   3.4318E-04  0.0547
   1.0748E-02   1.1009E-02   3.1414E-04  0.0565
   1.1009E-02   1.1277E-02   3.0748E-04  0.0563
   1.1277E-02   1.1552E-02   3.1332E-04  0.0551
   1.1552E-02   1.1833E-02   2.9233E-04  0.0564
   1.1833E-02   1.2121E-02   2.6609E-04  0.0584
   1.2121E-02   1.2415E-02   2.9145E-04  0.0552
   1.2415E-02   1.2718E-02   2.9445E-04  0.0543
   1.2718E-02   1.3027E-02   2.6440E-04  0.0565
   1.3027E-02   1.3344E-02   2.7028E-04  0.0553
   1.3344E-02   1.3669E-02   2.2197E-04  0.0603
   1.3669E-02   1.4001E-02   2.3255E-04  0.0581
   1.4001E-02   1.4342E-02   2.2263E-04  0.0588
   1.4342E-02   1.4691E-02   2.4280E-04  0.0556
   1.4691E-02   1.5048E-02   2.2586E-04  0.0569
   1.5048E-02   1.5414E-02   2.2187E-04  0.0568
   1.5414E-02   1.5789E-02   2.1781E-04  0.0565
   1.5789E-02   1.6174E-02   2.1451E-04  0.0564
   1.6174E-02   1.6567E-02   2.0552E-04  0.0569
   1.6567E-02   1.6970E-02   2.0748E-04  0.0560
   1.6970E-02   1.7383E-02   1.9439E-04  0.0572
   1.7383E-02   1.7806E-02   2.0644E-04  0.0548
   1.7806E-02   1.8239E-02   1.9582E-04  0.0555
   1.8239E-02   1.8683E-02   1.7715E-04  0.0577
   1.8683E-02   1.9138E-02   1.8690E-04  0.0556
   1.9138E-02   1.9603E-02   1.8452E-04  0.0552
   1.9603E-02   2.0080E-02   1.7192E-04  0.0565
   2.0080E-02   2.0569E-02   1.7677E-04  0.0551
   2.0569E-02   2.1069E-02   1.6390E-04  0.0565
   2.1069E-02   2.1582E-02   1.5309E-04  0.0578
   2.1582E-02   2.2107E-02   1.6649E-04  0.0547
   2.2107E-02   2.2645E-02   1.4953E-04  0.0570
   2.2645E-02   2.3196E-02   1.5677E-04  0.0551
   2.3196E-02   2.3760E-02   1.7198E-04  0.0519
   2.3760E-02   2.4338E-02   1.5408E-04  0.0542
   2.4338E-02   2.4930E-02   1.3355E-04  0.0575
   2.4930E-02   2.5537E-02   1.4165E-04  0.0551
   2.5537E-02   2.6158E-02   1.3578E-04  0.0557
   2.6158E-02   2.6795E-02   1.3258E-04  0.0557
   2.6795E-02   2.7447E-02   1.4288E-04  0.0530
   2.7447E-02   2.8114E-02   1.4269E-04  0.0525
   2.8114E-02   2.8799E-02   1.4216E-04  0.0519
   2.8799E-02   2.9499E-02   1.2159E-04  0.0555
   2.9499E-02   3.0217E-02   1.3441E-04  0.0521
   3.0217E-02   3.0952E-02   1.1754E-04  0.0551
   3.0952E-02   3.1705E-02   1.2121E-04  0.0535
   3.1705E-02   3.2477E-02   1.1210E-04  0.0550
   3.2477E-02   3.3267E-02   1.1289E-04  0.0542
   3.3267E-02   3.4076E-02   1.0543E-04  0.0553
   3.4076E-02   3.4905E-02   1.0544E-04  0.0547
   3.4905E-02   3.5755E-02   1.0223E-04  0.0549
   3.5755E-02   3.6625E-02   9.8270E-05  0.0553
   3.6625E-02   3.7516E-02   1.0361E-04  0.0533
   3.7516E-02   3.8428E-02   1.0221E-04  0.0529
   3.8428E-02   3.9363E-02   9.5210E-05  0.0542
   3.9363E-02   4.0321E-02   1.0061E-04  0.0521
   4.0321E-02   4.1302E-02   8.3432E-05  0.0565
   4.1302E-02   4.2307E-02   9.3340E-05  0.0528
   4.2307E-02   4.3337E-02   8.7640E-05  0.0539
   4.3337E-02   4.4391E-02   8.4376E-05  0.0543
   4.4391E-02   4.5471E-02   8.7209E-05  0.0526
   4.5471E-02   4.6577E-02   7.8324E-05  0.0550
   4.6577E-02   4.7711E-02   8.7396E-05  0.0514
   4.7711E-02   4.8871E-02   7.9017E-05  0.0534
   4.8871E-02   5.0061E-02   8.2352E-05  0.0517
   5.0061E-02   5.1279E-02   8.6250E-05  0.0499
   5.1279E-02   5.2526E-02   8.1326E-05  0.0508
   5.2526E-02   5.3804E-02   7.5662E-05  0.0521
   5.3804E-02   5.5113E-02   6.8718E-05  0.0540
   5.5113E-02   5.6454E-02   7.1023E-05  0.0524
   5.6454E-02   5.7828E-02   7.0005E-05  0.0522
   5.7828E-02   5.9235E-02   6.6847E-05  0.0528
   5.9235E-02   6.0676E-02   6.8122E-05  0.0516
   6.0676E-02   6.2152E-02   6.1365E-05  0.0538
   6.2152E-02   6.3665E-02   6.5361E-05  0.0515
   6.3665E-02   6.5214E-02   6.4919E-05  0.0511
   6.5214E-02   6.6800E-02   6.5003E-05  0.0504
   6.6800E-02   6.8426E-02   5.8667E-05  0.0524
   6.8426E-02   7.0090E-02   6.2745E-05  0.0501
   7.0090E-02   7.1796E-02   6.1964E-05  0.0498
   7.1796E-02   7.3543E-02   6.3987E-05  0.0484
   7.3543E-02   7.5332E-02   5.4224E-05  0.0520
   7.5332E-02   7.7165E-02   6.0192E-05  0.0487
   7.7165E-02   7.9042E-02   5.4342E-05  0.0507
   7.9042E-02   8.0965E-02   5.3462E-05  0.0505
   8.0965E-02   8.2935E-02   5.5130E-05  0.0491
   8.2935E-02   8.4953E-02   5.2695E-05  0.0496
   8.4953E-02   8.7020E-02   5.2047E-05  0.0493
   8.7020E-02   8.9138E-02   5.4732E-05  0.0475
   8.9138E-02   9.1306E-02   5.1079E-05  0.0486
   9.1306E-02   9.3528E-02   4.9432E-05  0.0489
   9.3528E-02   9.5804E-02   5.3638E-05  0.0463
   9.5804E-02   9.8134E-02   4.6820E-05  0.0490
   9.8134E-02   1.0052E-01   4.5669E-05  0.0490
   1.0052E-01   1.0297E-01   5.1628E-05  0.0455
   1.0297E-01   1.0547E-01   5.2372E-05  0.0447
   1.0547E-01   1.0804E-01   5.5256E-05  0.0430
   1.0804E-01   1.1067E-01   5.3458E-05  0.0432
   1.1067E-01   1.1336E-01   5.7311E-05  0.0412
   1.1336E-01   1.1612E-01   6.2662E-05  0.0390
   1.1612E-01   1.1894E-01   6.3923E-05  0.0380
   1.1894E-01   1.2184E-01   6.8143E-05  0.0365
   1.2184E-01   1.2480E-01   6.9047E-05  0.0358
   1.2480E-01   1.2784E-01   7.7989E-05  0.0332
   1.2784E-01   1.3095E-01   7.0964E-05  0.0344
   1.3095E-01   1.3414E-01   7.8450E-05  0.0324
   1.3414E-01   1.3740E-01   8.0865E-05  0.0315
   1.3740E-01   1.4074E-01   8.5502E-05  0.0303
   1.4074E-01   1.4417E-01   8.8124E-05  0.0295
   1.4417E-01   1.4767E-01   9.2760E-05  0.0284
   1.4767E-01   1.5127E-01   9.5595E-05  0.0276
   1.5127E-01   1.5495E-01   1.0206E-04  0.0264
   1.5495E-01   1.5872E-01   1.0497E-04  0.0257
   1.5872E-01   1.6258E-01   1.0509E-04  0.0254
   1.6258E-01   1.6654E-01   1.0916E-04  0.0246
   1.6654E-01   1.7059E-01   1.1880E-04  0.0233
   1.7059E-01   1.7474E-01   1.1681E-04  0.0232
   1.7474E-01   1.7899E-01   1.2283E-04  0.0224
   1.7899E-01   1.8334E-01   1.2944E-04  0.0216
   1.8334E-01   1.8781E-01   1.3528E-04  0.0208
   1.8781E-01   1.9237E-01   1.4081E-04  0.0202
   1.9237E-01   1.9706E-01   1.4358E-04  0.0197
   1.9706E-01   2.0185E-01   1.4949E-04  0.0191
   2.0185E-01   2.0676E-01   1.5713E-04  0.0184
   2.0676E-01   2.1179E-01   1.5902E-04  0.0181
   2.1179E-01   2.1694E-01   1.6392E-04  0.0176
   2.1694E-01   2.2222E-01   1.7059E-04  0.0171
   2.2222E-01   2.2763E-01   1.8542E-04  0.0162
   2.2763E-01   2.3317E-01   1.8507E-04  0.0160
   2.3317E-01   2.3884E-01   1.8583E-04  0.0158
   2.3884E-01   2.4465E-01   1.9253E-04  0.0153
   2.4465E-01   2.5061E-01   2.0418E-04  0.0147
   2.5061E-01   2.5670E-01   2.0297E-04  0.0145
   2.5670E-01   2.6295E-01   2.1559E-04  0.0139
   2.6295E-01   2.6935E-01   2.1831E-04  0.0137
   2.6935E-01   2.7590E-01   2.2584E-04  0.0133
   2.7590E-01   2.8261E-01   2.3503E-04  0.0129
   2.8261E-01   2.8949E-01   2.3696E-04  0.0127
   2.8949E-01   2.9653E-01   2.4271E-04  0.0124
   2.9653E-01   3.0375E-01   2.5145E-04  0.0120
   3.0375E-01   3.1114E-01   2.5675E-04  0.0117
   3.1114E-01   3.1871E-01   2.6237E-04  0.0115
   3.1871E-01   3.2646E-01   2.6670E-04  0.0113
   3.2646E-01   3.3441E-01   2.7965E-04  0.0109
   3.3441E-01   3.4254E-01   2.8154E-04  0.0107
   3.4254E-01   3.5088E-01   2.9227E-04  0.0104
   3.5088E-01   3.5941E-01   2.9526E-04  0.0102
   3.5941E-01   3.6816E-01   2.9894E-04  0.0100
   3.6816E-01   3.7712E-01   3.0661E-04  0.0098
   3.7712E-01   3.8629E-01   3.1681E-04  0.0095
   3.8629E-01   3.9569E-01   3.2760E-04  0.0092
   3.9569E-01   4.0532E-01   3.2771E-04  0.0091
   4.0532E-01   4.1518E-01   3.2759E-04  0.0090
   4.1518E-01   4.2528E-01   3.3571E-04  0.0088
   4.2528E-01   4.3563E-01   3.4216E-04  0.0086
   4.3563E-01   4.4623E-01   3.4566E-04  0.0084
   4.4623E-01   4.5708E-01   3.4645E-04  0.0083
   4.5708E-01   4.6821E-01   3.5140E-04  0.0082
   4.6821E-01   4.7960E-01   3.5307E-04  0.0081
   4.7960E-01   4.9127E-01   3.6156E-04  0.0079
   4.9127E-01   5.0322E-01   3.5633E-04  0.0078
   5.0322E-01   5.1546E-01   3.6454E-04  0.0077
   5.1546E-01   5.2800E-01   3.7228E-04  0.0075
   5.2800E-01   5.4085E-01   3.7637E-04  0.0074
   5.4085E-01   5.5401E-01   3.7838E-04  0.0072
   5.5401E-01   5.6749E-01   3.8044E-04  0.0071
   5.6749E-01   5.8130E-01   3.8925E-04  0.0070
   5.8130E-01   5.9544E-01   3.8679E-04  0.0069
   5.9544E-01   6.0993E-01   3.8631E-04  0.0068
   6.0993E-01   6.2477E-01   3.8870E-04  0.0067
   6.2477E-01   6.3997E-01   3.8797E-04  0.0067
   6.3997E-01   6.5554E-01   3.8949E-04  0.0066
   6.5554E-01   6.7149E-01   3.9048E-04  0.0065
   6.7149E-01   6.8783E-01   3.9296E-04  0.0064
   6.8783E-01   7.0456E-01   3.8903E-04  0.0063
   7.0456E-01   7.2171E-01   3.8924E-04  0.0063
   7.2171E-01   7.3927E-01   3.8448E-04  0.0062
   7.3927E-01   7.5725E-01   3.8391E-04  0.0061
   7.5725E-01   7.7568E-01   3.8380E-04  0.0061
   7.7568E-01   7.9455E-01   3.7704E-04  0.0060
   7.9455E-01   8.1388E-01   3.7770E-04  0.0060
   8.1388E-01   8.3368E-01   3.7373E-04  0.0059
   8.3368E-01   8.5397E-01   3.7051E-04  0.0059
   8.5397E-01   8.7475E-01   3.6445E-04  0.0059
   8.7475E-01   8.9603E-01   3.6374E-04  0.0058
   8.9603E-01   9.1783E-01   3.5390E-04  0.0058
   9.1783E-01   9.4016E-01   3.5032E-04  0.0058
   9.4016E-01   9.6304E-01   3.4394E-04  0.0057
   9.6304E-01   9.8647E-01   3.3398E-04  0.0058
   9.8647E-01   1.0105E+00   3.2977E-04  0.0057
   1.0105E+00   1.0351E+00   3.1989E-04  0.0057
   1.0351E+00   1.0602E+00   3.1446E-04  0.0057
   1.0602E+00   1.0860E+00   3.1667E-04  0.0056
   1.0860E+00   1.1125E+00   3.1384E-04  0.0056
   1.1125E+00   1.1395E+00   3.1444E-04  0.0055
   1.1395E+00   1.1673E+00   3.1239E-04  0.0055
   1.1673E+00   1.1957E+00   3.1302E-04  0.0054
   1.1957E+00   1.2247E+00   3.0870E-04  0.0053
   1.2247E+00   1.2545E+00   3.0800E-04  0.0053
   1.2545E+00   1.2851E+00   3.0322E-04  0.0053
   1.2851E+00   1.3163E+00   3.0074E-04  0.0052
   1.3163E+00   1.3484E+00   2.9631E-04  0.0052
   1.3484E+00   1.3812E+00   2.9576E-04  0.0051
   1.3812E+00   1.4148E+00   2.9458E-04  0.0051
   1.4148E+00   1.4492E+00   2.8946E-04  0.0050
   1.4492E+00   1.4845E+00   2.8260E-04  0.0050
   1.4845E+00   1.5206E+00   2.7896E-04  0.0050
   1.5206E+00   1.5576E+00   2.7749E-04  0.0050
   1.5576E+00   1.5955E+00   2.6975E-04  0.0050
   1.5955E+00   1.6343E+00   2.6399E-04  0.0049
   1.6343E+00   1.6741E+00   2.5652E-04  0.0049
   1.6741E+00   1.7148E+00   2.4744E-04  0.0050
   1.7148E+00   1.7565E+00   2.4264E-04  0.0050
   1.7565E+00   1.7992E+00   2.2927E-04  0.0050
   1.7992E+00   1.8430E+00   2.1360E-04  0.0051
   1.8430E+00   1.8879E+00   2.0108E-04  0.0052
   1.8879E+00   1.9338E+00   1.9281E-04  0.0052
   1.9338E+00   1.9808E+00   1.8585E-04  0.0053
   1.9808E+00   2.0290E+00   1.8035E-04  0.0053
   2.0290E+00   2.0784E+00   1.7693E-04  0.0053
   2.0784E+00   2.1290E+00   1.7670E-04  0.0052
   2.1290E+00   2.1808E+00   1.7629E-04  0.0051
   2.1808E+00   2.2338E+00   1.7714E-04  0.0050
   2.2338E+00   2.2882E+00   1.7218E-04  0.0051
   2.2882E+00   2.3439E+00   1.6452E-04  0.0051
   2.3439E+00   2.4009E+00   1.5940E-04  0.0052
   2.4009E+00   2.4593E+00   1.5589E-04  0.0052
   2.4593E+00   2.5191E+00   1.5269E-04  0.0051
   2.5191E+00   2.5804E+00   1.4692E-04  0.0052
   2.5804E+00   2.6432E+00   1.4782E-04  0.0051
   2.6432E+00   2.7075E+00   1.4138E-04  0.0052
   2.7075E+00   2.7734E+00   1.3825E-04  0.0052
   2.7734E+00   2.8409E+00   1.3567E-04  0.0052
   2.8409E+00   2.9100E+00   1.3241E-04  0.0052
   2.9100E+00   2.9808E+00   1.2795E-04  0.0052
   2.9808E+00   3.0533E+00   1.2607E-04  0.0052
   3.0533E+00   3.1276E+00   1.2335E-04  0.0052
   3.1276E+00   3.2037E+00   1.2111E-04  0.0052
   3.2037E+00   3.2817E+00   1.1979E-04  0.0051
   3.2817E+00   3.3615E+00   1.1935E-04  0.0051
   3.3615E+00   3.4433E+00   1.1806E-04  0.0050
   3.4433E+00   3.5271E+00   1.1703E-04  0.0050
   3.5271E+00   3.6129E+00   1.1551E-04  0.0050
   3.6129E+00   3.7008E+00   1.1304E-04  0.0050
   3.7008E+00   3.7908E+00   1.1219E-04  0.0050
   3.7908E+00   3.8831E+00   1.1051E-04  0.0049
   3.8831E+00   3.9776E+00   1.0916E-04  0.0049
   3.9776E+00   4.0743E+00   1.0705E-04  0.0049
   4.0743E+00   4.1735E+00   1.0581E-04  0.0049
   4.1735E+00   4.2750E+00   1.0358E-04  0.0049
   4.2750E+00   4.3790E+00   1.0112E-04  0.0049
   4.3790E+00   4.4856E+00   9.9791E-05  0.0048
   4.4856E+00   4.5947E+00   9.7790E-05  0.0048
   4.5947E+00   4.7065E+00   9.5278E-05  0.0048
   4.7065E+00   4.8210E+00   9.3720E-05  0.0048
   4.8210E+00   4.9383E+00   9.3495E-05  0.0048
   4.9383E+00   5.0585E+00   9.1965E-05  0.0048
   5.0585E+00   5.1815E+00   9.1210E-05  0.0047
   5.1815E+00   5.3076E+00   8.9734E-05  0.0047
   5.3076E+00   5.4368E+00   8.8569E-05  0.0047
   5.4368E+00   5.5690E+00   8.7355E-05  0.0047
   5.5690E+00   5.7045E+00   8.5624E-05  0.0046
   5.7045E+00   5.8433E+00   8.3395E-05  0.0047
   5.8433E+00   5.9855E+00   8.3250E-05  0.0046
   5.9855E+00   6.1311E+00   8.1730E-05  0.0046
   6.1311E+00   6.2803E+00   8.0510E-05  0.0046
   6.2803E+00   6.4331E+00   7.8381E-05  0.0046
   6.4331E+00   6.5896E+00   7.7431E-05  0.0046
   6.5896E+00   6.7500E+00   7.5848E-05  0.0046
   6.7500E+00   6.9142E+00   7.4596E-05  0.0046
   6.9142E+00   7.0824E+00   7.2910E-05  0.0046
   7.0824E+00   7.2548E+00   7.1192E-05  0.0046
   7.2548E+00   7.4313E+00   6.9312E-05  0.0046
   7.4313E+00   7.6121E+00   6.7981E-05  0.0046
   7.6121E+00   7.7973E+00   6.6827E-05  0.0045
   7.7973E+00   7.9870E+00   6.4417E-05  0.0046
   7.9870E+00   8.1813E+00   6.4070E-05  0.0045
   8.1813E+00   8.3804E+00   6.2356E-05  0.0046
   8.3804E+00   8.5843E+00   6.0761E-05  0.0046
   8.5843E+00   8.7931E+00   5.9133E-05  0.0046
   8.7931E+00   9.0071E+00   5.7360E-05  0.0046
   9.0071E+00   9.2262E+00   5.5577E-05  0.0046
   9.2262E+00   9.4507E+00   5.4219E-05  0.0046
   9.4507E+00   9.6807E+00   5.1890E-05  0.0047
   9.6807E+00   9.9162E+00   5.0717E-05  0.0047
   9.9162E+00   1.0157E+01   5.1415E-05  0.0046
   1.0157E+01   1.0405E+01   4.9968E-05  0.0046
   1.0405E+01   1.0658E+01   4.7825E-05  0.0047
   1.0658E+01   1.0917E+01   4.6076E-05  0.0047
   1.0917E+01   1.1183E+01   4.3598E-05  0.0048
   1.1183E+01   1.1455E+01   4.2166E-05  0.0048
   1.1455E+01   1.1733E+01   4.0636E-05  0.0048
   1.1733E+01   1.2019E+01   3.9064E-05  0.0048
   1.2019E+01   1.2311E+01   3.7878E-05  0.0049
   1.2311E+01   1.2611E+01   3.6797E-05  0.0049
   1.2611E+01   1.2918E+01   3.5247E-05  0.0049
   1.2918E+01   1.3232E+01   3.3801E-05  0.0050
   1.3232E+01   1.3554E+01   3.2623E-05  0.0050
   1.3554E+01   1.3884E+01   3.0886E-05  0.0051
   1.3884E+01   1.4222E+01   2.9572E-05  0.0051
   1.4222E+01   1.4568E+01   2.8270E-05  0.0052
   1.4568E+01   1.4922E+01   2.6978E-05  0.0052
   1.4922E+01   1.5285E+01   2.5886E-05  0.0053
   1.5285E+01   1.5657E+01   2.4697E-05  0.0054
   1.5657E+01   1.6038E+01   2.3273E-05  0.0054
   1.6038E+01   1.6428E+01   2.1973E-05  0.0055
   1.6428E+01   1.6828E+01   2.0564E-05  0.0057
   1.6828E+01   1.7237E+01   1.9474E-05  0.0057
   1.7237E+01   1.7657E+01   1.8432E-05  0.0058
   1.7657E+01   1.8086E+01   1.7100E-05  0.0060
   1.8086E+01   1.8526E+01   1.6120E-05  0.0061
   1.8526E+01   1.8977E+01   1.4629E-05  0.0063
   1.8977E+01   1.9439E+01   1.3684E-05  0.0065
   1.9439E+01   1.9912E+01   1.2727E-05  0.0066
   1.9912E+01   2.0396E+01   1.1628E-05  0.0068
   2.0396E+01   2.0893E+01   1.0605E-05  0.0071
   2.0893E+01   2.1401E+01   9.5850E-06  0.0073
   2.1401E+01   2.1922E+01   8.6897E-06  0.0076
   2.1922E+01   2.2455E+01   7.6963E-06  0.0080
   2.2455E+01   2.3001E+01   6.8719E-06  0.0084
   2.3001E+01   2.3561E+01   6.0546E-06  0.0088
   2.3561E+01   2.4134E+01   5.4756E-06  0.0092
   2.4134E+01   2.4721E+01   4.6796E-06  0.0098
   2.4721E+01   2.5323E+01   4.1257E-06  0.0103
   2.5323E+01   2.5939E+01   3.5805E-06  0.0109
   2.5939E+01   2.6570E+01   3.0960E-06  0.0116
   2.6570E+01   2.7217E+01   2.6439E-06  0.0124
   2.7217E+01   2.7879E+01   2.3164E-06  0.0131
   2.7879E+01   2.8557E+01   1.9219E-06  0.0142
   2.8557E+01   2.9252E+01   1.6244E-06  0.0153
   2.9252E+01   2.9964E+01   1.3607E-06  0.0165
   2.9964E+01   3.0693E+01   1.1385E-06  0.0178
   3.0693E+01   3.1440E+01   9.2361E-07  0.0195
   3.1440E+01   3.2205E+01   7.4515E-07  0.0215
   3.2205E+01   3.2988E+01   6.0184E-07  0.0236
   3.2988E+01   3.3791E+01   4.7541E-07  0.0263
   3.3791E+01   3.4613E+01   3.7066E-07  0.0294
   3.4613E+01   3.5455E+01   2.8279E-07  0.0332
   3.5455E+01   3.6318E+01   2.2239E-07  0.0370
   3.6318E+01   3.7201E+01   1.7541E-07  0.0412
   3.7201E+01   3.8106E+01   1.3374E-07  0.0466
   3.8106E+01   3.9034E+01   9.6787E-08  0.0542
   3.9034E+01   3.9983E+01   8.5067E-08  0.0571
   3.9983E+01   4.0956E+01   7.3849E-08  0.0605
   4.0956E+01   4.1953E+01   5.6250E-08  0.0685
   4.1953E+01   4.2973E+01   4.1508E-08  0.0788
   4.2973E+01   4.4019E+01   3.2468E-08  0.0880
   4.4019E+01   4.5090E+01   2.5799E-08  0.0976
   4.5090E+01   4.6187E+01   2.3747E-08  0.1005
   4.6187E+01   4.7311E+01   1.1943E-08  0.1400
   4.7311E+01   4.8462E+01   2.5147E-09  0.3015
   4.8462E+01   4.9641E+01   1.3391E-09  0.4082
   4.9641E+01   5.0849E+01   6.5364E-10  0.5774
   5.0849E+01   5.2086E+01   4.2541E-10  0.7071
   5.2086E+01   5.3353E+01   0.0000E+00  0.0000
   5.3353E+01   5.4651E+01   0.0000E+00  0.0000
   5.4651E+01   5.5981E+01   0.0000E+00  0.0000
   5.5981E+01   5.7343E+01   0.0000E+00  0.0000
   5.7343E+01   5.8738E+01   0.0000E+00  0.0000
   5.8738E+01   6.0168E+01   0.0000E+00  0.0000
   6.0168E+01   6.1632E+01   0.0000E+00  0.0000
   6.1632E+01   6.3131E+01   0.0000E+00  0.0000
   6.3131E+01   6.4667E+01   0.0000E+00  0.0000
   6.4667E+01   6.6240E+01   0.0000E+00  0.0000
   6.6240E+01   6.7852E+01   0.0000E+00  0.0000
   6.7852E+01   6.9503E+01   0.0000E+00  0.0000
   6.9503E+01   7.1194E+01   0.0000E+00  0.0000
   7.1194E+01   7.2926E+01   0.0000E+00  0.0000
   7.2926E+01   7.4701E+01   0.0000E+00  0.0000
   7.4701E+01   7.6518E+01   0.0000E+00  0.0000
   7.6518E+01   7.8380E+01   0.0000E+00  0.0000
   7.8380E+01   8.0287E+01   0.0000E+00  0.0000
   8.0287E+01   8.2240E+01   0.0000E+00  0.0000
   8.2240E+01   8.4241E+01   0.0000E+00  0.0000
   8.4241E+01   8.6291E+01   0.0000E+00  0.0000
   8.6291E+01   8.8391E+01   0.0000E+00  0.0000
   8.8391E+01   9.0541E+01   0.0000E+00  0.0000
   9.0541E+01   9.2744E+01   0.0000E+00  0.0000
   9.2744E+01   9.5001E+01   0.0000E+00  0.0000
   9.5001E+01   9.7312E+01   0.0000E+00  0.0000
   9.7312E+01   9.9680E+01   0.0000E+00  0.0000
   9.9680E+01   1.0211E+02   0.0000E+00  0.0000
   1.0211E+02   1.0459E+02   0.0000E+00  0.0000
   1.0459E+02   1.0713E+02   0.0000E+00  0.0000
   1.0713E+02   1.0974E+02   0.0000E+00  0.0000
   1.0974E+02   1.1241E+02   0.0000E+00  0.0000
   1.1241E+02   1.1515E+02   0.0000E+00  0.0000
   1.1515E+02   1.1795E+02   0.0000E+00  0.0000
   1.1795E+02   1.2082E+02   0.0000E+00  0.0000
   1.2082E+02   1.2376E+02   0.0000E+00  0.0000
   1.2376E+02   1.2677E+02   0.0000E+00  0.0000
   1.2677E+02   1.2985E+02   0.0000E+00  0.0000
   1.2985E+02   1.3301E+02   0.0000E+00  0.0000
   1.3301E+02   1.3625E+02   0.0000E+00  0.0000
   1.3625E+02   1.3956E+02   0.0000E+00  0.0000
   1.3956E+02   1.4296E+02   0.0000E+00  0.0000
   1.4296E+02   1.4644E+02   0.0000E+00  0.0000
   1.4644E+02   1.5000E+02   0.0000E+00  0.0000

#   sum over                 1.0693E-05
'no. =    1   reg = 117 - 217'
msuc: {\huge [t-cross] in region mesh}
msdr: {\it plotted by \ANGEL \version}
msdl: {\it calculated by \PHITS  3.26}
wt: s(0.7)
\vspace{-3}
  region surface crossing
  area  &=&   1.0000E+00 [cm^2]
e:
 
# Information for Restart Calculation
# This calculation was newly started
# istdev =  2 # 1:Batch variance, 2:History variance
# resc2  = 3.80000000000000000E+09 # Total source weight or Total source weight / maxcas
# resc3  = 3.80000000000000000E+09 # Total history number or Total batch number
# maxcas =   100000000 # History / Batch, only used for istdev=1
# bitrseed = 1100100011111111101010110001000011010010001011000111110010001001 # bit data of rseed
