[ T-Cross ]
    title = [t-cross] in region mesh
     mesh =  reg            # mesh type is region-wise
      reg =    1            # number of crossing regions
      non     r-from    r-to       area
      1       100       200        1.000000    
   e-type =    3            # e-mesh is log given by emin, emax and ne
     emin =  1.0000000E-02  # minimum value of e-mesh points
     emax =   150.0000      # maximum value of e-mesh points
#    edel =  2.4039514E-02  # mesh width of e-mesh points
       ne =    400          # number of e-mesh points
#    data = ( e(i), i = 1, ne + 1 )
#           1.00000E-02  1.02433E-02  1.04925E-02  1.07478E-02  1.10093E-02
#           1.12772E-02  1.15516E-02  1.18326E-02  1.21205E-02  1.24154E-02
#           1.27175E-02  1.30269E-02  1.33439E-02  1.36686E-02  1.40011E-02
#           1.43418E-02  1.46907E-02  1.50482E-02  1.54143E-02  1.57894E-02
#           1.61735E-02  1.65670E-02  1.69701E-02  1.73830E-02  1.78060E-02
#           1.82392E-02  1.86830E-02  1.91375E-02  1.96032E-02  2.00801E-02
#           2.05687E-02  2.10692E-02  2.15818E-02  2.21069E-02  2.26448E-02
#           2.31957E-02  2.37601E-02  2.43382E-02  2.49304E-02  2.55369E-02
#           2.61583E-02  2.67947E-02  2.74467E-02  2.81145E-02  2.87985E-02
#           2.94992E-02  3.02169E-02  3.09521E-02  3.17052E-02  3.24766E-02
#           3.32668E-02  3.40762E-02  3.49053E-02  3.57546E-02  3.66246E-02
#           3.75157E-02  3.84284E-02  3.93634E-02  4.03212E-02  4.13022E-02
#           4.23071E-02  4.33365E-02  4.43909E-02  4.54710E-02  4.65773E-02
#           4.77106E-02  4.88714E-02  5.00605E-02  5.12785E-02  5.25262E-02
#           5.38042E-02  5.51133E-02  5.64542E-02  5.78278E-02  5.92348E-02
#           6.06760E-02  6.21523E-02  6.36645E-02  6.52135E-02  6.68002E-02
#           6.84255E-02  7.00904E-02  7.17957E-02  7.35426E-02  7.53319E-02
#           7.71648E-02  7.90423E-02  8.09655E-02  8.29354E-02  8.49533E-02
#           8.70203E-02  8.91376E-02  9.13064E-02  9.35279E-02  9.58035E-02
#           9.81345E-02  1.00522E-01  1.02968E-01  1.05473E-01  1.08040E-01
#           1.10668E-01  1.13361E-01  1.16119E-01  1.18944E-01  1.21838E-01
#           1.24803E-01  1.27839E-01  1.30950E-01  1.34136E-01  1.37399E-01
#           1.40742E-01  1.44167E-01  1.47675E-01  1.51268E-01  1.54948E-01
#           1.58718E-01  1.62580E-01  1.66535E-01  1.70587E-01  1.74738E-01
#           1.78989E-01  1.83344E-01  1.87805E-01  1.92375E-01  1.97055E-01
#           2.01850E-01  2.06761E-01  2.11792E-01  2.16945E-01  2.22223E-01
#           2.27630E-01  2.33169E-01  2.38842E-01  2.44653E-01  2.50605E-01
#           2.56703E-01  2.62949E-01  2.69346E-01  2.75900E-01  2.82613E-01
#           2.89489E-01  2.96532E-01  3.03747E-01  3.11138E-01  3.18708E-01
#           3.26462E-01  3.34405E-01  3.42542E-01  3.50876E-01  3.59413E-01
#           3.68158E-01  3.77116E-01  3.86291E-01  3.95690E-01  4.05317E-01
#           4.15179E-01  4.25281E-01  4.35628E-01  4.46227E-01  4.57084E-01
#           4.68205E-01  4.79597E-01  4.91266E-01  5.03219E-01  5.15463E-01
#           5.28005E-01  5.40851E-01  5.54011E-01  5.67490E-01  5.81298E-01
#           5.95441E-01  6.09929E-01  6.24769E-01  6.39970E-01  6.55541E-01
#           6.71491E-01  6.87828E-01  7.04564E-01  7.21706E-01  7.39266E-01
#           7.57253E-01  7.75678E-01  7.94551E-01  8.13883E-01  8.33685E-01
#           8.53969E-01  8.74747E-01  8.96030E-01  9.17831E-01  9.40163E-01
#           9.63038E-01  9.86469E-01  1.01047E+00  1.03506E+00  1.06024E+00
#           1.08604E+00  1.11246E+00  1.13953E+00  1.16725E+00  1.19565E+00
#           1.22474E+00  1.25454E+00  1.28507E+00  1.31633E+00  1.34836E+00
#           1.38117E+00  1.41477E+00  1.44920E+00  1.48446E+00  1.52057E+00
#           1.55757E+00  1.59547E+00  1.63429E+00  1.67405E+00  1.71478E+00
#           1.75650E+00  1.79924E+00  1.84302E+00  1.88786E+00  1.93379E+00
#           1.98084E+00  2.02904E+00  2.07841E+00  2.12898E+00  2.18078E+00
#           2.23384E+00  2.28819E+00  2.34386E+00  2.40089E+00  2.45930E+00
#           2.51914E+00  2.58043E+00  2.64322E+00  2.70753E+00  2.77341E+00
#           2.84088E+00  2.91001E+00  2.98081E+00  3.05333E+00  3.12762E+00
#           3.20372E+00  3.28167E+00  3.36152E+00  3.44330E+00  3.52708E+00
#           3.61290E+00  3.70080E+00  3.79085E+00  3.88308E+00  3.97756E+00
#           4.07434E+00  4.17347E+00  4.27501E+00  4.37903E+00  4.48557E+00
#           4.59471E+00  4.70650E+00  4.82102E+00  4.93832E+00  5.05847E+00
#           5.18155E+00  5.30762E+00  5.43676E+00  5.56904E+00  5.70453E+00
#           5.84333E+00  5.98550E+00  6.13114E+00  6.28031E+00  6.43312E+00
#           6.58964E+00  6.74997E+00  6.91420E+00  7.08243E+00  7.25475E+00
#           7.43126E+00  7.61207E+00  7.79728E+00  7.98700E+00  8.18133E+00
#           8.38038E+00  8.58428E+00  8.79315E+00  9.00709E+00  9.22624E+00
#           9.45072E+00  9.68067E+00  9.91620E+00  1.01575E+01  1.04046E+01
#           1.06578E+01  1.09171E+01  1.11827E+01  1.14548E+01  1.17335E+01
#           1.20190E+01  1.23114E+01  1.26109E+01  1.29178E+01  1.32321E+01
#           1.35540E+01  1.38838E+01  1.42216E+01  1.45676E+01  1.49221E+01
#           1.52851E+01  1.56570E+01  1.60380E+01  1.64282E+01  1.68279E+01
#           1.72374E+01  1.76568E+01  1.80864E+01  1.85264E+01  1.89772E+01
#           1.94389E+01  1.99119E+01  2.03963E+01  2.08926E+01  2.14009E+01
#           2.19216E+01  2.24550E+01  2.30014E+01  2.35610E+01  2.41343E+01
#           2.47215E+01  2.53230E+01  2.59391E+01  2.65702E+01  2.72167E+01
#           2.78789E+01  2.85572E+01  2.92520E+01  2.99637E+01  3.06928E+01
#           3.14396E+01  3.22045E+01  3.29881E+01  3.37907E+01  3.46128E+01
#           3.54550E+01  3.63177E+01  3.72013E+01  3.81064E+01  3.90336E+01
#           3.99833E+01  4.09561E+01  4.19526E+01  4.29734E+01  4.40189E+01
#           4.50900E+01  4.61870E+01  4.73108E+01  4.84619E+01  4.96410E+01
#           5.08488E+01  5.20860E+01  5.33533E+01  5.46514E+01  5.59812E+01
#           5.73432E+01  5.87384E+01  6.01676E+01  6.16315E+01  6.31311E+01
#           6.46671E+01  6.62405E+01  6.78522E+01  6.95031E+01  7.11941E+01
#           7.29263E+01  7.47007E+01  7.65182E+01  7.83800E+01  8.02870E+01
#           8.22405E+01  8.42414E+01  8.62911E+01  8.83906E+01  9.05412E+01
#           9.27442E+01  9.50007E+01  9.73122E+01  9.96799E+01  1.02105E+02
#           1.04589E+02  1.07134E+02  1.09741E+02  1.12411E+02  1.15146E+02
#           1.17948E+02  1.20817E+02  1.23757E+02  1.26768E+02  1.29852E+02
#           1.33012E+02  1.36248E+02  1.39563E+02  1.42959E+02  1.46437E+02
#           1.50000E+02
     unit =    2            # unit is [1/cm^2/(MeV/n)/source]
     axis =  eng            # axis of output
     file = detector-01.out  # file name of output for the above axis
   output = f-curr          # surface crossing forward current spectrum
     part =  neutron  
# kf/name :  2112     
#    used :        main (  %)        temp (  %)       total (  %)
#  memory :         414 (  0)           0 (  0)         414 (  0)

#------------------------------------------------------------------------------
#newpage:
#   no. =    1   reg = 100 - 200

x: Energy [MeV/n]
y:  F-Curr [1/cm^2/(MeV/n)/source]         
p: xlog ylog afac(0.8) form(0.9)
h: n            x            y(neutron ),hh0l   n 
#  e-lower      e-upper      neutron     r.err 
   1.0000E-02   1.0243E-02   2.4785E-05  0.2085
   1.0243E-02   1.0493E-02   1.4778E-05  0.2673
   1.0493E-02   1.0748E-02   1.1333E-05  0.3015
   1.0748E-02   1.1009E-02   1.1058E-05  0.3015
   1.1009E-02   1.1277E-02   1.5623E-05  0.2501
   1.1277E-02   1.1552E-02   1.2460E-05  0.2774
   1.1552E-02   1.1833E-02   1.8724E-05  0.2236
   1.1833E-02   1.2121E-02   1.3698E-05  0.2582
   1.2121E-02   1.2415E-02   1.6945E-05  0.2294
   1.2415E-02   1.2718E-02   1.5672E-05  0.2357
   1.2718E-02   1.3027E-02   8.4148E-06  0.3164
   1.3027E-02   1.3344E-02   9.1296E-06  0.3015
   1.3344E-02   1.3669E-02   1.0534E-05  0.2774
   1.3669E-02   1.4001E-02   9.6965E-06  0.2833
   1.4001E-02   1.4342E-02   7.7208E-06  0.3162
   1.4342E-02   1.4691E-02   1.1304E-05  0.2582
   1.4691E-02   1.5048E-02   1.0297E-05  0.2673
   1.5048E-02   1.5414E-02   6.4621E-06  0.3333
   1.5414E-02   1.5789E-02   1.0321E-05  0.2589
   1.5789E-02   1.6174E-02   7.5308E-06  0.3015
   1.6174E-02   1.6567E-02   1.2034E-05  0.2357
   1.6567E-02   1.6970E-02   9.1354E-06  0.2673
   1.6970E-02   1.7383E-02   1.1464E-05  0.2357
   1.7383E-02   1.7806E-02   6.3578E-06  0.3101
   1.7806E-02   1.8239E-02   7.2873E-06  0.2887
   1.8239E-02   1.8683E-02   9.4830E-06  0.2500
   1.8683E-02   1.9138E-02   1.0992E-05  0.2294
   1.9138E-02   1.9603E-02   5.6474E-06  0.3162
   1.9603E-02   2.0080E-02   7.7210E-06  0.2673
   2.0080E-02   2.0569E-02   8.6129E-06  0.2500
   2.0569E-02   2.1069E-02   7.3567E-06  0.2673
   2.1069E-02   2.1582E-02   5.1325E-06  0.3162
   2.1582E-02   2.2107E-02   5.5090E-06  0.3015
   2.2107E-02   2.2645E-02   3.4247E-06  0.3780
   2.2645E-02   2.3196E-02   4.7724E-06  0.3162
   2.3196E-02   2.3760E-02   6.9474E-06  0.2583
   2.3760E-02   2.4338E-02   8.1910E-06  0.2357
   2.4338E-02   2.4930E-02   5.7730E-06  0.2774
   2.4930E-02   2.5537E-02   5.6044E-06  0.2774
   2.5537E-02   2.6158E-02   8.0412E-06  0.2294
   2.6158E-02   2.6795E-02   3.3059E-06  0.3536
   2.6795E-02   2.7447E-02   7.2645E-06  0.2357
   2.7447E-02   2.8114E-02   3.8664E-06  0.3167
   2.8114E-02   2.8799E-02   5.3849E-06  0.2673
   2.8799E-02   2.9499E-02   5.6294E-06  0.2582
   2.9499E-02   3.0217E-02   8.4306E-06  0.2085
   3.0217E-02   3.0952E-02   3.2195E-06  0.3333
   3.0952E-02   3.1705E-02   5.2399E-06  0.2582
   3.1705E-02   3.2477E-02   5.4550E-06  0.2500
   3.2477E-02   3.3267E-02   4.9948E-06  0.2582
   3.3267E-02   3.4076E-02   5.1986E-06  0.2500
   3.4076E-02   3.4905E-02   3.1730E-06  0.3162
   3.4905E-02   3.5755E-02   4.6439E-06  0.2582
   3.5755E-02   3.6625E-02   3.0224E-06  0.3162
   3.6625E-02   3.7516E-02   4.1301E-06  0.2673
   3.7516E-02   3.8428E-02   3.1706E-06  0.3015
   3.8428E-02   3.9363E-02   6.4701E-06  0.2085
   3.9363E-02   4.0321E-02   2.4161E-06  0.3341
   4.0321E-02   4.1302E-02   3.2171E-06  0.2887
   4.1302E-02   4.2307E-02   3.6560E-06  0.2673
   4.2307E-02   4.3337E-02   3.0659E-06  0.2887
   4.3337E-02   4.4391E-02   2.7433E-06  0.3015
   4.4391E-02   4.5471E-02   3.4083E-06  0.2673
   4.5471E-02   4.6577E-02   4.2780E-06  0.2357
   4.6577E-02   4.7711E-02   3.4356E-06  0.2585
   4.7711E-02   4.8871E-02   2.2645E-06  0.3162
   4.8871E-02   5.0061E-02   3.8892E-06  0.2362
   5.0061E-02   5.1279E-02   3.2392E-06  0.2582
   5.1279E-02   5.2526E-02   2.7264E-06  0.2774
   5.2526E-02   5.3804E-02   2.0402E-06  0.3163
   5.3804E-02   5.5113E-02   4.4034E-06  0.2132
   5.5113E-02   5.6454E-02   1.9603E-06  0.3162
   5.6454E-02   5.7828E-02   3.1043E-06  0.2471
   5.7828E-02   5.9235E-02   2.9917E-06  0.2500
   5.9235E-02   6.0676E-02   1.8247E-06  0.3162
   6.0676E-02   6.2152E-02   2.6717E-06  0.2582
   6.2152E-02   6.3665E-02   1.2174E-06  0.3780
   6.3665E-02   6.5214E-02   2.3602E-06  0.2673
   6.5214E-02   6.6800E-02   3.1342E-06  0.2295
   6.6800E-02   6.8426E-02   2.9116E-06  0.2357
   6.8426E-02   7.0090E-02   2.0532E-06  0.2774
   7.0090E-02   7.1796E-02   3.5453E-06  0.2085
   7.1796E-02   7.3543E-02   3.4611E-06  0.2085
   7.3543E-02   7.5332E-02   1.4585E-06  0.3163
   7.5332E-02   7.7165E-02   2.1522E-06  0.2582
   7.7165E-02   7.9042E-02   2.2406E-06  0.2500
   7.9042E-02   8.0965E-02   2.2700E-06  0.2437
   8.0965E-02   8.2935E-02   1.0682E-06  0.3536
   8.2935E-02   8.4953E-02   2.7367E-06  0.2182
   8.4953E-02   8.7020E-02   2.4173E-06  0.2294
   8.7020E-02   8.9138E-02   2.4846E-06  0.2236
   8.9138E-02   9.1306E-02   1.6954E-06  0.2673
   9.1306E-02   9.3528E-02   1.7756E-06  0.2582
   9.3528E-02   9.5804E-02   1.2696E-06  0.3015
   9.5804E-02   9.8134E-02   1.2398E-06  0.3015
   9.8134E-02   1.0052E-01   1.5416E-06  0.2673
   1.0052E-01   1.0297E-01   1.7206E-06  0.2500
   1.0297E-01   1.0547E-01   2.3971E-06  0.2086
   1.0547E-01   1.0804E-01   1.7421E-06  0.2425
   1.0804E-01   1.1067E-01   2.0998E-06  0.2182
   1.1067E-01   1.1336E-01   2.2449E-06  0.2085
   1.1336E-01   1.1612E-01   2.3837E-06  0.2000
   1.1612E-01   1.1894E-01   2.5134E-06  0.1925
   1.1894E-01   1.2184E-01   2.4508E-06  0.1925
   1.2184E-01   1.2480E-01   2.0403E-06  0.2085
   1.2480E-01   1.2784E-01   3.0224E-06  0.1691
   1.2784E-01   1.3095E-01   2.7890E-06  0.1741
   1.3095E-01   1.3414E-01   2.6227E-06  0.1769
   1.3414E-01   1.3740E-01   2.4968E-06  0.1796
   1.3740E-01   1.4074E-01   3.0905E-06  0.1584
   1.4074E-01   1.4417E-01   2.8282E-06  0.1645
   1.4417E-01   1.4767E-01   2.3976E-06  0.1768
   1.4767E-01   1.5127E-01   2.1044E-06  0.1858
   1.5127E-01   1.5495E-01   2.7871E-06  0.1601
   1.5495E-01   1.5872E-01   3.5657E-06  0.1395
   1.5872E-01   1.6258E-01   3.4467E-06  0.1402
   1.6258E-01   1.6654E-01   3.3219E-06  0.1414
   1.6654E-01   1.7059E-01   4.6044E-06  0.1185
   1.7059E-01   1.7474E-01   3.2835E-06  0.1387
   1.7474E-01   1.7899E-01   3.1517E-06  0.1400
   1.7899E-01   1.8334E-01   4.1655E-06  0.1204
   1.8334E-01   1.8781E-01   3.4563E-06  0.1302
   1.8781E-01   1.9237E-01   4.4865E-06  0.1132
   1.9237E-01   1.9706E-01   3.9535E-06  0.1188
   1.9706E-01   2.0185E-01   4.6062E-06  0.1091
   2.0185E-01   2.0676E-01   4.4351E-06  0.1098
   2.0676E-01   2.1179E-01   4.7868E-06  0.1043
   2.1179E-01   2.1694E-01   5.0484E-06  0.1003
   2.1694E-01   2.2222E-01   4.7808E-06  0.1021
   2.2222E-01   2.2763E-01   6.2000E-06  0.0884
   2.2763E-01   2.3317E-01   5.0293E-06  0.0971
   2.3317E-01   2.3884E-01   5.3115E-06  0.0933
   2.3884E-01   2.4465E-01   5.8445E-06  0.0878
   2.4465E-01   2.5061E-01   5.1843E-06  0.0921
   2.5061E-01   2.5670E-01   6.2481E-06  0.0830
   2.5670E-01   2.6295E-01   5.8768E-06  0.0845
   2.6295E-01   2.6935E-01   6.6877E-06  0.0783
   2.6935E-01   2.7590E-01   7.2800E-06  0.0741
   2.7590E-01   2.8261E-01   7.8462E-06  0.0706
   2.8261E-01   2.8949E-01   6.4145E-06  0.0772
   2.8949E-01   2.9653E-01   7.4059E-06  0.0709
   2.9653E-01   3.0375E-01   6.9174E-06  0.0724
   3.0375E-01   3.1114E-01   7.2100E-06  0.0701
   3.1114E-01   3.1871E-01   8.1107E-06  0.0653
   3.1871E-01   3.2646E-01   8.1129E-06  0.0645
   3.2646E-01   3.3441E-01   8.3115E-06  0.0630
   3.3441E-01   3.4254E-01   8.5696E-06  0.0613
   3.4254E-01   3.5088E-01   8.7875E-06  0.0598
   3.5088E-01   3.5941E-01   8.8529E-06  0.0589
   3.5941E-01   3.6816E-01   9.2643E-06  0.0568
   3.6816E-01   3.7712E-01   8.8615E-06  0.0575
   3.7712E-01   3.8629E-01   9.4097E-06  0.0551
   3.8629E-01   3.9569E-01   9.8489E-06  0.0532
   3.9569E-01   4.0532E-01   9.6844E-06  0.0530
   4.0532E-01   4.1518E-01   1.0649E-05  0.0499
   4.1518E-01   4.2528E-01   1.0990E-05  0.0486
   4.2528E-01   4.3563E-01   1.1306E-05  0.0473
   4.3563E-01   4.4623E-01   1.0926E-05  0.0475
   4.4623E-01   4.5708E-01   1.2196E-05  0.0445
   4.5708E-01   4.6821E-01   1.1725E-05  0.0448
   4.6821E-01   4.7960E-01   1.1780E-05  0.0442
   4.7960E-01   4.9127E-01   1.2222E-05  0.0428
   4.9127E-01   5.0322E-01   1.2292E-05  0.0422
   5.0322E-01   5.1546E-01   1.2962E-05  0.0406
   5.1546E-01   5.2800E-01   1.2438E-05  0.0410
   5.2800E-01   5.4085E-01   1.3382E-05  0.0390
   5.4085E-01   5.5401E-01   1.3994E-05  0.0377
   5.5401E-01   5.6749E-01   1.4241E-05  0.0369
   5.6749E-01   5.8130E-01   1.4420E-05  0.0362
   5.8130E-01   5.9544E-01   1.4233E-05  0.0360
   5.9544E-01   6.0993E-01   1.5002E-05  0.0347
   6.0993E-01   6.2477E-01   1.6318E-05  0.0329
   6.2477E-01   6.3997E-01   1.6126E-05  0.0326
   6.3997E-01   6.5554E-01   1.7008E-05  0.0314
   6.5554E-01   6.7149E-01   1.6201E-05  0.0318
   6.7149E-01   6.8783E-01   1.6333E-05  0.0313
   6.8783E-01   7.0456E-01   1.8153E-05  0.0293
   7.0456E-01   7.2171E-01   1.8244E-05  0.0289
   7.2171E-01   7.3927E-01   1.7346E-05  0.0293
   7.3927E-01   7.5725E-01   1.8630E-05  0.0279
   7.5725E-01   7.7568E-01   1.7544E-05  0.0284
   7.7568E-01   7.9455E-01   1.9045E-05  0.0270
   7.9455E-01   8.1388E-01   1.8853E-05  0.0268
   8.1388E-01   8.3368E-01   1.8979E-05  0.0264
   8.3368E-01   8.5397E-01   2.0631E-05  0.0250
   8.5397E-01   8.7475E-01   2.0003E-05  0.0251
   8.7475E-01   8.9603E-01   1.9744E-05  0.0249
   8.9603E-01   9.1783E-01   2.0886E-05  0.0239
   9.1783E-01   9.4016E-01   2.0060E-05  0.0241
   9.4016E-01   9.6304E-01   2.0962E-05  0.0233
   9.6304E-01   9.8647E-01   2.0279E-05  0.0234
   9.8647E-01   1.0105E+00   2.0117E-05  0.0232
   1.0105E+00   1.0351E+00   2.0493E-05  0.0227
   1.0351E+00   1.0602E+00   2.0066E-05  0.0227
   1.0602E+00   1.0860E+00   1.9494E-05  0.0228
   1.0860E+00   1.1125E+00   2.0642E-05  0.0218
   1.1125E+00   1.1395E+00   2.0837E-05  0.0215
   1.1395E+00   1.1673E+00   2.1451E-05  0.0209
   1.1673E+00   1.1957E+00   2.0655E-05  0.0210
   1.1957E+00   1.2247E+00   2.1379E-05  0.0204
   1.2247E+00   1.2545E+00   2.1996E-05  0.0199
   1.2545E+00   1.2851E+00   2.1952E-05  0.0197
   1.2851E+00   1.3163E+00   2.2504E-05  0.0192
   1.3163E+00   1.3484E+00   2.2781E-05  0.0188
   1.3484E+00   1.3812E+00   2.2367E-05  0.0188
   1.3812E+00   1.4148E+00   2.2429E-05  0.0185
   1.4148E+00   1.4492E+00   2.2690E-05  0.0182
   1.4492E+00   1.4845E+00   2.3125E-05  0.0178
   1.4845E+00   1.5206E+00   2.2569E-05  0.0178
   1.5206E+00   1.5576E+00   2.2724E-05  0.0175
   1.5576E+00   1.5955E+00   2.2143E-05  0.0175
   1.5955E+00   1.6343E+00   2.2707E-05  0.0171
   1.6343E+00   1.6741E+00   2.2998E-05  0.0168
   1.6741E+00   1.7148E+00   2.3249E-05  0.0165
   1.7148E+00   1.7565E+00   2.2591E-05  0.0165
   1.7565E+00   1.7992E+00   2.1323E-05  0.0168
   1.7992E+00   1.8430E+00   1.9777E-05  0.0172
   1.8430E+00   1.8879E+00   1.8643E-05  0.0174
   1.8879E+00   1.9338E+00   1.8381E-05  0.0173
   1.9338E+00   1.9808E+00   1.8323E-05  0.0171
   1.9808E+00   2.0290E+00   1.8073E-05  0.0170
   2.0290E+00   2.0784E+00   1.8610E-05  0.0165
   2.0784E+00   2.1290E+00   1.8557E-05  0.0163
   2.1290E+00   2.1808E+00   1.9160E-05  0.0158
   2.1808E+00   2.2338E+00   1.9177E-05  0.0156
   2.2338E+00   2.2882E+00   1.9303E-05  0.0154
   2.2882E+00   2.3439E+00   1.8404E-05  0.0156
   2.3439E+00   2.4009E+00   1.8670E-05  0.0154
   2.4009E+00   2.4593E+00   1.8646E-05  0.0152
   2.4593E+00   2.5191E+00   1.8305E-05  0.0152
   2.5191E+00   2.5804E+00   1.8024E-05  0.0151
   2.5804E+00   2.6432E+00   1.8459E-05  0.0147
   2.6432E+00   2.7075E+00   1.7667E-05  0.0149
   2.7075E+00   2.7734E+00   1.8181E-05  0.0145
   2.7734E+00   2.8409E+00   1.8037E-05  0.0144
   2.8409E+00   2.9100E+00   1.7625E-05  0.0144
   2.9100E+00   2.9808E+00   1.7445E-05  0.0143
   2.9808E+00   3.0533E+00   1.7601E-05  0.0141
   3.0533E+00   3.1276E+00   1.7170E-05  0.0141
   3.1276E+00   3.2037E+00   1.7230E-05  0.0139
   3.2037E+00   3.2817E+00   1.6682E-05  0.0140
   3.2817E+00   3.3615E+00   1.6826E-05  0.0137
   3.3615E+00   3.4433E+00   1.7134E-05  0.0135
   3.4433E+00   3.5271E+00   1.7172E-05  0.0133
   3.5271E+00   3.6129E+00   1.6857E-05  0.0133
   3.6129E+00   3.7008E+00   1.6748E-05  0.0132
   3.7008E+00   3.7908E+00   1.6417E-05  0.0132
   3.7908E+00   3.8831E+00   1.6599E-05  0.0129
   3.8831E+00   3.9776E+00   1.6266E-05  0.0129
   3.9776E+00   4.0743E+00   1.6236E-05  0.0128
   4.0743E+00   4.1735E+00   1.5857E-05  0.0128
   4.1735E+00   4.2750E+00   1.6008E-05  0.0125
   4.2750E+00   4.3790E+00   1.5207E-05  0.0127
   4.3790E+00   4.4856E+00   1.5140E-05  0.0126
   4.4856E+00   4.5947E+00   1.4909E-05  0.0125
   4.5947E+00   4.7065E+00   1.5137E-05  0.0123
   4.7065E+00   4.8210E+00   1.4562E-05  0.0124
   4.8210E+00   4.9383E+00   1.4455E-05  0.0123
   4.9383E+00   5.0585E+00   1.4287E-05  0.0122
   5.0585E+00   5.1815E+00   1.4374E-05  0.0120
   5.1815E+00   5.3076E+00   1.4195E-05  0.0119
   5.3076E+00   5.4368E+00   1.4048E-05  0.0119
   5.4368E+00   5.5690E+00   1.3925E-05  0.0118
   5.5690E+00   5.7045E+00   1.3657E-05  0.0118
   5.7045E+00   5.8433E+00   1.3626E-05  0.0116
   5.8433E+00   5.9855E+00   1.3799E-05  0.0114
   5.9855E+00   6.1311E+00   1.3166E-05  0.0116
   6.1311E+00   6.2803E+00   1.3350E-05  0.0114
   6.2803E+00   6.4331E+00   1.3498E-05  0.0112
   6.4331E+00   6.5896E+00   1.2950E-05  0.0113
   6.5896E+00   6.7500E+00   1.3135E-05  0.0110
   6.7500E+00   6.9142E+00   1.3378E-05  0.0108
   6.9142E+00   7.0824E+00   1.3019E-05  0.0108
   7.0824E+00   7.2548E+00   1.2696E-05  0.0108
   7.2548E+00   7.4313E+00   1.2872E-05  0.0106
   7.4313E+00   7.6121E+00   1.2766E-05  0.0106
   7.6121E+00   7.7973E+00   1.2898E-05  0.0104
   7.7973E+00   7.9870E+00   1.2572E-05  0.0104
   7.9870E+00   8.1813E+00   1.2491E-05  0.0103
   8.1813E+00   8.3804E+00   1.2130E-05  0.0103
   8.3804E+00   8.5843E+00   1.2039E-05  0.0102
   8.5843E+00   8.7931E+00   1.1998E-05  0.0101
   8.7931E+00   9.0071E+00   1.1902E-05  0.0101
   9.0071E+00   9.2262E+00   1.1890E-05  0.0100
   9.2262E+00   9.4507E+00   1.1660E-05  0.0099
   9.4507E+00   9.6807E+00   1.1160E-05  0.0101
   9.6807E+00   9.9162E+00   1.1267E-05  0.0099
   9.9162E+00   1.0157E+01   1.1799E-05  0.0096
   1.0157E+01   1.0405E+01   1.1577E-05  0.0096
   1.0405E+01   1.0658E+01   1.1358E-05  0.0095
   1.0658E+01   1.0917E+01   1.1365E-05  0.0094
   1.0917E+01   1.1183E+01   1.0861E-05  0.0095
   1.1183E+01   1.1455E+01   1.0776E-05  0.0095
   1.1455E+01   1.1733E+01   1.0598E-05  0.0094
   1.1733E+01   1.2019E+01   1.0649E-05  0.0093
   1.2019E+01   1.2311E+01   1.0545E-05  0.0092
   1.2311E+01   1.2611E+01   1.0360E-05  0.0092
   1.2611E+01   1.2918E+01   1.0143E-05  0.0092
   1.2918E+01   1.3232E+01   1.0117E-05  0.0091
   1.3232E+01   1.3554E+01   9.8561E-06  0.0091
   1.3554E+01   1.3884E+01   9.6664E-06  0.0091
   1.3884E+01   1.4222E+01   9.4918E-06  0.0091
   1.4222E+01   1.4568E+01   9.3616E-06  0.0090
   1.4568E+01   1.4922E+01   9.3890E-06  0.0089
   1.4922E+01   1.5285E+01   9.1322E-06  0.0089
   1.5285E+01   1.5657E+01   9.0104E-06  0.0089
   1.5657E+01   1.6038E+01   8.8889E-06  0.0088
   1.6038E+01   1.6428E+01   8.6983E-06  0.0088
   1.6428E+01   1.6828E+01   8.6380E-06  0.0087
   1.6828E+01   1.7237E+01   8.4226E-06  0.0087
   1.7237E+01   1.7657E+01   8.2443E-06  0.0087
   1.7657E+01   1.8086E+01   7.9954E-06  0.0088
   1.8086E+01   1.8526E+01   7.8992E-06  0.0087
   1.8526E+01   1.8977E+01   7.7944E-06  0.0087
   1.8977E+01   1.9439E+01   7.4548E-06  0.0087
   1.9439E+01   1.9912E+01   7.4574E-06  0.0086
   1.9912E+01   2.0396E+01   7.2787E-06  0.0086
   2.0396E+01   2.0893E+01   7.2299E-06  0.0086
   2.0893E+01   2.1401E+01   7.0017E-06  0.0086
   2.1401E+01   2.1922E+01   6.7652E-06  0.0086
   2.1922E+01   2.2455E+01   6.6943E-06  0.0086
   2.2455E+01   2.3001E+01   6.5752E-06  0.0086
   2.3001E+01   2.3561E+01   6.3513E-06  0.0086
   2.3561E+01   2.4134E+01   6.1963E-06  0.0086
   2.4134E+01   2.4721E+01   5.9407E-06  0.0087
   2.4721E+01   2.5323E+01   5.8499E-06  0.0086
   2.5323E+01   2.5939E+01   5.6678E-06  0.0087
   2.5939E+01   2.6570E+01   5.5553E-06  0.0087
   2.6570E+01   2.7217E+01   5.3981E-06  0.0087
   2.7217E+01   2.7879E+01   5.2286E-06  0.0087
   2.7879E+01   2.8557E+01   7.7382E-06  0.0071
   2.8557E+01   2.9252E+01   9.6220E-06  0.0063
   2.9252E+01   2.9964E+01   9.5036E-06  0.0062
   2.9964E+01   3.0693E+01   9.4396E-06  0.0062
   3.0693E+01   3.1440E+01   9.4730E-06  0.0061
   3.1440E+01   3.2205E+01   9.4980E-06  0.0060
   3.2205E+01   3.2988E+01   9.5146E-06  0.0059
   3.2988E+01   3.3791E+01   9.4338E-06  0.0059
   3.3791E+01   3.4613E+01   9.4153E-06  0.0058
   3.4613E+01   3.5455E+01   9.3229E-06  0.0058
   3.5455E+01   3.6318E+01   9.3790E-06  0.0057
   3.6318E+01   3.7201E+01   9.2935E-06  0.0057
   3.7201E+01   3.8106E+01   9.3153E-06  0.0056
   3.8106E+01   3.9034E+01   9.3440E-06  0.0055
   3.9034E+01   3.9983E+01   9.2690E-06  0.0055
   3.9983E+01   4.0956E+01   9.1843E-06  0.0054
   4.0956E+01   4.1953E+01   9.0121E-06  0.0054
   4.1953E+01   4.2973E+01   8.9911E-06  0.0054
   4.2973E+01   4.4019E+01   9.0054E-06  0.0053
   4.4019E+01   4.5090E+01   8.8978E-06  0.0053
   4.5090E+01   4.6187E+01   8.8755E-06  0.0052
   4.6187E+01   4.7311E+01   8.7546E-06  0.0052
   4.7311E+01   4.8462E+01   7.7612E-06  0.0054
   4.8462E+01   4.9641E+01   4.8939E-06  0.0068
   4.9641E+01   5.0849E+01   4.7134E-06  0.0068
   5.0849E+01   5.2086E+01   4.6748E-06  0.0067
   5.2086E+01   5.3353E+01   4.5098E-06  0.0068
   5.3353E+01   5.4651E+01   4.4889E-06  0.0067
   5.4651E+01   5.5981E+01   4.3211E-06  0.0068
   5.5981E+01   5.7343E+01   4.2240E-06  0.0068
   5.7343E+01   5.8738E+01   4.1026E-06  0.0068
   5.8738E+01   6.0168E+01   4.0079E-06  0.0068
   6.0168E+01   6.1632E+01   3.8848E-06  0.0068
   6.1632E+01   6.3131E+01   3.7448E-06  0.0068
   6.3131E+01   6.4667E+01   3.5700E-06  0.0069
   6.4667E+01   6.6240E+01   3.4821E-06  0.0069
   6.6240E+01   6.7852E+01   3.3138E-06  0.0070
   6.7852E+01   6.9503E+01   3.1334E-06  0.0071
   6.9503E+01   7.1194E+01   2.9547E-06  0.0073
   7.1194E+01   7.2926E+01   2.7923E-06  0.0074
   7.2926E+01   7.4701E+01   4.0726E-07  0.0191
   7.4701E+01   7.6518E+01   2.8958E-10  0.7071
   7.6518E+01   7.8380E+01   0.0000E+00  0.0000
   7.8380E+01   8.0287E+01   0.0000E+00  0.0000
   8.0287E+01   8.2240E+01   0.0000E+00  0.0000
   8.2240E+01   8.4241E+01   0.0000E+00  0.0000
   8.4241E+01   8.6291E+01   0.0000E+00  0.0000
   8.6291E+01   8.8391E+01   0.0000E+00  0.0000
   8.8391E+01   9.0541E+01   0.0000E+00  0.0000
   9.0541E+01   9.2744E+01   0.0000E+00  0.0000
   9.2744E+01   9.5001E+01   0.0000E+00  0.0000
   9.5001E+01   9.7312E+01   0.0000E+00  0.0000
   9.7312E+01   9.9680E+01   0.0000E+00  0.0000
   9.9680E+01   1.0211E+02   0.0000E+00  0.0000
   1.0211E+02   1.0459E+02   0.0000E+00  0.0000
   1.0459E+02   1.0713E+02   0.0000E+00  0.0000
   1.0713E+02   1.0974E+02   0.0000E+00  0.0000
   1.0974E+02   1.1241E+02   0.0000E+00  0.0000
   1.1241E+02   1.1515E+02   0.0000E+00  0.0000
   1.1515E+02   1.1795E+02   0.0000E+00  0.0000
   1.1795E+02   1.2082E+02   0.0000E+00  0.0000
   1.2082E+02   1.2376E+02   0.0000E+00  0.0000
   1.2376E+02   1.2677E+02   0.0000E+00  0.0000
   1.2677E+02   1.2985E+02   0.0000E+00  0.0000
   1.2985E+02   1.3301E+02   0.0000E+00  0.0000
   1.3301E+02   1.3625E+02   0.0000E+00  0.0000
   1.3625E+02   1.3956E+02   0.0000E+00  0.0000
   1.3956E+02   1.4296E+02   0.0000E+00  0.0000
   1.4296E+02   1.4644E+02   0.0000E+00  0.0000
   1.4644E+02   1.5000E+02   0.0000E+00  0.0000

#   sum over                 3.8090E-06
'no. =    1   reg = 100 - 200'
msuc: {\huge [t-cross] in region mesh}
msdr: {\it plotted by \ANGEL \version}
msdl: {\it calculated by \PHITS  3.26}
wt: s(0.7)
\vspace{-3}
  region surface crossing
  area  &=&   1.0000E+00 [cm^2]
e:
 
# Information for Restart Calculation
# This calculation was newly started
# istdev =  2 # 1:Batch variance, 2:History variance
# resc2  = 3.80000000000000000E+09 # Total source weight or Total source weight / maxcas
# resc3  = 3.80000000000000000E+09 # Total history number or Total batch number
# maxcas =   100000000 # History / Batch, only used for istdev=1
# bitrseed = 1100100011111111101010110001000011010010001011000111110010001001 # bit data of rseed
