[ T-Cross ]
    title = [t-cross] in region mesh
     mesh =  reg            # mesh type is region-wise
      reg =    1            # number of crossing regions
      non     r-from    r-to       area
      1       108       208        1.000000    
   e-type =    3            # e-mesh is log given by emin, emax and ne
     emin =  1.0000000E-02  # minimum value of e-mesh points
     emax =   150.0000      # maximum value of e-mesh points
#    edel =  2.4039514E-02  # mesh width of e-mesh points
       ne =    400          # number of e-mesh points
#    data = ( e(i), i = 1, ne + 1 )
#           1.00000E-02  1.02433E-02  1.04925E-02  1.07478E-02  1.10093E-02
#           1.12772E-02  1.15516E-02  1.18326E-02  1.21205E-02  1.24154E-02
#           1.27175E-02  1.30269E-02  1.33439E-02  1.36686E-02  1.40011E-02
#           1.43418E-02  1.46907E-02  1.50482E-02  1.54143E-02  1.57894E-02
#           1.61735E-02  1.65670E-02  1.69701E-02  1.73830E-02  1.78060E-02
#           1.82392E-02  1.86830E-02  1.91375E-02  1.96032E-02  2.00801E-02
#           2.05687E-02  2.10692E-02  2.15818E-02  2.21069E-02  2.26448E-02
#           2.31957E-02  2.37601E-02  2.43382E-02  2.49304E-02  2.55369E-02
#           2.61583E-02  2.67947E-02  2.74467E-02  2.81145E-02  2.87985E-02
#           2.94992E-02  3.02169E-02  3.09521E-02  3.17052E-02  3.24766E-02
#           3.32668E-02  3.40762E-02  3.49053E-02  3.57546E-02  3.66246E-02
#           3.75157E-02  3.84284E-02  3.93634E-02  4.03212E-02  4.13022E-02
#           4.23071E-02  4.33365E-02  4.43909E-02  4.54710E-02  4.65773E-02
#           4.77106E-02  4.88714E-02  5.00605E-02  5.12785E-02  5.25262E-02
#           5.38042E-02  5.51133E-02  5.64542E-02  5.78278E-02  5.92348E-02
#           6.06760E-02  6.21523E-02  6.36645E-02  6.52135E-02  6.68002E-02
#           6.84255E-02  7.00904E-02  7.17957E-02  7.35426E-02  7.53319E-02
#           7.71648E-02  7.90423E-02  8.09655E-02  8.29354E-02  8.49533E-02
#           8.70203E-02  8.91376E-02  9.13064E-02  9.35279E-02  9.58035E-02
#           9.81345E-02  1.00522E-01  1.02968E-01  1.05473E-01  1.08040E-01
#           1.10668E-01  1.13361E-01  1.16119E-01  1.18944E-01  1.21838E-01
#           1.24803E-01  1.27839E-01  1.30950E-01  1.34136E-01  1.37399E-01
#           1.40742E-01  1.44167E-01  1.47675E-01  1.51268E-01  1.54948E-01
#           1.58718E-01  1.62580E-01  1.66535E-01  1.70587E-01  1.74738E-01
#           1.78989E-01  1.83344E-01  1.87805E-01  1.92375E-01  1.97055E-01
#           2.01850E-01  2.06761E-01  2.11792E-01  2.16945E-01  2.22223E-01
#           2.27630E-01  2.33169E-01  2.38842E-01  2.44653E-01  2.50605E-01
#           2.56703E-01  2.62949E-01  2.69346E-01  2.75900E-01  2.82613E-01
#           2.89489E-01  2.96532E-01  3.03747E-01  3.11138E-01  3.18708E-01
#           3.26462E-01  3.34405E-01  3.42542E-01  3.50876E-01  3.59413E-01
#           3.68158E-01  3.77116E-01  3.86291E-01  3.95690E-01  4.05317E-01
#           4.15179E-01  4.25281E-01  4.35628E-01  4.46227E-01  4.57084E-01
#           4.68205E-01  4.79597E-01  4.91266E-01  5.03219E-01  5.15463E-01
#           5.28005E-01  5.40851E-01  5.54011E-01  5.67490E-01  5.81298E-01
#           5.95441E-01  6.09929E-01  6.24769E-01  6.39970E-01  6.55541E-01
#           6.71491E-01  6.87828E-01  7.04564E-01  7.21706E-01  7.39266E-01
#           7.57253E-01  7.75678E-01  7.94551E-01  8.13883E-01  8.33685E-01
#           8.53969E-01  8.74747E-01  8.96030E-01  9.17831E-01  9.40163E-01
#           9.63038E-01  9.86469E-01  1.01047E+00  1.03506E+00  1.06024E+00
#           1.08604E+00  1.11246E+00  1.13953E+00  1.16725E+00  1.19565E+00
#           1.22474E+00  1.25454E+00  1.28507E+00  1.31633E+00  1.34836E+00
#           1.38117E+00  1.41477E+00  1.44920E+00  1.48446E+00  1.52057E+00
#           1.55757E+00  1.59547E+00  1.63429E+00  1.67405E+00  1.71478E+00
#           1.75650E+00  1.79924E+00  1.84302E+00  1.88786E+00  1.93379E+00
#           1.98084E+00  2.02904E+00  2.07841E+00  2.12898E+00  2.18078E+00
#           2.23384E+00  2.28819E+00  2.34386E+00  2.40089E+00  2.45930E+00
#           2.51914E+00  2.58043E+00  2.64322E+00  2.70753E+00  2.77341E+00
#           2.84088E+00  2.91001E+00  2.98081E+00  3.05333E+00  3.12762E+00
#           3.20372E+00  3.28167E+00  3.36152E+00  3.44330E+00  3.52708E+00
#           3.61290E+00  3.70080E+00  3.79085E+00  3.88308E+00  3.97756E+00
#           4.07434E+00  4.17347E+00  4.27501E+00  4.37903E+00  4.48557E+00
#           4.59471E+00  4.70650E+00  4.82102E+00  4.93832E+00  5.05847E+00
#           5.18155E+00  5.30762E+00  5.43676E+00  5.56904E+00  5.70453E+00
#           5.84333E+00  5.98550E+00  6.13114E+00  6.28031E+00  6.43312E+00
#           6.58964E+00  6.74997E+00  6.91420E+00  7.08243E+00  7.25475E+00
#           7.43126E+00  7.61207E+00  7.79728E+00  7.98700E+00  8.18133E+00
#           8.38038E+00  8.58428E+00  8.79315E+00  9.00709E+00  9.22624E+00
#           9.45072E+00  9.68067E+00  9.91620E+00  1.01575E+01  1.04046E+01
#           1.06578E+01  1.09171E+01  1.11827E+01  1.14548E+01  1.17335E+01
#           1.20190E+01  1.23114E+01  1.26109E+01  1.29178E+01  1.32321E+01
#           1.35540E+01  1.38838E+01  1.42216E+01  1.45676E+01  1.49221E+01
#           1.52851E+01  1.56570E+01  1.60380E+01  1.64282E+01  1.68279E+01
#           1.72374E+01  1.76568E+01  1.80864E+01  1.85264E+01  1.89772E+01
#           1.94389E+01  1.99119E+01  2.03963E+01  2.08926E+01  2.14009E+01
#           2.19216E+01  2.24550E+01  2.30014E+01  2.35610E+01  2.41343E+01
#           2.47215E+01  2.53230E+01  2.59391E+01  2.65702E+01  2.72167E+01
#           2.78789E+01  2.85572E+01  2.92520E+01  2.99637E+01  3.06928E+01
#           3.14396E+01  3.22045E+01  3.29881E+01  3.37907E+01  3.46128E+01
#           3.54550E+01  3.63177E+01  3.72013E+01  3.81064E+01  3.90336E+01
#           3.99833E+01  4.09561E+01  4.19526E+01  4.29734E+01  4.40189E+01
#           4.50900E+01  4.61870E+01  4.73108E+01  4.84619E+01  4.96410E+01
#           5.08488E+01  5.20860E+01  5.33533E+01  5.46514E+01  5.59812E+01
#           5.73432E+01  5.87384E+01  6.01676E+01  6.16315E+01  6.31311E+01
#           6.46671E+01  6.62405E+01  6.78522E+01  6.95031E+01  7.11941E+01
#           7.29263E+01  7.47007E+01  7.65182E+01  7.83800E+01  8.02870E+01
#           8.22405E+01  8.42414E+01  8.62911E+01  8.83906E+01  9.05412E+01
#           9.27442E+01  9.50007E+01  9.73122E+01  9.96799E+01  1.02105E+02
#           1.04589E+02  1.07134E+02  1.09741E+02  1.12411E+02  1.15146E+02
#           1.17948E+02  1.20817E+02  1.23757E+02  1.26768E+02  1.29852E+02
#           1.33012E+02  1.36248E+02  1.39563E+02  1.42959E+02  1.46437E+02
#           1.50000E+02
     unit =    2            # unit is [1/cm^2/(MeV/n)/source]
     axis =  eng            # axis of output
     file = detector-09.out  # file name of output for the above axis
   output = f-curr          # surface crossing forward current spectrum
     part =  neutron  
# kf/name :  2112     
#    used :        main (  %)        temp (  %)       total (  %)
#  memory :         414 (  0)           0 (  0)         414 (  0)

#------------------------------------------------------------------------------
#newpage:
#   no. =    1   reg = 108 - 208

x: Energy [MeV/n]
y:  F-Curr [1/cm^2/(MeV/n)/source]         
p: xlog ylog afac(0.8) form(0.9)
h: n            x            y(neutron ),hh0l   n 
#  e-lower      e-upper      neutron     r.err 
   1.0000E-02   1.0243E-02   3.1650E-04  0.0583
   1.0243E-02   1.0493E-02   2.9202E-04  0.0600
   1.0493E-02   1.0748E-02   2.7256E-04  0.0613
   1.0748E-02   1.1009E-02   2.9710E-04  0.0581
   1.1009E-02   1.1277E-02   2.7892E-04  0.0592
   1.1277E-02   1.1552E-02   2.8652E-04  0.0578
   1.1552E-02   1.1833E-02   3.0743E-04  0.0550
   1.1833E-02   1.2121E-02   2.6927E-04  0.0581
   1.2121E-02   1.2415E-02   2.6748E-04  0.0576
   1.2415E-02   1.2718E-02   2.6597E-04  0.0570
   1.2718E-02   1.3027E-02   2.5891E-04  0.0572
   1.3027E-02   1.3344E-02   2.4713E-04  0.0578
   1.3344E-02   1.3669E-02   2.5411E-04  0.0563
   1.3669E-02   1.4001E-02   2.2075E-04  0.0597
   1.4001E-02   1.4342E-02   2.7177E-04  0.0532
   1.4342E-02   1.4691E-02   2.2198E-04  0.0582
   1.4691E-02   1.5048E-02   1.9607E-04  0.0611
   1.5048E-02   1.5414E-02   2.4399E-04  0.0541
   1.5414E-02   1.5789E-02   1.9980E-04  0.0591
   1.5789E-02   1.6174E-02   1.9866E-04  0.0586
   1.6174E-02   1.6567E-02   2.1339E-04  0.0558
   1.6567E-02   1.6970E-02   2.0688E-04  0.0561
   1.6970E-02   1.7383E-02   1.9809E-04  0.0566
   1.7383E-02   1.7806E-02   1.9904E-04  0.0558
   1.7806E-02   1.8239E-02   1.7880E-04  0.0582
   1.8239E-02   1.8683E-02   1.7836E-04  0.0575
   1.8683E-02   1.9138E-02   1.7884E-04  0.0567
   1.9138E-02   1.9603E-02   1.6980E-04  0.0575
   1.9603E-02   2.0080E-02   1.6544E-04  0.0576
   2.0080E-02   2.0569E-02   1.5802E-04  0.0582
   2.0569E-02   2.1069E-02   1.5753E-04  0.0576
   2.1069E-02   2.1582E-02   1.5798E-04  0.0569
   2.1582E-02   2.2107E-02   1.4492E-04  0.0587
   2.2107E-02   2.2645E-02   1.3784E-04  0.0594
   2.2645E-02   2.3196E-02   1.4626E-04  0.0570
   2.3196E-02   2.3760E-02   1.4021E-04  0.0576
   2.3760E-02   2.4338E-02   1.3328E-04  0.0583
   2.4338E-02   2.4930E-02   1.4129E-04  0.0560
   2.4930E-02   2.5537E-02   1.4745E-04  0.0541
   2.5537E-02   2.6158E-02   1.4092E-04  0.0547
   2.6158E-02   2.6795E-02   1.2888E-04  0.0565
   2.6795E-02   2.7447E-02   1.1857E-04  0.0582
   2.7447E-02   2.8114E-02   1.2229E-04  0.0566
   2.8114E-02   2.8799E-02   1.1557E-04  0.0576
   2.8799E-02   2.9499E-02   1.1434E-04  0.0571
   2.9499E-02   3.0217E-02   1.1502E-04  0.0563
   3.0217E-02   3.0952E-02   1.0395E-04  0.0585
   3.0952E-02   3.1705E-02   1.1312E-04  0.0555
   3.1705E-02   3.2477E-02   1.1697E-04  0.0539
   3.2477E-02   3.3267E-02   9.2456E-05  0.0599
   3.3267E-02   3.4076E-02   1.0683E-04  0.0551
   3.4076E-02   3.4905E-02   1.0495E-04  0.0549
   3.4905E-02   3.5755E-02   1.0133E-04  0.0551
   3.5755E-02   3.6625E-02   1.0163E-04  0.0544
   3.6625E-02   3.7516E-02   9.0512E-05  0.0569
   3.7516E-02   3.8428E-02   9.4576E-05  0.0551
   3.8428E-02   3.9363E-02   8.7888E-05  0.0564
   3.9363E-02   4.0321E-02   9.4095E-05  0.0539
   4.0321E-02   4.1302E-02   9.0136E-05  0.0544
   4.1302E-02   4.2307E-02   8.5387E-05  0.0552
   4.2307E-02   4.3337E-02   8.2864E-05  0.0555
   4.3337E-02   4.4391E-02   8.1318E-05  0.0553
   4.4391E-02   4.5471E-02   8.2447E-05  0.0542
   4.5471E-02   4.6577E-02   7.6074E-05  0.0558
   4.6577E-02   4.7711E-02   7.7717E-05  0.0546
   4.7711E-02   4.8871E-02   8.0289E-05  0.0530
   4.8871E-02   5.0061E-02   7.2617E-05  0.0551
   5.0061E-02   5.1279E-02   7.0896E-05  0.0550
   5.1279E-02   5.2526E-02   7.1553E-05  0.0542
   5.2526E-02   5.3804E-02   7.2729E-05  0.0531
   5.3804E-02   5.5113E-02   6.4860E-05  0.0556
   5.5113E-02   5.6454E-02   6.6153E-05  0.0543
   5.6454E-02   5.7828E-02   6.8012E-05  0.0529
   5.7828E-02   5.9235E-02   6.3507E-05  0.0541
   5.9235E-02   6.0676E-02   6.1912E-05  0.0542
   6.0676E-02   6.2152E-02   6.4279E-05  0.0526
   6.2152E-02   6.3665E-02   5.7546E-05  0.0548
   6.3665E-02   6.5214E-02   5.8542E-05  0.0537
   6.5214E-02   6.6800E-02   5.5072E-05  0.0547
   6.6800E-02   6.8426E-02   4.8972E-05  0.0573
   6.8426E-02   7.0090E-02   5.4258E-05  0.0538
   7.0090E-02   7.1796E-02   5.3552E-05  0.0536
   7.1796E-02   7.3543E-02   5.5019E-05  0.0522
   7.3543E-02   7.5332E-02   5.3802E-05  0.0521
   7.5332E-02   7.7165E-02   4.9741E-05  0.0536
   7.7165E-02   7.9042E-02   4.9561E-05  0.0531
   7.9042E-02   8.0965E-02   4.8841E-05  0.0529
   8.0965E-02   8.2935E-02   4.6409E-05  0.0535
   8.2935E-02   8.4953E-02   4.5336E-05  0.0535
   8.4953E-02   8.7020E-02   4.9703E-05  0.0505
   8.7020E-02   8.9138E-02   4.3601E-05  0.0532
   8.9138E-02   9.1306E-02   4.1270E-05  0.0541
   9.1306E-02   9.3528E-02   4.3227E-05  0.0522
   9.3528E-02   9.5804E-02   4.4082E-05  0.0511
   9.5804E-02   9.8134E-02   4.1424E-05  0.0521
   9.8134E-02   1.0052E-01   4.2289E-05  0.0509
   1.0052E-01   1.0297E-01   4.3793E-05  0.0495
   1.0297E-01   1.0547E-01   4.4879E-05  0.0483
   1.0547E-01   1.0804E-01   4.6289E-05  0.0469
   1.0804E-01   1.1067E-01   5.0080E-05  0.0446
   1.1067E-01   1.1336E-01   5.1200E-05  0.0436
   1.1336E-01   1.1612E-01   5.2515E-05  0.0425
   1.1612E-01   1.1894E-01   5.3408E-05  0.0417
   1.1894E-01   1.2184E-01   6.3697E-05  0.0377
   1.2184E-01   1.2480E-01   6.0479E-05  0.0382
   1.2480E-01   1.2784E-01   5.8564E-05  0.0384
   1.2784E-01   1.3095E-01   6.4764E-05  0.0360
   1.3095E-01   1.3414E-01   6.9391E-05  0.0344
   1.3414E-01   1.3740E-01   7.1153E-05  0.0336
   1.3740E-01   1.4074E-01   7.1490E-05  0.0331
   1.4074E-01   1.4417E-01   7.9110E-05  0.0311
   1.4417E-01   1.4767E-01   7.5734E-05  0.0314
   1.4767E-01   1.5127E-01   7.9798E-05  0.0302
   1.5127E-01   1.5495E-01   8.1836E-05  0.0295
   1.5495E-01   1.5872E-01   8.9058E-05  0.0279
   1.5872E-01   1.6258E-01   9.1769E-05  0.0272
   1.6258E-01   1.6654E-01   9.4982E-05  0.0264
   1.6654E-01   1.7059E-01   1.0294E-04  0.0251
   1.7059E-01   1.7474E-01   1.0430E-04  0.0246
   1.7474E-01   1.7899E-01   1.0708E-04  0.0240
   1.7899E-01   1.8334E-01   1.1508E-04  0.0229
   1.8334E-01   1.8781E-01   1.1877E-04  0.0222
   1.8781E-01   1.9237E-01   1.2425E-04  0.0215
   1.9237E-01   1.9706E-01   1.2288E-04  0.0213
   1.9706E-01   2.0185E-01   1.2983E-04  0.0205
   2.0185E-01   2.0676E-01   1.3247E-04  0.0201
   2.0676E-01   2.1179E-01   1.3776E-04  0.0194
   2.1179E-01   2.1694E-01   1.4333E-04  0.0188
   2.1694E-01   2.2222E-01   1.4820E-04  0.0183
   2.2222E-01   2.2763E-01   1.5085E-04  0.0179
   2.2763E-01   2.3317E-01   1.5397E-04  0.0175
   2.3317E-01   2.3884E-01   1.6609E-04  0.0167
   2.3884E-01   2.4465E-01   1.7293E-04  0.0161
   2.4465E-01   2.5061E-01   1.8095E-04  0.0156
   2.5061E-01   2.5670E-01   1.8195E-04  0.0154
   2.5670E-01   2.6295E-01   1.8526E-04  0.0150
   2.6295E-01   2.6935E-01   1.9338E-04  0.0145
   2.6935E-01   2.7590E-01   1.9919E-04  0.0142
   2.7590E-01   2.8261E-01   2.0485E-04  0.0138
   2.8261E-01   2.8949E-01   2.1411E-04  0.0133
   2.8949E-01   2.9653E-01   2.1671E-04  0.0131
   2.9653E-01   3.0375E-01   2.2074E-04  0.0128
   3.0375E-01   3.1114E-01   2.2521E-04  0.0125
   3.1114E-01   3.1871E-01   2.3887E-04  0.0120
   3.1871E-01   3.2646E-01   2.4505E-04  0.0117
   3.2646E-01   3.3441E-01   2.4942E-04  0.0115
   3.3441E-01   3.4254E-01   2.5987E-04  0.0111
   3.4254E-01   3.5088E-01   2.6787E-04  0.0108
   3.5088E-01   3.5941E-01   2.7626E-04  0.0105
   3.5941E-01   3.6816E-01   2.8601E-04  0.0102
   3.6816E-01   3.7712E-01   2.9146E-04  0.0100
   3.7712E-01   3.8629E-01   3.0141E-04  0.0097
   3.8629E-01   3.9569E-01   3.1262E-04  0.0094
   3.9569E-01   4.0532E-01   3.2136E-04  0.0092
   4.0532E-01   4.1518E-01   3.2833E-04  0.0090
   4.1518E-01   4.2528E-01   3.3975E-04  0.0087
   4.2528E-01   4.3563E-01   3.4707E-04  0.0085
   4.3563E-01   4.4623E-01   3.5665E-04  0.0083
   4.4623E-01   4.5708E-01   3.6443E-04  0.0081
   4.5708E-01   4.6821E-01   3.7279E-04  0.0079
   4.6821E-01   4.7960E-01   3.7859E-04  0.0078
   4.7960E-01   4.9127E-01   3.9309E-04  0.0076
   4.9127E-01   5.0322E-01   3.9411E-04  0.0075
   5.0322E-01   5.1546E-01   4.0989E-04  0.0072
   5.1546E-01   5.2800E-01   4.1785E-04  0.0071
   5.2800E-01   5.4085E-01   4.2631E-04  0.0069
   5.4085E-01   5.5401E-01   4.3573E-04  0.0068
   5.5401E-01   5.6749E-01   4.4557E-04  0.0066
   5.6749E-01   5.8130E-01   4.6129E-04  0.0064
   5.8130E-01   5.9544E-01   4.6762E-04  0.0063
   5.9544E-01   6.0993E-01   4.7765E-04  0.0061
   6.0993E-01   6.2477E-01   4.8317E-04  0.0060
   6.2477E-01   6.3997E-01   4.9433E-04  0.0059
   6.3997E-01   6.5554E-01   5.1047E-04  0.0057
   6.5554E-01   6.7149E-01   5.1380E-04  0.0056
   6.7149E-01   6.8783E-01   5.2634E-04  0.0055
   6.8783E-01   7.0456E-01   5.3621E-04  0.0054
   7.0456E-01   7.2171E-01   5.4174E-04  0.0053
   7.2171E-01   7.3927E-01   5.5392E-04  0.0052
   7.3927E-01   7.5725E-01   5.5473E-04  0.0051
   7.5725E-01   7.7568E-01   5.6413E-04  0.0050
   7.7568E-01   7.9455E-01   5.7389E-04  0.0049
   7.9455E-01   8.1388E-01   5.8279E-04  0.0048
   8.1388E-01   8.3368E-01   5.8201E-04  0.0048
   8.3368E-01   8.5397E-01   5.9179E-04  0.0047
   8.5397E-01   8.7475E-01   5.9405E-04  0.0046
   8.7475E-01   8.9603E-01   6.0260E-04  0.0045
   8.9603E-01   9.1783E-01   6.0346E-04  0.0045
   9.1783E-01   9.4016E-01   6.0611E-04  0.0044
   9.4016E-01   9.6304E-01   5.9957E-04  0.0044
   9.6304E-01   9.8647E-01   5.9764E-04  0.0043
   9.8647E-01   1.0105E+00   5.8709E-04  0.0043
   1.0105E+00   1.0351E+00   5.8727E-04  0.0042
   1.0351E+00   1.0602E+00   5.8284E-04  0.0042
   1.0602E+00   1.0860E+00   5.9199E-04  0.0041
   1.0860E+00   1.1125E+00   5.9352E-04  0.0041
   1.1125E+00   1.1395E+00   6.0068E-04  0.0040
   1.1395E+00   1.1673E+00   6.0494E-04  0.0039
   1.1673E+00   1.1957E+00   6.1283E-04  0.0039
   1.1957E+00   1.2247E+00   6.1520E-04  0.0038
   1.2247E+00   1.2545E+00   6.2191E-04  0.0037
   1.2545E+00   1.2851E+00   6.2588E-04  0.0037
   1.2851E+00   1.3163E+00   6.2638E-04  0.0036
   1.3163E+00   1.3484E+00   6.2846E-04  0.0036
   1.3484E+00   1.3812E+00   6.2958E-04  0.0035
   1.3812E+00   1.4148E+00   6.3333E-04  0.0035
   1.4148E+00   1.4492E+00   6.3135E-04  0.0035
   1.4492E+00   1.4845E+00   6.3616E-04  0.0034
   1.4845E+00   1.5206E+00   6.3124E-04  0.0034
   1.5206E+00   1.5576E+00   6.2619E-04  0.0033
   1.5576E+00   1.5955E+00   6.2619E-04  0.0033
   1.5955E+00   1.6343E+00   6.2526E-04  0.0033
   1.6343E+00   1.6741E+00   6.1451E-04  0.0032
   1.6741E+00   1.7148E+00   6.1022E-04  0.0032
   1.7148E+00   1.7565E+00   6.0427E-04  0.0032
   1.7565E+00   1.7992E+00   5.7846E-04  0.0032
   1.7992E+00   1.8430E+00   5.4272E-04  0.0033
   1.8430E+00   1.8879E+00   5.1039E-04  0.0033
   1.8879E+00   1.9338E+00   5.0403E-04  0.0033
   1.9338E+00   1.9808E+00   4.9374E-04  0.0033
   1.9808E+00   2.0290E+00   4.8999E-04  0.0033
   2.0290E+00   2.0784E+00   4.8907E-04  0.0032
   2.0784E+00   2.1290E+00   4.9563E-04  0.0032
   2.1290E+00   2.1808E+00   5.0662E-04  0.0031
   2.1808E+00   2.2338E+00   5.1585E-04  0.0030
   2.2338E+00   2.2882E+00   5.1225E-04  0.0030
   2.2882E+00   2.3439E+00   4.9173E-04  0.0030
   2.3439E+00   2.4009E+00   4.8115E-04  0.0030
   2.4009E+00   2.4593E+00   4.7934E-04  0.0030
   2.4593E+00   2.5191E+00   4.7653E-04  0.0030
   2.5191E+00   2.5804E+00   4.7465E-04  0.0029
   2.5804E+00   2.6432E+00   4.6868E-04  0.0029
   2.6432E+00   2.7075E+00   4.6516E-04  0.0029
   2.7075E+00   2.7734E+00   4.6251E-04  0.0029
   2.7734E+00   2.8409E+00   4.5773E-04  0.0029
   2.8409E+00   2.9100E+00   4.5309E-04  0.0028
   2.9100E+00   2.9808E+00   4.4862E-04  0.0028
   2.9808E+00   3.0533E+00   4.5049E-04  0.0028
   3.0533E+00   3.1276E+00   4.3937E-04  0.0028
   3.1276E+00   3.2037E+00   4.3737E-04  0.0028
   3.2037E+00   3.2817E+00   4.3485E-04  0.0027
   3.2817E+00   3.3615E+00   4.3172E-04  0.0027
   3.3615E+00   3.4433E+00   4.2795E-04  0.0027
   3.4433E+00   3.5271E+00   4.2403E-04  0.0027
   3.5271E+00   3.6129E+00   4.2158E-04  0.0027
   3.6129E+00   3.7008E+00   4.2031E-04  0.0026
   3.7008E+00   3.7908E+00   4.1306E-04  0.0026
   3.7908E+00   3.8831E+00   4.1103E-04  0.0026
   3.8831E+00   3.9776E+00   4.0239E-04  0.0026
   3.9776E+00   4.0743E+00   3.9998E-04  0.0026
   4.0743E+00   4.1735E+00   3.9480E-04  0.0026
   4.1735E+00   4.2750E+00   3.8677E-04  0.0026
   4.2750E+00   4.3790E+00   3.8216E-04  0.0025
   4.3790E+00   4.4856E+00   3.7534E-04  0.0025
   4.4856E+00   4.5947E+00   3.6723E-04  0.0025
   4.5947E+00   4.7065E+00   3.6120E-04  0.0025
   4.7065E+00   4.8210E+00   3.5629E-04  0.0025
   4.8210E+00   4.9383E+00   3.5269E-04  0.0025
   4.9383E+00   5.0585E+00   3.5013E-04  0.0025
   5.0585E+00   5.1815E+00   3.4784E-04  0.0024
   5.1815E+00   5.3076E+00   3.4579E-04  0.0024
   5.3076E+00   5.4368E+00   3.4099E-04  0.0024
   5.4368E+00   5.5690E+00   3.3710E-04  0.0024
   5.5690E+00   5.7045E+00   3.3261E-04  0.0024
   5.7045E+00   5.8433E+00   3.3026E-04  0.0024
   5.8433E+00   5.9855E+00   3.2872E-04  0.0023
   5.9855E+00   6.1311E+00   3.2512E-04  0.0023
   6.1311E+00   6.2803E+00   3.2421E-04  0.0023
   6.2803E+00   6.4331E+00   3.2328E-04  0.0023
   6.4331E+00   6.5896E+00   3.1953E-04  0.0023
   6.5896E+00   6.7500E+00   3.1756E-04  0.0022
   6.7500E+00   6.9142E+00   3.1446E-04  0.0022
   6.9142E+00   7.0824E+00   3.1446E-04  0.0022
   7.0824E+00   7.2548E+00   3.1266E-04  0.0022
   7.2548E+00   7.4313E+00   3.0862E-04  0.0022
   7.4313E+00   7.6121E+00   3.0631E-04  0.0022
   7.6121E+00   7.7973E+00   3.0349E-04  0.0021
   7.7973E+00   7.9870E+00   3.0117E-04  0.0021
   7.9870E+00   8.1813E+00   2.9844E-04  0.0021
   8.1813E+00   8.3804E+00   2.9579E-04  0.0021
   8.3804E+00   8.5843E+00   2.9280E-04  0.0021
   8.5843E+00   8.7931E+00   2.9009E-04  0.0021
   8.7931E+00   9.0071E+00   2.8830E-04  0.0020
   9.0071E+00   9.2262E+00   2.8503E-04  0.0020
   9.2262E+00   9.4507E+00   2.7999E-04  0.0020
   9.4507E+00   9.6807E+00   2.7549E-04  0.0020
   9.6807E+00   9.9162E+00   2.7386E-04  0.0020
   9.9162E+00   1.0157E+01   2.8671E-04  0.0019
   1.0157E+01   1.0405E+01   2.8220E-04  0.0019
   1.0405E+01   1.0658E+01   2.7716E-04  0.0019
   1.0658E+01   1.0917E+01   2.6859E-04  0.0019
   1.0917E+01   1.1183E+01   2.6206E-04  0.0019
   1.1183E+01   1.1455E+01   2.5766E-04  0.0019
   1.1455E+01   1.1733E+01   2.5549E-04  0.0019
   1.1733E+01   1.2019E+01   2.5330E-04  0.0019
   1.2019E+01   1.2311E+01   2.4921E-04  0.0019
   1.2311E+01   1.2611E+01   2.4654E-04  0.0019
   1.2611E+01   1.2918E+01   2.4450E-04  0.0019
   1.2918E+01   1.3232E+01   2.4061E-04  0.0019
   1.3232E+01   1.3554E+01   2.3837E-04  0.0018
   1.3554E+01   1.3884E+01   2.3552E-04  0.0018
   1.3884E+01   1.4222E+01   2.3176E-04  0.0018
   1.4222E+01   1.4568E+01   2.2884E-04  0.0018
   1.4568E+01   1.4922E+01   2.2567E-04  0.0018
   1.4922E+01   1.5285E+01   2.2288E-04  0.0018
   1.5285E+01   1.5657E+01   2.1865E-04  0.0018
   1.5657E+01   1.6038E+01   2.1655E-04  0.0018
   1.6038E+01   1.6428E+01   2.1260E-04  0.0018
   1.6428E+01   1.6828E+01   2.0981E-04  0.0018
   1.6828E+01   1.7237E+01   2.0682E-04  0.0018
   1.7237E+01   1.7657E+01   2.0345E-04  0.0018
   1.7657E+01   1.8086E+01   2.0019E-04  0.0017
   1.8086E+01   1.8526E+01   1.9693E-04  0.0017
   1.8526E+01   1.8977E+01   1.9391E-04  0.0017
   1.8977E+01   1.9439E+01   1.9049E-04  0.0017
   1.9439E+01   1.9912E+01   1.8847E-04  0.0017
   1.9912E+01   2.0396E+01   1.8705E-04  0.0017
   2.0396E+01   2.0893E+01   1.8397E-04  0.0017
   2.0893E+01   2.1401E+01   1.8023E-04  0.0017
   2.1401E+01   2.1922E+01   1.7752E-04  0.0017
   2.1922E+01   2.2455E+01   1.7367E-04  0.0017
   2.2455E+01   2.3001E+01   1.7035E-04  0.0017
   2.3001E+01   2.3561E+01   1.6722E-04  0.0017
   2.3561E+01   2.4134E+01   1.6336E-04  0.0017
   2.4134E+01   2.4721E+01   1.5992E-04  0.0017
   2.4721E+01   2.5323E+01   1.5703E-04  0.0017
   2.5323E+01   2.5939E+01   1.5743E-04  0.0016
   2.5939E+01   2.6570E+01   1.5921E-04  0.0016
   2.6570E+01   2.7217E+01   1.5715E-04  0.0016
   2.7217E+01   2.7879E+01   1.5327E-04  0.0016
   2.7879E+01   2.8557E+01   1.4982E-04  0.0016
   2.8557E+01   2.9252E+01   1.4541E-04  0.0016
   2.9252E+01   2.9964E+01   1.4153E-04  0.0016
   2.9964E+01   3.0693E+01   1.3698E-04  0.0016
   3.0693E+01   3.1440E+01   1.3303E-04  0.0016
   3.1440E+01   3.2205E+01   1.2813E-04  0.0016
   3.2205E+01   3.2988E+01   1.2407E-04  0.0016
   3.2988E+01   3.3791E+01   1.1979E-04  0.0017
   3.3791E+01   3.4613E+01   1.1481E-04  0.0017
   3.4613E+01   3.5455E+01   1.1037E-04  0.0017
   3.5455E+01   3.6318E+01   1.0530E-04  0.0017
   3.6318E+01   3.7201E+01   1.0059E-04  0.0017
   3.7201E+01   3.8106E+01   9.5602E-05  0.0017
   3.8106E+01   3.9034E+01   9.1018E-05  0.0018
   3.9034E+01   3.9983E+01   8.5791E-05  0.0018
   3.9983E+01   4.0956E+01   8.0813E-05  0.0018
   4.0956E+01   4.1953E+01   7.5602E-05  0.0019
   4.1953E+01   4.2973E+01   7.0519E-05  0.0019
   4.2973E+01   4.4019E+01   6.5135E-05  0.0020
   4.4019E+01   4.5090E+01   5.8529E-05  0.0020
   4.5090E+01   4.6187E+01   5.1169E-05  0.0022
   4.6187E+01   4.7311E+01   4.5831E-05  0.0023
   4.7311E+01   4.8462E+01   4.1137E-05  0.0024
   4.8462E+01   4.9641E+01   3.6265E-05  0.0025
   4.9641E+01   5.0849E+01   3.1789E-05  0.0026
   5.0849E+01   5.2086E+01   2.7644E-05  0.0028
   5.2086E+01   5.3353E+01   2.3864E-05  0.0029
   5.3353E+01   5.4651E+01   2.0164E-05  0.0032
   5.4651E+01   5.5981E+01   1.6945E-05  0.0034
   5.5981E+01   5.7343E+01   1.4109E-05  0.0037
   5.7343E+01   5.8738E+01   1.1596E-05  0.0040
   5.8738E+01   6.0168E+01   9.5800E-06  0.0044
   6.0168E+01   6.1632E+01   7.9710E-06  0.0047
   6.1632E+01   6.3131E+01   6.9893E-06  0.0050
   6.3131E+01   6.4667E+01   6.2795E-06  0.0052
   6.4667E+01   6.6240E+01   6.0494E-06  0.0053
   6.6240E+01   6.7852E+01   6.1489E-06  0.0052
   6.7852E+01   6.9503E+01   5.6151E-06  0.0053
   6.9503E+01   7.1194E+01   1.2880E-06  0.0110
   7.1194E+01   7.2926E+01   4.8615E-09  0.1768
   7.2926E+01   7.4701E+01   0.0000E+00  0.0000
   7.4701E+01   7.6518E+01   0.0000E+00  0.0000
   7.6518E+01   7.8380E+01   0.0000E+00  0.0000
   7.8380E+01   8.0287E+01   0.0000E+00  0.0000
   8.0287E+01   8.2240E+01   0.0000E+00  0.0000
   8.2240E+01   8.4241E+01   0.0000E+00  0.0000
   8.4241E+01   8.6291E+01   0.0000E+00  0.0000
   8.6291E+01   8.8391E+01   0.0000E+00  0.0000
   8.8391E+01   9.0541E+01   0.0000E+00  0.0000
   9.0541E+01   9.2744E+01   0.0000E+00  0.0000
   9.2744E+01   9.5001E+01   0.0000E+00  0.0000
   9.5001E+01   9.7312E+01   0.0000E+00  0.0000
   9.7312E+01   9.9680E+01   0.0000E+00  0.0000
   9.9680E+01   1.0211E+02   0.0000E+00  0.0000
   1.0211E+02   1.0459E+02   0.0000E+00  0.0000
   1.0459E+02   1.0713E+02   0.0000E+00  0.0000
   1.0713E+02   1.0974E+02   0.0000E+00  0.0000
   1.0974E+02   1.1241E+02   0.0000E+00  0.0000
   1.1241E+02   1.1515E+02   0.0000E+00  0.0000
   1.1515E+02   1.1795E+02   0.0000E+00  0.0000
   1.1795E+02   1.2082E+02   0.0000E+00  0.0000
   1.2082E+02   1.2376E+02   0.0000E+00  0.0000
   1.2376E+02   1.2677E+02   0.0000E+00  0.0000
   1.2677E+02   1.2985E+02   0.0000E+00  0.0000
   1.2985E+02   1.3301E+02   0.0000E+00  0.0000
   1.3301E+02   1.3625E+02   0.0000E+00  0.0000
   1.3625E+02   1.3956E+02   0.0000E+00  0.0000
   1.3956E+02   1.4296E+02   0.0000E+00  0.0000
   1.4296E+02   1.4644E+02   0.0000E+00  0.0000
   1.4644E+02   1.5000E+02   0.0000E+00  0.0000

#   sum over                 6.3847E-05
'no. =    1   reg = 108 - 208'
msuc: {\huge [t-cross] in region mesh}
msdr: {\it plotted by \ANGEL \version}
msdl: {\it calculated by \PHITS  3.26}
wt: s(0.7)
\vspace{-3}
  region surface crossing
  area  &=&   1.0000E+00 [cm^2]
e:
 
# Information for Restart Calculation
# This calculation was newly started
# istdev =  2 # 1:Batch variance, 2:History variance
# resc2  = 3.80000000000000000E+09 # Total source weight or Total source weight / maxcas
# resc3  = 3.80000000000000000E+09 # Total history number or Total batch number
# maxcas =   100000000 # History / Batch, only used for istdev=1
# bitrseed = 1100100011111111101010110001000011010010001011000111110010001001 # bit data of rseed
