[ T-Cross ]
    title = [t-cross] in region mesh
     mesh =  reg            # mesh type is region-wise
      reg =    1            # number of crossing regions
      non     r-from    r-to       area
      1       104       204        1.000000    
   e-type =    3            # e-mesh is log given by emin, emax and ne
     emin =  1.0000000E-02  # minimum value of e-mesh points
     emax =   150.0000      # maximum value of e-mesh points
#    edel =  2.4039514E-02  # mesh width of e-mesh points
       ne =    400          # number of e-mesh points
#    data = ( e(i), i = 1, ne + 1 )
#           1.00000E-02  1.02433E-02  1.04925E-02  1.07478E-02  1.10093E-02
#           1.12772E-02  1.15516E-02  1.18326E-02  1.21205E-02  1.24154E-02
#           1.27175E-02  1.30269E-02  1.33439E-02  1.36686E-02  1.40011E-02
#           1.43418E-02  1.46907E-02  1.50482E-02  1.54143E-02  1.57894E-02
#           1.61735E-02  1.65670E-02  1.69701E-02  1.73830E-02  1.78060E-02
#           1.82392E-02  1.86830E-02  1.91375E-02  1.96032E-02  2.00801E-02
#           2.05687E-02  2.10692E-02  2.15818E-02  2.21069E-02  2.26448E-02
#           2.31957E-02  2.37601E-02  2.43382E-02  2.49304E-02  2.55369E-02
#           2.61583E-02  2.67947E-02  2.74467E-02  2.81145E-02  2.87985E-02
#           2.94992E-02  3.02169E-02  3.09521E-02  3.17052E-02  3.24766E-02
#           3.32668E-02  3.40762E-02  3.49053E-02  3.57546E-02  3.66246E-02
#           3.75157E-02  3.84284E-02  3.93634E-02  4.03212E-02  4.13022E-02
#           4.23071E-02  4.33365E-02  4.43909E-02  4.54710E-02  4.65773E-02
#           4.77106E-02  4.88714E-02  5.00605E-02  5.12785E-02  5.25262E-02
#           5.38042E-02  5.51133E-02  5.64542E-02  5.78278E-02  5.92348E-02
#           6.06760E-02  6.21523E-02  6.36645E-02  6.52135E-02  6.68002E-02
#           6.84255E-02  7.00904E-02  7.17957E-02  7.35426E-02  7.53319E-02
#           7.71648E-02  7.90423E-02  8.09655E-02  8.29354E-02  8.49533E-02
#           8.70203E-02  8.91376E-02  9.13064E-02  9.35279E-02  9.58035E-02
#           9.81345E-02  1.00522E-01  1.02968E-01  1.05473E-01  1.08040E-01
#           1.10668E-01  1.13361E-01  1.16119E-01  1.18944E-01  1.21838E-01
#           1.24803E-01  1.27839E-01  1.30950E-01  1.34136E-01  1.37399E-01
#           1.40742E-01  1.44167E-01  1.47675E-01  1.51268E-01  1.54948E-01
#           1.58718E-01  1.62580E-01  1.66535E-01  1.70587E-01  1.74738E-01
#           1.78989E-01  1.83344E-01  1.87805E-01  1.92375E-01  1.97055E-01
#           2.01850E-01  2.06761E-01  2.11792E-01  2.16945E-01  2.22223E-01
#           2.27630E-01  2.33169E-01  2.38842E-01  2.44653E-01  2.50605E-01
#           2.56703E-01  2.62949E-01  2.69346E-01  2.75900E-01  2.82613E-01
#           2.89489E-01  2.96532E-01  3.03747E-01  3.11138E-01  3.18708E-01
#           3.26462E-01  3.34405E-01  3.42542E-01  3.50876E-01  3.59413E-01
#           3.68158E-01  3.77116E-01  3.86291E-01  3.95690E-01  4.05317E-01
#           4.15179E-01  4.25281E-01  4.35628E-01  4.46227E-01  4.57084E-01
#           4.68205E-01  4.79597E-01  4.91266E-01  5.03219E-01  5.15463E-01
#           5.28005E-01  5.40851E-01  5.54011E-01  5.67490E-01  5.81298E-01
#           5.95441E-01  6.09929E-01  6.24769E-01  6.39970E-01  6.55541E-01
#           6.71491E-01  6.87828E-01  7.04564E-01  7.21706E-01  7.39266E-01
#           7.57253E-01  7.75678E-01  7.94551E-01  8.13883E-01  8.33685E-01
#           8.53969E-01  8.74747E-01  8.96030E-01  9.17831E-01  9.40163E-01
#           9.63038E-01  9.86469E-01  1.01047E+00  1.03506E+00  1.06024E+00
#           1.08604E+00  1.11246E+00  1.13953E+00  1.16725E+00  1.19565E+00
#           1.22474E+00  1.25454E+00  1.28507E+00  1.31633E+00  1.34836E+00
#           1.38117E+00  1.41477E+00  1.44920E+00  1.48446E+00  1.52057E+00
#           1.55757E+00  1.59547E+00  1.63429E+00  1.67405E+00  1.71478E+00
#           1.75650E+00  1.79924E+00  1.84302E+00  1.88786E+00  1.93379E+00
#           1.98084E+00  2.02904E+00  2.07841E+00  2.12898E+00  2.18078E+00
#           2.23384E+00  2.28819E+00  2.34386E+00  2.40089E+00  2.45930E+00
#           2.51914E+00  2.58043E+00  2.64322E+00  2.70753E+00  2.77341E+00
#           2.84088E+00  2.91001E+00  2.98081E+00  3.05333E+00  3.12762E+00
#           3.20372E+00  3.28167E+00  3.36152E+00  3.44330E+00  3.52708E+00
#           3.61290E+00  3.70080E+00  3.79085E+00  3.88308E+00  3.97756E+00
#           4.07434E+00  4.17347E+00  4.27501E+00  4.37903E+00  4.48557E+00
#           4.59471E+00  4.70650E+00  4.82102E+00  4.93832E+00  5.05847E+00
#           5.18155E+00  5.30762E+00  5.43676E+00  5.56904E+00  5.70453E+00
#           5.84333E+00  5.98550E+00  6.13114E+00  6.28031E+00  6.43312E+00
#           6.58964E+00  6.74997E+00  6.91420E+00  7.08243E+00  7.25475E+00
#           7.43126E+00  7.61207E+00  7.79728E+00  7.98700E+00  8.18133E+00
#           8.38038E+00  8.58428E+00  8.79315E+00  9.00709E+00  9.22624E+00
#           9.45072E+00  9.68067E+00  9.91620E+00  1.01575E+01  1.04046E+01
#           1.06578E+01  1.09171E+01  1.11827E+01  1.14548E+01  1.17335E+01
#           1.20190E+01  1.23114E+01  1.26109E+01  1.29178E+01  1.32321E+01
#           1.35540E+01  1.38838E+01  1.42216E+01  1.45676E+01  1.49221E+01
#           1.52851E+01  1.56570E+01  1.60380E+01  1.64282E+01  1.68279E+01
#           1.72374E+01  1.76568E+01  1.80864E+01  1.85264E+01  1.89772E+01
#           1.94389E+01  1.99119E+01  2.03963E+01  2.08926E+01  2.14009E+01
#           2.19216E+01  2.24550E+01  2.30014E+01  2.35610E+01  2.41343E+01
#           2.47215E+01  2.53230E+01  2.59391E+01  2.65702E+01  2.72167E+01
#           2.78789E+01  2.85572E+01  2.92520E+01  2.99637E+01  3.06928E+01
#           3.14396E+01  3.22045E+01  3.29881E+01  3.37907E+01  3.46128E+01
#           3.54550E+01  3.63177E+01  3.72013E+01  3.81064E+01  3.90336E+01
#           3.99833E+01  4.09561E+01  4.19526E+01  4.29734E+01  4.40189E+01
#           4.50900E+01  4.61870E+01  4.73108E+01  4.84619E+01  4.96410E+01
#           5.08488E+01  5.20860E+01  5.33533E+01  5.46514E+01  5.59812E+01
#           5.73432E+01  5.87384E+01  6.01676E+01  6.16315E+01  6.31311E+01
#           6.46671E+01  6.62405E+01  6.78522E+01  6.95031E+01  7.11941E+01
#           7.29263E+01  7.47007E+01  7.65182E+01  7.83800E+01  8.02870E+01
#           8.22405E+01  8.42414E+01  8.62911E+01  8.83906E+01  9.05412E+01
#           9.27442E+01  9.50007E+01  9.73122E+01  9.96799E+01  1.02105E+02
#           1.04589E+02  1.07134E+02  1.09741E+02  1.12411E+02  1.15146E+02
#           1.17948E+02  1.20817E+02  1.23757E+02  1.26768E+02  1.29852E+02
#           1.33012E+02  1.36248E+02  1.39563E+02  1.42959E+02  1.46437E+02
#           1.50000E+02
     unit =    2            # unit is [1/cm^2/(MeV/n)/source]
     axis =  eng            # axis of output
     file = detector-05.out  # file name of output for the above axis
   output = f-curr          # surface crossing forward current spectrum
     part =  neutron  
# kf/name :  2112     
#    used :        main (  %)        temp (  %)       total (  %)
#  memory :         414 (  0)           0 (  0)         414 (  0)

#------------------------------------------------------------------------------
#newpage:
#   no. =    1   reg = 104 - 204

x: Energy [MeV/n]
y:  F-Curr [1/cm^2/(MeV/n)/source]         
p: xlog ylog afac(0.8) form(0.9)
h: n            x            y(neutron ),hh0l   n 
#  e-lower      e-upper      neutron     r.err 
   1.0000E-02   1.0243E-02   7.1434E-04  0.0339
   1.0243E-02   1.0493E-02   7.1948E-04  0.0333
   1.0493E-02   1.0748E-02   7.1063E-04  0.0332
   1.0748E-02   1.1009E-02   7.0109E-04  0.0330
   1.1009E-02   1.1277E-02   7.1468E-04  0.0323
   1.1277E-02   1.1552E-02   6.9013E-04  0.0325
   1.1552E-02   1.1833E-02   6.5461E-04  0.0329
   1.1833E-02   1.2121E-02   6.5414E-04  0.0326
   1.2121E-02   1.2415E-02   6.4412E-04  0.0324
   1.2415E-02   1.2718E-02   6.0832E-04  0.0330
   1.2718E-02   1.3027E-02   6.5144E-04  0.0315
   1.3027E-02   1.3344E-02   6.1981E-04  0.0319
   1.3344E-02   1.3669E-02   5.7668E-04  0.0327
   1.3669E-02   1.4001E-02   6.0196E-04  0.0316
   1.4001E-02   1.4342E-02   5.6287E-04  0.0323
   1.4342E-02   1.4691E-02   5.7261E-04  0.0316
   1.4691E-02   1.5048E-02   5.5921E-04  0.0316
   1.5048E-02   1.5414E-02   5.5619E-04  0.0313
   1.5414E-02   1.5789E-02   5.4178E-04  0.0313
   1.5789E-02   1.6174E-02   5.4916E-04  0.0308
   1.6174E-02   1.6567E-02   5.2710E-04  0.0310
   1.6567E-02   1.6970E-02   5.0675E-04  0.0312
   1.6970E-02   1.7383E-02   4.9596E-04  0.0312
   1.7383E-02   1.7806E-02   5.1438E-04  0.0303
   1.7806E-02   1.8239E-02   5.0268E-04  0.0303
   1.8239E-02   1.8683E-02   5.1139E-04  0.0296
   1.8683E-02   1.9138E-02   4.7507E-04  0.0304
   1.9138E-02   1.9603E-02   4.8124E-04  0.0298
   1.9603E-02   2.0080E-02   4.8779E-04  0.0293
   2.0080E-02   2.0569E-02   4.5899E-04  0.0298
   2.0569E-02   2.1069E-02   4.6848E-04  0.0292
   2.1069E-02   2.1582E-02   4.3752E-04  0.0298
   2.1582E-02   2.2107E-02   4.5453E-04  0.0289
   2.2107E-02   2.2645E-02   4.4471E-04  0.0289
   2.2645E-02   2.3196E-02   4.3978E-04  0.0287
   2.3196E-02   2.3760E-02   4.1975E-04  0.0290
   2.3760E-02   2.4338E-02   3.9736E-04  0.0294
   2.4338E-02   2.4930E-02   4.1621E-04  0.0285
   2.4930E-02   2.5537E-02   4.0315E-04  0.0285
   2.5537E-02   2.6158E-02   3.9597E-04  0.0285
   2.6158E-02   2.6795E-02   3.7682E-04  0.0288
   2.6795E-02   2.7447E-02   3.8833E-04  0.0281
   2.7447E-02   2.8114E-02   3.6936E-04  0.0284
   2.8114E-02   2.8799E-02   3.8440E-04  0.0275
   2.8799E-02   2.9499E-02   3.8005E-04  0.0274
   2.9499E-02   3.0217E-02   3.5868E-04  0.0278
   3.0217E-02   3.0952E-02   3.6306E-04  0.0273
   3.0952E-02   3.1705E-02   3.6345E-04  0.0270
   3.1705E-02   3.2477E-02   3.4222E-04  0.0275
   3.2477E-02   3.3267E-02   3.4556E-04  0.0270
   3.3267E-02   3.4076E-02   3.4724E-04  0.0266
   3.4076E-02   3.4905E-02   3.3365E-04  0.0268
   3.4905E-02   3.5755E-02   3.2287E-04  0.0270
   3.5755E-02   3.6625E-02   3.1074E-04  0.0272
   3.6625E-02   3.7516E-02   3.1699E-04  0.0266
   3.7516E-02   3.8428E-02   3.1048E-04  0.0265
   3.8428E-02   3.9363E-02   3.0447E-04  0.0265
   3.9363E-02   4.0321E-02   3.0430E-04  0.0262
   4.0321E-02   4.1302E-02   3.1846E-04  0.0253
   4.1302E-02   4.2307E-02   2.9591E-04  0.0259
   4.2307E-02   4.3337E-02   2.8134E-04  0.0262
   4.3337E-02   4.4391E-02   3.0588E-04  0.0249
   4.4391E-02   4.5471E-02   2.7865E-04  0.0257
   4.5471E-02   4.6577E-02   2.7719E-04  0.0255
   4.6577E-02   4.7711E-02   2.8204E-04  0.0250
   4.7711E-02   4.8871E-02   2.7258E-04  0.0251
   4.8871E-02   5.0061E-02   2.7173E-04  0.0248
   5.0061E-02   5.1279E-02   2.4876E-04  0.0257
   5.1279E-02   5.2526E-02   2.5148E-04  0.0252
   5.2526E-02   5.3804E-02   2.5144E-04  0.0249
   5.3804E-02   5.5113E-02   2.4040E-04  0.0252
   5.5113E-02   5.6454E-02   2.2509E-04  0.0257
   5.6454E-02   5.7828E-02   2.4254E-04  0.0245
   5.7828E-02   5.9235E-02   2.2520E-04  0.0251
   5.9235E-02   6.0676E-02   2.3406E-04  0.0243
   6.0676E-02   6.2152E-02   2.1564E-04  0.0250
   6.2152E-02   6.3665E-02   2.1878E-04  0.0245
   6.3665E-02   6.5214E-02   2.0813E-04  0.0249
   6.5214E-02   6.6800E-02   2.2028E-04  0.0239
   6.6800E-02   6.8426E-02   2.0866E-04  0.0242
   6.8426E-02   7.0090E-02   2.0808E-04  0.0240
   7.0090E-02   7.1796E-02   2.0347E-04  0.0240
   7.1796E-02   7.3543E-02   1.9954E-04  0.0239
   7.3543E-02   7.5332E-02   1.9356E-04  0.0240
   7.5332E-02   7.7165E-02   1.8939E-04  0.0240
   7.7165E-02   7.9042E-02   1.9696E-04  0.0232
   7.9042E-02   8.0965E-02   1.8889E-04  0.0234
   8.0965E-02   8.2935E-02   1.7928E-04  0.0238
   8.2935E-02   8.4953E-02   1.7754E-04  0.0236
   8.4953E-02   8.7020E-02   1.8003E-04  0.0231
   8.7020E-02   8.9138E-02   1.7441E-04  0.0232
   8.9138E-02   9.1306E-02   1.7230E-04  0.0231
   9.1306E-02   9.3528E-02   1.6636E-04  0.0232
   9.3528E-02   9.5804E-02   1.6440E-04  0.0231
   9.5804E-02   9.8134E-02   1.6448E-04  0.0228
   9.8134E-02   1.0052E-01   1.5360E-04  0.0233
   1.0052E-01   1.0297E-01   1.5500E-04  0.0229
   1.0297E-01   1.0547E-01   1.4869E-04  0.0231
   1.0547E-01   1.0804E-01   1.5047E-04  0.0227
   1.0804E-01   1.1067E-01   1.4275E-04  0.0231
   1.1067E-01   1.1336E-01   1.4822E-04  0.0224
   1.1336E-01   1.1612E-01   1.4231E-04  0.0225
   1.1612E-01   1.1894E-01   1.3524E-04  0.0228
   1.1894E-01   1.2184E-01   1.3970E-04  0.0222
   1.2184E-01   1.2480E-01   1.3457E-04  0.0224
   1.2480E-01   1.2784E-01   1.3061E-04  0.0224
   1.2784E-01   1.3095E-01   1.2031E-04  0.0231
   1.3095E-01   1.3414E-01   1.2636E-04  0.0222
   1.3414E-01   1.3740E-01   1.2180E-04  0.0224
   1.3740E-01   1.4074E-01   1.1494E-04  0.0228
   1.4074E-01   1.4417E-01   1.1676E-04  0.0223
   1.4417E-01   1.4767E-01   1.1258E-04  0.0225
   1.4767E-01   1.5127E-01   1.1350E-04  0.0221
   1.5127E-01   1.5495E-01   1.0803E-04  0.0224
   1.5495E-01   1.5872E-01   1.0616E-04  0.0223
   1.5872E-01   1.6258E-01   1.0807E-04  0.0218
   1.6258E-01   1.6654E-01   1.0150E-04  0.0223
   1.6654E-01   1.7059E-01   9.9025E-05  0.0223
   1.7059E-01   1.7474E-01   9.7758E-05  0.0222
   1.7474E-01   1.7899E-01   1.0125E-04  0.0215
   1.7899E-01   1.8334E-01   9.1235E-05  0.0224
   1.8334E-01   1.8781E-01   9.1168E-05  0.0221
   1.8781E-01   1.9237E-01   8.9517E-05  0.0221
   1.9237E-01   1.9706E-01   8.9230E-05  0.0218
   1.9706E-01   2.0185E-01   8.8307E-05  0.0217
   2.0185E-01   2.0676E-01   8.5083E-05  0.0218
   2.0676E-01   2.1179E-01   8.7529E-05  0.0213
   2.1179E-01   2.1694E-01   8.9911E-05  0.0207
   2.1694E-01   2.2222E-01   9.4302E-05  0.0200
   2.2222E-01   2.2763E-01   9.7483E-05  0.0194
   2.2763E-01   2.3317E-01   9.8564E-05  0.0191
   2.3317E-01   2.3884E-01   9.8054E-05  0.0189
   2.3884E-01   2.4465E-01   1.0091E-04  0.0184
   2.4465E-01   2.5061E-01   1.0153E-04  0.0182
   2.5061E-01   2.5670E-01   1.0401E-04  0.0177
   2.5670E-01   2.6295E-01   1.1228E-04  0.0169
   2.6295E-01   2.6935E-01   1.0782E-04  0.0170
   2.6935E-01   2.7590E-01   1.1388E-04  0.0163
   2.7590E-01   2.8261E-01   1.1218E-04  0.0163
   2.8261E-01   2.8949E-01   1.1361E-04  0.0160
   2.8949E-01   2.9653E-01   1.1600E-04  0.0156
   2.9653E-01   3.0375E-01   1.1532E-04  0.0155
   3.0375E-01   3.1114E-01   1.1466E-04  0.0153
   3.1114E-01   3.1871E-01   1.1774E-04  0.0150
   3.1871E-01   3.2646E-01   1.2268E-04  0.0145
   3.2646E-01   3.3441E-01   1.2437E-04  0.0142
   3.3441E-01   3.4254E-01   1.2944E-04  0.0138
   3.4254E-01   3.5088E-01   1.2631E-04  0.0138
   3.5088E-01   3.5941E-01   1.2821E-04  0.0135
   3.5941E-01   3.6816E-01   1.2693E-04  0.0134
   3.6816E-01   3.7712E-01   1.2953E-04  0.0131
   3.7712E-01   3.8629E-01   1.3080E-04  0.0129
   3.8629E-01   3.9569E-01   1.3507E-04  0.0125
   3.9569E-01   4.0532E-01   1.3182E-04  0.0125
   4.0532E-01   4.1518E-01   1.3465E-04  0.0123
   4.1518E-01   4.2528E-01   1.3439E-04  0.0121
   4.2528E-01   4.3563E-01   1.3541E-04  0.0119
   4.3563E-01   4.4623E-01   1.3700E-04  0.0117
   4.4623E-01   4.5708E-01   1.3631E-04  0.0116
   4.5708E-01   4.6821E-01   1.3784E-04  0.0114
   4.6821E-01   4.7960E-01   1.4066E-04  0.0112
   4.7960E-01   4.9127E-01   1.4012E-04  0.0110
   4.9127E-01   5.0322E-01   1.4124E-04  0.0109
   5.0322E-01   5.1546E-01   1.4060E-04  0.0108
   5.1546E-01   5.2800E-01   1.4408E-04  0.0105
   5.2800E-01   5.4085E-01   1.4304E-04  0.0104
   5.4085E-01   5.5401E-01   1.4732E-04  0.0101
   5.5401E-01   5.6749E-01   1.4423E-04  0.0101
   5.6749E-01   5.8130E-01   1.4694E-04  0.0099
   5.8130E-01   5.9544E-01   1.4359E-04  0.0099
   5.9544E-01   6.0993E-01   1.4335E-04  0.0098
   6.0993E-01   6.2477E-01   1.4597E-04  0.0096
   6.2477E-01   6.3997E-01   1.4662E-04  0.0095
   6.3997E-01   6.5554E-01   1.4812E-04  0.0093
   6.5554E-01   6.7149E-01   1.4468E-04  0.0093
   6.7149E-01   6.8783E-01   1.4672E-04  0.0091
   6.8783E-01   7.0456E-01   1.4635E-04  0.0090
   7.0456E-01   7.2171E-01   1.4574E-04  0.0089
   7.2171E-01   7.3927E-01   1.4535E-04  0.0088
   7.3927E-01   7.5725E-01   1.4519E-04  0.0087
   7.5725E-01   7.7568E-01   1.4552E-04  0.0086
   7.7568E-01   7.9455E-01   1.4606E-04  0.0085
   7.9455E-01   8.1388E-01   1.4538E-04  0.0084
   8.1388E-01   8.3368E-01   1.4401E-04  0.0084
   8.3368E-01   8.5397E-01   1.4408E-04  0.0083
   8.5397E-01   8.7475E-01   1.4127E-04  0.0082
   8.7475E-01   8.9603E-01   1.3989E-04  0.0082
   8.9603E-01   9.1783E-01   1.4135E-04  0.0080
   9.1783E-01   9.4016E-01   1.3482E-04  0.0081
   9.4016E-01   9.6304E-01   1.3165E-04  0.0081
   9.6304E-01   9.8647E-01   1.3011E-04  0.0081
   9.8647E-01   1.0105E+00   1.2635E-04  0.0081
   1.0105E+00   1.0351E+00   1.2554E-04  0.0080
   1.0351E+00   1.0602E+00   1.2559E-04  0.0079
   1.0602E+00   1.0860E+00   1.2274E-04  0.0079
   1.0860E+00   1.1125E+00   1.2350E-04  0.0078
   1.1125E+00   1.1395E+00   1.2247E-04  0.0077
   1.1395E+00   1.1673E+00   1.2430E-04  0.0076
   1.1673E+00   1.1957E+00   1.2375E-04  0.0075
   1.1957E+00   1.2247E+00   1.2587E-04  0.0074
   1.2247E+00   1.2545E+00   1.2339E-04  0.0074
   1.2545E+00   1.2851E+00   1.2198E-04  0.0073
   1.2851E+00   1.3163E+00   1.2239E-04  0.0072
   1.3163E+00   1.3484E+00   1.2178E-04  0.0071
   1.3484E+00   1.3812E+00   1.2154E-04  0.0071
   1.3812E+00   1.4148E+00   1.2113E-04  0.0070
   1.4148E+00   1.4492E+00   1.2055E-04  0.0069
   1.4492E+00   1.4845E+00   1.1843E-04  0.0069
   1.4845E+00   1.5206E+00   1.1764E-04  0.0068
   1.5206E+00   1.5576E+00   1.1531E-04  0.0068
   1.5576E+00   1.5955E+00   1.1644E-04  0.0067
   1.5955E+00   1.6343E+00   1.1539E-04  0.0067
   1.6343E+00   1.6741E+00   1.1293E-04  0.0067
   1.6741E+00   1.7148E+00   1.1187E-04  0.0066
   1.7148E+00   1.7565E+00   1.1319E-04  0.0065
   1.7565E+00   1.7992E+00   1.1146E-04  0.0065
   1.7992E+00   1.8430E+00   1.0962E-04  0.0064
   1.8430E+00   1.8879E+00   1.1033E-04  0.0063
   1.8879E+00   1.9338E+00   1.0838E-04  0.0063
   1.9338E+00   1.9808E+00   1.0839E-04  0.0062
   1.9808E+00   2.0290E+00   1.0673E-04  0.0062
   2.0290E+00   2.0784E+00   1.0610E-04  0.0062
   2.0784E+00   2.1290E+00   1.0544E-04  0.0061
   2.1290E+00   2.1808E+00   1.0485E-04  0.0061
   2.1808E+00   2.2338E+00   1.0417E-04  0.0060
   2.2338E+00   2.2882E+00   1.0257E-04  0.0060
   2.2882E+00   2.3439E+00   1.0234E-04  0.0059
   2.3439E+00   2.4009E+00   1.0178E-04  0.0059
   2.4009E+00   2.4593E+00   1.0067E-04  0.0058
   2.4593E+00   2.5191E+00   9.9395E-05  0.0058
   2.5191E+00   2.5804E+00   9.9169E-05  0.0057
   2.5804E+00   2.6432E+00   9.8149E-05  0.0057
   2.6432E+00   2.7075E+00   9.6194E-05  0.0057
   2.7075E+00   2.7734E+00   9.5925E-05  0.0056
   2.7734E+00   2.8409E+00   9.5447E-05  0.0056
   2.8409E+00   2.9100E+00   9.4559E-05  0.0055
   2.9100E+00   2.9808E+00   9.3891E-05  0.0055
   2.9808E+00   3.0533E+00   9.3272E-05  0.0054
   3.0533E+00   3.1276E+00   9.3036E-05  0.0054
   3.1276E+00   3.2037E+00   9.2225E-05  0.0053
   3.2037E+00   3.2817E+00   9.1623E-05  0.0053
   3.2817E+00   3.3615E+00   9.0427E-05  0.0053
   3.3615E+00   3.4433E+00   9.0253E-05  0.0052
   3.4433E+00   3.5271E+00   8.8340E-05  0.0052
   3.5271E+00   3.6129E+00   8.8192E-05  0.0051
   3.6129E+00   3.7008E+00   8.7471E-05  0.0051
   3.7008E+00   3.7908E+00   8.6242E-05  0.0051
   3.7908E+00   3.8831E+00   8.5298E-05  0.0050
   3.8831E+00   3.9776E+00   8.4724E-05  0.0050
   3.9776E+00   4.0743E+00   8.5055E-05  0.0049
   4.0743E+00   4.1735E+00   8.3389E-05  0.0049
   4.1735E+00   4.2750E+00   8.2990E-05  0.0049
   4.2750E+00   4.3790E+00   8.2500E-05  0.0048
   4.3790E+00   4.4856E+00   8.1020E-05  0.0048
   4.4856E+00   4.5947E+00   8.0943E-05  0.0047
   4.5947E+00   4.7065E+00   8.0297E-05  0.0047
   4.7065E+00   4.8210E+00   8.1271E-05  0.0046
   4.8210E+00   4.9383E+00   8.0648E-05  0.0046
   4.9383E+00   5.0585E+00   8.0112E-05  0.0046
   5.0585E+00   5.1815E+00   7.9964E-05  0.0045
   5.1815E+00   5.3076E+00   7.8430E-05  0.0045
   5.3076E+00   5.4368E+00   7.8453E-05  0.0044
   5.4368E+00   5.5690E+00   7.7996E-05  0.0044
   5.5690E+00   5.7045E+00   7.6929E-05  0.0044
   5.7045E+00   5.8433E+00   7.6554E-05  0.0043
   5.8433E+00   5.9855E+00   7.6330E-05  0.0043
   5.9855E+00   6.1311E+00   7.5331E-05  0.0043
   6.1311E+00   6.2803E+00   7.4767E-05  0.0042
   6.2803E+00   6.4331E+00   7.4213E-05  0.0042
   6.4331E+00   6.5896E+00   7.4184E-05  0.0041
   6.5896E+00   6.7500E+00   7.3879E-05  0.0041
   6.7500E+00   6.9142E+00   7.3005E-05  0.0041
   6.9142E+00   7.0824E+00   7.2898E-05  0.0040
   7.0824E+00   7.2548E+00   7.3315E-05  0.0040
   7.2548E+00   7.4313E+00   7.2219E-05  0.0040
   7.4313E+00   7.6121E+00   7.2102E-05  0.0039
   7.6121E+00   7.7973E+00   7.2093E-05  0.0039
   7.7973E+00   7.9870E+00   7.1368E-05  0.0038
   7.9870E+00   8.1813E+00   7.2181E-05  0.0038
   8.1813E+00   8.3804E+00   7.1854E-05  0.0037
   8.3804E+00   8.5843E+00   7.1907E-05  0.0037
   8.5843E+00   8.7931E+00   7.1829E-05  0.0036
   8.7931E+00   9.0071E+00   7.1946E-05  0.0036
   9.0071E+00   9.2262E+00   7.2116E-05  0.0036
   9.2262E+00   9.4507E+00   7.1763E-05  0.0035
   9.4507E+00   9.6807E+00   7.2209E-05  0.0035
   9.6807E+00   9.9162E+00   7.2250E-05  0.0034
   9.9162E+00   1.0157E+01   7.2885E-05  0.0034
   1.0157E+01   1.0405E+01   7.3580E-05  0.0033
   1.0405E+01   1.0658E+01   7.4176E-05  0.0033
   1.0658E+01   1.0917E+01   7.4909E-05  0.0032
   1.0917E+01   1.1183E+01   7.6041E-05  0.0031
   1.1183E+01   1.1455E+01   7.6487E-05  0.0031
   1.1455E+01   1.1733E+01   7.7856E-05  0.0030
   1.1733E+01   1.2019E+01   7.8587E-05  0.0030
   1.2019E+01   1.2311E+01   8.0058E-05  0.0029
   1.2311E+01   1.2611E+01   8.0445E-05  0.0029
   1.2611E+01   1.2918E+01   8.2501E-05  0.0028
   1.2918E+01   1.3232E+01   8.3900E-05  0.0028
   1.3232E+01   1.3554E+01   8.5385E-05  0.0027
   1.3554E+01   1.3884E+01   8.6814E-05  0.0026
   1.3884E+01   1.4222E+01   8.8663E-05  0.0026
   1.4222E+01   1.4568E+01   9.0648E-05  0.0025
   1.4568E+01   1.4922E+01   9.2984E-05  0.0025
   1.4922E+01   1.5285E+01   9.5116E-05  0.0024
   1.5285E+01   1.5657E+01   9.7285E-05  0.0024
   1.5657E+01   1.6038E+01   1.0038E-04  0.0023
   1.6038E+01   1.6428E+01   1.0276E-04  0.0022
   1.6428E+01   1.6828E+01   1.0590E-04  0.0022
   1.6828E+01   1.7237E+01   1.0926E-04  0.0021
   1.7237E+01   1.7657E+01   1.1251E-04  0.0021
   1.7657E+01   1.8086E+01   1.1619E-04  0.0020
   1.8086E+01   1.8526E+01   1.2054E-04  0.0019
   1.8526E+01   1.8977E+01   1.2449E-04  0.0019
   1.8977E+01   1.9439E+01   1.2939E-04  0.0018
   1.9439E+01   1.9912E+01   1.3398E-04  0.0018
   1.9912E+01   2.0396E+01   1.4033E-04  0.0017
   2.0396E+01   2.0893E+01   1.4612E-04  0.0017
   2.0893E+01   2.1401E+01   1.5179E-04  0.0016
   2.1401E+01   2.1922E+01   1.5777E-04  0.0016
   2.1922E+01   2.2455E+01   1.6439E-04  0.0015
   2.2455E+01   2.3001E+01   1.7077E-04  0.0015
   2.3001E+01   2.3561E+01   1.7782E-04  0.0014
   2.3561E+01   2.4134E+01   1.8520E-04  0.0014
   2.4134E+01   2.4721E+01   1.9259E-04  0.0013
   2.4721E+01   2.5323E+01   2.0056E-04  0.0013
   2.5323E+01   2.5939E+01   2.0830E-04  0.0012
   2.5939E+01   2.6570E+01   2.1666E-04  0.0012
   2.6570E+01   2.7217E+01   2.2478E-04  0.0012
   2.7217E+01   2.7879E+01   2.3299E-04  0.0011
   2.7879E+01   2.8557E+01   2.4095E-04  0.0011
   2.8557E+01   2.9252E+01   2.4823E-04  0.0011
   2.9252E+01   2.9964E+01   2.5485E-04  0.0011
   2.9964E+01   3.0693E+01   2.6202E-04  0.0010
   3.0693E+01   3.1440E+01   2.6750E-04  0.0010
   3.1440E+01   3.2205E+01   2.7196E-04  0.0010
   3.2205E+01   3.2988E+01   2.7487E-04  0.0010
   3.2988E+01   3.3791E+01   2.7745E-04  0.0009
   3.3791E+01   3.4613E+01   2.7828E-04  0.0009
   3.4613E+01   3.5455E+01   2.7788E-04  0.0009
   3.5455E+01   3.6318E+01   2.7603E-04  0.0009
   3.6318E+01   3.7201E+01   2.7269E-04  0.0009
   3.7201E+01   3.8106E+01   2.6763E-04  0.0009
   3.8106E+01   3.9034E+01   2.6154E-04  0.0009
   3.9034E+01   3.9983E+01   2.5374E-04  0.0009
   3.9983E+01   4.0956E+01   2.4438E-04  0.0009
   4.0956E+01   4.1953E+01   2.3343E-04  0.0009
   4.1953E+01   4.2973E+01   2.2220E-04  0.0009
   4.2973E+01   4.4019E+01   2.0904E-04  0.0010
   4.4019E+01   4.5090E+01   1.9604E-04  0.0010
   4.5090E+01   4.6187E+01   1.8214E-04  0.0010
   4.6187E+01   4.7311E+01   1.6821E-04  0.0010
   4.7311E+01   4.8462E+01   1.5404E-04  0.0011
   4.8462E+01   4.9641E+01   1.4065E-04  0.0011
   4.9641E+01   5.0849E+01   1.2762E-04  0.0011
   5.0849E+01   5.2086E+01   1.1506E-04  0.0012
   5.2086E+01   5.3353E+01   1.0320E-04  0.0012
   5.3353E+01   5.4651E+01   9.2592E-05  0.0013
   5.4651E+01   5.5981E+01   8.2904E-05  0.0013
   5.5981E+01   5.7343E+01   7.4166E-05  0.0014
   5.7343E+01   5.8738E+01   6.6037E-05  0.0015
   5.8738E+01   6.0168E+01   5.8768E-05  0.0015
   6.0168E+01   6.1632E+01   5.2124E-05  0.0016
   6.1632E+01   6.3131E+01   4.6131E-05  0.0017
   6.3131E+01   6.4667E+01   4.1424E-05  0.0018
   6.4667E+01   6.6240E+01   3.6885E-05  0.0019
   6.6240E+01   6.7852E+01   3.3224E-05  0.0019
   6.7852E+01   6.9503E+01   3.0149E-05  0.0020
   6.9503E+01   7.1194E+01   2.6973E-05  0.0021
   7.1194E+01   7.2926E+01   2.4135E-05  0.0022
   7.2926E+01   7.4701E+01   2.1316E-05  0.0023
   7.4701E+01   7.6518E+01   1.8859E-05  0.0024
   7.6518E+01   7.8380E+01   1.6531E-05  0.0025
   7.8380E+01   8.0287E+01   1.4560E-05  0.0027
   8.0287E+01   8.2240E+01   1.2850E-05  0.0028
   8.2240E+01   8.4241E+01   1.1277E-05  0.0030
   8.4241E+01   8.6291E+01   9.7157E-06  0.0032
   8.6291E+01   8.8391E+01   8.1340E-06  0.0034
   8.8391E+01   9.0541E+01   6.6663E-06  0.0037
   9.0541E+01   9.2744E+01   5.5812E-06  0.0040
   9.2744E+01   9.5001E+01   4.3684E-06  0.0045
   9.5001E+01   9.7312E+01   2.9588E-06  0.0054
   9.7312E+01   9.9680E+01   1.4452E-06  0.0076
   9.9680E+01   1.0211E+02   4.1422E-07  0.0141
   1.0211E+02   1.0459E+02   4.2185E-08  0.0437
   1.0459E+02   1.0713E+02   0.0000E+00  0.0000
   1.0713E+02   1.0974E+02   0.0000E+00  0.0000
   1.0974E+02   1.1241E+02   0.0000E+00  0.0000
   1.1241E+02   1.1515E+02   0.0000E+00  0.0000
   1.1515E+02   1.1795E+02   0.0000E+00  0.0000
   1.1795E+02   1.2082E+02   0.0000E+00  0.0000
   1.2082E+02   1.2376E+02   0.0000E+00  0.0000
   1.2376E+02   1.2677E+02   0.0000E+00  0.0000
   1.2677E+02   1.2985E+02   0.0000E+00  0.0000
   1.2985E+02   1.3301E+02   0.0000E+00  0.0000
   1.3301E+02   1.3625E+02   0.0000E+00  0.0000
   1.3625E+02   1.3956E+02   0.0000E+00  0.0000
   1.3956E+02   1.4296E+02   0.0000E+00  0.0000
   1.4296E+02   1.4644E+02   0.0000E+00  0.0000
   1.4644E+02   1.5000E+02   0.0000E+00  0.0000

#   sum over                 6.7267E-05
'no. =    1   reg = 104 - 204'
msuc: {\huge [t-cross] in region mesh}
msdr: {\it plotted by \ANGEL \version}
msdl: {\it calculated by \PHITS  3.28}
wt: s(0.7)
\vspace{-3}
  region surface crossing
  area  &=&   1.0000E+00 [cm^2]
e:
 
# Information for Restart Calculation
# This calculation was newly started
# istdev =  2 # 1:Batch variance, 2:History variance
# resc2  = 5.00000000000000000E+09 # Total source weight or Total source weight / maxcas
# resc3  = 5.00000000000000000E+09 # Total history number or Total batch number
# maxcas =   500000000 # History / Batch, only used for istdev=1
# bitrseed = 0110100000100010111000001110001111001110100100011111101000111001 # bit data of rseed
