[ T-Cross ]
    title = [t-cross] in region mesh
     mesh =  reg            # mesh type is region-wise
      reg =    1            # number of crossing regions
      non     r-from    r-to       area
      1       114       214        1.000000    
   e-type =    3            # e-mesh is log given by emin, emax and ne
     emin =  1.0000000E-02  # minimum value of e-mesh points
     emax =   150.0000      # maximum value of e-mesh points
#    edel =  2.4039514E-02  # mesh width of e-mesh points
       ne =    400          # number of e-mesh points
#    data = ( e(i), i = 1, ne + 1 )
#           1.00000E-02  1.02433E-02  1.04925E-02  1.07478E-02  1.10093E-02
#           1.12772E-02  1.15516E-02  1.18326E-02  1.21205E-02  1.24154E-02
#           1.27175E-02  1.30269E-02  1.33439E-02  1.36686E-02  1.40011E-02
#           1.43418E-02  1.46907E-02  1.50482E-02  1.54143E-02  1.57894E-02
#           1.61735E-02  1.65670E-02  1.69701E-02  1.73830E-02  1.78060E-02
#           1.82392E-02  1.86830E-02  1.91375E-02  1.96032E-02  2.00801E-02
#           2.05687E-02  2.10692E-02  2.15818E-02  2.21069E-02  2.26448E-02
#           2.31957E-02  2.37601E-02  2.43382E-02  2.49304E-02  2.55369E-02
#           2.61583E-02  2.67947E-02  2.74467E-02  2.81145E-02  2.87985E-02
#           2.94992E-02  3.02169E-02  3.09521E-02  3.17052E-02  3.24766E-02
#           3.32668E-02  3.40762E-02  3.49053E-02  3.57546E-02  3.66246E-02
#           3.75157E-02  3.84284E-02  3.93634E-02  4.03212E-02  4.13022E-02
#           4.23071E-02  4.33365E-02  4.43909E-02  4.54710E-02  4.65773E-02
#           4.77106E-02  4.88714E-02  5.00605E-02  5.12785E-02  5.25262E-02
#           5.38042E-02  5.51133E-02  5.64542E-02  5.78278E-02  5.92348E-02
#           6.06760E-02  6.21523E-02  6.36645E-02  6.52135E-02  6.68002E-02
#           6.84255E-02  7.00904E-02  7.17957E-02  7.35426E-02  7.53319E-02
#           7.71648E-02  7.90423E-02  8.09655E-02  8.29354E-02  8.49533E-02
#           8.70203E-02  8.91376E-02  9.13064E-02  9.35279E-02  9.58035E-02
#           9.81345E-02  1.00522E-01  1.02968E-01  1.05473E-01  1.08040E-01
#           1.10668E-01  1.13361E-01  1.16119E-01  1.18944E-01  1.21838E-01
#           1.24803E-01  1.27839E-01  1.30950E-01  1.34136E-01  1.37399E-01
#           1.40742E-01  1.44167E-01  1.47675E-01  1.51268E-01  1.54948E-01
#           1.58718E-01  1.62580E-01  1.66535E-01  1.70587E-01  1.74738E-01
#           1.78989E-01  1.83344E-01  1.87805E-01  1.92375E-01  1.97055E-01
#           2.01850E-01  2.06761E-01  2.11792E-01  2.16945E-01  2.22223E-01
#           2.27630E-01  2.33169E-01  2.38842E-01  2.44653E-01  2.50605E-01
#           2.56703E-01  2.62949E-01  2.69346E-01  2.75900E-01  2.82613E-01
#           2.89489E-01  2.96532E-01  3.03747E-01  3.11138E-01  3.18708E-01
#           3.26462E-01  3.34405E-01  3.42542E-01  3.50876E-01  3.59413E-01
#           3.68158E-01  3.77116E-01  3.86291E-01  3.95690E-01  4.05317E-01
#           4.15179E-01  4.25281E-01  4.35628E-01  4.46227E-01  4.57084E-01
#           4.68205E-01  4.79597E-01  4.91266E-01  5.03219E-01  5.15463E-01
#           5.28005E-01  5.40851E-01  5.54011E-01  5.67490E-01  5.81298E-01
#           5.95441E-01  6.09929E-01  6.24769E-01  6.39970E-01  6.55541E-01
#           6.71491E-01  6.87828E-01  7.04564E-01  7.21706E-01  7.39266E-01
#           7.57253E-01  7.75678E-01  7.94551E-01  8.13883E-01  8.33685E-01
#           8.53969E-01  8.74747E-01  8.96030E-01  9.17831E-01  9.40163E-01
#           9.63038E-01  9.86469E-01  1.01047E+00  1.03506E+00  1.06024E+00
#           1.08604E+00  1.11246E+00  1.13953E+00  1.16725E+00  1.19565E+00
#           1.22474E+00  1.25454E+00  1.28507E+00  1.31633E+00  1.34836E+00
#           1.38117E+00  1.41477E+00  1.44920E+00  1.48446E+00  1.52057E+00
#           1.55757E+00  1.59547E+00  1.63429E+00  1.67405E+00  1.71478E+00
#           1.75650E+00  1.79924E+00  1.84302E+00  1.88786E+00  1.93379E+00
#           1.98084E+00  2.02904E+00  2.07841E+00  2.12898E+00  2.18078E+00
#           2.23384E+00  2.28819E+00  2.34386E+00  2.40089E+00  2.45930E+00
#           2.51914E+00  2.58043E+00  2.64322E+00  2.70753E+00  2.77341E+00
#           2.84088E+00  2.91001E+00  2.98081E+00  3.05333E+00  3.12762E+00
#           3.20372E+00  3.28167E+00  3.36152E+00  3.44330E+00  3.52708E+00
#           3.61290E+00  3.70080E+00  3.79085E+00  3.88308E+00  3.97756E+00
#           4.07434E+00  4.17347E+00  4.27501E+00  4.37903E+00  4.48557E+00
#           4.59471E+00  4.70650E+00  4.82102E+00  4.93832E+00  5.05847E+00
#           5.18155E+00  5.30762E+00  5.43676E+00  5.56904E+00  5.70453E+00
#           5.84333E+00  5.98550E+00  6.13114E+00  6.28031E+00  6.43312E+00
#           6.58964E+00  6.74997E+00  6.91420E+00  7.08243E+00  7.25475E+00
#           7.43126E+00  7.61207E+00  7.79728E+00  7.98700E+00  8.18133E+00
#           8.38038E+00  8.58428E+00  8.79315E+00  9.00709E+00  9.22624E+00
#           9.45072E+00  9.68067E+00  9.91620E+00  1.01575E+01  1.04046E+01
#           1.06578E+01  1.09171E+01  1.11827E+01  1.14548E+01  1.17335E+01
#           1.20190E+01  1.23114E+01  1.26109E+01  1.29178E+01  1.32321E+01
#           1.35540E+01  1.38838E+01  1.42216E+01  1.45676E+01  1.49221E+01
#           1.52851E+01  1.56570E+01  1.60380E+01  1.64282E+01  1.68279E+01
#           1.72374E+01  1.76568E+01  1.80864E+01  1.85264E+01  1.89772E+01
#           1.94389E+01  1.99119E+01  2.03963E+01  2.08926E+01  2.14009E+01
#           2.19216E+01  2.24550E+01  2.30014E+01  2.35610E+01  2.41343E+01
#           2.47215E+01  2.53230E+01  2.59391E+01  2.65702E+01  2.72167E+01
#           2.78789E+01  2.85572E+01  2.92520E+01  2.99637E+01  3.06928E+01
#           3.14396E+01  3.22045E+01  3.29881E+01  3.37907E+01  3.46128E+01
#           3.54550E+01  3.63177E+01  3.72013E+01  3.81064E+01  3.90336E+01
#           3.99833E+01  4.09561E+01  4.19526E+01  4.29734E+01  4.40189E+01
#           4.50900E+01  4.61870E+01  4.73108E+01  4.84619E+01  4.96410E+01
#           5.08488E+01  5.20860E+01  5.33533E+01  5.46514E+01  5.59812E+01
#           5.73432E+01  5.87384E+01  6.01676E+01  6.16315E+01  6.31311E+01
#           6.46671E+01  6.62405E+01  6.78522E+01  6.95031E+01  7.11941E+01
#           7.29263E+01  7.47007E+01  7.65182E+01  7.83800E+01  8.02870E+01
#           8.22405E+01  8.42414E+01  8.62911E+01  8.83906E+01  9.05412E+01
#           9.27442E+01  9.50007E+01  9.73122E+01  9.96799E+01  1.02105E+02
#           1.04589E+02  1.07134E+02  1.09741E+02  1.12411E+02  1.15146E+02
#           1.17948E+02  1.20817E+02  1.23757E+02  1.26768E+02  1.29852E+02
#           1.33012E+02  1.36248E+02  1.39563E+02  1.42959E+02  1.46437E+02
#           1.50000E+02
     unit =    2            # unit is [1/cm^2/(MeV/n)/source]
     axis =  eng            # axis of output
     file = detector-15.out  # file name of output for the above axis
   output = f-curr          # surface crossing forward current spectrum
     part =  neutron  
# kf/name :  2112     
#    used :        main (  %)        temp (  %)       total (  %)
#  memory :         414 (  0)           0 (  0)         414 (  0)

#------------------------------------------------------------------------------
#newpage:
#   no. =    1   reg = 114 - 214

x: Energy [MeV/n]
y:  F-Curr [1/cm^2/(MeV/n)/source]         
p: xlog ylog afac(0.8) form(0.9)
h: n            x            y(neutron ),hh0l   n 
#  e-lower      e-upper      neutron     r.err 
   1.0000E-02   1.0243E-02   8.2154E-04  0.0316
   1.0243E-02   1.0493E-02   7.8800E-04  0.0319
   1.0493E-02   1.0748E-02   8.4358E-04  0.0304
   1.0748E-02   1.1009E-02   7.5007E-04  0.0319
   1.1009E-02   1.1277E-02   7.4620E-04  0.0316
   1.1277E-02   1.1552E-02   7.8302E-04  0.0305
   1.1552E-02   1.1833E-02   7.4496E-04  0.0308
   1.1833E-02   1.2121E-02   7.2261E-04  0.0309
   1.2121E-02   1.2415E-02   6.9884E-04  0.0311
   1.2415E-02   1.2718E-02   7.2102E-04  0.0302
   1.2718E-02   1.3027E-02   6.9313E-04  0.0305
   1.3027E-02   1.3344E-02   6.6239E-04  0.0308
   1.3344E-02   1.3669E-02   6.9596E-04  0.0297
   1.3669E-02   1.4001E-02   6.3102E-04  0.0308
   1.4001E-02   1.4342E-02   6.6608E-04  0.0297
   1.4342E-02   1.4691E-02   6.9065E-04  0.0288
   1.4691E-02   1.5048E-02   6.4536E-04  0.0294
   1.5048E-02   1.5414E-02   6.3634E-04  0.0293
   1.5414E-02   1.5789E-02   6.0684E-04  0.0296
   1.5789E-02   1.6174E-02   6.3685E-04  0.0286
   1.6174E-02   1.6567E-02   6.0126E-04  0.0290
   1.6567E-02   1.6970E-02   5.9337E-04  0.0289
   1.6970E-02   1.7383E-02   6.0513E-04  0.0282
   1.7383E-02   1.7806E-02   5.6056E-04  0.0290
   1.7806E-02   1.8239E-02   5.6671E-04  0.0285
   1.8239E-02   1.8683E-02   5.5536E-04  0.0284
   1.8683E-02   1.9138E-02   5.5015E-04  0.0282
   1.9138E-02   1.9603E-02   5.1556E-04  0.0288
   1.9603E-02   2.0080E-02   5.3456E-04  0.0279
   2.0080E-02   2.0569E-02   5.4039E-04  0.0275
   2.0569E-02   2.1069E-02   5.0696E-04  0.0280
   2.1069E-02   2.1582E-02   5.0299E-04  0.0278
   2.1582E-02   2.2107E-02   4.6878E-04  0.0285
   2.2107E-02   2.2645E-02   4.9477E-04  0.0274
   2.2645E-02   2.3196E-02   4.9107E-04  0.0271
   2.3196E-02   2.3760E-02   4.6786E-04  0.0275
   2.3760E-02   2.4338E-02   4.6872E-04  0.0271
   2.4338E-02   2.4930E-02   4.5121E-04  0.0273
   2.4930E-02   2.5537E-02   4.6138E-04  0.0267
   2.5537E-02   2.6158E-02   4.4219E-04  0.0269
   2.6158E-02   2.6795E-02   4.2692E-04  0.0271
   2.6795E-02   2.7447E-02   4.0763E-04  0.0274
   2.7447E-02   2.8114E-02   4.1944E-04  0.0267
   2.8114E-02   2.8799E-02   3.9445E-04  0.0272
   2.8799E-02   2.9499E-02   4.1466E-04  0.0262
   2.9499E-02   3.0217E-02   3.7782E-04  0.0271
   3.0217E-02   3.0952E-02   3.9310E-04  0.0263
   3.0952E-02   3.1705E-02   4.0520E-04  0.0256
   3.1705E-02   3.2477E-02   3.9002E-04  0.0257
   3.2477E-02   3.3267E-02   3.6729E-04  0.0262
   3.3267E-02   3.4076E-02   3.4865E-04  0.0266
   3.4076E-02   3.4905E-02   3.6315E-04  0.0257
   3.4905E-02   3.5755E-02   3.6706E-04  0.0253
   3.5755E-02   3.6625E-02   3.3687E-04  0.0261
   3.6625E-02   3.7516E-02   3.4013E-04  0.0256
   3.7516E-02   3.8428E-02   3.2661E-04  0.0259
   3.8428E-02   3.9363E-02   3.1914E-04  0.0258
   3.9363E-02   4.0321E-02   3.1656E-04  0.0256
   4.0321E-02   4.1302E-02   3.2502E-04  0.0250
   4.1302E-02   4.2307E-02   3.1688E-04  0.0250
   4.2307E-02   4.3337E-02   3.0629E-04  0.0251
   4.3337E-02   4.4391E-02   3.0466E-04  0.0249
   4.4391E-02   4.5471E-02   3.0234E-04  0.0247
   4.5471E-02   4.6577E-02   2.9298E-04  0.0248
   4.6577E-02   4.7711E-02   2.8468E-04  0.0249
   4.7711E-02   4.8871E-02   2.6816E-04  0.0253
   4.8871E-02   5.0061E-02   2.7430E-04  0.0247
   5.0061E-02   5.1279E-02   2.6544E-04  0.0248
   5.1279E-02   5.2526E-02   2.5967E-04  0.0248
   5.2526E-02   5.3804E-02   2.6682E-04  0.0242
   5.3804E-02   5.5113E-02   2.5178E-04  0.0246
   5.5113E-02   5.6454E-02   2.4724E-04  0.0245
   5.6454E-02   5.7828E-02   2.5055E-04  0.0241
   5.7828E-02   5.9235E-02   2.4772E-04  0.0239
   5.9235E-02   6.0676E-02   2.3598E-04  0.0242
   6.0676E-02   6.2152E-02   2.3954E-04  0.0237
   6.2152E-02   6.3665E-02   2.2859E-04  0.0240
   6.3665E-02   6.5214E-02   2.2470E-04  0.0239
   6.5214E-02   6.6800E-02   2.2237E-04  0.0238
   6.6800E-02   6.8426E-02   2.1461E-04  0.0239
   6.8426E-02   7.0090E-02   2.2291E-04  0.0232
   7.0090E-02   7.1796E-02   2.0719E-04  0.0237
   7.1796E-02   7.3543E-02   2.1628E-04  0.0230
   7.3543E-02   7.5332E-02   2.0666E-04  0.0232
   7.5332E-02   7.7165E-02   1.9648E-04  0.0235
   7.7165E-02   7.9042E-02   1.9430E-04  0.0234
   7.9042E-02   8.0965E-02   1.9076E-04  0.0233
   8.0965E-02   8.2935E-02   1.8846E-04  0.0232
   8.2935E-02   8.4953E-02   1.7980E-04  0.0234
   8.4953E-02   8.7020E-02   1.8146E-04  0.0230
   8.7020E-02   8.9138E-02   1.8149E-04  0.0228
   8.9138E-02   9.1306E-02   1.7771E-04  0.0227
   9.1306E-02   9.3528E-02   1.7031E-04  0.0230
   9.3528E-02   9.5804E-02   1.7178E-04  0.0226
   9.5804E-02   9.8134E-02   1.5936E-04  0.0232
   9.8134E-02   1.0052E-01   1.6974E-04  0.0222
   1.0052E-01   1.0297E-01   1.5824E-04  0.0227
   1.0297E-01   1.0547E-01   1.5265E-04  0.0228
   1.0547E-01   1.0804E-01   1.5208E-04  0.0226
   1.0804E-01   1.1067E-01   1.4665E-04  0.0227
   1.1067E-01   1.1336E-01   1.5204E-04  0.0221
   1.1336E-01   1.1612E-01   1.3527E-04  0.0231
   1.1612E-01   1.1894E-01   1.4277E-04  0.0222
   1.1894E-01   1.2184E-01   1.4240E-04  0.0220
   1.2184E-01   1.2480E-01   1.3978E-04  0.0219
   1.2480E-01   1.2784E-01   1.3465E-04  0.0221
   1.2784E-01   1.3095E-01   1.3015E-04  0.0222
   1.3095E-01   1.3414E-01   1.2968E-04  0.0220
   1.3414E-01   1.3740E-01   1.2261E-04  0.0223
   1.3740E-01   1.4074E-01   1.2197E-04  0.0221
   1.4074E-01   1.4417E-01   1.2325E-04  0.0217
   1.4417E-01   1.4767E-01   1.2392E-04  0.0214
   1.4767E-01   1.5127E-01   1.1558E-04  0.0219
   1.5127E-01   1.5495E-01   1.1231E-04  0.0219
   1.5495E-01   1.5872E-01   1.1427E-04  0.0215
   1.5872E-01   1.6258E-01   1.1188E-04  0.0215
   1.6258E-01   1.6654E-01   1.0562E-04  0.0218
   1.6654E-01   1.7059E-01   1.0379E-04  0.0218
   1.7059E-01   1.7474E-01   1.0662E-04  0.0212
   1.7474E-01   1.7899E-01   1.0329E-04  0.0213
   1.7899E-01   1.8334E-01   1.0320E-04  0.0210
   1.8334E-01   1.8781E-01   1.0001E-04  0.0211
   1.8781E-01   1.9237E-01   9.4864E-05  0.0214
   1.9237E-01   1.9706E-01   9.1737E-05  0.0215
   1.9706E-01   2.0185E-01   9.7102E-05  0.0207
   2.0185E-01   2.0676E-01   9.1813E-05  0.0210
   2.0676E-01   2.1179E-01   9.4777E-05  0.0204
   2.1179E-01   2.1694E-01   9.6408E-05  0.0200
   2.1694E-01   2.2222E-01   1.0420E-04  0.0190
   2.2222E-01   2.2763E-01   1.0534E-04  0.0187
   2.2763E-01   2.3317E-01   1.0647E-04  0.0184
   2.3317E-01   2.3884E-01   1.1279E-04  0.0176
   2.3884E-01   2.4465E-01   1.1386E-04  0.0174
   2.4465E-01   2.5061E-01   1.1309E-04  0.0172
   2.5061E-01   2.5670E-01   1.2001E-04  0.0165
   2.5670E-01   2.6295E-01   1.1995E-04  0.0163
   2.6295E-01   2.6935E-01   1.2634E-04  0.0157
   2.6935E-01   2.7590E-01   1.2711E-04  0.0155
   2.7590E-01   2.8261E-01   1.3077E-04  0.0151
   2.8261E-01   2.8949E-01   1.3572E-04  0.0146
   2.8949E-01   2.9653E-01   1.4035E-04  0.0142
   2.9653E-01   3.0375E-01   1.4326E-04  0.0139
   3.0375E-01   3.1114E-01   1.4153E-04  0.0138
   3.1114E-01   3.1871E-01   1.4288E-04  0.0136
   3.1871E-01   3.2646E-01   1.4670E-04  0.0132
   3.2646E-01   3.3441E-01   1.5258E-04  0.0128
   3.3441E-01   3.4254E-01   1.5779E-04  0.0125
   3.4254E-01   3.5088E-01   1.5958E-04  0.0122
   3.5088E-01   3.5941E-01   1.5942E-04  0.0121
   3.5941E-01   3.6816E-01   1.6852E-04  0.0116
   3.6816E-01   3.7712E-01   1.7109E-04  0.0114
   3.7712E-01   3.8629E-01   1.7517E-04  0.0111
   3.8629E-01   3.9569E-01   1.7352E-04  0.0110
   3.9569E-01   4.0532E-01   1.8045E-04  0.0107
   4.0532E-01   4.1518E-01   1.7969E-04  0.0106
   4.1518E-01   4.2528E-01   1.8545E-04  0.0103
   4.2528E-01   4.3563E-01   1.8475E-04  0.0102
   4.3563E-01   4.4623E-01   1.9019E-04  0.0099
   4.4623E-01   4.5708E-01   1.9165E-04  0.0098
   4.5708E-01   4.6821E-01   1.9395E-04  0.0096
   4.6821E-01   4.7960E-01   1.9615E-04  0.0094
   4.7960E-01   4.9127E-01   2.0079E-04  0.0092
   4.9127E-01   5.0322E-01   2.0193E-04  0.0091
   5.0322E-01   5.1546E-01   1.9956E-04  0.0090
   5.1546E-01   5.2800E-01   2.0764E-04  0.0087
   5.2800E-01   5.4085E-01   2.0899E-04  0.0086
   5.4085E-01   5.5401E-01   2.1227E-04  0.0084
   5.5401E-01   5.6749E-01   2.0787E-04  0.0084
   5.6749E-01   5.8130E-01   2.1291E-04  0.0082
   5.8130E-01   5.9544E-01   2.1496E-04  0.0081
   5.9544E-01   6.0993E-01   2.1463E-04  0.0080
   6.0993E-01   6.2477E-01   2.1566E-04  0.0079
   6.2477E-01   6.3997E-01   2.1521E-04  0.0078
   6.3997E-01   6.5554E-01   2.1742E-04  0.0077
   6.5554E-01   6.7149E-01   2.1537E-04  0.0076
   6.7149E-01   6.8783E-01   2.2068E-04  0.0074
   6.8783E-01   7.0456E-01   2.1659E-04  0.0074
   7.0456E-01   7.2171E-01   2.1223E-04  0.0074
   7.2171E-01   7.3927E-01   2.1742E-04  0.0072
   7.3927E-01   7.5725E-01   2.1586E-04  0.0072
   7.5725E-01   7.7568E-01   2.1147E-04  0.0071
   7.7568E-01   7.9455E-01   2.1001E-04  0.0071
   7.9455E-01   8.1388E-01   2.0954E-04  0.0070
   8.1388E-01   8.3368E-01   2.1057E-04  0.0069
   8.3368E-01   8.5397E-01   2.0490E-04  0.0069
   8.5397E-01   8.7475E-01   2.0382E-04  0.0068
   8.7475E-01   8.9603E-01   2.0142E-04  0.0068
   8.9603E-01   9.1783E-01   1.9579E-04  0.0068
   9.1783E-01   9.4016E-01   1.9043E-04  0.0068
   9.4016E-01   9.6304E-01   1.8612E-04  0.0068
   9.6304E-01   9.8647E-01   1.8529E-04  0.0068
   9.8647E-01   1.0105E+00   1.8159E-04  0.0068
   1.0105E+00   1.0351E+00   1.8545E-04  0.0066
   1.0351E+00   1.0602E+00   1.8562E-04  0.0065
   1.0602E+00   1.0860E+00   1.9157E-04  0.0063
   1.0860E+00   1.1125E+00   1.9441E-04  0.0062
   1.1125E+00   1.1395E+00   2.0048E-04  0.0060
   1.1395E+00   1.1673E+00   2.0242E-04  0.0059
   1.1673E+00   1.1957E+00   2.1056E-04  0.0058
   1.1957E+00   1.2247E+00   2.1826E-04  0.0056
   1.2247E+00   1.2545E+00   2.2119E-04  0.0055
   1.2545E+00   1.2851E+00   2.2516E-04  0.0054
   1.2851E+00   1.3163E+00   2.2896E-04  0.0053
   1.3163E+00   1.3484E+00   2.3461E-04  0.0051
   1.3484E+00   1.3812E+00   2.4252E-04  0.0050
   1.3812E+00   1.4148E+00   2.5242E-04  0.0048
   1.4148E+00   1.4492E+00   2.5250E-04  0.0048
   1.4492E+00   1.4845E+00   2.5614E-04  0.0047
   1.4845E+00   1.5206E+00   2.6120E-04  0.0046
   1.5206E+00   1.5576E+00   2.5965E-04  0.0045
   1.5576E+00   1.5955E+00   2.6794E-04  0.0044
   1.5955E+00   1.6343E+00   2.7179E-04  0.0043
   1.6343E+00   1.6741E+00   2.7808E-04  0.0042
   1.6741E+00   1.7148E+00   2.8919E-04  0.0041
   1.7148E+00   1.7565E+00   2.9118E-04  0.0040
   1.7565E+00   1.7992E+00   2.9341E-04  0.0040
   1.7992E+00   1.8430E+00   2.9649E-04  0.0039
   1.8430E+00   1.8879E+00   3.0135E-04  0.0038
   1.8879E+00   1.9338E+00   3.0507E-04  0.0038
   1.9338E+00   1.9808E+00   3.1136E-04  0.0037
   1.9808E+00   2.0290E+00   3.1535E-04  0.0036
   2.0290E+00   2.0784E+00   3.1913E-04  0.0035
   2.0784E+00   2.1290E+00   3.1658E-04  0.0035
   2.1290E+00   2.1808E+00   3.1792E-04  0.0035
   2.1808E+00   2.2338E+00   3.2182E-04  0.0034
   2.2338E+00   2.2882E+00   3.2396E-04  0.0034
   2.2882E+00   2.3439E+00   3.2744E-04  0.0033
   2.3439E+00   2.4009E+00   3.3529E-04  0.0032
   2.4009E+00   2.4593E+00   3.3667E-04  0.0032
   2.4593E+00   2.5191E+00   3.3539E-04  0.0031
   2.5191E+00   2.5804E+00   3.3690E-04  0.0031
   2.5804E+00   2.6432E+00   3.3515E-04  0.0031
   2.6432E+00   2.7075E+00   3.3378E-04  0.0030
   2.7075E+00   2.7734E+00   3.3576E-04  0.0030
   2.7734E+00   2.8409E+00   3.3835E-04  0.0029
   2.8409E+00   2.9100E+00   3.3861E-04  0.0029
   2.9100E+00   2.9808E+00   3.4100E-04  0.0029
   2.9808E+00   3.0533E+00   3.4183E-04  0.0028
   3.0533E+00   3.1276E+00   3.3953E-04  0.0028
   3.1276E+00   3.2037E+00   3.3716E-04  0.0028
   3.2037E+00   3.2817E+00   3.3422E-04  0.0028
   3.2817E+00   3.3615E+00   3.3243E-04  0.0027
   3.3615E+00   3.4433E+00   3.2885E-04  0.0027
   3.4433E+00   3.5271E+00   3.2741E-04  0.0027
   3.5271E+00   3.6129E+00   3.2616E-04  0.0027
   3.6129E+00   3.7008E+00   3.2484E-04  0.0026
   3.7008E+00   3.7908E+00   3.1994E-04  0.0026
   3.7908E+00   3.8831E+00   3.1545E-04  0.0026
   3.8831E+00   3.9776E+00   3.1442E-04  0.0026
   3.9776E+00   4.0743E+00   3.1100E-04  0.0026
   4.0743E+00   4.1735E+00   3.0685E-04  0.0026
   4.1735E+00   4.2750E+00   3.0270E-04  0.0025
   4.2750E+00   4.3790E+00   2.9767E-04  0.0025
   4.3790E+00   4.4856E+00   2.9292E-04  0.0025
   4.4856E+00   4.5947E+00   2.8767E-04  0.0025
   4.5947E+00   4.7065E+00   2.8384E-04  0.0025
   4.7065E+00   4.8210E+00   2.8082E-04  0.0025
   4.8210E+00   4.9383E+00   2.7676E-04  0.0025
   4.9383E+00   5.0585E+00   2.6909E-04  0.0025
   5.0585E+00   5.1815E+00   2.6348E-04  0.0025
   5.1815E+00   5.3076E+00   2.5694E-04  0.0025
   5.3076E+00   5.4368E+00   2.5078E-04  0.0025
   5.4368E+00   5.5690E+00   2.4520E-04  0.0025
   5.5690E+00   5.7045E+00   2.3851E-04  0.0025
   5.7045E+00   5.8433E+00   2.3303E-04  0.0025
   5.8433E+00   5.9855E+00   2.2738E-04  0.0025
   5.9855E+00   6.1311E+00   2.2162E-04  0.0025
   6.1311E+00   6.2803E+00   2.1500E-04  0.0025
   6.2803E+00   6.4331E+00   2.0973E-04  0.0025
   6.4331E+00   6.5896E+00   2.0386E-04  0.0025
   6.5896E+00   6.7500E+00   1.9693E-04  0.0025
   6.7500E+00   6.9142E+00   1.9181E-04  0.0025
   6.9142E+00   7.0824E+00   1.8503E-04  0.0025
   7.0824E+00   7.2548E+00   1.8028E-04  0.0025
   7.2548E+00   7.4313E+00   1.7402E-04  0.0025
   7.4313E+00   7.6121E+00   1.6810E-04  0.0026
   7.6121E+00   7.7973E+00   1.6095E-04  0.0026
   7.7973E+00   7.9870E+00   1.5583E-04  0.0026
   7.9870E+00   8.1813E+00   1.4939E-04  0.0026
   8.1813E+00   8.3804E+00   1.4363E-04  0.0026
   8.3804E+00   8.5843E+00   1.3770E-04  0.0027
   8.5843E+00   8.7931E+00   1.3284E-04  0.0027
   8.7931E+00   9.0071E+00   1.2751E-04  0.0027
   9.0071E+00   9.2262E+00   1.2263E-04  0.0027
   9.2262E+00   9.4507E+00   1.1765E-04  0.0027
   9.4507E+00   9.6807E+00   1.1278E-04  0.0028
   9.6807E+00   9.9162E+00   1.0819E-04  0.0028
   9.9162E+00   1.0157E+01   1.0469E-04  0.0028
   1.0157E+01   1.0405E+01   1.0144E-04  0.0028
   1.0405E+01   1.0658E+01   9.9536E-05  0.0028
   1.0658E+01   1.0917E+01   9.5888E-05  0.0028
   1.0917E+01   1.1183E+01   9.2071E-05  0.0029
   1.1183E+01   1.1455E+01   8.8456E-05  0.0029
   1.1455E+01   1.1733E+01   8.5201E-05  0.0029
   1.1733E+01   1.2019E+01   8.1108E-05  0.0029
   1.2019E+01   1.2311E+01   7.6914E-05  0.0030
   1.2311E+01   1.2611E+01   7.3342E-05  0.0030
   1.2611E+01   1.2918E+01   6.9999E-05  0.0030
   1.2918E+01   1.3232E+01   6.7628E-05  0.0031
   1.3232E+01   1.3554E+01   6.4491E-05  0.0031
   1.3554E+01   1.3884E+01   6.1692E-05  0.0031
   1.3884E+01   1.4222E+01   5.9053E-05  0.0032
   1.4222E+01   1.4568E+01   5.6140E-05  0.0032
   1.4568E+01   1.4922E+01   5.3070E-05  0.0033
   1.4922E+01   1.5285E+01   5.0607E-05  0.0033
   1.5285E+01   1.5657E+01   4.8048E-05  0.0033
   1.5657E+01   1.6038E+01   4.5480E-05  0.0034
   1.6038E+01   1.6428E+01   4.3506E-05  0.0034
   1.6428E+01   1.6828E+01   4.1581E-05  0.0035
   1.6828E+01   1.7237E+01   3.9503E-05  0.0035
   1.7237E+01   1.7657E+01   3.7632E-05  0.0036
   1.7657E+01   1.8086E+01   3.5623E-05  0.0036
   1.8086E+01   1.8526E+01   3.3739E-05  0.0037
   1.8526E+01   1.8977E+01   3.2481E-05  0.0037
   1.8977E+01   1.9439E+01   3.1103E-05  0.0037
   1.9439E+01   1.9912E+01   3.0171E-05  0.0037
   1.9912E+01   2.0396E+01   2.9633E-05  0.0037
   2.0396E+01   2.0893E+01   2.8331E-05  0.0038
   2.0893E+01   2.1401E+01   2.6665E-05  0.0038
   2.1401E+01   2.1922E+01   2.5352E-05  0.0039
   2.1922E+01   2.2455E+01   2.4110E-05  0.0039
   2.2455E+01   2.3001E+01   2.2676E-05  0.0040
   2.3001E+01   2.3561E+01   2.1164E-05  0.0041
   2.3561E+01   2.4134E+01   2.0165E-05  0.0042
   2.4134E+01   2.4721E+01   1.8917E-05  0.0042
   2.4721E+01   2.5323E+01   1.7683E-05  0.0043
   2.5323E+01   2.5939E+01   1.6530E-05  0.0044
   2.5939E+01   2.6570E+01   1.5610E-05  0.0045
   2.6570E+01   2.7217E+01   1.4605E-05  0.0046
   2.7217E+01   2.7879E+01   1.3440E-05  0.0047
   2.7879E+01   2.8557E+01   1.2715E-05  0.0048
   2.8557E+01   2.9252E+01   1.1783E-05  0.0049
   2.9252E+01   2.9964E+01   1.0890E-05  0.0051
   2.9964E+01   3.0693E+01   1.0066E-05  0.0052
   3.0693E+01   3.1440E+01   9.2038E-06  0.0054
   3.1440E+01   3.2205E+01   8.5211E-06  0.0055
   3.2205E+01   3.2988E+01   7.8748E-06  0.0057
   3.2988E+01   3.3791E+01   7.0980E-06  0.0059
   3.3791E+01   3.4613E+01   6.4917E-06  0.0061
   3.4613E+01   3.5455E+01   5.9416E-06  0.0063
   3.5455E+01   3.6318E+01   5.3860E-06  0.0066
   3.6318E+01   3.7201E+01   4.8687E-06  0.0068
   3.7201E+01   3.8106E+01   4.3512E-06  0.0071
   3.8106E+01   3.9034E+01   3.9421E-06  0.0074
   3.9034E+01   3.9983E+01   3.5598E-06  0.0077
   3.9983E+01   4.0956E+01   3.1255E-06  0.0081
   4.0956E+01   4.1953E+01   2.7781E-06  0.0085
   4.1953E+01   4.2973E+01   2.4484E-06  0.0089
   4.2973E+01   4.4019E+01   2.1881E-06  0.0093
   4.4019E+01   4.5090E+01   1.8782E-06  0.0100
   4.5090E+01   4.6187E+01   1.6810E-06  0.0104
   4.6187E+01   4.7311E+01   1.4845E-06  0.0109
   4.7311E+01   4.8462E+01   1.2680E-06  0.0117
   4.8462E+01   4.9641E+01   1.1180E-06  0.0123
   4.9641E+01   5.0849E+01   9.6323E-07  0.0131
   5.0849E+01   5.2086E+01   8.4902E-07  0.0138
   5.2086E+01   5.3353E+01   7.0528E-07  0.0150
   5.3353E+01   5.4651E+01   5.9563E-07  0.0161
   5.4651E+01   5.5981E+01   5.2553E-07  0.0169
   5.5981E+01   5.7343E+01   4.5005E-07  0.0181
   5.7343E+01   5.8738E+01   3.8532E-07  0.0193
   5.8738E+01   6.0168E+01   3.1823E-07  0.0210
   6.0168E+01   6.1632E+01   2.7037E-07  0.0225
   6.1632E+01   6.3131E+01   2.2967E-07  0.0241
   6.3131E+01   6.4667E+01   2.0364E-07  0.0253
   6.4667E+01   6.6240E+01   1.7071E-07  0.0273
   6.6240E+01   6.7852E+01   1.5115E-07  0.0287
   6.7852E+01   6.9503E+01   1.3060E-07  0.0305
   6.9503E+01   7.1194E+01   1.0136E-07  0.0342
   7.1194E+01   7.2926E+01   8.5325E-08  0.0368
   7.2926E+01   7.4701E+01   6.7630E-08  0.0408
   7.4701E+01   7.6518E+01   6.0412E-08  0.0427
   7.6518E+01   7.8380E+01   4.0822E-08  0.0513
   7.8380E+01   8.0287E+01   3.3245E-08  0.0562
   8.0287E+01   8.2240E+01   2.4879E-08  0.0642
   8.2240E+01   8.4241E+01   1.4093E-08  0.0842
   8.4241E+01   8.6291E+01   8.6844E-09  0.1060
   8.6291E+01   8.8391E+01   5.2393E-09  0.1348
   8.8391E+01   9.0541E+01   3.7199E-09  0.1581
   9.0541E+01   9.2744E+01   3.9947E-09  0.1508
   9.2744E+01   9.5001E+01   2.2158E-09  0.2000
   9.5001E+01   9.7312E+01   9.5179E-10  0.3015
   9.7312E+01   9.9680E+01   8.4471E-10  0.3162
   9.9680E+01   1.0211E+02   2.4739E-10  0.5774
   1.0211E+02   1.0459E+02   0.0000E+00  0.0000
   1.0459E+02   1.0713E+02   0.0000E+00  0.0000
   1.0713E+02   1.0974E+02   0.0000E+00  0.0000
   1.0974E+02   1.1241E+02   0.0000E+00  0.0000
   1.1241E+02   1.1515E+02   0.0000E+00  0.0000
   1.1515E+02   1.1795E+02   0.0000E+00  0.0000
   1.1795E+02   1.2082E+02   0.0000E+00  0.0000
   1.2082E+02   1.2376E+02   0.0000E+00  0.0000
   1.2376E+02   1.2677E+02   0.0000E+00  0.0000
   1.2677E+02   1.2985E+02   0.0000E+00  0.0000
   1.2985E+02   1.3301E+02   0.0000E+00  0.0000
   1.3301E+02   1.3625E+02   0.0000E+00  0.0000
   1.3625E+02   1.3956E+02   0.0000E+00  0.0000
   1.3956E+02   1.4296E+02   0.0000E+00  0.0000
   1.4296E+02   1.4644E+02   0.0000E+00  0.0000
   1.4644E+02   1.5000E+02   0.0000E+00  0.0000

#   sum over                 2.0737E-05
'no. =    1   reg = 114 - 214'
msuc: {\huge [t-cross] in region mesh}
msdr: {\it plotted by \ANGEL \version}
msdl: {\it calculated by \PHITS  3.28}
wt: s(0.7)
\vspace{-3}
  region surface crossing
  area  &=&   1.0000E+00 [cm^2]
e:
 
# Information for Restart Calculation
# This calculation was newly started
# istdev =  2 # 1:Batch variance, 2:History variance
# resc2  = 5.00000000000000000E+09 # Total source weight or Total source weight / maxcas
# resc3  = 5.00000000000000000E+09 # Total history number or Total batch number
# maxcas =   500000000 # History / Batch, only used for istdev=1
# bitrseed = 0110100000100010111000001110001111001110100100011111101000111001 # bit data of rseed
