[ T-Cross ]
    title = [t-cross] in region mesh
     mesh =  reg            # mesh type is region-wise
      reg =    1            # number of crossing regions
      non     r-from    r-to       area
      1       115       215        1.000000    
   e-type =    3            # e-mesh is log given by emin, emax and ne
     emin =  1.0000000E-02  # minimum value of e-mesh points
     emax =   150.0000      # maximum value of e-mesh points
#    edel =  2.4039514E-02  # mesh width of e-mesh points
       ne =    400          # number of e-mesh points
#    data = ( e(i), i = 1, ne + 1 )
#           1.00000E-02  1.02433E-02  1.04925E-02  1.07478E-02  1.10093E-02
#           1.12772E-02  1.15516E-02  1.18326E-02  1.21205E-02  1.24154E-02
#           1.27175E-02  1.30269E-02  1.33439E-02  1.36686E-02  1.40011E-02
#           1.43418E-02  1.46907E-02  1.50482E-02  1.54143E-02  1.57894E-02
#           1.61735E-02  1.65670E-02  1.69701E-02  1.73830E-02  1.78060E-02
#           1.82392E-02  1.86830E-02  1.91375E-02  1.96032E-02  2.00801E-02
#           2.05687E-02  2.10692E-02  2.15818E-02  2.21069E-02  2.26448E-02
#           2.31957E-02  2.37601E-02  2.43382E-02  2.49304E-02  2.55369E-02
#           2.61583E-02  2.67947E-02  2.74467E-02  2.81145E-02  2.87985E-02
#           2.94992E-02  3.02169E-02  3.09521E-02  3.17052E-02  3.24766E-02
#           3.32668E-02  3.40762E-02  3.49053E-02  3.57546E-02  3.66246E-02
#           3.75157E-02  3.84284E-02  3.93634E-02  4.03212E-02  4.13022E-02
#           4.23071E-02  4.33365E-02  4.43909E-02  4.54710E-02  4.65773E-02
#           4.77106E-02  4.88714E-02  5.00605E-02  5.12785E-02  5.25262E-02
#           5.38042E-02  5.51133E-02  5.64542E-02  5.78278E-02  5.92348E-02
#           6.06760E-02  6.21523E-02  6.36645E-02  6.52135E-02  6.68002E-02
#           6.84255E-02  7.00904E-02  7.17957E-02  7.35426E-02  7.53319E-02
#           7.71648E-02  7.90423E-02  8.09655E-02  8.29354E-02  8.49533E-02
#           8.70203E-02  8.91376E-02  9.13064E-02  9.35279E-02  9.58035E-02
#           9.81345E-02  1.00522E-01  1.02968E-01  1.05473E-01  1.08040E-01
#           1.10668E-01  1.13361E-01  1.16119E-01  1.18944E-01  1.21838E-01
#           1.24803E-01  1.27839E-01  1.30950E-01  1.34136E-01  1.37399E-01
#           1.40742E-01  1.44167E-01  1.47675E-01  1.51268E-01  1.54948E-01
#           1.58718E-01  1.62580E-01  1.66535E-01  1.70587E-01  1.74738E-01
#           1.78989E-01  1.83344E-01  1.87805E-01  1.92375E-01  1.97055E-01
#           2.01850E-01  2.06761E-01  2.11792E-01  2.16945E-01  2.22223E-01
#           2.27630E-01  2.33169E-01  2.38842E-01  2.44653E-01  2.50605E-01
#           2.56703E-01  2.62949E-01  2.69346E-01  2.75900E-01  2.82613E-01
#           2.89489E-01  2.96532E-01  3.03747E-01  3.11138E-01  3.18708E-01
#           3.26462E-01  3.34405E-01  3.42542E-01  3.50876E-01  3.59413E-01
#           3.68158E-01  3.77116E-01  3.86291E-01  3.95690E-01  4.05317E-01
#           4.15179E-01  4.25281E-01  4.35628E-01  4.46227E-01  4.57084E-01
#           4.68205E-01  4.79597E-01  4.91266E-01  5.03219E-01  5.15463E-01
#           5.28005E-01  5.40851E-01  5.54011E-01  5.67490E-01  5.81298E-01
#           5.95441E-01  6.09929E-01  6.24769E-01  6.39970E-01  6.55541E-01
#           6.71491E-01  6.87828E-01  7.04564E-01  7.21706E-01  7.39266E-01
#           7.57253E-01  7.75678E-01  7.94551E-01  8.13883E-01  8.33685E-01
#           8.53969E-01  8.74747E-01  8.96030E-01  9.17831E-01  9.40163E-01
#           9.63038E-01  9.86469E-01  1.01047E+00  1.03506E+00  1.06024E+00
#           1.08604E+00  1.11246E+00  1.13953E+00  1.16725E+00  1.19565E+00
#           1.22474E+00  1.25454E+00  1.28507E+00  1.31633E+00  1.34836E+00
#           1.38117E+00  1.41477E+00  1.44920E+00  1.48446E+00  1.52057E+00
#           1.55757E+00  1.59547E+00  1.63429E+00  1.67405E+00  1.71478E+00
#           1.75650E+00  1.79924E+00  1.84302E+00  1.88786E+00  1.93379E+00
#           1.98084E+00  2.02904E+00  2.07841E+00  2.12898E+00  2.18078E+00
#           2.23384E+00  2.28819E+00  2.34386E+00  2.40089E+00  2.45930E+00
#           2.51914E+00  2.58043E+00  2.64322E+00  2.70753E+00  2.77341E+00
#           2.84088E+00  2.91001E+00  2.98081E+00  3.05333E+00  3.12762E+00
#           3.20372E+00  3.28167E+00  3.36152E+00  3.44330E+00  3.52708E+00
#           3.61290E+00  3.70080E+00  3.79085E+00  3.88308E+00  3.97756E+00
#           4.07434E+00  4.17347E+00  4.27501E+00  4.37903E+00  4.48557E+00
#           4.59471E+00  4.70650E+00  4.82102E+00  4.93832E+00  5.05847E+00
#           5.18155E+00  5.30762E+00  5.43676E+00  5.56904E+00  5.70453E+00
#           5.84333E+00  5.98550E+00  6.13114E+00  6.28031E+00  6.43312E+00
#           6.58964E+00  6.74997E+00  6.91420E+00  7.08243E+00  7.25475E+00
#           7.43126E+00  7.61207E+00  7.79728E+00  7.98700E+00  8.18133E+00
#           8.38038E+00  8.58428E+00  8.79315E+00  9.00709E+00  9.22624E+00
#           9.45072E+00  9.68067E+00  9.91620E+00  1.01575E+01  1.04046E+01
#           1.06578E+01  1.09171E+01  1.11827E+01  1.14548E+01  1.17335E+01
#           1.20190E+01  1.23114E+01  1.26109E+01  1.29178E+01  1.32321E+01
#           1.35540E+01  1.38838E+01  1.42216E+01  1.45676E+01  1.49221E+01
#           1.52851E+01  1.56570E+01  1.60380E+01  1.64282E+01  1.68279E+01
#           1.72374E+01  1.76568E+01  1.80864E+01  1.85264E+01  1.89772E+01
#           1.94389E+01  1.99119E+01  2.03963E+01  2.08926E+01  2.14009E+01
#           2.19216E+01  2.24550E+01  2.30014E+01  2.35610E+01  2.41343E+01
#           2.47215E+01  2.53230E+01  2.59391E+01  2.65702E+01  2.72167E+01
#           2.78789E+01  2.85572E+01  2.92520E+01  2.99637E+01  3.06928E+01
#           3.14396E+01  3.22045E+01  3.29881E+01  3.37907E+01  3.46128E+01
#           3.54550E+01  3.63177E+01  3.72013E+01  3.81064E+01  3.90336E+01
#           3.99833E+01  4.09561E+01  4.19526E+01  4.29734E+01  4.40189E+01
#           4.50900E+01  4.61870E+01  4.73108E+01  4.84619E+01  4.96410E+01
#           5.08488E+01  5.20860E+01  5.33533E+01  5.46514E+01  5.59812E+01
#           5.73432E+01  5.87384E+01  6.01676E+01  6.16315E+01  6.31311E+01
#           6.46671E+01  6.62405E+01  6.78522E+01  6.95031E+01  7.11941E+01
#           7.29263E+01  7.47007E+01  7.65182E+01  7.83800E+01  8.02870E+01
#           8.22405E+01  8.42414E+01  8.62911E+01  8.83906E+01  9.05412E+01
#           9.27442E+01  9.50007E+01  9.73122E+01  9.96799E+01  1.02105E+02
#           1.04589E+02  1.07134E+02  1.09741E+02  1.12411E+02  1.15146E+02
#           1.17948E+02  1.20817E+02  1.23757E+02  1.26768E+02  1.29852E+02
#           1.33012E+02  1.36248E+02  1.39563E+02  1.42959E+02  1.46437E+02
#           1.50000E+02
     unit =    2            # unit is [1/cm^2/(MeV/n)/source]
     axis =  eng            # axis of output
     file = detector-16.out  # file name of output for the above axis
   output = f-curr          # surface crossing forward current spectrum
     part =  neutron  
# kf/name :  2112     
#    used :        main (  %)        temp (  %)       total (  %)
#  memory :         414 (  0)           0 (  0)         414 (  0)

#------------------------------------------------------------------------------
#newpage:
#   no. =    1   reg = 115 - 215

x: Energy [MeV/n]
y:  F-Curr [1/cm^2/(MeV/n)/source]         
p: xlog ylog afac(0.8) form(0.9)
h: n            x            y(neutron ),hh0l   n 
#  e-lower      e-upper      neutron     r.err 
   1.0000E-02   1.0243E-02   3.1318E-04  0.0512
   1.0243E-02   1.0493E-02   3.2099E-04  0.0500
   1.0493E-02   1.0748E-02   3.1258E-04  0.0501
   1.0748E-02   1.1009E-02   3.1281E-04  0.0494
   1.1009E-02   1.1277E-02   3.2628E-04  0.0478
   1.1277E-02   1.1552E-02   3.3020E-04  0.0470
   1.1552E-02   1.1833E-02   3.1168E-04  0.0478
   1.1833E-02   1.2121E-02   3.1192E-04  0.0472
   1.2121E-02   1.2415E-02   3.0926E-04  0.0468
   1.2415E-02   1.2718E-02   3.2839E-04  0.0449
   1.2718E-02   1.3027E-02   3.4451E-04  0.0433
   1.3027E-02   1.3344E-02   3.1866E-04  0.0445
   1.3344E-02   1.3669E-02   3.2402E-04  0.0436
   1.3669E-02   1.4001E-02   3.2415E-04  0.0431
   1.4001E-02   1.4342E-02   3.4228E-04  0.0414
   1.4342E-02   1.4691E-02   3.3415E-04  0.0414
   1.4691E-02   1.5048E-02   3.4244E-04  0.0404
   1.5048E-02   1.5414E-02   3.5014E-04  0.0395
   1.5414E-02   1.5789E-02   3.4289E-04  0.0394
   1.5789E-02   1.6174E-02   3.5870E-04  0.0381
   1.6174E-02   1.6567E-02   3.7051E-04  0.0370
   1.6567E-02   1.6970E-02   3.6171E-04  0.0370
   1.6970E-02   1.7383E-02   3.6716E-04  0.0363
   1.7383E-02   1.7806E-02   3.5419E-04  0.0365
   1.7806E-02   1.8239E-02   3.6932E-04  0.0354
   1.8239E-02   1.8683E-02   3.8713E-04  0.0341
   1.8683E-02   1.9138E-02   3.4494E-04  0.0357
   1.9138E-02   1.9603E-02   3.6595E-04  0.0343
   1.9603E-02   2.0080E-02   3.6146E-04  0.0341
   2.0080E-02   2.0569E-02   3.6065E-04  0.0337
   2.0569E-02   2.1069E-02   3.7806E-04  0.0325
   2.1069E-02   2.1582E-02   3.9249E-04  0.0315
   2.1582E-02   2.2107E-02   3.8621E-04  0.0314
   2.2107E-02   2.2645E-02   3.7332E-04  0.0316
   2.2645E-02   2.3196E-02   3.8587E-04  0.0307
   2.3196E-02   2.3760E-02   3.7812E-04  0.0306
   2.3760E-02   2.4338E-02   4.0131E-04  0.0294
   2.4338E-02   2.4930E-02   4.0259E-04  0.0290
   2.4930E-02   2.5537E-02   3.9566E-04  0.0289
   2.5537E-02   2.6158E-02   4.1620E-04  0.0278
   2.6158E-02   2.6795E-02   4.2014E-04  0.0273
   2.6795E-02   2.7447E-02   4.0004E-04  0.0277
   2.7447E-02   2.8114E-02   3.9922E-04  0.0274
   2.8114E-02   2.8799E-02   4.4178E-04  0.0257
   2.8799E-02   2.9499E-02   4.4727E-04  0.0253
   2.9499E-02   3.0217E-02   4.4222E-04  0.0251
   3.0217E-02   3.0952E-02   4.2301E-04  0.0254
   3.0952E-02   3.1705E-02   4.4855E-04  0.0243
   3.1705E-02   3.2477E-02   4.4956E-04  0.0240
   3.2477E-02   3.3267E-02   4.5939E-04  0.0235
   3.3267E-02   3.4076E-02   4.5243E-04  0.0234
   3.4076E-02   3.4905E-02   4.6581E-04  0.0228
   3.4905E-02   3.5755E-02   4.7358E-04  0.0223
   3.5755E-02   3.6625E-02   4.9245E-04  0.0216
   3.6625E-02   3.7516E-02   4.8030E-04  0.0216
   3.7516E-02   3.8428E-02   4.8401E-04  0.0213
   3.8428E-02   3.9363E-02   5.1166E-04  0.0204
   3.9363E-02   4.0321E-02   4.7215E-04  0.0210
   4.0321E-02   4.1302E-02   4.8295E-04  0.0205
   4.1302E-02   4.2307E-02   4.9994E-04  0.0200
   4.2307E-02   4.3337E-02   4.9545E-04  0.0198
   4.3337E-02   4.4391E-02   4.9203E-04  0.0196
   4.4391E-02   4.5471E-02   5.2608E-04  0.0188
   4.5471E-02   4.6577E-02   5.3220E-04  0.0184
   4.6577E-02   4.7711E-02   5.1991E-04  0.0184
   4.7711E-02   4.8871E-02   5.2049E-04  0.0182
   4.8871E-02   5.0061E-02   5.2881E-04  0.0178
   5.0061E-02   5.1279E-02   5.5205E-04  0.0172
   5.1279E-02   5.2526E-02   5.5272E-04  0.0170
   5.2526E-02   5.3804E-02   5.5055E-04  0.0169
   5.3804E-02   5.5113E-02   5.5932E-04  0.0165
   5.5113E-02   5.6454E-02   5.9212E-04  0.0159
   5.6454E-02   5.7828E-02   5.7165E-04  0.0160
   5.7828E-02   5.9235E-02   5.8422E-04  0.0156
   5.9235E-02   6.0676E-02   6.0435E-04  0.0152
   6.0676E-02   6.2152E-02   5.9067E-04  0.0151
   6.2152E-02   6.3665E-02   5.9714E-04  0.0149
   6.3665E-02   6.5214E-02   6.2492E-04  0.0144
   6.5214E-02   6.6800E-02   6.1587E-04  0.0143
   6.6800E-02   6.8426E-02   6.2733E-04  0.0140
   6.8426E-02   7.0090E-02   6.3417E-04  0.0138
   7.0090E-02   7.1796E-02   6.5464E-04  0.0134
   7.1796E-02   7.3543E-02   6.5695E-04  0.0132
   7.3543E-02   7.5332E-02   6.5622E-04  0.0131
   7.5332E-02   7.7165E-02   6.7697E-04  0.0127
   7.7165E-02   7.9042E-02   6.7974E-04  0.0125
   7.9042E-02   8.0965E-02   6.7763E-04  0.0124
   8.0965E-02   8.2935E-02   6.9717E-04  0.0121
   8.2935E-02   8.4953E-02   7.0242E-04  0.0119
   8.4953E-02   8.7020E-02   7.1263E-04  0.0117
   8.7020E-02   8.9138E-02   7.1705E-04  0.0115
   8.9138E-02   9.1306E-02   7.2926E-04  0.0112
   9.1306E-02   9.3528E-02   7.5308E-04  0.0109
   9.3528E-02   9.5804E-02   7.3317E-04  0.0110
   9.5804E-02   9.8134E-02   7.6350E-04  0.0106
   9.8134E-02   1.0052E-01   7.6509E-04  0.0105
   1.0052E-01   1.0297E-01   7.6589E-04  0.0103
   1.0297E-01   1.0547E-01   7.8266E-04  0.0101
   1.0547E-01   1.0804E-01   7.9026E-04  0.0099
   1.0804E-01   1.1067E-01   7.8914E-04  0.0098
   1.1067E-01   1.1336E-01   8.0686E-04  0.0096
   1.1336E-01   1.1612E-01   8.1511E-04  0.0094
   1.1612E-01   1.1894E-01   8.2052E-04  0.0093
   1.1894E-01   1.2184E-01   8.3766E-04  0.0091
   1.2184E-01   1.2480E-01   8.4475E-04  0.0089
   1.2480E-01   1.2784E-01   8.5327E-04  0.0088
   1.2784E-01   1.3095E-01   8.5750E-04  0.0087
   1.3095E-01   1.3414E-01   8.5634E-04  0.0086
   1.3414E-01   1.3740E-01   8.6909E-04  0.0084
   1.3740E-01   1.4074E-01   8.7621E-04  0.0083
   1.4074E-01   1.4417E-01   9.0808E-04  0.0080
   1.4417E-01   1.4767E-01   8.9506E-04  0.0080
   1.4767E-01   1.5127E-01   9.1633E-04  0.0078
   1.5127E-01   1.5495E-01   9.3494E-04  0.0076
   1.5495E-01   1.5872E-01   9.3586E-04  0.0075
   1.5872E-01   1.6258E-01   9.4496E-04  0.0074
   1.6258E-01   1.6654E-01   9.6388E-04  0.0072
   1.6654E-01   1.7059E-01   9.5446E-04  0.0072
   1.7059E-01   1.7474E-01   9.6679E-04  0.0071
   1.7474E-01   1.7899E-01   9.9209E-04  0.0069
   1.7899E-01   1.8334E-01   9.7374E-04  0.0069
   1.8334E-01   1.8781E-01   9.9271E-04  0.0067
   1.8781E-01   1.9237E-01   1.0033E-03  0.0066
   1.9237E-01   1.9706E-01   1.0146E-03  0.0065
   1.9706E-01   2.0185E-01   1.0270E-03  0.0064
   2.0185E-01   2.0676E-01   1.0400E-03  0.0063
   2.0676E-01   2.1179E-01   1.0412E-03  0.0062
   2.1179E-01   2.1694E-01   1.0503E-03  0.0061
   2.1694E-01   2.2222E-01   1.0640E-03  0.0060
   2.2222E-01   2.2763E-01   1.0609E-03  0.0059
   2.2763E-01   2.3317E-01   1.0764E-03  0.0058
   2.3317E-01   2.3884E-01   1.0911E-03  0.0057
   2.3884E-01   2.4465E-01   1.0883E-03  0.0056
   2.4465E-01   2.5061E-01   1.0892E-03  0.0056
   2.5061E-01   2.5670E-01   1.1055E-03  0.0054
   2.5670E-01   2.6295E-01   1.1049E-03  0.0054
   2.6295E-01   2.6935E-01   1.1118E-03  0.0053
   2.6935E-01   2.7590E-01   1.1215E-03  0.0052
   2.7590E-01   2.8261E-01   1.1274E-03  0.0051
   2.8261E-01   2.8949E-01   1.1384E-03  0.0051
   2.8949E-01   2.9653E-01   1.1359E-03  0.0050
   2.9653E-01   3.0375E-01   1.1581E-03  0.0049
   3.0375E-01   3.1114E-01   1.1458E-03  0.0049
   3.1114E-01   3.1871E-01   1.1444E-03  0.0048
   3.1871E-01   3.2646E-01   1.1636E-03  0.0047
   3.2646E-01   3.3441E-01   1.1486E-03  0.0047
   3.3441E-01   3.4254E-01   1.1707E-03  0.0046
   3.4254E-01   3.5088E-01   1.1541E-03  0.0046
   3.5088E-01   3.5941E-01   1.1732E-03  0.0045
   3.5941E-01   3.6816E-01   1.1674E-03  0.0044
   3.6816E-01   3.7712E-01   1.1683E-03  0.0044
   3.7712E-01   3.8629E-01   1.1766E-03  0.0043
   3.8629E-01   3.9569E-01   1.1721E-03  0.0043
   3.9569E-01   4.0532E-01   1.1665E-03  0.0042
   4.0532E-01   4.1518E-01   1.1784E-03  0.0041
   4.1518E-01   4.2528E-01   1.1693E-03  0.0041
   4.2528E-01   4.3563E-01   1.1676E-03  0.0041
   4.3563E-01   4.4623E-01   1.1718E-03  0.0040
   4.4623E-01   4.5708E-01   1.1603E-03  0.0040
   4.5708E-01   4.6821E-01   1.1572E-03  0.0039
   4.6821E-01   4.7960E-01   1.1610E-03  0.0039
   4.7960E-01   4.9127E-01   1.1554E-03  0.0039
   4.9127E-01   5.0322E-01   1.1488E-03  0.0038
   5.0322E-01   5.1546E-01   1.1467E-03  0.0038
   5.1546E-01   5.2800E-01   1.1396E-03  0.0037
   5.2800E-01   5.4085E-01   1.1311E-03  0.0037
   5.4085E-01   5.5401E-01   1.1230E-03  0.0037
   5.5401E-01   5.6749E-01   1.1173E-03  0.0036
   5.6749E-01   5.8130E-01   1.1062E-03  0.0036
   5.8130E-01   5.9544E-01   1.1060E-03  0.0036
   5.9544E-01   6.0993E-01   1.0879E-03  0.0036
   6.0993E-01   6.2477E-01   1.0799E-03  0.0035
   6.2477E-01   6.3997E-01   1.0610E-03  0.0035
   6.3997E-01   6.5554E-01   1.0528E-03  0.0035
   6.5554E-01   6.7149E-01   1.0344E-03  0.0035
   6.7149E-01   6.8783E-01   1.0190E-03  0.0035
   6.8783E-01   7.0456E-01   1.0052E-03  0.0035
   7.0456E-01   7.2171E-01   9.9396E-04  0.0034
   7.2171E-01   7.3927E-01   9.7283E-04  0.0034
   7.3927E-01   7.5725E-01   9.4801E-04  0.0034
   7.5725E-01   7.7568E-01   9.3154E-04  0.0034
   7.7568E-01   7.9455E-01   9.0641E-04  0.0034
   7.9455E-01   8.1388E-01   8.8129E-04  0.0034
   8.1388E-01   8.3368E-01   8.5786E-04  0.0034
   8.3368E-01   8.5397E-01   8.3936E-04  0.0034
   8.5397E-01   8.7475E-01   8.0755E-04  0.0035
   8.7475E-01   8.9603E-01   7.7808E-04  0.0035
   8.9603E-01   9.1783E-01   7.4991E-04  0.0035
   9.1783E-01   9.4016E-01   7.2044E-04  0.0035
   9.4016E-01   9.6304E-01   6.8707E-04  0.0036
   9.6304E-01   9.8647E-01   6.5132E-04  0.0036
   9.8647E-01   1.0105E+00   6.2303E-04  0.0037
   1.0105E+00   1.0351E+00   6.1466E-04  0.0036
   1.0351E+00   1.0602E+00   6.0665E-04  0.0036
   1.0602E+00   1.0860E+00   6.0769E-04  0.0036
   1.0860E+00   1.1125E+00   6.0353E-04  0.0035
   1.1125E+00   1.1395E+00   6.0389E-04  0.0035
   1.1395E+00   1.1673E+00   6.0806E-04  0.0034
   1.1673E+00   1.1957E+00   6.1089E-04  0.0034
   1.1957E+00   1.2247E+00   6.1793E-04  0.0033
   1.2247E+00   1.2545E+00   6.1124E-04  0.0033
   1.2545E+00   1.2851E+00   5.9730E-04  0.0033
   1.2851E+00   1.3163E+00   5.9894E-04  0.0033
   1.3163E+00   1.3484E+00   5.9150E-04  0.0033
   1.3484E+00   1.3812E+00   5.9473E-04  0.0032
   1.3812E+00   1.4148E+00   5.9242E-04  0.0032
   1.4148E+00   1.4492E+00   5.8286E-04  0.0032
   1.4492E+00   1.4845E+00   5.6990E-04  0.0032
   1.4845E+00   1.5206E+00   5.5727E-04  0.0032
   1.5206E+00   1.5576E+00   5.5046E-04  0.0031
   1.5576E+00   1.5955E+00   5.3921E-04  0.0031
   1.5955E+00   1.6343E+00   5.3177E-04  0.0031
   1.6343E+00   1.6741E+00   5.2730E-04  0.0031
   1.6741E+00   1.7148E+00   5.2242E-04  0.0031
   1.7148E+00   1.7565E+00   5.1353E-04  0.0031
   1.7565E+00   1.7992E+00   5.0159E-04  0.0031
   1.7992E+00   1.8430E+00   4.8934E-04  0.0031
   1.8430E+00   1.8879E+00   4.7598E-04  0.0031
   1.8879E+00   1.9338E+00   4.6548E-04  0.0031
   1.9338E+00   1.9808E+00   4.5787E-04  0.0031
   1.9808E+00   2.0290E+00   4.5302E-04  0.0030
   2.0290E+00   2.0784E+00   4.4035E-04  0.0030
   2.0784E+00   2.1290E+00   4.2818E-04  0.0030
   2.1290E+00   2.1808E+00   4.1547E-04  0.0031
   2.1808E+00   2.2338E+00   4.0584E-04  0.0031
   2.2338E+00   2.2882E+00   3.9178E-04  0.0031
   2.2882E+00   2.3439E+00   3.8020E-04  0.0031
   2.3439E+00   2.4009E+00   3.7378E-04  0.0031
   2.4009E+00   2.4593E+00   3.6490E-04  0.0031
   2.4593E+00   2.5191E+00   3.5357E-04  0.0031
   2.5191E+00   2.5804E+00   3.3929E-04  0.0031
   2.5804E+00   2.6432E+00   3.2821E-04  0.0031
   2.6432E+00   2.7075E+00   3.1858E-04  0.0031
   2.7075E+00   2.7734E+00   3.0731E-04  0.0031
   2.7734E+00   2.8409E+00   2.9586E-04  0.0032
   2.8409E+00   2.9100E+00   2.8937E-04  0.0032
   2.9100E+00   2.9808E+00   2.8111E-04  0.0032
   2.9808E+00   3.0533E+00   2.7173E-04  0.0032
   3.0533E+00   3.1276E+00   2.6158E-04  0.0032
   3.1276E+00   3.2037E+00   2.5095E-04  0.0032
   3.2037E+00   3.2817E+00   2.4052E-04  0.0033
   3.2817E+00   3.3615E+00   2.3122E-04  0.0033
   3.3615E+00   3.4433E+00   2.2202E-04  0.0033
   3.4433E+00   3.5271E+00   2.1357E-04  0.0033
   3.5271E+00   3.6129E+00   2.0661E-04  0.0034
   3.6129E+00   3.7008E+00   1.9923E-04  0.0034
   3.7008E+00   3.7908E+00   1.8955E-04  0.0034
   3.7908E+00   3.8831E+00   1.8071E-04  0.0035
   3.8831E+00   3.9776E+00   1.7250E-04  0.0035
   3.9776E+00   4.0743E+00   1.6697E-04  0.0035
   4.0743E+00   4.1735E+00   1.5916E-04  0.0036
   4.1735E+00   4.2750E+00   1.5141E-04  0.0036
   4.2750E+00   4.3790E+00   1.4286E-04  0.0037
   4.3790E+00   4.4856E+00   1.3687E-04  0.0037
   4.4856E+00   4.5947E+00   1.3051E-04  0.0038
   4.5947E+00   4.7065E+00   1.2399E-04  0.0038
   4.7065E+00   4.8210E+00   1.1818E-04  0.0038
   4.8210E+00   4.9383E+00   1.1282E-04  0.0039
   4.9383E+00   5.0585E+00   1.0653E-04  0.0040
   5.0585E+00   5.1815E+00   1.0122E-04  0.0040
   5.1815E+00   5.3076E+00   9.6658E-05  0.0041
   5.3076E+00   5.4368E+00   9.0221E-05  0.0041
   5.4368E+00   5.5690E+00   8.5077E-05  0.0042
   5.5690E+00   5.7045E+00   8.0713E-05  0.0043
   5.7045E+00   5.8433E+00   7.6533E-05  0.0043
   5.8433E+00   5.9855E+00   7.2681E-05  0.0044
   5.9855E+00   6.1311E+00   6.9182E-05  0.0045
   6.1311E+00   6.2803E+00   6.5500E-05  0.0045
   6.2803E+00   6.4331E+00   6.1008E-05  0.0046
   6.4331E+00   6.5896E+00   5.7705E-05  0.0047
   6.5896E+00   6.7500E+00   5.4775E-05  0.0048
   6.7500E+00   6.9142E+00   5.1908E-05  0.0048
   6.9142E+00   7.0824E+00   4.9436E-05  0.0049
   7.0824E+00   7.2548E+00   4.6412E-05  0.0050
   7.2548E+00   7.4313E+00   4.4186E-05  0.0051
   7.4313E+00   7.6121E+00   4.1678E-05  0.0052
   7.6121E+00   7.7973E+00   4.0002E-05  0.0052
   7.7973E+00   7.9870E+00   3.7912E-05  0.0053
   7.9870E+00   8.1813E+00   3.5939E-05  0.0054
   8.1813E+00   8.3804E+00   3.4297E-05  0.0054
   8.3804E+00   8.5843E+00   3.2638E-05  0.0055
   8.5843E+00   8.7931E+00   3.1537E-05  0.0055
   8.7931E+00   9.0071E+00   2.9901E-05  0.0056
   9.0071E+00   9.2262E+00   2.9000E-05  0.0056
   9.2262E+00   9.4507E+00   2.7694E-05  0.0057
   9.4507E+00   9.6807E+00   2.6613E-05  0.0057
   9.6807E+00   9.9162E+00   2.5561E-05  0.0058
   9.9162E+00   1.0157E+01   2.4677E-05  0.0058
   1.0157E+01   1.0405E+01   2.3929E-05  0.0058
   1.0405E+01   1.0658E+01   2.3003E-05  0.0059
   1.0658E+01   1.0917E+01   2.2498E-05  0.0059
   1.0917E+01   1.1183E+01   2.1476E-05  0.0059
   1.1183E+01   1.1455E+01   2.1030E-05  0.0059
   1.1455E+01   1.1733E+01   2.0177E-05  0.0060
   1.1733E+01   1.2019E+01   1.9537E-05  0.0060
   1.2019E+01   1.2311E+01   1.9071E-05  0.0060
   1.2311E+01   1.2611E+01   1.8498E-05  0.0060
   1.2611E+01   1.2918E+01   1.8153E-05  0.0060
   1.2918E+01   1.3232E+01   1.7636E-05  0.0060
   1.3232E+01   1.3554E+01   1.7159E-05  0.0060
   1.3554E+01   1.3884E+01   1.6364E-05  0.0061
   1.3884E+01   1.4222E+01   1.5987E-05  0.0061
   1.4222E+01   1.4568E+01   1.5418E-05  0.0061
   1.4568E+01   1.4922E+01   1.5056E-05  0.0061
   1.4922E+01   1.5285E+01   1.4431E-05  0.0062
   1.5285E+01   1.5657E+01   1.4111E-05  0.0062
   1.5657E+01   1.6038E+01   1.3503E-05  0.0062
   1.6038E+01   1.6428E+01   1.3123E-05  0.0062
   1.6428E+01   1.6828E+01   1.2516E-05  0.0063
   1.6828E+01   1.7237E+01   1.1981E-05  0.0064
   1.7237E+01   1.7657E+01   1.1549E-05  0.0064
   1.7657E+01   1.8086E+01   1.1072E-05  0.0065
   1.8086E+01   1.8526E+01   1.0542E-05  0.0066
   1.8526E+01   1.8977E+01   1.0171E-05  0.0066
   1.8977E+01   1.9439E+01   9.6095E-06  0.0067
   1.9439E+01   1.9912E+01   9.2411E-06  0.0068
   1.9912E+01   2.0396E+01   6.6289E-06  0.0079
   2.0396E+01   2.0893E+01   5.9642E-06  0.0082
   2.0893E+01   2.1401E+01   5.6656E-06  0.0083
   2.1401E+01   2.1922E+01   5.5875E-06  0.0083
   2.1922E+01   2.2455E+01   5.2215E-06  0.0085
   2.2455E+01   2.3001E+01   5.0298E-06  0.0085
   2.3001E+01   2.3561E+01   4.7595E-06  0.0087
   2.3561E+01   2.4134E+01   4.5589E-06  0.0087
   2.4134E+01   2.4721E+01   4.2976E-06  0.0089
   2.4721E+01   2.5323E+01   4.0855E-06  0.0090
   2.5323E+01   2.5939E+01   3.8628E-06  0.0092
   2.5939E+01   2.6570E+01   3.6237E-06  0.0094
   2.6570E+01   2.7217E+01   3.3616E-06  0.0096
   2.7217E+01   2.7879E+01   3.2032E-06  0.0097
   2.7879E+01   2.8557E+01   2.9361E-06  0.0100
   2.8557E+01   2.9252E+01   2.7348E-06  0.0103
   2.9252E+01   2.9964E+01   2.5802E-06  0.0104
   2.9964E+01   3.0693E+01   2.3744E-06  0.0107
   3.0693E+01   3.1440E+01   2.2352E-06  0.0109
   3.1440E+01   3.2205E+01   2.0631E-06  0.0113
   3.2205E+01   3.2988E+01   1.8564E-06  0.0117
   3.2988E+01   3.3791E+01   1.7627E-06  0.0119
   3.3791E+01   3.4613E+01   1.5613E-06  0.0125
   3.4613E+01   3.5455E+01   1.4173E-06  0.0129
   3.5455E+01   3.6318E+01   1.2870E-06  0.0134
   3.6318E+01   3.7201E+01   1.1582E-06  0.0140
   3.7201E+01   3.8106E+01   1.0586E-06  0.0144
   3.8106E+01   3.9034E+01   9.4525E-07  0.0151
   3.9034E+01   3.9983E+01   8.4909E-07  0.0157
   3.9983E+01   4.0956E+01   7.5348E-07  0.0165
   4.0956E+01   4.1953E+01   6.5871E-07  0.0175
   4.1953E+01   4.2973E+01   5.8585E-07  0.0183
   4.2973E+01   4.4019E+01   5.0479E-07  0.0195
   4.4019E+01   4.5090E+01   4.5228E-07  0.0203
   4.5090E+01   4.6187E+01   3.9469E-07  0.0215
   4.6187E+01   4.7311E+01   3.3103E-07  0.0232
   4.7311E+01   4.8462E+01   2.8025E-07  0.0249
   4.8462E+01   4.9641E+01   2.2865E-07  0.0272
   4.9641E+01   5.0849E+01   2.0103E-07  0.0287
   5.0849E+01   5.2086E+01   1.6877E-07  0.0309
   5.2086E+01   5.3353E+01   1.3635E-07  0.0340
   5.3353E+01   5.4651E+01   1.1108E-07  0.0372
   5.4651E+01   5.5981E+01   8.7839E-08  0.0414
   5.5981E+01   5.7343E+01   7.2390E-08  0.0450
   5.7343E+01   5.8738E+01   4.9885E-08  0.0536
   5.8738E+01   6.0168E+01   3.9324E-08  0.0597
   6.0168E+01   6.1632E+01   2.8827E-08  0.0688
   6.1632E+01   6.3131E+01   2.2540E-08  0.0769
   6.3131E+01   6.4667E+01   1.5885E-08  0.0905
   6.4667E+01   6.6240E+01   8.2624E-09  0.1240
   6.6240E+01   6.7852E+01   7.5697E-09  0.1280
   6.7852E+01   6.9503E+01   3.8767E-09  0.1768
   6.9503E+01   7.1194E+01   2.6019E-09  0.2132
   7.1194E+01   7.2926E+01   1.1546E-09  0.3162
   7.2926E+01   7.4701E+01   5.6358E-10  0.4472
   7.4701E+01   7.6518E+01   2.2008E-10  0.7071
   7.6518E+01   7.8380E+01   0.0000E+00  0.0000
   7.8380E+01   8.0287E+01   0.0000E+00  0.0000
   8.0287E+01   8.2240E+01   0.0000E+00  0.0000
   8.2240E+01   8.4241E+01   0.0000E+00  0.0000
   8.4241E+01   8.6291E+01   0.0000E+00  0.0000
   8.6291E+01   8.8391E+01   0.0000E+00  0.0000
   8.8391E+01   9.0541E+01   0.0000E+00  0.0000
   9.0541E+01   9.2744E+01   0.0000E+00  0.0000
   9.2744E+01   9.5001E+01   0.0000E+00  0.0000
   9.5001E+01   9.7312E+01   0.0000E+00  0.0000
   9.7312E+01   9.9680E+01   0.0000E+00  0.0000
   9.9680E+01   1.0211E+02   0.0000E+00  0.0000
   1.0211E+02   1.0459E+02   0.0000E+00  0.0000
   1.0459E+02   1.0713E+02   0.0000E+00  0.0000
   1.0713E+02   1.0974E+02   0.0000E+00  0.0000
   1.0974E+02   1.1241E+02   0.0000E+00  0.0000
   1.1241E+02   1.1515E+02   0.0000E+00  0.0000
   1.1515E+02   1.1795E+02   0.0000E+00  0.0000
   1.1795E+02   1.2082E+02   0.0000E+00  0.0000
   1.2082E+02   1.2376E+02   0.0000E+00  0.0000
   1.2376E+02   1.2677E+02   0.0000E+00  0.0000
   1.2677E+02   1.2985E+02   0.0000E+00  0.0000
   1.2985E+02   1.3301E+02   0.0000E+00  0.0000
   1.3301E+02   1.3625E+02   0.0000E+00  0.0000
   1.3625E+02   1.3956E+02   0.0000E+00  0.0000
   1.3956E+02   1.4296E+02   0.0000E+00  0.0000
   1.4296E+02   1.4644E+02   0.0000E+00  0.0000
   1.4644E+02   1.5000E+02   0.0000E+00  0.0000

#   sum over                 1.7759E-05
'no. =    1   reg = 115 - 215'
msuc: {\huge [t-cross] in region mesh}
msdr: {\it plotted by \ANGEL \version}
msdl: {\it calculated by \PHITS  3.26}
wt: s(0.7)
\vspace{-3}
  region surface crossing
  area  &=&   1.0000E+00 [cm^2]
e:
 
# Information for Restart Calculation
# This calculation was newly started
# istdev =  2 # 1:Batch variance, 2:History variance
# resc2  = 5.00000000000000000E+09 # Total source weight or Total source weight / maxcas
# resc3  = 5.00000000000000000E+09 # Total history number or Total batch number
# maxcas =   500000000 # History / Batch, only used for istdev=1
# bitrseed = 0110100000100010111000001110001111001110100100011111101000111001 # bit data of rseed
