[ T-Cross ]
    title = [t-cross] in region mesh
     mesh =  reg            # mesh type is region-wise
      reg =    1            # number of crossing regions
      non     r-from    r-to       area
      1       113       213        1.000000    
   e-type =    3            # e-mesh is log given by emin, emax and ne
     emin =  1.0000000E-02  # minimum value of e-mesh points
     emax =   150.0000      # maximum value of e-mesh points
#    edel =  2.4039514E-02  # mesh width of e-mesh points
       ne =    400          # number of e-mesh points
#    data = ( e(i), i = 1, ne + 1 )
#           1.00000E-02  1.02433E-02  1.04925E-02  1.07478E-02  1.10093E-02
#           1.12772E-02  1.15516E-02  1.18326E-02  1.21205E-02  1.24154E-02
#           1.27175E-02  1.30269E-02  1.33439E-02  1.36686E-02  1.40011E-02
#           1.43418E-02  1.46907E-02  1.50482E-02  1.54143E-02  1.57894E-02
#           1.61735E-02  1.65670E-02  1.69701E-02  1.73830E-02  1.78060E-02
#           1.82392E-02  1.86830E-02  1.91375E-02  1.96032E-02  2.00801E-02
#           2.05687E-02  2.10692E-02  2.15818E-02  2.21069E-02  2.26448E-02
#           2.31957E-02  2.37601E-02  2.43382E-02  2.49304E-02  2.55369E-02
#           2.61583E-02  2.67947E-02  2.74467E-02  2.81145E-02  2.87985E-02
#           2.94992E-02  3.02169E-02  3.09521E-02  3.17052E-02  3.24766E-02
#           3.32668E-02  3.40762E-02  3.49053E-02  3.57546E-02  3.66246E-02
#           3.75157E-02  3.84284E-02  3.93634E-02  4.03212E-02  4.13022E-02
#           4.23071E-02  4.33365E-02  4.43909E-02  4.54710E-02  4.65773E-02
#           4.77106E-02  4.88714E-02  5.00605E-02  5.12785E-02  5.25262E-02
#           5.38042E-02  5.51133E-02  5.64542E-02  5.78278E-02  5.92348E-02
#           6.06760E-02  6.21523E-02  6.36645E-02  6.52135E-02  6.68002E-02
#           6.84255E-02  7.00904E-02  7.17957E-02  7.35426E-02  7.53319E-02
#           7.71648E-02  7.90423E-02  8.09655E-02  8.29354E-02  8.49533E-02
#           8.70203E-02  8.91376E-02  9.13064E-02  9.35279E-02  9.58035E-02
#           9.81345E-02  1.00522E-01  1.02968E-01  1.05473E-01  1.08040E-01
#           1.10668E-01  1.13361E-01  1.16119E-01  1.18944E-01  1.21838E-01
#           1.24803E-01  1.27839E-01  1.30950E-01  1.34136E-01  1.37399E-01
#           1.40742E-01  1.44167E-01  1.47675E-01  1.51268E-01  1.54948E-01
#           1.58718E-01  1.62580E-01  1.66535E-01  1.70587E-01  1.74738E-01
#           1.78989E-01  1.83344E-01  1.87805E-01  1.92375E-01  1.97055E-01
#           2.01850E-01  2.06761E-01  2.11792E-01  2.16945E-01  2.22223E-01
#           2.27630E-01  2.33169E-01  2.38842E-01  2.44653E-01  2.50605E-01
#           2.56703E-01  2.62949E-01  2.69346E-01  2.75900E-01  2.82613E-01
#           2.89489E-01  2.96532E-01  3.03747E-01  3.11138E-01  3.18708E-01
#           3.26462E-01  3.34405E-01  3.42542E-01  3.50876E-01  3.59413E-01
#           3.68158E-01  3.77116E-01  3.86291E-01  3.95690E-01  4.05317E-01
#           4.15179E-01  4.25281E-01  4.35628E-01  4.46227E-01  4.57084E-01
#           4.68205E-01  4.79597E-01  4.91266E-01  5.03219E-01  5.15463E-01
#           5.28005E-01  5.40851E-01  5.54011E-01  5.67490E-01  5.81298E-01
#           5.95441E-01  6.09929E-01  6.24769E-01  6.39970E-01  6.55541E-01
#           6.71491E-01  6.87828E-01  7.04564E-01  7.21706E-01  7.39266E-01
#           7.57253E-01  7.75678E-01  7.94551E-01  8.13883E-01  8.33685E-01
#           8.53969E-01  8.74747E-01  8.96030E-01  9.17831E-01  9.40163E-01
#           9.63038E-01  9.86469E-01  1.01047E+00  1.03506E+00  1.06024E+00
#           1.08604E+00  1.11246E+00  1.13953E+00  1.16725E+00  1.19565E+00
#           1.22474E+00  1.25454E+00  1.28507E+00  1.31633E+00  1.34836E+00
#           1.38117E+00  1.41477E+00  1.44920E+00  1.48446E+00  1.52057E+00
#           1.55757E+00  1.59547E+00  1.63429E+00  1.67405E+00  1.71478E+00
#           1.75650E+00  1.79924E+00  1.84302E+00  1.88786E+00  1.93379E+00
#           1.98084E+00  2.02904E+00  2.07841E+00  2.12898E+00  2.18078E+00
#           2.23384E+00  2.28819E+00  2.34386E+00  2.40089E+00  2.45930E+00
#           2.51914E+00  2.58043E+00  2.64322E+00  2.70753E+00  2.77341E+00
#           2.84088E+00  2.91001E+00  2.98081E+00  3.05333E+00  3.12762E+00
#           3.20372E+00  3.28167E+00  3.36152E+00  3.44330E+00  3.52708E+00
#           3.61290E+00  3.70080E+00  3.79085E+00  3.88308E+00  3.97756E+00
#           4.07434E+00  4.17347E+00  4.27501E+00  4.37903E+00  4.48557E+00
#           4.59471E+00  4.70650E+00  4.82102E+00  4.93832E+00  5.05847E+00
#           5.18155E+00  5.30762E+00  5.43676E+00  5.56904E+00  5.70453E+00
#           5.84333E+00  5.98550E+00  6.13114E+00  6.28031E+00  6.43312E+00
#           6.58964E+00  6.74997E+00  6.91420E+00  7.08243E+00  7.25475E+00
#           7.43126E+00  7.61207E+00  7.79728E+00  7.98700E+00  8.18133E+00
#           8.38038E+00  8.58428E+00  8.79315E+00  9.00709E+00  9.22624E+00
#           9.45072E+00  9.68067E+00  9.91620E+00  1.01575E+01  1.04046E+01
#           1.06578E+01  1.09171E+01  1.11827E+01  1.14548E+01  1.17335E+01
#           1.20190E+01  1.23114E+01  1.26109E+01  1.29178E+01  1.32321E+01
#           1.35540E+01  1.38838E+01  1.42216E+01  1.45676E+01  1.49221E+01
#           1.52851E+01  1.56570E+01  1.60380E+01  1.64282E+01  1.68279E+01
#           1.72374E+01  1.76568E+01  1.80864E+01  1.85264E+01  1.89772E+01
#           1.94389E+01  1.99119E+01  2.03963E+01  2.08926E+01  2.14009E+01
#           2.19216E+01  2.24550E+01  2.30014E+01  2.35610E+01  2.41343E+01
#           2.47215E+01  2.53230E+01  2.59391E+01  2.65702E+01  2.72167E+01
#           2.78789E+01  2.85572E+01  2.92520E+01  2.99637E+01  3.06928E+01
#           3.14396E+01  3.22045E+01  3.29881E+01  3.37907E+01  3.46128E+01
#           3.54550E+01  3.63177E+01  3.72013E+01  3.81064E+01  3.90336E+01
#           3.99833E+01  4.09561E+01  4.19526E+01  4.29734E+01  4.40189E+01
#           4.50900E+01  4.61870E+01  4.73108E+01  4.84619E+01  4.96410E+01
#           5.08488E+01  5.20860E+01  5.33533E+01  5.46514E+01  5.59812E+01
#           5.73432E+01  5.87384E+01  6.01676E+01  6.16315E+01  6.31311E+01
#           6.46671E+01  6.62405E+01  6.78522E+01  6.95031E+01  7.11941E+01
#           7.29263E+01  7.47007E+01  7.65182E+01  7.83800E+01  8.02870E+01
#           8.22405E+01  8.42414E+01  8.62911E+01  8.83906E+01  9.05412E+01
#           9.27442E+01  9.50007E+01  9.73122E+01  9.96799E+01  1.02105E+02
#           1.04589E+02  1.07134E+02  1.09741E+02  1.12411E+02  1.15146E+02
#           1.17948E+02  1.20817E+02  1.23757E+02  1.26768E+02  1.29852E+02
#           1.33012E+02  1.36248E+02  1.39563E+02  1.42959E+02  1.46437E+02
#           1.50000E+02
     unit =    2            # unit is [1/cm^2/(MeV/n)/source]
     axis =  eng            # axis of output
     file = detector-14.out  # file name of output for the above axis
   output = f-curr          # surface crossing forward current spectrum
     part =  neutron  
# kf/name :  2112     
#    used :        main (  %)        temp (  %)       total (  %)
#  memory :         414 (  0)           0 (  0)         414 (  0)

#------------------------------------------------------------------------------
#newpage:
#   no. =    1   reg = 113 - 213

x: Energy [MeV/n]
y:  F-Curr [1/cm^2/(MeV/n)/source]         
p: xlog ylog afac(0.8) form(0.9)
h: n            x            y(neutron ),hh0l   n 
#  e-lower      e-upper      neutron     r.err 
   1.0000E-02   1.0243E-02   8.7449E-05  0.0968
   1.0243E-02   1.0493E-02   8.6668E-05  0.0962
   1.0493E-02   1.0748E-02   8.6959E-05  0.0949
   1.0748E-02   1.1009E-02   8.6423E-05  0.0941
   1.1009E-02   1.1277E-02   8.8850E-05  0.0917
   1.1277E-02   1.1552E-02   9.0385E-05  0.0898
   1.1552E-02   1.1833E-02   8.9661E-05  0.0891
   1.1833E-02   1.2121E-02   9.1005E-05  0.0874
   1.2121E-02   1.2415E-02   8.4096E-05  0.0898
   1.2415E-02   1.2718E-02   7.7464E-05  0.0925
   1.2718E-02   1.3027E-02   7.9129E-05  0.0903
   1.3027E-02   1.3344E-02   6.9410E-05  0.0953
   1.3344E-02   1.3669E-02   7.4538E-05  0.0909
   1.3669E-02   1.4001E-02   8.1788E-05  0.0857
   1.4001E-02   1.4342E-02   9.0413E-05  0.0806
   1.4342E-02   1.4691E-02   8.8266E-05  0.0806
   1.4691E-02   1.5048E-02   9.2324E-05  0.0778
   1.5048E-02   1.5414E-02   8.7946E-05  0.0788
   1.5414E-02   1.5789E-02   9.2790E-05  0.0758
   1.5789E-02   1.6174E-02   8.9544E-05  0.0762
   1.6174E-02   1.6567E-02   8.2335E-05  0.0786
   1.6567E-02   1.6970E-02   8.4473E-05  0.0766
   1.6970E-02   1.7383E-02   8.2345E-05  0.0767
   1.7383E-02   1.7806E-02   8.4645E-05  0.0747
   1.7806E-02   1.8239E-02   7.4325E-05  0.0788
   1.8239E-02   1.8683E-02   8.4277E-05  0.0731
   1.8683E-02   1.9138E-02   7.5676E-05  0.0762
   1.9138E-02   1.9603E-02   8.5046E-05  0.0711
   1.9603E-02   2.0080E-02   9.5186E-05  0.0664
   2.0080E-02   2.0569E-02   9.2106E-05  0.0667
   2.0569E-02   2.1069E-02   8.6322E-05  0.0680
   2.1069E-02   2.1582E-02   9.2855E-05  0.0648
   2.1582E-02   2.2107E-02   8.7780E-05  0.0658
   2.2107E-02   2.2645E-02   7.3994E-05  0.0709
   2.2645E-02   2.3196E-02   8.7318E-05  0.0644
   2.3196E-02   2.3760E-02   7.8672E-05  0.0671
   2.3760E-02   2.4338E-02   8.7182E-05  0.0630
   2.4338E-02   2.4930E-02   8.6195E-05  0.0626
   2.4930E-02   2.5537E-02   8.1771E-05  0.0635
   2.5537E-02   2.6158E-02   9.0451E-05  0.0597
   2.6158E-02   2.6795E-02   9.6616E-05  0.0570
   2.6795E-02   2.7447E-02   8.2830E-05  0.0609
   2.7447E-02   2.8114E-02   9.1045E-05  0.0574
   2.8114E-02   2.8799E-02   8.0989E-05  0.0601
   2.8799E-02   2.9499E-02   8.7628E-05  0.0571
   2.9499E-02   3.0217E-02   8.8054E-05  0.0563
   3.0217E-02   3.0952E-02   9.1948E-05  0.0544
   3.0952E-02   3.1705E-02   9.4848E-05  0.0529
   3.1705E-02   3.2477E-02   8.1706E-05  0.0563
   3.2477E-02   3.3267E-02   8.1500E-05  0.0557
   3.3267E-02   3.4076E-02   8.9993E-05  0.0524
   3.4076E-02   3.4905E-02   8.9369E-05  0.0519
   3.4905E-02   3.5755E-02   9.0072E-05  0.0511
   3.5755E-02   3.6625E-02   8.8087E-05  0.0511
   3.6625E-02   3.7516E-02   9.8081E-05  0.0478
   3.7516E-02   3.8428E-02   9.8818E-05  0.0471
   3.8428E-02   3.9363E-02   9.0482E-05  0.0486
   3.9363E-02   4.0321E-02   9.0839E-05  0.0479
   4.0321E-02   4.1302E-02   8.2973E-05  0.0496
   4.1302E-02   4.2307E-02   8.5380E-05  0.0483
   4.2307E-02   4.3337E-02   9.0347E-05  0.0464
   4.3337E-02   4.4391E-02   8.5735E-05  0.0470
   4.4391E-02   4.5471E-02   9.2887E-05  0.0446
   4.5471E-02   4.6577E-02   9.0261E-05  0.0447
   4.6577E-02   4.7711E-02   8.4888E-05  0.0456
   4.7711E-02   4.8871E-02   9.1486E-05  0.0434
   4.8871E-02   5.0061E-02   9.3854E-05  0.0423
   5.0061E-02   5.1279E-02   8.7053E-05  0.0434
   5.1279E-02   5.2526E-02   8.8006E-05  0.0427
   5.2526E-02   5.3804E-02   8.9076E-05  0.0419
   5.3804E-02   5.5113E-02   9.0749E-05  0.0410
   5.5113E-02   5.6454E-02   9.5353E-05  0.0395
   5.6454E-02   5.7828E-02   8.7946E-05  0.0407
   5.7828E-02   5.9235E-02   9.7697E-05  0.0381
   5.9235E-02   6.0676E-02   8.9646E-05  0.0393
   6.0676E-02   6.2152E-02   9.2664E-05  0.0382
   6.2152E-02   6.3665E-02   9.2447E-05  0.0378
   6.3665E-02   6.5214E-02   9.0122E-05  0.0379
   6.5214E-02   6.6800E-02   9.4431E-05  0.0365
   6.6800E-02   6.8426E-02   9.1452E-05  0.0367
   6.8426E-02   7.0090E-02   9.5024E-05  0.0356
   7.0090E-02   7.1796E-02   9.3710E-05  0.0354
   7.1796E-02   7.3543E-02   9.5524E-05  0.0346
   7.3543E-02   7.5332E-02   9.0899E-05  0.0351
   7.5332E-02   7.7165E-02   9.3295E-05  0.0342
   7.7165E-02   7.9042E-02   9.4077E-05  0.0336
   7.9042E-02   8.0965E-02   9.3107E-05  0.0334
   8.0965E-02   8.2935E-02   9.2083E-05  0.0332
   8.2935E-02   8.4953E-02   9.1680E-05  0.0329
   8.4953E-02   8.7020E-02   8.6640E-05  0.0334
   8.7020E-02   8.9138E-02   9.4192E-05  0.0317
   8.9138E-02   9.1306E-02   8.9753E-05  0.0321
   9.1306E-02   9.3528E-02   9.2638E-05  0.0312
   9.3528E-02   9.5804E-02   9.0262E-05  0.0312
   9.5804E-02   9.8134E-02   9.5251E-05  0.0300
   9.8134E-02   1.0052E-01   8.9652E-05  0.0306
   1.0052E-01   1.0297E-01   9.0360E-05  0.0301
   1.0297E-01   1.0547E-01   8.6991E-05  0.0303
   1.0547E-01   1.0804E-01   9.2031E-05  0.0291
   1.0804E-01   1.1067E-01   8.8131E-05  0.0294
   1.1067E-01   1.1336E-01   8.9844E-05  0.0287
   1.1336E-01   1.1612E-01   8.7562E-05  0.0288
   1.1612E-01   1.1894E-01   8.4452E-05  0.0290
   1.1894E-01   1.2184E-01   8.8128E-05  0.0280
   1.2184E-01   1.2480E-01   8.7383E-05  0.0278
   1.2480E-01   1.2784E-01   8.7246E-05  0.0275
   1.2784E-01   1.3095E-01   8.6740E-05  0.0272
   1.3095E-01   1.3414E-01   8.6789E-05  0.0269
   1.3414E-01   1.3740E-01   8.6958E-05  0.0265
   1.3740E-01   1.4074E-01   9.0179E-05  0.0258
   1.4074E-01   1.4417E-01   8.1955E-05  0.0267
   1.4417E-01   1.4767E-01   8.4029E-05  0.0260
   1.4767E-01   1.5127E-01   8.0632E-05  0.0263
   1.5127E-01   1.5495E-01   8.2979E-05  0.0256
   1.5495E-01   1.5872E-01   8.4083E-05  0.0251
   1.5872E-01   1.6258E-01   8.4771E-05  0.0247
   1.6258E-01   1.6654E-01   8.0718E-05  0.0250
   1.6654E-01   1.7059E-01   8.6017E-05  0.0240
   1.7059E-01   1.7474E-01   7.7739E-05  0.0249
   1.7474E-01   1.7899E-01   7.6826E-05  0.0247
   1.7899E-01   1.8334E-01   7.9335E-05  0.0241
   1.8334E-01   1.8781E-01   8.1019E-05  0.0235
   1.8781E-01   1.9237E-01   8.0049E-05  0.0234
   1.9237E-01   1.9706E-01   7.8971E-05  0.0233
   1.9706E-01   2.0185E-01   7.8880E-05  0.0230
   2.0185E-01   2.0676E-01   7.8283E-05  0.0228
   2.0676E-01   2.1179E-01   7.4028E-05  0.0232
   2.1179E-01   2.1694E-01   7.4030E-05  0.0229
   2.1694E-01   2.2222E-01   7.5335E-05  0.0224
   2.2222E-01   2.2763E-01   7.6105E-05  0.0220
   2.2763E-01   2.3317E-01   7.4419E-05  0.0220
   2.3317E-01   2.3884E-01   7.4977E-05  0.0217
   2.3884E-01   2.4465E-01   7.4305E-05  0.0215
   2.4465E-01   2.5061E-01   7.4058E-05  0.0213
   2.5061E-01   2.5670E-01   7.1002E-05  0.0215
   2.5670E-01   2.6295E-01   7.2433E-05  0.0210
   2.6295E-01   2.6935E-01   7.0884E-05  0.0210
   2.6935E-01   2.7590E-01   7.0409E-05  0.0208
   2.7590E-01   2.8261E-01   6.6983E-05  0.0211
   2.8261E-01   2.8949E-01   6.8514E-05  0.0206
   2.8949E-01   2.9653E-01   6.8639E-05  0.0203
   2.9653E-01   3.0375E-01   6.5768E-05  0.0205
   3.0375E-01   3.1114E-01   6.6941E-05  0.0201
   3.1114E-01   3.1871E-01   6.3615E-05  0.0204
   3.1871E-01   3.2646E-01   6.5214E-05  0.0199
   3.2646E-01   3.3441E-01   6.3919E-05  0.0198
   3.3441E-01   3.4254E-01   6.3086E-05  0.0197
   3.4254E-01   3.5088E-01   6.0621E-05  0.0199
   3.5088E-01   3.5941E-01   6.2884E-05  0.0193
   3.5941E-01   3.6816E-01   5.8293E-05  0.0198
   3.6816E-01   3.7712E-01   6.1577E-05  0.0190
   3.7712E-01   3.8629E-01   5.8807E-05  0.0192
   3.8629E-01   3.9569E-01   5.6479E-05  0.0194
   3.9569E-01   4.0532E-01   5.6380E-05  0.0192
   4.0532E-01   4.1518E-01   5.5096E-05  0.0192
   4.1518E-01   4.2528E-01   5.7290E-05  0.0186
   4.2528E-01   4.3563E-01   5.4983E-05  0.0187
   4.3563E-01   4.4623E-01   5.4117E-05  0.0187
   4.4623E-01   4.5708E-01   5.2233E-05  0.0188
   4.5708E-01   4.6821E-01   5.1049E-05  0.0188
   4.6821E-01   4.7960E-01   5.4089E-05  0.0180
   4.7960E-01   4.9127E-01   5.0762E-05  0.0184
   4.9127E-01   5.0322E-01   4.9430E-05  0.0184
   5.0322E-01   5.1546E-01   4.9051E-05  0.0182
   5.1546E-01   5.2800E-01   4.8553E-05  0.0181
   5.2800E-01   5.4085E-01   4.8789E-05  0.0179
   5.4085E-01   5.5401E-01   4.6602E-05  0.0181
   5.5401E-01   5.6749E-01   4.6566E-05  0.0178
   5.6749E-01   5.8130E-01   4.6689E-05  0.0176
   5.8130E-01   5.9544E-01   4.5077E-05  0.0177
   5.9544E-01   6.0993E-01   4.5193E-05  0.0175
   6.0993E-01   6.2477E-01   4.4819E-05  0.0173
   6.2477E-01   6.3997E-01   4.4678E-05  0.0172
   6.3997E-01   6.5554E-01   4.2614E-05  0.0174
   6.5554E-01   6.7149E-01   4.1211E-05  0.0174
   6.7149E-01   6.8783E-01   4.0425E-05  0.0174
   6.8783E-01   7.0456E-01   4.0275E-05  0.0172
   7.0456E-01   7.2171E-01   3.8875E-05  0.0173
   7.2171E-01   7.3927E-01   3.9052E-05  0.0171
   7.3927E-01   7.5725E-01   3.8748E-05  0.0169
   7.5725E-01   7.7568E-01   3.7863E-05  0.0169
   7.7568E-01   7.9455E-01   3.5963E-05  0.0172
   7.9455E-01   8.1388E-01   3.5909E-05  0.0170
   8.1388E-01   8.3368E-01   3.4238E-05  0.0172
   8.3368E-01   8.5397E-01   3.3557E-05  0.0171
   8.5397E-01   8.7475E-01   3.3217E-05  0.0170
   8.7475E-01   8.9603E-01   3.2592E-05  0.0170
   8.9603E-01   9.1783E-01   3.0758E-05  0.0173
   9.1783E-01   9.4016E-01   2.9703E-05  0.0174
   9.4016E-01   9.6304E-01   2.9330E-05  0.0173
   9.6304E-01   9.8647E-01   2.8740E-05  0.0172
   9.8647E-01   1.0105E+00   2.7735E-05  0.0173
   1.0105E+00   1.0351E+00   2.8191E-05  0.0170
   1.0351E+00   1.0602E+00   2.8837E-05  0.0166
   1.0602E+00   1.0860E+00   2.9021E-05  0.0163
   1.0860E+00   1.1125E+00   3.0658E-05  0.0157
   1.1125E+00   1.1395E+00   3.1127E-05  0.0154
   1.1395E+00   1.1673E+00   3.2972E-05  0.0148
   1.1673E+00   1.1957E+00   3.4239E-05  0.0143
   1.1957E+00   1.2247E+00   3.5576E-05  0.0139
   1.2247E+00   1.2545E+00   3.5749E-05  0.0137
   1.2545E+00   1.2851E+00   3.6354E-05  0.0134
   1.2851E+00   1.3163E+00   3.8409E-05  0.0129
   1.3163E+00   1.3484E+00   3.9628E-05  0.0125
   1.3484E+00   1.3812E+00   4.1465E-05  0.0121
   1.3812E+00   1.4148E+00   4.1788E-05  0.0119
   1.4148E+00   1.4492E+00   4.3531E-05  0.0115
   1.4492E+00   1.4845E+00   4.4749E-05  0.0112
   1.4845E+00   1.5206E+00   4.5365E-05  0.0110
   1.5206E+00   1.5576E+00   4.8449E-05  0.0106
   1.5576E+00   1.5955E+00   4.9191E-05  0.0103
   1.5955E+00   1.6343E+00   5.0954E-05  0.0100
   1.6343E+00   1.6741E+00   5.2444E-05  0.0098
   1.6741E+00   1.7148E+00   5.5800E-05  0.0094
   1.7148E+00   1.7565E+00   5.7260E-05  0.0091
   1.7565E+00   1.7992E+00   5.8599E-05  0.0089
   1.7992E+00   1.8430E+00   6.2130E-05  0.0086
   1.8430E+00   1.8879E+00   6.3431E-05  0.0084
   1.8879E+00   1.9338E+00   6.6363E-05  0.0081
   1.9338E+00   1.9808E+00   6.9484E-05  0.0078
   1.9808E+00   2.0290E+00   7.1421E-05  0.0076
   2.0290E+00   2.0784E+00   7.2927E-05  0.0074
   2.0784E+00   2.1290E+00   7.3493E-05  0.0073
   2.1290E+00   2.1808E+00   7.6349E-05  0.0071
   2.1808E+00   2.2338E+00   7.9288E-05  0.0069
   2.2338E+00   2.2882E+00   8.2797E-05  0.0067
   2.2882E+00   2.3439E+00   8.5531E-05  0.0065
   2.3439E+00   2.4009E+00   9.0231E-05  0.0062
   2.4009E+00   2.4593E+00   9.2356E-05  0.0061
   2.4593E+00   2.5191E+00   9.3044E-05  0.0060
   2.5191E+00   2.5804E+00   9.4125E-05  0.0059
   2.5804E+00   2.6432E+00   9.6098E-05  0.0057
   2.6432E+00   2.7075E+00   9.8267E-05  0.0056
   2.7075E+00   2.7734E+00   1.0150E-04  0.0055
   2.7734E+00   2.8409E+00   1.0518E-04  0.0053
   2.8409E+00   2.9100E+00   1.0909E-04  0.0051
   2.9100E+00   2.9808E+00   1.1138E-04  0.0050
   2.9808E+00   3.0533E+00   1.1143E-04  0.0050
   3.0533E+00   3.1276E+00   1.1247E-04  0.0049
   3.1276E+00   3.2037E+00   1.1319E-04  0.0048
   3.2037E+00   3.2817E+00   1.1431E-04  0.0047
   3.2817E+00   3.3615E+00   1.1495E-04  0.0047
   3.3615E+00   3.4433E+00   1.1839E-04  0.0045
   3.4433E+00   3.5271E+00   1.2088E-04  0.0044
   3.5271E+00   3.6129E+00   1.2059E-04  0.0044
   3.6129E+00   3.7008E+00   1.2018E-04  0.0043
   3.7008E+00   3.7908E+00   1.2018E-04  0.0043
   3.7908E+00   3.8831E+00   1.2111E-04  0.0042
   3.8831E+00   3.9776E+00   1.2179E-04  0.0042
   3.9776E+00   4.0743E+00   1.2057E-04  0.0041
   4.0743E+00   4.1735E+00   1.2010E-04  0.0041
   4.1735E+00   4.2750E+00   1.1921E-04  0.0040
   4.2750E+00   4.3790E+00   1.1665E-04  0.0040
   4.3790E+00   4.4856E+00   1.1431E-04  0.0040
   4.4856E+00   4.5947E+00   1.1492E-04  0.0040
   4.5947E+00   4.7065E+00   1.1233E-04  0.0040
   4.7065E+00   4.8210E+00   1.1242E-04  0.0039
   4.8210E+00   4.9383E+00   1.1058E-04  0.0039
   4.9383E+00   5.0585E+00   1.0709E-04  0.0039
   5.0585E+00   5.1815E+00   1.0503E-04  0.0039
   5.1815E+00   5.3076E+00   1.0248E-04  0.0039
   5.3076E+00   5.4368E+00   9.9710E-05  0.0039
   5.4368E+00   5.5690E+00   9.7363E-05  0.0039
   5.5690E+00   5.7045E+00   9.4808E-05  0.0039
   5.7045E+00   5.8433E+00   9.3893E-05  0.0039
   5.8433E+00   5.9855E+00   9.0435E-05  0.0039
   5.9855E+00   6.1311E+00   8.8290E-05  0.0039
   6.1311E+00   6.2803E+00   8.4849E-05  0.0040
   6.2803E+00   6.4331E+00   8.1679E-05  0.0040
   6.4331E+00   6.5896E+00   7.8818E-05  0.0040
   6.5896E+00   6.7500E+00   7.5864E-05  0.0040
   6.7500E+00   6.9142E+00   7.2626E-05  0.0041
   6.9142E+00   7.0824E+00   6.9900E-05  0.0041
   7.0824E+00   7.2548E+00   6.8090E-05  0.0041
   7.2548E+00   7.4313E+00   6.5452E-05  0.0041
   7.4313E+00   7.6121E+00   6.2217E-05  0.0042
   7.6121E+00   7.7973E+00   5.9559E-05  0.0042
   7.7973E+00   7.9870E+00   5.7121E-05  0.0043
   7.9870E+00   8.1813E+00   5.4633E-05  0.0043
   8.1813E+00   8.3804E+00   5.2004E-05  0.0044
   8.3804E+00   8.5843E+00   4.9795E-05  0.0044
   8.5843E+00   8.7931E+00   4.7775E-05  0.0045
   8.7931E+00   9.0071E+00   4.5986E-05  0.0045
   9.0071E+00   9.2262E+00   4.3574E-05  0.0046
   9.2262E+00   9.4507E+00   4.1982E-05  0.0046
   9.4507E+00   9.6807E+00   3.9947E-05  0.0047
   9.6807E+00   9.9162E+00   3.8412E-05  0.0047
   9.9162E+00   1.0157E+01   3.6579E-05  0.0047
   1.0157E+01   1.0405E+01   3.5412E-05  0.0048
   1.0405E+01   1.0658E+01   3.3855E-05  0.0048
   1.0658E+01   1.0917E+01   3.2402E-05  0.0049
   1.0917E+01   1.1183E+01   3.1051E-05  0.0049
   1.1183E+01   1.1455E+01   2.9826E-05  0.0050
   1.1455E+01   1.1733E+01   2.8750E-05  0.0050
   1.1733E+01   1.2019E+01   2.7658E-05  0.0050
   1.2019E+01   1.2311E+01   2.6949E-05  0.0050
   1.2311E+01   1.2611E+01   2.5848E-05  0.0051
   1.2611E+01   1.2918E+01   2.5029E-05  0.0051
   1.2918E+01   1.3232E+01   2.4000E-05  0.0051
   1.3232E+01   1.3554E+01   2.3292E-05  0.0052
   1.3554E+01   1.3884E+01   2.2554E-05  0.0052
   1.3884E+01   1.4222E+01   2.1767E-05  0.0052
   1.4222E+01   1.4568E+01   2.1027E-05  0.0052
   1.4568E+01   1.4922E+01   2.0578E-05  0.0052
   1.4922E+01   1.5285E+01   1.9850E-05  0.0053
   1.5285E+01   1.5657E+01   1.9347E-05  0.0053
   1.5657E+01   1.6038E+01   1.8633E-05  0.0053
   1.6038E+01   1.6428E+01   1.8287E-05  0.0053
   1.6428E+01   1.6828E+01   1.7553E-05  0.0053
   1.6828E+01   1.7237E+01   1.6841E-05  0.0054
   1.7237E+01   1.7657E+01   1.6479E-05  0.0054
   1.7657E+01   1.8086E+01   1.5971E-05  0.0054
   1.8086E+01   1.8526E+01   1.5514E-05  0.0054
   1.8526E+01   1.8977E+01   1.4902E-05  0.0055
   1.8977E+01   1.9439E+01   1.4422E-05  0.0055
   1.9439E+01   1.9912E+01   1.3859E-05  0.0055
   1.9912E+01   2.0396E+01   1.3216E-05  0.0056
   2.0396E+01   2.0893E+01   1.2877E-05  0.0056
   2.0893E+01   2.1401E+01   1.2461E-05  0.0056
   2.1401E+01   2.1922E+01   1.1957E-05  0.0057
   2.1922E+01   2.2455E+01   1.1443E-05  0.0057
   2.2455E+01   2.3001E+01   1.1009E-05  0.0058
   2.3001E+01   2.3561E+01   1.0627E-05  0.0058
   2.3561E+01   2.4134E+01   1.0061E-05  0.0059
   2.4134E+01   2.4721E+01   9.6791E-06  0.0059
   2.4721E+01   2.5323E+01   9.1496E-06  0.0060
   2.5323E+01   2.5939E+01   8.6732E-06  0.0061
   2.5939E+01   2.6570E+01   8.1725E-06  0.0062
   2.6570E+01   2.7217E+01   7.7850E-06  0.0063
   2.7217E+01   2.7879E+01   7.2325E-06  0.0065
   2.7879E+01   2.8557E+01   6.8532E-06  0.0066
   2.8557E+01   2.9252E+01   6.4863E-06  0.0067
   2.9252E+01   2.9964E+01   6.0240E-06  0.0068
   2.9964E+01   3.0693E+01   5.6367E-06  0.0070
   3.0693E+01   3.1440E+01   5.1857E-06  0.0072
   3.1440E+01   3.2205E+01   4.8181E-06  0.0074
   3.2205E+01   3.2988E+01   4.5434E-06  0.0075
   3.2988E+01   3.3791E+01   4.1494E-06  0.0077
   3.3791E+01   3.4613E+01   3.8350E-06  0.0080
   3.4613E+01   3.5455E+01   3.4953E-06  0.0082
   3.5455E+01   3.6318E+01   3.2069E-06  0.0085
   3.6318E+01   3.7201E+01   2.9030E-06  0.0088
   3.7201E+01   3.8106E+01   2.6909E-06  0.0091
   3.8106E+01   3.9034E+01   2.3595E-06  0.0096
   3.9034E+01   3.9983E+01   2.1274E-06  0.0099
   3.9983E+01   4.0956E+01   1.9029E-06  0.0104
   4.0956E+01   4.1953E+01   1.7098E-06  0.0108
   4.1953E+01   4.2973E+01   1.4617E-06  0.0116
   4.2973E+01   4.4019E+01   1.2998E-06  0.0121
   4.4019E+01   4.5090E+01   1.1273E-06  0.0129
   4.5090E+01   4.6187E+01   9.8517E-07  0.0136
   4.6187E+01   4.7311E+01   8.2562E-07  0.0147
   4.7311E+01   4.8462E+01   6.8543E-07  0.0159
   4.8462E+01   4.9641E+01   5.7433E-07  0.0172
   4.9641E+01   5.0849E+01   4.7325E-07  0.0187
   5.0849E+01   5.2086E+01   3.8587E-07  0.0205
   5.2086E+01   5.3353E+01   3.0190E-07  0.0229
   5.3353E+01   5.4651E+01   2.4004E-07  0.0253
   5.4651E+01   5.5981E+01   1.8094E-07  0.0288
   5.5981E+01   5.7343E+01   1.2980E-07  0.0336
   5.7343E+01   5.8738E+01   9.3750E-08  0.0391
   5.8738E+01   6.0168E+01   6.6753E-08  0.0458
   6.0168E+01   6.1632E+01   3.9483E-08  0.0588
   6.1632E+01   6.3131E+01   2.1073E-08  0.0796
   6.3131E+01   6.4667E+01   1.2370E-08  0.1026
   6.4667E+01   6.6240E+01   2.0338E-09  0.2500
   6.6240E+01   6.7852E+01   1.2409E-10  1.0000
   6.7852E+01   6.9503E+01   0.0000E+00  0.0000
   6.9503E+01   7.1194E+01   0.0000E+00  0.0000
   7.1194E+01   7.2926E+01   0.0000E+00  0.0000
   7.2926E+01   7.4701E+01   0.0000E+00  0.0000
   7.4701E+01   7.6518E+01   0.0000E+00  0.0000
   7.6518E+01   7.8380E+01   0.0000E+00  0.0000
   7.8380E+01   8.0287E+01   0.0000E+00  0.0000
   8.0287E+01   8.2240E+01   0.0000E+00  0.0000
   8.2240E+01   8.4241E+01   0.0000E+00  0.0000
   8.4241E+01   8.6291E+01   0.0000E+00  0.0000
   8.6291E+01   8.8391E+01   0.0000E+00  0.0000
   8.8391E+01   9.0541E+01   0.0000E+00  0.0000
   9.0541E+01   9.2744E+01   0.0000E+00  0.0000
   9.2744E+01   9.5001E+01   0.0000E+00  0.0000
   9.5001E+01   9.7312E+01   0.0000E+00  0.0000
   9.7312E+01   9.9680E+01   0.0000E+00  0.0000
   9.9680E+01   1.0211E+02   0.0000E+00  0.0000
   1.0211E+02   1.0459E+02   0.0000E+00  0.0000
   1.0459E+02   1.0713E+02   0.0000E+00  0.0000
   1.0713E+02   1.0974E+02   0.0000E+00  0.0000
   1.0974E+02   1.1241E+02   0.0000E+00  0.0000
   1.1241E+02   1.1515E+02   0.0000E+00  0.0000
   1.1515E+02   1.1795E+02   0.0000E+00  0.0000
   1.1795E+02   1.2082E+02   0.0000E+00  0.0000
   1.2082E+02   1.2376E+02   0.0000E+00  0.0000
   1.2376E+02   1.2677E+02   0.0000E+00  0.0000
   1.2677E+02   1.2985E+02   0.0000E+00  0.0000
   1.2985E+02   1.3301E+02   0.0000E+00  0.0000
   1.3301E+02   1.3625E+02   0.0000E+00  0.0000
   1.3625E+02   1.3956E+02   0.0000E+00  0.0000
   1.3956E+02   1.4296E+02   0.0000E+00  0.0000
   1.4296E+02   1.4644E+02   0.0000E+00  0.0000
   1.4644E+02   1.5000E+02   0.0000E+00  0.0000

#   sum over                 7.4410E-06
'no. =    1   reg = 113 - 213'
msuc: {\huge [t-cross] in region mesh}
msdr: {\it plotted by \ANGEL \version}
msdl: {\it calculated by \PHITS  3.26}
wt: s(0.7)
\vspace{-3}
  region surface crossing
  area  &=&   1.0000E+00 [cm^2]
e:
 
# Information for Restart Calculation
# This calculation was newly started
# istdev =  2 # 1:Batch variance, 2:History variance
# resc2  = 5.00000000000000000E+09 # Total source weight or Total source weight / maxcas
# resc3  = 5.00000000000000000E+09 # Total history number or Total batch number
# maxcas =   100000000 # History / Batch, only used for istdev=1
# bitrseed = 0110100000100010111000001110001111001110100100011111101000111001 # bit data of rseed
