[ T-Cross ]
    title = [t-cross] in region mesh
     mesh =  reg            # mesh type is region-wise
      reg =    1            # number of crossing regions
      non     r-from    r-to       area
      1       119       219        1.000000    
   e-type =    3            # e-mesh is log given by emin, emax and ne
     emin =  1.0000000E-02  # minimum value of e-mesh points
     emax =   150.0000      # maximum value of e-mesh points
#    edel =  2.4039514E-02  # mesh width of e-mesh points
       ne =    400          # number of e-mesh points
#    data = ( e(i), i = 1, ne + 1 )
#           1.00000E-02  1.02433E-02  1.04925E-02  1.07478E-02  1.10093E-02
#           1.12772E-02  1.15516E-02  1.18326E-02  1.21205E-02  1.24154E-02
#           1.27175E-02  1.30269E-02  1.33439E-02  1.36686E-02  1.40011E-02
#           1.43418E-02  1.46907E-02  1.50482E-02  1.54143E-02  1.57894E-02
#           1.61735E-02  1.65670E-02  1.69701E-02  1.73830E-02  1.78060E-02
#           1.82392E-02  1.86830E-02  1.91375E-02  1.96032E-02  2.00801E-02
#           2.05687E-02  2.10692E-02  2.15818E-02  2.21069E-02  2.26448E-02
#           2.31957E-02  2.37601E-02  2.43382E-02  2.49304E-02  2.55369E-02
#           2.61583E-02  2.67947E-02  2.74467E-02  2.81145E-02  2.87985E-02
#           2.94992E-02  3.02169E-02  3.09521E-02  3.17052E-02  3.24766E-02
#           3.32668E-02  3.40762E-02  3.49053E-02  3.57546E-02  3.66246E-02
#           3.75157E-02  3.84284E-02  3.93634E-02  4.03212E-02  4.13022E-02
#           4.23071E-02  4.33365E-02  4.43909E-02  4.54710E-02  4.65773E-02
#           4.77106E-02  4.88714E-02  5.00605E-02  5.12785E-02  5.25262E-02
#           5.38042E-02  5.51133E-02  5.64542E-02  5.78278E-02  5.92348E-02
#           6.06760E-02  6.21523E-02  6.36645E-02  6.52135E-02  6.68002E-02
#           6.84255E-02  7.00904E-02  7.17957E-02  7.35426E-02  7.53319E-02
#           7.71648E-02  7.90423E-02  8.09655E-02  8.29354E-02  8.49533E-02
#           8.70203E-02  8.91376E-02  9.13064E-02  9.35279E-02  9.58035E-02
#           9.81345E-02  1.00522E-01  1.02968E-01  1.05473E-01  1.08040E-01
#           1.10668E-01  1.13361E-01  1.16119E-01  1.18944E-01  1.21838E-01
#           1.24803E-01  1.27839E-01  1.30950E-01  1.34136E-01  1.37399E-01
#           1.40742E-01  1.44167E-01  1.47675E-01  1.51268E-01  1.54948E-01
#           1.58718E-01  1.62580E-01  1.66535E-01  1.70587E-01  1.74738E-01
#           1.78989E-01  1.83344E-01  1.87805E-01  1.92375E-01  1.97055E-01
#           2.01850E-01  2.06761E-01  2.11792E-01  2.16945E-01  2.22223E-01
#           2.27630E-01  2.33169E-01  2.38842E-01  2.44653E-01  2.50605E-01
#           2.56703E-01  2.62949E-01  2.69346E-01  2.75900E-01  2.82613E-01
#           2.89489E-01  2.96532E-01  3.03747E-01  3.11138E-01  3.18708E-01
#           3.26462E-01  3.34405E-01  3.42542E-01  3.50876E-01  3.59413E-01
#           3.68158E-01  3.77116E-01  3.86291E-01  3.95690E-01  4.05317E-01
#           4.15179E-01  4.25281E-01  4.35628E-01  4.46227E-01  4.57084E-01
#           4.68205E-01  4.79597E-01  4.91266E-01  5.03219E-01  5.15463E-01
#           5.28005E-01  5.40851E-01  5.54011E-01  5.67490E-01  5.81298E-01
#           5.95441E-01  6.09929E-01  6.24769E-01  6.39970E-01  6.55541E-01
#           6.71491E-01  6.87828E-01  7.04564E-01  7.21706E-01  7.39266E-01
#           7.57253E-01  7.75678E-01  7.94551E-01  8.13883E-01  8.33685E-01
#           8.53969E-01  8.74747E-01  8.96030E-01  9.17831E-01  9.40163E-01
#           9.63038E-01  9.86469E-01  1.01047E+00  1.03506E+00  1.06024E+00
#           1.08604E+00  1.11246E+00  1.13953E+00  1.16725E+00  1.19565E+00
#           1.22474E+00  1.25454E+00  1.28507E+00  1.31633E+00  1.34836E+00
#           1.38117E+00  1.41477E+00  1.44920E+00  1.48446E+00  1.52057E+00
#           1.55757E+00  1.59547E+00  1.63429E+00  1.67405E+00  1.71478E+00
#           1.75650E+00  1.79924E+00  1.84302E+00  1.88786E+00  1.93379E+00
#           1.98084E+00  2.02904E+00  2.07841E+00  2.12898E+00  2.18078E+00
#           2.23384E+00  2.28819E+00  2.34386E+00  2.40089E+00  2.45930E+00
#           2.51914E+00  2.58043E+00  2.64322E+00  2.70753E+00  2.77341E+00
#           2.84088E+00  2.91001E+00  2.98081E+00  3.05333E+00  3.12762E+00
#           3.20372E+00  3.28167E+00  3.36152E+00  3.44330E+00  3.52708E+00
#           3.61290E+00  3.70080E+00  3.79085E+00  3.88308E+00  3.97756E+00
#           4.07434E+00  4.17347E+00  4.27501E+00  4.37903E+00  4.48557E+00
#           4.59471E+00  4.70650E+00  4.82102E+00  4.93832E+00  5.05847E+00
#           5.18155E+00  5.30762E+00  5.43676E+00  5.56904E+00  5.70453E+00
#           5.84333E+00  5.98550E+00  6.13114E+00  6.28031E+00  6.43312E+00
#           6.58964E+00  6.74997E+00  6.91420E+00  7.08243E+00  7.25475E+00
#           7.43126E+00  7.61207E+00  7.79728E+00  7.98700E+00  8.18133E+00
#           8.38038E+00  8.58428E+00  8.79315E+00  9.00709E+00  9.22624E+00
#           9.45072E+00  9.68067E+00  9.91620E+00  1.01575E+01  1.04046E+01
#           1.06578E+01  1.09171E+01  1.11827E+01  1.14548E+01  1.17335E+01
#           1.20190E+01  1.23114E+01  1.26109E+01  1.29178E+01  1.32321E+01
#           1.35540E+01  1.38838E+01  1.42216E+01  1.45676E+01  1.49221E+01
#           1.52851E+01  1.56570E+01  1.60380E+01  1.64282E+01  1.68279E+01
#           1.72374E+01  1.76568E+01  1.80864E+01  1.85264E+01  1.89772E+01
#           1.94389E+01  1.99119E+01  2.03963E+01  2.08926E+01  2.14009E+01
#           2.19216E+01  2.24550E+01  2.30014E+01  2.35610E+01  2.41343E+01
#           2.47215E+01  2.53230E+01  2.59391E+01  2.65702E+01  2.72167E+01
#           2.78789E+01  2.85572E+01  2.92520E+01  2.99637E+01  3.06928E+01
#           3.14396E+01  3.22045E+01  3.29881E+01  3.37907E+01  3.46128E+01
#           3.54550E+01  3.63177E+01  3.72013E+01  3.81064E+01  3.90336E+01
#           3.99833E+01  4.09561E+01  4.19526E+01  4.29734E+01  4.40189E+01
#           4.50900E+01  4.61870E+01  4.73108E+01  4.84619E+01  4.96410E+01
#           5.08488E+01  5.20860E+01  5.33533E+01  5.46514E+01  5.59812E+01
#           5.73432E+01  5.87384E+01  6.01676E+01  6.16315E+01  6.31311E+01
#           6.46671E+01  6.62405E+01  6.78522E+01  6.95031E+01  7.11941E+01
#           7.29263E+01  7.47007E+01  7.65182E+01  7.83800E+01  8.02870E+01
#           8.22405E+01  8.42414E+01  8.62911E+01  8.83906E+01  9.05412E+01
#           9.27442E+01  9.50007E+01  9.73122E+01  9.96799E+01  1.02105E+02
#           1.04589E+02  1.07134E+02  1.09741E+02  1.12411E+02  1.15146E+02
#           1.17948E+02  1.20817E+02  1.23757E+02  1.26768E+02  1.29852E+02
#           1.33012E+02  1.36248E+02  1.39563E+02  1.42959E+02  1.46437E+02
#           1.50000E+02
     unit =    2            # unit is [1/cm^2/(MeV/n)/source]
     axis =  eng            # axis of output
     file = detector-20.out  # file name of output for the above axis
   output = f-curr          # surface crossing forward current spectrum
     part =  neutron  
# kf/name :  2112     
#    used :        main (  %)        temp (  %)       total (  %)
#  memory :         414 (  0)           0 (  0)         414 (  0)

#------------------------------------------------------------------------------
#newpage:
#   no. =    1   reg = 119 - 219

x: Energy [MeV/n]
y:  F-Curr [1/cm^2/(MeV/n)/source]         
p: xlog ylog afac(0.8) form(0.9)
h: n            x            y(neutron ),hh0l   n 
#  e-lower      e-upper      neutron     r.err 
   1.0000E-02   1.0243E-02   2.7126E-04  0.1741
   1.0243E-02   1.0493E-02   3.0494E-04  0.1622
   1.0493E-02   1.0748E-02   2.6636E-04  0.1715
   1.0748E-02   1.1009E-02   2.3709E-04  0.1796
   1.1009E-02   1.1277E-02   2.3146E-04  0.1796
   1.1277E-02   1.1552E-02   1.9681E-04  0.1925
   1.1552E-02   1.1833E-02   2.4906E-04  0.1690
   1.1833E-02   1.2121E-02   1.7367E-04  0.2000
   1.2121E-02   1.2415E-02   1.9668E-04  0.1857
   1.2415E-02   1.2718E-02   2.5821E-04  0.1601
   1.2718E-02   1.3027E-02   2.0037E-04  0.1796
   1.3027E-02   1.3344E-02   2.3978E-04  0.1622
   1.3344E-02   1.3669E-02   2.4025E-04  0.1601
   1.3669E-02   1.4001E-02   2.4055E-04  0.1581
   1.4001E-02   1.4342E-02   2.8768E-04  0.1429
   1.4342E-02   1.4691E-02   1.9487E-04  0.1715
   1.4691E-02   1.5048E-02   2.7417E-04  0.1429
   1.5048E-02   1.5414E-02   2.5127E-04  0.1474
   1.5414E-02   1.5789E-02   2.3464E-04  0.1508
   1.5789E-02   1.6174E-02   1.8742E-04  0.1667
   1.6174E-02   1.6567E-02   2.3379E-04  0.1474
   1.6567E-02   1.6970E-02   2.6297E-04  0.1374
   1.6970E-02   1.7383E-02   2.5672E-04  0.1374
   1.7383E-02   1.7806E-02   2.7900E-04  0.1302
   1.7806E-02   1.8239E-02   2.1697E-04  0.1459
   1.8239E-02   1.8683E-02   3.1548E-04  0.1195
   1.8683E-02   1.9138E-02   2.3759E-04  0.1361
   1.9138E-02   1.9603E-02   2.6630E-04  0.1270
   1.9603E-02   2.0080E-02   2.0966E-04  0.1414
   2.0080E-02   2.0569E-02   2.8655E-04  0.1195
   2.0569E-02   2.1069E-02   2.1980E-04  0.1348
   2.1069E-02   2.1582E-02   2.3799E-04  0.1280
   2.1582E-02   2.2107E-02   2.6661E-04  0.1195
   2.2107E-02   2.2645E-02   2.7144E-04  0.1170
   2.2645E-02   2.3196E-02   2.7588E-04  0.1147
   2.3196E-02   2.3760E-02   2.1617E-04  0.1280
   2.3760E-02   2.4338E-02   2.4909E-04  0.1179
   2.4338E-02   2.4930E-02   2.7357E-04  0.1111
   2.4930E-02   2.5537E-02   2.3740E-04  0.1179
   2.5537E-02   2.6158E-02   2.5107E-04  0.1132
   2.6158E-02   2.6795E-02   2.6711E-04  0.1085
   2.6795E-02   2.7447E-02   3.0064E-04  0.1010
   2.7447E-02   2.8114E-02   2.6355E-04  0.1066
   2.8114E-02   2.8799E-02   2.6899E-04  0.1043
   2.8799E-02   2.9499E-02   2.7402E-04  0.1021
   2.9499E-02   3.0217E-02   2.5357E-04  0.1048
   3.0217E-02   3.0952E-02   2.8020E-04  0.0985
   3.0952E-02   3.1705E-02   2.6823E-04  0.0995
   3.1705E-02   3.2477E-02   2.8260E-04  0.0958
   3.2477E-02   3.3267E-02   2.3286E-04  0.1043
   3.3267E-02   3.4076E-02   2.6933E-04  0.0958
   3.4076E-02   3.4905E-02   2.8706E-04  0.0917
   3.4905E-02   3.5755E-02   2.7553E-04  0.0925
   3.5755E-02   3.6625E-02   2.6898E-04  0.0925
   3.6625E-02   3.7516E-02   2.9177E-04  0.0877
   3.7516E-02   3.8428E-02   2.8265E-04  0.0880
   3.8428E-02   3.9363E-02   2.7380E-04  0.0884
   3.9363E-02   4.0321E-02   2.8818E-04  0.0851
   4.0321E-02   4.1302E-02   2.7929E-04  0.0854
   4.1302E-02   4.2307E-02   2.8858E-04  0.0830
   4.2307E-02   4.3337E-02   2.8756E-04  0.0822
   4.3337E-02   4.4391E-02   2.5607E-04  0.0861
   4.4391E-02   4.5471E-02   2.9813E-04  0.0788
   4.5471E-02   4.6577E-02   2.6393E-04  0.0828
   4.6577E-02   4.7711E-02   3.3002E-04  0.0731
   4.7711E-02   4.8871E-02   2.6533E-04  0.0806
   4.8871E-02   5.0061E-02   3.3976E-04  0.0704
   5.0061E-02   5.1279E-02   3.0542E-04  0.0733
   5.1279E-02   5.2526E-02   3.1900E-04  0.0709
   5.2526E-02   5.3804E-02   3.4742E-04  0.0671
   5.3804E-02   5.5113E-02   2.4903E-04  0.0783
   5.5113E-02   5.6454E-02   2.7891E-04  0.0731
   5.6454E-02   5.7828E-02   2.9267E-04  0.0705
   5.7828E-02   5.9235E-02   2.8998E-04  0.0700
   5.9235E-02   6.0676E-02   2.9558E-04  0.0685
   6.0676E-02   6.2152E-02   2.9940E-04  0.0673
   6.2152E-02   6.3665E-02   3.0022E-04  0.0664
   6.3665E-02   6.5214E-02   2.9696E-04  0.0659
   6.5214E-02   6.6800E-02   2.8613E-04  0.0664
   6.6800E-02   6.8426E-02   2.8918E-04  0.0652
   6.8426E-02   7.0090E-02   3.2556E-04  0.0607
   7.0090E-02   7.1796E-02   3.0492E-04  0.0620
   7.1796E-02   7.3543E-02   3.0856E-04  0.0609
   7.3543E-02   7.5332E-02   3.1185E-04  0.0599
   7.5332E-02   7.7165E-02   3.1862E-04  0.0585
   7.7165E-02   7.9042E-02   3.2490E-04  0.0573
   7.9042E-02   8.0965E-02   3.2655E-04  0.0564
   8.0965E-02   8.2935E-02   3.4214E-04  0.0545
   8.2935E-02   8.4953E-02   3.0329E-04  0.0572
   8.4953E-02   8.7020E-02   3.2221E-04  0.0548
   8.7020E-02   8.9138E-02   2.8811E-04  0.0573
   8.9138E-02   9.1306E-02   2.8864E-04  0.0565
   9.1306E-02   9.3528E-02   3.1419E-04  0.0535
   9.3528E-02   9.5804E-02   2.9531E-04  0.0546
   9.5804E-02   9.8134E-02   2.9945E-04  0.0535
   9.8134E-02   1.0052E-01   3.4678E-04  0.0491
   1.0052E-01   1.0297E-01   3.4835E-04  0.0485
   1.0297E-01   1.0547E-01   3.3449E-04  0.0489
   1.0547E-01   1.0804E-01   3.1408E-04  0.0498
   1.0804E-01   1.1067E-01   3.1651E-04  0.0490
   1.1067E-01   1.1336E-01   3.2979E-04  0.0475
   1.1336E-01   1.1612E-01   3.3066E-04  0.0468
   1.1612E-01   1.1894E-01   3.2280E-04  0.0468
   1.1894E-01   1.2184E-01   3.3587E-04  0.0454
   1.2184E-01   1.2480E-01   3.7444E-04  0.0424
   1.2480E-01   1.2784E-01   3.3393E-04  0.0444
   1.2784E-01   1.3095E-01   3.2600E-04  0.0444
   1.3095E-01   1.3414E-01   3.4525E-04  0.0426
   1.3414E-01   1.3740E-01   3.9649E-04  0.0393
   1.3740E-01   1.4074E-01   3.4101E-04  0.0419
   1.4074E-01   1.4417E-01   3.5452E-04  0.0406
   1.4417E-01   1.4767E-01   3.2785E-04  0.0417
   1.4767E-01   1.5127E-01   3.7962E-04  0.0383
   1.5127E-01   1.5495E-01   3.3746E-04  0.0401
   1.5495E-01   1.5872E-01   3.5809E-04  0.0385
   1.5872E-01   1.6258E-01   3.6616E-04  0.0376
   1.6258E-01   1.6654E-01   3.6403E-04  0.0373
   1.6654E-01   1.7059E-01   3.7612E-04  0.0363
   1.7059E-01   1.7474E-01   3.7586E-04  0.0358
   1.7474E-01   1.7899E-01   3.4529E-04  0.0369
   1.7899E-01   1.8334E-01   3.6969E-04  0.0352
   1.8334E-01   1.8781E-01   3.7705E-04  0.0345
   1.8781E-01   1.9237E-01   3.6810E-04  0.0345
   1.9237E-01   1.9706E-01   3.6576E-04  0.0342
   1.9706E-01   2.0185E-01   3.7877E-04  0.0332
   2.0185E-01   2.0676E-01   3.8932E-04  0.0323
   2.0676E-01   2.1179E-01   3.8921E-04  0.0320
   2.1179E-01   2.1694E-01   3.5940E-04  0.0329
   2.1694E-01   2.2222E-01   4.0467E-04  0.0306
   2.2222E-01   2.2763E-01   3.8285E-04  0.0311
   2.2763E-01   2.3317E-01   3.9686E-04  0.0302
   2.3317E-01   2.3884E-01   3.8532E-04  0.0302
   2.3884E-01   2.4465E-01   3.9166E-04  0.0296
   2.4465E-01   2.5061E-01   3.9445E-04  0.0292
   2.5061E-01   2.5670E-01   4.1329E-04  0.0282
   2.5670E-01   2.6295E-01   3.8938E-04  0.0287
   2.6295E-01   2.6935E-01   4.0546E-04  0.0278
   2.6935E-01   2.7590E-01   3.9308E-04  0.0279
   2.7590E-01   2.8261E-01   4.0072E-04  0.0273
   2.8261E-01   2.8949E-01   4.0575E-04  0.0268
   2.8949E-01   2.9653E-01   4.2365E-04  0.0259
   2.9653E-01   3.0375E-01   4.2080E-04  0.0257
   3.0375E-01   3.1114E-01   4.2082E-04  0.0254
   3.1114E-01   3.1871E-01   4.0897E-04  0.0254
   3.1871E-01   3.2646E-01   4.1834E-04  0.0248
   3.2646E-01   3.3441E-01   4.0261E-04  0.0250
   3.3441E-01   3.4254E-01   4.2058E-04  0.0242
   3.4254E-01   3.5088E-01   4.3195E-04  0.0236
   3.5088E-01   3.5941E-01   4.2591E-04  0.0235
   3.5941E-01   3.6816E-01   4.3134E-04  0.0230
   3.6816E-01   3.7712E-01   4.1775E-04  0.0231
   3.7712E-01   3.8629E-01   4.3376E-04  0.0224
   3.8629E-01   3.9569E-01   4.3601E-04  0.0221
   3.9569E-01   4.0532E-01   4.4768E-04  0.0215
   4.0532E-01   4.1518E-01   4.4110E-04  0.0214
   4.1518E-01   4.2528E-01   4.3775E-04  0.0213
   4.2528E-01   4.3563E-01   4.5035E-04  0.0207
   4.3563E-01   4.4623E-01   4.4456E-04  0.0206
   4.4623E-01   4.5708E-01   4.2986E-04  0.0207
   4.5708E-01   4.6821E-01   4.4689E-04  0.0201
   4.6821E-01   4.7960E-01   4.5155E-04  0.0197
   4.7960E-01   4.9127E-01   4.3637E-04  0.0198
   4.9127E-01   5.0322E-01   4.5930E-04  0.0191
   5.0322E-01   5.1546E-01   4.4758E-04  0.0191
   5.1546E-01   5.2800E-01   4.5576E-04  0.0187
   5.2800E-01   5.4085E-01   4.4945E-04  0.0186
   5.4085E-01   5.5401E-01   4.6173E-04  0.0181
   5.5401E-01   5.6749E-01   4.6723E-04  0.0178
   5.6749E-01   5.8130E-01   4.6583E-04  0.0176
   5.8130E-01   5.9544E-01   4.5491E-04  0.0176
   5.9544E-01   6.0993E-01   4.6799E-04  0.0172
   6.0993E-01   6.2477E-01   4.5202E-04  0.0173
   6.2477E-01   6.3997E-01   4.5812E-04  0.0169
   6.3997E-01   6.5554E-01   4.5675E-04  0.0168
   6.5554E-01   6.7149E-01   4.6195E-04  0.0165
   6.7149E-01   6.8783E-01   4.6738E-04  0.0162
   6.8783E-01   7.0456E-01   4.5604E-04  0.0162
   7.0456E-01   7.2171E-01   4.5582E-04  0.0160
   7.2171E-01   7.3927E-01   4.5445E-04  0.0158
   7.3927E-01   7.5725E-01   4.5589E-04  0.0156
   7.5725E-01   7.7568E-01   4.4831E-04  0.0156
   7.7568E-01   7.9455E-01   4.6660E-04  0.0151
   7.9455E-01   8.1388E-01   4.4837E-04  0.0152
   8.1388E-01   8.3368E-01   4.4550E-04  0.0151
   8.3368E-01   8.5397E-01   4.5005E-04  0.0148
   8.5397E-01   8.7475E-01   4.6521E-04  0.0144
   8.7475E-01   8.9603E-01   4.4345E-04  0.0146
   8.9603E-01   9.1783E-01   4.2622E-04  0.0147
   9.1783E-01   9.4016E-01   4.2747E-04  0.0145
   9.4016E-01   9.6304E-01   4.2168E-04  0.0144
   9.6304E-01   9.8647E-01   3.9605E-04  0.0147
   9.8647E-01   1.0105E+00   3.9214E-04  0.0146
   1.0105E+00   1.0351E+00   3.8397E-04  0.0146
   1.0351E+00   1.0602E+00   3.8938E-04  0.0143
   1.0602E+00   1.0860E+00   3.7269E-04  0.0144
   1.0860E+00   1.1125E+00   3.7980E-04  0.0141
   1.1125E+00   1.1395E+00   3.6022E-04  0.0143
   1.1395E+00   1.1673E+00   3.6017E-04  0.0142
   1.1673E+00   1.1957E+00   3.6676E-04  0.0139
   1.1957E+00   1.2247E+00   3.6169E-04  0.0138
   1.2247E+00   1.2545E+00   3.5162E-04  0.0138
   1.2545E+00   1.2851E+00   3.3993E-04  0.0139
   1.2851E+00   1.3163E+00   3.2770E-04  0.0140
   1.3163E+00   1.3484E+00   3.2915E-04  0.0138
   1.3484E+00   1.3812E+00   3.2445E-04  0.0137
   1.3812E+00   1.4148E+00   3.2358E-04  0.0136
   1.4148E+00   1.4492E+00   3.1747E-04  0.0135
   1.4492E+00   1.4845E+00   3.1395E-04  0.0134
   1.4845E+00   1.5206E+00   2.9957E-04  0.0136
   1.5206E+00   1.5576E+00   3.0257E-04  0.0134
   1.5576E+00   1.5955E+00   2.8171E-04  0.0137
   1.5955E+00   1.6343E+00   2.7821E-04  0.0136
   1.6343E+00   1.6741E+00   2.7296E-04  0.0136
   1.6741E+00   1.7148E+00   2.6879E-04  0.0135
   1.7148E+00   1.7565E+00   2.5389E-04  0.0137
   1.7565E+00   1.7992E+00   2.4756E-04  0.0138
   1.7992E+00   1.8430E+00   2.4113E-04  0.0138
   1.8430E+00   1.8879E+00   2.3326E-04  0.0138
   1.8879E+00   1.9338E+00   2.2572E-04  0.0139
   1.9338E+00   1.9808E+00   2.2359E-04  0.0138
   1.9808E+00   2.0290E+00   2.1355E-04  0.0139
   2.0290E+00   2.0784E+00   2.0657E-04  0.0140
   2.0784E+00   2.1290E+00   1.9694E-04  0.0142
   2.1290E+00   2.1808E+00   1.9768E-04  0.0140
   2.1808E+00   2.2338E+00   1.8443E-04  0.0143
   2.2338E+00   2.2882E+00   1.7766E-04  0.0144
   2.2882E+00   2.3439E+00   1.7231E-04  0.0145
   2.3439E+00   2.4009E+00   1.6362E-04  0.0146
   2.4009E+00   2.4593E+00   1.5636E-04  0.0148
   2.4593E+00   2.5191E+00   1.5368E-04  0.0147
   2.5191E+00   2.5804E+00   1.4685E-04  0.0149
   2.5804E+00   2.6432E+00   1.4112E-04  0.0150
   2.6432E+00   2.7075E+00   1.3099E-04  0.0154
   2.7075E+00   2.7734E+00   1.2656E-04  0.0155
   2.7734E+00   2.8409E+00   1.2324E-04  0.0155
   2.8409E+00   2.9100E+00   1.1204E-04  0.0161
   2.9100E+00   2.9808E+00   1.0895E-04  0.0161
   2.9808E+00   3.0533E+00   1.0485E-04  0.0162
   3.0533E+00   3.1276E+00   1.0031E-04  0.0164
   3.1276E+00   3.2037E+00   9.7822E-05  0.0164
   3.2037E+00   3.2817E+00   9.2586E-05  0.0167
   3.2817E+00   3.3615E+00   8.7707E-05  0.0169
   3.3615E+00   3.4433E+00   8.4144E-05  0.0170
   3.4433E+00   3.5271E+00   7.5819E-05  0.0177
   3.5271E+00   3.6129E+00   7.4333E-05  0.0177
   3.6129E+00   3.7008E+00   7.0292E-05  0.0180
   3.7008E+00   3.7908E+00   6.6268E-05  0.0183
   3.7908E+00   3.8831E+00   6.4607E-05  0.0183
   3.8831E+00   3.9776E+00   5.8034E-05  0.0191
   3.9776E+00   4.0743E+00   5.7658E-05  0.0189
   4.0743E+00   4.1735E+00   5.2173E-05  0.0197
   4.1735E+00   4.2750E+00   4.9378E-05  0.0200
   4.2750E+00   4.3790E+00   4.6907E-05  0.0202
   4.3790E+00   4.4856E+00   4.4169E-05  0.0206
   4.4856E+00   4.5947E+00   4.2772E-05  0.0207
   4.5947E+00   4.7065E+00   3.8965E-05  0.0214
   4.7065E+00   4.8210E+00   3.7419E-05  0.0216
   4.8210E+00   4.9383E+00   3.3913E-05  0.0224
   4.9383E+00   5.0585E+00   3.3382E-05  0.0223
   5.0585E+00   5.1815E+00   3.0396E-05  0.0231
   5.1815E+00   5.3076E+00   2.7564E-05  0.0240
   5.3076E+00   5.4368E+00   2.6166E-05  0.0243
   5.4368E+00   5.5690E+00   2.4871E-05  0.0246
   5.5690E+00   5.7045E+00   2.3107E-05  0.0253
   5.7045E+00   5.8433E+00   2.0519E-05  0.0265
   5.8433E+00   5.9855E+00   1.9758E-05  0.0267
   5.9855E+00   6.1311E+00   1.8691E-05  0.0271
   6.1311E+00   6.2803E+00   1.7020E-05  0.0281
   6.2803E+00   6.4331E+00   1.6034E-05  0.0286
   6.4331E+00   6.5896E+00   1.4273E-05  0.0299
   6.5896E+00   6.7500E+00   1.2942E-05  0.0310
   6.7500E+00   6.9142E+00   1.2720E-05  0.0309
   6.9142E+00   7.0824E+00   1.1324E-05  0.0324
   7.0824E+00   7.2548E+00   9.8015E-06  0.0344
   7.2548E+00   7.4313E+00   1.0282E-05  0.0332
   7.4313E+00   7.6121E+00   9.2639E-06  0.0345
   7.6121E+00   7.7973E+00   8.5958E-06  0.0354
   7.7973E+00   7.9870E+00   7.1476E-06  0.0384
   7.9870E+00   8.1813E+00   7.1528E-06  0.0379
   8.1813E+00   8.3804E+00   6.6061E-06  0.0390
   8.3804E+00   8.5843E+00   6.0716E-06  0.0402
   8.5843E+00   8.7931E+00   5.6784E-06  0.0411
   8.7931E+00   9.0071E+00   4.7349E-06  0.0444
   9.0071E+00   9.2262E+00   4.7274E-06  0.0439
   9.2262E+00   9.4507E+00   4.3478E-06  0.0452
   9.4507E+00   9.6807E+00   4.0401E-06  0.0464
   9.6807E+00   9.9162E+00   3.7106E-06  0.0478
   9.9162E+00   1.0157E+01   3.2992E-06  0.0501
   1.0157E+01   1.0405E+01   3.2330E-06  0.0500
   1.0405E+01   1.0658E+01   2.8204E-06  0.0529
   1.0658E+01   1.0917E+01   2.6455E-06  0.0540
   1.0917E+01   1.1183E+01   2.2965E-06  0.0573
   1.1183E+01   1.1455E+01   2.0913E-06  0.0593
   1.1455E+01   1.1733E+01   2.1815E-06  0.0573
   1.1733E+01   1.2019E+01   2.0947E-06  0.0578
   1.2019E+01   1.2311E+01   1.9321E-06  0.0595
   1.2311E+01   1.2611E+01   1.7827E-06  0.0611
   1.2611E+01   1.2918E+01   1.4633E-06  0.0667
   1.2918E+01   1.3232E+01   1.4031E-06  0.0673
   1.3232E+01   1.3554E+01   1.1990E-06  0.0720
   1.3554E+01   1.3884E+01   1.2069E-06  0.0709
   1.3884E+01   1.4222E+01   1.1841E-06  0.0707
   1.4222E+01   1.4568E+01   1.2600E-06  0.0677
   1.4568E+01   1.4922E+01   1.0213E-06  0.0743
   1.4922E+01   1.5285E+01   1.0301E-06  0.0731
   1.5285E+01   1.5657E+01   8.5507E-07  0.0793
   1.5657E+01   1.6038E+01   9.6076E-07  0.0739
   1.6038E+01   1.6428E+01   8.4568E-07  0.0778
   1.6428E+01   1.6828E+01   8.5562E-07  0.0765
   1.6828E+01   1.7237E+01   6.6921E-07  0.0854
   1.7237E+01   1.7657E+01   6.0563E-07  0.0887
   1.7657E+01   1.8086E+01   6.2849E-07  0.0861
   1.8086E+01   1.8526E+01   6.1810E-07  0.0857
   1.8526E+01   1.8977E+01   5.4131E-07  0.0905
   1.8977E+01   1.9439E+01   4.4615E-07  0.0985
   1.9439E+01   1.9912E+01   4.1864E-07  0.1005
   1.9912E+01   2.0396E+01   4.0456E-07  0.1010
   2.0396E+01   2.0893E+01   4.1108E-07  0.0990
   2.0893E+01   2.1401E+01   3.8951E-07  0.1005
   2.1401E+01   2.1922E+01   3.4569E-07  0.1054
   2.1922E+01   2.2455E+01   3.0748E-07  0.1104
   2.2455E+01   2.3001E+01   3.5142E-07  0.1021
   2.3001E+01   2.3561E+01   2.6088E-07  0.1170
   2.3561E+01   2.4134E+01   2.8260E-07  0.1111
   2.4134E+01   2.4721E+01   2.5545E-07  0.1155
   2.4721E+01   2.5323E+01   2.4938E-07  0.1155
   2.5323E+01   2.5939E+01   1.9801E-07  0.1280
   2.5939E+01   2.6570E+01   1.5845E-07  0.1414
   2.6570E+01   2.7217E+01   1.9181E-07  0.1270
   2.7217E+01   2.7879E+01   1.6913E-07  0.1336
   2.7879E+01   2.8557E+01   1.5627E-07  0.1374
   2.8557E+01   2.9252E+01   1.1514E-07  0.1581
   2.9252E+01   2.9964E+01   8.9922E-08  0.1768
   2.9964E+01   3.0693E+01   9.3273E-08  0.1715
   3.0693E+01   3.1440E+01   5.3563E-08  0.2236
   3.1440E+01   3.2205E+01   7.3207E-08  0.1890
   3.2205E+01   3.2988E+01   5.8706E-08  0.2085
   3.2988E+01   3.3791E+01   5.9804E-08  0.2041
   3.3791E+01   3.4613E+01   3.4057E-08  0.2673
   3.4613E+01   3.5455E+01   6.4121E-08  0.1925
   3.5455E+01   3.6318E+01   4.6369E-08  0.2236
   3.6318E+01   3.7201E+01   2.0370E-08  0.3333
   3.7201E+01   3.8106E+01   3.5354E-08  0.2500
   3.8106E+01   3.9034E+01   1.9414E-08  0.3333
   3.9034E+01   3.9983E+01   2.7377E-08  0.2774
   3.9983E+01   4.0956E+01   3.2894E-08  0.2500
   4.0956E+01   4.1953E+01   2.2077E-08  0.3015
   4.1953E+01   4.2973E+01   1.1756E-08  0.4082
   4.2973E+01   4.4019E+01   5.7385E-09  0.5774
   4.4019E+01   4.5090E+01   3.7348E-09  0.7071
   4.5090E+01   4.6187E+01   5.4691E-09  0.5774
   4.6187E+01   4.7311E+01   1.7797E-09  1.0000
   4.7311E+01   4.8462E+01   1.7375E-09  1.0000
   4.8462E+01   4.9641E+01   3.3924E-09  0.7071
   4.9641E+01   5.0849E+01   0.0000E+00  0.0000
   5.0849E+01   5.2086E+01   0.0000E+00  0.0000
   5.2086E+01   5.3353E+01   0.0000E+00  0.0000
   5.3353E+01   5.4651E+01   0.0000E+00  0.0000
   5.4651E+01   5.5981E+01   0.0000E+00  0.0000
   5.5981E+01   5.7343E+01   0.0000E+00  0.0000
   5.7343E+01   5.8738E+01   0.0000E+00  0.0000
   5.8738E+01   6.0168E+01   0.0000E+00  0.0000
   6.0168E+01   6.1632E+01   0.0000E+00  0.0000
   6.1632E+01   6.3131E+01   0.0000E+00  0.0000
   6.3131E+01   6.4667E+01   0.0000E+00  0.0000
   6.4667E+01   6.6240E+01   0.0000E+00  0.0000
   6.6240E+01   6.7852E+01   0.0000E+00  0.0000
   6.7852E+01   6.9503E+01   0.0000E+00  0.0000
   6.9503E+01   7.1194E+01   0.0000E+00  0.0000
   7.1194E+01   7.2926E+01   0.0000E+00  0.0000
   7.2926E+01   7.4701E+01   0.0000E+00  0.0000
   7.4701E+01   7.6518E+01   0.0000E+00  0.0000
   7.6518E+01   7.8380E+01   0.0000E+00  0.0000
   7.8380E+01   8.0287E+01   0.0000E+00  0.0000
   8.0287E+01   8.2240E+01   0.0000E+00  0.0000
   8.2240E+01   8.4241E+01   0.0000E+00  0.0000
   8.4241E+01   8.6291E+01   0.0000E+00  0.0000
   8.6291E+01   8.8391E+01   0.0000E+00  0.0000
   8.8391E+01   9.0541E+01   0.0000E+00  0.0000
   9.0541E+01   9.2744E+01   0.0000E+00  0.0000
   9.2744E+01   9.5001E+01   0.0000E+00  0.0000
   9.5001E+01   9.7312E+01   0.0000E+00  0.0000
   9.7312E+01   9.9680E+01   0.0000E+00  0.0000
   9.9680E+01   1.0211E+02   0.0000E+00  0.0000
   1.0211E+02   1.0459E+02   0.0000E+00  0.0000
   1.0459E+02   1.0713E+02   0.0000E+00  0.0000
   1.0713E+02   1.0974E+02   0.0000E+00  0.0000
   1.0974E+02   1.1241E+02   0.0000E+00  0.0000
   1.1241E+02   1.1515E+02   0.0000E+00  0.0000
   1.1515E+02   1.1795E+02   0.0000E+00  0.0000
   1.1795E+02   1.2082E+02   0.0000E+00  0.0000
   1.2082E+02   1.2376E+02   0.0000E+00  0.0000
   1.2376E+02   1.2677E+02   0.0000E+00  0.0000
   1.2677E+02   1.2985E+02   0.0000E+00  0.0000
   1.2985E+02   1.3301E+02   0.0000E+00  0.0000
   1.3301E+02   1.3625E+02   0.0000E+00  0.0000
   1.3625E+02   1.3956E+02   0.0000E+00  0.0000
   1.3956E+02   1.4296E+02   0.0000E+00  0.0000
   1.4296E+02   1.4644E+02   0.0000E+00  0.0000
   1.4644E+02   1.5000E+02   0.0000E+00  0.0000

#   sum over                 7.0923E-06
'no. =    1   reg = 119 - 219'
msuc: {\huge [t-cross] in region mesh}
msdr: {\it plotted by \ANGEL \version}
msdl: {\it calculated by \PHITS  3.26}
wt: s(0.7)
\vspace{-3}
  region surface crossing
  area  &=&   1.0000E+00 [cm^2]
e:
 
# Information for Restart Calculation
# This calculation was newly started
# istdev =  2 # 1:Batch variance, 2:History variance
# resc2  = 5.00000000000000000E+08 # Total source weight or Total source weight / maxcas
# resc3  = 5.00000000000000000E+08 # Total history number or Total batch number
# maxcas =   500000000 # History / Batch, only used for istdev=1
# bitrseed = 1101101111010011011000101101110001100110110010110001010100010001 # bit data of rseed
