[ T-Cross ]
    title = [t-cross] in region mesh
     mesh =  reg            # mesh type is region-wise
      reg =    1            # number of crossing regions
      non     r-from    r-to       area
      1       110       210        1.000000    
   e-type =    3            # e-mesh is log given by emin, emax and ne
     emin =  1.0000000E-02  # minimum value of e-mesh points
     emax =   150.0000      # maximum value of e-mesh points
#    edel =  2.4039514E-02  # mesh width of e-mesh points
       ne =    400          # number of e-mesh points
#    data = ( e(i), i = 1, ne + 1 )
#           1.00000E-02  1.02433E-02  1.04925E-02  1.07478E-02  1.10093E-02
#           1.12772E-02  1.15516E-02  1.18326E-02  1.21205E-02  1.24154E-02
#           1.27175E-02  1.30269E-02  1.33439E-02  1.36686E-02  1.40011E-02
#           1.43418E-02  1.46907E-02  1.50482E-02  1.54143E-02  1.57894E-02
#           1.61735E-02  1.65670E-02  1.69701E-02  1.73830E-02  1.78060E-02
#           1.82392E-02  1.86830E-02  1.91375E-02  1.96032E-02  2.00801E-02
#           2.05687E-02  2.10692E-02  2.15818E-02  2.21069E-02  2.26448E-02
#           2.31957E-02  2.37601E-02  2.43382E-02  2.49304E-02  2.55369E-02
#           2.61583E-02  2.67947E-02  2.74467E-02  2.81145E-02  2.87985E-02
#           2.94992E-02  3.02169E-02  3.09521E-02  3.17052E-02  3.24766E-02
#           3.32668E-02  3.40762E-02  3.49053E-02  3.57546E-02  3.66246E-02
#           3.75157E-02  3.84284E-02  3.93634E-02  4.03212E-02  4.13022E-02
#           4.23071E-02  4.33365E-02  4.43909E-02  4.54710E-02  4.65773E-02
#           4.77106E-02  4.88714E-02  5.00605E-02  5.12785E-02  5.25262E-02
#           5.38042E-02  5.51133E-02  5.64542E-02  5.78278E-02  5.92348E-02
#           6.06760E-02  6.21523E-02  6.36645E-02  6.52135E-02  6.68002E-02
#           6.84255E-02  7.00904E-02  7.17957E-02  7.35426E-02  7.53319E-02
#           7.71648E-02  7.90423E-02  8.09655E-02  8.29354E-02  8.49533E-02
#           8.70203E-02  8.91376E-02  9.13064E-02  9.35279E-02  9.58035E-02
#           9.81345E-02  1.00522E-01  1.02968E-01  1.05473E-01  1.08040E-01
#           1.10668E-01  1.13361E-01  1.16119E-01  1.18944E-01  1.21838E-01
#           1.24803E-01  1.27839E-01  1.30950E-01  1.34136E-01  1.37399E-01
#           1.40742E-01  1.44167E-01  1.47675E-01  1.51268E-01  1.54948E-01
#           1.58718E-01  1.62580E-01  1.66535E-01  1.70587E-01  1.74738E-01
#           1.78989E-01  1.83344E-01  1.87805E-01  1.92375E-01  1.97055E-01
#           2.01850E-01  2.06761E-01  2.11792E-01  2.16945E-01  2.22223E-01
#           2.27630E-01  2.33169E-01  2.38842E-01  2.44653E-01  2.50605E-01
#           2.56703E-01  2.62949E-01  2.69346E-01  2.75900E-01  2.82613E-01
#           2.89489E-01  2.96532E-01  3.03747E-01  3.11138E-01  3.18708E-01
#           3.26462E-01  3.34405E-01  3.42542E-01  3.50876E-01  3.59413E-01
#           3.68158E-01  3.77116E-01  3.86291E-01  3.95690E-01  4.05317E-01
#           4.15179E-01  4.25281E-01  4.35628E-01  4.46227E-01  4.57084E-01
#           4.68205E-01  4.79597E-01  4.91266E-01  5.03219E-01  5.15463E-01
#           5.28005E-01  5.40851E-01  5.54011E-01  5.67490E-01  5.81298E-01
#           5.95441E-01  6.09929E-01  6.24769E-01  6.39970E-01  6.55541E-01
#           6.71491E-01  6.87828E-01  7.04564E-01  7.21706E-01  7.39266E-01
#           7.57253E-01  7.75678E-01  7.94551E-01  8.13883E-01  8.33685E-01
#           8.53969E-01  8.74747E-01  8.96030E-01  9.17831E-01  9.40163E-01
#           9.63038E-01  9.86469E-01  1.01047E+00  1.03506E+00  1.06024E+00
#           1.08604E+00  1.11246E+00  1.13953E+00  1.16725E+00  1.19565E+00
#           1.22474E+00  1.25454E+00  1.28507E+00  1.31633E+00  1.34836E+00
#           1.38117E+00  1.41477E+00  1.44920E+00  1.48446E+00  1.52057E+00
#           1.55757E+00  1.59547E+00  1.63429E+00  1.67405E+00  1.71478E+00
#           1.75650E+00  1.79924E+00  1.84302E+00  1.88786E+00  1.93379E+00
#           1.98084E+00  2.02904E+00  2.07841E+00  2.12898E+00  2.18078E+00
#           2.23384E+00  2.28819E+00  2.34386E+00  2.40089E+00  2.45930E+00
#           2.51914E+00  2.58043E+00  2.64322E+00  2.70753E+00  2.77341E+00
#           2.84088E+00  2.91001E+00  2.98081E+00  3.05333E+00  3.12762E+00
#           3.20372E+00  3.28167E+00  3.36152E+00  3.44330E+00  3.52708E+00
#           3.61290E+00  3.70080E+00  3.79085E+00  3.88308E+00  3.97756E+00
#           4.07434E+00  4.17347E+00  4.27501E+00  4.37903E+00  4.48557E+00
#           4.59471E+00  4.70650E+00  4.82102E+00  4.93832E+00  5.05847E+00
#           5.18155E+00  5.30762E+00  5.43676E+00  5.56904E+00  5.70453E+00
#           5.84333E+00  5.98550E+00  6.13114E+00  6.28031E+00  6.43312E+00
#           6.58964E+00  6.74997E+00  6.91420E+00  7.08243E+00  7.25475E+00
#           7.43126E+00  7.61207E+00  7.79728E+00  7.98700E+00  8.18133E+00
#           8.38038E+00  8.58428E+00  8.79315E+00  9.00709E+00  9.22624E+00
#           9.45072E+00  9.68067E+00  9.91620E+00  1.01575E+01  1.04046E+01
#           1.06578E+01  1.09171E+01  1.11827E+01  1.14548E+01  1.17335E+01
#           1.20190E+01  1.23114E+01  1.26109E+01  1.29178E+01  1.32321E+01
#           1.35540E+01  1.38838E+01  1.42216E+01  1.45676E+01  1.49221E+01
#           1.52851E+01  1.56570E+01  1.60380E+01  1.64282E+01  1.68279E+01
#           1.72374E+01  1.76568E+01  1.80864E+01  1.85264E+01  1.89772E+01
#           1.94389E+01  1.99119E+01  2.03963E+01  2.08926E+01  2.14009E+01
#           2.19216E+01  2.24550E+01  2.30014E+01  2.35610E+01  2.41343E+01
#           2.47215E+01  2.53230E+01  2.59391E+01  2.65702E+01  2.72167E+01
#           2.78789E+01  2.85572E+01  2.92520E+01  2.99637E+01  3.06928E+01
#           3.14396E+01  3.22045E+01  3.29881E+01  3.37907E+01  3.46128E+01
#           3.54550E+01  3.63177E+01  3.72013E+01  3.81064E+01  3.90336E+01
#           3.99833E+01  4.09561E+01  4.19526E+01  4.29734E+01  4.40189E+01
#           4.50900E+01  4.61870E+01  4.73108E+01  4.84619E+01  4.96410E+01
#           5.08488E+01  5.20860E+01  5.33533E+01  5.46514E+01  5.59812E+01
#           5.73432E+01  5.87384E+01  6.01676E+01  6.16315E+01  6.31311E+01
#           6.46671E+01  6.62405E+01  6.78522E+01  6.95031E+01  7.11941E+01
#           7.29263E+01  7.47007E+01  7.65182E+01  7.83800E+01  8.02870E+01
#           8.22405E+01  8.42414E+01  8.62911E+01  8.83906E+01  9.05412E+01
#           9.27442E+01  9.50007E+01  9.73122E+01  9.96799E+01  1.02105E+02
#           1.04589E+02  1.07134E+02  1.09741E+02  1.12411E+02  1.15146E+02
#           1.17948E+02  1.20817E+02  1.23757E+02  1.26768E+02  1.29852E+02
#           1.33012E+02  1.36248E+02  1.39563E+02  1.42959E+02  1.46437E+02
#           1.50000E+02
     unit =    2            # unit is [1/cm^2/(MeV/n)/source]
     axis =  eng            # axis of output
     file = detector-11.out  # file name of output for the above axis
   output = f-curr          # surface crossing forward current spectrum
     part =  neutron  
# kf/name :  2112     
#    used :        main (  %)        temp (  %)       total (  %)
#  memory :         414 (  0)           0 (  0)         414 (  0)

#------------------------------------------------------------------------------
#newpage:
#   no. =    1   reg = 110 - 210

x: Energy [MeV/n]
y:  F-Curr [1/cm^2/(MeV/n)/source]         
p: xlog ylog afac(0.8) form(0.9)
h: n            x            y(neutron ),hh0l   n 
#  e-lower      e-upper      neutron     r.err 
   1.0000E-02   1.0243E-02   2.9592E-04  0.1667
   1.0243E-02   1.0493E-02   3.1297E-04  0.1601
   1.0493E-02   1.0748E-02   2.8986E-04  0.1644
   1.0748E-02   1.1009E-02   3.5181E-04  0.1474
   1.1009E-02   1.1277E-02   2.6879E-04  0.1667
   1.1277E-02   1.1552E-02   2.9885E-04  0.1562
   1.1552E-02   1.1833E-02   3.4157E-04  0.1443
   1.1833E-02   1.2121E-02   2.7093E-04  0.1601
   1.2121E-02   1.2415E-02   1.9668E-04  0.1857
   1.2415E-02   1.2718E-02   2.4497E-04  0.1644
   1.2718E-02   1.3027E-02   3.6842E-04  0.1325
   1.3027E-02   1.3344E-02   3.2812E-04  0.1387
   1.3344E-02   1.3669E-02   2.6489E-04  0.1525
   1.3669E-02   1.4001E-02   2.5859E-04  0.1525
   1.4001E-02   1.4342E-02   3.3465E-04  0.1325
   1.4342E-02   1.4691E-02   2.8084E-04  0.1429
   1.4691E-02   1.5048E-02   2.6858E-04  0.1443
   1.5048E-02   1.5414E-02   2.6220E-04  0.1443
   1.5414E-02   1.5789E-02   2.7197E-04  0.1400
   1.5789E-02   1.6174E-02   2.7592E-04  0.1374
   1.6174E-02   1.6567E-02   3.6085E-04  0.1187
   1.6567E-02   1.6970E-02   3.3243E-04  0.1222
   1.6970E-02   1.7383E-02   4.5532E-04  0.1031
   1.7383E-02   1.7806E-02   2.7900E-04  0.1302
   1.7806E-02   1.8239E-02   2.4467E-04  0.1374
   1.8239E-02   1.8683E-02   3.1097E-04  0.1204
   1.8683E-02   1.9138E-02   3.3438E-04  0.1147
   1.9138E-02   1.9603E-02   3.7798E-04  0.1066
   1.9603E-02   2.0080E-02   3.1868E-04  0.1147
   2.0080E-02   2.0569E-02   3.1521E-04  0.1140
   2.0569E-02   2.1069E-02   3.1172E-04  0.1132
   2.1069E-02   2.1582E-02   2.8090E-04  0.1179
   2.1582E-02   2.2107E-02   2.4757E-04  0.1240
   2.2107E-02   2.2645E-02   3.1234E-04  0.1091
   2.2645E-02   2.3196E-02   3.2307E-04  0.1060
   2.3196E-02   2.3760E-02   3.1540E-04  0.1060
   2.3760E-02   2.4338E-02   3.0098E-04  0.1072
   2.4338E-02   2.4930E-02   3.9516E-04  0.0925
   2.4930E-02   2.5537E-02   2.4399E-04  0.1162
   2.5537E-02   2.6158E-02   3.2511E-04  0.0995
   2.6158E-02   2.6795E-02   2.7339E-04  0.1072
   2.6795E-02   2.7447E-02   3.1598E-04  0.0985
   2.7447E-02   2.8114E-02   3.1147E-04  0.0981
   2.8114E-02   2.8799E-02   3.3623E-04  0.0933
   2.8799E-02   2.9499E-02   3.0541E-04  0.0967
   2.9499E-02   3.0217E-02   3.0095E-04  0.0962
   3.0217E-02   3.0952E-02   3.5636E-04  0.0874
   3.0952E-02   3.1705E-02   2.9479E-04  0.0949
   3.1705E-02   3.2477E-02   3.7593E-04  0.0830
   3.2477E-02   3.3267E-02   3.0373E-04  0.0913
   3.3267E-02   3.4076E-02   3.4346E-04  0.0848
   3.4076E-02   3.4905E-02   3.7872E-04  0.0798
   3.4905E-02   3.5755E-02   3.3205E-04  0.0842
   3.5755E-02   3.6625E-02   3.5635E-04  0.0803
   3.6625E-02   3.7516E-02   3.5013E-04  0.0801
   3.7516E-02   3.8428E-02   3.0894E-04  0.0842
   3.8428E-02   3.9363E-02   3.1872E-04  0.0819
   3.9363E-02   4.0321E-02   3.5082E-04  0.0772
   4.0321E-02   4.1302E-02   3.1191E-04  0.0808
   4.1302E-02   4.2307E-02   3.9207E-04  0.0712
   4.2307E-02   4.3337E-02   3.0698E-04  0.0796
   4.3337E-02   4.4391E-02   3.4522E-04  0.0741
   4.4391E-02   4.5471E-02   3.2220E-04  0.0758
   4.5471E-02   4.6577E-02   3.0732E-04  0.0767
   4.6577E-02   4.7711E-02   3.3884E-04  0.0722
   4.7711E-02   4.8871E-02   3.2563E-04  0.0727
   4.8871E-02   5.0061E-02   3.1453E-04  0.0731
   5.0061E-02   5.1279E-02   3.3826E-04  0.0697
   5.1279E-02   5.2526E-02   3.2381E-04  0.0704
   5.2526E-02   5.3804E-02   3.2394E-04  0.0695
   5.3804E-02   5.5113E-02   3.2541E-04  0.0685
   5.5113E-02   5.6454E-02   3.6989E-04  0.0635
   5.6454E-02   5.7828E-02   3.3198E-04  0.0662
   5.7828E-02   5.9235E-02   3.1983E-04  0.0667
   5.9235E-02   6.0676E-02   2.8032E-04  0.0704
   6.0676E-02   6.2152E-02   3.5630E-04  0.0617
   6.2152E-02   6.3665E-02   4.0206E-04  0.0574
   6.3665E-02   6.5214E-02   3.7314E-04  0.0588
   6.5214E-02   6.6800E-02   3.5798E-04  0.0593
   6.6800E-02   6.8426E-02   3.2486E-04  0.0615
   6.8426E-02   7.0090E-02   3.7601E-04  0.0565
   7.0090E-02   7.1796E-02   3.3307E-04  0.0593
   7.1796E-02   7.3543E-02   3.4920E-04  0.0573
   7.3543E-02   7.5332E-02   3.5432E-04  0.0562
   7.5332E-02   7.7165E-02   2.8698E-04  0.0617
   7.7165E-02   7.9042E-02   3.4408E-04  0.0556
   7.9042E-02   8.0965E-02   3.4110E-04  0.0552
   8.0965E-02   8.2935E-02   3.7057E-04  0.0523
   8.2935E-02   8.4953E-02   3.4888E-04  0.0533
   8.4953E-02   8.7020E-02   3.7059E-04  0.0511
   8.7020E-02   8.9138E-02   3.3912E-04  0.0528
   8.9138E-02   9.1306E-02   3.3844E-04  0.0522
   9.1306E-02   9.3528E-02   3.2860E-04  0.0523
   9.3528E-02   9.5804E-02   3.1464E-04  0.0529
   9.5804E-02   9.8134E-02   3.5436E-04  0.0492
   9.8134E-02   1.0052E-01   3.4259E-04  0.0494
   1.0052E-01   1.0297E-01   3.5735E-04  0.0478
   1.0297E-01   1.0547E-01   3.5924E-04  0.0471
   1.0547E-01   1.0804E-01   3.4058E-04  0.0478
   1.0804E-01   1.1067E-01   3.7205E-04  0.0452
   1.1067E-01   1.1336E-01   3.6693E-04  0.0450
   1.1336E-01   1.1612E-01   3.7054E-04  0.0442
   1.1612E-01   1.1894E-01   3.5041E-04  0.0449
   1.1894E-01   1.2184E-01   3.3794E-04  0.0452
   1.2184E-01   1.2480E-01   3.6972E-04  0.0427
   1.2480E-01   1.2784E-01   3.8794E-04  0.0412
   1.2784E-01   1.3095E-01   3.5172E-04  0.0428
   1.3095E-01   1.3414E-01   3.4964E-04  0.0424
   1.3414E-01   1.3740E-01   3.6830E-04  0.0408
   1.3740E-01   1.4074E-01   3.6673E-04  0.0404
   1.4074E-01   1.4417E-01   3.6386E-04  0.0401
   1.4417E-01   1.4767E-01   3.4781E-04  0.0405
   1.4767E-01   1.5127E-01   3.8742E-04  0.0379
   1.5127E-01   1.5495E-01   3.6735E-04  0.0385
   1.5495E-01   1.5872E-01   3.4005E-04  0.0395
   1.5872E-01   1.6258E-01   3.7237E-04  0.0373
   1.6258E-01   1.6654E-01   4.0044E-04  0.0355
   1.6654E-01   1.7059E-01   4.0425E-04  0.0349
   1.7059E-01   1.7474E-01   3.9561E-04  0.0349
   1.7474E-01   1.7899E-01   3.7916E-04  0.0352
   1.7899E-01   1.8334E-01   3.8990E-04  0.0343
   1.8334E-01   1.8781E-01   3.9768E-04  0.0336
   1.8781E-01   1.9237E-01   3.8998E-04  0.0335
   1.9237E-01   1.9706E-01   4.0806E-04  0.0324
   1.9706E-01   2.0185E-01   3.9211E-04  0.0326
   2.0185E-01   2.0676E-01   3.7425E-04  0.0330
   2.0676E-01   2.1179E-01   3.9677E-04  0.0317
   2.1179E-01   2.1694E-01   4.1141E-04  0.0307
   2.1694E-01   2.2222E-01   3.8004E-04  0.0316
   2.2222E-01   2.2763E-01   4.1318E-04  0.0299
   2.2763E-01   2.3317E-01   3.9795E-04  0.0301
   2.3317E-01   2.3884E-01   4.1881E-04  0.0290
   2.3884E-01   2.4465E-01   4.0267E-04  0.0292
   2.4465E-01   2.5061E-01   3.9983E-04  0.0290
   2.5061E-01   2.5670E-01   4.0607E-04  0.0284
   2.5670E-01   2.6295E-01   4.2461E-04  0.0275
   2.6295E-01   2.6935E-01   4.2640E-04  0.0271
   2.6935E-01   2.7590E-01   4.2665E-04  0.0267
   2.7590E-01   2.8261E-01   3.9625E-04  0.0274
   2.8261E-01   2.8949E-01   4.1796E-04  0.0264
   2.8949E-01   2.9653E-01   3.9810E-04  0.0267
   2.9653E-01   3.0375E-01   4.2690E-04  0.0255
   3.0375E-01   3.1114E-01   4.3299E-04  0.0250
   3.1114E-01   3.1871E-01   4.1373E-04  0.0253
   3.1871E-01   3.2646E-01   4.1834E-04  0.0248
   3.2646E-01   3.3441E-01   4.3610E-04  0.0240
   3.3441E-01   3.4254E-01   4.2869E-04  0.0239
   3.4254E-01   3.5088E-01   4.1251E-04  0.0241
   3.5088E-01   3.5941E-01   4.4160E-04  0.0230
   3.5941E-01   3.6816E-01   4.3980E-04  0.0228
   3.6816E-01   3.7712E-01   4.3650E-04  0.0226
   3.7712E-01   3.8629E-01   4.3551E-04  0.0224
   3.8629E-01   3.9569E-01   4.4091E-04  0.0220
   3.9569E-01   4.0532E-01   4.2732E-04  0.0221
   4.0532E-01   4.1518E-01   4.6807E-04  0.0208
   4.1518E-01   4.2528E-01   4.5597E-04  0.0208
   4.2528E-01   4.3563E-01   4.4610E-04  0.0208
   4.3563E-01   4.4623E-01   4.5513E-04  0.0204
   4.4623E-01   4.5708E-01   4.6477E-04  0.0199
   4.5708E-01   4.6821E-01   4.4186E-04  0.0202
   4.6821E-01   4.7960E-01   4.5805E-04  0.0196
   4.7960E-01   4.9127E-01   4.5848E-04  0.0193
   4.9127E-01   5.0322E-01   4.6315E-04  0.0190
   5.0322E-01   5.1546E-01   4.6195E-04  0.0188
   5.1546E-01   5.2800E-01   4.8271E-04  0.0182
   5.2800E-01   5.4085E-01   4.6128E-04  0.0184
   5.4085E-01   5.5401E-01   4.6081E-04  0.0182
   5.5401E-01   5.6749E-01   4.6441E-04  0.0179
   5.6749E-01   5.8130E-01   4.5642E-04  0.0178
   5.8130E-01   5.9544E-01   4.6050E-04  0.0175
   5.9544E-01   6.0993E-01   4.6771E-04  0.0172
   6.0993E-01   6.2477E-01   4.7817E-04  0.0168
   6.2477E-01   6.3997E-01   4.8128E-04  0.0165
   6.3997E-01   6.5554E-01   4.6323E-04  0.0167
   6.5554E-01   6.7149E-01   4.7022E-04  0.0163
   6.7149E-01   6.8783E-01   4.8366E-04  0.0159
   6.8783E-01   7.0456E-01   4.7827E-04  0.0158
   7.0456E-01   7.2171E-01   4.7752E-04  0.0156
   7.2171E-01   7.3927E-01   4.5980E-04  0.0157
   7.3927E-01   7.5725E-01   4.8079E-04  0.0152
   7.5725E-01   7.7568E-01   4.6948E-04  0.0152
   7.7568E-01   7.9455E-01   4.7189E-04  0.0150
   7.9455E-01   8.1388E-01   4.6524E-04  0.0149
   8.1388E-01   8.3368E-01   4.6701E-04  0.0147
   8.3368E-01   8.5397E-01   4.7318E-04  0.0144
   8.5397E-01   8.7475E-01   4.6887E-04  0.0143
   8.7475E-01   8.9603E-01   4.6271E-04  0.0143
   8.9603E-01   9.1783E-01   4.5970E-04  0.0141
   9.1783E-01   9.4016E-01   4.4842E-04  0.0141
   9.4016E-01   9.6304E-01   4.4704E-04  0.0140
   9.6304E-01   9.8647E-01   4.2789E-04  0.0141
   9.8647E-01   1.0105E+00   4.1122E-04  0.0142
   1.0105E+00   1.0351E+00   4.1512E-04  0.0140
   1.0351E+00   1.0602E+00   4.1837E-04  0.0138
   1.0602E+00   1.0860E+00   4.0835E-04  0.0138
   1.0860E+00   1.1125E+00   4.1613E-04  0.0135
   1.1125E+00   1.1395E+00   4.1076E-04  0.0134
   1.1395E+00   1.1673E+00   4.1990E-04  0.0131
   1.1673E+00   1.1957E+00   4.2535E-04  0.0129
   1.1957E+00   1.2247E+00   4.2968E-04  0.0127
   1.2247E+00   1.2545E+00   4.2780E-04  0.0125
   1.2545E+00   1.2851E+00   4.3654E-04  0.0123
   1.2851E+00   1.3163E+00   4.2057E-04  0.0123
   1.3163E+00   1.3484E+00   4.3163E-04  0.0120
   1.3484E+00   1.3812E+00   4.4747E-04  0.0117
   1.3812E+00   1.4148E+00   4.4410E-04  0.0116
   1.4148E+00   1.4492E+00   4.3448E-04  0.0116
   1.4492E+00   1.4845E+00   4.3749E-04  0.0114
   1.4845E+00   1.5206E+00   4.3596E-04  0.0113
   1.5206E+00   1.5576E+00   4.3328E-04  0.0112
   1.5576E+00   1.5955E+00   4.4267E-04  0.0109
   1.5955E+00   1.6343E+00   4.3036E-04  0.0109
   1.6343E+00   1.6741E+00   4.3563E-04  0.0108
   1.6741E+00   1.7148E+00   4.3819E-04  0.0106
   1.7148E+00   1.7565E+00   4.3886E-04  0.0105
   1.7565E+00   1.7992E+00   4.3737E-04  0.0103
   1.7992E+00   1.8430E+00   4.2538E-04  0.0104
   1.8430E+00   1.8879E+00   4.2848E-04  0.0102
   1.8879E+00   1.9338E+00   4.1713E-04  0.0102
   1.9338E+00   1.9808E+00   4.2405E-04  0.0100
   1.9808E+00   2.0290E+00   4.3124E-04  0.0098
   2.0290E+00   2.0784E+00   4.2197E-04  0.0098
   2.0784E+00   2.1290E+00   4.1804E-04  0.0097
   2.1290E+00   2.1808E+00   4.0537E-04  0.0098
   2.1808E+00   2.2338E+00   3.9917E-04  0.0097
   2.2338E+00   2.2882E+00   3.9904E-04  0.0096
   2.2882E+00   2.3439E+00   3.8891E-04  0.0096
   2.3439E+00   2.4009E+00   3.8695E-04  0.0095
   2.4009E+00   2.4593E+00   3.8074E-04  0.0095
   2.4593E+00   2.5191E+00   3.7186E-04  0.0095
   2.5191E+00   2.5804E+00   3.6347E-04  0.0095
   2.5804E+00   2.6432E+00   3.6067E-04  0.0094
   2.6432E+00   2.7075E+00   3.5319E-04  0.0094
   2.7075E+00   2.7734E+00   3.5066E-04  0.0093
   2.7734E+00   2.8409E+00   3.4013E-04  0.0093
   2.8409E+00   2.9100E+00   3.3673E-04  0.0093
   2.9100E+00   2.9808E+00   3.2465E-04  0.0093
   2.9808E+00   3.0533E+00   3.1539E-04  0.0094
   3.0533E+00   3.1276E+00   3.1279E-04  0.0093
   3.1276E+00   3.2037E+00   3.0471E-04  0.0093
   3.2037E+00   3.2817E+00   2.9445E-04  0.0093
   3.2817E+00   3.3615E+00   2.8256E-04  0.0094
   3.3615E+00   3.4433E+00   2.7725E-04  0.0094
   3.4433E+00   3.5271E+00   2.6709E-04  0.0095
   3.5271E+00   3.6129E+00   2.6522E-04  0.0094
   3.6129E+00   3.7008E+00   2.5052E-04  0.0095
   3.7008E+00   3.7908E+00   2.4641E-04  0.0095
   3.7908E+00   3.8831E+00   2.3648E-04  0.0096
   3.8831E+00   3.9776E+00   2.2965E-04  0.0096
   3.9776E+00   4.0743E+00   2.2339E-04  0.0096
   4.0743E+00   4.1735E+00   2.1259E-04  0.0097
   4.1735E+00   4.2750E+00   2.0746E-04  0.0097
   4.2750E+00   4.3790E+00   1.9745E-04  0.0099
   4.3790E+00   4.4856E+00   1.9061E-04  0.0099
   4.4856E+00   4.5947E+00   1.8641E-04  0.0099
   4.5947E+00   4.7065E+00   1.7255E-04  0.0102
   4.7065E+00   4.8210E+00   1.6779E-04  0.0102
   4.8210E+00   4.9383E+00   1.6745E-04  0.0101
   4.9383E+00   5.0585E+00   1.5818E-04  0.0103
   5.0585E+00   5.1815E+00   1.4957E-04  0.0104
   5.1815E+00   5.3076E+00   1.4344E-04  0.0105
   5.3076E+00   5.4368E+00   1.3904E-04  0.0106
   5.4368E+00   5.5690E+00   1.3474E-04  0.0106
   5.5690E+00   5.7045E+00   1.3020E-04  0.0107
   5.7045E+00   5.8433E+00   1.2239E-04  0.0109
   5.8433E+00   5.9855E+00   1.1868E-04  0.0109
   5.9855E+00   6.1311E+00   1.1309E-04  0.0110
   6.1311E+00   6.2803E+00   1.0770E-04  0.0112
   6.2803E+00   6.4331E+00   1.0444E-04  0.0112
   6.4331E+00   6.5896E+00   1.0097E-04  0.0113
   6.5896E+00   6.7500E+00   9.4748E-05  0.0115
   6.7500E+00   6.9142E+00   9.3599E-05  0.0114
   6.9142E+00   7.0824E+00   8.9337E-05  0.0115
   7.0824E+00   7.2548E+00   8.6519E-05  0.0116
   7.2548E+00   7.4313E+00   8.3059E-05  0.0117
   7.4313E+00   7.6121E+00   8.0157E-05  0.0117
   7.6121E+00   7.7973E+00   7.4808E-05  0.0120
   7.7973E+00   7.9870E+00   7.3774E-05  0.0120
   7.9870E+00   8.1813E+00   7.0385E-05  0.0121
   8.1813E+00   8.3804E+00   6.8623E-05  0.0121
   8.3804E+00   8.5843E+00   6.5149E-05  0.0123
   8.5843E+00   8.7931E+00   6.4593E-05  0.0122
   8.7931E+00   9.0071E+00   6.1357E-05  0.0123
   9.0071E+00   9.2262E+00   5.8777E-05  0.0125
   9.2262E+00   9.4507E+00   5.6352E-05  0.0126
   9.4507E+00   9.6807E+00   5.3852E-05  0.0127
   9.6807E+00   9.9162E+00   5.2811E-05  0.0127
   9.9162E+00   1.0157E+01   5.1159E-05  0.0127
   1.0157E+01   1.0405E+01   4.9515E-05  0.0128
   1.0405E+01   1.0658E+01   4.7833E-05  0.0129
   1.0658E+01   1.0917E+01   4.5366E-05  0.0130
   1.0917E+01   1.1183E+01   4.4499E-05  0.0130
   1.1183E+01   1.1455E+01   4.2310E-05  0.0132
   1.1455E+01   1.1733E+01   4.1776E-05  0.0131
   1.1733E+01   1.2019E+01   3.8829E-05  0.0134
   1.2019E+01   1.2311E+01   3.7397E-05  0.0135
   1.2311E+01   1.2611E+01   3.7230E-05  0.0134
   1.2611E+01   1.2918E+01   3.5560E-05  0.0135
   1.2918E+01   1.3232E+01   3.3933E-05  0.0137
   1.3232E+01   1.3554E+01   3.2518E-05  0.0138
   1.3554E+01   1.3884E+01   3.1524E-05  0.0139
   1.3884E+01   1.4222E+01   2.9523E-05  0.0142
   1.4222E+01   1.4568E+01   2.9721E-05  0.0139
   1.4568E+01   1.4922E+01   2.8120E-05  0.0142
   1.4922E+01   1.5285E+01   2.6816E-05  0.0143
   1.5285E+01   1.5657E+01   2.6488E-05  0.0143
   1.5657E+01   1.6038E+01   2.4901E-05  0.0145
   1.6038E+01   1.6428E+01   2.3484E-05  0.0148
   1.6428E+01   1.6828E+01   2.2194E-05  0.0150
   1.6828E+01   1.7237E+01   2.2270E-05  0.0148
   1.7237E+01   1.7657E+01   2.0992E-05  0.0151
   1.7657E+01   1.8086E+01   2.0000E-05  0.0153
   1.8086E+01   1.8526E+01   1.9175E-05  0.0154
   1.8526E+01   1.8977E+01   1.7801E-05  0.0158
   1.8977E+01   1.9439E+01   1.7491E-05  0.0157
   1.9439E+01   1.9912E+01   1.5718E-05  0.0164
   1.9912E+01   2.0396E+01   1.5274E-05  0.0164
   2.0396E+01   2.0893E+01   1.4859E-05  0.0165
   2.0893E+01   2.1401E+01   1.3936E-05  0.0168
   2.1401E+01   2.1922E+01   1.3297E-05  0.0170
   2.1922E+01   2.2455E+01   1.2348E-05  0.0174
   2.2455E+01   2.3001E+01   1.1743E-05  0.0177
   2.3001E+01   2.3561E+01   1.1089E-05  0.0180
   2.3561E+01   2.4134E+01   1.0313E-05  0.0184
   2.4134E+01   2.4721E+01   9.8126E-06  0.0186
   2.4721E+01   2.5323E+01   9.0309E-06  0.0192
   2.5323E+01   2.5939E+01   8.6378E-06  0.0194
   2.5939E+01   2.6570E+01   7.9510E-06  0.0200
   2.6570E+01   2.7217E+01   7.5208E-06  0.0203
   2.7217E+01   2.7879E+01   7.1700E-06  0.0205
   2.7879E+01   2.8557E+01   6.6724E-06  0.0210
   2.8557E+01   2.9252E+01   6.3815E-06  0.0212
   2.9252E+01   2.9964E+01   5.5274E-06  0.0225
   2.9964E+01   3.0693E+01   5.4675E-06  0.0224
   3.0693E+01   3.1440E+01   5.0510E-06  0.0230
   3.1440E+01   3.2205E+01   4.4474E-06  0.0242
   3.2205E+01   3.2988E+01   4.1962E-06  0.0247
   3.2988E+01   3.3791E+01   3.9022E-06  0.0253
   3.3791E+01   3.4613E+01   3.7268E-06  0.0255
   3.4613E+01   3.5455E+01   3.4887E-06  0.0261
   3.5455E+01   3.6318E+01   2.9954E-06  0.0278
   3.6318E+01   3.7201E+01   2.6549E-06  0.0292
   3.7201E+01   3.8106E+01   2.5764E-06  0.0293
   3.8106E+01   3.9034E+01   2.3599E-06  0.0302
   3.9034E+01   3.9983E+01   2.0259E-06  0.0322
   3.9983E+01   4.0956E+01   1.9037E-06  0.0329
   4.0956E+01   4.1953E+01   1.5755E-06  0.0357
   4.1953E+01   4.2973E+01   1.4734E-06  0.0365
   4.2973E+01   4.4019E+01   1.3371E-06  0.0378
   4.4019E+01   4.5090E+01   1.1018E-06  0.0412
   4.5090E+01   4.6187E+01   8.5136E-07  0.0463
   4.6187E+01   4.7311E+01   6.9409E-07  0.0506
   4.7311E+01   4.8462E+01   5.3861E-07  0.0568
   4.8462E+01   4.9641E+01   4.4610E-07  0.0617
   4.9641E+01   5.0849E+01   3.2621E-07  0.0712
   5.0849E+01   5.2086E+01   2.4733E-07  0.0808
   5.2086E+01   5.3353E+01   1.2941E-07  0.1104
   5.3353E+01   5.4651E+01   6.7790E-08  0.1508
   5.4651E+01   5.5981E+01   1.5041E-08  0.3162
   5.5981E+01   5.7343E+01   0.0000E+00  0.0000
   5.7343E+01   5.8738E+01   0.0000E+00  0.0000
   5.8738E+01   6.0168E+01   0.0000E+00  0.0000
   6.0168E+01   6.1632E+01   0.0000E+00  0.0000
   6.1632E+01   6.3131E+01   0.0000E+00  0.0000
   6.3131E+01   6.4667E+01   0.0000E+00  0.0000
   6.4667E+01   6.6240E+01   0.0000E+00  0.0000
   6.6240E+01   6.7852E+01   0.0000E+00  0.0000
   6.7852E+01   6.9503E+01   0.0000E+00  0.0000
   6.9503E+01   7.1194E+01   0.0000E+00  0.0000
   7.1194E+01   7.2926E+01   0.0000E+00  0.0000
   7.2926E+01   7.4701E+01   0.0000E+00  0.0000
   7.4701E+01   7.6518E+01   0.0000E+00  0.0000
   7.6518E+01   7.8380E+01   0.0000E+00  0.0000
   7.8380E+01   8.0287E+01   0.0000E+00  0.0000
   8.0287E+01   8.2240E+01   0.0000E+00  0.0000
   8.2240E+01   8.4241E+01   0.0000E+00  0.0000
   8.4241E+01   8.6291E+01   0.0000E+00  0.0000
   8.6291E+01   8.8391E+01   0.0000E+00  0.0000
   8.8391E+01   9.0541E+01   0.0000E+00  0.0000
   9.0541E+01   9.2744E+01   0.0000E+00  0.0000
   9.2744E+01   9.5001E+01   0.0000E+00  0.0000
   9.5001E+01   9.7312E+01   0.0000E+00  0.0000
   9.7312E+01   9.9680E+01   0.0000E+00  0.0000
   9.9680E+01   1.0211E+02   0.0000E+00  0.0000
   1.0211E+02   1.0459E+02   0.0000E+00  0.0000
   1.0459E+02   1.0713E+02   0.0000E+00  0.0000
   1.0713E+02   1.0974E+02   0.0000E+00  0.0000
   1.0974E+02   1.1241E+02   0.0000E+00  0.0000
   1.1241E+02   1.1515E+02   0.0000E+00  0.0000
   1.1515E+02   1.1795E+02   0.0000E+00  0.0000
   1.1795E+02   1.2082E+02   0.0000E+00  0.0000
   1.2082E+02   1.2376E+02   0.0000E+00  0.0000
   1.2376E+02   1.2677E+02   0.0000E+00  0.0000
   1.2677E+02   1.2985E+02   0.0000E+00  0.0000
   1.2985E+02   1.3301E+02   0.0000E+00  0.0000
   1.3301E+02   1.3625E+02   0.0000E+00  0.0000
   1.3625E+02   1.3956E+02   0.0000E+00  0.0000
   1.3956E+02   1.4296E+02   0.0000E+00  0.0000
   1.4296E+02   1.4644E+02   0.0000E+00  0.0000
   1.4644E+02   1.5000E+02   0.0000E+00  0.0000

#   sum over                 1.7063E-05
'no. =    1   reg = 110 - 210'
msuc: {\huge [t-cross] in region mesh}
msdr: {\it plotted by \ANGEL \version}
msdl: {\it calculated by \PHITS  3.26}
wt: s(0.7)
\vspace{-3}
  region surface crossing
  area  &=&   1.0000E+00 [cm^2]
e:
 
# Information for Restart Calculation
# This calculation was newly started
# istdev =  2 # 1:Batch variance, 2:History variance
# resc2  = 5.00000000000000000E+08 # Total source weight or Total source weight / maxcas
# resc3  = 5.00000000000000000E+08 # Total history number or Total batch number
# maxcas =   500000000 # History / Batch, only used for istdev=1
# bitrseed = 1101101111010011011000101101110001100110110010110001010100010001 # bit data of rseed
