[ T-Cross ]
    title = [t-cross] in region mesh
     mesh =  reg            # mesh type is region-wise
      reg =    1            # number of crossing regions
      non     r-from    r-to       area
      1       119       219        1.000000    
   e-type =    3            # e-mesh is log given by emin, emax and ne
     emin =  1.0000000E-02  # minimum value of e-mesh points
     emax =   150.0000      # maximum value of e-mesh points
#    edel =  2.4039514E-02  # mesh width of e-mesh points
       ne =    400          # number of e-mesh points
#    data = ( e(i), i = 1, ne + 1 )
#           1.00000E-02  1.02433E-02  1.04925E-02  1.07478E-02  1.10093E-02
#           1.12772E-02  1.15516E-02  1.18326E-02  1.21205E-02  1.24154E-02
#           1.27175E-02  1.30269E-02  1.33439E-02  1.36686E-02  1.40011E-02
#           1.43418E-02  1.46907E-02  1.50482E-02  1.54143E-02  1.57894E-02
#           1.61735E-02  1.65670E-02  1.69701E-02  1.73830E-02  1.78060E-02
#           1.82392E-02  1.86830E-02  1.91375E-02  1.96032E-02  2.00801E-02
#           2.05687E-02  2.10692E-02  2.15818E-02  2.21069E-02  2.26448E-02
#           2.31957E-02  2.37601E-02  2.43382E-02  2.49304E-02  2.55369E-02
#           2.61583E-02  2.67947E-02  2.74467E-02  2.81145E-02  2.87985E-02
#           2.94992E-02  3.02169E-02  3.09521E-02  3.17052E-02  3.24766E-02
#           3.32668E-02  3.40762E-02  3.49053E-02  3.57546E-02  3.66246E-02
#           3.75157E-02  3.84284E-02  3.93634E-02  4.03212E-02  4.13022E-02
#           4.23071E-02  4.33365E-02  4.43909E-02  4.54710E-02  4.65773E-02
#           4.77106E-02  4.88714E-02  5.00605E-02  5.12785E-02  5.25262E-02
#           5.38042E-02  5.51133E-02  5.64542E-02  5.78278E-02  5.92348E-02
#           6.06760E-02  6.21523E-02  6.36645E-02  6.52135E-02  6.68002E-02
#           6.84255E-02  7.00904E-02  7.17957E-02  7.35426E-02  7.53319E-02
#           7.71648E-02  7.90423E-02  8.09655E-02  8.29354E-02  8.49533E-02
#           8.70203E-02  8.91376E-02  9.13064E-02  9.35279E-02  9.58035E-02
#           9.81345E-02  1.00522E-01  1.02968E-01  1.05473E-01  1.08040E-01
#           1.10668E-01  1.13361E-01  1.16119E-01  1.18944E-01  1.21838E-01
#           1.24803E-01  1.27839E-01  1.30950E-01  1.34136E-01  1.37399E-01
#           1.40742E-01  1.44167E-01  1.47675E-01  1.51268E-01  1.54948E-01
#           1.58718E-01  1.62580E-01  1.66535E-01  1.70587E-01  1.74738E-01
#           1.78989E-01  1.83344E-01  1.87805E-01  1.92375E-01  1.97055E-01
#           2.01850E-01  2.06761E-01  2.11792E-01  2.16945E-01  2.22223E-01
#           2.27630E-01  2.33169E-01  2.38842E-01  2.44653E-01  2.50605E-01
#           2.56703E-01  2.62949E-01  2.69346E-01  2.75900E-01  2.82613E-01
#           2.89489E-01  2.96532E-01  3.03747E-01  3.11138E-01  3.18708E-01
#           3.26462E-01  3.34405E-01  3.42542E-01  3.50876E-01  3.59413E-01
#           3.68158E-01  3.77116E-01  3.86291E-01  3.95690E-01  4.05317E-01
#           4.15179E-01  4.25281E-01  4.35628E-01  4.46227E-01  4.57084E-01
#           4.68205E-01  4.79597E-01  4.91266E-01  5.03219E-01  5.15463E-01
#           5.28005E-01  5.40851E-01  5.54011E-01  5.67490E-01  5.81298E-01
#           5.95441E-01  6.09929E-01  6.24769E-01  6.39970E-01  6.55541E-01
#           6.71491E-01  6.87828E-01  7.04564E-01  7.21706E-01  7.39266E-01
#           7.57253E-01  7.75678E-01  7.94551E-01  8.13883E-01  8.33685E-01
#           8.53969E-01  8.74747E-01  8.96030E-01  9.17831E-01  9.40163E-01
#           9.63038E-01  9.86469E-01  1.01047E+00  1.03506E+00  1.06024E+00
#           1.08604E+00  1.11246E+00  1.13953E+00  1.16725E+00  1.19565E+00
#           1.22474E+00  1.25454E+00  1.28507E+00  1.31633E+00  1.34836E+00
#           1.38117E+00  1.41477E+00  1.44920E+00  1.48446E+00  1.52057E+00
#           1.55757E+00  1.59547E+00  1.63429E+00  1.67405E+00  1.71478E+00
#           1.75650E+00  1.79924E+00  1.84302E+00  1.88786E+00  1.93379E+00
#           1.98084E+00  2.02904E+00  2.07841E+00  2.12898E+00  2.18078E+00
#           2.23384E+00  2.28819E+00  2.34386E+00  2.40089E+00  2.45930E+00
#           2.51914E+00  2.58043E+00  2.64322E+00  2.70753E+00  2.77341E+00
#           2.84088E+00  2.91001E+00  2.98081E+00  3.05333E+00  3.12762E+00
#           3.20372E+00  3.28167E+00  3.36152E+00  3.44330E+00  3.52708E+00
#           3.61290E+00  3.70080E+00  3.79085E+00  3.88308E+00  3.97756E+00
#           4.07434E+00  4.17347E+00  4.27501E+00  4.37903E+00  4.48557E+00
#           4.59471E+00  4.70650E+00  4.82102E+00  4.93832E+00  5.05847E+00
#           5.18155E+00  5.30762E+00  5.43676E+00  5.56904E+00  5.70453E+00
#           5.84333E+00  5.98550E+00  6.13114E+00  6.28031E+00  6.43312E+00
#           6.58964E+00  6.74997E+00  6.91420E+00  7.08243E+00  7.25475E+00
#           7.43126E+00  7.61207E+00  7.79728E+00  7.98700E+00  8.18133E+00
#           8.38038E+00  8.58428E+00  8.79315E+00  9.00709E+00  9.22624E+00
#           9.45072E+00  9.68067E+00  9.91620E+00  1.01575E+01  1.04046E+01
#           1.06578E+01  1.09171E+01  1.11827E+01  1.14548E+01  1.17335E+01
#           1.20190E+01  1.23114E+01  1.26109E+01  1.29178E+01  1.32321E+01
#           1.35540E+01  1.38838E+01  1.42216E+01  1.45676E+01  1.49221E+01
#           1.52851E+01  1.56570E+01  1.60380E+01  1.64282E+01  1.68279E+01
#           1.72374E+01  1.76568E+01  1.80864E+01  1.85264E+01  1.89772E+01
#           1.94389E+01  1.99119E+01  2.03963E+01  2.08926E+01  2.14009E+01
#           2.19216E+01  2.24550E+01  2.30014E+01  2.35610E+01  2.41343E+01
#           2.47215E+01  2.53230E+01  2.59391E+01  2.65702E+01  2.72167E+01
#           2.78789E+01  2.85572E+01  2.92520E+01  2.99637E+01  3.06928E+01
#           3.14396E+01  3.22045E+01  3.29881E+01  3.37907E+01  3.46128E+01
#           3.54550E+01  3.63177E+01  3.72013E+01  3.81064E+01  3.90336E+01
#           3.99833E+01  4.09561E+01  4.19526E+01  4.29734E+01  4.40189E+01
#           4.50900E+01  4.61870E+01  4.73108E+01  4.84619E+01  4.96410E+01
#           5.08488E+01  5.20860E+01  5.33533E+01  5.46514E+01  5.59812E+01
#           5.73432E+01  5.87384E+01  6.01676E+01  6.16315E+01  6.31311E+01
#           6.46671E+01  6.62405E+01  6.78522E+01  6.95031E+01  7.11941E+01
#           7.29263E+01  7.47007E+01  7.65182E+01  7.83800E+01  8.02870E+01
#           8.22405E+01  8.42414E+01  8.62911E+01  8.83906E+01  9.05412E+01
#           9.27442E+01  9.50007E+01  9.73122E+01  9.96799E+01  1.02105E+02
#           1.04589E+02  1.07134E+02  1.09741E+02  1.12411E+02  1.15146E+02
#           1.17948E+02  1.20817E+02  1.23757E+02  1.26768E+02  1.29852E+02
#           1.33012E+02  1.36248E+02  1.39563E+02  1.42959E+02  1.46437E+02
#           1.50000E+02
     unit =    2            # unit is [1/cm^2/(MeV/n)/source]
     axis =  eng            # axis of output
     file = detector-20.out  # file name of output for the above axis
   output = f-curr          # surface crossing forward current spectrum
     part =  neutron  
# kf/name :  2112     
#    used :        main (  %)        temp (  %)       total (  %)
#  memory :         414 (  0)           0 (  0)         414 (  0)

#------------------------------------------------------------------------------
#newpage:
#   no. =    1   reg = 119 - 219

x: Energy [MeV/n]
y:  F-Curr [1/cm^2/(MeV/n)/source]         
p: xlog ylog afac(0.8) form(0.9)
h: n            x            y(neutron ),hh0l   n 
#  e-lower      e-upper      neutron     r.err 
   1.0000E-02   1.0243E-02   3.3698E-03  0.0492
   1.0243E-02   1.0493E-02   3.2140E-03  0.0498
   1.0493E-02   1.0748E-02   3.5616E-03  0.0468
   1.0748E-02   1.1009E-02   3.1231E-03  0.0493
   1.1009E-02   1.1277E-02   3.2485E-03  0.0479
   1.1277E-02   1.1552E-02   2.9095E-03  0.0499
   1.1552E-02   1.1833E-02   3.1577E-03  0.0474
   1.1833E-02   1.2121E-02   3.0536E-03  0.0475
   1.2121E-02   1.2415E-02   2.8604E-03  0.0485
   1.2415E-02   1.2718E-02   2.8423E-03  0.0481
   1.2718E-02   1.3027E-02   2.6862E-03  0.0489
   1.3027E-02   1.3344E-02   2.8246E-03  0.0471
   1.3344E-02   1.3669E-02   2.6368E-03  0.0482
   1.3669E-02   1.4001E-02   2.6025E-03  0.0479
   1.4001E-02   1.4342E-02   2.5495E-03  0.0479
   1.4342E-02   1.4691E-02   2.3523E-03  0.0493
   1.4691E-02   1.5048E-02   2.3218E-03  0.0489
   1.5048E-02   1.5414E-02   2.3602E-03  0.0479
   1.5414E-02   1.5789E-02   2.4744E-03  0.0463
   1.5789E-02   1.6174E-02   2.2421E-03  0.0480
   1.6174E-02   1.6567E-02   2.1554E-03  0.0485
   1.6567E-02   1.6970E-02   2.1129E-03  0.0483
   1.6970E-02   1.7383E-02   1.9028E-03  0.0501
   1.7383E-02   1.7806E-02   2.0534E-03  0.0478
   1.7806E-02   1.8239E-02   1.9399E-03  0.0486
   1.8239E-02   1.8683E-02   1.9437E-03  0.0480
   1.8683E-02   1.9138E-02   1.9234E-03  0.0476
   1.9138E-02   1.9603E-02   1.9073E-03  0.0473
   1.9603E-02   2.0080E-02   1.8850E-03  0.0470
   2.0080E-02   2.0569E-02   1.7933E-03  0.0476
   2.0569E-02   2.1069E-02   1.7721E-03  0.0473
   2.1069E-02   2.1582E-02   1.8261E-03  0.0461
   2.1582E-02   2.2107E-02   1.6292E-03  0.0482
   2.2107E-02   2.2645E-02   1.8879E-03  0.0442
   2.2645E-02   2.3196E-02   1.6659E-03  0.0466
   2.3196E-02   2.3760E-02   1.5896E-03  0.0471
   2.3760E-02   2.4338E-02   1.6191E-03  0.0461
   2.4338E-02   2.4930E-02   1.5421E-03  0.0467
   2.4930E-02   2.5537E-02   1.5312E-03  0.0463
   2.5537E-02   2.6158E-02   1.5008E-03  0.0462
   2.6158E-02   2.6795E-02   1.4288E-03  0.0467
   2.6795E-02   2.7447E-02   1.5280E-03  0.0446
   2.7447E-02   2.8114E-02   1.4243E-03  0.0457
   2.8114E-02   2.8799E-02   1.3702E-03  0.0460
   2.8799E-02   2.9499E-02   1.4731E-03  0.0439
   2.9499E-02   3.0217E-02   1.3470E-03  0.0453
   3.0217E-02   3.0952E-02   1.2640E-03  0.0462
   3.0952E-02   3.1705E-02   1.3686E-03  0.0439
   3.1705E-02   3.2477E-02   1.1958E-03  0.0464
   3.2477E-02   3.3267E-02   1.2281E-03  0.0453
   3.3267E-02   3.4076E-02   1.2240E-03  0.0448
   3.4076E-02   3.4905E-02   1.2117E-03  0.0445
   3.4905E-02   3.5755E-02   1.0948E-03  0.0462
   3.5755E-02   3.6625E-02   1.1017E-03  0.0455
   3.6625E-02   3.7516E-02   1.1326E-03  0.0444
   3.7516E-02   3.8428E-02   1.1181E-03  0.0442
   3.8428E-02   3.9363E-02   1.0950E-03  0.0441
   3.9363E-02   4.0321E-02   1.0464E-03  0.0445
   4.0321E-02   4.1302E-02   9.9684E-04  0.0450
   4.1302E-02   4.2307E-02   1.0816E-03  0.0428
   4.2307E-02   4.3337E-02   8.7909E-04  0.0469
   4.3337E-02   4.4391E-02   9.3431E-04  0.0449
   4.4391E-02   4.5471E-02   9.1255E-04  0.0449
   4.5471E-02   4.6577E-02   8.8248E-04  0.0451
   4.6577E-02   4.7711E-02   8.2805E-04  0.0460
   4.7711E-02   4.8871E-02   8.7890E-04  0.0441
   4.8871E-02   5.0061E-02   9.0117E-04  0.0430
   5.0061E-02   5.1279E-02   8.2771E-04  0.0444
   5.1279E-02   5.2526E-02   7.7657E-04  0.0453
   5.2526E-02   5.3804E-02   7.6581E-04  0.0451
   5.3804E-02   5.5113E-02   7.6627E-04  0.0445
   5.5113E-02   5.6454E-02   7.7971E-04  0.0436
   5.6454E-02   5.7828E-02   7.1697E-04  0.0449
   5.7828E-02   5.9235E-02   7.2854E-04  0.0440
   5.9235E-02   6.0676E-02   6.9085E-04  0.0447
   6.0676E-02   6.2152E-02   6.6178E-04  0.0452
   6.2152E-02   6.3665E-02   6.4413E-04  0.0452
   6.3665E-02   6.5214E-02   6.4278E-04  0.0447
   6.5214E-02   6.6800E-02   6.3045E-04  0.0445
   6.6800E-02   6.8426E-02   6.2412E-04  0.0443
   6.8426E-02   7.0090E-02   6.4381E-04  0.0431
   7.0090E-02   7.1796E-02   5.8361E-04  0.0447
   7.1796E-02   7.3543E-02   5.7518E-04  0.0445
   7.3543E-02   7.5332E-02   5.4828E-04  0.0450
   7.5332E-02   7.7165E-02   5.3651E-04  0.0450
   7.7165E-02   7.9042E-02   5.3577E-04  0.0444
   7.9042E-02   8.0965E-02   5.1827E-04  0.0446
   8.0965E-02   8.2935E-02   5.2296E-04  0.0439
   8.2935E-02   8.4953E-02   4.9781E-04  0.0445
   8.4953E-02   8.7020E-02   5.2044E-04  0.0430
   8.7020E-02   8.9138E-02   5.0347E-04  0.0431
   8.9138E-02   9.1306E-02   5.0225E-04  0.0427
   9.1306E-02   9.3528E-02   4.4806E-04  0.0447
   9.3528E-02   9.5804E-02   4.5328E-04  0.0439
   9.5804E-02   9.8134E-02   4.9438E-04  0.0416
   9.8134E-02   1.0052E-01   4.4367E-04  0.0433
   1.0052E-01   1.0297E-01   4.3259E-04  0.0434
   1.0297E-01   1.0547E-01   4.3689E-04  0.0426
   1.0547E-01   1.0804E-01   4.3161E-04  0.0424
   1.0804E-01   1.1067E-01   3.9502E-04  0.0437
   1.1067E-01   1.1336E-01   3.7796E-04  0.0442
   1.1336E-01   1.1612E-01   3.8527E-04  0.0433
   1.1612E-01   1.1894E-01   3.7330E-04  0.0434
   1.1894E-01   1.2184E-01   3.5102E-04  0.0442
   1.2184E-01   1.2480E-01   3.6256E-04  0.0430
   1.2480E-01   1.2784E-01   3.3373E-04  0.0442
   1.2784E-01   1.3095E-01   3.5115E-04  0.0427
   1.3095E-01   1.3414E-01   3.5743E-04  0.0418
   1.3414E-01   1.3740E-01   3.3495E-04  0.0426
   1.3740E-01   1.4074E-01   3.1677E-04  0.0434
   1.4074E-01   1.4417E-01   3.2582E-04  0.0422
   1.4417E-01   1.4767E-01   2.8973E-04  0.0442
   1.4767E-01   1.5127E-01   2.8948E-04  0.0438
   1.5127E-01   1.5495E-01   3.1019E-04  0.0417
   1.5495E-01   1.5872E-01   2.7773E-04  0.0436
   1.5872E-01   1.6258E-01   2.7139E-04  0.0435
   1.6258E-01   1.6654E-01   2.7858E-04  0.0425
   1.6654E-01   1.7059E-01   2.5944E-04  0.0435
   1.7059E-01   1.7474E-01   2.4700E-04  0.0441
   1.7474E-01   1.7899E-01   2.3440E-04  0.0447
   1.7899E-01   1.8334E-01   2.3980E-04  0.0437
   1.8334E-01   1.8781E-01   2.3271E-04  0.0437
   1.8781E-01   1.9237E-01   2.3707E-04  0.0428
   1.9237E-01   1.9706E-01   2.3127E-04  0.0428
   1.9706E-01   2.0185E-01   2.2977E-04  0.0424
   2.0185E-01   2.0676E-01   2.4593E-04  0.0405
   2.0676E-01   2.1179E-01   2.2772E-04  0.0416
   2.1179E-01   2.1694E-01   2.4166E-04  0.0399
   2.1694E-01   2.2222E-01   2.4622E-04  0.0391
   2.2222E-01   2.2763E-01   2.5310E-04  0.0381
   2.2763E-01   2.3317E-01   2.6806E-04  0.0366
   2.3317E-01   2.3884E-01   2.8195E-04  0.0352
   2.3884E-01   2.4465E-01   3.0225E-04  0.0336
   2.4465E-01   2.5061E-01   3.1017E-04  0.0328
   2.5061E-01   2.5670E-01   2.9598E-04  0.0332
   2.5670E-01   2.6295E-01   3.1402E-04  0.0318
   2.6295E-01   2.6935E-01   3.2996E-04  0.0307
   2.6935E-01   2.7590E-01   3.3751E-04  0.0299
   2.7590E-01   2.8261E-01   3.5143E-04  0.0290
   2.8261E-01   2.8949E-01   3.4224E-04  0.0290
   2.8949E-01   2.9653E-01   3.5387E-04  0.0282
   2.9653E-01   3.0375E-01   3.4434E-04  0.0283
   3.0375E-01   3.1114E-01   3.7898E-04  0.0266
   3.1114E-01   3.1871E-01   3.9643E-04  0.0257
   3.1871E-01   3.2646E-01   4.0702E-04  0.0251
   3.2646E-01   3.3441E-01   4.0653E-04  0.0248
   3.3441E-01   3.4254E-01   4.1561E-04  0.0242
   3.4254E-01   3.5088E-01   4.1776E-04  0.0239
   3.5088E-01   3.5941E-01   4.2601E-04  0.0233
   3.5941E-01   3.6816E-01   4.2812E-04  0.0230
   3.6816E-01   3.7712E-01   4.4985E-04  0.0222
   3.7712E-01   3.8629E-01   4.5330E-04  0.0218
   3.8629E-01   3.9569E-01   4.5409E-04  0.0215
   3.9569E-01   4.0532E-01   4.5371E-04  0.0213
   4.0532E-01   4.1518E-01   4.7353E-04  0.0206
   4.1518E-01   4.2528E-01   4.7284E-04  0.0204
   4.2528E-01   4.3563E-01   4.9432E-04  0.0197
   4.3563E-01   4.4623E-01   5.1098E-04  0.0191
   4.4623E-01   4.5708E-01   5.1123E-04  0.0189
   4.5708E-01   4.6821E-01   5.1559E-04  0.0186
   4.6821E-01   4.7960E-01   5.2970E-04  0.0181
   4.7960E-01   4.9127E-01   5.2413E-04  0.0180
   4.9127E-01   5.0322E-01   5.2214E-04  0.0178
   5.0322E-01   5.1546E-01   5.2467E-04  0.0175
   5.1546E-01   5.2800E-01   5.4027E-04  0.0171
   5.2800E-01   5.4085E-01   5.6013E-04  0.0166
   5.4085E-01   5.5401E-01   5.3810E-04  0.0167
   5.5401E-01   5.6749E-01   5.5048E-04  0.0163
   5.6749E-01   5.8130E-01   5.5149E-04  0.0161
   5.8130E-01   5.9544E-01   5.4814E-04  0.0160
   5.9544E-01   6.0993E-01   5.4470E-04  0.0158
   6.0993E-01   6.2477E-01   5.6024E-04  0.0154
   6.2477E-01   6.3997E-01   5.4329E-04  0.0155
   6.3997E-01   6.5554E-01   5.5187E-04  0.0152
   6.5554E-01   6.7149E-01   5.4108E-04  0.0151
   6.7149E-01   6.8783E-01   5.5403E-04  0.0148
   6.8783E-01   7.0456E-01   5.3839E-04  0.0148
   7.0456E-01   7.2171E-01   5.4045E-04  0.0146
   7.2171E-01   7.3927E-01   5.4193E-04  0.0144
   7.3927E-01   7.5725E-01   5.3493E-04  0.0143
   7.5725E-01   7.7568E-01   5.3686E-04  0.0141
   7.7568E-01   7.9455E-01   5.3018E-04  0.0141
   7.9455E-01   8.1388E-01   5.2689E-04  0.0139
   8.1388E-01   8.3368E-01   5.0970E-04  0.0140
   8.3368E-01   8.5397E-01   5.0760E-04  0.0139
   8.5397E-01   8.7475E-01   5.1122E-04  0.0136
   8.7475E-01   8.9603E-01   4.9226E-04  0.0137
   8.9603E-01   9.1783E-01   5.0160E-04  0.0134
   9.1783E-01   9.4016E-01   4.9681E-04  0.0133
   9.4016E-01   9.6304E-01   4.8443E-04  0.0134
   9.6304E-01   9.8647E-01   4.9103E-04  0.0131
   9.8647E-01   1.0105E+00   4.7795E-04  0.0131
   1.0105E+00   1.0351E+00   4.6057E-04  0.0132
   1.0351E+00   1.0602E+00   4.5565E-04  0.0131
   1.0602E+00   1.0860E+00   4.4722E-04  0.0131
   1.0860E+00   1.1125E+00   4.3484E-04  0.0131
   1.1125E+00   1.1395E+00   4.2370E-04  0.0131
   1.1395E+00   1.1673E+00   4.2477E-04  0.0129
   1.1673E+00   1.1957E+00   4.1537E-04  0.0129
   1.1957E+00   1.2247E+00   4.0675E-04  0.0129
   1.2247E+00   1.2545E+00   3.9630E-04  0.0129
   1.2545E+00   1.2851E+00   3.7954E-04  0.0130
   1.2851E+00   1.3163E+00   3.7635E-04  0.0129
   1.3163E+00   1.3484E+00   3.6768E-04  0.0129
   1.3484E+00   1.3812E+00   3.5163E-04  0.0131
   1.3812E+00   1.4148E+00   3.5676E-04  0.0128
   1.4148E+00   1.4492E+00   3.4725E-04  0.0128
   1.4492E+00   1.4845E+00   3.3482E-04  0.0129
   1.4845E+00   1.5206E+00   3.3978E-04  0.0127
   1.5206E+00   1.5576E+00   3.1541E-04  0.0130
   1.5576E+00   1.5955E+00   3.1033E-04  0.0129
   1.5955E+00   1.6343E+00   3.0440E-04  0.0129
   1.6343E+00   1.6741E+00   2.9343E-04  0.0130
   1.6741E+00   1.7148E+00   2.9246E-04  0.0128
   1.7148E+00   1.7565E+00   2.7910E-04  0.0130
   1.7565E+00   1.7992E+00   2.7200E-04  0.0130
   1.7992E+00   1.8430E+00   2.6119E-04  0.0131
   1.8430E+00   1.8879E+00   2.6003E-04  0.0130
   1.8879E+00   1.9338E+00   2.5391E-04  0.0130
   1.9338E+00   1.9808E+00   2.4702E-04  0.0130
   1.9808E+00   2.0290E+00   2.3653E-04  0.0131
   2.0290E+00   2.0784E+00   2.3171E-04  0.0131
   2.0784E+00   2.1290E+00   2.2269E-04  0.0132
   2.1290E+00   2.1808E+00   2.1586E-04  0.0133
   2.1808E+00   2.2338E+00   2.0783E-04  0.0134
   2.2338E+00   2.2882E+00   2.0699E-04  0.0132
   2.2882E+00   2.3439E+00   1.9625E-04  0.0134
   2.3439E+00   2.4009E+00   1.8866E-04  0.0135
   2.4009E+00   2.4593E+00   1.8538E-04  0.0135
   2.4593E+00   2.5191E+00   1.8025E-04  0.0135
   2.5191E+00   2.5804E+00   1.7309E-04  0.0136
   2.5804E+00   2.6432E+00   1.7103E-04  0.0135
   2.6432E+00   2.7075E+00   1.6165E-04  0.0137
   2.7075E+00   2.7734E+00   1.5983E-04  0.0137
   2.7734E+00   2.8409E+00   1.5492E-04  0.0137
   2.8409E+00   2.9100E+00   1.4737E-04  0.0139
   2.9100E+00   2.9808E+00   1.4240E-04  0.0139
   2.9808E+00   3.0533E+00   1.4057E-04  0.0139
   3.0533E+00   3.1276E+00   1.3263E-04  0.0141
   3.1276E+00   3.2037E+00   1.2943E-04  0.0141
   3.2037E+00   3.2817E+00   1.2745E-04  0.0141
   3.2817E+00   3.3615E+00   1.2230E-04  0.0142
   3.3615E+00   3.4433E+00   1.2123E-04  0.0141
   3.4433E+00   3.5271E+00   1.1761E-04  0.0141
   3.5271E+00   3.6129E+00   1.1528E-04  0.0141
   3.6129E+00   3.7008E+00   1.1300E-04  0.0141
   3.7008E+00   3.7908E+00   1.0657E-04  0.0143
   3.7908E+00   3.8831E+00   1.0691E-04  0.0141
   3.8831E+00   3.9776E+00   1.0306E-04  0.0142
   3.9776E+00   4.0743E+00   1.0377E-04  0.0140
   4.0743E+00   4.1735E+00   1.0108E-04  0.0140
   4.1735E+00   4.2750E+00   9.7107E-05  0.0141
   4.2750E+00   4.3790E+00   9.6680E-05  0.0140
   4.3790E+00   4.4856E+00   9.6611E-05  0.0138
   4.4856E+00   4.5947E+00   9.5063E-05  0.0138
   4.5947E+00   4.7065E+00   9.0946E-05  0.0139
   4.7065E+00   4.8210E+00   9.0522E-05  0.0138
   4.8210E+00   4.9383E+00   8.9636E-05  0.0137
   4.9383E+00   5.0585E+00   8.8591E-05  0.0136
   5.0585E+00   5.1815E+00   8.6457E-05  0.0136
   5.1815E+00   5.3076E+00   8.3089E-05  0.0137
   5.3076E+00   5.4368E+00   8.0642E-05  0.0138
   5.4368E+00   5.5690E+00   8.0667E-05  0.0136
   5.5690E+00   5.7045E+00   7.7841E-05  0.0137
   5.7045E+00   5.8433E+00   7.5985E-05  0.0137
   5.8433E+00   5.9855E+00   7.1427E-05  0.0140
   5.9855E+00   6.1311E+00   6.9888E-05  0.0139
   6.1311E+00   6.2803E+00   6.4797E-05  0.0143
   6.2803E+00   6.4331E+00   6.3245E-05  0.0143
   6.4331E+00   6.5896E+00   6.0820E-05  0.0144
   6.5896E+00   6.7500E+00   5.9511E-05  0.0144
   6.7500E+00   6.9142E+00   5.7885E-05  0.0144
   6.9142E+00   7.0824E+00   5.5937E-05  0.0145
   7.0824E+00   7.2548E+00   5.3049E-05  0.0147
   7.2548E+00   7.4313E+00   5.0058E-05  0.0150
   7.4313E+00   7.6121E+00   4.9333E-05  0.0149
   7.6121E+00   7.7973E+00   4.7454E-05  0.0150
   7.7973E+00   7.9870E+00   4.5430E-05  0.0152
   7.9870E+00   8.1813E+00   4.2890E-05  0.0155
   8.1813E+00   8.3804E+00   4.2779E-05  0.0153
   8.3804E+00   8.5843E+00   4.0291E-05  0.0156
   8.5843E+00   8.7931E+00   3.8309E-05  0.0158
   8.7931E+00   9.0071E+00   3.6557E-05  0.0160
   9.0071E+00   9.2262E+00   3.5016E-05  0.0161
   9.2262E+00   9.4507E+00   3.2722E-05  0.0165
   9.4507E+00   9.6807E+00   3.1308E-05  0.0166
   9.6807E+00   9.9162E+00   2.9456E-05  0.0170
   9.9162E+00   1.0157E+01   2.7993E-05  0.0172
   1.0157E+01   1.0405E+01   2.7195E-05  0.0172
   1.0405E+01   1.0658E+01   2.4917E-05  0.0178
   1.0658E+01   1.0917E+01   2.3822E-05  0.0180
   1.0917E+01   1.1183E+01   2.2284E-05  0.0184
   1.1183E+01   1.1455E+01   2.1358E-05  0.0185
   1.1455E+01   1.1733E+01   1.9685E-05  0.0191
   1.1733E+01   1.2019E+01   1.9056E-05  0.0192
   1.2019E+01   1.2311E+01   1.8043E-05  0.0195
   1.2311E+01   1.2611E+01   1.7214E-05  0.0197
   1.2611E+01   1.2918E+01   1.5738E-05  0.0203
   1.2918E+01   1.3232E+01   1.5109E-05  0.0205
   1.3232E+01   1.3554E+01   1.3113E-05  0.0218
   1.3554E+01   1.3884E+01   1.3108E-05  0.0215
   1.3884E+01   1.4222E+01   1.2345E-05  0.0219
   1.4222E+01   1.4568E+01   1.1065E-05  0.0228
   1.4568E+01   1.4922E+01   1.0328E-05  0.0234
   1.4922E+01   1.5285E+01   9.7202E-06  0.0238
   1.5285E+01   1.5657E+01   8.7619E-06  0.0248
   1.5657E+01   1.6038E+01   7.8803E-06  0.0258
   1.6038E+01   1.6428E+01   7.3768E-06  0.0264
   1.6428E+01   1.6828E+01   6.7799E-06  0.0272
   1.6828E+01   1.7237E+01   6.4723E-06  0.0275
   1.7237E+01   1.7657E+01   5.5569E-06  0.0293
   1.7657E+01   1.8086E+01   5.1303E-06  0.0301
   1.8086E+01   1.8526E+01   4.9994E-06  0.0302
   1.8526E+01   1.8977E+01   4.4014E-06  0.0318
   1.8977E+01   1.9439E+01   4.1626E-06  0.0323
   1.9439E+01   1.9912E+01   3.7720E-06  0.0335
   1.9912E+01   2.0396E+01   3.2448E-06  0.0357
   2.0396E+01   2.0893E+01   2.9380E-06  0.0370
   2.0893E+01   2.1401E+01   2.7738E-06  0.0377
   2.1401E+01   2.1922E+01   2.2662E-06  0.0412
   2.1922E+01   2.2455E+01   1.9161E-06  0.0442
   2.2455E+01   2.3001E+01   1.7205E-06  0.0461
   2.3001E+01   2.3561E+01   1.3008E-06  0.0524
   2.3561E+01   2.4134E+01   1.1443E-06  0.0552
   2.4134E+01   2.4721E+01   1.0048E-06  0.0582
   2.4721E+01   2.5323E+01   8.1131E-07  0.0640
   2.5323E+01   2.5939E+01   7.4011E-07  0.0662
   2.5939E+01   2.6570E+01   4.9119E-07  0.0803
   2.6570E+01   2.7217E+01   4.4240E-07  0.0836
   2.7217E+01   2.7879E+01   3.8357E-07  0.0887
   2.7879E+01   2.8557E+01   3.4497E-07  0.0925
   2.8557E+01   2.9252E+01   2.4179E-07  0.1091
   2.9252E+01   2.9964E+01   2.0795E-07  0.1162
   2.9964E+01   3.0693E+01   1.4540E-07  0.1374
   3.0693E+01   3.1440E+01   1.2587E-07  0.1459
   3.1440E+01   3.2205E+01   1.0197E-07  0.1601
   3.2205E+01   3.2988E+01   6.6364E-08  0.1961
   3.2988E+01   3.3791E+01   8.2230E-08  0.1741
   3.3791E+01   3.4613E+01   5.1085E-08  0.2182
   3.4613E+01   3.5455E+01   2.6123E-08  0.3015
   3.5455E+01   3.6318E+01   1.8548E-08  0.3536
   3.6318E+01   3.7201E+01   9.0535E-09  0.5000
   3.7201E+01   3.8106E+01   1.7677E-08  0.3536
   3.8106E+01   3.9034E+01   4.3143E-09  0.7071
   3.9034E+01   3.9983E+01   4.2118E-09  0.7071
   3.9983E+01   4.0956E+01   0.0000E+00  0.0000
   4.0956E+01   4.1953E+01   2.0070E-09  1.0000
   4.1953E+01   4.2973E+01   0.0000E+00  0.0000
   4.2973E+01   4.4019E+01   7.6513E-09  0.5000
   4.4019E+01   4.5090E+01   0.0000E+00  0.0000
   4.5090E+01   4.6187E+01   0.0000E+00  0.0000
   4.6187E+01   4.7311E+01   0.0000E+00  0.0000
   4.7311E+01   4.8462E+01   0.0000E+00  0.0000
   4.8462E+01   4.9641E+01   0.0000E+00  0.0000
   4.9641E+01   5.0849E+01   0.0000E+00  0.0000
   5.0849E+01   5.2086E+01   0.0000E+00  0.0000
   5.2086E+01   5.3353E+01   0.0000E+00  0.0000
   5.3353E+01   5.4651E+01   0.0000E+00  0.0000
   5.4651E+01   5.5981E+01   0.0000E+00  0.0000
   5.5981E+01   5.7343E+01   0.0000E+00  0.0000
   5.7343E+01   5.8738E+01   0.0000E+00  0.0000
   5.8738E+01   6.0168E+01   0.0000E+00  0.0000
   6.0168E+01   6.1632E+01   0.0000E+00  0.0000
   6.1632E+01   6.3131E+01   0.0000E+00  0.0000
   6.3131E+01   6.4667E+01   0.0000E+00  0.0000
   6.4667E+01   6.6240E+01   0.0000E+00  0.0000
   6.6240E+01   6.7852E+01   0.0000E+00  0.0000
   6.7852E+01   6.9503E+01   0.0000E+00  0.0000
   6.9503E+01   7.1194E+01   0.0000E+00  0.0000
   7.1194E+01   7.2926E+01   0.0000E+00  0.0000
   7.2926E+01   7.4701E+01   0.0000E+00  0.0000
   7.4701E+01   7.6518E+01   0.0000E+00  0.0000
   7.6518E+01   7.8380E+01   0.0000E+00  0.0000
   7.8380E+01   8.0287E+01   0.0000E+00  0.0000
   8.0287E+01   8.2240E+01   0.0000E+00  0.0000
   8.2240E+01   8.4241E+01   0.0000E+00  0.0000
   8.4241E+01   8.6291E+01   0.0000E+00  0.0000
   8.6291E+01   8.8391E+01   0.0000E+00  0.0000
   8.8391E+01   9.0541E+01   0.0000E+00  0.0000
   9.0541E+01   9.2744E+01   0.0000E+00  0.0000
   9.2744E+01   9.5001E+01   0.0000E+00  0.0000
   9.5001E+01   9.7312E+01   0.0000E+00  0.0000
   9.7312E+01   9.9680E+01   0.0000E+00  0.0000
   9.9680E+01   1.0211E+02   0.0000E+00  0.0000
   1.0211E+02   1.0459E+02   0.0000E+00  0.0000
   1.0459E+02   1.0713E+02   0.0000E+00  0.0000
   1.0713E+02   1.0974E+02   0.0000E+00  0.0000
   1.0974E+02   1.1241E+02   0.0000E+00  0.0000
   1.1241E+02   1.1515E+02   0.0000E+00  0.0000
   1.1515E+02   1.1795E+02   0.0000E+00  0.0000
   1.1795E+02   1.2082E+02   0.0000E+00  0.0000
   1.2082E+02   1.2376E+02   0.0000E+00  0.0000
   1.2376E+02   1.2677E+02   0.0000E+00  0.0000
   1.2677E+02   1.2985E+02   0.0000E+00  0.0000
   1.2985E+02   1.3301E+02   0.0000E+00  0.0000
   1.3301E+02   1.3625E+02   0.0000E+00  0.0000
   1.3625E+02   1.3956E+02   0.0000E+00  0.0000
   1.3956E+02   1.4296E+02   0.0000E+00  0.0000
   1.4296E+02   1.4644E+02   0.0000E+00  0.0000
   1.4644E+02   1.5000E+02   0.0000E+00  0.0000

#   sum over                 1.0873E-05
'no. =    1   reg = 119 - 219'
msuc: {\huge [t-cross] in region mesh}
msdr: {\it plotted by \ANGEL \version}
msdl: {\it calculated by \PHITS  3.26}
wt: s(0.7)
\vspace{-3}
  region surface crossing
  area  &=&   1.0000E+00 [cm^2]
e:
 
# Information for Restart Calculation
# This calculation was newly started
# istdev =  2 # 1:Batch variance, 2:History variance
# resc2  = 5.00000000000000000E+08 # Total source weight or Total source weight / maxcas
# resc3  = 5.00000000000000000E+08 # Total history number or Total batch number
# maxcas =   500000000 # History / Batch, only used for istdev=1
# bitrseed = 1101101111010011011000101101110001100110110010110001010100010001 # bit data of rseed
