[ T-Cross ]
    title = [t-cross] in region mesh
     mesh =  reg            # mesh type is region-wise
      reg =    1            # number of crossing regions
      non     r-from    r-to       area
      1       120       220        1.000000    
   e-type =    3            # e-mesh is log given by emin, emax and ne
     emin =  1.0000000E-02  # minimum value of e-mesh points
     emax =   150.0000      # maximum value of e-mesh points
#    edel =  2.4039514E-02  # mesh width of e-mesh points
       ne =    400          # number of e-mesh points
#    data = ( e(i), i = 1, ne + 1 )
#           1.00000E-02  1.02433E-02  1.04925E-02  1.07478E-02  1.10093E-02
#           1.12772E-02  1.15516E-02  1.18326E-02  1.21205E-02  1.24154E-02
#           1.27175E-02  1.30269E-02  1.33439E-02  1.36686E-02  1.40011E-02
#           1.43418E-02  1.46907E-02  1.50482E-02  1.54143E-02  1.57894E-02
#           1.61735E-02  1.65670E-02  1.69701E-02  1.73830E-02  1.78060E-02
#           1.82392E-02  1.86830E-02  1.91375E-02  1.96032E-02  2.00801E-02
#           2.05687E-02  2.10692E-02  2.15818E-02  2.21069E-02  2.26448E-02
#           2.31957E-02  2.37601E-02  2.43382E-02  2.49304E-02  2.55369E-02
#           2.61583E-02  2.67947E-02  2.74467E-02  2.81145E-02  2.87985E-02
#           2.94992E-02  3.02169E-02  3.09521E-02  3.17052E-02  3.24766E-02
#           3.32668E-02  3.40762E-02  3.49053E-02  3.57546E-02  3.66246E-02
#           3.75157E-02  3.84284E-02  3.93634E-02  4.03212E-02  4.13022E-02
#           4.23071E-02  4.33365E-02  4.43909E-02  4.54710E-02  4.65773E-02
#           4.77106E-02  4.88714E-02  5.00605E-02  5.12785E-02  5.25262E-02
#           5.38042E-02  5.51133E-02  5.64542E-02  5.78278E-02  5.92348E-02
#           6.06760E-02  6.21523E-02  6.36645E-02  6.52135E-02  6.68002E-02
#           6.84255E-02  7.00904E-02  7.17957E-02  7.35426E-02  7.53319E-02
#           7.71648E-02  7.90423E-02  8.09655E-02  8.29354E-02  8.49533E-02
#           8.70203E-02  8.91376E-02  9.13064E-02  9.35279E-02  9.58035E-02
#           9.81345E-02  1.00522E-01  1.02968E-01  1.05473E-01  1.08040E-01
#           1.10668E-01  1.13361E-01  1.16119E-01  1.18944E-01  1.21838E-01
#           1.24803E-01  1.27839E-01  1.30950E-01  1.34136E-01  1.37399E-01
#           1.40742E-01  1.44167E-01  1.47675E-01  1.51268E-01  1.54948E-01
#           1.58718E-01  1.62580E-01  1.66535E-01  1.70587E-01  1.74738E-01
#           1.78989E-01  1.83344E-01  1.87805E-01  1.92375E-01  1.97055E-01
#           2.01850E-01  2.06761E-01  2.11792E-01  2.16945E-01  2.22223E-01
#           2.27630E-01  2.33169E-01  2.38842E-01  2.44653E-01  2.50605E-01
#           2.56703E-01  2.62949E-01  2.69346E-01  2.75900E-01  2.82613E-01
#           2.89489E-01  2.96532E-01  3.03747E-01  3.11138E-01  3.18708E-01
#           3.26462E-01  3.34405E-01  3.42542E-01  3.50876E-01  3.59413E-01
#           3.68158E-01  3.77116E-01  3.86291E-01  3.95690E-01  4.05317E-01
#           4.15179E-01  4.25281E-01  4.35628E-01  4.46227E-01  4.57084E-01
#           4.68205E-01  4.79597E-01  4.91266E-01  5.03219E-01  5.15463E-01
#           5.28005E-01  5.40851E-01  5.54011E-01  5.67490E-01  5.81298E-01
#           5.95441E-01  6.09929E-01  6.24769E-01  6.39970E-01  6.55541E-01
#           6.71491E-01  6.87828E-01  7.04564E-01  7.21706E-01  7.39266E-01
#           7.57253E-01  7.75678E-01  7.94551E-01  8.13883E-01  8.33685E-01
#           8.53969E-01  8.74747E-01  8.96030E-01  9.17831E-01  9.40163E-01
#           9.63038E-01  9.86469E-01  1.01047E+00  1.03506E+00  1.06024E+00
#           1.08604E+00  1.11246E+00  1.13953E+00  1.16725E+00  1.19565E+00
#           1.22474E+00  1.25454E+00  1.28507E+00  1.31633E+00  1.34836E+00
#           1.38117E+00  1.41477E+00  1.44920E+00  1.48446E+00  1.52057E+00
#           1.55757E+00  1.59547E+00  1.63429E+00  1.67405E+00  1.71478E+00
#           1.75650E+00  1.79924E+00  1.84302E+00  1.88786E+00  1.93379E+00
#           1.98084E+00  2.02904E+00  2.07841E+00  2.12898E+00  2.18078E+00
#           2.23384E+00  2.28819E+00  2.34386E+00  2.40089E+00  2.45930E+00
#           2.51914E+00  2.58043E+00  2.64322E+00  2.70753E+00  2.77341E+00
#           2.84088E+00  2.91001E+00  2.98081E+00  3.05333E+00  3.12762E+00
#           3.20372E+00  3.28167E+00  3.36152E+00  3.44330E+00  3.52708E+00
#           3.61290E+00  3.70080E+00  3.79085E+00  3.88308E+00  3.97756E+00
#           4.07434E+00  4.17347E+00  4.27501E+00  4.37903E+00  4.48557E+00
#           4.59471E+00  4.70650E+00  4.82102E+00  4.93832E+00  5.05847E+00
#           5.18155E+00  5.30762E+00  5.43676E+00  5.56904E+00  5.70453E+00
#           5.84333E+00  5.98550E+00  6.13114E+00  6.28031E+00  6.43312E+00
#           6.58964E+00  6.74997E+00  6.91420E+00  7.08243E+00  7.25475E+00
#           7.43126E+00  7.61207E+00  7.79728E+00  7.98700E+00  8.18133E+00
#           8.38038E+00  8.58428E+00  8.79315E+00  9.00709E+00  9.22624E+00
#           9.45072E+00  9.68067E+00  9.91620E+00  1.01575E+01  1.04046E+01
#           1.06578E+01  1.09171E+01  1.11827E+01  1.14548E+01  1.17335E+01
#           1.20190E+01  1.23114E+01  1.26109E+01  1.29178E+01  1.32321E+01
#           1.35540E+01  1.38838E+01  1.42216E+01  1.45676E+01  1.49221E+01
#           1.52851E+01  1.56570E+01  1.60380E+01  1.64282E+01  1.68279E+01
#           1.72374E+01  1.76568E+01  1.80864E+01  1.85264E+01  1.89772E+01
#           1.94389E+01  1.99119E+01  2.03963E+01  2.08926E+01  2.14009E+01
#           2.19216E+01  2.24550E+01  2.30014E+01  2.35610E+01  2.41343E+01
#           2.47215E+01  2.53230E+01  2.59391E+01  2.65702E+01  2.72167E+01
#           2.78789E+01  2.85572E+01  2.92520E+01  2.99637E+01  3.06928E+01
#           3.14396E+01  3.22045E+01  3.29881E+01  3.37907E+01  3.46128E+01
#           3.54550E+01  3.63177E+01  3.72013E+01  3.81064E+01  3.90336E+01
#           3.99833E+01  4.09561E+01  4.19526E+01  4.29734E+01  4.40189E+01
#           4.50900E+01  4.61870E+01  4.73108E+01  4.84619E+01  4.96410E+01
#           5.08488E+01  5.20860E+01  5.33533E+01  5.46514E+01  5.59812E+01
#           5.73432E+01  5.87384E+01  6.01676E+01  6.16315E+01  6.31311E+01
#           6.46671E+01  6.62405E+01  6.78522E+01  6.95031E+01  7.11941E+01
#           7.29263E+01  7.47007E+01  7.65182E+01  7.83800E+01  8.02870E+01
#           8.22405E+01  8.42414E+01  8.62911E+01  8.83906E+01  9.05412E+01
#           9.27442E+01  9.50007E+01  9.73122E+01  9.96799E+01  1.02105E+02
#           1.04589E+02  1.07134E+02  1.09741E+02  1.12411E+02  1.15146E+02
#           1.17948E+02  1.20817E+02  1.23757E+02  1.26768E+02  1.29852E+02
#           1.33012E+02  1.36248E+02  1.39563E+02  1.42959E+02  1.46437E+02
#           1.50000E+02
     unit =    2            # unit is [1/cm^2/(MeV/n)/source]
     axis =  eng            # axis of output
     file = detector-21.out  # file name of output for the above axis
   output = f-curr          # surface crossing forward current spectrum
     part =  neutron  
# kf/name :  2112     
#    used :        main (  %)        temp (  %)       total (  %)
#  memory :         414 (  0)           0 (  0)         414 (  0)

#------------------------------------------------------------------------------
#newpage:
#   no. =    1   reg = 120 - 220

x: Energy [MeV/n]
y:  F-Curr [1/cm^2/(MeV/n)/source]         
p: xlog ylog afac(0.8) form(0.9)
h: n            x            y(neutron ),hh0l   n 
#  e-lower      e-upper      neutron     r.err 
   1.0000E-02   1.0243E-02   2.4565E-03  0.0577
   1.0243E-02   1.0493E-02   2.2882E-03  0.0591
   1.0493E-02   1.0748E-02   1.9914E-03  0.0626
   1.0748E-02   1.1009E-02   2.3508E-03  0.0570
   1.1009E-02   1.1277E-02   2.0735E-03  0.0599
   1.1277E-02   1.1552E-02   1.9548E-03  0.0610
   1.1552E-02   1.1833E-02   2.0173E-03  0.0593
   1.1833E-02   1.2121E-02   1.9447E-03  0.0596
   1.2121E-02   1.2415E-02   1.7902E-03  0.0615
   1.2415E-02   1.2718E-02   1.8841E-03  0.0592
   1.2718E-02   1.3027E-02   1.8935E-03  0.0584
   1.3027E-02   1.3344E-02   1.9015E-03  0.0575
   1.3344E-02   1.3669E-02   1.7999E-03  0.0584
   1.3669E-02   1.4001E-02   1.8470E-03  0.0570
   1.4001E-02   1.4342E-02   1.8769E-03  0.0559
   1.4342E-02   1.4691E-02   1.6766E-03  0.0584
   1.4691E-02   1.5048E-02   1.7260E-03  0.0568
   1.5048E-02   1.5414E-02   1.5531E-03  0.0592
   1.5414E-02   1.5789E-02   1.6121E-03  0.0574
   1.5789E-02   1.6174E-02   1.6634E-03  0.0559
   1.6174E-02   1.6567E-02   1.7382E-03  0.0540
   1.6567E-02   1.6970E-02   1.4283E-03  0.0588
   1.6970E-02   1.7383E-02   1.4630E-03  0.0574
   1.7383E-02   1.7806E-02   1.5442E-03  0.0553
   1.7806E-02   1.8239E-02   1.3816E-03  0.0577
   1.8239E-02   1.8683E-02   1.3926E-03  0.0568
   1.8683E-02   1.9138E-02   1.4421E-03  0.0551
   1.9138E-02   1.9603E-02   1.3538E-03  0.0563
   1.9603E-02   2.0080E-02   1.3139E-03  0.0564
   2.0080E-02   2.0569E-02   1.1576E-03  0.0593
   2.0569E-02   2.1069E-02   1.3433E-03  0.0544
   2.1069E-02   2.1582E-02   1.2641E-03  0.0555
   2.1582E-02   2.2107E-02   1.1483E-03  0.0574
   2.2107E-02   2.2645E-02   1.2228E-03  0.0551
   2.2645E-02   2.3196E-02   1.1884E-03  0.0552
   2.3196E-02   2.3760E-02   1.0927E-03  0.0569
   2.3760E-02   2.4338E-02   1.1723E-03  0.0542
   2.4338E-02   2.4930E-02   1.1095E-03  0.0550
   2.4930E-02   2.5537E-02   1.1053E-03  0.0545
   2.5537E-02   2.6158E-02   9.9325E-04  0.0568
   2.6158E-02   2.6795E-02   1.0778E-03  0.0539
   2.6795E-02   2.7447E-02   1.0379E-03  0.0543
   2.7447E-02   2.8114E-02   1.1065E-03  0.0520
   2.8114E-02   2.8799E-02   1.0622E-03  0.0524
   2.8799E-02   2.9499E-02   8.6522E-04  0.0573
   2.9499E-02   3.0217E-02   9.3393E-04  0.0545
   3.0217E-02   3.0952E-02   9.3336E-04  0.0539
   3.0952E-02   3.1705E-02   8.7890E-04  0.0548
   3.1705E-02   3.2477E-02   8.3985E-04  0.0555
   3.2477E-02   3.3267E-02   8.7745E-04  0.0536
   3.3267E-02   3.4076E-02   7.8342E-04  0.0560
   3.4076E-02   3.4905E-02   8.0277E-04  0.0546
   3.4905E-02   3.5755E-02   7.8120E-04  0.0548
   3.5755E-02   3.6625E-02   7.6106E-04  0.0549
   3.6625E-02   3.7516E-02   7.9806E-04  0.0529
   3.7516E-02   3.8428E-02   6.8997E-04  0.0562
   3.8428E-02   3.9363E-02   7.3447E-04  0.0538
   3.9363E-02   4.0321E-02   7.8831E-04  0.0514
   4.0321E-02   4.1302E-02   7.3553E-04  0.0526
   4.1302E-02   4.2307E-02   6.4194E-04  0.0556
   4.2307E-02   4.3337E-02   6.7508E-04  0.0536
   4.3337E-02   4.4391E-02   7.2640E-04  0.0510
   4.4391E-02   4.5471E-02   6.4786E-04  0.0533
   4.5471E-02   4.6577E-02   5.6512E-04  0.0565
   4.6577E-02   4.7711E-02   5.6235E-04  0.0558
   4.7711E-02   4.8871E-02   6.2321E-04  0.0524
   4.8871E-02   5.0061E-02   5.7359E-04  0.0541
   5.0061E-02   5.1279E-02   6.2330E-04  0.0512
   5.1279E-02   5.2526E-02   5.8444E-04  0.0523
   5.2526E-02   5.3804E-02   5.8959E-04  0.0514
   5.3804E-02   5.5113E-02   5.6257E-04  0.0519
   5.5113E-02   5.6454E-02   6.0708E-04  0.0495
   5.6454E-02   5.7828E-02   5.3838E-04  0.0519
   5.7828E-02   5.9235E-02   5.2964E-04  0.0517
   5.9235E-02   6.0676E-02   5.1573E-04  0.0518
   6.0676E-02   6.2152E-02   5.3446E-04  0.0502
   6.2152E-02   6.3665E-02   5.0054E-04  0.0512
   6.3665E-02   6.5214E-02   5.3035E-04  0.0492
   6.5214E-02   6.6800E-02   4.6933E-04  0.0517
   6.6800E-02   6.8426E-02   4.8412E-04  0.0503
   6.8426E-02   7.0090E-02   3.9312E-04  0.0551
   7.0090E-02   7.1796E-02   4.4173E-04  0.0515
   7.1796E-02   7.3543E-02   4.3202E-04  0.0514
   7.3543E-02   7.5332E-02   4.1001E-04  0.0521
   7.5332E-02   7.7165E-02   3.9435E-04  0.0525
   7.7165E-02   7.9042E-02   4.0019E-04  0.0515
   7.9042E-02   8.0965E-02   3.8886E-04  0.0516
   8.0965E-02   8.2935E-02   3.9056E-04  0.0509
   8.2935E-02   8.4953E-02   4.0121E-04  0.0496
   8.4953E-02   8.7020E-02   3.8746E-04  0.0498
   8.7020E-02   8.9138E-02   3.5695E-04  0.0513
   8.9138E-02   9.1306E-02   3.4340E-04  0.0517
   9.1306E-02   9.3528E-02   3.6637E-04  0.0495
   9.3528E-02   9.5804E-02   3.3653E-04  0.0510
   9.5804E-02   9.8134E-02   3.4823E-04  0.0495
   9.8134E-02   1.0052E-01   3.4619E-04  0.0491
   1.0052E-01   1.0297E-01   3.2549E-04  0.0499
   1.0297E-01   1.0547E-01   3.2853E-04  0.0492
   1.0547E-01   1.0804E-01   3.1014E-04  0.0501
   1.0804E-01   1.1067E-01   2.7812E-04  0.0521
   1.1067E-01   1.1336E-01   2.8354E-04  0.0510
   1.1336E-01   1.1612E-01   3.0346E-04  0.0488
   1.1612E-01   1.1894E-01   2.9659E-04  0.0487
   1.1894E-01   1.2184E-01   2.7734E-04  0.0498
   1.2184E-01   1.2480E-01   2.7132E-04  0.0497
   1.2480E-01   1.2784E-01   2.7387E-04  0.0490
   1.2784E-01   1.3095E-01   2.5461E-04  0.0502
   1.3095E-01   1.3414E-01   2.5265E-04  0.0497
   1.3414E-01   1.3740E-01   2.4879E-04  0.0495
   1.3740E-01   1.4074E-01   2.1095E-04  0.0531
   1.4074E-01   1.4417E-01   2.2159E-04  0.0512
   1.4417E-01   1.4767E-01   2.2646E-04  0.0501
   1.4767E-01   1.5127E-01   2.0319E-04  0.0522
   1.5127E-01   1.5495E-01   1.8534E-04  0.0540
   1.5495E-01   1.5872E-01   2.0092E-04  0.0512
   1.5872E-01   1.6258E-01   2.0718E-04  0.0499
   1.6258E-01   1.6654E-01   1.9442E-04  0.0510
   1.6654E-01   1.7059E-01   1.8081E-04  0.0522
   1.7059E-01   1.7474E-01   1.9085E-04  0.0502
   1.7474E-01   1.7899E-01   1.9809E-04  0.0487
   1.7899E-01   1.8334E-01   1.8041E-04  0.0504
   1.8334E-01   1.8781E-01   1.8234E-04  0.0495
   1.8781E-01   1.9237E-01   1.8249E-04  0.0489
   1.9237E-01   1.9706E-01   1.8621E-04  0.0478
   1.9706E-01   2.0185E-01   1.7268E-04  0.0491
   2.0185E-01   2.0676E-01   1.6511E-04  0.0495
   2.0676E-01   2.1179E-01   1.7461E-04  0.0476
   2.1179E-01   2.1694E-01   1.7154E-04  0.0475
   2.1694E-01   2.2222E-01   1.8227E-04  0.0455
   2.2222E-01   2.2763E-01   1.8110E-04  0.0452
   2.2763E-01   2.3317E-01   2.0532E-04  0.0418
   2.3317E-01   2.3884E-01   1.9032E-04  0.0429
   2.3884E-01   2.4465E-01   2.1501E-04  0.0399
   2.4465E-01   2.5061E-01   2.2195E-04  0.0388
   2.5061E-01   2.5670E-01   2.1611E-04  0.0389
   2.5670E-01   2.6295E-01   2.1839E-04  0.0382
   2.6295E-01   2.6935E-01   2.1622E-04  0.0379
   2.6935E-01   2.7590E-01   2.4468E-04  0.0353
   2.7590E-01   2.8261E-01   2.2754E-04  0.0361
   2.8261E-01   2.8949E-01   2.3728E-04  0.0349
   2.8949E-01   2.9653E-01   2.3085E-04  0.0350
   2.9653E-01   3.0375E-01   2.4797E-04  0.0334
   3.0375E-01   3.1114E-01   2.5769E-04  0.0323
   3.1114E-01   3.1871E-01   2.5447E-04  0.0321
   3.1871E-01   3.2646E-01   2.6247E-04  0.0312
   3.2646E-01   3.3441E-01   2.6416E-04  0.0308
   3.3441E-01   3.4254E-01   2.7136E-04  0.0300
   3.4254E-01   3.5088E-01   2.7520E-04  0.0295
   3.5088E-01   3.5941E-01   2.8513E-04  0.0286
   3.5941E-01   3.6816E-01   2.8366E-04  0.0283
   3.6816E-01   3.7712E-01   2.8595E-04  0.0279
   3.7712E-01   3.8629E-01   2.9699E-04  0.0270
   3.8629E-01   3.9569E-01   2.8015E-04  0.0275
   3.9569E-01   4.0532E-01   2.9714E-04  0.0264
   4.0532E-01   4.1518E-01   2.9694E-04  0.0261
   4.1518E-01   4.2528E-01   3.0869E-04  0.0252
   4.2528E-01   4.3563E-01   3.0785E-04  0.0250
   4.3563E-01   4.4623E-01   3.1687E-04  0.0243
   4.4623E-01   4.5708E-01   3.0807E-04  0.0244
   4.5708E-01   4.6821E-01   3.1575E-04  0.0238
   4.6821E-01   4.7960E-01   3.1268E-04  0.0236
   4.7960E-01   4.9127E-01   3.1104E-04  0.0234
   4.9127E-01   5.0322E-01   3.1768E-04  0.0229
   5.0322E-01   5.1546E-01   3.1762E-04  0.0226
   5.1546E-01   5.2800E-01   3.2407E-04  0.0221
   5.2800E-01   5.4085E-01   3.1759E-04  0.0220
   5.4085E-01   5.5401E-01   3.2895E-04  0.0214
   5.5401E-01   5.6749E-01   3.3012E-04  0.0211
   5.6749E-01   5.8130E-01   3.3573E-04  0.0207
   5.8130E-01   5.9544E-01   3.2350E-04  0.0208
   5.9544E-01   6.0993E-01   3.3291E-04  0.0203
   6.0993E-01   6.2477E-01   3.3334E-04  0.0200
   6.2477E-01   6.3997E-01   3.2725E-04  0.0200
   6.3997E-01   6.5554E-01   3.2768E-04  0.0197
   6.5554E-01   6.7149E-01   3.2479E-04  0.0196
   6.7149E-01   6.8783E-01   3.2417E-04  0.0194
   6.8783E-01   7.0456E-01   3.3031E-04  0.0189
   7.0456E-01   7.2171E-01   3.2061E-04  0.0190
   7.2171E-01   7.3927E-01   3.0947E-04  0.0191
   7.3927E-01   7.5725E-01   3.1597E-04  0.0187
   7.5725E-01   7.7568E-01   3.1244E-04  0.0185
   7.7568E-01   7.9455E-01   3.3108E-04  0.0178
   7.9455E-01   8.1388E-01   3.1904E-04  0.0179
   8.1388E-01   8.3368E-01   3.2238E-04  0.0176
   8.3368E-01   8.5397E-01   3.0506E-04  0.0179
   8.5397E-01   8.7475E-01   3.1514E-04  0.0174
   8.7475E-01   8.9603E-01   3.1692E-04  0.0171
   8.9603E-01   9.1783E-01   3.0567E-04  0.0172
   9.1783E-01   9.4016E-01   2.9512E-04  0.0173
   9.4016E-01   9.6304E-01   3.0187E-04  0.0169
   9.6304E-01   9.8647E-01   2.9848E-04  0.0168
   9.8647E-01   1.0105E+00   2.9431E-04  0.0167
   1.0105E+00   1.0351E+00   2.9240E-04  0.0166
   1.0351E+00   1.0602E+00   2.8406E-04  0.0166
   1.0602E+00   1.0860E+00   2.8097E-04  0.0165
   1.0860E+00   1.1125E+00   2.7000E-04  0.0166
   1.1125E+00   1.1395E+00   2.6854E-04  0.0165
   1.1395E+00   1.1673E+00   2.5891E-04  0.0166
   1.1673E+00   1.1957E+00   2.6588E-04  0.0161
   1.1957E+00   1.2247E+00   2.5411E-04  0.0163
   1.2247E+00   1.2545E+00   2.5887E-04  0.0160
   1.2545E+00   1.2851E+00   2.4368E-04  0.0163
   1.2851E+00   1.3163E+00   2.3495E-04  0.0164
   1.3163E+00   1.3484E+00   2.3991E-04  0.0160
   1.3484E+00   1.3812E+00   2.3168E-04  0.0161
   1.3812E+00   1.4148E+00   2.3666E-04  0.0157
   1.4148E+00   1.4492E+00   2.3208E-04  0.0157
   1.4492E+00   1.4845E+00   2.2205E-04  0.0158
   1.4845E+00   1.5206E+00   2.2473E-04  0.0155
   1.5206E+00   1.5576E+00   2.2050E-04  0.0155
   1.5576E+00   1.5955E+00   2.1032E-04  0.0157
   1.5955E+00   1.6343E+00   2.0364E-04  0.0157
   1.6343E+00   1.6741E+00   1.9308E-04  0.0160
   1.6741E+00   1.7148E+00   2.0188E-04  0.0154
   1.7148E+00   1.7565E+00   1.8672E-04  0.0159
   1.7565E+00   1.7992E+00   1.8426E-04  0.0158
   1.7992E+00   1.8430E+00   1.9041E-04  0.0153
   1.8430E+00   1.8879E+00   1.7858E-04  0.0156
   1.8879E+00   1.9338E+00   1.7511E-04  0.0156
   1.9338E+00   1.9808E+00   1.6928E-04  0.0157
   1.9808E+00   2.0290E+00   1.6762E-04  0.0156
   2.0290E+00   2.0784E+00   1.6697E-04  0.0154
   2.0784E+00   2.1290E+00   1.5778E-04  0.0156
   2.1290E+00   2.1808E+00   1.5863E-04  0.0154
   2.1808E+00   2.2338E+00   1.5553E-04  0.0154
   2.2338E+00   2.2882E+00   1.5596E-04  0.0152
   2.2882E+00   2.3439E+00   1.4588E-04  0.0155
   2.3439E+00   2.4009E+00   1.5150E-04  0.0150
   2.4009E+00   2.4593E+00   1.4561E-04  0.0151
   2.4593E+00   2.5191E+00   1.4226E-04  0.0151
   2.5191E+00   2.5804E+00   1.4138E-04  0.0150
   2.5804E+00   2.6432E+00   1.3925E-04  0.0149
   2.6432E+00   2.7075E+00   1.3219E-04  0.0151
   2.7075E+00   2.7734E+00   1.3470E-04  0.0148
   2.7734E+00   2.8409E+00   1.3217E-04  0.0148
   2.8409E+00   2.9100E+00   1.2745E-04  0.0149
   2.9100E+00   2.9808E+00   1.3061E-04  0.0145
   2.9808E+00   3.0533E+00   1.3220E-04  0.0143
   3.0533E+00   3.1276E+00   1.3261E-04  0.0141
   3.1276E+00   3.2037E+00   1.2440E-04  0.0144
   3.2037E+00   3.2817E+00   1.2567E-04  0.0141
   3.2817E+00   3.3615E+00   1.2310E-04  0.0141
   3.3615E+00   3.4433E+00   1.1875E-04  0.0142
   3.4433E+00   3.5271E+00   1.1946E-04  0.0140
   3.5271E+00   3.6129E+00   1.1699E-04  0.0140
   3.6129E+00   3.7008E+00   1.1475E-04  0.0139
   3.7008E+00   3.7908E+00   1.1413E-04  0.0138
   3.7908E+00   3.8831E+00   1.1440E-04  0.0136
   3.8831E+00   3.9776E+00   1.1188E-04  0.0136
   3.9776E+00   4.0743E+00   1.1136E-04  0.0135
   4.0743E+00   4.1735E+00   1.1239E-04  0.0133
   4.1735E+00   4.2750E+00   1.0841E-04  0.0133
   4.2750E+00   4.3790E+00   1.0453E-04  0.0134
   4.3790E+00   4.4856E+00   1.0570E-04  0.0132
   4.4856E+00   4.5947E+00   1.0167E-04  0.0133
   4.5947E+00   4.7065E+00   9.7685E-05  0.0134
   4.7065E+00   4.8210E+00   9.8033E-05  0.0132
   4.8210E+00   4.9383E+00   9.4700E-05  0.0133
   4.9383E+00   5.0585E+00   9.2042E-05  0.0133
   5.0585E+00   5.1815E+00   9.0153E-05  0.0133
   5.1815E+00   5.3076E+00   8.7498E-05  0.0134
   5.3076E+00   5.4368E+00   8.5394E-05  0.0134
   5.4368E+00   5.5690E+00   8.5494E-05  0.0132
   5.5690E+00   5.7045E+00   8.2747E-05  0.0133
   5.7045E+00   5.8433E+00   8.3494E-05  0.0131
   5.8433E+00   5.9855E+00   8.0102E-05  0.0132
   5.9855E+00   6.1311E+00   7.7473E-05  0.0132
   6.1311E+00   6.2803E+00   7.8798E-05  0.0130
   6.2803E+00   6.4331E+00   7.7468E-05  0.0129
   6.4331E+00   6.5896E+00   7.4789E-05  0.0130
   6.5896E+00   6.7500E+00   7.4016E-05  0.0129
   6.7500E+00   6.9142E+00   7.2400E-05  0.0129
   6.9142E+00   7.0824E+00   7.1092E-05  0.0129
   7.0824E+00   7.2548E+00   6.9522E-05  0.0129
   7.2548E+00   7.4313E+00   6.7826E-05  0.0129
   7.4313E+00   7.6121E+00   6.7258E-05  0.0128
   7.6121E+00   7.7973E+00   6.4145E-05  0.0129
   7.7973E+00   7.9870E+00   6.2415E-05  0.0130
   7.9870E+00   8.1813E+00   6.0632E-05  0.0130
   8.1813E+00   8.3804E+00   5.9925E-05  0.0129
   8.3804E+00   8.5843E+00   5.8379E-05  0.0129
   8.5843E+00   8.7931E+00   5.7194E-05  0.0129
   8.7931E+00   9.0071E+00   5.6180E-05  0.0129
   9.0071E+00   9.2262E+00   5.4427E-05  0.0129
   9.2262E+00   9.4507E+00   5.2932E-05  0.0130
   9.4507E+00   9.6807E+00   5.2734E-05  0.0128
   9.6807E+00   9.9162E+00   4.9326E-05  0.0131
   9.9162E+00   1.0157E+01   4.6644E-05  0.0133
   1.0157E+01   1.0405E+01   4.9800E-05  0.0127
   1.0405E+01   1.0658E+01   5.1338E-05  0.0124
   1.0658E+01   1.0917E+01   5.1070E-05  0.0123
   1.0917E+01   1.1183E+01   4.8803E-05  0.0124
   1.1183E+01   1.1455E+01   4.6248E-05  0.0126
   1.1455E+01   1.1733E+01   4.4092E-05  0.0127
   1.1733E+01   1.2019E+01   4.2065E-05  0.0129
   1.2019E+01   1.2311E+01   3.9915E-05  0.0131
   1.2311E+01   1.2611E+01   3.7384E-05  0.0133
   1.2611E+01   1.2918E+01   3.6473E-05  0.0134
   1.2918E+01   1.3232E+01   3.6132E-05  0.0133
   1.3232E+01   1.3554E+01   3.3945E-05  0.0135
   1.3554E+01   1.3884E+01   3.1534E-05  0.0139
   1.3884E+01   1.4222E+01   2.9921E-05  0.0141
   1.4222E+01   1.4568E+01   2.8674E-05  0.0142
   1.4568E+01   1.4922E+01   2.7183E-05  0.0144
   1.4922E+01   1.5285E+01   2.5040E-05  0.0148
   1.5285E+01   1.5657E+01   2.3777E-05  0.0150
   1.5657E+01   1.6038E+01   2.1314E-05  0.0157
   1.6038E+01   1.6428E+01   2.0862E-05  0.0157
   1.6428E+01   1.6828E+01   1.9379E-05  0.0161
   1.6828E+01   1.7237E+01   1.7887E-05  0.0165
   1.7237E+01   1.7657E+01   1.6465E-05  0.0170
   1.7657E+01   1.8086E+01   1.4711E-05  0.0178
   1.8086E+01   1.8526E+01   1.3795E-05  0.0181
   1.8526E+01   1.8977E+01   1.2789E-05  0.0186
   1.8977E+01   1.9439E+01   1.1889E-05  0.0191
   1.9439E+01   1.9912E+01   1.1315E-05  0.0193
   1.9912E+01   2.0396E+01   1.0206E-05  0.0201
   2.0396E+01   2.0893E+01   9.2774E-06  0.0208
   2.0893E+01   2.1401E+01   8.2505E-06  0.0218
   2.1401E+01   2.1922E+01   7.5053E-06  0.0226
   2.1922E+01   2.2455E+01   6.8620E-06  0.0234
   2.2455E+01   2.3001E+01   5.9779E-06  0.0247
   2.3001E+01   2.3561E+01   5.3248E-06  0.0259
   2.3561E+01   2.4134E+01   5.1111E-06  0.0261
   2.4134E+01   2.4721E+01   4.4959E-06  0.0275
   2.4721E+01   2.5323E+01   3.9169E-06  0.0291
   2.5323E+01   2.5939E+01   3.4084E-06  0.0309
   2.5939E+01   2.6570E+01   3.0771E-06  0.0321
   2.6570E+01   2.7217E+01   2.5987E-06  0.0345
   2.7217E+01   2.7879E+01   2.3195E-06  0.0361
   2.7879E+01   2.8557E+01   1.8487E-06  0.0399
   2.8557E+01   2.9252E+01   1.6839E-06  0.0413
   2.9252E+01   2.9964E+01   1.4781E-06  0.0436
   2.9964E+01   3.0693E+01   1.3058E-06  0.0458
   3.0693E+01   3.1440E+01   1.0739E-06  0.0499
   3.1440E+01   3.2205E+01   9.4647E-07  0.0526
   3.2205E+01   3.2988E+01   7.6829E-07  0.0576
   3.2988E+01   3.3791E+01   6.6781E-07  0.0611
   3.3791E+01   3.4613E+01   5.1085E-07  0.0690
   3.4613E+01   3.5455E+01   4.9634E-07  0.0692
   3.5455E+01   3.6318E+01   3.6168E-07  0.0801
   3.6318E+01   3.7201E+01   3.0329E-07  0.0864
   3.7201E+01   3.8106E+01   2.4085E-07  0.0958
   3.8106E+01   3.9034E+01   1.7041E-07  0.1125
   3.9034E+01   3.9983E+01   1.6426E-07  0.1132
   3.9983E+01   4.0956E+01   1.3569E-07  0.1231
   4.0956E+01   4.1953E+01   7.0246E-08  0.1690
   4.1953E+01   4.2973E+01   7.0537E-08  0.1667
   4.2973E+01   4.4019E+01   5.5472E-08  0.1857
   4.4019E+01   4.5090E+01   4.8552E-08  0.1961
   4.5090E+01   4.6187E+01   3.2815E-08  0.2357
   4.6187E+01   4.7311E+01   1.2458E-08  0.3780
   4.7311E+01   4.8462E+01   1.0425E-08  0.4082
   4.8462E+01   4.9641E+01   1.3569E-08  0.3536
   4.9641E+01   5.0849E+01   1.8215E-08  0.3015
   5.0849E+01   5.2086E+01   4.8497E-09  0.5774
   5.2086E+01   5.3353E+01   3.1563E-09  0.7071
   5.3353E+01   5.4651E+01   6.1627E-09  0.5000
   5.4651E+01   5.5981E+01   3.0082E-09  0.7071
   5.5981E+01   5.7343E+01   1.4684E-09  1.0000
   5.7343E+01   5.8738E+01   1.4335E-09  1.0000
   5.8738E+01   6.0168E+01   2.7989E-09  0.7071
   6.0168E+01   6.1632E+01   0.0000E+00  0.0000
   6.1632E+01   6.3131E+01   0.0000E+00  0.0000
   6.3131E+01   6.4667E+01   0.0000E+00  0.0000
   6.4667E+01   6.6240E+01   1.2711E-09  1.0000
   6.6240E+01   6.7852E+01   1.2409E-09  1.0000
   6.7852E+01   6.9503E+01   1.2115E-09  1.0000
   6.9503E+01   7.1194E+01   0.0000E+00  0.0000
   7.1194E+01   7.2926E+01   0.0000E+00  0.0000
   7.2926E+01   7.4701E+01   0.0000E+00  0.0000
   7.4701E+01   7.6518E+01   0.0000E+00  0.0000
   7.6518E+01   7.8380E+01   0.0000E+00  0.0000
   7.8380E+01   8.0287E+01   0.0000E+00  0.0000
   8.0287E+01   8.2240E+01   0.0000E+00  0.0000
   8.2240E+01   8.4241E+01   0.0000E+00  0.0000
   8.4241E+01   8.6291E+01   0.0000E+00  0.0000
   8.6291E+01   8.8391E+01   0.0000E+00  0.0000
   8.8391E+01   9.0541E+01   0.0000E+00  0.0000
   9.0541E+01   9.2744E+01   0.0000E+00  0.0000
   9.2744E+01   9.5001E+01   0.0000E+00  0.0000
   9.5001E+01   9.7312E+01   0.0000E+00  0.0000
   9.7312E+01   9.9680E+01   0.0000E+00  0.0000
   9.9680E+01   1.0211E+02   0.0000E+00  0.0000
   1.0211E+02   1.0459E+02   0.0000E+00  0.0000
   1.0459E+02   1.0713E+02   0.0000E+00  0.0000
   1.0713E+02   1.0974E+02   0.0000E+00  0.0000
   1.0974E+02   1.1241E+02   0.0000E+00  0.0000
   1.1241E+02   1.1515E+02   0.0000E+00  0.0000
   1.1515E+02   1.1795E+02   0.0000E+00  0.0000
   1.1795E+02   1.2082E+02   0.0000E+00  0.0000
   1.2082E+02   1.2376E+02   0.0000E+00  0.0000
   1.2376E+02   1.2677E+02   0.0000E+00  0.0000
   1.2677E+02   1.2985E+02   0.0000E+00  0.0000
   1.2985E+02   1.3301E+02   0.0000E+00  0.0000
   1.3301E+02   1.3625E+02   0.0000E+00  0.0000
   1.3625E+02   1.3956E+02   0.0000E+00  0.0000
   1.3956E+02   1.4296E+02   0.0000E+00  0.0000
   1.4296E+02   1.4644E+02   0.0000E+00  0.0000
   1.4644E+02   1.5000E+02   0.0000E+00  0.0000

#   sum over                 1.0540E-05
'no. =    1   reg = 120 - 220'
msuc: {\huge [t-cross] in region mesh}
msdr: {\it plotted by \ANGEL \version}
msdl: {\it calculated by \PHITS  3.26}
wt: s(0.7)
\vspace{-3}
  region surface crossing
  area  &=&   1.0000E+00 [cm^2]
e:
 
# Information for Restart Calculation
# This calculation was newly started
# istdev =  2 # 1:Batch variance, 2:History variance
# resc2  = 5.00000000000000000E+08 # Total source weight or Total source weight / maxcas
# resc3  = 5.00000000000000000E+08 # Total history number or Total batch number
# maxcas =   500000000 # History / Batch, only used for istdev=1
# bitrseed = 1101101111010011011000101101110001100110110010110001010100010001 # bit data of rseed
