[ T-Cross ]
    title = [t-cross] in region mesh
     mesh =  reg            # mesh type is region-wise
      reg =    1            # number of crossing regions
      non     r-from    r-to       area
      1       110       210        1.000000    
   e-type =    3            # e-mesh is log given by emin, emax and ne
     emin =  1.0000000E-02  # minimum value of e-mesh points
     emax =   150.0000      # maximum value of e-mesh points
#    edel =  2.4039514E-02  # mesh width of e-mesh points
       ne =    400          # number of e-mesh points
#    data = ( e(i), i = 1, ne + 1 )
#           1.00000E-02  1.02433E-02  1.04925E-02  1.07478E-02  1.10093E-02
#           1.12772E-02  1.15516E-02  1.18326E-02  1.21205E-02  1.24154E-02
#           1.27175E-02  1.30269E-02  1.33439E-02  1.36686E-02  1.40011E-02
#           1.43418E-02  1.46907E-02  1.50482E-02  1.54143E-02  1.57894E-02
#           1.61735E-02  1.65670E-02  1.69701E-02  1.73830E-02  1.78060E-02
#           1.82392E-02  1.86830E-02  1.91375E-02  1.96032E-02  2.00801E-02
#           2.05687E-02  2.10692E-02  2.15818E-02  2.21069E-02  2.26448E-02
#           2.31957E-02  2.37601E-02  2.43382E-02  2.49304E-02  2.55369E-02
#           2.61583E-02  2.67947E-02  2.74467E-02  2.81145E-02  2.87985E-02
#           2.94992E-02  3.02169E-02  3.09521E-02  3.17052E-02  3.24766E-02
#           3.32668E-02  3.40762E-02  3.49053E-02  3.57546E-02  3.66246E-02
#           3.75157E-02  3.84284E-02  3.93634E-02  4.03212E-02  4.13022E-02
#           4.23071E-02  4.33365E-02  4.43909E-02  4.54710E-02  4.65773E-02
#           4.77106E-02  4.88714E-02  5.00605E-02  5.12785E-02  5.25262E-02
#           5.38042E-02  5.51133E-02  5.64542E-02  5.78278E-02  5.92348E-02
#           6.06760E-02  6.21523E-02  6.36645E-02  6.52135E-02  6.68002E-02
#           6.84255E-02  7.00904E-02  7.17957E-02  7.35426E-02  7.53319E-02
#           7.71648E-02  7.90423E-02  8.09655E-02  8.29354E-02  8.49533E-02
#           8.70203E-02  8.91376E-02  9.13064E-02  9.35279E-02  9.58035E-02
#           9.81345E-02  1.00522E-01  1.02968E-01  1.05473E-01  1.08040E-01
#           1.10668E-01  1.13361E-01  1.16119E-01  1.18944E-01  1.21838E-01
#           1.24803E-01  1.27839E-01  1.30950E-01  1.34136E-01  1.37399E-01
#           1.40742E-01  1.44167E-01  1.47675E-01  1.51268E-01  1.54948E-01
#           1.58718E-01  1.62580E-01  1.66535E-01  1.70587E-01  1.74738E-01
#           1.78989E-01  1.83344E-01  1.87805E-01  1.92375E-01  1.97055E-01
#           2.01850E-01  2.06761E-01  2.11792E-01  2.16945E-01  2.22223E-01
#           2.27630E-01  2.33169E-01  2.38842E-01  2.44653E-01  2.50605E-01
#           2.56703E-01  2.62949E-01  2.69346E-01  2.75900E-01  2.82613E-01
#           2.89489E-01  2.96532E-01  3.03747E-01  3.11138E-01  3.18708E-01
#           3.26462E-01  3.34405E-01  3.42542E-01  3.50876E-01  3.59413E-01
#           3.68158E-01  3.77116E-01  3.86291E-01  3.95690E-01  4.05317E-01
#           4.15179E-01  4.25281E-01  4.35628E-01  4.46227E-01  4.57084E-01
#           4.68205E-01  4.79597E-01  4.91266E-01  5.03219E-01  5.15463E-01
#           5.28005E-01  5.40851E-01  5.54011E-01  5.67490E-01  5.81298E-01
#           5.95441E-01  6.09929E-01  6.24769E-01  6.39970E-01  6.55541E-01
#           6.71491E-01  6.87828E-01  7.04564E-01  7.21706E-01  7.39266E-01
#           7.57253E-01  7.75678E-01  7.94551E-01  8.13883E-01  8.33685E-01
#           8.53969E-01  8.74747E-01  8.96030E-01  9.17831E-01  9.40163E-01
#           9.63038E-01  9.86469E-01  1.01047E+00  1.03506E+00  1.06024E+00
#           1.08604E+00  1.11246E+00  1.13953E+00  1.16725E+00  1.19565E+00
#           1.22474E+00  1.25454E+00  1.28507E+00  1.31633E+00  1.34836E+00
#           1.38117E+00  1.41477E+00  1.44920E+00  1.48446E+00  1.52057E+00
#           1.55757E+00  1.59547E+00  1.63429E+00  1.67405E+00  1.71478E+00
#           1.75650E+00  1.79924E+00  1.84302E+00  1.88786E+00  1.93379E+00
#           1.98084E+00  2.02904E+00  2.07841E+00  2.12898E+00  2.18078E+00
#           2.23384E+00  2.28819E+00  2.34386E+00  2.40089E+00  2.45930E+00
#           2.51914E+00  2.58043E+00  2.64322E+00  2.70753E+00  2.77341E+00
#           2.84088E+00  2.91001E+00  2.98081E+00  3.05333E+00  3.12762E+00
#           3.20372E+00  3.28167E+00  3.36152E+00  3.44330E+00  3.52708E+00
#           3.61290E+00  3.70080E+00  3.79085E+00  3.88308E+00  3.97756E+00
#           4.07434E+00  4.17347E+00  4.27501E+00  4.37903E+00  4.48557E+00
#           4.59471E+00  4.70650E+00  4.82102E+00  4.93832E+00  5.05847E+00
#           5.18155E+00  5.30762E+00  5.43676E+00  5.56904E+00  5.70453E+00
#           5.84333E+00  5.98550E+00  6.13114E+00  6.28031E+00  6.43312E+00
#           6.58964E+00  6.74997E+00  6.91420E+00  7.08243E+00  7.25475E+00
#           7.43126E+00  7.61207E+00  7.79728E+00  7.98700E+00  8.18133E+00
#           8.38038E+00  8.58428E+00  8.79315E+00  9.00709E+00  9.22624E+00
#           9.45072E+00  9.68067E+00  9.91620E+00  1.01575E+01  1.04046E+01
#           1.06578E+01  1.09171E+01  1.11827E+01  1.14548E+01  1.17335E+01
#           1.20190E+01  1.23114E+01  1.26109E+01  1.29178E+01  1.32321E+01
#           1.35540E+01  1.38838E+01  1.42216E+01  1.45676E+01  1.49221E+01
#           1.52851E+01  1.56570E+01  1.60380E+01  1.64282E+01  1.68279E+01
#           1.72374E+01  1.76568E+01  1.80864E+01  1.85264E+01  1.89772E+01
#           1.94389E+01  1.99119E+01  2.03963E+01  2.08926E+01  2.14009E+01
#           2.19216E+01  2.24550E+01  2.30014E+01  2.35610E+01  2.41343E+01
#           2.47215E+01  2.53230E+01  2.59391E+01  2.65702E+01  2.72167E+01
#           2.78789E+01  2.85572E+01  2.92520E+01  2.99637E+01  3.06928E+01
#           3.14396E+01  3.22045E+01  3.29881E+01  3.37907E+01  3.46128E+01
#           3.54550E+01  3.63177E+01  3.72013E+01  3.81064E+01  3.90336E+01
#           3.99833E+01  4.09561E+01  4.19526E+01  4.29734E+01  4.40189E+01
#           4.50900E+01  4.61870E+01  4.73108E+01  4.84619E+01  4.96410E+01
#           5.08488E+01  5.20860E+01  5.33533E+01  5.46514E+01  5.59812E+01
#           5.73432E+01  5.87384E+01  6.01676E+01  6.16315E+01  6.31311E+01
#           6.46671E+01  6.62405E+01  6.78522E+01  6.95031E+01  7.11941E+01
#           7.29263E+01  7.47007E+01  7.65182E+01  7.83800E+01  8.02870E+01
#           8.22405E+01  8.42414E+01  8.62911E+01  8.83906E+01  9.05412E+01
#           9.27442E+01  9.50007E+01  9.73122E+01  9.96799E+01  1.02105E+02
#           1.04589E+02  1.07134E+02  1.09741E+02  1.12411E+02  1.15146E+02
#           1.17948E+02  1.20817E+02  1.23757E+02  1.26768E+02  1.29852E+02
#           1.33012E+02  1.36248E+02  1.39563E+02  1.42959E+02  1.46437E+02
#           1.50000E+02
     unit =    2            # unit is [1/cm^2/(MeV/n)/source]
     axis =  eng            # axis of output
     file = detector-11.out  # file name of output for the above axis
   output = f-curr          # surface crossing forward current spectrum
     part =  neutron  
# kf/name :  2112     
#    used :        main (  %)        temp (  %)       total (  %)
#  memory :         414 (  0)           0 (  0)         414 (  0)

#------------------------------------------------------------------------------
#newpage:
#   no. =    1   reg = 110 - 210

x: Energy [MeV/n]
y:  F-Curr [1/cm^2/(MeV/n)/source]         
p: xlog ylog afac(0.8) form(0.9)
h: n            x            y(neutron ),hh0l   n 
#  e-lower      e-upper      neutron     r.err 
   1.0000E-02   1.0243E-02   6.6664E-03  0.0350
   1.0243E-02   1.0493E-02   6.7916E-03  0.0343
   1.0493E-02   1.0748E-02   6.5722E-03  0.0344
   1.0748E-02   1.1009E-02   6.1884E-03  0.0351
   1.1009E-02   1.1277E-02   5.8505E-03  0.0356
   1.1277E-02   1.1552E-02   5.6407E-03  0.0358
   1.1552E-02   1.1833E-02   5.5411E-03  0.0358
   1.1833E-02   1.2121E-02   5.3748E-03  0.0359
   1.2121E-02   1.2415E-02   5.7526E-03  0.0342
   1.2415E-02   1.2718E-02   5.0462E-03  0.0361
   1.2718E-02   1.3027E-02   5.1113E-03  0.0355
   1.3027E-02   1.3344E-02   5.3588E-03  0.0342
   1.3344E-02   1.3669E-02   5.0959E-03  0.0346
   1.3669E-02   1.4001E-02   4.5205E-03  0.0364
   1.4001E-02   1.4342E-02   4.5244E-03  0.0359
   1.4342E-02   1.4691E-02   4.3932E-03  0.0360
   1.4691E-02   1.5048E-02   4.4547E-03  0.0353
   1.5048E-02   1.5414E-02   4.6174E-03  0.0343
   1.5414E-02   1.5789E-02   4.2582E-03  0.0353
   1.5789E-02   1.6174E-02   4.4914E-03  0.0339
   1.6174E-02   1.6567E-02   3.8518E-03  0.0362
   1.6567E-02   1.6970E-02   4.2255E-03  0.0342
   1.6970E-02   1.7383E-02   3.8734E-03  0.0352
   1.7383E-02   1.7806E-02   3.8164E-03  0.0351
   1.7806E-02   1.8239E-02   3.9186E-03  0.0342
   1.8239E-02   1.8683E-02   3.7082E-03  0.0348
   1.8683E-02   1.9138E-02   3.6203E-03  0.0348
   1.9138E-02   1.9603E-02   3.4265E-03  0.0353
   1.9603E-02   2.0080E-02   3.2926E-03  0.0356
   2.0080E-02   2.0569E-02   3.2171E-03  0.0355
   2.0569E-02   2.1069E-02   3.0181E-03  0.0362
   2.1069E-02   2.1582E-02   3.2463E-03  0.0345
   2.1582E-02   2.2107E-02   3.0891E-03  0.0350
   2.2107E-02   2.2645E-02   2.8681E-03  0.0359
   2.2645E-02   2.3196E-02   2.8747E-03  0.0354
   2.3196E-02   2.3760E-02   2.8052E-03  0.0354
   2.3760E-02   2.4338E-02   2.8279E-03  0.0349
   2.4338E-02   2.4930E-02   2.6338E-03  0.0357
   2.4930E-02   2.5537E-02   2.5602E-03  0.0357
   2.5537E-02   2.6158E-02   2.6589E-03  0.0347
   2.6158E-02   2.6795E-02   2.3867E-03  0.0361
   2.6795E-02   2.7447E-02   2.3556E-03  0.0360
   2.7447E-02   2.8114E-02   2.4508E-03  0.0348
   2.8114E-02   2.8799E-02   2.2555E-03  0.0359
   2.8799E-02   2.9499E-02   2.2601E-03  0.0354
   2.9499E-02   3.0217E-02   2.2638E-03  0.0350
   3.0217E-02   3.0952E-02   1.9202E-03  0.0375
   3.0952E-02   3.1705E-02   2.0712E-03  0.0356
   3.1705E-02   3.2477E-02   1.9213E-03  0.0366
   3.2477E-02   3.3267E-02   1.9266E-03  0.0361
   3.3267E-02   3.4076E-02   2.0991E-03  0.0342
   3.4076E-02   3.4905E-02   1.9139E-03  0.0354
   3.4905E-02   3.5755E-02   1.8308E-03  0.0357
   3.5755E-02   3.6625E-02   1.7874E-03  0.0358
   3.6625E-02   3.7516E-02   1.8280E-03  0.0349
   3.7516E-02   3.8428E-02   1.6902E-03  0.0358
   3.8428E-02   3.9363E-02   1.6989E-03  0.0354
   3.9363E-02   4.0321E-02   1.6099E-03  0.0359
   4.0321E-02   4.1302E-02   1.5686E-03  0.0359
   4.1302E-02   4.2307E-02   1.6152E-03  0.0351
   4.2307E-02   4.3337E-02   1.5806E-03  0.0350
   4.3337E-02   4.4391E-02   1.5768E-03  0.0346
   4.4391E-02   4.5471E-02   1.3372E-03  0.0371
   4.5471E-02   4.6577E-02   1.3819E-03  0.0361
   4.6577E-02   4.7711E-02   1.4902E-03  0.0343
   4.7711E-02   4.8871E-02   1.3473E-03  0.0356
   4.8871E-02   5.0061E-02   1.3649E-03  0.0350
   5.0061E-02   5.1279E-02   1.3953E-03  0.0342
   5.1279E-02   5.2526E-02   1.2631E-03  0.0355
   5.2526E-02   5.3804E-02   1.2696E-03  0.0350
   5.3804E-02   5.5113E-02   1.2240E-03  0.0352
   5.5113E-02   5.6454E-02   1.2179E-03  0.0349
   5.6454E-02   5.7828E-02   1.0428E-03  0.0372
   5.7828E-02   5.9235E-02   1.1158E-03  0.0356
   5.9235E-02   6.0676E-02   1.1053E-03  0.0353
   6.0676E-02   6.2152E-02   1.0308E-03  0.0361
   6.2152E-02   6.3665E-02   1.0554E-03  0.0353
   6.3665E-02   6.5214E-02   1.0689E-03  0.0346
   6.5214E-02   6.6800E-02   1.0230E-03  0.0350
   6.6800E-02   6.8426E-02   9.4812E-04  0.0359
   6.8426E-02   7.0090E-02   9.9956E-04  0.0346
   7.0090E-02   7.1796E-02   1.0157E-03  0.0339
   7.1796E-02   7.3543E-02   9.6546E-04  0.0343
   7.3543E-02   7.5332E-02   8.9666E-04  0.0351
   7.5332E-02   7.7165E-02   8.8210E-04  0.0350
   7.7165E-02   7.9042E-02   9.0882E-04  0.0341
   7.9042E-02   8.0965E-02   8.4156E-04  0.0350
   8.0965E-02   8.2935E-02   8.3692E-04  0.0347
   8.2935E-02   8.4953E-02   8.4434E-04  0.0341
   8.4953E-02   8.7020E-02   8.1012E-04  0.0344
   8.7020E-02   8.9138E-02   8.2969E-04  0.0336
   8.9138E-02   9.1306E-02   7.9480E-04  0.0340
   9.1306E-02   9.3528E-02   7.1030E-04  0.0355
   9.3528E-02   9.5804E-02   7.6345E-04  0.0338
   9.5804E-02   9.8134E-02   6.4695E-04  0.0363
   9.8134E-02   1.0052E-01   7.0900E-04  0.0342
   1.0052E-01   1.0297E-01   6.8678E-04  0.0344
   1.0297E-01   1.0547E-01   6.6330E-04  0.0346
   1.0547E-01   1.0804E-01   6.7513E-04  0.0339
   1.0804E-01   1.1067E-01   6.5940E-04  0.0339
   1.1067E-01   1.1336E-01   5.8443E-04  0.0356
   1.1336E-01   1.1612E-01   6.0834E-04  0.0344
   1.1612E-01   1.1894E-01   6.2394E-04  0.0335
   1.1894E-01   1.2184E-01   5.9472E-04  0.0340
   1.2184E-01   1.2480E-01   5.8682E-04  0.0338
   1.2480E-01   1.2784E-01   5.6729E-04  0.0340
   1.2784E-01   1.3095E-01   5.4533E-04  0.0342
   1.3095E-01   1.3414E-01   5.4143E-04  0.0339
   1.3414E-01   1.3740E-01   5.4924E-04  0.0333
   1.3740E-01   1.4074E-01   5.2130E-04  0.0338
   1.4074E-01   1.4417E-01   4.9832E-04  0.0341
   1.4417E-01   1.4767E-01   5.1417E-04  0.0332
   1.4767E-01   1.5127E-01   5.2071E-04  0.0326
   1.5127E-01   1.5495E-01   4.8741E-04  0.0333
   1.5495E-01   1.5872E-01   4.8326E-04  0.0330
   1.5872E-01   1.6258E-01   4.6032E-04  0.0335
   1.6258E-01   1.6654E-01   4.6196E-04  0.0330
   1.6654E-01   1.7059E-01   4.8036E-04  0.0319
   1.7059E-01   1.7474E-01   4.7313E-04  0.0318
   1.7474E-01   1.7899E-01   4.3875E-04  0.0326
   1.7899E-01   1.8334E-01   4.3408E-04  0.0324
   1.8334E-01   1.8781E-01   4.1518E-04  0.0327
   1.8781E-01   1.9237E-01   4.1764E-04  0.0323
   1.9237E-01   1.9706E-01   4.0802E-04  0.0322
   1.9706E-01   2.0185E-01   4.0001E-04  0.0322
   2.0185E-01   2.0676E-01   4.3901E-04  0.0304
   2.0676E-01   2.1179E-01   4.3697E-04  0.0300
   2.1179E-01   2.1694E-01   4.3682E-04  0.0297
   2.1694E-01   2.2222E-01   4.7294E-04  0.0282
   2.2222E-01   2.2763E-01   5.0415E-04  0.0270
   2.2763E-01   2.3317E-01   5.0541E-04  0.0266
   2.3317E-01   2.3884E-01   5.2607E-04  0.0258
   2.3884E-01   2.4465E-01   5.5451E-04  0.0248
   2.4465E-01   2.5061E-01   5.7886E-04  0.0240
   2.5061E-01   2.5670E-01   5.9268E-04  0.0234
   2.5670E-01   2.6295E-01   6.1832E-04  0.0227
   2.6295E-01   2.6935E-01   6.3033E-04  0.0222
   2.6935E-01   2.7590E-01   6.5621E-04  0.0215
   2.7590E-01   2.8261E-01   6.8440E-04  0.0208
   2.8261E-01   2.8949E-01   7.2234E-04  0.0200
   2.8949E-01   2.9653E-01   7.2711E-04  0.0197
   2.9653E-01   3.0375E-01   7.5374E-04  0.0191
   3.0375E-01   3.1114E-01   7.6065E-04  0.0188
   3.1114E-01   3.1871E-01   7.9106E-04  0.0182
   3.1871E-01   3.2646E-01   8.2090E-04  0.0177
   3.2646E-01   3.3441E-01   8.6983E-04  0.0170
   3.3441E-01   3.4254E-01   8.8493E-04  0.0166
   3.4254E-01   3.5088E-01   8.8025E-04  0.0165
   3.5088E-01   3.5941E-01   9.2280E-04  0.0159
   3.5941E-01   3.6816E-01   9.4477E-04  0.0155
   3.6816E-01   3.7712E-01   1.0174E-03  0.0148
   3.7712E-01   3.8629E-01   1.0357E-03  0.0145
   3.8629E-01   3.9569E-01   1.0703E-03  0.0141
   3.9569E-01   4.0532E-01   1.0608E-03  0.0139
   4.0532E-01   4.1518E-01   1.1107E-03  0.0135
   4.1518E-01   4.2528E-01   1.1260E-03  0.0132
   4.2528E-01   4.3563E-01   1.1687E-03  0.0128
   4.3563E-01   4.4623E-01   1.2050E-03  0.0125
   4.4623E-01   4.5708E-01   1.2169E-03  0.0123
   4.5708E-01   4.6821E-01   1.2418E-03  0.0120
   4.6821E-01   4.7960E-01   1.2861E-03  0.0116
   4.7960E-01   4.9127E-01   1.2901E-03  0.0115
   4.9127E-01   5.0322E-01   1.3542E-03  0.0111
   5.0322E-01   5.1546E-01   1.3973E-03  0.0108
   5.1546E-01   5.2800E-01   1.3932E-03  0.0107
   5.2800E-01   5.4085E-01   1.4572E-03  0.0103
   5.4085E-01   5.5401E-01   1.4446E-03  0.0102
   5.5401E-01   5.6749E-01   1.5063E-03  0.0099
   5.6749E-01   5.8130E-01   1.5170E-03  0.0097
   5.8130E-01   5.9544E-01   1.5450E-03  0.0095
   5.9544E-01   6.0993E-01   1.5720E-03  0.0093
   6.0993E-01   6.2477E-01   1.5870E-03  0.0092
   6.2477E-01   6.3997E-01   1.6010E-03  0.0090
   6.3997E-01   6.5554E-01   1.6162E-03  0.0089
   6.5554E-01   6.7149E-01   1.6479E-03  0.0087
   6.7149E-01   6.8783E-01   1.6973E-03  0.0085
   6.8783E-01   7.0456E-01   1.6958E-03  0.0084
   7.0456E-01   7.2171E-01   1.7072E-03  0.0082
   7.2171E-01   7.3927E-01   1.7508E-03  0.0080
   7.3927E-01   7.5725E-01   1.7663E-03  0.0079
   7.5725E-01   7.7568E-01   1.7851E-03  0.0078
   7.7568E-01   7.9455E-01   1.7920E-03  0.0077
   7.9455E-01   8.1388E-01   1.7862E-03  0.0076
   8.1388E-01   8.3368E-01   1.8384E-03  0.0074
   8.3368E-01   8.5397E-01   1.8207E-03  0.0073
   8.5397E-01   8.7475E-01   1.8415E-03  0.0072
   8.7475E-01   8.9603E-01   1.8544E-03  0.0071
   8.9603E-01   9.1783E-01   1.8601E-03  0.0070
   9.1783E-01   9.4016E-01   1.8655E-03  0.0069
   9.4016E-01   9.6304E-01   1.8984E-03  0.0068
   9.6304E-01   9.8647E-01   1.8934E-03  0.0067
   9.8647E-01   1.0105E+00   1.9031E-03  0.0066
   1.0105E+00   1.0351E+00   1.8889E-03  0.0065
   1.0351E+00   1.0602E+00   1.8821E-03  0.0065
   1.0602E+00   1.0860E+00   1.8589E-03  0.0064
   1.0860E+00   1.1125E+00   1.8439E-03  0.0064
   1.1125E+00   1.1395E+00   1.8276E-03  0.0063
   1.1395E+00   1.1673E+00   1.8195E-03  0.0063
   1.1673E+00   1.1957E+00   1.8499E-03  0.0061
   1.1957E+00   1.2247E+00   1.8463E-03  0.0061
   1.2247E+00   1.2545E+00   1.8449E-03  0.0060
   1.2545E+00   1.2851E+00   1.8017E-03  0.0060
   1.2851E+00   1.3163E+00   1.7772E-03  0.0060
   1.3163E+00   1.3484E+00   1.7545E-03  0.0059
   1.3484E+00   1.3812E+00   1.7727E-03  0.0058
   1.3812E+00   1.4148E+00   1.7518E-03  0.0058
   1.4148E+00   1.4492E+00   1.7464E-03  0.0057
   1.4492E+00   1.4845E+00   1.7331E-03  0.0057
   1.4845E+00   1.5206E+00   1.7051E-03  0.0057
   1.5206E+00   1.5576E+00   1.6993E-03  0.0056
   1.5576E+00   1.5955E+00   1.6728E-03  0.0056
   1.5955E+00   1.6343E+00   1.6487E-03  0.0056
   1.6343E+00   1.6741E+00   1.6300E-03  0.0055
   1.6741E+00   1.7148E+00   1.6077E-03  0.0055
   1.7148E+00   1.7565E+00   1.5683E-03  0.0055
   1.7565E+00   1.7992E+00   1.5764E-03  0.0054
   1.7992E+00   1.8430E+00   1.5688E-03  0.0054
   1.8430E+00   1.8879E+00   1.5270E-03  0.0054
   1.8879E+00   1.9338E+00   1.4884E-03  0.0054
   1.9338E+00   1.9808E+00   1.4770E-03  0.0053
   1.9808E+00   2.0290E+00   1.4584E-03  0.0053
   2.0290E+00   2.0784E+00   1.4469E-03  0.0053
   2.0784E+00   2.1290E+00   1.4178E-03  0.0053
   2.1290E+00   2.1808E+00   1.3879E-03  0.0052
   2.1808E+00   2.2338E+00   1.3619E-03  0.0052
   2.2338E+00   2.2882E+00   1.3348E-03  0.0052
   2.2882E+00   2.3439E+00   1.3144E-03  0.0052
   2.3439E+00   2.4009E+00   1.3044E-03  0.0052
   2.4009E+00   2.4593E+00   1.2800E-03  0.0051
   2.4593E+00   2.5191E+00   1.2638E-03  0.0051
   2.5191E+00   2.5804E+00   1.2288E-03  0.0051
   2.5804E+00   2.6432E+00   1.2034E-03  0.0051
   2.6432E+00   2.7075E+00   1.1883E-03  0.0051
   2.7075E+00   2.7734E+00   1.1580E-03  0.0051
   2.7734E+00   2.8409E+00   1.1417E-03  0.0051
   2.8409E+00   2.9100E+00   1.1241E-03  0.0050
   2.9100E+00   2.9808E+00   1.0996E-03  0.0050
   2.9808E+00   3.0533E+00   1.0908E-03  0.0050
   3.0533E+00   3.1276E+00   1.0616E-03  0.0050
   3.1276E+00   3.2037E+00   1.0449E-03  0.0050
   3.2037E+00   3.2817E+00   1.0302E-03  0.0050
   3.2817E+00   3.3615E+00   1.0075E-03  0.0050
   3.3615E+00   3.4433E+00   9.8589E-04  0.0049
   3.4433E+00   3.5271E+00   9.7836E-04  0.0049
   3.5271E+00   3.6129E+00   9.6093E-04  0.0049
   3.6129E+00   3.7008E+00   9.4247E-04  0.0049
   3.7008E+00   3.7908E+00   9.3202E-04  0.0049
   3.7908E+00   3.8831E+00   9.0818E-04  0.0049
   3.8831E+00   3.9776E+00   9.0543E-04  0.0048
   3.9776E+00   4.0743E+00   8.8185E-04  0.0048
   4.0743E+00   4.1735E+00   8.6947E-04  0.0048
   4.1735E+00   4.2750E+00   8.5567E-04  0.0048
   4.2750E+00   4.3790E+00   8.5030E-04  0.0047
   4.3790E+00   4.4856E+00   8.4285E-04  0.0047
   4.4856E+00   4.5947E+00   8.4086E-04  0.0046
   4.5947E+00   4.7065E+00   8.4504E-04  0.0046
   4.7065E+00   4.8210E+00   8.4474E-04  0.0045
   4.8210E+00   4.9383E+00   8.3734E-04  0.0045
   4.9383E+00   5.0585E+00   8.3323E-04  0.0044
   5.0585E+00   5.1815E+00   8.3022E-04  0.0044
   5.1815E+00   5.3076E+00   8.3195E-04  0.0043
   5.3076E+00   5.4368E+00   8.1495E-04  0.0043
   5.4368E+00   5.5690E+00   7.9807E-04  0.0043
   5.5690E+00   5.7045E+00   7.8630E-04  0.0043
   5.7045E+00   5.8433E+00   7.7860E-04  0.0043
   5.8433E+00   5.9855E+00   7.7348E-04  0.0042
   5.9855E+00   6.1311E+00   7.6254E-04  0.0042
   6.1311E+00   6.2803E+00   7.5857E-04  0.0042
   6.2803E+00   6.4331E+00   7.4632E-04  0.0042
   6.4331E+00   6.5896E+00   7.3700E-04  0.0041
   6.5896E+00   6.7500E+00   7.2753E-04  0.0041
   6.7500E+00   6.9142E+00   7.2364E-04  0.0041
   6.9142E+00   7.0824E+00   7.1707E-04  0.0041
   7.0824E+00   7.2548E+00   7.1888E-04  0.0040
   7.2548E+00   7.4313E+00   7.2317E-04  0.0039
   7.4313E+00   7.6121E+00   7.1365E-04  0.0039
   7.6121E+00   7.7973E+00   7.0570E-04  0.0039
   7.7973E+00   7.9870E+00   6.9558E-04  0.0039
   7.9870E+00   8.1813E+00   6.9442E-04  0.0038
   8.1813E+00   8.3804E+00   6.8102E-04  0.0038
   8.3804E+00   8.5843E+00   6.7181E-04  0.0038
   8.5843E+00   8.7931E+00   6.6342E-04  0.0038
   8.7931E+00   9.0071E+00   6.6192E-04  0.0038
   9.0071E+00   9.2262E+00   6.5008E-04  0.0037
   9.2262E+00   9.4507E+00   6.3644E-04  0.0037
   9.4507E+00   9.6807E+00   6.3650E-04  0.0037
   9.6807E+00   9.9162E+00   6.2376E-04  0.0037
   9.9162E+00   1.0157E+01   6.2043E-04  0.0037
   1.0157E+01   1.0405E+01   6.1306E-04  0.0036
   1.0405E+01   1.0658E+01   6.1227E-04  0.0036
   1.0658E+01   1.0917E+01   6.0474E-04  0.0036
   1.0917E+01   1.1183E+01   6.0351E-04  0.0035
   1.1183E+01   1.1455E+01   5.9309E-04  0.0035
   1.1455E+01   1.1733E+01   5.8797E-04  0.0035
   1.1733E+01   1.2019E+01   5.8056E-04  0.0035
   1.2019E+01   1.2311E+01   5.7077E-04  0.0035
   1.2311E+01   1.2611E+01   5.6456E-04  0.0034
   1.2611E+01   1.2918E+01   5.5220E-04  0.0034
   1.2918E+01   1.3232E+01   5.4488E-04  0.0034
   1.3232E+01   1.3554E+01   5.3545E-04  0.0034
   1.3554E+01   1.3884E+01   5.2930E-04  0.0034
   1.3884E+01   1.4222E+01   5.1953E-04  0.0034
   1.4222E+01   1.4568E+01   5.1355E-04  0.0034
   1.4568E+01   1.4922E+01   5.0459E-04  0.0033
   1.4922E+01   1.5285E+01   4.9263E-04  0.0033
   1.5285E+01   1.5657E+01   4.8245E-04  0.0033
   1.5657E+01   1.6038E+01   4.7520E-04  0.0033
   1.6038E+01   1.6428E+01   4.6603E-04  0.0033
   1.6428E+01   1.6828E+01   4.5830E-04  0.0033
   1.6828E+01   1.7237E+01   4.4803E-04  0.0033
   1.7237E+01   1.7657E+01   4.3975E-04  0.0033
   1.7657E+01   1.8086E+01   4.3158E-04  0.0033
   1.8086E+01   1.8526E+01   4.2345E-04  0.0033
   1.8526E+01   1.8977E+01   4.1781E-04  0.0033
   1.8977E+01   1.9439E+01   4.1215E-04  0.0032
   1.9439E+01   1.9912E+01   4.0880E-04  0.0032
   1.9912E+01   2.0396E+01   4.0547E-04  0.0032
   2.0396E+01   2.0893E+01   3.9666E-04  0.0032
   2.0893E+01   2.1401E+01   3.9100E-04  0.0032
   2.1401E+01   2.1922E+01   3.7767E-04  0.0032
   2.1922E+01   2.2455E+01   3.7050E-04  0.0032
   2.2455E+01   2.3001E+01   3.5954E-04  0.0032
   2.3001E+01   2.3561E+01   3.5050E-04  0.0032
   2.3561E+01   2.4134E+01   3.4193E-04  0.0032
   2.4134E+01   2.4721E+01   3.2810E-04  0.0032
   2.4721E+01   2.5323E+01   3.1986E-04  0.0032
   2.5323E+01   2.5939E+01   3.0773E-04  0.0032
   2.5939E+01   2.6570E+01   3.0063E-04  0.0032
   2.6570E+01   2.7217E+01   2.9065E-04  0.0033
   2.7217E+01   2.7879E+01   2.8062E-04  0.0033
   2.7879E+01   2.8557E+01   2.6839E-04  0.0033
   2.8557E+01   2.9252E+01   2.5986E-04  0.0033
   2.9252E+01   2.9964E+01   2.4994E-04  0.0034
   2.9964E+01   3.0693E+01   2.4049E-04  0.0034
   3.0693E+01   3.1440E+01   2.2940E-04  0.0034
   3.1440E+01   3.2205E+01   2.2176E-04  0.0034
   3.2205E+01   3.2988E+01   2.1029E-04  0.0035
   3.2988E+01   3.3791E+01   2.0003E-04  0.0035
   3.3791E+01   3.4613E+01   1.9160E-04  0.0036
   3.4613E+01   3.5455E+01   1.8201E-04  0.0036
   3.5455E+01   3.6318E+01   1.7344E-04  0.0037
   3.6318E+01   3.7201E+01   1.6488E-04  0.0037
   3.7201E+01   3.8106E+01   1.5480E-04  0.0038
   3.8106E+01   3.9034E+01   1.4624E-04  0.0038
   3.9034E+01   3.9983E+01   1.3823E-04  0.0039
   3.9983E+01   4.0956E+01   1.3060E-04  0.0040
   4.0956E+01   4.1953E+01   1.2240E-04  0.0041
   4.1953E+01   4.2973E+01   1.1540E-04  0.0041
   4.2973E+01   4.4019E+01   1.0734E-04  0.0042
   4.4019E+01   4.5090E+01   9.9872E-05  0.0043
   4.5090E+01   4.6187E+01   9.3343E-05  0.0044
   4.6187E+01   4.7311E+01   8.7111E-05  0.0045
   4.7311E+01   4.8462E+01   8.1534E-05  0.0046
   4.8462E+01   4.9641E+01   7.4770E-05  0.0048
   4.9641E+01   5.0849E+01   6.9066E-05  0.0049
   5.0849E+01   5.2086E+01   6.3463E-05  0.0050
   5.2086E+01   5.3353E+01   5.8015E-05  0.0052
   5.3353E+01   5.4651E+01   5.3272E-05  0.0054
   5.4651E+01   5.5981E+01   4.8323E-05  0.0056
   5.5981E+01   5.7343E+01   4.3656E-05  0.0058
   5.7343E+01   5.8738E+01   3.9749E-05  0.0060
   5.8738E+01   6.0168E+01   3.6016E-05  0.0062
   6.0168E+01   6.1632E+01   3.2097E-05  0.0065
   6.1632E+01   6.3131E+01   2.9062E-05  0.0068
   6.3131E+01   6.4667E+01   2.5838E-05  0.0071
   6.4667E+01   6.6240E+01   2.3035E-05  0.0074
   6.6240E+01   6.7852E+01   2.0484E-05  0.0078
   6.7852E+01   6.9503E+01   1.8499E-05  0.0081
   6.9503E+01   7.1194E+01   1.6249E-05  0.0085
   7.1194E+01   7.2926E+01   1.4038E-05  0.0091
   7.2926E+01   7.4701E+01   1.2361E-05  0.0095
   7.4701E+01   7.6518E+01   1.0847E-05  0.0101
   7.6518E+01   7.8380E+01   9.5276E-06  0.0106
   7.8380E+01   8.0287E+01   8.0376E-06  0.0114
   8.0287E+01   8.2240E+01   6.9406E-06  0.0121
   8.2240E+01   8.4241E+01   6.0880E-06  0.0128
   8.4241E+01   8.6291E+01   5.2155E-06  0.0137
   8.6291E+01   8.8391E+01   4.3333E-06  0.0148
   8.8391E+01   9.0541E+01   3.6789E-06  0.0159
   9.0541E+01   9.2744E+01   3.0160E-06  0.0173
   9.2744E+01   9.5001E+01   2.3771E-06  0.0193
   9.5001E+01   9.7312E+01   2.0507E-06  0.0205
   9.7312E+01   9.9680E+01   1.6624E-06  0.0225
   9.9680E+01   1.0211E+02   1.3293E-06  0.0249
   1.0211E+02   1.0459E+02   1.0248E-06  0.0280
   1.0459E+02   1.0713E+02   7.5921E-07  0.0322
   1.0713E+02   1.0974E+02   5.3709E-07  0.0378
   1.0974E+02   1.1241E+02   4.0074E-07  0.0432
   1.1241E+02   1.1515E+02   2.6617E-07  0.0524
   1.1515E+02   1.1795E+02   1.7062E-07  0.0647
   1.1795E+02   1.2082E+02   1.1081E-07  0.0793
   1.2082E+02   1.2376E+02   6.5996E-08  0.1015
   1.2376E+02   1.2677E+02   4.9816E-08  0.1155
   1.2677E+02   1.2985E+02   2.5937E-08  0.1581
   1.2985E+02   1.3301E+02   1.5193E-08  0.2041
   1.3301E+02   1.3625E+02   6.1799E-09  0.3162
   1.3625E+02   1.3956E+02   1.8099E-09  0.5774
   1.3956E+02   1.4296E+02   1.1780E-09  0.7071
   1.4296E+02   1.4644E+02   1.7250E-09  0.5774
   1.4644E+02   1.5000E+02   5.6134E-10  1.0000

#   sum over                 1.4477E-04
'no. =    1   reg = 110 - 210'
msuc: {\huge [t-cross] in region mesh}
msdr: {\it plotted by \ANGEL \version}
msdl: {\it calculated by \PHITS  3.26}
wt: s(0.7)
\vspace{-3}
  region surface crossing
  area  &=&   1.0000E+00 [cm^2]
e:
 
# Information for Restart Calculation
# This calculation was newly started
# istdev =  2 # 1:Batch variance, 2:History variance
# resc2  = 5.00000000000000000E+08 # Total source weight or Total source weight / maxcas
# resc3  = 5.00000000000000000E+08 # Total history number or Total batch number
# maxcas =   500000000 # History / Batch, only used for istdev=1
# bitrseed = 1101101111010011011000101101110001100110110010110001010100010001 # bit data of rseed
