[ T-Cross ]
    title = [t-cross] in region mesh
     mesh =  reg            # mesh type is region-wise
      reg =    1            # number of crossing regions
      non     r-from    r-to       area
      1       113       213        1.000000    
   e-type =    3            # e-mesh is log given by emin, emax and ne
     emin =  1.0000000E-02  # minimum value of e-mesh points
     emax =   150.0000      # maximum value of e-mesh points
#    edel =  2.4039514E-02  # mesh width of e-mesh points
       ne =    400          # number of e-mesh points
#    data = ( e(i), i = 1, ne + 1 )
#           1.00000E-02  1.02433E-02  1.04925E-02  1.07478E-02  1.10093E-02
#           1.12772E-02  1.15516E-02  1.18326E-02  1.21205E-02  1.24154E-02
#           1.27175E-02  1.30269E-02  1.33439E-02  1.36686E-02  1.40011E-02
#           1.43418E-02  1.46907E-02  1.50482E-02  1.54143E-02  1.57894E-02
#           1.61735E-02  1.65670E-02  1.69701E-02  1.73830E-02  1.78060E-02
#           1.82392E-02  1.86830E-02  1.91375E-02  1.96032E-02  2.00801E-02
#           2.05687E-02  2.10692E-02  2.15818E-02  2.21069E-02  2.26448E-02
#           2.31957E-02  2.37601E-02  2.43382E-02  2.49304E-02  2.55369E-02
#           2.61583E-02  2.67947E-02  2.74467E-02  2.81145E-02  2.87985E-02
#           2.94992E-02  3.02169E-02  3.09521E-02  3.17052E-02  3.24766E-02
#           3.32668E-02  3.40762E-02  3.49053E-02  3.57546E-02  3.66246E-02
#           3.75157E-02  3.84284E-02  3.93634E-02  4.03212E-02  4.13022E-02
#           4.23071E-02  4.33365E-02  4.43909E-02  4.54710E-02  4.65773E-02
#           4.77106E-02  4.88714E-02  5.00605E-02  5.12785E-02  5.25262E-02
#           5.38042E-02  5.51133E-02  5.64542E-02  5.78278E-02  5.92348E-02
#           6.06760E-02  6.21523E-02  6.36645E-02  6.52135E-02  6.68002E-02
#           6.84255E-02  7.00904E-02  7.17957E-02  7.35426E-02  7.53319E-02
#           7.71648E-02  7.90423E-02  8.09655E-02  8.29354E-02  8.49533E-02
#           8.70203E-02  8.91376E-02  9.13064E-02  9.35279E-02  9.58035E-02
#           9.81345E-02  1.00522E-01  1.02968E-01  1.05473E-01  1.08040E-01
#           1.10668E-01  1.13361E-01  1.16119E-01  1.18944E-01  1.21838E-01
#           1.24803E-01  1.27839E-01  1.30950E-01  1.34136E-01  1.37399E-01
#           1.40742E-01  1.44167E-01  1.47675E-01  1.51268E-01  1.54948E-01
#           1.58718E-01  1.62580E-01  1.66535E-01  1.70587E-01  1.74738E-01
#           1.78989E-01  1.83344E-01  1.87805E-01  1.92375E-01  1.97055E-01
#           2.01850E-01  2.06761E-01  2.11792E-01  2.16945E-01  2.22223E-01
#           2.27630E-01  2.33169E-01  2.38842E-01  2.44653E-01  2.50605E-01
#           2.56703E-01  2.62949E-01  2.69346E-01  2.75900E-01  2.82613E-01
#           2.89489E-01  2.96532E-01  3.03747E-01  3.11138E-01  3.18708E-01
#           3.26462E-01  3.34405E-01  3.42542E-01  3.50876E-01  3.59413E-01
#           3.68158E-01  3.77116E-01  3.86291E-01  3.95690E-01  4.05317E-01
#           4.15179E-01  4.25281E-01  4.35628E-01  4.46227E-01  4.57084E-01
#           4.68205E-01  4.79597E-01  4.91266E-01  5.03219E-01  5.15463E-01
#           5.28005E-01  5.40851E-01  5.54011E-01  5.67490E-01  5.81298E-01
#           5.95441E-01  6.09929E-01  6.24769E-01  6.39970E-01  6.55541E-01
#           6.71491E-01  6.87828E-01  7.04564E-01  7.21706E-01  7.39266E-01
#           7.57253E-01  7.75678E-01  7.94551E-01  8.13883E-01  8.33685E-01
#           8.53969E-01  8.74747E-01  8.96030E-01  9.17831E-01  9.40163E-01
#           9.63038E-01  9.86469E-01  1.01047E+00  1.03506E+00  1.06024E+00
#           1.08604E+00  1.11246E+00  1.13953E+00  1.16725E+00  1.19565E+00
#           1.22474E+00  1.25454E+00  1.28507E+00  1.31633E+00  1.34836E+00
#           1.38117E+00  1.41477E+00  1.44920E+00  1.48446E+00  1.52057E+00
#           1.55757E+00  1.59547E+00  1.63429E+00  1.67405E+00  1.71478E+00
#           1.75650E+00  1.79924E+00  1.84302E+00  1.88786E+00  1.93379E+00
#           1.98084E+00  2.02904E+00  2.07841E+00  2.12898E+00  2.18078E+00
#           2.23384E+00  2.28819E+00  2.34386E+00  2.40089E+00  2.45930E+00
#           2.51914E+00  2.58043E+00  2.64322E+00  2.70753E+00  2.77341E+00
#           2.84088E+00  2.91001E+00  2.98081E+00  3.05333E+00  3.12762E+00
#           3.20372E+00  3.28167E+00  3.36152E+00  3.44330E+00  3.52708E+00
#           3.61290E+00  3.70080E+00  3.79085E+00  3.88308E+00  3.97756E+00
#           4.07434E+00  4.17347E+00  4.27501E+00  4.37903E+00  4.48557E+00
#           4.59471E+00  4.70650E+00  4.82102E+00  4.93832E+00  5.05847E+00
#           5.18155E+00  5.30762E+00  5.43676E+00  5.56904E+00  5.70453E+00
#           5.84333E+00  5.98550E+00  6.13114E+00  6.28031E+00  6.43312E+00
#           6.58964E+00  6.74997E+00  6.91420E+00  7.08243E+00  7.25475E+00
#           7.43126E+00  7.61207E+00  7.79728E+00  7.98700E+00  8.18133E+00
#           8.38038E+00  8.58428E+00  8.79315E+00  9.00709E+00  9.22624E+00
#           9.45072E+00  9.68067E+00  9.91620E+00  1.01575E+01  1.04046E+01
#           1.06578E+01  1.09171E+01  1.11827E+01  1.14548E+01  1.17335E+01
#           1.20190E+01  1.23114E+01  1.26109E+01  1.29178E+01  1.32321E+01
#           1.35540E+01  1.38838E+01  1.42216E+01  1.45676E+01  1.49221E+01
#           1.52851E+01  1.56570E+01  1.60380E+01  1.64282E+01  1.68279E+01
#           1.72374E+01  1.76568E+01  1.80864E+01  1.85264E+01  1.89772E+01
#           1.94389E+01  1.99119E+01  2.03963E+01  2.08926E+01  2.14009E+01
#           2.19216E+01  2.24550E+01  2.30014E+01  2.35610E+01  2.41343E+01
#           2.47215E+01  2.53230E+01  2.59391E+01  2.65702E+01  2.72167E+01
#           2.78789E+01  2.85572E+01  2.92520E+01  2.99637E+01  3.06928E+01
#           3.14396E+01  3.22045E+01  3.29881E+01  3.37907E+01  3.46128E+01
#           3.54550E+01  3.63177E+01  3.72013E+01  3.81064E+01  3.90336E+01
#           3.99833E+01  4.09561E+01  4.19526E+01  4.29734E+01  4.40189E+01
#           4.50900E+01  4.61870E+01  4.73108E+01  4.84619E+01  4.96410E+01
#           5.08488E+01  5.20860E+01  5.33533E+01  5.46514E+01  5.59812E+01
#           5.73432E+01  5.87384E+01  6.01676E+01  6.16315E+01  6.31311E+01
#           6.46671E+01  6.62405E+01  6.78522E+01  6.95031E+01  7.11941E+01
#           7.29263E+01  7.47007E+01  7.65182E+01  7.83800E+01  8.02870E+01
#           8.22405E+01  8.42414E+01  8.62911E+01  8.83906E+01  9.05412E+01
#           9.27442E+01  9.50007E+01  9.73122E+01  9.96799E+01  1.02105E+02
#           1.04589E+02  1.07134E+02  1.09741E+02  1.12411E+02  1.15146E+02
#           1.17948E+02  1.20817E+02  1.23757E+02  1.26768E+02  1.29852E+02
#           1.33012E+02  1.36248E+02  1.39563E+02  1.42959E+02  1.46437E+02
#           1.50000E+02
     unit =    2            # unit is [1/cm^2/(MeV/n)/source]
     axis =  eng            # axis of output
     file = detector-14.out  # file name of output for the above axis
   output = f-curr          # surface crossing forward current spectrum
     part =  neutron  
# kf/name :  2112     
#    used :        main (  %)        temp (  %)       total (  %)
#  memory :         414 (  0)           0 (  0)         414 (  0)

#------------------------------------------------------------------------------
#newpage:
#   no. =    1   reg = 113 - 213

x: Energy [MeV/n]
y:  F-Curr [1/cm^2/(MeV/n)/source]         
p: xlog ylog afac(0.8) form(0.9)
h: n            x            y(neutron ),hh0l   n 
#  e-lower      e-upper      neutron     r.err 
   1.0000E-02   1.0243E-02   8.1052E-03  0.0318
   1.0243E-02   1.0493E-02   7.4477E-03  0.0327
   1.0493E-02   1.0748E-02   7.6286E-03  0.0319
   1.0748E-02   1.1009E-02   7.3806E-03  0.0321
   1.1009E-02   1.1277E-02   7.0086E-03  0.0325
   1.1277E-02   1.1552E-02   6.5883E-03  0.0332
   1.1552E-02   1.1833E-02   6.9125E-03  0.0320
   1.1833E-02   1.2121E-02   6.3535E-03  0.0329
   1.2121E-02   1.2415E-02   6.2836E-03  0.0328
   1.2415E-02   1.2718E-02   6.3203E-03  0.0323
   1.2718E-02   1.3027E-02   6.2849E-03  0.0320
   1.3027E-02   1.3344E-02   5.9912E-03  0.0324
   1.3344E-02   1.3669E-02   6.0536E-03  0.0318
   1.3669E-02   1.4001E-02   5.5638E-03  0.0328
   1.4001E-02   1.4342E-02   5.7212E-03  0.0320
   1.4342E-02   1.4691E-02   5.0912E-03  0.0334
   1.4691E-02   1.5048E-02   5.4601E-03  0.0319
   1.5048E-02   1.5414E-02   5.2304E-03  0.0322
   1.5414E-02   1.5789E-02   5.2525E-03  0.0318
   1.5789E-02   1.6174E-02   4.8412E-03  0.0327
   1.6174E-02   1.6567E-02   4.7826E-03  0.0325
   1.6567E-02   1.6970E-02   4.6914E-03  0.0324
   1.6970E-02   1.7383E-02   4.6485E-03  0.0321
   1.7383E-02   1.7806E-02   4.5559E-03  0.0321
   1.7806E-02   1.8239E-02   4.4882E-03  0.0320
   1.8239E-02   1.8683E-02   4.2599E-03  0.0325
   1.8683E-02   1.9138E-02   4.1333E-03  0.0325
   1.9138E-02   1.9603E-02   3.7970E-03  0.0335
   1.9603E-02   2.0080E-02   3.8403E-03  0.0329
   2.0080E-02   2.0569E-02   3.6098E-03  0.0336
   2.0569E-02   2.1069E-02   3.5376E-03  0.0335
   2.1069E-02   2.1582E-02   3.4268E-03  0.0336
   2.1582E-02   2.2107E-02   3.4463E-03  0.0331
   2.2107E-02   2.2645E-02   3.5116E-03  0.0324
   2.2645E-02   2.3196E-02   3.2239E-03  0.0335
   2.3196E-02   2.3760E-02   3.2156E-03  0.0331
   2.3760E-02   2.4338E-02   3.1100E-03  0.0332
   2.4338E-02   2.4930E-02   3.1032E-03  0.0329
   2.4930E-02   2.5537E-02   2.8589E-03  0.0338
   2.5537E-02   2.6158E-02   2.8842E-03  0.0333
   2.6158E-02   2.6795E-02   2.7969E-03  0.0334
   2.6795E-02   2.7447E-02   2.6682E-03  0.0338
   2.7447E-02   2.8114E-02   2.7112E-03  0.0331
   2.8114E-02   2.8799E-02   2.4478E-03  0.0344
   2.8799E-02   2.9499E-02   2.5482E-03  0.0333
   2.9499E-02   3.0217E-02   2.4977E-03  0.0333
   3.0217E-02   3.0952E-02   2.2839E-03  0.0344
   3.0952E-02   3.1705E-02   2.2182E-03  0.0345
   3.1705E-02   3.2477E-02   2.1846E-03  0.0343
   3.2477E-02   3.3267E-02   2.1833E-03  0.0339
   3.3267E-02   3.4076E-02   2.3201E-03  0.0325
   3.4076E-02   3.4905E-02   2.1277E-03  0.0335
   3.4905E-02   3.5755E-02   2.0391E-03  0.0339
   3.5755E-02   3.6625E-02   2.0688E-03  0.0333
   3.6625E-02   3.7516E-02   2.0288E-03  0.0331
   3.7516E-02   3.8428E-02   1.8344E-03  0.0344
   3.8428E-02   3.9363E-02   1.7639E-03  0.0347
   3.9363E-02   4.0321E-02   1.8343E-03  0.0336
   4.0321E-02   4.1302E-02   1.7755E-03  0.0337
   4.1302E-02   4.2307E-02   1.7487E-03  0.0336
   4.2307E-02   4.3337E-02   1.6226E-03  0.0345
   4.3337E-02   4.4391E-02   1.5906E-03  0.0344
   4.4391E-02   4.5471E-02   1.5237E-03  0.0347
   4.5471E-02   4.6577E-02   1.4405E-03  0.0353
   4.6577E-02   4.7711E-02   1.5408E-03  0.0337
   4.7711E-02   4.8871E-02   1.4315E-03  0.0345
   4.8871E-02   5.0061E-02   1.4190E-03  0.0343
   5.0061E-02   5.1279E-02   1.3904E-03  0.0342
   5.1279E-02   5.2526E-02   1.3102E-03  0.0348
   5.2526E-02   5.3804E-02   1.4147E-03  0.0331
   5.3804E-02   5.5113E-02   1.2538E-03  0.0347
   5.5113E-02   5.6454E-02   1.1922E-03  0.0352
   5.6454E-02   5.7828E-02   1.1303E-03  0.0357
   5.7828E-02   5.9235E-02   1.1176E-03  0.0355
   5.9235E-02   6.0676E-02   1.0932E-03  0.0355
   6.0676E-02   6.2152E-02   1.1312E-03  0.0345
   6.2152E-02   6.3665E-02   1.0857E-03  0.0348
   6.3665E-02   6.5214E-02   9.6963E-04  0.0363
   6.5214E-02   6.6800E-02   1.0611E-03  0.0343
   6.6800E-02   6.8426E-02   1.0558E-03  0.0340
   6.8426E-02   7.0090E-02   1.0826E-03  0.0332
   7.0090E-02   7.1796E-02   9.6282E-04  0.0348
   7.1796E-02   7.3543E-02   1.0107E-03  0.0335
   7.3543E-02   7.5332E-02   9.6194E-04  0.0340
   7.5332E-02   7.7165E-02   9.0913E-04  0.0345
   7.7165E-02   7.9042E-02   8.7722E-04  0.0347
   7.9042E-02   8.0965E-02   8.8245E-04  0.0342
   8.0965E-02   8.2935E-02   8.6442E-04  0.0341
   8.2935E-02   8.4953E-02   7.9560E-04  0.0351
   8.4953E-02   8.7020E-02   7.5797E-04  0.0356
   8.7020E-02   8.9138E-02   7.7722E-04  0.0347
   8.9138E-02   9.1306E-02   7.6620E-04  0.0346
   9.1306E-02   9.3528E-02   7.5527E-04  0.0344
   9.3528E-02   9.5804E-02   7.4259E-04  0.0342
   9.5804E-02   9.8134E-02   7.3997E-04  0.0339
   9.8134E-02   1.0052E-01   6.6462E-04  0.0354
   1.0052E-01   1.0297E-01   7.1233E-04  0.0338
   1.0297E-01   1.0547E-01   6.7244E-04  0.0343
   1.0547E-01   1.0804E-01   6.6455E-04  0.0341
   1.0804E-01   1.1067E-01   6.4789E-04  0.0341
   1.1067E-01   1.1336E-01   6.3914E-04  0.0340
   1.1336E-01   1.1612E-01   6.3365E-04  0.0337
   1.1612E-01   1.1894E-01   5.8873E-04  0.0346
   1.1894E-01   1.2184E-01   5.8909E-04  0.0341
   1.2184E-01   1.2480E-01   5.6800E-04  0.0343
   1.2480E-01   1.2784E-01   5.5606E-04  0.0343
   1.2784E-01   1.3095E-01   5.9489E-04  0.0327
   1.3095E-01   1.3414E-01   5.1926E-04  0.0346
   1.3414E-01   1.3740E-01   5.2805E-04  0.0339
   1.3740E-01   1.4074E-01   5.3697E-04  0.0332
   1.4074E-01   1.4417E-01   5.2186E-04  0.0333
   1.4417E-01   1.4767E-01   4.9215E-04  0.0339
   1.4767E-01   1.5127E-01   4.9866E-04  0.0333
   1.5127E-01   1.5495E-01   4.5926E-04  0.0342
   1.5495E-01   1.5872E-01   5.0729E-04  0.0322
   1.5872E-01   1.6258E-01   4.4791E-04  0.0338
   1.6258E-01   1.6654E-01   4.4219E-04  0.0336
   1.6654E-01   1.7059E-01   4.5973E-04  0.0326
   1.7059E-01   1.7474E-01   4.6616E-04  0.0321
   1.7474E-01   1.7899E-01   4.2785E-04  0.0330
   1.7899E-01   1.8334E-01   4.3078E-04  0.0325
   1.8334E-01   1.8781E-01   4.2047E-04  0.0325
   1.8781E-01   1.9237E-01   4.5401E-04  0.0309
   1.9237E-01   1.9706E-01   4.3359E-04  0.0313
   1.9706E-01   2.0185E-01   4.2066E-04  0.0314
   2.0185E-01   2.0676E-01   4.3371E-04  0.0305
   2.0676E-01   2.1179E-01   4.6248E-04  0.0292
   2.1179E-01   2.1694E-01   4.6504E-04  0.0288
   2.1694E-01   2.2222E-01   4.5996E-04  0.0286
   2.2222E-01   2.2763E-01   4.9861E-04  0.0271
   2.2763E-01   2.3317E-01   5.2464E-04  0.0262
   2.3317E-01   2.3884E-01   5.6702E-04  0.0248
   2.3884E-01   2.4465E-01   5.9727E-04  0.0239
   2.4465E-01   2.5061E-01   6.0009E-04  0.0236
   2.5061E-01   2.5670E-01   6.2683E-04  0.0228
   2.5670E-01   2.6295E-01   6.2994E-04  0.0225
   2.6295E-01   2.6935E-01   6.5512E-04  0.0218
   2.6935E-01   2.7590E-01   7.1490E-04  0.0206
   2.7590E-01   2.8261E-01   7.3559E-04  0.0200
   2.8261E-01   2.8949E-01   7.3288E-04  0.0199
   2.8949E-01   2.9653E-01   7.8709E-04  0.0189
   2.9653E-01   3.0375E-01   7.9491E-04  0.0186
   3.0375E-01   3.1114E-01   8.3147E-04  0.0180
   3.1114E-01   3.1871E-01   8.6278E-04  0.0174
   3.1871E-01   3.2646E-01   8.9107E-04  0.0169
   3.2646E-01   3.3441E-01   9.5168E-04  0.0162
   3.3441E-01   3.4254E-01   9.6302E-04  0.0159
   3.4254E-01   3.5088E-01   9.6971E-04  0.0157
   3.5088E-01   3.5941E-01   1.0646E-03  0.0148
   3.5941E-01   3.6816E-01   1.0847E-03  0.0145
   3.6816E-01   3.7712E-01   1.0976E-03  0.0142
   3.7712E-01   3.8629E-01   1.1341E-03  0.0138
   3.8629E-01   3.9569E-01   1.1724E-03  0.0134
   3.9569E-01   4.0532E-01   1.2254E-03  0.0130
   4.0532E-01   4.1518E-01   1.2683E-03  0.0126
   4.1518E-01   4.2528E-01   1.2741E-03  0.0124
   4.2528E-01   4.3563E-01   1.2895E-03  0.0122
   4.3563E-01   4.4623E-01   1.3482E-03  0.0118
   4.4623E-01   4.5708E-01   1.3744E-03  0.0115
   4.5708E-01   4.6821E-01   1.4209E-03  0.0112
   4.6821E-01   4.7960E-01   1.4441E-03  0.0110
   4.7960E-01   4.9127E-01   1.4863E-03  0.0107
   4.9127E-01   5.0322E-01   1.5367E-03  0.0104
   5.0322E-01   5.1546E-01   1.5332E-03  0.0103
   5.1546E-01   5.2800E-01   1.5828E-03  0.0100
   5.2800E-01   5.4085E-01   1.5846E-03  0.0099
   5.4085E-01   5.5401E-01   1.6240E-03  0.0096
   5.5401E-01   5.6749E-01   1.6710E-03  0.0094
   5.6749E-01   5.8130E-01   1.6945E-03  0.0092
   5.8130E-01   5.9544E-01   1.6873E-03  0.0091
   5.9544E-01   6.0993E-01   1.7126E-03  0.0089
   6.0993E-01   6.2477E-01   1.7183E-03  0.0088
   6.2477E-01   6.3997E-01   1.7227E-03  0.0087
   6.3997E-01   6.5554E-01   1.7596E-03  0.0085
   6.5554E-01   6.7149E-01   1.7788E-03  0.0084
   6.7149E-01   6.8783E-01   1.7659E-03  0.0083
   6.8783E-01   7.0456E-01   1.7823E-03  0.0082
   7.0456E-01   7.2171E-01   1.7717E-03  0.0081
   7.2171E-01   7.3927E-01   1.7843E-03  0.0080
   7.3927E-01   7.5725E-01   1.7769E-03  0.0079
   7.5725E-01   7.7568E-01   1.7837E-03  0.0078
   7.7568E-01   7.9455E-01   1.7979E-03  0.0076
   7.9455E-01   8.1388E-01   1.7979E-03  0.0076
   8.1388E-01   8.3368E-01   1.7887E-03  0.0075
   8.3368E-01   8.5397E-01   1.8014E-03  0.0074
   8.5397E-01   8.7475E-01   1.7618E-03  0.0074
   8.7475E-01   8.9603E-01   1.7802E-03  0.0072
   8.9603E-01   9.1783E-01   1.7735E-03  0.0072
   9.1783E-01   9.4016E-01   1.7530E-03  0.0071
   9.4016E-01   9.6304E-01   1.7405E-03  0.0071
   9.6304E-01   9.8647E-01   1.7230E-03  0.0070
   9.8647E-01   1.0105E+00   1.7557E-03  0.0069
   1.0105E+00   1.0351E+00   1.7330E-03  0.0068
   1.0351E+00   1.0602E+00   1.6914E-03  0.0068
   1.0602E+00   1.0860E+00   1.6545E-03  0.0068
   1.0860E+00   1.1125E+00   1.6208E-03  0.0068
   1.1125E+00   1.1395E+00   1.5934E-03  0.0068
   1.1395E+00   1.1673E+00   1.6011E-03  0.0067
   1.1673E+00   1.1957E+00   1.5951E-03  0.0066
   1.1957E+00   1.2247E+00   1.5924E-03  0.0065
   1.2247E+00   1.2545E+00   1.5467E-03  0.0066
   1.2545E+00   1.2851E+00   1.5324E-03  0.0065
   1.2851E+00   1.3163E+00   1.4993E-03  0.0065
   1.3163E+00   1.3484E+00   1.4693E-03  0.0065
   1.3484E+00   1.3812E+00   1.4629E-03  0.0064
   1.3812E+00   1.4148E+00   1.4378E-03  0.0064
   1.4148E+00   1.4492E+00   1.4035E-03  0.0064
   1.4492E+00   1.4845E+00   1.3880E-03  0.0064
   1.4845E+00   1.5206E+00   1.3650E-03  0.0063
   1.5206E+00   1.5576E+00   1.3324E-03  0.0063
   1.5576E+00   1.5955E+00   1.3329E-03  0.0063
   1.5955E+00   1.6343E+00   1.2880E-03  0.0063
   1.6343E+00   1.6741E+00   1.2680E-03  0.0063
   1.6741E+00   1.7148E+00   1.2538E-03  0.0062
   1.7148E+00   1.7565E+00   1.2099E-03  0.0063
   1.7565E+00   1.7992E+00   1.1871E-03  0.0062
   1.7992E+00   1.8430E+00   1.1812E-03  0.0062
   1.8430E+00   1.8879E+00   1.1545E-03  0.0062
   1.8879E+00   1.9338E+00   1.1097E-03  0.0062
   1.9338E+00   1.9808E+00   1.0980E-03  0.0062
   1.9808E+00   2.0290E+00   1.0721E-03  0.0062
   2.0290E+00   2.0784E+00   1.0643E-03  0.0061
   2.0784E+00   2.1290E+00   1.0384E-03  0.0061
   2.1290E+00   2.1808E+00   1.0203E-03  0.0061
   2.1808E+00   2.2338E+00   9.8538E-04  0.0061
   2.2338E+00   2.2882E+00   9.6218E-04  0.0061
   2.2882E+00   2.3439E+00   9.4408E-04  0.0061
   2.3439E+00   2.4009E+00   9.2608E-04  0.0061
   2.4009E+00   2.4593E+00   9.2167E-04  0.0060
   2.4593E+00   2.5191E+00   8.9141E-04  0.0061
   2.5191E+00   2.5804E+00   8.7654E-04  0.0060
   2.5804E+00   2.6432E+00   8.6482E-04  0.0060
   2.6432E+00   2.7075E+00   8.3678E-04  0.0060
   2.7075E+00   2.7734E+00   8.1770E-04  0.0060
   2.7734E+00   2.8409E+00   7.9874E-04  0.0060
   2.8409E+00   2.9100E+00   7.8830E-04  0.0060
   2.9100E+00   2.9808E+00   7.6987E-04  0.0060
   2.9808E+00   3.0533E+00   7.5321E-04  0.0060
   3.0533E+00   3.1276E+00   7.5234E-04  0.0059
   3.1276E+00   3.2037E+00   7.2066E-04  0.0060
   3.2037E+00   3.2817E+00   7.0779E-04  0.0060
   3.2817E+00   3.3615E+00   6.9866E-04  0.0059
   3.3615E+00   3.4433E+00   6.8828E-04  0.0059
   3.4433E+00   3.5271E+00   6.7430E-04  0.0059
   3.5271E+00   3.6129E+00   6.6573E-04  0.0059
   3.6129E+00   3.7008E+00   6.4850E-04  0.0059
   3.7008E+00   3.7908E+00   6.3987E-04  0.0058
   3.7908E+00   3.8831E+00   6.2545E-04  0.0058
   3.8831E+00   3.9776E+00   6.1663E-04  0.0058
   3.9776E+00   4.0743E+00   6.1331E-04  0.0058
   4.0743E+00   4.1735E+00   6.0223E-04  0.0057
   4.1735E+00   4.2750E+00   5.9316E-04  0.0057
   4.2750E+00   4.3790E+00   5.8187E-04  0.0057
   4.3790E+00   4.4856E+00   5.7646E-04  0.0057
   4.4856E+00   4.5947E+00   5.6783E-04  0.0056
   4.5947E+00   4.7065E+00   5.6913E-04  0.0056
   4.7065E+00   4.8210E+00   5.6435E-04  0.0055
   4.8210E+00   4.9383E+00   5.5491E-04  0.0055
   4.9383E+00   5.0585E+00   5.3738E-04  0.0055
   5.0585E+00   5.1815E+00   5.3811E-04  0.0055
   5.1815E+00   5.3076E+00   5.3247E-04  0.0054
   5.3076E+00   5.4368E+00   5.2632E-04  0.0054
   5.4368E+00   5.5690E+00   5.1052E-04  0.0054
   5.5690E+00   5.7045E+00   5.0647E-04  0.0054
   5.7045E+00   5.8433E+00   4.9886E-04  0.0053
   5.8433E+00   5.9855E+00   4.8779E-04  0.0053
   5.9855E+00   6.1311E+00   4.7883E-04  0.0053
   6.1311E+00   6.2803E+00   4.7683E-04  0.0053
   6.2803E+00   6.4331E+00   4.6966E-04  0.0053
   6.4331E+00   6.5896E+00   4.6406E-04  0.0052
   6.5896E+00   6.7500E+00   4.5244E-04  0.0052
   6.7500E+00   6.9142E+00   4.5085E-04  0.0052
   6.9142E+00   7.0824E+00   4.4373E-04  0.0052
   7.0824E+00   7.2548E+00   4.4385E-04  0.0051
   7.2548E+00   7.4313E+00   4.4013E-04  0.0051
   7.4313E+00   7.6121E+00   4.2750E-04  0.0051
   7.6121E+00   7.7973E+00   4.2281E-04  0.0050
   7.7973E+00   7.9870E+00   4.1684E-04  0.0050
   7.9870E+00   8.1813E+00   4.0878E-04  0.0050
   8.1813E+00   8.3804E+00   4.0159E-04  0.0050
   8.3804E+00   8.5843E+00   3.9347E-04  0.0050
   8.5843E+00   8.7931E+00   3.8647E-04  0.0050
   8.7931E+00   9.0071E+00   3.8019E-04  0.0049
   9.0071E+00   9.2262E+00   3.7394E-04  0.0049
   9.2262E+00   9.4507E+00   3.6248E-04  0.0049
   9.4507E+00   9.6807E+00   3.5740E-04  0.0049
   9.6807E+00   9.9162E+00   3.5075E-04  0.0049
   9.9162E+00   1.0157E+01   3.4512E-04  0.0049
   1.0157E+01   1.0405E+01   3.3712E-04  0.0049
   1.0405E+01   1.0658E+01   3.3919E-04  0.0048
   1.0658E+01   1.0917E+01   3.3580E-04  0.0048
   1.0917E+01   1.1183E+01   3.2922E-04  0.0048
   1.1183E+01   1.1455E+01   3.2380E-04  0.0048
   1.1455E+01   1.1733E+01   3.1554E-04  0.0048
   1.1733E+01   1.2019E+01   3.0699E-04  0.0048
   1.2019E+01   1.2311E+01   2.9807E-04  0.0048
   1.2311E+01   1.2611E+01   2.8847E-04  0.0048
   1.2611E+01   1.2918E+01   2.7802E-04  0.0048
   1.2918E+01   1.3232E+01   2.7362E-04  0.0048
   1.3232E+01   1.3554E+01   2.6395E-04  0.0048
   1.3554E+01   1.3884E+01   2.5675E-04  0.0049
   1.3884E+01   1.4222E+01   2.5053E-04  0.0049
   1.4222E+01   1.4568E+01   2.4166E-04  0.0049
   1.4568E+01   1.4922E+01   2.3340E-04  0.0049
   1.4922E+01   1.5285E+01   2.2619E-04  0.0049
   1.5285E+01   1.5657E+01   2.1817E-04  0.0050
   1.5657E+01   1.6038E+01   2.0983E-04  0.0050
   1.6038E+01   1.6428E+01   2.0381E-04  0.0050
   1.6428E+01   1.6828E+01   1.9301E-04  0.0051
   1.6828E+01   1.7237E+01   1.8581E-04  0.0051
   1.7237E+01   1.7657E+01   1.8235E-04  0.0051
   1.7657E+01   1.8086E+01   1.7400E-04  0.0052
   1.8086E+01   1.8526E+01   1.6762E-04  0.0052
   1.8526E+01   1.8977E+01   1.6256E-04  0.0052
   1.8977E+01   1.9439E+01   1.5863E-04  0.0052
   1.9439E+01   1.9912E+01   1.5358E-04  0.0052
   1.9912E+01   2.0396E+01   1.4747E-04  0.0053
   2.0396E+01   2.0893E+01   1.4171E-04  0.0053
   2.0893E+01   2.1401E+01   1.3690E-04  0.0054
   2.1401E+01   2.1922E+01   1.2963E-04  0.0054
   2.1922E+01   2.2455E+01   1.2299E-04  0.0055
   2.2455E+01   2.3001E+01   1.1767E-04  0.0056
   2.3001E+01   2.3561E+01   1.1255E-04  0.0056
   2.3561E+01   2.4134E+01   1.0611E-04  0.0057
   2.4134E+01   2.4721E+01   1.0085E-04  0.0058
   2.4721E+01   2.5323E+01   9.5083E-05  0.0059
   2.5323E+01   2.5939E+01   9.0335E-05  0.0060
   2.5939E+01   2.6570E+01   8.4368E-05  0.0061
   2.6570E+01   2.7217E+01   7.9456E-05  0.0062
   2.7217E+01   2.7879E+01   7.5001E-05  0.0063
   2.7879E+01   2.8557E+01   6.9605E-05  0.0065
   2.8557E+01   2.9252E+01   6.6319E-05  0.0066
   2.9252E+01   2.9964E+01   6.1549E-05  0.0068
   2.9964E+01   3.0693E+01   5.7069E-05  0.0069
   3.0693E+01   3.1440E+01   5.3437E-05  0.0071
   3.1440E+01   3.2205E+01   4.9697E-05  0.0073
   3.2205E+01   3.2988E+01   4.5952E-05  0.0075
   3.2988E+01   3.3791E+01   4.2695E-05  0.0076
   3.3791E+01   3.4613E+01   3.9941E-05  0.0078
   3.4613E+01   3.5455E+01   3.7178E-05  0.0080
   3.5455E+01   3.6318E+01   3.3875E-05  0.0083
   3.6318E+01   3.7201E+01   3.1427E-05  0.0085
   3.7201E+01   3.8106E+01   2.8215E-05  0.0089
   3.8106E+01   3.9034E+01   2.5886E-05  0.0091
   3.9034E+01   3.9983E+01   2.4342E-05  0.0093
   3.9983E+01   4.0956E+01   2.1724E-05  0.0097
   4.0956E+01   4.1953E+01   1.9874E-05  0.0100
   4.1953E+01   4.2973E+01   1.7842E-05  0.0105
   4.2973E+01   4.4019E+01   1.6334E-05  0.0108
   4.4019E+01   4.5090E+01   1.4399E-05  0.0114
   4.5090E+01   4.6187E+01   1.3126E-05  0.0118
   4.6187E+01   4.7311E+01   1.1650E-05  0.0124
   4.7311E+01   4.8462E+01   1.0100E-05  0.0131
   4.8462E+01   4.9641E+01   9.2222E-06  0.0136
   4.9641E+01   5.0849E+01   8.1238E-06  0.0143
   5.0849E+01   5.2086E+01   7.0951E-06  0.0151
   5.2086E+01   5.3353E+01   6.1738E-06  0.0160
   5.3353E+01   5.4651E+01   5.3646E-06  0.0169
   5.4651E+01   5.5981E+01   4.5860E-06  0.0181
   5.5981E+01   5.7343E+01   4.1276E-06  0.0189
   5.7343E+01   5.8738E+01   3.3199E-06  0.0208
   5.8738E+01   6.0168E+01   2.8310E-06  0.0222
   6.0168E+01   6.1632E+01   2.3594E-06  0.0241
   6.1632E+01   6.3131E+01   1.9326E-06  0.0263
   6.3131E+01   6.4667E+01   1.5599E-06  0.0289
   6.4667E+01   6.6240E+01   1.3792E-06  0.0304
   6.6240E+01   6.7852E+01   1.1007E-06  0.0336
   6.7852E+01   6.9503E+01   7.7291E-07  0.0396
   6.9503E+01   7.1194E+01   6.7531E-07  0.0418
   7.1194E+01   7.2926E+01   5.7383E-07  0.0449
   7.2926E+01   7.4701E+01   5.2301E-07  0.0464
   7.4701E+01   7.6518E+01   3.4883E-07  0.0562
   7.6518E+01   7.8380E+01   2.8038E-07  0.0619
   7.8380E+01   8.0287E+01   2.0241E-07  0.0720
   8.0287E+01   8.2240E+01   1.7303E-07  0.0769
   8.2240E+01   8.4241E+01   1.1994E-07  0.0913
   8.4241E+01   8.6291E+01   8.8795E-08  0.1048
   8.6291E+01   8.8391E+01   7.3350E-08  0.1140
   8.8391E+01   9.0541E+01   4.7428E-08  0.1400
   9.0541E+01   9.2744E+01   3.2684E-08  0.1667
   9.2744E+01   9.5001E+01   1.5954E-08  0.2357
   9.5001E+01   9.7312E+01   1.0383E-08  0.2887
   9.7312E+01   9.9680E+01   7.6024E-09  0.3333
   9.9680E+01   1.0211E+02   4.9479E-09  0.4082
   1.0211E+02   1.0459E+02   7.2455E-09  0.3333
   1.0459E+02   1.0713E+02   7.8593E-10  1.0000
   1.0713E+02   1.0974E+02   1.5345E-09  0.7071
   1.0974E+02   1.1241E+02   1.4981E-09  0.7071
   1.1241E+02   1.1515E+02   1.4625E-09  0.7071
   1.1515E+02   1.1795E+02   0.0000E+00  0.0000
   1.1795E+02   1.2082E+02   0.0000E+00  0.0000
   1.2082E+02   1.2376E+02   0.0000E+00  0.0000
   1.2376E+02   1.2677E+02   0.0000E+00  0.0000
   1.2677E+02   1.2985E+02   0.0000E+00  0.0000
   1.2985E+02   1.3301E+02   0.0000E+00  0.0000
   1.3301E+02   1.3625E+02   0.0000E+00  0.0000
   1.3625E+02   1.3956E+02   0.0000E+00  0.0000
   1.3956E+02   1.4296E+02   0.0000E+00  0.0000
   1.4296E+02   1.4644E+02   0.0000E+00  0.0000
   1.4644E+02   1.5000E+02   0.0000E+00  0.0000

#   sum over                 7.3481E-05
'no. =    1   reg = 113 - 213'
msuc: {\huge [t-cross] in region mesh}
msdr: {\it plotted by \ANGEL \version}
msdl: {\it calculated by \PHITS  3.26}
wt: s(0.7)
\vspace{-3}
  region surface crossing
  area  &=&   1.0000E+00 [cm^2]
e:
 
# Information for Restart Calculation
# This calculation was newly started
# istdev =  2 # 1:Batch variance, 2:History variance
# resc2  = 5.00000000000000000E+08 # Total source weight or Total source weight / maxcas
# resc3  = 5.00000000000000000E+08 # Total history number or Total batch number
# maxcas =   500000000 # History / Batch, only used for istdev=1
# bitrseed = 1101101111010011011000101101110001100110110010110001010100010001 # bit data of rseed
