[ T-Cross ]
    title = [t-cross] in region mesh
     mesh =  reg            # mesh type is region-wise
      reg =    1            # number of crossing regions
      non     r-from    r-to       area
      1       126       226        1.000000    
   e-type =    3            # e-mesh is log given by emin, emax and ne
     emin =  1.0000000E-02  # minimum value of e-mesh points
     emax =   150.0000      # maximum value of e-mesh points
#    edel =  2.4039514E-02  # mesh width of e-mesh points
       ne =    400          # number of e-mesh points
#    data = ( e(i), i = 1, ne + 1 )
#           1.00000E-02  1.02433E-02  1.04925E-02  1.07478E-02  1.10093E-02
#           1.12772E-02  1.15516E-02  1.18326E-02  1.21205E-02  1.24154E-02
#           1.27175E-02  1.30269E-02  1.33439E-02  1.36686E-02  1.40011E-02
#           1.43418E-02  1.46907E-02  1.50482E-02  1.54143E-02  1.57894E-02
#           1.61735E-02  1.65670E-02  1.69701E-02  1.73830E-02  1.78060E-02
#           1.82392E-02  1.86830E-02  1.91375E-02  1.96032E-02  2.00801E-02
#           2.05687E-02  2.10692E-02  2.15818E-02  2.21069E-02  2.26448E-02
#           2.31957E-02  2.37601E-02  2.43382E-02  2.49304E-02  2.55369E-02
#           2.61583E-02  2.67947E-02  2.74467E-02  2.81145E-02  2.87985E-02
#           2.94992E-02  3.02169E-02  3.09521E-02  3.17052E-02  3.24766E-02
#           3.32668E-02  3.40762E-02  3.49053E-02  3.57546E-02  3.66246E-02
#           3.75157E-02  3.84284E-02  3.93634E-02  4.03212E-02  4.13022E-02
#           4.23071E-02  4.33365E-02  4.43909E-02  4.54710E-02  4.65773E-02
#           4.77106E-02  4.88714E-02  5.00605E-02  5.12785E-02  5.25262E-02
#           5.38042E-02  5.51133E-02  5.64542E-02  5.78278E-02  5.92348E-02
#           6.06760E-02  6.21523E-02  6.36645E-02  6.52135E-02  6.68002E-02
#           6.84255E-02  7.00904E-02  7.17957E-02  7.35426E-02  7.53319E-02
#           7.71648E-02  7.90423E-02  8.09655E-02  8.29354E-02  8.49533E-02
#           8.70203E-02  8.91376E-02  9.13064E-02  9.35279E-02  9.58035E-02
#           9.81345E-02  1.00522E-01  1.02968E-01  1.05473E-01  1.08040E-01
#           1.10668E-01  1.13361E-01  1.16119E-01  1.18944E-01  1.21838E-01
#           1.24803E-01  1.27839E-01  1.30950E-01  1.34136E-01  1.37399E-01
#           1.40742E-01  1.44167E-01  1.47675E-01  1.51268E-01  1.54948E-01
#           1.58718E-01  1.62580E-01  1.66535E-01  1.70587E-01  1.74738E-01
#           1.78989E-01  1.83344E-01  1.87805E-01  1.92375E-01  1.97055E-01
#           2.01850E-01  2.06761E-01  2.11792E-01  2.16945E-01  2.22223E-01
#           2.27630E-01  2.33169E-01  2.38842E-01  2.44653E-01  2.50605E-01
#           2.56703E-01  2.62949E-01  2.69346E-01  2.75900E-01  2.82613E-01
#           2.89489E-01  2.96532E-01  3.03747E-01  3.11138E-01  3.18708E-01
#           3.26462E-01  3.34405E-01  3.42542E-01  3.50876E-01  3.59413E-01
#           3.68158E-01  3.77116E-01  3.86291E-01  3.95690E-01  4.05317E-01
#           4.15179E-01  4.25281E-01  4.35628E-01  4.46227E-01  4.57084E-01
#           4.68205E-01  4.79597E-01  4.91266E-01  5.03219E-01  5.15463E-01
#           5.28005E-01  5.40851E-01  5.54011E-01  5.67490E-01  5.81298E-01
#           5.95441E-01  6.09929E-01  6.24769E-01  6.39970E-01  6.55541E-01
#           6.71491E-01  6.87828E-01  7.04564E-01  7.21706E-01  7.39266E-01
#           7.57253E-01  7.75678E-01  7.94551E-01  8.13883E-01  8.33685E-01
#           8.53969E-01  8.74747E-01  8.96030E-01  9.17831E-01  9.40163E-01
#           9.63038E-01  9.86469E-01  1.01047E+00  1.03506E+00  1.06024E+00
#           1.08604E+00  1.11246E+00  1.13953E+00  1.16725E+00  1.19565E+00
#           1.22474E+00  1.25454E+00  1.28507E+00  1.31633E+00  1.34836E+00
#           1.38117E+00  1.41477E+00  1.44920E+00  1.48446E+00  1.52057E+00
#           1.55757E+00  1.59547E+00  1.63429E+00  1.67405E+00  1.71478E+00
#           1.75650E+00  1.79924E+00  1.84302E+00  1.88786E+00  1.93379E+00
#           1.98084E+00  2.02904E+00  2.07841E+00  2.12898E+00  2.18078E+00
#           2.23384E+00  2.28819E+00  2.34386E+00  2.40089E+00  2.45930E+00
#           2.51914E+00  2.58043E+00  2.64322E+00  2.70753E+00  2.77341E+00
#           2.84088E+00  2.91001E+00  2.98081E+00  3.05333E+00  3.12762E+00
#           3.20372E+00  3.28167E+00  3.36152E+00  3.44330E+00  3.52708E+00
#           3.61290E+00  3.70080E+00  3.79085E+00  3.88308E+00  3.97756E+00
#           4.07434E+00  4.17347E+00  4.27501E+00  4.37903E+00  4.48557E+00
#           4.59471E+00  4.70650E+00  4.82102E+00  4.93832E+00  5.05847E+00
#           5.18155E+00  5.30762E+00  5.43676E+00  5.56904E+00  5.70453E+00
#           5.84333E+00  5.98550E+00  6.13114E+00  6.28031E+00  6.43312E+00
#           6.58964E+00  6.74997E+00  6.91420E+00  7.08243E+00  7.25475E+00
#           7.43126E+00  7.61207E+00  7.79728E+00  7.98700E+00  8.18133E+00
#           8.38038E+00  8.58428E+00  8.79315E+00  9.00709E+00  9.22624E+00
#           9.45072E+00  9.68067E+00  9.91620E+00  1.01575E+01  1.04046E+01
#           1.06578E+01  1.09171E+01  1.11827E+01  1.14548E+01  1.17335E+01
#           1.20190E+01  1.23114E+01  1.26109E+01  1.29178E+01  1.32321E+01
#           1.35540E+01  1.38838E+01  1.42216E+01  1.45676E+01  1.49221E+01
#           1.52851E+01  1.56570E+01  1.60380E+01  1.64282E+01  1.68279E+01
#           1.72374E+01  1.76568E+01  1.80864E+01  1.85264E+01  1.89772E+01
#           1.94389E+01  1.99119E+01  2.03963E+01  2.08926E+01  2.14009E+01
#           2.19216E+01  2.24550E+01  2.30014E+01  2.35610E+01  2.41343E+01
#           2.47215E+01  2.53230E+01  2.59391E+01  2.65702E+01  2.72167E+01
#           2.78789E+01  2.85572E+01  2.92520E+01  2.99637E+01  3.06928E+01
#           3.14396E+01  3.22045E+01  3.29881E+01  3.37907E+01  3.46128E+01
#           3.54550E+01  3.63177E+01  3.72013E+01  3.81064E+01  3.90336E+01
#           3.99833E+01  4.09561E+01  4.19526E+01  4.29734E+01  4.40189E+01
#           4.50900E+01  4.61870E+01  4.73108E+01  4.84619E+01  4.96410E+01
#           5.08488E+01  5.20860E+01  5.33533E+01  5.46514E+01  5.59812E+01
#           5.73432E+01  5.87384E+01  6.01676E+01  6.16315E+01  6.31311E+01
#           6.46671E+01  6.62405E+01  6.78522E+01  6.95031E+01  7.11941E+01
#           7.29263E+01  7.47007E+01  7.65182E+01  7.83800E+01  8.02870E+01
#           8.22405E+01  8.42414E+01  8.62911E+01  8.83906E+01  9.05412E+01
#           9.27442E+01  9.50007E+01  9.73122E+01  9.96799E+01  1.02105E+02
#           1.04589E+02  1.07134E+02  1.09741E+02  1.12411E+02  1.15146E+02
#           1.17948E+02  1.20817E+02  1.23757E+02  1.26768E+02  1.29852E+02
#           1.33012E+02  1.36248E+02  1.39563E+02  1.42959E+02  1.46437E+02
#           1.50000E+02
     unit =    2            # unit is [1/cm^2/(MeV/n)/source]
     axis =  eng            # axis of output
     file = detector-27.out  # file name of output for the above axis
   output = f-curr          # surface crossing forward current spectrum
     part =  neutron  
# kf/name :  2112     
#    used :        main (  %)        temp (  %)       total (  %)
#  memory :         414 (  0)           0 (  0)         414 (  0)

#------------------------------------------------------------------------------
#newpage:
#   no. =    1   reg = 126 - 226

x: Energy [MeV/n]
y:  F-Curr [1/cm^2/(MeV/n)/source]         
p: xlog ylog afac(0.8) form(0.9)
h: n            x            y(neutron ),hh0l   n 
#  e-lower      e-upper      neutron     r.err 
   1.0000E-02   1.0243E-02   3.0742E-04  0.0517
   1.0243E-02   1.0493E-02   3.2803E-04  0.0494
   1.0493E-02   1.0748E-02   3.0948E-04  0.0502
   1.0748E-02   1.1009E-02   3.1106E-04  0.0494
   1.1009E-02   1.1277E-02   2.7982E-04  0.0515
   1.1277E-02   1.1552E-02   2.6525E-04  0.0522
   1.1552E-02   1.1833E-02   2.6482E-04  0.0517
   1.1833E-02   1.2121E-02   2.8003E-04  0.0497
   1.2121E-02   1.2415E-02   2.4872E-04  0.0521
   1.2415E-02   1.2718E-02   2.6591E-04  0.0498
   1.2718E-02   1.3027E-02   2.6162E-04  0.0496
   1.3027E-02   1.3344E-02   2.5858E-04  0.0493
   1.3344E-02   1.3669E-02   2.3661E-04  0.0509
   1.3669E-02   1.4001E-02   2.3359E-04  0.0506
   1.4001E-02   1.4342E-02   2.4288E-04  0.0491
   1.4342E-02   1.4691E-02   2.3129E-04  0.0496
   1.4691E-02   1.5048E-02   2.1355E-04  0.0511
   1.5048E-02   1.5414E-02   2.1603E-04  0.0502
   1.5414E-02   1.5789E-02   2.0462E-04  0.0509
   1.5789E-02   1.6174E-02   2.1907E-04  0.0486
   1.6174E-02   1.6567E-02   2.1046E-04  0.0491
   1.6567E-02   1.6970E-02   1.9948E-04  0.0497
   1.6970E-02   1.7383E-02   1.9616E-04  0.0495
   1.7383E-02   1.7806E-02   1.8645E-04  0.0502
   1.7806E-02   1.8239E-02   1.7856E-04  0.0507
   1.8239E-02   1.8683E-02   1.7963E-04  0.0500
   1.8683E-02   1.9138E-02   1.8306E-04  0.0488
   1.9138E-02   1.9603E-02   1.7058E-04  0.0500
   1.9603E-02   2.0080E-02   1.7155E-04  0.0493
   2.0080E-02   2.0569E-02   1.6969E-04  0.0491
   2.0569E-02   2.1069E-02   1.5538E-04  0.0506
   2.1069E-02   2.1582E-02   1.6013E-04  0.0493
   2.1582E-02   2.2107E-02   1.4675E-04  0.0509
   2.2107E-02   2.2645E-02   1.6267E-04  0.0477
   2.2645E-02   2.3196E-02   1.6432E-04  0.0469
   2.3196E-02   2.3760E-02   1.5002E-04  0.0485
   2.3760E-02   2.4338E-02   1.5253E-04  0.0475
   2.4338E-02   2.4930E-02   1.3113E-04  0.0506
   2.4930E-02   2.5537E-02   1.4265E-04  0.0479
   2.5537E-02   2.6158E-02   1.3307E-04  0.0491
   2.6158E-02   2.6795E-02   1.2929E-04  0.0492
   2.6795E-02   2.7447E-02   1.3148E-04  0.0481
   2.7447E-02   2.8114E-02   1.2358E-04  0.0491
   2.8114E-02   2.8799E-02   1.2215E-04  0.0488
   2.8799E-02   2.9499E-02   1.2009E-04  0.0486
   2.9499E-02   3.0217E-02   1.1681E-04  0.0488
   3.0217E-02   3.0952E-02   1.2004E-04  0.0475
   3.0952E-02   3.1705E-02   1.1141E-04  0.0488
   3.1705E-02   3.2477E-02   1.1220E-04  0.0480
   3.2477E-02   3.3267E-02   1.0968E-04  0.0480
   3.3267E-02   3.4076E-02   1.0310E-04  0.0489
   3.4076E-02   3.4905E-02   1.0701E-04  0.0474
   3.4905E-02   3.5755E-02   1.0051E-04  0.0482
   3.5755E-02   3.6625E-02   1.0153E-04  0.0475
   3.6625E-02   3.7516E-02   1.0158E-04  0.0469
   3.7516E-02   3.8428E-02   8.9220E-05  0.0494
   3.8428E-02   3.9363E-02   9.5699E-05  0.0472
   3.9363E-02   4.0321E-02   8.5541E-05  0.0493
   4.0321E-02   4.1302E-02   8.5518E-05  0.0487
   4.1302E-02   4.2307E-02   8.8269E-05  0.0474
   4.2307E-02   4.3337E-02   7.9445E-05  0.0493
   4.3337E-02   4.4391E-02   8.6697E-05  0.0467
   4.4391E-02   4.5471E-02   8.1470E-05  0.0476
   4.5471E-02   4.6577E-02   8.1762E-05  0.0469
   4.6577E-02   4.7711E-02   7.6920E-05  0.0478
   4.7711E-02   4.8871E-02   7.7401E-05  0.0471
   4.8871E-02   5.0061E-02   8.4237E-05  0.0445
   5.0061E-02   5.1279E-02   6.9531E-05  0.0485
   5.1279E-02   5.2526E-02   7.6143E-05  0.0458
   5.2526E-02   5.3804E-02   7.3188E-05  0.0461
   5.3804E-02   5.5113E-02   6.7779E-05  0.0474
   5.5113E-02   5.6454E-02   6.7021E-05  0.0470
   5.6454E-02   5.7828E-02   6.5782E-05  0.0469
   5.7828E-02   5.9235E-02   6.2909E-05  0.0475
   5.9235E-02   6.0676E-02   6.2879E-05  0.0469
   6.0676E-02   6.2152E-02   6.1850E-05  0.0467
   6.2152E-02   6.3665E-02   6.4089E-05  0.0453
   6.3665E-02   6.5214E-02   6.1047E-05  0.0459
   6.5214E-02   6.6800E-02   5.4403E-05  0.0480
   6.6800E-02   6.8426E-02   5.8636E-05  0.0457
   6.8426E-02   7.0090E-02   5.8027E-05  0.0454
   7.0090E-02   7.1796E-02   5.7335E-05  0.0451
   7.1796E-02   7.3543E-02   5.2024E-05  0.0468
   7.3543E-02   7.5332E-02   5.2647E-05  0.0460
   7.5332E-02   7.7165E-02   4.9328E-05  0.0470
   7.7165E-02   7.9042E-02   5.1757E-05  0.0453
   7.9042E-02   8.0965E-02   4.7582E-05  0.0467
   8.0965E-02   8.2935E-02   4.8575E-05  0.0456
   8.2935E-02   8.4953E-02   4.1975E-05  0.0485
   8.4953E-02   8.7020E-02   4.8355E-05  0.0446
   8.7020E-02   8.9138E-02   4.4610E-05  0.0460
   8.9138E-02   9.1306E-02   4.2528E-05  0.0465
   9.1306E-02   9.3528E-02   4.2646E-05  0.0458
   9.3528E-02   9.5804E-02   4.2043E-05  0.0456
   9.5804E-02   9.8134E-02   3.9253E-05  0.0467
   9.8134E-02   1.0052E-01   4.0999E-05  0.0451
   1.0052E-01   1.0297E-01   3.8121E-05  0.0463
   1.0297E-01   1.0547E-01   3.6714E-05  0.0465
   1.0547E-01   1.0804E-01   3.5577E-05  0.0467
   1.0804E-01   1.1067E-01   3.7128E-05  0.0451
   1.1067E-01   1.1336E-01   3.5793E-05  0.0454
   1.1336E-01   1.1612E-01   3.3964E-05  0.0461
   1.1612E-01   1.1894E-01   3.2713E-05  0.0463
   1.1894E-01   1.2184E-01   3.1233E-05  0.0469
   1.2184E-01   1.2480E-01   3.1335E-05  0.0463
   1.2480E-01   1.2784E-01   3.0829E-05  0.0461
   1.2784E-01   1.3095E-01   3.1452E-05  0.0452
   1.3095E-01   1.3414E-01   2.9775E-05  0.0458
   1.3414E-01   1.3740E-01   2.7099E-05  0.0473
   1.3740E-01   1.4074E-01   2.7298E-05  0.0468
   1.4074E-01   1.4417E-01   2.5953E-05  0.0473
   1.4417E-01   1.4767E-01   2.4763E-05  0.0479
   1.4767E-01   1.5127E-01   2.6911E-05  0.0454
   1.5127E-01   1.5495E-01   2.6247E-05  0.0455
   1.5495E-01   1.5872E-01   2.3781E-05  0.0472
   1.5872E-01   1.6258E-01   2.1998E-05  0.0484
   1.6258E-01   1.6654E-01   2.4168E-05  0.0456
   1.6654E-01   1.7059E-01   2.1698E-05  0.0476
   1.7059E-01   1.7474E-01   2.1298E-05  0.0474
   1.7474E-01   1.7899E-01   2.2008E-05  0.0461
   1.7899E-01   1.8334E-01   2.1006E-05  0.0466
   1.8334E-01   1.8781E-01   2.1362E-05  0.0457
   1.8781E-01   1.9237E-01   2.0514E-05  0.0461
   1.9237E-01   1.9706E-01   2.0194E-05  0.0459
   1.9706E-01   2.0185E-01   2.0618E-05  0.0449
   2.0185E-01   2.0676E-01   2.1212E-05  0.0437
   2.0676E-01   2.1179E-01   1.9634E-05  0.0449
   2.1179E-01   2.1694E-01   2.1070E-05  0.0428
   2.1694E-01   2.2222E-01   2.2507E-05  0.0409
   2.2222E-01   2.2763E-01   2.3519E-05  0.0395
   2.2763E-01   2.3317E-01   2.4066E-05  0.0386
   2.3317E-01   2.3884E-01   2.4427E-05  0.0378
   2.3884E-01   2.4465E-01   2.6128E-05  0.0362
   2.4465E-01   2.5061E-01   2.4492E-05  0.0369
   2.5061E-01   2.5670E-01   2.6438E-05  0.0351
   2.5670E-01   2.6295E-01   2.8580E-05  0.0334
   2.6295E-01   2.6935E-01   2.9368E-05  0.0325
   2.6935E-01   2.7590E-01   2.8687E-05  0.0325
   2.7590E-01   2.8261E-01   3.0558E-05  0.0311
   2.8261E-01   2.8949E-01   2.8225E-05  0.0320
   2.8949E-01   2.9653E-01   3.0430E-05  0.0304
   2.9653E-01   3.0375E-01   3.1038E-05  0.0298
   3.0375E-01   3.1114E-01   3.2177E-05  0.0289
   3.1114E-01   3.1871E-01   3.3275E-05  0.0281
   3.1871E-01   3.2646E-01   3.2457E-05  0.0281
   3.2646E-01   3.3441E-01   3.5758E-05  0.0265
   3.3441E-01   3.4254E-01   3.6300E-05  0.0259
   3.4254E-01   3.5088E-01   3.6662E-05  0.0255
   3.5088E-01   3.5941E-01   3.9426E-05  0.0243
   3.5941E-01   3.6816E-01   3.7501E-05  0.0246
   3.6816E-01   3.7712E-01   3.6844E-05  0.0245
   3.7712E-01   3.8629E-01   3.7471E-05  0.0240
   3.8629E-01   3.9569E-01   3.9545E-05  0.0231
   3.9569E-01   4.0532E-01   4.0261E-05  0.0226
   4.0532E-01   4.1518E-01   4.1449E-05  0.0221
   4.1518E-01   4.2528E-01   3.9394E-05  0.0223
   4.2528E-01   4.3563E-01   4.1907E-05  0.0214
   4.3563E-01   4.4623E-01   4.3481E-05  0.0208
   4.4623E-01   4.5708E-01   4.2216E-05  0.0208
   4.5708E-01   4.6821E-01   4.2132E-05  0.0206
   4.6821E-01   4.7960E-01   4.2427E-05  0.0203
   4.7960E-01   4.9127E-01   4.3847E-05  0.0197
   4.9127E-01   5.0322E-01   4.3316E-05  0.0196
   5.0322E-01   5.1546E-01   4.5015E-05  0.0190
   5.1546E-01   5.2800E-01   4.4380E-05  0.0189
   5.2800E-01   5.4085E-01   4.3642E-05  0.0188
   5.4085E-01   5.5401E-01   4.3589E-05  0.0186
   5.5401E-01   5.6749E-01   4.3056E-05  0.0185
   5.6749E-01   5.8130E-01   4.4276E-05  0.0180
   5.8130E-01   5.9544E-01   4.2453E-05  0.0182
   5.9544E-01   6.0993E-01   4.3650E-05  0.0177
   6.0993E-01   6.2477E-01   4.4624E-05  0.0173
   6.2477E-01   6.3997E-01   4.2752E-05  0.0175
   6.3997E-01   6.5554E-01   4.2964E-05  0.0172
   6.5554E-01   6.7149E-01   4.2049E-05  0.0172
   6.7149E-01   6.8783E-01   4.1621E-05  0.0171
   6.8783E-01   7.0456E-01   4.2009E-05  0.0168
   7.0456E-01   7.2171E-01   3.9835E-05  0.0170
   7.2171E-01   7.3927E-01   3.9171E-05  0.0170
   7.3927E-01   7.5725E-01   3.9334E-05  0.0167
   7.5725E-01   7.7568E-01   3.8072E-05  0.0168
   7.7568E-01   7.9455E-01   3.7496E-05  0.0167
   7.9455E-01   8.1388E-01   3.7602E-05  0.0165
   8.1388E-01   8.3368E-01   3.6895E-05  0.0164
   8.3368E-01   8.5397E-01   3.6677E-05  0.0163
   8.5397E-01   8.7475E-01   3.4079E-05  0.0167
   8.7475E-01   8.9603E-01   3.3419E-05  0.0167
   8.9603E-01   9.1783E-01   3.3049E-05  0.0166
   9.1783E-01   9.4016E-01   3.1852E-05  0.0167
   9.4016E-01   9.6304E-01   3.1134E-05  0.0166
   9.6304E-01   9.8647E-01   2.9880E-05  0.0168
   9.8647E-01   1.0105E+00   2.9610E-05  0.0167
   1.0105E+00   1.0351E+00   2.8841E-05  0.0167
   1.0351E+00   1.0602E+00   2.7393E-05  0.0169
   1.0602E+00   1.0860E+00   2.6766E-05  0.0169
   1.0860E+00   1.1125E+00   2.5769E-05  0.0170
   1.1125E+00   1.1395E+00   2.5274E-05  0.0170
   1.1395E+00   1.1673E+00   2.4667E-05  0.0170
   1.1673E+00   1.1957E+00   2.3322E-05  0.0172
   1.1957E+00   1.2247E+00   2.2907E-05  0.0172
   1.2247E+00   1.2545E+00   2.2532E-05  0.0171
   1.2545E+00   1.2851E+00   2.1720E-05  0.0173
   1.2851E+00   1.3163E+00   2.1091E-05  0.0173
   1.3163E+00   1.3484E+00   2.1160E-05  0.0171
   1.3484E+00   1.3812E+00   1.9881E-05  0.0174
   1.3812E+00   1.4148E+00   2.0254E-05  0.0170
   1.4148E+00   1.4492E+00   1.9912E-05  0.0170
   1.4492E+00   1.4845E+00   1.8484E-05  0.0174
   1.4845E+00   1.5206E+00   1.8274E-05  0.0173
   1.5206E+00   1.5576E+00   1.7647E-05  0.0174
   1.5576E+00   1.5955E+00   1.6866E-05  0.0176
   1.5955E+00   1.6343E+00   1.6348E-05  0.0176
   1.6343E+00   1.6741E+00   1.6019E-05  0.0176
   1.6741E+00   1.7148E+00   1.5614E-05  0.0176
   1.7148E+00   1.7565E+00   1.5147E-05  0.0177
   1.7565E+00   1.7992E+00   1.5339E-05  0.0173
   1.7992E+00   1.8430E+00   1.4406E-05  0.0177
   1.8430E+00   1.8879E+00   1.4021E-05  0.0177
   1.8879E+00   1.9338E+00   1.3550E-05  0.0178
   1.9338E+00   1.9808E+00   1.3033E-05  0.0179
   1.9808E+00   2.0290E+00   1.2732E-05  0.0179
   2.0290E+00   2.0784E+00   1.2389E-05  0.0179
   2.0784E+00   2.1290E+00   1.2167E-05  0.0179
   2.1290E+00   2.1808E+00   1.1876E-05  0.0179
   2.1808E+00   2.2338E+00   1.1721E-05  0.0178
   2.2338E+00   2.2882E+00   1.1702E-05  0.0176
   2.2882E+00   2.3439E+00   1.0598E-05  0.0183
   2.3439E+00   2.4009E+00   1.0604E-05  0.0180
   2.4009E+00   2.4593E+00   1.0189E-05  0.0182
   2.4593E+00   2.5191E+00   1.0424E-05  0.0178
   2.5191E+00   2.5804E+00   9.7415E-06  0.0182
   2.5804E+00   2.6432E+00   9.8192E-06  0.0179
   2.6432E+00   2.7075E+00   9.6391E-06  0.0178
   2.7075E+00   2.7734E+00   9.2953E-06  0.0179
   2.7734E+00   2.8409E+00   9.0568E-06  0.0180
   2.8409E+00   2.9100E+00   8.7931E-06  0.0180
   2.9100E+00   2.9808E+00   8.3952E-06  0.0182
   2.9808E+00   3.0533E+00   8.5447E-06  0.0178
   3.0533E+00   3.1276E+00   8.4078E-06  0.0177
   3.1276E+00   3.2037E+00   8.3958E-06  0.0176
   3.2037E+00   3.2817E+00   8.0123E-06  0.0178
   3.2817E+00   3.3615E+00   7.8956E-06  0.0177
   3.3615E+00   3.4433E+00   7.6782E-06  0.0177
   3.4433E+00   3.5271E+00   7.5380E-06  0.0177
   3.5271E+00   3.6129E+00   7.4092E-06  0.0176
   3.6129E+00   3.7008E+00   7.3992E-06  0.0174
   3.7008E+00   3.7908E+00   7.3824E-06  0.0172
   3.7908E+00   3.8831E+00   7.1084E-06  0.0174
   3.8831E+00   3.9776E+00   6.8792E-06  0.0174
   3.9776E+00   4.0743E+00   6.8201E-06  0.0173
   4.0743E+00   4.1735E+00   6.6200E-06  0.0173
   4.1735E+00   4.2750E+00   6.4725E-06  0.0173
   4.2750E+00   4.3790E+00   6.6053E-06  0.0170
   4.3790E+00   4.4856E+00   6.3408E-06  0.0171
   4.4856E+00   4.5947E+00   6.3375E-06  0.0169
   4.5947E+00   4.7065E+00   5.9926E-06  0.0172
   4.7065E+00   4.8210E+00   5.8533E-06  0.0172
   4.8210E+00   4.9383E+00   6.0871E-06  0.0167
   4.9383E+00   5.0585E+00   5.5709E-06  0.0172
   5.0585E+00   5.1815E+00   5.5110E-06  0.0171
   5.1815E+00   5.3076E+00   5.2213E-06  0.0174
   5.3076E+00   5.4368E+00   5.0516E-06  0.0174
   5.4368E+00   5.5690E+00   4.8421E-06  0.0176
   5.5690E+00   5.7045E+00   4.6705E-06  0.0177
   5.7045E+00   5.8433E+00   4.3671E-06  0.0181
   5.8433E+00   5.9855E+00   4.1410E-06  0.0184
   5.9855E+00   6.1311E+00   3.9686E-06  0.0185
   6.1311E+00   6.2803E+00   3.7096E-06  0.0190
   6.2803E+00   6.4331E+00   3.7096E-06  0.0187
   6.4331E+00   6.5896E+00   3.4297E-06  0.0193
   6.5896E+00   6.7500E+00   3.2709E-06  0.0195
   6.7500E+00   6.9142E+00   3.1913E-06  0.0195
   6.9142E+00   7.0824E+00   2.9552E-06  0.0200
   7.0824E+00   7.2548E+00   2.7847E-06  0.0204
   7.2548E+00   7.4313E+00   2.5682E-06  0.0210
   7.4313E+00   7.6121E+00   2.4920E-06  0.0210
   7.6121E+00   7.7973E+00   2.3093E-06  0.0216
   7.7973E+00   7.9870E+00   2.2240E-06  0.0218
   7.9870E+00   8.1813E+00   2.0540E-06  0.0224
   8.1813E+00   8.3804E+00   1.9124E-06  0.0229
   8.3804E+00   8.5843E+00   1.7959E-06  0.0233
   8.5843E+00   8.7931E+00   1.7024E-06  0.0237
   8.7931E+00   9.0071E+00   1.5642E-06  0.0244
   9.0071E+00   9.2262E+00   1.4507E-06  0.0251
   9.2262E+00   9.4507E+00   1.3690E-06  0.0255
   9.4507E+00   9.6807E+00   1.3306E-06  0.0256
   9.6807E+00   9.9162E+00   1.1944E-06  0.0266
   9.9162E+00   1.0157E+01   1.0743E-06  0.0278
   1.0157E+01   1.0405E+01   9.8430E-07  0.0287
   1.0405E+01   1.0658E+01   8.9970E-07  0.0296
   1.0658E+01   1.0917E+01   8.1277E-07  0.0308
   1.0917E+01   1.1183E+01   7.1119E-07  0.0325
   1.1183E+01   1.1455E+01   6.5681E-07  0.0334
   1.1455E+01   1.1733E+01   6.2756E-07  0.0338
   1.1733E+01   1.2019E+01   5.4032E-07  0.0360
   1.2019E+01   1.2311E+01   5.0679E-07  0.0367
   1.2311E+01   1.2611E+01   4.9074E-07  0.0369
   1.2611E+01   1.2918E+01   4.1212E-07  0.0398
   1.2918E+01   1.3232E+01   3.4507E-07  0.0429
   1.3232E+01   1.3554E+01   3.1264E-07  0.0446
   1.3554E+01   1.3884E+01   2.5896E-07  0.0484
   1.3884E+01   1.4222E+01   2.6465E-07  0.0473
   1.4222E+01   1.4568E+01   2.1039E-07  0.0524
   1.4568E+01   1.4922E+01   1.8734E-07  0.0549
   1.4922E+01   1.5285E+01   1.6306E-07  0.0581
   1.5285E+01   1.5657E+01   1.3283E-07  0.0636
   1.5657E+01   1.6038E+01   1.3020E-07  0.0635
   1.6038E+01   1.6428E+01   9.9944E-08  0.0716
   1.6428E+01   1.6828E+01   8.0558E-08  0.0788
   1.6828E+01   1.7237E+01   6.5944E-08  0.0861
   1.7237E+01   1.7657E+01   6.1517E-08  0.0880
   1.7657E+01   1.8086E+01   4.4227E-08  0.1026
   1.8086E+01   1.8526E+01   2.9542E-08  0.1240
   1.8526E+01   1.8977E+01   2.9284E-08  0.1231
   1.8977E+01   1.9439E+01   2.8588E-08  0.1231
   1.9439E+01   1.9912E+01   1.4377E-08  0.1715
   1.9912E+01   2.0396E+01   1.4862E-08  0.1667
   2.0396E+01   2.0893E+01   1.2090E-08  0.1826
   2.0893E+01   2.1401E+01   5.9016E-09  0.2582
   2.1401E+01   2.1922E+01   8.4501E-09  0.2132
   2.1922E+01   2.2455E+01   5.9996E-09  0.2500
   2.2455E+01   2.3001E+01   4.0267E-09  0.3015
   2.3001E+01   2.3561E+01   5.7179E-09  0.2500
   2.3561E+01   2.4134E+01   4.1866E-09  0.2887
   2.4134E+01   2.4721E+01   1.0218E-09  0.5774
   2.4721E+01   2.5323E+01   1.9950E-09  0.4082
   2.5323E+01   2.5939E+01   6.4922E-10  0.7071
   2.5939E+01   2.6570E+01   3.1690E-10  1.0000
   2.6570E+01   2.7217E+01   0.0000E+00  0.0000
   2.7217E+01   2.7879E+01   0.0000E+00  0.0000
   2.7879E+01   2.8557E+01   0.0000E+00  0.0000
   2.8557E+01   2.9252E+01   0.0000E+00  0.0000
   2.9252E+01   2.9964E+01   0.0000E+00  0.0000
   2.9964E+01   3.0693E+01   0.0000E+00  0.0000
   3.0693E+01   3.1440E+01   0.0000E+00  0.0000
   3.1440E+01   3.2205E+01   0.0000E+00  0.0000
   3.2205E+01   3.2988E+01   0.0000E+00  0.0000
   3.2988E+01   3.3791E+01   0.0000E+00  0.0000
   3.3791E+01   3.4613E+01   0.0000E+00  0.0000
   3.4613E+01   3.5455E+01   0.0000E+00  0.0000
   3.5455E+01   3.6318E+01   0.0000E+00  0.0000
   3.6318E+01   3.7201E+01   0.0000E+00  0.0000
   3.7201E+01   3.8106E+01   0.0000E+00  0.0000
   3.8106E+01   3.9034E+01   0.0000E+00  0.0000
   3.9034E+01   3.9983E+01   0.0000E+00  0.0000
   3.9983E+01   4.0956E+01   0.0000E+00  0.0000
   4.0956E+01   4.1953E+01   0.0000E+00  0.0000
   4.1953E+01   4.2973E+01   0.0000E+00  0.0000
   4.2973E+01   4.4019E+01   0.0000E+00  0.0000
   4.4019E+01   4.5090E+01   0.0000E+00  0.0000
   4.5090E+01   4.6187E+01   0.0000E+00  0.0000
   4.6187E+01   4.7311E+01   0.0000E+00  0.0000
   4.7311E+01   4.8462E+01   0.0000E+00  0.0000
   4.8462E+01   4.9641E+01   0.0000E+00  0.0000
   4.9641E+01   5.0849E+01   0.0000E+00  0.0000
   5.0849E+01   5.2086E+01   0.0000E+00  0.0000
   5.2086E+01   5.3353E+01   0.0000E+00  0.0000
   5.3353E+01   5.4651E+01   0.0000E+00  0.0000
   5.4651E+01   5.5981E+01   0.0000E+00  0.0000
   5.5981E+01   5.7343E+01   0.0000E+00  0.0000
   5.7343E+01   5.8738E+01   0.0000E+00  0.0000
   5.8738E+01   6.0168E+01   0.0000E+00  0.0000
   6.0168E+01   6.1632E+01   0.0000E+00  0.0000
   6.1632E+01   6.3131E+01   0.0000E+00  0.0000
   6.3131E+01   6.4667E+01   0.0000E+00  0.0000
   6.4667E+01   6.6240E+01   0.0000E+00  0.0000
   6.6240E+01   6.7852E+01   0.0000E+00  0.0000
   6.7852E+01   6.9503E+01   0.0000E+00  0.0000
   6.9503E+01   7.1194E+01   0.0000E+00  0.0000
   7.1194E+01   7.2926E+01   0.0000E+00  0.0000
   7.2926E+01   7.4701E+01   0.0000E+00  0.0000
   7.4701E+01   7.6518E+01   0.0000E+00  0.0000
   7.6518E+01   7.8380E+01   0.0000E+00  0.0000
   7.8380E+01   8.0287E+01   0.0000E+00  0.0000
   8.0287E+01   8.2240E+01   0.0000E+00  0.0000
   8.2240E+01   8.4241E+01   0.0000E+00  0.0000
   8.4241E+01   8.6291E+01   0.0000E+00  0.0000
   8.6291E+01   8.8391E+01   0.0000E+00  0.0000
   8.8391E+01   9.0541E+01   0.0000E+00  0.0000
   9.0541E+01   9.2744E+01   0.0000E+00  0.0000
   9.2744E+01   9.5001E+01   0.0000E+00  0.0000
   9.5001E+01   9.7312E+01   0.0000E+00  0.0000
   9.7312E+01   9.9680E+01   0.0000E+00  0.0000
   9.9680E+01   1.0211E+02   0.0000E+00  0.0000
   1.0211E+02   1.0459E+02   0.0000E+00  0.0000
   1.0459E+02   1.0713E+02   0.0000E+00  0.0000
   1.0713E+02   1.0974E+02   0.0000E+00  0.0000
   1.0974E+02   1.1241E+02   0.0000E+00  0.0000
   1.1241E+02   1.1515E+02   0.0000E+00  0.0000
   1.1515E+02   1.1795E+02   0.0000E+00  0.0000
   1.1795E+02   1.2082E+02   0.0000E+00  0.0000
   1.2082E+02   1.2376E+02   0.0000E+00  0.0000
   1.2376E+02   1.2677E+02   0.0000E+00  0.0000
   1.2677E+02   1.2985E+02   0.0000E+00  0.0000
   1.2985E+02   1.3301E+02   0.0000E+00  0.0000
   1.3301E+02   1.3625E+02   0.0000E+00  0.0000
   1.3625E+02   1.3956E+02   0.0000E+00  0.0000
   1.3956E+02   1.4296E+02   0.0000E+00  0.0000
   1.4296E+02   1.4644E+02   0.0000E+00  0.0000
   1.4644E+02   1.5000E+02   0.0000E+00  0.0000

#   sum over                 6.7049E-07
'no. =    1   reg = 126 - 226'
msuc: {\huge [t-cross] in region mesh}
msdr: {\it plotted by \ANGEL \version}
msdl: {\it calculated by \PHITS  3.28}
wt: s(0.7)
\vspace{-3}
  region surface crossing
  area  &=&   1.0000E+00 [cm^2]
e:
 
# Information for Restart Calculation
# This calculation was newly started
# istdev =  2 # 1:Batch variance, 2:History variance
# resc2  = 5.00000000000000000E+09 # Total source weight or Total source weight / maxcas
# resc3  = 5.00000000000000000E+09 # Total history number or Total batch number
# maxcas =   500000000 # History / Batch, only used for istdev=1
# bitrseed = 0110100000100010111000001110001111001110100100011111101000111001 # bit data of rseed
