[ T-Cross ]
    title = [t-cross] in region mesh
     mesh =  reg            # mesh type is region-wise
      reg =    1            # number of crossing regions
      non     r-from    r-to       area
      1       104       204        1.000000    
   e-type =    3            # e-mesh is log given by emin, emax and ne
     emin =  1.0000000E-02  # minimum value of e-mesh points
     emax =   150.0000      # maximum value of e-mesh points
#    edel =  2.4039514E-02  # mesh width of e-mesh points
       ne =    400          # number of e-mesh points
#    data = ( e(i), i = 1, ne + 1 )
#           1.00000E-02  1.02433E-02  1.04925E-02  1.07478E-02  1.10093E-02
#           1.12772E-02  1.15516E-02  1.18326E-02  1.21205E-02  1.24154E-02
#           1.27175E-02  1.30269E-02  1.33439E-02  1.36686E-02  1.40011E-02
#           1.43418E-02  1.46907E-02  1.50482E-02  1.54143E-02  1.57894E-02
#           1.61735E-02  1.65670E-02  1.69701E-02  1.73830E-02  1.78060E-02
#           1.82392E-02  1.86830E-02  1.91375E-02  1.96032E-02  2.00801E-02
#           2.05687E-02  2.10692E-02  2.15818E-02  2.21069E-02  2.26448E-02
#           2.31957E-02  2.37601E-02  2.43382E-02  2.49304E-02  2.55369E-02
#           2.61583E-02  2.67947E-02  2.74467E-02  2.81145E-02  2.87985E-02
#           2.94992E-02  3.02169E-02  3.09521E-02  3.17052E-02  3.24766E-02
#           3.32668E-02  3.40762E-02  3.49053E-02  3.57546E-02  3.66246E-02
#           3.75157E-02  3.84284E-02  3.93634E-02  4.03212E-02  4.13022E-02
#           4.23071E-02  4.33365E-02  4.43909E-02  4.54710E-02  4.65773E-02
#           4.77106E-02  4.88714E-02  5.00605E-02  5.12785E-02  5.25262E-02
#           5.38042E-02  5.51133E-02  5.64542E-02  5.78278E-02  5.92348E-02
#           6.06760E-02  6.21523E-02  6.36645E-02  6.52135E-02  6.68002E-02
#           6.84255E-02  7.00904E-02  7.17957E-02  7.35426E-02  7.53319E-02
#           7.71648E-02  7.90423E-02  8.09655E-02  8.29354E-02  8.49533E-02
#           8.70203E-02  8.91376E-02  9.13064E-02  9.35279E-02  9.58035E-02
#           9.81345E-02  1.00522E-01  1.02968E-01  1.05473E-01  1.08040E-01
#           1.10668E-01  1.13361E-01  1.16119E-01  1.18944E-01  1.21838E-01
#           1.24803E-01  1.27839E-01  1.30950E-01  1.34136E-01  1.37399E-01
#           1.40742E-01  1.44167E-01  1.47675E-01  1.51268E-01  1.54948E-01
#           1.58718E-01  1.62580E-01  1.66535E-01  1.70587E-01  1.74738E-01
#           1.78989E-01  1.83344E-01  1.87805E-01  1.92375E-01  1.97055E-01
#           2.01850E-01  2.06761E-01  2.11792E-01  2.16945E-01  2.22223E-01
#           2.27630E-01  2.33169E-01  2.38842E-01  2.44653E-01  2.50605E-01
#           2.56703E-01  2.62949E-01  2.69346E-01  2.75900E-01  2.82613E-01
#           2.89489E-01  2.96532E-01  3.03747E-01  3.11138E-01  3.18708E-01
#           3.26462E-01  3.34405E-01  3.42542E-01  3.50876E-01  3.59413E-01
#           3.68158E-01  3.77116E-01  3.86291E-01  3.95690E-01  4.05317E-01
#           4.15179E-01  4.25281E-01  4.35628E-01  4.46227E-01  4.57084E-01
#           4.68205E-01  4.79597E-01  4.91266E-01  5.03219E-01  5.15463E-01
#           5.28005E-01  5.40851E-01  5.54011E-01  5.67490E-01  5.81298E-01
#           5.95441E-01  6.09929E-01  6.24769E-01  6.39970E-01  6.55541E-01
#           6.71491E-01  6.87828E-01  7.04564E-01  7.21706E-01  7.39266E-01
#           7.57253E-01  7.75678E-01  7.94551E-01  8.13883E-01  8.33685E-01
#           8.53969E-01  8.74747E-01  8.96030E-01  9.17831E-01  9.40163E-01
#           9.63038E-01  9.86469E-01  1.01047E+00  1.03506E+00  1.06024E+00
#           1.08604E+00  1.11246E+00  1.13953E+00  1.16725E+00  1.19565E+00
#           1.22474E+00  1.25454E+00  1.28507E+00  1.31633E+00  1.34836E+00
#           1.38117E+00  1.41477E+00  1.44920E+00  1.48446E+00  1.52057E+00
#           1.55757E+00  1.59547E+00  1.63429E+00  1.67405E+00  1.71478E+00
#           1.75650E+00  1.79924E+00  1.84302E+00  1.88786E+00  1.93379E+00
#           1.98084E+00  2.02904E+00  2.07841E+00  2.12898E+00  2.18078E+00
#           2.23384E+00  2.28819E+00  2.34386E+00  2.40089E+00  2.45930E+00
#           2.51914E+00  2.58043E+00  2.64322E+00  2.70753E+00  2.77341E+00
#           2.84088E+00  2.91001E+00  2.98081E+00  3.05333E+00  3.12762E+00
#           3.20372E+00  3.28167E+00  3.36152E+00  3.44330E+00  3.52708E+00
#           3.61290E+00  3.70080E+00  3.79085E+00  3.88308E+00  3.97756E+00
#           4.07434E+00  4.17347E+00  4.27501E+00  4.37903E+00  4.48557E+00
#           4.59471E+00  4.70650E+00  4.82102E+00  4.93832E+00  5.05847E+00
#           5.18155E+00  5.30762E+00  5.43676E+00  5.56904E+00  5.70453E+00
#           5.84333E+00  5.98550E+00  6.13114E+00  6.28031E+00  6.43312E+00
#           6.58964E+00  6.74997E+00  6.91420E+00  7.08243E+00  7.25475E+00
#           7.43126E+00  7.61207E+00  7.79728E+00  7.98700E+00  8.18133E+00
#           8.38038E+00  8.58428E+00  8.79315E+00  9.00709E+00  9.22624E+00
#           9.45072E+00  9.68067E+00  9.91620E+00  1.01575E+01  1.04046E+01
#           1.06578E+01  1.09171E+01  1.11827E+01  1.14548E+01  1.17335E+01
#           1.20190E+01  1.23114E+01  1.26109E+01  1.29178E+01  1.32321E+01
#           1.35540E+01  1.38838E+01  1.42216E+01  1.45676E+01  1.49221E+01
#           1.52851E+01  1.56570E+01  1.60380E+01  1.64282E+01  1.68279E+01
#           1.72374E+01  1.76568E+01  1.80864E+01  1.85264E+01  1.89772E+01
#           1.94389E+01  1.99119E+01  2.03963E+01  2.08926E+01  2.14009E+01
#           2.19216E+01  2.24550E+01  2.30014E+01  2.35610E+01  2.41343E+01
#           2.47215E+01  2.53230E+01  2.59391E+01  2.65702E+01  2.72167E+01
#           2.78789E+01  2.85572E+01  2.92520E+01  2.99637E+01  3.06928E+01
#           3.14396E+01  3.22045E+01  3.29881E+01  3.37907E+01  3.46128E+01
#           3.54550E+01  3.63177E+01  3.72013E+01  3.81064E+01  3.90336E+01
#           3.99833E+01  4.09561E+01  4.19526E+01  4.29734E+01  4.40189E+01
#           4.50900E+01  4.61870E+01  4.73108E+01  4.84619E+01  4.96410E+01
#           5.08488E+01  5.20860E+01  5.33533E+01  5.46514E+01  5.59812E+01
#           5.73432E+01  5.87384E+01  6.01676E+01  6.16315E+01  6.31311E+01
#           6.46671E+01  6.62405E+01  6.78522E+01  6.95031E+01  7.11941E+01
#           7.29263E+01  7.47007E+01  7.65182E+01  7.83800E+01  8.02870E+01
#           8.22405E+01  8.42414E+01  8.62911E+01  8.83906E+01  9.05412E+01
#           9.27442E+01  9.50007E+01  9.73122E+01  9.96799E+01  1.02105E+02
#           1.04589E+02  1.07134E+02  1.09741E+02  1.12411E+02  1.15146E+02
#           1.17948E+02  1.20817E+02  1.23757E+02  1.26768E+02  1.29852E+02
#           1.33012E+02  1.36248E+02  1.39563E+02  1.42959E+02  1.46437E+02
#           1.50000E+02
     unit =    2            # unit is [1/cm^2/(MeV/n)/source]
     axis =  eng            # axis of output
     file = detector-05.out  # file name of output for the above axis
   output = f-curr          # surface crossing forward current spectrum
     part =  neutron  
# kf/name :  2112     
#    used :        main (  %)        temp (  %)       total (  %)
#  memory :         414 (  0)           0 (  0)         414 (  0)

#------------------------------------------------------------------------------
#newpage:
#   no. =    1   reg = 104 - 204

x: Energy [MeV/n]
y:  F-Curr [1/cm^2/(MeV/n)/source]         
p: xlog ylog afac(0.8) form(0.9)
h: n            x            y(neutron ),hh0l   n 
#  e-lower      e-upper      neutron     r.err 
   1.0000E-02   1.0243E-02   4.9906E-04  0.0404
   1.0243E-02   1.0493E-02   5.1390E-04  0.0393
   1.0493E-02   1.0748E-02   4.5663E-04  0.0412
   1.0748E-02   1.1009E-02   4.6133E-04  0.0406
   1.1009E-02   1.1277E-02   4.8574E-04  0.0390
   1.1277E-02   1.1552E-02   4.5119E-04  0.0400
   1.1552E-02   1.1833E-02   4.1224E-04  0.0413
   1.1833E-02   1.2121E-02   4.3913E-04  0.0396
   1.2121E-02   1.2415E-02   4.2925E-04  0.0395
   1.2415E-02   1.2718E-02   4.1445E-04  0.0397
   1.2718E-02   1.3027E-02   3.6992E-04  0.0416
   1.3027E-02   1.3344E-02   3.8019E-04  0.0405
   1.3344E-02   1.3669E-02   3.7855E-04  0.0401
   1.3669E-02   1.4001E-02   3.7268E-04  0.0400
   1.4001E-02   1.4342E-02   3.5127E-04  0.0406
   1.4342E-02   1.4691E-02   3.5303E-04  0.0401
   1.4691E-02   1.5048E-02   3.5139E-04  0.0398
   1.5048E-02   1.5414E-02   3.3258E-04  0.0403
   1.5414E-02   1.5789E-02   3.4557E-04  0.0391
   1.5789E-02   1.6174E-02   3.2953E-04  0.0396
   1.6174E-02   1.6567E-02   3.2925E-04  0.0390
   1.6567E-02   1.6970E-02   2.9189E-04  0.0410
   1.6970E-02   1.7383E-02   3.0432E-04  0.0396
   1.7383E-02   1.7806E-02   2.9246E-04  0.0400
   1.7806E-02   1.8239E-02   2.8205E-04  0.0402
   1.8239E-02   1.8683E-02   2.9055E-04  0.0391
   1.8683E-02   1.9138E-02   2.4943E-04  0.0417
   1.9138E-02   1.9603E-02   2.5885E-04  0.0405
   1.9603E-02   2.0080E-02   2.6776E-04  0.0394
   2.0080E-02   2.0569E-02   2.5613E-04  0.0398
   2.0569E-02   2.1069E-02   2.5332E-04  0.0395
   2.1069E-02   2.1582E-02   2.1490E-04  0.0424
   2.1582E-02   2.2107E-02   2.3373E-04  0.0401
   2.2107E-02   2.2645E-02   2.1954E-04  0.0409
   2.2645E-02   2.3196E-02   2.3372E-04  0.0391
   2.3196E-02   2.3760E-02   2.1742E-04  0.0401
   2.3760E-02   2.4338E-02   2.1696E-04  0.0397
   2.4338E-02   2.4930E-02   2.1835E-04  0.0391
   2.4930E-02   2.5537E-02   2.0170E-04  0.0402
   2.5537E-02   2.6158E-02   1.8852E-04  0.0411
   2.6158E-02   2.6795E-02   1.7517E-04  0.0420
   2.6795E-02   2.7447E-02   1.8760E-04  0.0402
   2.7447E-02   2.8114E-02   1.8946E-04  0.0395
   2.8114E-02   2.8799E-02   1.7660E-04  0.0405
   2.8799E-02   2.9499E-02   1.7239E-04  0.0404
   2.9499E-02   3.0217E-02   1.5743E-04  0.0419
   3.0217E-02   3.0952E-02   1.5823E-04  0.0412
   3.0952E-02   3.1705E-02   1.6479E-04  0.0399
   3.1705E-02   3.2477E-02   1.5942E-04  0.0401
   3.2477E-02   3.3267E-02   1.6449E-04  0.0391
   3.3267E-02   3.4076E-02   1.4988E-04  0.0404
   3.4076E-02   3.4905E-02   1.5025E-04  0.0398
   3.4905E-02   3.5755E-02   1.4059E-04  0.0407
   3.5755E-02   3.6625E-02   1.4826E-04  0.0391
   3.6625E-02   3.7516E-02   1.3948E-04  0.0398
   3.7516E-02   3.8428E-02   1.3286E-04  0.0404
   3.8428E-02   3.9363E-02   1.4087E-04  0.0387
   3.9363E-02   4.0321E-02   1.2462E-04  0.0407
   4.0321E-02   4.1302E-02   1.3003E-04  0.0394
   4.1302E-02   4.2307E-02   1.1198E-04  0.0418
   4.2307E-02   4.3337E-02   1.2076E-04  0.0399
   4.3337E-02   4.4391E-02   1.0737E-04  0.0417
   4.4391E-02   4.5471E-02   1.0999E-04  0.0407
   4.5471E-02   4.6577E-02   1.0870E-04  0.0406
   4.6577E-02   4.7711E-02   1.0875E-04  0.0401
   4.7711E-02   4.8871E-02   1.0395E-04  0.0404
   4.8871E-02   5.0061E-02   9.6052E-05  0.0417
   5.0061E-02   5.1279E-02   1.0372E-04  0.0395
   5.1279E-02   5.2526E-02   1.0407E-04  0.0391
   5.2526E-02   5.3804E-02   1.0189E-04  0.0390
   5.3804E-02   5.5113E-02   9.1591E-05  0.0406
   5.5113E-02   5.6454E-02   8.5928E-05  0.0414
   5.6454E-02   5.7828E-02   9.1386E-05  0.0397
   5.7828E-02   5.9235E-02   8.2795E-05  0.0412
   5.9235E-02   6.0676E-02   8.0536E-05  0.0413
   6.0676E-02   6.2152E-02   8.7720E-05  0.0391
   6.2152E-02   6.3665E-02   8.2396E-05  0.0398
   6.3665E-02   6.5214E-02   8.0024E-05  0.0399
   6.5214E-02   6.6800E-02   7.9637E-05  0.0395
   6.6800E-02   6.8426E-02   7.0321E-05  0.0415
   6.8426E-02   7.0090E-02   7.3726E-05  0.0401
   7.0090E-02   7.1796E-02   6.9026E-05  0.0410
   7.1796E-02   7.3543E-02   7.0570E-05  0.0400
   7.3543E-02   7.5332E-02   6.7958E-05  0.0403
   7.5332E-02   7.7165E-02   6.5464E-05  0.0406
   7.7165E-02   7.9042E-02   6.1760E-05  0.0412
   7.9042E-02   8.0965E-02   6.6193E-05  0.0394
   8.0965E-02   8.2935E-02   6.5051E-05  0.0392
   8.2935E-02   8.4953E-02   6.3562E-05  0.0393
   8.4953E-02   8.7020E-02   5.7980E-05  0.0406
   8.7020E-02   8.9138E-02   5.6922E-05  0.0405
   8.9138E-02   9.1306E-02   6.0272E-05  0.0388
   9.1306E-02   9.3528E-02   5.8186E-05  0.0391
   9.3528E-02   9.5804E-02   5.7008E-05  0.0390
   9.5804E-02   9.8134E-02   5.4685E-05  0.0393
   9.8134E-02   1.0052E-01   5.0780E-05  0.0404
   1.0052E-01   1.0297E-01   5.0827E-05  0.0398
   1.0297E-01   1.0547E-01   5.1876E-05  0.0390
   1.0547E-01   1.0804E-01   4.8943E-05  0.0397
   1.0804E-01   1.1067E-01   5.0777E-05  0.0384
   1.1067E-01   1.1336E-01   4.8499E-05  0.0389
   1.1336E-01   1.1612E-01   4.6837E-05  0.0390
   1.1612E-01   1.1894E-01   4.4783E-05  0.0394
   1.1894E-01   1.2184E-01   4.5017E-05  0.0389
   1.2184E-01   1.2480E-01   4.4767E-05  0.0386
   1.2480E-01   1.2784E-01   4.4228E-05  0.0384
   1.2784E-01   1.3095E-01   4.0088E-05  0.0398
   1.3095E-01   1.3414E-01   4.0876E-05  0.0389
   1.3414E-01   1.3740E-01   4.0257E-05  0.0387
   1.3740E-01   1.4074E-01   3.8486E-05  0.0392
   1.4074E-01   1.4417E-01   3.8547E-05  0.0386
   1.4417E-01   1.4767E-01   3.9159E-05  0.0379
   1.4767E-01   1.5127E-01   3.9295E-05  0.0374
   1.5127E-01   1.5495E-01   3.6409E-05  0.0384
   1.5495E-01   1.5872E-01   3.6343E-05  0.0379
   1.5872E-01   1.6258E-01   3.4354E-05  0.0386
   1.6258E-01   1.6654E-01   3.4496E-05  0.0380
   1.6654E-01   1.7059E-01   3.3672E-05  0.0381
   1.7059E-01   1.7474E-01   3.4748E-05  0.0370
   1.7474E-01   1.7899E-01   3.4858E-05  0.0365
   1.7899E-01   1.8334E-01   3.2873E-05  0.0371
   1.8334E-01   1.8781E-01   3.1608E-05  0.0374
   1.8781E-01   1.9237E-01   3.2701E-05  0.0363
   1.9237E-01   1.9706E-01   3.1100E-05  0.0369
   1.9706E-01   2.0185E-01   3.2586E-05  0.0356
   2.0185E-01   2.0676E-01   3.3411E-05  0.0347
   2.0676E-01   2.1179E-01   3.3817E-05  0.0341
   2.1179E-01   2.1694E-01   3.5953E-05  0.0326
   2.1694E-01   2.2222E-01   3.7656E-05  0.0315
   2.2222E-01   2.2763E-01   3.9435E-05  0.0305
   2.2763E-01   2.3317E-01   3.8430E-05  0.0304
   2.3317E-01   2.3884E-01   4.0797E-05  0.0292
   2.3884E-01   2.4465E-01   4.3319E-05  0.0280
   2.4465E-01   2.5061E-01   4.7440E-05  0.0265
   2.5061E-01   2.5670E-01   4.8466E-05  0.0259
   2.5670E-01   2.6295E-01   5.0372E-05  0.0251
   2.6295E-01   2.6935E-01   5.3072E-05  0.0241
   2.6935E-01   2.7590E-01   5.3423E-05  0.0238
   2.7590E-01   2.8261E-01   5.4549E-05  0.0232
   2.8261E-01   2.8949E-01   5.9614E-05  0.0220
   2.8949E-01   2.9653E-01   5.9213E-05  0.0218
   2.9653E-01   3.0375E-01   6.4955E-05  0.0206
   3.0375E-01   3.1114E-01   6.7834E-05  0.0199
   3.1114E-01   3.1871E-01   7.0147E-05  0.0193
   3.1871E-01   3.2646E-01   6.9758E-05  0.0191
   3.2646E-01   3.3441E-01   7.5928E-05  0.0181
   3.3441E-01   3.4254E-01   7.7296E-05  0.0177
   3.4254E-01   3.5088E-01   7.7710E-05  0.0175
   3.5088E-01   3.5941E-01   8.2299E-05  0.0168
   3.5941E-01   3.6816E-01   8.4281E-05  0.0164
   3.6816E-01   3.7712E-01   8.6070E-05  0.0160
   3.7712E-01   3.8629E-01   9.2074E-05  0.0153
   3.8629E-01   3.9569E-01   9.4719E-05  0.0149
   3.9569E-01   4.0532E-01   9.9234E-05  0.0144
   4.0532E-01   4.1518E-01   1.0368E-04  0.0139
   4.1518E-01   4.2528E-01   1.0290E-04  0.0138
   4.2528E-01   4.3563E-01   1.0936E-04  0.0132
   4.3563E-01   4.4623E-01   1.1027E-04  0.0130
   4.4623E-01   4.5708E-01   1.1705E-04  0.0125
   4.5708E-01   4.6821E-01   1.1179E-04  0.0126
   4.6821E-01   4.7960E-01   1.2227E-04  0.0119
   4.7960E-01   4.9127E-01   1.2945E-04  0.0115
   4.9127E-01   5.0322E-01   1.2981E-04  0.0113
   5.0322E-01   5.1546E-01   1.3126E-04  0.0111
   5.1546E-01   5.2800E-01   1.3770E-04  0.0107
   5.2800E-01   5.4085E-01   1.3908E-04  0.0105
   5.4085E-01   5.5401E-01   1.4269E-04  0.0103
   5.5401E-01   5.6749E-01   1.4652E-04  0.0100
   5.6749E-01   5.8130E-01   1.4936E-04  0.0098
   5.8130E-01   5.9544E-01   1.5179E-04  0.0096
   5.9544E-01   6.0993E-01   1.5466E-04  0.0094
   6.0993E-01   6.2477E-01   1.5926E-04  0.0092
   6.2477E-01   6.3997E-01   1.6152E-04  0.0090
   6.3997E-01   6.5554E-01   1.6151E-04  0.0089
   6.5554E-01   6.7149E-01   1.6688E-04  0.0086
   6.7149E-01   6.8783E-01   1.7027E-04  0.0084
   6.8783E-01   7.0456E-01   1.7091E-04  0.0083
   7.0456E-01   7.2171E-01   1.7353E-04  0.0082
   7.2171E-01   7.3927E-01   1.7427E-04  0.0081
   7.3927E-01   7.5725E-01   1.7530E-04  0.0079
   7.5725E-01   7.7568E-01   1.7553E-04  0.0078
   7.7568E-01   7.9455E-01   1.8103E-04  0.0076
   7.9455E-01   8.1388E-01   1.8104E-04  0.0075
   8.1388E-01   8.3368E-01   1.8145E-04  0.0074
   8.3368E-01   8.5397E-01   1.8307E-04  0.0073
   8.5397E-01   8.7475E-01   1.8826E-04  0.0071
   8.7475E-01   8.9603E-01   1.8804E-04  0.0070
   8.9603E-01   9.1783E-01   1.8586E-04  0.0070
   9.1783E-01   9.4016E-01   1.8895E-04  0.0069
   9.4016E-01   9.6304E-01   1.9016E-04  0.0068
   9.6304E-01   9.8647E-01   1.9088E-04  0.0067
   9.8647E-01   1.0105E+00   1.9288E-04  0.0066
   1.0105E+00   1.0351E+00   1.9322E-04  0.0065
   1.0351E+00   1.0602E+00   1.9147E-04  0.0064
   1.0602E+00   1.0860E+00   1.8820E-04  0.0064
   1.0860E+00   1.1125E+00   1.8766E-04  0.0063
   1.1125E+00   1.1395E+00   1.8678E-04  0.0063
   1.1395E+00   1.1673E+00   1.8601E-04  0.0062
   1.1673E+00   1.1957E+00   1.8962E-04  0.0061
   1.1957E+00   1.2247E+00   1.8974E-04  0.0060
   1.2247E+00   1.2545E+00   1.8609E-04  0.0060
   1.2545E+00   1.2851E+00   1.8680E-04  0.0059
   1.2851E+00   1.3163E+00   1.8679E-04  0.0058
   1.3163E+00   1.3484E+00   1.8569E-04  0.0058
   1.3484E+00   1.3812E+00   1.8493E-04  0.0057
   1.3812E+00   1.4148E+00   1.8545E-04  0.0056
   1.4148E+00   1.4492E+00   1.8659E-04  0.0056
   1.4492E+00   1.4845E+00   1.8682E-04  0.0055
   1.4845E+00   1.5206E+00   1.8615E-04  0.0054
   1.5206E+00   1.5576E+00   1.8658E-04  0.0054
   1.5576E+00   1.5955E+00   1.8447E-04  0.0053
   1.5955E+00   1.6343E+00   1.8366E-04  0.0053
   1.6343E+00   1.6741E+00   1.8306E-04  0.0052
   1.6741E+00   1.7148E+00   1.8112E-04  0.0052
   1.7148E+00   1.7565E+00   1.8173E-04  0.0051
   1.7565E+00   1.7992E+00   1.8216E-04  0.0050
   1.7992E+00   1.8430E+00   1.8209E-04  0.0050
   1.8430E+00   1.8879E+00   1.8291E-04  0.0049
   1.8879E+00   1.9338E+00   1.8253E-04  0.0049
   1.9338E+00   1.9808E+00   1.8294E-04  0.0048
   1.9808E+00   2.0290E+00   1.8207E-04  0.0048
   2.0290E+00   2.0784E+00   1.8155E-04  0.0047
   2.0784E+00   2.1290E+00   1.7925E-04  0.0047
   2.1290E+00   2.1808E+00   1.8079E-04  0.0046
   2.1808E+00   2.2338E+00   1.8004E-04  0.0046
   2.2338E+00   2.2882E+00   1.7767E-04  0.0045
   2.2882E+00   2.3439E+00   1.7732E-04  0.0045
   2.3439E+00   2.4009E+00   1.7724E-04  0.0044
   2.4009E+00   2.4593E+00   1.7775E-04  0.0044
   2.4593E+00   2.5191E+00   1.7712E-04  0.0043
   2.5191E+00   2.5804E+00   1.7723E-04  0.0043
   2.5804E+00   2.6432E+00   1.7518E-04  0.0042
   2.6432E+00   2.7075E+00   1.7478E-04  0.0042
   2.7075E+00   2.7734E+00   1.7406E-04  0.0042
   2.7734E+00   2.8409E+00   1.7187E-04  0.0041
   2.8409E+00   2.9100E+00   1.7077E-04  0.0041
   2.9100E+00   2.9808E+00   1.7226E-04  0.0040
   2.9808E+00   3.0533E+00   1.7203E-04  0.0040
   3.0533E+00   3.1276E+00   1.6965E-04  0.0040
   3.1276E+00   3.2037E+00   1.7046E-04  0.0039
   3.2037E+00   3.2817E+00   1.7025E-04  0.0039
   3.2817E+00   3.3615E+00   1.6927E-04  0.0038
   3.3615E+00   3.4433E+00   1.6976E-04  0.0038
   3.4433E+00   3.5271E+00   1.6829E-04  0.0038
   3.5271E+00   3.6129E+00   1.6787E-04  0.0037
   3.6129E+00   3.7008E+00   1.6635E-04  0.0037
   3.7008E+00   3.7908E+00   1.6637E-04  0.0036
   3.7908E+00   3.8831E+00   1.6606E-04  0.0036
   3.8831E+00   3.9776E+00   1.6487E-04  0.0036
   3.9776E+00   4.0743E+00   1.6564E-04  0.0035
   4.0743E+00   4.1735E+00   1.6740E-04  0.0035
   4.1735E+00   4.2750E+00   1.6616E-04  0.0034
   4.2750E+00   4.3790E+00   1.6636E-04  0.0034
   4.3790E+00   4.4856E+00   1.6627E-04  0.0034
   4.4856E+00   4.5947E+00   1.6602E-04  0.0033
   4.5947E+00   4.7065E+00   1.6652E-04  0.0033
   4.7065E+00   4.8210E+00   1.6597E-04  0.0032
   4.8210E+00   4.9383E+00   1.6625E-04  0.0032
   4.9383E+00   5.0585E+00   1.6706E-04  0.0032
   5.0585E+00   5.1815E+00   1.6691E-04  0.0031
   5.1815E+00   5.3076E+00   1.6817E-04  0.0031
   5.3076E+00   5.4368E+00   1.6788E-04  0.0030
   5.4368E+00   5.5690E+00   1.6852E-04  0.0030
   5.5690E+00   5.7045E+00   1.6672E-04  0.0030
   5.7045E+00   5.8433E+00   1.6839E-04  0.0029
   5.8433E+00   5.9855E+00   1.6846E-04  0.0029
   5.9855E+00   6.1311E+00   1.6906E-04  0.0028
   6.1311E+00   6.2803E+00   1.7034E-04  0.0028
   6.2803E+00   6.4331E+00   1.6936E-04  0.0028
   6.4331E+00   6.5896E+00   1.7111E-04  0.0027
   6.5896E+00   6.7500E+00   1.7176E-04  0.0027
   6.7500E+00   6.9142E+00   1.7214E-04  0.0027
   6.9142E+00   7.0824E+00   1.7305E-04  0.0026
   7.0824E+00   7.2548E+00   1.7305E-04  0.0026
   7.2548E+00   7.4313E+00   1.7570E-04  0.0025
   7.4313E+00   7.6121E+00   1.7602E-04  0.0025
   7.6121E+00   7.7973E+00   1.7756E-04  0.0025
   7.7973E+00   7.9870E+00   1.7880E-04  0.0024
   7.9870E+00   8.1813E+00   1.7961E-04  0.0024
   8.1813E+00   8.3804E+00   1.8109E-04  0.0024
   8.3804E+00   8.5843E+00   1.8350E-04  0.0023
   8.5843E+00   8.7931E+00   1.8448E-04  0.0023
   8.7931E+00   9.0071E+00   1.8670E-04  0.0022
   9.0071E+00   9.2262E+00   1.8842E-04  0.0022
   9.2262E+00   9.4507E+00   1.9092E-04  0.0022
   9.4507E+00   9.6807E+00   1.9284E-04  0.0021
   9.6807E+00   9.9162E+00   1.9514E-04  0.0021
   9.9162E+00   1.0157E+01   1.9711E-04  0.0021
   1.0157E+01   1.0405E+01   1.9992E-04  0.0020
   1.0405E+01   1.0658E+01   2.0178E-04  0.0020
   1.0658E+01   1.0917E+01   2.0375E-04  0.0019
   1.0917E+01   1.1183E+01   2.0602E-04  0.0019
   1.1183E+01   1.1455E+01   2.0791E-04  0.0019
   1.1455E+01   1.1733E+01   2.1076E-04  0.0018
   1.1733E+01   1.2019E+01   2.1305E-04  0.0018
   1.2019E+01   1.2311E+01   2.1549E-04  0.0018
   1.2311E+01   1.2611E+01   2.1806E-04  0.0017
   1.2611E+01   1.2918E+01   2.1936E-04  0.0017
   1.2918E+01   1.3232E+01   2.2096E-04  0.0017
   1.3232E+01   1.3554E+01   2.2298E-04  0.0017
   1.3554E+01   1.3884E+01   2.2408E-04  0.0016
   1.3884E+01   1.4222E+01   2.2650E-04  0.0016
   1.4222E+01   1.4568E+01   2.2680E-04  0.0016
   1.4568E+01   1.4922E+01   2.2813E-04  0.0016
   1.4922E+01   1.5285E+01   2.2916E-04  0.0016
   1.5285E+01   1.5657E+01   2.2977E-04  0.0015
   1.5657E+01   1.6038E+01   2.2949E-04  0.0015
   1.6038E+01   1.6428E+01   2.2944E-04  0.0015
   1.6428E+01   1.6828E+01   2.2792E-04  0.0015
   1.6828E+01   1.7237E+01   2.2732E-04  0.0015
   1.7237E+01   1.7657E+01   2.2561E-04  0.0015
   1.7657E+01   1.8086E+01   2.2352E-04  0.0014
   1.8086E+01   1.8526E+01   2.2078E-04  0.0014
   1.8526E+01   1.8977E+01   2.1745E-04  0.0014
   1.8977E+01   1.9439E+01   2.1382E-04  0.0014
   1.9439E+01   1.9912E+01   2.0997E-04  0.0014
   1.9912E+01   2.0396E+01   2.0949E-04  0.0014
   2.0396E+01   2.0893E+01   2.0455E-04  0.0014
   2.0893E+01   2.1401E+01   1.9849E-04  0.0014
   2.1401E+01   2.1922E+01   1.9203E-04  0.0014
   2.1922E+01   2.2455E+01   1.8509E-04  0.0014
   2.2455E+01   2.3001E+01   1.7715E-04  0.0014
   2.3001E+01   2.3561E+01   1.6987E-04  0.0015
   2.3561E+01   2.4134E+01   1.6094E-04  0.0015
   2.4134E+01   2.4721E+01   1.5330E-04  0.0015
   2.4721E+01   2.5323E+01   1.4536E-04  0.0015
   2.5323E+01   2.5939E+01   1.3713E-04  0.0015
   2.5939E+01   2.6570E+01   1.2860E-04  0.0016
   2.6570E+01   2.7217E+01   1.2045E-04  0.0016
   2.7217E+01   2.7879E+01   1.1185E-04  0.0016
   2.7879E+01   2.8557E+01   1.0374E-04  0.0017
   2.8557E+01   2.9252E+01   9.5001E-05  0.0017
   2.9252E+01   2.9964E+01   8.5800E-05  0.0018
   2.9964E+01   3.0693E+01   7.8037E-05  0.0019
   3.0693E+01   3.1440E+01   7.0532E-05  0.0019
   3.1440E+01   3.2205E+01   6.3678E-05  0.0020
   3.2205E+01   3.2988E+01   5.7045E-05  0.0021
   3.2988E+01   3.3791E+01   5.1194E-05  0.0022
   3.3791E+01   3.4613E+01   4.5915E-05  0.0023
   3.4613E+01   3.5455E+01   4.1224E-05  0.0024
   3.5455E+01   3.6318E+01   3.6923E-05  0.0025
   3.6318E+01   3.7201E+01   3.3170E-05  0.0026
   3.7201E+01   3.8106E+01   2.9704E-05  0.0027
   3.8106E+01   3.9034E+01   2.6836E-05  0.0028
   3.9034E+01   3.9983E+01   2.4166E-05  0.0030
   3.9983E+01   4.0956E+01   2.1892E-05  0.0031
   4.0956E+01   4.1953E+01   1.9926E-05  0.0032
   4.1953E+01   4.2973E+01   1.8285E-05  0.0033
   4.2973E+01   4.4019E+01   1.6852E-05  0.0034
   4.4019E+01   4.5090E+01   1.5587E-05  0.0035
   4.5090E+01   4.6187E+01   1.4514E-05  0.0035
   4.6187E+01   4.7311E+01   1.2778E-05  0.0037
   4.7311E+01   4.8462E+01   9.8811E-06  0.0042
   4.8462E+01   4.9641E+01   7.0583E-06  0.0049
   4.9641E+01   5.0849E+01   4.6329E-06  0.0060
   5.0849E+01   5.2086E+01   2.4268E-06  0.0082
   5.2086E+01   5.3353E+01   6.0680E-07  0.0161
   5.3353E+01   5.4651E+01   6.7790E-09  0.1508
   5.4651E+01   5.5981E+01   0.0000E+00  0.0000
   5.5981E+01   5.7343E+01   0.0000E+00  0.0000
   5.7343E+01   5.8738E+01   0.0000E+00  0.0000
   5.8738E+01   6.0168E+01   0.0000E+00  0.0000
   6.0168E+01   6.1632E+01   0.0000E+00  0.0000
   6.1632E+01   6.3131E+01   0.0000E+00  0.0000
   6.3131E+01   6.4667E+01   0.0000E+00  0.0000
   6.4667E+01   6.6240E+01   0.0000E+00  0.0000
   6.6240E+01   6.7852E+01   0.0000E+00  0.0000
   6.7852E+01   6.9503E+01   0.0000E+00  0.0000
   6.9503E+01   7.1194E+01   0.0000E+00  0.0000
   7.1194E+01   7.2926E+01   0.0000E+00  0.0000
   7.2926E+01   7.4701E+01   0.0000E+00  0.0000
   7.4701E+01   7.6518E+01   0.0000E+00  0.0000
   7.6518E+01   7.8380E+01   0.0000E+00  0.0000
   7.8380E+01   8.0287E+01   0.0000E+00  0.0000
   8.0287E+01   8.2240E+01   0.0000E+00  0.0000
   8.2240E+01   8.4241E+01   0.0000E+00  0.0000
   8.4241E+01   8.6291E+01   0.0000E+00  0.0000
   8.6291E+01   8.8391E+01   0.0000E+00  0.0000
   8.8391E+01   9.0541E+01   0.0000E+00  0.0000
   9.0541E+01   9.2744E+01   0.0000E+00  0.0000
   9.2744E+01   9.5001E+01   0.0000E+00  0.0000
   9.5001E+01   9.7312E+01   0.0000E+00  0.0000
   9.7312E+01   9.9680E+01   0.0000E+00  0.0000
   9.9680E+01   1.0211E+02   0.0000E+00  0.0000
   1.0211E+02   1.0459E+02   0.0000E+00  0.0000
   1.0459E+02   1.0713E+02   0.0000E+00  0.0000
   1.0713E+02   1.0974E+02   0.0000E+00  0.0000
   1.0974E+02   1.1241E+02   0.0000E+00  0.0000
   1.1241E+02   1.1515E+02   0.0000E+00  0.0000
   1.1515E+02   1.1795E+02   0.0000E+00  0.0000
   1.1795E+02   1.2082E+02   0.0000E+00  0.0000
   1.2082E+02   1.2376E+02   0.0000E+00  0.0000
   1.2376E+02   1.2677E+02   0.0000E+00  0.0000
   1.2677E+02   1.2985E+02   0.0000E+00  0.0000
   1.2985E+02   1.3301E+02   0.0000E+00  0.0000
   1.3301E+02   1.3625E+02   0.0000E+00  0.0000
   1.3625E+02   1.3956E+02   0.0000E+00  0.0000
   1.3956E+02   1.4296E+02   0.0000E+00  0.0000
   1.4296E+02   1.4644E+02   0.0000E+00  0.0000
   1.4644E+02   1.5000E+02   0.0000E+00  0.0000

#   sum over                 3.9820E-05
'no. =    1   reg = 104 - 204'
msuc: {\huge [t-cross] in region mesh}
msdr: {\it plotted by \ANGEL \version}
msdl: {\it calculated by \PHITS  3.28}
wt: s(0.7)
\vspace{-3}
  region surface crossing
  area  &=&   1.0000E+00 [cm^2]
e:
 
# Information for Restart Calculation
# This calculation was newly started
# istdev =  2 # 1:Batch variance, 2:History variance
# resc2  = 5.00000000000000000E+09 # Total source weight or Total source weight / maxcas
# resc3  = 5.00000000000000000E+09 # Total history number or Total batch number
# maxcas =   500000000 # History / Batch, only used for istdev=1
# bitrseed = 0110100000100010111000001110001111001110100100011111101000111001 # bit data of rseed
