[ T-Cross ]
    title = [t-cross] in region mesh
     mesh =  reg            # mesh type is region-wise
      reg =    1            # number of crossing regions
      non     r-from    r-to       area
      1       126       226        1.000000    
   e-type =    3            # e-mesh is log given by emin, emax and ne
     emin =  1.0000000E-02  # minimum value of e-mesh points
     emax =   150.0000      # maximum value of e-mesh points
#    edel =  2.4039514E-02  # mesh width of e-mesh points
       ne =    400          # number of e-mesh points
#    data = ( e(i), i = 1, ne + 1 )
#           1.00000E-02  1.02433E-02  1.04925E-02  1.07478E-02  1.10093E-02
#           1.12772E-02  1.15516E-02  1.18326E-02  1.21205E-02  1.24154E-02
#           1.27175E-02  1.30269E-02  1.33439E-02  1.36686E-02  1.40011E-02
#           1.43418E-02  1.46907E-02  1.50482E-02  1.54143E-02  1.57894E-02
#           1.61735E-02  1.65670E-02  1.69701E-02  1.73830E-02  1.78060E-02
#           1.82392E-02  1.86830E-02  1.91375E-02  1.96032E-02  2.00801E-02
#           2.05687E-02  2.10692E-02  2.15818E-02  2.21069E-02  2.26448E-02
#           2.31957E-02  2.37601E-02  2.43382E-02  2.49304E-02  2.55369E-02
#           2.61583E-02  2.67947E-02  2.74467E-02  2.81145E-02  2.87985E-02
#           2.94992E-02  3.02169E-02  3.09521E-02  3.17052E-02  3.24766E-02
#           3.32668E-02  3.40762E-02  3.49053E-02  3.57546E-02  3.66246E-02
#           3.75157E-02  3.84284E-02  3.93634E-02  4.03212E-02  4.13022E-02
#           4.23071E-02  4.33365E-02  4.43909E-02  4.54710E-02  4.65773E-02
#           4.77106E-02  4.88714E-02  5.00605E-02  5.12785E-02  5.25262E-02
#           5.38042E-02  5.51133E-02  5.64542E-02  5.78278E-02  5.92348E-02
#           6.06760E-02  6.21523E-02  6.36645E-02  6.52135E-02  6.68002E-02
#           6.84255E-02  7.00904E-02  7.17957E-02  7.35426E-02  7.53319E-02
#           7.71648E-02  7.90423E-02  8.09655E-02  8.29354E-02  8.49533E-02
#           8.70203E-02  8.91376E-02  9.13064E-02  9.35279E-02  9.58035E-02
#           9.81345E-02  1.00522E-01  1.02968E-01  1.05473E-01  1.08040E-01
#           1.10668E-01  1.13361E-01  1.16119E-01  1.18944E-01  1.21838E-01
#           1.24803E-01  1.27839E-01  1.30950E-01  1.34136E-01  1.37399E-01
#           1.40742E-01  1.44167E-01  1.47675E-01  1.51268E-01  1.54948E-01
#           1.58718E-01  1.62580E-01  1.66535E-01  1.70587E-01  1.74738E-01
#           1.78989E-01  1.83344E-01  1.87805E-01  1.92375E-01  1.97055E-01
#           2.01850E-01  2.06761E-01  2.11792E-01  2.16945E-01  2.22223E-01
#           2.27630E-01  2.33169E-01  2.38842E-01  2.44653E-01  2.50605E-01
#           2.56703E-01  2.62949E-01  2.69346E-01  2.75900E-01  2.82613E-01
#           2.89489E-01  2.96532E-01  3.03747E-01  3.11138E-01  3.18708E-01
#           3.26462E-01  3.34405E-01  3.42542E-01  3.50876E-01  3.59413E-01
#           3.68158E-01  3.77116E-01  3.86291E-01  3.95690E-01  4.05317E-01
#           4.15179E-01  4.25281E-01  4.35628E-01  4.46227E-01  4.57084E-01
#           4.68205E-01  4.79597E-01  4.91266E-01  5.03219E-01  5.15463E-01
#           5.28005E-01  5.40851E-01  5.54011E-01  5.67490E-01  5.81298E-01
#           5.95441E-01  6.09929E-01  6.24769E-01  6.39970E-01  6.55541E-01
#           6.71491E-01  6.87828E-01  7.04564E-01  7.21706E-01  7.39266E-01
#           7.57253E-01  7.75678E-01  7.94551E-01  8.13883E-01  8.33685E-01
#           8.53969E-01  8.74747E-01  8.96030E-01  9.17831E-01  9.40163E-01
#           9.63038E-01  9.86469E-01  1.01047E+00  1.03506E+00  1.06024E+00
#           1.08604E+00  1.11246E+00  1.13953E+00  1.16725E+00  1.19565E+00
#           1.22474E+00  1.25454E+00  1.28507E+00  1.31633E+00  1.34836E+00
#           1.38117E+00  1.41477E+00  1.44920E+00  1.48446E+00  1.52057E+00
#           1.55757E+00  1.59547E+00  1.63429E+00  1.67405E+00  1.71478E+00
#           1.75650E+00  1.79924E+00  1.84302E+00  1.88786E+00  1.93379E+00
#           1.98084E+00  2.02904E+00  2.07841E+00  2.12898E+00  2.18078E+00
#           2.23384E+00  2.28819E+00  2.34386E+00  2.40089E+00  2.45930E+00
#           2.51914E+00  2.58043E+00  2.64322E+00  2.70753E+00  2.77341E+00
#           2.84088E+00  2.91001E+00  2.98081E+00  3.05333E+00  3.12762E+00
#           3.20372E+00  3.28167E+00  3.36152E+00  3.44330E+00  3.52708E+00
#           3.61290E+00  3.70080E+00  3.79085E+00  3.88308E+00  3.97756E+00
#           4.07434E+00  4.17347E+00  4.27501E+00  4.37903E+00  4.48557E+00
#           4.59471E+00  4.70650E+00  4.82102E+00  4.93832E+00  5.05847E+00
#           5.18155E+00  5.30762E+00  5.43676E+00  5.56904E+00  5.70453E+00
#           5.84333E+00  5.98550E+00  6.13114E+00  6.28031E+00  6.43312E+00
#           6.58964E+00  6.74997E+00  6.91420E+00  7.08243E+00  7.25475E+00
#           7.43126E+00  7.61207E+00  7.79728E+00  7.98700E+00  8.18133E+00
#           8.38038E+00  8.58428E+00  8.79315E+00  9.00709E+00  9.22624E+00
#           9.45072E+00  9.68067E+00  9.91620E+00  1.01575E+01  1.04046E+01
#           1.06578E+01  1.09171E+01  1.11827E+01  1.14548E+01  1.17335E+01
#           1.20190E+01  1.23114E+01  1.26109E+01  1.29178E+01  1.32321E+01
#           1.35540E+01  1.38838E+01  1.42216E+01  1.45676E+01  1.49221E+01
#           1.52851E+01  1.56570E+01  1.60380E+01  1.64282E+01  1.68279E+01
#           1.72374E+01  1.76568E+01  1.80864E+01  1.85264E+01  1.89772E+01
#           1.94389E+01  1.99119E+01  2.03963E+01  2.08926E+01  2.14009E+01
#           2.19216E+01  2.24550E+01  2.30014E+01  2.35610E+01  2.41343E+01
#           2.47215E+01  2.53230E+01  2.59391E+01  2.65702E+01  2.72167E+01
#           2.78789E+01  2.85572E+01  2.92520E+01  2.99637E+01  3.06928E+01
#           3.14396E+01  3.22045E+01  3.29881E+01  3.37907E+01  3.46128E+01
#           3.54550E+01  3.63177E+01  3.72013E+01  3.81064E+01  3.90336E+01
#           3.99833E+01  4.09561E+01  4.19526E+01  4.29734E+01  4.40189E+01
#           4.50900E+01  4.61870E+01  4.73108E+01  4.84619E+01  4.96410E+01
#           5.08488E+01  5.20860E+01  5.33533E+01  5.46514E+01  5.59812E+01
#           5.73432E+01  5.87384E+01  6.01676E+01  6.16315E+01  6.31311E+01
#           6.46671E+01  6.62405E+01  6.78522E+01  6.95031E+01  7.11941E+01
#           7.29263E+01  7.47007E+01  7.65182E+01  7.83800E+01  8.02870E+01
#           8.22405E+01  8.42414E+01  8.62911E+01  8.83906E+01  9.05412E+01
#           9.27442E+01  9.50007E+01  9.73122E+01  9.96799E+01  1.02105E+02
#           1.04589E+02  1.07134E+02  1.09741E+02  1.12411E+02  1.15146E+02
#           1.17948E+02  1.20817E+02  1.23757E+02  1.26768E+02  1.29852E+02
#           1.33012E+02  1.36248E+02  1.39563E+02  1.42959E+02  1.46437E+02
#           1.50000E+02
     unit =    2            # unit is [1/cm^2/(MeV/n)/source]
     axis =  eng            # axis of output
     file = detector-27.out  # file name of output for the above axis
   output = f-curr          # surface crossing forward current spectrum
     part =  neutron  
# kf/name :  2112     
#    used :        main (  %)        temp (  %)       total (  %)
#  memory :         414 (  0)           0 (  0)         414 (  0)

#------------------------------------------------------------------------------
#newpage:
#   no. =    1   reg = 126 - 226

x: Energy [MeV/n]
y:  F-Curr [1/cm^2/(MeV/n)/source]         
p: xlog ylog afac(0.8) form(0.9)
h: n            x            y(neutron ),hh0l   n 
#  e-lower      e-upper      neutron     r.err 
   1.0000E-02   1.0243E-02   2.2194E-04  0.1925
   1.0243E-02   1.0493E-02   1.8590E-04  0.2071
   1.0493E-02   1.0748E-02   1.9927E-04  0.1969
   1.0748E-02   1.1009E-02   2.2003E-04  0.1850
   1.1009E-02   1.1277E-02   2.0313E-04  0.1911
   1.1277E-02   1.1552E-02   1.8952E-04  0.1961
   1.1552E-02   1.1833E-02   2.1348E-04  0.1826
   1.1833E-02   1.2121E-02   1.6082E-04  0.2073
   1.2121E-02   1.2415E-02   2.2485E-04  0.1733
   1.2415E-02   1.2718E-02   1.8877E-04  0.1844
   1.2718E-02   1.3027E-02   1.7452E-04  0.1925
   1.3027E-02   1.3344E-02   1.7147E-04  0.1913
   1.3344E-02   1.3669E-02   2.0944E-04  0.1715
   1.3669E-02   1.4001E-02   1.3230E-04  0.2132
   1.4001E-02   1.4342E-02   1.5265E-04  0.1961
   1.4342E-02   1.4691E-02   2.3499E-04  0.1562
   1.4691E-02   1.5048E-02   2.1262E-04  0.1622
   1.5048E-02   1.5414E-02   1.8026E-04  0.1741
   1.5414E-02   1.5789E-02   1.8131E-04  0.1715
   1.5789E-02   1.6174E-02   8.3297E-05  0.2500
   1.6174E-02   1.6567E-02   1.0270E-04  0.2215
   1.6567E-02   1.6970E-02   1.7984E-04  0.1657
   1.6970E-02   1.7383E-02   1.5376E-04  0.1763
   1.7383E-02   1.7806E-02   1.7496E-04  0.1644
   1.7806E-02   1.8239E-02   1.3849E-04  0.1826
   1.8239E-02   1.8683E-02   1.1718E-04  0.1961
   1.8683E-02   1.9138E-02   1.2836E-04  0.1847
   1.9138E-02   1.9603E-02   1.2027E-04  0.1890
   1.9603E-02   2.0080E-02   1.0064E-04  0.2041
   2.0080E-02   2.0569E-02   1.3608E-04  0.1730
   2.0569E-02   2.1069E-02   1.2402E-04  0.1775
   2.1069E-02   2.1582E-02   8.2533E-05  0.2167
   2.1582E-02   2.2107E-02   9.9028E-05  0.1961
   2.2107E-02   2.2645E-02   9.0684E-05  0.2012
   2.2645E-02   2.3196E-02   9.0750E-05  0.2000
   2.3196E-02   2.3760E-02   9.9966E-05  0.1877
   2.3760E-02   2.4338E-02   8.9950E-05  0.1961
   2.4338E-02   2.4930E-02   8.5348E-05  0.1982
   2.4930E-02   2.5537E-02   1.1046E-04  0.1721
   2.5537E-02   2.6158E-02   6.1749E-05  0.2274
   2.6158E-02   2.6795E-02   1.0725E-04  0.1709
   2.6795E-02   2.7447E-02   6.8308E-05  0.2110
   2.7447E-02   2.8114E-02   8.6852E-05  0.1857
   2.8114E-02   2.8799E-02   8.4789E-05  0.1857
   2.8799E-02   2.9499E-02   1.1842E-04  0.1546
   2.9499E-02   3.0217E-02   8.6382E-05  0.1796
   3.0217E-02   3.0952E-02   8.2995E-05  0.1799
   3.0952E-02   3.1705E-02   1.1420E-04  0.1525
   3.1705E-02   3.2477E-02   6.5473E-05  0.1982
   3.2477E-02   3.3267E-02   7.4056E-05  0.1843
   3.3267E-02   3.4076E-02   6.9186E-05  0.1890
   3.4076E-02   3.4905E-02   5.6722E-05  0.2045
   3.4905E-02   3.5755E-02   8.2423E-05  0.1690
   3.5755E-02   3.6625E-02   5.7475E-05  0.2000
   3.6625E-02   3.7516E-02   6.5088E-05  0.1857
   3.7516E-02   3.8428E-02   4.8204E-05  0.2132
   3.8428E-02   3.9363E-02   4.2781E-05  0.2236
   3.9363E-02   4.0321E-02   5.4294E-05  0.1961
   4.0321E-02   4.1302E-02   5.1378E-05  0.1986
   4.1302E-02   4.2307E-02   5.8482E-05  0.1835
   4.2307E-02   4.3337E-02   7.5775E-05  0.1601
   4.3337E-02   4.4391E-02   5.2009E-05  0.1898
   4.4391E-02   4.5471E-02   5.5552E-05  0.1826
   4.5471E-02   4.6577E-02   5.2680E-05  0.1849
   4.6577E-02   4.7711E-02   6.8828E-05  0.1601
   4.7711E-02   4.8871E-02   4.7680E-05  0.1887
   4.8871E-02   5.0061E-02   2.6071E-05  0.2519
   5.0061E-02   5.1279E-02   4.7619E-05  0.1857
   5.1279E-02   5.2526E-02   5.8073E-05  0.1657
   5.2526E-02   5.3804E-02   4.4561E-05  0.1862
   5.3804E-02   5.5113E-02   4.7361E-05  0.1796
   5.5113E-02   5.6454E-02   4.9896E-05  0.1720
   5.6454E-02   5.7828E-02   3.2304E-05  0.2116
   5.7828E-02   5.9235E-02   2.9020E-05  0.2196
   5.9235E-02   6.0676E-02   3.8123E-05  0.1895
   6.0676E-02   6.2152E-02   5.0803E-05  0.1628
   6.2152E-02   6.3665E-02   5.0257E-05  0.1622
   6.3665E-02   6.5214E-02   4.4545E-05  0.1696
   6.5214E-02   6.6800E-02   5.2310E-05  0.1548
   6.6800E-02   6.8426E-02   4.0608E-05  0.1741
   6.8426E-02   7.0090E-02   5.1656E-05  0.1525
   7.0090E-02   7.1796E-02   3.5770E-05  0.1803
   7.1796E-02   7.3543E-02   3.5493E-05  0.1796
   7.3543E-02   7.5332E-02   4.2474E-05  0.1622
   7.5332E-02   7.7165E-02   3.1644E-05  0.1857
   7.7165E-02   7.9042E-02   2.9827E-05  0.1890
   7.9042E-02   8.0965E-02   3.7032E-05  0.1665
   8.0965E-02   8.2935E-02   3.5534E-05  0.1690
   8.2935E-02   8.4953E-02   4.4601E-05  0.1491
   8.4953E-02   8.7020E-02   3.2136E-05  0.1731
   8.7020E-02   8.9138E-02   2.4286E-05  0.1956
   8.9138E-02   9.1306E-02   3.0681E-05  0.1729
   9.1306E-02   9.3528E-02   2.9259E-05  0.1747
   9.3528E-02   9.5804E-02   3.7353E-05  0.1529
   9.5804E-02   9.8134E-02   1.8876E-05  0.2132
   9.8134E-02   1.0052E-01   2.1390E-05  0.1962
   1.0052E-01   1.0297E-01   3.2078E-05  0.1593
   1.0297E-01   1.0547E-01   2.4130E-05  0.1814
   1.0547E-01   1.0804E-01   3.0597E-05  0.1592
   1.0804E-01   1.1067E-01   3.1393E-05  0.1553
   1.1067E-01   1.1336E-01   2.1728E-05  0.1843
   1.1336E-01   1.1612E-01   2.7744E-05  0.1613
   1.1612E-01   1.1894E-01   2.9024E-05  0.1562
   1.1894E-01   1.2184E-01   2.2115E-05  0.1768
   1.2184E-01   1.2480E-01   2.7153E-05  0.1573
   1.2480E-01   1.2784E-01   2.2572E-05  0.1703
   1.2784E-01   1.3095E-01   1.8117E-05  0.1879
   1.3095E-01   1.3414E-01   2.0227E-05  0.1757
   1.3414E-01   1.3740E-01   1.7875E-05  0.1827
   1.3740E-01   1.4074E-01   1.8642E-05  0.1788
   1.4074E-01   1.4417E-01   1.9575E-05  0.1717
   1.4417E-01   1.4767E-01   1.5965E-05  0.1890
   1.4767E-01   1.5127E-01   1.2447E-05  0.2101
   1.5127E-01   1.5495E-01   1.4052E-05  0.1939
   1.5495E-01   1.5872E-01   2.0780E-05  0.1595
   1.5872E-01   1.6258E-01   1.5724E-05  0.1806
   1.6258E-01   1.6654E-01   1.0870E-05  0.2144
   1.6654E-01   1.7059E-01   1.5522E-05  0.1773
   1.7059E-01   1.7474E-01   1.8441E-05  0.1612
   1.7474E-01   1.7899E-01   1.6465E-05  0.1690
   1.7899E-01   1.8334E-01   1.3251E-05  0.1844
   1.8334E-01   1.8781E-01   1.4795E-05  0.1741
   1.8781E-01   1.9237E-01   1.5319E-05  0.1690
   1.9237E-01   1.9706E-01   1.5159E-05  0.1670
   1.9706E-01   2.0185E-01   1.5127E-05  0.1656
   2.0185E-01   2.0676E-01   1.0285E-05  0.1982
   2.0676E-01   2.1179E-01   1.7294E-05  0.1512
   2.1179E-01   2.1694E-01   1.2420E-05  0.1768
   2.1694E-01   2.2222E-01   1.2596E-05  0.1730
   2.2222E-01   2.2763E-01   1.3044E-05  0.1679
   2.2763E-01   2.3317E-01   1.4268E-05  0.1583
   2.3317E-01   2.3884E-01   1.4807E-05  0.1543
   2.3884E-01   2.4465E-01   1.7552E-05  0.1400
   2.4465E-01   2.5061E-01   1.9608E-05  0.1299
   2.5061E-01   2.5670E-01   1.6309E-05  0.1403
   2.5670E-01   2.6295E-01   1.8485E-05  0.1311
   2.6295E-01   2.6935E-01   1.9872E-05  0.1250
   2.6935E-01   2.7590E-01   1.7689E-05  0.1305
   2.7590E-01   2.8261E-01   1.8255E-05  0.1275
   2.8261E-01   2.8949E-01   1.9179E-05  0.1226
   2.8949E-01   2.9653E-01   1.9746E-05  0.1195
   2.9653E-01   3.0375E-01   2.3389E-05  0.1083
   3.0375E-01   3.1114E-01   2.3244E-05  0.1075
   3.1114E-01   3.1871E-01   2.1924E-05  0.1093
   3.1871E-01   3.2646E-01   2.6618E-05  0.0980
   3.2646E-01   3.3441E-01   1.8798E-05  0.1149
   3.3441E-01   3.4254E-01   2.3367E-05  0.1018
   3.4254E-01   3.5088E-01   2.8308E-05  0.0918
   3.5088E-01   3.5941E-01   2.8054E-05  0.0910
   3.5941E-01   3.6816E-01   2.3172E-05  0.0983
   3.6816E-01   3.7712E-01   2.4043E-05  0.0959
   3.7712E-01   3.8629E-01   2.7171E-05  0.0891
   3.8629E-01   3.9569E-01   2.7760E-05  0.0872
   3.9569E-01   4.0532E-01   2.4238E-05  0.0922
   4.0532E-01   4.1518E-01   2.6764E-05  0.0868
   4.1518E-01   4.2528E-01   2.8714E-05  0.0827
   4.2528E-01   4.3563E-01   2.9073E-05  0.0811
   4.3563E-01   4.4623E-01   2.9824E-05  0.0793
   4.4623E-01   4.5708E-01   2.7865E-05  0.0809
   4.5708E-01   4.6821E-01   2.8378E-05  0.0791
   4.6821E-01   4.7960E-01   2.6588E-05  0.0809
   4.7960E-01   4.9127E-01   2.8884E-05  0.0768
   4.9127E-01   5.0322E-01   2.9134E-05  0.0753
   5.0322E-01   5.1546E-01   3.0074E-05  0.0734
   5.1546E-01   5.2800E-01   2.7958E-05  0.0753
   5.2800E-01   5.4085E-01   3.1303E-05  0.0703
   5.4085E-01   5.5401E-01   2.8211E-05  0.0731
   5.5401E-01   5.6749E-01   2.8879E-05  0.0713
   5.6749E-01   5.8130E-01   2.9071E-05  0.0702
   5.8130E-01   5.9544E-01   3.1172E-05  0.0670
   5.9544E-01   6.0993E-01   2.9425E-05  0.0681
   6.0993E-01   6.2477E-01   2.6837E-05  0.0705
   6.2477E-01   6.3997E-01   3.1260E-05  0.0644
   6.3997E-01   6.5554E-01   2.8390E-05  0.0667
   6.5554E-01   6.7149E-01   2.9509E-05  0.0647
   6.7149E-01   6.8783E-01   2.8073E-05  0.0657
   6.8783E-01   7.0456E-01   2.8607E-05  0.0643
   7.0456E-01   7.2171E-01   3.0453E-05  0.0616
   7.2171E-01   7.3927E-01   2.6180E-05  0.0656
   7.3927E-01   7.5725E-01   2.8863E-05  0.0617
   7.5725E-01   7.7568E-01   2.6747E-05  0.0635
   7.7568E-01   7.9455E-01   2.6911E-05  0.0623
   7.9455E-01   8.1388E-01   2.7096E-05  0.0614
   8.1388E-01   8.3368E-01   2.8758E-05  0.0590
   8.3368E-01   8.5397E-01   2.5430E-05  0.0619
   8.5397E-01   8.7475E-01   2.5256E-05  0.0611
   8.7475E-01   8.9603E-01   2.4889E-05  0.0610
   8.9603E-01   9.1783E-01   2.4426E-05  0.0609
   9.1783E-01   9.4016E-01   2.2889E-05  0.0621
   9.4016E-01   9.6304E-01   2.1680E-05  0.0631
   9.6304E-01   9.8647E-01   2.0647E-05  0.0637
   9.8647E-01   1.0105E+00   2.2006E-05  0.0611
   1.0105E+00   1.0351E+00   2.1552E-05  0.0610
   1.0351E+00   1.0602E+00   2.0343E-05  0.0623
   1.0602E+00   1.0860E+00   1.9583E-05  0.0626
   1.0860E+00   1.1125E+00   1.9727E-05  0.0614
   1.1125E+00   1.1395E+00   1.9320E-05  0.0614
   1.1395E+00   1.1673E+00   1.9482E-05  0.0604
   1.1673E+00   1.1957E+00   1.8101E-05  0.0619
   1.1957E+00   1.2247E+00   1.5996E-05  0.0651
   1.2247E+00   1.2545E+00   1.8038E-05  0.0607
   1.2545E+00   1.2851E+00   1.5941E-05  0.0635
   1.2851E+00   1.3163E+00   1.6882E-05  0.0611
   1.3163E+00   1.3484E+00   1.6219E-05  0.0616
   1.3484E+00   1.3812E+00   1.5055E-05  0.0631
   1.3812E+00   1.4148E+00   1.4087E-05  0.0644
   1.4148E+00   1.4492E+00   1.2746E-05  0.0670
   1.4492E+00   1.4845E+00   1.4366E-05  0.0624
   1.4845E+00   1.5206E+00   1.3933E-05  0.0626
   1.5206E+00   1.5576E+00   1.4747E-05  0.0600
   1.5576E+00   1.5955E+00   1.3508E-05  0.0619
   1.5955E+00   1.6343E+00   1.2910E-05  0.0626
   1.6343E+00   1.6741E+00   1.1912E-05  0.0643
   1.6741E+00   1.7148E+00   1.3430E-05  0.0598
   1.7148E+00   1.7565E+00   1.1405E-05  0.0643
   1.7565E+00   1.7992E+00   1.2865E-05  0.0597
   1.7992E+00   1.8430E+00   1.2185E-05  0.0608
   1.8430E+00   1.8879E+00   1.0321E-05  0.0653
   1.8879E+00   1.9338E+00   9.7830E-06  0.0661
   1.9338E+00   1.9808E+00   8.9762E-06  0.0683
   1.9808E+00   2.0290E+00   9.3102E-06  0.0664
   2.0290E+00   2.0784E+00   9.8746E-06  0.0634
   2.0784E+00   2.1290E+00   9.4669E-06  0.0640
   2.1290E+00   2.1808E+00   1.0070E-05  0.0614
   2.1808E+00   2.2338E+00   8.2882E-06  0.0668
   2.2338E+00   2.2882E+00   8.4367E-06  0.0655
   2.2882E+00   2.3439E+00   7.6950E-06  0.0678
   2.3439E+00   2.4009E+00   7.3968E-06  0.0684
   2.4009E+00   2.4593E+00   7.9741E-06  0.0649
   2.4593E+00   2.5191E+00   8.4092E-06  0.0625
   2.5191E+00   2.5804E+00   7.8464E-06  0.0639
   2.5804E+00   2.6432E+00   7.1052E-06  0.0664
   2.6432E+00   2.7075E+00   6.8470E-06  0.0667
   2.7075E+00   2.7734E+00   6.1767E-06  0.0694
   2.7734E+00   2.8409E+00   6.7373E-06  0.0657
   2.8409E+00   2.9100E+00   6.7072E-06  0.0652
   2.9100E+00   2.9808E+00   6.7230E-06  0.0641
   2.9808E+00   3.0533E+00   5.7070E-06  0.0687
   3.0533E+00   3.1276E+00   5.2679E-06  0.0710
   3.1276E+00   3.2037E+00   5.4081E-06  0.0690
   3.2037E+00   3.2817E+00   5.8387E-06  0.0657
   3.2817E+00   3.3615E+00   5.2436E-06  0.0687
   3.3615E+00   3.4433E+00   4.9511E-06  0.0696
   3.4433E+00   3.5271E+00   5.2841E-06  0.0666
   3.5271E+00   3.6129E+00   4.8814E-06  0.0682
   3.6129E+00   3.7008E+00   3.9937E-06  0.0747
   3.7008E+00   3.7908E+00   5.1635E-06  0.0652
   3.7908E+00   3.8831E+00   4.6722E-06  0.0674
   3.8831E+00   3.9776E+00   4.8769E-06  0.0654
   3.9776E+00   4.0743E+00   4.4269E-06  0.0680
   4.0743E+00   4.1735E+00   4.4723E-06  0.0666
   4.1735E+00   4.2750E+00   4.8575E-06  0.0632
   4.2750E+00   4.3790E+00   4.2366E-06  0.0671
   4.3790E+00   4.4856E+00   3.8776E-06  0.0689
   4.4856E+00   4.5947E+00   4.1813E-06  0.0655
   4.5947E+00   4.7065E+00   4.7092E-06  0.0612
   4.7065E+00   4.8210E+00   4.0995E-06  0.0647
   4.8210E+00   4.9383E+00   4.1279E-06  0.0638
   4.9383E+00   5.0585E+00   3.8814E-06  0.0651
   5.0585E+00   5.1815E+00   3.7829E-06  0.0651
   5.1815E+00   5.3076E+00   4.0807E-06  0.0620
   5.3076E+00   5.4368E+00   3.5427E-06  0.0657
   5.4368E+00   5.5690E+00   3.2199E-06  0.0680
   5.5690E+00   5.7045E+00   3.6922E-06  0.0629
   5.7045E+00   5.8433E+00   3.2787E-06  0.0660
   5.8433E+00   5.9855E+00   3.0633E-06  0.0674
   5.9855E+00   6.1311E+00   2.7705E-06  0.0700
   6.1311E+00   6.2803E+00   2.9800E-06  0.0670
   6.2803E+00   6.4331E+00   2.7524E-06  0.0687
   6.4331E+00   6.5896E+00   2.4155E-06  0.0724
   6.5896E+00   6.7500E+00   2.5176E-06  0.0701
   6.7500E+00   6.9142E+00   2.1958E-06  0.0743
   6.9142E+00   7.0824E+00   2.2021E-06  0.0733
   7.0824E+00   7.2548E+00   2.0389E-06  0.0753
   7.2548E+00   7.4313E+00   2.2171E-06  0.0714
   7.4313E+00   7.6121E+00   2.2534E-06  0.0700
   7.6121E+00   7.7973E+00   1.8778E-06  0.0757
   7.7973E+00   7.9870E+00   1.6305E-06  0.0803
   7.9870E+00   8.1813E+00   1.8884E-06  0.0737
   8.1813E+00   8.3804E+00   1.8943E-06  0.0728
   8.3804E+00   8.5843E+00   1.6674E-06  0.0765
   8.5843E+00   8.7931E+00   1.5297E-06  0.0790
   8.7931E+00   9.0071E+00   1.6176E-06  0.0759
   9.0071E+00   9.2262E+00   1.2822E-06  0.0843
   9.2262E+00   9.4507E+00   1.2319E-06  0.0850
   9.4507E+00   9.6807E+00   1.2635E-06  0.0829
   9.6807E+00   9.9162E+00   1.2693E-06  0.0817
   9.9162E+00   1.0157E+01   1.2622E-06  0.0810
   1.0157E+01   1.0405E+01   1.0925E-06  0.0861
   1.0405E+01   1.0658E+01   1.0845E-06  0.0853
   1.0658E+01   1.0917E+01   8.5611E-07  0.0949
   1.0917E+01   1.1183E+01   8.0010E-07  0.0969
   1.1183E+01   1.1455E+01   7.9974E-07  0.0956
   1.1455E+01   1.1733E+01   8.8266E-07  0.0902
   1.1733E+01   1.2019E+01   7.4960E-07  0.0967
   1.2019E+01   1.2311E+01   7.0629E-07  0.0983
   1.2311E+01   1.2611E+01   5.3588E-07  0.1115
   1.2611E+01   1.2918E+01   6.7137E-07  0.0985
   1.2918E+01   1.3232E+01   5.9815E-07  0.1031
   1.3232E+01   1.3554E+01   4.7834E-07  0.1140
   1.3554E+01   1.3884E+01   4.4272E-07  0.1170
   1.3884E+01   1.4222E+01   4.2036E-07  0.1187
   1.4222E+01   1.4568E+01   3.8726E-07  0.1222
   1.4568E+01   1.4922E+01   3.6113E-07  0.1250
   1.4922E+01   1.5285E+01   3.4853E-07  0.1255
   1.5285E+01   1.5657E+01   2.7965E-07  0.1387
   1.5657E+01   1.6038E+01   2.2575E-07  0.1525
   1.6038E+01   1.6428E+01   1.8451E-07  0.1667
   1.6428E+01   1.6828E+01   2.4017E-07  0.1443
   1.6828E+01   1.7237E+01   1.7097E-07  0.1690
   1.7237E+01   1.7657E+01   1.3352E-07  0.1890
   1.7657E+01   1.8086E+01   1.2570E-07  0.1925
   1.8086E+01   1.8526E+01   1.5453E-07  0.1715
   1.8526E+01   1.8977E+01   1.3754E-07  0.1796
   1.8977E+01   1.9439E+01   1.0829E-07  0.2000
   1.9439E+01   1.9912E+01   4.6515E-08  0.3015
   1.9912E+01   2.0396E+01   7.8436E-08  0.2294
   2.0396E+01   2.0893E+01   4.8362E-08  0.2887
   2.0893E+01   2.1401E+01   4.3279E-08  0.3015
   2.1401E+01   2.1922E+01   4.6092E-08  0.2887
   2.1922E+01   2.2455E+01   4.1247E-08  0.3015
   2.2455E+01   2.3001E+01   4.0267E-08  0.3015
   2.3001E+01   2.3561E+01   1.4295E-08  0.5000
   2.3561E+01   2.4134E+01   3.4888E-08  0.3162
   2.4134E+01   2.4721E+01   3.0654E-08  0.3333
   2.4721E+01   2.5323E+01   9.9752E-09  0.5774
   2.5323E+01   2.5939E+01   1.2984E-08  0.5000
   2.5939E+01   2.6570E+01   3.1690E-09  1.0000
   2.6570E+01   2.7217E+01   9.2811E-09  0.5774
   2.7217E+01   2.7879E+01   3.0202E-09  1.0000
   2.7879E+01   2.8557E+01   2.9485E-09  1.0000
   2.8557E+01   2.9252E+01   2.8784E-09  1.0000
   2.9252E+01   2.9964E+01   8.4302E-09  0.5774
   2.9964E+01   3.0693E+01   0.0000E+00  0.0000
   3.0693E+01   3.1440E+01   0.0000E+00  0.0000
   3.1440E+01   3.2205E+01   0.0000E+00  0.0000
   3.2205E+01   3.2988E+01   0.0000E+00  0.0000
   3.2988E+01   3.3791E+01   0.0000E+00  0.0000
   3.3791E+01   3.4613E+01   0.0000E+00  0.0000
   3.4613E+01   3.5455E+01   0.0000E+00  0.0000
   3.5455E+01   3.6318E+01   0.0000E+00  0.0000
   3.6318E+01   3.7201E+01   0.0000E+00  0.0000
   3.7201E+01   3.8106E+01   0.0000E+00  0.0000
   3.8106E+01   3.9034E+01   0.0000E+00  0.0000
   3.9034E+01   3.9983E+01   0.0000E+00  0.0000
   3.9983E+01   4.0956E+01   0.0000E+00  0.0000
   4.0956E+01   4.1953E+01   0.0000E+00  0.0000
   4.1953E+01   4.2973E+01   0.0000E+00  0.0000
   4.2973E+01   4.4019E+01   0.0000E+00  0.0000
   4.4019E+01   4.5090E+01   0.0000E+00  0.0000
   4.5090E+01   4.6187E+01   0.0000E+00  0.0000
   4.6187E+01   4.7311E+01   0.0000E+00  0.0000
   4.7311E+01   4.8462E+01   0.0000E+00  0.0000
   4.8462E+01   4.9641E+01   0.0000E+00  0.0000
   4.9641E+01   5.0849E+01   0.0000E+00  0.0000
   5.0849E+01   5.2086E+01   0.0000E+00  0.0000
   5.2086E+01   5.3353E+01   0.0000E+00  0.0000
   5.3353E+01   5.4651E+01   0.0000E+00  0.0000
   5.4651E+01   5.5981E+01   0.0000E+00  0.0000
   5.5981E+01   5.7343E+01   0.0000E+00  0.0000
   5.7343E+01   5.8738E+01   0.0000E+00  0.0000
   5.8738E+01   6.0168E+01   0.0000E+00  0.0000
   6.0168E+01   6.1632E+01   0.0000E+00  0.0000
   6.1632E+01   6.3131E+01   0.0000E+00  0.0000
   6.3131E+01   6.4667E+01   0.0000E+00  0.0000
   6.4667E+01   6.6240E+01   0.0000E+00  0.0000
   6.6240E+01   6.7852E+01   0.0000E+00  0.0000
   6.7852E+01   6.9503E+01   0.0000E+00  0.0000
   6.9503E+01   7.1194E+01   0.0000E+00  0.0000
   7.1194E+01   7.2926E+01   0.0000E+00  0.0000
   7.2926E+01   7.4701E+01   0.0000E+00  0.0000
   7.4701E+01   7.6518E+01   0.0000E+00  0.0000
   7.6518E+01   7.8380E+01   0.0000E+00  0.0000
   7.8380E+01   8.0287E+01   0.0000E+00  0.0000
   8.0287E+01   8.2240E+01   0.0000E+00  0.0000
   8.2240E+01   8.4241E+01   0.0000E+00  0.0000
   8.4241E+01   8.6291E+01   0.0000E+00  0.0000
   8.6291E+01   8.8391E+01   0.0000E+00  0.0000
   8.8391E+01   9.0541E+01   0.0000E+00  0.0000
   9.0541E+01   9.2744E+01   0.0000E+00  0.0000
   9.2744E+01   9.5001E+01   0.0000E+00  0.0000
   9.5001E+01   9.7312E+01   0.0000E+00  0.0000
   9.7312E+01   9.9680E+01   0.0000E+00  0.0000
   9.9680E+01   1.0211E+02   0.0000E+00  0.0000
   1.0211E+02   1.0459E+02   0.0000E+00  0.0000
   1.0459E+02   1.0713E+02   0.0000E+00  0.0000
   1.0713E+02   1.0974E+02   0.0000E+00  0.0000
   1.0974E+02   1.1241E+02   0.0000E+00  0.0000
   1.1241E+02   1.1515E+02   0.0000E+00  0.0000
   1.1515E+02   1.1795E+02   0.0000E+00  0.0000
   1.1795E+02   1.2082E+02   0.0000E+00  0.0000
   1.2082E+02   1.2376E+02   0.0000E+00  0.0000
   1.2376E+02   1.2677E+02   0.0000E+00  0.0000
   1.2677E+02   1.2985E+02   0.0000E+00  0.0000
   1.2985E+02   1.3301E+02   0.0000E+00  0.0000
   1.3301E+02   1.3625E+02   0.0000E+00  0.0000
   1.3625E+02   1.3956E+02   0.0000E+00  0.0000
   1.3956E+02   1.4296E+02   0.0000E+00  0.0000
   1.4296E+02   1.4644E+02   0.0000E+00  0.0000
   1.4644E+02   1.5000E+02   0.0000E+00  0.0000

#   sum over                 5.0071E-07
'no. =    1   reg = 126 - 226'
msuc: {\huge [t-cross] in region mesh}
msdr: {\it plotted by \ANGEL \version}
msdl: {\it calculated by \PHITS  3.26}
wt: s(0.7)
\vspace{-3}
  region surface crossing
  area  &=&   1.0000E+00 [cm^2]
e:
 
# Information for Restart Calculation
# This calculation was newly started
# istdev =  2 # 1:Batch variance, 2:History variance
# resc2  = 5.00000000000000000E+08 # Total source weight or Total source weight / maxcas
# resc3  = 5.00000000000000000E+08 # Total history number or Total batch number
# maxcas =   500000000 # History / Batch, only used for istdev=1
# bitrseed = 1101101111010011011000101101110001100110110010110001010100010001 # bit data of rseed
