10 <--- remaining batch number

-------------------------------------------------------------------------------
 start calculation
-------------------------------------------------------------------------------

 date = 2022-09-17
 time = 05h 20m 44

