[ T-Cross ]
    title = [t-cross] in region mesh
     mesh =  reg            # mesh type is region-wise
      reg =    1            # number of crossing regions
      non     r-from    r-to       area
      1       100       200        1.000000    
   e-type =    3            # e-mesh is log given by emin, emax and ne
     emin =  1.0000000E-02  # minimum value of e-mesh points
     emax =   150.0000      # maximum value of e-mesh points
#    edel =  2.4039514E-02  # mesh width of e-mesh points
       ne =    400          # number of e-mesh points
#    data = ( e(i), i = 1, ne + 1 )
#           1.00000E-02  1.02433E-02  1.04925E-02  1.07478E-02  1.10093E-02
#           1.12772E-02  1.15516E-02  1.18326E-02  1.21205E-02  1.24154E-02
#           1.27175E-02  1.30269E-02  1.33439E-02  1.36686E-02  1.40011E-02
#           1.43418E-02  1.46907E-02  1.50482E-02  1.54143E-02  1.57894E-02
#           1.61735E-02  1.65670E-02  1.69701E-02  1.73830E-02  1.78060E-02
#           1.82392E-02  1.86830E-02  1.91375E-02  1.96032E-02  2.00801E-02
#           2.05687E-02  2.10692E-02  2.15818E-02  2.21069E-02  2.26448E-02
#           2.31957E-02  2.37601E-02  2.43382E-02  2.49304E-02  2.55369E-02
#           2.61583E-02  2.67947E-02  2.74467E-02  2.81145E-02  2.87985E-02
#           2.94992E-02  3.02169E-02  3.09521E-02  3.17052E-02  3.24766E-02
#           3.32668E-02  3.40762E-02  3.49053E-02  3.57546E-02  3.66246E-02
#           3.75157E-02  3.84284E-02  3.93634E-02  4.03212E-02  4.13022E-02
#           4.23071E-02  4.33365E-02  4.43909E-02  4.54710E-02  4.65773E-02
#           4.77106E-02  4.88714E-02  5.00605E-02  5.12785E-02  5.25262E-02
#           5.38042E-02  5.51133E-02  5.64542E-02  5.78278E-02  5.92348E-02
#           6.06760E-02  6.21523E-02  6.36645E-02  6.52135E-02  6.68002E-02
#           6.84255E-02  7.00904E-02  7.17957E-02  7.35426E-02  7.53319E-02
#           7.71648E-02  7.90423E-02  8.09655E-02  8.29354E-02  8.49533E-02
#           8.70203E-02  8.91376E-02  9.13064E-02  9.35279E-02  9.58035E-02
#           9.81345E-02  1.00522E-01  1.02968E-01  1.05473E-01  1.08040E-01
#           1.10668E-01  1.13361E-01  1.16119E-01  1.18944E-01  1.21838E-01
#           1.24803E-01  1.27839E-01  1.30950E-01  1.34136E-01  1.37399E-01
#           1.40742E-01  1.44167E-01  1.47675E-01  1.51268E-01  1.54948E-01
#           1.58718E-01  1.62580E-01  1.66535E-01  1.70587E-01  1.74738E-01
#           1.78989E-01  1.83344E-01  1.87805E-01  1.92375E-01  1.97055E-01
#           2.01850E-01  2.06761E-01  2.11792E-01  2.16945E-01  2.22223E-01
#           2.27630E-01  2.33169E-01  2.38842E-01  2.44653E-01  2.50605E-01
#           2.56703E-01  2.62949E-01  2.69346E-01  2.75900E-01  2.82613E-01
#           2.89489E-01  2.96532E-01  3.03747E-01  3.11138E-01  3.18708E-01
#           3.26462E-01  3.34405E-01  3.42542E-01  3.50876E-01  3.59413E-01
#           3.68158E-01  3.77116E-01  3.86291E-01  3.95690E-01  4.05317E-01
#           4.15179E-01  4.25281E-01  4.35628E-01  4.46227E-01  4.57084E-01
#           4.68205E-01  4.79597E-01  4.91266E-01  5.03219E-01  5.15463E-01
#           5.28005E-01  5.40851E-01  5.54011E-01  5.67490E-01  5.81298E-01
#           5.95441E-01  6.09929E-01  6.24769E-01  6.39970E-01  6.55541E-01
#           6.71491E-01  6.87828E-01  7.04564E-01  7.21706E-01  7.39266E-01
#           7.57253E-01  7.75678E-01  7.94551E-01  8.13883E-01  8.33685E-01
#           8.53969E-01  8.74747E-01  8.96030E-01  9.17831E-01  9.40163E-01
#           9.63038E-01  9.86469E-01  1.01047E+00  1.03506E+00  1.06024E+00
#           1.08604E+00  1.11246E+00  1.13953E+00  1.16725E+00  1.19565E+00
#           1.22474E+00  1.25454E+00  1.28507E+00  1.31633E+00  1.34836E+00
#           1.38117E+00  1.41477E+00  1.44920E+00  1.48446E+00  1.52057E+00
#           1.55757E+00  1.59547E+00  1.63429E+00  1.67405E+00  1.71478E+00
#           1.75650E+00  1.79924E+00  1.84302E+00  1.88786E+00  1.93379E+00
#           1.98084E+00  2.02904E+00  2.07841E+00  2.12898E+00  2.18078E+00
#           2.23384E+00  2.28819E+00  2.34386E+00  2.40089E+00  2.45930E+00
#           2.51914E+00  2.58043E+00  2.64322E+00  2.70753E+00  2.77341E+00
#           2.84088E+00  2.91001E+00  2.98081E+00  3.05333E+00  3.12762E+00
#           3.20372E+00  3.28167E+00  3.36152E+00  3.44330E+00  3.52708E+00
#           3.61290E+00  3.70080E+00  3.79085E+00  3.88308E+00  3.97756E+00
#           4.07434E+00  4.17347E+00  4.27501E+00  4.37903E+00  4.48557E+00
#           4.59471E+00  4.70650E+00  4.82102E+00  4.93832E+00  5.05847E+00
#           5.18155E+00  5.30762E+00  5.43676E+00  5.56904E+00  5.70453E+00
#           5.84333E+00  5.98550E+00  6.13114E+00  6.28031E+00  6.43312E+00
#           6.58964E+00  6.74997E+00  6.91420E+00  7.08243E+00  7.25475E+00
#           7.43126E+00  7.61207E+00  7.79728E+00  7.98700E+00  8.18133E+00
#           8.38038E+00  8.58428E+00  8.79315E+00  9.00709E+00  9.22624E+00
#           9.45072E+00  9.68067E+00  9.91620E+00  1.01575E+01  1.04046E+01
#           1.06578E+01  1.09171E+01  1.11827E+01  1.14548E+01  1.17335E+01
#           1.20190E+01  1.23114E+01  1.26109E+01  1.29178E+01  1.32321E+01
#           1.35540E+01  1.38838E+01  1.42216E+01  1.45676E+01  1.49221E+01
#           1.52851E+01  1.56570E+01  1.60380E+01  1.64282E+01  1.68279E+01
#           1.72374E+01  1.76568E+01  1.80864E+01  1.85264E+01  1.89772E+01
#           1.94389E+01  1.99119E+01  2.03963E+01  2.08926E+01  2.14009E+01
#           2.19216E+01  2.24550E+01  2.30014E+01  2.35610E+01  2.41343E+01
#           2.47215E+01  2.53230E+01  2.59391E+01  2.65702E+01  2.72167E+01
#           2.78789E+01  2.85572E+01  2.92520E+01  2.99637E+01  3.06928E+01
#           3.14396E+01  3.22045E+01  3.29881E+01  3.37907E+01  3.46128E+01
#           3.54550E+01  3.63177E+01  3.72013E+01  3.81064E+01  3.90336E+01
#           3.99833E+01  4.09561E+01  4.19526E+01  4.29734E+01  4.40189E+01
#           4.50900E+01  4.61870E+01  4.73108E+01  4.84619E+01  4.96410E+01
#           5.08488E+01  5.20860E+01  5.33533E+01  5.46514E+01  5.59812E+01
#           5.73432E+01  5.87384E+01  6.01676E+01  6.16315E+01  6.31311E+01
#           6.46671E+01  6.62405E+01  6.78522E+01  6.95031E+01  7.11941E+01
#           7.29263E+01  7.47007E+01  7.65182E+01  7.83800E+01  8.02870E+01
#           8.22405E+01  8.42414E+01  8.62911E+01  8.83906E+01  9.05412E+01
#           9.27442E+01  9.50007E+01  9.73122E+01  9.96799E+01  1.02105E+02
#           1.04589E+02  1.07134E+02  1.09741E+02  1.12411E+02  1.15146E+02
#           1.17948E+02  1.20817E+02  1.23757E+02  1.26768E+02  1.29852E+02
#           1.33012E+02  1.36248E+02  1.39563E+02  1.42959E+02  1.46437E+02
#           1.50000E+02
     unit =    2            # unit is [1/cm^2/(MeV/n)/source]
     axis =  eng            # axis of output
     file = detector-01.out  # file name of output for the above axis
   output = f-curr          # surface crossing forward current spectrum
     part =  neutron  
# kf/name :  2112     
#    used :        main (  %)        temp (  %)       total (  %)
#  memory :         414 (  0)           0 (  0)         414 (  0)

#------------------------------------------------------------------------------
#newpage:
#   no. =    1   reg = 100 - 200

x: Energy [MeV/n]
y:  F-Curr [1/cm^2/(MeV/n)/source]         
p: xlog ylog afac(0.8) form(0.9)
h: n            x            y(neutron ),hh0l   n 
#  e-lower      e-upper      neutron     r.err 
   1.0000E-02   1.0243E-02   2.0769E-04  0.0629
   1.0243E-02   1.0493E-02   1.8896E-04  0.0650
   1.0493E-02   1.0748E-02   2.0431E-04  0.0618
   1.0748E-02   1.1009E-02   2.2343E-04  0.0584
   1.1009E-02   1.1277E-02   1.9201E-04  0.0623
   1.1277E-02   1.1552E-02   1.9304E-04  0.0613
   1.1552E-02   1.1833E-02   1.8063E-04  0.0627
   1.1833E-02   1.2121E-02   1.9193E-04  0.0601
   1.2121E-02   1.2415E-02   2.0630E-04  0.0572
   1.2415E-02   1.2718E-02   1.7702E-04  0.0610
   1.2718E-02   1.3027E-02   1.9046E-04  0.0582
   1.3027E-02   1.3344E-02   1.8970E-04  0.0576
   1.3344E-02   1.3669E-02   1.9408E-04  0.0563
   1.3669E-02   1.4001E-02   1.8192E-04  0.0575
   1.4001E-02   1.4342E-02   1.7055E-04  0.0586
   1.4342E-02   1.4691E-02   1.5855E-04  0.0600
   1.4691E-02   1.5048E-02   1.6551E-04  0.0580
   1.5048E-02   1.5414E-02   1.8322E-04  0.0545
   1.5414E-02   1.5789E-02   1.8005E-04  0.0544
   1.5789E-02   1.6174E-02   1.6912E-04  0.0554
   1.6174E-02   1.6567E-02   1.6340E-04  0.0557
   1.6567E-02   1.6970E-02   1.5067E-04  0.0573
   1.6970E-02   1.7383E-02   1.5791E-04  0.0553
   1.7383E-02   1.7806E-02   1.5706E-04  0.0548
   1.7806E-02   1.8239E-02   1.5696E-04  0.0542
   1.8239E-02   1.8683E-02   1.4908E-04  0.0549
   1.8683E-02   1.9138E-02   1.3815E-04  0.0563
   1.9138E-02   1.9603E-02   1.5262E-04  0.0530
   1.9603E-02   2.0080E-02   1.5146E-04  0.0525
   2.0080E-02   2.0569E-02   1.3185E-04  0.0557
   2.0569E-02   2.1069E-02   1.4165E-04  0.0530
   2.1069E-02   2.1582E-02   1.4058E-04  0.0526
   2.1582E-02   2.2107E-02   1.3786E-04  0.0525
   2.2107E-02   2.2645E-02   1.3035E-04  0.0533
   2.2645E-02   2.3196E-02   1.3080E-04  0.0526
   2.3196E-02   2.3760E-02   1.3002E-04  0.0521
   2.3760E-02   2.4338E-02   1.1792E-04  0.0541
   2.4338E-02   2.4930E-02   1.2010E-04  0.0529
   2.4930E-02   2.5537E-02   1.3259E-04  0.0498
   2.5537E-02   2.6158E-02   1.2312E-04  0.0511
   2.6158E-02   2.6795E-02   1.2016E-04  0.0510
   2.6795E-02   2.7447E-02   1.0926E-04  0.0530
   2.7447E-02   2.8114E-02   1.1893E-04  0.0501
   2.8114E-02   2.8799E-02   1.1474E-04  0.0504
   2.8799E-02   2.9499E-02   1.1697E-04  0.0493
   2.9499E-02   3.0217E-02   1.1981E-04  0.0481
   3.0217E-02   3.0952E-02   1.0945E-04  0.0498
   3.0952E-02   3.1705E-02   1.0553E-04  0.0501
   3.1705E-02   3.2477E-02   1.0547E-04  0.0495
   3.2477E-02   3.3267E-02   1.1202E-04  0.0475
   3.3267E-02   3.4076E-02   9.9334E-05  0.0498
   3.4076E-02   3.4905E-02   1.0675E-04  0.0475
   3.4905E-02   3.5755E-02   9.7421E-05  0.0491
   3.5755E-02   3.6625E-02   9.9470E-05  0.0480
   3.6625E-02   3.7516E-02   9.6053E-05  0.0483
   3.7516E-02   3.8428E-02   1.0452E-04  0.0457
   3.8428E-02   3.9363E-02   8.5666E-05  0.0499
   3.9363E-02   4.0321E-02   9.4129E-05  0.0470
   4.0321E-02   4.1302E-02   9.3848E-05  0.0466
   4.1302E-02   4.2307E-02   8.9737E-05  0.0470
   4.2307E-02   4.3337E-02   8.8470E-05  0.0468
   4.3337E-02   4.4391E-02   8.8993E-05  0.0461
   4.4391E-02   4.5471E-02   8.3836E-05  0.0469
   4.5471E-02   4.6577E-02   8.0116E-05  0.0475
   4.6577E-02   4.7711E-02   8.3831E-05  0.0458
   4.7711E-02   4.8871E-02   7.3129E-05  0.0484
   4.8871E-02   5.0061E-02   7.5941E-05  0.0470
   5.0061E-02   5.1279E-02   7.6580E-05  0.0462
   5.1279E-02   5.2526E-02   8.1450E-05  0.0443
   5.2526E-02   5.3804E-02   7.0003E-05  0.0472
   5.3804E-02   5.5113E-02   7.4812E-05  0.0451
   5.5113E-02   5.6454E-02   6.8049E-05  0.0467
   5.6454E-02   5.7828E-02   7.1898E-05  0.0449
   5.7828E-02   5.9235E-02   7.3438E-05  0.0439
   5.9235E-02   6.0676E-02   7.2091E-05  0.0439
   6.0676E-02   6.2152E-02   7.2621E-05  0.0431
   6.2152E-02   6.3665E-02   6.7632E-05  0.0441
   6.3665E-02   6.5214E-02   7.0469E-05  0.0427
   6.5214E-02   6.6800E-02   6.8242E-05  0.0429
   6.6800E-02   6.8426E-02   6.5925E-05  0.0431
   6.8426E-02   7.0090E-02   6.0653E-05  0.0444
   7.0090E-02   7.1796E-02   6.3502E-05  0.0429
   7.1796E-02   7.3543E-02   6.1677E-05  0.0430
   7.3543E-02   7.5332E-02   6.2373E-05  0.0423
   7.5332E-02   7.7165E-02   5.8395E-05  0.0431
   7.7165E-02   7.9042E-02   6.1005E-05  0.0417
   7.9042E-02   8.0965E-02   5.6834E-05  0.0427
   8.0965E-02   8.2935E-02   5.3239E-05  0.0436
   8.2935E-02   8.4953E-02   5.5533E-05  0.0421
   8.4953E-02   8.7020E-02   5.4340E-05  0.0421
   8.7020E-02   8.9138E-02   4.7197E-05  0.0447
   8.9138E-02   9.1306E-02   5.2120E-05  0.0420
   9.1306E-02   9.3528E-02   5.1461E-05  0.0418
   9.3528E-02   9.5804E-02   5.2639E-05  0.0408
   9.5804E-02   9.8134E-02   4.4885E-05  0.0436
   9.8134E-02   1.0052E-01   4.7580E-05  0.0419
   1.0052E-01   1.0297E-01   4.3621E-05  0.0432
   1.0297E-01   1.0547E-01   4.2879E-05  0.0431
   1.0547E-01   1.0804E-01   4.3350E-05  0.0423
   1.0804E-01   1.1067E-01   4.4374E-05  0.0413
   1.1067E-01   1.1336E-01   4.1353E-05  0.0423
   1.1336E-01   1.1612E-01   4.4056E-05  0.0405
   1.1612E-01   1.1894E-01   4.1065E-05  0.0415
   1.1894E-01   1.2184E-01   3.9308E-05  0.0418
   1.2184E-01   1.2480E-01   4.1596E-05  0.0402
   1.2480E-01   1.2784E-01   3.8115E-05  0.0415
   1.2784E-01   1.3095E-01   3.7462E-05  0.0414
   1.3095E-01   1.3414E-01   3.7688E-05  0.0407
   1.3414E-01   1.3740E-01   3.5676E-05  0.0414
   1.3740E-01   1.4074E-01   3.3862E-05  0.0420
   1.4074E-01   1.4417E-01   3.2446E-05  0.0423
   1.4417E-01   1.4767E-01   3.3988E-05  0.0408
   1.4767E-01   1.5127E-01   3.4028E-05  0.0404
   1.5127E-01   1.5495E-01   3.4814E-05  0.0395
   1.5495E-01   1.5872E-01   3.0426E-05  0.0417
   1.5872E-01   1.6258E-01   3.2305E-05  0.0400
   1.6258E-01   1.6654E-01   3.2118E-05  0.0396
   1.6654E-01   1.7059E-01   3.1540E-05  0.0395
   1.7059E-01   1.7474E-01   2.9869E-05  0.0401
   1.7474E-01   1.7899E-01   2.9027E-05  0.0402
   1.7899E-01   1.8334E-01   2.7897E-05  0.0405
   1.8334E-01   1.8781E-01   2.7833E-05  0.0401
   1.8781E-01   1.9237E-01   2.5186E-05  0.0416
   1.9237E-01   1.9706E-01   2.6390E-05  0.0402
   1.9706E-01   2.0185E-01   2.7684E-05  0.0387
   2.0185E-01   2.0676E-01   2.5325E-05  0.0400
   2.0676E-01   2.1179E-01   2.6146E-05  0.0389
   2.1179E-01   2.1694E-01   2.7638E-05  0.0374
   2.1694E-01   2.2222E-01   2.9930E-05  0.0355
   2.2222E-01   2.2763E-01   2.8680E-05  0.0359
   2.2763E-01   2.3317E-01   2.7467E-05  0.0362
   2.3317E-01   2.3884E-01   2.9384E-05  0.0346
   2.3884E-01   2.4465E-01   3.2799E-05  0.0323
   2.4465E-01   2.5061E-01   3.0310E-05  0.0332
   2.5061E-01   2.5670E-01   3.0825E-05  0.0326
   2.5670E-01   2.6295E-01   3.2038E-05  0.0316
   2.6295E-01   2.6935E-01   3.1325E-05  0.0315
   2.6935E-01   2.7590E-01   3.2307E-05  0.0307
   2.7590E-01   2.8261E-01   3.2253E-05  0.0303
   2.8261E-01   2.8949E-01   3.4198E-05  0.0291
   2.8949E-01   2.9653E-01   3.2277E-05  0.0296
   2.9653E-01   3.0375E-01   3.4894E-05  0.0281
   3.0375E-01   3.1114E-01   3.5162E-05  0.0277
   3.1114E-01   3.1871E-01   3.5219E-05  0.0273
   3.1871E-01   3.2646E-01   3.6550E-05  0.0265
   3.2646E-01   3.3441E-01   3.6273E-05  0.0263
   3.3441E-01   3.4254E-01   3.6745E-05  0.0258
   3.4254E-01   3.5088E-01   3.7254E-05  0.0253
   3.5088E-01   3.5941E-01   3.8699E-05  0.0246
   3.5941E-01   3.6816E-01   3.9622E-05  0.0240
   3.6816E-01   3.7712E-01   3.8516E-05  0.0240
   3.7712E-01   3.8629E-01   3.9819E-05  0.0234
   3.8629E-01   3.9569E-01   3.7773E-05  0.0237
   3.9569E-01   4.0532E-01   3.9995E-05  0.0228
   4.0532E-01   4.1518E-01   3.9664E-05  0.0226
   4.1518E-01   4.2528E-01   4.1898E-05  0.0217
   4.2528E-01   4.3563E-01   4.2099E-05  0.0214
   4.3563E-01   4.4623E-01   4.1553E-05  0.0213
   4.4623E-01   4.5708E-01   4.2370E-05  0.0208
   4.5708E-01   4.6821E-01   4.2305E-05  0.0206
   4.6821E-01   4.7960E-01   4.2550E-05  0.0203
   4.7960E-01   4.9127E-01   4.1462E-05  0.0203
   4.9127E-01   5.0322E-01   4.2376E-05  0.0198
   5.0322E-01   5.1546E-01   4.2964E-05  0.0195
   5.1546E-01   5.2800E-01   4.3447E-05  0.0191
   5.2800E-01   5.4085E-01   4.4064E-05  0.0188
   5.4085E-01   5.5401E-01   4.4333E-05  0.0185
   5.5401E-01   5.6749E-01   4.3403E-05  0.0185
   5.6749E-01   5.8130E-01   4.4093E-05  0.0181
   5.8130E-01   5.9544E-01   4.3092E-05  0.0181
   5.9544E-01   6.0993E-01   4.3228E-05  0.0178
   6.0993E-01   6.2477E-01   4.3673E-05  0.0175
   6.2477E-01   6.3997E-01   4.3903E-05  0.0173
   6.3997E-01   6.5554E-01   4.5185E-05  0.0168
   6.5554E-01   6.7149E-01   4.4847E-05  0.0167
   6.7149E-01   6.8783E-01   4.3619E-05  0.0167
   6.8783E-01   7.0456E-01   4.3321E-05  0.0166
   7.0456E-01   7.2171E-01   4.4206E-05  0.0162
   7.2171E-01   7.3927E-01   4.4793E-05  0.0159
   7.3927E-01   7.5725E-01   4.3920E-05  0.0159
   7.5725E-01   7.7568E-01   4.2886E-05  0.0159
   7.7568E-01   7.9455E-01   4.2283E-05  0.0158
   7.9455E-01   8.1388E-01   4.2163E-05  0.0156
   8.1388E-01   8.3368E-01   4.2715E-05  0.0153
   8.3368E-01   8.5397E-01   4.1913E-05  0.0153
   8.5397E-01   8.7475E-01   4.1155E-05  0.0153
   8.7475E-01   8.9603E-01   4.1608E-05  0.0150
   8.9603E-01   9.1783E-01   4.0794E-05  0.0150
   9.1783E-01   9.4016E-01   4.0385E-05  0.0149
   9.4016E-01   9.6304E-01   3.9038E-05  0.0149
   9.6304E-01   9.8647E-01   3.8023E-05  0.0150
   9.8647E-01   1.0105E+00   3.7219E-05  0.0149
   1.0105E+00   1.0351E+00   3.7251E-05  0.0147
   1.0351E+00   1.0602E+00   3.6609E-05  0.0147
   1.0602E+00   1.0860E+00   3.6073E-05  0.0146
   1.0860E+00   1.1125E+00   3.6165E-05  0.0144
   1.1125E+00   1.1395E+00   3.5162E-05  0.0145
   1.1395E+00   1.1673E+00   3.4626E-05  0.0144
   1.1673E+00   1.1957E+00   3.5582E-05  0.0140
   1.1957E+00   1.2247E+00   3.5668E-05  0.0138
   1.2247E+00   1.2545E+00   3.5715E-05  0.0137
   1.2545E+00   1.2851E+00   3.4651E-05  0.0137
   1.2851E+00   1.3163E+00   3.4466E-05  0.0136
   1.3163E+00   1.3484E+00   3.2598E-05  0.0138
   1.3484E+00   1.3812E+00   3.3088E-05  0.0135
   1.3812E+00   1.4148E+00   3.3785E-05  0.0132
   1.4148E+00   1.4492E+00   3.3904E-05  0.0131
   1.4492E+00   1.4845E+00   3.2824E-05  0.0131
   1.4845E+00   1.5206E+00   3.3936E-05  0.0127
   1.5206E+00   1.5576E+00   3.2100E-05  0.0129
   1.5576E+00   1.5955E+00   3.1838E-05  0.0128
   1.5955E+00   1.6343E+00   3.1476E-05  0.0128
   1.6343E+00   1.6741E+00   3.0931E-05  0.0127
   1.6741E+00   1.7148E+00   3.1087E-05  0.0125
   1.7148E+00   1.7565E+00   3.0407E-05  0.0125
   1.7565E+00   1.7992E+00   3.0193E-05  0.0124
   1.7992E+00   1.8430E+00   3.0874E-05  0.0121
   1.8430E+00   1.8879E+00   2.9862E-05  0.0122
   1.8879E+00   1.9338E+00   2.9028E-05  0.0122
   1.9338E+00   1.9808E+00   2.8884E-05  0.0121
   1.9808E+00   2.0290E+00   2.8863E-05  0.0120
   2.0290E+00   2.0784E+00   2.8142E-05  0.0120
   2.0784E+00   2.1290E+00   2.7958E-05  0.0119
   2.1290E+00   2.1808E+00   2.8174E-05  0.0117
   2.1808E+00   2.2338E+00   2.7424E-05  0.0117
   2.2338E+00   2.2882E+00   2.6967E-05  0.0116
   2.2882E+00   2.3439E+00   2.6884E-05  0.0115
   2.3439E+00   2.4009E+00   2.6251E-05  0.0115
   2.4009E+00   2.4593E+00   2.5787E-05  0.0115
   2.4593E+00   2.5191E+00   2.6154E-05  0.0113
   2.5191E+00   2.5804E+00   2.5461E-05  0.0113
   2.5804E+00   2.6432E+00   2.5762E-05  0.0111
   2.6432E+00   2.7075E+00   2.4776E-05  0.0112
   2.7075E+00   2.7734E+00   2.4645E-05  0.0111
   2.7734E+00   2.8409E+00   2.4064E-05  0.0111
   2.8409E+00   2.9100E+00   2.4080E-05  0.0109
   2.9100E+00   2.9808E+00   2.3804E-05  0.0109
   2.9808E+00   3.0533E+00   2.4192E-05  0.0106
   3.0533E+00   3.1276E+00   2.3667E-05  0.0106
   3.1276E+00   3.2037E+00   2.3211E-05  0.0106
   3.2037E+00   3.2817E+00   2.3608E-05  0.0104
   3.2817E+00   3.3615E+00   2.2325E-05  0.0106
   3.3615E+00   3.4433E+00   2.2439E-05  0.0104
   3.4433E+00   3.5271E+00   2.2017E-05  0.0104
   3.5271E+00   3.6129E+00   2.1597E-05  0.0104
   3.6129E+00   3.7008E+00   2.1655E-05  0.0102
   3.7008E+00   3.7908E+00   2.1314E-05  0.0102
   3.7908E+00   3.8831E+00   2.0898E-05  0.0102
   3.8831E+00   3.9776E+00   2.0885E-05  0.0100
   3.9776E+00   4.0743E+00   2.0434E-05  0.0100
   4.0743E+00   4.1735E+00   2.0193E-05  0.0100
   4.1735E+00   4.2750E+00   1.9900E-05  0.0099
   4.2750E+00   4.3790E+00   1.9531E-05  0.0099
   4.3790E+00   4.4856E+00   1.9377E-05  0.0098
   4.4856E+00   4.5947E+00   1.9232E-05  0.0097
   4.5947E+00   4.7065E+00   1.8842E-05  0.0097
   4.7065E+00   4.8210E+00   1.8713E-05  0.0096
   4.8210E+00   4.9383E+00   1.8392E-05  0.0096
   4.9383E+00   5.0585E+00   1.8491E-05  0.0095
   5.0585E+00   5.1815E+00   1.8139E-05  0.0094
   5.1815E+00   5.3076E+00   1.8041E-05  0.0094
   5.3076E+00   5.4368E+00   1.8015E-05  0.0093
   5.4368E+00   5.5690E+00   1.7273E-05  0.0093
   5.5690E+00   5.7045E+00   1.7162E-05  0.0093
   5.7045E+00   5.8433E+00   1.6586E-05  0.0093
   5.8433E+00   5.9855E+00   1.6487E-05  0.0092
   5.9855E+00   6.1311E+00   1.6117E-05  0.0092
   6.1311E+00   6.2803E+00   1.6278E-05  0.0091
   6.2803E+00   6.4331E+00   1.5906E-05  0.0091
   6.4331E+00   6.5896E+00   1.5558E-05  0.0090
   6.5896E+00   6.7500E+00   1.5295E-05  0.0090
   6.7500E+00   6.9142E+00   1.5176E-05  0.0089
   6.9142E+00   7.0824E+00   1.4972E-05  0.0089
   7.0824E+00   7.2548E+00   1.4554E-05  0.0089
   7.2548E+00   7.4313E+00   1.4130E-05  0.0089
   7.4313E+00   7.6121E+00   1.4095E-05  0.0088
   7.6121E+00   7.7973E+00   1.4051E-05  0.0088
   7.7973E+00   7.9870E+00   1.3698E-05  0.0088
   7.9870E+00   8.1813E+00   1.3575E-05  0.0087
   8.1813E+00   8.3804E+00   1.3326E-05  0.0087
   8.3804E+00   8.5843E+00   1.3293E-05  0.0086
   8.5843E+00   8.7931E+00   1.2876E-05  0.0086
   8.7931E+00   9.0071E+00   1.2878E-05  0.0085
   9.0071E+00   9.2262E+00   1.2662E-05  0.0085
   9.2262E+00   9.4507E+00   1.2624E-05  0.0084
   9.4507E+00   9.6807E+00   1.2200E-05  0.0084
   9.6807E+00   9.9162E+00   1.2125E-05  0.0084
   9.9162E+00   1.0157E+01   1.2012E-05  0.0083
   1.0157E+01   1.0405E+01   1.2010E-05  0.0082
   1.0405E+01   1.0658E+01   1.1918E-05  0.0081
   1.0658E+01   1.0917E+01   1.1831E-05  0.0081
   1.0917E+01   1.1183E+01   1.1743E-05  0.0080
   1.1183E+01   1.1455E+01   1.1563E-05  0.0080
   1.1455E+01   1.1733E+01   1.1710E-05  0.0078
   1.1733E+01   1.2019E+01   1.1753E-05  0.0077
   1.2019E+01   1.2311E+01   1.1591E-05  0.0077
   1.2311E+01   1.2611E+01   1.1698E-05  0.0076
   1.2611E+01   1.2918E+01   1.1532E-05  0.0075
   1.2918E+01   1.3232E+01   1.1604E-05  0.0074
   1.3232E+01   1.3554E+01   1.1650E-05  0.0073
   1.3554E+01   1.3884E+01   1.1611E-05  0.0072
   1.3884E+01   1.4222E+01   1.1851E-05  0.0071
   1.4222E+01   1.4568E+01   1.1708E-05  0.0070
   1.4568E+01   1.4922E+01   1.1842E-05  0.0069
   1.4922E+01   1.5285E+01   1.1874E-05  0.0068
   1.5285E+01   1.5657E+01   1.2203E-05  0.0066
   1.5657E+01   1.6038E+01   1.2344E-05  0.0065
   1.6038E+01   1.6428E+01   1.2415E-05  0.0064
   1.6428E+01   1.6828E+01   1.2768E-05  0.0063
   1.6828E+01   1.7237E+01   1.3112E-05  0.0061
   1.7237E+01   1.7657E+01   1.3374E-05  0.0060
   1.7657E+01   1.8086E+01   1.3665E-05  0.0058
   1.8086E+01   1.8526E+01   1.4014E-05  0.0057
   1.8526E+01   1.8977E+01   1.4371E-05  0.0056
   1.8977E+01   1.9439E+01   1.4834E-05  0.0054
   1.9439E+01   1.9912E+01   1.5421E-05  0.0052
   1.9912E+01   2.0396E+01   1.6165E-05  0.0051
   2.0396E+01   2.0893E+01   1.6824E-05  0.0049
   2.0893E+01   2.1401E+01   1.7597E-05  0.0047
   2.1401E+01   2.1922E+01   1.8327E-05  0.0046
   2.1922E+01   2.2455E+01   1.9102E-05  0.0044
   2.2455E+01   2.3001E+01   2.0221E-05  0.0043
   2.3001E+01   2.3561E+01   2.1191E-05  0.0041
   2.3561E+01   2.4134E+01   2.2311E-05  0.0040
   2.4134E+01   2.4721E+01   2.3704E-05  0.0038
   2.4721E+01   2.5323E+01   2.4989E-05  0.0036
   2.5323E+01   2.5939E+01   2.6589E-05  0.0035
   2.5939E+01   2.6570E+01   2.8199E-05  0.0034
   2.6570E+01   2.7217E+01   3.0145E-05  0.0032
   2.7217E+01   2.7879E+01   3.2262E-05  0.0031
   2.7879E+01   2.8557E+01   3.4421E-05  0.0029
   2.8557E+01   2.9252E+01   3.6880E-05  0.0028
   2.9252E+01   2.9964E+01   3.9697E-05  0.0027
   2.9964E+01   3.0693E+01   4.2775E-05  0.0025
   3.0693E+01   3.1440E+01   4.6144E-05  0.0024
   3.1440E+01   3.2205E+01   4.9691E-05  0.0023
   3.2205E+01   3.2988E+01   5.3737E-05  0.0022
   3.2988E+01   3.3791E+01   5.8183E-05  0.0021
   3.3791E+01   3.4613E+01   6.3103E-05  0.0020
   3.4613E+01   3.5455E+01   6.8368E-05  0.0019
   3.5455E+01   3.6318E+01   7.4392E-05  0.0018
   3.6318E+01   3.7201E+01   8.0630E-05  0.0017
   3.7201E+01   3.8106E+01   8.7846E-05  0.0016
   3.8106E+01   3.9034E+01   9.5158E-05  0.0015
   3.9034E+01   3.9983E+01   1.0303E-04  0.0014
   3.9983E+01   4.0956E+01   1.1162E-04  0.0014
   4.0956E+01   4.1953E+01   1.2073E-04  0.0013
   4.1953E+01   4.2973E+01   1.2968E-04  0.0012
   4.2973E+01   4.4019E+01   1.3922E-04  0.0012
   4.4019E+01   4.5090E+01   1.4874E-04  0.0011
   4.5090E+01   4.6187E+01   1.5745E-04  0.0011
   4.6187E+01   4.7311E+01   1.6543E-04  0.0010
   4.7311E+01   4.8462E+01   1.7210E-04  0.0010
   4.8462E+01   4.9641E+01   1.7740E-04  0.0010
   4.9641E+01   5.0849E+01   1.8065E-04  0.0010
   5.0849E+01   5.2086E+01   1.8155E-04  0.0009
   5.2086E+01   5.3353E+01   1.8035E-04  0.0009
   5.3353E+01   5.4651E+01   1.7664E-04  0.0009
   5.4651E+01   5.5981E+01   1.7051E-04  0.0009
   5.5981E+01   5.7343E+01   1.6170E-04  0.0010
   5.7343E+01   5.8738E+01   1.5149E-04  0.0010
   5.8738E+01   6.0168E+01   1.4002E-04  0.0010
   6.0168E+01   6.1632E+01   1.2728E-04  0.0010
   6.1632E+01   6.3131E+01   1.1470E-04  0.0011
   6.3131E+01   6.4667E+01   1.0177E-04  0.0011
   6.4667E+01   6.6240E+01   8.9913E-05  0.0012
   6.6240E+01   6.7852E+01   7.8380E-05  0.0013
   6.7852E+01   6.9503E+01   6.7976E-05  0.0013
   6.9503E+01   7.1194E+01   5.8505E-05  0.0014
   7.1194E+01   7.2926E+01   5.0374E-05  0.0015
   7.2926E+01   7.4701E+01   4.3126E-05  0.0016
   7.4701E+01   7.6518E+01   3.6815E-05  0.0017
   7.6518E+01   7.8380E+01   3.1363E-05  0.0019
   7.8380E+01   8.0287E+01   2.6665E-05  0.0020
   8.0287E+01   8.2240E+01   2.2558E-05  0.0021
   8.2240E+01   8.4241E+01   1.9220E-05  0.0023
   8.4241E+01   8.6291E+01   1.6327E-05  0.0024
   8.6291E+01   8.8391E+01   1.3828E-05  0.0026
   8.8391E+01   9.0541E+01   1.1772E-05  0.0028
   9.0541E+01   9.2744E+01   1.0143E-05  0.0030
   9.2744E+01   9.5001E+01   8.7828E-06  0.0032
   9.5001E+01   9.7312E+01   7.5678E-06  0.0034
   9.7312E+01   9.9680E+01   6.6022E-06  0.0036
   9.9680E+01   1.0211E+02   6.0219E-06  0.0037
   1.0211E+02   1.0459E+02   5.6607E-06  0.0038
   1.0459E+02   1.0713E+02   5.1500E-06  0.0039
   1.0713E+02   1.0974E+02   4.5299E-06  0.0041
   1.0974E+02   1.1241E+02   3.8776E-06  0.0044
   1.1241E+02   1.1515E+02   3.1994E-06  0.0048
   1.1515E+02   1.1795E+02   2.5271E-06  0.0053
   1.1795E+02   1.2082E+02   2.0154E-06  0.0059
   1.2082E+02   1.2376E+02   1.4860E-06  0.0068
   1.2376E+02   1.2677E+02   7.8357E-07  0.0092
   1.2677E+02   1.2985E+02   1.7644E-07  0.0192
   1.2985E+02   1.3301E+02   9.5587E-09  0.0814
   1.3301E+02   1.3625E+02   0.0000E+00  0.0000
   1.3625E+02   1.3956E+02   0.0000E+00  0.0000
   1.3956E+02   1.4296E+02   0.0000E+00  0.0000
   1.4296E+02   1.4644E+02   0.0000E+00  0.0000
   1.4644E+02   1.5000E+02   0.0000E+00  0.0000

#   sum over                 4.1130E-05
'no. =    1   reg = 100 - 200'
msuc: {\huge [t-cross] in region mesh}
msdr: {\it plotted by \ANGEL \version}
msdl: {\it calculated by \PHITS  3.28}
wt: s(0.7)
\vspace{-3}
  region surface crossing
  area  &=&   1.0000E+00 [cm^2]
e:
 
# Information for Restart Calculation
# This calculation was newly started
# istdev =  2 # 1:Batch variance, 2:History variance
# resc2  = 5.00000000000000000E+09 # Total source weight or Total source weight / maxcas
# resc3  = 5.00000000000000000E+09 # Total history number or Total batch number
# maxcas =   500000000 # History / Batch, only used for istdev=1
# bitrseed = 0110100000100010111000001110001111001110100100011111101000111001 # bit data of rseed
