[ T-Cross ]
    title = [t-cross] in region mesh
     mesh =  reg            # mesh type is region-wise
      reg =    1            # number of crossing regions
      non     r-from    r-to       area
      1       115       215        1.000000    
   e-type =    3            # e-mesh is log given by emin, emax and ne
     emin =  1.0000000E-02  # minimum value of e-mesh points
     emax =   150.0000      # maximum value of e-mesh points
#    edel =  2.4039514E-02  # mesh width of e-mesh points
       ne =    400          # number of e-mesh points
#    data = ( e(i), i = 1, ne + 1 )
#           1.00000E-02  1.02433E-02  1.04925E-02  1.07478E-02  1.10093E-02
#           1.12772E-02  1.15516E-02  1.18326E-02  1.21205E-02  1.24154E-02
#           1.27175E-02  1.30269E-02  1.33439E-02  1.36686E-02  1.40011E-02
#           1.43418E-02  1.46907E-02  1.50482E-02  1.54143E-02  1.57894E-02
#           1.61735E-02  1.65670E-02  1.69701E-02  1.73830E-02  1.78060E-02
#           1.82392E-02  1.86830E-02  1.91375E-02  1.96032E-02  2.00801E-02
#           2.05687E-02  2.10692E-02  2.15818E-02  2.21069E-02  2.26448E-02
#           2.31957E-02  2.37601E-02  2.43382E-02  2.49304E-02  2.55369E-02
#           2.61583E-02  2.67947E-02  2.74467E-02  2.81145E-02  2.87985E-02
#           2.94992E-02  3.02169E-02  3.09521E-02  3.17052E-02  3.24766E-02
#           3.32668E-02  3.40762E-02  3.49053E-02  3.57546E-02  3.66246E-02
#           3.75157E-02  3.84284E-02  3.93634E-02  4.03212E-02  4.13022E-02
#           4.23071E-02  4.33365E-02  4.43909E-02  4.54710E-02  4.65773E-02
#           4.77106E-02  4.88714E-02  5.00605E-02  5.12785E-02  5.25262E-02
#           5.38042E-02  5.51133E-02  5.64542E-02  5.78278E-02  5.92348E-02
#           6.06760E-02  6.21523E-02  6.36645E-02  6.52135E-02  6.68002E-02
#           6.84255E-02  7.00904E-02  7.17957E-02  7.35426E-02  7.53319E-02
#           7.71648E-02  7.90423E-02  8.09655E-02  8.29354E-02  8.49533E-02
#           8.70203E-02  8.91376E-02  9.13064E-02  9.35279E-02  9.58035E-02
#           9.81345E-02  1.00522E-01  1.02968E-01  1.05473E-01  1.08040E-01
#           1.10668E-01  1.13361E-01  1.16119E-01  1.18944E-01  1.21838E-01
#           1.24803E-01  1.27839E-01  1.30950E-01  1.34136E-01  1.37399E-01
#           1.40742E-01  1.44167E-01  1.47675E-01  1.51268E-01  1.54948E-01
#           1.58718E-01  1.62580E-01  1.66535E-01  1.70587E-01  1.74738E-01
#           1.78989E-01  1.83344E-01  1.87805E-01  1.92375E-01  1.97055E-01
#           2.01850E-01  2.06761E-01  2.11792E-01  2.16945E-01  2.22223E-01
#           2.27630E-01  2.33169E-01  2.38842E-01  2.44653E-01  2.50605E-01
#           2.56703E-01  2.62949E-01  2.69346E-01  2.75900E-01  2.82613E-01
#           2.89489E-01  2.96532E-01  3.03747E-01  3.11138E-01  3.18708E-01
#           3.26462E-01  3.34405E-01  3.42542E-01  3.50876E-01  3.59413E-01
#           3.68158E-01  3.77116E-01  3.86291E-01  3.95690E-01  4.05317E-01
#           4.15179E-01  4.25281E-01  4.35628E-01  4.46227E-01  4.57084E-01
#           4.68205E-01  4.79597E-01  4.91266E-01  5.03219E-01  5.15463E-01
#           5.28005E-01  5.40851E-01  5.54011E-01  5.67490E-01  5.81298E-01
#           5.95441E-01  6.09929E-01  6.24769E-01  6.39970E-01  6.55541E-01
#           6.71491E-01  6.87828E-01  7.04564E-01  7.21706E-01  7.39266E-01
#           7.57253E-01  7.75678E-01  7.94551E-01  8.13883E-01  8.33685E-01
#           8.53969E-01  8.74747E-01  8.96030E-01  9.17831E-01  9.40163E-01
#           9.63038E-01  9.86469E-01  1.01047E+00  1.03506E+00  1.06024E+00
#           1.08604E+00  1.11246E+00  1.13953E+00  1.16725E+00  1.19565E+00
#           1.22474E+00  1.25454E+00  1.28507E+00  1.31633E+00  1.34836E+00
#           1.38117E+00  1.41477E+00  1.44920E+00  1.48446E+00  1.52057E+00
#           1.55757E+00  1.59547E+00  1.63429E+00  1.67405E+00  1.71478E+00
#           1.75650E+00  1.79924E+00  1.84302E+00  1.88786E+00  1.93379E+00
#           1.98084E+00  2.02904E+00  2.07841E+00  2.12898E+00  2.18078E+00
#           2.23384E+00  2.28819E+00  2.34386E+00  2.40089E+00  2.45930E+00
#           2.51914E+00  2.58043E+00  2.64322E+00  2.70753E+00  2.77341E+00
#           2.84088E+00  2.91001E+00  2.98081E+00  3.05333E+00  3.12762E+00
#           3.20372E+00  3.28167E+00  3.36152E+00  3.44330E+00  3.52708E+00
#           3.61290E+00  3.70080E+00  3.79085E+00  3.88308E+00  3.97756E+00
#           4.07434E+00  4.17347E+00  4.27501E+00  4.37903E+00  4.48557E+00
#           4.59471E+00  4.70650E+00  4.82102E+00  4.93832E+00  5.05847E+00
#           5.18155E+00  5.30762E+00  5.43676E+00  5.56904E+00  5.70453E+00
#           5.84333E+00  5.98550E+00  6.13114E+00  6.28031E+00  6.43312E+00
#           6.58964E+00  6.74997E+00  6.91420E+00  7.08243E+00  7.25475E+00
#           7.43126E+00  7.61207E+00  7.79728E+00  7.98700E+00  8.18133E+00
#           8.38038E+00  8.58428E+00  8.79315E+00  9.00709E+00  9.22624E+00
#           9.45072E+00  9.68067E+00  9.91620E+00  1.01575E+01  1.04046E+01
#           1.06578E+01  1.09171E+01  1.11827E+01  1.14548E+01  1.17335E+01
#           1.20190E+01  1.23114E+01  1.26109E+01  1.29178E+01  1.32321E+01
#           1.35540E+01  1.38838E+01  1.42216E+01  1.45676E+01  1.49221E+01
#           1.52851E+01  1.56570E+01  1.60380E+01  1.64282E+01  1.68279E+01
#           1.72374E+01  1.76568E+01  1.80864E+01  1.85264E+01  1.89772E+01
#           1.94389E+01  1.99119E+01  2.03963E+01  2.08926E+01  2.14009E+01
#           2.19216E+01  2.24550E+01  2.30014E+01  2.35610E+01  2.41343E+01
#           2.47215E+01  2.53230E+01  2.59391E+01  2.65702E+01  2.72167E+01
#           2.78789E+01  2.85572E+01  2.92520E+01  2.99637E+01  3.06928E+01
#           3.14396E+01  3.22045E+01  3.29881E+01  3.37907E+01  3.46128E+01
#           3.54550E+01  3.63177E+01  3.72013E+01  3.81064E+01  3.90336E+01
#           3.99833E+01  4.09561E+01  4.19526E+01  4.29734E+01  4.40189E+01
#           4.50900E+01  4.61870E+01  4.73108E+01  4.84619E+01  4.96410E+01
#           5.08488E+01  5.20860E+01  5.33533E+01  5.46514E+01  5.59812E+01
#           5.73432E+01  5.87384E+01  6.01676E+01  6.16315E+01  6.31311E+01
#           6.46671E+01  6.62405E+01  6.78522E+01  6.95031E+01  7.11941E+01
#           7.29263E+01  7.47007E+01  7.65182E+01  7.83800E+01  8.02870E+01
#           8.22405E+01  8.42414E+01  8.62911E+01  8.83906E+01  9.05412E+01
#           9.27442E+01  9.50007E+01  9.73122E+01  9.96799E+01  1.02105E+02
#           1.04589E+02  1.07134E+02  1.09741E+02  1.12411E+02  1.15146E+02
#           1.17948E+02  1.20817E+02  1.23757E+02  1.26768E+02  1.29852E+02
#           1.33012E+02  1.36248E+02  1.39563E+02  1.42959E+02  1.46437E+02
#           1.50000E+02
     unit =    2            # unit is [1/cm^2/(MeV/n)/source]
     axis =  eng            # axis of output
     file = detector-16.out  # file name of output for the above axis
   output = f-curr          # surface crossing forward current spectrum
     part =  neutron  
# kf/name :  2112     
#    used :        main (  %)        temp (  %)       total (  %)
#  memory :         414 (  0)           0 (  0)         414 (  0)

#------------------------------------------------------------------------------
#newpage:
#   no. =    1   reg = 115 - 215

x: Energy [MeV/n]
y:  F-Curr [1/cm^2/(MeV/n)/source]         
p: xlog ylog afac(0.8) form(0.9)
h: n            x            y(neutron ),hh0l   n 
#  e-lower      e-upper      neutron     r.err 
   1.0000E-02   1.0243E-02   2.7699E-04  0.0543
   1.0243E-02   1.0493E-02   2.4076E-04  0.0576
   1.0493E-02   1.0748E-02   2.6583E-04  0.0541
   1.0748E-02   1.1009E-02   2.3150E-04  0.0573
   1.1009E-02   1.1277E-02   2.5581E-04  0.0538
   1.1277E-02   1.1552E-02   2.5374E-04  0.0535
   1.1552E-02   1.1833E-02   2.4307E-04  0.0540
   1.1833E-02   1.2121E-02   2.2174E-04  0.0558
   1.2121E-02   1.2415E-02   2.2165E-04  0.0552
   1.2415E-02   1.2718E-02   2.2258E-04  0.0544
   1.2718E-02   1.3027E-02   2.2455E-04  0.0536
   1.3027E-02   1.3344E-02   2.1796E-04  0.0537
   1.3344E-02   1.3669E-02   2.0700E-04  0.0544
   1.3669E-02   1.4001E-02   2.2022E-04  0.0521
   1.4001E-02   1.4342E-02   2.0732E-04  0.0530
   1.4342E-02   1.4691E-02   1.8711E-04  0.0552
   1.4691E-02   1.5048E-02   2.0148E-04  0.0526
   1.5048E-02   1.5414E-02   1.9525E-04  0.0527
   1.5414E-02   1.5789E-02   1.7681E-04  0.0547
   1.5789E-02   1.6174E-02   1.7873E-04  0.0537
   1.6174E-02   1.6567E-02   1.8464E-04  0.0523
   1.6567E-02   1.6970E-02   1.6051E-04  0.0554
   1.6970E-02   1.7383E-02   1.7080E-04  0.0531
   1.7383E-02   1.7806E-02   1.5602E-04  0.0549
   1.7806E-02   1.8239E-02   1.5282E-04  0.0548
   1.8239E-02   1.8683E-02   1.4199E-04  0.0562
   1.8683E-02   1.9138E-02   1.5537E-04  0.0530
   1.9138E-02   1.9603E-02   1.5437E-04  0.0526
   1.9603E-02   2.0080E-02   1.4998E-04  0.0527
   2.0080E-02   2.0569E-02   1.4389E-04  0.0532
   2.0569E-02   2.1069E-02   1.3909E-04  0.0534
   2.1069E-02   2.1582E-02   1.4096E-04  0.0524
   2.1582E-02   2.2107E-02   1.3390E-04  0.0532
   2.2107E-02   2.2645E-02   1.3008E-04  0.0533
   2.2645E-02   2.3196E-02   1.2626E-04  0.0534
   2.3196E-02   2.3760E-02   1.3172E-04  0.0517
   2.3760E-02   2.4338E-02   1.2195E-04  0.0531
   2.4338E-02   2.4930E-02   1.2940E-04  0.0509
   2.4930E-02   2.5537E-02   1.2227E-04  0.0518
   2.5537E-02   2.6158E-02   1.1533E-04  0.0527
   2.6158E-02   2.6795E-02   1.0995E-04  0.0533
   2.6795E-02   2.7447E-02   1.0238E-04  0.0544
   2.7447E-02   2.8114E-02   1.0502E-04  0.0532
   2.8114E-02   2.8799E-02   9.7154E-05  0.0547
   2.8799E-02   2.9499E-02   9.5028E-05  0.0546
   2.9499E-02   3.0217E-02   9.5422E-05  0.0538
   3.0217E-02   3.0952E-02   9.6436E-05  0.0529
   3.0952E-02   3.1705E-02   1.0136E-04  0.0510
   3.1705E-02   3.2477E-02   9.3067E-05  0.0527
   3.2477E-02   3.3267E-02   9.0802E-05  0.0527
   3.3267E-02   3.4076E-02   1.0253E-04  0.0490
   3.4076E-02   3.4905E-02   9.4065E-05  0.0506
   3.4905E-02   3.5755E-02   9.9312E-05  0.0486
   3.5755E-02   3.6625E-02   9.3825E-05  0.0493
   3.6625E-02   3.7516E-02   8.5641E-05  0.0510
   3.7516E-02   3.8428E-02   8.1065E-05  0.0518
   3.8428E-02   3.9363E-02   8.0334E-05  0.0514
   3.9363E-02   4.0321E-02   7.9185E-05  0.0512
   4.0321E-02   4.1302E-02   7.9921E-05  0.0503
   4.1302E-02   4.2307E-02   7.2287E-05  0.0524
   4.2307E-02   4.3337E-02   7.6059E-05  0.0504
   4.3337E-02   4.4391E-02   7.4790E-05  0.0503
   4.4391E-02   4.5471E-02   6.8959E-05  0.0516
   4.5471E-02   4.6577E-02   6.6566E-05  0.0520
   4.6577E-02   4.7711E-02   6.6398E-05  0.0514
   4.7711E-02   4.8871E-02   5.9682E-05  0.0535
   4.8871E-02   5.0061E-02   5.8790E-05  0.0533
   5.0061E-02   5.1279E-02   6.7407E-05  0.0492
   5.1279E-02   5.2526E-02   6.9599E-05  0.0478
   5.2526E-02   5.3804E-02   6.0612E-05  0.0507
   5.3804E-02   5.5113E-02   5.9603E-05  0.0504
   5.5113E-02   5.6454E-02   6.0210E-05  0.0496
   5.6454E-02   5.7828E-02   5.9913E-05  0.0491
   5.7828E-02   5.9235E-02   5.9106E-05  0.0489
   5.9235E-02   6.0676E-02   5.3673E-05  0.0507
   6.0676E-02   6.2152E-02   6.0894E-05  0.0470
   6.2152E-02   6.3665E-02   5.2772E-05  0.0499
   6.3665E-02   6.5214E-02   5.4668E-05  0.0485
   6.5214E-02   6.6800E-02   5.2903E-05  0.0487
   6.6800E-02   6.8426E-02   5.0750E-05  0.0491
   6.8426E-02   7.0090E-02   5.2684E-05  0.0476
   7.0090E-02   7.1796E-02   4.8560E-05  0.0490
   7.1796E-02   7.3543E-02   5.1012E-05  0.0472
   7.3543E-02   7.5332E-02   4.6392E-05  0.0489
   7.5332E-02   7.7165E-02   4.8191E-05  0.0474
   7.7165E-02   7.9042E-02   5.2058E-05  0.0451
   7.9042E-02   8.0965E-02   4.9353E-05  0.0458
   8.0965E-02   8.2935E-02   4.6531E-05  0.0466
   8.2935E-02   8.4953E-02   4.7497E-05  0.0455
   8.4953E-02   8.7020E-02   4.3773E-05  0.0469
   8.7020E-02   8.9138E-02   4.1768E-05  0.0474
   8.9138E-02   9.1306E-02   4.1674E-05  0.0469
   9.1306E-02   9.3528E-02   4.1900E-05  0.0462
   9.3528E-02   9.5804E-02   4.0085E-05  0.0467
   9.5804E-02   9.8134E-02   4.3773E-05  0.0442
   9.8134E-02   1.0052E-01   4.1424E-05  0.0449
   1.0052E-01   1.0297E-01   4.3896E-05  0.0430
   1.0297E-01   1.0547E-01   4.7416E-05  0.0409
   1.0547E-01   1.0804E-01   4.4006E-05  0.0420
   1.0804E-01   1.1067E-01   4.6838E-05  0.0402
   1.1067E-01   1.1336E-01   5.0575E-05  0.0382
   1.1336E-01   1.1612E-01   5.2492E-05  0.0370
   1.1612E-01   1.1894E-01   5.7108E-05  0.0351
   1.1894E-01   1.2184E-01   5.7340E-05  0.0346
   1.2184E-01   1.2480E-01   6.6375E-05  0.0318
   1.2480E-01   1.2784E-01   6.3924E-05  0.0320
   1.2784E-01   1.3095E-01   6.6583E-05  0.0310
   1.3095E-01   1.3414E-01   7.1503E-05  0.0296
   1.3414E-01   1.3740E-01   7.0330E-05  0.0294
   1.3740E-01   1.4074E-01   7.3164E-05  0.0285
   1.4074E-01   1.4417E-01   7.7472E-05  0.0274
   1.4417E-01   1.4767E-01   8.1966E-05  0.0263
   1.4767E-01   1.5127E-01   8.3792E-05  0.0257
   1.5127E-01   1.5495E-01   9.2634E-05  0.0242
   1.5495E-01   1.5872E-01   9.4215E-05  0.0237
   1.5872E-01   1.6258E-01   9.8161E-05  0.0229
   1.6258E-01   1.6654E-01   1.0230E-04  0.0222
   1.6654E-01   1.7059E-01   1.0411E-04  0.0217
   1.7059E-01   1.7474E-01   1.0580E-04  0.0213
   1.7474E-01   1.7899E-01   1.1762E-04  0.0199
   1.7899E-01   1.8334E-01   1.1809E-04  0.0197
   1.8334E-01   1.8781E-01   1.2490E-04  0.0189
   1.8781E-01   1.9237E-01   1.3247E-04  0.0181
   1.9237E-01   1.9706E-01   1.3176E-04  0.0180
   1.9706E-01   2.0185E-01   1.3705E-04  0.0174
   2.0185E-01   2.0676E-01   1.4473E-04  0.0167
   2.0676E-01   2.1179E-01   1.4808E-04  0.0163
   2.1179E-01   2.1694E-01   1.5759E-04  0.0157
   2.1694E-01   2.2222E-01   1.6710E-04  0.0150
   2.2222E-01   2.2763E-01   1.7106E-04  0.0147
   2.2763E-01   2.3317E-01   1.7953E-04  0.0142
   2.3317E-01   2.3884E-01   1.8479E-04  0.0138
   2.3884E-01   2.4465E-01   1.9022E-04  0.0134
   2.4465E-01   2.5061E-01   1.9690E-04  0.0130
   2.5061E-01   2.5670E-01   2.0497E-04  0.0126
   2.5670E-01   2.6295E-01   2.0966E-04  0.0123
   2.6295E-01   2.6935E-01   2.1871E-04  0.0119
   2.6935E-01   2.7590E-01   2.2256E-04  0.0117
   2.7590E-01   2.8261E-01   2.3399E-04  0.0113
   2.8261E-01   2.8949E-01   2.4106E-04  0.0110
   2.8949E-01   2.9653E-01   2.4705E-04  0.0107
   2.9653E-01   3.0375E-01   2.5791E-04  0.0103
   3.0375E-01   3.1114E-01   2.5969E-04  0.0102
   3.1114E-01   3.1871E-01   2.7066E-04  0.0099
   3.1871E-01   3.2646E-01   2.7897E-04  0.0096
   3.2646E-01   3.3441E-01   2.8683E-04  0.0093
   3.3441E-01   3.4254E-01   2.9239E-04  0.0091
   3.4254E-01   3.5088E-01   2.9969E-04  0.0089
   3.5088E-01   3.5941E-01   3.0560E-04  0.0087
   3.5941E-01   3.6816E-01   3.1418E-04  0.0085
   3.6816E-01   3.7712E-01   3.2098E-04  0.0083
   3.7712E-01   3.8629E-01   3.3232E-04  0.0081
   3.8629E-01   3.9569E-01   3.3304E-04  0.0080
   3.9569E-01   4.0532E-01   3.3926E-04  0.0078
   4.0532E-01   4.1518E-01   3.4404E-04  0.0077
   4.1518E-01   4.2528E-01   3.4966E-04  0.0075
   4.2528E-01   4.3563E-01   3.5293E-04  0.0074
   4.3563E-01   4.4623E-01   3.6353E-04  0.0072
   4.4623E-01   4.5708E-01   3.6463E-04  0.0071
   4.5708E-01   4.6821E-01   3.6571E-04  0.0070
   4.6821E-01   4.7960E-01   3.6858E-04  0.0069
   4.7960E-01   4.9127E-01   3.7181E-04  0.0068
   4.9127E-01   5.0322E-01   3.7299E-04  0.0067
   5.0322E-01   5.1546E-01   3.8099E-04  0.0065
   5.1546E-01   5.2800E-01   3.8370E-04  0.0064
   5.2800E-01   5.4085E-01   3.8800E-04  0.0063
   5.4085E-01   5.5401E-01   3.8780E-04  0.0062
   5.5401E-01   5.6749E-01   3.9294E-04  0.0061
   5.6749E-01   5.8130E-01   3.9759E-04  0.0060
   5.8130E-01   5.9544E-01   3.9447E-04  0.0060
   5.9544E-01   6.0993E-01   3.9545E-04  0.0059
   6.0993E-01   6.2477E-01   3.9327E-04  0.0058
   6.2477E-01   6.3997E-01   4.0005E-04  0.0057
   6.3997E-01   6.5554E-01   3.9906E-04  0.0057
   6.5554E-01   6.7149E-01   3.9438E-04  0.0056
   6.7149E-01   6.8783E-01   3.9823E-04  0.0055
   6.8783E-01   7.0456E-01   3.9673E-04  0.0055
   7.0456E-01   7.2171E-01   3.8814E-04  0.0055
   7.2171E-01   7.3927E-01   3.9667E-04  0.0053
   7.3927E-01   7.5725E-01   3.8755E-04  0.0053
   7.5725E-01   7.7568E-01   3.8914E-04  0.0053
   7.7568E-01   7.9455E-01   3.8469E-04  0.0052
   7.9455E-01   8.1388E-01   3.8216E-04  0.0052
   8.1388E-01   8.3368E-01   3.8031E-04  0.0051
   8.3368E-01   8.5397E-01   3.7139E-04  0.0051
   8.5397E-01   8.7475E-01   3.7431E-04  0.0050
   8.7475E-01   8.9603E-01   3.6748E-04  0.0050
   8.9603E-01   9.1783E-01   3.6656E-04  0.0050
   9.1783E-01   9.4016E-01   3.5865E-04  0.0050
   9.4016E-01   9.6304E-01   3.5629E-04  0.0049
   9.6304E-01   9.8647E-01   3.5138E-04  0.0049
   9.8647E-01   1.0105E+00   3.4260E-04  0.0049
   1.0105E+00   1.0351E+00   3.4107E-04  0.0049
   1.0351E+00   1.0602E+00   3.3275E-04  0.0049
   1.0602E+00   1.0860E+00   3.2902E-04  0.0048
   1.0860E+00   1.1125E+00   3.3034E-04  0.0048
   1.1125E+00   1.1395E+00   3.2623E-04  0.0047
   1.1395E+00   1.1673E+00   3.2800E-04  0.0046
   1.1673E+00   1.1957E+00   3.2948E-04  0.0046
   1.1957E+00   1.2247E+00   3.2779E-04  0.0045
   1.2247E+00   1.2545E+00   3.2174E-04  0.0045
   1.2545E+00   1.2851E+00   3.2420E-04  0.0044
   1.2851E+00   1.3163E+00   3.1565E-04  0.0044
   1.3163E+00   1.3484E+00   3.1582E-04  0.0044
   1.3484E+00   1.3812E+00   3.1418E-04  0.0043
   1.3812E+00   1.4148E+00   3.1469E-04  0.0043
   1.4148E+00   1.4492E+00   3.1031E-04  0.0043
   1.4492E+00   1.4845E+00   3.0474E-04  0.0042
   1.4845E+00   1.5206E+00   3.0246E-04  0.0042
   1.5206E+00   1.5576E+00   2.9832E-04  0.0042
   1.5576E+00   1.5955E+00   2.9281E-04  0.0042
   1.5955E+00   1.6343E+00   2.8861E-04  0.0041
   1.6343E+00   1.6741E+00   2.8063E-04  0.0041
   1.6741E+00   1.7148E+00   2.7334E-04  0.0041
   1.7148E+00   1.7565E+00   2.6958E-04  0.0041
   1.7565E+00   1.7992E+00   2.5661E-04  0.0042
   1.7992E+00   1.8430E+00   2.3826E-04  0.0043
   1.8430E+00   1.8879E+00   2.2468E-04  0.0043
   1.8879E+00   1.9338E+00   2.1750E-04  0.0043
   1.9338E+00   1.9808E+00   2.1189E-04  0.0043
   1.9808E+00   2.0290E+00   2.0390E-04  0.0044
   2.0290E+00   2.0784E+00   2.0132E-04  0.0043
   2.0784E+00   2.1290E+00   1.9839E-04  0.0043
   2.1290E+00   2.1808E+00   1.9947E-04  0.0042
   2.1808E+00   2.2338E+00   1.9873E-04  0.0042
   2.2338E+00   2.2882E+00   1.9334E-04  0.0042
   2.2882E+00   2.3439E+00   1.8471E-04  0.0043
   2.3439E+00   2.4009E+00   1.7981E-04  0.0043
   2.4009E+00   2.4593E+00   1.7418E-04  0.0043
   2.4593E+00   2.5191E+00   1.7035E-04  0.0043
   2.5191E+00   2.5804E+00   1.6698E-04  0.0043
   2.5804E+00   2.6432E+00   1.6223E-04  0.0043
   2.6432E+00   2.7075E+00   1.5692E-04  0.0043
   2.7075E+00   2.7734E+00   1.5433E-04  0.0043
   2.7734E+00   2.8409E+00   1.5070E-04  0.0043
   2.8409E+00   2.9100E+00   1.4644E-04  0.0043
   2.9100E+00   2.9808E+00   1.4132E-04  0.0043
   2.9808E+00   3.0533E+00   1.4055E-04  0.0043
   3.0533E+00   3.1276E+00   1.3666E-04  0.0043
   3.1276E+00   3.2037E+00   1.3398E-04  0.0043
   3.2037E+00   3.2817E+00   1.3153E-04  0.0043
   3.2817E+00   3.3615E+00   1.2947E-04  0.0043
   3.3615E+00   3.4433E+00   1.2749E-04  0.0043
   3.4433E+00   3.5271E+00   1.2492E-04  0.0042
   3.5271E+00   3.6129E+00   1.2372E-04  0.0042
   3.6129E+00   3.7008E+00   1.2145E-04  0.0042
   3.7008E+00   3.7908E+00   1.2015E-04  0.0042
   3.7908E+00   3.8831E+00   1.1747E-04  0.0042
   3.8831E+00   3.9776E+00   1.1517E-04  0.0042
   3.9776E+00   4.0743E+00   1.1273E-04  0.0042
   4.0743E+00   4.1735E+00   1.1034E-04  0.0042
   4.1735E+00   4.2750E+00   1.0761E-04  0.0042
   4.2750E+00   4.3790E+00   1.0582E-04  0.0042
   4.3790E+00   4.4856E+00   1.0448E-04  0.0041
   4.4856E+00   4.5947E+00   1.0149E-04  0.0041
   4.5947E+00   4.7065E+00   9.9818E-05  0.0041
   4.7065E+00   4.8210E+00   9.7325E-05  0.0041
   4.8210E+00   4.9383E+00   9.6195E-05  0.0041
   4.9383E+00   5.0585E+00   9.4847E-05  0.0041
   5.0585E+00   5.1815E+00   9.4053E-05  0.0041
   5.1815E+00   5.3076E+00   9.1817E-05  0.0041
   5.3076E+00   5.4368E+00   9.1472E-05  0.0040
   5.4368E+00   5.5690E+00   8.9759E-05  0.0040
   5.5690E+00   5.7045E+00   8.8913E-05  0.0040
   5.7045E+00   5.8433E+00   8.6824E-05  0.0040
   5.8433E+00   5.9855E+00   8.5888E-05  0.0040
   5.9855E+00   6.1311E+00   8.4211E-05  0.0040
   6.1311E+00   6.2803E+00   8.2832E-05  0.0039
   6.2803E+00   6.4331E+00   8.1061E-05  0.0039
   6.4331E+00   6.5896E+00   7.9901E-05  0.0039
   6.5896E+00   6.7500E+00   7.8043E-05  0.0039
   6.7500E+00   6.9142E+00   7.6645E-05  0.0039
   6.9142E+00   7.0824E+00   7.4356E-05  0.0039
   7.0824E+00   7.2548E+00   7.2999E-05  0.0039
   7.2548E+00   7.4313E+00   7.0975E-05  0.0039
   7.4313E+00   7.6121E+00   6.9384E-05  0.0039
   7.6121E+00   7.7973E+00   6.7449E-05  0.0039
   7.7973E+00   7.9870E+00   6.6080E-05  0.0039
   7.9870E+00   8.1813E+00   6.4612E-05  0.0039
   8.1813E+00   8.3804E+00   6.1900E-05  0.0040
   8.3804E+00   8.5843E+00   6.0096E-05  0.0040
   8.5843E+00   8.7931E+00   5.8620E-05  0.0040
   8.7931E+00   9.0071E+00   5.6629E-05  0.0040
   9.0071E+00   9.2262E+00   5.4750E-05  0.0040
   9.2262E+00   9.4507E+00   5.2843E-05  0.0041
   9.4507E+00   9.6807E+00   5.0887E-05  0.0041
   9.6807E+00   9.9162E+00   4.9760E-05  0.0041
   9.9162E+00   1.0157E+01   5.0140E-05  0.0041
   1.0157E+01   1.0405E+01   4.7744E-05  0.0041
   1.0405E+01   1.0658E+01   4.6183E-05  0.0041
   1.0658E+01   1.0917E+01   4.4558E-05  0.0041
   1.0917E+01   1.1183E+01   4.2171E-05  0.0042
   1.1183E+01   1.1455E+01   4.0486E-05  0.0043
   1.1455E+01   1.1733E+01   3.8887E-05  0.0043
   1.1733E+01   1.2019E+01   3.7133E-05  0.0043
   1.2019E+01   1.2311E+01   3.5682E-05  0.0044
   1.2311E+01   1.2611E+01   3.4364E-05  0.0044
   1.2611E+01   1.2918E+01   3.2798E-05  0.0045
   1.2918E+01   1.3232E+01   3.1674E-05  0.0045
   1.3232E+01   1.3554E+01   3.0182E-05  0.0045
   1.3554E+01   1.3884E+01   2.8742E-05  0.0046
   1.3884E+01   1.4222E+01   2.7318E-05  0.0047
   1.4222E+01   1.4568E+01   2.6038E-05  0.0047
   1.4568E+01   1.4922E+01   2.4708E-05  0.0048
   1.4922E+01   1.5285E+01   2.3211E-05  0.0049
   1.5285E+01   1.5657E+01   2.2094E-05  0.0049
   1.5657E+01   1.6038E+01   2.1042E-05  0.0050
   1.6038E+01   1.6428E+01   1.9741E-05  0.0051
   1.6428E+01   1.6828E+01   1.8289E-05  0.0052
   1.6828E+01   1.7237E+01   1.7363E-05  0.0053
   1.7237E+01   1.7657E+01   1.6047E-05  0.0055
   1.7657E+01   1.8086E+01   1.5151E-05  0.0055
   1.8086E+01   1.8526E+01   1.4407E-05  0.0056
   1.8526E+01   1.8977E+01   1.3736E-05  0.0057
   1.8977E+01   1.9439E+01   1.2904E-05  0.0058
   1.9439E+01   1.9912E+01   1.2172E-05  0.0059
   1.9912E+01   2.0396E+01   1.1250E-05  0.0061
   2.0396E+01   2.0893E+01   1.0322E-05  0.0062
   2.0893E+01   2.1401E+01   9.4131E-06  0.0065
   2.1401E+01   2.1922E+01   8.5135E-06  0.0067
   2.1922E+01   2.2455E+01   7.6787E-06  0.0070
   2.2455E+01   2.3001E+01   7.0025E-06  0.0072
   2.3001E+01   2.3561E+01   6.1539E-06  0.0076
   2.3561E+01   2.4134E+01   5.3613E-06  0.0081
   2.4134E+01   2.4721E+01   4.7871E-06  0.0084
   2.4721E+01   2.5323E+01   4.2305E-06  0.0089
   2.5323E+01   2.5939E+01   3.6242E-06  0.0095
   2.5939E+01   2.6570E+01   3.1043E-06  0.0101
   2.6570E+01   2.7217E+01   2.6711E-06  0.0108
   2.7217E+01   2.7879E+01   2.2996E-06  0.0115
   2.7879E+01   2.8557E+01   1.9746E-06  0.0122
   2.8557E+01   2.9252E+01   1.6139E-06  0.0134
   2.9252E+01   2.9964E+01   1.3781E-06  0.0143
   2.9964E+01   3.0693E+01   1.1445E-06  0.0155
   3.0693E+01   3.1440E+01   8.9799E-07  0.0173
   3.1440E+01   3.2205E+01   7.1325E-07  0.0191
   3.2205E+01   3.2988E+01   5.4878E-07  0.0216
   3.2988E+01   3.3791E+01   4.0691E-07  0.0247
   3.3791E+01   3.4613E+01   3.0530E-07  0.0282
   3.4613E+01   3.5455E+01   2.3060E-07  0.0321
   3.5455E+01   3.6318E+01   1.8663E-07  0.0352
   3.6318E+01   3.7201E+01   1.4372E-07  0.0397
   3.7201E+01   3.8106E+01   1.2993E-07  0.0412
   3.8106E+01   3.9034E+01   1.0182E-07  0.0460
   3.9034E+01   3.9983E+01   9.7503E-08  0.0465
   3.9983E+01   4.0956E+01   8.5935E-08  0.0489
   4.0956E+01   4.1953E+01   5.4190E-08  0.0609
   4.1953E+01   4.2973E+01   1.2736E-08  0.1240
   4.2973E+01   4.4019E+01   4.5908E-09  0.2041
   4.4019E+01   4.5090E+01   2.8011E-09  0.2582
   4.5090E+01   4.6187E+01   7.2921E-10  0.5000
   4.6187E+01   4.7311E+01   1.7797E-10  1.0000
   4.7311E+01   4.8462E+01   1.7375E-10  1.0000
   4.8462E+01   4.9641E+01   0.0000E+00  0.0000
   4.9641E+01   5.0849E+01   0.0000E+00  0.0000
   5.0849E+01   5.2086E+01   0.0000E+00  0.0000
   5.2086E+01   5.3353E+01   0.0000E+00  0.0000
   5.3353E+01   5.4651E+01   0.0000E+00  0.0000
   5.4651E+01   5.5981E+01   0.0000E+00  0.0000
   5.5981E+01   5.7343E+01   0.0000E+00  0.0000
   5.7343E+01   5.8738E+01   0.0000E+00  0.0000
   5.8738E+01   6.0168E+01   0.0000E+00  0.0000
   6.0168E+01   6.1632E+01   0.0000E+00  0.0000
   6.1632E+01   6.3131E+01   0.0000E+00  0.0000
   6.3131E+01   6.4667E+01   0.0000E+00  0.0000
   6.4667E+01   6.6240E+01   0.0000E+00  0.0000
   6.6240E+01   6.7852E+01   0.0000E+00  0.0000
   6.7852E+01   6.9503E+01   0.0000E+00  0.0000
   6.9503E+01   7.1194E+01   0.0000E+00  0.0000
   7.1194E+01   7.2926E+01   0.0000E+00  0.0000
   7.2926E+01   7.4701E+01   0.0000E+00  0.0000
   7.4701E+01   7.6518E+01   0.0000E+00  0.0000
   7.6518E+01   7.8380E+01   0.0000E+00  0.0000
   7.8380E+01   8.0287E+01   0.0000E+00  0.0000
   8.0287E+01   8.2240E+01   0.0000E+00  0.0000
   8.2240E+01   8.4241E+01   0.0000E+00  0.0000
   8.4241E+01   8.6291E+01   0.0000E+00  0.0000
   8.6291E+01   8.8391E+01   0.0000E+00  0.0000
   8.8391E+01   9.0541E+01   0.0000E+00  0.0000
   9.0541E+01   9.2744E+01   0.0000E+00  0.0000
   9.2744E+01   9.5001E+01   0.0000E+00  0.0000
   9.5001E+01   9.7312E+01   0.0000E+00  0.0000
   9.7312E+01   9.9680E+01   0.0000E+00  0.0000
   9.9680E+01   1.0211E+02   0.0000E+00  0.0000
   1.0211E+02   1.0459E+02   0.0000E+00  0.0000
   1.0459E+02   1.0713E+02   0.0000E+00  0.0000
   1.0713E+02   1.0974E+02   0.0000E+00  0.0000
   1.0974E+02   1.1241E+02   0.0000E+00  0.0000
   1.1241E+02   1.1515E+02   0.0000E+00  0.0000
   1.1515E+02   1.1795E+02   0.0000E+00  0.0000
   1.1795E+02   1.2082E+02   0.0000E+00  0.0000
   1.2082E+02   1.2376E+02   0.0000E+00  0.0000
   1.2376E+02   1.2677E+02   0.0000E+00  0.0000
   1.2677E+02   1.2985E+02   0.0000E+00  0.0000
   1.2985E+02   1.3301E+02   0.0000E+00  0.0000
   1.3301E+02   1.3625E+02   0.0000E+00  0.0000
   1.3625E+02   1.3956E+02   0.0000E+00  0.0000
   1.3956E+02   1.4296E+02   0.0000E+00  0.0000
   1.4296E+02   1.4644E+02   0.0000E+00  0.0000
   1.4644E+02   1.5000E+02   0.0000E+00  0.0000

#   sum over                 1.0975E-05
'no. =    1   reg = 115 - 215'
msuc: {\huge [t-cross] in region mesh}
msdr: {\it plotted by \ANGEL \version}
msdl: {\it calculated by \PHITS  3.26}
wt: s(0.7)
\vspace{-3}
  region surface crossing
  area  &=&   1.0000E+00 [cm^2]
e:
 
# Information for Restart Calculation
# This calculation was newly started
# istdev =  2 # 1:Batch variance, 2:History variance
# resc2  = 5.00000000000000000E+09 # Total source weight or Total source weight / maxcas
# resc3  = 5.00000000000000000E+09 # Total history number or Total batch number
# maxcas =   100000000 # History / Batch, only used for istdev=1
# bitrseed = 0110100000100010111000001110001111001110100100011111101000111001 # bit data of rseed
