[ T-Cross ]
    title = [t-cross] in region mesh
     mesh =  reg            # mesh type is region-wise
      reg =    1            # number of crossing regions
      non     r-from    r-to       area
      1       100       200        1.000000    
   e-type =    3            # e-mesh is log given by emin, emax and ne
     emin =  1.0000000E-02  # minimum value of e-mesh points
     emax =   150.0000      # maximum value of e-mesh points
#    edel =  2.4039514E-02  # mesh width of e-mesh points
       ne =    400          # number of e-mesh points
#    data = ( e(i), i = 1, ne + 1 )
#           1.00000E-02  1.02433E-02  1.04925E-02  1.07478E-02  1.10093E-02
#           1.12772E-02  1.15516E-02  1.18326E-02  1.21205E-02  1.24154E-02
#           1.27175E-02  1.30269E-02  1.33439E-02  1.36686E-02  1.40011E-02
#           1.43418E-02  1.46907E-02  1.50482E-02  1.54143E-02  1.57894E-02
#           1.61735E-02  1.65670E-02  1.69701E-02  1.73830E-02  1.78060E-02
#           1.82392E-02  1.86830E-02  1.91375E-02  1.96032E-02  2.00801E-02
#           2.05687E-02  2.10692E-02  2.15818E-02  2.21069E-02  2.26448E-02
#           2.31957E-02  2.37601E-02  2.43382E-02  2.49304E-02  2.55369E-02
#           2.61583E-02  2.67947E-02  2.74467E-02  2.81145E-02  2.87985E-02
#           2.94992E-02  3.02169E-02  3.09521E-02  3.17052E-02  3.24766E-02
#           3.32668E-02  3.40762E-02  3.49053E-02  3.57546E-02  3.66246E-02
#           3.75157E-02  3.84284E-02  3.93634E-02  4.03212E-02  4.13022E-02
#           4.23071E-02  4.33365E-02  4.43909E-02  4.54710E-02  4.65773E-02
#           4.77106E-02  4.88714E-02  5.00605E-02  5.12785E-02  5.25262E-02
#           5.38042E-02  5.51133E-02  5.64542E-02  5.78278E-02  5.92348E-02
#           6.06760E-02  6.21523E-02  6.36645E-02  6.52135E-02  6.68002E-02
#           6.84255E-02  7.00904E-02  7.17957E-02  7.35426E-02  7.53319E-02
#           7.71648E-02  7.90423E-02  8.09655E-02  8.29354E-02  8.49533E-02
#           8.70203E-02  8.91376E-02  9.13064E-02  9.35279E-02  9.58035E-02
#           9.81345E-02  1.00522E-01  1.02968E-01  1.05473E-01  1.08040E-01
#           1.10668E-01  1.13361E-01  1.16119E-01  1.18944E-01  1.21838E-01
#           1.24803E-01  1.27839E-01  1.30950E-01  1.34136E-01  1.37399E-01
#           1.40742E-01  1.44167E-01  1.47675E-01  1.51268E-01  1.54948E-01
#           1.58718E-01  1.62580E-01  1.66535E-01  1.70587E-01  1.74738E-01
#           1.78989E-01  1.83344E-01  1.87805E-01  1.92375E-01  1.97055E-01
#           2.01850E-01  2.06761E-01  2.11792E-01  2.16945E-01  2.22223E-01
#           2.27630E-01  2.33169E-01  2.38842E-01  2.44653E-01  2.50605E-01
#           2.56703E-01  2.62949E-01  2.69346E-01  2.75900E-01  2.82613E-01
#           2.89489E-01  2.96532E-01  3.03747E-01  3.11138E-01  3.18708E-01
#           3.26462E-01  3.34405E-01  3.42542E-01  3.50876E-01  3.59413E-01
#           3.68158E-01  3.77116E-01  3.86291E-01  3.95690E-01  4.05317E-01
#           4.15179E-01  4.25281E-01  4.35628E-01  4.46227E-01  4.57084E-01
#           4.68205E-01  4.79597E-01  4.91266E-01  5.03219E-01  5.15463E-01
#           5.28005E-01  5.40851E-01  5.54011E-01  5.67490E-01  5.81298E-01
#           5.95441E-01  6.09929E-01  6.24769E-01  6.39970E-01  6.55541E-01
#           6.71491E-01  6.87828E-01  7.04564E-01  7.21706E-01  7.39266E-01
#           7.57253E-01  7.75678E-01  7.94551E-01  8.13883E-01  8.33685E-01
#           8.53969E-01  8.74747E-01  8.96030E-01  9.17831E-01  9.40163E-01
#           9.63038E-01  9.86469E-01  1.01047E+00  1.03506E+00  1.06024E+00
#           1.08604E+00  1.11246E+00  1.13953E+00  1.16725E+00  1.19565E+00
#           1.22474E+00  1.25454E+00  1.28507E+00  1.31633E+00  1.34836E+00
#           1.38117E+00  1.41477E+00  1.44920E+00  1.48446E+00  1.52057E+00
#           1.55757E+00  1.59547E+00  1.63429E+00  1.67405E+00  1.71478E+00
#           1.75650E+00  1.79924E+00  1.84302E+00  1.88786E+00  1.93379E+00
#           1.98084E+00  2.02904E+00  2.07841E+00  2.12898E+00  2.18078E+00
#           2.23384E+00  2.28819E+00  2.34386E+00  2.40089E+00  2.45930E+00
#           2.51914E+00  2.58043E+00  2.64322E+00  2.70753E+00  2.77341E+00
#           2.84088E+00  2.91001E+00  2.98081E+00  3.05333E+00  3.12762E+00
#           3.20372E+00  3.28167E+00  3.36152E+00  3.44330E+00  3.52708E+00
#           3.61290E+00  3.70080E+00  3.79085E+00  3.88308E+00  3.97756E+00
#           4.07434E+00  4.17347E+00  4.27501E+00  4.37903E+00  4.48557E+00
#           4.59471E+00  4.70650E+00  4.82102E+00  4.93832E+00  5.05847E+00
#           5.18155E+00  5.30762E+00  5.43676E+00  5.56904E+00  5.70453E+00
#           5.84333E+00  5.98550E+00  6.13114E+00  6.28031E+00  6.43312E+00
#           6.58964E+00  6.74997E+00  6.91420E+00  7.08243E+00  7.25475E+00
#           7.43126E+00  7.61207E+00  7.79728E+00  7.98700E+00  8.18133E+00
#           8.38038E+00  8.58428E+00  8.79315E+00  9.00709E+00  9.22624E+00
#           9.45072E+00  9.68067E+00  9.91620E+00  1.01575E+01  1.04046E+01
#           1.06578E+01  1.09171E+01  1.11827E+01  1.14548E+01  1.17335E+01
#           1.20190E+01  1.23114E+01  1.26109E+01  1.29178E+01  1.32321E+01
#           1.35540E+01  1.38838E+01  1.42216E+01  1.45676E+01  1.49221E+01
#           1.52851E+01  1.56570E+01  1.60380E+01  1.64282E+01  1.68279E+01
#           1.72374E+01  1.76568E+01  1.80864E+01  1.85264E+01  1.89772E+01
#           1.94389E+01  1.99119E+01  2.03963E+01  2.08926E+01  2.14009E+01
#           2.19216E+01  2.24550E+01  2.30014E+01  2.35610E+01  2.41343E+01
#           2.47215E+01  2.53230E+01  2.59391E+01  2.65702E+01  2.72167E+01
#           2.78789E+01  2.85572E+01  2.92520E+01  2.99637E+01  3.06928E+01
#           3.14396E+01  3.22045E+01  3.29881E+01  3.37907E+01  3.46128E+01
#           3.54550E+01  3.63177E+01  3.72013E+01  3.81064E+01  3.90336E+01
#           3.99833E+01  4.09561E+01  4.19526E+01  4.29734E+01  4.40189E+01
#           4.50900E+01  4.61870E+01  4.73108E+01  4.84619E+01  4.96410E+01
#           5.08488E+01  5.20860E+01  5.33533E+01  5.46514E+01  5.59812E+01
#           5.73432E+01  5.87384E+01  6.01676E+01  6.16315E+01  6.31311E+01
#           6.46671E+01  6.62405E+01  6.78522E+01  6.95031E+01  7.11941E+01
#           7.29263E+01  7.47007E+01  7.65182E+01  7.83800E+01  8.02870E+01
#           8.22405E+01  8.42414E+01  8.62911E+01  8.83906E+01  9.05412E+01
#           9.27442E+01  9.50007E+01  9.73122E+01  9.96799E+01  1.02105E+02
#           1.04589E+02  1.07134E+02  1.09741E+02  1.12411E+02  1.15146E+02
#           1.17948E+02  1.20817E+02  1.23757E+02  1.26768E+02  1.29852E+02
#           1.33012E+02  1.36248E+02  1.39563E+02  1.42959E+02  1.46437E+02
#           1.50000E+02
     unit =    2            # unit is [1/cm^2/(MeV/n)/source]
     axis =  eng            # axis of output
     file = detector-01.out  # file name of output for the above axis
   output = f-curr          # surface crossing forward current spectrum
     part =  neutron  
# kf/name :  2112     
#    used :        main (  %)        temp (  %)       total (  %)
#  memory :         414 (  0)           0 (  0)         414 (  0)

#------------------------------------------------------------------------------
#newpage:
#   no. =    1   reg = 100 - 200

x: Energy [MeV/n]
y:  F-Curr [1/cm^2/(MeV/n)/source]         
p: xlog ylog afac(0.8) form(0.9)
h: n            x            y(neutron ),hh0l   n 
#  e-lower      e-upper      neutron     r.err 
   1.0000E-02   1.0243E-02   6.2472E-05  0.1147
   1.0243E-02   1.0493E-02   5.2964E-05  0.1231
   1.0493E-02   1.0748E-02   6.1890E-05  0.1125
   1.0748E-02   1.1009E-02   5.8125E-05  0.1147
   1.1009E-02   1.1277E-02   4.7785E-05  0.1250
   1.1277E-02   1.1552E-02   4.7379E-05  0.1240
   1.1552E-02   1.1833E-02   4.1272E-05  0.1313
   1.1833E-02   1.2121E-02   5.9743E-05  0.1078
   1.2121E-02   1.2415E-02   5.7646E-05  0.1085
   1.2415E-02   1.2718E-02   5.3629E-05  0.1111
   1.2718E-02   1.3027E-02   5.8172E-05  0.1054
   1.3027E-02   1.3344E-02   5.1742E-05  0.1104
   1.3344E-02   1.3669E-02   5.1129E-05  0.1098
   1.3669E-02   1.4001E-02   5.7131E-05  0.1026
   1.4001E-02   1.4342E-02   5.2839E-05  0.1054
   1.4342E-02   1.4691E-02   4.0121E-05  0.1195
   1.4691E-02   1.5048E-02   5.3156E-05  0.1026
   1.5048E-02   1.5414E-02   4.4792E-05  0.1104
   1.5414E-02   1.5789E-02   6.3459E-05  0.0917
   1.5789E-02   1.6174E-02   4.5813E-05  0.1066
   1.6174E-02   1.6567E-02   5.3365E-05  0.0976
   1.6567E-02   1.6970E-02   5.2098E-05  0.0976
   1.6970E-02   1.7383E-02   4.4079E-05  0.1048
   1.7383E-02   1.7806E-02   3.8303E-05  0.1111
   1.7806E-02   1.8239E-02   4.2933E-05  0.1037
   1.8239E-02   1.8683E-02   4.6871E-05  0.0981
   1.8683E-02   1.9138E-02   4.9717E-05  0.0941
   1.9138E-02   1.9603E-02   4.4241E-05  0.0985
   1.9603E-02   2.0080E-02   4.6964E-05  0.0945
   2.0080E-02   2.0569E-02   5.0761E-05  0.0898
   2.0569E-02   2.1069E-02   5.2353E-05  0.0874
   2.1069E-02   2.1582E-02   5.5791E-05  0.0836
   2.1582E-02   2.2107E-02   4.9895E-05  0.0874
   2.2107E-02   2.2645E-02   5.0941E-05  0.0854
   2.2645E-02   2.3196E-02   4.2471E-05  0.0925
   2.3196E-02   2.3760E-02   5.2093E-05  0.0825
   2.3760E-02   2.4338E-02   4.8088E-05  0.0848
   2.4338E-02   2.4930E-02   4.1205E-05  0.0905
   2.4930E-02   2.5537E-02   4.8799E-05  0.0822
   2.5537E-02   2.6158E-02   5.0536E-05  0.0798
   2.6158E-02   2.6795E-02   4.0851E-05  0.0877
   2.6795E-02   2.7447E-02   4.3869E-05  0.0836
   2.7447E-02   2.8114E-02   5.2411E-05  0.0756
   2.8114E-02   2.8799E-02   4.6488E-05  0.0793
   2.8799E-02   2.9499E-02   4.9951E-05  0.0756
   2.9499E-02   3.0217E-02   4.2913E-05  0.0806
   3.0217E-02   3.0952E-02   4.1077E-05  0.0814
   3.0952E-02   3.1705E-02   4.7803E-05  0.0745
   3.1705E-02   3.2477E-02   4.0445E-05  0.0801
   3.2477E-02   3.3267E-02   4.3534E-05  0.0762
   3.3267E-02   3.4076E-02   4.6454E-05  0.0729
   3.4076E-02   3.4905E-02   4.4385E-05  0.0737
   3.4905E-02   3.5755E-02   4.5451E-05  0.0720
   3.5755E-02   3.6625E-02   3.8623E-05  0.0772
   3.6625E-02   3.7516E-02   4.1297E-05  0.0737
   3.7516E-02   3.8428E-02   4.0097E-05  0.0739
   3.8428E-02   3.9363E-02   3.9359E-05  0.0737
   3.9363E-02   4.0321E-02   4.1347E-05  0.0711
   4.0321E-02   4.1302E-02   4.4238E-05  0.0679
   4.1302E-02   4.2307E-02   4.2392E-05  0.0685
   4.2307E-02   4.3337E-02   4.7602E-05  0.0639
   4.3337E-02   4.4391E-02   3.9833E-05  0.0690
   4.4391E-02   4.5471E-02   3.9072E-05  0.0688
   4.5471E-02   4.6577E-02   3.6697E-05  0.0702
   4.6577E-02   4.7711E-02   4.0944E-05  0.0657
   4.7711E-02   4.8871E-02   3.9799E-05  0.0658
   4.8871E-02   5.0061E-02   3.8685E-05  0.0659
   5.0061E-02   5.1279E-02   3.9408E-05  0.0645
   5.1279E-02   5.2526E-02   3.6869E-05  0.0659
   5.2526E-02   5.3804E-02   3.7715E-05  0.0644
   5.3804E-02   5.5113E-02   4.0333E-05  0.0615
   5.5113E-02   5.6454E-02   4.1314E-05  0.0601
   5.6454E-02   5.7828E-02   4.0478E-05  0.0600
   5.7828E-02   5.9235E-02   3.8806E-05  0.0605
   5.9235E-02   6.0676E-02   3.7884E-05  0.0605
   6.0676E-02   6.2152E-02   3.8475E-05  0.0593
   6.2152E-02   6.3665E-02   3.6900E-05  0.0599
   6.3665E-02   6.5214E-02   3.7702E-05  0.0585
   6.5214E-02   6.6800E-02   3.3907E-05  0.0610
   6.6800E-02   6.8426E-02   3.8762E-05  0.0563
   6.8426E-02   7.0090E-02   3.8682E-05  0.0557
   7.0090E-02   7.1796E-02   3.6708E-05  0.0565
   7.1796E-02   7.3543E-02   3.7095E-05  0.0556
   7.3543E-02   7.5332E-02   3.1967E-05  0.0591
   7.5332E-02   7.7165E-02   3.5681E-05  0.0553
   7.7165E-02   7.9042E-02   3.6219E-05  0.0542
   7.9042E-02   8.0965E-02   3.5150E-05  0.0544
   8.0965E-02   8.2935E-02   3.3503E-05  0.0550
   8.2935E-02   8.4953E-02   3.1815E-05  0.0558
   8.4953E-02   8.7020E-02   3.4640E-05  0.0529
   8.7020E-02   8.9138E-02   3.3912E-05  0.0528
   8.9138E-02   9.1306E-02   3.5596E-05  0.0509
   9.1306E-02   9.3528E-02   3.0789E-05  0.0541
   9.3528E-02   9.5804E-02   3.2519E-05  0.0520
   9.5804E-02   9.8134E-02   3.4664E-05  0.0498
   9.8134E-02   1.0052E-01   3.1495E-05  0.0516
   1.0052E-01   1.0297E-01   3.2055E-05  0.0505
   1.0297E-01   1.0547E-01   2.9458E-05  0.0521
   1.0547E-01   1.0804E-01   3.0862E-05  0.0503
   1.0804E-01   1.1067E-01   3.1042E-05  0.0495
   1.1067E-01   1.1336E-01   3.0750E-05  0.0491
   1.1336E-01   1.1612E-01   2.9657E-05  0.0494
   1.1612E-01   1.1894E-01   2.7608E-05  0.0506
   1.1894E-01   1.2184E-01   2.7712E-05  0.0499
   1.2184E-01   1.2480E-01   2.9483E-05  0.0478
   1.2480E-01   1.2784E-01   3.1483E-05  0.0457
   1.2784E-01   1.3095E-01   2.8742E-05  0.0473
   1.3095E-01   1.3414E-01   2.6804E-05  0.0484
   1.3414E-01   1.3740E-01   2.7148E-05  0.0475
   1.3740E-01   1.4074E-01   2.6563E-05  0.0475
   1.4074E-01   1.4417E-01   2.7217E-05  0.0463
   1.4417E-01   1.4767E-01   2.7654E-05  0.0454
   1.4767E-01   1.5127E-01   2.5215E-05  0.0470
   1.5127E-01   1.5495E-01   2.6192E-05  0.0455
   1.5495E-01   1.5872E-01   2.6260E-05  0.0449
   1.5872E-01   1.6258E-01   2.4341E-05  0.0461
   1.6258E-01   1.6654E-01   2.3308E-05  0.0466
   1.6654E-01   1.7059E-01   2.5074E-05  0.0444
   1.7059E-01   1.7474E-01   2.6117E-05  0.0430
   1.7474E-01   1.7899E-01   2.4438E-05  0.0439
   1.7899E-01   1.8334E-01   2.2136E-05  0.0455
   1.8334E-01   1.8781E-01   2.2955E-05  0.0442
   1.8781E-01   1.9237E-01   2.2979E-05  0.0436
   1.9237E-01   1.9706E-01   2.1365E-05  0.0447
   1.9706E-01   2.0185E-01   2.2359E-05  0.0432
   2.0185E-01   2.0676E-01   2.1421E-05  0.0436
   2.0676E-01   2.1179E-01   1.9878E-05  0.0447
   2.1179E-01   2.1694E-01   2.1114E-05  0.0429
   2.1694E-01   2.2222E-01   2.0006E-05  0.0435
   2.2222E-01   2.2763E-01   1.9235E-05  0.0439
   2.2763E-01   2.3317E-01   1.8670E-05  0.0440
   2.3317E-01   2.3884E-01   1.9213E-05  0.0428
   2.3884E-01   2.4465E-01   1.8241E-05  0.0434
   2.4465E-01   2.5061E-01   1.7673E-05  0.0436
   2.5061E-01   2.5670E-01   1.8270E-05  0.0424
   2.5670E-01   2.6295E-01   1.8605E-05  0.0415
   2.6295E-01   2.6935E-01   1.7350E-05  0.0424
   2.6935E-01   2.7590E-01   1.6816E-05  0.0426
   2.7590E-01   2.8261E-01   1.6804E-05  0.0421
   2.8261E-01   2.8949E-01   1.5939E-05  0.0427
   2.8949E-01   2.9653E-01   1.4794E-05  0.0438
   2.9653E-01   3.0375E-01   1.5025E-05  0.0430
   3.0375E-01   3.1114E-01   1.4884E-05  0.0426
   3.1114E-01   3.1871E-01   1.3897E-05  0.0436
   3.1871E-01   3.2646E-01   1.3670E-05  0.0434
   3.2646E-01   3.3441E-01   1.3219E-05  0.0436
   3.3441E-01   3.4254E-01   1.4773E-05  0.0408
   3.4254E-01   3.5088E-01   1.3198E-05  0.0426
   3.5088E-01   3.5941E-01   1.2932E-05  0.0426
   3.5941E-01   3.6816E-01   1.2648E-05  0.0425
   3.6816E-01   3.7712E-01   1.1744E-05  0.0436
   3.7712E-01   3.8629E-01   1.0354E-05  0.0459
   3.8629E-01   3.9569E-01   1.1108E-05  0.0438
   3.9569E-01   4.0532E-01   1.0345E-05  0.0448
   4.0532E-01   4.1518E-01   1.0343E-05  0.0443
   4.1518E-01   4.2528E-01   8.8699E-06  0.0472
   4.2528E-01   4.3563E-01   8.5335E-06  0.0476
   4.3563E-01   4.4623E-01   9.0196E-06  0.0457
   4.4623E-01   4.5708E-01   9.6895E-06  0.0436
   4.5708E-01   4.6821E-01   7.8409E-06  0.0479
   4.6821E-01   4.7960E-01   7.7248E-06  0.0477
   4.7960E-01   4.9127E-01   7.7299E-06  0.0471
   4.9127E-01   5.0322E-01   7.9813E-06  0.0458
   5.0322E-01   5.1546E-01   6.2399E-06  0.0512
   5.1546E-01   5.2800E-01   6.4425E-06  0.0498
   5.2800E-01   5.4085E-01   6.6632E-06  0.0483
   5.4085E-01   5.5401E-01   6.0489E-06  0.0501
   5.5401E-01   5.6749E-01   6.0536E-06  0.0495
   5.6749E-01   5.8130E-01   5.4608E-06  0.0515
   5.8130E-01   5.9544E-01   5.5998E-06  0.0503
   5.9544E-01   6.0993E-01   5.4253E-06  0.0504
   6.0993E-01   6.2477E-01   5.0269E-06  0.0518
   6.2477E-01   6.3997E-01   4.5260E-06  0.0539
   6.3997E-01   6.5554E-01   4.3671E-06  0.0542
   6.5554E-01   6.7149E-01   4.2383E-06  0.0544
   6.7149E-01   6.8783E-01   4.3580E-06  0.0530
   6.8783E-01   7.0456E-01   3.9079E-06  0.0553
   7.0456E-01   7.2171E-01   3.6401E-06  0.0566
   7.2171E-01   7.3927E-01   3.5080E-06  0.0570
   7.3927E-01   7.5725E-01   3.0022E-06  0.0609
   7.5725E-01   7.7568E-01   3.1697E-06  0.0585
   7.7568E-01   7.9455E-01   2.9036E-06  0.0604
   7.9455E-01   8.1388E-01   3.3106E-06  0.0559
   8.1388E-01   8.3368E-01   2.8380E-06  0.0597
   8.3368E-01   8.5397E-01   2.6917E-06  0.0605
   8.5397E-01   8.7475E-01   2.3198E-06  0.0644
   8.7475E-01   8.9603E-01   2.7063E-06  0.0589
   8.9603E-01   9.1783E-01   2.5045E-06  0.0605
   9.1783E-01   9.4016E-01   2.1494E-06  0.0645
   9.4016E-01   9.6304E-01   2.2208E-06  0.0627
   9.6304E-01   9.8647E-01   2.2192E-06  0.0620
   9.8647E-01   1.0105E+00   1.9749E-06  0.0650
   1.0105E+00   1.0351E+00   2.2452E-06  0.0602
   1.0351E+00   1.0602E+00   2.4301E-06  0.0572
   1.0602E+00   1.0860E+00   2.3181E-06  0.0578
   1.0860E+00   1.1125E+00   2.2252E-06  0.0583
   1.1125E+00   1.1395E+00   2.4236E-06  0.0552
   1.1395E+00   1.1673E+00   2.4526E-06  0.0542
   1.1673E+00   1.1957E+00   2.7958E-06  0.0502
   1.1957E+00   1.2247E+00   2.8737E-06  0.0489
   1.2247E+00   1.2545E+00   2.9061E-06  0.0481
   1.2545E+00   1.2851E+00   3.0009E-06  0.0467
   1.2851E+00   1.3163E+00   2.9424E-06  0.0466
   1.3163E+00   1.3484E+00   3.0474E-06  0.0453
   1.3484E+00   1.3812E+00   3.3164E-06  0.0429
   1.3812E+00   1.4148E+00   3.6126E-06  0.0406
   1.4148E+00   1.4492E+00   3.2072E-06  0.0426
   1.4492E+00   1.4845E+00   3.3182E-06  0.0413
   1.4845E+00   1.5206E+00   3.5439E-06  0.0395
   1.5206E+00   1.5576E+00   3.2165E-06  0.0410
   1.5576E+00   1.5955E+00   3.6309E-06  0.0381
   1.5955E+00   1.6343E+00   3.8177E-06  0.0367
   1.6343E+00   1.6741E+00   3.5611E-06  0.0376
   1.6741E+00   1.7148E+00   3.8447E-06  0.0357
   1.7148E+00   1.7565E+00   3.5137E-06  0.0369
   1.7565E+00   1.7992E+00   3.8047E-06  0.0351
   1.7992E+00   1.8430E+00   3.6275E-06  0.0355
   1.8430E+00   1.8879E+00   3.6350E-06  0.0350
   1.8879E+00   1.9338E+00   3.8708E-06  0.0335
   1.9338E+00   1.9808E+00   4.0509E-06  0.0324
   1.9808E+00   2.0290E+00   4.0253E-06  0.0321
   2.0290E+00   2.0784E+00   3.8608E-06  0.0324
   2.0784E+00   2.1290E+00   3.9787E-06  0.0315
   2.1290E+00   2.1808E+00   3.8186E-06  0.0318
   2.1808E+00   2.2338E+00   3.6374E-06  0.0322
   2.2338E+00   2.2882E+00   3.7239E-06  0.0314
   2.2882E+00   2.3439E+00   3.7253E-06  0.0311
   2.3439E+00   2.4009E+00   3.9560E-06  0.0298
   2.4009E+00   2.4593E+00   3.8860E-06  0.0297
   2.4593E+00   2.5191E+00   3.5964E-06  0.0305
   2.5191E+00   2.5804E+00   3.5893E-06  0.0302
   2.5804E+00   2.6432E+00   3.5136E-06  0.0301
   2.6432E+00   2.7075E+00   3.4862E-06  0.0299
   2.7075E+00   2.7734E+00   3.2515E-06  0.0306
   2.7734E+00   2.8409E+00   3.3344E-06  0.0298
   2.8409E+00   2.9100E+00   3.2523E-06  0.0298
   2.9100E+00   2.9808E+00   3.1976E-06  0.0297
   2.9808E+00   3.0533E+00   3.2182E-06  0.0293
   3.0533E+00   3.1276E+00   3.2575E-06  0.0287
   3.1276E+00   3.2037E+00   2.9121E-06  0.0300
   3.2037E+00   3.2817E+00   3.0251E-06  0.0291
   3.2817E+00   3.3615E+00   2.7628E-06  0.0301
   3.3615E+00   3.4433E+00   2.7901E-06  0.0296
   3.4433E+00   3.5271E+00   2.7788E-06  0.0293
   3.5271E+00   3.6129E+00   2.6428E-06  0.0297
   3.6129E+00   3.7008E+00   2.6438E-06  0.0293
   3.7008E+00   3.7908E+00   2.6076E-06  0.0292
   3.7908E+00   3.8831E+00   2.3787E-06  0.0302
   3.8831E+00   3.9776E+00   2.2947E-06  0.0304
   3.9776E+00   4.0743E+00   2.3167E-06  0.0299
   4.0743E+00   4.1735E+00   2.4190E-06  0.0289
   4.1735E+00   4.2750E+00   2.1705E-06  0.0301
   4.2750E+00   4.3790E+00   2.2728E-06  0.0291
   4.3790E+00   4.4856E+00   2.1981E-06  0.0292
   4.4856E+00   4.5947E+00   2.1074E-06  0.0295
   4.5947E+00   4.7065E+00   2.0252E-06  0.0297
   4.7065E+00   4.8210E+00   2.0679E-06  0.0291
   4.8210E+00   4.9383E+00   2.0461E-06  0.0289
   4.9383E+00   5.0585E+00   1.9076E-06  0.0295
   5.0585E+00   5.1815E+00   1.8899E-06  0.0293
   5.1815E+00   5.3076E+00   1.8815E-06  0.0290
   5.3076E+00   5.4368E+00   1.9142E-06  0.0284
   5.4368E+00   5.5690E+00   1.8824E-06  0.0283
   5.5690E+00   5.7045E+00   1.8583E-06  0.0282
   5.7045E+00   5.8433E+00   1.8704E-06  0.0278
   5.8433E+00   5.9855E+00   1.7500E-06  0.0284
   5.9855E+00   6.1311E+00   1.7373E-06  0.0281
   6.1311E+00   6.2803E+00   1.8274E-06  0.0271
   6.2803E+00   6.4331E+00   1.8324E-06  0.0267
   6.4331E+00   6.5896E+00   1.8681E-06  0.0262
   6.5896E+00   6.7500E+00   1.8312E-06  0.0261
   6.7500E+00   6.9142E+00   1.9509E-06  0.0250
   6.9142E+00   7.0824E+00   1.8879E-06  0.0251
   7.0824E+00   7.2548E+00   1.8814E-06  0.0248
   7.2548E+00   7.4313E+00   1.9817E-06  0.0239
   7.4313E+00   7.6121E+00   1.8777E-06  0.0243
   7.6121E+00   7.7973E+00   1.9675E-06  0.0234
   7.7973E+00   7.9870E+00   1.9956E-06  0.0230
   7.9870E+00   8.1813E+00   1.9076E-06  0.0232
   8.1813E+00   8.3804E+00   2.0130E-06  0.0223
   8.3804E+00   8.5843E+00   2.0995E-06  0.0216
   8.5843E+00   8.7931E+00   2.1119E-06  0.0213
   8.7931E+00   9.0071E+00   2.1155E-06  0.0210
   9.0071E+00   9.2262E+00   2.1132E-06  0.0208
   9.2262E+00   9.4507E+00   2.1583E-06  0.0203
   9.4507E+00   9.6807E+00   2.2840E-06  0.0195
   9.6807E+00   9.9162E+00   2.2077E-06  0.0196
   9.9162E+00   1.0157E+01   2.1627E-06  0.0196
   1.0157E+01   1.0405E+01   2.2570E-06  0.0189
   1.0405E+01   1.0658E+01   2.2504E-06  0.0187
   1.0658E+01   1.0917E+01   2.3273E-06  0.0182
   1.0917E+01   1.1183E+01   2.2894E-06  0.0181
   1.1183E+01   1.1455E+01   2.3272E-06  0.0178
   1.1455E+01   1.1733E+01   2.3197E-06  0.0176
   1.1733E+01   1.2019E+01   2.4225E-06  0.0170
   1.2019E+01   1.2311E+01   2.4255E-06  0.0168
   1.2311E+01   1.2611E+01   2.4464E-06  0.0165
   1.2611E+01   1.2918E+01   2.3902E-06  0.0165
   1.2918E+01   1.3232E+01   2.3821E-06  0.0163
   1.3232E+01   1.3554E+01   2.2889E-06  0.0165
   1.3554E+01   1.3884E+01   2.2964E-06  0.0162
   1.3884E+01   1.4222E+01   2.2084E-06  0.0164
   1.4222E+01   1.4568E+01   2.2958E-06  0.0159
   1.4568E+01   1.4922E+01   2.2548E-06  0.0158
   1.4922E+01   1.5285E+01   2.2026E-06  0.0158
   1.5285E+01   1.5657E+01   2.1261E-06  0.0159
   1.5657E+01   1.6038E+01   2.0473E-06  0.0160
   1.6038E+01   1.6428E+01   2.0132E-06  0.0160
   1.6428E+01   1.6828E+01   1.9214E-06  0.0161
   1.6828E+01   1.7237E+01   1.8020E-06  0.0165
   1.7237E+01   1.7657E+01   1.7287E-06  0.0166
   1.7657E+01   1.8086E+01   1.6571E-06  0.0168
   1.8086E+01   1.8526E+01   1.5230E-06  0.0173
   1.8526E+01   1.8977E+01   1.4753E-06  0.0173
   1.8977E+01   1.9439E+01   1.3324E-06  0.0180
   1.9439E+01   1.9912E+01   1.2821E-06  0.0182
   1.9912E+01   2.0396E+01   1.4193E-06  0.0171
   2.0396E+01   2.0893E+01   1.3493E-06  0.0173
   2.0893E+01   2.1401E+01   1.1984E-06  0.0181
   2.1401E+01   2.1922E+01   1.0643E-06  0.0190
   2.1922E+01   2.2455E+01   9.7681E-07  0.0196
   2.2455E+01   2.3001E+01   8.5623E-07  0.0207
   2.3001E+01   2.3561E+01   7.7478E-07  0.0215
   2.3561E+01   2.4134E+01   6.6113E-07  0.0230
   2.4134E+01   2.4721E+01   6.0183E-07  0.0238
   2.4721E+01   2.5323E+01   5.2104E-07  0.0253
   2.5323E+01   2.5939E+01   4.7003E-07  0.0263
   2.5939E+01   2.6570E+01   4.0753E-07  0.0279
   2.6570E+01   2.7217E+01   3.4062E-07  0.0301
   2.7217E+01   2.7879E+01   2.8450E-07  0.0326
   2.7879E+01   2.8557E+01   2.5121E-07  0.0343
   2.8557E+01   2.9252E+01   2.0207E-07  0.0377
   2.9252E+01   2.9964E+01   1.6608E-07  0.0411
   2.9964E+01   3.0693E+01   1.4265E-07  0.0439
   3.0693E+01   3.1440E+01   1.0257E-07  0.0511
   3.1440E+01   3.2205E+01   7.7652E-08  0.0580
   3.2205E+01   3.2988E+01   5.2836E-08  0.0695
   3.2988E+01   3.3791E+01   3.4885E-08  0.0845
   3.3791E+01   3.4613E+01   1.2163E-08  0.1414
   3.4613E+01   3.5455E+01   4.7497E-10  0.7071
   3.5455E+01   3.6318E+01   0.0000E+00  0.0000
   3.6318E+01   3.7201E+01   0.0000E+00  0.0000
   3.7201E+01   3.8106E+01   0.0000E+00  0.0000
   3.8106E+01   3.9034E+01   0.0000E+00  0.0000
   3.9034E+01   3.9983E+01   0.0000E+00  0.0000
   3.9983E+01   4.0956E+01   0.0000E+00  0.0000
   4.0956E+01   4.1953E+01   0.0000E+00  0.0000
   4.1953E+01   4.2973E+01   0.0000E+00  0.0000
   4.2973E+01   4.4019E+01   0.0000E+00  0.0000
   4.4019E+01   4.5090E+01   0.0000E+00  0.0000
   4.5090E+01   4.6187E+01   0.0000E+00  0.0000
   4.6187E+01   4.7311E+01   0.0000E+00  0.0000
   4.7311E+01   4.8462E+01   0.0000E+00  0.0000
   4.8462E+01   4.9641E+01   0.0000E+00  0.0000
   4.9641E+01   5.0849E+01   0.0000E+00  0.0000
   5.0849E+01   5.2086E+01   0.0000E+00  0.0000
   5.2086E+01   5.3353E+01   0.0000E+00  0.0000
   5.3353E+01   5.4651E+01   0.0000E+00  0.0000
   5.4651E+01   5.5981E+01   0.0000E+00  0.0000
   5.5981E+01   5.7343E+01   0.0000E+00  0.0000
   5.7343E+01   5.8738E+01   0.0000E+00  0.0000
   5.8738E+01   6.0168E+01   0.0000E+00  0.0000
   6.0168E+01   6.1632E+01   0.0000E+00  0.0000
   6.1632E+01   6.3131E+01   0.0000E+00  0.0000
   6.3131E+01   6.4667E+01   0.0000E+00  0.0000
   6.4667E+01   6.6240E+01   0.0000E+00  0.0000
   6.6240E+01   6.7852E+01   0.0000E+00  0.0000
   6.7852E+01   6.9503E+01   0.0000E+00  0.0000
   6.9503E+01   7.1194E+01   0.0000E+00  0.0000
   7.1194E+01   7.2926E+01   0.0000E+00  0.0000
   7.2926E+01   7.4701E+01   0.0000E+00  0.0000
   7.4701E+01   7.6518E+01   0.0000E+00  0.0000
   7.6518E+01   7.8380E+01   0.0000E+00  0.0000
   7.8380E+01   8.0287E+01   0.0000E+00  0.0000
   8.0287E+01   8.2240E+01   0.0000E+00  0.0000
   8.2240E+01   8.4241E+01   0.0000E+00  0.0000
   8.4241E+01   8.6291E+01   0.0000E+00  0.0000
   8.6291E+01   8.8391E+01   0.0000E+00  0.0000
   8.8391E+01   9.0541E+01   0.0000E+00  0.0000
   9.0541E+01   9.2744E+01   0.0000E+00  0.0000
   9.2744E+01   9.5001E+01   0.0000E+00  0.0000
   9.5001E+01   9.7312E+01   0.0000E+00  0.0000
   9.7312E+01   9.9680E+01   0.0000E+00  0.0000
   9.9680E+01   1.0211E+02   0.0000E+00  0.0000
   1.0211E+02   1.0459E+02   0.0000E+00  0.0000
   1.0459E+02   1.0713E+02   0.0000E+00  0.0000
   1.0713E+02   1.0974E+02   0.0000E+00  0.0000
   1.0974E+02   1.1241E+02   0.0000E+00  0.0000
   1.1241E+02   1.1515E+02   0.0000E+00  0.0000
   1.1515E+02   1.1795E+02   0.0000E+00  0.0000
   1.1795E+02   1.2082E+02   0.0000E+00  0.0000
   1.2082E+02   1.2376E+02   0.0000E+00  0.0000
   1.2376E+02   1.2677E+02   0.0000E+00  0.0000
   1.2677E+02   1.2985E+02   0.0000E+00  0.0000
   1.2985E+02   1.3301E+02   0.0000E+00  0.0000
   1.3301E+02   1.3625E+02   0.0000E+00  0.0000
   1.3625E+02   1.3956E+02   0.0000E+00  0.0000
   1.3956E+02   1.4296E+02   0.0000E+00  0.0000
   1.4296E+02   1.4644E+02   0.0000E+00  0.0000
   1.4644E+02   1.5000E+02   0.0000E+00  0.0000

#   sum over                 4.0341E-07
'no. =    1   reg = 100 - 200'
msuc: {\huge [t-cross] in region mesh}
msdr: {\it plotted by \ANGEL \version}
msdl: {\it calculated by \PHITS  3.26}
wt: s(0.7)
\vspace{-3}
  region surface crossing
  area  &=&   1.0000E+00 [cm^2]
e:
 
# Information for Restart Calculation
# This calculation was newly started
# istdev =  2 # 1:Batch variance, 2:History variance
# resc2  = 5.00000000000000000E+09 # Total source weight or Total source weight / maxcas
# resc3  = 5.00000000000000000E+09 # Total history number or Total batch number
# maxcas =   500000000 # History / Batch, only used for istdev=1
# bitrseed = 0110100000100010111000001110001111001110100100011111101000111001 # bit data of rseed
