[ T-Cross ]
    title = [t-cross] in region mesh
     mesh =  reg            # mesh type is region-wise
      reg =    1            # number of crossing regions
      non     r-from    r-to       area
      1       100       200        1.000000    
   e-type =    3            # e-mesh is log given by emin, emax and ne
     emin =  1.0000000E-02  # minimum value of e-mesh points
     emax =   150.0000      # maximum value of e-mesh points
#    edel =  2.4039514E-02  # mesh width of e-mesh points
       ne =    400          # number of e-mesh points
#    data = ( e(i), i = 1, ne + 1 )
#           1.00000E-02  1.02433E-02  1.04925E-02  1.07478E-02  1.10093E-02
#           1.12772E-02  1.15516E-02  1.18326E-02  1.21205E-02  1.24154E-02
#           1.27175E-02  1.30269E-02  1.33439E-02  1.36686E-02  1.40011E-02
#           1.43418E-02  1.46907E-02  1.50482E-02  1.54143E-02  1.57894E-02
#           1.61735E-02  1.65670E-02  1.69701E-02  1.73830E-02  1.78060E-02
#           1.82392E-02  1.86830E-02  1.91375E-02  1.96032E-02  2.00801E-02
#           2.05687E-02  2.10692E-02  2.15818E-02  2.21069E-02  2.26448E-02
#           2.31957E-02  2.37601E-02  2.43382E-02  2.49304E-02  2.55369E-02
#           2.61583E-02  2.67947E-02  2.74467E-02  2.81145E-02  2.87985E-02
#           2.94992E-02  3.02169E-02  3.09521E-02  3.17052E-02  3.24766E-02
#           3.32668E-02  3.40762E-02  3.49053E-02  3.57546E-02  3.66246E-02
#           3.75157E-02  3.84284E-02  3.93634E-02  4.03212E-02  4.13022E-02
#           4.23071E-02  4.33365E-02  4.43909E-02  4.54710E-02  4.65773E-02
#           4.77106E-02  4.88714E-02  5.00605E-02  5.12785E-02  5.25262E-02
#           5.38042E-02  5.51133E-02  5.64542E-02  5.78278E-02  5.92348E-02
#           6.06760E-02  6.21523E-02  6.36645E-02  6.52135E-02  6.68002E-02
#           6.84255E-02  7.00904E-02  7.17957E-02  7.35426E-02  7.53319E-02
#           7.71648E-02  7.90423E-02  8.09655E-02  8.29354E-02  8.49533E-02
#           8.70203E-02  8.91376E-02  9.13064E-02  9.35279E-02  9.58035E-02
#           9.81345E-02  1.00522E-01  1.02968E-01  1.05473E-01  1.08040E-01
#           1.10668E-01  1.13361E-01  1.16119E-01  1.18944E-01  1.21838E-01
#           1.24803E-01  1.27839E-01  1.30950E-01  1.34136E-01  1.37399E-01
#           1.40742E-01  1.44167E-01  1.47675E-01  1.51268E-01  1.54948E-01
#           1.58718E-01  1.62580E-01  1.66535E-01  1.70587E-01  1.74738E-01
#           1.78989E-01  1.83344E-01  1.87805E-01  1.92375E-01  1.97055E-01
#           2.01850E-01  2.06761E-01  2.11792E-01  2.16945E-01  2.22223E-01
#           2.27630E-01  2.33169E-01  2.38842E-01  2.44653E-01  2.50605E-01
#           2.56703E-01  2.62949E-01  2.69346E-01  2.75900E-01  2.82613E-01
#           2.89489E-01  2.96532E-01  3.03747E-01  3.11138E-01  3.18708E-01
#           3.26462E-01  3.34405E-01  3.42542E-01  3.50876E-01  3.59413E-01
#           3.68158E-01  3.77116E-01  3.86291E-01  3.95690E-01  4.05317E-01
#           4.15179E-01  4.25281E-01  4.35628E-01  4.46227E-01  4.57084E-01
#           4.68205E-01  4.79597E-01  4.91266E-01  5.03219E-01  5.15463E-01
#           5.28005E-01  5.40851E-01  5.54011E-01  5.67490E-01  5.81298E-01
#           5.95441E-01  6.09929E-01  6.24769E-01  6.39970E-01  6.55541E-01
#           6.71491E-01  6.87828E-01  7.04564E-01  7.21706E-01  7.39266E-01
#           7.57253E-01  7.75678E-01  7.94551E-01  8.13883E-01  8.33685E-01
#           8.53969E-01  8.74747E-01  8.96030E-01  9.17831E-01  9.40163E-01
#           9.63038E-01  9.86469E-01  1.01047E+00  1.03506E+00  1.06024E+00
#           1.08604E+00  1.11246E+00  1.13953E+00  1.16725E+00  1.19565E+00
#           1.22474E+00  1.25454E+00  1.28507E+00  1.31633E+00  1.34836E+00
#           1.38117E+00  1.41477E+00  1.44920E+00  1.48446E+00  1.52057E+00
#           1.55757E+00  1.59547E+00  1.63429E+00  1.67405E+00  1.71478E+00
#           1.75650E+00  1.79924E+00  1.84302E+00  1.88786E+00  1.93379E+00
#           1.98084E+00  2.02904E+00  2.07841E+00  2.12898E+00  2.18078E+00
#           2.23384E+00  2.28819E+00  2.34386E+00  2.40089E+00  2.45930E+00
#           2.51914E+00  2.58043E+00  2.64322E+00  2.70753E+00  2.77341E+00
#           2.84088E+00  2.91001E+00  2.98081E+00  3.05333E+00  3.12762E+00
#           3.20372E+00  3.28167E+00  3.36152E+00  3.44330E+00  3.52708E+00
#           3.61290E+00  3.70080E+00  3.79085E+00  3.88308E+00  3.97756E+00
#           4.07434E+00  4.17347E+00  4.27501E+00  4.37903E+00  4.48557E+00
#           4.59471E+00  4.70650E+00  4.82102E+00  4.93832E+00  5.05847E+00
#           5.18155E+00  5.30762E+00  5.43676E+00  5.56904E+00  5.70453E+00
#           5.84333E+00  5.98550E+00  6.13114E+00  6.28031E+00  6.43312E+00
#           6.58964E+00  6.74997E+00  6.91420E+00  7.08243E+00  7.25475E+00
#           7.43126E+00  7.61207E+00  7.79728E+00  7.98700E+00  8.18133E+00
#           8.38038E+00  8.58428E+00  8.79315E+00  9.00709E+00  9.22624E+00
#           9.45072E+00  9.68067E+00  9.91620E+00  1.01575E+01  1.04046E+01
#           1.06578E+01  1.09171E+01  1.11827E+01  1.14548E+01  1.17335E+01
#           1.20190E+01  1.23114E+01  1.26109E+01  1.29178E+01  1.32321E+01
#           1.35540E+01  1.38838E+01  1.42216E+01  1.45676E+01  1.49221E+01
#           1.52851E+01  1.56570E+01  1.60380E+01  1.64282E+01  1.68279E+01
#           1.72374E+01  1.76568E+01  1.80864E+01  1.85264E+01  1.89772E+01
#           1.94389E+01  1.99119E+01  2.03963E+01  2.08926E+01  2.14009E+01
#           2.19216E+01  2.24550E+01  2.30014E+01  2.35610E+01  2.41343E+01
#           2.47215E+01  2.53230E+01  2.59391E+01  2.65702E+01  2.72167E+01
#           2.78789E+01  2.85572E+01  2.92520E+01  2.99637E+01  3.06928E+01
#           3.14396E+01  3.22045E+01  3.29881E+01  3.37907E+01  3.46128E+01
#           3.54550E+01  3.63177E+01  3.72013E+01  3.81064E+01  3.90336E+01
#           3.99833E+01  4.09561E+01  4.19526E+01  4.29734E+01  4.40189E+01
#           4.50900E+01  4.61870E+01  4.73108E+01  4.84619E+01  4.96410E+01
#           5.08488E+01  5.20860E+01  5.33533E+01  5.46514E+01  5.59812E+01
#           5.73432E+01  5.87384E+01  6.01676E+01  6.16315E+01  6.31311E+01
#           6.46671E+01  6.62405E+01  6.78522E+01  6.95031E+01  7.11941E+01
#           7.29263E+01  7.47007E+01  7.65182E+01  7.83800E+01  8.02870E+01
#           8.22405E+01  8.42414E+01  8.62911E+01  8.83906E+01  9.05412E+01
#           9.27442E+01  9.50007E+01  9.73122E+01  9.96799E+01  1.02105E+02
#           1.04589E+02  1.07134E+02  1.09741E+02  1.12411E+02  1.15146E+02
#           1.17948E+02  1.20817E+02  1.23757E+02  1.26768E+02  1.29852E+02
#           1.33012E+02  1.36248E+02  1.39563E+02  1.42959E+02  1.46437E+02
#           1.50000E+02
     unit =    2            # unit is [1/cm^2/(MeV/n)/source]
     axis =  eng            # axis of output
     file = detector-01.out  # file name of output for the above axis
   output = f-curr          # surface crossing forward current spectrum
     part =  neutron  
# kf/name :  2112     
#    used :        main (  %)        temp (  %)       total (  %)
#  memory :         414 (  0)           0 (  0)         414 (  0)

#------------------------------------------------------------------------------
#newpage:
#   no. =    1   reg = 100 - 200

x: Energy [MeV/n]
y:  F-Curr [1/cm^2/(MeV/n)/source]         
p: xlog ylog afac(0.8) form(0.9)
h: n            x            y(neutron ),hh0l   n 
#  e-lower      e-upper      neutron     r.err 
   1.0000E-02   1.0243E-02   1.8906E-04  0.2085
   1.0243E-02   1.0493E-02   6.4198E-05  0.3536
   1.0493E-02   1.0748E-02   1.9585E-04  0.2000
   1.0748E-02   1.1009E-02   1.3002E-04  0.2425
   1.1009E-02   1.1277E-02   1.4388E-04  0.2266
   1.1277E-02   1.1552E-02   1.4003E-04  0.2272
   1.1552E-02   1.1833E-02   5.6928E-05  0.3536
   1.1833E-02   1.2121E-02   1.4589E-04  0.2182
   1.2121E-02   1.2415E-02   9.4947E-05  0.2624
   1.2415E-02   1.2718E-02   1.0743E-04  0.2469
   1.2718E-02   1.3027E-02   1.0665E-04  0.2443
   1.3027E-02   1.3344E-02   1.2620E-04  0.2236
   1.3344E-02   1.3669E-02   7.7002E-05  0.2800
   1.3669E-02   1.4001E-02   8.1187E-05  0.2696
   1.4001E-02   1.4342E-02   6.6151E-05  0.2953
   1.4342E-02   1.4691E-02   1.1463E-04  0.2236
   1.4691E-02   1.5048E-02   6.7145E-05  0.2887
   1.5048E-02   1.5414E-02   5.0088E-05  0.3277
   1.5414E-02   1.5789E-02   6.3993E-05  0.2887
   1.5789E-02   1.6174E-02   7.2885E-05  0.2673
   1.6174E-02   1.6567E-02   5.0824E-05  0.3162
   1.6567E-02   1.6970E-02   7.5265E-05  0.2556
   1.6970E-02   1.7383E-02   6.9647E-05  0.2609
   1.7383E-02   1.7806E-02   9.1123E-05  0.2266
   1.7806E-02   1.8239E-02   9.2329E-05  0.2236
   1.8239E-02   1.8683E-02   6.6549E-05  0.2563
   1.8683E-02   1.9138E-02   5.0213E-05  0.2918
   1.9138E-02   1.9603E-02   9.0200E-05  0.2182
   1.9603E-02   2.0080E-02   1.0162E-04  0.2024
   2.0080E-02   2.0569E-02   5.8394E-05  0.2630
   2.0569E-02   2.1069E-02   8.0940E-05  0.2212
   2.1069E-02   2.1582E-02   7.0226E-05  0.2357
   2.1582E-02   2.2107E-02   7.9984E-05  0.2182
   2.2107E-02   2.2645E-02   9.0044E-05  0.2025
   2.2645E-02   2.3196E-02   5.0820E-05  0.2673
   2.3196E-02   2.3760E-02   6.8402E-05  0.2261
   2.3760E-02   2.4338E-02   6.3102E-05  0.2330
   2.4338E-02   2.4930E-02   5.8298E-05  0.2393
   2.4930E-02   2.5537E-02   6.2647E-05  0.2294
   2.5537E-02   2.6158E-02   4.1845E-05  0.2774
   2.6158E-02   2.6795E-02   6.2848E-05  0.2236
   2.6795E-02   2.7447E-02   2.2050E-05  0.3690
   2.7447E-02   2.8114E-02   3.3651E-05  0.2959
   2.8114E-02   2.8799E-02   3.9916E-05  0.2669
   2.8799E-02   2.9499E-02   5.4784E-05  0.2273
   2.9499E-02   3.0217E-02   5.6270E-05  0.2217
   3.0217E-02   3.0952E-02   2.4483E-05  0.3333
   3.0952E-02   3.1705E-02   4.5147E-05  0.2425
   3.1705E-02   3.2477E-02   3.8890E-05  0.2582
   3.2477E-02   3.3267E-02   3.5935E-05  0.2639
   3.3267E-02   3.4076E-02   4.9419E-05  0.2236
   3.4076E-02   3.4905E-02   4.5833E-05  0.2294
   3.4905E-02   3.5755E-02   4.0034E-05  0.2425
   3.5755E-02   3.6625E-02   2.9887E-05  0.2774
   3.6625E-02   3.7516E-02   4.4888E-05  0.2236
   3.7516E-02   3.8428E-02   2.6729E-05  0.2844
   3.8428E-02   3.9363E-02   4.0642E-05  0.2294
   3.9363E-02   4.0321E-02   3.3412E-05  0.2500
   4.0321E-02   4.1302E-02   3.2989E-05  0.2474
   4.1302E-02   4.2307E-02   2.7863E-05  0.2673
   4.2307E-02   4.3337E-02   4.2745E-05  0.2132
   4.3337E-02   4.4391E-02   4.0781E-05  0.2144
   4.4391E-02   4.5471E-02   2.4073E-05  0.2774
   4.5471E-02   4.6577E-02   3.0732E-05  0.2425
   4.6577E-02   4.7711E-02   2.5706E-05  0.2579
   4.7711E-02   4.8871E-02   2.4121E-05  0.2673
   4.8871E-02   5.0061E-02   2.3548E-05  0.2673
   5.0061E-02   5.1279E-02   3.3283E-05  0.2210
   5.1279E-02   5.2526E-02   3.0731E-05  0.2275
   5.2526E-02   5.3804E-02   1.2912E-05  0.3442
   5.3804E-02   5.5113E-02   3.4207E-05  0.2099
   5.5113E-02   5.6454E-02   2.6379E-05  0.2351
   5.6454E-02   5.7828E-02   2.2095E-05  0.2555
   5.7828E-02   5.9235E-02   2.4165E-05  0.2425
   5.9235E-02   6.0676E-02   2.6017E-05  0.2282
   6.0676E-02   6.2152E-02   2.3031E-05  0.2425
   6.2152E-02   6.3665E-02   1.4905E-05  0.2953
   6.3665E-02   6.5214E-02   2.4532E-05  0.2294
   6.5214E-02   6.6800E-02   1.9273E-05  0.2537
   6.6800E-02   6.8426E-02   1.8790E-05  0.2543
   6.8426E-02   7.0090E-02   1.2298E-05  0.3098
   7.0090E-02   7.1796E-02   2.6057E-05  0.2113
   7.1796E-02   7.3543E-02   1.6029E-05  0.2673
   7.3543E-02   7.5332E-02   1.6766E-05  0.2582
   7.5332E-02   7.7165E-02   2.0187E-05  0.2309
   7.7165E-02   7.9042E-02   1.5115E-05  0.2640
   7.9042E-02   8.0965E-02   1.1719E-05  0.2953
   8.0965E-02   8.2935E-02   7.3696E-06  0.3662
   8.2935E-02   8.4953E-02   1.5069E-05  0.2551
   8.4953E-02   8.7020E-02   1.3546E-05  0.2673
   8.7020E-02   8.9138E-02   1.4596E-05  0.2515
   8.9138E-02   9.1306E-02   1.4904E-05  0.2477
   9.1306E-02   9.3528E-02   1.0803E-05  0.2887
   9.3528E-02   9.5804E-02   1.3321E-05  0.2557
   9.5804E-02   9.8134E-02   2.1654E-05  0.1983
   9.8134E-02   1.0052E-01   1.0182E-05  0.2853
   1.0052E-01   1.0297E-01   1.4449E-05  0.2344
   1.0297E-01   1.0547E-01   1.4964E-05  0.2283
   1.0547E-01   1.0804E-01   1.4940E-05  0.2276
   1.0804E-01   1.1067E-01   1.1032E-05  0.2603
   1.1067E-01   1.1336E-01   1.1298E-05  0.2550
   1.1336E-01   1.1612E-01   8.8690E-06  0.2839
   1.1612E-01   1.1894E-01   1.0716E-05  0.2560
   1.1894E-01   1.2184E-01   1.2439E-05  0.2357
   1.2184E-01   1.2480E-01   1.1886E-05  0.2350
   1.2480E-01   1.2784E-01   8.0373E-06  0.2844
   1.2784E-01   1.3095E-01   1.3638E-05  0.2163
   1.3095E-01   1.3414E-01   1.2202E-05  0.2248
   1.3414E-01   1.3740E-01   1.4804E-05  0.2029
   1.3740E-01   1.4074E-01   1.6663E-05  0.1876
   1.4074E-01   1.4417E-01   1.0513E-05  0.2357
   1.4417E-01   1.4767E-01   1.2128E-05  0.2158
   1.4767E-01   1.5127E-01   9.0483E-06  0.2466
   1.5127E-01   1.5495E-01   7.8340E-06  0.2604
   1.5495E-01   1.5872E-01   9.0185E-06  0.2425
   1.5872E-01   1.6258E-01   1.1510E-05  0.2113
   1.6258E-01   1.6654E-01   1.3244E-05  0.1948
   1.6654E-01   1.7059E-01   8.3910E-06  0.2425
   1.7059E-01   1.7474E-01   1.1083E-05  0.2085
   1.7474E-01   1.7899E-01   7.6463E-06  0.2466
   1.7899E-01   1.8334E-01   5.9478E-06  0.2714
   1.8334E-01   1.8781E-01   7.0705E-06  0.2482
   1.8781E-01   1.9237E-01   7.8784E-06  0.2357
   1.9237E-01   1.9706E-01   7.6913E-06  0.2357
   1.9706E-01   2.0185E-01   6.7843E-06  0.2465
   2.0185E-01   2.0676E-01   7.4008E-06  0.2337
   2.0676E-01   2.1179E-01   7.2231E-06  0.2337
   2.1179E-01   2.1694E-01   9.3739E-06  0.2029
   2.1694E-01   2.2222E-01   8.4315E-06  0.2111
   2.2222E-01   2.2763E-01   7.5264E-06  0.2201
   2.2763E-01   2.3317E-01   9.4422E-06  0.1951
   2.3317E-01   2.3884E-01   1.0281E-05  0.1847
   2.3884E-01   2.4465E-01   1.1702E-05  0.1715
   2.4465E-01   2.5061E-01   1.0063E-05  0.1809
   2.5061E-01   2.5670E-01   1.1148E-05  0.1700
   2.5670E-01   2.6295E-01   1.1141E-05  0.1680
   2.6295E-01   2.6935E-01   1.2394E-05  0.1578
   2.6935E-01   2.7590E-01   1.2290E-05  0.1572
   2.7590E-01   2.8261E-01   1.1619E-05  0.1601
   2.8261E-01   2.8949E-01   1.3459E-05  0.1467
   2.8949E-01   2.9653E-01   1.5565E-05  0.1344
   2.9653E-01   3.0375E-01   1.5919E-05  0.1316
   3.0375E-01   3.1114E-01   1.7346E-05  0.1242
   3.1114E-01   3.1871E-01   1.7376E-05  0.1229
   3.1871E-01   3.2646E-01   1.7280E-05  0.1222
   3.2646E-01   3.3441E-01   2.2603E-05  0.1053
   3.3441E-01   3.4254E-01   1.9801E-05  0.1107
   3.4254E-01   3.5088E-01   1.9585E-05  0.1099
   3.5088E-01   3.5941E-01   2.3748E-05  0.0989
   3.5941E-01   3.6816E-01   2.0086E-05  0.1060
   3.6816E-01   3.7712E-01   1.9282E-05  0.1070
   3.7712E-01   3.8629E-01   2.3670E-05  0.0955
   3.8629E-01   3.9569E-01   2.3413E-05  0.0950
   3.9569E-01   4.0532E-01   2.0422E-05  0.1003
   4.0532E-01   4.1518E-01   2.4039E-05  0.0914
   4.1518E-01   4.2528E-01   3.0009E-05  0.0810
   4.2528E-01   4.3563E-01   2.8326E-05  0.0823
   4.3563E-01   4.4623E-01   2.5557E-05  0.0853
   4.4623E-01   4.5708E-01   2.9319E-05  0.0790
   4.5708E-01   4.6821E-01   2.8197E-05  0.0797
   4.6821E-01   4.7960E-01   2.9562E-05  0.0768
   4.7960E-01   4.9127E-01   3.0681E-05  0.0745
   4.9127E-01   5.0322E-01   3.2860E-05  0.0712
   5.0322E-01   5.1546E-01   3.4533E-05  0.0685
   5.1546E-01   5.2800E-01   3.3134E-05  0.0692
   5.2800E-01   5.4085E-01   3.2714E-05  0.0689
   5.4085E-01   5.5401E-01   3.7682E-05  0.0633
   5.5401E-01   5.6749E-01   3.1918E-05  0.0679
   5.6749E-01   5.8130E-01   3.5179E-05  0.0641
   5.8130E-01   5.9544E-01   3.3124E-05  0.0652
   5.9544E-01   6.0993E-01   3.8004E-05  0.0601
   6.0993E-01   6.2477E-01   3.9622E-05  0.0582
   6.2477E-01   6.3997E-01   3.4954E-05  0.0611
   6.3997E-01   6.5554E-01   4.2440E-05  0.0549
   6.5554E-01   6.7149E-01   3.7210E-05  0.0578
   6.7149E-01   6.8783E-01   4.0304E-05  0.0550
   6.8783E-01   7.0456E-01   3.9546E-05  0.0548
   7.0456E-01   7.2171E-01   3.8909E-05  0.0546
   7.2171E-01   7.3927E-01   3.6236E-05  0.0559
   7.3927E-01   7.5725E-01   4.0515E-05  0.0522
   7.5725E-01   7.7568E-01   3.9787E-05  0.0522
   7.7568E-01   7.9455E-01   3.8690E-05  0.0523
   7.9455E-01   8.1388E-01   4.1669E-05  0.0497
   8.1388E-01   8.3368E-01   3.8721E-05  0.0510
   8.3368E-01   8.5397E-01   4.3142E-05  0.0477
   8.5397E-01   8.7475E-01   4.3409E-05  0.0469
   8.7475E-01   8.9603E-01   4.4518E-05  0.0458
   8.9603E-01   9.1783E-01   4.4295E-05  0.0454
   9.1783E-01   9.4016E-01   4.1477E-05  0.0463
   9.4016E-01   9.6304E-01   4.3388E-05  0.0448
   9.6304E-01   9.8647E-01   4.0818E-05  0.0456
   9.8647E-01   1.0105E+00   4.0092E-05  0.0455
   1.0105E+00   1.0351E+00   4.2411E-05  0.0436
   1.0351E+00   1.0602E+00   4.2668E-05  0.0430
   1.0602E+00   1.0860E+00   4.1854E-05  0.0429
   1.0860E+00   1.1125E+00   4.1915E-05  0.0424
   1.1125E+00   1.1395E+00   4.2665E-05  0.0416
   1.1395E+00   1.1673E+00   4.1185E-05  0.0418
   1.1673E+00   1.1957E+00   3.9582E-05  0.0421
   1.1957E+00   1.2247E+00   4.6358E-05  0.0384
   1.2247E+00   1.2545E+00   4.0025E-05  0.0409
   1.2545E+00   1.2851E+00   4.1985E-05  0.0394
   1.2851E+00   1.3163E+00   4.0936E-05  0.0394
   1.3163E+00   1.3484E+00   4.1936E-05  0.0385
   1.3484E+00   1.3812E+00   4.0839E-05  0.0385
   1.3812E+00   1.4148E+00   4.1424E-05  0.0378
   1.4148E+00   1.4492E+00   4.0236E-05  0.0379
   1.4492E+00   1.4845E+00   4.2270E-05  0.0365
   1.4845E+00   1.5206E+00   4.3577E-05  0.0356
   1.5206E+00   1.5576E+00   3.9750E-05  0.0368
   1.5576E+00   1.5955E+00   4.4417E-05  0.0344
   1.5955E+00   1.6343E+00   4.0598E-05  0.0355
   1.6343E+00   1.6741E+00   4.0699E-05  0.0351
   1.6741E+00   1.7148E+00   4.1010E-05  0.0345
   1.7148E+00   1.7565E+00   4.2852E-05  0.0334
   1.7565E+00   1.7992E+00   4.3042E-05  0.0329
   1.7992E+00   1.8430E+00   4.1798E-05  0.0329
   1.8430E+00   1.8879E+00   4.3265E-05  0.0320
   1.8879E+00   1.9338E+00   4.0631E-05  0.0326
   1.9338E+00   1.9808E+00   4.3144E-05  0.0313
   1.9808E+00   2.0290E+00   4.4280E-05  0.0305
   2.0290E+00   2.0784E+00   4.3240E-05  0.0305
   2.0784E+00   2.1290E+00   4.1860E-05  0.0307
   2.1290E+00   2.1808E+00   4.2490E-05  0.0300
   2.1808E+00   2.2338E+00   4.1486E-05  0.0301
   2.2338E+00   2.2882E+00   4.0920E-05  0.0299
   2.2882E+00   2.3439E+00   4.1058E-05  0.0295
   2.3439E+00   2.4009E+00   4.1727E-05  0.0289
   2.4009E+00   2.4593E+00   4.2272E-05  0.0284
   2.4593E+00   2.5191E+00   4.3423E-05  0.0277
   2.5191E+00   2.5804E+00   4.3202E-05  0.0274
   2.5804E+00   2.6432E+00   4.2369E-05  0.0274
   2.6432E+00   2.7075E+00   4.2303E-05  0.0271
   2.7075E+00   2.7734E+00   4.2878E-05  0.0265
   2.7734E+00   2.8409E+00   4.1714E-05  0.0266
   2.8409E+00   2.9100E+00   4.2027E-05  0.0262
   2.9100E+00   2.9808E+00   4.1753E-05  0.0259
   2.9808E+00   3.0533E+00   4.2596E-05  0.0254
   3.0533E+00   3.1276E+00   4.1052E-05  0.0256
   3.1276E+00   3.2037E+00   4.3475E-05  0.0246
   3.2037E+00   3.2817E+00   4.0667E-05  0.0251
   3.2817E+00   3.3615E+00   4.2349E-05  0.0243
   3.3615E+00   3.4433E+00   4.2334E-05  0.0240
   3.4433E+00   3.5271E+00   4.2661E-05  0.0236
   3.5271E+00   3.6129E+00   4.1516E-05  0.0236
   3.6129E+00   3.7008E+00   4.2050E-05  0.0232
   3.7008E+00   3.7908E+00   4.2463E-05  0.0228
   3.7908E+00   3.8831E+00   4.1181E-05  0.0229
   3.8831E+00   3.9776E+00   4.3197E-05  0.0221
   3.9776E+00   4.0743E+00   4.2349E-05  0.0221
   4.0743E+00   4.1735E+00   4.2980E-05  0.0216
   4.1735E+00   4.2750E+00   4.3669E-05  0.0212
   4.2750E+00   4.3790E+00   4.4465E-05  0.0208
   4.3790E+00   4.4856E+00   4.4502E-05  0.0205
   4.4856E+00   4.5947E+00   4.5026E-05  0.0202
   4.5947E+00   4.7065E+00   4.3722E-05  0.0202
   4.7065E+00   4.8210E+00   4.3706E-05  0.0200
   4.8210E+00   4.9383E+00   4.4503E-05  0.0196
   4.9383E+00   5.0585E+00   4.5792E-05  0.0190
   5.0585E+00   5.1815E+00   4.5082E-05  0.0190
   5.1815E+00   5.3076E+00   4.6969E-05  0.0184
   5.3076E+00   5.4368E+00   4.5381E-05  0.0185
   5.4368E+00   5.5690E+00   4.7784E-05  0.0178
   5.5690E+00   5.7045E+00   4.8160E-05  0.0175
   5.7045E+00   5.8433E+00   4.7353E-05  0.0174
   5.8433E+00   5.9855E+00   4.7930E-05  0.0171
   5.9855E+00   6.1311E+00   4.7764E-05  0.0169
   6.1311E+00   6.2803E+00   4.6660E-05  0.0169
   6.2803E+00   6.4331E+00   5.0184E-05  0.0161
   6.4331E+00   6.5896E+00   4.9138E-05  0.0161
   6.5896E+00   6.7500E+00   5.0591E-05  0.0157
   6.7500E+00   6.9142E+00   5.0778E-05  0.0155
   6.9142E+00   7.0824E+00   4.9662E-05  0.0155
   7.0824E+00   7.2548E+00   4.9989E-05  0.0152
   7.2548E+00   7.4313E+00   5.2562E-05  0.0147
   7.4313E+00   7.6121E+00   5.2083E-05  0.0146
   7.6121E+00   7.7973E+00   5.4444E-05  0.0141
   7.7973E+00   7.9870E+00   5.4339E-05  0.0139
   7.9870E+00   8.1813E+00   5.3811E-05  0.0138
   8.1813E+00   8.3804E+00   5.4248E-05  0.0136
   8.3804E+00   8.5843E+00   5.5153E-05  0.0133
   8.5843E+00   8.7931E+00   5.6672E-05  0.0130
   8.7931E+00   9.0071E+00   5.6255E-05  0.0129
   9.0071E+00   9.2262E+00   5.7022E-05  0.0126
   9.2262E+00   9.4507E+00   5.9901E-05  0.0122
   9.4507E+00   9.6807E+00   5.8989E-05  0.0121
   9.6807E+00   9.9162E+00   6.0113E-05  0.0119
   9.9162E+00   1.0157E+01   6.1403E-05  0.0116
   1.0157E+01   1.0405E+01   6.1608E-05  0.0115
   1.0405E+01   1.0658E+01   6.0272E-05  0.0114
   1.0658E+01   1.0917E+01   6.1014E-05  0.0112
   1.0917E+01   1.1183E+01   6.1876E-05  0.0110
   1.1183E+01   1.1455E+01   6.4240E-05  0.0107
   1.1455E+01   1.1733E+01   6.3524E-05  0.0106
   1.1733E+01   1.2019E+01   6.2968E-05  0.0105
   1.2019E+01   1.2311E+01   6.4074E-05  0.0103
   1.2311E+01   1.2611E+01   6.4310E-05  0.0102
   1.2611E+01   1.2918E+01   6.3079E-05  0.0102
   1.2918E+01   1.3232E+01   6.2560E-05  0.0101
   1.3232E+01   1.3554E+01   6.2291E-05  0.0100
   1.3554E+01   1.3884E+01   6.3849E-05  0.0097
   1.3884E+01   1.4222E+01   6.2409E-05  0.0097
   1.4222E+01   1.4568E+01   6.2055E-05  0.0097
   1.4568E+01   1.4922E+01   6.0663E-05  0.0096
   1.4922E+01   1.5285E+01   5.9947E-05  0.0096
   1.5285E+01   1.5657E+01   5.8028E-05  0.0096
   1.5657E+01   1.6038E+01   5.6633E-05  0.0096
   1.6038E+01   1.6428E+01   5.5802E-05  0.0096
   1.6428E+01   1.6828E+01   5.3270E-05  0.0097
   1.6828E+01   1.7237E+01   5.1945E-05  0.0097
   1.7237E+01   1.7657E+01   4.9414E-05  0.0098
   1.7657E+01   1.8086E+01   4.7804E-05  0.0099
   1.8086E+01   1.8526E+01   4.5140E-05  0.0100
   1.8526E+01   1.8977E+01   4.2382E-05  0.0102
   1.8977E+01   1.9439E+01   4.0327E-05  0.0104
   1.9439E+01   1.9912E+01   3.7115E-05  0.0107
   1.9912E+01   2.0396E+01   3.5961E-05  0.0107
   2.0396E+01   2.0893E+01   3.2564E-05  0.0111
   2.0893E+01   2.1401E+01   3.0665E-05  0.0113
   2.1401E+01   2.1922E+01   2.8377E-05  0.0116
   2.1922E+01   2.2455E+01   2.5581E-05  0.0121
   2.2455E+01   2.3001E+01   2.3791E-05  0.0124
   2.3001E+01   2.3561E+01   2.1603E-05  0.0129
   2.3561E+01   2.4134E+01   1.9831E-05  0.0133
   2.4134E+01   2.4721E+01   1.8011E-05  0.0138
   2.4721E+01   2.5323E+01   1.6223E-05  0.0143
   2.5323E+01   2.5939E+01   1.5523E-05  0.0145
   2.5939E+01   2.6570E+01   1.4967E-05  0.0146
   2.6570E+01   2.7217E+01   1.3631E-05  0.0151
   2.7217E+01   2.7879E+01   1.2492E-05  0.0155
   2.7879E+01   2.8557E+01   1.1800E-05  0.0158
   2.8557E+01   2.9252E+01   1.1137E-05  0.0161
   2.9252E+01   2.9964E+01   1.0063E-05  0.0167
   2.9964E+01   3.0693E+01   9.3986E-06  0.0171
   3.0693E+01   3.1440E+01   8.5567E-06  0.0177
   3.1440E+01   3.2205E+01   8.1103E-06  0.0180
   3.2205E+01   3.2988E+01   7.3919E-06  0.0186
   3.2988E+01   3.3791E+01   7.1764E-06  0.0186
   3.3791E+01   3.4613E+01   6.7919E-06  0.0189
   3.4613E+01   3.5455E+01   5.9181E-06  0.0200
   3.5455E+01   3.6318E+01   4.6879E-06  0.0222
   3.6318E+01   3.7201E+01   3.8455E-06  0.0243
   3.7201E+01   3.8106E+01   2.9741E-06  0.0273
   3.8106E+01   3.9034E+01   2.1161E-06  0.0319
   3.9034E+01   3.9983E+01   1.4257E-06  0.0384
   3.9983E+01   4.0956E+01   6.2704E-07  0.0573
   4.0956E+01   4.1953E+01   1.2444E-07  0.1270
   4.1953E+01   4.2973E+01   0.0000E+00  0.0000
   4.2973E+01   4.4019E+01   0.0000E+00  0.0000
   4.4019E+01   4.5090E+01   0.0000E+00  0.0000
   4.5090E+01   4.6187E+01   0.0000E+00  0.0000
   4.6187E+01   4.7311E+01   0.0000E+00  0.0000
   4.7311E+01   4.8462E+01   0.0000E+00  0.0000
   4.8462E+01   4.9641E+01   0.0000E+00  0.0000
   4.9641E+01   5.0849E+01   0.0000E+00  0.0000
   5.0849E+01   5.2086E+01   0.0000E+00  0.0000
   5.2086E+01   5.3353E+01   0.0000E+00  0.0000
   5.3353E+01   5.4651E+01   0.0000E+00  0.0000
   5.4651E+01   5.5981E+01   0.0000E+00  0.0000
   5.5981E+01   5.7343E+01   0.0000E+00  0.0000
   5.7343E+01   5.8738E+01   0.0000E+00  0.0000
   5.8738E+01   6.0168E+01   0.0000E+00  0.0000
   6.0168E+01   6.1632E+01   0.0000E+00  0.0000
   6.1632E+01   6.3131E+01   0.0000E+00  0.0000
   6.3131E+01   6.4667E+01   0.0000E+00  0.0000
   6.4667E+01   6.6240E+01   0.0000E+00  0.0000
   6.6240E+01   6.7852E+01   0.0000E+00  0.0000
   6.7852E+01   6.9503E+01   0.0000E+00  0.0000
   6.9503E+01   7.1194E+01   0.0000E+00  0.0000
   7.1194E+01   7.2926E+01   0.0000E+00  0.0000
   7.2926E+01   7.4701E+01   0.0000E+00  0.0000
   7.4701E+01   7.6518E+01   0.0000E+00  0.0000
   7.6518E+01   7.8380E+01   0.0000E+00  0.0000
   7.8380E+01   8.0287E+01   0.0000E+00  0.0000
   8.0287E+01   8.2240E+01   0.0000E+00  0.0000
   8.2240E+01   8.4241E+01   0.0000E+00  0.0000
   8.4241E+01   8.6291E+01   0.0000E+00  0.0000
   8.6291E+01   8.8391E+01   0.0000E+00  0.0000
   8.8391E+01   9.0541E+01   0.0000E+00  0.0000
   9.0541E+01   9.2744E+01   0.0000E+00  0.0000
   9.2744E+01   9.5001E+01   0.0000E+00  0.0000
   9.5001E+01   9.7312E+01   0.0000E+00  0.0000
   9.7312E+01   9.9680E+01   0.0000E+00  0.0000
   9.9680E+01   1.0211E+02   0.0000E+00  0.0000
   1.0211E+02   1.0459E+02   0.0000E+00  0.0000
   1.0459E+02   1.0713E+02   0.0000E+00  0.0000
   1.0713E+02   1.0974E+02   0.0000E+00  0.0000
   1.0974E+02   1.1241E+02   0.0000E+00  0.0000
   1.1241E+02   1.1515E+02   0.0000E+00  0.0000
   1.1515E+02   1.1795E+02   0.0000E+00  0.0000
   1.1795E+02   1.2082E+02   0.0000E+00  0.0000
   1.2082E+02   1.2376E+02   0.0000E+00  0.0000
   1.2376E+02   1.2677E+02   0.0000E+00  0.0000
   1.2677E+02   1.2985E+02   0.0000E+00  0.0000
   1.2985E+02   1.3301E+02   0.0000E+00  0.0000
   1.3301E+02   1.3625E+02   0.0000E+00  0.0000
   1.3625E+02   1.3956E+02   0.0000E+00  0.0000
   1.3956E+02   1.4296E+02   0.0000E+00  0.0000
   1.4296E+02   1.4644E+02   0.0000E+00  0.0000
   1.4644E+02   1.5000E+02   0.0000E+00  0.0000

#   sum over                 8.4396E-06
'no. =    1   reg = 100 - 200'
msuc: {\huge [t-cross] in region mesh}
msdr: {\it plotted by \ANGEL \version}
msdl: {\it calculated by \PHITS  3.26}
wt: s(0.7)
\vspace{-3}
  region surface crossing
  area  &=&   1.0000E+00 [cm^2]
e:
 
# Information for Restart Calculation
# This calculation was newly started
# istdev =  2 # 1:Batch variance, 2:History variance
# resc2  = 5.00000000000000000E+08 # Total source weight or Total source weight / maxcas
# resc3  = 5.00000000000000000E+08 # Total history number or Total batch number
# maxcas =   500000000 # History / Batch, only used for istdev=1
# bitrseed = 1101101111010011011000101101110001100110110010110001010100010001 # bit data of rseed
