[ T-Cross ]
    title = [t-cross] in region mesh
     mesh =  reg            # mesh type is region-wise
      reg =    1            # number of crossing regions
      non     r-from    r-to       area
      1       113       213        1.000000    
   e-type =    3            # e-mesh is log given by emin, emax and ne
     emin =  1.0000000E-02  # minimum value of e-mesh points
     emax =   150.0000      # maximum value of e-mesh points
#    edel =  2.4039514E-02  # mesh width of e-mesh points
       ne =    400          # number of e-mesh points
#    data = ( e(i), i = 1, ne + 1 )
#           1.00000E-02  1.02433E-02  1.04925E-02  1.07478E-02  1.10093E-02
#           1.12772E-02  1.15516E-02  1.18326E-02  1.21205E-02  1.24154E-02
#           1.27175E-02  1.30269E-02  1.33439E-02  1.36686E-02  1.40011E-02
#           1.43418E-02  1.46907E-02  1.50482E-02  1.54143E-02  1.57894E-02
#           1.61735E-02  1.65670E-02  1.69701E-02  1.73830E-02  1.78060E-02
#           1.82392E-02  1.86830E-02  1.91375E-02  1.96032E-02  2.00801E-02
#           2.05687E-02  2.10692E-02  2.15818E-02  2.21069E-02  2.26448E-02
#           2.31957E-02  2.37601E-02  2.43382E-02  2.49304E-02  2.55369E-02
#           2.61583E-02  2.67947E-02  2.74467E-02  2.81145E-02  2.87985E-02
#           2.94992E-02  3.02169E-02  3.09521E-02  3.17052E-02  3.24766E-02
#           3.32668E-02  3.40762E-02  3.49053E-02  3.57546E-02  3.66246E-02
#           3.75157E-02  3.84284E-02  3.93634E-02  4.03212E-02  4.13022E-02
#           4.23071E-02  4.33365E-02  4.43909E-02  4.54710E-02  4.65773E-02
#           4.77106E-02  4.88714E-02  5.00605E-02  5.12785E-02  5.25262E-02
#           5.38042E-02  5.51133E-02  5.64542E-02  5.78278E-02  5.92348E-02
#           6.06760E-02  6.21523E-02  6.36645E-02  6.52135E-02  6.68002E-02
#           6.84255E-02  7.00904E-02  7.17957E-02  7.35426E-02  7.53319E-02
#           7.71648E-02  7.90423E-02  8.09655E-02  8.29354E-02  8.49533E-02
#           8.70203E-02  8.91376E-02  9.13064E-02  9.35279E-02  9.58035E-02
#           9.81345E-02  1.00522E-01  1.02968E-01  1.05473E-01  1.08040E-01
#           1.10668E-01  1.13361E-01  1.16119E-01  1.18944E-01  1.21838E-01
#           1.24803E-01  1.27839E-01  1.30950E-01  1.34136E-01  1.37399E-01
#           1.40742E-01  1.44167E-01  1.47675E-01  1.51268E-01  1.54948E-01
#           1.58718E-01  1.62580E-01  1.66535E-01  1.70587E-01  1.74738E-01
#           1.78989E-01  1.83344E-01  1.87805E-01  1.92375E-01  1.97055E-01
#           2.01850E-01  2.06761E-01  2.11792E-01  2.16945E-01  2.22223E-01
#           2.27630E-01  2.33169E-01  2.38842E-01  2.44653E-01  2.50605E-01
#           2.56703E-01  2.62949E-01  2.69346E-01  2.75900E-01  2.82613E-01
#           2.89489E-01  2.96532E-01  3.03747E-01  3.11138E-01  3.18708E-01
#           3.26462E-01  3.34405E-01  3.42542E-01  3.50876E-01  3.59413E-01
#           3.68158E-01  3.77116E-01  3.86291E-01  3.95690E-01  4.05317E-01
#           4.15179E-01  4.25281E-01  4.35628E-01  4.46227E-01  4.57084E-01
#           4.68205E-01  4.79597E-01  4.91266E-01  5.03219E-01  5.15463E-01
#           5.28005E-01  5.40851E-01  5.54011E-01  5.67490E-01  5.81298E-01
#           5.95441E-01  6.09929E-01  6.24769E-01  6.39970E-01  6.55541E-01
#           6.71491E-01  6.87828E-01  7.04564E-01  7.21706E-01  7.39266E-01
#           7.57253E-01  7.75678E-01  7.94551E-01  8.13883E-01  8.33685E-01
#           8.53969E-01  8.74747E-01  8.96030E-01  9.17831E-01  9.40163E-01
#           9.63038E-01  9.86469E-01  1.01047E+00  1.03506E+00  1.06024E+00
#           1.08604E+00  1.11246E+00  1.13953E+00  1.16725E+00  1.19565E+00
#           1.22474E+00  1.25454E+00  1.28507E+00  1.31633E+00  1.34836E+00
#           1.38117E+00  1.41477E+00  1.44920E+00  1.48446E+00  1.52057E+00
#           1.55757E+00  1.59547E+00  1.63429E+00  1.67405E+00  1.71478E+00
#           1.75650E+00  1.79924E+00  1.84302E+00  1.88786E+00  1.93379E+00
#           1.98084E+00  2.02904E+00  2.07841E+00  2.12898E+00  2.18078E+00
#           2.23384E+00  2.28819E+00  2.34386E+00  2.40089E+00  2.45930E+00
#           2.51914E+00  2.58043E+00  2.64322E+00  2.70753E+00  2.77341E+00
#           2.84088E+00  2.91001E+00  2.98081E+00  3.05333E+00  3.12762E+00
#           3.20372E+00  3.28167E+00  3.36152E+00  3.44330E+00  3.52708E+00
#           3.61290E+00  3.70080E+00  3.79085E+00  3.88308E+00  3.97756E+00
#           4.07434E+00  4.17347E+00  4.27501E+00  4.37903E+00  4.48557E+00
#           4.59471E+00  4.70650E+00  4.82102E+00  4.93832E+00  5.05847E+00
#           5.18155E+00  5.30762E+00  5.43676E+00  5.56904E+00  5.70453E+00
#           5.84333E+00  5.98550E+00  6.13114E+00  6.28031E+00  6.43312E+00
#           6.58964E+00  6.74997E+00  6.91420E+00  7.08243E+00  7.25475E+00
#           7.43126E+00  7.61207E+00  7.79728E+00  7.98700E+00  8.18133E+00
#           8.38038E+00  8.58428E+00  8.79315E+00  9.00709E+00  9.22624E+00
#           9.45072E+00  9.68067E+00  9.91620E+00  1.01575E+01  1.04046E+01
#           1.06578E+01  1.09171E+01  1.11827E+01  1.14548E+01  1.17335E+01
#           1.20190E+01  1.23114E+01  1.26109E+01  1.29178E+01  1.32321E+01
#           1.35540E+01  1.38838E+01  1.42216E+01  1.45676E+01  1.49221E+01
#           1.52851E+01  1.56570E+01  1.60380E+01  1.64282E+01  1.68279E+01
#           1.72374E+01  1.76568E+01  1.80864E+01  1.85264E+01  1.89772E+01
#           1.94389E+01  1.99119E+01  2.03963E+01  2.08926E+01  2.14009E+01
#           2.19216E+01  2.24550E+01  2.30014E+01  2.35610E+01  2.41343E+01
#           2.47215E+01  2.53230E+01  2.59391E+01  2.65702E+01  2.72167E+01
#           2.78789E+01  2.85572E+01  2.92520E+01  2.99637E+01  3.06928E+01
#           3.14396E+01  3.22045E+01  3.29881E+01  3.37907E+01  3.46128E+01
#           3.54550E+01  3.63177E+01  3.72013E+01  3.81064E+01  3.90336E+01
#           3.99833E+01  4.09561E+01  4.19526E+01  4.29734E+01  4.40189E+01
#           4.50900E+01  4.61870E+01  4.73108E+01  4.84619E+01  4.96410E+01
#           5.08488E+01  5.20860E+01  5.33533E+01  5.46514E+01  5.59812E+01
#           5.73432E+01  5.87384E+01  6.01676E+01  6.16315E+01  6.31311E+01
#           6.46671E+01  6.62405E+01  6.78522E+01  6.95031E+01  7.11941E+01
#           7.29263E+01  7.47007E+01  7.65182E+01  7.83800E+01  8.02870E+01
#           8.22405E+01  8.42414E+01  8.62911E+01  8.83906E+01  9.05412E+01
#           9.27442E+01  9.50007E+01  9.73122E+01  9.96799E+01  1.02105E+02
#           1.04589E+02  1.07134E+02  1.09741E+02  1.12411E+02  1.15146E+02
#           1.17948E+02  1.20817E+02  1.23757E+02  1.26768E+02  1.29852E+02
#           1.33012E+02  1.36248E+02  1.39563E+02  1.42959E+02  1.46437E+02
#           1.50000E+02
     unit =    2            # unit is [1/cm^2/(MeV/n)/source]
     axis =  eng            # axis of output
     file = detector-14.out  # file name of output for the above axis
   output = f-curr          # surface crossing forward current spectrum
     part =  neutron  
# kf/name :  2112     
#    used :        main (  %)        temp (  %)       total (  %)
#  memory :         414 (  0)           0 (  0)         414 (  0)

#------------------------------------------------------------------------------
#newpage:
#   no. =    1   reg = 113 - 213

x: Energy [MeV/n]
y:  F-Curr [1/cm^2/(MeV/n)/source]         
p: xlog ylog afac(0.8) form(0.9)
h: n            x            y(neutron ),hh0l   n 
#  e-lower      e-upper      neutron     r.err 
   1.0000E-02   1.0243E-02   0.0000E+00  0.0000
   1.0243E-02   1.0493E-02   3.4392E-06  0.5774
   1.0493E-02   1.0748E-02   2.2383E-06  0.7071
   1.0748E-02   1.1009E-02   2.1852E-06  0.7071
   1.1009E-02   1.1277E-02   2.1333E-06  0.7071
   1.1277E-02   1.1552E-02   4.1652E-06  0.5000
   1.1552E-02   1.1833E-02   3.0497E-06  0.5774
   1.1833E-02   1.2121E-02   5.9545E-06  0.4082
   1.2121E-02   1.2415E-02   1.9377E-06  0.7071
   1.2415E-02   1.2718E-02   0.0000E+00  0.0000
   1.2718E-02   1.3027E-02   1.8467E-06  0.7071
   1.3027E-02   1.3344E-02   3.6057E-06  0.5000
   1.3344E-02   1.3669E-02   3.5201E-06  0.5000
   1.3669E-02   1.4001E-02   1.7182E-06  0.7071
   1.4001E-02   1.4342E-02   1.6774E-06  0.7071
   1.4342E-02   1.4691E-02   4.0939E-06  0.4472
   1.4691E-02   1.5048E-02   1.5987E-06  0.7071
   1.5048E-02   1.5414E-02   2.3411E-06  0.5774
   1.5414E-02   1.5789E-02   2.2855E-06  0.5774
   1.5789E-02   1.6174E-02   2.2312E-06  0.5774
   1.6174E-02   1.6567E-02   8.7127E-06  0.2887
   1.6567E-02   1.6970E-02   5.6705E-06  0.3536
   1.6970E-02   1.7383E-02   4.8438E-06  0.3780
   1.7383E-02   1.7806E-02   4.7288E-06  0.3780
   1.7806E-02   1.8239E-02   3.9570E-06  0.4082
   1.8239E-02   1.8683E-02   5.1506E-06  0.3536
   1.8683E-02   1.9138E-02   4.3997E-06  0.3780
   1.9138E-02   1.9603E-02   3.0680E-06  0.4472
   1.9603E-02   2.0080E-02   2.3961E-06  0.5000
   2.0080E-02   2.0569E-02   5.8480E-06  0.3162
   2.0569E-02   2.1069E-02   2.2836E-06  0.5000
   2.1069E-02   2.1582E-02   4.4588E-06  0.3536
   2.1582E-02   2.2107E-02   4.3529E-06  0.3536
   2.2107E-02   2.2645E-02   2.1248E-06  0.5000
   2.2645E-02   2.3196E-02   3.6300E-06  0.3780
   2.3196E-02   2.3760E-02   4.0500E-06  0.3536
   2.3760E-02   2.4338E-02   4.4481E-06  0.3333
   2.4338E-02   2.4930E-02   4.8249E-06  0.3162
   2.4930E-02   2.5537E-02   5.1813E-06  0.3015
   2.5537E-02   2.6158E-02   4.5984E-06  0.3162
   2.6158E-02   2.6795E-02   5.8359E-06  0.2774
   2.6795E-02   2.7447E-02   3.0678E-06  0.3780
   2.7447E-02   2.8114E-02   2.6380E-06  0.3982
   2.8114E-02   2.8799E-02   4.1768E-06  0.3162
   2.8799E-02   2.9499E-02   4.0776E-06  0.3162
   2.9499E-02   3.0217E-02   4.3788E-06  0.3015
   3.0217E-02   3.0952E-02   3.8862E-06  0.3162
   3.0952E-02   3.1705E-02   2.6557E-06  0.3780
   3.1705E-02   3.2477E-02   5.5557E-06  0.2582
   3.2477E-02   3.3267E-02   4.7005E-06  0.2774
   3.3267E-02   3.4076E-02   3.8829E-06  0.3015
   3.4076E-02   3.4905E-02   4.8245E-06  0.2673
   3.4905E-02   3.5755E-02   3.7006E-06  0.3015
   3.5755E-02   3.6625E-02   3.2843E-06  0.3162
   3.6625E-02   3.7516E-02   3.5269E-06  0.3015
   3.7516E-02   3.8428E-02   4.4769E-06  0.2620
   3.8428E-02   3.9363E-02   3.6669E-06  0.2887
   3.9363E-02   4.0321E-02   5.6681E-06  0.2294
   4.0321E-02   4.1302E-02   5.2422E-06  0.2357
   4.1302E-02   4.2307E-02   4.5939E-06  0.2478
   4.2307E-02   4.3337E-02   4.7186E-06  0.2425
   4.3337E-02   4.4391E-02   4.6065E-06  0.2425
   4.4391E-02   4.5471E-02   5.5552E-06  0.2182
   4.5471E-02   4.6577E-02   4.3903E-06  0.2425
   4.6577E-02   4.7711E-02   3.5296E-06  0.2673
   4.7711E-02   4.8871E-02   3.6919E-06  0.2582
   4.8871E-02   5.0061E-02   5.7668E-06  0.2041
   5.0061E-02   5.1279E-02   3.0495E-06  0.2774
   5.1279E-02   5.2526E-02   2.9770E-06  0.2774
   5.2526E-02   5.3804E-02   4.9184E-06  0.2132
   5.3804E-02   5.5113E-02   5.4563E-06  0.2000
   5.5113E-02   5.6454E-02   3.8696E-06  0.2338
   5.6454E-02   5.7828E-02   4.3682E-06  0.2182
   5.7828E-02   5.9235E-02   6.9043E-06  0.1715
   5.9235E-02   6.0676E-02   5.7491E-06  0.1857
   6.0676E-02   6.2152E-02   4.6448E-06  0.2041
   6.2152E-02   6.3665E-02   3.4009E-06  0.2357
   6.3665E-02   6.5214E-02   7.0091E-06  0.1622
   6.5214E-02   6.6800E-02   6.4825E-06  0.1667
   6.6800E-02   6.8426E-02   5.6253E-06  0.1768
   6.8426E-02   7.0090E-02   5.4917E-06  0.1768
   7.0090E-02   7.1796E-02   4.8586E-06  0.1857
   7.1796E-02   7.3543E-02   6.0517E-06  0.1644
   7.3543E-02   7.5332E-02   5.7483E-06  0.1667
   7.5332E-02   7.7165E-02   4.9882E-06  0.1768
   7.7165E-02   7.9042E-02   5.7828E-06  0.1622
   7.9042E-02   8.0965E-02   4.4815E-06  0.1817
   8.0965E-02   8.2935E-02   5.4389E-06  0.1628
   8.2935E-02   8.4953E-02   5.0973E-06  0.1667
   8.4953E-02   8.7020E-02   5.5291E-06  0.1581
   8.7020E-02   8.9138E-02   5.6677E-06  0.1543
   8.9138E-02   9.1306E-02   6.5870E-06  0.1414
   9.1306E-02   9.3528E-02   4.7586E-06  0.1644
   9.3528E-02   9.5804E-02   4.6455E-06  0.1644
   9.5804E-02   9.8134E-02   5.6384E-06  0.1474
   9.8134E-02   1.0052E-01   4.5471E-06  0.1622
   1.0052E-01   1.0297E-01   5.7241E-06  0.1429
   1.0297E-01   1.0547E-01   5.9303E-06  0.1387
   1.0547E-01   1.0804E-01   5.5668E-06  0.1414
   1.0804E-01   1.1067E-01   5.5432E-06  0.1400
   1.1067E-01   1.1336E-01   6.4727E-06  0.1280
   1.1336E-01   1.1612E-01   6.2153E-06  0.1291
   1.1612E-01   1.1894E-01   5.6632E-06  0.1336
   1.1894E-01   1.2184E-01   6.3185E-06  0.1250
   1.2184E-01   1.2480E-01   4.6745E-06  0.1432
   1.2480E-01   1.2784E-01   5.3632E-06  0.1325
   1.2784E-01   1.3095E-01   5.5114E-06  0.1291
   1.3095E-01   1.3414E-01   5.4877E-06  0.1277
   1.3414E-01   1.3740E-01   4.9153E-06  0.1333
   1.3740E-01   1.4074E-01   5.7262E-06  0.1222
   1.4074E-01   1.4417E-01   4.9227E-06  0.1302
   1.4417E-01   1.4767E-01   5.1316E-06  0.1260
   1.4767E-01   1.5127E-01   5.6458E-06  0.1187
   1.5127E-01   1.5495E-01   6.1328E-06  0.1125
   1.5495E-01   1.5872E-01   4.5472E-06  0.1291
   1.5872E-01   1.6258E-01   5.9929E-06  0.1111
   1.6258E-01   1.6654E-01   5.5009E-06  0.1145
   1.6654E-01   1.7059E-01   5.4295E-06  0.1140
   1.7059E-01   1.7474E-01   5.4382E-06  0.1125
   1.7474E-01   1.7899E-01   4.6370E-06  0.1204
   1.7899E-01   1.8334E-01   4.7893E-06  0.1170
   1.8334E-01   1.8781E-01   4.1952E-06  0.1233
   1.8781E-01   1.9237E-01   4.4518E-06  0.1184
   1.9237E-01   1.9706E-01   4.6392E-06  0.1147
   1.9706E-01   2.0185E-01   4.5290E-06  0.1147
   2.0185E-01   2.0676E-01   5.1195E-06  0.1066
   2.0676E-01   2.1179E-01   4.4414E-06  0.1130
   2.1179E-01   2.1694E-01   4.4356E-06  0.1118
   2.1694E-01   2.2222E-01   4.2762E-06  0.1125
   2.2222E-01   2.2763E-01   5.2843E-06  0.1000
   2.2763E-01   2.3317E-01   4.7461E-06  0.1043
   2.3317E-01   2.3884E-01   4.9941E-06  0.1004
   2.3884E-01   2.4465E-01   4.7691E-06  0.1015
   2.4465E-01   2.5061E-01   5.9118E-06  0.0901
   2.5061E-01   2.5670E-01   6.1076E-06  0.0875
   2.5670E-01   2.6295E-01   6.2737E-06  0.0854
   2.6295E-01   2.6935E-01   5.5005E-06  0.0901
   2.6935E-01   2.7590E-01   5.2831E-06  0.0906
   2.7590E-01   2.8261E-01   5.8310E-06  0.0854
   2.8261E-01   2.8949E-01   6.7313E-06  0.0786
   2.8949E-01   2.9653E-01   6.3767E-06  0.0796
   2.9653E-01   3.0375E-01   5.8213E-06  0.0825
   3.0375E-01   3.1114E-01   6.4756E-06  0.0772
   3.1114E-01   3.1871E-01   7.5484E-06  0.0707
   3.1871E-01   3.2646E-01   7.6710E-06  0.0693
   3.2646E-01   3.3441E-01   7.5951E-06  0.0688
   3.3441E-01   3.4254E-01   6.8476E-06  0.0716
   3.4254E-01   3.5088E-01   7.1018E-06  0.0695
   3.5088E-01   3.5941E-01   7.0663E-06  0.0688
   3.5941E-01   3.6816E-01   8.2059E-06  0.0631
   3.6816E-01   3.7712E-01   7.6870E-06  0.0644
   3.7712E-01   3.8629E-01   7.9925E-06  0.0623
   3.8629E-01   3.9569E-01   7.7329E-06  0.0627
   3.9569E-01   4.0532E-01   7.0969E-06  0.0646
   4.0532E-01   4.1518E-01   8.3003E-06  0.0590
   4.1518E-01   4.2528E-01   8.1590E-06  0.0588
   4.2528E-01   4.3563E-01   9.8260E-06  0.0530
   4.3563E-01   4.4623E-01   8.3611E-06  0.0570
   4.4623E-01   4.5708E-01   8.8006E-06  0.0546
   4.5708E-01   4.6821E-01   9.2174E-06  0.0527
   4.6821E-01   4.7960E-01   9.0120E-06  0.0527
   4.7960E-01   4.9127E-01   9.5736E-06  0.0506
   4.9127E-01   5.0322E-01   8.3903E-06  0.0533
   5.0322E-01   5.1546E-01   9.7309E-06  0.0490
   5.1546E-01   5.2800E-01   9.1574E-06  0.0498
   5.2800E-01   5.4085E-01   9.8824E-06  0.0474
   5.4085E-01   5.5401E-01   9.2241E-06  0.0485
   5.5401E-01   5.6749E-01   1.0521E-05  0.0449
   5.6749E-01   5.8130E-01   9.7953E-06  0.0459
   5.8130E-01   5.9544E-01   1.0509E-05  0.0438
   5.9544E-01   6.0993E-01   1.0255E-05  0.0438
   6.0993E-01   6.2477E-01   1.0073E-05  0.0437
   6.2477E-01   6.3997E-01   1.0053E-05  0.0432
   6.3997E-01   6.5554E-01   1.0914E-05  0.0410
   6.5554E-01   6.7149E-01   1.0584E-05  0.0411
   6.7149E-01   6.8783E-01   1.1015E-05  0.0398
   6.8783E-01   7.0456E-01   1.0786E-05  0.0397
   7.0456E-01   7.2171E-01   1.1667E-05  0.0378
   7.2171E-01   7.3927E-01   1.1336E-05  0.0379
   7.3927E-01   7.5725E-01   1.0838E-05  0.0383
   7.5725E-01   7.7568E-01   1.2290E-05  0.0355
   7.7568E-01   7.9455E-01   1.1710E-05  0.0359
   7.9455E-01   8.1388E-01   1.2076E-05  0.0349
   8.1388E-01   8.3368E-01   1.1276E-05  0.0357
   8.3368E-01   8.5397E-01   1.1390E-05  0.0351
   8.5397E-01   8.7475E-01   1.1910E-05  0.0340
   8.7475E-01   8.9603E-01   1.1712E-05  0.0338
   8.9603E-01   9.1783E-01   1.2105E-05  0.0329
   9.1783E-01   9.4016E-01   1.1666E-05  0.0331
   9.4016E-01   9.6304E-01   1.1349E-05  0.0331
   9.6304E-01   9.8647E-01   1.1838E-05  0.0321
   9.8647E-01   1.0105E+00   1.1903E-05  0.0316
   1.0105E+00   1.0351E+00   1.1193E-05  0.0322
   1.0351E+00   1.0602E+00   1.1738E-05  0.0311
   1.0602E+00   1.0860E+00   1.3332E-05  0.0288
   1.0860E+00   1.1125E+00   1.2315E-05  0.0296
   1.1125E+00   1.1395E+00   1.2800E-05  0.0287
   1.1395E+00   1.1673E+00   1.3147E-05  0.0280
   1.1673E+00   1.1957E+00   1.3491E-05  0.0273
   1.1957E+00   1.2247E+00   1.4080E-05  0.0264
   1.2247E+00   1.2545E+00   1.4518E-05  0.0257
   1.2545E+00   1.2851E+00   1.5133E-05  0.0248
   1.2851E+00   1.3163E+00   1.5061E-05  0.0246
   1.3163E+00   1.3484E+00   1.6025E-05  0.0236
   1.3484E+00   1.3812E+00   1.6038E-05  0.0233
   1.3812E+00   1.4148E+00   1.6440E-05  0.0227
   1.4148E+00   1.4492E+00   1.7410E-05  0.0218
   1.4492E+00   1.4845E+00   1.7033E-05  0.0218
   1.4845E+00   1.5206E+00   1.7125E-05  0.0215
   1.5206E+00   1.5576E+00   1.8119E-05  0.0206
   1.5576E+00   1.5955E+00   1.8096E-05  0.0204
   1.5955E+00   1.6343E+00   1.8970E-05  0.0197
   1.6343E+00   1.6741E+00   1.9585E-05  0.0191
   1.6741E+00   1.7148E+00   2.0323E-05  0.0186
   1.7148E+00   1.7565E+00   2.0524E-05  0.0182
   1.7565E+00   1.7992E+00   2.0841E-05  0.0179
   1.7992E+00   1.8430E+00   2.1845E-05  0.0173
   1.8430E+00   1.8879E+00   2.1843E-05  0.0171
   1.8879E+00   1.9338E+00   2.2354E-05  0.0167
   1.9338E+00   1.9808E+00   2.1949E-05  0.0166
   1.9808E+00   2.0290E+00   2.2884E-05  0.0161
   2.0290E+00   2.0784E+00   2.3775E-05  0.0156
   2.0784E+00   2.1290E+00   2.5047E-05  0.0150
   2.1290E+00   2.1808E+00   2.4749E-05  0.0149
   2.1808E+00   2.2338E+00   2.5729E-05  0.0145
   2.2338E+00   2.2882E+00   2.5115E-05  0.0145
   2.2882E+00   2.3439E+00   2.5583E-05  0.0141
   2.3439E+00   2.4009E+00   2.6795E-05  0.0137
   2.4009E+00   2.4593E+00   2.7480E-05  0.0133
   2.4593E+00   2.5191E+00   2.9195E-05  0.0128
   2.5191E+00   2.5804E+00   2.8117E-05  0.0129
   2.5804E+00   2.6432E+00   2.9046E-05  0.0125
   2.6432E+00   2.7075E+00   2.8864E-05  0.0124
   2.7075E+00   2.7734E+00   2.9971E-05  0.0120
   2.7734E+00   2.8409E+00   3.0698E-05  0.0117
   2.8409E+00   2.9100E+00   3.1299E-05  0.0115
   2.9100E+00   2.9808E+00   3.1864E-05  0.0112
   2.9808E+00   3.0533E+00   3.2625E-05  0.0110
   3.0533E+00   3.1276E+00   3.3644E-05  0.0107
   3.1276E+00   3.2037E+00   3.2818E-05  0.0107
   3.2037E+00   3.2817E+00   3.2760E-05  0.0106
   3.2817E+00   3.3615E+00   3.3238E-05  0.0104
   3.3615E+00   3.4433E+00   3.3529E-05  0.0102
   3.4433E+00   3.5271E+00   3.3627E-05  0.0101
   3.5271E+00   3.6129E+00   3.5030E-05  0.0097
   3.6129E+00   3.7008E+00   3.4889E-05  0.0096
   3.7008E+00   3.7908E+00   3.5471E-05  0.0094
   3.7908E+00   3.8831E+00   3.5711E-05  0.0093
   3.8831E+00   3.9776E+00   3.5832E-05  0.0092
   3.9776E+00   4.0743E+00   3.5564E-05  0.0091
   4.0743E+00   4.1735E+00   3.5067E-05  0.0091
   4.1735E+00   4.2750E+00   3.6061E-05  0.0088
   4.2750E+00   4.3790E+00   3.5867E-05  0.0087
   4.3790E+00   4.4856E+00   3.5790E-05  0.0086
   4.4856E+00   4.5947E+00   3.6341E-05  0.0085
   4.5947E+00   4.7065E+00   3.6337E-05  0.0084
   4.7065E+00   4.8210E+00   3.6367E-05  0.0083
   4.8210E+00   4.9383E+00   3.6940E-05  0.0081
   4.9383E+00   5.0585E+00   3.6737E-05  0.0080
   5.0585E+00   5.1815E+00   3.6330E-05  0.0080
   5.1815E+00   5.3076E+00   3.5989E-05  0.0079
   5.3076E+00   5.4368E+00   3.5968E-05  0.0078
   5.4368E+00   5.5690E+00   3.5609E-05  0.0078
   5.5690E+00   5.7045E+00   3.5338E-05  0.0077
   5.7045E+00   5.8433E+00   3.5999E-05  0.0076
   5.8433E+00   5.9855E+00   3.4845E-05  0.0076
   5.9855E+00   6.1311E+00   3.4690E-05  0.0075
   6.1311E+00   6.2803E+00   3.4073E-05  0.0075
   6.2803E+00   6.4331E+00   3.3420E-05  0.0075
   6.4331E+00   6.5896E+00   3.3005E-05  0.0074
   6.5896E+00   6.7500E+00   3.2227E-05  0.0074
   6.7500E+00   6.9142E+00   3.1777E-05  0.0074
   6.9142E+00   7.0824E+00   3.0958E-05  0.0074
   7.0824E+00   7.2548E+00   3.0121E-05  0.0074
   7.2548E+00   7.4313E+00   2.8847E-05  0.0075
   7.4313E+00   7.6121E+00   2.8253E-05  0.0075
   7.6121E+00   7.7973E+00   2.7382E-05  0.0075
   7.7973E+00   7.9870E+00   2.6567E-05  0.0075
   7.9870E+00   8.1813E+00   2.6085E-05  0.0075
   8.1813E+00   8.3804E+00   2.5172E-05  0.0075
   8.3804E+00   8.5843E+00   2.4279E-05  0.0076
   8.5843E+00   8.7931E+00   2.2983E-05  0.0077
   8.7931E+00   9.0071E+00   2.2785E-05  0.0077
   9.0071E+00   9.2262E+00   2.1934E-05  0.0077
   9.2262E+00   9.4507E+00   2.1249E-05  0.0077
   9.4507E+00   9.6807E+00   2.0673E-05  0.0077
   9.6807E+00   9.9162E+00   2.0282E-05  0.0077
   9.9162E+00   1.0157E+01   1.9813E-05  0.0077
   1.0157E+01   1.0405E+01   1.9154E-05  0.0078
   1.0405E+01   1.0658E+01   1.8931E-05  0.0077
   1.0658E+01   1.0917E+01   1.8288E-05  0.0078
   1.0917E+01   1.1183E+01   1.7392E-05  0.0079
   1.1183E+01   1.1455E+01   1.7013E-05  0.0079
   1.1455E+01   1.1733E+01   1.6577E-05  0.0079
   1.1733E+01   1.2019E+01   1.6019E-05  0.0079
   1.2019E+01   1.2311E+01   1.5565E-05  0.0079
   1.2311E+01   1.2611E+01   1.5112E-05  0.0079
   1.2611E+01   1.2918E+01   1.4395E-05  0.0080
   1.2918E+01   1.3232E+01   1.3778E-05  0.0081
   1.3232E+01   1.3554E+01   1.3337E-05  0.0082
   1.3554E+01   1.3884E+01   1.2996E-05  0.0082
   1.3884E+01   1.4222E+01   1.2346E-05  0.0083
   1.4222E+01   1.4568E+01   1.1769E-05  0.0084
   1.4568E+01   1.4922E+01   1.1364E-05  0.0084
   1.4922E+01   1.5285E+01   1.0985E-05  0.0085
   1.5285E+01   1.5657E+01   1.0474E-05  0.0086
   1.5657E+01   1.6038E+01   9.7385E-06  0.0088
   1.6038E+01   1.6428E+01   9.2553E-06  0.0089
   1.6428E+01   1.6828E+01   8.7811E-06  0.0090
   1.6828E+01   1.7237E+01   8.3603E-06  0.0091
   1.7237E+01   1.7657E+01   7.8699E-06  0.0093
   1.7657E+01   1.8086E+01   7.3872E-06  0.0095
   1.8086E+01   1.8526E+01   6.8825E-06  0.0097
   1.8526E+01   1.8977E+01   6.5929E-06  0.0098
   1.8977E+01   1.9439E+01   6.0877E-06  0.0101
   1.9439E+01   1.9912E+01   5.7540E-06  0.0102
   1.9912E+01   2.0396E+01   5.5583E-06  0.0103
   2.0396E+01   2.0893E+01   5.2686E-06  0.0105
   2.0893E+01   2.1401E+01   4.7387E-06  0.0109
   2.1401E+01   2.1922E+01   4.4989E-06  0.0110
   2.1922E+01   2.2455E+01   4.0588E-06  0.0115
   2.2455E+01   2.3001E+01   3.8594E-06  0.0116
   2.3001E+01   2.3561E+01   3.4757E-06  0.0121
   2.3561E+01   2.4134E+01   3.2815E-06  0.0123
   2.4134E+01   2.4721E+01   3.0688E-06  0.0126
   2.4721E+01   2.5323E+01   2.8073E-06  0.0130
   2.5323E+01   2.5939E+01   2.5737E-06  0.0134
   2.5939E+01   2.6570E+01   2.4573E-06  0.0136
   2.6570E+01   2.7217E+01   2.3061E-06  0.0138
   2.7217E+01   2.7879E+01   2.1573E-06  0.0141
   2.7879E+01   2.8557E+01   2.0829E-06  0.0142
   2.8557E+01   2.9252E+01   1.8689E-06  0.0148
   2.9252E+01   2.9964E+01   1.8013E-06  0.0149
   2.9964E+01   3.0693E+01   1.7161E-06  0.0151
   3.0693E+01   3.1440E+01   1.5690E-06  0.0156
   3.1440E+01   3.2205E+01   1.4705E-06  0.0159
   3.2205E+01   3.2988E+01   1.3798E-06  0.0163
   3.2988E+01   3.3791E+01   1.2395E-06  0.0169
   3.3791E+01   3.4613E+01   1.1531E-06  0.0174
   3.4613E+01   3.5455E+01   1.0490E-06  0.0180
   3.5455E+01   3.6318E+01   8.8697E-07  0.0193
   3.6318E+01   3.7201E+01   6.8807E-07  0.0217
   3.7201E+01   3.8106E+01   5.4925E-07  0.0240
   3.8106E+01   3.9034E+01   4.6810E-07  0.0257
   3.9034E+01   3.9983E+01   3.7425E-07  0.0284
   3.9983E+01   4.0956E+01   2.7872E-07  0.0325
   4.0956E+01   4.1953E+01   2.1561E-07  0.0365
   4.1953E+01   4.2973E+01   1.3604E-07  0.0454
   4.2973E+01   4.4019E+01   7.4054E-08  0.0607
   4.4019E+01   4.5090E+01   3.5214E-08  0.0870
   4.5090E+01   4.6187E+01   1.6407E-08  0.1260
   4.6187E+01   4.7311E+01   1.0678E-08  0.1543
   4.7311E+01   4.8462E+01   2.7303E-09  0.3015
   4.8462E+01   4.9641E+01   1.4539E-09  0.4082
   4.9641E+01   5.0849E+01   0.0000E+00  0.0000
   5.0849E+01   5.2086E+01   0.0000E+00  0.0000
   5.2086E+01   5.3353E+01   0.0000E+00  0.0000
   5.3353E+01   5.4651E+01   0.0000E+00  0.0000
   5.4651E+01   5.5981E+01   0.0000E+00  0.0000
   5.5981E+01   5.7343E+01   0.0000E+00  0.0000
   5.7343E+01   5.8738E+01   0.0000E+00  0.0000
   5.8738E+01   6.0168E+01   0.0000E+00  0.0000
   6.0168E+01   6.1632E+01   0.0000E+00  0.0000
   6.1632E+01   6.3131E+01   0.0000E+00  0.0000
   6.3131E+01   6.4667E+01   0.0000E+00  0.0000
   6.4667E+01   6.6240E+01   0.0000E+00  0.0000
   6.6240E+01   6.7852E+01   0.0000E+00  0.0000
   6.7852E+01   6.9503E+01   0.0000E+00  0.0000
   6.9503E+01   7.1194E+01   0.0000E+00  0.0000
   7.1194E+01   7.2926E+01   0.0000E+00  0.0000
   7.2926E+01   7.4701E+01   0.0000E+00  0.0000
   7.4701E+01   7.6518E+01   0.0000E+00  0.0000
   7.6518E+01   7.8380E+01   0.0000E+00  0.0000
   7.8380E+01   8.0287E+01   0.0000E+00  0.0000
   8.0287E+01   8.2240E+01   0.0000E+00  0.0000
   8.2240E+01   8.4241E+01   0.0000E+00  0.0000
   8.4241E+01   8.6291E+01   0.0000E+00  0.0000
   8.6291E+01   8.8391E+01   0.0000E+00  0.0000
   8.8391E+01   9.0541E+01   0.0000E+00  0.0000
   9.0541E+01   9.2744E+01   0.0000E+00  0.0000
   9.2744E+01   9.5001E+01   0.0000E+00  0.0000
   9.5001E+01   9.7312E+01   0.0000E+00  0.0000
   9.7312E+01   9.9680E+01   0.0000E+00  0.0000
   9.9680E+01   1.0211E+02   0.0000E+00  0.0000
   1.0211E+02   1.0459E+02   0.0000E+00  0.0000
   1.0459E+02   1.0713E+02   0.0000E+00  0.0000
   1.0713E+02   1.0974E+02   0.0000E+00  0.0000
   1.0974E+02   1.1241E+02   0.0000E+00  0.0000
   1.1241E+02   1.1515E+02   0.0000E+00  0.0000
   1.1515E+02   1.1795E+02   0.0000E+00  0.0000
   1.1795E+02   1.2082E+02   0.0000E+00  0.0000
   1.2082E+02   1.2376E+02   0.0000E+00  0.0000
   1.2376E+02   1.2677E+02   0.0000E+00  0.0000
   1.2677E+02   1.2985E+02   0.0000E+00  0.0000
   1.2985E+02   1.3301E+02   0.0000E+00  0.0000
   1.3301E+02   1.3625E+02   0.0000E+00  0.0000
   1.3625E+02   1.3956E+02   0.0000E+00  0.0000
   1.3956E+02   1.4296E+02   0.0000E+00  0.0000
   1.4296E+02   1.4644E+02   0.0000E+00  0.0000
   1.4644E+02   1.5000E+02   0.0000E+00  0.0000

#   sum over                 2.8263E-06
'no. =    1   reg = 113 - 213'
msuc: {\huge [t-cross] in region mesh}
msdr: {\it plotted by \ANGEL \version}
msdl: {\it calculated by \PHITS  3.26}
wt: s(0.7)
\vspace{-3}
  region surface crossing
  area  &=&   1.0000E+00 [cm^2]
e:
 
# Information for Restart Calculation
# This calculation was newly started
# istdev =  2 # 1:Batch variance, 2:History variance
# resc2  = 3.50000000000000000E+09 # Total source weight or Total source weight / maxcas
# resc3  = 3.50000000000000000E+09 # Total history number or Total batch number
# maxcas =   500000000 # History / Batch, only used for istdev=1
# bitrseed = 0000101100011000111110010011011110110000110001011001110010110101 # bit data of rseed
