[ T-Cross ]
    title = [t-cross] in region mesh
     mesh =  reg            # mesh type is region-wise
      reg =    1            # number of crossing regions
      non     r-from    r-to       area
      1       126       226        1.000000    
   e-type =    3            # e-mesh is log given by emin, emax and ne
     emin =  1.0000000E-02  # minimum value of e-mesh points
     emax =   150.0000      # maximum value of e-mesh points
#    edel =  2.4039514E-02  # mesh width of e-mesh points
       ne =    400          # number of e-mesh points
#    data = ( e(i), i = 1, ne + 1 )
#           1.00000E-02  1.02433E-02  1.04925E-02  1.07478E-02  1.10093E-02
#           1.12772E-02  1.15516E-02  1.18326E-02  1.21205E-02  1.24154E-02
#           1.27175E-02  1.30269E-02  1.33439E-02  1.36686E-02  1.40011E-02
#           1.43418E-02  1.46907E-02  1.50482E-02  1.54143E-02  1.57894E-02
#           1.61735E-02  1.65670E-02  1.69701E-02  1.73830E-02  1.78060E-02
#           1.82392E-02  1.86830E-02  1.91375E-02  1.96032E-02  2.00801E-02
#           2.05687E-02  2.10692E-02  2.15818E-02  2.21069E-02  2.26448E-02
#           2.31957E-02  2.37601E-02  2.43382E-02  2.49304E-02  2.55369E-02
#           2.61583E-02  2.67947E-02  2.74467E-02  2.81145E-02  2.87985E-02
#           2.94992E-02  3.02169E-02  3.09521E-02  3.17052E-02  3.24766E-02
#           3.32668E-02  3.40762E-02  3.49053E-02  3.57546E-02  3.66246E-02
#           3.75157E-02  3.84284E-02  3.93634E-02  4.03212E-02  4.13022E-02
#           4.23071E-02  4.33365E-02  4.43909E-02  4.54710E-02  4.65773E-02
#           4.77106E-02  4.88714E-02  5.00605E-02  5.12785E-02  5.25262E-02
#           5.38042E-02  5.51133E-02  5.64542E-02  5.78278E-02  5.92348E-02
#           6.06760E-02  6.21523E-02  6.36645E-02  6.52135E-02  6.68002E-02
#           6.84255E-02  7.00904E-02  7.17957E-02  7.35426E-02  7.53319E-02
#           7.71648E-02  7.90423E-02  8.09655E-02  8.29354E-02  8.49533E-02
#           8.70203E-02  8.91376E-02  9.13064E-02  9.35279E-02  9.58035E-02
#           9.81345E-02  1.00522E-01  1.02968E-01  1.05473E-01  1.08040E-01
#           1.10668E-01  1.13361E-01  1.16119E-01  1.18944E-01  1.21838E-01
#           1.24803E-01  1.27839E-01  1.30950E-01  1.34136E-01  1.37399E-01
#           1.40742E-01  1.44167E-01  1.47675E-01  1.51268E-01  1.54948E-01
#           1.58718E-01  1.62580E-01  1.66535E-01  1.70587E-01  1.74738E-01
#           1.78989E-01  1.83344E-01  1.87805E-01  1.92375E-01  1.97055E-01
#           2.01850E-01  2.06761E-01  2.11792E-01  2.16945E-01  2.22223E-01
#           2.27630E-01  2.33169E-01  2.38842E-01  2.44653E-01  2.50605E-01
#           2.56703E-01  2.62949E-01  2.69346E-01  2.75900E-01  2.82613E-01
#           2.89489E-01  2.96532E-01  3.03747E-01  3.11138E-01  3.18708E-01
#           3.26462E-01  3.34405E-01  3.42542E-01  3.50876E-01  3.59413E-01
#           3.68158E-01  3.77116E-01  3.86291E-01  3.95690E-01  4.05317E-01
#           4.15179E-01  4.25281E-01  4.35628E-01  4.46227E-01  4.57084E-01
#           4.68205E-01  4.79597E-01  4.91266E-01  5.03219E-01  5.15463E-01
#           5.28005E-01  5.40851E-01  5.54011E-01  5.67490E-01  5.81298E-01
#           5.95441E-01  6.09929E-01  6.24769E-01  6.39970E-01  6.55541E-01
#           6.71491E-01  6.87828E-01  7.04564E-01  7.21706E-01  7.39266E-01
#           7.57253E-01  7.75678E-01  7.94551E-01  8.13883E-01  8.33685E-01
#           8.53969E-01  8.74747E-01  8.96030E-01  9.17831E-01  9.40163E-01
#           9.63038E-01  9.86469E-01  1.01047E+00  1.03506E+00  1.06024E+00
#           1.08604E+00  1.11246E+00  1.13953E+00  1.16725E+00  1.19565E+00
#           1.22474E+00  1.25454E+00  1.28507E+00  1.31633E+00  1.34836E+00
#           1.38117E+00  1.41477E+00  1.44920E+00  1.48446E+00  1.52057E+00
#           1.55757E+00  1.59547E+00  1.63429E+00  1.67405E+00  1.71478E+00
#           1.75650E+00  1.79924E+00  1.84302E+00  1.88786E+00  1.93379E+00
#           1.98084E+00  2.02904E+00  2.07841E+00  2.12898E+00  2.18078E+00
#           2.23384E+00  2.28819E+00  2.34386E+00  2.40089E+00  2.45930E+00
#           2.51914E+00  2.58043E+00  2.64322E+00  2.70753E+00  2.77341E+00
#           2.84088E+00  2.91001E+00  2.98081E+00  3.05333E+00  3.12762E+00
#           3.20372E+00  3.28167E+00  3.36152E+00  3.44330E+00  3.52708E+00
#           3.61290E+00  3.70080E+00  3.79085E+00  3.88308E+00  3.97756E+00
#           4.07434E+00  4.17347E+00  4.27501E+00  4.37903E+00  4.48557E+00
#           4.59471E+00  4.70650E+00  4.82102E+00  4.93832E+00  5.05847E+00
#           5.18155E+00  5.30762E+00  5.43676E+00  5.56904E+00  5.70453E+00
#           5.84333E+00  5.98550E+00  6.13114E+00  6.28031E+00  6.43312E+00
#           6.58964E+00  6.74997E+00  6.91420E+00  7.08243E+00  7.25475E+00
#           7.43126E+00  7.61207E+00  7.79728E+00  7.98700E+00  8.18133E+00
#           8.38038E+00  8.58428E+00  8.79315E+00  9.00709E+00  9.22624E+00
#           9.45072E+00  9.68067E+00  9.91620E+00  1.01575E+01  1.04046E+01
#           1.06578E+01  1.09171E+01  1.11827E+01  1.14548E+01  1.17335E+01
#           1.20190E+01  1.23114E+01  1.26109E+01  1.29178E+01  1.32321E+01
#           1.35540E+01  1.38838E+01  1.42216E+01  1.45676E+01  1.49221E+01
#           1.52851E+01  1.56570E+01  1.60380E+01  1.64282E+01  1.68279E+01
#           1.72374E+01  1.76568E+01  1.80864E+01  1.85264E+01  1.89772E+01
#           1.94389E+01  1.99119E+01  2.03963E+01  2.08926E+01  2.14009E+01
#           2.19216E+01  2.24550E+01  2.30014E+01  2.35610E+01  2.41343E+01
#           2.47215E+01  2.53230E+01  2.59391E+01  2.65702E+01  2.72167E+01
#           2.78789E+01  2.85572E+01  2.92520E+01  2.99637E+01  3.06928E+01
#           3.14396E+01  3.22045E+01  3.29881E+01  3.37907E+01  3.46128E+01
#           3.54550E+01  3.63177E+01  3.72013E+01  3.81064E+01  3.90336E+01
#           3.99833E+01  4.09561E+01  4.19526E+01  4.29734E+01  4.40189E+01
#           4.50900E+01  4.61870E+01  4.73108E+01  4.84619E+01  4.96410E+01
#           5.08488E+01  5.20860E+01  5.33533E+01  5.46514E+01  5.59812E+01
#           5.73432E+01  5.87384E+01  6.01676E+01  6.16315E+01  6.31311E+01
#           6.46671E+01  6.62405E+01  6.78522E+01  6.95031E+01  7.11941E+01
#           7.29263E+01  7.47007E+01  7.65182E+01  7.83800E+01  8.02870E+01
#           8.22405E+01  8.42414E+01  8.62911E+01  8.83906E+01  9.05412E+01
#           9.27442E+01  9.50007E+01  9.73122E+01  9.96799E+01  1.02105E+02
#           1.04589E+02  1.07134E+02  1.09741E+02  1.12411E+02  1.15146E+02
#           1.17948E+02  1.20817E+02  1.23757E+02  1.26768E+02  1.29852E+02
#           1.33012E+02  1.36248E+02  1.39563E+02  1.42959E+02  1.46437E+02
#           1.50000E+02
     unit =    2            # unit is [1/cm^2/(MeV/n)/source]
     axis =  eng            # axis of output
     file = detector-27.out  # file name of output for the above axis
   output = f-curr          # surface crossing forward current spectrum
     part =  neutron  
# kf/name :  2112     
#    used :        main (  %)        temp (  %)       total (  %)
#  memory :         414 (  0)           0 (  0)         414 (  0)

#------------------------------------------------------------------------------
#newpage:
#   no. =    1   reg = 126 - 226

x: Energy [MeV/n]
y:  F-Curr [1/cm^2/(MeV/n)/source]         
p: xlog ylog afac(0.8) form(0.9)
h: n            x            y(neutron ),hh0l   n 
#  e-lower      e-upper      neutron     r.err 
   1.0000E-02   1.0243E-02   4.1049E-05  0.1414
   1.0243E-02   1.0493E-02   4.4071E-05  0.1348
   1.0493E-02   1.0748E-02   3.9136E-05  0.1414
   1.0748E-02   1.1009E-02   3.5167E-05  0.1474
   1.1009E-02   1.1277E-02   3.0436E-05  0.1562
   1.1277E-02   1.1552E-02   3.1317E-05  0.1525
   1.1552E-02   1.1833E-02   3.6247E-05  0.1400
   1.1833E-02   1.2121E-02   3.1731E-05  0.1475
   1.2121E-02   1.2415E-02   3.6579E-05  0.1361
   1.2415E-02   1.2718E-02   2.5773E-05  0.1601
   1.2718E-02   1.3027E-02   3.4192E-05  0.1374
   1.3027E-02   1.3344E-02   3.4015E-05  0.1361
   1.3344E-02   1.3669E-02   2.8687E-05  0.1460
   1.3669E-02   1.4001E-02   3.3654E-05  0.1336
   1.4001E-02   1.4342E-02   2.7563E-05  0.1459
   1.4342E-02   1.4691E-02   3.6631E-05  0.1250
   1.4691E-02   1.5048E-02   3.1301E-05  0.1336
   1.5048E-02   1.5414E-02   3.1106E-05  0.1325
   1.5414E-02   1.5789E-02   2.6544E-05  0.1415
   1.5789E-02   1.6174E-02   3.2223E-05  0.1270
   1.6174E-02   1.6567E-02   2.4882E-05  0.1429
   1.6567E-02   1.6970E-02   2.1808E-05  0.1508
   1.6970E-02   1.7383E-02   2.5154E-05  0.1387
   1.7383E-02   1.7806E-02   2.8306E-05  0.1291
   1.7806E-02   1.8239E-02   1.9713E-05  0.1526
   1.8239E-02   1.8683E-02   2.2973E-05  0.1400
   1.8683E-02   1.9138E-02   2.6282E-05  0.1291
   1.9138E-02   1.9603E-02   2.2681E-05  0.1374
   1.9603E-02   2.0080E-02   2.0529E-05  0.1429
   2.0080E-02   2.0569E-02   1.7584E-05  0.1525
   2.0569E-02   2.1069E-02   2.2691E-05  0.1325
   2.1069E-02   2.1582E-02   1.9473E-05  0.1414
   2.1582E-02   2.2107E-02   2.3205E-05  0.1280
   2.2107E-02   2.2645E-02   2.2231E-05  0.1291
   2.2645E-02   2.3196E-02   2.2845E-05  0.1260
   2.3196E-02   2.3760E-02   2.2660E-05  0.1250
   2.3760E-02   2.4338E-02   1.5548E-05  0.1491
   2.4338E-02   2.4930E-02   2.0919E-05  0.1270
   2.4930E-02   2.5537E-02   2.0406E-05  0.1270
   2.5537E-02   2.6158E-02   1.7340E-05  0.1361
   2.6158E-02   2.6795E-02   1.7895E-05  0.1325
   2.6795E-02   2.7447E-02   1.6237E-05  0.1374
   2.7447E-02   2.8114E-02   1.1970E-05  0.1581
   2.8114E-02   2.8799E-02   1.3150E-05  0.1491
   2.8799E-02   2.9499E-02   1.6826E-05  0.1302
   2.9499E-02   3.0217E-02   1.2165E-05  0.1509
   3.0217E-02   3.0952E-02   1.6014E-05  0.1302
   3.0952E-02   3.1705E-02   1.3793E-05  0.1387
   3.1705E-02   3.2477E-02   1.3027E-05  0.1402
   3.2477E-02   3.3267E-02   1.2888E-05  0.1400
   3.3267E-02   3.4076E-02   1.1097E-05  0.1491
   3.4076E-02   3.4905E-02   1.1329E-05  0.1459
   3.4905E-02   3.5755E-02   1.4109E-05  0.1291
   3.5755E-02   3.6625E-02   1.5848E-05  0.1204
   3.6625E-02   3.7516E-02   1.1874E-05  0.1374
   3.7516E-02   3.8428E-02   1.3768E-05  0.1260
   3.8428E-02   3.9363E-02   1.1700E-05  0.1349
   3.9363E-02   4.0321E-02   7.7211E-06  0.1644
   4.0321E-02   4.1302E-02   9.0911E-06  0.1493
   4.1302E-02   4.2307E-02   1.1133E-05  0.1336
   4.2307E-02   4.3337E-02   1.1055E-05  0.1325
   4.3337E-02   4.4391E-02   1.2317E-05  0.1240
   4.4391E-02   4.5471E-02   1.1281E-05  0.1280
   4.5471E-02   4.6577E-02   1.0216E-05  0.1325
   4.6577E-02   4.7711E-02   1.0932E-05  0.1270
   4.7711E-02   4.8871E-02   1.0151E-05  0.1302
   4.8871E-02   5.0061E-02   7.4438E-06  0.1499
   5.0061E-02   5.1279E-02   9.7920E-06  0.1292
   5.1279E-02   5.2526E-02   8.1459E-06  0.1400
   5.2526E-02   5.3804E-02   8.6464E-06  0.1342
   5.3804E-02   5.5113E-02   9.8462E-06  0.1241
   5.5113E-02   5.6454E-02   8.1562E-06  0.1349
   5.6454E-02   5.7828E-02   7.5308E-06  0.1387
   5.7828E-02   5.9235E-02   7.2951E-06  0.1392
   5.9235E-02   6.0676E-02   8.7181E-06  0.1260
   6.0676E-02   6.2152E-02   7.9310E-06  0.1303
   6.2152E-02   6.3665E-02   7.3953E-06  0.1336
   6.3665E-02   6.5214E-02   6.9410E-06  0.1361
   6.5214E-02   6.6800E-02   7.0444E-06  0.1336
   6.6800E-02   6.8426E-02   6.5087E-06  0.1374
   6.8426E-02   7.0090E-02   6.7048E-06  0.1336
   7.0090E-02   7.1796E-02   5.8565E-06  0.1414
   7.1796E-02   7.3543E-02   6.5197E-06  0.1325
   7.3543E-02   7.5332E-02   5.4592E-06  0.1429
   7.5332E-02   7.7165E-02   6.7555E-06  0.1270
   7.7165E-02   7.9042E-02   5.1054E-06  0.1443
   7.9042E-02   8.0965E-02   5.2965E-06  0.1400
   8.0965E-02   8.2935E-02   4.9707E-06  0.1429
   8.2935E-02   8.4953E-02   5.7319E-06  0.1313
   8.4953E-02   8.7020E-02   5.3855E-06  0.1337
   8.7020E-02   8.9138E-02   4.3177E-06  0.1475
   8.9138E-02   9.1306E-02   3.8703E-06  0.1543
   9.1306E-02   9.3528E-02   6.2553E-06  0.1196
   9.3528E-02   9.5804E-02   4.3621E-06  0.1415
   9.5804E-02   9.8134E-02   5.5709E-06  0.1240
   9.8134E-02   1.0052E-01   4.5854E-06  0.1349
   1.0052E-01   1.0297E-01   4.6571E-06  0.1325
   1.0297E-01   1.0547E-01   6.2172E-06  0.1132
   1.0547E-01   1.0804E-01   5.5247E-06  0.1187
   1.0804E-01   1.1067E-01   6.7634E-06  0.1060
   1.1067E-01   1.1336E-01   4.9082E-06  0.1227
   1.1336E-01   1.1612E-01   6.1273E-06  0.1086
   1.1612E-01   1.1894E-01   5.5122E-06  0.1132
   1.1894E-01   1.2184E-01   6.2654E-06  0.1048
   1.2184E-01   1.2480E-01   6.1988E-06  0.1040
   1.2480E-01   1.2784E-01   6.5727E-06  0.1000
   1.2784E-01   1.3095E-01   7.2759E-06  0.0937
   1.3095E-01   1.3414E-01   7.0117E-06  0.0945
   1.3414E-01   1.3740E-01   6.7809E-06  0.0949
   1.3740E-01   1.4074E-01   7.6901E-06  0.0881
   1.4074E-01   1.4417E-01   8.0053E-06  0.0852
   1.4417E-01   1.4767E-01   7.8431E-06  0.0851
   1.4767E-01   1.5127E-01   7.7289E-06  0.0847
   1.5127E-01   1.5495E-01   8.9250E-06  0.0779
   1.5495E-01   1.5872E-01   8.8422E-06  0.0774
   1.5872E-01   1.6258E-01   8.4738E-06  0.0781
   1.6258E-01   1.6654E-01   8.8290E-06  0.0756
   1.6654E-01   1.7059E-01   9.5062E-06  0.0720
   1.7059E-01   1.7474E-01   8.4508E-06  0.0754
   1.7474E-01   1.7899E-01   9.7530E-06  0.0693
   1.7899E-01   1.8334E-01   8.3616E-06  0.0739
   1.8334E-01   1.8781E-01   9.7816E-06  0.0675
   1.8781E-01   1.9237E-01   1.0036E-05  0.0659
   1.9237E-01   1.9706E-01   1.0215E-05  0.0646
   1.9706E-01   2.0185E-01   1.0437E-05  0.0630
   2.0185E-01   2.0676E-01   1.0614E-05  0.0618
   2.0676E-01   2.1179E-01   1.0122E-05  0.0625
   2.1179E-01   2.1694E-01   1.0619E-05  0.0603
   2.1694E-01   2.2222E-01   1.0048E-05  0.0613
   2.2222E-01   2.2763E-01   1.1984E-05  0.0555
   2.2763E-01   2.3317E-01   1.2497E-05  0.0536
   2.3317E-01   2.3884E-01   1.1987E-05  0.0541
   2.3884E-01   2.4465E-01   1.0838E-05  0.0562
   2.4465E-01   2.5061E-01   1.2867E-05  0.0510
   2.5061E-01   2.5670E-01   1.2964E-05  0.0502
   2.5670E-01   2.6295E-01   1.2528E-05  0.0504
   2.6295E-01   2.6935E-01   1.3356E-05  0.0483
   2.6935E-01   2.7590E-01   1.1966E-05  0.0504
   2.7590E-01   2.8261E-01   1.4397E-05  0.0454
   2.8261E-01   2.8949E-01   1.3607E-05  0.0461
   2.8949E-01   2.9653E-01   1.4388E-05  0.0443
   2.9653E-01   3.0375E-01   1.3679E-05  0.0449
   3.0375E-01   3.1114E-01   1.4626E-05  0.0429
   3.1114E-01   3.1871E-01   1.4922E-05  0.0419
   3.1871E-01   3.2646E-01   1.4156E-05  0.0426
   3.2646E-01   3.3441E-01   1.4783E-05  0.0411
   3.3441E-01   3.4254E-01   1.4575E-05  0.0409
   3.4254E-01   3.5088E-01   1.5797E-05  0.0388
   3.5088E-01   3.5941E-01   1.6399E-05  0.0376
   3.5941E-01   3.6816E-01   1.6770E-05  0.0368
   3.6816E-01   3.7712E-01   1.5961E-05  0.0373
   3.7712E-01   3.8629E-01   1.5388E-05  0.0375
   3.8629E-01   3.9569E-01   1.5747E-05  0.0367
   3.9569E-01   4.0532E-01   1.6950E-05  0.0349
   4.0532E-01   4.1518E-01   1.5909E-05  0.0356
   4.1518E-01   4.2528E-01   1.5427E-05  0.0357
   4.2528E-01   4.3563E-01   1.5389E-05  0.0353
   4.3563E-01   4.4623E-01   1.7852E-05  0.0324
   4.4623E-01   4.5708E-01   1.6638E-05  0.0332
   4.5708E-01   4.6821E-01   1.5532E-05  0.0339
   4.6821E-01   4.7960E-01   1.6364E-05  0.0326
   4.7960E-01   4.9127E-01   1.6536E-05  0.0321
   4.9127E-01   5.0322E-01   1.6658E-05  0.0316
   5.0322E-01   5.1546E-01   1.8308E-05  0.0298
   5.1546E-01   5.2800E-01   1.6534E-05  0.0310
   5.2800E-01   5.4085E-01   1.7100E-05  0.0301
   5.4085E-01   5.5401E-01   1.7102E-05  0.0297
   5.5401E-01   5.6749E-01   1.6853E-05  0.0296
   5.6749E-01   5.8130E-01   1.6882E-05  0.0292
   5.8130E-01   5.9544E-01   1.6359E-05  0.0293
   5.9544E-01   6.0993E-01   1.7471E-05  0.0280
   6.0993E-01   6.2477E-01   1.6546E-05  0.0284
   6.2477E-01   6.3997E-01   1.6640E-05  0.0280
   6.3997E-01   6.5554E-01   1.7275E-05  0.0271
   6.5554E-01   6.7149E-01   1.6796E-05  0.0272
   6.7149E-01   6.8783E-01   1.6505E-05  0.0271
   6.8783E-01   7.0456E-01   1.6947E-05  0.0264
   7.0456E-01   7.2171E-01   1.6408E-05  0.0265
   7.2171E-01   7.3927E-01   1.6566E-05  0.0261
   7.3927E-01   7.5725E-01   1.5618E-05  0.0265
   7.5725E-01   7.7568E-01   1.5727E-05  0.0261
   7.7568E-01   7.9455E-01   1.5044E-05  0.0264
   7.9455E-01   8.1388E-01   1.5327E-05  0.0259
   8.1388E-01   8.3368E-01   1.5574E-05  0.0253
   8.3368E-01   8.5397E-01   1.4196E-05  0.0262
   8.5397E-01   8.7475E-01   1.4347E-05  0.0258
   8.7475E-01   8.9603E-01   1.4336E-05  0.0254
   8.9603E-01   9.1783E-01   1.4590E-05  0.0249
   9.1783E-01   9.4016E-01   1.3011E-05  0.0261
   9.4016E-01   9.6304E-01   1.2908E-05  0.0259
   9.6304E-01   9.8647E-01   1.2516E-05  0.0260
   9.8647E-01   1.0105E+00   1.1851E-05  0.0264
   1.0105E+00   1.0351E+00   1.1671E-05  0.0262
   1.0351E+00   1.0602E+00   1.1843E-05  0.0257
   1.0602E+00   1.0860E+00   1.1561E-05  0.0257
   1.0860E+00   1.1125E+00   1.1644E-05  0.0253
   1.1125E+00   1.1395E+00   1.1036E-05  0.0256
   1.1395E+00   1.1673E+00   1.0777E-05  0.0256
   1.1673E+00   1.1957E+00   1.0585E-05  0.0255
   1.1957E+00   1.2247E+00   1.1456E-05  0.0242
   1.2247E+00   1.2545E+00   1.0089E-05  0.0255
   1.2545E+00   1.2851E+00   1.0609E-05  0.0245
   1.2851E+00   1.3163E+00   1.0425E-05  0.0245
   1.3163E+00   1.3484E+00   9.9865E-06  0.0247
   1.3484E+00   1.3812E+00   9.7978E-06  0.0246
   1.3812E+00   1.4148E+00   9.6666E-06  0.0244
   1.4148E+00   1.4492E+00   9.7799E-06  0.0240
   1.4492E+00   1.4845E+00   9.5116E-06  0.0240
   1.4845E+00   1.5206E+00   8.9890E-06  0.0244
   1.5206E+00   1.5576E+00   9.1131E-06  0.0239
   1.5576E+00   1.5955E+00   8.9077E-06  0.0239
   1.5955E+00   1.6343E+00   8.2722E-06  0.0245
   1.6343E+00   1.6741E+00   7.8643E-06  0.0248
   1.6741E+00   1.7148E+00   8.0112E-06  0.0242
   1.7148E+00   1.7565E+00   7.4021E-06  0.0248
   1.7565E+00   1.7992E+00   7.6565E-06  0.0242
   1.7992E+00   1.8430E+00   6.7371E-06  0.0254
   1.8430E+00   1.8879E+00   6.9156E-06  0.0248
   1.8879E+00   1.9338E+00   6.5027E-06  0.0252
   1.9338E+00   1.9808E+00   6.4317E-06  0.0250
   1.9808E+00   2.0290E+00   6.2948E-06  0.0250
   2.0290E+00   2.0784E+00   6.2611E-06  0.0248
   2.0784E+00   2.1290E+00   6.1637E-06  0.0246
   2.1290E+00   2.1808E+00   5.8870E-06  0.0249
   2.1808E+00   2.2338E+00   5.9913E-06  0.0244
   2.2338E+00   2.2882E+00   5.7757E-06  0.0246
   2.2882E+00   2.3439E+00   5.7260E-06  0.0244
   2.3439E+00   2.4009E+00   5.1796E-06  0.0253
   2.4009E+00   2.4593E+00   5.6115E-06  0.0241
   2.4593E+00   2.5191E+00   5.3039E-06  0.0244
   2.5191E+00   2.5804E+00   5.1728E-06  0.0244
   2.5804E+00   2.6432E+00   5.0517E-06  0.0245
   2.6432E+00   2.7075E+00   4.8025E-06  0.0249
   2.7075E+00   2.7734E+00   4.7490E-06  0.0247
   2.7734E+00   2.8409E+00   4.4857E-06  0.0251
   2.8409E+00   2.9100E+00   4.4655E-06  0.0249
   2.9100E+00   2.9808E+00   4.2176E-06  0.0253
   2.9808E+00   3.0533E+00   4.1087E-06  0.0253
   3.0533E+00   3.1276E+00   3.9078E-06  0.0257
   3.1276E+00   3.2037E+00   3.9118E-06  0.0254
   3.2037E+00   3.2817E+00   3.8304E-06  0.0254
   3.2817E+00   3.3615E+00   3.7903E-06  0.0251
   3.3615E+00   3.4433E+00   3.6763E-06  0.0253
   3.4433E+00   3.5271E+00   3.5658E-06  0.0254
   3.5271E+00   3.6129E+00   3.5858E-06  0.0250
   3.6129E+00   3.7008E+00   3.3197E-06  0.0258
   3.7008E+00   3.7908E+00   3.3441E-06  0.0253
   3.7908E+00   3.8831E+00   3.1749E-06  0.0256
   3.8831E+00   3.9776E+00   2.8750E-06  0.0266
   3.9776E+00   4.0743E+00   2.9848E-06  0.0258
   4.0743E+00   4.1735E+00   2.9001E-06  0.0259
   4.1735E+00   4.2750E+00   2.7671E-06  0.0262
   4.2750E+00   4.3790E+00   2.6224E-06  0.0266
   4.3790E+00   4.4856E+00   2.5603E-06  0.0266
   4.4856E+00   4.5947E+00   2.4879E-06  0.0267
   4.5947E+00   4.7065E+00   2.3675E-06  0.0270
   4.7065E+00   4.8210E+00   2.3281E-06  0.0270
   4.8210E+00   4.9383E+00   2.1705E-06  0.0276
   4.9383E+00   5.0585E+00   1.9683E-06  0.0286
   5.0585E+00   5.1815E+00   2.0416E-06  0.0278
   5.1815E+00   5.3076E+00   1.8863E-06  0.0285
   5.3076E+00   5.4368E+00   1.8436E-06  0.0285
   5.4368E+00   5.5690E+00   1.6723E-06  0.0296
   5.5690E+00   5.7045E+00   1.6621E-06  0.0293
   5.7045E+00   5.8433E+00   1.5166E-06  0.0304
   5.8433E+00   5.9855E+00   1.5345E-06  0.0298
   5.9855E+00   6.1311E+00   1.4191E-06  0.0307
   6.1311E+00   6.2803E+00   1.3790E-06  0.0308
   6.2803E+00   6.4331E+00   1.2348E-06  0.0322
   6.4331E+00   6.5896E+00   1.1135E-06  0.0334
   6.5896E+00   6.7500E+00   1.0239E-06  0.0345
   6.7500E+00   6.9142E+00   1.0425E-06  0.0338
   6.9142E+00   7.0824E+00   8.9247E-07  0.0361
   7.0824E+00   7.2548E+00   8.2568E-07  0.0371
   7.2548E+00   7.4313E+00   7.3599E-07  0.0388
   7.4313E+00   7.6121E+00   6.5911E-07  0.0405
   7.6121E+00   7.7973E+00   6.4375E-07  0.0406
   7.7973E+00   7.9870E+00   6.2612E-07  0.0406
   7.9870E+00   8.1813E+00   5.9977E-07  0.0410
   8.1813E+00   8.3804E+00   5.2377E-07  0.0434
   8.3804E+00   8.5843E+00   4.8999E-07  0.0442
   8.5843E+00   8.7931E+00   4.9080E-07  0.0439
   8.7931E+00   9.0071E+00   4.0597E-07  0.0477
   9.0071E+00   9.2262E+00   3.9258E-07  0.0478
   9.2262E+00   9.4507E+00   3.4157E-07  0.0507
   9.4507E+00   9.6807E+00   3.3602E-07  0.0505
   9.6807E+00   9.9162E+00   3.0754E-07  0.0522
   9.9162E+00   1.0157E+01   3.0900E-07  0.0514
   1.0157E+01   1.0405E+01   2.6264E-07  0.0553
   1.0405E+01   1.0658E+01   2.3051E-07  0.0582
   1.0658E+01   1.0917E+01   2.1373E-07  0.0598
   1.0917E+01   1.1183E+01   2.0468E-07  0.0602
   1.1183E+01   1.1455E+01   1.9190E-07  0.0614
   1.1455E+01   1.1733E+01   1.5850E-07  0.0669
   1.1733E+01   1.2019E+01   1.5307E-07  0.0673
   1.2019E+01   1.2311E+01   1.4788E-07  0.0678
   1.2311E+01   1.2611E+01   1.3070E-07  0.0712
   1.2611E+01   1.2918E+01   1.4441E-07  0.0670
   1.2918E+01   1.3232E+01   1.1887E-07  0.0728
   1.3232E+01   1.3554E+01   1.0620E-07  0.0763
   1.3554E+01   1.3884E+01   9.0761E-08  0.0813
   1.3884E+01   1.4222E+01   7.8375E-08  0.0868
   1.4222E+01   1.4568E+01   8.4912E-08  0.0824
   1.4568E+01   1.4922E+01   8.1443E-08  0.0830
   1.4922E+01   1.5285E+01   5.5759E-08  0.0990
   1.5285E+01   1.5657E+01   5.5793E-08  0.0980
   1.5657E+01   1.6038E+01   6.4590E-08  0.0898
   1.6038E+01   1.6428E+01   5.8671E-08  0.0934
   1.6428E+01   1.6828E+01   5.8789E-08  0.0922
   1.6828E+01   1.7237E+01   3.9078E-08  0.1118
   1.7237E+01   1.7657E+01   4.1164E-08  0.1075
   1.7657E+01   1.8086E+01   3.3773E-08  0.1172
   1.8086E+01   1.8526E+01   2.5451E-08  0.1336
   1.8526E+01   1.8977E+01   3.1058E-08  0.1195
   1.8977E+01   1.9439E+01   1.6027E-08  0.1644
   1.9439E+01   1.9912E+01   1.6915E-08  0.1581
   1.9912E+01   2.0396E+01   1.7338E-08  0.1543
   2.0396E+01   2.0893E+01   1.8942E-08  0.1459
   2.0893E+01   2.1401E+01   1.9279E-08  0.1429
   2.1401E+01   2.1922E+01   1.4980E-08  0.1601
   2.1922E+01   2.2455E+01   9.3743E-09  0.2000
   2.2455E+01   2.3001E+01   8.7856E-09  0.2041
   2.3001E+01   2.3561E+01   5.0032E-09  0.2673
   2.3561E+01   2.4134E+01   8.7221E-09  0.2000
   2.4134E+01   2.4721E+01   4.7683E-09  0.2673
   2.4721E+01   2.5323E+01   4.3226E-09  0.2774
   2.5323E+01   2.5939E+01   3.5707E-09  0.3015
   2.5939E+01   2.6570E+01   2.2183E-09  0.3780
   2.6570E+01   2.7217E+01   2.1656E-09  0.3780
   2.7217E+01   2.7879E+01   1.5101E-09  0.4472
   2.7879E+01   2.8557E+01   1.1794E-09  0.5000
   2.8557E+01   2.9252E+01   1.1514E-09  0.5000
   2.9252E+01   2.9964E+01   0.0000E+00  0.0000
   2.9964E+01   3.0693E+01   0.0000E+00  0.0000
   3.0693E+01   3.1440E+01   0.0000E+00  0.0000
   3.1440E+01   3.2205E+01   5.2291E-10  0.7071
   3.2205E+01   3.2988E+01   0.0000E+00  0.0000
   3.2988E+01   3.3791E+01   0.0000E+00  0.0000
   3.3791E+01   3.4613E+01   0.0000E+00  0.0000
   3.4613E+01   3.5455E+01   0.0000E+00  0.0000
   3.5455E+01   3.6318E+01   0.0000E+00  0.0000
   3.6318E+01   3.7201E+01   2.2634E-10  1.0000
   3.7201E+01   3.8106E+01   2.2096E-10  1.0000
   3.8106E+01   3.9034E+01   0.0000E+00  0.0000
   3.9034E+01   3.9983E+01   0.0000E+00  0.0000
   3.9983E+01   4.0956E+01   0.0000E+00  0.0000
   4.0956E+01   4.1953E+01   0.0000E+00  0.0000
   4.1953E+01   4.2973E+01   0.0000E+00  0.0000
   4.2973E+01   4.4019E+01   0.0000E+00  0.0000
   4.4019E+01   4.5090E+01   0.0000E+00  0.0000
   4.5090E+01   4.6187E+01   0.0000E+00  0.0000
   4.6187E+01   4.7311E+01   0.0000E+00  0.0000
   4.7311E+01   4.8462E+01   0.0000E+00  0.0000
   4.8462E+01   4.9641E+01   0.0000E+00  0.0000
   4.9641E+01   5.0849E+01   0.0000E+00  0.0000
   5.0849E+01   5.2086E+01   0.0000E+00  0.0000
   5.2086E+01   5.3353E+01   0.0000E+00  0.0000
   5.3353E+01   5.4651E+01   0.0000E+00  0.0000
   5.4651E+01   5.5981E+01   0.0000E+00  0.0000
   5.5981E+01   5.7343E+01   0.0000E+00  0.0000
   5.7343E+01   5.8738E+01   0.0000E+00  0.0000
   5.8738E+01   6.0168E+01   0.0000E+00  0.0000
   6.0168E+01   6.1632E+01   0.0000E+00  0.0000
   6.1632E+01   6.3131E+01   0.0000E+00  0.0000
   6.3131E+01   6.4667E+01   0.0000E+00  0.0000
   6.4667E+01   6.6240E+01   0.0000E+00  0.0000
   6.6240E+01   6.7852E+01   0.0000E+00  0.0000
   6.7852E+01   6.9503E+01   0.0000E+00  0.0000
   6.9503E+01   7.1194E+01   0.0000E+00  0.0000
   7.1194E+01   7.2926E+01   0.0000E+00  0.0000
   7.2926E+01   7.4701E+01   0.0000E+00  0.0000
   7.4701E+01   7.6518E+01   0.0000E+00  0.0000
   7.6518E+01   7.8380E+01   0.0000E+00  0.0000
   7.8380E+01   8.0287E+01   0.0000E+00  0.0000
   8.0287E+01   8.2240E+01   0.0000E+00  0.0000
   8.2240E+01   8.4241E+01   0.0000E+00  0.0000
   8.4241E+01   8.6291E+01   0.0000E+00  0.0000
   8.6291E+01   8.8391E+01   0.0000E+00  0.0000
   8.8391E+01   9.0541E+01   0.0000E+00  0.0000
   9.0541E+01   9.2744E+01   0.0000E+00  0.0000
   9.2744E+01   9.5001E+01   0.0000E+00  0.0000
   9.5001E+01   9.7312E+01   0.0000E+00  0.0000
   9.7312E+01   9.9680E+01   0.0000E+00  0.0000
   9.9680E+01   1.0211E+02   0.0000E+00  0.0000
   1.0211E+02   1.0459E+02   0.0000E+00  0.0000
   1.0459E+02   1.0713E+02   0.0000E+00  0.0000
   1.0713E+02   1.0974E+02   0.0000E+00  0.0000
   1.0974E+02   1.1241E+02   0.0000E+00  0.0000
   1.1241E+02   1.1515E+02   0.0000E+00  0.0000
   1.1515E+02   1.1795E+02   0.0000E+00  0.0000
   1.1795E+02   1.2082E+02   0.0000E+00  0.0000
   1.2082E+02   1.2376E+02   0.0000E+00  0.0000
   1.2376E+02   1.2677E+02   0.0000E+00  0.0000
   1.2677E+02   1.2985E+02   0.0000E+00  0.0000
   1.2985E+02   1.3301E+02   0.0000E+00  0.0000
   1.3301E+02   1.3625E+02   0.0000E+00  0.0000
   1.3625E+02   1.3956E+02   0.0000E+00  0.0000
   1.3956E+02   1.4296E+02   0.0000E+00  0.0000
   1.4296E+02   1.4644E+02   0.0000E+00  0.0000
   1.4644E+02   1.5000E+02   0.0000E+00  0.0000

#   sum over                 2.6520E-07
'no. =    1   reg = 126 - 226'
msuc: {\huge [t-cross] in region mesh}
msdr: {\it plotted by \ANGEL \version}
msdl: {\it calculated by \PHITS  3.26}
wt: s(0.7)
\vspace{-3}
  region surface crossing
  area  &=&   1.0000E+00 [cm^2]
e:
 
# Information for Restart Calculation
# This calculation was newly started
# istdev =  2 # 1:Batch variance, 2:History variance
# resc2  = 5.00000000000000000E+09 # Total source weight or Total source weight / maxcas
# resc3  = 5.00000000000000000E+09 # Total history number or Total batch number
# maxcas =   100000000 # History / Batch, only used for istdev=1
# bitrseed = 0110100000100010111000001110001111001110100100011111101000111001 # bit data of rseed
