[ T-Cross ]
    title = [t-cross] in region mesh
     mesh =  reg            # mesh type is region-wise
      reg =    1            # number of crossing regions
      non     r-from    r-to       area
      1       105       205        1.000000    
   e-type =    3            # e-mesh is log given by emin, emax and ne
     emin =  1.0000000E-02  # minimum value of e-mesh points
     emax =   150.0000      # maximum value of e-mesh points
#    edel =  2.4039514E-02  # mesh width of e-mesh points
       ne =    400          # number of e-mesh points
#    data = ( e(i), i = 1, ne + 1 )
#           1.00000E-02  1.02433E-02  1.04925E-02  1.07478E-02  1.10093E-02
#           1.12772E-02  1.15516E-02  1.18326E-02  1.21205E-02  1.24154E-02
#           1.27175E-02  1.30269E-02  1.33439E-02  1.36686E-02  1.40011E-02
#           1.43418E-02  1.46907E-02  1.50482E-02  1.54143E-02  1.57894E-02
#           1.61735E-02  1.65670E-02  1.69701E-02  1.73830E-02  1.78060E-02
#           1.82392E-02  1.86830E-02  1.91375E-02  1.96032E-02  2.00801E-02
#           2.05687E-02  2.10692E-02  2.15818E-02  2.21069E-02  2.26448E-02
#           2.31957E-02  2.37601E-02  2.43382E-02  2.49304E-02  2.55369E-02
#           2.61583E-02  2.67947E-02  2.74467E-02  2.81145E-02  2.87985E-02
#           2.94992E-02  3.02169E-02  3.09521E-02  3.17052E-02  3.24766E-02
#           3.32668E-02  3.40762E-02  3.49053E-02  3.57546E-02  3.66246E-02
#           3.75157E-02  3.84284E-02  3.93634E-02  4.03212E-02  4.13022E-02
#           4.23071E-02  4.33365E-02  4.43909E-02  4.54710E-02  4.65773E-02
#           4.77106E-02  4.88714E-02  5.00605E-02  5.12785E-02  5.25262E-02
#           5.38042E-02  5.51133E-02  5.64542E-02  5.78278E-02  5.92348E-02
#           6.06760E-02  6.21523E-02  6.36645E-02  6.52135E-02  6.68002E-02
#           6.84255E-02  7.00904E-02  7.17957E-02  7.35426E-02  7.53319E-02
#           7.71648E-02  7.90423E-02  8.09655E-02  8.29354E-02  8.49533E-02
#           8.70203E-02  8.91376E-02  9.13064E-02  9.35279E-02  9.58035E-02
#           9.81345E-02  1.00522E-01  1.02968E-01  1.05473E-01  1.08040E-01
#           1.10668E-01  1.13361E-01  1.16119E-01  1.18944E-01  1.21838E-01
#           1.24803E-01  1.27839E-01  1.30950E-01  1.34136E-01  1.37399E-01
#           1.40742E-01  1.44167E-01  1.47675E-01  1.51268E-01  1.54948E-01
#           1.58718E-01  1.62580E-01  1.66535E-01  1.70587E-01  1.74738E-01
#           1.78989E-01  1.83344E-01  1.87805E-01  1.92375E-01  1.97055E-01
#           2.01850E-01  2.06761E-01  2.11792E-01  2.16945E-01  2.22223E-01
#           2.27630E-01  2.33169E-01  2.38842E-01  2.44653E-01  2.50605E-01
#           2.56703E-01  2.62949E-01  2.69346E-01  2.75900E-01  2.82613E-01
#           2.89489E-01  2.96532E-01  3.03747E-01  3.11138E-01  3.18708E-01
#           3.26462E-01  3.34405E-01  3.42542E-01  3.50876E-01  3.59413E-01
#           3.68158E-01  3.77116E-01  3.86291E-01  3.95690E-01  4.05317E-01
#           4.15179E-01  4.25281E-01  4.35628E-01  4.46227E-01  4.57084E-01
#           4.68205E-01  4.79597E-01  4.91266E-01  5.03219E-01  5.15463E-01
#           5.28005E-01  5.40851E-01  5.54011E-01  5.67490E-01  5.81298E-01
#           5.95441E-01  6.09929E-01  6.24769E-01  6.39970E-01  6.55541E-01
#           6.71491E-01  6.87828E-01  7.04564E-01  7.21706E-01  7.39266E-01
#           7.57253E-01  7.75678E-01  7.94551E-01  8.13883E-01  8.33685E-01
#           8.53969E-01  8.74747E-01  8.96030E-01  9.17831E-01  9.40163E-01
#           9.63038E-01  9.86469E-01  1.01047E+00  1.03506E+00  1.06024E+00
#           1.08604E+00  1.11246E+00  1.13953E+00  1.16725E+00  1.19565E+00
#           1.22474E+00  1.25454E+00  1.28507E+00  1.31633E+00  1.34836E+00
#           1.38117E+00  1.41477E+00  1.44920E+00  1.48446E+00  1.52057E+00
#           1.55757E+00  1.59547E+00  1.63429E+00  1.67405E+00  1.71478E+00
#           1.75650E+00  1.79924E+00  1.84302E+00  1.88786E+00  1.93379E+00
#           1.98084E+00  2.02904E+00  2.07841E+00  2.12898E+00  2.18078E+00
#           2.23384E+00  2.28819E+00  2.34386E+00  2.40089E+00  2.45930E+00
#           2.51914E+00  2.58043E+00  2.64322E+00  2.70753E+00  2.77341E+00
#           2.84088E+00  2.91001E+00  2.98081E+00  3.05333E+00  3.12762E+00
#           3.20372E+00  3.28167E+00  3.36152E+00  3.44330E+00  3.52708E+00
#           3.61290E+00  3.70080E+00  3.79085E+00  3.88308E+00  3.97756E+00
#           4.07434E+00  4.17347E+00  4.27501E+00  4.37903E+00  4.48557E+00
#           4.59471E+00  4.70650E+00  4.82102E+00  4.93832E+00  5.05847E+00
#           5.18155E+00  5.30762E+00  5.43676E+00  5.56904E+00  5.70453E+00
#           5.84333E+00  5.98550E+00  6.13114E+00  6.28031E+00  6.43312E+00
#           6.58964E+00  6.74997E+00  6.91420E+00  7.08243E+00  7.25475E+00
#           7.43126E+00  7.61207E+00  7.79728E+00  7.98700E+00  8.18133E+00
#           8.38038E+00  8.58428E+00  8.79315E+00  9.00709E+00  9.22624E+00
#           9.45072E+00  9.68067E+00  9.91620E+00  1.01575E+01  1.04046E+01
#           1.06578E+01  1.09171E+01  1.11827E+01  1.14548E+01  1.17335E+01
#           1.20190E+01  1.23114E+01  1.26109E+01  1.29178E+01  1.32321E+01
#           1.35540E+01  1.38838E+01  1.42216E+01  1.45676E+01  1.49221E+01
#           1.52851E+01  1.56570E+01  1.60380E+01  1.64282E+01  1.68279E+01
#           1.72374E+01  1.76568E+01  1.80864E+01  1.85264E+01  1.89772E+01
#           1.94389E+01  1.99119E+01  2.03963E+01  2.08926E+01  2.14009E+01
#           2.19216E+01  2.24550E+01  2.30014E+01  2.35610E+01  2.41343E+01
#           2.47215E+01  2.53230E+01  2.59391E+01  2.65702E+01  2.72167E+01
#           2.78789E+01  2.85572E+01  2.92520E+01  2.99637E+01  3.06928E+01
#           3.14396E+01  3.22045E+01  3.29881E+01  3.37907E+01  3.46128E+01
#           3.54550E+01  3.63177E+01  3.72013E+01  3.81064E+01  3.90336E+01
#           3.99833E+01  4.09561E+01  4.19526E+01  4.29734E+01  4.40189E+01
#           4.50900E+01  4.61870E+01  4.73108E+01  4.84619E+01  4.96410E+01
#           5.08488E+01  5.20860E+01  5.33533E+01  5.46514E+01  5.59812E+01
#           5.73432E+01  5.87384E+01  6.01676E+01  6.16315E+01  6.31311E+01
#           6.46671E+01  6.62405E+01  6.78522E+01  6.95031E+01  7.11941E+01
#           7.29263E+01  7.47007E+01  7.65182E+01  7.83800E+01  8.02870E+01
#           8.22405E+01  8.42414E+01  8.62911E+01  8.83906E+01  9.05412E+01
#           9.27442E+01  9.50007E+01  9.73122E+01  9.96799E+01  1.02105E+02
#           1.04589E+02  1.07134E+02  1.09741E+02  1.12411E+02  1.15146E+02
#           1.17948E+02  1.20817E+02  1.23757E+02  1.26768E+02  1.29852E+02
#           1.33012E+02  1.36248E+02  1.39563E+02  1.42959E+02  1.46437E+02
#           1.50000E+02
     unit =    2            # unit is [1/cm^2/(MeV/n)/source]
     axis =  eng            # axis of output
     file = detector-06.out  # file name of output for the above axis
   output = f-curr          # surface crossing forward current spectrum
     part =  neutron  
# kf/name :  2112     
#    used :        main (  %)        temp (  %)       total (  %)
#  memory :         414 (  0)           0 (  0)         414 (  0)

#------------------------------------------------------------------------------
#newpage:
#   no. =    1   reg = 105 - 205

x: Energy [MeV/n]
y:  F-Curr [1/cm^2/(MeV/n)/source]         
p: xlog ylog afac(0.8) form(0.9)
h: n            x            y(neutron ),hh0l   n 
#  e-lower      e-upper      neutron     r.err 
   1.0000E-02   1.0243E-02   2.3541E-05  0.1852
   1.0243E-02   1.0493E-02   3.0481E-05  0.1615
   1.0493E-02   1.0748E-02   2.9705E-05  0.1599
   1.0748E-02   1.1009E-02   4.2322E-05  0.1332
   1.1009E-02   1.1277E-02   3.3487E-05  0.1491
   1.1277E-02   1.1552E-02   2.9443E-05  0.1563
   1.1552E-02   1.1833E-02   3.2312E-05  0.1473
   1.1833E-02   1.2121E-02   3.0338E-05  0.1503
   1.2121E-02   1.2415E-02   2.9744E-05  0.1508
   1.2415E-02   1.2718E-02   3.2502E-05  0.1416
   1.2718E-02   1.3027E-02   2.8058E-05  0.1509
   1.3027E-02   1.3344E-02   2.7063E-05  0.1514
   1.3344E-02   1.3669E-02   2.5736E-05  0.1543
   1.3669E-02   1.4001E-02   2.4484E-05  0.1562
   1.4001E-02   1.4342E-02   3.1967E-05  0.1349
   1.4342E-02   1.4691E-02   2.4449E-05  0.1525
   1.4691E-02   1.5048E-02   2.6290E-05  0.1454
   1.5048E-02   1.5414E-02   3.0104E-05  0.1338
   1.5414E-02   1.5789E-02   2.9152E-05  0.1349
   1.5789E-02   1.6174E-02   2.5884E-05  0.1410
   1.6174E-02   1.6567E-02   1.9336E-05  0.1608
   1.6567E-02   1.6970E-02   2.6306E-05  0.1361
   1.6970E-02   1.7383E-02   2.3369E-05  0.1430
   1.7383E-02   1.7806E-02   2.6107E-05  0.1338
   1.7806E-02   1.8239E-02   2.5529E-05  0.1337
   1.8239E-02   1.8683E-02   2.0474E-05  0.1463
   1.8683E-02   1.9138E-02   2.2647E-05  0.1384
   1.9138E-02   1.9603E-02   2.0937E-05  0.1429
   1.9603E-02   2.0080E-02   2.4086E-05  0.1314
   2.0080E-02   2.0569E-02   2.1101E-05  0.1387
   2.0569E-02   2.1069E-02   2.2275E-05  0.1332
   2.1069E-02   2.1582E-02   1.7998E-05  0.1458
   2.1582E-02   2.2107E-02   1.5838E-05  0.1544
   2.2107E-02   2.2645E-02   2.0286E-05  0.1349
   2.2645E-02   2.3196E-02   2.1196E-05  0.1303
   2.3196E-02   2.3760E-02   1.5256E-05  0.1518
   2.3760E-02   2.4338E-02   1.3959E-05  0.1557
   2.4338E-02   2.4930E-02   1.6121E-05  0.1437
   2.4930E-02   2.5537E-02   1.9727E-05  0.1282
   2.5537E-02   2.6158E-02   1.1432E-05  0.1670
   2.6158E-02   2.6795E-02   1.5017E-05  0.1443
   2.6795E-02   2.7447E-02   1.5719E-05  0.1388
   2.7447E-02   2.8114E-02   1.6046E-05  0.1361
   2.8114E-02   2.8799E-02   1.4236E-05  0.1429
   2.8799E-02   2.9499E-02   1.2575E-05  0.1495
   2.9499E-02   3.0217E-02   1.6235E-05  0.1303
   3.0217E-02   3.0952E-02   9.9929E-06  0.1645
   3.0952E-02   3.1705E-02   1.5578E-05  0.1296
   3.1705E-02   3.2477E-02   1.2131E-05  0.1451
   3.2477E-02   3.3267E-02   1.5708E-05  0.1263
   3.3267E-02   3.4076E-02   1.5817E-05  0.1242
   3.4076E-02   3.4905E-02   1.2237E-05  0.1400
   3.4905E-02   3.5755E-02   1.1342E-05  0.1434
   3.5755E-02   3.6625E-02   1.2634E-05  0.1338
   3.6625E-02   3.7516E-02   1.2922E-05  0.1314
   3.7516E-02   3.8428E-02   1.3263E-05  0.1281
   3.8428E-02   3.9363E-02   9.5595E-06  0.1484
   3.9363E-02   4.0321E-02   1.2258E-05  0.1302
   4.0321E-02   4.1302E-02   8.8742E-06  0.1501
   4.1302E-02   4.2307E-02   1.0235E-05  0.1388
   4.2307E-02   4.3337E-02   1.0212E-05  0.1374
   4.3337E-02   4.4391E-02   1.0176E-05  0.1361
   4.4391E-02   4.5471E-02   1.1331E-05  0.1271
   4.5471E-02   4.6577E-02   1.0593E-05  0.1302
   4.6577E-02   4.7711E-02   1.0477E-05  0.1292
   4.7711E-02   4.8871E-02   1.0070E-05  0.1302
   4.8871E-02   5.0061E-02   9.2773E-06  0.1334
   5.0061E-02   5.1279E-02   9.2498E-06  0.1324
   5.1279E-02   5.2526E-02   1.0053E-05  0.1257
   5.2526E-02   5.3804E-02   8.7295E-06  0.1332
   5.3804E-02   5.5113E-02   8.8729E-06  0.1299
   5.5113E-02   5.6454E-02   8.6848E-06  0.1303
   5.6454E-02   5.7828E-02   7.3393E-06  0.1401
   5.7828E-02   5.9235E-02   1.0747E-05  0.1144
   5.9235E-02   6.0676E-02   8.3950E-06  0.1281
   6.0676E-02   6.2152E-02   7.2200E-06  0.1362
   6.2152E-02   6.3665E-02   8.8065E-06  0.1217
   6.3665E-02   6.5214E-02   8.1070E-06  0.1255
   6.5214E-02   6.6800E-02   7.5474E-06  0.1281
   6.6800E-02   6.8426E-02   7.5928E-06  0.1270
   6.8426E-02   7.0090E-02   7.0811E-06  0.1290
   7.0090E-02   7.1796E-02   7.1335E-06  0.1268
   7.1796E-02   7.3543E-02   5.8881E-06  0.1382
   7.3543E-02   7.5332E-02   7.0129E-06  0.1260
   7.5332E-02   7.7165E-02   6.1939E-06  0.1325
   7.7165E-02   7.9042E-02   6.1158E-06  0.1314
   7.9042E-02   8.0965E-02   6.4620E-06  0.1260
   8.0965E-02   8.2935E-02   5.6993E-06  0.1328
   8.2935E-02   8.4953E-02   5.7177E-06  0.1307
   8.4953E-02   8.7020E-02   6.0733E-06  0.1255
   8.7020E-02   8.9138E-02   6.4437E-06  0.1202
   8.9138E-02   9.1306E-02   6.0062E-06  0.1232
   9.1306E-02   9.3528E-02   5.8575E-06  0.1234
   9.3528E-02   9.5804E-02   7.4588E-06  0.1081
   9.5804E-02   9.8134E-02   3.6691E-06  0.1519
   9.8134E-02   1.0052E-01   6.3005E-06  0.1144
   1.0052E-01   1.0297E-01   5.9086E-06  0.1167
   1.0297E-01   1.0547E-01   6.0912E-06  0.1140
   1.0547E-01   1.0804E-01   6.9941E-06  0.1050
   1.0804E-01   1.1067E-01   6.7437E-06  0.1055
   1.1067E-01   1.1336E-01   5.8383E-06  0.1119
   1.1336E-01   1.1612E-01   5.5558E-06  0.1134
   1.1612E-01   1.1894E-01   6.8418E-06  0.1011
   1.1894E-01   1.2184E-01   6.9948E-06  0.0990
   1.2184E-01   1.2480E-01   7.9428E-06  0.0914
   1.2480E-01   1.2784E-01   8.5215E-06  0.0873
   1.2784E-01   1.3095E-01   9.0452E-06  0.0837
   1.3095E-01   1.3414E-01   8.4797E-06  0.0858
   1.3414E-01   1.3740E-01   9.6146E-06  0.0794
   1.3740E-01   1.4074E-01   1.0154E-05  0.0764
   1.4074E-01   1.4417E-01   1.0536E-05  0.0740
   1.4417E-01   1.4767E-01   9.7243E-06  0.0761
   1.4767E-01   1.5127E-01   1.2506E-05  0.0664
   1.5127E-01   1.5495E-01   1.2892E-05  0.0647
   1.5495E-01   1.5872E-01   1.0675E-05  0.0701
   1.5872E-01   1.6258E-01   1.0797E-05  0.0689
   1.6258E-01   1.6654E-01   1.2639E-05  0.0629
   1.6654E-01   1.7059E-01   1.3213E-05  0.0607
   1.7059E-01   1.7474E-01   1.4443E-05  0.0573
   1.7474E-01   1.7899E-01   1.4475E-05  0.0567
   1.7899E-01   1.8334E-01   1.4920E-05  0.0551
   1.8334E-01   1.8781E-01   1.5085E-05  0.0542
   1.8781E-01   1.9237E-01   1.5907E-05  0.0522
   1.9237E-01   1.9706E-01   1.7290E-05  0.0495
   1.9706E-01   2.0185E-01   1.6618E-05  0.0498
   2.0185E-01   2.0676E-01   1.7324E-05  0.0482
   2.0676E-01   2.1179E-01   1.8064E-05  0.0467
   2.1179E-01   2.1694E-01   1.8448E-05  0.0456
   2.1694E-01   2.2222E-01   1.9531E-05  0.0438
   2.2222E-01   2.2763E-01   1.9166E-05  0.0437
   2.2763E-01   2.3317E-01   2.0752E-05  0.0415
   2.3317E-01   2.3884E-01   2.1149E-05  0.0406
   2.3884E-01   2.4465E-01   2.4093E-05  0.0376
   2.4465E-01   2.5061E-01   2.2306E-05  0.0386
   2.5061E-01   2.5670E-01   2.3327E-05  0.0373
   2.5670E-01   2.6295E-01   2.5347E-05  0.0354
   2.6295E-01   2.6935E-01   2.3743E-05  0.0361
   2.6935E-01   2.7590E-01   2.6084E-05  0.0340
   2.7590E-01   2.8261E-01   2.6067E-05  0.0336
   2.8261E-01   2.8949E-01   2.4723E-05  0.0341
   2.8949E-01   2.9653E-01   2.7802E-05  0.0318
   2.9653E-01   3.0375E-01   2.8804E-05  0.0309
   3.0375E-01   3.1114E-01   2.9503E-05  0.0301
   3.1114E-01   3.1871E-01   2.8824E-05  0.0301
   3.1871E-01   3.2646E-01   3.0294E-05  0.0290
   3.2646E-01   3.3441E-01   3.1061E-05  0.0283
   3.3441E-01   3.4254E-01   3.2546E-05  0.0273
   3.4254E-01   3.5088E-01   3.4845E-05  0.0261
   3.5088E-01   3.5941E-01   3.2719E-05  0.0266
   3.5941E-01   3.6816E-01   3.3594E-05  0.0259
   3.6816E-01   3.7712E-01   3.5429E-05  0.0249
   3.7712E-01   3.8629E-01   3.6778E-05  0.0242
   3.8629E-01   3.9569E-01   3.6261E-05  0.0241
   3.9569E-01   4.0532E-01   3.6676E-05  0.0236
   4.0532E-01   4.1518E-01   3.8150E-05  0.0229
   4.1518E-01   4.2528E-01   3.8385E-05  0.0226
   4.2528E-01   4.3563E-01   3.9369E-05  0.0220
   4.3563E-01   4.4623E-01   3.9808E-05  0.0216
   4.4623E-01   4.5708E-01   4.1028E-05  0.0211
   4.5708E-01   4.6821E-01   4.0531E-05  0.0209
   4.6821E-01   4.7960E-01   4.2146E-05  0.0203
   4.7960E-01   4.9127E-01   4.1914E-05  0.0201
   4.9127E-01   5.0322E-01   4.2976E-05  0.0196
   5.0322E-01   5.1546E-01   4.2639E-05  0.0194
   5.1546E-01   5.2800E-01   4.4117E-05  0.0189
   5.2800E-01   5.4085E-01   4.2664E-05  0.0190
   5.4085E-01   5.5401E-01   4.4297E-05  0.0184
   5.5401E-01   5.6749E-01   4.3853E-05  0.0183
   5.6749E-01   5.8130E-01   4.2950E-05  0.0182
   5.8130E-01   5.9544E-01   4.3446E-05  0.0179
   5.9544E-01   6.0993E-01   4.4285E-05  0.0175
   6.0993E-01   6.2477E-01   4.4425E-05  0.0173
   6.2477E-01   6.3997E-01   4.4036E-05  0.0172
   6.3997E-01   6.5554E-01   4.5902E-05  0.0166
   6.5554E-01   6.7149E-01   4.5105E-05  0.0165
   6.7149E-01   6.8783E-01   4.4334E-05  0.0165
   6.8783E-01   7.0456E-01   4.4096E-05  0.0163
   7.0456E-01   7.2171E-01   4.3750E-05  0.0162
   7.2171E-01   7.3927E-01   4.4328E-05  0.0159
   7.3927E-01   7.5725E-01   4.1986E-05  0.0161
   7.5725E-01   7.7568E-01   4.2754E-05  0.0158
   7.7568E-01   7.9455E-01   4.3312E-05  0.0155
   7.9455E-01   8.1388E-01   4.1580E-05  0.0156
   8.1388E-01   8.3368E-01   4.0207E-05  0.0157
   8.3368E-01   8.5397E-01   3.8174E-05  0.0159
   8.5397E-01   8.7475E-01   3.7935E-05  0.0158
   8.7475E-01   8.9603E-01   3.6184E-05  0.0160
   8.9603E-01   9.1783E-01   3.5864E-05  0.0158
   9.1783E-01   9.4016E-01   3.3672E-05  0.0161
   9.4016E-01   9.6304E-01   3.2972E-05  0.0161
   9.6304E-01   9.8647E-01   3.1688E-05  0.0162
   9.8647E-01   1.0105E+00   3.1217E-05  0.0162
   1.0105E+00   1.0351E+00   3.2140E-05  0.0157
   1.0351E+00   1.0602E+00   3.2758E-05  0.0154
   1.0602E+00   1.0860E+00   3.3447E-05  0.0150
   1.0860E+00   1.1125E+00   3.4158E-05  0.0147
   1.1125E+00   1.1395E+00   3.6494E-05  0.0141
   1.1395E+00   1.1673E+00   3.6835E-05  0.0138
   1.1673E+00   1.1957E+00   3.8599E-05  0.0133
   1.1957E+00   1.2247E+00   3.9589E-05  0.0130
   1.2247E+00   1.2545E+00   4.0747E-05  0.0127
   1.2545E+00   1.2851E+00   4.2453E-05  0.0123
   1.2851E+00   1.3163E+00   4.2494E-05  0.0121
   1.3163E+00   1.3484E+00   4.4290E-05  0.0117
   1.3484E+00   1.3812E+00   4.4906E-05  0.0115
   1.3812E+00   1.4148E+00   4.7321E-05  0.0111
   1.4148E+00   1.4492E+00   4.6144E-05  0.0111
   1.4492E+00   1.4845E+00   4.7505E-05  0.0108
   1.4845E+00   1.5206E+00   4.8192E-05  0.0106
   1.5206E+00   1.5576E+00   4.7498E-05  0.0105
   1.5576E+00   1.5955E+00   4.6999E-05  0.0104
   1.5955E+00   1.6343E+00   4.8965E-05  0.0101
   1.6343E+00   1.6741E+00   4.9285E-05  0.0099
   1.6741E+00   1.7148E+00   4.9728E-05  0.0098
   1.7148E+00   1.7565E+00   4.7965E-05  0.0098
   1.7565E+00   1.7992E+00   4.6369E-05  0.0099
   1.7992E+00   1.8430E+00   4.5592E-05  0.0098
   1.8430E+00   1.8879E+00   4.3277E-05  0.0099
   1.8879E+00   1.9338E+00   4.3778E-05  0.0097
   1.9338E+00   1.9808E+00   4.4716E-05  0.0095
   1.9808E+00   2.0290E+00   4.5060E-05  0.0093
   2.0290E+00   2.0784E+00   4.5627E-05  0.0092
   2.0784E+00   2.1290E+00   4.7140E-05  0.0089
   2.1290E+00   2.1808E+00   4.8111E-05  0.0087
   2.1808E+00   2.2338E+00   4.9207E-05  0.0085
   2.2338E+00   2.2882E+00   4.7040E-05  0.0086
   2.2882E+00   2.3439E+00   4.7609E-05  0.0085
   2.3439E+00   2.4009E+00   4.6321E-05  0.0085
   2.4009E+00   2.4593E+00   4.7295E-05  0.0083
   2.4593E+00   2.5191E+00   4.6996E-05  0.0082
   2.5191E+00   2.5804E+00   4.6300E-05  0.0082
   2.5804E+00   2.6432E+00   4.6609E-05  0.0081
   2.6432E+00   2.7075E+00   4.6938E-05  0.0079
   2.7075E+00   2.7734E+00   4.6807E-05  0.0079
   2.7734E+00   2.8409E+00   4.6636E-05  0.0078
   2.8409E+00   2.9100E+00   4.6810E-05  0.0077
   2.9100E+00   2.9808E+00   4.7451E-05  0.0075
   2.9808E+00   3.0533E+00   4.6531E-05  0.0075
   3.0533E+00   3.1276E+00   4.6063E-05  0.0075
   3.1276E+00   3.2037E+00   4.6023E-05  0.0074
   3.2037E+00   3.2817E+00   4.5549E-05  0.0074
   3.2817E+00   3.3615E+00   4.5935E-05  0.0072
   3.3615E+00   3.4433E+00   4.4722E-05  0.0073
   3.4433E+00   3.5271E+00   4.5367E-05  0.0071
   3.5271E+00   3.6129E+00   4.5095E-05  0.0071
   3.6129E+00   3.7008E+00   4.4674E-05  0.0070
   3.7008E+00   3.7908E+00   4.4251E-05  0.0070
   3.7908E+00   3.8831E+00   4.4291E-05  0.0069
   3.8831E+00   3.9776E+00   4.3736E-05  0.0068
   3.9776E+00   4.0743E+00   4.3452E-05  0.0068
   4.0743E+00   4.1735E+00   4.2556E-05  0.0068
   4.1735E+00   4.2750E+00   4.2348E-05  0.0067
   4.2750E+00   4.3790E+00   4.1461E-05  0.0067
   4.3790E+00   4.4856E+00   4.0969E-05  0.0067
   4.4856E+00   4.5947E+00   4.0175E-05  0.0066
   4.5947E+00   4.7065E+00   4.0044E-05  0.0066
   4.7065E+00   4.8210E+00   3.9454E-05  0.0065
   4.8210E+00   4.9383E+00   3.8590E-05  0.0065
   4.9383E+00   5.0585E+00   3.8897E-05  0.0064
   5.0585E+00   5.1815E+00   3.8976E-05  0.0064
   5.1815E+00   5.3076E+00   3.8502E-05  0.0063
   5.3076E+00   5.4368E+00   3.7416E-05  0.0063
   5.4368E+00   5.5690E+00   3.7431E-05  0.0063
   5.5690E+00   5.7045E+00   3.7105E-05  0.0062
   5.7045E+00   5.8433E+00   3.6702E-05  0.0062
   5.8433E+00   5.9855E+00   3.6160E-05  0.0061
   5.9855E+00   6.1311E+00   3.5981E-05  0.0061
   6.1311E+00   6.2803E+00   3.5379E-05  0.0061
   6.2803E+00   6.4331E+00   3.5484E-05  0.0060
   6.4331E+00   6.5896E+00   3.5439E-05  0.0059
   6.5896E+00   6.7500E+00   3.4608E-05  0.0059
   6.7500E+00   6.9142E+00   3.4415E-05  0.0059
   6.9142E+00   7.0824E+00   3.3698E-05  0.0059
   7.0824E+00   7.2548E+00   3.3437E-05  0.0058
   7.2548E+00   7.4313E+00   3.3271E-05  0.0058
   7.4313E+00   7.6121E+00   3.3107E-05  0.0057
   7.6121E+00   7.7973E+00   3.2612E-05  0.0057
   7.7973E+00   7.9870E+00   3.2174E-05  0.0057
   7.9870E+00   8.1813E+00   3.1490E-05  0.0057
   8.1813E+00   8.3804E+00   3.1210E-05  0.0056
   8.3804E+00   8.5843E+00   3.1028E-05  0.0056
   8.5843E+00   8.7931E+00   3.0451E-05  0.0056
   8.7931E+00   9.0071E+00   3.0109E-05  0.0055
   9.0071E+00   9.2262E+00   2.9418E-05  0.0055
   9.2262E+00   9.4507E+00   2.9019E-05  0.0055
   9.4507E+00   9.6807E+00   2.8091E-05  0.0055
   9.6807E+00   9.9162E+00   2.8399E-05  0.0054
   9.9162E+00   1.0157E+01   2.9083E-05  0.0053
   1.0157E+01   1.0405E+01   2.8530E-05  0.0053
   1.0405E+01   1.0658E+01   2.7959E-05  0.0053
   1.0658E+01   1.0917E+01   2.7165E-05  0.0053
   1.0917E+01   1.1183E+01   2.6499E-05  0.0053
   1.1183E+01   1.1455E+01   2.6388E-05  0.0053
   1.1455E+01   1.1733E+01   2.6117E-05  0.0052
   1.1733E+01   1.2019E+01   2.5846E-05  0.0052
   1.2019E+01   1.2311E+01   2.5563E-05  0.0052
   1.2311E+01   1.2611E+01   2.5169E-05  0.0051
   1.2611E+01   1.2918E+01   2.5006E-05  0.0051
   1.2918E+01   1.3232E+01   2.4778E-05  0.0051
   1.3232E+01   1.3554E+01   2.4372E-05  0.0050
   1.3554E+01   1.3884E+01   2.4089E-05  0.0050
   1.3884E+01   1.4222E+01   2.3973E-05  0.0050
   1.4222E+01   1.4568E+01   2.3565E-05  0.0049
   1.4568E+01   1.4922E+01   2.3498E-05  0.0049
   1.4922E+01   1.5285E+01   2.3131E-05  0.0049
   1.5285E+01   1.5657E+01   2.2694E-05  0.0049
   1.5657E+01   1.6038E+01   2.2330E-05  0.0048
   1.6038E+01   1.6428E+01   2.1964E-05  0.0048
   1.6428E+01   1.6828E+01   2.1899E-05  0.0048
   1.6828E+01   1.7237E+01   2.1685E-05  0.0047
   1.7237E+01   1.7657E+01   2.1137E-05  0.0047
   1.7657E+01   1.8086E+01   2.1049E-05  0.0047
   1.8086E+01   1.8526E+01   2.0453E-05  0.0047
   1.8526E+01   1.8977E+01   2.0012E-05  0.0047
   1.8977E+01   1.9439E+01   1.9833E-05  0.0047
   1.9439E+01   1.9912E+01   1.9738E-05  0.0046
   1.9912E+01   2.0396E+01   1.9408E-05  0.0046
   2.0396E+01   2.0893E+01   1.9071E-05  0.0046
   2.0893E+01   2.1401E+01   1.8655E-05  0.0046
   2.1401E+01   2.1922E+01   1.8088E-05  0.0046
   2.1922E+01   2.2455E+01   1.7926E-05  0.0046
   2.2455E+01   2.3001E+01   1.7418E-05  0.0046
   2.3001E+01   2.3561E+01   1.7068E-05  0.0046
   2.3561E+01   2.4134E+01   1.6547E-05  0.0046
   2.4134E+01   2.4721E+01   1.6246E-05  0.0046
   2.4721E+01   2.5323E+01   1.5796E-05  0.0046
   2.5323E+01   2.5939E+01   1.5482E-05  0.0046
   2.5939E+01   2.6570E+01   1.4944E-05  0.0046
   2.6570E+01   2.7217E+01   1.4544E-05  0.0046
   2.7217E+01   2.7879E+01   1.4470E-05  0.0046
   2.7879E+01   2.8557E+01   1.5939E-05  0.0043
   2.8557E+01   2.9252E+01   1.6108E-05  0.0042
   2.9252E+01   2.9964E+01   1.5902E-05  0.0042
   2.9964E+01   3.0693E+01   1.5545E-05  0.0042
   3.0693E+01   3.1440E+01   1.5248E-05  0.0042
   3.1440E+01   3.2205E+01   1.4770E-05  0.0042
   3.2205E+01   3.2988E+01   1.4368E-05  0.0042
   3.2988E+01   3.3791E+01   1.3942E-05  0.0042
   3.3791E+01   3.4613E+01   1.3586E-05  0.0042
   3.4613E+01   3.5455E+01   1.3194E-05  0.0042
   3.5455E+01   3.6318E+01   1.2851E-05  0.0042
   3.6318E+01   3.7201E+01   1.2391E-05  0.0043
   3.7201E+01   3.8106E+01   1.1863E-05  0.0043
   3.8106E+01   3.9034E+01   1.1368E-05  0.0044
   3.9034E+01   3.9983E+01   1.0858E-05  0.0044
   3.9983E+01   4.0956E+01   1.0337E-05  0.0045
   4.0956E+01   4.1953E+01   9.7931E-06  0.0045
   4.1953E+01   4.2973E+01   9.2737E-06  0.0046
   4.2973E+01   4.4019E+01   8.6687E-06  0.0047
   4.4019E+01   4.5090E+01   7.9644E-06  0.0048
   4.5090E+01   4.6187E+01   7.3049E-06  0.0050
   4.6187E+01   4.7311E+01   6.5508E-06  0.0052
   4.7311E+01   4.8462E+01   4.4274E-06  0.0063
   4.8462E+01   4.9641E+01   2.4715E-06  0.0083
   4.9641E+01   5.0849E+01   2.0442E-06  0.0090
   5.0849E+01   5.2086E+01   1.8723E-06  0.0093
   5.2086E+01   5.3353E+01   1.1016E-06  0.0120
   5.3353E+01   5.4651E+01   0.0000E+00  0.0000
   5.4651E+01   5.5981E+01   0.0000E+00  0.0000
   5.5981E+01   5.7343E+01   0.0000E+00  0.0000
   5.7343E+01   5.8738E+01   0.0000E+00  0.0000
   5.8738E+01   6.0168E+01   0.0000E+00  0.0000
   6.0168E+01   6.1632E+01   0.0000E+00  0.0000
   6.1632E+01   6.3131E+01   0.0000E+00  0.0000
   6.3131E+01   6.4667E+01   0.0000E+00  0.0000
   6.4667E+01   6.6240E+01   0.0000E+00  0.0000
   6.6240E+01   6.7852E+01   0.0000E+00  0.0000
   6.7852E+01   6.9503E+01   0.0000E+00  0.0000
   6.9503E+01   7.1194E+01   0.0000E+00  0.0000
   7.1194E+01   7.2926E+01   0.0000E+00  0.0000
   7.2926E+01   7.4701E+01   0.0000E+00  0.0000
   7.4701E+01   7.6518E+01   0.0000E+00  0.0000
   7.6518E+01   7.8380E+01   0.0000E+00  0.0000
   7.8380E+01   8.0287E+01   0.0000E+00  0.0000
   8.0287E+01   8.2240E+01   0.0000E+00  0.0000
   8.2240E+01   8.4241E+01   0.0000E+00  0.0000
   8.4241E+01   8.6291E+01   0.0000E+00  0.0000
   8.6291E+01   8.8391E+01   0.0000E+00  0.0000
   8.8391E+01   9.0541E+01   0.0000E+00  0.0000
   9.0541E+01   9.2744E+01   0.0000E+00  0.0000
   9.2744E+01   9.5001E+01   0.0000E+00  0.0000
   9.5001E+01   9.7312E+01   0.0000E+00  0.0000
   9.7312E+01   9.9680E+01   0.0000E+00  0.0000
   9.9680E+01   1.0211E+02   0.0000E+00  0.0000
   1.0211E+02   1.0459E+02   0.0000E+00  0.0000
   1.0459E+02   1.0713E+02   0.0000E+00  0.0000
   1.0713E+02   1.0974E+02   0.0000E+00  0.0000
   1.0974E+02   1.1241E+02   0.0000E+00  0.0000
   1.1241E+02   1.1515E+02   0.0000E+00  0.0000
   1.1515E+02   1.1795E+02   0.0000E+00  0.0000
   1.1795E+02   1.2082E+02   0.0000E+00  0.0000
   1.2082E+02   1.2376E+02   0.0000E+00  0.0000
   1.2376E+02   1.2677E+02   0.0000E+00  0.0000
   1.2677E+02   1.2985E+02   0.0000E+00  0.0000
   1.2985E+02   1.3301E+02   0.0000E+00  0.0000
   1.3301E+02   1.3625E+02   0.0000E+00  0.0000
   1.3625E+02   1.3956E+02   0.0000E+00  0.0000
   1.3956E+02   1.4296E+02   0.0000E+00  0.0000
   1.4296E+02   1.4644E+02   0.0000E+00  0.0000
   1.4644E+02   1.5000E+02   0.0000E+00  0.0000

#   sum over                 6.5335E-06
'no. =    1   reg = 105 - 205'
msuc: {\huge [t-cross] in region mesh}
msdr: {\it plotted by \ANGEL \version}
msdl: {\it calculated by \PHITS  3.26}
wt: s(0.7)
\vspace{-3}
  region surface crossing
  area  &=&   1.0000E+00 [cm^2]
e:
 
# Information for Restart Calculation
# This calculation was newly started
# istdev =  2 # 1:Batch variance, 2:History variance
# resc2  = 5.00000000000000000E+09 # Total source weight or Total source weight / maxcas
# resc3  = 5.00000000000000000E+09 # Total history number or Total batch number
# maxcas =   100000000 # History / Batch, only used for istdev=1
# bitrseed = 0110100000100010111000001110001111001110100100011111101000111001 # bit data of rseed
