[ T-Cross ]
    title = [t-cross] in region mesh
     mesh =  reg            # mesh type is region-wise
      reg =    1            # number of crossing regions
      non     r-from    r-to       area
      1       125       225        1.000000    
   e-type =    3            # e-mesh is log given by emin, emax and ne
     emin =  1.0000000E-02  # minimum value of e-mesh points
     emax =   150.0000      # maximum value of e-mesh points
#    edel =  2.4039514E-02  # mesh width of e-mesh points
       ne =    400          # number of e-mesh points
#    data = ( e(i), i = 1, ne + 1 )
#           1.00000E-02  1.02433E-02  1.04925E-02  1.07478E-02  1.10093E-02
#           1.12772E-02  1.15516E-02  1.18326E-02  1.21205E-02  1.24154E-02
#           1.27175E-02  1.30269E-02  1.33439E-02  1.36686E-02  1.40011E-02
#           1.43418E-02  1.46907E-02  1.50482E-02  1.54143E-02  1.57894E-02
#           1.61735E-02  1.65670E-02  1.69701E-02  1.73830E-02  1.78060E-02
#           1.82392E-02  1.86830E-02  1.91375E-02  1.96032E-02  2.00801E-02
#           2.05687E-02  2.10692E-02  2.15818E-02  2.21069E-02  2.26448E-02
#           2.31957E-02  2.37601E-02  2.43382E-02  2.49304E-02  2.55369E-02
#           2.61583E-02  2.67947E-02  2.74467E-02  2.81145E-02  2.87985E-02
#           2.94992E-02  3.02169E-02  3.09521E-02  3.17052E-02  3.24766E-02
#           3.32668E-02  3.40762E-02  3.49053E-02  3.57546E-02  3.66246E-02
#           3.75157E-02  3.84284E-02  3.93634E-02  4.03212E-02  4.13022E-02
#           4.23071E-02  4.33365E-02  4.43909E-02  4.54710E-02  4.65773E-02
#           4.77106E-02  4.88714E-02  5.00605E-02  5.12785E-02  5.25262E-02
#           5.38042E-02  5.51133E-02  5.64542E-02  5.78278E-02  5.92348E-02
#           6.06760E-02  6.21523E-02  6.36645E-02  6.52135E-02  6.68002E-02
#           6.84255E-02  7.00904E-02  7.17957E-02  7.35426E-02  7.53319E-02
#           7.71648E-02  7.90423E-02  8.09655E-02  8.29354E-02  8.49533E-02
#           8.70203E-02  8.91376E-02  9.13064E-02  9.35279E-02  9.58035E-02
#           9.81345E-02  1.00522E-01  1.02968E-01  1.05473E-01  1.08040E-01
#           1.10668E-01  1.13361E-01  1.16119E-01  1.18944E-01  1.21838E-01
#           1.24803E-01  1.27839E-01  1.30950E-01  1.34136E-01  1.37399E-01
#           1.40742E-01  1.44167E-01  1.47675E-01  1.51268E-01  1.54948E-01
#           1.58718E-01  1.62580E-01  1.66535E-01  1.70587E-01  1.74738E-01
#           1.78989E-01  1.83344E-01  1.87805E-01  1.92375E-01  1.97055E-01
#           2.01850E-01  2.06761E-01  2.11792E-01  2.16945E-01  2.22223E-01
#           2.27630E-01  2.33169E-01  2.38842E-01  2.44653E-01  2.50605E-01
#           2.56703E-01  2.62949E-01  2.69346E-01  2.75900E-01  2.82613E-01
#           2.89489E-01  2.96532E-01  3.03747E-01  3.11138E-01  3.18708E-01
#           3.26462E-01  3.34405E-01  3.42542E-01  3.50876E-01  3.59413E-01
#           3.68158E-01  3.77116E-01  3.86291E-01  3.95690E-01  4.05317E-01
#           4.15179E-01  4.25281E-01  4.35628E-01  4.46227E-01  4.57084E-01
#           4.68205E-01  4.79597E-01  4.91266E-01  5.03219E-01  5.15463E-01
#           5.28005E-01  5.40851E-01  5.54011E-01  5.67490E-01  5.81298E-01
#           5.95441E-01  6.09929E-01  6.24769E-01  6.39970E-01  6.55541E-01
#           6.71491E-01  6.87828E-01  7.04564E-01  7.21706E-01  7.39266E-01
#           7.57253E-01  7.75678E-01  7.94551E-01  8.13883E-01  8.33685E-01
#           8.53969E-01  8.74747E-01  8.96030E-01  9.17831E-01  9.40163E-01
#           9.63038E-01  9.86469E-01  1.01047E+00  1.03506E+00  1.06024E+00
#           1.08604E+00  1.11246E+00  1.13953E+00  1.16725E+00  1.19565E+00
#           1.22474E+00  1.25454E+00  1.28507E+00  1.31633E+00  1.34836E+00
#           1.38117E+00  1.41477E+00  1.44920E+00  1.48446E+00  1.52057E+00
#           1.55757E+00  1.59547E+00  1.63429E+00  1.67405E+00  1.71478E+00
#           1.75650E+00  1.79924E+00  1.84302E+00  1.88786E+00  1.93379E+00
#           1.98084E+00  2.02904E+00  2.07841E+00  2.12898E+00  2.18078E+00
#           2.23384E+00  2.28819E+00  2.34386E+00  2.40089E+00  2.45930E+00
#           2.51914E+00  2.58043E+00  2.64322E+00  2.70753E+00  2.77341E+00
#           2.84088E+00  2.91001E+00  2.98081E+00  3.05333E+00  3.12762E+00
#           3.20372E+00  3.28167E+00  3.36152E+00  3.44330E+00  3.52708E+00
#           3.61290E+00  3.70080E+00  3.79085E+00  3.88308E+00  3.97756E+00
#           4.07434E+00  4.17347E+00  4.27501E+00  4.37903E+00  4.48557E+00
#           4.59471E+00  4.70650E+00  4.82102E+00  4.93832E+00  5.05847E+00
#           5.18155E+00  5.30762E+00  5.43676E+00  5.56904E+00  5.70453E+00
#           5.84333E+00  5.98550E+00  6.13114E+00  6.28031E+00  6.43312E+00
#           6.58964E+00  6.74997E+00  6.91420E+00  7.08243E+00  7.25475E+00
#           7.43126E+00  7.61207E+00  7.79728E+00  7.98700E+00  8.18133E+00
#           8.38038E+00  8.58428E+00  8.79315E+00  9.00709E+00  9.22624E+00
#           9.45072E+00  9.68067E+00  9.91620E+00  1.01575E+01  1.04046E+01
#           1.06578E+01  1.09171E+01  1.11827E+01  1.14548E+01  1.17335E+01
#           1.20190E+01  1.23114E+01  1.26109E+01  1.29178E+01  1.32321E+01
#           1.35540E+01  1.38838E+01  1.42216E+01  1.45676E+01  1.49221E+01
#           1.52851E+01  1.56570E+01  1.60380E+01  1.64282E+01  1.68279E+01
#           1.72374E+01  1.76568E+01  1.80864E+01  1.85264E+01  1.89772E+01
#           1.94389E+01  1.99119E+01  2.03963E+01  2.08926E+01  2.14009E+01
#           2.19216E+01  2.24550E+01  2.30014E+01  2.35610E+01  2.41343E+01
#           2.47215E+01  2.53230E+01  2.59391E+01  2.65702E+01  2.72167E+01
#           2.78789E+01  2.85572E+01  2.92520E+01  2.99637E+01  3.06928E+01
#           3.14396E+01  3.22045E+01  3.29881E+01  3.37907E+01  3.46128E+01
#           3.54550E+01  3.63177E+01  3.72013E+01  3.81064E+01  3.90336E+01
#           3.99833E+01  4.09561E+01  4.19526E+01  4.29734E+01  4.40189E+01
#           4.50900E+01  4.61870E+01  4.73108E+01  4.84619E+01  4.96410E+01
#           5.08488E+01  5.20860E+01  5.33533E+01  5.46514E+01  5.59812E+01
#           5.73432E+01  5.87384E+01  6.01676E+01  6.16315E+01  6.31311E+01
#           6.46671E+01  6.62405E+01  6.78522E+01  6.95031E+01  7.11941E+01
#           7.29263E+01  7.47007E+01  7.65182E+01  7.83800E+01  8.02870E+01
#           8.22405E+01  8.42414E+01  8.62911E+01  8.83906E+01  9.05412E+01
#           9.27442E+01  9.50007E+01  9.73122E+01  9.96799E+01  1.02105E+02
#           1.04589E+02  1.07134E+02  1.09741E+02  1.12411E+02  1.15146E+02
#           1.17948E+02  1.20817E+02  1.23757E+02  1.26768E+02  1.29852E+02
#           1.33012E+02  1.36248E+02  1.39563E+02  1.42959E+02  1.46437E+02
#           1.50000E+02
     unit =    2            # unit is [1/cm^2/(MeV/n)/source]
     axis =  eng            # axis of output
     file = detector-26.out  # file name of output for the above axis
   output = f-curr          # surface crossing forward current spectrum
     part =  neutron  
# kf/name :  2112     
#    used :        main (  %)        temp (  %)       total (  %)
#  memory :         414 (  0)           0 (  0)         414 (  0)

#------------------------------------------------------------------------------
#newpage:
#   no. =    1   reg = 125 - 225

x: Energy [MeV/n]
y:  F-Curr [1/cm^2/(MeV/n)/source]         
p: xlog ylog afac(0.8) form(0.9)
h: n            x            y(neutron ),hh0l   n 
#  e-lower      e-upper      neutron     r.err 
   1.0000E-02   1.0243E-02   4.7958E-04  0.1306
   1.0243E-02   1.0493E-02   3.3032E-04  0.1556
   1.0493E-02   1.0748E-02   3.6821E-04  0.1459
   1.0748E-02   1.1009E-02   4.2195E-04  0.1345
   1.1009E-02   1.1277E-02   3.4597E-04  0.1465
   1.1277E-02   1.1552E-02   4.0315E-04  0.1341
   1.1552E-02   1.1833E-02   4.3739E-04  0.1271
   1.1833E-02   1.2121E-02   3.6556E-04  0.1372
   1.2121E-02   1.2415E-02   3.8783E-04  0.1321
   1.2415E-02   1.2718E-02   2.9228E-04  0.1503
   1.2718E-02   1.3027E-02   4.1260E-04  0.1246
   1.3027E-02   1.3344E-02   2.9657E-04  0.1459
   1.3344E-02   1.3669E-02   2.9569E-04  0.1436
   1.3669E-02   1.4001E-02   3.6458E-04  0.1279
   1.4001E-02   1.4342E-02   2.7690E-04  0.1454
   1.4342E-02   1.4691E-02   3.8974E-04  0.1213
   1.4691E-02   1.5048E-02   2.4709E-04  0.1503
   1.5048E-02   1.5414E-02   2.7294E-04  0.1406
   1.5414E-02   1.5789E-02   3.4763E-04  0.1237
   1.5789E-02   1.6174E-02   2.9675E-04  0.1325
   1.6174E-02   1.6567E-02   2.3993E-04  0.1453
   1.6567E-02   1.6970E-02   2.2572E-04  0.1476
   1.6970E-02   1.7383E-02   3.2535E-04  0.1219
   1.7383E-02   1.7806E-02   3.2156E-04  0.1213
   1.7806E-02   1.8239E-02   2.4698E-04  0.1364
   1.8239E-02   1.8683E-02   2.6198E-04  0.1310
   1.8683E-02   1.9138E-02   2.8158E-04  0.1250
   1.9138E-02   1.9603E-02   2.1765E-04  0.1399
   1.9603E-02   2.0080E-02   2.8514E-04  0.1213
   2.0080E-02   2.0569E-02   2.7837E-04  0.1213
   2.0569E-02   2.1069E-02   2.5976E-04  0.1240
   2.1069E-02   2.1582E-02   2.5963E-04  0.1222
   2.1582E-02   2.2107E-02   1.8473E-04  0.1432
   2.2107E-02   2.2645E-02   2.0589E-04  0.1340
   2.2645E-02   2.3196E-02   2.1873E-04  0.1279
   2.3196E-02   2.3760E-02   1.7595E-04  0.1414
   2.3760E-02   2.4338E-02   1.8163E-04  0.1377
   2.4338E-02   2.4930E-02   1.8238E-04  0.1361
   2.4930E-02   2.5537E-02   2.2421E-04  0.1213
   2.5537E-02   2.6158E-02   1.9366E-04  0.1282
   2.6158E-02   2.6795E-02   1.5995E-04  0.1394
   2.6795E-02   2.7447E-02   1.8713E-04  0.1280
   2.7447E-02   2.8114E-02   1.7184E-04  0.1317
   2.8114E-02   2.8799E-02   1.8127E-04  0.1270
   2.8799E-02   2.9499E-02   1.5699E-04  0.1348
   2.9499E-02   3.0217E-02   2.1018E-04  0.1149
   3.0217E-02   3.0952E-02   1.8403E-04  0.1212
   3.0952E-02   3.1705E-02   1.5972E-04  0.1288
   3.1705E-02   3.2477E-02   1.6838E-04  0.1235
   3.2477E-02   3.3267E-02   1.8477E-04  0.1170
   3.3267E-02   3.4076E-02   1.5196E-04  0.1273
   3.4076E-02   3.4905E-02   1.5163E-04  0.1256
   3.4905E-02   3.5755E-02   2.0059E-04  0.1083
   3.5755E-02   3.6625E-02   1.3364E-04  0.1310
   3.6625E-02   3.7516E-02   1.3130E-04  0.1305
   3.7516E-02   3.8428E-02   1.2967E-04  0.1298
   3.8428E-02   3.9363E-02   1.2370E-04  0.1307
   3.9363E-02   4.0321E-02   1.5557E-04  0.1157
   4.0321E-02   4.1302E-02   1.3415E-04  0.1228
   4.1302E-02   4.2307E-02   1.3932E-04  0.1195
   4.2307E-02   4.3337E-02   1.2857E-04  0.1223
   4.3337E-02   4.4391E-02   1.4923E-04  0.1125
   4.4391E-02   4.5471E-02   1.3333E-04  0.1179
   4.5471E-02   4.6577E-02   1.2509E-04  0.1196
   4.6577E-02   4.7711E-02   1.2493E-04  0.1184
   4.7711E-02   4.8871E-02   1.3891E-04  0.1111
   4.8871E-02   5.0061E-02   1.3429E-04  0.1115
   5.0061E-02   5.1279E-02   1.1733E-04  0.1176
   5.1279E-02   5.2526E-02   8.7971E-05  0.1341
   5.2526E-02   5.3804E-02   9.0963E-05  0.1310
   5.3804E-02   5.5113E-02   1.0389E-04  0.1213
   5.5113E-02   5.6454E-02   9.6883E-05  0.1235
   5.6454E-02   5.7828E-02   1.1209E-04  0.1135
   5.7828E-02   5.9235E-02   8.3051E-05  0.1304
   5.9235E-02   6.0676E-02   1.3139E-04  0.1025
   6.0676E-02   6.2152E-02   9.2122E-05  0.1213
   6.2152E-02   6.3665E-02   8.3540E-05  0.1257
   6.3665E-02   6.5214E-02   7.2261E-05  0.1329
   6.5214E-02   6.6800E-02   9.9578E-05  0.1125
   6.6800E-02   6.8426E-02   7.3628E-05  0.1287
   6.8426E-02   7.0090E-02   9.0489E-05  0.1150
   7.0090E-02   7.1796E-02   7.1539E-05  0.1280
   7.1796E-02   7.3543E-02   7.9209E-05  0.1201
   7.3543E-02   7.5332E-02   7.2420E-05  0.1238
   7.5332E-02   7.7165E-02   8.6428E-05  0.1122
   7.7165E-02   7.9042E-02   8.5395E-05  0.1116
   7.9042E-02   8.0965E-02   8.6368E-05  0.1092
   8.0965E-02   8.2935E-02   7.3648E-05  0.1171
   8.2935E-02   8.4953E-02   7.2542E-05  0.1168
   8.4953E-02   8.7020E-02   9.4824E-05  0.1010
   8.7020E-02   8.9138E-02   8.4070E-05  0.1060
   8.9138E-02   9.1306E-02   7.3918E-05  0.1116
   9.1306E-02   9.3528E-02   6.7661E-05  0.1149
   9.3528E-02   9.5804E-02   6.2798E-05  0.1180
   9.5804E-02   9.8134E-02   6.2186E-05  0.1171
   9.8134E-02   1.0052E-01   6.2635E-05  0.1153
   1.0052E-01   1.0297E-01   6.3506E-05  0.1132
   1.0297E-01   1.0547E-01   7.2646E-05  0.1048
   1.0547E-01   1.0804E-01   6.2867E-05  0.1111
   1.0804E-01   1.1067E-01   4.9835E-05  0.1233
   1.1067E-01   1.1336E-01   5.8787E-05  0.1123
   1.1336E-01   1.1612E-01   5.0523E-05  0.1193
   1.1612E-01   1.1894E-01   5.5449E-05  0.1128
   1.1894E-01   1.2184E-01   5.5632E-05  0.1113
   1.2184E-01   1.2480E-01   5.1275E-05  0.1147
   1.2480E-01   1.2784E-01   4.6428E-05  0.1188
   1.2784E-01   1.3095E-01   4.9832E-05  0.1134
   1.3095E-01   1.3414E-01   5.5868E-05  0.1060
   1.3414E-01   1.3740E-01   5.0992E-05  0.1095
   1.3740E-01   1.4074E-01   4.0852E-05  0.1208
   1.4074E-01   1.4417E-01   4.3297E-05  0.1157
   1.4417E-01   1.4767E-01   3.8487E-05  0.1215
   1.4767E-01   1.5127E-01   4.0284E-05  0.1173
   1.5127E-01   1.5495E-01   4.2016E-05  0.1135
   1.5495E-01   1.5872E-01   4.0585E-05  0.1140
   1.5872E-01   1.6258E-01   3.7468E-05  0.1168
   1.6258E-01   1.6654E-01   4.2109E-05  0.1094
   1.6654E-01   1.7059E-01   3.9551E-05  0.1116
   1.7059E-01   1.7474E-01   4.4326E-05  0.1039
   1.7474E-01   1.7899E-01   3.3806E-05  0.1175
   1.7899E-01   1.8334E-01   3.7829E-05  0.1100
   1.8334E-01   1.8781E-01   3.0400E-05  0.1210
   1.8781E-01   1.9237E-01   3.1652E-05  0.1170
   1.9237E-01   1.9706E-01   2.8198E-05  0.1225
   1.9706E-01   2.0185E-01   2.9617E-05  0.1187
   2.0185E-01   2.0676E-01   2.9117E-05  0.1181
   2.0676E-01   2.1179E-01   2.7964E-05  0.1186
   2.1179E-01   2.1694E-01   3.6033E-05  0.1032
   2.1694E-01   2.2222E-01   3.1377E-05  0.1095
   2.2222E-01   2.2763E-01   2.9777E-05  0.1113
   2.2763E-01   2.3317E-01   2.9791E-05  0.1095
   2.3317E-01   2.3884E-01   3.3966E-05  0.1014
   2.3884E-01   2.4465E-01   3.7742E-05  0.0951
   2.4465E-01   2.5061E-01   3.3785E-05  0.0993
   2.5061E-01   2.5670E-01   3.4814E-05  0.0967
   2.5670E-01   2.6295E-01   3.6874E-05  0.0927
   2.6295E-01   2.6935E-01   3.4456E-05  0.0948
   2.6935E-01   2.7590E-01   4.0842E-05  0.0863
   2.7590E-01   2.8261E-01   4.5040E-05  0.0810
   2.8261E-01   2.8949E-01   4.1550E-05  0.0833
   2.8949E-01   2.9653E-01   3.7892E-05  0.0863
   2.9653E-01   3.0375E-01   4.7297E-05  0.0763
   3.0375E-01   3.1114E-01   4.1724E-05  0.0804
   3.1114E-01   3.1871E-01   4.8381E-05  0.0737
   3.1871E-01   3.2646E-01   4.3935E-05  0.0764
   3.2646E-01   3.3441E-01   4.2506E-05  0.0768
   3.3441E-01   3.4254E-01   4.5180E-05  0.0733
   3.4254E-01   3.5088E-01   4.4788E-05  0.0730
   3.5088E-01   3.5941E-01   4.7889E-05  0.0696
   3.5941E-01   3.6816E-01   4.5786E-05  0.0705
   3.6816E-01   3.7712E-01   4.7523E-05  0.0682
   3.7712E-01   3.8629E-01   4.5253E-05  0.0691
   3.8629E-01   3.9569E-01   4.3714E-05  0.0695
   3.9569E-01   4.0532E-01   4.3944E-05  0.0684
   4.0532E-01   4.1518E-01   4.7047E-05  0.0655
   4.1518E-01   4.2528E-01   4.8452E-05  0.0636
   4.2528E-01   4.3563E-01   4.7733E-05  0.0633
   4.3563E-01   4.4623E-01   4.4464E-05  0.0649
   4.4623E-01   4.5708E-01   5.1561E-05  0.0596
   4.5708E-01   4.6821E-01   5.0223E-05  0.0595
   4.6821E-01   4.7960E-01   4.2295E-05  0.0640
   4.7960E-01   4.9127E-01   5.0070E-05  0.0583
   4.9127E-01   5.0322E-01   4.8464E-05  0.0584
   5.0322E-01   5.1546E-01   4.7803E-05  0.0581
   5.1546E-01   5.2800E-01   5.0655E-05  0.0558
   5.2800E-01   5.4085E-01   5.2258E-05  0.0543
   5.4085E-01   5.5401E-01   4.9708E-05  0.0551
   5.5401E-01   5.6749E-01   4.5636E-05  0.0566
   5.6749E-01   5.8130E-01   4.7132E-05  0.0552
   5.8130E-01   5.9544E-01   5.2337E-05  0.0517
   5.9544E-01   6.0993E-01   4.9962E-05  0.0522
   6.0993E-01   6.2477E-01   4.9614E-05  0.0518
   6.2477E-01   6.3997E-01   5.0905E-05  0.0506
   6.3997E-01   6.5554E-01   4.6396E-05  0.0522
   6.5554E-01   6.7149E-01   4.9509E-05  0.0500
   6.7149E-01   6.8783E-01   5.0189E-05  0.0491
   6.8783E-01   7.0456E-01   4.9650E-05  0.0487
   7.0456E-01   7.2171E-01   4.5242E-05  0.0502
   7.2171E-01   7.3927E-01   5.0393E-05  0.0472
   7.3927E-01   7.5725E-01   4.8365E-05  0.0475
   7.5725E-01   7.7568E-01   4.8645E-05  0.0469
   7.7568E-01   7.9455E-01   4.5417E-05  0.0480
   7.9455E-01   8.1388E-01   5.5614E-05  0.0429
   8.1388E-01   8.3368E-01   4.8899E-05  0.0451
   8.3368E-01   8.5397E-01   4.7910E-05  0.0450
   8.5397E-01   8.7475E-01   4.5156E-05  0.0458
   8.7475E-01   8.9603E-01   4.5857E-05  0.0449
   8.9603E-01   9.1783E-01   5.0421E-05  0.0424
   9.1783E-01   9.4016E-01   4.8831E-05  0.0425
   9.4016E-01   9.6304E-01   4.8912E-05  0.0419
   9.6304E-01   9.8647E-01   4.5679E-05  0.0429
   9.8647E-01   1.0105E+00   4.6299E-05  0.0421
   1.0105E+00   1.0351E+00   4.6046E-05  0.0417
   1.0351E+00   1.0602E+00   4.1812E-05  0.0432
   1.0602E+00   1.0860E+00   4.7906E-05  0.0399
   1.0860E+00   1.1125E+00   4.3038E-05  0.0415
   1.1125E+00   1.1395E+00   4.2024E-05  0.0415
   1.1395E+00   1.1673E+00   4.1522E-05  0.0414
   1.1673E+00   1.1957E+00   4.1413E-05  0.0408
   1.1957E+00   1.2247E+00   4.2082E-05  0.0401
   1.2247E+00   1.2545E+00   4.1559E-05  0.0398
   1.2545E+00   1.2851E+00   4.2084E-05  0.0390
   1.2851E+00   1.3163E+00   4.0318E-05  0.0394
   1.3163E+00   1.3484E+00   3.9854E-05  0.0392
   1.3484E+00   1.3812E+00   3.7304E-05  0.0400
   1.3812E+00   1.4148E+00   3.6643E-05  0.0400
   1.4148E+00   1.4492E+00   3.8548E-05  0.0385
   1.4492E+00   1.4845E+00   3.6120E-05  0.0392
   1.4845E+00   1.5206E+00   3.9172E-05  0.0373
   1.5206E+00   1.5576E+00   3.6045E-05  0.0383
   1.5576E+00   1.5955E+00   3.6861E-05  0.0374
   1.5955E+00   1.6343E+00   3.4883E-05  0.0379
   1.6343E+00   1.6741E+00   3.6658E-05  0.0367
   1.6741E+00   1.7148E+00   3.5397E-05  0.0368
   1.7148E+00   1.7565E+00   3.6322E-05  0.0360
   1.7565E+00   1.7992E+00   3.3202E-05  0.0371
   1.7992E+00   1.8430E+00   3.3646E-05  0.0364
   1.8430E+00   1.8879E+00   3.3230E-05  0.0362
   1.8879E+00   1.9338E+00   3.3406E-05  0.0358
   1.9338E+00   1.9808E+00   3.4254E-05  0.0348
   1.9808E+00   2.0290E+00   3.4705E-05  0.0342
   2.0290E+00   2.0784E+00   3.4550E-05  0.0339
   2.0784E+00   2.1290E+00   3.4410E-05  0.0336
   2.1290E+00   2.1808E+00   3.0998E-05  0.0349
   2.1808E+00   2.2338E+00   3.0063E-05  0.0351
   2.2338E+00   2.2882E+00   3.2380E-05  0.0334
   2.2882E+00   2.3439E+00   3.0163E-05  0.0342
   2.3439E+00   2.4009E+00   3.0504E-05  0.0336
   2.4009E+00   2.4593E+00   3.0040E-05  0.0334
   2.4593E+00   2.5191E+00   2.9157E-05  0.0336
   2.5191E+00   2.5804E+00   2.8547E-05  0.0335
   2.5804E+00   2.6432E+00   2.9955E-05  0.0323
   2.6432E+00   2.7075E+00   3.0779E-05  0.0315
   2.7075E+00   2.7734E+00   3.0552E-05  0.0313
   2.7734E+00   2.8409E+00   2.7989E-05  0.0323
   2.8409E+00   2.9100E+00   2.6300E-05  0.0329
   2.9100E+00   2.9808E+00   2.4501E-05  0.0336
   2.9808E+00   3.0533E+00   2.2917E-05  0.0344
   3.0533E+00   3.1276E+00   2.2711E-05  0.0341
   3.1276E+00   3.2037E+00   2.1405E-05  0.0347
   3.2037E+00   3.2817E+00   2.1490E-05  0.0343
   3.2817E+00   3.3615E+00   2.0231E-05  0.0349
   3.3615E+00   3.4433E+00   1.9826E-05  0.0348
   3.4433E+00   3.5271E+00   1.9317E-05  0.0348
   3.5271E+00   3.6129E+00   1.9913E-05  0.0339
   3.6129E+00   3.7008E+00   1.9678E-05  0.0337
   3.7008E+00   3.7908E+00   1.9045E-05  0.0339
   3.7908E+00   3.8831E+00   1.7306E-05  0.0352
   3.8831E+00   3.9776E+00   1.7648E-05  0.0344
   3.9776E+00   4.0743E+00   1.7506E-05  0.0341
   4.0743E+00   4.1735E+00   1.6758E-05  0.0344
   4.1735E+00   4.2750E+00   1.7779E-05  0.0330
   4.2750E+00   4.3790E+00   1.7175E-05  0.0332
   4.3790E+00   4.4856E+00   1.5903E-05  0.0341
   4.4856E+00   4.5947E+00   1.6126E-05  0.0335
   4.5947E+00   4.7065E+00   1.5646E-05  0.0336
   4.7065E+00   4.8210E+00   1.4752E-05  0.0342
   4.8210E+00   4.9383E+00   1.4987E-05  0.0335
   4.9383E+00   5.0585E+00   1.3777E-05  0.0346
   5.0585E+00   5.1815E+00   1.3468E-05  0.0346
   5.1815E+00   5.3076E+00   1.3466E-05  0.0341
   5.3076E+00   5.4368E+00   1.2978E-05  0.0344
   5.4368E+00   5.5690E+00   1.2450E-05  0.0347
   5.5690E+00   5.7045E+00   1.2143E-05  0.0347
   5.7045E+00   5.8433E+00   1.1162E-05  0.0358
   5.8433E+00   5.9855E+00   1.1698E-05  0.0345
   5.9855E+00   6.1311E+00   1.1549E-05  0.0344
   6.1311E+00   6.2803E+00   1.1490E-05  0.0341
   6.2803E+00   6.4331E+00   1.0468E-05  0.0353
   6.4331E+00   6.5896E+00   1.0449E-05  0.0349
   6.5896E+00   6.7500E+00   9.8968E-06  0.0354
   6.7500E+00   6.9142E+00   9.9638E-06  0.0349
   6.9142E+00   7.0824E+00   9.4439E-06  0.0354
   7.0824E+00   7.2548E+00   9.4424E-06  0.0350
   7.2548E+00   7.4313E+00   8.6806E-06  0.0360
   7.4313E+00   7.6121E+00   8.9022E-06  0.0352
   7.6121E+00   7.7973E+00   8.5109E-06  0.0356
   7.7973E+00   7.9870E+00   8.3670E-06  0.0354
   7.9870E+00   8.1813E+00   7.8134E-06  0.0362
   8.1813E+00   8.3804E+00   7.6066E-06  0.0363
   8.3804E+00   8.5843E+00   7.0059E-06  0.0374
   8.5843E+00   8.7931E+00   6.9314E-06  0.0371
   8.7931E+00   9.0071E+00   6.8809E-06  0.0368
   9.0071E+00   9.2262E+00   6.6623E-06  0.0370
   9.2262E+00   9.4507E+00   5.9279E-06  0.0387
   9.4507E+00   9.6807E+00   6.0744E-06  0.0378
   9.6807E+00   9.9162E+00   5.5205E-06  0.0392
   9.9162E+00   1.0157E+01   5.1278E-06  0.0402
   1.0157E+01   1.0405E+01   6.0162E-06  0.0366
   1.0405E+01   1.0658E+01   6.0809E-06  0.0360
   1.0658E+01   1.0917E+01   6.3320E-06  0.0349
   1.0917E+01   1.1183E+01   5.5824E-06  0.0367
   1.1183E+01   1.1455E+01   5.7161E-06  0.0358
   1.1455E+01   1.1733E+01   5.2361E-06  0.0370
   1.1733E+01   1.2019E+01   4.8400E-06  0.0380
   1.2019E+01   1.2311E+01   4.1719E-06  0.0405
   1.2311E+01   1.2611E+01   4.1056E-06  0.0403
   1.2611E+01   1.2918E+01   4.1302E-06  0.0397
   1.2918E+01   1.3232E+01   4.0221E-06  0.0397
   1.3232E+01   1.3554E+01   3.7098E-06  0.0408
   1.3554E+01   1.3884E+01   3.4937E-06  0.0416
   1.3884E+01   1.4222E+01   3.2545E-06  0.0426
   1.4222E+01   1.4568E+01   3.0961E-06  0.0432
   1.4568E+01   1.4922E+01   2.8872E-06  0.0442
   1.4922E+01   1.5285E+01   2.4625E-06  0.0473
   1.5285E+01   1.5657E+01   2.4283E-06  0.0470
   1.5657E+01   1.6038E+01   2.1919E-06  0.0489
   1.6038E+01   1.6428E+01   2.1641E-06  0.0486
   1.6428E+01   1.6828E+01   2.0083E-06  0.0499
   1.6828E+01   1.7237E+01   1.8814E-06  0.0509
   1.7237E+01   1.7657E+01   1.7263E-06  0.0526
   1.7657E+01   1.8086E+01   1.7784E-06  0.0512
   1.8086E+01   1.8526E+01   1.3544E-06  0.0579
   1.8526E+01   1.8977E+01   1.4154E-06  0.0560
   1.8977E+01   1.9439E+01   1.2222E-06  0.0595
   1.9439E+01   1.9912E+01   1.3363E-06  0.0563
   1.9912E+01   2.0396E+01   1.0857E-06  0.0617
   2.0396E+01   2.0893E+01   1.1808E-06  0.0584
   2.0893E+01   2.1401E+01   1.0151E-06  0.0623
   2.1401E+01   2.1922E+01   8.5270E-07  0.0671
   2.1922E+01   2.2455E+01   7.2745E-07  0.0718
   2.2455E+01   2.3001E+01   5.5642E-07  0.0811
   2.3001E+01   2.3561E+01   5.7179E-07  0.0791
   2.3561E+01   2.4134E+01   5.2681E-07  0.0814
   2.4134E+01   2.4721E+01   4.4618E-07  0.0874
   2.4721E+01   2.5323E+01   3.8571E-07  0.0928
   2.5323E+01   2.5939E+01   3.2136E-07  0.1005
   2.5939E+01   2.6570E+01   2.7887E-07  0.1066
   2.6570E+01   2.7217E+01   1.7634E-07  0.1325
   2.7217E+01   2.7879E+01   1.2685E-07  0.1543
   2.7879E+01   2.8557E+01   1.0320E-07  0.1690
   2.8557E+01   2.9252E+01   1.0650E-07  0.1644
   2.9252E+01   2.9964E+01   8.4302E-08  0.1826
   2.9964E+01   3.0693E+01   4.6637E-08  0.2425
   3.0693E+01   3.1440E+01   3.7494E-08  0.2673
   3.1440E+01   3.2205E+01   2.0916E-08  0.3536
   3.2205E+01   3.2988E+01   1.5315E-08  0.4082
   3.2988E+01   3.3791E+01   0.0000E+00  0.0000
   3.3791E+01   3.4613E+01   0.0000E+00  0.0000
   3.4613E+01   3.5455E+01   0.0000E+00  0.0000
   3.5455E+01   3.6318E+01   0.0000E+00  0.0000
   3.6318E+01   3.7201E+01   0.0000E+00  0.0000
   3.7201E+01   3.8106E+01   0.0000E+00  0.0000
   3.8106E+01   3.9034E+01   0.0000E+00  0.0000
   3.9034E+01   3.9983E+01   0.0000E+00  0.0000
   3.9983E+01   4.0956E+01   0.0000E+00  0.0000
   4.0956E+01   4.1953E+01   0.0000E+00  0.0000
   4.1953E+01   4.2973E+01   0.0000E+00  0.0000
   4.2973E+01   4.4019E+01   0.0000E+00  0.0000
   4.4019E+01   4.5090E+01   0.0000E+00  0.0000
   4.5090E+01   4.6187E+01   0.0000E+00  0.0000
   4.6187E+01   4.7311E+01   0.0000E+00  0.0000
   4.7311E+01   4.8462E+01   0.0000E+00  0.0000
   4.8462E+01   4.9641E+01   0.0000E+00  0.0000
   4.9641E+01   5.0849E+01   0.0000E+00  0.0000
   5.0849E+01   5.2086E+01   0.0000E+00  0.0000
   5.2086E+01   5.3353E+01   0.0000E+00  0.0000
   5.3353E+01   5.4651E+01   0.0000E+00  0.0000
   5.4651E+01   5.5981E+01   0.0000E+00  0.0000
   5.5981E+01   5.7343E+01   0.0000E+00  0.0000
   5.7343E+01   5.8738E+01   0.0000E+00  0.0000
   5.8738E+01   6.0168E+01   0.0000E+00  0.0000
   6.0168E+01   6.1632E+01   0.0000E+00  0.0000
   6.1632E+01   6.3131E+01   0.0000E+00  0.0000
   6.3131E+01   6.4667E+01   0.0000E+00  0.0000
   6.4667E+01   6.6240E+01   0.0000E+00  0.0000
   6.6240E+01   6.7852E+01   0.0000E+00  0.0000
   6.7852E+01   6.9503E+01   0.0000E+00  0.0000
   6.9503E+01   7.1194E+01   0.0000E+00  0.0000
   7.1194E+01   7.2926E+01   0.0000E+00  0.0000
   7.2926E+01   7.4701E+01   0.0000E+00  0.0000
   7.4701E+01   7.6518E+01   0.0000E+00  0.0000
   7.6518E+01   7.8380E+01   0.0000E+00  0.0000
   7.8380E+01   8.0287E+01   0.0000E+00  0.0000
   8.0287E+01   8.2240E+01   0.0000E+00  0.0000
   8.2240E+01   8.4241E+01   0.0000E+00  0.0000
   8.4241E+01   8.6291E+01   0.0000E+00  0.0000
   8.6291E+01   8.8391E+01   0.0000E+00  0.0000
   8.8391E+01   9.0541E+01   0.0000E+00  0.0000
   9.0541E+01   9.2744E+01   0.0000E+00  0.0000
   9.2744E+01   9.5001E+01   0.0000E+00  0.0000
   9.5001E+01   9.7312E+01   0.0000E+00  0.0000
   9.7312E+01   9.9680E+01   0.0000E+00  0.0000
   9.9680E+01   1.0211E+02   0.0000E+00  0.0000
   1.0211E+02   1.0459E+02   0.0000E+00  0.0000
   1.0459E+02   1.0713E+02   0.0000E+00  0.0000
   1.0713E+02   1.0974E+02   0.0000E+00  0.0000
   1.0974E+02   1.1241E+02   0.0000E+00  0.0000
   1.1241E+02   1.1515E+02   0.0000E+00  0.0000
   1.1515E+02   1.1795E+02   0.0000E+00  0.0000
   1.1795E+02   1.2082E+02   0.0000E+00  0.0000
   1.2082E+02   1.2376E+02   0.0000E+00  0.0000
   1.2376E+02   1.2677E+02   0.0000E+00  0.0000
   1.2677E+02   1.2985E+02   0.0000E+00  0.0000
   1.2985E+02   1.3301E+02   0.0000E+00  0.0000
   1.3301E+02   1.3625E+02   0.0000E+00  0.0000
   1.3625E+02   1.3956E+02   0.0000E+00  0.0000
   1.3956E+02   1.4296E+02   0.0000E+00  0.0000
   1.4296E+02   1.4644E+02   0.0000E+00  0.0000
   1.4644E+02   1.5000E+02   0.0000E+00  0.0000

#   sum over                 1.5878E-06
'no. =    1   reg = 125 - 225'
msuc: {\huge [t-cross] in region mesh}
msdr: {\it plotted by \ANGEL \version}
msdl: {\it calculated by \PHITS  3.26}
wt: s(0.7)
\vspace{-3}
  region surface crossing
  area  &=&   1.0000E+00 [cm^2]
e:
 
# Information for Restart Calculation
# This calculation was newly started
# istdev =  2 # 1:Batch variance, 2:History variance
# resc2  = 5.00000000000000000E+08 # Total source weight or Total source weight / maxcas
# resc3  = 5.00000000000000000E+08 # Total history number or Total batch number
# maxcas =   500000000 # History / Batch, only used for istdev=1
# bitrseed = 1011101111111101000111101101010011111001010110111001011111010111 # bit data of rseed
