[ T-Cross ]
    title = [t-cross] in region mesh
     mesh =  reg            # mesh type is region-wise
      reg =    1            # number of crossing regions
      non     r-from    r-to       area
      1       104       204        1.000000    
   e-type =    3            # e-mesh is log given by emin, emax and ne
     emin =  1.0000000E-02  # minimum value of e-mesh points
     emax =   150.0000      # maximum value of e-mesh points
#    edel =  2.4039514E-02  # mesh width of e-mesh points
       ne =    400          # number of e-mesh points
#    data = ( e(i), i = 1, ne + 1 )
#           1.00000E-02  1.02433E-02  1.04925E-02  1.07478E-02  1.10093E-02
#           1.12772E-02  1.15516E-02  1.18326E-02  1.21205E-02  1.24154E-02
#           1.27175E-02  1.30269E-02  1.33439E-02  1.36686E-02  1.40011E-02
#           1.43418E-02  1.46907E-02  1.50482E-02  1.54143E-02  1.57894E-02
#           1.61735E-02  1.65670E-02  1.69701E-02  1.73830E-02  1.78060E-02
#           1.82392E-02  1.86830E-02  1.91375E-02  1.96032E-02  2.00801E-02
#           2.05687E-02  2.10692E-02  2.15818E-02  2.21069E-02  2.26448E-02
#           2.31957E-02  2.37601E-02  2.43382E-02  2.49304E-02  2.55369E-02
#           2.61583E-02  2.67947E-02  2.74467E-02  2.81145E-02  2.87985E-02
#           2.94992E-02  3.02169E-02  3.09521E-02  3.17052E-02  3.24766E-02
#           3.32668E-02  3.40762E-02  3.49053E-02  3.57546E-02  3.66246E-02
#           3.75157E-02  3.84284E-02  3.93634E-02  4.03212E-02  4.13022E-02
#           4.23071E-02  4.33365E-02  4.43909E-02  4.54710E-02  4.65773E-02
#           4.77106E-02  4.88714E-02  5.00605E-02  5.12785E-02  5.25262E-02
#           5.38042E-02  5.51133E-02  5.64542E-02  5.78278E-02  5.92348E-02
#           6.06760E-02  6.21523E-02  6.36645E-02  6.52135E-02  6.68002E-02
#           6.84255E-02  7.00904E-02  7.17957E-02  7.35426E-02  7.53319E-02
#           7.71648E-02  7.90423E-02  8.09655E-02  8.29354E-02  8.49533E-02
#           8.70203E-02  8.91376E-02  9.13064E-02  9.35279E-02  9.58035E-02
#           9.81345E-02  1.00522E-01  1.02968E-01  1.05473E-01  1.08040E-01
#           1.10668E-01  1.13361E-01  1.16119E-01  1.18944E-01  1.21838E-01
#           1.24803E-01  1.27839E-01  1.30950E-01  1.34136E-01  1.37399E-01
#           1.40742E-01  1.44167E-01  1.47675E-01  1.51268E-01  1.54948E-01
#           1.58718E-01  1.62580E-01  1.66535E-01  1.70587E-01  1.74738E-01
#           1.78989E-01  1.83344E-01  1.87805E-01  1.92375E-01  1.97055E-01
#           2.01850E-01  2.06761E-01  2.11792E-01  2.16945E-01  2.22223E-01
#           2.27630E-01  2.33169E-01  2.38842E-01  2.44653E-01  2.50605E-01
#           2.56703E-01  2.62949E-01  2.69346E-01  2.75900E-01  2.82613E-01
#           2.89489E-01  2.96532E-01  3.03747E-01  3.11138E-01  3.18708E-01
#           3.26462E-01  3.34405E-01  3.42542E-01  3.50876E-01  3.59413E-01
#           3.68158E-01  3.77116E-01  3.86291E-01  3.95690E-01  4.05317E-01
#           4.15179E-01  4.25281E-01  4.35628E-01  4.46227E-01  4.57084E-01
#           4.68205E-01  4.79597E-01  4.91266E-01  5.03219E-01  5.15463E-01
#           5.28005E-01  5.40851E-01  5.54011E-01  5.67490E-01  5.81298E-01
#           5.95441E-01  6.09929E-01  6.24769E-01  6.39970E-01  6.55541E-01
#           6.71491E-01  6.87828E-01  7.04564E-01  7.21706E-01  7.39266E-01
#           7.57253E-01  7.75678E-01  7.94551E-01  8.13883E-01  8.33685E-01
#           8.53969E-01  8.74747E-01  8.96030E-01  9.17831E-01  9.40163E-01
#           9.63038E-01  9.86469E-01  1.01047E+00  1.03506E+00  1.06024E+00
#           1.08604E+00  1.11246E+00  1.13953E+00  1.16725E+00  1.19565E+00
#           1.22474E+00  1.25454E+00  1.28507E+00  1.31633E+00  1.34836E+00
#           1.38117E+00  1.41477E+00  1.44920E+00  1.48446E+00  1.52057E+00
#           1.55757E+00  1.59547E+00  1.63429E+00  1.67405E+00  1.71478E+00
#           1.75650E+00  1.79924E+00  1.84302E+00  1.88786E+00  1.93379E+00
#           1.98084E+00  2.02904E+00  2.07841E+00  2.12898E+00  2.18078E+00
#           2.23384E+00  2.28819E+00  2.34386E+00  2.40089E+00  2.45930E+00
#           2.51914E+00  2.58043E+00  2.64322E+00  2.70753E+00  2.77341E+00
#           2.84088E+00  2.91001E+00  2.98081E+00  3.05333E+00  3.12762E+00
#           3.20372E+00  3.28167E+00  3.36152E+00  3.44330E+00  3.52708E+00
#           3.61290E+00  3.70080E+00  3.79085E+00  3.88308E+00  3.97756E+00
#           4.07434E+00  4.17347E+00  4.27501E+00  4.37903E+00  4.48557E+00
#           4.59471E+00  4.70650E+00  4.82102E+00  4.93832E+00  5.05847E+00
#           5.18155E+00  5.30762E+00  5.43676E+00  5.56904E+00  5.70453E+00
#           5.84333E+00  5.98550E+00  6.13114E+00  6.28031E+00  6.43312E+00
#           6.58964E+00  6.74997E+00  6.91420E+00  7.08243E+00  7.25475E+00
#           7.43126E+00  7.61207E+00  7.79728E+00  7.98700E+00  8.18133E+00
#           8.38038E+00  8.58428E+00  8.79315E+00  9.00709E+00  9.22624E+00
#           9.45072E+00  9.68067E+00  9.91620E+00  1.01575E+01  1.04046E+01
#           1.06578E+01  1.09171E+01  1.11827E+01  1.14548E+01  1.17335E+01
#           1.20190E+01  1.23114E+01  1.26109E+01  1.29178E+01  1.32321E+01
#           1.35540E+01  1.38838E+01  1.42216E+01  1.45676E+01  1.49221E+01
#           1.52851E+01  1.56570E+01  1.60380E+01  1.64282E+01  1.68279E+01
#           1.72374E+01  1.76568E+01  1.80864E+01  1.85264E+01  1.89772E+01
#           1.94389E+01  1.99119E+01  2.03963E+01  2.08926E+01  2.14009E+01
#           2.19216E+01  2.24550E+01  2.30014E+01  2.35610E+01  2.41343E+01
#           2.47215E+01  2.53230E+01  2.59391E+01  2.65702E+01  2.72167E+01
#           2.78789E+01  2.85572E+01  2.92520E+01  2.99637E+01  3.06928E+01
#           3.14396E+01  3.22045E+01  3.29881E+01  3.37907E+01  3.46128E+01
#           3.54550E+01  3.63177E+01  3.72013E+01  3.81064E+01  3.90336E+01
#           3.99833E+01  4.09561E+01  4.19526E+01  4.29734E+01  4.40189E+01
#           4.50900E+01  4.61870E+01  4.73108E+01  4.84619E+01  4.96410E+01
#           5.08488E+01  5.20860E+01  5.33533E+01  5.46514E+01  5.59812E+01
#           5.73432E+01  5.87384E+01  6.01676E+01  6.16315E+01  6.31311E+01
#           6.46671E+01  6.62405E+01  6.78522E+01  6.95031E+01  7.11941E+01
#           7.29263E+01  7.47007E+01  7.65182E+01  7.83800E+01  8.02870E+01
#           8.22405E+01  8.42414E+01  8.62911E+01  8.83906E+01  9.05412E+01
#           9.27442E+01  9.50007E+01  9.73122E+01  9.96799E+01  1.02105E+02
#           1.04589E+02  1.07134E+02  1.09741E+02  1.12411E+02  1.15146E+02
#           1.17948E+02  1.20817E+02  1.23757E+02  1.26768E+02  1.29852E+02
#           1.33012E+02  1.36248E+02  1.39563E+02  1.42959E+02  1.46437E+02
#           1.50000E+02
     unit =    2            # unit is [1/cm^2/(MeV/n)/source]
     axis =  eng            # axis of output
     file = detector-05.out  # file name of output for the above axis
   output = f-curr          # surface crossing forward current spectrum
     part =  neutron  
# kf/name :  2112     
#    used :        main (  %)        temp (  %)       total (  %)
#  memory :         414 (  0)           0 (  0)         414 (  0)

#------------------------------------------------------------------------------
#newpage:
#   no. =    1   reg = 104 - 204

x: Energy [MeV/n]
y:  F-Curr [1/cm^2/(MeV/n)/source]         
p: xlog ylog afac(0.8) form(0.9)
h: n            x            y(neutron ),hh0l   n 
#  e-lower      e-upper      neutron     r.err 
   1.0000E-02   1.0243E-02   2.8954E-05  0.1654
   1.0243E-02   1.0493E-02   3.0494E-05  0.1622
   1.0493E-02   1.0748E-02   2.8084E-05  0.1658
   1.0748E-02   1.1009E-02   3.5870E-05  0.1443
   1.1009E-02   1.1277E-02   4.2339E-05  0.1322
   1.1277E-02   1.1552E-02   3.2436E-05  0.1495
   1.1552E-02   1.1833E-02   2.5964E-05  0.1636
   1.1833E-02   1.2121E-02   2.4609E-05  0.1672
   1.2121E-02   1.2415E-02   2.7128E-05  0.1581
   1.2415E-02   1.2718E-02   2.5537E-05  0.1587
   1.2718E-02   1.3027E-02   3.2740E-05  0.1400
   1.3027E-02   1.3344E-02   2.2405E-05  0.1668
   1.3344E-02   1.3669E-02   2.3584E-05  0.1598
   1.3669E-02   1.4001E-02   2.8126E-05  0.1453
   1.4001E-02   1.4342E-02   2.1621E-05  0.1636
   1.4342E-02   1.4691E-02   2.1877E-05  0.1577
   1.4691E-02   1.5048E-02   2.3901E-05  0.1520
   1.5048E-02   1.5414E-02   2.4969E-05  0.1462
   1.5414E-02   1.5789E-02   2.1757E-05  0.1556
   1.5789E-02   1.6174E-02   2.2200E-05  0.1525
   1.6174E-02   1.6567E-02   2.6775E-05  0.1370
   1.6567E-02   1.6970E-02   2.4596E-05  0.1407
   1.6970E-02   1.7383E-02   2.4771E-05  0.1397
   1.7383E-02   1.7806E-02   2.0633E-05  0.1505
   1.7806E-02   1.8239E-02   1.6077E-05  0.1679
   1.8239E-02   1.8683E-02   1.4422E-05  0.1754
   1.8683E-02   1.9138E-02   2.4594E-05  0.1331
   1.9138E-02   1.9603E-02   2.1473E-05  0.1398
   1.9603E-02   2.0080E-02   1.6110E-05  0.1596
   2.0080E-02   2.0569E-02   1.7398E-05  0.1529
   2.0569E-02   2.1069E-02   1.3729E-05  0.1699
   2.1069E-02   2.1582E-02   1.8391E-05  0.1445
   2.1582E-02   2.2107E-02   1.7058E-05  0.1484
   2.2107E-02   2.2645E-02   1.7775E-05  0.1437
   2.2645E-02   2.3196E-02   1.4196E-05  0.1581
   2.3196E-02   2.3760E-02   1.6286E-05  0.1465
   2.3760E-02   2.4338E-02   1.6197E-05  0.1444
   2.4338E-02   2.4930E-02   1.4232E-05  0.1538
   2.4930E-02   2.5537E-02   1.3319E-05  0.1554
   2.5537E-02   2.6158E-02   1.8024E-05  0.1329
   2.6158E-02   2.6795E-02   1.7798E-05  0.1315
   2.6795E-02   2.7447E-02   1.3191E-05  0.1516
   2.7447E-02   2.8114E-02   1.1913E-05  0.1573
   2.8114E-02   2.8799E-02   1.0446E-05  0.1660
   2.8799E-02   2.9499E-02   1.3404E-05  0.1440
   2.9499E-02   3.0217E-02   1.2732E-05  0.1470
   3.0217E-02   3.0952E-02   1.2145E-05  0.1488
   3.0952E-02   3.1705E-02   1.3231E-05  0.1399
   3.1705E-02   3.2477E-02   1.2798E-05  0.1399
   3.2477E-02   3.3267E-02   1.3600E-05  0.1357
   3.3267E-02   3.4076E-02   9.7924E-06  0.1579
   3.4076E-02   3.4905E-02   9.1109E-06  0.1592
   3.4905E-02   3.5755E-02   1.0305E-05  0.1502
   3.5755E-02   3.6625E-02   1.1072E-05  0.1431
   3.6625E-02   3.7516E-02   9.1874E-06  0.1552
   3.7516E-02   3.8428E-02   1.0865E-05  0.1413
   3.8428E-02   3.9363E-02   8.2465E-06  0.1601
   3.9363E-02   4.0321E-02   1.1842E-05  0.1314
   4.0321E-02   4.1302E-02   9.7597E-06  0.1427
   4.1302E-02   4.2307E-02   9.9495E-06  0.1405
   4.2307E-02   4.3337E-02   9.3135E-06  0.1436
   4.3337E-02   4.4391E-02   9.9257E-06  0.1369
   4.4391E-02   4.5471E-02   5.6921E-06  0.1791
   4.5471E-02   4.6577E-02   1.1918E-05  0.1209
   4.6577E-02   4.7711E-02   7.7085E-06  0.1503
   4.7711E-02   4.8871E-02   8.8111E-06  0.1397
   4.8871E-02   5.0061E-02   8.6137E-06  0.1387
   5.0061E-02   5.1279E-02   8.9086E-06  0.1349
   5.1279E-02   5.2526E-02   7.4598E-06  0.1459
   5.2526E-02   5.3804E-02   6.9874E-06  0.1490
   5.3804E-02   5.5113E-02   7.1393E-06  0.1454
   5.5113E-02   5.6454E-02   8.4711E-06  0.1314
   5.6454E-02   5.7828E-02   8.6542E-06  0.1288
   5.7828E-02   5.9235E-02   5.1554E-06  0.1641
   5.9235E-02   6.0676E-02   7.0576E-06  0.1384
   6.0676E-02   6.2152E-02   8.3597E-06  0.1262
   6.2152E-02   6.3665E-02   5.7270E-06  0.1495
   6.3665E-02   6.5214E-02   6.0540E-06  0.1449
   6.5214E-02   6.6800E-02   5.9034E-06  0.1453
   6.6800E-02   6.8426E-02   5.5246E-06  0.1483
   6.8426E-02   7.0090E-02   6.2499E-06  0.1376
   7.0090E-02   7.1796E-02   6.4031E-06  0.1340
   7.1796E-02   7.3543E-02   5.7485E-06  0.1409
   7.3543E-02   7.5332E-02   5.9719E-06  0.1354
   7.5332E-02   7.7165E-02   5.5497E-06  0.1384
   7.7165E-02   7.9042E-02   6.7408E-06  0.1248
   7.9042E-02   8.0965E-02   4.9643E-06  0.1433
   8.0965E-02   8.2935E-02   4.7324E-06  0.1457
   8.2935E-02   8.4953E-02   6.2281E-06  0.1250
   8.4953E-02   8.7020E-02   5.5687E-06  0.1300
   8.7020E-02   8.9138E-02   4.9475E-06  0.1367
   8.9138E-02   9.1306E-02   4.5436E-06  0.1422
   9.1306E-02   9.3528E-02   4.7994E-06  0.1356
   9.3528E-02   9.5804E-02   4.5248E-06  0.1388
   9.5804E-02   9.8134E-02   3.9702E-06  0.1456
   9.8134E-02   1.0052E-01   3.5986E-06  0.1514
   1.0052E-01   1.0297E-01   4.4170E-06  0.1352
   1.0297E-01   1.0547E-01   5.0683E-06  0.1246
   1.0547E-01   1.0804E-01   3.5619E-06  0.1470
   1.0804E-01   1.1067E-01   3.8294E-06  0.1397
   1.1067E-01   1.1336E-01   3.6365E-06  0.1420
   1.1336E-01   1.1612E-01   4.3145E-06  0.1294
   1.1612E-01   1.1894E-01   2.8617E-06  0.1566
   1.1894E-01   1.2184E-01   3.0004E-06  0.1501
   1.2184E-01   1.2480E-01   3.3414E-06  0.1403
   1.2480E-01   1.2784E-01   4.3903E-06  0.1208
   1.2784E-01   1.3095E-01   3.1377E-06  0.1413
   1.3095E-01   1.3414E-01   3.2908E-06  0.1377
   1.3414E-01   1.3740E-01   2.3497E-06  0.1598
   1.3740E-01   1.4074E-01   3.4321E-06  0.1311
   1.4074E-01   1.4417E-01   3.7517E-06  0.1233
   1.4417E-01   1.4767E-01   3.4233E-06  0.1275
   1.4767E-01   1.5127E-01   2.5511E-06  0.1469
   1.5127E-01   1.5495E-01   3.3009E-06  0.1270
   1.5495E-01   1.5872E-01   3.3067E-06  0.1256
   1.5872E-01   1.6258E-01   2.5455E-06  0.1408
   1.6258E-01   1.6654E-01   3.5446E-06  0.1188
   1.6654E-01   1.7059E-01   2.4819E-06  0.1397
   1.7059E-01   1.7474E-01   2.5638E-06  0.1360
   1.7474E-01   1.7899E-01   2.4017E-06  0.1390
   1.7899E-01   1.8334E-01   2.8746E-06  0.1259
   1.8334E-01   1.8781E-01   2.8793E-06  0.1238
   1.8781E-01   1.9237E-01   2.8367E-06  0.1229
   1.9237E-01   1.9706E-01   2.7693E-06  0.1236
   1.9706E-01   2.0185E-01   2.8636E-06  0.1202
   2.0185E-01   2.0676E-01   2.8954E-06  0.1172
   2.0676E-01   2.1179E-01   2.7488E-06  0.1197
   2.1179E-01   2.1694E-01   3.8963E-06  0.0990
   2.1694E-01   2.2222E-01   2.7913E-06  0.1156
   2.2222E-01   2.2763E-01   3.9777E-06  0.0960
   2.2763E-01   2.3317E-01   3.2566E-06  0.1044
   2.3317E-01   2.3884E-01   3.7545E-06  0.0964
   2.3884E-01   2.4465E-01   3.2774E-06  0.1016
   2.4465E-01   2.5061E-01   3.5904E-06  0.0959
   2.5061E-01   2.5670E-01   4.2463E-06  0.0875
   2.5670E-01   2.6295E-01   4.1980E-06  0.0868
   2.6295E-01   2.6935E-01   4.6972E-06  0.0809
   2.6935E-01   2.7590E-01   5.3437E-06  0.0749
   2.7590E-01   2.8261E-01   5.3310E-06  0.0742
   2.8261E-01   2.8949E-01   4.4046E-06  0.0806
   2.8949E-01   2.9653E-01   6.0355E-06  0.0681
   2.9653E-01   3.0375E-01   5.6351E-06  0.0695
   3.0375E-01   3.1114E-01   5.9735E-06  0.0669
   3.1114E-01   3.1871E-01   5.6486E-06  0.0679
   3.1871E-01   3.2646E-01   5.8485E-06  0.0661
   3.2646E-01   3.3441E-01   5.8229E-06  0.0653
   3.3441E-01   3.4254E-01   7.7234E-06  0.0561
   3.4254E-01   3.5088E-01   7.7827E-06  0.0552
   3.5088E-01   3.5941E-01   7.9451E-06  0.0540
   3.5941E-01   3.6816E-01   7.9503E-06  0.0534
   3.6816E-01   3.7712E-01   7.8826E-06  0.0528
   3.7712E-01   3.8629E-01   8.1606E-06  0.0514
   3.8629E-01   3.9569E-01   9.0674E-06  0.0482
   3.9569E-01   4.0532E-01   8.4148E-06  0.0494
   4.0532E-01   4.1518E-01   9.4263E-06  0.0461
   4.1518E-01   4.2528E-01   8.9429E-06  0.0468
   4.2528E-01   4.3563E-01   9.4899E-06  0.0448
   4.3563E-01   4.4623E-01   1.0560E-05  0.0420
   4.4623E-01   4.5708E-01   1.1222E-05  0.0403
   4.5708E-01   4.6821E-01   1.2615E-05  0.0376
   4.6821E-01   4.7960E-01   1.2245E-05  0.0376
   4.7960E-01   4.9127E-01   1.2273E-05  0.0372
   4.9127E-01   5.0322E-01   1.2957E-05  0.0357
   5.0322E-01   5.1546E-01   1.3773E-05  0.0342
   5.1546E-01   5.2800E-01   1.4837E-05  0.0326
   5.2800E-01   5.4085E-01   1.3714E-05  0.0335
   5.4085E-01   5.5401E-01   1.5203E-05  0.0315
   5.5401E-01   5.6749E-01   1.5248E-05  0.0310
   5.6749E-01   5.8130E-01   1.5991E-05  0.0300
   5.8130E-01   5.9544E-01   1.5792E-05  0.0298
   5.9544E-01   6.0993E-01   1.7313E-05  0.0281
   6.0993E-01   6.2477E-01   1.7744E-05  0.0274
   6.2477E-01   6.3997E-01   1.8790E-05  0.0263
   6.3997E-01   6.5554E-01   1.8378E-05  0.0263
   6.5554E-01   6.7149E-01   1.9145E-05  0.0255
   6.7149E-01   6.8783E-01   2.0001E-05  0.0246
   6.8783E-01   7.0456E-01   2.0024E-05  0.0243
   7.0456E-01   7.2171E-01   1.9918E-05  0.0241
   7.2171E-01   7.3927E-01   2.1469E-05  0.0229
   7.3927E-01   7.5725E-01   2.2794E-05  0.0220
   7.5725E-01   7.7568E-01   2.2673E-05  0.0218
   7.7568E-01   7.9455E-01   2.3268E-05  0.0213
   7.9455E-01   8.1388E-01   2.4597E-05  0.0204
   8.1388E-01   8.3368E-01   2.4220E-05  0.0203
   8.3368E-01   8.5397E-01   2.5649E-05  0.0195
   8.5397E-01   8.7475E-01   2.6202E-05  0.0191
   8.7475E-01   8.9603E-01   2.8526E-05  0.0181
   8.9603E-01   9.1783E-01   2.8550E-05  0.0179
   9.1783E-01   9.4016E-01   2.9601E-05  0.0173
   9.4016E-01   9.6304E-01   2.9400E-05  0.0172
   9.6304E-01   9.8647E-01   3.0115E-05  0.0168
   9.8647E-01   1.0105E+00   3.1322E-05  0.0163
   1.0105E+00   1.0351E+00   3.0572E-05  0.0163
   1.0351E+00   1.0602E+00   3.0845E-05  0.0160
   1.0602E+00   1.0860E+00   3.1567E-05  0.0156
   1.0860E+00   1.1125E+00   3.2146E-05  0.0153
   1.1125E+00   1.1395E+00   3.2172E-05  0.0151
   1.1395E+00   1.1673E+00   3.3236E-05  0.0147
   1.1673E+00   1.1957E+00   3.3404E-05  0.0145
   1.1957E+00   1.2247E+00   3.3207E-05  0.0143
   1.2247E+00   1.2545E+00   3.3352E-05  0.0141
   1.2545E+00   1.2851E+00   3.3866E-05  0.0139
   1.2851E+00   1.3163E+00   3.3009E-05  0.0139
   1.3163E+00   1.3484E+00   3.3557E-05  0.0136
   1.3484E+00   1.3812E+00   3.4709E-05  0.0132
   1.3812E+00   1.4148E+00   3.4945E-05  0.0130
   1.4148E+00   1.4492E+00   3.6033E-05  0.0126
   1.4492E+00   1.4845E+00   3.5610E-05  0.0126
   1.4845E+00   1.5206E+00   3.7341E-05  0.0121
   1.5206E+00   1.5576E+00   3.6375E-05  0.0121
   1.5576E+00   1.5955E+00   3.5764E-05  0.0121
   1.5955E+00   1.6343E+00   3.6075E-05  0.0119
   1.6343E+00   1.6741E+00   3.6092E-05  0.0118
   1.6741E+00   1.7148E+00   3.6667E-05  0.0115
   1.7148E+00   1.7565E+00   3.6353E-05  0.0114
   1.7565E+00   1.7992E+00   3.7146E-05  0.0112
   1.7992E+00   1.8430E+00   3.6903E-05  0.0111
   1.8430E+00   1.8879E+00   3.7117E-05  0.0109
   1.8879E+00   1.9338E+00   3.6694E-05  0.0109
   1.9338E+00   1.9808E+00   3.7486E-05  0.0106
   1.9808E+00   2.0290E+00   3.7459E-05  0.0105
   2.0290E+00   2.0784E+00   3.8056E-05  0.0103
   2.0784E+00   2.1290E+00   3.7948E-05  0.0102
   2.1290E+00   2.1808E+00   3.7556E-05  0.0101
   2.1808E+00   2.2338E+00   3.6588E-05  0.0101
   2.2338E+00   2.2882E+00   3.6673E-05  0.0100
   2.2882E+00   2.3439E+00   3.7291E-05  0.0098
   2.3439E+00   2.4009E+00   3.6855E-05  0.0097
   2.4009E+00   2.4593E+00   3.8244E-05  0.0094
   2.4593E+00   2.5191E+00   3.8173E-05  0.0093
   2.5191E+00   2.5804E+00   3.8362E-05  0.0092
   2.5804E+00   2.6432E+00   3.7748E-05  0.0092
   2.6432E+00   2.7075E+00   3.6708E-05  0.0092
   2.7075E+00   2.7734E+00   3.7359E-05  0.0090
   2.7734E+00   2.8409E+00   3.7281E-05  0.0089
   2.8409E+00   2.9100E+00   3.7082E-05  0.0088
   2.9100E+00   2.9808E+00   3.6820E-05  0.0087
   2.9808E+00   3.0533E+00   3.8505E-05  0.0084
   3.0533E+00   3.1276E+00   3.7485E-05  0.0085
   3.1276E+00   3.2037E+00   3.7436E-05  0.0084
   3.2037E+00   3.2817E+00   3.7774E-05  0.0082
   3.2817E+00   3.3615E+00   3.8502E-05  0.0080
   3.3615E+00   3.4433E+00   3.8134E-05  0.0080
   3.4433E+00   3.5271E+00   3.8237E-05  0.0079
   3.5271E+00   3.6129E+00   3.8123E-05  0.0078
   3.6129E+00   3.7008E+00   3.8476E-05  0.0077
   3.7008E+00   3.7908E+00   3.7970E-05  0.0076
   3.7908E+00   3.8831E+00   3.7729E-05  0.0076
   3.8831E+00   3.9776E+00   3.8012E-05  0.0074
   3.9776E+00   4.0743E+00   3.9060E-05  0.0073
   4.0743E+00   4.1735E+00   3.9978E-05  0.0071
   4.1735E+00   4.2750E+00   4.0341E-05  0.0070
   4.2750E+00   4.3790E+00   4.0457E-05  0.0069
   4.3790E+00   4.4856E+00   4.0352E-05  0.0068
   4.4856E+00   4.5947E+00   4.0068E-05  0.0068
   4.5947E+00   4.7065E+00   4.0152E-05  0.0067
   4.7065E+00   4.8210E+00   4.0071E-05  0.0066
   4.8210E+00   4.9383E+00   3.9959E-05  0.0065
   4.9383E+00   5.0585E+00   3.9942E-05  0.0064
   5.0585E+00   5.1815E+00   4.0090E-05  0.0064
   5.1815E+00   5.3076E+00   4.0075E-05  0.0063
   5.3076E+00   5.4368E+00   3.9664E-05  0.0062
   5.4368E+00   5.5690E+00   3.9740E-05  0.0062
   5.5690E+00   5.7045E+00   3.9359E-05  0.0061
   5.7045E+00   5.8433E+00   3.9082E-05  0.0061
   5.8433E+00   5.9855E+00   3.8921E-05  0.0060
   5.9855E+00   6.1311E+00   3.8142E-05  0.0060
   6.1311E+00   6.2803E+00   3.8244E-05  0.0059
   6.2803E+00   6.4331E+00   3.7668E-05  0.0059
   6.4331E+00   6.5896E+00   3.7332E-05  0.0058
   6.5896E+00   6.7500E+00   3.6726E-05  0.0058
   6.7500E+00   6.9142E+00   3.6580E-05  0.0058
   6.9142E+00   7.0824E+00   3.6452E-05  0.0057
   7.0824E+00   7.2548E+00   3.5404E-05  0.0057
   7.2548E+00   7.4313E+00   3.4703E-05  0.0057
   7.4313E+00   7.6121E+00   3.4723E-05  0.0056
   7.6121E+00   7.7973E+00   3.3725E-05  0.0057
   7.7973E+00   7.9870E+00   3.2841E-05  0.0057
   7.9870E+00   8.1813E+00   3.2469E-05  0.0056
   8.1813E+00   8.3804E+00   3.1529E-05  0.0056
   8.3804E+00   8.5843E+00   3.1052E-05  0.0056
   8.5843E+00   8.7931E+00   3.0099E-05  0.0056
   8.7931E+00   9.0071E+00   2.9452E-05  0.0056
   9.0071E+00   9.2262E+00   2.8508E-05  0.0057
   9.2262E+00   9.4507E+00   2.7417E-05  0.0057
   9.4507E+00   9.6807E+00   2.6467E-05  0.0057
   9.6807E+00   9.9162E+00   2.5884E-05  0.0057
   9.9162E+00   1.0157E+01   2.4926E-05  0.0058
   1.0157E+01   1.0405E+01   2.3899E-05  0.0058
   1.0405E+01   1.0658E+01   2.2951E-05  0.0059
   1.0658E+01   1.0917E+01   2.2167E-05  0.0059
   1.0917E+01   1.1183E+01   2.1186E-05  0.0060
   1.1183E+01   1.1455E+01   2.0099E-05  0.0060
   1.1455E+01   1.1733E+01   1.9160E-05  0.0061
   1.1733E+01   1.2019E+01   1.8252E-05  0.0062
   1.2019E+01   1.2311E+01   1.7003E-05  0.0063
   1.2311E+01   1.2611E+01   1.6317E-05  0.0064
   1.2611E+01   1.2918E+01   1.5409E-05  0.0065
   1.2918E+01   1.3232E+01   1.4516E-05  0.0066
   1.3232E+01   1.3554E+01   1.3492E-05  0.0068
   1.3554E+01   1.3884E+01   1.2754E-05  0.0069
   1.3884E+01   1.4222E+01   1.1943E-05  0.0070
   1.4222E+01   1.4568E+01   1.1171E-05  0.0072
   1.4568E+01   1.4922E+01   1.0519E-05  0.0073
   1.4922E+01   1.5285E+01   9.9807E-06  0.0074
   1.5285E+01   1.5657E+01   9.3904E-06  0.0076
   1.5657E+01   1.6038E+01   8.7854E-06  0.0077
   1.6038E+01   1.6428E+01   8.2255E-06  0.0079
   1.6428E+01   1.6828E+01   7.5879E-06  0.0081
   1.6828E+01   1.7237E+01   7.3277E-06  0.0082
   1.7237E+01   1.7657E+01   6.9136E-06  0.0083
   1.7657E+01   1.8086E+01   6.4446E-06  0.0085
   1.8086E+01   1.8526E+01   6.2160E-06  0.0086
   1.8526E+01   1.8977E+01   5.8869E-06  0.0087
   1.8977E+01   1.9439E+01   5.3767E-06  0.0090
   1.9439E+01   1.9912E+01   4.4748E-06  0.0097
   1.9912E+01   2.0396E+01   3.2551E-06  0.0113
   2.0396E+01   2.0893E+01   2.7804E-06  0.0120
   2.0893E+01   2.1401E+01   1.9003E-06  0.0144
   2.1401E+01   2.1922E+01   1.9074E-06  0.0142
   2.1922E+01   2.2455E+01   1.8156E-06  0.0144
   2.2455E+01   2.3001E+01   1.7611E-06  0.0144
   2.3001E+01   2.3561E+01   1.7375E-06  0.0143
   2.3561E+01   2.4134E+01   1.6862E-06  0.0144
   2.4134E+01   2.4721E+01   1.3511E-06  0.0159
   2.4721E+01   2.5323E+01   1.2279E-06  0.0165
   2.5323E+01   2.5939E+01   6.4694E-07  0.0224
   2.5939E+01   2.6570E+01   1.2454E-07  0.0504
   2.6570E+01   2.7217E+01   0.0000E+00  0.0000
   2.7217E+01   2.7879E+01   0.0000E+00  0.0000
   2.7879E+01   2.8557E+01   0.0000E+00  0.0000
   2.8557E+01   2.9252E+01   0.0000E+00  0.0000
   2.9252E+01   2.9964E+01   0.0000E+00  0.0000
   2.9964E+01   3.0693E+01   0.0000E+00  0.0000
   3.0693E+01   3.1440E+01   0.0000E+00  0.0000
   3.1440E+01   3.2205E+01   0.0000E+00  0.0000
   3.2205E+01   3.2988E+01   0.0000E+00  0.0000
   3.2988E+01   3.3791E+01   0.0000E+00  0.0000
   3.3791E+01   3.4613E+01   0.0000E+00  0.0000
   3.4613E+01   3.5455E+01   0.0000E+00  0.0000
   3.5455E+01   3.6318E+01   0.0000E+00  0.0000
   3.6318E+01   3.7201E+01   0.0000E+00  0.0000
   3.7201E+01   3.8106E+01   0.0000E+00  0.0000
   3.8106E+01   3.9034E+01   0.0000E+00  0.0000
   3.9034E+01   3.9983E+01   0.0000E+00  0.0000
   3.9983E+01   4.0956E+01   0.0000E+00  0.0000
   4.0956E+01   4.1953E+01   0.0000E+00  0.0000
   4.1953E+01   4.2973E+01   0.0000E+00  0.0000
   4.2973E+01   4.4019E+01   0.0000E+00  0.0000
   4.4019E+01   4.5090E+01   0.0000E+00  0.0000
   4.5090E+01   4.6187E+01   0.0000E+00  0.0000
   4.6187E+01   4.7311E+01   0.0000E+00  0.0000
   4.7311E+01   4.8462E+01   0.0000E+00  0.0000
   4.8462E+01   4.9641E+01   0.0000E+00  0.0000
   4.9641E+01   5.0849E+01   0.0000E+00  0.0000
   5.0849E+01   5.2086E+01   0.0000E+00  0.0000
   5.2086E+01   5.3353E+01   0.0000E+00  0.0000
   5.3353E+01   5.4651E+01   0.0000E+00  0.0000
   5.4651E+01   5.5981E+01   0.0000E+00  0.0000
   5.5981E+01   5.7343E+01   0.0000E+00  0.0000
   5.7343E+01   5.8738E+01   0.0000E+00  0.0000
   5.8738E+01   6.0168E+01   0.0000E+00  0.0000
   6.0168E+01   6.1632E+01   0.0000E+00  0.0000
   6.1632E+01   6.3131E+01   0.0000E+00  0.0000
   6.3131E+01   6.4667E+01   0.0000E+00  0.0000
   6.4667E+01   6.6240E+01   0.0000E+00  0.0000
   6.6240E+01   6.7852E+01   0.0000E+00  0.0000
   6.7852E+01   6.9503E+01   0.0000E+00  0.0000
   6.9503E+01   7.1194E+01   0.0000E+00  0.0000
   7.1194E+01   7.2926E+01   0.0000E+00  0.0000
   7.2926E+01   7.4701E+01   0.0000E+00  0.0000
   7.4701E+01   7.6518E+01   0.0000E+00  0.0000
   7.6518E+01   7.8380E+01   0.0000E+00  0.0000
   7.8380E+01   8.0287E+01   0.0000E+00  0.0000
   8.0287E+01   8.2240E+01   0.0000E+00  0.0000
   8.2240E+01   8.4241E+01   0.0000E+00  0.0000
   8.4241E+01   8.6291E+01   0.0000E+00  0.0000
   8.6291E+01   8.8391E+01   0.0000E+00  0.0000
   8.8391E+01   9.0541E+01   0.0000E+00  0.0000
   9.0541E+01   9.2744E+01   0.0000E+00  0.0000
   9.2744E+01   9.5001E+01   0.0000E+00  0.0000
   9.5001E+01   9.7312E+01   0.0000E+00  0.0000
   9.7312E+01   9.9680E+01   0.0000E+00  0.0000
   9.9680E+01   1.0211E+02   0.0000E+00  0.0000
   1.0211E+02   1.0459E+02   0.0000E+00  0.0000
   1.0459E+02   1.0713E+02   0.0000E+00  0.0000
   1.0713E+02   1.0974E+02   0.0000E+00  0.0000
   1.0974E+02   1.1241E+02   0.0000E+00  0.0000
   1.1241E+02   1.1515E+02   0.0000E+00  0.0000
   1.1515E+02   1.1795E+02   0.0000E+00  0.0000
   1.1795E+02   1.2082E+02   0.0000E+00  0.0000
   1.2082E+02   1.2376E+02   0.0000E+00  0.0000
   1.2376E+02   1.2677E+02   0.0000E+00  0.0000
   1.2677E+02   1.2985E+02   0.0000E+00  0.0000
   1.2985E+02   1.3301E+02   0.0000E+00  0.0000
   1.3301E+02   1.3625E+02   0.0000E+00  0.0000
   1.3625E+02   1.3956E+02   0.0000E+00  0.0000
   1.3956E+02   1.4296E+02   0.0000E+00  0.0000
   1.4296E+02   1.4644E+02   0.0000E+00  0.0000
   1.4644E+02   1.5000E+02   0.0000E+00  0.0000

#   sum over                 3.0858E-06
'no. =    1   reg = 104 - 204'
msuc: {\huge [t-cross] in region mesh}
msdr: {\it plotted by \ANGEL \version}
msdl: {\it calculated by \PHITS  3.26}
wt: s(0.7)
\vspace{-3}
  region surface crossing
  area  &=&   1.0000E+00 [cm^2]
e:
 
# Information for Restart Calculation
# This calculation was newly started
# istdev =  2 # 1:Batch variance, 2:History variance
# resc2  = 5.00000000000000000E+09 # Total source weight or Total source weight / maxcas
# resc3  = 5.00000000000000000E+09 # Total history number or Total batch number
# maxcas =   500000000 # History / Batch, only used for istdev=1
# bitrseed = 0110100000100010111000001110001111001110100100011111101000111001 # bit data of rseed
