[ T-Cross ]
    title = [t-cross] in region mesh
     mesh =  reg            # mesh type is region-wise
      reg =    1            # number of crossing regions
      non     r-from    r-to       area
      1       109       209        1.000000    
   e-type =    3            # e-mesh is log given by emin, emax and ne
     emin =  1.0000000E-02  # minimum value of e-mesh points
     emax =   150.0000      # maximum value of e-mesh points
#    edel =  2.4039514E-02  # mesh width of e-mesh points
       ne =    400          # number of e-mesh points
#    data = ( e(i), i = 1, ne + 1 )
#           1.00000E-02  1.02433E-02  1.04925E-02  1.07478E-02  1.10093E-02
#           1.12772E-02  1.15516E-02  1.18326E-02  1.21205E-02  1.24154E-02
#           1.27175E-02  1.30269E-02  1.33439E-02  1.36686E-02  1.40011E-02
#           1.43418E-02  1.46907E-02  1.50482E-02  1.54143E-02  1.57894E-02
#           1.61735E-02  1.65670E-02  1.69701E-02  1.73830E-02  1.78060E-02
#           1.82392E-02  1.86830E-02  1.91375E-02  1.96032E-02  2.00801E-02
#           2.05687E-02  2.10692E-02  2.15818E-02  2.21069E-02  2.26448E-02
#           2.31957E-02  2.37601E-02  2.43382E-02  2.49304E-02  2.55369E-02
#           2.61583E-02  2.67947E-02  2.74467E-02  2.81145E-02  2.87985E-02
#           2.94992E-02  3.02169E-02  3.09521E-02  3.17052E-02  3.24766E-02
#           3.32668E-02  3.40762E-02  3.49053E-02  3.57546E-02  3.66246E-02
#           3.75157E-02  3.84284E-02  3.93634E-02  4.03212E-02  4.13022E-02
#           4.23071E-02  4.33365E-02  4.43909E-02  4.54710E-02  4.65773E-02
#           4.77106E-02  4.88714E-02  5.00605E-02  5.12785E-02  5.25262E-02
#           5.38042E-02  5.51133E-02  5.64542E-02  5.78278E-02  5.92348E-02
#           6.06760E-02  6.21523E-02  6.36645E-02  6.52135E-02  6.68002E-02
#           6.84255E-02  7.00904E-02  7.17957E-02  7.35426E-02  7.53319E-02
#           7.71648E-02  7.90423E-02  8.09655E-02  8.29354E-02  8.49533E-02
#           8.70203E-02  8.91376E-02  9.13064E-02  9.35279E-02  9.58035E-02
#           9.81345E-02  1.00522E-01  1.02968E-01  1.05473E-01  1.08040E-01
#           1.10668E-01  1.13361E-01  1.16119E-01  1.18944E-01  1.21838E-01
#           1.24803E-01  1.27839E-01  1.30950E-01  1.34136E-01  1.37399E-01
#           1.40742E-01  1.44167E-01  1.47675E-01  1.51268E-01  1.54948E-01
#           1.58718E-01  1.62580E-01  1.66535E-01  1.70587E-01  1.74738E-01
#           1.78989E-01  1.83344E-01  1.87805E-01  1.92375E-01  1.97055E-01
#           2.01850E-01  2.06761E-01  2.11792E-01  2.16945E-01  2.22223E-01
#           2.27630E-01  2.33169E-01  2.38842E-01  2.44653E-01  2.50605E-01
#           2.56703E-01  2.62949E-01  2.69346E-01  2.75900E-01  2.82613E-01
#           2.89489E-01  2.96532E-01  3.03747E-01  3.11138E-01  3.18708E-01
#           3.26462E-01  3.34405E-01  3.42542E-01  3.50876E-01  3.59413E-01
#           3.68158E-01  3.77116E-01  3.86291E-01  3.95690E-01  4.05317E-01
#           4.15179E-01  4.25281E-01  4.35628E-01  4.46227E-01  4.57084E-01
#           4.68205E-01  4.79597E-01  4.91266E-01  5.03219E-01  5.15463E-01
#           5.28005E-01  5.40851E-01  5.54011E-01  5.67490E-01  5.81298E-01
#           5.95441E-01  6.09929E-01  6.24769E-01  6.39970E-01  6.55541E-01
#           6.71491E-01  6.87828E-01  7.04564E-01  7.21706E-01  7.39266E-01
#           7.57253E-01  7.75678E-01  7.94551E-01  8.13883E-01  8.33685E-01
#           8.53969E-01  8.74747E-01  8.96030E-01  9.17831E-01  9.40163E-01
#           9.63038E-01  9.86469E-01  1.01047E+00  1.03506E+00  1.06024E+00
#           1.08604E+00  1.11246E+00  1.13953E+00  1.16725E+00  1.19565E+00
#           1.22474E+00  1.25454E+00  1.28507E+00  1.31633E+00  1.34836E+00
#           1.38117E+00  1.41477E+00  1.44920E+00  1.48446E+00  1.52057E+00
#           1.55757E+00  1.59547E+00  1.63429E+00  1.67405E+00  1.71478E+00
#           1.75650E+00  1.79924E+00  1.84302E+00  1.88786E+00  1.93379E+00
#           1.98084E+00  2.02904E+00  2.07841E+00  2.12898E+00  2.18078E+00
#           2.23384E+00  2.28819E+00  2.34386E+00  2.40089E+00  2.45930E+00
#           2.51914E+00  2.58043E+00  2.64322E+00  2.70753E+00  2.77341E+00
#           2.84088E+00  2.91001E+00  2.98081E+00  3.05333E+00  3.12762E+00
#           3.20372E+00  3.28167E+00  3.36152E+00  3.44330E+00  3.52708E+00
#           3.61290E+00  3.70080E+00  3.79085E+00  3.88308E+00  3.97756E+00
#           4.07434E+00  4.17347E+00  4.27501E+00  4.37903E+00  4.48557E+00
#           4.59471E+00  4.70650E+00  4.82102E+00  4.93832E+00  5.05847E+00
#           5.18155E+00  5.30762E+00  5.43676E+00  5.56904E+00  5.70453E+00
#           5.84333E+00  5.98550E+00  6.13114E+00  6.28031E+00  6.43312E+00
#           6.58964E+00  6.74997E+00  6.91420E+00  7.08243E+00  7.25475E+00
#           7.43126E+00  7.61207E+00  7.79728E+00  7.98700E+00  8.18133E+00
#           8.38038E+00  8.58428E+00  8.79315E+00  9.00709E+00  9.22624E+00
#           9.45072E+00  9.68067E+00  9.91620E+00  1.01575E+01  1.04046E+01
#           1.06578E+01  1.09171E+01  1.11827E+01  1.14548E+01  1.17335E+01
#           1.20190E+01  1.23114E+01  1.26109E+01  1.29178E+01  1.32321E+01
#           1.35540E+01  1.38838E+01  1.42216E+01  1.45676E+01  1.49221E+01
#           1.52851E+01  1.56570E+01  1.60380E+01  1.64282E+01  1.68279E+01
#           1.72374E+01  1.76568E+01  1.80864E+01  1.85264E+01  1.89772E+01
#           1.94389E+01  1.99119E+01  2.03963E+01  2.08926E+01  2.14009E+01
#           2.19216E+01  2.24550E+01  2.30014E+01  2.35610E+01  2.41343E+01
#           2.47215E+01  2.53230E+01  2.59391E+01  2.65702E+01  2.72167E+01
#           2.78789E+01  2.85572E+01  2.92520E+01  2.99637E+01  3.06928E+01
#           3.14396E+01  3.22045E+01  3.29881E+01  3.37907E+01  3.46128E+01
#           3.54550E+01  3.63177E+01  3.72013E+01  3.81064E+01  3.90336E+01
#           3.99833E+01  4.09561E+01  4.19526E+01  4.29734E+01  4.40189E+01
#           4.50900E+01  4.61870E+01  4.73108E+01  4.84619E+01  4.96410E+01
#           5.08488E+01  5.20860E+01  5.33533E+01  5.46514E+01  5.59812E+01
#           5.73432E+01  5.87384E+01  6.01676E+01  6.16315E+01  6.31311E+01
#           6.46671E+01  6.62405E+01  6.78522E+01  6.95031E+01  7.11941E+01
#           7.29263E+01  7.47007E+01  7.65182E+01  7.83800E+01  8.02870E+01
#           8.22405E+01  8.42414E+01  8.62911E+01  8.83906E+01  9.05412E+01
#           9.27442E+01  9.50007E+01  9.73122E+01  9.96799E+01  1.02105E+02
#           1.04589E+02  1.07134E+02  1.09741E+02  1.12411E+02  1.15146E+02
#           1.17948E+02  1.20817E+02  1.23757E+02  1.26768E+02  1.29852E+02
#           1.33012E+02  1.36248E+02  1.39563E+02  1.42959E+02  1.46437E+02
#           1.50000E+02
     unit =    2            # unit is [1/cm^2/(MeV/n)/source]
     axis =  eng            # axis of output
     file = detector-10.out  # file name of output for the above axis
   output = f-curr          # surface crossing forward current spectrum
     part =  neutron  
# kf/name :  2112     
#    used :        main (  %)        temp (  %)       total (  %)
#  memory :         414 (  0)           0 (  0)         414 (  0)

#------------------------------------------------------------------------------
#newpage:
#   no. =    1   reg = 109 - 209

x: Energy [MeV/n]
y:  F-Curr [1/cm^2/(MeV/n)/source]         
p: xlog ylog afac(0.8) form(0.9)
h: n            x            y(neutron ),hh0l   n 
#  e-lower      e-upper      neutron     r.err 
   1.0000E-02   1.0243E-02   2.0027E-03  0.0639
   1.0243E-02   1.0493E-02   2.2334E-03  0.0599
   1.0493E-02   1.0748E-02   1.8972E-03  0.0642
   1.0748E-02   1.1009E-02   2.0702E-03  0.0607
   1.1009E-02   1.1277E-02   2.1605E-03  0.0587
   1.1277E-02   1.1552E-02   2.0081E-03  0.0601
   1.1552E-02   1.1833E-02   1.7422E-03  0.0638
   1.1833E-02   1.2121E-02   1.8623E-03  0.0610
   1.2121E-02   1.2415E-02   1.7574E-03  0.0620
   1.2415E-02   1.2718E-02   1.6982E-03  0.0623
   1.2718E-02   1.3027E-02   1.6987E-03  0.0616
   1.3027E-02   1.3344E-02   1.7120E-03  0.0606
   1.3344E-02   1.3669E-02   1.6547E-03  0.0608
   1.3669E-02   1.4001E-02   1.4775E-03  0.0637
   1.4001E-02   1.4342E-02   1.6478E-03  0.0596
   1.4342E-02   1.4691E-02   1.5751E-03  0.0602
   1.4691E-02   1.5048E-02   1.5441E-03  0.0601
   1.5048E-02   1.5414E-02   1.2590E-03  0.0657
   1.5414E-02   1.5789E-02   1.3340E-03  0.0631
   1.5789E-02   1.6174E-02   1.4172E-03  0.0605
   1.6174E-02   1.6567E-02   1.4018E-03  0.0601
   1.6567E-02   1.6970E-02   1.2686E-03  0.0625
   1.6970E-02   1.7383E-02   1.3246E-03  0.0602
   1.7383E-02   1.7806E-02   1.3857E-03  0.0583
   1.7806E-02   1.8239E-02   1.1581E-03  0.0631
   1.8239E-02   1.8683E-02   1.3290E-03  0.0582
   1.8683E-02   1.9138E-02   1.0916E-03  0.0634
   1.9138E-02   1.9603E-02   1.1293E-03  0.0615
   1.9603E-02   2.0080E-02   1.2296E-03  0.0582
   2.0080E-02   2.0569E-02   1.1406E-03  0.0599
   2.0569E-02   2.1069E-02   1.0595E-03  0.0613
   2.1069E-02   2.1582E-02   1.0795E-03  0.0600
   2.1582E-02   2.2107E-02   1.0518E-03  0.0602
   2.2107E-02   2.2645E-02   9.7161E-04  0.0618
   2.2645E-02   2.3196E-02   1.0133E-03  0.0598
   2.3196E-02   2.3760E-02   1.1061E-03  0.0565
   2.3760E-02   2.4338E-02   1.0600E-03  0.0569
   2.4338E-02   2.4930E-02   9.5498E-04  0.0593
   2.4930E-02   2.5537E-02   7.8296E-04  0.0647
   2.5537E-02   2.6158E-02   1.0255E-03  0.0559
   2.6158E-02   2.6795E-02   8.9856E-04  0.0590
   2.6795E-02   2.7447E-02   8.9483E-04  0.0584
   2.7447E-02   2.8114E-02   8.0352E-04  0.0609
   2.8114E-02   2.8799E-02   9.0481E-04  0.0567
   2.8799E-02   2.9499E-02   8.2121E-04  0.0588
   2.9499E-02   3.0217E-02   7.7784E-04  0.0598
   3.0217E-02   3.0952E-02   7.3312E-04  0.0609
   3.0952E-02   3.1705E-02   7.6503E-04  0.0588
   3.1705E-02   3.2477E-02   7.4098E-04  0.0590
   3.2477E-02   3.3267E-02   6.5323E-04  0.0620
   3.3267E-02   3.4076E-02   7.1285E-04  0.0587
   3.4076E-02   3.4905E-02   6.8088E-04  0.0594
   3.4905E-02   3.5755E-02   6.8757E-04  0.0584
   3.5755E-02   3.6625E-02   5.8908E-04  0.0623
   3.6625E-02   3.7516E-02   5.8046E-04  0.0621
   3.7516E-02   3.8428E-02   6.2833E-04  0.0589
   3.8428E-02   3.9363E-02   5.8217E-04  0.0605
   3.9363E-02   4.0321E-02   6.0945E-04  0.0584
   4.0321E-02   4.1302E-02   5.8758E-04  0.0588
   4.1302E-02   4.2307E-02   5.8564E-04  0.0582
   4.2307E-02   4.3337E-02   4.9316E-04  0.0626
   4.3337E-02   4.4391E-02   5.2838E-04  0.0598
   4.4391E-02   4.5471E-02   5.5926E-04  0.0574
   4.5471E-02   4.6577E-02   5.6053E-04  0.0567
   4.6577E-02   4.7711E-02   5.3514E-04  0.0573
   4.7711E-02   4.8871E-02   4.5679E-04  0.0613
   4.8871E-02   5.0061E-02   4.1901E-04  0.0632
   5.0061E-02   5.1279E-02   4.6083E-04  0.0594
   5.1279E-02   5.2526E-02   4.1994E-04  0.0617
   5.2526E-02   5.3804E-02   4.5874E-04  0.0583
   5.3804E-02   5.5113E-02   3.6370E-04  0.0647
   5.5113E-02   5.6454E-02   4.0710E-04  0.0605
   5.6454E-02   5.7828E-02   4.3022E-04  0.0580
   5.7828E-02   5.9235E-02   3.5479E-04  0.0631
   5.9235E-02   6.0676E-02   3.6611E-04  0.0614
   6.0676E-02   6.2152E-02   3.6530E-04  0.0607
   6.2152E-02   6.3665E-02   3.7625E-04  0.0591
   6.3665E-02   6.5214E-02   3.7935E-04  0.0582
   6.5214E-02   6.6800E-02   3.4938E-04  0.0600
   6.6800E-02   6.8426E-02   3.6748E-04  0.0578
   6.8426E-02   7.0090E-02   3.3708E-04  0.0595
   7.0090E-02   7.1796E-02   3.1840E-04  0.0605
   7.1796E-02   7.3543E-02   2.7877E-04  0.0639
   7.3543E-02   7.5332E-02   3.1792E-04  0.0591
   7.5332E-02   7.7165E-02   2.9061E-04  0.0611
   7.7165E-02   7.9042E-02   2.7368E-04  0.0622
   7.9042E-02   8.0965E-02   2.8845E-04  0.0599
   8.0965E-02   8.2935E-02   2.6938E-04  0.0612
   8.2935E-02   8.4953E-02   2.9557E-04  0.0578
   8.4953E-02   8.7020E-02   2.8795E-04  0.0578
   8.7020E-02   8.9138E-02   2.5723E-04  0.0604
   8.9138E-02   9.1306E-02   2.7533E-04  0.0577
   9.1306E-02   9.3528E-02   2.5310E-04  0.0594
   9.3528E-02   9.5804E-02   2.5517E-04  0.0586
   9.5804E-02   9.8134E-02   1.9930E-04  0.0655
   9.8134E-02   1.0052E-01   2.2103E-04  0.0613
   1.0052E-01   1.0297E-01   2.1422E-04  0.0616
   1.0297E-01   1.0547E-01   1.9451E-04  0.0639
   1.0547E-01   1.0804E-01   1.9360E-04  0.0633
   1.0804E-01   1.1067E-01   1.8913E-04  0.0632
   1.1067E-01   1.1336E-01   1.9266E-04  0.0619
   1.1336E-01   1.1612E-01   1.8759E-04  0.0620
   1.1612E-01   1.1894E-01   1.7816E-04  0.0627
   1.1894E-01   1.2184E-01   1.6156E-04  0.0652
   1.2184E-01   1.2480E-01   1.7516E-04  0.0620
   1.2480E-01   1.2784E-01   1.7519E-04  0.0612
   1.2784E-01   1.3095E-01   1.5102E-04  0.0651
   1.3095E-01   1.3414E-01   1.6342E-04  0.0618
   1.3414E-01   1.3740E-01   1.5969E-04  0.0618
   1.3740E-01   1.4074E-01   1.5393E-04  0.0622
   1.4074E-01   1.4417E-01   1.5487E-04  0.0611
   1.4417E-01   1.4767E-01   1.4960E-04  0.0615
   1.4767E-01   1.5127E-01   1.5169E-04  0.0604
   1.5127E-01   1.5495E-01   1.4425E-04  0.0613
   1.5495E-01   1.5872E-01   1.4498E-04  0.0604
   1.5872E-01   1.6258E-01   1.3003E-04  0.0628
   1.6258E-01   1.6654E-01   1.2965E-04  0.0623
   1.6654E-01   1.7059E-01   1.3707E-04  0.0599
   1.7059E-01   1.7474E-01   1.2636E-04  0.0616
   1.7474E-01   1.7899E-01   1.3135E-04  0.0596
   1.7899E-01   1.8334E-01   1.2001E-04  0.0617
   1.8334E-01   1.8781E-01   1.1688E-04  0.0617
   1.8781E-01   1.9237E-01   1.2599E-04  0.0588
   1.9237E-01   1.9706E-01   1.1419E-04  0.0610
   1.9706E-01   2.0185E-01   1.1378E-04  0.0603
   2.0185E-01   2.0676E-01   1.2647E-04  0.0565
   2.0676E-01   2.1179E-01   1.2532E-04  0.0561
   2.1179E-01   2.1694E-01   1.3703E-04  0.0531
   2.1694E-01   2.2222E-01   1.3480E-04  0.0528
   2.2222E-01   2.2763E-01   1.4380E-04  0.0507
   2.2763E-01   2.3317E-01   1.3572E-04  0.0513
   2.3317E-01   2.3884E-01   1.5040E-04  0.0483
   2.3884E-01   2.4465E-01   1.4826E-04  0.0480
   2.4465E-01   2.5061E-01   1.5624E-04  0.0462
   2.5061E-01   2.5670E-01   1.6177E-04  0.0450
   2.5670E-01   2.6295E-01   1.6907E-04  0.0434
   2.6295E-01   2.6935E-01   1.6778E-04  0.0430
   2.6935E-01   2.7590E-01   1.7958E-04  0.0410
   2.7590E-01   2.8261E-01   1.8755E-04  0.0398
   2.8261E-01   2.8949E-01   1.9798E-04  0.0382
   2.8949E-01   2.9653E-01   1.9676E-04  0.0379
   2.9653E-01   3.0375E-01   2.1151E-04  0.0361
   3.0375E-01   3.1114E-01   2.2348E-04  0.0347
   3.1114E-01   3.1871E-01   2.2934E-04  0.0338
   3.1871E-01   3.2646E-01   2.0527E-04  0.0353
   3.2646E-01   3.3441E-01   2.3001E-04  0.0330
   3.3441E-01   3.4254E-01   2.3541E-04  0.0322
   3.4254E-01   3.5088E-01   2.3748E-04  0.0317
   3.5088E-01   3.5941E-01   2.5229E-04  0.0304
   3.5941E-01   3.6816E-01   2.3808E-04  0.0309
   3.6816E-01   3.7712E-01   2.6300E-04  0.0291
   3.7712E-01   3.8629E-01   2.7654E-04  0.0280
   3.8629E-01   3.9569E-01   2.7726E-04  0.0276
   3.9569E-01   4.0532E-01   2.9284E-04  0.0266
   4.0532E-01   4.1518E-01   2.9645E-04  0.0261
   4.1518E-01   4.2528E-01   2.9577E-04  0.0258
   4.2528E-01   4.3563E-01   3.0253E-04  0.0252
   4.3563E-01   4.4623E-01   3.0652E-04  0.0247
   4.4623E-01   4.5708E-01   3.2152E-04  0.0239
   4.5708E-01   4.6821E-01   3.1124E-04  0.0240
   4.6821E-01   4.7960E-01   3.2568E-04  0.0232
   4.7960E-01   4.9127E-01   3.2767E-04  0.0228
   4.9127E-01   5.0322E-01   3.3155E-04  0.0224
   5.0322E-01   5.1546E-01   3.4984E-04  0.0216
   5.1546E-01   5.2800E-01   3.4953E-04  0.0213
   5.2800E-01   5.4085E-01   3.5742E-04  0.0208
   5.4085E-01   5.5401E-01   3.6256E-04  0.0204
   5.5401E-01   5.6749E-01   3.7652E-04  0.0198
   5.6749E-01   5.8130E-01   3.6877E-04  0.0198
   5.8130E-01   5.9544E-01   3.7947E-04  0.0192
   5.9544E-01   6.0993E-01   3.9398E-04  0.0187
   6.0993E-01   6.2477E-01   4.0729E-04  0.0181
   6.2477E-01   6.3997E-01   4.0567E-04  0.0180
   6.3997E-01   6.5554E-01   4.1125E-04  0.0176
   6.5554E-01   6.7149E-01   4.0519E-04  0.0175
   6.7149E-01   6.8783E-01   4.0739E-04  0.0173
   6.8783E-01   7.0456E-01   4.1282E-04  0.0170
   7.0456E-01   7.2171E-01   4.1735E-04  0.0167
   7.2171E-01   7.3927E-01   4.3260E-04  0.0162
   7.3927E-01   7.5725E-01   4.1470E-04  0.0163
   7.5725E-01   7.7568E-01   4.3780E-04  0.0157
   7.7568E-01   7.9455E-01   4.3561E-04  0.0156
   7.9455E-01   8.1388E-01   4.4242E-04  0.0153
   8.1388E-01   8.3368E-01   4.4915E-04  0.0149
   8.3368E-01   8.5397E-01   4.4888E-04  0.0148
   8.5397E-01   8.7475E-01   4.5944E-04  0.0144
   8.7475E-01   8.9603E-01   4.5696E-04  0.0143
   8.9603E-01   9.1783E-01   4.6068E-04  0.0141
   9.1783E-01   9.4016E-01   4.5753E-04  0.0140
   9.4016E-01   9.6304E-01   4.7068E-04  0.0136
   9.6304E-01   9.8647E-01   4.8193E-04  0.0133
   9.8647E-01   1.0105E+00   4.7661E-04  0.0132
   1.0105E+00   1.0351E+00   4.8287E-04  0.0129
   1.0351E+00   1.0602E+00   4.7684E-04  0.0129
   1.0602E+00   1.0860E+00   4.9369E-04  0.0125
   1.0860E+00   1.1125E+00   4.8783E-04  0.0124
   1.1125E+00   1.1395E+00   4.7796E-04  0.0124
   1.1395E+00   1.1673E+00   4.8693E-04  0.0121
   1.1673E+00   1.1957E+00   4.9054E-04  0.0119
   1.1957E+00   1.2247E+00   4.9850E-04  0.0117
   1.2247E+00   1.2545E+00   4.9901E-04  0.0116
   1.2545E+00   1.2851E+00   4.9581E-04  0.0115
   1.2851E+00   1.3163E+00   5.0175E-04  0.0113
   1.3163E+00   1.3484E+00   4.9789E-04  0.0112
   1.3484E+00   1.3812E+00   5.1190E-04  0.0109
   1.3812E+00   1.4148E+00   5.0838E-04  0.0108
   1.4148E+00   1.4492E+00   5.0115E-04  0.0107
   1.4492E+00   1.4845E+00   5.1438E-04  0.0105
   1.4845E+00   1.5206E+00   5.1165E-04  0.0104
   1.5206E+00   1.5576E+00   5.1223E-04  0.0102
   1.5576E+00   1.5955E+00   5.1348E-04  0.0101
   1.5955E+00   1.6343E+00   5.0939E-04  0.0100
   1.6343E+00   1.6741E+00   5.1489E-04  0.0099
   1.6741E+00   1.7148E+00   5.1134E-04  0.0098
   1.7148E+00   1.7565E+00   5.1402E-04  0.0096
   1.7565E+00   1.7992E+00   5.1164E-04  0.0095
   1.7992E+00   1.8430E+00   5.0815E-04  0.0095
   1.8430E+00   1.8879E+00   5.1246E-04  0.0093
   1.8879E+00   1.9338E+00   5.0983E-04  0.0092
   1.9338E+00   1.9808E+00   5.1237E-04  0.0091
   1.9808E+00   2.0290E+00   5.1090E-04  0.0090
   2.0290E+00   2.0784E+00   5.1420E-04  0.0089
   2.0784E+00   2.1290E+00   5.1054E-04  0.0088
   2.1290E+00   2.1808E+00   5.0999E-04  0.0087
   2.1808E+00   2.2338E+00   5.0695E-04  0.0086
   2.2338E+00   2.2882E+00   5.0001E-04  0.0086
   2.2882E+00   2.3439E+00   4.9915E-04  0.0085
   2.3439E+00   2.4009E+00   4.9747E-04  0.0084
   2.4009E+00   2.4593E+00   4.8426E-04  0.0084
   2.4593E+00   2.5191E+00   4.8343E-04  0.0083
   2.5191E+00   2.5804E+00   4.8674E-04  0.0082
   2.5804E+00   2.6432E+00   4.8195E-04  0.0081
   2.6432E+00   2.7075E+00   4.7134E-04  0.0081
   2.7075E+00   2.7734E+00   4.6644E-04  0.0080
   2.7734E+00   2.8409E+00   4.6647E-04  0.0079
   2.8409E+00   2.9100E+00   4.6096E-04  0.0079
   2.9100E+00   2.9808E+00   4.5325E-04  0.0079
   2.9808E+00   3.0533E+00   4.4830E-04  0.0078
   3.0533E+00   3.1276E+00   4.4082E-04  0.0078
   3.1276E+00   3.2037E+00   4.3827E-04  0.0077
   3.2037E+00   3.2817E+00   4.3814E-04  0.0076
   3.2817E+00   3.3615E+00   4.2313E-04  0.0077
   3.3615E+00   3.4433E+00   4.2630E-04  0.0076
   3.4433E+00   3.5271E+00   4.1374E-04  0.0076
   3.5271E+00   3.6129E+00   4.0982E-04  0.0075
   3.6129E+00   3.7008E+00   3.9916E-04  0.0075
   3.7008E+00   3.7908E+00   3.9895E-04  0.0074
   3.7908E+00   3.8831E+00   3.9660E-04  0.0074
   3.8831E+00   3.9776E+00   3.8797E-04  0.0074
   3.9776E+00   4.0743E+00   3.7975E-04  0.0074
   4.0743E+00   4.1735E+00   3.7996E-04  0.0073
   4.1735E+00   4.2750E+00   3.7252E-04  0.0073
   4.2750E+00   4.3790E+00   3.6743E-04  0.0072
   4.3790E+00   4.4856E+00   3.5778E-04  0.0072
   4.4856E+00   4.5947E+00   3.5232E-04  0.0072
   4.5947E+00   4.7065E+00   3.5068E-04  0.0071
   4.7065E+00   4.8210E+00   3.3966E-04  0.0072
   4.8210E+00   4.9383E+00   3.3075E-04  0.0072
   4.9383E+00   5.0585E+00   3.2085E-04  0.0072
   5.0585E+00   5.1815E+00   3.1297E-04  0.0072
   5.1815E+00   5.3076E+00   3.0615E-04  0.0072
   5.3076E+00   5.4368E+00   2.9882E-04  0.0072
   5.4368E+00   5.5690E+00   2.9435E-04  0.0071
   5.5690E+00   5.7045E+00   2.8414E-04  0.0072
   5.7045E+00   5.8433E+00   2.8386E-04  0.0071
   5.8433E+00   5.9855E+00   2.7558E-04  0.0071
   5.9855E+00   6.1311E+00   2.6567E-04  0.0072
   6.1311E+00   6.2803E+00   2.5684E-04  0.0072
   6.2803E+00   6.4331E+00   2.4843E-04  0.0072
   6.4331E+00   6.5896E+00   2.4067E-04  0.0073
   6.5896E+00   6.7500E+00   2.2906E-04  0.0074
   6.7500E+00   6.9142E+00   2.2437E-04  0.0074
   6.9142E+00   7.0824E+00   2.1726E-04  0.0074
   7.0824E+00   7.2548E+00   2.0911E-04  0.0074
   7.2548E+00   7.4313E+00   2.0301E-04  0.0075
   7.4313E+00   7.6121E+00   1.9121E-04  0.0076
   7.6121E+00   7.7973E+00   1.8218E-04  0.0077
   7.7973E+00   7.9870E+00   1.7382E-04  0.0078
   7.9870E+00   8.1813E+00   1.6763E-04  0.0078
   8.1813E+00   8.3804E+00   1.6119E-04  0.0079
   8.3804E+00   8.5843E+00   1.5413E-04  0.0080
   8.5843E+00   8.7931E+00   1.4687E-04  0.0081
   8.7931E+00   9.0071E+00   1.3961E-04  0.0082
   9.0071E+00   9.2262E+00   1.3107E-04  0.0083
   9.2262E+00   9.4507E+00   1.2614E-04  0.0084
   9.4507E+00   9.6807E+00   1.1999E-04  0.0085
   9.6807E+00   9.9162E+00   1.1377E-04  0.0086
   9.9162E+00   1.0157E+01   1.0854E-04  0.0087
   1.0157E+01   1.0405E+01   1.0473E-04  0.0088
   1.0405E+01   1.0658E+01   1.0007E-04  0.0089
   1.0658E+01   1.0917E+01   9.7515E-05  0.0089
   1.0917E+01   1.1183E+01   9.4613E-05  0.0089
   1.1183E+01   1.1455E+01   9.1504E-05  0.0090
   1.1455E+01   1.1733E+01   8.8725E-05  0.0090
   1.1733E+01   1.2019E+01   8.4419E-05  0.0091
   1.2019E+01   1.2311E+01   8.1562E-05  0.0092
   1.2311E+01   1.2611E+01   7.8343E-05  0.0092
   1.2611E+01   1.2918E+01   7.5175E-05  0.0093
   1.2918E+01   1.3232E+01   7.2770E-05  0.0093
   1.3232E+01   1.3554E+01   6.7718E-05  0.0096
   1.3554E+01   1.3884E+01   6.6812E-05  0.0095
   1.3884E+01   1.4222E+01   6.4611E-05  0.0096
   1.4222E+01   1.4568E+01   6.1643E-05  0.0097
   1.4568E+01   1.4922E+01   5.9968E-05  0.0097
   1.4922E+01   1.5285E+01   5.5731E-05  0.0099
   1.5285E+01   1.5657E+01   5.3431E-05  0.0100
   1.5657E+01   1.6038E+01   5.0492E-05  0.0102
   1.6038E+01   1.6428E+01   4.8113E-05  0.0103
   1.6428E+01   1.6828E+01   4.6288E-05  0.0104
   1.6828E+01   1.7237E+01   4.4137E-05  0.0105
   1.7237E+01   1.7657E+01   4.1668E-05  0.0107
   1.7657E+01   1.8086E+01   3.9530E-05  0.0109
   1.8086E+01   1.8526E+01   3.7477E-05  0.0110
   1.8526E+01   1.8977E+01   3.5834E-05  0.0111
   1.8977E+01   1.9439E+01   3.4358E-05  0.0112
   1.9439E+01   1.9912E+01   3.2854E-05  0.0113
   1.9912E+01   2.0396E+01   3.1436E-05  0.0115
   2.0396E+01   2.0893E+01   3.0536E-05  0.0115
   2.0893E+01   2.1401E+01   2.8450E-05  0.0118
   2.1401E+01   2.1922E+01   2.7574E-05  0.0118
   2.1922E+01   2.2455E+01   2.5798E-05  0.0121
   2.2455E+01   2.3001E+01   2.5445E-05  0.0120
   2.3001E+01   2.3561E+01   2.4734E-05  0.0120
   2.3561E+01   2.4134E+01   2.5092E-05  0.0118
   2.4134E+01   2.4721E+01   2.3743E-05  0.0120
   2.4721E+01   2.5323E+01   2.3132E-05  0.0120
   2.5323E+01   2.5939E+01   2.2541E-05  0.0120
   2.5939E+01   2.6570E+01   2.1746E-05  0.0121
   2.6570E+01   2.7217E+01   2.1090E-05  0.0121
   2.7217E+01   2.7879E+01   1.9885E-05  0.0123
   2.7879E+01   2.8557E+01   1.9920E-05  0.0122
   2.8557E+01   2.9252E+01   1.9133E-05  0.0123
   2.9252E+01   2.9964E+01   1.8521E-05  0.0123
   2.9964E+01   3.0693E+01   1.7826E-05  0.0124
   3.0693E+01   3.1440E+01   1.7242E-05  0.0125
   3.1440E+01   3.2205E+01   1.6273E-05  0.0127
   3.2205E+01   3.2988E+01   1.5177E-05  0.0130
   3.2988E+01   3.3791E+01   1.4051E-05  0.0133
   3.3791E+01   3.4613E+01   1.3606E-05  0.0134
   3.4613E+01   3.5455E+01   1.2622E-05  0.0137
   3.5455E+01   3.6318E+01   1.1928E-05  0.0139
   3.6318E+01   3.7201E+01   1.0706E-05  0.0145
   3.7201E+01   3.8106E+01   9.7068E-06  0.0151
   3.8106E+01   3.9034E+01   9.1915E-06  0.0153
   3.9034E+01   3.9983E+01   8.0192E-06  0.0162
   3.9983E+01   4.0956E+01   6.3979E-06  0.0179
   4.0956E+01   4.1953E+01   4.5379E-06  0.0210
   4.1953E+01   4.2973E+01   2.9488E-06  0.0258
   4.2973E+01   4.4019E+01   1.8497E-06  0.0322
   4.4019E+01   4.5090E+01   5.3781E-07  0.0589
   4.5090E+01   4.6187E+01   2.3699E-08  0.2774
   4.6187E+01   4.7311E+01   1.7797E-09  1.0000
   4.7311E+01   4.8462E+01   0.0000E+00  0.0000
   4.8462E+01   4.9641E+01   0.0000E+00  0.0000
   4.9641E+01   5.0849E+01   0.0000E+00  0.0000
   5.0849E+01   5.2086E+01   0.0000E+00  0.0000
   5.2086E+01   5.3353E+01   0.0000E+00  0.0000
   5.3353E+01   5.4651E+01   0.0000E+00  0.0000
   5.4651E+01   5.5981E+01   0.0000E+00  0.0000
   5.5981E+01   5.7343E+01   0.0000E+00  0.0000
   5.7343E+01   5.8738E+01   0.0000E+00  0.0000
   5.8738E+01   6.0168E+01   0.0000E+00  0.0000
   6.0168E+01   6.1632E+01   0.0000E+00  0.0000
   6.1632E+01   6.3131E+01   0.0000E+00  0.0000
   6.3131E+01   6.4667E+01   0.0000E+00  0.0000
   6.4667E+01   6.6240E+01   0.0000E+00  0.0000
   6.6240E+01   6.7852E+01   0.0000E+00  0.0000
   6.7852E+01   6.9503E+01   0.0000E+00  0.0000
   6.9503E+01   7.1194E+01   0.0000E+00  0.0000
   7.1194E+01   7.2926E+01   0.0000E+00  0.0000
   7.2926E+01   7.4701E+01   0.0000E+00  0.0000
   7.4701E+01   7.6518E+01   0.0000E+00  0.0000
   7.6518E+01   7.8380E+01   0.0000E+00  0.0000
   7.8380E+01   8.0287E+01   0.0000E+00  0.0000
   8.0287E+01   8.2240E+01   0.0000E+00  0.0000
   8.2240E+01   8.4241E+01   0.0000E+00  0.0000
   8.4241E+01   8.6291E+01   0.0000E+00  0.0000
   8.6291E+01   8.8391E+01   0.0000E+00  0.0000
   8.8391E+01   9.0541E+01   0.0000E+00  0.0000
   9.0541E+01   9.2744E+01   0.0000E+00  0.0000
   9.2744E+01   9.5001E+01   0.0000E+00  0.0000
   9.5001E+01   9.7312E+01   0.0000E+00  0.0000
   9.7312E+01   9.9680E+01   0.0000E+00  0.0000
   9.9680E+01   1.0211E+02   0.0000E+00  0.0000
   1.0211E+02   1.0459E+02   0.0000E+00  0.0000
   1.0459E+02   1.0713E+02   0.0000E+00  0.0000
   1.0713E+02   1.0974E+02   0.0000E+00  0.0000
   1.0974E+02   1.1241E+02   0.0000E+00  0.0000
   1.1241E+02   1.1515E+02   0.0000E+00  0.0000
   1.1515E+02   1.1795E+02   0.0000E+00  0.0000
   1.1795E+02   1.2082E+02   0.0000E+00  0.0000
   1.2082E+02   1.2376E+02   0.0000E+00  0.0000
   1.2376E+02   1.2677E+02   0.0000E+00  0.0000
   1.2677E+02   1.2985E+02   0.0000E+00  0.0000
   1.2985E+02   1.3301E+02   0.0000E+00  0.0000
   1.3301E+02   1.3625E+02   0.0000E+00  0.0000
   1.3625E+02   1.3956E+02   0.0000E+00  0.0000
   1.3956E+02   1.4296E+02   0.0000E+00  0.0000
   1.4296E+02   1.4644E+02   0.0000E+00  0.0000
   1.4644E+02   1.5000E+02   0.0000E+00  0.0000

#   sum over                 2.7359E-05
'no. =    1   reg = 109 - 209'
msuc: {\huge [t-cross] in region mesh}
msdr: {\it plotted by \ANGEL \version}
msdl: {\it calculated by \PHITS  3.26}
wt: s(0.7)
\vspace{-3}
  region surface crossing
  area  &=&   1.0000E+00 [cm^2]
e:
 
# Information for Restart Calculation
# This calculation was newly started
# istdev =  2 # 1:Batch variance, 2:History variance
# resc2  = 5.00000000000000000E+08 # Total source weight or Total source weight / maxcas
# resc3  = 5.00000000000000000E+08 # Total history number or Total batch number
# maxcas =   500000000 # History / Batch, only used for istdev=1
# bitrseed = 1011101111111101000111101101010011111001010110111001011111010111 # bit data of rseed
