[ T-Cross ]
    title = [t-cross] in region mesh
     mesh =  reg            # mesh type is region-wise
      reg =    1            # number of crossing regions
      non     r-from    r-to       area
      1       119       219        1.000000    
   e-type =    3            # e-mesh is log given by emin, emax and ne
     emin =  1.0000000E-02  # minimum value of e-mesh points
     emax =   150.0000      # maximum value of e-mesh points
#    edel =  2.4039514E-02  # mesh width of e-mesh points
       ne =    400          # number of e-mesh points
#    data = ( e(i), i = 1, ne + 1 )
#           1.00000E-02  1.02433E-02  1.04925E-02  1.07478E-02  1.10093E-02
#           1.12772E-02  1.15516E-02  1.18326E-02  1.21205E-02  1.24154E-02
#           1.27175E-02  1.30269E-02  1.33439E-02  1.36686E-02  1.40011E-02
#           1.43418E-02  1.46907E-02  1.50482E-02  1.54143E-02  1.57894E-02
#           1.61735E-02  1.65670E-02  1.69701E-02  1.73830E-02  1.78060E-02
#           1.82392E-02  1.86830E-02  1.91375E-02  1.96032E-02  2.00801E-02
#           2.05687E-02  2.10692E-02  2.15818E-02  2.21069E-02  2.26448E-02
#           2.31957E-02  2.37601E-02  2.43382E-02  2.49304E-02  2.55369E-02
#           2.61583E-02  2.67947E-02  2.74467E-02  2.81145E-02  2.87985E-02
#           2.94992E-02  3.02169E-02  3.09521E-02  3.17052E-02  3.24766E-02
#           3.32668E-02  3.40762E-02  3.49053E-02  3.57546E-02  3.66246E-02
#           3.75157E-02  3.84284E-02  3.93634E-02  4.03212E-02  4.13022E-02
#           4.23071E-02  4.33365E-02  4.43909E-02  4.54710E-02  4.65773E-02
#           4.77106E-02  4.88714E-02  5.00605E-02  5.12785E-02  5.25262E-02
#           5.38042E-02  5.51133E-02  5.64542E-02  5.78278E-02  5.92348E-02
#           6.06760E-02  6.21523E-02  6.36645E-02  6.52135E-02  6.68002E-02
#           6.84255E-02  7.00904E-02  7.17957E-02  7.35426E-02  7.53319E-02
#           7.71648E-02  7.90423E-02  8.09655E-02  8.29354E-02  8.49533E-02
#           8.70203E-02  8.91376E-02  9.13064E-02  9.35279E-02  9.58035E-02
#           9.81345E-02  1.00522E-01  1.02968E-01  1.05473E-01  1.08040E-01
#           1.10668E-01  1.13361E-01  1.16119E-01  1.18944E-01  1.21838E-01
#           1.24803E-01  1.27839E-01  1.30950E-01  1.34136E-01  1.37399E-01
#           1.40742E-01  1.44167E-01  1.47675E-01  1.51268E-01  1.54948E-01
#           1.58718E-01  1.62580E-01  1.66535E-01  1.70587E-01  1.74738E-01
#           1.78989E-01  1.83344E-01  1.87805E-01  1.92375E-01  1.97055E-01
#           2.01850E-01  2.06761E-01  2.11792E-01  2.16945E-01  2.22223E-01
#           2.27630E-01  2.33169E-01  2.38842E-01  2.44653E-01  2.50605E-01
#           2.56703E-01  2.62949E-01  2.69346E-01  2.75900E-01  2.82613E-01
#           2.89489E-01  2.96532E-01  3.03747E-01  3.11138E-01  3.18708E-01
#           3.26462E-01  3.34405E-01  3.42542E-01  3.50876E-01  3.59413E-01
#           3.68158E-01  3.77116E-01  3.86291E-01  3.95690E-01  4.05317E-01
#           4.15179E-01  4.25281E-01  4.35628E-01  4.46227E-01  4.57084E-01
#           4.68205E-01  4.79597E-01  4.91266E-01  5.03219E-01  5.15463E-01
#           5.28005E-01  5.40851E-01  5.54011E-01  5.67490E-01  5.81298E-01
#           5.95441E-01  6.09929E-01  6.24769E-01  6.39970E-01  6.55541E-01
#           6.71491E-01  6.87828E-01  7.04564E-01  7.21706E-01  7.39266E-01
#           7.57253E-01  7.75678E-01  7.94551E-01  8.13883E-01  8.33685E-01
#           8.53969E-01  8.74747E-01  8.96030E-01  9.17831E-01  9.40163E-01
#           9.63038E-01  9.86469E-01  1.01047E+00  1.03506E+00  1.06024E+00
#           1.08604E+00  1.11246E+00  1.13953E+00  1.16725E+00  1.19565E+00
#           1.22474E+00  1.25454E+00  1.28507E+00  1.31633E+00  1.34836E+00
#           1.38117E+00  1.41477E+00  1.44920E+00  1.48446E+00  1.52057E+00
#           1.55757E+00  1.59547E+00  1.63429E+00  1.67405E+00  1.71478E+00
#           1.75650E+00  1.79924E+00  1.84302E+00  1.88786E+00  1.93379E+00
#           1.98084E+00  2.02904E+00  2.07841E+00  2.12898E+00  2.18078E+00
#           2.23384E+00  2.28819E+00  2.34386E+00  2.40089E+00  2.45930E+00
#           2.51914E+00  2.58043E+00  2.64322E+00  2.70753E+00  2.77341E+00
#           2.84088E+00  2.91001E+00  2.98081E+00  3.05333E+00  3.12762E+00
#           3.20372E+00  3.28167E+00  3.36152E+00  3.44330E+00  3.52708E+00
#           3.61290E+00  3.70080E+00  3.79085E+00  3.88308E+00  3.97756E+00
#           4.07434E+00  4.17347E+00  4.27501E+00  4.37903E+00  4.48557E+00
#           4.59471E+00  4.70650E+00  4.82102E+00  4.93832E+00  5.05847E+00
#           5.18155E+00  5.30762E+00  5.43676E+00  5.56904E+00  5.70453E+00
#           5.84333E+00  5.98550E+00  6.13114E+00  6.28031E+00  6.43312E+00
#           6.58964E+00  6.74997E+00  6.91420E+00  7.08243E+00  7.25475E+00
#           7.43126E+00  7.61207E+00  7.79728E+00  7.98700E+00  8.18133E+00
#           8.38038E+00  8.58428E+00  8.79315E+00  9.00709E+00  9.22624E+00
#           9.45072E+00  9.68067E+00  9.91620E+00  1.01575E+01  1.04046E+01
#           1.06578E+01  1.09171E+01  1.11827E+01  1.14548E+01  1.17335E+01
#           1.20190E+01  1.23114E+01  1.26109E+01  1.29178E+01  1.32321E+01
#           1.35540E+01  1.38838E+01  1.42216E+01  1.45676E+01  1.49221E+01
#           1.52851E+01  1.56570E+01  1.60380E+01  1.64282E+01  1.68279E+01
#           1.72374E+01  1.76568E+01  1.80864E+01  1.85264E+01  1.89772E+01
#           1.94389E+01  1.99119E+01  2.03963E+01  2.08926E+01  2.14009E+01
#           2.19216E+01  2.24550E+01  2.30014E+01  2.35610E+01  2.41343E+01
#           2.47215E+01  2.53230E+01  2.59391E+01  2.65702E+01  2.72167E+01
#           2.78789E+01  2.85572E+01  2.92520E+01  2.99637E+01  3.06928E+01
#           3.14396E+01  3.22045E+01  3.29881E+01  3.37907E+01  3.46128E+01
#           3.54550E+01  3.63177E+01  3.72013E+01  3.81064E+01  3.90336E+01
#           3.99833E+01  4.09561E+01  4.19526E+01  4.29734E+01  4.40189E+01
#           4.50900E+01  4.61870E+01  4.73108E+01  4.84619E+01  4.96410E+01
#           5.08488E+01  5.20860E+01  5.33533E+01  5.46514E+01  5.59812E+01
#           5.73432E+01  5.87384E+01  6.01676E+01  6.16315E+01  6.31311E+01
#           6.46671E+01  6.62405E+01  6.78522E+01  6.95031E+01  7.11941E+01
#           7.29263E+01  7.47007E+01  7.65182E+01  7.83800E+01  8.02870E+01
#           8.22405E+01  8.42414E+01  8.62911E+01  8.83906E+01  9.05412E+01
#           9.27442E+01  9.50007E+01  9.73122E+01  9.96799E+01  1.02105E+02
#           1.04589E+02  1.07134E+02  1.09741E+02  1.12411E+02  1.15146E+02
#           1.17948E+02  1.20817E+02  1.23757E+02  1.26768E+02  1.29852E+02
#           1.33012E+02  1.36248E+02  1.39563E+02  1.42959E+02  1.46437E+02
#           1.50000E+02
     unit =    2            # unit is [1/cm^2/(MeV/n)/source]
     axis =  eng            # axis of output
     file = detector-20.out  # file name of output for the above axis
   output = f-curr          # surface crossing forward current spectrum
     part =  neutron  
# kf/name :  2112     
#    used :        main (  %)        temp (  %)       total (  %)
#  memory :         414 (  0)           0 (  0)         414 (  0)

#------------------------------------------------------------------------------
#newpage:
#   no. =    1   reg = 119 - 219

x: Energy [MeV/n]
y:  F-Curr [1/cm^2/(MeV/n)/source]         
p: xlog ylog afac(0.8) form(0.9)
h: n            x            y(neutron ),hh0l   n 
#  e-lower      e-upper      neutron     r.err 
   1.0000E-02   1.0243E-02   2.1697E-03  0.0614
   1.0243E-02   1.0493E-02   2.2386E-03  0.0598
   1.0493E-02   1.0748E-02   1.8533E-03  0.0649
   1.0748E-02   1.1009E-02   1.8633E-03  0.0640
   1.1009E-02   1.1277E-02   2.0925E-03  0.0596
   1.1277E-02   1.1552E-02   1.8493E-03  0.0626
   1.1552E-02   1.1833E-02   2.0031E-03  0.0595
   1.1833E-02   1.2121E-02   1.8524E-03  0.0612
   1.2121E-02   1.2415E-02   1.7213E-03  0.0626
   1.2415E-02   1.2718E-02   1.7060E-03  0.0622
   1.2718E-02   1.3027E-02   1.7383E-03  0.0609
   1.3027E-02   1.3344E-02   1.5668E-03  0.0634
   1.3344E-02   1.3669E-02   1.6286E-03  0.0615
   1.3669E-02   1.4001E-02   1.6989E-03  0.0595
   1.4001E-02   1.4342E-02   1.6240E-03  0.0599
   1.4342E-02   1.4691E-02   1.6773E-03  0.0583
   1.4691E-02   1.5048E-02   1.4437E-03  0.0622
   1.5048E-02   1.5414E-02   1.4949E-03  0.0603
   1.5414E-02   1.5789E-02   1.5216E-03  0.0592
   1.5789E-02   1.6174E-02   1.5014E-03  0.0588
   1.6174E-02   1.6567E-02   1.4520E-03  0.0590
   1.6567E-02   1.6970E-02   1.3612E-03  0.0603
   1.6970E-02   1.7383E-02   1.4140E-03  0.0585
   1.7383E-02   1.7806E-02   1.3172E-03  0.0599
   1.7806E-02   1.8239E-02   1.4080E-03  0.0572
   1.8239E-02   1.8683E-02   1.3423E-03  0.0579
   1.8683E-02   1.9138E-02   1.4342E-03  0.0553
   1.9138E-02   1.9603E-02   1.2837E-03  0.0577
   1.9603E-02   2.0080E-02   1.2731E-03  0.0573
   2.0080E-02   2.0569E-02   1.2266E-03  0.0576
   2.0569E-02   2.1069E-02   1.1547E-03  0.0587
   2.1069E-02   2.1582E-02   1.2244E-03  0.0564
   2.1582E-02   2.2107E-02   1.3000E-03  0.0541
   2.2107E-02   2.2645E-02   1.0540E-03  0.0594
   2.2645E-02   2.3196E-02   1.1930E-03  0.0551
   2.3196E-02   2.3760E-02   1.0885E-03  0.0569
   2.3760E-02   2.4338E-02   1.1595E-03  0.0546
   2.4338E-02   2.4930E-02   1.1470E-03  0.0542
   2.4930E-02   2.5537E-02   9.7612E-04  0.0580
   2.5537E-02   2.6158E-02   9.8599E-04  0.0571
   2.6158E-02   2.6795E-02   1.0080E-03  0.0558
   2.6795E-02   2.7447E-02   9.7997E-04  0.0559
   2.7447E-02   2.8114E-02   9.5563E-04  0.0559
   2.8114E-02   2.8799E-02   9.2340E-04  0.0562
   2.8799E-02   2.9499E-02   9.2154E-04  0.0556
   2.9499E-02   3.0217E-02   8.8470E-04  0.0560
   3.0217E-02   3.0952E-02   8.6484E-04  0.0560
   3.0952E-02   3.1705E-02   8.9933E-04  0.0542
   3.1705E-02   3.2477E-02   8.5687E-04  0.0549
   3.2477E-02   3.3267E-02   7.8063E-04  0.0569
   3.3267E-02   3.4076E-02   8.7258E-04  0.0532
   3.4076E-02   3.4905E-02   7.9882E-04  0.0549
   3.4905E-02   3.5755E-02   8.1269E-04  0.0537
   3.5755E-02   3.6625E-02   8.5399E-04  0.0518
   3.6625E-02   3.7516E-02   7.7399E-04  0.0538
   3.7516E-02   3.8428E-02   6.9368E-04  0.0561
   3.8428E-02   3.9363E-02   7.3882E-04  0.0537
   3.9363E-02   4.0321E-02   7.3842E-04  0.0531
   4.0321E-02   4.1302E-02   7.4778E-04  0.0521
   4.1302E-02   4.2307E-02   6.4630E-04  0.0554
   4.2307E-02   4.3337E-02   7.1670E-04  0.0519
   4.3337E-02   4.4391E-02   7.0932E-04  0.0517
   4.4391E-02   4.5471E-02   6.1582E-04  0.0548
   4.5471E-02   4.6577E-02   6.2479E-04  0.0537
   4.6577E-02   4.7711E-02   6.7143E-04  0.0512
   4.7711E-02   4.8871E-02   5.8375E-04  0.0543
   4.8871E-02   5.0061E-02   6.1715E-04  0.0521
   5.0061E-02   5.1279E-02   6.5231E-04  0.0501
   5.1279E-02   5.2526E-02   5.6168E-04  0.0533
   5.2526E-02   5.3804E-02   5.1606E-04  0.0550
   5.3804E-02   5.5113E-02   5.4322E-04  0.0529
   5.5113E-02   5.6454E-02   5.0761E-04  0.0541
   5.6454E-02   5.7828E-02   4.6929E-04  0.0556
   5.7828E-02   5.9235E-02   4.9766E-04  0.0533
   5.9235E-02   6.0676E-02   4.9240E-04  0.0529
   6.0676E-02   6.2152E-02   4.9196E-04  0.0524
   6.2152E-02   6.3665E-02   5.1135E-04  0.0508
   6.3665E-02   6.5214E-02   4.8333E-04  0.0516
   6.5214E-02   6.6800E-02   5.1989E-04  0.0492
   6.6800E-02   6.8426E-02   4.4394E-04  0.0525
   6.8426E-02   7.0090E-02   4.5628E-04  0.0512
   7.0090E-02   7.1796E-02   4.3033E-04  0.0521
   7.1796E-02   7.3543E-02   4.4264E-04  0.0508
   7.3543E-02   7.5332E-02   4.4302E-04  0.0501
   7.5332E-02   7.7165E-02   4.2054E-04  0.0509
   7.7165E-02   7.9042E-02   3.7531E-04  0.0532
   7.9042E-02   8.0965E-02   3.9759E-04  0.0511
   8.0965E-02   8.2935E-02   3.9545E-04  0.0506
   8.2935E-02   8.4953E-02   3.7897E-04  0.0511
   8.4953E-02   8.7020E-02   3.9363E-04  0.0495
   8.7020E-02   8.9138E-02   3.5281E-04  0.0517
   8.9138E-02   9.1306E-02   3.7478E-04  0.0496
   9.1306E-02   9.3528E-02   3.5661E-04  0.0501
   9.3528E-02   9.5804E-02   3.4473E-04  0.0504
   9.5804E-02   9.8134E-02   3.3784E-04  0.0504
   9.8134E-02   1.0052E-01   3.2429E-04  0.0507
   1.0052E-01   1.0297E-01   3.2307E-04  0.0502
   1.0297E-01   1.0547E-01   3.0402E-04  0.0512
   1.0547E-01   1.0804E-01   3.0864E-04  0.0502
   1.0804E-01   1.1067E-01   2.6692E-04  0.0533
   1.1067E-01   1.1336E-01   2.8693E-04  0.0507
   1.1336E-01   1.1612E-01   2.9801E-04  0.0493
   1.1612E-01   1.1894E-01   2.9484E-04  0.0489
   1.1894E-01   1.2184E-01   2.6860E-04  0.0506
   1.2184E-01   1.2480E-01   2.6909E-04  0.0500
   1.2480E-01   1.2784E-01   2.5818E-04  0.0504
   1.2784E-01   1.3095E-01   2.3188E-04  0.0526
   1.3095E-01   1.3414E-01   2.1784E-04  0.0536
   1.3414E-01   1.3740E-01   2.4900E-04  0.0495
   1.3740E-01   1.4074E-01   2.2554E-04  0.0514
   1.4074E-01   1.4417E-01   2.1943E-04  0.0515
   1.4417E-01   1.4767E-01   2.1243E-04  0.0517
   1.4767E-01   1.5127E-01   1.9097E-04  0.0539
   1.5127E-01   1.5495E-01   1.8882E-04  0.0536
   1.5495E-01   1.5872E-01   2.1534E-04  0.0496
   1.5872E-01   1.6258E-01   1.9203E-04  0.0518
   1.6258E-01   1.6654E-01   2.1420E-04  0.0485
   1.6654E-01   1.7059E-01   1.9423E-04  0.0504
   1.7059E-01   1.7474E-01   1.8247E-04  0.0512
   1.7474E-01   1.7899E-01   1.8180E-04  0.0507
   1.7899E-01   1.8334E-01   1.6768E-04  0.0522
   1.8334E-01   1.8781E-01   1.5584E-04  0.0535
   1.8781E-01   1.9237E-01   1.6260E-04  0.0518
   1.9237E-01   1.9706E-01   1.5562E-04  0.0523
   1.9706E-01   2.0185E-01   1.4341E-04  0.0538
   2.0185E-01   2.0676E-01   1.4300E-04  0.0533
   2.0676E-01   2.1179E-01   1.5507E-04  0.0504
   2.1179E-01   2.1694E-01   1.6901E-04  0.0478
   2.1694E-01   2.2222E-01   1.6294E-04  0.0481
   2.2222E-01   2.2763E-01   1.7118E-04  0.0464
   2.2763E-01   2.3317E-01   1.7085E-04  0.0459
   2.3317E-01   2.3884E-01   1.8391E-04  0.0437
   2.3884E-01   2.4465E-01   1.7454E-04  0.0443
   2.4465E-01   2.5061E-01   2.0196E-04  0.0407
   2.5061E-01   2.5670E-01   1.7574E-04  0.0431
   2.5670E-01   2.6295E-01   1.9004E-04  0.0409
   2.6295E-01   2.6935E-01   2.0712E-04  0.0387
   2.6935E-01   2.7590E-01   1.8615E-04  0.0404
   2.7590E-01   2.8261E-01   1.8879E-04  0.0396
   2.8261E-01   2.8949E-01   1.9917E-04  0.0381
   2.8949E-01   2.9653E-01   2.1579E-04  0.0362
   2.9653E-01   3.0375E-01   2.3020E-04  0.0346
   3.0375E-01   3.1114E-01   2.0800E-04  0.0360
   3.1114E-01   3.1871E-01   2.0009E-04  0.0363
   3.1871E-01   3.2646E-01   2.2535E-04  0.0338
   3.2646E-01   3.3441E-01   2.1295E-04  0.0343
   3.3441E-01   3.4254E-01   2.2588E-04  0.0329
   3.4254E-01   3.5088E-01   2.2566E-04  0.0325
   3.5088E-01   3.5941E-01   2.3101E-04  0.0318
   3.5941E-01   3.6816E-01   2.3530E-04  0.0311
   3.6816E-01   3.7712E-01   2.3486E-04  0.0308
   3.7712E-01   3.8629E-01   2.3490E-04  0.0304
   3.8629E-01   3.9569E-01   2.3040E-04  0.0303
   3.9569E-01   4.0532E-01   2.3905E-04  0.0294
   4.0532E-01   4.1518E-01   2.3293E-04  0.0294
   4.1518E-01   4.2528E-01   2.3753E-04  0.0288
   4.2528E-01   4.3563E-01   2.3397E-04  0.0287
   4.3563E-01   4.4623E-01   2.3338E-04  0.0283
   4.4623E-01   4.5708E-01   2.3221E-04  0.0281
   4.5708E-01   4.6821E-01   2.1833E-04  0.0286
   4.6821E-01   4.7960E-01   2.3020E-04  0.0275
   4.7960E-01   4.9127E-01   2.3015E-04  0.0272
   4.9127E-01   5.0322E-01   2.2711E-04  0.0271
   5.0322E-01   5.1546E-01   2.2938E-04  0.0266
   5.1546E-01   5.2800E-01   2.3228E-04  0.0261
   5.2800E-01   5.4085E-01   2.2852E-04  0.0260
   5.4085E-01   5.5401E-01   2.2744E-04  0.0258
   5.5401E-01   5.6749E-01   2.3064E-04  0.0253
   5.6749E-01   5.8130E-01   2.1970E-04  0.0256
   5.8130E-01   5.9544E-01   2.3842E-04  0.0243
   5.9544E-01   6.0993E-01   2.1149E-04  0.0254
   6.0993E-01   6.2477E-01   2.1491E-04  0.0249
   6.2477E-01   6.3997E-01   2.1146E-04  0.0249
   6.3997E-01   6.5554E-01   2.1887E-04  0.0241
   6.5554E-01   6.7149E-01   2.0945E-04  0.0244
   6.7149E-01   6.8783E-01   2.0393E-04  0.0244
   6.8783E-01   7.0456E-01   2.1347E-04  0.0236
   7.0456E-01   7.2171E-01   2.0782E-04  0.0236
   7.2171E-01   7.3927E-01   2.0019E-04  0.0238
   7.3927E-01   7.5725E-01   2.0899E-04  0.0230
   7.5725E-01   7.7568E-01   2.0833E-04  0.0227
   7.7568E-01   7.9455E-01   2.0592E-04  0.0226
   7.9455E-01   8.1388E-01   1.8948E-04  0.0233
   8.1388E-01   8.3368E-01   1.8981E-04  0.0230
   8.3368E-01   8.5397E-01   1.9675E-04  0.0223
   8.5397E-01   8.7475E-01   1.8609E-04  0.0227
   8.7475E-01   8.9603E-01   1.8801E-04  0.0223
   8.9603E-01   9.1783E-01   1.8643E-04  0.0221
   9.1783E-01   9.4016E-01   1.8338E-04  0.0220
   9.4016E-01   9.6304E-01   1.8032E-04  0.0219
   9.6304E-01   9.8647E-01   1.8093E-04  0.0216
   9.8647E-01   1.0105E+00   1.7799E-04  0.0215
   1.0105E+00   1.0351E+00   1.7623E-04  0.0214
   1.0351E+00   1.0602E+00   1.7738E-04  0.0211
   1.0602E+00   1.0860E+00   1.6613E-04  0.0215
   1.0860E+00   1.1125E+00   1.7230E-04  0.0208
   1.1125E+00   1.1395E+00   1.5925E-04  0.0214
   1.1395E+00   1.1673E+00   1.6732E-04  0.0207
   1.1673E+00   1.1957E+00   1.5720E-04  0.0211
   1.1957E+00   1.2247E+00   1.5854E-04  0.0207
   1.2247E+00   1.2545E+00   1.5795E-04  0.0205
   1.2545E+00   1.2851E+00   1.5878E-04  0.0202
   1.2851E+00   1.3163E+00   1.5396E-04  0.0203
   1.3163E+00   1.3484E+00   1.5378E-04  0.0200
   1.3484E+00   1.3812E+00   1.4879E-04  0.0201
   1.3812E+00   1.4148E+00   1.4615E-04  0.0201
   1.4148E+00   1.4492E+00   1.4832E-04  0.0197
   1.4492E+00   1.4845E+00   1.4418E-04  0.0197
   1.4845E+00   1.5206E+00   1.4406E-04  0.0195
   1.5206E+00   1.5576E+00   1.3802E-04  0.0197
   1.5576E+00   1.5955E+00   1.4275E-04  0.0191
   1.5955E+00   1.6343E+00   1.4600E-04  0.0187
   1.6343E+00   1.6741E+00   1.3724E-04  0.0190
   1.6741E+00   1.7148E+00   1.3343E-04  0.0191
   1.7148E+00   1.7565E+00   1.3606E-04  0.0187
   1.7565E+00   1.7992E+00   1.4039E-04  0.0182
   1.7992E+00   1.8430E+00   1.3203E-04  0.0185
   1.8430E+00   1.8879E+00   1.3228E-04  0.0183
   1.8879E+00   1.9338E+00   1.3231E-04  0.0181
   1.9338E+00   1.9808E+00   1.3607E-04  0.0176
   1.9808E+00   2.0290E+00   1.3259E-04  0.0176
   2.0290E+00   2.0784E+00   1.3106E-04  0.0175
   2.0784E+00   2.1290E+00   1.2799E-04  0.0175
   2.1290E+00   2.1808E+00   1.2533E-04  0.0175
   2.1808E+00   2.2338E+00   1.2819E-04  0.0171
   2.2338E+00   2.2882E+00   1.2408E-04  0.0171
   2.2882E+00   2.3439E+00   1.2391E-04  0.0169
   2.3439E+00   2.4009E+00   1.2054E-04  0.0170
   2.4009E+00   2.4593E+00   1.2045E-04  0.0168
   2.4593E+00   2.5191E+00   1.2469E-04  0.0163
   2.5191E+00   2.5804E+00   1.1897E-04  0.0165
   2.5804E+00   2.6432E+00   1.1619E-04  0.0165
   2.6432E+00   2.7075E+00   1.1464E-04  0.0164
   2.7075E+00   2.7734E+00   1.1501E-04  0.0162
   2.7734E+00   2.8409E+00   1.1564E-04  0.0159
   2.8409E+00   2.9100E+00   1.1125E-04  0.0161
   2.9100E+00   2.9808E+00   1.0827E-04  0.0161
   2.9808E+00   3.0533E+00   9.8913E-05  0.0166
   3.0533E+00   3.1276E+00   9.1425E-05  0.0171
   3.1276E+00   3.2037E+00   8.4643E-05  0.0175
   3.2037E+00   3.2817E+00   7.8412E-05  0.0180
   3.2817E+00   3.3615E+00   7.2389E-05  0.0185
   3.3615E+00   3.4433E+00   6.5996E-05  0.0192
   3.4433E+00   3.5271E+00   6.7369E-05  0.0187
   3.5271E+00   3.6129E+00   6.3714E-05  0.0190
   3.6129E+00   3.7008E+00   6.3435E-05  0.0188
   3.7008E+00   3.7908E+00   6.0685E-05  0.0190
   3.7908E+00   3.8831E+00   6.2082E-05  0.0186
   3.8831E+00   3.9776E+00   5.9568E-05  0.0188
   3.9776E+00   4.0743E+00   5.9166E-05  0.0186
   4.0743E+00   4.1735E+00   5.6512E-05  0.0188
   4.1735E+00   4.2750E+00   5.5790E-05  0.0187
   4.2750E+00   4.3790E+00   5.4051E-05  0.0188
   4.3790E+00   4.4856E+00   5.2472E-05  0.0188
   4.4856E+00   4.5947E+00   5.0502E-05  0.0190
   4.5947E+00   4.7065E+00   5.1268E-05  0.0186
   4.7065E+00   4.8210E+00   4.9619E-05  0.0187
   4.8210E+00   4.9383E+00   4.6822E-05  0.0190
   4.9383E+00   5.0585E+00   4.7805E-05  0.0186
   5.0585E+00   5.1815E+00   4.2949E-05  0.0194
   5.1815E+00   5.3076E+00   4.0791E-05  0.0197
   5.3076E+00   5.4368E+00   4.1457E-05  0.0193
   5.4368E+00   5.5690E+00   4.0222E-05  0.0193
   5.5690E+00   5.7045E+00   3.8235E-05  0.0196
   5.7045E+00   5.8433E+00   3.8448E-05  0.0193
   5.8433E+00   5.9855E+00   3.6110E-05  0.0197
   5.9855E+00   6.1311E+00   3.6243E-05  0.0194
   6.1311E+00   6.2803E+00   3.3626E-05  0.0199
   6.2803E+00   6.4331E+00   3.4199E-05  0.0195
   6.4331E+00   6.5896E+00   3.1813E-05  0.0200
   6.5896E+00   6.7500E+00   3.1644E-05  0.0198
   6.7500E+00   6.9142E+00   3.1413E-05  0.0196
   6.9142E+00   7.0824E+00   2.9707E-05  0.0200
   7.0824E+00   7.2548E+00   2.8986E-05  0.0200
   7.2548E+00   7.4313E+00   2.7247E-05  0.0204
   7.4313E+00   7.6121E+00   2.7505E-05  0.0200
   7.6121E+00   7.7973E+00   2.5943E-05  0.0204
   7.7973E+00   7.9870E+00   2.5624E-05  0.0203
   7.9870E+00   8.1813E+00   2.5700E-05  0.0200
   8.1813E+00   8.3804E+00   2.3167E-05  0.0208
   8.3804E+00   8.5843E+00   2.3113E-05  0.0206
   8.5843E+00   8.7931E+00   2.2815E-05  0.0205
   8.7931E+00   9.0071E+00   2.1210E-05  0.0210
   9.0071E+00   9.2262E+00   2.0955E-05  0.0208
   9.2262E+00   9.4507E+00   2.0233E-05  0.0210
   9.4507E+00   9.6807E+00   1.9312E-05  0.0212
   9.6807E+00   9.9162E+00   1.8517E-05  0.0214
   9.9162E+00   1.0157E+01   1.7356E-05  0.0218
   1.0157E+01   1.0405E+01   1.8312E-05  0.0210
   1.0405E+01   1.0658E+01   1.9012E-05  0.0204
   1.0658E+01   1.0917E+01   1.9598E-05  0.0198
   1.0917E+01   1.1183E+01   1.8905E-05  0.0199
   1.1183E+01   1.1455E+01   1.7998E-05  0.0202
   1.1455E+01   1.1733E+01   1.7973E-05  0.0200
   1.1733E+01   1.2019E+01   1.6675E-05  0.0205
   1.2019E+01   1.2311E+01   1.4990E-05  0.0214
   1.2311E+01   1.2611E+01   1.4544E-05  0.0214
   1.2611E+01   1.2918E+01   1.4511E-05  0.0212
   1.2918E+01   1.3232E+01   1.4300E-05  0.0211
   1.3232E+01   1.3554E+01   1.3502E-05  0.0214
   1.3554E+01   1.3884E+01   1.3166E-05  0.0215
   1.3884E+01   1.4222E+01   1.2851E-05  0.0215
   1.4222E+01   1.4568E+01   1.2028E-05  0.0219
   1.4568E+01   1.4922E+01   1.1641E-05  0.0220
   1.4922E+01   1.5285E+01   1.0960E-05  0.0224
   1.5285E+01   1.5657E+01   1.0194E-05  0.0230
   1.5657E+01   1.6038E+01   1.0015E-05  0.0229
   1.6038E+01   1.6428E+01   9.3614E-06  0.0234
   1.6428E+01   1.6828E+01   9.0931E-06  0.0235
   1.6828E+01   1.7237E+01   8.7193E-06  0.0237
   1.7237E+01   1.7657E+01   8.0210E-06  0.0244
   1.7657E+01   1.8086E+01   7.8398E-06  0.0244
   1.8086E+01   1.8526E+01   7.4309E-06  0.0247
   1.8526E+01   1.8977E+01   6.7234E-06  0.0257
   1.8977E+01   1.9439E+01   6.3500E-06  0.0261
   1.9439E+01   1.9912E+01   5.7129E-06  0.0272
   1.9912E+01   2.0396E+01   4.8961E-06  0.0290
   2.0396E+01   2.0893E+01   4.6024E-06  0.0296
   2.0893E+01   2.1401E+01   3.8007E-06  0.0322
   2.1401E+01   2.1922E+01   3.6182E-06  0.0326
   2.1922E+01   2.2455E+01   3.1085E-06  0.0347
   2.2455E+01   2.3001E+01   2.3977E-06  0.0391
   2.3001E+01   2.3561E+01   2.1013E-06  0.0412
   2.3561E+01   2.4134E+01   1.3676E-06  0.0505
   2.4134E+01   2.4721E+01   1.1512E-06  0.0544
   2.4721E+01   2.5323E+01   7.4814E-07  0.0667
   2.5323E+01   2.5939E+01   4.2524E-07  0.0874
   2.5939E+01   2.6570E+01   2.5352E-07  0.1118
   2.6570E+01   2.7217E+01   1.3303E-07  0.1525
   2.7217E+01   2.7879E+01   4.2283E-08  0.2673
   2.7879E+01   2.8557E+01   8.8454E-09  0.5774
   2.8557E+01   2.9252E+01   0.0000E+00  0.0000
   2.9252E+01   2.9964E+01   0.0000E+00  0.0000
   2.9964E+01   3.0693E+01   0.0000E+00  0.0000
   3.0693E+01   3.1440E+01   0.0000E+00  0.0000
   3.1440E+01   3.2205E+01   0.0000E+00  0.0000
   3.2205E+01   3.2988E+01   0.0000E+00  0.0000
   3.2988E+01   3.3791E+01   0.0000E+00  0.0000
   3.3791E+01   3.4613E+01   0.0000E+00  0.0000
   3.4613E+01   3.5455E+01   0.0000E+00  0.0000
   3.5455E+01   3.6318E+01   0.0000E+00  0.0000
   3.6318E+01   3.7201E+01   0.0000E+00  0.0000
   3.7201E+01   3.8106E+01   0.0000E+00  0.0000
   3.8106E+01   3.9034E+01   0.0000E+00  0.0000
   3.9034E+01   3.9983E+01   0.0000E+00  0.0000
   3.9983E+01   4.0956E+01   0.0000E+00  0.0000
   4.0956E+01   4.1953E+01   0.0000E+00  0.0000
   4.1953E+01   4.2973E+01   0.0000E+00  0.0000
   4.2973E+01   4.4019E+01   0.0000E+00  0.0000
   4.4019E+01   4.5090E+01   0.0000E+00  0.0000
   4.5090E+01   4.6187E+01   0.0000E+00  0.0000
   4.6187E+01   4.7311E+01   0.0000E+00  0.0000
   4.7311E+01   4.8462E+01   0.0000E+00  0.0000
   4.8462E+01   4.9641E+01   0.0000E+00  0.0000
   4.9641E+01   5.0849E+01   0.0000E+00  0.0000
   5.0849E+01   5.2086E+01   0.0000E+00  0.0000
   5.2086E+01   5.3353E+01   0.0000E+00  0.0000
   5.3353E+01   5.4651E+01   0.0000E+00  0.0000
   5.4651E+01   5.5981E+01   0.0000E+00  0.0000
   5.5981E+01   5.7343E+01   0.0000E+00  0.0000
   5.7343E+01   5.8738E+01   0.0000E+00  0.0000
   5.8738E+01   6.0168E+01   0.0000E+00  0.0000
   6.0168E+01   6.1632E+01   0.0000E+00  0.0000
   6.1632E+01   6.3131E+01   0.0000E+00  0.0000
   6.3131E+01   6.4667E+01   0.0000E+00  0.0000
   6.4667E+01   6.6240E+01   0.0000E+00  0.0000
   6.6240E+01   6.7852E+01   0.0000E+00  0.0000
   6.7852E+01   6.9503E+01   0.0000E+00  0.0000
   6.9503E+01   7.1194E+01   0.0000E+00  0.0000
   7.1194E+01   7.2926E+01   0.0000E+00  0.0000
   7.2926E+01   7.4701E+01   0.0000E+00  0.0000
   7.4701E+01   7.6518E+01   0.0000E+00  0.0000
   7.6518E+01   7.8380E+01   0.0000E+00  0.0000
   7.8380E+01   8.0287E+01   0.0000E+00  0.0000
   8.0287E+01   8.2240E+01   0.0000E+00  0.0000
   8.2240E+01   8.4241E+01   0.0000E+00  0.0000
   8.4241E+01   8.6291E+01   0.0000E+00  0.0000
   8.6291E+01   8.8391E+01   0.0000E+00  0.0000
   8.8391E+01   9.0541E+01   0.0000E+00  0.0000
   9.0541E+01   9.2744E+01   0.0000E+00  0.0000
   9.2744E+01   9.5001E+01   0.0000E+00  0.0000
   9.5001E+01   9.7312E+01   0.0000E+00  0.0000
   9.7312E+01   9.9680E+01   0.0000E+00  0.0000
   9.9680E+01   1.0211E+02   0.0000E+00  0.0000
   1.0211E+02   1.0459E+02   0.0000E+00  0.0000
   1.0459E+02   1.0713E+02   0.0000E+00  0.0000
   1.0713E+02   1.0974E+02   0.0000E+00  0.0000
   1.0974E+02   1.1241E+02   0.0000E+00  0.0000
   1.1241E+02   1.1515E+02   0.0000E+00  0.0000
   1.1515E+02   1.1795E+02   0.0000E+00  0.0000
   1.1795E+02   1.2082E+02   0.0000E+00  0.0000
   1.2082E+02   1.2376E+02   0.0000E+00  0.0000
   1.2376E+02   1.2677E+02   0.0000E+00  0.0000
   1.2677E+02   1.2985E+02   0.0000E+00  0.0000
   1.2985E+02   1.3301E+02   0.0000E+00  0.0000
   1.3301E+02   1.3625E+02   0.0000E+00  0.0000
   1.3625E+02   1.3956E+02   0.0000E+00  0.0000
   1.3956E+02   1.4296E+02   0.0000E+00  0.0000
   1.4296E+02   1.4644E+02   0.0000E+00  0.0000
   1.4644E+02   1.5000E+02   0.0000E+00  0.0000

#   sum over                 6.1029E-06
'no. =    1   reg = 119 - 219'
msuc: {\huge [t-cross] in region mesh}
msdr: {\it plotted by \ANGEL \version}
msdl: {\it calculated by \PHITS  3.26}
wt: s(0.7)
\vspace{-3}
  region surface crossing
  area  &=&   1.0000E+00 [cm^2]
e:
 
# Information for Restart Calculation
# This calculation was newly started
# istdev =  2 # 1:Batch variance, 2:History variance
# resc2  = 5.00000000000000000E+08 # Total source weight or Total source weight / maxcas
# resc3  = 5.00000000000000000E+08 # Total history number or Total batch number
# maxcas =   500000000 # History / Batch, only used for istdev=1
# bitrseed = 1011101111111101000111101101010011111001010110111001011111010111 # bit data of rseed
