[ T-Cross ]
    title = [t-cross] in region mesh
     mesh =  reg            # mesh type is region-wise
      reg =    1            # number of crossing regions
      non     r-from    r-to       area
      1       125       225        1.000000    
   e-type =    3            # e-mesh is log given by emin, emax and ne
     emin =  1.0000000E-02  # minimum value of e-mesh points
     emax =   150.0000      # maximum value of e-mesh points
#    edel =  2.4039514E-02  # mesh width of e-mesh points
       ne =    400          # number of e-mesh points
#    data = ( e(i), i = 1, ne + 1 )
#           1.00000E-02  1.02433E-02  1.04925E-02  1.07478E-02  1.10093E-02
#           1.12772E-02  1.15516E-02  1.18326E-02  1.21205E-02  1.24154E-02
#           1.27175E-02  1.30269E-02  1.33439E-02  1.36686E-02  1.40011E-02
#           1.43418E-02  1.46907E-02  1.50482E-02  1.54143E-02  1.57894E-02
#           1.61735E-02  1.65670E-02  1.69701E-02  1.73830E-02  1.78060E-02
#           1.82392E-02  1.86830E-02  1.91375E-02  1.96032E-02  2.00801E-02
#           2.05687E-02  2.10692E-02  2.15818E-02  2.21069E-02  2.26448E-02
#           2.31957E-02  2.37601E-02  2.43382E-02  2.49304E-02  2.55369E-02
#           2.61583E-02  2.67947E-02  2.74467E-02  2.81145E-02  2.87985E-02
#           2.94992E-02  3.02169E-02  3.09521E-02  3.17052E-02  3.24766E-02
#           3.32668E-02  3.40762E-02  3.49053E-02  3.57546E-02  3.66246E-02
#           3.75157E-02  3.84284E-02  3.93634E-02  4.03212E-02  4.13022E-02
#           4.23071E-02  4.33365E-02  4.43909E-02  4.54710E-02  4.65773E-02
#           4.77106E-02  4.88714E-02  5.00605E-02  5.12785E-02  5.25262E-02
#           5.38042E-02  5.51133E-02  5.64542E-02  5.78278E-02  5.92348E-02
#           6.06760E-02  6.21523E-02  6.36645E-02  6.52135E-02  6.68002E-02
#           6.84255E-02  7.00904E-02  7.17957E-02  7.35426E-02  7.53319E-02
#           7.71648E-02  7.90423E-02  8.09655E-02  8.29354E-02  8.49533E-02
#           8.70203E-02  8.91376E-02  9.13064E-02  9.35279E-02  9.58035E-02
#           9.81345E-02  1.00522E-01  1.02968E-01  1.05473E-01  1.08040E-01
#           1.10668E-01  1.13361E-01  1.16119E-01  1.18944E-01  1.21838E-01
#           1.24803E-01  1.27839E-01  1.30950E-01  1.34136E-01  1.37399E-01
#           1.40742E-01  1.44167E-01  1.47675E-01  1.51268E-01  1.54948E-01
#           1.58718E-01  1.62580E-01  1.66535E-01  1.70587E-01  1.74738E-01
#           1.78989E-01  1.83344E-01  1.87805E-01  1.92375E-01  1.97055E-01
#           2.01850E-01  2.06761E-01  2.11792E-01  2.16945E-01  2.22223E-01
#           2.27630E-01  2.33169E-01  2.38842E-01  2.44653E-01  2.50605E-01
#           2.56703E-01  2.62949E-01  2.69346E-01  2.75900E-01  2.82613E-01
#           2.89489E-01  2.96532E-01  3.03747E-01  3.11138E-01  3.18708E-01
#           3.26462E-01  3.34405E-01  3.42542E-01  3.50876E-01  3.59413E-01
#           3.68158E-01  3.77116E-01  3.86291E-01  3.95690E-01  4.05317E-01
#           4.15179E-01  4.25281E-01  4.35628E-01  4.46227E-01  4.57084E-01
#           4.68205E-01  4.79597E-01  4.91266E-01  5.03219E-01  5.15463E-01
#           5.28005E-01  5.40851E-01  5.54011E-01  5.67490E-01  5.81298E-01
#           5.95441E-01  6.09929E-01  6.24769E-01  6.39970E-01  6.55541E-01
#           6.71491E-01  6.87828E-01  7.04564E-01  7.21706E-01  7.39266E-01
#           7.57253E-01  7.75678E-01  7.94551E-01  8.13883E-01  8.33685E-01
#           8.53969E-01  8.74747E-01  8.96030E-01  9.17831E-01  9.40163E-01
#           9.63038E-01  9.86469E-01  1.01047E+00  1.03506E+00  1.06024E+00
#           1.08604E+00  1.11246E+00  1.13953E+00  1.16725E+00  1.19565E+00
#           1.22474E+00  1.25454E+00  1.28507E+00  1.31633E+00  1.34836E+00
#           1.38117E+00  1.41477E+00  1.44920E+00  1.48446E+00  1.52057E+00
#           1.55757E+00  1.59547E+00  1.63429E+00  1.67405E+00  1.71478E+00
#           1.75650E+00  1.79924E+00  1.84302E+00  1.88786E+00  1.93379E+00
#           1.98084E+00  2.02904E+00  2.07841E+00  2.12898E+00  2.18078E+00
#           2.23384E+00  2.28819E+00  2.34386E+00  2.40089E+00  2.45930E+00
#           2.51914E+00  2.58043E+00  2.64322E+00  2.70753E+00  2.77341E+00
#           2.84088E+00  2.91001E+00  2.98081E+00  3.05333E+00  3.12762E+00
#           3.20372E+00  3.28167E+00  3.36152E+00  3.44330E+00  3.52708E+00
#           3.61290E+00  3.70080E+00  3.79085E+00  3.88308E+00  3.97756E+00
#           4.07434E+00  4.17347E+00  4.27501E+00  4.37903E+00  4.48557E+00
#           4.59471E+00  4.70650E+00  4.82102E+00  4.93832E+00  5.05847E+00
#           5.18155E+00  5.30762E+00  5.43676E+00  5.56904E+00  5.70453E+00
#           5.84333E+00  5.98550E+00  6.13114E+00  6.28031E+00  6.43312E+00
#           6.58964E+00  6.74997E+00  6.91420E+00  7.08243E+00  7.25475E+00
#           7.43126E+00  7.61207E+00  7.79728E+00  7.98700E+00  8.18133E+00
#           8.38038E+00  8.58428E+00  8.79315E+00  9.00709E+00  9.22624E+00
#           9.45072E+00  9.68067E+00  9.91620E+00  1.01575E+01  1.04046E+01
#           1.06578E+01  1.09171E+01  1.11827E+01  1.14548E+01  1.17335E+01
#           1.20190E+01  1.23114E+01  1.26109E+01  1.29178E+01  1.32321E+01
#           1.35540E+01  1.38838E+01  1.42216E+01  1.45676E+01  1.49221E+01
#           1.52851E+01  1.56570E+01  1.60380E+01  1.64282E+01  1.68279E+01
#           1.72374E+01  1.76568E+01  1.80864E+01  1.85264E+01  1.89772E+01
#           1.94389E+01  1.99119E+01  2.03963E+01  2.08926E+01  2.14009E+01
#           2.19216E+01  2.24550E+01  2.30014E+01  2.35610E+01  2.41343E+01
#           2.47215E+01  2.53230E+01  2.59391E+01  2.65702E+01  2.72167E+01
#           2.78789E+01  2.85572E+01  2.92520E+01  2.99637E+01  3.06928E+01
#           3.14396E+01  3.22045E+01  3.29881E+01  3.37907E+01  3.46128E+01
#           3.54550E+01  3.63177E+01  3.72013E+01  3.81064E+01  3.90336E+01
#           3.99833E+01  4.09561E+01  4.19526E+01  4.29734E+01  4.40189E+01
#           4.50900E+01  4.61870E+01  4.73108E+01  4.84619E+01  4.96410E+01
#           5.08488E+01  5.20860E+01  5.33533E+01  5.46514E+01  5.59812E+01
#           5.73432E+01  5.87384E+01  6.01676E+01  6.16315E+01  6.31311E+01
#           6.46671E+01  6.62405E+01  6.78522E+01  6.95031E+01  7.11941E+01
#           7.29263E+01  7.47007E+01  7.65182E+01  7.83800E+01  8.02870E+01
#           8.22405E+01  8.42414E+01  8.62911E+01  8.83906E+01  9.05412E+01
#           9.27442E+01  9.50007E+01  9.73122E+01  9.96799E+01  1.02105E+02
#           1.04589E+02  1.07134E+02  1.09741E+02  1.12411E+02  1.15146E+02
#           1.17948E+02  1.20817E+02  1.23757E+02  1.26768E+02  1.29852E+02
#           1.33012E+02  1.36248E+02  1.39563E+02  1.42959E+02  1.46437E+02
#           1.50000E+02
     unit =    2            # unit is [1/cm^2/(MeV/n)/source]
     axis =  eng            # axis of output
     file = detector-26.out  # file name of output for the above axis
   output = f-curr          # surface crossing forward current spectrum
     part =  neutron  
# kf/name :  2112     
#    used :        main (  %)        temp (  %)       total (  %)
#  memory :         414 (  0)           0 (  0)         414 (  0)

#------------------------------------------------------------------------------
#newpage:
#   no. =    1   reg = 125 - 225

x: Energy [MeV/n]
y:  F-Curr [1/cm^2/(MeV/n)/source]         
p: xlog ylog afac(0.8) form(0.9)
h: n            x            y(neutron ),hh0l   n 
#  e-lower      e-upper      neutron     r.err 
   1.0000E-02   1.0243E-02   3.5346E-04  0.1525
   1.0243E-02   1.0493E-02   2.5798E-04  0.1760
   1.0493E-02   1.0748E-02   2.4388E-04  0.1789
   1.0748E-02   1.1009E-02   3.7476E-04  0.1429
   1.1009E-02   1.1277E-02   2.8372E-04  0.1622
   1.1277E-02   1.1552E-02   2.6605E-04  0.1650
   1.1552E-02   1.1833E-02   2.8108E-04  0.1586
   1.1833E-02   1.2121E-02   2.5124E-04  0.1660
   1.2121E-02   1.2415E-02   2.9840E-04  0.1499
   1.2415E-02   1.2718E-02   2.8682E-04  0.1515
   1.2718E-02   1.3027E-02   2.0037E-04  0.1796
   1.3027E-02   1.3344E-02   2.8395E-04  0.1491
   1.3344E-02   1.3669E-02   3.0185E-04  0.1429
   1.3669E-02   1.4001E-02   2.5859E-04  0.1525
   1.4001E-02   1.4342E-02   3.1789E-04  0.1357
   1.4342E-02   1.4691E-02   2.3499E-04  0.1562
   1.4691E-02   1.5048E-02   3.0495E-04  0.1351
   1.5048E-02   1.5414E-02   2.3294E-04  0.1525
   1.5414E-02   1.5789E-02   1.9998E-04  0.1628
   1.5789E-02   1.6174E-02   2.3256E-04  0.1490
   1.6174E-02   1.6567E-02   1.9224E-04  0.1615
   1.6567E-02   1.6970E-02   2.1831E-04  0.1508
   1.6970E-02   1.7383E-02   1.9375E-04  0.1581
   1.7383E-02   1.7806E-02   2.1279E-04  0.1491
   1.7806E-02   1.8239E-02   2.4006E-04  0.1387
   1.8239E-02   1.8683E-02   1.7640E-04  0.1596
   1.8683E-02   1.9138E-02   2.3759E-04  0.1361
   1.9138E-02   1.9603E-02   1.8899E-04  0.1508
   1.9603E-02   2.0080E-02   1.9368E-04  0.1469
   2.0080E-02   2.0569E-02   1.9299E-04  0.1454
   2.0569E-02   2.1069E-02   1.8783E-04  0.1459
   2.1069E-02   2.1582E-02   1.8406E-04  0.1454
   2.1582E-02   2.2107E-02   2.1769E-04  0.1321
   2.2107E-02   2.2645E-02   1.6793E-04  0.1477
   2.2645E-02   2.3196E-02   2.0804E-04  0.1318
   2.3196E-02   2.3760E-02   1.9549E-04  0.1345
   2.3760E-02   2.4338E-02   1.9374E-04  0.1336
   2.4338E-02   2.4930E-02   1.8638E-04  0.1344
   2.4930E-02   2.5537E-02   1.1938E-04  0.1658
   2.5537E-02   2.6158E-02   1.5817E-04  0.1425
   2.6158E-02   2.6795E-02   1.5033E-04  0.1438
   2.6795E-02   2.7447E-02   1.4112E-04  0.1474
   2.7447E-02   2.8114E-02   1.7071E-04  0.1325
   2.8114E-02   2.8799E-02   1.4034E-04  0.1443
   2.8799E-02   2.9499E-02   1.6022E-04  0.1333
   2.9499E-02   3.0217E-02   1.2539E-04  0.1491
   3.0217E-02   3.0952E-02   1.3133E-04  0.1436
   3.0952E-02   3.1705E-02   1.2297E-04  0.1466
   3.1705E-02   3.2477E-02   1.6122E-04  0.1267
   3.2477E-02   3.3267E-02   1.3461E-04  0.1369
   3.3267E-02   3.4076E-02   1.1691E-04  0.1450
   3.4076E-02   3.4905E-02   1.2831E-04  0.1369
   3.4905E-02   3.5755E-02   1.1068E-04  0.1459
   3.5755E-02   3.6625E-02   1.5173E-04  0.1231
   3.6625E-02   3.7516E-02   1.4396E-04  0.1243
   3.7516E-02   3.8428E-02   1.0736E-04  0.1429
   3.8428E-02   3.9363E-02   1.3583E-04  0.1252
   3.9363E-02   4.0321E-02   1.2529E-04  0.1291
   4.0321E-02   4.1302E-02   1.1450E-04  0.1333
   4.1302E-02   4.2307E-02   1.1380E-04  0.1321
   4.2307E-02   4.3337E-02   9.3261E-05  0.1443
   4.3337E-02   4.4391E-02   9.4904E-05  0.1404
   4.4391E-02   4.5471E-02   1.0710E-04  0.1309
   4.5471E-02   4.6577E-02   5.7848E-05  0.1768
   4.6577E-02   4.7711E-02   9.3535E-05  0.1374
   4.7711E-02   4.8871E-02   1.0277E-04  0.1291
   4.8871E-02   5.0061E-02   8.7463E-05  0.1387
   5.0061E-02   5.1279E-02   1.0886E-04  0.1226
   5.1279E-02   5.2526E-02   8.0151E-05  0.1414
   5.2526E-02   5.3804E-02   7.6892E-05  0.1425
   5.3804E-02   5.5113E-02   9.0138E-05  0.1302
   5.5113E-02   5.6454E-02   9.0479E-05  0.1280
   5.6454E-02   5.7828E-02   7.1347E-05  0.1429
   5.7828E-02   5.9235E-02   9.2600E-05  0.1238
   5.9235E-02   6.0676E-02   8.3262E-05  0.1291
   6.0676E-02   6.2152E-02   7.1978E-05  0.1370
   6.2152E-02   6.3665E-02   7.1667E-05  0.1357
   6.3665E-02   6.5214E-02   6.9722E-05  0.1355
   6.5214E-02   6.6800E-02   7.9410E-05  0.1260
   6.6800E-02   6.8426E-02   5.9281E-05  0.1439
   6.8426E-02   7.0090E-02   6.7258E-05  0.1329
   7.0090E-02   7.1796E-02   7.7888E-05  0.1224
   7.1796E-02   7.3543E-02   9.1594E-05  0.1118
   7.3543E-02   7.5332E-02   7.0610E-05  0.1257
   7.5332E-02   7.7165E-02   5.6741E-05  0.1387
   7.7165E-02   7.9042E-02   6.3030E-05  0.1298
   7.9042E-02   8.0965E-02   5.9483E-05  0.1320
   8.0965E-02   8.2935E-02   5.4824E-05  0.1361
   8.2935E-02   8.4953E-02   6.4860E-05  0.1233
   8.4953E-02   8.7020E-02   6.1095E-05  0.1257
   8.7020E-02   8.9138E-02   5.1954E-05  0.1348
   8.9138E-02   9.1306E-02   6.0082E-05  0.1238
   9.1306E-02   9.3528E-02   5.8799E-05  0.1235
   9.3528E-02   9.5804E-02   6.3677E-05  0.1172
   9.5804E-02   9.8134E-02   4.9765E-05  0.1313
   9.8134E-02   1.0052E-01   5.4004E-05  0.1242
   1.0052E-01   1.0297E-01   5.9695E-05  0.1170
   1.0297E-01   1.0547E-01   5.8005E-05  0.1170
   1.0547E-01   1.0804E-01   4.4146E-05  0.1324
   1.0804E-01   1.1067E-01   5.4019E-05  0.1187
   1.1067E-01   1.1336E-01   3.4910E-05  0.1459
   1.1336E-01   1.1612E-01   4.4350E-05  0.1277
   1.1612E-01   1.1894E-01   3.8226E-05  0.1361
   1.1894E-01   1.2184E-01   2.4978E-05  0.1661
   1.2184E-01   1.2480E-01   3.5757E-05  0.1374
   1.2480E-01   1.2784E-01   5.0814E-05  0.1138
   1.2784E-01   1.3095E-01   3.8564E-05  0.1284
   1.3095E-01   1.3414E-01   3.2139E-05  0.1395
   1.3414E-01   1.3740E-01   3.3092E-05  0.1361
   1.3740E-01   1.4074E-01   3.8979E-05  0.1233
   1.4074E-01   1.4417E-01   4.0299E-05  0.1204
   1.4417E-01   1.4767E-01   2.9079E-05  0.1400
   1.4767E-01   1.5127E-01   3.0336E-05  0.1351
   1.5127E-01   1.5495E-01   2.9344E-05  0.1355
   1.5495E-01   1.5872E-01   3.3156E-05  0.1262
   1.5872E-01   1.6258E-01   3.7289E-05  0.1179
   1.6258E-01   1.6654E-01   2.8887E-05  0.1322
   1.6654E-01   1.7059E-01   2.8628E-05  0.1313
   1.7059E-01   1.7474E-01   2.2648E-05  0.1459
   1.7474E-01   1.7899E-01   3.0204E-05  0.1246
   1.7899E-01   1.8334E-01   2.5109E-05  0.1348
   1.8334E-01   1.8781E-01   3.8176E-05  0.1083
   1.8781E-01   1.9237E-01   2.3635E-05  0.1355
   1.9237E-01   1.9706E-01   2.4997E-05  0.1299
   1.9706E-01   2.0185E-01   2.4611E-05  0.1302
   2.0185E-01   2.0676E-01   2.5115E-05  0.1269
   2.0676E-01   2.1179E-01   2.1866E-05  0.1348
   2.1179E-01   2.1694E-01   2.4585E-05  0.1254
   2.1694E-01   2.2222E-01   2.7340E-05  0.1172
   2.2222E-01   2.2763E-01   2.4477E-05  0.1228
   2.2763E-01   2.3317E-01   1.9677E-05  0.1343
   2.3317E-01   2.3884E-01   2.8607E-05  0.1106
   2.3884E-01   2.4465E-01   2.6845E-05  0.1129
   2.4465E-01   2.5061E-01   2.7215E-05  0.1111
   2.5061E-01   2.5670E-01   2.6988E-05  0.1101
   2.5670E-01   2.6295E-01   2.6526E-05  0.1095
   2.6295E-01   2.6935E-01   3.0577E-05  0.1008
   2.6935E-01   2.7590E-01   2.9804E-05  0.1010
   2.7590E-01   2.8261E-01   3.0091E-05  0.0990
   2.8261E-01   2.8949E-01   2.8787E-05  0.1002
   2.8949E-01   2.9653E-01   3.0383E-05  0.0962
   2.9653E-01   3.0375E-01   2.7267E-05  0.1004
   3.0375E-01   3.1114E-01   3.1928E-05  0.0917
   3.1114E-01   3.1871E-01   3.3882E-05  0.0880
   3.1871E-01   3.2646E-01   3.3821E-05  0.0873
   3.2646E-01   3.3441E-01   3.4537E-05  0.0852
   3.3441E-01   3.4254E-01   3.7240E-05  0.0812
   3.4254E-01   3.5088E-01   3.1229E-05  0.0874
   3.5088E-01   3.5941E-01   3.3414E-05  0.0836
   3.5941E-01   3.6816E-01   3.5946E-05  0.0796
   3.6816E-01   3.7712E-01   3.2170E-05  0.0831
   3.7712E-01   3.8629E-01   3.5820E-05  0.0779
   3.8629E-01   3.9569E-01   2.7677E-05  0.0874
   3.9569E-01   4.0532E-01   3.0330E-05  0.0826
   4.0532E-01   4.1518E-01   3.1191E-05  0.0803
   4.1518E-01   4.2528E-01   3.3398E-05  0.0768
   4.2528E-01   4.3563E-01   3.0524E-05  0.0794
   4.3563E-01   4.4623E-01   3.1532E-05  0.0772
   4.4623E-01   4.5708E-01   2.8151E-05  0.0806
   4.5708E-01   4.6821E-01   2.9291E-05  0.0779
   4.6821E-01   4.7960E-01   3.2647E-05  0.0732
   4.7960E-01   4.9127E-01   2.8447E-05  0.0773
   4.9127E-01   5.0322E-01   3.4438E-05  0.0695
   5.0322E-01   5.1546E-01   3.2908E-05  0.0703
   5.1546E-01   5.2800E-01   2.8203E-05  0.0749
   5.2800E-01   5.4085E-01   3.0895E-05  0.0708
   5.4085E-01   5.5401E-01   2.9887E-05  0.0709
   5.5401E-01   5.6749E-01   3.0209E-05  0.0697
   5.6749E-01   5.8130E-01   2.5826E-05  0.0745
   5.8130E-01   5.9544E-01   2.8721E-05  0.0699
   5.9544E-01   6.0993E-01   2.7098E-05  0.0711
   6.0993E-01   6.2477E-01   2.5314E-05  0.0726
   6.2477E-01   6.3997E-01   2.6580E-05  0.0702
   6.3997E-01   6.5554E-01   2.6049E-05  0.0698
   6.5554E-01   6.7149E-01   2.4909E-05  0.0708
   6.7149E-01   6.8783E-01   2.7429E-05  0.0664
   6.8783E-01   7.0456E-01   2.3622E-05  0.0708
   7.0456E-01   7.2171E-01   2.5491E-05  0.0673
   7.2171E-01   7.3927E-01   2.6480E-05  0.0654
   7.3927E-01   7.5725E-01   2.5697E-05  0.0655
   7.5725E-01   7.7568E-01   2.4216E-05  0.0667
   7.7568E-01   7.9455E-01   2.5076E-05  0.0646
   7.9455E-01   8.1388E-01   2.3505E-05  0.0661
   8.1388E-01   8.3368E-01   2.2733E-05  0.0664
   8.3368E-01   8.5397E-01   2.1911E-05  0.0667
   8.5397E-01   8.7475E-01   2.2513E-05  0.0651
   8.7475E-01   8.9603E-01   2.2763E-05  0.0640
   8.9603E-01   9.1783E-01   2.0463E-05  0.0666
   9.1783E-01   9.4016E-01   2.3013E-05  0.0620
   9.4016E-01   9.6304E-01   2.3652E-05  0.0605
   9.6304E-01   9.8647E-01   2.3766E-05  0.0597
   9.8647E-01   1.0105E+00   2.1514E-05  0.0619
   1.0105E+00   1.0351E+00   1.8700E-05  0.0656
   1.0351E+00   1.0602E+00   2.0664E-05  0.0618
   1.0602E+00   1.0860E+00   2.0256E-05  0.0616
   1.0860E+00   1.1125E+00   1.8053E-05  0.0644
   1.1125E+00   1.1395E+00   2.0669E-05  0.0596
   1.1395E+00   1.1673E+00   1.9092E-05  0.0613
   1.1673E+00   1.1957E+00   1.6744E-05  0.0643
   1.1957E+00   1.2247E+00   2.1215E-05  0.0566
   1.2247E+00   1.2545E+00   1.7725E-05  0.0612
   1.2545E+00   1.2851E+00   1.9365E-05  0.0579
   1.2851E+00   1.3163E+00   1.8254E-05  0.0588
   1.3163E+00   1.3484E+00   1.8815E-05  0.0572
   1.3484E+00   1.3812E+00   1.7945E-05  0.0580
   1.3812E+00   1.4148E+00   1.8316E-05  0.0567
   1.4148E+00   1.4492E+00   1.8270E-05  0.0562
   1.4492E+00   1.4845E+00   1.6889E-05  0.0576
   1.4845E+00   1.5206E+00   1.9783E-05  0.0526
   1.5206E+00   1.5576E+00   1.7731E-05  0.0548
   1.5576E+00   1.5955E+00   1.7867E-05  0.0541
   1.5955E+00   1.6343E+00   1.9281E-05  0.0514
   1.6343E+00   1.6741E+00   1.8738E-05  0.0516
   1.6741E+00   1.7148E+00   1.9060E-05  0.0505
   1.7148E+00   1.7565E+00   1.7027E-05  0.0528
   1.7565E+00   1.7992E+00   1.8095E-05  0.0506
   1.7992E+00   1.8430E+00   1.7715E-05  0.0505
   1.8430E+00   1.8879E+00   1.8001E-05  0.0496
   1.8879E+00   1.9338E+00   1.6349E-05  0.0513
   1.9338E+00   1.9808E+00   1.5721E-05  0.0518
   1.9808E+00   2.0290E+00   1.5555E-05  0.0513
   2.0290E+00   2.0784E+00   1.5781E-05  0.0503
   2.0784E+00   2.1290E+00   1.7067E-05  0.0479
   2.1290E+00   2.1808E+00   1.5259E-05  0.0500
   2.1808E+00   2.2338E+00   1.4756E-05  0.0502
   2.2338E+00   2.2882E+00   1.5611E-05  0.0483
   2.2882E+00   2.3439E+00   1.5657E-05  0.0477
   2.3439E+00   2.4009E+00   1.4849E-05  0.0483
   2.4009E+00   2.4593E+00   1.3762E-05  0.0496
   2.4593E+00   2.5191E+00   1.4556E-05  0.0477
   2.5191E+00   2.5804E+00   1.4825E-05  0.0467
   2.5804E+00   2.6432E+00   1.5363E-05  0.0453
   2.6432E+00   2.7075E+00   1.4052E-05  0.0469
   2.7075E+00   2.7734E+00   1.4477E-05  0.0456
   2.7734E+00   2.8409E+00   1.2465E-05  0.0486
   2.8409E+00   2.9100E+00   1.3029E-05  0.0469
   2.9100E+00   2.9808E+00   1.0108E-05  0.0526
   2.9808E+00   3.0533E+00   9.5841E-06  0.0534
   3.0533E+00   3.1276E+00   9.4279E-06  0.0531
   3.1276E+00   3.2037E+00   8.5650E-06  0.0550
   3.2037E+00   3.2817E+00   8.5770E-06  0.0544
   3.2817E+00   3.3615E+00   8.8239E-06  0.0530
   3.3615E+00   3.4433E+00   7.7833E-06  0.0559
   3.4433E+00   3.5271E+00   8.4645E-06  0.0528
   3.5271E+00   3.6129E+00   7.6289E-06  0.0549
   3.6129E+00   3.7008E+00   7.7363E-06  0.0540
   3.7008E+00   3.7908E+00   7.4398E-06  0.0544
   3.7908E+00   3.8831E+00   7.7312E-06  0.0527
   3.8831E+00   3.9776E+00   7.0558E-06  0.0546
   3.9776E+00   4.0743E+00   7.3228E-06  0.0529
   4.0743E+00   4.1735E+00   7.3500E-06  0.0522
   4.1735E+00   4.2750E+00   7.3657E-06  0.0516
   4.2750E+00   4.3790E+00   6.1703E-06  0.0555
   4.3790E+00   4.4856E+00   7.1240E-06  0.0512
   4.4856E+00   4.5947E+00   6.8309E-06  0.0516
   4.5947E+00   4.7065E+00   6.0817E-06  0.0540
   4.7065E+00   4.8210E+00   5.6779E-06  0.0552
   4.8210E+00   4.9383E+00   5.4712E-06  0.0557
   4.9383E+00   5.0585E+00   5.0986E-06  0.0569
   5.0585E+00   5.1815E+00   4.9111E-06  0.0574
   5.1815E+00   5.3076E+00   5.3509E-06  0.0543
   5.3076E+00   5.4368E+00   4.8493E-06  0.0564
   5.4368E+00   5.5690E+00   5.1589E-06  0.0541
   5.5690E+00   5.7045E+00   4.1827E-06  0.0592
   5.7045E+00   5.8433E+00   5.1155E-06  0.0529
   5.8433E+00   5.9855E+00   4.3765E-06  0.0565
   5.9855E+00   6.1311E+00   4.2797E-06  0.0566
   6.1311E+00   6.2803E+00   4.1612E-06  0.0566
   6.2803E+00   6.4331E+00   4.4321E-06  0.0542
   6.4331E+00   6.5896E+00   3.8991E-06  0.0572
   6.5896E+00   6.7500E+00   3.5896E-06  0.0588
   6.7500E+00   6.9142E+00   3.6528E-06  0.0577
   6.9142E+00   7.0824E+00   3.7233E-06  0.0564
   7.0824E+00   7.2548E+00   3.5558E-06  0.0570
   7.2548E+00   7.4313E+00   3.7282E-06  0.0551
   7.4313E+00   7.6121E+00   3.2077E-06  0.0586
   7.6121E+00   7.7973E+00   3.0722E-06  0.0592
   7.7973E+00   7.9870E+00   2.8507E-06  0.0607
   7.9870E+00   8.1813E+00   2.6945E-06  0.0617
   8.1813E+00   8.3804E+00   2.7723E-06  0.0601
   8.3804E+00   8.5843E+00   2.9021E-06  0.0581
   8.5843E+00   8.7931E+00   2.6166E-06  0.0604
   8.7931E+00   9.0071E+00   2.4295E-06  0.0619
   9.0071E+00   9.2262E+00   2.3851E-06  0.0618
   9.2262E+00   9.4507E+00   2.4284E-06  0.0605
   9.4507E+00   9.6807E+00   2.1934E-06  0.0630
   9.6807E+00   9.9162E+00   2.0428E-06  0.0644
   9.9162E+00   1.0157E+01   2.3128E-06  0.0599
   1.0157E+01   1.0405E+01   1.9770E-06  0.0639
   1.0405E+01   1.0658E+01   2.2847E-06  0.0588
   1.0658E+01   1.0917E+01   2.2241E-06  0.0589
   1.0917E+01   1.1183E+01   2.5538E-06  0.0543
   1.1183E+01   1.1455E+01   2.1050E-06  0.0591
   1.1455E+01   1.1733E+01   1.9008E-06  0.0614
   1.1733E+01   1.2019E+01   1.8574E-06  0.0614
   1.2019E+01   1.2311E+01   1.8466E-06  0.0609
   1.2311E+01   1.2611E+01   1.9922E-06  0.0579
   1.2611E+01   1.2918E+01   1.8458E-06  0.0594
   1.2918E+01   1.3232E+01   1.7269E-06  0.0607
   1.3232E+01   1.3554E+01   1.6114E-06  0.0621
   1.3554E+01   1.3884E+01   1.6478E-06  0.0606
   1.3884E+01   1.4222E+01   1.3627E-06  0.0659
   1.4222E+01   1.4568E+01   1.3216E-06  0.0661
   1.4568E+01   1.4922E+01   1.3571E-06  0.0644
   1.4922E+01   1.5285E+01   1.3661E-06  0.0635
   1.5285E+01   1.5657E+01   1.3483E-06  0.0631
   1.5657E+01   1.6038E+01   1.3346E-06  0.0627
   1.6038E+01   1.6428E+01   1.1645E-06  0.0663
   1.6428E+01   1.6828E+01   1.1909E-06  0.0648
   1.6828E+01   1.7237E+01   1.0649E-06  0.0677
   1.7237E+01   1.7657E+01   9.0129E-07  0.0727
   1.7657E+01   1.8086E+01   8.3333E-07  0.0747
   1.8086E+01   1.8526E+01   8.9534E-07  0.0712
   1.8526E+01   1.8977E+01   7.6315E-07  0.0762
   1.8977E+01   1.9439E+01   6.8005E-07  0.0798
   1.9439E+01   1.9912E+01   6.5544E-07  0.0803
   1.9912E+01   2.0396E+01   5.4492E-07  0.0870
   2.0396E+01   2.0893E+01   4.3929E-07  0.0958
   2.0893E+01   2.1401E+01   4.0131E-07  0.0990
   2.1401E+01   2.1922E+01   3.6873E-07  0.1021
   2.1922E+01   2.2455E+01   3.1498E-07  0.1091
   2.2455E+01   2.3001E+01   2.0134E-07  0.1348
   2.3001E+01   2.3561E+01   1.6082E-07  0.1491
   2.3561E+01   2.4134E+01   1.0118E-07  0.1857
   2.4134E+01   2.4721E+01   5.1089E-08  0.2582
   2.4721E+01   2.5323E+01   2.3275E-08  0.3780
   2.5323E+01   2.5939E+01   2.2723E-08  0.3780
   2.5939E+01   2.6570E+01   1.2676E-08  0.5000
   2.6570E+01   2.7217E+01   0.0000E+00  0.0000
   2.7217E+01   2.7879E+01   0.0000E+00  0.0000
   2.7879E+01   2.8557E+01   0.0000E+00  0.0000
   2.8557E+01   2.9252E+01   0.0000E+00  0.0000
   2.9252E+01   2.9964E+01   0.0000E+00  0.0000
   2.9964E+01   3.0693E+01   0.0000E+00  0.0000
   3.0693E+01   3.1440E+01   0.0000E+00  0.0000
   3.1440E+01   3.2205E+01   0.0000E+00  0.0000
   3.2205E+01   3.2988E+01   0.0000E+00  0.0000
   3.2988E+01   3.3791E+01   0.0000E+00  0.0000
   3.3791E+01   3.4613E+01   0.0000E+00  0.0000
   3.4613E+01   3.5455E+01   0.0000E+00  0.0000
   3.5455E+01   3.6318E+01   0.0000E+00  0.0000
   3.6318E+01   3.7201E+01   0.0000E+00  0.0000
   3.7201E+01   3.8106E+01   0.0000E+00  0.0000
   3.8106E+01   3.9034E+01   0.0000E+00  0.0000
   3.9034E+01   3.9983E+01   0.0000E+00  0.0000
   3.9983E+01   4.0956E+01   0.0000E+00  0.0000
   4.0956E+01   4.1953E+01   0.0000E+00  0.0000
   4.1953E+01   4.2973E+01   0.0000E+00  0.0000
   4.2973E+01   4.4019E+01   0.0000E+00  0.0000
   4.4019E+01   4.5090E+01   0.0000E+00  0.0000
   4.5090E+01   4.6187E+01   0.0000E+00  0.0000
   4.6187E+01   4.7311E+01   0.0000E+00  0.0000
   4.7311E+01   4.8462E+01   0.0000E+00  0.0000
   4.8462E+01   4.9641E+01   0.0000E+00  0.0000
   4.9641E+01   5.0849E+01   0.0000E+00  0.0000
   5.0849E+01   5.2086E+01   0.0000E+00  0.0000
   5.2086E+01   5.3353E+01   0.0000E+00  0.0000
   5.3353E+01   5.4651E+01   0.0000E+00  0.0000
   5.4651E+01   5.5981E+01   0.0000E+00  0.0000
   5.5981E+01   5.7343E+01   0.0000E+00  0.0000
   5.7343E+01   5.8738E+01   0.0000E+00  0.0000
   5.8738E+01   6.0168E+01   0.0000E+00  0.0000
   6.0168E+01   6.1632E+01   0.0000E+00  0.0000
   6.1632E+01   6.3131E+01   0.0000E+00  0.0000
   6.3131E+01   6.4667E+01   0.0000E+00  0.0000
   6.4667E+01   6.6240E+01   0.0000E+00  0.0000
   6.6240E+01   6.7852E+01   0.0000E+00  0.0000
   6.7852E+01   6.9503E+01   0.0000E+00  0.0000
   6.9503E+01   7.1194E+01   0.0000E+00  0.0000
   7.1194E+01   7.2926E+01   0.0000E+00  0.0000
   7.2926E+01   7.4701E+01   0.0000E+00  0.0000
   7.4701E+01   7.6518E+01   0.0000E+00  0.0000
   7.6518E+01   7.8380E+01   0.0000E+00  0.0000
   7.8380E+01   8.0287E+01   0.0000E+00  0.0000
   8.0287E+01   8.2240E+01   0.0000E+00  0.0000
   8.2240E+01   8.4241E+01   0.0000E+00  0.0000
   8.4241E+01   8.6291E+01   0.0000E+00  0.0000
   8.6291E+01   8.8391E+01   0.0000E+00  0.0000
   8.8391E+01   9.0541E+01   0.0000E+00  0.0000
   9.0541E+01   9.2744E+01   0.0000E+00  0.0000
   9.2744E+01   9.5001E+01   0.0000E+00  0.0000
   9.5001E+01   9.7312E+01   0.0000E+00  0.0000
   9.7312E+01   9.9680E+01   0.0000E+00  0.0000
   9.9680E+01   1.0211E+02   0.0000E+00  0.0000
   1.0211E+02   1.0459E+02   0.0000E+00  0.0000
   1.0459E+02   1.0713E+02   0.0000E+00  0.0000
   1.0713E+02   1.0974E+02   0.0000E+00  0.0000
   1.0974E+02   1.1241E+02   0.0000E+00  0.0000
   1.1241E+02   1.1515E+02   0.0000E+00  0.0000
   1.1515E+02   1.1795E+02   0.0000E+00  0.0000
   1.1795E+02   1.2082E+02   0.0000E+00  0.0000
   1.2082E+02   1.2376E+02   0.0000E+00  0.0000
   1.2376E+02   1.2677E+02   0.0000E+00  0.0000
   1.2677E+02   1.2985E+02   0.0000E+00  0.0000
   1.2985E+02   1.3301E+02   0.0000E+00  0.0000
   1.3301E+02   1.3625E+02   0.0000E+00  0.0000
   1.3625E+02   1.3956E+02   0.0000E+00  0.0000
   1.3956E+02   1.4296E+02   0.0000E+00  0.0000
   1.4296E+02   1.4644E+02   0.0000E+00  0.0000
   1.4644E+02   1.5000E+02   0.0000E+00  0.0000

#   sum over                 7.6376E-07
'no. =    1   reg = 125 - 225'
msuc: {\huge [t-cross] in region mesh}
msdr: {\it plotted by \ANGEL \version}
msdl: {\it calculated by \PHITS  3.26}
wt: s(0.7)
\vspace{-3}
  region surface crossing
  area  &=&   1.0000E+00 [cm^2]
e:
 
# Information for Restart Calculation
# This calculation was newly started
# istdev =  2 # 1:Batch variance, 2:History variance
# resc2  = 5.00000000000000000E+08 # Total source weight or Total source weight / maxcas
# resc3  = 5.00000000000000000E+08 # Total history number or Total batch number
# maxcas =   500000000 # History / Batch, only used for istdev=1
# bitrseed = 1011101111111101000111101101010011111001010110111001011111010111 # bit data of rseed
