[ T-Cross ]
    title = [t-cross] in region mesh
     mesh =  reg            # mesh type is region-wise
      reg =    1            # number of crossing regions
      non     r-from    r-to       area
      1       111       211        1.000000    
   e-type =    3            # e-mesh is log given by emin, emax and ne
     emin =  1.0000000E-02  # minimum value of e-mesh points
     emax =   150.0000      # maximum value of e-mesh points
#    edel =  2.4039514E-02  # mesh width of e-mesh points
       ne =    400          # number of e-mesh points
#    data = ( e(i), i = 1, ne + 1 )
#           1.00000E-02  1.02433E-02  1.04925E-02  1.07478E-02  1.10093E-02
#           1.12772E-02  1.15516E-02  1.18326E-02  1.21205E-02  1.24154E-02
#           1.27175E-02  1.30269E-02  1.33439E-02  1.36686E-02  1.40011E-02
#           1.43418E-02  1.46907E-02  1.50482E-02  1.54143E-02  1.57894E-02
#           1.61735E-02  1.65670E-02  1.69701E-02  1.73830E-02  1.78060E-02
#           1.82392E-02  1.86830E-02  1.91375E-02  1.96032E-02  2.00801E-02
#           2.05687E-02  2.10692E-02  2.15818E-02  2.21069E-02  2.26448E-02
#           2.31957E-02  2.37601E-02  2.43382E-02  2.49304E-02  2.55369E-02
#           2.61583E-02  2.67947E-02  2.74467E-02  2.81145E-02  2.87985E-02
#           2.94992E-02  3.02169E-02  3.09521E-02  3.17052E-02  3.24766E-02
#           3.32668E-02  3.40762E-02  3.49053E-02  3.57546E-02  3.66246E-02
#           3.75157E-02  3.84284E-02  3.93634E-02  4.03212E-02  4.13022E-02
#           4.23071E-02  4.33365E-02  4.43909E-02  4.54710E-02  4.65773E-02
#           4.77106E-02  4.88714E-02  5.00605E-02  5.12785E-02  5.25262E-02
#           5.38042E-02  5.51133E-02  5.64542E-02  5.78278E-02  5.92348E-02
#           6.06760E-02  6.21523E-02  6.36645E-02  6.52135E-02  6.68002E-02
#           6.84255E-02  7.00904E-02  7.17957E-02  7.35426E-02  7.53319E-02
#           7.71648E-02  7.90423E-02  8.09655E-02  8.29354E-02  8.49533E-02
#           8.70203E-02  8.91376E-02  9.13064E-02  9.35279E-02  9.58035E-02
#           9.81345E-02  1.00522E-01  1.02968E-01  1.05473E-01  1.08040E-01
#           1.10668E-01  1.13361E-01  1.16119E-01  1.18944E-01  1.21838E-01
#           1.24803E-01  1.27839E-01  1.30950E-01  1.34136E-01  1.37399E-01
#           1.40742E-01  1.44167E-01  1.47675E-01  1.51268E-01  1.54948E-01
#           1.58718E-01  1.62580E-01  1.66535E-01  1.70587E-01  1.74738E-01
#           1.78989E-01  1.83344E-01  1.87805E-01  1.92375E-01  1.97055E-01
#           2.01850E-01  2.06761E-01  2.11792E-01  2.16945E-01  2.22223E-01
#           2.27630E-01  2.33169E-01  2.38842E-01  2.44653E-01  2.50605E-01
#           2.56703E-01  2.62949E-01  2.69346E-01  2.75900E-01  2.82613E-01
#           2.89489E-01  2.96532E-01  3.03747E-01  3.11138E-01  3.18708E-01
#           3.26462E-01  3.34405E-01  3.42542E-01  3.50876E-01  3.59413E-01
#           3.68158E-01  3.77116E-01  3.86291E-01  3.95690E-01  4.05317E-01
#           4.15179E-01  4.25281E-01  4.35628E-01  4.46227E-01  4.57084E-01
#           4.68205E-01  4.79597E-01  4.91266E-01  5.03219E-01  5.15463E-01
#           5.28005E-01  5.40851E-01  5.54011E-01  5.67490E-01  5.81298E-01
#           5.95441E-01  6.09929E-01  6.24769E-01  6.39970E-01  6.55541E-01
#           6.71491E-01  6.87828E-01  7.04564E-01  7.21706E-01  7.39266E-01
#           7.57253E-01  7.75678E-01  7.94551E-01  8.13883E-01  8.33685E-01
#           8.53969E-01  8.74747E-01  8.96030E-01  9.17831E-01  9.40163E-01
#           9.63038E-01  9.86469E-01  1.01047E+00  1.03506E+00  1.06024E+00
#           1.08604E+00  1.11246E+00  1.13953E+00  1.16725E+00  1.19565E+00
#           1.22474E+00  1.25454E+00  1.28507E+00  1.31633E+00  1.34836E+00
#           1.38117E+00  1.41477E+00  1.44920E+00  1.48446E+00  1.52057E+00
#           1.55757E+00  1.59547E+00  1.63429E+00  1.67405E+00  1.71478E+00
#           1.75650E+00  1.79924E+00  1.84302E+00  1.88786E+00  1.93379E+00
#           1.98084E+00  2.02904E+00  2.07841E+00  2.12898E+00  2.18078E+00
#           2.23384E+00  2.28819E+00  2.34386E+00  2.40089E+00  2.45930E+00
#           2.51914E+00  2.58043E+00  2.64322E+00  2.70753E+00  2.77341E+00
#           2.84088E+00  2.91001E+00  2.98081E+00  3.05333E+00  3.12762E+00
#           3.20372E+00  3.28167E+00  3.36152E+00  3.44330E+00  3.52708E+00
#           3.61290E+00  3.70080E+00  3.79085E+00  3.88308E+00  3.97756E+00
#           4.07434E+00  4.17347E+00  4.27501E+00  4.37903E+00  4.48557E+00
#           4.59471E+00  4.70650E+00  4.82102E+00  4.93832E+00  5.05847E+00
#           5.18155E+00  5.30762E+00  5.43676E+00  5.56904E+00  5.70453E+00
#           5.84333E+00  5.98550E+00  6.13114E+00  6.28031E+00  6.43312E+00
#           6.58964E+00  6.74997E+00  6.91420E+00  7.08243E+00  7.25475E+00
#           7.43126E+00  7.61207E+00  7.79728E+00  7.98700E+00  8.18133E+00
#           8.38038E+00  8.58428E+00  8.79315E+00  9.00709E+00  9.22624E+00
#           9.45072E+00  9.68067E+00  9.91620E+00  1.01575E+01  1.04046E+01
#           1.06578E+01  1.09171E+01  1.11827E+01  1.14548E+01  1.17335E+01
#           1.20190E+01  1.23114E+01  1.26109E+01  1.29178E+01  1.32321E+01
#           1.35540E+01  1.38838E+01  1.42216E+01  1.45676E+01  1.49221E+01
#           1.52851E+01  1.56570E+01  1.60380E+01  1.64282E+01  1.68279E+01
#           1.72374E+01  1.76568E+01  1.80864E+01  1.85264E+01  1.89772E+01
#           1.94389E+01  1.99119E+01  2.03963E+01  2.08926E+01  2.14009E+01
#           2.19216E+01  2.24550E+01  2.30014E+01  2.35610E+01  2.41343E+01
#           2.47215E+01  2.53230E+01  2.59391E+01  2.65702E+01  2.72167E+01
#           2.78789E+01  2.85572E+01  2.92520E+01  2.99637E+01  3.06928E+01
#           3.14396E+01  3.22045E+01  3.29881E+01  3.37907E+01  3.46128E+01
#           3.54550E+01  3.63177E+01  3.72013E+01  3.81064E+01  3.90336E+01
#           3.99833E+01  4.09561E+01  4.19526E+01  4.29734E+01  4.40189E+01
#           4.50900E+01  4.61870E+01  4.73108E+01  4.84619E+01  4.96410E+01
#           5.08488E+01  5.20860E+01  5.33533E+01  5.46514E+01  5.59812E+01
#           5.73432E+01  5.87384E+01  6.01676E+01  6.16315E+01  6.31311E+01
#           6.46671E+01  6.62405E+01  6.78522E+01  6.95031E+01  7.11941E+01
#           7.29263E+01  7.47007E+01  7.65182E+01  7.83800E+01  8.02870E+01
#           8.22405E+01  8.42414E+01  8.62911E+01  8.83906E+01  9.05412E+01
#           9.27442E+01  9.50007E+01  9.73122E+01  9.96799E+01  1.02105E+02
#           1.04589E+02  1.07134E+02  1.09741E+02  1.12411E+02  1.15146E+02
#           1.17948E+02  1.20817E+02  1.23757E+02  1.26768E+02  1.29852E+02
#           1.33012E+02  1.36248E+02  1.39563E+02  1.42959E+02  1.46437E+02
#           1.50000E+02
     unit =    2            # unit is [1/cm^2/(MeV/n)/source]
     axis =  eng            # axis of output
     file = detector-12.out  # file name of output for the above axis
   output = f-curr          # surface crossing forward current spectrum
     part =  neutron  
# kf/name :  2112     
#    used :        main (  %)        temp (  %)       total (  %)
#  memory :         414 (  0)           0 (  0)         414 (  0)

#------------------------------------------------------------------------------
#newpage:
#   no. =    1   reg = 111 - 211

x: Energy [MeV/n]
y:  F-Curr [1/cm^2/(MeV/n)/source]         
p: xlog ylog afac(0.8) form(0.9)
h: n            x            y(neutron ),hh0l   n 
#  e-lower      e-upper      neutron     r.err 
   1.0000E-02   1.0243E-02   3.6203E-03  0.0475
   1.0243E-02   1.0493E-02   3.8333E-03  0.0456
   1.0493E-02   1.0748E-02   3.5184E-03  0.0471
   1.0748E-02   1.1009E-02   3.8508E-03  0.0445
   1.1009E-02   1.1277E-02   3.4927E-03  0.0461
   1.1277E-02   1.1552E-02   3.2821E-03  0.0470
   1.1552E-02   1.1833E-02   3.5849E-03  0.0444
   1.1833E-02   1.2121E-02   3.2357E-03  0.0462
   1.2121E-02   1.2415E-02   3.1616E-03  0.0462
   1.2415E-02   1.2718E-02   3.1423E-03  0.0458
   1.2718E-02   1.3027E-02   3.0854E-03  0.0457
   1.3027E-02   1.3344E-02   3.0443E-03  0.0454
   1.3344E-02   1.3669E-02   3.0770E-03  0.0446
   1.3669E-02   1.4001E-02   2.7315E-03  0.0468
   1.4001E-02   1.4342E-02   2.7553E-03  0.0460
   1.4342E-02   1.4691E-02   2.6752E-03  0.0462
   1.4691E-02   1.5048E-02   2.6578E-03  0.0458
   1.5048E-02   1.5414E-02   2.4933E-03  0.0467
   1.5414E-02   1.5789E-02   2.7104E-03  0.0442
   1.5789E-02   1.6174E-02   2.5079E-03  0.0454
   1.6174E-02   1.6567E-02   2.4921E-03  0.0451
   1.6567E-02   1.6970E-02   2.2709E-03  0.0466
   1.6970E-02   1.7383E-02   2.2509E-03  0.0463
   1.7383E-02   1.7806E-02   2.2614E-03  0.0456
   1.7806E-02   1.8239E-02   2.3664E-03  0.0440
   1.8239E-02   1.8683E-02   2.2307E-03  0.0449
   1.8683E-02   1.9138E-02   2.1893E-03  0.0447
   1.9138E-02   1.9603E-02   2.1457E-03  0.0446
   1.9603E-02   2.0080E-02   1.9142E-03  0.0467
   2.0080E-02   2.0569E-02   2.0992E-03  0.0441
   2.0569E-02   2.1069E-02   1.9538E-03  0.0451
   2.1069E-02   2.1582E-02   1.9535E-03  0.0446
   2.1582E-02   2.2107E-02   1.7905E-03  0.0459
   2.2107E-02   2.2645E-02   1.8859E-03  0.0443
   2.2645E-02   2.3196E-02   1.7174E-03  0.0459
   2.3196E-02   2.3760E-02   1.6565E-03  0.0461
   2.3760E-02   2.4338E-02   1.7143E-03  0.0448
   2.4338E-02   2.4930E-02   1.6422E-03  0.0452
   2.4930E-02   2.5537E-02   1.3385E-03  0.0495
   2.5537E-02   2.6158E-02   1.5232E-03  0.0458
   2.6158E-02   2.6795E-02   1.5107E-03  0.0455
   2.6795E-02   2.7447E-02   1.5489E-03  0.0444
   2.7447E-02   2.8114E-02   1.4359E-03  0.0456
   2.8114E-02   2.8799E-02   1.3592E-03  0.0463
   2.8799E-02   2.9499E-02   1.3923E-03  0.0451
   2.9499E-02   3.0217E-02   1.3085E-03  0.0460
   3.0217E-02   3.0952E-02   1.1824E-03  0.0478
   3.0952E-02   3.1705E-02   1.3339E-03  0.0445
   3.1705E-02   3.2477E-02   1.2964E-03  0.0446
   3.2477E-02   3.3267E-02   1.1333E-03  0.0471
   3.3267E-02   3.4076E-02   1.1896E-03  0.0453
   3.4076E-02   3.4905E-02   1.2385E-03  0.0440
   3.4905E-02   3.5755E-02   1.1828E-03  0.0445
   3.5755E-02   3.6625E-02   1.1121E-03  0.0453
   3.6625E-02   3.7516E-02   1.0129E-03  0.0469
   3.7516E-02   3.8428E-02   1.0611E-03  0.0453
   3.8428E-02   3.9363E-02   1.0492E-03  0.0450
   3.9363E-02   4.0321E-02   9.8387E-04  0.0459
   4.0321E-02   4.1302E-02   1.0174E-03  0.0446
   4.1302E-02   4.2307E-02   9.7234E-04  0.0451
   4.2307E-02   4.3337E-02   8.9950E-04  0.0464
   4.3337E-02   4.4391E-02   9.4289E-04  0.0448
   4.4391E-02   4.5471E-02   9.3425E-04  0.0443
   4.5471E-02   4.6577E-02   8.1565E-04  0.0469
   4.6577E-02   4.7711E-02   8.7133E-04  0.0449
   4.7711E-02   4.8871E-02   8.3611E-04  0.0453
   4.8871E-02   5.0061E-02   7.9692E-04  0.0458
   5.0061E-02   5.1279E-02   7.5451E-04  0.0465
   5.1279E-02   5.2526E-02   7.0176E-04  0.0476
   5.2526E-02   5.3804E-02   7.4540E-04  0.0457
   5.3804E-02   5.5113E-02   7.8905E-04  0.0439
   5.5113E-02   5.6454E-02   7.0228E-04  0.0460
   5.6454E-02   5.7828E-02   7.5947E-04  0.0437
   5.7828E-02   5.9235E-02   7.0620E-04  0.0448
   5.9235E-02   6.0676E-02   6.7478E-04  0.0453
   6.0676E-02   6.2152E-02   6.0583E-04  0.0472
   6.2152E-02   6.3665E-02   6.5553E-04  0.0448
   6.3665E-02   6.5214E-02   5.8906E-04  0.0467
   6.5214E-02   6.6800E-02   5.8975E-04  0.0460
   6.6800E-02   6.8426E-02   5.8591E-04  0.0457
   6.8426E-02   7.0090E-02   6.1111E-04  0.0442
   7.0090E-02   7.1796E-02   5.2269E-04  0.0473
   7.1796E-02   7.3543E-02   5.6829E-04  0.0448
   7.3543E-02   7.5332E-02   5.7489E-04  0.0439
   7.5332E-02   7.7165E-02   5.9109E-04  0.0428
   7.7165E-02   7.9042E-02   5.0598E-04  0.0458
   7.9042E-02   8.0965E-02   5.3799E-04  0.0438
   8.0965E-02   8.2935E-02   4.9322E-04  0.0452
   8.2935E-02   8.4953E-02   4.4747E-04  0.0469
   8.4953E-02   8.7020E-02   4.7867E-04  0.0448
   8.7020E-02   8.9138E-02   4.4849E-04  0.0457
   8.9138E-02   9.1306E-02   4.6771E-04  0.0442
   9.1306E-02   9.3528E-02   4.1501E-04  0.0465
   9.3528E-02   9.5804E-02   4.4199E-04  0.0445
   9.5804E-02   9.8134E-02   4.4400E-04  0.0438
   9.8134E-02   1.0052E-01   4.3444E-04  0.0438
   1.0052E-01   1.0297E-01   4.1988E-04  0.0440
   1.0297E-01   1.0547E-01   3.7676E-04  0.0459
   1.0547E-01   1.0804E-01   4.0606E-04  0.0437
   1.0804E-01   1.1067E-01   3.8595E-04  0.0442
   1.1067E-01   1.1336E-01   3.5433E-04  0.0456
   1.1336E-01   1.1612E-01   3.8098E-04  0.0435
   1.1612E-01   1.1894E-01   3.7461E-04  0.0433
   1.1894E-01   1.2184E-01   3.6168E-04  0.0436
   1.2184E-01   1.2480E-01   3.7194E-04  0.0425
   1.2480E-01   1.2784E-01   3.5729E-04  0.0428
   1.2784E-01   1.3095E-01   3.1621E-04  0.0450
   1.3095E-01   1.3414E-01   3.1471E-04  0.0445
   1.3414E-01   1.3740E-01   3.2200E-04  0.0435
   1.3740E-01   1.4074E-01   3.0789E-04  0.0440
   1.4074E-01   1.4417E-01   3.0919E-04  0.0433
   1.4417E-01   1.4767E-01   2.8662E-04  0.0444
   1.4767E-01   1.5127E-01   2.8925E-04  0.0438
   1.5127E-01   1.5495E-01   3.1709E-04  0.0413
   1.5495E-01   1.5872E-01   2.8783E-04  0.0428
   1.5872E-01   1.6258E-01   2.7496E-04  0.0433
   1.6258E-01   1.6654E-01   2.7184E-04  0.0430
   1.6654E-01   1.7059E-01   2.7408E-04  0.0423
   1.7059E-01   1.7474E-01   2.7425E-04  0.0418
   1.7474E-01   1.7899E-01   2.4871E-04  0.0434
   1.7899E-01   1.8334E-01   2.3864E-04  0.0437
   1.8334E-01   1.8781E-01   2.6091E-04  0.0413
   1.8781E-01   1.9237E-01   2.6024E-04  0.0409
   1.9237E-01   1.9706E-01   2.4074E-04  0.0419
   1.9706E-01   2.0185E-01   2.4879E-04  0.0408
   2.0185E-01   2.0676E-01   2.5800E-04  0.0396
   2.0676E-01   2.1179E-01   2.7110E-04  0.0382
   2.1179E-01   2.1694E-01   2.6420E-04  0.0382
   2.1694E-01   2.2222E-01   2.6750E-04  0.0376
   2.2222E-01   2.2763E-01   2.9080E-04  0.0356
   2.2763E-01   2.3317E-01   2.9875E-04  0.0347
   2.3317E-01   2.3884E-01   3.2587E-04  0.0328
   2.3884E-01   2.4465E-01   3.2472E-04  0.0325
   2.4465E-01   2.5061E-01   3.2590E-04  0.0320
   2.5061E-01   2.5670E-01   3.5122E-04  0.0305
   2.5670E-01   2.6295E-01   3.6047E-04  0.0297
   2.6295E-01   2.6935E-01   3.9393E-04  0.0281
   2.6935E-01   2.7590E-01   3.8444E-04  0.0281
   2.7590E-01   2.8261E-01   4.0754E-04  0.0270
   2.8261E-01   2.8949E-01   4.2863E-04  0.0260
   2.8949E-01   2.9653E-01   4.2220E-04  0.0259
   2.9653E-01   3.0375E-01   4.5905E-04  0.0245
   3.0375E-01   3.1114E-01   4.6756E-04  0.0240
   3.1114E-01   3.1871E-01   4.7728E-04  0.0235
   3.1871E-01   3.2646E-01   5.0158E-04  0.0226
   3.2646E-01   3.3441E-01   5.0195E-04  0.0223
   3.3441E-01   3.4254E-01   5.2036E-04  0.0217
   3.4254E-01   3.5088E-01   5.4581E-04  0.0209
   3.5088E-01   3.5941E-01   5.9127E-04  0.0199
   3.5941E-01   3.6816E-01   5.8206E-04  0.0198
   3.6816E-01   3.7712E-01   5.9719E-04  0.0193
   3.7712E-01   3.8629E-01   6.3688E-04  0.0184
   3.8629E-01   3.9569E-01   6.4321E-04  0.0181
   3.9569E-01   4.0532E-01   6.7331E-04  0.0175
   4.0532E-01   4.1518E-01   6.9112E-04  0.0171
   4.1518E-01   4.2528E-01   6.9708E-04  0.0168
   4.2528E-01   4.3563E-01   7.3771E-04  0.0161
   4.3563E-01   4.4623E-01   7.3722E-04  0.0160
   4.4623E-01   4.5708E-01   7.3718E-04  0.0158
   4.5708E-01   4.6821E-01   7.6831E-04  0.0153
   4.6821E-01   4.7960E-01   8.0256E-04  0.0147
   4.7960E-01   4.9127E-01   8.2804E-04  0.0143
   4.9127E-01   5.0322E-01   8.2201E-04  0.0142
   5.0322E-01   5.1546E-01   8.2224E-04  0.0140
   5.1546E-01   5.2800E-01   8.3841E-04  0.0137
   5.2800E-01   5.4085E-01   8.7128E-04  0.0133
   5.4085E-01   5.5401E-01   8.8698E-04  0.0131
   5.5401E-01   5.6749E-01   9.1799E-04  0.0127
   5.6749E-01   5.8130E-01   9.1657E-04  0.0125
   5.8130E-01   5.9544E-01   9.5151E-04  0.0122
   5.9544E-01   6.0993E-01   9.5619E-04  0.0120
   6.0993E-01   6.2477E-01   9.6562E-04  0.0118
   6.2477E-01   6.3997E-01   9.6429E-04  0.0117
   6.3997E-01   6.5554E-01   9.8709E-04  0.0114
   6.5554E-01   6.7149E-01   1.0149E-03  0.0111
   6.7149E-01   6.8783E-01   1.0235E-03  0.0109
   6.8783E-01   7.0456E-01   1.0278E-03  0.0107
   7.0456E-01   7.2171E-01   1.0283E-03  0.0106
   7.2171E-01   7.3927E-01   1.0400E-03  0.0104
   7.3927E-01   7.5725E-01   1.0551E-03  0.0102
   7.5725E-01   7.7568E-01   1.0558E-03  0.0101
   7.7568E-01   7.9455E-01   1.0815E-03  0.0099
   7.9455E-01   8.1388E-01   1.0995E-03  0.0097
   8.1388E-01   8.3368E-01   1.0862E-03  0.0096
   8.3368E-01   8.5397E-01   1.0942E-03  0.0095
   8.5397E-01   8.7475E-01   1.1012E-03  0.0093
   8.7475E-01   8.9603E-01   1.1159E-03  0.0091
   8.9603E-01   9.1783E-01   1.1011E-03  0.0091
   9.1783E-01   9.4016E-01   1.1224E-03  0.0089
   9.4016E-01   9.6304E-01   1.1259E-03  0.0088
   9.6304E-01   9.8647E-01   1.1325E-03  0.0087
   9.8647E-01   1.0105E+00   1.1140E-03  0.0086
   1.0105E+00   1.0351E+00   1.1229E-03  0.0085
   1.0351E+00   1.0602E+00   1.1037E-03  0.0085
   1.0602E+00   1.0860E+00   1.0988E-03  0.0084
   1.0860E+00   1.1125E+00   1.0823E-03  0.0083
   1.1125E+00   1.1395E+00   1.0948E-03  0.0082
   1.1395E+00   1.1673E+00   1.0746E-03  0.0082
   1.1673E+00   1.1957E+00   1.0952E-03  0.0080
   1.1957E+00   1.2247E+00   1.0830E-03  0.0079
   1.2247E+00   1.2545E+00   1.0819E-03  0.0078
   1.2545E+00   1.2851E+00   1.0689E-03  0.0078
   1.2851E+00   1.3163E+00   1.0623E-03  0.0077
   1.3163E+00   1.3484E+00   1.0394E-03  0.0077
   1.3484E+00   1.3812E+00   1.0392E-03  0.0076
   1.3812E+00   1.4148E+00   1.0391E-03  0.0075
   1.4148E+00   1.4492E+00   1.0219E-03  0.0075
   1.4492E+00   1.4845E+00   1.0120E-03  0.0075
   1.4845E+00   1.5206E+00   1.0019E-03  0.0074
   1.5206E+00   1.5576E+00   9.8165E-04  0.0074
   1.5576E+00   1.5955E+00   9.7783E-04  0.0073
   1.5955E+00   1.6343E+00   9.4709E-04  0.0073
   1.6343E+00   1.6741E+00   9.3842E-04  0.0073
   1.6741E+00   1.7148E+00   9.2588E-04  0.0072
   1.7148E+00   1.7565E+00   9.2064E-04  0.0072
   1.7565E+00   1.7992E+00   9.1061E-04  0.0071
   1.7992E+00   1.8430E+00   8.9959E-04  0.0071
   1.8430E+00   1.8879E+00   8.7361E-04  0.0071
   1.8879E+00   1.9338E+00   8.6617E-04  0.0071
   1.9338E+00   1.9808E+00   8.5440E-04  0.0070
   1.9808E+00   2.0290E+00   8.4836E-04  0.0070
   2.0290E+00   2.0784E+00   8.2597E-04  0.0070
   2.0784E+00   2.1290E+00   8.1397E-04  0.0069
   2.1290E+00   2.1808E+00   7.9624E-04  0.0069
   2.1808E+00   2.2338E+00   7.7427E-04  0.0069
   2.2338E+00   2.2882E+00   7.6415E-04  0.0069
   2.2882E+00   2.3439E+00   7.5539E-04  0.0069
   2.3439E+00   2.4009E+00   7.4003E-04  0.0068
   2.4009E+00   2.4593E+00   7.3336E-04  0.0068
   2.4593E+00   2.5191E+00   7.1892E-04  0.0068
   2.5191E+00   2.5804E+00   7.0612E-04  0.0068
   2.5804E+00   2.6432E+00   6.8819E-04  0.0068
   2.6432E+00   2.7075E+00   6.7453E-04  0.0067
   2.7075E+00   2.7734E+00   6.6687E-04  0.0067
   2.7734E+00   2.8409E+00   6.5629E-04  0.0067
   2.8409E+00   2.9100E+00   6.3813E-04  0.0067
   2.9100E+00   2.9808E+00   6.3025E-04  0.0067
   2.9808E+00   3.0533E+00   6.1640E-04  0.0066
   3.0533E+00   3.1276E+00   6.0181E-04  0.0066
   3.1276E+00   3.2037E+00   5.9803E-04  0.0066
   3.2037E+00   3.2817E+00   5.8249E-04  0.0066
   3.2817E+00   3.3615E+00   5.7290E-04  0.0066
   3.3615E+00   3.4433E+00   5.6619E-04  0.0065
   3.4433E+00   3.5271E+00   5.5433E-04  0.0065
   3.5271E+00   3.6129E+00   5.4766E-04  0.0065
   3.6129E+00   3.7008E+00   5.3142E-04  0.0065
   3.7008E+00   3.7908E+00   5.2443E-04  0.0065
   3.7908E+00   3.8831E+00   5.1916E-04  0.0064
   3.8831E+00   3.9776E+00   5.0985E-04  0.0064
   3.9776E+00   4.0743E+00   5.0520E-04  0.0064
   4.0743E+00   4.1735E+00   5.0172E-04  0.0063
   4.1735E+00   4.2750E+00   4.9157E-04  0.0063
   4.2750E+00   4.3790E+00   4.8720E-04  0.0062
   4.3790E+00   4.4856E+00   4.8129E-04  0.0062
   4.4856E+00   4.5947E+00   4.8563E-04  0.0061
   4.5947E+00   4.7065E+00   4.8805E-04  0.0060
   4.7065E+00   4.8210E+00   4.8753E-04  0.0060
   4.8210E+00   4.9383E+00   4.9205E-04  0.0059
   4.9383E+00   5.0585E+00   4.8421E-04  0.0058
   5.0585E+00   5.1815E+00   4.9028E-04  0.0057
   5.1815E+00   5.3076E+00   4.8367E-04  0.0057
   5.3076E+00   5.4368E+00   4.7624E-04  0.0057
   5.4368E+00   5.5690E+00   4.7022E-04  0.0056
   5.5690E+00   5.7045E+00   4.6087E-04  0.0056
   5.7045E+00   5.8433E+00   4.5406E-04  0.0056
   5.8433E+00   5.9855E+00   4.5251E-04  0.0056
   5.9855E+00   6.1311E+00   4.4112E-04  0.0056
   6.1311E+00   6.2803E+00   4.4270E-04  0.0055
   6.2803E+00   6.4331E+00   4.3421E-04  0.0055
   6.4331E+00   6.5896E+00   4.2852E-04  0.0054
   6.5896E+00   6.7500E+00   4.2175E-04  0.0054
   6.7500E+00   6.9142E+00   4.1743E-04  0.0054
   6.9142E+00   7.0824E+00   4.1510E-04  0.0053
   7.0824E+00   7.2548E+00   4.1532E-04  0.0053
   7.2548E+00   7.4313E+00   4.1429E-04  0.0052
   7.4313E+00   7.6121E+00   4.1053E-04  0.0052
   7.6121E+00   7.7973E+00   4.0404E-04  0.0052
   7.7973E+00   7.9870E+00   3.9779E-04  0.0051
   7.9870E+00   8.1813E+00   3.9201E-04  0.0051
   8.1813E+00   8.3804E+00   3.8401E-04  0.0051
   8.3804E+00   8.5843E+00   3.7891E-04  0.0051
   8.5843E+00   8.7931E+00   3.7299E-04  0.0051
   8.7931E+00   9.0071E+00   3.6855E-04  0.0050
   9.0071E+00   9.2262E+00   3.6159E-04  0.0050
   9.2262E+00   9.4507E+00   3.5649E-04  0.0050
   9.4507E+00   9.6807E+00   3.5023E-04  0.0050
   9.6807E+00   9.9162E+00   3.4425E-04  0.0050
   9.9162E+00   1.0157E+01   3.3789E-04  0.0049
   1.0157E+01   1.0405E+01   3.3497E-04  0.0049
   1.0405E+01   1.0658E+01   3.3289E-04  0.0049
   1.0658E+01   1.0917E+01   3.2211E-04  0.0049
   1.0917E+01   1.1183E+01   3.2213E-04  0.0048
   1.1183E+01   1.1455E+01   3.1411E-04  0.0048
   1.1455E+01   1.1733E+01   3.0656E-04  0.0048
   1.1733E+01   1.2019E+01   3.0123E-04  0.0048
   1.2019E+01   1.2311E+01   2.9339E-04  0.0048
   1.2311E+01   1.2611E+01   2.8460E-04  0.0048
   1.2611E+01   1.2918E+01   2.7930E-04  0.0048
   1.2918E+01   1.3232E+01   2.7366E-04  0.0048
   1.3232E+01   1.3554E+01   2.6626E-04  0.0048
   1.3554E+01   1.3884E+01   2.5873E-04  0.0048
   1.3884E+01   1.4222E+01   2.5361E-04  0.0048
   1.4222E+01   1.4568E+01   2.4708E-04  0.0048
   1.4568E+01   1.4922E+01   2.3680E-04  0.0049
   1.4922E+01   1.5285E+01   2.3143E-04  0.0049
   1.5285E+01   1.5657E+01   2.2275E-04  0.0049
   1.5657E+01   1.6038E+01   2.1863E-04  0.0049
   1.6038E+01   1.6428E+01   2.1183E-04  0.0049
   1.6428E+01   1.6828E+01   2.0520E-04  0.0049
   1.6828E+01   1.7237E+01   1.9668E-04  0.0050
   1.7237E+01   1.7657E+01   1.9206E-04  0.0050
   1.7657E+01   1.8086E+01   1.8595E-04  0.0050
   1.8086E+01   1.8526E+01   1.7936E-04  0.0050
   1.8526E+01   1.8977E+01   1.7389E-04  0.0051
   1.8977E+01   1.9439E+01   1.6975E-04  0.0051
   1.9439E+01   1.9912E+01   1.6393E-04  0.0051
   1.9912E+01   2.0396E+01   1.6086E-04  0.0051
   2.0396E+01   2.0893E+01   1.5693E-04  0.0051
   2.0893E+01   2.1401E+01   1.4821E-04  0.0052
   2.1401E+01   2.1922E+01   1.4370E-04  0.0052
   2.1922E+01   2.2455E+01   1.3750E-04  0.0052
   2.2455E+01   2.3001E+01   1.3023E-04  0.0053
   2.3001E+01   2.3561E+01   1.2459E-04  0.0054
   2.3561E+01   2.4134E+01   1.1974E-04  0.0054
   2.4134E+01   2.4721E+01   1.1335E-04  0.0055
   2.4721E+01   2.5323E+01   1.0697E-04  0.0056
   2.5323E+01   2.5939E+01   1.0265E-04  0.0056
   2.5939E+01   2.6570E+01   9.7294E-05  0.0057
   2.6570E+01   2.7217E+01   9.1954E-05  0.0058
   2.7217E+01   2.7879E+01   8.7949E-05  0.0059
   2.7879E+01   2.8557E+01   8.1826E-05  0.0060
   2.8557E+01   2.9252E+01   7.7157E-05  0.0061
   2.9252E+01   2.9964E+01   7.1899E-05  0.0063
   2.9964E+01   3.0693E+01   6.7590E-05  0.0064
   3.0693E+01   3.1440E+01   6.3826E-05  0.0065
   3.1440E+01   3.2205E+01   5.9264E-05  0.0066
   3.2205E+01   3.2988E+01   5.5490E-05  0.0068
   3.2988E+01   3.3791E+01   5.0983E-05  0.0070
   3.3791E+01   3.4613E+01   4.7945E-05  0.0071
   3.4613E+01   3.5455E+01   4.3693E-05  0.0074
   3.5455E+01   3.6318E+01   4.0445E-05  0.0076
   3.6318E+01   3.7201E+01   3.7450E-05  0.0078
   3.7201E+01   3.8106E+01   3.4280E-05  0.0080
   3.8106E+01   3.9034E+01   3.1591E-05  0.0083
   3.9034E+01   3.9983E+01   2.8735E-05  0.0086
   3.9983E+01   4.0956E+01   2.6120E-05  0.0089
   4.0956E+01   4.1953E+01   2.3571E-05  0.0092
   4.1953E+01   4.2973E+01   2.1465E-05  0.0096
   4.2973E+01   4.4019E+01   1.9319E-05  0.0100
   4.4019E+01   4.5090E+01   1.7350E-05  0.0104
   4.5090E+01   4.6187E+01   1.5623E-05  0.0108
   4.6187E+01   4.7311E+01   1.3891E-05  0.0113
   4.7311E+01   4.8462E+01   1.2419E-05  0.0118
   4.8462E+01   4.9641E+01   1.0840E-05  0.0125
   4.9641E+01   5.0849E+01   9.3376E-06  0.0133
   5.0849E+01   5.2086E+01   8.5872E-06  0.0137
   5.2086E+01   5.3353E+01   7.2990E-06  0.0147
   5.3353E+01   5.4651E+01   6.4015E-06  0.0155
   5.4651E+01   5.5981E+01   5.4673E-06  0.0166
   5.5981E+01   5.7343E+01   4.6841E-06  0.0177
   5.7343E+01   5.8738E+01   3.9664E-06  0.0190
   5.8738E+01   6.0168E+01   3.5392E-06  0.0199
   6.0168E+01   6.1632E+01   3.0056E-06  0.0213
   6.1632E+01   6.3131E+01   2.4021E-06  0.0236
   6.3131E+01   6.4667E+01   1.9739E-06  0.0257
   6.4667E+01   6.6240E+01   1.7313E-06  0.0271
   6.6240E+01   6.7852E+01   1.3452E-06  0.0304
   6.7852E+01   6.9503E+01   1.0855E-06  0.0334
   6.9503E+01   7.1194E+01   9.1422E-07  0.0360
   7.1194E+01   7.2926E+01   6.7082E-07  0.0415
   7.2926E+01   7.4701E+01   5.6471E-07  0.0447
   7.4701E+01   7.6518E+01   4.2585E-07  0.0508
   7.6518E+01   7.8380E+01   3.3195E-07  0.0569
   7.8380E+01   8.0287E+01   2.4855E-07  0.0650
   8.0287E+01   8.2240E+01   1.8122E-07  0.0752
   8.2240E+01   8.4241E+01   1.1494E-07  0.0933
   8.4241E+01   8.6291E+01   9.5626E-08  0.1010
   8.6291E+01   8.8391E+01   7.3350E-08  0.1140
   8.8391E+01   9.0541E+01   5.6728E-08  0.1280
   9.0541E+01   9.2744E+01   3.7223E-08  0.1562
   9.2744E+01   9.5001E+01   2.1272E-08  0.2041
   9.5001E+01   9.7312E+01   9.5179E-09  0.3015
   9.7312E+01   9.9680E+01   1.1826E-08  0.2673
   9.9680E+01   1.0211E+02   4.1232E-09  0.4472
   1.0211E+02   1.0459E+02   8.0506E-10  1.0000
   1.0459E+02   1.0713E+02   7.8593E-10  1.0000
   1.0713E+02   1.0974E+02   0.0000E+00  0.0000
   1.0974E+02   1.1241E+02   0.0000E+00  0.0000
   1.1241E+02   1.1515E+02   0.0000E+00  0.0000
   1.1515E+02   1.1795E+02   0.0000E+00  0.0000
   1.1795E+02   1.2082E+02   0.0000E+00  0.0000
   1.2082E+02   1.2376E+02   0.0000E+00  0.0000
   1.2376E+02   1.2677E+02   0.0000E+00  0.0000
   1.2677E+02   1.2985E+02   0.0000E+00  0.0000
   1.2985E+02   1.3301E+02   0.0000E+00  0.0000
   1.3301E+02   1.3625E+02   0.0000E+00  0.0000
   1.3625E+02   1.3956E+02   0.0000E+00  0.0000
   1.3956E+02   1.4296E+02   0.0000E+00  0.0000
   1.4296E+02   1.4644E+02   0.0000E+00  0.0000
   1.4644E+02   1.5000E+02   0.0000E+00  0.0000

#   sum over                 6.5472E-05
'no. =    1   reg = 111 - 211'
msuc: {\huge [t-cross] in region mesh}
msdr: {\it plotted by \ANGEL \version}
msdl: {\it calculated by \PHITS  3.26}
wt: s(0.7)
\vspace{-3}
  region surface crossing
  area  &=&   1.0000E+00 [cm^2]
e:
 
# Information for Restart Calculation
# This calculation was newly started
# istdev =  2 # 1:Batch variance, 2:History variance
# resc2  = 5.00000000000000000E+08 # Total source weight or Total source weight / maxcas
# resc3  = 5.00000000000000000E+08 # Total history number or Total batch number
# maxcas =   500000000 # History / Batch, only used for istdev=1
# bitrseed = 1101101111010011011000101101110001100110110010110001010100010001 # bit data of rseed
