[ T-Cross ]
    title = [t-cross] in region mesh
     mesh =  reg            # mesh type is region-wise
      reg =    1            # number of crossing regions
      non     r-from    r-to       area
      1       107       207        1.000000    
   e-type =    3            # e-mesh is log given by emin, emax and ne
     emin =  1.0000000E-02  # minimum value of e-mesh points
     emax =   150.0000      # maximum value of e-mesh points
#    edel =  2.4039514E-02  # mesh width of e-mesh points
       ne =    400          # number of e-mesh points
#    data = ( e(i), i = 1, ne + 1 )
#           1.00000E-02  1.02433E-02  1.04925E-02  1.07478E-02  1.10093E-02
#           1.12772E-02  1.15516E-02  1.18326E-02  1.21205E-02  1.24154E-02
#           1.27175E-02  1.30269E-02  1.33439E-02  1.36686E-02  1.40011E-02
#           1.43418E-02  1.46907E-02  1.50482E-02  1.54143E-02  1.57894E-02
#           1.61735E-02  1.65670E-02  1.69701E-02  1.73830E-02  1.78060E-02
#           1.82392E-02  1.86830E-02  1.91375E-02  1.96032E-02  2.00801E-02
#           2.05687E-02  2.10692E-02  2.15818E-02  2.21069E-02  2.26448E-02
#           2.31957E-02  2.37601E-02  2.43382E-02  2.49304E-02  2.55369E-02
#           2.61583E-02  2.67947E-02  2.74467E-02  2.81145E-02  2.87985E-02
#           2.94992E-02  3.02169E-02  3.09521E-02  3.17052E-02  3.24766E-02
#           3.32668E-02  3.40762E-02  3.49053E-02  3.57546E-02  3.66246E-02
#           3.75157E-02  3.84284E-02  3.93634E-02  4.03212E-02  4.13022E-02
#           4.23071E-02  4.33365E-02  4.43909E-02  4.54710E-02  4.65773E-02
#           4.77106E-02  4.88714E-02  5.00605E-02  5.12785E-02  5.25262E-02
#           5.38042E-02  5.51133E-02  5.64542E-02  5.78278E-02  5.92348E-02
#           6.06760E-02  6.21523E-02  6.36645E-02  6.52135E-02  6.68002E-02
#           6.84255E-02  7.00904E-02  7.17957E-02  7.35426E-02  7.53319E-02
#           7.71648E-02  7.90423E-02  8.09655E-02  8.29354E-02  8.49533E-02
#           8.70203E-02  8.91376E-02  9.13064E-02  9.35279E-02  9.58035E-02
#           9.81345E-02  1.00522E-01  1.02968E-01  1.05473E-01  1.08040E-01
#           1.10668E-01  1.13361E-01  1.16119E-01  1.18944E-01  1.21838E-01
#           1.24803E-01  1.27839E-01  1.30950E-01  1.34136E-01  1.37399E-01
#           1.40742E-01  1.44167E-01  1.47675E-01  1.51268E-01  1.54948E-01
#           1.58718E-01  1.62580E-01  1.66535E-01  1.70587E-01  1.74738E-01
#           1.78989E-01  1.83344E-01  1.87805E-01  1.92375E-01  1.97055E-01
#           2.01850E-01  2.06761E-01  2.11792E-01  2.16945E-01  2.22223E-01
#           2.27630E-01  2.33169E-01  2.38842E-01  2.44653E-01  2.50605E-01
#           2.56703E-01  2.62949E-01  2.69346E-01  2.75900E-01  2.82613E-01
#           2.89489E-01  2.96532E-01  3.03747E-01  3.11138E-01  3.18708E-01
#           3.26462E-01  3.34405E-01  3.42542E-01  3.50876E-01  3.59413E-01
#           3.68158E-01  3.77116E-01  3.86291E-01  3.95690E-01  4.05317E-01
#           4.15179E-01  4.25281E-01  4.35628E-01  4.46227E-01  4.57084E-01
#           4.68205E-01  4.79597E-01  4.91266E-01  5.03219E-01  5.15463E-01
#           5.28005E-01  5.40851E-01  5.54011E-01  5.67490E-01  5.81298E-01
#           5.95441E-01  6.09929E-01  6.24769E-01  6.39970E-01  6.55541E-01
#           6.71491E-01  6.87828E-01  7.04564E-01  7.21706E-01  7.39266E-01
#           7.57253E-01  7.75678E-01  7.94551E-01  8.13883E-01  8.33685E-01
#           8.53969E-01  8.74747E-01  8.96030E-01  9.17831E-01  9.40163E-01
#           9.63038E-01  9.86469E-01  1.01047E+00  1.03506E+00  1.06024E+00
#           1.08604E+00  1.11246E+00  1.13953E+00  1.16725E+00  1.19565E+00
#           1.22474E+00  1.25454E+00  1.28507E+00  1.31633E+00  1.34836E+00
#           1.38117E+00  1.41477E+00  1.44920E+00  1.48446E+00  1.52057E+00
#           1.55757E+00  1.59547E+00  1.63429E+00  1.67405E+00  1.71478E+00
#           1.75650E+00  1.79924E+00  1.84302E+00  1.88786E+00  1.93379E+00
#           1.98084E+00  2.02904E+00  2.07841E+00  2.12898E+00  2.18078E+00
#           2.23384E+00  2.28819E+00  2.34386E+00  2.40089E+00  2.45930E+00
#           2.51914E+00  2.58043E+00  2.64322E+00  2.70753E+00  2.77341E+00
#           2.84088E+00  2.91001E+00  2.98081E+00  3.05333E+00  3.12762E+00
#           3.20372E+00  3.28167E+00  3.36152E+00  3.44330E+00  3.52708E+00
#           3.61290E+00  3.70080E+00  3.79085E+00  3.88308E+00  3.97756E+00
#           4.07434E+00  4.17347E+00  4.27501E+00  4.37903E+00  4.48557E+00
#           4.59471E+00  4.70650E+00  4.82102E+00  4.93832E+00  5.05847E+00
#           5.18155E+00  5.30762E+00  5.43676E+00  5.56904E+00  5.70453E+00
#           5.84333E+00  5.98550E+00  6.13114E+00  6.28031E+00  6.43312E+00
#           6.58964E+00  6.74997E+00  6.91420E+00  7.08243E+00  7.25475E+00
#           7.43126E+00  7.61207E+00  7.79728E+00  7.98700E+00  8.18133E+00
#           8.38038E+00  8.58428E+00  8.79315E+00  9.00709E+00  9.22624E+00
#           9.45072E+00  9.68067E+00  9.91620E+00  1.01575E+01  1.04046E+01
#           1.06578E+01  1.09171E+01  1.11827E+01  1.14548E+01  1.17335E+01
#           1.20190E+01  1.23114E+01  1.26109E+01  1.29178E+01  1.32321E+01
#           1.35540E+01  1.38838E+01  1.42216E+01  1.45676E+01  1.49221E+01
#           1.52851E+01  1.56570E+01  1.60380E+01  1.64282E+01  1.68279E+01
#           1.72374E+01  1.76568E+01  1.80864E+01  1.85264E+01  1.89772E+01
#           1.94389E+01  1.99119E+01  2.03963E+01  2.08926E+01  2.14009E+01
#           2.19216E+01  2.24550E+01  2.30014E+01  2.35610E+01  2.41343E+01
#           2.47215E+01  2.53230E+01  2.59391E+01  2.65702E+01  2.72167E+01
#           2.78789E+01  2.85572E+01  2.92520E+01  2.99637E+01  3.06928E+01
#           3.14396E+01  3.22045E+01  3.29881E+01  3.37907E+01  3.46128E+01
#           3.54550E+01  3.63177E+01  3.72013E+01  3.81064E+01  3.90336E+01
#           3.99833E+01  4.09561E+01  4.19526E+01  4.29734E+01  4.40189E+01
#           4.50900E+01  4.61870E+01  4.73108E+01  4.84619E+01  4.96410E+01
#           5.08488E+01  5.20860E+01  5.33533E+01  5.46514E+01  5.59812E+01
#           5.73432E+01  5.87384E+01  6.01676E+01  6.16315E+01  6.31311E+01
#           6.46671E+01  6.62405E+01  6.78522E+01  6.95031E+01  7.11941E+01
#           7.29263E+01  7.47007E+01  7.65182E+01  7.83800E+01  8.02870E+01
#           8.22405E+01  8.42414E+01  8.62911E+01  8.83906E+01  9.05412E+01
#           9.27442E+01  9.50007E+01  9.73122E+01  9.96799E+01  1.02105E+02
#           1.04589E+02  1.07134E+02  1.09741E+02  1.12411E+02  1.15146E+02
#           1.17948E+02  1.20817E+02  1.23757E+02  1.26768E+02  1.29852E+02
#           1.33012E+02  1.36248E+02  1.39563E+02  1.42959E+02  1.46437E+02
#           1.50000E+02
     unit =    2            # unit is [1/cm^2/(MeV/n)/source]
     axis =  eng            # axis of output
     file = detector-08.out  # file name of output for the above axis
   output = f-curr          # surface crossing forward current spectrum
     part =  neutron  
# kf/name :  2112     
#    used :        main (  %)        temp (  %)       total (  %)
#  memory :         414 (  0)           0 (  0)         414 (  0)

#------------------------------------------------------------------------------
#newpage:
#   no. =    1   reg = 107 - 207

x: Energy [MeV/n]
y:  F-Curr [1/cm^2/(MeV/n)/source]         
p: xlog ylog afac(0.8) form(0.9)
h: n            x            y(neutron ),hh0l   n 
#  e-lower      e-upper      neutron     r.err 
   1.0000E-02   1.0243E-02   3.4365E-03  0.0488
   1.0243E-02   1.0493E-02   3.1389E-03  0.0504
   1.0493E-02   1.0748E-02   3.1295E-03  0.0500
   1.0748E-02   1.1009E-02   3.4802E-03  0.0468
   1.1009E-02   1.1277E-02   3.1604E-03  0.0485
   1.1277E-02   1.1552E-02   2.9493E-03  0.0496
   1.1552E-02   1.1833E-02   3.0438E-03  0.0482
   1.1833E-02   1.2121E-02   2.7809E-03  0.0499
   1.2121E-02   1.2415E-02   3.0717E-03  0.0469
   1.2415E-02   1.2718E-02   2.8237E-03  0.0483
   1.2718E-02   1.3027E-02   2.7802E-03  0.0481
   1.3027E-02   1.3344E-02   2.7254E-03  0.0480
   1.3344E-02   1.3669E-02   2.6639E-03  0.0480
   1.3669E-02   1.4001E-02   2.6426E-03  0.0476
   1.4001E-02   1.4342E-02   2.4016E-03  0.0492
   1.4342E-02   1.4691E-02   2.6337E-03  0.0466
   1.4691E-02   1.5048E-02   2.4625E-03  0.0476
   1.5048E-02   1.5414E-02   2.4161E-03  0.0475
   1.5414E-02   1.5789E-02   2.2718E-03  0.0484
   1.5789E-02   1.6174E-02   2.3210E-03  0.0473
   1.6174E-02   1.6567E-02   2.2217E-03  0.0478
   1.6567E-02   1.6970E-02   2.1725E-03  0.0477
   1.6970E-02   1.7383E-02   2.2466E-03  0.0464
   1.7383E-02   1.7806E-02   2.0669E-03  0.0477
   1.7806E-02   1.8239E-02   2.0596E-03  0.0473
   1.8239E-02   1.8683E-02   2.0386E-03  0.0469
   1.8683E-02   1.9138E-02   1.9528E-03  0.0474
   1.9138E-02   1.9603E-02   1.9262E-03  0.0471
   1.9603E-02   2.0080E-02   1.9860E-03  0.0459
   2.0080E-02   2.0569E-02   2.0808E-03  0.0442
   2.0569E-02   2.1069E-02   1.8515E-03  0.0463
   2.1069E-02   2.1582E-02   1.8454E-03  0.0458
   2.1582E-02   2.2107E-02   1.8832E-03  0.0449
   2.2107E-02   2.2645E-02   1.6488E-03  0.0474
   2.2645E-02   2.3196E-02   1.5739E-03  0.0479
   2.3196E-02   2.3760E-02   1.5906E-03  0.0471
   2.3760E-02   2.4338E-02   1.5706E-03  0.0469
   2.4338E-02   2.4930E-02   1.4982E-03  0.0473
   2.4930E-02   2.5537E-02   1.5318E-03  0.0463
   2.5537E-02   2.6158E-02   1.4043E-03  0.0477
   2.6158E-02   2.6795E-02   1.5886E-03  0.0444
   2.6795E-02   2.7447E-02   1.4271E-03  0.0463
   2.7447E-02   2.8114E-02   1.4291E-03  0.0457
   2.8114E-02   2.8799E-02   1.4303E-03  0.0451
   2.8799E-02   2.9499E-02   1.3240E-03  0.0463
   2.9499E-02   3.0217E-02   1.4286E-03  0.0441
   3.0217E-02   3.0952E-02   1.3517E-03  0.0447
   3.0952E-02   3.1705E-02   1.2495E-03  0.0460
   3.1705E-02   3.2477E-02   1.2377E-03  0.0456
   3.2477E-02   3.3267E-02   1.1679E-03  0.0465
   3.3267E-02   3.4076E-02   1.2500E-03  0.0444
   3.4076E-02   3.4905E-02   1.2251E-03  0.0442
   3.4905E-02   3.5755E-02   1.2694E-03  0.0430
   3.5755E-02   3.6625E-02   1.1849E-03  0.0440
   3.6625E-02   3.7516E-02   1.2022E-03  0.0431
   3.7516E-02   3.8428E-02   1.0667E-03  0.0453
   3.8428E-02   3.9363E-02   1.1411E-03  0.0432
   3.9363E-02   4.0321E-02   1.1198E-03  0.0430
   4.0321E-02   4.1302E-02   1.1413E-03  0.0422
   4.1302E-02   4.2307E-02   1.0585E-03  0.0432
   4.2307E-02   4.3337E-02   1.0736E-03  0.0425
   4.3337E-02   4.4391E-02   9.9717E-04  0.0436
   4.4391E-02   4.5471E-02   9.1252E-04  0.0449
   4.5471E-02   4.6577E-02   9.5165E-04  0.0435
   4.6577E-02   4.7711E-02   9.3658E-04  0.0434
   4.7711E-02   4.8871E-02   9.5394E-04  0.0424
   4.8871E-02   5.0061E-02   9.4235E-04  0.0421
   5.0061E-02   5.1279E-02   8.7033E-04  0.0434
   5.1279E-02   5.2526E-02   8.9693E-04  0.0422
   5.2526E-02   5.3804E-02   8.7134E-04  0.0423
   5.3804E-02   5.5113E-02   7.9766E-04  0.0437
   5.5113E-02   5.6454E-02   8.3674E-04  0.0421
   5.6454E-02   5.7828E-02   8.3366E-04  0.0417
   5.7828E-02   5.9235E-02   7.7624E-04  0.0427
   5.9235E-02   6.0676E-02   8.0474E-04  0.0414
   6.0676E-02   6.2152E-02   7.4252E-04  0.0426
   6.2152E-02   6.3665E-02   7.3308E-04  0.0424
   6.3665E-02   6.5214E-02   7.1495E-04  0.0424
   6.5214E-02   6.6800E-02   7.1548E-04  0.0419
   6.6800E-02   6.8426E-02   7.3723E-04  0.0407
   6.8426E-02   7.0090E-02   6.7461E-04  0.0421
   7.0090E-02   7.1796E-02   5.9468E-04  0.0443
   7.1796E-02   7.3543E-02   6.7707E-04  0.0410
   7.3543E-02   7.5332E-02   6.5471E-04  0.0412
   7.5332E-02   7.7165E-02   6.1941E-04  0.0418
   7.7165E-02   7.9042E-02   5.9950E-04  0.0420
   7.9042E-02   8.0965E-02   6.0060E-04  0.0415
   8.0965E-02   8.2935E-02   6.0332E-04  0.0409
   8.2935E-02   8.4953E-02   5.3218E-04  0.0431
   8.4953E-02   8.7020E-02   5.4426E-04  0.0421
   8.7020E-02   8.9138E-02   5.5528E-04  0.0412
   8.9138E-02   9.1306E-02   5.8152E-04  0.0398
   9.1306E-02   9.3528E-02   5.2341E-04  0.0414
   9.3528E-02   9.5804E-02   5.1896E-04  0.0411
   9.5804E-02   9.8134E-02   5.1818E-04  0.0406
   9.8134E-02   1.0052E-01   4.6793E-04  0.0422
   1.0052E-01   1.0297E-01   4.7765E-04  0.0412
   1.0297E-01   1.0547E-01   4.5024E-04  0.0420
   1.0547E-01   1.0804E-01   4.7129E-04  0.0406
   1.0804E-01   1.1067E-01   4.5924E-04  0.0406
   1.1067E-01   1.1336E-01   4.9860E-04  0.0385
   1.1336E-01   1.1612E-01   4.3183E-04  0.0409
   1.1612E-01   1.1894E-01   4.1685E-04  0.0411
   1.1894E-01   1.2184E-01   4.1450E-04  0.0407
   1.2184E-01   1.2480E-01   4.5040E-04  0.0386
   1.2480E-01   1.2784E-01   4.0960E-04  0.0400
   1.2784E-01   1.3095E-01   4.1655E-04  0.0392
   1.3095E-01   1.3414E-01   3.9234E-04  0.0399
   1.3414E-01   1.3740E-01   4.0237E-04  0.0389
   1.3740E-01   1.4074E-01   3.6051E-04  0.0407
   1.4074E-01   1.4417E-01   3.6339E-04  0.0400
   1.4417E-01   1.4767E-01   3.4951E-04  0.0403
   1.4767E-01   1.5127E-01   3.8692E-04  0.0378
   1.5127E-01   1.5495E-01   3.2930E-04  0.0405
   1.5495E-01   1.5872E-01   3.5786E-04  0.0384
   1.5872E-01   1.6258E-01   3.1995E-04  0.0401
   1.6258E-01   1.6654E-01   3.4673E-04  0.0381
   1.6654E-01   1.7059E-01   3.2355E-04  0.0390
   1.7059E-01   1.7474E-01   3.3319E-04  0.0380
   1.7474E-01   1.7899E-01   3.1424E-04  0.0386
   1.7899E-01   1.8334E-01   2.8972E-04  0.0398
   1.8334E-01   1.8781E-01   2.7402E-04  0.0403
   1.8781E-01   1.9237E-01   2.7551E-04  0.0397
   1.9237E-01   1.9706E-01   2.7783E-04  0.0391
   1.9706E-01   2.0185E-01   2.6966E-04  0.0392
   2.0185E-01   2.0676E-01   2.6255E-04  0.0393
   2.0676E-01   2.1179E-01   2.7994E-04  0.0376
   2.1179E-01   2.1694E-01   2.9678E-04  0.0361
   2.1694E-01   2.2222E-01   3.0296E-04  0.0353
   2.2222E-01   2.2763E-01   3.0872E-04  0.0346
   2.2763E-01   2.3317E-01   3.3715E-04  0.0327
   2.3317E-01   2.3884E-01   3.3153E-04  0.0325
   2.3884E-01   2.4465E-01   3.3191E-04  0.0321
   2.4465E-01   2.5061E-01   3.6754E-04  0.0302
   2.5061E-01   2.5670E-01   3.7135E-04  0.0297
   2.5670E-01   2.6295E-01   3.7242E-04  0.0293
   2.6295E-01   2.6935E-01   3.7376E-04  0.0289
   2.6935E-01   2.7590E-01   3.8911E-04  0.0279
   2.7590E-01   2.8261E-01   4.0378E-04  0.0271
   2.8261E-01   2.8949E-01   4.3797E-04  0.0257
   2.8949E-01   2.9653E-01   4.2042E-04  0.0259
   2.9653E-01   3.0375E-01   4.3692E-04  0.0251
   3.0375E-01   3.1114E-01   4.3025E-04  0.0250
   3.1114E-01   3.1871E-01   4.5060E-04  0.0242
   3.1871E-01   3.2646E-01   4.7341E-04  0.0233
   3.2646E-01   3.3441E-01   4.5963E-04  0.0234
   3.3441E-01   3.4254E-01   4.8951E-04  0.0223
   3.4254E-01   3.5088E-01   5.0142E-04  0.0218
   3.5088E-01   3.5941E-01   5.0395E-04  0.0215
   3.5941E-01   3.6816E-01   5.1962E-04  0.0209
   3.6816E-01   3.7712E-01   5.1248E-04  0.0208
   3.7712E-01   3.8629E-01   5.3395E-04  0.0202
   3.8629E-01   3.9569E-01   5.5883E-04  0.0195
   3.9569E-01   4.0532E-01   5.4469E-04  0.0195
   4.0532E-01   4.1518E-01   5.5846E-04  0.0190
   4.1518E-01   4.2528E-01   5.9145E-04  0.0183
   4.2528E-01   4.3563E-01   5.7691E-04  0.0183
   4.3563E-01   4.4623E-01   5.8987E-04  0.0179
   4.4623E-01   4.5708E-01   6.0608E-04  0.0174
   4.5708E-01   4.6821E-01   6.1286E-04  0.0171
   4.6821E-01   4.7960E-01   6.4843E-04  0.0164
   4.7960E-01   4.9127E-01   6.4112E-04  0.0163
   4.9127E-01   5.0322E-01   6.4783E-04  0.0160
   5.0322E-01   5.1546E-01   6.4299E-04  0.0159
   5.1546E-01   5.2800E-01   6.5452E-04  0.0156
   5.2800E-01   5.4085E-01   6.6399E-04  0.0153
   5.4085E-01   5.5401E-01   6.6236E-04  0.0151
   5.5401E-01   5.6749E-01   6.8553E-04  0.0147
   5.6749E-01   5.8130E-01   6.9380E-04  0.0144
   5.8130E-01   5.9544E-01   7.1067E-04  0.0141
   5.9544E-01   6.0993E-01   7.1728E-04  0.0138
   6.0993E-01   6.2477E-01   7.3084E-04  0.0135
   6.2477E-01   6.3997E-01   7.3599E-04  0.0133
   6.3997E-01   6.5554E-01   7.3933E-04  0.0131
   6.5554E-01   6.7149E-01   7.4288E-04  0.0130
   6.7149E-01   6.8783E-01   7.5677E-04  0.0127
   6.8783E-01   7.0456E-01   7.6943E-04  0.0124
   7.0456E-01   7.2171E-01   7.6934E-04  0.0123
   7.2171E-01   7.3927E-01   7.8638E-04  0.0120
   7.3927E-01   7.5725E-01   7.8310E-04  0.0119
   7.5725E-01   7.7568E-01   8.0284E-04  0.0116
   7.7568E-01   7.9455E-01   7.9083E-04  0.0116
   7.9455E-01   8.1388E-01   8.0824E-04  0.0113
   8.1388E-01   8.3368E-01   8.1075E-04  0.0111
   8.3368E-01   8.5397E-01   8.2278E-04  0.0109
   8.5397E-01   8.7475E-01   8.1540E-04  0.0108
   8.7475E-01   8.9603E-01   8.3642E-04  0.0106
   8.9603E-01   9.1783E-01   8.3500E-04  0.0105
   9.1783E-01   9.4016E-01   8.5102E-04  0.0102
   9.4016E-01   9.6304E-01   8.5669E-04  0.0101
   9.6304E-01   9.8647E-01   8.4013E-04  0.0101
   9.8647E-01   1.0105E+00   8.6165E-04  0.0098
   1.0105E+00   1.0351E+00   8.6069E-04  0.0097
   1.0351E+00   1.0602E+00   8.5960E-04  0.0096
   1.0602E+00   1.0860E+00   8.6251E-04  0.0095
   1.0860E+00   1.1125E+00   8.5435E-04  0.0094
   1.1125E+00   1.1395E+00   8.4048E-04  0.0094
   1.1395E+00   1.1673E+00   8.4595E-04  0.0092
   1.1673E+00   1.1957E+00   8.6644E-04  0.0090
   1.1957E+00   1.2247E+00   8.5923E-04  0.0089
   1.2247E+00   1.2545E+00   8.6212E-04  0.0088
   1.2545E+00   1.2851E+00   8.6416E-04  0.0087
   1.2851E+00   1.3163E+00   8.4672E-04  0.0087
   1.3163E+00   1.3484E+00   8.5321E-04  0.0085
   1.3484E+00   1.3812E+00   8.3892E-04  0.0085
   1.3812E+00   1.4148E+00   8.4789E-04  0.0084
   1.4148E+00   1.4492E+00   8.4099E-04  0.0083
   1.4492E+00   1.4845E+00   8.4199E-04  0.0082
   1.4845E+00   1.5206E+00   8.4195E-04  0.0081
   1.5206E+00   1.5576E+00   8.3163E-04  0.0080
   1.5576E+00   1.5955E+00   8.2238E-04  0.0080
   1.5955E+00   1.6343E+00   8.0624E-04  0.0080
   1.6343E+00   1.6741E+00   7.9823E-04  0.0079
   1.6741E+00   1.7148E+00   8.0019E-04  0.0078
   1.7148E+00   1.7565E+00   7.9754E-04  0.0077
   1.7565E+00   1.7992E+00   7.8529E-04  0.0077
   1.7992E+00   1.8430E+00   7.8572E-04  0.0076
   1.8430E+00   1.8879E+00   7.7469E-04  0.0076
   1.8879E+00   1.9338E+00   7.7222E-04  0.0075
   1.9338E+00   1.9808E+00   7.5602E-04  0.0075
   1.9808E+00   2.0290E+00   7.5732E-04  0.0074
   2.0290E+00   2.0784E+00   7.4639E-04  0.0073
   2.0784E+00   2.1290E+00   7.2543E-04  0.0074
   2.1290E+00   2.1808E+00   7.2153E-04  0.0073
   2.1808E+00   2.2338E+00   7.0439E-04  0.0073
   2.2338E+00   2.2882E+00   7.0191E-04  0.0072
   2.2882E+00   2.3439E+00   6.9593E-04  0.0072
   2.3439E+00   2.4009E+00   6.8914E-04  0.0071
   2.4009E+00   2.4593E+00   6.7771E-04  0.0071
   2.4593E+00   2.5191E+00   6.6761E-04  0.0070
   2.5191E+00   2.5804E+00   6.6556E-04  0.0070
   2.5804E+00   2.6432E+00   6.5844E-04  0.0069
   2.6432E+00   2.7075E+00   6.4045E-04  0.0069
   2.7075E+00   2.7734E+00   6.2723E-04  0.0069
   2.7734E+00   2.8409E+00   6.2114E-04  0.0069
   2.8409E+00   2.9100E+00   6.0846E-04  0.0069
   2.9100E+00   2.9808E+00   5.9566E-04  0.0069
   2.9808E+00   3.0533E+00   5.9241E-04  0.0068
   3.0533E+00   3.1276E+00   5.8254E-04  0.0068
   3.1276E+00   3.2037E+00   5.7404E-04  0.0067
   3.2037E+00   3.2817E+00   5.6077E-04  0.0067
   3.2817E+00   3.3615E+00   5.5636E-04  0.0067
   3.3615E+00   3.4433E+00   5.4564E-04  0.0067
   3.4433E+00   3.5271E+00   5.3656E-04  0.0066
   3.5271E+00   3.6129E+00   5.3059E-04  0.0066
   3.6129E+00   3.7008E+00   5.2211E-04  0.0066
   3.7008E+00   3.7908E+00   5.1163E-04  0.0066
   3.7908E+00   3.8831E+00   4.9880E-04  0.0066
   3.8831E+00   3.9776E+00   4.9692E-04  0.0065
   3.9776E+00   4.0743E+00   4.9298E-04  0.0064
   4.0743E+00   4.1735E+00   4.7920E-04  0.0065
   4.1735E+00   4.2750E+00   4.7032E-04  0.0064
   4.2750E+00   4.3790E+00   4.6342E-04  0.0064
   4.3790E+00   4.4856E+00   4.5818E-04  0.0064
   4.4856E+00   4.5947E+00   4.5888E-04  0.0063
   4.5947E+00   4.7065E+00   4.6589E-04  0.0062
   4.7065E+00   4.8210E+00   4.6896E-04  0.0061
   4.8210E+00   4.9383E+00   4.7098E-04  0.0060
   4.9383E+00   5.0585E+00   4.6606E-04  0.0060
   5.0585E+00   5.1815E+00   4.6427E-04  0.0059
   5.1815E+00   5.3076E+00   4.5222E-04  0.0059
   5.3076E+00   5.4368E+00   4.4970E-04  0.0058
   5.4368E+00   5.5690E+00   4.4339E-04  0.0058
   5.5690E+00   5.7045E+00   4.3666E-04  0.0058
   5.7045E+00   5.8433E+00   4.3001E-04  0.0058
   5.8433E+00   5.9855E+00   4.2606E-04  0.0057
   5.9855E+00   6.1311E+00   4.1654E-04  0.0057
   6.1311E+00   6.2803E+00   4.0816E-04  0.0057
   6.2803E+00   6.4331E+00   4.0901E-04  0.0056
   6.4331E+00   6.5896E+00   4.0520E-04  0.0056
   6.5896E+00   6.7500E+00   3.9965E-04  0.0056
   6.7500E+00   6.9142E+00   3.8928E-04  0.0056
   6.9142E+00   7.0824E+00   3.9150E-04  0.0055
   7.0824E+00   7.2548E+00   3.8995E-04  0.0054
   7.2548E+00   7.4313E+00   3.8753E-04  0.0054
   7.4313E+00   7.6121E+00   3.8465E-04  0.0054
   7.6121E+00   7.7973E+00   3.7949E-04  0.0053
   7.7973E+00   7.9870E+00   3.7596E-04  0.0053
   7.9870E+00   8.1813E+00   3.6840E-04  0.0053
   8.1813E+00   8.3804E+00   3.6177E-04  0.0053
   8.3804E+00   8.5843E+00   3.6268E-04  0.0052
   8.5843E+00   8.7931E+00   3.6126E-04  0.0051
   8.7931E+00   9.0071E+00   3.5192E-04  0.0051
   9.0071E+00   9.2262E+00   3.4805E-04  0.0051
   9.2262E+00   9.4507E+00   3.4666E-04  0.0051
   9.4507E+00   9.6807E+00   3.4083E-04  0.0050
   9.6807E+00   9.9162E+00   3.3815E-04  0.0050
   9.9162E+00   1.0157E+01   3.3767E-04  0.0049
   1.0157E+01   1.0405E+01   3.3487E-04  0.0049
   1.0405E+01   1.0658E+01   3.3207E-04  0.0049
   1.0658E+01   1.0917E+01   3.2907E-04  0.0048
   1.0917E+01   1.1183E+01   3.2468E-04  0.0048
   1.1183E+01   1.1455E+01   3.2331E-04  0.0048
   1.1455E+01   1.1733E+01   3.2281E-04  0.0047
   1.1733E+01   1.2019E+01   3.1983E-04  0.0047
   1.2019E+01   1.2311E+01   3.1737E-04  0.0046
   1.2311E+01   1.2611E+01   3.1080E-04  0.0046
   1.2611E+01   1.2918E+01   3.1146E-04  0.0046
   1.2918E+01   1.3232E+01   3.0849E-04  0.0045
   1.3232E+01   1.3554E+01   3.0533E-04  0.0045
   1.3554E+01   1.3884E+01   3.0055E-04  0.0045
   1.3884E+01   1.4222E+01   3.0240E-04  0.0044
   1.4222E+01   1.4568E+01   3.0019E-04  0.0044
   1.4568E+01   1.4922E+01   2.9742E-04  0.0044
   1.4922E+01   1.5285E+01   2.9381E-04  0.0043
   1.5285E+01   1.5657E+01   2.8931E-04  0.0043
   1.5657E+01   1.6038E+01   2.8974E-04  0.0043
   1.6038E+01   1.6428E+01   2.8526E-04  0.0042
   1.6428E+01   1.6828E+01   2.8370E-04  0.0042
   1.6828E+01   1.7237E+01   2.8242E-04  0.0042
   1.7237E+01   1.7657E+01   2.7945E-04  0.0041
   1.7657E+01   1.8086E+01   2.7781E-04  0.0041
   1.8086E+01   1.8526E+01   2.7489E-04  0.0041
   1.8526E+01   1.8977E+01   2.7498E-04  0.0040
   1.8977E+01   1.9439E+01   2.7366E-04  0.0040
   1.9439E+01   1.9912E+01   2.7618E-04  0.0039
   1.9912E+01   2.0396E+01   2.7744E-04  0.0039
   2.0396E+01   2.0893E+01   2.7588E-04  0.0038
   2.0893E+01   2.1401E+01   2.7517E-04  0.0038
   2.1401E+01   2.1922E+01   2.7289E-04  0.0038
   2.1922E+01   2.2455E+01   2.7107E-04  0.0037
   2.2455E+01   2.3001E+01   2.6877E-04  0.0037
   2.3001E+01   2.3561E+01   2.6493E-04  0.0037
   2.3561E+01   2.4134E+01   2.6406E-04  0.0036
   2.4134E+01   2.4721E+01   2.5939E-04  0.0036
   2.4721E+01   2.5323E+01   2.5810E-04  0.0036
   2.5323E+01   2.5939E+01   2.5623E-04  0.0036
   2.5939E+01   2.6570E+01   2.5200E-04  0.0035
   2.6570E+01   2.7217E+01   2.4941E-04  0.0035
   2.7217E+01   2.7879E+01   2.4665E-04  0.0035
   2.7879E+01   2.8557E+01   2.4316E-04  0.0035
   2.8557E+01   2.9252E+01   2.3996E-04  0.0035
   2.9252E+01   2.9964E+01   2.3653E-04  0.0034
   2.9964E+01   3.0693E+01   2.3091E-04  0.0034
   3.0693E+01   3.1440E+01   2.2661E-04  0.0034
   3.1440E+01   3.2205E+01   2.2395E-04  0.0034
   3.2205E+01   3.2988E+01   2.1836E-04  0.0034
   3.2988E+01   3.3791E+01   2.1335E-04  0.0034
   3.3791E+01   3.4613E+01   2.0817E-04  0.0034
   3.4613E+01   3.5455E+01   2.0309E-04  0.0034
   3.5455E+01   3.6318E+01   1.9659E-04  0.0034
   3.6318E+01   3.7201E+01   1.9003E-04  0.0035
   3.7201E+01   3.8106E+01   1.8413E-04  0.0035
   3.8106E+01   3.9034E+01   1.7815E-04  0.0035
   3.9034E+01   3.9983E+01   1.7128E-04  0.0035
   3.9983E+01   4.0956E+01   1.6418E-04  0.0035
   4.0956E+01   4.1953E+01   1.5767E-04  0.0036
   4.1953E+01   4.2973E+01   1.4976E-04  0.0036
   4.2973E+01   4.4019E+01   1.4265E-04  0.0037
   4.4019E+01   4.5090E+01   1.3568E-04  0.0037
   4.5090E+01   4.6187E+01   1.2784E-04  0.0038
   4.6187E+01   4.7311E+01   1.2009E-04  0.0039
   4.7311E+01   4.8462E+01   1.1419E-04  0.0039
   4.8462E+01   4.9641E+01   1.0621E-04  0.0040
   4.9641E+01   5.0849E+01   1.0008E-04  0.0041
   5.0849E+01   5.2086E+01   9.4199E-05  0.0041
   5.2086E+01   5.3353E+01   8.6965E-05  0.0043
   5.3353E+01   5.4651E+01   8.1220E-05  0.0044
   5.4651E+01   5.5981E+01   7.4628E-05  0.0045
   5.5981E+01   5.7343E+01   6.9481E-05  0.0046
   5.7343E+01   5.8738E+01   6.4892E-05  0.0047
   5.8738E+01   6.0168E+01   5.8819E-05  0.0049
   6.0168E+01   6.1632E+01   5.4467E-05  0.0050
   6.1632E+01   6.3131E+01   5.0055E-05  0.0052
   6.3131E+01   6.4667E+01   4.5784E-05  0.0053
   6.4667E+01   6.6240E+01   4.1567E-05  0.0055
   6.6240E+01   6.7852E+01   3.8325E-05  0.0057
   6.7852E+01   6.9503E+01   3.4745E-05  0.0059
   6.9503E+01   7.1194E+01   3.1957E-05  0.0061
   7.1194E+01   7.2926E+01   2.9252E-05  0.0063
   7.2926E+01   7.4701E+01   2.6405E-05  0.0065
   7.4701E+01   7.6518E+01   2.3767E-05  0.0068
   7.6518E+01   7.8380E+01   2.1610E-05  0.0071
   7.8380E+01   8.0287E+01   1.9509E-05  0.0073
   8.0287E+01   8.2240E+01   1.7555E-05  0.0076
   8.2240E+01   8.4241E+01   1.5861E-05  0.0079
   8.4241E+01   8.6291E+01   1.4547E-05  0.0082
   8.6291E+01   8.8391E+01   1.3269E-05  0.0085
   8.8391E+01   9.0541E+01   1.1746E-05  0.0089
   9.0541E+01   9.2744E+01   1.0543E-05  0.0093
   9.2744E+01   9.5001E+01   9.3550E-06  0.0097
   9.5001E+01   9.7312E+01   8.8343E-06  0.0099
   9.7312E+01   9.9680E+01   8.0644E-06  0.0102
   9.9680E+01   1.0211E+02   7.3558E-06  0.0106
   1.0211E+02   1.0459E+02   6.1708E-06  0.0114
   1.0459E+02   1.0713E+02   5.1518E-06  0.0124
   1.0713E+02   1.0974E+02   4.0235E-06  0.0138
   1.0974E+02   1.1241E+02   3.1639E-06  0.0154
   1.1241E+02   1.1515E+02   2.5806E-06  0.0168
   1.1515E+02   1.1795E+02   1.7097E-06  0.0204
   1.1795E+02   1.2082E+02   7.7080E-07  0.0301
   1.2082E+02   1.2376E+02   1.3675E-07  0.0705
   1.2376E+02   1.2677E+02   0.0000E+00  0.0000
   1.2677E+02   1.2985E+02   0.0000E+00  0.0000
   1.2985E+02   1.3301E+02   0.0000E+00  0.0000
   1.3301E+02   1.3625E+02   0.0000E+00  0.0000
   1.3625E+02   1.3956E+02   0.0000E+00  0.0000
   1.3956E+02   1.4296E+02   0.0000E+00  0.0000
   1.4296E+02   1.4644E+02   0.0000E+00  0.0000
   1.4644E+02   1.5000E+02   0.0000E+00  0.0000

#   sum over                 1.0520E-04
'no. =    1   reg = 107 - 207'
msuc: {\huge [t-cross] in region mesh}
msdr: {\it plotted by \ANGEL \version}
msdl: {\it calculated by \PHITS  3.26}
wt: s(0.7)
\vspace{-3}
  region surface crossing
  area  &=&   1.0000E+00 [cm^2]
e:
 
# Information for Restart Calculation
# This calculation was newly started
# istdev =  2 # 1:Batch variance, 2:History variance
# resc2  = 5.00000000000000000E+08 # Total source weight or Total source weight / maxcas
# resc3  = 5.00000000000000000E+08 # Total history number or Total batch number
# maxcas =   500000000 # History / Batch, only used for istdev=1
# bitrseed = 1101101111010011011000101101110001100110110010110001010100010001 # bit data of rseed
