[ T-Cross ]
    title = [t-cross] in region mesh
     mesh =  reg            # mesh type is region-wise
      reg =    1            # number of crossing regions
      non     r-from    r-to       area
      1       120       220        1.000000    
   e-type =    3            # e-mesh is log given by emin, emax and ne
     emin =  1.0000000E-02  # minimum value of e-mesh points
     emax =   150.0000      # maximum value of e-mesh points
#    edel =  2.4039514E-02  # mesh width of e-mesh points
       ne =    400          # number of e-mesh points
#    data = ( e(i), i = 1, ne + 1 )
#           1.00000E-02  1.02433E-02  1.04925E-02  1.07478E-02  1.10093E-02
#           1.12772E-02  1.15516E-02  1.18326E-02  1.21205E-02  1.24154E-02
#           1.27175E-02  1.30269E-02  1.33439E-02  1.36686E-02  1.40011E-02
#           1.43418E-02  1.46907E-02  1.50482E-02  1.54143E-02  1.57894E-02
#           1.61735E-02  1.65670E-02  1.69701E-02  1.73830E-02  1.78060E-02
#           1.82392E-02  1.86830E-02  1.91375E-02  1.96032E-02  2.00801E-02
#           2.05687E-02  2.10692E-02  2.15818E-02  2.21069E-02  2.26448E-02
#           2.31957E-02  2.37601E-02  2.43382E-02  2.49304E-02  2.55369E-02
#           2.61583E-02  2.67947E-02  2.74467E-02  2.81145E-02  2.87985E-02
#           2.94992E-02  3.02169E-02  3.09521E-02  3.17052E-02  3.24766E-02
#           3.32668E-02  3.40762E-02  3.49053E-02  3.57546E-02  3.66246E-02
#           3.75157E-02  3.84284E-02  3.93634E-02  4.03212E-02  4.13022E-02
#           4.23071E-02  4.33365E-02  4.43909E-02  4.54710E-02  4.65773E-02
#           4.77106E-02  4.88714E-02  5.00605E-02  5.12785E-02  5.25262E-02
#           5.38042E-02  5.51133E-02  5.64542E-02  5.78278E-02  5.92348E-02
#           6.06760E-02  6.21523E-02  6.36645E-02  6.52135E-02  6.68002E-02
#           6.84255E-02  7.00904E-02  7.17957E-02  7.35426E-02  7.53319E-02
#           7.71648E-02  7.90423E-02  8.09655E-02  8.29354E-02  8.49533E-02
#           8.70203E-02  8.91376E-02  9.13064E-02  9.35279E-02  9.58035E-02
#           9.81345E-02  1.00522E-01  1.02968E-01  1.05473E-01  1.08040E-01
#           1.10668E-01  1.13361E-01  1.16119E-01  1.18944E-01  1.21838E-01
#           1.24803E-01  1.27839E-01  1.30950E-01  1.34136E-01  1.37399E-01
#           1.40742E-01  1.44167E-01  1.47675E-01  1.51268E-01  1.54948E-01
#           1.58718E-01  1.62580E-01  1.66535E-01  1.70587E-01  1.74738E-01
#           1.78989E-01  1.83344E-01  1.87805E-01  1.92375E-01  1.97055E-01
#           2.01850E-01  2.06761E-01  2.11792E-01  2.16945E-01  2.22223E-01
#           2.27630E-01  2.33169E-01  2.38842E-01  2.44653E-01  2.50605E-01
#           2.56703E-01  2.62949E-01  2.69346E-01  2.75900E-01  2.82613E-01
#           2.89489E-01  2.96532E-01  3.03747E-01  3.11138E-01  3.18708E-01
#           3.26462E-01  3.34405E-01  3.42542E-01  3.50876E-01  3.59413E-01
#           3.68158E-01  3.77116E-01  3.86291E-01  3.95690E-01  4.05317E-01
#           4.15179E-01  4.25281E-01  4.35628E-01  4.46227E-01  4.57084E-01
#           4.68205E-01  4.79597E-01  4.91266E-01  5.03219E-01  5.15463E-01
#           5.28005E-01  5.40851E-01  5.54011E-01  5.67490E-01  5.81298E-01
#           5.95441E-01  6.09929E-01  6.24769E-01  6.39970E-01  6.55541E-01
#           6.71491E-01  6.87828E-01  7.04564E-01  7.21706E-01  7.39266E-01
#           7.57253E-01  7.75678E-01  7.94551E-01  8.13883E-01  8.33685E-01
#           8.53969E-01  8.74747E-01  8.96030E-01  9.17831E-01  9.40163E-01
#           9.63038E-01  9.86469E-01  1.01047E+00  1.03506E+00  1.06024E+00
#           1.08604E+00  1.11246E+00  1.13953E+00  1.16725E+00  1.19565E+00
#           1.22474E+00  1.25454E+00  1.28507E+00  1.31633E+00  1.34836E+00
#           1.38117E+00  1.41477E+00  1.44920E+00  1.48446E+00  1.52057E+00
#           1.55757E+00  1.59547E+00  1.63429E+00  1.67405E+00  1.71478E+00
#           1.75650E+00  1.79924E+00  1.84302E+00  1.88786E+00  1.93379E+00
#           1.98084E+00  2.02904E+00  2.07841E+00  2.12898E+00  2.18078E+00
#           2.23384E+00  2.28819E+00  2.34386E+00  2.40089E+00  2.45930E+00
#           2.51914E+00  2.58043E+00  2.64322E+00  2.70753E+00  2.77341E+00
#           2.84088E+00  2.91001E+00  2.98081E+00  3.05333E+00  3.12762E+00
#           3.20372E+00  3.28167E+00  3.36152E+00  3.44330E+00  3.52708E+00
#           3.61290E+00  3.70080E+00  3.79085E+00  3.88308E+00  3.97756E+00
#           4.07434E+00  4.17347E+00  4.27501E+00  4.37903E+00  4.48557E+00
#           4.59471E+00  4.70650E+00  4.82102E+00  4.93832E+00  5.05847E+00
#           5.18155E+00  5.30762E+00  5.43676E+00  5.56904E+00  5.70453E+00
#           5.84333E+00  5.98550E+00  6.13114E+00  6.28031E+00  6.43312E+00
#           6.58964E+00  6.74997E+00  6.91420E+00  7.08243E+00  7.25475E+00
#           7.43126E+00  7.61207E+00  7.79728E+00  7.98700E+00  8.18133E+00
#           8.38038E+00  8.58428E+00  8.79315E+00  9.00709E+00  9.22624E+00
#           9.45072E+00  9.68067E+00  9.91620E+00  1.01575E+01  1.04046E+01
#           1.06578E+01  1.09171E+01  1.11827E+01  1.14548E+01  1.17335E+01
#           1.20190E+01  1.23114E+01  1.26109E+01  1.29178E+01  1.32321E+01
#           1.35540E+01  1.38838E+01  1.42216E+01  1.45676E+01  1.49221E+01
#           1.52851E+01  1.56570E+01  1.60380E+01  1.64282E+01  1.68279E+01
#           1.72374E+01  1.76568E+01  1.80864E+01  1.85264E+01  1.89772E+01
#           1.94389E+01  1.99119E+01  2.03963E+01  2.08926E+01  2.14009E+01
#           2.19216E+01  2.24550E+01  2.30014E+01  2.35610E+01  2.41343E+01
#           2.47215E+01  2.53230E+01  2.59391E+01  2.65702E+01  2.72167E+01
#           2.78789E+01  2.85572E+01  2.92520E+01  2.99637E+01  3.06928E+01
#           3.14396E+01  3.22045E+01  3.29881E+01  3.37907E+01  3.46128E+01
#           3.54550E+01  3.63177E+01  3.72013E+01  3.81064E+01  3.90336E+01
#           3.99833E+01  4.09561E+01  4.19526E+01  4.29734E+01  4.40189E+01
#           4.50900E+01  4.61870E+01  4.73108E+01  4.84619E+01  4.96410E+01
#           5.08488E+01  5.20860E+01  5.33533E+01  5.46514E+01  5.59812E+01
#           5.73432E+01  5.87384E+01  6.01676E+01  6.16315E+01  6.31311E+01
#           6.46671E+01  6.62405E+01  6.78522E+01  6.95031E+01  7.11941E+01
#           7.29263E+01  7.47007E+01  7.65182E+01  7.83800E+01  8.02870E+01
#           8.22405E+01  8.42414E+01  8.62911E+01  8.83906E+01  9.05412E+01
#           9.27442E+01  9.50007E+01  9.73122E+01  9.96799E+01  1.02105E+02
#           1.04589E+02  1.07134E+02  1.09741E+02  1.12411E+02  1.15146E+02
#           1.17948E+02  1.20817E+02  1.23757E+02  1.26768E+02  1.29852E+02
#           1.33012E+02  1.36248E+02  1.39563E+02  1.42959E+02  1.46437E+02
#           1.50000E+02
     unit =    2            # unit is [1/cm^2/(MeV/n)/source]
     axis =  eng            # axis of output
     file = detector-21.out  # file name of output for the above axis
   output = f-curr          # surface crossing forward current spectrum
     part =  neutron  
# kf/name :  2112     
#    used :        main (  %)        temp (  %)       total (  %)
#  memory :         414 (  0)           0 (  0)         414 (  0)

#------------------------------------------------------------------------------
#newpage:
#   no. =    1   reg = 120 - 220

x: Energy [MeV/n]
y:  F-Curr [1/cm^2/(MeV/n)/source]         
p: xlog ylog afac(0.8) form(0.9)
h: n            x            y(neutron ),hh0l   n 
#  e-lower      e-upper      neutron     r.err 
   1.0000E-02   1.0243E-02   6.7420E-04  0.0389
   1.0243E-02   1.0493E-02   5.6932E-04  0.0419
   1.0493E-02   1.0748E-02   5.9858E-04  0.0403
   1.0748E-02   1.1009E-02   5.5666E-04  0.0413
   1.1009E-02   1.1277E-02   5.5024E-04  0.0411
   1.1277E-02   1.1552E-02   5.4030E-04  0.0409
   1.1552E-02   1.1833E-02   5.3109E-04  0.0408
   1.1833E-02   1.2121E-02   5.2313E-04  0.0406
   1.2121E-02   1.2415E-02   5.0433E-04  0.0408
   1.2415E-02   1.2718E-02   5.1559E-04  0.0400
   1.2718E-02   1.3027E-02   4.5569E-04  0.0420
   1.3027E-02   1.3344E-02   4.8984E-04  0.0400
   1.3344E-02   1.3669E-02   4.8312E-04  0.0398
   1.3669E-02   1.4001E-02   4.5542E-04  0.0405
   1.4001E-02   1.4342E-02   4.6939E-04  0.0394
   1.4342E-02   1.4691E-02   4.2676E-04  0.0409
   1.4691E-02   1.5048E-02   4.2300E-04  0.0405
   1.5048E-02   1.5414E-02   4.2869E-04  0.0398
   1.5414E-02   1.5789E-02   4.0931E-04  0.0402
   1.5789E-02   1.6174E-02   4.0848E-04  0.0398
   1.6174E-02   1.6567E-02   3.8485E-04  0.0405
   1.6567E-02   1.6970E-02   3.8985E-04  0.0398
   1.6970E-02   1.7383E-02   3.8462E-04  0.0396
   1.7383E-02   1.7806E-02   3.6970E-04  0.0399
   1.7806E-02   1.8239E-02   3.5195E-04  0.0404
   1.8239E-02   1.8683E-02   3.3096E-04  0.0411
   1.8683E-02   1.9138E-02   3.3480E-04  0.0404
   1.9138E-02   1.9603E-02   3.2016E-04  0.0408
   1.9603E-02   2.0080E-02   3.2907E-04  0.0398
   2.0080E-02   2.0569E-02   3.1706E-04  0.0401
   2.0569E-02   2.1069E-02   3.0573E-04  0.0403
   2.1069E-02   2.1582E-02   2.9951E-04  0.0403
   2.1582E-02   2.2107E-02   2.9081E-04  0.0404
   2.2107E-02   2.2645E-02   2.9420E-04  0.0397
   2.2645E-02   2.3196E-02   2.7722E-04  0.0403
   2.3196E-02   2.3760E-02   2.7937E-04  0.0397
   2.3760E-02   2.4338E-02   2.7967E-04  0.0392
   2.4338E-02   2.4930E-02   2.6436E-04  0.0399
   2.4930E-02   2.5537E-02   2.4384E-04  0.0410
   2.5537E-02   2.6158E-02   2.5167E-04  0.0399
   2.6158E-02   2.6795E-02   2.5690E-04  0.0390
   2.6795E-02   2.7447E-02   2.4808E-04  0.0392
   2.7447E-02   2.8114E-02   2.5043E-04  0.0386
   2.8114E-02   2.8799E-02   2.4061E-04  0.0389
   2.8799E-02   2.9499E-02   2.3589E-04  0.0388
   2.9499E-02   3.0217E-02   2.2690E-04  0.0391
   3.0217E-02   3.0952E-02   2.2018E-04  0.0392
   3.0952E-02   3.1705E-02   2.2281E-04  0.0385
   3.1705E-02   3.2477E-02   2.1007E-04  0.0392
   3.2477E-02   3.3267E-02   2.0656E-04  0.0391
   3.3267E-02   3.4076E-02   2.0389E-04  0.0388
   3.4076E-02   3.4905E-02   2.0080E-04  0.0387
   3.4905E-02   3.5755E-02   2.0704E-04  0.0376
   3.5755E-02   3.6625E-02   2.0392E-04  0.0374
   3.6625E-02   3.7516E-02   1.9359E-04  0.0379
   3.7516E-02   3.8428E-02   1.9156E-04  0.0377
   3.8428E-02   3.9363E-02   1.9533E-04  0.0369
   3.9363E-02   4.0321E-02   1.7541E-04  0.0385
   4.0321E-02   4.1302E-02   1.6878E-04  0.0388
   4.1302E-02   4.2307E-02   1.7555E-04  0.0375
   4.2307E-02   4.3337E-02   1.6514E-04  0.0383
   4.3337E-02   4.4391E-02   1.4571E-04  0.0403
   4.4391E-02   4.5471E-02   1.6483E-04  0.0374
   4.5471E-02   4.6577E-02   1.5071E-04  0.0386
   4.6577E-02   4.7711E-02   1.4799E-04  0.0385
   4.7711E-02   4.8871E-02   1.4091E-04  0.0389
   4.8871E-02   5.0061E-02   1.4588E-04  0.0379
   5.0061E-02   5.1279E-02   1.4668E-04  0.0373
   5.1279E-02   5.2526E-02   1.3666E-04  0.0382
   5.2526E-02   5.3804E-02   1.4074E-04  0.0372
   5.3804E-02   5.5113E-02   1.2771E-04  0.0386
   5.5113E-02   5.6454E-02   1.3528E-04  0.0370
   5.6454E-02   5.7828E-02   1.2346E-04  0.0383
   5.7828E-02   5.9235E-02   1.2626E-04  0.0374
   5.9235E-02   6.0676E-02   1.2407E-04  0.0373
   6.0676E-02   6.2152E-02   1.1654E-04  0.0380
   6.2152E-02   6.3665E-02   1.2314E-04  0.0366
   6.3665E-02   6.5214E-02   1.0852E-04  0.0385
   6.5214E-02   6.6800E-02   1.1862E-04  0.0364
   6.6800E-02   6.8426E-02   1.1587E-04  0.0363
   6.8426E-02   7.0090E-02   1.1111E-04  0.0367
   7.0090E-02   7.1796E-02   1.0856E-04  0.0367
   7.1796E-02   7.3543E-02   1.0238E-04  0.0373
   7.3543E-02   7.5332E-02   1.0997E-04  0.0356
   7.5332E-02   7.7165E-02   9.6260E-05  0.0375
   7.7165E-02   7.9042E-02   9.0741E-05  0.0382
   7.9042E-02   8.0965E-02   9.5463E-05  0.0368
   8.0965E-02   8.2935E-02   9.8692E-05  0.0358
   8.2935E-02   8.4953E-02   8.9845E-05  0.0370
   8.4953E-02   8.7020E-02   9.3138E-05  0.0359
   8.7020E-02   8.9138E-02   8.7339E-05  0.0367
   8.9138E-02   9.1306E-02   8.6302E-05  0.0364
   9.1306E-02   9.3528E-02   8.2573E-05  0.0368
   9.3528E-02   9.5804E-02   7.8744E-05  0.0372
   9.5804E-02   9.8134E-02   8.4548E-05  0.0355
   9.8134E-02   1.0052E-01   8.2621E-05  0.0355
   1.0052E-01   1.0297E-01   8.2729E-05  0.0350
   1.0297E-01   1.0547E-01   8.8732E-05  0.0334
   1.0547E-01   1.0804E-01   9.4111E-05  0.0321
   1.0804E-01   1.1067E-01   9.6968E-05  0.0312
   1.1067E-01   1.1336E-01   9.7395E-05  0.0308
   1.1336E-01   1.1612E-01   9.6337E-05  0.0306
   1.1612E-01   1.1894E-01   1.0674E-04  0.0287
   1.1894E-01   1.2184E-01   1.0993E-04  0.0280
   1.2184E-01   1.2480E-01   1.0792E-04  0.0279
   1.2480E-01   1.2784E-01   1.1890E-04  0.0262
   1.2784E-01   1.3095E-01   1.1746E-04  0.0261
   1.3095E-01   1.3414E-01   1.2439E-04  0.0250
   1.3414E-01   1.3740E-01   1.2684E-04  0.0245
   1.3740E-01   1.4074E-01   1.3142E-04  0.0238
   1.4074E-01   1.4417E-01   1.3102E-04  0.0235
   1.4417E-01   1.4767E-01   1.3592E-04  0.0228
   1.4767E-01   1.5127E-01   1.4146E-04  0.0221
   1.5127E-01   1.5495E-01   1.4217E-04  0.0218
   1.5495E-01   1.5872E-01   1.4980E-04  0.0210
   1.5872E-01   1.6258E-01   1.5820E-04  0.0202
   1.6258E-01   1.6654E-01   1.6168E-04  0.0197
   1.6654E-01   1.7059E-01   1.6674E-04  0.0192
   1.7059E-01   1.7474E-01   1.6796E-04  0.0189
   1.7474E-01   1.7899E-01   1.7606E-04  0.0182
   1.7899E-01   1.8334E-01   1.7666E-04  0.0180
   1.8334E-01   1.8781E-01   1.8408E-04  0.0174
   1.8781E-01   1.9237E-01   1.9044E-04  0.0169
   1.9237E-01   1.9706E-01   1.9514E-04  0.0165
   1.9706E-01   2.0185E-01   1.9939E-04  0.0161
   2.0185E-01   2.0676E-01   2.0295E-04  0.0158
   2.0676E-01   2.1179E-01   2.1119E-04  0.0153
   2.1179E-01   2.1694E-01   2.1517E-04  0.0150
   2.1694E-01   2.2222E-01   2.2503E-04  0.0145
   2.2222E-01   2.2763E-01   2.2926E-04  0.0142
   2.2763E-01   2.3317E-01   2.3278E-04  0.0139
   2.3317E-01   2.3884E-01   2.3803E-04  0.0136
   2.3884E-01   2.4465E-01   2.4328E-04  0.0132
   2.4465E-01   2.5061E-01   2.4918E-04  0.0129
   2.5061E-01   2.5670E-01   2.5535E-04  0.0126
   2.5670E-01   2.6295E-01   2.5483E-04  0.0125
   2.6295E-01   2.6935E-01   2.6168E-04  0.0122
   2.6935E-01   2.7590E-01   2.7086E-04  0.0118
   2.7590E-01   2.8261E-01   2.7502E-04  0.0116
   2.8261E-01   2.8949E-01   2.8302E-04  0.0113
   2.8949E-01   2.9653E-01   2.9071E-04  0.0110
   2.9653E-01   3.0375E-01   2.8867E-04  0.0109
   3.0375E-01   3.1114E-01   2.9570E-04  0.0107
   3.1114E-01   3.1871E-01   2.9818E-04  0.0105
   3.1871E-01   3.2646E-01   3.0725E-04  0.0102
   3.2646E-01   3.3441E-01   3.1463E-04  0.0100
   3.3441E-01   3.4254E-01   3.1779E-04  0.0098
   3.4254E-01   3.5088E-01   3.2463E-04  0.0096
   3.5088E-01   3.5941E-01   3.2934E-04  0.0094
   3.5941E-01   3.6816E-01   3.2952E-04  0.0093
   3.6816E-01   3.7712E-01   3.4160E-04  0.0090
   3.7712E-01   3.8629E-01   3.4083E-04  0.0089
   3.8629E-01   3.9569E-01   3.4516E-04  0.0087
   3.9569E-01   4.0532E-01   3.4929E-04  0.0086
   4.0532E-01   4.1518E-01   3.4622E-04  0.0085
   4.1518E-01   4.2528E-01   3.5807E-04  0.0083
   4.2528E-01   4.3563E-01   3.6043E-04  0.0081
   4.3563E-01   4.4623E-01   3.6189E-04  0.0080
   4.4623E-01   4.5708E-01   3.6276E-04  0.0079
   4.5708E-01   4.6821E-01   3.6044E-04  0.0079
   4.6821E-01   4.7960E-01   3.7105E-04  0.0076
   4.7960E-01   4.9127E-01   3.7098E-04  0.0076
   4.9127E-01   5.0322E-01   3.7640E-04  0.0074
   5.0322E-01   5.1546E-01   3.7725E-04  0.0073
   5.1546E-01   5.2800E-01   3.8073E-04  0.0072
   5.2800E-01   5.4085E-01   3.7926E-04  0.0071
   5.4085E-01   5.5401E-01   3.7834E-04  0.0070
   5.5401E-01   5.6749E-01   3.7598E-04  0.0070
   5.6749E-01   5.8130E-01   3.7892E-04  0.0069
   5.8130E-01   5.9544E-01   3.7824E-04  0.0068
   5.9544E-01   6.0993E-01   3.7483E-04  0.0067
   6.0993E-01   6.2477E-01   3.7397E-04  0.0067
   6.2477E-01   6.3997E-01   3.7709E-04  0.0066
   6.3997E-01   6.5554E-01   3.6984E-04  0.0065
   6.5554E-01   6.7149E-01   3.7089E-04  0.0065
   6.7149E-01   6.8783E-01   3.6613E-04  0.0064
   6.8783E-01   7.0456E-01   3.6012E-04  0.0064
   7.0456E-01   7.2171E-01   3.5858E-04  0.0063
   7.2171E-01   7.3927E-01   3.5298E-04  0.0063
   7.3927E-01   7.5725E-01   3.4670E-04  0.0063
   7.5725E-01   7.7568E-01   3.4155E-04  0.0063
   7.7568E-01   7.9455E-01   3.3256E-04  0.0063
   7.9455E-01   8.1388E-01   3.3010E-04  0.0062
   8.1388E-01   8.3368E-01   3.2242E-04  0.0062
   8.3368E-01   8.5397E-01   3.1105E-04  0.0062
   8.5397E-01   8.7475E-01   3.0305E-04  0.0062
   8.7475E-01   8.9603E-01   2.9459E-04  0.0063
   8.9603E-01   9.1783E-01   2.8329E-04  0.0063
   9.1783E-01   9.4016E-01   2.7475E-04  0.0063
   9.4016E-01   9.6304E-01   2.6503E-04  0.0064
   9.6304E-01   9.8647E-01   2.5357E-04  0.0064
   9.8647E-01   1.0105E+00   2.4783E-04  0.0064
   1.0105E+00   1.0351E+00   2.4085E-04  0.0064
   1.0351E+00   1.0602E+00   2.4429E-04  0.0063
   1.0602E+00   1.0860E+00   2.4145E-04  0.0063
   1.0860E+00   1.1125E+00   2.4116E-04  0.0062
   1.1125E+00   1.1395E+00   2.4436E-04  0.0061
   1.1395E+00   1.1673E+00   2.4669E-04  0.0060
   1.1673E+00   1.1957E+00   2.4803E-04  0.0059
   1.1957E+00   1.2247E+00   2.5275E-04  0.0058
   1.2247E+00   1.2545E+00   2.5307E-04  0.0057
   1.2545E+00   1.2851E+00   2.4791E-04  0.0057
   1.2851E+00   1.3163E+00   2.5165E-04  0.0055
   1.3163E+00   1.3484E+00   2.5231E-04  0.0055
   1.3484E+00   1.3812E+00   2.5217E-04  0.0054
   1.3812E+00   1.4148E+00   2.5076E-04  0.0054
   1.4148E+00   1.4492E+00   2.4574E-04  0.0053
   1.4492E+00   1.4845E+00   2.4667E-04  0.0053
   1.4845E+00   1.5206E+00   2.4198E-04  0.0052
   1.5206E+00   1.5576E+00   2.3845E-04  0.0052
   1.5576E+00   1.5955E+00   2.3434E-04  0.0052
   1.5955E+00   1.6343E+00   2.3086E-04  0.0052
   1.6343E+00   1.6741E+00   2.2711E-04  0.0051
   1.6741E+00   1.7148E+00   2.2433E-04  0.0051
   1.7148E+00   1.7565E+00   2.1690E-04  0.0051
   1.7565E+00   1.7992E+00   2.0682E-04  0.0052
   1.7992E+00   1.8430E+00   1.9537E-04  0.0053
   1.8430E+00   1.8879E+00   1.8824E-04  0.0053
   1.8879E+00   1.9338E+00   1.8527E-04  0.0053
   1.9338E+00   1.9808E+00   1.8069E-04  0.0052
   1.9808E+00   2.0290E+00   1.8209E-04  0.0052
   2.0290E+00   2.0784E+00   1.8036E-04  0.0051
   2.0784E+00   2.1290E+00   1.8010E-04  0.0051
   2.1290E+00   2.1808E+00   1.8181E-04  0.0050
   2.1808E+00   2.2338E+00   1.7813E-04  0.0050
   2.2338E+00   2.2882E+00   1.7176E-04  0.0050
   2.2882E+00   2.3439E+00   1.6659E-04  0.0050
   2.3439E+00   2.4009E+00   1.6526E-04  0.0050
   2.4009E+00   2.4593E+00   1.6236E-04  0.0050
   2.4593E+00   2.5191E+00   1.5789E-04  0.0050
   2.5191E+00   2.5804E+00   1.5573E-04  0.0050
   2.5804E+00   2.6432E+00   1.5186E-04  0.0050
   2.6432E+00   2.7075E+00   1.4864E-04  0.0050
   2.7075E+00   2.7734E+00   1.4603E-04  0.0049
   2.7734E+00   2.8409E+00   1.4212E-04  0.0050
   2.8409E+00   2.9100E+00   1.4012E-04  0.0049
   2.9100E+00   2.9808E+00   1.3710E-04  0.0049
   2.9808E+00   3.0533E+00   1.3345E-04  0.0049
   3.0533E+00   3.1276E+00   1.3160E-04  0.0049
   3.1276E+00   3.2037E+00   1.2865E-04  0.0049
   3.2037E+00   3.2817E+00   1.2704E-04  0.0049
   3.2817E+00   3.3615E+00   1.2244E-04  0.0049
   3.3615E+00   3.4433E+00   1.2200E-04  0.0049
   3.4433E+00   3.5271E+00   1.1880E-04  0.0049
   3.5271E+00   3.6129E+00   1.1666E-04  0.0049
   3.6129E+00   3.7008E+00   1.1336E-04  0.0049
   3.7008E+00   3.7908E+00   1.1058E-04  0.0049
   3.7908E+00   3.8831E+00   1.0783E-04  0.0049
   3.8831E+00   3.9776E+00   1.0403E-04  0.0049
   3.9776E+00   4.0743E+00   1.0213E-04  0.0049
   4.0743E+00   4.1735E+00   9.8947E-05  0.0049
   4.1735E+00   4.2750E+00   9.5713E-05  0.0050
   4.2750E+00   4.3790E+00   9.2588E-05  0.0050
   4.3790E+00   4.4856E+00   8.8833E-05  0.0050
   4.4856E+00   4.5947E+00   8.7133E-05  0.0050
   4.5947E+00   4.7065E+00   8.3523E-05  0.0051
   4.7065E+00   4.8210E+00   8.2110E-05  0.0050
   4.8210E+00   4.9383E+00   7.8997E-05  0.0051
   4.9383E+00   5.0585E+00   7.6850E-05  0.0051
   5.0585E+00   5.1815E+00   7.4007E-05  0.0051
   5.1815E+00   5.3076E+00   7.2105E-05  0.0051
   5.3076E+00   5.4368E+00   6.9664E-05  0.0052
   5.4368E+00   5.5690E+00   6.6383E-05  0.0052
   5.5690E+00   5.7045E+00   6.4253E-05  0.0052
   5.7045E+00   5.8433E+00   6.2031E-05  0.0053
   5.8433E+00   5.9855E+00   5.9512E-05  0.0053
   5.9855E+00   6.1311E+00   5.7199E-05  0.0054
   6.1311E+00   6.2803E+00   5.4562E-05  0.0054
   6.2803E+00   6.4331E+00   5.2594E-05  0.0055
   6.4331E+00   6.5896E+00   4.9926E-05  0.0056
   6.5896E+00   6.7500E+00   4.8251E-05  0.0056
   6.7500E+00   6.9142E+00   4.4957E-05  0.0057
   6.9142E+00   7.0824E+00   4.2772E-05  0.0058
   7.0824E+00   7.2548E+00   4.0454E-05  0.0059
   7.2548E+00   7.4313E+00   3.8371E-05  0.0060
   7.4313E+00   7.6121E+00   3.6348E-05  0.0061
   7.6121E+00   7.7973E+00   3.4396E-05  0.0062
   7.7973E+00   7.9870E+00   3.2531E-05  0.0063
   7.9870E+00   8.1813E+00   3.1015E-05  0.0064
   8.1813E+00   8.3804E+00   2.9354E-05  0.0065
   8.3804E+00   8.5843E+00   2.7581E-05  0.0066
   8.5843E+00   8.7931E+00   2.6416E-05  0.0067
   8.7931E+00   9.0071E+00   2.4953E-05  0.0068
   9.0071E+00   9.2262E+00   2.3336E-05  0.0069
   9.2262E+00   9.4507E+00   2.1990E-05  0.0071
   9.4507E+00   9.6807E+00   2.0726E-05  0.0072
   9.6807E+00   9.9162E+00   1.9674E-05  0.0073
   9.9162E+00   1.0157E+01   1.9055E-05  0.0073
   1.0157E+01   1.0405E+01   1.7932E-05  0.0075
   1.0405E+01   1.0658E+01   1.6856E-05  0.0076
   1.0658E+01   1.0917E+01   1.5667E-05  0.0078
   1.0917E+01   1.1183E+01   1.4597E-05  0.0080
   1.1183E+01   1.1455E+01   1.3799E-05  0.0081
   1.1455E+01   1.1733E+01   1.2911E-05  0.0083
   1.1733E+01   1.2019E+01   1.2096E-05  0.0085
   1.2019E+01   1.2311E+01   1.1301E-05  0.0087
   1.2311E+01   1.2611E+01   1.0681E-05  0.0088
   1.2611E+01   1.2918E+01   1.0016E-05  0.0090
   1.2918E+01   1.3232E+01   8.9788E-06  0.0094
   1.3232E+01   1.3554E+01   8.6423E-06  0.0095
   1.3554E+01   1.3884E+01   8.0310E-06  0.0097
   1.3884E+01   1.4222E+01   7.5804E-06  0.0099
   1.4222E+01   1.4568E+01   6.8712E-06  0.0102
   1.4568E+01   1.4922E+01   6.5316E-06  0.0104
   1.4922E+01   1.5285E+01   6.0941E-06  0.0106
   1.5285E+01   1.5657E+01   5.6461E-06  0.0109
   1.5657E+01   1.6038E+01   5.1271E-06  0.0113
   1.6038E+01   1.6428E+01   4.9454E-06  0.0114
   1.6428E+01   1.6828E+01   4.5361E-06  0.0117
   1.6828E+01   1.7237E+01   4.1706E-06  0.0121
   1.7237E+01   1.7657E+01   3.8541E-06  0.0124
   1.7657E+01   1.8086E+01   3.4972E-06  0.0129
   1.8086E+01   1.8526E+01   3.2077E-06  0.0133
   1.8526E+01   1.8977E+01   2.9179E-06  0.0138
   1.8977E+01   1.9439E+01   2.6628E-06  0.0143
   1.9439E+01   1.9912E+01   2.4640E-06  0.0146
   1.9912E+01   2.0396E+01   2.1957E-06  0.0153
   2.0396E+01   2.0893E+01   2.0221E-06  0.0158
   2.0893E+01   2.1401E+01   1.7159E-06  0.0169
   2.1401E+01   2.1922E+01   1.5854E-06  0.0174
   2.1922E+01   2.2455E+01   1.4343E-06  0.0181
   2.2455E+01   2.3001E+01   1.2899E-06  0.0188
   2.3001E+01   2.3561E+01   1.1624E-06  0.0196
   2.3561E+01   2.4134E+01   1.0549E-06  0.0203
   2.4134E+01   2.4721E+01   9.4856E-07  0.0212
   2.4721E+01   2.5323E+01   8.5329E-07  0.0221
   2.5323E+01   2.5939E+01   7.3524E-07  0.0235
   2.5939E+01   2.6570E+01   6.6469E-07  0.0244
   2.6570E+01   2.7217E+01   5.6886E-07  0.0261
   2.7217E+01   2.7879E+01   4.9796E-07  0.0275
   2.7879E+01   2.8557E+01   4.1610E-07  0.0298
   2.8557E+01   2.9252E+01   3.7204E-07  0.0311
   2.9252E+01   2.9964E+01   3.0630E-07  0.0339
   2.9964E+01   3.0693E+01   2.6370E-07  0.0361
   3.0693E+01   3.1440E+01   2.3501E-07  0.0377
   3.1440E+01   3.2205E+01   1.8040E-07  0.0426
   3.2205E+01   3.2988E+01   1.5251E-07  0.0457
   3.2988E+01   3.3791E+01   1.2303E-07  0.0503
   3.3791E+01   3.4613E+01   1.1008E-07  0.0526
   3.4613E+01   3.5455E+01   9.4994E-08  0.0559
   3.5455E+01   3.6318E+01   7.9407E-08  0.0604
   3.6318E+01   3.7201E+01   6.2526E-08  0.0673
   3.7201E+01   3.8106E+01   5.3859E-08  0.0716
   3.8106E+01   3.9034E+01   4.3682E-08  0.0786
   3.9034E+01   3.9983E+01   3.4747E-08  0.0870
   3.9983E+01   4.0956E+01   3.4693E-08  0.0861
   4.0956E+01   4.1953E+01   2.6844E-08  0.0967
   4.1953E+01   4.2973E+01   2.1063E-08  0.1078
   4.2973E+01   4.4019E+01   1.7694E-08  0.1162
   4.4019E+01   4.5090E+01   1.5173E-08  0.1240
   4.5090E+01   4.6187E+01   1.1166E-08  0.1429
   4.6187E+01   4.7311E+01   1.0901E-08  0.1429
   4.7311E+01   4.8462E+01   6.5155E-09  0.1826
   4.8462E+01   4.9641E+01   5.3006E-09  0.2000
   4.9641E+01   5.0849E+01   4.3467E-09  0.2182
   5.0849E+01   5.2086E+01   4.2435E-09  0.2182
   5.2086E+01   5.3353E+01   2.1700E-09  0.3015
   5.3353E+01   5.4651E+01   3.6591E-09  0.2294
   5.4651E+01   5.5981E+01   9.4005E-10  0.4472
   5.5981E+01   5.7343E+01   5.5063E-10  0.5774
   5.7343E+01   5.8738E+01   5.3755E-10  0.5774
   5.8738E+01   6.0168E+01   1.7493E-10  1.0000
   6.0168E+01   6.1632E+01   3.4155E-10  0.7071
   6.1632E+01   6.3131E+01   0.0000E+00  0.0000
   6.3131E+01   6.4667E+01   0.0000E+00  0.0000
   6.4667E+01   6.6240E+01   1.5889E-10  1.0000
   6.6240E+01   6.7852E+01   0.0000E+00  0.0000
   6.7852E+01   6.9503E+01   0.0000E+00  0.0000
   6.9503E+01   7.1194E+01   0.0000E+00  0.0000
   7.1194E+01   7.2926E+01   0.0000E+00  0.0000
   7.2926E+01   7.4701E+01   0.0000E+00  0.0000
   7.4701E+01   7.6518E+01   0.0000E+00  0.0000
   7.6518E+01   7.8380E+01   0.0000E+00  0.0000
   7.8380E+01   8.0287E+01   0.0000E+00  0.0000
   8.0287E+01   8.2240E+01   0.0000E+00  0.0000
   8.2240E+01   8.4241E+01   0.0000E+00  0.0000
   8.4241E+01   8.6291E+01   0.0000E+00  0.0000
   8.6291E+01   8.8391E+01   0.0000E+00  0.0000
   8.8391E+01   9.0541E+01   0.0000E+00  0.0000
   9.0541E+01   9.2744E+01   0.0000E+00  0.0000
   9.2744E+01   9.5001E+01   0.0000E+00  0.0000
   9.5001E+01   9.7312E+01   0.0000E+00  0.0000
   9.7312E+01   9.9680E+01   0.0000E+00  0.0000
   9.9680E+01   1.0211E+02   0.0000E+00  0.0000
   1.0211E+02   1.0459E+02   0.0000E+00  0.0000
   1.0459E+02   1.0713E+02   0.0000E+00  0.0000
   1.0713E+02   1.0974E+02   0.0000E+00  0.0000
   1.0974E+02   1.1241E+02   0.0000E+00  0.0000
   1.1241E+02   1.1515E+02   0.0000E+00  0.0000
   1.1515E+02   1.1795E+02   0.0000E+00  0.0000
   1.1795E+02   1.2082E+02   0.0000E+00  0.0000
   1.2082E+02   1.2376E+02   0.0000E+00  0.0000
   1.2376E+02   1.2677E+02   0.0000E+00  0.0000
   1.2677E+02   1.2985E+02   0.0000E+00  0.0000
   1.2985E+02   1.3301E+02   0.0000E+00  0.0000
   1.3301E+02   1.3625E+02   0.0000E+00  0.0000
   1.3625E+02   1.3956E+02   0.0000E+00  0.0000
   1.3956E+02   1.4296E+02   0.0000E+00  0.0000
   1.4296E+02   1.4644E+02   0.0000E+00  0.0000
   1.4644E+02   1.5000E+02   0.0000E+00  0.0000

#   sum over                 7.8349E-06
'no. =    1   reg = 120 - 220'
msuc: {\huge [t-cross] in region mesh}
msdr: {\it plotted by \ANGEL \version}
msdl: {\it calculated by \PHITS  3.26}
wt: s(0.7)
\vspace{-3}
  region surface crossing
  area  &=&   1.0000E+00 [cm^2]
e:
 
# Information for Restart Calculation
# This calculation was newly started
# istdev =  2 # 1:Batch variance, 2:History variance
# resc2  = 4.00000000000000000E+09 # Total source weight or Total source weight / maxcas
# resc3  = 4.00000000000000000E+09 # Total history number or Total batch number
# maxcas =   100000000 # History / Batch, only used for istdev=1
# bitrseed = 1000111101111101011101111011110101001010011101000111000001010111 # bit data of rseed
