[ T-Cross ]
    title = [t-cross] in region mesh
     mesh =  reg            # mesh type is region-wise
      reg =    1            # number of crossing regions
      non     r-from    r-to       area
      1       111       211        1.000000    
   e-type =    3            # e-mesh is log given by emin, emax and ne
     emin =  1.0000000E-02  # minimum value of e-mesh points
     emax =   150.0000      # maximum value of e-mesh points
#    edel =  2.4039514E-02  # mesh width of e-mesh points
       ne =    400          # number of e-mesh points
#    data = ( e(i), i = 1, ne + 1 )
#           1.00000E-02  1.02433E-02  1.04925E-02  1.07478E-02  1.10093E-02
#           1.12772E-02  1.15516E-02  1.18326E-02  1.21205E-02  1.24154E-02
#           1.27175E-02  1.30269E-02  1.33439E-02  1.36686E-02  1.40011E-02
#           1.43418E-02  1.46907E-02  1.50482E-02  1.54143E-02  1.57894E-02
#           1.61735E-02  1.65670E-02  1.69701E-02  1.73830E-02  1.78060E-02
#           1.82392E-02  1.86830E-02  1.91375E-02  1.96032E-02  2.00801E-02
#           2.05687E-02  2.10692E-02  2.15818E-02  2.21069E-02  2.26448E-02
#           2.31957E-02  2.37601E-02  2.43382E-02  2.49304E-02  2.55369E-02
#           2.61583E-02  2.67947E-02  2.74467E-02  2.81145E-02  2.87985E-02
#           2.94992E-02  3.02169E-02  3.09521E-02  3.17052E-02  3.24766E-02
#           3.32668E-02  3.40762E-02  3.49053E-02  3.57546E-02  3.66246E-02
#           3.75157E-02  3.84284E-02  3.93634E-02  4.03212E-02  4.13022E-02
#           4.23071E-02  4.33365E-02  4.43909E-02  4.54710E-02  4.65773E-02
#           4.77106E-02  4.88714E-02  5.00605E-02  5.12785E-02  5.25262E-02
#           5.38042E-02  5.51133E-02  5.64542E-02  5.78278E-02  5.92348E-02
#           6.06760E-02  6.21523E-02  6.36645E-02  6.52135E-02  6.68002E-02
#           6.84255E-02  7.00904E-02  7.17957E-02  7.35426E-02  7.53319E-02
#           7.71648E-02  7.90423E-02  8.09655E-02  8.29354E-02  8.49533E-02
#           8.70203E-02  8.91376E-02  9.13064E-02  9.35279E-02  9.58035E-02
#           9.81345E-02  1.00522E-01  1.02968E-01  1.05473E-01  1.08040E-01
#           1.10668E-01  1.13361E-01  1.16119E-01  1.18944E-01  1.21838E-01
#           1.24803E-01  1.27839E-01  1.30950E-01  1.34136E-01  1.37399E-01
#           1.40742E-01  1.44167E-01  1.47675E-01  1.51268E-01  1.54948E-01
#           1.58718E-01  1.62580E-01  1.66535E-01  1.70587E-01  1.74738E-01
#           1.78989E-01  1.83344E-01  1.87805E-01  1.92375E-01  1.97055E-01
#           2.01850E-01  2.06761E-01  2.11792E-01  2.16945E-01  2.22223E-01
#           2.27630E-01  2.33169E-01  2.38842E-01  2.44653E-01  2.50605E-01
#           2.56703E-01  2.62949E-01  2.69346E-01  2.75900E-01  2.82613E-01
#           2.89489E-01  2.96532E-01  3.03747E-01  3.11138E-01  3.18708E-01
#           3.26462E-01  3.34405E-01  3.42542E-01  3.50876E-01  3.59413E-01
#           3.68158E-01  3.77116E-01  3.86291E-01  3.95690E-01  4.05317E-01
#           4.15179E-01  4.25281E-01  4.35628E-01  4.46227E-01  4.57084E-01
#           4.68205E-01  4.79597E-01  4.91266E-01  5.03219E-01  5.15463E-01
#           5.28005E-01  5.40851E-01  5.54011E-01  5.67490E-01  5.81298E-01
#           5.95441E-01  6.09929E-01  6.24769E-01  6.39970E-01  6.55541E-01
#           6.71491E-01  6.87828E-01  7.04564E-01  7.21706E-01  7.39266E-01
#           7.57253E-01  7.75678E-01  7.94551E-01  8.13883E-01  8.33685E-01
#           8.53969E-01  8.74747E-01  8.96030E-01  9.17831E-01  9.40163E-01
#           9.63038E-01  9.86469E-01  1.01047E+00  1.03506E+00  1.06024E+00
#           1.08604E+00  1.11246E+00  1.13953E+00  1.16725E+00  1.19565E+00
#           1.22474E+00  1.25454E+00  1.28507E+00  1.31633E+00  1.34836E+00
#           1.38117E+00  1.41477E+00  1.44920E+00  1.48446E+00  1.52057E+00
#           1.55757E+00  1.59547E+00  1.63429E+00  1.67405E+00  1.71478E+00
#           1.75650E+00  1.79924E+00  1.84302E+00  1.88786E+00  1.93379E+00
#           1.98084E+00  2.02904E+00  2.07841E+00  2.12898E+00  2.18078E+00
#           2.23384E+00  2.28819E+00  2.34386E+00  2.40089E+00  2.45930E+00
#           2.51914E+00  2.58043E+00  2.64322E+00  2.70753E+00  2.77341E+00
#           2.84088E+00  2.91001E+00  2.98081E+00  3.05333E+00  3.12762E+00
#           3.20372E+00  3.28167E+00  3.36152E+00  3.44330E+00  3.52708E+00
#           3.61290E+00  3.70080E+00  3.79085E+00  3.88308E+00  3.97756E+00
#           4.07434E+00  4.17347E+00  4.27501E+00  4.37903E+00  4.48557E+00
#           4.59471E+00  4.70650E+00  4.82102E+00  4.93832E+00  5.05847E+00
#           5.18155E+00  5.30762E+00  5.43676E+00  5.56904E+00  5.70453E+00
#           5.84333E+00  5.98550E+00  6.13114E+00  6.28031E+00  6.43312E+00
#           6.58964E+00  6.74997E+00  6.91420E+00  7.08243E+00  7.25475E+00
#           7.43126E+00  7.61207E+00  7.79728E+00  7.98700E+00  8.18133E+00
#           8.38038E+00  8.58428E+00  8.79315E+00  9.00709E+00  9.22624E+00
#           9.45072E+00  9.68067E+00  9.91620E+00  1.01575E+01  1.04046E+01
#           1.06578E+01  1.09171E+01  1.11827E+01  1.14548E+01  1.17335E+01
#           1.20190E+01  1.23114E+01  1.26109E+01  1.29178E+01  1.32321E+01
#           1.35540E+01  1.38838E+01  1.42216E+01  1.45676E+01  1.49221E+01
#           1.52851E+01  1.56570E+01  1.60380E+01  1.64282E+01  1.68279E+01
#           1.72374E+01  1.76568E+01  1.80864E+01  1.85264E+01  1.89772E+01
#           1.94389E+01  1.99119E+01  2.03963E+01  2.08926E+01  2.14009E+01
#           2.19216E+01  2.24550E+01  2.30014E+01  2.35610E+01  2.41343E+01
#           2.47215E+01  2.53230E+01  2.59391E+01  2.65702E+01  2.72167E+01
#           2.78789E+01  2.85572E+01  2.92520E+01  2.99637E+01  3.06928E+01
#           3.14396E+01  3.22045E+01  3.29881E+01  3.37907E+01  3.46128E+01
#           3.54550E+01  3.63177E+01  3.72013E+01  3.81064E+01  3.90336E+01
#           3.99833E+01  4.09561E+01  4.19526E+01  4.29734E+01  4.40189E+01
#           4.50900E+01  4.61870E+01  4.73108E+01  4.84619E+01  4.96410E+01
#           5.08488E+01  5.20860E+01  5.33533E+01  5.46514E+01  5.59812E+01
#           5.73432E+01  5.87384E+01  6.01676E+01  6.16315E+01  6.31311E+01
#           6.46671E+01  6.62405E+01  6.78522E+01  6.95031E+01  7.11941E+01
#           7.29263E+01  7.47007E+01  7.65182E+01  7.83800E+01  8.02870E+01
#           8.22405E+01  8.42414E+01  8.62911E+01  8.83906E+01  9.05412E+01
#           9.27442E+01  9.50007E+01  9.73122E+01  9.96799E+01  1.02105E+02
#           1.04589E+02  1.07134E+02  1.09741E+02  1.12411E+02  1.15146E+02
#           1.17948E+02  1.20817E+02  1.23757E+02  1.26768E+02  1.29852E+02
#           1.33012E+02  1.36248E+02  1.39563E+02  1.42959E+02  1.46437E+02
#           1.50000E+02
     unit =    2            # unit is [1/cm^2/(MeV/n)/source]
     axis =  eng            # axis of output
     file = detector-12.out  # file name of output for the above axis
   output = f-curr          # surface crossing forward current spectrum
     part =  neutron  
# kf/name :  2112     
#    used :        main (  %)        temp (  %)       total (  %)
#  memory :         414 (  0)           0 (  0)         414 (  0)

#------------------------------------------------------------------------------
#newpage:
#   no. =    1   reg = 111 - 211

x: Energy [MeV/n]
y:  F-Curr [1/cm^2/(MeV/n)/source]         
p: xlog ylog afac(0.8) form(0.9)
h: n            x            y(neutron ),hh0l   n 
#  e-lower      e-upper      neutron     r.err 
   1.0000E-02   1.0243E-02   2.6312E-04  0.0558
   1.0243E-02   1.0493E-02   2.4040E-04  0.0576
   1.0493E-02   1.0748E-02   2.4551E-04  0.0564
   1.0748E-02   1.1009E-02   2.5401E-04  0.0548
   1.1009E-02   1.1277E-02   2.3440E-04  0.0563
   1.1277E-02   1.1552E-02   2.3291E-04  0.0558
   1.1552E-02   1.1833E-02   2.4152E-04  0.0541
   1.1833E-02   1.2121E-02   2.3059E-04  0.0548
   1.2121E-02   1.2415E-02   2.1365E-04  0.0562
   1.2415E-02   1.2718E-02   2.0387E-04  0.0569
   1.2718E-02   1.3027E-02   2.1439E-04  0.0548
   1.3027E-02   1.3344E-02   2.2340E-04  0.0530
   1.3344E-02   1.3669E-02   1.9671E-04  0.0559
   1.3669E-02   1.4001E-02   1.8153E-04  0.0574
   1.4001E-02   1.4342E-02   1.9935E-04  0.0541
   1.4342E-02   1.4691E-02   1.7877E-04  0.0565
   1.4691E-02   1.5048E-02   1.6481E-04  0.0581
   1.5048E-02   1.5414E-02   1.7111E-04  0.0564
   1.5414E-02   1.5789E-02   1.6924E-04  0.0561
   1.5789E-02   1.6174E-02   1.5702E-04  0.0575
   1.6174E-02   1.6567E-02   1.6846E-04  0.0549
   1.6567E-02   1.6970E-02   1.7338E-04  0.0534
   1.6970E-02   1.7383E-02   1.5122E-04  0.0565
   1.7383E-02   1.7806E-02   1.6181E-04  0.0539
   1.7806E-02   1.8239E-02   1.4356E-04  0.0566
   1.8239E-02   1.8683E-02   1.4349E-04  0.0559
   1.8683E-02   1.9138E-02   1.4514E-04  0.0550
   1.9138E-02   1.9603E-02   1.5114E-04  0.0532
   1.9603E-02   2.0080E-02   1.3638E-04  0.0553
   2.0080E-02   2.0569E-02   1.4002E-04  0.0539
   2.0569E-02   2.1069E-02   1.3428E-04  0.0544
   2.1069E-02   2.1582E-02   1.1984E-04  0.0570
   2.1582E-02   2.2107E-02   1.1994E-04  0.0562
   2.2107E-02   2.2645E-02   1.1214E-04  0.0575
   2.2645E-02   2.3196E-02   1.1506E-04  0.0560
   2.3196E-02   2.3760E-02   1.2410E-04  0.0534
   2.3760E-02   2.4338E-02   1.0649E-04  0.0569
   2.4338E-02   2.4930E-02   1.1225E-04  0.0547
   2.4930E-02   2.5537E-02   1.0095E-04  0.0570
   2.5537E-02   2.6158E-02   1.0779E-04  0.0546
   2.6158E-02   2.6795E-02   1.1052E-04  0.0532
   2.6795E-02   2.7447E-02   1.1010E-04  0.0527
   2.7447E-02   2.8114E-02   9.2940E-05  0.0566
   2.8114E-02   2.8799E-02   8.9371E-05  0.0571
   2.8799E-02   2.9499E-02   9.6966E-05  0.0541
   2.9499E-02   3.0217E-02   9.3801E-05  0.0543
   3.0217E-02   3.0952E-02   9.2954E-05  0.0540
   3.0952E-02   3.1705E-02   9.1082E-05  0.0539
   3.1705E-02   3.2477E-02   7.5699E-05  0.0584
   3.2477E-02   3.3267E-02   8.4862E-05  0.0544
   3.3267E-02   3.4076E-02   8.3844E-05  0.0542
   3.4076E-02   3.4905E-02   8.7789E-05  0.0523
   3.4905E-02   3.5755E-02   8.1517E-05  0.0536
   3.5755E-02   3.6625E-02   7.2889E-05  0.0560
   3.6625E-02   3.7516E-02   7.2618E-05  0.0555
   3.7516E-02   3.8428E-02   7.5810E-05  0.0536
   3.8428E-02   3.9363E-02   6.9433E-05  0.0554
   3.9363E-02   4.0321E-02   6.7661E-05  0.0554
   4.0321E-02   4.1302E-02   7.1786E-05  0.0532
   4.1302E-02   4.2307E-02   7.1346E-05  0.0527
   4.2307E-02   4.3337E-02   6.1783E-05  0.0559
   4.3337E-02   4.4391E-02   6.3043E-05  0.0548
   4.4391E-02   4.5471E-02   5.9467E-05  0.0557
   4.5471E-02   4.6577E-02   6.6877E-05  0.0519
   4.6577E-02   4.7711E-02   5.6891E-05  0.0556
   4.7711E-02   4.8871E-02   5.7708E-05  0.0545
   4.8871E-02   5.0061E-02   5.9499E-05  0.0531
   5.0061E-02   5.1279E-02   5.5674E-05  0.0542
   5.1279E-02   5.2526E-02   5.5573E-05  0.0535
   5.2526E-02   5.3804E-02   5.4724E-05  0.0534
   5.3804E-02   5.5113E-02   5.5010E-05  0.0526
   5.5113E-02   5.6454E-02   5.1434E-05  0.0537
   5.6454E-02   5.7828E-02   4.9518E-05  0.0541
   5.7828E-02   5.9235E-02   5.2365E-05  0.0519
   5.9235E-02   6.0676E-02   4.9281E-05  0.0530
   6.0676E-02   6.2152E-02   4.6228E-05  0.0540
   6.2152E-02   6.3665E-02   4.8531E-05  0.0521
   6.3665E-02   6.5214E-02   4.9822E-05  0.0508
   6.5214E-02   6.6800E-02   4.5340E-05  0.0525
   6.6800E-02   6.8426E-02   4.5323E-05  0.0521
   6.8426E-02   7.0090E-02   4.0174E-05  0.0546
   7.0090E-02   7.1796E-02   4.6250E-05  0.0502
   7.1796E-02   7.3543E-02   4.3605E-05  0.0511
   7.3543E-02   7.5332E-02   4.0000E-05  0.0527
   7.5332E-02   7.7165E-02   3.9000E-05  0.0528
   7.7165E-02   7.9042E-02   4.1288E-05  0.0506
   7.9042E-02   8.0965E-02   3.8953E-05  0.0515
   8.0965E-02   8.2935E-02   4.0687E-05  0.0498
   8.2935E-02   8.4953E-02   3.2431E-05  0.0552
   8.4953E-02   8.7020E-02   3.6313E-05  0.0514
   8.7020E-02   8.9138E-02   3.5880E-05  0.0512
   8.9138E-02   9.1306E-02   3.6601E-05  0.0501
   9.1306E-02   9.3528E-02   3.7208E-05  0.0491
   9.3528E-02   9.5804E-02   3.5525E-05  0.0496
   9.5804E-02   9.8134E-02   3.3526E-05  0.0504
   9.8134E-02   1.0052E-01   3.4164E-05  0.0494
   1.0052E-01   1.0297E-01   3.3686E-05  0.0492
   1.0297E-01   1.0547E-01   3.7076E-05  0.0463
   1.0547E-01   1.0804E-01   4.1827E-05  0.0431
   1.0804E-01   1.1067E-01   4.0795E-05  0.0431
   1.1067E-01   1.1336E-01   4.2043E-05  0.0419
   1.1336E-01   1.1612E-01   4.5298E-05  0.0399
   1.1612E-01   1.1894E-01   4.6719E-05  0.0388
   1.1894E-01   1.2184E-01   4.8916E-05  0.0375
   1.2184E-01   1.2480E-01   4.4487E-05  0.0389
   1.2480E-01   1.2784E-01   5.2093E-05  0.0355
   1.2784E-01   1.3095E-01   5.2165E-05  0.0350
   1.3095E-01   1.3414E-01   5.5550E-05  0.0336
   1.3414E-01   1.3740E-01   5.6889E-05  0.0328
   1.3740E-01   1.4074E-01   5.9650E-05  0.0316
   1.4074E-01   1.4417E-01   6.2865E-05  0.0304
   1.4417E-01   1.4767E-01   6.1812E-05  0.0303
   1.4767E-01   1.5127E-01   6.6824E-05  0.0288
   1.5127E-01   1.5495E-01   6.7509E-05  0.0283
   1.5495E-01   1.5872E-01   6.8374E-05  0.0278
   1.5872E-01   1.6258E-01   7.1401E-05  0.0269
   1.6258E-01   1.6654E-01   7.1855E-05  0.0265
   1.6654E-01   1.7059E-01   7.7439E-05  0.0252
   1.7059E-01   1.7474E-01   8.1998E-05  0.0242
   1.7474E-01   1.7899E-01   8.0547E-05  0.0241
   1.7899E-01   1.8334E-01   8.4442E-05  0.0233
   1.8334E-01   1.8781E-01   8.7677E-05  0.0226
   1.8781E-01   1.9237E-01   8.6943E-05  0.0224
   1.9237E-01   1.9706E-01   9.1455E-05  0.0216
   1.9706E-01   2.0185E-01   9.5196E-05  0.0209
   2.0185E-01   2.0676E-01   9.8462E-05  0.0203
   2.0676E-01   2.1179E-01   1.0484E-04  0.0194
   2.1179E-01   2.1694E-01   1.0617E-04  0.0191
   2.1694E-01   2.2222E-01   1.0599E-04  0.0189
   2.2222E-01   2.2763E-01   1.1442E-04  0.0179
   2.2763E-01   2.3317E-01   1.1461E-04  0.0177
   2.3317E-01   2.3884E-01   1.1339E-04  0.0176
   2.3884E-01   2.4465E-01   1.1860E-04  0.0170
   2.4465E-01   2.5061E-01   1.2173E-04  0.0166
   2.5061E-01   2.5670E-01   1.2494E-04  0.0162
   2.5670E-01   2.6295E-01   1.3154E-04  0.0156
   2.6295E-01   2.6935E-01   1.3024E-04  0.0155
   2.6935E-01   2.7590E-01   1.3639E-04  0.0149
   2.7590E-01   2.8261E-01   1.3605E-04  0.0148
   2.8261E-01   2.8949E-01   1.4184E-04  0.0143
   2.8949E-01   2.9653E-01   1.4522E-04  0.0139
   2.9653E-01   3.0375E-01   1.5108E-04  0.0135
   3.0375E-01   3.1114E-01   1.5006E-04  0.0134
   3.1114E-01   3.1871E-01   1.5853E-04  0.0129
   3.1871E-01   3.2646E-01   1.6079E-04  0.0126
   3.2646E-01   3.3441E-01   1.6362E-04  0.0124
   3.3441E-01   3.4254E-01   1.6863E-04  0.0120
   3.4254E-01   3.5088E-01   1.7454E-04  0.0117
   3.5088E-01   3.5941E-01   1.7398E-04  0.0116
   3.5941E-01   3.6816E-01   1.7700E-04  0.0113
   3.6816E-01   3.7712E-01   1.8079E-04  0.0111
   3.7712E-01   3.8629E-01   1.8165E-04  0.0109
   3.8629E-01   3.9569E-01   1.8843E-04  0.0106
   3.9569E-01   4.0532E-01   1.9053E-04  0.0104
   4.0532E-01   4.1518E-01   1.9546E-04  0.0102
   4.1518E-01   4.2528E-01   1.9978E-04  0.0099
   4.2528E-01   4.3563E-01   2.0462E-04  0.0097
   4.3563E-01   4.4623E-01   2.0622E-04  0.0095
   4.4623E-01   4.5708E-01   2.0555E-04  0.0094
   4.5708E-01   4.6821E-01   2.1005E-04  0.0092
   4.6821E-01   4.7960E-01   2.1396E-04  0.0090
   4.7960E-01   4.9127E-01   2.1691E-04  0.0089
   4.9127E-01   5.0322E-01   2.2059E-04  0.0087
   5.0322E-01   5.1546E-01   2.2229E-04  0.0085
   5.1546E-01   5.2800E-01   2.2279E-04  0.0084
   5.2800E-01   5.4085E-01   2.2508E-04  0.0083
   5.4085E-01   5.5401E-01   2.2931E-04  0.0081
   5.5401E-01   5.6749E-01   2.3084E-04  0.0080
   5.6749E-01   5.8130E-01   2.3416E-04  0.0078
   5.8130E-01   5.9544E-01   2.3593E-04  0.0077
   5.9544E-01   6.0993E-01   2.3457E-04  0.0076
   6.0993E-01   6.2477E-01   2.3510E-04  0.0075
   6.2477E-01   6.3997E-01   2.3939E-04  0.0074
   6.3997E-01   6.5554E-01   2.3591E-04  0.0073
   6.5554E-01   6.7149E-01   2.3958E-04  0.0072
   6.7149E-01   6.8783E-01   2.3987E-04  0.0071
   6.8783E-01   7.0456E-01   2.4170E-04  0.0070
   7.0456E-01   7.2171E-01   2.3899E-04  0.0070
   7.2171E-01   7.3927E-01   2.3760E-04  0.0069
   7.3927E-01   7.5725E-01   2.3519E-04  0.0068
   7.5725E-01   7.7568E-01   2.3238E-04  0.0068
   7.7568E-01   7.9455E-01   2.3366E-04  0.0067
   7.9455E-01   8.1388E-01   2.2802E-04  0.0067
   8.1388E-01   8.3368E-01   2.2764E-04  0.0066
   8.3368E-01   8.5397E-01   2.2328E-04  0.0066
   8.5397E-01   8.7475E-01   2.1807E-04  0.0066
   8.7475E-01   8.9603E-01   2.1153E-04  0.0066
   8.9603E-01   9.1783E-01   2.1085E-04  0.0066
   9.1783E-01   9.4016E-01   2.0478E-04  0.0066
   9.4016E-01   9.6304E-01   1.9665E-04  0.0066
   9.6304E-01   9.8647E-01   1.9268E-04  0.0066
   9.8647E-01   1.0105E+00   1.8606E-04  0.0066
   1.0105E+00   1.0351E+00   1.8490E-04  0.0066
   1.0351E+00   1.0602E+00   1.8614E-04  0.0065
   1.0602E+00   1.0860E+00   1.8993E-04  0.0063
   1.0860E+00   1.1125E+00   1.9493E-04  0.0062
   1.1125E+00   1.1395E+00   1.9941E-04  0.0060
   1.1395E+00   1.1673E+00   2.0576E-04  0.0059
   1.1673E+00   1.1957E+00   2.1367E-04  0.0057
   1.1957E+00   1.2247E+00   2.1809E-04  0.0056
   1.2247E+00   1.2545E+00   2.2409E-04  0.0054
   1.2545E+00   1.2851E+00   2.2341E-04  0.0054
   1.2851E+00   1.3163E+00   2.2702E-04  0.0053
   1.3163E+00   1.3484E+00   2.3389E-04  0.0051
   1.3484E+00   1.3812E+00   2.3589E-04  0.0050
   1.3812E+00   1.4148E+00   2.4458E-04  0.0049
   1.4148E+00   1.4492E+00   2.4623E-04  0.0048
   1.4492E+00   1.4845E+00   2.4511E-04  0.0048
   1.4845E+00   1.5206E+00   2.4565E-04  0.0047
   1.5206E+00   1.5576E+00   2.4742E-04  0.0046
   1.5576E+00   1.5955E+00   2.4863E-04  0.0045
   1.5955E+00   1.6343E+00   2.4987E-04  0.0045
   1.6343E+00   1.6741E+00   2.5071E-04  0.0044
   1.6741E+00   1.7148E+00   2.5504E-04  0.0043
   1.7148E+00   1.7565E+00   2.4989E-04  0.0043
   1.7565E+00   1.7992E+00   2.4272E-04  0.0043
   1.7992E+00   1.8430E+00   2.3311E-04  0.0043
   1.8430E+00   1.8879E+00   2.2718E-04  0.0043
   1.8879E+00   1.9338E+00   2.2717E-04  0.0043
   1.9338E+00   1.9808E+00   2.2733E-04  0.0042
   1.9808E+00   2.0290E+00   2.3061E-04  0.0041
   2.0290E+00   2.0784E+00   2.3222E-04  0.0041
   2.0784E+00   2.1290E+00   2.3631E-04  0.0040
   2.1290E+00   2.1808E+00   2.3970E-04  0.0039
   2.1808E+00   2.2338E+00   2.4249E-04  0.0038
   2.2338E+00   2.2882E+00   2.3655E-04  0.0038
   2.2882E+00   2.3439E+00   2.3390E-04  0.0038
   2.3439E+00   2.4009E+00   2.3305E-04  0.0038
   2.4009E+00   2.4593E+00   2.3422E-04  0.0037
   2.4593E+00   2.5191E+00   2.3357E-04  0.0037
   2.5191E+00   2.5804E+00   2.3283E-04  0.0037
   2.5804E+00   2.6432E+00   2.2934E-04  0.0036
   2.6432E+00   2.7075E+00   2.2955E-04  0.0036
   2.7075E+00   2.7734E+00   2.2745E-04  0.0036
   2.7734E+00   2.8409E+00   2.2569E-04  0.0035
   2.8409E+00   2.9100E+00   2.2371E-04  0.0035
   2.9100E+00   2.9808E+00   2.2464E-04  0.0035
   2.9808E+00   3.0533E+00   2.2146E-04  0.0035
   3.0533E+00   3.1276E+00   2.1883E-04  0.0034
   3.1276E+00   3.2037E+00   2.1747E-04  0.0034
   3.2037E+00   3.2817E+00   2.1334E-04  0.0034
   3.2817E+00   3.3615E+00   2.1283E-04  0.0034
   3.3615E+00   3.4433E+00   2.1000E-04  0.0034
   3.4433E+00   3.5271E+00   2.0846E-04  0.0033
   3.5271E+00   3.6129E+00   2.0576E-04  0.0033
   3.6129E+00   3.7008E+00   2.0485E-04  0.0033
   3.7008E+00   3.7908E+00   2.0073E-04  0.0033
   3.7908E+00   3.8831E+00   1.9741E-04  0.0033
   3.8831E+00   3.9776E+00   1.9513E-04  0.0032
   3.9776E+00   4.0743E+00   1.9068E-04  0.0032
   4.0743E+00   4.1735E+00   1.8723E-04  0.0032
   4.1735E+00   4.2750E+00   1.8217E-04  0.0032
   4.2750E+00   4.3790E+00   1.7849E-04  0.0032
   4.3790E+00   4.4856E+00   1.7409E-04  0.0032
   4.4856E+00   4.5947E+00   1.6915E-04  0.0032
   4.5947E+00   4.7065E+00   1.6625E-04  0.0032
   4.7065E+00   4.8210E+00   1.6206E-04  0.0032
   4.8210E+00   4.9383E+00   1.5933E-04  0.0032
   4.9383E+00   5.0585E+00   1.5531E-04  0.0032
   5.0585E+00   5.1815E+00   1.5252E-04  0.0032
   5.1815E+00   5.3076E+00   1.4876E-04  0.0032
   5.3076E+00   5.4368E+00   1.4482E-04  0.0032
   5.4368E+00   5.5690E+00   1.4222E-04  0.0032
   5.5690E+00   5.7045E+00   1.3886E-04  0.0032
   5.7045E+00   5.8433E+00   1.3549E-04  0.0032
   5.8433E+00   5.9855E+00   1.3284E-04  0.0032
   5.9855E+00   6.1311E+00   1.2874E-04  0.0032
   6.1311E+00   6.2803E+00   1.2554E-04  0.0032
   6.2803E+00   6.4331E+00   1.2261E-04  0.0032
   6.4331E+00   6.5896E+00   1.1863E-04  0.0032
   6.5896E+00   6.7500E+00   1.1569E-04  0.0032
   6.7500E+00   6.9142E+00   1.1176E-04  0.0033
   6.9142E+00   7.0824E+00   1.0816E-04  0.0033
   7.0824E+00   7.2548E+00   1.0581E-04  0.0033
   7.2548E+00   7.4313E+00   1.0170E-04  0.0033
   7.4313E+00   7.6121E+00   9.8488E-05  0.0033
   7.6121E+00   7.7973E+00   9.4076E-05  0.0033
   7.7973E+00   7.9870E+00   9.0950E-05  0.0034
   7.9870E+00   8.1813E+00   8.6816E-05  0.0034
   8.1813E+00   8.3804E+00   8.2970E-05  0.0034
   8.3804E+00   8.5843E+00   7.8988E-05  0.0035
   8.5843E+00   8.7931E+00   7.5200E-05  0.0035
   8.7931E+00   9.0071E+00   7.1861E-05  0.0036
   9.0071E+00   9.2262E+00   6.9310E-05  0.0036
   9.2262E+00   9.4507E+00   6.5702E-05  0.0036
   9.4507E+00   9.6807E+00   6.2914E-05  0.0037
   9.6807E+00   9.9162E+00   6.0523E-05  0.0037
   9.9162E+00   1.0157E+01   6.1267E-05  0.0037
   1.0157E+01   1.0405E+01   5.8685E-05  0.0037
   1.0405E+01   1.0658E+01   5.5774E-05  0.0037
   1.0658E+01   1.0917E+01   5.2947E-05  0.0038
   1.0917E+01   1.1183E+01   4.9720E-05  0.0039
   1.1183E+01   1.1455E+01   4.8171E-05  0.0039
   1.1455E+01   1.1733E+01   4.5756E-05  0.0039
   1.1733E+01   1.2019E+01   4.3923E-05  0.0040
   1.2019E+01   1.2311E+01   4.2112E-05  0.0040
   1.2311E+01   1.2611E+01   4.0804E-05  0.0040
   1.2611E+01   1.2918E+01   3.8912E-05  0.0041
   1.2918E+01   1.3232E+01   3.7315E-05  0.0041
   1.3232E+01   1.3554E+01   3.5803E-05  0.0042
   1.3554E+01   1.3884E+01   3.4549E-05  0.0042
   1.3884E+01   1.4222E+01   3.2817E-05  0.0042
   1.4222E+01   1.4568E+01   3.1797E-05  0.0043
   1.4568E+01   1.4922E+01   3.0227E-05  0.0043
   1.4922E+01   1.5285E+01   2.8912E-05  0.0044
   1.5285E+01   1.5657E+01   2.7731E-05  0.0044
   1.5657E+01   1.6038E+01   2.6480E-05  0.0044
   1.6038E+01   1.6428E+01   2.5276E-05  0.0045
   1.6428E+01   1.6828E+01   2.4103E-05  0.0046
   1.6828E+01   1.7237E+01   2.3037E-05  0.0046
   1.7237E+01   1.7657E+01   2.1816E-05  0.0047
   1.7657E+01   1.8086E+01   2.0765E-05  0.0047
   1.8086E+01   1.8526E+01   1.9742E-05  0.0048
   1.8526E+01   1.8977E+01   1.8637E-05  0.0049
   1.8977E+01   1.9439E+01   1.7602E-05  0.0050
   1.9439E+01   1.9912E+01   1.6998E-05  0.0050
   1.9912E+01   2.0396E+01   1.6114E-05  0.0051
   2.0396E+01   2.0893E+01   1.5319E-05  0.0051
   2.0893E+01   2.1401E+01   1.4313E-05  0.0052
   2.1401E+01   2.1922E+01   1.3368E-05  0.0054
   2.1922E+01   2.2455E+01   1.2709E-05  0.0054
   2.2455E+01   2.3001E+01   1.2127E-05  0.0055
   2.3001E+01   2.3561E+01   1.2008E-05  0.0055
   2.3561E+01   2.4134E+01   1.1626E-05  0.0055
   2.4134E+01   2.4721E+01   1.0974E-05  0.0056
   2.4721E+01   2.5323E+01   1.0329E-05  0.0057
   2.5323E+01   2.5939E+01   9.5574E-06  0.0058
   2.5939E+01   2.6570E+01   8.8887E-06  0.0060
   2.6570E+01   2.7217E+01   8.2156E-06  0.0061
   2.7217E+01   2.7879E+01   7.3500E-06  0.0064
   2.7879E+01   2.8557E+01   6.7051E-06  0.0066
   2.8557E+01   2.9252E+01   6.0162E-06  0.0069
   2.9252E+01   2.9964E+01   5.3304E-06  0.0073
   2.9964E+01   3.0693E+01   4.7394E-06  0.0076
   3.0693E+01   3.1440E+01   4.1887E-06  0.0080
   3.1440E+01   3.2205E+01   3.6214E-06  0.0085
   3.2205E+01   3.2988E+01   3.1589E-06  0.0090
   3.2988E+01   3.3791E+01   2.7809E-06  0.0095
   3.3791E+01   3.4613E+01   2.4341E-06  0.0100
   3.4613E+01   3.5455E+01   2.0713E-06  0.0107
   3.5455E+01   3.6318E+01   1.7495E-06  0.0115
   3.6318E+01   3.7201E+01   1.4658E-06  0.0124
   3.7201E+01   3.8106E+01   1.2279E-06  0.0134
   3.8106E+01   3.9034E+01   9.7934E-07  0.0148
   3.9034E+01   3.9983E+01   7.7286E-07  0.0165
   3.9983E+01   4.0956E+01   5.6269E-07  0.0191
   4.0956E+01   4.1953E+01   4.2770E-07  0.0217
   4.1953E+01   4.2973E+01   3.3035E-07  0.0244
   4.2973E+01   4.4019E+01   2.3719E-07  0.0284
   4.4019E+01   4.5090E+01   1.8188E-07  0.0320
   4.5090E+01   4.6187E+01   1.3272E-07  0.0371
   4.6187E+01   4.7311E+01   7.4571E-08  0.0489
   4.7311E+01   4.8462E+01   3.5270E-08  0.0702
   4.8462E+01   4.9641E+01   1.4587E-08  0.1078
   4.9641E+01   5.0849E+01   4.4709E-09  0.1925
   5.0849E+01   5.2086E+01   9.6994E-10  0.4082
   5.2086E+01   5.3353E+01   1.5782E-10  1.0000
   5.3353E+01   5.4651E+01   0.0000E+00  0.0000
   5.4651E+01   5.5981E+01   0.0000E+00  0.0000
   5.5981E+01   5.7343E+01   0.0000E+00  0.0000
   5.7343E+01   5.8738E+01   0.0000E+00  0.0000
   5.8738E+01   6.0168E+01   0.0000E+00  0.0000
   6.0168E+01   6.1632E+01   0.0000E+00  0.0000
   6.1632E+01   6.3131E+01   0.0000E+00  0.0000
   6.3131E+01   6.4667E+01   0.0000E+00  0.0000
   6.4667E+01   6.6240E+01   0.0000E+00  0.0000
   6.6240E+01   6.7852E+01   0.0000E+00  0.0000
   6.7852E+01   6.9503E+01   0.0000E+00  0.0000
   6.9503E+01   7.1194E+01   0.0000E+00  0.0000
   7.1194E+01   7.2926E+01   0.0000E+00  0.0000
   7.2926E+01   7.4701E+01   0.0000E+00  0.0000
   7.4701E+01   7.6518E+01   0.0000E+00  0.0000
   7.6518E+01   7.8380E+01   0.0000E+00  0.0000
   7.8380E+01   8.0287E+01   0.0000E+00  0.0000
   8.0287E+01   8.2240E+01   0.0000E+00  0.0000
   8.2240E+01   8.4241E+01   0.0000E+00  0.0000
   8.4241E+01   8.6291E+01   0.0000E+00  0.0000
   8.6291E+01   8.8391E+01   0.0000E+00  0.0000
   8.8391E+01   9.0541E+01   0.0000E+00  0.0000
   9.0541E+01   9.2744E+01   0.0000E+00  0.0000
   9.2744E+01   9.5001E+01   0.0000E+00  0.0000
   9.5001E+01   9.7312E+01   0.0000E+00  0.0000
   9.7312E+01   9.9680E+01   0.0000E+00  0.0000
   9.9680E+01   1.0211E+02   0.0000E+00  0.0000
   1.0211E+02   1.0459E+02   0.0000E+00  0.0000
   1.0459E+02   1.0713E+02   0.0000E+00  0.0000
   1.0713E+02   1.0974E+02   0.0000E+00  0.0000
   1.0974E+02   1.1241E+02   0.0000E+00  0.0000
   1.1241E+02   1.1515E+02   0.0000E+00  0.0000
   1.1515E+02   1.1795E+02   0.0000E+00  0.0000
   1.1795E+02   1.2082E+02   0.0000E+00  0.0000
   1.2082E+02   1.2376E+02   0.0000E+00  0.0000
   1.2376E+02   1.2677E+02   0.0000E+00  0.0000
   1.2677E+02   1.2985E+02   0.0000E+00  0.0000
   1.2985E+02   1.3301E+02   0.0000E+00  0.0000
   1.3301E+02   1.3625E+02   0.0000E+00  0.0000
   1.3625E+02   1.3956E+02   0.0000E+00  0.0000
   1.3956E+02   1.4296E+02   0.0000E+00  0.0000
   1.4296E+02   1.4644E+02   0.0000E+00  0.0000
   1.4644E+02   1.5000E+02   0.0000E+00  0.0000

#   sum over                 1.3119E-05
'no. =    1   reg = 111 - 211'
msuc: {\huge [t-cross] in region mesh}
msdr: {\it plotted by \ANGEL \version}
msdl: {\it calculated by \PHITS  3.26}
wt: s(0.7)
\vspace{-3}
  region surface crossing
  area  &=&   1.0000E+00 [cm^2]
e:
 
# Information for Restart Calculation
# This calculation was newly started
# istdev =  2 # 1:Batch variance, 2:History variance
# resc2  = 5.00000000000000000E+09 # Total source weight or Total source weight / maxcas
# resc3  = 5.00000000000000000E+09 # Total history number or Total batch number
# maxcas =   100000000 # History / Batch, only used for istdev=1
# bitrseed = 0110100000100010111000001110001111001110100100011111101000111001 # bit data of rseed
