[ T-Cross ]
    title = [t-cross] in region mesh
     mesh =  reg            # mesh type is region-wise
      reg =    1            # number of crossing regions
      non     r-from    r-to       area
      1       108       208        1.000000    
   e-type =    3            # e-mesh is log given by emin, emax and ne
     emin =  1.0000000E-02  # minimum value of e-mesh points
     emax =   150.0000      # maximum value of e-mesh points
#    edel =  2.4039514E-02  # mesh width of e-mesh points
       ne =    400          # number of e-mesh points
#    data = ( e(i), i = 1, ne + 1 )
#           1.00000E-02  1.02433E-02  1.04925E-02  1.07478E-02  1.10093E-02
#           1.12772E-02  1.15516E-02  1.18326E-02  1.21205E-02  1.24154E-02
#           1.27175E-02  1.30269E-02  1.33439E-02  1.36686E-02  1.40011E-02
#           1.43418E-02  1.46907E-02  1.50482E-02  1.54143E-02  1.57894E-02
#           1.61735E-02  1.65670E-02  1.69701E-02  1.73830E-02  1.78060E-02
#           1.82392E-02  1.86830E-02  1.91375E-02  1.96032E-02  2.00801E-02
#           2.05687E-02  2.10692E-02  2.15818E-02  2.21069E-02  2.26448E-02
#           2.31957E-02  2.37601E-02  2.43382E-02  2.49304E-02  2.55369E-02
#           2.61583E-02  2.67947E-02  2.74467E-02  2.81145E-02  2.87985E-02
#           2.94992E-02  3.02169E-02  3.09521E-02  3.17052E-02  3.24766E-02
#           3.32668E-02  3.40762E-02  3.49053E-02  3.57546E-02  3.66246E-02
#           3.75157E-02  3.84284E-02  3.93634E-02  4.03212E-02  4.13022E-02
#           4.23071E-02  4.33365E-02  4.43909E-02  4.54710E-02  4.65773E-02
#           4.77106E-02  4.88714E-02  5.00605E-02  5.12785E-02  5.25262E-02
#           5.38042E-02  5.51133E-02  5.64542E-02  5.78278E-02  5.92348E-02
#           6.06760E-02  6.21523E-02  6.36645E-02  6.52135E-02  6.68002E-02
#           6.84255E-02  7.00904E-02  7.17957E-02  7.35426E-02  7.53319E-02
#           7.71648E-02  7.90423E-02  8.09655E-02  8.29354E-02  8.49533E-02
#           8.70203E-02  8.91376E-02  9.13064E-02  9.35279E-02  9.58035E-02
#           9.81345E-02  1.00522E-01  1.02968E-01  1.05473E-01  1.08040E-01
#           1.10668E-01  1.13361E-01  1.16119E-01  1.18944E-01  1.21838E-01
#           1.24803E-01  1.27839E-01  1.30950E-01  1.34136E-01  1.37399E-01
#           1.40742E-01  1.44167E-01  1.47675E-01  1.51268E-01  1.54948E-01
#           1.58718E-01  1.62580E-01  1.66535E-01  1.70587E-01  1.74738E-01
#           1.78989E-01  1.83344E-01  1.87805E-01  1.92375E-01  1.97055E-01
#           2.01850E-01  2.06761E-01  2.11792E-01  2.16945E-01  2.22223E-01
#           2.27630E-01  2.33169E-01  2.38842E-01  2.44653E-01  2.50605E-01
#           2.56703E-01  2.62949E-01  2.69346E-01  2.75900E-01  2.82613E-01
#           2.89489E-01  2.96532E-01  3.03747E-01  3.11138E-01  3.18708E-01
#           3.26462E-01  3.34405E-01  3.42542E-01  3.50876E-01  3.59413E-01
#           3.68158E-01  3.77116E-01  3.86291E-01  3.95690E-01  4.05317E-01
#           4.15179E-01  4.25281E-01  4.35628E-01  4.46227E-01  4.57084E-01
#           4.68205E-01  4.79597E-01  4.91266E-01  5.03219E-01  5.15463E-01
#           5.28005E-01  5.40851E-01  5.54011E-01  5.67490E-01  5.81298E-01
#           5.95441E-01  6.09929E-01  6.24769E-01  6.39970E-01  6.55541E-01
#           6.71491E-01  6.87828E-01  7.04564E-01  7.21706E-01  7.39266E-01
#           7.57253E-01  7.75678E-01  7.94551E-01  8.13883E-01  8.33685E-01
#           8.53969E-01  8.74747E-01  8.96030E-01  9.17831E-01  9.40163E-01
#           9.63038E-01  9.86469E-01  1.01047E+00  1.03506E+00  1.06024E+00
#           1.08604E+00  1.11246E+00  1.13953E+00  1.16725E+00  1.19565E+00
#           1.22474E+00  1.25454E+00  1.28507E+00  1.31633E+00  1.34836E+00
#           1.38117E+00  1.41477E+00  1.44920E+00  1.48446E+00  1.52057E+00
#           1.55757E+00  1.59547E+00  1.63429E+00  1.67405E+00  1.71478E+00
#           1.75650E+00  1.79924E+00  1.84302E+00  1.88786E+00  1.93379E+00
#           1.98084E+00  2.02904E+00  2.07841E+00  2.12898E+00  2.18078E+00
#           2.23384E+00  2.28819E+00  2.34386E+00  2.40089E+00  2.45930E+00
#           2.51914E+00  2.58043E+00  2.64322E+00  2.70753E+00  2.77341E+00
#           2.84088E+00  2.91001E+00  2.98081E+00  3.05333E+00  3.12762E+00
#           3.20372E+00  3.28167E+00  3.36152E+00  3.44330E+00  3.52708E+00
#           3.61290E+00  3.70080E+00  3.79085E+00  3.88308E+00  3.97756E+00
#           4.07434E+00  4.17347E+00  4.27501E+00  4.37903E+00  4.48557E+00
#           4.59471E+00  4.70650E+00  4.82102E+00  4.93832E+00  5.05847E+00
#           5.18155E+00  5.30762E+00  5.43676E+00  5.56904E+00  5.70453E+00
#           5.84333E+00  5.98550E+00  6.13114E+00  6.28031E+00  6.43312E+00
#           6.58964E+00  6.74997E+00  6.91420E+00  7.08243E+00  7.25475E+00
#           7.43126E+00  7.61207E+00  7.79728E+00  7.98700E+00  8.18133E+00
#           8.38038E+00  8.58428E+00  8.79315E+00  9.00709E+00  9.22624E+00
#           9.45072E+00  9.68067E+00  9.91620E+00  1.01575E+01  1.04046E+01
#           1.06578E+01  1.09171E+01  1.11827E+01  1.14548E+01  1.17335E+01
#           1.20190E+01  1.23114E+01  1.26109E+01  1.29178E+01  1.32321E+01
#           1.35540E+01  1.38838E+01  1.42216E+01  1.45676E+01  1.49221E+01
#           1.52851E+01  1.56570E+01  1.60380E+01  1.64282E+01  1.68279E+01
#           1.72374E+01  1.76568E+01  1.80864E+01  1.85264E+01  1.89772E+01
#           1.94389E+01  1.99119E+01  2.03963E+01  2.08926E+01  2.14009E+01
#           2.19216E+01  2.24550E+01  2.30014E+01  2.35610E+01  2.41343E+01
#           2.47215E+01  2.53230E+01  2.59391E+01  2.65702E+01  2.72167E+01
#           2.78789E+01  2.85572E+01  2.92520E+01  2.99637E+01  3.06928E+01
#           3.14396E+01  3.22045E+01  3.29881E+01  3.37907E+01  3.46128E+01
#           3.54550E+01  3.63177E+01  3.72013E+01  3.81064E+01  3.90336E+01
#           3.99833E+01  4.09561E+01  4.19526E+01  4.29734E+01  4.40189E+01
#           4.50900E+01  4.61870E+01  4.73108E+01  4.84619E+01  4.96410E+01
#           5.08488E+01  5.20860E+01  5.33533E+01  5.46514E+01  5.59812E+01
#           5.73432E+01  5.87384E+01  6.01676E+01  6.16315E+01  6.31311E+01
#           6.46671E+01  6.62405E+01  6.78522E+01  6.95031E+01  7.11941E+01
#           7.29263E+01  7.47007E+01  7.65182E+01  7.83800E+01  8.02870E+01
#           8.22405E+01  8.42414E+01  8.62911E+01  8.83906E+01  9.05412E+01
#           9.27442E+01  9.50007E+01  9.73122E+01  9.96799E+01  1.02105E+02
#           1.04589E+02  1.07134E+02  1.09741E+02  1.12411E+02  1.15146E+02
#           1.17948E+02  1.20817E+02  1.23757E+02  1.26768E+02  1.29852E+02
#           1.33012E+02  1.36248E+02  1.39563E+02  1.42959E+02  1.46437E+02
#           1.50000E+02
     unit =    2            # unit is [1/cm^2/(MeV/n)/source]
     axis =  eng            # axis of output
     file = detector-09.out  # file name of output for the above axis
   output = f-curr          # surface crossing forward current spectrum
     part =  neutron  
# kf/name :  2112     
#    used :        main (  %)        temp (  %)       total (  %)
#  memory :         414 (  0)           0 (  0)         414 (  0)

#------------------------------------------------------------------------------
#newpage:
#   no. =    1   reg = 108 - 208

x: Energy [MeV/n]
y:  F-Curr [1/cm^2/(MeV/n)/source]         
p: xlog ylog afac(0.8) form(0.9)
h: n            x            y(neutron ),hh0l   n 
#  e-lower      e-upper      neutron     r.err 
   1.0000E-02   1.0243E-02   1.3308E-02  0.0111
   1.0243E-02   1.0493E-02   1.3254E-02  0.0110
   1.0493E-02   1.0748E-02   1.3299E-02  0.0109
   1.0748E-02   1.1009E-02   1.3341E-02  0.0107
   1.1009E-02   1.1277E-02   1.3362E-02  0.0106
   1.1277E-02   1.1552E-02   1.3088E-02  0.0106
   1.1552E-02   1.1833E-02   1.2981E-02  0.0105
   1.1833E-02   1.2121E-02   1.3127E-02  0.0103
   1.2121E-02   1.2415E-02   1.3120E-02  0.0102
   1.2415E-02   1.2718E-02   1.3150E-02  0.0100
   1.2718E-02   1.3027E-02   1.2949E-02  0.0100
   1.3027E-02   1.3344E-02   1.3273E-02  0.0098
   1.3344E-02   1.3669E-02   1.3214E-02  0.0097
   1.3669E-02   1.4001E-02   1.3046E-02  0.0096
   1.4001E-02   1.4342E-02   1.3135E-02  0.0095
   1.4342E-02   1.4691E-02   1.3069E-02  0.0094
   1.4691E-02   1.5048E-02   1.3102E-02  0.0092
   1.5048E-02   1.5414E-02   1.3035E-02  0.0092
   1.5414E-02   1.5789E-02   1.2932E-02  0.0091
   1.5789E-02   1.6174E-02   1.2765E-02  0.0090
   1.6174E-02   1.6567E-02   1.2951E-02  0.0089
   1.6567E-02   1.6970E-02   1.2990E-02  0.0087
   1.6970E-02   1.7383E-02   1.2651E-02  0.0088
   1.7383E-02   1.7806E-02   1.2759E-02  0.0086
   1.7806E-02   1.8239E-02   1.2860E-02  0.0085
   1.8239E-02   1.8683E-02   1.2853E-02  0.0084
   1.8683E-02   1.9138E-02   1.2780E-02  0.0083
   1.9138E-02   1.9603E-02   1.2744E-02  0.0082
   1.9603E-02   2.0080E-02   1.2794E-02  0.0081
   2.0080E-02   2.0569E-02   1.2599E-02  0.0081
   2.0569E-02   2.1069E-02   1.2787E-02  0.0079
   2.1069E-02   2.1582E-02   1.2517E-02  0.0079
   2.1582E-02   2.2107E-02   1.2740E-02  0.0077
   2.2107E-02   2.2645E-02   1.2563E-02  0.0077
   2.2645E-02   2.3196E-02   1.2427E-02  0.0076
   2.3196E-02   2.3760E-02   1.2525E-02  0.0075
   2.3760E-02   2.4338E-02   1.2478E-02  0.0074
   2.4338E-02   2.4930E-02   1.2650E-02  0.0073
   2.4930E-02   2.5537E-02   1.2420E-02  0.0073
   2.5537E-02   2.6158E-02   1.2519E-02  0.0072
   2.6158E-02   2.6795E-02   1.2373E-02  0.0071
   2.6795E-02   2.7447E-02   1.2418E-02  0.0070
   2.7447E-02   2.8114E-02   1.2394E-02  0.0070
   2.8114E-02   2.8799E-02   1.2417E-02  0.0069
   2.8799E-02   2.9499E-02   1.2409E-02  0.0068
   2.9499E-02   3.0217E-02   1.2460E-02  0.0067
   3.0217E-02   3.0952E-02   1.2369E-02  0.0066
   3.0952E-02   3.1705E-02   1.2244E-02  0.0066
   3.1705E-02   3.2477E-02   1.2355E-02  0.0065
   3.2477E-02   3.3267E-02   1.2244E-02  0.0064
   3.3267E-02   3.4076E-02   1.2316E-02  0.0063
   3.4076E-02   3.4905E-02   1.2179E-02  0.0063
   3.4905E-02   3.5755E-02   1.2187E-02  0.0062
   3.5755E-02   3.6625E-02   1.2104E-02  0.0062
   3.6625E-02   3.7516E-02   1.2163E-02  0.0061
   3.7516E-02   3.8428E-02   1.2165E-02  0.0060
   3.8428E-02   3.9363E-02   1.2111E-02  0.0059
   3.9363E-02   4.0321E-02   1.2154E-02  0.0059
   4.0321E-02   4.1302E-02   1.2073E-02  0.0058
   4.1302E-02   4.2307E-02   1.1956E-02  0.0058
   4.2307E-02   4.3337E-02   1.1980E-02  0.0057
   4.3337E-02   4.4391E-02   1.1949E-02  0.0056
   4.4391E-02   4.5471E-02   1.1850E-02  0.0056
   4.5471E-02   4.6577E-02   1.1793E-02  0.0055
   4.6577E-02   4.7711E-02   1.1891E-02  0.0054
   4.7711E-02   4.8871E-02   1.1755E-02  0.0054
   4.8871E-02   5.0061E-02   1.1853E-02  0.0053
   5.0061E-02   5.1279E-02   1.1643E-02  0.0053
   5.1279E-02   5.2526E-02   1.1703E-02  0.0052
   5.2526E-02   5.3804E-02   1.1680E-02  0.0052
   5.3804E-02   5.5113E-02   1.1662E-02  0.0051
   5.5113E-02   5.6454E-02   1.1589E-02  0.0051
   5.6454E-02   5.7828E-02   1.1602E-02  0.0050
   5.7828E-02   5.9235E-02   1.1541E-02  0.0050
   5.9235E-02   6.0676E-02   1.1425E-02  0.0049
   6.0676E-02   6.2152E-02   1.1440E-02  0.0049
   6.2152E-02   6.3665E-02   1.1351E-02  0.0048
   6.3665E-02   6.5214E-02   1.1390E-02  0.0048
   6.5214E-02   6.6800E-02   1.1296E-02  0.0047
   6.6800E-02   6.8426E-02   1.1228E-02  0.0047
   6.8426E-02   7.0090E-02   1.1248E-02  0.0046
   7.0090E-02   7.1796E-02   1.1170E-02  0.0046
   7.1796E-02   7.3543E-02   1.1183E-02  0.0045
   7.3543E-02   7.5332E-02   1.1134E-02  0.0045
   7.5332E-02   7.7165E-02   1.1197E-02  0.0044
   7.7165E-02   7.9042E-02   1.1127E-02  0.0044
   7.9042E-02   8.0965E-02   1.1057E-02  0.0043
   8.0965E-02   8.2935E-02   1.1018E-02  0.0043
   8.2935E-02   8.4953E-02   1.0945E-02  0.0043
   8.4953E-02   8.7020E-02   1.0865E-02  0.0042
   8.7020E-02   8.9138E-02   1.0834E-02  0.0042
   8.9138E-02   9.1306E-02   1.0733E-02  0.0041
   9.1306E-02   9.3528E-02   1.0702E-02  0.0041
   9.3528E-02   9.5804E-02   1.0744E-02  0.0040
   9.5804E-02   9.8134E-02   1.0635E-02  0.0040
   9.8134E-02   1.0052E-01   1.0675E-02  0.0040
   1.0052E-01   1.0297E-01   1.0531E-02  0.0039
   1.0297E-01   1.0547E-01   1.0488E-02  0.0039
   1.0547E-01   1.0804E-01   1.0454E-02  0.0039
   1.0804E-01   1.1067E-01   1.0446E-02  0.0038
   1.1067E-01   1.1336E-01   1.0334E-02  0.0038
   1.1336E-01   1.1612E-01   1.0337E-02  0.0037
   1.1612E-01   1.1894E-01   1.0289E-02  0.0037
   1.1894E-01   1.2184E-01   1.0200E-02  0.0037
   1.2184E-01   1.2480E-01   1.0118E-02  0.0037
   1.2480E-01   1.2784E-01   1.0064E-02  0.0036
   1.2784E-01   1.3095E-01   9.9978E-03  0.0036
   1.3095E-01   1.3414E-01   9.9321E-03  0.0036
   1.3414E-01   1.3740E-01   9.9791E-03  0.0035
   1.3740E-01   1.4074E-01   9.9052E-03  0.0035
   1.4074E-01   1.4417E-01   9.8138E-03  0.0035
   1.4417E-01   1.4767E-01   9.6613E-03  0.0034
   1.4767E-01   1.5127E-01   9.6734E-03  0.0034
   1.5127E-01   1.5495E-01   9.6059E-03  0.0034
   1.5495E-01   1.5872E-01   9.5420E-03  0.0033
   1.5872E-01   1.6258E-01   9.5139E-03  0.0033
   1.6258E-01   1.6654E-01   9.4330E-03  0.0033
   1.6654E-01   1.7059E-01   9.3886E-03  0.0032
   1.7059E-01   1.7474E-01   9.2887E-03  0.0032
   1.7474E-01   1.7899E-01   9.2568E-03  0.0032
   1.7899E-01   1.8334E-01   9.1309E-03  0.0032
   1.8334E-01   1.8781E-01   9.0702E-03  0.0031
   1.8781E-01   1.9237E-01   9.0139E-03  0.0031
   1.9237E-01   1.9706E-01   8.9400E-03  0.0031
   1.9706E-01   2.0185E-01   8.8792E-03  0.0031
   2.0185E-01   2.0676E-01   8.8083E-03  0.0030
   2.0676E-01   2.1179E-01   8.7198E-03  0.0030
   2.1179E-01   2.1694E-01   8.6063E-03  0.0030
   2.1694E-01   2.2222E-01   8.5958E-03  0.0030
   2.2222E-01   2.2763E-01   8.4666E-03  0.0030
   2.2763E-01   2.3317E-01   8.4324E-03  0.0029
   2.3317E-01   2.3884E-01   8.3445E-03  0.0029
   2.3884E-01   2.4465E-01   8.3001E-03  0.0029
   2.4465E-01   2.5061E-01   8.1738E-03  0.0029
   2.5061E-01   2.5670E-01   8.1107E-03  0.0028
   2.5670E-01   2.6295E-01   8.0202E-03  0.0028
   2.6295E-01   2.6935E-01   7.9259E-03  0.0028
   2.6935E-01   2.7590E-01   7.8720E-03  0.0028
   2.7590E-01   2.8261E-01   7.8052E-03  0.0028
   2.8261E-01   2.8949E-01   7.6590E-03  0.0028
   2.8949E-01   2.9653E-01   7.5602E-03  0.0027
   2.9653E-01   3.0375E-01   7.4745E-03  0.0027
   3.0375E-01   3.1114E-01   7.4366E-03  0.0027
   3.1114E-01   3.1871E-01   7.3174E-03  0.0027
   3.1871E-01   3.2646E-01   7.2296E-03  0.0027
   3.2646E-01   3.3441E-01   7.1456E-03  0.0027
   3.3441E-01   3.4254E-01   7.0316E-03  0.0026
   3.4254E-01   3.5088E-01   6.9288E-03  0.0026
   3.5088E-01   3.5941E-01   6.8226E-03  0.0026
   3.5941E-01   3.6816E-01   6.7440E-03  0.0026
   3.6816E-01   3.7712E-01   6.6713E-03  0.0026
   3.7712E-01   3.8629E-01   6.5659E-03  0.0026
   3.8629E-01   3.9569E-01   6.4679E-03  0.0026
   3.9569E-01   4.0532E-01   6.3808E-03  0.0026
   4.0532E-01   4.1518E-01   6.2457E-03  0.0026
   4.1518E-01   4.2528E-01   6.1491E-03  0.0025
   4.2528E-01   4.3563E-01   6.0720E-03  0.0025
   4.3563E-01   4.4623E-01   5.9448E-03  0.0025
   4.4623E-01   4.5708E-01   5.8481E-03  0.0025
   4.5708E-01   4.6821E-01   5.7459E-03  0.0025
   4.6821E-01   4.7960E-01   5.6250E-03  0.0025
   4.7960E-01   4.9127E-01   5.5278E-03  0.0025
   4.9127E-01   5.0322E-01   5.4131E-03  0.0025
   5.0322E-01   5.1546E-01   5.3196E-03  0.0025
   5.1546E-01   5.2800E-01   5.1939E-03  0.0025
   5.2800E-01   5.4085E-01   5.1037E-03  0.0025
   5.4085E-01   5.5401E-01   4.9868E-03  0.0025
   5.5401E-01   5.6749E-01   4.8853E-03  0.0025
   5.6749E-01   5.8130E-01   4.7658E-03  0.0025
   5.8130E-01   5.9544E-01   4.6570E-03  0.0025
   5.9544E-01   6.0993E-01   4.5567E-03  0.0025
   6.0993E-01   6.2477E-01   4.4318E-03  0.0025
   6.2477E-01   6.3997E-01   4.3330E-03  0.0025
   6.3997E-01   6.5554E-01   4.2054E-03  0.0025
   6.5554E-01   6.7149E-01   4.1018E-03  0.0025
   6.7149E-01   6.8783E-01   3.9913E-03  0.0025
   6.8783E-01   7.0456E-01   3.8938E-03  0.0025
   7.0456E-01   7.2171E-01   3.7624E-03  0.0025
   7.2171E-01   7.3927E-01   3.6649E-03  0.0025
   7.3927E-01   7.5725E-01   3.5413E-03  0.0025
   7.5725E-01   7.7568E-01   3.4340E-03  0.0025
   7.7568E-01   7.9455E-01   3.3040E-03  0.0025
   7.9455E-01   8.1388E-01   3.2142E-03  0.0025
   8.1388E-01   8.3368E-01   3.0796E-03  0.0026
   8.3368E-01   8.5397E-01   2.9891E-03  0.0026
   8.5397E-01   8.7475E-01   2.8611E-03  0.0026
   8.7475E-01   8.9603E-01   2.7498E-03  0.0026
   8.9603E-01   9.1783E-01   2.6343E-03  0.0026
   9.1783E-01   9.4016E-01   2.5197E-03  0.0027
   9.4016E-01   9.6304E-01   2.4129E-03  0.0027
   9.6304E-01   9.8647E-01   2.3049E-03  0.0027
   9.8647E-01   1.0105E+00   2.1932E-03  0.0028
   1.0105E+00   1.0351E+00   2.1833E-03  0.0027
   1.0351E+00   1.0602E+00   2.1909E-03  0.0027
   1.0602E+00   1.0860E+00   2.2210E-03  0.0026
   1.0860E+00   1.1125E+00   2.2312E-03  0.0026
   1.1125E+00   1.1395E+00   2.2623E-03  0.0026
   1.1395E+00   1.1673E+00   2.3105E-03  0.0025
   1.1673E+00   1.1957E+00   2.3553E-03  0.0024
   1.1957E+00   1.2247E+00   2.3920E-03  0.0024
   1.2247E+00   1.2545E+00   2.3761E-03  0.0024
   1.2545E+00   1.2851E+00   2.3826E-03  0.0023
   1.2851E+00   1.3163E+00   2.3811E-03  0.0023
   1.3163E+00   1.3484E+00   2.3979E-03  0.0023
   1.3484E+00   1.3812E+00   2.4199E-03  0.0022
   1.3812E+00   1.4148E+00   2.4493E-03  0.0022
   1.4148E+00   1.4492E+00   2.4234E-03  0.0022
   1.4492E+00   1.4845E+00   2.4030E-03  0.0022
   1.4845E+00   1.5206E+00   2.3577E-03  0.0022
   1.5206E+00   1.5576E+00   2.3482E-03  0.0021
   1.5576E+00   1.5955E+00   2.3438E-03  0.0021
   1.5955E+00   1.6343E+00   2.3326E-03  0.0021
   1.6343E+00   1.6741E+00   2.3356E-03  0.0021
   1.6741E+00   1.7148E+00   2.3533E-03  0.0020
   1.7148E+00   1.7565E+00   2.3109E-03  0.0020
   1.7565E+00   1.7992E+00   2.2703E-03  0.0020
   1.7992E+00   1.8430E+00   2.2310E-03  0.0020
   1.8430E+00   1.8879E+00   2.1867E-03  0.0020
   1.8879E+00   1.9338E+00   2.1639E-03  0.0020
   1.9338E+00   1.9808E+00   2.1493E-03  0.0020
   1.9808E+00   2.0290E+00   2.1307E-03  0.0020
   2.0290E+00   2.0784E+00   2.0809E-03  0.0020
   2.0784E+00   2.1290E+00   2.0165E-03  0.0020
   2.1290E+00   2.1808E+00   1.9657E-03  0.0020
   2.1808E+00   2.2338E+00   1.9042E-03  0.0020
   2.2338E+00   2.2882E+00   1.8688E-03  0.0020
   2.2882E+00   2.3439E+00   1.8329E-03  0.0020
   2.3439E+00   2.4009E+00   1.8144E-03  0.0020
   2.4009E+00   2.4593E+00   1.7670E-03  0.0020
   2.4593E+00   2.5191E+00   1.6998E-03  0.0020
   2.5191E+00   2.5804E+00   1.6401E-03  0.0020
   2.5804E+00   2.6432E+00   1.5842E-03  0.0020
   2.6432E+00   2.7075E+00   1.5341E-03  0.0020
   2.7075E+00   2.7734E+00   1.4789E-03  0.0020
   2.7734E+00   2.8409E+00   1.4316E-03  0.0020
   2.8409E+00   2.9100E+00   1.3957E-03  0.0020
   2.9100E+00   2.9808E+00   1.3622E-03  0.0020
   2.9808E+00   3.0533E+00   1.3176E-03  0.0020
   3.0533E+00   3.1276E+00   1.2603E-03  0.0021
   3.1276E+00   3.2037E+00   1.2098E-03  0.0021
   3.2037E+00   3.2817E+00   1.1553E-03  0.0021
   3.2817E+00   3.3615E+00   1.1062E-03  0.0021
   3.3615E+00   3.4433E+00   1.0611E-03  0.0022
   3.4433E+00   3.5271E+00   1.0152E-03  0.0022
   3.5271E+00   3.6129E+00   9.7815E-04  0.0022
   3.6129E+00   3.7008E+00   9.4232E-04  0.0022
   3.7008E+00   3.7908E+00   8.9356E-04  0.0022
   3.7908E+00   3.8831E+00   8.5834E-04  0.0023
   3.8831E+00   3.9776E+00   8.2295E-04  0.0023
   3.9776E+00   4.0743E+00   7.8449E-04  0.0023
   4.0743E+00   4.1735E+00   7.4949E-04  0.0023
   4.1735E+00   4.2750E+00   7.1197E-04  0.0024
   4.2750E+00   4.3790E+00   6.8094E-04  0.0024
   4.3790E+00   4.4856E+00   6.4390E-04  0.0024
   4.4856E+00   4.5947E+00   6.1597E-04  0.0024
   4.5947E+00   4.7065E+00   5.8311E-04  0.0025
   4.7065E+00   4.8210E+00   5.5680E-04  0.0025
   4.8210E+00   4.9383E+00   5.3159E-04  0.0025
   4.9383E+00   5.0585E+00   5.0562E-04  0.0026
   5.0585E+00   5.1815E+00   4.8097E-04  0.0026
   5.1815E+00   5.3076E+00   4.5354E-04  0.0026
   5.3076E+00   5.4368E+00   4.3292E-04  0.0027
   5.4368E+00   5.5690E+00   4.1159E-04  0.0027
   5.5690E+00   5.7045E+00   3.9313E-04  0.0027
   5.7045E+00   5.8433E+00   3.7149E-04  0.0028
   5.8433E+00   5.9855E+00   3.5435E-04  0.0028
   5.9855E+00   6.1311E+00   3.3978E-04  0.0028
   6.1311E+00   6.2803E+00   3.2487E-04  0.0029
   6.2803E+00   6.4331E+00   3.0889E-04  0.0029
   6.4331E+00   6.5896E+00   2.9651E-04  0.0029
   6.5896E+00   6.7500E+00   2.8297E-04  0.0030
   6.7500E+00   6.9142E+00   2.7112E-04  0.0030
   6.9142E+00   7.0824E+00   2.5956E-04  0.0030
   7.0824E+00   7.2548E+00   2.5123E-04  0.0030
   7.2548E+00   7.4313E+00   2.4191E-04  0.0031
   7.4313E+00   7.6121E+00   2.3308E-04  0.0031
   7.6121E+00   7.7973E+00   2.2542E-04  0.0031
   7.7973E+00   7.9870E+00   2.1825E-04  0.0031
   7.9870E+00   8.1813E+00   2.1191E-04  0.0031
   8.1813E+00   8.3804E+00   2.0743E-04  0.0031
   8.3804E+00   8.5843E+00   2.0084E-04  0.0031
   8.5843E+00   8.7931E+00   1.9535E-04  0.0031
   8.7931E+00   9.0071E+00   1.9189E-04  0.0031
   9.0071E+00   9.2262E+00   1.8812E-04  0.0031
   9.2262E+00   9.4507E+00   1.8418E-04  0.0031
   9.4507E+00   9.6807E+00   1.8167E-04  0.0031
   9.6807E+00   9.9162E+00   1.7905E-04  0.0031
   9.9162E+00   1.0157E+01   1.7531E-04  0.0031
   1.0157E+01   1.0405E+01   1.7357E-04  0.0031
   1.0405E+01   1.0658E+01   1.7196E-04  0.0030
   1.0658E+01   1.0917E+01   1.6876E-04  0.0030
   1.0917E+01   1.1183E+01   1.6768E-04  0.0030
   1.1183E+01   1.1455E+01   1.6673E-04  0.0030
   1.1455E+01   1.1733E+01   1.6545E-04  0.0029
   1.1733E+01   1.2019E+01   1.6456E-04  0.0029
   1.2019E+01   1.2311E+01   1.6349E-04  0.0029
   1.2311E+01   1.2611E+01   1.6194E-04  0.0029
   1.2611E+01   1.2918E+01   1.6234E-04  0.0028
   1.2918E+01   1.3232E+01   1.6075E-04  0.0028
   1.3232E+01   1.3554E+01   1.5935E-04  0.0028
   1.3554E+01   1.3884E+01   1.5892E-04  0.0028
   1.3884E+01   1.4222E+01   1.5721E-04  0.0027
   1.4222E+01   1.4568E+01   1.5760E-04  0.0027
   1.4568E+01   1.4922E+01   1.5684E-04  0.0027
   1.4922E+01   1.5285E+01   1.5556E-04  0.0027
   1.5285E+01   1.5657E+01   1.5513E-04  0.0026
   1.5657E+01   1.6038E+01   1.5418E-04  0.0026
   1.6038E+01   1.6428E+01   1.5318E-04  0.0026
   1.6428E+01   1.6828E+01   1.5235E-04  0.0026
   1.6828E+01   1.7237E+01   1.5122E-04  0.0025
   1.7237E+01   1.7657E+01   1.5024E-04  0.0025
   1.7657E+01   1.8086E+01   1.5013E-04  0.0025
   1.8086E+01   1.8526E+01   1.4790E-04  0.0025
   1.8526E+01   1.8977E+01   1.4596E-04  0.0025
   1.8977E+01   1.9439E+01   1.4584E-04  0.0024
   1.9439E+01   1.9912E+01   1.4455E-04  0.0024
   1.9912E+01   2.0396E+01   1.4336E-04  0.0024
   2.0396E+01   2.0893E+01   1.4237E-04  0.0024
   2.0893E+01   2.1401E+01   1.4108E-04  0.0024
   2.1401E+01   2.1922E+01   1.3895E-04  0.0024
   2.1922E+01   2.2455E+01   1.3746E-04  0.0023
   2.2455E+01   2.3001E+01   1.3482E-04  0.0023
   2.3001E+01   2.3561E+01   1.3173E-04  0.0023
   2.3561E+01   2.4134E+01   1.2965E-04  0.0023
   2.4134E+01   2.4721E+01   1.2612E-04  0.0023
   2.4721E+01   2.5323E+01   1.2388E-04  0.0023
   2.5323E+01   2.5939E+01   1.1991E-04  0.0023
   2.5939E+01   2.6570E+01   1.1729E-04  0.0023
   2.6570E+01   2.7217E+01   1.1383E-04  0.0023
   2.7217E+01   2.7879E+01   1.1011E-04  0.0023
   2.7879E+01   2.8557E+01   1.0627E-04  0.0024
   2.8557E+01   2.9252E+01   1.0227E-04  0.0024
   2.9252E+01   2.9964E+01   9.8801E-05  0.0024
   2.9964E+01   3.0693E+01   9.4182E-05  0.0024
   3.0693E+01   3.1440E+01   9.0116E-05  0.0024
   3.1440E+01   3.2205E+01   8.6105E-05  0.0025
   3.2205E+01   3.2988E+01   8.1639E-05  0.0025
   3.2988E+01   3.3791E+01   7.7760E-05  0.0025
   3.3791E+01   3.4613E+01   7.3695E-05  0.0026
   3.4613E+01   3.5455E+01   6.9681E-05  0.0026
   3.5455E+01   3.6318E+01   6.5348E-05  0.0027
   3.6318E+01   3.7201E+01   6.1427E-05  0.0027
   3.7201E+01   3.8106E+01   5.7556E-05  0.0028
   3.8106E+01   3.9034E+01   5.3445E-05  0.0028
   3.9034E+01   3.9983E+01   5.0069E-05  0.0029
   3.9983E+01   4.0956E+01   4.6385E-05  0.0030
   4.0956E+01   4.1953E+01   4.3132E-05  0.0031
   4.1953E+01   4.2973E+01   3.9870E-05  0.0031
   4.2973E+01   4.4019E+01   3.6895E-05  0.0032
   4.4019E+01   4.5090E+01   3.4323E-05  0.0033
   4.5090E+01   4.6187E+01   3.1562E-05  0.0034
   4.6187E+01   4.7311E+01   2.9167E-05  0.0035
   4.7311E+01   4.8462E+01   2.6811E-05  0.0036
   4.8462E+01   4.9641E+01   2.4628E-05  0.0037
   4.9641E+01   5.0849E+01   2.2625E-05  0.0038
   5.0849E+01   5.2086E+01   2.0675E-05  0.0040
   5.2086E+01   5.3353E+01   1.8973E-05  0.0041
   5.3353E+01   5.4651E+01   1.7460E-05  0.0042
   5.4651E+01   5.5981E+01   1.5862E-05  0.0044
   5.5981E+01   5.7343E+01   1.4678E-05  0.0045
   5.7343E+01   5.8738E+01   1.3217E-05  0.0047
   5.8738E+01   6.0168E+01   1.2031E-05  0.0048
   6.0168E+01   6.1632E+01   1.0889E-05  0.0050
   6.1632E+01   6.3131E+01   1.0007E-05  0.0052
   6.3131E+01   6.4667E+01   8.9498E-06  0.0054
   6.4667E+01   6.6240E+01   8.0534E-06  0.0056
   6.6240E+01   6.7852E+01   7.2937E-06  0.0058
   6.7852E+01   6.9503E+01   6.5664E-06  0.0061
   6.9503E+01   7.1194E+01   5.8183E-06  0.0064
   7.1194E+01   7.2926E+01   5.1183E-06  0.0067
   7.2926E+01   7.4701E+01   4.6020E-06  0.0070
   7.4701E+01   7.6518E+01   4.0809E-06  0.0073
   7.6518E+01   7.8380E+01   3.5904E-06  0.0077
   7.8380E+01   8.0287E+01   3.1127E-06  0.0082
   8.0287E+01   8.2240E+01   2.6943E-06  0.0087
   8.2240E+01   8.4241E+01   2.3057E-06  0.0093
   8.4241E+01   8.6291E+01   1.9250E-06  0.0101
   8.6291E+01   8.8391E+01   1.5967E-06  0.0109
   8.8391E+01   9.0541E+01   1.3025E-06  0.0119
   9.0541E+01   9.2744E+01   1.0911E-06  0.0129
   9.2744E+01   9.5001E+01   8.6646E-07  0.0143
   9.5001E+01   9.7312E+01   6.6573E-07  0.0161
   9.7312E+01   9.9680E+01   4.9618E-07  0.0185
   9.9680E+01   1.0211E+02   3.6730E-07  0.0212
   1.0211E+02   1.0459E+02   2.5214E-07  0.0253
   1.0459E+02   1.0713E+02   1.5546E-07  0.0318
   1.0713E+02   1.0974E+02   5.6931E-08  0.0519
   1.0974E+02   1.1241E+02   3.1460E-09  0.2182
   1.1241E+02   1.1515E+02   0.0000E+00  0.0000
   1.1515E+02   1.1795E+02   0.0000E+00  0.0000
   1.1795E+02   1.2082E+02   0.0000E+00  0.0000
   1.2082E+02   1.2376E+02   0.0000E+00  0.0000
   1.2376E+02   1.2677E+02   0.0000E+00  0.0000
   1.2677E+02   1.2985E+02   0.0000E+00  0.0000
   1.2985E+02   1.3301E+02   0.0000E+00  0.0000
   1.3301E+02   1.3625E+02   0.0000E+00  0.0000
   1.3625E+02   1.3956E+02   0.0000E+00  0.0000
   1.3956E+02   1.4296E+02   0.0000E+00  0.0000
   1.4296E+02   1.4644E+02   0.0000E+00  0.0000
   1.4644E+02   1.5000E+02   0.0000E+00  0.0000

#   sum over                 1.1387E-04
'no. =    1   reg = 108 - 208'
msuc: {\huge [t-cross] in region mesh}
msdr: {\it plotted by \ANGEL \version}
msdl: {\it calculated by \PHITS  3.26}
wt: s(0.7)
\vspace{-3}
  region surface crossing
  area  &=&   1.0000E+00 [cm^2]
e:
 
# Information for Restart Calculation
# This calculation was newly started
# istdev =  2 # 1:Batch variance, 2:History variance
# resc2  = 2.50000000000000000E+09 # Total source weight or Total source weight / maxcas
# resc3  = 2.50000000000000000E+09 # Total history number or Total batch number
# maxcas =   500000000 # History / Batch, only used for istdev=1
# bitrseed = 1100001110001001100010001100011001110101000011000110100101010100 # bit data of rseed
