[ T-Cross ]
    title = [t-cross] in region mesh
     mesh =  reg            # mesh type is region-wise
      reg =    1            # number of crossing regions
      non     r-from    r-to       area
      1       125       225        1.000000    
   e-type =    3            # e-mesh is log given by emin, emax and ne
     emin =  1.0000000E-02  # minimum value of e-mesh points
     emax =   150.0000      # maximum value of e-mesh points
#    edel =  2.4039514E-02  # mesh width of e-mesh points
       ne =    400          # number of e-mesh points
#    data = ( e(i), i = 1, ne + 1 )
#           1.00000E-02  1.02433E-02  1.04925E-02  1.07478E-02  1.10093E-02
#           1.12772E-02  1.15516E-02  1.18326E-02  1.21205E-02  1.24154E-02
#           1.27175E-02  1.30269E-02  1.33439E-02  1.36686E-02  1.40011E-02
#           1.43418E-02  1.46907E-02  1.50482E-02  1.54143E-02  1.57894E-02
#           1.61735E-02  1.65670E-02  1.69701E-02  1.73830E-02  1.78060E-02
#           1.82392E-02  1.86830E-02  1.91375E-02  1.96032E-02  2.00801E-02
#           2.05687E-02  2.10692E-02  2.15818E-02  2.21069E-02  2.26448E-02
#           2.31957E-02  2.37601E-02  2.43382E-02  2.49304E-02  2.55369E-02
#           2.61583E-02  2.67947E-02  2.74467E-02  2.81145E-02  2.87985E-02
#           2.94992E-02  3.02169E-02  3.09521E-02  3.17052E-02  3.24766E-02
#           3.32668E-02  3.40762E-02  3.49053E-02  3.57546E-02  3.66246E-02
#           3.75157E-02  3.84284E-02  3.93634E-02  4.03212E-02  4.13022E-02
#           4.23071E-02  4.33365E-02  4.43909E-02  4.54710E-02  4.65773E-02
#           4.77106E-02  4.88714E-02  5.00605E-02  5.12785E-02  5.25262E-02
#           5.38042E-02  5.51133E-02  5.64542E-02  5.78278E-02  5.92348E-02
#           6.06760E-02  6.21523E-02  6.36645E-02  6.52135E-02  6.68002E-02
#           6.84255E-02  7.00904E-02  7.17957E-02  7.35426E-02  7.53319E-02
#           7.71648E-02  7.90423E-02  8.09655E-02  8.29354E-02  8.49533E-02
#           8.70203E-02  8.91376E-02  9.13064E-02  9.35279E-02  9.58035E-02
#           9.81345E-02  1.00522E-01  1.02968E-01  1.05473E-01  1.08040E-01
#           1.10668E-01  1.13361E-01  1.16119E-01  1.18944E-01  1.21838E-01
#           1.24803E-01  1.27839E-01  1.30950E-01  1.34136E-01  1.37399E-01
#           1.40742E-01  1.44167E-01  1.47675E-01  1.51268E-01  1.54948E-01
#           1.58718E-01  1.62580E-01  1.66535E-01  1.70587E-01  1.74738E-01
#           1.78989E-01  1.83344E-01  1.87805E-01  1.92375E-01  1.97055E-01
#           2.01850E-01  2.06761E-01  2.11792E-01  2.16945E-01  2.22223E-01
#           2.27630E-01  2.33169E-01  2.38842E-01  2.44653E-01  2.50605E-01
#           2.56703E-01  2.62949E-01  2.69346E-01  2.75900E-01  2.82613E-01
#           2.89489E-01  2.96532E-01  3.03747E-01  3.11138E-01  3.18708E-01
#           3.26462E-01  3.34405E-01  3.42542E-01  3.50876E-01  3.59413E-01
#           3.68158E-01  3.77116E-01  3.86291E-01  3.95690E-01  4.05317E-01
#           4.15179E-01  4.25281E-01  4.35628E-01  4.46227E-01  4.57084E-01
#           4.68205E-01  4.79597E-01  4.91266E-01  5.03219E-01  5.15463E-01
#           5.28005E-01  5.40851E-01  5.54011E-01  5.67490E-01  5.81298E-01
#           5.95441E-01  6.09929E-01  6.24769E-01  6.39970E-01  6.55541E-01
#           6.71491E-01  6.87828E-01  7.04564E-01  7.21706E-01  7.39266E-01
#           7.57253E-01  7.75678E-01  7.94551E-01  8.13883E-01  8.33685E-01
#           8.53969E-01  8.74747E-01  8.96030E-01  9.17831E-01  9.40163E-01
#           9.63038E-01  9.86469E-01  1.01047E+00  1.03506E+00  1.06024E+00
#           1.08604E+00  1.11246E+00  1.13953E+00  1.16725E+00  1.19565E+00
#           1.22474E+00  1.25454E+00  1.28507E+00  1.31633E+00  1.34836E+00
#           1.38117E+00  1.41477E+00  1.44920E+00  1.48446E+00  1.52057E+00
#           1.55757E+00  1.59547E+00  1.63429E+00  1.67405E+00  1.71478E+00
#           1.75650E+00  1.79924E+00  1.84302E+00  1.88786E+00  1.93379E+00
#           1.98084E+00  2.02904E+00  2.07841E+00  2.12898E+00  2.18078E+00
#           2.23384E+00  2.28819E+00  2.34386E+00  2.40089E+00  2.45930E+00
#           2.51914E+00  2.58043E+00  2.64322E+00  2.70753E+00  2.77341E+00
#           2.84088E+00  2.91001E+00  2.98081E+00  3.05333E+00  3.12762E+00
#           3.20372E+00  3.28167E+00  3.36152E+00  3.44330E+00  3.52708E+00
#           3.61290E+00  3.70080E+00  3.79085E+00  3.88308E+00  3.97756E+00
#           4.07434E+00  4.17347E+00  4.27501E+00  4.37903E+00  4.48557E+00
#           4.59471E+00  4.70650E+00  4.82102E+00  4.93832E+00  5.05847E+00
#           5.18155E+00  5.30762E+00  5.43676E+00  5.56904E+00  5.70453E+00
#           5.84333E+00  5.98550E+00  6.13114E+00  6.28031E+00  6.43312E+00
#           6.58964E+00  6.74997E+00  6.91420E+00  7.08243E+00  7.25475E+00
#           7.43126E+00  7.61207E+00  7.79728E+00  7.98700E+00  8.18133E+00
#           8.38038E+00  8.58428E+00  8.79315E+00  9.00709E+00  9.22624E+00
#           9.45072E+00  9.68067E+00  9.91620E+00  1.01575E+01  1.04046E+01
#           1.06578E+01  1.09171E+01  1.11827E+01  1.14548E+01  1.17335E+01
#           1.20190E+01  1.23114E+01  1.26109E+01  1.29178E+01  1.32321E+01
#           1.35540E+01  1.38838E+01  1.42216E+01  1.45676E+01  1.49221E+01
#           1.52851E+01  1.56570E+01  1.60380E+01  1.64282E+01  1.68279E+01
#           1.72374E+01  1.76568E+01  1.80864E+01  1.85264E+01  1.89772E+01
#           1.94389E+01  1.99119E+01  2.03963E+01  2.08926E+01  2.14009E+01
#           2.19216E+01  2.24550E+01  2.30014E+01  2.35610E+01  2.41343E+01
#           2.47215E+01  2.53230E+01  2.59391E+01  2.65702E+01  2.72167E+01
#           2.78789E+01  2.85572E+01  2.92520E+01  2.99637E+01  3.06928E+01
#           3.14396E+01  3.22045E+01  3.29881E+01  3.37907E+01  3.46128E+01
#           3.54550E+01  3.63177E+01  3.72013E+01  3.81064E+01  3.90336E+01
#           3.99833E+01  4.09561E+01  4.19526E+01  4.29734E+01  4.40189E+01
#           4.50900E+01  4.61870E+01  4.73108E+01  4.84619E+01  4.96410E+01
#           5.08488E+01  5.20860E+01  5.33533E+01  5.46514E+01  5.59812E+01
#           5.73432E+01  5.87384E+01  6.01676E+01  6.16315E+01  6.31311E+01
#           6.46671E+01  6.62405E+01  6.78522E+01  6.95031E+01  7.11941E+01
#           7.29263E+01  7.47007E+01  7.65182E+01  7.83800E+01  8.02870E+01
#           8.22405E+01  8.42414E+01  8.62911E+01  8.83906E+01  9.05412E+01
#           9.27442E+01  9.50007E+01  9.73122E+01  9.96799E+01  1.02105E+02
#           1.04589E+02  1.07134E+02  1.09741E+02  1.12411E+02  1.15146E+02
#           1.17948E+02  1.20817E+02  1.23757E+02  1.26768E+02  1.29852E+02
#           1.33012E+02  1.36248E+02  1.39563E+02  1.42959E+02  1.46437E+02
#           1.50000E+02
     unit =    2            # unit is [1/cm^2/(MeV/n)/source]
     axis =  eng            # axis of output
     file = detector-26.out  # file name of output for the above axis
   output = f-curr          # surface crossing forward current spectrum
     part =  neutron  
# kf/name :  2112     
#    used :        main (  %)        temp (  %)       total (  %)
#  memory :         414 (  0)           0 (  0)         414 (  0)

#------------------------------------------------------------------------------
#newpage:
#   no. =    1   reg = 125 - 225

x: Energy [MeV/n]
y:  F-Curr [1/cm^2/(MeV/n)/source]         
p: xlog ylog afac(0.8) form(0.9)
h: n            x            y(neutron ),hh0l   n 
#  e-lower      e-upper      neutron     r.err 
   1.0000E-02   1.0243E-02   3.5448E-05  0.1520
   1.0243E-02   1.0493E-02   3.6096E-05  0.1491
   1.0493E-02   1.0748E-02   3.0542E-05  0.1601
   1.0748E-02   1.1009E-02   4.8162E-05  0.1260
   1.1009E-02   1.1277E-02   3.5402E-05  0.1446
   1.1277E-02   1.1552E-02   2.9135E-05  0.1581
   1.1552E-02   1.1833E-02   3.2425E-05  0.1472
   1.1833E-02   1.2121E-02   2.5826E-05  0.1636
   1.2121E-02   1.2415E-02   1.9643E-05  0.1857
   1.2415E-02   1.2718E-02   2.9108E-05  0.1508
   1.2718E-02   1.3027E-02   2.7424E-05  0.1529
   1.3027E-02   1.3344E-02   3.4064E-05  0.1361
   1.3344E-02   1.3669E-02   2.5177E-05  0.1562
   1.3669E-02   1.4001E-02   3.0656E-05  0.1400
   1.4001E-02   1.4342E-02   2.9858E-05  0.1400
   1.4342E-02   1.4691E-02   2.8071E-05  0.1429
   1.4691E-02   1.5048E-02   2.7954E-05  0.1414
   1.5048E-02   1.5414E-02   2.3480E-05  0.1525
   1.5414E-02   1.5789E-02   2.8539E-05  0.1363
   1.5789E-02   1.6174E-02   2.7060E-05  0.1387
   1.6174E-02   1.6567E-02   3.0475E-05  0.1291
   1.6567E-02   1.6970E-02   2.9747E-05  0.1291
   1.6970E-02   1.7383E-02   2.0335E-05  0.1543
   1.7383E-02   1.7806E-02   2.3627E-05  0.1414
   1.7806E-02   1.8239E-02   2.2144E-05  0.1443
   1.8239E-02   1.8683E-02   2.0718E-05  0.1474
   1.8683E-02   1.9138E-02   1.6711E-05  0.1615
   1.9138E-02   1.9603E-02   1.6230E-05  0.1623
   1.9603E-02   2.0080E-02   2.1790E-05  0.1387
   2.0080E-02   2.0569E-02   2.1273E-05  0.1387
   2.0569E-02   2.1069E-02   1.8447E-05  0.1469
   2.1069E-02   2.1582E-02   1.6378E-05  0.1543
   2.1582E-02   2.2107E-02   1.6751E-05  0.1508
   2.2107E-02   2.2645E-02   1.7836E-05  0.1443
   2.2645E-02   2.3196E-02   1.7634E-05  0.1431
   2.3196E-02   2.3760E-02   1.9401E-05  0.1349
   2.3760E-02   2.4338E-02   1.5497E-05  0.1491
   2.4338E-02   2.4930E-02   1.3161E-05  0.1601
   2.4930E-02   2.5537E-02   1.8117E-05  0.1348
   2.5537E-02   2.6158E-02   1.8980E-05  0.1302
   2.6158E-02   2.6795E-02   1.5394E-05  0.1424
   2.6795E-02   2.7447E-02   1.6119E-05  0.1375
   2.7447E-02   2.8114E-02   1.3925E-05  0.1460
   2.8114E-02   2.8799E-02   1.3228E-05  0.1483
   2.8799E-02   2.9499E-02   1.3661E-05  0.1444
   2.9499E-02   3.0217E-02   1.7270E-05  0.1270
   3.0217E-02   3.0952E-02   1.4088E-05  0.1387
   3.0952E-02   3.1705E-02   1.1809E-05  0.1493
   3.1705E-02   3.2477E-02   1.3736E-05  0.1374
   3.2477E-02   3.3267E-02   1.5938E-05  0.1260
   3.3267E-02   3.4076E-02   1.3090E-05  0.1374
   3.4076E-02   3.4905E-02   1.2534E-05  0.1387
   3.4905E-02   3.5755E-02   1.0992E-05  0.1459
   3.5755E-02   3.6625E-02   1.2406E-05  0.1361
   3.6625E-02   3.7516E-02   1.1028E-05  0.1421
   3.7516E-02   3.8428E-02   1.4891E-05  0.1213
   3.8428E-02   3.9363E-02   1.0049E-05  0.1459
   3.9363E-02   4.0321E-02   1.2730E-05  0.1280
   4.0321E-02   4.1302E-02   1.2204E-05  0.1291
   4.1302E-02   4.2307E-02   1.3727E-05  0.1204
   4.2307E-02   4.3337E-02   9.7040E-06  0.1414
   4.3337E-02   4.4391E-02   7.7743E-06  0.1562
   4.4391E-02   4.5471E-02   1.0187E-05  0.1340
   4.5471E-02   4.6577E-02   1.1202E-05  0.1270
   4.6577E-02   4.7711E-02   1.0581E-05  0.1291
   4.7711E-02   4.8871E-02   8.7763E-06  0.1400
   4.8871E-02   5.0061E-02   1.0421E-05  0.1270
   5.0061E-02   5.1279E-02   1.0461E-05  0.1251
   5.1279E-02   5.2526E-02   9.6142E-06  0.1291
   5.2526E-02   5.3804E-02   1.0480E-05  0.1222
   5.3804E-02   5.5113E-02   6.6900E-06  0.1508
   5.5113E-02   5.6454E-02   7.3059E-06  0.1429
   5.6454E-02   5.7828E-02   7.7126E-06  0.1374
   5.7828E-02   5.9235E-02   8.8046E-06  0.1270
   5.9235E-02   6.0676E-02   6.2419E-06  0.1491
   6.0676E-02   6.2152E-02   9.4094E-06  0.1196
   6.2152E-02   6.3665E-02   7.5073E-06  0.1325
   6.3665E-02   6.5214E-02   8.6451E-06  0.1222
   6.5214E-02   6.6800E-02   6.2768E-06  0.1415
   6.6800E-02   6.8426E-02   8.3473E-06  0.1213
   6.8426E-02   7.0090E-02   8.1553E-06  0.1213
   7.0090E-02   7.1796E-02   5.8304E-06  0.1415
   7.1796E-02   7.3543E-02   5.3758E-06  0.1459
   7.3543E-02   7.5332E-02   6.9252E-06  0.1270
   7.5332E-02   7.7165E-02   5.7799E-06  0.1374
   7.7165E-02   7.9042E-02   5.3230E-06  0.1414
   7.9042E-02   8.0965E-02   5.7171E-06  0.1348
   8.0965E-02   8.2935E-02   6.7981E-06  0.1222
   8.2935E-02   8.4953E-02   6.1402E-06  0.1270
   8.4953E-02   8.7020E-02   4.7471E-06  0.1422
   8.7020E-02   8.9138E-02   6.1550E-06  0.1237
   8.9138E-02   9.1306E-02   5.5287E-06  0.1291
   9.1306E-02   9.3528E-02   6.5596E-06  0.1170
   9.3528E-02   9.5804E-02   5.5319E-06  0.1260
   9.5804E-02   9.8134E-02   5.6786E-06  0.1227
   9.8134E-02   1.0052E-01   4.4346E-06  0.1374
   1.0052E-01   1.0297E-01   5.1468E-06  0.1260
   1.0297E-01   1.0547E-01   6.2208E-06  0.1132
   1.0547E-01   1.0804E-01   4.5167E-06  0.1313
   1.0804E-01   1.1067E-01   5.4747E-06  0.1179
   1.1067E-01   1.1336E-01   6.1048E-06  0.1101
   1.1336E-01   1.1612E-01   5.8679E-06  0.1111
   1.1612E-01   1.1894E-01   5.6705E-06  0.1116
   1.1894E-01   1.2184E-01   6.2150E-06  0.1054
   1.2184E-01   1.2480E-01   6.2025E-06  0.1043
   1.2480E-01   1.2784E-01   6.1318E-06  0.1035
   1.2784E-01   1.3095E-01   6.0126E-06  0.1032
   1.3095E-01   1.3414E-01   7.8963E-06  0.0891
   1.3414E-01   1.3740E-01   6.6728E-06  0.0958
   1.3740E-01   1.4074E-01   6.3833E-06  0.0967
   1.4074E-01   1.4417E-01   7.1623E-06  0.0902
   1.4417E-01   1.4767E-01   7.7851E-06  0.0855
   1.4767E-01   1.5127E-01   7.8973E-06  0.0839
   1.5127E-01   1.5495E-01   8.5485E-06  0.0796
   1.5495E-01   1.5872E-01   8.9483E-06  0.0769
   1.5872E-01   1.6258E-01   9.2281E-06  0.0748
   1.6258E-01   1.6654E-01   8.2226E-06  0.0783
   1.6654E-01   1.7059E-01   8.6046E-06  0.0756
   1.7059E-01   1.7474E-01   9.8683E-06  0.0698
   1.7474E-01   1.7899E-01   9.2273E-06  0.0713
   1.7899E-01   1.8334E-01   9.5834E-06  0.0692
   1.8334E-01   1.8781E-01   1.0379E-05  0.0657
   1.8781E-01   1.9237E-01   1.0841E-05  0.0635
   1.9237E-01   1.9706E-01   1.1356E-05  0.0613
   1.9706E-01   2.0185E-01   1.1170E-05  0.0610
   2.0185E-01   2.0676E-01   1.0784E-05  0.0613
   2.0676E-01   2.1179E-01   1.1399E-05  0.0590
   2.1179E-01   2.1694E-01   1.1572E-05  0.0578
   2.1694E-01   2.2222E-01   1.1956E-05  0.0563
   2.2222E-01   2.2763E-01   1.2262E-05  0.0548
   2.2763E-01   2.3317E-01   1.3185E-05  0.0522
   2.3317E-01   2.3884E-01   1.3056E-05  0.0519
   2.3884E-01   2.4465E-01   1.2974E-05  0.0514
   2.4465E-01   2.5061E-01   1.3103E-05  0.0506
   2.5061E-01   2.5670E-01   1.3909E-05  0.0485
   2.5670E-01   2.6295E-01   1.2744E-05  0.0500
   2.6295E-01   2.6935E-01   1.4678E-05  0.0461
   2.6935E-01   2.7590E-01   1.3956E-05  0.0467
   2.7590E-01   2.8261E-01   1.4098E-05  0.0459
   2.8261E-01   2.8949E-01   1.5169E-05  0.0437
   2.8949E-01   2.9653E-01   1.5642E-05  0.0425
   2.9653E-01   3.0375E-01   1.5260E-05  0.0426
   3.0375E-01   3.1114E-01   1.5674E-05  0.0415
   3.1114E-01   3.1871E-01   1.5977E-05  0.0406
   3.1871E-01   3.2646E-01   1.6401E-05  0.0396
   3.2646E-01   3.3441E-01   1.6291E-05  0.0392
   3.3441E-01   3.4254E-01   1.7573E-05  0.0373
   3.4254E-01   3.5088E-01   1.6348E-05  0.0382
   3.5088E-01   3.5941E-01   1.7286E-05  0.0367
   3.5941E-01   3.6816E-01   1.7284E-05  0.0363
   3.6816E-01   3.7712E-01   1.7337E-05  0.0358
   3.7712E-01   3.8629E-01   1.8800E-05  0.0340
   3.8629E-01   3.9569E-01   1.9237E-05  0.0332
   3.9569E-01   4.0532E-01   1.9671E-05  0.0324
   4.0532E-01   4.1518E-01   1.8672E-05  0.0329
   4.1518E-01   4.2528E-01   1.8869E-05  0.0323
   4.2528E-01   4.3563E-01   1.9591E-05  0.0313
   4.3563E-01   4.4623E-01   1.9400E-05  0.0311
   4.4623E-01   4.5708E-01   2.0294E-05  0.0300
   4.5708E-01   4.6821E-01   1.9435E-05  0.0303
   4.6821E-01   4.7960E-01   2.0448E-05  0.0292
   4.7960E-01   4.9127E-01   1.9734E-05  0.0294
   4.9127E-01   5.0322E-01   2.1449E-05  0.0278
   5.0322E-01   5.1546E-01   2.1312E-05  0.0276
   5.1546E-01   5.2800E-01   2.0078E-05  0.0281
   5.2800E-01   5.4085E-01   2.0764E-05  0.0273
   5.4085E-01   5.5401E-01   2.2128E-05  0.0261
   5.5401E-01   5.6749E-01   2.1772E-05  0.0260
   5.6749E-01   5.8130E-01   2.1865E-05  0.0256
   5.8130E-01   5.9544E-01   2.2040E-05  0.0252
   5.9544E-01   6.0993E-01   2.2467E-05  0.0247
   6.0993E-01   6.2477E-01   2.1609E-05  0.0249
   6.2477E-01   6.3997E-01   2.2575E-05  0.0240
   6.3997E-01   6.5554E-01   2.1774E-05  0.0242
   6.5554E-01   6.7149E-01   2.2237E-05  0.0236
   6.7149E-01   6.8783E-01   2.2135E-05  0.0234
   6.8783E-01   7.0456E-01   2.3644E-05  0.0224
   7.0456E-01   7.2171E-01   2.2973E-05  0.0224
   7.2171E-01   7.3927E-01   2.1660E-05  0.0228
   7.3927E-01   7.5725E-01   2.2745E-05  0.0220
   7.5725E-01   7.7568E-01   2.2285E-05  0.0219
   7.7568E-01   7.9455E-01   2.2467E-05  0.0216
   7.9455E-01   8.1388E-01   2.2605E-05  0.0213
   8.1388E-01   8.3368E-01   2.2034E-05  0.0213
   8.3368E-01   8.5397E-01   2.2229E-05  0.0209
   8.5397E-01   8.7475E-01   2.0779E-05  0.0214
   8.7475E-01   8.9603E-01   2.1037E-05  0.0210
   8.9603E-01   9.1783E-01   2.1105E-05  0.0207
   9.1783E-01   9.4016E-01   2.1563E-05  0.0202
   9.4016E-01   9.6304E-01   1.9611E-05  0.0210
   9.6304E-01   9.8647E-01   1.9527E-05  0.0208
   9.8647E-01   1.0105E+00   1.9617E-05  0.0204
   1.0105E+00   1.0351E+00   1.9226E-05  0.0204
   1.0351E+00   1.0602E+00   1.8221E-05  0.0207
   1.0602E+00   1.0860E+00   1.8546E-05  0.0202
   1.0860E+00   1.1125E+00   1.8742E-05  0.0199
   1.1125E+00   1.1395E+00   1.8983E-05  0.0195
   1.1395E+00   1.1673E+00   1.9233E-05  0.0191
   1.1673E+00   1.1957E+00   1.8863E-05  0.0190
   1.1957E+00   1.2247E+00   1.8177E-05  0.0191
   1.2247E+00   1.2545E+00   1.8402E-05  0.0188
   1.2545E+00   1.2851E+00   1.7805E-05  0.0189
   1.2851E+00   1.3163E+00   1.7149E-05  0.0190
   1.3163E+00   1.3484E+00   1.7675E-05  0.0184
   1.3484E+00   1.3812E+00   1.7515E-05  0.0183
   1.3812E+00   1.4148E+00   1.7259E-05  0.0181
   1.4148E+00   1.4492E+00   1.6962E-05  0.0180
   1.4492E+00   1.4845E+00   1.6971E-05  0.0178
   1.4845E+00   1.5206E+00   1.7026E-05  0.0176
   1.5206E+00   1.5576E+00   1.6594E-05  0.0175
   1.5576E+00   1.5955E+00   1.5961E-05  0.0176
   1.5955E+00   1.6343E+00   1.6382E-05  0.0172
   1.6343E+00   1.6741E+00   1.5729E-05  0.0173
   1.6741E+00   1.7148E+00   1.5004E-05  0.0175
   1.7148E+00   1.7565E+00   1.4674E-05  0.0174
   1.7565E+00   1.7992E+00   1.3457E-05  0.0179
   1.7992E+00   1.8430E+00   1.2119E-05  0.0187
   1.8430E+00   1.8879E+00   1.1247E-05  0.0190
   1.8879E+00   1.9338E+00   1.0974E-05  0.0190
   1.9338E+00   1.9808E+00   1.0702E-05  0.0190
   1.9808E+00   2.0290E+00   1.0220E-05  0.0192
   2.0290E+00   2.0784E+00   1.0232E-05  0.0189
   2.0784E+00   2.1290E+00   1.0721E-05  0.0182
   2.1290E+00   2.1808E+00   1.0669E-05  0.0179
   2.1808E+00   2.2338E+00   1.0941E-05  0.0175
   2.2338E+00   2.2882E+00   1.0682E-05  0.0175
   2.2882E+00   2.3439E+00   1.0118E-05  0.0179
   2.3439E+00   2.4009E+00   9.6745E-06  0.0181
   2.4009E+00   2.4593E+00   9.7447E-06  0.0178
   2.4593E+00   2.5191E+00   9.3379E-06  0.0179
   2.5191E+00   2.5804E+00   9.0249E-06  0.0181
   2.5804E+00   2.6432E+00   9.0119E-06  0.0178
   2.6432E+00   2.7075E+00   9.0325E-06  0.0176
   2.7075E+00   2.7734E+00   8.9411E-06  0.0176
   2.7734E+00   2.8409E+00   8.6869E-06  0.0176
   2.8409E+00   2.9100E+00   8.1390E-06  0.0180
   2.9100E+00   2.9808E+00   7.9812E-06  0.0180
   2.9808E+00   3.0533E+00   8.0823E-06  0.0177
   3.0533E+00   3.1276E+00   8.0574E-06  0.0175
   3.1276E+00   3.2037E+00   7.8407E-06  0.0176
   3.2037E+00   3.2817E+00   7.4619E-06  0.0178
   3.2817E+00   3.3615E+00   7.6219E-06  0.0174
   3.3615E+00   3.4433E+00   7.6025E-06  0.0173
   3.4433E+00   3.5271E+00   7.8854E-06  0.0168
   3.5271E+00   3.6129E+00   7.6946E-06  0.0168
   3.6129E+00   3.7008E+00   7.3895E-06  0.0170
   3.7008E+00   3.7908E+00   7.4023E-06  0.0167
   3.7908E+00   3.8831E+00   7.2558E-06  0.0167
   3.8831E+00   3.9776E+00   7.3572E-06  0.0164
   3.9776E+00   4.0743E+00   7.2351E-06  0.0164
   4.0743E+00   4.1735E+00   7.1170E-06  0.0163
   4.1735E+00   4.2750E+00   6.9859E-06  0.0163
   4.2750E+00   4.3790E+00   6.8233E-06  0.0163
   4.3790E+00   4.4856E+00   6.7788E-06  0.0162
   4.4856E+00   4.5947E+00   6.4676E-06  0.0163
   4.5947E+00   4.7065E+00   6.2657E-06  0.0164
   4.7065E+00   4.8210E+00   6.1551E-06  0.0164
   4.8210E+00   4.9383E+00   6.1064E-06  0.0162
   4.9383E+00   5.0585E+00   6.1555E-06  0.0160
   5.0585E+00   5.1815E+00   5.9208E-06  0.0161
   5.1815E+00   5.3076E+00   6.0826E-06  0.0157
   5.3076E+00   5.4368E+00   5.9593E-06  0.0157
   5.4368E+00   5.5690E+00   5.8091E-06  0.0157
   5.5690E+00   5.7045E+00   5.5786E-06  0.0159
   5.7045E+00   5.8433E+00   5.5969E-06  0.0157
   5.8433E+00   5.9855E+00   5.4713E-06  0.0157
   5.9855E+00   6.1311E+00   5.4863E-06  0.0155
   6.1311E+00   6.2803E+00   5.3972E-06  0.0155
   6.2803E+00   6.4331E+00   5.2731E-06  0.0155
   6.4331E+00   6.5896E+00   5.1478E-06  0.0155
   6.5896E+00   6.7500E+00   5.2431E-06  0.0152
   6.7500E+00   6.9142E+00   5.1131E-06  0.0152
   6.9142E+00   7.0824E+00   4.9700E-06  0.0152
   7.0824E+00   7.2548E+00   4.8180E-06  0.0153
   7.2548E+00   7.4313E+00   4.6689E-06  0.0153
   7.4313E+00   7.6121E+00   4.5714E-06  0.0153
   7.6121E+00   7.7973E+00   4.4678E-06  0.0153
   7.7973E+00   7.9870E+00   4.3771E-06  0.0153
   7.9870E+00   8.1813E+00   4.3461E-06  0.0152
   8.1813E+00   8.3804E+00   4.0410E-06  0.0156
   8.3804E+00   8.5843E+00   4.0423E-06  0.0154
   8.5843E+00   8.7931E+00   3.9585E-06  0.0154
   8.7931E+00   9.0071E+00   3.8218E-06  0.0155
   9.0071E+00   9.2262E+00   3.7050E-06  0.0156
   9.2262E+00   9.4507E+00   3.5791E-06  0.0156
   9.4507E+00   9.6807E+00   3.3704E-06  0.0160
   9.6807E+00   9.9162E+00   3.4393E-06  0.0156
   9.9162E+00   1.0157E+01   3.5145E-06  0.0153
   1.0157E+01   1.0405E+01   3.2520E-06  0.0157
   1.0405E+01   1.0658E+01   3.2463E-06  0.0156
   1.0658E+01   1.0917E+01   3.0761E-06  0.0158
   1.0917E+01   1.1183E+01   2.9762E-06  0.0159
   1.1183E+01   1.1455E+01   2.7929E-06  0.0162
   1.1455E+01   1.1733E+01   2.6596E-06  0.0164
   1.1733E+01   1.2019E+01   2.6027E-06  0.0164
   1.2019E+01   1.2311E+01   2.3677E-06  0.0170
   1.2311E+01   1.2611E+01   2.3950E-06  0.0167
   1.2611E+01   1.2918E+01   2.2687E-06  0.0169
   1.2918E+01   1.3232E+01   2.2387E-06  0.0168
   1.3232E+01   1.3554E+01   2.1357E-06  0.0170
   1.3554E+01   1.3884E+01   2.0060E-06  0.0174
   1.3884E+01   1.4222E+01   1.9205E-06  0.0175
   1.4222E+01   1.4568E+01   1.7985E-06  0.0179
   1.4568E+01   1.4922E+01   1.6765E-06  0.0183
   1.4922E+01   1.5285E+01   1.5903E-06  0.0186
   1.5285E+01   1.5657E+01   1.5199E-06  0.0188
   1.5657E+01   1.6038E+01   1.4246E-06  0.0192
   1.6038E+01   1.6428E+01   1.2806E-06  0.0200
   1.6428E+01   1.6828E+01   1.1932E-06  0.0205
   1.6828E+01   1.7237E+01   1.1093E-06  0.0210
   1.7237E+01   1.7657E+01   1.0316E-06  0.0215
   1.7657E+01   1.8086E+01   9.8323E-07  0.0218
   1.8086E+01   1.8526E+01   8.7989E-07  0.0227
   1.8526E+01   1.8977E+01   7.8534E-07  0.0238
   1.8977E+01   1.9439E+01   6.5666E-07  0.0257
   1.9439E+01   1.9912E+01   6.3599E-07  0.0258
   1.9912E+01   2.0396E+01   5.7630E-07  0.0268
   2.0396E+01   2.0893E+01   5.0901E-07  0.0281
   2.0893E+01   2.1401E+01   4.5875E-07  0.0293
   2.1401E+01   2.1922E+01   3.7642E-07  0.0319
   2.1922E+01   2.2455E+01   3.3560E-07  0.0334
   2.2455E+01   2.3001E+01   3.0201E-07  0.0348
   2.3001E+01   2.3561E+01   2.5802E-07  0.0372
   2.3561E+01   2.4134E+01   2.0759E-07  0.0410
   2.4134E+01   2.4721E+01   1.8086E-07  0.0434
   2.4721E+01   2.5323E+01   1.3866E-07  0.0490
   2.5323E+01   2.5939E+01   1.1783E-07  0.0525
   2.5939E+01   2.6570E+01   1.0141E-07  0.0559
   2.6570E+01   2.7217E+01   7.6415E-08  0.0636
   2.7217E+01   2.7879E+01   6.8861E-08  0.0662
   2.7879E+01   2.8557E+01   6.0149E-08  0.0700
   2.8557E+01   2.9252E+01   4.0010E-08  0.0848
   2.9252E+01   2.9964E+01   3.2035E-08  0.0937
   2.9964E+01   3.0693E+01   2.4964E-08  0.1048
   3.0693E+01   3.1440E+01   2.1425E-08  0.1118
   3.1440E+01   3.2205E+01   1.7256E-08  0.1231
   3.2205E+01   3.2988E+01   1.2762E-08  0.1414
   3.2988E+01   3.3791E+01   1.0964E-08  0.1508
   3.3791E+01   3.4613E+01   6.8114E-09  0.1890
   3.4613E+01   3.5455E+01   6.4121E-09  0.1925
   3.5455E+01   3.6318E+01   5.7961E-09  0.2000
   3.6318E+01   3.7201E+01   4.3004E-09  0.2294
   3.7201E+01   3.8106E+01   4.1983E-09  0.2294
   3.8106E+01   3.9034E+01   3.0200E-09  0.2673
   3.9034E+01   3.9983E+01   4.2118E-10  0.7071
   3.9983E+01   4.0956E+01   0.0000E+00  0.0000
   4.0956E+01   4.1953E+01   0.0000E+00  0.0000
   4.1953E+01   4.2973E+01   0.0000E+00  0.0000
   4.2973E+01   4.4019E+01   0.0000E+00  0.0000
   4.4019E+01   4.5090E+01   0.0000E+00  0.0000
   4.5090E+01   4.6187E+01   0.0000E+00  0.0000
   4.6187E+01   4.7311E+01   0.0000E+00  0.0000
   4.7311E+01   4.8462E+01   0.0000E+00  0.0000
   4.8462E+01   4.9641E+01   0.0000E+00  0.0000
   4.9641E+01   5.0849E+01   0.0000E+00  0.0000
   5.0849E+01   5.2086E+01   0.0000E+00  0.0000
   5.2086E+01   5.3353E+01   0.0000E+00  0.0000
   5.3353E+01   5.4651E+01   0.0000E+00  0.0000
   5.4651E+01   5.5981E+01   0.0000E+00  0.0000
   5.5981E+01   5.7343E+01   0.0000E+00  0.0000
   5.7343E+01   5.8738E+01   0.0000E+00  0.0000
   5.8738E+01   6.0168E+01   0.0000E+00  0.0000
   6.0168E+01   6.1632E+01   0.0000E+00  0.0000
   6.1632E+01   6.3131E+01   0.0000E+00  0.0000
   6.3131E+01   6.4667E+01   0.0000E+00  0.0000
   6.4667E+01   6.6240E+01   0.0000E+00  0.0000
   6.6240E+01   6.7852E+01   0.0000E+00  0.0000
   6.7852E+01   6.9503E+01   0.0000E+00  0.0000
   6.9503E+01   7.1194E+01   0.0000E+00  0.0000
   7.1194E+01   7.2926E+01   0.0000E+00  0.0000
   7.2926E+01   7.4701E+01   0.0000E+00  0.0000
   7.4701E+01   7.6518E+01   0.0000E+00  0.0000
   7.6518E+01   7.8380E+01   0.0000E+00  0.0000
   7.8380E+01   8.0287E+01   0.0000E+00  0.0000
   8.0287E+01   8.2240E+01   0.0000E+00  0.0000
   8.2240E+01   8.4241E+01   0.0000E+00  0.0000
   8.4241E+01   8.6291E+01   0.0000E+00  0.0000
   8.6291E+01   8.8391E+01   0.0000E+00  0.0000
   8.8391E+01   9.0541E+01   0.0000E+00  0.0000
   9.0541E+01   9.2744E+01   0.0000E+00  0.0000
   9.2744E+01   9.5001E+01   0.0000E+00  0.0000
   9.5001E+01   9.7312E+01   0.0000E+00  0.0000
   9.7312E+01   9.9680E+01   0.0000E+00  0.0000
   9.9680E+01   1.0211E+02   0.0000E+00  0.0000
   1.0211E+02   1.0459E+02   0.0000E+00  0.0000
   1.0459E+02   1.0713E+02   0.0000E+00  0.0000
   1.0713E+02   1.0974E+02   0.0000E+00  0.0000
   1.0974E+02   1.1241E+02   0.0000E+00  0.0000
   1.1241E+02   1.1515E+02   0.0000E+00  0.0000
   1.1515E+02   1.1795E+02   0.0000E+00  0.0000
   1.1795E+02   1.2082E+02   0.0000E+00  0.0000
   1.2082E+02   1.2376E+02   0.0000E+00  0.0000
   1.2376E+02   1.2677E+02   0.0000E+00  0.0000
   1.2677E+02   1.2985E+02   0.0000E+00  0.0000
   1.2985E+02   1.3301E+02   0.0000E+00  0.0000
   1.3301E+02   1.3625E+02   0.0000E+00  0.0000
   1.3625E+02   1.3956E+02   0.0000E+00  0.0000
   1.3956E+02   1.4296E+02   0.0000E+00  0.0000
   1.4296E+02   1.4644E+02   0.0000E+00  0.0000
   1.4644E+02   1.5000E+02   0.0000E+00  0.0000

#   sum over                 6.6609E-07
'no. =    1   reg = 125 - 225'
msuc: {\huge [t-cross] in region mesh}
msdr: {\it plotted by \ANGEL \version}
msdl: {\it calculated by \PHITS  3.26}
wt: s(0.7)
\vspace{-3}
  region surface crossing
  area  &=&   1.0000E+00 [cm^2]
e:
 
# Information for Restart Calculation
# This calculation was newly started
# istdev =  2 # 1:Batch variance, 2:History variance
# resc2  = 5.00000000000000000E+09 # Total source weight or Total source weight / maxcas
# resc3  = 5.00000000000000000E+09 # Total history number or Total batch number
# maxcas =   100000000 # History / Batch, only used for istdev=1
# bitrseed = 0110100000100010111000001110001111001110100100011111101000111001 # bit data of rseed
