[ T-Cross ]
    title = [t-cross] in region mesh
     mesh =  reg            # mesh type is region-wise
      reg =    1            # number of crossing regions
      non     r-from    r-to       area
      1       109       209        1.000000    
   e-type =    3            # e-mesh is log given by emin, emax and ne
     emin =  1.0000000E-02  # minimum value of e-mesh points
     emax =   150.0000      # maximum value of e-mesh points
#    edel =  2.4039514E-02  # mesh width of e-mesh points
       ne =    400          # number of e-mesh points
#    data = ( e(i), i = 1, ne + 1 )
#           1.00000E-02  1.02433E-02  1.04925E-02  1.07478E-02  1.10093E-02
#           1.12772E-02  1.15516E-02  1.18326E-02  1.21205E-02  1.24154E-02
#           1.27175E-02  1.30269E-02  1.33439E-02  1.36686E-02  1.40011E-02
#           1.43418E-02  1.46907E-02  1.50482E-02  1.54143E-02  1.57894E-02
#           1.61735E-02  1.65670E-02  1.69701E-02  1.73830E-02  1.78060E-02
#           1.82392E-02  1.86830E-02  1.91375E-02  1.96032E-02  2.00801E-02
#           2.05687E-02  2.10692E-02  2.15818E-02  2.21069E-02  2.26448E-02
#           2.31957E-02  2.37601E-02  2.43382E-02  2.49304E-02  2.55369E-02
#           2.61583E-02  2.67947E-02  2.74467E-02  2.81145E-02  2.87985E-02
#           2.94992E-02  3.02169E-02  3.09521E-02  3.17052E-02  3.24766E-02
#           3.32668E-02  3.40762E-02  3.49053E-02  3.57546E-02  3.66246E-02
#           3.75157E-02  3.84284E-02  3.93634E-02  4.03212E-02  4.13022E-02
#           4.23071E-02  4.33365E-02  4.43909E-02  4.54710E-02  4.65773E-02
#           4.77106E-02  4.88714E-02  5.00605E-02  5.12785E-02  5.25262E-02
#           5.38042E-02  5.51133E-02  5.64542E-02  5.78278E-02  5.92348E-02
#           6.06760E-02  6.21523E-02  6.36645E-02  6.52135E-02  6.68002E-02
#           6.84255E-02  7.00904E-02  7.17957E-02  7.35426E-02  7.53319E-02
#           7.71648E-02  7.90423E-02  8.09655E-02  8.29354E-02  8.49533E-02
#           8.70203E-02  8.91376E-02  9.13064E-02  9.35279E-02  9.58035E-02
#           9.81345E-02  1.00522E-01  1.02968E-01  1.05473E-01  1.08040E-01
#           1.10668E-01  1.13361E-01  1.16119E-01  1.18944E-01  1.21838E-01
#           1.24803E-01  1.27839E-01  1.30950E-01  1.34136E-01  1.37399E-01
#           1.40742E-01  1.44167E-01  1.47675E-01  1.51268E-01  1.54948E-01
#           1.58718E-01  1.62580E-01  1.66535E-01  1.70587E-01  1.74738E-01
#           1.78989E-01  1.83344E-01  1.87805E-01  1.92375E-01  1.97055E-01
#           2.01850E-01  2.06761E-01  2.11792E-01  2.16945E-01  2.22223E-01
#           2.27630E-01  2.33169E-01  2.38842E-01  2.44653E-01  2.50605E-01
#           2.56703E-01  2.62949E-01  2.69346E-01  2.75900E-01  2.82613E-01
#           2.89489E-01  2.96532E-01  3.03747E-01  3.11138E-01  3.18708E-01
#           3.26462E-01  3.34405E-01  3.42542E-01  3.50876E-01  3.59413E-01
#           3.68158E-01  3.77116E-01  3.86291E-01  3.95690E-01  4.05317E-01
#           4.15179E-01  4.25281E-01  4.35628E-01  4.46227E-01  4.57084E-01
#           4.68205E-01  4.79597E-01  4.91266E-01  5.03219E-01  5.15463E-01
#           5.28005E-01  5.40851E-01  5.54011E-01  5.67490E-01  5.81298E-01
#           5.95441E-01  6.09929E-01  6.24769E-01  6.39970E-01  6.55541E-01
#           6.71491E-01  6.87828E-01  7.04564E-01  7.21706E-01  7.39266E-01
#           7.57253E-01  7.75678E-01  7.94551E-01  8.13883E-01  8.33685E-01
#           8.53969E-01  8.74747E-01  8.96030E-01  9.17831E-01  9.40163E-01
#           9.63038E-01  9.86469E-01  1.01047E+00  1.03506E+00  1.06024E+00
#           1.08604E+00  1.11246E+00  1.13953E+00  1.16725E+00  1.19565E+00
#           1.22474E+00  1.25454E+00  1.28507E+00  1.31633E+00  1.34836E+00
#           1.38117E+00  1.41477E+00  1.44920E+00  1.48446E+00  1.52057E+00
#           1.55757E+00  1.59547E+00  1.63429E+00  1.67405E+00  1.71478E+00
#           1.75650E+00  1.79924E+00  1.84302E+00  1.88786E+00  1.93379E+00
#           1.98084E+00  2.02904E+00  2.07841E+00  2.12898E+00  2.18078E+00
#           2.23384E+00  2.28819E+00  2.34386E+00  2.40089E+00  2.45930E+00
#           2.51914E+00  2.58043E+00  2.64322E+00  2.70753E+00  2.77341E+00
#           2.84088E+00  2.91001E+00  2.98081E+00  3.05333E+00  3.12762E+00
#           3.20372E+00  3.28167E+00  3.36152E+00  3.44330E+00  3.52708E+00
#           3.61290E+00  3.70080E+00  3.79085E+00  3.88308E+00  3.97756E+00
#           4.07434E+00  4.17347E+00  4.27501E+00  4.37903E+00  4.48557E+00
#           4.59471E+00  4.70650E+00  4.82102E+00  4.93832E+00  5.05847E+00
#           5.18155E+00  5.30762E+00  5.43676E+00  5.56904E+00  5.70453E+00
#           5.84333E+00  5.98550E+00  6.13114E+00  6.28031E+00  6.43312E+00
#           6.58964E+00  6.74997E+00  6.91420E+00  7.08243E+00  7.25475E+00
#           7.43126E+00  7.61207E+00  7.79728E+00  7.98700E+00  8.18133E+00
#           8.38038E+00  8.58428E+00  8.79315E+00  9.00709E+00  9.22624E+00
#           9.45072E+00  9.68067E+00  9.91620E+00  1.01575E+01  1.04046E+01
#           1.06578E+01  1.09171E+01  1.11827E+01  1.14548E+01  1.17335E+01
#           1.20190E+01  1.23114E+01  1.26109E+01  1.29178E+01  1.32321E+01
#           1.35540E+01  1.38838E+01  1.42216E+01  1.45676E+01  1.49221E+01
#           1.52851E+01  1.56570E+01  1.60380E+01  1.64282E+01  1.68279E+01
#           1.72374E+01  1.76568E+01  1.80864E+01  1.85264E+01  1.89772E+01
#           1.94389E+01  1.99119E+01  2.03963E+01  2.08926E+01  2.14009E+01
#           2.19216E+01  2.24550E+01  2.30014E+01  2.35610E+01  2.41343E+01
#           2.47215E+01  2.53230E+01  2.59391E+01  2.65702E+01  2.72167E+01
#           2.78789E+01  2.85572E+01  2.92520E+01  2.99637E+01  3.06928E+01
#           3.14396E+01  3.22045E+01  3.29881E+01  3.37907E+01  3.46128E+01
#           3.54550E+01  3.63177E+01  3.72013E+01  3.81064E+01  3.90336E+01
#           3.99833E+01  4.09561E+01  4.19526E+01  4.29734E+01  4.40189E+01
#           4.50900E+01  4.61870E+01  4.73108E+01  4.84619E+01  4.96410E+01
#           5.08488E+01  5.20860E+01  5.33533E+01  5.46514E+01  5.59812E+01
#           5.73432E+01  5.87384E+01  6.01676E+01  6.16315E+01  6.31311E+01
#           6.46671E+01  6.62405E+01  6.78522E+01  6.95031E+01  7.11941E+01
#           7.29263E+01  7.47007E+01  7.65182E+01  7.83800E+01  8.02870E+01
#           8.22405E+01  8.42414E+01  8.62911E+01  8.83906E+01  9.05412E+01
#           9.27442E+01  9.50007E+01  9.73122E+01  9.96799E+01  1.02105E+02
#           1.04589E+02  1.07134E+02  1.09741E+02  1.12411E+02  1.15146E+02
#           1.17948E+02  1.20817E+02  1.23757E+02  1.26768E+02  1.29852E+02
#           1.33012E+02  1.36248E+02  1.39563E+02  1.42959E+02  1.46437E+02
#           1.50000E+02
     unit =    2            # unit is [1/cm^2/(MeV/n)/source]
     axis =  eng            # axis of output
     file = detector-10.out  # file name of output for the above axis
   output = f-curr          # surface crossing forward current spectrum
     part =  neutron  
# kf/name :  2112     
#    used :        main (  %)        temp (  %)       total (  %)
#  memory :         414 (  0)           0 (  0)         414 (  0)

#------------------------------------------------------------------------------
#newpage:
#   no. =    1   reg = 109 - 209

x: Energy [MeV/n]
y:  F-Curr [1/cm^2/(MeV/n)/source]         
p: xlog ylog afac(0.8) form(0.9)
h: n            x            y(neutron ),hh0l   n 
#  e-lower      e-upper      neutron     r.err 
   1.0000E-02   1.0243E-02   8.2200E-07  1.0000
   1.0243E-02   1.0493E-02   8.0248E-07  1.0000
   1.0493E-02   1.0748E-02   2.3503E-06  0.5774
   1.0748E-02   1.1009E-02   0.0000E+00  0.0000
   1.1009E-02   1.1277E-02   7.4664E-07  1.0000
   1.1277E-02   1.1552E-02   7.2891E-07  1.0000
   1.1552E-02   1.1833E-02   1.4232E-06  0.7071
   1.1833E-02   1.2121E-02   6.9469E-07  1.0000
   1.2121E-02   1.2415E-02   6.7819E-07  1.0000
   1.2415E-02   1.2718E-02   0.0000E+00  0.0000
   1.2718E-02   1.3027E-02   0.0000E+00  0.0000
   1.3027E-02   1.3344E-02   1.7282E-06  0.5787
   1.3344E-02   1.3669E-02   1.9935E-06  0.5402
   1.3669E-02   1.4001E-02   7.0662E-07  0.8640
   1.4001E-02   1.4342E-02   5.8710E-07  1.0000
   1.4342E-02   1.4691E-02   1.0877E-07  1.0000
   1.4691E-02   1.5048E-02   7.4050E-07  0.7758
   1.5048E-02   1.5414E-02   0.0000E+00  0.0000
   1.5414E-02   1.5789E-02   2.3595E-06  0.4621
   1.5789E-02   1.6174E-02   1.0191E-07  1.0000
   1.6174E-02   1.6567E-02   1.0165E-06  0.7071
   1.6567E-02   1.6970E-02   2.4808E-06  0.4472
   1.6970E-02   1.7383E-02   1.6523E-06  0.5149
   1.7383E-02   1.7806E-02   2.4685E-06  0.4304
   1.7806E-02   1.8239E-02   1.4584E-06  0.5506
   1.8239E-02   1.8683E-02   1.8027E-06  0.5000
   1.8683E-02   1.9138E-02   1.7599E-06  0.5000
   1.9138E-02   1.9603E-02   2.1476E-06  0.4472
   1.9603E-02   2.0080E-02   8.3814E-07  0.6538
   2.0080E-02   2.0569E-02   1.8214E-06  0.4551
   2.0569E-02   2.1069E-02   1.1989E-06  0.5774
   2.1069E-02   2.1582E-02   1.3547E-06  0.5080
   2.1582E-02   2.2107E-02   2.3144E-06  0.3796
   2.2107E-02   2.2645E-02   2.5965E-06  0.3607
   2.2645E-02   2.3196E-02   3.4050E-06  0.3212
   2.3196E-02   2.3760E-02   2.1641E-06  0.4004
   2.3760E-02   2.4338E-02   3.8873E-06  0.2959
   2.4338E-02   2.4930E-02   4.6558E-06  0.2647
   2.4930E-02   2.5537E-02   2.2833E-06  0.3440
   2.5537E-02   2.6158E-02   1.1051E-06  0.5124
   2.6158E-02   2.6795E-02   3.4574E-06  0.2974
   2.6795E-02   2.7447E-02   3.8519E-06  0.2770
   2.7447E-02   2.8114E-02   3.1814E-06  0.2914
   2.8114E-02   2.8799E-02   5.2200E-06  0.2259
   2.8799E-02   2.9499E-02   3.8384E-06  0.2693
   2.9499E-02   3.0217E-02   4.4237E-06  0.2467
   3.0217E-02   3.0952E-02   4.2782E-06  0.2426
   3.0952E-02   3.1705E-02   5.6298E-06  0.2129
   3.1705E-02   3.2477E-02   3.7847E-06  0.2581
   3.2477E-02   3.3267E-02   5.3020E-06  0.2149
   3.3267E-02   3.4076E-02   5.8178E-06  0.2039
   3.4076E-02   3.4905E-02   4.9414E-06  0.2157
   3.4905E-02   3.5755E-02   5.5478E-06  0.2013
   3.5755E-02   3.6625E-02   6.4989E-06  0.1828
   3.6625E-02   3.7516E-02   6.1773E-06  0.1871
   3.7516E-02   3.8428E-02   5.7942E-06  0.1908
   3.8428E-02   3.9363E-02   5.8398E-06  0.1843
   3.9363E-02   4.0321E-02   5.2871E-06  0.1947
   4.0321E-02   4.1302E-02   5.6892E-06  0.1848
   4.1302E-02   4.2307E-02   8.3952E-06  0.1510
   4.2307E-02   4.3337E-02   9.7369E-06  0.1391
   4.3337E-02   4.4391E-02   9.2473E-06  0.1388
   4.4391E-02   4.5471E-02   9.6150E-06  0.1365
   4.5471E-02   4.6577E-02   7.9176E-06  0.1465
   4.6577E-02   4.7711E-02   9.1760E-06  0.1349
   4.7711E-02   4.8871E-02   8.6198E-06  0.1387
   4.8871E-02   5.0061E-02   1.1517E-05  0.1185
   5.0061E-02   5.1279E-02   1.1770E-05  0.1150
   5.1279E-02   5.2526E-02   1.3557E-05  0.1071
   5.2526E-02   5.3804E-02   1.2515E-05  0.1086
   5.3804E-02   5.5113E-02   1.3498E-05  0.1033
   5.5113E-02   5.6454E-02   1.3734E-05  0.1022
   5.6454E-02   5.7828E-02   1.2829E-05  0.1032
   5.7828E-02   5.9235E-02   1.4417E-05  0.0967
   5.9235E-02   6.0676E-02   1.4858E-05  0.0946
   6.0676E-02   6.2152E-02   1.7145E-05  0.0870
   6.2152E-02   6.3665E-02   1.7941E-05  0.0837
   6.3665E-02   6.5214E-02   1.5886E-05  0.0875
   6.5214E-02   6.6800E-02   1.6668E-05  0.0845
   6.6800E-02   6.8426E-02   1.9762E-05  0.0776
   6.8426E-02   7.0090E-02   2.0505E-05  0.0746
   7.0090E-02   7.1796E-02   2.2006E-05  0.0711
   7.1796E-02   7.3543E-02   2.4035E-05  0.0675
   7.3543E-02   7.5332E-02   2.1195E-05  0.0705
   7.5332E-02   7.7165E-02   2.3097E-05  0.0673
   7.7165E-02   7.9042E-02   2.3814E-05  0.0647
   7.9042E-02   8.0965E-02   2.5511E-05  0.0620
   8.0965E-02   8.2935E-02   2.3079E-05  0.0644
   8.2935E-02   8.4953E-02   2.7319E-05  0.0586
   8.4953E-02   8.7020E-02   2.9745E-05  0.0559
   8.7020E-02   8.9138E-02   2.6955E-05  0.0574
   8.9138E-02   9.1306E-02   3.2289E-05  0.0519
   9.1306E-02   9.3528E-02   2.9695E-05  0.0538
   9.3528E-02   9.5804E-02   3.4333E-05  0.0495
   9.5804E-02   9.8134E-02   3.5155E-05  0.0481
   9.8134E-02   1.0052E-01   3.8147E-05  0.0457
   1.0052E-01   1.0297E-01   3.6198E-05  0.0463
   1.0297E-01   1.0547E-01   3.6784E-05  0.0453
   1.0547E-01   1.0804E-01   4.3025E-05  0.0415
   1.0804E-01   1.1067E-01   4.0929E-05  0.0420
   1.1067E-01   1.1336E-01   4.3561E-05  0.0404
   1.1336E-01   1.1612E-01   4.7000E-05  0.0383
   1.1612E-01   1.1894E-01   4.8753E-05  0.0371
   1.1894E-01   1.2184E-01   4.6333E-05  0.0376
   1.2184E-01   1.2480E-01   5.1693E-05  0.0351
   1.2480E-01   1.2784E-01   5.5038E-05  0.0338
   1.2784E-01   1.3095E-01   5.3116E-05  0.0340
   1.3095E-01   1.3414E-01   5.7820E-05  0.0322
   1.3414E-01   1.3740E-01   5.8899E-05  0.0314
   1.3740E-01   1.4074E-01   5.7606E-05  0.0314
   1.4074E-01   1.4417E-01   6.2599E-05  0.0298
   1.4417E-01   1.4767E-01   6.2828E-05  0.0293
   1.4767E-01   1.5127E-01   6.8245E-05  0.0279
   1.5127E-01   1.5495E-01   7.0391E-05  0.0271
   1.5495E-01   1.5872E-01   7.0770E-05  0.0268
   1.5872E-01   1.6258E-01   7.5410E-05  0.0256
   1.6258E-01   1.6654E-01   7.8986E-05  0.0247
   1.6654E-01   1.7059E-01   8.0495E-05  0.0242
   1.7059E-01   1.7474E-01   8.4442E-05  0.0233
   1.7474E-01   1.7899E-01   8.9882E-05  0.0224
   1.7899E-01   1.8334E-01   9.3207E-05  0.0217
   1.8334E-01   1.8781E-01   9.7397E-05  0.0210
   1.8781E-01   1.9237E-01   9.6736E-05  0.0208
   1.9237E-01   1.9706E-01   9.8215E-05  0.0204
   1.9706E-01   2.0185E-01   1.0693E-04  0.0193
   2.0185E-01   2.0676E-01   1.1373E-04  0.0185
   2.0676E-01   2.1179E-01   1.1217E-04  0.0184
   2.1179E-01   2.1694E-01   1.1689E-04  0.0178
   2.1694E-01   2.2222E-01   1.2032E-04  0.0173
   2.2222E-01   2.2763E-01   1.2675E-04  0.0167
   2.2763E-01   2.3317E-01   1.3110E-04  0.0162
   2.3317E-01   2.3884E-01   1.3230E-04  0.0159
   2.3884E-01   2.4465E-01   1.3758E-04  0.0155
   2.4465E-01   2.5061E-01   1.4003E-04  0.0151
   2.5061E-01   2.5670E-01   1.5149E-04  0.0144
   2.5670E-01   2.6295E-01   1.5527E-04  0.0141
   2.6295E-01   2.6935E-01   1.5916E-04  0.0137
   2.6935E-01   2.7590E-01   1.6514E-04  0.0133
   2.7590E-01   2.8261E-01   1.7256E-04  0.0129
   2.8261E-01   2.8949E-01   1.7190E-04  0.0127
   2.8949E-01   2.9653E-01   1.8037E-04  0.0123
   2.9653E-01   3.0375E-01   1.8755E-04  0.0119
   3.0375E-01   3.1114E-01   1.9674E-04  0.0115
   3.1114E-01   3.1871E-01   1.9515E-04  0.0114
   3.1871E-01   3.2646E-01   2.0342E-04  0.0111
   3.2646E-01   3.3441E-01   2.1000E-04  0.0108
   3.3441E-01   3.4254E-01   2.1571E-04  0.0105
   3.4254E-01   3.5088E-01   2.2580E-04  0.0101
   3.5088E-01   3.5941E-01   2.2790E-04  0.0100
   3.5941E-01   3.6816E-01   2.3820E-04  0.0096
   3.6816E-01   3.7712E-01   2.4287E-04  0.0094
   3.7712E-01   3.8629E-01   2.4613E-04  0.0093
   3.8629E-01   3.9569E-01   2.5346E-04  0.0090
   3.9569E-01   4.0532E-01   2.6282E-04  0.0088
   4.0532E-01   4.1518E-01   2.7018E-04  0.0085
   4.1518E-01   4.2528E-01   2.7860E-04  0.0083
   4.2528E-01   4.3563E-01   2.7967E-04  0.0082
   4.3563E-01   4.4623E-01   2.8985E-04  0.0080
   4.4623E-01   4.5708E-01   2.9447E-04  0.0078
   4.5708E-01   4.6821E-01   3.0120E-04  0.0076
   4.6821E-01   4.7960E-01   3.1180E-04  0.0074
   4.7960E-01   4.9127E-01   3.1430E-04  0.0073
   4.9127E-01   5.0322E-01   3.2096E-04  0.0071
   5.0322E-01   5.1546E-01   3.2435E-04  0.0070
   5.1546E-01   5.2800E-01   3.3607E-04  0.0068
   5.2800E-01   5.4085E-01   3.4471E-04  0.0067
   5.4085E-01   5.5401E-01   3.5015E-04  0.0065
   5.5401E-01   5.6749E-01   3.5988E-04  0.0064
   5.6749E-01   5.8130E-01   3.6961E-04  0.0062
   5.8130E-01   5.9544E-01   3.7908E-04  0.0060
   5.9544E-01   6.0993E-01   3.8676E-04  0.0059
   6.0993E-01   6.2477E-01   3.9378E-04  0.0058
   6.2477E-01   6.3997E-01   4.0307E-04  0.0057
   6.3997E-01   6.5554E-01   4.1068E-04  0.0055
   6.5554E-01   6.7149E-01   4.1990E-04  0.0054
   6.7149E-01   6.8783E-01   4.2635E-04  0.0053
   6.8783E-01   7.0456E-01   4.3516E-04  0.0052
   7.0456E-01   7.2171E-01   4.4171E-04  0.0051
   7.2171E-01   7.3927E-01   4.4730E-04  0.0050
   7.3927E-01   7.5725E-01   4.5607E-04  0.0049
   7.5725E-01   7.7568E-01   4.6730E-04  0.0048
   7.7568E-01   7.9455E-01   4.6642E-04  0.0047
   7.9455E-01   8.1388E-01   4.8000E-04  0.0046
   8.1388E-01   8.3368E-01   4.8926E-04  0.0045
   8.3368E-01   8.5397E-01   4.9912E-04  0.0044
   8.5397E-01   8.7475E-01   5.0749E-04  0.0043
   8.7475E-01   8.9603E-01   5.1426E-04  0.0042
   8.9603E-01   9.1783E-01   5.1830E-04  0.0042
   9.1783E-01   9.4016E-01   5.3178E-04  0.0041
   9.4016E-01   9.6304E-01   5.3869E-04  0.0040
   9.6304E-01   9.8647E-01   5.3872E-04  0.0039
   9.8647E-01   1.0105E+00   5.4451E-04  0.0039
   1.0105E+00   1.0351E+00   5.4150E-04  0.0038
   1.0351E+00   1.0602E+00   5.3656E-04  0.0038
   1.0602E+00   1.0860E+00   5.3183E-04  0.0038
   1.0860E+00   1.1125E+00   5.3140E-04  0.0037
   1.1125E+00   1.1395E+00   5.3304E-04  0.0037
   1.1395E+00   1.1673E+00   5.3415E-04  0.0036
   1.1673E+00   1.1957E+00   5.3697E-04  0.0036
   1.1957E+00   1.2247E+00   5.4279E-04  0.0035
   1.2247E+00   1.2545E+00   5.3639E-04  0.0035
   1.2545E+00   1.2851E+00   5.3413E-04  0.0035
   1.2851E+00   1.3163E+00   5.3605E-04  0.0034
   1.3163E+00   1.3484E+00   5.3062E-04  0.0034
   1.3484E+00   1.3812E+00   5.2625E-04  0.0034
   1.3812E+00   1.4148E+00   5.3469E-04  0.0033
   1.4148E+00   1.4492E+00   5.2746E-04  0.0033
   1.4492E+00   1.4845E+00   5.2851E-04  0.0032
   1.4845E+00   1.5206E+00   5.2914E-04  0.0032
   1.5206E+00   1.5576E+00   5.2545E-04  0.0032
   1.5576E+00   1.5955E+00   5.1925E-04  0.0031
   1.5955E+00   1.6343E+00   5.1537E-04  0.0031
   1.6343E+00   1.6741E+00   5.1417E-04  0.0031
   1.6741E+00   1.7148E+00   5.1046E-04  0.0031
   1.7148E+00   1.7565E+00   5.0680E-04  0.0030
   1.7565E+00   1.7992E+00   5.0658E-04  0.0030
   1.7992E+00   1.8430E+00   5.0698E-04  0.0030
   1.8430E+00   1.8879E+00   5.0466E-04  0.0029
   1.8879E+00   1.9338E+00   5.0102E-04  0.0029
   1.9338E+00   1.9808E+00   4.9827E-04  0.0029
   1.9808E+00   2.0290E+00   4.9698E-04  0.0028
   2.0290E+00   2.0784E+00   4.9675E-04  0.0028
   2.0784E+00   2.1290E+00   4.9028E-04  0.0028
   2.1290E+00   2.1808E+00   4.8827E-04  0.0028
   2.1808E+00   2.2338E+00   4.8650E-04  0.0027
   2.2338E+00   2.2882E+00   4.8170E-04  0.0027
   2.2882E+00   2.3439E+00   4.7727E-04  0.0027
   2.3439E+00   2.4009E+00   4.7535E-04  0.0027
   2.4009E+00   2.4593E+00   4.6829E-04  0.0026
   2.4593E+00   2.5191E+00   4.6644E-04  0.0026
   2.5191E+00   2.5804E+00   4.5822E-04  0.0026
   2.5804E+00   2.6432E+00   4.5195E-04  0.0026
   2.6432E+00   2.7075E+00   4.4482E-04  0.0026
   2.7075E+00   2.7734E+00   4.4428E-04  0.0025
   2.7734E+00   2.8409E+00   4.3906E-04  0.0025
   2.8409E+00   2.9100E+00   4.3512E-04  0.0025
   2.9100E+00   2.9808E+00   4.2843E-04  0.0025
   2.9808E+00   3.0533E+00   4.2467E-04  0.0025
   3.0533E+00   3.1276E+00   4.2104E-04  0.0025
   3.1276E+00   3.2037E+00   4.1510E-04  0.0025
   3.2037E+00   3.2817E+00   4.0978E-04  0.0024
   3.2817E+00   3.3615E+00   4.0277E-04  0.0024
   3.3615E+00   3.4433E+00   3.9952E-04  0.0024
   3.4433E+00   3.5271E+00   3.9339E-04  0.0024
   3.5271E+00   3.6129E+00   3.8940E-04  0.0024
   3.6129E+00   3.7008E+00   3.8237E-04  0.0024
   3.7008E+00   3.7908E+00   3.7542E-04  0.0024
   3.7908E+00   3.8831E+00   3.6822E-04  0.0024
   3.8831E+00   3.9776E+00   3.5897E-04  0.0024
   3.9776E+00   4.0743E+00   3.5106E-04  0.0024
   4.0743E+00   4.1735E+00   3.4357E-04  0.0024
   4.1735E+00   4.2750E+00   3.3520E-04  0.0024
   4.2750E+00   4.3790E+00   3.2735E-04  0.0024
   4.3790E+00   4.4856E+00   3.2195E-04  0.0023
   4.4856E+00   4.5947E+00   3.1848E-04  0.0023
   4.5947E+00   4.7065E+00   3.1514E-04  0.0023
   4.7065E+00   4.8210E+00   3.0847E-04  0.0023
   4.8210E+00   4.9383E+00   3.0633E-04  0.0023
   4.9383E+00   5.0585E+00   3.0864E-04  0.0023
   5.0585E+00   5.1815E+00   3.2152E-04  0.0022
   5.1815E+00   5.3076E+00   3.2532E-04  0.0022
   5.3076E+00   5.4368E+00   3.1889E-04  0.0022
   5.4368E+00   5.5690E+00   3.1283E-04  0.0021
   5.5690E+00   5.7045E+00   3.0664E-04  0.0021
   5.7045E+00   5.8433E+00   3.0014E-04  0.0021
   5.8433E+00   5.9855E+00   2.9562E-04  0.0021
   5.9855E+00   6.1311E+00   2.9191E-04  0.0021
   6.1311E+00   6.2803E+00   2.8790E-04  0.0021
   6.2803E+00   6.4331E+00   2.8422E-04  0.0021
   6.4331E+00   6.5896E+00   2.8109E-04  0.0021
   6.5896E+00   6.7500E+00   2.7925E-04  0.0021
   6.7500E+00   6.9142E+00   2.7379E-04  0.0021
   6.9142E+00   7.0824E+00   2.7114E-04  0.0021
   7.0824E+00   7.2548E+00   2.6760E-04  0.0021
   7.2548E+00   7.4313E+00   2.6419E-04  0.0020
   7.4313E+00   7.6121E+00   2.6236E-04  0.0020
   7.6121E+00   7.7973E+00   2.6082E-04  0.0020
   7.7973E+00   7.9870E+00   2.5826E-04  0.0020
   7.9870E+00   8.1813E+00   2.5625E-04  0.0020
   8.1813E+00   8.3804E+00   2.5366E-04  0.0020
   8.3804E+00   8.5843E+00   2.5160E-04  0.0020
   8.5843E+00   8.7931E+00   2.4814E-04  0.0019
   8.7931E+00   9.0071E+00   2.4508E-04  0.0019
   9.0071E+00   9.2262E+00   2.4107E-04  0.0019
   9.2262E+00   9.4507E+00   2.3884E-04  0.0019
   9.4507E+00   9.6807E+00   2.3582E-04  0.0019
   9.6807E+00   9.9162E+00   2.3334E-04  0.0019
   9.9162E+00   1.0157E+01   2.3082E-04  0.0019
   1.0157E+01   1.0405E+01   2.2975E-04  0.0019
   1.0405E+01   1.0658E+01   2.2832E-04  0.0018
   1.0658E+01   1.0917E+01   2.2642E-04  0.0018
   1.0917E+01   1.1183E+01   2.2501E-04  0.0018
   1.1183E+01   1.1455E+01   2.2341E-04  0.0018
   1.1455E+01   1.1733E+01   2.2141E-04  0.0018
   1.1733E+01   1.2019E+01   2.1913E-04  0.0018
   1.2019E+01   1.2311E+01   2.1756E-04  0.0018
   1.2311E+01   1.2611E+01   2.1612E-04  0.0017
   1.2611E+01   1.2918E+01   2.1484E-04  0.0017
   1.2918E+01   1.3232E+01   2.1280E-04  0.0017
   1.3232E+01   1.3554E+01   2.1086E-04  0.0017
   1.3554E+01   1.3884E+01   2.0909E-04  0.0017
   1.3884E+01   1.4222E+01   2.0709E-04  0.0017
   1.4222E+01   1.4568E+01   2.0549E-04  0.0017
   1.4568E+01   1.4922E+01   2.0310E-04  0.0017
   1.4922E+01   1.5285E+01   2.0131E-04  0.0016
   1.5285E+01   1.5657E+01   1.9946E-04  0.0016
   1.5657E+01   1.6038E+01   1.9622E-04  0.0016
   1.6038E+01   1.6428E+01   1.9408E-04  0.0016
   1.6428E+01   1.6828E+01   1.9162E-04  0.0016
   1.6828E+01   1.7237E+01   1.8950E-04  0.0016
   1.7237E+01   1.7657E+01   1.8611E-04  0.0016
   1.7657E+01   1.8086E+01   1.8312E-04  0.0016
   1.8086E+01   1.8526E+01   1.8031E-04  0.0016
   1.8526E+01   1.8977E+01   1.7764E-04  0.0016
   1.8977E+01   1.9439E+01   1.7435E-04  0.0016
   1.9439E+01   1.9912E+01   1.7068E-04  0.0016
   1.9912E+01   2.0396E+01   1.8213E-04  0.0015
   2.0396E+01   2.0893E+01   1.8128E-04  0.0015
   2.0893E+01   2.1401E+01   1.7815E-04  0.0015
   2.1401E+01   2.1922E+01   1.7473E-04  0.0015
   2.1922E+01   2.2455E+01   1.7133E-04  0.0015
   2.2455E+01   2.3001E+01   1.6773E-04  0.0015
   2.3001E+01   2.3561E+01   1.6379E-04  0.0015
   2.3561E+01   2.4134E+01   1.5934E-04  0.0015
   2.4134E+01   2.4721E+01   1.5560E-04  0.0015
   2.4721E+01   2.5323E+01   1.5133E-04  0.0015
   2.5323E+01   2.5939E+01   1.4772E-04  0.0015
   2.5939E+01   2.6570E+01   1.4372E-04  0.0015
   2.6570E+01   2.7217E+01   1.3964E-04  0.0015
   2.7217E+01   2.7879E+01   1.3675E-04  0.0015
   2.7879E+01   2.8557E+01   1.3352E-04  0.0015
   2.8557E+01   2.9252E+01   1.3063E-04  0.0015
   2.9252E+01   2.9964E+01   1.2811E-04  0.0015
   2.9964E+01   3.0693E+01   1.2495E-04  0.0015
   3.0693E+01   3.1440E+01   1.2034E-04  0.0015
   3.1440E+01   3.2205E+01   1.1500E-04  0.0015
   3.2205E+01   3.2988E+01   1.0919E-04  0.0015
   3.2988E+01   3.3791E+01   1.0405E-04  0.0015
   3.3791E+01   3.4613E+01   9.8746E-05  0.0016
   3.4613E+01   3.5455E+01   9.3280E-05  0.0016
   3.5455E+01   3.6318E+01   8.8146E-05  0.0016
   3.6318E+01   3.7201E+01   8.2874E-05  0.0017
   3.7201E+01   3.8106E+01   7.8139E-05  0.0017
   3.8106E+01   3.9034E+01   7.3086E-05  0.0017
   3.9034E+01   3.9983E+01   6.7782E-05  0.0018
   3.9983E+01   4.0956E+01   6.2894E-05  0.0018
   4.0956E+01   4.1953E+01   5.7862E-05  0.0019
   4.1953E+01   4.2973E+01   5.2443E-05  0.0019
   4.2973E+01   4.4019E+01   4.7531E-05  0.0020
   4.4019E+01   4.5090E+01   4.2125E-05  0.0021
   4.5090E+01   4.6187E+01   3.7620E-05  0.0022
   4.6187E+01   4.7311E+01   3.3922E-05  0.0023
   4.7311E+01   4.8462E+01   3.0292E-05  0.0024
   4.8462E+01   4.9641E+01   2.7157E-05  0.0025
   4.9641E+01   5.0849E+01   2.4017E-05  0.0026
   5.0849E+01   5.2086E+01   2.1227E-05  0.0028
   5.2086E+01   5.3353E+01   1.8442E-05  0.0029
   5.3353E+01   5.4651E+01   1.5875E-05  0.0031
   5.4651E+01   5.5981E+01   1.3511E-05  0.0033
   5.5981E+01   5.7343E+01   1.1427E-05  0.0036
   5.7343E+01   5.8738E+01   9.4383E-06  0.0039
   5.8738E+01   6.0168E+01   7.6223E-06  0.0043
   6.0168E+01   6.1632E+01   6.0308E-06  0.0048
   6.1632E+01   6.3131E+01   4.6531E-06  0.0054
   6.3131E+01   6.4667E+01   3.4389E-06  0.0062
   6.4667E+01   6.6240E+01   2.4376E-06  0.0072
   6.6240E+01   6.7852E+01   1.5757E-06  0.0089
   6.7852E+01   6.9503E+01   9.4215E-07  0.0113
   6.9503E+01   7.1194E+01   5.0808E-07  0.0153
   7.1194E+01   7.2926E+01   2.2849E-07  0.0225
   7.2926E+01   7.4701E+01   6.7405E-08  0.0409
   7.4701E+01   7.6518E+01   8.1429E-09  0.1162
   7.6518E+01   7.8380E+01   3.2228E-10  0.5774
   7.8380E+01   8.0287E+01   0.0000E+00  0.0000
   8.0287E+01   8.2240E+01   0.0000E+00  0.0000
   8.2240E+01   8.4241E+01   0.0000E+00  0.0000
   8.4241E+01   8.6291E+01   0.0000E+00  0.0000
   8.6291E+01   8.8391E+01   0.0000E+00  0.0000
   8.8391E+01   9.0541E+01   0.0000E+00  0.0000
   9.0541E+01   9.2744E+01   0.0000E+00  0.0000
   9.2744E+01   9.5001E+01   0.0000E+00  0.0000
   9.5001E+01   9.7312E+01   0.0000E+00  0.0000
   9.7312E+01   9.9680E+01   0.0000E+00  0.0000
   9.9680E+01   1.0211E+02   0.0000E+00  0.0000
   1.0211E+02   1.0459E+02   0.0000E+00  0.0000
   1.0459E+02   1.0713E+02   0.0000E+00  0.0000
   1.0713E+02   1.0974E+02   0.0000E+00  0.0000
   1.0974E+02   1.1241E+02   0.0000E+00  0.0000
   1.1241E+02   1.1515E+02   0.0000E+00  0.0000
   1.1515E+02   1.1795E+02   0.0000E+00  0.0000
   1.1795E+02   1.2082E+02   0.0000E+00  0.0000
   1.2082E+02   1.2376E+02   0.0000E+00  0.0000
   1.2376E+02   1.2677E+02   0.0000E+00  0.0000
   1.2677E+02   1.2985E+02   0.0000E+00  0.0000
   1.2985E+02   1.3301E+02   0.0000E+00  0.0000
   1.3301E+02   1.3625E+02   0.0000E+00  0.0000
   1.3625E+02   1.3956E+02   0.0000E+00  0.0000
   1.3956E+02   1.4296E+02   0.0000E+00  0.0000
   1.4296E+02   1.4644E+02   0.0000E+00  0.0000
   1.4644E+02   1.5000E+02   0.0000E+00  0.0000

#   sum over                 5.6209E-05
'no. =    1   reg = 109 - 209'
msuc: {\huge [t-cross] in region mesh}
msdr: {\it plotted by \ANGEL \version}
msdl: {\it calculated by \PHITS  3.26}
wt: s(0.7)
\vspace{-3}
  region surface crossing
  area  &=&   1.0000E+00 [cm^2]
e:
 
# Information for Restart Calculation
# This calculation was newly started
# istdev =  2 # 1:Batch variance, 2:History variance
# resc2  = 5.00000000000000000E+09 # Total source weight or Total source weight / maxcas
# resc3  = 5.00000000000000000E+09 # Total history number or Total batch number
# maxcas =   100000000 # History / Batch, only used for istdev=1
# bitrseed = 0110100000100010111000001110001111001110100100011111101000111001 # bit data of rseed
