[ T-Cross ]
    title = [t-cross] in region mesh
     mesh =  reg            # mesh type is region-wise
      reg =    1            # number of crossing regions
      non     r-from    r-to       area
      1       107       207        1.000000    
   e-type =    3            # e-mesh is log given by emin, emax and ne
     emin =  1.0000000E-02  # minimum value of e-mesh points
     emax =   150.0000      # maximum value of e-mesh points
#    edel =  2.4039514E-02  # mesh width of e-mesh points
       ne =    400          # number of e-mesh points
#    data = ( e(i), i = 1, ne + 1 )
#           1.00000E-02  1.02433E-02  1.04925E-02  1.07478E-02  1.10093E-02
#           1.12772E-02  1.15516E-02  1.18326E-02  1.21205E-02  1.24154E-02
#           1.27175E-02  1.30269E-02  1.33439E-02  1.36686E-02  1.40011E-02
#           1.43418E-02  1.46907E-02  1.50482E-02  1.54143E-02  1.57894E-02
#           1.61735E-02  1.65670E-02  1.69701E-02  1.73830E-02  1.78060E-02
#           1.82392E-02  1.86830E-02  1.91375E-02  1.96032E-02  2.00801E-02
#           2.05687E-02  2.10692E-02  2.15818E-02  2.21069E-02  2.26448E-02
#           2.31957E-02  2.37601E-02  2.43382E-02  2.49304E-02  2.55369E-02
#           2.61583E-02  2.67947E-02  2.74467E-02  2.81145E-02  2.87985E-02
#           2.94992E-02  3.02169E-02  3.09521E-02  3.17052E-02  3.24766E-02
#           3.32668E-02  3.40762E-02  3.49053E-02  3.57546E-02  3.66246E-02
#           3.75157E-02  3.84284E-02  3.93634E-02  4.03212E-02  4.13022E-02
#           4.23071E-02  4.33365E-02  4.43909E-02  4.54710E-02  4.65773E-02
#           4.77106E-02  4.88714E-02  5.00605E-02  5.12785E-02  5.25262E-02
#           5.38042E-02  5.51133E-02  5.64542E-02  5.78278E-02  5.92348E-02
#           6.06760E-02  6.21523E-02  6.36645E-02  6.52135E-02  6.68002E-02
#           6.84255E-02  7.00904E-02  7.17957E-02  7.35426E-02  7.53319E-02
#           7.71648E-02  7.90423E-02  8.09655E-02  8.29354E-02  8.49533E-02
#           8.70203E-02  8.91376E-02  9.13064E-02  9.35279E-02  9.58035E-02
#           9.81345E-02  1.00522E-01  1.02968E-01  1.05473E-01  1.08040E-01
#           1.10668E-01  1.13361E-01  1.16119E-01  1.18944E-01  1.21838E-01
#           1.24803E-01  1.27839E-01  1.30950E-01  1.34136E-01  1.37399E-01
#           1.40742E-01  1.44167E-01  1.47675E-01  1.51268E-01  1.54948E-01
#           1.58718E-01  1.62580E-01  1.66535E-01  1.70587E-01  1.74738E-01
#           1.78989E-01  1.83344E-01  1.87805E-01  1.92375E-01  1.97055E-01
#           2.01850E-01  2.06761E-01  2.11792E-01  2.16945E-01  2.22223E-01
#           2.27630E-01  2.33169E-01  2.38842E-01  2.44653E-01  2.50605E-01
#           2.56703E-01  2.62949E-01  2.69346E-01  2.75900E-01  2.82613E-01
#           2.89489E-01  2.96532E-01  3.03747E-01  3.11138E-01  3.18708E-01
#           3.26462E-01  3.34405E-01  3.42542E-01  3.50876E-01  3.59413E-01
#           3.68158E-01  3.77116E-01  3.86291E-01  3.95690E-01  4.05317E-01
#           4.15179E-01  4.25281E-01  4.35628E-01  4.46227E-01  4.57084E-01
#           4.68205E-01  4.79597E-01  4.91266E-01  5.03219E-01  5.15463E-01
#           5.28005E-01  5.40851E-01  5.54011E-01  5.67490E-01  5.81298E-01
#           5.95441E-01  6.09929E-01  6.24769E-01  6.39970E-01  6.55541E-01
#           6.71491E-01  6.87828E-01  7.04564E-01  7.21706E-01  7.39266E-01
#           7.57253E-01  7.75678E-01  7.94551E-01  8.13883E-01  8.33685E-01
#           8.53969E-01  8.74747E-01  8.96030E-01  9.17831E-01  9.40163E-01
#           9.63038E-01  9.86469E-01  1.01047E+00  1.03506E+00  1.06024E+00
#           1.08604E+00  1.11246E+00  1.13953E+00  1.16725E+00  1.19565E+00
#           1.22474E+00  1.25454E+00  1.28507E+00  1.31633E+00  1.34836E+00
#           1.38117E+00  1.41477E+00  1.44920E+00  1.48446E+00  1.52057E+00
#           1.55757E+00  1.59547E+00  1.63429E+00  1.67405E+00  1.71478E+00
#           1.75650E+00  1.79924E+00  1.84302E+00  1.88786E+00  1.93379E+00
#           1.98084E+00  2.02904E+00  2.07841E+00  2.12898E+00  2.18078E+00
#           2.23384E+00  2.28819E+00  2.34386E+00  2.40089E+00  2.45930E+00
#           2.51914E+00  2.58043E+00  2.64322E+00  2.70753E+00  2.77341E+00
#           2.84088E+00  2.91001E+00  2.98081E+00  3.05333E+00  3.12762E+00
#           3.20372E+00  3.28167E+00  3.36152E+00  3.44330E+00  3.52708E+00
#           3.61290E+00  3.70080E+00  3.79085E+00  3.88308E+00  3.97756E+00
#           4.07434E+00  4.17347E+00  4.27501E+00  4.37903E+00  4.48557E+00
#           4.59471E+00  4.70650E+00  4.82102E+00  4.93832E+00  5.05847E+00
#           5.18155E+00  5.30762E+00  5.43676E+00  5.56904E+00  5.70453E+00
#           5.84333E+00  5.98550E+00  6.13114E+00  6.28031E+00  6.43312E+00
#           6.58964E+00  6.74997E+00  6.91420E+00  7.08243E+00  7.25475E+00
#           7.43126E+00  7.61207E+00  7.79728E+00  7.98700E+00  8.18133E+00
#           8.38038E+00  8.58428E+00  8.79315E+00  9.00709E+00  9.22624E+00
#           9.45072E+00  9.68067E+00  9.91620E+00  1.01575E+01  1.04046E+01
#           1.06578E+01  1.09171E+01  1.11827E+01  1.14548E+01  1.17335E+01
#           1.20190E+01  1.23114E+01  1.26109E+01  1.29178E+01  1.32321E+01
#           1.35540E+01  1.38838E+01  1.42216E+01  1.45676E+01  1.49221E+01
#           1.52851E+01  1.56570E+01  1.60380E+01  1.64282E+01  1.68279E+01
#           1.72374E+01  1.76568E+01  1.80864E+01  1.85264E+01  1.89772E+01
#           1.94389E+01  1.99119E+01  2.03963E+01  2.08926E+01  2.14009E+01
#           2.19216E+01  2.24550E+01  2.30014E+01  2.35610E+01  2.41343E+01
#           2.47215E+01  2.53230E+01  2.59391E+01  2.65702E+01  2.72167E+01
#           2.78789E+01  2.85572E+01  2.92520E+01  2.99637E+01  3.06928E+01
#           3.14396E+01  3.22045E+01  3.29881E+01  3.37907E+01  3.46128E+01
#           3.54550E+01  3.63177E+01  3.72013E+01  3.81064E+01  3.90336E+01
#           3.99833E+01  4.09561E+01  4.19526E+01  4.29734E+01  4.40189E+01
#           4.50900E+01  4.61870E+01  4.73108E+01  4.84619E+01  4.96410E+01
#           5.08488E+01  5.20860E+01  5.33533E+01  5.46514E+01  5.59812E+01
#           5.73432E+01  5.87384E+01  6.01676E+01  6.16315E+01  6.31311E+01
#           6.46671E+01  6.62405E+01  6.78522E+01  6.95031E+01  7.11941E+01
#           7.29263E+01  7.47007E+01  7.65182E+01  7.83800E+01  8.02870E+01
#           8.22405E+01  8.42414E+01  8.62911E+01  8.83906E+01  9.05412E+01
#           9.27442E+01  9.50007E+01  9.73122E+01  9.96799E+01  1.02105E+02
#           1.04589E+02  1.07134E+02  1.09741E+02  1.12411E+02  1.15146E+02
#           1.17948E+02  1.20817E+02  1.23757E+02  1.26768E+02  1.29852E+02
#           1.33012E+02  1.36248E+02  1.39563E+02  1.42959E+02  1.46437E+02
#           1.50000E+02
     unit =    2            # unit is [1/cm^2/(MeV/n)/source]
     axis =  eng            # axis of output
     file = detector-08.out  # file name of output for the above axis
   output = f-curr          # surface crossing forward current spectrum
     part =  neutron  
# kf/name :  2112     
#    used :        main (  %)        temp (  %)       total (  %)
#  memory :         414 (  0)           0 (  0)         414 (  0)

#------------------------------------------------------------------------------
#newpage:
#   no. =    1   reg = 107 - 207

x: Energy [MeV/n]
y:  F-Curr [1/cm^2/(MeV/n)/source]         
p: xlog ylog afac(0.8) form(0.9)
h: n            x            y(neutron ),hh0l   n 
#  e-lower      e-upper      neutron     r.err 
   1.0000E-02   1.0243E-02   3.4547E-04  0.1530
   1.0243E-02   1.0493E-02   2.8599E-04  0.1666
   1.0493E-02   1.0748E-02   2.0369E-04  0.1961
   1.0748E-02   1.1009E-02   2.0873E-04  0.1888
   1.1009E-02   1.1277E-02   1.9174E-04  0.1939
   1.1277E-02   1.1552E-02   2.2979E-04  0.1769
   1.1552E-02   1.1833E-02   1.9068E-04  0.1914
   1.1833E-02   1.2121E-02   2.5377E-04  0.1645
   1.2121E-02   1.2415E-02   1.7164E-04  0.1958
   1.2415E-02   1.2718E-02   1.8558E-04  0.1866
   1.2718E-02   1.3027E-02   1.6266E-04  0.1988
   1.3027E-02   1.3344E-02   1.9743E-04  0.1781
   1.3344E-02   1.3669E-02   1.6834E-04  0.1903
   1.3669E-02   1.4001E-02   1.2759E-04  0.2128
   1.4001E-02   1.4342E-02   1.3875E-04  0.2041
   1.4342E-02   1.4691E-02   1.8140E-04  0.1767
   1.4691E-02   1.5048E-02   1.4637E-04  0.1950
   1.5048E-02   1.5414E-02   1.7825E-04  0.1723
   1.5414E-02   1.5789E-02   1.6801E-04  0.1755
   1.5789E-02   1.6174E-02   2.1511E-04  0.1532
   1.6174E-02   1.6567E-02   2.0557E-04  0.1565
   1.6567E-02   1.6970E-02   1.7118E-04  0.1696
   1.6970E-02   1.7383E-02   1.5989E-04  0.1723
   1.7383E-02   1.7806E-02   8.8856E-05  0.2276
   1.7806E-02   1.8239E-02   1.5786E-04  0.1689
   1.8239E-02   1.8683E-02   1.7052E-04  0.1614
   1.8683E-02   1.9138E-02   1.2972E-04  0.1829
   1.9138E-02   1.9603E-02   1.2746E-04  0.1808
   1.9603E-02   2.0080E-02   1.1869E-04  0.1871
   2.0080E-02   2.0569E-02   1.5752E-04  0.1604
   2.0569E-02   2.1069E-02   1.5450E-04  0.1600
   2.1069E-02   2.1582E-02   1.3991E-04  0.1657
   2.1582E-02   2.2107E-02   1.7895E-04  0.1449
   2.2107E-02   2.2645E-02   1.1067E-04  0.1818
   2.2645E-02   2.3196E-02   1.0990E-04  0.1810
   2.3196E-02   2.3760E-02   7.7303E-05  0.2116
   2.3760E-02   2.4338E-02   1.0725E-04  0.1782
   2.4338E-02   2.4930E-02   8.1058E-05  0.2041
   2.4930E-02   2.5537E-02   1.3064E-04  0.1578
   2.5537E-02   2.6158E-02   1.2444E-04  0.1600
   2.6158E-02   2.6795E-02   8.8410E-05  0.1881
   2.6795E-02   2.7447E-02   9.2033E-05  0.1826
   2.7447E-02   2.8114E-02   7.9265E-05  0.1929
   2.8114E-02   2.8799E-02   9.1073E-05  0.1759
   2.8799E-02   2.9499E-02   9.6942E-05  0.1700
   2.9499E-02   3.0217E-02   6.1304E-05  0.2132
   3.0217E-02   3.0952E-02   9.1483E-05  0.1711
   3.0952E-02   3.1705E-02   9.7805E-05  0.1636
   3.1705E-02   3.2477E-02   7.1325E-05  0.1868
   3.2477E-02   3.3267E-02   6.7467E-05  0.1923
   3.3267E-02   3.4076E-02   6.8345E-05  0.1888
   3.4076E-02   3.4905E-02   8.1046E-05  0.1699
   3.4905E-02   3.5755E-02   5.6850E-05  0.2009
   3.5755E-02   3.6625E-02   5.2425E-05  0.2071
   3.6625E-02   3.7516E-02   5.0082E-05  0.2071
   3.7516E-02   3.8428E-02   8.3623E-05  0.1616
   3.8428E-02   3.9363E-02   6.2348E-05  0.1848
   3.9363E-02   4.0321E-02   4.0098E-05  0.2272
   4.0321E-02   4.1302E-02   5.3621E-05  0.1940
   4.1302E-02   4.2307E-02   7.4297E-05  0.1631
   4.2307E-02   4.3337E-02   6.8599E-05  0.1677
   4.3337E-02   4.4391E-02   9.5902E-05  0.1400
   4.4391E-02   4.5471E-02   4.8748E-05  0.1920
   4.5471E-02   4.6577E-02   4.1838E-05  0.2051
   4.6577E-02   4.7711E-02   5.2681E-05  0.1814
   4.7711E-02   4.8871E-02   7.6054E-05  0.1494
   4.8871E-02   5.0061E-02   7.4806E-05  0.1493
   5.0061E-02   5.1279E-02   4.5633E-05  0.1874
   5.1279E-02   5.2526E-02   4.1081E-05  0.1955
   5.2526E-02   5.3804E-02   4.9003E-05  0.1780
   5.3804E-02   5.5113E-02   6.2392E-05  0.1555
   5.5113E-02   5.6454E-02   7.3752E-05  0.1417
   5.6454E-02   5.7828E-02   4.8785E-05  0.1704
   5.7828E-02   5.9235E-02   5.1919E-05  0.1645
   5.9235E-02   6.0676E-02   4.3799E-05  0.1766
   6.0676E-02   6.2152E-02   3.8352E-05  0.1871
   6.2152E-02   6.3665E-02   4.2543E-05  0.1759
   6.3665E-02   6.5214E-02   4.8418E-05  0.1617
   6.5214E-02   6.6800E-02   4.8528E-05  0.1606
   6.6800E-02   6.8426E-02   5.2498E-05  0.1524
   6.8426E-02   7.0090E-02   3.1212E-05  0.1937
   7.0090E-02   7.1796E-02   2.7361E-05  0.2058
   7.1796E-02   7.3543E-02   3.4348E-05  0.1826
   7.3543E-02   7.5332E-02   3.2185E-05  0.1831
   7.5332E-02   7.7165E-02   3.7048E-05  0.1687
   7.7165E-02   7.9042E-02   3.9240E-05  0.1636
   7.9042E-02   8.0965E-02   3.1916E-05  0.1773
   8.0965E-02   8.2935E-02   2.5032E-05  0.1998
   8.2935E-02   8.4953E-02   3.8159E-05  0.1606
   8.4953E-02   8.7020E-02   3.0587E-05  0.1764
   8.7020E-02   8.9138E-02   4.1246E-05  0.1507
   8.9138E-02   9.1306E-02   3.0103E-05  0.1736
   9.1306E-02   9.3528E-02   3.0000E-05  0.1712
   9.3528E-02   9.5804E-02   3.0166E-05  0.1700
   9.5804E-02   9.8134E-02   3.5173E-05  0.1549
   9.8134E-02   1.0052E-01   3.2901E-05  0.1577
   1.0052E-01   1.0297E-01   3.3224E-05  0.1559
   1.0297E-01   1.0547E-01   2.3300E-05  0.1846
   1.0547E-01   1.0804E-01   2.3593E-05  0.1810
   1.0804E-01   1.1067E-01   2.4047E-05  0.1750
   1.1067E-01   1.1336E-01   2.0312E-05  0.1885
   1.1336E-01   1.1612E-01   2.6180E-05  0.1647
   1.1612E-01   1.1894E-01   1.8405E-05  0.1942
   1.1894E-01   1.2184E-01   2.4660E-05  0.1649
   1.2184E-01   1.2480E-01   2.4472E-05  0.1655
   1.2480E-01   1.2784E-01   2.2938E-05  0.1678
   1.2784E-01   1.3095E-01   2.1219E-05  0.1741
   1.3095E-01   1.3414E-01   2.4350E-05  0.1595
   1.3414E-01   1.3740E-01   2.1892E-05  0.1647
   1.3740E-01   1.4074E-01   2.3635E-05  0.1569
   1.4074E-01   1.4417E-01   2.4625E-05  0.1528
   1.4417E-01   1.4767E-01   1.6915E-05  0.1824
   1.4767E-01   1.5127E-01   2.3667E-05  0.1526
   1.5127E-01   1.5495E-01   1.3278E-05  0.1980
   1.5495E-01   1.5872E-01   1.9047E-05  0.1656
   1.5872E-01   1.6258E-01   1.6998E-05  0.1732
   1.6258E-01   1.6654E-01   2.3757E-05  0.1449
   1.6654E-01   1.7059E-01   1.9395E-05  0.1590
   1.7059E-01   1.7474E-01   1.6957E-05  0.1682
   1.7474E-01   1.7899E-01   1.9287E-05  0.1562
   1.7899E-01   1.8334E-01   2.0644E-05  0.1481
   1.8334E-01   1.8781E-01   1.7256E-05  0.1603
   1.8781E-01   1.9237E-01   1.7263E-05  0.1575
   1.9237E-01   1.9706E-01   1.9702E-05  0.1460
   1.9706E-01   2.0185E-01   1.9690E-05  0.1445
   2.0185E-01   2.0676E-01   2.3063E-05  0.1319
   2.0676E-01   2.1179E-01   1.9698E-05  0.1400
   2.1179E-01   2.1694E-01   2.1070E-05  0.1348
   2.1694E-01   2.2222E-01   1.5780E-05  0.1543
   2.2222E-01   2.2763E-01   2.2700E-05  0.1268
   2.2763E-01   2.3317E-01   2.0449E-05  0.1325
   2.3317E-01   2.3884E-01   2.2243E-05  0.1240
   2.3884E-01   2.4465E-01   2.9019E-05  0.1081
   2.4465E-01   2.5061E-01   2.7600E-05  0.1095
   2.5061E-01   2.5670E-01   3.2066E-05  0.1005
   2.5670E-01   2.6295E-01   2.1211E-05  0.1216
   2.6295E-01   2.6935E-01   2.6356E-05  0.1083
   2.6935E-01   2.7590E-01   3.6918E-05  0.0905
   2.7590E-01   2.8261E-01   2.9035E-05  0.1008
   2.8261E-01   2.8949E-01   2.9902E-05  0.0983
   2.8949E-01   2.9653E-01   3.3959E-05  0.0908
   2.9653E-01   3.0375E-01   3.7044E-05  0.0863
   3.0375E-01   3.1114E-01   3.5530E-05  0.0867
   3.1114E-01   3.1871E-01   3.2128E-05  0.0899
   3.1871E-01   3.2646E-01   3.9255E-05  0.0807
   3.2646E-01   3.3441E-01   4.1469E-05  0.0772
   3.3441E-01   3.4254E-01   4.1648E-05  0.0761
   3.4254E-01   3.5088E-01   4.5157E-05  0.0724
   3.5088E-01   3.5941E-01   4.3851E-05  0.0727
   3.5941E-01   3.6816E-01   4.7413E-05  0.0692
   3.6816E-01   3.7712E-01   5.2646E-05  0.0647
   3.7712E-01   3.8629E-01   5.2761E-05  0.0641
   3.8629E-01   3.9569E-01   4.9357E-05  0.0652
   3.9569E-01   4.0532E-01   5.2830E-05  0.0623
   4.0532E-01   4.1518E-01   5.5946E-05  0.0598
   4.1518E-01   4.2528E-01   5.9478E-05  0.0574
   4.2528E-01   4.3563E-01   5.6313E-05  0.0583
   4.3563E-01   4.4623E-01   7.5597E-05  0.0497
   4.4623E-01   4.5708E-01   7.2412E-05  0.0502
   4.5708E-01   4.6821E-01   7.1672E-05  0.0497
   4.6821E-01   4.7960E-01   7.1112E-05  0.0494
   4.7960E-01   4.9127E-01   7.6896E-05  0.0468
   4.9127E-01   5.0322E-01   8.2370E-05  0.0449
   5.0322E-01   5.1546E-01   7.7300E-05  0.0457
   5.1546E-01   5.2800E-01   8.2487E-05  0.0437
   5.2800E-01   5.4085E-01   8.5646E-05  0.0424
   5.4085E-01   5.5401E-01   8.8207E-05  0.0413
   5.5401E-01   5.6749E-01   9.2284E-05  0.0400
   5.6749E-01   5.8130E-01   1.0351E-04  0.0372
   5.8130E-01   5.9544E-01   1.0153E-04  0.0371
   5.9544E-01   6.0993E-01   1.0042E-04  0.0369
   6.0993E-01   6.2477E-01   1.0228E-04  0.0361
   6.2477E-01   6.3997E-01   1.0746E-04  0.0348
   6.3997E-01   6.5554E-01   1.1403E-04  0.0334
   6.5554E-01   6.7149E-01   1.2234E-04  0.0318
   6.7149E-01   6.8783E-01   1.1990E-04  0.0318
   6.8783E-01   7.0456E-01   1.2914E-04  0.0303
   7.0456E-01   7.2171E-01   1.3673E-04  0.0291
   7.2171E-01   7.3927E-01   1.3922E-04  0.0285
   7.3927E-01   7.5725E-01   1.4008E-04  0.0280
   7.5725E-01   7.7568E-01   1.3921E-04  0.0278
   7.7568E-01   7.9455E-01   1.4844E-04  0.0266
   7.9455E-01   8.1388E-01   1.5046E-04  0.0261
   8.1388E-01   8.3368E-01   1.5055E-04  0.0258
   8.3368E-01   8.5397E-01   1.5408E-04  0.0252
   8.5397E-01   8.7475E-01   1.6916E-04  0.0237
   8.7475E-01   8.9603E-01   1.6875E-04  0.0235
   8.9603E-01   9.1783E-01   1.6978E-04  0.0231
   9.1783E-01   9.4016E-01   1.7400E-04  0.0226
   9.4016E-01   9.6304E-01   1.8013E-04  0.0219
   9.6304E-01   9.8647E-01   1.8461E-04  0.0214
   9.8647E-01   1.0105E+00   1.9344E-04  0.0207
   1.0105E+00   1.0351E+00   1.9334E-04  0.0204
   1.0351E+00   1.0602E+00   1.9507E-04  0.0201
   1.0602E+00   1.0860E+00   1.9729E-04  0.0197
   1.0860E+00   1.1125E+00   2.0567E-04  0.0191
   1.1125E+00   1.1395E+00   2.0890E-04  0.0187
   1.1395E+00   1.1673E+00   2.0721E-04  0.0186
   1.1673E+00   1.1957E+00   2.1581E-04  0.0180
   1.1957E+00   1.2247E+00   2.2420E-04  0.0174
   1.2247E+00   1.2545E+00   2.2670E-04  0.0171
   1.2545E+00   1.2851E+00   2.2720E-04  0.0169
   1.2851E+00   1.3163E+00   2.3549E-04  0.0164
   1.3163E+00   1.3484E+00   2.3282E-04  0.0163
   1.3484E+00   1.3812E+00   2.4003E-04  0.0159
   1.3812E+00   1.4148E+00   2.4937E-04  0.0154
   1.4148E+00   1.4492E+00   2.4714E-04  0.0153
   1.4492E+00   1.4845E+00   2.5756E-04  0.0148
   1.4845E+00   1.5206E+00   2.5455E-04  0.0147
   1.5206E+00   1.5576E+00   2.5540E-04  0.0145
   1.5576E+00   1.5955E+00   2.5867E-04  0.0142
   1.5955E+00   1.6343E+00   2.6050E-04  0.0140
   1.6343E+00   1.6741E+00   2.7247E-04  0.0135
   1.6741E+00   1.7148E+00   2.6932E-04  0.0134
   1.7148E+00   1.7565E+00   2.6874E-04  0.0133
   1.7565E+00   1.7992E+00   2.8091E-04  0.0128
   1.7992E+00   1.8430E+00   2.8717E-04  0.0125
   1.8430E+00   1.8879E+00   2.8962E-04  0.0124
   1.8879E+00   1.9338E+00   2.8383E-04  0.0123
   1.9338E+00   1.9808E+00   2.9094E-04  0.0120
   1.9808E+00   2.0290E+00   2.8814E-04  0.0119
   2.0290E+00   2.0784E+00   2.9858E-04  0.0116
   2.0784E+00   2.1290E+00   2.9366E-04  0.0115
   2.1290E+00   2.1808E+00   3.0123E-04  0.0113
   2.1808E+00   2.2338E+00   2.9665E-04  0.0112
   2.2338E+00   2.2882E+00   3.0039E-04  0.0110
   2.2882E+00   2.3439E+00   3.0313E-04  0.0108
   2.3439E+00   2.4009E+00   3.0069E-04  0.0108
   2.4009E+00   2.4593E+00   3.0428E-04  0.0106
   2.4593E+00   2.5191E+00   3.1701E-04  0.0102
   2.5191E+00   2.5804E+00   3.0938E-04  0.0102
   2.5804E+00   2.6432E+00   3.0717E-04  0.0101
   2.6432E+00   2.7075E+00   3.1035E-04  0.0100
   2.7075E+00   2.7734E+00   3.0664E-04  0.0099
   2.7734E+00   2.8409E+00   3.0713E-04  0.0098
   2.8409E+00   2.9100E+00   3.1125E-04  0.0096
   2.9100E+00   2.9808E+00   3.0416E-04  0.0096
   2.9808E+00   3.0533E+00   3.1408E-04  0.0093
   3.0533E+00   3.1276E+00   3.0842E-04  0.0093
   3.1276E+00   3.2037E+00   3.1070E-04  0.0092
   3.2037E+00   3.2817E+00   3.0875E-04  0.0091
   3.2817E+00   3.3615E+00   3.0319E-04  0.0091
   3.3615E+00   3.4433E+00   3.0391E-04  0.0089
   3.4433E+00   3.5271E+00   3.0150E-04  0.0089
   3.5271E+00   3.6129E+00   3.0023E-04  0.0088
   3.6129E+00   3.7008E+00   3.0147E-04  0.0087
   3.7008E+00   3.7908E+00   2.9854E-04  0.0086
   3.7908E+00   3.8831E+00   2.9529E-04  0.0085
   3.8831E+00   3.9776E+00   2.9380E-04  0.0085
   3.9776E+00   4.0743E+00   2.9380E-04  0.0084
   4.0743E+00   4.1735E+00   2.8670E-04  0.0084
   4.1735E+00   4.2750E+00   2.8293E-04  0.0083
   4.2750E+00   4.3790E+00   2.8028E-04  0.0083
   4.3790E+00   4.4856E+00   2.7861E-04  0.0082
   4.4856E+00   4.5947E+00   2.7679E-04  0.0081
   4.5947E+00   4.7065E+00   2.7407E-04  0.0080
   4.7065E+00   4.8210E+00   2.7044E-04  0.0080
   4.8210E+00   4.9383E+00   2.7146E-04  0.0079
   4.9383E+00   5.0585E+00   2.6472E-04  0.0079
   5.0585E+00   5.1815E+00   2.6128E-04  0.0079
   5.1815E+00   5.3076E+00   2.5828E-04  0.0078
   5.3076E+00   5.4368E+00   2.5423E-04  0.0078
   5.4368E+00   5.5690E+00   2.4726E-04  0.0078
   5.5690E+00   5.7045E+00   2.4645E-04  0.0077
   5.7045E+00   5.8433E+00   2.4368E-04  0.0077
   5.8433E+00   5.9855E+00   2.3575E-04  0.0077
   5.9855E+00   6.1311E+00   2.3341E-04  0.0076
   6.1311E+00   6.2803E+00   2.2847E-04  0.0076
   6.2803E+00   6.4331E+00   2.2580E-04  0.0076
   6.4331E+00   6.5896E+00   2.1950E-04  0.0076
   6.5896E+00   6.7500E+00   2.1106E-04  0.0077
   6.7500E+00   6.9142E+00   2.1009E-04  0.0076
   6.9142E+00   7.0824E+00   2.0314E-04  0.0076
   7.0824E+00   7.2548E+00   1.9739E-04  0.0076
   7.2548E+00   7.4313E+00   1.9016E-04  0.0077
   7.4313E+00   7.6121E+00   1.8878E-04  0.0076
   7.6121E+00   7.7973E+00   1.7876E-04  0.0078
   7.7973E+00   7.9870E+00   1.7459E-04  0.0078
   7.9870E+00   8.1813E+00   1.6663E-04  0.0078
   8.1813E+00   8.3804E+00   1.6230E-04  0.0079
   8.3804E+00   8.5843E+00   1.5326E-04  0.0080
   8.5843E+00   8.7931E+00   1.4712E-04  0.0081
   8.7931E+00   9.0071E+00   1.4542E-04  0.0080
   9.0071E+00   9.2262E+00   1.3605E-04  0.0082
   9.2262E+00   9.4507E+00   1.2909E-04  0.0083
   9.4507E+00   9.6807E+00   1.2456E-04  0.0083
   9.6807E+00   9.9162E+00   1.2064E-04  0.0084
   9.9162E+00   1.0157E+01   1.1449E-04  0.0085
   1.0157E+01   1.0405E+01   1.0867E-04  0.0086
   1.0405E+01   1.0658E+01   1.0365E-04  0.0087
   1.0658E+01   1.0917E+01   9.8338E-05  0.0088
   1.0917E+01   1.1183E+01   9.5381E-05  0.0089
   1.1183E+01   1.1455E+01   9.0022E-05  0.0090
   1.1455E+01   1.1733E+01   8.5697E-05  0.0091
   1.1733E+01   1.2019E+01   8.1167E-05  0.0093
   1.2019E+01   1.2311E+01   7.8942E-05  0.0093
   1.2311E+01   1.2611E+01   7.6352E-05  0.0093
   1.2611E+01   1.2918E+01   6.9876E-05  0.0097
   1.2918E+01   1.3232E+01   6.9590E-05  0.0096
   1.3232E+01   1.3554E+01   6.5333E-05  0.0097
   1.3554E+01   1.3884E+01   6.0637E-05  0.0100
   1.3884E+01   1.4222E+01   5.6976E-05  0.0102
   1.4222E+01   1.4568E+01   5.4828E-05  0.0103
   1.4568E+01   1.4922E+01   5.2489E-05  0.0104
   1.4922E+01   1.5285E+01   4.8760E-05  0.0106
   1.5285E+01   1.5657E+01   4.6608E-05  0.0107
   1.5657E+01   1.6038E+01   4.4287E-05  0.0109
   1.6038E+01   1.6428E+01   4.0539E-05  0.0112
   1.6428E+01   1.6828E+01   3.8675E-05  0.0114
   1.6828E+01   1.7237E+01   3.6683E-05  0.0115
   1.7237E+01   1.7657E+01   3.4180E-05  0.0118
   1.7657E+01   1.8086E+01   3.1659E-05  0.0121
   1.8086E+01   1.8526E+01   2.9514E-05  0.0124
   1.8526E+01   1.8977E+01   2.7820E-05  0.0126
   1.8977E+01   1.9439E+01   2.6245E-05  0.0128
   1.9439E+01   1.9912E+01   2.5428E-05  0.0129
   1.9912E+01   2.0396E+01   2.3172E-05  0.0133
   2.0396E+01   2.0893E+01   2.1195E-05  0.0138
   2.0893E+01   2.1401E+01   1.9936E-05  0.0140
   2.1401E+01   2.1922E+01   1.8218E-05  0.0145
   2.1922E+01   2.2455E+01   1.7073E-05  0.0148
   2.2455E+01   2.3001E+01   1.5152E-05  0.0155
   2.3001E+01   2.3561E+01   1.3841E-05  0.0161
   2.3561E+01   2.4134E+01   1.2713E-05  0.0166
   2.4134E+01   2.4721E+01   1.2459E-05  0.0165
   2.4721E+01   2.5323E+01   1.1698E-05  0.0169
   2.5323E+01   2.5939E+01   1.1218E-05  0.0170
   2.5939E+01   2.6570E+01   1.0648E-05  0.0173
   2.6570E+01   2.7217E+01   1.0695E-05  0.0170
   2.7217E+01   2.7879E+01   1.0673E-05  0.0168
   2.7879E+01   2.8557E+01   1.0281E-05  0.0169
   2.8557E+01   2.9252E+01   1.0167E-05  0.0168
   2.9252E+01   2.9964E+01   9.8999E-06  0.0168
   2.9964E+01   3.0693E+01   1.0060E-05  0.0165
   3.0693E+01   3.1440E+01   9.5637E-06  0.0167
   3.1440E+01   3.2205E+01   8.9941E-06  0.0170
   3.2205E+01   3.2988E+01   8.8519E-06  0.0170
   3.2988E+01   3.3791E+01   8.8958E-06  0.0167
   3.3791E+01   3.4613E+01   8.4704E-06  0.0169
   3.4613E+01   3.5455E+01   8.7869E-06  0.0164
   3.5455E+01   3.6318E+01   8.2374E-06  0.0168
   3.6318E+01   3.7201E+01   8.1074E-06  0.0167
   3.7201E+01   3.8106E+01   8.0076E-06  0.0166
   3.8106E+01   3.9034E+01   7.2436E-06  0.0173
   3.9034E+01   3.9983E+01   6.5493E-06  0.0179
   3.9983E+01   4.0956E+01   4.5825E-06  0.0212
   4.0956E+01   4.1953E+01   2.8520E-06  0.0265
   4.1953E+01   4.2973E+01   2.1181E-06  0.0304
   4.2973E+01   4.4019E+01   8.4929E-07  0.0475
   4.4019E+01   4.5090E+01   1.8674E-08  0.3162
   4.5090E+01   4.6187E+01   0.0000E+00  0.0000
   4.6187E+01   4.7311E+01   0.0000E+00  0.0000
   4.7311E+01   4.8462E+01   0.0000E+00  0.0000
   4.8462E+01   4.9641E+01   0.0000E+00  0.0000
   4.9641E+01   5.0849E+01   0.0000E+00  0.0000
   5.0849E+01   5.2086E+01   0.0000E+00  0.0000
   5.2086E+01   5.3353E+01   0.0000E+00  0.0000
   5.3353E+01   5.4651E+01   0.0000E+00  0.0000
   5.4651E+01   5.5981E+01   0.0000E+00  0.0000
   5.5981E+01   5.7343E+01   0.0000E+00  0.0000
   5.7343E+01   5.8738E+01   0.0000E+00  0.0000
   5.8738E+01   6.0168E+01   0.0000E+00  0.0000
   6.0168E+01   6.1632E+01   0.0000E+00  0.0000
   6.1632E+01   6.3131E+01   0.0000E+00  0.0000
   6.3131E+01   6.4667E+01   0.0000E+00  0.0000
   6.4667E+01   6.6240E+01   0.0000E+00  0.0000
   6.6240E+01   6.7852E+01   0.0000E+00  0.0000
   6.7852E+01   6.9503E+01   0.0000E+00  0.0000
   6.9503E+01   7.1194E+01   0.0000E+00  0.0000
   7.1194E+01   7.2926E+01   0.0000E+00  0.0000
   7.2926E+01   7.4701E+01   0.0000E+00  0.0000
   7.4701E+01   7.6518E+01   0.0000E+00  0.0000
   7.6518E+01   7.8380E+01   0.0000E+00  0.0000
   7.8380E+01   8.0287E+01   0.0000E+00  0.0000
   8.0287E+01   8.2240E+01   0.0000E+00  0.0000
   8.2240E+01   8.4241E+01   0.0000E+00  0.0000
   8.4241E+01   8.6291E+01   0.0000E+00  0.0000
   8.6291E+01   8.8391E+01   0.0000E+00  0.0000
   8.8391E+01   9.0541E+01   0.0000E+00  0.0000
   9.0541E+01   9.2744E+01   0.0000E+00  0.0000
   9.2744E+01   9.5001E+01   0.0000E+00  0.0000
   9.5001E+01   9.7312E+01   0.0000E+00  0.0000
   9.7312E+01   9.9680E+01   0.0000E+00  0.0000
   9.9680E+01   1.0211E+02   0.0000E+00  0.0000
   1.0211E+02   1.0459E+02   0.0000E+00  0.0000
   1.0459E+02   1.0713E+02   0.0000E+00  0.0000
   1.0713E+02   1.0974E+02   0.0000E+00  0.0000
   1.0974E+02   1.1241E+02   0.0000E+00  0.0000
   1.1241E+02   1.1515E+02   0.0000E+00  0.0000
   1.1515E+02   1.1795E+02   0.0000E+00  0.0000
   1.1795E+02   1.2082E+02   0.0000E+00  0.0000
   1.2082E+02   1.2376E+02   0.0000E+00  0.0000
   1.2376E+02   1.2677E+02   0.0000E+00  0.0000
   1.2677E+02   1.2985E+02   0.0000E+00  0.0000
   1.2985E+02   1.3301E+02   0.0000E+00  0.0000
   1.3301E+02   1.3625E+02   0.0000E+00  0.0000
   1.3625E+02   1.3956E+02   0.0000E+00  0.0000
   1.3956E+02   1.4296E+02   0.0000E+00  0.0000
   1.4296E+02   1.4644E+02   0.0000E+00  0.0000
   1.4644E+02   1.5000E+02   0.0000E+00  0.0000

#   sum over                 1.9671E-05
'no. =    1   reg = 107 - 207'
msuc: {\huge [t-cross] in region mesh}
msdr: {\it plotted by \ANGEL \version}
msdl: {\it calculated by \PHITS  3.26}
wt: s(0.7)
\vspace{-3}
  region surface crossing
  area  &=&   1.0000E+00 [cm^2]
e:
 
# Information for Restart Calculation
# This calculation was newly started
# istdev =  2 # 1:Batch variance, 2:History variance
# resc2  = 5.00000000000000000E+08 # Total source weight or Total source weight / maxcas
# resc3  = 5.00000000000000000E+08 # Total history number or Total batch number
# maxcas =   500000000 # History / Batch, only used for istdev=1
# bitrseed = 1101101111010011011000101101110001100110110010110001010100010001 # bit data of rseed
