[ T-Cross ]
    title = [t-cross] in region mesh
     mesh =  reg            # mesh type is region-wise
      reg =    1            # number of crossing regions
      non     r-from    r-to       area
      1       100       200        1.000000    
   e-type =    3            # e-mesh is log given by emin, emax and ne
     emin =  1.0000000E-02  # minimum value of e-mesh points
     emax =   150.0000      # maximum value of e-mesh points
#    edel =  2.4039514E-02  # mesh width of e-mesh points
       ne =    400          # number of e-mesh points
#    data = ( e(i), i = 1, ne + 1 )
#           1.00000E-02  1.02433E-02  1.04925E-02  1.07478E-02  1.10093E-02
#           1.12772E-02  1.15516E-02  1.18326E-02  1.21205E-02  1.24154E-02
#           1.27175E-02  1.30269E-02  1.33439E-02  1.36686E-02  1.40011E-02
#           1.43418E-02  1.46907E-02  1.50482E-02  1.54143E-02  1.57894E-02
#           1.61735E-02  1.65670E-02  1.69701E-02  1.73830E-02  1.78060E-02
#           1.82392E-02  1.86830E-02  1.91375E-02  1.96032E-02  2.00801E-02
#           2.05687E-02  2.10692E-02  2.15818E-02  2.21069E-02  2.26448E-02
#           2.31957E-02  2.37601E-02  2.43382E-02  2.49304E-02  2.55369E-02
#           2.61583E-02  2.67947E-02  2.74467E-02  2.81145E-02  2.87985E-02
#           2.94992E-02  3.02169E-02  3.09521E-02  3.17052E-02  3.24766E-02
#           3.32668E-02  3.40762E-02  3.49053E-02  3.57546E-02  3.66246E-02
#           3.75157E-02  3.84284E-02  3.93634E-02  4.03212E-02  4.13022E-02
#           4.23071E-02  4.33365E-02  4.43909E-02  4.54710E-02  4.65773E-02
#           4.77106E-02  4.88714E-02  5.00605E-02  5.12785E-02  5.25262E-02
#           5.38042E-02  5.51133E-02  5.64542E-02  5.78278E-02  5.92348E-02
#           6.06760E-02  6.21523E-02  6.36645E-02  6.52135E-02  6.68002E-02
#           6.84255E-02  7.00904E-02  7.17957E-02  7.35426E-02  7.53319E-02
#           7.71648E-02  7.90423E-02  8.09655E-02  8.29354E-02  8.49533E-02
#           8.70203E-02  8.91376E-02  9.13064E-02  9.35279E-02  9.58035E-02
#           9.81345E-02  1.00522E-01  1.02968E-01  1.05473E-01  1.08040E-01
#           1.10668E-01  1.13361E-01  1.16119E-01  1.18944E-01  1.21838E-01
#           1.24803E-01  1.27839E-01  1.30950E-01  1.34136E-01  1.37399E-01
#           1.40742E-01  1.44167E-01  1.47675E-01  1.51268E-01  1.54948E-01
#           1.58718E-01  1.62580E-01  1.66535E-01  1.70587E-01  1.74738E-01
#           1.78989E-01  1.83344E-01  1.87805E-01  1.92375E-01  1.97055E-01
#           2.01850E-01  2.06761E-01  2.11792E-01  2.16945E-01  2.22223E-01
#           2.27630E-01  2.33169E-01  2.38842E-01  2.44653E-01  2.50605E-01
#           2.56703E-01  2.62949E-01  2.69346E-01  2.75900E-01  2.82613E-01
#           2.89489E-01  2.96532E-01  3.03747E-01  3.11138E-01  3.18708E-01
#           3.26462E-01  3.34405E-01  3.42542E-01  3.50876E-01  3.59413E-01
#           3.68158E-01  3.77116E-01  3.86291E-01  3.95690E-01  4.05317E-01
#           4.15179E-01  4.25281E-01  4.35628E-01  4.46227E-01  4.57084E-01
#           4.68205E-01  4.79597E-01  4.91266E-01  5.03219E-01  5.15463E-01
#           5.28005E-01  5.40851E-01  5.54011E-01  5.67490E-01  5.81298E-01
#           5.95441E-01  6.09929E-01  6.24769E-01  6.39970E-01  6.55541E-01
#           6.71491E-01  6.87828E-01  7.04564E-01  7.21706E-01  7.39266E-01
#           7.57253E-01  7.75678E-01  7.94551E-01  8.13883E-01  8.33685E-01
#           8.53969E-01  8.74747E-01  8.96030E-01  9.17831E-01  9.40163E-01
#           9.63038E-01  9.86469E-01  1.01047E+00  1.03506E+00  1.06024E+00
#           1.08604E+00  1.11246E+00  1.13953E+00  1.16725E+00  1.19565E+00
#           1.22474E+00  1.25454E+00  1.28507E+00  1.31633E+00  1.34836E+00
#           1.38117E+00  1.41477E+00  1.44920E+00  1.48446E+00  1.52057E+00
#           1.55757E+00  1.59547E+00  1.63429E+00  1.67405E+00  1.71478E+00
#           1.75650E+00  1.79924E+00  1.84302E+00  1.88786E+00  1.93379E+00
#           1.98084E+00  2.02904E+00  2.07841E+00  2.12898E+00  2.18078E+00
#           2.23384E+00  2.28819E+00  2.34386E+00  2.40089E+00  2.45930E+00
#           2.51914E+00  2.58043E+00  2.64322E+00  2.70753E+00  2.77341E+00
#           2.84088E+00  2.91001E+00  2.98081E+00  3.05333E+00  3.12762E+00
#           3.20372E+00  3.28167E+00  3.36152E+00  3.44330E+00  3.52708E+00
#           3.61290E+00  3.70080E+00  3.79085E+00  3.88308E+00  3.97756E+00
#           4.07434E+00  4.17347E+00  4.27501E+00  4.37903E+00  4.48557E+00
#           4.59471E+00  4.70650E+00  4.82102E+00  4.93832E+00  5.05847E+00
#           5.18155E+00  5.30762E+00  5.43676E+00  5.56904E+00  5.70453E+00
#           5.84333E+00  5.98550E+00  6.13114E+00  6.28031E+00  6.43312E+00
#           6.58964E+00  6.74997E+00  6.91420E+00  7.08243E+00  7.25475E+00
#           7.43126E+00  7.61207E+00  7.79728E+00  7.98700E+00  8.18133E+00
#           8.38038E+00  8.58428E+00  8.79315E+00  9.00709E+00  9.22624E+00
#           9.45072E+00  9.68067E+00  9.91620E+00  1.01575E+01  1.04046E+01
#           1.06578E+01  1.09171E+01  1.11827E+01  1.14548E+01  1.17335E+01
#           1.20190E+01  1.23114E+01  1.26109E+01  1.29178E+01  1.32321E+01
#           1.35540E+01  1.38838E+01  1.42216E+01  1.45676E+01  1.49221E+01
#           1.52851E+01  1.56570E+01  1.60380E+01  1.64282E+01  1.68279E+01
#           1.72374E+01  1.76568E+01  1.80864E+01  1.85264E+01  1.89772E+01
#           1.94389E+01  1.99119E+01  2.03963E+01  2.08926E+01  2.14009E+01
#           2.19216E+01  2.24550E+01  2.30014E+01  2.35610E+01  2.41343E+01
#           2.47215E+01  2.53230E+01  2.59391E+01  2.65702E+01  2.72167E+01
#           2.78789E+01  2.85572E+01  2.92520E+01  2.99637E+01  3.06928E+01
#           3.14396E+01  3.22045E+01  3.29881E+01  3.37907E+01  3.46128E+01
#           3.54550E+01  3.63177E+01  3.72013E+01  3.81064E+01  3.90336E+01
#           3.99833E+01  4.09561E+01  4.19526E+01  4.29734E+01  4.40189E+01
#           4.50900E+01  4.61870E+01  4.73108E+01  4.84619E+01  4.96410E+01
#           5.08488E+01  5.20860E+01  5.33533E+01  5.46514E+01  5.59812E+01
#           5.73432E+01  5.87384E+01  6.01676E+01  6.16315E+01  6.31311E+01
#           6.46671E+01  6.62405E+01  6.78522E+01  6.95031E+01  7.11941E+01
#           7.29263E+01  7.47007E+01  7.65182E+01  7.83800E+01  8.02870E+01
#           8.22405E+01  8.42414E+01  8.62911E+01  8.83906E+01  9.05412E+01
#           9.27442E+01  9.50007E+01  9.73122E+01  9.96799E+01  1.02105E+02
#           1.04589E+02  1.07134E+02  1.09741E+02  1.12411E+02  1.15146E+02
#           1.17948E+02  1.20817E+02  1.23757E+02  1.26768E+02  1.29852E+02
#           1.33012E+02  1.36248E+02  1.39563E+02  1.42959E+02  1.46437E+02
#           1.50000E+02
     unit =    2            # unit is [1/cm^2/(MeV/n)/source]
     axis =  eng            # axis of output
     file = detector-01.out  # file name of output for the above axis
   output = f-curr          # surface crossing forward current spectrum
     part =  neutron  
# kf/name :  2112     
#    used :        main (  %)        temp (  %)       total (  %)
#  memory :         414 (  0)           0 (  0)         414 (  0)

#------------------------------------------------------------------------------
#newpage:
#   no. =    1   reg = 100 - 200

x: Energy [MeV/n]
y:  F-Curr [1/cm^2/(MeV/n)/source]         
p: xlog ylog afac(0.8) form(0.9)
h: n            x            y(neutron ),hh0l   n 
#  e-lower      e-upper      neutron     r.err 
   1.0000E-02   1.0243E-02   5.2608E-05  0.1250
   1.0243E-02   1.0493E-02   5.4569E-05  0.1213
   1.0493E-02   1.0748E-02   4.5438E-05  0.1313
   1.0748E-02   1.1009E-02   5.2007E-05  0.1213
   1.1009E-02   1.1277E-02   5.8985E-05  0.1125
   1.1277E-02   1.1552E-02   4.5921E-05  0.1260
   1.1552E-02   1.1833E-02   4.9100E-05  0.1204
   1.1833E-02   1.2121E-02   5.7659E-05  0.1098
   1.2121E-02   1.2415E-02   4.6117E-05  0.1213
   1.2415E-02   1.2718E-02   4.7670E-05  0.1179
   1.2718E-02   1.3027E-02   4.3306E-05  0.1222
   1.3027E-02   1.3344E-02   4.6694E-05  0.1162
   1.3344E-02   1.3669E-02   5.3593E-05  0.1072
   1.3669E-02   1.4001E-02   5.7733E-05  0.1021
   1.4001E-02   1.4342E-02   5.0490E-05  0.1078
   1.4342E-02   1.4691E-02   4.0121E-05  0.1195
   1.4691E-02   1.5048E-02   4.4204E-05  0.1125
   1.5048E-02   1.5414E-02   4.1515E-05  0.1147
   1.5414E-02   1.5789E-02   5.1194E-05  0.1021
   1.5789E-02   1.6174E-02   5.9870E-05  0.0933
   1.6174E-02   1.6567E-02   5.9972E-05  0.0921
   1.6567E-02   1.6970E-02   5.5075E-05  0.0949
   1.6970E-02   1.7383E-02   5.0376E-05  0.0981
   1.7383E-02   1.7806E-02   4.9652E-05  0.0976
   1.7806E-02   1.8239E-02   4.3395E-05  0.1031
   1.8239E-02   1.8683E-02   5.0025E-05  0.0949
   1.8683E-02   1.9138E-02   4.4960E-05  0.0988
   1.9138E-02   1.9603E-02   5.3261E-05  0.0898
   1.9603E-02   2.0080E-02   5.1157E-05  0.0905
   2.0080E-02   2.0569E-02   4.7895E-05  0.0925
   2.0569E-02   2.1069E-02   4.5159E-05  0.0941
   2.1069E-02   2.1582E-02   5.3450E-05  0.0854
   2.1582E-02   2.2107E-02   4.8372E-05  0.0887
   2.2107E-02   2.2645E-02   4.7966E-05  0.0880
   2.2645E-02   2.3196E-02   4.1745E-05  0.0933
   2.3196E-02   2.3760E-02   5.3511E-05  0.0814
   2.3760E-02   2.4338E-02   5.1548E-05  0.0819
   2.4338E-02   2.4930E-02   4.9648E-05  0.0825
   2.4930E-02   2.5537E-02   5.0117E-05  0.0811
   2.5537E-02   2.6158E-02   5.9227E-05  0.0737
   2.6158E-02   2.6795E-02   5.3421E-05  0.0767
   2.6795E-02   2.7447E-02   5.3073E-05  0.0760
   2.7447E-02   2.8114E-02   5.5106E-05  0.0737
   2.8114E-02   2.8799E-02   4.9412E-05  0.0769
   2.8799E-02   2.9499E-02   5.8228E-05  0.0700
   2.9499E-02   3.0217E-02   5.2665E-05  0.0727
   3.0217E-02   3.0952E-02   4.3253E-05  0.0793
   3.0952E-02   3.1705E-02   5.6567E-05  0.0685
   3.1705E-02   3.2477E-02   5.7297E-05  0.0673
   3.2477E-02   3.3267E-02   5.8468E-05  0.0658
   3.3267E-02   3.4076E-02   5.2384E-05  0.0687
   3.4076E-02   3.4905E-02   5.4758E-05  0.0664
   3.4905E-02   3.5755E-02   4.8512E-05  0.0697
   3.5755E-02   3.6625E-02   5.1038E-05  0.0671
   3.6625E-02   3.7516E-02   5.5437E-05  0.0636
   3.7516E-02   3.8428E-02   5.8940E-05  0.0610
   3.8428E-02   3.9363E-02   5.7113E-05  0.0612
   3.9363E-02   4.0321E-02   4.8865E-05  0.0654
   4.0321E-02   4.1302E-02   5.3820E-05  0.0615
   4.1302E-02   4.2307E-02   4.8399E-05  0.0641
   4.2307E-02   4.3337E-02   5.4402E-05  0.0598
   4.3337E-02   4.4391E-02   5.2351E-05  0.0602
   4.4391E-02   4.5471E-02   5.4686E-05  0.0582
   4.5471E-02   4.6577E-02   5.8571E-05  0.0556
   4.6577E-02   4.7711E-02   5.2768E-05  0.0578
   4.7711E-02   4.8871E-02   5.0825E-05  0.0582
   4.8871E-02   5.0061E-02   5.6178E-05  0.0547
   5.0061E-02   5.1279E-02   5.6757E-05  0.0538
   5.1279E-02   5.2526E-02   5.2098E-05  0.0555
   5.2526E-02   5.3804E-02   5.1330E-05  0.0552
   5.3804E-02   5.5113E-02   5.7750E-05  0.0514
   5.5113E-02   5.6454E-02   4.9845E-05  0.0547
   5.6454E-02   5.7828E-02   5.4748E-05  0.0516
   5.7828E-02   5.9235E-02   5.6574E-05  0.0501
   5.9235E-02   6.0676E-02   5.1345E-05  0.0520
   6.0676E-02   6.2152E-02   5.6650E-05  0.0489
   6.2152E-02   6.3665E-02   5.8457E-05  0.0476
   6.3665E-02   6.5214E-02   5.3970E-05  0.0489
   6.5214E-02   6.6800E-02   5.5965E-05  0.0475
   6.6800E-02   6.8426E-02   5.6359E-05  0.0467
   6.8426E-02   7.0090E-02   5.4900E-05  0.0468
   7.0090E-02   7.1796E-02   5.2658E-05  0.0472
   7.1796E-02   7.3543E-02   5.6788E-05  0.0449
   7.3543E-02   7.5332E-02   5.6780E-05  0.0444
   7.5332E-02   7.7165E-02   6.0997E-05  0.0423
   7.7165E-02   7.9042E-02   5.9548E-05  0.0423
   7.9042E-02   8.0965E-02   5.7613E-05  0.0425
   8.0965E-02   8.2935E-02   5.6245E-05  0.0425
   8.2935E-02   8.4953E-02   5.9766E-05  0.0407
   8.4953E-02   8.7020E-02   6.2216E-05  0.0394
   8.7020E-02   8.9138E-02   5.7149E-05  0.0407
   8.9138E-02   9.1306E-02   5.7544E-05  0.0400
   9.1306E-02   9.3528E-02   5.9598E-05  0.0389
   9.3528E-02   9.5804E-02   5.8446E-05  0.0388
   9.5804E-02   9.8134E-02   5.9117E-05  0.0381
   9.8134E-02   1.0052E-01   5.7545E-05  0.0382
   1.0052E-01   1.0297E-01   5.5279E-05  0.0385
   1.0297E-01   1.0547E-01   6.0991E-05  0.0362
   1.0547E-01   1.0804E-01   5.8462E-05  0.0365
   1.0804E-01   1.1067E-01   6.2617E-05  0.0349
   1.1067E-01   1.1336E-01   6.5586E-05  0.0337
   1.1336E-01   1.1612E-01   6.3158E-05  0.0339
   1.1612E-01   1.1894E-01   6.3373E-05  0.0334
   1.1894E-01   1.2184E-01   6.1263E-05  0.0336
   1.2184E-01   1.2480E-01   6.0248E-05  0.0335
   1.2480E-01   1.2784E-01   5.9936E-05  0.0331
   1.2784E-01   1.3095E-01   6.2564E-05  0.0321
   1.3095E-01   1.3414E-01   6.0638E-05  0.0322
   1.3414E-01   1.3740E-01   6.1710E-05  0.0315
   1.3740E-01   1.4074E-01   6.6287E-05  0.0300
   1.4074E-01   1.4417E-01   6.6348E-05  0.0297
   1.4417E-01   1.4767E-01   6.7623E-05  0.0290
   1.4767E-01   1.5127E-01   6.2231E-05  0.0299
   1.5127E-01   1.5495E-01   6.3036E-05  0.0294
   1.5495E-01   1.5872E-01   6.4668E-05  0.0286
   1.5872E-01   1.6258E-01   6.7183E-05  0.0278
   1.6258E-01   1.6654E-01   6.7724E-05  0.0273
   1.6654E-01   1.7059E-01   6.5227E-05  0.0275
   1.7059E-01   1.7474E-01   6.4859E-05  0.0273
   1.7474E-01   1.7899E-01   6.6800E-05  0.0265
   1.7899E-01   1.8334E-01   6.8703E-05  0.0259
   1.8334E-01   1.8781E-01   6.8192E-05  0.0256
   1.8781E-01   1.9237E-01   6.5785E-05  0.0258
   1.9237E-01   1.9706E-01   7.0888E-05  0.0246
   1.9706E-01   2.0185E-01   7.3292E-05  0.0239
   2.0185E-01   2.0676E-01   6.6542E-05  0.0247
   2.0676E-01   2.1179E-01   6.8063E-05  0.0242
   2.1179E-01   2.1694E-01   6.9279E-05  0.0237
   2.1694E-01   2.2222E-01   6.7065E-05  0.0238
   2.2222E-01   2.2763E-01   6.9103E-05  0.0231
   2.2763E-01   2.3317E-01   6.9587E-05  0.0228
   2.3317E-01   2.3884E-01   7.1706E-05  0.0222
   2.3884E-01   2.4465E-01   7.1655E-05  0.0219
   2.4465E-01   2.5061E-01   7.0070E-05  0.0219
   2.5061E-01   2.5670E-01   6.9116E-05  0.0218
   2.5670E-01   2.6295E-01   7.0260E-05  0.0213
   2.6295E-01   2.6935E-01   7.0931E-05  0.0210
   2.6935E-01   2.7590E-01   6.9185E-05  0.0210
   2.7590E-01   2.8261E-01   7.1012E-05  0.0205
   2.8261E-01   2.8949E-01   7.1570E-05  0.0202
   2.8949E-01   2.9653E-01   6.9255E-05  0.0202
   2.9653E-01   3.0375E-01   7.2246E-05  0.0196
   3.0375E-01   3.1114E-01   7.3907E-05  0.0191
   3.1114E-01   3.1871E-01   7.3960E-05  0.0189
   3.1871E-01   3.2646E-01   7.2143E-05  0.0189
   3.2646E-01   3.3441E-01   7.2365E-05  0.0187
   3.3441E-01   3.4254E-01   7.1485E-05  0.0185
   3.4254E-01   3.5088E-01   7.4842E-05  0.0179
   3.5088E-01   3.5941E-01   7.2531E-05  0.0180
   3.5941E-01   3.6816E-01   6.9129E-05  0.0182
   3.6816E-01   3.7712E-01   7.4138E-05  0.0174
   3.7712E-01   3.8629E-01   7.1189E-05  0.0175
   3.8629E-01   3.9569E-01   7.3584E-05  0.0170
   3.9569E-01   4.0532E-01   7.1943E-05  0.0170
   4.0532E-01   4.1518E-01   7.2482E-05  0.0167
   4.1518E-01   4.2528E-01   7.2325E-05  0.0165
   4.2528E-01   4.3563E-01   7.2461E-05  0.0163
   4.3563E-01   4.4623E-01   7.1995E-05  0.0162
   4.4623E-01   4.5708E-01   7.0044E-05  0.0162
   4.5708E-01   4.6821E-01   7.2672E-05  0.0157
   4.6821E-01   4.7960E-01   6.9342E-05  0.0159
   4.7960E-01   4.9127E-01   7.0722E-05  0.0156
   4.9127E-01   5.0322E-01   7.2716E-05  0.0152
   5.0322E-01   5.1546E-01   7.0625E-05  0.0152
   5.1546E-01   5.2800E-01   6.9164E-05  0.0152
   5.2800E-01   5.4085E-01   6.9984E-05  0.0149
   5.4085E-01   5.5401E-01   7.0409E-05  0.0147
   5.5401E-01   5.6749E-01   6.8836E-05  0.0147
   5.6749E-01   5.8130E-01   6.8007E-05  0.0146
   5.8130E-01   5.9544E-01   6.9413E-05  0.0143
   5.9544E-01   6.0993E-01   6.5519E-05  0.0145
   6.0993E-01   6.2477E-01   6.5859E-05  0.0143
   6.2477E-01   6.3997E-01   6.5785E-05  0.0141
   6.3997E-01   6.5554E-01   6.4902E-05  0.0141
   6.5554E-01   6.7149E-01   6.4079E-05  0.0140
   6.7149E-01   6.8783E-01   6.2681E-05  0.0140
   6.8783E-01   7.0456E-01   6.2813E-05  0.0138
   7.0456E-01   7.2171E-01   6.0060E-05  0.0139
   7.2171E-01   7.3927E-01   5.9978E-05  0.0138
   7.3927E-01   7.5725E-01   6.0103E-05  0.0136
   7.5725E-01   7.7568E-01   5.8094E-05  0.0137
   7.7568E-01   7.9455E-01   5.6320E-05  0.0137
   7.9455E-01   8.1388E-01   5.4344E-05  0.0138
   8.1388E-01   8.3368E-01   5.3843E-05  0.0137
   8.3368E-01   8.5397E-01   5.3309E-05  0.0136
   8.5397E-01   8.7475E-01   5.0781E-05  0.0138
   8.7475E-01   8.9603E-01   4.8675E-05  0.0139
   8.9603E-01   9.1783E-01   4.7934E-05  0.0138
   9.1783E-01   9.4016E-01   4.7593E-05  0.0137
   9.4016E-01   9.6304E-01   4.5092E-05  0.0139
   9.6304E-01   9.8647E-01   4.2058E-05  0.0142
   9.8647E-01   1.0105E+00   4.1864E-05  0.0141
   1.0105E+00   1.0351E+00   4.0850E-05  0.0141
   1.0351E+00   1.0602E+00   4.0472E-05  0.0140
   1.0602E+00   1.0860E+00   4.0258E-05  0.0139
   1.0860E+00   1.1125E+00   4.1390E-05  0.0135
   1.1125E+00   1.1395E+00   4.1813E-05  0.0133
   1.1395E+00   1.1673E+00   4.1924E-05  0.0131
   1.1673E+00   1.1957E+00   4.2351E-05  0.0129
   1.1957E+00   1.2247E+00   4.1356E-05  0.0129
   1.2247E+00   1.2545E+00   4.2512E-05  0.0126
   1.2545E+00   1.2851E+00   4.2603E-05  0.0124
   1.2851E+00   1.3163E+00   4.2062E-05  0.0123
   1.3163E+00   1.3484E+00   4.1438E-05  0.0123
   1.3484E+00   1.3812E+00   4.2472E-05  0.0120
   1.3812E+00   1.4148E+00   4.1852E-05  0.0119
   1.4148E+00   1.4492E+00   4.1578E-05  0.0118
   1.4492E+00   1.4845E+00   4.0361E-05  0.0119
   1.4845E+00   1.5206E+00   4.0636E-05  0.0117
   1.5206E+00   1.5576E+00   4.0392E-05  0.0116
   1.5576E+00   1.5955E+00   4.0012E-05  0.0115
   1.5955E+00   1.6343E+00   3.9692E-05  0.0114
   1.6343E+00   1.6741E+00   3.9419E-05  0.0113
   1.6741E+00   1.7148E+00   3.8409E-05  0.0113
   1.7148E+00   1.7565E+00   3.8530E-05  0.0112
   1.7565E+00   1.7992E+00   3.8215E-05  0.0111
   1.7992E+00   1.8430E+00   3.6708E-05  0.0112
   1.8430E+00   1.8879E+00   3.5806E-05  0.0112
   1.8879E+00   1.9338E+00   3.6010E-05  0.0110
   1.9338E+00   1.9808E+00   3.5205E-05  0.0110
   1.9808E+00   2.0290E+00   3.4809E-05  0.0109
   2.0290E+00   2.0784E+00   3.3934E-05  0.0109
   2.0784E+00   2.1290E+00   3.2459E-05  0.0110
   2.1290E+00   2.1808E+00   3.2292E-05  0.0109
   2.1808E+00   2.2338E+00   3.1368E-05  0.0110
   2.2338E+00   2.2882E+00   2.9956E-05  0.0111
   2.2882E+00   2.3439E+00   2.8903E-05  0.0111
   2.3439E+00   2.4009E+00   2.8741E-05  0.0110
   2.4009E+00   2.4593E+00   2.7946E-05  0.0111
   2.4593E+00   2.5191E+00   2.7281E-05  0.0111
   2.5191E+00   2.5804E+00   2.6416E-05  0.0111
   2.5804E+00   2.6432E+00   2.5607E-05  0.0111
   2.6432E+00   2.7075E+00   2.4413E-05  0.0113
   2.7075E+00   2.7734E+00   2.3485E-05  0.0114
   2.7734E+00   2.8409E+00   2.2888E-05  0.0114
   2.8409E+00   2.9100E+00   2.1621E-05  0.0116
   2.9100E+00   2.9808E+00   2.1393E-05  0.0115
   2.9808E+00   3.0533E+00   2.0262E-05  0.0117
   3.0533E+00   3.1276E+00   1.9763E-05  0.0117
   3.1276E+00   3.2037E+00   1.8962E-05  0.0118
   3.2037E+00   3.2817E+00   1.8369E-05  0.0118
   3.2817E+00   3.3615E+00   1.7728E-05  0.0119
   3.3615E+00   3.4433E+00   1.6539E-05  0.0121
   3.4433E+00   3.5271E+00   1.6678E-05  0.0119
   3.5271E+00   3.6129E+00   1.6114E-05  0.0120
   3.6129E+00   3.7008E+00   1.5119E-05  0.0122
   3.7008E+00   3.7908E+00   1.4865E-05  0.0122
   3.7908E+00   3.8831E+00   1.4211E-05  0.0123
   3.8831E+00   3.9776E+00   1.3666E-05  0.0124
   3.9776E+00   4.0743E+00   1.3008E-05  0.0126
   4.0743E+00   4.1735E+00   1.2771E-05  0.0125
   4.1735E+00   4.2750E+00   1.2251E-05  0.0127
   4.2750E+00   4.3790E+00   1.1800E-05  0.0127
   4.3790E+00   4.4856E+00   1.1168E-05  0.0129
   4.4856E+00   4.5947E+00   1.0633E-05  0.0131
   4.5947E+00   4.7065E+00   1.0382E-05  0.0131
   4.7065E+00   4.8210E+00   9.8571E-06  0.0133
   4.8210E+00   4.9383E+00   9.7062E-06  0.0132
   4.9383E+00   5.0585E+00   9.3753E-06  0.0133
   5.0585E+00   5.1815E+00   9.0058E-06  0.0134
   5.1815E+00   5.3076E+00   8.4345E-06  0.0137
   5.3076E+00   5.4368E+00   8.0693E-06  0.0138
   5.4368E+00   5.5690E+00   8.0280E-06  0.0137
   5.5690E+00   5.7045E+00   7.5755E-06  0.0139
   5.7045E+00   5.8433E+00   7.4743E-06  0.0139
   5.8433E+00   5.9855E+00   7.1916E-06  0.0140
   5.9855E+00   6.1311E+00   6.9199E-06  0.0141
   6.1311E+00   6.2803E+00   6.7596E-06  0.0141
   6.2803E+00   6.4331E+00   6.5598E-06  0.0141
   6.4331E+00   6.5896E+00   6.2647E-06  0.0143
   6.5896E+00   6.7500E+00   5.9607E-06  0.0144
   6.7500E+00   6.9142E+00   5.9119E-06  0.0143
   6.9142E+00   7.0824E+00   5.5698E-06  0.0146
   7.0824E+00   7.2548E+00   5.5220E-06  0.0145
   7.2548E+00   7.4313E+00   5.4489E-06  0.0144
   7.4313E+00   7.6121E+00   5.1403E-06  0.0147
   7.6121E+00   7.7973E+00   5.0716E-06  0.0146
   7.7973E+00   7.9870E+00   5.0661E-06  0.0144
   7.9870E+00   8.1813E+00   4.9865E-06  0.0144
   8.1813E+00   8.3804E+00   4.9501E-06  0.0142
   8.3804E+00   8.5843E+00   4.7291E-06  0.0144
   8.5843E+00   8.7931E+00   4.5414E-06  0.0145
   8.7931E+00   9.0071E+00   4.6638E-06  0.0141
   9.0071E+00   9.2262E+00   4.5735E-06  0.0141
   9.2262E+00   9.4507E+00   4.5262E-06  0.0140
   9.4507E+00   9.6807E+00   4.4665E-06  0.0139
   9.6807E+00   9.9162E+00   4.4004E-06  0.0139
   9.9162E+00   1.0157E+01   4.3219E-06  0.0138
   1.0157E+01   1.0405E+01   4.2315E-06  0.0138
   1.0405E+01   1.0658E+01   4.2845E-06  0.0136
   1.0658E+01   1.0917E+01   4.2804E-06  0.0134
   1.0917E+01   1.1183E+01   4.1639E-06  0.0134
   1.1183E+01   1.1455E+01   4.3187E-06  0.0130
   1.1455E+01   1.1733E+01   4.1376E-06  0.0132
   1.1733E+01   1.2019E+01   4.1441E-06  0.0130
   1.2019E+01   1.2311E+01   4.2193E-06  0.0127
   1.2311E+01   1.2611E+01   4.2397E-06  0.0125
   1.2611E+01   1.2918E+01   4.1584E-06  0.0125
   1.2918E+01   1.3232E+01   4.1880E-06  0.0123
   1.3232E+01   1.3554E+01   4.1135E-06  0.0123
   1.3554E+01   1.3884E+01   4.1995E-06  0.0120
   1.3884E+01   1.4222E+01   4.1922E-06  0.0119
   1.4222E+01   1.4568E+01   4.2764E-06  0.0116
   1.4568E+01   1.4922E+01   4.2292E-06  0.0115
   1.4922E+01   1.5285E+01   4.3033E-06  0.0113
   1.5285E+01   1.5657E+01   4.3733E-06  0.0111
   1.5657E+01   1.6038E+01   4.3556E-06  0.0110
   1.6038E+01   1.6428E+01   4.4380E-06  0.0107
   1.6428E+01   1.6828E+01   4.5172E-06  0.0105
   1.6828E+01   1.7237E+01   4.4366E-06  0.0105
   1.7237E+01   1.7657E+01   4.4623E-06  0.0103
   1.7657E+01   1.8086E+01   4.5553E-06  0.0101
   1.8086E+01   1.8526E+01   4.6046E-06  0.0099
   1.8526E+01   1.8977E+01   4.6625E-06  0.0098
   1.8977E+01   1.9439E+01   4.7101E-06  0.0096
   1.9439E+01   1.9912E+01   4.7431E-06  0.0094
   1.9912E+01   2.0396E+01   4.6314E-06  0.0094
   2.0396E+01   2.0893E+01   4.6568E-06  0.0093
   2.0893E+01   2.1401E+01   4.6784E-06  0.0092
   2.1401E+01   2.1922E+01   4.6660E-06  0.0091
   2.1922E+01   2.2455E+01   4.6774E-06  0.0090
   2.2455E+01   2.3001E+01   4.6220E-06  0.0089
   2.3001E+01   2.3561E+01   4.5361E-06  0.0089
   2.3561E+01   2.4134E+01   4.4681E-06  0.0088
   2.4134E+01   2.4721E+01   4.4015E-06  0.0088
   2.4721E+01   2.5323E+01   4.3548E-06  0.0087
   2.5323E+01   2.5939E+01   4.3150E-06  0.0087
   2.5939E+01   2.6570E+01   4.3092E-06  0.0086
   2.6570E+01   2.7217E+01   4.1929E-06  0.0086
   2.7217E+01   2.7879E+01   4.1072E-06  0.0086
   2.7879E+01   2.8557E+01   3.9672E-06  0.0086
   2.8557E+01   2.9252E+01   3.8816E-06  0.0086
   2.9252E+01   2.9964E+01   3.8124E-06  0.0086
   2.9964E+01   3.0693E+01   3.7331E-06  0.0086
   3.0693E+01   3.1440E+01   3.7473E-06  0.0085
   3.1440E+01   3.2205E+01   3.5652E-06  0.0086
   3.2205E+01   3.2988E+01   3.4729E-06  0.0086
   3.2988E+01   3.3791E+01   3.4833E-06  0.0085
   3.3791E+01   3.4613E+01   3.3198E-06  0.0086
   3.4613E+01   3.5455E+01   3.2697E-06  0.0085
   3.5455E+01   3.6318E+01   3.1677E-06  0.0086
   3.6318E+01   3.7201E+01   3.0211E-06  0.0087
   3.7201E+01   3.8106E+01   2.8685E-06  0.0088
   3.8106E+01   3.9034E+01   2.7922E-06  0.0088
   3.9034E+01   3.9983E+01   2.6875E-06  0.0089
   3.9983E+01   4.0956E+01   2.5801E-06  0.0089
   4.0956E+01   4.1953E+01   2.4377E-06  0.0091
   4.1953E+01   4.2973E+01   2.2830E-06  0.0093
   4.2973E+01   4.4019E+01   2.2219E-06  0.0093
   4.4019E+01   4.5090E+01   2.1103E-06  0.0094
   4.5090E+01   4.6187E+01   2.0312E-06  0.0095
   4.6187E+01   4.7311E+01   1.8988E-06  0.0097
   4.7311E+01   4.8462E+01   1.8221E-06  0.0098
   4.8462E+01   4.9641E+01   1.7121E-06  0.0100
   4.9641E+01   5.0849E+01   1.6195E-06  0.0101
   5.0849E+01   5.2086E+01   1.4977E-06  0.0104
   5.2086E+01   5.3353E+01   1.3509E-06  0.0108
   5.3353E+01   5.4651E+01   1.2948E-06  0.0109
   5.4651E+01   5.5981E+01   1.1724E-06  0.0113
   5.5981E+01   5.7343E+01   1.0239E-06  0.0120
   5.7343E+01   5.8738E+01   9.1298E-07  0.0125
   5.8738E+01   6.0168E+01   7.8984E-07  0.0133
   6.0168E+01   6.1632E+01   6.6848E-07  0.0143
   6.1632E+01   6.3131E+01   5.3856E-07  0.0157
   6.3131E+01   6.4667E+01   3.9231E-07  0.0182
   6.4667E+01   6.6240E+01   2.4279E-07  0.0229
   6.6240E+01   6.7852E+01   4.6535E-08  0.0516
   6.7852E+01   6.9503E+01   1.2115E-10  1.0000
   6.9503E+01   7.1194E+01   0.0000E+00  0.0000
   7.1194E+01   7.2926E+01   0.0000E+00  0.0000
   7.2926E+01   7.4701E+01   0.0000E+00  0.0000
   7.4701E+01   7.6518E+01   0.0000E+00  0.0000
   7.6518E+01   7.8380E+01   0.0000E+00  0.0000
   7.8380E+01   8.0287E+01   0.0000E+00  0.0000
   8.0287E+01   8.2240E+01   0.0000E+00  0.0000
   8.2240E+01   8.4241E+01   0.0000E+00  0.0000
   8.4241E+01   8.6291E+01   0.0000E+00  0.0000
   8.6291E+01   8.8391E+01   0.0000E+00  0.0000
   8.8391E+01   9.0541E+01   0.0000E+00  0.0000
   9.0541E+01   9.2744E+01   0.0000E+00  0.0000
   9.2744E+01   9.5001E+01   0.0000E+00  0.0000
   9.5001E+01   9.7312E+01   0.0000E+00  0.0000
   9.7312E+01   9.9680E+01   0.0000E+00  0.0000
   9.9680E+01   1.0211E+02   0.0000E+00  0.0000
   1.0211E+02   1.0459E+02   0.0000E+00  0.0000
   1.0459E+02   1.0713E+02   0.0000E+00  0.0000
   1.0713E+02   1.0974E+02   0.0000E+00  0.0000
   1.0974E+02   1.1241E+02   0.0000E+00  0.0000
   1.1241E+02   1.1515E+02   0.0000E+00  0.0000
   1.1515E+02   1.1795E+02   0.0000E+00  0.0000
   1.1795E+02   1.2082E+02   0.0000E+00  0.0000
   1.2082E+02   1.2376E+02   0.0000E+00  0.0000
   1.2376E+02   1.2677E+02   0.0000E+00  0.0000
   1.2677E+02   1.2985E+02   0.0000E+00  0.0000
   1.2985E+02   1.3301E+02   0.0000E+00  0.0000
   1.3301E+02   1.3625E+02   0.0000E+00  0.0000
   1.3625E+02   1.3956E+02   0.0000E+00  0.0000
   1.3956E+02   1.4296E+02   0.0000E+00  0.0000
   1.4296E+02   1.4644E+02   0.0000E+00  0.0000
   1.4644E+02   1.5000E+02   0.0000E+00  0.0000

#   sum over                 2.2671E-06
'no. =    1   reg = 100 - 200'
msuc: {\huge [t-cross] in region mesh}
msdr: {\it plotted by \ANGEL \version}
msdl: {\it calculated by \PHITS  3.26}
wt: s(0.7)
\vspace{-3}
  region surface crossing
  area  &=&   1.0000E+00 [cm^2]
e:
 
# Information for Restart Calculation
# This calculation was newly started
# istdev =  2 # 1:Batch variance, 2:History variance
# resc2  = 5.00000000000000000E+09 # Total source weight or Total source weight / maxcas
# resc3  = 5.00000000000000000E+09 # Total history number or Total batch number
# maxcas =   100000000 # History / Batch, only used for istdev=1
# bitrseed = 0110100000100010111000001110001111001110100100011111101000111001 # bit data of rseed
