[ T-Cross ]
    title = [t-cross] in region mesh
     mesh =  reg            # mesh type is region-wise
      reg =    1            # number of crossing regions
      non     r-from    r-to       area
      1       114       214        1.000000    
   e-type =    3            # e-mesh is log given by emin, emax and ne
     emin =  1.0000000E-02  # minimum value of e-mesh points
     emax =   150.0000      # maximum value of e-mesh points
#    edel =  2.4039514E-02  # mesh width of e-mesh points
       ne =    400          # number of e-mesh points
#    data = ( e(i), i = 1, ne + 1 )
#           1.00000E-02  1.02433E-02  1.04925E-02  1.07478E-02  1.10093E-02
#           1.12772E-02  1.15516E-02  1.18326E-02  1.21205E-02  1.24154E-02
#           1.27175E-02  1.30269E-02  1.33439E-02  1.36686E-02  1.40011E-02
#           1.43418E-02  1.46907E-02  1.50482E-02  1.54143E-02  1.57894E-02
#           1.61735E-02  1.65670E-02  1.69701E-02  1.73830E-02  1.78060E-02
#           1.82392E-02  1.86830E-02  1.91375E-02  1.96032E-02  2.00801E-02
#           2.05687E-02  2.10692E-02  2.15818E-02  2.21069E-02  2.26448E-02
#           2.31957E-02  2.37601E-02  2.43382E-02  2.49304E-02  2.55369E-02
#           2.61583E-02  2.67947E-02  2.74467E-02  2.81145E-02  2.87985E-02
#           2.94992E-02  3.02169E-02  3.09521E-02  3.17052E-02  3.24766E-02
#           3.32668E-02  3.40762E-02  3.49053E-02  3.57546E-02  3.66246E-02
#           3.75157E-02  3.84284E-02  3.93634E-02  4.03212E-02  4.13022E-02
#           4.23071E-02  4.33365E-02  4.43909E-02  4.54710E-02  4.65773E-02
#           4.77106E-02  4.88714E-02  5.00605E-02  5.12785E-02  5.25262E-02
#           5.38042E-02  5.51133E-02  5.64542E-02  5.78278E-02  5.92348E-02
#           6.06760E-02  6.21523E-02  6.36645E-02  6.52135E-02  6.68002E-02
#           6.84255E-02  7.00904E-02  7.17957E-02  7.35426E-02  7.53319E-02
#           7.71648E-02  7.90423E-02  8.09655E-02  8.29354E-02  8.49533E-02
#           8.70203E-02  8.91376E-02  9.13064E-02  9.35279E-02  9.58035E-02
#           9.81345E-02  1.00522E-01  1.02968E-01  1.05473E-01  1.08040E-01
#           1.10668E-01  1.13361E-01  1.16119E-01  1.18944E-01  1.21838E-01
#           1.24803E-01  1.27839E-01  1.30950E-01  1.34136E-01  1.37399E-01
#           1.40742E-01  1.44167E-01  1.47675E-01  1.51268E-01  1.54948E-01
#           1.58718E-01  1.62580E-01  1.66535E-01  1.70587E-01  1.74738E-01
#           1.78989E-01  1.83344E-01  1.87805E-01  1.92375E-01  1.97055E-01
#           2.01850E-01  2.06761E-01  2.11792E-01  2.16945E-01  2.22223E-01
#           2.27630E-01  2.33169E-01  2.38842E-01  2.44653E-01  2.50605E-01
#           2.56703E-01  2.62949E-01  2.69346E-01  2.75900E-01  2.82613E-01
#           2.89489E-01  2.96532E-01  3.03747E-01  3.11138E-01  3.18708E-01
#           3.26462E-01  3.34405E-01  3.42542E-01  3.50876E-01  3.59413E-01
#           3.68158E-01  3.77116E-01  3.86291E-01  3.95690E-01  4.05317E-01
#           4.15179E-01  4.25281E-01  4.35628E-01  4.46227E-01  4.57084E-01
#           4.68205E-01  4.79597E-01  4.91266E-01  5.03219E-01  5.15463E-01
#           5.28005E-01  5.40851E-01  5.54011E-01  5.67490E-01  5.81298E-01
#           5.95441E-01  6.09929E-01  6.24769E-01  6.39970E-01  6.55541E-01
#           6.71491E-01  6.87828E-01  7.04564E-01  7.21706E-01  7.39266E-01
#           7.57253E-01  7.75678E-01  7.94551E-01  8.13883E-01  8.33685E-01
#           8.53969E-01  8.74747E-01  8.96030E-01  9.17831E-01  9.40163E-01
#           9.63038E-01  9.86469E-01  1.01047E+00  1.03506E+00  1.06024E+00
#           1.08604E+00  1.11246E+00  1.13953E+00  1.16725E+00  1.19565E+00
#           1.22474E+00  1.25454E+00  1.28507E+00  1.31633E+00  1.34836E+00
#           1.38117E+00  1.41477E+00  1.44920E+00  1.48446E+00  1.52057E+00
#           1.55757E+00  1.59547E+00  1.63429E+00  1.67405E+00  1.71478E+00
#           1.75650E+00  1.79924E+00  1.84302E+00  1.88786E+00  1.93379E+00
#           1.98084E+00  2.02904E+00  2.07841E+00  2.12898E+00  2.18078E+00
#           2.23384E+00  2.28819E+00  2.34386E+00  2.40089E+00  2.45930E+00
#           2.51914E+00  2.58043E+00  2.64322E+00  2.70753E+00  2.77341E+00
#           2.84088E+00  2.91001E+00  2.98081E+00  3.05333E+00  3.12762E+00
#           3.20372E+00  3.28167E+00  3.36152E+00  3.44330E+00  3.52708E+00
#           3.61290E+00  3.70080E+00  3.79085E+00  3.88308E+00  3.97756E+00
#           4.07434E+00  4.17347E+00  4.27501E+00  4.37903E+00  4.48557E+00
#           4.59471E+00  4.70650E+00  4.82102E+00  4.93832E+00  5.05847E+00
#           5.18155E+00  5.30762E+00  5.43676E+00  5.56904E+00  5.70453E+00
#           5.84333E+00  5.98550E+00  6.13114E+00  6.28031E+00  6.43312E+00
#           6.58964E+00  6.74997E+00  6.91420E+00  7.08243E+00  7.25475E+00
#           7.43126E+00  7.61207E+00  7.79728E+00  7.98700E+00  8.18133E+00
#           8.38038E+00  8.58428E+00  8.79315E+00  9.00709E+00  9.22624E+00
#           9.45072E+00  9.68067E+00  9.91620E+00  1.01575E+01  1.04046E+01
#           1.06578E+01  1.09171E+01  1.11827E+01  1.14548E+01  1.17335E+01
#           1.20190E+01  1.23114E+01  1.26109E+01  1.29178E+01  1.32321E+01
#           1.35540E+01  1.38838E+01  1.42216E+01  1.45676E+01  1.49221E+01
#           1.52851E+01  1.56570E+01  1.60380E+01  1.64282E+01  1.68279E+01
#           1.72374E+01  1.76568E+01  1.80864E+01  1.85264E+01  1.89772E+01
#           1.94389E+01  1.99119E+01  2.03963E+01  2.08926E+01  2.14009E+01
#           2.19216E+01  2.24550E+01  2.30014E+01  2.35610E+01  2.41343E+01
#           2.47215E+01  2.53230E+01  2.59391E+01  2.65702E+01  2.72167E+01
#           2.78789E+01  2.85572E+01  2.92520E+01  2.99637E+01  3.06928E+01
#           3.14396E+01  3.22045E+01  3.29881E+01  3.37907E+01  3.46128E+01
#           3.54550E+01  3.63177E+01  3.72013E+01  3.81064E+01  3.90336E+01
#           3.99833E+01  4.09561E+01  4.19526E+01  4.29734E+01  4.40189E+01
#           4.50900E+01  4.61870E+01  4.73108E+01  4.84619E+01  4.96410E+01
#           5.08488E+01  5.20860E+01  5.33533E+01  5.46514E+01  5.59812E+01
#           5.73432E+01  5.87384E+01  6.01676E+01  6.16315E+01  6.31311E+01
#           6.46671E+01  6.62405E+01  6.78522E+01  6.95031E+01  7.11941E+01
#           7.29263E+01  7.47007E+01  7.65182E+01  7.83800E+01  8.02870E+01
#           8.22405E+01  8.42414E+01  8.62911E+01  8.83906E+01  9.05412E+01
#           9.27442E+01  9.50007E+01  9.73122E+01  9.96799E+01  1.02105E+02
#           1.04589E+02  1.07134E+02  1.09741E+02  1.12411E+02  1.15146E+02
#           1.17948E+02  1.20817E+02  1.23757E+02  1.26768E+02  1.29852E+02
#           1.33012E+02  1.36248E+02  1.39563E+02  1.42959E+02  1.46437E+02
#           1.50000E+02
     unit =    2            # unit is [1/cm^2/(MeV/n)/source]
     axis =  eng            # axis of output
     file = detector-15.out  # file name of output for the above axis
   output = f-curr          # surface crossing forward current spectrum
     part =  neutron  
# kf/name :  2112     
#    used :        main (  %)        temp (  %)       total (  %)
#  memory :         414 (  0)           0 (  0)         414 (  0)

#------------------------------------------------------------------------------
#newpage:
#   no. =    1   reg = 114 - 214

x: Energy [MeV/n]
y:  F-Curr [1/cm^2/(MeV/n)/source]         
p: xlog ylog afac(0.8) form(0.9)
h: n            x            y(neutron ),hh0l   n 
#  e-lower      e-upper      neutron     r.err 
   1.0000E-02   1.0243E-02   1.8246E-04  0.0667
   1.0243E-02   1.0493E-02   1.7641E-04  0.0672
   1.0493E-02   1.0748E-02   1.7100E-04  0.0674
   1.0748E-02   1.1009E-02   1.5948E-04  0.0690
   1.1009E-02   1.1277E-02   1.5301E-04  0.0697
   1.1277E-02   1.1552E-02   1.5149E-04  0.0691
   1.1552E-02   1.1833E-02   1.7227E-04  0.0641
   1.1833E-02   1.2121E-02   1.5599E-04  0.0665
   1.2121E-02   1.2415E-02   1.5065E-04  0.0669
   1.2415E-02   1.2718E-02   1.5733E-04  0.0647
   1.2718E-02   1.3027E-02   1.3861E-04  0.0682
   1.3027E-02   1.3344E-02   1.2626E-04  0.0705
   1.3344E-02   1.3669E-02   1.3457E-04  0.0676
   1.3669E-02   1.4001E-02   1.3647E-04  0.0661
   1.4001E-02   1.4342E-02   1.1900E-04  0.0700
   1.4342E-02   1.4691E-02   1.2809E-04  0.0667
   1.4691E-02   1.5048E-02   1.3738E-04  0.0637
   1.5048E-02   1.5414E-02   1.2207E-04  0.0667
   1.5414E-02   1.5789E-02   1.2434E-04  0.0653
   1.5789E-02   1.6174E-02   1.1177E-04  0.0681
   1.6174E-02   1.6567E-02   1.1740E-04  0.0656
   1.6567E-02   1.6970E-02   1.2516E-04  0.0628
   1.6970E-02   1.7383E-02   1.0406E-04  0.0680
   1.7383E-02   1.7806E-02   1.1045E-04  0.0651
   1.7806E-02   1.8239E-02   1.1569E-04  0.0630
   1.8239E-02   1.8683E-02   9.4174E-05  0.0689
   1.8683E-02   1.9138E-02   9.7556E-05  0.0670
   1.9138E-02   1.9603E-02   1.0565E-04  0.0635
   1.9603E-02   2.0080E-02   1.0225E-04  0.0638
   2.0080E-02   2.0569E-02   9.3816E-05  0.0658
   2.0569E-02   2.1069E-02   9.1680E-05  0.0657
   2.1069E-02   2.1582E-02   9.1194E-05  0.0653
   2.1582E-02   2.2107E-02   8.6508E-05  0.0661
   2.2107E-02   2.2645E-02   7.8433E-05  0.0686
   2.2645E-02   2.3196E-02   8.3384E-05  0.0658
   2.3196E-02   2.3760E-02   8.7261E-05  0.0636
   2.3760E-02   2.4338E-02   7.4285E-05  0.0679
   2.4338E-02   2.4930E-02   7.7642E-05  0.0657
   2.4930E-02   2.5537E-02   7.5754E-05  0.0657
   2.5537E-02   2.6158E-02   7.5205E-05  0.0652
   2.6158E-02   2.6795E-02   7.5500E-05  0.0643
   2.6795E-02   2.7447E-02   7.4136E-05  0.0641
   2.7447E-02   2.8114E-02   7.7008E-05  0.0622
   2.8114E-02   2.8799E-02   7.2217E-05  0.0635
   2.8799E-02   2.9499E-02   6.8639E-05  0.0643
   2.9499E-02   3.0217E-02   7.1112E-05  0.0624
   3.0217E-02   3.0952E-02   6.6217E-05  0.0639
   3.0952E-02   3.1705E-02   6.0249E-05  0.0661
   3.1705E-02   3.2477E-02   6.0775E-05  0.0650
   3.2477E-02   3.3267E-02   6.7418E-05  0.0611
   3.3267E-02   3.4076E-02   5.8233E-05  0.0649
   3.4076E-02   3.4905E-02   5.7967E-05  0.0643
   3.4905E-02   3.5755E-02   5.3944E-05  0.0658
   3.5755E-02   3.6625E-02   5.7499E-05  0.0631
   3.6625E-02   3.7516E-02   5.5661E-05  0.0632
   3.7516E-02   3.8428E-02   5.2580E-05  0.0643
   3.8428E-02   3.9363E-02   5.6274E-05  0.0615
   3.9363E-02   4.0321E-02   5.0945E-05  0.0637
   4.0321E-02   4.1302E-02   5.4311E-05  0.0610
   4.1302E-02   4.2307E-02   4.6840E-05  0.0649
   4.2307E-02   4.3337E-02   4.8614E-05  0.0630
   4.3337E-02   4.4391E-02   4.4436E-05  0.0651
   4.4391E-02   4.5471E-02   5.1078E-05  0.0600
   4.5471E-02   4.6577E-02   4.6980E-05  0.0619
   4.6577E-02   4.7711E-02   4.6501E-05  0.0614
   4.7711E-02   4.8871E-02   4.8112E-05  0.0597
   4.8871E-02   5.0061E-02   4.5301E-05  0.0607
   5.0061E-02   5.1279E-02   3.6604E-05  0.0668
   5.1279E-02   5.2526E-02   3.3065E-05  0.0694
   5.2526E-02   5.3804E-02   4.2248E-05  0.0607
   5.3804E-02   5.5113E-02   4.3722E-05  0.0589
   5.5113E-02   5.6454E-02   4.0597E-05  0.0604
   5.6454E-02   5.7828E-02   3.8290E-05  0.0615
   5.7828E-02   5.9235E-02   3.4871E-05  0.0637
   5.9235E-02   6.0676E-02   3.5459E-05  0.0623
   6.0676E-02   6.2152E-02   3.3978E-05  0.0629
   6.2152E-02   6.3665E-02   3.7140E-05  0.0595
   6.3665E-02   6.5214E-02   3.3871E-05  0.0615
   6.5214E-02   6.6800E-02   3.4103E-05  0.0607
   6.6800E-02   6.8426E-02   3.4398E-05  0.0596
   6.8426E-02   7.0090E-02   3.4058E-05  0.0592
   7.0090E-02   7.1796E-02   2.9926E-05  0.0625
   7.1796E-02   7.3543E-02   3.2880E-05  0.0588
   7.3543E-02   7.5332E-02   3.5804E-05  0.0556
   7.5332E-02   7.7165E-02   3.1971E-05  0.0583
   7.7165E-02   7.9042E-02   2.9877E-05  0.0596
   7.9042E-02   8.0965E-02   3.0430E-05  0.0583
   8.0965E-02   8.2935E-02   3.2568E-05  0.0557
   8.2935E-02   8.4953E-02   2.5470E-05  0.0622
   8.4953E-02   8.7020E-02   2.9210E-05  0.0574
   8.7020E-02   8.9138E-02   2.6456E-05  0.0596
   8.9138E-02   9.1306E-02   2.7228E-05  0.0580
   9.1306E-02   9.3528E-02   2.8397E-05  0.0560
   9.3528E-02   9.5804E-02   3.1913E-05  0.0523
   9.5804E-02   9.8134E-02   2.9044E-05  0.0542
   9.8134E-02   1.0052E-01   2.7055E-05  0.0555
   1.0052E-01   1.0297E-01   3.1429E-05  0.0509
   1.0297E-01   1.0547E-01   3.1420E-05  0.0502
   1.0547E-01   1.0804E-01   2.9985E-05  0.0509
   1.0804E-01   1.1067E-01   3.0735E-05  0.0496
   1.1067E-01   1.1336E-01   3.3528E-05  0.0469
   1.1336E-01   1.1612E-01   3.3935E-05  0.0461
   1.1612E-01   1.1894E-01   3.4865E-05  0.0450
   1.1894E-01   1.2184E-01   3.6963E-05  0.0431
   1.2184E-01   1.2480E-01   3.9656E-05  0.0411
   1.2480E-01   1.2784E-01   3.9958E-05  0.0405
   1.2784E-01   1.3095E-01   4.4150E-05  0.0381
   1.3095E-01   1.3414E-01   4.2805E-05  0.0382
   1.3414E-01   1.3740E-01   4.9849E-05  0.0350
   1.3740E-01   1.4074E-01   4.9620E-05  0.0346
   1.4074E-01   1.4417E-01   5.0141E-05  0.0340
   1.4417E-01   1.4767E-01   5.4772E-05  0.0322
   1.4767E-01   1.5127E-01   5.7156E-05  0.0311
   1.5127E-01   1.5495E-01   5.6107E-05  0.0310
   1.5495E-01   1.5872E-01   6.2363E-05  0.0291
   1.5872E-01   1.6258E-01   6.6154E-05  0.0279
   1.6258E-01   1.6654E-01   6.6022E-05  0.0276
   1.6654E-01   1.7059E-01   7.1601E-05  0.0262
   1.7059E-01   1.7474E-01   7.3993E-05  0.0255
   1.7474E-01   1.7899E-01   7.7968E-05  0.0245
   1.7899E-01   1.8334E-01   8.3398E-05  0.0234
   1.8334E-01   1.8781E-01   8.3514E-05  0.0231
   1.8781E-01   1.9237E-01   8.8189E-05  0.0222
   1.9237E-01   1.9706E-01   9.1999E-05  0.0215
   1.9706E-01   2.0185E-01   1.0166E-04  0.0202
   2.0185E-01   2.0676E-01   1.0028E-04  0.0201
   2.0676E-01   2.1179E-01   1.0491E-04  0.0194
   2.1179E-01   2.1694E-01   1.0997E-04  0.0188
   2.1694E-01   2.2222E-01   1.1342E-04  0.0182
   2.2222E-01   2.2763E-01   1.1749E-04  0.0177
   2.2763E-01   2.3317E-01   1.1731E-04  0.0175
   2.3317E-01   2.3884E-01   1.2725E-04  0.0166
   2.3884E-01   2.4465E-01   1.3608E-04  0.0159
   2.4465E-01   2.5061E-01   1.3851E-04  0.0155
   2.5061E-01   2.5670E-01   1.4259E-04  0.0151
   2.5670E-01   2.6295E-01   1.5053E-04  0.0145
   2.6295E-01   2.6935E-01   1.5303E-04  0.0143
   2.6935E-01   2.7590E-01   1.5921E-04  0.0138
   2.7590E-01   2.8261E-01   1.6359E-04  0.0135
   2.8261E-01   2.8949E-01   1.7157E-04  0.0130
   2.8949E-01   2.9653E-01   1.7887E-04  0.0126
   2.9653E-01   3.0375E-01   1.8254E-04  0.0123
   3.0375E-01   3.1114E-01   1.8504E-04  0.0121
   3.1114E-01   3.1871E-01   1.8969E-04  0.0118
   3.1871E-01   3.2646E-01   1.9811E-04  0.0114
   3.2646E-01   3.3441E-01   2.0557E-04  0.0110
   3.3441E-01   3.4254E-01   2.1294E-04  0.0107
   3.4254E-01   3.5088E-01   2.1850E-04  0.0105
   3.5088E-01   3.5941E-01   2.2118E-04  0.0103
   3.5941E-01   3.6816E-01   2.2769E-04  0.0100
   3.6816E-01   3.7712E-01   2.3642E-04  0.0097
   3.7712E-01   3.8629E-01   2.4197E-04  0.0095
   3.8629E-01   3.9569E-01   2.4411E-04  0.0093
   3.9569E-01   4.0532E-01   2.5086E-04  0.0091
   4.0532E-01   4.1518E-01   2.5400E-04  0.0089
   4.1518E-01   4.2528E-01   2.6062E-04  0.0087
   4.2528E-01   4.3563E-01   2.6183E-04  0.0086
   4.3563E-01   4.4623E-01   2.6445E-04  0.0084
   4.4623E-01   4.5708E-01   2.6999E-04  0.0082
   4.5708E-01   4.6821E-01   2.7100E-04  0.0081
   4.6821E-01   4.7960E-01   2.7652E-04  0.0079
   4.7960E-01   4.9127E-01   2.7417E-04  0.0079
   4.9127E-01   5.0322E-01   2.7771E-04  0.0077
   5.0322E-01   5.1546E-01   2.8504E-04  0.0075
   5.1546E-01   5.2800E-01   2.8411E-04  0.0075
   5.2800E-01   5.4085E-01   2.9027E-04  0.0073
   5.4085E-01   5.5401E-01   2.9073E-04  0.0072
   5.5401E-01   5.6749E-01   2.9257E-04  0.0071
   5.6749E-01   5.8130E-01   2.9120E-04  0.0070
   5.8130E-01   5.9544E-01   2.9354E-04  0.0069
   5.9544E-01   6.0993E-01   3.0131E-04  0.0067
   6.0993E-01   6.2477E-01   3.0082E-04  0.0067
   6.2477E-01   6.3997E-01   2.9984E-04  0.0066
   6.3997E-01   6.5554E-01   2.9900E-04  0.0065
   6.5554E-01   6.7149E-01   3.0044E-04  0.0064
   6.7149E-01   6.8783E-01   2.9861E-04  0.0064
   6.8783E-01   7.0456E-01   2.9636E-04  0.0063
   7.0456E-01   7.2171E-01   2.9871E-04  0.0062
   7.2171E-01   7.3927E-01   2.9799E-04  0.0062
   7.3927E-01   7.5725E-01   3.0103E-04  0.0061
   7.5725E-01   7.7568E-01   2.9650E-04  0.0060
   7.7568E-01   7.9455E-01   2.9303E-04  0.0060
   7.9455E-01   8.1388E-01   2.9359E-04  0.0059
   8.1388E-01   8.3368E-01   2.9428E-04  0.0058
   8.3368E-01   8.5397E-01   2.9117E-04  0.0058
   8.5397E-01   8.7475E-01   2.8873E-04  0.0057
   8.7475E-01   8.9603E-01   2.8814E-04  0.0057
   8.9603E-01   9.1783E-01   2.8569E-04  0.0056
   9.1783E-01   9.4016E-01   2.8094E-04  0.0056
   9.4016E-01   9.6304E-01   2.7707E-04  0.0056
   9.6304E-01   9.8647E-01   2.7286E-04  0.0056
   9.8647E-01   1.0105E+00   2.7173E-04  0.0055
   1.0105E+00   1.0351E+00   2.6660E-04  0.0055
   1.0351E+00   1.0602E+00   2.6435E-04  0.0054
   1.0602E+00   1.0860E+00   2.6160E-04  0.0054
   1.0860E+00   1.1125E+00   2.6266E-04  0.0053
   1.1125E+00   1.1395E+00   2.6203E-04  0.0053
   1.1395E+00   1.1673E+00   2.6228E-04  0.0052
   1.1673E+00   1.1957E+00   2.6054E-04  0.0052
   1.1957E+00   1.2247E+00   2.6031E-04  0.0051
   1.2247E+00   1.2545E+00   2.5800E-04  0.0051
   1.2545E+00   1.2851E+00   2.6103E-04  0.0050
   1.2851E+00   1.3163E+00   2.5789E-04  0.0049
   1.3163E+00   1.3484E+00   2.5728E-04  0.0049
   1.3484E+00   1.3812E+00   2.5545E-04  0.0048
   1.3812E+00   1.4148E+00   2.5459E-04  0.0048
   1.4148E+00   1.4492E+00   2.5053E-04  0.0048
   1.4492E+00   1.4845E+00   2.4785E-04  0.0047
   1.4845E+00   1.5206E+00   2.5004E-04  0.0046
   1.5206E+00   1.5576E+00   2.4504E-04  0.0046
   1.5576E+00   1.5955E+00   2.4228E-04  0.0046
   1.5955E+00   1.6343E+00   2.3933E-04  0.0046
   1.6343E+00   1.6741E+00   2.3359E-04  0.0046
   1.6741E+00   1.7148E+00   2.2975E-04  0.0045
   1.7148E+00   1.7565E+00   2.2598E-04  0.0045
   1.7565E+00   1.7992E+00   2.1665E-04  0.0045
   1.7992E+00   1.8430E+00   1.9993E-04  0.0047
   1.8430E+00   1.8879E+00   1.8959E-04  0.0047
   1.8879E+00   1.9338E+00   1.8428E-04  0.0047
   1.9338E+00   1.9808E+00   1.7761E-04  0.0047
   1.9808E+00   2.0290E+00   1.7423E-04  0.0047
   2.0290E+00   2.0784E+00   1.7014E-04  0.0047
   2.0784E+00   2.1290E+00   1.7031E-04  0.0047
   2.1290E+00   2.1808E+00   1.7082E-04  0.0046
   2.1808E+00   2.2338E+00   1.6888E-04  0.0046
   2.2338E+00   2.2882E+00   1.6485E-04  0.0046
   2.2882E+00   2.3439E+00   1.5824E-04  0.0046
   2.3439E+00   2.4009E+00   1.5350E-04  0.0046
   2.4009E+00   2.4593E+00   1.4985E-04  0.0046
   2.4593E+00   2.5191E+00   1.4679E-04  0.0046
   2.5191E+00   2.5804E+00   1.4380E-04  0.0046
   2.5804E+00   2.6432E+00   1.4071E-04  0.0046
   2.6432E+00   2.7075E+00   1.3748E-04  0.0046
   2.7075E+00   2.7734E+00   1.3308E-04  0.0046
   2.7734E+00   2.8409E+00   1.2951E-04  0.0046
   2.8409E+00   2.9100E+00   1.2563E-04  0.0047
   2.9100E+00   2.9808E+00   1.2364E-04  0.0046
   2.9808E+00   3.0533E+00   1.2102E-04  0.0046
   3.0533E+00   3.1276E+00   1.1781E-04  0.0046
   3.1276E+00   3.2037E+00   1.1563E-04  0.0046
   3.2037E+00   3.2817E+00   1.1307E-04  0.0046
   3.2817E+00   3.3615E+00   1.1045E-04  0.0046
   3.3615E+00   3.4433E+00   1.0901E-04  0.0046
   3.4433E+00   3.5271E+00   1.0742E-04  0.0046
   3.5271E+00   3.6129E+00   1.0494E-04  0.0046
   3.6129E+00   3.7008E+00   1.0273E-04  0.0046
   3.7008E+00   3.7908E+00   1.0114E-04  0.0046
   3.7908E+00   3.8831E+00   9.9475E-05  0.0045
   3.8831E+00   3.9776E+00   9.6945E-05  0.0046
   3.9776E+00   4.0743E+00   9.5281E-05  0.0045
   4.0743E+00   4.1735E+00   9.3034E-05  0.0045
   4.1735E+00   4.2750E+00   9.1016E-05  0.0045
   4.2750E+00   4.3790E+00   8.8615E-05  0.0045
   4.3790E+00   4.4856E+00   8.5730E-05  0.0046
   4.4856E+00   4.5947E+00   8.4339E-05  0.0045
   4.5947E+00   4.7065E+00   8.3661E-05  0.0045
   4.7065E+00   4.8210E+00   8.1095E-05  0.0045
   4.8210E+00   4.9383E+00   7.9572E-05  0.0045
   4.9383E+00   5.0585E+00   7.8746E-05  0.0045
   5.0585E+00   5.1815E+00   7.7291E-05  0.0045
   5.1815E+00   5.3076E+00   7.6172E-05  0.0045
   5.3076E+00   5.4368E+00   7.5711E-05  0.0044
   5.4368E+00   5.5690E+00   7.3397E-05  0.0044
   5.5690E+00   5.7045E+00   7.2635E-05  0.0044
   5.7045E+00   5.8433E+00   7.1396E-05  0.0044
   5.8433E+00   5.9855E+00   7.0310E-05  0.0044
   5.9855E+00   6.1311E+00   6.8857E-05  0.0044
   6.1311E+00   6.2803E+00   6.7559E-05  0.0044
   6.2803E+00   6.4331E+00   6.5966E-05  0.0044
   6.4331E+00   6.5896E+00   6.5035E-05  0.0044
   6.5896E+00   6.7500E+00   6.3416E-05  0.0044
   6.7500E+00   6.9142E+00   6.1807E-05  0.0044
   6.9142E+00   7.0824E+00   6.0858E-05  0.0043
   7.0824E+00   7.2548E+00   5.8895E-05  0.0044
   7.2548E+00   7.4313E+00   5.7787E-05  0.0044
   7.4313E+00   7.6121E+00   5.5636E-05  0.0044
   7.6121E+00   7.7973E+00   5.4260E-05  0.0044
   7.7973E+00   7.9870E+00   5.2410E-05  0.0044
   7.9870E+00   8.1813E+00   5.1179E-05  0.0044
   8.1813E+00   8.3804E+00   4.9083E-05  0.0045
   8.3804E+00   8.5843E+00   4.7298E-05  0.0045
   8.5843E+00   8.7931E+00   4.5459E-05  0.0045
   8.7931E+00   9.0071E+00   4.4570E-05  0.0045
   9.0071E+00   9.2262E+00   4.2807E-05  0.0046
   9.2262E+00   9.4507E+00   4.0888E-05  0.0046
   9.4507E+00   9.6807E+00   3.9154E-05  0.0047
   9.6807E+00   9.9162E+00   3.8100E-05  0.0047
   9.9162E+00   1.0157E+01   3.8439E-05  0.0046
   1.0157E+01   1.0405E+01   3.6559E-05  0.0047
   1.0405E+01   1.0658E+01   3.5105E-05  0.0047
   1.0658E+01   1.0917E+01   3.3479E-05  0.0048
   1.0917E+01   1.1183E+01   3.1495E-05  0.0049
   1.1183E+01   1.1455E+01   2.9971E-05  0.0049
   1.1455E+01   1.1733E+01   2.8745E-05  0.0050
   1.1733E+01   1.2019E+01   2.7549E-05  0.0050
   1.2019E+01   1.2311E+01   2.5964E-05  0.0051
   1.2311E+01   1.2611E+01   2.4810E-05  0.0052
   1.2611E+01   1.2918E+01   2.3310E-05  0.0053
   1.2918E+01   1.3232E+01   2.2342E-05  0.0053
   1.3232E+01   1.3554E+01   2.1127E-05  0.0054
   1.3554E+01   1.3884E+01   1.9982E-05  0.0055
   1.3884E+01   1.4222E+01   1.8667E-05  0.0056
   1.4222E+01   1.4568E+01   1.7669E-05  0.0057
   1.4568E+01   1.4922E+01   1.6568E-05  0.0058
   1.4922E+01   1.5285E+01   1.5583E-05  0.0059
   1.5285E+01   1.5657E+01   1.4606E-05  0.0061
   1.5657E+01   1.6038E+01   1.3482E-05  0.0062
   1.6038E+01   1.6428E+01   1.2559E-05  0.0064
   1.6428E+01   1.6828E+01   1.1583E-05  0.0066
   1.6828E+01   1.7237E+01   1.0887E-05  0.0067
   1.7237E+01   1.7657E+01   9.9208E-06  0.0069
   1.7657E+01   1.8086E+01   9.1126E-06  0.0071
   1.8086E+01   1.8526E+01   8.4277E-06  0.0073
   1.8526E+01   1.8977E+01   7.5404E-06  0.0077
   1.8977E+01   1.9439E+01   6.9526E-06  0.0079
   1.9439E+01   1.9912E+01   6.6216E-06  0.0080
   1.9912E+01   2.0396E+01   6.3298E-06  0.0081
   2.0396E+01   2.0893E+01   5.7905E-06  0.0083
   2.0893E+01   2.1401E+01   5.1155E-06  0.0088
   2.1401E+01   2.1922E+01   4.7394E-06  0.0090
   2.1922E+01   2.2455E+01   4.2575E-06  0.0094
   2.2455E+01   2.3001E+01   3.8031E-06  0.0098
   2.3001E+01   2.3561E+01   3.4418E-06  0.0102
   2.3561E+01   2.4134E+01   3.0649E-06  0.0107
   2.4134E+01   2.4721E+01   2.7149E-06  0.0112
   2.4721E+01   2.5323E+01   2.4788E-06  0.0116
   2.5323E+01   2.5939E+01   2.1830E-06  0.0122
   2.5939E+01   2.6570E+01   1.9803E-06  0.0127
   2.6570E+01   2.7217E+01   1.7520E-06  0.0133
   2.7217E+01   2.7879E+01   1.5512E-06  0.0140
   2.7879E+01   2.8557E+01   1.3949E-06  0.0145
   2.8557E+01   2.9252E+01   1.2098E-06  0.0154
   2.9252E+01   2.9964E+01   1.0718E-06  0.0162
   2.9964E+01   3.0693E+01   9.3273E-07  0.0171
   3.0693E+01   3.1440E+01   7.9756E-07  0.0183
   3.1440E+01   3.2205E+01   6.8527E-07  0.0195
   3.2205E+01   3.2988E+01   6.0595E-07  0.0205
   3.2988E+01   3.3791E+01   4.8740E-07  0.0226
   3.3791E+01   3.4613E+01   3.0359E-07  0.0283
   3.4613E+01   3.5455E+01   1.1138E-07  0.0462
   3.5455E+01   3.6318E+01   2.5967E-08  0.0945
   3.6318E+01   3.7201E+01   1.6296E-08  0.1179
   3.7201E+01   3.8106E+01   9.7223E-09  0.1508
   3.8106E+01   3.9034E+01   4.7457E-09  0.2132
   3.9034E+01   3.9983E+01   8.4236E-10  0.5000
   3.9983E+01   4.0956E+01   0.0000E+00  0.0000
   4.0956E+01   4.1953E+01   2.0070E-10  1.0000
   4.1953E+01   4.2973E+01   0.0000E+00  0.0000
   4.2973E+01   4.4019E+01   0.0000E+00  0.0000
   4.4019E+01   4.5090E+01   0.0000E+00  0.0000
   4.5090E+01   4.6187E+01   0.0000E+00  0.0000
   4.6187E+01   4.7311E+01   0.0000E+00  0.0000
   4.7311E+01   4.8462E+01   0.0000E+00  0.0000
   4.8462E+01   4.9641E+01   0.0000E+00  0.0000
   4.9641E+01   5.0849E+01   0.0000E+00  0.0000
   5.0849E+01   5.2086E+01   0.0000E+00  0.0000
   5.2086E+01   5.3353E+01   0.0000E+00  0.0000
   5.3353E+01   5.4651E+01   0.0000E+00  0.0000
   5.4651E+01   5.5981E+01   0.0000E+00  0.0000
   5.5981E+01   5.7343E+01   0.0000E+00  0.0000
   5.7343E+01   5.8738E+01   0.0000E+00  0.0000
   5.8738E+01   6.0168E+01   0.0000E+00  0.0000
   6.0168E+01   6.1632E+01   0.0000E+00  0.0000
   6.1632E+01   6.3131E+01   0.0000E+00  0.0000
   6.3131E+01   6.4667E+01   0.0000E+00  0.0000
   6.4667E+01   6.6240E+01   0.0000E+00  0.0000
   6.6240E+01   6.7852E+01   0.0000E+00  0.0000
   6.7852E+01   6.9503E+01   0.0000E+00  0.0000
   6.9503E+01   7.1194E+01   0.0000E+00  0.0000
   7.1194E+01   7.2926E+01   0.0000E+00  0.0000
   7.2926E+01   7.4701E+01   0.0000E+00  0.0000
   7.4701E+01   7.6518E+01   0.0000E+00  0.0000
   7.6518E+01   7.8380E+01   0.0000E+00  0.0000
   7.8380E+01   8.0287E+01   0.0000E+00  0.0000
   8.0287E+01   8.2240E+01   0.0000E+00  0.0000
   8.2240E+01   8.4241E+01   0.0000E+00  0.0000
   8.4241E+01   8.6291E+01   0.0000E+00  0.0000
   8.6291E+01   8.8391E+01   0.0000E+00  0.0000
   8.8391E+01   9.0541E+01   0.0000E+00  0.0000
   9.0541E+01   9.2744E+01   0.0000E+00  0.0000
   9.2744E+01   9.5001E+01   0.0000E+00  0.0000
   9.5001E+01   9.7312E+01   0.0000E+00  0.0000
   9.7312E+01   9.9680E+01   0.0000E+00  0.0000
   9.9680E+01   1.0211E+02   0.0000E+00  0.0000
   1.0211E+02   1.0459E+02   0.0000E+00  0.0000
   1.0459E+02   1.0713E+02   0.0000E+00  0.0000
   1.0713E+02   1.0974E+02   0.0000E+00  0.0000
   1.0974E+02   1.1241E+02   0.0000E+00  0.0000
   1.1241E+02   1.1515E+02   0.0000E+00  0.0000
   1.1515E+02   1.1795E+02   0.0000E+00  0.0000
   1.1795E+02   1.2082E+02   0.0000E+00  0.0000
   1.2082E+02   1.2376E+02   0.0000E+00  0.0000
   1.2376E+02   1.2677E+02   0.0000E+00  0.0000
   1.2677E+02   1.2985E+02   0.0000E+00  0.0000
   1.2985E+02   1.3301E+02   0.0000E+00  0.0000
   1.3301E+02   1.3625E+02   0.0000E+00  0.0000
   1.3625E+02   1.3956E+02   0.0000E+00  0.0000
   1.3956E+02   1.4296E+02   0.0000E+00  0.0000
   1.4296E+02   1.4644E+02   0.0000E+00  0.0000
   1.4644E+02   1.5000E+02   0.0000E+00  0.0000

#   sum over                 8.5920E-06
'no. =    1   reg = 114 - 214'
msuc: {\huge [t-cross] in region mesh}
msdr: {\it plotted by \ANGEL \version}
msdl: {\it calculated by \PHITS  3.26}
wt: s(0.7)
\vspace{-3}
  region surface crossing
  area  &=&   1.0000E+00 [cm^2]
e:
 
# Information for Restart Calculation
# This calculation was newly started
# istdev =  2 # 1:Batch variance, 2:History variance
# resc2  = 5.00000000000000000E+09 # Total source weight or Total source weight / maxcas
# resc3  = 5.00000000000000000E+09 # Total history number or Total batch number
# maxcas =   100000000 # History / Batch, only used for istdev=1
# bitrseed = 0110100000100010111000001110001111001110100100011111101000111001 # bit data of rseed
