[ T-Cross ]
    title = [t-cross] in region mesh
     mesh =  reg            # mesh type is region-wise
      reg =    1            # number of crossing regions
      non     r-from    r-to       area
      1       105       205        1.000000    
   e-type =    3            # e-mesh is log given by emin, emax and ne
     emin =  1.0000000E-02  # minimum value of e-mesh points
     emax =   150.0000      # maximum value of e-mesh points
#    edel =  2.4039514E-02  # mesh width of e-mesh points
       ne =    400          # number of e-mesh points
#    data = ( e(i), i = 1, ne + 1 )
#           1.00000E-02  1.02433E-02  1.04925E-02  1.07478E-02  1.10093E-02
#           1.12772E-02  1.15516E-02  1.18326E-02  1.21205E-02  1.24154E-02
#           1.27175E-02  1.30269E-02  1.33439E-02  1.36686E-02  1.40011E-02
#           1.43418E-02  1.46907E-02  1.50482E-02  1.54143E-02  1.57894E-02
#           1.61735E-02  1.65670E-02  1.69701E-02  1.73830E-02  1.78060E-02
#           1.82392E-02  1.86830E-02  1.91375E-02  1.96032E-02  2.00801E-02
#           2.05687E-02  2.10692E-02  2.15818E-02  2.21069E-02  2.26448E-02
#           2.31957E-02  2.37601E-02  2.43382E-02  2.49304E-02  2.55369E-02
#           2.61583E-02  2.67947E-02  2.74467E-02  2.81145E-02  2.87985E-02
#           2.94992E-02  3.02169E-02  3.09521E-02  3.17052E-02  3.24766E-02
#           3.32668E-02  3.40762E-02  3.49053E-02  3.57546E-02  3.66246E-02
#           3.75157E-02  3.84284E-02  3.93634E-02  4.03212E-02  4.13022E-02
#           4.23071E-02  4.33365E-02  4.43909E-02  4.54710E-02  4.65773E-02
#           4.77106E-02  4.88714E-02  5.00605E-02  5.12785E-02  5.25262E-02
#           5.38042E-02  5.51133E-02  5.64542E-02  5.78278E-02  5.92348E-02
#           6.06760E-02  6.21523E-02  6.36645E-02  6.52135E-02  6.68002E-02
#           6.84255E-02  7.00904E-02  7.17957E-02  7.35426E-02  7.53319E-02
#           7.71648E-02  7.90423E-02  8.09655E-02  8.29354E-02  8.49533E-02
#           8.70203E-02  8.91376E-02  9.13064E-02  9.35279E-02  9.58035E-02
#           9.81345E-02  1.00522E-01  1.02968E-01  1.05473E-01  1.08040E-01
#           1.10668E-01  1.13361E-01  1.16119E-01  1.18944E-01  1.21838E-01
#           1.24803E-01  1.27839E-01  1.30950E-01  1.34136E-01  1.37399E-01
#           1.40742E-01  1.44167E-01  1.47675E-01  1.51268E-01  1.54948E-01
#           1.58718E-01  1.62580E-01  1.66535E-01  1.70587E-01  1.74738E-01
#           1.78989E-01  1.83344E-01  1.87805E-01  1.92375E-01  1.97055E-01
#           2.01850E-01  2.06761E-01  2.11792E-01  2.16945E-01  2.22223E-01
#           2.27630E-01  2.33169E-01  2.38842E-01  2.44653E-01  2.50605E-01
#           2.56703E-01  2.62949E-01  2.69346E-01  2.75900E-01  2.82613E-01
#           2.89489E-01  2.96532E-01  3.03747E-01  3.11138E-01  3.18708E-01
#           3.26462E-01  3.34405E-01  3.42542E-01  3.50876E-01  3.59413E-01
#           3.68158E-01  3.77116E-01  3.86291E-01  3.95690E-01  4.05317E-01
#           4.15179E-01  4.25281E-01  4.35628E-01  4.46227E-01  4.57084E-01
#           4.68205E-01  4.79597E-01  4.91266E-01  5.03219E-01  5.15463E-01
#           5.28005E-01  5.40851E-01  5.54011E-01  5.67490E-01  5.81298E-01
#           5.95441E-01  6.09929E-01  6.24769E-01  6.39970E-01  6.55541E-01
#           6.71491E-01  6.87828E-01  7.04564E-01  7.21706E-01  7.39266E-01
#           7.57253E-01  7.75678E-01  7.94551E-01  8.13883E-01  8.33685E-01
#           8.53969E-01  8.74747E-01  8.96030E-01  9.17831E-01  9.40163E-01
#           9.63038E-01  9.86469E-01  1.01047E+00  1.03506E+00  1.06024E+00
#           1.08604E+00  1.11246E+00  1.13953E+00  1.16725E+00  1.19565E+00
#           1.22474E+00  1.25454E+00  1.28507E+00  1.31633E+00  1.34836E+00
#           1.38117E+00  1.41477E+00  1.44920E+00  1.48446E+00  1.52057E+00
#           1.55757E+00  1.59547E+00  1.63429E+00  1.67405E+00  1.71478E+00
#           1.75650E+00  1.79924E+00  1.84302E+00  1.88786E+00  1.93379E+00
#           1.98084E+00  2.02904E+00  2.07841E+00  2.12898E+00  2.18078E+00
#           2.23384E+00  2.28819E+00  2.34386E+00  2.40089E+00  2.45930E+00
#           2.51914E+00  2.58043E+00  2.64322E+00  2.70753E+00  2.77341E+00
#           2.84088E+00  2.91001E+00  2.98081E+00  3.05333E+00  3.12762E+00
#           3.20372E+00  3.28167E+00  3.36152E+00  3.44330E+00  3.52708E+00
#           3.61290E+00  3.70080E+00  3.79085E+00  3.88308E+00  3.97756E+00
#           4.07434E+00  4.17347E+00  4.27501E+00  4.37903E+00  4.48557E+00
#           4.59471E+00  4.70650E+00  4.82102E+00  4.93832E+00  5.05847E+00
#           5.18155E+00  5.30762E+00  5.43676E+00  5.56904E+00  5.70453E+00
#           5.84333E+00  5.98550E+00  6.13114E+00  6.28031E+00  6.43312E+00
#           6.58964E+00  6.74997E+00  6.91420E+00  7.08243E+00  7.25475E+00
#           7.43126E+00  7.61207E+00  7.79728E+00  7.98700E+00  8.18133E+00
#           8.38038E+00  8.58428E+00  8.79315E+00  9.00709E+00  9.22624E+00
#           9.45072E+00  9.68067E+00  9.91620E+00  1.01575E+01  1.04046E+01
#           1.06578E+01  1.09171E+01  1.11827E+01  1.14548E+01  1.17335E+01
#           1.20190E+01  1.23114E+01  1.26109E+01  1.29178E+01  1.32321E+01
#           1.35540E+01  1.38838E+01  1.42216E+01  1.45676E+01  1.49221E+01
#           1.52851E+01  1.56570E+01  1.60380E+01  1.64282E+01  1.68279E+01
#           1.72374E+01  1.76568E+01  1.80864E+01  1.85264E+01  1.89772E+01
#           1.94389E+01  1.99119E+01  2.03963E+01  2.08926E+01  2.14009E+01
#           2.19216E+01  2.24550E+01  2.30014E+01  2.35610E+01  2.41343E+01
#           2.47215E+01  2.53230E+01  2.59391E+01  2.65702E+01  2.72167E+01
#           2.78789E+01  2.85572E+01  2.92520E+01  2.99637E+01  3.06928E+01
#           3.14396E+01  3.22045E+01  3.29881E+01  3.37907E+01  3.46128E+01
#           3.54550E+01  3.63177E+01  3.72013E+01  3.81064E+01  3.90336E+01
#           3.99833E+01  4.09561E+01  4.19526E+01  4.29734E+01  4.40189E+01
#           4.50900E+01  4.61870E+01  4.73108E+01  4.84619E+01  4.96410E+01
#           5.08488E+01  5.20860E+01  5.33533E+01  5.46514E+01  5.59812E+01
#           5.73432E+01  5.87384E+01  6.01676E+01  6.16315E+01  6.31311E+01
#           6.46671E+01  6.62405E+01  6.78522E+01  6.95031E+01  7.11941E+01
#           7.29263E+01  7.47007E+01  7.65182E+01  7.83800E+01  8.02870E+01
#           8.22405E+01  8.42414E+01  8.62911E+01  8.83906E+01  9.05412E+01
#           9.27442E+01  9.50007E+01  9.73122E+01  9.96799E+01  1.02105E+02
#           1.04589E+02  1.07134E+02  1.09741E+02  1.12411E+02  1.15146E+02
#           1.17948E+02  1.20817E+02  1.23757E+02  1.26768E+02  1.29852E+02
#           1.33012E+02  1.36248E+02  1.39563E+02  1.42959E+02  1.46437E+02
#           1.50000E+02
     unit =    2            # unit is [1/cm^2/(MeV/n)/source]
     axis =  eng            # axis of output
     file = detector-06.out  # file name of output for the above axis
   output = f-curr          # surface crossing forward current spectrum
     part =  neutron  
# kf/name :  2112     
#    used :        main (  %)        temp (  %)       total (  %)
#  memory :         414 (  0)           0 (  0)         414 (  0)

#------------------------------------------------------------------------------
#newpage:
#   no. =    1   reg = 105 - 205

x: Energy [MeV/n]
y:  F-Curr [1/cm^2/(MeV/n)/source]         
p: xlog ylog afac(0.8) form(0.9)
h: n            x            y(neutron ),hh0l   n 
#  e-lower      e-upper      neutron     r.err 
   1.0000E-02   1.0243E-02   7.9330E-04  0.1016
   1.0243E-02   1.0493E-02   7.9747E-04  0.0998
   1.0493E-02   1.0748E-02   7.9443E-04  0.0991
   1.0748E-02   1.1009E-02   8.0564E-04  0.0971
   1.1009E-02   1.1277E-02   6.8008E-04  0.1041
   1.1277E-02   1.1552E-02   8.3310E-04  0.0934
   1.1552E-02   1.1833E-02   7.3893E-04  0.0976
   1.1833E-02   1.2121E-02   8.0719E-04  0.0924
   1.2121E-02   1.2415E-02   8.1722E-04  0.0910
   1.2415E-02   1.2718E-02   6.1905E-04  0.1033
   1.2718E-02   1.3027E-02   6.6025E-04  0.0989
   1.3027E-02   1.3344E-02   6.5527E-04  0.0978
   1.3344E-02   1.3669E-02   8.2950E-04  0.0861
   1.3669E-02   1.4001E-02   5.0178E-04  0.1092
   1.4001E-02   1.4342E-02   7.3387E-04  0.0894
   1.4342E-02   1.4691E-02   5.7405E-04  0.0999
   1.4691E-02   1.5048E-02   5.9334E-04  0.0968
   1.5048E-02   1.5414E-02   6.3639E-04  0.0923
   1.5414E-02   1.5789E-02   6.1983E-04  0.0924
   1.5789E-02   1.6174E-02   5.5079E-04  0.0970
   1.6174E-02   1.6567E-02   5.9114E-04  0.0926
   1.6567E-02   1.6970E-02   5.5802E-04  0.0939
   1.6970E-02   1.7383E-02   5.5135E-04  0.0934
   1.7383E-02   1.7806E-02   4.9346E-04  0.0978
   1.7806E-02   1.8239E-02   5.8078E-04  0.0890
   1.8239E-02   1.8683E-02   4.9413E-04  0.0953
   1.8683E-02   1.9138E-02   4.8564E-04  0.0948
   1.9138E-02   1.9603E-02   4.8199E-04  0.0943
   1.9603E-02   2.0080E-02   5.2139E-04  0.0896
   2.0080E-02   2.0569E-02   4.0242E-04  0.1007
   2.0569E-02   2.1069E-02   4.4959E-04  0.0942
   2.1069E-02   2.1582E-02   3.9718E-04  0.0989
   2.1582E-02   2.2107E-02   4.2205E-04  0.0948
   2.2107E-02   2.2645E-02   4.5921E-04  0.0899
   2.2645E-02   2.3196E-02   4.3083E-04  0.0916
   2.3196E-02   2.3760E-02   4.8740E-04  0.0850
   2.3760E-02   2.4338E-02   3.9748E-04  0.0930
   2.4338E-02   2.4930E-02   3.7799E-04  0.0943
   2.4930E-02   2.5537E-02   4.2051E-04  0.0884
   2.5537E-02   2.6158E-02   4.2328E-04  0.0871
   2.6158E-02   2.6795E-02   3.7536E-04  0.0911
   2.6795E-02   2.7447E-02   3.5426E-04  0.0929
   2.7447E-02   2.8114E-02   3.1511E-04  0.0971
   2.8114E-02   2.8799E-02   3.5415E-04  0.0906
   2.8799E-02   2.9499E-02   3.4098E-04  0.0913
   2.9499E-02   3.0217E-02   3.3102E-04  0.0915
   3.0217E-02   3.0952E-02   2.8840E-04  0.0968
   3.0952E-02   3.1705E-02   3.0837E-04  0.0925
   3.1705E-02   3.2477E-02   3.5043E-04  0.0860
   3.2477E-02   3.3267E-02   3.2055E-04  0.0887
   3.3267E-02   3.4076E-02   3.6864E-04  0.0818
   3.4076E-02   3.4905E-02   2.9222E-04  0.0906
   3.4905E-02   3.5755E-02   2.9501E-04  0.0893
   3.5755E-02   3.6625E-02   2.8008E-04  0.0904
   3.6625E-02   3.7516E-02   3.0556E-04  0.0855
   3.7516E-02   3.8428E-02   2.6209E-04  0.0912
   3.8428E-02   3.9363E-02   2.9447E-04  0.0851
   3.9363E-02   4.0321E-02   2.8822E-04  0.0849
   4.0321E-02   4.1302E-02   2.9355E-04  0.0829
   4.1302E-02   4.2307E-02   2.2582E-04  0.0935
   4.2307E-02   4.3337E-02   3.0646E-04  0.0792
   4.3337E-02   4.4391E-02   2.7721E-04  0.0825
   4.4391E-02   4.5471E-02   2.3426E-04  0.0886
   4.5471E-02   4.6577E-02   2.5764E-04  0.0836
   4.6577E-02   4.7711E-02   2.2627E-04  0.0883
   4.7711E-02   4.8871E-02   2.3022E-04  0.0864
   4.8871E-02   5.0061E-02   2.3888E-04  0.0837
   5.0061E-02   5.1279E-02   2.1549E-04  0.0870
   5.1279E-02   5.2526E-02   2.7442E-04  0.0762
   5.2526E-02   5.3804E-02   2.1773E-04  0.0847
   5.3804E-02   5.5113E-02   2.2938E-04  0.0816
   5.5113E-02   5.6454E-02   1.9613E-04  0.0871
   5.6454E-02   5.7828E-02   1.9523E-04  0.0860
   5.7828E-02   5.9235E-02   2.0706E-04  0.0827
   5.9235E-02   6.0676E-02   2.2015E-04  0.0791
   6.0676E-02   6.2152E-02   1.8790E-04  0.0848
   6.2152E-02   6.3665E-02   2.1751E-04  0.0778
   6.3665E-02   6.5214E-02   1.8610E-04  0.0833
   6.5214E-02   6.6800E-02   2.0282E-04  0.0787
   6.6800E-02   6.8426E-02   1.9313E-04  0.0797
   6.8426E-02   7.0090E-02   1.4348E-04  0.0914
   7.0090E-02   7.1796E-02   1.7296E-04  0.0822
   7.1796E-02   7.3543E-02   1.7443E-04  0.0808
   7.3543E-02   7.5332E-02   1.6002E-04  0.0834
   7.5332E-02   7.7165E-02   1.7096E-04  0.0797
   7.7165E-02   7.9042E-02   1.7132E-04  0.0787
   7.9042E-02   8.0965E-02   1.6163E-04  0.0799
   8.0965E-02   8.2935E-02   1.5184E-04  0.0816
   8.2935E-02   8.4953E-02   1.4397E-04  0.0827
   8.4953E-02   8.7020E-02   1.4624E-04  0.0813
   8.7020E-02   8.9138E-02   1.4882E-04  0.0796
   8.9138E-02   9.1306E-02   1.5474E-04  0.0768
   9.1306E-02   9.3528E-02   1.3050E-04  0.0828
   9.3528E-02   9.5804E-02   1.4518E-04  0.0776
   9.5804E-02   9.8134E-02   1.2100E-04  0.0840
   9.8134E-02   1.0052E-01   1.4297E-04  0.0764
   1.0052E-01   1.0297E-01   1.3291E-04  0.0783
   1.0297E-01   1.0547E-01   1.1865E-04  0.0819
   1.0547E-01   1.0804E-01   1.1870E-04  0.0810
   1.0804E-01   1.1067E-01   1.0945E-04  0.0832
   1.1067E-01   1.1336E-01   1.2291E-04  0.0776
   1.1336E-01   1.1612E-01   1.1989E-04  0.0775
   1.1612E-01   1.1894E-01   9.2246E-05  0.0875
   1.1894E-01   1.2184E-01   1.1896E-04  0.0760
   1.2184E-01   1.2480E-01   1.0242E-04  0.0810
   1.2480E-01   1.2784E-01   1.0165E-04  0.0803
   1.2784E-01   1.3095E-01   1.2512E-04  0.0714
   1.3095E-01   1.3414E-01   9.4502E-05  0.0814
   1.3414E-01   1.3740E-01   9.8195E-05  0.0788
   1.3740E-01   1.4074E-01   1.1305E-04  0.0726
   1.4074E-01   1.4417E-01   9.7231E-05  0.0773
   1.4417E-01   1.4767E-01   8.4669E-05  0.0818
   1.4767E-01   1.5127E-01   8.5786E-05  0.0802
   1.5127E-01   1.5495E-01   9.8373E-05  0.0742
   1.5495E-01   1.5872E-01   7.3387E-05  0.0846
   1.5872E-01   1.6258E-01   8.5371E-05  0.0775
   1.6258E-01   1.6654E-01   8.1905E-05  0.0784
   1.6654E-01   1.7059E-01   6.7691E-05  0.0854
   1.7059E-01   1.7474E-01   8.7918E-05  0.0738
   1.7474E-01   1.7899E-01   7.5957E-05  0.0786
   1.7899E-01   1.8334E-01   7.6142E-05  0.0775
   1.8334E-01   1.8781E-01   7.3840E-05  0.0777
   1.8781E-01   1.9237E-01   7.8222E-05  0.0747
   1.9237E-01   1.9706E-01   7.0564E-05  0.0775
   1.9706E-01   2.0185E-01   7.0594E-05  0.0767
   2.0185E-01   2.0676E-01   7.0070E-05  0.0759
   2.0676E-01   2.1179E-01   7.3350E-05  0.0735
   2.1179E-01   2.1694E-01   6.5029E-05  0.0772
   2.1694E-01   2.2222E-01   8.7674E-05  0.0656
   2.2222E-01   2.2763E-01   8.3292E-05  0.0665
   2.2763E-01   2.3317E-01   7.5348E-05  0.0691
   2.3317E-01   2.3884E-01   7.6573E-05  0.0676
   2.3884E-01   2.4465E-01   7.8587E-05  0.0659
   2.4465E-01   2.5061E-01   8.7466E-05  0.0619
   2.5061E-01   2.5670E-01   8.9717E-05  0.0604
   2.5670E-01   2.6295E-01   8.6040E-05  0.0608
   2.6295E-01   2.6935E-01   9.7394E-05  0.0565
   2.6935E-01   2.7590E-01   1.0255E-04  0.0545
   2.7590E-01   2.8261E-01   1.0875E-04  0.0522
   2.8261E-01   2.8949E-01   1.1664E-04  0.0498
   2.8949E-01   2.9653E-01   1.0397E-04  0.0521
   2.9653E-01   3.0375E-01   1.0526E-04  0.0511
   3.0375E-01   3.1114E-01   1.1203E-04  0.0490
   3.1114E-01   3.1871E-01   1.1383E-04  0.0480
   3.1871E-01   3.2646E-01   1.1494E-04  0.0473
   3.2646E-01   3.3441E-01   1.1073E-04  0.0476
   3.3441E-01   3.4254E-01   1.1498E-04  0.0461
   3.4254E-01   3.5088E-01   1.2301E-04  0.0441
   3.5088E-01   3.5941E-01   1.2730E-04  0.0427
   3.5941E-01   3.6816E-01   1.1945E-04  0.0437
   3.6816E-01   3.7712E-01   1.2823E-04  0.0416
   3.7712E-01   3.8629E-01   1.2671E-04  0.0414
   3.8629E-01   3.9569E-01   1.3982E-04  0.0389
   3.9569E-01   4.0532E-01   1.3717E-04  0.0388
   4.0532E-01   4.1518E-01   1.4273E-04  0.0376
   4.1518E-01   4.2528E-01   1.3889E-04  0.0377
   4.2528E-01   4.3563E-01   1.5079E-04  0.0357
   4.3563E-01   4.4623E-01   1.4970E-04  0.0354
   4.4623E-01   4.5708E-01   1.4926E-04  0.0351
   4.5708E-01   4.6821E-01   1.4387E-04  0.0353
   4.6821E-01   4.7960E-01   1.5559E-04  0.0335
   4.7960E-01   4.9127E-01   1.6188E-04  0.0324
   4.9127E-01   5.0322E-01   1.6867E-04  0.0314
   5.0322E-01   5.1546E-01   1.7299E-04  0.0307
   5.1546E-01   5.2800E-01   1.6025E-04  0.0315
   5.2800E-01   5.4085E-01   1.7159E-04  0.0300
   5.4085E-01   5.5401E-01   1.7469E-04  0.0294
   5.5401E-01   5.6749E-01   1.8730E-04  0.0281
   5.6749E-01   5.8130E-01   1.8999E-04  0.0276
   5.8130E-01   5.9544E-01   1.9029E-04  0.0272
   5.9544E-01   6.0993E-01   1.9425E-04  0.0266
   6.0993E-01   6.2477E-01   1.8979E-04  0.0266
   6.2477E-01   6.3997E-01   1.8529E-04  0.0266
   6.3997E-01   6.5554E-01   1.9957E-04  0.0253
   6.5554E-01   6.7149E-01   1.9960E-04  0.0250
   6.7149E-01   6.8783E-01   2.1158E-04  0.0240
   6.8783E-01   7.0456E-01   2.0649E-04  0.0240
   7.0456E-01   7.2171E-01   2.1302E-04  0.0233
   7.2171E-01   7.3927E-01   2.1432E-04  0.0230
   7.3927E-01   7.5725E-01   2.1671E-04  0.0226
   7.5725E-01   7.7568E-01   2.2104E-04  0.0221
   7.7568E-01   7.9455E-01   2.2913E-04  0.0214
   7.9455E-01   8.1388E-01   2.2371E-04  0.0215
   8.1388E-01   8.3368E-01   2.2787E-04  0.0210
   8.3368E-01   8.5397E-01   2.3893E-04  0.0203
   8.5397E-01   8.7475E-01   2.3384E-04  0.0202
   8.7475E-01   8.9603E-01   2.4055E-04  0.0197
   8.9603E-01   9.1783E-01   2.4151E-04  0.0194
   9.1783E-01   9.4016E-01   2.4390E-04  0.0191
   9.4016E-01   9.6304E-01   2.4555E-04  0.0188
   9.6304E-01   9.8647E-01   2.4483E-04  0.0186
   9.8647E-01   1.0105E+00   2.4825E-04  0.0183
   1.0105E+00   1.0351E+00   2.6197E-04  0.0176
   1.0351E+00   1.0602E+00   2.5473E-04  0.0176
   1.0602E+00   1.0860E+00   2.5911E-04  0.0173
   1.0860E+00   1.1125E+00   2.5022E-04  0.0173
   1.1125E+00   1.1395E+00   2.5057E-04  0.0171
   1.1395E+00   1.1673E+00   2.4630E-04  0.0171
   1.1673E+00   1.1957E+00   2.6112E-04  0.0164
   1.1957E+00   1.2247E+00   2.5379E-04  0.0164
   1.2247E+00   1.2545E+00   2.5925E-04  0.0160
   1.2545E+00   1.2851E+00   2.5481E-04  0.0160
   1.2851E+00   1.3163E+00   2.5252E-04  0.0159
   1.3163E+00   1.3484E+00   2.5643E-04  0.0156
   1.3484E+00   1.3812E+00   2.5424E-04  0.0154
   1.3812E+00   1.4148E+00   2.5050E-04  0.0154
   1.4148E+00   1.4492E+00   2.5241E-04  0.0151
   1.4492E+00   1.4845E+00   2.5322E-04  0.0149
   1.4845E+00   1.5206E+00   2.6194E-04  0.0145
   1.5206E+00   1.5576E+00   2.5297E-04  0.0146
   1.5576E+00   1.5955E+00   2.5049E-04  0.0145
   1.5955E+00   1.6343E+00   2.4329E-04  0.0145
   1.6343E+00   1.6741E+00   2.4616E-04  0.0143
   1.6741E+00   1.7148E+00   2.3980E-04  0.0143
   1.7148E+00   1.7565E+00   2.4059E-04  0.0141
   1.7565E+00   1.7992E+00   2.3871E-04  0.0140
   1.7992E+00   1.8430E+00   2.4203E-04  0.0137
   1.8430E+00   1.8879E+00   2.4181E-04  0.0135
   1.8879E+00   1.9338E+00   2.3317E-04  0.0136
   1.9338E+00   1.9808E+00   2.3168E-04  0.0135
   1.9808E+00   2.0290E+00   2.2965E-04  0.0134
   2.0290E+00   2.0784E+00   2.2785E-04  0.0133
   2.0784E+00   2.1290E+00   2.2629E-04  0.0132
   2.1290E+00   2.1808E+00   2.2474E-04  0.0131
   2.1808E+00   2.2338E+00   2.1894E-04  0.0131
   2.2338E+00   2.2882E+00   2.1715E-04  0.0130
   2.2882E+00   2.3439E+00   2.1126E-04  0.0130
   2.3439E+00   2.4009E+00   2.1769E-04  0.0126
   2.4009E+00   2.4593E+00   2.0840E-04  0.0128
   2.4593E+00   2.5191E+00   2.0645E-04  0.0127
   2.5191E+00   2.5804E+00   2.0398E-04  0.0126
   2.5804E+00   2.6432E+00   1.9547E-04  0.0127
   2.6432E+00   2.7075E+00   1.9531E-04  0.0126
   2.7075E+00   2.7734E+00   1.9422E-04  0.0124
   2.7734E+00   2.8409E+00   1.8815E-04  0.0125
   2.8409E+00   2.9100E+00   1.8341E-04  0.0125
   2.9100E+00   2.9808E+00   1.8284E-04  0.0124
   2.9808E+00   3.0533E+00   1.7841E-04  0.0124
   3.0533E+00   3.1276E+00   1.7846E-04  0.0122
   3.1276E+00   3.2037E+00   1.7605E-04  0.0122
   3.2037E+00   3.2817E+00   1.7051E-04  0.0122
   3.2817E+00   3.3615E+00   1.7051E-04  0.0121
   3.3615E+00   3.4433E+00   1.6330E-04  0.0122
   3.4433E+00   3.5271E+00   1.6436E-04  0.0120
   3.5271E+00   3.6129E+00   1.6238E-04  0.0119
   3.6129E+00   3.7008E+00   1.5722E-04  0.0120
   3.7008E+00   3.7908E+00   1.5547E-04  0.0119
   3.7908E+00   3.8831E+00   1.5037E-04  0.0119
   3.8831E+00   3.9776E+00   1.4921E-04  0.0119
   3.9776E+00   4.0743E+00   1.4641E-04  0.0118
   4.0743E+00   4.1735E+00   1.4430E-04  0.0118
   4.1735E+00   4.2750E+00   1.4188E-04  0.0117
   4.2750E+00   4.3790E+00   1.3942E-04  0.0117
   4.3790E+00   4.4856E+00   1.3724E-04  0.0116
   4.4856E+00   4.5947E+00   1.3748E-04  0.0115
   4.5947E+00   4.7065E+00   1.3571E-04  0.0114
   4.7065E+00   4.8210E+00   1.3414E-04  0.0114
   4.8210E+00   4.9383E+00   1.3140E-04  0.0113
   4.9383E+00   5.0585E+00   1.2935E-04  0.0113
   5.0585E+00   5.1815E+00   1.2972E-04  0.0111
   5.1815E+00   5.3076E+00   1.2640E-04  0.0112
   5.3076E+00   5.4368E+00   1.2212E-04  0.0112
   5.4368E+00   5.5690E+00   1.2076E-04  0.0111
   5.5690E+00   5.7045E+00   1.2000E-04  0.0110
   5.7045E+00   5.8433E+00   1.1749E-04  0.0110
   5.8433E+00   5.9855E+00   1.1659E-04  0.0109
   5.9855E+00   6.1311E+00   1.1252E-04  0.0110
   6.1311E+00   6.2803E+00   1.1375E-04  0.0108
   6.2803E+00   6.4331E+00   1.1019E-04  0.0109
   6.4331E+00   6.5896E+00   1.0855E-04  0.0108
   6.5896E+00   6.7500E+00   1.0493E-04  0.0109
   6.7500E+00   6.9142E+00   1.0665E-04  0.0106
   6.9142E+00   7.0824E+00   1.0163E-04  0.0108
   7.0824E+00   7.2548E+00   1.0304E-04  0.0106
   7.2548E+00   7.4313E+00   9.8587E-05  0.0107
   7.4313E+00   7.6121E+00   1.0102E-04  0.0104
   7.6121E+00   7.7973E+00   9.7530E-05  0.0105
   7.7973E+00   7.9870E+00   9.5336E-05  0.0105
   7.9870E+00   8.1813E+00   9.4965E-05  0.0104
   8.1813E+00   8.3804E+00   9.1440E-05  0.0105
   8.3804E+00   8.5843E+00   9.1224E-05  0.0103
   8.5843E+00   8.7931E+00   9.1464E-05  0.0102
   8.7931E+00   9.0071E+00   9.0647E-05  0.0101
   9.0071E+00   9.2262E+00   8.9155E-05  0.0101
   9.2262E+00   9.4507E+00   8.7404E-05  0.0101
   9.4507E+00   9.6807E+00   8.7171E-05  0.0100
   9.6807E+00   9.9162E+00   8.5581E-05  0.0099
   9.9162E+00   1.0157E+01   8.5824E-05  0.0098
   1.0157E+01   1.0405E+01   8.2627E-05  0.0099
   1.0405E+01   1.0658E+01   8.3304E-05  0.0097
   1.0658E+01   1.0917E+01   8.1887E-05  0.0097
   1.0917E+01   1.1183E+01   8.1144E-05  0.0096
   1.1183E+01   1.1455E+01   8.0389E-05  0.0095
   1.1455E+01   1.1733E+01   7.9256E-05  0.0095
   1.1733E+01   1.2019E+01   7.8206E-05  0.0095
   1.2019E+01   1.2311E+01   7.8055E-05  0.0094
   1.2311E+01   1.2611E+01   7.7207E-05  0.0093
   1.2611E+01   1.2918E+01   7.7109E-05  0.0092
   1.2918E+01   1.3232E+01   7.5222E-05  0.0092
   1.3232E+01   1.3554E+01   7.5099E-05  0.0091
   1.3554E+01   1.3884E+01   7.2493E-05  0.0091
   1.3884E+01   1.4222E+01   7.3135E-05  0.0090
   1.4222E+01   1.4568E+01   7.4030E-05  0.0088
   1.4568E+01   1.4922E+01   7.1463E-05  0.0089
   1.4922E+01   1.5285E+01   7.1099E-05  0.0088
   1.5285E+01   1.5657E+01   7.0025E-05  0.0088
   1.5657E+01   1.6038E+01   6.8627E-05  0.0087
   1.6038E+01   1.6428E+01   7.0357E-05  0.0085
   1.6428E+01   1.6828E+01   6.9552E-05  0.0085
   1.6828E+01   1.7237E+01   6.9168E-05  0.0084
   1.7237E+01   1.7657E+01   6.8904E-05  0.0083
   1.7657E+01   1.8086E+01   6.8303E-05  0.0083
   1.8086E+01   1.8526E+01   6.8552E-05  0.0081
   1.8526E+01   1.8977E+01   6.9175E-05  0.0080
   1.8977E+01   1.9439E+01   6.8431E-05  0.0080
   1.9439E+01   1.9912E+01   7.0409E-05  0.0078
   1.9912E+01   2.0396E+01   7.0753E-05  0.0076
   2.0396E+01   2.0893E+01   7.1833E-05  0.0075
   2.0893E+01   2.1401E+01   7.1784E-05  0.0074
   2.1401E+01   2.1922E+01   7.2656E-05  0.0073
   2.1922E+01   2.2455E+01   7.2340E-05  0.0072
   2.2455E+01   2.3001E+01   7.2657E-05  0.0071
   2.3001E+01   2.3561E+01   7.1846E-05  0.0071
   2.3561E+01   2.4134E+01   7.2341E-05  0.0069
   2.4134E+01   2.4721E+01   7.3790E-05  0.0068
   2.4721E+01   2.5323E+01   7.3850E-05  0.0067
   2.5323E+01   2.5939E+01   7.5455E-05  0.0066
   2.5939E+01   2.6570E+01   7.5323E-05  0.0065
   2.6570E+01   2.7217E+01   7.7757E-05  0.0063
   2.7217E+01   2.7879E+01   7.8423E-05  0.0062
   2.7879E+01   2.8557E+01   7.9751E-05  0.0061
   2.8557E+01   2.9252E+01   8.1477E-05  0.0059
   2.9252E+01   2.9964E+01   8.2293E-05  0.0058
   2.9964E+01   3.0693E+01   8.2925E-05  0.0058
   3.0693E+01   3.1440E+01   8.4234E-05  0.0056
   3.1440E+01   3.2205E+01   8.6884E-05  0.0055
   3.2205E+01   3.2988E+01   8.8871E-05  0.0054
   3.2988E+01   3.3791E+01   9.0525E-05  0.0052
   3.3791E+01   3.4613E+01   9.1701E-05  0.0052
   3.4613E+01   3.5455E+01   9.5809E-05  0.0050
   3.5455E+01   3.6318E+01   9.8028E-05  0.0049
   3.6318E+01   3.7201E+01   1.0071E-04  0.0047
   3.7201E+01   3.8106E+01   1.0459E-04  0.0046
   3.8106E+01   3.9034E+01   1.0773E-04  0.0045
   3.9034E+01   3.9983E+01   1.1058E-04  0.0044
   3.9983E+01   4.0956E+01   1.1427E-04  0.0042
   4.0956E+01   4.1953E+01   1.1830E-04  0.0041
   4.1953E+01   4.2973E+01   1.2264E-04  0.0040
   4.2973E+01   4.4019E+01   1.2684E-04  0.0039
   4.4019E+01   4.5090E+01   1.3022E-04  0.0038
   4.5090E+01   4.6187E+01   1.3601E-04  0.0037
   4.6187E+01   4.7311E+01   1.3931E-04  0.0036
   4.7311E+01   4.8462E+01   1.4426E-04  0.0035
   4.8462E+01   4.9641E+01   1.4911E-04  0.0034
   4.9641E+01   5.0849E+01   1.5317E-04  0.0033
   5.0849E+01   5.2086E+01   1.5798E-04  0.0032
   5.2086E+01   5.3353E+01   1.6224E-04  0.0031
   5.3353E+01   5.4651E+01   1.6564E-04  0.0031
   5.4651E+01   5.5981E+01   1.6971E-04  0.0030
   5.5981E+01   5.7343E+01   1.7295E-04  0.0029
   5.7343E+01   5.8738E+01   1.7495E-04  0.0029
   5.8738E+01   6.0168E+01   1.7681E-04  0.0028
   6.0168E+01   6.1632E+01   1.7694E-04  0.0028
   6.1632E+01   6.3131E+01   1.7713E-04  0.0027
   6.3131E+01   6.4667E+01   1.7623E-04  0.0027
   6.4667E+01   6.6240E+01   1.7378E-04  0.0027
   6.6240E+01   6.7852E+01   1.7179E-04  0.0027
   6.7852E+01   6.9503E+01   1.6704E-04  0.0027
   6.9503E+01   7.1194E+01   1.6095E-04  0.0027
   7.1194E+01   7.2926E+01   1.5448E-04  0.0027
   7.2926E+01   7.4701E+01   1.4964E-04  0.0027
   7.4701E+01   7.6518E+01   1.4177E-04  0.0028
   7.6518E+01   7.8380E+01   1.3413E-04  0.0028
   7.8380E+01   8.0287E+01   1.2484E-04  0.0029
   8.0287E+01   8.2240E+01   1.1665E-04  0.0030
   8.2240E+01   8.4241E+01   1.0853E-04  0.0030
   8.4241E+01   8.6291E+01   1.0032E-04  0.0031
   8.6291E+01   8.8391E+01   9.1500E-05  0.0032
   8.8391E+01   9.0541E+01   8.3679E-05  0.0033
   9.0541E+01   9.2744E+01   7.6067E-05  0.0035
   9.2744E+01   9.5001E+01   6.8786E-05  0.0036
   9.5001E+01   9.7312E+01   6.1629E-05  0.0037
   9.7312E+01   9.9680E+01   5.5416E-05  0.0039
   9.9680E+01   1.0211E+02   5.0051E-05  0.0041
   1.0211E+02   1.0459E+02   4.3948E-05  0.0043
   1.0459E+02   1.0713E+02   3.9152E-05  0.0045
   1.0713E+02   1.0974E+02   3.4425E-05  0.0047
   1.0974E+02   1.1241E+02   2.9642E-05  0.0050
   1.1241E+02   1.1515E+02   2.5940E-05  0.0053
   1.1515E+02   1.1795E+02   2.2918E-05  0.0056
   1.1795E+02   1.2082E+02   2.0062E-05  0.0059
   1.2082E+02   1.2376E+02   1.7270E-05  0.0063
   1.2376E+02   1.2677E+02   1.5119E-05  0.0066
   1.2677E+02   1.2985E+02   1.4177E-05  0.0068
   1.2985E+02   1.3301E+02   1.3390E-05  0.0069
   1.3301E+02   1.3625E+02   1.1594E-05  0.0073
   1.3625E+02   1.3956E+02   9.7821E-06  0.0079
   1.3956E+02   1.4296E+02   8.0555E-06  0.0086
   1.4296E+02   1.4644E+02   6.3991E-06  0.0095
   1.4644E+02   1.5000E+02   4.9532E-06  0.0106

#   sum over                 8.4818E-05
'no. =    1   reg = 105 - 205'
msuc: {\huge [t-cross] in region mesh}
msdr: {\it plotted by \ANGEL \version}
msdl: {\it calculated by \PHITS  3.26}
wt: s(0.7)
\vspace{-3}
  region surface crossing
  area  &=&   1.0000E+00 [cm^2]
e:
 
# Information for Restart Calculation
# This calculation was newly started
# istdev =  2 # 1:Batch variance, 2:History variance
# resc2  = 5.00000000000000000E+08 # Total source weight or Total source weight / maxcas
# resc3  = 5.00000000000000000E+08 # Total history number or Total batch number
# maxcas =   500000000 # History / Batch, only used for istdev=1
# bitrseed = 1101101111010011011000101101110001100110110010110001010100010001 # bit data of rseed
