0 <--- number of remaining batches 

-------------------------------------------------------------------------------
bat[       1] ncas =      500000000.
 bitrseed = 0100000111110100010101110010111101011011011000000000000000000000
          cpu time =  36 m. 39.51 s.

 date = 2023-02-07
 time = 16h 15m 40s

-------------------------------------------------------------------------------
next initial random seed:
 bitrseed = 1011101111111101000111101101010011111001010110111001011111010111
