[ T-Cross ]
    title = [t-cross] in region mesh
     mesh =  reg            # mesh type is region-wise
      reg =    1            # number of crossing regions
      non     r-from    r-to       area
      1       117       217        1.000000    
   e-type =    3            # e-mesh is log given by emin, emax and ne
     emin =  1.0000000E-02  # minimum value of e-mesh points
     emax =   150.0000      # maximum value of e-mesh points
#    edel =  2.4039514E-02  # mesh width of e-mesh points
       ne =    400          # number of e-mesh points
#    data = ( e(i), i = 1, ne + 1 )
#           1.00000E-02  1.02433E-02  1.04925E-02  1.07478E-02  1.10093E-02
#           1.12772E-02  1.15516E-02  1.18326E-02  1.21205E-02  1.24154E-02
#           1.27175E-02  1.30269E-02  1.33439E-02  1.36686E-02  1.40011E-02
#           1.43418E-02  1.46907E-02  1.50482E-02  1.54143E-02  1.57894E-02
#           1.61735E-02  1.65670E-02  1.69701E-02  1.73830E-02  1.78060E-02
#           1.82392E-02  1.86830E-02  1.91375E-02  1.96032E-02  2.00801E-02
#           2.05687E-02  2.10692E-02  2.15818E-02  2.21069E-02  2.26448E-02
#           2.31957E-02  2.37601E-02  2.43382E-02  2.49304E-02  2.55369E-02
#           2.61583E-02  2.67947E-02  2.74467E-02  2.81145E-02  2.87985E-02
#           2.94992E-02  3.02169E-02  3.09521E-02  3.17052E-02  3.24766E-02
#           3.32668E-02  3.40762E-02  3.49053E-02  3.57546E-02  3.66246E-02
#           3.75157E-02  3.84284E-02  3.93634E-02  4.03212E-02  4.13022E-02
#           4.23071E-02  4.33365E-02  4.43909E-02  4.54710E-02  4.65773E-02
#           4.77106E-02  4.88714E-02  5.00605E-02  5.12785E-02  5.25262E-02
#           5.38042E-02  5.51133E-02  5.64542E-02  5.78278E-02  5.92348E-02
#           6.06760E-02  6.21523E-02  6.36645E-02  6.52135E-02  6.68002E-02
#           6.84255E-02  7.00904E-02  7.17957E-02  7.35426E-02  7.53319E-02
#           7.71648E-02  7.90423E-02  8.09655E-02  8.29354E-02  8.49533E-02
#           8.70203E-02  8.91376E-02  9.13064E-02  9.35279E-02  9.58035E-02
#           9.81345E-02  1.00522E-01  1.02968E-01  1.05473E-01  1.08040E-01
#           1.10668E-01  1.13361E-01  1.16119E-01  1.18944E-01  1.21838E-01
#           1.24803E-01  1.27839E-01  1.30950E-01  1.34136E-01  1.37399E-01
#           1.40742E-01  1.44167E-01  1.47675E-01  1.51268E-01  1.54948E-01
#           1.58718E-01  1.62580E-01  1.66535E-01  1.70587E-01  1.74738E-01
#           1.78989E-01  1.83344E-01  1.87805E-01  1.92375E-01  1.97055E-01
#           2.01850E-01  2.06761E-01  2.11792E-01  2.16945E-01  2.22223E-01
#           2.27630E-01  2.33169E-01  2.38842E-01  2.44653E-01  2.50605E-01
#           2.56703E-01  2.62949E-01  2.69346E-01  2.75900E-01  2.82613E-01
#           2.89489E-01  2.96532E-01  3.03747E-01  3.11138E-01  3.18708E-01
#           3.26462E-01  3.34405E-01  3.42542E-01  3.50876E-01  3.59413E-01
#           3.68158E-01  3.77116E-01  3.86291E-01  3.95690E-01  4.05317E-01
#           4.15179E-01  4.25281E-01  4.35628E-01  4.46227E-01  4.57084E-01
#           4.68205E-01  4.79597E-01  4.91266E-01  5.03219E-01  5.15463E-01
#           5.28005E-01  5.40851E-01  5.54011E-01  5.67490E-01  5.81298E-01
#           5.95441E-01  6.09929E-01  6.24769E-01  6.39970E-01  6.55541E-01
#           6.71491E-01  6.87828E-01  7.04564E-01  7.21706E-01  7.39266E-01
#           7.57253E-01  7.75678E-01  7.94551E-01  8.13883E-01  8.33685E-01
#           8.53969E-01  8.74747E-01  8.96030E-01  9.17831E-01  9.40163E-01
#           9.63038E-01  9.86469E-01  1.01047E+00  1.03506E+00  1.06024E+00
#           1.08604E+00  1.11246E+00  1.13953E+00  1.16725E+00  1.19565E+00
#           1.22474E+00  1.25454E+00  1.28507E+00  1.31633E+00  1.34836E+00
#           1.38117E+00  1.41477E+00  1.44920E+00  1.48446E+00  1.52057E+00
#           1.55757E+00  1.59547E+00  1.63429E+00  1.67405E+00  1.71478E+00
#           1.75650E+00  1.79924E+00  1.84302E+00  1.88786E+00  1.93379E+00
#           1.98084E+00  2.02904E+00  2.07841E+00  2.12898E+00  2.18078E+00
#           2.23384E+00  2.28819E+00  2.34386E+00  2.40089E+00  2.45930E+00
#           2.51914E+00  2.58043E+00  2.64322E+00  2.70753E+00  2.77341E+00
#           2.84088E+00  2.91001E+00  2.98081E+00  3.05333E+00  3.12762E+00
#           3.20372E+00  3.28167E+00  3.36152E+00  3.44330E+00  3.52708E+00
#           3.61290E+00  3.70080E+00  3.79085E+00  3.88308E+00  3.97756E+00
#           4.07434E+00  4.17347E+00  4.27501E+00  4.37903E+00  4.48557E+00
#           4.59471E+00  4.70650E+00  4.82102E+00  4.93832E+00  5.05847E+00
#           5.18155E+00  5.30762E+00  5.43676E+00  5.56904E+00  5.70453E+00
#           5.84333E+00  5.98550E+00  6.13114E+00  6.28031E+00  6.43312E+00
#           6.58964E+00  6.74997E+00  6.91420E+00  7.08243E+00  7.25475E+00
#           7.43126E+00  7.61207E+00  7.79728E+00  7.98700E+00  8.18133E+00
#           8.38038E+00  8.58428E+00  8.79315E+00  9.00709E+00  9.22624E+00
#           9.45072E+00  9.68067E+00  9.91620E+00  1.01575E+01  1.04046E+01
#           1.06578E+01  1.09171E+01  1.11827E+01  1.14548E+01  1.17335E+01
#           1.20190E+01  1.23114E+01  1.26109E+01  1.29178E+01  1.32321E+01
#           1.35540E+01  1.38838E+01  1.42216E+01  1.45676E+01  1.49221E+01
#           1.52851E+01  1.56570E+01  1.60380E+01  1.64282E+01  1.68279E+01
#           1.72374E+01  1.76568E+01  1.80864E+01  1.85264E+01  1.89772E+01
#           1.94389E+01  1.99119E+01  2.03963E+01  2.08926E+01  2.14009E+01
#           2.19216E+01  2.24550E+01  2.30014E+01  2.35610E+01  2.41343E+01
#           2.47215E+01  2.53230E+01  2.59391E+01  2.65702E+01  2.72167E+01
#           2.78789E+01  2.85572E+01  2.92520E+01  2.99637E+01  3.06928E+01
#           3.14396E+01  3.22045E+01  3.29881E+01  3.37907E+01  3.46128E+01
#           3.54550E+01  3.63177E+01  3.72013E+01  3.81064E+01  3.90336E+01
#           3.99833E+01  4.09561E+01  4.19526E+01  4.29734E+01  4.40189E+01
#           4.50900E+01  4.61870E+01  4.73108E+01  4.84619E+01  4.96410E+01
#           5.08488E+01  5.20860E+01  5.33533E+01  5.46514E+01  5.59812E+01
#           5.73432E+01  5.87384E+01  6.01676E+01  6.16315E+01  6.31311E+01
#           6.46671E+01  6.62405E+01  6.78522E+01  6.95031E+01  7.11941E+01
#           7.29263E+01  7.47007E+01  7.65182E+01  7.83800E+01  8.02870E+01
#           8.22405E+01  8.42414E+01  8.62911E+01  8.83906E+01  9.05412E+01
#           9.27442E+01  9.50007E+01  9.73122E+01  9.96799E+01  1.02105E+02
#           1.04589E+02  1.07134E+02  1.09741E+02  1.12411E+02  1.15146E+02
#           1.17948E+02  1.20817E+02  1.23757E+02  1.26768E+02  1.29852E+02
#           1.33012E+02  1.36248E+02  1.39563E+02  1.42959E+02  1.46437E+02
#           1.50000E+02
     unit =    2            # unit is [1/cm^2/(MeV/n)/source]
     axis =  eng            # axis of output
     file = detector-18.out  # file name of output for the above axis
   output = f-curr          # surface crossing forward current spectrum
     part =  neutron  
# kf/name :  2112     
#    used :        main (  %)        temp (  %)       total (  %)
#  memory :         414 (  0)           0 (  0)         414 (  0)

#------------------------------------------------------------------------------
#newpage:
#   no. =    1   reg = 117 - 217

x: Energy [MeV/n]
y:  F-Curr [1/cm^2/(MeV/n)/source]         
p: xlog ylog afac(0.8) form(0.9)
h: n            x            y(neutron ),hh0l   n 
#  e-lower      e-upper      neutron     r.err 
   1.0000E-02   1.0243E-02   3.1299E-03  0.0294
   1.0243E-02   1.0493E-02   3.0645E-03  0.0294
   1.0493E-02   1.0748E-02   2.9582E-03  0.0296
   1.0748E-02   1.1009E-02   3.0380E-03  0.0289
   1.1009E-02   1.1277E-02   2.8133E-03  0.0296
   1.1277E-02   1.1552E-02   2.7888E-03  0.0294
   1.1552E-02   1.1833E-02   2.7647E-03  0.0292
   1.1833E-02   1.2121E-02   2.7906E-03  0.0287
   1.2121E-02   1.2415E-02   2.7225E-03  0.0287
   1.2415E-02   1.2718E-02   2.6963E-03  0.0285
   1.2718E-02   1.3027E-02   2.5563E-03  0.0289
   1.3027E-02   1.3344E-02   2.5699E-03  0.0285
   1.3344E-02   1.3669E-02   2.5136E-03  0.0284
   1.3669E-02   1.4001E-02   2.3840E-03  0.0289
   1.4001E-02   1.4342E-02   2.3913E-03  0.0285
   1.4342E-02   1.4691E-02   2.2646E-03  0.0289
   1.4691E-02   1.5048E-02   2.2400E-03  0.0287
   1.5048E-02   1.5414E-02   2.2231E-03  0.0285
   1.5414E-02   1.5789E-02   2.1599E-03  0.0285
   1.5789E-02   1.6174E-02   2.0529E-03  0.0289
   1.6174E-02   1.6567E-02   2.0896E-03  0.0283
   1.6567E-02   1.6970E-02   2.0576E-03  0.0282
   1.6970E-02   1.7383E-02   1.9586E-03  0.0286
   1.7383E-02   1.7806E-02   1.9802E-03  0.0281
   1.7806E-02   1.8239E-02   1.8521E-03  0.0287
   1.8239E-02   1.8683E-02   1.8210E-03  0.0286
   1.8683E-02   1.9138E-02   1.8080E-03  0.0284
   1.9138E-02   1.9603E-02   1.7873E-03  0.0282
   1.9603E-02   2.0080E-02   1.7181E-03  0.0284
   2.0080E-02   2.0569E-02   1.7221E-03  0.0280
   2.0569E-02   2.1069E-02   1.6547E-03  0.0283
   2.1069E-02   2.1582E-02   1.7118E-03  0.0274
   2.1582E-02   2.2107E-02   1.5617E-03  0.0284
   2.2107E-02   2.2645E-02   1.6644E-03  0.0272
   2.2645E-02   2.3196E-02   1.5955E-03  0.0274
   2.3196E-02   2.3760E-02   1.4179E-03  0.0287
   2.3760E-02   2.4338E-02   1.4523E-03  0.0281
   2.4338E-02   2.4930E-02   1.3897E-03  0.0283
   2.4930E-02   2.5537E-02   1.3698E-03  0.0282
   2.5537E-02   2.6158E-02   1.3634E-03  0.0279
   2.6158E-02   2.6795E-02   1.3612E-03  0.0276
   2.6795E-02   2.7447E-02   1.3018E-03  0.0279
   2.7447E-02   2.8114E-02   1.2655E-03  0.0279
   2.8114E-02   2.8799E-02   1.2549E-03  0.0277
   2.8799E-02   2.9499E-02   1.2585E-03  0.0274
   2.9499E-02   3.0217E-02   1.2164E-03  0.0275
   3.0217E-02   3.0952E-02   1.2107E-03  0.0272
   3.0952E-02   3.1705E-02   1.2080E-03  0.0270
   3.1705E-02   3.2477E-02   1.1787E-03  0.0270
   3.2477E-02   3.3267E-02   1.1232E-03  0.0273
   3.3267E-02   3.4076E-02   1.0887E-03  0.0274
   3.4076E-02   3.4905E-02   1.0619E-03  0.0274
   3.4905E-02   3.5755E-02   1.0664E-03  0.0270
   3.5755E-02   3.6625E-02   1.0052E-03  0.0275
   3.6625E-02   3.7516E-02   1.0167E-03  0.0270
   3.7516E-02   3.8428E-02   1.0014E-03  0.0269
   3.8428E-02   3.9363E-02   9.9012E-04  0.0267
   3.9363E-02   4.0321E-02   9.3903E-04  0.0271
   4.0321E-02   4.1302E-02   9.1376E-04  0.0272
   4.1302E-02   4.2307E-02   9.1456E-04  0.0268
   4.2307E-02   4.3337E-02   8.3499E-04  0.0277
   4.3337E-02   4.4391E-02   8.7852E-04  0.0267
   4.4391E-02   4.5471E-02   8.7105E-04  0.0265
   4.5471E-02   4.6577E-02   8.6908E-04  0.0262
   4.6577E-02   4.7711E-02   8.1628E-04  0.0267
   4.7711E-02   4.8871E-02   7.8096E-04  0.0270
   4.8871E-02   5.0061E-02   7.7959E-04  0.0267
   5.0061E-02   5.1279E-02   7.4622E-04  0.0269
   5.1279E-02   5.2526E-02   7.4949E-04  0.0266
   5.2526E-02   5.3804E-02   7.1639E-04  0.0268
   5.3804E-02   5.5113E-02   7.2667E-04  0.0264
   5.5113E-02   5.6454E-02   7.0816E-04  0.0264
   5.6454E-02   5.7828E-02   6.8339E-04  0.0265
   5.7828E-02   5.9235E-02   6.9513E-04  0.0260
   5.9235E-02   6.0676E-02   6.3137E-04  0.0269
   6.0676E-02   6.2152E-02   6.3798E-04  0.0265
   6.2152E-02   6.3665E-02   6.6505E-04  0.0256
   6.3665E-02   6.5214E-02   6.1293E-04  0.0264
   6.5214E-02   6.6800E-02   6.2374E-04  0.0259
   6.6800E-02   6.8426E-02   6.0072E-04  0.0260
   6.8426E-02   7.0090E-02   5.5870E-04  0.0266
   7.0090E-02   7.1796E-02   5.6027E-04  0.0263
   7.1796E-02   7.3543E-02   5.3433E-04  0.0266
   7.3543E-02   7.5332E-02   5.4077E-04  0.0261
   7.5332E-02   7.7165E-02   5.0566E-04  0.0267
   7.7165E-02   7.9042E-02   4.9934E-04  0.0265
   7.9042E-02   8.0965E-02   5.1122E-04  0.0259
   8.0965E-02   8.2935E-02   4.9801E-04  0.0259
   8.2935E-02   8.4953E-02   4.6971E-04  0.0264
   8.4953E-02   8.7020E-02   4.7922E-04  0.0258
   8.7020E-02   8.9138E-02   4.6568E-04  0.0259
   8.9138E-02   9.1306E-02   4.4747E-04  0.0261
   9.1306E-02   9.3528E-02   4.3404E-04  0.0262
   9.3528E-02   9.5804E-02   4.3338E-04  0.0259
   9.5804E-02   9.8134E-02   4.3420E-04  0.0256
   9.8134E-02   1.0052E-01   4.1990E-04  0.0257
   1.0052E-01   1.0297E-01   4.1108E-04  0.0256
   1.0297E-01   1.0547E-01   4.1017E-04  0.0253
   1.0547E-01   1.0804E-01   3.7468E-04  0.0262
   1.0804E-01   1.1067E-01   3.9013E-04  0.0254
   1.1067E-01   1.1336E-01   3.6675E-04  0.0258
   1.1336E-01   1.1612E-01   3.8305E-04  0.0250
   1.1612E-01   1.1894E-01   3.6192E-04  0.0254
   1.1894E-01   1.2184E-01   3.5587E-04  0.0253
   1.2184E-01   1.2480E-01   3.3781E-04  0.0257
   1.2480E-01   1.2784E-01   3.2238E-04  0.0260
   1.2784E-01   1.3095E-01   3.1962E-04  0.0258
   1.3095E-01   1.3414E-01   3.1624E-04  0.0256
   1.3414E-01   1.3740E-01   3.1291E-04  0.0254
   1.3740E-01   1.4074E-01   3.0216E-04  0.0256
   1.4074E-01   1.4417E-01   2.8966E-04  0.0258
   1.4417E-01   1.4767E-01   2.9962E-04  0.0251
   1.4767E-01   1.5127E-01   2.8751E-04  0.0253
   1.5127E-01   1.5495E-01   2.7955E-04  0.0253
   1.5495E-01   1.5872E-01   2.7648E-04  0.0252
   1.5872E-01   1.6258E-01   2.6345E-04  0.0254
   1.6258E-01   1.6654E-01   2.5586E-04  0.0255
   1.6654E-01   1.7059E-01   2.5381E-04  0.0253
   1.7059E-01   1.7474E-01   2.6032E-04  0.0247
   1.7474E-01   1.7899E-01   2.4312E-04  0.0253
   1.7899E-01   1.8334E-01   2.5358E-04  0.0244
   1.8334E-01   1.8781E-01   2.4204E-04  0.0247
   1.8781E-01   1.9237E-01   2.3546E-04  0.0248
   1.9237E-01   1.9706E-01   2.3160E-04  0.0247
   1.9706E-01   2.0185E-01   2.2771E-04  0.0246
   2.0185E-01   2.0676E-01   2.3171E-04  0.0241
   2.0676E-01   2.1179E-01   2.4361E-04  0.0232
   2.1179E-01   2.1694E-01   2.3741E-04  0.0232
   2.1694E-01   2.2222E-01   2.5353E-04  0.0222
   2.2222E-01   2.2763E-01   2.6912E-04  0.0213
   2.2763E-01   2.3317E-01   2.7686E-04  0.0207
   2.3317E-01   2.3884E-01   2.7996E-04  0.0204
   2.3884E-01   2.4465E-01   3.0161E-04  0.0194
   2.4465E-01   2.5061E-01   3.0441E-04  0.0191
   2.5061E-01   2.5670E-01   3.2285E-04  0.0183
   2.5670E-01   2.6295E-01   3.2474E-04  0.0180
   2.6295E-01   2.6935E-01   3.3878E-04  0.0174
   2.6935E-01   2.7590E-01   3.4502E-04  0.0171
   2.7590E-01   2.8261E-01   3.5549E-04  0.0166
   2.8261E-01   2.8949E-01   3.7158E-04  0.0161
   2.8949E-01   2.9653E-01   3.8269E-04  0.0156
   2.9653E-01   3.0375E-01   3.9130E-04  0.0153
   3.0375E-01   3.1114E-01   4.0360E-04  0.0149
   3.1114E-01   3.1871E-01   4.1993E-04  0.0144
   3.1871E-01   3.2646E-01   4.2623E-04  0.0141
   3.2646E-01   3.3441E-01   4.3997E-04  0.0137
   3.3441E-01   3.4254E-01   4.4414E-04  0.0135
   3.4254E-01   3.5088E-01   4.7000E-04  0.0130
   3.5088E-01   3.5941E-01   4.8272E-04  0.0126
   3.5941E-01   3.6816E-01   4.9992E-04  0.0123
   3.6816E-01   3.7712E-01   5.1328E-04  0.0120
   3.7712E-01   3.8629E-01   5.1374E-04  0.0118
   3.8629E-01   3.9569E-01   5.3446E-04  0.0115
   3.9569E-01   4.0532E-01   5.4906E-04  0.0112
   4.0532E-01   4.1518E-01   5.7030E-04  0.0108
   4.1518E-01   4.2528E-01   5.9915E-04  0.0104
   4.2528E-01   4.3563E-01   5.8532E-04  0.0104
   4.3563E-01   4.4623E-01   6.0243E-04  0.0102
   4.4623E-01   4.5708E-01   6.1207E-04  0.0099
   4.5708E-01   4.6821E-01   6.3739E-04  0.0096
   4.6821E-01   4.7960E-01   6.4430E-04  0.0095
   4.7960E-01   4.9127E-01   6.5536E-04  0.0093
   4.9127E-01   5.0322E-01   6.7442E-04  0.0090
   5.0322E-01   5.1546E-01   6.9818E-04  0.0088
   5.1546E-01   5.2800E-01   6.9594E-04  0.0087
   5.2800E-01   5.4085E-01   7.1717E-04  0.0084
   5.4085E-01   5.5401E-01   7.2574E-04  0.0083
   5.5401E-01   5.6749E-01   7.3997E-04  0.0081
   5.6749E-01   5.8130E-01   7.4412E-04  0.0080
   5.8130E-01   5.9544E-01   7.6122E-04  0.0078
   5.9544E-01   6.0993E-01   7.6829E-04  0.0077
   6.0993E-01   6.2477E-01   7.8872E-04  0.0075
   6.2477E-01   6.3997E-01   7.9701E-04  0.0074
   6.3997E-01   6.5554E-01   8.0418E-04  0.0072
   6.5554E-01   6.7149E-01   8.1958E-04  0.0071
   6.7149E-01   6.8783E-01   8.1665E-04  0.0070
   6.8783E-01   7.0456E-01   8.3367E-04  0.0069
   7.0456E-01   7.2171E-01   8.4486E-04  0.0067
   7.2171E-01   7.3927E-01   8.5048E-04  0.0066
   7.3927E-01   7.5725E-01   8.6237E-04  0.0065
   7.5725E-01   7.7568E-01   8.6451E-04  0.0064
   7.7568E-01   7.9455E-01   8.7017E-04  0.0063
   7.9455E-01   8.1388E-01   8.7557E-04  0.0062
   8.1388E-01   8.3368E-01   8.8769E-04  0.0061
   8.3368E-01   8.5397E-01   8.8971E-04  0.0060
   8.5397E-01   8.7475E-01   8.9074E-04  0.0060
   8.7475E-01   8.9603E-01   9.0420E-04  0.0058
   8.9603E-01   9.1783E-01   8.9797E-04  0.0058
   9.1783E-01   9.4016E-01   9.0315E-04  0.0057
   9.4016E-01   9.6304E-01   9.1075E-04  0.0056
   9.6304E-01   9.8647E-01   9.2199E-04  0.0055
   9.8647E-01   1.0105E+00   9.1300E-04  0.0055
   1.0105E+00   1.0351E+00   9.0526E-04  0.0054
   1.0351E+00   1.0602E+00   8.9541E-04  0.0054
   1.0602E+00   1.0860E+00   8.8326E-04  0.0054
   1.0860E+00   1.1125E+00   8.6924E-04  0.0053
   1.1125E+00   1.1395E+00   8.6342E-04  0.0053
   1.1395E+00   1.1673E+00   8.7276E-04  0.0052
   1.1673E+00   1.1957E+00   8.6936E-04  0.0052
   1.1957E+00   1.2247E+00   8.7236E-04  0.0051
   1.2247E+00   1.2545E+00   8.5039E-04  0.0051
   1.2545E+00   1.2851E+00   8.4194E-04  0.0050
   1.2851E+00   1.3163E+00   8.3272E-04  0.0050
   1.3163E+00   1.3484E+00   8.2202E-04  0.0050
   1.3484E+00   1.3812E+00   8.2355E-04  0.0049
   1.3812E+00   1.4148E+00   8.2061E-04  0.0049
   1.4148E+00   1.4492E+00   8.0786E-04  0.0048
   1.4492E+00   1.4845E+00   8.0185E-04  0.0048
   1.4845E+00   1.5206E+00   8.0060E-04  0.0048
   1.5206E+00   1.5576E+00   7.8181E-04  0.0048
   1.5576E+00   1.5955E+00   7.6989E-04  0.0047
   1.5955E+00   1.6343E+00   7.4712E-04  0.0047
   1.6343E+00   1.6741E+00   7.2364E-04  0.0048
   1.6741E+00   1.7148E+00   7.1410E-04  0.0047
   1.7148E+00   1.7565E+00   7.0819E-04  0.0047
   1.7565E+00   1.7992E+00   6.9853E-04  0.0047
   1.7992E+00   1.8430E+00   6.8593E-04  0.0047
   1.8430E+00   1.8879E+00   6.7477E-04  0.0046
   1.8879E+00   1.9338E+00   6.5893E-04  0.0046
   1.9338E+00   1.9808E+00   6.4658E-04  0.0046
   1.9808E+00   2.0290E+00   6.3757E-04  0.0046
   2.0290E+00   2.0784E+00   6.2162E-04  0.0046
   2.0784E+00   2.1290E+00   6.1166E-04  0.0046
   2.1290E+00   2.1808E+00   5.8764E-04  0.0046
   2.1808E+00   2.2338E+00   5.7266E-04  0.0046
   2.2338E+00   2.2882E+00   5.6333E-04  0.0046
   2.2882E+00   2.3439E+00   5.4223E-04  0.0046
   2.3439E+00   2.4009E+00   5.3621E-04  0.0046
   2.4009E+00   2.4593E+00   5.2419E-04  0.0046
   2.4593E+00   2.5191E+00   5.1537E-04  0.0046
   2.5191E+00   2.5804E+00   5.0134E-04  0.0046
   2.5804E+00   2.6432E+00   4.8933E-04  0.0046
   2.6432E+00   2.7075E+00   4.7432E-04  0.0046
   2.7075E+00   2.7734E+00   4.5876E-04  0.0046
   2.7734E+00   2.8409E+00   4.4372E-04  0.0047
   2.8409E+00   2.9100E+00   4.3256E-04  0.0047
   2.9100E+00   2.9808E+00   4.2068E-04  0.0047
   2.9808E+00   3.0533E+00   4.1191E-04  0.0047
   3.0533E+00   3.1276E+00   3.9939E-04  0.0047
   3.1276E+00   3.2037E+00   3.8782E-04  0.0047
   3.2037E+00   3.2817E+00   3.7450E-04  0.0047
   3.2817E+00   3.3615E+00   3.6186E-04  0.0047
   3.3615E+00   3.4433E+00   3.5281E-04  0.0047
   3.4433E+00   3.5271E+00   3.4042E-04  0.0048
   3.5271E+00   3.6129E+00   3.3383E-04  0.0048
   3.6129E+00   3.7008E+00   3.2531E-04  0.0048
   3.7008E+00   3.7908E+00   3.1408E-04  0.0048
   3.7908E+00   3.8831E+00   3.0694E-04  0.0048
   3.8831E+00   3.9776E+00   2.9791E-04  0.0048
   3.9776E+00   4.0743E+00   2.9284E-04  0.0048
   4.0743E+00   4.1735E+00   2.8626E-04  0.0048
   4.1735E+00   4.2750E+00   2.7758E-04  0.0048
   4.2750E+00   4.3790E+00   2.7244E-04  0.0048
   4.3790E+00   4.4856E+00   2.6759E-04  0.0048
   4.4856E+00   4.5947E+00   2.6374E-04  0.0048
   4.5947E+00   4.7065E+00   2.5751E-04  0.0048
   4.7065E+00   4.8210E+00   2.5307E-04  0.0047
   4.8210E+00   4.9383E+00   2.4587E-04  0.0048
   4.9383E+00   5.0585E+00   2.4422E-04  0.0047
   5.0585E+00   5.1815E+00   2.3910E-04  0.0047
   5.1815E+00   5.3076E+00   2.3062E-04  0.0047
   5.3076E+00   5.4368E+00   2.2349E-04  0.0048
   5.4368E+00   5.5690E+00   2.1591E-04  0.0048
   5.5690E+00   5.7045E+00   2.1215E-04  0.0048
   5.7045E+00   5.8433E+00   2.0345E-04  0.0048
   5.8433E+00   5.9855E+00   1.9733E-04  0.0048
   5.9855E+00   6.1311E+00   1.9005E-04  0.0049
   6.1311E+00   6.2803E+00   1.8375E-04  0.0049
   6.2803E+00   6.4331E+00   1.7840E-04  0.0049
   6.4331E+00   6.5896E+00   1.7216E-04  0.0049
   6.5896E+00   6.7500E+00   1.6702E-04  0.0050
   6.7500E+00   6.9142E+00   1.5959E-04  0.0050
   6.9142E+00   7.0824E+00   1.5467E-04  0.0050
   7.0824E+00   7.2548E+00   1.5017E-04  0.0050
   7.2548E+00   7.4313E+00   1.4444E-04  0.0051
   7.4313E+00   7.6121E+00   1.3953E-04  0.0051
   7.6121E+00   7.7973E+00   1.3471E-04  0.0051
   7.7973E+00   7.9870E+00   1.2775E-04  0.0052
   7.9870E+00   8.1813E+00   1.2332E-04  0.0053
   8.1813E+00   8.3804E+00   1.1933E-04  0.0053
   8.3804E+00   8.5843E+00   1.1533E-04  0.0053
   8.5843E+00   8.7931E+00   1.1042E-04  0.0054
   8.7931E+00   9.0071E+00   1.0557E-04  0.0054
   9.0071E+00   9.2262E+00   1.0136E-04  0.0055
   9.2262E+00   9.4507E+00   9.7948E-05  0.0055
   9.4507E+00   9.6807E+00   9.2103E-05  0.0056
   9.6807E+00   9.9162E+00   8.8968E-05  0.0056
   9.9162E+00   1.0157E+01   8.5154E-05  0.0057
   1.0157E+01   1.0405E+01   8.0911E-05  0.0058
   1.0405E+01   1.0658E+01   7.7264E-05  0.0058
   1.0658E+01   1.0917E+01   7.4794E-05  0.0059
   1.0917E+01   1.1183E+01   7.1109E-05  0.0059
   1.1183E+01   1.1455E+01   6.7094E-05  0.0060
   1.1455E+01   1.1733E+01   6.3590E-05  0.0061
   1.1733E+01   1.2019E+01   6.0678E-05  0.0062
   1.2019E+01   1.2311E+01   5.7022E-05  0.0063
   1.2311E+01   1.2611E+01   5.4858E-05  0.0064
   1.2611E+01   1.2918E+01   5.1860E-05  0.0065
   1.2918E+01   1.3232E+01   4.9320E-05  0.0066
   1.3232E+01   1.3554E+01   4.7318E-05  0.0066
   1.3554E+01   1.3884E+01   4.4026E-05  0.0068
   1.3884E+01   1.4222E+01   4.1348E-05  0.0069
   1.4222E+01   1.4568E+01   3.9306E-05  0.0070
   1.4568E+01   1.4922E+01   3.6492E-05  0.0072
   1.4922E+01   1.5285E+01   3.4734E-05  0.0073
   1.5285E+01   1.5657E+01   3.2474E-05  0.0074
   1.5657E+01   1.6038E+01   3.0674E-05  0.0076
   1.6038E+01   1.6428E+01   2.8758E-05  0.0077
   1.6428E+01   1.6828E+01   2.7220E-05  0.0078
   1.6828E+01   1.7237E+01   2.5345E-05  0.0080
   1.7237E+01   1.7657E+01   2.3674E-05  0.0082
   1.7657E+01   1.8086E+01   2.2133E-05  0.0084
   1.8086E+01   1.8526E+01   2.0419E-05  0.0086
   1.8526E+01   1.8977E+01   1.9425E-05  0.0087
   1.8977E+01   1.9439E+01   1.8250E-05  0.0089
   1.9439E+01   1.9912E+01   1.7632E-05  0.0089
   1.9912E+01   2.0396E+01   1.6474E-05  0.0091
   2.0396E+01   2.0893E+01   1.5469E-05  0.0093
   2.0893E+01   2.1401E+01   1.3894E-05  0.0097
   2.1401E+01   2.1922E+01   1.2977E-05  0.0099
   2.1922E+01   2.2455E+01   1.1903E-05  0.0102
   2.2455E+01   2.3001E+01   1.0743E-05  0.0107
   2.3001E+01   2.3561E+01   1.0070E-05  0.0109
   2.3561E+01   2.4134E+01   8.9082E-06  0.0114
   2.4134E+01   2.4721E+01   8.1187E-06  0.0118
   2.4721E+01   2.5323E+01   7.2220E-06  0.0124
   2.5323E+01   2.5939E+01   6.4586E-06  0.0129
   2.5939E+01   2.6570E+01   5.6471E-06  0.0137
   2.6570E+01   2.7217E+01   5.1809E-06  0.0141
   2.7217E+01   2.7879E+01   4.4750E-06  0.0150
   2.7879E+01   2.8557E+01   4.0031E-06  0.0157
   2.8557E+01   2.9252E+01   3.5309E-06  0.0165
   2.9252E+01   2.9964E+01   3.0761E-06  0.0175
   2.9964E+01   3.0693E+01   2.5732E-06  0.0189
   3.0693E+01   3.1440E+01   2.2452E-06  0.0199
   3.1440E+01   3.2205E+01   2.0027E-06  0.0209
   3.2205E+01   3.2988E+01   1.7901E-06  0.0218
   3.2988E+01   3.3791E+01   1.4768E-06  0.0237
   3.3791E+01   3.4613E+01   1.3047E-06  0.0249
   3.4613E+01   3.5455E+01   1.0845E-06  0.0270
   3.5455E+01   3.6318E+01   9.3356E-07  0.0288
   3.6318E+01   3.7201E+01   7.9218E-07  0.0309
   3.7201E+01   3.8106E+01   6.6436E-07  0.0333
   3.8106E+01   3.9034E+01   5.4719E-07  0.0362
   3.9034E+01   3.9983E+01   4.6681E-07  0.0388
   3.9983E+01   4.0956E+01   3.7348E-07  0.0428
   4.0956E+01   4.1953E+01   3.3317E-07  0.0448
   4.1953E+01   4.2973E+01   2.4623E-07  0.0515
   4.2973E+01   4.4019E+01   1.8937E-07  0.0580
   4.4019E+01   4.5090E+01   1.4566E-07  0.0654
   4.5090E+01   4.6187E+01   1.1789E-07  0.0718
   4.6187E+01   4.7311E+01   8.0681E-08  0.0857
   4.7311E+01   4.8462E+01   7.4711E-08  0.0880
   4.8462E+01   4.9641E+01   5.0886E-08  0.1054
   4.9641E+01   5.0849E+01   4.0845E-08  0.1162
   5.0849E+01   5.2086E+01   3.3948E-08  0.1260
   5.2086E+01   5.3353E+01   2.4725E-08  0.1459
   5.3353E+01   5.4651E+01   1.6434E-08  0.1768
   5.4651E+01   5.5981E+01   8.5231E-09  0.2425
   5.5981E+01   5.7343E+01   4.8945E-09  0.3162
   5.7343E+01   5.8738E+01   4.3004E-09  0.3333
   5.8738E+01   6.0168E+01   2.7989E-09  0.4082
   6.0168E+01   6.1632E+01   4.5540E-10  1.0000
   6.1632E+01   6.3131E+01   1.7783E-09  0.5000
   6.3131E+01   6.4667E+01   2.1701E-09  0.4472
   6.4667E+01   6.6240E+01   1.2711E-09  0.5774
   6.6240E+01   6.7852E+01   0.0000E+00  0.0000
   6.7852E+01   6.9503E+01   0.0000E+00  0.0000
   6.9503E+01   7.1194E+01   0.0000E+00  0.0000
   7.1194E+01   7.2926E+01   0.0000E+00  0.0000
   7.2926E+01   7.4701E+01   0.0000E+00  0.0000
   7.4701E+01   7.6518E+01   0.0000E+00  0.0000
   7.6518E+01   7.8380E+01   0.0000E+00  0.0000
   7.8380E+01   8.0287E+01   0.0000E+00  0.0000
   8.0287E+01   8.2240E+01   0.0000E+00  0.0000
   8.2240E+01   8.4241E+01   0.0000E+00  0.0000
   8.4241E+01   8.6291E+01   0.0000E+00  0.0000
   8.6291E+01   8.8391E+01   0.0000E+00  0.0000
   8.8391E+01   9.0541E+01   0.0000E+00  0.0000
   9.0541E+01   9.2744E+01   0.0000E+00  0.0000
   9.2744E+01   9.5001E+01   0.0000E+00  0.0000
   9.5001E+01   9.7312E+01   0.0000E+00  0.0000
   9.7312E+01   9.9680E+01   0.0000E+00  0.0000
   9.9680E+01   1.0211E+02   0.0000E+00  0.0000
   1.0211E+02   1.0459E+02   0.0000E+00  0.0000
   1.0459E+02   1.0713E+02   0.0000E+00  0.0000
   1.0713E+02   1.0974E+02   0.0000E+00  0.0000
   1.0974E+02   1.1241E+02   0.0000E+00  0.0000
   1.1241E+02   1.1515E+02   0.0000E+00  0.0000
   1.1515E+02   1.1795E+02   0.0000E+00  0.0000
   1.1795E+02   1.2082E+02   0.0000E+00  0.0000
   1.2082E+02   1.2376E+02   0.0000E+00  0.0000
   1.2376E+02   1.2677E+02   0.0000E+00  0.0000
   1.2677E+02   1.2985E+02   0.0000E+00  0.0000
   1.2985E+02   1.3301E+02   0.0000E+00  0.0000
   1.3301E+02   1.3625E+02   0.0000E+00  0.0000
   1.3625E+02   1.3956E+02   0.0000E+00  0.0000
   1.3956E+02   1.4296E+02   0.0000E+00  0.0000
   1.4296E+02   1.4644E+02   0.0000E+00  0.0000
   1.4644E+02   1.5000E+02   0.0000E+00  0.0000

#   sum over                 2.5433E-05
'no. =    1   reg = 117 - 217'
msuc: {\huge [t-cross] in region mesh}
msdr: {\it plotted by \ANGEL \version}
msdl: {\it calculated by \PHITS  3.26}
wt: s(0.7)
\vspace{-3}
  region surface crossing
  area  &=&   1.0000E+00 [cm^2]
e:
 
# Information for Restart Calculation
# This calculation was newly started
# istdev =  2 # 1:Batch variance, 2:History variance
# resc2  = 1.50000000000000000E+09 # Total source weight or Total source weight / maxcas
# resc3  = 1.50000000000000000E+09 # Total history number or Total batch number
# maxcas =   500000000 # History / Batch, only used for istdev=1
# bitrseed = 0000010101110101110110100110011001100101000001100111100100101101 # bit data of rseed
