[ T-Cross ]
    title = [t-cross] in region mesh
     mesh =  reg            # mesh type is region-wise
      reg =    1            # number of crossing regions
      non     r-from    r-to       area
      1       117       217        1.000000    
   e-type =    3            # e-mesh is log given by emin, emax and ne
     emin =  1.0000000E-02  # minimum value of e-mesh points
     emax =   150.0000      # maximum value of e-mesh points
#    edel =  2.4039514E-02  # mesh width of e-mesh points
       ne =    400          # number of e-mesh points
#    data = ( e(i), i = 1, ne + 1 )
#           1.00000E-02  1.02433E-02  1.04925E-02  1.07478E-02  1.10093E-02
#           1.12772E-02  1.15516E-02  1.18326E-02  1.21205E-02  1.24154E-02
#           1.27175E-02  1.30269E-02  1.33439E-02  1.36686E-02  1.40011E-02
#           1.43418E-02  1.46907E-02  1.50482E-02  1.54143E-02  1.57894E-02
#           1.61735E-02  1.65670E-02  1.69701E-02  1.73830E-02  1.78060E-02
#           1.82392E-02  1.86830E-02  1.91375E-02  1.96032E-02  2.00801E-02
#           2.05687E-02  2.10692E-02  2.15818E-02  2.21069E-02  2.26448E-02
#           2.31957E-02  2.37601E-02  2.43382E-02  2.49304E-02  2.55369E-02
#           2.61583E-02  2.67947E-02  2.74467E-02  2.81145E-02  2.87985E-02
#           2.94992E-02  3.02169E-02  3.09521E-02  3.17052E-02  3.24766E-02
#           3.32668E-02  3.40762E-02  3.49053E-02  3.57546E-02  3.66246E-02
#           3.75157E-02  3.84284E-02  3.93634E-02  4.03212E-02  4.13022E-02
#           4.23071E-02  4.33365E-02  4.43909E-02  4.54710E-02  4.65773E-02
#           4.77106E-02  4.88714E-02  5.00605E-02  5.12785E-02  5.25262E-02
#           5.38042E-02  5.51133E-02  5.64542E-02  5.78278E-02  5.92348E-02
#           6.06760E-02  6.21523E-02  6.36645E-02  6.52135E-02  6.68002E-02
#           6.84255E-02  7.00904E-02  7.17957E-02  7.35426E-02  7.53319E-02
#           7.71648E-02  7.90423E-02  8.09655E-02  8.29354E-02  8.49533E-02
#           8.70203E-02  8.91376E-02  9.13064E-02  9.35279E-02  9.58035E-02
#           9.81345E-02  1.00522E-01  1.02968E-01  1.05473E-01  1.08040E-01
#           1.10668E-01  1.13361E-01  1.16119E-01  1.18944E-01  1.21838E-01
#           1.24803E-01  1.27839E-01  1.30950E-01  1.34136E-01  1.37399E-01
#           1.40742E-01  1.44167E-01  1.47675E-01  1.51268E-01  1.54948E-01
#           1.58718E-01  1.62580E-01  1.66535E-01  1.70587E-01  1.74738E-01
#           1.78989E-01  1.83344E-01  1.87805E-01  1.92375E-01  1.97055E-01
#           2.01850E-01  2.06761E-01  2.11792E-01  2.16945E-01  2.22223E-01
#           2.27630E-01  2.33169E-01  2.38842E-01  2.44653E-01  2.50605E-01
#           2.56703E-01  2.62949E-01  2.69346E-01  2.75900E-01  2.82613E-01
#           2.89489E-01  2.96532E-01  3.03747E-01  3.11138E-01  3.18708E-01
#           3.26462E-01  3.34405E-01  3.42542E-01  3.50876E-01  3.59413E-01
#           3.68158E-01  3.77116E-01  3.86291E-01  3.95690E-01  4.05317E-01
#           4.15179E-01  4.25281E-01  4.35628E-01  4.46227E-01  4.57084E-01
#           4.68205E-01  4.79597E-01  4.91266E-01  5.03219E-01  5.15463E-01
#           5.28005E-01  5.40851E-01  5.54011E-01  5.67490E-01  5.81298E-01
#           5.95441E-01  6.09929E-01  6.24769E-01  6.39970E-01  6.55541E-01
#           6.71491E-01  6.87828E-01  7.04564E-01  7.21706E-01  7.39266E-01
#           7.57253E-01  7.75678E-01  7.94551E-01  8.13883E-01  8.33685E-01
#           8.53969E-01  8.74747E-01  8.96030E-01  9.17831E-01  9.40163E-01
#           9.63038E-01  9.86469E-01  1.01047E+00  1.03506E+00  1.06024E+00
#           1.08604E+00  1.11246E+00  1.13953E+00  1.16725E+00  1.19565E+00
#           1.22474E+00  1.25454E+00  1.28507E+00  1.31633E+00  1.34836E+00
#           1.38117E+00  1.41477E+00  1.44920E+00  1.48446E+00  1.52057E+00
#           1.55757E+00  1.59547E+00  1.63429E+00  1.67405E+00  1.71478E+00
#           1.75650E+00  1.79924E+00  1.84302E+00  1.88786E+00  1.93379E+00
#           1.98084E+00  2.02904E+00  2.07841E+00  2.12898E+00  2.18078E+00
#           2.23384E+00  2.28819E+00  2.34386E+00  2.40089E+00  2.45930E+00
#           2.51914E+00  2.58043E+00  2.64322E+00  2.70753E+00  2.77341E+00
#           2.84088E+00  2.91001E+00  2.98081E+00  3.05333E+00  3.12762E+00
#           3.20372E+00  3.28167E+00  3.36152E+00  3.44330E+00  3.52708E+00
#           3.61290E+00  3.70080E+00  3.79085E+00  3.88308E+00  3.97756E+00
#           4.07434E+00  4.17347E+00  4.27501E+00  4.37903E+00  4.48557E+00
#           4.59471E+00  4.70650E+00  4.82102E+00  4.93832E+00  5.05847E+00
#           5.18155E+00  5.30762E+00  5.43676E+00  5.56904E+00  5.70453E+00
#           5.84333E+00  5.98550E+00  6.13114E+00  6.28031E+00  6.43312E+00
#           6.58964E+00  6.74997E+00  6.91420E+00  7.08243E+00  7.25475E+00
#           7.43126E+00  7.61207E+00  7.79728E+00  7.98700E+00  8.18133E+00
#           8.38038E+00  8.58428E+00  8.79315E+00  9.00709E+00  9.22624E+00
#           9.45072E+00  9.68067E+00  9.91620E+00  1.01575E+01  1.04046E+01
#           1.06578E+01  1.09171E+01  1.11827E+01  1.14548E+01  1.17335E+01
#           1.20190E+01  1.23114E+01  1.26109E+01  1.29178E+01  1.32321E+01
#           1.35540E+01  1.38838E+01  1.42216E+01  1.45676E+01  1.49221E+01
#           1.52851E+01  1.56570E+01  1.60380E+01  1.64282E+01  1.68279E+01
#           1.72374E+01  1.76568E+01  1.80864E+01  1.85264E+01  1.89772E+01
#           1.94389E+01  1.99119E+01  2.03963E+01  2.08926E+01  2.14009E+01
#           2.19216E+01  2.24550E+01  2.30014E+01  2.35610E+01  2.41343E+01
#           2.47215E+01  2.53230E+01  2.59391E+01  2.65702E+01  2.72167E+01
#           2.78789E+01  2.85572E+01  2.92520E+01  2.99637E+01  3.06928E+01
#           3.14396E+01  3.22045E+01  3.29881E+01  3.37907E+01  3.46128E+01
#           3.54550E+01  3.63177E+01  3.72013E+01  3.81064E+01  3.90336E+01
#           3.99833E+01  4.09561E+01  4.19526E+01  4.29734E+01  4.40189E+01
#           4.50900E+01  4.61870E+01  4.73108E+01  4.84619E+01  4.96410E+01
#           5.08488E+01  5.20860E+01  5.33533E+01  5.46514E+01  5.59812E+01
#           5.73432E+01  5.87384E+01  6.01676E+01  6.16315E+01  6.31311E+01
#           6.46671E+01  6.62405E+01  6.78522E+01  6.95031E+01  7.11941E+01
#           7.29263E+01  7.47007E+01  7.65182E+01  7.83800E+01  8.02870E+01
#           8.22405E+01  8.42414E+01  8.62911E+01  8.83906E+01  9.05412E+01
#           9.27442E+01  9.50007E+01  9.73122E+01  9.96799E+01  1.02105E+02
#           1.04589E+02  1.07134E+02  1.09741E+02  1.12411E+02  1.15146E+02
#           1.17948E+02  1.20817E+02  1.23757E+02  1.26768E+02  1.29852E+02
#           1.33012E+02  1.36248E+02  1.39563E+02  1.42959E+02  1.46437E+02
#           1.50000E+02
     unit =    2            # unit is [1/cm^2/(MeV/n)/source]
     axis =  eng            # axis of output
     file = detector-18.out  # file name of output for the above axis
   output = f-curr          # surface crossing forward current spectrum
     part =  neutron  
# kf/name :  2112     
#    used :        main (  %)        temp (  %)       total (  %)
#  memory :         414 (  0)           0 (  0)         414 (  0)

#------------------------------------------------------------------------------
#newpage:
#   no. =    1   reg = 117 - 217

x: Energy [MeV/n]
y:  F-Curr [1/cm^2/(MeV/n)/source]         
p: xlog ylog afac(0.8) form(0.9)
h: n            x            y(neutron ),hh0l   n 
#  e-lower      e-upper      neutron     r.err 
   1.0000E-02   1.0243E-02   7.0905E-03  0.0107
   1.0243E-02   1.0493E-02   6.9176E-03  0.0107
   1.0493E-02   1.0748E-02   6.8565E-03  0.0107
   1.0748E-02   1.1009E-02   6.8025E-03  0.0106
   1.1009E-02   1.1277E-02   6.3383E-03  0.0108
   1.1277E-02   1.1552E-02   6.4493E-03  0.0106
   1.1552E-02   1.1833E-02   6.2392E-03  0.0107
   1.1833E-02   1.2121E-02   6.0737E-03  0.0107
   1.2121E-02   1.2415E-02   5.9653E-03  0.0106
   1.2415E-02   1.2718E-02   5.9176E-03  0.0106
   1.2718E-02   1.3027E-02   5.8725E-03  0.0105
   1.3027E-02   1.3344E-02   5.6142E-03  0.0106
   1.3344E-02   1.3669E-02   5.4884E-03  0.0106
   1.3669E-02   1.4001E-02   5.4108E-03  0.0105
   1.4001E-02   1.4342E-02   5.3479E-03  0.0105
   1.4342E-02   1.4691E-02   5.2209E-03  0.0105
   1.4691E-02   1.5048E-02   5.1655E-03  0.0104
   1.5048E-02   1.5414E-02   5.0148E-03  0.0104
   1.5414E-02   1.5789E-02   4.7991E-03  0.0105
   1.5789E-02   1.6174E-02   4.8045E-03  0.0104
   1.6174E-02   1.6567E-02   4.7460E-03  0.0103
   1.6567E-02   1.6970E-02   4.7353E-03  0.0102
   1.6970E-02   1.7383E-02   4.5528E-03  0.0103
   1.7383E-02   1.7806E-02   4.4126E-03  0.0103
   1.7806E-02   1.8239E-02   4.3328E-03  0.0103
   1.8239E-02   1.8683E-02   4.3043E-03  0.0102
   1.8683E-02   1.9138E-02   4.1355E-03  0.0103
   1.9138E-02   1.9603E-02   4.1449E-03  0.0102
   1.9603E-02   2.0080E-02   4.0768E-03  0.0101
   2.0080E-02   2.0569E-02   3.9810E-03  0.0101
   2.0569E-02   2.1069E-02   3.8500E-03  0.0102
   2.1069E-02   2.1582E-02   3.8119E-03  0.0101
   2.1582E-02   2.2107E-02   3.7565E-03  0.0100
   2.2107E-02   2.2645E-02   3.5814E-03  0.0102
   2.2645E-02   2.3196E-02   3.5825E-03  0.0100
   2.3196E-02   2.3760E-02   3.5682E-03  0.0099
   2.3760E-02   2.4338E-02   3.4497E-03  0.0100
   2.4338E-02   2.4930E-02   3.4017E-03  0.0099
   2.4930E-02   2.5537E-02   3.2872E-03  0.0100
   2.5537E-02   2.6158E-02   3.2741E-03  0.0099
   2.6158E-02   2.6795E-02   3.1645E-03  0.0099
   2.6795E-02   2.7447E-02   3.1163E-03  0.0099
   2.7447E-02   2.8114E-02   3.0607E-03  0.0099
   2.8114E-02   2.8799E-02   2.9277E-03  0.0100
   2.8799E-02   2.9499E-02   2.9897E-03  0.0097
   2.9499E-02   3.0217E-02   2.8202E-03  0.0099
   3.0217E-02   3.0952E-02   2.8304E-03  0.0098
   3.0952E-02   3.1705E-02   2.7819E-03  0.0098
   3.1705E-02   3.2477E-02   2.7124E-03  0.0098
   3.2477E-02   3.3267E-02   2.6447E-03  0.0098
   3.3267E-02   3.4076E-02   2.5754E-03  0.0098
   3.4076E-02   3.4905E-02   2.5428E-03  0.0097
   3.4905E-02   3.5755E-02   2.4976E-03  0.0097
   3.5755E-02   3.6625E-02   2.4542E-03  0.0097
   3.6625E-02   3.7516E-02   2.4154E-03  0.0096
   3.7516E-02   3.8428E-02   2.3708E-03  0.0096
   3.8428E-02   3.9363E-02   2.2805E-03  0.0097
   3.9363E-02   4.0321E-02   2.2596E-03  0.0096
   4.0321E-02   4.1302E-02   2.2139E-03  0.0096
   4.1302E-02   4.2307E-02   2.1884E-03  0.0095
   4.2307E-02   4.3337E-02   2.1304E-03  0.0095
   4.3337E-02   4.4391E-02   2.1197E-03  0.0094
   4.4391E-02   4.5471E-02   1.9957E-03  0.0096
   4.5471E-02   4.6577E-02   1.9960E-03  0.0095
   4.6577E-02   4.7711E-02   1.9582E-03  0.0095
   4.7711E-02   4.8871E-02   1.8899E-03  0.0095
   4.8871E-02   5.0061E-02   1.8968E-03  0.0094
   5.0061E-02   5.1279E-02   1.8403E-03  0.0094
   5.1279E-02   5.2526E-02   1.8075E-03  0.0094
   5.2526E-02   5.3804E-02   1.7500E-03  0.0094
   5.3804E-02   5.5113E-02   1.7404E-03  0.0093
   5.5113E-02   5.6454E-02   1.6772E-03  0.0094
   5.6454E-02   5.7828E-02   1.6789E-03  0.0093
   5.7828E-02   5.9235E-02   1.6381E-03  0.0093
   5.9235E-02   6.0676E-02   1.6025E-03  0.0093
   6.0676E-02   6.2152E-02   1.5673E-03  0.0093
   6.2152E-02   6.3665E-02   1.5344E-03  0.0093
   6.3665E-02   6.5214E-02   1.5248E-03  0.0092
   6.5214E-02   6.6800E-02   1.4803E-03  0.0092
   6.6800E-02   6.8426E-02   1.4303E-03  0.0093
   6.8426E-02   7.0090E-02   1.3945E-03  0.0093
   7.0090E-02   7.1796E-02   1.3767E-03  0.0092
   7.1796E-02   7.3543E-02   1.3551E-03  0.0092
   7.3543E-02   7.5332E-02   1.3238E-03  0.0092
   7.5332E-02   7.7165E-02   1.2971E-03  0.0092
   7.7165E-02   7.9042E-02   1.2548E-03  0.0092
   7.9042E-02   8.0965E-02   1.2303E-03  0.0092
   8.0965E-02   8.2935E-02   1.2277E-03  0.0091
   8.2935E-02   8.4953E-02   1.2027E-03  0.0091
   8.4953E-02   8.7020E-02   1.1610E-03  0.0091
   8.7020E-02   8.9138E-02   1.1361E-03  0.0091
   8.9138E-02   9.1306E-02   1.1109E-03  0.0091
   9.1306E-02   9.3528E-02   1.1020E-03  0.0090
   9.3528E-02   9.5804E-02   1.0798E-03  0.0090
   9.5804E-02   9.8134E-02   1.0587E-03  0.0090
   9.8134E-02   1.0052E-01   1.0282E-03  0.0090
   1.0052E-01   1.0297E-01   1.0086E-03  0.0090
   1.0297E-01   1.0547E-01   9.8836E-04  0.0090
   1.0547E-01   1.0804E-01   9.7367E-04  0.0089
   1.0804E-01   1.1067E-01   9.3409E-04  0.0090
   1.1067E-01   1.1336E-01   9.2285E-04  0.0090
   1.1336E-01   1.1612E-01   8.9889E-04  0.0090
   1.1612E-01   1.1894E-01   8.9670E-04  0.0089
   1.1894E-01   1.2184E-01   8.6549E-04  0.0089
   1.2184E-01   1.2480E-01   8.5975E-04  0.0088
   1.2480E-01   1.2784E-01   8.4130E-04  0.0088
   1.2784E-01   1.3095E-01   8.1183E-04  0.0089
   1.3095E-01   1.3414E-01   7.9294E-04  0.0089
   1.3414E-01   1.3740E-01   7.7792E-04  0.0089
   1.3740E-01   1.4074E-01   7.6212E-04  0.0088
   1.4074E-01   1.4417E-01   7.6287E-04  0.0087
   1.4417E-01   1.4767E-01   7.3155E-04  0.0088
   1.4767E-01   1.5127E-01   7.1259E-04  0.0088
   1.5127E-01   1.5495E-01   6.9676E-04  0.0088
   1.5495E-01   1.5872E-01   6.9559E-04  0.0087
   1.5872E-01   1.6258E-01   6.7840E-04  0.0087
   1.6258E-01   1.6654E-01   6.6685E-04  0.0087
   1.6654E-01   1.7059E-01   6.4007E-04  0.0088
   1.7059E-01   1.7474E-01   6.2971E-04  0.0087
   1.7474E-01   1.7899E-01   6.2162E-04  0.0087
   1.7899E-01   1.8334E-01   6.0807E-04  0.0087
   1.8334E-01   1.8781E-01   5.9500E-04  0.0087
   1.8781E-01   1.9237E-01   5.9095E-04  0.0086
   1.9237E-01   1.9706E-01   5.8596E-04  0.0085
   1.9706E-01   2.0185E-01   5.6638E-04  0.0086
   2.0185E-01   2.0676E-01   5.8434E-04  0.0083
   2.0676E-01   2.1179E-01   5.9868E-04  0.0081
   2.1179E-01   2.1694E-01   6.1128E-04  0.0079
   2.1694E-01   2.2222E-01   6.2722E-04  0.0078
   2.2222E-01   2.2763E-01   6.4556E-04  0.0075
   2.2763E-01   2.3317E-01   6.6840E-04  0.0073
   2.3317E-01   2.3884E-01   6.8133E-04  0.0072
   2.3884E-01   2.4465E-01   6.9335E-04  0.0070
   2.4465E-01   2.5061E-01   7.0368E-04  0.0069
   2.5061E-01   2.5670E-01   7.2730E-04  0.0067
   2.5670E-01   2.6295E-01   7.4437E-04  0.0065
   2.6295E-01   2.6935E-01   7.6946E-04  0.0064
   2.6935E-01   2.7590E-01   7.8451E-04  0.0062
   2.7590E-01   2.8261E-01   7.9214E-04  0.0061
   2.8261E-01   2.8949E-01   8.1801E-04  0.0059
   2.8949E-01   2.9653E-01   8.3529E-04  0.0058
   2.9653E-01   3.0375E-01   8.4725E-04  0.0057
   3.0375E-01   3.1114E-01   8.5698E-04  0.0056
   3.1114E-01   3.1871E-01   8.7768E-04  0.0055
   3.1871E-01   3.2646E-01   8.9916E-04  0.0053
   3.2646E-01   3.3441E-01   9.0500E-04  0.0053
   3.3441E-01   3.4254E-01   9.2984E-04  0.0051
   3.4254E-01   3.5088E-01   9.4461E-04  0.0050
   3.5088E-01   3.5941E-01   9.5466E-04  0.0049
   3.5941E-01   3.6816E-01   9.7303E-04  0.0048
   3.6816E-01   3.7712E-01   9.8186E-04  0.0048
   3.7712E-01   3.8629E-01   1.0038E-03  0.0046
   3.8629E-01   3.9569E-01   1.0180E-03  0.0046
   3.9569E-01   4.0532E-01   1.0246E-03  0.0045
   4.0532E-01   4.1518E-01   1.0408E-03  0.0044
   4.1518E-01   4.2528E-01   1.0470E-03  0.0043
   4.2528E-01   4.3563E-01   1.0610E-03  0.0043
   4.3563E-01   4.4623E-01   1.0744E-03  0.0042
   4.4623E-01   4.5708E-01   1.0784E-03  0.0041
   4.5708E-01   4.6821E-01   1.0974E-03  0.0040
   4.6821E-01   4.7960E-01   1.0945E-03  0.0040
   4.7960E-01   4.9127E-01   1.1084E-03  0.0039
   4.9127E-01   5.0322E-01   1.1226E-03  0.0038
   5.0322E-01   5.1546E-01   1.1253E-03  0.0038
   5.1546E-01   5.2800E-01   1.1292E-03  0.0037
   5.2800E-01   5.4085E-01   1.1325E-03  0.0037
   5.4085E-01   5.5401E-01   1.1391E-03  0.0036
   5.5401E-01   5.6749E-01   1.1448E-03  0.0036
   5.6749E-01   5.8130E-01   1.1383E-03  0.0036
   5.8130E-01   5.9544E-01   1.1360E-03  0.0035
   5.9544E-01   6.0993E-01   1.1431E-03  0.0035
   6.0993E-01   6.2477E-01   1.1423E-03  0.0034
   6.2477E-01   6.3997E-01   1.1376E-03  0.0034
   6.3997E-01   6.5554E-01   1.1275E-03  0.0034
   6.5554E-01   6.7149E-01   1.1174E-03  0.0033
   6.7149E-01   6.8783E-01   1.1171E-03  0.0033
   6.8783E-01   7.0456E-01   1.1168E-03  0.0033
   7.0456E-01   7.2171E-01   1.0970E-03  0.0032
   7.2171E-01   7.3927E-01   1.0889E-03  0.0032
   7.3927E-01   7.5725E-01   1.0749E-03  0.0032
   7.5725E-01   7.7568E-01   1.0563E-03  0.0032
   7.7568E-01   7.9455E-01   1.0447E-03  0.0032
   7.9455E-01   8.1388E-01   1.0238E-03  0.0032
   8.1388E-01   8.3368E-01   1.0081E-03  0.0032
   8.3368E-01   8.5397E-01   9.9077E-04  0.0031
   8.5397E-01   8.7475E-01   9.6752E-04  0.0031
   8.7475E-01   8.9603E-01   9.4055E-04  0.0031
   8.9603E-01   9.1783E-01   9.2644E-04  0.0031
   9.1783E-01   9.4016E-01   8.9858E-04  0.0031
   9.4016E-01   9.6304E-01   8.7621E-04  0.0031
   9.6304E-01   9.8647E-01   8.4330E-04  0.0032
   9.8647E-01   1.0105E+00   8.2738E-04  0.0032
   1.0105E+00   1.0351E+00   8.1707E-04  0.0031
   1.0351E+00   1.0602E+00   8.1304E-04  0.0031
   1.0602E+00   1.0860E+00   8.1167E-04  0.0031
   1.0860E+00   1.1125E+00   8.1660E-04  0.0030
   1.1125E+00   1.1395E+00   8.2284E-04  0.0030
   1.1395E+00   1.1673E+00   8.3007E-04  0.0029
   1.1673E+00   1.1957E+00   8.4589E-04  0.0029
   1.1957E+00   1.2247E+00   8.4435E-04  0.0028
   1.2247E+00   1.2545E+00   8.4092E-04  0.0028
   1.2545E+00   1.2851E+00   8.4107E-04  0.0028
   1.2851E+00   1.3163E+00   8.3655E-04  0.0028
   1.3163E+00   1.3484E+00   8.4433E-04  0.0027
   1.3484E+00   1.3812E+00   8.4624E-04  0.0027
   1.3812E+00   1.4148E+00   8.5310E-04  0.0026
   1.4148E+00   1.4492E+00   8.4376E-04  0.0026
   1.4492E+00   1.4845E+00   8.3571E-04  0.0026
   1.4845E+00   1.5206E+00   8.2779E-04  0.0026
   1.5206E+00   1.5576E+00   8.2360E-04  0.0025
   1.5576E+00   1.5955E+00   8.1621E-04  0.0025
   1.5955E+00   1.6343E+00   8.0738E-04  0.0025
   1.6343E+00   1.6741E+00   8.0249E-04  0.0025
   1.6741E+00   1.7148E+00   8.0857E-04  0.0024
   1.7148E+00   1.7565E+00   8.0496E-04  0.0024
   1.7565E+00   1.7992E+00   7.9546E-04  0.0024
   1.7992E+00   1.8430E+00   7.8205E-04  0.0024
   1.8430E+00   1.8879E+00   7.7440E-04  0.0024
   1.8879E+00   1.9338E+00   7.6336E-04  0.0024
   1.9338E+00   1.9808E+00   7.5924E-04  0.0024
   1.9808E+00   2.0290E+00   7.5745E-04  0.0023
   2.0290E+00   2.0784E+00   7.4323E-04  0.0023
   2.0784E+00   2.1290E+00   7.2893E-04  0.0023
   2.1290E+00   2.1808E+00   7.1390E-04  0.0023
   2.1808E+00   2.2338E+00   7.0435E-04  0.0023
   2.2338E+00   2.2882E+00   6.9223E-04  0.0023
   2.2882E+00   2.3439E+00   6.7877E-04  0.0023
   2.3439E+00   2.4009E+00   6.7622E-04  0.0023
   2.4009E+00   2.4593E+00   6.7033E-04  0.0022
   2.4593E+00   2.5191E+00   6.5729E-04  0.0022
   2.5191E+00   2.5804E+00   6.4329E-04  0.0022
   2.5804E+00   2.6432E+00   6.3497E-04  0.0022
   2.6432E+00   2.7075E+00   6.1907E-04  0.0022
   2.7075E+00   2.7734E+00   6.0517E-04  0.0022
   2.7734E+00   2.8409E+00   5.9484E-04  0.0022
   2.8409E+00   2.9100E+00   5.8964E-04  0.0022
   2.9100E+00   2.9808E+00   5.7937E-04  0.0022
   2.9808E+00   3.0533E+00   5.7082E-04  0.0022
   3.0533E+00   3.1276E+00   5.6145E-04  0.0022
   3.1276E+00   3.2037E+00   5.4826E-04  0.0022
   3.2037E+00   3.2817E+00   5.3726E-04  0.0022
   3.2817E+00   3.3615E+00   5.2525E-04  0.0022
   3.3615E+00   3.4433E+00   5.1456E-04  0.0022
   3.4433E+00   3.5271E+00   5.0464E-04  0.0022
   3.5271E+00   3.6129E+00   4.9373E-04  0.0022
   3.6129E+00   3.7008E+00   4.8628E-04  0.0021
   3.7008E+00   3.7908E+00   4.7369E-04  0.0022
   3.7908E+00   3.8831E+00   4.5965E-04  0.0022
   3.8831E+00   3.9776E+00   4.5256E-04  0.0021
   3.9776E+00   4.0743E+00   4.4420E-04  0.0021
   4.0743E+00   4.1735E+00   4.3498E-04  0.0021
   4.1735E+00   4.2750E+00   4.2323E-04  0.0021
   4.2750E+00   4.3790E+00   4.0907E-04  0.0022
   4.3790E+00   4.4856E+00   4.0020E-04  0.0022
   4.4856E+00   4.5947E+00   3.9027E-04  0.0022
   4.5947E+00   4.7065E+00   3.7918E-04  0.0022
   4.7065E+00   4.8210E+00   3.6835E-04  0.0022
   4.8210E+00   4.9383E+00   3.5727E-04  0.0022
   4.9383E+00   5.0585E+00   3.4272E-04  0.0022
   5.0585E+00   5.1815E+00   3.3332E-04  0.0022
   5.1815E+00   5.3076E+00   3.2216E-04  0.0022
   5.3076E+00   5.4368E+00   3.1357E-04  0.0022
   5.4368E+00   5.5690E+00   3.0323E-04  0.0022
   5.5690E+00   5.7045E+00   2.9255E-04  0.0022
   5.7045E+00   5.8433E+00   2.8337E-04  0.0022
   5.8433E+00   5.9855E+00   2.7539E-04  0.0022
   5.9855E+00   6.1311E+00   2.6788E-04  0.0023
   6.1311E+00   6.2803E+00   2.5776E-04  0.0023
   6.2803E+00   6.4331E+00   2.4886E-04  0.0023
   6.4331E+00   6.5896E+00   2.4005E-04  0.0023
   6.5896E+00   6.7500E+00   2.3116E-04  0.0023
   6.7500E+00   6.9142E+00   2.2238E-04  0.0023
   6.9142E+00   7.0824E+00   2.1573E-04  0.0023
   7.0824E+00   7.2548E+00   2.0615E-04  0.0024
   7.2548E+00   7.4313E+00   1.9907E-04  0.0024
   7.4313E+00   7.6121E+00   1.9105E-04  0.0024
   7.6121E+00   7.7973E+00   1.8404E-04  0.0024
   7.7973E+00   7.9870E+00   1.7421E-04  0.0025
   7.9870E+00   8.1813E+00   1.6852E-04  0.0025
   8.1813E+00   8.3804E+00   1.6054E-04  0.0025
   8.3804E+00   8.5843E+00   1.5275E-04  0.0025
   8.5843E+00   8.7931E+00   1.4644E-04  0.0025
   8.7931E+00   9.0071E+00   1.4105E-04  0.0026
   9.0071E+00   9.2262E+00   1.3441E-04  0.0026
   9.2262E+00   9.4507E+00   1.2898E-04  0.0026
   9.4507E+00   9.6807E+00   1.2320E-04  0.0027
   9.6807E+00   9.9162E+00   1.1772E-04  0.0027
   9.9162E+00   1.0157E+01   1.1251E-04  0.0027
   1.0157E+01   1.0405E+01   1.1025E-04  0.0027
   1.0405E+01   1.0658E+01   1.1063E-04  0.0027
   1.0658E+01   1.0917E+01   1.0710E-04  0.0027
   1.0917E+01   1.1183E+01   1.0272E-04  0.0027
   1.1183E+01   1.1455E+01   9.8548E-05  0.0027
   1.1455E+01   1.1733E+01   9.3840E-05  0.0028
   1.1733E+01   1.2019E+01   8.8427E-05  0.0028
   1.2019E+01   1.2311E+01   8.2952E-05  0.0029
   1.2311E+01   1.2611E+01   7.8069E-05  0.0029
   1.2611E+01   1.2918E+01   7.3961E-05  0.0030
   1.2918E+01   1.3232E+01   7.1417E-05  0.0030
   1.3232E+01   1.3554E+01   6.7928E-05  0.0030
   1.3554E+01   1.3884E+01   6.3932E-05  0.0031
   1.3884E+01   1.4222E+01   6.1084E-05  0.0031
   1.4222E+01   1.4568E+01   5.6761E-05  0.0032
   1.4568E+01   1.4922E+01   5.3073E-05  0.0033
   1.4922E+01   1.5285E+01   5.0096E-05  0.0033
   1.5285E+01   1.5657E+01   4.6968E-05  0.0034
   1.5657E+01   1.6038E+01   4.3861E-05  0.0035
   1.6038E+01   1.6428E+01   4.0829E-05  0.0035
   1.6428E+01   1.6828E+01   3.8503E-05  0.0036
   1.6828E+01   1.7237E+01   3.6248E-05  0.0037
   1.7237E+01   1.7657E+01   3.3912E-05  0.0037
   1.7657E+01   1.8086E+01   3.1613E-05  0.0038
   1.8086E+01   1.8526E+01   2.9975E-05  0.0039
   1.8526E+01   1.8977E+01   2.8101E-05  0.0040
   1.8977E+01   1.9439E+01   2.6566E-05  0.0040
   1.9439E+01   1.9912E+01   2.5487E-05  0.0041
   1.9912E+01   2.0396E+01   2.3858E-05  0.0042
   2.0396E+01   2.0893E+01   2.2299E-05  0.0043
   2.0893E+01   2.1401E+01   2.0688E-05  0.0044
   2.1401E+01   2.1922E+01   1.9345E-05  0.0045
   2.1922E+01   2.2455E+01   1.8135E-05  0.0045
   2.2455E+01   2.3001E+01   1.6579E-05  0.0047
   2.3001E+01   2.3561E+01   1.5557E-05  0.0048
   2.3561E+01   2.4134E+01   1.4300E-05  0.0049
   2.4134E+01   2.4721E+01   1.3221E-05  0.0051
   2.4721E+01   2.5323E+01   1.2384E-05  0.0052
   2.5323E+01   2.5939E+01   1.1436E-05  0.0053
   2.5939E+01   2.6570E+01   1.0579E-05  0.0055
   2.6570E+01   2.7217E+01   9.6285E-06  0.0057
   2.7217E+01   2.7879E+01   8.7535E-06  0.0059
   2.7879E+01   2.8557E+01   8.1820E-06  0.0060
   2.8557E+01   2.9252E+01   7.4664E-06  0.0062
   2.9252E+01   2.9964E+01   6.8698E-06  0.0064
   2.9964E+01   3.0693E+01   6.3426E-06  0.0066
   3.0693E+01   3.1440E+01   5.7757E-06  0.0068
   3.1440E+01   3.2205E+01   5.3026E-06  0.0070
   3.2205E+01   3.2988E+01   4.7080E-06  0.0074
   3.2988E+01   3.3791E+01   4.3467E-06  0.0076
   3.3791E+01   3.4613E+01   3.9270E-06  0.0079
   3.4613E+01   3.5455E+01   3.4635E-06  0.0083
   3.5455E+01   3.6318E+01   3.1853E-06  0.0085
   3.6318E+01   3.7201E+01   2.8756E-06  0.0089
   3.7201E+01   3.8106E+01   2.5806E-06  0.0093
   3.8106E+01   3.9034E+01   2.3004E-06  0.0097
   3.9034E+01   3.9983E+01   2.0568E-06  0.0101
   3.9983E+01   4.0956E+01   1.8373E-06  0.0106
   4.0956E+01   4.1953E+01   1.6181E-06  0.0111
   4.1953E+01   4.2973E+01   1.4248E-06  0.0117
   4.2973E+01   4.4019E+01   1.2690E-06  0.0123
   4.4019E+01   4.5090E+01   1.1195E-06  0.0129
   4.5090E+01   4.6187E+01   1.0038E-06  0.0135
   4.6187E+01   4.7311E+01   8.6281E-07  0.0144
   4.7311E+01   4.8462E+01   7.3077E-07  0.0154
   4.8462E+01   4.9641E+01   6.3047E-07  0.0164
   4.9641E+01   5.0849E+01   5.3452E-07  0.0176
   5.0849E+01   5.2086E+01   4.7268E-07  0.0185
   5.2086E+01   5.3353E+01   4.0590E-07  0.0197
   5.3353E+01   5.4651E+01   3.6221E-07  0.0206
   5.4651E+01   5.5981E+01   3.0172E-07  0.0223
   5.5981E+01   5.7343E+01   2.4742E-07  0.0244
   5.7343E+01   5.8738E+01   2.0728E-07  0.0263
   5.8738E+01   6.0168E+01   1.8179E-07  0.0277
   6.0168E+01   6.1632E+01   1.3894E-07  0.0314
   6.1632E+01   6.3131E+01   1.1457E-07  0.0341
   6.3131E+01   6.4667E+01   9.0493E-08  0.0379
   6.4667E+01   6.6240E+01   7.2582E-08  0.0418
   6.6240E+01   6.7852E+01   6.3660E-08  0.0442
   6.7852E+01   6.9503E+01   4.8459E-08  0.0500
   6.9503E+01   7.1194E+01   3.8674E-08  0.0553
   7.1194E+01   7.2926E+01   3.3483E-08  0.0587
   7.2926E+01   7.4701E+01   2.5361E-08  0.0667
   7.4701E+01   7.6518E+01   1.9587E-08  0.0750
   7.6518E+01   7.8380E+01   1.6006E-08  0.0819
   7.8380E+01   8.0287E+01   1.2270E-08  0.0925
   8.0287E+01   8.2240E+01   1.0136E-08  0.1005
   8.2240E+01   8.4241E+01   8.0961E-09  0.1111
   8.4241E+01   8.6291E+01   6.4401E-09  0.1231
   8.6291E+01   8.8391E+01   3.9056E-09  0.1562
   8.8391E+01   9.0541E+01   2.7899E-09  0.1826
   9.0541E+01   9.2744E+01   2.0881E-09  0.2085
   9.2744E+01   9.5001E+01   1.9499E-09  0.2132
   9.5001E+01   9.7312E+01   8.6526E-10  0.3162
   9.7312E+01   9.9680E+01   1.3515E-09  0.2500
   9.9680E+01   1.0211E+02   2.4739E-10  0.5774
   1.0211E+02   1.0459E+02   2.4152E-10  0.5774
   1.0459E+02   1.0713E+02   2.3578E-10  0.5774
   1.0713E+02   1.0974E+02   2.3018E-10  0.5774
   1.0974E+02   1.1241E+02   0.0000E+00  0.0000
   1.1241E+02   1.1515E+02   0.0000E+00  0.0000
   1.1515E+02   1.1795E+02   0.0000E+00  0.0000
   1.1795E+02   1.2082E+02   1.3938E-10  0.7071
   1.2082E+02   1.2376E+02   0.0000E+00  0.0000
   1.2376E+02   1.2677E+02   6.6421E-11  1.0000
   1.2677E+02   1.2985E+02   0.0000E+00  0.0000
   1.2985E+02   1.3301E+02   0.0000E+00  0.0000
   1.3301E+02   1.3625E+02   0.0000E+00  0.0000
   1.3625E+02   1.3956E+02   0.0000E+00  0.0000
   1.3956E+02   1.4296E+02   0.0000E+00  0.0000
   1.4296E+02   1.4644E+02   0.0000E+00  0.0000
   1.4644E+02   1.5000E+02   0.0000E+00  0.0000

#   sum over                 3.4782E-05
'no. =    1   reg = 117 - 217'
msuc: {\huge [t-cross] in region mesh}
msdr: {\it plotted by \ANGEL \version}
msdl: {\it calculated by \PHITS  3.28}
wt: s(0.7)
\vspace{-3}
  region surface crossing
  area  &=&   1.0000E+00 [cm^2]
e:
 
# Information for Restart Calculation
# This calculation was newly started
# istdev =  2 # 1:Batch variance, 2:History variance
# resc2  = 5.00000000000000000E+09 # Total source weight or Total source weight / maxcas
# resc3  = 5.00000000000000000E+09 # Total history number or Total batch number
# maxcas =   500000000 # History / Batch, only used for istdev=1
# bitrseed = 0110100000100010111000001110001111001110100100011111101000111001 # bit data of rseed
