[ T-Cross ]
    title = [t-cross] in region mesh
     mesh =  reg            # mesh type is region-wise
      reg =    1            # number of crossing regions
      non     r-from    r-to       area
      1       116       216        1.000000    
   e-type =    3            # e-mesh is log given by emin, emax and ne
     emin =  1.0000000E-02  # minimum value of e-mesh points
     emax =   150.0000      # maximum value of e-mesh points
#    edel =  2.4039514E-02  # mesh width of e-mesh points
       ne =    400          # number of e-mesh points
#    data = ( e(i), i = 1, ne + 1 )
#           1.00000E-02  1.02433E-02  1.04925E-02  1.07478E-02  1.10093E-02
#           1.12772E-02  1.15516E-02  1.18326E-02  1.21205E-02  1.24154E-02
#           1.27175E-02  1.30269E-02  1.33439E-02  1.36686E-02  1.40011E-02
#           1.43418E-02  1.46907E-02  1.50482E-02  1.54143E-02  1.57894E-02
#           1.61735E-02  1.65670E-02  1.69701E-02  1.73830E-02  1.78060E-02
#           1.82392E-02  1.86830E-02  1.91375E-02  1.96032E-02  2.00801E-02
#           2.05687E-02  2.10692E-02  2.15818E-02  2.21069E-02  2.26448E-02
#           2.31957E-02  2.37601E-02  2.43382E-02  2.49304E-02  2.55369E-02
#           2.61583E-02  2.67947E-02  2.74467E-02  2.81145E-02  2.87985E-02
#           2.94992E-02  3.02169E-02  3.09521E-02  3.17052E-02  3.24766E-02
#           3.32668E-02  3.40762E-02  3.49053E-02  3.57546E-02  3.66246E-02
#           3.75157E-02  3.84284E-02  3.93634E-02  4.03212E-02  4.13022E-02
#           4.23071E-02  4.33365E-02  4.43909E-02  4.54710E-02  4.65773E-02
#           4.77106E-02  4.88714E-02  5.00605E-02  5.12785E-02  5.25262E-02
#           5.38042E-02  5.51133E-02  5.64542E-02  5.78278E-02  5.92348E-02
#           6.06760E-02  6.21523E-02  6.36645E-02  6.52135E-02  6.68002E-02
#           6.84255E-02  7.00904E-02  7.17957E-02  7.35426E-02  7.53319E-02
#           7.71648E-02  7.90423E-02  8.09655E-02  8.29354E-02  8.49533E-02
#           8.70203E-02  8.91376E-02  9.13064E-02  9.35279E-02  9.58035E-02
#           9.81345E-02  1.00522E-01  1.02968E-01  1.05473E-01  1.08040E-01
#           1.10668E-01  1.13361E-01  1.16119E-01  1.18944E-01  1.21838E-01
#           1.24803E-01  1.27839E-01  1.30950E-01  1.34136E-01  1.37399E-01
#           1.40742E-01  1.44167E-01  1.47675E-01  1.51268E-01  1.54948E-01
#           1.58718E-01  1.62580E-01  1.66535E-01  1.70587E-01  1.74738E-01
#           1.78989E-01  1.83344E-01  1.87805E-01  1.92375E-01  1.97055E-01
#           2.01850E-01  2.06761E-01  2.11792E-01  2.16945E-01  2.22223E-01
#           2.27630E-01  2.33169E-01  2.38842E-01  2.44653E-01  2.50605E-01
#           2.56703E-01  2.62949E-01  2.69346E-01  2.75900E-01  2.82613E-01
#           2.89489E-01  2.96532E-01  3.03747E-01  3.11138E-01  3.18708E-01
#           3.26462E-01  3.34405E-01  3.42542E-01  3.50876E-01  3.59413E-01
#           3.68158E-01  3.77116E-01  3.86291E-01  3.95690E-01  4.05317E-01
#           4.15179E-01  4.25281E-01  4.35628E-01  4.46227E-01  4.57084E-01
#           4.68205E-01  4.79597E-01  4.91266E-01  5.03219E-01  5.15463E-01
#           5.28005E-01  5.40851E-01  5.54011E-01  5.67490E-01  5.81298E-01
#           5.95441E-01  6.09929E-01  6.24769E-01  6.39970E-01  6.55541E-01
#           6.71491E-01  6.87828E-01  7.04564E-01  7.21706E-01  7.39266E-01
#           7.57253E-01  7.75678E-01  7.94551E-01  8.13883E-01  8.33685E-01
#           8.53969E-01  8.74747E-01  8.96030E-01  9.17831E-01  9.40163E-01
#           9.63038E-01  9.86469E-01  1.01047E+00  1.03506E+00  1.06024E+00
#           1.08604E+00  1.11246E+00  1.13953E+00  1.16725E+00  1.19565E+00
#           1.22474E+00  1.25454E+00  1.28507E+00  1.31633E+00  1.34836E+00
#           1.38117E+00  1.41477E+00  1.44920E+00  1.48446E+00  1.52057E+00
#           1.55757E+00  1.59547E+00  1.63429E+00  1.67405E+00  1.71478E+00
#           1.75650E+00  1.79924E+00  1.84302E+00  1.88786E+00  1.93379E+00
#           1.98084E+00  2.02904E+00  2.07841E+00  2.12898E+00  2.18078E+00
#           2.23384E+00  2.28819E+00  2.34386E+00  2.40089E+00  2.45930E+00
#           2.51914E+00  2.58043E+00  2.64322E+00  2.70753E+00  2.77341E+00
#           2.84088E+00  2.91001E+00  2.98081E+00  3.05333E+00  3.12762E+00
#           3.20372E+00  3.28167E+00  3.36152E+00  3.44330E+00  3.52708E+00
#           3.61290E+00  3.70080E+00  3.79085E+00  3.88308E+00  3.97756E+00
#           4.07434E+00  4.17347E+00  4.27501E+00  4.37903E+00  4.48557E+00
#           4.59471E+00  4.70650E+00  4.82102E+00  4.93832E+00  5.05847E+00
#           5.18155E+00  5.30762E+00  5.43676E+00  5.56904E+00  5.70453E+00
#           5.84333E+00  5.98550E+00  6.13114E+00  6.28031E+00  6.43312E+00
#           6.58964E+00  6.74997E+00  6.91420E+00  7.08243E+00  7.25475E+00
#           7.43126E+00  7.61207E+00  7.79728E+00  7.98700E+00  8.18133E+00
#           8.38038E+00  8.58428E+00  8.79315E+00  9.00709E+00  9.22624E+00
#           9.45072E+00  9.68067E+00  9.91620E+00  1.01575E+01  1.04046E+01
#           1.06578E+01  1.09171E+01  1.11827E+01  1.14548E+01  1.17335E+01
#           1.20190E+01  1.23114E+01  1.26109E+01  1.29178E+01  1.32321E+01
#           1.35540E+01  1.38838E+01  1.42216E+01  1.45676E+01  1.49221E+01
#           1.52851E+01  1.56570E+01  1.60380E+01  1.64282E+01  1.68279E+01
#           1.72374E+01  1.76568E+01  1.80864E+01  1.85264E+01  1.89772E+01
#           1.94389E+01  1.99119E+01  2.03963E+01  2.08926E+01  2.14009E+01
#           2.19216E+01  2.24550E+01  2.30014E+01  2.35610E+01  2.41343E+01
#           2.47215E+01  2.53230E+01  2.59391E+01  2.65702E+01  2.72167E+01
#           2.78789E+01  2.85572E+01  2.92520E+01  2.99637E+01  3.06928E+01
#           3.14396E+01  3.22045E+01  3.29881E+01  3.37907E+01  3.46128E+01
#           3.54550E+01  3.63177E+01  3.72013E+01  3.81064E+01  3.90336E+01
#           3.99833E+01  4.09561E+01  4.19526E+01  4.29734E+01  4.40189E+01
#           4.50900E+01  4.61870E+01  4.73108E+01  4.84619E+01  4.96410E+01
#           5.08488E+01  5.20860E+01  5.33533E+01  5.46514E+01  5.59812E+01
#           5.73432E+01  5.87384E+01  6.01676E+01  6.16315E+01  6.31311E+01
#           6.46671E+01  6.62405E+01  6.78522E+01  6.95031E+01  7.11941E+01
#           7.29263E+01  7.47007E+01  7.65182E+01  7.83800E+01  8.02870E+01
#           8.22405E+01  8.42414E+01  8.62911E+01  8.83906E+01  9.05412E+01
#           9.27442E+01  9.50007E+01  9.73122E+01  9.96799E+01  1.02105E+02
#           1.04589E+02  1.07134E+02  1.09741E+02  1.12411E+02  1.15146E+02
#           1.17948E+02  1.20817E+02  1.23757E+02  1.26768E+02  1.29852E+02
#           1.33012E+02  1.36248E+02  1.39563E+02  1.42959E+02  1.46437E+02
#           1.50000E+02
     unit =    2            # unit is [1/cm^2/(MeV/n)/source]
     axis =  eng            # axis of output
     file = detector-17.out  # file name of output for the above axis
   output = f-curr          # surface crossing forward current spectrum
     part =  neutron  
# kf/name :  2112     
#    used :        main (  %)        temp (  %)       total (  %)
#  memory :         414 (  0)           0 (  0)         414 (  0)

#------------------------------------------------------------------------------
#newpage:
#   no. =    1   reg = 116 - 216

x: Energy [MeV/n]
y:  F-Curr [1/cm^2/(MeV/n)/source]         
p: xlog ylog afac(0.8) form(0.9)
h: n            x            y(neutron ),hh0l   n 
#  e-lower      e-upper      neutron     r.err 
   1.0000E-02   1.0243E-02   5.8330E-03  0.0118
   1.0243E-02   1.0493E-02   5.8388E-03  0.0117
   1.0493E-02   1.0748E-02   5.7305E-03  0.0117
   1.0748E-02   1.1009E-02   5.6231E-03  0.0116
   1.1009E-02   1.1277E-02   5.6030E-03  0.0115
   1.1277E-02   1.1552E-02   5.3571E-03  0.0116
   1.1552E-02   1.1833E-02   5.1628E-03  0.0117
   1.1833E-02   1.2121E-02   5.2583E-03  0.0115
   1.2121E-02   1.2415E-02   5.0703E-03  0.0115
   1.2415E-02   1.2718E-02   4.9169E-03  0.0116
   1.2718E-02   1.3027E-02   4.7771E-03  0.0116
   1.3027E-02   1.3344E-02   4.8541E-03  0.0114
   1.3344E-02   1.3669E-02   4.7681E-03  0.0113
   1.3669E-02   1.4001E-02   4.5779E-03  0.0114
   1.4001E-02   1.4342E-02   4.4855E-03  0.0114
   1.4342E-02   1.4691E-02   4.2747E-03  0.0116
   1.4691E-02   1.5048E-02   4.3455E-03  0.0113
   1.5048E-02   1.5414E-02   4.1773E-03  0.0114
   1.5414E-02   1.5789E-02   4.1541E-03  0.0113
   1.5789E-02   1.6174E-02   4.0279E-03  0.0113
   1.6174E-02   1.6567E-02   3.9851E-03  0.0113
   1.6567E-02   1.6970E-02   3.9494E-03  0.0112
   1.6970E-02   1.7383E-02   3.8005E-03  0.0113
   1.7383E-02   1.7806E-02   3.7811E-03  0.0112
   1.7806E-02   1.8239E-02   3.6887E-03  0.0112
   1.8239E-02   1.8683E-02   3.6536E-03  0.0111
   1.8683E-02   1.9138E-02   3.5299E-03  0.0111
   1.9138E-02   1.9603E-02   3.4789E-03  0.0111
   1.9603E-02   2.0080E-02   3.3279E-03  0.0112
   2.0080E-02   2.0569E-02   3.3727E-03  0.0110
   2.0569E-02   2.1069E-02   3.2091E-03  0.0111
   2.1069E-02   2.1582E-02   3.2068E-03  0.0110
   2.1582E-02   2.2107E-02   3.0674E-03  0.0111
   2.2107E-02   2.2645E-02   3.0540E-03  0.0110
   2.2645E-02   2.3196E-02   3.0007E-03  0.0110
   2.3196E-02   2.3760E-02   2.9727E-03  0.0109
   2.3760E-02   2.4338E-02   2.9346E-03  0.0108
   2.4338E-02   2.4930E-02   2.8181E-03  0.0109
   2.4930E-02   2.5537E-02   2.7851E-03  0.0109
   2.5537E-02   2.6158E-02   2.7209E-03  0.0109
   2.6158E-02   2.6795E-02   2.6174E-03  0.0109
   2.6795E-02   2.7447E-02   2.5435E-03  0.0110
   2.7447E-02   2.8114E-02   2.5590E-03  0.0108
   2.8114E-02   2.8799E-02   2.5116E-03  0.0108
   2.8799E-02   2.9499E-02   2.4692E-03  0.0107
   2.9499E-02   3.0217E-02   2.4455E-03  0.0106
   3.0217E-02   3.0952E-02   2.3304E-03  0.0108
   3.0952E-02   3.1705E-02   2.3193E-03  0.0107
   3.1705E-02   3.2477E-02   2.2437E-03  0.0107
   3.2477E-02   3.3267E-02   2.2307E-03  0.0106
   3.3267E-02   3.4076E-02   2.2255E-03  0.0105
   3.4076E-02   3.4905E-02   2.1328E-03  0.0106
   3.4905E-02   3.5755E-02   2.0668E-03  0.0106
   3.5755E-02   3.6625E-02   2.0507E-03  0.0106
   3.6625E-02   3.7516E-02   1.9986E-03  0.0106
   3.7516E-02   3.8428E-02   2.0020E-03  0.0104
   3.8428E-02   3.9363E-02   1.9542E-03  0.0104
   3.9363E-02   4.0321E-02   1.9325E-03  0.0104
   4.0321E-02   4.1302E-02   1.8935E-03  0.0104
   4.1302E-02   4.2307E-02   1.8743E-03  0.0103
   4.2307E-02   4.3337E-02   1.8073E-03  0.0103
   4.3337E-02   4.4391E-02   1.7729E-03  0.0103
   4.4391E-02   4.5471E-02   1.7272E-03  0.0103
   4.5471E-02   4.6577E-02   1.6588E-03  0.0104
   4.6577E-02   4.7711E-02   1.6675E-03  0.0103
   4.7711E-02   4.8871E-02   1.5907E-03  0.0104
   4.8871E-02   5.0061E-02   1.5987E-03  0.0102
   5.0061E-02   5.1279E-02   1.5777E-03  0.0102
   5.1279E-02   5.2526E-02   1.5350E-03  0.0102
   5.2526E-02   5.3804E-02   1.5302E-03  0.0101
   5.3804E-02   5.5113E-02   1.4839E-03  0.0101
   5.5113E-02   5.6454E-02   1.4352E-03  0.0102
   5.6454E-02   5.7828E-02   1.3823E-03  0.0102
   5.7828E-02   5.9235E-02   1.3679E-03  0.0102
   5.9235E-02   6.0676E-02   1.3520E-03  0.0101
   6.0676E-02   6.2152E-02   1.3145E-03  0.0101
   6.2152E-02   6.3665E-02   1.3012E-03  0.0101
   6.3665E-02   6.5214E-02   1.2712E-03  0.0101
   6.5214E-02   6.6800E-02   1.2482E-03  0.0100
   6.6800E-02   6.8426E-02   1.2208E-03  0.0100
   6.8426E-02   7.0090E-02   1.2004E-03  0.0100
   7.0090E-02   7.1796E-02   1.1639E-03  0.0100
   7.1796E-02   7.3543E-02   1.1530E-03  0.0099
   7.3543E-02   7.5332E-02   1.1206E-03  0.0100
   7.5332E-02   7.7165E-02   1.1271E-03  0.0098
   7.7165E-02   7.9042E-02   1.0723E-03  0.0099
   7.9042E-02   8.0965E-02   1.0552E-03  0.0099
   8.0965E-02   8.2935E-02   1.0409E-03  0.0099
   8.2935E-02   8.4953E-02   1.0100E-03  0.0099
   8.4953E-02   8.7020E-02   9.9988E-04  0.0098
   8.7020E-02   8.9138E-02   9.9263E-04  0.0097
   8.9138E-02   9.1306E-02   9.4842E-04  0.0098
   9.1306E-02   9.3528E-02   9.2300E-04  0.0099
   9.3528E-02   9.5804E-02   9.2313E-04  0.0097
   9.5804E-02   9.8134E-02   8.8563E-04  0.0098
   9.8134E-02   1.0052E-01   8.7602E-04  0.0098
   1.0052E-01   1.0297E-01   8.6695E-04  0.0097
   1.0297E-01   1.0547E-01   8.4192E-04  0.0097
   1.0547E-01   1.0804E-01   8.2230E-04  0.0097
   1.0804E-01   1.1067E-01   7.9288E-04  0.0098
   1.1067E-01   1.1336E-01   7.9445E-04  0.0096
   1.1336E-01   1.1612E-01   7.7395E-04  0.0097
   1.1612E-01   1.1894E-01   7.4863E-04  0.0097
   1.1894E-01   1.2184E-01   7.4471E-04  0.0096
   1.2184E-01   1.2480E-01   7.2397E-04  0.0096
   1.2480E-01   1.2784E-01   7.1657E-04  0.0096
   1.2784E-01   1.3095E-01   6.8070E-04  0.0097
   1.3095E-01   1.3414E-01   6.8427E-04  0.0096
   1.3414E-01   1.3740E-01   6.6423E-04  0.0096
   1.3740E-01   1.4074E-01   6.4863E-04  0.0096
   1.4074E-01   1.4417E-01   6.4251E-04  0.0095
   1.4417E-01   1.4767E-01   6.1687E-04  0.0096
   1.4767E-01   1.5127E-01   6.1132E-04  0.0095
   1.5127E-01   1.5495E-01   6.0584E-04  0.0094
   1.5495E-01   1.5872E-01   5.8857E-04  0.0095
   1.5872E-01   1.6258E-01   5.8319E-04  0.0094
   1.6258E-01   1.6654E-01   5.6065E-04  0.0095
   1.6654E-01   1.7059E-01   5.5398E-04  0.0094
   1.7059E-01   1.7474E-01   5.4549E-04  0.0094
   1.7474E-01   1.7899E-01   5.2877E-04  0.0094
   1.7899E-01   1.8334E-01   5.2428E-04  0.0093
   1.8334E-01   1.8781E-01   5.1860E-04  0.0093
   1.8781E-01   1.9237E-01   5.0082E-04  0.0093
   1.9237E-01   1.9706E-01   4.9476E-04  0.0093
   1.9706E-01   2.0185E-01   4.8772E-04  0.0092
   2.0185E-01   2.0676E-01   4.9594E-04  0.0090
   2.0676E-01   2.1179E-01   5.0944E-04  0.0088
   2.1179E-01   2.1694E-01   5.1834E-04  0.0086
   2.1694E-01   2.2222E-01   5.4240E-04  0.0083
   2.2222E-01   2.2763E-01   5.6208E-04  0.0081
   2.2763E-01   2.3317E-01   5.6513E-04  0.0080
   2.3317E-01   2.3884E-01   5.8939E-04  0.0077
   2.3884E-01   2.4465E-01   6.0106E-04  0.0075
   2.4465E-01   2.5061E-01   6.1688E-04  0.0074
   2.5061E-01   2.5670E-01   6.2827E-04  0.0072
   2.5670E-01   2.6295E-01   6.4777E-04  0.0070
   2.6295E-01   2.6935E-01   6.6109E-04  0.0069
   2.6935E-01   2.7590E-01   6.7426E-04  0.0067
   2.7590E-01   2.8261E-01   6.9184E-04  0.0065
   2.8261E-01   2.8949E-01   6.9935E-04  0.0064
   2.8949E-01   2.9653E-01   7.2324E-04  0.0062
   2.9653E-01   3.0375E-01   7.2857E-04  0.0062
   3.0375E-01   3.1114E-01   7.4995E-04  0.0060
   3.1114E-01   3.1871E-01   7.6617E-04  0.0059
   3.1871E-01   3.2646E-01   7.8802E-04  0.0057
   3.2646E-01   3.3441E-01   7.9125E-04  0.0056
   3.3441E-01   3.4254E-01   8.0493E-04  0.0055
   3.4254E-01   3.5088E-01   8.1684E-04  0.0054
   3.5088E-01   3.5941E-01   8.4102E-04  0.0053
   3.5941E-01   3.6816E-01   8.5334E-04  0.0052
   3.6816E-01   3.7712E-01   8.6476E-04  0.0051
   3.7712E-01   3.8629E-01   8.7053E-04  0.0050
   3.8629E-01   3.9569E-01   8.8572E-04  0.0049
   3.9569E-01   4.0532E-01   9.0702E-04  0.0048
   4.0532E-01   4.1518E-01   9.1035E-04  0.0047
   4.1518E-01   4.2528E-01   9.2483E-04  0.0046
   4.2528E-01   4.3563E-01   9.3036E-04  0.0045
   4.3563E-01   4.4623E-01   9.4143E-04  0.0045
   4.4623E-01   4.5708E-01   9.4937E-04  0.0044
   4.5708E-01   4.6821E-01   9.6077E-04  0.0043
   4.6821E-01   4.7960E-01   9.6955E-04  0.0042
   4.7960E-01   4.9127E-01   9.7559E-04  0.0042
   4.9127E-01   5.0322E-01   9.9076E-04  0.0041
   5.0322E-01   5.1546E-01   9.9732E-04  0.0040
   5.1546E-01   5.2800E-01   1.0019E-03  0.0040
   5.2800E-01   5.4085E-01   1.0059E-03  0.0039
   5.4085E-01   5.5401E-01   1.0161E-03  0.0039
   5.5401E-01   5.6749E-01   1.0181E-03  0.0038
   5.6749E-01   5.8130E-01   1.0197E-03  0.0038
   5.8130E-01   5.9544E-01   1.0161E-03  0.0037
   5.9544E-01   6.0993E-01   1.0212E-03  0.0037
   6.0993E-01   6.2477E-01   1.0141E-03  0.0036
   6.2477E-01   6.3997E-01   1.0127E-03  0.0036
   6.3997E-01   6.5554E-01   1.0119E-03  0.0036
   6.5554E-01   6.7149E-01   1.0123E-03  0.0035
   6.7149E-01   6.8783E-01   1.0001E-03  0.0035
   6.8783E-01   7.0456E-01   9.9011E-04  0.0035
   7.0456E-01   7.2171E-01   9.8519E-04  0.0034
   7.2171E-01   7.3927E-01   9.8702E-04  0.0034
   7.3927E-01   7.5725E-01   9.7418E-04  0.0034
   7.5725E-01   7.7568E-01   9.5744E-04  0.0034
   7.7568E-01   7.9455E-01   9.4508E-04  0.0033
   7.9455E-01   8.1388E-01   9.3292E-04  0.0033
   8.1388E-01   8.3368E-01   9.1066E-04  0.0033
   8.3368E-01   8.5397E-01   8.9388E-04  0.0033
   8.5397E-01   8.7475E-01   8.8070E-04  0.0033
   8.7475E-01   8.9603E-01   8.6439E-04  0.0033
   8.9603E-01   9.1783E-01   8.4286E-04  0.0033
   9.1783E-01   9.4016E-01   8.1845E-04  0.0033
   9.4016E-01   9.6304E-01   7.9367E-04  0.0033
   9.6304E-01   9.8647E-01   7.6911E-04  0.0033
   9.8647E-01   1.0105E+00   7.5867E-04  0.0033
   1.0105E+00   1.0351E+00   7.5037E-04  0.0033
   1.0351E+00   1.0602E+00   7.5561E-04  0.0032
   1.0602E+00   1.0860E+00   7.5514E-04  0.0032
   1.0860E+00   1.1125E+00   7.6702E-04  0.0031
   1.1125E+00   1.1395E+00   7.7458E-04  0.0031
   1.1395E+00   1.1673E+00   7.8417E-04  0.0030
   1.1673E+00   1.1957E+00   7.9623E-04  0.0030
   1.1957E+00   1.2247E+00   8.0768E-04  0.0029
   1.2247E+00   1.2545E+00   8.0228E-04  0.0029
   1.2545E+00   1.2851E+00   8.0499E-04  0.0028
   1.2851E+00   1.3163E+00   8.0881E-04  0.0028
   1.3163E+00   1.3484E+00   8.1952E-04  0.0027
   1.3484E+00   1.3812E+00   8.2452E-04  0.0027
   1.3812E+00   1.4148E+00   8.3923E-04  0.0026
   1.4148E+00   1.4492E+00   8.3412E-04  0.0026
   1.4492E+00   1.4845E+00   8.2808E-04  0.0026
   1.4845E+00   1.5206E+00   8.2371E-04  0.0026
   1.5206E+00   1.5576E+00   8.2479E-04  0.0025
   1.5576E+00   1.5955E+00   8.1917E-04  0.0025
   1.5955E+00   1.6343E+00   8.2090E-04  0.0025
   1.6343E+00   1.6741E+00   8.2150E-04  0.0025
   1.6741E+00   1.7148E+00   8.2652E-04  0.0024
   1.7148E+00   1.7565E+00   8.2641E-04  0.0024
   1.7565E+00   1.7992E+00   8.1834E-04  0.0024
   1.7992E+00   1.8430E+00   8.1132E-04  0.0024
   1.8430E+00   1.8879E+00   8.0821E-04  0.0023
   1.8879E+00   1.9338E+00   7.9698E-04  0.0023
   1.9338E+00   1.9808E+00   8.0352E-04  0.0023
   1.9808E+00   2.0290E+00   7.9924E-04  0.0023
   2.0290E+00   2.0784E+00   7.8932E-04  0.0023
   2.0784E+00   2.1290E+00   7.7901E-04  0.0022
   2.1290E+00   2.1808E+00   7.6461E-04  0.0022
   2.1808E+00   2.2338E+00   7.5879E-04  0.0022
   2.2338E+00   2.2882E+00   7.4888E-04  0.0022
   2.2882E+00   2.3439E+00   7.4108E-04  0.0022
   2.3439E+00   2.4009E+00   7.3783E-04  0.0022
   2.4009E+00   2.4593E+00   7.3496E-04  0.0021
   2.4593E+00   2.5191E+00   7.2457E-04  0.0021
   2.5191E+00   2.5804E+00   7.1084E-04  0.0021
   2.5804E+00   2.6432E+00   6.9716E-04  0.0021
   2.6432E+00   2.7075E+00   6.8351E-04  0.0021
   2.7075E+00   2.7734E+00   6.7642E-04  0.0021
   2.7734E+00   2.8409E+00   6.6241E-04  0.0021
   2.8409E+00   2.9100E+00   6.5694E-04  0.0021
   2.9100E+00   2.9808E+00   6.4795E-04  0.0021
   2.9808E+00   3.0533E+00   6.3926E-04  0.0021
   3.0533E+00   3.1276E+00   6.2876E-04  0.0021
   3.1276E+00   3.2037E+00   6.1482E-04  0.0021
   3.2037E+00   3.2817E+00   6.0048E-04  0.0021
   3.2817E+00   3.3615E+00   5.8842E-04  0.0021
   3.3615E+00   3.4433E+00   5.7610E-04  0.0020
   3.4433E+00   3.5271E+00   5.6450E-04  0.0020
   3.5271E+00   3.6129E+00   5.5230E-04  0.0020
   3.6129E+00   3.7008E+00   5.4186E-04  0.0020
   3.7008E+00   3.7908E+00   5.3039E-04  0.0020
   3.7908E+00   3.8831E+00   5.1987E-04  0.0020
   3.8831E+00   3.9776E+00   5.0482E-04  0.0020
   3.9776E+00   4.0743E+00   4.9721E-04  0.0020
   4.0743E+00   4.1735E+00   4.8541E-04  0.0020
   4.1735E+00   4.2750E+00   4.7372E-04  0.0020
   4.2750E+00   4.3790E+00   4.6078E-04  0.0020
   4.3790E+00   4.4856E+00   4.5025E-04  0.0020
   4.4856E+00   4.5947E+00   4.3561E-04  0.0020
   4.5947E+00   4.7065E+00   4.2419E-04  0.0020
   4.7065E+00   4.8210E+00   4.1355E-04  0.0020
   4.8210E+00   4.9383E+00   3.9986E-04  0.0021
   4.9383E+00   5.0585E+00   3.8453E-04  0.0021
   5.0585E+00   5.1815E+00   3.7304E-04  0.0021
   5.1815E+00   5.3076E+00   3.6148E-04  0.0021
   5.3076E+00   5.4368E+00   3.4815E-04  0.0021
   5.4368E+00   5.5690E+00   3.3798E-04  0.0021
   5.5690E+00   5.7045E+00   3.2567E-04  0.0021
   5.7045E+00   5.8433E+00   3.1624E-04  0.0021
   5.8433E+00   5.9855E+00   3.0385E-04  0.0021
   5.9855E+00   6.1311E+00   2.9584E-04  0.0021
   6.1311E+00   6.2803E+00   2.8489E-04  0.0022
   6.2803E+00   6.4331E+00   2.7405E-04  0.0022
   6.4331E+00   6.5896E+00   2.6353E-04  0.0022
   6.5896E+00   6.7500E+00   2.5333E-04  0.0022
   6.7500E+00   6.9142E+00   2.4292E-04  0.0022
   6.9142E+00   7.0824E+00   2.3406E-04  0.0022
   7.0824E+00   7.2548E+00   2.2330E-04  0.0023
   7.2548E+00   7.4313E+00   2.1368E-04  0.0023
   7.4313E+00   7.6121E+00   2.0416E-04  0.0023
   7.6121E+00   7.7973E+00   1.9537E-04  0.0023
   7.7973E+00   7.9870E+00   1.8638E-04  0.0024
   7.9870E+00   8.1813E+00   1.7781E-04  0.0024
   8.1813E+00   8.3804E+00   1.6916E-04  0.0024
   8.3804E+00   8.5843E+00   1.6082E-04  0.0025
   8.5843E+00   8.7931E+00   1.5341E-04  0.0025
   8.7931E+00   9.0071E+00   1.4676E-04  0.0025
   9.0071E+00   9.2262E+00   1.4000E-04  0.0025
   9.2262E+00   9.4507E+00   1.3310E-04  0.0026
   9.4507E+00   9.6807E+00   1.2702E-04  0.0026
   9.6807E+00   9.9162E+00   1.2088E-04  0.0026
   9.9162E+00   1.0157E+01   1.1532E-04  0.0027
   1.0157E+01   1.0405E+01   1.1228E-04  0.0027
   1.0405E+01   1.0658E+01   1.1204E-04  0.0027
   1.0658E+01   1.0917E+01   1.0826E-04  0.0027
   1.0917E+01   1.1183E+01   1.0345E-04  0.0027
   1.1183E+01   1.1455E+01   9.9483E-05  0.0027
   1.1455E+01   1.1733E+01   9.4407E-05  0.0028
   1.1733E+01   1.2019E+01   8.9539E-05  0.0028
   1.2019E+01   1.2311E+01   8.3012E-05  0.0029
   1.2311E+01   1.2611E+01   7.7999E-05  0.0029
   1.2611E+01   1.2918E+01   7.3719E-05  0.0030
   1.2918E+01   1.3232E+01   7.0323E-05  0.0030
   1.3232E+01   1.3554E+01   6.6510E-05  0.0031
   1.3554E+01   1.3884E+01   6.3071E-05  0.0031
   1.3884E+01   1.4222E+01   5.9862E-05  0.0031
   1.4222E+01   1.4568E+01   5.6134E-05  0.0032
   1.4568E+01   1.4922E+01   5.2201E-05  0.0033
   1.4922E+01   1.5285E+01   4.8923E-05  0.0034
   1.5285E+01   1.5657E+01   4.5557E-05  0.0034
   1.5657E+01   1.6038E+01   4.2822E-05  0.0035
   1.6038E+01   1.6428E+01   4.0347E-05  0.0036
   1.6428E+01   1.6828E+01   3.7236E-05  0.0037
   1.6828E+01   1.7237E+01   3.5356E-05  0.0037
   1.7237E+01   1.7657E+01   3.2764E-05  0.0038
   1.7657E+01   1.8086E+01   3.0968E-05  0.0039
   1.8086E+01   1.8526E+01   2.8948E-05  0.0040
   1.8526E+01   1.8977E+01   2.7501E-05  0.0040
   1.8977E+01   1.9439E+01   2.6400E-05  0.0041
   1.9439E+01   1.9912E+01   2.5255E-05  0.0041
   1.9912E+01   2.0396E+01   2.3457E-05  0.0042
   2.0396E+01   2.0893E+01   2.2030E-05  0.0043
   2.0893E+01   2.1401E+01   2.0340E-05  0.0044
   2.1401E+01   2.1922E+01   1.9251E-05  0.0045
   2.1922E+01   2.2455E+01   1.7667E-05  0.0046
   2.2455E+01   2.3001E+01   1.6439E-05  0.0047
   2.3001E+01   2.3561E+01   1.5333E-05  0.0048
   2.3561E+01   2.4134E+01   1.4143E-05  0.0050
   2.4134E+01   2.4721E+01   1.3167E-05  0.0051
   2.4721E+01   2.5323E+01   1.2114E-05  0.0052
   2.5323E+01   2.5939E+01   1.1096E-05  0.0054
   2.5939E+01   2.6570E+01   1.0255E-05  0.0056
   2.6570E+01   2.7217E+01   9.4680E-06  0.0057
   2.7217E+01   2.7879E+01   8.4775E-06  0.0060
   2.7879E+01   2.8557E+01   7.6498E-06  0.0062
   2.8557E+01   2.9252E+01   7.1187E-06  0.0064
   2.9252E+01   2.9964E+01   6.3853E-06  0.0066
   2.9964E+01   3.0693E+01   5.7168E-06  0.0069
   3.0693E+01   3.1440E+01   5.2982E-06  0.0071
   3.1440E+01   3.2205E+01   4.7629E-06  0.0074
   3.2205E+01   3.2988E+01   4.2746E-06  0.0077
   3.2988E+01   3.3791E+01   3.7716E-06  0.0081
   3.3791E+01   3.4613E+01   3.3682E-06  0.0085
   3.4613E+01   3.5455E+01   2.9664E-06  0.0089
   3.5455E+01   3.6318E+01   2.6725E-06  0.0093
   3.6318E+01   3.7201E+01   2.3686E-06  0.0098
   3.7201E+01   3.8106E+01   2.0191E-06  0.0105
   3.8106E+01   3.9034E+01   1.8090E-06  0.0109
   3.9034E+01   3.9983E+01   1.6005E-06  0.0115
   3.9983E+01   4.0956E+01   1.3698E-06  0.0123
   4.0956E+01   4.1953E+01   1.1912E-06  0.0130
   4.1953E+01   4.2973E+01   1.0447E-06  0.0137
   4.2973E+01   4.4019E+01   9.3728E-07  0.0143
   4.4019E+01   4.5090E+01   7.8953E-07  0.0154
   4.5090E+01   4.6187E+01   6.8509E-07  0.0163
   4.6187E+01   4.7311E+01   5.7396E-07  0.0176
   4.7311E+01   4.8462E+01   5.1012E-07  0.0185
   4.8462E+01   4.9641E+01   4.3134E-07  0.0198
   4.9641E+01   5.0849E+01   3.6479E-07  0.0213
   5.0849E+01   5.2086E+01   3.2622E-07  0.0223
   5.2086E+01   5.3353E+01   2.5740E-07  0.0248
   5.3353E+01   5.4651E+01   2.1616E-07  0.0267
   5.4651E+01   5.5981E+01   1.9087E-07  0.0281
   5.5981E+01   5.7343E+01   1.6710E-07  0.0296
   5.7343E+01   5.8738E+01   1.4650E-07  0.0313
   5.8738E+01   6.0168E+01   1.2329E-07  0.0337
   6.0168E+01   6.1632E+01   1.0328E-07  0.0364
   6.1632E+01   6.3131E+01   8.3759E-08  0.0399
   6.3131E+01   6.4667E+01   7.7473E-08  0.0410
   6.4667E+01   6.6240E+01   5.9362E-08  0.0463
   6.6240E+01   6.7852E+01   5.1995E-08  0.0489
   6.7852E+01   6.9503E+01   4.3128E-08  0.0530
   6.9503E+01   7.1194E+01   3.2642E-08  0.0602
   7.1194E+01   7.2926E+01   2.8980E-08  0.0631
   7.2926E+01   7.4701E+01   1.8147E-08  0.0788
   7.4701E+01   7.6518E+01   1.1334E-08  0.0985
   7.6518E+01   7.8380E+01   7.7347E-09  0.1179
   7.8380E+01   8.0287E+01   6.7119E-09  0.1250
   8.0287E+01   8.2240E+01   3.3786E-09  0.1741
   8.2240E+01   8.4241E+01   2.8986E-09  0.1857
   8.4241E+01   8.6291E+01   2.7322E-09  0.1890
   8.6291E+01   8.8391E+01   1.8099E-09  0.2294
   8.8391E+01   9.0541E+01   1.2090E-09  0.2774
   9.0541E+01   9.2744E+01   3.6315E-10  0.5000
   9.2744E+01   9.5001E+01   3.5453E-10  0.5000
   9.5001E+01   9.7312E+01   2.5958E-10  0.5774
   9.7312E+01   9.9680E+01   0.0000E+00  0.0000
   9.9680E+01   1.0211E+02   2.4739E-10  0.5774
   1.0211E+02   1.0459E+02   8.0506E-11  1.0000
   1.0459E+02   1.0713E+02   0.0000E+00  0.0000
   1.0713E+02   1.0974E+02   0.0000E+00  0.0000
   1.0974E+02   1.1241E+02   0.0000E+00  0.0000
   1.1241E+02   1.1515E+02   0.0000E+00  0.0000
   1.1515E+02   1.1795E+02   0.0000E+00  0.0000
   1.1795E+02   1.2082E+02   0.0000E+00  0.0000
   1.2082E+02   1.2376E+02   0.0000E+00  0.0000
   1.2376E+02   1.2677E+02   0.0000E+00  0.0000
   1.2677E+02   1.2985E+02   0.0000E+00  0.0000
   1.2985E+02   1.3301E+02   0.0000E+00  0.0000
   1.3301E+02   1.3625E+02   0.0000E+00  0.0000
   1.3625E+02   1.3956E+02   0.0000E+00  0.0000
   1.3956E+02   1.4296E+02   0.0000E+00  0.0000
   1.4296E+02   1.4644E+02   0.0000E+00  0.0000
   1.4644E+02   1.5000E+02   0.0000E+00  0.0000

#   sum over                 3.5470E-05
'no. =    1   reg = 116 - 216'
msuc: {\huge [t-cross] in region mesh}
msdr: {\it plotted by \ANGEL \version}
msdl: {\it calculated by \PHITS  3.28}
wt: s(0.7)
\vspace{-3}
  region surface crossing
  area  &=&   1.0000E+00 [cm^2]
e:
 
# Information for Restart Calculation
# This calculation was newly started
# istdev =  2 # 1:Batch variance, 2:History variance
# resc2  = 5.00000000000000000E+09 # Total source weight or Total source weight / maxcas
# resc3  = 5.00000000000000000E+09 # Total history number or Total batch number
# maxcas =   500000000 # History / Batch, only used for istdev=1
# bitrseed = 0110100000100010111000001110001111001110100100011111101000111001 # bit data of rseed
