9 <--- number of remaining batches 

-------------------------------------------------------------------------------
bat[       1] ncas =      500000000.
 bitrseed = 0100001010011000001011101100011110011000110110100110010000000000
          cpu time =  11 h. 22 m. 37.67 s.

 date = 2022-06-07
 time = 13h 09m 55s

