8 <--- number of remaining batches 

-------------------------------------------------------------------------------
bat[       2] ncas =     1000000000.
 bitrseed = 1101101111010011011000101101110001100110110010110001010100010001
          cpu time =   3 h. 21 m. 45.36 s.

 date = 2022-05-17
 time = 21h 27m 40s

