[ T-Cross ]
    title = [t-cross] in region mesh
     mesh =  reg            # mesh type is region-wise
      reg =    1            # number of crossing regions
      non     r-from    r-to       area
      1       116       216        1.000000    
   e-type =    3            # e-mesh is log given by emin, emax and ne
     emin =  1.0000000E-02  # minimum value of e-mesh points
     emax =   150.0000      # maximum value of e-mesh points
#    edel =  2.4039514E-02  # mesh width of e-mesh points
       ne =    400          # number of e-mesh points
#    data = ( e(i), i = 1, ne + 1 )
#           1.00000E-02  1.02433E-02  1.04925E-02  1.07478E-02  1.10093E-02
#           1.12772E-02  1.15516E-02  1.18326E-02  1.21205E-02  1.24154E-02
#           1.27175E-02  1.30269E-02  1.33439E-02  1.36686E-02  1.40011E-02
#           1.43418E-02  1.46907E-02  1.50482E-02  1.54143E-02  1.57894E-02
#           1.61735E-02  1.65670E-02  1.69701E-02  1.73830E-02  1.78060E-02
#           1.82392E-02  1.86830E-02  1.91375E-02  1.96032E-02  2.00801E-02
#           2.05687E-02  2.10692E-02  2.15818E-02  2.21069E-02  2.26448E-02
#           2.31957E-02  2.37601E-02  2.43382E-02  2.49304E-02  2.55369E-02
#           2.61583E-02  2.67947E-02  2.74467E-02  2.81145E-02  2.87985E-02
#           2.94992E-02  3.02169E-02  3.09521E-02  3.17052E-02  3.24766E-02
#           3.32668E-02  3.40762E-02  3.49053E-02  3.57546E-02  3.66246E-02
#           3.75157E-02  3.84284E-02  3.93634E-02  4.03212E-02  4.13022E-02
#           4.23071E-02  4.33365E-02  4.43909E-02  4.54710E-02  4.65773E-02
#           4.77106E-02  4.88714E-02  5.00605E-02  5.12785E-02  5.25262E-02
#           5.38042E-02  5.51133E-02  5.64542E-02  5.78278E-02  5.92348E-02
#           6.06760E-02  6.21523E-02  6.36645E-02  6.52135E-02  6.68002E-02
#           6.84255E-02  7.00904E-02  7.17957E-02  7.35426E-02  7.53319E-02
#           7.71648E-02  7.90423E-02  8.09655E-02  8.29354E-02  8.49533E-02
#           8.70203E-02  8.91376E-02  9.13064E-02  9.35279E-02  9.58035E-02
#           9.81345E-02  1.00522E-01  1.02968E-01  1.05473E-01  1.08040E-01
#           1.10668E-01  1.13361E-01  1.16119E-01  1.18944E-01  1.21838E-01
#           1.24803E-01  1.27839E-01  1.30950E-01  1.34136E-01  1.37399E-01
#           1.40742E-01  1.44167E-01  1.47675E-01  1.51268E-01  1.54948E-01
#           1.58718E-01  1.62580E-01  1.66535E-01  1.70587E-01  1.74738E-01
#           1.78989E-01  1.83344E-01  1.87805E-01  1.92375E-01  1.97055E-01
#           2.01850E-01  2.06761E-01  2.11792E-01  2.16945E-01  2.22223E-01
#           2.27630E-01  2.33169E-01  2.38842E-01  2.44653E-01  2.50605E-01
#           2.56703E-01  2.62949E-01  2.69346E-01  2.75900E-01  2.82613E-01
#           2.89489E-01  2.96532E-01  3.03747E-01  3.11138E-01  3.18708E-01
#           3.26462E-01  3.34405E-01  3.42542E-01  3.50876E-01  3.59413E-01
#           3.68158E-01  3.77116E-01  3.86291E-01  3.95690E-01  4.05317E-01
#           4.15179E-01  4.25281E-01  4.35628E-01  4.46227E-01  4.57084E-01
#           4.68205E-01  4.79597E-01  4.91266E-01  5.03219E-01  5.15463E-01
#           5.28005E-01  5.40851E-01  5.54011E-01  5.67490E-01  5.81298E-01
#           5.95441E-01  6.09929E-01  6.24769E-01  6.39970E-01  6.55541E-01
#           6.71491E-01  6.87828E-01  7.04564E-01  7.21706E-01  7.39266E-01
#           7.57253E-01  7.75678E-01  7.94551E-01  8.13883E-01  8.33685E-01
#           8.53969E-01  8.74747E-01  8.96030E-01  9.17831E-01  9.40163E-01
#           9.63038E-01  9.86469E-01  1.01047E+00  1.03506E+00  1.06024E+00
#           1.08604E+00  1.11246E+00  1.13953E+00  1.16725E+00  1.19565E+00
#           1.22474E+00  1.25454E+00  1.28507E+00  1.31633E+00  1.34836E+00
#           1.38117E+00  1.41477E+00  1.44920E+00  1.48446E+00  1.52057E+00
#           1.55757E+00  1.59547E+00  1.63429E+00  1.67405E+00  1.71478E+00
#           1.75650E+00  1.79924E+00  1.84302E+00  1.88786E+00  1.93379E+00
#           1.98084E+00  2.02904E+00  2.07841E+00  2.12898E+00  2.18078E+00
#           2.23384E+00  2.28819E+00  2.34386E+00  2.40089E+00  2.45930E+00
#           2.51914E+00  2.58043E+00  2.64322E+00  2.70753E+00  2.77341E+00
#           2.84088E+00  2.91001E+00  2.98081E+00  3.05333E+00  3.12762E+00
#           3.20372E+00  3.28167E+00  3.36152E+00  3.44330E+00  3.52708E+00
#           3.61290E+00  3.70080E+00  3.79085E+00  3.88308E+00  3.97756E+00
#           4.07434E+00  4.17347E+00  4.27501E+00  4.37903E+00  4.48557E+00
#           4.59471E+00  4.70650E+00  4.82102E+00  4.93832E+00  5.05847E+00
#           5.18155E+00  5.30762E+00  5.43676E+00  5.56904E+00  5.70453E+00
#           5.84333E+00  5.98550E+00  6.13114E+00  6.28031E+00  6.43312E+00
#           6.58964E+00  6.74997E+00  6.91420E+00  7.08243E+00  7.25475E+00
#           7.43126E+00  7.61207E+00  7.79728E+00  7.98700E+00  8.18133E+00
#           8.38038E+00  8.58428E+00  8.79315E+00  9.00709E+00  9.22624E+00
#           9.45072E+00  9.68067E+00  9.91620E+00  1.01575E+01  1.04046E+01
#           1.06578E+01  1.09171E+01  1.11827E+01  1.14548E+01  1.17335E+01
#           1.20190E+01  1.23114E+01  1.26109E+01  1.29178E+01  1.32321E+01
#           1.35540E+01  1.38838E+01  1.42216E+01  1.45676E+01  1.49221E+01
#           1.52851E+01  1.56570E+01  1.60380E+01  1.64282E+01  1.68279E+01
#           1.72374E+01  1.76568E+01  1.80864E+01  1.85264E+01  1.89772E+01
#           1.94389E+01  1.99119E+01  2.03963E+01  2.08926E+01  2.14009E+01
#           2.19216E+01  2.24550E+01  2.30014E+01  2.35610E+01  2.41343E+01
#           2.47215E+01  2.53230E+01  2.59391E+01  2.65702E+01  2.72167E+01
#           2.78789E+01  2.85572E+01  2.92520E+01  2.99637E+01  3.06928E+01
#           3.14396E+01  3.22045E+01  3.29881E+01  3.37907E+01  3.46128E+01
#           3.54550E+01  3.63177E+01  3.72013E+01  3.81064E+01  3.90336E+01
#           3.99833E+01  4.09561E+01  4.19526E+01  4.29734E+01  4.40189E+01
#           4.50900E+01  4.61870E+01  4.73108E+01  4.84619E+01  4.96410E+01
#           5.08488E+01  5.20860E+01  5.33533E+01  5.46514E+01  5.59812E+01
#           5.73432E+01  5.87384E+01  6.01676E+01  6.16315E+01  6.31311E+01
#           6.46671E+01  6.62405E+01  6.78522E+01  6.95031E+01  7.11941E+01
#           7.29263E+01  7.47007E+01  7.65182E+01  7.83800E+01  8.02870E+01
#           8.22405E+01  8.42414E+01  8.62911E+01  8.83906E+01  9.05412E+01
#           9.27442E+01  9.50007E+01  9.73122E+01  9.96799E+01  1.02105E+02
#           1.04589E+02  1.07134E+02  1.09741E+02  1.12411E+02  1.15146E+02
#           1.17948E+02  1.20817E+02  1.23757E+02  1.26768E+02  1.29852E+02
#           1.33012E+02  1.36248E+02  1.39563E+02  1.42959E+02  1.46437E+02
#           1.50000E+02
     unit =    2            # unit is [1/cm^2/(MeV/n)/source]
     axis =  eng            # axis of output
     file = detector-17.out  # file name of output for the above axis
   output = f-curr          # surface crossing forward current spectrum
     part =  neutron  
# kf/name :  2112     
#    used :        main (  %)        temp (  %)       total (  %)
#  memory :         414 (  0)           0 (  0)         414 (  0)

#------------------------------------------------------------------------------
#newpage:
#   no. =    1   reg = 116 - 216

x: Energy [MeV/n]
y:  F-Curr [1/cm^2/(MeV/n)/source]         
p: xlog ylog afac(0.8) form(0.9)
h: n            x            y(neutron ),hh0l   n 
#  e-lower      e-upper      neutron     r.err 
   1.0000E-02   1.0243E-02   3.4567E-04  0.0581
   1.0243E-02   1.0493E-02   3.4887E-04  0.0572
   1.0493E-02   1.0748E-02   3.3368E-04  0.0577
   1.0748E-02   1.1009E-02   3.4821E-04  0.0558
   1.1009E-02   1.1277E-02   3.2326E-04  0.0572
   1.1277E-02   1.1552E-02   2.8710E-04  0.0601
   1.1552E-02   1.1833E-02   2.6708E-04  0.0615
   1.1833E-02   1.2121E-02   3.2319E-04  0.0552
   1.2121E-02   1.2415E-02   2.9395E-04  0.0572
   1.2415E-02   1.2718E-02   2.8666E-04  0.0572
   1.2718E-02   1.3027E-02   2.9083E-04  0.0561
   1.3027E-02   1.3344E-02   2.6901E-04  0.0578
   1.3344E-02   1.3669E-02   2.5916E-04  0.0581
   1.3669E-02   1.4001E-02   2.7570E-04  0.0557
   1.4001E-02   1.4342E-02   2.8153E-04  0.0544
   1.4342E-02   1.4691E-02   2.4522E-04  0.0576
   1.4691E-02   1.5048E-02   2.3153E-04  0.0586
   1.5048E-02   1.5414E-02   2.1023E-04  0.0608
   1.5414E-02   1.5789E-02   2.3393E-04  0.0569
   1.5789E-02   1.6174E-02   2.1323E-04  0.0589
   1.6174E-02   1.6567E-02   2.1183E-04  0.0584
   1.6567E-02   1.6970E-02   2.0400E-04  0.0587
   1.6970E-02   1.7383E-02   1.8824E-04  0.0605
   1.7383E-02   1.7806E-02   1.9035E-04  0.0594
   1.7806E-02   1.8239E-02   1.9739E-04  0.0577
   1.8239E-02   1.8683E-02   1.9788E-04  0.0568
   1.8683E-02   1.9138E-02   2.0279E-04  0.0555
   1.9138E-02   1.9603E-02   1.6604E-04  0.0606
   1.9603E-02   2.0080E-02   1.9239E-04  0.0557
   2.0080E-02   2.0569E-02   1.7271E-04  0.0580
   2.0569E-02   2.1069E-02   1.7847E-04  0.0564
   2.1069E-02   2.1582E-02   1.6911E-04  0.0571
   2.1582E-02   2.2107E-02   1.6821E-04  0.0567
   2.2107E-02   2.2645E-02   1.7586E-04  0.0548
   2.2645E-02   2.3196E-02   1.4845E-04  0.0589
   2.3196E-02   2.3760E-02   1.5846E-04  0.0563
   2.3760E-02   2.4338E-02   1.6743E-04  0.0542
   2.4338E-02   2.4930E-02   1.5573E-04  0.0556
   2.4930E-02   2.5537E-02   1.5278E-04  0.0554
   2.5537E-02   2.6158E-02   1.4201E-04  0.0567
   2.6158E-02   2.6795E-02   1.3462E-04  0.0576
   2.6795E-02   2.7447E-02   1.3681E-04  0.0564
   2.7447E-02   2.8114E-02   1.3518E-04  0.0561
   2.8114E-02   2.8799E-02   1.3383E-04  0.0557
   2.8799E-02   2.9499E-02   1.2896E-04  0.0561
   2.9499E-02   3.0217E-02   1.2914E-04  0.0554
   3.0217E-02   3.0952E-02   1.3057E-04  0.0544
   3.0952E-02   3.1705E-02   1.1646E-04  0.0570
   3.1705E-02   3.2477E-02   1.4473E-04  0.0505
   3.2477E-02   3.3267E-02   1.1620E-04  0.0556
   3.3267E-02   3.4076E-02   1.1656E-04  0.0548
   3.4076E-02   3.4905E-02   1.1116E-04  0.0555
   3.4905E-02   3.5755E-02   1.1652E-04  0.0535
   3.5755E-02   3.6625E-02   1.1016E-04  0.0544
   3.6625E-02   3.7516E-02   1.0471E-04  0.0552
   3.7516E-02   3.8428E-02   1.0202E-04  0.0552
   3.8428E-02   3.9363E-02   1.0089E-04  0.0549
   3.9363E-02   4.0321E-02   1.0610E-04  0.0529
   4.0321E-02   4.1302E-02   1.0239E-04  0.0532
   4.1302E-02   4.2307E-02   9.9366E-05  0.0534
   4.2307E-02   4.3337E-02   9.1265E-05  0.0550
   4.3337E-02   4.4391E-02   9.5399E-05  0.0532
   4.4391E-02   4.5471E-02   8.2343E-05  0.0565
   4.5471E-02   4.6577E-02   8.2066E-05  0.0560
   4.6577E-02   4.7711E-02   9.1083E-05  0.0525
   4.7711E-02   4.8871E-02   8.7635E-05  0.0529
   4.8871E-02   5.0061E-02   7.8205E-05  0.0552
   5.0061E-02   5.1279E-02   8.3952E-05  0.0527
   5.1279E-02   5.2526E-02   8.5085E-05  0.0517
   5.2526E-02   5.3804E-02   7.9501E-05  0.0529
   5.3804E-02   5.5113E-02   8.4050E-05  0.0509
   5.5113E-02   5.6454E-02   7.8256E-05  0.0520
   5.6454E-02   5.7828E-02   7.1226E-05  0.0539
   5.7828E-02   5.9235E-02   7.8730E-05  0.0506
   5.9235E-02   6.0676E-02   7.0295E-05  0.0530
   6.0676E-02   6.2152E-02   6.5316E-05  0.0542
   6.2152E-02   6.3665E-02   6.7414E-05  0.0528
   6.3665E-02   6.5214E-02   6.8091E-05  0.0519
   6.5214E-02   6.6800E-02   6.3817E-05  0.0531
   6.6800E-02   6.8426E-02   6.8638E-05  0.0505
   6.8426E-02   7.0090E-02   5.9446E-05  0.0536
   7.0090E-02   7.1796E-02   5.6396E-05  0.0544
   7.1796E-02   7.3543E-02   6.3023E-05  0.0509
   7.3543E-02   7.5332E-02   5.4458E-05  0.0540
   7.5332E-02   7.7165E-02   5.8523E-05  0.0515
   7.7165E-02   7.9042E-02   5.3576E-05  0.0532
   7.9042E-02   8.0965E-02   5.8762E-05  0.0501
   8.0965E-02   8.2935E-02   5.4870E-05  0.0512
   8.2935E-02   8.4953E-02   5.4718E-05  0.0507
   8.4953E-02   8.7020E-02   5.4526E-05  0.0502
   8.7020E-02   8.9138E-02   5.0035E-05  0.0518
   8.9138E-02   9.1306E-02   5.2102E-05  0.0501
   9.1306E-02   9.3528E-02   4.8837E-05  0.0512
   9.3528E-02   9.5804E-02   4.7891E-05  0.0510
   9.5804E-02   9.8134E-02   5.8484E-05  0.0457
   9.8134E-02   1.0052E-01   4.7987E-05  0.0498
   1.0052E-01   1.0297E-01   5.0566E-05  0.0480
   1.0297E-01   1.0547E-01   5.4905E-05  0.0455
   1.0547E-01   1.0804E-01   6.2384E-05  0.0421
   1.0804E-01   1.1067E-01   6.1029E-05  0.0421
   1.1067E-01   1.1336E-01   6.1251E-05  0.0415
   1.1336E-01   1.1612E-01   6.1654E-05  0.0409
   1.1612E-01   1.1894E-01   6.8815E-05  0.0382
   1.1894E-01   1.2184E-01   7.4332E-05  0.0364
   1.2184E-01   1.2480E-01   7.3945E-05  0.0360
   1.2480E-01   1.2784E-01   8.4898E-05  0.0332
   1.2784E-01   1.3095E-01   8.4543E-05  0.0329
   1.3095E-01   1.3414E-01   8.6917E-05  0.0320
   1.3414E-01   1.3740E-01   9.1516E-05  0.0308
   1.3740E-01   1.4074E-01   9.1657E-05  0.0305
   1.4074E-01   1.4417E-01   9.7615E-05  0.0292
   1.4417E-01   1.4767E-01   1.0030E-04  0.0284
   1.4767E-01   1.5127E-01   1.0639E-04  0.0273
   1.5127E-01   1.5495E-01   1.0575E-04  0.0270
   1.5495E-01   1.5872E-01   1.1415E-04  0.0257
   1.5872E-01   1.6258E-01   1.1758E-04  0.0250
   1.6258E-01   1.6654E-01   1.2580E-04  0.0239
   1.6654E-01   1.7059E-01   1.3222E-04  0.0230
   1.7059E-01   1.7474E-01   1.3914E-04  0.0222
   1.7474E-01   1.7899E-01   1.3903E-04  0.0219
   1.7899E-01   1.8334E-01   1.4892E-04  0.0209
   1.8334E-01   1.8781E-01   1.5134E-04  0.0205
   1.8781E-01   1.9237E-01   1.6307E-04  0.0195
   1.9237E-01   1.9706E-01   1.6237E-04  0.0193
   1.9706E-01   2.0185E-01   1.8095E-04  0.0181
   2.0185E-01   2.0676E-01   1.7948E-04  0.0180
   2.0676E-01   2.1179E-01   1.8471E-04  0.0175
   2.1179E-01   2.1694E-01   1.9677E-04  0.0167
   2.1694E-01   2.2222E-01   1.9779E-04  0.0165
   2.2222E-01   2.2763E-01   2.0887E-04  0.0159
   2.2763E-01   2.3317E-01   2.1934E-04  0.0153
   2.3317E-01   2.3884E-01   2.2561E-04  0.0149
   2.3884E-01   2.4465E-01   2.3018E-04  0.0146
   2.4465E-01   2.5061E-01   2.4086E-04  0.0141
   2.5061E-01   2.5670E-01   2.4368E-04  0.0138
   2.5670E-01   2.6295E-01   2.4943E-04  0.0135
   2.6295E-01   2.6935E-01   2.6654E-04  0.0129
   2.6935E-01   2.7590E-01   2.6825E-04  0.0127
   2.7590E-01   2.8261E-01   2.7826E-04  0.0123
   2.8261E-01   2.8949E-01   2.8824E-04  0.0120
   2.8949E-01   2.9653E-01   3.0005E-04  0.0116
   2.9653E-01   3.0375E-01   3.0074E-04  0.0114
   3.0375E-01   3.1114E-01   3.1800E-04  0.0110
   3.1114E-01   3.1871E-01   3.2414E-04  0.0108
   3.1871E-01   3.2646E-01   3.2621E-04  0.0106
   3.2646E-01   3.3441E-01   3.4403E-04  0.0102
   3.3441E-01   3.4254E-01   3.5324E-04  0.0099
   3.4254E-01   3.5088E-01   3.6203E-04  0.0097
   3.5088E-01   3.5941E-01   3.7439E-04  0.0094
   3.5941E-01   3.6816E-01   3.7241E-04  0.0093
   3.6816E-01   3.7712E-01   3.8605E-04  0.0091
   3.7712E-01   3.8629E-01   3.9875E-04  0.0088
   3.8629E-01   3.9569E-01   4.0556E-04  0.0086
   3.9569E-01   4.0532E-01   4.1470E-04  0.0084
   4.0532E-01   4.1518E-01   4.1127E-04  0.0084
   4.1518E-01   4.2528E-01   4.2344E-04  0.0082
   4.2528E-01   4.3563E-01   4.3104E-04  0.0080
   4.3563E-01   4.4623E-01   4.3244E-04  0.0079
   4.4623E-01   4.5708E-01   4.4092E-04  0.0077
   4.5708E-01   4.6821E-01   4.4619E-04  0.0076
   4.6821E-01   4.7960E-01   4.4592E-04  0.0075
   4.7960E-01   4.9127E-01   4.4562E-04  0.0074
   4.9127E-01   5.0322E-01   4.6155E-04  0.0072
   5.0322E-01   5.1546E-01   4.6056E-04  0.0071
   5.1546E-01   5.2800E-01   4.6237E-04  0.0070
   5.2800E-01   5.4085E-01   4.7271E-04  0.0068
   5.4085E-01   5.5401E-01   4.7985E-04  0.0067
   5.5401E-01   5.6749E-01   4.8127E-04  0.0066
   5.6749E-01   5.8130E-01   4.8471E-04  0.0065
   5.8130E-01   5.9544E-01   4.8783E-04  0.0064
   5.9544E-01   6.0993E-01   4.8210E-04  0.0064
   6.0993E-01   6.2477E-01   4.8477E-04  0.0063
   6.2477E-01   6.3997E-01   4.8668E-04  0.0062
   6.3997E-01   6.5554E-01   4.8867E-04  0.0061
   6.5554E-01   6.7149E-01   4.8528E-04  0.0061
   6.7149E-01   6.8783E-01   4.8642E-04  0.0060
   6.8783E-01   7.0456E-01   4.8283E-04  0.0059
   7.0456E-01   7.2171E-01   4.8290E-04  0.0059
   7.2171E-01   7.3927E-01   4.7855E-04  0.0058
   7.3927E-01   7.5725E-01   4.8089E-04  0.0057
   7.5725E-01   7.7568E-01   4.7270E-04  0.0057
   7.7568E-01   7.9455E-01   4.6902E-04  0.0057
   7.9455E-01   8.1388E-01   4.7048E-04  0.0056
   8.1388E-01   8.3368E-01   4.6171E-04  0.0056
   8.3368E-01   8.5397E-01   4.5847E-04  0.0055
   8.5397E-01   8.7475E-01   4.5022E-04  0.0055
   8.7475E-01   8.9603E-01   4.5001E-04  0.0054
   8.9603E-01   9.1783E-01   4.4003E-04  0.0054
   9.1783E-01   9.4016E-01   4.3110E-04  0.0054
   9.4016E-01   9.6304E-01   4.2408E-04  0.0054
   9.6304E-01   9.8647E-01   4.2082E-04  0.0054
   9.8647E-01   1.0105E+00   4.0854E-04  0.0054
   1.0105E+00   1.0351E+00   3.9822E-04  0.0054
   1.0351E+00   1.0602E+00   3.9720E-04  0.0053
   1.0602E+00   1.0860E+00   3.8996E-04  0.0053
   1.0860E+00   1.1125E+00   3.8434E-04  0.0053
   1.1125E+00   1.1395E+00   3.8851E-04  0.0052
   1.1395E+00   1.1673E+00   3.8390E-04  0.0051
   1.1673E+00   1.1957E+00   3.7867E-04  0.0051
   1.1957E+00   1.2247E+00   3.7790E-04  0.0050
   1.2247E+00   1.2545E+00   3.7694E-04  0.0050
   1.2545E+00   1.2851E+00   3.7041E-04  0.0050
   1.2851E+00   1.3163E+00   3.6664E-04  0.0049
   1.3163E+00   1.3484E+00   3.5950E-04  0.0049
   1.3484E+00   1.3812E+00   3.5549E-04  0.0049
   1.3812E+00   1.4148E+00   3.5262E-04  0.0048
   1.4148E+00   1.4492E+00   3.4871E-04  0.0048
   1.4492E+00   1.4845E+00   3.4428E-04  0.0048
   1.4845E+00   1.5206E+00   3.3805E-04  0.0048
   1.5206E+00   1.5576E+00   3.3056E-04  0.0047
   1.5576E+00   1.5955E+00   3.2500E-04  0.0047
   1.5955E+00   1.6343E+00   3.1812E-04  0.0047
   1.6343E+00   1.6741E+00   3.0960E-04  0.0047
   1.6741E+00   1.7148E+00   3.0420E-04  0.0047
   1.7148E+00   1.7565E+00   2.9382E-04  0.0047
   1.7565E+00   1.7992E+00   2.7769E-04  0.0048
   1.7992E+00   1.8430E+00   2.5903E-04  0.0049
   1.8430E+00   1.8879E+00   2.4311E-04  0.0050
   1.8879E+00   1.9338E+00   2.3552E-04  0.0050
   1.9338E+00   1.9808E+00   2.2643E-04  0.0050
   1.9808E+00   2.0290E+00   2.2147E-04  0.0050
   2.0290E+00   2.0784E+00   2.1772E-04  0.0050
   2.0784E+00   2.1290E+00   2.1473E-04  0.0049
   2.1290E+00   2.1808E+00   2.1581E-04  0.0049
   2.1808E+00   2.2338E+00   2.1563E-04  0.0048
   2.2338E+00   2.2882E+00   2.0879E-04  0.0048
   2.2882E+00   2.3439E+00   1.9983E-04  0.0049
   2.3439E+00   2.4009E+00   1.9330E-04  0.0049
   2.4009E+00   2.4593E+00   1.8878E-04  0.0049
   2.4593E+00   2.5191E+00   1.8558E-04  0.0049
   2.5191E+00   2.5804E+00   1.8192E-04  0.0049
   2.5804E+00   2.6432E+00   1.7728E-04  0.0049
   2.6432E+00   2.7075E+00   1.7362E-04  0.0049
   2.7075E+00   2.7734E+00   1.6651E-04  0.0049
   2.7734E+00   2.8409E+00   1.6397E-04  0.0049
   2.8409E+00   2.9100E+00   1.5940E-04  0.0049
   2.9100E+00   2.9808E+00   1.5641E-04  0.0049
   2.9808E+00   3.0533E+00   1.5397E-04  0.0049
   3.0533E+00   3.1276E+00   1.5058E-04  0.0049
   3.1276E+00   3.2037E+00   1.4763E-04  0.0049
   3.2037E+00   3.2817E+00   1.4655E-04  0.0049
   3.2817E+00   3.3615E+00   1.4603E-04  0.0048
   3.3615E+00   3.4433E+00   1.4244E-04  0.0048
   3.4433E+00   3.5271E+00   1.4149E-04  0.0048
   3.5271E+00   3.6129E+00   1.3981E-04  0.0047
   3.6129E+00   3.7008E+00   1.3725E-04  0.0047
   3.7008E+00   3.7908E+00   1.3532E-04  0.0047
   3.7908E+00   3.8831E+00   1.3382E-04  0.0047
   3.8831E+00   3.9776E+00   1.3141E-04  0.0047
   3.9776E+00   4.0743E+00   1.2917E-04  0.0047
   4.0743E+00   4.1735E+00   1.2683E-04  0.0046
   4.1735E+00   4.2750E+00   1.2394E-04  0.0046
   4.2750E+00   4.3790E+00   1.2240E-04  0.0046
   4.3790E+00   4.4856E+00   1.2112E-04  0.0046
   4.4856E+00   4.5947E+00   1.1941E-04  0.0046
   4.5947E+00   4.7065E+00   1.1727E-04  0.0046
   4.7065E+00   4.8210E+00   1.1533E-04  0.0045
   4.8210E+00   4.9383E+00   1.1492E-04  0.0045
   4.9383E+00   5.0585E+00   1.1356E-04  0.0045
   5.0585E+00   5.1815E+00   1.1147E-04  0.0045
   5.1815E+00   5.3076E+00   1.1117E-04  0.0044
   5.3076E+00   5.4368E+00   1.1009E-04  0.0044
   5.4368E+00   5.5690E+00   1.0881E-04  0.0044
   5.5690E+00   5.7045E+00   1.0874E-04  0.0043
   5.7045E+00   5.8433E+00   1.0661E-04  0.0043
   5.8433E+00   5.9855E+00   1.0510E-04  0.0043
   5.9855E+00   6.1311E+00   1.0371E-04  0.0043
   6.1311E+00   6.2803E+00   1.0355E-04  0.0042
   6.2803E+00   6.4331E+00   1.0204E-04  0.0042
   6.4331E+00   6.5896E+00   1.0103E-04  0.0042
   6.5896E+00   6.7500E+00   9.9151E-05  0.0042
   6.7500E+00   6.9142E+00   9.8522E-05  0.0041
   6.9142E+00   7.0824E+00   9.7556E-05  0.0041
   7.0824E+00   7.2548E+00   9.5627E-05  0.0041
   7.2548E+00   7.4313E+00   9.4842E-05  0.0041
   7.4313E+00   7.6121E+00   9.2829E-05  0.0041
   7.6121E+00   7.7973E+00   9.0690E-05  0.0041
   7.7973E+00   7.9870E+00   9.0010E-05  0.0040
   7.9870E+00   8.1813E+00   8.8290E-05  0.0040
   8.1813E+00   8.3804E+00   8.6983E-05  0.0040
   8.3804E+00   8.5843E+00   8.5268E-05  0.0040
   8.5843E+00   8.7931E+00   8.3405E-05  0.0040
   8.7931E+00   9.0071E+00   8.1668E-05  0.0040
   9.0071E+00   9.2262E+00   7.9514E-05  0.0040
   9.2262E+00   9.4507E+00   7.7348E-05  0.0040
   9.4507E+00   9.6807E+00   7.5565E-05  0.0040
   9.6807E+00   9.9162E+00   7.4163E-05  0.0040
   9.9162E+00   1.0157E+01   7.6230E-05  0.0039
   1.0157E+01   1.0405E+01   7.4618E-05  0.0039
   1.0405E+01   1.0658E+01   7.2583E-05  0.0039
   1.0658E+01   1.0917E+01   7.0365E-05  0.0039
   1.0917E+01   1.1183E+01   6.8083E-05  0.0040
   1.1183E+01   1.1455E+01   6.6189E-05  0.0040
   1.1455E+01   1.1733E+01   6.4602E-05  0.0040
   1.1733E+01   1.2019E+01   6.2698E-05  0.0040
   1.2019E+01   1.2311E+01   6.1159E-05  0.0040
   1.2311E+01   1.2611E+01   5.9442E-05  0.0040
   1.2611E+01   1.2918E+01   5.8239E-05  0.0040
   1.2918E+01   1.3232E+01   5.6422E-05  0.0040
   1.3232E+01   1.3554E+01   5.4865E-05  0.0040
   1.3554E+01   1.3884E+01   5.3010E-05  0.0040
   1.3884E+01   1.4222E+01   5.1275E-05  0.0041
   1.4222E+01   1.4568E+01   4.9915E-05  0.0041
   1.4568E+01   1.4922E+01   4.8110E-05  0.0041
   1.4922E+01   1.5285E+01   4.6119E-05  0.0041
   1.5285E+01   1.5657E+01   4.5061E-05  0.0041
   1.5657E+01   1.6038E+01   4.3175E-05  0.0042
   1.6038E+01   1.6428E+01   4.1351E-05  0.0042
   1.6428E+01   1.6828E+01   3.9483E-05  0.0043
   1.6828E+01   1.7237E+01   3.8218E-05  0.0043
   1.7237E+01   1.7657E+01   3.6204E-05  0.0043
   1.7657E+01   1.8086E+01   3.4418E-05  0.0044
   1.8086E+01   1.8526E+01   3.2908E-05  0.0044
   1.8526E+01   1.8977E+01   3.0774E-05  0.0045
   1.8977E+01   1.9439E+01   2.9305E-05  0.0046
   1.9439E+01   1.9912E+01   2.7588E-05  0.0047
   1.9912E+01   2.0396E+01   2.6053E-05  0.0048
   2.0396E+01   2.0893E+01   2.4520E-05  0.0048
   2.0893E+01   2.1401E+01   2.2715E-05  0.0050
   2.1401E+01   2.1922E+01   2.1246E-05  0.0051
   2.1922E+01   2.2455E+01   1.9596E-05  0.0052
   2.2455E+01   2.3001E+01   1.7922E-05  0.0054
   2.3001E+01   2.3561E+01   1.6527E-05  0.0056
   2.3561E+01   2.4134E+01   1.5148E-05  0.0057
   2.4134E+01   2.4721E+01   1.3948E-05  0.0059
   2.4721E+01   2.5323E+01   1.2465E-05  0.0062
   2.5323E+01   2.5939E+01   1.1293E-05  0.0064
   2.5939E+01   2.6570E+01   1.0225E-05  0.0067
   2.6570E+01   2.7217E+01   9.2020E-06  0.0069
   2.7217E+01   2.7879E+01   8.2487E-06  0.0072
   2.7879E+01   2.8557E+01   7.3662E-06  0.0076
   2.8557E+01   2.9252E+01   6.4580E-06  0.0080
   2.9252E+01   2.9964E+01   5.6302E-06  0.0084
   2.9964E+01   3.0693E+01   5.0113E-06  0.0088
   3.0693E+01   3.1440E+01   4.4588E-06  0.0093
   3.1440E+01   3.2205E+01   3.8770E-06  0.0098
   3.2205E+01   3.2988E+01   3.4374E-06  0.0103
   3.2988E+01   3.3791E+01   2.9581E-06  0.0110
   3.3791E+01   3.4613E+01   2.5626E-06  0.0116
   3.4613E+01   3.5455E+01   2.2015E-06  0.0124
   3.5455E+01   3.6318E+01   1.9684E-06  0.0130
   3.6318E+01   3.7201E+01   1.5915E-06  0.0143
   3.7201E+01   3.8106E+01   1.3510E-06  0.0153
   3.8106E+01   3.9034E+01   1.1211E-06  0.0166
   3.9034E+01   3.9983E+01   9.4675E-07  0.0178
   3.9983E+01   4.0956E+01   7.7947E-07  0.0194
   4.0956E+01   4.1953E+01   6.2763E-07  0.0214
   4.1953E+01   4.2973E+01   5.1251E-07  0.0234
   4.2973E+01   4.4019E+01   4.1372E-07  0.0257
   4.4019E+01   4.5090E+01   3.3533E-07  0.0282
   4.5090E+01   4.6187E+01   2.5210E-07  0.0321
   4.6187E+01   4.7311E+01   2.2145E-07  0.0339
   4.7311E+01   4.8462E+01   1.6729E-07  0.0385
   4.8462E+01   4.9641E+01   1.2697E-07  0.0437
   4.9641E+01   5.0849E+01   1.0550E-07  0.0474
   5.0849E+01   5.2086E+01   8.3830E-08  0.0525
   5.2086E+01   5.3353E+01   6.4028E-08  0.0593
   5.3353E+01   5.4651E+01   5.4144E-08  0.0638
   5.4651E+01   5.5981E+01   3.9751E-08  0.0735
   5.5981E+01   5.7343E+01   3.7128E-08  0.0752
   5.7343E+01   5.8738E+01   3.3994E-08  0.0776
   5.8738E+01   6.0168E+01   2.4190E-08  0.0909
   6.0168E+01   6.1632E+01   2.0298E-08  0.0981
   6.1632E+01   6.3131E+01   1.8101E-08  0.1026
   6.3131E+01   6.4667E+01   1.5439E-08  0.1098
   6.4667E+01   6.6240E+01   5.8109E-09  0.1768
   6.6240E+01   6.7852E+01   1.7728E-09  0.3162
   6.7852E+01   6.9503E+01   3.4613E-10  0.7071
   6.9503E+01   7.1194E+01   0.0000E+00  0.0000
   7.1194E+01   7.2926E+01   0.0000E+00  0.0000
   7.2926E+01   7.4701E+01   0.0000E+00  0.0000
   7.4701E+01   7.6518E+01   0.0000E+00  0.0000
   7.6518E+01   7.8380E+01   0.0000E+00  0.0000
   7.8380E+01   8.0287E+01   0.0000E+00  0.0000
   8.0287E+01   8.2240E+01   0.0000E+00  0.0000
   8.2240E+01   8.4241E+01   0.0000E+00  0.0000
   8.4241E+01   8.6291E+01   0.0000E+00  0.0000
   8.6291E+01   8.8391E+01   0.0000E+00  0.0000
   8.8391E+01   9.0541E+01   0.0000E+00  0.0000
   9.0541E+01   9.2744E+01   0.0000E+00  0.0000
   9.2744E+01   9.5001E+01   0.0000E+00  0.0000
   9.5001E+01   9.7312E+01   0.0000E+00  0.0000
   9.7312E+01   9.9680E+01   0.0000E+00  0.0000
   9.9680E+01   1.0211E+02   0.0000E+00  0.0000
   1.0211E+02   1.0459E+02   0.0000E+00  0.0000
   1.0459E+02   1.0713E+02   0.0000E+00  0.0000
   1.0713E+02   1.0974E+02   0.0000E+00  0.0000
   1.0974E+02   1.1241E+02   0.0000E+00  0.0000
   1.1241E+02   1.1515E+02   0.0000E+00  0.0000
   1.1515E+02   1.1795E+02   0.0000E+00  0.0000
   1.1795E+02   1.2082E+02   0.0000E+00  0.0000
   1.2082E+02   1.2376E+02   0.0000E+00  0.0000
   1.2376E+02   1.2677E+02   0.0000E+00  0.0000
   1.2677E+02   1.2985E+02   0.0000E+00  0.0000
   1.2985E+02   1.3301E+02   0.0000E+00  0.0000
   1.3301E+02   1.3625E+02   0.0000E+00  0.0000
   1.3625E+02   1.3956E+02   0.0000E+00  0.0000
   1.3956E+02   1.4296E+02   0.0000E+00  0.0000
   1.4296E+02   1.4644E+02   0.0000E+00  0.0000
   1.4644E+02   1.5000E+02   0.0000E+00  0.0000

#   sum over                 1.4958E-05
'no. =    1   reg = 116 - 216'
msuc: {\huge [t-cross] in region mesh}
msdr: {\it plotted by \ANGEL \version}
msdl: {\it calculated by \PHITS  3.26}
wt: s(0.7)
\vspace{-3}
  region surface crossing
  area  &=&   1.0000E+00 [cm^2]
e:
 
# Information for Restart Calculation
# This calculation was newly started
# istdev =  2 # 1:Batch variance, 2:History variance
# resc2  = 3.50000000000000000E+09 # Total source weight or Total source weight / maxcas
# resc3  = 3.50000000000000000E+09 # Total history number or Total batch number
# maxcas =   100000000 # History / Batch, only used for istdev=1
# bitrseed = 0000101100011000111110010011011110110000110001011001110010110101 # bit data of rseed
