[ T-Cross ]
    title = [t-cross] in region mesh
     mesh =  reg            # mesh type is region-wise
      reg =    1            # number of crossing regions
      non     r-from    r-to       area
      1       118       218        1.000000    
   e-type =    3            # e-mesh is log given by emin, emax and ne
     emin =  1.0000000E-02  # minimum value of e-mesh points
     emax =   150.0000      # maximum value of e-mesh points
#    edel =  2.4039514E-02  # mesh width of e-mesh points
       ne =    400          # number of e-mesh points
#    data = ( e(i), i = 1, ne + 1 )
#           1.00000E-02  1.02433E-02  1.04925E-02  1.07478E-02  1.10093E-02
#           1.12772E-02  1.15516E-02  1.18326E-02  1.21205E-02  1.24154E-02
#           1.27175E-02  1.30269E-02  1.33439E-02  1.36686E-02  1.40011E-02
#           1.43418E-02  1.46907E-02  1.50482E-02  1.54143E-02  1.57894E-02
#           1.61735E-02  1.65670E-02  1.69701E-02  1.73830E-02  1.78060E-02
#           1.82392E-02  1.86830E-02  1.91375E-02  1.96032E-02  2.00801E-02
#           2.05687E-02  2.10692E-02  2.15818E-02  2.21069E-02  2.26448E-02
#           2.31957E-02  2.37601E-02  2.43382E-02  2.49304E-02  2.55369E-02
#           2.61583E-02  2.67947E-02  2.74467E-02  2.81145E-02  2.87985E-02
#           2.94992E-02  3.02169E-02  3.09521E-02  3.17052E-02  3.24766E-02
#           3.32668E-02  3.40762E-02  3.49053E-02  3.57546E-02  3.66246E-02
#           3.75157E-02  3.84284E-02  3.93634E-02  4.03212E-02  4.13022E-02
#           4.23071E-02  4.33365E-02  4.43909E-02  4.54710E-02  4.65773E-02
#           4.77106E-02  4.88714E-02  5.00605E-02  5.12785E-02  5.25262E-02
#           5.38042E-02  5.51133E-02  5.64542E-02  5.78278E-02  5.92348E-02
#           6.06760E-02  6.21523E-02  6.36645E-02  6.52135E-02  6.68002E-02
#           6.84255E-02  7.00904E-02  7.17957E-02  7.35426E-02  7.53319E-02
#           7.71648E-02  7.90423E-02  8.09655E-02  8.29354E-02  8.49533E-02
#           8.70203E-02  8.91376E-02  9.13064E-02  9.35279E-02  9.58035E-02
#           9.81345E-02  1.00522E-01  1.02968E-01  1.05473E-01  1.08040E-01
#           1.10668E-01  1.13361E-01  1.16119E-01  1.18944E-01  1.21838E-01
#           1.24803E-01  1.27839E-01  1.30950E-01  1.34136E-01  1.37399E-01
#           1.40742E-01  1.44167E-01  1.47675E-01  1.51268E-01  1.54948E-01
#           1.58718E-01  1.62580E-01  1.66535E-01  1.70587E-01  1.74738E-01
#           1.78989E-01  1.83344E-01  1.87805E-01  1.92375E-01  1.97055E-01
#           2.01850E-01  2.06761E-01  2.11792E-01  2.16945E-01  2.22223E-01
#           2.27630E-01  2.33169E-01  2.38842E-01  2.44653E-01  2.50605E-01
#           2.56703E-01  2.62949E-01  2.69346E-01  2.75900E-01  2.82613E-01
#           2.89489E-01  2.96532E-01  3.03747E-01  3.11138E-01  3.18708E-01
#           3.26462E-01  3.34405E-01  3.42542E-01  3.50876E-01  3.59413E-01
#           3.68158E-01  3.77116E-01  3.86291E-01  3.95690E-01  4.05317E-01
#           4.15179E-01  4.25281E-01  4.35628E-01  4.46227E-01  4.57084E-01
#           4.68205E-01  4.79597E-01  4.91266E-01  5.03219E-01  5.15463E-01
#           5.28005E-01  5.40851E-01  5.54011E-01  5.67490E-01  5.81298E-01
#           5.95441E-01  6.09929E-01  6.24769E-01  6.39970E-01  6.55541E-01
#           6.71491E-01  6.87828E-01  7.04564E-01  7.21706E-01  7.39266E-01
#           7.57253E-01  7.75678E-01  7.94551E-01  8.13883E-01  8.33685E-01
#           8.53969E-01  8.74747E-01  8.96030E-01  9.17831E-01  9.40163E-01
#           9.63038E-01  9.86469E-01  1.01047E+00  1.03506E+00  1.06024E+00
#           1.08604E+00  1.11246E+00  1.13953E+00  1.16725E+00  1.19565E+00
#           1.22474E+00  1.25454E+00  1.28507E+00  1.31633E+00  1.34836E+00
#           1.38117E+00  1.41477E+00  1.44920E+00  1.48446E+00  1.52057E+00
#           1.55757E+00  1.59547E+00  1.63429E+00  1.67405E+00  1.71478E+00
#           1.75650E+00  1.79924E+00  1.84302E+00  1.88786E+00  1.93379E+00
#           1.98084E+00  2.02904E+00  2.07841E+00  2.12898E+00  2.18078E+00
#           2.23384E+00  2.28819E+00  2.34386E+00  2.40089E+00  2.45930E+00
#           2.51914E+00  2.58043E+00  2.64322E+00  2.70753E+00  2.77341E+00
#           2.84088E+00  2.91001E+00  2.98081E+00  3.05333E+00  3.12762E+00
#           3.20372E+00  3.28167E+00  3.36152E+00  3.44330E+00  3.52708E+00
#           3.61290E+00  3.70080E+00  3.79085E+00  3.88308E+00  3.97756E+00
#           4.07434E+00  4.17347E+00  4.27501E+00  4.37903E+00  4.48557E+00
#           4.59471E+00  4.70650E+00  4.82102E+00  4.93832E+00  5.05847E+00
#           5.18155E+00  5.30762E+00  5.43676E+00  5.56904E+00  5.70453E+00
#           5.84333E+00  5.98550E+00  6.13114E+00  6.28031E+00  6.43312E+00
#           6.58964E+00  6.74997E+00  6.91420E+00  7.08243E+00  7.25475E+00
#           7.43126E+00  7.61207E+00  7.79728E+00  7.98700E+00  8.18133E+00
#           8.38038E+00  8.58428E+00  8.79315E+00  9.00709E+00  9.22624E+00
#           9.45072E+00  9.68067E+00  9.91620E+00  1.01575E+01  1.04046E+01
#           1.06578E+01  1.09171E+01  1.11827E+01  1.14548E+01  1.17335E+01
#           1.20190E+01  1.23114E+01  1.26109E+01  1.29178E+01  1.32321E+01
#           1.35540E+01  1.38838E+01  1.42216E+01  1.45676E+01  1.49221E+01
#           1.52851E+01  1.56570E+01  1.60380E+01  1.64282E+01  1.68279E+01
#           1.72374E+01  1.76568E+01  1.80864E+01  1.85264E+01  1.89772E+01
#           1.94389E+01  1.99119E+01  2.03963E+01  2.08926E+01  2.14009E+01
#           2.19216E+01  2.24550E+01  2.30014E+01  2.35610E+01  2.41343E+01
#           2.47215E+01  2.53230E+01  2.59391E+01  2.65702E+01  2.72167E+01
#           2.78789E+01  2.85572E+01  2.92520E+01  2.99637E+01  3.06928E+01
#           3.14396E+01  3.22045E+01  3.29881E+01  3.37907E+01  3.46128E+01
#           3.54550E+01  3.63177E+01  3.72013E+01  3.81064E+01  3.90336E+01
#           3.99833E+01  4.09561E+01  4.19526E+01  4.29734E+01  4.40189E+01
#           4.50900E+01  4.61870E+01  4.73108E+01  4.84619E+01  4.96410E+01
#           5.08488E+01  5.20860E+01  5.33533E+01  5.46514E+01  5.59812E+01
#           5.73432E+01  5.87384E+01  6.01676E+01  6.16315E+01  6.31311E+01
#           6.46671E+01  6.62405E+01  6.78522E+01  6.95031E+01  7.11941E+01
#           7.29263E+01  7.47007E+01  7.65182E+01  7.83800E+01  8.02870E+01
#           8.22405E+01  8.42414E+01  8.62911E+01  8.83906E+01  9.05412E+01
#           9.27442E+01  9.50007E+01  9.73122E+01  9.96799E+01  1.02105E+02
#           1.04589E+02  1.07134E+02  1.09741E+02  1.12411E+02  1.15146E+02
#           1.17948E+02  1.20817E+02  1.23757E+02  1.26768E+02  1.29852E+02
#           1.33012E+02  1.36248E+02  1.39563E+02  1.42959E+02  1.46437E+02
#           1.50000E+02
     unit =    2            # unit is [1/cm^2/(MeV/n)/source]
     axis =  eng            # axis of output
     file = detector-19.out  # file name of output for the above axis
   output = f-curr          # surface crossing forward current spectrum
     part =  neutron  
# kf/name :  2112     
#    used :        main (  %)        temp (  %)       total (  %)
#  memory :         414 (  0)           0 (  0)         414 (  0)

#------------------------------------------------------------------------------
#newpage:
#   no. =    1   reg = 118 - 218

x: Energy [MeV/n]
y:  F-Curr [1/cm^2/(MeV/n)/source]         
p: xlog ylog afac(0.8) form(0.9)
h: n            x            y(neutron ),hh0l   n 
#  e-lower      e-upper      neutron     r.err 
   1.0000E-02   1.0243E-02   1.6440E-05  0.2236
   1.0243E-02   1.0493E-02   1.2840E-05  0.2500
   1.0493E-02   1.0748E-02   1.1751E-05  0.2582
   1.0748E-02   1.1009E-02   1.6061E-05  0.2182
   1.1009E-02   1.1277E-02   9.7064E-06  0.2774
   1.1277E-02   1.1552E-02   1.0934E-05  0.2582
   1.1552E-02   1.1833E-02   1.0674E-05  0.2582
   1.1833E-02   1.2121E-02   1.1115E-05  0.2500
   1.2121E-02   1.2415E-02   1.1529E-05  0.2425
   1.2415E-02   1.2718E-02   1.4566E-05  0.2132
   1.2718E-02   1.3027E-02   1.5513E-05  0.2041
   1.3027E-02   1.3344E-02   1.3251E-05  0.2182
   1.3344E-02   1.3669E-02   1.0472E-05  0.2425
   1.3669E-02   1.4001E-02   1.2028E-05  0.2236
   1.4001E-02   1.4342E-02   1.6439E-05  0.1890
   1.4342E-02   1.4691E-02   1.0890E-05  0.2294
   1.4691E-02   1.5048E-02   1.6786E-05  0.1826
   1.5048E-02   1.5414E-02   1.6387E-05  0.1826
   1.5414E-02   1.5789E-02   1.5998E-05  0.1826
   1.5789E-02   1.6174E-02   9.8915E-06  0.2294
   1.6174E-02   1.6567E-02   1.4231E-05  0.1890
   1.6567E-02   1.6970E-02   1.0916E-05  0.2132
   1.6970E-02   1.7383E-02   1.1141E-05  0.2085
   1.7383E-02   1.7806E-02   1.0403E-05  0.2132
   1.7806E-02   1.8239E-02   1.4773E-05  0.1768
   1.8239E-02   1.8683E-02   1.2168E-05  0.1925
   1.8683E-02   1.9138E-02   1.3199E-05  0.1826
   1.9138E-02   1.9603E-02   1.0309E-05  0.2041
   1.9603E-02   2.0080E-02   1.4257E-05  0.1715
   2.0080E-02   2.0569E-02   1.7193E-05  0.1543
   2.0569E-02   2.1069E-02   1.4787E-05  0.1644
   2.1069E-02   2.1582E-02   1.4826E-05  0.1622
   2.1582E-02   2.2107E-02   1.2950E-05  0.1715
   2.2107E-02   2.2645E-02   1.1899E-05  0.1768
   2.2645E-02   2.3196E-02   1.3794E-05  0.1622
   2.3196E-02   2.3760E-02   1.3112E-05  0.1644
   2.3760E-02   2.4338E-02   1.4530E-05  0.1543
   2.4338E-02   2.4930E-02   1.2159E-05  0.1667
   2.4930E-02   2.5537E-02   1.2529E-05  0.1622
   2.5537E-02   2.6158E-02   1.3197E-05  0.1562
   2.6158E-02   2.6795E-02   1.0370E-05  0.1741
   2.6795E-02   2.7447E-02   1.3498E-05  0.1508
   2.7447E-02   2.8114E-02   1.4076E-05  0.1459
   2.8114E-02   2.8799E-02   1.4326E-05  0.1429
   2.8799E-02   2.9499E-02   1.1132E-05  0.1601
   2.9499E-02   3.0217E-02   9.4742E-06  0.1715
   3.0217E-02   3.0952E-02   1.3058E-05  0.1443
   3.0952E-02   3.1705E-02   9.5606E-06  0.1667
   3.1705E-02   3.2477E-02   9.8520E-06  0.1622
   3.2477E-02   3.3267E-02   1.1390E-05  0.1491
   3.3267E-02   3.4076E-02   9.8838E-06  0.1581
   3.4076E-02   3.4905E-02   1.4473E-05  0.1291
   3.4905E-02   3.5755E-02   1.1304E-05  0.1443
   3.5755E-02   3.6625E-02   9.6559E-06  0.1543
   3.6625E-02   3.7516E-02   1.3915E-05  0.1270
   3.7516E-02   3.8428E-02   1.1175E-05  0.1400
   3.8428E-02   3.9363E-02   8.9840E-06  0.1543
   3.9363E-02   4.0321E-02   1.0232E-05  0.1429
   4.0321E-02   4.1302E-02   1.2843E-05  0.1260
   4.1302E-02   4.2307E-02   1.3135E-05  0.1231
   4.2307E-02   4.3337E-02   1.0880E-05  0.1336
   4.3337E-02   4.4391E-02   1.1001E-05  0.1313
   4.4391E-02   4.5471E-02   1.4629E-05  0.1125
   4.5471E-02   4.6577E-02   1.2293E-05  0.1213
   4.6577E-02   4.7711E-02   1.0942E-05  0.1270
   4.7711E-02   4.8871E-02   9.4759E-06  0.1348
   4.8871E-02   5.0061E-02   1.0765E-05  0.1250
   5.0061E-02   5.1279E-02   1.2479E-05  0.1147
   5.1279E-02   5.2526E-02   1.0580E-05  0.1231
   5.2526E-02   5.3804E-02   1.2207E-05  0.1132
   5.3804E-02   5.5113E-02   1.1458E-05  0.1155
   5.5113E-02   5.6454E-02   1.0440E-05  0.1195
   5.6454E-02   5.7828E-02   1.1503E-05  0.1125
   5.7828E-02   5.9235E-02   1.5210E-05  0.0967
   5.9235E-02   6.0676E-02   1.1379E-05  0.1104
   6.0676E-02   6.2152E-02   1.0973E-05  0.1111
   6.2152E-02   6.3665E-02   1.1242E-05  0.1085
   6.3665E-02   6.5214E-02   1.1749E-05  0.1048
   6.5214E-02   6.6800E-02   1.2605E-05  0.1000
   6.6800E-02   6.8426E-02   1.0213E-05  0.1098
   6.8426E-02   7.0090E-02   1.1533E-05  0.1021
   7.0090E-02   7.1796E-02   1.0203E-05  0.1072
   7.1796E-02   7.3543E-02   9.8463E-06  0.1078
   7.3543E-02   7.5332E-02   1.0060E-05  0.1054
   7.5332E-02   7.7165E-02   1.2003E-05  0.0953
   7.7165E-02   7.9042E-02   1.3529E-05  0.0887
   7.9042E-02   8.0965E-02   1.0504E-05  0.0995
   8.0965E-02   8.2935E-02   1.1574E-05  0.0937
   8.2935E-02   8.4953E-02   1.1002E-05  0.0949
   8.4953E-02   8.7020E-02   1.0934E-05  0.0941
   8.7020E-02   8.9138E-02   1.0296E-05  0.0958
   8.9138E-02   9.1306E-02   1.2173E-05  0.0870
   9.1306E-02   9.3528E-02   1.1253E-05  0.0894
   9.3528E-02   9.5804E-02   1.1953E-05  0.0857
   9.5804E-02   9.8134E-02   1.2355E-05  0.0833
   9.8134E-02   1.0052E-01   1.0889E-05  0.0877
   1.0052E-01   1.0297E-01   1.0222E-05  0.0894
   1.0297E-01   1.0547E-01   1.0618E-05  0.0867
   1.0547E-01   1.0804E-01   9.0404E-06  0.0928
   1.0804E-01   1.1067E-01   1.1184E-05  0.0825
   1.1067E-01   1.1336E-01   1.0844E-05  0.0828
   1.1336E-01   1.1612E-01   1.1892E-05  0.0781
   1.1612E-01   1.1894E-01   1.0406E-05  0.0825
   1.1894E-01   1.2184E-01   1.0366E-05  0.0816
   1.2184E-01   1.2480E-01   1.1469E-05  0.0767
   1.2480E-01   1.2784E-01   1.0472E-05  0.0793
   1.2784E-01   1.3095E-01   1.0545E-05  0.0781
   1.3095E-01   1.3414E-01   9.9808E-06  0.0793
   1.3414E-01   1.3740E-01   1.2501E-05  0.0700
   1.3740E-01   1.4074E-01   9.8114E-06  0.0781
   1.4074E-01   1.4417E-01   1.1574E-05  0.0710
   1.4417E-01   1.4767E-01   1.0605E-05  0.0733
   1.4767E-01   1.5127E-01   1.1745E-05  0.0688
   1.5127E-01   1.5495E-01   1.2390E-05  0.0662
   1.5495E-01   1.5872E-01   1.1202E-05  0.0688
   1.5872E-01   1.6258E-01   9.9437E-06  0.0722
   1.6258E-01   1.6654E-01   1.0365E-05  0.0698
   1.6654E-01   1.7059E-01   1.1032E-05  0.0669
   1.7059E-01   1.7474E-01   9.6855E-06  0.0705
   1.7474E-01   1.7899E-01   1.0443E-05  0.0671
   1.7899E-01   1.8334E-01   1.0563E-05  0.0659
   1.8334E-01   1.8781E-01   1.0177E-05  0.0664
   1.8781E-01   1.9237E-01   9.7386E-06  0.0670
   1.9237E-01   1.9706E-01   9.9987E-06  0.0654
   1.9706E-01   2.0185E-01   9.6777E-06  0.0657
   2.0185E-01   2.0676E-01   9.6107E-06  0.0651
   2.0676E-01   2.1179E-01   1.0098E-05  0.0627
   2.1179E-01   2.1694E-01   1.0169E-05  0.0618
   2.1694E-01   2.2222E-01   9.4346E-06  0.0634
   2.2222E-01   2.2763E-01   9.5064E-06  0.0624
   2.2763E-01   2.3317E-01   9.3890E-06  0.0620
   2.3317E-01   2.3884E-01   8.7076E-06  0.0636
   2.3884E-01   2.4465E-01   9.5677E-06  0.0600
   2.4465E-01   2.5061E-01   9.2788E-06  0.0602
   2.5061E-01   2.5670E-01   9.8730E-06  0.0576
   2.5670E-01   2.6295E-01   8.7099E-06  0.0606
   2.6295E-01   2.6935E-01   8.5030E-06  0.0606
   2.6935E-01   2.7590E-01   8.5352E-06  0.0598
   2.7590E-01   2.8261E-01   8.6699E-06  0.0586
   2.8261E-01   2.8949E-01   8.2458E-06  0.0594
   2.8949E-01   2.9653E-01   8.8876E-06  0.0565
   2.9653E-01   3.0375E-01   8.8474E-06  0.0560
   3.0375E-01   3.1114E-01   8.3622E-06  0.0569
   3.1114E-01   3.1871E-01   8.2560E-06  0.0565
   3.1871E-01   3.2646E-01   9.2077E-06  0.0529
   3.2646E-01   3.3441E-01   8.1832E-06  0.0555
   3.3441E-01   3.4254E-01   8.0380E-06  0.0553
   3.4254E-01   3.5088E-01   7.7511E-06  0.0556
   3.5088E-01   3.5941E-01   7.7778E-06  0.0549
   3.5941E-01   3.6816E-01   8.4164E-06  0.0521
   3.6816E-01   3.7712E-01   7.7511E-06  0.0537
   3.7712E-01   3.8629E-01   7.4328E-06  0.0541
   3.8629E-01   3.9569E-01   7.6953E-06  0.0526
   3.9569E-01   4.0532E-01   7.3955E-06  0.0530
   4.0532E-01   4.1518E-01   7.6255E-06  0.0516
   4.1518E-01   4.2528E-01   8.5333E-06  0.0482
   4.2528E-01   4.3563E-01   8.1566E-06  0.0487
   4.3563E-01   4.4623E-01   7.7931E-06  0.0492
   4.4623E-01   4.5708E-01   7.6632E-06  0.0490
   4.5708E-01   4.6821E-01   7.3219E-06  0.0496
   4.6821E-01   4.7960E-01   7.3386E-06  0.0489
   4.7960E-01   4.9127E-01   7.1300E-06  0.0490
   4.9127E-01   5.0322E-01   7.2284E-06  0.0481
   5.0322E-01   5.1546E-01   7.0946E-06  0.0479
   5.1546E-01   5.2800E-01   7.0804E-06  0.0474
   5.2800E-01   5.4085E-01   7.5451E-06  0.0454
   5.4085E-01   5.5401E-01   7.5688E-06  0.0448
   5.5401E-01   5.6749E-01   7.0348E-06  0.0459
   5.6749E-01   5.8130E-01   7.1018E-06  0.0452
   5.8130E-01   5.9544E-01   6.9449E-06  0.0451
   5.9544E-01   6.0993E-01   7.1372E-06  0.0440
   6.0993E-01   6.2477E-01   7.0367E-06  0.0438
   6.2477E-01   6.3997E-01   6.8745E-06  0.0437
   6.3997E-01   6.5554E-01   6.5378E-06  0.0443
   6.5554E-01   6.7149E-01   6.5894E-06  0.0436
   6.7149E-01   6.8783E-01   7.1307E-06  0.0414
   6.8783E-01   7.0456E-01   7.1824E-06  0.0408
   7.0456E-01   7.2171E-01   7.2061E-06  0.0402
   7.2171E-01   7.3927E-01   6.6761E-06  0.0413
   7.3927E-01   7.5725E-01   6.8161E-06  0.0404
   7.5725E-01   7.7568E-01   6.7657E-06  0.0400
   7.7568E-01   7.9455E-01   6.9559E-06  0.0390
   7.9455E-01   8.1388E-01   7.1125E-06  0.0381
   8.1388E-01   8.3368E-01   6.3962E-06  0.0397
   8.3368E-01   8.5397E-01   6.5322E-06  0.0388
   8.5397E-01   8.7475E-01   6.4925E-06  0.0385
   8.7475E-01   8.9603E-01   6.8364E-06  0.0371
   8.9603E-01   9.1783E-01   6.6327E-06  0.0372
   9.1783E-01   9.4016E-01   5.6691E-06  0.0397
   9.4016E-01   9.6304E-01   6.4375E-06  0.0368
   9.6304E-01   9.8647E-01   6.3006E-06  0.0368
   9.8647E-01   1.0105E+00   5.8413E-06  0.0378
   1.0105E+00   1.0351E+00   6.3544E-06  0.0358
   1.0351E+00   1.0602E+00   5.6648E-06  0.0374
   1.0602E+00   1.0860E+00   5.5742E-06  0.0373
   1.0860E+00   1.1125E+00   5.8394E-06  0.0360
   1.1125E+00   1.1395E+00   5.8272E-06  0.0356
   1.1395E+00   1.1673E+00   6.1351E-06  0.0343
   1.1673E+00   1.1957E+00   6.0187E-06  0.0342
   1.1957E+00   1.2247E+00   5.7412E-06  0.0346
   1.2247E+00   1.2545E+00   5.9181E-06  0.0337
   1.2545E+00   1.2851E+00   5.5769E-06  0.0343
   1.2851E+00   1.3163E+00   5.5712E-06  0.0339
   1.3163E+00   1.3484E+00   5.3223E-06  0.0342
   1.3484E+00   1.3812E+00   5.5964E-06  0.0330
   1.3812E+00   1.4148E+00   5.1064E-06  0.0341
   1.4148E+00   1.4492E+00   5.5969E-06  0.0322
   1.4492E+00   1.4845E+00   4.9534E-06  0.0338
   1.4845E+00   1.5206E+00   5.2983E-06  0.0323
   1.5206E+00   1.5576E+00   5.1750E-06  0.0323
   1.5576E+00   1.5955E+00   5.1145E-06  0.0321
   1.5955E+00   1.6343E+00   5.0447E-06  0.0319
   1.6343E+00   1.6741E+00   4.9107E-06  0.0320
   1.6741E+00   1.7148E+00   4.9027E-06  0.0316
   1.7148E+00   1.7565E+00   4.9683E-06  0.0311
   1.7565E+00   1.7992E+00   5.0694E-06  0.0304
   1.7992E+00   1.8430E+00   4.9188E-06  0.0305
   1.8430E+00   1.8879E+00   4.7580E-06  0.0306
   1.8879E+00   1.9338E+00   4.6851E-06  0.0305
   1.9338E+00   1.9808E+00   4.7712E-06  0.0298
   1.9808E+00   2.0290E+00   4.6427E-06  0.0299
   2.0290E+00   2.0784E+00   4.3672E-06  0.0305
   2.0784E+00   2.1290E+00   4.4741E-06  0.0297
   2.1290E+00   2.1808E+00   4.3501E-06  0.0298
   2.1808E+00   2.2338E+00   4.2919E-06  0.0296
   2.2338E+00   2.2882E+00   4.3831E-06  0.0290
   2.2882E+00   2.3439E+00   4.1656E-06  0.0293
   2.3439E+00   2.4009E+00   4.2874E-06  0.0286
   2.4009E+00   2.4593E+00   4.3693E-06  0.0280
   2.4593E+00   2.5191E+00   4.4481E-06  0.0274
   2.5191E+00   2.5804E+00   4.2914E-06  0.0276
   2.5804E+00   2.6432E+00   4.3545E-06  0.0270
   2.6432E+00   2.7075E+00   4.4045E-06  0.0266
   2.7075E+00   2.7734E+00   4.2831E-06  0.0266
   2.7734E+00   2.8409E+00   4.0737E-06  0.0270
   2.8409E+00   2.9100E+00   4.2808E-06  0.0260
   2.9100E+00   2.9808E+00   4.2150E-06  0.0259
   2.9808E+00   3.0533E+00   4.3418E-06  0.0252
   3.0533E+00   3.1276E+00   3.9331E-06  0.0261
   3.1276E+00   3.2037E+00   3.3770E-06  0.0279
   3.2037E+00   3.2817E+00   3.3042E-06  0.0279
   3.2817E+00   3.3615E+00   3.0921E-06  0.0285
   3.3615E+00   3.4433E+00   2.9435E-06  0.0288
   3.4433E+00   3.5271E+00   3.1451E-06  0.0275
   3.5271E+00   3.6129E+00   2.9956E-06  0.0279
   3.6129E+00   3.7008E+00   2.7832E-06  0.0286
   3.7008E+00   3.7908E+00   2.8431E-06  0.0279
   3.7908E+00   3.8831E+00   2.7976E-06  0.0278
   3.8831E+00   3.9776E+00   2.6658E-06  0.0282
   3.9776E+00   4.0743E+00   2.6611E-06  0.0279
   4.0743E+00   4.1735E+00   2.7347E-06  0.0272
   4.1735E+00   4.2750E+00   2.4083E-06  0.0286
   4.2750E+00   4.3790E+00   2.4317E-06  0.0281
   4.3790E+00   4.4856E+00   2.3013E-06  0.0286
   4.4856E+00   4.5947E+00   2.4019E-06  0.0276
   4.5947E+00   4.7065E+00   2.3126E-06  0.0278
   4.7065E+00   4.8210E+00   2.2364E-06  0.0279
   4.8210E+00   4.9383E+00   2.1048E-06  0.0285
   4.9383E+00   5.0585E+00   2.1722E-06  0.0277
   5.0585E+00   5.1815E+00   2.0204E-06  0.0284
   5.1815E+00   5.3076E+00   2.1083E-06  0.0274
   5.3076E+00   5.4368E+00   1.9444E-06  0.0282
   5.4368E+00   5.5690E+00   1.8455E-06  0.0286
   5.5690E+00   5.7045E+00   1.7122E-06  0.0294
   5.7045E+00   5.8433E+00   1.7930E-06  0.0283
   5.8433E+00   5.9855E+00   1.7364E-06  0.0285
   5.9855E+00   6.1311E+00   1.6459E-06  0.0289
   6.1311E+00   6.2803E+00   1.6137E-06  0.0288
   6.2803E+00   6.4331E+00   1.4818E-06  0.0297
   6.4331E+00   6.5896E+00   1.5425E-06  0.0288
   6.5896E+00   6.7500E+00   1.3718E-06  0.0302
   6.7500E+00   6.9142E+00   1.3043E-06  0.0306
   6.9142E+00   7.0824E+00   1.2663E-06  0.0306
   7.0824E+00   7.2548E+00   1.2717E-06  0.0302
   7.2548E+00   7.4313E+00   1.2137E-06  0.0306
   7.4313E+00   7.6121E+00   1.0873E-06  0.0319
   7.6121E+00   7.7973E+00   1.0799E-06  0.0316
   7.7973E+00   7.9870E+00   1.0637E-06  0.0315
   7.9870E+00   8.1813E+00   9.9332E-07  0.0322
   8.1813E+00   8.3804E+00   9.3741E-07  0.0327
   8.3804E+00   8.5843E+00   9.0779E-07  0.0329
   8.5843E+00   8.7931E+00   8.6277E-07  0.0333
   8.7931E+00   9.0071E+00   7.7964E-07  0.0346
   9.0071E+00   9.2262E+00   7.5565E-07  0.0348
   9.2262E+00   9.4507E+00   7.0206E-07  0.0356
   9.4507E+00   9.6807E+00   7.4279E-07  0.0342
   9.6807E+00   9.9162E+00   6.4448E-07  0.0363
   9.9162E+00   1.0157E+01   6.3332E-07  0.0362
   1.0157E+01   1.0405E+01   5.2764E-07  0.0392
   1.0405E+01   1.0658E+01   4.7165E-07  0.0409
   1.0658E+01   1.0917E+01   4.1032E-07  0.0434
   1.0917E+01   1.1183E+01   3.7873E-07  0.0446
   1.1183E+01   1.1455E+01   3.1387E-07  0.0484
   1.1455E+01   1.1733E+01   2.5547E-07  0.0530
   1.1733E+01   1.2019E+01   2.4660E-07  0.0533
   1.2019E+01   1.2311E+01   2.3048E-07  0.0545
   1.2311E+01   1.2611E+01   1.8294E-07  0.0604
   1.2611E+01   1.2918E+01   1.8772E-07  0.0589
   1.2918E+01   1.3232E+01   1.7054E-07  0.0611
   1.3232E+01   1.3554E+01   1.4599E-07  0.0652
   1.3554E+01   1.3884E+01   1.1523E-07  0.0725
   1.3884E+01   1.4222E+01   7.0455E-08  0.0917
   1.4222E+01   1.4568E+01   2.9478E-08  0.1400
   1.4568E+01   1.4922E+01   8.4640E-09  0.2582
   1.4922E+01   1.5285E+01   1.1017E-09  0.7071
   1.5285E+01   1.5657E+01   1.6133E-09  0.5774
   1.5657E+01   1.6038E+01   5.2501E-10  1.0000
   1.6038E+01   1.6428E+01   0.0000E+00  0.0000
   1.6428E+01   1.6828E+01   0.0000E+00  0.0000
   1.6828E+01   1.7237E+01   1.4654E-09  0.5774
   1.7237E+01   1.7657E+01   4.7687E-10  1.0000
   1.7657E+01   1.8086E+01   0.0000E+00  0.0000
   1.8086E+01   1.8526E+01   9.0898E-10  0.7071
   1.8526E+01   1.8977E+01   0.0000E+00  0.0000
   1.8977E+01   1.9439E+01   4.3315E-10  1.0000
   1.9439E+01   1.9912E+01   0.0000E+00  0.0000
   1.9912E+01   2.0396E+01   0.0000E+00  0.0000
   2.0396E+01   2.0893E+01   0.0000E+00  0.0000
   2.0893E+01   2.1401E+01   0.0000E+00  0.0000
   2.1401E+01   2.1922E+01   0.0000E+00  0.0000
   2.1922E+01   2.2455E+01   0.0000E+00  0.0000
   2.2455E+01   2.3001E+01   0.0000E+00  0.0000
   2.3001E+01   2.3561E+01   0.0000E+00  0.0000
   2.3561E+01   2.4134E+01   0.0000E+00  0.0000
   2.4134E+01   2.4721E+01   0.0000E+00  0.0000
   2.4721E+01   2.5323E+01   0.0000E+00  0.0000
   2.5323E+01   2.5939E+01   0.0000E+00  0.0000
   2.5939E+01   2.6570E+01   0.0000E+00  0.0000
   2.6570E+01   2.7217E+01   0.0000E+00  0.0000
   2.7217E+01   2.7879E+01   0.0000E+00  0.0000
   2.7879E+01   2.8557E+01   0.0000E+00  0.0000
   2.8557E+01   2.9252E+01   0.0000E+00  0.0000
   2.9252E+01   2.9964E+01   0.0000E+00  0.0000
   2.9964E+01   3.0693E+01   0.0000E+00  0.0000
   3.0693E+01   3.1440E+01   0.0000E+00  0.0000
   3.1440E+01   3.2205E+01   0.0000E+00  0.0000
   3.2205E+01   3.2988E+01   0.0000E+00  0.0000
   3.2988E+01   3.3791E+01   0.0000E+00  0.0000
   3.3791E+01   3.4613E+01   0.0000E+00  0.0000
   3.4613E+01   3.5455E+01   0.0000E+00  0.0000
   3.5455E+01   3.6318E+01   0.0000E+00  0.0000
   3.6318E+01   3.7201E+01   0.0000E+00  0.0000
   3.7201E+01   3.8106E+01   0.0000E+00  0.0000
   3.8106E+01   3.9034E+01   0.0000E+00  0.0000
   3.9034E+01   3.9983E+01   0.0000E+00  0.0000
   3.9983E+01   4.0956E+01   0.0000E+00  0.0000
   4.0956E+01   4.1953E+01   0.0000E+00  0.0000
   4.1953E+01   4.2973E+01   0.0000E+00  0.0000
   4.2973E+01   4.4019E+01   0.0000E+00  0.0000
   4.4019E+01   4.5090E+01   0.0000E+00  0.0000
   4.5090E+01   4.6187E+01   0.0000E+00  0.0000
   4.6187E+01   4.7311E+01   0.0000E+00  0.0000
   4.7311E+01   4.8462E+01   0.0000E+00  0.0000
   4.8462E+01   4.9641E+01   0.0000E+00  0.0000
   4.9641E+01   5.0849E+01   0.0000E+00  0.0000
   5.0849E+01   5.2086E+01   0.0000E+00  0.0000
   5.2086E+01   5.3353E+01   0.0000E+00  0.0000
   5.3353E+01   5.4651E+01   0.0000E+00  0.0000
   5.4651E+01   5.5981E+01   0.0000E+00  0.0000
   5.5981E+01   5.7343E+01   0.0000E+00  0.0000
   5.7343E+01   5.8738E+01   0.0000E+00  0.0000
   5.8738E+01   6.0168E+01   0.0000E+00  0.0000
   6.0168E+01   6.1632E+01   0.0000E+00  0.0000
   6.1632E+01   6.3131E+01   0.0000E+00  0.0000
   6.3131E+01   6.4667E+01   0.0000E+00  0.0000
   6.4667E+01   6.6240E+01   0.0000E+00  0.0000
   6.6240E+01   6.7852E+01   0.0000E+00  0.0000
   6.7852E+01   6.9503E+01   0.0000E+00  0.0000
   6.9503E+01   7.1194E+01   0.0000E+00  0.0000
   7.1194E+01   7.2926E+01   0.0000E+00  0.0000
   7.2926E+01   7.4701E+01   0.0000E+00  0.0000
   7.4701E+01   7.6518E+01   0.0000E+00  0.0000
   7.6518E+01   7.8380E+01   0.0000E+00  0.0000
   7.8380E+01   8.0287E+01   0.0000E+00  0.0000
   8.0287E+01   8.2240E+01   0.0000E+00  0.0000
   8.2240E+01   8.4241E+01   0.0000E+00  0.0000
   8.4241E+01   8.6291E+01   0.0000E+00  0.0000
   8.6291E+01   8.8391E+01   0.0000E+00  0.0000
   8.8391E+01   9.0541E+01   0.0000E+00  0.0000
   9.0541E+01   9.2744E+01   0.0000E+00  0.0000
   9.2744E+01   9.5001E+01   0.0000E+00  0.0000
   9.5001E+01   9.7312E+01   0.0000E+00  0.0000
   9.7312E+01   9.9680E+01   0.0000E+00  0.0000
   9.9680E+01   1.0211E+02   0.0000E+00  0.0000
   1.0211E+02   1.0459E+02   0.0000E+00  0.0000
   1.0459E+02   1.0713E+02   0.0000E+00  0.0000
   1.0713E+02   1.0974E+02   0.0000E+00  0.0000
   1.0974E+02   1.1241E+02   0.0000E+00  0.0000
   1.1241E+02   1.1515E+02   0.0000E+00  0.0000
   1.1515E+02   1.1795E+02   0.0000E+00  0.0000
   1.1795E+02   1.2082E+02   0.0000E+00  0.0000
   1.2082E+02   1.2376E+02   0.0000E+00  0.0000
   1.2376E+02   1.2677E+02   0.0000E+00  0.0000
   1.2677E+02   1.2985E+02   0.0000E+00  0.0000
   1.2985E+02   1.3301E+02   0.0000E+00  0.0000
   1.3301E+02   1.3625E+02   0.0000E+00  0.0000
   1.3625E+02   1.3956E+02   0.0000E+00  0.0000
   1.3956E+02   1.4296E+02   0.0000E+00  0.0000
   1.4296E+02   1.4644E+02   0.0000E+00  0.0000
   1.4644E+02   1.5000E+02   0.0000E+00  0.0000

#   sum over                 2.0218E-07
'no. =    1   reg = 118 - 218'
msuc: {\huge [t-cross] in region mesh}
msdr: {\it plotted by \ANGEL \version}
msdl: {\it calculated by \PHITS  3.26}
wt: s(0.7)
\vspace{-3}
  region surface crossing
  area  &=&   1.0000E+00 [cm^2]
e:
 
# Information for Restart Calculation
# This calculation was newly started
# istdev =  2 # 1:Batch variance, 2:History variance
# resc2  = 5.00000000000000000E+09 # Total source weight or Total source weight / maxcas
# resc3  = 5.00000000000000000E+09 # Total history number or Total batch number
# maxcas =   500000000 # History / Batch, only used for istdev=1
# bitrseed = 0110100000100010111000001110001111001110100100011111101000111001 # bit data of rseed
