7 <--- number of remaining batches 

-------------------------------------------------------------------------------
bat[       3] ncas =     1500000000.
 bitrseed = 0001001110011001001001110000100100110111001111011100001000101100
          cpu time =   1 h. 35 m. 19.16 s.

 date = 2022-06-01
 time = 16h 34m 24s

