[ T-Cross ]
    title = [t-cross] in region mesh
     mesh =  reg            # mesh type is region-wise
      reg =    1            # number of crossing regions
      non     r-from    r-to       area
      1       113       213        1.000000    
   e-type =    3            # e-mesh is log given by emin, emax and ne
     emin =  1.0000000E-02  # minimum value of e-mesh points
     emax =   150.0000      # maximum value of e-mesh points
#    edel =  2.4039514E-02  # mesh width of e-mesh points
       ne =    400          # number of e-mesh points
#    data = ( e(i), i = 1, ne + 1 )
#           1.00000E-02  1.02433E-02  1.04925E-02  1.07478E-02  1.10093E-02
#           1.12772E-02  1.15516E-02  1.18326E-02  1.21205E-02  1.24154E-02
#           1.27175E-02  1.30269E-02  1.33439E-02  1.36686E-02  1.40011E-02
#           1.43418E-02  1.46907E-02  1.50482E-02  1.54143E-02  1.57894E-02
#           1.61735E-02  1.65670E-02  1.69701E-02  1.73830E-02  1.78060E-02
#           1.82392E-02  1.86830E-02  1.91375E-02  1.96032E-02  2.00801E-02
#           2.05687E-02  2.10692E-02  2.15818E-02  2.21069E-02  2.26448E-02
#           2.31957E-02  2.37601E-02  2.43382E-02  2.49304E-02  2.55369E-02
#           2.61583E-02  2.67947E-02  2.74467E-02  2.81145E-02  2.87985E-02
#           2.94992E-02  3.02169E-02  3.09521E-02  3.17052E-02  3.24766E-02
#           3.32668E-02  3.40762E-02  3.49053E-02  3.57546E-02  3.66246E-02
#           3.75157E-02  3.84284E-02  3.93634E-02  4.03212E-02  4.13022E-02
#           4.23071E-02  4.33365E-02  4.43909E-02  4.54710E-02  4.65773E-02
#           4.77106E-02  4.88714E-02  5.00605E-02  5.12785E-02  5.25262E-02
#           5.38042E-02  5.51133E-02  5.64542E-02  5.78278E-02  5.92348E-02
#           6.06760E-02  6.21523E-02  6.36645E-02  6.52135E-02  6.68002E-02
#           6.84255E-02  7.00904E-02  7.17957E-02  7.35426E-02  7.53319E-02
#           7.71648E-02  7.90423E-02  8.09655E-02  8.29354E-02  8.49533E-02
#           8.70203E-02  8.91376E-02  9.13064E-02  9.35279E-02  9.58035E-02
#           9.81345E-02  1.00522E-01  1.02968E-01  1.05473E-01  1.08040E-01
#           1.10668E-01  1.13361E-01  1.16119E-01  1.18944E-01  1.21838E-01
#           1.24803E-01  1.27839E-01  1.30950E-01  1.34136E-01  1.37399E-01
#           1.40742E-01  1.44167E-01  1.47675E-01  1.51268E-01  1.54948E-01
#           1.58718E-01  1.62580E-01  1.66535E-01  1.70587E-01  1.74738E-01
#           1.78989E-01  1.83344E-01  1.87805E-01  1.92375E-01  1.97055E-01
#           2.01850E-01  2.06761E-01  2.11792E-01  2.16945E-01  2.22223E-01
#           2.27630E-01  2.33169E-01  2.38842E-01  2.44653E-01  2.50605E-01
#           2.56703E-01  2.62949E-01  2.69346E-01  2.75900E-01  2.82613E-01
#           2.89489E-01  2.96532E-01  3.03747E-01  3.11138E-01  3.18708E-01
#           3.26462E-01  3.34405E-01  3.42542E-01  3.50876E-01  3.59413E-01
#           3.68158E-01  3.77116E-01  3.86291E-01  3.95690E-01  4.05317E-01
#           4.15179E-01  4.25281E-01  4.35628E-01  4.46227E-01  4.57084E-01
#           4.68205E-01  4.79597E-01  4.91266E-01  5.03219E-01  5.15463E-01
#           5.28005E-01  5.40851E-01  5.54011E-01  5.67490E-01  5.81298E-01
#           5.95441E-01  6.09929E-01  6.24769E-01  6.39970E-01  6.55541E-01
#           6.71491E-01  6.87828E-01  7.04564E-01  7.21706E-01  7.39266E-01
#           7.57253E-01  7.75678E-01  7.94551E-01  8.13883E-01  8.33685E-01
#           8.53969E-01  8.74747E-01  8.96030E-01  9.17831E-01  9.40163E-01
#           9.63038E-01  9.86469E-01  1.01047E+00  1.03506E+00  1.06024E+00
#           1.08604E+00  1.11246E+00  1.13953E+00  1.16725E+00  1.19565E+00
#           1.22474E+00  1.25454E+00  1.28507E+00  1.31633E+00  1.34836E+00
#           1.38117E+00  1.41477E+00  1.44920E+00  1.48446E+00  1.52057E+00
#           1.55757E+00  1.59547E+00  1.63429E+00  1.67405E+00  1.71478E+00
#           1.75650E+00  1.79924E+00  1.84302E+00  1.88786E+00  1.93379E+00
#           1.98084E+00  2.02904E+00  2.07841E+00  2.12898E+00  2.18078E+00
#           2.23384E+00  2.28819E+00  2.34386E+00  2.40089E+00  2.45930E+00
#           2.51914E+00  2.58043E+00  2.64322E+00  2.70753E+00  2.77341E+00
#           2.84088E+00  2.91001E+00  2.98081E+00  3.05333E+00  3.12762E+00
#           3.20372E+00  3.28167E+00  3.36152E+00  3.44330E+00  3.52708E+00
#           3.61290E+00  3.70080E+00  3.79085E+00  3.88308E+00  3.97756E+00
#           4.07434E+00  4.17347E+00  4.27501E+00  4.37903E+00  4.48557E+00
#           4.59471E+00  4.70650E+00  4.82102E+00  4.93832E+00  5.05847E+00
#           5.18155E+00  5.30762E+00  5.43676E+00  5.56904E+00  5.70453E+00
#           5.84333E+00  5.98550E+00  6.13114E+00  6.28031E+00  6.43312E+00
#           6.58964E+00  6.74997E+00  6.91420E+00  7.08243E+00  7.25475E+00
#           7.43126E+00  7.61207E+00  7.79728E+00  7.98700E+00  8.18133E+00
#           8.38038E+00  8.58428E+00  8.79315E+00  9.00709E+00  9.22624E+00
#           9.45072E+00  9.68067E+00  9.91620E+00  1.01575E+01  1.04046E+01
#           1.06578E+01  1.09171E+01  1.11827E+01  1.14548E+01  1.17335E+01
#           1.20190E+01  1.23114E+01  1.26109E+01  1.29178E+01  1.32321E+01
#           1.35540E+01  1.38838E+01  1.42216E+01  1.45676E+01  1.49221E+01
#           1.52851E+01  1.56570E+01  1.60380E+01  1.64282E+01  1.68279E+01
#           1.72374E+01  1.76568E+01  1.80864E+01  1.85264E+01  1.89772E+01
#           1.94389E+01  1.99119E+01  2.03963E+01  2.08926E+01  2.14009E+01
#           2.19216E+01  2.24550E+01  2.30014E+01  2.35610E+01  2.41343E+01
#           2.47215E+01  2.53230E+01  2.59391E+01  2.65702E+01  2.72167E+01
#           2.78789E+01  2.85572E+01  2.92520E+01  2.99637E+01  3.06928E+01
#           3.14396E+01  3.22045E+01  3.29881E+01  3.37907E+01  3.46128E+01
#           3.54550E+01  3.63177E+01  3.72013E+01  3.81064E+01  3.90336E+01
#           3.99833E+01  4.09561E+01  4.19526E+01  4.29734E+01  4.40189E+01
#           4.50900E+01  4.61870E+01  4.73108E+01  4.84619E+01  4.96410E+01
#           5.08488E+01  5.20860E+01  5.33533E+01  5.46514E+01  5.59812E+01
#           5.73432E+01  5.87384E+01  6.01676E+01  6.16315E+01  6.31311E+01
#           6.46671E+01  6.62405E+01  6.78522E+01  6.95031E+01  7.11941E+01
#           7.29263E+01  7.47007E+01  7.65182E+01  7.83800E+01  8.02870E+01
#           8.22405E+01  8.42414E+01  8.62911E+01  8.83906E+01  9.05412E+01
#           9.27442E+01  9.50007E+01  9.73122E+01  9.96799E+01  1.02105E+02
#           1.04589E+02  1.07134E+02  1.09741E+02  1.12411E+02  1.15146E+02
#           1.17948E+02  1.20817E+02  1.23757E+02  1.26768E+02  1.29852E+02
#           1.33012E+02  1.36248E+02  1.39563E+02  1.42959E+02  1.46437E+02
#           1.50000E+02
     unit =    2            # unit is [1/cm^2/(MeV/n)/source]
     axis =  eng            # axis of output
     file = detector-14.out  # file name of output for the above axis
   output = f-curr          # surface crossing forward current spectrum
     part =  neutron  
# kf/name :  2112     
#    used :        main (  %)        temp (  %)       total (  %)
#  memory :         414 (  0)           0 (  0)         414 (  0)

#------------------------------------------------------------------------------
#newpage:
#   no. =    1   reg = 113 - 213

x: Energy [MeV/n]
y:  F-Curr [1/cm^2/(MeV/n)/source]         
p: xlog ylog afac(0.8) form(0.9)
h: n            x            y(neutron ),hh0l   n 
#  e-lower      e-upper      neutron     r.err 
   1.0000E-02   1.0243E-02   2.9971E-05  0.1646
   1.0243E-02   1.0493E-02   1.7272E-05  0.2112
   1.0493E-02   1.0748E-02   2.4913E-05  0.1768
   1.0748E-02   1.1009E-02   2.4819E-05  0.1742
   1.1009E-02   1.1277E-02   3.0221E-05  0.1562
   1.1277E-02   1.1552E-02   2.6008E-05  0.1667
   1.1552E-02   1.1833E-02   2.6547E-05  0.1624
   1.1833E-02   1.2121E-02   1.9093E-05  0.1894
   1.2121E-02   1.2415E-02   2.0641E-05  0.1797
   1.2415E-02   1.2718E-02   2.3908E-05  0.1631
   1.2718E-02   1.3027E-02   1.9689E-05  0.1799
   1.3027E-02   1.3344E-02   2.0043E-05  0.1768
   1.3344E-02   1.3669E-02   1.6975E-05  0.1891
   1.3669E-02   1.4001E-02   2.3740E-05  0.1583
   1.4001E-02   1.4342E-02   2.0609E-05  0.1669
   1.4342E-02   1.4691E-02   2.1437E-05  0.1614
   1.4691E-02   1.5048E-02   2.5677E-05  0.1456
   1.5048E-02   1.5414E-02   1.5739E-05  0.1839
   1.5414E-02   1.5789E-02   1.8956E-05  0.1668
   1.5789E-02   1.6174E-02   2.0481E-05  0.1583
   1.6174E-02   1.6567E-02   1.4539E-05  0.1858
   1.6567E-02   1.6970E-02   1.9561E-05  0.1582
   1.6970E-02   1.7383E-02   1.4420E-05  0.1813
   1.7383E-02   1.7806E-02   2.0080E-05  0.1526
   1.7806E-02   1.8239E-02   2.0795E-05  0.1479
   1.8239E-02   1.8683E-02   1.6222E-05  0.1648
   1.8683E-02   1.9138E-02   1.8240E-05  0.1538
   1.9138E-02   1.9603E-02   1.7353E-05  0.1552
   1.9603E-02   2.0080E-02   1.3679E-05  0.1742
   2.0080E-02   2.0569E-02   1.3353E-05  0.1732
   2.0569E-02   2.1069E-02   1.6799E-05  0.1529
   2.1069E-02   2.1582E-02   1.5110E-05  0.1601
   2.1582E-02   2.2107E-02   1.6288E-05  0.1504
   2.2107E-02   2.2645E-02   1.3136E-05  0.1668
   2.2645E-02   2.3196E-02   1.3475E-05  0.1625
   2.3196E-02   2.3760E-02   1.1794E-05  0.1718
   2.3760E-02   2.4338E-02   1.0930E-05  0.1768
   2.4338E-02   2.4930E-02   1.1526E-05  0.1693
   2.4930E-02   2.5537E-02   1.1210E-05  0.1700
   2.5537E-02   2.6158E-02   1.0774E-05  0.1710
   2.6158E-02   2.6795E-02   1.1115E-05  0.1668
   2.6795E-02   2.7447E-02   1.2419E-05  0.1557
   2.7447E-02   2.8114E-02   8.7081E-06  0.1842
   2.8114E-02   2.8799E-02   9.9859E-06  0.1694
   2.8799E-02   2.9499E-02   1.1635E-05  0.1556
   2.9499E-02   3.0217E-02   1.0025E-05  0.1659
   3.0217E-02   3.0952E-02   1.1325E-05  0.1543
   3.0952E-02   3.1705E-02   1.0528E-05  0.1581
   3.1705E-02   3.2477E-02   1.1372E-05  0.1497
   3.2477E-02   3.3267E-02   1.1949E-05  0.1445
   3.3267E-02   3.4076E-02   9.4521E-06  0.1604
   3.4076E-02   3.4905E-02   7.6616E-06  0.1747
   3.4905E-02   3.5755E-02   1.0027E-05  0.1518
   3.5755E-02   3.6625E-02   9.5685E-06  0.1543
   3.6625E-02   3.7516E-02   9.7159E-06  0.1509
   3.7516E-02   3.8428E-02   9.7789E-06  0.1486
   3.8428E-02   3.9363E-02   1.0467E-05  0.1418
   3.9363E-02   4.0321E-02   8.7943E-06  0.1526
   4.0321E-02   4.1302E-02   7.3740E-06  0.1647
   4.1302E-02   4.2307E-02   8.9734E-06  0.1468
   4.2307E-02   4.3337E-02   6.3025E-06  0.1742
   4.3337E-02   4.4391E-02   9.1234E-06  0.1430
   4.4391E-02   4.5471E-02   7.1596E-06  0.1592
   4.5471E-02   4.6577E-02   8.4168E-06  0.1442
   4.6577E-02   4.7711E-02   6.9169E-06  0.1583
   4.7711E-02   4.8871E-02   6.6027E-06  0.1603
   4.8871E-02   5.0061E-02   5.6804E-06  0.1715
   5.0061E-02   5.1279E-02   8.3037E-06  0.1397
   5.1279E-02   5.2526E-02   4.7716E-06  0.1826
   5.2526E-02   5.3804E-02   5.7666E-06  0.1627
   5.3804E-02   5.5113E-02   7.0678E-06  0.1460
   5.5113E-02   5.6454E-02   6.3758E-06  0.1520
   5.6454E-02   5.7828E-02   4.7086E-06  0.1742
   5.7828E-02   5.9235E-02   7.0236E-06  0.1415
   5.9235E-02   6.0676E-02   7.4695E-06  0.1352
   6.0676E-02   6.2152E-02   4.5582E-06  0.1715
   6.2152E-02   6.3665E-02   5.8999E-06  0.1491
   6.3665E-02   6.5214E-02   6.6018E-06  0.1377
   6.5214E-02   6.6800E-02   6.3690E-06  0.1400
   6.6800E-02   6.8426E-02   4.6924E-06  0.1603
   6.8426E-02   7.0090E-02   5.4044E-06  0.1477
   7.0090E-02   7.1796E-02   5.2796E-06  0.1476
   7.1796E-02   7.3543E-02   5.8919E-06  0.1387
   7.3543E-02   7.5332E-02   4.6330E-06  0.1544
   7.5332E-02   7.7165E-02   5.1573E-06  0.1436
   7.7165E-02   7.9042E-02   4.3874E-06  0.1537
   7.9042E-02   8.0965E-02   4.9438E-06  0.1444
   8.0965E-02   8.2935E-02   4.6936E-06  0.1456
   8.2935E-02   8.4953E-02   4.3796E-06  0.1484
   8.4953E-02   8.7020E-02   3.8290E-06  0.1582
   8.7020E-02   8.9138E-02   5.0353E-06  0.1362
   8.9138E-02   9.1306E-02   4.2990E-06  0.1438
   9.1306E-02   9.3528E-02   4.3167E-06  0.1430
   9.3528E-02   9.5804E-02   3.9815E-06  0.1472
   9.5804E-02   9.8134E-02   4.3688E-06  0.1388
   9.8134E-02   1.0052E-01   4.0681E-06  0.1429
   1.0052E-01   1.0297E-01   4.9796E-06  0.1271
   1.0297E-01   1.0547E-01   3.9266E-06  0.1415
   1.0547E-01   1.0804E-01   5.3926E-06  0.1196
   1.0804E-01   1.1067E-01   6.8148E-06  0.1049
   1.1067E-01   1.1336E-01   5.6240E-06  0.1141
   1.1336E-01   1.1612E-01   5.1822E-06  0.1172
   1.1612E-01   1.1894E-01   5.0234E-06  0.1177
   1.1894E-01   1.2184E-01   6.5614E-06  0.1017
   1.2184E-01   1.2480E-01   6.5961E-06  0.1001
   1.2480E-01   1.2784E-01   7.3020E-06  0.0943
   1.2784E-01   1.3095E-01   7.4236E-06  0.0925
   1.3095E-01   1.3414E-01   7.0686E-06  0.0933
   1.3414E-01   1.3740E-01   7.4711E-06  0.0898
   1.3740E-01   1.4074E-01   7.0235E-06  0.0916
   1.4074E-01   1.4417E-01   7.4265E-06  0.0881
   1.4417E-01   1.4767E-01   7.8092E-06  0.0848
   1.4767E-01   1.5127E-01   7.9152E-06  0.0833
   1.5127E-01   1.5495E-01   9.3383E-06  0.0758
   1.5495E-01   1.5872E-01   1.0473E-05  0.0705
   1.5872E-01   1.6258E-01   8.4483E-06  0.0778
   1.6258E-01   1.6654E-01   8.6716E-06  0.0757
   1.6654E-01   1.7059E-01   1.0071E-05  0.0695
   1.7059E-01   1.7474E-01   1.0644E-05  0.0668
   1.7474E-01   1.7899E-01   1.1808E-05  0.0626
   1.7899E-01   1.8334E-01   1.1831E-05  0.0619
   1.8334E-01   1.8781E-01   1.1599E-05  0.0616
   1.8781E-01   1.9237E-01   1.2811E-05  0.0580
   1.9237E-01   1.9706E-01   1.3408E-05  0.0561
   1.9706E-01   2.0185E-01   1.4456E-05  0.0533
   2.0185E-01   2.0676E-01   1.5054E-05  0.0516
   2.0676E-01   2.1179E-01   1.3665E-05  0.0536
   2.1179E-01   2.1694E-01   1.4863E-05  0.0507
   2.1694E-01   2.2222E-01   1.6746E-05  0.0472
   2.2222E-01   2.2763E-01   1.5514E-05  0.0484
   2.2763E-01   2.3317E-01   1.6967E-05  0.0457
   2.3317E-01   2.3884E-01   1.7726E-05  0.0443
   2.3884E-01   2.4465E-01   1.8603E-05  0.0427
   2.4465E-01   2.5061E-01   1.8578E-05  0.0422
   2.5061E-01   2.5670E-01   2.1412E-05  0.0388
   2.5670E-01   2.6295E-01   1.8210E-05  0.0416
   2.6295E-01   2.6935E-01   2.0652E-05  0.0387
   2.6935E-01   2.7590E-01   2.1297E-05  0.0376
   2.7590E-01   2.8261E-01   2.2555E-05  0.0361
   2.8261E-01   2.8949E-01   2.3500E-05  0.0349
   2.8949E-01   2.9653E-01   2.3733E-05  0.0343
   2.9653E-01   3.0375E-01   2.4214E-05  0.0336
   3.0375E-01   3.1114E-01   2.4968E-05  0.0327
   3.1114E-01   3.1871E-01   2.5872E-05  0.0317
   3.1871E-01   3.2646E-01   2.5559E-05  0.0315
   3.2646E-01   3.3441E-01   2.8259E-05  0.0296
   3.3441E-01   3.4254E-01   2.8470E-05  0.0291
   3.4254E-01   3.5088E-01   2.8612E-05  0.0287
   3.5088E-01   3.5941E-01   3.0710E-05  0.0274
   3.5941E-01   3.6816E-01   3.0023E-05  0.0274
   3.6816E-01   3.7712E-01   3.1298E-05  0.0265
   3.7712E-01   3.8629E-01   3.1578E-05  0.0261
   3.8629E-01   3.9569E-01   3.2430E-05  0.0254
   3.9569E-01   4.0532E-01   3.3412E-05  0.0247
   4.0532E-01   4.1518E-01   3.3104E-05  0.0246
   4.1518E-01   4.2528E-01   3.4767E-05  0.0237
   4.2528E-01   4.3563E-01   3.4154E-05  0.0236
   4.3563E-01   4.4623E-01   3.5563E-05  0.0228
   4.4623E-01   4.5708E-01   3.5129E-05  0.0227
   4.5708E-01   4.6821E-01   3.7221E-05  0.0218
   4.6821E-01   4.7960E-01   3.7144E-05  0.0216
   4.7960E-01   4.9127E-01   3.7787E-05  0.0211
   4.9127E-01   5.0322E-01   3.9073E-05  0.0205
   5.0322E-01   5.1546E-01   3.8879E-05  0.0203
   5.1546E-01   5.2800E-01   3.9345E-05  0.0199
   5.2800E-01   5.4085E-01   3.9055E-05  0.0198
   5.4085E-01   5.5401E-01   3.9789E-05  0.0194
   5.5401E-01   5.6749E-01   4.0728E-05  0.0189
   5.6749E-01   5.8130E-01   4.1612E-05  0.0185
   5.8130E-01   5.9544E-01   4.1478E-05  0.0183
   5.9544E-01   6.0993E-01   4.0742E-05  0.0182
   6.0993E-01   6.2477E-01   4.0664E-05  0.0180
   6.2477E-01   6.3997E-01   4.0980E-05  0.0178
   6.3997E-01   6.5554E-01   4.1992E-05  0.0173
   6.5554E-01   6.7149E-01   4.1060E-05  0.0173
   6.7149E-01   6.8783E-01   4.0523E-05  0.0172
   6.8783E-01   7.0456E-01   3.9413E-05  0.0172
   7.0456E-01   7.2171E-01   4.0229E-05  0.0169
   7.2171E-01   7.3927E-01   3.9771E-05  0.0167
   7.3927E-01   7.5725E-01   3.7946E-05  0.0169
   7.5725E-01   7.7568E-01   3.8043E-05  0.0167
   7.7568E-01   7.9455E-01   3.8101E-05  0.0165
   7.9455E-01   8.1388E-01   3.5815E-05  0.0168
   8.1388E-01   8.3368E-01   3.6065E-05  0.0165
   8.3368E-01   8.5397E-01   3.5994E-05  0.0163
   8.5397E-01   8.7475E-01   3.4164E-05  0.0166
   8.7475E-01   8.9603E-01   3.3410E-05  0.0166
   8.9603E-01   9.1783E-01   3.2729E-05  0.0165
   9.1783E-01   9.4016E-01   3.0985E-05  0.0168
   9.4016E-01   9.6304E-01   3.1097E-05  0.0165
   9.6304E-01   9.8647E-01   2.9900E-05  0.0167
   9.8647E-01   1.0105E+00   2.9828E-05  0.0165
   1.0105E+00   1.0351E+00   2.9649E-05  0.0163
   1.0351E+00   1.0602E+00   3.0301E-05  0.0159
   1.0602E+00   1.0860E+00   3.1641E-05  0.0154
   1.0860E+00   1.1125E+00   3.3870E-05  0.0147
   1.1125E+00   1.1395E+00   3.4505E-05  0.0144
   1.1395E+00   1.1673E+00   3.6131E-05  0.0139
   1.1673E+00   1.1957E+00   3.6917E-05  0.0136
   1.1957E+00   1.2247E+00   3.9118E-05  0.0130
   1.2247E+00   1.2545E+00   3.8875E-05  0.0129
   1.2545E+00   1.2851E+00   4.0693E-05  0.0125
   1.2851E+00   1.3163E+00   4.1685E-05  0.0122
   1.3163E+00   1.3484E+00   4.2614E-05  0.0119
   1.3484E+00   1.3812E+00   4.4927E-05  0.0114
   1.3812E+00   1.4148E+00   4.5791E-05  0.0112
   1.4148E+00   1.4492E+00   4.6232E-05  0.0110
   1.4492E+00   1.4845E+00   4.6136E-05  0.0109
   1.4845E+00   1.5206E+00   4.7184E-05  0.0106
   1.5206E+00   1.5576E+00   4.6135E-05  0.0106
   1.5576E+00   1.5955E+00   4.6861E-05  0.0104
   1.5955E+00   1.6343E+00   4.6534E-05  0.0103
   1.6343E+00   1.6741E+00   4.6257E-05  0.0102
   1.6741E+00   1.7148E+00   4.7165E-05  0.0100
   1.7148E+00   1.7565E+00   4.5516E-05  0.0100
   1.7565E+00   1.7992E+00   4.3298E-05  0.0101
   1.7992E+00   1.8430E+00   4.1403E-05  0.0102
   1.8430E+00   1.8879E+00   3.9724E-05  0.0102
   1.8879E+00   1.9338E+00   3.9891E-05  0.0101
   1.9338E+00   1.9808E+00   3.9728E-05  0.0100
   1.9808E+00   2.0290E+00   4.0336E-05  0.0098
   2.0290E+00   2.0784E+00   4.0275E-05  0.0096
   2.0784E+00   2.1290E+00   4.1378E-05  0.0094
   2.1290E+00   2.1808E+00   4.1126E-05  0.0093
   2.1808E+00   2.2338E+00   4.1039E-05  0.0092
   2.2338E+00   2.2882E+00   4.0684E-05  0.0091
   2.2882E+00   2.3439E+00   3.9505E-05  0.0092
   2.3439E+00   2.4009E+00   3.9061E-05  0.0091
   2.4009E+00   2.4593E+00   3.9156E-05  0.0090
   2.4593E+00   2.5191E+00   3.8984E-05  0.0089
   2.5191E+00   2.5804E+00   3.7169E-05  0.0090
   2.5804E+00   2.6432E+00   3.6800E-05  0.0090
   2.6432E+00   2.7075E+00   3.6083E-05  0.0090
   2.7075E+00   2.7734E+00   3.5869E-05  0.0089
   2.7734E+00   2.8409E+00   3.4542E-05  0.0090
   2.8409E+00   2.9100E+00   3.4581E-05  0.0089
   2.9100E+00   2.9808E+00   3.3808E-05  0.0089
   2.9808E+00   3.0533E+00   3.3088E-05  0.0088
   3.0533E+00   3.1276E+00   3.3034E-05  0.0088
   3.1276E+00   3.2037E+00   3.2348E-05  0.0088
   3.2037E+00   3.2817E+00   3.1409E-05  0.0088
   3.2817E+00   3.3615E+00   3.0681E-05  0.0088
   3.3615E+00   3.4433E+00   3.0230E-05  0.0087
   3.4433E+00   3.5271E+00   2.9674E-05  0.0087
   3.5271E+00   3.6129E+00   2.9122E-05  0.0087
   3.6129E+00   3.7008E+00   2.8557E-05  0.0087
   3.7008E+00   3.7908E+00   2.7724E-05  0.0087
   3.7908E+00   3.8831E+00   2.6843E-05  0.0088
   3.8831E+00   3.9776E+00   2.6177E-05  0.0088
   3.9776E+00   4.0743E+00   2.5585E-05  0.0088
   4.0743E+00   4.1735E+00   2.4671E-05  0.0088
   4.1735E+00   4.2750E+00   2.3792E-05  0.0089
   4.2750E+00   4.3790E+00   2.3264E-05  0.0089
   4.3790E+00   4.4856E+00   2.2350E-05  0.0089
   4.4856E+00   4.5947E+00   2.1592E-05  0.0090
   4.5947E+00   4.7065E+00   2.0764E-05  0.0090
   4.7065E+00   4.8210E+00   2.0280E-05  0.0091
   4.8210E+00   4.9383E+00   1.9595E-05  0.0091
   4.9383E+00   5.0585E+00   1.9069E-05  0.0091
   5.0585E+00   5.1815E+00   1.7994E-05  0.0093
   5.1815E+00   5.3076E+00   1.7604E-05  0.0093
   5.3076E+00   5.4368E+00   1.7096E-05  0.0093
   5.4368E+00   5.5690E+00   1.6583E-05  0.0093
   5.5690E+00   5.7045E+00   1.5663E-05  0.0095
   5.7045E+00   5.8433E+00   1.5253E-05  0.0095
   5.8433E+00   5.9855E+00   1.4498E-05  0.0096
   5.9855E+00   6.1311E+00   1.4185E-05  0.0096
   6.1311E+00   6.2803E+00   1.3413E-05  0.0098
   6.2803E+00   6.4331E+00   1.2885E-05  0.0099
   6.4331E+00   6.5896E+00   1.2434E-05  0.0099
   6.5896E+00   6.7500E+00   1.1341E-05  0.0103
   6.7500E+00   6.9142E+00   1.1023E-05  0.0103
   6.9142E+00   7.0824E+00   1.0141E-05  0.0106
   7.0824E+00   7.2548E+00   9.7039E-06  0.0107
   7.2548E+00   7.4313E+00   8.9765E-06  0.0110
   7.4313E+00   7.6121E+00   8.2788E-06  0.0114
   7.6121E+00   7.7973E+00   7.8783E-06  0.0115
   7.7973E+00   7.9870E+00   6.6313E-06  0.0124
   7.9870E+00   8.1813E+00   5.7466E-06  0.0131
   8.1813E+00   8.3804E+00   5.0203E-06  0.0139
   8.3804E+00   8.5843E+00   4.4695E-06  0.0146
   8.5843E+00   8.7931E+00   4.2983E-06  0.0147
   8.7931E+00   9.0071E+00   3.8264E-06  0.0154
   9.0071E+00   9.2262E+00   3.4155E-06  0.0161
   9.2262E+00   9.4507E+00   3.2306E-06  0.0164
   9.4507E+00   9.6807E+00   3.0610E-06  0.0167
   9.6807E+00   9.9162E+00   2.9196E-06  0.0169
   9.9162E+00   1.0157E+01   2.8743E-06  0.0169
   1.0157E+01   1.0405E+01   2.6516E-06  0.0174
   1.0405E+01   1.0658E+01   2.4037E-06  0.0180
   1.0658E+01   1.0917E+01   2.1430E-06  0.0189
   1.0917E+01   1.1183E+01   1.9951E-06  0.0193
   1.1183E+01   1.1455E+01   1.8629E-06  0.0198
   1.1455E+01   1.1733E+01   1.7112E-06  0.0204
   1.1733E+01   1.2019E+01   1.4734E-06  0.0217
   1.2019E+01   1.2311E+01   1.4002E-06  0.0220
   1.2311E+01   1.2611E+01   1.2610E-06  0.0229
   1.2611E+01   1.2918E+01   1.1769E-06  0.0234
   1.2918E+01   1.3232E+01   1.0062E-06  0.0251
   1.3232E+01   1.3554E+01   9.2027E-07  0.0259
   1.3554E+01   1.3884E+01   7.6033E-07  0.0282
   1.3884E+01   1.4222E+01   6.8304E-07  0.0294
   1.4222E+01   1.4568E+01   5.7376E-07  0.0316
   1.4568E+01   1.4922E+01   4.8764E-07  0.0340
   1.4922E+01   1.5285E+01   3.8894E-07  0.0376
   1.5285E+01   1.5657E+01   3.5322E-07  0.0389
   1.5657E+01   1.6038E+01   2.3860E-07  0.0467
   1.6038E+01   1.6428E+01   1.7935E-07  0.0532
   1.6428E+01   1.6828E+01   1.3974E-07  0.0597
   1.6828E+01   1.7237E+01   8.6654E-08  0.0749
   1.7237E+01   1.7657E+01   5.1471E-08  0.0960
   1.7657E+01   1.8086E+01   3.0733E-08  0.1226
   1.8086E+01   1.8526E+01   1.4768E-08  0.1748
   1.8526E+01   1.8977E+01   7.5428E-09  0.2425
   1.8977E+01   1.9439E+01   1.2995E-09  0.5774
   1.9439E+01   1.9912E+01   8.4573E-10  0.7071
   1.9912E+01   2.0396E+01   4.1282E-10  1.0000
   2.0396E+01   2.0893E+01   4.0302E-10  1.0000
   2.0893E+01   2.1401E+01   3.9344E-10  1.0000
   2.1401E+01   2.1922E+01   0.0000E+00  0.0000
   2.1922E+01   2.2455E+01   0.0000E+00  0.0000
   2.2455E+01   2.3001E+01   0.0000E+00  0.0000
   2.3001E+01   2.3561E+01   0.0000E+00  0.0000
   2.3561E+01   2.4134E+01   0.0000E+00  0.0000
   2.4134E+01   2.4721E+01   0.0000E+00  0.0000
   2.4721E+01   2.5323E+01   0.0000E+00  0.0000
   2.5323E+01   2.5939E+01   0.0000E+00  0.0000
   2.5939E+01   2.6570E+01   0.0000E+00  0.0000
   2.6570E+01   2.7217E+01   0.0000E+00  0.0000
   2.7217E+01   2.7879E+01   0.0000E+00  0.0000
   2.7879E+01   2.8557E+01   0.0000E+00  0.0000
   2.8557E+01   2.9252E+01   0.0000E+00  0.0000
   2.9252E+01   2.9964E+01   0.0000E+00  0.0000
   2.9964E+01   3.0693E+01   0.0000E+00  0.0000
   3.0693E+01   3.1440E+01   0.0000E+00  0.0000
   3.1440E+01   3.2205E+01   0.0000E+00  0.0000
   3.2205E+01   3.2988E+01   0.0000E+00  0.0000
   3.2988E+01   3.3791E+01   0.0000E+00  0.0000
   3.3791E+01   3.4613E+01   0.0000E+00  0.0000
   3.4613E+01   3.5455E+01   0.0000E+00  0.0000
   3.5455E+01   3.6318E+01   0.0000E+00  0.0000
   3.6318E+01   3.7201E+01   0.0000E+00  0.0000
   3.7201E+01   3.8106E+01   0.0000E+00  0.0000
   3.8106E+01   3.9034E+01   0.0000E+00  0.0000
   3.9034E+01   3.9983E+01   0.0000E+00  0.0000
   3.9983E+01   4.0956E+01   0.0000E+00  0.0000
   4.0956E+01   4.1953E+01   0.0000E+00  0.0000
   4.1953E+01   4.2973E+01   0.0000E+00  0.0000
   4.2973E+01   4.4019E+01   0.0000E+00  0.0000
   4.4019E+01   4.5090E+01   0.0000E+00  0.0000
   4.5090E+01   4.6187E+01   0.0000E+00  0.0000
   4.6187E+01   4.7311E+01   0.0000E+00  0.0000
   4.7311E+01   4.8462E+01   0.0000E+00  0.0000
   4.8462E+01   4.9641E+01   0.0000E+00  0.0000
   4.9641E+01   5.0849E+01   0.0000E+00  0.0000
   5.0849E+01   5.2086E+01   0.0000E+00  0.0000
   5.2086E+01   5.3353E+01   0.0000E+00  0.0000
   5.3353E+01   5.4651E+01   0.0000E+00  0.0000
   5.4651E+01   5.5981E+01   0.0000E+00  0.0000
   5.5981E+01   5.7343E+01   0.0000E+00  0.0000
   5.7343E+01   5.8738E+01   0.0000E+00  0.0000
   5.8738E+01   6.0168E+01   0.0000E+00  0.0000
   6.0168E+01   6.1632E+01   0.0000E+00  0.0000
   6.1632E+01   6.3131E+01   0.0000E+00  0.0000
   6.3131E+01   6.4667E+01   0.0000E+00  0.0000
   6.4667E+01   6.6240E+01   0.0000E+00  0.0000
   6.6240E+01   6.7852E+01   0.0000E+00  0.0000
   6.7852E+01   6.9503E+01   0.0000E+00  0.0000
   6.9503E+01   7.1194E+01   0.0000E+00  0.0000
   7.1194E+01   7.2926E+01   0.0000E+00  0.0000
   7.2926E+01   7.4701E+01   0.0000E+00  0.0000
   7.4701E+01   7.6518E+01   0.0000E+00  0.0000
   7.6518E+01   7.8380E+01   0.0000E+00  0.0000
   7.8380E+01   8.0287E+01   0.0000E+00  0.0000
   8.0287E+01   8.2240E+01   0.0000E+00  0.0000
   8.2240E+01   8.4241E+01   0.0000E+00  0.0000
   8.4241E+01   8.6291E+01   0.0000E+00  0.0000
   8.6291E+01   8.8391E+01   0.0000E+00  0.0000
   8.8391E+01   9.0541E+01   0.0000E+00  0.0000
   9.0541E+01   9.2744E+01   0.0000E+00  0.0000
   9.2744E+01   9.5001E+01   0.0000E+00  0.0000
   9.5001E+01   9.7312E+01   0.0000E+00  0.0000
   9.7312E+01   9.9680E+01   0.0000E+00  0.0000
   9.9680E+01   1.0211E+02   0.0000E+00  0.0000
   1.0211E+02   1.0459E+02   0.0000E+00  0.0000
   1.0459E+02   1.0713E+02   0.0000E+00  0.0000
   1.0713E+02   1.0974E+02   0.0000E+00  0.0000
   1.0974E+02   1.1241E+02   0.0000E+00  0.0000
   1.1241E+02   1.1515E+02   0.0000E+00  0.0000
   1.1515E+02   1.1795E+02   0.0000E+00  0.0000
   1.1795E+02   1.2082E+02   0.0000E+00  0.0000
   1.2082E+02   1.2376E+02   0.0000E+00  0.0000
   1.2376E+02   1.2677E+02   0.0000E+00  0.0000
   1.2677E+02   1.2985E+02   0.0000E+00  0.0000
   1.2985E+02   1.3301E+02   0.0000E+00  0.0000
   1.3301E+02   1.3625E+02   0.0000E+00  0.0000
   1.3625E+02   1.3956E+02   0.0000E+00  0.0000
   1.3956E+02   1.4296E+02   0.0000E+00  0.0000
   1.4296E+02   1.4644E+02   0.0000E+00  0.0000
   1.4644E+02   1.5000E+02   0.0000E+00  0.0000

#   sum over                 1.4122E-06
'no. =    1   reg = 113 - 213'
msuc: {\huge [t-cross] in region mesh}
msdr: {\it plotted by \ANGEL \version}
msdl: {\it calculated by \PHITS  3.26}
wt: s(0.7)
\vspace{-3}
  region surface crossing
  area  &=&   1.0000E+00 [cm^2]
e:
 
# Information for Restart Calculation
# This calculation was newly started
# istdev =  2 # 1:Batch variance, 2:History variance
# resc2  = 5.00000000000000000E+09 # Total source weight or Total source weight / maxcas
# resc3  = 5.00000000000000000E+09 # Total history number or Total batch number
# maxcas =   100000000 # History / Batch, only used for istdev=1
# bitrseed = 0110100000100010111000001110001111001110100100011111101000111001 # bit data of rseed
