[ T-Cross ]
    title = [t-cross] in region mesh
     mesh =  reg            # mesh type is region-wise
      reg =    1            # number of crossing regions
      non     r-from    r-to       area
      1       116       216        1.000000    
   e-type =    3            # e-mesh is log given by emin, emax and ne
     emin =  1.0000000E-02  # minimum value of e-mesh points
     emax =   150.0000      # maximum value of e-mesh points
#    edel =  2.4039514E-02  # mesh width of e-mesh points
       ne =    400          # number of e-mesh points
#    data = ( e(i), i = 1, ne + 1 )
#           1.00000E-02  1.02433E-02  1.04925E-02  1.07478E-02  1.10093E-02
#           1.12772E-02  1.15516E-02  1.18326E-02  1.21205E-02  1.24154E-02
#           1.27175E-02  1.30269E-02  1.33439E-02  1.36686E-02  1.40011E-02
#           1.43418E-02  1.46907E-02  1.50482E-02  1.54143E-02  1.57894E-02
#           1.61735E-02  1.65670E-02  1.69701E-02  1.73830E-02  1.78060E-02
#           1.82392E-02  1.86830E-02  1.91375E-02  1.96032E-02  2.00801E-02
#           2.05687E-02  2.10692E-02  2.15818E-02  2.21069E-02  2.26448E-02
#           2.31957E-02  2.37601E-02  2.43382E-02  2.49304E-02  2.55369E-02
#           2.61583E-02  2.67947E-02  2.74467E-02  2.81145E-02  2.87985E-02
#           2.94992E-02  3.02169E-02  3.09521E-02  3.17052E-02  3.24766E-02
#           3.32668E-02  3.40762E-02  3.49053E-02  3.57546E-02  3.66246E-02
#           3.75157E-02  3.84284E-02  3.93634E-02  4.03212E-02  4.13022E-02
#           4.23071E-02  4.33365E-02  4.43909E-02  4.54710E-02  4.65773E-02
#           4.77106E-02  4.88714E-02  5.00605E-02  5.12785E-02  5.25262E-02
#           5.38042E-02  5.51133E-02  5.64542E-02  5.78278E-02  5.92348E-02
#           6.06760E-02  6.21523E-02  6.36645E-02  6.52135E-02  6.68002E-02
#           6.84255E-02  7.00904E-02  7.17957E-02  7.35426E-02  7.53319E-02
#           7.71648E-02  7.90423E-02  8.09655E-02  8.29354E-02  8.49533E-02
#           8.70203E-02  8.91376E-02  9.13064E-02  9.35279E-02  9.58035E-02
#           9.81345E-02  1.00522E-01  1.02968E-01  1.05473E-01  1.08040E-01
#           1.10668E-01  1.13361E-01  1.16119E-01  1.18944E-01  1.21838E-01
#           1.24803E-01  1.27839E-01  1.30950E-01  1.34136E-01  1.37399E-01
#           1.40742E-01  1.44167E-01  1.47675E-01  1.51268E-01  1.54948E-01
#           1.58718E-01  1.62580E-01  1.66535E-01  1.70587E-01  1.74738E-01
#           1.78989E-01  1.83344E-01  1.87805E-01  1.92375E-01  1.97055E-01
#           2.01850E-01  2.06761E-01  2.11792E-01  2.16945E-01  2.22223E-01
#           2.27630E-01  2.33169E-01  2.38842E-01  2.44653E-01  2.50605E-01
#           2.56703E-01  2.62949E-01  2.69346E-01  2.75900E-01  2.82613E-01
#           2.89489E-01  2.96532E-01  3.03747E-01  3.11138E-01  3.18708E-01
#           3.26462E-01  3.34405E-01  3.42542E-01  3.50876E-01  3.59413E-01
#           3.68158E-01  3.77116E-01  3.86291E-01  3.95690E-01  4.05317E-01
#           4.15179E-01  4.25281E-01  4.35628E-01  4.46227E-01  4.57084E-01
#           4.68205E-01  4.79597E-01  4.91266E-01  5.03219E-01  5.15463E-01
#           5.28005E-01  5.40851E-01  5.54011E-01  5.67490E-01  5.81298E-01
#           5.95441E-01  6.09929E-01  6.24769E-01  6.39970E-01  6.55541E-01
#           6.71491E-01  6.87828E-01  7.04564E-01  7.21706E-01  7.39266E-01
#           7.57253E-01  7.75678E-01  7.94551E-01  8.13883E-01  8.33685E-01
#           8.53969E-01  8.74747E-01  8.96030E-01  9.17831E-01  9.40163E-01
#           9.63038E-01  9.86469E-01  1.01047E+00  1.03506E+00  1.06024E+00
#           1.08604E+00  1.11246E+00  1.13953E+00  1.16725E+00  1.19565E+00
#           1.22474E+00  1.25454E+00  1.28507E+00  1.31633E+00  1.34836E+00
#           1.38117E+00  1.41477E+00  1.44920E+00  1.48446E+00  1.52057E+00
#           1.55757E+00  1.59547E+00  1.63429E+00  1.67405E+00  1.71478E+00
#           1.75650E+00  1.79924E+00  1.84302E+00  1.88786E+00  1.93379E+00
#           1.98084E+00  2.02904E+00  2.07841E+00  2.12898E+00  2.18078E+00
#           2.23384E+00  2.28819E+00  2.34386E+00  2.40089E+00  2.45930E+00
#           2.51914E+00  2.58043E+00  2.64322E+00  2.70753E+00  2.77341E+00
#           2.84088E+00  2.91001E+00  2.98081E+00  3.05333E+00  3.12762E+00
#           3.20372E+00  3.28167E+00  3.36152E+00  3.44330E+00  3.52708E+00
#           3.61290E+00  3.70080E+00  3.79085E+00  3.88308E+00  3.97756E+00
#           4.07434E+00  4.17347E+00  4.27501E+00  4.37903E+00  4.48557E+00
#           4.59471E+00  4.70650E+00  4.82102E+00  4.93832E+00  5.05847E+00
#           5.18155E+00  5.30762E+00  5.43676E+00  5.56904E+00  5.70453E+00
#           5.84333E+00  5.98550E+00  6.13114E+00  6.28031E+00  6.43312E+00
#           6.58964E+00  6.74997E+00  6.91420E+00  7.08243E+00  7.25475E+00
#           7.43126E+00  7.61207E+00  7.79728E+00  7.98700E+00  8.18133E+00
#           8.38038E+00  8.58428E+00  8.79315E+00  9.00709E+00  9.22624E+00
#           9.45072E+00  9.68067E+00  9.91620E+00  1.01575E+01  1.04046E+01
#           1.06578E+01  1.09171E+01  1.11827E+01  1.14548E+01  1.17335E+01
#           1.20190E+01  1.23114E+01  1.26109E+01  1.29178E+01  1.32321E+01
#           1.35540E+01  1.38838E+01  1.42216E+01  1.45676E+01  1.49221E+01
#           1.52851E+01  1.56570E+01  1.60380E+01  1.64282E+01  1.68279E+01
#           1.72374E+01  1.76568E+01  1.80864E+01  1.85264E+01  1.89772E+01
#           1.94389E+01  1.99119E+01  2.03963E+01  2.08926E+01  2.14009E+01
#           2.19216E+01  2.24550E+01  2.30014E+01  2.35610E+01  2.41343E+01
#           2.47215E+01  2.53230E+01  2.59391E+01  2.65702E+01  2.72167E+01
#           2.78789E+01  2.85572E+01  2.92520E+01  2.99637E+01  3.06928E+01
#           3.14396E+01  3.22045E+01  3.29881E+01  3.37907E+01  3.46128E+01
#           3.54550E+01  3.63177E+01  3.72013E+01  3.81064E+01  3.90336E+01
#           3.99833E+01  4.09561E+01  4.19526E+01  4.29734E+01  4.40189E+01
#           4.50900E+01  4.61870E+01  4.73108E+01  4.84619E+01  4.96410E+01
#           5.08488E+01  5.20860E+01  5.33533E+01  5.46514E+01  5.59812E+01
#           5.73432E+01  5.87384E+01  6.01676E+01  6.16315E+01  6.31311E+01
#           6.46671E+01  6.62405E+01  6.78522E+01  6.95031E+01  7.11941E+01
#           7.29263E+01  7.47007E+01  7.65182E+01  7.83800E+01  8.02870E+01
#           8.22405E+01  8.42414E+01  8.62911E+01  8.83906E+01  9.05412E+01
#           9.27442E+01  9.50007E+01  9.73122E+01  9.96799E+01  1.02105E+02
#           1.04589E+02  1.07134E+02  1.09741E+02  1.12411E+02  1.15146E+02
#           1.17948E+02  1.20817E+02  1.23757E+02  1.26768E+02  1.29852E+02
#           1.33012E+02  1.36248E+02  1.39563E+02  1.42959E+02  1.46437E+02
#           1.50000E+02
     unit =    2            # unit is [1/cm^2/(MeV/n)/source]
     axis =  eng            # axis of output
     file = detector-17.out  # file name of output for the above axis
   output = f-curr          # surface crossing forward current spectrum
     part =  neutron  
# kf/name :  2112     
#    used :        main (  %)        temp (  %)       total (  %)
#  memory :         414 (  0)           0 (  0)         414 (  0)

#------------------------------------------------------------------------------
#newpage:
#   no. =    1   reg = 116 - 216

x: Energy [MeV/n]
y:  F-Curr [1/cm^2/(MeV/n)/source]         
p: xlog ylog afac(0.8) form(0.9)
h: n            x            y(neutron ),hh0l   n 
#  e-lower      e-upper      neutron     r.err 
   1.0000E-02   1.0243E-02   2.0557E-03  0.0630
   1.0243E-02   1.0493E-02   2.1501E-03  0.0608
   1.0493E-02   1.0748E-02   1.9669E-03  0.0628
   1.0748E-02   1.1009E-02   1.6792E-03  0.0669
   1.1009E-02   1.1277E-02   1.9475E-03  0.0616
   1.1277E-02   1.1552E-02   1.9973E-03  0.0601
   1.1552E-02   1.1833E-02   1.5651E-03  0.0670
   1.1833E-02   1.2121E-02   1.5928E-03  0.0657
   1.2121E-02   1.2415E-02   1.5890E-03  0.0650
   1.2415E-02   1.2718E-02   1.5702E-03  0.0645
   1.2718E-02   1.3027E-02   1.6148E-03  0.0628
   1.3027E-02   1.3344E-02   1.5982E-03  0.0625
   1.3344E-02   1.3669E-02   1.4838E-03  0.0641
   1.3669E-02   1.4001E-02   1.6143E-03  0.0608
   1.4001E-02   1.4342E-02   1.3583E-03  0.0653
   1.4342E-02   1.4691E-02   1.4749E-03  0.0620
   1.4691E-02   1.5048E-02   1.5217E-03  0.0604
   1.5048E-02   1.5414E-02   1.3751E-03  0.0628
   1.5414E-02   1.5789E-02   1.4070E-03  0.0612
   1.5789E-02   1.6174E-02   1.4927E-03  0.0586
   1.6174E-02   1.6567E-02   1.4329E-03  0.0593
   1.6567E-02   1.6970E-02   1.2914E-03  0.0616
   1.6970E-02   1.7383E-02   1.1598E-03  0.0643
   1.7383E-02   1.7806E-02   1.2952E-03  0.0601
   1.7806E-02   1.8239E-02   1.0858E-03  0.0649
   1.8239E-02   1.8683E-02   1.2509E-03  0.0598
   1.8683E-02   1.9138E-02   1.1166E-03  0.0624
   1.9138E-02   1.9603E-02   1.1324E-03  0.0611
   1.9603E-02   2.0080E-02   1.0868E-03  0.0619
   2.0080E-02   2.0569E-02   1.1541E-03  0.0593
   2.0569E-02   2.1069E-02   1.0555E-03  0.0613
   2.1069E-02   2.1582E-02   9.8873E-04  0.0624
   2.1582E-02   2.2107E-02   1.1350E-03  0.0578
   2.2107E-02   2.2645E-02   1.0912E-03  0.0580
   2.2645E-02   2.3196E-02   1.0279E-03  0.0591
   2.3196E-02   2.3760E-02   1.0031E-03  0.0591
   2.3760E-02   2.4338E-02   1.0350E-03  0.0577
   2.4338E-02   2.4930E-02   9.7238E-04  0.0586
   2.4930E-02   2.5537E-02   9.2218E-04  0.0594
   2.5537E-02   2.6158E-02   8.8237E-04  0.0601
   2.6158E-02   2.6795E-02   9.1827E-04  0.0582
   2.6795E-02   2.7447E-02   7.3990E-04  0.0640
   2.7447E-02   2.8114E-02   8.4201E-04  0.0593
   2.8114E-02   2.8799E-02   7.7090E-04  0.0613
   2.8799E-02   2.9499E-02   8.3791E-04  0.0580
   2.9499E-02   3.0217E-02   7.8778E-04  0.0589
   3.0217E-02   3.0952E-02   8.2553E-04  0.0571
   3.0952E-02   3.1705E-02   8.4456E-04  0.0557
   3.1705E-02   3.2477E-02   7.9155E-04  0.0571
   3.2477E-02   3.3267E-02   7.0875E-04  0.0594
   3.3267E-02   3.4076E-02   7.3173E-04  0.0576
   3.4076E-02   3.4905E-02   8.0852E-04  0.0544
   3.4905E-02   3.5755E-02   6.4618E-04  0.0598
   3.5755E-02   3.6625E-02   6.6153E-04  0.0586
   3.6625E-02   3.7516E-02   6.4968E-04  0.0584
   3.7516E-02   3.8428E-02   5.8624E-04  0.0609
   3.8428E-02   3.9363E-02   6.0191E-04  0.0594
   3.9363E-02   4.0321E-02   6.6454E-04  0.0558
   4.0321E-02   4.1302E-02   5.8610E-04  0.0587
   4.1302E-02   4.2307E-02   5.8744E-04  0.0579
   4.2307E-02   4.3337E-02   5.7227E-04  0.0580
   4.3337E-02   4.4391E-02   5.3226E-04  0.0595
   4.4391E-02   4.5471E-02   6.1549E-04  0.0545
   4.5471E-02   4.6577E-02   6.0815E-04  0.0544
   4.6577E-02   4.7711E-02   5.4073E-04  0.0567
   4.7711E-02   4.8871E-02   4.9474E-04  0.0587
   4.8871E-02   5.0061E-02   5.9406E-04  0.0530
   5.0061E-02   5.1279E-02   4.4373E-04  0.0603
   5.1279E-02   5.2526E-02   4.9291E-04  0.0567
   5.2526E-02   5.3804E-02   4.7197E-04  0.0573
   5.3804E-02   5.5113E-02   4.8010E-04  0.0561
   5.5113E-02   5.6454E-02   4.3928E-04  0.0579
   5.6454E-02   5.7828E-02   4.4810E-04  0.0567
   5.7828E-02   5.9235E-02   4.3801E-04  0.0567
   5.9235E-02   6.0676E-02   4.2673E-04  0.0567
   6.0676E-02   6.2152E-02   4.2705E-04  0.0561
   6.2152E-02   6.3665E-02   4.1186E-04  0.0565
   6.3665E-02   6.5214E-02   3.8274E-04  0.0577
   6.5214E-02   6.6800E-02   4.1498E-04  0.0550
   6.6800E-02   6.8426E-02   3.7582E-04  0.0569
   6.8426E-02   7.0090E-02   3.7525E-04  0.0563
   7.0090E-02   7.1796E-02   3.6438E-04  0.0564
   7.1796E-02   7.3543E-02   3.6512E-04  0.0557
   7.3543E-02   7.5332E-02   3.4892E-04  0.0565
   7.5332E-02   7.7165E-02   3.0867E-04  0.0590
   7.7165E-02   7.9042E-02   3.5973E-04  0.0541
   7.9042E-02   8.0965E-02   3.1860E-04  0.0566
   8.0965E-02   8.2935E-02   3.3882E-04  0.0545
   8.2935E-02   8.4953E-02   3.0020E-04  0.0571
   8.4953E-02   8.7020E-02   3.0852E-04  0.0557
   8.7020E-02   8.9138E-02   2.8159E-04  0.0576
   8.9138E-02   9.1306E-02   2.9510E-04  0.0556
   9.1306E-02   9.3528E-02   2.9349E-04  0.0550
   9.3528E-02   9.5804E-02   2.8891E-04  0.0548
   9.5804E-02   9.8134E-02   3.0388E-04  0.0528
   9.8134E-02   1.0052E-01   2.9664E-04  0.0528
   1.0052E-01   1.0297E-01   2.7817E-04  0.0538
   1.0297E-01   1.0547E-01   2.4722E-04  0.0565
   1.0547E-01   1.0804E-01   2.6276E-04  0.0543
   1.0804E-01   1.1067E-01   2.4266E-04  0.0557
   1.1067E-01   1.1336E-01   2.3421E-04  0.0559
   1.1336E-01   1.1612E-01   2.4687E-04  0.0539
   1.1612E-01   1.1894E-01   2.1875E-04  0.0565
   1.1894E-01   1.2184E-01   2.0786E-04  0.0573
   1.2184E-01   1.2480E-01   2.3402E-04  0.0535
   1.2480E-01   1.2784E-01   2.2665E-04  0.0535
   1.2784E-01   1.3095E-01   2.1435E-04  0.0545
   1.3095E-01   1.3414E-01   1.9028E-04  0.0570
   1.3414E-01   1.3740E-01   1.9421E-04  0.0559
   1.3740E-01   1.4074E-01   2.1780E-04  0.0521
   1.4074E-01   1.4417E-01   1.9681E-04  0.0541
   1.4417E-01   1.4767E-01   1.8829E-04  0.0547
   1.4767E-01   1.5127E-01   1.7404E-04  0.0562
   1.5127E-01   1.5495E-01   1.9251E-04  0.0528
   1.5495E-01   1.5872E-01   1.9411E-04  0.0519
   1.5872E-01   1.6258E-01   1.6497E-04  0.0556
   1.6258E-01   1.6654E-01   1.9222E-04  0.0510
   1.6654E-01   1.7059E-01   1.6988E-04  0.0535
   1.7059E-01   1.7474E-01   1.7552E-04  0.0520
   1.7474E-01   1.7899E-01   1.7024E-04  0.0523
   1.7899E-01   1.8334E-01   1.5608E-04  0.0539
   1.8334E-01   1.8781E-01   1.4561E-04  0.0553
   1.8781E-01   1.9237E-01   1.6702E-04  0.0509
   1.9237E-01   1.9706E-01   1.4678E-04  0.0536
   1.9706E-01   2.0185E-01   1.4021E-04  0.0541
   2.0185E-01   2.0676E-01   1.4894E-04  0.0519
   2.0676E-01   2.1179E-01   1.5086E-04  0.0510
   2.1179E-01   2.1694E-01   1.5616E-04  0.0495
   2.1694E-01   2.2222E-01   1.7903E-04  0.0457
   2.2222E-01   2.2763E-01   1.7843E-04  0.0453
   2.2763E-01   2.3317E-01   1.6562E-04  0.0463
   2.3317E-01   2.3884E-01   1.9817E-04  0.0419
   2.3884E-01   2.4465E-01   2.0090E-04  0.0411
   2.4465E-01   2.5061E-01   2.0723E-04  0.0400
   2.5061E-01   2.5670E-01   2.1049E-04  0.0392
   2.5670E-01   2.6295E-01   2.0776E-04  0.0390
   2.6295E-01   2.6935E-01   2.3657E-04  0.0362
   2.6935E-01   2.7590E-01   2.3686E-04  0.0357
   2.7590E-01   2.8261E-01   2.4794E-04  0.0345
   2.8261E-01   2.8949E-01   2.4760E-04  0.0341
   2.8949E-01   2.9653E-01   2.4528E-04  0.0338
   2.9653E-01   3.0375E-01   2.8366E-04  0.0310
   3.0375E-01   3.1114E-01   2.6503E-04  0.0317
   3.1114E-01   3.1871E-01   2.8788E-04  0.0301
   3.1871E-01   3.2646E-01   2.8975E-04  0.0297
   3.2646E-01   3.3441E-01   3.0599E-04  0.0285
   3.3441E-01   3.4254E-01   3.0270E-04  0.0283
   3.4254E-01   3.5088E-01   3.3230E-04  0.0267
   3.5088E-01   3.5941E-01   3.2281E-04  0.0267
   3.5941E-01   3.6816E-01   3.4086E-04  0.0257
   3.6816E-01   3.7712E-01   3.4492E-04  0.0252
   3.7712E-01   3.8629E-01   3.8362E-04  0.0237
   3.8629E-01   3.9569E-01   3.8253E-04  0.0234
   3.9569E-01   4.0532E-01   3.8786E-04  0.0230
   4.0532E-01   4.1518E-01   3.9285E-04  0.0226
   4.1518E-01   4.2528E-01   4.0090E-04  0.0221
   4.2528E-01   4.3563E-01   4.1975E-04  0.0213
   4.3563E-01   4.4623E-01   4.2528E-04  0.0209
   4.4623E-01   4.5708E-01   4.3383E-04  0.0205
   4.5708E-01   4.6821E-01   4.5240E-04  0.0198
   4.6821E-01   4.7960E-01   4.5592E-04  0.0195
   4.7960E-01   4.9127E-01   4.5421E-04  0.0193
   4.9127E-01   5.0322E-01   4.6736E-04  0.0188
   5.0322E-01   5.1546E-01   4.9501E-04  0.0180
   5.1546E-01   5.2800E-01   4.9662E-04  0.0178
   5.2800E-01   5.4085E-01   5.1421E-04  0.0173
   5.4085E-01   5.5401E-01   5.1604E-04  0.0170
   5.5401E-01   5.6749E-01   5.2702E-04  0.0166
   5.6749E-01   5.8130E-01   5.3875E-04  0.0163
   5.8130E-01   5.9544E-01   5.6236E-04  0.0157
   5.9544E-01   6.0993E-01   5.6988E-04  0.0154
   6.0993E-01   6.2477E-01   5.8551E-04  0.0151
   6.2477E-01   6.3997E-01   5.7164E-04  0.0150
   6.3997E-01   6.5554E-01   5.9240E-04  0.0146
   6.5554E-01   6.7149E-01   5.9264E-04  0.0144
   6.7149E-01   6.8783E-01   6.1497E-04  0.0140
   6.8783E-01   7.0456E-01   6.3043E-04  0.0137
   7.0456E-01   7.2171E-01   6.1989E-04  0.0136
   7.2171E-01   7.3927E-01   6.5045E-04  0.0131
   7.3927E-01   7.5725E-01   6.5720E-04  0.0129
   7.5725E-01   7.7568E-01   6.7960E-04  0.0125
   7.7568E-01   7.9455E-01   6.7754E-04  0.0124
   7.9455E-01   8.1388E-01   6.7900E-04  0.0122
   8.1388E-01   8.3368E-01   6.8918E-04  0.0120
   8.3368E-01   8.5397E-01   6.8853E-04  0.0119
   8.5397E-01   8.7475E-01   6.9626E-04  0.0117
   8.7475E-01   8.9603E-01   7.1919E-04  0.0113
   8.9603E-01   9.1783E-01   7.2548E-04  0.0111
   9.1783E-01   9.4016E-01   7.3479E-04  0.0109
   9.4016E-01   9.6304E-01   7.2901E-04  0.0109
   9.6304E-01   9.8647E-01   7.4198E-04  0.0106
   9.8647E-01   1.0105E+00   7.4426E-04  0.0105
   1.0105E+00   1.0351E+00   7.5012E-04  0.0103
   1.0351E+00   1.0602E+00   7.3925E-04  0.0103
   1.0602E+00   1.0860E+00   7.3188E-04  0.0102
   1.0860E+00   1.1125E+00   7.4421E-04  0.0100
   1.1125E+00   1.1395E+00   7.1866E-04  0.0100
   1.1395E+00   1.1673E+00   7.4284E-04  0.0098
   1.1673E+00   1.1957E+00   7.4154E-04  0.0097
   1.1957E+00   1.2247E+00   7.4749E-04  0.0095
   1.2247E+00   1.2545E+00   7.6098E-04  0.0093
   1.2545E+00   1.2851E+00   7.3331E-04  0.0094
   1.2851E+00   1.3163E+00   7.2696E-04  0.0093
   1.3163E+00   1.3484E+00   7.2139E-04  0.0092
   1.3484E+00   1.3812E+00   7.3121E-04  0.0090
   1.3812E+00   1.4148E+00   7.2575E-04  0.0090
   1.4148E+00   1.4492E+00   7.2273E-04  0.0089
   1.4492E+00   1.4845E+00   7.1943E-04  0.0088
   1.4845E+00   1.5206E+00   7.0831E-04  0.0088
   1.5206E+00   1.5576E+00   7.1218E-04  0.0086
   1.5576E+00   1.5955E+00   6.9937E-04  0.0086
   1.5955E+00   1.6343E+00   6.9099E-04  0.0085
   1.6343E+00   1.6741E+00   6.8444E-04  0.0085
   1.6741E+00   1.7148E+00   6.6490E-04  0.0085
   1.7148E+00   1.7565E+00   6.4772E-04  0.0085
   1.7565E+00   1.7992E+00   6.4717E-04  0.0084
   1.7992E+00   1.8430E+00   6.3938E-04  0.0084
   1.8430E+00   1.8879E+00   6.2508E-04  0.0084
   1.8879E+00   1.9338E+00   6.2101E-04  0.0083
   1.9338E+00   1.9808E+00   6.1178E-04  0.0082
   1.9808E+00   2.0290E+00   6.0988E-04  0.0082
   2.0290E+00   2.0784E+00   5.9589E-04  0.0082
   2.0784E+00   2.1290E+00   5.8943E-04  0.0081
   2.1290E+00   2.1808E+00   5.6636E-04  0.0082
   2.1808E+00   2.2338E+00   5.5270E-04  0.0082
   2.2338E+00   2.2882E+00   5.4394E-04  0.0081
   2.2882E+00   2.3439E+00   5.3318E-04  0.0081
   2.3439E+00   2.4009E+00   5.2308E-04  0.0081
   2.4009E+00   2.4593E+00   5.1506E-04  0.0081
   2.4593E+00   2.5191E+00   5.1182E-04  0.0080
   2.5191E+00   2.5804E+00   5.0336E-04  0.0080
   2.5804E+00   2.6432E+00   4.8466E-04  0.0080
   2.6432E+00   2.7075E+00   4.7270E-04  0.0080
   2.7075E+00   2.7734E+00   4.6325E-04  0.0080
   2.7734E+00   2.8409E+00   4.5287E-04  0.0080
   2.8409E+00   2.9100E+00   4.4297E-04  0.0080
   2.9100E+00   2.9808E+00   4.2774E-04  0.0080
   2.9808E+00   3.0533E+00   4.3116E-04  0.0079
   3.0533E+00   3.1276E+00   4.1352E-04  0.0080
   3.1276E+00   3.2037E+00   3.9499E-04  0.0081
   3.2037E+00   3.2817E+00   3.8961E-04  0.0080
   3.2817E+00   3.3615E+00   3.7531E-04  0.0081
   3.3615E+00   3.4433E+00   3.7092E-04  0.0080
   3.4433E+00   3.5271E+00   3.6053E-04  0.0080
   3.5271E+00   3.6129E+00   3.5295E-04  0.0080
   3.6129E+00   3.7008E+00   3.4532E-04  0.0080
   3.7008E+00   3.7908E+00   3.3511E-04  0.0081
   3.7908E+00   3.8831E+00   3.2770E-04  0.0080
   3.8831E+00   3.9776E+00   3.1477E-04  0.0081
   3.9776E+00   4.0743E+00   3.1047E-04  0.0081
   4.0743E+00   4.1735E+00   3.0103E-04  0.0081
   4.1735E+00   4.2750E+00   2.9761E-04  0.0080
   4.2750E+00   4.3790E+00   2.9568E-04  0.0080
   4.3790E+00   4.4856E+00   2.8090E-04  0.0081
   4.4856E+00   4.5947E+00   2.8018E-04  0.0080
   4.5947E+00   4.7065E+00   2.7411E-04  0.0080
   4.7065E+00   4.8210E+00   2.6516E-04  0.0080
   4.8210E+00   4.9383E+00   2.5946E-04  0.0080
   4.9383E+00   5.0585E+00   2.5827E-04  0.0080
   5.0585E+00   5.1815E+00   2.5293E-04  0.0079
   5.1815E+00   5.3076E+00   2.4402E-04  0.0080
   5.3076E+00   5.4368E+00   2.3617E-04  0.0080
   5.4368E+00   5.5690E+00   2.2868E-04  0.0081
   5.5690E+00   5.7045E+00   2.2446E-04  0.0080
   5.7045E+00   5.8433E+00   2.1694E-04  0.0081
   5.8433E+00   5.9855E+00   2.0978E-04  0.0081
   5.9855E+00   6.1311E+00   2.0341E-04  0.0081
   6.1311E+00   6.2803E+00   1.9557E-04  0.0082
   6.2803E+00   6.4331E+00   1.8825E-04  0.0083
   6.4331E+00   6.5896E+00   1.8387E-04  0.0083
   6.5896E+00   6.7500E+00   1.8243E-04  0.0082
   6.7500E+00   6.9142E+00   1.7303E-04  0.0083
   6.9142E+00   7.0824E+00   1.6745E-04  0.0084
   7.0824E+00   7.2548E+00   1.6268E-04  0.0084
   7.2548E+00   7.4313E+00   1.5558E-04  0.0085
   7.4313E+00   7.6121E+00   1.5300E-04  0.0085
   7.6121E+00   7.7973E+00   1.4486E-04  0.0086
   7.7973E+00   7.9870E+00   1.4200E-04  0.0086
   7.9870E+00   8.1813E+00   1.3867E-04  0.0086
   8.1813E+00   8.3804E+00   1.3184E-04  0.0087
   8.3804E+00   8.5843E+00   1.2882E-04  0.0087
   8.5843E+00   8.7931E+00   1.2388E-04  0.0088
   8.7931E+00   9.0071E+00   1.2144E-04  0.0087
   9.0071E+00   9.2262E+00   1.1695E-04  0.0088
   9.2262E+00   9.4507E+00   1.1380E-04  0.0088
   9.4507E+00   9.6807E+00   1.0835E-04  0.0089
   9.6807E+00   9.9162E+00   1.0413E-04  0.0090
   9.9162E+00   1.0157E+01   9.8484E-05  0.0091
   1.0157E+01   1.0405E+01   9.4954E-05  0.0092
   1.0405E+01   1.0658E+01   9.2378E-05  0.0092
   1.0658E+01   1.0917E+01   8.9168E-05  0.0093
   1.0917E+01   1.1183E+01   8.6146E-05  0.0093
   1.1183E+01   1.1455E+01   8.0957E-05  0.0095
   1.1455E+01   1.1733E+01   7.8432E-05  0.0095
   1.1733E+01   1.2019E+01   7.5234E-05  0.0096
   1.2019E+01   1.2311E+01   7.2533E-05  0.0097
   1.2311E+01   1.2611E+01   7.0672E-05  0.0097
   1.2611E+01   1.2918E+01   6.6391E-05  0.0099
   1.2918E+01   1.3232E+01   6.3475E-05  0.0100
   1.3232E+01   1.3554E+01   6.0474E-05  0.0101
   1.3554E+01   1.3884E+01   5.7507E-05  0.0103
   1.3884E+01   1.4222E+01   5.4564E-05  0.0104
   1.4222E+01   1.4568E+01   5.2247E-05  0.0105
   1.4568E+01   1.4922E+01   5.0021E-05  0.0106
   1.4922E+01   1.5285E+01   4.7259E-05  0.0108
   1.5285E+01   1.5657E+01   4.6266E-05  0.0108
   1.5657E+01   1.6038E+01   4.2990E-05  0.0110
   1.6038E+01   1.6428E+01   4.0790E-05  0.0112
   1.6428E+01   1.6828E+01   4.0231E-05  0.0112
   1.6828E+01   1.7237E+01   3.6903E-05  0.0115
   1.7237E+01   1.7657E+01   3.4378E-05  0.0118
   1.7657E+01   1.8086E+01   3.3659E-05  0.0118
   1.8086E+01   1.8526E+01   3.1165E-05  0.0121
   1.8526E+01   1.8977E+01   2.9711E-05  0.0122
   1.8977E+01   1.9439E+01   2.9428E-05  0.0121
   1.9439E+01   1.9912E+01   2.8793E-05  0.0121
   1.9912E+01   2.0396E+01   2.7428E-05  0.0123
   2.0396E+01   2.0893E+01   2.6301E-05  0.0124
   2.0893E+01   2.1401E+01   2.4484E-05  0.0127
   2.1401E+01   2.1922E+01   2.2758E-05  0.0130
   2.1922E+01   2.2455E+01   2.1261E-05  0.0133
   2.2455E+01   2.3001E+01   2.0075E-05  0.0135
   2.3001E+01   2.3561E+01   1.8390E-05  0.0139
   2.3561E+01   2.4134E+01   1.7538E-05  0.0141
   2.4134E+01   2.4721E+01   1.6005E-05  0.0146
   2.4721E+01   2.5323E+01   1.5019E-05  0.0149
   2.5323E+01   2.5939E+01   1.3698E-05  0.0154
   2.5939E+01   2.6570E+01   1.2514E-05  0.0159
   2.6570E+01   2.7217E+01   1.1425E-05  0.0165
   2.7217E+01   2.7879E+01   1.0628E-05  0.0169
   2.7879E+01   2.8557E+01   9.4145E-06  0.0177
   2.8557E+01   2.9252E+01   8.6267E-06  0.0183
   2.9252E+01   2.9964E+01   8.2110E-06  0.0185
   2.9964E+01   3.0693E+01   7.0888E-06  0.0197
   3.0693E+01   3.1440E+01   6.5428E-06  0.0202
   3.1440E+01   3.2205E+01   6.1730E-06  0.0206
   3.2205E+01   3.2988E+01   5.2989E-06  0.0219
   3.2988E+01   3.3791E+01   4.6448E-06  0.0232
   3.3791E+01   3.4613E+01   4.2571E-06  0.0239
   3.4613E+01   3.5455E+01   3.7119E-06  0.0253
   3.5455E+01   3.6318E+01   3.4220E-06  0.0260
   3.6318E+01   3.7201E+01   3.0171E-06  0.0274
   3.7201E+01   3.8106E+01   2.5808E-06  0.0293
   3.8106E+01   3.9034E+01   2.3491E-06  0.0303
   3.9034E+01   3.9983E+01   2.0132E-06  0.0323
   3.9983E+01   4.0956E+01   1.7660E-06  0.0341
   4.0956E+01   4.1953E+01   1.5795E-06  0.0356
   4.1953E+01   4.2973E+01   1.4460E-06  0.0368
   4.2973E+01   4.4019E+01   1.2032E-06  0.0399
   4.4019E+01   4.5090E+01   1.0681E-06  0.0418
   4.5090E+01   4.6187E+01   9.1152E-07  0.0447
   4.6187E+01   4.7311E+01   8.4893E-07  0.0458
   4.7311E+01   4.8462E+01   7.0888E-07  0.0495
   4.8462E+01   4.9641E+01   6.7169E-07  0.0503
   4.9641E+01   5.0849E+01   5.1498E-07  0.0567
   5.0849E+01   5.2086E+01   4.2192E-07  0.0619
   5.2086E+01   5.3353E+01   3.8034E-07  0.0644
   5.3353E+01   5.4651E+01   3.4819E-07  0.0665
   5.4651E+01   5.5981E+01   2.7675E-07  0.0737
   5.5981E+01   5.7343E+01   2.2025E-07  0.0816
   5.7343E+01   5.8738E+01   1.9352E-07  0.0861
   5.8738E+01   6.0168E+01   1.3295E-07  0.1026
   6.0168E+01   6.1632E+01   1.0383E-07  0.1147
   6.1632E+01   6.3131E+01   8.5359E-08  0.1250
   6.3131E+01   6.4667E+01   6.1197E-08  0.1459
   6.4667E+01   6.6240E+01   7.3726E-08  0.1313
   6.6240E+01   6.7852E+01   5.0878E-08  0.1562
   6.7852E+01   6.9503E+01   2.9075E-08  0.2041
   6.9503E+01   7.1194E+01   2.1288E-08  0.2357
   7.1194E+01   7.2926E+01   1.9628E-08  0.2425
   7.2926E+01   7.4701E+01   1.6908E-08  0.2582
   7.4701E+01   7.6518E+01   4.4016E-09  0.5000
   7.6518E+01   7.8380E+01   7.5198E-09  0.3780
   7.8380E+01   8.0287E+01   6.2925E-09  0.4082
   8.0287E+01   8.2240E+01   2.0477E-09  0.7071
   8.2240E+01   8.4241E+01   1.9990E-09  0.7071
   8.4241E+01   8.6291E+01   0.0000E+00  0.0000
   8.6291E+01   8.8391E+01   0.0000E+00  0.0000
   8.8391E+01   9.0541E+01   9.2997E-10  1.0000
   9.0541E+01   9.2744E+01   0.0000E+00  0.0000
   9.2744E+01   9.5001E+01   0.0000E+00  0.0000
   9.5001E+01   9.7312E+01   0.0000E+00  0.0000
   9.7312E+01   9.9680E+01   0.0000E+00  0.0000
   9.9680E+01   1.0211E+02   0.0000E+00  0.0000
   1.0211E+02   1.0459E+02   0.0000E+00  0.0000
   1.0459E+02   1.0713E+02   0.0000E+00  0.0000
   1.0713E+02   1.0974E+02   0.0000E+00  0.0000
   1.0974E+02   1.1241E+02   0.0000E+00  0.0000
   1.1241E+02   1.1515E+02   0.0000E+00  0.0000
   1.1515E+02   1.1795E+02   0.0000E+00  0.0000
   1.1795E+02   1.2082E+02   0.0000E+00  0.0000
   1.2082E+02   1.2376E+02   0.0000E+00  0.0000
   1.2376E+02   1.2677E+02   0.0000E+00  0.0000
   1.2677E+02   1.2985E+02   0.0000E+00  0.0000
   1.2985E+02   1.3301E+02   0.0000E+00  0.0000
   1.3301E+02   1.3625E+02   0.0000E+00  0.0000
   1.3625E+02   1.3956E+02   0.0000E+00  0.0000
   1.3956E+02   1.4296E+02   0.0000E+00  0.0000
   1.4296E+02   1.4644E+02   0.0000E+00  0.0000
   1.4644E+02   1.5000E+02   0.0000E+00  0.0000

#   sum over                 2.5950E-05
'no. =    1   reg = 116 - 216'
msuc: {\huge [t-cross] in region mesh}
msdr: {\it plotted by \ANGEL \version}
msdl: {\it calculated by \PHITS  3.26}
wt: s(0.7)
\vspace{-3}
  region surface crossing
  area  &=&   1.0000E+00 [cm^2]
e:
 
# Information for Restart Calculation
# This calculation was newly started
# istdev =  2 # 1:Batch variance, 2:History variance
# resc2  = 5.00000000000000000E+08 # Total source weight or Total source weight / maxcas
# resc3  = 5.00000000000000000E+08 # Total history number or Total batch number
# maxcas =   500000000 # History / Batch, only used for istdev=1
# bitrseed = 1101101111010011011000101101110001100110110010110001010100010001 # bit data of rseed
