[ T-Cross ]
    title = [t-cross] in region mesh
     mesh =  reg            # mesh type is region-wise
      reg =    1            # number of crossing regions
      non     r-from    r-to       area
      1       112       212        1.000000    
   e-type =    3            # e-mesh is log given by emin, emax and ne
     emin =  1.0000000E-02  # minimum value of e-mesh points
     emax =   150.0000      # maximum value of e-mesh points
#    edel =  2.4039514E-02  # mesh width of e-mesh points
       ne =    400          # number of e-mesh points
#    data = ( e(i), i = 1, ne + 1 )
#           1.00000E-02  1.02433E-02  1.04925E-02  1.07478E-02  1.10093E-02
#           1.12772E-02  1.15516E-02  1.18326E-02  1.21205E-02  1.24154E-02
#           1.27175E-02  1.30269E-02  1.33439E-02  1.36686E-02  1.40011E-02
#           1.43418E-02  1.46907E-02  1.50482E-02  1.54143E-02  1.57894E-02
#           1.61735E-02  1.65670E-02  1.69701E-02  1.73830E-02  1.78060E-02
#           1.82392E-02  1.86830E-02  1.91375E-02  1.96032E-02  2.00801E-02
#           2.05687E-02  2.10692E-02  2.15818E-02  2.21069E-02  2.26448E-02
#           2.31957E-02  2.37601E-02  2.43382E-02  2.49304E-02  2.55369E-02
#           2.61583E-02  2.67947E-02  2.74467E-02  2.81145E-02  2.87985E-02
#           2.94992E-02  3.02169E-02  3.09521E-02  3.17052E-02  3.24766E-02
#           3.32668E-02  3.40762E-02  3.49053E-02  3.57546E-02  3.66246E-02
#           3.75157E-02  3.84284E-02  3.93634E-02  4.03212E-02  4.13022E-02
#           4.23071E-02  4.33365E-02  4.43909E-02  4.54710E-02  4.65773E-02
#           4.77106E-02  4.88714E-02  5.00605E-02  5.12785E-02  5.25262E-02
#           5.38042E-02  5.51133E-02  5.64542E-02  5.78278E-02  5.92348E-02
#           6.06760E-02  6.21523E-02  6.36645E-02  6.52135E-02  6.68002E-02
#           6.84255E-02  7.00904E-02  7.17957E-02  7.35426E-02  7.53319E-02
#           7.71648E-02  7.90423E-02  8.09655E-02  8.29354E-02  8.49533E-02
#           8.70203E-02  8.91376E-02  9.13064E-02  9.35279E-02  9.58035E-02
#           9.81345E-02  1.00522E-01  1.02968E-01  1.05473E-01  1.08040E-01
#           1.10668E-01  1.13361E-01  1.16119E-01  1.18944E-01  1.21838E-01
#           1.24803E-01  1.27839E-01  1.30950E-01  1.34136E-01  1.37399E-01
#           1.40742E-01  1.44167E-01  1.47675E-01  1.51268E-01  1.54948E-01
#           1.58718E-01  1.62580E-01  1.66535E-01  1.70587E-01  1.74738E-01
#           1.78989E-01  1.83344E-01  1.87805E-01  1.92375E-01  1.97055E-01
#           2.01850E-01  2.06761E-01  2.11792E-01  2.16945E-01  2.22223E-01
#           2.27630E-01  2.33169E-01  2.38842E-01  2.44653E-01  2.50605E-01
#           2.56703E-01  2.62949E-01  2.69346E-01  2.75900E-01  2.82613E-01
#           2.89489E-01  2.96532E-01  3.03747E-01  3.11138E-01  3.18708E-01
#           3.26462E-01  3.34405E-01  3.42542E-01  3.50876E-01  3.59413E-01
#           3.68158E-01  3.77116E-01  3.86291E-01  3.95690E-01  4.05317E-01
#           4.15179E-01  4.25281E-01  4.35628E-01  4.46227E-01  4.57084E-01
#           4.68205E-01  4.79597E-01  4.91266E-01  5.03219E-01  5.15463E-01
#           5.28005E-01  5.40851E-01  5.54011E-01  5.67490E-01  5.81298E-01
#           5.95441E-01  6.09929E-01  6.24769E-01  6.39970E-01  6.55541E-01
#           6.71491E-01  6.87828E-01  7.04564E-01  7.21706E-01  7.39266E-01
#           7.57253E-01  7.75678E-01  7.94551E-01  8.13883E-01  8.33685E-01
#           8.53969E-01  8.74747E-01  8.96030E-01  9.17831E-01  9.40163E-01
#           9.63038E-01  9.86469E-01  1.01047E+00  1.03506E+00  1.06024E+00
#           1.08604E+00  1.11246E+00  1.13953E+00  1.16725E+00  1.19565E+00
#           1.22474E+00  1.25454E+00  1.28507E+00  1.31633E+00  1.34836E+00
#           1.38117E+00  1.41477E+00  1.44920E+00  1.48446E+00  1.52057E+00
#           1.55757E+00  1.59547E+00  1.63429E+00  1.67405E+00  1.71478E+00
#           1.75650E+00  1.79924E+00  1.84302E+00  1.88786E+00  1.93379E+00
#           1.98084E+00  2.02904E+00  2.07841E+00  2.12898E+00  2.18078E+00
#           2.23384E+00  2.28819E+00  2.34386E+00  2.40089E+00  2.45930E+00
#           2.51914E+00  2.58043E+00  2.64322E+00  2.70753E+00  2.77341E+00
#           2.84088E+00  2.91001E+00  2.98081E+00  3.05333E+00  3.12762E+00
#           3.20372E+00  3.28167E+00  3.36152E+00  3.44330E+00  3.52708E+00
#           3.61290E+00  3.70080E+00  3.79085E+00  3.88308E+00  3.97756E+00
#           4.07434E+00  4.17347E+00  4.27501E+00  4.37903E+00  4.48557E+00
#           4.59471E+00  4.70650E+00  4.82102E+00  4.93832E+00  5.05847E+00
#           5.18155E+00  5.30762E+00  5.43676E+00  5.56904E+00  5.70453E+00
#           5.84333E+00  5.98550E+00  6.13114E+00  6.28031E+00  6.43312E+00
#           6.58964E+00  6.74997E+00  6.91420E+00  7.08243E+00  7.25475E+00
#           7.43126E+00  7.61207E+00  7.79728E+00  7.98700E+00  8.18133E+00
#           8.38038E+00  8.58428E+00  8.79315E+00  9.00709E+00  9.22624E+00
#           9.45072E+00  9.68067E+00  9.91620E+00  1.01575E+01  1.04046E+01
#           1.06578E+01  1.09171E+01  1.11827E+01  1.14548E+01  1.17335E+01
#           1.20190E+01  1.23114E+01  1.26109E+01  1.29178E+01  1.32321E+01
#           1.35540E+01  1.38838E+01  1.42216E+01  1.45676E+01  1.49221E+01
#           1.52851E+01  1.56570E+01  1.60380E+01  1.64282E+01  1.68279E+01
#           1.72374E+01  1.76568E+01  1.80864E+01  1.85264E+01  1.89772E+01
#           1.94389E+01  1.99119E+01  2.03963E+01  2.08926E+01  2.14009E+01
#           2.19216E+01  2.24550E+01  2.30014E+01  2.35610E+01  2.41343E+01
#           2.47215E+01  2.53230E+01  2.59391E+01  2.65702E+01  2.72167E+01
#           2.78789E+01  2.85572E+01  2.92520E+01  2.99637E+01  3.06928E+01
#           3.14396E+01  3.22045E+01  3.29881E+01  3.37907E+01  3.46128E+01
#           3.54550E+01  3.63177E+01  3.72013E+01  3.81064E+01  3.90336E+01
#           3.99833E+01  4.09561E+01  4.19526E+01  4.29734E+01  4.40189E+01
#           4.50900E+01  4.61870E+01  4.73108E+01  4.84619E+01  4.96410E+01
#           5.08488E+01  5.20860E+01  5.33533E+01  5.46514E+01  5.59812E+01
#           5.73432E+01  5.87384E+01  6.01676E+01  6.16315E+01  6.31311E+01
#           6.46671E+01  6.62405E+01  6.78522E+01  6.95031E+01  7.11941E+01
#           7.29263E+01  7.47007E+01  7.65182E+01  7.83800E+01  8.02870E+01
#           8.22405E+01  8.42414E+01  8.62911E+01  8.83906E+01  9.05412E+01
#           9.27442E+01  9.50007E+01  9.73122E+01  9.96799E+01  1.02105E+02
#           1.04589E+02  1.07134E+02  1.09741E+02  1.12411E+02  1.15146E+02
#           1.17948E+02  1.20817E+02  1.23757E+02  1.26768E+02  1.29852E+02
#           1.33012E+02  1.36248E+02  1.39563E+02  1.42959E+02  1.46437E+02
#           1.50000E+02
     unit =    2            # unit is [1/cm^2/(MeV/n)/source]
     axis =  eng            # axis of output
     file = detector-13.out  # file name of output for the above axis
   output = f-curr          # surface crossing forward current spectrum
     part =  neutron  
# kf/name :  2112     
#    used :        main (  %)        temp (  %)       total (  %)
#  memory :         414 (  0)           0 (  0)         414 (  0)

#------------------------------------------------------------------------------
#newpage:
#   no. =    1   reg = 112 - 212

x: Energy [MeV/n]
y:  F-Curr [1/cm^2/(MeV/n)/source]         
p: xlog ylog afac(0.8) form(0.9)
h: n            x            y(neutron ),hh0l   n 
#  e-lower      e-upper      neutron     r.err 
   1.0000E-02   1.0243E-02   8.6310E-05  0.2182
   1.0243E-02   1.0493E-02   1.3241E-04  0.1741
   1.0493E-02   1.0748E-02   1.4885E-04  0.1622
   1.0748E-02   1.1009E-02   1.1855E-04  0.1796
   1.1009E-02   1.1277E-02   8.9597E-05  0.2041
   1.1277E-02   1.1552E-02   1.3485E-04  0.1644
   1.1552E-02   1.1833E-02   1.4588E-04  0.1562
   1.1833E-02   1.2121E-02   1.1462E-04  0.1741
   1.2121E-02   1.2415E-02   9.4947E-05  0.1890
   1.2415E-02   1.2718E-02   1.2911E-04  0.1601
   1.2718E-02   1.3027E-02   1.5836E-04  0.1429
   1.3027E-02   1.3344E-02   1.3251E-04  0.1543
   1.3344E-02   1.3669E-02   1.4784E-04  0.1443
   1.3669E-02   1.4001E-02   8.7200E-05  0.1857
   1.4001E-02   1.4342E-02   1.3503E-04  0.1474
   1.4342E-02   1.4691E-02   8.5973E-05  0.1826
   1.4691E-02   1.5048E-02   1.1191E-04  0.1581
   1.5048E-02   1.5414E-02   1.1471E-04  0.1543
   1.5414E-02   1.5789E-02   1.0665E-04  0.1581
   1.5789E-02   1.6174E-02   1.1974E-04  0.1474
   1.6174E-02   1.6567E-02   1.2198E-04  0.1443
   1.6567E-02   1.6970E-02   7.4425E-05  0.1826
   1.6970E-02   1.7383E-02   1.1383E-04  0.1459
   1.7383E-02   1.7806E-02   1.2531E-04  0.1374
   1.7806E-02   1.8239E-02   1.0618E-04  0.1474
   1.8239E-02   1.8683E-02   9.9150E-05  0.1508
   1.8683E-02   1.9138E-02   1.2539E-04  0.1325
   1.9138E-02   1.9603E-02   1.2886E-04  0.1291
   1.9603E-02   2.0080E-02   1.2789E-04  0.1280
   2.0080E-02   2.0569E-02   1.1257E-04  0.1348
   2.0569E-02   2.1069E-02   1.0990E-04  0.1348
   2.1069E-02   2.1582E-02   1.2875E-04  0.1231
   2.1582E-02   2.2107E-02   1.1617E-04  0.1280
   2.2107E-02   2.2645E-02   1.1713E-04  0.1260
   2.2645E-02   2.3196E-02   9.9825E-05  0.1348
   2.3196E-02   2.3760E-02   1.2403E-04  0.1195
   2.3760E-02   2.4338E-02   1.7125E-04  0.1005
   2.4338E-02   2.4930E-02   1.5198E-04  0.1054
   2.4930E-02   2.5537E-02   1.3024E-04  0.1125
   2.5537E-02   2.6158E-02   1.4485E-04  0.1054
   2.6158E-02   2.6795E-02   1.2098E-04  0.1140
   2.6795E-02   2.7447E-02   1.2578E-04  0.1104
   2.7447E-02   2.8114E-02   1.1081E-04  0.1162
   2.8114E-02   2.8799E-02   1.1549E-04  0.1125
   2.8799E-02   2.9499E-02   1.4129E-04  0.1005
   2.9499E-02   3.0217E-02   1.4908E-04  0.0967
   3.0217E-02   3.0952E-02   1.2922E-04  0.1026
   3.0952E-02   3.1705E-02   1.1154E-04  0.1091
   3.1705E-02   3.2477E-02   1.2445E-04  0.1021
   3.2477E-02   3.3267E-02   1.4047E-04  0.0949
   3.3267E-02   3.4076E-02   1.3220E-04  0.0967
   3.4076E-02   3.4905E-02   1.3750E-04  0.0937
   3.4905E-02   3.5755E-02   1.3423E-04  0.0937
   3.5755E-02   3.6625E-02   1.1610E-04  0.0995
   3.6625E-02   3.7516E-02   1.4701E-04  0.0874
   3.7516E-02   3.8428E-02   1.3147E-04  0.0913
   3.8428E-02   3.9363E-02   1.4546E-04  0.0857
   3.9363E-02   4.0321E-02   1.0128E-04  0.1015
   4.0321E-02   4.1302E-02   1.4270E-04  0.0845
   4.1302E-02   4.2307E-02   1.1842E-04  0.0917
   4.2307E-02   4.3337E-02   1.2629E-04  0.0877
   4.3337E-02   4.4391E-02   1.2898E-04  0.0857
   4.4391E-02   4.5471E-02   1.3333E-04  0.0833
   4.5471E-02   4.6577E-02   1.4372E-04  0.0793
   4.6577E-02   4.7711E-02   1.4119E-04  0.0791
   4.7711E-02   4.8871E-02   1.2836E-04  0.0819
   4.8871E-02   5.0061E-02   1.3372E-04  0.0793
   5.0061E-02   5.1279E-02   1.2808E-04  0.0801
   5.1279E-02   5.2526E-02   1.3065E-04  0.0783
   5.2526E-02   5.3804E-02   1.5415E-04  0.0712
   5.3804E-02   5.5113E-02   1.2375E-04  0.0786
   5.5113E-02   5.6454E-02   1.3349E-04  0.0747
   5.6454E-02   5.7828E-02   1.3614E-04  0.0731
   5.7828E-02   5.9235E-02   1.2651E-04  0.0750
   5.9235E-02   6.0676E-02   1.2351E-04  0.0750
   6.0676E-02   6.2152E-02   1.2802E-04  0.0727
   6.2152E-02   6.3665E-02   1.4218E-04  0.0682
   6.3665E-02   6.5214E-02   1.2589E-04  0.0716
   6.5214E-02   6.6800E-02   1.3172E-04  0.0692
   6.6800E-02   6.8426E-02   1.3536E-04  0.0674
   6.8426E-02   7.0090E-02   1.3875E-04  0.0658
   7.0090E-02   7.1796E-02   1.2725E-04  0.0679
   7.1796E-02   7.3543E-02   1.4540E-04  0.0627
   7.3543E-02   7.5332E-02   1.4307E-04  0.0625
   7.5332E-02   7.7165E-02   1.3312E-04  0.0640
   7.7165E-02   7.9042E-02   1.4221E-04  0.0612
   7.9042E-02   8.0965E-02   1.2375E-04  0.0648
   8.0965E-02   8.2935E-02   1.4417E-04  0.0593
   8.2935E-02   8.4953E-02   1.4718E-04  0.0580
   8.4953E-02   8.7020E-02   1.3450E-04  0.0600
   8.7020E-02   8.9138E-02   1.5397E-04  0.0554
   8.9138E-02   9.1306E-02   1.3556E-04  0.0583
   9.1306E-02   9.3528E-02   1.3459E-04  0.0578
   9.3528E-02   9.5804E-02   1.4458E-04  0.0551
   9.5804E-02   9.8134E-02   1.3943E-04  0.0555
   9.8134E-02   1.0052E-01   1.3947E-04  0.0548
   1.0052E-01   1.0297E-01   1.3983E-04  0.0541
   1.0297E-01   1.0547E-01   1.3531E-04  0.0543
   1.0547E-01   1.0804E-01   1.5334E-04  0.0504
   1.0804E-01   1.1067E-01   1.4798E-04  0.0507
   1.1067E-01   1.1336E-01   1.4558E-04  0.0505
   1.1336E-01   1.1612E-01   1.4502E-04  0.0500
   1.1612E-01   1.1894E-01   1.4583E-04  0.0493
   1.1894E-01   1.2184E-01   1.4375E-04  0.0490
   1.2184E-01   1.2480E-01   1.5416E-04  0.0468
   1.2480E-01   1.2784E-01   1.4128E-04  0.0483
   1.2784E-01   1.3095E-01   1.4050E-04  0.0478
   1.3095E-01   1.3414E-01   1.4846E-04  0.0460
   1.3414E-01   1.3740E-01   1.5474E-04  0.0445
   1.3740E-01   1.4074E-01   1.5016E-04  0.0446
   1.4074E-01   1.4417E-01   1.4105E-04  0.0455
   1.4417E-01   1.4767E-01   1.3998E-04  0.0451
   1.4767E-01   1.5127E-01   1.4918E-04  0.0432
   1.5127E-01   1.5495E-01   1.4129E-04  0.0439
   1.5495E-01   1.5872E-01   1.4642E-04  0.0426
   1.5872E-01   1.6258E-01   1.5822E-04  0.0405
   1.6258E-01   1.6654E-01   1.5421E-04  0.0405
   1.6654E-01   1.7059E-01   1.5449E-04  0.0400
   1.7059E-01   1.7474E-01   1.6167E-04  0.0386
   1.7474E-01   1.7899E-01   1.6371E-04  0.0379
   1.7899E-01   1.8334E-01   1.4650E-04  0.0396
   1.8334E-01   1.8781E-01   1.5423E-04  0.0381
   1.8781E-01   1.9237E-01   1.5538E-04  0.0375
   1.9237E-01   1.9706E-01   1.6835E-04  0.0356
   1.9706E-01   2.0185E-01   1.6227E-04  0.0359
   2.0185E-01   2.0676E-01   1.6289E-04  0.0354
   2.0676E-01   2.1179E-01   1.5644E-04  0.0356
   2.1179E-01   2.1694E-01   1.6107E-04  0.0347
   2.1694E-01   2.2222E-01   1.5327E-04  0.0352
   2.2222E-01   2.2763E-01   1.7071E-04  0.0329
   2.2763E-01   2.3317E-01   1.6575E-04  0.0330
   2.3317E-01   2.3884E-01   1.5794E-04  0.0334
   2.3884E-01   2.4465E-01   1.5935E-04  0.0329
   2.4465E-01   2.5061E-01   1.6178E-04  0.0322
   2.5061E-01   2.5670E-01   1.6827E-04  0.0312
   2.5670E-01   2.6295E-01   1.6555E-04  0.0311
   2.6295E-01   2.6935E-01   1.7287E-04  0.0301
   2.6935E-01   2.7590E-01   1.7457E-04  0.0296
   2.7590E-01   2.8261E-01   1.7295E-04  0.0293
   2.8261E-01   2.8949E-01   1.7088E-04  0.0292
   2.8949E-01   2.9653E-01   1.7974E-04  0.0281
   2.9653E-01   3.0375E-01   1.7395E-04  0.0282
   3.0375E-01   3.1114E-01   1.7861E-04  0.0275
   3.1114E-01   3.1871E-01   1.7437E-04  0.0275
   3.1871E-01   3.2646E-01   1.6765E-04  0.0277
   3.2646E-01   3.3441E-01   1.7437E-04  0.0269
   3.3441E-01   3.4254E-01   1.7883E-04  0.0262
   3.4254E-01   3.5088E-01   1.7614E-04  0.0261
   3.5088E-01   3.5941E-01   1.8133E-04  0.0254
   3.5941E-01   3.6816E-01   1.7976E-04  0.0252
   3.6816E-01   3.7712E-01   1.8789E-04  0.0244
   3.7712E-01   3.8629E-01   1.8538E-04  0.0242
   3.8629E-01   3.9569E-01   1.8694E-04  0.0239
   3.9569E-01   4.0532E-01   1.8697E-04  0.0236
   4.0532E-01   4.1518E-01   1.9246E-04  0.0230
   4.1518E-01   4.2528E-01   1.8660E-04  0.0230
   4.2528E-01   4.3563E-01   1.8613E-04  0.0228
   4.3563E-01   4.4623E-01   1.8445E-04  0.0226
   4.4623E-01   4.5708E-01   1.8946E-04  0.0220
   4.5708E-01   4.6821E-01   1.9350E-04  0.0216
   4.6821E-01   4.7960E-01   1.8522E-04  0.0218
   4.7960E-01   4.9127E-01   1.8545E-04  0.0215
   4.9127E-01   5.0322E-01   1.9108E-04  0.0209
   5.0322E-01   5.1546E-01   1.8393E-04  0.0211
   5.1546E-01   5.2800E-01   1.9112E-04  0.0204
   5.2800E-01   5.4085E-01   1.9055E-04  0.0202
   5.4085E-01   5.5401E-01   1.9575E-04  0.0197
   5.5401E-01   5.6749E-01   1.9964E-04  0.0193
   5.6749E-01   5.8130E-01   1.9743E-04  0.0192
   5.8130E-01   5.9544E-01   1.9387E-04  0.0191
   5.9544E-01   6.0993E-01   1.9727E-04  0.0187
   6.0993E-01   6.2477E-01   1.9346E-04  0.0187
   6.2477E-01   6.3997E-01   1.9512E-04  0.0184
   6.3997E-01   6.5554E-01   1.9305E-04  0.0182
   6.5554E-01   6.7149E-01   1.9812E-04  0.0178
   6.7149E-01   6.8783E-01   1.9366E-04  0.0178
   6.8783E-01   7.0456E-01   1.8936E-04  0.0178
   7.0456E-01   7.2171E-01   1.9810E-04  0.0172
   7.2171E-01   7.3927E-01   2.0057E-04  0.0169
   7.3927E-01   7.5725E-01   1.9442E-04  0.0169
   7.5725E-01   7.7568E-01   1.9192E-04  0.0168
   7.7568E-01   7.9455E-01   1.9737E-04  0.0164
   7.9455E-01   8.1388E-01   1.9067E-04  0.0165
   8.1388E-01   8.3368E-01   1.8705E-04  0.0164
   8.3368E-01   8.5397E-01   1.8113E-04  0.0165
   8.5397E-01   8.7475E-01   1.8356E-04  0.0162
   8.7475E-01   8.9603E-01   1.7516E-04  0.0164
   8.9603E-01   9.1783E-01   1.7495E-04  0.0162
   9.1783E-01   9.4016E-01   1.7366E-04  0.0161
   9.4016E-01   9.6304E-01   1.6363E-04  0.0163
   9.6304E-01   9.8647E-01   1.5919E-04  0.0164
   9.8647E-01   1.0105E+00   1.5370E-04  0.0165
   1.0105E+00   1.0351E+00   1.5582E-04  0.0162
   1.0351E+00   1.0602E+00   1.5131E-04  0.0162
   1.0602E+00   1.0860E+00   1.5861E-04  0.0156
   1.0860E+00   1.1125E+00   1.5490E-04  0.0156
   1.1125E+00   1.1395E+00   1.5853E-04  0.0153
   1.1395E+00   1.1673E+00   1.6155E-04  0.0149
   1.1673E+00   1.1957E+00   1.6169E-04  0.0148
   1.1957E+00   1.2247E+00   1.6988E-04  0.0142
   1.2247E+00   1.2545E+00   1.6989E-04  0.0141
   1.2545E+00   1.2851E+00   1.7055E-04  0.0139
   1.2851E+00   1.3163E+00   1.7130E-04  0.0137
   1.3163E+00   1.3484E+00   1.7332E-04  0.0134
   1.3484E+00   1.3812E+00   1.7381E-04  0.0132
   1.3812E+00   1.4148E+00   1.8009E-04  0.0129
   1.4148E+00   1.4492E+00   1.7934E-04  0.0127
   1.4492E+00   1.4845E+00   1.8395E-04  0.0124
   1.4845E+00   1.5206E+00   1.8088E-04  0.0124
   1.5206E+00   1.5576E+00   1.8202E-04  0.0122
   1.5576E+00   1.5955E+00   1.8160E-04  0.0121
   1.5955E+00   1.6343E+00   1.8311E-04  0.0119
   1.6343E+00   1.6741E+00   1.8909E-04  0.0115
   1.6741E+00   1.7148E+00   1.8864E-04  0.0114
   1.7148E+00   1.7565E+00   1.8875E-04  0.0113
   1.7565E+00   1.7992E+00   1.8618E-04  0.0112
   1.7992E+00   1.8430E+00   1.9282E-04  0.0109
   1.8430E+00   1.8879E+00   1.8456E-04  0.0110
   1.8879E+00   1.9338E+00   1.9230E-04  0.0106
   1.9338E+00   1.9808E+00   1.9113E-04  0.0105
   1.9808E+00   2.0290E+00   1.9536E-04  0.0103
   2.0290E+00   2.0784E+00   1.9140E-04  0.0103
   2.0784E+00   2.1290E+00   1.9492E-04  0.0101
   2.1290E+00   2.1808E+00   1.9185E-04  0.0100
   2.1808E+00   2.2338E+00   1.9060E-04  0.0099
   2.2338E+00   2.2882E+00   1.9133E-04  0.0098
   2.2882E+00   2.3439E+00   1.9231E-04  0.0097
   2.3439E+00   2.4009E+00   1.9361E-04  0.0095
   2.4009E+00   2.4593E+00   1.9392E-04  0.0094
   2.4593E+00   2.5191E+00   1.9592E-04  0.0092
   2.5191E+00   2.5804E+00   1.9271E-04  0.0092
   2.5804E+00   2.6432E+00   1.9048E-04  0.0091
   2.6432E+00   2.7075E+00   1.8741E-04  0.0091
   2.7075E+00   2.7734E+00   1.9252E-04  0.0089
   2.7734E+00   2.8409E+00   1.8781E-04  0.0089
   2.8409E+00   2.9100E+00   1.9059E-04  0.0087
   2.9100E+00   2.9808E+00   1.8661E-04  0.0087
   2.9808E+00   3.0533E+00   1.8540E-04  0.0086
   3.0533E+00   3.1276E+00   1.8486E-04  0.0085
   3.1276E+00   3.2037E+00   1.8135E-04  0.0085
   3.2037E+00   3.2817E+00   1.8048E-04  0.0084
   3.2817E+00   3.3615E+00   1.7905E-04  0.0084
   3.3615E+00   3.4433E+00   1.7441E-04  0.0084
   3.4433E+00   3.5271E+00   1.7422E-04  0.0083
   3.5271E+00   3.6129E+00   1.7011E-04  0.0083
   3.6129E+00   3.7008E+00   1.7170E-04  0.0081
   3.7008E+00   3.7908E+00   1.6669E-04  0.0082
   3.7908E+00   3.8831E+00   1.6462E-04  0.0081
   3.8831E+00   3.9776E+00   1.6333E-04  0.0081
   3.9776E+00   4.0743E+00   1.5906E-04  0.0081
   4.0743E+00   4.1735E+00   1.5586E-04  0.0080
   4.1735E+00   4.2750E+00   1.5196E-04  0.0081
   4.2750E+00   4.3790E+00   1.4842E-04  0.0081
   4.3790E+00   4.4856E+00   1.4534E-04  0.0080
   4.4856E+00   4.5947E+00   1.4162E-04  0.0080
   4.5947E+00   4.7065E+00   1.3831E-04  0.0080
   4.7065E+00   4.8210E+00   1.3607E-04  0.0080
   4.8210E+00   4.9383E+00   1.3421E-04  0.0080
   4.9383E+00   5.0585E+00   1.2986E-04  0.0080
   5.0585E+00   5.1815E+00   1.2695E-04  0.0080
   5.1815E+00   5.3076E+00   1.2157E-04  0.0081
   5.3076E+00   5.4368E+00   1.1871E-04  0.0081
   5.4368E+00   5.5690E+00   1.1581E-04  0.0081
   5.5690E+00   5.7045E+00   1.1347E-04  0.0081
   5.7045E+00   5.8433E+00   1.0961E-04  0.0081
   5.8433E+00   5.9855E+00   1.0349E-04  0.0082
   5.9855E+00   6.1311E+00   1.0199E-04  0.0082
   6.1311E+00   6.2803E+00   9.8012E-05  0.0083
   6.2803E+00   6.4331E+00   9.6234E-05  0.0082
   6.4331E+00   6.5896E+00   9.2913E-05  0.0083
   6.5896E+00   6.7500E+00   9.0344E-05  0.0083
   6.7500E+00   6.9142E+00   8.6563E-05  0.0084
   6.9142E+00   7.0824E+00   8.2712E-05  0.0085
   7.0824E+00   7.2548E+00   8.0626E-05  0.0085
   7.2548E+00   7.4313E+00   7.7824E-05  0.0085
   7.4313E+00   7.6121E+00   7.5353E-05  0.0086
   7.6121E+00   7.7973E+00   7.2977E-05  0.0086
   7.7973E+00   7.9870E+00   7.0137E-05  0.0087
   7.9870E+00   8.1813E+00   6.8968E-05  0.0086
   8.1813E+00   8.3804E+00   6.4923E-05  0.0088
   8.3804E+00   8.5843E+00   6.2363E-05  0.0089
   8.5843E+00   8.7931E+00   6.0650E-05  0.0089
   8.7931E+00   9.0071E+00   5.8684E-05  0.0089
   9.0071E+00   9.2262E+00   5.6112E-05  0.0090
   9.2262E+00   9.4507E+00   5.4664E-05  0.0090
   9.4507E+00   9.6807E+00   5.3035E-05  0.0091
   9.6807E+00   9.9162E+00   5.1548E-05  0.0091
   9.9162E+00   1.0157E+01   4.9240E-05  0.0092
   1.0157E+01   1.0405E+01   4.6395E-05  0.0093
   1.0405E+01   1.0658E+01   4.5350E-05  0.0093
   1.0658E+01   1.0917E+01   4.3905E-05  0.0094
   1.0917E+01   1.1183E+01   4.2440E-05  0.0094
   1.1183E+01   1.1455E+01   4.1658E-05  0.0094
   1.1455E+01   1.1733E+01   4.0742E-05  0.0094
   1.1733E+01   1.2019E+01   3.8664E-05  0.0095
   1.2019E+01   1.2311E+01   3.7838E-05  0.0095
   1.2311E+01   1.2611E+01   3.6245E-05  0.0096
   1.2611E+01   1.2918E+01   3.5149E-05  0.0096
   1.2918E+01   1.3232E+01   3.3214E-05  0.0098
   1.3232E+01   1.3554E+01   3.2668E-05  0.0098
   1.3554E+01   1.3884E+01   3.1871E-05  0.0098
   1.3884E+01   1.4222E+01   3.0962E-05  0.0098
   1.4222E+01   1.4568E+01   2.9749E-05  0.0099
   1.4568E+01   1.4922E+01   2.8550E-05  0.0099
   1.4922E+01   1.5285E+01   2.8170E-05  0.0099
   1.5285E+01   1.5657E+01   2.6749E-05  0.0100
   1.5657E+01   1.6038E+01   2.5280E-05  0.0102
   1.6038E+01   1.6428E+01   2.4699E-05  0.0102
   1.6428E+01   1.6828E+01   2.3887E-05  0.0102
   1.6828E+01   1.7237E+01   2.3764E-05  0.0101
   1.7237E+01   1.7657E+01   2.2367E-05  0.0103
   1.7657E+01   1.8086E+01   2.1526E-05  0.0104
   1.8086E+01   1.8526E+01   2.0579E-05  0.0105
   1.8526E+01   1.8977E+01   2.0002E-05  0.0105
   1.8977E+01   1.9439E+01   1.9291E-05  0.0106
   1.9439E+01   1.9912E+01   1.8447E-05  0.0107
   1.9912E+01   2.0396E+01   1.7537E-05  0.0108
   2.0396E+01   2.0893E+01   1.7035E-05  0.0109
   2.0893E+01   2.1401E+01   1.5897E-05  0.0111
   2.1401E+01   2.1922E+01   1.5301E-05  0.0112
   2.1922E+01   2.2455E+01   1.4594E-05  0.0113
   2.2455E+01   2.3001E+01   1.3916E-05  0.0115
   2.3001E+01   2.3561E+01   1.3589E-05  0.0115
   2.3561E+01   2.4134E+01   1.2717E-05  0.0117
   2.4134E+01   2.4721E+01   1.1933E-05  0.0119
   2.4721E+01   2.5323E+01   1.1079E-05  0.0122
   2.5323E+01   2.5939E+01   1.0579E-05  0.0124
   2.5939E+01   2.6570E+01   9.8714E-06  0.0127
   2.6570E+01   2.7217E+01   9.1945E-06  0.0130
   2.7217E+01   2.7879E+01   8.8628E-06  0.0131
   2.7879E+01   2.8557E+01   8.2395E-06  0.0134
   2.8557E+01   2.9252E+01   7.6365E-06  0.0137
   2.9252E+01   2.9964E+01   6.9887E-06  0.0142
   2.9964E+01   3.0693E+01   6.6238E-06  0.0144
   3.0693E+01   3.1440E+01   5.9897E-06  0.0150
   3.1440E+01   3.2205E+01   5.4174E-06  0.0155
   3.2205E+01   3.2988E+01   5.1930E-06  0.0157
   3.2988E+01   3.3791E+01   4.6111E-06  0.0164
   3.3791E+01   3.4613E+01   4.2839E-06  0.0169
   3.4613E+01   3.5455E+01   3.8651E-06  0.0175
   3.5455E+01   3.6318E+01   3.4046E-06  0.0185
   3.6318E+01   3.7201E+01   3.2468E-06  0.0187
   3.7201E+01   3.8106E+01   2.7808E-06  0.0199
   3.8106E+01   3.9034E+01   2.5001E-06  0.0208
   3.9034E+01   3.9983E+01   2.2617E-06  0.0216
   3.9983E+01   4.0956E+01   1.9983E-06  0.0227
   4.0956E+01   4.1953E+01   1.7511E-06  0.0239
   4.1953E+01   4.2973E+01   1.5832E-06  0.0249
   4.2973E+01   4.4019E+01   1.3734E-06  0.0264
   4.4019E+01   4.5090E+01   1.2054E-06  0.0278
   4.5090E+01   4.6187E+01   9.8535E-07  0.0304
   4.6187E+01   4.7311E+01   9.1923E-07  0.0311
   4.7311E+01   4.8462E+01   7.7577E-07  0.0335
   4.8462E+01   4.9641E+01   6.3777E-07  0.0365
   4.9641E+01   5.0849E+01   5.6300E-07  0.0383
   5.0849E+01   5.2086E+01   4.9224E-07  0.0405
   5.2086E+01   5.3353E+01   4.1742E-07  0.0435
   5.3353E+01   5.4651E+01   3.4896E-07  0.0470
   5.4651E+01   5.5981E+01   2.8878E-07  0.0510
   5.5981E+01   5.7343E+01   2.3567E-07  0.0558
   5.7343E+01   5.8738E+01   1.7488E-07  0.0640
   5.8738E+01   6.0168E+01   1.5044E-07  0.0682
   6.0168E+01   6.1632E+01   1.0110E-07  0.0822
   6.1632E+01   6.3131E+01   7.0021E-08  0.0976
   6.3131E+01   6.4667E+01   4.9478E-08  0.1147
   6.4667E+01   6.6240E+01   3.6863E-08  0.1313
   6.6240E+01   6.7852E+01   7.4456E-09  0.2887
   6.7852E+01   6.9503E+01   1.2115E-09  0.7071
   6.9503E+01   7.1194E+01   1.1827E-09  0.7071
   7.1194E+01   7.2926E+01   0.0000E+00  0.0000
   7.2926E+01   7.4701E+01   0.0000E+00  0.0000
   7.4701E+01   7.6518E+01   0.0000E+00  0.0000
   7.6518E+01   7.8380E+01   0.0000E+00  0.0000
   7.8380E+01   8.0287E+01   0.0000E+00  0.0000
   8.0287E+01   8.2240E+01   0.0000E+00  0.0000
   8.2240E+01   8.4241E+01   0.0000E+00  0.0000
   8.4241E+01   8.6291E+01   0.0000E+00  0.0000
   8.6291E+01   8.8391E+01   0.0000E+00  0.0000
   8.8391E+01   9.0541E+01   0.0000E+00  0.0000
   9.0541E+01   9.2744E+01   0.0000E+00  0.0000
   9.2744E+01   9.5001E+01   0.0000E+00  0.0000
   9.5001E+01   9.7312E+01   0.0000E+00  0.0000
   9.7312E+01   9.9680E+01   0.0000E+00  0.0000
   9.9680E+01   1.0211E+02   0.0000E+00  0.0000
   1.0211E+02   1.0459E+02   0.0000E+00  0.0000
   1.0459E+02   1.0713E+02   0.0000E+00  0.0000
   1.0713E+02   1.0974E+02   0.0000E+00  0.0000
   1.0974E+02   1.1241E+02   0.0000E+00  0.0000
   1.1241E+02   1.1515E+02   0.0000E+00  0.0000
   1.1515E+02   1.1795E+02   0.0000E+00  0.0000
   1.1795E+02   1.2082E+02   0.0000E+00  0.0000
   1.2082E+02   1.2376E+02   0.0000E+00  0.0000
   1.2376E+02   1.2677E+02   0.0000E+00  0.0000
   1.2677E+02   1.2985E+02   0.0000E+00  0.0000
   1.2985E+02   1.3301E+02   0.0000E+00  0.0000
   1.3301E+02   1.3625E+02   0.0000E+00  0.0000
   1.3625E+02   1.3956E+02   0.0000E+00  0.0000
   1.3956E+02   1.4296E+02   0.0000E+00  0.0000
   1.4296E+02   1.4644E+02   0.0000E+00  0.0000
   1.4644E+02   1.5000E+02   0.0000E+00  0.0000

#   sum over                 1.1537E-05
'no. =    1   reg = 112 - 212'
msuc: {\huge [t-cross] in region mesh}
msdr: {\it plotted by \ANGEL \version}
msdl: {\it calculated by \PHITS  3.26}
wt: s(0.7)
\vspace{-3}
  region surface crossing
  area  &=&   1.0000E+00 [cm^2]
e:
 
# Information for Restart Calculation
# This calculation was newly started
# istdev =  2 # 1:Batch variance, 2:History variance
# resc2  = 1.00000000000000000E+09 # Total source weight or Total source weight / maxcas
# resc3  = 1.00000000000000000E+09 # Total history number or Total batch number
# maxcas =   500000000 # History / Batch, only used for istdev=1
# bitrseed = 0001001110011001001001110000100100110111001111011100001000101100 # bit data of rseed
