[ T-Cross ]
    title = [t-cross] in region mesh
     mesh =  reg            # mesh type is region-wise
      reg =    1            # number of crossing regions
      non     r-from    r-to       area
      1       100       200        1.000000    
   e-type =    3            # e-mesh is log given by emin, emax and ne
     emin =  1.0000000E-02  # minimum value of e-mesh points
     emax =   150.0000      # maximum value of e-mesh points
#    edel =  2.4039514E-02  # mesh width of e-mesh points
       ne =    400          # number of e-mesh points
#    data = ( e(i), i = 1, ne + 1 )
#           1.00000E-02  1.02433E-02  1.04925E-02  1.07478E-02  1.10093E-02
#           1.12772E-02  1.15516E-02  1.18326E-02  1.21205E-02  1.24154E-02
#           1.27175E-02  1.30269E-02  1.33439E-02  1.36686E-02  1.40011E-02
#           1.43418E-02  1.46907E-02  1.50482E-02  1.54143E-02  1.57894E-02
#           1.61735E-02  1.65670E-02  1.69701E-02  1.73830E-02  1.78060E-02
#           1.82392E-02  1.86830E-02  1.91375E-02  1.96032E-02  2.00801E-02
#           2.05687E-02  2.10692E-02  2.15818E-02  2.21069E-02  2.26448E-02
#           2.31957E-02  2.37601E-02  2.43382E-02  2.49304E-02  2.55369E-02
#           2.61583E-02  2.67947E-02  2.74467E-02  2.81145E-02  2.87985E-02
#           2.94992E-02  3.02169E-02  3.09521E-02  3.17052E-02  3.24766E-02
#           3.32668E-02  3.40762E-02  3.49053E-02  3.57546E-02  3.66246E-02
#           3.75157E-02  3.84284E-02  3.93634E-02  4.03212E-02  4.13022E-02
#           4.23071E-02  4.33365E-02  4.43909E-02  4.54710E-02  4.65773E-02
#           4.77106E-02  4.88714E-02  5.00605E-02  5.12785E-02  5.25262E-02
#           5.38042E-02  5.51133E-02  5.64542E-02  5.78278E-02  5.92348E-02
#           6.06760E-02  6.21523E-02  6.36645E-02  6.52135E-02  6.68002E-02
#           6.84255E-02  7.00904E-02  7.17957E-02  7.35426E-02  7.53319E-02
#           7.71648E-02  7.90423E-02  8.09655E-02  8.29354E-02  8.49533E-02
#           8.70203E-02  8.91376E-02  9.13064E-02  9.35279E-02  9.58035E-02
#           9.81345E-02  1.00522E-01  1.02968E-01  1.05473E-01  1.08040E-01
#           1.10668E-01  1.13361E-01  1.16119E-01  1.18944E-01  1.21838E-01
#           1.24803E-01  1.27839E-01  1.30950E-01  1.34136E-01  1.37399E-01
#           1.40742E-01  1.44167E-01  1.47675E-01  1.51268E-01  1.54948E-01
#           1.58718E-01  1.62580E-01  1.66535E-01  1.70587E-01  1.74738E-01
#           1.78989E-01  1.83344E-01  1.87805E-01  1.92375E-01  1.97055E-01
#           2.01850E-01  2.06761E-01  2.11792E-01  2.16945E-01  2.22223E-01
#           2.27630E-01  2.33169E-01  2.38842E-01  2.44653E-01  2.50605E-01
#           2.56703E-01  2.62949E-01  2.69346E-01  2.75900E-01  2.82613E-01
#           2.89489E-01  2.96532E-01  3.03747E-01  3.11138E-01  3.18708E-01
#           3.26462E-01  3.34405E-01  3.42542E-01  3.50876E-01  3.59413E-01
#           3.68158E-01  3.77116E-01  3.86291E-01  3.95690E-01  4.05317E-01
#           4.15179E-01  4.25281E-01  4.35628E-01  4.46227E-01  4.57084E-01
#           4.68205E-01  4.79597E-01  4.91266E-01  5.03219E-01  5.15463E-01
#           5.28005E-01  5.40851E-01  5.54011E-01  5.67490E-01  5.81298E-01
#           5.95441E-01  6.09929E-01  6.24769E-01  6.39970E-01  6.55541E-01
#           6.71491E-01  6.87828E-01  7.04564E-01  7.21706E-01  7.39266E-01
#           7.57253E-01  7.75678E-01  7.94551E-01  8.13883E-01  8.33685E-01
#           8.53969E-01  8.74747E-01  8.96030E-01  9.17831E-01  9.40163E-01
#           9.63038E-01  9.86469E-01  1.01047E+00  1.03506E+00  1.06024E+00
#           1.08604E+00  1.11246E+00  1.13953E+00  1.16725E+00  1.19565E+00
#           1.22474E+00  1.25454E+00  1.28507E+00  1.31633E+00  1.34836E+00
#           1.38117E+00  1.41477E+00  1.44920E+00  1.48446E+00  1.52057E+00
#           1.55757E+00  1.59547E+00  1.63429E+00  1.67405E+00  1.71478E+00
#           1.75650E+00  1.79924E+00  1.84302E+00  1.88786E+00  1.93379E+00
#           1.98084E+00  2.02904E+00  2.07841E+00  2.12898E+00  2.18078E+00
#           2.23384E+00  2.28819E+00  2.34386E+00  2.40089E+00  2.45930E+00
#           2.51914E+00  2.58043E+00  2.64322E+00  2.70753E+00  2.77341E+00
#           2.84088E+00  2.91001E+00  2.98081E+00  3.05333E+00  3.12762E+00
#           3.20372E+00  3.28167E+00  3.36152E+00  3.44330E+00  3.52708E+00
#           3.61290E+00  3.70080E+00  3.79085E+00  3.88308E+00  3.97756E+00
#           4.07434E+00  4.17347E+00  4.27501E+00  4.37903E+00  4.48557E+00
#           4.59471E+00  4.70650E+00  4.82102E+00  4.93832E+00  5.05847E+00
#           5.18155E+00  5.30762E+00  5.43676E+00  5.56904E+00  5.70453E+00
#           5.84333E+00  5.98550E+00  6.13114E+00  6.28031E+00  6.43312E+00
#           6.58964E+00  6.74997E+00  6.91420E+00  7.08243E+00  7.25475E+00
#           7.43126E+00  7.61207E+00  7.79728E+00  7.98700E+00  8.18133E+00
#           8.38038E+00  8.58428E+00  8.79315E+00  9.00709E+00  9.22624E+00
#           9.45072E+00  9.68067E+00  9.91620E+00  1.01575E+01  1.04046E+01
#           1.06578E+01  1.09171E+01  1.11827E+01  1.14548E+01  1.17335E+01
#           1.20190E+01  1.23114E+01  1.26109E+01  1.29178E+01  1.32321E+01
#           1.35540E+01  1.38838E+01  1.42216E+01  1.45676E+01  1.49221E+01
#           1.52851E+01  1.56570E+01  1.60380E+01  1.64282E+01  1.68279E+01
#           1.72374E+01  1.76568E+01  1.80864E+01  1.85264E+01  1.89772E+01
#           1.94389E+01  1.99119E+01  2.03963E+01  2.08926E+01  2.14009E+01
#           2.19216E+01  2.24550E+01  2.30014E+01  2.35610E+01  2.41343E+01
#           2.47215E+01  2.53230E+01  2.59391E+01  2.65702E+01  2.72167E+01
#           2.78789E+01  2.85572E+01  2.92520E+01  2.99637E+01  3.06928E+01
#           3.14396E+01  3.22045E+01  3.29881E+01  3.37907E+01  3.46128E+01
#           3.54550E+01  3.63177E+01  3.72013E+01  3.81064E+01  3.90336E+01
#           3.99833E+01  4.09561E+01  4.19526E+01  4.29734E+01  4.40189E+01
#           4.50900E+01  4.61870E+01  4.73108E+01  4.84619E+01  4.96410E+01
#           5.08488E+01  5.20860E+01  5.33533E+01  5.46514E+01  5.59812E+01
#           5.73432E+01  5.87384E+01  6.01676E+01  6.16315E+01  6.31311E+01
#           6.46671E+01  6.62405E+01  6.78522E+01  6.95031E+01  7.11941E+01
#           7.29263E+01  7.47007E+01  7.65182E+01  7.83800E+01  8.02870E+01
#           8.22405E+01  8.42414E+01  8.62911E+01  8.83906E+01  9.05412E+01
#           9.27442E+01  9.50007E+01  9.73122E+01  9.96799E+01  1.02105E+02
#           1.04589E+02  1.07134E+02  1.09741E+02  1.12411E+02  1.15146E+02
#           1.17948E+02  1.20817E+02  1.23757E+02  1.26768E+02  1.29852E+02
#           1.33012E+02  1.36248E+02  1.39563E+02  1.42959E+02  1.46437E+02
#           1.50000E+02
     unit =    2            # unit is [1/cm^2/(MeV/n)/source]
     axis =  eng            # axis of output
     file = detector-01.out  # file name of output for the above axis
   output = f-curr          # surface crossing forward current spectrum
     part =  neutron  
# kf/name :  2112     
#    used :        main (  %)        temp (  %)       total (  %)
#  memory :         414 (  0)           0 (  0)         414 (  0)

#------------------------------------------------------------------------------
#newpage:
#   no. =    1   reg = 100 - 200

x: Energy [MeV/n]
y:  F-Curr [1/cm^2/(MeV/n)/source]         
p: xlog ylog afac(0.8) form(0.9)
h: n            x            y(neutron ),hh0l   n 
#  e-lower      e-upper      neutron     r.err 
   1.0000E-02   1.0243E-02   8.1317E-06  0.4472
   1.0243E-02   1.0493E-02   3.1784E-06  0.7071
   1.0493E-02   1.0748E-02   1.5552E-06  1.0000
   1.0748E-02   1.1009E-02   4.5076E-06  0.5774
   1.1009E-02   1.1277E-02   1.4803E-06  1.0000
   1.1277E-02   1.1552E-02   1.4480E-06  0.8190
   1.1552E-02   1.1833E-02   2.8190E-06  0.7071
   1.1833E-02   1.2121E-02   5.9971E-07  1.0000
   1.2121E-02   1.2415E-02   5.3963E-06  0.5000
   1.2415E-02   1.2718E-02   2.6462E-06  0.7071
   1.2718E-02   1.3027E-02   1.2799E-06  1.0000
   1.3027E-02   1.3344E-02   4.9601E-06  0.5001
   1.3344E-02   1.3669E-02   0.0000E+00  0.0000
   1.3669E-02   1.4001E-02   2.3874E-06  0.7071
   1.4001E-02   1.4342E-02   5.7450E-06  0.4474
   1.4342E-02   1.4691E-02   4.5745E-06  0.5000
   1.4691E-02   1.5048E-02   2.2067E-06  0.7071
   1.5048E-02   1.5414E-02   3.2673E-06  0.5774
   1.5414E-02   1.5789E-02   4.2500E-06  0.5000
   1.5789E-02   1.6174E-02   7.2546E-06  0.3780
   1.6174E-02   1.6567E-02   3.8636E-06  0.5009
   1.6567E-02   1.6970E-02   2.9600E-06  0.5774
   1.6970E-02   1.7383E-02   2.8996E-06  0.5774
   1.7383E-02   1.7806E-02   2.8148E-06  0.5774
   1.7806E-02   1.8239E-02   3.6384E-06  0.5000
   1.8239E-02   1.8683E-02   1.7046E-06  0.7076
   1.8683E-02   1.9138E-02   1.7255E-06  0.7071
   1.9138E-02   1.9603E-02   6.0027E-06  0.3780
   1.9603E-02   2.0080E-02   1.6736E-06  0.7071
   2.0080E-02   2.0569E-02   4.8908E-06  0.4082
   2.0569E-02   2.1069E-02   1.5813E-06  0.7071
   2.1069E-02   2.1582E-02   1.5590E-06  0.7071
   2.1582E-02   2.2107E-02   1.5128E-06  0.7071
   2.2107E-02   2.2645E-02   2.1967E-06  0.5774
   2.2645E-02   2.3196E-02   0.0000E+00  0.0000
   2.3196E-02   2.3760E-02   3.6141E-06  0.4330
   2.3760E-02   2.4338E-02   1.3804E-06  0.7071
   2.4338E-02   2.4930E-02   1.2137E-06  0.7114
   2.4930E-02   2.5537E-02   2.5731E-06  0.5003
   2.5537E-02   2.6158E-02   0.0000E+00  0.0000
   2.6158E-02   2.6795E-02   4.3651E-06  0.3780
   2.6795E-02   2.7447E-02   3.0385E-06  0.4472
   2.7447E-02   2.8114E-02   5.9770E-07  1.0000
   2.8114E-02   2.8799E-02   0.0000E+00  0.0000
   2.8799E-02   2.9499E-02   1.2434E-06  0.6477
   2.9499E-02   3.0217E-02   1.1114E-06  0.7071
   3.0217E-02   3.0952E-02   1.0840E-06  0.7071
   3.0952E-02   3.1705E-02   5.1698E-07  1.0000
   3.1705E-02   3.2477E-02   5.1362E-07  1.0000
   3.2477E-02   3.3267E-02   1.5081E-06  0.5774
   3.3267E-02   3.4076E-02   1.9549E-06  0.5000
   3.4076E-02   3.4905E-02   1.9163E-06  0.5000
   3.4905E-02   3.5755E-02   1.4076E-06  0.5774
   3.5755E-02   3.6625E-02   2.7224E-06  0.4083
   3.6625E-02   3.7516E-02   1.3404E-06  0.5774
   3.7516E-02   3.8428E-02   8.1218E-07  0.7093
   3.8428E-02   3.9363E-02   8.4474E-07  0.7071
   3.9363E-02   4.0321E-02   2.4925E-06  0.4083
   4.0321E-02   4.1302E-02   8.1413E-07  0.7071
   4.1302E-02   4.2307E-02   3.9743E-07  1.0000
   4.2307E-02   4.3337E-02   7.0916E-07  0.7089
   4.3337E-02   4.4391E-02   1.1354E-06  0.5774
   4.4391E-02   4.5471E-02   7.3664E-07  0.7071
   4.5471E-02   4.6577E-02   3.6005E-07  1.0000
   4.6577E-02   4.7711E-02   2.1009E-06  0.4083
   4.7711E-02   4.8871E-02   3.4424E-07  1.0000
   4.8871E-02   5.0061E-02   6.6610E-07  0.7071
   5.0061E-02   5.1279E-02   1.2288E-06  0.5026
   5.1279E-02   5.2526E-02   9.5237E-07  0.5774
   5.2526E-02   5.3804E-02   6.2034E-07  0.7071
   5.3804E-02   5.5113E-02   6.0466E-07  0.7071
   5.5113E-02   5.6454E-02   8.8380E-07  0.5774
   5.6454E-02   5.7828E-02   1.3947E-06  0.4486
   5.7828E-02   5.9235E-02   2.8429E-07  1.0000
   5.9235E-02   6.0676E-02   1.1372E-06  0.4722
   6.0676E-02   6.2152E-02   8.0594E-07  0.5774
   6.2152E-02   6.3665E-02   0.0000E+00  0.0000
   6.3665E-02   6.5214E-02   2.5752E-07  1.0000
   6.5214E-02   6.6800E-02   1.0052E-06  0.5000
   6.6800E-02   6.8426E-02   7.3110E-07  0.5774
   6.8426E-02   7.0090E-02   4.7507E-07  0.7071
   7.0090E-02   7.1796E-02   4.5910E-07  0.7072
   7.1796E-02   7.3543E-02   3.4163E-07  0.7457
   7.3543E-02   7.5332E-02   6.6591E-07  0.5774
   7.5332E-02   7.7165E-02   2.1671E-07  1.0000
   7.7165E-02   7.9042E-02   4.0113E-07  0.7073
   7.9042E-02   8.0965E-02   9.8135E-07  0.4488
   8.0965E-02   8.2935E-02   1.0092E-06  0.4472
   8.2935E-02   8.4953E-02   3.9476E-07  0.7071
   8.4953E-02   8.7020E-02   7.6201E-07  0.5000
   8.7020E-02   8.9138E-02   5.6276E-07  0.5774
   8.9138E-02   9.1306E-02   1.1018E-06  0.4083
   9.1306E-02   9.3528E-02   0.0000E+00  0.0000
   9.3528E-02   9.5804E-02   6.9886E-07  0.5000
   9.5804E-02   9.8134E-02   5.0936E-07  0.5774
   9.8134E-02   1.0052E-01   5.0092E-07  0.5774
   1.0052E-01   1.0297E-01   6.4930E-07  0.5000
   1.0297E-01   1.0547E-01   3.1881E-07  0.7071
   1.0547E-01   1.0804E-01   1.3813E-06  0.3334
   1.0804E-01   1.1067E-01   1.5027E-07  1.0000
   1.1067E-01   1.1336E-01   2.7317E-07  0.7097
   1.1336E-01   1.1612E-01   2.8727E-07  0.7071
   1.1612E-01   1.1894E-01   1.1260E-06  0.3536
   1.1894E-01   1.2184E-01   5.4717E-07  0.5000
   1.2184E-01   1.2480E-01   1.0700E-06  0.3536
   1.2480E-01   1.2784E-01   5.2336E-07  0.5000
   1.2784E-01   1.3095E-01   8.5891E-07  0.3799
   1.3095E-01   1.3414E-01   1.0007E-06  0.3536
   1.3414E-01   1.3740E-01   1.1726E-06  0.3182
   1.3740E-01   1.4074E-01   6.5781E-07  0.4150
   1.4074E-01   1.4417E-01   2.0252E-06  0.2375
   1.4417E-01   1.4767E-01   6.7693E-07  0.4083
   1.4767E-01   1.5127E-01   9.7643E-07  0.3337
   1.5127E-01   1.5495E-01   6.4610E-07  0.4083
   1.5495E-01   1.5872E-01   7.3838E-07  0.3780
   1.5872E-01   1.6258E-01   1.0246E-06  0.3163
   1.6258E-01   1.6654E-01   1.2158E-06  0.2834
   1.6654E-01   1.7059E-01   1.7358E-06  0.2341
   1.7059E-01   1.7474E-01   8.4878E-07  0.3335
   1.7474E-01   1.7899E-01   2.1287E-06  0.2086
   1.7899E-01   1.8334E-01   1.3465E-06  0.2550
   1.8334E-01   1.8781E-01   1.8594E-06  0.2156
   1.8781E-01   1.9237E-01   1.0892E-06  0.2749
   1.9237E-01   1.9706E-01   2.0133E-06  0.2044
   1.9706E-01   2.0185E-01   1.9072E-06  0.2085
   2.0185E-01   2.0676E-01   1.8314E-06  0.2088
   2.0676E-01   2.1179E-01   1.8374E-06  0.2066
   2.1179E-01   2.1694E-01   2.1039E-06  0.1900
   2.1694E-01   2.2222E-01   2.4810E-06  0.1741
   2.2222E-01   2.2763E-01   1.8184E-06  0.2001
   2.2763E-01   2.3317E-01   3.0426E-06  0.1529
   2.3317E-01   2.3884E-01   1.4555E-06  0.2184
   2.3884E-01   2.4465E-01   2.5964E-06  0.1599
   2.4465E-01   2.5061E-01   2.1396E-06  0.1760
   2.5061E-01   2.5670E-01   3.4258E-06  0.1374
   2.5670E-01   2.6295E-01   2.7332E-06  0.1518
   2.6295E-01   2.6935E-01   2.9318E-06  0.1448
   2.6935E-01   2.7590E-01   2.8296E-06  0.1455
   2.7590E-01   2.8261E-01   3.2150E-06  0.1347
   2.8261E-01   2.8949E-01   3.7450E-06  0.1234
   2.8949E-01   2.9653E-01   2.7592E-06  0.1415
   2.9653E-01   3.0375E-01   3.0076E-06  0.1349
   3.0375E-01   3.1114E-01   2.8630E-06  0.1362
   3.1114E-01   3.1871E-01   3.0727E-06  0.1303
   3.1871E-01   3.2646E-01   3.1955E-06  0.1261
   3.2646E-01   3.3441E-01   3.0832E-06  0.1268
   3.3441E-01   3.4254E-01   3.7404E-06  0.1140
   3.4254E-01   3.5088E-01   3.5750E-06  0.1148
   3.5088E-01   3.5941E-01   3.6351E-06  0.1125
   3.5941E-01   3.6816E-01   3.7910E-06  0.1087
   3.6816E-01   3.7712E-01   3.2274E-06  0.1162
   3.7712E-01   3.8629E-01   3.2475E-06  0.1149
   3.8629E-01   3.9569E-01   3.6875E-06  0.1065
   3.9569E-01   4.0532E-01   4.3276E-06  0.0972
   4.0532E-01   4.1518E-01   3.4123E-06  0.1078
   4.1518E-01   4.2528E-01   3.8156E-06  0.1006
   4.2528E-01   4.3563E-01   4.5922E-06  0.0905
   4.3563E-01   4.4623E-01   4.3096E-06  0.0929
   4.4623E-01   4.5708E-01   4.6110E-06  0.0886
   4.5708E-01   4.6821E-01   3.8572E-06  0.0954
   4.6821E-01   4.7960E-01   4.2523E-06  0.0899
   4.7960E-01   4.9127E-01   4.1574E-06  0.0898
   4.9127E-01   5.0322E-01   4.8069E-06  0.0826
   5.0322E-01   5.1546E-01   4.5191E-06  0.0842
   5.1546E-01   5.2800E-01   4.2299E-06  0.0859
   5.2800E-01   5.4085E-01   4.6977E-06  0.0804
   5.4085E-01   5.5401E-01   4.2383E-06  0.0834
   5.5401E-01   5.6749E-01   5.1550E-06  0.0752
   5.6749E-01   5.8130E-01   4.7247E-06  0.0774
   5.8130E-01   5.9544E-01   4.7245E-06  0.0764
   5.9544E-01   6.0993E-01   4.5795E-06  0.0765
   6.0993E-01   6.2477E-01   4.8885E-06  0.0734
   6.2477E-01   6.3997E-01   4.3124E-06  0.0768
   6.3997E-01   6.5554E-01   4.2613E-06  0.0769
   6.5554E-01   6.7149E-01   4.7112E-06  0.0719
   6.7149E-01   6.8783E-01   4.3756E-06  0.0739
   6.8783E-01   7.0456E-01   4.3352E-06  0.0732
   7.0456E-01   7.2171E-01   4.2823E-06  0.0727
   7.2171E-01   7.3927E-01   4.1634E-06  0.0729
   7.3927E-01   7.5725E-01   4.5001E-06  0.0693
   7.5725E-01   7.7568E-01   3.9369E-06  0.0731
   7.7568E-01   7.9455E-01   4.2852E-06  0.0694
   7.9455E-01   8.1388E-01   3.8621E-06  0.0720
   8.1388E-01   8.3368E-01   4.1395E-06  0.0687
   8.3368E-01   8.5397E-01   4.1403E-06  0.0681
   8.5397E-01   8.7475E-01   3.5579E-06  0.0726
   8.7475E-01   8.9603E-01   3.6945E-06  0.0703
   8.9603E-01   9.1783E-01   3.6074E-06  0.0703
   9.1783E-01   9.4016E-01   3.2972E-06  0.0726
   9.4016E-01   9.6304E-01   3.3882E-06  0.0707
   9.6304E-01   9.8647E-01   3.0485E-06  0.0736
   9.8647E-01   1.0105E+00   3.0421E-06  0.0725
   1.0105E+00   1.0351E+00   3.2487E-06  0.0696
   1.0351E+00   1.0602E+00   2.8031E-06  0.0739
   1.0602E+00   1.0860E+00   3.4936E-06  0.0656
   1.0860E+00   1.1125E+00   3.3741E-06  0.0657
   1.1125E+00   1.1395E+00   3.9299E-06  0.0601
   1.1395E+00   1.1673E+00   4.1535E-06  0.0579
   1.1673E+00   1.1957E+00   3.9953E-06  0.0584
   1.1957E+00   1.2247E+00   4.2904E-06  0.0555
   1.2247E+00   1.2545E+00   4.5292E-06  0.0532
   1.2545E+00   1.2851E+00   4.8535E-06  0.0509
   1.2851E+00   1.3163E+00   4.8553E-06  0.0503
   1.3163E+00   1.3484E+00   4.6904E-06  0.0504
   1.3484E+00   1.3812E+00   5.2082E-06  0.0474
   1.3812E+00   1.4148E+00   5.2388E-06  0.0465
   1.4148E+00   1.4492E+00   5.7039E-06  0.0443
   1.4492E+00   1.4845E+00   5.7487E-06  0.0436
   1.4845E+00   1.5206E+00   5.7251E-06  0.0431
   1.5206E+00   1.5576E+00   5.9298E-06  0.0418
   1.5576E+00   1.5955E+00   5.9029E-06  0.0412
   1.5955E+00   1.6343E+00   6.2580E-06  0.0397
   1.6343E+00   1.6741E+00   6.3937E-06  0.0388
   1.6741E+00   1.7148E+00   6.2846E-06  0.0386
   1.7148E+00   1.7565E+00   6.1025E-06  0.0386
   1.7565E+00   1.7992E+00   5.6801E-06  0.0395
   1.7992E+00   1.8430E+00   5.9008E-06  0.0382
   1.8430E+00   1.8879E+00   5.1549E-06  0.0400
   1.8879E+00   1.9338E+00   5.4446E-06  0.0386
   1.9338E+00   1.9808E+00   5.5738E-06  0.0377
   1.9808E+00   2.0290E+00   5.7196E-06  0.0367
   2.0290E+00   2.0784E+00   6.1718E-06  0.0349
   2.0784E+00   2.1290E+00   6.7078E-06  0.0330
   2.1290E+00   2.1808E+00   6.8788E-06  0.0321
   2.1808E+00   2.2338E+00   6.6325E-06  0.0323
   2.2338E+00   2.2882E+00   6.7861E-06  0.0317
   2.2882E+00   2.3439E+00   6.6682E-06  0.0316
   2.3439E+00   2.4009E+00   6.8986E-06  0.0308
   2.4009E+00   2.4593E+00   6.7362E-06  0.0307
   2.4593E+00   2.5191E+00   6.8161E-06  0.0303
   2.5191E+00   2.5804E+00   7.1443E-06  0.0292
   2.5804E+00   2.6432E+00   7.0900E-06  0.0290
   2.6432E+00   2.7075E+00   6.8646E-06  0.0292
   2.7075E+00   2.7734E+00   7.1550E-06  0.0282
   2.7734E+00   2.8409E+00   7.1077E-06  0.0280
   2.8409E+00   2.9100E+00   7.3982E-06  0.0271
   2.9100E+00   2.9808E+00   7.2126E-06  0.0272
   2.9808E+00   3.0533E+00   7.2570E-06  0.0267
   3.0533E+00   3.1276E+00   7.3008E-06  0.0264
   3.1276E+00   3.2037E+00   7.3418E-06  0.0260
   3.2037E+00   3.2817E+00   7.3380E-06  0.0257
   3.2817E+00   3.3615E+00   7.1252E-06  0.0259
   3.3615E+00   3.4433E+00   7.6835E-06  0.0246
   3.4433E+00   3.5271E+00   7.5373E-06  0.0246
   3.5271E+00   3.6129E+00   7.5240E-06  0.0243
   3.6129E+00   3.7008E+00   7.0743E-06  0.0248
   3.7008E+00   3.7908E+00   7.0832E-06  0.0245
   3.7908E+00   3.8831E+00   7.1197E-06  0.0242
   3.8831E+00   3.9776E+00   7.0455E-06  0.0240
   3.9776E+00   4.0743E+00   6.9058E-06  0.0240
   4.0743E+00   4.1735E+00   7.2348E-06  0.0231
   4.1735E+00   4.2750E+00   6.8843E-06  0.0234
   4.2750E+00   4.3790E+00   6.6521E-06  0.0235
   4.3790E+00   4.4856E+00   6.6722E-06  0.0232
   4.4856E+00   4.5947E+00   6.8448E-06  0.0226
   4.5947E+00   4.7065E+00   6.4648E-06  0.0230
   4.7065E+00   4.8210E+00   6.1751E-06  0.0233
   4.8210E+00   4.9383E+00   6.2840E-06  0.0228
   4.9383E+00   5.0585E+00   6.2334E-06  0.0226
   5.0585E+00   5.1815E+00   6.2578E-06  0.0223
   5.1815E+00   5.3076E+00   6.3868E-06  0.0218
   5.3076E+00   5.4368E+00   6.2170E-06  0.0218
   5.4368E+00   5.5690E+00   6.0454E-06  0.0219
   5.5690E+00   5.7045E+00   6.0103E-06  0.0217
   5.7045E+00   5.8433E+00   6.0567E-06  0.0214
   5.8433E+00   5.9855E+00   6.2407E-06  0.0208
   5.9855E+00   6.1311E+00   6.0952E-06  0.0209
   6.1311E+00   6.2803E+00   6.0823E-06  0.0206
   6.2803E+00   6.4331E+00   5.8041E-06  0.0208
   6.4331E+00   6.5896E+00   5.8380E-06  0.0206
   6.5896E+00   6.7500E+00   5.6705E-06  0.0206
   6.7500E+00   6.9142E+00   5.7975E-06  0.0202
   6.9142E+00   7.0824E+00   5.7948E-06  0.0199
   7.0824E+00   7.2548E+00   5.6475E-06  0.0200
   7.2548E+00   7.4313E+00   5.5767E-06  0.0198
   7.4313E+00   7.6121E+00   5.5923E-06  0.0196
   7.6121E+00   7.7973E+00   5.5107E-06  0.0195
   7.7973E+00   7.9870E+00   5.5270E-06  0.0193
   7.9870E+00   8.1813E+00   5.4223E-06  0.0192
   8.1813E+00   8.3804E+00   5.4405E-06  0.0189
   8.3804E+00   8.5843E+00   5.3045E-06  0.0190
   8.5843E+00   8.7931E+00   5.2119E-06  0.0189
   8.7931E+00   9.0071E+00   4.9725E-06  0.0191
   9.0071E+00   9.2262E+00   5.0274E-06  0.0188
   9.2262E+00   9.4507E+00   4.7832E-06  0.0191
   9.4507E+00   9.6807E+00   4.7354E-06  0.0190
   9.6807E+00   9.9162E+00   4.7451E-06  0.0188
   9.9162E+00   1.0157E+01   4.9696E-06  0.0182
   1.0157E+01   1.0405E+01   4.8730E-06  0.0181
   1.0405E+01   1.0658E+01   4.8749E-06  0.0179
   1.0658E+01   1.0917E+01   4.5228E-06  0.0184
   1.0917E+01   1.1183E+01   4.5056E-06  0.0182
   1.1183E+01   1.1455E+01   4.4561E-06  0.0181
   1.1455E+01   1.1733E+01   4.4589E-06  0.0179
   1.1733E+01   1.2019E+01   4.2250E-06  0.0182
   1.2019E+01   1.2311E+01   4.2556E-06  0.0179
   1.2311E+01   1.2611E+01   4.2997E-06  0.0176
   1.2611E+01   1.2918E+01   4.2060E-06  0.0176
   1.2918E+01   1.3232E+01   4.2789E-06  0.0172
   1.3232E+01   1.3554E+01   4.2985E-06  0.0170
   1.3554E+01   1.3884E+01   4.1159E-06  0.0171
   1.3884E+01   1.4222E+01   4.0389E-06  0.0171
   1.4222E+01   1.4568E+01   4.1245E-06  0.0167
   1.4568E+01   1.4922E+01   3.9940E-06  0.0168
   1.4922E+01   1.5285E+01   3.8923E-06  0.0168
   1.5285E+01   1.5657E+01   3.6915E-06  0.0171
   1.5657E+01   1.6038E+01   3.6569E-06  0.0169
   1.6038E+01   1.6428E+01   3.6763E-06  0.0167
   1.6428E+01   1.6828E+01   3.5900E-06  0.0167
   1.6828E+01   1.7237E+01   3.5191E-06  0.0167
   1.7237E+01   1.7657E+01   3.5495E-06  0.0164
   1.7657E+01   1.8086E+01   3.4266E-06  0.0165
   1.8086E+01   1.8526E+01   3.3269E-06  0.0165
   1.8526E+01   1.8977E+01   3.3535E-06  0.0163
   1.8977E+01   1.9439E+01   3.3155E-06  0.0162
   1.9439E+01   1.9912E+01   3.2621E-06  0.0161
   1.9912E+01   2.0396E+01   3.2307E-06  0.0160
   2.0396E+01   2.0893E+01   3.1604E-06  0.0160
   2.0893E+01   2.1401E+01   3.1035E-06  0.0159
   2.1401E+01   2.1922E+01   2.9683E-06  0.0161
   2.1922E+01   2.2455E+01   2.8910E-06  0.0161
   2.2455E+01   2.3001E+01   2.8363E-06  0.0161
   2.3001E+01   2.3561E+01   2.6789E-06  0.0163
   2.3561E+01   2.4134E+01   2.5734E-06  0.0165
   2.4134E+01   2.4721E+01   2.4618E-06  0.0166
   2.4721E+01   2.5323E+01   2.4699E-06  0.0164
   2.5323E+01   2.5939E+01   2.3229E-06  0.0167
   2.5939E+01   2.6570E+01   2.3038E-06  0.0166
   2.6570E+01   2.7217E+01   2.1934E-06  0.0168
   2.7217E+01   2.7879E+01   2.0386E-06  0.0172
   2.7879E+01   2.8557E+01   2.4779E-06  0.0154
   2.8557E+01   2.9252E+01   2.7426E-06  0.0145
   2.9252E+01   2.9964E+01   2.7179E-06  0.0144
   2.9964E+01   3.0693E+01   2.6819E-06  0.0143
   3.0693E+01   3.1440E+01   2.6578E-06  0.0142
   3.1440E+01   3.2205E+01   2.5576E-06  0.0143
   3.2205E+01   3.2988E+01   2.4529E-06  0.0144
   3.2988E+01   3.3791E+01   2.4774E-06  0.0142
   3.3791E+01   3.4613E+01   2.4112E-06  0.0142
   3.4613E+01   3.5455E+01   2.4209E-06  0.0140
   3.5455E+01   3.6318E+01   2.4144E-06  0.0139
   3.6318E+01   3.7201E+01   2.2837E-06  0.0141
   3.7201E+01   3.8106E+01   2.2688E-06  0.0140
   3.8106E+01   3.9034E+01   2.1938E-06  0.0140
   3.9034E+01   3.9983E+01   2.1590E-06  0.0140
   3.9983E+01   4.0956E+01   2.0781E-06  0.0141
   4.0956E+01   4.1953E+01   1.9870E-06  0.0142
   4.1953E+01   4.2973E+01   1.9476E-06  0.0142
   4.2973E+01   4.4019E+01   1.9013E-06  0.0142
   4.4019E+01   4.5090E+01   1.8278E-06  0.0143
   4.5090E+01   4.6187E+01   1.7297E-06  0.0145
   4.6187E+01   4.7311E+01   1.6943E-06  0.0145
   4.7311E+01   4.8462E+01   1.3500E-06  0.0160
   4.8462E+01   4.9641E+01   6.6151E-07  0.0226
   4.9641E+01   5.0849E+01   6.5309E-07  0.0225
   5.0849E+01   5.2086E+01   1.7168E-07  0.0434
   5.2086E+01   5.3353E+01   0.0000E+00  0.0000
   5.3353E+01   5.4651E+01   0.0000E+00  0.0000
   5.4651E+01   5.5981E+01   0.0000E+00  0.0000
   5.5981E+01   5.7343E+01   0.0000E+00  0.0000
   5.7343E+01   5.8738E+01   0.0000E+00  0.0000
   5.8738E+01   6.0168E+01   0.0000E+00  0.0000
   6.0168E+01   6.1632E+01   0.0000E+00  0.0000
   6.1632E+01   6.3131E+01   0.0000E+00  0.0000
   6.3131E+01   6.4667E+01   0.0000E+00  0.0000
   6.4667E+01   6.6240E+01   0.0000E+00  0.0000
   6.6240E+01   6.7852E+01   0.0000E+00  0.0000
   6.7852E+01   6.9503E+01   0.0000E+00  0.0000
   6.9503E+01   7.1194E+01   0.0000E+00  0.0000
   7.1194E+01   7.2926E+01   0.0000E+00  0.0000
   7.2926E+01   7.4701E+01   0.0000E+00  0.0000
   7.4701E+01   7.6518E+01   0.0000E+00  0.0000
   7.6518E+01   7.8380E+01   0.0000E+00  0.0000
   7.8380E+01   8.0287E+01   0.0000E+00  0.0000
   8.0287E+01   8.2240E+01   0.0000E+00  0.0000
   8.2240E+01   8.4241E+01   0.0000E+00  0.0000
   8.4241E+01   8.6291E+01   0.0000E+00  0.0000
   8.6291E+01   8.8391E+01   0.0000E+00  0.0000
   8.8391E+01   9.0541E+01   0.0000E+00  0.0000
   9.0541E+01   9.2744E+01   0.0000E+00  0.0000
   9.2744E+01   9.5001E+01   0.0000E+00  0.0000
   9.5001E+01   9.7312E+01   0.0000E+00  0.0000
   9.7312E+01   9.9680E+01   0.0000E+00  0.0000
   9.9680E+01   1.0211E+02   0.0000E+00  0.0000
   1.0211E+02   1.0459E+02   0.0000E+00  0.0000
   1.0459E+02   1.0713E+02   0.0000E+00  0.0000
   1.0713E+02   1.0974E+02   0.0000E+00  0.0000
   1.0974E+02   1.1241E+02   0.0000E+00  0.0000
   1.1241E+02   1.1515E+02   0.0000E+00  0.0000
   1.1515E+02   1.1795E+02   0.0000E+00  0.0000
   1.1795E+02   1.2082E+02   0.0000E+00  0.0000
   1.2082E+02   1.2376E+02   0.0000E+00  0.0000
   1.2376E+02   1.2677E+02   0.0000E+00  0.0000
   1.2677E+02   1.2985E+02   0.0000E+00  0.0000
   1.2985E+02   1.3301E+02   0.0000E+00  0.0000
   1.3301E+02   1.3625E+02   0.0000E+00  0.0000
   1.3625E+02   1.3956E+02   0.0000E+00  0.0000
   1.3956E+02   1.4296E+02   0.0000E+00  0.0000
   1.4296E+02   1.4644E+02   0.0000E+00  0.0000
   1.4644E+02   1.5000E+02   0.0000E+00  0.0000

#   sum over                 1.0894E-06
'no. =    1   reg = 100 - 200'
msuc: {\huge [t-cross] in region mesh}
msdr: {\it plotted by \ANGEL \version}
msdl: {\it calculated by \PHITS  3.26}
wt: s(0.7)
\vspace{-3}
  region surface crossing
  area  &=&   1.0000E+00 [cm^2]
e:
 
# Information for Restart Calculation
# This calculation was newly started
# istdev =  2 # 1:Batch variance, 2:History variance
# resc2  = 2.50000000000000000E+09 # Total source weight or Total source weight / maxcas
# resc3  = 2.50000000000000000E+09 # Total history number or Total batch number
# maxcas =   100000000 # History / Batch, only used for istdev=1
# bitrseed = 1100001110001001100010001100011001110101000011000110100101010100 # bit data of rseed
