[ T-Cross ]
    title = [t-cross] in region mesh
     mesh =  reg            # mesh type is region-wise
      reg =    1            # number of crossing regions
      non     r-from    r-to       area
      1       106       206        1.000000    
   e-type =    3            # e-mesh is log given by emin, emax and ne
     emin =  1.0000000E-02  # minimum value of e-mesh points
     emax =   150.0000      # maximum value of e-mesh points
#    edel =  2.4039514E-02  # mesh width of e-mesh points
       ne =    400          # number of e-mesh points
#    data = ( e(i), i = 1, ne + 1 )
#           1.00000E-02  1.02433E-02  1.04925E-02  1.07478E-02  1.10093E-02
#           1.12772E-02  1.15516E-02  1.18326E-02  1.21205E-02  1.24154E-02
#           1.27175E-02  1.30269E-02  1.33439E-02  1.36686E-02  1.40011E-02
#           1.43418E-02  1.46907E-02  1.50482E-02  1.54143E-02  1.57894E-02
#           1.61735E-02  1.65670E-02  1.69701E-02  1.73830E-02  1.78060E-02
#           1.82392E-02  1.86830E-02  1.91375E-02  1.96032E-02  2.00801E-02
#           2.05687E-02  2.10692E-02  2.15818E-02  2.21069E-02  2.26448E-02
#           2.31957E-02  2.37601E-02  2.43382E-02  2.49304E-02  2.55369E-02
#           2.61583E-02  2.67947E-02  2.74467E-02  2.81145E-02  2.87985E-02
#           2.94992E-02  3.02169E-02  3.09521E-02  3.17052E-02  3.24766E-02
#           3.32668E-02  3.40762E-02  3.49053E-02  3.57546E-02  3.66246E-02
#           3.75157E-02  3.84284E-02  3.93634E-02  4.03212E-02  4.13022E-02
#           4.23071E-02  4.33365E-02  4.43909E-02  4.54710E-02  4.65773E-02
#           4.77106E-02  4.88714E-02  5.00605E-02  5.12785E-02  5.25262E-02
#           5.38042E-02  5.51133E-02  5.64542E-02  5.78278E-02  5.92348E-02
#           6.06760E-02  6.21523E-02  6.36645E-02  6.52135E-02  6.68002E-02
#           6.84255E-02  7.00904E-02  7.17957E-02  7.35426E-02  7.53319E-02
#           7.71648E-02  7.90423E-02  8.09655E-02  8.29354E-02  8.49533E-02
#           8.70203E-02  8.91376E-02  9.13064E-02  9.35279E-02  9.58035E-02
#           9.81345E-02  1.00522E-01  1.02968E-01  1.05473E-01  1.08040E-01
#           1.10668E-01  1.13361E-01  1.16119E-01  1.18944E-01  1.21838E-01
#           1.24803E-01  1.27839E-01  1.30950E-01  1.34136E-01  1.37399E-01
#           1.40742E-01  1.44167E-01  1.47675E-01  1.51268E-01  1.54948E-01
#           1.58718E-01  1.62580E-01  1.66535E-01  1.70587E-01  1.74738E-01
#           1.78989E-01  1.83344E-01  1.87805E-01  1.92375E-01  1.97055E-01
#           2.01850E-01  2.06761E-01  2.11792E-01  2.16945E-01  2.22223E-01
#           2.27630E-01  2.33169E-01  2.38842E-01  2.44653E-01  2.50605E-01
#           2.56703E-01  2.62949E-01  2.69346E-01  2.75900E-01  2.82613E-01
#           2.89489E-01  2.96532E-01  3.03747E-01  3.11138E-01  3.18708E-01
#           3.26462E-01  3.34405E-01  3.42542E-01  3.50876E-01  3.59413E-01
#           3.68158E-01  3.77116E-01  3.86291E-01  3.95690E-01  4.05317E-01
#           4.15179E-01  4.25281E-01  4.35628E-01  4.46227E-01  4.57084E-01
#           4.68205E-01  4.79597E-01  4.91266E-01  5.03219E-01  5.15463E-01
#           5.28005E-01  5.40851E-01  5.54011E-01  5.67490E-01  5.81298E-01
#           5.95441E-01  6.09929E-01  6.24769E-01  6.39970E-01  6.55541E-01
#           6.71491E-01  6.87828E-01  7.04564E-01  7.21706E-01  7.39266E-01
#           7.57253E-01  7.75678E-01  7.94551E-01  8.13883E-01  8.33685E-01
#           8.53969E-01  8.74747E-01  8.96030E-01  9.17831E-01  9.40163E-01
#           9.63038E-01  9.86469E-01  1.01047E+00  1.03506E+00  1.06024E+00
#           1.08604E+00  1.11246E+00  1.13953E+00  1.16725E+00  1.19565E+00
#           1.22474E+00  1.25454E+00  1.28507E+00  1.31633E+00  1.34836E+00
#           1.38117E+00  1.41477E+00  1.44920E+00  1.48446E+00  1.52057E+00
#           1.55757E+00  1.59547E+00  1.63429E+00  1.67405E+00  1.71478E+00
#           1.75650E+00  1.79924E+00  1.84302E+00  1.88786E+00  1.93379E+00
#           1.98084E+00  2.02904E+00  2.07841E+00  2.12898E+00  2.18078E+00
#           2.23384E+00  2.28819E+00  2.34386E+00  2.40089E+00  2.45930E+00
#           2.51914E+00  2.58043E+00  2.64322E+00  2.70753E+00  2.77341E+00
#           2.84088E+00  2.91001E+00  2.98081E+00  3.05333E+00  3.12762E+00
#           3.20372E+00  3.28167E+00  3.36152E+00  3.44330E+00  3.52708E+00
#           3.61290E+00  3.70080E+00  3.79085E+00  3.88308E+00  3.97756E+00
#           4.07434E+00  4.17347E+00  4.27501E+00  4.37903E+00  4.48557E+00
#           4.59471E+00  4.70650E+00  4.82102E+00  4.93832E+00  5.05847E+00
#           5.18155E+00  5.30762E+00  5.43676E+00  5.56904E+00  5.70453E+00
#           5.84333E+00  5.98550E+00  6.13114E+00  6.28031E+00  6.43312E+00
#           6.58964E+00  6.74997E+00  6.91420E+00  7.08243E+00  7.25475E+00
#           7.43126E+00  7.61207E+00  7.79728E+00  7.98700E+00  8.18133E+00
#           8.38038E+00  8.58428E+00  8.79315E+00  9.00709E+00  9.22624E+00
#           9.45072E+00  9.68067E+00  9.91620E+00  1.01575E+01  1.04046E+01
#           1.06578E+01  1.09171E+01  1.11827E+01  1.14548E+01  1.17335E+01
#           1.20190E+01  1.23114E+01  1.26109E+01  1.29178E+01  1.32321E+01
#           1.35540E+01  1.38838E+01  1.42216E+01  1.45676E+01  1.49221E+01
#           1.52851E+01  1.56570E+01  1.60380E+01  1.64282E+01  1.68279E+01
#           1.72374E+01  1.76568E+01  1.80864E+01  1.85264E+01  1.89772E+01
#           1.94389E+01  1.99119E+01  2.03963E+01  2.08926E+01  2.14009E+01
#           2.19216E+01  2.24550E+01  2.30014E+01  2.35610E+01  2.41343E+01
#           2.47215E+01  2.53230E+01  2.59391E+01  2.65702E+01  2.72167E+01
#           2.78789E+01  2.85572E+01  2.92520E+01  2.99637E+01  3.06928E+01
#           3.14396E+01  3.22045E+01  3.29881E+01  3.37907E+01  3.46128E+01
#           3.54550E+01  3.63177E+01  3.72013E+01  3.81064E+01  3.90336E+01
#           3.99833E+01  4.09561E+01  4.19526E+01  4.29734E+01  4.40189E+01
#           4.50900E+01  4.61870E+01  4.73108E+01  4.84619E+01  4.96410E+01
#           5.08488E+01  5.20860E+01  5.33533E+01  5.46514E+01  5.59812E+01
#           5.73432E+01  5.87384E+01  6.01676E+01  6.16315E+01  6.31311E+01
#           6.46671E+01  6.62405E+01  6.78522E+01  6.95031E+01  7.11941E+01
#           7.29263E+01  7.47007E+01  7.65182E+01  7.83800E+01  8.02870E+01
#           8.22405E+01  8.42414E+01  8.62911E+01  8.83906E+01  9.05412E+01
#           9.27442E+01  9.50007E+01  9.73122E+01  9.96799E+01  1.02105E+02
#           1.04589E+02  1.07134E+02  1.09741E+02  1.12411E+02  1.15146E+02
#           1.17948E+02  1.20817E+02  1.23757E+02  1.26768E+02  1.29852E+02
#           1.33012E+02  1.36248E+02  1.39563E+02  1.42959E+02  1.46437E+02
#           1.50000E+02
     unit =    2            # unit is [1/cm^2/(MeV/n)/source]
     axis =  eng            # axis of output
     file = detector-07.out  # file name of output for the above axis
   output = f-curr          # surface crossing forward current spectrum
     part =  neutron  
# kf/name :  2112     
#    used :        main (  %)        temp (  %)       total (  %)
#  memory :         414 (  0)           0 (  0)         414 (  0)

#------------------------------------------------------------------------------
#newpage:
#   no. =    1   reg = 106 - 206

x: Energy [MeV/n]
y:  F-Curr [1/cm^2/(MeV/n)/source]         
p: xlog ylog afac(0.8) form(0.9)
h: n            x            y(neutron ),hh0l   n 
#  e-lower      e-upper      neutron     r.err 
   1.0000E-02   1.0243E-02   2.1373E-04  0.1171
   1.0243E-02   1.0493E-02   2.2057E-04  0.1140
   1.0493E-02   1.0748E-02   2.0976E-04  0.1155
   1.0748E-02   1.1009E-02   1.8836E-04  0.1204
   1.1009E-02   1.1277E-02   1.9458E-04  0.1170
   1.1277E-02   1.1552E-02   1.6908E-04  0.1240
   1.1552E-02   1.1833E-02   1.8261E-04  0.1179
   1.1833E-02   1.2121E-02   1.7783E-04  0.1179
   1.2121E-02   1.2415E-02   1.7872E-04  0.1163
   1.2415E-02   1.2718E-02   1.8197E-04  0.1140
   1.2718E-02   1.3027E-02   1.6112E-04  0.1195
   1.3027E-02   1.3344E-02   1.8667E-04  0.1098
   1.3344E-02   1.3669E-02   1.7153E-04  0.1132
   1.3669E-02   1.4001E-02   1.5910E-04  0.1159
   1.4001E-02   1.4342E-02   1.4040E-04  0.1222
   1.4342E-02   1.4691E-02   1.5754E-04  0.1140
   1.4691E-02   1.5048E-02   1.5979E-04  0.1118
   1.5048E-02   1.5414E-02   1.2440E-04  0.1250
   1.5414E-02   1.5789E-02   1.3474E-04  0.1187
   1.5789E-02   1.6174E-02   1.4870E-04  0.1118
   1.6174E-02   1.6567E-02   1.6982E-04  0.1032
   1.6567E-02   1.6970E-02   1.1964E-04  0.1213
   1.6970E-02   1.7383E-02   1.3400E-04  0.1133
   1.7383E-02   1.7806E-02   1.3855E-04  0.1102
   1.7806E-02   1.8239E-02   1.4159E-04  0.1078
   1.8239E-02   1.8683E-02   1.0766E-04  0.1222
   1.8683E-02   1.9138E-02   1.1108E-04  0.1187
   1.9138E-02   1.9603E-02   1.0246E-04  0.1222
   1.9603E-02   2.0080E-02   1.2611E-04  0.1088
   2.0080E-02   2.0569E-02   1.0375E-04  0.1187
   2.0569E-02   2.1069E-02   1.3217E-04  0.1038
   2.1069E-02   2.1582E-02   1.2672E-04  0.1048
   2.1582E-02   2.2107E-02   8.8902E-05  0.1234
   2.2107E-02   2.2645E-02   1.0592E-04  0.1118
   2.2645E-02   2.3196E-02   1.0881E-04  0.1091
   2.3196E-02   2.3760E-02   1.0363E-04  0.1104
   2.3760E-02   2.4338E-02   1.0789E-04  0.1067
   2.4338E-02   2.4930E-02   1.0490E-04  0.1072
   2.4930E-02   2.5537E-02   9.4139E-05  0.1118
   2.5537E-02   2.6158E-02   8.8292E-05  0.1140
   2.6158E-02   2.6795E-02   9.7180E-05  0.1072
   2.6795E-02   2.7447E-02   8.5227E-05  0.1132
   2.7447E-02   2.8114E-02   7.8758E-05  0.1163
   2.8114E-02   2.8799E-02   8.9734E-05  0.1078
   2.8799E-02   2.9499E-02   9.0497E-05  0.1060
   2.9499E-02   3.0217E-02   8.3561E-05  0.1091
   3.0217E-02   3.0952E-02   8.6446E-05  0.1060
   3.0952E-02   3.1705E-02   7.3036E-05  0.1137
   3.1705E-02   3.2477E-02   7.4030E-05  0.1118
   3.2477E-02   3.3267E-02   7.7638E-05  0.1078
   3.3267E-02   3.4076E-02   7.6559E-05  0.1072
   3.4076E-02   3.4905E-02   7.3636E-05  0.1079
   3.4905E-02   3.5755E-02   7.7328E-05  0.1043
   3.5755E-02   3.6625E-02   6.2909E-05  0.1140
   3.6625E-02   3.7516E-02   7.3770E-05  0.1041
   3.7516E-02   3.8428E-02   5.2385E-05  0.1222
   3.8428E-02   3.9363E-02   7.5270E-05  0.1005
   3.9363E-02   4.0321E-02   7.4917E-05  0.0996
   4.0321E-02   4.1302E-02   6.0254E-05  0.1098
   4.1302E-02   4.2307E-02   7.7207E-05  0.0958
   4.2307E-02   4.3337E-02   5.7267E-05  0.1098
   4.3337E-02   4.4391E-02   6.0881E-05  0.1054
   4.4391E-02   4.5471E-02   5.2098E-05  0.1125
   4.5471E-02   4.6577E-02   5.0095E-05  0.1132
   4.6577E-02   4.7711E-02   5.0333E-05  0.1118
   4.7711E-02   4.8871E-02   5.2886E-05  0.1078
   4.8871E-02   5.0061E-02   5.3983E-05  0.1054
   5.0061E-02   5.1279E-02   5.9313E-05  0.0993
   5.1279E-02   5.2526E-02   5.0353E-05  0.1066
   5.2526E-02   5.3804E-02   4.9398E-05  0.1061
   5.3804E-02   5.5113E-02   5.0715E-05  0.1037
   5.5113E-02   5.6454E-02   4.5620E-05  0.1079
   5.6454E-02   5.7828E-02   4.5016E-05  0.1073
   5.7828E-02   5.9235E-02   4.9176E-05  0.1015
   5.9235E-02   6.0676E-02   4.3961E-05  0.1060
   6.0676E-02   6.2152E-02   4.0240E-05  0.1092
   6.2152E-02   6.3665E-02   3.8241E-05  0.1111
   6.3665E-02   6.5214E-02   4.1459E-05  0.1054
   6.5214E-02   6.6800E-02   5.0201E-05  0.0945
   6.6800E-02   6.8426E-02   3.8643E-05  0.1066
   6.8426E-02   7.0090E-02   4.0742E-05  0.1026
   7.0090E-02   7.1796E-02   3.9085E-05  0.1032
   7.1796E-02   7.3543E-02   2.7383E-05  0.1222
   7.3543E-02   7.5332E-02   3.4245E-05  0.1078
   7.5332E-02   7.7165E-02   4.0499E-05  0.0981
   7.7165E-02   7.9042E-02   3.5737E-05  0.1031
   7.9042E-02   8.0965E-02   4.2203E-05  0.0937
   8.0965E-02   8.2935E-02   3.2714E-05  0.1051
   8.2935E-02   8.4953E-02   3.1501E-05  0.1057
   8.4953E-02   8.7020E-02   2.9381E-05  0.1083
   8.7020E-02   8.9138E-02   4.0723E-05  0.0909
   8.9138E-02   9.1306E-02   2.6325E-05  0.1118
   9.1306E-02   9.3528E-02   2.7632E-05  0.1078
   9.3528E-02   9.5804E-02   2.9803E-05  0.1026
   9.5804E-02   9.8134E-02   3.0187E-05  0.1005
   9.8134E-02   1.0052E-01   2.5388E-05  0.1085
   1.0052E-01   1.0297E-01   2.8574E-05  0.1008
   1.0297E-01   1.0547E-01   2.7630E-05  0.1015
   1.0547E-01   1.0804E-01   2.8251E-05  0.0991
   1.0804E-01   1.1067E-01   3.3656E-05  0.0897
   1.1067E-01   1.1336E-01   3.6562E-05  0.0850
   1.1336E-01   1.1612E-01   3.4299E-05  0.0868
   1.1612E-01   1.1894E-01   3.5386E-05  0.0844
   1.1894E-01   1.2184E-01   3.4754E-05  0.0841
   1.2184E-01   1.2480E-01   3.7343E-05  0.0801
   1.2480E-01   1.2784E-01   3.4130E-05  0.0829
   1.2784E-01   1.3095E-01   4.6001E-05  0.0706
   1.3095E-01   1.3414E-01   4.3063E-05  0.0721
   1.3414E-01   1.3740E-01   4.7073E-05  0.0681
   1.3740E-01   1.4074E-01   4.7379E-05  0.0671
   1.4074E-01   1.4417E-01   4.9312E-05  0.0649
   1.4417E-01   1.4767E-01   4.6898E-05  0.0658
   1.4767E-01   1.5127E-01   4.7672E-05  0.0645
   1.5127E-01   1.5495E-01   5.4549E-05  0.0596
   1.5495E-01   1.5872E-01   5.5551E-05  0.0583
   1.5872E-01   1.6258E-01   5.6845E-05  0.0570
   1.6258E-01   1.6654E-01   5.1373E-05  0.0592
   1.6654E-01   1.7059E-01   5.8313E-05  0.0549
   1.7059E-01   1.7474E-01   5.7281E-05  0.0547
   1.7474E-01   1.7899E-01   5.8954E-05  0.0533
   1.7899E-01   1.8334E-01   6.5063E-05  0.0501
   1.8334E-01   1.8781E-01   6.3033E-05  0.0503
   1.8781E-01   1.9237E-01   6.2278E-05  0.0500
   1.9237E-01   1.9706E-01   7.2783E-05  0.0457
   1.9706E-01   2.0185E-01   6.2193E-05  0.0489
   2.0185E-01   2.0676E-01   7.3595E-05  0.0444
   2.0676E-01   2.1179E-01   7.7953E-05  0.0426
   2.1179E-01   2.1694E-01   7.5502E-05  0.0428
   2.1694E-01   2.2222E-01   8.4090E-05  0.0401
   2.2222E-01   2.2763E-01   7.6327E-05  0.0415
   2.2763E-01   2.3317E-01   8.6844E-05  0.0385
   2.3317E-01   2.3884E-01   8.1598E-05  0.0392
   2.3884E-01   2.4465E-01   8.3674E-05  0.0383
   2.4465E-01   2.5061E-01   9.1984E-05  0.0361
   2.5061E-01   2.5670E-01   9.2922E-05  0.0355
   2.5670E-01   2.6295E-01   9.2963E-05  0.0350
   2.6295E-01   2.6935E-01   1.0086E-04  0.0332
   2.6935E-01   2.7590E-01   9.6538E-05  0.0335
   2.7590E-01   2.8261E-01   1.0360E-04  0.0320
   2.8261E-01   2.8949E-01   1.0164E-04  0.0319
   2.8949E-01   2.9653E-01   9.7751E-05  0.0322
   2.9653E-01   3.0375E-01   1.0402E-04  0.0308
   3.0375E-01   3.1114E-01   1.1211E-04  0.0293
   3.1114E-01   3.1871E-01   1.1276E-04  0.0289
   3.1871E-01   3.2646E-01   1.0822E-04  0.0291
   3.2646E-01   3.3441E-01   1.1902E-04  0.0274
   3.3441E-01   3.4254E-01   1.2325E-04  0.0266
   3.4254E-01   3.5088E-01   1.2244E-04  0.0264
   3.5088E-01   3.5941E-01   1.2570E-04  0.0257
   3.5941E-01   3.6816E-01   1.2630E-04  0.0254
   3.6816E-01   3.7712E-01   1.3075E-04  0.0247
   3.7712E-01   3.8629E-01   1.3797E-04  0.0237
   3.8629E-01   3.9569E-01   1.3378E-04  0.0238
   3.9569E-01   4.0532E-01   1.3874E-04  0.0231
   4.0532E-01   4.1518E-01   1.4661E-04  0.0222
   4.1518E-01   4.2528E-01   1.4828E-04  0.0218
   4.2528E-01   4.3563E-01   1.5057E-04  0.0214
   4.3563E-01   4.4623E-01   1.5263E-04  0.0210
   4.4623E-01   4.5708E-01   1.5733E-04  0.0204
   4.5708E-01   4.6821E-01   1.5467E-04  0.0203
   4.6821E-01   4.7960E-01   1.6419E-04  0.0195
   4.7960E-01   4.9127E-01   1.6241E-04  0.0194
   4.9127E-01   5.0322E-01   1.6920E-04  0.0188
   5.0322E-01   5.1546E-01   1.7356E-04  0.0183
   5.1546E-01   5.2800E-01   1.7608E-04  0.0179
   5.2800E-01   5.4085E-01   1.8194E-04  0.0174
   5.4085E-01   5.5401E-01   1.8557E-04  0.0171
   5.5401E-01   5.6749E-01   1.8608E-04  0.0168
   5.6749E-01   5.8130E-01   1.9738E-04  0.0161
   5.8130E-01   5.9544E-01   1.9481E-04  0.0161
   5.9544E-01   6.0993E-01   2.0170E-04  0.0156
   6.0993E-01   6.2477E-01   1.9952E-04  0.0155
   6.2477E-01   6.3997E-01   2.0453E-04  0.0151
   6.3997E-01   6.5554E-01   2.0179E-04  0.0150
   6.5554E-01   6.7149E-01   2.0960E-04  0.0146
   6.7149E-01   6.8783E-01   2.1012E-04  0.0144
   6.8783E-01   7.0456E-01   2.1299E-04  0.0141
   7.0456E-01   7.2171E-01   2.1365E-04  0.0139
   7.2171E-01   7.3927E-01   2.1474E-04  0.0137
   7.3927E-01   7.5725E-01   2.2343E-04  0.0133
   7.5725E-01   7.7568E-01   2.2782E-04  0.0130
   7.7568E-01   7.9455E-01   2.2417E-04  0.0129
   7.9455E-01   8.1388E-01   2.3117E-04  0.0126
   8.1388E-01   8.3368E-01   2.2648E-04  0.0126
   8.3368E-01   8.5397E-01   2.2980E-04  0.0123
   8.5397E-01   8.7475E-01   2.3625E-04  0.0120
   8.7475E-01   8.9603E-01   2.2877E-04  0.0121
   8.9603E-01   9.1783E-01   2.3988E-04  0.0116
   9.1783E-01   9.4016E-01   2.3617E-04  0.0116
   9.4016E-01   9.6304E-01   2.2689E-04  0.0117
   9.6304E-01   9.8647E-01   2.3168E-04  0.0114
   9.8647E-01   1.0105E+00   2.2841E-04  0.0114
   1.0105E+00   1.0351E+00   2.2639E-04  0.0113
   1.0351E+00   1.0602E+00   2.2332E-04  0.0112
   1.0602E+00   1.0860E+00   2.2598E-04  0.0110
   1.0860E+00   1.1125E+00   2.2890E-04  0.0108
   1.1125E+00   1.1395E+00   2.2452E-04  0.0108
   1.1395E+00   1.1673E+00   2.2985E-04  0.0105
   1.1673E+00   1.1957E+00   2.2918E-04  0.0104
   1.1957E+00   1.2247E+00   2.3290E-04  0.0102
   1.2247E+00   1.2545E+00   2.3115E-04  0.0101
   1.2545E+00   1.2851E+00   2.3091E-04  0.0100
   1.2851E+00   1.3163E+00   2.3734E-04  0.0097
   1.3163E+00   1.3484E+00   2.3697E-04  0.0096
   1.3484E+00   1.3812E+00   2.3598E-04  0.0095
   1.3812E+00   1.4148E+00   2.3798E-04  0.0094
   1.4148E+00   1.4492E+00   2.3541E-04  0.0093
   1.4492E+00   1.4845E+00   2.3167E-04  0.0093
   1.4845E+00   1.5206E+00   2.3022E-04  0.0092
   1.5206E+00   1.5576E+00   2.3083E-04  0.0091
   1.5576E+00   1.5955E+00   2.2911E-04  0.0090
   1.5955E+00   1.6343E+00   2.2796E-04  0.0089
   1.6343E+00   1.6741E+00   2.2318E-04  0.0089
   1.6741E+00   1.7148E+00   2.2037E-04  0.0088
   1.7148E+00   1.7565E+00   2.1599E-04  0.0088
   1.7565E+00   1.7992E+00   2.0938E-04  0.0088
   1.7992E+00   1.8430E+00   1.9903E-04  0.0089
   1.8430E+00   1.8879E+00   1.8278E-04  0.0092
   1.8879E+00   1.9338E+00   1.8050E-04  0.0091
   1.9338E+00   1.9808E+00   1.7793E-04  0.0091
   1.9808E+00   2.0290E+00   1.7213E-04  0.0091
   2.0290E+00   2.0784E+00   1.7672E-04  0.0088
   2.0784E+00   2.1290E+00   1.7997E-04  0.0086
   2.1290E+00   2.1808E+00   1.8053E-04  0.0085
   2.1808E+00   2.2338E+00   1.8420E-04  0.0083
   2.2338E+00   2.2882E+00   1.7866E-04  0.0084
   2.2882E+00   2.3439E+00   1.7283E-04  0.0084
   2.3439E+00   2.4009E+00   1.6535E-04  0.0085
   2.4009E+00   2.4593E+00   1.6610E-04  0.0084
   2.4593E+00   2.5191E+00   1.6520E-04  0.0083
   2.5191E+00   2.5804E+00   1.6124E-04  0.0083
   2.5804E+00   2.6432E+00   1.6264E-04  0.0082
   2.6432E+00   2.7075E+00   1.5918E-04  0.0082
   2.7075E+00   2.7734E+00   1.5828E-04  0.0081
   2.7734E+00   2.8409E+00   1.5885E-04  0.0080
   2.8409E+00   2.9100E+00   1.5506E-04  0.0080
   2.9100E+00   2.9808E+00   1.5201E-04  0.0080
   2.9808E+00   3.0533E+00   1.5335E-04  0.0079
   3.0533E+00   3.1276E+00   1.4975E-04  0.0079
   3.1276E+00   3.2037E+00   1.5020E-04  0.0078
   3.2037E+00   3.2817E+00   1.4652E-04  0.0078
   3.2817E+00   3.3615E+00   1.4317E-04  0.0078
   3.3615E+00   3.4433E+00   1.4449E-04  0.0076
   3.4433E+00   3.5271E+00   1.4345E-04  0.0076
   3.5271E+00   3.6129E+00   1.4390E-04  0.0075
   3.6129E+00   3.7008E+00   1.3961E-04  0.0075
   3.7008E+00   3.7908E+00   1.3881E-04  0.0074
   3.7908E+00   3.8831E+00   1.3675E-04  0.0074
   3.8831E+00   3.9776E+00   1.3517E-04  0.0074
   3.9776E+00   4.0743E+00   1.3103E-04  0.0074
   4.0743E+00   4.1735E+00   1.3239E-04  0.0073
   4.1735E+00   4.2750E+00   1.2874E-04  0.0073
   4.2750E+00   4.3790E+00   1.2824E-04  0.0072
   4.3790E+00   4.4856E+00   1.2344E-04  0.0073
   4.4856E+00   4.5947E+00   1.2200E-04  0.0072
   4.5947E+00   4.7065E+00   1.2028E-04  0.0072
   4.7065E+00   4.8210E+00   1.1899E-04  0.0071
   4.8210E+00   4.9383E+00   1.1763E-04  0.0071
   4.9383E+00   5.0585E+00   1.1508E-04  0.0071
   5.0585E+00   5.1815E+00   1.1348E-04  0.0070
   5.1815E+00   5.3076E+00   1.1382E-04  0.0069
   5.3076E+00   5.4368E+00   1.1218E-04  0.0069
   5.4368E+00   5.5690E+00   1.1137E-04  0.0069
   5.5690E+00   5.7045E+00   1.0887E-04  0.0069
   5.7045E+00   5.8433E+00   1.0880E-04  0.0068
   5.8433E+00   5.9855E+00   1.0799E-04  0.0067
   5.9855E+00   6.1311E+00   1.0702E-04  0.0067
   6.1311E+00   6.2803E+00   1.0801E-04  0.0066
   6.2803E+00   6.4331E+00   1.0593E-04  0.0066
   6.4331E+00   6.5896E+00   1.0412E-04  0.0065
   6.5896E+00   6.7500E+00   1.0368E-04  0.0065
   6.7500E+00   6.9142E+00   1.0313E-04  0.0064
   6.9142E+00   7.0824E+00   1.0088E-04  0.0064
   7.0824E+00   7.2548E+00   1.0232E-04  0.0063
   7.2548E+00   7.4313E+00   9.9883E-05  0.0063
   7.4313E+00   7.6121E+00   9.9943E-05  0.0062
   7.6121E+00   7.7973E+00   9.9294E-05  0.0062
   7.7973E+00   7.9870E+00   9.8111E-05  0.0061
   7.9870E+00   8.1813E+00   9.6440E-05  0.0061
   8.1813E+00   8.3804E+00   9.6942E-05  0.0060
   8.3804E+00   8.5843E+00   9.6427E-05  0.0060
   8.5843E+00   8.7931E+00   9.5076E-05  0.0059
   8.7931E+00   9.0071E+00   9.4837E-05  0.0059
   9.0071E+00   9.2262E+00   9.4580E-05  0.0058
   9.2262E+00   9.4507E+00   9.3549E-05  0.0058
   9.4507E+00   9.6807E+00   9.3024E-05  0.0057
   9.6807E+00   9.9162E+00   9.1500E-05  0.0057
   9.9162E+00   1.0157E+01   9.4645E-05  0.0056
   1.0157E+01   1.0405E+01   9.3642E-05  0.0055
   1.0405E+01   1.0658E+01   9.2856E-05  0.0055
   1.0658E+01   1.0917E+01   9.2364E-05  0.0054
   1.0917E+01   1.1183E+01   8.9816E-05  0.0055
   1.1183E+01   1.1455E+01   8.9264E-05  0.0054
   1.1455E+01   1.1733E+01   8.8821E-05  0.0054
   1.1733E+01   1.2019E+01   8.8572E-05  0.0053
   1.2019E+01   1.2311E+01   8.8980E-05  0.0052
   1.2311E+01   1.2611E+01   8.8128E-05  0.0052
   1.2611E+01   1.2918E+01   8.8107E-05  0.0051
   1.2918E+01   1.3232E+01   8.7577E-05  0.0051
   1.3232E+01   1.3554E+01   8.7201E-05  0.0050
   1.3554E+01   1.3884E+01   8.7190E-05  0.0050
   1.3884E+01   1.4222E+01   8.6634E-05  0.0049
   1.4222E+01   1.4568E+01   8.6289E-05  0.0049
   1.4568E+01   1.4922E+01   8.6439E-05  0.0048
   1.4922E+01   1.5285E+01   8.6034E-05  0.0048
   1.5285E+01   1.5657E+01   8.6041E-05  0.0047
   1.5657E+01   1.6038E+01   8.6155E-05  0.0047
   1.6038E+01   1.6428E+01   8.6283E-05  0.0046
   1.6428E+01   1.6828E+01   8.6092E-05  0.0046
   1.6828E+01   1.7237E+01   8.6226E-05  0.0045
   1.7237E+01   1.7657E+01   8.5495E-05  0.0045
   1.7657E+01   1.8086E+01   8.6743E-05  0.0044
   1.8086E+01   1.8526E+01   8.5907E-05  0.0043
   1.8526E+01   1.8977E+01   8.5926E-05  0.0043
   1.8977E+01   1.9439E+01   8.6378E-05  0.0042
   1.9439E+01   1.9912E+01   8.6804E-05  0.0042
   1.9912E+01   2.0396E+01   8.7785E-05  0.0041
   2.0396E+01   2.0893E+01   8.8301E-05  0.0040
   2.0893E+01   2.1401E+01   8.7194E-05  0.0040
   2.1401E+01   2.1922E+01   8.9065E-05  0.0039
   2.1922E+01   2.2455E+01   8.8471E-05  0.0039
   2.2455E+01   2.3001E+01   8.9245E-05  0.0038
   2.3001E+01   2.3561E+01   8.9522E-05  0.0038
   2.3561E+01   2.4134E+01   8.9962E-05  0.0037
   2.4134E+01   2.4721E+01   9.0415E-05  0.0037
   2.4721E+01   2.5323E+01   9.0439E-05  0.0036
   2.5323E+01   2.5939E+01   9.1012E-05  0.0036
   2.5939E+01   2.6570E+01   9.1379E-05  0.0035
   2.6570E+01   2.7217E+01   9.2219E-05  0.0035
   2.7217E+01   2.7879E+01   9.2706E-05  0.0034
   2.7879E+01   2.8557E+01   9.3642E-05  0.0034
   2.8557E+01   2.9252E+01   9.4512E-05  0.0033
   2.9252E+01   2.9964E+01   9.5246E-05  0.0032
   2.9964E+01   3.0693E+01   9.5806E-05  0.0032
   3.0693E+01   3.1440E+01   9.5726E-05  0.0032
   3.1440E+01   3.2205E+01   9.7103E-05  0.0031
   3.2205E+01   3.2988E+01   9.7456E-05  0.0031
   3.2988E+01   3.3791E+01   9.7675E-05  0.0030
   3.3791E+01   3.4613E+01   9.8199E-05  0.0030
   3.4613E+01   3.5455E+01   9.8016E-05  0.0029
   3.5455E+01   3.6318E+01   9.7818E-05  0.0029
   3.6318E+01   3.7201E+01   9.7679E-05  0.0029
   3.7201E+01   3.8106E+01   9.6865E-05  0.0029
   3.8106E+01   3.9034E+01   9.5833E-05  0.0028
   3.9034E+01   3.9983E+01   9.4766E-05  0.0028
   3.9983E+01   4.0956E+01   9.2510E-05  0.0028
   4.0956E+01   4.1953E+01   9.0686E-05  0.0028
   4.1953E+01   4.2973E+01   8.8938E-05  0.0028
   4.2973E+01   4.4019E+01   9.0118E-05  0.0028
   4.4019E+01   4.5090E+01   9.4733E-05  0.0027
   4.5090E+01   4.6187E+01   9.5705E-05  0.0026
   4.6187E+01   4.7311E+01   9.0550E-05  0.0026
   4.7311E+01   4.8462E+01   8.0104E-05  0.0028
   4.8462E+01   4.9641E+01   7.6235E-05  0.0028
   4.9641E+01   5.0849E+01   7.2955E-05  0.0028
   5.0849E+01   5.2086E+01   6.9705E-05  0.0029
   5.2086E+01   5.3353E+01   6.6512E-05  0.0029
   5.3353E+01   5.4651E+01   6.3381E-05  0.0029
   5.4651E+01   5.5981E+01   6.0035E-05  0.0030
   5.5981E+01   5.7343E+01   5.6431E-05  0.0030
   5.7343E+01   5.8738E+01   5.3263E-05  0.0031
   5.8738E+01   6.0168E+01   4.9391E-05  0.0032
   6.0168E+01   6.1632E+01   4.5690E-05  0.0033
   6.1632E+01   6.3131E+01   4.1872E-05  0.0034
   6.3131E+01   6.4667E+01   3.7633E-05  0.0035
   6.4667E+01   6.6240E+01   3.3664E-05  0.0037
   6.6240E+01   6.7852E+01   2.9439E-05  0.0039
   6.7852E+01   6.9503E+01   2.5014E-05  0.0042
   6.9503E+01   7.1194E+01   2.0855E-05  0.0045
   7.1194E+01   7.2926E+01   1.7032E-05  0.0049
   7.2926E+01   7.4701E+01   1.4068E-05  0.0053
   7.4701E+01   7.6518E+01   1.1826E-05  0.0058
   7.6518E+01   7.8380E+01   1.0113E-05  0.0062
   7.8380E+01   8.0287E+01   8.0424E-06  0.0068
   8.0287E+01   8.2240E+01   3.9893E-07  0.0303
   8.2240E+01   8.4241E+01   3.5697E-10  1.0000
   8.4241E+01   8.6291E+01   0.0000E+00  0.0000
   8.6291E+01   8.8391E+01   3.4021E-10  1.0000
   8.8391E+01   9.0541E+01   0.0000E+00  0.0000
   9.0541E+01   9.2744E+01   0.0000E+00  0.0000
   9.2744E+01   9.5001E+01   0.0000E+00  0.0000
   9.5001E+01   9.7312E+01   0.0000E+00  0.0000
   9.7312E+01   9.9680E+01   0.0000E+00  0.0000
   9.9680E+01   1.0211E+02   0.0000E+00  0.0000
   1.0211E+02   1.0459E+02   0.0000E+00  0.0000
   1.0459E+02   1.0713E+02   0.0000E+00  0.0000
   1.0713E+02   1.0974E+02   0.0000E+00  0.0000
   1.0974E+02   1.1241E+02   0.0000E+00  0.0000
   1.1241E+02   1.1515E+02   0.0000E+00  0.0000
   1.1515E+02   1.1795E+02   0.0000E+00  0.0000
   1.1795E+02   1.2082E+02   0.0000E+00  0.0000
   1.2082E+02   1.2376E+02   0.0000E+00  0.0000
   1.2376E+02   1.2677E+02   0.0000E+00  0.0000
   1.2677E+02   1.2985E+02   0.0000E+00  0.0000
   1.2985E+02   1.3301E+02   0.0000E+00  0.0000
   1.3301E+02   1.3625E+02   0.0000E+00  0.0000
   1.3625E+02   1.3956E+02   0.0000E+00  0.0000
   1.3956E+02   1.4296E+02   0.0000E+00  0.0000
   1.4296E+02   1.4644E+02   0.0000E+00  0.0000
   1.4644E+02   1.5000E+02   0.0000E+00  0.0000

#   sum over                 4.0254E-05
'no. =    1   reg = 106 - 206'
msuc: {\huge [t-cross] in region mesh}
msdr: {\it plotted by \ANGEL \version}
msdl: {\it calculated by \PHITS  3.26}
wt: s(0.7)
\vspace{-3}
  region surface crossing
  area  &=&   1.0000E+00 [cm^2]
e:
 
# Information for Restart Calculation
# This calculation was newly started
# istdev =  2 # 1:Batch variance, 2:History variance
# resc2  = 1.40000000000000000E+09 # Total source weight or Total source weight / maxcas
# resc3  = 1.40000000000000000E+09 # Total history number or Total batch number
# maxcas =   100000000 # History / Batch, only used for istdev=1
# bitrseed = 1101000110001001101011111100100010001101001010000111001101010101 # bit data of rseed
