[ T-Cross ]
    title = [t-cross] in region mesh
     mesh =  reg            # mesh type is region-wise
      reg =    1            # number of crossing regions
      non     r-from    r-to       area
      1       109       209        1.000000    
   e-type =    3            # e-mesh is log given by emin, emax and ne
     emin =  1.0000000E-02  # minimum value of e-mesh points
     emax =   150.0000      # maximum value of e-mesh points
#    edel =  2.4039514E-02  # mesh width of e-mesh points
       ne =    400          # number of e-mesh points
#    data = ( e(i), i = 1, ne + 1 )
#           1.00000E-02  1.02433E-02  1.04925E-02  1.07478E-02  1.10093E-02
#           1.12772E-02  1.15516E-02  1.18326E-02  1.21205E-02  1.24154E-02
#           1.27175E-02  1.30269E-02  1.33439E-02  1.36686E-02  1.40011E-02
#           1.43418E-02  1.46907E-02  1.50482E-02  1.54143E-02  1.57894E-02
#           1.61735E-02  1.65670E-02  1.69701E-02  1.73830E-02  1.78060E-02
#           1.82392E-02  1.86830E-02  1.91375E-02  1.96032E-02  2.00801E-02
#           2.05687E-02  2.10692E-02  2.15818E-02  2.21069E-02  2.26448E-02
#           2.31957E-02  2.37601E-02  2.43382E-02  2.49304E-02  2.55369E-02
#           2.61583E-02  2.67947E-02  2.74467E-02  2.81145E-02  2.87985E-02
#           2.94992E-02  3.02169E-02  3.09521E-02  3.17052E-02  3.24766E-02
#           3.32668E-02  3.40762E-02  3.49053E-02  3.57546E-02  3.66246E-02
#           3.75157E-02  3.84284E-02  3.93634E-02  4.03212E-02  4.13022E-02
#           4.23071E-02  4.33365E-02  4.43909E-02  4.54710E-02  4.65773E-02
#           4.77106E-02  4.88714E-02  5.00605E-02  5.12785E-02  5.25262E-02
#           5.38042E-02  5.51133E-02  5.64542E-02  5.78278E-02  5.92348E-02
#           6.06760E-02  6.21523E-02  6.36645E-02  6.52135E-02  6.68002E-02
#           6.84255E-02  7.00904E-02  7.17957E-02  7.35426E-02  7.53319E-02
#           7.71648E-02  7.90423E-02  8.09655E-02  8.29354E-02  8.49533E-02
#           8.70203E-02  8.91376E-02  9.13064E-02  9.35279E-02  9.58035E-02
#           9.81345E-02  1.00522E-01  1.02968E-01  1.05473E-01  1.08040E-01
#           1.10668E-01  1.13361E-01  1.16119E-01  1.18944E-01  1.21838E-01
#           1.24803E-01  1.27839E-01  1.30950E-01  1.34136E-01  1.37399E-01
#           1.40742E-01  1.44167E-01  1.47675E-01  1.51268E-01  1.54948E-01
#           1.58718E-01  1.62580E-01  1.66535E-01  1.70587E-01  1.74738E-01
#           1.78989E-01  1.83344E-01  1.87805E-01  1.92375E-01  1.97055E-01
#           2.01850E-01  2.06761E-01  2.11792E-01  2.16945E-01  2.22223E-01
#           2.27630E-01  2.33169E-01  2.38842E-01  2.44653E-01  2.50605E-01
#           2.56703E-01  2.62949E-01  2.69346E-01  2.75900E-01  2.82613E-01
#           2.89489E-01  2.96532E-01  3.03747E-01  3.11138E-01  3.18708E-01
#           3.26462E-01  3.34405E-01  3.42542E-01  3.50876E-01  3.59413E-01
#           3.68158E-01  3.77116E-01  3.86291E-01  3.95690E-01  4.05317E-01
#           4.15179E-01  4.25281E-01  4.35628E-01  4.46227E-01  4.57084E-01
#           4.68205E-01  4.79597E-01  4.91266E-01  5.03219E-01  5.15463E-01
#           5.28005E-01  5.40851E-01  5.54011E-01  5.67490E-01  5.81298E-01
#           5.95441E-01  6.09929E-01  6.24769E-01  6.39970E-01  6.55541E-01
#           6.71491E-01  6.87828E-01  7.04564E-01  7.21706E-01  7.39266E-01
#           7.57253E-01  7.75678E-01  7.94551E-01  8.13883E-01  8.33685E-01
#           8.53969E-01  8.74747E-01  8.96030E-01  9.17831E-01  9.40163E-01
#           9.63038E-01  9.86469E-01  1.01047E+00  1.03506E+00  1.06024E+00
#           1.08604E+00  1.11246E+00  1.13953E+00  1.16725E+00  1.19565E+00
#           1.22474E+00  1.25454E+00  1.28507E+00  1.31633E+00  1.34836E+00
#           1.38117E+00  1.41477E+00  1.44920E+00  1.48446E+00  1.52057E+00
#           1.55757E+00  1.59547E+00  1.63429E+00  1.67405E+00  1.71478E+00
#           1.75650E+00  1.79924E+00  1.84302E+00  1.88786E+00  1.93379E+00
#           1.98084E+00  2.02904E+00  2.07841E+00  2.12898E+00  2.18078E+00
#           2.23384E+00  2.28819E+00  2.34386E+00  2.40089E+00  2.45930E+00
#           2.51914E+00  2.58043E+00  2.64322E+00  2.70753E+00  2.77341E+00
#           2.84088E+00  2.91001E+00  2.98081E+00  3.05333E+00  3.12762E+00
#           3.20372E+00  3.28167E+00  3.36152E+00  3.44330E+00  3.52708E+00
#           3.61290E+00  3.70080E+00  3.79085E+00  3.88308E+00  3.97756E+00
#           4.07434E+00  4.17347E+00  4.27501E+00  4.37903E+00  4.48557E+00
#           4.59471E+00  4.70650E+00  4.82102E+00  4.93832E+00  5.05847E+00
#           5.18155E+00  5.30762E+00  5.43676E+00  5.56904E+00  5.70453E+00
#           5.84333E+00  5.98550E+00  6.13114E+00  6.28031E+00  6.43312E+00
#           6.58964E+00  6.74997E+00  6.91420E+00  7.08243E+00  7.25475E+00
#           7.43126E+00  7.61207E+00  7.79728E+00  7.98700E+00  8.18133E+00
#           8.38038E+00  8.58428E+00  8.79315E+00  9.00709E+00  9.22624E+00
#           9.45072E+00  9.68067E+00  9.91620E+00  1.01575E+01  1.04046E+01
#           1.06578E+01  1.09171E+01  1.11827E+01  1.14548E+01  1.17335E+01
#           1.20190E+01  1.23114E+01  1.26109E+01  1.29178E+01  1.32321E+01
#           1.35540E+01  1.38838E+01  1.42216E+01  1.45676E+01  1.49221E+01
#           1.52851E+01  1.56570E+01  1.60380E+01  1.64282E+01  1.68279E+01
#           1.72374E+01  1.76568E+01  1.80864E+01  1.85264E+01  1.89772E+01
#           1.94389E+01  1.99119E+01  2.03963E+01  2.08926E+01  2.14009E+01
#           2.19216E+01  2.24550E+01  2.30014E+01  2.35610E+01  2.41343E+01
#           2.47215E+01  2.53230E+01  2.59391E+01  2.65702E+01  2.72167E+01
#           2.78789E+01  2.85572E+01  2.92520E+01  2.99637E+01  3.06928E+01
#           3.14396E+01  3.22045E+01  3.29881E+01  3.37907E+01  3.46128E+01
#           3.54550E+01  3.63177E+01  3.72013E+01  3.81064E+01  3.90336E+01
#           3.99833E+01  4.09561E+01  4.19526E+01  4.29734E+01  4.40189E+01
#           4.50900E+01  4.61870E+01  4.73108E+01  4.84619E+01  4.96410E+01
#           5.08488E+01  5.20860E+01  5.33533E+01  5.46514E+01  5.59812E+01
#           5.73432E+01  5.87384E+01  6.01676E+01  6.16315E+01  6.31311E+01
#           6.46671E+01  6.62405E+01  6.78522E+01  6.95031E+01  7.11941E+01
#           7.29263E+01  7.47007E+01  7.65182E+01  7.83800E+01  8.02870E+01
#           8.22405E+01  8.42414E+01  8.62911E+01  8.83906E+01  9.05412E+01
#           9.27442E+01  9.50007E+01  9.73122E+01  9.96799E+01  1.02105E+02
#           1.04589E+02  1.07134E+02  1.09741E+02  1.12411E+02  1.15146E+02
#           1.17948E+02  1.20817E+02  1.23757E+02  1.26768E+02  1.29852E+02
#           1.33012E+02  1.36248E+02  1.39563E+02  1.42959E+02  1.46437E+02
#           1.50000E+02
     unit =    2            # unit is [1/cm^2/(MeV/n)/source]
     axis =  eng            # axis of output
     file = detector-10.out  # file name of output for the above axis
   output = f-curr          # surface crossing forward current spectrum
     part =  neutron  
# kf/name :  2112     
#    used :        main (  %)        temp (  %)       total (  %)
#  memory :         414 (  0)           0 (  0)         414 (  0)

#------------------------------------------------------------------------------
#newpage:
#   no. =    1   reg = 109 - 209

x: Energy [MeV/n]
y:  F-Curr [1/cm^2/(MeV/n)/source]         
p: xlog ylog afac(0.8) form(0.9)
h: n            x            y(neutron ),hh0l   n 
#  e-lower      e-upper      neutron     r.err 
   1.0000E-02   1.0243E-02   3.1161E-04  0.0968
   1.0243E-02   1.0493E-02   3.3386E-04  0.0924
   1.0493E-02   1.0748E-02   3.0060E-04  0.0962
   1.0748E-02   1.1009E-02   2.6254E-04  0.1016
   1.1009E-02   1.1277E-02   2.7608E-04  0.0981
   1.1277E-02   1.1552E-02   3.2968E-04  0.0886
   1.1552E-02   1.1833E-02   2.3827E-04  0.1032
   1.1833E-02   1.2121E-02   2.9372E-04  0.0918
   1.2121E-02   1.2415E-02   2.4561E-04  0.0991
   1.2415E-02   1.2718E-02   2.5033E-04  0.0971
   1.2718E-02   1.3027E-02   2.5551E-04  0.0949
   1.3027E-02   1.3344E-02   2.6855E-04  0.0914
   1.3344E-02   1.3669E-02   2.5758E-04  0.0923
   1.3669E-02   1.4001E-02   2.2474E-04  0.0976
   1.4001E-02   1.4342E-02   2.3215E-04  0.0948
   1.4342E-02   1.4691E-02   2.3109E-04  0.0941
   1.4691E-02   1.5048E-02   2.3427E-04  0.0921
   1.5048E-02   1.5414E-02   2.1775E-04  0.0945
   1.5414E-02   1.5789E-02   2.2950E-04  0.0909
   1.5789E-02   1.6174E-02   2.1997E-04  0.0916
   1.6174E-02   1.6567E-02   1.9435E-04  0.0964
   1.6567E-02   1.6970E-02   2.4046E-04  0.0858
   1.6970E-02   1.7383E-02   1.9232E-04  0.0947
   1.7383E-02   1.7806E-02   2.0383E-04  0.0909
   1.7806E-02   1.8239E-02   1.8546E-04  0.0941
   1.8239E-02   1.8683E-02   1.9557E-04  0.0905
   1.8683E-02   1.9138E-02   1.7831E-04  0.0937
   1.9138E-02   1.9603E-02   1.5895E-04  0.0981
   1.9603E-02   2.0080E-02   1.6732E-04  0.0945
   2.0080E-02   2.0569E-02   1.6907E-04  0.0929
   2.0569E-02   2.1069E-02   1.6292E-04  0.0933
   2.1069E-02   2.1582E-02   1.6980E-04  0.0905
   2.1582E-02   2.2107E-02   1.6913E-04  0.0894
   2.2107E-02   2.2645E-02   1.5788E-04  0.0917
   2.2645E-02   2.3196E-02   1.5217E-04  0.0920
   2.3196E-02   2.3760E-02   1.4847E-04  0.0921
   2.3760E-02   2.4338E-02   1.6358E-04  0.0867
   2.4338E-02   2.4930E-02   1.6003E-04  0.0867
   2.4930E-02   2.5537E-02   1.3117E-04  0.0945
   2.5537E-02   2.6158E-02   1.6150E-04  0.0842
   2.6158E-02   2.6795E-02   1.3785E-04  0.0902
   2.6795E-02   2.7447E-02   1.1208E-04  0.0986
   2.7447E-02   2.8114E-02   1.4087E-04  0.0870
   2.8114E-02   2.8799E-02   1.2286E-04  0.0921
   2.8799E-02   2.9499E-02   1.2608E-04  0.0895
   2.9499E-02   3.0217E-02   1.2619E-04  0.0886
   3.0217E-02   3.0952E-02   1.2990E-04  0.0863
   3.0952E-02   3.1705E-02   1.2414E-04  0.0874
   3.1705E-02   3.2477E-02   1.0619E-04  0.0933
   3.2477E-02   3.3267E-02   9.7912E-05  0.0957
   3.3267E-02   3.4076E-02   9.3275E-05  0.0971
   3.4076E-02   3.4905E-02   1.0896E-04  0.0888
   3.4905E-02   3.5755E-02   1.0064E-04  0.0912
   3.5755E-02   3.6625E-02   9.3373E-05  0.0937
   3.6625E-02   3.7516E-02   1.1986E-04  0.0817
   3.7516E-02   3.8428E-02   8.8071E-05  0.0941
   3.8428E-02   3.9363E-02   1.0804E-04  0.0839
   3.9363E-02   4.0321E-02   9.3460E-05  0.0891
   4.0321E-02   4.1302E-02   9.9625E-05  0.0854
   4.1302E-02   4.2307E-02   9.1701E-05  0.0879
   4.2307E-02   4.3337E-02   1.0471E-04  0.0813
   4.3337E-02   4.4391E-02   7.4646E-05  0.0950
   4.4391E-02   4.5471E-02   7.5481E-05  0.0933
   4.5471E-02   4.6577E-02   7.4788E-05  0.0928
   4.6577E-02   4.7711E-02   8.4767E-05  0.0861
   4.7711E-02   4.8871E-02   7.4736E-05  0.0906
   4.8871E-02   5.0061E-02   8.2089E-05  0.0854
   5.0061E-02   5.1279E-02   8.4110E-05  0.0834
   5.1279E-02   5.2526E-02   8.2780E-05  0.0831
   5.2526E-02   5.3804E-02   8.0479E-05  0.0832
   5.3804E-02   5.5113E-02   7.5177E-05  0.0851
   5.5113E-02   5.6454E-02   6.5443E-05  0.0902
   5.6454E-02   5.7828E-02   7.7334E-05  0.0818
   5.7828E-02   5.9235E-02   7.2637E-05  0.0834
   5.9235E-02   6.0676E-02   7.6545E-05  0.0803
   6.0676E-02   6.2152E-02   6.2862E-05  0.0875
   6.2152E-02   6.3665E-02   6.6407E-05  0.0842
   6.3665E-02   6.5214E-02   6.8405E-05  0.0820
   6.5214E-02   6.6800E-02   6.9168E-05  0.0806
   6.6800E-02   6.8426E-02   6.0205E-05  0.0853
   6.8426E-02   7.0090E-02   6.0833E-05  0.0839
   7.0090E-02   7.1796E-02   5.5559E-05  0.0867
   7.1796E-02   7.3543E-02   5.8727E-05  0.0833
   7.3543E-02   7.5332E-02   5.1213E-05  0.0881
   7.5332E-02   7.7165E-02   5.4167E-05  0.0847
   7.7165E-02   7.9042E-02   4.9458E-05  0.0876
   7.9042E-02   8.0965E-02   5.1135E-05  0.0851
   8.0965E-02   8.2935E-02   5.1460E-05  0.0838
   8.2935E-02   8.4953E-02   5.3591E-05  0.0811
   8.4953E-02   8.7020E-02   4.8906E-05  0.0838
   8.7020E-02   8.9138E-02   4.9816E-05  0.0820
   8.9138E-02   9.1306E-02   4.6374E-05  0.0842
   9.1306E-02   9.3528E-02   5.2751E-05  0.0779
   9.3528E-02   9.5804E-02   4.6933E-05  0.0817
   9.5804E-02   9.8134E-02   3.9533E-05  0.0877
   9.8134E-02   1.0052E-01   4.3036E-05  0.0832
   1.0052E-01   1.0297E-01   5.2621E-05  0.0742
   1.0297E-01   1.0547E-01   5.2066E-05  0.0738
   1.0547E-01   1.0804E-01   5.7400E-05  0.0695
   1.0804E-01   1.1067E-01   5.6459E-05  0.0693
   1.1067E-01   1.1336E-01   6.0285E-05  0.0662
   1.1336E-01   1.1612E-01   6.3423E-05  0.0638
   1.1612E-01   1.1894E-01   6.1046E-05  0.0642
   1.1894E-01   1.2184E-01   6.8508E-05  0.0599
   1.2184E-01   1.2480E-01   6.5286E-05  0.0606
   1.2480E-01   1.2784E-01   6.8874E-05  0.0583
   1.2784E-01   1.3095E-01   6.5789E-05  0.0589
   1.3095E-01   1.3414E-01   7.3086E-05  0.0553
   1.3414E-01   1.3740E-01   7.8441E-05  0.0527
   1.3740E-01   1.4074E-01   8.5474E-05  0.0499
   1.4074E-01   1.4417E-01   9.3423E-05  0.0472
   1.4417E-01   1.4767E-01   9.5482E-05  0.0461
   1.4767E-01   1.5127E-01   9.0470E-05  0.0468
   1.5127E-01   1.5495E-01   8.9777E-05  0.0463
   1.5495E-01   1.5872E-01   9.5500E-05  0.0444
   1.5872E-01   1.6258E-01   1.0676E-04  0.0415
   1.6258E-01   1.6654E-01   1.0581E-04  0.0413
   1.6654E-01   1.7059E-01   1.1424E-04  0.0392
   1.7059E-01   1.7474E-01   1.0566E-04  0.0403
   1.7474E-01   1.7899E-01   1.2022E-04  0.0373
   1.7899E-01   1.8334E-01   1.1790E-04  0.0372
   1.8334E-01   1.8781E-01   1.2648E-04  0.0355
   1.8781E-01   1.9237E-01   1.3170E-04  0.0344
   1.9237E-01   1.9706E-01   1.3423E-04  0.0337
   1.9706E-01   2.0185E-01   1.4655E-04  0.0318
   2.0185E-01   2.0676E-01   1.4788E-04  0.0313
   2.0676E-01   2.1179E-01   1.5078E-04  0.0306
   2.1179E-01   2.1694E-01   1.5187E-04  0.0302
   2.1694E-01   2.2222E-01   1.5394E-04  0.0296
   2.2222E-01   2.2763E-01   1.6150E-04  0.0286
   2.2763E-01   2.3317E-01   1.7428E-04  0.0272
   2.3317E-01   2.3884E-01   1.7228E-04  0.0270
   2.3884E-01   2.4465E-01   1.8653E-04  0.0256
   2.4465E-01   2.5061E-01   1.8121E-04  0.0257
   2.5061E-01   2.5670E-01   2.0519E-04  0.0239
   2.5670E-01   2.6295E-01   1.8889E-04  0.0246
   2.6295E-01   2.6935E-01   2.0420E-04  0.0233
   2.6935E-01   2.7590E-01   2.0506E-04  0.0230
   2.7590E-01   2.8261E-01   2.1078E-04  0.0224
   2.8261E-01   2.8949E-01   2.2137E-04  0.0216
   2.8949E-01   2.9653E-01   2.3796E-04  0.0206
   2.9653E-01   3.0375E-01   2.2439E-04  0.0210
   3.0375E-01   3.1114E-01   2.4059E-04  0.0200
   3.1114E-01   3.1871E-01   2.4311E-04  0.0197
   3.1871E-01   3.2646E-01   2.6003E-04  0.0188
   3.2646E-01   3.3441E-01   2.7039E-04  0.0182
   3.3441E-01   3.4254E-01   2.7482E-04  0.0178
   3.4254E-01   3.5088E-01   2.7908E-04  0.0175
   3.5088E-01   3.5941E-01   2.9163E-04  0.0169
   3.5941E-01   3.6816E-01   2.9684E-04  0.0165
   3.6816E-01   3.7712E-01   3.1219E-04  0.0159
   3.7712E-01   3.8629E-01   3.1469E-04  0.0157
   3.8629E-01   3.9569E-01   3.1229E-04  0.0156
   3.9569E-01   4.0532E-01   3.3253E-04  0.0149
   4.0532E-01   4.1518E-01   3.2667E-04  0.0149
   4.1518E-01   4.2528E-01   3.4695E-04  0.0142
   4.2528E-01   4.3563E-01   3.5068E-04  0.0140
   4.3563E-01   4.4623E-01   3.5981E-04  0.0137
   4.4623E-01   4.5708E-01   3.5342E-04  0.0136
   4.5708E-01   4.6821E-01   3.7312E-04  0.0131
   4.6821E-01   4.7960E-01   3.7757E-04  0.0129
   4.7960E-01   4.9127E-01   3.8413E-04  0.0126
   4.9127E-01   5.0322E-01   3.8882E-04  0.0124
   5.0322E-01   5.1546E-01   3.9840E-04  0.0121
   5.1546E-01   5.2800E-01   4.0315E-04  0.0119
   5.2800E-01   5.4085E-01   4.1214E-04  0.0116
   5.4085E-01   5.5401E-01   4.2575E-04  0.0113
   5.5401E-01   5.6749E-01   4.3077E-04  0.0111
   5.6749E-01   5.8130E-01   4.4664E-04  0.0107
   5.8130E-01   5.9544E-01   4.5764E-04  0.0105
   5.9544E-01   6.0993E-01   4.5226E-04  0.0104
   6.0993E-01   6.2477E-01   4.5070E-04  0.0103
   6.2477E-01   6.3997E-01   4.6594E-04  0.0100
   6.3997E-01   6.5554E-01   4.7044E-04  0.0098
   6.5554E-01   6.7149E-01   4.7618E-04  0.0097
   6.7149E-01   6.8783E-01   4.8116E-04  0.0095
   6.8783E-01   7.0456E-01   5.0009E-04  0.0092
   7.0456E-01   7.2171E-01   4.9190E-04  0.0092
   7.2171E-01   7.3927E-01   5.0534E-04  0.0089
   7.3927E-01   7.5725E-01   5.0087E-04  0.0089
   7.5725E-01   7.7568E-01   5.1416E-04  0.0087
   7.7568E-01   7.9455E-01   5.1321E-04  0.0086
   7.9455E-01   8.1388E-01   5.1367E-04  0.0085
   8.1388E-01   8.3368E-01   5.1909E-04  0.0083
   8.3368E-01   8.5397E-01   5.1652E-04  0.0082
   8.5397E-01   8.7475E-01   5.2182E-04  0.0081
   8.7475E-01   8.9603E-01   5.2427E-04  0.0080
   8.9603E-01   9.1783E-01   5.2221E-04  0.0079
   9.1783E-01   9.4016E-01   5.2748E-04  0.0078
   9.4016E-01   9.6304E-01   5.1153E-04  0.0078
   9.6304E-01   9.8647E-01   5.1214E-04  0.0077
   9.8647E-01   1.0105E+00   4.9722E-04  0.0077
   1.0105E+00   1.0351E+00   5.0592E-04  0.0075
   1.0351E+00   1.0602E+00   4.9882E-04  0.0075
   1.0602E+00   1.0860E+00   4.9938E-04  0.0074
   1.0860E+00   1.1125E+00   4.8870E-04  0.0074
   1.1125E+00   1.1395E+00   5.0025E-04  0.0072
   1.1395E+00   1.1673E+00   5.0476E-04  0.0071
   1.1673E+00   1.1957E+00   5.0447E-04  0.0070
   1.1957E+00   1.2247E+00   5.0864E-04  0.0069
   1.2247E+00   1.2545E+00   5.0692E-04  0.0068
   1.2545E+00   1.2851E+00   5.0726E-04  0.0067
   1.2851E+00   1.3163E+00   5.0665E-04  0.0067
   1.3163E+00   1.3484E+00   5.0687E-04  0.0066
   1.3484E+00   1.3812E+00   5.1079E-04  0.0065
   1.3812E+00   1.4148E+00   5.0843E-04  0.0064
   1.4148E+00   1.4492E+00   5.0309E-04  0.0064
   1.4492E+00   1.4845E+00   5.0173E-04  0.0063
   1.4845E+00   1.5206E+00   4.9346E-04  0.0063
   1.5206E+00   1.5576E+00   4.9710E-04  0.0062
   1.5576E+00   1.5955E+00   4.9038E-04  0.0061
   1.5955E+00   1.6343E+00   4.8427E-04  0.0061
   1.6343E+00   1.6741E+00   4.8501E-04  0.0060
   1.6741E+00   1.7148E+00   4.7586E-04  0.0060
   1.7148E+00   1.7565E+00   4.6684E-04  0.0060
   1.7565E+00   1.7992E+00   4.4712E-04  0.0060
   1.7992E+00   1.8430E+00   4.2436E-04  0.0061
   1.8430E+00   1.8879E+00   4.0236E-04  0.0062
   1.8879E+00   1.9338E+00   3.8862E-04  0.0062
   1.9338E+00   1.9808E+00   3.8152E-04  0.0062
   1.9808E+00   2.0290E+00   3.7503E-04  0.0062
   2.0290E+00   2.0784E+00   3.7399E-04  0.0061
   2.0784E+00   2.1290E+00   3.7639E-04  0.0060
   2.1290E+00   2.1808E+00   3.8725E-04  0.0058
   2.1808E+00   2.2338E+00   3.9119E-04  0.0057
   2.2338E+00   2.2882E+00   3.8212E-04  0.0057
   2.2882E+00   2.3439E+00   3.7289E-04  0.0057
   2.3439E+00   2.4009E+00   3.6285E-04  0.0058
   2.4009E+00   2.4593E+00   3.5644E-04  0.0057
   2.4593E+00   2.5191E+00   3.5764E-04  0.0057
   2.5191E+00   2.5804E+00   3.5196E-04  0.0056
   2.5804E+00   2.6432E+00   3.4409E-04  0.0056
   2.6432E+00   2.7075E+00   3.4304E-04  0.0056
   2.7075E+00   2.7734E+00   3.3876E-04  0.0055
   2.7734E+00   2.8409E+00   3.3434E-04  0.0055
   2.8409E+00   2.9100E+00   3.2916E-04  0.0055
   2.9100E+00   2.9808E+00   3.2683E-04  0.0054
   2.9808E+00   3.0533E+00   3.2186E-04  0.0054
   3.0533E+00   3.1276E+00   3.1570E-04  0.0054
   3.1276E+00   3.2037E+00   3.1325E-04  0.0054
   3.2037E+00   3.2817E+00   3.1029E-04  0.0053
   3.2817E+00   3.3615E+00   3.0691E-04  0.0053
   3.3615E+00   3.4433E+00   3.0632E-04  0.0053
   3.4433E+00   3.5271E+00   3.0112E-04  0.0052
   3.5271E+00   3.6129E+00   2.9778E-04  0.0052
   3.6129E+00   3.7008E+00   2.9683E-04  0.0052
   3.7008E+00   3.7908E+00   2.9241E-04  0.0051
   3.7908E+00   3.8831E+00   2.9008E-04  0.0051
   3.8831E+00   3.9776E+00   2.8424E-04  0.0051
   3.9776E+00   4.0743E+00   2.8181E-04  0.0050
   4.0743E+00   4.1735E+00   2.7945E-04  0.0050
   4.1735E+00   4.2750E+00   2.7539E-04  0.0050
   4.2750E+00   4.3790E+00   2.7195E-04  0.0050
   4.3790E+00   4.4856E+00   2.6638E-04  0.0049
   4.4856E+00   4.5947E+00   2.6061E-04  0.0049
   4.5947E+00   4.7065E+00   2.5627E-04  0.0049
   4.7065E+00   4.8210E+00   2.5355E-04  0.0049
   4.8210E+00   4.9383E+00   2.5138E-04  0.0049
   4.9383E+00   5.0585E+00   2.4962E-04  0.0048
   5.0585E+00   5.1815E+00   2.4818E-04  0.0048
   5.1815E+00   5.3076E+00   2.4426E-04  0.0048
   5.3076E+00   5.4368E+00   2.4531E-04  0.0047
   5.4368E+00   5.5690E+00   2.4140E-04  0.0047
   5.5690E+00   5.7045E+00   2.3833E-04  0.0046
   5.7045E+00   5.8433E+00   2.3936E-04  0.0046
   5.8433E+00   5.9855E+00   2.3469E-04  0.0046
   5.9855E+00   6.1311E+00   2.3354E-04  0.0045
   6.1311E+00   6.2803E+00   2.3208E-04  0.0045
   6.2803E+00   6.4331E+00   2.2954E-04  0.0045
   6.4331E+00   6.5896E+00   2.2940E-04  0.0044
   6.5896E+00   6.7500E+00   2.2813E-04  0.0044
   6.7500E+00   6.9142E+00   2.2640E-04  0.0043
   6.9142E+00   7.0824E+00   2.2536E-04  0.0043
   7.0824E+00   7.2548E+00   2.2484E-04  0.0043
   7.2548E+00   7.4313E+00   2.2399E-04  0.0042
   7.4313E+00   7.6121E+00   2.2225E-04  0.0042
   7.6121E+00   7.7973E+00   2.2022E-04  0.0041
   7.7973E+00   7.9870E+00   2.2042E-04  0.0041
   7.9870E+00   8.1813E+00   2.1863E-04  0.0041
   8.1813E+00   8.3804E+00   2.1708E-04  0.0040
   8.3804E+00   8.5843E+00   2.1573E-04  0.0040
   8.5843E+00   8.7931E+00   2.1320E-04  0.0040
   8.7931E+00   9.0071E+00   2.1306E-04  0.0039
   9.0071E+00   9.2262E+00   2.0979E-04  0.0039
   9.2262E+00   9.4507E+00   2.0941E-04  0.0039
   9.4507E+00   9.6807E+00   2.0494E-04  0.0039
   9.6807E+00   9.9162E+00   2.0527E-04  0.0038
   9.9162E+00   1.0157E+01   2.1422E-04  0.0037
   1.0157E+01   1.0405E+01   2.1070E-04  0.0037
   1.0405E+01   1.0658E+01   2.0894E-04  0.0037
   1.0658E+01   1.0917E+01   2.0312E-04  0.0037
   1.0917E+01   1.1183E+01   1.9895E-04  0.0037
   1.1183E+01   1.1455E+01   1.9800E-04  0.0036
   1.1455E+01   1.1733E+01   1.9594E-04  0.0036
   1.1733E+01   1.2019E+01   1.9516E-04  0.0036
   1.2019E+01   1.2311E+01   1.9352E-04  0.0035
   1.2311E+01   1.2611E+01   1.9195E-04  0.0035
   1.2611E+01   1.2918E+01   1.9063E-04  0.0035
   1.2918E+01   1.3232E+01   1.8994E-04  0.0035
   1.3232E+01   1.3554E+01   1.8876E-04  0.0034
   1.3554E+01   1.3884E+01   1.8653E-04  0.0034
   1.3884E+01   1.4222E+01   1.8458E-04  0.0034
   1.4222E+01   1.4568E+01   1.8332E-04  0.0034
   1.4568E+01   1.4922E+01   1.8105E-04  0.0033
   1.4922E+01   1.5285E+01   1.8028E-04  0.0033
   1.5285E+01   1.5657E+01   1.7784E-04  0.0033
   1.5657E+01   1.6038E+01   1.7582E-04  0.0033
   1.6038E+01   1.6428E+01   1.7335E-04  0.0032
   1.6428E+01   1.6828E+01   1.7167E-04  0.0032
   1.6828E+01   1.7237E+01   1.6986E-04  0.0032
   1.7237E+01   1.7657E+01   1.6858E-04  0.0032
   1.7657E+01   1.8086E+01   1.6637E-04  0.0032
   1.8086E+01   1.8526E+01   1.6397E-04  0.0031
   1.8526E+01   1.8977E+01   1.6296E-04  0.0031
   1.8977E+01   1.9439E+01   1.5989E-04  0.0031
   1.9439E+01   1.9912E+01   1.5912E-04  0.0031
   1.9912E+01   2.0396E+01   1.5730E-04  0.0031
   2.0396E+01   2.0893E+01   1.5479E-04  0.0030
   2.0893E+01   2.1401E+01   1.5266E-04  0.0030
   2.1401E+01   2.1922E+01   1.4949E-04  0.0030
   2.1922E+01   2.2455E+01   1.4610E-04  0.0030
   2.2455E+01   2.3001E+01   1.4472E-04  0.0030
   2.3001E+01   2.3561E+01   1.4165E-04  0.0030
   2.3561E+01   2.4134E+01   1.3833E-04  0.0030
   2.4134E+01   2.4721E+01   1.3518E-04  0.0030
   2.4721E+01   2.5323E+01   1.3217E-04  0.0030
   2.5323E+01   2.5939E+01   1.2899E-04  0.0030
   2.5939E+01   2.6570E+01   1.2591E-04  0.0030
   2.6570E+01   2.7217E+01   1.2286E-04  0.0030
   2.7217E+01   2.7879E+01   1.1913E-04  0.0030
   2.7879E+01   2.8557E+01   1.1530E-04  0.0030
   2.8557E+01   2.9252E+01   1.1169E-04  0.0030
   2.9252E+01   2.9964E+01   1.0875E-04  0.0030
   2.9964E+01   3.0693E+01   1.0446E-04  0.0031
   3.0693E+01   3.1440E+01   1.0074E-04  0.0031
   3.1440E+01   3.2205E+01   9.6346E-05  0.0031
   3.2205E+01   3.2988E+01   9.2306E-05  0.0031
   3.2988E+01   3.3791E+01   8.7440E-05  0.0032
   3.3791E+01   3.4613E+01   8.4029E-05  0.0032
   3.4613E+01   3.5455E+01   7.9833E-05  0.0033
   3.5455E+01   3.6318E+01   7.5994E-05  0.0033
   3.6318E+01   3.7201E+01   7.1674E-05  0.0034
   3.7201E+01   3.8106E+01   6.7821E-05  0.0034
   3.8106E+01   3.9034E+01   6.4179E-05  0.0035
   3.9034E+01   3.9983E+01   6.2507E-05  0.0035
   3.9983E+01   4.0956E+01   6.0224E-05  0.0035
   4.0956E+01   4.1953E+01   5.5334E-05  0.0036
   4.1953E+01   4.2973E+01   5.0384E-05  0.0037
   4.2973E+01   4.4019E+01   4.5503E-05  0.0039
   4.4019E+01   4.5090E+01   4.1884E-05  0.0040
   4.5090E+01   4.6187E+01   3.7973E-05  0.0041
   4.6187E+01   4.7311E+01   3.4613E-05  0.0043
   4.7311E+01   4.8462E+01   3.1445E-05  0.0044
   4.8462E+01   4.9641E+01   2.8332E-05  0.0046
   4.9641E+01   5.0849E+01   2.5174E-05  0.0048
   5.0849E+01   5.2086E+01   2.2645E-05  0.0050
   5.2086E+01   5.3353E+01   1.9964E-05  0.0053
   5.3353E+01   5.4651E+01   1.7431E-05  0.0056
   5.4651E+01   5.5981E+01   1.5276E-05  0.0059
   5.5981E+01   5.7343E+01   1.3169E-05  0.0063
   5.7343E+01   5.8738E+01   1.1271E-05  0.0067
   5.8738E+01   6.0168E+01   9.6506E-06  0.0072
   6.0168E+01   6.1632E+01   8.2162E-06  0.0077
   6.1632E+01   6.3131E+01   6.9955E-06  0.0083
   6.3131E+01   6.4667E+01   5.9723E-06  0.0088
   6.4667E+01   6.6240E+01   5.2688E-06  0.0093
   6.6240E+01   6.7852E+01   4.6495E-06  0.0098
   6.7852E+01   6.9503E+01   4.1142E-06  0.0103
   6.9503E+01   7.1194E+01   3.9105E-06  0.0104
   7.1194E+01   7.2926E+01   3.7970E-06  0.0104
   7.2926E+01   7.4701E+01   3.1794E-06  0.0113
   7.4701E+01   7.6518E+01   8.4023E-07  0.0216
   7.6518E+01   7.8380E+01   2.9542E-08  0.1140
   7.8380E+01   8.0287E+01   0.0000E+00  0.0000
   8.0287E+01   8.2240E+01   0.0000E+00  0.0000
   8.2240E+01   8.4241E+01   0.0000E+00  0.0000
   8.4241E+01   8.6291E+01   0.0000E+00  0.0000
   8.6291E+01   8.8391E+01   0.0000E+00  0.0000
   8.8391E+01   9.0541E+01   0.0000E+00  0.0000
   9.0541E+01   9.2744E+01   0.0000E+00  0.0000
   9.2744E+01   9.5001E+01   0.0000E+00  0.0000
   9.5001E+01   9.7312E+01   0.0000E+00  0.0000
   9.7312E+01   9.9680E+01   0.0000E+00  0.0000
   9.9680E+01   1.0211E+02   0.0000E+00  0.0000
   1.0211E+02   1.0459E+02   0.0000E+00  0.0000
   1.0459E+02   1.0713E+02   0.0000E+00  0.0000
   1.0713E+02   1.0974E+02   0.0000E+00  0.0000
   1.0974E+02   1.1241E+02   0.0000E+00  0.0000
   1.1241E+02   1.1515E+02   0.0000E+00  0.0000
   1.1515E+02   1.1795E+02   0.0000E+00  0.0000
   1.1795E+02   1.2082E+02   0.0000E+00  0.0000
   1.2082E+02   1.2376E+02   0.0000E+00  0.0000
   1.2376E+02   1.2677E+02   0.0000E+00  0.0000
   1.2677E+02   1.2985E+02   0.0000E+00  0.0000
   1.2985E+02   1.3301E+02   0.0000E+00  0.0000
   1.3301E+02   1.3625E+02   0.0000E+00  0.0000
   1.3625E+02   1.3956E+02   0.0000E+00  0.0000
   1.3956E+02   1.4296E+02   0.0000E+00  0.0000
   1.4296E+02   1.4644E+02   0.0000E+00  0.0000
   1.4644E+02   1.5000E+02   0.0000E+00  0.0000

#   sum over                 4.9704E-05
'no. =    1   reg = 109 - 209'
msuc: {\huge [t-cross] in region mesh}
msdr: {\it plotted by \ANGEL \version}
msdl: {\it calculated by \PHITS  3.26}
wt: s(0.7)
\vspace{-3}
  region surface crossing
  area  &=&   1.0000E+00 [cm^2]
e:
 
# Information for Restart Calculation
# This calculation was newly started
# istdev =  2 # 1:Batch variance, 2:History variance
# resc2  = 1.40000000000000000E+09 # Total source weight or Total source weight / maxcas
# resc3  = 1.40000000000000000E+09 # Total history number or Total batch number
# maxcas =   100000000 # History / Batch, only used for istdev=1
# bitrseed = 1101000110001001101011111100100010001101001010000111001101010101 # bit data of rseed
