[ T-Cross ]
    title = [t-cross] in region mesh
     mesh =  reg            # mesh type is region-wise
      reg =    1            # number of crossing regions
      non     r-from    r-to       area
      1       115       215        1.000000    
   e-type =    3            # e-mesh is log given by emin, emax and ne
     emin =  1.0000000E-02  # minimum value of e-mesh points
     emax =   150.0000      # maximum value of e-mesh points
#    edel =  2.4039514E-02  # mesh width of e-mesh points
       ne =    400          # number of e-mesh points
#    data = ( e(i), i = 1, ne + 1 )
#           1.00000E-02  1.02433E-02  1.04925E-02  1.07478E-02  1.10093E-02
#           1.12772E-02  1.15516E-02  1.18326E-02  1.21205E-02  1.24154E-02
#           1.27175E-02  1.30269E-02  1.33439E-02  1.36686E-02  1.40011E-02
#           1.43418E-02  1.46907E-02  1.50482E-02  1.54143E-02  1.57894E-02
#           1.61735E-02  1.65670E-02  1.69701E-02  1.73830E-02  1.78060E-02
#           1.82392E-02  1.86830E-02  1.91375E-02  1.96032E-02  2.00801E-02
#           2.05687E-02  2.10692E-02  2.15818E-02  2.21069E-02  2.26448E-02
#           2.31957E-02  2.37601E-02  2.43382E-02  2.49304E-02  2.55369E-02
#           2.61583E-02  2.67947E-02  2.74467E-02  2.81145E-02  2.87985E-02
#           2.94992E-02  3.02169E-02  3.09521E-02  3.17052E-02  3.24766E-02
#           3.32668E-02  3.40762E-02  3.49053E-02  3.57546E-02  3.66246E-02
#           3.75157E-02  3.84284E-02  3.93634E-02  4.03212E-02  4.13022E-02
#           4.23071E-02  4.33365E-02  4.43909E-02  4.54710E-02  4.65773E-02
#           4.77106E-02  4.88714E-02  5.00605E-02  5.12785E-02  5.25262E-02
#           5.38042E-02  5.51133E-02  5.64542E-02  5.78278E-02  5.92348E-02
#           6.06760E-02  6.21523E-02  6.36645E-02  6.52135E-02  6.68002E-02
#           6.84255E-02  7.00904E-02  7.17957E-02  7.35426E-02  7.53319E-02
#           7.71648E-02  7.90423E-02  8.09655E-02  8.29354E-02  8.49533E-02
#           8.70203E-02  8.91376E-02  9.13064E-02  9.35279E-02  9.58035E-02
#           9.81345E-02  1.00522E-01  1.02968E-01  1.05473E-01  1.08040E-01
#           1.10668E-01  1.13361E-01  1.16119E-01  1.18944E-01  1.21838E-01
#           1.24803E-01  1.27839E-01  1.30950E-01  1.34136E-01  1.37399E-01
#           1.40742E-01  1.44167E-01  1.47675E-01  1.51268E-01  1.54948E-01
#           1.58718E-01  1.62580E-01  1.66535E-01  1.70587E-01  1.74738E-01
#           1.78989E-01  1.83344E-01  1.87805E-01  1.92375E-01  1.97055E-01
#           2.01850E-01  2.06761E-01  2.11792E-01  2.16945E-01  2.22223E-01
#           2.27630E-01  2.33169E-01  2.38842E-01  2.44653E-01  2.50605E-01
#           2.56703E-01  2.62949E-01  2.69346E-01  2.75900E-01  2.82613E-01
#           2.89489E-01  2.96532E-01  3.03747E-01  3.11138E-01  3.18708E-01
#           3.26462E-01  3.34405E-01  3.42542E-01  3.50876E-01  3.59413E-01
#           3.68158E-01  3.77116E-01  3.86291E-01  3.95690E-01  4.05317E-01
#           4.15179E-01  4.25281E-01  4.35628E-01  4.46227E-01  4.57084E-01
#           4.68205E-01  4.79597E-01  4.91266E-01  5.03219E-01  5.15463E-01
#           5.28005E-01  5.40851E-01  5.54011E-01  5.67490E-01  5.81298E-01
#           5.95441E-01  6.09929E-01  6.24769E-01  6.39970E-01  6.55541E-01
#           6.71491E-01  6.87828E-01  7.04564E-01  7.21706E-01  7.39266E-01
#           7.57253E-01  7.75678E-01  7.94551E-01  8.13883E-01  8.33685E-01
#           8.53969E-01  8.74747E-01  8.96030E-01  9.17831E-01  9.40163E-01
#           9.63038E-01  9.86469E-01  1.01047E+00  1.03506E+00  1.06024E+00
#           1.08604E+00  1.11246E+00  1.13953E+00  1.16725E+00  1.19565E+00
#           1.22474E+00  1.25454E+00  1.28507E+00  1.31633E+00  1.34836E+00
#           1.38117E+00  1.41477E+00  1.44920E+00  1.48446E+00  1.52057E+00
#           1.55757E+00  1.59547E+00  1.63429E+00  1.67405E+00  1.71478E+00
#           1.75650E+00  1.79924E+00  1.84302E+00  1.88786E+00  1.93379E+00
#           1.98084E+00  2.02904E+00  2.07841E+00  2.12898E+00  2.18078E+00
#           2.23384E+00  2.28819E+00  2.34386E+00  2.40089E+00  2.45930E+00
#           2.51914E+00  2.58043E+00  2.64322E+00  2.70753E+00  2.77341E+00
#           2.84088E+00  2.91001E+00  2.98081E+00  3.05333E+00  3.12762E+00
#           3.20372E+00  3.28167E+00  3.36152E+00  3.44330E+00  3.52708E+00
#           3.61290E+00  3.70080E+00  3.79085E+00  3.88308E+00  3.97756E+00
#           4.07434E+00  4.17347E+00  4.27501E+00  4.37903E+00  4.48557E+00
#           4.59471E+00  4.70650E+00  4.82102E+00  4.93832E+00  5.05847E+00
#           5.18155E+00  5.30762E+00  5.43676E+00  5.56904E+00  5.70453E+00
#           5.84333E+00  5.98550E+00  6.13114E+00  6.28031E+00  6.43312E+00
#           6.58964E+00  6.74997E+00  6.91420E+00  7.08243E+00  7.25475E+00
#           7.43126E+00  7.61207E+00  7.79728E+00  7.98700E+00  8.18133E+00
#           8.38038E+00  8.58428E+00  8.79315E+00  9.00709E+00  9.22624E+00
#           9.45072E+00  9.68067E+00  9.91620E+00  1.01575E+01  1.04046E+01
#           1.06578E+01  1.09171E+01  1.11827E+01  1.14548E+01  1.17335E+01
#           1.20190E+01  1.23114E+01  1.26109E+01  1.29178E+01  1.32321E+01
#           1.35540E+01  1.38838E+01  1.42216E+01  1.45676E+01  1.49221E+01
#           1.52851E+01  1.56570E+01  1.60380E+01  1.64282E+01  1.68279E+01
#           1.72374E+01  1.76568E+01  1.80864E+01  1.85264E+01  1.89772E+01
#           1.94389E+01  1.99119E+01  2.03963E+01  2.08926E+01  2.14009E+01
#           2.19216E+01  2.24550E+01  2.30014E+01  2.35610E+01  2.41343E+01
#           2.47215E+01  2.53230E+01  2.59391E+01  2.65702E+01  2.72167E+01
#           2.78789E+01  2.85572E+01  2.92520E+01  2.99637E+01  3.06928E+01
#           3.14396E+01  3.22045E+01  3.29881E+01  3.37907E+01  3.46128E+01
#           3.54550E+01  3.63177E+01  3.72013E+01  3.81064E+01  3.90336E+01
#           3.99833E+01  4.09561E+01  4.19526E+01  4.29734E+01  4.40189E+01
#           4.50900E+01  4.61870E+01  4.73108E+01  4.84619E+01  4.96410E+01
#           5.08488E+01  5.20860E+01  5.33533E+01  5.46514E+01  5.59812E+01
#           5.73432E+01  5.87384E+01  6.01676E+01  6.16315E+01  6.31311E+01
#           6.46671E+01  6.62405E+01  6.78522E+01  6.95031E+01  7.11941E+01
#           7.29263E+01  7.47007E+01  7.65182E+01  7.83800E+01  8.02870E+01
#           8.22405E+01  8.42414E+01  8.62911E+01  8.83906E+01  9.05412E+01
#           9.27442E+01  9.50007E+01  9.73122E+01  9.96799E+01  1.02105E+02
#           1.04589E+02  1.07134E+02  1.09741E+02  1.12411E+02  1.15146E+02
#           1.17948E+02  1.20817E+02  1.23757E+02  1.26768E+02  1.29852E+02
#           1.33012E+02  1.36248E+02  1.39563E+02  1.42959E+02  1.46437E+02
#           1.50000E+02
     unit =    2            # unit is [1/cm^2/(MeV/n)/source]
     axis =  eng            # axis of output
     file = detector-16.out  # file name of output for the above axis
   output = f-curr          # surface crossing forward current spectrum
     part =  neutron  
# kf/name :  2112     
#    used :        main (  %)        temp (  %)       total (  %)
#  memory :         414 (  0)           0 (  0)         414 (  0)

#------------------------------------------------------------------------------
#newpage:
#   no. =    1   reg = 115 - 215

x: Energy [MeV/n]
y:  F-Curr [1/cm^2/(MeV/n)/source]         
p: xlog ylog afac(0.8) form(0.9)
h: n            x            y(neutron ),hh0l   n 
#  e-lower      e-upper      neutron     r.err 
   1.0000E-02   1.0243E-02   6.0877E-04  0.0437
   1.0243E-02   1.0493E-02   5.9017E-04  0.0438
   1.0493E-02   1.0748E-02   6.1938E-04  0.0423
   1.0748E-02   1.1009E-02   6.0949E-04  0.0421
   1.1009E-02   1.1277E-02   5.7627E-04  0.0429
   1.1277E-02   1.1552E-02   5.3250E-04  0.0441
   1.1552E-02   1.1833E-02   5.5823E-04  0.0424
   1.1833E-02   1.2121E-02   5.6384E-04  0.0417
   1.2121E-02   1.2415E-02   5.2671E-04  0.0426
   1.2415E-02   1.2718E-02   5.3195E-04  0.0420
   1.2718E-02   1.3027E-02   4.6662E-04  0.0443
   1.3027E-02   1.3344E-02   4.9173E-04  0.0425
   1.3344E-02   1.3669E-02   4.7469E-04  0.0429
   1.3669E-02   1.4001E-02   4.9033E-04  0.0416
   1.4001E-02   1.4342E-02   4.4343E-04  0.0433
   1.4342E-02   1.4691E-02   4.5815E-04  0.0421
   1.4691E-02   1.5048E-02   4.2678E-04  0.0430
   1.5048E-02   1.5414E-02   4.1137E-04  0.0433
   1.5414E-02   1.5789E-02   4.2747E-04  0.0420
   1.5789E-02   1.6174E-02   3.9808E-04  0.0430
   1.6174E-02   1.6567E-02   4.2566E-04  0.0411
   1.6567E-02   1.6970E-02   4.2278E-04  0.0408
   1.6970E-02   1.7383E-02   3.6764E-04  0.0432
   1.7383E-02   1.7806E-02   3.7622E-04  0.0421
   1.7806E-02   1.8239E-02   3.6658E-04  0.0422
   1.8239E-02   1.8683E-02   3.3332E-04  0.0437
   1.8683E-02   1.9138E-02   3.5514E-04  0.0418
   1.9138E-02   1.9603E-02   3.6073E-04  0.0410
   1.9603E-02   2.0080E-02   3.6212E-04  0.0405
   2.0080E-02   2.0569E-02   3.2544E-04  0.0422
   2.0569E-02   2.1069E-02   3.0260E-04  0.0432
   2.1069E-02   2.1582E-02   3.2137E-04  0.0414
   2.1582E-02   2.2107E-02   3.0814E-04  0.0418
   2.2107E-02   2.2645E-02   3.1890E-04  0.0406
   2.2645E-02   2.3196E-02   2.9169E-04  0.0419
   2.3196E-02   2.3760E-02   2.8296E-04  0.0420
   2.3760E-02   2.4338E-02   3.0049E-04  0.0404
   2.4338E-02   2.4930E-02   2.8734E-04  0.0408
   2.4930E-02   2.5537E-02   2.6702E-04  0.0418
   2.5537E-02   2.6158E-02   2.7508E-04  0.0407
   2.6158E-02   2.6795E-02   2.6925E-04  0.0407
   2.6795E-02   2.7447E-02   2.5132E-04  0.0416
   2.7447E-02   2.8114E-02   2.5518E-04  0.0407
   2.8114E-02   2.8799E-02   2.5646E-04  0.0402
   2.8799E-02   2.9499E-02   2.4598E-04  0.0405
   2.9499E-02   3.0217E-02   2.2256E-04  0.0421
   3.0217E-02   3.0952E-02   2.4244E-04  0.0398
   3.0952E-02   3.1705E-02   2.3075E-04  0.0403
   3.1705E-02   3.2477E-02   2.1591E-04  0.0411
   3.2477E-02   3.3267E-02   2.2488E-04  0.0399
   3.3267E-02   3.4076E-02   2.2116E-04  0.0397
   3.4076E-02   3.4905E-02   2.1913E-04  0.0395
   3.4905E-02   3.5755E-02   2.1235E-04  0.0396
   3.5755E-02   3.6625E-02   2.0561E-04  0.0397
   3.6625E-02   3.7516E-02   1.8606E-04  0.0413
   3.7516E-02   3.8428E-02   1.9580E-04  0.0398
   3.8428E-02   3.9363E-02   1.8628E-04  0.0403
   3.9363E-02   4.0321E-02   1.9078E-04  0.0393
   4.0321E-02   4.1302E-02   1.9533E-04  0.0385
   4.1302E-02   4.2307E-02   1.7729E-04  0.0398
   4.2307E-02   4.3337E-02   1.8065E-04  0.0389
   4.3337E-02   4.4391E-02   1.6461E-04  0.0404
   4.4391E-02   4.5471E-02   1.6661E-04  0.0397
   4.5471E-02   4.6577E-02   1.5920E-04  0.0401
   4.6577E-02   4.7711E-02   1.7464E-04  0.0378
   4.7711E-02   4.8871E-02   1.6994E-04  0.0379
   4.8871E-02   5.0061E-02   1.5456E-04  0.0392
   5.0061E-02   5.1279E-02   1.4635E-04  0.0398
   5.1279E-02   5.2526E-02   1.4667E-04  0.0393
   5.2526E-02   5.3804E-02   1.5099E-04  0.0383
   5.3804E-02   5.5113E-02   1.4185E-04  0.0390
   5.5113E-02   5.6454E-02   1.3708E-04  0.0393
   5.6454E-02   5.7828E-02   1.3355E-04  0.0393
   5.7828E-02   5.9235E-02   1.4347E-04  0.0375
   5.9235E-02   6.0676E-02   1.3751E-04  0.0378
   6.0676E-02   6.2152E-02   1.2950E-04  0.0385
   6.2152E-02   6.3665E-02   1.2344E-04  0.0389
   6.3665E-02   6.5214E-02   1.2345E-04  0.0385
   6.5214E-02   6.6800E-02   1.2162E-04  0.0383
   6.6800E-02   6.8426E-02   1.1801E-04  0.0384
   6.8426E-02   7.0090E-02   1.2051E-04  0.0376
   7.0090E-02   7.1796E-02   1.1068E-04  0.0387
   7.1796E-02   7.3543E-02   1.1437E-04  0.0377
   7.3543E-02   7.5332E-02   1.1341E-04  0.0373
   7.5332E-02   7.7165E-02   1.1251E-04  0.0370
   7.7165E-02   7.9042E-02   1.0175E-04  0.0385
   7.9042E-02   8.0965E-02   1.0831E-04  0.0369
   8.0965E-02   8.2935E-02   9.9023E-05  0.0381
   8.2935E-02   8.4953E-02   1.0251E-04  0.0370
   8.4953E-02   8.7020E-02   9.9842E-05  0.0370
   8.7020E-02   8.9138E-02   1.0528E-04  0.0356
   8.9138E-02   9.1306E-02   9.5397E-05  0.0370
   9.1306E-02   9.3528E-02   9.7450E-05  0.0362
   9.3528E-02   9.5804E-02   9.8310E-05  0.0356
   9.5804E-02   9.8134E-02   9.8338E-05  0.0352
   9.8134E-02   1.0052E-01   9.3417E-05  0.0356
   1.0052E-01   1.0297E-01   9.8562E-05  0.0343
   1.0297E-01   1.0547E-01   9.7683E-05  0.0340
   1.0547E-01   1.0804E-01   1.0334E-04  0.0327
   1.0804E-01   1.1067E-01   1.0995E-04  0.0313
   1.1067E-01   1.1336E-01   1.1245E-04  0.0306
   1.1336E-01   1.1612E-01   1.1467E-04  0.0299
   1.1612E-01   1.1894E-01   1.1406E-04  0.0296
   1.1894E-01   1.2184E-01   1.2610E-04  0.0278
   1.2184E-01   1.2480E-01   1.3401E-04  0.0267
   1.2480E-01   1.2784E-01   1.3870E-04  0.0259
   1.2784E-01   1.3095E-01   1.4612E-04  0.0250
   1.3095E-01   1.3414E-01   1.3985E-04  0.0252
   1.3414E-01   1.3740E-01   1.5184E-04  0.0239
   1.3740E-01   1.4074E-01   1.5662E-04  0.0232
   1.4074E-01   1.4417E-01   1.6635E-04  0.0223
   1.4417E-01   1.4767E-01   1.7313E-04  0.0216
   1.4767E-01   1.5127E-01   1.7759E-04  0.0211
   1.5127E-01   1.5495E-01   1.8615E-04  0.0203
   1.5495E-01   1.5872E-01   1.9214E-04  0.0198
   1.5872E-01   1.6258E-01   2.0564E-04  0.0189
   1.6258E-01   1.6654E-01   2.0232E-04  0.0188
   1.6654E-01   1.7059E-01   2.0627E-04  0.0184
   1.7059E-01   1.7474E-01   2.1968E-04  0.0176
   1.7474E-01   1.7899E-01   2.3138E-04  0.0170
   1.7899E-01   1.8334E-01   2.3022E-04  0.0168
   1.8334E-01   1.8781E-01   2.4210E-04  0.0162
   1.8781E-01   1.9237E-01   2.4938E-04  0.0158
   1.9237E-01   1.9706E-01   2.5720E-04  0.0153
   1.9706E-01   2.0185E-01   2.6567E-04  0.0149
   2.0185E-01   2.0676E-01   2.6917E-04  0.0146
   2.0676E-01   2.1179E-01   2.8644E-04  0.0140
   2.1179E-01   2.1694E-01   2.9647E-04  0.0136
   2.1694E-01   2.2222E-01   2.9326E-04  0.0135
   2.2222E-01   2.2763E-01   3.0888E-04  0.0130
   2.2763E-01   2.3317E-01   3.2184E-04  0.0126
   2.3317E-01   2.3884E-01   3.3415E-04  0.0122
   2.3884E-01   2.4465E-01   3.4763E-04  0.0118
   2.4465E-01   2.5061E-01   3.5731E-04  0.0115
   2.5061E-01   2.5670E-01   3.7435E-04  0.0111
   2.5670E-01   2.6295E-01   3.7209E-04  0.0110
   2.6295E-01   2.6935E-01   3.8734E-04  0.0107
   2.6935E-01   2.7590E-01   3.9871E-04  0.0104
   2.7590E-01   2.8261E-01   4.0266E-04  0.0102
   2.8261E-01   2.8949E-01   4.1616E-04  0.0099
   2.8949E-01   2.9653E-01   4.2265E-04  0.0097
   2.9653E-01   3.0375E-01   4.3707E-04  0.0095
   3.0375E-01   3.1114E-01   4.5859E-04  0.0091
   3.1114E-01   3.1871E-01   4.5473E-04  0.0091
   3.1871E-01   3.2646E-01   4.6442E-04  0.0089
   3.2646E-01   3.3441E-01   4.7177E-04  0.0087
   3.3441E-01   3.4254E-01   4.9168E-04  0.0084
   3.4254E-01   3.5088E-01   4.9853E-04  0.0082
   3.5088E-01   3.5941E-01   5.0836E-04  0.0081
   3.5941E-01   3.6816E-01   5.1565E-04  0.0079
   3.6816E-01   3.7712E-01   5.2262E-04  0.0078
   3.7712E-01   3.8629E-01   5.4368E-04  0.0075
   3.8629E-01   3.9569E-01   5.5234E-04  0.0074
   3.9569E-01   4.0532E-01   5.5355E-04  0.0073
   4.0532E-01   4.1518E-01   5.6813E-04  0.0071
   4.1518E-01   4.2528E-01   5.7286E-04  0.0070
   4.2528E-01   4.3563E-01   5.7942E-04  0.0069
   4.3563E-01   4.4623E-01   5.8936E-04  0.0067
   4.4623E-01   4.5708E-01   6.0455E-04  0.0066
   4.5708E-01   4.6821E-01   6.0367E-04  0.0065
   4.6821E-01   4.7960E-01   6.0760E-04  0.0064
   4.7960E-01   4.9127E-01   6.1465E-04  0.0063
   4.9127E-01   5.0322E-01   6.1904E-04  0.0062
   5.0322E-01   5.1546E-01   6.2168E-04  0.0061
   5.1546E-01   5.2800E-01   6.2031E-04  0.0060
   5.2800E-01   5.4085E-01   6.2890E-04  0.0059
   5.4085E-01   5.5401E-01   6.3278E-04  0.0058
   5.5401E-01   5.6749E-01   6.3310E-04  0.0057
   5.6749E-01   5.8130E-01   6.3556E-04  0.0057
   5.8130E-01   5.9544E-01   6.3951E-04  0.0056
   5.9544E-01   6.0993E-01   6.3454E-04  0.0055
   6.0993E-01   6.2477E-01   6.3556E-04  0.0055
   6.2477E-01   6.3997E-01   6.2903E-04  0.0054
   6.3997E-01   6.5554E-01   6.2900E-04  0.0054
   6.5554E-01   6.7149E-01   6.2222E-04  0.0053
   6.7149E-01   6.8783E-01   6.1828E-04  0.0053
   6.8783E-01   7.0456E-01   6.1104E-04  0.0052
   7.0456E-01   7.2171E-01   6.0581E-04  0.0052
   7.2171E-01   7.3927E-01   5.9736E-04  0.0052
   7.3927E-01   7.5725E-01   5.8435E-04  0.0052
   7.5725E-01   7.7568E-01   5.7793E-04  0.0051
   7.7568E-01   7.9455E-01   5.6295E-04  0.0051
   7.9455E-01   8.1388E-01   5.5071E-04  0.0051
   8.1388E-01   8.3368E-01   5.3466E-04  0.0051
   8.3368E-01   8.5397E-01   5.2308E-04  0.0051
   8.5397E-01   8.7475E-01   5.0534E-04  0.0052
   8.7475E-01   8.9603E-01   4.8769E-04  0.0052
   8.9603E-01   9.1783E-01   4.7307E-04  0.0052
   9.1783E-01   9.4016E-01   4.5225E-04  0.0053
   9.4016E-01   9.6304E-01   4.3832E-04  0.0053
   9.6304E-01   9.8647E-01   4.2636E-04  0.0053
   9.8647E-01   1.0105E+00   4.1693E-04  0.0053
   1.0105E+00   1.0351E+00   4.1542E-04  0.0052
   1.0351E+00   1.0602E+00   4.2168E-04  0.0051
   1.0602E+00   1.0860E+00   4.2696E-04  0.0050
   1.0860E+00   1.1125E+00   4.3670E-04  0.0049
   1.1125E+00   1.1395E+00   4.4483E-04  0.0048
   1.1395E+00   1.1673E+00   4.6127E-04  0.0047
   1.1673E+00   1.1957E+00   4.7213E-04  0.0045
   1.1957E+00   1.2247E+00   4.8742E-04  0.0044
   1.2247E+00   1.2545E+00   4.8636E-04  0.0044
   1.2545E+00   1.2851E+00   4.9194E-04  0.0043
   1.2851E+00   1.3163E+00   5.0065E-04  0.0042
   1.3163E+00   1.3484E+00   5.0463E-04  0.0041
   1.3484E+00   1.3812E+00   5.1522E-04  0.0040
   1.3812E+00   1.4148E+00   5.2212E-04  0.0040
   1.4148E+00   1.4492E+00   5.1920E-04  0.0039
   1.4492E+00   1.4845E+00   5.1965E-04  0.0039
   1.4845E+00   1.5206E+00   5.1744E-04  0.0038
   1.5206E+00   1.5576E+00   5.1286E-04  0.0038
   1.5576E+00   1.5955E+00   5.1424E-04  0.0037
   1.5955E+00   1.6343E+00   5.1018E-04  0.0037
   1.6343E+00   1.6741E+00   5.0620E-04  0.0037
   1.6741E+00   1.7148E+00   5.0288E-04  0.0036
   1.7148E+00   1.7565E+00   4.8490E-04  0.0037
   1.7565E+00   1.7992E+00   4.6280E-04  0.0037
   1.7992E+00   1.8430E+00   4.3821E-04  0.0037
   1.8430E+00   1.8879E+00   4.2436E-04  0.0038
   1.8879E+00   1.9338E+00   4.1644E-04  0.0037
   1.9338E+00   1.9808E+00   4.1750E-04  0.0037
   1.9808E+00   2.0290E+00   4.1995E-04  0.0036
   2.0290E+00   2.0784E+00   4.1866E-04  0.0036
   2.0784E+00   2.1290E+00   4.2094E-04  0.0035
   2.1290E+00   2.1808E+00   4.2484E-04  0.0035
   2.1808E+00   2.2338E+00   4.2252E-04  0.0034
   2.2338E+00   2.2882E+00   4.1451E-04  0.0034
   2.2882E+00   2.3439E+00   3.9979E-04  0.0035
   2.3439E+00   2.4009E+00   3.9979E-04  0.0034
   2.4009E+00   2.4593E+00   3.9311E-04  0.0034
   2.4593E+00   2.5191E+00   3.8766E-04  0.0034
   2.5191E+00   2.5804E+00   3.8341E-04  0.0034
   2.5804E+00   2.6432E+00   3.7579E-04  0.0034
   2.6432E+00   2.7075E+00   3.6978E-04  0.0034
   2.7075E+00   2.7734E+00   3.6181E-04  0.0034
   2.7734E+00   2.8409E+00   3.5505E-04  0.0033
   2.8409E+00   2.9100E+00   3.5005E-04  0.0033
   2.9100E+00   2.9808E+00   3.4894E-04  0.0033
   2.9808E+00   3.0533E+00   3.4161E-04  0.0033
   3.0533E+00   3.1276E+00   3.3340E-04  0.0033
   3.1276E+00   3.2037E+00   3.2857E-04  0.0033
   3.2037E+00   3.2817E+00   3.2322E-04  0.0033
   3.2817E+00   3.3615E+00   3.2084E-04  0.0032
   3.3615E+00   3.4433E+00   3.1492E-04  0.0032
   3.4433E+00   3.5271E+00   3.0967E-04  0.0032
   3.5271E+00   3.6129E+00   3.0533E-04  0.0032
   3.6129E+00   3.7008E+00   2.9809E-04  0.0032
   3.7008E+00   3.7908E+00   2.9129E-04  0.0032
   3.7908E+00   3.8831E+00   2.8289E-04  0.0032
   3.8831E+00   3.9776E+00   2.7950E-04  0.0032
   3.9776E+00   4.0743E+00   2.7296E-04  0.0032
   4.0743E+00   4.1735E+00   2.6561E-04  0.0032
   4.1735E+00   4.2750E+00   2.5927E-04  0.0032
   4.2750E+00   4.3790E+00   2.5018E-04  0.0032
   4.3790E+00   4.4856E+00   2.4153E-04  0.0033
   4.4856E+00   4.5947E+00   2.3519E-04  0.0033
   4.5947E+00   4.7065E+00   2.2789E-04  0.0033
   4.7065E+00   4.8210E+00   2.2234E-04  0.0033
   4.8210E+00   4.9383E+00   2.1455E-04  0.0033
   4.9383E+00   5.0585E+00   2.1098E-04  0.0033
   5.0585E+00   5.1815E+00   2.0540E-04  0.0033
   5.1815E+00   5.3076E+00   1.9923E-04  0.0033
   5.3076E+00   5.4368E+00   1.9416E-04  0.0033
   5.4368E+00   5.5690E+00   1.8762E-04  0.0033
   5.5690E+00   5.7045E+00   1.8221E-04  0.0033
   5.7045E+00   5.8433E+00   1.7709E-04  0.0033
   5.8433E+00   5.9855E+00   1.7220E-04  0.0033
   5.9855E+00   6.1311E+00   1.6785E-04  0.0033
   6.1311E+00   6.2803E+00   1.6132E-04  0.0034
   6.2803E+00   6.4331E+00   1.5611E-04  0.0034
   6.4331E+00   6.5896E+00   1.5058E-04  0.0034
   6.5896E+00   6.7500E+00   1.4469E-04  0.0034
   6.7500E+00   6.9142E+00   1.3965E-04  0.0035
   6.9142E+00   7.0824E+00   1.3346E-04  0.0035
   7.0824E+00   7.2548E+00   1.2811E-04  0.0035
   7.2548E+00   7.4313E+00   1.2202E-04  0.0036
   7.4313E+00   7.6121E+00   1.1555E-04  0.0036
   7.6121E+00   7.7973E+00   1.1059E-04  0.0037
   7.7973E+00   7.9870E+00   1.0499E-04  0.0037
   7.9870E+00   8.1813E+00   9.9675E-05  0.0038
   8.1813E+00   8.3804E+00   9.4754E-05  0.0038
   8.3804E+00   8.5843E+00   9.0039E-05  0.0039
   8.5843E+00   8.7931E+00   8.6160E-05  0.0039
   8.7931E+00   9.0071E+00   8.1010E-05  0.0040
   9.0071E+00   9.2262E+00   7.7032E-05  0.0041
   9.2262E+00   9.4507E+00   7.2987E-05  0.0041
   9.4507E+00   9.6807E+00   6.9255E-05  0.0042
   9.6807E+00   9.9162E+00   6.5931E-05  0.0043
   9.9162E+00   1.0157E+01   6.5850E-05  0.0042
   1.0157E+01   1.0405E+01   6.2228E-05  0.0043
   1.0405E+01   1.0658E+01   5.8695E-05  0.0044
   1.0658E+01   1.0917E+01   5.5408E-05  0.0044
   1.0917E+01   1.1183E+01   5.2017E-05  0.0045
   1.1183E+01   1.1455E+01   4.9505E-05  0.0046
   1.1455E+01   1.1733E+01   4.6571E-05  0.0047
   1.1733E+01   1.2019E+01   4.4465E-05  0.0047
   1.2019E+01   1.2311E+01   4.2191E-05  0.0048
   1.2311E+01   1.2611E+01   3.9914E-05  0.0049
   1.2611E+01   1.2918E+01   3.8163E-05  0.0049
   1.2918E+01   1.3232E+01   3.5880E-05  0.0050
   1.3232E+01   1.3554E+01   3.4397E-05  0.0051
   1.3554E+01   1.3884E+01   3.2128E-05  0.0052
   1.3884E+01   1.4222E+01   3.0630E-05  0.0052
   1.4222E+01   1.4568E+01   2.9086E-05  0.0053
   1.4568E+01   1.4922E+01   2.7723E-05  0.0054
   1.4922E+01   1.5285E+01   2.5977E-05  0.0055
   1.5285E+01   1.5657E+01   2.4830E-05  0.0056
   1.5657E+01   1.6038E+01   2.3670E-05  0.0056
   1.6038E+01   1.6428E+01   2.2082E-05  0.0057
   1.6428E+01   1.6828E+01   2.1010E-05  0.0058
   1.6828E+01   1.7237E+01   1.9592E-05  0.0060
   1.7237E+01   1.7657E+01   1.8946E-05  0.0060
   1.7657E+01   1.8086E+01   1.7784E-05  0.0061
   1.8086E+01   1.8526E+01   1.6409E-05  0.0063
   1.8526E+01   1.8977E+01   1.5422E-05  0.0064
   1.8977E+01   1.9439E+01   1.4783E-05  0.0065
   1.9439E+01   1.9912E+01   1.3716E-05  0.0066
   1.9912E+01   2.0396E+01   1.3240E-05  0.0067
   2.0396E+01   2.0893E+01   1.2517E-05  0.0068
   2.0893E+01   2.1401E+01   1.1481E-05  0.0070
   2.1401E+01   2.1922E+01   1.0840E-05  0.0071
   2.1922E+01   2.2455E+01   1.0091E-05  0.0073
   2.2455E+01   2.3001E+01   9.5570E-06  0.0074
   2.3001E+01   2.3561E+01   8.8327E-06  0.0076
   2.3561E+01   2.4134E+01   8.0064E-06  0.0079
   2.4134E+01   2.4721E+01   7.5520E-06  0.0080
   2.4721E+01   2.5323E+01   6.9380E-06  0.0083
   2.5323E+01   2.5939E+01   6.3405E-06  0.0086
   2.5939E+01   2.6570E+01   5.7476E-06  0.0089
   2.6570E+01   2.7217E+01   5.2350E-06  0.0092
   2.7217E+01   2.7879E+01   4.7719E-06  0.0095
   2.7879E+01   2.8557E+01   4.3119E-06  0.0099
   2.8557E+01   2.9252E+01   4.0208E-06  0.0101
   2.9252E+01   2.9964E+01   3.5704E-06  0.0106
   2.9964E+01   3.0693E+01   3.2301E-06  0.0110
   3.0693E+01   3.1440E+01   2.8538E-06  0.0116
   3.1440E+01   3.2205E+01   2.6284E-06  0.0119
   3.2205E+01   3.2988E+01   2.3329E-06  0.0125
   3.2988E+01   3.3791E+01   2.0255E-06  0.0133
   3.3791E+01   3.4613E+01   1.8238E-06  0.0138
   3.4613E+01   3.5455E+01   1.6386E-06  0.0144
   3.5455E+01   3.6318E+01   1.3838E-06  0.0155
   3.6318E+01   3.7201E+01   1.2529E-06  0.0161
   3.7201E+01   3.8106E+01   1.0508E-06  0.0173
   3.8106E+01   3.9034E+01   9.2880E-07  0.0182
   3.9034E+01   3.9983E+01   8.0054E-07  0.0194
   3.9983E+01   4.0956E+01   7.0722E-07  0.0204
   4.0956E+01   4.1953E+01   5.7545E-07  0.0223
   4.1953E+01   4.2973E+01   5.1055E-07  0.0234
   4.2973E+01   4.4019E+01   4.2956E-07  0.0252
   4.4019E+01   4.5090E+01   3.5400E-07  0.0275
   4.5090E+01   4.6187E+01   2.9195E-07  0.0299
   4.6187E+01   4.7311E+01   2.5043E-07  0.0319
   4.7311E+01   4.8462E+01   2.0701E-07  0.0346
   4.8462E+01   4.9641E+01   1.6695E-07  0.0381
   4.9641E+01   5.0849E+01   1.3815E-07  0.0414
   5.0849E+01   5.2086E+01   1.0623E-07  0.0466
   5.2086E+01   5.3353E+01   8.7926E-08  0.0506
   5.3353E+01   5.4651E+01   6.5149E-08  0.0581
   5.4651E+01   5.5981E+01   5.2213E-08  0.0642
   5.5981E+01   5.7343E+01   3.1884E-08  0.0811
   5.7343E+01   5.8738E+01   2.3140E-08  0.0941
   5.8738E+01   6.0168E+01   1.7193E-08  0.1078
   6.0168E+01   6.1632E+01   1.0344E-08  0.1374
   6.1632E+01   6.3131E+01   6.4782E-09  0.1715
   6.3131E+01   6.4667E+01   4.0922E-09  0.2132
   6.4667E+01   6.6240E+01   2.1791E-09  0.2887
   6.6240E+01   6.7852E+01   7.0911E-10  0.5000
   6.7852E+01   6.9503E+01   1.7307E-10  1.0000
   6.9503E+01   7.1194E+01   3.3791E-10  0.7071
   7.1194E+01   7.2926E+01   0.0000E+00  0.0000
   7.2926E+01   7.4701E+01   0.0000E+00  0.0000
   7.4701E+01   7.6518E+01   0.0000E+00  0.0000
   7.6518E+01   7.8380E+01   0.0000E+00  0.0000
   7.8380E+01   8.0287E+01   0.0000E+00  0.0000
   8.0287E+01   8.2240E+01   0.0000E+00  0.0000
   8.2240E+01   8.4241E+01   0.0000E+00  0.0000
   8.4241E+01   8.6291E+01   0.0000E+00  0.0000
   8.6291E+01   8.8391E+01   0.0000E+00  0.0000
   8.8391E+01   9.0541E+01   0.0000E+00  0.0000
   9.0541E+01   9.2744E+01   0.0000E+00  0.0000
   9.2744E+01   9.5001E+01   0.0000E+00  0.0000
   9.5001E+01   9.7312E+01   0.0000E+00  0.0000
   9.7312E+01   9.9680E+01   0.0000E+00  0.0000
   9.9680E+01   1.0211E+02   0.0000E+00  0.0000
   1.0211E+02   1.0459E+02   0.0000E+00  0.0000
   1.0459E+02   1.0713E+02   0.0000E+00  0.0000
   1.0713E+02   1.0974E+02   0.0000E+00  0.0000
   1.0974E+02   1.1241E+02   0.0000E+00  0.0000
   1.1241E+02   1.1515E+02   0.0000E+00  0.0000
   1.1515E+02   1.1795E+02   0.0000E+00  0.0000
   1.1795E+02   1.2082E+02   0.0000E+00  0.0000
   1.2082E+02   1.2376E+02   0.0000E+00  0.0000
   1.2376E+02   1.2677E+02   0.0000E+00  0.0000
   1.2677E+02   1.2985E+02   0.0000E+00  0.0000
   1.2985E+02   1.3301E+02   0.0000E+00  0.0000
   1.3301E+02   1.3625E+02   0.0000E+00  0.0000
   1.3625E+02   1.3956E+02   0.0000E+00  0.0000
   1.3956E+02   1.4296E+02   0.0000E+00  0.0000
   1.4296E+02   1.4644E+02   0.0000E+00  0.0000
   1.4644E+02   1.5000E+02   0.0000E+00  0.0000

#   sum over                 1.9242E-05
'no. =    1   reg = 115 - 215'
msuc: {\huge [t-cross] in region mesh}
msdr: {\it plotted by \ANGEL \version}
msdl: {\it calculated by \PHITS  3.26}
wt: s(0.7)
\vspace{-3}
  region surface crossing
  area  &=&   1.0000E+00 [cm^2]
e:
 
# Information for Restart Calculation
# This calculation was newly started
# istdev =  2 # 1:Batch variance, 2:History variance
# resc2  = 3.50000000000000000E+09 # Total source weight or Total source weight / maxcas
# resc3  = 3.50000000000000000E+09 # Total history number or Total batch number
# maxcas =   100000000 # History / Batch, only used for istdev=1
# bitrseed = 0000101100011000111110010011011110110000110001011001110010110101 # bit data of rseed
