[ T-Cross ]
    title = [t-cross] in region mesh
     mesh =  reg            # mesh type is region-wise
      reg =    1            # number of crossing regions
      non     r-from    r-to       area
      1       120       220        1.000000    
   e-type =    3            # e-mesh is log given by emin, emax and ne
     emin =  1.0000000E-02  # minimum value of e-mesh points
     emax =   150.0000      # maximum value of e-mesh points
#    edel =  2.4039514E-02  # mesh width of e-mesh points
       ne =    400          # number of e-mesh points
#    data = ( e(i), i = 1, ne + 1 )
#           1.00000E-02  1.02433E-02  1.04925E-02  1.07478E-02  1.10093E-02
#           1.12772E-02  1.15516E-02  1.18326E-02  1.21205E-02  1.24154E-02
#           1.27175E-02  1.30269E-02  1.33439E-02  1.36686E-02  1.40011E-02
#           1.43418E-02  1.46907E-02  1.50482E-02  1.54143E-02  1.57894E-02
#           1.61735E-02  1.65670E-02  1.69701E-02  1.73830E-02  1.78060E-02
#           1.82392E-02  1.86830E-02  1.91375E-02  1.96032E-02  2.00801E-02
#           2.05687E-02  2.10692E-02  2.15818E-02  2.21069E-02  2.26448E-02
#           2.31957E-02  2.37601E-02  2.43382E-02  2.49304E-02  2.55369E-02
#           2.61583E-02  2.67947E-02  2.74467E-02  2.81145E-02  2.87985E-02
#           2.94992E-02  3.02169E-02  3.09521E-02  3.17052E-02  3.24766E-02
#           3.32668E-02  3.40762E-02  3.49053E-02  3.57546E-02  3.66246E-02
#           3.75157E-02  3.84284E-02  3.93634E-02  4.03212E-02  4.13022E-02
#           4.23071E-02  4.33365E-02  4.43909E-02  4.54710E-02  4.65773E-02
#           4.77106E-02  4.88714E-02  5.00605E-02  5.12785E-02  5.25262E-02
#           5.38042E-02  5.51133E-02  5.64542E-02  5.78278E-02  5.92348E-02
#           6.06760E-02  6.21523E-02  6.36645E-02  6.52135E-02  6.68002E-02
#           6.84255E-02  7.00904E-02  7.17957E-02  7.35426E-02  7.53319E-02
#           7.71648E-02  7.90423E-02  8.09655E-02  8.29354E-02  8.49533E-02
#           8.70203E-02  8.91376E-02  9.13064E-02  9.35279E-02  9.58035E-02
#           9.81345E-02  1.00522E-01  1.02968E-01  1.05473E-01  1.08040E-01
#           1.10668E-01  1.13361E-01  1.16119E-01  1.18944E-01  1.21838E-01
#           1.24803E-01  1.27839E-01  1.30950E-01  1.34136E-01  1.37399E-01
#           1.40742E-01  1.44167E-01  1.47675E-01  1.51268E-01  1.54948E-01
#           1.58718E-01  1.62580E-01  1.66535E-01  1.70587E-01  1.74738E-01
#           1.78989E-01  1.83344E-01  1.87805E-01  1.92375E-01  1.97055E-01
#           2.01850E-01  2.06761E-01  2.11792E-01  2.16945E-01  2.22223E-01
#           2.27630E-01  2.33169E-01  2.38842E-01  2.44653E-01  2.50605E-01
#           2.56703E-01  2.62949E-01  2.69346E-01  2.75900E-01  2.82613E-01
#           2.89489E-01  2.96532E-01  3.03747E-01  3.11138E-01  3.18708E-01
#           3.26462E-01  3.34405E-01  3.42542E-01  3.50876E-01  3.59413E-01
#           3.68158E-01  3.77116E-01  3.86291E-01  3.95690E-01  4.05317E-01
#           4.15179E-01  4.25281E-01  4.35628E-01  4.46227E-01  4.57084E-01
#           4.68205E-01  4.79597E-01  4.91266E-01  5.03219E-01  5.15463E-01
#           5.28005E-01  5.40851E-01  5.54011E-01  5.67490E-01  5.81298E-01
#           5.95441E-01  6.09929E-01  6.24769E-01  6.39970E-01  6.55541E-01
#           6.71491E-01  6.87828E-01  7.04564E-01  7.21706E-01  7.39266E-01
#           7.57253E-01  7.75678E-01  7.94551E-01  8.13883E-01  8.33685E-01
#           8.53969E-01  8.74747E-01  8.96030E-01  9.17831E-01  9.40163E-01
#           9.63038E-01  9.86469E-01  1.01047E+00  1.03506E+00  1.06024E+00
#           1.08604E+00  1.11246E+00  1.13953E+00  1.16725E+00  1.19565E+00
#           1.22474E+00  1.25454E+00  1.28507E+00  1.31633E+00  1.34836E+00
#           1.38117E+00  1.41477E+00  1.44920E+00  1.48446E+00  1.52057E+00
#           1.55757E+00  1.59547E+00  1.63429E+00  1.67405E+00  1.71478E+00
#           1.75650E+00  1.79924E+00  1.84302E+00  1.88786E+00  1.93379E+00
#           1.98084E+00  2.02904E+00  2.07841E+00  2.12898E+00  2.18078E+00
#           2.23384E+00  2.28819E+00  2.34386E+00  2.40089E+00  2.45930E+00
#           2.51914E+00  2.58043E+00  2.64322E+00  2.70753E+00  2.77341E+00
#           2.84088E+00  2.91001E+00  2.98081E+00  3.05333E+00  3.12762E+00
#           3.20372E+00  3.28167E+00  3.36152E+00  3.44330E+00  3.52708E+00
#           3.61290E+00  3.70080E+00  3.79085E+00  3.88308E+00  3.97756E+00
#           4.07434E+00  4.17347E+00  4.27501E+00  4.37903E+00  4.48557E+00
#           4.59471E+00  4.70650E+00  4.82102E+00  4.93832E+00  5.05847E+00
#           5.18155E+00  5.30762E+00  5.43676E+00  5.56904E+00  5.70453E+00
#           5.84333E+00  5.98550E+00  6.13114E+00  6.28031E+00  6.43312E+00
#           6.58964E+00  6.74997E+00  6.91420E+00  7.08243E+00  7.25475E+00
#           7.43126E+00  7.61207E+00  7.79728E+00  7.98700E+00  8.18133E+00
#           8.38038E+00  8.58428E+00  8.79315E+00  9.00709E+00  9.22624E+00
#           9.45072E+00  9.68067E+00  9.91620E+00  1.01575E+01  1.04046E+01
#           1.06578E+01  1.09171E+01  1.11827E+01  1.14548E+01  1.17335E+01
#           1.20190E+01  1.23114E+01  1.26109E+01  1.29178E+01  1.32321E+01
#           1.35540E+01  1.38838E+01  1.42216E+01  1.45676E+01  1.49221E+01
#           1.52851E+01  1.56570E+01  1.60380E+01  1.64282E+01  1.68279E+01
#           1.72374E+01  1.76568E+01  1.80864E+01  1.85264E+01  1.89772E+01
#           1.94389E+01  1.99119E+01  2.03963E+01  2.08926E+01  2.14009E+01
#           2.19216E+01  2.24550E+01  2.30014E+01  2.35610E+01  2.41343E+01
#           2.47215E+01  2.53230E+01  2.59391E+01  2.65702E+01  2.72167E+01
#           2.78789E+01  2.85572E+01  2.92520E+01  2.99637E+01  3.06928E+01
#           3.14396E+01  3.22045E+01  3.29881E+01  3.37907E+01  3.46128E+01
#           3.54550E+01  3.63177E+01  3.72013E+01  3.81064E+01  3.90336E+01
#           3.99833E+01  4.09561E+01  4.19526E+01  4.29734E+01  4.40189E+01
#           4.50900E+01  4.61870E+01  4.73108E+01  4.84619E+01  4.96410E+01
#           5.08488E+01  5.20860E+01  5.33533E+01  5.46514E+01  5.59812E+01
#           5.73432E+01  5.87384E+01  6.01676E+01  6.16315E+01  6.31311E+01
#           6.46671E+01  6.62405E+01  6.78522E+01  6.95031E+01  7.11941E+01
#           7.29263E+01  7.47007E+01  7.65182E+01  7.83800E+01  8.02870E+01
#           8.22405E+01  8.42414E+01  8.62911E+01  8.83906E+01  9.05412E+01
#           9.27442E+01  9.50007E+01  9.73122E+01  9.96799E+01  1.02105E+02
#           1.04589E+02  1.07134E+02  1.09741E+02  1.12411E+02  1.15146E+02
#           1.17948E+02  1.20817E+02  1.23757E+02  1.26768E+02  1.29852E+02
#           1.33012E+02  1.36248E+02  1.39563E+02  1.42959E+02  1.46437E+02
#           1.50000E+02
     unit =    2            # unit is [1/cm^2/(MeV/n)/source]
     axis =  eng            # axis of output
     file = detector-21.out  # file name of output for the above axis
   output = f-curr          # surface crossing forward current spectrum
     part =  neutron  
# kf/name :  2112     
#    used :        main (  %)        temp (  %)       total (  %)
#  memory :         414 (  0)           0 (  0)         414 (  0)

#------------------------------------------------------------------------------
#newpage:
#   no. =    1   reg = 120 - 220

x: Energy [MeV/n]
y:  F-Curr [1/cm^2/(MeV/n)/source]         
p: xlog ylog afac(0.8) form(0.9)
h: n            x            y(neutron ),hh0l   n 
#  e-lower      e-upper      neutron     r.err 
   1.0000E-02   1.0243E-02   1.4193E-03  0.0760
   1.0243E-02   1.0493E-02   1.2373E-03  0.0805
   1.0493E-02   1.0748E-02   9.8711E-04  0.0889
   1.0748E-02   1.1009E-02   1.2109E-03  0.0794
   1.1009E-02   1.1277E-02   1.1079E-03  0.0820
   1.1277E-02   1.1552E-02   1.1285E-03  0.0802
   1.1552E-02   1.1833E-02   1.0944E-03  0.0804
   1.1833E-02   1.2121E-02   1.0708E-03  0.0805
   1.2121E-02   1.2415E-02   9.1894E-04  0.0856
   1.2415E-02   1.2718E-02   9.8831E-04  0.0816
   1.2718E-02   1.3027E-02   1.2323E-03  0.0723
   1.3027E-02   1.3344E-02   1.0916E-03  0.0760
   1.3344E-02   1.3669E-02   8.7782E-04  0.0837
   1.3669E-02   1.4001E-02   9.0628E-04  0.0813
   1.4001E-02   1.4342E-02   9.4304E-04  0.0788
   1.4342E-02   1.4691E-02   9.2564E-04  0.0786
   1.4691E-02   1.5048E-02   1.0100E-03  0.0744
   1.5048E-02   1.5414E-02   8.3935E-04  0.0806
   1.5414E-02   1.5789E-02   9.1723E-04  0.0762
   1.5789E-02   1.6174E-02   8.6695E-04  0.0774
   1.6174E-02   1.6567E-02   8.2230E-04  0.0785
   1.6567E-02   1.6970E-02   9.1129E-04  0.0736
   1.6970E-02   1.7383E-02   8.2618E-04  0.0765
   1.7383E-02   1.7806E-02   8.3463E-04  0.0751
   1.7806E-02   1.8239E-02   9.1406E-04  0.0711
   1.8239E-02   1.8683E-02   7.4944E-04  0.0775
   1.8683E-02   1.9138E-02   8.2411E-04  0.0729
   1.9138E-02   1.9603E-02   7.5952E-04  0.0751
   1.9603E-02   2.0080E-02   7.8636E-04  0.0728
   2.0080E-02   2.0569E-02   7.9810E-04  0.0715
   2.0569E-02   2.1069E-02   7.2873E-04  0.0740
   2.1069E-02   2.1582E-02   6.4569E-04  0.0777
   2.1582E-02   2.2107E-02   6.6311E-04  0.0756
   2.2107E-02   2.2645E-02   7.4837E-04  0.0704
   2.2645E-02   2.3196E-02   6.7082E-04  0.0735
   2.3196E-02   2.3760E-02   5.9770E-04  0.0769
   2.3760E-02   2.4338E-02   6.7808E-04  0.0714
   2.4338E-02   2.4930E-02   6.2536E-04  0.0734
   2.4930E-02   2.5537E-02   7.2538E-04  0.0673
   2.5537E-02   2.6158E-02   6.3785E-04  0.0709
   2.6158E-02   2.6795E-02   6.0281E-04  0.0721
   2.6795E-02   2.7447E-02   6.1743E-04  0.0704
   2.7447E-02   2.8114E-02   5.5618E-04  0.0733
   2.8114E-02   2.8799E-02   5.3308E-04  0.0739
   2.8799E-02   2.9499E-02   6.1368E-04  0.0681
   2.9499E-02   3.0217E-02   6.5483E-04  0.0652
   3.0217E-02   3.0952E-02   6.1208E-04  0.0665
   3.0952E-02   3.1705E-02   5.5806E-04  0.0689
   3.1705E-02   3.2477E-02   5.8288E-04  0.0665
   3.2477E-02   3.3267E-02   5.9894E-04  0.0649
   3.3267E-02   3.4076E-02   4.9615E-04  0.0705
   3.4076E-02   3.4905E-02   5.7812E-04  0.0645
   3.4905E-02   3.5755E-02   5.2118E-04  0.0671
   3.5755E-02   3.6625E-02   5.0638E-04  0.0672
   3.6625E-02   3.7516E-02   5.3742E-04  0.0646
   3.7516E-02   3.8428E-02   4.7362E-04  0.0679
   3.8428E-02   3.9363E-02   5.3363E-04  0.0631
   3.9363E-02   4.0321E-02   5.0187E-04  0.0645
   4.0321E-02   4.1302E-02   4.3287E-04  0.0685
   4.1302E-02   4.2307E-02   4.6331E-04  0.0654
   4.2307E-02   4.3337E-02   4.4462E-04  0.0660
   4.3337E-02   4.4391E-02   4.4164E-04  0.0655
   4.4391E-02   4.5471E-02   4.0935E-04  0.0671
   4.5471E-02   4.6577E-02   4.0366E-04  0.0669
   4.6577E-02   4.7711E-02   4.3232E-04  0.0637
   4.7711E-02   4.8871E-02   3.7682E-04  0.0676
   4.8871E-02   5.0061E-02   4.4793E-04  0.0612
   5.0061E-02   5.1279E-02   4.4796E-04  0.0605
   5.1279E-02   5.2526E-02   4.2460E-04  0.0614
   5.2526E-02   5.3804E-02   4.2488E-04  0.0607
   5.3804E-02   5.5113E-02   4.0716E-04  0.0612
   5.5113E-02   5.6454E-02   3.4894E-04  0.0653
   5.6454E-02   5.7828E-02   3.9598E-04  0.0606
   5.7828E-02   5.9235E-02   4.1520E-04  0.0584
   5.9235E-02   6.0676E-02   3.4252E-04  0.0636
   6.0676E-02   6.2152E-02   3.4610E-04  0.0625
   6.2152E-02   6.3665E-02   3.6723E-04  0.0599
   6.3665E-02   6.5214E-02   3.8561E-04  0.0578
   6.5214E-02   6.6800E-02   3.1824E-04  0.0629
   6.6800E-02   6.8426E-02   3.1663E-04  0.0623
   6.8426E-02   7.0090E-02   3.5102E-04  0.0584
   7.0090E-02   7.1796E-02   3.3242E-04  0.0594
   7.1796E-02   7.3543E-02   3.3238E-04  0.0587
   7.3543E-02   7.5332E-02   3.2337E-04  0.0587
   7.5332E-02   7.7165E-02   3.2766E-04  0.0576
   7.7165E-02   7.9042E-02   3.2045E-04  0.0575
   7.9042E-02   8.0965E-02   2.8488E-04  0.0604
   8.0965E-02   8.2935E-02   2.8780E-04  0.0593
   8.2935E-02   8.4953E-02   2.8813E-04  0.0586
   8.4953E-02   8.7020E-02   2.7968E-04  0.0587
   8.7020E-02   8.9138E-02   2.7997E-04  0.0581
   8.9138E-02   9.1306E-02   2.4564E-04  0.0612
   9.1306E-02   9.3528E-02   2.5940E-04  0.0588
   9.3528E-02   9.5804E-02   2.7713E-04  0.0562
   9.5804E-02   9.8134E-02   2.8109E-04  0.0552
   9.8134E-02   1.0052E-01   2.4012E-04  0.0590
   1.0052E-01   1.0297E-01   2.5258E-04  0.0568
   1.0297E-01   1.0547E-01   2.2301E-04  0.0597
   1.0547E-01   1.0804E-01   2.3497E-04  0.0575
   1.0804E-01   1.1067E-01   2.5304E-04  0.0548
   1.1067E-01   1.1336E-01   2.2520E-04  0.0574
   1.1336E-01   1.1612E-01   2.0316E-04  0.0597
   1.1612E-01   1.1894E-01   2.0760E-04  0.0583
   1.1894E-01   1.2184E-01   2.0109E-04  0.0586
   1.2184E-01   1.2480E-01   2.1390E-04  0.0561
   1.2480E-01   1.2784E-01   1.9545E-04  0.0580
   1.2784E-01   1.3095E-01   1.9258E-04  0.0578
   1.3095E-01   1.3414E-01   1.6779E-04  0.0611
   1.3414E-01   1.3740E-01   1.7914E-04  0.0585
   1.3740E-01   1.4074E-01   1.7358E-04  0.0587
   1.4074E-01   1.4417E-01   1.7849E-04  0.0571
   1.4417E-01   1.4767E-01   1.7588E-04  0.0569
   1.4767E-01   1.5127E-01   1.5077E-04  0.0606
   1.5127E-01   1.5495E-01   1.6148E-04  0.0579
   1.5495E-01   1.5872E-01   1.6488E-04  0.0566
   1.5872E-01   1.6258E-01   1.6227E-04  0.0564
   1.6258E-01   1.6654E-01   1.6034E-04  0.0561
   1.6654E-01   1.7059E-01   1.5503E-04  0.0563
   1.7059E-01   1.7474E-01   1.2271E-04  0.0626
   1.7474E-01   1.7899E-01   1.3273E-04  0.0595
   1.7899E-01   1.8334E-01   1.2657E-04  0.0602
   1.8334E-01   1.8781E-01   1.3755E-04  0.0570
   1.8781E-01   1.9237E-01   1.2314E-04  0.0595
   1.9237E-01   1.9706E-01   1.3369E-04  0.0565
   1.9706E-01   2.0185E-01   1.1623E-04  0.0599
   2.0185E-01   2.0676E-01   1.1685E-04  0.0590
   2.0676E-01   2.1179E-01   1.3568E-04  0.0541
   2.1179E-01   2.1694E-01   1.2367E-04  0.0559
   2.1694E-01   2.2222E-01   1.2640E-04  0.0547
   2.2222E-01   2.2763E-01   1.3240E-04  0.0528
   2.2763E-01   2.3317E-01   1.1290E-04  0.0565
   2.3317E-01   2.3884E-01   1.3894E-04  0.0502
   2.3884E-01   2.4465E-01   1.3656E-04  0.0501
   2.4465E-01   2.5061E-01   1.2559E-04  0.0517
   2.5061E-01   2.5670E-01   1.3390E-04  0.0494
   2.5670E-01   2.6295E-01   1.3204E-04  0.0492
   2.6295E-01   2.6935E-01   1.2976E-04  0.0489
   2.6935E-01   2.7590E-01   1.3158E-04  0.0481
   2.7590E-01   2.8261E-01   1.3478E-04  0.0469
   2.8261E-01   2.8949E-01   1.3654E-04  0.0460
   2.8949E-01   2.9653E-01   1.4007E-04  0.0450
   2.9653E-01   3.0375E-01   1.3555E-04  0.0451
   3.0375E-01   3.1114E-01   1.2628E-04  0.0462
   3.1114E-01   3.1871E-01   1.2691E-04  0.0455
   3.1871E-01   3.2646E-01   1.3012E-04  0.0444
   3.2646E-01   3.3441E-01   1.3251E-04  0.0435
   3.3441E-01   3.4254E-01   1.3488E-04  0.0425
   3.4254E-01   3.5088E-01   1.2452E-04  0.0438
   3.5088E-01   3.5941E-01   1.3107E-04  0.0422
   3.5941E-01   3.6816E-01   1.2950E-04  0.0419
   3.6816E-01   3.7712E-01   1.3374E-04  0.0408
   3.7712E-01   3.8629E-01   1.2227E-04  0.0421
   3.8629E-01   3.9569E-01   1.2435E-04  0.0412
   3.9569E-01   4.0532E-01   1.2999E-04  0.0399
   4.0532E-01   4.1518E-01   1.2568E-04  0.0400
   4.1518E-01   4.2528E-01   1.2759E-04  0.0393
   4.2528E-01   4.3563E-01   1.2099E-04  0.0398
   4.3563E-01   4.4623E-01   1.1294E-04  0.0407
   4.4623E-01   4.5708E-01   1.1829E-04  0.0393
   4.5708E-01   4.6821E-01   1.1997E-04  0.0386
   4.6821E-01   4.7960E-01   1.1340E-04  0.0392
   4.7960E-01   4.9127E-01   1.1415E-04  0.0387
   4.9127E-01   5.0322E-01   1.1212E-04  0.0385
   5.0322E-01   5.1546E-01   1.0984E-04  0.0384
   5.1546E-01   5.2800E-01   1.0859E-04  0.0381
   5.2800E-01   5.4085E-01   1.1450E-04  0.0368
   5.4085E-01   5.5401E-01   1.0544E-04  0.0378
   5.5401E-01   5.6749E-01   1.0574E-04  0.0372
   5.6749E-01   5.8130E-01   1.0955E-04  0.0362
   5.8130E-01   5.9544E-01   1.0583E-04  0.0364
   5.9544E-01   6.0993E-01   1.0663E-04  0.0358
   6.0993E-01   6.2477E-01   1.0457E-04  0.0358
   6.2477E-01   6.3997E-01   1.0399E-04  0.0354
   6.3997E-01   6.5554E-01   1.0121E-04  0.0354
   6.5554E-01   6.7149E-01   9.9432E-05  0.0353
   6.7149E-01   6.8783E-01   9.2188E-05  0.0363
   6.8783E-01   7.0456E-01   9.4095E-05  0.0354
   7.0456E-01   7.2171E-01   9.0691E-05  0.0357
   7.2171E-01   7.3927E-01   8.7516E-05  0.0359
   7.3927E-01   7.5725E-01   8.7610E-05  0.0354
   7.5725E-01   7.7568E-01   8.8364E-05  0.0348
   7.7568E-01   7.9455E-01   9.2669E-05  0.0336
   7.9455E-01   8.1388E-01   8.8441E-05  0.0340
   8.1388E-01   8.3368E-01   8.4132E-05  0.0344
   8.3368E-01   8.5397E-01   8.5049E-05  0.0338
   8.5397E-01   8.7475E-01   9.1696E-05  0.0322
   8.7475E-01   8.9603E-01   8.7832E-05  0.0325
   8.9603E-01   9.1783E-01   8.5342E-05  0.0326
   9.1783E-01   9.4016E-01   8.2975E-05  0.0326
   9.4016E-01   9.6304E-01   8.5676E-05  0.0317
   9.6304E-01   9.8647E-01   8.0965E-05  0.0323
   9.8647E-01   1.0105E+00   8.0013E-05  0.0321
   1.0105E+00   1.0351E+00   8.2247E-05  0.0313
   1.0351E+00   1.0602E+00   7.9352E-05  0.0314
   1.0602E+00   1.0860E+00   8.0922E-05  0.0308
   1.0860E+00   1.1125E+00   7.6674E-05  0.0312
   1.1125E+00   1.1395E+00   8.0299E-05  0.0301
   1.1395E+00   1.1673E+00   7.5355E-05  0.0308
   1.1673E+00   1.1957E+00   7.7972E-05  0.0299
   1.1957E+00   1.2247E+00   7.6218E-05  0.0299
   1.2247E+00   1.2545E+00   7.6364E-05  0.0295
   1.2545E+00   1.2851E+00   7.2959E-05  0.0297
   1.2851E+00   1.3163E+00   7.8998E-05  0.0283
   1.3163E+00   1.3484E+00   7.3633E-05  0.0289
   1.3484E+00   1.3812E+00   7.4578E-05  0.0284
   1.3812E+00   1.4148E+00   7.2129E-05  0.0285
   1.4148E+00   1.4492E+00   7.3914E-05  0.0279
   1.4492E+00   1.4845E+00   7.6114E-05  0.0271
   1.4845E+00   1.5206E+00   7.3917E-05  0.0272
   1.5206E+00   1.5576E+00   7.3894E-05  0.0269
   1.5576E+00   1.5955E+00   7.2803E-05  0.0267
   1.5955E+00   1.6343E+00   7.2682E-05  0.0265
   1.6343E+00   1.6741E+00   7.1961E-05  0.0263
   1.6741E+00   1.7148E+00   7.0037E-05  0.0263
   1.7148E+00   1.7565E+00   7.1091E-05  0.0258
   1.7565E+00   1.7992E+00   7.2446E-05  0.0253
   1.7992E+00   1.8430E+00   7.1107E-05  0.0252
   1.8430E+00   1.8879E+00   6.7059E-05  0.0256
   1.8879E+00   1.9338E+00   6.8545E-05  0.0251
   1.9338E+00   1.9808E+00   6.8787E-05  0.0247
   1.9808E+00   2.0290E+00   6.7702E-05  0.0247
   2.0290E+00   2.0784E+00   6.5746E-05  0.0247
   2.0784E+00   2.1290E+00   6.5614E-05  0.0244
   2.1290E+00   2.1808E+00   6.5127E-05  0.0242
   2.1808E+00   2.2338E+00   6.6860E-05  0.0236
   2.2338E+00   2.2882E+00   6.4277E-05  0.0238
   2.2882E+00   2.3439E+00   6.2624E-05  0.0238
   2.3439E+00   2.4009E+00   6.0860E-05  0.0239
   2.4009E+00   2.4593E+00   5.9304E-05  0.0239
   2.4593E+00   2.5191E+00   5.9859E-05  0.0235
   2.5191E+00   2.5804E+00   6.2227E-05  0.0228
   2.5804E+00   2.6432E+00   5.9279E-05  0.0231
   2.6432E+00   2.7075E+00   5.9172E-05  0.0228
   2.7075E+00   2.7734E+00   6.0012E-05  0.0224
   2.7734E+00   2.8409E+00   5.6922E-05  0.0227
   2.8409E+00   2.9100E+00   5.6548E-05  0.0225
   2.9100E+00   2.9808E+00   4.9994E-05  0.0237
   2.9808E+00   3.0533E+00   3.5728E-05  0.0276
   3.0533E+00   3.1276E+00   3.3759E-05  0.0281
   3.1276E+00   3.2037E+00   3.2248E-05  0.0284
   3.2037E+00   3.2817E+00   3.1395E-05  0.0285
   3.2817E+00   3.3615E+00   3.1290E-05  0.0282
   3.3615E+00   3.4433E+00   3.0553E-05  0.0282
   3.4433E+00   3.5271E+00   2.9182E-05  0.0285
   3.5271E+00   3.6129E+00   2.8146E-05  0.0287
   3.6129E+00   3.7008E+00   2.7194E-05  0.0288
   3.7008E+00   3.7908E+00   2.7256E-05  0.0284
   3.7908E+00   3.8831E+00   2.6211E-05  0.0286
   3.8831E+00   3.9776E+00   2.4042E-05  0.0296
   3.9776E+00   4.0743E+00   2.5543E-05  0.0283
   4.0743E+00   4.1735E+00   2.2559E-05  0.0298
   4.1735E+00   4.2750E+00   2.2226E-05  0.0297
   4.2750E+00   4.3790E+00   2.1938E-05  0.0295
   4.3790E+00   4.4856E+00   2.0401E-05  0.0302
   4.4856E+00   4.5947E+00   2.0863E-05  0.0295
   4.5947E+00   4.7065E+00   2.0539E-05  0.0294
   4.7065E+00   4.8210E+00   1.9146E-05  0.0301
   4.8210E+00   4.9383E+00   1.7619E-05  0.0310
   4.9383E+00   5.0585E+00   1.6533E-05  0.0316
   5.0585E+00   5.1815E+00   1.5842E-05  0.0319
   5.1815E+00   5.3076E+00   1.6481E-05  0.0310
   5.3076E+00   5.4368E+00   1.4006E-05  0.0332
   5.4368E+00   5.5690E+00   1.4672E-05  0.0320
   5.5690E+00   5.7045E+00   1.4143E-05  0.0322
   5.7045E+00   5.8433E+00   1.3006E-05  0.0332
   5.8433E+00   5.9855E+00   1.2822E-05  0.0330
   5.9855E+00   6.1311E+00   1.2041E-05  0.0337
   6.1311E+00   6.2803E+00   1.2035E-05  0.0333
   6.2803E+00   6.4331E+00   1.1332E-05  0.0339
   6.4331E+00   6.5896E+00   1.1876E-05  0.0327
   6.5896E+00   6.7500E+00   1.0932E-05  0.0337
   6.7500E+00   6.9142E+00   1.1050E-05  0.0331
   6.9142E+00   7.0824E+00   1.0053E-05  0.0343
   7.0824E+00   7.2548E+00   1.0675E-05  0.0329
   7.2548E+00   7.4313E+00   9.5449E-06  0.0344
   7.4313E+00   7.6121E+00   9.8014E-06  0.0336
   7.6121E+00   7.7973E+00   9.5038E-06  0.0337
   7.7973E+00   7.9870E+00   9.5939E-06  0.0331
   7.9870E+00   8.1813E+00   8.3636E-06  0.0351
   8.1813E+00   8.3804E+00   8.8560E-06  0.0336
   8.3804E+00   8.5843E+00   8.8642E-06  0.0332
   8.5843E+00   8.7931E+00   8.5564E-06  0.0334
   8.7931E+00   9.0071E+00   7.9494E-06  0.0343
   9.0071E+00   9.2262E+00   7.7196E-06  0.0344
   9.2262E+00   9.4507E+00   7.5056E-06  0.0344
   9.4507E+00   9.6807E+00   7.5571E-06  0.0339
   9.6807E+00   9.9162E+00   6.8877E-06  0.0351
   9.9162E+00   1.0157E+01   6.8668E-06  0.0347
   1.0157E+01   1.0405E+01   7.9729E-06  0.0318
   1.0405E+01   1.0658E+01   8.5177E-06  0.0304
   1.0658E+01   1.0917E+01   9.0826E-06  0.0291
   1.0917E+01   1.1183E+01   8.8068E-06  0.0292
   1.1183E+01   1.1455E+01   8.2762E-06  0.0298
   1.1455E+01   1.1733E+01   7.3713E-06  0.0312
   1.1733E+01   1.2019E+01   7.0086E-06  0.0316
   1.2019E+01   1.2311E+01   6.5207E-06  0.0324
   1.2311E+01   1.2611E+01   6.2530E-06  0.0327
   1.2611E+01   1.2918E+01   5.9588E-06  0.0331
   1.2918E+01   1.3232E+01   6.3777E-06  0.0316
   1.3232E+01   1.3554E+01   6.1066E-06  0.0319
   1.3554E+01   1.3884E+01   5.9359E-06  0.0320
   1.3884E+01   1.4222E+01   5.3838E-06  0.0331
   1.4222E+01   1.4568E+01   4.8677E-06  0.0344
   1.4568E+01   1.4922E+01   4.4891E-06  0.0354
   1.4922E+01   1.5285E+01   4.0405E-06  0.0369
   1.5285E+01   1.5657E+01   3.8865E-06  0.0372
   1.5657E+01   1.6038E+01   3.7809E-06  0.0373
   1.6038E+01   1.6428E+01   3.3143E-06  0.0393
   1.6428E+01   1.6828E+01   3.1723E-06  0.0397
   1.6828E+01   1.7237E+01   2.8087E-06  0.0417
   1.7237E+01   1.7657E+01   2.9312E-06  0.0403
   1.7657E+01   1.8086E+01   2.3743E-06  0.0443
   1.8086E+01   1.8526E+01   2.1179E-06  0.0463
   1.8526E+01   1.8977E+01   1.7570E-06  0.0503
   1.8977E+01   1.9439E+01   1.4727E-06  0.0542
   1.9439E+01   1.9912E+01   1.0783E-06  0.0626
   1.9912E+01   2.0396E+01   6.3987E-07  0.0803
   2.0396E+01   2.0893E+01   2.9823E-07  0.1162
   2.0893E+01   2.1401E+01   1.5738E-07  0.1581
   2.1401E+01   2.1922E+01   3.0728E-08  0.3536
   2.1922E+01   2.2455E+01   0.0000E+00  0.0000
   2.2455E+01   2.3001E+01   0.0000E+00  0.0000
   2.3001E+01   2.3561E+01   0.0000E+00  0.0000
   2.3561E+01   2.4134E+01   0.0000E+00  0.0000
   2.4134E+01   2.4721E+01   0.0000E+00  0.0000
   2.4721E+01   2.5323E+01   0.0000E+00  0.0000
   2.5323E+01   2.5939E+01   0.0000E+00  0.0000
   2.5939E+01   2.6570E+01   0.0000E+00  0.0000
   2.6570E+01   2.7217E+01   0.0000E+00  0.0000
   2.7217E+01   2.7879E+01   0.0000E+00  0.0000
   2.7879E+01   2.8557E+01   0.0000E+00  0.0000
   2.8557E+01   2.9252E+01   0.0000E+00  0.0000
   2.9252E+01   2.9964E+01   0.0000E+00  0.0000
   2.9964E+01   3.0693E+01   0.0000E+00  0.0000
   3.0693E+01   3.1440E+01   0.0000E+00  0.0000
   3.1440E+01   3.2205E+01   0.0000E+00  0.0000
   3.2205E+01   3.2988E+01   0.0000E+00  0.0000
   3.2988E+01   3.3791E+01   0.0000E+00  0.0000
   3.3791E+01   3.4613E+01   0.0000E+00  0.0000
   3.4613E+01   3.5455E+01   0.0000E+00  0.0000
   3.5455E+01   3.6318E+01   0.0000E+00  0.0000
   3.6318E+01   3.7201E+01   0.0000E+00  0.0000
   3.7201E+01   3.8106E+01   0.0000E+00  0.0000
   3.8106E+01   3.9034E+01   0.0000E+00  0.0000
   3.9034E+01   3.9983E+01   0.0000E+00  0.0000
   3.9983E+01   4.0956E+01   0.0000E+00  0.0000
   4.0956E+01   4.1953E+01   0.0000E+00  0.0000
   4.1953E+01   4.2973E+01   0.0000E+00  0.0000
   4.2973E+01   4.4019E+01   0.0000E+00  0.0000
   4.4019E+01   4.5090E+01   0.0000E+00  0.0000
   4.5090E+01   4.6187E+01   0.0000E+00  0.0000
   4.6187E+01   4.7311E+01   0.0000E+00  0.0000
   4.7311E+01   4.8462E+01   0.0000E+00  0.0000
   4.8462E+01   4.9641E+01   0.0000E+00  0.0000
   4.9641E+01   5.0849E+01   0.0000E+00  0.0000
   5.0849E+01   5.2086E+01   0.0000E+00  0.0000
   5.2086E+01   5.3353E+01   0.0000E+00  0.0000
   5.3353E+01   5.4651E+01   0.0000E+00  0.0000
   5.4651E+01   5.5981E+01   0.0000E+00  0.0000
   5.5981E+01   5.7343E+01   0.0000E+00  0.0000
   5.7343E+01   5.8738E+01   0.0000E+00  0.0000
   5.8738E+01   6.0168E+01   0.0000E+00  0.0000
   6.0168E+01   6.1632E+01   0.0000E+00  0.0000
   6.1632E+01   6.3131E+01   0.0000E+00  0.0000
   6.3131E+01   6.4667E+01   0.0000E+00  0.0000
   6.4667E+01   6.6240E+01   0.0000E+00  0.0000
   6.6240E+01   6.7852E+01   0.0000E+00  0.0000
   6.7852E+01   6.9503E+01   0.0000E+00  0.0000
   6.9503E+01   7.1194E+01   0.0000E+00  0.0000
   7.1194E+01   7.2926E+01   0.0000E+00  0.0000
   7.2926E+01   7.4701E+01   0.0000E+00  0.0000
   7.4701E+01   7.6518E+01   0.0000E+00  0.0000
   7.6518E+01   7.8380E+01   0.0000E+00  0.0000
   7.8380E+01   8.0287E+01   0.0000E+00  0.0000
   8.0287E+01   8.2240E+01   0.0000E+00  0.0000
   8.2240E+01   8.4241E+01   0.0000E+00  0.0000
   8.4241E+01   8.6291E+01   0.0000E+00  0.0000
   8.6291E+01   8.8391E+01   0.0000E+00  0.0000
   8.8391E+01   9.0541E+01   0.0000E+00  0.0000
   9.0541E+01   9.2744E+01   0.0000E+00  0.0000
   9.2744E+01   9.5001E+01   0.0000E+00  0.0000
   9.5001E+01   9.7312E+01   0.0000E+00  0.0000
   9.7312E+01   9.9680E+01   0.0000E+00  0.0000
   9.9680E+01   1.0211E+02   0.0000E+00  0.0000
   1.0211E+02   1.0459E+02   0.0000E+00  0.0000
   1.0459E+02   1.0713E+02   0.0000E+00  0.0000
   1.0713E+02   1.0974E+02   0.0000E+00  0.0000
   1.0974E+02   1.1241E+02   0.0000E+00  0.0000
   1.1241E+02   1.1515E+02   0.0000E+00  0.0000
   1.1515E+02   1.1795E+02   0.0000E+00  0.0000
   1.1795E+02   1.2082E+02   0.0000E+00  0.0000
   1.2082E+02   1.2376E+02   0.0000E+00  0.0000
   1.2376E+02   1.2677E+02   0.0000E+00  0.0000
   1.2677E+02   1.2985E+02   0.0000E+00  0.0000
   1.2985E+02   1.3301E+02   0.0000E+00  0.0000
   1.3301E+02   1.3625E+02   0.0000E+00  0.0000
   1.3625E+02   1.3956E+02   0.0000E+00  0.0000
   1.3956E+02   1.4296E+02   0.0000E+00  0.0000
   1.4296E+02   1.4644E+02   0.0000E+00  0.0000
   1.4644E+02   1.5000E+02   0.0000E+00  0.0000

#   sum over                 2.8381E-06
'no. =    1   reg = 120 - 220'
msuc: {\huge [t-cross] in region mesh}
msdr: {\it plotted by \ANGEL \version}
msdl: {\it calculated by \PHITS  3.26}
wt: s(0.7)
\vspace{-3}
  region surface crossing
  area  &=&   1.0000E+00 [cm^2]
e:
 
# Information for Restart Calculation
# This calculation was newly started
# istdev =  2 # 1:Batch variance, 2:History variance
# resc2  = 5.00000000000000000E+08 # Total source weight or Total source weight / maxcas
# resc3  = 5.00000000000000000E+08 # Total history number or Total batch number
# maxcas =   500000000 # History / Batch, only used for istdev=1
# bitrseed = 1101101111010011011000101101110001100110110010110001010100010001 # bit data of rseed
