[ T-Cross ]
    title = [t-cross] in region mesh
     mesh =  reg            # mesh type is region-wise
      reg =    1            # number of crossing regions
      non     r-from    r-to       area
      1       119       219        1.000000    
   e-type =    3            # e-mesh is log given by emin, emax and ne
     emin =  1.0000000E-02  # minimum value of e-mesh points
     emax =   150.0000      # maximum value of e-mesh points
#    edel =  2.4039514E-02  # mesh width of e-mesh points
       ne =    400          # number of e-mesh points
#    data = ( e(i), i = 1, ne + 1 )
#           1.00000E-02  1.02433E-02  1.04925E-02  1.07478E-02  1.10093E-02
#           1.12772E-02  1.15516E-02  1.18326E-02  1.21205E-02  1.24154E-02
#           1.27175E-02  1.30269E-02  1.33439E-02  1.36686E-02  1.40011E-02
#           1.43418E-02  1.46907E-02  1.50482E-02  1.54143E-02  1.57894E-02
#           1.61735E-02  1.65670E-02  1.69701E-02  1.73830E-02  1.78060E-02
#           1.82392E-02  1.86830E-02  1.91375E-02  1.96032E-02  2.00801E-02
#           2.05687E-02  2.10692E-02  2.15818E-02  2.21069E-02  2.26448E-02
#           2.31957E-02  2.37601E-02  2.43382E-02  2.49304E-02  2.55369E-02
#           2.61583E-02  2.67947E-02  2.74467E-02  2.81145E-02  2.87985E-02
#           2.94992E-02  3.02169E-02  3.09521E-02  3.17052E-02  3.24766E-02
#           3.32668E-02  3.40762E-02  3.49053E-02  3.57546E-02  3.66246E-02
#           3.75157E-02  3.84284E-02  3.93634E-02  4.03212E-02  4.13022E-02
#           4.23071E-02  4.33365E-02  4.43909E-02  4.54710E-02  4.65773E-02
#           4.77106E-02  4.88714E-02  5.00605E-02  5.12785E-02  5.25262E-02
#           5.38042E-02  5.51133E-02  5.64542E-02  5.78278E-02  5.92348E-02
#           6.06760E-02  6.21523E-02  6.36645E-02  6.52135E-02  6.68002E-02
#           6.84255E-02  7.00904E-02  7.17957E-02  7.35426E-02  7.53319E-02
#           7.71648E-02  7.90423E-02  8.09655E-02  8.29354E-02  8.49533E-02
#           8.70203E-02  8.91376E-02  9.13064E-02  9.35279E-02  9.58035E-02
#           9.81345E-02  1.00522E-01  1.02968E-01  1.05473E-01  1.08040E-01
#           1.10668E-01  1.13361E-01  1.16119E-01  1.18944E-01  1.21838E-01
#           1.24803E-01  1.27839E-01  1.30950E-01  1.34136E-01  1.37399E-01
#           1.40742E-01  1.44167E-01  1.47675E-01  1.51268E-01  1.54948E-01
#           1.58718E-01  1.62580E-01  1.66535E-01  1.70587E-01  1.74738E-01
#           1.78989E-01  1.83344E-01  1.87805E-01  1.92375E-01  1.97055E-01
#           2.01850E-01  2.06761E-01  2.11792E-01  2.16945E-01  2.22223E-01
#           2.27630E-01  2.33169E-01  2.38842E-01  2.44653E-01  2.50605E-01
#           2.56703E-01  2.62949E-01  2.69346E-01  2.75900E-01  2.82613E-01
#           2.89489E-01  2.96532E-01  3.03747E-01  3.11138E-01  3.18708E-01
#           3.26462E-01  3.34405E-01  3.42542E-01  3.50876E-01  3.59413E-01
#           3.68158E-01  3.77116E-01  3.86291E-01  3.95690E-01  4.05317E-01
#           4.15179E-01  4.25281E-01  4.35628E-01  4.46227E-01  4.57084E-01
#           4.68205E-01  4.79597E-01  4.91266E-01  5.03219E-01  5.15463E-01
#           5.28005E-01  5.40851E-01  5.54011E-01  5.67490E-01  5.81298E-01
#           5.95441E-01  6.09929E-01  6.24769E-01  6.39970E-01  6.55541E-01
#           6.71491E-01  6.87828E-01  7.04564E-01  7.21706E-01  7.39266E-01
#           7.57253E-01  7.75678E-01  7.94551E-01  8.13883E-01  8.33685E-01
#           8.53969E-01  8.74747E-01  8.96030E-01  9.17831E-01  9.40163E-01
#           9.63038E-01  9.86469E-01  1.01047E+00  1.03506E+00  1.06024E+00
#           1.08604E+00  1.11246E+00  1.13953E+00  1.16725E+00  1.19565E+00
#           1.22474E+00  1.25454E+00  1.28507E+00  1.31633E+00  1.34836E+00
#           1.38117E+00  1.41477E+00  1.44920E+00  1.48446E+00  1.52057E+00
#           1.55757E+00  1.59547E+00  1.63429E+00  1.67405E+00  1.71478E+00
#           1.75650E+00  1.79924E+00  1.84302E+00  1.88786E+00  1.93379E+00
#           1.98084E+00  2.02904E+00  2.07841E+00  2.12898E+00  2.18078E+00
#           2.23384E+00  2.28819E+00  2.34386E+00  2.40089E+00  2.45930E+00
#           2.51914E+00  2.58043E+00  2.64322E+00  2.70753E+00  2.77341E+00
#           2.84088E+00  2.91001E+00  2.98081E+00  3.05333E+00  3.12762E+00
#           3.20372E+00  3.28167E+00  3.36152E+00  3.44330E+00  3.52708E+00
#           3.61290E+00  3.70080E+00  3.79085E+00  3.88308E+00  3.97756E+00
#           4.07434E+00  4.17347E+00  4.27501E+00  4.37903E+00  4.48557E+00
#           4.59471E+00  4.70650E+00  4.82102E+00  4.93832E+00  5.05847E+00
#           5.18155E+00  5.30762E+00  5.43676E+00  5.56904E+00  5.70453E+00
#           5.84333E+00  5.98550E+00  6.13114E+00  6.28031E+00  6.43312E+00
#           6.58964E+00  6.74997E+00  6.91420E+00  7.08243E+00  7.25475E+00
#           7.43126E+00  7.61207E+00  7.79728E+00  7.98700E+00  8.18133E+00
#           8.38038E+00  8.58428E+00  8.79315E+00  9.00709E+00  9.22624E+00
#           9.45072E+00  9.68067E+00  9.91620E+00  1.01575E+01  1.04046E+01
#           1.06578E+01  1.09171E+01  1.11827E+01  1.14548E+01  1.17335E+01
#           1.20190E+01  1.23114E+01  1.26109E+01  1.29178E+01  1.32321E+01
#           1.35540E+01  1.38838E+01  1.42216E+01  1.45676E+01  1.49221E+01
#           1.52851E+01  1.56570E+01  1.60380E+01  1.64282E+01  1.68279E+01
#           1.72374E+01  1.76568E+01  1.80864E+01  1.85264E+01  1.89772E+01
#           1.94389E+01  1.99119E+01  2.03963E+01  2.08926E+01  2.14009E+01
#           2.19216E+01  2.24550E+01  2.30014E+01  2.35610E+01  2.41343E+01
#           2.47215E+01  2.53230E+01  2.59391E+01  2.65702E+01  2.72167E+01
#           2.78789E+01  2.85572E+01  2.92520E+01  2.99637E+01  3.06928E+01
#           3.14396E+01  3.22045E+01  3.29881E+01  3.37907E+01  3.46128E+01
#           3.54550E+01  3.63177E+01  3.72013E+01  3.81064E+01  3.90336E+01
#           3.99833E+01  4.09561E+01  4.19526E+01  4.29734E+01  4.40189E+01
#           4.50900E+01  4.61870E+01  4.73108E+01  4.84619E+01  4.96410E+01
#           5.08488E+01  5.20860E+01  5.33533E+01  5.46514E+01  5.59812E+01
#           5.73432E+01  5.87384E+01  6.01676E+01  6.16315E+01  6.31311E+01
#           6.46671E+01  6.62405E+01  6.78522E+01  6.95031E+01  7.11941E+01
#           7.29263E+01  7.47007E+01  7.65182E+01  7.83800E+01  8.02870E+01
#           8.22405E+01  8.42414E+01  8.62911E+01  8.83906E+01  9.05412E+01
#           9.27442E+01  9.50007E+01  9.73122E+01  9.96799E+01  1.02105E+02
#           1.04589E+02  1.07134E+02  1.09741E+02  1.12411E+02  1.15146E+02
#           1.17948E+02  1.20817E+02  1.23757E+02  1.26768E+02  1.29852E+02
#           1.33012E+02  1.36248E+02  1.39563E+02  1.42959E+02  1.46437E+02
#           1.50000E+02
     unit =    2            # unit is [1/cm^2/(MeV/n)/source]
     axis =  eng            # axis of output
     file = detector-20.out  # file name of output for the above axis
   output = f-curr          # surface crossing forward current spectrum
     part =  neutron  
# kf/name :  2112     
#    used :        main (  %)        temp (  %)       total (  %)
#  memory :         414 (  0)           0 (  0)         414 (  0)

#------------------------------------------------------------------------------
#newpage:
#   no. =    1   reg = 119 - 219

x: Energy [MeV/n]
y:  F-Curr [1/cm^2/(MeV/n)/source]         
p: xlog ylog afac(0.8) form(0.9)
h: n            x            y(neutron ),hh0l   n 
#  e-lower      e-upper      neutron     r.err 
   1.0000E-02   1.0243E-02   7.7504E-02  0.0059
   1.0243E-02   1.0493E-02   7.5668E-02  0.0059
   1.0493E-02   1.0748E-02   7.5604E-02  0.0059
   1.0748E-02   1.1009E-02   7.4364E-02  0.0059
   1.1009E-02   1.1277E-02   7.3731E-02  0.0058
   1.1277E-02   1.1552E-02   7.1942E-02  0.0058
   1.1552E-02   1.1833E-02   7.1491E-02  0.0058
   1.1833E-02   1.2121E-02   7.0125E-02  0.0057
   1.2121E-02   1.2415E-02   6.8701E-02  0.0057
   1.2415E-02   1.2718E-02   6.7846E-02  0.0057
   1.2718E-02   1.3027E-02   6.6986E-02  0.0057
   1.3027E-02   1.3344E-02   6.6622E-02  0.0056
   1.3344E-02   1.3669E-02   6.5837E-02  0.0056
   1.3669E-02   1.4001E-02   6.4586E-02  0.0056
   1.4001E-02   1.4342E-02   6.4011E-02  0.0055
   1.4342E-02   1.4691E-02   6.2852E-02  0.0055
   1.4691E-02   1.5048E-02   6.1926E-02  0.0055
   1.5048E-02   1.5414E-02   6.1829E-02  0.0054
   1.5414E-02   1.5789E-02   6.0283E-02  0.0054
   1.5789E-02   1.6174E-02   5.9691E-02  0.0054
   1.6174E-02   1.6567E-02   5.8637E-02  0.0054
   1.6567E-02   1.6970E-02   5.8798E-02  0.0053
   1.6970E-02   1.7383E-02   5.7483E-02  0.0053
   1.7383E-02   1.7806E-02   5.6696E-02  0.0053
   1.7806E-02   1.8239E-02   5.5262E-02  0.0053
   1.8239E-02   1.8683E-02   5.4891E-02  0.0052
   1.8683E-02   1.9138E-02   5.3590E-02  0.0052
   1.9138E-02   1.9603E-02   5.3182E-02  0.0052
   1.9603E-02   2.0080E-02   5.2312E-02  0.0052
   2.0080E-02   2.0569E-02   5.1981E-02  0.0051
   2.0569E-02   2.1069E-02   5.1083E-02  0.0051
   2.1069E-02   2.1582E-02   5.0535E-02  0.0051
   2.1582E-02   2.2107E-02   5.0311E-02  0.0050
   2.2107E-02   2.2645E-02   4.9299E-02  0.0050
   2.2645E-02   2.3196E-02   4.8457E-02  0.0050
   2.3196E-02   2.3760E-02   4.7676E-02  0.0050
   2.3760E-02   2.4338E-02   4.7057E-02  0.0050
   2.4338E-02   2.4930E-02   4.6485E-02  0.0049
   2.4930E-02   2.5537E-02   4.5455E-02  0.0049
   2.5537E-02   2.6158E-02   4.5447E-02  0.0049
   2.6158E-02   2.6795E-02   4.4836E-02  0.0048
   2.6795E-02   2.7447E-02   4.3513E-02  0.0048
   2.7447E-02   2.8114E-02   4.3322E-02  0.0048
   2.8114E-02   2.8799E-02   4.2917E-02  0.0048
   2.8799E-02   2.9499E-02   4.2333E-02  0.0047
   2.9499E-02   3.0217E-02   4.1594E-02  0.0047
   3.0217E-02   3.0952E-02   4.0884E-02  0.0047
   3.0952E-02   3.1705E-02   4.0418E-02  0.0047
   3.1705E-02   3.2477E-02   3.9983E-02  0.0047
   3.2477E-02   3.3267E-02   3.9115E-02  0.0046
   3.3267E-02   3.4076E-02   3.8625E-02  0.0046
   3.4076E-02   3.4905E-02   3.8397E-02  0.0046
   3.4905E-02   3.5755E-02   3.7611E-02  0.0046
   3.5755E-02   3.6625E-02   3.7380E-02  0.0045
   3.6625E-02   3.7516E-02   3.6603E-02  0.0045
   3.7516E-02   3.8428E-02   3.5925E-02  0.0045
   3.8428E-02   3.9363E-02   3.5691E-02  0.0045
   3.9363E-02   4.0321E-02   3.4990E-02  0.0045
   4.0321E-02   4.1302E-02   3.5029E-02  0.0044
   4.1302E-02   4.2307E-02   3.3906E-02  0.0044
   4.2307E-02   4.3337E-02   3.3832E-02  0.0044
   4.3337E-02   4.4391E-02   3.3512E-02  0.0043
   4.4391E-02   4.5471E-02   3.2509E-02  0.0044
   4.5471E-02   4.6577E-02   3.2200E-02  0.0043
   4.6577E-02   4.7711E-02   3.1752E-02  0.0043
   4.7711E-02   4.8871E-02   3.1506E-02  0.0043
   4.8871E-02   5.0061E-02   3.1045E-02  0.0043
   5.0061E-02   5.1279E-02   3.0605E-02  0.0042
   5.1279E-02   5.2526E-02   3.0331E-02  0.0042
   5.2526E-02   5.3804E-02   2.9784E-02  0.0042
   5.3804E-02   5.5113E-02   2.9220E-02  0.0042
   5.5113E-02   5.6454E-02   2.8764E-02  0.0042
   5.6454E-02   5.7828E-02   2.8516E-02  0.0041
   5.7828E-02   5.9235E-02   2.7931E-02  0.0041
   5.9235E-02   6.0676E-02   2.7711E-02  0.0041
   6.0676E-02   6.2152E-02   2.7338E-02  0.0041
   6.2152E-02   6.3665E-02   2.6794E-02  0.0041
   6.3665E-02   6.5214E-02   2.6599E-02  0.0040
   6.5214E-02   6.6800E-02   2.6174E-02  0.0040
   6.6800E-02   6.8426E-02   2.5846E-02  0.0040
   6.8426E-02   7.0090E-02   2.5314E-02  0.0040
   7.0090E-02   7.1796E-02   2.5072E-02  0.0040
   7.1796E-02   7.3543E-02   2.4602E-02  0.0039
   7.3543E-02   7.5332E-02   2.4367E-02  0.0039
   7.5332E-02   7.7165E-02   2.4110E-02  0.0039
   7.7165E-02   7.9042E-02   2.3546E-02  0.0039
   7.9042E-02   8.0965E-02   2.3419E-02  0.0038
   8.0965E-02   8.2935E-02   2.3016E-02  0.0038
   8.2935E-02   8.4953E-02   2.2723E-02  0.0038
   8.4953E-02   8.7020E-02   2.2422E-02  0.0038
   8.7020E-02   8.9138E-02   2.2078E-02  0.0038
   8.9138E-02   9.1306E-02   2.1738E-02  0.0038
   9.1306E-02   9.3528E-02   2.1318E-02  0.0038
   9.3528E-02   9.5804E-02   2.1083E-02  0.0037
   9.5804E-02   9.8134E-02   2.0815E-02  0.0037
   9.8134E-02   1.0052E-01   2.0556E-02  0.0037
   1.0052E-01   1.0297E-01   2.0220E-02  0.0037
   1.0297E-01   1.0547E-01   1.9922E-02  0.0037
   1.0547E-01   1.0804E-01   1.9685E-02  0.0036
   1.0804E-01   1.1067E-01   1.9457E-02  0.0036
   1.1067E-01   1.1336E-01   1.9059E-02  0.0036
   1.1336E-01   1.1612E-01   1.8828E-02  0.0036
   1.1612E-01   1.1894E-01   1.8639E-02  0.0036
   1.1894E-01   1.2184E-01   1.8212E-02  0.0036
   1.2184E-01   1.2480E-01   1.8126E-02  0.0035
   1.2480E-01   1.2784E-01   1.7728E-02  0.0035
   1.2784E-01   1.3095E-01   1.7407E-02  0.0035
   1.3095E-01   1.3414E-01   1.7203E-02  0.0035
   1.3414E-01   1.3740E-01   1.6929E-02  0.0035
   1.3740E-01   1.4074E-01   1.6717E-02  0.0035
   1.4074E-01   1.4417E-01   1.6492E-02  0.0034
   1.4417E-01   1.4767E-01   1.6231E-02  0.0034
   1.4767E-01   1.5127E-01   1.6067E-02  0.0034
   1.5127E-01   1.5495E-01   1.5798E-02  0.0034
   1.5495E-01   1.5872E-01   1.5564E-02  0.0034
   1.5872E-01   1.6258E-01   1.5295E-02  0.0034
   1.6258E-01   1.6654E-01   1.5036E-02  0.0034
   1.6654E-01   1.7059E-01   1.4882E-02  0.0033
   1.7059E-01   1.7474E-01   1.4649E-02  0.0033
   1.7474E-01   1.7899E-01   1.4380E-02  0.0033
   1.7899E-01   1.8334E-01   1.4260E-02  0.0033
   1.8334E-01   1.8781E-01   1.3991E-02  0.0033
   1.8781E-01   1.9237E-01   1.3738E-02  0.0033
   1.9237E-01   1.9706E-01   1.3532E-02  0.0032
   1.9706E-01   2.0185E-01   1.3299E-02  0.0032
   2.0185E-01   2.0676E-01   1.3126E-02  0.0032
   2.0676E-01   2.1179E-01   1.2961E-02  0.0032
   2.1179E-01   2.1694E-01   1.2746E-02  0.0032
   2.1694E-01   2.2222E-01   1.2540E-02  0.0032
   2.2222E-01   2.2763E-01   1.2331E-02  0.0032
   2.2763E-01   2.3317E-01   1.2142E-02  0.0032
   2.3317E-01   2.3884E-01   1.1967E-02  0.0031
   2.3884E-01   2.4465E-01   1.1705E-02  0.0031
   2.4465E-01   2.5061E-01   1.1551E-02  0.0031
   2.5061E-01   2.5670E-01   1.1406E-02  0.0031
   2.5670E-01   2.6295E-01   1.1191E-02  0.0031
   2.6295E-01   2.6935E-01   1.1016E-02  0.0031
   2.6935E-01   2.7590E-01   1.0806E-02  0.0031
   2.7590E-01   2.8261E-01   1.0665E-02  0.0031
   2.8261E-01   2.8949E-01   1.0420E-02  0.0031
   2.8949E-01   2.9653E-01   1.0299E-02  0.0030
   2.9653E-01   3.0375E-01   1.0070E-02  0.0030
   3.0375E-01   3.1114E-01   9.9588E-03  0.0030
   3.1114E-01   3.1871E-01   9.7585E-03  0.0030
   3.1871E-01   3.2646E-01   9.5997E-03  0.0030
   3.2646E-01   3.3441E-01   9.4551E-03  0.0030
   3.3441E-01   3.4254E-01   9.2546E-03  0.0030
   3.4254E-01   3.5088E-01   9.0890E-03  0.0030
   3.5088E-01   3.5941E-01   8.9238E-03  0.0030
   3.5941E-01   3.6816E-01   8.7639E-03  0.0030
   3.6816E-01   3.7712E-01   8.6162E-03  0.0029
   3.7712E-01   3.8629E-01   8.4168E-03  0.0029
   3.8629E-01   3.9569E-01   8.2677E-03  0.0029
   3.9569E-01   4.0532E-01   8.1443E-03  0.0029
   4.0532E-01   4.1518E-01   7.9837E-03  0.0029
   4.1518E-01   4.2528E-01   7.8234E-03  0.0029
   4.2528E-01   4.3563E-01   7.6350E-03  0.0029
   4.3563E-01   4.4623E-01   7.5197E-03  0.0029
   4.4623E-01   4.5708E-01   7.3532E-03  0.0029
   4.5708E-01   4.6821E-01   7.1916E-03  0.0029
   4.6821E-01   4.7960E-01   7.0059E-03  0.0029
   4.7960E-01   4.9127E-01   6.8972E-03  0.0029
   4.9127E-01   5.0322E-01   6.7742E-03  0.0029
   5.0322E-01   5.1546E-01   6.6084E-03  0.0029
   5.1546E-01   5.2800E-01   6.4908E-03  0.0029
   5.2800E-01   5.4085E-01   6.3311E-03  0.0029
   5.4085E-01   5.5401E-01   6.1760E-03  0.0029
   5.5401E-01   5.6749E-01   6.0319E-03  0.0029
   5.6749E-01   5.8130E-01   5.9021E-03  0.0029
   5.8130E-01   5.9544E-01   5.7131E-03  0.0029
   5.9544E-01   6.0993E-01   5.5971E-03  0.0029
   6.0993E-01   6.2477E-01   5.4817E-03  0.0029
   6.2477E-01   6.3997E-01   5.3133E-03  0.0029
   6.3997E-01   6.5554E-01   5.2033E-03  0.0029
   6.5554E-01   6.7149E-01   5.0321E-03  0.0029
   6.7149E-01   6.8783E-01   4.8981E-03  0.0029
   6.8783E-01   7.0456E-01   4.7470E-03  0.0029
   7.0456E-01   7.2171E-01   4.6356E-03  0.0029
   7.2171E-01   7.3927E-01   4.5163E-03  0.0029
   7.3927E-01   7.5725E-01   4.3721E-03  0.0029
   7.5725E-01   7.7568E-01   4.2159E-03  0.0029
   7.7568E-01   7.9455E-01   4.0866E-03  0.0029
   7.9455E-01   8.1388E-01   3.9672E-03  0.0030
   8.1388E-01   8.3368E-01   3.8366E-03  0.0030
   8.3368E-01   8.5397E-01   3.6870E-03  0.0030
   8.5397E-01   8.7475E-01   3.5569E-03  0.0030
   8.7475E-01   8.9603E-01   3.4102E-03  0.0030
   8.9603E-01   9.1783E-01   3.2763E-03  0.0031
   9.1783E-01   9.4016E-01   3.1580E-03  0.0031
   9.4016E-01   9.6304E-01   3.0050E-03  0.0031
   9.6304E-01   9.8647E-01   2.8917E-03  0.0031
   9.8647E-01   1.0105E+00   2.7813E-03  0.0032
   1.0105E+00   1.0351E+00   2.7909E-03  0.0031
   1.0351E+00   1.0602E+00   2.8106E-03  0.0031
   1.0602E+00   1.0860E+00   2.8499E-03  0.0030
   1.0860E+00   1.1125E+00   2.8873E-03  0.0030
   1.1125E+00   1.1395E+00   2.9434E-03  0.0029
   1.1395E+00   1.1673E+00   3.0279E-03  0.0028
   1.1673E+00   1.1957E+00   3.1273E-03  0.0027
   1.1957E+00   1.2247E+00   3.1887E-03  0.0027
   1.2247E+00   1.2545E+00   3.2021E-03  0.0026
   1.2545E+00   1.2851E+00   3.2182E-03  0.0026
   1.2851E+00   1.3163E+00   3.2612E-03  0.0026
   1.3163E+00   1.3484E+00   3.2988E-03  0.0025
   1.3484E+00   1.3812E+00   3.3577E-03  0.0025
   1.3812E+00   1.4148E+00   3.4208E-03  0.0024
   1.4148E+00   1.4492E+00   3.4164E-03  0.0024
   1.4492E+00   1.4845E+00   3.3854E-03  0.0024
   1.4845E+00   1.5206E+00   3.4078E-03  0.0023
   1.5206E+00   1.5576E+00   3.3900E-03  0.0023
   1.5576E+00   1.5955E+00   3.3957E-03  0.0023
   1.5955E+00   1.6343E+00   3.4088E-03  0.0022
   1.6343E+00   1.6741E+00   3.4488E-03  0.0022
   1.6741E+00   1.7148E+00   3.5117E-03  0.0022
   1.7148E+00   1.7565E+00   3.4811E-03  0.0021
   1.7565E+00   1.7992E+00   3.4552E-03  0.0021
   1.7992E+00   1.8430E+00   3.3871E-03  0.0021
   1.8430E+00   1.8879E+00   3.3760E-03  0.0021
   1.8879E+00   1.9338E+00   3.3821E-03  0.0021
   1.9338E+00   1.9808E+00   3.3777E-03  0.0021
   1.9808E+00   2.0290E+00   3.3872E-03  0.0020
   2.0290E+00   2.0784E+00   3.2956E-03  0.0020
   2.0784E+00   2.1290E+00   3.2292E-03  0.0020
   2.1290E+00   2.1808E+00   3.1663E-03  0.0020
   2.1808E+00   2.2338E+00   3.1044E-03  0.0020
   2.2338E+00   2.2882E+00   3.0655E-03  0.0020
   2.2882E+00   2.3439E+00   3.0168E-03  0.0020
   2.3439E+00   2.4009E+00   2.9945E-03  0.0020
   2.4009E+00   2.4593E+00   2.9560E-03  0.0020
   2.4593E+00   2.5191E+00   2.8588E-03  0.0020
   2.5191E+00   2.5804E+00   2.7757E-03  0.0020
   2.5804E+00   2.6432E+00   2.6807E-03  0.0020
   2.6432E+00   2.7075E+00   2.5954E-03  0.0020
   2.7075E+00   2.7734E+00   2.5213E-03  0.0020
   2.7734E+00   2.8409E+00   2.4544E-03  0.0020
   2.8409E+00   2.9100E+00   2.4126E-03  0.0020
   2.9100E+00   2.9808E+00   2.3632E-03  0.0020
   2.9808E+00   3.0533E+00   2.2863E-03  0.0020
   3.0533E+00   3.1276E+00   2.1861E-03  0.0020
   3.1276E+00   3.2037E+00   2.0956E-03  0.0020
   3.2037E+00   3.2817E+00   2.0148E-03  0.0021
   3.2817E+00   3.3615E+00   1.9352E-03  0.0021
   3.3615E+00   3.4433E+00   1.8473E-03  0.0021
   3.4433E+00   3.5271E+00   1.7741E-03  0.0021
   3.5271E+00   3.6129E+00   1.7033E-03  0.0021
   3.6129E+00   3.7008E+00   1.6412E-03  0.0022
   3.7008E+00   3.7908E+00   1.5570E-03  0.0022
   3.7908E+00   3.8831E+00   1.4870E-03  0.0022
   3.8831E+00   3.9776E+00   1.4155E-03  0.0022
   3.9776E+00   4.0743E+00   1.3504E-03  0.0023
   4.0743E+00   4.1735E+00   1.2869E-03  0.0023
   4.1735E+00   4.2750E+00   1.2162E-03  0.0023
   4.2750E+00   4.3790E+00   1.1429E-03  0.0024
   4.3790E+00   4.4856E+00   1.0785E-03  0.0024
   4.4856E+00   4.5947E+00   1.0094E-03  0.0025
   4.5947E+00   4.7065E+00   9.5252E-04  0.0025
   4.7065E+00   4.8210E+00   8.9185E-04  0.0026
   4.8210E+00   4.9383E+00   8.4366E-04  0.0026
   4.9383E+00   5.0585E+00   7.9299E-04  0.0026
   5.0585E+00   5.1815E+00   7.4247E-04  0.0027
   5.1815E+00   5.3076E+00   6.9704E-04  0.0028
   5.3076E+00   5.4368E+00   6.4920E-04  0.0028
   5.4368E+00   5.5690E+00   6.0299E-04  0.0029
   5.5690E+00   5.7045E+00   5.5859E-04  0.0030
   5.7045E+00   5.8433E+00   5.1686E-04  0.0031
   5.8433E+00   5.9855E+00   4.8243E-04  0.0031
   5.9855E+00   6.1311E+00   4.4631E-04  0.0032
   6.1311E+00   6.2803E+00   4.1552E-04  0.0033
   6.2803E+00   6.4331E+00   3.8097E-04  0.0034
   6.4331E+00   6.5896E+00   3.5469E-04  0.0035
   6.5896E+00   6.7500E+00   3.2374E-04  0.0036
   6.7500E+00   6.9142E+00   2.9773E-04  0.0037
   6.9142E+00   7.0824E+00   2.7464E-04  0.0038
   7.0824E+00   7.2548E+00   2.5213E-04  0.0039
   7.2548E+00   7.4313E+00   2.3010E-04  0.0041
   7.4313E+00   7.6121E+00   2.1127E-04  0.0042
   7.6121E+00   7.7973E+00   1.9234E-04  0.0043
   7.7973E+00   7.9870E+00   1.7621E-04  0.0045
   7.9870E+00   8.1813E+00   1.6098E-04  0.0046
   8.1813E+00   8.3804E+00   1.4668E-04  0.0048
   8.3804E+00   8.5843E+00   1.3471E-04  0.0049
   8.5843E+00   8.7931E+00   1.2231E-04  0.0051
   8.7931E+00   9.0071E+00   1.1068E-04  0.0053
   9.0071E+00   9.2262E+00   1.0200E-04  0.0055
   9.2262E+00   9.4507E+00   9.2353E-05  0.0057
   9.4507E+00   9.6807E+00   8.3697E-05  0.0059
   9.6807E+00   9.9162E+00   7.5593E-05  0.0061
   9.9162E+00   1.0157E+01   6.9245E-05  0.0063
   1.0157E+01   1.0405E+01   6.3276E-05  0.0065
   1.0405E+01   1.0658E+01   5.7424E-05  0.0068
   1.0658E+01   1.0917E+01   5.2679E-05  0.0070
   1.0917E+01   1.1183E+01   4.7686E-05  0.0072
   1.1183E+01   1.1455E+01   4.4023E-05  0.0074
   1.1455E+01   1.1733E+01   4.0153E-05  0.0077
   1.1733E+01   1.2019E+01   3.6140E-05  0.0080
   1.2019E+01   1.2311E+01   3.3616E-05  0.0082
   1.2311E+01   1.2611E+01   3.0832E-05  0.0085
   1.2611E+01   1.2918E+01   2.8582E-05  0.0087
   1.2918E+01   1.3232E+01   2.6012E-05  0.0090
   1.3232E+01   1.3554E+01   2.4244E-05  0.0092
   1.3554E+01   1.3884E+01   2.2487E-05  0.0095
   1.3884E+01   1.4222E+01   2.0915E-05  0.0097
   1.4222E+01   1.4568E+01   1.9448E-05  0.0099
   1.4568E+01   1.4922E+01   1.8157E-05  0.0102
   1.4922E+01   1.5285E+01   1.6817E-05  0.0104
   1.5285E+01   1.5657E+01   1.5974E-05  0.0106
   1.5657E+01   1.6038E+01   1.5079E-05  0.0108
   1.6038E+01   1.6428E+01   1.4120E-05  0.0110
   1.6428E+01   1.6828E+01   1.3263E-05  0.0112
   1.6828E+01   1.7237E+01   1.2822E-05  0.0113
   1.7237E+01   1.7657E+01   1.2008E-05  0.0115
   1.7657E+01   1.8086E+01   1.1383E-05  0.0117
   1.8086E+01   1.8526E+01   1.0938E-05  0.0118
   1.8526E+01   1.8977E+01   1.0535E-05  0.0118
   1.8977E+01   1.9439E+01   9.9279E-06  0.0121
   1.9439E+01   1.9912E+01   9.5793E-06  0.0121
   1.9912E+01   2.0396E+01   8.2791E-06  0.0129
   2.0396E+01   2.0893E+01   7.7836E-06  0.0131
   2.0893E+01   2.1401E+01   7.7377E-06  0.0130
   2.1401E+01   2.1922E+01   7.3542E-06  0.0132
   2.1922E+01   2.2455E+01   6.9445E-06  0.0134
   2.2455E+01   2.3001E+01   6.7100E-06  0.0135
   2.3001E+01   2.3561E+01   6.6709E-06  0.0134
   2.3561E+01   2.4134E+01   6.4718E-06  0.0134
   2.4134E+01   2.4721E+01   6.1387E-06  0.0136
   2.4721E+01   2.5323E+01   6.0239E-06  0.0136
   2.5323E+01   2.5939E+01   5.7759E-06  0.0137
   2.5939E+01   2.6570E+01   5.4887E-06  0.0139
   2.6570E+01   2.7217E+01   5.3470E-06  0.0139
   2.7217E+01   2.7879E+01   5.1233E-06  0.0140
   2.7879E+01   2.8557E+01   4.8630E-06  0.0142
   2.8557E+01   2.9252E+01   4.6353E-06  0.0144
   2.9252E+01   2.9964E+01   4.3978E-06  0.0146
   2.9964E+01   3.0693E+01   4.1635E-06  0.0148
   3.0693E+01   3.1440E+01   3.9557E-06  0.0150
   3.1440E+01   3.2205E+01   3.7571E-06  0.0152
   3.2205E+01   3.2988E+01   3.5164E-06  0.0156
   3.2988E+01   3.3791E+01   3.4121E-06  0.0156
   3.3791E+01   3.4613E+01   3.1957E-06  0.0159
   3.4613E+01   3.5455E+01   3.0461E-06  0.0161
   3.5455E+01   3.6318E+01   2.8293E-06  0.0165
   3.6318E+01   3.7201E+01   2.6187E-06  0.0170
   3.7201E+01   3.8106E+01   2.4041E-06  0.0175
   3.8106E+01   3.9034E+01   2.3369E-06  0.0175
   3.9034E+01   3.9983E+01   2.1508E-06  0.0181
   3.9983E+01   4.0956E+01   1.9661E-06  0.0187
   4.0956E+01   4.1953E+01   1.8037E-06  0.0193
   4.1953E+01   4.2973E+01   1.6661E-06  0.0198
   4.2973E+01   4.4019E+01   1.4627E-06  0.0209
   4.4019E+01   4.5090E+01   1.2929E-06  0.0219
   4.5090E+01   4.6187E+01   1.3041E-06  0.0216
   4.6187E+01   4.7311E+01   1.1396E-06  0.0228
   4.7311E+01   4.8462E+01   1.0355E-06  0.0236
   4.8462E+01   4.9641E+01   9.2668E-07  0.0247
   4.9641E+01   5.0849E+01   8.4451E-07  0.0256
   5.0849E+01   5.2086E+01   7.8457E-07  0.0262
   5.2086E+01   5.3353E+01   6.6073E-07  0.0282
   5.3353E+01   5.4651E+01   6.0086E-07  0.0292
   5.4651E+01   5.5981E+01   4.8883E-07  0.0320
   5.5981E+01   5.7343E+01   4.6694E-07  0.0324
   5.7343E+01   5.8738E+01   4.0281E-07  0.0344
   5.8738E+01   6.0168E+01   3.3913E-07  0.0371
   6.0168E+01   6.1632E+01   2.9009E-07  0.0396
   6.1632E+01   6.3131E+01   2.5074E-07  0.0421
   6.3131E+01   6.4667E+01   2.2178E-07  0.0442
   6.4667E+01   6.6240E+01   1.9830E-07  0.0462
   6.6240E+01   6.7852E+01   1.7704E-07  0.0483
   6.7852E+01   6.9503E+01   1.4376E-07  0.0530
   6.9503E+01   7.1194E+01   1.0171E-07  0.0623
   7.1194E+01   7.2926E+01   8.8519E-08  0.0659
   7.2926E+01   7.4701E+01   7.1763E-08  0.0724
   7.4701E+01   7.6518E+01   5.7587E-08  0.0798
   7.6518E+01   7.8380E+01   5.1923E-08  0.0830
   7.8380E+01   8.0287E+01   3.6356E-08  0.0981
   8.0287E+01   8.2240E+01   3.2080E-08  0.1031
   8.2240E+01   8.4241E+01   2.8320E-08  0.1085
   8.4241E+01   8.6291E+01   2.0816E-08  0.1250
   8.6291E+01   8.8391E+01   1.6512E-08  0.1387
   8.8391E+01   9.0541E+01   1.3020E-08  0.1543
   9.0541E+01   9.2744E+01   9.9867E-09  0.1741
   9.2744E+01   9.5001E+01   6.2042E-09  0.2182
   9.5001E+01   9.7312E+01   3.1726E-09  0.3015
   9.7312E+01   9.9680E+01   2.2526E-09  0.3536
   9.9680E+01   1.0211E+02   1.3744E-09  0.4472
   1.0211E+02   1.0459E+02   2.1468E-09  0.3536
   1.0459E+02   1.0713E+02   1.5719E-09  0.4082
   1.0713E+02   1.0974E+02   1.5345E-09  0.4082
   1.0974E+02   1.1241E+02   9.9872E-10  0.5000
   1.1241E+02   1.1515E+02   0.0000E+00  0.0000
   1.1515E+02   1.1795E+02   4.7592E-10  0.7071
   1.1795E+02   1.2082E+02   4.6462E-10  0.7071
   1.2082E+02   1.2376E+02   4.5358E-10  0.7071
   1.2376E+02   1.2677E+02   0.0000E+00  0.0000
   1.2677E+02   1.2985E+02   2.1614E-10  1.0000
   1.2985E+02   1.3301E+02   0.0000E+00  0.0000
   1.3301E+02   1.3625E+02   0.0000E+00  0.0000
   1.3625E+02   1.3956E+02   0.0000E+00  0.0000
   1.3956E+02   1.4296E+02   0.0000E+00  0.0000
   1.4296E+02   1.4644E+02   0.0000E+00  0.0000
   1.4644E+02   1.5000E+02   0.0000E+00  0.0000

#   sum over                 1.3601E-04
'no. =    1   reg = 119 - 219'
msuc: {\huge [t-cross] in region mesh}
msdr: {\it plotted by \ANGEL \version}
msdl: {\it calculated by \PHITS  3.26}
wt: s(0.7)
\vspace{-3}
  region surface crossing
  area  &=&   1.0000E+00 [cm^2]
e:
 
# Information for Restart Calculation
# This calculation was newly started
# istdev =  2 # 1:Batch variance, 2:History variance
# resc2  = 1.50000000000000000E+09 # Total source weight or Total source weight / maxcas
# resc3  = 1.50000000000000000E+09 # Total history number or Total batch number
# maxcas =   500000000 # History / Batch, only used for istdev=1
# bitrseed = 0000010101110101110110100110011001100101000001100111100100101101 # bit data of rseed
