[ T-Cross ]
    title = [t-cross] in region mesh
     mesh =  reg            # mesh type is region-wise
      reg =    1            # number of crossing regions
      non     r-from    r-to       area
      1       120       220        1.000000    
   e-type =    3            # e-mesh is log given by emin, emax and ne
     emin =  1.0000000E-02  # minimum value of e-mesh points
     emax =   150.0000      # maximum value of e-mesh points
#    edel =  2.4039514E-02  # mesh width of e-mesh points
       ne =    400          # number of e-mesh points
#    data = ( e(i), i = 1, ne + 1 )
#           1.00000E-02  1.02433E-02  1.04925E-02  1.07478E-02  1.10093E-02
#           1.12772E-02  1.15516E-02  1.18326E-02  1.21205E-02  1.24154E-02
#           1.27175E-02  1.30269E-02  1.33439E-02  1.36686E-02  1.40011E-02
#           1.43418E-02  1.46907E-02  1.50482E-02  1.54143E-02  1.57894E-02
#           1.61735E-02  1.65670E-02  1.69701E-02  1.73830E-02  1.78060E-02
#           1.82392E-02  1.86830E-02  1.91375E-02  1.96032E-02  2.00801E-02
#           2.05687E-02  2.10692E-02  2.15818E-02  2.21069E-02  2.26448E-02
#           2.31957E-02  2.37601E-02  2.43382E-02  2.49304E-02  2.55369E-02
#           2.61583E-02  2.67947E-02  2.74467E-02  2.81145E-02  2.87985E-02
#           2.94992E-02  3.02169E-02  3.09521E-02  3.17052E-02  3.24766E-02
#           3.32668E-02  3.40762E-02  3.49053E-02  3.57546E-02  3.66246E-02
#           3.75157E-02  3.84284E-02  3.93634E-02  4.03212E-02  4.13022E-02
#           4.23071E-02  4.33365E-02  4.43909E-02  4.54710E-02  4.65773E-02
#           4.77106E-02  4.88714E-02  5.00605E-02  5.12785E-02  5.25262E-02
#           5.38042E-02  5.51133E-02  5.64542E-02  5.78278E-02  5.92348E-02
#           6.06760E-02  6.21523E-02  6.36645E-02  6.52135E-02  6.68002E-02
#           6.84255E-02  7.00904E-02  7.17957E-02  7.35426E-02  7.53319E-02
#           7.71648E-02  7.90423E-02  8.09655E-02  8.29354E-02  8.49533E-02
#           8.70203E-02  8.91376E-02  9.13064E-02  9.35279E-02  9.58035E-02
#           9.81345E-02  1.00522E-01  1.02968E-01  1.05473E-01  1.08040E-01
#           1.10668E-01  1.13361E-01  1.16119E-01  1.18944E-01  1.21838E-01
#           1.24803E-01  1.27839E-01  1.30950E-01  1.34136E-01  1.37399E-01
#           1.40742E-01  1.44167E-01  1.47675E-01  1.51268E-01  1.54948E-01
#           1.58718E-01  1.62580E-01  1.66535E-01  1.70587E-01  1.74738E-01
#           1.78989E-01  1.83344E-01  1.87805E-01  1.92375E-01  1.97055E-01
#           2.01850E-01  2.06761E-01  2.11792E-01  2.16945E-01  2.22223E-01
#           2.27630E-01  2.33169E-01  2.38842E-01  2.44653E-01  2.50605E-01
#           2.56703E-01  2.62949E-01  2.69346E-01  2.75900E-01  2.82613E-01
#           2.89489E-01  2.96532E-01  3.03747E-01  3.11138E-01  3.18708E-01
#           3.26462E-01  3.34405E-01  3.42542E-01  3.50876E-01  3.59413E-01
#           3.68158E-01  3.77116E-01  3.86291E-01  3.95690E-01  4.05317E-01
#           4.15179E-01  4.25281E-01  4.35628E-01  4.46227E-01  4.57084E-01
#           4.68205E-01  4.79597E-01  4.91266E-01  5.03219E-01  5.15463E-01
#           5.28005E-01  5.40851E-01  5.54011E-01  5.67490E-01  5.81298E-01
#           5.95441E-01  6.09929E-01  6.24769E-01  6.39970E-01  6.55541E-01
#           6.71491E-01  6.87828E-01  7.04564E-01  7.21706E-01  7.39266E-01
#           7.57253E-01  7.75678E-01  7.94551E-01  8.13883E-01  8.33685E-01
#           8.53969E-01  8.74747E-01  8.96030E-01  9.17831E-01  9.40163E-01
#           9.63038E-01  9.86469E-01  1.01047E+00  1.03506E+00  1.06024E+00
#           1.08604E+00  1.11246E+00  1.13953E+00  1.16725E+00  1.19565E+00
#           1.22474E+00  1.25454E+00  1.28507E+00  1.31633E+00  1.34836E+00
#           1.38117E+00  1.41477E+00  1.44920E+00  1.48446E+00  1.52057E+00
#           1.55757E+00  1.59547E+00  1.63429E+00  1.67405E+00  1.71478E+00
#           1.75650E+00  1.79924E+00  1.84302E+00  1.88786E+00  1.93379E+00
#           1.98084E+00  2.02904E+00  2.07841E+00  2.12898E+00  2.18078E+00
#           2.23384E+00  2.28819E+00  2.34386E+00  2.40089E+00  2.45930E+00
#           2.51914E+00  2.58043E+00  2.64322E+00  2.70753E+00  2.77341E+00
#           2.84088E+00  2.91001E+00  2.98081E+00  3.05333E+00  3.12762E+00
#           3.20372E+00  3.28167E+00  3.36152E+00  3.44330E+00  3.52708E+00
#           3.61290E+00  3.70080E+00  3.79085E+00  3.88308E+00  3.97756E+00
#           4.07434E+00  4.17347E+00  4.27501E+00  4.37903E+00  4.48557E+00
#           4.59471E+00  4.70650E+00  4.82102E+00  4.93832E+00  5.05847E+00
#           5.18155E+00  5.30762E+00  5.43676E+00  5.56904E+00  5.70453E+00
#           5.84333E+00  5.98550E+00  6.13114E+00  6.28031E+00  6.43312E+00
#           6.58964E+00  6.74997E+00  6.91420E+00  7.08243E+00  7.25475E+00
#           7.43126E+00  7.61207E+00  7.79728E+00  7.98700E+00  8.18133E+00
#           8.38038E+00  8.58428E+00  8.79315E+00  9.00709E+00  9.22624E+00
#           9.45072E+00  9.68067E+00  9.91620E+00  1.01575E+01  1.04046E+01
#           1.06578E+01  1.09171E+01  1.11827E+01  1.14548E+01  1.17335E+01
#           1.20190E+01  1.23114E+01  1.26109E+01  1.29178E+01  1.32321E+01
#           1.35540E+01  1.38838E+01  1.42216E+01  1.45676E+01  1.49221E+01
#           1.52851E+01  1.56570E+01  1.60380E+01  1.64282E+01  1.68279E+01
#           1.72374E+01  1.76568E+01  1.80864E+01  1.85264E+01  1.89772E+01
#           1.94389E+01  1.99119E+01  2.03963E+01  2.08926E+01  2.14009E+01
#           2.19216E+01  2.24550E+01  2.30014E+01  2.35610E+01  2.41343E+01
#           2.47215E+01  2.53230E+01  2.59391E+01  2.65702E+01  2.72167E+01
#           2.78789E+01  2.85572E+01  2.92520E+01  2.99637E+01  3.06928E+01
#           3.14396E+01  3.22045E+01  3.29881E+01  3.37907E+01  3.46128E+01
#           3.54550E+01  3.63177E+01  3.72013E+01  3.81064E+01  3.90336E+01
#           3.99833E+01  4.09561E+01  4.19526E+01  4.29734E+01  4.40189E+01
#           4.50900E+01  4.61870E+01  4.73108E+01  4.84619E+01  4.96410E+01
#           5.08488E+01  5.20860E+01  5.33533E+01  5.46514E+01  5.59812E+01
#           5.73432E+01  5.87384E+01  6.01676E+01  6.16315E+01  6.31311E+01
#           6.46671E+01  6.62405E+01  6.78522E+01  6.95031E+01  7.11941E+01
#           7.29263E+01  7.47007E+01  7.65182E+01  7.83800E+01  8.02870E+01
#           8.22405E+01  8.42414E+01  8.62911E+01  8.83906E+01  9.05412E+01
#           9.27442E+01  9.50007E+01  9.73122E+01  9.96799E+01  1.02105E+02
#           1.04589E+02  1.07134E+02  1.09741E+02  1.12411E+02  1.15146E+02
#           1.17948E+02  1.20817E+02  1.23757E+02  1.26768E+02  1.29852E+02
#           1.33012E+02  1.36248E+02  1.39563E+02  1.42959E+02  1.46437E+02
#           1.50000E+02
     unit =    2            # unit is [1/cm^2/(MeV/n)/source]
     axis =  eng            # axis of output
     file = detector-21.out  # file name of output for the above axis
   output = f-curr          # surface crossing forward current spectrum
     part =  neutron  
# kf/name :  2112     
#    used :        main (  %)        temp (  %)       total (  %)
#  memory :         414 (  0)           0 (  0)         414 (  0)

#------------------------------------------------------------------------------
#newpage:
#   no. =    1   reg = 120 - 220

x: Energy [MeV/n]
y:  F-Curr [1/cm^2/(MeV/n)/source]         
p: xlog ylog afac(0.8) form(0.9)
h: n            x            y(neutron ),hh0l   n 
#  e-lower      e-upper      neutron     r.err 
   1.0000E-02   1.0243E-02   5.9839E-02  0.0068
   1.0243E-02   1.0493E-02   5.9407E-02  0.0067
   1.0493E-02   1.0748E-02   5.9367E-02  0.0066
   1.0748E-02   1.1009E-02   5.7580E-02  0.0067
   1.1009E-02   1.1277E-02   5.7621E-02  0.0066
   1.1277E-02   1.1552E-02   5.6487E-02  0.0066
   1.1552E-02   1.1833E-02   5.5631E-02  0.0065
   1.1833E-02   1.2121E-02   5.4749E-02  0.0065
   1.2121E-02   1.2415E-02   5.4462E-02  0.0064
   1.2415E-02   1.2718E-02   5.3640E-02  0.0064
   1.2718E-02   1.3027E-02   5.2667E-02  0.0064
   1.3027E-02   1.3344E-02   5.2097E-02  0.0064
   1.3344E-02   1.3669E-02   5.1476E-02  0.0063
   1.3669E-02   1.4001E-02   5.0457E-02  0.0063
   1.4001E-02   1.4342E-02   5.0045E-02  0.0063
   1.4342E-02   1.4691E-02   4.9308E-02  0.0062
   1.4691E-02   1.5048E-02   4.8602E-02  0.0062
   1.5048E-02   1.5414E-02   4.7799E-02  0.0062
   1.5414E-02   1.5789E-02   4.7417E-02  0.0061
   1.5789E-02   1.6174E-02   4.6521E-02  0.0061
   1.6174E-02   1.6567E-02   4.5789E-02  0.0061
   1.6567E-02   1.6970E-02   4.4726E-02  0.0061
   1.6970E-02   1.7383E-02   4.4761E-02  0.0060
   1.7383E-02   1.7806E-02   4.4355E-02  0.0060
   1.7806E-02   1.8239E-02   4.3375E-02  0.0060
   1.8239E-02   1.8683E-02   4.2813E-02  0.0059
   1.8683E-02   1.9138E-02   4.2510E-02  0.0059
   1.9138E-02   1.9603E-02   4.1787E-02  0.0059
   1.9603E-02   2.0080E-02   4.1451E-02  0.0058
   2.0080E-02   2.0569E-02   4.0224E-02  0.0058
   2.0569E-02   2.1069E-02   4.0008E-02  0.0058
   2.1069E-02   2.1582E-02   3.9336E-02  0.0058
   2.1582E-02   2.2107E-02   3.8520E-02  0.0057
   2.2107E-02   2.2645E-02   3.8614E-02  0.0057
   2.2645E-02   2.3196E-02   3.8073E-02  0.0056
   2.3196E-02   2.3760E-02   3.6788E-02  0.0057
   2.3760E-02   2.4338E-02   3.6582E-02  0.0056
   2.4338E-02   2.4930E-02   3.6141E-02  0.0056
   2.4930E-02   2.5537E-02   3.5752E-02  0.0055
   2.5537E-02   2.6158E-02   3.5513E-02  0.0055
   2.6158E-02   2.6795E-02   3.5191E-02  0.0055
   2.6795E-02   2.7447E-02   3.4414E-02  0.0055
   2.7447E-02   2.8114E-02   3.3753E-02  0.0054
   2.8114E-02   2.8799E-02   3.3190E-02  0.0054
   2.8799E-02   2.9499E-02   3.2565E-02  0.0054
   2.9499E-02   3.0217E-02   3.2141E-02  0.0054
   3.0217E-02   3.0952E-02   3.1755E-02  0.0053
   3.0952E-02   3.1705E-02   3.1677E-02  0.0053
   3.1705E-02   3.2477E-02   3.1448E-02  0.0052
   3.2477E-02   3.3267E-02   3.0687E-02  0.0052
   3.3267E-02   3.4076E-02   3.0340E-02  0.0052
   3.4076E-02   3.4905E-02   2.9813E-02  0.0052
   3.4905E-02   3.5755E-02   2.9717E-02  0.0051
   3.5755E-02   3.6625E-02   2.8942E-02  0.0051
   3.6625E-02   3.7516E-02   2.8642E-02  0.0051
   3.7516E-02   3.8428E-02   2.8190E-02  0.0051
   3.8428E-02   3.9363E-02   2.7694E-02  0.0051
   3.9363E-02   4.0321E-02   2.7417E-02  0.0050
   4.0321E-02   4.1302E-02   2.6991E-02  0.0050
   4.1302E-02   4.2307E-02   2.6636E-02  0.0050
   4.2307E-02   4.3337E-02   2.6113E-02  0.0050
   4.3337E-02   4.4391E-02   2.6058E-02  0.0049
   4.4391E-02   4.5471E-02   2.5485E-02  0.0049
   4.5471E-02   4.6577E-02   2.5425E-02  0.0049
   4.6577E-02   4.7711E-02   2.5023E-02  0.0048
   4.7711E-02   4.8871E-02   2.4680E-02  0.0048
   4.8871E-02   5.0061E-02   2.4213E-02  0.0048
   5.0061E-02   5.1279E-02   2.3846E-02  0.0048
   5.1279E-02   5.2526E-02   2.3533E-02  0.0048
   5.2526E-02   5.3804E-02   2.3134E-02  0.0048
   5.3804E-02   5.5113E-02   2.2864E-02  0.0047
   5.5113E-02   5.6454E-02   2.2679E-02  0.0047
   5.6454E-02   5.7828E-02   2.1995E-02  0.0047
   5.7828E-02   5.9235E-02   2.1765E-02  0.0047
   5.9235E-02   6.0676E-02   2.1539E-02  0.0046
   6.0676E-02   6.2152E-02   2.1388E-02  0.0046
   6.2152E-02   6.3665E-02   2.1063E-02  0.0046
   6.3665E-02   6.5214E-02   2.0740E-02  0.0046
   6.5214E-02   6.6800E-02   2.0357E-02  0.0045
   6.6800E-02   6.8426E-02   2.0081E-02  0.0045
   6.8426E-02   7.0090E-02   1.9776E-02  0.0045
   7.0090E-02   7.1796E-02   1.9656E-02  0.0045
   7.1796E-02   7.3543E-02   1.9317E-02  0.0044
   7.3543E-02   7.5332E-02   1.8971E-02  0.0044
   7.5332E-02   7.7165E-02   1.8683E-02  0.0044
   7.7165E-02   7.9042E-02   1.8452E-02  0.0044
   7.9042E-02   8.0965E-02   1.8203E-02  0.0044
   8.0965E-02   8.2935E-02   1.7776E-02  0.0044
   8.2935E-02   8.4953E-02   1.7600E-02  0.0043
   8.4953E-02   8.7020E-02   1.7476E-02  0.0043
   8.7020E-02   8.9138E-02   1.7133E-02  0.0043
   8.9138E-02   9.1306E-02   1.6997E-02  0.0043
   9.1306E-02   9.3528E-02   1.6799E-02  0.0042
   9.3528E-02   9.5804E-02   1.6568E-02  0.0042
   9.5804E-02   9.8134E-02   1.6233E-02  0.0042
   9.8134E-02   1.0052E-01   1.6048E-02  0.0042
   1.0052E-01   1.0297E-01   1.5805E-02  0.0042
   1.0297E-01   1.0547E-01   1.5596E-02  0.0041
   1.0547E-01   1.0804E-01   1.5314E-02  0.0041
   1.0804E-01   1.1067E-01   1.5125E-02  0.0041
   1.1067E-01   1.1336E-01   1.4905E-02  0.0041
   1.1336E-01   1.1612E-01   1.4712E-02  0.0041
   1.1612E-01   1.1894E-01   1.4525E-02  0.0040
   1.1894E-01   1.2184E-01   1.4203E-02  0.0040
   1.2184E-01   1.2480E-01   1.4079E-02  0.0040
   1.2480E-01   1.2784E-01   1.3855E-02  0.0040
   1.2784E-01   1.3095E-01   1.3600E-02  0.0040
   1.3095E-01   1.3414E-01   1.3526E-02  0.0039
   1.3414E-01   1.3740E-01   1.3215E-02  0.0039
   1.3740E-01   1.4074E-01   1.3055E-02  0.0039
   1.4074E-01   1.4417E-01   1.2865E-02  0.0039
   1.4417E-01   1.4767E-01   1.2667E-02  0.0039
   1.4767E-01   1.5127E-01   1.2477E-02  0.0039
   1.5127E-01   1.5495E-01   1.2296E-02  0.0038
   1.5495E-01   1.5872E-01   1.2137E-02  0.0038
   1.5872E-01   1.6258E-01   1.1824E-02  0.0038
   1.6258E-01   1.6654E-01   1.1779E-02  0.0038
   1.6654E-01   1.7059E-01   1.1565E-02  0.0038
   1.7059E-01   1.7474E-01   1.1420E-02  0.0038
   1.7474E-01   1.7899E-01   1.1234E-02  0.0037
   1.7899E-01   1.8334E-01   1.1074E-02  0.0037
   1.8334E-01   1.8781E-01   1.0888E-02  0.0037
   1.8781E-01   1.9237E-01   1.0683E-02  0.0037
   1.9237E-01   1.9706E-01   1.0560E-02  0.0037
   1.9706E-01   2.0185E-01   1.0349E-02  0.0037
   2.0185E-01   2.0676E-01   1.0280E-02  0.0036
   2.0676E-01   2.1179E-01   1.0181E-02  0.0036
   2.1179E-01   2.1694E-01   9.9204E-03  0.0036
   2.1694E-01   2.2222E-01   9.8643E-03  0.0036
   2.2222E-01   2.2763E-01   9.6827E-03  0.0036
   2.2763E-01   2.3317E-01   9.5134E-03  0.0036
   2.3317E-01   2.3884E-01   9.3335E-03  0.0036
   2.3884E-01   2.4465E-01   9.1780E-03  0.0035
   2.4465E-01   2.5061E-01   9.0049E-03  0.0035
   2.5061E-01   2.5670E-01   8.9050E-03  0.0035
   2.5670E-01   2.6295E-01   8.7068E-03  0.0035
   2.6295E-01   2.6935E-01   8.5950E-03  0.0035
   2.6935E-01   2.7590E-01   8.4315E-03  0.0035
   2.7590E-01   2.8261E-01   8.3013E-03  0.0035
   2.8261E-01   2.8949E-01   8.1895E-03  0.0034
   2.8949E-01   2.9653E-01   8.0240E-03  0.0034
   2.9653E-01   3.0375E-01   7.8957E-03  0.0034
   3.0375E-01   3.1114E-01   7.7178E-03  0.0034
   3.1114E-01   3.1871E-01   7.5994E-03  0.0034
   3.1871E-01   3.2646E-01   7.4662E-03  0.0034
   3.2646E-01   3.3441E-01   7.3132E-03  0.0034
   3.3441E-01   3.4254E-01   7.2108E-03  0.0034
   3.4254E-01   3.5088E-01   7.0828E-03  0.0034
   3.5088E-01   3.5941E-01   6.9418E-03  0.0034
   3.5941E-01   3.6816E-01   6.8256E-03  0.0033
   3.6816E-01   3.7712E-01   6.6998E-03  0.0033
   3.7712E-01   3.8629E-01   6.6245E-03  0.0033
   3.8629E-01   3.9569E-01   6.4720E-03  0.0033
   3.9569E-01   4.0532E-01   6.3319E-03  0.0033
   4.0532E-01   4.1518E-01   6.2166E-03  0.0033
   4.1518E-01   4.2528E-01   6.1032E-03  0.0033
   4.2528E-01   4.3563E-01   5.9606E-03  0.0033
   4.3563E-01   4.4623E-01   5.8737E-03  0.0033
   4.4623E-01   4.5708E-01   5.7524E-03  0.0033
   4.5708E-01   4.6821E-01   5.5956E-03  0.0033
   4.6821E-01   4.7960E-01   5.5009E-03  0.0033
   4.7960E-01   4.9127E-01   5.3672E-03  0.0033
   4.9127E-01   5.0322E-01   5.2569E-03  0.0033
   5.0322E-01   5.1546E-01   5.1769E-03  0.0032
   5.1546E-01   5.2800E-01   5.0319E-03  0.0033
   5.2800E-01   5.4085E-01   4.9289E-03  0.0032
   5.4085E-01   5.5401E-01   4.7676E-03  0.0033
   5.5401E-01   5.6749E-01   4.6917E-03  0.0032
   5.6749E-01   5.8130E-01   4.5751E-03  0.0033
   5.8130E-01   5.9544E-01   4.4435E-03  0.0033
   5.9544E-01   6.0993E-01   4.3897E-03  0.0032
   6.0993E-01   6.2477E-01   4.2690E-03  0.0032
   6.2477E-01   6.3997E-01   4.1636E-03  0.0032
   6.3997E-01   6.5554E-01   4.0354E-03  0.0033
   6.5554E-01   6.7149E-01   3.9165E-03  0.0033
   6.7149E-01   6.8783E-01   3.8207E-03  0.0033
   6.8783E-01   7.0456E-01   3.7148E-03  0.0033
   7.0456E-01   7.2171E-01   3.6216E-03  0.0033
   7.2171E-01   7.3927E-01   3.4831E-03  0.0033
   7.3927E-01   7.5725E-01   3.3864E-03  0.0033
   7.5725E-01   7.7568E-01   3.2779E-03  0.0033
   7.7568E-01   7.9455E-01   3.1848E-03  0.0033
   7.9455E-01   8.1388E-01   3.0563E-03  0.0034
   8.1388E-01   8.3368E-01   2.9822E-03  0.0034
   8.3368E-01   8.5397E-01   2.8597E-03  0.0034
   8.5397E-01   8.7475E-01   2.7505E-03  0.0034
   8.7475E-01   8.9603E-01   2.6447E-03  0.0034
   8.9603E-01   9.1783E-01   2.5592E-03  0.0035
   9.1783E-01   9.4016E-01   2.4400E-03  0.0035
   9.4016E-01   9.6304E-01   2.3336E-03  0.0035
   9.6304E-01   9.8647E-01   2.2345E-03  0.0036
   9.8647E-01   1.0105E+00   2.1620E-03  0.0036
   1.0105E+00   1.0351E+00   2.1510E-03  0.0036
   1.0351E+00   1.0602E+00   2.1765E-03  0.0035
   1.0602E+00   1.0860E+00   2.2082E-03  0.0034
   1.0860E+00   1.1125E+00   2.2258E-03  0.0034
   1.1125E+00   1.1395E+00   2.2889E-03  0.0033
   1.1395E+00   1.1673E+00   2.3440E-03  0.0032
   1.1673E+00   1.1957E+00   2.4121E-03  0.0031
   1.1957E+00   1.2247E+00   2.4581E-03  0.0031
   1.2247E+00   1.2545E+00   2.4915E-03  0.0030
   1.2545E+00   1.2851E+00   2.5096E-03  0.0030
   1.2851E+00   1.3163E+00   2.5226E-03  0.0029
   1.3163E+00   1.3484E+00   2.5663E-03  0.0029
   1.3484E+00   1.3812E+00   2.6031E-03  0.0028
   1.3812E+00   1.4148E+00   2.6454E-03  0.0027
   1.4148E+00   1.4492E+00   2.6396E-03  0.0027
   1.4492E+00   1.4845E+00   2.6316E-03  0.0027
   1.4845E+00   1.5206E+00   2.6156E-03  0.0027
   1.5206E+00   1.5576E+00   2.6277E-03  0.0026
   1.5576E+00   1.5955E+00   2.6217E-03  0.0026
   1.5955E+00   1.6343E+00   2.6391E-03  0.0026
   1.6343E+00   1.6741E+00   2.6627E-03  0.0025
   1.6741E+00   1.7148E+00   2.7160E-03  0.0025
   1.7148E+00   1.7565E+00   2.6923E-03  0.0024
   1.7565E+00   1.7992E+00   2.6697E-03  0.0024
   1.7992E+00   1.8430E+00   2.6270E-03  0.0024
   1.8430E+00   1.8879E+00   2.6131E-03  0.0024
   1.8879E+00   1.9338E+00   2.5935E-03  0.0024
   1.9338E+00   1.9808E+00   2.6041E-03  0.0023
   1.9808E+00   2.0290E+00   2.5946E-03  0.0023
   2.0290E+00   2.0784E+00   2.5354E-03  0.0023
   2.0784E+00   2.1290E+00   2.4812E-03  0.0023
   2.1290E+00   2.1808E+00   2.4336E-03  0.0023
   2.1808E+00   2.2338E+00   2.3744E-03  0.0023
   2.2338E+00   2.2882E+00   2.3472E-03  0.0023
   2.2882E+00   2.3439E+00   2.3248E-03  0.0023
   2.3439E+00   2.4009E+00   2.3008E-03  0.0023
   2.4009E+00   2.4593E+00   2.2579E-03  0.0023
   2.4593E+00   2.5191E+00   2.1814E-03  0.0023
   2.5191E+00   2.5804E+00   2.1133E-03  0.0023
   2.5804E+00   2.6432E+00   2.0492E-03  0.0023
   2.6432E+00   2.7075E+00   1.9902E-03  0.0023
   2.7075E+00   2.7734E+00   1.9351E-03  0.0023
   2.7734E+00   2.8409E+00   1.8718E-03  0.0023
   2.8409E+00   2.9100E+00   1.8403E-03  0.0023
   2.9100E+00   2.9808E+00   1.7967E-03  0.0023
   2.9808E+00   3.0533E+00   1.7420E-03  0.0023
   3.0533E+00   3.1276E+00   1.6674E-03  0.0023
   3.1276E+00   3.2037E+00   1.5891E-03  0.0024
   3.2037E+00   3.2817E+00   1.5254E-03  0.0024
   3.2817E+00   3.3615E+00   1.4545E-03  0.0024
   3.3615E+00   3.4433E+00   1.3889E-03  0.0024
   3.4433E+00   3.5271E+00   1.3352E-03  0.0024
   3.5271E+00   3.6129E+00   1.2877E-03  0.0025
   3.6129E+00   3.7008E+00   1.2275E-03  0.0025
   3.7008E+00   3.7908E+00   1.1685E-03  0.0025
   3.7908E+00   3.8831E+00   1.1089E-03  0.0026
   3.8831E+00   3.9776E+00   1.0540E-03  0.0026
   3.9776E+00   4.0743E+00   1.0030E-03  0.0026
   4.0743E+00   4.1735E+00   9.4632E-04  0.0027
   4.1735E+00   4.2750E+00   8.9381E-04  0.0027
   4.2750E+00   4.3790E+00   8.4061E-04  0.0028
   4.3790E+00   4.4856E+00   7.8841E-04  0.0028
   4.4856E+00   4.5947E+00   7.3967E-04  0.0029
   4.5947E+00   4.7065E+00   6.9574E-04  0.0029
   4.7065E+00   4.8210E+00   6.4989E-04  0.0030
   4.8210E+00   4.9383E+00   6.0991E-04  0.0031
   4.9383E+00   5.0585E+00   5.7400E-04  0.0031
   5.0585E+00   5.1815E+00   5.3235E-04  0.0032
   5.1815E+00   5.3076E+00   4.9593E-04  0.0033
   5.3076E+00   5.4368E+00   4.6339E-04  0.0033
   5.4368E+00   5.5690E+00   4.2802E-04  0.0034
   5.5690E+00   5.7045E+00   3.9350E-04  0.0035
   5.7045E+00   5.8433E+00   3.6178E-04  0.0036
   5.8433E+00   5.9855E+00   3.3383E-04  0.0038
   5.9855E+00   6.1311E+00   3.1345E-04  0.0038
   6.1311E+00   6.2803E+00   2.8527E-04  0.0040
   6.2803E+00   6.4331E+00   2.6540E-04  0.0041
   6.4331E+00   6.5896E+00   2.4067E-04  0.0042
   6.5896E+00   6.7500E+00   2.1971E-04  0.0044
   6.7500E+00   6.9142E+00   2.0005E-04  0.0045
   6.9142E+00   7.0824E+00   1.8330E-04  0.0047
   7.0824E+00   7.2548E+00   1.6696E-04  0.0048
   7.2548E+00   7.4313E+00   1.5272E-04  0.0050
   7.4313E+00   7.6121E+00   1.3842E-04  0.0052
   7.6121E+00   7.7973E+00   1.2533E-04  0.0054
   7.7973E+00   7.9870E+00   1.1507E-04  0.0055
   7.9870E+00   8.1813E+00   1.0321E-04  0.0058
   8.1813E+00   8.3804E+00   9.2939E-05  0.0060
   8.3804E+00   8.5843E+00   8.5685E-05  0.0062
   8.5843E+00   8.7931E+00   7.6738E-05  0.0064
   8.7931E+00   9.0071E+00   6.8931E-05  0.0067
   9.0071E+00   9.2262E+00   6.3260E-05  0.0069
   9.2262E+00   9.4507E+00   5.6596E-05  0.0072
   9.4507E+00   9.6807E+00   5.1555E-05  0.0075
   9.6807E+00   9.9162E+00   4.5848E-05  0.0079
   9.9162E+00   1.0157E+01   4.1963E-05  0.0081
   1.0157E+01   1.0405E+01   3.7906E-05  0.0084
   1.0405E+01   1.0658E+01   3.4959E-05  0.0087
   1.0658E+01   1.0917E+01   3.1252E-05  0.0091
   1.0917E+01   1.1183E+01   2.8054E-05  0.0094
   1.1183E+01   1.1455E+01   2.5428E-05  0.0098
   1.1455E+01   1.1733E+01   2.3109E-05  0.0102
   1.1733E+01   1.2019E+01   2.1266E-05  0.0105
   1.2019E+01   1.2311E+01   1.9364E-05  0.0108
   1.2311E+01   1.2611E+01   1.7867E-05  0.0111
   1.2611E+01   1.2918E+01   1.6044E-05  0.0116
   1.2918E+01   1.3232E+01   1.4627E-05  0.0120
   1.3232E+01   1.3554E+01   1.3809E-05  0.0122
   1.3554E+01   1.3884E+01   1.2791E-05  0.0125
   1.3884E+01   1.4222E+01   1.1744E-05  0.0129
   1.4222E+01   1.4568E+01   1.0775E-05  0.0133
   1.4568E+01   1.4922E+01   1.0147E-05  0.0136
   1.4922E+01   1.5285E+01   9.2821E-06  0.0140
   1.5285E+01   1.5657E+01   8.7855E-06  0.0143
   1.5657E+01   1.6038E+01   8.3546E-06  0.0144
   1.6038E+01   1.6428E+01   7.9144E-06  0.0147
   1.6428E+01   1.6828E+01   7.3762E-06  0.0150
   1.6828E+01   1.7237E+01   7.0739E-06  0.0152
   1.7237E+01   1.7657E+01   6.7199E-06  0.0154
   1.7657E+01   1.8086E+01   6.2942E-06  0.0157
   1.8086E+01   1.8526E+01   6.0121E-06  0.0159
   1.8526E+01   1.8977E+01   5.8686E-06  0.0159
   1.8977E+01   1.9439E+01   5.5819E-06  0.0161
   1.9439E+01   1.9912E+01   5.3943E-06  0.0162
   1.9912E+01   2.0396E+01   4.7929E-06  0.0169
   2.0396E+01   2.0893E+01   4.6065E-06  0.0171
   2.0893E+01   2.1401E+01   4.3856E-06  0.0173
   2.1401E+01   2.1922E+01   4.3288E-06  0.0172
   2.1922E+01   2.2455E+01   4.0335E-06  0.0176
   2.2455E+01   2.3001E+01   3.8278E-06  0.0179
   2.3001E+01   2.3561E+01   3.7536E-06  0.0178
   2.3561E+01   2.4134E+01   3.7935E-06  0.0175
   2.4134E+01   2.4721E+01   3.6467E-06  0.0176
   2.4721E+01   2.5323E+01   3.4381E-06  0.0180
   2.5323E+01   2.5939E+01   3.3619E-06  0.0179
   2.5939E+01   2.6570E+01   3.1827E-06  0.0182
   2.6570E+01   2.7217E+01   3.1154E-06  0.0182
   2.7217E+01   2.7879E+01   2.7987E-06  0.0190
   2.7879E+01   2.8557E+01   2.7529E-06  0.0189
   2.8557E+01   2.9252E+01   2.6750E-06  0.0189
   2.9252E+01   2.9964E+01   2.4869E-06  0.0194
   2.9964E+01   3.0693E+01   2.4644E-06  0.0193
   3.0693E+01   3.1440E+01   2.2827E-06  0.0198
   3.1440E+01   3.2205E+01   2.1858E-06  0.0200
   3.2205E+01   3.2988E+01   2.0394E-06  0.0204
   3.2988E+01   3.3791E+01   1.9785E-06  0.0205
   3.3791E+01   3.4613E+01   1.7953E-06  0.0213
   3.4613E+01   3.5455E+01   1.6521E-06  0.0219
   3.5455E+01   3.6318E+01   1.5858E-06  0.0221
   3.6318E+01   3.7201E+01   1.4946E-06  0.0225
   3.7201E+01   3.8106E+01   1.4200E-06  0.0228
   3.8106E+01   3.9034E+01   1.3259E-06  0.0233
   3.9034E+01   3.9983E+01   1.1849E-06  0.0243
   3.9983E+01   4.0956E+01   1.1163E-06  0.0248
   4.0956E+01   4.1953E+01   1.0363E-06  0.0254
   4.1953E+01   4.2973E+01   9.1241E-07  0.0268
   4.2973E+01   4.4019E+01   8.3271E-07  0.0277
   4.4019E+01   4.5090E+01   7.7559E-07  0.0283
   4.5090E+01   4.6187E+01   6.8971E-07  0.0297
   4.6187E+01   4.7311E+01   6.2824E-07  0.0307
   4.7311E+01   4.8462E+01   5.4324E-07  0.0327
   4.8462E+01   4.9641E+01   5.3882E-07  0.0324
   4.9641E+01   5.0849E+01   4.3495E-07  0.0356
   5.0849E+01   5.2086E+01   4.1546E-07  0.0360
   5.2086E+01   5.3353E+01   3.7139E-07  0.0376
   5.3353E+01   5.4651E+01   3.1019E-07  0.0407
   5.4651E+01   5.5981E+01   3.0032E-07  0.0409
   5.5981E+01   5.7343E+01   2.4375E-07  0.0448
   5.7343E+01   5.8738E+01   2.1932E-07  0.0467
   5.8738E+01   6.0168E+01   1.7166E-07  0.0521
   6.0168E+01   6.1632E+01   1.5301E-07  0.0546
   6.1632E+01   6.3131E+01   1.3204E-07  0.0580
   6.3131E+01   6.4667E+01   1.2717E-07  0.0584
   6.4667E+01   6.6240E+01   1.0550E-07  0.0634
   6.6240E+01   6.7852E+01   9.0589E-08  0.0676
   6.7852E+01   6.9503E+01   7.3092E-08  0.0743
   6.9503E+01   7.1194E+01   5.6375E-08  0.0836
   7.1194E+01   7.2926E+01   4.6569E-08  0.0909
   7.2926E+01   7.4701E+01   3.6069E-08  0.1021
   7.4701E+01   7.6518E+01   2.8977E-08  0.1125
   7.6518E+01   7.8380E+01   2.9005E-08  0.1111
   7.8380E+01   8.0287E+01   1.4333E-08  0.1562
   8.0287E+01   8.2240E+01   1.6040E-08  0.1459
   8.2240E+01   8.4241E+01   1.0995E-08  0.1741
   8.4241E+01   8.6291E+01   1.0083E-08  0.1796
   8.6291E+01   8.8391E+01   7.6208E-09  0.2041
   8.8391E+01   9.0541E+01   4.9598E-09  0.2500
   9.0541E+01   9.2744E+01   1.8158E-09  0.4082
   9.2744E+01   9.5001E+01   5.3179E-09  0.2357
   9.5001E+01   9.7312E+01   1.7305E-09  0.4082
   9.7312E+01   9.9680E+01   1.1263E-09  0.5000
   9.9680E+01   1.0211E+02   1.0995E-09  0.5000
   1.0211E+02   1.0459E+02   1.0734E-09  0.5000
   1.0459E+02   1.0713E+02   2.6198E-10  1.0000
   1.0713E+02   1.0974E+02   2.5576E-10  1.0000
   1.0974E+02   1.1241E+02   7.4904E-10  0.5774
   1.1241E+02   1.1515E+02   2.4375E-10  1.0000
   1.1515E+02   1.1795E+02   4.7592E-10  0.7071
   1.1795E+02   1.2082E+02   0.0000E+00  0.0000
   1.2082E+02   1.2376E+02   2.2679E-10  1.0000
   1.2376E+02   1.2677E+02   0.0000E+00  0.0000
   1.2677E+02   1.2985E+02   0.0000E+00  0.0000
   1.2985E+02   1.3301E+02   0.0000E+00  0.0000
   1.3301E+02   1.3625E+02   0.0000E+00  0.0000
   1.3625E+02   1.3956E+02   0.0000E+00  0.0000
   1.3956E+02   1.4296E+02   0.0000E+00  0.0000
   1.4296E+02   1.4644E+02   0.0000E+00  0.0000
   1.4644E+02   1.5000E+02   0.0000E+00  0.0000

#   sum over                 1.0359E-04
'no. =    1   reg = 120 - 220'
msuc: {\huge [t-cross] in region mesh}
msdr: {\it plotted by \ANGEL \version}
msdl: {\it calculated by \PHITS  3.26}
wt: s(0.7)
\vspace{-3}
  region surface crossing
  area  &=&   1.0000E+00 [cm^2]
e:
 
# Information for Restart Calculation
# This calculation was newly started
# istdev =  2 # 1:Batch variance, 2:History variance
# resc2  = 1.50000000000000000E+09 # Total source weight or Total source weight / maxcas
# resc3  = 1.50000000000000000E+09 # Total history number or Total batch number
# maxcas =   500000000 # History / Batch, only used for istdev=1
# bitrseed = 0000010101110101110110100110011001100101000001100111100100101101 # bit data of rseed
