[ T-Cross ]
    title = [t-cross] in region mesh
     mesh =  reg            # mesh type is region-wise
      reg =    1            # number of crossing regions
      non     r-from    r-to       area
      1       104       204        1.000000    
   e-type =    3            # e-mesh is log given by emin, emax and ne
     emin =  1.0000000E-02  # minimum value of e-mesh points
     emax =   150.0000      # maximum value of e-mesh points
#    edel =  2.4039514E-02  # mesh width of e-mesh points
       ne =    400          # number of e-mesh points
#    data = ( e(i), i = 1, ne + 1 )
#           1.00000E-02  1.02433E-02  1.04925E-02  1.07478E-02  1.10093E-02
#           1.12772E-02  1.15516E-02  1.18326E-02  1.21205E-02  1.24154E-02
#           1.27175E-02  1.30269E-02  1.33439E-02  1.36686E-02  1.40011E-02
#           1.43418E-02  1.46907E-02  1.50482E-02  1.54143E-02  1.57894E-02
#           1.61735E-02  1.65670E-02  1.69701E-02  1.73830E-02  1.78060E-02
#           1.82392E-02  1.86830E-02  1.91375E-02  1.96032E-02  2.00801E-02
#           2.05687E-02  2.10692E-02  2.15818E-02  2.21069E-02  2.26448E-02
#           2.31957E-02  2.37601E-02  2.43382E-02  2.49304E-02  2.55369E-02
#           2.61583E-02  2.67947E-02  2.74467E-02  2.81145E-02  2.87985E-02
#           2.94992E-02  3.02169E-02  3.09521E-02  3.17052E-02  3.24766E-02
#           3.32668E-02  3.40762E-02  3.49053E-02  3.57546E-02  3.66246E-02
#           3.75157E-02  3.84284E-02  3.93634E-02  4.03212E-02  4.13022E-02
#           4.23071E-02  4.33365E-02  4.43909E-02  4.54710E-02  4.65773E-02
#           4.77106E-02  4.88714E-02  5.00605E-02  5.12785E-02  5.25262E-02
#           5.38042E-02  5.51133E-02  5.64542E-02  5.78278E-02  5.92348E-02
#           6.06760E-02  6.21523E-02  6.36645E-02  6.52135E-02  6.68002E-02
#           6.84255E-02  7.00904E-02  7.17957E-02  7.35426E-02  7.53319E-02
#           7.71648E-02  7.90423E-02  8.09655E-02  8.29354E-02  8.49533E-02
#           8.70203E-02  8.91376E-02  9.13064E-02  9.35279E-02  9.58035E-02
#           9.81345E-02  1.00522E-01  1.02968E-01  1.05473E-01  1.08040E-01
#           1.10668E-01  1.13361E-01  1.16119E-01  1.18944E-01  1.21838E-01
#           1.24803E-01  1.27839E-01  1.30950E-01  1.34136E-01  1.37399E-01
#           1.40742E-01  1.44167E-01  1.47675E-01  1.51268E-01  1.54948E-01
#           1.58718E-01  1.62580E-01  1.66535E-01  1.70587E-01  1.74738E-01
#           1.78989E-01  1.83344E-01  1.87805E-01  1.92375E-01  1.97055E-01
#           2.01850E-01  2.06761E-01  2.11792E-01  2.16945E-01  2.22223E-01
#           2.27630E-01  2.33169E-01  2.38842E-01  2.44653E-01  2.50605E-01
#           2.56703E-01  2.62949E-01  2.69346E-01  2.75900E-01  2.82613E-01
#           2.89489E-01  2.96532E-01  3.03747E-01  3.11138E-01  3.18708E-01
#           3.26462E-01  3.34405E-01  3.42542E-01  3.50876E-01  3.59413E-01
#           3.68158E-01  3.77116E-01  3.86291E-01  3.95690E-01  4.05317E-01
#           4.15179E-01  4.25281E-01  4.35628E-01  4.46227E-01  4.57084E-01
#           4.68205E-01  4.79597E-01  4.91266E-01  5.03219E-01  5.15463E-01
#           5.28005E-01  5.40851E-01  5.54011E-01  5.67490E-01  5.81298E-01
#           5.95441E-01  6.09929E-01  6.24769E-01  6.39970E-01  6.55541E-01
#           6.71491E-01  6.87828E-01  7.04564E-01  7.21706E-01  7.39266E-01
#           7.57253E-01  7.75678E-01  7.94551E-01  8.13883E-01  8.33685E-01
#           8.53969E-01  8.74747E-01  8.96030E-01  9.17831E-01  9.40163E-01
#           9.63038E-01  9.86469E-01  1.01047E+00  1.03506E+00  1.06024E+00
#           1.08604E+00  1.11246E+00  1.13953E+00  1.16725E+00  1.19565E+00
#           1.22474E+00  1.25454E+00  1.28507E+00  1.31633E+00  1.34836E+00
#           1.38117E+00  1.41477E+00  1.44920E+00  1.48446E+00  1.52057E+00
#           1.55757E+00  1.59547E+00  1.63429E+00  1.67405E+00  1.71478E+00
#           1.75650E+00  1.79924E+00  1.84302E+00  1.88786E+00  1.93379E+00
#           1.98084E+00  2.02904E+00  2.07841E+00  2.12898E+00  2.18078E+00
#           2.23384E+00  2.28819E+00  2.34386E+00  2.40089E+00  2.45930E+00
#           2.51914E+00  2.58043E+00  2.64322E+00  2.70753E+00  2.77341E+00
#           2.84088E+00  2.91001E+00  2.98081E+00  3.05333E+00  3.12762E+00
#           3.20372E+00  3.28167E+00  3.36152E+00  3.44330E+00  3.52708E+00
#           3.61290E+00  3.70080E+00  3.79085E+00  3.88308E+00  3.97756E+00
#           4.07434E+00  4.17347E+00  4.27501E+00  4.37903E+00  4.48557E+00
#           4.59471E+00  4.70650E+00  4.82102E+00  4.93832E+00  5.05847E+00
#           5.18155E+00  5.30762E+00  5.43676E+00  5.56904E+00  5.70453E+00
#           5.84333E+00  5.98550E+00  6.13114E+00  6.28031E+00  6.43312E+00
#           6.58964E+00  6.74997E+00  6.91420E+00  7.08243E+00  7.25475E+00
#           7.43126E+00  7.61207E+00  7.79728E+00  7.98700E+00  8.18133E+00
#           8.38038E+00  8.58428E+00  8.79315E+00  9.00709E+00  9.22624E+00
#           9.45072E+00  9.68067E+00  9.91620E+00  1.01575E+01  1.04046E+01
#           1.06578E+01  1.09171E+01  1.11827E+01  1.14548E+01  1.17335E+01
#           1.20190E+01  1.23114E+01  1.26109E+01  1.29178E+01  1.32321E+01
#           1.35540E+01  1.38838E+01  1.42216E+01  1.45676E+01  1.49221E+01
#           1.52851E+01  1.56570E+01  1.60380E+01  1.64282E+01  1.68279E+01
#           1.72374E+01  1.76568E+01  1.80864E+01  1.85264E+01  1.89772E+01
#           1.94389E+01  1.99119E+01  2.03963E+01  2.08926E+01  2.14009E+01
#           2.19216E+01  2.24550E+01  2.30014E+01  2.35610E+01  2.41343E+01
#           2.47215E+01  2.53230E+01  2.59391E+01  2.65702E+01  2.72167E+01
#           2.78789E+01  2.85572E+01  2.92520E+01  2.99637E+01  3.06928E+01
#           3.14396E+01  3.22045E+01  3.29881E+01  3.37907E+01  3.46128E+01
#           3.54550E+01  3.63177E+01  3.72013E+01  3.81064E+01  3.90336E+01
#           3.99833E+01  4.09561E+01  4.19526E+01  4.29734E+01  4.40189E+01
#           4.50900E+01  4.61870E+01  4.73108E+01  4.84619E+01  4.96410E+01
#           5.08488E+01  5.20860E+01  5.33533E+01  5.46514E+01  5.59812E+01
#           5.73432E+01  5.87384E+01  6.01676E+01  6.16315E+01  6.31311E+01
#           6.46671E+01  6.62405E+01  6.78522E+01  6.95031E+01  7.11941E+01
#           7.29263E+01  7.47007E+01  7.65182E+01  7.83800E+01  8.02870E+01
#           8.22405E+01  8.42414E+01  8.62911E+01  8.83906E+01  9.05412E+01
#           9.27442E+01  9.50007E+01  9.73122E+01  9.96799E+01  1.02105E+02
#           1.04589E+02  1.07134E+02  1.09741E+02  1.12411E+02  1.15146E+02
#           1.17948E+02  1.20817E+02  1.23757E+02  1.26768E+02  1.29852E+02
#           1.33012E+02  1.36248E+02  1.39563E+02  1.42959E+02  1.46437E+02
#           1.50000E+02
     unit =    2            # unit is [1/cm^2/(MeV/n)/source]
     axis =  eng            # axis of output
     file = detector-05.out  # file name of output for the above axis
   output = f-curr          # surface crossing forward current spectrum
     part =  neutron  
# kf/name :  2112     
#    used :        main (  %)        temp (  %)       total (  %)
#  memory :         414 (  0)           0 (  0)         414 (  0)

#------------------------------------------------------------------------------
#newpage:
#   no. =    1   reg = 104 - 204

x: Energy [MeV/n]
y:  F-Curr [1/cm^2/(MeV/n)/source]         
p: xlog ylog afac(0.8) form(0.9)
h: n            x            y(neutron ),hh0l   n 
#  e-lower      e-upper      neutron     r.err 
   1.0000E-02   1.0243E-02   8.5516E-04  0.0309
   1.0243E-02   1.0493E-02   7.9583E-04  0.0317
   1.0493E-02   1.0748E-02   7.8111E-04  0.0316
   1.0748E-02   1.1009E-02   7.3250E-04  0.0322
   1.1009E-02   1.1277E-02   7.9143E-04  0.0306
   1.1277E-02   1.1552E-02   7.8911E-04  0.0303
   1.1552E-02   1.1833E-02   7.3807E-04  0.0309
   1.1833E-02   1.2121E-02   7.2133E-04  0.0309
   1.2121E-02   1.2415E-02   7.0239E-04  0.0310
   1.2415E-02   1.2718E-02   6.7118E-04  0.0313
   1.2718E-02   1.3027E-02   6.9024E-04  0.0305
   1.3027E-02   1.3344E-02   6.7644E-04  0.0305
   1.3344E-02   1.3669E-02   6.6933E-04  0.0302
   1.3669E-02   1.4001E-02   6.1081E-04  0.0313
   1.4001E-02   1.4342E-02   6.0543E-04  0.0311
   1.4342E-02   1.4691E-02   5.8413E-04  0.0312
   1.4691E-02   1.5048E-02   5.5921E-04  0.0316
   1.5048E-02   1.5414E-02   5.7020E-04  0.0309
   1.5414E-02   1.5789E-02   5.3776E-04  0.0314
   1.5789E-02   1.6174E-02   5.6788E-04  0.0302
   1.6174E-02   1.6567E-02   5.4906E-04  0.0303
   1.6567E-02   1.6970E-02   5.0780E-04  0.0312
   1.6970E-02   1.7383E-02   5.4261E-04  0.0298
   1.7383E-02   1.7806E-02   5.0623E-04  0.0305
   1.7806E-02   1.8239E-02   4.7847E-04  0.0309
   1.8239E-02   1.8683E-02   4.6326E-04  0.0311
   1.8683E-02   1.9138E-02   4.8788E-04  0.0299
   1.9138E-02   1.9603E-02   4.7531E-04  0.0300
   1.9603E-02   2.0080E-02   4.4238E-04  0.0307
   2.0080E-02   2.0569E-02   4.5360E-04  0.0300
   2.0569E-02   2.1069E-02   4.4405E-04  0.0299
   2.1069E-02   2.1582E-02   4.3285E-04  0.0299
   2.1582E-02   2.2107E-02   4.0407E-04  0.0306
   2.2107E-02   2.2645E-02   4.1699E-04  0.0298
   2.2645E-02   2.3196E-02   3.7615E-04  0.0310
   2.3196E-02   2.3760E-02   3.9564E-04  0.0298
   2.3760E-02   2.4338E-02   3.7530E-04  0.0303
   2.4338E-02   2.4930E-02   3.8396E-04  0.0296
   2.4930E-02   2.5537E-02   3.5774E-04  0.0302
   2.5537E-02   2.6158E-02   3.7870E-04  0.0291
   2.6158E-02   2.6795E-02   3.4870E-04  0.0299
   2.6795E-02   2.7447E-02   3.2379E-04  0.0307
   2.7447E-02   2.8114E-02   3.2285E-04  0.0303
   2.8114E-02   2.8799E-02   3.1446E-04  0.0304
   2.8799E-02   2.9499E-02   3.2586E-04  0.0295
   2.9499E-02   3.0217E-02   2.9926E-04  0.0304
   3.0217E-02   3.0952E-02   3.0236E-04  0.0299
   3.0952E-02   3.1705E-02   2.7981E-04  0.0307
   3.1705E-02   3.2477E-02   2.8221E-04  0.0302
   3.2477E-02   3.3267E-02   2.8498E-04  0.0297
   3.3267E-02   3.4076E-02   2.8287E-04  0.0294
   3.4076E-02   3.4905E-02   2.8020E-04  0.0293
   3.4905E-02   3.5755E-02   2.5683E-04  0.0302
   3.5755E-02   3.6625E-02   2.5556E-04  0.0299
   3.6625E-02   3.7516E-02   2.4597E-04  0.0301
   3.7516E-02   3.8428E-02   2.3823E-04  0.0302
   3.8428E-02   3.9363E-02   2.3206E-04  0.0303
   3.9363E-02   4.0321E-02   2.3441E-04  0.0298
   4.0321E-02   4.1302E-02   2.3649E-04  0.0293
   4.1302E-02   4.2307E-02   2.1915E-04  0.0300
   4.2307E-02   4.3337E-02   2.1940E-04  0.0297
   4.3337E-02   4.4391E-02   2.1575E-04  0.0295
   4.4391E-02   4.5471E-02   2.0592E-04  0.0299
   4.5471E-02   4.6577E-02   1.9343E-04  0.0304
   4.6577E-02   4.7711E-02   1.9810E-04  0.0298
   4.7711E-02   4.8871E-02   1.9540E-04  0.0296
   4.8871E-02   5.0061E-02   1.9523E-04  0.0292
   5.0061E-02   5.1279E-02   1.8588E-04  0.0296
   5.1279E-02   5.2526E-02   1.8484E-04  0.0293
   5.2526E-02   5.3804E-02   1.8253E-04  0.0292
   5.3804E-02   5.5113E-02   1.7898E-04  0.0291
   5.5113E-02   5.6454E-02   1.6827E-04  0.0297
   5.6454E-02   5.7828E-02   1.6648E-04  0.0295
   5.7828E-02   5.9235E-02   1.6181E-04  0.0295
   5.9235E-02   6.0676E-02   1.5174E-04  0.0301
   6.0676E-02   6.2152E-02   1.5438E-04  0.0295
   6.2152E-02   6.3665E-02   1.4676E-04  0.0299
   6.3665E-02   6.5214E-02   1.4887E-04  0.0294
   6.5214E-02   6.6800E-02   1.3172E-04  0.0308
   6.6800E-02   6.8426E-02   1.3530E-04  0.0300
   6.8426E-02   7.0090E-02   1.2929E-04  0.0304
   7.0090E-02   7.1796E-02   1.2654E-04  0.0304
   7.1796E-02   7.3543E-02   1.2108E-04  0.0306
   7.3543E-02   7.5332E-02   1.3054E-04  0.0291
   7.5332E-02   7.7165E-02   1.1910E-04  0.0302
   7.7165E-02   7.9042E-02   1.2162E-04  0.0295
   7.9042E-02   8.0965E-02   1.1249E-04  0.0303
   8.0965E-02   8.2935E-02   1.1808E-04  0.0292
   8.2935E-02   8.4953E-02   1.1265E-04  0.0295
   8.4953E-02   8.7020E-02   1.1146E-04  0.0293
   8.7020E-02   8.9138E-02   1.0331E-04  0.0301
   8.9138E-02   9.1306E-02   1.0810E-04  0.0291
   9.1306E-02   9.3528E-02   1.0718E-04  0.0289
   9.3528E-02   9.5804E-02   9.5811E-05  0.0302
   9.5804E-02   9.8134E-02   9.4237E-05  0.0300
   9.8134E-02   1.0052E-01   9.5898E-05  0.0295
   1.0052E-01   1.0297E-01   9.7325E-05  0.0289
   1.0297E-01   1.0547E-01   8.9182E-05  0.0298
   1.0547E-01   1.0804E-01   8.7276E-05  0.0298
   1.0804E-01   1.1067E-01   8.9168E-05  0.0291
   1.1067E-01   1.1336E-01   7.8972E-05  0.0305
   1.1336E-01   1.1612E-01   8.1424E-05  0.0297
   1.1612E-01   1.1894E-01   7.7659E-05  0.0301
   1.1894E-01   1.2184E-01   7.6331E-05  0.0300
   1.2184E-01   1.2480E-01   7.9572E-05  0.0290
   1.2480E-01   1.2784E-01   7.5562E-05  0.0294
   1.2784E-01   1.3095E-01   7.4604E-05  0.0293
   1.3095E-01   1.3414E-01   6.9147E-05  0.0300
   1.3414E-01   1.3740E-01   7.4285E-05  0.0286
   1.3740E-01   1.4074E-01   6.4859E-05  0.0302
   1.4074E-01   1.4417E-01   6.6789E-05  0.0294
   1.4417E-01   1.4767E-01   6.4436E-05  0.0296
   1.4767E-01   1.5127E-01   6.6382E-05  0.0289
   1.5127E-01   1.5495E-01   6.1503E-05  0.0296
   1.5495E-01   1.5872E-01   6.1414E-05  0.0293
   1.5872E-01   1.6258E-01   6.1041E-05  0.0290
   1.6258E-01   1.6654E-01   6.0701E-05  0.0287
   1.6654E-01   1.7059E-01   5.7353E-05  0.0292
   1.7059E-01   1.7474E-01   5.6867E-05  0.0290
   1.7474E-01   1.7899E-01   5.6801E-05  0.0286
   1.7899E-01   1.8334E-01   5.6267E-05  0.0285
   1.8334E-01   1.8781E-01   5.3588E-05  0.0288
   1.8781E-01   1.9237E-01   5.2572E-05  0.0287
   1.9237E-01   1.9706E-01   5.5522E-05  0.0276
   1.9706E-01   2.0185E-01   5.4265E-05  0.0276
   2.0185E-01   2.0676E-01   5.4383E-05  0.0273
   2.0676E-01   2.1179E-01   5.7185E-05  0.0263
   2.1179E-01   2.1694E-01   5.8711E-05  0.0256
   2.1694E-01   2.2222E-01   5.9627E-05  0.0251
   2.2222E-01   2.2763E-01   6.0167E-05  0.0247
   2.2763E-01   2.3317E-01   6.3542E-05  0.0237
   2.3317E-01   2.3884E-01   6.4721E-05  0.0232
   2.3884E-01   2.4465E-01   6.4143E-05  0.0230
   2.4465E-01   2.5061E-01   7.1283E-05  0.0216
   2.5061E-01   2.5670E-01   7.0306E-05  0.0215
   2.5670E-01   2.6295E-01   7.2339E-05  0.0210
   2.6295E-01   2.6935E-01   7.6115E-05  0.0202
   2.6935E-01   2.7590E-01   7.5808E-05  0.0200
   2.7590E-01   2.8261E-01   7.7978E-05  0.0195
   2.8261E-01   2.8949E-01   8.1216E-05  0.0188
   2.8949E-01   2.9653E-01   8.4349E-05  0.0183
   2.9653E-01   3.0375E-01   8.3207E-05  0.0182
   3.0375E-01   3.1114E-01   8.7302E-05  0.0175
   3.1114E-01   3.1871E-01   8.8095E-05  0.0173
   3.1871E-01   3.2646E-01   9.2620E-05  0.0166
   3.2646E-01   3.3441E-01   9.0628E-05  0.0166
   3.3441E-01   3.4254E-01   9.8638E-05  0.0157
   3.4254E-01   3.5088E-01   9.8267E-05  0.0156
   3.5088E-01   3.5941E-01   9.7602E-05  0.0154
   3.5941E-01   3.6816E-01   1.0057E-04  0.0150
   3.6816E-01   3.7712E-01   1.0251E-04  0.0147
   3.7712E-01   3.8629E-01   1.0572E-04  0.0143
   3.8629E-01   3.9569E-01   1.0455E-04  0.0142
   3.9569E-01   4.0532E-01   1.0872E-04  0.0138
   4.0532E-01   4.1518E-01   1.0866E-04  0.0136
   4.1518E-01   4.2528E-01   1.1359E-04  0.0132
   4.2528E-01   4.3563E-01   1.1391E-04  0.0130
   4.3563E-01   4.4623E-01   1.1487E-04  0.0128
   4.4623E-01   4.5708E-01   1.1532E-04  0.0126
   4.5708E-01   4.6821E-01   1.1746E-04  0.0123
   4.6821E-01   4.7960E-01   1.1920E-04  0.0121
   4.7960E-01   4.9127E-01   1.1944E-04  0.0119
   4.9127E-01   5.0322E-01   1.2170E-04  0.0117
   5.0322E-01   5.1546E-01   1.2469E-04  0.0114
   5.1546E-01   5.2800E-01   1.2391E-04  0.0113
   5.2800E-01   5.4085E-01   1.2340E-04  0.0112
   5.4085E-01   5.5401E-01   1.2530E-04  0.0110
   5.5401E-01   5.6749E-01   1.2355E-04  0.0109
   5.6749E-01   5.8130E-01   1.2817E-04  0.0106
   5.8130E-01   5.9544E-01   1.2752E-04  0.0105
   5.9544E-01   6.0993E-01   1.2737E-04  0.0104
   6.0993E-01   6.2477E-01   1.2975E-04  0.0101
   6.2477E-01   6.3997E-01   1.3089E-04  0.0100
   6.3997E-01   6.5554E-01   1.2905E-04  0.0099
   6.5554E-01   6.7149E-01   1.3063E-04  0.0098
   6.7149E-01   6.8783E-01   1.3089E-04  0.0096
   6.8783E-01   7.0456E-01   1.3037E-04  0.0095
   7.0456E-01   7.2171E-01   1.2843E-04  0.0095
   7.2171E-01   7.3927E-01   1.2842E-04  0.0094
   7.3927E-01   7.5725E-01   1.2784E-04  0.0093
   7.5725E-01   7.7568E-01   1.2740E-04  0.0092
   7.7568E-01   7.9455E-01   1.2588E-04  0.0091
   7.9455E-01   8.1388E-01   1.2419E-04  0.0091
   8.1388E-01   8.3368E-01   1.2279E-04  0.0090
   8.3368E-01   8.5397E-01   1.2113E-04  0.0090
   8.5397E-01   8.7475E-01   1.1834E-04  0.0090
   8.7475E-01   8.9603E-01   1.1629E-04  0.0090
   8.9603E-01   9.1783E-01   1.1291E-04  0.0090
   9.1783E-01   9.4016E-01   1.1080E-04  0.0089
   9.4016E-01   9.6304E-01   1.0911E-04  0.0089
   9.6304E-01   9.8647E-01   1.0525E-04  0.0090
   9.8647E-01   1.0105E+00   1.0218E-04  0.0090
   1.0105E+00   1.0351E+00   1.0301E-04  0.0089
   1.0351E+00   1.0602E+00   1.0546E-04  0.0086
   1.0602E+00   1.0860E+00   1.0673E-04  0.0085
   1.0860E+00   1.1125E+00   1.0948E-04  0.0083
   1.1125E+00   1.1395E+00   1.1078E-04  0.0081
   1.1395E+00   1.1673E+00   1.1319E-04  0.0079
   1.1673E+00   1.1957E+00   1.1503E-04  0.0078
   1.1957E+00   1.2247E+00   1.1914E-04  0.0076
   1.2247E+00   1.2545E+00   1.1630E-04  0.0076
   1.2545E+00   1.2851E+00   1.1966E-04  0.0074
   1.2851E+00   1.3163E+00   1.2051E-04  0.0073
   1.3163E+00   1.3484E+00   1.2138E-04  0.0071
   1.3484E+00   1.3812E+00   1.2405E-04  0.0070
   1.3812E+00   1.4148E+00   1.2653E-04  0.0068
   1.4148E+00   1.4492E+00   1.2627E-04  0.0068
   1.4492E+00   1.4845E+00   1.2893E-04  0.0066
   1.4845E+00   1.5206E+00   1.2723E-04  0.0066
   1.5206E+00   1.5576E+00   1.2980E-04  0.0064
   1.5576E+00   1.5955E+00   1.2737E-04  0.0064
   1.5955E+00   1.6343E+00   1.2877E-04  0.0063
   1.6343E+00   1.6741E+00   1.2863E-04  0.0062
   1.6741E+00   1.7148E+00   1.3119E-04  0.0061
   1.7148E+00   1.7565E+00   1.3323E-04  0.0060
   1.7565E+00   1.7992E+00   1.3230E-04  0.0059
   1.7992E+00   1.8430E+00   1.3328E-04  0.0058
   1.8430E+00   1.8879E+00   1.3278E-04  0.0058
   1.8879E+00   1.9338E+00   1.3293E-04  0.0057
   1.9338E+00   1.9808E+00   1.3187E-04  0.0057
   1.9808E+00   2.0290E+00   1.3586E-04  0.0055
   2.0290E+00   2.0784E+00   1.3317E-04  0.0055
   2.0784E+00   2.1290E+00   1.3325E-04  0.0054
   2.1290E+00   2.1808E+00   1.3428E-04  0.0053
   2.1808E+00   2.2338E+00   1.3275E-04  0.0053
   2.2338E+00   2.2882E+00   1.3292E-04  0.0052
   2.2882E+00   2.3439E+00   1.3480E-04  0.0051
   2.3439E+00   2.4009E+00   1.3374E-04  0.0051
   2.4009E+00   2.4593E+00   1.3627E-04  0.0050
   2.4593E+00   2.5191E+00   1.3584E-04  0.0049
   2.5191E+00   2.5804E+00   1.3419E-04  0.0049
   2.5804E+00   2.6432E+00   1.3462E-04  0.0048
   2.6432E+00   2.7075E+00   1.3614E-04  0.0048
   2.7075E+00   2.7734E+00   1.3632E-04  0.0047
   2.7734E+00   2.8409E+00   1.3515E-04  0.0047
   2.8409E+00   2.9100E+00   1.3536E-04  0.0046
   2.9100E+00   2.9808E+00   1.3820E-04  0.0045
   2.9808E+00   3.0533E+00   1.3873E-04  0.0044
   3.0533E+00   3.1276E+00   1.3780E-04  0.0044
   3.1276E+00   3.2037E+00   1.3876E-04  0.0043
   3.2037E+00   3.2817E+00   1.3757E-04  0.0043
   3.2817E+00   3.3615E+00   1.3792E-04  0.0042
   3.3615E+00   3.4433E+00   1.3789E-04  0.0042
   3.4433E+00   3.5271E+00   1.3828E-04  0.0041
   3.5271E+00   3.6129E+00   1.3964E-04  0.0041
   3.6129E+00   3.7008E+00   1.3935E-04  0.0040
   3.7008E+00   3.7908E+00   1.3953E-04  0.0040
   3.7908E+00   3.8831E+00   1.4033E-04  0.0039
   3.8831E+00   3.9776E+00   1.4214E-04  0.0038
   3.9776E+00   4.0743E+00   1.4182E-04  0.0038
   4.0743E+00   4.1735E+00   1.4144E-04  0.0038
   4.1735E+00   4.2750E+00   1.4261E-04  0.0037
   4.2750E+00   4.3790E+00   1.4319E-04  0.0037
   4.3790E+00   4.4856E+00   1.4264E-04  0.0036
   4.4856E+00   4.5947E+00   1.4343E-04  0.0036
   4.5947E+00   4.7065E+00   1.4380E-04  0.0035
   4.7065E+00   4.8210E+00   1.4588E-04  0.0035
   4.8210E+00   4.9383E+00   1.4644E-04  0.0034
   4.9383E+00   5.0585E+00   1.4720E-04  0.0034
   5.0585E+00   5.1815E+00   1.4718E-04  0.0033
   5.1815E+00   5.3076E+00   1.4754E-04  0.0033
   5.3076E+00   5.4368E+00   1.4887E-04  0.0032
   5.4368E+00   5.5690E+00   1.4778E-04  0.0032
   5.5690E+00   5.7045E+00   1.4894E-04  0.0031
   5.7045E+00   5.8433E+00   1.4966E-04  0.0031
   5.8433E+00   5.9855E+00   1.5150E-04  0.0030
   5.9855E+00   6.1311E+00   1.5178E-04  0.0030
   6.1311E+00   6.2803E+00   1.5253E-04  0.0030
   6.2803E+00   6.4331E+00   1.5256E-04  0.0029
   6.4331E+00   6.5896E+00   1.5333E-04  0.0029
   6.5896E+00   6.7500E+00   1.5383E-04  0.0028
   6.7500E+00   6.9142E+00   1.5618E-04  0.0028
   6.9142E+00   7.0824E+00   1.5636E-04  0.0028
   7.0824E+00   7.2548E+00   1.5668E-04  0.0027
   7.2548E+00   7.4313E+00   1.5784E-04  0.0027
   7.4313E+00   7.6121E+00   1.5758E-04  0.0026
   7.6121E+00   7.7973E+00   1.5863E-04  0.0026
   7.7973E+00   7.9870E+00   1.5968E-04  0.0026
   7.9870E+00   8.1813E+00   1.6104E-04  0.0025
   8.1813E+00   8.3804E+00   1.6096E-04  0.0025
   8.3804E+00   8.5843E+00   1.6190E-04  0.0025
   8.5843E+00   8.7931E+00   1.6376E-04  0.0024
   8.7931E+00   9.0071E+00   1.6419E-04  0.0024
   9.0071E+00   9.2262E+00   1.6426E-04  0.0024
   9.2262E+00   9.4507E+00   1.6502E-04  0.0023
   9.4507E+00   9.6807E+00   1.6618E-04  0.0023
   9.6807E+00   9.9162E+00   1.6831E-04  0.0022
   9.9162E+00   1.0157E+01   1.6936E-04  0.0022
   1.0157E+01   1.0405E+01   1.6975E-04  0.0022
   1.0405E+01   1.0658E+01   1.7178E-04  0.0021
   1.0658E+01   1.0917E+01   1.7290E-04  0.0021
   1.0917E+01   1.1183E+01   1.7413E-04  0.0021
   1.1183E+01   1.1455E+01   1.7581E-04  0.0020
   1.1455E+01   1.1733E+01   1.7760E-04  0.0020
   1.1733E+01   1.2019E+01   1.7901E-04  0.0020
   1.2019E+01   1.2311E+01   1.8054E-04  0.0019
   1.2311E+01   1.2611E+01   1.8148E-04  0.0019
   1.2611E+01   1.2918E+01   1.8294E-04  0.0019
   1.2918E+01   1.3232E+01   1.8370E-04  0.0019
   1.3232E+01   1.3554E+01   1.8597E-04  0.0018
   1.3554E+01   1.3884E+01   1.8684E-04  0.0018
   1.3884E+01   1.4222E+01   1.8747E-04  0.0018
   1.4222E+01   1.4568E+01   1.9026E-04  0.0017
   1.4568E+01   1.4922E+01   1.9073E-04  0.0017
   1.4922E+01   1.5285E+01   1.9193E-04  0.0017
   1.5285E+01   1.5657E+01   1.9356E-04  0.0017
   1.5657E+01   1.6038E+01   1.9412E-04  0.0016
   1.6038E+01   1.6428E+01   1.9445E-04  0.0016
   1.6428E+01   1.6828E+01   1.9513E-04  0.0016
   1.6828E+01   1.7237E+01   1.9601E-04  0.0016
   1.7237E+01   1.7657E+01   1.9674E-04  0.0016
   1.7657E+01   1.8086E+01   1.9765E-04  0.0015
   1.8086E+01   1.8526E+01   1.9675E-04  0.0015
   1.8526E+01   1.8977E+01   1.9716E-04  0.0015
   1.8977E+01   1.9439E+01   1.9713E-04  0.0015
   1.9439E+01   1.9912E+01   1.9708E-04  0.0015
   1.9912E+01   2.0396E+01   2.0169E-04  0.0014
   2.0396E+01   2.0893E+01   2.0244E-04  0.0014
   2.0893E+01   2.1401E+01   2.0031E-04  0.0014
   2.1401E+01   2.1922E+01   1.9922E-04  0.0014
   2.1922E+01   2.2455E+01   1.9689E-04  0.0014
   2.2455E+01   2.3001E+01   1.9432E-04  0.0014
   2.3001E+01   2.3561E+01   1.9140E-04  0.0014
   2.3561E+01   2.4134E+01   1.8802E-04  0.0014
   2.4134E+01   2.4721E+01   1.8414E-04  0.0014
   2.4721E+01   2.5323E+01   1.7982E-04  0.0014
   2.5323E+01   2.5939E+01   1.7504E-04  0.0014
   2.5939E+01   2.6570E+01   1.6986E-04  0.0014
   2.6570E+01   2.7217E+01   1.6375E-04  0.0014
   2.7217E+01   2.7879E+01   1.5743E-04  0.0014
   2.7879E+01   2.8557E+01   1.5106E-04  0.0014
   2.8557E+01   2.9252E+01   1.4376E-04  0.0014
   2.9252E+01   2.9964E+01   1.3644E-04  0.0014
   2.9964E+01   3.0693E+01   1.2856E-04  0.0015
   3.0693E+01   3.1440E+01   1.2085E-04  0.0015
   3.1440E+01   3.2205E+01   1.1319E-04  0.0015
   3.2205E+01   3.2988E+01   1.0489E-04  0.0016
   3.2988E+01   3.3791E+01   9.7505E-05  0.0016
   3.3791E+01   3.4613E+01   8.9752E-05  0.0016
   3.4613E+01   3.5455E+01   8.2054E-05  0.0017
   3.5455E+01   3.6318E+01   7.4940E-05  0.0018
   3.6318E+01   3.7201E+01   6.8725E-05  0.0018
   3.7201E+01   3.8106E+01   6.2340E-05  0.0019
   3.8106E+01   3.9034E+01   5.6427E-05  0.0020
   3.9034E+01   3.9983E+01   5.1223E-05  0.0020
   3.9983E+01   4.0956E+01   4.6136E-05  0.0021
   4.0956E+01   4.1953E+01   4.1512E-05  0.0022
   4.1953E+01   4.2973E+01   3.7434E-05  0.0023
   4.2973E+01   4.4019E+01   3.3697E-05  0.0024
   4.4019E+01   4.5090E+01   3.0360E-05  0.0025
   4.5090E+01   4.6187E+01   2.7380E-05  0.0026
   4.6187E+01   4.7311E+01   2.4878E-05  0.0027
   4.7311E+01   4.8462E+01   2.2683E-05  0.0028
   4.8462E+01   4.9641E+01   2.0754E-05  0.0029
   4.9641E+01   5.0849E+01   1.8979E-05  0.0030
   5.0849E+01   5.2086E+01   1.7202E-05  0.0031
   5.2086E+01   5.3353E+01   1.5629E-05  0.0032
   5.3353E+01   5.4651E+01   1.4368E-05  0.0033
   5.4651E+01   5.5981E+01   1.3103E-05  0.0034
   5.5981E+01   5.7343E+01   1.1773E-05  0.0035
   5.7343E+01   5.8738E+01   1.0562E-05  0.0037
   5.8738E+01   6.0168E+01   9.4795E-06  0.0038
   6.0168E+01   6.1632E+01   8.2503E-06  0.0041
   6.1632E+01   6.3131E+01   7.0796E-06  0.0043
   6.3131E+01   6.4667E+01   6.2779E-06  0.0046
   6.4667E+01   6.6240E+01   5.2889E-06  0.0049
   6.6240E+01   6.7852E+01   4.1938E-06  0.0054
   6.7852E+01   6.9503E+01   3.0740E-06  0.0063
   6.9503E+01   7.1194E+01   1.9838E-06  0.0077
   7.1194E+01   7.2926E+01   9.3672E-07  0.0111
   7.2926E+01   7.4701E+01   3.9011E-07  0.0170
   7.4701E+01   7.6518E+01   6.0962E-08  0.0425
   7.6518E+01   7.8380E+01   0.0000E+00  0.0000
   7.8380E+01   8.0287E+01   0.0000E+00  0.0000
   8.0287E+01   8.2240E+01   0.0000E+00  0.0000
   8.2240E+01   8.4241E+01   0.0000E+00  0.0000
   8.4241E+01   8.6291E+01   0.0000E+00  0.0000
   8.6291E+01   8.8391E+01   0.0000E+00  0.0000
   8.8391E+01   9.0541E+01   0.0000E+00  0.0000
   9.0541E+01   9.2744E+01   0.0000E+00  0.0000
   9.2744E+01   9.5001E+01   0.0000E+00  0.0000
   9.5001E+01   9.7312E+01   0.0000E+00  0.0000
   9.7312E+01   9.9680E+01   0.0000E+00  0.0000
   9.9680E+01   1.0211E+02   0.0000E+00  0.0000
   1.0211E+02   1.0459E+02   0.0000E+00  0.0000
   1.0459E+02   1.0713E+02   0.0000E+00  0.0000
   1.0713E+02   1.0974E+02   0.0000E+00  0.0000
   1.0974E+02   1.1241E+02   0.0000E+00  0.0000
   1.1241E+02   1.1515E+02   0.0000E+00  0.0000
   1.1515E+02   1.1795E+02   0.0000E+00  0.0000
   1.1795E+02   1.2082E+02   0.0000E+00  0.0000
   1.2082E+02   1.2376E+02   0.0000E+00  0.0000
   1.2376E+02   1.2677E+02   0.0000E+00  0.0000
   1.2677E+02   1.2985E+02   0.0000E+00  0.0000
   1.2985E+02   1.3301E+02   0.0000E+00  0.0000
   1.3301E+02   1.3625E+02   0.0000E+00  0.0000
   1.3625E+02   1.3956E+02   0.0000E+00  0.0000
   1.3956E+02   1.4296E+02   0.0000E+00  0.0000
   1.4296E+02   1.4644E+02   0.0000E+00  0.0000
   1.4644E+02   1.5000E+02   0.0000E+00  0.0000

#   sum over                 4.2984E-05
'no. =    1   reg = 104 - 204'
msuc: {\huge [t-cross] in region mesh}
msdr: {\it plotted by \ANGEL \version}
msdl: {\it calculated by \PHITS  3.28}
wt: s(0.7)
\vspace{-3}
  region surface crossing
  area  &=&   1.0000E+00 [cm^2]
e:
 
# Information for Restart Calculation
# This calculation was newly started
# istdev =  2 # 1:Batch variance, 2:History variance
# resc2  = 5.00000000000000000E+09 # Total source weight or Total source weight / maxcas
# resc3  = 5.00000000000000000E+09 # Total history number or Total batch number
# maxcas =   500000000 # History / Batch, only used for istdev=1
# bitrseed = 0110100000100010111000001110001111001110100100011111101000111001 # bit data of rseed
