[ T-Cross ]
    title = [t-cross] in region mesh
     mesh =  reg            # mesh type is region-wise
      reg =    1            # number of crossing regions
      non     r-from    r-to       area
      1       118       218        1.000000    
   e-type =    3            # e-mesh is log given by emin, emax and ne
     emin =  1.0000000E-02  # minimum value of e-mesh points
     emax =   150.0000      # maximum value of e-mesh points
#    edel =  2.4039514E-02  # mesh width of e-mesh points
       ne =    400          # number of e-mesh points
#    data = ( e(i), i = 1, ne + 1 )
#           1.00000E-02  1.02433E-02  1.04925E-02  1.07478E-02  1.10093E-02
#           1.12772E-02  1.15516E-02  1.18326E-02  1.21205E-02  1.24154E-02
#           1.27175E-02  1.30269E-02  1.33439E-02  1.36686E-02  1.40011E-02
#           1.43418E-02  1.46907E-02  1.50482E-02  1.54143E-02  1.57894E-02
#           1.61735E-02  1.65670E-02  1.69701E-02  1.73830E-02  1.78060E-02
#           1.82392E-02  1.86830E-02  1.91375E-02  1.96032E-02  2.00801E-02
#           2.05687E-02  2.10692E-02  2.15818E-02  2.21069E-02  2.26448E-02
#           2.31957E-02  2.37601E-02  2.43382E-02  2.49304E-02  2.55369E-02
#           2.61583E-02  2.67947E-02  2.74467E-02  2.81145E-02  2.87985E-02
#           2.94992E-02  3.02169E-02  3.09521E-02  3.17052E-02  3.24766E-02
#           3.32668E-02  3.40762E-02  3.49053E-02  3.57546E-02  3.66246E-02
#           3.75157E-02  3.84284E-02  3.93634E-02  4.03212E-02  4.13022E-02
#           4.23071E-02  4.33365E-02  4.43909E-02  4.54710E-02  4.65773E-02
#           4.77106E-02  4.88714E-02  5.00605E-02  5.12785E-02  5.25262E-02
#           5.38042E-02  5.51133E-02  5.64542E-02  5.78278E-02  5.92348E-02
#           6.06760E-02  6.21523E-02  6.36645E-02  6.52135E-02  6.68002E-02
#           6.84255E-02  7.00904E-02  7.17957E-02  7.35426E-02  7.53319E-02
#           7.71648E-02  7.90423E-02  8.09655E-02  8.29354E-02  8.49533E-02
#           8.70203E-02  8.91376E-02  9.13064E-02  9.35279E-02  9.58035E-02
#           9.81345E-02  1.00522E-01  1.02968E-01  1.05473E-01  1.08040E-01
#           1.10668E-01  1.13361E-01  1.16119E-01  1.18944E-01  1.21838E-01
#           1.24803E-01  1.27839E-01  1.30950E-01  1.34136E-01  1.37399E-01
#           1.40742E-01  1.44167E-01  1.47675E-01  1.51268E-01  1.54948E-01
#           1.58718E-01  1.62580E-01  1.66535E-01  1.70587E-01  1.74738E-01
#           1.78989E-01  1.83344E-01  1.87805E-01  1.92375E-01  1.97055E-01
#           2.01850E-01  2.06761E-01  2.11792E-01  2.16945E-01  2.22223E-01
#           2.27630E-01  2.33169E-01  2.38842E-01  2.44653E-01  2.50605E-01
#           2.56703E-01  2.62949E-01  2.69346E-01  2.75900E-01  2.82613E-01
#           2.89489E-01  2.96532E-01  3.03747E-01  3.11138E-01  3.18708E-01
#           3.26462E-01  3.34405E-01  3.42542E-01  3.50876E-01  3.59413E-01
#           3.68158E-01  3.77116E-01  3.86291E-01  3.95690E-01  4.05317E-01
#           4.15179E-01  4.25281E-01  4.35628E-01  4.46227E-01  4.57084E-01
#           4.68205E-01  4.79597E-01  4.91266E-01  5.03219E-01  5.15463E-01
#           5.28005E-01  5.40851E-01  5.54011E-01  5.67490E-01  5.81298E-01
#           5.95441E-01  6.09929E-01  6.24769E-01  6.39970E-01  6.55541E-01
#           6.71491E-01  6.87828E-01  7.04564E-01  7.21706E-01  7.39266E-01
#           7.57253E-01  7.75678E-01  7.94551E-01  8.13883E-01  8.33685E-01
#           8.53969E-01  8.74747E-01  8.96030E-01  9.17831E-01  9.40163E-01
#           9.63038E-01  9.86469E-01  1.01047E+00  1.03506E+00  1.06024E+00
#           1.08604E+00  1.11246E+00  1.13953E+00  1.16725E+00  1.19565E+00
#           1.22474E+00  1.25454E+00  1.28507E+00  1.31633E+00  1.34836E+00
#           1.38117E+00  1.41477E+00  1.44920E+00  1.48446E+00  1.52057E+00
#           1.55757E+00  1.59547E+00  1.63429E+00  1.67405E+00  1.71478E+00
#           1.75650E+00  1.79924E+00  1.84302E+00  1.88786E+00  1.93379E+00
#           1.98084E+00  2.02904E+00  2.07841E+00  2.12898E+00  2.18078E+00
#           2.23384E+00  2.28819E+00  2.34386E+00  2.40089E+00  2.45930E+00
#           2.51914E+00  2.58043E+00  2.64322E+00  2.70753E+00  2.77341E+00
#           2.84088E+00  2.91001E+00  2.98081E+00  3.05333E+00  3.12762E+00
#           3.20372E+00  3.28167E+00  3.36152E+00  3.44330E+00  3.52708E+00
#           3.61290E+00  3.70080E+00  3.79085E+00  3.88308E+00  3.97756E+00
#           4.07434E+00  4.17347E+00  4.27501E+00  4.37903E+00  4.48557E+00
#           4.59471E+00  4.70650E+00  4.82102E+00  4.93832E+00  5.05847E+00
#           5.18155E+00  5.30762E+00  5.43676E+00  5.56904E+00  5.70453E+00
#           5.84333E+00  5.98550E+00  6.13114E+00  6.28031E+00  6.43312E+00
#           6.58964E+00  6.74997E+00  6.91420E+00  7.08243E+00  7.25475E+00
#           7.43126E+00  7.61207E+00  7.79728E+00  7.98700E+00  8.18133E+00
#           8.38038E+00  8.58428E+00  8.79315E+00  9.00709E+00  9.22624E+00
#           9.45072E+00  9.68067E+00  9.91620E+00  1.01575E+01  1.04046E+01
#           1.06578E+01  1.09171E+01  1.11827E+01  1.14548E+01  1.17335E+01
#           1.20190E+01  1.23114E+01  1.26109E+01  1.29178E+01  1.32321E+01
#           1.35540E+01  1.38838E+01  1.42216E+01  1.45676E+01  1.49221E+01
#           1.52851E+01  1.56570E+01  1.60380E+01  1.64282E+01  1.68279E+01
#           1.72374E+01  1.76568E+01  1.80864E+01  1.85264E+01  1.89772E+01
#           1.94389E+01  1.99119E+01  2.03963E+01  2.08926E+01  2.14009E+01
#           2.19216E+01  2.24550E+01  2.30014E+01  2.35610E+01  2.41343E+01
#           2.47215E+01  2.53230E+01  2.59391E+01  2.65702E+01  2.72167E+01
#           2.78789E+01  2.85572E+01  2.92520E+01  2.99637E+01  3.06928E+01
#           3.14396E+01  3.22045E+01  3.29881E+01  3.37907E+01  3.46128E+01
#           3.54550E+01  3.63177E+01  3.72013E+01  3.81064E+01  3.90336E+01
#           3.99833E+01  4.09561E+01  4.19526E+01  4.29734E+01  4.40189E+01
#           4.50900E+01  4.61870E+01  4.73108E+01  4.84619E+01  4.96410E+01
#           5.08488E+01  5.20860E+01  5.33533E+01  5.46514E+01  5.59812E+01
#           5.73432E+01  5.87384E+01  6.01676E+01  6.16315E+01  6.31311E+01
#           6.46671E+01  6.62405E+01  6.78522E+01  6.95031E+01  7.11941E+01
#           7.29263E+01  7.47007E+01  7.65182E+01  7.83800E+01  8.02870E+01
#           8.22405E+01  8.42414E+01  8.62911E+01  8.83906E+01  9.05412E+01
#           9.27442E+01  9.50007E+01  9.73122E+01  9.96799E+01  1.02105E+02
#           1.04589E+02  1.07134E+02  1.09741E+02  1.12411E+02  1.15146E+02
#           1.17948E+02  1.20817E+02  1.23757E+02  1.26768E+02  1.29852E+02
#           1.33012E+02  1.36248E+02  1.39563E+02  1.42959E+02  1.46437E+02
#           1.50000E+02
     unit =    2            # unit is [1/cm^2/(MeV/n)/source]
     axis =  eng            # axis of output
     file = detector-19.out  # file name of output for the above axis
   output = f-curr          # surface crossing forward current spectrum
     part =  neutron  
# kf/name :  2112     
#    used :        main (  %)        temp (  %)       total (  %)
#  memory :         414 (  0)           0 (  0)         414 (  0)

#------------------------------------------------------------------------------
#newpage:
#   no. =    1   reg = 118 - 218

x: Energy [MeV/n]
y:  F-Curr [1/cm^2/(MeV/n)/source]         
p: xlog ylog afac(0.8) form(0.9)
h: n            x            y(neutron ),hh0l   n 
#  e-lower      e-upper      neutron     r.err 
   1.0000E-02   1.0243E-02   8.6996E-03  0.0307
   1.0243E-02   1.0493E-02   7.9856E-03  0.0316
   1.0493E-02   1.0748E-02   7.9596E-03  0.0313
   1.0748E-02   1.1009E-02   7.8436E-03  0.0312
   1.1009E-02   1.1277E-02   7.5777E-03  0.0313
   1.1277E-02   1.1552E-02   7.5255E-03  0.0311
   1.1552E-02   1.1833E-02   7.5658E-03  0.0306
   1.1833E-02   1.2121E-02   7.3542E-03  0.0307
   1.2121E-02   1.2415E-02   7.0100E-03  0.0310
   1.2415E-02   1.2718E-02   7.4287E-03  0.0298
   1.2718E-02   1.3027E-02   7.0382E-03  0.0302
   1.3027E-02   1.3344E-02   6.3884E-03  0.0314
   1.3344E-02   1.3669E-02   7.0007E-03  0.0296
   1.3669E-02   1.4001E-02   6.3894E-03  0.0306
   1.4001E-02   1.4342E-02   6.5424E-03  0.0299
   1.4342E-02   1.4691E-02   6.4161E-03  0.0298
   1.4691E-02   1.5048E-02   6.1447E-03  0.0301
   1.5048E-02   1.5414E-02   6.2300E-03  0.0295
   1.5414E-02   1.5789E-02   5.8694E-03  0.0301
   1.5789E-02   1.6174E-02   5.7036E-03  0.0301
   1.6174E-02   1.6567E-02   6.0068E-03  0.0290
   1.6567E-02   1.6970E-02   5.6445E-03  0.0296
   1.6970E-02   1.7383E-02   5.3461E-03  0.0300
   1.7383E-02   1.7806E-02   5.6121E-03  0.0290
   1.7806E-02   1.8239E-02   5.0445E-03  0.0302
   1.8239E-02   1.8683E-02   5.1153E-03  0.0296
   1.8683E-02   1.9138E-02   4.9018E-03  0.0299
   1.9138E-02   1.9603E-02   4.9065E-03  0.0295
   1.9603E-02   2.0080E-02   4.7228E-03  0.0297
   2.0080E-02   2.0569E-02   4.7080E-03  0.0294
   2.0569E-02   2.1069E-02   4.8706E-03  0.0286
   2.1069E-02   2.1582E-02   4.7326E-03  0.0287
   2.1582E-02   2.2107E-02   4.4542E-03  0.0292
   2.2107E-02   2.2645E-02   4.4743E-03  0.0288
   2.2645E-02   2.3196E-02   4.2925E-03  0.0290
   2.3196E-02   2.3760E-02   4.2620E-03  0.0288
   2.3760E-02   2.4338E-02   4.0921E-03  0.0290
   2.4338E-02   2.4930E-02   4.2298E-03  0.0282
   2.4930E-02   2.5537E-02   4.0327E-03  0.0285
   2.5537E-02   2.6158E-02   3.8960E-03  0.0287
   2.6158E-02   2.6795E-02   3.8374E-03  0.0286
   2.6795E-02   2.7447E-02   3.6241E-03  0.0290
   2.7447E-02   2.8114E-02   3.6617E-03  0.0285
   2.8114E-02   2.8799E-02   3.6128E-03  0.0284
   2.8799E-02   2.9499E-02   3.4866E-03  0.0285
   2.9499E-02   3.0217E-02   3.4838E-03  0.0282
   3.0217E-02   3.0952E-02   3.3587E-03  0.0284
   3.0952E-02   3.1705E-02   3.4000E-03  0.0279
   3.1705E-02   3.2477E-02   3.4554E-03  0.0273
   3.2477E-02   3.3267E-02   3.1167E-03  0.0285
   3.3267E-02   3.4076E-02   3.1885E-03  0.0278
   3.4076E-02   3.4905E-02   3.0655E-03  0.0280
   3.4905E-02   3.5755E-02   2.8709E-03  0.0286
   3.5755E-02   3.6625E-02   3.0354E-03  0.0274
   3.6625E-02   3.7516E-02   2.9747E-03  0.0274
   3.7516E-02   3.8428E-02   2.8487E-03  0.0277
   3.8428E-02   3.9363E-02   2.7768E-03  0.0277
   3.9363E-02   4.0321E-02   2.6951E-03  0.0278
   4.0321E-02   4.1302E-02   2.5941E-03  0.0280
   4.1302E-02   4.2307E-02   2.6414E-03  0.0274
   4.2307E-02   4.3337E-02   2.4531E-03  0.0281
   4.3337E-02   4.4391E-02   2.4945E-03  0.0275
   4.4391E-02   4.5471E-02   2.4807E-03  0.0273
   4.5471E-02   4.6577E-02   2.4676E-03  0.0270
   4.6577E-02   4.7711E-02   2.4043E-03  0.0270
   4.7711E-02   4.8871E-02   2.2798E-03  0.0274
   4.8871E-02   5.0061E-02   2.2658E-03  0.0272
   5.0061E-02   5.1279E-02   2.2694E-03  0.0268
   5.1279E-02   5.2526E-02   2.3151E-03  0.0263
   5.2526E-02   5.3804E-02   2.0902E-03  0.0273
   5.3804E-02   5.5113E-02   2.0776E-03  0.0271
   5.5113E-02   5.6454E-02   2.1154E-03  0.0265
   5.6454E-02   5.7828E-02   2.0057E-03  0.0269
   5.7828E-02   5.9235E-02   1.9884E-03  0.0267
   5.9235E-02   6.0676E-02   2.0532E-03  0.0259
   6.0676E-02   6.2152E-02   2.0177E-03  0.0259
   6.2152E-02   6.3665E-02   1.7993E-03  0.0271
   6.3665E-02   6.5214E-02   1.9276E-03  0.0258
   6.5214E-02   6.6800E-02   1.7965E-03  0.0265
   6.6800E-02   6.8426E-02   1.6418E-03  0.0273
   6.8426E-02   7.0090E-02   1.6153E-03  0.0272
   7.0090E-02   7.1796E-02   1.6841E-03  0.0263
   7.1796E-02   7.3543E-02   1.6560E-03  0.0262
   7.3543E-02   7.5332E-02   1.6347E-03  0.0261
   7.5332E-02   7.7165E-02   1.5346E-03  0.0266
   7.7165E-02   7.9042E-02   1.5689E-03  0.0260
   7.9042E-02   8.0965E-02   1.4566E-03  0.0266
   8.0965E-02   8.2935E-02   1.4725E-03  0.0262
   8.2935E-02   8.4953E-02   1.4550E-03  0.0260
   8.4953E-02   8.7020E-02   1.3900E-03  0.0263
   8.7020E-02   8.9138E-02   1.3508E-03  0.0264
   8.9138E-02   9.1306E-02   1.4201E-03  0.0255
   9.1306E-02   9.3528E-02   1.3224E-03  0.0260
   9.3528E-02   9.5804E-02   1.2801E-03  0.0261
   9.5804E-02   9.8134E-02   1.2367E-03  0.0263
   9.8134E-02   1.0052E-01   1.2719E-03  0.0256
   1.0052E-01   1.0297E-01   1.2376E-03  0.0256
   1.0297E-01   1.0547E-01   1.1754E-03  0.0260
   1.0547E-01   1.0804E-01   1.1582E-03  0.0259
   1.0804E-01   1.1067E-01   1.1636E-03  0.0255
   1.1067E-01   1.1336E-01   1.0778E-03  0.0262
   1.1336E-01   1.1612E-01   1.1039E-03  0.0256
   1.1612E-01   1.1894E-01   1.0670E-03  0.0257
   1.1894E-01   1.2184E-01   1.0525E-03  0.0256
   1.2184E-01   1.2480E-01   1.0142E-03  0.0257
   1.2480E-01   1.2784E-01   9.3935E-04  0.0264
   1.2784E-01   1.3095E-01   9.2090E-04  0.0264
   1.3095E-01   1.3414E-01   9.4552E-04  0.0257
   1.3414E-01   1.3740E-01   9.4384E-04  0.0254
   1.3740E-01   1.4074E-01   9.1580E-04  0.0255
   1.4074E-01   1.4417E-01   8.6248E-04  0.0260
   1.4417E-01   1.4767E-01   8.8633E-04  0.0253
   1.4767E-01   1.5127E-01   8.6695E-04  0.0253
   1.5127E-01   1.5495E-01   7.9371E-04  0.0261
   1.5495E-01   1.5872E-01   8.1297E-04  0.0255
   1.5872E-01   1.6258E-01   7.8736E-04  0.0256
   1.6258E-01   1.6654E-01   7.9165E-04  0.0252
   1.6654E-01   1.7059E-01   7.6111E-04  0.0254
   1.7059E-01   1.7474E-01   7.6367E-04  0.0250
   1.7474E-01   1.7899E-01   7.4245E-04  0.0251
   1.7899E-01   1.8334E-01   7.4539E-04  0.0248
   1.8334E-01   1.8781E-01   7.2683E-04  0.0248
   1.8781E-01   1.9237E-01   6.7192E-04  0.0255
   1.9237E-01   1.9706E-01   6.6467E-04  0.0253
   1.9706E-01   2.0185E-01   6.9434E-04  0.0244
   2.0185E-01   2.0676E-01   6.8240E-04  0.0244
   2.0676E-01   2.1179E-01   7.2248E-04  0.0234
   2.1179E-01   2.1694E-01   7.1347E-04  0.0233
   2.1694E-01   2.2222E-01   7.3480E-04  0.0227
   2.2222E-01   2.2763E-01   7.7919E-04  0.0217
   2.2763E-01   2.3317E-01   7.9729E-04  0.0212
   2.3317E-01   2.3884E-01   7.6431E-04  0.0214
   2.3884E-01   2.4465E-01   7.8847E-04  0.0208
   2.4465E-01   2.5061E-01   8.3833E-04  0.0200
   2.5061E-01   2.5670E-01   8.2517E-04  0.0199
   2.5670E-01   2.6295E-01   8.3334E-04  0.0195
   2.6295E-01   2.6935E-01   8.9652E-04  0.0186
   2.6935E-01   2.7590E-01   9.2732E-04  0.0181
   2.7590E-01   2.8261E-01   9.5975E-04  0.0176
   2.8261E-01   2.8949E-01   9.6153E-04  0.0173
   2.8949E-01   2.9653E-01   9.7115E-04  0.0171
   2.9653E-01   3.0375E-01   9.9532E-04  0.0166
   3.0375E-01   3.1114E-01   9.9421E-04  0.0165
   3.1114E-01   3.1871E-01   1.0163E-03  0.0161
   3.1871E-01   3.2646E-01   1.0273E-03  0.0158
   3.2646E-01   3.3441E-01   1.0375E-03  0.0155
   3.3441E-01   3.4254E-01   1.0670E-03  0.0151
   3.4254E-01   3.5088E-01   1.0797E-03  0.0149
   3.5088E-01   3.5941E-01   1.1129E-03  0.0145
   3.5941E-01   3.6816E-01   1.0964E-03  0.0144
   3.6816E-01   3.7712E-01   1.1277E-03  0.0140
   3.7712E-01   3.8629E-01   1.1416E-03  0.0138
   3.8629E-01   3.9569E-01   1.1441E-03  0.0136
   3.9569E-01   4.0532E-01   1.1895E-03  0.0132
   4.0532E-01   4.1518E-01   1.2014E-03  0.0130
   4.1518E-01   4.2528E-01   1.1964E-03  0.0128
   4.2528E-01   4.3563E-01   1.2156E-03  0.0126
   4.3563E-01   4.4623E-01   1.2071E-03  0.0125
   4.4623E-01   4.5708E-01   1.2397E-03  0.0122
   4.5708E-01   4.6821E-01   1.2541E-03  0.0119
   4.6821E-01   4.7960E-01   1.2416E-03  0.0119
   4.7960E-01   4.9127E-01   1.2592E-03  0.0116
   4.9127E-01   5.0322E-01   1.2736E-03  0.0114
   5.0322E-01   5.1546E-01   1.2833E-03  0.0112
   5.1546E-01   5.2800E-01   1.2963E-03  0.0111
   5.2800E-01   5.4085E-01   1.2824E-03  0.0110
   5.4085E-01   5.5401E-01   1.2965E-03  0.0108
   5.5401E-01   5.6749E-01   1.3055E-03  0.0106
   5.6749E-01   5.8130E-01   1.2921E-03  0.0106
   5.8130E-01   5.9544E-01   1.2898E-03  0.0104
   5.9544E-01   6.0993E-01   1.3151E-03  0.0102
   6.0993E-01   6.2477E-01   1.2961E-03  0.0102
   6.2477E-01   6.3997E-01   1.2953E-03  0.0100
   6.3997E-01   6.5554E-01   1.2859E-03  0.0100
   6.5554E-01   6.7149E-01   1.3041E-03  0.0098
   6.7149E-01   6.8783E-01   1.2910E-03  0.0097
   6.8783E-01   7.0456E-01   1.2959E-03  0.0096
   7.0456E-01   7.2171E-01   1.2646E-03  0.0096
   7.2171E-01   7.3927E-01   1.2400E-03  0.0095
   7.3927E-01   7.5725E-01   1.2219E-03  0.0095
   7.5725E-01   7.7568E-01   1.2186E-03  0.0094
   7.7568E-01   7.9455E-01   1.1999E-03  0.0094
   7.9455E-01   8.1388E-01   1.1834E-03  0.0093
   8.1388E-01   8.3368E-01   1.1668E-03  0.0093
   8.3368E-01   8.5397E-01   1.1478E-03  0.0092
   8.5397E-01   8.7475E-01   1.1148E-03  0.0093
   8.7475E-01   8.9603E-01   1.1052E-03  0.0092
   8.9603E-01   9.1783E-01   1.0482E-03  0.0093
   9.1783E-01   9.4016E-01   1.0221E-03  0.0093
   9.4016E-01   9.6304E-01   9.8908E-04  0.0094
   9.6304E-01   9.8647E-01   9.7088E-04  0.0093
   9.8647E-01   1.0105E+00   9.4025E-04  0.0094
   1.0105E+00   1.0351E+00   9.2763E-04  0.0093
   1.0351E+00   1.0602E+00   9.0146E-04  0.0093
   1.0602E+00   1.0860E+00   9.2164E-04  0.0091
   1.0860E+00   1.1125E+00   8.9761E-04  0.0091
   1.1125E+00   1.1395E+00   9.2071E-04  0.0089
   1.1395E+00   1.1673E+00   9.2349E-04  0.0088
   1.1673E+00   1.1957E+00   9.4436E-04  0.0086
   1.1957E+00   1.2247E+00   9.2413E-04  0.0086
   1.2247E+00   1.2545E+00   9.1246E-04  0.0085
   1.2545E+00   1.2851E+00   9.0435E-04  0.0085
   1.2851E+00   1.3163E+00   9.1451E-04  0.0083
   1.3163E+00   1.3484E+00   9.0522E-04  0.0083
   1.3484E+00   1.3812E+00   8.9449E-04  0.0082
   1.3812E+00   1.4148E+00   9.2588E-04  0.0080
   1.4148E+00   1.4492E+00   9.0568E-04  0.0080
   1.4492E+00   1.4845E+00   8.9730E-04  0.0079
   1.4845E+00   1.5206E+00   8.7716E-04  0.0079
   1.5206E+00   1.5576E+00   8.6634E-04  0.0079
   1.5576E+00   1.5955E+00   8.4780E-04  0.0078
   1.5955E+00   1.6343E+00   8.2702E-04  0.0078
   1.6343E+00   1.6741E+00   8.3434E-04  0.0077
   1.6741E+00   1.7148E+00   8.2019E-04  0.0077
   1.7148E+00   1.7565E+00   8.1971E-04  0.0076
   1.7565E+00   1.7992E+00   8.1531E-04  0.0075
   1.7992E+00   1.8430E+00   7.8386E-04  0.0076
   1.8430E+00   1.8879E+00   7.9352E-04  0.0075
   1.8879E+00   1.9338E+00   7.6480E-04  0.0075
   1.9338E+00   1.9808E+00   7.6282E-04  0.0074
   1.9808E+00   2.0290E+00   7.4952E-04  0.0074
   2.0290E+00   2.0784E+00   7.3667E-04  0.0074
   2.0784E+00   2.1290E+00   7.1295E-04  0.0074
   2.1290E+00   2.1808E+00   7.0142E-04  0.0074
   2.1808E+00   2.2338E+00   6.8750E-04  0.0074
   2.2338E+00   2.2882E+00   6.8083E-04  0.0073
   2.2882E+00   2.3439E+00   6.5219E-04  0.0074
   2.3439E+00   2.4009E+00   6.4259E-04  0.0073
   2.4009E+00   2.4593E+00   6.4161E-04  0.0073
   2.4593E+00   2.5191E+00   6.3440E-04  0.0072
   2.5191E+00   2.5804E+00   6.0962E-04  0.0073
   2.5804E+00   2.6432E+00   6.0501E-04  0.0072
   2.6432E+00   2.7075E+00   5.8531E-04  0.0072
   2.7075E+00   2.7734E+00   5.6952E-04  0.0073
   2.7734E+00   2.8409E+00   5.5008E-04  0.0073
   2.8409E+00   2.9100E+00   5.4557E-04  0.0072
   2.9100E+00   2.9808E+00   5.2848E-04  0.0073
   2.9808E+00   3.0533E+00   5.2448E-04  0.0072
   3.0533E+00   3.1276E+00   5.1527E-04  0.0072
   3.1276E+00   3.2037E+00   4.9541E-04  0.0072
   3.2037E+00   3.2817E+00   4.8408E-04  0.0072
   3.2817E+00   3.3615E+00   4.7623E-04  0.0072
   3.3615E+00   3.4433E+00   4.5121E-04  0.0073
   3.4433E+00   3.5271E+00   4.4779E-04  0.0073
   3.5271E+00   3.6129E+00   4.3615E-04  0.0073
   3.6129E+00   3.7008E+00   4.2522E-04  0.0073
   3.7008E+00   3.7908E+00   4.1164E-04  0.0073
   3.7908E+00   3.8831E+00   3.9496E-04  0.0074
   3.8831E+00   3.9776E+00   3.8296E-04  0.0074
   3.9776E+00   4.0743E+00   3.7711E-04  0.0074
   4.0743E+00   4.1735E+00   3.6065E-04  0.0074
   4.1735E+00   4.2750E+00   3.5781E-04  0.0074
   4.2750E+00   4.3790E+00   3.4162E-04  0.0075
   4.3790E+00   4.4856E+00   3.2896E-04  0.0075
   4.4856E+00   4.5947E+00   3.2533E-04  0.0075
   4.5947E+00   4.7065E+00   3.0670E-04  0.0076
   4.7065E+00   4.8210E+00   2.9729E-04  0.0076
   4.8210E+00   4.9383E+00   2.8450E-04  0.0077
   4.9383E+00   5.0585E+00   2.7033E-04  0.0078
   5.0585E+00   5.1815E+00   2.5972E-04  0.0079
   5.1815E+00   5.3076E+00   2.4924E-04  0.0079
   5.3076E+00   5.4368E+00   2.3976E-04  0.0080
   5.4368E+00   5.5690E+00   2.3137E-04  0.0080
   5.5690E+00   5.7045E+00   2.1988E-04  0.0082
   5.7045E+00   5.8433E+00   2.0870E-04  0.0083
   5.8433E+00   5.9855E+00   2.0344E-04  0.0083
   5.9855E+00   6.1311E+00   1.9261E-04  0.0084
   6.1311E+00   6.2803E+00   1.8312E-04  0.0085
   6.2803E+00   6.4331E+00   1.7316E-04  0.0087
   6.4331E+00   6.5896E+00   1.6717E-04  0.0087
   6.5896E+00   6.7500E+00   1.5832E-04  0.0088
   6.7500E+00   6.9142E+00   1.4795E-04  0.0090
   6.9142E+00   7.0824E+00   1.4303E-04  0.0091
   7.0824E+00   7.2548E+00   1.3352E-04  0.0093
   7.2548E+00   7.4313E+00   1.2379E-04  0.0095
   7.4313E+00   7.6121E+00   1.1653E-04  0.0097
   7.6121E+00   7.7973E+00   1.0954E-04  0.0099
   7.7973E+00   7.9870E+00   1.0614E-04  0.0099
   7.9870E+00   8.1813E+00   9.8334E-05  0.0102
   8.1813E+00   8.3804E+00   9.4124E-05  0.0103
   8.3804E+00   8.5843E+00   8.5749E-05  0.0107
   8.5843E+00   8.7931E+00   8.2880E-05  0.0107
   8.7931E+00   9.0071E+00   7.8687E-05  0.0109
   9.0071E+00   9.2262E+00   7.3995E-05  0.0111
   9.2262E+00   9.4507E+00   6.9110E-05  0.0113
   9.4507E+00   9.6807E+00   6.4369E-05  0.0116
   9.6807E+00   9.9162E+00   6.1083E-05  0.0118
   9.9162E+00   1.0157E+01   5.8209E-05  0.0119
   1.0157E+01   1.0405E+01   5.6519E-05  0.0119
   1.0405E+01   1.0658E+01   5.8700E-05  0.0116
   1.0658E+01   1.0917E+01   5.5422E-05  0.0118
   1.0917E+01   1.1183E+01   5.4984E-05  0.0117
   1.1183E+01   1.1455E+01   5.1234E-05  0.0120
   1.1455E+01   1.1733E+01   4.8173E-05  0.0122
   1.1733E+01   1.2019E+01   4.5243E-05  0.0124
   1.2019E+01   1.2311E+01   4.1600E-05  0.0128
   1.2311E+01   1.2611E+01   3.8954E-05  0.0131
   1.2611E+01   1.2918E+01   3.4753E-05  0.0137
   1.2918E+01   1.3232E+01   3.3767E-05  0.0137
   1.3232E+01   1.3554E+01   3.1824E-05  0.0140
   1.3554E+01   1.3884E+01   3.0509E-05  0.0141
   1.3884E+01   1.4222E+01   2.8650E-05  0.0144
   1.4222E+01   1.4568E+01   2.6222E-05  0.0148
   1.4568E+01   1.4922E+01   2.3403E-05  0.0155
   1.4922E+01   1.5285E+01   2.1916E-05  0.0158
   1.5285E+01   1.5657E+01   2.0156E-05  0.0163
   1.5657E+01   1.6038E+01   1.8567E-05  0.0168
   1.6038E+01   1.6428E+01   1.6463E-05  0.0176
   1.6428E+01   1.6828E+01   1.5409E-05  0.0180
   1.6828E+01   1.7237E+01   1.4323E-05  0.0185
   1.7237E+01   1.7657E+01   1.3068E-05  0.0191
   1.7657E+01   1.8086E+01   1.1733E-05  0.0199
   1.8086E+01   1.8526E+01   1.0810E-05  0.0205
   1.8526E+01   1.8977E+01   1.0002E-05  0.0211
   1.8977E+01   1.9439E+01   9.4894E-06  0.0214
   1.9439E+01   1.9912E+01   8.9570E-06  0.0217
   1.9912E+01   2.0396E+01   7.8457E-06  0.0229
   2.0396E+01   2.0893E+01   7.2502E-06  0.0236
   2.0893E+01   2.1401E+01   6.7711E-06  0.0241
   2.1401E+01   2.1922E+01   6.3146E-06  0.0247
   2.1922E+01   2.2455E+01   5.5346E-06  0.0260
   2.2455E+01   2.3001E+01   5.2274E-06  0.0265
   2.3001E+01   2.3561E+01   4.6816E-06  0.0276
   2.3561E+01   2.4134E+01   4.3366E-06  0.0284
   2.4134E+01   2.4721E+01   3.7840E-06  0.0300
   2.4721E+01   2.5323E+01   3.5944E-06  0.0304
   2.5323E+01   2.5939E+01   2.9150E-06  0.0334
   2.5939E+01   2.6570E+01   2.4813E-06  0.0357
   2.6570E+01   2.7217E+01   2.1934E-06  0.0376
   2.7217E+01   2.7879E+01   2.0477E-06  0.0384
   2.7879E+01   2.8557E+01   1.6335E-06  0.0425
   2.8557E+01   2.9252E+01   1.3039E-06  0.0470
   2.9252E+01   2.9964E+01   1.0791E-06  0.0510
   2.9964E+01   3.0693E+01   9.4096E-07  0.0540
   3.0693E+01   3.1440E+01   7.8470E-07  0.0584
   3.1440E+01   3.2205E+01   7.0331E-07  0.0610
   3.2205E+01   3.2988E+01   5.9472E-07  0.0655
   3.2988E+01   3.3791E+01   5.1332E-07  0.0697
   3.3791E+01   3.4613E+01   4.0625E-07  0.0774
   3.4613E+01   3.5455E+01   3.3723E-07  0.0839
   3.5455E+01   3.6318E+01   2.4807E-07  0.0967
   3.6318E+01   3.7201E+01   2.1049E-07  0.1037
   3.7201E+01   3.8106E+01   2.0107E-07  0.1048
   3.8106E+01   3.9034E+01   2.1571E-07  0.1000
   3.9034E+01   3.9983E+01   1.5162E-07  0.1179
   3.9983E+01   4.0956E+01   9.2514E-08  0.1491
   4.0956E+01   4.1953E+01   1.0637E-07  0.1374
   4.1953E+01   4.2973E+01   7.0537E-08  0.1667
   4.2973E+01   4.4019E+01   5.3559E-08  0.1890
   4.4019E+01   4.5090E+01   8.7767E-08  0.1459
   4.5090E+01   4.6187E+01   6.0160E-08  0.1741
   4.6187E+01   4.7311E+01   2.8476E-08  0.2500
   4.7311E+01   4.8462E+01   3.1274E-08  0.2357
   4.8462E+01   4.9641E+01   1.6962E-08  0.3162
   4.9641E+01   5.0849E+01   1.9871E-08  0.2887
   5.0849E+01   5.2086E+01   1.4549E-08  0.3333
   5.2086E+01   5.3353E+01   1.8938E-08  0.2887
   5.3353E+01   5.4651E+01   2.3110E-08  0.2582
   5.4651E+01   5.5981E+01   1.5041E-09  1.0000
   5.5981E+01   5.7343E+01   4.4051E-09  0.5774
   5.7343E+01   5.8738E+01   4.3004E-09  0.5774
   5.8738E+01   6.0168E+01   2.7989E-09  0.7071
   6.0168E+01   6.1632E+01   1.3662E-09  1.0000
   6.1632E+01   6.3131E+01   2.6675E-09  0.7071
   6.3131E+01   6.4667E+01   1.3021E-09  1.0000
   6.4667E+01   6.6240E+01   0.0000E+00  0.0000
   6.6240E+01   6.7852E+01   0.0000E+00  0.0000
   6.7852E+01   6.9503E+01   0.0000E+00  0.0000
   6.9503E+01   7.1194E+01   0.0000E+00  0.0000
   7.1194E+01   7.2926E+01   0.0000E+00  0.0000
   7.2926E+01   7.4701E+01   0.0000E+00  0.0000
   7.4701E+01   7.6518E+01   0.0000E+00  0.0000
   7.6518E+01   7.8380E+01   0.0000E+00  0.0000
   7.8380E+01   8.0287E+01   0.0000E+00  0.0000
   8.0287E+01   8.2240E+01   0.0000E+00  0.0000
   8.2240E+01   8.4241E+01   0.0000E+00  0.0000
   8.4241E+01   8.6291E+01   0.0000E+00  0.0000
   8.6291E+01   8.8391E+01   0.0000E+00  0.0000
   8.8391E+01   9.0541E+01   0.0000E+00  0.0000
   9.0541E+01   9.2744E+01   0.0000E+00  0.0000
   9.2744E+01   9.5001E+01   0.0000E+00  0.0000
   9.5001E+01   9.7312E+01   0.0000E+00  0.0000
   9.7312E+01   9.9680E+01   0.0000E+00  0.0000
   9.9680E+01   1.0211E+02   0.0000E+00  0.0000
   1.0211E+02   1.0459E+02   0.0000E+00  0.0000
   1.0459E+02   1.0713E+02   0.0000E+00  0.0000
   1.0713E+02   1.0974E+02   0.0000E+00  0.0000
   1.0974E+02   1.1241E+02   0.0000E+00  0.0000
   1.1241E+02   1.1515E+02   0.0000E+00  0.0000
   1.1515E+02   1.1795E+02   0.0000E+00  0.0000
   1.1795E+02   1.2082E+02   0.0000E+00  0.0000
   1.2082E+02   1.2376E+02   0.0000E+00  0.0000
   1.2376E+02   1.2677E+02   0.0000E+00  0.0000
   1.2677E+02   1.2985E+02   0.0000E+00  0.0000
   1.2985E+02   1.3301E+02   0.0000E+00  0.0000
   1.3301E+02   1.3625E+02   0.0000E+00  0.0000
   1.3625E+02   1.3956E+02   0.0000E+00  0.0000
   1.3956E+02   1.4296E+02   0.0000E+00  0.0000
   1.4296E+02   1.4644E+02   0.0000E+00  0.0000
   1.4644E+02   1.5000E+02   0.0000E+00  0.0000

#   sum over                 2.9882E-05
'no. =    1   reg = 118 - 218'
msuc: {\huge [t-cross] in region mesh}
msdr: {\it plotted by \ANGEL \version}
msdl: {\it calculated by \PHITS  3.26}
wt: s(0.7)
\vspace{-3}
  region surface crossing
  area  &=&   1.0000E+00 [cm^2]
e:
 
# Information for Restart Calculation
# This calculation was newly started
# istdev =  2 # 1:Batch variance, 2:History variance
# resc2  = 5.00000000000000000E+08 # Total source weight or Total source weight / maxcas
# resc3  = 5.00000000000000000E+08 # Total history number or Total batch number
# maxcas =   500000000 # History / Batch, only used for istdev=1
# bitrseed = 1101101111010011011000101101110001100110110010110001010100010001 # bit data of rseed
