[ T-Cross ]
    title = [t-cross] in region mesh
     mesh =  reg            # mesh type is region-wise
      reg =    1            # number of crossing regions
      non     r-from    r-to       area
      1       121       221        1.000000    
   e-type =    3            # e-mesh is log given by emin, emax and ne
     emin =  1.0000000E-02  # minimum value of e-mesh points
     emax =   150.0000      # maximum value of e-mesh points
#    edel =  2.4039514E-02  # mesh width of e-mesh points
       ne =    400          # number of e-mesh points
#    data = ( e(i), i = 1, ne + 1 )
#           1.00000E-02  1.02433E-02  1.04925E-02  1.07478E-02  1.10093E-02
#           1.12772E-02  1.15516E-02  1.18326E-02  1.21205E-02  1.24154E-02
#           1.27175E-02  1.30269E-02  1.33439E-02  1.36686E-02  1.40011E-02
#           1.43418E-02  1.46907E-02  1.50482E-02  1.54143E-02  1.57894E-02
#           1.61735E-02  1.65670E-02  1.69701E-02  1.73830E-02  1.78060E-02
#           1.82392E-02  1.86830E-02  1.91375E-02  1.96032E-02  2.00801E-02
#           2.05687E-02  2.10692E-02  2.15818E-02  2.21069E-02  2.26448E-02
#           2.31957E-02  2.37601E-02  2.43382E-02  2.49304E-02  2.55369E-02
#           2.61583E-02  2.67947E-02  2.74467E-02  2.81145E-02  2.87985E-02
#           2.94992E-02  3.02169E-02  3.09521E-02  3.17052E-02  3.24766E-02
#           3.32668E-02  3.40762E-02  3.49053E-02  3.57546E-02  3.66246E-02
#           3.75157E-02  3.84284E-02  3.93634E-02  4.03212E-02  4.13022E-02
#           4.23071E-02  4.33365E-02  4.43909E-02  4.54710E-02  4.65773E-02
#           4.77106E-02  4.88714E-02  5.00605E-02  5.12785E-02  5.25262E-02
#           5.38042E-02  5.51133E-02  5.64542E-02  5.78278E-02  5.92348E-02
#           6.06760E-02  6.21523E-02  6.36645E-02  6.52135E-02  6.68002E-02
#           6.84255E-02  7.00904E-02  7.17957E-02  7.35426E-02  7.53319E-02
#           7.71648E-02  7.90423E-02  8.09655E-02  8.29354E-02  8.49533E-02
#           8.70203E-02  8.91376E-02  9.13064E-02  9.35279E-02  9.58035E-02
#           9.81345E-02  1.00522E-01  1.02968E-01  1.05473E-01  1.08040E-01
#           1.10668E-01  1.13361E-01  1.16119E-01  1.18944E-01  1.21838E-01
#           1.24803E-01  1.27839E-01  1.30950E-01  1.34136E-01  1.37399E-01
#           1.40742E-01  1.44167E-01  1.47675E-01  1.51268E-01  1.54948E-01
#           1.58718E-01  1.62580E-01  1.66535E-01  1.70587E-01  1.74738E-01
#           1.78989E-01  1.83344E-01  1.87805E-01  1.92375E-01  1.97055E-01
#           2.01850E-01  2.06761E-01  2.11792E-01  2.16945E-01  2.22223E-01
#           2.27630E-01  2.33169E-01  2.38842E-01  2.44653E-01  2.50605E-01
#           2.56703E-01  2.62949E-01  2.69346E-01  2.75900E-01  2.82613E-01
#           2.89489E-01  2.96532E-01  3.03747E-01  3.11138E-01  3.18708E-01
#           3.26462E-01  3.34405E-01  3.42542E-01  3.50876E-01  3.59413E-01
#           3.68158E-01  3.77116E-01  3.86291E-01  3.95690E-01  4.05317E-01
#           4.15179E-01  4.25281E-01  4.35628E-01  4.46227E-01  4.57084E-01
#           4.68205E-01  4.79597E-01  4.91266E-01  5.03219E-01  5.15463E-01
#           5.28005E-01  5.40851E-01  5.54011E-01  5.67490E-01  5.81298E-01
#           5.95441E-01  6.09929E-01  6.24769E-01  6.39970E-01  6.55541E-01
#           6.71491E-01  6.87828E-01  7.04564E-01  7.21706E-01  7.39266E-01
#           7.57253E-01  7.75678E-01  7.94551E-01  8.13883E-01  8.33685E-01
#           8.53969E-01  8.74747E-01  8.96030E-01  9.17831E-01  9.40163E-01
#           9.63038E-01  9.86469E-01  1.01047E+00  1.03506E+00  1.06024E+00
#           1.08604E+00  1.11246E+00  1.13953E+00  1.16725E+00  1.19565E+00
#           1.22474E+00  1.25454E+00  1.28507E+00  1.31633E+00  1.34836E+00
#           1.38117E+00  1.41477E+00  1.44920E+00  1.48446E+00  1.52057E+00
#           1.55757E+00  1.59547E+00  1.63429E+00  1.67405E+00  1.71478E+00
#           1.75650E+00  1.79924E+00  1.84302E+00  1.88786E+00  1.93379E+00
#           1.98084E+00  2.02904E+00  2.07841E+00  2.12898E+00  2.18078E+00
#           2.23384E+00  2.28819E+00  2.34386E+00  2.40089E+00  2.45930E+00
#           2.51914E+00  2.58043E+00  2.64322E+00  2.70753E+00  2.77341E+00
#           2.84088E+00  2.91001E+00  2.98081E+00  3.05333E+00  3.12762E+00
#           3.20372E+00  3.28167E+00  3.36152E+00  3.44330E+00  3.52708E+00
#           3.61290E+00  3.70080E+00  3.79085E+00  3.88308E+00  3.97756E+00
#           4.07434E+00  4.17347E+00  4.27501E+00  4.37903E+00  4.48557E+00
#           4.59471E+00  4.70650E+00  4.82102E+00  4.93832E+00  5.05847E+00
#           5.18155E+00  5.30762E+00  5.43676E+00  5.56904E+00  5.70453E+00
#           5.84333E+00  5.98550E+00  6.13114E+00  6.28031E+00  6.43312E+00
#           6.58964E+00  6.74997E+00  6.91420E+00  7.08243E+00  7.25475E+00
#           7.43126E+00  7.61207E+00  7.79728E+00  7.98700E+00  8.18133E+00
#           8.38038E+00  8.58428E+00  8.79315E+00  9.00709E+00  9.22624E+00
#           9.45072E+00  9.68067E+00  9.91620E+00  1.01575E+01  1.04046E+01
#           1.06578E+01  1.09171E+01  1.11827E+01  1.14548E+01  1.17335E+01
#           1.20190E+01  1.23114E+01  1.26109E+01  1.29178E+01  1.32321E+01
#           1.35540E+01  1.38838E+01  1.42216E+01  1.45676E+01  1.49221E+01
#           1.52851E+01  1.56570E+01  1.60380E+01  1.64282E+01  1.68279E+01
#           1.72374E+01  1.76568E+01  1.80864E+01  1.85264E+01  1.89772E+01
#           1.94389E+01  1.99119E+01  2.03963E+01  2.08926E+01  2.14009E+01
#           2.19216E+01  2.24550E+01  2.30014E+01  2.35610E+01  2.41343E+01
#           2.47215E+01  2.53230E+01  2.59391E+01  2.65702E+01  2.72167E+01
#           2.78789E+01  2.85572E+01  2.92520E+01  2.99637E+01  3.06928E+01
#           3.14396E+01  3.22045E+01  3.29881E+01  3.37907E+01  3.46128E+01
#           3.54550E+01  3.63177E+01  3.72013E+01  3.81064E+01  3.90336E+01
#           3.99833E+01  4.09561E+01  4.19526E+01  4.29734E+01  4.40189E+01
#           4.50900E+01  4.61870E+01  4.73108E+01  4.84619E+01  4.96410E+01
#           5.08488E+01  5.20860E+01  5.33533E+01  5.46514E+01  5.59812E+01
#           5.73432E+01  5.87384E+01  6.01676E+01  6.16315E+01  6.31311E+01
#           6.46671E+01  6.62405E+01  6.78522E+01  6.95031E+01  7.11941E+01
#           7.29263E+01  7.47007E+01  7.65182E+01  7.83800E+01  8.02870E+01
#           8.22405E+01  8.42414E+01  8.62911E+01  8.83906E+01  9.05412E+01
#           9.27442E+01  9.50007E+01  9.73122E+01  9.96799E+01  1.02105E+02
#           1.04589E+02  1.07134E+02  1.09741E+02  1.12411E+02  1.15146E+02
#           1.17948E+02  1.20817E+02  1.23757E+02  1.26768E+02  1.29852E+02
#           1.33012E+02  1.36248E+02  1.39563E+02  1.42959E+02  1.46437E+02
#           1.50000E+02
     unit =    2            # unit is [1/cm^2/(MeV/n)/source]
     axis =  eng            # axis of output
     file = detector-22.out  # file name of output for the above axis
   output = f-curr          # surface crossing forward current spectrum
     part =  neutron  
# kf/name :  2112     
#    used :        main (  %)        temp (  %)       total (  %)
#  memory :         414 (  0)           0 (  0)         414 (  0)

#------------------------------------------------------------------------------
#newpage:
#   no. =    1   reg = 121 - 221

x: Energy [MeV/n]
y:  F-Curr [1/cm^2/(MeV/n)/source]         
p: xlog ylog afac(0.8) form(0.9)
h: n            x            y(neutron ),hh0l   n 
#  e-lower      e-upper      neutron     r.err 
   1.0000E-02   1.0243E-02   2.5236E-04  0.0571
   1.0243E-02   1.0493E-02   2.8408E-04  0.0531
   1.0493E-02   1.0748E-02   2.4286E-04  0.0568
   1.0748E-02   1.1009E-02   2.4703E-04  0.0556
   1.1009E-02   1.1277E-02   2.6655E-04  0.0529
   1.1277E-02   1.1552E-02   2.6241E-04  0.0527
   1.1552E-02   1.1833E-02   2.4265E-04  0.0542
   1.1833E-02   1.2121E-02   2.1952E-04  0.0563
   1.2121E-02   1.2415E-02   2.5432E-04  0.0516
   1.2415E-02   1.2718E-02   2.3371E-04  0.0532
   1.2718E-02   1.3027E-02   2.3010E-04  0.0530
   1.3027E-02   1.3344E-02   2.5808E-04  0.0494
   1.3344E-02   1.3669E-02   2.6242E-04  0.0485
   1.3669E-02   1.4001E-02   2.8566E-04  0.0459
   1.4001E-02   1.4342E-02   2.3895E-04  0.0496
   1.4342E-02   1.4691E-02   2.3843E-04  0.0490
   1.4691E-02   1.5048E-02   2.4060E-04  0.0482
   1.5048E-02   1.5414E-02   2.7258E-04  0.0448
   1.5414E-02   1.5789E-02   2.5330E-04  0.0459
   1.5789E-02   1.6174E-02   2.3636E-04  0.0469
   1.6174E-02   1.6567E-02   2.4243E-04  0.0458
   1.6567E-02   1.6970E-02   2.6247E-04  0.0435
   1.6970E-02   1.7383E-02   2.7029E-04  0.0423
   1.7383E-02   1.7806E-02   2.5394E-04  0.0432
   1.7806E-02   1.8239E-02   2.5160E-04  0.0428
   1.8239E-02   1.8683E-02   2.4697E-04  0.0427
   1.8683E-02   1.9138E-02   2.5086E-04  0.0419
   1.9138E-02   1.9603E-02   2.5127E-04  0.0413
   1.9603E-02   2.0080E-02   2.6459E-04  0.0398
   2.0080E-02   2.0569E-02   2.5388E-04  0.0402
   2.0569E-02   2.1069E-02   2.5217E-04  0.0398
   2.1069E-02   2.1582E-02   2.6413E-04  0.0384
   2.1582E-02   2.2107E-02   2.5405E-04  0.0387
   2.2107E-02   2.2645E-02   2.4355E-04  0.0391
   2.2645E-02   2.3196E-02   2.6680E-04  0.0369
   2.3196E-02   2.3760E-02   2.8031E-04  0.0356
   2.3760E-02   2.4338E-02   2.7089E-04  0.0357
   2.4338E-02   2.4930E-02   2.7159E-04  0.0353
   2.4930E-02   2.5537E-02   2.4999E-04  0.0363
   2.5537E-02   2.6158E-02   2.6202E-04  0.0350
   2.6158E-02   2.6795E-02   2.7496E-04  0.0338
   2.6795E-02   2.7447E-02   2.6567E-04  0.0340
   2.7447E-02   2.8114E-02   2.6475E-04  0.0336
   2.8114E-02   2.8799E-02   2.5412E-04  0.0339
   2.8799E-02   2.9499E-02   2.7230E-04  0.0324
   2.9499E-02   3.0217E-02   2.6528E-04  0.0324
   3.0217E-02   3.0952E-02   2.9053E-04  0.0306
   3.0952E-02   3.1705E-02   2.6322E-04  0.0318
   3.1705E-02   3.2477E-02   2.7119E-04  0.0309
   3.2477E-02   3.3267E-02   2.6753E-04  0.0308
   3.3267E-02   3.4076E-02   2.6266E-04  0.0307
   3.4076E-02   3.4905E-02   2.7500E-04  0.0296
   3.4905E-02   3.5755E-02   2.7647E-04  0.0292
   3.5755E-02   3.6625E-02   2.5565E-04  0.0300
   3.6625E-02   3.7516E-02   2.7920E-04  0.0284
   3.7516E-02   3.8428E-02   2.8353E-04  0.0278
   3.8428E-02   3.9363E-02   2.6481E-04  0.0284
   3.9363E-02   4.0321E-02   2.7544E-04  0.0275
   4.0321E-02   4.1302E-02   2.7361E-04  0.0273
   4.1302E-02   4.2307E-02   2.8807E-04  0.0263
   4.2307E-02   4.3337E-02   2.8134E-04  0.0263
   4.3337E-02   4.4391E-02   2.7924E-04  0.0261
   4.4391E-02   4.5471E-02   2.8795E-04  0.0254
   4.5471E-02   4.6577E-02   2.9051E-04  0.0249
   4.6577E-02   4.7711E-02   2.8308E-04  0.0250
   4.7711E-02   4.8871E-02   2.7928E-04  0.0248
   4.8871E-02   5.0061E-02   2.8476E-04  0.0243
   5.0061E-02   5.1279E-02   2.8968E-04  0.0238
   5.1279E-02   5.2526E-02   2.7364E-04  0.0242
   5.2526E-02   5.3804E-02   2.8200E-04  0.0236
   5.3804E-02   5.5113E-02   2.8895E-04  0.0230
   5.5113E-02   5.6454E-02   2.8636E-04  0.0228
   5.6454E-02   5.7828E-02   2.8524E-04  0.0226
   5.7828E-02   5.9235E-02   2.9612E-04  0.0219
   5.9235E-02   6.0676E-02   2.8840E-04  0.0219
   6.0676E-02   6.2152E-02   2.8626E-04  0.0218
   6.2152E-02   6.3665E-02   2.8726E-04  0.0215
   6.3665E-02   6.5214E-02   2.9206E-04  0.0210
   6.5214E-02   6.6800E-02   2.9382E-04  0.0207
   6.6800E-02   6.8426E-02   3.0037E-04  0.0202
   6.8426E-02   7.0090E-02   3.0033E-04  0.0200
   7.0090E-02   7.1796E-02   3.1026E-04  0.0194
   7.1796E-02   7.3543E-02   2.9758E-04  0.0196
   7.3543E-02   7.5332E-02   3.0395E-04  0.0192
   7.5332E-02   7.7165E-02   3.0106E-04  0.0190
   7.7165E-02   7.9042E-02   3.0300E-04  0.0187
   7.9042E-02   8.0965E-02   3.0980E-04  0.0183
   8.0965E-02   8.2935E-02   3.0066E-04  0.0184
   8.2935E-02   8.4953E-02   3.0180E-04  0.0181
   8.4953E-02   8.7020E-02   3.0876E-04  0.0177
   8.7020E-02   8.9138E-02   3.1465E-04  0.0173
   8.9138E-02   9.1306E-02   3.0969E-04  0.0173
   9.1306E-02   9.3528E-02   3.1460E-04  0.0169
   9.3528E-02   9.5804E-02   3.1386E-04  0.0167
   9.5804E-02   9.8134E-02   3.2306E-04  0.0163
   9.8134E-02   1.0052E-01   3.2010E-04  0.0162
   1.0052E-01   1.0297E-01   3.1466E-04  0.0161
   1.0297E-01   1.0547E-01   3.2230E-04  0.0157
   1.0547E-01   1.0804E-01   3.2436E-04  0.0155
   1.0804E-01   1.1067E-01   3.3021E-04  0.0152
   1.1067E-01   1.1336E-01   3.4152E-04  0.0147
   1.1336E-01   1.1612E-01   3.2741E-04  0.0149
   1.1612E-01   1.1894E-01   3.1934E-04  0.0149
   1.1894E-01   1.2184E-01   3.3122E-04  0.0144
   1.2184E-01   1.2480E-01   3.3686E-04  0.0142
   1.2480E-01   1.2784E-01   3.2935E-04  0.0141
   1.2784E-01   1.3095E-01   3.3830E-04  0.0138
   1.3095E-01   1.3414E-01   3.3622E-04  0.0137
   1.3414E-01   1.3740E-01   3.3040E-04  0.0136
   1.3740E-01   1.4074E-01   3.3658E-04  0.0133
   1.4074E-01   1.4417E-01   3.3609E-04  0.0132
   1.4417E-01   1.4767E-01   3.3530E-04  0.0130
   1.4767E-01   1.5127E-01   3.3720E-04  0.0128
   1.5127E-01   1.5495E-01   3.4070E-04  0.0126
   1.5495E-01   1.5872E-01   3.4968E-04  0.0123
   1.5872E-01   1.6258E-01   3.4741E-04  0.0122
   1.6258E-01   1.6654E-01   3.5004E-04  0.0120
   1.6654E-01   1.7059E-01   3.4330E-04  0.0120
   1.7059E-01   1.7474E-01   3.4995E-04  0.0117
   1.7474E-01   1.7899E-01   3.5329E-04  0.0115
   1.7899E-01   1.8334E-01   3.5157E-04  0.0114
   1.8334E-01   1.8781E-01   3.5255E-04  0.0113
   1.8781E-01   1.9237E-01   3.4817E-04  0.0112
   1.9237E-01   1.9706E-01   3.6098E-04  0.0109
   1.9706E-01   2.0185E-01   3.5771E-04  0.0108
   2.0185E-01   2.0676E-01   3.5802E-04  0.0107
   2.0676E-01   2.1179E-01   3.6146E-04  0.0105
   2.1179E-01   2.1694E-01   3.5925E-04  0.0104
   2.1694E-01   2.2222E-01   3.6109E-04  0.0102
   2.2222E-01   2.2763E-01   3.6298E-04  0.0101
   2.2763E-01   2.3317E-01   3.6553E-04  0.0099
   2.3317E-01   2.3884E-01   3.7125E-04  0.0097
   2.3884E-01   2.4465E-01   3.7099E-04  0.0096
   2.4465E-01   2.5061E-01   3.6770E-04  0.0096
   2.5061E-01   2.5670E-01   3.6833E-04  0.0094
   2.5670E-01   2.6295E-01   3.7030E-04  0.0093
   2.6295E-01   2.6935E-01   3.6927E-04  0.0092
   2.6935E-01   2.7590E-01   3.7034E-04  0.0091
   2.7590E-01   2.8261E-01   3.6941E-04  0.0090
   2.8261E-01   2.8949E-01   3.7336E-04  0.0088
   2.8949E-01   2.9653E-01   3.7340E-04  0.0087
   2.9653E-01   3.0375E-01   3.6887E-04  0.0087
   3.0375E-01   3.1114E-01   3.7019E-04  0.0085
   3.1114E-01   3.1871E-01   3.7365E-04  0.0084
   3.1871E-01   3.2646E-01   3.7271E-04  0.0083
   3.2646E-01   3.3441E-01   3.6387E-04  0.0083
   3.3441E-01   3.4254E-01   3.7230E-04  0.0081
   3.4254E-01   3.5088E-01   3.7092E-04  0.0080
   3.5088E-01   3.5941E-01   3.7465E-04  0.0079
   3.5941E-01   3.6816E-01   3.7235E-04  0.0078
   3.6816E-01   3.7712E-01   3.7546E-04  0.0077
   3.7712E-01   3.8629E-01   3.7414E-04  0.0076
   3.8629E-01   3.9569E-01   3.6959E-04  0.0076
   3.9569E-01   4.0532E-01   3.6750E-04  0.0075
   4.0532E-01   4.1518E-01   3.6807E-04  0.0074
   4.1518E-01   4.2528E-01   3.6690E-04  0.0073
   4.2528E-01   4.3563E-01   3.6946E-04  0.0072
   4.3563E-01   4.4623E-01   3.5869E-04  0.0073
   4.4623E-01   4.5708E-01   3.6258E-04  0.0071
   4.5708E-01   4.6821E-01   3.6134E-04  0.0071
   4.6821E-01   4.7960E-01   3.5473E-04  0.0070
   4.7960E-01   4.9127E-01   3.5498E-04  0.0069
   4.9127E-01   5.0322E-01   3.5343E-04  0.0069
   5.0322E-01   5.1546E-01   3.5559E-04  0.0068
   5.1546E-01   5.2800E-01   3.4612E-04  0.0068
   5.2800E-01   5.4085E-01   3.4589E-04  0.0067
   5.4085E-01   5.5401E-01   3.4213E-04  0.0067
   5.5401E-01   5.6749E-01   3.4280E-04  0.0066
   5.6749E-01   5.8130E-01   3.4097E-04  0.0065
   5.8130E-01   5.9544E-01   3.3681E-04  0.0065
   5.9544E-01   6.0993E-01   3.3142E-04  0.0065
   6.0993E-01   6.2477E-01   3.2609E-04  0.0064
   6.2477E-01   6.3997E-01   3.2495E-04  0.0064
   6.3997E-01   6.5554E-01   3.1981E-04  0.0063
   6.5554E-01   6.7149E-01   3.1377E-04  0.0063
   6.7149E-01   6.8783E-01   3.0785E-04  0.0063
   6.8783E-01   7.0456E-01   3.0552E-04  0.0063
   7.0456E-01   7.2171E-01   2.9826E-04  0.0063
   7.2171E-01   7.3927E-01   2.9401E-04  0.0062
   7.3927E-01   7.5725E-01   2.8332E-04  0.0063
   7.5725E-01   7.7568E-01   2.8363E-04  0.0062
   7.7568E-01   7.9455E-01   2.7910E-04  0.0062
   7.9455E-01   8.1388E-01   2.6433E-04  0.0063
   8.1388E-01   8.3368E-01   2.5901E-04  0.0062
   8.3368E-01   8.5397E-01   2.5077E-04  0.0063
   8.5397E-01   8.7475E-01   2.4601E-04  0.0063
   8.7475E-01   8.9603E-01   2.3561E-04  0.0063
   8.9603E-01   9.1783E-01   2.2589E-04  0.0064
   9.1783E-01   9.4016E-01   2.1834E-04  0.0064
   9.4016E-01   9.6304E-01   2.1248E-04  0.0064
   9.6304E-01   9.8647E-01   1.9899E-04  0.0065
   9.8647E-01   1.0105E+00   1.9344E-04  0.0066
   1.0105E+00   1.0351E+00   1.9004E-04  0.0065
   1.0351E+00   1.0602E+00   1.9094E-04  0.0064
   1.0602E+00   1.0860E+00   1.9296E-04  0.0063
   1.0860E+00   1.1125E+00   1.9398E-04  0.0062
   1.1125E+00   1.1395E+00   1.9260E-04  0.0062
   1.1395E+00   1.1673E+00   1.9352E-04  0.0061
   1.1673E+00   1.1957E+00   1.9411E-04  0.0060
   1.1957E+00   1.2247E+00   1.9853E-04  0.0059
   1.2247E+00   1.2545E+00   1.9629E-04  0.0058
   1.2545E+00   1.2851E+00   1.9618E-04  0.0058
   1.2851E+00   1.3163E+00   1.9654E-04  0.0057
   1.3163E+00   1.3484E+00   1.9344E-04  0.0057
   1.3484E+00   1.3812E+00   1.9439E-04  0.0056
   1.3812E+00   1.4148E+00   1.9528E-04  0.0055
   1.4148E+00   1.4492E+00   1.9460E-04  0.0055
   1.4492E+00   1.4845E+00   1.8794E-04  0.0055
   1.4845E+00   1.5206E+00   1.8469E-04  0.0055
   1.5206E+00   1.5576E+00   1.8148E-04  0.0055
   1.5576E+00   1.5955E+00   1.7818E-04  0.0054
   1.5955E+00   1.6343E+00   1.7604E-04  0.0054
   1.6343E+00   1.6741E+00   1.7492E-04  0.0054
   1.6741E+00   1.7148E+00   1.7442E-04  0.0053
   1.7148E+00   1.7565E+00   1.7011E-04  0.0053
   1.7565E+00   1.7992E+00   1.6488E-04  0.0053
   1.7992E+00   1.8430E+00   1.6091E-04  0.0053
   1.8430E+00   1.8879E+00   1.5634E-04  0.0053
   1.8879E+00   1.9338E+00   1.5325E-04  0.0053
   1.9338E+00   1.9808E+00   1.4984E-04  0.0053
   1.9808E+00   2.0290E+00   1.4626E-04  0.0053
   2.0290E+00   2.0784E+00   1.4043E-04  0.0054
   2.0784E+00   2.1290E+00   1.3639E-04  0.0054
   2.1290E+00   2.1808E+00   1.2973E-04  0.0055
   2.1808E+00   2.2338E+00   1.2567E-04  0.0055
   2.2338E+00   2.2882E+00   1.1963E-04  0.0055
   2.2882E+00   2.3439E+00   1.1645E-04  0.0055
   2.3439E+00   2.4009E+00   1.1248E-04  0.0056
   2.4009E+00   2.4593E+00   1.0811E-04  0.0056
   2.4593E+00   2.5191E+00   1.0242E-04  0.0057
   2.5191E+00   2.5804E+00   9.9317E-05  0.0057
   2.5804E+00   2.6432E+00   9.5583E-05  0.0058
   2.6432E+00   2.7075E+00   8.8996E-05  0.0059
   2.7075E+00   2.7734E+00   8.5282E-05  0.0060
   2.7734E+00   2.8409E+00   8.1364E-05  0.0060
   2.8409E+00   2.9100E+00   7.7037E-05  0.0061
   2.9100E+00   2.9808E+00   7.3309E-05  0.0062
   2.9808E+00   3.0533E+00   6.8897E-05  0.0063
   3.0533E+00   3.1276E+00   6.6566E-05  0.0063
   3.1276E+00   3.2037E+00   6.1744E-05  0.0065
   3.2037E+00   3.2817E+00   5.8718E-05  0.0066
   3.2817E+00   3.3615E+00   5.5618E-05  0.0067
   3.3615E+00   3.4433E+00   5.1974E-05  0.0068
   3.4433E+00   3.5271E+00   4.9036E-05  0.0070
   3.5271E+00   3.6129E+00   4.6221E-05  0.0071
   3.6129E+00   3.7008E+00   4.3224E-05  0.0072
   3.7008E+00   3.7908E+00   4.1327E-05  0.0073
   3.7908E+00   3.8831E+00   3.8127E-05  0.0075
   3.8831E+00   3.9776E+00   3.6028E-05  0.0076
   3.9776E+00   4.0743E+00   3.3850E-05  0.0078
   4.0743E+00   4.1735E+00   3.1547E-05  0.0080
   4.1735E+00   4.2750E+00   2.9653E-05  0.0081
   4.2750E+00   4.3790E+00   2.7966E-05  0.0083
   4.3790E+00   4.4856E+00   2.6261E-05  0.0084
   4.4856E+00   4.5947E+00   2.4193E-05  0.0087
   4.5947E+00   4.7065E+00   2.2186E-05  0.0089
   4.7065E+00   4.8210E+00   2.0852E-05  0.0091
   4.8210E+00   4.9383E+00   1.9577E-05  0.0093
   4.9383E+00   5.0585E+00   1.8249E-05  0.0095
   5.0585E+00   5.1815E+00   1.6717E-05  0.0098
   5.1815E+00   5.3076E+00   1.5594E-05  0.0100
   5.3076E+00   5.4368E+00   1.4360E-05  0.0103
   5.4368E+00   5.5690E+00   1.3541E-05  0.0105
   5.5690E+00   5.7045E+00   1.2298E-05  0.0109
   5.7045E+00   5.8433E+00   1.1172E-05  0.0113
   5.8433E+00   5.9855E+00   1.0515E-05  0.0115
   5.9855E+00   6.1311E+00   9.6008E-06  0.0119
   6.1311E+00   6.2803E+00   8.9108E-06  0.0122
   6.2803E+00   6.4331E+00   8.0256E-06  0.0127
   6.4331E+00   6.5896E+00   7.3560E-06  0.0131
   6.5896E+00   6.7500E+00   6.7205E-06  0.0135
   6.7500E+00   6.9142E+00   6.1971E-06  0.0139
   6.9142E+00   7.0824E+00   5.5859E-06  0.0145
   7.0824E+00   7.2548E+00   5.0073E-06  0.0151
   7.2548E+00   7.4313E+00   4.6256E-06  0.0156
   7.4313E+00   7.6121E+00   4.0714E-06  0.0164
   7.6121E+00   7.7973E+00   3.8273E-06  0.0167
   7.7973E+00   7.9870E+00   3.4497E-06  0.0174
   7.9870E+00   8.1813E+00   3.1953E-06  0.0178
   8.1813E+00   8.3804E+00   2.9035E-06  0.0185
   8.3804E+00   8.5843E+00   2.6101E-06  0.0193
   8.5843E+00   8.7931E+00   2.3132E-06  0.0202
   8.7931E+00   9.0071E+00   2.1241E-06  0.0208
   9.0071E+00   9.2262E+00   1.8223E-06  0.0222
   9.2262E+00   9.4507E+00   1.6657E-06  0.0230
   9.4507E+00   9.6807E+00   1.4676E-06  0.0242
   9.6807E+00   9.9162E+00   1.3407E-06  0.0250
   9.9162E+00   1.0157E+01   1.1616E-06  0.0265
   1.0157E+01   1.0405E+01   1.0731E-06  0.0273
   1.0405E+01   1.0658E+01   9.4668E-07  0.0287
   1.0658E+01   1.0917E+01   8.5849E-07  0.0298
   1.0917E+01   1.1183E+01   7.3196E-07  0.0319
   1.1183E+01   1.1455E+01   6.9152E-07  0.0323
   1.1455E+01   1.1733E+01   6.1839E-07  0.0339
   1.1733E+01   1.2019E+01   5.9633E-07  0.0341
   1.2019E+01   1.2311E+01   4.7731E-07  0.0377
   1.2311E+01   1.2611E+01   4.6857E-07  0.0376
   1.2611E+01   1.2918E+01   3.9613E-07  0.0404
   1.2918E+01   1.3232E+01   3.7056E-07  0.0412
   1.3232E+01   1.3554E+01   2.9966E-07  0.0453
   1.3554E+01   1.3884E+01   2.7069E-07  0.0471
   1.3884E+01   1.4222E+01   2.5768E-07  0.0477
   1.4222E+01   1.4568E+01   2.3760E-07  0.0492
   1.4568E+01   1.4922E+01   2.1913E-07  0.0505
   1.4922E+01   1.5285E+01   1.8512E-07  0.0543
   1.5285E+01   1.5657E+01   1.8231E-07  0.0540
   1.5657E+01   1.6038E+01   1.5540E-07  0.0578
   1.6038E+01   1.6428E+01   1.3623E-07  0.0612
   1.6428E+01   1.6828E+01   1.3701E-07  0.0603
   1.6828E+01   1.7237E+01   1.1741E-07  0.0643
   1.7237E+01   1.7657E+01   1.0966E-07  0.0659
   1.7657E+01   1.8086E+01   1.0659E-07  0.0660
   1.8086E+01   1.8526E+01   9.2716E-08  0.0700
   1.8526E+01   1.8977E+01   7.8076E-08  0.0753
   1.8977E+01   1.9439E+01   8.2732E-08  0.0724
   1.9439E+01   1.9912E+01   7.2310E-08  0.0765
   1.9912E+01   2.0396E+01   6.6877E-08  0.0786
   2.0396E+01   2.0893E+01   5.3601E-08  0.0867
   2.0893E+01   2.1401E+01   6.0197E-08  0.0808
   2.1401E+01   2.1922E+01   5.4158E-08  0.0842
   2.1922E+01   2.2455E+01   4.3872E-08  0.0925
   2.2455E+01   2.3001E+01   4.7589E-08  0.0877
   2.3001E+01   2.3561E+01   3.9668E-08  0.0949
   2.3561E+01   2.4134E+01   3.7679E-08  0.0962
   2.4134E+01   2.4721E+01   3.9169E-08  0.0933
   2.4721E+01   2.5323E+01   3.1256E-08  0.1031
   2.5323E+01   2.5939E+01   2.8566E-08  0.1066
   2.5939E+01   2.6570E+01   2.2817E-08  0.1179
   2.6570E+01   2.7217E+01   2.1037E-08  0.1213
   2.7217E+01   2.7879E+01   1.6611E-08  0.1348
   2.7879E+01   2.8557E+01   2.0639E-08  0.1195
   2.8557E+01   2.9252E+01   1.5544E-08  0.1361
   2.9252E+01   2.9964E+01   1.2926E-08  0.1474
   2.9964E+01   3.0693E+01   1.4265E-08  0.1387
   3.0693E+01   3.1440E+01   9.3736E-09  0.1690
   3.1440E+01   3.2205E+01   9.1509E-09  0.1690
   3.2205E+01   3.2988E+01   1.0720E-08  0.1543
   3.2988E+01   3.3791E+01   6.7279E-09  0.1925
   3.3791E+01   3.4613E+01   6.0816E-09  0.2000
   3.4613E+01   3.5455E+01   6.4121E-09  0.1925
   3.5455E+01   3.6318E+01   4.6369E-09  0.2236
   3.6318E+01   3.7201E+01   3.8477E-09  0.2425
   3.7201E+01   3.8106E+01   3.0935E-09  0.2673
   3.8106E+01   3.9034E+01   2.5886E-09  0.2887
   3.9034E+01   3.9983E+01   8.4236E-10  0.5000
   3.9983E+01   4.0956E+01   1.2335E-09  0.4082
   4.0956E+01   4.1953E+01   1.8063E-09  0.3333
   4.1953E+01   4.2973E+01   7.8374E-10  0.5000
   4.2973E+01   4.4019E+01   0.0000E+00  0.0000
   4.4019E+01   4.5090E+01   7.4695E-10  0.5000
   4.5090E+01   4.6187E+01   1.8230E-10  1.0000
   4.6187E+01   4.7311E+01   3.5595E-10  0.7071
   4.7311E+01   4.8462E+01   0.0000E+00  0.0000
   4.8462E+01   4.9641E+01   0.0000E+00  0.0000
   4.9641E+01   5.0849E+01   0.0000E+00  0.0000
   5.0849E+01   5.2086E+01   0.0000E+00  0.0000
   5.2086E+01   5.3353E+01   0.0000E+00  0.0000
   5.3353E+01   5.4651E+01   0.0000E+00  0.0000
   5.4651E+01   5.5981E+01   0.0000E+00  0.0000
   5.5981E+01   5.7343E+01   0.0000E+00  0.0000
   5.7343E+01   5.8738E+01   0.0000E+00  0.0000
   5.8738E+01   6.0168E+01   0.0000E+00  0.0000
   6.0168E+01   6.1632E+01   0.0000E+00  0.0000
   6.1632E+01   6.3131E+01   0.0000E+00  0.0000
   6.3131E+01   6.4667E+01   0.0000E+00  0.0000
   6.4667E+01   6.6240E+01   0.0000E+00  0.0000
   6.6240E+01   6.7852E+01   0.0000E+00  0.0000
   6.7852E+01   6.9503E+01   0.0000E+00  0.0000
   6.9503E+01   7.1194E+01   0.0000E+00  0.0000
   7.1194E+01   7.2926E+01   0.0000E+00  0.0000
   7.2926E+01   7.4701E+01   0.0000E+00  0.0000
   7.4701E+01   7.6518E+01   0.0000E+00  0.0000
   7.6518E+01   7.8380E+01   0.0000E+00  0.0000
   7.8380E+01   8.0287E+01   0.0000E+00  0.0000
   8.0287E+01   8.2240E+01   0.0000E+00  0.0000
   8.2240E+01   8.4241E+01   0.0000E+00  0.0000
   8.4241E+01   8.6291E+01   0.0000E+00  0.0000
   8.6291E+01   8.8391E+01   0.0000E+00  0.0000
   8.8391E+01   9.0541E+01   0.0000E+00  0.0000
   9.0541E+01   9.2744E+01   0.0000E+00  0.0000
   9.2744E+01   9.5001E+01   0.0000E+00  0.0000
   9.5001E+01   9.7312E+01   0.0000E+00  0.0000
   9.7312E+01   9.9680E+01   0.0000E+00  0.0000
   9.9680E+01   1.0211E+02   0.0000E+00  0.0000
   1.0211E+02   1.0459E+02   0.0000E+00  0.0000
   1.0459E+02   1.0713E+02   0.0000E+00  0.0000
   1.0713E+02   1.0974E+02   0.0000E+00  0.0000
   1.0974E+02   1.1241E+02   0.0000E+00  0.0000
   1.1241E+02   1.1515E+02   0.0000E+00  0.0000
   1.1515E+02   1.1795E+02   0.0000E+00  0.0000
   1.1795E+02   1.2082E+02   0.0000E+00  0.0000
   1.2082E+02   1.2376E+02   0.0000E+00  0.0000
   1.2376E+02   1.2677E+02   0.0000E+00  0.0000
   1.2677E+02   1.2985E+02   0.0000E+00  0.0000
   1.2985E+02   1.3301E+02   0.0000E+00  0.0000
   1.3301E+02   1.3625E+02   0.0000E+00  0.0000
   1.3625E+02   1.3956E+02   0.0000E+00  0.0000
   1.3956E+02   1.4296E+02   0.0000E+00  0.0000
   1.4296E+02   1.4644E+02   0.0000E+00  0.0000
   1.4644E+02   1.5000E+02   0.0000E+00  0.0000

#   sum over                 4.6878E-06
'no. =    1   reg = 121 - 221'
msuc: {\huge [t-cross] in region mesh}
msdr: {\it plotted by \ANGEL \version}
msdl: {\it calculated by \PHITS  3.26}
wt: s(0.7)
\vspace{-3}
  region surface crossing
  area  &=&   1.0000E+00 [cm^2]
e:
 
# Information for Restart Calculation
# This calculation was newly started
# istdev =  2 # 1:Batch variance, 2:History variance
# resc2  = 5.00000000000000000E+09 # Total source weight or Total source weight / maxcas
# resc3  = 5.00000000000000000E+09 # Total history number or Total batch number
# maxcas =   100000000 # History / Batch, only used for istdev=1
# bitrseed = 0110100000100010111000001110001111001110100100011111101000111001 # bit data of rseed
