[ T-Cross ]
    title = [t-cross] in region mesh
     mesh =  reg            # mesh type is region-wise
      reg =    1            # number of crossing regions
      non     r-from    r-to       area
      1       125       225        1.000000    
   e-type =    3            # e-mesh is log given by emin, emax and ne
     emin =  1.0000000E-02  # minimum value of e-mesh points
     emax =   150.0000      # maximum value of e-mesh points
#    edel =  2.4039514E-02  # mesh width of e-mesh points
       ne =    400          # number of e-mesh points
#    data = ( e(i), i = 1, ne + 1 )
#           1.00000E-02  1.02433E-02  1.04925E-02  1.07478E-02  1.10093E-02
#           1.12772E-02  1.15516E-02  1.18326E-02  1.21205E-02  1.24154E-02
#           1.27175E-02  1.30269E-02  1.33439E-02  1.36686E-02  1.40011E-02
#           1.43418E-02  1.46907E-02  1.50482E-02  1.54143E-02  1.57894E-02
#           1.61735E-02  1.65670E-02  1.69701E-02  1.73830E-02  1.78060E-02
#           1.82392E-02  1.86830E-02  1.91375E-02  1.96032E-02  2.00801E-02
#           2.05687E-02  2.10692E-02  2.15818E-02  2.21069E-02  2.26448E-02
#           2.31957E-02  2.37601E-02  2.43382E-02  2.49304E-02  2.55369E-02
#           2.61583E-02  2.67947E-02  2.74467E-02  2.81145E-02  2.87985E-02
#           2.94992E-02  3.02169E-02  3.09521E-02  3.17052E-02  3.24766E-02
#           3.32668E-02  3.40762E-02  3.49053E-02  3.57546E-02  3.66246E-02
#           3.75157E-02  3.84284E-02  3.93634E-02  4.03212E-02  4.13022E-02
#           4.23071E-02  4.33365E-02  4.43909E-02  4.54710E-02  4.65773E-02
#           4.77106E-02  4.88714E-02  5.00605E-02  5.12785E-02  5.25262E-02
#           5.38042E-02  5.51133E-02  5.64542E-02  5.78278E-02  5.92348E-02
#           6.06760E-02  6.21523E-02  6.36645E-02  6.52135E-02  6.68002E-02
#           6.84255E-02  7.00904E-02  7.17957E-02  7.35426E-02  7.53319E-02
#           7.71648E-02  7.90423E-02  8.09655E-02  8.29354E-02  8.49533E-02
#           8.70203E-02  8.91376E-02  9.13064E-02  9.35279E-02  9.58035E-02
#           9.81345E-02  1.00522E-01  1.02968E-01  1.05473E-01  1.08040E-01
#           1.10668E-01  1.13361E-01  1.16119E-01  1.18944E-01  1.21838E-01
#           1.24803E-01  1.27839E-01  1.30950E-01  1.34136E-01  1.37399E-01
#           1.40742E-01  1.44167E-01  1.47675E-01  1.51268E-01  1.54948E-01
#           1.58718E-01  1.62580E-01  1.66535E-01  1.70587E-01  1.74738E-01
#           1.78989E-01  1.83344E-01  1.87805E-01  1.92375E-01  1.97055E-01
#           2.01850E-01  2.06761E-01  2.11792E-01  2.16945E-01  2.22223E-01
#           2.27630E-01  2.33169E-01  2.38842E-01  2.44653E-01  2.50605E-01
#           2.56703E-01  2.62949E-01  2.69346E-01  2.75900E-01  2.82613E-01
#           2.89489E-01  2.96532E-01  3.03747E-01  3.11138E-01  3.18708E-01
#           3.26462E-01  3.34405E-01  3.42542E-01  3.50876E-01  3.59413E-01
#           3.68158E-01  3.77116E-01  3.86291E-01  3.95690E-01  4.05317E-01
#           4.15179E-01  4.25281E-01  4.35628E-01  4.46227E-01  4.57084E-01
#           4.68205E-01  4.79597E-01  4.91266E-01  5.03219E-01  5.15463E-01
#           5.28005E-01  5.40851E-01  5.54011E-01  5.67490E-01  5.81298E-01
#           5.95441E-01  6.09929E-01  6.24769E-01  6.39970E-01  6.55541E-01
#           6.71491E-01  6.87828E-01  7.04564E-01  7.21706E-01  7.39266E-01
#           7.57253E-01  7.75678E-01  7.94551E-01  8.13883E-01  8.33685E-01
#           8.53969E-01  8.74747E-01  8.96030E-01  9.17831E-01  9.40163E-01
#           9.63038E-01  9.86469E-01  1.01047E+00  1.03506E+00  1.06024E+00
#           1.08604E+00  1.11246E+00  1.13953E+00  1.16725E+00  1.19565E+00
#           1.22474E+00  1.25454E+00  1.28507E+00  1.31633E+00  1.34836E+00
#           1.38117E+00  1.41477E+00  1.44920E+00  1.48446E+00  1.52057E+00
#           1.55757E+00  1.59547E+00  1.63429E+00  1.67405E+00  1.71478E+00
#           1.75650E+00  1.79924E+00  1.84302E+00  1.88786E+00  1.93379E+00
#           1.98084E+00  2.02904E+00  2.07841E+00  2.12898E+00  2.18078E+00
#           2.23384E+00  2.28819E+00  2.34386E+00  2.40089E+00  2.45930E+00
#           2.51914E+00  2.58043E+00  2.64322E+00  2.70753E+00  2.77341E+00
#           2.84088E+00  2.91001E+00  2.98081E+00  3.05333E+00  3.12762E+00
#           3.20372E+00  3.28167E+00  3.36152E+00  3.44330E+00  3.52708E+00
#           3.61290E+00  3.70080E+00  3.79085E+00  3.88308E+00  3.97756E+00
#           4.07434E+00  4.17347E+00  4.27501E+00  4.37903E+00  4.48557E+00
#           4.59471E+00  4.70650E+00  4.82102E+00  4.93832E+00  5.05847E+00
#           5.18155E+00  5.30762E+00  5.43676E+00  5.56904E+00  5.70453E+00
#           5.84333E+00  5.98550E+00  6.13114E+00  6.28031E+00  6.43312E+00
#           6.58964E+00  6.74997E+00  6.91420E+00  7.08243E+00  7.25475E+00
#           7.43126E+00  7.61207E+00  7.79728E+00  7.98700E+00  8.18133E+00
#           8.38038E+00  8.58428E+00  8.79315E+00  9.00709E+00  9.22624E+00
#           9.45072E+00  9.68067E+00  9.91620E+00  1.01575E+01  1.04046E+01
#           1.06578E+01  1.09171E+01  1.11827E+01  1.14548E+01  1.17335E+01
#           1.20190E+01  1.23114E+01  1.26109E+01  1.29178E+01  1.32321E+01
#           1.35540E+01  1.38838E+01  1.42216E+01  1.45676E+01  1.49221E+01
#           1.52851E+01  1.56570E+01  1.60380E+01  1.64282E+01  1.68279E+01
#           1.72374E+01  1.76568E+01  1.80864E+01  1.85264E+01  1.89772E+01
#           1.94389E+01  1.99119E+01  2.03963E+01  2.08926E+01  2.14009E+01
#           2.19216E+01  2.24550E+01  2.30014E+01  2.35610E+01  2.41343E+01
#           2.47215E+01  2.53230E+01  2.59391E+01  2.65702E+01  2.72167E+01
#           2.78789E+01  2.85572E+01  2.92520E+01  2.99637E+01  3.06928E+01
#           3.14396E+01  3.22045E+01  3.29881E+01  3.37907E+01  3.46128E+01
#           3.54550E+01  3.63177E+01  3.72013E+01  3.81064E+01  3.90336E+01
#           3.99833E+01  4.09561E+01  4.19526E+01  4.29734E+01  4.40189E+01
#           4.50900E+01  4.61870E+01  4.73108E+01  4.84619E+01  4.96410E+01
#           5.08488E+01  5.20860E+01  5.33533E+01  5.46514E+01  5.59812E+01
#           5.73432E+01  5.87384E+01  6.01676E+01  6.16315E+01  6.31311E+01
#           6.46671E+01  6.62405E+01  6.78522E+01  6.95031E+01  7.11941E+01
#           7.29263E+01  7.47007E+01  7.65182E+01  7.83800E+01  8.02870E+01
#           8.22405E+01  8.42414E+01  8.62911E+01  8.83906E+01  9.05412E+01
#           9.27442E+01  9.50007E+01  9.73122E+01  9.96799E+01  1.02105E+02
#           1.04589E+02  1.07134E+02  1.09741E+02  1.12411E+02  1.15146E+02
#           1.17948E+02  1.20817E+02  1.23757E+02  1.26768E+02  1.29852E+02
#           1.33012E+02  1.36248E+02  1.39563E+02  1.42959E+02  1.46437E+02
#           1.50000E+02
     unit =    2            # unit is [1/cm^2/(MeV/n)/source]
     axis =  eng            # axis of output
     file = detector-26.out  # file name of output for the above axis
   output = f-curr          # surface crossing forward current spectrum
     part =  neutron  
# kf/name :  2112     
#    used :        main (  %)        temp (  %)       total (  %)
#  memory :         414 (  0)           0 (  0)         414 (  0)

#------------------------------------------------------------------------------
#newpage:
#   no. =    1   reg = 125 - 225

x: Energy [MeV/n]
y:  F-Curr [1/cm^2/(MeV/n)/source]         
p: xlog ylog afac(0.8) form(0.9)
h: n            x            y(neutron ),hh0l   n 
#  e-lower      e-upper      neutron     r.err 
   1.0000E-02   1.0243E-02   2.2194E-04  0.1925
   1.0243E-02   1.0493E-02   2.1667E-04  0.1925
   1.0493E-02   1.0748E-02   2.1544E-04  0.1898
   1.0748E-02   1.1009E-02   2.0267E-04  0.1933
   1.1009E-02   1.1277E-02   1.6053E-04  0.2144
   1.1277E-02   1.1552E-02   1.8223E-04  0.2000
   1.1552E-02   1.1833E-02   2.5617E-04  0.1667
   1.1833E-02   1.2121E-02   2.3967E-04  0.1696
   1.2121E-02   1.2415E-02   1.9668E-04  0.1857
   1.2415E-02   1.2718E-02   1.8538E-04  0.1890
   1.2718E-02   1.3027E-02   1.9494E-04  0.1817
   1.3027E-02   1.3344E-02   1.3567E-04  0.2144
   1.3344E-02   1.3669E-02   1.8480E-04  0.1826
   1.3669E-02   1.4001E-02   1.7741E-04  0.1833
   1.4001E-02   1.4342E-02   1.8890E-04  0.1759
   1.4342E-02   1.4691E-02   1.8341E-04  0.1768
   1.4691E-02   1.5048E-02   1.3988E-04  0.2000
   1.5048E-02   1.5414E-02   2.4035E-04  0.1508
   1.5414E-02   1.5789E-02   1.9399E-04  0.1651
   1.5789E-02   1.6174E-02   1.5618E-04  0.1826
   1.6174E-02   1.6567E-02   1.6772E-04  0.1741
   1.6567E-02   1.6970E-02   1.5454E-04  0.1788
   1.6970E-02   1.7383E-02   1.3653E-04  0.1879
   1.7383E-02   1.7806E-02   1.5605E-04  0.1741
   1.7806E-02   1.8239E-02   1.6231E-04  0.1683
   1.8239E-02   1.8683E-02   1.4422E-04  0.1768
   1.8683E-02   1.9138E-02   2.0239E-04  0.1474
   1.9138E-02   1.9603E-02   1.9973E-04  0.1463
   1.9603E-02   2.0080E-02   1.2160E-04  0.1857
   2.0080E-02   2.0569E-02   1.5146E-04  0.1644
   2.0569E-02   2.1069E-02   1.7184E-04  0.1525
   2.1069E-02   2.1582E-02   1.6386E-04  0.1543
   2.1582E-02   2.2107E-02   1.3712E-04  0.1667
   2.2107E-02   2.2645E-02   1.8220E-04  0.1429
   2.2645E-02   2.3196E-02   1.6335E-04  0.1491
   2.3196E-02   2.3760E-02   1.8073E-04  0.1400
   2.3760E-02   2.4338E-02   1.1817E-04  0.1708
   2.4338E-02   2.4930E-02   1.4354E-04  0.1529
   2.4930E-02   2.5537E-02   1.7030E-04  0.1386
   2.5537E-02   2.6158E-02   1.2554E-04  0.1601
   2.6158E-02   2.6795E-02   1.6026E-04  0.1400
   2.6795E-02   2.7447E-02   1.1044E-04  0.1667
   2.7447E-02   2.8114E-02   1.4525E-04  0.1432
   2.8114E-02   2.8799E-02   1.5788E-04  0.1361
   2.8799E-02   2.9499E-02   1.0989E-04  0.1606
   2.9499E-02   3.0217E-02   1.1748E-04  0.1538
   3.0217E-02   3.0952E-02   1.4826E-04  0.1351
   3.0952E-02   3.1705E-02   1.0225E-04  0.1606
   3.1705E-02   3.2477E-02   1.0415E-04  0.1575
   3.2477E-02   3.3267E-02   1.1896E-04  0.1459
   3.3267E-02   3.4076E-02   8.1541E-05  0.1741
   3.4076E-02   3.4905E-02   1.0057E-04  0.1541
   3.4905E-02   3.5755E-02   1.1539E-04  0.1429
   3.5755E-02   3.6625E-02   1.0148E-04  0.1503
   3.6625E-02   3.7516E-02   9.0898E-05  0.1566
   3.7516E-02   3.8428E-02   1.6214E-04  0.1162
   3.8428E-02   3.9363E-02   9.4118E-05  0.1508
   3.9363E-02   4.0321E-02   1.0373E-04  0.1413
   4.0321E-02   4.1302E-02   1.1009E-04  0.1361
   4.1302E-02   4.2307E-02   8.7570E-05  0.1508
   4.2307E-02   4.3337E-02   8.5787E-05  0.1503
   4.3337E-02   4.4391E-02   1.0432E-04  0.1348
   4.4391E-02   4.5471E-02   1.1481E-04  0.1270
   4.5471E-02   4.6577E-02   9.8523E-05  0.1351
   4.6577E-02   4.7711E-02   1.0616E-04  0.1288
   4.7711E-02   4.8871E-02   8.9956E-05  0.1382
   4.8871E-02   5.0061E-02   9.2728E-05  0.1345
   5.0061E-02   5.1279E-02   8.0459E-05  0.1429
   5.1279E-02   5.2526E-02   6.8930E-05  0.1525
   5.2526E-02   5.3804E-02   5.9468E-05  0.1622
   5.3804E-02   5.5113E-02   9.0138E-05  0.1302
   5.5113E-02   5.6454E-02   8.3767E-05  0.1333
   5.6454E-02   5.7828E-02   7.2803E-05  0.1414
   5.7828E-02   5.9235E-02   5.6148E-05  0.1586
   5.9235E-02   6.0676E-02   6.5417E-05  0.1455
   6.0676E-02   6.2152E-02   6.8183E-05  0.1406
   6.2152E-02   6.3665E-02   8.0676E-05  0.1280
   6.3665E-02   6.5214E-02   6.3266E-05  0.1429
   6.5214E-02   6.6800E-02   1.0233E-04  0.1109
   6.6800E-02   6.8426E-02   5.7432E-05  0.1458
   6.8426E-02   7.0090E-02   7.6674E-05  0.1247
   7.0090E-02   7.1796E-02   5.6441E-05  0.1440
   7.1796E-02   7.3543E-02   4.8087E-05  0.1543
   7.3543E-02   7.5332E-02   7.3770E-05  0.1231
   7.5332E-02   7.7165E-02   6.9835E-05  0.1250
   7.7165E-02   7.9042E-02   7.0840E-05  0.1224
   7.9042E-02   8.0965E-02   5.5825E-05  0.1360
   8.0965E-02   8.2935E-02   4.9077E-05  0.1434
   8.2935E-02   8.4953E-02   5.6990E-05  0.1316
   8.4953E-02   8.7020E-02   6.1153E-05  0.1256
   8.7020E-02   8.9138E-02   6.4234E-05  0.1213
   8.9138E-02   9.1306E-02   6.2247E-05  0.1215
   9.1306E-02   9.3528E-02   4.6814E-05  0.1387
   9.3528E-02   9.5804E-02   4.5375E-05  0.1387
   9.5804E-02   9.8134E-02   4.9036E-05  0.1321
   9.8134E-02   1.0052E-01   3.9488E-05  0.1455
   1.0052E-01   1.0297E-01   5.3153E-05  0.1240
   1.0297E-01   1.0547E-01   5.1219E-05  0.1247
   1.0547E-01   1.0804E-01   5.3385E-05  0.1206
   1.0804E-01   1.1067E-01   4.3490E-05  0.1321
   1.1067E-01   1.1336E-01   4.5680E-05  0.1273
   1.1336E-01   1.1612E-01   4.0244E-05  0.1339
   1.1612E-01   1.1894E-01   4.5771E-05  0.1240
   1.1894E-01   1.2184E-01   4.4367E-05  0.1247
   1.2184E-01   1.2480E-01   3.7444E-05  0.1339
   1.2480E-01   1.2784E-01   4.3470E-05  0.1226
   1.2784E-01   1.3095E-01   4.0509E-05  0.1260
   1.3095E-01   1.3414E-01   4.2058E-05  0.1222
   1.3414E-01   1.3740E-01   2.9823E-05  0.1428
   1.3740E-01   1.4074E-01   3.2306E-05  0.1361
   1.4074E-01   1.4417E-01   4.0584E-05  0.1196
   1.4417E-01   1.4767E-01   3.1360E-05  0.1348
   1.4767E-01   1.5127E-01   2.8945E-05  0.1387
   1.5127E-01   1.5495E-01   3.2061E-05  0.1302
   1.5495E-01   1.5872E-01   3.3422E-05  0.1260
   1.5872E-01   1.6258E-01   3.3146E-05  0.1250
   1.6258E-01   1.6654E-01   2.4862E-05  0.1424
   1.6654E-01   1.7059E-01   3.4370E-05  0.1191
   1.7059E-01   1.7474E-01   3.1803E-05  0.1231
   1.7474E-01   1.7899E-01   1.9993E-05  0.1529
   1.7899E-01   1.8334E-01   2.6407E-05  0.1310
   1.8334E-01   1.8781E-01   2.0458E-05  0.1474
   1.8781E-01   1.9237E-01   2.8012E-05  0.1250
   1.9237E-01   1.9706E-01   1.7519E-05  0.1562
   1.9706E-01   2.0185E-01   1.9397E-05  0.1463
   2.0185E-01   2.0676E-01   2.6267E-05  0.1243
   2.0676E-01   2.1179E-01   2.1270E-05  0.1364
   2.1179E-01   2.1694E-01   2.3926E-05  0.1270
   2.1694E-01   2.2222E-01   2.7364E-05  0.1175
   2.2222E-01   2.2763E-01   2.4844E-05  0.1219
   2.2763E-01   2.3317E-01   2.6051E-05  0.1172
   2.3317E-01   2.3884E-01   2.4678E-05  0.1195
   2.3884E-01   2.4465E-01   2.5179E-05  0.1168
   2.4465E-01   2.5061E-01   2.1558E-05  0.1247
   2.5061E-01   2.5670E-01   2.4652E-05  0.1152
   2.5670E-01   2.6295E-01   2.2575E-05  0.1189
   2.6295E-01   2.6935E-01   2.1188E-05  0.1210
   2.6935E-01   2.7590E-01   2.3857E-05  0.1130
   2.7590E-01   2.8261E-01   2.3883E-05  0.1116
   2.8261E-01   2.8949E-01   1.9910E-05  0.1201
   2.8949E-01   2.9653E-01   2.5600E-05  0.1052
   2.9653E-01   3.0375E-01   2.2176E-05  0.1115
   3.0375E-01   3.1114E-01   2.4401E-05  0.1052
   3.1114E-01   3.1871E-01   2.5403E-05  0.1019
   3.1871E-01   3.2646E-01   2.2607E-05  0.1066
   3.2646E-01   3.3441E-01   2.2446E-05  0.1058
   3.3441E-01   3.4254E-01   2.1792E-05  0.1060
   3.4254E-01   3.5088E-01   2.5747E-05  0.0964
   3.5088E-01   3.5941E-01   2.1122E-05  0.1049
   3.5941E-01   3.6816E-01   2.1688E-05  0.1021
   3.6816E-01   3.7712E-01   1.7897E-05  0.1116
   3.7712E-01   3.8629E-01   1.9726E-05  0.1050
   3.8629E-01   3.9569E-01   2.4717E-05  0.0927
   3.9569E-01   4.0532E-01   2.3507E-05  0.0937
   4.0532E-01   4.1518E-01   2.3828E-05  0.0917
   4.1518E-01   4.2528E-01   2.1383E-05  0.0960
   4.2528E-01   4.3563E-01   1.8807E-05  0.1010
   4.3563E-01   4.4623E-01   2.1658E-05  0.0927
   4.4623E-01   4.5708E-01   2.0603E-05  0.0943
   4.5708E-01   4.6821E-01   1.8289E-05  0.0986
   4.6821E-01   4.7960E-01   2.0216E-05  0.0931
   4.7960E-01   4.9127E-01   1.8415E-05  0.0963
   4.9127E-01   5.0322E-01   1.7601E-05  0.0971
   5.0322E-01   5.1546E-01   1.9672E-05  0.0908
   5.1546E-01   5.2800E-01   1.7682E-05  0.0946
   5.2800E-01   5.4085E-01   1.9092E-05  0.0902
   5.4085E-01   5.5401E-01   1.7066E-05  0.0940
   5.5401E-01   5.6749E-01   1.6774E-05  0.0935
   5.6749E-01   5.8130E-01   1.7770E-05  0.0893
   5.8130E-01   5.9544E-01   1.8929E-05  0.0860
   5.9544E-01   6.0993E-01   1.5384E-05  0.0944
   6.0993E-01   6.2477E-01   1.7314E-05  0.0881
   6.2477E-01   6.3997E-01   1.7778E-05  0.0855
   6.3997E-01   6.5554E-01   1.6028E-05  0.0889
   6.5554E-01   6.7149E-01   1.6649E-05  0.0862
   6.7149E-01   6.8783E-01   1.5980E-05  0.0868
   6.8783E-01   7.0456E-01   1.7462E-05  0.0822
   7.0456E-01   7.2171E-01   1.4925E-05  0.0880
   7.2171E-01   7.3927E-01   1.6920E-05  0.0815
   7.3927E-01   7.5725E-01   1.4877E-05  0.0859
   7.5725E-01   7.7568E-01   1.5453E-05  0.0832
   7.7568E-01   7.9455E-01   1.6187E-05  0.0805
   7.9455E-01   8.1388E-01   1.4844E-05  0.0828
   8.1388E-01   8.3368E-01   1.3101E-05  0.0870
   8.3368E-01   8.5397E-01   1.4526E-05  0.0820
   8.5397E-01   8.7475E-01   1.4739E-05  0.0805
   8.7475E-01   8.9603E-01   1.5895E-05  0.0766
   8.9603E-01   9.1783E-01   1.3163E-05  0.0827
   9.1783E-01   9.4016E-01   1.4829E-05  0.0773
   9.4016E-01   9.6304E-01   1.5070E-05  0.0755
   9.6304E-01   9.8647E-01   1.2734E-05  0.0811
   9.8647E-01   1.0105E+00   1.3707E-05  0.0775
   1.0105E+00   1.0351E+00   1.3247E-05  0.0779
   1.0351E+00   1.0602E+00   1.4422E-05  0.0738
   1.0602E+00   1.0860E+00   1.5041E-05  0.0716
   1.0860E+00   1.1125E+00   1.2340E-05  0.0777
   1.1125E+00   1.1395E+00   1.2991E-05  0.0748
   1.1395E+00   1.1673E+00   1.3336E-05  0.0731
   1.1673E+00   1.1957E+00   1.4551E-05  0.0691
   1.1957E+00   1.2247E+00   1.3341E-05  0.0712
   1.2247E+00   1.2545E+00   1.4316E-05  0.0679
   1.2545E+00   1.2851E+00   1.3117E-05  0.0702
   1.2851E+00   1.3163E+00   1.2267E-05  0.0717
   1.3163E+00   1.3484E+00   1.4145E-05  0.0660
   1.3484E+00   1.3812E+00   1.3007E-05  0.0680
   1.3812E+00   1.4148E+00   1.3495E-05  0.0662
   1.4148E+00   1.4492E+00   1.2389E-05  0.0680
   1.4492E+00   1.4845E+00   1.4145E-05  0.0630
   1.4845E+00   1.5206E+00   1.3342E-05  0.0639
   1.5206E+00   1.5576E+00   1.3632E-05  0.0625
   1.5576E+00   1.5955E+00   1.1779E-05  0.0666
   1.5955E+00   1.6343E+00   1.3776E-05  0.0608
   1.6343E+00   1.6741E+00   1.3130E-05  0.0615
   1.6741E+00   1.7148E+00   1.4200E-05  0.0585
   1.7148E+00   1.7565E+00   1.2444E-05  0.0617
   1.7565E+00   1.7992E+00   1.2432E-05  0.0611
   1.7992E+00   1.8430E+00   1.3381E-05  0.0581
   1.8430E+00   1.8879E+00   1.1735E-05  0.0612
   1.8879E+00   1.9338E+00   1.2926E-05  0.0577
   1.9338E+00   1.9808E+00   1.1277E-05  0.0610
   1.9808E+00   2.0290E+00   1.2995E-05  0.0563
   2.0290E+00   2.0784E+00   1.2476E-05  0.0568
   2.0784E+00   2.1290E+00   1.0950E-05  0.0599
   2.1290E+00   2.1808E+00   1.0691E-05  0.0598
   2.1808E+00   2.2338E+00   1.1548E-05  0.0568
   2.2338E+00   2.2882E+00   1.3280E-05  0.0524
   2.2882E+00   2.3439E+00   1.0972E-05  0.0570
   2.3439E+00   2.4009E+00   1.0722E-05  0.0570
   2.4009E+00   2.4593E+00   1.1231E-05  0.0549
   2.4593E+00   2.5191E+00   9.6149E-06  0.0587
   2.5191E+00   2.5804E+00   1.0416E-05  0.0558
   2.5804E+00   2.6432E+00   9.6151E-06  0.0573
   2.6432E+00   2.7075E+00   1.0082E-05  0.0554
   2.7075E+00   2.7734E+00   1.0415E-05  0.0538
   2.7734E+00   2.8409E+00   9.8949E-06  0.0545
   2.8409E+00   2.9100E+00   7.4775E-06  0.0620
   2.9100E+00   2.9808E+00   6.0814E-06  0.0679
   2.9808E+00   3.0533E+00   6.7241E-06  0.0638
   3.0533E+00   3.1276E+00   5.7035E-06  0.0684
   3.1276E+00   3.2037E+00   4.8886E-06  0.0729
   3.2037E+00   3.2817E+00   5.4686E-06  0.0680
   3.2817E+00   3.3615E+00   5.2055E-06  0.0689
   3.3615E+00   3.4433E+00   5.0844E-06  0.0692
   3.4433E+00   3.5271E+00   5.1371E-06  0.0679
   3.5271E+00   3.6129E+00   5.1990E-06  0.0667
   3.6129E+00   3.7008E+00   4.4324E-06  0.0715
   3.7008E+00   3.7908E+00   4.9658E-06  0.0665
   3.7908E+00   3.8831E+00   4.7413E-06  0.0672
   3.8831E+00   3.9776E+00   4.7547E-06  0.0665
   3.9776E+00   4.0743E+00   4.0312E-06  0.0713
   4.0743E+00   4.1735E+00   4.3236E-06  0.0681
   4.1735E+00   4.2750E+00   4.1164E-06  0.0690
   4.2750E+00   4.3790E+00   3.9098E-06  0.0699
   4.3790E+00   4.4856E+00   4.0507E-06  0.0678
   4.4856E+00   4.5947E+00   3.5982E-06  0.0712
   4.5947E+00   4.7065E+00   3.4559E-06  0.0716
   4.7065E+00   4.8210E+00   3.2042E-06  0.0738
   4.8210E+00   4.9383E+00   3.0641E-06  0.0743
   4.9383E+00   5.0585E+00   2.8539E-06  0.0760
   5.0585E+00   5.1815E+00   2.5783E-06  0.0792
   5.1815E+00   5.3076E+00   2.6889E-06  0.0767
   5.3076E+00   5.4368E+00   2.9210E-06  0.0726
   5.4368E+00   5.5690E+00   2.5653E-06  0.0766
   5.5690E+00   5.7045E+00   2.1547E-06  0.0825
   5.7045E+00   5.8433E+00   2.2968E-06  0.0791
   5.8433E+00   5.9855E+00   2.4879E-06  0.0750
   5.9855E+00   6.1311E+00   2.2574E-06  0.0777
   6.1311E+00   6.2803E+00   2.3149E-06  0.0760
   6.2803E+00   6.4331E+00   2.0334E-06  0.0802
   6.4331E+00   6.5896E+00   1.6108E-06  0.0888
   6.5896E+00   6.7500E+00   1.8448E-06  0.0820
   6.7500E+00   6.9142E+00   2.0357E-06  0.0773
   6.9142E+00   7.0824E+00   2.2272E-06  0.0730
   7.0824E+00   7.2548E+00   1.7011E-06  0.0825
   7.2548E+00   7.4313E+00   1.6656E-06  0.0825
   7.4313E+00   7.6121E+00   1.2850E-06  0.0927
   7.6121E+00   7.7973E+00   1.9978E-06  0.0735
   7.7973E+00   7.9870E+00   1.5339E-06  0.0828
   7.9870E+00   8.1813E+00   1.6025E-06  0.0800
   8.1813E+00   8.3804E+00   1.4585E-06  0.0830
   8.3804E+00   8.5843E+00   1.6203E-06  0.0778
   8.5843E+00   8.7931E+00   1.4699E-06  0.0806
   8.7931E+00   9.0071E+00   1.4508E-06  0.0802
   9.0071E+00   9.2262E+00   1.5184E-06  0.0775
   9.2262E+00   9.4507E+00   1.4269E-06  0.0790
   9.4507E+00   9.6807E+00   1.3411E-06  0.0805
   9.6807E+00   9.9162E+00   1.2835E-06  0.0813
   9.9162E+00   1.0157E+01   1.4037E-06  0.0768
   1.0157E+01   1.0405E+01   1.3286E-06  0.0780
   1.0405E+01   1.0658E+01   1.6612E-06  0.0689
   1.0658E+01   1.0917E+01   1.6684E-06  0.0679
   1.0917E+01   1.1183E+01   1.3513E-06  0.0746
   1.1183E+01   1.1455E+01   1.6392E-06  0.0670
   1.1455E+01   1.1733E+01   1.4377E-06  0.0704
   1.1733E+01   1.2019E+01   1.1849E-06  0.0769
   1.2019E+01   1.2311E+01   1.3506E-06  0.0711
   1.2311E+01   1.2611E+01   1.1764E-06  0.0753
   1.2611E+01   1.2918E+01   1.2254E-06  0.0728
   1.2918E+01   1.3232E+01   1.1218E-06  0.0753
   1.3232E+01   1.3554E+01   1.0259E-06  0.0778
   1.3554E+01   1.3884E+01   1.0457E-06  0.0761
   1.3884E+01   1.4222E+01   8.4072E-07  0.0839
   1.4222E+01   1.4568E+01   7.9859E-07  0.0850
   1.4568E+01   1.4922E+01   8.0784E-07  0.0835
   1.4922E+01   1.5285E+01   7.1152E-07  0.0879
   1.5285E+01   1.5657E+01   7.2062E-07  0.0864
   1.5657E+01   1.6038E+01   5.8801E-07  0.0945
   1.6038E+01   1.6428E+01   6.7142E-07  0.0874
   1.6428E+01   1.6828E+01   5.5040E-07  0.0953
   1.6828E+01   1.7237E+01   4.3963E-07  0.1054
   1.7237E+01   1.7657E+01   4.4826E-07  0.1031
   1.7657E+01   1.8086E+01   4.0503E-07  0.1072
   1.8086E+01   1.8526E+01   3.1360E-07  0.1204
   1.8526E+01   1.8977E+01   2.3516E-07  0.1374
   1.8977E+01   1.9439E+01   2.2091E-07  0.1400
   1.9439E+01   1.9912E+01   9.7259E-08  0.2085
   1.9912E+01   2.0396E+01   4.9539E-08  0.2887
   2.0396E+01   2.0893E+01   3.6271E-08  0.3333
   2.0893E+01   2.1401E+01   3.9344E-09  1.0000
   2.1401E+01   2.1922E+01   0.0000E+00  0.0000
   2.1922E+01   2.2455E+01   0.0000E+00  0.0000
   2.2455E+01   2.3001E+01   0.0000E+00  0.0000
   2.3001E+01   2.3561E+01   0.0000E+00  0.0000
   2.3561E+01   2.4134E+01   0.0000E+00  0.0000
   2.4134E+01   2.4721E+01   0.0000E+00  0.0000
   2.4721E+01   2.5323E+01   0.0000E+00  0.0000
   2.5323E+01   2.5939E+01   0.0000E+00  0.0000
   2.5939E+01   2.6570E+01   0.0000E+00  0.0000
   2.6570E+01   2.7217E+01   0.0000E+00  0.0000
   2.7217E+01   2.7879E+01   0.0000E+00  0.0000
   2.7879E+01   2.8557E+01   0.0000E+00  0.0000
   2.8557E+01   2.9252E+01   0.0000E+00  0.0000
   2.9252E+01   2.9964E+01   0.0000E+00  0.0000
   2.9964E+01   3.0693E+01   0.0000E+00  0.0000
   3.0693E+01   3.1440E+01   0.0000E+00  0.0000
   3.1440E+01   3.2205E+01   0.0000E+00  0.0000
   3.2205E+01   3.2988E+01   0.0000E+00  0.0000
   3.2988E+01   3.3791E+01   0.0000E+00  0.0000
   3.3791E+01   3.4613E+01   0.0000E+00  0.0000
   3.4613E+01   3.5455E+01   0.0000E+00  0.0000
   3.5455E+01   3.6318E+01   0.0000E+00  0.0000
   3.6318E+01   3.7201E+01   0.0000E+00  0.0000
   3.7201E+01   3.8106E+01   0.0000E+00  0.0000
   3.8106E+01   3.9034E+01   0.0000E+00  0.0000
   3.9034E+01   3.9983E+01   0.0000E+00  0.0000
   3.9983E+01   4.0956E+01   0.0000E+00  0.0000
   4.0956E+01   4.1953E+01   0.0000E+00  0.0000
   4.1953E+01   4.2973E+01   0.0000E+00  0.0000
   4.2973E+01   4.4019E+01   0.0000E+00  0.0000
   4.4019E+01   4.5090E+01   0.0000E+00  0.0000
   4.5090E+01   4.6187E+01   0.0000E+00  0.0000
   4.6187E+01   4.7311E+01   0.0000E+00  0.0000
   4.7311E+01   4.8462E+01   0.0000E+00  0.0000
   4.8462E+01   4.9641E+01   0.0000E+00  0.0000
   4.9641E+01   5.0849E+01   0.0000E+00  0.0000
   5.0849E+01   5.2086E+01   0.0000E+00  0.0000
   5.2086E+01   5.3353E+01   0.0000E+00  0.0000
   5.3353E+01   5.4651E+01   0.0000E+00  0.0000
   5.4651E+01   5.5981E+01   0.0000E+00  0.0000
   5.5981E+01   5.7343E+01   0.0000E+00  0.0000
   5.7343E+01   5.8738E+01   0.0000E+00  0.0000
   5.8738E+01   6.0168E+01   0.0000E+00  0.0000
   6.0168E+01   6.1632E+01   0.0000E+00  0.0000
   6.1632E+01   6.3131E+01   0.0000E+00  0.0000
   6.3131E+01   6.4667E+01   0.0000E+00  0.0000
   6.4667E+01   6.6240E+01   0.0000E+00  0.0000
   6.6240E+01   6.7852E+01   0.0000E+00  0.0000
   6.7852E+01   6.9503E+01   0.0000E+00  0.0000
   6.9503E+01   7.1194E+01   0.0000E+00  0.0000
   7.1194E+01   7.2926E+01   0.0000E+00  0.0000
   7.2926E+01   7.4701E+01   0.0000E+00  0.0000
   7.4701E+01   7.6518E+01   0.0000E+00  0.0000
   7.6518E+01   7.8380E+01   0.0000E+00  0.0000
   7.8380E+01   8.0287E+01   0.0000E+00  0.0000
   8.0287E+01   8.2240E+01   0.0000E+00  0.0000
   8.2240E+01   8.4241E+01   0.0000E+00  0.0000
   8.4241E+01   8.6291E+01   0.0000E+00  0.0000
   8.6291E+01   8.8391E+01   0.0000E+00  0.0000
   8.8391E+01   9.0541E+01   0.0000E+00  0.0000
   9.0541E+01   9.2744E+01   0.0000E+00  0.0000
   9.2744E+01   9.5001E+01   0.0000E+00  0.0000
   9.5001E+01   9.7312E+01   0.0000E+00  0.0000
   9.7312E+01   9.9680E+01   0.0000E+00  0.0000
   9.9680E+01   1.0211E+02   0.0000E+00  0.0000
   1.0211E+02   1.0459E+02   0.0000E+00  0.0000
   1.0459E+02   1.0713E+02   0.0000E+00  0.0000
   1.0713E+02   1.0974E+02   0.0000E+00  0.0000
   1.0974E+02   1.1241E+02   0.0000E+00  0.0000
   1.1241E+02   1.1515E+02   0.0000E+00  0.0000
   1.1515E+02   1.1795E+02   0.0000E+00  0.0000
   1.1795E+02   1.2082E+02   0.0000E+00  0.0000
   1.2082E+02   1.2376E+02   0.0000E+00  0.0000
   1.2376E+02   1.2677E+02   0.0000E+00  0.0000
   1.2677E+02   1.2985E+02   0.0000E+00  0.0000
   1.2985E+02   1.3301E+02   0.0000E+00  0.0000
   1.3301E+02   1.3625E+02   0.0000E+00  0.0000
   1.3625E+02   1.3956E+02   0.0000E+00  0.0000
   1.3956E+02   1.4296E+02   0.0000E+00  0.0000
   1.4296E+02   1.4644E+02   0.0000E+00  0.0000
   1.4644E+02   1.5000E+02   0.0000E+00  0.0000

#   sum over                 5.0583E-07
'no. =    1   reg = 125 - 225'
msuc: {\huge [t-cross] in region mesh}
msdr: {\it plotted by \ANGEL \version}
msdl: {\it calculated by \PHITS  3.26}
wt: s(0.7)
\vspace{-3}
  region surface crossing
  area  &=&   1.0000E+00 [cm^2]
e:
 
# Information for Restart Calculation
# This calculation was newly started
# istdev =  2 # 1:Batch variance, 2:History variance
# resc2  = 5.00000000000000000E+08 # Total source weight or Total source weight / maxcas
# resc3  = 5.00000000000000000E+08 # Total history number or Total batch number
# maxcas =   500000000 # History / Batch, only used for istdev=1
# bitrseed = 1101101111010011011000101101110001100110110010110001010100010001 # bit data of rseed
