[ T-Cross ]
    title = [t-cross] in region mesh
     mesh =  reg            # mesh type is region-wise
      reg =    1            # number of crossing regions
      non     r-from    r-to       area
      1       104       204        1.000000    
   e-type =    3            # e-mesh is log given by emin, emax and ne
     emin =  1.0000000E-02  # minimum value of e-mesh points
     emax =   150.0000      # maximum value of e-mesh points
#    edel =  2.4039514E-02  # mesh width of e-mesh points
       ne =    400          # number of e-mesh points
#    data = ( e(i), i = 1, ne + 1 )
#           1.00000E-02  1.02433E-02  1.04925E-02  1.07478E-02  1.10093E-02
#           1.12772E-02  1.15516E-02  1.18326E-02  1.21205E-02  1.24154E-02
#           1.27175E-02  1.30269E-02  1.33439E-02  1.36686E-02  1.40011E-02
#           1.43418E-02  1.46907E-02  1.50482E-02  1.54143E-02  1.57894E-02
#           1.61735E-02  1.65670E-02  1.69701E-02  1.73830E-02  1.78060E-02
#           1.82392E-02  1.86830E-02  1.91375E-02  1.96032E-02  2.00801E-02
#           2.05687E-02  2.10692E-02  2.15818E-02  2.21069E-02  2.26448E-02
#           2.31957E-02  2.37601E-02  2.43382E-02  2.49304E-02  2.55369E-02
#           2.61583E-02  2.67947E-02  2.74467E-02  2.81145E-02  2.87985E-02
#           2.94992E-02  3.02169E-02  3.09521E-02  3.17052E-02  3.24766E-02
#           3.32668E-02  3.40762E-02  3.49053E-02  3.57546E-02  3.66246E-02
#           3.75157E-02  3.84284E-02  3.93634E-02  4.03212E-02  4.13022E-02
#           4.23071E-02  4.33365E-02  4.43909E-02  4.54710E-02  4.65773E-02
#           4.77106E-02  4.88714E-02  5.00605E-02  5.12785E-02  5.25262E-02
#           5.38042E-02  5.51133E-02  5.64542E-02  5.78278E-02  5.92348E-02
#           6.06760E-02  6.21523E-02  6.36645E-02  6.52135E-02  6.68002E-02
#           6.84255E-02  7.00904E-02  7.17957E-02  7.35426E-02  7.53319E-02
#           7.71648E-02  7.90423E-02  8.09655E-02  8.29354E-02  8.49533E-02
#           8.70203E-02  8.91376E-02  9.13064E-02  9.35279E-02  9.58035E-02
#           9.81345E-02  1.00522E-01  1.02968E-01  1.05473E-01  1.08040E-01
#           1.10668E-01  1.13361E-01  1.16119E-01  1.18944E-01  1.21838E-01
#           1.24803E-01  1.27839E-01  1.30950E-01  1.34136E-01  1.37399E-01
#           1.40742E-01  1.44167E-01  1.47675E-01  1.51268E-01  1.54948E-01
#           1.58718E-01  1.62580E-01  1.66535E-01  1.70587E-01  1.74738E-01
#           1.78989E-01  1.83344E-01  1.87805E-01  1.92375E-01  1.97055E-01
#           2.01850E-01  2.06761E-01  2.11792E-01  2.16945E-01  2.22223E-01
#           2.27630E-01  2.33169E-01  2.38842E-01  2.44653E-01  2.50605E-01
#           2.56703E-01  2.62949E-01  2.69346E-01  2.75900E-01  2.82613E-01
#           2.89489E-01  2.96532E-01  3.03747E-01  3.11138E-01  3.18708E-01
#           3.26462E-01  3.34405E-01  3.42542E-01  3.50876E-01  3.59413E-01
#           3.68158E-01  3.77116E-01  3.86291E-01  3.95690E-01  4.05317E-01
#           4.15179E-01  4.25281E-01  4.35628E-01  4.46227E-01  4.57084E-01
#           4.68205E-01  4.79597E-01  4.91266E-01  5.03219E-01  5.15463E-01
#           5.28005E-01  5.40851E-01  5.54011E-01  5.67490E-01  5.81298E-01
#           5.95441E-01  6.09929E-01  6.24769E-01  6.39970E-01  6.55541E-01
#           6.71491E-01  6.87828E-01  7.04564E-01  7.21706E-01  7.39266E-01
#           7.57253E-01  7.75678E-01  7.94551E-01  8.13883E-01  8.33685E-01
#           8.53969E-01  8.74747E-01  8.96030E-01  9.17831E-01  9.40163E-01
#           9.63038E-01  9.86469E-01  1.01047E+00  1.03506E+00  1.06024E+00
#           1.08604E+00  1.11246E+00  1.13953E+00  1.16725E+00  1.19565E+00
#           1.22474E+00  1.25454E+00  1.28507E+00  1.31633E+00  1.34836E+00
#           1.38117E+00  1.41477E+00  1.44920E+00  1.48446E+00  1.52057E+00
#           1.55757E+00  1.59547E+00  1.63429E+00  1.67405E+00  1.71478E+00
#           1.75650E+00  1.79924E+00  1.84302E+00  1.88786E+00  1.93379E+00
#           1.98084E+00  2.02904E+00  2.07841E+00  2.12898E+00  2.18078E+00
#           2.23384E+00  2.28819E+00  2.34386E+00  2.40089E+00  2.45930E+00
#           2.51914E+00  2.58043E+00  2.64322E+00  2.70753E+00  2.77341E+00
#           2.84088E+00  2.91001E+00  2.98081E+00  3.05333E+00  3.12762E+00
#           3.20372E+00  3.28167E+00  3.36152E+00  3.44330E+00  3.52708E+00
#           3.61290E+00  3.70080E+00  3.79085E+00  3.88308E+00  3.97756E+00
#           4.07434E+00  4.17347E+00  4.27501E+00  4.37903E+00  4.48557E+00
#           4.59471E+00  4.70650E+00  4.82102E+00  4.93832E+00  5.05847E+00
#           5.18155E+00  5.30762E+00  5.43676E+00  5.56904E+00  5.70453E+00
#           5.84333E+00  5.98550E+00  6.13114E+00  6.28031E+00  6.43312E+00
#           6.58964E+00  6.74997E+00  6.91420E+00  7.08243E+00  7.25475E+00
#           7.43126E+00  7.61207E+00  7.79728E+00  7.98700E+00  8.18133E+00
#           8.38038E+00  8.58428E+00  8.79315E+00  9.00709E+00  9.22624E+00
#           9.45072E+00  9.68067E+00  9.91620E+00  1.01575E+01  1.04046E+01
#           1.06578E+01  1.09171E+01  1.11827E+01  1.14548E+01  1.17335E+01
#           1.20190E+01  1.23114E+01  1.26109E+01  1.29178E+01  1.32321E+01
#           1.35540E+01  1.38838E+01  1.42216E+01  1.45676E+01  1.49221E+01
#           1.52851E+01  1.56570E+01  1.60380E+01  1.64282E+01  1.68279E+01
#           1.72374E+01  1.76568E+01  1.80864E+01  1.85264E+01  1.89772E+01
#           1.94389E+01  1.99119E+01  2.03963E+01  2.08926E+01  2.14009E+01
#           2.19216E+01  2.24550E+01  2.30014E+01  2.35610E+01  2.41343E+01
#           2.47215E+01  2.53230E+01  2.59391E+01  2.65702E+01  2.72167E+01
#           2.78789E+01  2.85572E+01  2.92520E+01  2.99637E+01  3.06928E+01
#           3.14396E+01  3.22045E+01  3.29881E+01  3.37907E+01  3.46128E+01
#           3.54550E+01  3.63177E+01  3.72013E+01  3.81064E+01  3.90336E+01
#           3.99833E+01  4.09561E+01  4.19526E+01  4.29734E+01  4.40189E+01
#           4.50900E+01  4.61870E+01  4.73108E+01  4.84619E+01  4.96410E+01
#           5.08488E+01  5.20860E+01  5.33533E+01  5.46514E+01  5.59812E+01
#           5.73432E+01  5.87384E+01  6.01676E+01  6.16315E+01  6.31311E+01
#           6.46671E+01  6.62405E+01  6.78522E+01  6.95031E+01  7.11941E+01
#           7.29263E+01  7.47007E+01  7.65182E+01  7.83800E+01  8.02870E+01
#           8.22405E+01  8.42414E+01  8.62911E+01  8.83906E+01  9.05412E+01
#           9.27442E+01  9.50007E+01  9.73122E+01  9.96799E+01  1.02105E+02
#           1.04589E+02  1.07134E+02  1.09741E+02  1.12411E+02  1.15146E+02
#           1.17948E+02  1.20817E+02  1.23757E+02  1.26768E+02  1.29852E+02
#           1.33012E+02  1.36248E+02  1.39563E+02  1.42959E+02  1.46437E+02
#           1.50000E+02
     unit =    2            # unit is [1/cm^2/(MeV/n)/source]
     axis =  eng            # axis of output
     file = detector-05.out  # file name of output for the above axis
   output = f-curr          # surface crossing forward current spectrum
     part =  neutron  
# kf/name :  2112     
#    used :        main (  %)        temp (  %)       total (  %)
#  memory :         414 (  0)           0 (  0)         414 (  0)

#------------------------------------------------------------------------------
#newpage:
#   no. =    1   reg = 104 - 204

x: Energy [MeV/n]
y:  F-Curr [1/cm^2/(MeV/n)/source]         
p: xlog ylog afac(0.8) form(0.9)
h: n            x            y(neutron ),hh0l   n 
#  e-lower      e-upper      neutron     r.err 
   1.0000E-02   1.0243E-02   1.0028E-03  0.0640
   1.0243E-02   1.0493E-02   9.0680E-04  0.0665
   1.0493E-02   1.0748E-02   1.0184E-03  0.0620
   1.0748E-02   1.1009E-02   1.0401E-03  0.0606
   1.1009E-02   1.1277E-02   1.0117E-03  0.0607
   1.1277E-02   1.1552E-02   1.0350E-03  0.0593
   1.1552E-02   1.1833E-02   9.3930E-04  0.0615
   1.1833E-02   1.2121E-02   1.0281E-03  0.0581
   1.2121E-02   1.2415E-02   1.0410E-03  0.0571
   1.2415E-02   1.2718E-02   9.7988E-04  0.0581
   1.2718E-02   1.3027E-02   1.0503E-03  0.0555
   1.3027E-02   1.3344E-02   1.0222E-03  0.0556
   1.3344E-02   1.3669E-02   1.0965E-03  0.0530
   1.3669E-02   1.4001E-02   1.0254E-03  0.0542
   1.4001E-02   1.4342E-02   1.1243E-03  0.0512
   1.4342E-02   1.4691E-02   9.6003E-04  0.0546
   1.4691E-02   1.5048E-02   9.9038E-04  0.0531
   1.5048E-02   1.5414E-02   1.0597E-03  0.0508
   1.5414E-02   1.5789E-02   9.6789E-04  0.0525
   1.5789E-02   1.6174E-02   1.1219E-03  0.0482
   1.6174E-02   1.6567E-02   9.6566E-04  0.0513
   1.6567E-02   1.6970E-02   1.0519E-03  0.0486
   1.6970E-02   1.7383E-02   1.1165E-03  0.0466
   1.7383E-02   1.7806E-02   1.0261E-03  0.0480
   1.7806E-02   1.8239E-02   1.0479E-03  0.0469
   1.8239E-02   1.8683E-02   1.0794E-03  0.0457
   1.8683E-02   1.9138E-02   1.1197E-03  0.0443
   1.9138E-02   1.9603E-02   1.0974E-03  0.0442
   1.9603E-02   2.0080E-02   1.0651E-03  0.0444
   2.0080E-02   2.0569E-02   1.0909E-03  0.0433
   2.0569E-02   2.1069E-02   1.0371E-03  0.0439
   2.1069E-02   2.1582E-02   1.1392E-03  0.0414
   2.1582E-02   2.2107E-02   1.0303E-03  0.0430
   2.2107E-02   2.2645E-02   1.0188E-03  0.0427
   2.2645E-02   2.3196E-02   1.1199E-03  0.0403
   2.3196E-02   2.3760E-02   1.1003E-03  0.0401
   2.3760E-02   2.4338E-02   1.1174E-03  0.0393
   2.4338E-02   2.4930E-02   1.0656E-03  0.0398
   2.4930E-02   2.5537E-02   1.0716E-03  0.0392
   2.5537E-02   2.6158E-02   1.1234E-03  0.0379
   2.6158E-02   2.6795E-02   1.0731E-03  0.0383
   2.6795E-02   2.7447E-02   1.0737E-03  0.0378
   2.7447E-02   2.8114E-02   1.1620E-03  0.0359
   2.8114E-02   2.8799E-02   1.1008E-03  0.0364
   2.8799E-02   2.9499E-02   1.1703E-03  0.0349
   2.9499E-02   3.0217E-02   1.1411E-03  0.0349
   3.0217E-02   3.0952E-02   1.1235E-03  0.0348
   3.0952E-02   3.1705E-02   1.0862E-03  0.0350
   3.1705E-02   3.2477E-02   1.1589E-03  0.0334
   3.2477E-02   3.3267E-02   1.1061E-03  0.0338
   3.3267E-02   3.4076E-02   1.1515E-03  0.0328
   3.4076E-02   3.4905E-02   1.0903E-03  0.0333
   3.4905E-02   3.5755E-02   1.1810E-03  0.0316
   3.5755E-02   3.6625E-02   1.1346E-03  0.0318
   3.6625E-02   3.7516E-02   1.2243E-03  0.0303
   3.7516E-02   3.8428E-02   1.1591E-03  0.0307
   3.8428E-02   3.9363E-02   1.1401E-03  0.0306
   3.9363E-02   4.0321E-02   1.2028E-03  0.0295
   4.0321E-02   4.1302E-02   1.1977E-03  0.0292
   4.1302E-02   4.2307E-02   1.2339E-03  0.0284
   4.2307E-02   4.3337E-02   1.1026E-03  0.0297
   4.3337E-02   4.4391E-02   1.1827E-03  0.0283
   4.4391E-02   4.5471E-02   1.1610E-03  0.0282
   4.5471E-02   4.6577E-02   1.1660E-03  0.0278
   4.6577E-02   4.7711E-02   1.2151E-03  0.0269
   4.7711E-02   4.8871E-02   1.2077E-03  0.0267
   4.8871E-02   5.0061E-02   1.1976E-03  0.0265
   5.0061E-02   5.1279E-02   1.1642E-03  0.0266
   5.1279E-02   5.2526E-02   1.2031E-03  0.0258
   5.2526E-02   5.3804E-02   1.1831E-03  0.0257
   5.3804E-02   5.5113E-02   1.1680E-03  0.0256
   5.5113E-02   5.6454E-02   1.2678E-03  0.0243
   5.6454E-02   5.7828E-02   1.1845E-03  0.0248
   5.7828E-02   5.9235E-02   1.2054E-03  0.0243
   5.9235E-02   6.0676E-02   1.2545E-03  0.0235
   6.0676E-02   6.2152E-02   1.1339E-03  0.0244
   6.2152E-02   6.3665E-02   1.1619E-03  0.0239
   6.3665E-02   6.5214E-02   1.1911E-03  0.0233
   6.5214E-02   6.6800E-02   1.2561E-03  0.0224
   6.6800E-02   6.8426E-02   1.2225E-03  0.0224
   6.8426E-02   7.0090E-02   1.2007E-03  0.0224
   7.0090E-02   7.1796E-02   1.2109E-03  0.0220
   7.1796E-02   7.3543E-02   1.2296E-03  0.0216
   7.3543E-02   7.5332E-02   1.1703E-03  0.0219
   7.5332E-02   7.7165E-02   1.2145E-03  0.0212
   7.7165E-02   7.9042E-02   1.2101E-03  0.0210
   7.9042E-02   8.0965E-02   1.2105E-03  0.0207
   8.0965E-02   8.2935E-02   1.2295E-03  0.0203
   8.2935E-02   8.4953E-02   1.2132E-03  0.0202
   8.4953E-02   8.7020E-02   1.2061E-03  0.0200
   8.7020E-02   8.9138E-02   1.1822E-03  0.0200
   8.9138E-02   9.1306E-02   1.2426E-03  0.0193
   9.1306E-02   9.3528E-02   1.2190E-03  0.0192
   9.3528E-02   9.5804E-02   1.2537E-03  0.0187
   9.5804E-02   9.8134E-02   1.2137E-03  0.0188
   9.8134E-02   1.0052E-01   1.2439E-03  0.0183
   1.0052E-01   1.0297E-01   1.2401E-03  0.0182
   1.0297E-01   1.0547E-01   1.2406E-03  0.0179
   1.0547E-01   1.0804E-01   1.2341E-03  0.0178
   1.0804E-01   1.1067E-01   1.2314E-03  0.0176
   1.1067E-01   1.1336E-01   1.1851E-03  0.0177
   1.1336E-01   1.1612E-01   1.2128E-03  0.0173
   1.1612E-01   1.1894E-01   1.2278E-03  0.0170
   1.1894E-01   1.2184E-01   1.2270E-03  0.0168
   1.2184E-01   1.2480E-01   1.2208E-03  0.0166
   1.2480E-01   1.2784E-01   1.2198E-03  0.0164
   1.2784E-01   1.3095E-01   1.1796E-03  0.0165
   1.3095E-01   1.3414E-01   1.2005E-03  0.0162
   1.3414E-01   1.3740E-01   1.2026E-03  0.0160
   1.3740E-01   1.4074E-01   1.2261E-03  0.0156
   1.4074E-01   1.4417E-01   1.2023E-03  0.0156
   1.4417E-01   1.4767E-01   1.1620E-03  0.0157
   1.4767E-01   1.5127E-01   1.2029E-03  0.0152
   1.5127E-01   1.5495E-01   1.1808E-03  0.0152
   1.5495E-01   1.5872E-01   1.1671E-03  0.0151
   1.5872E-01   1.6258E-01   1.1728E-03  0.0149
   1.6258E-01   1.6654E-01   1.1816E-03  0.0146
   1.6654E-01   1.7059E-01   1.1552E-03  0.0146
   1.7059E-01   1.7474E-01   1.1700E-03  0.0144
   1.7474E-01   1.7899E-01   1.1913E-03  0.0141
   1.7899E-01   1.8334E-01   1.1417E-03  0.0142
   1.8334E-01   1.8781E-01   1.1650E-03  0.0139
   1.8781E-01   1.9237E-01   1.1529E-03  0.0138
   1.9237E-01   1.9706E-01   1.1475E-03  0.0136
   1.9706E-01   2.0185E-01   1.1347E-03  0.0136
   2.0185E-01   2.0676E-01   1.1467E-03  0.0133
   2.0676E-01   2.1179E-01   1.1422E-03  0.0132
   2.1179E-01   2.1694E-01   1.1191E-03  0.0132
   2.1694E-01   2.2222E-01   1.1153E-03  0.0130
   2.2222E-01   2.2763E-01   1.1232E-03  0.0128
   2.2763E-01   2.3317E-01   1.0929E-03  0.0129
   2.3317E-01   2.3884E-01   1.0860E-03  0.0127
   2.3884E-01   2.4465E-01   1.0884E-03  0.0126
   2.4465E-01   2.5061E-01   1.0878E-03  0.0124
   2.5061E-01   2.5670E-01   1.0650E-03  0.0124
   2.5670E-01   2.6295E-01   1.0823E-03  0.0122
   2.6295E-01   2.6935E-01   1.0691E-03  0.0121
   2.6935E-01   2.7590E-01   1.0501E-03  0.0121
   2.7590E-01   2.8261E-01   1.0496E-03  0.0119
   2.8261E-01   2.8949E-01   1.0339E-03  0.0119
   2.8949E-01   2.9653E-01   1.0291E-03  0.0117
   2.9653E-01   3.0375E-01   1.0394E-03  0.0115
   3.0375E-01   3.1114E-01   1.0351E-03  0.0114
   3.1114E-01   3.1871E-01   9.9997E-04  0.0115
   3.1871E-01   3.2646E-01   9.9711E-04  0.0114
   3.2646E-01   3.3441E-01   9.9382E-04  0.0113
   3.3441E-01   3.4254E-01   9.8115E-04  0.0112
   3.4254E-01   3.5088E-01   9.6817E-04  0.0111
   3.5088E-01   3.5941E-01   9.5050E-04  0.0111
   3.5941E-01   3.6816E-01   9.2844E-04  0.0111
   3.6816E-01   3.7712E-01   9.2838E-04  0.0110
   3.7712E-01   3.8629E-01   9.0861E-04  0.0110
   3.8629E-01   3.9569E-01   8.9618E-04  0.0109
   3.9569E-01   4.0532E-01   8.9889E-04  0.0108
   4.0532E-01   4.1518E-01   8.8798E-04  0.0107
   4.1518E-01   4.2528E-01   8.8050E-04  0.0106
   4.2528E-01   4.3563E-01   8.6698E-04  0.0106
   4.3563E-01   4.4623E-01   8.5507E-04  0.0105
   4.4623E-01   4.5708E-01   8.4130E-04  0.0105
   4.5708E-01   4.6821E-01   8.2486E-04  0.0104
   4.6821E-01   4.7960E-01   8.1322E-04  0.0104
   4.7960E-01   4.9127E-01   7.9617E-04  0.0104
   4.9127E-01   5.0322E-01   7.7613E-04  0.0104
   5.0322E-01   5.1546E-01   7.5100E-04  0.0104
   5.1546E-01   5.2800E-01   7.4026E-04  0.0104
   5.2800E-01   5.4085E-01   7.2944E-04  0.0103
   5.4085E-01   5.5401E-01   7.3294E-04  0.0102
   5.5401E-01   5.6749E-01   7.1575E-04  0.0102
   5.6749E-01   5.8130E-01   7.0368E-04  0.0101
   5.8130E-01   5.9544E-01   6.6922E-04  0.0103
   5.9544E-01   6.0993E-01   6.8469E-04  0.0100
   6.0993E-01   6.2477E-01   6.5984E-04  0.0101
   6.2477E-01   6.3997E-01   6.4120E-04  0.0101
   6.3997E-01   6.5554E-01   6.1846E-04  0.0102
   6.5554E-01   6.7149E-01   6.1211E-04  0.0101
   6.7149E-01   6.8783E-01   6.0191E-04  0.0101
   6.8783E-01   7.0456E-01   5.7328E-04  0.0102
   7.0456E-01   7.2171E-01   5.5639E-04  0.0102
   7.2171E-01   7.3927E-01   5.4380E-04  0.0102
   7.3927E-01   7.5725E-01   5.3519E-04  0.0102
   7.5725E-01   7.7568E-01   5.0628E-04  0.0104
   7.7568E-01   7.9455E-01   4.9780E-04  0.0103
   7.9455E-01   8.1388E-01   4.6705E-04  0.0105
   8.1388E-01   8.3368E-01   4.5888E-04  0.0105
   8.3368E-01   8.5397E-01   4.4261E-04  0.0106
   8.5397E-01   8.7475E-01   4.2156E-04  0.0107
   8.7475E-01   8.9603E-01   3.9999E-04  0.0108
   8.9603E-01   9.1783E-01   3.8374E-04  0.0109
   9.1783E-01   9.4016E-01   3.7803E-04  0.0109
   9.4016E-01   9.6304E-01   3.5873E-04  0.0110
   9.6304E-01   9.8647E-01   3.3822E-04  0.0112
   9.8647E-01   1.0105E+00   3.2106E-04  0.0114
   1.0105E+00   1.0351E+00   3.2202E-04  0.0112
   1.0351E+00   1.0602E+00   3.2779E-04  0.0110
   1.0602E+00   1.0860E+00   3.2497E-04  0.0109
   1.0860E+00   1.1125E+00   3.2637E-04  0.0108
   1.1125E+00   1.1395E+00   3.2940E-04  0.0106
   1.1395E+00   1.1673E+00   3.4106E-04  0.0103
   1.1673E+00   1.1957E+00   3.4503E-04  0.0101
   1.1957E+00   1.2247E+00   3.4973E-04  0.0099
   1.2247E+00   1.2545E+00   3.4105E-04  0.0099
   1.2545E+00   1.2851E+00   3.4769E-04  0.0097
   1.2851E+00   1.3163E+00   3.4897E-04  0.0096
   1.3163E+00   1.3484E+00   3.4861E-04  0.0095
   1.3484E+00   1.3812E+00   3.4008E-04  0.0095
   1.3812E+00   1.4148E+00   3.4956E-04  0.0092
   1.4148E+00   1.4492E+00   3.4567E-04  0.0092
   1.4492E+00   1.4845E+00   3.3993E-04  0.0091
   1.4845E+00   1.5206E+00   3.3795E-04  0.0091
   1.5206E+00   1.5576E+00   3.3162E-04  0.0090
   1.5576E+00   1.5955E+00   3.3071E-04  0.0089
   1.5955E+00   1.6343E+00   3.2935E-04  0.0088
   1.6343E+00   1.6741E+00   3.2713E-04  0.0088
   1.6741E+00   1.7148E+00   3.2801E-04  0.0087
   1.7148E+00   1.7565E+00   3.2391E-04  0.0086
   1.7565E+00   1.7992E+00   3.1911E-04  0.0086
   1.7992E+00   1.8430E+00   3.1270E-04  0.0086
   1.8430E+00   1.8879E+00   2.9985E-04  0.0086
   1.8879E+00   1.9338E+00   3.0137E-04  0.0085
   1.9338E+00   1.9808E+00   2.9203E-04  0.0085
   1.9808E+00   2.0290E+00   2.9146E-04  0.0084
   2.0290E+00   2.0784E+00   2.8129E-04  0.0085
   2.0784E+00   2.1290E+00   2.7137E-04  0.0085
   2.1290E+00   2.1808E+00   2.6794E-04  0.0085
   2.1808E+00   2.2338E+00   2.5875E-04  0.0085
   2.2338E+00   2.2882E+00   2.4894E-04  0.0086
   2.2882E+00   2.3439E+00   2.4260E-04  0.0086
   2.3439E+00   2.4009E+00   2.3645E-04  0.0086
   2.4009E+00   2.4593E+00   2.3228E-04  0.0086
   2.4593E+00   2.5191E+00   2.2162E-04  0.0087
   2.5191E+00   2.5804E+00   2.1332E-04  0.0087
   2.5804E+00   2.6432E+00   2.0666E-04  0.0088
   2.6432E+00   2.7075E+00   1.9566E-04  0.0089
   2.7075E+00   2.7734E+00   1.9089E-04  0.0089
   2.7734E+00   2.8409E+00   1.8317E-04  0.0090
   2.8409E+00   2.9100E+00   1.7682E-04  0.0090
   2.9100E+00   2.9808E+00   1.7131E-04  0.0091
   2.9808E+00   3.0533E+00   1.6514E-04  0.0091
   3.0533E+00   3.1276E+00   1.5741E-04  0.0092
   3.1276E+00   3.2037E+00   1.5221E-04  0.0093
   3.2037E+00   3.2817E+00   1.4043E-04  0.0096
   3.2817E+00   3.3615E+00   1.3759E-04  0.0095
   3.3615E+00   3.4433E+00   1.2988E-04  0.0097
   3.4433E+00   3.5271E+00   1.2212E-04  0.0099
   3.5271E+00   3.6129E+00   1.1699E-04  0.0100
   3.6129E+00   3.7008E+00   1.1184E-04  0.0101
   3.7008E+00   3.7908E+00   1.0638E-04  0.0102
   3.7908E+00   3.8831E+00   9.8608E-05  0.0105
   3.8831E+00   3.9776E+00   9.3693E-05  0.0106
   3.9776E+00   4.0743E+00   9.1127E-05  0.0106
   4.0743E+00   4.1735E+00   8.4075E-05  0.0110
   4.1735E+00   4.2750E+00   7.9611E-05  0.0111
   4.2750E+00   4.3790E+00   7.4701E-05  0.0113
   4.3790E+00   4.4856E+00   7.1463E-05  0.0115
   4.4856E+00   4.5947E+00   6.6357E-05  0.0118
   4.5947E+00   4.7065E+00   6.2678E-05  0.0119
   4.7065E+00   4.8210E+00   5.8954E-05  0.0122
   4.8210E+00   4.9383E+00   5.5746E-05  0.0124
   4.9383E+00   5.0585E+00   5.1701E-05  0.0127
   5.0585E+00   5.1815E+00   4.8417E-05  0.0130
   5.1815E+00   5.3076E+00   4.5474E-05  0.0132
   5.3076E+00   5.4368E+00   4.4108E-05  0.0133
   5.4368E+00   5.5690E+00   4.1624E-05  0.0135
   5.5690E+00   5.7045E+00   3.8849E-05  0.0138
   5.7045E+00   5.8433E+00   3.6449E-05  0.0141
   5.8433E+00   5.9855E+00   3.3832E-05  0.0144
   5.9855E+00   6.1311E+00   3.2273E-05  0.0146
   6.1311E+00   6.2803E+00   3.1064E-05  0.0147
   6.2803E+00   6.4331E+00   2.8585E-05  0.0151
   6.4331E+00   6.5896E+00   2.7938E-05  0.0151
   6.5896E+00   6.7500E+00   2.7153E-05  0.0152
   6.7500E+00   6.9142E+00   2.5452E-05  0.0155
   6.9142E+00   7.0824E+00   2.4045E-05  0.0157
   7.0824E+00   7.2548E+00   2.3442E-05  0.0157
   7.2548E+00   7.4313E+00   2.2270E-05  0.0159
   7.4313E+00   7.6121E+00   2.1899E-05  0.0159
   7.6121E+00   7.7973E+00   2.0372E-05  0.0163
   7.7973E+00   7.9870E+00   2.0302E-05  0.0161
   7.9870E+00   8.1813E+00   1.8952E-05  0.0165
   8.1813E+00   8.3804E+00   1.8500E-05  0.0165
   8.3804E+00   8.5843E+00   1.8259E-05  0.0164
   8.5843E+00   8.7931E+00   1.7847E-05  0.0164
   8.7931E+00   9.0071E+00   1.7294E-05  0.0164
   9.0071E+00   9.2262E+00   1.7207E-05  0.0163
   9.2262E+00   9.4507E+00   1.6828E-05  0.0163
   9.4507E+00   9.6807E+00   1.6321E-05  0.0163
   9.6807E+00   9.9162E+00   1.6201E-05  0.0162
   9.9162E+00   1.0157E+01   1.5655E-05  0.0163
   1.0157E+01   1.0405E+01   1.5995E-05  0.0159
   1.0405E+01   1.0658E+01   1.5593E-05  0.0159
   1.0658E+01   1.0917E+01   1.5919E-05  0.0156
   1.0917E+01   1.1183E+01   1.5767E-05  0.0155
   1.1183E+01   1.1455E+01   1.5304E-05  0.0155
   1.1455E+01   1.1733E+01   1.5095E-05  0.0154
   1.1733E+01   1.2019E+01   1.5356E-05  0.0151
   1.2019E+01   1.2311E+01   1.5250E-05  0.0150
   1.2311E+01   1.2611E+01   1.5163E-05  0.0148
   1.2611E+01   1.2918E+01   1.5241E-05  0.0146
   1.2918E+01   1.3232E+01   1.5248E-05  0.0144
   1.3232E+01   1.3554E+01   1.5468E-05  0.0142
   1.3554E+01   1.3884E+01   1.4981E-05  0.0142
   1.3884E+01   1.4222E+01   1.5619E-05  0.0138
   1.4222E+01   1.4568E+01   1.4986E-05  0.0139
   1.4568E+01   1.4922E+01   1.5117E-05  0.0137
   1.4922E+01   1.5285E+01   1.5150E-05  0.0135
   1.5285E+01   1.5657E+01   1.5274E-05  0.0133
   1.5657E+01   1.6038E+01   1.5457E-05  0.0130
   1.6038E+01   1.6428E+01   1.5498E-05  0.0129
   1.6428E+01   1.6828E+01   1.5516E-05  0.0127
   1.6828E+01   1.7237E+01   1.5303E-05  0.0126
   1.7237E+01   1.7657E+01   1.5587E-05  0.0124
   1.7657E+01   1.8086E+01   1.5701E-05  0.0122
   1.8086E+01   1.8526E+01   1.5322E-05  0.0122
   1.8526E+01   1.8977E+01   1.5559E-05  0.0119
   1.8977E+01   1.9439E+01   1.5919E-05  0.0117
   1.9439E+01   1.9912E+01   1.6048E-05  0.0115
   1.9912E+01   2.0396E+01   1.5889E-05  0.0114
   2.0396E+01   2.0893E+01   1.6002E-05  0.0112
   2.0893E+01   2.1401E+01   1.6389E-05  0.0110
   2.1401E+01   2.1922E+01   1.6405E-05  0.0108
   2.1922E+01   2.2455E+01   1.6675E-05  0.0106
   2.2455E+01   2.3001E+01   1.7139E-05  0.0103
   2.3001E+01   2.3561E+01   1.7109E-05  0.0102
   2.3561E+01   2.4134E+01   1.7549E-05  0.0100
   2.4134E+01   2.4721E+01   1.7893E-05  0.0098
   2.4721E+01   2.5323E+01   1.8142E-05  0.0096
   2.5323E+01   2.5939E+01   1.8465E-05  0.0094
   2.5939E+01   2.6570E+01   1.8974E-05  0.0091
   2.6570E+01   2.7217E+01   1.9781E-05  0.0088
   2.7217E+01   2.7879E+01   1.9929E-05  0.0087
   2.7879E+01   2.8557E+01   2.0921E-05  0.0084
   2.8557E+01   2.9252E+01   2.2011E-05  0.0081
   2.9252E+01   2.9964E+01   2.2923E-05  0.0078
   2.9964E+01   3.0693E+01   2.3749E-05  0.0076
   3.0693E+01   3.1440E+01   2.4718E-05  0.0074
   3.1440E+01   3.2205E+01   2.6206E-05  0.0071
   3.2205E+01   3.2988E+01   2.7112E-05  0.0069
   3.2988E+01   3.3791E+01   2.9015E-05  0.0066
   3.3791E+01   3.4613E+01   3.0813E-05  0.0063
   3.4613E+01   3.5455E+01   3.2797E-05  0.0060
   3.5455E+01   3.6318E+01   3.5267E-05  0.0057
   3.6318E+01   3.7201E+01   3.7346E-05  0.0055
   3.7201E+01   3.8106E+01   3.9965E-05  0.0053
   3.8106E+01   3.9034E+01   4.3028E-05  0.0050
   3.9034E+01   3.9983E+01   4.5569E-05  0.0048
   3.9983E+01   4.0956E+01   4.8079E-05  0.0046
   4.0956E+01   4.1953E+01   5.1050E-05  0.0044
   4.1953E+01   4.2973E+01   5.3359E-05  0.0043
   4.2973E+01   4.4019E+01   5.5951E-05  0.0041
   4.4019E+01   4.5090E+01   5.7485E-05  0.0040
   4.5090E+01   4.6187E+01   5.9543E-05  0.0039
   4.6187E+01   4.7311E+01   6.0694E-05  0.0038
   4.7311E+01   4.8462E+01   6.0549E-05  0.0038
   4.8462E+01   4.9641E+01   6.0888E-05  0.0037
   4.9641E+01   5.0849E+01   5.9707E-05  0.0037
   5.0849E+01   5.2086E+01   5.8415E-05  0.0037
   5.2086E+01   5.3353E+01   5.6617E-05  0.0037
   5.3353E+01   5.4651E+01   5.3643E-05  0.0038
   5.4651E+01   5.5981E+01   5.0557E-05  0.0039
   5.5981E+01   5.7343E+01   4.7258E-05  0.0039
   5.7343E+01   5.8738E+01   4.4029E-05  0.0040
   5.8738E+01   6.0168E+01   4.0270E-05  0.0042
   6.0168E+01   6.1632E+01   3.6651E-05  0.0043
   6.1632E+01   6.3131E+01   3.3167E-05  0.0045
   6.3131E+01   6.4667E+01   2.9645E-05  0.0047
   6.4667E+01   6.6240E+01   2.6516E-05  0.0049
   6.6240E+01   6.7852E+01   2.3601E-05  0.0051
   6.7852E+01   6.9503E+01   2.0853E-05  0.0054
   6.9503E+01   7.1194E+01   1.8632E-05  0.0056
   7.1194E+01   7.2926E+01   1.6516E-05  0.0059
   7.2926E+01   7.4701E+01   1.4665E-05  0.0062
   7.4701E+01   7.6518E+01   1.2899E-05  0.0065
   7.6518E+01   7.8380E+01   1.1353E-05  0.0069
   7.8380E+01   8.0287E+01   1.0139E-05  0.0072
   8.0287E+01   8.2240E+01   8.9411E-06  0.0076
   8.2240E+01   8.4241E+01   7.7832E-06  0.0080
   8.4241E+01   8.6291E+01   6.9036E-06  0.0084
   8.6291E+01   8.8391E+01   6.1547E-06  0.0088
   8.8391E+01   9.0541E+01   5.4538E-06  0.0092
   9.0541E+01   9.2744E+01   4.7691E-06  0.0098
   9.2744E+01   9.5001E+01   4.1382E-06  0.0103
   9.5001E+01   9.7312E+01   3.4260E-06  0.0112
   9.7312E+01   9.9680E+01   2.7200E-06  0.0125
   9.9680E+01   1.0211E+02   2.1338E-06  0.0139
   1.0211E+02   1.0459E+02   1.6113E-06  0.0158
   1.0459E+02   1.0713E+02   1.1632E-06  0.0184
   1.0713E+02   1.0974E+02   7.9911E-07  0.0219
   1.0974E+02   1.1241E+02   4.2845E-07  0.0296
   1.1241E+02   1.1515E+02   1.0859E-07  0.0580
   1.1515E+02   1.1795E+02   0.0000E+00  0.0000
   1.1795E+02   1.2082E+02   0.0000E+00  0.0000
   1.2082E+02   1.2376E+02   0.0000E+00  0.0000
   1.2376E+02   1.2677E+02   0.0000E+00  0.0000
   1.2677E+02   1.2985E+02   0.0000E+00  0.0000
   1.2985E+02   1.3301E+02   0.0000E+00  0.0000
   1.3301E+02   1.3625E+02   0.0000E+00  0.0000
   1.3625E+02   1.3956E+02   0.0000E+00  0.0000
   1.3956E+02   1.4296E+02   0.0000E+00  0.0000
   1.4296E+02   1.4644E+02   0.0000E+00  0.0000
   1.4644E+02   1.5000E+02   0.0000E+00  0.0000

#   sum over                 2.6290E-05
'no. =    1   reg = 104 - 204'
msuc: {\huge [t-cross] in region mesh}
msdr: {\it plotted by \ANGEL \version}
msdl: {\it calculated by \PHITS  3.26}
wt: s(0.7)
\vspace{-3}
  region surface crossing
  area  &=&   1.0000E+00 [cm^2]
e:
 
# Information for Restart Calculation
# This calculation was newly started
# istdev =  2 # 1:Batch variance, 2:History variance
# resc2  = 1.00000000000000000E+09 # Total source weight or Total source weight / maxcas
# resc3  = 1.00000000000000000E+09 # Total history number or Total batch number
# maxcas =   500000000 # History / Batch, only used for istdev=1
# bitrseed = 0001001110011001001001110000100100110111001111011100001000101100 # bit data of rseed
