[ T-Cross ]
    title = [t-cross] in region mesh
     mesh =  reg            # mesh type is region-wise
      reg =    1            # number of crossing regions
      non     r-from    r-to       area
      1       110       210        1.000000    
   e-type =    3            # e-mesh is log given by emin, emax and ne
     emin =  1.0000000E-02  # minimum value of e-mesh points
     emax =   150.0000      # maximum value of e-mesh points
#    edel =  2.4039514E-02  # mesh width of e-mesh points
       ne =    400          # number of e-mesh points
#    data = ( e(i), i = 1, ne + 1 )
#           1.00000E-02  1.02433E-02  1.04925E-02  1.07478E-02  1.10093E-02
#           1.12772E-02  1.15516E-02  1.18326E-02  1.21205E-02  1.24154E-02
#           1.27175E-02  1.30269E-02  1.33439E-02  1.36686E-02  1.40011E-02
#           1.43418E-02  1.46907E-02  1.50482E-02  1.54143E-02  1.57894E-02
#           1.61735E-02  1.65670E-02  1.69701E-02  1.73830E-02  1.78060E-02
#           1.82392E-02  1.86830E-02  1.91375E-02  1.96032E-02  2.00801E-02
#           2.05687E-02  2.10692E-02  2.15818E-02  2.21069E-02  2.26448E-02
#           2.31957E-02  2.37601E-02  2.43382E-02  2.49304E-02  2.55369E-02
#           2.61583E-02  2.67947E-02  2.74467E-02  2.81145E-02  2.87985E-02
#           2.94992E-02  3.02169E-02  3.09521E-02  3.17052E-02  3.24766E-02
#           3.32668E-02  3.40762E-02  3.49053E-02  3.57546E-02  3.66246E-02
#           3.75157E-02  3.84284E-02  3.93634E-02  4.03212E-02  4.13022E-02
#           4.23071E-02  4.33365E-02  4.43909E-02  4.54710E-02  4.65773E-02
#           4.77106E-02  4.88714E-02  5.00605E-02  5.12785E-02  5.25262E-02
#           5.38042E-02  5.51133E-02  5.64542E-02  5.78278E-02  5.92348E-02
#           6.06760E-02  6.21523E-02  6.36645E-02  6.52135E-02  6.68002E-02
#           6.84255E-02  7.00904E-02  7.17957E-02  7.35426E-02  7.53319E-02
#           7.71648E-02  7.90423E-02  8.09655E-02  8.29354E-02  8.49533E-02
#           8.70203E-02  8.91376E-02  9.13064E-02  9.35279E-02  9.58035E-02
#           9.81345E-02  1.00522E-01  1.02968E-01  1.05473E-01  1.08040E-01
#           1.10668E-01  1.13361E-01  1.16119E-01  1.18944E-01  1.21838E-01
#           1.24803E-01  1.27839E-01  1.30950E-01  1.34136E-01  1.37399E-01
#           1.40742E-01  1.44167E-01  1.47675E-01  1.51268E-01  1.54948E-01
#           1.58718E-01  1.62580E-01  1.66535E-01  1.70587E-01  1.74738E-01
#           1.78989E-01  1.83344E-01  1.87805E-01  1.92375E-01  1.97055E-01
#           2.01850E-01  2.06761E-01  2.11792E-01  2.16945E-01  2.22223E-01
#           2.27630E-01  2.33169E-01  2.38842E-01  2.44653E-01  2.50605E-01
#           2.56703E-01  2.62949E-01  2.69346E-01  2.75900E-01  2.82613E-01
#           2.89489E-01  2.96532E-01  3.03747E-01  3.11138E-01  3.18708E-01
#           3.26462E-01  3.34405E-01  3.42542E-01  3.50876E-01  3.59413E-01
#           3.68158E-01  3.77116E-01  3.86291E-01  3.95690E-01  4.05317E-01
#           4.15179E-01  4.25281E-01  4.35628E-01  4.46227E-01  4.57084E-01
#           4.68205E-01  4.79597E-01  4.91266E-01  5.03219E-01  5.15463E-01
#           5.28005E-01  5.40851E-01  5.54011E-01  5.67490E-01  5.81298E-01
#           5.95441E-01  6.09929E-01  6.24769E-01  6.39970E-01  6.55541E-01
#           6.71491E-01  6.87828E-01  7.04564E-01  7.21706E-01  7.39266E-01
#           7.57253E-01  7.75678E-01  7.94551E-01  8.13883E-01  8.33685E-01
#           8.53969E-01  8.74747E-01  8.96030E-01  9.17831E-01  9.40163E-01
#           9.63038E-01  9.86469E-01  1.01047E+00  1.03506E+00  1.06024E+00
#           1.08604E+00  1.11246E+00  1.13953E+00  1.16725E+00  1.19565E+00
#           1.22474E+00  1.25454E+00  1.28507E+00  1.31633E+00  1.34836E+00
#           1.38117E+00  1.41477E+00  1.44920E+00  1.48446E+00  1.52057E+00
#           1.55757E+00  1.59547E+00  1.63429E+00  1.67405E+00  1.71478E+00
#           1.75650E+00  1.79924E+00  1.84302E+00  1.88786E+00  1.93379E+00
#           1.98084E+00  2.02904E+00  2.07841E+00  2.12898E+00  2.18078E+00
#           2.23384E+00  2.28819E+00  2.34386E+00  2.40089E+00  2.45930E+00
#           2.51914E+00  2.58043E+00  2.64322E+00  2.70753E+00  2.77341E+00
#           2.84088E+00  2.91001E+00  2.98081E+00  3.05333E+00  3.12762E+00
#           3.20372E+00  3.28167E+00  3.36152E+00  3.44330E+00  3.52708E+00
#           3.61290E+00  3.70080E+00  3.79085E+00  3.88308E+00  3.97756E+00
#           4.07434E+00  4.17347E+00  4.27501E+00  4.37903E+00  4.48557E+00
#           4.59471E+00  4.70650E+00  4.82102E+00  4.93832E+00  5.05847E+00
#           5.18155E+00  5.30762E+00  5.43676E+00  5.56904E+00  5.70453E+00
#           5.84333E+00  5.98550E+00  6.13114E+00  6.28031E+00  6.43312E+00
#           6.58964E+00  6.74997E+00  6.91420E+00  7.08243E+00  7.25475E+00
#           7.43126E+00  7.61207E+00  7.79728E+00  7.98700E+00  8.18133E+00
#           8.38038E+00  8.58428E+00  8.79315E+00  9.00709E+00  9.22624E+00
#           9.45072E+00  9.68067E+00  9.91620E+00  1.01575E+01  1.04046E+01
#           1.06578E+01  1.09171E+01  1.11827E+01  1.14548E+01  1.17335E+01
#           1.20190E+01  1.23114E+01  1.26109E+01  1.29178E+01  1.32321E+01
#           1.35540E+01  1.38838E+01  1.42216E+01  1.45676E+01  1.49221E+01
#           1.52851E+01  1.56570E+01  1.60380E+01  1.64282E+01  1.68279E+01
#           1.72374E+01  1.76568E+01  1.80864E+01  1.85264E+01  1.89772E+01
#           1.94389E+01  1.99119E+01  2.03963E+01  2.08926E+01  2.14009E+01
#           2.19216E+01  2.24550E+01  2.30014E+01  2.35610E+01  2.41343E+01
#           2.47215E+01  2.53230E+01  2.59391E+01  2.65702E+01  2.72167E+01
#           2.78789E+01  2.85572E+01  2.92520E+01  2.99637E+01  3.06928E+01
#           3.14396E+01  3.22045E+01  3.29881E+01  3.37907E+01  3.46128E+01
#           3.54550E+01  3.63177E+01  3.72013E+01  3.81064E+01  3.90336E+01
#           3.99833E+01  4.09561E+01  4.19526E+01  4.29734E+01  4.40189E+01
#           4.50900E+01  4.61870E+01  4.73108E+01  4.84619E+01  4.96410E+01
#           5.08488E+01  5.20860E+01  5.33533E+01  5.46514E+01  5.59812E+01
#           5.73432E+01  5.87384E+01  6.01676E+01  6.16315E+01  6.31311E+01
#           6.46671E+01  6.62405E+01  6.78522E+01  6.95031E+01  7.11941E+01
#           7.29263E+01  7.47007E+01  7.65182E+01  7.83800E+01  8.02870E+01
#           8.22405E+01  8.42414E+01  8.62911E+01  8.83906E+01  9.05412E+01
#           9.27442E+01  9.50007E+01  9.73122E+01  9.96799E+01  1.02105E+02
#           1.04589E+02  1.07134E+02  1.09741E+02  1.12411E+02  1.15146E+02
#           1.17948E+02  1.20817E+02  1.23757E+02  1.26768E+02  1.29852E+02
#           1.33012E+02  1.36248E+02  1.39563E+02  1.42959E+02  1.46437E+02
#           1.50000E+02
     unit =    2            # unit is [1/cm^2/(MeV/n)/source]
     axis =  eng            # axis of output
     file = detector-11.out  # file name of output for the above axis
   output = f-curr          # surface crossing forward current spectrum
     part =  neutron  
# kf/name :  2112     
#    used :        main (  %)        temp (  %)       total (  %)
#  memory :         414 (  0)           0 (  0)         414 (  0)

#------------------------------------------------------------------------------
#newpage:
#   no. =    1   reg = 110 - 210

x: Energy [MeV/n]
y:  F-Curr [1/cm^2/(MeV/n)/source]         
p: xlog ylog afac(0.8) form(0.9)
h: n            x            y(neutron ),hh0l   n 
#  e-lower      e-upper      neutron     r.err 
   1.0000E-02   1.0243E-02   6.0006E-05  0.1170
   1.0243E-02   1.0493E-02   5.3766E-05  0.1222
   1.0493E-02   1.0748E-02   5.5623E-05  0.1187
   1.0748E-02   1.1009E-02   7.6481E-05  0.1000
   1.1009E-02   1.1277E-02   4.8532E-05  0.1240
   1.1277E-02   1.1552E-02   5.9770E-05  0.1104
   1.1552E-02   1.1833E-02   5.1946E-05  0.1170
   1.1833E-02   1.2121E-02   6.9469E-05  0.1000
   1.2121E-02   1.2415E-02   5.1543E-05  0.1147
   1.2415E-02   1.2718E-02   6.5546E-05  0.1005
   1.2718E-02   1.3027E-02   7.3038E-05  0.0941
   1.3027E-02   1.3344E-02   5.3635E-05  0.1085
   1.3344E-02   1.3669E-02   6.7146E-05  0.0958
   1.3669E-02   1.4001E-02   6.5551E-05  0.0958
   1.4001E-02   1.4342E-02   6.5168E-05  0.0949
   1.4342E-02   1.4691E-02   5.2730E-05  0.1043
   1.4691E-02   1.5048E-02   5.7632E-05  0.0985
   1.5048E-02   1.5414E-02   5.1347E-05  0.1031
   1.5414E-02   1.5789E-02   7.0392E-05  0.0870
   1.5789E-02   1.6174E-02   5.7267E-05  0.0953
   1.6174E-02   1.6567E-02   6.7088E-05  0.0870
   1.6567E-02   1.6970E-02   5.7556E-05  0.0928
   1.6970E-02   1.7383E-02   5.9095E-05  0.0905
   1.7383E-02   1.7806E-02   5.8164E-05  0.0902
   1.7806E-02   1.8239E-02   6.2784E-05  0.0857
   1.8239E-02   1.8683E-02   6.0842E-05  0.0861
   1.8683E-02   1.9138E-02   6.1156E-05  0.0848
   1.9138E-02   1.9603E-02   5.6697E-05  0.0870
   1.9603E-02   2.0080E-02   5.9544E-05  0.0839
   2.0080E-02   2.0569E-02   6.5498E-05  0.0791
   2.0569E-02   2.1069E-02   5.6749E-05  0.0839
   2.1069E-02   2.1582E-02   6.4374E-05  0.0778
   2.1582E-02   2.2107E-02   6.2845E-05  0.0778
   2.2107E-02   2.2645E-02   6.3583E-05  0.0765
   2.2645E-02   2.3196E-02   6.3888E-05  0.0754
   2.3196E-02   2.3760E-02   6.2016E-05  0.0756
   2.3760E-02   2.4338E-02   6.4694E-05  0.0731
   2.4338E-02   2.4930E-02   5.6065E-05  0.0776
   2.4930E-02   2.5537E-02   5.6382E-05  0.0765
   2.5537E-02   2.6158E-02   6.1803E-05  0.0722
   2.6158E-02   2.6795E-02   5.4992E-05  0.0756
   2.6795E-02   2.7447E-02   6.0435E-05  0.0712
   2.7447E-02   2.8114E-02   5.9898E-05  0.0707
   2.8114E-02   2.8799E-02   6.7247E-05  0.0659
   2.8799E-02   2.9499E-02   6.5364E-05  0.0661
   2.9499E-02   3.0217E-02   6.1304E-05  0.0674
   3.0217E-02   3.0952E-02   6.0120E-05  0.0673
   3.0952E-02   3.1705E-02   6.6924E-05  0.0630
   3.1705E-02   3.2477E-02   5.8853E-05  0.0664
   3.2477E-02   3.3267E-02   6.1252E-05  0.0643
   3.3267E-02   3.4076E-02   5.5102E-05  0.0670
   3.4076E-02   3.4905E-02   5.4758E-05  0.0664
   3.4905E-02   3.5755E-02   5.9580E-05  0.0629
   3.5755E-02   3.6625E-02   5.3337E-05  0.0657
   3.6625E-02   3.7516E-02   5.8130E-05  0.0621
   3.7516E-02   3.8428E-02   6.2446E-05  0.0592
   3.8428E-02   3.9363E-02   5.8610E-05  0.0604
   3.9363E-02   4.0321E-02   5.6591E-05  0.0607
   4.0321E-02   4.1302E-02   5.1578E-05  0.0629
   4.1302E-02   4.2307E-02   6.4881E-05  0.0554
   4.2307E-02   4.3337E-02   5.8094E-05  0.0578
   4.3337E-02   4.4391E-02   5.8232E-05  0.0571
   4.4391E-02   4.5471E-02   5.9441E-05  0.0558
   4.5471E-02   4.6577E-02   5.6944E-05  0.0563
   4.6577E-02   4.7711E-02   5.5415E-05  0.0564
   4.7711E-02   4.8871E-02   5.7717E-05  0.0546
   4.8871E-02   5.0061E-02   5.6346E-05  0.0546
   5.0061E-02   5.1279E-02   6.3546E-05  0.0508
   5.1279E-02   5.2526E-02   5.8510E-05  0.0523
   5.2526E-02   5.3804E-02   6.2911E-05  0.0499
   5.3804E-02   5.5113E-02   6.2180E-05  0.0496
   5.5113E-02   5.6454E-02   5.5632E-05  0.0518
   5.6454E-02   5.7828E-02   6.2610E-05  0.0482
   5.7828E-02   5.9235E-02   5.7285E-05  0.0498
   5.9235E-02   6.0676E-02   6.0643E-05  0.0478
   6.0676E-02   6.2152E-02   6.7060E-05  0.0449
   6.2152E-02   6.3665E-02   6.0177E-05  0.0469
   6.3665E-02   6.5214E-02   5.9264E-05  0.0467
   6.5214E-02   6.6800E-02   6.0755E-05  0.0455
   6.6800E-02   6.8426E-02   5.7220E-05  0.0464
   6.8426E-02   7.0090E-02   6.0306E-05  0.0446
   7.0090E-02   7.1796E-02   5.8756E-05  0.0447
   7.1796E-02   7.3543E-02   5.6903E-05  0.0449
   7.3543E-02   7.5332E-02   5.5104E-05  0.0450
   7.5332E-02   7.7165E-02   5.7941E-05  0.0434
   7.7165E-02   7.9042E-02   5.6991E-05  0.0432
   7.9042E-02   8.0965E-02   6.1669E-05  0.0411
   8.0965E-02   8.2935E-02   6.3047E-05  0.0401
   8.2935E-02   8.4953E-02   5.6792E-05  0.0418
   8.4953E-02   8.7020E-02   6.0862E-05  0.0399
   8.7020E-02   8.9138E-02   5.8849E-05  0.0401
   8.9138E-02   9.1306E-02   6.0310E-05  0.0391
   9.1306E-02   9.3528E-02   6.1128E-05  0.0384
   9.3528E-02   9.5804E-02   6.1258E-05  0.0379
   9.5804E-02   9.8134E-02   5.7572E-05  0.0386
   9.8134E-02   1.0052E-01   6.1398E-05  0.0369
   1.0052E-01   1.0297E-01   6.4356E-05  0.0356
   1.0297E-01   1.0547E-01   5.7877E-05  0.0371
   1.0547E-01   1.0804E-01   6.1491E-05  0.0356
   1.0804E-01   1.1067E-01   5.9193E-05  0.0359
   1.1067E-01   1.1336E-01   5.7490E-05  0.0359
   1.1336E-01   1.1612E-01   6.4826E-05  0.0334
   1.1612E-01   1.1894E-01   6.1304E-05  0.0340
   1.1894E-01   1.2184E-01   5.9710E-05  0.0340
   1.2184E-01   1.2480E-01   6.6050E-05  0.0320
   1.2480E-01   1.2784E-01   6.0924E-05  0.0329
   1.2784E-01   1.3095E-01   6.1471E-05  0.0323
   1.3095E-01   1.3414E-01   6.3777E-05  0.0314
   1.3414E-01   1.3740E-01   6.2507E-05  0.0313
   1.3740E-01   1.4074E-01   6.5868E-05  0.0301
   1.4074E-01   1.4417E-01   6.4771E-05  0.0300
   1.4417E-01   1.4767E-01   6.5741E-05  0.0294
   1.4767E-01   1.5127E-01   6.7185E-05  0.0288
   1.5127E-01   1.5495E-01   6.8361E-05  0.0282
   1.5495E-01   1.5872E-01   6.2971E-05  0.0290
   1.5872E-01   1.6258E-01   6.5929E-05  0.0280
   1.6258E-01   1.6654E-01   6.8003E-05  0.0273
   1.6654E-01   1.7059E-01   6.6388E-05  0.0273
   1.7059E-01   1.7474E-01   6.5437E-05  0.0271
   1.7474E-01   1.7899E-01   6.7270E-05  0.0264
   1.7899E-01   1.8334E-01   6.6591E-05  0.0263
   1.8334E-01   1.8781E-01   6.7744E-05  0.0257
   1.8781E-01   1.9237E-01   6.7098E-05  0.0255
   1.9237E-01   1.9706E-01   6.9093E-05  0.0249
   1.9706E-01   2.0185E-01   6.3948E-05  0.0255
   2.0185E-01   2.0676E-01   6.6501E-05  0.0247
   2.0676E-01   2.1179E-01   6.9573E-05  0.0239
   2.1179E-01   2.1694E-01   7.0327E-05  0.0235
   2.1694E-01   2.2222E-01   7.1271E-05  0.0231
   2.2222E-01   2.2763E-01   6.9726E-05  0.0230
   2.2763E-01   2.3317E-01   7.2764E-05  0.0223
   2.3317E-01   2.3884E-01   7.1177E-05  0.0223
   2.3884E-01   2.4465E-01   7.1586E-05  0.0219
   2.4465E-01   2.5061E-01   7.2809E-05  0.0215
   2.5061E-01   2.5670E-01   7.1932E-05  0.0214
   2.5670E-01   2.6295E-01   7.3970E-05  0.0208
   2.6295E-01   2.6935E-01   7.2432E-05  0.0208
   2.6935E-01   2.7590E-01   7.5442E-05  0.0201
   2.7590E-01   2.8261E-01   7.4394E-05  0.0200
   2.8261E-01   2.8949E-01   7.4140E-05  0.0198
   2.8949E-01   2.9653E-01   7.3543E-05  0.0196
   2.9653E-01   3.0375E-01   7.4097E-05  0.0193
   3.0375E-01   3.1114E-01   7.3501E-05  0.0192
   3.1114E-01   3.1871E-01   7.5480E-05  0.0187
   3.1871E-01   3.2646E-01   7.7298E-05  0.0183
   3.2646E-01   3.3441E-01   7.6645E-05  0.0181
   3.3441E-01   3.4254E-01   7.5464E-05  0.0180
   3.4254E-01   3.5088E-01   7.7199E-05  0.0176
   3.5088E-01   3.5941E-01   7.7638E-05  0.0174
   3.5941E-01   3.6816E-01   7.8126E-05  0.0171
   3.6816E-01   3.7712E-01   7.8526E-05  0.0169
   3.7712E-01   3.8629E-01   7.7532E-05  0.0168
   3.8629E-01   3.9569E-01   7.8329E-05  0.0165
   3.9569E-01   4.0532E-01   8.0873E-05  0.0160
   4.0532E-01   4.1518E-01   8.0939E-05  0.0158
   4.1518E-01   4.2528E-01   8.0581E-05  0.0157
   4.2528E-01   4.3563E-01   7.9498E-05  0.0156
   4.3563E-01   4.4623E-01   8.0044E-05  0.0154
   4.4623E-01   4.5708E-01   8.1440E-05  0.0150
   4.5708E-01   4.6821E-01   8.0854E-05  0.0149
   4.6821E-01   4.7960E-01   8.3007E-05  0.0145
   4.7960E-01   4.9127E-01   8.4000E-05  0.0143
   4.9127E-01   5.0322E-01   8.2524E-05  0.0142
   5.0322E-01   5.1546E-01   8.2377E-05  0.0141
   5.1546E-01   5.2800E-01   8.0835E-05  0.0140
   5.2800E-01   5.4085E-01   8.3087E-05  0.0137
   5.4085E-01   5.5401E-01   8.3180E-05  0.0135
   5.5401E-01   5.6749E-01   8.4291E-05  0.0133
   5.6749E-01   5.8130E-01   8.6113E-05  0.0130
   5.8130E-01   5.9544E-01   8.5948E-05  0.0128
   5.9544E-01   6.0993E-01   8.6253E-05  0.0127
   6.0993E-01   6.2477E-01   8.4757E-05  0.0126
   6.2477E-01   6.3997E-01   8.7994E-05  0.0122
   6.3997E-01   6.5554E-01   8.4940E-05  0.0123
   6.5554E-01   6.7149E-01   8.6108E-05  0.0121
   6.7149E-01   6.8783E-01   8.6486E-05  0.0119
   6.8783E-01   7.0456E-01   8.6929E-05  0.0117
   7.0456E-01   7.2171E-01   8.5483E-05  0.0117
   7.2171E-01   7.3927E-01   8.6721E-05  0.0115
   7.3927E-01   7.5725E-01   8.8520E-05  0.0112
   7.5725E-01   7.7568E-01   8.6471E-05  0.0112
   7.7568E-01   7.9455E-01   8.6505E-05  0.0111
   7.9455E-01   8.1388E-01   8.7037E-05  0.0109
   8.1388E-01   8.3368E-01   8.6404E-05  0.0108
   8.3368E-01   8.5397E-01   8.6353E-05  0.0107
   8.5397E-01   8.7475E-01   8.5524E-05  0.0106
   8.7475E-01   8.9603E-01   8.6349E-05  0.0104
   8.9603E-01   9.1783E-01   8.7922E-05  0.0102
   9.1783E-01   9.4016E-01   8.5099E-05  0.0103
   9.4016E-01   9.6304E-01   8.6986E-05  0.0100
   9.6304E-01   9.8647E-01   8.7079E-05  0.0099
   9.8647E-01   1.0105E+00   8.5878E-05  0.0099
   1.0105E+00   1.0351E+00   8.4342E-05  0.0098
   1.0351E+00   1.0602E+00   8.5365E-05  0.0096
   1.0602E+00   1.0860E+00   8.4810E-05  0.0096
   1.0860E+00   1.1125E+00   8.4673E-05  0.0095
   1.1125E+00   1.1395E+00   8.4649E-05  0.0093
   1.1395E+00   1.1673E+00   8.3454E-05  0.0093
   1.1673E+00   1.1957E+00   8.4147E-05  0.0091
   1.1957E+00   1.2247E+00   8.2932E-05  0.0091
   1.2247E+00   1.2545E+00   8.4244E-05  0.0089
   1.2545E+00   1.2851E+00   8.1405E-05  0.0090
   1.2851E+00   1.3163E+00   8.1467E-05  0.0089
   1.3163E+00   1.3484E+00   8.1948E-05  0.0087
   1.3484E+00   1.3812E+00   8.1465E-05  0.0087
   1.3812E+00   1.4148E+00   8.0661E-05  0.0086
   1.4148E+00   1.4492E+00   8.0052E-05  0.0085
   1.4492E+00   1.4845E+00   7.9075E-05  0.0085
   1.4845E+00   1.5206E+00   7.8731E-05  0.0084
   1.5206E+00   1.5576E+00   7.7688E-05  0.0083
   1.5576E+00   1.5955E+00   7.6650E-05  0.0083
   1.5955E+00   1.6343E+00   7.4979E-05  0.0083
   1.6343E+00   1.6741E+00   7.4395E-05  0.0082
   1.6741E+00   1.7148E+00   7.2613E-05  0.0082
   1.7148E+00   1.7565E+00   7.1996E-05  0.0082
   1.7565E+00   1.7992E+00   7.1109E-05  0.0081
   1.7992E+00   1.8430E+00   6.8698E-05  0.0082
   1.8430E+00   1.8879E+00   6.7776E-05  0.0081
   1.8879E+00   1.9338E+00   6.5852E-05  0.0081
   1.9338E+00   1.9808E+00   6.5891E-05  0.0080
   1.9808E+00   2.0290E+00   6.4379E-05  0.0080
   2.0290E+00   2.0784E+00   6.2842E-05  0.0080
   2.0784E+00   2.1290E+00   6.0899E-05  0.0081
   2.1290E+00   2.1808E+00   5.9858E-05  0.0080
   2.1808E+00   2.2338E+00   5.8960E-05  0.0080
   2.2338E+00   2.2882E+00   5.7316E-05  0.0080
   2.2882E+00   2.3439E+00   5.5861E-05  0.0080
   2.3439E+00   2.4009E+00   5.4559E-05  0.0080
   2.4009E+00   2.4593E+00   5.2531E-05  0.0081
   2.4593E+00   2.5191E+00   5.1396E-05  0.0081
   2.5191E+00   2.5804E+00   5.0567E-05  0.0080
   2.5804E+00   2.6432E+00   4.7872E-05  0.0082
   2.6432E+00   2.7075E+00   4.6607E-05  0.0082
   2.7075E+00   2.7734E+00   4.5947E-05  0.0081
   2.7734E+00   2.8409E+00   4.5279E-05  0.0081
   2.8409E+00   2.9100E+00   4.2696E-05  0.0082
   2.9100E+00   2.9808E+00   4.1606E-05  0.0082
   2.9808E+00   3.0533E+00   4.0191E-05  0.0083
   3.0533E+00   3.1276E+00   3.9114E-05  0.0083
   3.1276E+00   3.2037E+00   3.7457E-05  0.0084
   3.2037E+00   3.2817E+00   3.6193E-05  0.0084
   3.2817E+00   3.3615E+00   3.5351E-05  0.0084
   3.3615E+00   3.4433E+00   3.4577E-05  0.0084
   3.4433E+00   3.5271E+00   3.2667E-05  0.0086
   3.5271E+00   3.6129E+00   3.1409E-05  0.0086
   3.6129E+00   3.7008E+00   3.0043E-05  0.0087
   3.7008E+00   3.7908E+00   2.8879E-05  0.0088
   3.7908E+00   3.8831E+00   2.7595E-05  0.0089
   3.8831E+00   3.9776E+00   2.7104E-05  0.0088
   3.9776E+00   4.0743E+00   2.5354E-05  0.0090
   4.0743E+00   4.1735E+00   2.3808E-05  0.0092
   4.1735E+00   4.2750E+00   2.2901E-05  0.0093
   4.2750E+00   4.3790E+00   2.2183E-05  0.0093
   4.3790E+00   4.4856E+00   2.1484E-05  0.0093
   4.4856E+00   4.5947E+00   2.0813E-05  0.0094
   4.5947E+00   4.7065E+00   1.9484E-05  0.0096
   4.7065E+00   4.8210E+00   1.8099E-05  0.0098
   4.8210E+00   4.9383E+00   1.7221E-05  0.0100
   4.9383E+00   5.0585E+00   1.6699E-05  0.0100
   5.0585E+00   5.1815E+00   1.6096E-05  0.0101
   5.1815E+00   5.3076E+00   1.5374E-05  0.0102
   5.3076E+00   5.4368E+00   1.4529E-05  0.0103
   5.4368E+00   5.5690E+00   1.3581E-05  0.0106
   5.5690E+00   5.7045E+00   1.2975E-05  0.0107
   5.7045E+00   5.8433E+00   1.2338E-05  0.0108
   5.8433E+00   5.9855E+00   1.1813E-05  0.0109
   5.9855E+00   6.1311E+00   1.1177E-05  0.0111
   6.1311E+00   6.2803E+00   1.0553E-05  0.0113
   6.2803E+00   6.4331E+00   1.0107E-05  0.0114
   6.4331E+00   6.5896E+00   9.3258E-06  0.0117
   6.5896E+00   6.7500E+00   9.0138E-06  0.0118
   6.7500E+00   6.9142E+00   8.3674E-06  0.0121
   6.9142E+00   7.0824E+00   8.1853E-06  0.0121
   7.0824E+00   7.2548E+00   7.5649E-06  0.0124
   7.2548E+00   7.4313E+00   7.5773E-06  0.0122
   7.4313E+00   7.6121E+00   7.1125E-06  0.0125
   7.6121E+00   7.7973E+00   6.6228E-06  0.0128
   7.7973E+00   7.9870E+00   6.4413E-06  0.0128
   7.9870E+00   8.1813E+00   6.0325E-06  0.0131
   8.1813E+00   8.3804E+00   5.6772E-06  0.0133
   8.3804E+00   8.5843E+00   5.4776E-06  0.0134
   8.5843E+00   8.7931E+00   5.0770E-06  0.0137
   8.7931E+00   9.0071E+00   4.9728E-06  0.0137
   9.0071E+00   9.2262E+00   4.7534E-06  0.0139
   9.2262E+00   9.4507E+00   4.5251E-06  0.0140
   9.4507E+00   9.6807E+00   4.2428E-06  0.0143
   9.6807E+00   9.9162E+00   4.0129E-06  0.0145
   9.9162E+00   1.0157E+01   3.8621E-06  0.0147
   1.0157E+01   1.0405E+01   3.6870E-06  0.0148
   1.0405E+01   1.0658E+01   3.5330E-06  0.0150
   1.0658E+01   1.0917E+01   3.3851E-06  0.0151
   1.0917E+01   1.1183E+01   3.2256E-06  0.0153
   1.1183E+01   1.1455E+01   2.9847E-06  0.0157
   1.1455E+01   1.1733E+01   2.8511E-06  0.0159
   1.1733E+01   1.2019E+01   2.7693E-06  0.0159
   1.2019E+01   1.2311E+01   2.5962E-06  0.0162
   1.2311E+01   1.2611E+01   2.4951E-06  0.0164
   1.2611E+01   1.2918E+01   2.2807E-06  0.0169
   1.2918E+01   1.3232E+01   2.2361E-06  0.0169
   1.3232E+01   1.3554E+01   2.0211E-06  0.0175
   1.3554E+01   1.3884E+01   1.9686E-06  0.0176
   1.3884E+01   1.4222E+01   1.8129E-06  0.0181
   1.4222E+01   1.4568E+01   1.6219E-06  0.0189
   1.4568E+01   1.4922E+01   1.6110E-06  0.0187
   1.4922E+01   1.5285E+01   1.4917E-06  0.0192
   1.5285E+01   1.5657E+01   1.3955E-06  0.0196
   1.5657E+01   1.6038E+01   1.3078E-06  0.0200
   1.6038E+01   1.6428E+01   1.2306E-06  0.0204
   1.6428E+01   1.6828E+01   1.1553E-06  0.0208
   1.6828E+01   1.7237E+01   1.0873E-06  0.0212
   1.7237E+01   1.7657E+01   9.7473E-07  0.0221
   1.7657E+01   1.8086E+01   9.1666E-07  0.0225
   1.8086E+01   1.8526E+01   8.1172E-07  0.0237
   1.8526E+01   1.8977E+01   7.6626E-07  0.0241
   1.8977E+01   1.9439E+01   6.9478E-07  0.0250
   1.9439E+01   1.9912E+01   6.3641E-07  0.0258
   1.9912E+01   2.0396E+01   5.9859E-07  0.0263
   2.0396E+01   2.0893E+01   5.2795E-07  0.0276
   2.0893E+01   2.1401E+01   4.7134E-07  0.0289
   2.1401E+01   2.1922E+01   3.7488E-07  0.0320
   2.1922E+01   2.2455E+01   2.9773E-07  0.0355
   2.2455E+01   2.3001E+01   2.4563E-07  0.0386
   2.3001E+01   2.3561E+01   1.6546E-07  0.0465
   2.3561E+01   2.4134E+01   1.2246E-07  0.0534
   2.4134E+01   2.4721E+01   6.1989E-08  0.0741
   2.4721E+01   2.5323E+01   2.5603E-08  0.1140
   2.5323E+01   2.5939E+01   9.7382E-10  0.5774
   2.5939E+01   2.6570E+01   0.0000E+00  0.0000
   2.6570E+01   2.7217E+01   0.0000E+00  0.0000
   2.7217E+01   2.7879E+01   0.0000E+00  0.0000
   2.7879E+01   2.8557E+01   0.0000E+00  0.0000
   2.8557E+01   2.9252E+01   0.0000E+00  0.0000
   2.9252E+01   2.9964E+01   0.0000E+00  0.0000
   2.9964E+01   3.0693E+01   0.0000E+00  0.0000
   3.0693E+01   3.1440E+01   0.0000E+00  0.0000
   3.1440E+01   3.2205E+01   0.0000E+00  0.0000
   3.2205E+01   3.2988E+01   0.0000E+00  0.0000
   3.2988E+01   3.3791E+01   0.0000E+00  0.0000
   3.3791E+01   3.4613E+01   0.0000E+00  0.0000
   3.4613E+01   3.5455E+01   0.0000E+00  0.0000
   3.5455E+01   3.6318E+01   0.0000E+00  0.0000
   3.6318E+01   3.7201E+01   0.0000E+00  0.0000
   3.7201E+01   3.8106E+01   0.0000E+00  0.0000
   3.8106E+01   3.9034E+01   0.0000E+00  0.0000
   3.9034E+01   3.9983E+01   0.0000E+00  0.0000
   3.9983E+01   4.0956E+01   0.0000E+00  0.0000
   4.0956E+01   4.1953E+01   0.0000E+00  0.0000
   4.1953E+01   4.2973E+01   0.0000E+00  0.0000
   4.2973E+01   4.4019E+01   0.0000E+00  0.0000
   4.4019E+01   4.5090E+01   0.0000E+00  0.0000
   4.5090E+01   4.6187E+01   0.0000E+00  0.0000
   4.6187E+01   4.7311E+01   0.0000E+00  0.0000
   4.7311E+01   4.8462E+01   0.0000E+00  0.0000
   4.8462E+01   4.9641E+01   0.0000E+00  0.0000
   4.9641E+01   5.0849E+01   0.0000E+00  0.0000
   5.0849E+01   5.2086E+01   0.0000E+00  0.0000
   5.2086E+01   5.3353E+01   0.0000E+00  0.0000
   5.3353E+01   5.4651E+01   0.0000E+00  0.0000
   5.4651E+01   5.5981E+01   0.0000E+00  0.0000
   5.5981E+01   5.7343E+01   0.0000E+00  0.0000
   5.7343E+01   5.8738E+01   0.0000E+00  0.0000
   5.8738E+01   6.0168E+01   0.0000E+00  0.0000
   6.0168E+01   6.1632E+01   0.0000E+00  0.0000
   6.1632E+01   6.3131E+01   0.0000E+00  0.0000
   6.3131E+01   6.4667E+01   0.0000E+00  0.0000
   6.4667E+01   6.6240E+01   0.0000E+00  0.0000
   6.6240E+01   6.7852E+01   0.0000E+00  0.0000
   6.7852E+01   6.9503E+01   0.0000E+00  0.0000
   6.9503E+01   7.1194E+01   0.0000E+00  0.0000
   7.1194E+01   7.2926E+01   0.0000E+00  0.0000
   7.2926E+01   7.4701E+01   0.0000E+00  0.0000
   7.4701E+01   7.6518E+01   0.0000E+00  0.0000
   7.6518E+01   7.8380E+01   0.0000E+00  0.0000
   7.8380E+01   8.0287E+01   0.0000E+00  0.0000
   8.0287E+01   8.2240E+01   0.0000E+00  0.0000
   8.2240E+01   8.4241E+01   0.0000E+00  0.0000
   8.4241E+01   8.6291E+01   0.0000E+00  0.0000
   8.6291E+01   8.8391E+01   0.0000E+00  0.0000
   8.8391E+01   9.0541E+01   0.0000E+00  0.0000
   9.0541E+01   9.2744E+01   0.0000E+00  0.0000
   9.2744E+01   9.5001E+01   0.0000E+00  0.0000
   9.5001E+01   9.7312E+01   0.0000E+00  0.0000
   9.7312E+01   9.9680E+01   0.0000E+00  0.0000
   9.9680E+01   1.0211E+02   0.0000E+00  0.0000
   1.0211E+02   1.0459E+02   0.0000E+00  0.0000
   1.0459E+02   1.0713E+02   0.0000E+00  0.0000
   1.0713E+02   1.0974E+02   0.0000E+00  0.0000
   1.0974E+02   1.1241E+02   0.0000E+00  0.0000
   1.1241E+02   1.1515E+02   0.0000E+00  0.0000
   1.1515E+02   1.1795E+02   0.0000E+00  0.0000
   1.1795E+02   1.2082E+02   0.0000E+00  0.0000
   1.2082E+02   1.2376E+02   0.0000E+00  0.0000
   1.2376E+02   1.2677E+02   0.0000E+00  0.0000
   1.2677E+02   1.2985E+02   0.0000E+00  0.0000
   1.2985E+02   1.3301E+02   0.0000E+00  0.0000
   1.3301E+02   1.3625E+02   0.0000E+00  0.0000
   1.3625E+02   1.3956E+02   0.0000E+00  0.0000
   1.3956E+02   1.4296E+02   0.0000E+00  0.0000
   1.4296E+02   1.4644E+02   0.0000E+00  0.0000
   1.4644E+02   1.5000E+02   0.0000E+00  0.0000

#   sum over                 2.1288E-06
'no. =    1   reg = 110 - 210'
msuc: {\huge [t-cross] in region mesh}
msdr: {\it plotted by \ANGEL \version}
msdl: {\it calculated by \PHITS  3.26}
wt: s(0.7)
\vspace{-3}
  region surface crossing
  area  &=&   1.0000E+00 [cm^2]
e:
 
# Information for Restart Calculation
# This calculation was newly started
# istdev =  2 # 1:Batch variance, 2:History variance
# resc2  = 5.00000000000000000E+09 # Total source weight or Total source weight / maxcas
# resc3  = 5.00000000000000000E+09 # Total history number or Total batch number
# maxcas =   500000000 # History / Batch, only used for istdev=1
# bitrseed = 0110100000100010111000001110001111001110100100011111101000111001 # bit data of rseed
