[ T-Cross ]
    title = [t-cross] in region mesh
     mesh =  reg            # mesh type is region-wise
      reg =    1            # number of crossing regions
      non     r-from    r-to       area
      1       113       213        1.000000    
   e-type =    3            # e-mesh is log given by emin, emax and ne
     emin =  1.0000000E-02  # minimum value of e-mesh points
     emax =   150.0000      # maximum value of e-mesh points
#    edel =  2.4039514E-02  # mesh width of e-mesh points
       ne =    400          # number of e-mesh points
#    data = ( e(i), i = 1, ne + 1 )
#           1.00000E-02  1.02433E-02  1.04925E-02  1.07478E-02  1.10093E-02
#           1.12772E-02  1.15516E-02  1.18326E-02  1.21205E-02  1.24154E-02
#           1.27175E-02  1.30269E-02  1.33439E-02  1.36686E-02  1.40011E-02
#           1.43418E-02  1.46907E-02  1.50482E-02  1.54143E-02  1.57894E-02
#           1.61735E-02  1.65670E-02  1.69701E-02  1.73830E-02  1.78060E-02
#           1.82392E-02  1.86830E-02  1.91375E-02  1.96032E-02  2.00801E-02
#           2.05687E-02  2.10692E-02  2.15818E-02  2.21069E-02  2.26448E-02
#           2.31957E-02  2.37601E-02  2.43382E-02  2.49304E-02  2.55369E-02
#           2.61583E-02  2.67947E-02  2.74467E-02  2.81145E-02  2.87985E-02
#           2.94992E-02  3.02169E-02  3.09521E-02  3.17052E-02  3.24766E-02
#           3.32668E-02  3.40762E-02  3.49053E-02  3.57546E-02  3.66246E-02
#           3.75157E-02  3.84284E-02  3.93634E-02  4.03212E-02  4.13022E-02
#           4.23071E-02  4.33365E-02  4.43909E-02  4.54710E-02  4.65773E-02
#           4.77106E-02  4.88714E-02  5.00605E-02  5.12785E-02  5.25262E-02
#           5.38042E-02  5.51133E-02  5.64542E-02  5.78278E-02  5.92348E-02
#           6.06760E-02  6.21523E-02  6.36645E-02  6.52135E-02  6.68002E-02
#           6.84255E-02  7.00904E-02  7.17957E-02  7.35426E-02  7.53319E-02
#           7.71648E-02  7.90423E-02  8.09655E-02  8.29354E-02  8.49533E-02
#           8.70203E-02  8.91376E-02  9.13064E-02  9.35279E-02  9.58035E-02
#           9.81345E-02  1.00522E-01  1.02968E-01  1.05473E-01  1.08040E-01
#           1.10668E-01  1.13361E-01  1.16119E-01  1.18944E-01  1.21838E-01
#           1.24803E-01  1.27839E-01  1.30950E-01  1.34136E-01  1.37399E-01
#           1.40742E-01  1.44167E-01  1.47675E-01  1.51268E-01  1.54948E-01
#           1.58718E-01  1.62580E-01  1.66535E-01  1.70587E-01  1.74738E-01
#           1.78989E-01  1.83344E-01  1.87805E-01  1.92375E-01  1.97055E-01
#           2.01850E-01  2.06761E-01  2.11792E-01  2.16945E-01  2.22223E-01
#           2.27630E-01  2.33169E-01  2.38842E-01  2.44653E-01  2.50605E-01
#           2.56703E-01  2.62949E-01  2.69346E-01  2.75900E-01  2.82613E-01
#           2.89489E-01  2.96532E-01  3.03747E-01  3.11138E-01  3.18708E-01
#           3.26462E-01  3.34405E-01  3.42542E-01  3.50876E-01  3.59413E-01
#           3.68158E-01  3.77116E-01  3.86291E-01  3.95690E-01  4.05317E-01
#           4.15179E-01  4.25281E-01  4.35628E-01  4.46227E-01  4.57084E-01
#           4.68205E-01  4.79597E-01  4.91266E-01  5.03219E-01  5.15463E-01
#           5.28005E-01  5.40851E-01  5.54011E-01  5.67490E-01  5.81298E-01
#           5.95441E-01  6.09929E-01  6.24769E-01  6.39970E-01  6.55541E-01
#           6.71491E-01  6.87828E-01  7.04564E-01  7.21706E-01  7.39266E-01
#           7.57253E-01  7.75678E-01  7.94551E-01  8.13883E-01  8.33685E-01
#           8.53969E-01  8.74747E-01  8.96030E-01  9.17831E-01  9.40163E-01
#           9.63038E-01  9.86469E-01  1.01047E+00  1.03506E+00  1.06024E+00
#           1.08604E+00  1.11246E+00  1.13953E+00  1.16725E+00  1.19565E+00
#           1.22474E+00  1.25454E+00  1.28507E+00  1.31633E+00  1.34836E+00
#           1.38117E+00  1.41477E+00  1.44920E+00  1.48446E+00  1.52057E+00
#           1.55757E+00  1.59547E+00  1.63429E+00  1.67405E+00  1.71478E+00
#           1.75650E+00  1.79924E+00  1.84302E+00  1.88786E+00  1.93379E+00
#           1.98084E+00  2.02904E+00  2.07841E+00  2.12898E+00  2.18078E+00
#           2.23384E+00  2.28819E+00  2.34386E+00  2.40089E+00  2.45930E+00
#           2.51914E+00  2.58043E+00  2.64322E+00  2.70753E+00  2.77341E+00
#           2.84088E+00  2.91001E+00  2.98081E+00  3.05333E+00  3.12762E+00
#           3.20372E+00  3.28167E+00  3.36152E+00  3.44330E+00  3.52708E+00
#           3.61290E+00  3.70080E+00  3.79085E+00  3.88308E+00  3.97756E+00
#           4.07434E+00  4.17347E+00  4.27501E+00  4.37903E+00  4.48557E+00
#           4.59471E+00  4.70650E+00  4.82102E+00  4.93832E+00  5.05847E+00
#           5.18155E+00  5.30762E+00  5.43676E+00  5.56904E+00  5.70453E+00
#           5.84333E+00  5.98550E+00  6.13114E+00  6.28031E+00  6.43312E+00
#           6.58964E+00  6.74997E+00  6.91420E+00  7.08243E+00  7.25475E+00
#           7.43126E+00  7.61207E+00  7.79728E+00  7.98700E+00  8.18133E+00
#           8.38038E+00  8.58428E+00  8.79315E+00  9.00709E+00  9.22624E+00
#           9.45072E+00  9.68067E+00  9.91620E+00  1.01575E+01  1.04046E+01
#           1.06578E+01  1.09171E+01  1.11827E+01  1.14548E+01  1.17335E+01
#           1.20190E+01  1.23114E+01  1.26109E+01  1.29178E+01  1.32321E+01
#           1.35540E+01  1.38838E+01  1.42216E+01  1.45676E+01  1.49221E+01
#           1.52851E+01  1.56570E+01  1.60380E+01  1.64282E+01  1.68279E+01
#           1.72374E+01  1.76568E+01  1.80864E+01  1.85264E+01  1.89772E+01
#           1.94389E+01  1.99119E+01  2.03963E+01  2.08926E+01  2.14009E+01
#           2.19216E+01  2.24550E+01  2.30014E+01  2.35610E+01  2.41343E+01
#           2.47215E+01  2.53230E+01  2.59391E+01  2.65702E+01  2.72167E+01
#           2.78789E+01  2.85572E+01  2.92520E+01  2.99637E+01  3.06928E+01
#           3.14396E+01  3.22045E+01  3.29881E+01  3.37907E+01  3.46128E+01
#           3.54550E+01  3.63177E+01  3.72013E+01  3.81064E+01  3.90336E+01
#           3.99833E+01  4.09561E+01  4.19526E+01  4.29734E+01  4.40189E+01
#           4.50900E+01  4.61870E+01  4.73108E+01  4.84619E+01  4.96410E+01
#           5.08488E+01  5.20860E+01  5.33533E+01  5.46514E+01  5.59812E+01
#           5.73432E+01  5.87384E+01  6.01676E+01  6.16315E+01  6.31311E+01
#           6.46671E+01  6.62405E+01  6.78522E+01  6.95031E+01  7.11941E+01
#           7.29263E+01  7.47007E+01  7.65182E+01  7.83800E+01  8.02870E+01
#           8.22405E+01  8.42414E+01  8.62911E+01  8.83906E+01  9.05412E+01
#           9.27442E+01  9.50007E+01  9.73122E+01  9.96799E+01  1.02105E+02
#           1.04589E+02  1.07134E+02  1.09741E+02  1.12411E+02  1.15146E+02
#           1.17948E+02  1.20817E+02  1.23757E+02  1.26768E+02  1.29852E+02
#           1.33012E+02  1.36248E+02  1.39563E+02  1.42959E+02  1.46437E+02
#           1.50000E+02
     unit =    2            # unit is [1/cm^2/(MeV/n)/source]
     axis =  eng            # axis of output
     file = detector-14.out  # file name of output for the above axis
   output = f-curr          # surface crossing forward current spectrum
     part =  neutron  
# kf/name :  2112     
#    used :        main (  %)        temp (  %)       total (  %)
#  memory :         414 (  0)           0 (  0)         414 (  0)

#------------------------------------------------------------------------------
#newpage:
#   no. =    1   reg = 113 - 213

x: Energy [MeV/n]
y:  F-Curr [1/cm^2/(MeV/n)/source]         
p: xlog ylog afac(0.8) form(0.9)
h: n            x            y(neutron ),hh0l   n 
#  e-lower      e-upper      neutron     r.err 
   1.0000E-02   1.0243E-02   3.6990E-05  0.1491
   1.0243E-02   1.0493E-02   2.8889E-05  0.1667
   1.0493E-02   1.0748E-02   3.0553E-05  0.1601
   1.0748E-02   1.1009E-02   3.8240E-05  0.1414
   1.1009E-02   1.1277E-02   3.3599E-05  0.1491
   1.1277E-02   1.1552E-02   3.8632E-05  0.1374
   1.1552E-02   1.1833E-02   2.2771E-05  0.1768
   1.1833E-02   1.2121E-02   3.2651E-05  0.1459
   1.2121E-02   1.2415E-02   3.5944E-05  0.1374
   1.2415E-02   1.2718E-02   3.1780E-05  0.1443
   1.2718E-02   1.3027E-02   3.4257E-05  0.1374
   1.3027E-02   1.3344E-02   2.9657E-05  0.1459
   1.3344E-02   1.3669E-02   2.6489E-05  0.1525
   1.3669E-02   1.4001E-02   3.4880E-05  0.1313
   1.4001E-02   1.4342E-02   2.7594E-05  0.1459
   1.4342E-02   1.4691E-02   3.2097E-05  0.1336
   1.4691E-02   1.5048E-02   3.1334E-05  0.1336
   1.5048E-02   1.5414E-02   2.7859E-05  0.1400
   1.5414E-02   1.5789E-02   3.2530E-05  0.1280
   1.5789E-02   1.6174E-02   2.8113E-05  0.1361
   1.6174E-02   1.6567E-02   3.3544E-05  0.1231
   1.6567E-02   1.6970E-02   3.0762E-05  0.1270
   1.6970E-02   1.7383E-02   3.5360E-05  0.1170
   1.7383E-02   1.7806E-02   2.9318E-05  0.1270
   1.7806E-02   1.8239E-02   2.8160E-05  0.1280
   1.8239E-02   1.8683E-02   3.0196E-05  0.1222
   1.8683E-02   1.9138E-02   3.0798E-05  0.1195
   1.9138E-02   1.9603E-02   3.9516E-05  0.1043
   1.9603E-02   2.0080E-02   3.5642E-05  0.1085
   2.0080E-02   2.0569E-02   3.2749E-05  0.1118
   2.0569E-02   2.1069E-02   2.8951E-05  0.1173
   2.1069E-02   2.1582E-02   2.9651E-05  0.1147
   2.1582E-02   2.2107E-02   3.8469E-05  0.0995
   2.2107E-02   2.2645E-02   3.1978E-05  0.1078
   2.2645E-02   2.3196E-02   3.0492E-05  0.1091
   2.3196E-02   2.3760E-02   3.3666E-05  0.1026
   2.3760E-02   2.4338E-02   3.7018E-05  0.0967
   2.4338E-02   2.4930E-02   3.3099E-05  0.1010
   2.4930E-02   2.5537E-02   2.9675E-05  0.1054
   2.5537E-02   2.6158E-02   3.4764E-05  0.0962
   2.6158E-02   2.6795E-02   3.4567E-05  0.0953
   2.6795E-02   2.7447E-02   3.6507E-05  0.0917
   2.7447E-02   2.8114E-02   3.3543E-05  0.0945
   2.8114E-02   2.8799E-02   3.5085E-05  0.0913
   2.8799E-02   2.9499E-02   3.1968E-05  0.0945
   2.9499E-02   3.0217E-02   3.7061E-05  0.0867
   3.0217E-02   3.0952E-02   3.0468E-05  0.0945
   3.0952E-02   3.1705E-02   3.0275E-05  0.0937
   3.1705E-02   3.2477E-02   3.1371E-05  0.0909
   3.2477E-02   3.3267E-02   3.6194E-05  0.0836
   3.3267E-02   3.4076E-02   3.0640E-05  0.0898
   3.4076E-02   3.4905E-02   4.0285E-05  0.0774
   3.4905E-02   3.5755E-02   3.1085E-05  0.0870
   3.5755E-02   3.6625E-02   3.0347E-05  0.0870
   3.6625E-02   3.7516E-02   3.8828E-05  0.0760
   3.7516E-02   3.8428E-02   3.1333E-05  0.0836
   3.8428E-02   3.9363E-02   3.7647E-05  0.0754
   3.9363E-02   4.0321E-02   3.4289E-05  0.0780
   4.0321E-02   4.1302E-02   3.0376E-05  0.0819
   4.1302E-02   4.2307E-02   3.3928E-05  0.0765
   4.2307E-02   4.3337E-02   3.5362E-05  0.0741
   4.3337E-02   4.4391E-02   3.6608E-05  0.0720
   4.4391E-02   4.5471E-02   3.3146E-05  0.0747
   4.5471E-02   4.6577E-02   3.2446E-05  0.0746
   4.6577E-02   4.7711E-02   3.5826E-05  0.0702
   4.7711E-02   4.8871E-02   3.9823E-05  0.0658
   4.8871E-02   5.0061E-02   3.3639E-05  0.0707
   5.0061E-02   5.1279E-02   3.3169E-05  0.0704
   5.1279E-02   5.2526E-02   3.4785E-05  0.0679
   5.2526E-02   5.3804E-02   3.7559E-05  0.0645
   5.3804E-02   5.5113E-02   3.2412E-05  0.0686
   5.5113E-02   5.6454E-02   3.4480E-05  0.0657
   5.6454E-02   5.7828E-02   3.6110E-05  0.0635
   5.7828E-02   5.9235E-02   3.6552E-05  0.0623
   5.9235E-02   6.0676E-02   3.4166E-05  0.0637
   6.0676E-02   6.2152E-02   3.3869E-05  0.0632
   6.2152E-02   6.3665E-02   3.5841E-05  0.0607
   6.3665E-02   6.5214E-02   3.7702E-05  0.0585
   6.5214E-02   6.6800E-02   3.7814E-05  0.0577
   6.6800E-02   6.8426E-02   3.3861E-05  0.0603
   6.8426E-02   7.0090E-02   3.7275E-05  0.0568
   7.0090E-02   7.1796E-02   3.7194E-05  0.0561
   7.1796E-02   7.3543E-02   3.3775E-05  0.0582
   7.3543E-02   7.5332E-02   3.7891E-05  0.0543
   7.5332E-02   7.7165E-02   3.5791E-05  0.0552
   7.7165E-02   7.9042E-02   3.7710E-05  0.0531
   7.9042E-02   8.0965E-02   3.6502E-05  0.0534
   8.0965E-02   8.2935E-02   3.7087E-05  0.0523
   8.2935E-02   8.4953E-02   3.6771E-05  0.0519
   8.4953E-02   8.7020E-02   3.5819E-05  0.0520
   8.7020E-02   8.9138E-02   3.9674E-05  0.0488
   8.9138E-02   9.1306E-02   3.9561E-05  0.0483
   9.1306E-02   9.3528E-02   3.6191E-05  0.0499
   9.3528E-02   9.5804E-02   3.8671E-05  0.0477
   9.5804E-02   9.8134E-02   3.5963E-05  0.0488
   9.8134E-02   1.0052E-01   3.5934E-05  0.0483
   1.0052E-01   1.0297E-01   4.0232E-05  0.0451
   1.0297E-01   1.0547E-01   3.8319E-05  0.0456
   1.0547E-01   1.0804E-01   3.7706E-05  0.0454
   1.0804E-01   1.1067E-01   4.0644E-05  0.0433
   1.1067E-01   1.1336E-01   4.0940E-05  0.0426
   1.1336E-01   1.1612E-01   3.7799E-05  0.0438
   1.1612E-01   1.1894E-01   4.0787E-05  0.0417
   1.1894E-01   1.2184E-01   3.5314E-05  0.0442
   1.2184E-01   1.2480E-01   3.6567E-05  0.0430
   1.2480E-01   1.2784E-01   3.7740E-05  0.0418
   1.2784E-01   1.3095E-01   3.7644E-05  0.0413
   1.3095E-01   1.3414E-01   3.8103E-05  0.0406
   1.3414E-01   1.3740E-01   3.9465E-05  0.0394
   1.3740E-01   1.4074E-01   3.9403E-05  0.0390
   1.4074E-01   1.4417E-01   3.9598E-05  0.0384
   1.4417E-01   1.4767E-01   3.8039E-05  0.0387
   1.4767E-01   1.5127E-01   3.7962E-05  0.0383
   1.5127E-01   1.5495E-01   4.0701E-05  0.0365
   1.5495E-01   1.5872E-01   4.1026E-05  0.0360
   1.5872E-01   1.6258E-01   4.0792E-05  0.0356
   1.6258E-01   1.6654E-01   3.7850E-05  0.0365
   1.6654E-01   1.7059E-01   4.1659E-05  0.0344
   1.7059E-01   1.7474E-01   3.8749E-05  0.0353
   1.7474E-01   1.7899E-01   4.1842E-05  0.0335
   1.7899E-01   1.8334E-01   3.8715E-05  0.0344
   1.8334E-01   1.8781E-01   3.9364E-05  0.0337
   1.8781E-01   1.9237E-01   3.8654E-05  0.0336
   1.9237E-01   1.9706E-01   4.0653E-05  0.0324
   1.9706E-01   2.0185E-01   4.1047E-05  0.0319
   2.0185E-01   2.0676E-01   4.0702E-05  0.0316
   2.0676E-01   2.1179E-01   3.9724E-05  0.0316
   2.1179E-01   2.1694E-01   3.9394E-05  0.0314
   2.1694E-01   2.2222E-01   3.8967E-05  0.0312
   2.2222E-01   2.2763E-01   3.7989E-05  0.0312
   2.2763E-01   2.3317E-01   3.8495E-05  0.0306
   2.3317E-01   2.3884E-01   4.0235E-05  0.0296
   2.3884E-01   2.4465E-01   3.8483E-05  0.0299
   2.4465E-01   2.5061E-01   3.7299E-05  0.0300
   2.5061E-01   2.5670E-01   3.8377E-05  0.0292
   2.5670E-01   2.6295E-01   3.8778E-05  0.0287
   2.6295E-01   2.6935E-01   3.9764E-05  0.0280
   2.6935E-01   2.7590E-01   3.7611E-05  0.0285
   2.7590E-01   2.8261E-01   3.8826E-05  0.0277
   2.8261E-01   2.8949E-01   3.9643E-05  0.0271
   2.8949E-01   2.9653E-01   3.8428E-05  0.0272
   2.9653E-01   3.0375E-01   3.9235E-05  0.0266
   3.0375E-01   3.1114E-01   3.9010E-05  0.0263
   3.1114E-01   3.1871E-01   3.9655E-05  0.0258
   3.1871E-01   3.2646E-01   3.6856E-05  0.0265
   3.2646E-01   3.3441E-01   3.8725E-05  0.0255
   3.3441E-01   3.4254E-01   3.9106E-05  0.0251
   3.4254E-01   3.5088E-01   3.9315E-05  0.0247
   3.5088E-01   3.5941E-01   3.6643E-05  0.0253
   3.5941E-01   3.6816E-01   3.6783E-05  0.0249
   3.6816E-01   3.7712E-01   3.6952E-05  0.0246
   3.7712E-01   3.8629E-01   3.6641E-05  0.0244
   3.8629E-01   3.9569E-01   3.8069E-05  0.0236
   3.9569E-01   4.0532E-01   3.6741E-05  0.0238
   4.0532E-01   4.1518E-01   3.6751E-05  0.0235
   4.1518E-01   4.2528E-01   3.5049E-05  0.0238
   4.2528E-01   4.3563E-01   3.5857E-05  0.0232
   4.3563E-01   4.4623E-01   3.5657E-05  0.0230
   4.4623E-01   4.5708E-01   3.4088E-05  0.0232
   4.5708E-01   4.6821E-01   3.5140E-05  0.0226
   4.6821E-01   4.7960E-01   3.3212E-05  0.0230
   4.7960E-01   4.9127E-01   3.4445E-05  0.0223
   4.9127E-01   5.0322E-01   3.4576E-05  0.0220
   5.0322E-01   5.1546E-01   3.5948E-05  0.0213
   5.1546E-01   5.2800E-01   3.4154E-05  0.0216
   5.2800E-01   5.4085E-01   3.3167E-05  0.0217
   5.4085E-01   5.5401E-01   3.3581E-05  0.0213
   5.5401E-01   5.6749E-01   3.4134E-05  0.0208
   5.6749E-01   5.8130E-01   3.2889E-05  0.0210
   5.8130E-01   5.9544E-01   3.1749E-05  0.0211
   5.9544E-01   6.0993E-01   3.3435E-05  0.0203
   6.0993E-01   6.2477E-01   3.0197E-05  0.0211
   6.2477E-01   6.3997E-01   3.0410E-05  0.0208
   6.3997E-01   6.5554E-01   2.9957E-05  0.0207
   6.5554E-01   6.7149E-01   2.9899E-05  0.0205
   6.7149E-01   6.8783E-01   3.0295E-05  0.0201
   6.8783E-01   7.0456E-01   2.9295E-05  0.0202
   7.0456E-01   7.2171E-01   2.8007E-05  0.0204
   7.2171E-01   7.3927E-01   2.8592E-05  0.0200
   7.3927E-01   7.5725E-01   2.7516E-05  0.0201
   7.5725E-01   7.7568E-01   2.6683E-05  0.0202
   7.7568E-01   7.9455E-01   2.6607E-05  0.0200
   7.9455E-01   8.1388E-01   2.5539E-05  0.0201
   8.1388E-01   8.3368E-01   2.4308E-05  0.0204
   8.3368E-01   8.5397E-01   2.4328E-05  0.0201
   8.5397E-01   8.7475E-01   2.4210E-05  0.0199
   8.7475E-01   8.9603E-01   2.2820E-05  0.0203
   8.9603E-01   9.1783E-01   2.1773E-05  0.0205
   9.1783E-01   9.4016E-01   2.1029E-05  0.0206
   9.4016E-01   9.6304E-01   2.0787E-05  0.0205
   9.6304E-01   9.8647E-01   1.9272E-05  0.0210
   9.8647E-01   1.0105E+00   1.9252E-05  0.0208
   1.0105E+00   1.0351E+00   1.9177E-05  0.0206
   1.0351E+00   1.0602E+00   2.0094E-05  0.0199
   1.0602E+00   1.0860E+00   2.0747E-05  0.0193
   1.0860E+00   1.1125E+00   2.0011E-05  0.0194
   1.1125E+00   1.1395E+00   2.0669E-05  0.0189
   1.1395E+00   1.1673E+00   2.1461E-05  0.0183
   1.1673E+00   1.1957E+00   2.1390E-05  0.0181
   1.1957E+00   1.2247E+00   2.2330E-05  0.0175
   1.2247E+00   1.2545E+00   2.2763E-05  0.0172
   1.2545E+00   1.2851E+00   2.3812E-05  0.0166
   1.2851E+00   1.3163E+00   2.4478E-05  0.0162
   1.3163E+00   1.3484E+00   2.4266E-05  0.0160
   1.3484E+00   1.3812E+00   2.5530E-05  0.0154
   1.3812E+00   1.4148E+00   2.6277E-05  0.0150
   1.4148E+00   1.4492E+00   2.6081E-05  0.0149
   1.4492E+00   1.4845E+00   2.7391E-05  0.0144
   1.4845E+00   1.5206E+00   2.7786E-05  0.0141
   1.5206E+00   1.5576E+00   2.8532E-05  0.0138
   1.5576E+00   1.5955E+00   2.8897E-05  0.0135
   1.5955E+00   1.6343E+00   2.9705E-05  0.0132
   1.6343E+00   1.6741E+00   3.0374E-05  0.0129
   1.6741E+00   1.7148E+00   3.1800E-05  0.0124
   1.7148E+00   1.7565E+00   3.3005E-05  0.0120
   1.7565E+00   1.7992E+00   3.4074E-05  0.0117
   1.7992E+00   1.8430E+00   3.4123E-05  0.0116
   1.8430E+00   1.8879E+00   3.5357E-05  0.0112
   1.8879E+00   1.9338E+00   3.6177E-05  0.0110
   1.9338E+00   1.9808E+00   3.6603E-05  0.0108
   1.9808E+00   2.0290E+00   3.8654E-05  0.0104
   2.0290E+00   2.0784E+00   3.9773E-05  0.0101
   2.0784E+00   2.1290E+00   4.0466E-05  0.0099
   2.1290E+00   2.1808E+00   4.0692E-05  0.0097
   2.1808E+00   2.2338E+00   4.3194E-05  0.0093
   2.2338E+00   2.2882E+00   4.2914E-05  0.0092
   2.2882E+00   2.3439E+00   4.5643E-05  0.0089
   2.3439E+00   2.4009E+00   4.8438E-05  0.0085
   2.4009E+00   2.4593E+00   4.8519E-05  0.0084
   2.4593E+00   2.5191E+00   4.9536E-05  0.0082
   2.5191E+00   2.5804E+00   5.0186E-05  0.0081
   2.5804E+00   2.6432E+00   5.1431E-05  0.0079
   2.6432E+00   2.7075E+00   5.1960E-05  0.0077
   2.7075E+00   2.7734E+00   5.3791E-05  0.0075
   2.7734E+00   2.8409E+00   5.5886E-05  0.0073
   2.8409E+00   2.9100E+00   5.7956E-05  0.0071
   2.9100E+00   2.9808E+00   5.8220E-05  0.0069
   2.9808E+00   3.0533E+00   5.8599E-05  0.0068
   3.0533E+00   3.1276E+00   5.9237E-05  0.0067
   3.1276E+00   3.2037E+00   5.9914E-05  0.0066
   3.2037E+00   3.2817E+00   6.0621E-05  0.0065
   3.2817E+00   3.3615E+00   6.0438E-05  0.0064
   3.3615E+00   3.4433E+00   6.1932E-05  0.0063
   3.4433E+00   3.5271E+00   6.4206E-05  0.0061
   3.5271E+00   3.6129E+00   6.4294E-05  0.0060
   3.6129E+00   3.7008E+00   6.4304E-05  0.0059
   3.7008E+00   3.7908E+00   6.3912E-05  0.0059
   3.7908E+00   3.8831E+00   6.4308E-05  0.0058
   3.8831E+00   3.9776E+00   6.5147E-05  0.0057
   3.9776E+00   4.0743E+00   6.4781E-05  0.0056
   4.0743E+00   4.1735E+00   6.4456E-05  0.0056
   4.1735E+00   4.2750E+00   6.3145E-05  0.0056
   4.2750E+00   4.3790E+00   6.2274E-05  0.0055
   4.3790E+00   4.4856E+00   6.1355E-05  0.0055
   4.4856E+00   4.5947E+00   6.0548E-05  0.0055
   4.5947E+00   4.7065E+00   6.0538E-05  0.0054
   4.7065E+00   4.8210E+00   6.1145E-05  0.0053
   4.8210E+00   4.9383E+00   5.9680E-05  0.0053
   4.9383E+00   5.0585E+00   5.7954E-05  0.0053
   5.0585E+00   5.1815E+00   5.6475E-05  0.0053
   5.1815E+00   5.3076E+00   5.5118E-05  0.0053
   5.3076E+00   5.4368E+00   5.3488E-05  0.0054
   5.4368E+00   5.5690E+00   5.2454E-05  0.0053
   5.5690E+00   5.7045E+00   5.0777E-05  0.0054
   5.7045E+00   5.8433E+00   4.9936E-05  0.0054
   5.8433E+00   5.9855E+00   4.8989E-05  0.0053
   5.9855E+00   6.1311E+00   4.6814E-05  0.0054
   6.1311E+00   6.2803E+00   4.5327E-05  0.0054
   6.2803E+00   6.4331E+00   4.3886E-05  0.0054
   6.4331E+00   6.5896E+00   4.1775E-05  0.0055
   6.5896E+00   6.7500E+00   4.0582E-05  0.0055
   6.7500E+00   6.9142E+00   3.8582E-05  0.0056
   6.9142E+00   7.0824E+00   3.7696E-05  0.0056
   7.0824E+00   7.2548E+00   3.6233E-05  0.0056
   7.2548E+00   7.4313E+00   3.4742E-05  0.0057
   7.4313E+00   7.6121E+00   3.2877E-05  0.0058
   7.6121E+00   7.7973E+00   3.1951E-05  0.0058
   7.7973E+00   7.9870E+00   3.0395E-05  0.0059
   7.9870E+00   8.1813E+00   2.8844E-05  0.0059
   8.1813E+00   8.3804E+00   2.7981E-05  0.0060
   8.3804E+00   8.5843E+00   2.6217E-05  0.0061
   8.5843E+00   8.7931E+00   2.5129E-05  0.0061
   8.7931E+00   9.0071E+00   2.3879E-05  0.0062
   9.0071E+00   9.2262E+00   2.3280E-05  0.0062
   9.2262E+00   9.4507E+00   2.2092E-05  0.0063
   9.4507E+00   9.6807E+00   2.1063E-05  0.0064
   9.6807E+00   9.9162E+00   2.0292E-05  0.0064
   9.9162E+00   1.0157E+01   1.9294E-05  0.0065
   1.0157E+01   1.0405E+01   1.8481E-05  0.0066
   1.0405E+01   1.0658E+01   1.7679E-05  0.0067
   1.0658E+01   1.0917E+01   1.6868E-05  0.0067
   1.0917E+01   1.1183E+01   1.6269E-05  0.0068
   1.1183E+01   1.1455E+01   1.5587E-05  0.0069
   1.1455E+01   1.1733E+01   1.5159E-05  0.0069
   1.1733E+01   1.2019E+01   1.4421E-05  0.0070
   1.2019E+01   1.2311E+01   1.3941E-05  0.0070
   1.2311E+01   1.2611E+01   1.3254E-05  0.0071
   1.2611E+01   1.2918E+01   1.2732E-05  0.0071
   1.2918E+01   1.3232E+01   1.2332E-05  0.0072
   1.3232E+01   1.3554E+01   1.1915E-05  0.0072
   1.3554E+01   1.3884E+01   1.1427E-05  0.0073
   1.3884E+01   1.4222E+01   1.1108E-05  0.0073
   1.4222E+01   1.4568E+01   1.0717E-05  0.0073
   1.4568E+01   1.4922E+01   1.0223E-05  0.0074
   1.4922E+01   1.5285E+01   9.7215E-06  0.0075
   1.5285E+01   1.5657E+01   9.4248E-06  0.0075
   1.5657E+01   1.6038E+01   9.2024E-06  0.0075
   1.6038E+01   1.6428E+01   8.7802E-06  0.0076
   1.6428E+01   1.6828E+01   8.4064E-06  0.0077
   1.6828E+01   1.7237E+01   8.0771E-06  0.0078
   1.7237E+01   1.7657E+01   7.7678E-06  0.0078
   1.7657E+01   1.8086E+01   7.4096E-06  0.0079
   1.8086E+01   1.8526E+01   7.1096E-06  0.0080
   1.8526E+01   1.8977E+01   6.8664E-06  0.0080
   1.8977E+01   1.9439E+01   6.4902E-06  0.0082
   1.9439E+01   1.9912E+01   6.0997E-06  0.0083
   1.9912E+01   2.0396E+01   5.7537E-06  0.0085
   2.0396E+01   2.0893E+01   5.6644E-06  0.0084
   2.0893E+01   2.1401E+01   5.2887E-06  0.0086
   2.1401E+01   2.1922E+01   4.9587E-06  0.0088
   2.1922E+01   2.2455E+01   4.7367E-06  0.0089
   2.2455E+01   2.3001E+01   4.4140E-06  0.0091
   2.3001E+01   2.3561E+01   4.1334E-06  0.0093
   2.3561E+01   2.4134E+01   3.9019E-06  0.0095
   2.4134E+01   2.4721E+01   3.6178E-06  0.0097
   2.4721E+01   2.5323E+01   3.3337E-06  0.0100
   2.5323E+01   2.5939E+01   3.0750E-06  0.0103
   2.5939E+01   2.6570E+01   2.8679E-06  0.0105
   2.6570E+01   2.7217E+01   2.6454E-06  0.0108
   2.7217E+01   2.7879E+01   2.4107E-06  0.0112
   2.7879E+01   2.8557E+01   2.1792E-06  0.0116
   2.8557E+01   2.9252E+01   2.0051E-06  0.0120
   2.9252E+01   2.9964E+01   1.7498E-06  0.0127
   2.9964E+01   3.0693E+01   1.5856E-06  0.0132
   3.0693E+01   3.1440E+01   1.4355E-06  0.0137
   3.1440E+01   3.2205E+01   1.2986E-06  0.0142
   3.2205E+01   3.2988E+01   1.1348E-06  0.0150
   3.2988E+01   3.3791E+01   9.5138E-07  0.0162
   3.3791E+01   3.4613E+01   8.5483E-07  0.0169
   3.4613E+01   3.5455E+01   7.2932E-07  0.0180
   3.5455E+01   3.6318E+01   6.0720E-07  0.0195
   3.6318E+01   3.7201E+01   5.1809E-07  0.0209
   3.7201E+01   3.8106E+01   4.0635E-07  0.0233
   3.8106E+01   3.9034E+01   3.4600E-07  0.0250
   3.9034E+01   3.9983E+01   2.8514E-07  0.0272
   3.9983E+01   4.0956E+01   2.1175E-07  0.0312
   4.0956E+01   4.1953E+01   1.6217E-07  0.0352
   4.1953E+01   4.2973E+01   1.2285E-07  0.0399
   4.2973E+01   4.4019E+01   8.3782E-08  0.0478
   4.4019E+01   4.5090E+01   5.2660E-08  0.0595
   4.5090E+01   4.6187E+01   2.8075E-08  0.0806
   4.6187E+01   4.7311E+01   1.6551E-08  0.1037
   4.7311E+01   4.8462E+01   6.4286E-09  0.1644
   4.8462E+01   4.9641E+01   1.1873E-09  0.3780
   4.9641E+01   5.0849E+01   0.0000E+00  0.0000
   5.0849E+01   5.2086E+01   0.0000E+00  0.0000
   5.2086E+01   5.3353E+01   0.0000E+00  0.0000
   5.3353E+01   5.4651E+01   0.0000E+00  0.0000
   5.4651E+01   5.5981E+01   0.0000E+00  0.0000
   5.5981E+01   5.7343E+01   0.0000E+00  0.0000
   5.7343E+01   5.8738E+01   0.0000E+00  0.0000
   5.8738E+01   6.0168E+01   0.0000E+00  0.0000
   6.0168E+01   6.1632E+01   0.0000E+00  0.0000
   6.1632E+01   6.3131E+01   0.0000E+00  0.0000
   6.3131E+01   6.4667E+01   0.0000E+00  0.0000
   6.4667E+01   6.6240E+01   0.0000E+00  0.0000
   6.6240E+01   6.7852E+01   0.0000E+00  0.0000
   6.7852E+01   6.9503E+01   0.0000E+00  0.0000
   6.9503E+01   7.1194E+01   0.0000E+00  0.0000
   7.1194E+01   7.2926E+01   0.0000E+00  0.0000
   7.2926E+01   7.4701E+01   0.0000E+00  0.0000
   7.4701E+01   7.6518E+01   0.0000E+00  0.0000
   7.6518E+01   7.8380E+01   0.0000E+00  0.0000
   7.8380E+01   8.0287E+01   0.0000E+00  0.0000
   8.0287E+01   8.2240E+01   0.0000E+00  0.0000
   8.2240E+01   8.4241E+01   0.0000E+00  0.0000
   8.4241E+01   8.6291E+01   0.0000E+00  0.0000
   8.6291E+01   8.8391E+01   0.0000E+00  0.0000
   8.8391E+01   9.0541E+01   0.0000E+00  0.0000
   9.0541E+01   9.2744E+01   0.0000E+00  0.0000
   9.2744E+01   9.5001E+01   0.0000E+00  0.0000
   9.5001E+01   9.7312E+01   0.0000E+00  0.0000
   9.7312E+01   9.9680E+01   0.0000E+00  0.0000
   9.9680E+01   1.0211E+02   0.0000E+00  0.0000
   1.0211E+02   1.0459E+02   0.0000E+00  0.0000
   1.0459E+02   1.0713E+02   0.0000E+00  0.0000
   1.0713E+02   1.0974E+02   0.0000E+00  0.0000
   1.0974E+02   1.1241E+02   0.0000E+00  0.0000
   1.1241E+02   1.1515E+02   0.0000E+00  0.0000
   1.1515E+02   1.1795E+02   0.0000E+00  0.0000
   1.1795E+02   1.2082E+02   0.0000E+00  0.0000
   1.2082E+02   1.2376E+02   0.0000E+00  0.0000
   1.2376E+02   1.2677E+02   0.0000E+00  0.0000
   1.2677E+02   1.2985E+02   0.0000E+00  0.0000
   1.2985E+02   1.3301E+02   0.0000E+00  0.0000
   1.3301E+02   1.3625E+02   0.0000E+00  0.0000
   1.3625E+02   1.3956E+02   0.0000E+00  0.0000
   1.3956E+02   1.4296E+02   0.0000E+00  0.0000
   1.4296E+02   1.4644E+02   0.0000E+00  0.0000
   1.4644E+02   1.5000E+02   0.0000E+00  0.0000

#   sum over                 3.7390E-06
'no. =    1   reg = 113 - 213'
msuc: {\huge [t-cross] in region mesh}
msdr: {\it plotted by \ANGEL \version}
msdl: {\it calculated by \PHITS  3.26}
wt: s(0.7)
\vspace{-3}
  region surface crossing
  area  &=&   1.0000E+00 [cm^2]
e:
 
# Information for Restart Calculation
# This calculation was newly started
# istdev =  2 # 1:Batch variance, 2:History variance
# resc2  = 5.00000000000000000E+09 # Total source weight or Total source weight / maxcas
# resc3  = 5.00000000000000000E+09 # Total history number or Total batch number
# maxcas =   100000000 # History / Batch, only used for istdev=1
# bitrseed = 0110100000100010111000001110001111001110100100011111101000111001 # bit data of rseed
