[ T-Cross ]
    title = [t-cross] in region mesh
     mesh =  reg            # mesh type is region-wise
      reg =    1            # number of crossing regions
      non     r-from    r-to       area
      1       105       205        1.000000    
   e-type =    3            # e-mesh is log given by emin, emax and ne
     emin =  1.0000000E-02  # minimum value of e-mesh points
     emax =   150.0000      # maximum value of e-mesh points
#    edel =  2.4039514E-02  # mesh width of e-mesh points
       ne =    400          # number of e-mesh points
#    data = ( e(i), i = 1, ne + 1 )
#           1.00000E-02  1.02433E-02  1.04925E-02  1.07478E-02  1.10093E-02
#           1.12772E-02  1.15516E-02  1.18326E-02  1.21205E-02  1.24154E-02
#           1.27175E-02  1.30269E-02  1.33439E-02  1.36686E-02  1.40011E-02
#           1.43418E-02  1.46907E-02  1.50482E-02  1.54143E-02  1.57894E-02
#           1.61735E-02  1.65670E-02  1.69701E-02  1.73830E-02  1.78060E-02
#           1.82392E-02  1.86830E-02  1.91375E-02  1.96032E-02  2.00801E-02
#           2.05687E-02  2.10692E-02  2.15818E-02  2.21069E-02  2.26448E-02
#           2.31957E-02  2.37601E-02  2.43382E-02  2.49304E-02  2.55369E-02
#           2.61583E-02  2.67947E-02  2.74467E-02  2.81145E-02  2.87985E-02
#           2.94992E-02  3.02169E-02  3.09521E-02  3.17052E-02  3.24766E-02
#           3.32668E-02  3.40762E-02  3.49053E-02  3.57546E-02  3.66246E-02
#           3.75157E-02  3.84284E-02  3.93634E-02  4.03212E-02  4.13022E-02
#           4.23071E-02  4.33365E-02  4.43909E-02  4.54710E-02  4.65773E-02
#           4.77106E-02  4.88714E-02  5.00605E-02  5.12785E-02  5.25262E-02
#           5.38042E-02  5.51133E-02  5.64542E-02  5.78278E-02  5.92348E-02
#           6.06760E-02  6.21523E-02  6.36645E-02  6.52135E-02  6.68002E-02
#           6.84255E-02  7.00904E-02  7.17957E-02  7.35426E-02  7.53319E-02
#           7.71648E-02  7.90423E-02  8.09655E-02  8.29354E-02  8.49533E-02
#           8.70203E-02  8.91376E-02  9.13064E-02  9.35279E-02  9.58035E-02
#           9.81345E-02  1.00522E-01  1.02968E-01  1.05473E-01  1.08040E-01
#           1.10668E-01  1.13361E-01  1.16119E-01  1.18944E-01  1.21838E-01
#           1.24803E-01  1.27839E-01  1.30950E-01  1.34136E-01  1.37399E-01
#           1.40742E-01  1.44167E-01  1.47675E-01  1.51268E-01  1.54948E-01
#           1.58718E-01  1.62580E-01  1.66535E-01  1.70587E-01  1.74738E-01
#           1.78989E-01  1.83344E-01  1.87805E-01  1.92375E-01  1.97055E-01
#           2.01850E-01  2.06761E-01  2.11792E-01  2.16945E-01  2.22223E-01
#           2.27630E-01  2.33169E-01  2.38842E-01  2.44653E-01  2.50605E-01
#           2.56703E-01  2.62949E-01  2.69346E-01  2.75900E-01  2.82613E-01
#           2.89489E-01  2.96532E-01  3.03747E-01  3.11138E-01  3.18708E-01
#           3.26462E-01  3.34405E-01  3.42542E-01  3.50876E-01  3.59413E-01
#           3.68158E-01  3.77116E-01  3.86291E-01  3.95690E-01  4.05317E-01
#           4.15179E-01  4.25281E-01  4.35628E-01  4.46227E-01  4.57084E-01
#           4.68205E-01  4.79597E-01  4.91266E-01  5.03219E-01  5.15463E-01
#           5.28005E-01  5.40851E-01  5.54011E-01  5.67490E-01  5.81298E-01
#           5.95441E-01  6.09929E-01  6.24769E-01  6.39970E-01  6.55541E-01
#           6.71491E-01  6.87828E-01  7.04564E-01  7.21706E-01  7.39266E-01
#           7.57253E-01  7.75678E-01  7.94551E-01  8.13883E-01  8.33685E-01
#           8.53969E-01  8.74747E-01  8.96030E-01  9.17831E-01  9.40163E-01
#           9.63038E-01  9.86469E-01  1.01047E+00  1.03506E+00  1.06024E+00
#           1.08604E+00  1.11246E+00  1.13953E+00  1.16725E+00  1.19565E+00
#           1.22474E+00  1.25454E+00  1.28507E+00  1.31633E+00  1.34836E+00
#           1.38117E+00  1.41477E+00  1.44920E+00  1.48446E+00  1.52057E+00
#           1.55757E+00  1.59547E+00  1.63429E+00  1.67405E+00  1.71478E+00
#           1.75650E+00  1.79924E+00  1.84302E+00  1.88786E+00  1.93379E+00
#           1.98084E+00  2.02904E+00  2.07841E+00  2.12898E+00  2.18078E+00
#           2.23384E+00  2.28819E+00  2.34386E+00  2.40089E+00  2.45930E+00
#           2.51914E+00  2.58043E+00  2.64322E+00  2.70753E+00  2.77341E+00
#           2.84088E+00  2.91001E+00  2.98081E+00  3.05333E+00  3.12762E+00
#           3.20372E+00  3.28167E+00  3.36152E+00  3.44330E+00  3.52708E+00
#           3.61290E+00  3.70080E+00  3.79085E+00  3.88308E+00  3.97756E+00
#           4.07434E+00  4.17347E+00  4.27501E+00  4.37903E+00  4.48557E+00
#           4.59471E+00  4.70650E+00  4.82102E+00  4.93832E+00  5.05847E+00
#           5.18155E+00  5.30762E+00  5.43676E+00  5.56904E+00  5.70453E+00
#           5.84333E+00  5.98550E+00  6.13114E+00  6.28031E+00  6.43312E+00
#           6.58964E+00  6.74997E+00  6.91420E+00  7.08243E+00  7.25475E+00
#           7.43126E+00  7.61207E+00  7.79728E+00  7.98700E+00  8.18133E+00
#           8.38038E+00  8.58428E+00  8.79315E+00  9.00709E+00  9.22624E+00
#           9.45072E+00  9.68067E+00  9.91620E+00  1.01575E+01  1.04046E+01
#           1.06578E+01  1.09171E+01  1.11827E+01  1.14548E+01  1.17335E+01
#           1.20190E+01  1.23114E+01  1.26109E+01  1.29178E+01  1.32321E+01
#           1.35540E+01  1.38838E+01  1.42216E+01  1.45676E+01  1.49221E+01
#           1.52851E+01  1.56570E+01  1.60380E+01  1.64282E+01  1.68279E+01
#           1.72374E+01  1.76568E+01  1.80864E+01  1.85264E+01  1.89772E+01
#           1.94389E+01  1.99119E+01  2.03963E+01  2.08926E+01  2.14009E+01
#           2.19216E+01  2.24550E+01  2.30014E+01  2.35610E+01  2.41343E+01
#           2.47215E+01  2.53230E+01  2.59391E+01  2.65702E+01  2.72167E+01
#           2.78789E+01  2.85572E+01  2.92520E+01  2.99637E+01  3.06928E+01
#           3.14396E+01  3.22045E+01  3.29881E+01  3.37907E+01  3.46128E+01
#           3.54550E+01  3.63177E+01  3.72013E+01  3.81064E+01  3.90336E+01
#           3.99833E+01  4.09561E+01  4.19526E+01  4.29734E+01  4.40189E+01
#           4.50900E+01  4.61870E+01  4.73108E+01  4.84619E+01  4.96410E+01
#           5.08488E+01  5.20860E+01  5.33533E+01  5.46514E+01  5.59812E+01
#           5.73432E+01  5.87384E+01  6.01676E+01  6.16315E+01  6.31311E+01
#           6.46671E+01  6.62405E+01  6.78522E+01  6.95031E+01  7.11941E+01
#           7.29263E+01  7.47007E+01  7.65182E+01  7.83800E+01  8.02870E+01
#           8.22405E+01  8.42414E+01  8.62911E+01  8.83906E+01  9.05412E+01
#           9.27442E+01  9.50007E+01  9.73122E+01  9.96799E+01  1.02105E+02
#           1.04589E+02  1.07134E+02  1.09741E+02  1.12411E+02  1.15146E+02
#           1.17948E+02  1.20817E+02  1.23757E+02  1.26768E+02  1.29852E+02
#           1.33012E+02  1.36248E+02  1.39563E+02  1.42959E+02  1.46437E+02
#           1.50000E+02
     unit =    2            # unit is [1/cm^2/(MeV/n)/source]
     axis =  eng            # axis of output
     file = detector-06.out  # file name of output for the above axis
   output = f-curr          # surface crossing forward current spectrum
     part =  neutron  
# kf/name :  2112     
#    used :        main (  %)        temp (  %)       total (  %)
#  memory :         414 (  0)           0 (  0)         414 (  0)

#------------------------------------------------------------------------------
#newpage:
#   no. =    1   reg = 105 - 205

x: Energy [MeV/n]
y:  F-Curr [1/cm^2/(MeV/n)/source]         
p: xlog ylog afac(0.8) form(0.9)
h: n            x            y(neutron ),hh0l   n 
#  e-lower      e-upper      neutron     r.err 
   1.0000E-02   1.0243E-02   6.9596E-04  0.0627
   1.0243E-02   1.0493E-02   6.6071E-04  0.0636
   1.0493E-02   1.0748E-02   6.4763E-04  0.0635
   1.0748E-02   1.1009E-02   6.6538E-04  0.0619
   1.1009E-02   1.1277E-02   6.9189E-04  0.0600
   1.1277E-02   1.1552E-02   6.6088E-04  0.0606
   1.1552E-02   1.1833E-02   6.3095E-04  0.0613
   1.1833E-02   1.2121E-02   6.6690E-04  0.0589
   1.2121E-02   1.2415E-02   6.9854E-04  0.0569
   1.2415E-02   1.2718E-02   7.1946E-04  0.0554
   1.2718E-02   1.3027E-02   6.3343E-04  0.0583
   1.3027E-02   1.3344E-02   6.4573E-04  0.0571
   1.3344E-02   1.3669E-02   5.7084E-04  0.0600
   1.3669E-02   1.4001E-02   6.9359E-04  0.0538
   1.4001E-02   1.4342E-02   7.7693E-04  0.0502
   1.4342E-02   1.4691E-02   7.6994E-04  0.0498
   1.4691E-02   1.5048E-02   6.5093E-04  0.0535
   1.5048E-02   1.5414E-02   6.7917E-04  0.0518
   1.5414E-02   1.5789E-02   7.2347E-04  0.0496
   1.5789E-02   1.6174E-02   7.3405E-04  0.0486
   1.6174E-02   1.6567E-02   7.3695E-04  0.0479
   1.6567E-02   1.6970E-02   7.2937E-04  0.0476
   1.6970E-02   1.7383E-02   7.6371E-04  0.0460
   1.7383E-02   1.7806E-02   8.0704E-04  0.0442
   1.7806E-02   1.8239E-02   7.5094E-04  0.0453
   1.8239E-02   1.8683E-02   7.2710E-04  0.0455
   1.8683E-02   1.9138E-02   7.6996E-04  0.0436
   1.9138E-02   1.9603E-02   7.7028E-04  0.0431
   1.9603E-02   2.0080E-02   7.3102E-04  0.0437
   2.0080E-02   2.0569E-02   7.6278E-04  0.0423
   2.0569E-02   2.1069E-02   8.1127E-04  0.0405
   2.1069E-02   2.1582E-02   7.8809E-04  0.0406
   2.1582E-02   2.2107E-02   8.3285E-04  0.0390
   2.2107E-02   2.2645E-02   7.7341E-04  0.0400
   2.2645E-02   2.3196E-02   7.9134E-04  0.0391
   2.3196E-02   2.3760E-02   8.3279E-04  0.0377
   2.3760E-02   2.4338E-02   8.2915E-04  0.0373
   2.4338E-02   2.4930E-02   8.5787E-04  0.0362
   2.4930E-02   2.5537E-02   8.4848E-04  0.0360
   2.5537E-02   2.6158E-02   8.6695E-04  0.0352
   2.6158E-02   2.6795E-02   8.1389E-04  0.0359
   2.6795E-02   2.7447E-02   8.4466E-04  0.0348
   2.7447E-02   2.8114E-02   8.2061E-04  0.0349
   2.8114E-02   2.8799E-02   9.2196E-04  0.0325
   2.8799E-02   2.9499E-02   8.5059E-04  0.0334
   2.9499E-02   3.0217E-02   8.6568E-04  0.0328
   3.0217E-02   3.0952E-02   8.8774E-04  0.0320
   3.0952E-02   3.1705E-02   8.8170E-04  0.0317
   3.1705E-02   3.2477E-02   8.4607E-04  0.0320
   3.2477E-02   3.3267E-02   8.9093E-04  0.0308
   3.3267E-02   3.4076E-02   9.5749E-04  0.0293
   3.4076E-02   3.4905E-02   9.1062E-04  0.0297
   3.4905E-02   3.5755E-02   9.1137E-04  0.0293
   3.5755E-02   3.6625E-02   9.5639E-04  0.0283
   3.6625E-02   3.7516E-02   8.9926E-04  0.0288
   3.7516E-02   3.8428E-02   9.3195E-04  0.0280
   3.8428E-02   3.9363E-02   8.9412E-04  0.0282
   3.9363E-02   4.0321E-02   9.3553E-04  0.0273
   4.0321E-02   4.1302E-02   1.0349E-03  0.0256
   4.1302E-02   4.2307E-02   9.6592E-04  0.0262
   4.2307E-02   4.3337E-02   9.6694E-04  0.0259
   4.3337E-02   4.4391E-02   9.5029E-04  0.0258
   4.4391E-02   4.5471E-02   9.7278E-04  0.0252
   4.5471E-02   4.6577E-02   9.5570E-04  0.0251
   4.6577E-02   4.7711E-02   9.5594E-04  0.0248
   4.7711E-02   4.8871E-02   1.0171E-03  0.0238
   4.8871E-02   5.0061E-02   9.7891E-04  0.0239
   5.0061E-02   5.1279E-02   1.0137E-03  0.0232
   5.1279E-02   5.2526E-02   9.6662E-04  0.0235
   5.2526E-02   5.3804E-02   1.0188E-03  0.0226
   5.3804E-02   5.5113E-02   1.0272E-03  0.0223
   5.5113E-02   5.6454E-02   1.0227E-03  0.0220
   5.6454E-02   5.7828E-02   1.0270E-03  0.0217
   5.7828E-02   5.9235E-02   1.0514E-03  0.0212
   5.9235E-02   6.0676E-02   1.0713E-03  0.0208
   6.0676E-02   6.2152E-02   1.0490E-03  0.0207
   6.2152E-02   6.3665E-02   1.0638E-03  0.0204
   6.3665E-02   6.5214E-02   1.0501E-03  0.0202
   6.5214E-02   6.6800E-02   1.0559E-03  0.0199
   6.6800E-02   6.8426E-02   1.1177E-03  0.0192
   6.8426E-02   7.0090E-02   1.0912E-03  0.0192
   7.0090E-02   7.1796E-02   1.1177E-03  0.0187
   7.1796E-02   7.3543E-02   1.1029E-03  0.0186
   7.3543E-02   7.5332E-02   1.1453E-03  0.0180
   7.5332E-02   7.7165E-02   1.0846E-03  0.0183
   7.7165E-02   7.9042E-02   1.1221E-03  0.0178
   7.9042E-02   8.0965E-02   1.1082E-03  0.0177
   8.0965E-02   8.2935E-02   1.1330E-03  0.0173
   8.2935E-02   8.4953E-02   1.1296E-03  0.0171
   8.4953E-02   8.7020E-02   1.1366E-03  0.0168
   8.7020E-02   8.9138E-02   1.1332E-03  0.0167
   8.9138E-02   9.1306E-02   1.1377E-03  0.0164
   9.1306E-02   9.3528E-02   1.1352E-03  0.0163
   9.3528E-02   9.5804E-02   1.1598E-03  0.0159
   9.5804E-02   9.8134E-02   1.1643E-03  0.0157
   9.8134E-02   1.0052E-01   1.1537E-03  0.0156
   1.0052E-01   1.0297E-01   1.1500E-03  0.0154
   1.0297E-01   1.0547E-01   1.1381E-03  0.0153
   1.0547E-01   1.0804E-01   1.2163E-03  0.0146
   1.0804E-01   1.1067E-01   1.1608E-03  0.0148
   1.1067E-01   1.1336E-01   1.1419E-03  0.0147
   1.1336E-01   1.1612E-01   1.1752E-03  0.0143
   1.1612E-01   1.1894E-01   1.1669E-03  0.0142
   1.1894E-01   1.2184E-01   1.2063E-03  0.0138
   1.2184E-01   1.2480E-01   1.1933E-03  0.0137
   1.2480E-01   1.2784E-01   1.2065E-03  0.0135
   1.2784E-01   1.3095E-01   1.1874E-03  0.0134
   1.3095E-01   1.3414E-01   1.2117E-03  0.0131
   1.3414E-01   1.3740E-01   1.1850E-03  0.0131
   1.3740E-01   1.4074E-01   1.2157E-03  0.0128
   1.4074E-01   1.4417E-01   1.2070E-03  0.0127
   1.4417E-01   1.4767E-01   1.2447E-03  0.0124
   1.4767E-01   1.5127E-01   1.2218E-03  0.0123
   1.5127E-01   1.5495E-01   1.2018E-03  0.0123
   1.5495E-01   1.5872E-01   1.1924E-03  0.0122
   1.5872E-01   1.6258E-01   1.2247E-03  0.0119
   1.6258E-01   1.6654E-01   1.2266E-03  0.0117
   1.6654E-01   1.7059E-01   1.2360E-03  0.0115
   1.7059E-01   1.7474E-01   1.2347E-03  0.0114
   1.7474E-01   1.7899E-01   1.2182E-03  0.0113
   1.7899E-01   1.8334E-01   1.2191E-03  0.0112
   1.8334E-01   1.8781E-01   1.2018E-03  0.0112
   1.8781E-01   1.9237E-01   1.2388E-03  0.0109
   1.9237E-01   1.9706E-01   1.1879E-03  0.0110
   1.9706E-01   2.0185E-01   1.1998E-03  0.0108
   2.0185E-01   2.0676E-01   1.2149E-03  0.0106
   2.0676E-01   2.1179E-01   1.2000E-03  0.0105
   2.1179E-01   2.1694E-01   1.2008E-03  0.0104
   2.1694E-01   2.2222E-01   1.2212E-03  0.0102
   2.2222E-01   2.2763E-01   1.1944E-03  0.0102
   2.2763E-01   2.3317E-01   1.2043E-03  0.0100
   2.3317E-01   2.3884E-01   1.2079E-03  0.0099
   2.3884E-01   2.4465E-01   1.1766E-03  0.0099
   2.4465E-01   2.5061E-01   1.1947E-03  0.0097
   2.5061E-01   2.5670E-01   1.1850E-03  0.0096
   2.5670E-01   2.6295E-01   1.1703E-03  0.0096
   2.6295E-01   2.6935E-01   1.1935E-03  0.0093
   2.6935E-01   2.7590E-01   1.1798E-03  0.0093
   2.7590E-01   2.8261E-01   1.1470E-03  0.0093
   2.8261E-01   2.8949E-01   1.1543E-03  0.0092
   2.8949E-01   2.9653E-01   1.1451E-03  0.0091
   2.9653E-01   3.0375E-01   1.1283E-03  0.0091
   3.0375E-01   3.1114E-01   1.1439E-03  0.0089
   3.1114E-01   3.1871E-01   1.1231E-03  0.0089
   3.1871E-01   3.2646E-01   1.1169E-03  0.0088
   3.2646E-01   3.3441E-01   1.1275E-03  0.0086
   3.3441E-01   3.4254E-01   1.1068E-03  0.0086
   3.4254E-01   3.5088E-01   1.0969E-03  0.0085
   3.5088E-01   3.5941E-01   1.0959E-03  0.0084
   3.5941E-01   3.6816E-01   1.0831E-03  0.0084
   3.6816E-01   3.7712E-01   1.0578E-03  0.0084
   3.7712E-01   3.8629E-01   1.0365E-03  0.0084
   3.8629E-01   3.9569E-01   1.0466E-03  0.0082
   3.9569E-01   4.0532E-01   1.0348E-03  0.0082
   4.0532E-01   4.1518E-01   1.0295E-03  0.0081
   4.1518E-01   4.2528E-01   1.0150E-03  0.0081
   4.2528E-01   4.3563E-01   9.9838E-04  0.0080
   4.3563E-01   4.4623E-01   9.8706E-04  0.0080
   4.4623E-01   4.5708E-01   9.6472E-04  0.0080
   4.5708E-01   4.6821E-01   9.5841E-04  0.0079
   4.6821E-01   4.7960E-01   9.4811E-04  0.0079
   4.7960E-01   4.9127E-01   9.2924E-04  0.0078
   4.9127E-01   5.0322E-01   9.1665E-04  0.0078
   5.0322E-01   5.1546E-01   8.9973E-04  0.0078
   5.1546E-01   5.2800E-01   8.8479E-04  0.0078
   5.2800E-01   5.4085E-01   8.6341E-04  0.0078
   5.4085E-01   5.5401E-01   8.4391E-04  0.0077
   5.5401E-01   5.6749E-01   8.3178E-04  0.0077
   5.6749E-01   5.8130E-01   8.1854E-04  0.0077
   5.8130E-01   5.9544E-01   8.0810E-04  0.0076
   5.9544E-01   6.0993E-01   7.7358E-04  0.0077
   6.0993E-01   6.2477E-01   7.5993E-04  0.0077
   6.2477E-01   6.3997E-01   7.4508E-04  0.0077
   6.3997E-01   6.5554E-01   7.3269E-04  0.0076
   6.5554E-01   6.7149E-01   7.1767E-04  0.0076
   6.7149E-01   6.8783E-01   6.8756E-04  0.0077
   6.8783E-01   7.0456E-01   6.8262E-04  0.0076
   7.0456E-01   7.2171E-01   6.5463E-04  0.0077
   7.2171E-01   7.3927E-01   6.3278E-04  0.0077
   7.3927E-01   7.5725E-01   6.2229E-04  0.0077
   7.5725E-01   7.7568E-01   5.9562E-04  0.0078
   7.7568E-01   7.9455E-01   5.6840E-04  0.0079
   7.9455E-01   8.1388E-01   5.5933E-04  0.0079
   8.1388E-01   8.3368E-01   5.3583E-04  0.0079
   8.3368E-01   8.5397E-01   5.2050E-04  0.0079
   8.5397E-01   8.7475E-01   4.9447E-04  0.0081
   8.7475E-01   8.9603E-01   4.6487E-04  0.0082
   8.9603E-01   9.1783E-01   4.4750E-04  0.0083
   9.1783E-01   9.4016E-01   4.2947E-04  0.0083
   9.4016E-01   9.6304E-01   4.0845E-04  0.0084
   9.6304E-01   9.8647E-01   3.8128E-04  0.0086
   9.8647E-01   1.0105E+00   3.6964E-04  0.0087
   1.0105E+00   1.0351E+00   3.6455E-04  0.0086
   1.0351E+00   1.0602E+00   3.5954E-04  0.0086
   1.0602E+00   1.0860E+00   3.6506E-04  0.0084
   1.0860E+00   1.1125E+00   3.6931E-04  0.0083
   1.1125E+00   1.1395E+00   3.6980E-04  0.0082
   1.1395E+00   1.1673E+00   3.7472E-04  0.0080
   1.1673E+00   1.1957E+00   3.8192E-04  0.0078
   1.1957E+00   1.2247E+00   3.9036E-04  0.0077
   1.2247E+00   1.2545E+00   3.7939E-04  0.0077
   1.2545E+00   1.2851E+00   3.7330E-04  0.0077
   1.2851E+00   1.3163E+00   3.7013E-04  0.0076
   1.3163E+00   1.3484E+00   3.6964E-04  0.0075
   1.3484E+00   1.3812E+00   3.6688E-04  0.0074
   1.3812E+00   1.4148E+00   3.7226E-04  0.0073
   1.4148E+00   1.4492E+00   3.6838E-04  0.0073
   1.4492E+00   1.4845E+00   3.6508E-04  0.0072
   1.4845E+00   1.5206E+00   3.5012E-04  0.0073
   1.5206E+00   1.5576E+00   3.5063E-04  0.0072
   1.5576E+00   1.5955E+00   3.3934E-04  0.0072
   1.5955E+00   1.6343E+00   3.4152E-04  0.0071
   1.6343E+00   1.6741E+00   3.3703E-04  0.0071
   1.6741E+00   1.7148E+00   3.3621E-04  0.0070
   1.7148E+00   1.7565E+00   3.3416E-04  0.0069
   1.7565E+00   1.7992E+00   3.2039E-04  0.0070
   1.7992E+00   1.8430E+00   3.1307E-04  0.0070
   1.8430E+00   1.8879E+00   3.0011E-04  0.0070
   1.8879E+00   1.9338E+00   2.9279E-04  0.0070
   1.9338E+00   1.9808E+00   2.9059E-04  0.0070
   1.9808E+00   2.0290E+00   2.8756E-04  0.0069
   2.0290E+00   2.0784E+00   2.7913E-04  0.0070
   2.0784E+00   2.1290E+00   2.6736E-04  0.0070
   2.1290E+00   2.1808E+00   2.5561E-04  0.0071
   2.1808E+00   2.2338E+00   2.4783E-04  0.0071
   2.2338E+00   2.2882E+00   2.4144E-04  0.0071
   2.2882E+00   2.3439E+00   2.3433E-04  0.0072
   2.3439E+00   2.4009E+00   2.2743E-04  0.0072
   2.4009E+00   2.4593E+00   2.2107E-04  0.0072
   2.4593E+00   2.5191E+00   2.1244E-04  0.0072
   2.5191E+00   2.5804E+00   2.0132E-04  0.0074
   2.5804E+00   2.6432E+00   1.9279E-04  0.0074
   2.6432E+00   2.7075E+00   1.8770E-04  0.0074
   2.7075E+00   2.7734E+00   1.7648E-04  0.0076
   2.7734E+00   2.8409E+00   1.6864E-04  0.0077
   2.8409E+00   2.9100E+00   1.6695E-04  0.0076
   2.9100E+00   2.9808E+00   1.5749E-04  0.0077
   2.9808E+00   3.0533E+00   1.5256E-04  0.0078
   3.0533E+00   3.1276E+00   1.4502E-04  0.0079
   3.1276E+00   3.2037E+00   1.3555E-04  0.0080
   3.2037E+00   3.2817E+00   1.2915E-04  0.0081
   3.2817E+00   3.3615E+00   1.2395E-04  0.0082
   3.3615E+00   3.4433E+00   1.1575E-04  0.0084
   3.4433E+00   3.5271E+00   1.1194E-04  0.0084
   3.5271E+00   3.6129E+00   1.0510E-04  0.0086
   3.6129E+00   3.7008E+00   1.0263E-04  0.0086
   3.7008E+00   3.7908E+00   9.6983E-05  0.0087
   3.7908E+00   3.8831E+00   9.0863E-05  0.0089
   3.8831E+00   3.9776E+00   8.7456E-05  0.0090
   3.9776E+00   4.0743E+00   8.4490E-05  0.0090
   4.0743E+00   4.1735E+00   7.9228E-05  0.0092
   4.1735E+00   4.2750E+00   7.6243E-05  0.0093
   4.2750E+00   4.3790E+00   7.3086E-05  0.0094
   4.3790E+00   4.4856E+00   6.8509E-05  0.0096
   4.4856E+00   4.5947E+00   6.4836E-05  0.0097
   4.5947E+00   4.7065E+00   6.2204E-05  0.0098
   4.7065E+00   4.8210E+00   6.0162E-05  0.0098
   4.8210E+00   4.9383E+00   5.6499E-05  0.0100
   4.9383E+00   5.0585E+00   5.4969E-05  0.0100
   5.0585E+00   5.1815E+00   5.2477E-05  0.0102
   5.1815E+00   5.3076E+00   5.0733E-05  0.0102
   5.3076E+00   5.4368E+00   4.8274E-05  0.0103
   5.4368E+00   5.5690E+00   4.7344E-05  0.0103
   5.5690E+00   5.7045E+00   4.5260E-05  0.0104
   5.7045E+00   5.8433E+00   4.4065E-05  0.0104
   5.8433E+00   5.9855E+00   4.2812E-05  0.0105
   5.9855E+00   6.1311E+00   4.2065E-05  0.0104
   6.1311E+00   6.2803E+00   4.0203E-05  0.0105
   6.2803E+00   6.4331E+00   3.9610E-05  0.0105
   6.4331E+00   6.5896E+00   3.9164E-05  0.0104
   6.5896E+00   6.7500E+00   3.8279E-05  0.0104
   6.7500E+00   6.9142E+00   3.8281E-05  0.0103
   6.9142E+00   7.0824E+00   3.7943E-05  0.0102
   7.0824E+00   7.2548E+00   3.6801E-05  0.0103
   7.2548E+00   7.4313E+00   3.6520E-05  0.0102
   7.4313E+00   7.6121E+00   3.6569E-05  0.0100
   7.6121E+00   7.7973E+00   3.5915E-05  0.0100
   7.7973E+00   7.9870E+00   3.6156E-05  0.0099
   7.9870E+00   8.1813E+00   3.6117E-05  0.0097
   8.1813E+00   8.3804E+00   3.6202E-05  0.0096
   8.3804E+00   8.5843E+00   3.6235E-05  0.0095
   8.5843E+00   8.7931E+00   3.5516E-05  0.0095
   8.7931E+00   9.0071E+00   3.5593E-05  0.0094
   9.0071E+00   9.2262E+00   3.6056E-05  0.0092
   9.2262E+00   9.4507E+00   3.6105E-05  0.0091
   9.4507E+00   9.6807E+00   3.6492E-05  0.0089
   9.6807E+00   9.9162E+00   3.6794E-05  0.0088
   9.9162E+00   1.0157E+01   3.6468E-05  0.0087
   1.0157E+01   1.0405E+01   3.7345E-05  0.0085
   1.0405E+01   1.0658E+01   3.7356E-05  0.0084
   1.0658E+01   1.0917E+01   3.8102E-05  0.0082
   1.0917E+01   1.1183E+01   3.8510E-05  0.0081
   1.1183E+01   1.1455E+01   3.8765E-05  0.0080
   1.1455E+01   1.1733E+01   3.9354E-05  0.0078
   1.1733E+01   1.2019E+01   4.0042E-05  0.0076
   1.2019E+01   1.2311E+01   4.0428E-05  0.0075
   1.2311E+01   1.2611E+01   4.0896E-05  0.0074
   1.2611E+01   1.2918E+01   4.1805E-05  0.0072
   1.2918E+01   1.3232E+01   4.1683E-05  0.0071
   1.3232E+01   1.3554E+01   4.3243E-05  0.0069
   1.3554E+01   1.3884E+01   4.3524E-05  0.0068
   1.3884E+01   1.4222E+01   4.3912E-05  0.0067
   1.4222E+01   1.4568E+01   4.4746E-05  0.0066
   1.4568E+01   1.4922E+01   4.5846E-05  0.0064
   1.4922E+01   1.5285E+01   4.6442E-05  0.0063
   1.5285E+01   1.5657E+01   4.7166E-05  0.0062
   1.5657E+01   1.6038E+01   4.7537E-05  0.0061
   1.6038E+01   1.6428E+01   4.7957E-05  0.0060
   1.6428E+01   1.6828E+01   4.9054E-05  0.0058
   1.6828E+01   1.7237E+01   4.9754E-05  0.0057
   1.7237E+01   1.7657E+01   5.0326E-05  0.0056
   1.7657E+01   1.8086E+01   5.0443E-05  0.0055
   1.8086E+01   1.8526E+01   5.1706E-05  0.0054
   1.8526E+01   1.8977E+01   5.2167E-05  0.0053
   1.8977E+01   1.9439E+01   5.2313E-05  0.0053
   1.9439E+01   1.9912E+01   5.2867E-05  0.0052
   1.9912E+01   2.0396E+01   5.3854E-05  0.0051
   2.0396E+01   2.0893E+01   5.3750E-05  0.0050
   2.0893E+01   2.1401E+01   5.3903E-05  0.0049
   2.1401E+01   2.1922E+01   5.4252E-05  0.0049
   2.1922E+01   2.2455E+01   5.4305E-05  0.0048
   2.2455E+01   2.3001E+01   5.3391E-05  0.0048
   2.3001E+01   2.3561E+01   5.3919E-05  0.0047
   2.3561E+01   2.4134E+01   5.3057E-05  0.0047
   2.4134E+01   2.4721E+01   5.2058E-05  0.0047
   2.4721E+01   2.5323E+01   5.1520E-05  0.0046
   2.5323E+01   2.5939E+01   5.0350E-05  0.0046
   2.5939E+01   2.6570E+01   4.9254E-05  0.0046
   2.6570E+01   2.7217E+01   4.8169E-05  0.0046
   2.7217E+01   2.7879E+01   4.7013E-05  0.0046
   2.7879E+01   2.8557E+01   4.5185E-05  0.0047
   2.8557E+01   2.9252E+01   4.4148E-05  0.0047
   2.9252E+01   2.9964E+01   4.1992E-05  0.0047
   2.9964E+01   3.0693E+01   4.0644E-05  0.0047
   3.0693E+01   3.1440E+01   3.8803E-05  0.0048
   3.1440E+01   3.2205E+01   3.6453E-05  0.0049
   3.2205E+01   3.2988E+01   3.4400E-05  0.0050
   3.2988E+01   3.3791E+01   3.2622E-05  0.0050
   3.3791E+01   3.4613E+01   3.1050E-05  0.0051
   3.4613E+01   3.5455E+01   2.8639E-05  0.0053
   3.5455E+01   3.6318E+01   2.6882E-05  0.0054
   3.6318E+01   3.7201E+01   2.5053E-05  0.0055
   3.7201E+01   3.8106E+01   2.3414E-05  0.0056
   3.8106E+01   3.9034E+01   2.1527E-05  0.0058
   3.9034E+01   3.9983E+01   1.9725E-05  0.0060
   3.9983E+01   4.0956E+01   1.7734E-05  0.0062
   4.0956E+01   4.1953E+01   1.6342E-05  0.0064
   4.1953E+01   4.2973E+01   1.5116E-05  0.0066
   4.2973E+01   4.4019E+01   1.3576E-05  0.0069
   4.4019E+01   4.5090E+01   1.2400E-05  0.0071
   4.5090E+01   4.6187E+01   1.1117E-05  0.0074
   4.6187E+01   4.7311E+01   1.0095E-05  0.0077
   4.7311E+01   4.8462E+01   9.0435E-06  0.0080
   4.8462E+01   4.9641E+01   8.0314E-06  0.0084
   4.9641E+01   5.0849E+01   7.2230E-06  0.0087
   5.0849E+01   5.2086E+01   6.3450E-06  0.0092
   5.2086E+01   5.3353E+01   5.6588E-06  0.0096
   5.3353E+01   5.4651E+01   4.7782E-06  0.0104
   5.4651E+01   5.5981E+01   4.1999E-06  0.0109
   5.5981E+01   5.7343E+01   3.5104E-06  0.0118
   5.7343E+01   5.8738E+01   2.9859E-06  0.0127
   5.8738E+01   6.0168E+01   2.3916E-06  0.0140
   6.0168E+01   6.1632E+01   1.9628E-06  0.0152
   6.1632E+01   6.3131E+01   1.5165E-06  0.0171
   6.3131E+01   6.4667E+01   1.1749E-06  0.0192
   6.4667E+01   6.6240E+01   8.7920E-07  0.0220
   6.6240E+01   6.7852E+01   5.4436E-07  0.0276
   6.7852E+01   6.9503E+01   2.9883E-07  0.0368
   6.9503E+01   7.1194E+01   6.7807E-08  0.0762
   7.1194E+01   7.2926E+01   0.0000E+00  0.0000
   7.2926E+01   7.4701E+01   0.0000E+00  0.0000
   7.4701E+01   7.6518E+01   0.0000E+00  0.0000
   7.6518E+01   7.8380E+01   0.0000E+00  0.0000
   7.8380E+01   8.0287E+01   0.0000E+00  0.0000
   8.0287E+01   8.2240E+01   0.0000E+00  0.0000
   8.2240E+01   8.4241E+01   0.0000E+00  0.0000
   8.4241E+01   8.6291E+01   0.0000E+00  0.0000
   8.6291E+01   8.8391E+01   0.0000E+00  0.0000
   8.8391E+01   9.0541E+01   0.0000E+00  0.0000
   9.0541E+01   9.2744E+01   0.0000E+00  0.0000
   9.2744E+01   9.5001E+01   0.0000E+00  0.0000
   9.5001E+01   9.7312E+01   0.0000E+00  0.0000
   9.7312E+01   9.9680E+01   0.0000E+00  0.0000
   9.9680E+01   1.0211E+02   0.0000E+00  0.0000
   1.0211E+02   1.0459E+02   0.0000E+00  0.0000
   1.0459E+02   1.0713E+02   0.0000E+00  0.0000
   1.0713E+02   1.0974E+02   0.0000E+00  0.0000
   1.0974E+02   1.1241E+02   0.0000E+00  0.0000
   1.1241E+02   1.1515E+02   0.0000E+00  0.0000
   1.1515E+02   1.1795E+02   0.0000E+00  0.0000
   1.1795E+02   1.2082E+02   0.0000E+00  0.0000
   1.2082E+02   1.2376E+02   0.0000E+00  0.0000
   1.2376E+02   1.2677E+02   0.0000E+00  0.0000
   1.2677E+02   1.2985E+02   0.0000E+00  0.0000
   1.2985E+02   1.3301E+02   0.0000E+00  0.0000
   1.3301E+02   1.3625E+02   0.0000E+00  0.0000
   1.3625E+02   1.3956E+02   0.0000E+00  0.0000
   1.3956E+02   1.4296E+02   0.0000E+00  0.0000
   1.4296E+02   1.4644E+02   0.0000E+00  0.0000
   1.4644E+02   1.5000E+02   0.0000E+00  0.0000

#   sum over                 2.1387E-05
'no. =    1   reg = 105 - 205'
msuc: {\huge [t-cross] in region mesh}
msdr: {\it plotted by \ANGEL \version}
msdl: {\it calculated by \PHITS  3.26}
wt: s(0.7)
\vspace{-3}
  region surface crossing
  area  &=&   1.0000E+00 [cm^2]
e:
 
# Information for Restart Calculation
# This calculation was newly started
# istdev =  2 # 1:Batch variance, 2:History variance
# resc2  = 1.50000000000000000E+09 # Total source weight or Total source weight / maxcas
# resc3  = 1.50000000000000000E+09 # Total history number or Total batch number
# maxcas =   500000000 # History / Batch, only used for istdev=1
# bitrseed = 0000010101110101110110100110011001100101000001100111100100101101 # bit data of rseed
