[ T-Cross ]
    title = [t-cross] in region mesh
     mesh =  reg            # mesh type is region-wise
      reg =    1            # number of crossing regions
      non     r-from    r-to       area
      1       113       213        1.000000    
   e-type =    3            # e-mesh is log given by emin, emax and ne
     emin =  1.0000000E-02  # minimum value of e-mesh points
     emax =   150.0000      # maximum value of e-mesh points
#    edel =  2.4039514E-02  # mesh width of e-mesh points
       ne =    400          # number of e-mesh points
#    data = ( e(i), i = 1, ne + 1 )
#           1.00000E-02  1.02433E-02  1.04925E-02  1.07478E-02  1.10093E-02
#           1.12772E-02  1.15516E-02  1.18326E-02  1.21205E-02  1.24154E-02
#           1.27175E-02  1.30269E-02  1.33439E-02  1.36686E-02  1.40011E-02
#           1.43418E-02  1.46907E-02  1.50482E-02  1.54143E-02  1.57894E-02
#           1.61735E-02  1.65670E-02  1.69701E-02  1.73830E-02  1.78060E-02
#           1.82392E-02  1.86830E-02  1.91375E-02  1.96032E-02  2.00801E-02
#           2.05687E-02  2.10692E-02  2.15818E-02  2.21069E-02  2.26448E-02
#           2.31957E-02  2.37601E-02  2.43382E-02  2.49304E-02  2.55369E-02
#           2.61583E-02  2.67947E-02  2.74467E-02  2.81145E-02  2.87985E-02
#           2.94992E-02  3.02169E-02  3.09521E-02  3.17052E-02  3.24766E-02
#           3.32668E-02  3.40762E-02  3.49053E-02  3.57546E-02  3.66246E-02
#           3.75157E-02  3.84284E-02  3.93634E-02  4.03212E-02  4.13022E-02
#           4.23071E-02  4.33365E-02  4.43909E-02  4.54710E-02  4.65773E-02
#           4.77106E-02  4.88714E-02  5.00605E-02  5.12785E-02  5.25262E-02
#           5.38042E-02  5.51133E-02  5.64542E-02  5.78278E-02  5.92348E-02
#           6.06760E-02  6.21523E-02  6.36645E-02  6.52135E-02  6.68002E-02
#           6.84255E-02  7.00904E-02  7.17957E-02  7.35426E-02  7.53319E-02
#           7.71648E-02  7.90423E-02  8.09655E-02  8.29354E-02  8.49533E-02
#           8.70203E-02  8.91376E-02  9.13064E-02  9.35279E-02  9.58035E-02
#           9.81345E-02  1.00522E-01  1.02968E-01  1.05473E-01  1.08040E-01
#           1.10668E-01  1.13361E-01  1.16119E-01  1.18944E-01  1.21838E-01
#           1.24803E-01  1.27839E-01  1.30950E-01  1.34136E-01  1.37399E-01
#           1.40742E-01  1.44167E-01  1.47675E-01  1.51268E-01  1.54948E-01
#           1.58718E-01  1.62580E-01  1.66535E-01  1.70587E-01  1.74738E-01
#           1.78989E-01  1.83344E-01  1.87805E-01  1.92375E-01  1.97055E-01
#           2.01850E-01  2.06761E-01  2.11792E-01  2.16945E-01  2.22223E-01
#           2.27630E-01  2.33169E-01  2.38842E-01  2.44653E-01  2.50605E-01
#           2.56703E-01  2.62949E-01  2.69346E-01  2.75900E-01  2.82613E-01
#           2.89489E-01  2.96532E-01  3.03747E-01  3.11138E-01  3.18708E-01
#           3.26462E-01  3.34405E-01  3.42542E-01  3.50876E-01  3.59413E-01
#           3.68158E-01  3.77116E-01  3.86291E-01  3.95690E-01  4.05317E-01
#           4.15179E-01  4.25281E-01  4.35628E-01  4.46227E-01  4.57084E-01
#           4.68205E-01  4.79597E-01  4.91266E-01  5.03219E-01  5.15463E-01
#           5.28005E-01  5.40851E-01  5.54011E-01  5.67490E-01  5.81298E-01
#           5.95441E-01  6.09929E-01  6.24769E-01  6.39970E-01  6.55541E-01
#           6.71491E-01  6.87828E-01  7.04564E-01  7.21706E-01  7.39266E-01
#           7.57253E-01  7.75678E-01  7.94551E-01  8.13883E-01  8.33685E-01
#           8.53969E-01  8.74747E-01  8.96030E-01  9.17831E-01  9.40163E-01
#           9.63038E-01  9.86469E-01  1.01047E+00  1.03506E+00  1.06024E+00
#           1.08604E+00  1.11246E+00  1.13953E+00  1.16725E+00  1.19565E+00
#           1.22474E+00  1.25454E+00  1.28507E+00  1.31633E+00  1.34836E+00
#           1.38117E+00  1.41477E+00  1.44920E+00  1.48446E+00  1.52057E+00
#           1.55757E+00  1.59547E+00  1.63429E+00  1.67405E+00  1.71478E+00
#           1.75650E+00  1.79924E+00  1.84302E+00  1.88786E+00  1.93379E+00
#           1.98084E+00  2.02904E+00  2.07841E+00  2.12898E+00  2.18078E+00
#           2.23384E+00  2.28819E+00  2.34386E+00  2.40089E+00  2.45930E+00
#           2.51914E+00  2.58043E+00  2.64322E+00  2.70753E+00  2.77341E+00
#           2.84088E+00  2.91001E+00  2.98081E+00  3.05333E+00  3.12762E+00
#           3.20372E+00  3.28167E+00  3.36152E+00  3.44330E+00  3.52708E+00
#           3.61290E+00  3.70080E+00  3.79085E+00  3.88308E+00  3.97756E+00
#           4.07434E+00  4.17347E+00  4.27501E+00  4.37903E+00  4.48557E+00
#           4.59471E+00  4.70650E+00  4.82102E+00  4.93832E+00  5.05847E+00
#           5.18155E+00  5.30762E+00  5.43676E+00  5.56904E+00  5.70453E+00
#           5.84333E+00  5.98550E+00  6.13114E+00  6.28031E+00  6.43312E+00
#           6.58964E+00  6.74997E+00  6.91420E+00  7.08243E+00  7.25475E+00
#           7.43126E+00  7.61207E+00  7.79728E+00  7.98700E+00  8.18133E+00
#           8.38038E+00  8.58428E+00  8.79315E+00  9.00709E+00  9.22624E+00
#           9.45072E+00  9.68067E+00  9.91620E+00  1.01575E+01  1.04046E+01
#           1.06578E+01  1.09171E+01  1.11827E+01  1.14548E+01  1.17335E+01
#           1.20190E+01  1.23114E+01  1.26109E+01  1.29178E+01  1.32321E+01
#           1.35540E+01  1.38838E+01  1.42216E+01  1.45676E+01  1.49221E+01
#           1.52851E+01  1.56570E+01  1.60380E+01  1.64282E+01  1.68279E+01
#           1.72374E+01  1.76568E+01  1.80864E+01  1.85264E+01  1.89772E+01
#           1.94389E+01  1.99119E+01  2.03963E+01  2.08926E+01  2.14009E+01
#           2.19216E+01  2.24550E+01  2.30014E+01  2.35610E+01  2.41343E+01
#           2.47215E+01  2.53230E+01  2.59391E+01  2.65702E+01  2.72167E+01
#           2.78789E+01  2.85572E+01  2.92520E+01  2.99637E+01  3.06928E+01
#           3.14396E+01  3.22045E+01  3.29881E+01  3.37907E+01  3.46128E+01
#           3.54550E+01  3.63177E+01  3.72013E+01  3.81064E+01  3.90336E+01
#           3.99833E+01  4.09561E+01  4.19526E+01  4.29734E+01  4.40189E+01
#           4.50900E+01  4.61870E+01  4.73108E+01  4.84619E+01  4.96410E+01
#           5.08488E+01  5.20860E+01  5.33533E+01  5.46514E+01  5.59812E+01
#           5.73432E+01  5.87384E+01  6.01676E+01  6.16315E+01  6.31311E+01
#           6.46671E+01  6.62405E+01  6.78522E+01  6.95031E+01  7.11941E+01
#           7.29263E+01  7.47007E+01  7.65182E+01  7.83800E+01  8.02870E+01
#           8.22405E+01  8.42414E+01  8.62911E+01  8.83906E+01  9.05412E+01
#           9.27442E+01  9.50007E+01  9.73122E+01  9.96799E+01  1.02105E+02
#           1.04589E+02  1.07134E+02  1.09741E+02  1.12411E+02  1.15146E+02
#           1.17948E+02  1.20817E+02  1.23757E+02  1.26768E+02  1.29852E+02
#           1.33012E+02  1.36248E+02  1.39563E+02  1.42959E+02  1.46437E+02
#           1.50000E+02
     unit =    2            # unit is [1/cm^2/(MeV/n)/source]
     axis =  eng            # axis of output
     file = detector-14.out  # file name of output for the above axis
   output = f-curr          # surface crossing forward current spectrum
     part =  neutron  
# kf/name :  2112     
#    used :        main (  %)        temp (  %)       total (  %)
#  memory :         414 (  0)           0 (  0)         414 (  0)

#------------------------------------------------------------------------------
#newpage:
#   no. =    1   reg = 113 - 213

x: Energy [MeV/n]
y:  F-Curr [1/cm^2/(MeV/n)/source]         
p: xlog ylog afac(0.8) form(0.9)
h: n            x            y(neutron ),hh0l   n 
#  e-lower      e-upper      neutron     r.err 
   1.0000E-02   1.0243E-02   1.1666E-04  0.0832
   1.0243E-02   1.0493E-02   1.0367E-04  0.0874
   1.0493E-02   1.0748E-02   1.1499E-04  0.0816
   1.0748E-02   1.1009E-02   1.2320E-04  0.0782
   1.1009E-02   1.1277E-02   1.0965E-04  0.0820
   1.1277E-02   1.1552E-02   1.0383E-04  0.0830
   1.1552E-02   1.1833E-02   1.0385E-04  0.0822
   1.1833E-02   1.2121E-02   9.3268E-05  0.0855
   1.2121E-02   1.2415E-02   1.1089E-04  0.0775
   1.2415E-02   1.2718E-02   1.0326E-04  0.0793
   1.2718E-02   1.3027E-02   9.2159E-05  0.0828
   1.3027E-02   1.3344E-02   1.1509E-04  0.0736
   1.3344E-02   1.3669E-02   9.4776E-05  0.0799
   1.3669E-02   1.4001E-02   8.9364E-05  0.0809
   1.4001E-02   1.4342E-02   9.3031E-05  0.0788
   1.4342E-02   1.4691E-02   8.4803E-05  0.0816
   1.4691E-02   1.5048E-02   8.8230E-05  0.0789
   1.5048E-02   1.5414E-02   7.9578E-05  0.0822
   1.5414E-02   1.5789E-02   7.1247E-05  0.0862
   1.5789E-02   1.6174E-02   8.0383E-05  0.0797
   1.6174E-02   1.6567E-02   7.4562E-05  0.0820
   1.6567E-02   1.6970E-02   7.7451E-05  0.0794
   1.6970E-02   1.7383E-02   7.4463E-05  0.0800
   1.7383E-02   1.7806E-02   7.4089E-05  0.0794
   1.7806E-02   1.8239E-02   6.1407E-05  0.0855
   1.8239E-02   1.8683E-02   7.6957E-05  0.0760
   1.8683E-02   1.9138E-02   7.5355E-05  0.0759
   1.9138E-02   1.9603E-02   7.3169E-05  0.0762
   1.9603E-02   2.0080E-02   6.3114E-05  0.0809
   2.0080E-02   2.0569E-02   6.2609E-05  0.0800
   2.0569E-02   2.1069E-02   6.8884E-05  0.0757
   2.1069E-02   2.1582E-02   6.6179E-05  0.0761
   2.1582E-02   2.2107E-02   6.5077E-05  0.0758
   2.2107E-02   2.2645E-02   6.4776E-05  0.0752
   2.2645E-02   2.3196E-02   5.8302E-05  0.0784
   2.3196E-02   2.3760E-02   5.2417E-05  0.0813
   2.3760E-02   2.4338E-02   5.6117E-05  0.0779
   2.4338E-02   2.4930E-02   5.7469E-05  0.0758
   2.4930E-02   2.5537E-02   5.2958E-05  0.0781
   2.5537E-02   2.6158E-02   4.6463E-05  0.0824
   2.6158E-02   2.6795E-02   5.2477E-05  0.0766
   2.6795E-02   2.7447E-02   5.4486E-05  0.0745
   2.7447E-02   2.8114E-02   5.0938E-05  0.0758
   2.8114E-02   2.8799E-02   5.3353E-05  0.0734
   2.8799E-02   2.9499E-02   4.3630E-05  0.0801
   2.9499E-02   3.0217E-02   4.4239E-05  0.0785
   3.0217E-02   3.0952E-02   5.3857E-05  0.0704
   3.0952E-02   3.1705E-02   5.0420E-05  0.0719
   3.1705E-02   3.2477E-02   4.6357E-05  0.0742
   3.2477E-02   3.3267E-02   4.6333E-05  0.0733
   3.3267E-02   3.4076E-02   4.6774E-05  0.0722
   3.4076E-02   3.4905E-02   3.8909E-05  0.0779
   3.4905E-02   3.5755E-02   3.9886E-05  0.0763
   3.5755E-02   3.6625E-02   3.9109E-05  0.0759
   3.6625E-02   3.7516E-02   3.9638E-05  0.0743
   3.7516E-02   3.8428E-02   4.4999E-05  0.0692
   3.8428E-02   3.9363E-02   3.7556E-05  0.0749
   3.9363E-02   4.0321E-02   4.0341E-05  0.0711
   4.0321E-02   4.1302E-02   4.2835E-05  0.0686
   4.1302E-02   4.2307E-02   3.3666E-05  0.0762
   4.2307E-02   4.3337E-02   3.2243E-05  0.0767
   4.3337E-02   4.4391E-02   3.6885E-05  0.0710
   4.4391E-02   4.5471E-02   3.4224E-05  0.0729
   4.5471E-02   4.6577E-02   2.9892E-05  0.0770
   4.6577E-02   4.7711E-02   3.7446E-05  0.0680
   4.7711E-02   4.8871E-02   3.4530E-05  0.0699
   4.8871E-02   5.0061E-02   3.0306E-05  0.0739
   5.0061E-02   5.1279E-02   2.9541E-05  0.0736
   5.1279E-02   5.2526E-02   2.8787E-05  0.0739
   5.2526E-02   5.3804E-02   3.0843E-05  0.0704
   5.3804E-02   5.5113E-02   2.6498E-05  0.0749
   5.5113E-02   5.6454E-02   2.9812E-05  0.0702
   5.6454E-02   5.7828E-02   2.7433E-05  0.0723
   5.7828E-02   5.9235E-02   2.6267E-05  0.0726
   5.9235E-02   6.0676E-02   2.4854E-05  0.0739
   6.0676E-02   6.2152E-02   2.7866E-05  0.0690
   6.2152E-02   6.3665E-02   2.6443E-05  0.0700
   6.3665E-02   6.5214E-02   2.5617E-05  0.0705
   6.5214E-02   6.6800E-02   2.6251E-05  0.0686
   6.6800E-02   6.8426E-02   2.4074E-05  0.0709
   6.8426E-02   7.0090E-02   2.4609E-05  0.0692
   7.0090E-02   7.1796E-02   2.2925E-05  0.0709
   7.1796E-02   7.3543E-02   2.3635E-05  0.0691
   7.3543E-02   7.5332E-02   2.0650E-05  0.0728
   7.5332E-02   7.7165E-02   1.9783E-05  0.0735
   7.7165E-02   7.9042E-02   2.1446E-05  0.0699
   7.9042E-02   8.0965E-02   2.0074E-05  0.0711
   8.0965E-02   8.2935E-02   2.1201E-05  0.0686
   8.2935E-02   8.4953E-02   1.6057E-05  0.0777
   8.4953E-02   8.7020E-02   2.1787E-05  0.0661
   8.7020E-02   8.9138E-02   1.9404E-05  0.0690
   8.9138E-02   9.1306E-02   2.1438E-05  0.0650
   9.1306E-02   9.3528E-02   1.8876E-05  0.0685
   9.3528E-02   9.5804E-02   1.6811E-05  0.0716
   9.5804E-02   9.8134E-02   1.8332E-05  0.0678
   9.8134E-02   1.0052E-01   1.9269E-05  0.0649
   1.0052E-01   1.0297E-01   1.8274E-05  0.0664
   1.0297E-01   1.0547E-01   1.7461E-05  0.0670
   1.0547E-01   1.0804E-01   1.6297E-05  0.0685
   1.0804E-01   1.1067E-01   1.6382E-05  0.0674
   1.1067E-01   1.1336E-01   1.6307E-05  0.0669
   1.1336E-01   1.1612E-01   1.5744E-05  0.0673
   1.1612E-01   1.1894E-01   1.5201E-05  0.0677
   1.1894E-01   1.2184E-01   1.4166E-05  0.0692
   1.2184E-01   1.2480E-01   1.3747E-05  0.0692
   1.2480E-01   1.2784E-01   1.5851E-05  0.0640
   1.2784E-01   1.3095E-01   1.4089E-05  0.0669
   1.3095E-01   1.3414E-01   1.3224E-05  0.0681
   1.3414E-01   1.3740E-01   1.3531E-05  0.0666
   1.3740E-01   1.4074E-01   1.2489E-05  0.0684
   1.4074E-01   1.4417E-01   1.2946E-05  0.0667
   1.4417E-01   1.4767E-01   1.3482E-05  0.0646
   1.4767E-01   1.5127E-01   1.1905E-05  0.0676
   1.5127E-01   1.5495E-01   1.4894E-05  0.0597
   1.5495E-01   1.5872E-01   1.1560E-05  0.0670
   1.5872E-01   1.6258E-01   1.2852E-05  0.0631
   1.6258E-01   1.6654E-01   1.3572E-05  0.0607
   1.6654E-01   1.7059E-01   1.1409E-05  0.0652
   1.7059E-01   1.7474E-01   1.1376E-05  0.0648
   1.7474E-01   1.7899E-01   1.2136E-05  0.0616
   1.7899E-01   1.8334E-01   1.0984E-05  0.0639
   1.8334E-01   1.8781E-01   1.2219E-05  0.0601
   1.8781E-01   1.9237E-01   1.1115E-05  0.0623
   1.9237E-01   1.9706E-01   9.3412E-06  0.0670
   1.9706E-01   2.0185E-01   1.1661E-05  0.0592
   2.0185E-01   2.0676E-01   1.2040E-05  0.0577
   2.0676E-01   2.1179E-01   1.1329E-05  0.0588
   2.1179E-01   2.1694E-01   1.2085E-05  0.0562
   2.1694E-01   2.2222E-01   1.2267E-05  0.0551
   2.2222E-01   2.2763E-01   1.1706E-05  0.0557
   2.2763E-01   2.3317E-01   1.2436E-05  0.0535
   2.3317E-01   2.3884E-01   1.3927E-05  0.0500
   2.3884E-01   2.4465E-01   1.3688E-05  0.0497
   2.4465E-01   2.5061E-01   1.4723E-05  0.0474
   2.5061E-01   2.5670E-01   1.5041E-05  0.0462
   2.5670E-01   2.6295E-01   1.7197E-05  0.0428
   2.6295E-01   2.6935E-01   1.6661E-05  0.0430
   2.6935E-01   2.7590E-01   1.8003E-05  0.0408
   2.7590E-01   2.8261E-01   1.8191E-05  0.0401
   2.8261E-01   2.8949E-01   1.9072E-05  0.0387
   2.8949E-01   2.9653E-01   2.0644E-05  0.0369
   2.9653E-01   3.0375E-01   2.1108E-05  0.0359
   3.0375E-01   3.1114E-01   2.2491E-05  0.0344
   3.1114E-01   3.1871E-01   2.2312E-05  0.0341
   3.1871E-01   3.2646E-01   2.4645E-05  0.0321
   3.2646E-01   3.3441E-01   2.5526E-05  0.0312
   3.3441E-01   3.4254E-01   2.5596E-05  0.0307
   3.4254E-01   3.5088E-01   2.5270E-05  0.0305
   3.5088E-01   3.5941E-01   2.7155E-05  0.0291
   3.5941E-01   3.6816E-01   2.8012E-05  0.0283
   3.6816E-01   3.7712E-01   2.8752E-05  0.0276
   3.7712E-01   3.8629E-01   3.2476E-05  0.0257
   3.8629E-01   3.9569E-01   3.3530E-05  0.0250
   3.9569E-01   4.0532E-01   3.3528E-05  0.0247
   4.0532E-01   4.1518E-01   3.4745E-05  0.0239
   4.1518E-01   4.2528E-01   3.6927E-05  0.0230
   4.2528E-01   4.3563E-01   3.8715E-05  0.0222
   4.3563E-01   4.4623E-01   3.9585E-05  0.0216
   4.4623E-01   4.5708E-01   4.1713E-05  0.0208
   4.5708E-01   4.6821E-01   4.4537E-05  0.0199
   4.6821E-01   4.7960E-01   4.6030E-05  0.0194
   4.7960E-01   4.9127E-01   4.8577E-05  0.0186
   4.9127E-01   5.0322E-01   4.9681E-05  0.0182
   5.0322E-01   5.1546E-01   5.2501E-05  0.0175
   5.1546E-01   5.2800E-01   5.4909E-05  0.0169
   5.2800E-01   5.4085E-01   5.7071E-05  0.0164
   5.4085E-01   5.5401E-01   6.0156E-05  0.0158
   5.5401E-01   5.6749E-01   6.2626E-05  0.0153
   5.6749E-01   5.8130E-01   6.6806E-05  0.0146
   5.8130E-01   5.9544E-01   6.6681E-05  0.0144
   5.9544E-01   6.0993E-01   7.1210E-05  0.0138
   6.0993E-01   6.2477E-01   7.5196E-05  0.0133
   6.2477E-01   6.3997E-01   7.8158E-05  0.0129
   6.3997E-01   6.5554E-01   8.1126E-05  0.0125
   6.5554E-01   6.7149E-01   8.4555E-05  0.0121
   6.7149E-01   6.8783E-01   8.9714E-05  0.0116
   6.8783E-01   7.0456E-01   9.1296E-05  0.0114
   7.0456E-01   7.2171E-01   9.6654E-05  0.0109
   7.2171E-01   7.3927E-01   1.0016E-04  0.0106
   7.3927E-01   7.5725E-01   1.0457E-04  0.0102
   7.5725E-01   7.7568E-01   1.1055E-04  0.0098
   7.7568E-01   7.9455E-01   1.1297E-04  0.0096
   7.9455E-01   8.1388E-01   1.1764E-04  0.0093
   8.1388E-01   8.3368E-01   1.2644E-04  0.0089
   8.3368E-01   8.5397E-01   1.3116E-04  0.0086
   8.5397E-01   8.7475E-01   1.3505E-04  0.0084
   8.7475E-01   8.9603E-01   1.4122E-04  0.0081
   8.9603E-01   9.1783E-01   1.4938E-04  0.0078
   9.1783E-01   9.4016E-01   1.5445E-04  0.0076
   9.4016E-01   9.6304E-01   1.5804E-04  0.0074
   9.6304E-01   9.8647E-01   1.6524E-04  0.0071
   9.8647E-01   1.0105E+00   1.6986E-04  0.0069
   1.0105E+00   1.0351E+00   1.7295E-04  0.0068
   1.0351E+00   1.0602E+00   1.7799E-04  0.0066
   1.0602E+00   1.0860E+00   1.8319E-04  0.0065
   1.0860E+00   1.1125E+00   1.8748E-04  0.0063
   1.1125E+00   1.1395E+00   1.9274E-04  0.0061
   1.1395E+00   1.1673E+00   1.9949E-04  0.0060
   1.1673E+00   1.1957E+00   2.0882E-04  0.0058
   1.1957E+00   1.2247E+00   2.1377E-04  0.0056
   1.2247E+00   1.2545E+00   2.1476E-04  0.0055
   1.2545E+00   1.2851E+00   2.2128E-04  0.0054
   1.2851E+00   1.3163E+00   2.2672E-04  0.0053
   1.3163E+00   1.3484E+00   2.3038E-04  0.0052
   1.3484E+00   1.3812E+00   2.4053E-04  0.0050
   1.3812E+00   1.4148E+00   2.5096E-04  0.0048
   1.4148E+00   1.4492E+00   2.5739E-04  0.0047
   1.4492E+00   1.4845E+00   2.6453E-04  0.0046
   1.4845E+00   1.5206E+00   2.6915E-04  0.0045
   1.5206E+00   1.5576E+00   2.7354E-04  0.0044
   1.5576E+00   1.5955E+00   2.7277E-04  0.0044
   1.5955E+00   1.6343E+00   2.7740E-04  0.0043
   1.6343E+00   1.6741E+00   2.7762E-04  0.0042
   1.6741E+00   1.7148E+00   2.8044E-04  0.0042
   1.7148E+00   1.7565E+00   2.8530E-04  0.0041
   1.7565E+00   1.7992E+00   2.9343E-04  0.0040
   1.7992E+00   1.8430E+00   3.0032E-04  0.0039
   1.8430E+00   1.8879E+00   3.0018E-04  0.0038
   1.8879E+00   1.9338E+00   3.0596E-04  0.0037
   1.9338E+00   1.9808E+00   3.0833E-04  0.0037
   1.9808E+00   2.0290E+00   3.1514E-04  0.0036
   2.0290E+00   2.0784E+00   3.1382E-04  0.0036
   2.0784E+00   2.1290E+00   3.1185E-04  0.0035
   2.1290E+00   2.1808E+00   3.1305E-04  0.0035
   2.1808E+00   2.2338E+00   3.1069E-04  0.0035
   2.2338E+00   2.2882E+00   3.1056E-04  0.0034
   2.2882E+00   2.3439E+00   3.1187E-04  0.0034
   2.3439E+00   2.4009E+00   3.1579E-04  0.0033
   2.4009E+00   2.4593E+00   3.1822E-04  0.0033
   2.4593E+00   2.5191E+00   3.2002E-04  0.0032
   2.5191E+00   2.5804E+00   3.1756E-04  0.0032
   2.5804E+00   2.6432E+00   3.1758E-04  0.0031
   2.6432E+00   2.7075E+00   3.1458E-04  0.0031
   2.7075E+00   2.7734E+00   3.1061E-04  0.0031
   2.7734E+00   2.8409E+00   3.0815E-04  0.0031
   2.8409E+00   2.9100E+00   3.0705E-04  0.0030
   2.9100E+00   2.9808E+00   3.0615E-04  0.0030
   2.9808E+00   3.0533E+00   3.0747E-04  0.0030
   3.0533E+00   3.1276E+00   3.0231E-04  0.0030
   3.1276E+00   3.2037E+00   2.9815E-04  0.0029
   3.2037E+00   3.2817E+00   2.9117E-04  0.0029
   3.2817E+00   3.3615E+00   2.8901E-04  0.0029
   3.3615E+00   3.4433E+00   2.8583E-04  0.0029
   3.4433E+00   3.5271E+00   2.8521E-04  0.0029
   3.5271E+00   3.6129E+00   2.8100E-04  0.0029
   3.6129E+00   3.7008E+00   2.7392E-04  0.0029
   3.7008E+00   3.7908E+00   2.7113E-04  0.0028
   3.7908E+00   3.8831E+00   2.6337E-04  0.0028
   3.8831E+00   3.9776E+00   2.6174E-04  0.0028
   3.9776E+00   4.0743E+00   2.5991E-04  0.0028
   4.0743E+00   4.1735E+00   2.5502E-04  0.0028
   4.1735E+00   4.2750E+00   2.4905E-04  0.0028
   4.2750E+00   4.3790E+00   2.4464E-04  0.0028
   4.3790E+00   4.4856E+00   2.4214E-04  0.0028
   4.4856E+00   4.5947E+00   2.3895E-04  0.0028
   4.5947E+00   4.7065E+00   2.3492E-04  0.0027
   4.7065E+00   4.8210E+00   2.3183E-04  0.0027
   4.8210E+00   4.9383E+00   2.2851E-04  0.0027
   4.9383E+00   5.0585E+00   2.3045E-04  0.0027
   5.0585E+00   5.1815E+00   2.3226E-04  0.0026
   5.1815E+00   5.3076E+00   2.3034E-04  0.0026
   5.3076E+00   5.4368E+00   2.2472E-04  0.0026
   5.4368E+00   5.5690E+00   2.2037E-04  0.0026
   5.5690E+00   5.7045E+00   2.1503E-04  0.0026
   5.7045E+00   5.8433E+00   2.1003E-04  0.0026
   5.8433E+00   5.9855E+00   2.0626E-04  0.0026
   5.9855E+00   6.1311E+00   2.0076E-04  0.0026
   6.1311E+00   6.2803E+00   1.9637E-04  0.0026
   6.2803E+00   6.4331E+00   1.9290E-04  0.0026
   6.4331E+00   6.5896E+00   1.8713E-04  0.0026
   6.5896E+00   6.7500E+00   1.8377E-04  0.0026
   6.7500E+00   6.9142E+00   1.7804E-04  0.0026
   6.9142E+00   7.0824E+00   1.7414E-04  0.0026
   7.0824E+00   7.2548E+00   1.7033E-04  0.0026
   7.2548E+00   7.4313E+00   1.6529E-04  0.0026
   7.4313E+00   7.6121E+00   1.6244E-04  0.0026
   7.6121E+00   7.7973E+00   1.5767E-04  0.0026
   7.7973E+00   7.9870E+00   1.5435E-04  0.0026
   7.9870E+00   8.1813E+00   1.5010E-04  0.0026
   8.1813E+00   8.3804E+00   1.4647E-04  0.0026
   8.3804E+00   8.5843E+00   1.4242E-04  0.0026
   8.5843E+00   8.7931E+00   1.3882E-04  0.0026
   8.7931E+00   9.0071E+00   1.3536E-04  0.0026
   9.0071E+00   9.2262E+00   1.3155E-04  0.0026
   9.2262E+00   9.4507E+00   1.2706E-04  0.0026
   9.4507E+00   9.6807E+00   1.2373E-04  0.0026
   9.6807E+00   9.9162E+00   1.2006E-04  0.0027
   9.9162E+00   1.0157E+01   1.1661E-04  0.0027
   1.0157E+01   1.0405E+01   1.1310E-04  0.0027
   1.0405E+01   1.0658E+01   1.0932E-04  0.0027
   1.0658E+01   1.0917E+01   1.0591E-04  0.0027
   1.0917E+01   1.1183E+01   1.0274E-04  0.0027
   1.1183E+01   1.1455E+01   9.9779E-05  0.0027
   1.1455E+01   1.1733E+01   9.5928E-05  0.0027
   1.1733E+01   1.2019E+01   9.2664E-05  0.0027
   1.2019E+01   1.2311E+01   8.9479E-05  0.0028
   1.2311E+01   1.2611E+01   8.6115E-05  0.0028
   1.2611E+01   1.2918E+01   8.3055E-05  0.0028
   1.2918E+01   1.3232E+01   8.0755E-05  0.0028
   1.3232E+01   1.3554E+01   7.7975E-05  0.0028
   1.3554E+01   1.3884E+01   7.4442E-05  0.0029
   1.3884E+01   1.4222E+01   7.1657E-05  0.0029
   1.4222E+01   1.4568E+01   6.9001E-05  0.0029
   1.4568E+01   1.4922E+01   6.5968E-05  0.0029
   1.4922E+01   1.5285E+01   6.3316E-05  0.0029
   1.5285E+01   1.5657E+01   6.0921E-05  0.0030
   1.5657E+01   1.6038E+01   5.8466E-05  0.0030
   1.6038E+01   1.6428E+01   5.5645E-05  0.0030
   1.6428E+01   1.6828E+01   5.3309E-05  0.0031
   1.6828E+01   1.7237E+01   5.0888E-05  0.0031
   1.7237E+01   1.7657E+01   4.8483E-05  0.0031
   1.7657E+01   1.8086E+01   4.6159E-05  0.0032
   1.8086E+01   1.8526E+01   4.4237E-05  0.0032
   1.8526E+01   1.8977E+01   4.1972E-05  0.0033
   1.8977E+01   1.9439E+01   4.0862E-05  0.0033
   1.9439E+01   1.9912E+01   4.0075E-05  0.0032
   1.9912E+01   2.0396E+01   3.9622E-05  0.0032
   2.0396E+01   2.0893E+01   3.8038E-05  0.0033
   2.0893E+01   2.1401E+01   3.6080E-05  0.0033
   2.1401E+01   2.1922E+01   3.4089E-05  0.0034
   2.1922E+01   2.2455E+01   3.2195E-05  0.0034
   2.2455E+01   2.3001E+01   3.0212E-05  0.0035
   2.3001E+01   2.3561E+01   2.8515E-05  0.0035
   2.3561E+01   2.4134E+01   2.6850E-05  0.0036
   2.4134E+01   2.4721E+01   2.5141E-05  0.0037
   2.4721E+01   2.5323E+01   2.3474E-05  0.0038
   2.5323E+01   2.5939E+01   2.1927E-05  0.0038
   2.5939E+01   2.6570E+01   2.0202E-05  0.0040
   2.6570E+01   2.7217E+01   1.8995E-05  0.0040
   2.7217E+01   2.7879E+01   1.7438E-05  0.0042
   2.7879E+01   2.8557E+01   1.6115E-05  0.0043
   2.8557E+01   2.9252E+01   1.4915E-05  0.0044
   2.9252E+01   2.9964E+01   1.3841E-05  0.0045
   2.9964E+01   3.0693E+01   1.2665E-05  0.0047
   3.0693E+01   3.1440E+01   1.1599E-05  0.0048
   3.1440E+01   3.2205E+01   1.0557E-05  0.0050
   3.2205E+01   3.2988E+01   9.7174E-06  0.0051
   3.2988E+01   3.3791E+01   8.7373E-06  0.0053
   3.3791E+01   3.4613E+01   7.9739E-06  0.0055
   3.4613E+01   3.5455E+01   7.1300E-06  0.0058
   3.5455E+01   3.6318E+01   6.4209E-06  0.0060
   3.6318E+01   3.7201E+01   5.6822E-06  0.0063
   3.7201E+01   3.8106E+01   5.1327E-06  0.0066
   3.8106E+01   3.9034E+01   4.5203E-06  0.0069
   3.9034E+01   3.9983E+01   4.0620E-06  0.0072
   3.9983E+01   4.0956E+01   3.5622E-06  0.0076
   4.0956E+01   4.1953E+01   3.1462E-06  0.0080
   4.1953E+01   4.2973E+01   2.7457E-06  0.0084
   4.2973E+01   4.4019E+01   2.3708E-06  0.0090
   4.4019E+01   4.5090E+01   2.0709E-06  0.0095
   4.5090E+01   4.6187E+01   1.7598E-06  0.0102
   4.6187E+01   4.7311E+01   1.4758E-06  0.0110
   4.7311E+01   4.8462E+01   1.2485E-06  0.0118
   4.8462E+01   4.9641E+01   1.0426E-06  0.0128
   4.9641E+01   5.0849E+01   8.4004E-07  0.0140
   5.0849E+01   5.2086E+01   6.8526E-07  0.0154
   5.2086E+01   5.3353E+01   5.5046E-07  0.0169
   5.3353E+01   5.4651E+01   4.3524E-07  0.0188
   5.4651E+01   5.5981E+01   3.3180E-07  0.0213
   5.5981E+01   5.7343E+01   2.5080E-07  0.0242
   5.7343E+01   5.8738E+01   1.8162E-07  0.0281
   5.8738E+01   6.0168E+01   1.3211E-07  0.0325
   6.0168E+01   6.1632E+01   9.1262E-08  0.0387
   6.1632E+01   6.3131E+01   7.0822E-08  0.0434
   6.3131E+01   6.4667E+01   4.5963E-08  0.0532
   6.4667E+01   6.6240E+01   3.4702E-08  0.0605
   6.6240E+01   6.7852E+01   2.2337E-08  0.0745
   6.7852E+01   6.9503E+01   1.5386E-08  0.0887
   6.9503E+01   7.1194E+01   9.4615E-09  0.1118
   7.1194E+01   7.2926E+01   5.4266E-09  0.1459
   7.2926E+01   7.4701E+01   1.9162E-09  0.2425
   7.4701E+01   7.6518E+01   7.7028E-10  0.3780
   7.6518E+01   7.8380E+01   4.2970E-10  0.5000
   7.8380E+01   8.0287E+01   3.1462E-10  0.5774
   8.0287E+01   8.2240E+01   0.0000E+00  0.0000
   8.2240E+01   8.4241E+01   9.9951E-11  1.0000
   8.4241E+01   8.6291E+01   0.0000E+00  0.0000
   8.6291E+01   8.8391E+01   0.0000E+00  0.0000
   8.8391E+01   9.0541E+01   0.0000E+00  0.0000
   9.0541E+01   9.2744E+01   0.0000E+00  0.0000
   9.2744E+01   9.5001E+01   0.0000E+00  0.0000
   9.5001E+01   9.7312E+01   0.0000E+00  0.0000
   9.7312E+01   9.9680E+01   0.0000E+00  0.0000
   9.9680E+01   1.0211E+02   0.0000E+00  0.0000
   1.0211E+02   1.0459E+02   0.0000E+00  0.0000
   1.0459E+02   1.0713E+02   0.0000E+00  0.0000
   1.0713E+02   1.0974E+02   0.0000E+00  0.0000
   1.0974E+02   1.1241E+02   0.0000E+00  0.0000
   1.1241E+02   1.1515E+02   0.0000E+00  0.0000
   1.1515E+02   1.1795E+02   0.0000E+00  0.0000
   1.1795E+02   1.2082E+02   0.0000E+00  0.0000
   1.2082E+02   1.2376E+02   0.0000E+00  0.0000
   1.2376E+02   1.2677E+02   0.0000E+00  0.0000
   1.2677E+02   1.2985E+02   0.0000E+00  0.0000
   1.2985E+02   1.3301E+02   0.0000E+00  0.0000
   1.3301E+02   1.3625E+02   0.0000E+00  0.0000
   1.3625E+02   1.3956E+02   0.0000E+00  0.0000
   1.3956E+02   1.4296E+02   0.0000E+00  0.0000
   1.4296E+02   1.4644E+02   0.0000E+00  0.0000
   1.4644E+02   1.5000E+02   0.0000E+00  0.0000

#   sum over                 2.0181E-05
'no. =    1   reg = 113 - 213'
msuc: {\huge [t-cross] in region mesh}
msdr: {\it plotted by \ANGEL \version}
msdl: {\it calculated by \PHITS  3.28}
wt: s(0.7)
\vspace{-3}
  region surface crossing
  area  &=&   1.0000E+00 [cm^2]
e:
 
# Information for Restart Calculation
# This calculation was newly started
# istdev =  2 # 1:Batch variance, 2:History variance
# resc2  = 5.00000000000000000E+09 # Total source weight or Total source weight / maxcas
# resc3  = 5.00000000000000000E+09 # Total history number or Total batch number
# maxcas =   500000000 # History / Batch, only used for istdev=1
# bitrseed = 0110100000100010111000001110001111001110100100011111101000111001 # bit data of rseed
