[ T-Cross ]
    title = [t-cross] in region mesh
     mesh =  reg            # mesh type is region-wise
      reg =    1            # number of crossing regions
      non     r-from    r-to       area
      1       109       209        1.000000    
   e-type =    3            # e-mesh is log given by emin, emax and ne
     emin =  1.0000000E-02  # minimum value of e-mesh points
     emax =   150.0000      # maximum value of e-mesh points
#    edel =  2.4039514E-02  # mesh width of e-mesh points
       ne =    400          # number of e-mesh points
#    data = ( e(i), i = 1, ne + 1 )
#           1.00000E-02  1.02433E-02  1.04925E-02  1.07478E-02  1.10093E-02
#           1.12772E-02  1.15516E-02  1.18326E-02  1.21205E-02  1.24154E-02
#           1.27175E-02  1.30269E-02  1.33439E-02  1.36686E-02  1.40011E-02
#           1.43418E-02  1.46907E-02  1.50482E-02  1.54143E-02  1.57894E-02
#           1.61735E-02  1.65670E-02  1.69701E-02  1.73830E-02  1.78060E-02
#           1.82392E-02  1.86830E-02  1.91375E-02  1.96032E-02  2.00801E-02
#           2.05687E-02  2.10692E-02  2.15818E-02  2.21069E-02  2.26448E-02
#           2.31957E-02  2.37601E-02  2.43382E-02  2.49304E-02  2.55369E-02
#           2.61583E-02  2.67947E-02  2.74467E-02  2.81145E-02  2.87985E-02
#           2.94992E-02  3.02169E-02  3.09521E-02  3.17052E-02  3.24766E-02
#           3.32668E-02  3.40762E-02  3.49053E-02  3.57546E-02  3.66246E-02
#           3.75157E-02  3.84284E-02  3.93634E-02  4.03212E-02  4.13022E-02
#           4.23071E-02  4.33365E-02  4.43909E-02  4.54710E-02  4.65773E-02
#           4.77106E-02  4.88714E-02  5.00605E-02  5.12785E-02  5.25262E-02
#           5.38042E-02  5.51133E-02  5.64542E-02  5.78278E-02  5.92348E-02
#           6.06760E-02  6.21523E-02  6.36645E-02  6.52135E-02  6.68002E-02
#           6.84255E-02  7.00904E-02  7.17957E-02  7.35426E-02  7.53319E-02
#           7.71648E-02  7.90423E-02  8.09655E-02  8.29354E-02  8.49533E-02
#           8.70203E-02  8.91376E-02  9.13064E-02  9.35279E-02  9.58035E-02
#           9.81345E-02  1.00522E-01  1.02968E-01  1.05473E-01  1.08040E-01
#           1.10668E-01  1.13361E-01  1.16119E-01  1.18944E-01  1.21838E-01
#           1.24803E-01  1.27839E-01  1.30950E-01  1.34136E-01  1.37399E-01
#           1.40742E-01  1.44167E-01  1.47675E-01  1.51268E-01  1.54948E-01
#           1.58718E-01  1.62580E-01  1.66535E-01  1.70587E-01  1.74738E-01
#           1.78989E-01  1.83344E-01  1.87805E-01  1.92375E-01  1.97055E-01
#           2.01850E-01  2.06761E-01  2.11792E-01  2.16945E-01  2.22223E-01
#           2.27630E-01  2.33169E-01  2.38842E-01  2.44653E-01  2.50605E-01
#           2.56703E-01  2.62949E-01  2.69346E-01  2.75900E-01  2.82613E-01
#           2.89489E-01  2.96532E-01  3.03747E-01  3.11138E-01  3.18708E-01
#           3.26462E-01  3.34405E-01  3.42542E-01  3.50876E-01  3.59413E-01
#           3.68158E-01  3.77116E-01  3.86291E-01  3.95690E-01  4.05317E-01
#           4.15179E-01  4.25281E-01  4.35628E-01  4.46227E-01  4.57084E-01
#           4.68205E-01  4.79597E-01  4.91266E-01  5.03219E-01  5.15463E-01
#           5.28005E-01  5.40851E-01  5.54011E-01  5.67490E-01  5.81298E-01
#           5.95441E-01  6.09929E-01  6.24769E-01  6.39970E-01  6.55541E-01
#           6.71491E-01  6.87828E-01  7.04564E-01  7.21706E-01  7.39266E-01
#           7.57253E-01  7.75678E-01  7.94551E-01  8.13883E-01  8.33685E-01
#           8.53969E-01  8.74747E-01  8.96030E-01  9.17831E-01  9.40163E-01
#           9.63038E-01  9.86469E-01  1.01047E+00  1.03506E+00  1.06024E+00
#           1.08604E+00  1.11246E+00  1.13953E+00  1.16725E+00  1.19565E+00
#           1.22474E+00  1.25454E+00  1.28507E+00  1.31633E+00  1.34836E+00
#           1.38117E+00  1.41477E+00  1.44920E+00  1.48446E+00  1.52057E+00
#           1.55757E+00  1.59547E+00  1.63429E+00  1.67405E+00  1.71478E+00
#           1.75650E+00  1.79924E+00  1.84302E+00  1.88786E+00  1.93379E+00
#           1.98084E+00  2.02904E+00  2.07841E+00  2.12898E+00  2.18078E+00
#           2.23384E+00  2.28819E+00  2.34386E+00  2.40089E+00  2.45930E+00
#           2.51914E+00  2.58043E+00  2.64322E+00  2.70753E+00  2.77341E+00
#           2.84088E+00  2.91001E+00  2.98081E+00  3.05333E+00  3.12762E+00
#           3.20372E+00  3.28167E+00  3.36152E+00  3.44330E+00  3.52708E+00
#           3.61290E+00  3.70080E+00  3.79085E+00  3.88308E+00  3.97756E+00
#           4.07434E+00  4.17347E+00  4.27501E+00  4.37903E+00  4.48557E+00
#           4.59471E+00  4.70650E+00  4.82102E+00  4.93832E+00  5.05847E+00
#           5.18155E+00  5.30762E+00  5.43676E+00  5.56904E+00  5.70453E+00
#           5.84333E+00  5.98550E+00  6.13114E+00  6.28031E+00  6.43312E+00
#           6.58964E+00  6.74997E+00  6.91420E+00  7.08243E+00  7.25475E+00
#           7.43126E+00  7.61207E+00  7.79728E+00  7.98700E+00  8.18133E+00
#           8.38038E+00  8.58428E+00  8.79315E+00  9.00709E+00  9.22624E+00
#           9.45072E+00  9.68067E+00  9.91620E+00  1.01575E+01  1.04046E+01
#           1.06578E+01  1.09171E+01  1.11827E+01  1.14548E+01  1.17335E+01
#           1.20190E+01  1.23114E+01  1.26109E+01  1.29178E+01  1.32321E+01
#           1.35540E+01  1.38838E+01  1.42216E+01  1.45676E+01  1.49221E+01
#           1.52851E+01  1.56570E+01  1.60380E+01  1.64282E+01  1.68279E+01
#           1.72374E+01  1.76568E+01  1.80864E+01  1.85264E+01  1.89772E+01
#           1.94389E+01  1.99119E+01  2.03963E+01  2.08926E+01  2.14009E+01
#           2.19216E+01  2.24550E+01  2.30014E+01  2.35610E+01  2.41343E+01
#           2.47215E+01  2.53230E+01  2.59391E+01  2.65702E+01  2.72167E+01
#           2.78789E+01  2.85572E+01  2.92520E+01  2.99637E+01  3.06928E+01
#           3.14396E+01  3.22045E+01  3.29881E+01  3.37907E+01  3.46128E+01
#           3.54550E+01  3.63177E+01  3.72013E+01  3.81064E+01  3.90336E+01
#           3.99833E+01  4.09561E+01  4.19526E+01  4.29734E+01  4.40189E+01
#           4.50900E+01  4.61870E+01  4.73108E+01  4.84619E+01  4.96410E+01
#           5.08488E+01  5.20860E+01  5.33533E+01  5.46514E+01  5.59812E+01
#           5.73432E+01  5.87384E+01  6.01676E+01  6.16315E+01  6.31311E+01
#           6.46671E+01  6.62405E+01  6.78522E+01  6.95031E+01  7.11941E+01
#           7.29263E+01  7.47007E+01  7.65182E+01  7.83800E+01  8.02870E+01
#           8.22405E+01  8.42414E+01  8.62911E+01  8.83906E+01  9.05412E+01
#           9.27442E+01  9.50007E+01  9.73122E+01  9.96799E+01  1.02105E+02
#           1.04589E+02  1.07134E+02  1.09741E+02  1.12411E+02  1.15146E+02
#           1.17948E+02  1.20817E+02  1.23757E+02  1.26768E+02  1.29852E+02
#           1.33012E+02  1.36248E+02  1.39563E+02  1.42959E+02  1.46437E+02
#           1.50000E+02
     unit =    2            # unit is [1/cm^2/(MeV/n)/source]
     axis =  eng            # axis of output
     file = detector-10.out  # file name of output for the above axis
   output = f-curr          # surface crossing forward current spectrum
     part =  neutron  
# kf/name :  2112     
#    used :        main (  %)        temp (  %)       total (  %)
#  memory :         414 (  0)           0 (  0)         414 (  0)

#------------------------------------------------------------------------------
#newpage:
#   no. =    1   reg = 109 - 209

x: Energy [MeV/n]
y:  F-Curr [1/cm^2/(MeV/n)/source]         
p: xlog ylog afac(0.8) form(0.9)
h: n            x            y(neutron ),hh0l   n 
#  e-lower      e-upper      neutron     r.err 
   1.0000E-02   1.0243E-02   3.2112E-04  0.0505
   1.0243E-02   1.0493E-02   3.1376E-04  0.0505
   1.0493E-02   1.0748E-02   2.5466E-04  0.0554
   1.0748E-02   1.1009E-02   2.7418E-04  0.0527
   1.1009E-02   1.1277E-02   2.8421E-04  0.0512
   1.1277E-02   1.1552E-02   2.7237E-04  0.0516
   1.1552E-02   1.1833E-02   2.5058E-04  0.0532
   1.1833E-02   1.2121E-02   2.5448E-04  0.0521
   1.2121E-02   1.2415E-02   2.6423E-04  0.0506
   1.2415E-02   1.2718E-02   2.6570E-04  0.0499
   1.2718E-02   1.3027E-02   2.4532E-04  0.0513
   1.3027E-02   1.3344E-02   2.4526E-04  0.0506
   1.3344E-02   1.3669E-02   2.2323E-04  0.0524
   1.3669E-02   1.4001E-02   2.4427E-04  0.0495
   1.4001E-02   1.4342E-02   2.2262E-04  0.0512
   1.4342E-02   1.4691E-02   2.2420E-04  0.0505
   1.4691E-02   1.5048E-02   2.2043E-04  0.0502
   1.5048E-02   1.5414E-02   1.9875E-04  0.0523
   1.5414E-02   1.5789E-02   2.1186E-04  0.0501
   1.5789E-02   1.6174E-02   2.1438E-04  0.0492
   1.6174E-02   1.6567E-02   2.0476E-04  0.0497
   1.6567E-02   1.6970E-02   1.9527E-04  0.0503
   1.6970E-02   1.7383E-02   1.9468E-04  0.0498
   1.7383E-02   1.7806E-02   2.0262E-04  0.0482
   1.7806E-02   1.8239E-02   1.7840E-04  0.0507
   1.8239E-02   1.8683E-02   1.6683E-04  0.0519
   1.8683E-02   1.9138E-02   1.8545E-04  0.0486
   1.9138E-02   1.9603E-02   1.7049E-04  0.0501
   1.9603E-02   2.0080E-02   1.8066E-04  0.0480
   2.0080E-02   2.0569E-02   1.5386E-04  0.0515
   2.0569E-02   2.1069E-02   1.6635E-04  0.0489
   2.1069E-02   2.1582E-02   1.6272E-04  0.0489
   2.1582E-02   2.2107E-02   1.6543E-04  0.0479
   2.2107E-02   2.2645E-02   1.5015E-04  0.0497
   2.2645E-02   2.3196E-02   1.5318E-04  0.0486
   2.3196E-02   2.3760E-02   1.4806E-04  0.0489
   2.3760E-02   2.4338E-02   1.3766E-04  0.0500
   2.4338E-02   2.4930E-02   1.4072E-04  0.0489
   2.4930E-02   2.5537E-02   1.4379E-04  0.0478
   2.5537E-02   2.6158E-02   1.3402E-04  0.0490
   2.6158E-02   2.6795E-02   1.3001E-04  0.0491
   2.6795E-02   2.7447E-02   1.2634E-04  0.0492
   2.7447E-02   2.8114E-02   1.1390E-04  0.0512
   2.8114E-02   2.8799E-02   1.2072E-04  0.0491
   2.8799E-02   2.9499E-02   1.2644E-04  0.0474
   2.9499E-02   3.0217E-02   1.1652E-04  0.0488
   3.0217E-02   3.0952E-02   1.1635E-04  0.0483
   3.0952E-02   3.1705E-02   1.1523E-04  0.0480
   3.1705E-02   3.2477E-02   1.1500E-04  0.0474
   3.2477E-02   3.3267E-02   1.0931E-04  0.0480
   3.3267E-02   3.4076E-02   1.1464E-04  0.0463
   3.4076E-02   3.4905E-02   9.9589E-05  0.0491
   3.4905E-02   3.5755E-02   1.0065E-04  0.0482
   3.5755E-02   3.6625E-02   1.0201E-04  0.0474
   3.6625E-02   3.7516E-02   9.9897E-05  0.0473
   3.7516E-02   3.8428E-02   9.3752E-05  0.0482
   3.8428E-02   3.9363E-02   9.3977E-05  0.0476
   3.9363E-02   4.0321E-02   9.3949E-05  0.0471
   4.0321E-02   4.1302E-02   9.6673E-05  0.0458
   4.1302E-02   4.2307E-02   8.7919E-05  0.0475
   4.2307E-02   4.3337E-02   8.0514E-05  0.0490
   4.3337E-02   4.4391E-02   8.4069E-05  0.0474
   4.4391E-02   4.5471E-02   8.6658E-05  0.0461
   4.5471E-02   4.6577E-02   8.1292E-05  0.0470
   4.6577E-02   4.7711E-02   7.8904E-05  0.0472
   4.7711E-02   4.8871E-02   8.0150E-05  0.0463
   4.8871E-02   5.0061E-02   7.6712E-05  0.0467
   5.0061E-02   5.1279E-02   7.6680E-05  0.0462
   5.1279E-02   5.2526E-02   7.9810E-05  0.0448
   5.2526E-02   5.3804E-02   6.9412E-05  0.0474
   5.3804E-02   5.5113E-02   7.3366E-05  0.0455
   5.5113E-02   5.6454E-02   7.1223E-05  0.0456
   5.6454E-02   5.7828E-02   6.9803E-05  0.0456
   5.7828E-02   5.9235E-02   6.6913E-05  0.0460
   5.9235E-02   6.0676E-02   6.7498E-05  0.0453
   6.0676E-02   6.2152E-02   7.1890E-05  0.0433
   6.2152E-02   6.3665E-02   6.2396E-05  0.0459
   6.3665E-02   6.5214E-02   6.4701E-05  0.0446
   6.5214E-02   6.6800E-02   5.7836E-05  0.0466
   6.6800E-02   6.8426E-02   6.0988E-05  0.0448
   6.8426E-02   7.0090E-02   5.6629E-05  0.0460
   7.0090E-02   7.1796E-02   5.8228E-05  0.0448
   7.1796E-02   7.3543E-02   6.0150E-05  0.0435
   7.3543E-02   7.5332E-02   5.5204E-05  0.0449
   7.5332E-02   7.7165E-02   5.5896E-05  0.0441
   7.7165E-02   7.9042E-02   5.3088E-05  0.0447
   7.9042E-02   8.0965E-02   5.6725E-05  0.0427
   8.0965E-02   8.2935E-02   5.5514E-05  0.0427
   8.2935E-02   8.4953E-02   5.1749E-05  0.0437
   8.4953E-02   8.7020E-02   5.1675E-05  0.0432
   8.7020E-02   8.9138E-02   5.1175E-05  0.0429
   8.9138E-02   9.1306E-02   4.8359E-05  0.0435
   9.1306E-02   9.3528E-02   4.8492E-05  0.0430
   9.3528E-02   9.5804E-02   4.8596E-05  0.0424
   9.5804E-02   9.8134E-02   4.8030E-05  0.0422
   9.8134E-02   1.0052E-01   4.6806E-05  0.0422
   1.0052E-01   1.0297E-01   4.9700E-05  0.0405
   1.0297E-01   1.0547E-01   4.6798E-05  0.0412
   1.0547E-01   1.0804E-01   5.1181E-05  0.0389
   1.0804E-01   1.1067E-01   5.7298E-05  0.0364
   1.1067E-01   1.1336E-01   5.7015E-05  0.0360
   1.1336E-01   1.1612E-01   6.0923E-05  0.0344
   1.1612E-01   1.1894E-01   5.6647E-05  0.0353
   1.1894E-01   1.2184E-01   6.1399E-05  0.0335
   1.2184E-01   1.2480E-01   6.4801E-05  0.0322
   1.2480E-01   1.2784E-01   6.9269E-05  0.0308
   1.2784E-01   1.3095E-01   7.0715E-05  0.0301
   1.3095E-01   1.3414E-01   7.4527E-05  0.0290
   1.3414E-01   1.3740E-01   7.3869E-05  0.0287
   1.3740E-01   1.4074E-01   7.9270E-05  0.0274
   1.4074E-01   1.4417E-01   8.1958E-05  0.0266
   1.4417E-01   1.4767E-01   8.4534E-05  0.0259
   1.4767E-01   1.5127E-01   8.7516E-05  0.0252
   1.5127E-01   1.5495E-01   8.8398E-05  0.0247
   1.5495E-01   1.5872E-01   9.7386E-05  0.0233
   1.5872E-01   1.6258E-01   1.0074E-04  0.0226
   1.6258E-01   1.6654E-01   1.0249E-04  0.0222
   1.6654E-01   1.7059E-01   1.0649E-04  0.0215
   1.7059E-01   1.7474E-01   1.0571E-04  0.0213
   1.7474E-01   1.7899E-01   1.1779E-04  0.0199
   1.7899E-01   1.8334E-01   1.2046E-04  0.0195
   1.8334E-01   1.8781E-01   1.2173E-04  0.0192
   1.8781E-01   1.9237E-01   1.2138E-04  0.0190
   1.9237E-01   1.9706E-01   1.3231E-04  0.0179
   1.9706E-01   2.0185E-01   1.3684E-04  0.0174
   2.0185E-01   2.0676E-01   1.4145E-04  0.0169
   2.0676E-01   2.1179E-01   1.4288E-04  0.0167
   2.1179E-01   2.1694E-01   1.5372E-04  0.0159
   2.1694E-01   2.2222E-01   1.5547E-04  0.0156
   2.2222E-01   2.2763E-01   1.6289E-04  0.0150
   2.2763E-01   2.3317E-01   1.6620E-04  0.0147
   2.3317E-01   2.3884E-01   1.7280E-04  0.0143
   2.3884E-01   2.4465E-01   1.7500E-04  0.0140
   2.4465E-01   2.5061E-01   1.8033E-04  0.0136
   2.5061E-01   2.5670E-01   1.9080E-04  0.0131
   2.5670E-01   2.6295E-01   1.9439E-04  0.0128
   2.6295E-01   2.6935E-01   1.9545E-04  0.0126
   2.6935E-01   2.7590E-01   2.0542E-04  0.0122
   2.7590E-01   2.8261E-01   2.1229E-04  0.0118
   2.8261E-01   2.8949E-01   2.2167E-04  0.0114
   2.8949E-01   2.9653E-01   2.2096E-04  0.0113
   2.9653E-01   3.0375E-01   2.2887E-04  0.0110
   3.0375E-01   3.1114E-01   2.3337E-04  0.0107
   3.1114E-01   3.1871E-01   2.4355E-04  0.0104
   3.1871E-01   3.2646E-01   2.4739E-04  0.0102
   3.2646E-01   3.3441E-01   2.5610E-04  0.0099
   3.3441E-01   3.4254E-01   2.6366E-04  0.0096
   3.4254E-01   3.5088E-01   2.6998E-04  0.0094
   3.5088E-01   3.5941E-01   2.8123E-04  0.0091
   3.5941E-01   3.6816E-01   2.9081E-04  0.0088
   3.6816E-01   3.7712E-01   2.9589E-04  0.0087
   3.7712E-01   3.8629E-01   3.0053E-04  0.0085
   3.8629E-01   3.9569E-01   3.0827E-04  0.0083
   3.9569E-01   4.0532E-01   3.1527E-04  0.0081
   4.0532E-01   4.1518E-01   3.2422E-04  0.0079
   4.1518E-01   4.2528E-01   3.3352E-04  0.0077
   4.2528E-01   4.3563E-01   3.3710E-04  0.0076
   4.3563E-01   4.4623E-01   3.4730E-04  0.0074
   4.4623E-01   4.5708E-01   3.5151E-04  0.0072
   4.5708E-01   4.6821E-01   3.5893E-04  0.0071
   4.6821E-01   4.7960E-01   3.6527E-04  0.0069
   4.7960E-01   4.9127E-01   3.7597E-04  0.0067
   4.9127E-01   5.0322E-01   3.7296E-04  0.0067
   5.0322E-01   5.1546E-01   3.9084E-04  0.0064
   5.1546E-01   5.2800E-01   3.9503E-04  0.0063
   5.2800E-01   5.4085E-01   4.0408E-04  0.0062
   5.4085E-01   5.5401E-01   4.0872E-04  0.0061
   5.5401E-01   5.6749E-01   4.1668E-04  0.0060
   5.6749E-01   5.8130E-01   4.2771E-04  0.0058
   5.8130E-01   5.9544E-01   4.3619E-04  0.0057
   5.9544E-01   6.0993E-01   4.3972E-04  0.0056
   6.0993E-01   6.2477E-01   4.3943E-04  0.0055
   6.2477E-01   6.3997E-01   4.5178E-04  0.0054
   6.3997E-01   6.5554E-01   4.5663E-04  0.0053
   6.5554E-01   6.7149E-01   4.6489E-04  0.0052
   6.7149E-01   6.8783E-01   4.6506E-04  0.0051
   6.8783E-01   7.0456E-01   4.7587E-04  0.0050
   7.0456E-01   7.2171E-01   4.7555E-04  0.0049
   7.2171E-01   7.3927E-01   4.8278E-04  0.0048
   7.3927E-01   7.5725E-01   4.8958E-04  0.0048
   7.5725E-01   7.7568E-01   4.8615E-04  0.0047
   7.7568E-01   7.9455E-01   4.9179E-04  0.0046
   7.9455E-01   8.1388E-01   4.9882E-04  0.0045
   8.1388E-01   8.3368E-01   4.9909E-04  0.0045
   8.3368E-01   8.5397E-01   4.9676E-04  0.0044
   8.5397E-01   8.7475E-01   4.9995E-04  0.0044
   8.7475E-01   8.9603E-01   5.0213E-04  0.0043
   8.9603E-01   9.1783E-01   5.0022E-04  0.0043
   9.1783E-01   9.4016E-01   5.0203E-04  0.0042
   9.4016E-01   9.6304E-01   4.9771E-04  0.0042
   9.6304E-01   9.8647E-01   4.9341E-04  0.0041
   9.8647E-01   1.0105E+00   4.8743E-04  0.0041
   1.0105E+00   1.0351E+00   4.8199E-04  0.0041
   1.0351E+00   1.0602E+00   4.7917E-04  0.0041
   1.0602E+00   1.0860E+00   4.8096E-04  0.0040
   1.0860E+00   1.1125E+00   4.8062E-04  0.0039
   1.1125E+00   1.1395E+00   4.8216E-04  0.0039
   1.1395E+00   1.1673E+00   4.8776E-04  0.0038
   1.1673E+00   1.1957E+00   4.8618E-04  0.0038
   1.1957E+00   1.2247E+00   4.9036E-04  0.0037
   1.2247E+00   1.2545E+00   4.9138E-04  0.0037
   1.2545E+00   1.2851E+00   4.8807E-04  0.0036
   1.2851E+00   1.3163E+00   4.8973E-04  0.0036
   1.3163E+00   1.3484E+00   4.8869E-04  0.0035
   1.3484E+00   1.3812E+00   4.8705E-04  0.0035
   1.3812E+00   1.4148E+00   4.8739E-04  0.0035
   1.4148E+00   1.4492E+00   4.8876E-04  0.0034
   1.4492E+00   1.4845E+00   4.8522E-04  0.0034
   1.4845E+00   1.5206E+00   4.8144E-04  0.0034
   1.5206E+00   1.5576E+00   4.7699E-04  0.0033
   1.5576E+00   1.5955E+00   4.7440E-04  0.0033
   1.5955E+00   1.6343E+00   4.7100E-04  0.0033
   1.6343E+00   1.6741E+00   4.6725E-04  0.0032
   1.6741E+00   1.7148E+00   4.6315E-04  0.0032
   1.7148E+00   1.7565E+00   4.5433E-04  0.0032
   1.7565E+00   1.7992E+00   4.3341E-04  0.0032
   1.7992E+00   1.8430E+00   4.1319E-04  0.0033
   1.8430E+00   1.8879E+00   3.8687E-04  0.0033
   1.8879E+00   1.9338E+00   3.8031E-04  0.0033
   1.9338E+00   1.9808E+00   3.7197E-04  0.0033
   1.9808E+00   2.0290E+00   3.6575E-04  0.0033
   2.0290E+00   2.0784E+00   3.6639E-04  0.0033
   2.0784E+00   2.1290E+00   3.6817E-04  0.0032
   2.1290E+00   2.1808E+00   3.7461E-04  0.0031
   2.1808E+00   2.2338E+00   3.7670E-04  0.0031
   2.2338E+00   2.2882E+00   3.7101E-04  0.0031
   2.2882E+00   2.3439E+00   3.5959E-04  0.0031
   2.3439E+00   2.4009E+00   3.5010E-04  0.0031
   2.4009E+00   2.4593E+00   3.4629E-04  0.0031
   2.4593E+00   2.5191E+00   3.4249E-04  0.0031
   2.5191E+00   2.5804E+00   3.4039E-04  0.0030
   2.5804E+00   2.6432E+00   3.3600E-04  0.0030
   2.6432E+00   2.7075E+00   3.3260E-04  0.0030
   2.7075E+00   2.7734E+00   3.2978E-04  0.0030
   2.7734E+00   2.8409E+00   3.2364E-04  0.0030
   2.8409E+00   2.9100E+00   3.2119E-04  0.0029
   2.9100E+00   2.9808E+00   3.1654E-04  0.0029
   2.9808E+00   3.0533E+00   3.1432E-04  0.0029
   3.0533E+00   3.1276E+00   3.0626E-04  0.0029
   3.1276E+00   3.2037E+00   3.0696E-04  0.0029
   3.2037E+00   3.2817E+00   3.0290E-04  0.0029
   3.2817E+00   3.3615E+00   2.9986E-04  0.0028
   3.3615E+00   3.4433E+00   2.9731E-04  0.0028
   3.4433E+00   3.5271E+00   2.9314E-04  0.0028
   3.5271E+00   3.6129E+00   2.8971E-04  0.0028
   3.6129E+00   3.7008E+00   2.8796E-04  0.0028
   3.7008E+00   3.7908E+00   2.8499E-04  0.0028
   3.7908E+00   3.8831E+00   2.8059E-04  0.0027
   3.8831E+00   3.9776E+00   2.7667E-04  0.0027
   3.9776E+00   4.0743E+00   2.7574E-04  0.0027
   4.0743E+00   4.1735E+00   2.7030E-04  0.0027
   4.1735E+00   4.2750E+00   2.6757E-04  0.0027
   4.2750E+00   4.3790E+00   2.6370E-04  0.0027
   4.3790E+00   4.4856E+00   2.5799E-04  0.0027
   4.4856E+00   4.5947E+00   2.5353E-04  0.0027
   4.5947E+00   4.7065E+00   2.5033E-04  0.0026
   4.7065E+00   4.8210E+00   2.4746E-04  0.0026
   4.8210E+00   4.9383E+00   2.4443E-04  0.0026
   4.9383E+00   5.0585E+00   2.4369E-04  0.0026
   5.0585E+00   5.1815E+00   2.4130E-04  0.0026
   5.1815E+00   5.3076E+00   2.3913E-04  0.0025
   5.3076E+00   5.4368E+00   2.3738E-04  0.0025
   5.4368E+00   5.5690E+00   2.3421E-04  0.0025
   5.5690E+00   5.7045E+00   2.3252E-04  0.0025
   5.7045E+00   5.8433E+00   2.3032E-04  0.0025
   5.8433E+00   5.9855E+00   2.3005E-04  0.0024
   5.9855E+00   6.1311E+00   2.2812E-04  0.0024
   6.1311E+00   6.2803E+00   2.2640E-04  0.0024
   6.2803E+00   6.4331E+00   2.2532E-04  0.0024
   6.4331E+00   6.5896E+00   2.2404E-04  0.0024
   6.5896E+00   6.7500E+00   2.2263E-04  0.0023
   6.7500E+00   6.9142E+00   2.2096E-04  0.0023
   6.9142E+00   7.0824E+00   2.1997E-04  0.0023
   7.0824E+00   7.2548E+00   2.1941E-04  0.0023
   7.2548E+00   7.4313E+00   2.1815E-04  0.0023
   7.4313E+00   7.6121E+00   2.1611E-04  0.0022
   7.6121E+00   7.7973E+00   2.1572E-04  0.0022
   7.7973E+00   7.9870E+00   2.1407E-04  0.0022
   7.9870E+00   8.1813E+00   2.1230E-04  0.0022
   8.1813E+00   8.3804E+00   2.1154E-04  0.0022
   8.3804E+00   8.5843E+00   2.1046E-04  0.0021
   8.5843E+00   8.7931E+00   2.0919E-04  0.0021
   8.7931E+00   9.0071E+00   2.0735E-04  0.0021
   9.0071E+00   9.2262E+00   2.0499E-04  0.0021
   9.2262E+00   9.4507E+00   2.0351E-04  0.0021
   9.4507E+00   9.6807E+00   2.0046E-04  0.0021
   9.6807E+00   9.9162E+00   2.0035E-04  0.0021
   9.9162E+00   1.0157E+01   2.0844E-04  0.0020
   1.0157E+01   1.0405E+01   2.0600E-04  0.0020
   1.0405E+01   1.0658E+01   2.0350E-04  0.0020
   1.0658E+01   1.0917E+01   1.9866E-04  0.0020
   1.0917E+01   1.1183E+01   1.9422E-04  0.0020
   1.1183E+01   1.1455E+01   1.9364E-04  0.0019
   1.1455E+01   1.1733E+01   1.9196E-04  0.0019
   1.1733E+01   1.2019E+01   1.9030E-04  0.0019
   1.2019E+01   1.2311E+01   1.8905E-04  0.0019
   1.2311E+01   1.2611E+01   1.8855E-04  0.0019
   1.2611E+01   1.2918E+01   1.8652E-04  0.0019
   1.2918E+01   1.3232E+01   1.8533E-04  0.0019
   1.3232E+01   1.3554E+01   1.8299E-04  0.0018
   1.3554E+01   1.3884E+01   1.8165E-04  0.0018
   1.3884E+01   1.4222E+01   1.7970E-04  0.0018
   1.4222E+01   1.4568E+01   1.7868E-04  0.0018
   1.4568E+01   1.4922E+01   1.7709E-04  0.0018
   1.4922E+01   1.5285E+01   1.7527E-04  0.0018
   1.5285E+01   1.5657E+01   1.7310E-04  0.0018
   1.5657E+01   1.6038E+01   1.7172E-04  0.0017
   1.6038E+01   1.6428E+01   1.6926E-04  0.0017
   1.6428E+01   1.6828E+01   1.6820E-04  0.0017
   1.6828E+01   1.7237E+01   1.6578E-04  0.0017
   1.7237E+01   1.7657E+01   1.6448E-04  0.0017
   1.7657E+01   1.8086E+01   1.6247E-04  0.0017
   1.8086E+01   1.8526E+01   1.5961E-04  0.0017
   1.8526E+01   1.8977E+01   1.5715E-04  0.0017
   1.8977E+01   1.9439E+01   1.5569E-04  0.0017
   1.9439E+01   1.9912E+01   1.5404E-04  0.0017
   1.9912E+01   2.0396E+01   1.5236E-04  0.0016
   2.0396E+01   2.0893E+01   1.4992E-04  0.0016
   2.0893E+01   2.1401E+01   1.4766E-04  0.0016
   2.1401E+01   2.1922E+01   1.4511E-04  0.0016
   2.1922E+01   2.2455E+01   1.4181E-04  0.0016
   2.2455E+01   2.3001E+01   1.3929E-04  0.0016
   2.3001E+01   2.3561E+01   1.3642E-04  0.0016
   2.3561E+01   2.4134E+01   1.3314E-04  0.0016
   2.4134E+01   2.4721E+01   1.3013E-04  0.0016
   2.4721E+01   2.5323E+01   1.2712E-04  0.0016
   2.5323E+01   2.5939E+01   1.2383E-04  0.0016
   2.5939E+01   2.6570E+01   1.2038E-04  0.0016
   2.6570E+01   2.7217E+01   1.1679E-04  0.0016
   2.7217E+01   2.7879E+01   1.1334E-04  0.0016
   2.7879E+01   2.8557E+01   1.0975E-04  0.0016
   2.8557E+01   2.9252E+01   1.0598E-04  0.0016
   2.9252E+01   2.9964E+01   1.0217E-04  0.0017
   2.9964E+01   3.0693E+01   9.8360E-05  0.0017
   3.0693E+01   3.1440E+01   9.4294E-05  0.0017
   3.1440E+01   3.2205E+01   9.0167E-05  0.0017
   3.2205E+01   3.2988E+01   8.6203E-05  0.0017
   3.2988E+01   3.3791E+01   8.2005E-05  0.0017
   3.3791E+01   3.4613E+01   7.8087E-05  0.0018
   3.4613E+01   3.5455E+01   7.4013E-05  0.0018
   3.5455E+01   3.6318E+01   7.0153E-05  0.0018
   3.6318E+01   3.7201E+01   6.5954E-05  0.0019
   3.7201E+01   3.8106E+01   6.2974E-05  0.0019
   3.8106E+01   3.9034E+01   6.1425E-05  0.0019
   3.9034E+01   3.9983E+01   5.8987E-05  0.0019
   3.9983E+01   4.0956E+01   5.4998E-05  0.0019
   4.0956E+01   4.1953E+01   5.0714E-05  0.0020
   4.1953E+01   4.2973E+01   4.5666E-05  0.0021
   4.2973E+01   4.4019E+01   4.0722E-05  0.0022
   4.4019E+01   4.5090E+01   3.6969E-05  0.0022
   4.5090E+01   4.6187E+01   3.3685E-05  0.0023
   4.6187E+01   4.7311E+01   3.0369E-05  0.0024
   4.7311E+01   4.8462E+01   2.7329E-05  0.0025
   4.8462E+01   4.9641E+01   2.4408E-05  0.0026
   4.9641E+01   5.0849E+01   2.1662E-05  0.0028
   5.0849E+01   5.2086E+01   1.9133E-05  0.0029
   5.2086E+01   5.3353E+01   1.6698E-05  0.0031
   5.3353E+01   5.4651E+01   1.4727E-05  0.0032
   5.4651E+01   5.5981E+01   1.2665E-05  0.0034
   5.5981E+01   5.7343E+01   1.0901E-05  0.0037
   5.7343E+01   5.8738E+01   9.3453E-06  0.0039
   5.8738E+01   6.0168E+01   7.9532E-06  0.0042
   6.0168E+01   6.1632E+01   6.7733E-06  0.0045
   6.1632E+01   6.3131E+01   5.8705E-06  0.0048
   6.3131E+01   6.4667E+01   5.1287E-06  0.0050
   6.4667E+01   6.6240E+01   4.5395E-06  0.0053
   6.6240E+01   6.7852E+01   4.1547E-06  0.0055
   6.7852E+01   6.9503E+01   3.9491E-06  0.0055
   6.9503E+01   7.1194E+01   3.7961E-06  0.0056
   7.1194E+01   7.2926E+01   3.0254E-06  0.0062
   7.2926E+01   7.4701E+01   6.7935E-07  0.0129
   7.4701E+01   7.6518E+01   2.3989E-08  0.0677
   7.6518E+01   7.8380E+01   1.0743E-10  1.0000
   7.8380E+01   8.0287E+01   0.0000E+00  0.0000
   8.0287E+01   8.2240E+01   0.0000E+00  0.0000
   8.2240E+01   8.4241E+01   0.0000E+00  0.0000
   8.4241E+01   8.6291E+01   0.0000E+00  0.0000
   8.6291E+01   8.8391E+01   0.0000E+00  0.0000
   8.8391E+01   9.0541E+01   0.0000E+00  0.0000
   9.0541E+01   9.2744E+01   0.0000E+00  0.0000
   9.2744E+01   9.5001E+01   0.0000E+00  0.0000
   9.5001E+01   9.7312E+01   0.0000E+00  0.0000
   9.7312E+01   9.9680E+01   0.0000E+00  0.0000
   9.9680E+01   1.0211E+02   0.0000E+00  0.0000
   1.0211E+02   1.0459E+02   0.0000E+00  0.0000
   1.0459E+02   1.0713E+02   0.0000E+00  0.0000
   1.0713E+02   1.0974E+02   0.0000E+00  0.0000
   1.0974E+02   1.1241E+02   0.0000E+00  0.0000
   1.1241E+02   1.1515E+02   0.0000E+00  0.0000
   1.1515E+02   1.1795E+02   0.0000E+00  0.0000
   1.1795E+02   1.2082E+02   0.0000E+00  0.0000
   1.2082E+02   1.2376E+02   0.0000E+00  0.0000
   1.2376E+02   1.2677E+02   0.0000E+00  0.0000
   1.2677E+02   1.2985E+02   0.0000E+00  0.0000
   1.2985E+02   1.3301E+02   0.0000E+00  0.0000
   1.3301E+02   1.3625E+02   0.0000E+00  0.0000
   1.3625E+02   1.3956E+02   0.0000E+00  0.0000
   1.3956E+02   1.4296E+02   0.0000E+00  0.0000
   1.4296E+02   1.4644E+02   0.0000E+00  0.0000
   1.4644E+02   1.5000E+02   0.0000E+00  0.0000

#   sum over                 4.7578E-05
'no. =    1   reg = 109 - 209'
msuc: {\huge [t-cross] in region mesh}
msdr: {\it plotted by \ANGEL \version}
msdl: {\it calculated by \PHITS  3.26}
wt: s(0.7)
\vspace{-3}
  region surface crossing
  area  &=&   1.0000E+00 [cm^2]
e:
 
# Information for Restart Calculation
# This calculation was newly started
# istdev =  2 # 1:Batch variance, 2:History variance
# resc2  = 5.00000000000000000E+09 # Total source weight or Total source weight / maxcas
# resc3  = 5.00000000000000000E+09 # Total history number or Total batch number
# maxcas =   100000000 # History / Batch, only used for istdev=1
# bitrseed = 0110100000100010111000001110001111001110100100011111101000111001 # bit data of rseed
