[ T-Cross ]
    title = [t-cross] in region mesh
     mesh =  reg            # mesh type is region-wise
      reg =    1            # number of crossing regions
      non     r-from    r-to       area
      1       106       206        1.000000    
   e-type =    3            # e-mesh is log given by emin, emax and ne
     emin =  1.0000000E-02  # minimum value of e-mesh points
     emax =   150.0000      # maximum value of e-mesh points
#    edel =  2.4039514E-02  # mesh width of e-mesh points
       ne =    400          # number of e-mesh points
#    data = ( e(i), i = 1, ne + 1 )
#           1.00000E-02  1.02433E-02  1.04925E-02  1.07478E-02  1.10093E-02
#           1.12772E-02  1.15516E-02  1.18326E-02  1.21205E-02  1.24154E-02
#           1.27175E-02  1.30269E-02  1.33439E-02  1.36686E-02  1.40011E-02
#           1.43418E-02  1.46907E-02  1.50482E-02  1.54143E-02  1.57894E-02
#           1.61735E-02  1.65670E-02  1.69701E-02  1.73830E-02  1.78060E-02
#           1.82392E-02  1.86830E-02  1.91375E-02  1.96032E-02  2.00801E-02
#           2.05687E-02  2.10692E-02  2.15818E-02  2.21069E-02  2.26448E-02
#           2.31957E-02  2.37601E-02  2.43382E-02  2.49304E-02  2.55369E-02
#           2.61583E-02  2.67947E-02  2.74467E-02  2.81145E-02  2.87985E-02
#           2.94992E-02  3.02169E-02  3.09521E-02  3.17052E-02  3.24766E-02
#           3.32668E-02  3.40762E-02  3.49053E-02  3.57546E-02  3.66246E-02
#           3.75157E-02  3.84284E-02  3.93634E-02  4.03212E-02  4.13022E-02
#           4.23071E-02  4.33365E-02  4.43909E-02  4.54710E-02  4.65773E-02
#           4.77106E-02  4.88714E-02  5.00605E-02  5.12785E-02  5.25262E-02
#           5.38042E-02  5.51133E-02  5.64542E-02  5.78278E-02  5.92348E-02
#           6.06760E-02  6.21523E-02  6.36645E-02  6.52135E-02  6.68002E-02
#           6.84255E-02  7.00904E-02  7.17957E-02  7.35426E-02  7.53319E-02
#           7.71648E-02  7.90423E-02  8.09655E-02  8.29354E-02  8.49533E-02
#           8.70203E-02  8.91376E-02  9.13064E-02  9.35279E-02  9.58035E-02
#           9.81345E-02  1.00522E-01  1.02968E-01  1.05473E-01  1.08040E-01
#           1.10668E-01  1.13361E-01  1.16119E-01  1.18944E-01  1.21838E-01
#           1.24803E-01  1.27839E-01  1.30950E-01  1.34136E-01  1.37399E-01
#           1.40742E-01  1.44167E-01  1.47675E-01  1.51268E-01  1.54948E-01
#           1.58718E-01  1.62580E-01  1.66535E-01  1.70587E-01  1.74738E-01
#           1.78989E-01  1.83344E-01  1.87805E-01  1.92375E-01  1.97055E-01
#           2.01850E-01  2.06761E-01  2.11792E-01  2.16945E-01  2.22223E-01
#           2.27630E-01  2.33169E-01  2.38842E-01  2.44653E-01  2.50605E-01
#           2.56703E-01  2.62949E-01  2.69346E-01  2.75900E-01  2.82613E-01
#           2.89489E-01  2.96532E-01  3.03747E-01  3.11138E-01  3.18708E-01
#           3.26462E-01  3.34405E-01  3.42542E-01  3.50876E-01  3.59413E-01
#           3.68158E-01  3.77116E-01  3.86291E-01  3.95690E-01  4.05317E-01
#           4.15179E-01  4.25281E-01  4.35628E-01  4.46227E-01  4.57084E-01
#           4.68205E-01  4.79597E-01  4.91266E-01  5.03219E-01  5.15463E-01
#           5.28005E-01  5.40851E-01  5.54011E-01  5.67490E-01  5.81298E-01
#           5.95441E-01  6.09929E-01  6.24769E-01  6.39970E-01  6.55541E-01
#           6.71491E-01  6.87828E-01  7.04564E-01  7.21706E-01  7.39266E-01
#           7.57253E-01  7.75678E-01  7.94551E-01  8.13883E-01  8.33685E-01
#           8.53969E-01  8.74747E-01  8.96030E-01  9.17831E-01  9.40163E-01
#           9.63038E-01  9.86469E-01  1.01047E+00  1.03506E+00  1.06024E+00
#           1.08604E+00  1.11246E+00  1.13953E+00  1.16725E+00  1.19565E+00
#           1.22474E+00  1.25454E+00  1.28507E+00  1.31633E+00  1.34836E+00
#           1.38117E+00  1.41477E+00  1.44920E+00  1.48446E+00  1.52057E+00
#           1.55757E+00  1.59547E+00  1.63429E+00  1.67405E+00  1.71478E+00
#           1.75650E+00  1.79924E+00  1.84302E+00  1.88786E+00  1.93379E+00
#           1.98084E+00  2.02904E+00  2.07841E+00  2.12898E+00  2.18078E+00
#           2.23384E+00  2.28819E+00  2.34386E+00  2.40089E+00  2.45930E+00
#           2.51914E+00  2.58043E+00  2.64322E+00  2.70753E+00  2.77341E+00
#           2.84088E+00  2.91001E+00  2.98081E+00  3.05333E+00  3.12762E+00
#           3.20372E+00  3.28167E+00  3.36152E+00  3.44330E+00  3.52708E+00
#           3.61290E+00  3.70080E+00  3.79085E+00  3.88308E+00  3.97756E+00
#           4.07434E+00  4.17347E+00  4.27501E+00  4.37903E+00  4.48557E+00
#           4.59471E+00  4.70650E+00  4.82102E+00  4.93832E+00  5.05847E+00
#           5.18155E+00  5.30762E+00  5.43676E+00  5.56904E+00  5.70453E+00
#           5.84333E+00  5.98550E+00  6.13114E+00  6.28031E+00  6.43312E+00
#           6.58964E+00  6.74997E+00  6.91420E+00  7.08243E+00  7.25475E+00
#           7.43126E+00  7.61207E+00  7.79728E+00  7.98700E+00  8.18133E+00
#           8.38038E+00  8.58428E+00  8.79315E+00  9.00709E+00  9.22624E+00
#           9.45072E+00  9.68067E+00  9.91620E+00  1.01575E+01  1.04046E+01
#           1.06578E+01  1.09171E+01  1.11827E+01  1.14548E+01  1.17335E+01
#           1.20190E+01  1.23114E+01  1.26109E+01  1.29178E+01  1.32321E+01
#           1.35540E+01  1.38838E+01  1.42216E+01  1.45676E+01  1.49221E+01
#           1.52851E+01  1.56570E+01  1.60380E+01  1.64282E+01  1.68279E+01
#           1.72374E+01  1.76568E+01  1.80864E+01  1.85264E+01  1.89772E+01
#           1.94389E+01  1.99119E+01  2.03963E+01  2.08926E+01  2.14009E+01
#           2.19216E+01  2.24550E+01  2.30014E+01  2.35610E+01  2.41343E+01
#           2.47215E+01  2.53230E+01  2.59391E+01  2.65702E+01  2.72167E+01
#           2.78789E+01  2.85572E+01  2.92520E+01  2.99637E+01  3.06928E+01
#           3.14396E+01  3.22045E+01  3.29881E+01  3.37907E+01  3.46128E+01
#           3.54550E+01  3.63177E+01  3.72013E+01  3.81064E+01  3.90336E+01
#           3.99833E+01  4.09561E+01  4.19526E+01  4.29734E+01  4.40189E+01
#           4.50900E+01  4.61870E+01  4.73108E+01  4.84619E+01  4.96410E+01
#           5.08488E+01  5.20860E+01  5.33533E+01  5.46514E+01  5.59812E+01
#           5.73432E+01  5.87384E+01  6.01676E+01  6.16315E+01  6.31311E+01
#           6.46671E+01  6.62405E+01  6.78522E+01  6.95031E+01  7.11941E+01
#           7.29263E+01  7.47007E+01  7.65182E+01  7.83800E+01  8.02870E+01
#           8.22405E+01  8.42414E+01  8.62911E+01  8.83906E+01  9.05412E+01
#           9.27442E+01  9.50007E+01  9.73122E+01  9.96799E+01  1.02105E+02
#           1.04589E+02  1.07134E+02  1.09741E+02  1.12411E+02  1.15146E+02
#           1.17948E+02  1.20817E+02  1.23757E+02  1.26768E+02  1.29852E+02
#           1.33012E+02  1.36248E+02  1.39563E+02  1.42959E+02  1.46437E+02
#           1.50000E+02
     unit =    2            # unit is [1/cm^2/(MeV/n)/source]
     axis =  eng            # axis of output
     file = detector-07.out  # file name of output for the above axis
   output = f-curr          # surface crossing forward current spectrum
     part =  neutron  
# kf/name :  2112     
#    used :        main (  %)        temp (  %)       total (  %)
#  memory :         414 (  0)           0 (  0)         414 (  0)

#------------------------------------------------------------------------------
#newpage:
#   no. =    1   reg = 106 - 206

x: Energy [MeV/n]
y:  F-Curr [1/cm^2/(MeV/n)/source]         
p: xlog ylog afac(0.8) form(0.9)
h: n            x            y(neutron ),hh0l   n 
#  e-lower      e-upper      neutron     r.err 
   1.0000E-02   1.0243E-02   2.0303E-03  0.0636
   1.0243E-02   1.0493E-02   1.8056E-03  0.0667
   1.0493E-02   1.0748E-02   2.0134E-03  0.0624
   1.0748E-02   1.1009E-02   1.8432E-03  0.0644
   1.1009E-02   1.1277E-02   1.9039E-03  0.0626
   1.1277E-02   1.1552E-02   1.8952E-03  0.0620
   1.1552E-02   1.1833E-02   1.5442E-03  0.0679
   1.1833E-02   1.2121E-02   1.9208E-03  0.0601
   1.2121E-02   1.2415E-02   1.9532E-03  0.0589
   1.2415E-02   1.2718E-02   1.9002E-03  0.0590
   1.2718E-02   1.3027E-02   2.0360E-03  0.0563
   1.3027E-02   1.3344E-02   1.8236E-03  0.0588
   1.3344E-02   1.3669E-02   1.9343E-03  0.0564
   1.3669E-02   1.4001E-02   1.9695E-03  0.0552
   1.4001E-02   1.4342E-02   1.9022E-03  0.0556
   1.4342E-02   1.4691E-02   1.9659E-03  0.0540
   1.4691E-02   1.5048E-02   1.9920E-03  0.0530
   1.5048E-02   1.5414E-02   1.9665E-03  0.0527
   1.5414E-02   1.5789E-02   2.0611E-03  0.0508
   1.5789E-02   1.6174E-02   1.7909E-03  0.0539
   1.6174E-02   1.6567E-02   1.9821E-03  0.0506
   1.6567E-02   1.6970E-02   2.0244E-03  0.0495
   1.6970E-02   1.7383E-02   2.2863E-03  0.0460
   1.7383E-02   1.7806E-02   2.0428E-03  0.0481
   1.7806E-02   1.8239E-02   1.8835E-03  0.0495
   1.8239E-02   1.8683E-02   2.0957E-03  0.0464
   1.8683E-02   1.9138E-02   2.0195E-03  0.0467
   1.9138E-02   1.9603E-02   2.0016E-03  0.0463
   1.9603E-02   2.0080E-02   2.0127E-03  0.0456
   2.0080E-02   2.0569E-02   1.9731E-03  0.0455
   2.0569E-02   2.1069E-02   2.1141E-03  0.0435
   2.1069E-02   2.1582E-02   1.9702E-03  0.0445
   2.1582E-02   2.2107E-02   2.2205E-03  0.0414
   2.2107E-02   2.2645E-02   2.0897E-03  0.0422
   2.2645E-02   2.3196E-02   2.0655E-03  0.0419
   2.3196E-02   2.3760E-02   2.1050E-03  0.0410
   2.3760E-02   2.4338E-02   2.1138E-03  0.0405
   2.4338E-02   2.4930E-02   2.0940E-03  0.0402
   2.4930E-02   2.5537E-02   2.0640E-03  0.0400
   2.5537E-02   2.6158E-02   2.2146E-03  0.0381
   2.6158E-02   2.6795E-02   2.1997E-03  0.0378
   2.6795E-02   2.7447E-02   2.1536E-03  0.0377
   2.7447E-02   2.8114E-02   2.0815E-03  0.0379
   2.8114E-02   2.8799E-02   2.0963E-03  0.0373
   2.8799E-02   2.9499E-02   2.1607E-03  0.0363
   2.9499E-02   3.0217E-02   2.1108E-03  0.0363
   3.0217E-02   3.0952E-02   2.1736E-03  0.0354
   3.0952E-02   3.1705E-02   2.1405E-03  0.0352
   3.1705E-02   3.2477E-02   2.1312E-03  0.0349
   3.2477E-02   3.3267E-02   2.2223E-03  0.0337
   3.3267E-02   3.4076E-02   2.1670E-03  0.0338
   3.4076E-02   3.4905E-02   2.1204E-03  0.0337
   3.4905E-02   3.5755E-02   2.2231E-03  0.0326
   3.5755E-02   3.6625E-02   2.1933E-03  0.0324
   3.6625E-02   3.7516E-02   2.2870E-03  0.0313
   3.7516E-02   3.8428E-02   2.1604E-03  0.0318
   3.8428E-02   3.9363E-02   2.1305E-03  0.0317
   3.9363E-02   4.0321E-02   2.1217E-03  0.0314
   4.0321E-02   4.1302E-02   2.3536E-03  0.0294
   4.1302E-02   4.2307E-02   2.2151E-03  0.0300
   4.2307E-02   4.3337E-02   2.2286E-03  0.0295
   4.3337E-02   4.4391E-02   2.2325E-03  0.0291
   4.4391E-02   4.5471E-02   2.2091E-03  0.0290
   4.5471E-02   4.6577E-02   2.2579E-03  0.0283
   4.6577E-02   4.7711E-02   2.1548E-03  0.0286
   4.7711E-02   4.8871E-02   2.1846E-03  0.0281
   4.8871E-02   5.0061E-02   2.1563E-03  0.0279
   5.0061E-02   5.1279E-02   2.2479E-03  0.0270
   5.1279E-02   5.2526E-02   2.1785E-03  0.0271
   5.2526E-02   5.3804E-02   2.3224E-03  0.0260
   5.3804E-02   5.5113E-02   2.2962E-03  0.0258
   5.5113E-02   5.6454E-02   2.1716E-03  0.0262
   5.6454E-02   5.7828E-02   2.3297E-03  0.0250
   5.7828E-02   5.9235E-02   2.2879E-03  0.0249
   5.9235E-02   6.0676E-02   2.3383E-03  0.0244
   6.0676E-02   6.2152E-02   2.3369E-03  0.0241
   6.2152E-02   6.3665E-02   2.2550E-03  0.0242
   6.3665E-02   6.5214E-02   2.2389E-03  0.0240
   6.5214E-02   6.6800E-02   2.2563E-03  0.0236
   6.6800E-02   6.8426E-02   2.3946E-03  0.0227
   6.8426E-02   7.0090E-02   2.2380E-03  0.0232
   7.0090E-02   7.1796E-02   2.3198E-03  0.0225
   7.1796E-02   7.3543E-02   2.3185E-03  0.0222
   7.3543E-02   7.5332E-02   2.3081E-03  0.0220
   7.5332E-02   7.7165E-02   2.1829E-03  0.0224
   7.7165E-02   7.9042E-02   2.2679E-03  0.0217
   7.9042E-02   8.0965E-02   2.3836E-03  0.0209
   8.0965E-02   8.2935E-02   2.2823E-03  0.0211
   8.2935E-02   8.4953E-02   2.3371E-03  0.0206
   8.4953E-02   8.7020E-02   2.3808E-03  0.0202
   8.7020E-02   8.9138E-02   2.4097E-03  0.0198
   8.9138E-02   9.1306E-02   2.3405E-03  0.0198
   9.1306E-02   9.3528E-02   2.3799E-03  0.0194
   9.3528E-02   9.5804E-02   2.3255E-03  0.0194
   9.5804E-02   9.8134E-02   2.3891E-03  0.0189
   9.8134E-02   1.0052E-01   2.3688E-03  0.0188
   1.0052E-01   1.0297E-01   2.3624E-03  0.0186
   1.0297E-01   1.0547E-01   2.4061E-03  0.0182
   1.0547E-01   1.0804E-01   2.3743E-03  0.0181
   1.0804E-01   1.1067E-01   2.4176E-03  0.0177
   1.1067E-01   1.1336E-01   2.3939E-03  0.0176
   1.1336E-01   1.1612E-01   2.4052E-03  0.0174
   1.1612E-01   1.1894E-01   2.4161E-03  0.0171
   1.1894E-01   1.2184E-01   2.4630E-03  0.0168
   1.2184E-01   1.2480E-01   2.4315E-03  0.0167
   1.2480E-01   1.2784E-01   2.4330E-03  0.0165
   1.2784E-01   1.3095E-01   2.4826E-03  0.0161
   1.3095E-01   1.3414E-01   2.4745E-03  0.0159
   1.3414E-01   1.3740E-01   2.4200E-03  0.0159
   1.3740E-01   1.4074E-01   2.3945E-03  0.0158
   1.4074E-01   1.4417E-01   2.4384E-03  0.0155
   1.4417E-01   1.4767E-01   2.4136E-03  0.0154
   1.4767E-01   1.5127E-01   2.3852E-03  0.0153
   1.5127E-01   1.5495E-01   2.4899E-03  0.0148
   1.5495E-01   1.5872E-01   2.4430E-03  0.0147
   1.5872E-01   1.6258E-01   2.4481E-03  0.0145
   1.6258E-01   1.6654E-01   2.4876E-03  0.0143
   1.6654E-01   1.7059E-01   2.4872E-03  0.0141
   1.7059E-01   1.7474E-01   2.4744E-03  0.0140
   1.7474E-01   1.7899E-01   2.4434E-03  0.0139
   1.7899E-01   1.8334E-01   2.4492E-03  0.0137
   1.8334E-01   1.8781E-01   2.4573E-03  0.0135
   1.8781E-01   1.9237E-01   2.4373E-03  0.0134
   1.9237E-01   1.9706E-01   2.4574E-03  0.0132
   1.9706E-01   2.0185E-01   2.4267E-03  0.0131
   2.0185E-01   2.0676E-01   2.4068E-03  0.0130
   2.0676E-01   2.1179E-01   2.4273E-03  0.0128
   2.1179E-01   2.1694E-01   2.4807E-03  0.0125
   2.1694E-01   2.2222E-01   2.4287E-03  0.0125
   2.2222E-01   2.2763E-01   2.4748E-03  0.0122
   2.2763E-01   2.3317E-01   2.4173E-03  0.0122
   2.3317E-01   2.3884E-01   2.4348E-03  0.0120
   2.3884E-01   2.4465E-01   2.4682E-03  0.0118
   2.4465E-01   2.5061E-01   2.4248E-03  0.0118
   2.5061E-01   2.5670E-01   2.4358E-03  0.0116
   2.5670E-01   2.6295E-01   2.4221E-03  0.0115
   2.6295E-01   2.6935E-01   2.3890E-03  0.0114
   2.6935E-01   2.7590E-01   2.4154E-03  0.0112
   2.7590E-01   2.8261E-01   2.4130E-03  0.0111
   2.8261E-01   2.8949E-01   2.4352E-03  0.0109
   2.8949E-01   2.9653E-01   2.4319E-03  0.0108
   2.9653E-01   3.0375E-01   2.4181E-03  0.0107
   3.0375E-01   3.1114E-01   2.3904E-03  0.0106
   3.1114E-01   3.1871E-01   2.3945E-03  0.0105
   3.1871E-01   3.2646E-01   2.3966E-03  0.0104
   3.2646E-01   3.3441E-01   2.3812E-03  0.0103
   3.3441E-01   3.4254E-01   2.3808E-03  0.0102
   3.4254E-01   3.5088E-01   2.3335E-03  0.0101
   3.5088E-01   3.5941E-01   2.3249E-03  0.0100
   3.5941E-01   3.6816E-01   2.2896E-03  0.0100
   3.6816E-01   3.7712E-01   2.3160E-03  0.0098
   3.7712E-01   3.8629E-01   2.3113E-03  0.0097
   3.8629E-01   3.9569E-01   2.2893E-03  0.0096
   3.9569E-01   4.0532E-01   2.2635E-03  0.0096
   4.0532E-01   4.1518E-01   2.2959E-03  0.0094
   4.1518E-01   4.2528E-01   2.2467E-03  0.0094
   4.2528E-01   4.3563E-01   2.2541E-03  0.0093
   4.3563E-01   4.4623E-01   2.1642E-03  0.0093
   4.4623E-01   4.5708E-01   2.1966E-03  0.0092
   4.5708E-01   4.6821E-01   2.1559E-03  0.0091
   4.6821E-01   4.7960E-01   2.1502E-03  0.0090
   4.7960E-01   4.9127E-01   2.1558E-03  0.0089
   4.9127E-01   5.0322E-01   2.1078E-03  0.0089
   5.0322E-01   5.1546E-01   2.0879E-03  0.0088
   5.1546E-01   5.2800E-01   2.0938E-03  0.0087
   5.2800E-01   5.4085E-01   2.0200E-03  0.0088
   5.4085E-01   5.5401E-01   2.0192E-03  0.0087
   5.5401E-01   5.6749E-01   1.9993E-03  0.0086
   5.6749E-01   5.8130E-01   1.9936E-03  0.0085
   5.8130E-01   5.9544E-01   1.9410E-03  0.0085
   5.9544E-01   6.0993E-01   1.9273E-03  0.0085
   6.0993E-01   6.2477E-01   1.9042E-03  0.0084
   6.2477E-01   6.3997E-01   1.8514E-03  0.0084
   6.3997E-01   6.5554E-01   1.8170E-03  0.0084
   6.5554E-01   6.7149E-01   1.7605E-03  0.0084
   6.7149E-01   6.8783E-01   1.7678E-03  0.0083
   6.8783E-01   7.0456E-01   1.7412E-03  0.0083
   7.0456E-01   7.2171E-01   1.6591E-03  0.0084
   7.2171E-01   7.3927E-01   1.6756E-03  0.0082
   7.3927E-01   7.5725E-01   1.6073E-03  0.0083
   7.5725E-01   7.7568E-01   1.5819E-03  0.0083
   7.7568E-01   7.9455E-01   1.5123E-03  0.0084
   7.9455E-01   8.1388E-01   1.5013E-03  0.0083
   8.1388E-01   8.3368E-01   1.4368E-03  0.0084
   8.3368E-01   8.5397E-01   1.4042E-03  0.0084
   8.5397E-01   8.7475E-01   1.3593E-03  0.0084
   8.7475E-01   8.9603E-01   1.3176E-03  0.0084
   8.9603E-01   9.1783E-01   1.2626E-03  0.0085
   9.1783E-01   9.4016E-01   1.2344E-03  0.0085
   9.4016E-01   9.6304E-01   1.1749E-03  0.0086
   9.6304E-01   9.8647E-01   1.1208E-03  0.0087
   9.8647E-01   1.0105E+00   1.0797E-03  0.0088
   1.0105E+00   1.0351E+00   1.0864E-03  0.0087
   1.0351E+00   1.0602E+00   1.0890E-03  0.0085
   1.0602E+00   1.0860E+00   1.1121E-03  0.0084
   1.0860E+00   1.1125E+00   1.1067E-03  0.0083
   1.1125E+00   1.1395E+00   1.1387E-03  0.0081
   1.1395E+00   1.1673E+00   1.1585E-03  0.0079
   1.1673E+00   1.1957E+00   1.1652E-03  0.0078
   1.1957E+00   1.2247E+00   1.1880E-03  0.0076
   1.2247E+00   1.2545E+00   1.2028E-03  0.0075
   1.2545E+00   1.2851E+00   1.1892E-03  0.0074
   1.2851E+00   1.3163E+00   1.2010E-03  0.0073
   1.3163E+00   1.3484E+00   1.2058E-03  0.0072
   1.3484E+00   1.3812E+00   1.2038E-03  0.0071
   1.3812E+00   1.4148E+00   1.2274E-03  0.0070
   1.4148E+00   1.4492E+00   1.2286E-03  0.0069
   1.4492E+00   1.4845E+00   1.2328E-03  0.0068
   1.4845E+00   1.5206E+00   1.2031E-03  0.0068
   1.5206E+00   1.5576E+00   1.2035E-03  0.0067
   1.5576E+00   1.5955E+00   1.1877E-03  0.0067
   1.5955E+00   1.6343E+00   1.1891E-03  0.0066
   1.6343E+00   1.6741E+00   1.1900E-03  0.0065
   1.6741E+00   1.7148E+00   1.2039E-03  0.0064
   1.7148E+00   1.7565E+00   1.1872E-03  0.0064
   1.7565E+00   1.7992E+00   1.1882E-03  0.0063
   1.7992E+00   1.8430E+00   1.1517E-03  0.0063
   1.8430E+00   1.8879E+00   1.1444E-03  0.0062
   1.8879E+00   1.9338E+00   1.1374E-03  0.0062
   1.9338E+00   1.9808E+00   1.1239E-03  0.0062
   1.9808E+00   2.0290E+00   1.1235E-03  0.0061
   2.0290E+00   2.0784E+00   1.0902E-03  0.0061
   2.0784E+00   2.1290E+00   1.0702E-03  0.0061
   2.1290E+00   2.1808E+00   1.0509E-03  0.0061
   2.1808E+00   2.2338E+00   1.0338E-03  0.0060
   2.2338E+00   2.2882E+00   1.0124E-03  0.0060
   2.2882E+00   2.3439E+00   9.8573E-04  0.0060
   2.3439E+00   2.4009E+00   9.7065E-04  0.0060
   2.4009E+00   2.4593E+00   9.5654E-04  0.0060
   2.4593E+00   2.5191E+00   9.2995E-04  0.0060
   2.5191E+00   2.5804E+00   9.0515E-04  0.0060
   2.5804E+00   2.6432E+00   8.9141E-04  0.0060
   2.6432E+00   2.7075E+00   8.5078E-04  0.0060
   2.7075E+00   2.7734E+00   8.3223E-04  0.0060
   2.7734E+00   2.8409E+00   8.0423E-04  0.0061
   2.8409E+00   2.9100E+00   7.9284E-04  0.0060
   2.9100E+00   2.9808E+00   7.6628E-04  0.0061
   2.9808E+00   3.0533E+00   7.4400E-04  0.0061
   3.0533E+00   3.1276E+00   7.2641E-04  0.0061
   3.1276E+00   3.2037E+00   7.0206E-04  0.0061
   3.2037E+00   3.2817E+00   6.7597E-04  0.0062
   3.2817E+00   3.3615E+00   6.4621E-04  0.0062
   3.3615E+00   3.4433E+00   6.2976E-04  0.0062
   3.4433E+00   3.5271E+00   6.0646E-04  0.0063
   3.5271E+00   3.6129E+00   5.9000E-04  0.0063
   3.6129E+00   3.7008E+00   5.7073E-04  0.0063
   3.7008E+00   3.7908E+00   5.4772E-04  0.0064
   3.7908E+00   3.8831E+00   5.2575E-04  0.0064
   3.8831E+00   3.9776E+00   5.0735E-04  0.0065
   3.9776E+00   4.0743E+00   4.8839E-04  0.0065
   4.0743E+00   4.1735E+00   4.7297E-04  0.0065
   4.1735E+00   4.2750E+00   4.5271E-04  0.0066
   4.2750E+00   4.3790E+00   4.4198E-04  0.0066
   4.3790E+00   4.4856E+00   4.2269E-04  0.0067
   4.4856E+00   4.5947E+00   4.1041E-04  0.0067
   4.5947E+00   4.7065E+00   3.9081E-04  0.0068
   4.7065E+00   4.8210E+00   3.7979E-04  0.0068
   4.8210E+00   4.9383E+00   3.6520E-04  0.0068
   4.9383E+00   5.0585E+00   3.5312E-04  0.0069
   5.0585E+00   5.1815E+00   3.3796E-04  0.0069
   5.1815E+00   5.3076E+00   3.2659E-04  0.0070
   5.3076E+00   5.4368E+00   3.1786E-04  0.0070
   5.4368E+00   5.5690E+00   3.1070E-04  0.0070
   5.5690E+00   5.7045E+00   2.9667E-04  0.0071
   5.7045E+00   5.8433E+00   2.8549E-04  0.0071
   5.8433E+00   5.9855E+00   2.7760E-04  0.0071
   5.9855E+00   6.1311E+00   2.6883E-04  0.0071
   6.1311E+00   6.2803E+00   2.6404E-04  0.0071
   6.2803E+00   6.4331E+00   2.5087E-04  0.0072
   6.4331E+00   6.5896E+00   2.4485E-04  0.0072
   6.5896E+00   6.7500E+00   2.3886E-04  0.0072
   6.7500E+00   6.9142E+00   2.3340E-04  0.0072
   6.9142E+00   7.0824E+00   2.2706E-04  0.0072
   7.0824E+00   7.2548E+00   2.1934E-04  0.0073
   7.2548E+00   7.4313E+00   2.1501E-04  0.0073
   7.4313E+00   7.6121E+00   2.0698E-04  0.0073
   7.6121E+00   7.7973E+00   2.0144E-04  0.0073
   7.7973E+00   7.9870E+00   1.9994E-04  0.0073
   7.9870E+00   8.1813E+00   1.9864E-04  0.0072
   8.1813E+00   8.3804E+00   1.9115E-04  0.0072
   8.3804E+00   8.5843E+00   1.8876E-04  0.0072
   8.5843E+00   8.7931E+00   1.8602E-04  0.0072
   8.7931E+00   9.0071E+00   1.7909E-04  0.0072
   9.0071E+00   9.2262E+00   1.7929E-04  0.0071
   9.2262E+00   9.4507E+00   1.7565E-04  0.0071
   9.4507E+00   9.6807E+00   1.7417E-04  0.0071
   9.6807E+00   9.9162E+00   1.7240E-04  0.0070
   9.9162E+00   1.0157E+01   1.7024E-04  0.0070
   1.0157E+01   1.0405E+01   1.6809E-04  0.0069
   1.0405E+01   1.0658E+01   1.6756E-04  0.0069
   1.0658E+01   1.0917E+01   1.6605E-04  0.0068
   1.0917E+01   1.1183E+01   1.6528E-04  0.0067
   1.1183E+01   1.1455E+01   1.6143E-04  0.0067
   1.1455E+01   1.1733E+01   1.6377E-04  0.0066
   1.1733E+01   1.2019E+01   1.6228E-04  0.0066
   1.2019E+01   1.2311E+01   1.6117E-04  0.0065
   1.2311E+01   1.2611E+01   1.5992E-04  0.0065
   1.2611E+01   1.2918E+01   1.5775E-04  0.0064
   1.2918E+01   1.3232E+01   1.5833E-04  0.0063
   1.3232E+01   1.3554E+01   1.6089E-04  0.0062
   1.3554E+01   1.3884E+01   1.5900E-04  0.0062
   1.3884E+01   1.4222E+01   1.5963E-04  0.0061
   1.4222E+01   1.4568E+01   1.5861E-04  0.0060
   1.4568E+01   1.4922E+01   1.5984E-04  0.0059
   1.4922E+01   1.5285E+01   1.6018E-04  0.0059
   1.5285E+01   1.5657E+01   1.5963E-04  0.0058
   1.5657E+01   1.6038E+01   1.6098E-04  0.0057
   1.6038E+01   1.6428E+01   1.6121E-04  0.0056
   1.6428E+01   1.6828E+01   1.6144E-04  0.0056
   1.6828E+01   1.7237E+01   1.6191E-04  0.0055
   1.7237E+01   1.7657E+01   1.6179E-04  0.0054
   1.7657E+01   1.8086E+01   1.6450E-04  0.0053
   1.8086E+01   1.8526E+01   1.6436E-04  0.0053
   1.8526E+01   1.8977E+01   1.6544E-04  0.0052
   1.8977E+01   1.9439E+01   1.6601E-04  0.0051
   1.9439E+01   1.9912E+01   1.6724E-04  0.0050
   1.9912E+01   2.0396E+01   1.6875E-04  0.0049
   2.0396E+01   2.0893E+01   1.7001E-04  0.0049
   2.0893E+01   2.1401E+01   1.7055E-04  0.0048
   2.1401E+01   2.1922E+01   1.7030E-04  0.0047
   2.1922E+01   2.2455E+01   1.7322E-04  0.0047
   2.2455E+01   2.3001E+01   1.7242E-04  0.0046
   2.3001E+01   2.3561E+01   1.7500E-04  0.0045
   2.3561E+01   2.4134E+01   1.7401E-04  0.0045
   2.4134E+01   2.4721E+01   1.7682E-04  0.0044
   2.4721E+01   2.5323E+01   1.7607E-04  0.0043
   2.5323E+01   2.5939E+01   1.7651E-04  0.0043
   2.5939E+01   2.6570E+01   1.7825E-04  0.0042
   2.6570E+01   2.7217E+01   1.7891E-04  0.0042
   2.7217E+01   2.7879E+01   1.7919E-04  0.0041
   2.7879E+01   2.8557E+01   1.8070E-04  0.0040
   2.8557E+01   2.9252E+01   1.8035E-04  0.0040
   2.9252E+01   2.9964E+01   1.8157E-04  0.0039
   2.9964E+01   3.0693E+01   1.8081E-04  0.0039
   3.0693E+01   3.1440E+01   1.8066E-04  0.0039
   3.1440E+01   3.2205E+01   1.7960E-04  0.0038
   3.2205E+01   3.2988E+01   1.7829E-04  0.0038
   3.2988E+01   3.3791E+01   1.7796E-04  0.0037
   3.3791E+01   3.4613E+01   1.7551E-04  0.0037
   3.4613E+01   3.5455E+01   1.7419E-04  0.0037
   3.5455E+01   3.6318E+01   1.7228E-04  0.0037
   3.6318E+01   3.7201E+01   1.6936E-04  0.0037
   3.7201E+01   3.8106E+01   1.6622E-04  0.0036
   3.8106E+01   3.9034E+01   1.6213E-04  0.0036
   3.9034E+01   3.9983E+01   1.5884E-04  0.0036
   3.9983E+01   4.0956E+01   1.5665E-04  0.0036
   4.0956E+01   4.1953E+01   1.5155E-04  0.0036
   4.1953E+01   4.2973E+01   1.4597E-04  0.0037
   4.2973E+01   4.4019E+01   1.4117E-04  0.0037
   4.4019E+01   4.5090E+01   1.3667E-04  0.0037
   4.5090E+01   4.6187E+01   1.3092E-04  0.0037
   4.6187E+01   4.7311E+01   1.2549E-04  0.0038
   4.7311E+01   4.8462E+01   1.1988E-04  0.0038
   4.8462E+01   4.9641E+01   1.1474E-04  0.0038
   4.9641E+01   5.0849E+01   1.0700E-04  0.0039
   5.0849E+01   5.2086E+01   1.0197E-04  0.0040
   5.2086E+01   5.3353E+01   9.5771E-05  0.0041
   5.3353E+01   5.4651E+01   8.9914E-05  0.0041
   5.4651E+01   5.5981E+01   8.4868E-05  0.0042
   5.5981E+01   5.7343E+01   7.9341E-05  0.0043
   5.7343E+01   5.8738E+01   7.3732E-05  0.0044
   5.8738E+01   6.0168E+01   6.8709E-05  0.0045
   6.0168E+01   6.1632E+01   6.3521E-05  0.0046
   6.1632E+01   6.3131E+01   5.9639E-05  0.0047
   6.3131E+01   6.4667E+01   5.4929E-05  0.0049
   6.4667E+01   6.6240E+01   5.1201E-05  0.0050
   6.6240E+01   6.7852E+01   4.6993E-05  0.0051
   6.7852E+01   6.9503E+01   4.3570E-05  0.0053
   6.9503E+01   7.1194E+01   4.0475E-05  0.0054
   7.1194E+01   7.2926E+01   3.7401E-05  0.0056
   7.2926E+01   7.4701E+01   3.4256E-05  0.0057
   7.4701E+01   7.6518E+01   3.1599E-05  0.0059
   7.6518E+01   7.8380E+01   2.8459E-05  0.0061
   7.8380E+01   8.0287E+01   2.5517E-05  0.0064
   8.0287E+01   8.2240E+01   2.2890E-05  0.0067
   8.2240E+01   8.4241E+01   2.0309E-05  0.0070
   8.4241E+01   8.6291E+01   1.7657E-05  0.0074
   8.6291E+01   8.8391E+01   1.5769E-05  0.0078
   8.8391E+01   9.0541E+01   1.3803E-05  0.0082
   9.0541E+01   9.2744E+01   1.1756E-05  0.0088
   9.2744E+01   9.5001E+01   1.0175E-05  0.0093
   9.5001E+01   9.7312E+01   8.7711E-06  0.0099
   9.7312E+01   9.9680E+01   7.2738E-06  0.0108
   9.9680E+01   1.0211E+02   5.7775E-06  0.0119
   1.0211E+02   1.0459E+02   4.4020E-06  0.0135
   1.0459E+02   1.0713E+02   3.3866E-06  0.0152
   1.0713E+02   1.0974E+02   2.2258E-06  0.0186
   1.0974E+02   1.1241E+02   9.5278E-07  0.0280
   1.1241E+02   1.1515E+02   8.4094E-08  0.0933
   1.1515E+02   1.1795E+02   0.0000E+00  0.0000
   1.1795E+02   1.2082E+02   0.0000E+00  0.0000
   1.2082E+02   1.2376E+02   0.0000E+00  0.0000
   1.2376E+02   1.2677E+02   0.0000E+00  0.0000
   1.2677E+02   1.2985E+02   0.0000E+00  0.0000
   1.2985E+02   1.3301E+02   0.0000E+00  0.0000
   1.3301E+02   1.3625E+02   0.0000E+00  0.0000
   1.3625E+02   1.3956E+02   0.0000E+00  0.0000
   1.3956E+02   1.4296E+02   0.0000E+00  0.0000
   1.4296E+02   1.4644E+02   0.0000E+00  0.0000
   1.4644E+02   1.5000E+02   0.0000E+00  0.0000

#   sum over                 9.7902E-05
'no. =    1   reg = 106 - 206'
msuc: {\huge [t-cross] in region mesh}
msdr: {\it plotted by \ANGEL \version}
msdl: {\it calculated by \PHITS  3.26}
wt: s(0.7)
\vspace{-3}
  region surface crossing
  area  &=&   1.0000E+00 [cm^2]
e:
 
# Information for Restart Calculation
# This calculation was newly started
# istdev =  2 # 1:Batch variance, 2:History variance
# resc2  = 5.00000000000000000E+08 # Total source weight or Total source weight / maxcas
# resc3  = 5.00000000000000000E+08 # Total history number or Total batch number
# maxcas =   500000000 # History / Batch, only used for istdev=1
# bitrseed = 1101101111010011011000101101110001100110110010110001010100010001 # bit data of rseed
