[ T-Cross ]
    title = [t-cross] in region mesh
     mesh =  reg            # mesh type is region-wise
      reg =    1            # number of crossing regions
      non     r-from    r-to       area
      1       106       206        1.000000    
   e-type =    3            # e-mesh is log given by emin, emax and ne
     emin =  1.0000000E-02  # minimum value of e-mesh points
     emax =   150.0000      # maximum value of e-mesh points
#    edel =  2.4039514E-02  # mesh width of e-mesh points
       ne =    400          # number of e-mesh points
#    data = ( e(i), i = 1, ne + 1 )
#           1.00000E-02  1.02433E-02  1.04925E-02  1.07478E-02  1.10093E-02
#           1.12772E-02  1.15516E-02  1.18326E-02  1.21205E-02  1.24154E-02
#           1.27175E-02  1.30269E-02  1.33439E-02  1.36686E-02  1.40011E-02
#           1.43418E-02  1.46907E-02  1.50482E-02  1.54143E-02  1.57894E-02
#           1.61735E-02  1.65670E-02  1.69701E-02  1.73830E-02  1.78060E-02
#           1.82392E-02  1.86830E-02  1.91375E-02  1.96032E-02  2.00801E-02
#           2.05687E-02  2.10692E-02  2.15818E-02  2.21069E-02  2.26448E-02
#           2.31957E-02  2.37601E-02  2.43382E-02  2.49304E-02  2.55369E-02
#           2.61583E-02  2.67947E-02  2.74467E-02  2.81145E-02  2.87985E-02
#           2.94992E-02  3.02169E-02  3.09521E-02  3.17052E-02  3.24766E-02
#           3.32668E-02  3.40762E-02  3.49053E-02  3.57546E-02  3.66246E-02
#           3.75157E-02  3.84284E-02  3.93634E-02  4.03212E-02  4.13022E-02
#           4.23071E-02  4.33365E-02  4.43909E-02  4.54710E-02  4.65773E-02
#           4.77106E-02  4.88714E-02  5.00605E-02  5.12785E-02  5.25262E-02
#           5.38042E-02  5.51133E-02  5.64542E-02  5.78278E-02  5.92348E-02
#           6.06760E-02  6.21523E-02  6.36645E-02  6.52135E-02  6.68002E-02
#           6.84255E-02  7.00904E-02  7.17957E-02  7.35426E-02  7.53319E-02
#           7.71648E-02  7.90423E-02  8.09655E-02  8.29354E-02  8.49533E-02
#           8.70203E-02  8.91376E-02  9.13064E-02  9.35279E-02  9.58035E-02
#           9.81345E-02  1.00522E-01  1.02968E-01  1.05473E-01  1.08040E-01
#           1.10668E-01  1.13361E-01  1.16119E-01  1.18944E-01  1.21838E-01
#           1.24803E-01  1.27839E-01  1.30950E-01  1.34136E-01  1.37399E-01
#           1.40742E-01  1.44167E-01  1.47675E-01  1.51268E-01  1.54948E-01
#           1.58718E-01  1.62580E-01  1.66535E-01  1.70587E-01  1.74738E-01
#           1.78989E-01  1.83344E-01  1.87805E-01  1.92375E-01  1.97055E-01
#           2.01850E-01  2.06761E-01  2.11792E-01  2.16945E-01  2.22223E-01
#           2.27630E-01  2.33169E-01  2.38842E-01  2.44653E-01  2.50605E-01
#           2.56703E-01  2.62949E-01  2.69346E-01  2.75900E-01  2.82613E-01
#           2.89489E-01  2.96532E-01  3.03747E-01  3.11138E-01  3.18708E-01
#           3.26462E-01  3.34405E-01  3.42542E-01  3.50876E-01  3.59413E-01
#           3.68158E-01  3.77116E-01  3.86291E-01  3.95690E-01  4.05317E-01
#           4.15179E-01  4.25281E-01  4.35628E-01  4.46227E-01  4.57084E-01
#           4.68205E-01  4.79597E-01  4.91266E-01  5.03219E-01  5.15463E-01
#           5.28005E-01  5.40851E-01  5.54011E-01  5.67490E-01  5.81298E-01
#           5.95441E-01  6.09929E-01  6.24769E-01  6.39970E-01  6.55541E-01
#           6.71491E-01  6.87828E-01  7.04564E-01  7.21706E-01  7.39266E-01
#           7.57253E-01  7.75678E-01  7.94551E-01  8.13883E-01  8.33685E-01
#           8.53969E-01  8.74747E-01  8.96030E-01  9.17831E-01  9.40163E-01
#           9.63038E-01  9.86469E-01  1.01047E+00  1.03506E+00  1.06024E+00
#           1.08604E+00  1.11246E+00  1.13953E+00  1.16725E+00  1.19565E+00
#           1.22474E+00  1.25454E+00  1.28507E+00  1.31633E+00  1.34836E+00
#           1.38117E+00  1.41477E+00  1.44920E+00  1.48446E+00  1.52057E+00
#           1.55757E+00  1.59547E+00  1.63429E+00  1.67405E+00  1.71478E+00
#           1.75650E+00  1.79924E+00  1.84302E+00  1.88786E+00  1.93379E+00
#           1.98084E+00  2.02904E+00  2.07841E+00  2.12898E+00  2.18078E+00
#           2.23384E+00  2.28819E+00  2.34386E+00  2.40089E+00  2.45930E+00
#           2.51914E+00  2.58043E+00  2.64322E+00  2.70753E+00  2.77341E+00
#           2.84088E+00  2.91001E+00  2.98081E+00  3.05333E+00  3.12762E+00
#           3.20372E+00  3.28167E+00  3.36152E+00  3.44330E+00  3.52708E+00
#           3.61290E+00  3.70080E+00  3.79085E+00  3.88308E+00  3.97756E+00
#           4.07434E+00  4.17347E+00  4.27501E+00  4.37903E+00  4.48557E+00
#           4.59471E+00  4.70650E+00  4.82102E+00  4.93832E+00  5.05847E+00
#           5.18155E+00  5.30762E+00  5.43676E+00  5.56904E+00  5.70453E+00
#           5.84333E+00  5.98550E+00  6.13114E+00  6.28031E+00  6.43312E+00
#           6.58964E+00  6.74997E+00  6.91420E+00  7.08243E+00  7.25475E+00
#           7.43126E+00  7.61207E+00  7.79728E+00  7.98700E+00  8.18133E+00
#           8.38038E+00  8.58428E+00  8.79315E+00  9.00709E+00  9.22624E+00
#           9.45072E+00  9.68067E+00  9.91620E+00  1.01575E+01  1.04046E+01
#           1.06578E+01  1.09171E+01  1.11827E+01  1.14548E+01  1.17335E+01
#           1.20190E+01  1.23114E+01  1.26109E+01  1.29178E+01  1.32321E+01
#           1.35540E+01  1.38838E+01  1.42216E+01  1.45676E+01  1.49221E+01
#           1.52851E+01  1.56570E+01  1.60380E+01  1.64282E+01  1.68279E+01
#           1.72374E+01  1.76568E+01  1.80864E+01  1.85264E+01  1.89772E+01
#           1.94389E+01  1.99119E+01  2.03963E+01  2.08926E+01  2.14009E+01
#           2.19216E+01  2.24550E+01  2.30014E+01  2.35610E+01  2.41343E+01
#           2.47215E+01  2.53230E+01  2.59391E+01  2.65702E+01  2.72167E+01
#           2.78789E+01  2.85572E+01  2.92520E+01  2.99637E+01  3.06928E+01
#           3.14396E+01  3.22045E+01  3.29881E+01  3.37907E+01  3.46128E+01
#           3.54550E+01  3.63177E+01  3.72013E+01  3.81064E+01  3.90336E+01
#           3.99833E+01  4.09561E+01  4.19526E+01  4.29734E+01  4.40189E+01
#           4.50900E+01  4.61870E+01  4.73108E+01  4.84619E+01  4.96410E+01
#           5.08488E+01  5.20860E+01  5.33533E+01  5.46514E+01  5.59812E+01
#           5.73432E+01  5.87384E+01  6.01676E+01  6.16315E+01  6.31311E+01
#           6.46671E+01  6.62405E+01  6.78522E+01  6.95031E+01  7.11941E+01
#           7.29263E+01  7.47007E+01  7.65182E+01  7.83800E+01  8.02870E+01
#           8.22405E+01  8.42414E+01  8.62911E+01  8.83906E+01  9.05412E+01
#           9.27442E+01  9.50007E+01  9.73122E+01  9.96799E+01  1.02105E+02
#           1.04589E+02  1.07134E+02  1.09741E+02  1.12411E+02  1.15146E+02
#           1.17948E+02  1.20817E+02  1.23757E+02  1.26768E+02  1.29852E+02
#           1.33012E+02  1.36248E+02  1.39563E+02  1.42959E+02  1.46437E+02
#           1.50000E+02
     unit =    2            # unit is [1/cm^2/(MeV/n)/source]
     axis =  eng            # axis of output
     file = detector-07.out  # file name of output for the above axis
   output = f-curr          # surface crossing forward current spectrum
     part =  neutron  
# kf/name :  2112     
#    used :        main (  %)        temp (  %)       total (  %)
#  memory :         414 (  0)           0 (  0)         414 (  0)

#------------------------------------------------------------------------------
#newpage:
#   no. =    1   reg = 106 - 206

x: Energy [MeV/n]
y:  F-Curr [1/cm^2/(MeV/n)/source]         
p: xlog ylog afac(0.8) form(0.9)
h: n            x            y(neutron ),hh0l   n 
#  e-lower      e-upper      neutron     r.err 
   1.0000E-02   1.0243E-02   6.0753E-04  0.0519
   1.0243E-02   1.0493E-02   6.4300E-04  0.0499
   1.0493E-02   1.0748E-02   7.0795E-04  0.0470
   1.0748E-02   1.1009E-02   6.8781E-04  0.0470
   1.1009E-02   1.1277E-02   6.6250E-04  0.0474
   1.1277E-02   1.1552E-02   6.5431E-04  0.0472
   1.1552E-02   1.1833E-02   5.5839E-04  0.0504
   1.1833E-02   1.2121E-02   6.2383E-04  0.0471
   1.2121E-02   1.2415E-02   6.7764E-04  0.0447
   1.2415E-02   1.2718E-02   5.9989E-04  0.0469
   1.2718E-02   1.3027E-02   5.9112E-04  0.0467
   1.3027E-02   1.3344E-02   6.2814E-04  0.0448
   1.3344E-02   1.3669E-02   6.2612E-04  0.0443
   1.3669E-02   1.4001E-02   5.9048E-04  0.0451
   1.4001E-02   1.4342E-02   6.0445E-04  0.0439
   1.4342E-02   1.4691E-02   5.6670E-04  0.0449
   1.4691E-02   1.5048E-02   5.0621E-04  0.0469
   1.5048E-02   1.5414E-02   5.8670E-04  0.0431
   1.5414E-02   1.5789E-02   5.0571E-04  0.0458
   1.5789E-02   1.6174E-02   5.1601E-04  0.0448
   1.6174E-02   1.6567E-02   5.5275E-04  0.0428
   1.6567E-02   1.6970E-02   5.0334E-04  0.0443
   1.6970E-02   1.7383E-02   5.2493E-04  0.0429
   1.7383E-02   1.7806E-02   5.1996E-04  0.0426
   1.7806E-02   1.8239E-02   5.2446E-04  0.0419
   1.8239E-02   1.8683E-02   5.1012E-04  0.0419
   1.8683E-02   1.9138E-02   5.0240E-04  0.0418
   1.9138E-02   1.9603E-02   4.9249E-04  0.0417
   1.9603E-02   2.0080E-02   5.1163E-04  0.0404
   2.0080E-02   2.0569E-02   4.8279E-04  0.0411
   2.0569E-02   2.1069E-02   4.5506E-04  0.0418
   2.1069E-02   2.1582E-02   4.5163E-04  0.0415
   2.1582E-02   2.2107E-02   4.7091E-04  0.0401
   2.2107E-02   2.2645E-02   4.7024E-04  0.0397
   2.2645E-02   2.3196E-02   4.6485E-04  0.0395
   2.3196E-02   2.3760E-02   4.1688E-04  0.0412
   2.3760E-02   2.4338E-02   4.2723E-04  0.0401
   2.4338E-02   2.4930E-02   4.4212E-04  0.0390
   2.4930E-02   2.5537E-02   4.7094E-04  0.0374
   2.5537E-02   2.6158E-02   4.2889E-04  0.0387
   2.6158E-02   2.6795E-02   4.3416E-04  0.0380
   2.6795E-02   2.7447E-02   4.3211E-04  0.0376
   2.7447E-02   2.8114E-02   4.1388E-04  0.0380
   2.8114E-02   2.8799E-02   4.2672E-04  0.0369
   2.8799E-02   2.9499E-02   4.0357E-04  0.0375
   2.9499E-02   3.0217E-02   4.1097E-04  0.0368
   3.0217E-02   3.0952E-02   3.8422E-04  0.0376
   3.0952E-02   3.1705E-02   3.9464E-04  0.0366
   3.1705E-02   3.2477E-02   3.7452E-04  0.0371
   3.2477E-02   3.3267E-02   3.6003E-04  0.0375
   3.3267E-02   3.4076E-02   3.6597E-04  0.0367
   3.4076E-02   3.4905E-02   3.5384E-04  0.0368
   3.4905E-02   3.5755E-02   3.7823E-04  0.0352
   3.5755E-02   3.6625E-02   3.7513E-04  0.0350
   3.6625E-02   3.7516E-02   3.4392E-04  0.0360
   3.7516E-02   3.8428E-02   3.5714E-04  0.0350
   3.8428E-02   3.9363E-02   3.4115E-04  0.0354
   3.9363E-02   4.0321E-02   3.6047E-04  0.0340
   4.0321E-02   4.1302E-02   3.1230E-04  0.0361
   4.1302E-02   4.2307E-02   3.2167E-04  0.0351
   4.2307E-02   4.3337E-02   3.1841E-04  0.0349
   4.3337E-02   4.4391E-02   3.1795E-04  0.0345
   4.4391E-02   4.5471E-02   3.3539E-04  0.0332
   4.5471E-02   4.6577E-02   3.1502E-04  0.0338
   4.6577E-02   4.7711E-02   2.9850E-04  0.0343
   4.7711E-02   4.8871E-02   2.9531E-04  0.0341
   4.8871E-02   5.0061E-02   2.9380E-04  0.0338
   5.0061E-02   5.1279E-02   3.1070E-04  0.0325
   5.1279E-02   5.2526E-02   3.0099E-04  0.0326
   5.2526E-02   5.3804E-02   2.9281E-04  0.0326
   5.3804E-02   5.5113E-02   2.8394E-04  0.0327
   5.5113E-02   5.6454E-02   2.7060E-04  0.0331
   5.6454E-02   5.7828E-02   2.7666E-04  0.0324
   5.7828E-02   5.9235E-02   2.8309E-04  0.0316
   5.9235E-02   6.0676E-02   2.7752E-04  0.0316
   6.0676E-02   6.2152E-02   2.6215E-04  0.0321
   6.2152E-02   6.3665E-02   2.6933E-04  0.0313
   6.3665E-02   6.5214E-02   2.6331E-04  0.0313
   6.5214E-02   6.6800E-02   2.4888E-04  0.0318
   6.6800E-02   6.8426E-02   2.5167E-04  0.0312
   6.8426E-02   7.0090E-02   2.4348E-04  0.0313
   7.0090E-02   7.1796E-02   2.3301E-04  0.0317
   7.1796E-02   7.3543E-02   2.3438E-04  0.0312
   7.3543E-02   7.5332E-02   2.3147E-04  0.0310
   7.5332E-02   7.7165E-02   2.3920E-04  0.0301
   7.7165E-02   7.9042E-02   2.2422E-04  0.0308
   7.9042E-02   8.0965E-02   2.2293E-04  0.0305
   8.0965E-02   8.2935E-02   2.1940E-04  0.0304
   8.2935E-02   8.4953E-02   2.2135E-04  0.0299
   8.4953E-02   8.7020E-02   2.1328E-04  0.0301
   8.7020E-02   8.9138E-02   2.1836E-04  0.0294
   8.9138E-02   9.1306E-02   2.0041E-04  0.0303
   9.1306E-02   9.3528E-02   1.9508E-04  0.0303
   9.3528E-02   9.5804E-02   1.9431E-04  0.0300
   9.5804E-02   9.8134E-02   1.9192E-04  0.0299
   9.8134E-02   1.0052E-01   1.9618E-04  0.0292
   1.0052E-01   1.0297E-01   1.9554E-04  0.0289
   1.0297E-01   1.0547E-01   1.8641E-04  0.0292
   1.0547E-01   1.0804E-01   1.8594E-04  0.0289
   1.0804E-01   1.1067E-01   1.8015E-04  0.0290
   1.1067E-01   1.1336E-01   1.8019E-04  0.0287
   1.1336E-01   1.1612E-01   1.7132E-04  0.0290
   1.1612E-01   1.1894E-01   1.6673E-04  0.0291
   1.1894E-01   1.2184E-01   1.6373E-04  0.0290
   1.2184E-01   1.2480E-01   1.6772E-04  0.0283
   1.2480E-01   1.2784E-01   1.5870E-04  0.0288
   1.2784E-01   1.3095E-01   1.5224E-04  0.0290
   1.3095E-01   1.3414E-01   1.6227E-04  0.0278
   1.3414E-01   1.3740E-01   1.6106E-04  0.0275
   1.3740E-01   1.4074E-01   1.4435E-04  0.0287
   1.4074E-01   1.4417E-01   1.4578E-04  0.0283
   1.4417E-01   1.4767E-01   1.4013E-04  0.0285
   1.4767E-01   1.5127E-01   1.3424E-04  0.0287
   1.5127E-01   1.5495E-01   1.3323E-04  0.0285
   1.5495E-01   1.5872E-01   1.3380E-04  0.0281
   1.5872E-01   1.6258E-01   1.2597E-04  0.0287
   1.6258E-01   1.6654E-01   1.2430E-04  0.0285
   1.6654E-01   1.7059E-01   1.2299E-04  0.0283
   1.7059E-01   1.7474E-01   1.2130E-04  0.0281
   1.7474E-01   1.7899E-01   1.2418E-04  0.0275
   1.7899E-01   1.8334E-01   1.1250E-04  0.0285
   1.8334E-01   1.8781E-01   1.1483E-04  0.0279
   1.8781E-01   1.9237E-01   1.1426E-04  0.0276
   1.9237E-01   1.9706E-01   1.0744E-04  0.0282
   1.9706E-01   2.0185E-01   1.0962E-04  0.0276
   2.0185E-01   2.0676E-01   1.1408E-04  0.0267
   2.0676E-01   2.1179E-01   1.1344E-04  0.0264
   2.1179E-01   2.1694E-01   1.1438E-04  0.0260
   2.1694E-01   2.2222E-01   1.1315E-04  0.0258
   2.2222E-01   2.2763E-01   1.1674E-04  0.0251
   2.2763E-01   2.3317E-01   1.1979E-04  0.0245
   2.3317E-01   2.3884E-01   1.2010E-04  0.0242
   2.3884E-01   2.4465E-01   1.2666E-04  0.0233
   2.4465E-01   2.5061E-01   1.2802E-04  0.0229
   2.5061E-01   2.5670E-01   1.3353E-04  0.0221
   2.5670E-01   2.6295E-01   1.3217E-04  0.0220
   2.6295E-01   2.6935E-01   1.3828E-04  0.0212
   2.6935E-01   2.7590E-01   1.3310E-04  0.0214
   2.7590E-01   2.8261E-01   1.4008E-04  0.0206
   2.8261E-01   2.8949E-01   1.4238E-04  0.0202
   2.8949E-01   2.9653E-01   1.4292E-04  0.0199
   2.9653E-01   3.0375E-01   1.4534E-04  0.0195
   3.0375E-01   3.1114E-01   1.4748E-04  0.0191
   3.1114E-01   3.1871E-01   1.5082E-04  0.0187
   3.1871E-01   3.2646E-01   1.5646E-04  0.0181
   3.2646E-01   3.3441E-01   1.5171E-04  0.0182
   3.3441E-01   3.4254E-01   1.5420E-04  0.0178
   3.4254E-01   3.5088E-01   1.6034E-04  0.0173
   3.5088E-01   3.5941E-01   1.6083E-04  0.0170
   3.5941E-01   3.6816E-01   1.6038E-04  0.0169
   3.6816E-01   3.7712E-01   1.6783E-04  0.0163
   3.7712E-01   3.8629E-01   1.6281E-04  0.0163
   3.8629E-01   3.9569E-01   1.6986E-04  0.0158
   3.9569E-01   4.0532E-01   1.6758E-04  0.0157
   4.0532E-01   4.1518E-01   1.7332E-04  0.0153
   4.1518E-01   4.2528E-01   1.7145E-04  0.0152
   4.2528E-01   4.3563E-01   1.6965E-04  0.0151
   4.3563E-01   4.4623E-01   1.7148E-04  0.0148
   4.4623E-01   4.5708E-01   1.7508E-04  0.0145
   4.5708E-01   4.6821E-01   1.7720E-04  0.0142
   4.6821E-01   4.7960E-01   1.8013E-04  0.0139
   4.7960E-01   4.9127E-01   1.7970E-04  0.0138
   4.9127E-01   5.0322E-01   1.7964E-04  0.0136
   5.0322E-01   5.1546E-01   1.8622E-04  0.0132
   5.1546E-01   5.2800E-01   1.8207E-04  0.0132
   5.2800E-01   5.4085E-01   1.8841E-04  0.0128
   5.4085E-01   5.5401E-01   1.8545E-04  0.0128
   5.5401E-01   5.6749E-01   1.8461E-04  0.0127
   5.6749E-01   5.8130E-01   1.8455E-04  0.0125
   5.8130E-01   5.9544E-01   1.8960E-04  0.0122
   5.9544E-01   6.0993E-01   1.9026E-04  0.0120
   6.0993E-01   6.2477E-01   1.9089E-04  0.0119
   6.2477E-01   6.3997E-01   1.9202E-04  0.0117
   6.3997E-01   6.5554E-01   1.9393E-04  0.0115
   6.5554E-01   6.7149E-01   1.9469E-04  0.0113
   6.7149E-01   6.8783E-01   1.9844E-04  0.0111
   6.8783E-01   7.0456E-01   1.9755E-04  0.0110
   7.0456E-01   7.2171E-01   1.9914E-04  0.0108
   7.2171E-01   7.3927E-01   2.0424E-04  0.0105
   7.3927E-01   7.5725E-01   2.0696E-04  0.0104
   7.5725E-01   7.7568E-01   2.0324E-04  0.0103
   7.7568E-01   7.9455E-01   2.0505E-04  0.0102
   7.9455E-01   8.1388E-01   2.0993E-04  0.0099
   8.1388E-01   8.3368E-01   2.0659E-04  0.0099
   8.3368E-01   8.5397E-01   2.1201E-04  0.0096
   8.5397E-01   8.7475E-01   2.1359E-04  0.0095
   8.7475E-01   8.9603E-01   2.1100E-04  0.0094
   8.9603E-01   9.1783E-01   2.1638E-04  0.0092
   9.1783E-01   9.4016E-01   2.1770E-04  0.0091
   9.4016E-01   9.6304E-01   2.2026E-04  0.0089
   9.6304E-01   9.8647E-01   2.2154E-04  0.0088
   9.8647E-01   1.0105E+00   2.2283E-04  0.0086
   1.0105E+00   1.0351E+00   2.2226E-04  0.0085
   1.0351E+00   1.0602E+00   2.2684E-04  0.0084
   1.0602E+00   1.0860E+00   2.2601E-04  0.0083
   1.0860E+00   1.1125E+00   2.2547E-04  0.0082
   1.1125E+00   1.1395E+00   2.2918E-04  0.0080
   1.1395E+00   1.1673E+00   2.2949E-04  0.0079
   1.1673E+00   1.1957E+00   2.3248E-04  0.0078
   1.1957E+00   1.2247E+00   2.3648E-04  0.0076
   1.2247E+00   1.2545E+00   2.3689E-04  0.0075
   1.2545E+00   1.2851E+00   2.3607E-04  0.0074
   1.2851E+00   1.3163E+00   2.3871E-04  0.0073
   1.3163E+00   1.3484E+00   2.4145E-04  0.0072
   1.3484E+00   1.3812E+00   2.4198E-04  0.0071
   1.3812E+00   1.4148E+00   2.4056E-04  0.0070
   1.4148E+00   1.4492E+00   2.4382E-04  0.0069
   1.4492E+00   1.4845E+00   2.4589E-04  0.0068
   1.4845E+00   1.5206E+00   2.4603E-04  0.0067
   1.5206E+00   1.5576E+00   2.5028E-04  0.0066
   1.5576E+00   1.5955E+00   2.5137E-04  0.0065
   1.5955E+00   1.6343E+00   2.5279E-04  0.0064
   1.6343E+00   1.6741E+00   2.5493E-04  0.0063
   1.6741E+00   1.7148E+00   2.5278E-04  0.0062
   1.7148E+00   1.7565E+00   2.5598E-04  0.0061
   1.7565E+00   1.7992E+00   2.5469E-04  0.0061
   1.7992E+00   1.8430E+00   2.5564E-04  0.0060
   1.8430E+00   1.8879E+00   2.5841E-04  0.0059
   1.8879E+00   1.9338E+00   2.5640E-04  0.0058
   1.9338E+00   1.9808E+00   2.5922E-04  0.0057
   1.9808E+00   2.0290E+00   2.6419E-04  0.0056
   2.0290E+00   2.0784E+00   2.5966E-04  0.0056
   2.0784E+00   2.1290E+00   2.6196E-04  0.0055
   2.1290E+00   2.1808E+00   2.6213E-04  0.0054
   2.1808E+00   2.2338E+00   2.6192E-04  0.0054
   2.2338E+00   2.2882E+00   2.6447E-04  0.0053
   2.2882E+00   2.3439E+00   2.6705E-04  0.0052
   2.3439E+00   2.4009E+00   2.6463E-04  0.0051
   2.4009E+00   2.4593E+00   2.6320E-04  0.0051
   2.4593E+00   2.5191E+00   2.6253E-04  0.0050
   2.5191E+00   2.5804E+00   2.6228E-04  0.0050
   2.5804E+00   2.6432E+00   2.6291E-04  0.0049
   2.6432E+00   2.7075E+00   2.6334E-04  0.0049
   2.7075E+00   2.7734E+00   2.6456E-04  0.0048
   2.7734E+00   2.8409E+00   2.6281E-04  0.0047
   2.8409E+00   2.9100E+00   2.6181E-04  0.0047
   2.9100E+00   2.9808E+00   2.6128E-04  0.0046
   2.9808E+00   3.0533E+00   2.6158E-04  0.0046
   3.0533E+00   3.1276E+00   2.5965E-04  0.0045
   3.1276E+00   3.2037E+00   2.6031E-04  0.0045
   3.2037E+00   3.2817E+00   2.5828E-04  0.0045
   3.2817E+00   3.3615E+00   2.5731E-04  0.0044
   3.3615E+00   3.4433E+00   2.5530E-04  0.0044
   3.4433E+00   3.5271E+00   2.5467E-04  0.0043
   3.5271E+00   3.6129E+00   2.5331E-04  0.0043
   3.6129E+00   3.7008E+00   2.5005E-04  0.0043
   3.7008E+00   3.7908E+00   2.4874E-04  0.0042
   3.7908E+00   3.8831E+00   2.4741E-04  0.0042
   3.8831E+00   3.9776E+00   2.4610E-04  0.0041
   3.9776E+00   4.0743E+00   2.4559E-04  0.0041
   4.0743E+00   4.1735E+00   2.4061E-04  0.0041
   4.1735E+00   4.2750E+00   2.3927E-04  0.0041
   4.2750E+00   4.3790E+00   2.3841E-04  0.0040
   4.3790E+00   4.4856E+00   2.3691E-04  0.0040
   4.4856E+00   4.5947E+00   2.3514E-04  0.0039
   4.5947E+00   4.7065E+00   2.3315E-04  0.0039
   4.7065E+00   4.8210E+00   2.3287E-04  0.0039
   4.8210E+00   4.9383E+00   2.2939E-04  0.0039
   4.9383E+00   5.0585E+00   2.2819E-04  0.0038
   5.0585E+00   5.1815E+00   2.2525E-04  0.0038
   5.1815E+00   5.3076E+00   2.2339E-04  0.0038
   5.3076E+00   5.4368E+00   2.2171E-04  0.0037
   5.4368E+00   5.5690E+00   2.1840E-04  0.0037
   5.5690E+00   5.7045E+00   2.1586E-04  0.0037
   5.7045E+00   5.8433E+00   2.1413E-04  0.0037
   5.8433E+00   5.9855E+00   2.1007E-04  0.0037
   5.9855E+00   6.1311E+00   2.0754E-04  0.0036
   6.1311E+00   6.2803E+00   2.0595E-04  0.0036
   6.2803E+00   6.4331E+00   2.0447E-04  0.0036
   6.4331E+00   6.5896E+00   2.0202E-04  0.0036
   6.5896E+00   6.7500E+00   1.9776E-04  0.0035
   6.7500E+00   6.9142E+00   1.9479E-04  0.0035
   6.9142E+00   7.0824E+00   1.9037E-04  0.0035
   7.0824E+00   7.2548E+00   1.8955E-04  0.0035
   7.2548E+00   7.4313E+00   1.8516E-04  0.0035
   7.4313E+00   7.6121E+00   1.8332E-04  0.0035
   7.6121E+00   7.7973E+00   1.8038E-04  0.0035
   7.7973E+00   7.9870E+00   1.7761E-04  0.0034
   7.9870E+00   8.1813E+00   1.7549E-04  0.0034
   8.1813E+00   8.3804E+00   1.7412E-04  0.0034
   8.3804E+00   8.5843E+00   1.6964E-04  0.0034
   8.5843E+00   8.7931E+00   1.6883E-04  0.0034
   8.7931E+00   9.0071E+00   1.6610E-04  0.0034
   9.0071E+00   9.2262E+00   1.6362E-04  0.0033
   9.2262E+00   9.4507E+00   1.6058E-04  0.0033
   9.4507E+00   9.6807E+00   1.5919E-04  0.0033
   9.6807E+00   9.9162E+00   1.5734E-04  0.0033
   9.9162E+00   1.0157E+01   1.5639E-04  0.0033
   1.0157E+01   1.0405E+01   1.5546E-04  0.0032
   1.0405E+01   1.0658E+01   1.5381E-04  0.0032
   1.0658E+01   1.0917E+01   1.5305E-04  0.0032
   1.0917E+01   1.1183E+01   1.5160E-04  0.0032
   1.1183E+01   1.1455E+01   1.5105E-04  0.0031
   1.1455E+01   1.1733E+01   1.4963E-04  0.0031
   1.1733E+01   1.2019E+01   1.4922E-04  0.0031
   1.2019E+01   1.2311E+01   1.4832E-04  0.0030
   1.2311E+01   1.2611E+01   1.4760E-04  0.0030
   1.2611E+01   1.2918E+01   1.4775E-04  0.0030
   1.2918E+01   1.3232E+01   1.4569E-04  0.0030
   1.3232E+01   1.3554E+01   1.4422E-04  0.0029
   1.3554E+01   1.3884E+01   1.4270E-04  0.0029
   1.3884E+01   1.4222E+01   1.4091E-04  0.0029
   1.4222E+01   1.4568E+01   1.3953E-04  0.0029
   1.4568E+01   1.4922E+01   1.3806E-04  0.0029
   1.4922E+01   1.5285E+01   1.3601E-04  0.0028
   1.5285E+01   1.5657E+01   1.3347E-04  0.0028
   1.5657E+01   1.6038E+01   1.3229E-04  0.0028
   1.6038E+01   1.6428E+01   1.2988E-04  0.0028
   1.6428E+01   1.6828E+01   1.2739E-04  0.0028
   1.6828E+01   1.7237E+01   1.2593E-04  0.0028
   1.7237E+01   1.7657E+01   1.2328E-04  0.0028
   1.7657E+01   1.8086E+01   1.2136E-04  0.0028
   1.8086E+01   1.8526E+01   1.1850E-04  0.0028
   1.8526E+01   1.8977E+01   1.1523E-04  0.0028
   1.8977E+01   1.9439E+01   1.1274E-04  0.0028
   1.9439E+01   1.9912E+01   1.0958E-04  0.0028
   1.9912E+01   2.0396E+01   1.0710E-04  0.0028
   2.0396E+01   2.0893E+01   1.0307E-04  0.0028
   2.0893E+01   2.1401E+01   1.0028E-04  0.0028
   2.1401E+01   2.1922E+01   9.5466E-05  0.0028
   2.1922E+01   2.2455E+01   9.1981E-05  0.0029
   2.2455E+01   2.3001E+01   8.8300E-05  0.0029
   2.3001E+01   2.3561E+01   8.3857E-05  0.0029
   2.3561E+01   2.4134E+01   7.9986E-05  0.0030
   2.4134E+01   2.4721E+01   7.5595E-05  0.0030
   2.4721E+01   2.5323E+01   7.1531E-05  0.0030
   2.5323E+01   2.5939E+01   6.6762E-05  0.0031
   2.5939E+01   2.6570E+01   6.2757E-05  0.0032
   2.6570E+01   2.7217E+01   5.8623E-05  0.0032
   2.7217E+01   2.7879E+01   5.4798E-05  0.0033
   2.7879E+01   2.8557E+01   5.0644E-05  0.0034
   2.8557E+01   2.9252E+01   4.6759E-05  0.0035
   2.9252E+01   2.9964E+01   4.2918E-05  0.0036
   2.9964E+01   3.0693E+01   3.9283E-05  0.0037
   3.0693E+01   3.1440E+01   3.5771E-05  0.0039
   3.1440E+01   3.2205E+01   3.2614E-05  0.0040
   3.2205E+01   3.2988E+01   2.9117E-05  0.0042
   3.2988E+01   3.3791E+01   2.5751E-05  0.0044
   3.3791E+01   3.4613E+01   2.2631E-05  0.0046
   3.4613E+01   3.5455E+01   1.9682E-05  0.0049
   3.5455E+01   3.6318E+01   1.7211E-05  0.0052
   3.6318E+01   3.7201E+01   1.4994E-05  0.0055
   3.7201E+01   3.8106E+01   1.3012E-05  0.0058
   3.8106E+01   3.9034E+01   1.1205E-05  0.0062
   3.9034E+01   3.9983E+01   9.7473E-06  0.0066
   3.9983E+01   4.0956E+01   8.2925E-06  0.0070
   4.0956E+01   4.1953E+01   6.9857E-06  0.0076
   4.1953E+01   4.2973E+01   6.0211E-06  0.0081
   4.2973E+01   4.4019E+01   5.2710E-06  0.0085
   4.4019E+01   4.5090E+01   4.8137E-06  0.0088
   4.5090E+01   4.6187E+01   4.9018E-06  0.0086
   4.6187E+01   4.7311E+01   7.0449E-06  0.0071
   4.7311E+01   4.8462E+01   1.0027E-05  0.0059
   4.8462E+01   4.9641E+01   1.1001E-05  0.0056
   4.9641E+01   5.0849E+01   1.2542E-05  0.0051
   5.0849E+01   5.2086E+01   1.3086E-05  0.0050
   5.2086E+01   5.3353E+01   1.3095E-05  0.0049
   5.3353E+01   5.4651E+01   1.2973E-05  0.0049
   5.4651E+01   5.5981E+01   1.3011E-05  0.0048
   5.5981E+01   5.7343E+01   1.2815E-05  0.0048
   5.7343E+01   5.8738E+01   1.2612E-05  0.0048
   5.8738E+01   6.0168E+01   1.0783E-05  0.0051
   6.0168E+01   6.1632E+01   5.9716E-06  0.0068
   6.1632E+01   6.3131E+01   3.5704E-06  0.0086
   6.3131E+01   6.4667E+01   7.1457E-07  0.0191
   6.4667E+01   6.6240E+01   5.0845E-10  0.7071
   6.6240E+01   6.7852E+01   0.0000E+00  0.0000
   6.7852E+01   6.9503E+01   0.0000E+00  0.0000
   6.9503E+01   7.1194E+01   0.0000E+00  0.0000
   7.1194E+01   7.2926E+01   0.0000E+00  0.0000
   7.2926E+01   7.4701E+01   0.0000E+00  0.0000
   7.4701E+01   7.6518E+01   0.0000E+00  0.0000
   7.6518E+01   7.8380E+01   0.0000E+00  0.0000
   7.8380E+01   8.0287E+01   0.0000E+00  0.0000
   8.0287E+01   8.2240E+01   0.0000E+00  0.0000
   8.2240E+01   8.4241E+01   0.0000E+00  0.0000
   8.4241E+01   8.6291E+01   0.0000E+00  0.0000
   8.6291E+01   8.8391E+01   0.0000E+00  0.0000
   8.8391E+01   9.0541E+01   0.0000E+00  0.0000
   9.0541E+01   9.2744E+01   0.0000E+00  0.0000
   9.2744E+01   9.5001E+01   0.0000E+00  0.0000
   9.5001E+01   9.7312E+01   0.0000E+00  0.0000
   9.7312E+01   9.9680E+01   0.0000E+00  0.0000
   9.9680E+01   1.0211E+02   0.0000E+00  0.0000
   1.0211E+02   1.0459E+02   0.0000E+00  0.0000
   1.0459E+02   1.0713E+02   0.0000E+00  0.0000
   1.0713E+02   1.0974E+02   0.0000E+00  0.0000
   1.0974E+02   1.1241E+02   0.0000E+00  0.0000
   1.1241E+02   1.1515E+02   0.0000E+00  0.0000
   1.1515E+02   1.1795E+02   0.0000E+00  0.0000
   1.1795E+02   1.2082E+02   0.0000E+00  0.0000
   1.2082E+02   1.2376E+02   0.0000E+00  0.0000
   1.2376E+02   1.2677E+02   0.0000E+00  0.0000
   1.2677E+02   1.2985E+02   0.0000E+00  0.0000
   1.2985E+02   1.3301E+02   0.0000E+00  0.0000
   1.3301E+02   1.3625E+02   0.0000E+00  0.0000
   1.3625E+02   1.3956E+02   0.0000E+00  0.0000
   1.3956E+02   1.4296E+02   0.0000E+00  0.0000
   1.4296E+02   1.4644E+02   0.0000E+00  0.0000
   1.4644E+02   1.5000E+02   0.0000E+00  0.0000

#   sum over                 3.0868E-05
'no. =    1   reg = 106 - 206'
msuc: {\huge [t-cross] in region mesh}
msdr: {\it plotted by \ANGEL \version}
msdl: {\it calculated by \PHITS  3.26}
wt: s(0.7)
\vspace{-3}
  region surface crossing
  area  &=&   1.0000E+00 [cm^2]
e:
 
# Information for Restart Calculation
# This calculation was newly started
# istdev =  2 # 1:Batch variance, 2:History variance
# resc2  = 2.50000000000000000E+09 # Total source weight or Total source weight / maxcas
# resc3  = 2.50000000000000000E+09 # Total history number or Total batch number
# maxcas =   500000000 # History / Batch, only used for istdev=1
# bitrseed = 1100001110001001100010001100011001110101000011000110100101010100 # bit data of rseed
