[ T-Cross ]
    title = [t-cross] in region mesh
     mesh =  reg            # mesh type is region-wise
      reg =    1            # number of crossing regions
      non     r-from    r-to       area
      1       105       205        1.000000    
   e-type =    3            # e-mesh is log given by emin, emax and ne
     emin =  1.0000000E-02  # minimum value of e-mesh points
     emax =   150.0000      # maximum value of e-mesh points
#    edel =  2.4039514E-02  # mesh width of e-mesh points
       ne =    400          # number of e-mesh points
#    data = ( e(i), i = 1, ne + 1 )
#           1.00000E-02  1.02433E-02  1.04925E-02  1.07478E-02  1.10093E-02
#           1.12772E-02  1.15516E-02  1.18326E-02  1.21205E-02  1.24154E-02
#           1.27175E-02  1.30269E-02  1.33439E-02  1.36686E-02  1.40011E-02
#           1.43418E-02  1.46907E-02  1.50482E-02  1.54143E-02  1.57894E-02
#           1.61735E-02  1.65670E-02  1.69701E-02  1.73830E-02  1.78060E-02
#           1.82392E-02  1.86830E-02  1.91375E-02  1.96032E-02  2.00801E-02
#           2.05687E-02  2.10692E-02  2.15818E-02  2.21069E-02  2.26448E-02
#           2.31957E-02  2.37601E-02  2.43382E-02  2.49304E-02  2.55369E-02
#           2.61583E-02  2.67947E-02  2.74467E-02  2.81145E-02  2.87985E-02
#           2.94992E-02  3.02169E-02  3.09521E-02  3.17052E-02  3.24766E-02
#           3.32668E-02  3.40762E-02  3.49053E-02  3.57546E-02  3.66246E-02
#           3.75157E-02  3.84284E-02  3.93634E-02  4.03212E-02  4.13022E-02
#           4.23071E-02  4.33365E-02  4.43909E-02  4.54710E-02  4.65773E-02
#           4.77106E-02  4.88714E-02  5.00605E-02  5.12785E-02  5.25262E-02
#           5.38042E-02  5.51133E-02  5.64542E-02  5.78278E-02  5.92348E-02
#           6.06760E-02  6.21523E-02  6.36645E-02  6.52135E-02  6.68002E-02
#           6.84255E-02  7.00904E-02  7.17957E-02  7.35426E-02  7.53319E-02
#           7.71648E-02  7.90423E-02  8.09655E-02  8.29354E-02  8.49533E-02
#           8.70203E-02  8.91376E-02  9.13064E-02  9.35279E-02  9.58035E-02
#           9.81345E-02  1.00522E-01  1.02968E-01  1.05473E-01  1.08040E-01
#           1.10668E-01  1.13361E-01  1.16119E-01  1.18944E-01  1.21838E-01
#           1.24803E-01  1.27839E-01  1.30950E-01  1.34136E-01  1.37399E-01
#           1.40742E-01  1.44167E-01  1.47675E-01  1.51268E-01  1.54948E-01
#           1.58718E-01  1.62580E-01  1.66535E-01  1.70587E-01  1.74738E-01
#           1.78989E-01  1.83344E-01  1.87805E-01  1.92375E-01  1.97055E-01
#           2.01850E-01  2.06761E-01  2.11792E-01  2.16945E-01  2.22223E-01
#           2.27630E-01  2.33169E-01  2.38842E-01  2.44653E-01  2.50605E-01
#           2.56703E-01  2.62949E-01  2.69346E-01  2.75900E-01  2.82613E-01
#           2.89489E-01  2.96532E-01  3.03747E-01  3.11138E-01  3.18708E-01
#           3.26462E-01  3.34405E-01  3.42542E-01  3.50876E-01  3.59413E-01
#           3.68158E-01  3.77116E-01  3.86291E-01  3.95690E-01  4.05317E-01
#           4.15179E-01  4.25281E-01  4.35628E-01  4.46227E-01  4.57084E-01
#           4.68205E-01  4.79597E-01  4.91266E-01  5.03219E-01  5.15463E-01
#           5.28005E-01  5.40851E-01  5.54011E-01  5.67490E-01  5.81298E-01
#           5.95441E-01  6.09929E-01  6.24769E-01  6.39970E-01  6.55541E-01
#           6.71491E-01  6.87828E-01  7.04564E-01  7.21706E-01  7.39266E-01
#           7.57253E-01  7.75678E-01  7.94551E-01  8.13883E-01  8.33685E-01
#           8.53969E-01  8.74747E-01  8.96030E-01  9.17831E-01  9.40163E-01
#           9.63038E-01  9.86469E-01  1.01047E+00  1.03506E+00  1.06024E+00
#           1.08604E+00  1.11246E+00  1.13953E+00  1.16725E+00  1.19565E+00
#           1.22474E+00  1.25454E+00  1.28507E+00  1.31633E+00  1.34836E+00
#           1.38117E+00  1.41477E+00  1.44920E+00  1.48446E+00  1.52057E+00
#           1.55757E+00  1.59547E+00  1.63429E+00  1.67405E+00  1.71478E+00
#           1.75650E+00  1.79924E+00  1.84302E+00  1.88786E+00  1.93379E+00
#           1.98084E+00  2.02904E+00  2.07841E+00  2.12898E+00  2.18078E+00
#           2.23384E+00  2.28819E+00  2.34386E+00  2.40089E+00  2.45930E+00
#           2.51914E+00  2.58043E+00  2.64322E+00  2.70753E+00  2.77341E+00
#           2.84088E+00  2.91001E+00  2.98081E+00  3.05333E+00  3.12762E+00
#           3.20372E+00  3.28167E+00  3.36152E+00  3.44330E+00  3.52708E+00
#           3.61290E+00  3.70080E+00  3.79085E+00  3.88308E+00  3.97756E+00
#           4.07434E+00  4.17347E+00  4.27501E+00  4.37903E+00  4.48557E+00
#           4.59471E+00  4.70650E+00  4.82102E+00  4.93832E+00  5.05847E+00
#           5.18155E+00  5.30762E+00  5.43676E+00  5.56904E+00  5.70453E+00
#           5.84333E+00  5.98550E+00  6.13114E+00  6.28031E+00  6.43312E+00
#           6.58964E+00  6.74997E+00  6.91420E+00  7.08243E+00  7.25475E+00
#           7.43126E+00  7.61207E+00  7.79728E+00  7.98700E+00  8.18133E+00
#           8.38038E+00  8.58428E+00  8.79315E+00  9.00709E+00  9.22624E+00
#           9.45072E+00  9.68067E+00  9.91620E+00  1.01575E+01  1.04046E+01
#           1.06578E+01  1.09171E+01  1.11827E+01  1.14548E+01  1.17335E+01
#           1.20190E+01  1.23114E+01  1.26109E+01  1.29178E+01  1.32321E+01
#           1.35540E+01  1.38838E+01  1.42216E+01  1.45676E+01  1.49221E+01
#           1.52851E+01  1.56570E+01  1.60380E+01  1.64282E+01  1.68279E+01
#           1.72374E+01  1.76568E+01  1.80864E+01  1.85264E+01  1.89772E+01
#           1.94389E+01  1.99119E+01  2.03963E+01  2.08926E+01  2.14009E+01
#           2.19216E+01  2.24550E+01  2.30014E+01  2.35610E+01  2.41343E+01
#           2.47215E+01  2.53230E+01  2.59391E+01  2.65702E+01  2.72167E+01
#           2.78789E+01  2.85572E+01  2.92520E+01  2.99637E+01  3.06928E+01
#           3.14396E+01  3.22045E+01  3.29881E+01  3.37907E+01  3.46128E+01
#           3.54550E+01  3.63177E+01  3.72013E+01  3.81064E+01  3.90336E+01
#           3.99833E+01  4.09561E+01  4.19526E+01  4.29734E+01  4.40189E+01
#           4.50900E+01  4.61870E+01  4.73108E+01  4.84619E+01  4.96410E+01
#           5.08488E+01  5.20860E+01  5.33533E+01  5.46514E+01  5.59812E+01
#           5.73432E+01  5.87384E+01  6.01676E+01  6.16315E+01  6.31311E+01
#           6.46671E+01  6.62405E+01  6.78522E+01  6.95031E+01  7.11941E+01
#           7.29263E+01  7.47007E+01  7.65182E+01  7.83800E+01  8.02870E+01
#           8.22405E+01  8.42414E+01  8.62911E+01  8.83906E+01  9.05412E+01
#           9.27442E+01  9.50007E+01  9.73122E+01  9.96799E+01  1.02105E+02
#           1.04589E+02  1.07134E+02  1.09741E+02  1.12411E+02  1.15146E+02
#           1.17948E+02  1.20817E+02  1.23757E+02  1.26768E+02  1.29852E+02
#           1.33012E+02  1.36248E+02  1.39563E+02  1.42959E+02  1.46437E+02
#           1.50000E+02
     unit =    2            # unit is [1/cm^2/(MeV/n)/source]
     axis =  eng            # axis of output
     file = detector-06.out  # file name of output for the above axis
   output = f-curr          # surface crossing forward current spectrum
     part =  neutron  
# kf/name :  2112     
#    used :        main (  %)        temp (  %)       total (  %)
#  memory :         414 (  0)           0 (  0)         414 (  0)

#------------------------------------------------------------------------------
#newpage:
#   no. =    1   reg = 105 - 205

x: Energy [MeV/n]
y:  F-Curr [1/cm^2/(MeV/n)/source]         
p: xlog ylog afac(0.8) form(0.9)
h: n            x            y(neutron ),hh0l   n 
#  e-lower      e-upper      neutron     r.err 
   1.0000E-02   1.0243E-02   2.9686E-04  0.0526
   1.0243E-02   1.0493E-02   3.3142E-04  0.0492
   1.0493E-02   1.0748E-02   3.2355E-04  0.0492
   1.0748E-02   1.1009E-02   3.2046E-04  0.0489
   1.1009E-02   1.1277E-02   2.9044E-04  0.0507
   1.1277E-02   1.1552E-02   3.1489E-04  0.0481
   1.1552E-02   1.1833E-02   3.2022E-04  0.0471
   1.1833E-02   1.2121E-02   3.1565E-04  0.0469
   1.2121E-02   1.2415E-02   3.3299E-04  0.0451
   1.2415E-02   1.2718E-02   3.0731E-04  0.0464
   1.2718E-02   1.3027E-02   3.1284E-04  0.0455
   1.3027E-02   1.3344E-02   3.0288E-04  0.0456
   1.3344E-02   1.3669E-02   2.9641E-04  0.0456
   1.3669E-02   1.4001E-02   3.2775E-04  0.0428
   1.4001E-02   1.4342E-02   2.7828E-04  0.0459
   1.4342E-02   1.4691E-02   3.2569E-04  0.0419
   1.4691E-02   1.5048E-02   3.0887E-04  0.0426
   1.5048E-02   1.5414E-02   3.1464E-04  0.0417
   1.5414E-02   1.5789E-02   3.2090E-04  0.0407
   1.5789E-02   1.6174E-02   2.8946E-04  0.0424
   1.6174E-02   1.6567E-02   3.0596E-04  0.0408
   1.6567E-02   1.6970E-02   3.1755E-04  0.0395
   1.6970E-02   1.7383E-02   3.0661E-04  0.0397
   1.7383E-02   1.7806E-02   3.0854E-04  0.0391
   1.7806E-02   1.8239E-02   3.0007E-04  0.0392
   1.8239E-02   1.8683E-02   2.9520E-04  0.0391
   1.8683E-02   1.9138E-02   3.1194E-04  0.0376
   1.9138E-02   1.9603E-02   3.0496E-04  0.0375
   1.9603E-02   2.0080E-02   3.0030E-04  0.0374
   2.0080E-02   2.0569E-02   2.9938E-04  0.0370
   2.0569E-02   2.1069E-02   2.9373E-04  0.0369
   2.1069E-02   2.1582E-02   2.9105E-04  0.0366
   2.1582E-02   2.2107E-02   2.8223E-04  0.0367
   2.2107E-02   2.2645E-02   3.0711E-04  0.0348
   2.2645E-02   2.3196E-02   2.9076E-04  0.0353
   2.3196E-02   2.3760E-02   2.9207E-04  0.0348
   2.3760E-02   2.4338E-02   2.9264E-04  0.0344
   2.4338E-02   2.4930E-02   2.8614E-04  0.0344
   2.4930E-02   2.5537E-02   2.9035E-04  0.0337
   2.5537E-02   2.6158E-02   2.8873E-04  0.0334
   2.6158E-02   2.6795E-02   2.8320E-04  0.0333
   2.6795E-02   2.7447E-02   2.8115E-04  0.0330
   2.7447E-02   2.8114E-02   2.9603E-04  0.0318
   2.8114E-02   2.8799E-02   2.9388E-04  0.0315
   2.8799E-02   2.9499E-02   3.0289E-04  0.0307
   2.9499E-02   3.0217E-02   2.8882E-04  0.0311
   3.0217E-02   3.0952E-02   2.7562E-04  0.0314
   3.0952E-02   3.1705E-02   2.9864E-04  0.0298
   3.1705E-02   3.2477E-02   2.9113E-04  0.0298
   3.2477E-02   3.3267E-02   2.8540E-04  0.0298
   3.3267E-02   3.4076E-02   2.9759E-04  0.0288
   3.4076E-02   3.4905E-02   2.9457E-04  0.0286
   3.4905E-02   3.5755E-02   2.9101E-04  0.0284
   3.5755E-02   3.6625E-02   2.9363E-04  0.0280
   3.6625E-02   3.7516E-02   2.9293E-04  0.0277
   3.7516E-02   3.8428E-02   2.8091E-04  0.0279
   3.8428E-02   3.9363E-02   2.7127E-04  0.0281
   3.9363E-02   4.0321E-02   2.9260E-04  0.0267
   4.0321E-02   4.1302E-02   2.8031E-04  0.0270
   4.1302E-02   4.2307E-02   2.8991E-04  0.0262
   4.2307E-02   4.3337E-02   2.6466E-04  0.0271
   4.3337E-02   4.4391E-02   2.8683E-04  0.0257
   4.4391E-02   4.5471E-02   2.8412E-04  0.0255
   4.5471E-02   4.6577E-02   2.6742E-04  0.0260
   4.6577E-02   4.7711E-02   2.7678E-04  0.0252
   4.7711E-02   4.8871E-02   2.7469E-04  0.0250
   4.8871E-02   5.0061E-02   2.8430E-04  0.0243
   5.0061E-02   5.1279E-02   2.7298E-04  0.0245
   5.1279E-02   5.2526E-02   2.6516E-04  0.0246
   5.2526E-02   5.3804E-02   2.7087E-04  0.0240
   5.3804E-02   5.5113E-02   2.6568E-04  0.0240
   5.5113E-02   5.6454E-02   2.6228E-04  0.0238
   5.6454E-02   5.7828E-02   2.7623E-04  0.0230
   5.7828E-02   5.9235E-02   2.5956E-04  0.0234
   5.9235E-02   6.0676E-02   2.6547E-04  0.0229
   6.0676E-02   6.2152E-02   2.6539E-04  0.0226
   6.2152E-02   6.3665E-02   2.6835E-04  0.0222
   6.3665E-02   6.5214E-02   2.7196E-04  0.0218
   6.5214E-02   6.6800E-02   2.7016E-04  0.0216
   6.6800E-02   6.8426E-02   2.6327E-04  0.0216
   6.8426E-02   7.0090E-02   2.5714E-04  0.0216
   7.0090E-02   7.1796E-02   2.6143E-04  0.0212
   7.1796E-02   7.3543E-02   2.6104E-04  0.0209
   7.3543E-02   7.5332E-02   2.5778E-04  0.0208
   7.5332E-02   7.7165E-02   2.5656E-04  0.0206
   7.7165E-02   7.9042E-02   2.6035E-04  0.0202
   7.9042E-02   8.0965E-02   2.6329E-04  0.0199
   8.0965E-02   8.2935E-02   2.5544E-04  0.0199
   8.2935E-02   8.4953E-02   2.5771E-04  0.0196
   8.4953E-02   8.7020E-02   2.4472E-04  0.0199
   8.7020E-02   8.9138E-02   2.6059E-04  0.0190
   8.9138E-02   9.1306E-02   2.5325E-04  0.0191
   9.1306E-02   9.3528E-02   2.4842E-04  0.0190
   9.3528E-02   9.5804E-02   2.4610E-04  0.0189
   9.5804E-02   9.8134E-02   2.5290E-04  0.0184
   9.8134E-02   1.0052E-01   2.4388E-04  0.0185
   1.0052E-01   1.0297E-01   2.4450E-04  0.0183
   1.0297E-01   1.0547E-01   2.4303E-04  0.0181
   1.0547E-01   1.0804E-01   2.4864E-04  0.0177
   1.0804E-01   1.1067E-01   2.4839E-04  0.0175
   1.1067E-01   1.1336E-01   2.4122E-04  0.0175
   1.1336E-01   1.1612E-01   2.4286E-04  0.0173
   1.1612E-01   1.1894E-01   2.3861E-04  0.0172
   1.1894E-01   1.2184E-01   2.3339E-04  0.0172
   1.2184E-01   1.2480E-01   2.3414E-04  0.0170
   1.2480E-01   1.2784E-01   2.3529E-04  0.0167
   1.2784E-01   1.3095E-01   2.3049E-04  0.0167
   1.3095E-01   1.3414E-01   2.3373E-04  0.0164
   1.3414E-01   1.3740E-01   2.2480E-04  0.0165
   1.3740E-01   1.4074E-01   2.2353E-04  0.0164
   1.4074E-01   1.4417E-01   2.2008E-04  0.0163
   1.4417E-01   1.4767E-01   2.2538E-04  0.0159
   1.4767E-01   1.5127E-01   2.2183E-04  0.0158
   1.5127E-01   1.5495E-01   2.2311E-04  0.0156
   1.5495E-01   1.5872E-01   2.2083E-04  0.0155
   1.5872E-01   1.6258E-01   2.2230E-04  0.0153
   1.6258E-01   1.6654E-01   2.1060E-04  0.0155
   1.6654E-01   1.7059E-01   2.1470E-04  0.0152
   1.7059E-01   1.7474E-01   2.0756E-04  0.0152
   1.7474E-01   1.7899E-01   2.0261E-04  0.0152
   1.7899E-01   1.8334E-01   2.0320E-04  0.0150
   1.8334E-01   1.8781E-01   2.0222E-04  0.0149
   1.8781E-01   1.9237E-01   2.0003E-04  0.0148
   1.9237E-01   1.9706E-01   1.9980E-04  0.0146
   1.9706E-01   2.0185E-01   1.9887E-04  0.0145
   2.0185E-01   2.0676E-01   1.9551E-04  0.0144
   2.0676E-01   2.1179E-01   1.9436E-04  0.0143
   2.1179E-01   2.1694E-01   1.9401E-04  0.0141
   2.1694E-01   2.2222E-01   1.9093E-04  0.0141
   2.2222E-01   2.2763E-01   1.8566E-04  0.0141
   2.2763E-01   2.3317E-01   1.7967E-04  0.0142
   2.3317E-01   2.3884E-01   1.8439E-04  0.0138
   2.3884E-01   2.4465E-01   1.8166E-04  0.0138
   2.4465E-01   2.5061E-01   1.7958E-04  0.0137
   2.5061E-01   2.5670E-01   1.7128E-04  0.0138
   2.5670E-01   2.6295E-01   1.7120E-04  0.0137
   2.6295E-01   2.6935E-01   1.6977E-04  0.0136
   2.6935E-01   2.7590E-01   1.6560E-04  0.0136
   2.7590E-01   2.8261E-01   1.6187E-04  0.0136
   2.8261E-01   2.8949E-01   1.6344E-04  0.0133
   2.8949E-01   2.9653E-01   1.5879E-04  0.0134
   2.9653E-01   3.0375E-01   1.5748E-04  0.0133
   3.0375E-01   3.1114E-01   1.5096E-04  0.0134
   3.1114E-01   3.1871E-01   1.5313E-04  0.0131
   3.1871E-01   3.2646E-01   1.5013E-04  0.0131
   3.2646E-01   3.3441E-01   1.4639E-04  0.0131
   3.3441E-01   3.4254E-01   1.4439E-04  0.0130
   3.4254E-01   3.5088E-01   1.3883E-04  0.0131
   3.5088E-01   3.5941E-01   1.3705E-04  0.0131
   3.5941E-01   3.6816E-01   1.3613E-04  0.0130
   3.6816E-01   3.7712E-01   1.3120E-04  0.0130
   3.7712E-01   3.8629E-01   1.2887E-04  0.0130
   3.8629E-01   3.9569E-01   1.2791E-04  0.0129
   3.9569E-01   4.0532E-01   1.2549E-04  0.0129
   4.0532E-01   4.1518E-01   1.2016E-04  0.0130
   4.1518E-01   4.2528E-01   1.1815E-04  0.0129
   4.2528E-01   4.3563E-01   1.1290E-04  0.0131
   4.3563E-01   4.4623E-01   1.1264E-04  0.0129
   4.4623E-01   4.5708E-01   1.0620E-04  0.0132
   4.5708E-01   4.6821E-01   1.0682E-04  0.0130
   4.6821E-01   4.7960E-01   1.0397E-04  0.0130
   4.7960E-01   4.9127E-01   9.7340E-05  0.0133
   4.9127E-01   5.0322E-01   9.7341E-05  0.0131
   5.0322E-01   5.1546E-01   9.3692E-05  0.0132
   5.1546E-01   5.2800E-01   9.3575E-05  0.0131
   5.2800E-01   5.4085E-01   8.6357E-05  0.0134
   5.4085E-01   5.5401E-01   8.5051E-05  0.0134
   5.5401E-01   5.6749E-01   8.3784E-05  0.0133
   5.6749E-01   5.8130E-01   8.0530E-05  0.0134
   5.8130E-01   5.9544E-01   7.8777E-05  0.0134
   5.9544E-01   6.0993E-01   7.5912E-05  0.0135
   6.0993E-01   6.2477E-01   7.2580E-05  0.0136
   6.2477E-01   6.3997E-01   7.0300E-05  0.0137
   6.3997E-01   6.5554E-01   6.5603E-05  0.0140
   6.5554E-01   6.7149E-01   6.4634E-05  0.0139
   6.7149E-01   6.8783E-01   6.0606E-05  0.0142
   6.8783E-01   7.0456E-01   5.9668E-05  0.0141
   7.0456E-01   7.2171E-01   5.7322E-05  0.0143
   7.2171E-01   7.3927E-01   5.4478E-05  0.0145
   7.3927E-01   7.5725E-01   5.2436E-05  0.0146
   7.5725E-01   7.7568E-01   5.1358E-05  0.0145
   7.7568E-01   7.9455E-01   4.8717E-05  0.0147
   7.9455E-01   8.1388E-01   4.5895E-05  0.0150
   8.1388E-01   8.3368E-01   4.4337E-05  0.0151
   8.3368E-01   8.5397E-01   4.3216E-05  0.0151
   8.5397E-01   8.7475E-01   4.0460E-05  0.0154
   8.7475E-01   8.9603E-01   3.9519E-05  0.0154
   8.9603E-01   9.1783E-01   3.8809E-05  0.0154
   9.1783E-01   9.4016E-01   3.7117E-05  0.0155
   9.4016E-01   9.6304E-01   3.5833E-05  0.0156
   9.6304E-01   9.8647E-01   3.5302E-05  0.0155
   9.8647E-01   1.0105E+00   3.5517E-05  0.0153
   1.0105E+00   1.0351E+00   3.4702E-05  0.0153
   1.0351E+00   1.0602E+00   3.4866E-05  0.0151
   1.0602E+00   1.0860E+00   3.7579E-05  0.0144
   1.0860E+00   1.1125E+00   3.8815E-05  0.0140
   1.1125E+00   1.1395E+00   4.0647E-05  0.0135
   1.1395E+00   1.1673E+00   4.2779E-05  0.0130
   1.1673E+00   1.1957E+00   4.4266E-05  0.0126
   1.1957E+00   1.2247E+00   4.5425E-05  0.0123
   1.2247E+00   1.2545E+00   4.5826E-05  0.0121
   1.2545E+00   1.2851E+00   4.8610E-05  0.0116
   1.2851E+00   1.3163E+00   4.9378E-05  0.0114
   1.3163E+00   1.3484E+00   4.9536E-05  0.0112
   1.3484E+00   1.3812E+00   5.2132E-05  0.0108
   1.3812E+00   1.4148E+00   5.4429E-05  0.0104
   1.4148E+00   1.4492E+00   5.3949E-05  0.0104
   1.4492E+00   1.4845E+00   5.5073E-05  0.0101
   1.4845E+00   1.5206E+00   5.5805E-05  0.0100
   1.5206E+00   1.5576E+00   5.6791E-05  0.0098
   1.5576E+00   1.5955E+00   5.7953E-05  0.0095
   1.5955E+00   1.6343E+00   5.9666E-05  0.0093
   1.6343E+00   1.6741E+00   6.0921E-05  0.0091
   1.6741E+00   1.7148E+00   6.1301E-05  0.0089
   1.7148E+00   1.7565E+00   6.3941E-05  0.0087
   1.7565E+00   1.7992E+00   6.4148E-05  0.0085
   1.7992E+00   1.8430E+00   6.4079E-05  0.0084
   1.8430E+00   1.8879E+00   6.3821E-05  0.0083
   1.8879E+00   1.9338E+00   6.4287E-05  0.0082
   1.9338E+00   1.9808E+00   6.5648E-05  0.0080
   1.9808E+00   2.0290E+00   6.4965E-05  0.0080
   2.0290E+00   2.0784E+00   6.6758E-05  0.0078
   2.0784E+00   2.1290E+00   6.5159E-05  0.0078
   2.1290E+00   2.1808E+00   6.4224E-05  0.0077
   2.1808E+00   2.2338E+00   6.3918E-05  0.0077
   2.2338E+00   2.2882E+00   6.4151E-05  0.0076
   2.2882E+00   2.3439E+00   6.3999E-05  0.0075
   2.3439E+00   2.4009E+00   6.4920E-05  0.0073
   2.4009E+00   2.4593E+00   6.4267E-05  0.0073
   2.4593E+00   2.5191E+00   6.2775E-05  0.0073
   2.5191E+00   2.5804E+00   6.1546E-05  0.0073
   2.5804E+00   2.6432E+00   6.0690E-05  0.0072
   2.6432E+00   2.7075E+00   5.9323E-05  0.0072
   2.7075E+00   2.7734E+00   5.9483E-05  0.0071
   2.7734E+00   2.8409E+00   5.8024E-05  0.0071
   2.8409E+00   2.9100E+00   5.7986E-05  0.0070
   2.9100E+00   2.9808E+00   5.7420E-05  0.0070
   2.9808E+00   3.0533E+00   5.6102E-05  0.0070
   3.0533E+00   3.1276E+00   5.3866E-05  0.0071
   3.1276E+00   3.2037E+00   5.3095E-05  0.0070
   3.2037E+00   3.2817E+00   5.0362E-05  0.0071
   3.2817E+00   3.3615E+00   4.9708E-05  0.0071
   3.3615E+00   3.4433E+00   4.8866E-05  0.0071
   3.4433E+00   3.5271E+00   4.7801E-05  0.0070
   3.5271E+00   3.6129E+00   4.6030E-05  0.0071
   3.6129E+00   3.7008E+00   4.4844E-05  0.0071
   3.7008E+00   3.7908E+00   4.3529E-05  0.0071
   3.7908E+00   3.8831E+00   4.1888E-05  0.0072
   3.8831E+00   3.9776E+00   4.0955E-05  0.0072
   3.9776E+00   4.0743E+00   3.9958E-05  0.0072
   4.0743E+00   4.1735E+00   3.8482E-05  0.0072
   4.1735E+00   4.2750E+00   3.7452E-05  0.0072
   4.2750E+00   4.3790E+00   3.6250E-05  0.0073
   4.3790E+00   4.4856E+00   3.4844E-05  0.0073
   4.4856E+00   4.5947E+00   3.3842E-05  0.0073
   4.5947E+00   4.7065E+00   3.3341E-05  0.0073
   4.7065E+00   4.8210E+00   3.2064E-05  0.0074
   4.8210E+00   4.9383E+00   3.1240E-05  0.0074
   4.9383E+00   5.0585E+00   3.0306E-05  0.0074
   5.0585E+00   5.1815E+00   2.9398E-05  0.0074
   5.1815E+00   5.3076E+00   2.8717E-05  0.0074
   5.3076E+00   5.4368E+00   2.7750E-05  0.0074
   5.4368E+00   5.5690E+00   2.7022E-05  0.0075
   5.5690E+00   5.7045E+00   2.6313E-05  0.0075
   5.7045E+00   5.8433E+00   2.5736E-05  0.0075
   5.8433E+00   5.9855E+00   2.5065E-05  0.0075
   5.9855E+00   6.1311E+00   2.4644E-05  0.0074
   6.1311E+00   6.2803E+00   2.4332E-05  0.0074
   6.2803E+00   6.4331E+00   2.3349E-05  0.0075
   6.4331E+00   6.5896E+00   2.3262E-05  0.0074
   6.5896E+00   6.7500E+00   2.2509E-05  0.0074
   6.7500E+00   6.9142E+00   2.2353E-05  0.0074
   6.9142E+00   7.0824E+00   2.1668E-05  0.0074
   7.0824E+00   7.2548E+00   2.1440E-05  0.0073
   7.2548E+00   7.4313E+00   2.1205E-05  0.0073
   7.4313E+00   7.6121E+00   2.0687E-05  0.0073
   7.6121E+00   7.7973E+00   2.0654E-05  0.0072
   7.7973E+00   7.9870E+00   2.0308E-05  0.0072
   7.9870E+00   8.1813E+00   2.0221E-05  0.0071
   8.1813E+00   8.3804E+00   2.0051E-05  0.0071
   8.3804E+00   8.5843E+00   1.9986E-05  0.0070
   8.5843E+00   8.7931E+00   1.9713E-05  0.0070
   8.7931E+00   9.0071E+00   1.9566E-05  0.0069
   9.0071E+00   9.2262E+00   1.9270E-05  0.0069
   9.2262E+00   9.4507E+00   1.9218E-05  0.0068
   9.4507E+00   9.6807E+00   1.9053E-05  0.0068
   9.6807E+00   9.9162E+00   1.8970E-05  0.0067
   9.9162E+00   1.0157E+01   1.8667E-05  0.0067
   1.0157E+01   1.0405E+01   1.8744E-05  0.0066
   1.0405E+01   1.0658E+01   1.8550E-05  0.0065
   1.0658E+01   1.0917E+01   1.8197E-05  0.0065
   1.0917E+01   1.1183E+01   1.8208E-05  0.0064
   1.1183E+01   1.1455E+01   1.8032E-05  0.0064
   1.1455E+01   1.1733E+01   1.8047E-05  0.0063
   1.1733E+01   1.2019E+01   1.7978E-05  0.0062
   1.2019E+01   1.2311E+01   1.7426E-05  0.0063
   1.2311E+01   1.2611E+01   1.7635E-05  0.0061
   1.2611E+01   1.2918E+01   1.7073E-05  0.0062
   1.2918E+01   1.3232E+01   1.7333E-05  0.0061
   1.3232E+01   1.3554E+01   1.7249E-05  0.0060
   1.3554E+01   1.3884E+01   1.6956E-05  0.0060
   1.3884E+01   1.4222E+01   1.6991E-05  0.0059
   1.4222E+01   1.4568E+01   1.6617E-05  0.0059
   1.4568E+01   1.4922E+01   1.6473E-05  0.0059
   1.4922E+01   1.5285E+01   1.6353E-05  0.0058
   1.5285E+01   1.5657E+01   1.5923E-05  0.0058
   1.5657E+01   1.6038E+01   1.5587E-05  0.0058
   1.6038E+01   1.6428E+01   1.5425E-05  0.0058
   1.6428E+01   1.6828E+01   1.5268E-05  0.0057
   1.6828E+01   1.7237E+01   1.5018E-05  0.0057
   1.7237E+01   1.7657E+01   1.4601E-05  0.0057
   1.7657E+01   1.8086E+01   1.4318E-05  0.0057
   1.8086E+01   1.8526E+01   1.3950E-05  0.0057
   1.8526E+01   1.8977E+01   1.3474E-05  0.0057
   1.8977E+01   1.9439E+01   1.3223E-05  0.0057
   1.9439E+01   1.9912E+01   1.2769E-05  0.0058
   1.9912E+01   2.0396E+01   1.2381E-05  0.0058
   2.0396E+01   2.0893E+01   1.2049E-05  0.0058
   2.0893E+01   2.1401E+01   1.1632E-05  0.0058
   2.1401E+01   2.1922E+01   1.1138E-05  0.0059
   2.1922E+01   2.2455E+01   1.0864E-05  0.0059
   2.2455E+01   2.3001E+01   1.0400E-05  0.0059
   2.3001E+01   2.3561E+01   9.8724E-06  0.0060
   2.3561E+01   2.4134E+01   9.3651E-06  0.0061
   2.4134E+01   2.4721E+01   9.1058E-06  0.0061
   2.4721E+01   2.5323E+01   8.5108E-06  0.0063
   2.5323E+01   2.5939E+01   8.1113E-06  0.0063
   2.5939E+01   2.6570E+01   7.7520E-06  0.0064
   2.6570E+01   2.7217E+01   7.2535E-06  0.0065
   2.7217E+01   2.7879E+01   6.9353E-06  0.0066
   2.7879E+01   2.8557E+01   6.4961E-06  0.0067
   2.8557E+01   2.9252E+01   6.1754E-06  0.0068
   2.9252E+01   2.9964E+01   5.7637E-06  0.0070
   2.9964E+01   3.0693E+01   5.3432E-06  0.0072
   3.0693E+01   3.1440E+01   4.8595E-06  0.0074
   3.1440E+01   3.2205E+01   4.4071E-06  0.0077
   3.2205E+01   3.2988E+01   3.9864E-06  0.0080
   3.2988E+01   3.3791E+01   3.5456E-06  0.0084
   3.3791E+01   3.4613E+01   3.0126E-06  0.0090
   3.4613E+01   3.5455E+01   2.4660E-06  0.0098
   3.5455E+01   3.6318E+01   1.8441E-06  0.0112
   3.6318E+01   3.7201E+01   1.1446E-06  0.0141
   3.7201E+01   3.8106E+01   5.0865E-07  0.0208
   3.8106E+01   3.9034E+01   1.1972E-07  0.0424
   3.9034E+01   3.9983E+01   4.2118E-09  0.2236
   3.9983E+01   4.0956E+01   4.1117E-10  0.7071
   4.0956E+01   4.1953E+01   0.0000E+00  0.0000
   4.1953E+01   4.2973E+01   0.0000E+00  0.0000
   4.2973E+01   4.4019E+01   0.0000E+00  0.0000
   4.4019E+01   4.5090E+01   0.0000E+00  0.0000
   4.5090E+01   4.6187E+01   0.0000E+00  0.0000
   4.6187E+01   4.7311E+01   0.0000E+00  0.0000
   4.7311E+01   4.8462E+01   0.0000E+00  0.0000
   4.8462E+01   4.9641E+01   0.0000E+00  0.0000
   4.9641E+01   5.0849E+01   0.0000E+00  0.0000
   5.0849E+01   5.2086E+01   0.0000E+00  0.0000
   5.2086E+01   5.3353E+01   0.0000E+00  0.0000
   5.3353E+01   5.4651E+01   0.0000E+00  0.0000
   5.4651E+01   5.5981E+01   0.0000E+00  0.0000
   5.5981E+01   5.7343E+01   0.0000E+00  0.0000
   5.7343E+01   5.8738E+01   0.0000E+00  0.0000
   5.8738E+01   6.0168E+01   0.0000E+00  0.0000
   6.0168E+01   6.1632E+01   0.0000E+00  0.0000
   6.1632E+01   6.3131E+01   0.0000E+00  0.0000
   6.3131E+01   6.4667E+01   0.0000E+00  0.0000
   6.4667E+01   6.6240E+01   0.0000E+00  0.0000
   6.6240E+01   6.7852E+01   0.0000E+00  0.0000
   6.7852E+01   6.9503E+01   0.0000E+00  0.0000
   6.9503E+01   7.1194E+01   0.0000E+00  0.0000
   7.1194E+01   7.2926E+01   0.0000E+00  0.0000
   7.2926E+01   7.4701E+01   0.0000E+00  0.0000
   7.4701E+01   7.6518E+01   0.0000E+00  0.0000
   7.6518E+01   7.8380E+01   0.0000E+00  0.0000
   7.8380E+01   8.0287E+01   0.0000E+00  0.0000
   8.0287E+01   8.2240E+01   0.0000E+00  0.0000
   8.2240E+01   8.4241E+01   0.0000E+00  0.0000
   8.4241E+01   8.6291E+01   0.0000E+00  0.0000
   8.6291E+01   8.8391E+01   0.0000E+00  0.0000
   8.8391E+01   9.0541E+01   0.0000E+00  0.0000
   9.0541E+01   9.2744E+01   0.0000E+00  0.0000
   9.2744E+01   9.5001E+01   0.0000E+00  0.0000
   9.5001E+01   9.7312E+01   0.0000E+00  0.0000
   9.7312E+01   9.9680E+01   0.0000E+00  0.0000
   9.9680E+01   1.0211E+02   0.0000E+00  0.0000
   1.0211E+02   1.0459E+02   0.0000E+00  0.0000
   1.0459E+02   1.0713E+02   0.0000E+00  0.0000
   1.0713E+02   1.0974E+02   0.0000E+00  0.0000
   1.0974E+02   1.1241E+02   0.0000E+00  0.0000
   1.1241E+02   1.1515E+02   0.0000E+00  0.0000
   1.1515E+02   1.1795E+02   0.0000E+00  0.0000
   1.1795E+02   1.2082E+02   0.0000E+00  0.0000
   1.2082E+02   1.2376E+02   0.0000E+00  0.0000
   1.2376E+02   1.2677E+02   0.0000E+00  0.0000
   1.2677E+02   1.2985E+02   0.0000E+00  0.0000
   1.2985E+02   1.3301E+02   0.0000E+00  0.0000
   1.3301E+02   1.3625E+02   0.0000E+00  0.0000
   1.3625E+02   1.3956E+02   0.0000E+00  0.0000
   1.3956E+02   1.4296E+02   0.0000E+00  0.0000
   1.4296E+02   1.4644E+02   0.0000E+00  0.0000
   1.4644E+02   1.5000E+02   0.0000E+00  0.0000

#   sum over                 4.6562E-06
'no. =    1   reg = 105 - 205'
msuc: {\huge [t-cross] in region mesh}
msdr: {\it plotted by \ANGEL \version}
msdl: {\it calculated by \PHITS  3.26}
wt: s(0.7)
\vspace{-3}
  region surface crossing
  area  &=&   1.0000E+00 [cm^2]
e:
 
# Information for Restart Calculation
# This calculation was newly started
# istdev =  2 # 1:Batch variance, 2:History variance
# resc2  = 5.00000000000000000E+09 # Total source weight or Total source weight / maxcas
# resc3  = 5.00000000000000000E+09 # Total history number or Total batch number
# maxcas =   100000000 # History / Batch, only used for istdev=1
# bitrseed = 0110100000100010111000001110001111001110100100011111101000111001 # bit data of rseed
