[ T-Cross ]
    title = [t-cross] in region mesh
     mesh =  reg            # mesh type is region-wise
      reg =    1            # number of crossing regions
      non     r-from    r-to       area
      1       118       218        1.000000    
   e-type =    3            # e-mesh is log given by emin, emax and ne
     emin =  1.0000000E-02  # minimum value of e-mesh points
     emax =   150.0000      # maximum value of e-mesh points
#    edel =  2.4039514E-02  # mesh width of e-mesh points
       ne =    400          # number of e-mesh points
#    data = ( e(i), i = 1, ne + 1 )
#           1.00000E-02  1.02433E-02  1.04925E-02  1.07478E-02  1.10093E-02
#           1.12772E-02  1.15516E-02  1.18326E-02  1.21205E-02  1.24154E-02
#           1.27175E-02  1.30269E-02  1.33439E-02  1.36686E-02  1.40011E-02
#           1.43418E-02  1.46907E-02  1.50482E-02  1.54143E-02  1.57894E-02
#           1.61735E-02  1.65670E-02  1.69701E-02  1.73830E-02  1.78060E-02
#           1.82392E-02  1.86830E-02  1.91375E-02  1.96032E-02  2.00801E-02
#           2.05687E-02  2.10692E-02  2.15818E-02  2.21069E-02  2.26448E-02
#           2.31957E-02  2.37601E-02  2.43382E-02  2.49304E-02  2.55369E-02
#           2.61583E-02  2.67947E-02  2.74467E-02  2.81145E-02  2.87985E-02
#           2.94992E-02  3.02169E-02  3.09521E-02  3.17052E-02  3.24766E-02
#           3.32668E-02  3.40762E-02  3.49053E-02  3.57546E-02  3.66246E-02
#           3.75157E-02  3.84284E-02  3.93634E-02  4.03212E-02  4.13022E-02
#           4.23071E-02  4.33365E-02  4.43909E-02  4.54710E-02  4.65773E-02
#           4.77106E-02  4.88714E-02  5.00605E-02  5.12785E-02  5.25262E-02
#           5.38042E-02  5.51133E-02  5.64542E-02  5.78278E-02  5.92348E-02
#           6.06760E-02  6.21523E-02  6.36645E-02  6.52135E-02  6.68002E-02
#           6.84255E-02  7.00904E-02  7.17957E-02  7.35426E-02  7.53319E-02
#           7.71648E-02  7.90423E-02  8.09655E-02  8.29354E-02  8.49533E-02
#           8.70203E-02  8.91376E-02  9.13064E-02  9.35279E-02  9.58035E-02
#           9.81345E-02  1.00522E-01  1.02968E-01  1.05473E-01  1.08040E-01
#           1.10668E-01  1.13361E-01  1.16119E-01  1.18944E-01  1.21838E-01
#           1.24803E-01  1.27839E-01  1.30950E-01  1.34136E-01  1.37399E-01
#           1.40742E-01  1.44167E-01  1.47675E-01  1.51268E-01  1.54948E-01
#           1.58718E-01  1.62580E-01  1.66535E-01  1.70587E-01  1.74738E-01
#           1.78989E-01  1.83344E-01  1.87805E-01  1.92375E-01  1.97055E-01
#           2.01850E-01  2.06761E-01  2.11792E-01  2.16945E-01  2.22223E-01
#           2.27630E-01  2.33169E-01  2.38842E-01  2.44653E-01  2.50605E-01
#           2.56703E-01  2.62949E-01  2.69346E-01  2.75900E-01  2.82613E-01
#           2.89489E-01  2.96532E-01  3.03747E-01  3.11138E-01  3.18708E-01
#           3.26462E-01  3.34405E-01  3.42542E-01  3.50876E-01  3.59413E-01
#           3.68158E-01  3.77116E-01  3.86291E-01  3.95690E-01  4.05317E-01
#           4.15179E-01  4.25281E-01  4.35628E-01  4.46227E-01  4.57084E-01
#           4.68205E-01  4.79597E-01  4.91266E-01  5.03219E-01  5.15463E-01
#           5.28005E-01  5.40851E-01  5.54011E-01  5.67490E-01  5.81298E-01
#           5.95441E-01  6.09929E-01  6.24769E-01  6.39970E-01  6.55541E-01
#           6.71491E-01  6.87828E-01  7.04564E-01  7.21706E-01  7.39266E-01
#           7.57253E-01  7.75678E-01  7.94551E-01  8.13883E-01  8.33685E-01
#           8.53969E-01  8.74747E-01  8.96030E-01  9.17831E-01  9.40163E-01
#           9.63038E-01  9.86469E-01  1.01047E+00  1.03506E+00  1.06024E+00
#           1.08604E+00  1.11246E+00  1.13953E+00  1.16725E+00  1.19565E+00
#           1.22474E+00  1.25454E+00  1.28507E+00  1.31633E+00  1.34836E+00
#           1.38117E+00  1.41477E+00  1.44920E+00  1.48446E+00  1.52057E+00
#           1.55757E+00  1.59547E+00  1.63429E+00  1.67405E+00  1.71478E+00
#           1.75650E+00  1.79924E+00  1.84302E+00  1.88786E+00  1.93379E+00
#           1.98084E+00  2.02904E+00  2.07841E+00  2.12898E+00  2.18078E+00
#           2.23384E+00  2.28819E+00  2.34386E+00  2.40089E+00  2.45930E+00
#           2.51914E+00  2.58043E+00  2.64322E+00  2.70753E+00  2.77341E+00
#           2.84088E+00  2.91001E+00  2.98081E+00  3.05333E+00  3.12762E+00
#           3.20372E+00  3.28167E+00  3.36152E+00  3.44330E+00  3.52708E+00
#           3.61290E+00  3.70080E+00  3.79085E+00  3.88308E+00  3.97756E+00
#           4.07434E+00  4.17347E+00  4.27501E+00  4.37903E+00  4.48557E+00
#           4.59471E+00  4.70650E+00  4.82102E+00  4.93832E+00  5.05847E+00
#           5.18155E+00  5.30762E+00  5.43676E+00  5.56904E+00  5.70453E+00
#           5.84333E+00  5.98550E+00  6.13114E+00  6.28031E+00  6.43312E+00
#           6.58964E+00  6.74997E+00  6.91420E+00  7.08243E+00  7.25475E+00
#           7.43126E+00  7.61207E+00  7.79728E+00  7.98700E+00  8.18133E+00
#           8.38038E+00  8.58428E+00  8.79315E+00  9.00709E+00  9.22624E+00
#           9.45072E+00  9.68067E+00  9.91620E+00  1.01575E+01  1.04046E+01
#           1.06578E+01  1.09171E+01  1.11827E+01  1.14548E+01  1.17335E+01
#           1.20190E+01  1.23114E+01  1.26109E+01  1.29178E+01  1.32321E+01
#           1.35540E+01  1.38838E+01  1.42216E+01  1.45676E+01  1.49221E+01
#           1.52851E+01  1.56570E+01  1.60380E+01  1.64282E+01  1.68279E+01
#           1.72374E+01  1.76568E+01  1.80864E+01  1.85264E+01  1.89772E+01
#           1.94389E+01  1.99119E+01  2.03963E+01  2.08926E+01  2.14009E+01
#           2.19216E+01  2.24550E+01  2.30014E+01  2.35610E+01  2.41343E+01
#           2.47215E+01  2.53230E+01  2.59391E+01  2.65702E+01  2.72167E+01
#           2.78789E+01  2.85572E+01  2.92520E+01  2.99637E+01  3.06928E+01
#           3.14396E+01  3.22045E+01  3.29881E+01  3.37907E+01  3.46128E+01
#           3.54550E+01  3.63177E+01  3.72013E+01  3.81064E+01  3.90336E+01
#           3.99833E+01  4.09561E+01  4.19526E+01  4.29734E+01  4.40189E+01
#           4.50900E+01  4.61870E+01  4.73108E+01  4.84619E+01  4.96410E+01
#           5.08488E+01  5.20860E+01  5.33533E+01  5.46514E+01  5.59812E+01
#           5.73432E+01  5.87384E+01  6.01676E+01  6.16315E+01  6.31311E+01
#           6.46671E+01  6.62405E+01  6.78522E+01  6.95031E+01  7.11941E+01
#           7.29263E+01  7.47007E+01  7.65182E+01  7.83800E+01  8.02870E+01
#           8.22405E+01  8.42414E+01  8.62911E+01  8.83906E+01  9.05412E+01
#           9.27442E+01  9.50007E+01  9.73122E+01  9.96799E+01  1.02105E+02
#           1.04589E+02  1.07134E+02  1.09741E+02  1.12411E+02  1.15146E+02
#           1.17948E+02  1.20817E+02  1.23757E+02  1.26768E+02  1.29852E+02
#           1.33012E+02  1.36248E+02  1.39563E+02  1.42959E+02  1.46437E+02
#           1.50000E+02
     unit =    2            # unit is [1/cm^2/(MeV/n)/source]
     axis =  eng            # axis of output
     file = detector-19.out  # file name of output for the above axis
   output = f-curr          # surface crossing forward current spectrum
     part =  neutron  
# kf/name :  2112     
#    used :        main (  %)        temp (  %)       total (  %)
#  memory :         414 (  0)           0 (  0)         414 (  0)

#------------------------------------------------------------------------------
#newpage:
#   no. =    1   reg = 118 - 218

x: Energy [MeV/n]
y:  F-Curr [1/cm^2/(MeV/n)/source]         
p: xlog ylog afac(0.8) form(0.9)
h: n            x            y(neutron ),hh0l   n 
#  e-lower      e-upper      neutron     r.err 
   1.0000E-02   1.0243E-02   6.3906E-03  0.0358
   1.0243E-02   1.0493E-02   6.1981E-03  0.0359
   1.0493E-02   1.0748E-02   6.0505E-03  0.0359
   1.0748E-02   1.1009E-02   5.9957E-03  0.0356
   1.1009E-02   1.1277E-02   6.1272E-03  0.0349
   1.1277E-02   1.1552E-02   5.8201E-03  0.0353
   1.1552E-02   1.1833E-02   5.6345E-03  0.0355
   1.1833E-02   1.2121E-02   5.5074E-03  0.0354
   1.2121E-02   1.2415E-02   5.1584E-03  0.0362
   1.2415E-02   1.2718E-02   5.5018E-03  0.0346
   1.2718E-02   1.3027E-02   5.4040E-03  0.0345
   1.3027E-02   1.3344E-02   5.0735E-03  0.0352
   1.3344E-02   1.3669E-02   4.8584E-03  0.0355
   1.3669E-02   1.4001E-02   4.9507E-03  0.0348
   1.4001E-02   1.4342E-02   4.8201E-03  0.0348
   1.4342E-02   1.4691E-02   4.8599E-03  0.0343
   1.4691E-02   1.5048E-02   4.6985E-03  0.0344
   1.5048E-02   1.5414E-02   4.6557E-03  0.0342
   1.5414E-02   1.5789E-02   4.7874E-03  0.0333
   1.5789E-02   1.6174E-02   4.3650E-03  0.0344
   1.6174E-02   1.6567E-02   4.4090E-03  0.0339
   1.6567E-02   1.6970E-02   4.3640E-03  0.0336
   1.6970E-02   1.7383E-02   4.1281E-03  0.0342
   1.7383E-02   1.7806E-02   4.2287E-03  0.0334
   1.7806E-02   1.8239E-02   3.9244E-03  0.0342
   1.8239E-02   1.8683E-02   3.8413E-03  0.0342
   1.8683E-02   1.9138E-02   3.9192E-03  0.0334
   1.9138E-02   1.9603E-02   3.6923E-03  0.0340
   1.9603E-02   2.0080E-02   3.8924E-03  0.0328
   2.0080E-02   2.0569E-02   3.4548E-03  0.0344
   2.0569E-02   2.1069E-02   3.6833E-03  0.0329
   2.1069E-02   2.1582E-02   3.5689E-03  0.0330
   2.1582E-02   2.2107E-02   3.3353E-03  0.0337
   2.2107E-02   2.2645E-02   3.1675E-03  0.0342
   2.2645E-02   2.3196E-02   3.4462E-03  0.0324
   2.3196E-02   2.3760E-02   3.2531E-03  0.0329
   2.3760E-02   2.4338E-02   3.1590E-03  0.0330
   2.4338E-02   2.4930E-02   3.1585E-03  0.0327
   2.4930E-02   2.5537E-02   3.1625E-03  0.0322
   2.5537E-02   2.6158E-02   3.0089E-03  0.0326
   2.6158E-02   2.6795E-02   3.0816E-03  0.0319
   2.6795E-02   2.7447E-02   2.6562E-03  0.0339
   2.7447E-02   2.8114E-02   2.8114E-03  0.0326
   2.8114E-02   2.8799E-02   2.8594E-03  0.0319
   2.8799E-02   2.9499E-02   2.6691E-03  0.0326
   2.9499E-02   3.0217E-02   2.6919E-03  0.0321
   3.0217E-02   3.0952E-02   2.5882E-03  0.0323
   3.0952E-02   3.1705E-02   2.6449E-03  0.0316
   3.1705E-02   3.2477E-02   2.4746E-03  0.0323
   3.2477E-02   3.3267E-02   2.4196E-03  0.0323
   3.3267E-02   3.4076E-02   2.4609E-03  0.0316
   3.4076E-02   3.4905E-02   2.3724E-03  0.0318
   3.4905E-02   3.5755E-02   2.3465E-03  0.0316
   3.5755E-02   3.6625E-02   2.2520E-03  0.0319
   3.6625E-02   3.7516E-02   2.1768E-03  0.0320
   3.7516E-02   3.8428E-02   2.1418E-03  0.0319
   3.8428E-02   3.9363E-02   2.1570E-03  0.0314
   3.9363E-02   4.0321E-02   2.0768E-03  0.0317
   4.0321E-02   4.1302E-02   2.1210E-03  0.0310
   4.1302E-02   4.2307E-02   2.0006E-03  0.0315
   4.2307E-02   4.3337E-02   1.9422E-03  0.0316
   4.3337E-02   4.4391E-02   1.9383E-03  0.0312
   4.4391E-02   4.5471E-02   1.8816E-03  0.0313
   4.5471E-02   4.6577E-02   1.9757E-03  0.0302
   4.6577E-02   4.7711E-02   1.8226E-03  0.0311
   4.7711E-02   4.8871E-02   1.7655E-03  0.0312
   4.8871E-02   5.0061E-02   1.7873E-03  0.0306
   5.0061E-02   5.1279E-02   1.7872E-03  0.0302
   5.1279E-02   5.2526E-02   1.6075E-03  0.0315
   5.2526E-02   5.3804E-02   1.5519E-03  0.0317
   5.3804E-02   5.5113E-02   1.6260E-03  0.0306
   5.5113E-02   5.6454E-02   1.5837E-03  0.0306
   5.6454E-02   5.7828E-02   1.4777E-03  0.0313
   5.7828E-02   5.9235E-02   1.5278E-03  0.0304
   5.9235E-02   6.0676E-02   1.5515E-03  0.0298
   6.0676E-02   6.2152E-02   1.4300E-03  0.0307
   6.2152E-02   6.3665E-02   1.4923E-03  0.0297
   6.3665E-02   6.5214E-02   1.4406E-03  0.0299
   6.5214E-02   6.6800E-02   1.3522E-03  0.0305
   6.6800E-02   6.8426E-02   1.3091E-03  0.0306
   6.8426E-02   7.0090E-02   1.3245E-03  0.0301
   7.0090E-02   7.1796E-02   1.2531E-03  0.0305
   7.1796E-02   7.3543E-02   1.2782E-03  0.0298
   7.3543E-02   7.5332E-02   1.2056E-03  0.0304
   7.5332E-02   7.7165E-02   1.2338E-03  0.0297
   7.7165E-02   7.9042E-02   1.1340E-03  0.0306
   7.9042E-02   8.0965E-02   1.1572E-03  0.0299
   8.0965E-02   8.2935E-02   1.1302E-03  0.0299
   8.2935E-02   8.4953E-02   1.0933E-03  0.0300
   8.4953E-02   8.7020E-02   1.0963E-03  0.0296
   8.7020E-02   8.9138E-02   1.0171E-03  0.0304
   8.9138E-02   9.1306E-02   1.0215E-03  0.0300
   9.1306E-02   9.3528E-02   1.0422E-03  0.0293
   9.3528E-02   9.5804E-02   9.5968E-04  0.0302
   9.5804E-02   9.8134E-02   9.9173E-04  0.0293
   9.8134E-02   1.0052E-01   9.2699E-04  0.0300
   1.0052E-01   1.0297E-01   9.4954E-04  0.0293
   1.0297E-01   1.0547E-01   9.1932E-04  0.0294
   1.0547E-01   1.0804E-01   8.5739E-04  0.0301
   1.0804E-01   1.1067E-01   8.8541E-04  0.0292
   1.1067E-01   1.1336E-01   9.0461E-04  0.0286
   1.1336E-01   1.1612E-01   8.5621E-04  0.0290
   1.1612E-01   1.1894E-01   8.4980E-04  0.0288
   1.1894E-01   1.2184E-01   8.0728E-04  0.0292
   1.2184E-01   1.2480E-01   7.7496E-04  0.0294
   1.2480E-01   1.2784E-01   7.7244E-04  0.0291
   1.2784E-01   1.3095E-01   7.6961E-04  0.0288
   1.3095E-01   1.3414E-01   7.3559E-04  0.0291
   1.3414E-01   1.3740E-01   7.4983E-04  0.0285
   1.3740E-01   1.4074E-01   6.9621E-04  0.0292
   1.4074E-01   1.4417E-01   7.0503E-04  0.0287
   1.4417E-01   1.4767E-01   6.8105E-04  0.0289
   1.4767E-01   1.5127E-01   6.6354E-04  0.0289
   1.5127E-01   1.5495E-01   6.4670E-04  0.0289
   1.5495E-01   1.5872E-01   6.1713E-04  0.0293
   1.5872E-01   1.6258E-01   6.4212E-04  0.0283
   1.6258E-01   1.6654E-01   6.2077E-04  0.0285
   1.6654E-01   1.7059E-01   5.9756E-04  0.0287
   1.7059E-01   1.7474E-01   5.8401E-04  0.0287
   1.7474E-01   1.7899E-01   5.7720E-04  0.0285
   1.7899E-01   1.8334E-01   5.7128E-04  0.0283
   1.8334E-01   1.8781E-01   5.3325E-04  0.0290
   1.8781E-01   1.9237E-01   5.3671E-04  0.0285
   1.9237E-01   1.9706E-01   5.3530E-04  0.0282
   1.9706E-01   2.0185E-01   5.3593E-04  0.0278
   2.0185E-01   2.0676E-01   5.4251E-04  0.0273
   2.0676E-01   2.1179E-01   5.3920E-04  0.0271
   2.1179E-01   2.1694E-01   5.4966E-04  0.0265
   2.1694E-01   2.2222E-01   5.6627E-04  0.0258
   2.2222E-01   2.2763E-01   6.0344E-04  0.0247
   2.2763E-01   2.3317E-01   6.0085E-04  0.0245
   2.3317E-01   2.3884E-01   6.2707E-04  0.0237
   2.3884E-01   2.4465E-01   6.7239E-04  0.0226
   2.4465E-01   2.5061E-01   6.2827E-04  0.0231
   2.5061E-01   2.5670E-01   6.4539E-04  0.0225
   2.5670E-01   2.6295E-01   6.7414E-04  0.0217
   2.6295E-01   2.6935E-01   6.9041E-04  0.0212
   2.6935E-01   2.7590E-01   7.0784E-04  0.0207
   2.7590E-01   2.8261E-01   7.2673E-04  0.0202
   2.8261E-01   2.8949E-01   7.4081E-04  0.0198
   2.8949E-01   2.9653E-01   7.3055E-04  0.0197
   2.9653E-01   3.0375E-01   7.5042E-04  0.0192
   3.0375E-01   3.1114E-01   7.4363E-04  0.0190
   3.1114E-01   3.1871E-01   7.7321E-04  0.0184
   3.1871E-01   3.2646E-01   7.8878E-04  0.0180
   3.2646E-01   3.3441E-01   8.1280E-04  0.0176
   3.3441E-01   3.4254E-01   8.4340E-04  0.0170
   3.4254E-01   3.5088E-01   8.2868E-04  0.0170
   3.5088E-01   3.5941E-01   8.6649E-04  0.0164
   3.5941E-01   3.6816E-01   8.6214E-04  0.0162
   3.6816E-01   3.7712E-01   8.7124E-04  0.0160
   3.7712E-01   3.8629E-01   8.9343E-04  0.0156
   3.8629E-01   3.9569E-01   8.8099E-04  0.0155
   3.9569E-01   4.0532E-01   9.0745E-04  0.0151
   4.0532E-01   4.1518E-01   8.9529E-04  0.0150
   4.1518E-01   4.2528E-01   9.2896E-04  0.0146
   4.2528E-01   4.3563E-01   9.6108E-04  0.0141
   4.3563E-01   4.4623E-01   9.4344E-04  0.0141
   4.4623E-01   4.5708E-01   9.4843E-04  0.0139
   4.5708E-01   4.6821E-01   9.4448E-04  0.0138
   4.6821E-01   4.7960E-01   9.7442E-04  0.0134
   4.7960E-01   4.9127E-01   9.6707E-04  0.0133
   4.9127E-01   5.0322E-01   9.9443E-04  0.0129
   5.0322E-01   5.1546E-01   9.9618E-04  0.0128
   5.1546E-01   5.2800E-01   9.9366E-04  0.0126
   5.2800E-01   5.4085E-01   9.8122E-04  0.0126
   5.4085E-01   5.5401E-01   1.0080E-03  0.0122
   5.5401E-01   5.6749E-01   1.0274E-03  0.0120
   5.6749E-01   5.8130E-01   9.7872E-04  0.0121
   5.8130E-01   5.9544E-01   9.8623E-04  0.0119
   5.9544E-01   6.0993E-01   9.8946E-04  0.0118
   6.0993E-01   6.2477E-01   9.9060E-04  0.0116
   6.2477E-01   6.3997E-01   9.7930E-04  0.0115
   6.3997E-01   6.5554E-01   9.7338E-04  0.0114
   6.5554E-01   6.7149E-01   9.8737E-04  0.0112
   6.7149E-01   6.8783E-01   9.7660E-04  0.0112
   6.8783E-01   7.0456E-01   9.6776E-04  0.0111
   7.0456E-01   7.2171E-01   9.6373E-04  0.0110
   7.2171E-01   7.3927E-01   9.6169E-04  0.0108
   7.3927E-01   7.5725E-01   9.3088E-04  0.0109
   7.5725E-01   7.7568E-01   9.2052E-04  0.0108
   7.7568E-01   7.9455E-01   9.1430E-04  0.0107
   7.9455E-01   8.1388E-01   9.1200E-04  0.0106
   8.1388E-01   8.3368E-01   8.8817E-04  0.0106
   8.3368E-01   8.5397E-01   8.6961E-04  0.0106
   8.5397E-01   8.7475E-01   8.4865E-04  0.0106
   8.7475E-01   8.9603E-01   8.2191E-04  0.0107
   8.9603E-01   9.1783E-01   8.0882E-04  0.0106
   9.1783E-01   9.4016E-01   7.7542E-04  0.0107
   9.4016E-01   9.6304E-01   7.5530E-04  0.0107
   9.6304E-01   9.8647E-01   7.4998E-04  0.0106
   9.8647E-01   1.0105E+00   7.1273E-04  0.0108
   1.0105E+00   1.0351E+00   7.0231E-04  0.0107
   1.0351E+00   1.0602E+00   6.9645E-04  0.0106
   1.0602E+00   1.0860E+00   6.9679E-04  0.0105
   1.0860E+00   1.1125E+00   6.9794E-04  0.0104
   1.1125E+00   1.1395E+00   7.0223E-04  0.0102
   1.1395E+00   1.1673E+00   6.9966E-04  0.0101
   1.1673E+00   1.1957E+00   7.0809E-04  0.0099
   1.1957E+00   1.2247E+00   7.0914E-04  0.0098
   1.2247E+00   1.2545E+00   7.0719E-04  0.0097
   1.2545E+00   1.2851E+00   7.0226E-04  0.0096
   1.2851E+00   1.3163E+00   6.9673E-04  0.0095
   1.3163E+00   1.3484E+00   6.8227E-04  0.0095
   1.3484E+00   1.3812E+00   6.8648E-04  0.0094
   1.3812E+00   1.4148E+00   6.8111E-04  0.0093
   1.4148E+00   1.4492E+00   6.6939E-04  0.0093
   1.4492E+00   1.4845E+00   6.6561E-04  0.0092
   1.4845E+00   1.5206E+00   6.5411E-04  0.0092
   1.5206E+00   1.5576E+00   6.4628E-04  0.0091
   1.5576E+00   1.5955E+00   6.3304E-04  0.0091
   1.5955E+00   1.6343E+00   6.1932E-04  0.0091
   1.6343E+00   1.6741E+00   6.3024E-04  0.0089
   1.6741E+00   1.7148E+00   6.1612E-04  0.0089
   1.7148E+00   1.7565E+00   6.1428E-04  0.0088
   1.7565E+00   1.7992E+00   6.0654E-04  0.0087
   1.7992E+00   1.8430E+00   5.8533E-04  0.0088
   1.8430E+00   1.8879E+00   5.7709E-04  0.0087
   1.8879E+00   1.9338E+00   5.6641E-04  0.0087
   1.9338E+00   1.9808E+00   5.6287E-04  0.0086
   1.9808E+00   2.0290E+00   5.6148E-04  0.0085
   2.0290E+00   2.0784E+00   5.4420E-04  0.0086
   2.0784E+00   2.1290E+00   5.2950E-04  0.0086
   2.1290E+00   2.1808E+00   5.3043E-04  0.0085
   2.1808E+00   2.2338E+00   5.0978E-04  0.0085
   2.2338E+00   2.2882E+00   4.9124E-04  0.0086
   2.2882E+00   2.3439E+00   4.9563E-04  0.0085
   2.3439E+00   2.4009E+00   4.8458E-04  0.0084
   2.4009E+00   2.4593E+00   4.8597E-04  0.0083
   2.4593E+00   2.5191E+00   4.6548E-04  0.0084
   2.5191E+00   2.5804E+00   4.6206E-04  0.0083
   2.5804E+00   2.6432E+00   4.4878E-04  0.0084
   2.6432E+00   2.7075E+00   4.3275E-04  0.0084
   2.7075E+00   2.7734E+00   4.3080E-04  0.0083
   2.7734E+00   2.8409E+00   4.2403E-04  0.0083
   2.8409E+00   2.9100E+00   4.1392E-04  0.0083
   2.9100E+00   2.9808E+00   4.0192E-04  0.0083
   2.9808E+00   3.0533E+00   3.9814E-04  0.0083
   3.0533E+00   3.1276E+00   3.8914E-04  0.0083
   3.1276E+00   3.2037E+00   3.8470E-04  0.0082
   3.2037E+00   3.2817E+00   3.6969E-04  0.0083
   3.2817E+00   3.3615E+00   3.6216E-04  0.0083
   3.3615E+00   3.4433E+00   3.5758E-04  0.0082
   3.4433E+00   3.5271E+00   3.4847E-04  0.0082
   3.5271E+00   3.6129E+00   3.4202E-04  0.0082
   3.6129E+00   3.7008E+00   3.3307E-04  0.0082
   3.7008E+00   3.7908E+00   3.2639E-04  0.0082
   3.7908E+00   3.8831E+00   3.1707E-04  0.0082
   3.8831E+00   3.9776E+00   3.0381E-04  0.0083
   3.9776E+00   4.0743E+00   3.0045E-04  0.0082
   4.0743E+00   4.1735E+00   2.9366E-04  0.0082
   4.1735E+00   4.2750E+00   2.8547E-04  0.0083
   4.2750E+00   4.3790E+00   2.7387E-04  0.0083
   4.3790E+00   4.4856E+00   2.6955E-04  0.0083
   4.4856E+00   4.5947E+00   2.6145E-04  0.0083
   4.5947E+00   4.7065E+00   2.5532E-04  0.0083
   4.7065E+00   4.8210E+00   2.4713E-04  0.0084
   4.8210E+00   4.9383E+00   2.3831E-04  0.0084
   4.9383E+00   5.0585E+00   2.2747E-04  0.0085
   5.0585E+00   5.1815E+00   2.2097E-04  0.0085
   5.1815E+00   5.3076E+00   2.1631E-04  0.0085
   5.3076E+00   5.4368E+00   2.1003E-04  0.0085
   5.4368E+00   5.5690E+00   2.0049E-04  0.0086
   5.5690E+00   5.7045E+00   1.9441E-04  0.0087
   5.7045E+00   5.8433E+00   1.8626E-04  0.0088
   5.8433E+00   5.9855E+00   1.7910E-04  0.0088
   5.9855E+00   6.1311E+00   1.7427E-04  0.0088
   6.1311E+00   6.2803E+00   1.6790E-04  0.0089
   6.2803E+00   6.4331E+00   1.6096E-04  0.0090
   6.4331E+00   6.5896E+00   1.5673E-04  0.0090
   6.5896E+00   6.7500E+00   1.5161E-04  0.0090
   6.7500E+00   6.9142E+00   1.4412E-04  0.0092
   6.9142E+00   7.0824E+00   1.4026E-04  0.0092
   7.0824E+00   7.2548E+00   1.3067E-04  0.0094
   7.2548E+00   7.4313E+00   1.2722E-04  0.0094
   7.4313E+00   7.6121E+00   1.2122E-04  0.0095
   7.6121E+00   7.7973E+00   1.1592E-04  0.0096
   7.7973E+00   7.9870E+00   1.1184E-04  0.0097
   7.9870E+00   8.1813E+00   1.0663E-04  0.0098
   8.1813E+00   8.3804E+00   1.0250E-04  0.0099
   8.3804E+00   8.5843E+00   9.6563E-05  0.0101
   8.5843E+00   8.7931E+00   9.3144E-05  0.0101
   8.7931E+00   9.0071E+00   8.7153E-05  0.0103
   9.0071E+00   9.2262E+00   8.4723E-05  0.0104
   9.2262E+00   9.4507E+00   8.0356E-05  0.0105
   9.4507E+00   9.6807E+00   7.7792E-05  0.0106
   9.6807E+00   9.9162E+00   7.3017E-05  0.0108
   9.9162E+00   1.0157E+01   6.9950E-05  0.0109
   1.0157E+01   1.0405E+01   6.8024E-05  0.0109
   1.0405E+01   1.0658E+01   6.6527E-05  0.0109
   1.0658E+01   1.0917E+01   6.5268E-05  0.0109
   1.0917E+01   1.1183E+01   6.3321E-05  0.0109
   1.1183E+01   1.1455E+01   6.0171E-05  0.0110
   1.1455E+01   1.1733E+01   5.7830E-05  0.0111
   1.1733E+01   1.2019E+01   5.3596E-05  0.0114
   1.2019E+01   1.2311E+01   5.0653E-05  0.0116
   1.2311E+01   1.2611E+01   4.7005E-05  0.0119
   1.2611E+01   1.2918E+01   4.4771E-05  0.0121
   1.2918E+01   1.3232E+01   4.2470E-05  0.0122
   1.3232E+01   1.3554E+01   4.0530E-05  0.0124
   1.3554E+01   1.3884E+01   3.7470E-05  0.0127
   1.3884E+01   1.4222E+01   3.5411E-05  0.0129
   1.4222E+01   1.4568E+01   3.3106E-05  0.0132
   1.4568E+01   1.4922E+01   3.0805E-05  0.0135
   1.4922E+01   1.5285E+01   2.9304E-05  0.0137
   1.5285E+01   1.5657E+01   2.6944E-05  0.0141
   1.5657E+01   1.6038E+01   2.4514E-05  0.0146
   1.6038E+01   1.6428E+01   2.3089E-05  0.0149
   1.6428E+01   1.6828E+01   2.1400E-05  0.0153
   1.6828E+01   1.7237E+01   2.0441E-05  0.0155
   1.7237E+01   1.7657E+01   1.8605E-05  0.0160
   1.7657E+01   1.8086E+01   1.6804E-05  0.0166
   1.8086E+01   1.8526E+01   1.6502E-05  0.0166
   1.8526E+01   1.8977E+01   1.5015E-05  0.0172
   1.8977E+01   1.9439E+01   1.4865E-05  0.0171
   1.9439E+01   1.9912E+01   1.3370E-05  0.0178
   1.9912E+01   2.0396E+01   1.2496E-05  0.0182
   2.0396E+01   2.0893E+01   1.1567E-05  0.0187
   2.0893E+01   2.1401E+01   1.0426E-05  0.0194
   2.1401E+01   2.1922E+01   9.6524E-06  0.0199
   2.1922E+01   2.2455E+01   8.5082E-06  0.0210
   2.2455E+01   2.3001E+01   8.1194E-06  0.0212
   2.3001E+01   2.3561E+01   7.5084E-06  0.0218
   2.3561E+01   2.4134E+01   6.7928E-06  0.0227
   2.4134E+01   2.4721E+01   6.2397E-06  0.0234
   2.4721E+01   2.5323E+01   5.6227E-06  0.0243
   2.5323E+01   2.5939E+01   5.2716E-06  0.0248
   2.5939E+01   2.6570E+01   4.7313E-06  0.0259
   2.6570E+01   2.7217E+01   4.1518E-06  0.0273
   2.7217E+01   2.7879E+01   4.0894E-06  0.0272
   2.7879E+01   2.8557E+01   3.6443E-06  0.0284
   2.8557E+01   2.9252E+01   3.3332E-06  0.0294
   2.9252E+01   2.9964E+01   2.9562E-06  0.0308
   2.9964E+01   3.0693E+01   2.6144E-06  0.0324
   3.0693E+01   3.1440E+01   2.3166E-06  0.0340
   3.1440E+01   3.2205E+01   2.0210E-06  0.0360
   3.2205E+01   3.2988E+01   1.8965E-06  0.0367
   3.2988E+01   3.3791E+01   1.6720E-06  0.0386
   3.3791E+01   3.4613E+01   1.6469E-06  0.0384
   3.4613E+01   3.5455E+01   1.3465E-06  0.0420
   3.5455E+01   3.6318E+01   1.1546E-06  0.0448
   3.6318E+01   3.7201E+01   1.0547E-06  0.0463
   3.7201E+01   3.8106E+01   1.0363E-06  0.0462
   3.8106E+01   3.9034E+01   8.1971E-07  0.0513
   3.9034E+01   3.9983E+01   7.2653E-07  0.0538
   3.9983E+01   4.0956E+01   6.2704E-07  0.0573
   4.0956E+01   4.1953E+01   5.1982E-07  0.0621
   4.1953E+01   4.2973E+01   5.2903E-07  0.0609
   4.2973E+01   4.4019E+01   4.6099E-07  0.0644
   4.4019E+01   4.5090E+01   3.1932E-07  0.0765
   4.5090E+01   4.6187E+01   3.3726E-07  0.0735
   4.6187E+01   4.7311E+01   2.7408E-07  0.0806
   4.7311E+01   4.8462E+01   2.7104E-07  0.0801
   4.8462E+01   4.9641E+01   1.9676E-07  0.0928
   4.9641E+01   5.0849E+01   2.0202E-07  0.0905
   5.0849E+01   5.2086E+01   1.2124E-07  0.1155
   5.2086E+01   5.3353E+01   1.0100E-07  0.1250
   5.3353E+01   5.4651E+01   1.0168E-07  0.1231
   5.4651E+01   5.5981E+01   7.3700E-08  0.1429
   5.5981E+01   5.7343E+01   7.7823E-08  0.1374
   5.7343E+01   5.8738E+01   5.3039E-08  0.1644
   5.8738E+01   6.0168E+01   5.4578E-08  0.1601
   6.0168E+01   6.1632E+01   3.0056E-08  0.2132
   6.1632E+01   6.3131E+01   3.4677E-08  0.1961
   6.3131E+01   6.4667E+01   2.2135E-08  0.2425
   6.4667E+01   6.6240E+01   1.6525E-08  0.2774
   6.6240E+01   6.7852E+01   7.4456E-09  0.4082
   6.7852E+01   6.9503E+01   1.4538E-08  0.2887
   6.9503E+01   7.1194E+01   9.4615E-09  0.3536
   7.1194E+01   7.2926E+01   3.4638E-09  0.5774
   7.2926E+01   7.4701E+01   5.6358E-09  0.4472
   7.4701E+01   7.6518E+01   5.5020E-09  0.4472
   7.6518E+01   7.8380E+01   4.2970E-09  0.5000
   7.8380E+01   8.0287E+01   3.1462E-09  0.5774
   8.0287E+01   8.2240E+01   1.0238E-09  1.0000
   8.2240E+01   8.4241E+01   1.9990E-09  0.7071
   8.4241E+01   8.6291E+01   0.0000E+00  0.0000
   8.6291E+01   8.8391E+01   0.0000E+00  0.0000
   8.8391E+01   9.0541E+01   0.0000E+00  0.0000
   9.0541E+01   9.2744E+01   0.0000E+00  0.0000
   9.2744E+01   9.5001E+01   0.0000E+00  0.0000
   9.5001E+01   9.7312E+01   0.0000E+00  0.0000
   9.7312E+01   9.9680E+01   8.4471E-10  1.0000
   9.9680E+01   1.0211E+02   0.0000E+00  0.0000
   1.0211E+02   1.0459E+02   0.0000E+00  0.0000
   1.0459E+02   1.0713E+02   0.0000E+00  0.0000
   1.0713E+02   1.0974E+02   0.0000E+00  0.0000
   1.0974E+02   1.1241E+02   0.0000E+00  0.0000
   1.1241E+02   1.1515E+02   0.0000E+00  0.0000
   1.1515E+02   1.1795E+02   0.0000E+00  0.0000
   1.1795E+02   1.2082E+02   0.0000E+00  0.0000
   1.2082E+02   1.2376E+02   0.0000E+00  0.0000
   1.2376E+02   1.2677E+02   0.0000E+00  0.0000
   1.2677E+02   1.2985E+02   0.0000E+00  0.0000
   1.2985E+02   1.3301E+02   0.0000E+00  0.0000
   1.3301E+02   1.3625E+02   0.0000E+00  0.0000
   1.3625E+02   1.3956E+02   0.0000E+00  0.0000
   1.3956E+02   1.4296E+02   0.0000E+00  0.0000
   1.4296E+02   1.4644E+02   0.0000E+00  0.0000
   1.4644E+02   1.5000E+02   0.0000E+00  0.0000

#   sum over                 2.5077E-05
'no. =    1   reg = 118 - 218'
msuc: {\huge [t-cross] in region mesh}
msdr: {\it plotted by \ANGEL \version}
msdl: {\it calculated by \PHITS  3.26}
wt: s(0.7)
\vspace{-3}
  region surface crossing
  area  &=&   1.0000E+00 [cm^2]
e:
 
# Information for Restart Calculation
# This calculation was newly started
# istdev =  2 # 1:Batch variance, 2:History variance
# resc2  = 5.00000000000000000E+08 # Total source weight or Total source weight / maxcas
# resc3  = 5.00000000000000000E+08 # Total history number or Total batch number
# maxcas =   500000000 # History / Batch, only used for istdev=1
# bitrseed = 1101101111010011011000101101110001100110110010110001010100010001 # bit data of rseed
