[ T-Cross ]
    title = [t-cross] in region mesh
     mesh =  reg            # mesh type is region-wise
      reg =    1            # number of crossing regions
      non     r-from    r-to       area
      1       116       216        1.000000    
   e-type =    3            # e-mesh is log given by emin, emax and ne
     emin =  1.0000000E-02  # minimum value of e-mesh points
     emax =   150.0000      # maximum value of e-mesh points
#    edel =  2.4039514E-02  # mesh width of e-mesh points
       ne =    400          # number of e-mesh points
#    data = ( e(i), i = 1, ne + 1 )
#           1.00000E-02  1.02433E-02  1.04925E-02  1.07478E-02  1.10093E-02
#           1.12772E-02  1.15516E-02  1.18326E-02  1.21205E-02  1.24154E-02
#           1.27175E-02  1.30269E-02  1.33439E-02  1.36686E-02  1.40011E-02
#           1.43418E-02  1.46907E-02  1.50482E-02  1.54143E-02  1.57894E-02
#           1.61735E-02  1.65670E-02  1.69701E-02  1.73830E-02  1.78060E-02
#           1.82392E-02  1.86830E-02  1.91375E-02  1.96032E-02  2.00801E-02
#           2.05687E-02  2.10692E-02  2.15818E-02  2.21069E-02  2.26448E-02
#           2.31957E-02  2.37601E-02  2.43382E-02  2.49304E-02  2.55369E-02
#           2.61583E-02  2.67947E-02  2.74467E-02  2.81145E-02  2.87985E-02
#           2.94992E-02  3.02169E-02  3.09521E-02  3.17052E-02  3.24766E-02
#           3.32668E-02  3.40762E-02  3.49053E-02  3.57546E-02  3.66246E-02
#           3.75157E-02  3.84284E-02  3.93634E-02  4.03212E-02  4.13022E-02
#           4.23071E-02  4.33365E-02  4.43909E-02  4.54710E-02  4.65773E-02
#           4.77106E-02  4.88714E-02  5.00605E-02  5.12785E-02  5.25262E-02
#           5.38042E-02  5.51133E-02  5.64542E-02  5.78278E-02  5.92348E-02
#           6.06760E-02  6.21523E-02  6.36645E-02  6.52135E-02  6.68002E-02
#           6.84255E-02  7.00904E-02  7.17957E-02  7.35426E-02  7.53319E-02
#           7.71648E-02  7.90423E-02  8.09655E-02  8.29354E-02  8.49533E-02
#           8.70203E-02  8.91376E-02  9.13064E-02  9.35279E-02  9.58035E-02
#           9.81345E-02  1.00522E-01  1.02968E-01  1.05473E-01  1.08040E-01
#           1.10668E-01  1.13361E-01  1.16119E-01  1.18944E-01  1.21838E-01
#           1.24803E-01  1.27839E-01  1.30950E-01  1.34136E-01  1.37399E-01
#           1.40742E-01  1.44167E-01  1.47675E-01  1.51268E-01  1.54948E-01
#           1.58718E-01  1.62580E-01  1.66535E-01  1.70587E-01  1.74738E-01
#           1.78989E-01  1.83344E-01  1.87805E-01  1.92375E-01  1.97055E-01
#           2.01850E-01  2.06761E-01  2.11792E-01  2.16945E-01  2.22223E-01
#           2.27630E-01  2.33169E-01  2.38842E-01  2.44653E-01  2.50605E-01
#           2.56703E-01  2.62949E-01  2.69346E-01  2.75900E-01  2.82613E-01
#           2.89489E-01  2.96532E-01  3.03747E-01  3.11138E-01  3.18708E-01
#           3.26462E-01  3.34405E-01  3.42542E-01  3.50876E-01  3.59413E-01
#           3.68158E-01  3.77116E-01  3.86291E-01  3.95690E-01  4.05317E-01
#           4.15179E-01  4.25281E-01  4.35628E-01  4.46227E-01  4.57084E-01
#           4.68205E-01  4.79597E-01  4.91266E-01  5.03219E-01  5.15463E-01
#           5.28005E-01  5.40851E-01  5.54011E-01  5.67490E-01  5.81298E-01
#           5.95441E-01  6.09929E-01  6.24769E-01  6.39970E-01  6.55541E-01
#           6.71491E-01  6.87828E-01  7.04564E-01  7.21706E-01  7.39266E-01
#           7.57253E-01  7.75678E-01  7.94551E-01  8.13883E-01  8.33685E-01
#           8.53969E-01  8.74747E-01  8.96030E-01  9.17831E-01  9.40163E-01
#           9.63038E-01  9.86469E-01  1.01047E+00  1.03506E+00  1.06024E+00
#           1.08604E+00  1.11246E+00  1.13953E+00  1.16725E+00  1.19565E+00
#           1.22474E+00  1.25454E+00  1.28507E+00  1.31633E+00  1.34836E+00
#           1.38117E+00  1.41477E+00  1.44920E+00  1.48446E+00  1.52057E+00
#           1.55757E+00  1.59547E+00  1.63429E+00  1.67405E+00  1.71478E+00
#           1.75650E+00  1.79924E+00  1.84302E+00  1.88786E+00  1.93379E+00
#           1.98084E+00  2.02904E+00  2.07841E+00  2.12898E+00  2.18078E+00
#           2.23384E+00  2.28819E+00  2.34386E+00  2.40089E+00  2.45930E+00
#           2.51914E+00  2.58043E+00  2.64322E+00  2.70753E+00  2.77341E+00
#           2.84088E+00  2.91001E+00  2.98081E+00  3.05333E+00  3.12762E+00
#           3.20372E+00  3.28167E+00  3.36152E+00  3.44330E+00  3.52708E+00
#           3.61290E+00  3.70080E+00  3.79085E+00  3.88308E+00  3.97756E+00
#           4.07434E+00  4.17347E+00  4.27501E+00  4.37903E+00  4.48557E+00
#           4.59471E+00  4.70650E+00  4.82102E+00  4.93832E+00  5.05847E+00
#           5.18155E+00  5.30762E+00  5.43676E+00  5.56904E+00  5.70453E+00
#           5.84333E+00  5.98550E+00  6.13114E+00  6.28031E+00  6.43312E+00
#           6.58964E+00  6.74997E+00  6.91420E+00  7.08243E+00  7.25475E+00
#           7.43126E+00  7.61207E+00  7.79728E+00  7.98700E+00  8.18133E+00
#           8.38038E+00  8.58428E+00  8.79315E+00  9.00709E+00  9.22624E+00
#           9.45072E+00  9.68067E+00  9.91620E+00  1.01575E+01  1.04046E+01
#           1.06578E+01  1.09171E+01  1.11827E+01  1.14548E+01  1.17335E+01
#           1.20190E+01  1.23114E+01  1.26109E+01  1.29178E+01  1.32321E+01
#           1.35540E+01  1.38838E+01  1.42216E+01  1.45676E+01  1.49221E+01
#           1.52851E+01  1.56570E+01  1.60380E+01  1.64282E+01  1.68279E+01
#           1.72374E+01  1.76568E+01  1.80864E+01  1.85264E+01  1.89772E+01
#           1.94389E+01  1.99119E+01  2.03963E+01  2.08926E+01  2.14009E+01
#           2.19216E+01  2.24550E+01  2.30014E+01  2.35610E+01  2.41343E+01
#           2.47215E+01  2.53230E+01  2.59391E+01  2.65702E+01  2.72167E+01
#           2.78789E+01  2.85572E+01  2.92520E+01  2.99637E+01  3.06928E+01
#           3.14396E+01  3.22045E+01  3.29881E+01  3.37907E+01  3.46128E+01
#           3.54550E+01  3.63177E+01  3.72013E+01  3.81064E+01  3.90336E+01
#           3.99833E+01  4.09561E+01  4.19526E+01  4.29734E+01  4.40189E+01
#           4.50900E+01  4.61870E+01  4.73108E+01  4.84619E+01  4.96410E+01
#           5.08488E+01  5.20860E+01  5.33533E+01  5.46514E+01  5.59812E+01
#           5.73432E+01  5.87384E+01  6.01676E+01  6.16315E+01  6.31311E+01
#           6.46671E+01  6.62405E+01  6.78522E+01  6.95031E+01  7.11941E+01
#           7.29263E+01  7.47007E+01  7.65182E+01  7.83800E+01  8.02870E+01
#           8.22405E+01  8.42414E+01  8.62911E+01  8.83906E+01  9.05412E+01
#           9.27442E+01  9.50007E+01  9.73122E+01  9.96799E+01  1.02105E+02
#           1.04589E+02  1.07134E+02  1.09741E+02  1.12411E+02  1.15146E+02
#           1.17948E+02  1.20817E+02  1.23757E+02  1.26768E+02  1.29852E+02
#           1.33012E+02  1.36248E+02  1.39563E+02  1.42959E+02  1.46437E+02
#           1.50000E+02
     unit =    2            # unit is [1/cm^2/(MeV/n)/source]
     axis =  eng            # axis of output
     file = detector-17.out  # file name of output for the above axis
   output = f-curr          # surface crossing forward current spectrum
     part =  neutron  
# kf/name :  2112     
#    used :        main (  %)        temp (  %)       total (  %)
#  memory :         414 (  0)           0 (  0)         414 (  0)

#------------------------------------------------------------------------------
#newpage:
#   no. =    1   reg = 116 - 216

x: Energy [MeV/n]
y:  F-Curr [1/cm^2/(MeV/n)/source]         
p: xlog ylog afac(0.8) form(0.9)
h: n            x            y(neutron ),hh0l   n 
#  e-lower      e-upper      neutron     r.err 
   1.0000E-02   1.0243E-02   2.1703E-04  0.0714
   1.0243E-02   1.0493E-02   2.1827E-04  0.0704
   1.0493E-02   1.0748E-02   2.1710E-04  0.0696
   1.0748E-02   1.1009E-02   2.1610E-04  0.0690
   1.1009E-02   1.1277E-02   2.1332E-04  0.0686
   1.1277E-02   1.1552E-02   1.9654E-04  0.0707
   1.1552E-02   1.1833E-02   1.9700E-04  0.0697
   1.1833E-02   1.2121E-02   1.9338E-04  0.0695
   1.2121E-02   1.2415E-02   1.9006E-04  0.0693
   1.2415E-02   1.2718E-02   1.8827E-04  0.0687
   1.2718E-02   1.3027E-02   1.8828E-04  0.0679
   1.3027E-02   1.3344E-02   1.8306E-04  0.0680
   1.3344E-02   1.3669E-02   1.7806E-04  0.0682
   1.3669E-02   1.4001E-02   1.7582E-04  0.0679
   1.4001E-02   1.4342E-02   1.6411E-04  0.0694
   1.4342E-02   1.4691E-02   1.7052E-04  0.0671
   1.4691E-02   1.5048E-02   1.7000E-04  0.0666
   1.5048E-02   1.5414E-02   1.6155E-04  0.0675
   1.5414E-02   1.5789E-02   1.4029E-04  0.0716
   1.5789E-02   1.6174E-02   1.5501E-04  0.0672
   1.6174E-02   1.6567E-02   1.3112E-04  0.0722
   1.6567E-02   1.6970E-02   1.4634E-04  0.0675
   1.6970E-02   1.7383E-02   1.3845E-04  0.0685
   1.7383E-02   1.7806E-02   1.5253E-04  0.0646
   1.7806E-02   1.8239E-02   1.3233E-04  0.0685
   1.8239E-02   1.8683E-02   1.4450E-04  0.0648
   1.8683E-02   1.9138E-02   1.4754E-04  0.0634
   1.9138E-02   1.9603E-02   1.1147E-04  0.0721
   1.9603E-02   2.0080E-02   1.2521E-04  0.0671
   2.0080E-02   2.0569E-02   1.2923E-04  0.0653
   2.0569E-02   2.1069E-02   1.2594E-04  0.0654
   2.1069E-02   2.1582E-02   1.2719E-04  0.0643
   2.1582E-02   2.2107E-02   1.0633E-04  0.0695
   2.2107E-02   2.2645E-02   1.1308E-04  0.0665
   2.2645E-02   2.3196E-02   1.0922E-04  0.0668
   2.3196E-02   2.3760E-02   1.0896E-04  0.0662
   2.3760E-02   2.4338E-02   1.1471E-04  0.0637
   2.4338E-02   2.4930E-02   9.9044E-05  0.0676
   2.4930E-02   2.5537E-02   1.0062E-04  0.0665
   2.5537E-02   2.6158E-02   9.0792E-05  0.0690
   2.6158E-02   2.6795E-02   9.7256E-05  0.0660
   2.6795E-02   2.7447E-02   9.1746E-05  0.0671
   2.7447E-02   2.8114E-02   9.2521E-05  0.0659
   2.8114E-02   2.8799E-02   9.4025E-05  0.0647
   2.8799E-02   2.9499E-02   9.8744E-05  0.0624
   2.9499E-02   3.0217E-02   1.0003E-04  0.0612
   3.0217E-02   3.0952E-02   8.5523E-05  0.0655
   3.0952E-02   3.1705E-02   7.6223E-05  0.0685
   3.1705E-02   3.2477E-02   8.9322E-05  0.0625
   3.2477E-02   3.3267E-02   6.8882E-05  0.0704
   3.3267E-02   3.4076E-02   8.1384E-05  0.0639
   3.4076E-02   3.4905E-02   8.1663E-05  0.0630
   3.4905E-02   3.5755E-02   7.1978E-05  0.0663
   3.5755E-02   3.6625E-02   7.7583E-05  0.0631
   3.6625E-02   3.7516E-02   7.1286E-05  0.0651
   3.7516E-02   3.8428E-02   6.9951E-05  0.0649
   3.8428E-02   3.9363E-02   7.2222E-05  0.0631
   3.9363E-02   4.0321E-02   6.2109E-05  0.0672
   4.0321E-02   4.1302E-02   6.5170E-05  0.0649
   4.1302E-02   4.2307E-02   6.7961E-05  0.0629
   4.2307E-02   4.3337E-02   5.8093E-05  0.0671
   4.3337E-02   4.4391E-02   6.1953E-05  0.0642
   4.4391E-02   4.5471E-02   6.3292E-05  0.0628
   4.5471E-02   4.6577E-02   5.7962E-05  0.0648
   4.6577E-02   4.7711E-02   6.2514E-05  0.0617
   4.7711E-02   4.8871E-02   5.3528E-05  0.0658
   4.8871E-02   5.0061E-02   5.6164E-05  0.0635
   5.0061E-02   5.1279E-02   5.7494E-05  0.0620
   5.1279E-02   5.2526E-02   5.5004E-05  0.0627
   5.2526E-02   5.3804E-02   5.8638E-05  0.0599
   5.3804E-02   5.5113E-02   5.4560E-05  0.0614
   5.5113E-02   5.6454E-02   4.9146E-05  0.0639
   5.6454E-02   5.7828E-02   4.5198E-05  0.0658
   5.7828E-02   5.9235E-02   5.1990E-05  0.0606
   5.9235E-02   6.0676E-02   5.2550E-05  0.0596
   6.0676E-02   6.2152E-02   4.4601E-05  0.0639
   6.2152E-02   6.3665E-02   4.9869E-05  0.0597
   6.3665E-02   6.5214E-02   3.9109E-05  0.0666
   6.5214E-02   6.6800E-02   4.7843E-05  0.0596
   6.6800E-02   6.8426E-02   4.4199E-05  0.0612
   6.8426E-02   7.0090E-02   4.3075E-05  0.0612
   7.0090E-02   7.1796E-02   4.1225E-05  0.0619
   7.1796E-02   7.3543E-02   4.1682E-05  0.0608
   7.3543E-02   7.5332E-02   4.3211E-05  0.0590
   7.5332E-02   7.7165E-02   3.7046E-05  0.0629
   7.7165E-02   7.9042E-02   3.8693E-05  0.0608
   7.9042E-02   8.0965E-02   4.3287E-05  0.0568
   8.0965E-02   8.2935E-02   3.9436E-05  0.0589
   8.2935E-02   8.4953E-02   3.1935E-05  0.0646
   8.4953E-02   8.7020E-02   3.5057E-05  0.0609
   8.7020E-02   8.9138E-02   3.4516E-05  0.0607
   8.9138E-02   9.1306E-02   3.4150E-05  0.0603
   9.1306E-02   9.3528E-02   3.4893E-05  0.0589
   9.3528E-02   9.5804E-02   3.2765E-05  0.0601
   9.5804E-02   9.8134E-02   3.6235E-05  0.0564
   9.8134E-02   1.0052E-01   3.3355E-05  0.0581
   1.0052E-01   1.0297E-01   3.4594E-05  0.0564
   1.0297E-01   1.0547E-01   3.7571E-05  0.0534
   1.0547E-01   1.0804E-01   3.8423E-05  0.0522
   1.0804E-01   1.1067E-01   3.8722E-05  0.0515
   1.1067E-01   1.1336E-01   3.8647E-05  0.0508
   1.1336E-01   1.1612E-01   4.4049E-05  0.0470
   1.1612E-01   1.1894E-01   4.2535E-05  0.0473
   1.1894E-01   1.2184E-01   4.3819E-05  0.0461
   1.2184E-01   1.2480E-01   4.5085E-05  0.0449
   1.2480E-01   1.2784E-01   5.1559E-05  0.0415
   1.2784E-01   1.3095E-01   4.9185E-05  0.0420
   1.3095E-01   1.3414E-01   5.3231E-05  0.0398
   1.3414E-01   1.3740E-01   5.4450E-05  0.0389
   1.3740E-01   1.4074E-01   5.6644E-05  0.0377
   1.4074E-01   1.4417E-01   6.3540E-05  0.0352
   1.4417E-01   1.4767E-01   6.2001E-05  0.0352
   1.4767E-01   1.5127E-01   6.4363E-05  0.0341
   1.5127E-01   1.5495E-01   6.9890E-05  0.0324
   1.5495E-01   1.5872E-01   7.1012E-05  0.0317
   1.5872E-01   1.6258E-01   7.4211E-05  0.0306
   1.6258E-01   1.6654E-01   7.5204E-05  0.0301
   1.6654E-01   1.7059E-01   8.0246E-05  0.0288
   1.7059E-01   1.7474E-01   8.3154E-05  0.0279
   1.7474E-01   1.7899E-01   8.6568E-05  0.0270
   1.7899E-01   1.8334E-01   8.7127E-05  0.0266
   1.8334E-01   1.8781E-01   9.4263E-05  0.0253
   1.8781E-01   1.9237E-01   9.5197E-05  0.0249
   1.9237E-01   1.9706E-01   9.7639E-05  0.0243
   1.9706E-01   2.0185E-01   1.0036E-04  0.0236
   2.0185E-01   2.0676E-01   1.0296E-04  0.0231
   2.0676E-01   2.1179E-01   1.0936E-04  0.0221
   2.1179E-01   2.1694E-01   1.0870E-04  0.0219
   2.1694E-01   2.2222E-01   1.1688E-04  0.0209
   2.2222E-01   2.2763E-01   1.2141E-04  0.0203
   2.2763E-01   2.3317E-01   1.2194E-04  0.0200
   2.3317E-01   2.3884E-01   1.3194E-04  0.0190
   2.3884E-01   2.4465E-01   1.3561E-04  0.0185
   2.4465E-01   2.5061E-01   1.3662E-04  0.0182
   2.5061E-01   2.5670E-01   1.4115E-04  0.0177
   2.5670E-01   2.6295E-01   1.5015E-04  0.0169
   2.6295E-01   2.6935E-01   1.4600E-04  0.0170
   2.6935E-01   2.7590E-01   1.5769E-04  0.0161
   2.7590E-01   2.8261E-01   1.5682E-04  0.0160
   2.8261E-01   2.8949E-01   1.6162E-04  0.0156
   2.8949E-01   2.9653E-01   1.6516E-04  0.0152
   2.9653E-01   3.0375E-01   1.6848E-04  0.0149
   3.0375E-01   3.1114E-01   1.7234E-04  0.0145
   3.1114E-01   3.1871E-01   1.7590E-04  0.0142
   3.1871E-01   3.2646E-01   1.8363E-04  0.0137
   3.2646E-01   3.3441E-01   1.8542E-04  0.0135
   3.3441E-01   3.4254E-01   1.9095E-04  0.0132
   3.4254E-01   3.5088E-01   1.9498E-04  0.0129
   3.5088E-01   3.5941E-01   1.9712E-04  0.0126
   3.5941E-01   3.6816E-01   2.0141E-04  0.0124
   3.6816E-01   3.7712E-01   2.0624E-04  0.0121
   3.7712E-01   3.8629E-01   2.1031E-04  0.0118
   3.8629E-01   3.9569E-01   2.1690E-04  0.0115
   3.9569E-01   4.0532E-01   2.1859E-04  0.0113
   4.0532E-01   4.1518E-01   2.2055E-04  0.0111
   4.1518E-01   4.2528E-01   2.2392E-04  0.0109
   4.2528E-01   4.3563E-01   2.2705E-04  0.0107
   4.3563E-01   4.4623E-01   2.2926E-04  0.0105
   4.4623E-01   4.5708E-01   2.3210E-04  0.0103
   4.5708E-01   4.6821E-01   2.2760E-04  0.0103
   4.6821E-01   4.7960E-01   2.2996E-04  0.0101
   4.7960E-01   4.9127E-01   2.3474E-04  0.0099
   4.9127E-01   5.0322E-01   2.3619E-04  0.0098
   5.0322E-01   5.1546E-01   2.3687E-04  0.0096
   5.1546E-01   5.2800E-01   2.3704E-04  0.0095
   5.2800E-01   5.4085E-01   2.3881E-04  0.0094
   5.4085E-01   5.5401E-01   2.4781E-04  0.0091
   5.5401E-01   5.6749E-01   2.4506E-04  0.0090
   5.6749E-01   5.8130E-01   2.4524E-04  0.0089
   5.8130E-01   5.9544E-01   2.4354E-04  0.0088
   5.9544E-01   6.0993E-01   2.4679E-04  0.0087
   6.0993E-01   6.2477E-01   2.4282E-04  0.0086
   6.2477E-01   6.3997E-01   2.4987E-04  0.0084
   6.3997E-01   6.5554E-01   2.4855E-04  0.0083
   6.5554E-01   6.7149E-01   2.4917E-04  0.0082
   6.7149E-01   6.8783E-01   2.5117E-04  0.0081
   6.8783E-01   7.0456E-01   2.4481E-04  0.0081
   7.0456E-01   7.2171E-01   2.4347E-04  0.0080
   7.2171E-01   7.3927E-01   2.4641E-04  0.0079
   7.3927E-01   7.5725E-01   2.4011E-04  0.0079
   7.5725E-01   7.7568E-01   2.4248E-04  0.0077
   7.7568E-01   7.9455E-01   2.3770E-04  0.0077
   7.9455E-01   8.1388E-01   2.3766E-04  0.0076
   8.1388E-01   8.3368E-01   2.3828E-04  0.0075
   8.3368E-01   8.5397E-01   2.3448E-04  0.0075
   8.5397E-01   8.7475E-01   2.3017E-04  0.0075
   8.7475E-01   8.9603E-01   2.2681E-04  0.0074
   8.9603E-01   9.1783E-01   2.2812E-04  0.0073
   9.1783E-01   9.4016E-01   2.2211E-04  0.0073
   9.4016E-01   9.6304E-01   2.1680E-04  0.0073
   9.6304E-01   9.8647E-01   2.1433E-04  0.0073
   9.8647E-01   1.0105E+00   2.1117E-04  0.0073
   1.0105E+00   1.0351E+00   2.0550E-04  0.0073
   1.0351E+00   1.0602E+00   2.0654E-04  0.0072
   1.0602E+00   1.0860E+00   2.0415E-04  0.0071
   1.0860E+00   1.1125E+00   2.0254E-04  0.0070
   1.1125E+00   1.1395E+00   2.0278E-04  0.0070
   1.1395E+00   1.1673E+00   2.0486E-04  0.0068
   1.1673E+00   1.1957E+00   2.0345E-04  0.0068
   1.1957E+00   1.2247E+00   2.0375E-04  0.0067
   1.2247E+00   1.2545E+00   2.0159E-04  0.0066
   1.2545E+00   1.2851E+00   1.9977E-04  0.0066
   1.2851E+00   1.3163E+00   1.9649E-04  0.0065
   1.3163E+00   1.3484E+00   1.9557E-04  0.0065
   1.3484E+00   1.3812E+00   1.9468E-04  0.0064
   1.3812E+00   1.4148E+00   1.9336E-04  0.0063
   1.4148E+00   1.4492E+00   1.8978E-04  0.0063
   1.4492E+00   1.4845E+00   1.8863E-04  0.0063
   1.4845E+00   1.5206E+00   1.8831E-04  0.0062
   1.5206E+00   1.5576E+00   1.8296E-04  0.0062
   1.5576E+00   1.5955E+00   1.7995E-04  0.0062
   1.5955E+00   1.6343E+00   1.7596E-04  0.0062
   1.6343E+00   1.6741E+00   1.7319E-04  0.0061
   1.6741E+00   1.7148E+00   1.6825E-04  0.0061
   1.7148E+00   1.7565E+00   1.6339E-04  0.0061
   1.7565E+00   1.7992E+00   1.5565E-04  0.0062
   1.7992E+00   1.8430E+00   1.4610E-04  0.0063
   1.8430E+00   1.8879E+00   1.3579E-04  0.0064
   1.8879E+00   1.9338E+00   1.3418E-04  0.0064
   1.9338E+00   1.9808E+00   1.2850E-04  0.0065
   1.9808E+00   2.0290E+00   1.2516E-04  0.0065
   2.0290E+00   2.0784E+00   1.2382E-04  0.0064
   2.0784E+00   2.1290E+00   1.2362E-04  0.0063
   2.1290E+00   2.1808E+00   1.2161E-04  0.0063
   2.1808E+00   2.2338E+00   1.2176E-04  0.0062
   2.2338E+00   2.2882E+00   1.1957E-04  0.0062
   2.2882E+00   2.3439E+00   1.1271E-04  0.0063
   2.3439E+00   2.4009E+00   1.0935E-04  0.0063
   2.4009E+00   2.4593E+00   1.0718E-04  0.0063
   2.4593E+00   2.5191E+00   1.0466E-04  0.0063
   2.5191E+00   2.5804E+00   1.0157E-04  0.0063
   2.5804E+00   2.6432E+00   1.0019E-04  0.0063
   2.6432E+00   2.7075E+00   9.6548E-05  0.0064
   2.7075E+00   2.7734E+00   9.3012E-05  0.0064
   2.7734E+00   2.8409E+00   9.1833E-05  0.0064
   2.8409E+00   2.9100E+00   8.9012E-05  0.0064
   2.9100E+00   2.9808E+00   8.7327E-05  0.0064
   2.9808E+00   3.0533E+00   8.5205E-05  0.0064
   3.0533E+00   3.1276E+00   8.3236E-05  0.0064
   3.1276E+00   3.2037E+00   8.1717E-05  0.0064
   3.2037E+00   3.2817E+00   8.0841E-05  0.0063
   3.2817E+00   3.3615E+00   7.8803E-05  0.0064
   3.3615E+00   3.4433E+00   7.8464E-05  0.0063
   3.4433E+00   3.5271E+00   7.7430E-05  0.0063
   3.5271E+00   3.6129E+00   7.7026E-05  0.0062
   3.6129E+00   3.7008E+00   7.5965E-05  0.0062
   3.7008E+00   3.7908E+00   7.4461E-05  0.0062
   3.7908E+00   3.8831E+00   7.3473E-05  0.0061
   3.8831E+00   3.9776E+00   7.2231E-05  0.0061
   3.9776E+00   4.0743E+00   7.0579E-05  0.0061
   4.0743E+00   4.1735E+00   6.9809E-05  0.0061
   4.1735E+00   4.2750E+00   6.8193E-05  0.0061
   4.2750E+00   4.3790E+00   6.7015E-05  0.0061
   4.3790E+00   4.4856E+00   6.5950E-05  0.0060
   4.4856E+00   4.5947E+00   6.3971E-05  0.0061
   4.5947E+00   4.7065E+00   6.2589E-05  0.0061
   4.7065E+00   4.8210E+00   6.1376E-05  0.0060
   4.8210E+00   4.9383E+00   6.0834E-05  0.0060
   4.9383E+00   5.0585E+00   5.9963E-05  0.0060
   5.0585E+00   5.1815E+00   5.8892E-05  0.0060
   5.1815E+00   5.3076E+00   5.7797E-05  0.0059
   5.3076E+00   5.4368E+00   5.6964E-05  0.0059
   5.4368E+00   5.5690E+00   5.5689E-05  0.0059
   5.5690E+00   5.7045E+00   5.4575E-05  0.0059
   5.7045E+00   5.8433E+00   5.3292E-05  0.0059
   5.8433E+00   5.9855E+00   5.1983E-05  0.0059
   5.9855E+00   6.1311E+00   5.1098E-05  0.0059
   6.1311E+00   6.2803E+00   5.0054E-05  0.0059
   6.2803E+00   6.4331E+00   4.9244E-05  0.0059
   6.4331E+00   6.5896E+00   4.8520E-05  0.0059
   6.5896E+00   6.7500E+00   4.6911E-05  0.0059
   6.7500E+00   6.9142E+00   4.5152E-05  0.0059
   6.9142E+00   7.0824E+00   4.4442E-05  0.0059
   7.0824E+00   7.2548E+00   4.3014E-05  0.0059
   7.2548E+00   7.4313E+00   4.1941E-05  0.0060
   7.4313E+00   7.6121E+00   4.0431E-05  0.0060
   7.6121E+00   7.7973E+00   3.9081E-05  0.0060
   7.7973E+00   7.9870E+00   3.7884E-05  0.0061
   7.9870E+00   8.1813E+00   3.7009E-05  0.0061
   8.1813E+00   8.3804E+00   3.5903E-05  0.0061
   8.3804E+00   8.5843E+00   3.3983E-05  0.0062
   8.5843E+00   8.7931E+00   3.2951E-05  0.0062
   8.7931E+00   9.0071E+00   3.1940E-05  0.0062
   9.0071E+00   9.2262E+00   3.1124E-05  0.0062
   9.2262E+00   9.4507E+00   2.9354E-05  0.0064
   9.4507E+00   9.6807E+00   2.8390E-05  0.0064
   9.6807E+00   9.9162E+00   2.7170E-05  0.0065
   9.9162E+00   1.0157E+01   2.7338E-05  0.0064
   1.0157E+01   1.0405E+01   2.6151E-05  0.0064
   1.0405E+01   1.0658E+01   2.4913E-05  0.0065
   1.0658E+01   1.0917E+01   2.3700E-05  0.0066
   1.0917E+01   1.1183E+01   2.2301E-05  0.0067
   1.1183E+01   1.1455E+01   2.1197E-05  0.0068
   1.1455E+01   1.1733E+01   2.0120E-05  0.0069
   1.1733E+01   1.2019E+01   1.9098E-05  0.0070
   1.2019E+01   1.2311E+01   1.8180E-05  0.0071
   1.2311E+01   1.2611E+01   1.7176E-05  0.0072
   1.2611E+01   1.2918E+01   1.6134E-05  0.0074
   1.2918E+01   1.3232E+01   1.5258E-05  0.0075
   1.3232E+01   1.3554E+01   1.4624E-05  0.0076
   1.3554E+01   1.3884E+01   1.3671E-05  0.0077
   1.3884E+01   1.4222E+01   1.2809E-05  0.0079
   1.4222E+01   1.4568E+01   1.1890E-05  0.0081
   1.4568E+01   1.4922E+01   1.1074E-05  0.0083
   1.4922E+01   1.5285E+01   1.0462E-05  0.0084
   1.5285E+01   1.5657E+01   9.6655E-06  0.0087
   1.5657E+01   1.6038E+01   8.9344E-06  0.0089
   1.6038E+01   1.6428E+01   8.1918E-06  0.0092
   1.6428E+01   1.6828E+01   7.5683E-06  0.0095
   1.6828E+01   1.7237E+01   6.9349E-06  0.0098
   1.7237E+01   1.7657E+01   6.5123E-06  0.0099
   1.7657E+01   1.8086E+01   6.1999E-06  0.0101
   1.8086E+01   1.8526E+01   5.9808E-06  0.0101
   1.8526E+01   1.8977E+01   5.4634E-06  0.0105
   1.8977E+01   1.9439E+01   4.8964E-06  0.0109
   1.9439E+01   1.9912E+01   4.5601E-06  0.0112
   1.9912E+01   2.0396E+01   3.9904E-06  0.0118
   2.0396E+01   2.0893E+01   3.5220E-06  0.0124
   2.0893E+01   2.1401E+01   3.0625E-06  0.0132
   2.1401E+01   2.1922E+01   2.6238E-06  0.0141
   2.1922E+01   2.2455E+01   2.2427E-06  0.0150
   2.2455E+01   2.3001E+01   1.9184E-06  0.0161
   2.3001E+01   2.3561E+01   1.6560E-06  0.0171
   2.3561E+01   2.4134E+01   1.3889E-06  0.0184
   2.4134E+01   2.4721E+01   1.1088E-06  0.0204
   2.4721E+01   2.5323E+01   9.3911E-07  0.0219
   2.5323E+01   2.5939E+01   7.7292E-07  0.0238
   2.5939E+01   2.6570E+01   6.7234E-07  0.0252
   2.6570E+01   2.7217E+01   5.3931E-07  0.0278
   2.7217E+01   2.7879E+01   5.0446E-07  0.0284
   2.7879E+01   2.8557E+01   4.1239E-07  0.0311
   2.8557E+01   2.9252E+01   3.1079E-07  0.0354
   2.9252E+01   2.9964E+01   2.4038E-07  0.0397
   2.9964E+01   3.0693E+01   1.5644E-07  0.0487
   3.0693E+01   3.1440E+01   1.1762E-07  0.0555
   3.1440E+01   3.2205E+01   6.6777E-08  0.0727
   3.2205E+01   3.2988E+01   2.3110E-08  0.1222
   3.2988E+01   3.3791E+01   9.0918E-09  0.1925
   3.3791E+01   3.4613E+01   4.9310E-09  0.2582
   3.4613E+01   3.5455E+01   4.4930E-09  0.2673
   3.5455E+01   3.6318E+01   1.2532E-09  0.5000
   3.6318E+01   3.7201E+01   6.1172E-10  0.7071
   3.7201E+01   3.8106E+01   0.0000E+00  0.0000
   3.8106E+01   3.9034E+01   0.0000E+00  0.0000
   3.9034E+01   3.9983E+01   0.0000E+00  0.0000
   3.9983E+01   4.0956E+01   0.0000E+00  0.0000
   4.0956E+01   4.1953E+01   0.0000E+00  0.0000
   4.1953E+01   4.2973E+01   0.0000E+00  0.0000
   4.2973E+01   4.4019E+01   0.0000E+00  0.0000
   4.4019E+01   4.5090E+01   0.0000E+00  0.0000
   4.5090E+01   4.6187E+01   0.0000E+00  0.0000
   4.6187E+01   4.7311E+01   0.0000E+00  0.0000
   4.7311E+01   4.8462E+01   0.0000E+00  0.0000
   4.8462E+01   4.9641E+01   0.0000E+00  0.0000
   4.9641E+01   5.0849E+01   0.0000E+00  0.0000
   5.0849E+01   5.2086E+01   0.0000E+00  0.0000
   5.2086E+01   5.3353E+01   0.0000E+00  0.0000
   5.3353E+01   5.4651E+01   0.0000E+00  0.0000
   5.4651E+01   5.5981E+01   0.0000E+00  0.0000
   5.5981E+01   5.7343E+01   0.0000E+00  0.0000
   5.7343E+01   5.8738E+01   0.0000E+00  0.0000
   5.8738E+01   6.0168E+01   0.0000E+00  0.0000
   6.0168E+01   6.1632E+01   0.0000E+00  0.0000
   6.1632E+01   6.3131E+01   0.0000E+00  0.0000
   6.3131E+01   6.4667E+01   0.0000E+00  0.0000
   6.4667E+01   6.6240E+01   0.0000E+00  0.0000
   6.6240E+01   6.7852E+01   0.0000E+00  0.0000
   6.7852E+01   6.9503E+01   0.0000E+00  0.0000
   6.9503E+01   7.1194E+01   0.0000E+00  0.0000
   7.1194E+01   7.2926E+01   0.0000E+00  0.0000
   7.2926E+01   7.4701E+01   0.0000E+00  0.0000
   7.4701E+01   7.6518E+01   0.0000E+00  0.0000
   7.6518E+01   7.8380E+01   0.0000E+00  0.0000
   7.8380E+01   8.0287E+01   0.0000E+00  0.0000
   8.0287E+01   8.2240E+01   0.0000E+00  0.0000
   8.2240E+01   8.4241E+01   0.0000E+00  0.0000
   8.4241E+01   8.6291E+01   0.0000E+00  0.0000
   8.6291E+01   8.8391E+01   0.0000E+00  0.0000
   8.8391E+01   9.0541E+01   0.0000E+00  0.0000
   9.0541E+01   9.2744E+01   0.0000E+00  0.0000
   9.2744E+01   9.5001E+01   0.0000E+00  0.0000
   9.5001E+01   9.7312E+01   0.0000E+00  0.0000
   9.7312E+01   9.9680E+01   0.0000E+00  0.0000
   9.9680E+01   1.0211E+02   0.0000E+00  0.0000
   1.0211E+02   1.0459E+02   0.0000E+00  0.0000
   1.0459E+02   1.0713E+02   0.0000E+00  0.0000
   1.0713E+02   1.0974E+02   0.0000E+00  0.0000
   1.0974E+02   1.1241E+02   0.0000E+00  0.0000
   1.1241E+02   1.1515E+02   0.0000E+00  0.0000
   1.1515E+02   1.1795E+02   0.0000E+00  0.0000
   1.1795E+02   1.2082E+02   0.0000E+00  0.0000
   1.2082E+02   1.2376E+02   0.0000E+00  0.0000
   1.2376E+02   1.2677E+02   0.0000E+00  0.0000
   1.2677E+02   1.2985E+02   0.0000E+00  0.0000
   1.2985E+02   1.3301E+02   0.0000E+00  0.0000
   1.3301E+02   1.3625E+02   0.0000E+00  0.0000
   1.3625E+02   1.3956E+02   0.0000E+00  0.0000
   1.3956E+02   1.4296E+02   0.0000E+00  0.0000
   1.4296E+02   1.4644E+02   0.0000E+00  0.0000
   1.4644E+02   1.5000E+02   0.0000E+00  0.0000

#   sum over                 6.3846E-06
'no. =    1   reg = 116 - 216'
msuc: {\huge [t-cross] in region mesh}
msdr: {\it plotted by \ANGEL \version}
msdl: {\it calculated by \PHITS  3.26}
wt: s(0.7)
\vspace{-3}
  region surface crossing
  area  &=&   1.0000E+00 [cm^2]
e:
 
# Information for Restart Calculation
# This calculation was newly started
# istdev =  2 # 1:Batch variance, 2:History variance
# resc2  = 3.70000000000000000E+09 # Total source weight or Total source weight / maxcas
# resc3  = 3.70000000000000000E+09 # Total history number or Total batch number
# maxcas =   100000000 # History / Batch, only used for istdev=1
# bitrseed = 0101101111110001101000100110001101111000011101110010000100011010 # bit data of rseed
