[ T-Cross ]
    title = [t-cross] in region mesh
     mesh =  reg            # mesh type is region-wise
      reg =    1            # number of crossing regions
      non     r-from    r-to       area
      1       100       200        1.000000    
   e-type =    3            # e-mesh is log given by emin, emax and ne
     emin =  1.0000000E-02  # minimum value of e-mesh points
     emax =   150.0000      # maximum value of e-mesh points
#    edel =  2.4039514E-02  # mesh width of e-mesh points
       ne =    400          # number of e-mesh points
#    data = ( e(i), i = 1, ne + 1 )
#           1.00000E-02  1.02433E-02  1.04925E-02  1.07478E-02  1.10093E-02
#           1.12772E-02  1.15516E-02  1.18326E-02  1.21205E-02  1.24154E-02
#           1.27175E-02  1.30269E-02  1.33439E-02  1.36686E-02  1.40011E-02
#           1.43418E-02  1.46907E-02  1.50482E-02  1.54143E-02  1.57894E-02
#           1.61735E-02  1.65670E-02  1.69701E-02  1.73830E-02  1.78060E-02
#           1.82392E-02  1.86830E-02  1.91375E-02  1.96032E-02  2.00801E-02
#           2.05687E-02  2.10692E-02  2.15818E-02  2.21069E-02  2.26448E-02
#           2.31957E-02  2.37601E-02  2.43382E-02  2.49304E-02  2.55369E-02
#           2.61583E-02  2.67947E-02  2.74467E-02  2.81145E-02  2.87985E-02
#           2.94992E-02  3.02169E-02  3.09521E-02  3.17052E-02  3.24766E-02
#           3.32668E-02  3.40762E-02  3.49053E-02  3.57546E-02  3.66246E-02
#           3.75157E-02  3.84284E-02  3.93634E-02  4.03212E-02  4.13022E-02
#           4.23071E-02  4.33365E-02  4.43909E-02  4.54710E-02  4.65773E-02
#           4.77106E-02  4.88714E-02  5.00605E-02  5.12785E-02  5.25262E-02
#           5.38042E-02  5.51133E-02  5.64542E-02  5.78278E-02  5.92348E-02
#           6.06760E-02  6.21523E-02  6.36645E-02  6.52135E-02  6.68002E-02
#           6.84255E-02  7.00904E-02  7.17957E-02  7.35426E-02  7.53319E-02
#           7.71648E-02  7.90423E-02  8.09655E-02  8.29354E-02  8.49533E-02
#           8.70203E-02  8.91376E-02  9.13064E-02  9.35279E-02  9.58035E-02
#           9.81345E-02  1.00522E-01  1.02968E-01  1.05473E-01  1.08040E-01
#           1.10668E-01  1.13361E-01  1.16119E-01  1.18944E-01  1.21838E-01
#           1.24803E-01  1.27839E-01  1.30950E-01  1.34136E-01  1.37399E-01
#           1.40742E-01  1.44167E-01  1.47675E-01  1.51268E-01  1.54948E-01
#           1.58718E-01  1.62580E-01  1.66535E-01  1.70587E-01  1.74738E-01
#           1.78989E-01  1.83344E-01  1.87805E-01  1.92375E-01  1.97055E-01
#           2.01850E-01  2.06761E-01  2.11792E-01  2.16945E-01  2.22223E-01
#           2.27630E-01  2.33169E-01  2.38842E-01  2.44653E-01  2.50605E-01
#           2.56703E-01  2.62949E-01  2.69346E-01  2.75900E-01  2.82613E-01
#           2.89489E-01  2.96532E-01  3.03747E-01  3.11138E-01  3.18708E-01
#           3.26462E-01  3.34405E-01  3.42542E-01  3.50876E-01  3.59413E-01
#           3.68158E-01  3.77116E-01  3.86291E-01  3.95690E-01  4.05317E-01
#           4.15179E-01  4.25281E-01  4.35628E-01  4.46227E-01  4.57084E-01
#           4.68205E-01  4.79597E-01  4.91266E-01  5.03219E-01  5.15463E-01
#           5.28005E-01  5.40851E-01  5.54011E-01  5.67490E-01  5.81298E-01
#           5.95441E-01  6.09929E-01  6.24769E-01  6.39970E-01  6.55541E-01
#           6.71491E-01  6.87828E-01  7.04564E-01  7.21706E-01  7.39266E-01
#           7.57253E-01  7.75678E-01  7.94551E-01  8.13883E-01  8.33685E-01
#           8.53969E-01  8.74747E-01  8.96030E-01  9.17831E-01  9.40163E-01
#           9.63038E-01  9.86469E-01  1.01047E+00  1.03506E+00  1.06024E+00
#           1.08604E+00  1.11246E+00  1.13953E+00  1.16725E+00  1.19565E+00
#           1.22474E+00  1.25454E+00  1.28507E+00  1.31633E+00  1.34836E+00
#           1.38117E+00  1.41477E+00  1.44920E+00  1.48446E+00  1.52057E+00
#           1.55757E+00  1.59547E+00  1.63429E+00  1.67405E+00  1.71478E+00
#           1.75650E+00  1.79924E+00  1.84302E+00  1.88786E+00  1.93379E+00
#           1.98084E+00  2.02904E+00  2.07841E+00  2.12898E+00  2.18078E+00
#           2.23384E+00  2.28819E+00  2.34386E+00  2.40089E+00  2.45930E+00
#           2.51914E+00  2.58043E+00  2.64322E+00  2.70753E+00  2.77341E+00
#           2.84088E+00  2.91001E+00  2.98081E+00  3.05333E+00  3.12762E+00
#           3.20372E+00  3.28167E+00  3.36152E+00  3.44330E+00  3.52708E+00
#           3.61290E+00  3.70080E+00  3.79085E+00  3.88308E+00  3.97756E+00
#           4.07434E+00  4.17347E+00  4.27501E+00  4.37903E+00  4.48557E+00
#           4.59471E+00  4.70650E+00  4.82102E+00  4.93832E+00  5.05847E+00
#           5.18155E+00  5.30762E+00  5.43676E+00  5.56904E+00  5.70453E+00
#           5.84333E+00  5.98550E+00  6.13114E+00  6.28031E+00  6.43312E+00
#           6.58964E+00  6.74997E+00  6.91420E+00  7.08243E+00  7.25475E+00
#           7.43126E+00  7.61207E+00  7.79728E+00  7.98700E+00  8.18133E+00
#           8.38038E+00  8.58428E+00  8.79315E+00  9.00709E+00  9.22624E+00
#           9.45072E+00  9.68067E+00  9.91620E+00  1.01575E+01  1.04046E+01
#           1.06578E+01  1.09171E+01  1.11827E+01  1.14548E+01  1.17335E+01
#           1.20190E+01  1.23114E+01  1.26109E+01  1.29178E+01  1.32321E+01
#           1.35540E+01  1.38838E+01  1.42216E+01  1.45676E+01  1.49221E+01
#           1.52851E+01  1.56570E+01  1.60380E+01  1.64282E+01  1.68279E+01
#           1.72374E+01  1.76568E+01  1.80864E+01  1.85264E+01  1.89772E+01
#           1.94389E+01  1.99119E+01  2.03963E+01  2.08926E+01  2.14009E+01
#           2.19216E+01  2.24550E+01  2.30014E+01  2.35610E+01  2.41343E+01
#           2.47215E+01  2.53230E+01  2.59391E+01  2.65702E+01  2.72167E+01
#           2.78789E+01  2.85572E+01  2.92520E+01  2.99637E+01  3.06928E+01
#           3.14396E+01  3.22045E+01  3.29881E+01  3.37907E+01  3.46128E+01
#           3.54550E+01  3.63177E+01  3.72013E+01  3.81064E+01  3.90336E+01
#           3.99833E+01  4.09561E+01  4.19526E+01  4.29734E+01  4.40189E+01
#           4.50900E+01  4.61870E+01  4.73108E+01  4.84619E+01  4.96410E+01
#           5.08488E+01  5.20860E+01  5.33533E+01  5.46514E+01  5.59812E+01
#           5.73432E+01  5.87384E+01  6.01676E+01  6.16315E+01  6.31311E+01
#           6.46671E+01  6.62405E+01  6.78522E+01  6.95031E+01  7.11941E+01
#           7.29263E+01  7.47007E+01  7.65182E+01  7.83800E+01  8.02870E+01
#           8.22405E+01  8.42414E+01  8.62911E+01  8.83906E+01  9.05412E+01
#           9.27442E+01  9.50007E+01  9.73122E+01  9.96799E+01  1.02105E+02
#           1.04589E+02  1.07134E+02  1.09741E+02  1.12411E+02  1.15146E+02
#           1.17948E+02  1.20817E+02  1.23757E+02  1.26768E+02  1.29852E+02
#           1.33012E+02  1.36248E+02  1.39563E+02  1.42959E+02  1.46437E+02
#           1.50000E+02
     unit =    2            # unit is [1/cm^2/(MeV/n)/source]
     axis =  eng            # axis of output
     file = detector-01.out  # file name of output for the above axis
   output = f-curr          # surface crossing forward current spectrum
     part =  neutron  
# kf/name :  2112     
#    used :        main (  %)        temp (  %)       total (  %)
#  memory :         414 (  0)           0 (  0)         414 (  0)

#------------------------------------------------------------------------------
#newpage:
#   no. =    1   reg = 100 - 200

x: Energy [MeV/n]
y:  F-Curr [1/cm^2/(MeV/n)/source]         
p: xlog ylog afac(0.8) form(0.9)
h: n            x            y(neutron ),hh0l   n 
#  e-lower      e-upper      neutron     r.err 
   1.0000E-02   1.0243E-02   5.2060E-05  0.1622
   1.0243E-02   1.0493E-02   5.8848E-05  0.1508
   1.0493E-02   1.0748E-02   5.4839E-05  0.1543
   1.0748E-02   1.1009E-02   5.6723E-05  0.1495
   1.1009E-02   1.1277E-02   4.8733E-05  0.1595
   1.1277E-02   1.1552E-02   5.2481E-05  0.1519
   1.1552E-02   1.1833E-02   5.4556E-05  0.1474
   1.1833E-02   1.2121E-02   5.8060E-05  0.1410
   1.2121E-02   1.2415E-02   6.5175E-05  0.1313
   1.2415E-02   1.2718E-02   6.6208E-05  0.1291
   1.2718E-02   1.3027E-02   5.7095E-05  0.1374
   1.3027E-02   1.3344E-02   4.7325E-05  0.1491
   1.3344E-02   1.3669E-02   4.2094E-05  0.1562
   1.3669E-02   1.4001E-02   4.6106E-05  0.1474
   1.4001E-02   1.4342E-02   5.0882E-05  0.1387
   1.4342E-02   1.4691E-02   4.2031E-05  0.1508
   1.4691E-02   1.5048E-02   4.5841E-05  0.1424
   1.5048E-02   1.5414E-02   3.2775E-05  0.1667
   1.5414E-02   1.5789E-02   4.2788E-05  0.1439
   1.5789E-02   1.6174E-02   5.5531E-05  0.1250
   1.6174E-02   1.6567E-02   4.4895E-05  0.1374
   1.6567E-02   1.6970E-02   5.1271E-05  0.1270
   1.6970E-02   1.7383E-02   5.0968E-05  0.1257
   1.7383E-02   1.7806E-02   4.0195E-05  0.1400
   1.7806E-02   1.8239E-02   4.9242E-05  0.1250
   1.8239E-02   1.8683E-02   4.3566E-05  0.1313
   1.8683E-02   1.9138E-02   5.0989E-05  0.1195
   1.9138E-02   1.9603E-02   3.7225E-05  0.1387
   1.9603E-02   2.0080E-02   4.4728E-05  0.1250
   2.0080E-02   2.0569E-02   4.0368E-05  0.1293
   2.0569E-02   2.1069E-02   4.2961E-05  0.1243
   2.1069E-02   2.1582E-02   4.8118E-05  0.1162
   2.1582E-02   2.2107E-02   3.9992E-05  0.1260
   2.2107E-02   2.2645E-02   3.9042E-05  0.1260
   2.2645E-02   2.3196E-02   4.4165E-05  0.1170
   2.3196E-02   2.3760E-02   3.2485E-05  0.1348
   2.3760E-02   2.4338E-02   2.8253E-05  0.1429
   2.4338E-02   2.4930E-02   3.4127E-05  0.1280
   2.4930E-02   2.5537E-02   3.7918E-05  0.1204
   2.5537E-02   2.6158E-02   3.3967E-05  0.1254
   2.6158E-02   2.6795E-02   4.3208E-05  0.1099
   2.6795E-02   2.7447E-02   3.0167E-05  0.1302
   2.7447E-02   2.8114E-02   3.8601E-05  0.1135
   2.8114E-02   2.8799E-02   4.0933E-05  0.1091
   2.8799E-02   2.9499E-02   3.1873E-05  0.1217
   2.9499E-02   3.0217E-02   3.3671E-05  0.1172
   3.0217E-02   3.0952E-02   4.3072E-05  0.1026
   3.0952E-02   3.1705E-02   2.6557E-05  0.1291
   3.1705E-02   3.2477E-02   3.8151E-05  0.1060
   3.2477E-02   3.3267E-02   3.0373E-05  0.1179
   3.3267E-02   3.4076E-02   3.9245E-05  0.1023
   3.4076E-02   3.4905E-02   2.9825E-05  0.1160
   3.4905E-02   3.5755E-02   3.0873E-05  0.1125
   3.5755E-02   3.6625E-02   3.0526E-05  0.1118
   3.6625E-02   3.7516E-02   2.1102E-05  0.1327
   3.7516E-02   3.8428E-02   3.3779E-05  0.1038
   3.8428E-02   3.9363E-02   2.7690E-05  0.1132
   3.9363E-02   4.0321E-02   2.9235E-05  0.1091
   4.0321E-02   4.1302E-02   3.2100E-05  0.1027
   4.1302E-02   4.2307E-02   2.5596E-05  0.1137
   4.2307E-02   4.3337E-02   2.6922E-05  0.1096
   4.3337E-02   4.4391E-02   2.4026E-05  0.1147
   4.4391E-02   4.5471E-02   2.1653E-05  0.1193
   4.5471E-02   4.6577E-02   2.4405E-05  0.1111
   4.6577E-02   4.7711E-02   2.2060E-05  0.1155
   4.7711E-02   4.8871E-02   2.9289E-05  0.0990
   4.8871E-02   5.0061E-02   2.8453E-05  0.0991
   5.0061E-02   5.1279E-02   2.1170E-05  0.1135
   5.1279E-02   5.2526E-02   2.2175E-05  0.1098
   5.2526E-02   5.3804E-02   2.5342E-05  0.1014
   5.3804E-02   5.5113E-02   2.3680E-05  0.1037
   5.5113E-02   5.6454E-02   2.7841E-05  0.0945
   5.6454E-02   5.7828E-02   2.2042E-05  0.1046
   5.7828E-02   5.9235E-02   2.1712E-05  0.1042
   5.9235E-02   6.0676E-02   2.1047E-05  0.1048
   6.0676E-02   6.2152E-02   1.8092E-05  0.1116
   6.2152E-02   6.3665E-02   1.9208E-05  0.1071
   6.3665E-02   6.5214E-02   2.2193E-05  0.0984
   6.5214E-02   6.6800E-02   2.0378E-05  0.1015
   6.6800E-02   6.8426E-02   2.2662E-05  0.0950
   6.8426E-02   7.0090E-02   1.8548E-05  0.1037
   7.0090E-02   7.1796E-02   1.8233E-05  0.1034
   7.1796E-02   7.3543E-02   1.6474E-05  0.1075
   7.3543E-02   7.5332E-02   1.8815E-05  0.0995
   7.5332E-02   7.7165E-02   1.7400E-05  0.1020
   7.7165E-02   7.9042E-02   2.1305E-05  0.0913
   7.9042E-02   8.0965E-02   1.6695E-05  0.1017
   8.0965E-02   8.2935E-02   2.0051E-05  0.0918
   8.2935E-02   8.4953E-02   1.3536E-05  0.1100
   8.4953E-02   8.7020E-02   1.4595E-05  0.1050
   8.7020E-02   8.9138E-02   1.7757E-05  0.0940
   8.9138E-02   9.1306E-02   1.6162E-05  0.0975
   9.1306E-02   9.3528E-02   1.2103E-05  0.1111
   9.3528E-02   9.5804E-02   1.3476E-05  0.1043
   9.5804E-02   9.8134E-02   1.4175E-05  0.1004
   9.8134E-02   1.0052E-01   1.3472E-05  0.1017
   1.0052E-01   1.0297E-01   1.1604E-05  0.1083
   1.0297E-01   1.0547E-01   1.1775E-05  0.1061
   1.0547E-01   1.0804E-01   1.0538E-05  0.1106
   1.0804E-01   1.1067E-01   1.0969E-05  0.1074
   1.1067E-01   1.1336E-01   1.1760E-05  0.1023
   1.1336E-01   1.1612E-01   1.1439E-05  0.1026
   1.1612E-01   1.1894E-01   1.0242E-05  0.1070
   1.1894E-01   1.2184E-01   1.0165E-05  0.1063
   1.2184E-01   1.2480E-01   1.0816E-05  0.1019
   1.2480E-01   1.2784E-01   1.1116E-05  0.0993
   1.2784E-01   1.3095E-01   1.0337E-05  0.1016
   1.3095E-01   1.3414E-01   9.4849E-06  0.1048
   1.3414E-01   1.3740E-01   7.3708E-06  0.1176
   1.3740E-01   1.4074E-01   8.8742E-06  0.1060
   1.4074E-01   1.4417E-01   6.5864E-06  0.1212
   1.4417E-01   1.4767E-01   8.7427E-06  0.1043
   1.4767E-01   1.5127E-01   9.4052E-06  0.0989
   1.5127E-01   1.5495E-01   7.2455E-06  0.1118
   1.5495E-01   1.5872E-01   7.1618E-06  0.1111
   1.5872E-01   1.6258E-01   8.2864E-06  0.1021
   1.6258E-01   1.6654E-01   7.4155E-06  0.1066
   1.6654E-01   1.7059E-01   6.9925E-06  0.1085
   1.7059E-01   1.7474E-01   8.2339E-06  0.0983
   1.7474E-01   1.7899E-01   7.9188E-06  0.0993
   1.7899E-01   1.8334E-01   7.4389E-06  0.1014
   1.8334E-01   1.8781E-01   7.8214E-06  0.0973
   1.8781E-01   1.9237E-01   6.5906E-06  0.1050
   1.9237E-01   1.9706E-01   5.5904E-06  0.1127
   1.9706E-01   2.0185E-01   5.8400E-06  0.1091
   2.0185E-01   2.0676E-01   6.8668E-06  0.0993
   2.0676E-01   2.1179E-01   6.3610E-06  0.1018
   2.1179E-01   2.1694E-01   5.7571E-06  0.1057
   2.1694E-01   2.2222E-01   7.7632E-06  0.0900
   2.2222E-01   2.2763E-01   6.4116E-06  0.0981
   2.2763E-01   2.3317E-01   7.4630E-06  0.0896
   2.3317E-01   2.3884E-01   7.5795E-06  0.0879
   2.3884E-01   2.4465E-01   9.0888E-06  0.0793
   2.4465E-01   2.5061E-01   9.0518E-06  0.0786
   2.5061E-01   2.5670E-01   7.7985E-06  0.0836
   2.5670E-01   2.6295E-01   9.2484E-06  0.0759
   2.6295E-01   2.6935E-01   9.6564E-06  0.0733
   2.6935E-01   2.7590E-01   8.9333E-06  0.0754
   2.7590E-01   2.8261E-01   1.1106E-05  0.0668
   2.8261E-01   2.8949E-01   1.0084E-05  0.0692
   2.8949E-01   2.9653E-01   1.1439E-05  0.0643
   2.9653E-01   3.0375E-01   1.0410E-05  0.0665
   3.0375E-01   3.1114E-01   1.0892E-05  0.0643
   3.1114E-01   3.1871E-01   1.0178E-05  0.0657
   3.1871E-01   3.2646E-01   9.8934E-06  0.0659
   3.2646E-01   3.3441E-01   1.0695E-05  0.0625
   3.3441E-01   3.4254E-01   1.1662E-05  0.0592
   3.4254E-01   3.5088E-01   1.2438E-05  0.0566
   3.5088E-01   3.5941E-01   1.3152E-05  0.0544
   3.5941E-01   3.6816E-01   1.2731E-05  0.0546
   3.6816E-01   3.7712E-01   1.3765E-05  0.0519
   3.7712E-01   3.8629E-01   1.3029E-05  0.0527
   3.8629E-01   3.9569E-01   1.3488E-05  0.0512
   3.9569E-01   4.0532E-01   1.3318E-05  0.0510
   4.0532E-01   4.1518E-01   1.3812E-05  0.0494
   4.1518E-01   4.2528E-01   1.2231E-05  0.0519
   4.2528E-01   4.3563E-01   1.3233E-05  0.0493
   4.3563E-01   4.4623E-01   1.3582E-05  0.0481
   4.4623E-01   4.5708E-01   1.3724E-05  0.0472
   4.5708E-01   4.6821E-01   1.4895E-05  0.0448
   4.6821E-01   4.7960E-01   1.4055E-05  0.0456
   4.7960E-01   4.9127E-01   1.3767E-05  0.0454
   4.9127E-01   5.0322E-01   1.4765E-05  0.0434
   5.0322E-01   5.1546E-01   1.3583E-05  0.0447
   5.1546E-01   5.2800E-01   1.3426E-05  0.0444
   5.2800E-01   5.4085E-01   1.4562E-05  0.0421
   5.4085E-01   5.5401E-01   1.4184E-05  0.0422
   5.5401E-01   5.6749E-01   1.4230E-05  0.0416
   5.6749E-01   5.8130E-01   1.5311E-05  0.0397
   5.8130E-01   5.9544E-01   1.4095E-05  0.0408
   5.9544E-01   6.0993E-01   1.5355E-05  0.0387
   6.0993E-01   6.2477E-01   1.5017E-05  0.0386
   6.2477E-01   6.3997E-01   1.4711E-05  0.0385
   6.3997E-01   6.5554E-01   1.5533E-05  0.0371
   6.5554E-01   6.7149E-01   1.6257E-05  0.0358
   6.7149E-01   6.8783E-01   1.4807E-05  0.0371
   6.8783E-01   7.0456E-01   1.5641E-05  0.0357
   7.0456E-01   7.2171E-01   1.6654E-05  0.0341
   7.2171E-01   7.3927E-01   1.5303E-05  0.0352
   7.3927E-01   7.5725E-01   1.4497E-05  0.0357
   7.5725E-01   7.7568E-01   1.6025E-05  0.0335
   7.7568E-01   7.9455E-01   1.6281E-05  0.0329
   7.9455E-01   8.1388E-01   1.6280E-05  0.0325
   8.1388E-01   8.3368E-01   1.4932E-05  0.0335
   8.3368E-01   8.5397E-01   1.6014E-05  0.0320
   8.5397E-01   8.7475E-01   1.5234E-05  0.0324
   8.7475E-01   8.9603E-01   1.5736E-05  0.0315
   8.9603E-01   9.1783E-01   1.5759E-05  0.0311
   9.1783E-01   9.4016E-01   1.5280E-05  0.0312
   9.4016E-01   9.6304E-01   1.3806E-05  0.0324
   9.6304E-01   9.8647E-01   1.4840E-05  0.0309
   9.8647E-01   1.0105E+00   1.5655E-05  0.0297
   1.0105E+00   1.0351E+00   1.3780E-05  0.0313
   1.0351E+00   1.0602E+00   1.4820E-05  0.0298
   1.0602E+00   1.0860E+00   1.4396E-05  0.0299
   1.0860E+00   1.1125E+00   1.3121E-05  0.0309
   1.1125E+00   1.1395E+00   1.4597E-05  0.0290
   1.1395E+00   1.1673E+00   1.5450E-05  0.0279
   1.1673E+00   1.1957E+00   1.4103E-05  0.0288
   1.1957E+00   1.2247E+00   1.5362E-05  0.0273
   1.2247E+00   1.2545E+00   1.5301E-05  0.0270
   1.2545E+00   1.2851E+00   1.4863E-05  0.0271
   1.2851E+00   1.3163E+00   1.4560E-05  0.0270
   1.3163E+00   1.3484E+00   1.6056E-05  0.0254
   1.3484E+00   1.3812E+00   1.5669E-05  0.0254
   1.3812E+00   1.4148E+00   1.5525E-05  0.0252
   1.4148E+00   1.4492E+00   1.6468E-05  0.0242
   1.4492E+00   1.4845E+00   1.6561E-05  0.0239
   1.4845E+00   1.5206E+00   1.5787E-05  0.0241
   1.5206E+00   1.5576E+00   1.5991E-05  0.0237
   1.5576E+00   1.5955E+00   1.6131E-05  0.0233
   1.5955E+00   1.6343E+00   1.5012E-05  0.0239
   1.6343E+00   1.6741E+00   1.6336E-05  0.0226
   1.6741E+00   1.7148E+00   1.6352E-05  0.0223
   1.7148E+00   1.7565E+00   1.6463E-05  0.0220
   1.7565E+00   1.7992E+00   1.6580E-05  0.0217
   1.7992E+00   1.8430E+00   1.7457E-05  0.0209
   1.8430E+00   1.8879E+00   1.6518E-05  0.0212
   1.8879E+00   1.9338E+00   1.6892E-05  0.0207
   1.9338E+00   1.9808E+00   1.7416E-05  0.0201
   1.9808E+00   2.0290E+00   1.7314E-05  0.0200
   2.0290E+00   2.0784E+00   1.7019E-05  0.0199
   2.0784E+00   2.1290E+00   1.7384E-05  0.0194
   2.1290E+00   2.1808E+00   1.7965E-05  0.0189
   2.1808E+00   2.2338E+00   1.7568E-05  0.0189
   2.2338E+00   2.2882E+00   1.7955E-05  0.0185
   2.2882E+00   2.3439E+00   1.8133E-05  0.0182
   2.3439E+00   2.4009E+00   1.9052E-05  0.0175
   2.4009E+00   2.4593E+00   1.8663E-05  0.0175
   2.4593E+00   2.5191E+00   1.9345E-05  0.0169
   2.5191E+00   2.5804E+00   1.9656E-05  0.0166
   2.5804E+00   2.6432E+00   1.8915E-05  0.0167
   2.6432E+00   2.7075E+00   1.9372E-05  0.0163
   2.7075E+00   2.7734E+00   1.9773E-05  0.0160
   2.7734E+00   2.8409E+00   1.9488E-05  0.0159
   2.8409E+00   2.9100E+00   2.0044E-05  0.0155
   2.9100E+00   2.9808E+00   2.0187E-05  0.0153
   2.9808E+00   3.0533E+00   2.1055E-05  0.0148
   3.0533E+00   3.1276E+00   2.0489E-05  0.0148
   3.1276E+00   3.2037E+00   2.1065E-05  0.0144
   3.2037E+00   3.2817E+00   2.1673E-05  0.0140
   3.2817E+00   3.3615E+00   2.0957E-05  0.0141
   3.3615E+00   3.4433E+00   2.2004E-05  0.0136
   3.4433E+00   3.5271E+00   2.1712E-05  0.0135
   3.5271E+00   3.6129E+00   2.2117E-05  0.0132
   3.6129E+00   3.7008E+00   2.2174E-05  0.0131
   3.7008E+00   3.7908E+00   2.3152E-05  0.0126
   3.7908E+00   3.8831E+00   2.2757E-05  0.0126
   3.8831E+00   3.9776E+00   2.3500E-05  0.0122
   3.9776E+00   4.0743E+00   2.3171E-05  0.0122
   4.0743E+00   4.1735E+00   2.3890E-05  0.0119
   4.1735E+00   4.2750E+00   2.3686E-05  0.0118
   4.2750E+00   4.3790E+00   2.4418E-05  0.0115
   4.3790E+00   4.4856E+00   2.4247E-05  0.0114
   4.4856E+00   4.5947E+00   2.4714E-05  0.0111
   4.5947E+00   4.7065E+00   2.5353E-05  0.0108
   4.7065E+00   4.8210E+00   2.4942E-05  0.0108
   4.8210E+00   4.9383E+00   2.5744E-05  0.0105
   4.9383E+00   5.0585E+00   2.5616E-05  0.0104
   5.0585E+00   5.1815E+00   2.5880E-05  0.0102
   5.1815E+00   5.3076E+00   2.6307E-05  0.0100
   5.3076E+00   5.4368E+00   2.6691E-05  0.0098
   5.4368E+00   5.5690E+00   2.6920E-05  0.0097
   5.5690E+00   5.7045E+00   2.6975E-05  0.0095
   5.7045E+00   5.8433E+00   2.7309E-05  0.0094
   5.8433E+00   5.9855E+00   2.7322E-05  0.0093
   5.9855E+00   6.1311E+00   2.7431E-05  0.0091
   6.1311E+00   6.2803E+00   2.7864E-05  0.0090
   6.2803E+00   6.4331E+00   2.8212E-05  0.0088
   6.4331E+00   6.5896E+00   2.8513E-05  0.0086
   6.5896E+00   6.7500E+00   2.8366E-05  0.0086
   6.7500E+00   6.9142E+00   2.8599E-05  0.0084
   6.9142E+00   7.0824E+00   2.8512E-05  0.0083
   7.0824E+00   7.2548E+00   2.8960E-05  0.0082
   7.2548E+00   7.4313E+00   2.9352E-05  0.0080
   7.4313E+00   7.6121E+00   2.9628E-05  0.0079
   7.6121E+00   7.7973E+00   2.9788E-05  0.0078
   7.7973E+00   7.9870E+00   2.9356E-05  0.0077
   7.9870E+00   8.1813E+00   2.9421E-05  0.0076
   8.1813E+00   8.3804E+00   3.0295E-05  0.0074
   8.3804E+00   8.5843E+00   3.0167E-05  0.0074
   8.5843E+00   8.7931E+00   3.0032E-05  0.0073
   8.7931E+00   9.0071E+00   2.9966E-05  0.0072
   9.0071E+00   9.2262E+00   2.9851E-05  0.0071
   9.2262E+00   9.4507E+00   2.9765E-05  0.0071
   9.4507E+00   9.6807E+00   2.9667E-05  0.0070
   9.6807E+00   9.9162E+00   2.9620E-05  0.0069
   9.9162E+00   1.0157E+01   2.9546E-05  0.0068
   1.0157E+01   1.0405E+01   2.9508E-05  0.0068
   1.0405E+01   1.0658E+01   2.8920E-05  0.0067
   1.0658E+01   1.0917E+01   2.8430E-05  0.0067
   1.0917E+01   1.1183E+01   2.8134E-05  0.0067
   1.1183E+01   1.1455E+01   2.7936E-05  0.0066
   1.1455E+01   1.1733E+01   2.7421E-05  0.0066
   1.1733E+01   1.2019E+01   2.7162E-05  0.0066
   1.2019E+01   1.2311E+01   2.6434E-05  0.0066
   1.2311E+01   1.2611E+01   2.5854E-05  0.0066
   1.2611E+01   1.2918E+01   2.5532E-05  0.0065
   1.2918E+01   1.3232E+01   2.4574E-05  0.0066
   1.3232E+01   1.3554E+01   2.3737E-05  0.0066
   1.3554E+01   1.3884E+01   2.2932E-05  0.0066
   1.3884E+01   1.4222E+01   2.2103E-05  0.0067
   1.4222E+01   1.4568E+01   2.1298E-05  0.0067
   1.4568E+01   1.4922E+01   2.0243E-05  0.0068
   1.4922E+01   1.5285E+01   1.9039E-05  0.0069
   1.5285E+01   1.5657E+01   1.8142E-05  0.0070
   1.5657E+01   1.6038E+01   1.7328E-05  0.0071
   1.6038E+01   1.6428E+01   1.6277E-05  0.0072
   1.6428E+01   1.6828E+01   1.5319E-05  0.0074
   1.6828E+01   1.7237E+01   1.4424E-05  0.0075
   1.7237E+01   1.7657E+01   1.3317E-05  0.0077
   1.7657E+01   1.8086E+01   1.2571E-05  0.0079
   1.8086E+01   1.8526E+01   1.1708E-05  0.0080
   1.8526E+01   1.8977E+01   1.1071E-05  0.0082
   1.8977E+01   1.9439E+01   1.0126E-05  0.0084
   1.9439E+01   1.9912E+01   9.1804E-06  0.0088
   1.9912E+01   2.0396E+01   8.7009E-06  0.0089
   2.0396E+01   2.0893E+01   8.0395E-06  0.0091
   2.0893E+01   2.1401E+01   7.3180E-06  0.0095
   2.1401E+01   2.1922E+01   6.8184E-06  0.0097
   2.1922E+01   2.2455E+01   6.2452E-06  0.0100
   2.2455E+01   2.3001E+01   5.7814E-06  0.0103
   2.3001E+01   2.3561E+01   5.2909E-06  0.0106
   2.3561E+01   2.4134E+01   4.8570E-06  0.0109
   2.4134E+01   2.4721E+01   4.3909E-06  0.0114
   2.4721E+01   2.5323E+01   4.0843E-06  0.0116
   2.5323E+01   2.5939E+01   3.6194E-06  0.0122
   2.5939E+01   2.6570E+01   3.3570E-06  0.0125
   2.6570E+01   2.7217E+01   2.9834E-06  0.0131
   2.7217E+01   2.7879E+01   2.6779E-06  0.0137
   2.7879E+01   2.8557E+01   2.3893E-06  0.0143
   2.8557E+01   2.9252E+01   2.2409E-06  0.0146
   2.9252E+01   2.9964E+01   2.0008E-06  0.0153
   2.9964E+01   3.0693E+01   1.7964E-06  0.0160
   3.0693E+01   3.1440E+01   1.6373E-06  0.0165
   3.1440E+01   3.2205E+01   1.5042E-06  0.0170
   3.2205E+01   3.2988E+01   1.3571E-06  0.0177
   3.2988E+01   3.3791E+01   1.2231E-06  0.0184
   3.3791E+01   3.4613E+01   1.0947E-06  0.0192
   3.4613E+01   3.5455E+01   9.4044E-07  0.0205
   3.5455E+01   3.6318E+01   7.8363E-07  0.0222
   3.6318E+01   3.7201E+01   6.3789E-07  0.0243
   3.7201E+01   3.8106E+01   5.0048E-07  0.0271
   3.8106E+01   3.9034E+01   3.6491E-07  0.0314
   3.9034E+01   3.9983E+01   2.5551E-07  0.0371
   3.9983E+01   4.0956E+01   1.5522E-07  0.0470
   4.0956E+01   4.1953E+01   1.2076E-07  0.0526
   4.1953E+01   4.2973E+01   7.2823E-08  0.0670
   4.2973E+01   4.4019E+01   5.6747E-08  0.0750
   4.4019E+01   4.5090E+01   3.4547E-08  0.0949
   4.5090E+01   4.6187E+01   9.1152E-10  0.5774
   4.6187E+01   4.7311E+01   0.0000E+00  0.0000
   4.7311E+01   4.8462E+01   0.0000E+00  0.0000
   4.8462E+01   4.9641E+01   0.0000E+00  0.0000
   4.9641E+01   5.0849E+01   0.0000E+00  0.0000
   5.0849E+01   5.2086E+01   0.0000E+00  0.0000
   5.2086E+01   5.3353E+01   0.0000E+00  0.0000
   5.3353E+01   5.4651E+01   0.0000E+00  0.0000
   5.4651E+01   5.5981E+01   0.0000E+00  0.0000
   5.5981E+01   5.7343E+01   0.0000E+00  0.0000
   5.7343E+01   5.8738E+01   0.0000E+00  0.0000
   5.8738E+01   6.0168E+01   0.0000E+00  0.0000
   6.0168E+01   6.1632E+01   0.0000E+00  0.0000
   6.1632E+01   6.3131E+01   0.0000E+00  0.0000
   6.3131E+01   6.4667E+01   0.0000E+00  0.0000
   6.4667E+01   6.6240E+01   0.0000E+00  0.0000
   6.6240E+01   6.7852E+01   0.0000E+00  0.0000
   6.7852E+01   6.9503E+01   0.0000E+00  0.0000
   6.9503E+01   7.1194E+01   0.0000E+00  0.0000
   7.1194E+01   7.2926E+01   0.0000E+00  0.0000
   7.2926E+01   7.4701E+01   0.0000E+00  0.0000
   7.4701E+01   7.6518E+01   0.0000E+00  0.0000
   7.6518E+01   7.8380E+01   0.0000E+00  0.0000
   7.8380E+01   8.0287E+01   0.0000E+00  0.0000
   8.0287E+01   8.2240E+01   0.0000E+00  0.0000
   8.2240E+01   8.4241E+01   0.0000E+00  0.0000
   8.4241E+01   8.6291E+01   0.0000E+00  0.0000
   8.6291E+01   8.8391E+01   0.0000E+00  0.0000
   8.8391E+01   9.0541E+01   0.0000E+00  0.0000
   9.0541E+01   9.2744E+01   0.0000E+00  0.0000
   9.2744E+01   9.5001E+01   0.0000E+00  0.0000
   9.5001E+01   9.7312E+01   0.0000E+00  0.0000
   9.7312E+01   9.9680E+01   0.0000E+00  0.0000
   9.9680E+01   1.0211E+02   0.0000E+00  0.0000
   1.0211E+02   1.0459E+02   0.0000E+00  0.0000
   1.0459E+02   1.0713E+02   0.0000E+00  0.0000
   1.0713E+02   1.0974E+02   0.0000E+00  0.0000
   1.0974E+02   1.1241E+02   0.0000E+00  0.0000
   1.1241E+02   1.1515E+02   0.0000E+00  0.0000
   1.1515E+02   1.1795E+02   0.0000E+00  0.0000
   1.1795E+02   1.2082E+02   0.0000E+00  0.0000
   1.2082E+02   1.2376E+02   0.0000E+00  0.0000
   1.2376E+02   1.2677E+02   0.0000E+00  0.0000
   1.2677E+02   1.2985E+02   0.0000E+00  0.0000
   1.2985E+02   1.3301E+02   0.0000E+00  0.0000
   1.3301E+02   1.3625E+02   0.0000E+00  0.0000
   1.3625E+02   1.3956E+02   0.0000E+00  0.0000
   1.3956E+02   1.4296E+02   0.0000E+00  0.0000
   1.4296E+02   1.4644E+02   0.0000E+00  0.0000
   1.4644E+02   1.5000E+02   0.0000E+00  0.0000

#   sum over                 3.2619E-06
'no. =    1   reg = 100 - 200'
msuc: {\huge [t-cross] in region mesh}
msdr: {\it plotted by \ANGEL \version}
msdl: {\it calculated by \PHITS  3.26}
wt: s(0.7)
\vspace{-3}
  region surface crossing
  area  &=&   1.0000E+00 [cm^2]
e:
 
# Information for Restart Calculation
# This calculation was newly started
# istdev =  2 # 1:Batch variance, 2:History variance
# resc2  = 3.00000000000000000E+09 # Total source weight or Total source weight / maxcas
# resc3  = 3.00000000000000000E+09 # Total history number or Total batch number
# maxcas =   500000000 # History / Batch, only used for istdev=1
# bitrseed = 0110110011111001100110101011100000010010001000001101100100111101 # bit data of rseed
