5 <--- number of remaining batches 

-------------------------------------------------------------------------------
bat[       5] ncas =     2500000000.
 bitrseed = 0011011010010000100111110110001101100001010011100000011100000110
          cpu time = -16.582 s.

 date = 2022-06-08
 time = 06h 40m 47s

