[ T-Cross ]
    title = [t-cross] in region mesh
     mesh =  reg            # mesh type is region-wise
      reg =    1            # number of crossing regions
      non     r-from    r-to       area
      1       100       200        1.000000    
   e-type =    3            # e-mesh is log given by emin, emax and ne
     emin =  1.0000000E-02  # minimum value of e-mesh points
     emax =   150.0000      # maximum value of e-mesh points
#    edel =  2.4039514E-02  # mesh width of e-mesh points
       ne =    400          # number of e-mesh points
#    data = ( e(i), i = 1, ne + 1 )
#           1.00000E-02  1.02433E-02  1.04925E-02  1.07478E-02  1.10093E-02
#           1.12772E-02  1.15516E-02  1.18326E-02  1.21205E-02  1.24154E-02
#           1.27175E-02  1.30269E-02  1.33439E-02  1.36686E-02  1.40011E-02
#           1.43418E-02  1.46907E-02  1.50482E-02  1.54143E-02  1.57894E-02
#           1.61735E-02  1.65670E-02  1.69701E-02  1.73830E-02  1.78060E-02
#           1.82392E-02  1.86830E-02  1.91375E-02  1.96032E-02  2.00801E-02
#           2.05687E-02  2.10692E-02  2.15818E-02  2.21069E-02  2.26448E-02
#           2.31957E-02  2.37601E-02  2.43382E-02  2.49304E-02  2.55369E-02
#           2.61583E-02  2.67947E-02  2.74467E-02  2.81145E-02  2.87985E-02
#           2.94992E-02  3.02169E-02  3.09521E-02  3.17052E-02  3.24766E-02
#           3.32668E-02  3.40762E-02  3.49053E-02  3.57546E-02  3.66246E-02
#           3.75157E-02  3.84284E-02  3.93634E-02  4.03212E-02  4.13022E-02
#           4.23071E-02  4.33365E-02  4.43909E-02  4.54710E-02  4.65773E-02
#           4.77106E-02  4.88714E-02  5.00605E-02  5.12785E-02  5.25262E-02
#           5.38042E-02  5.51133E-02  5.64542E-02  5.78278E-02  5.92348E-02
#           6.06760E-02  6.21523E-02  6.36645E-02  6.52135E-02  6.68002E-02
#           6.84255E-02  7.00904E-02  7.17957E-02  7.35426E-02  7.53319E-02
#           7.71648E-02  7.90423E-02  8.09655E-02  8.29354E-02  8.49533E-02
#           8.70203E-02  8.91376E-02  9.13064E-02  9.35279E-02  9.58035E-02
#           9.81345E-02  1.00522E-01  1.02968E-01  1.05473E-01  1.08040E-01
#           1.10668E-01  1.13361E-01  1.16119E-01  1.18944E-01  1.21838E-01
#           1.24803E-01  1.27839E-01  1.30950E-01  1.34136E-01  1.37399E-01
#           1.40742E-01  1.44167E-01  1.47675E-01  1.51268E-01  1.54948E-01
#           1.58718E-01  1.62580E-01  1.66535E-01  1.70587E-01  1.74738E-01
#           1.78989E-01  1.83344E-01  1.87805E-01  1.92375E-01  1.97055E-01
#           2.01850E-01  2.06761E-01  2.11792E-01  2.16945E-01  2.22223E-01
#           2.27630E-01  2.33169E-01  2.38842E-01  2.44653E-01  2.50605E-01
#           2.56703E-01  2.62949E-01  2.69346E-01  2.75900E-01  2.82613E-01
#           2.89489E-01  2.96532E-01  3.03747E-01  3.11138E-01  3.18708E-01
#           3.26462E-01  3.34405E-01  3.42542E-01  3.50876E-01  3.59413E-01
#           3.68158E-01  3.77116E-01  3.86291E-01  3.95690E-01  4.05317E-01
#           4.15179E-01  4.25281E-01  4.35628E-01  4.46227E-01  4.57084E-01
#           4.68205E-01  4.79597E-01  4.91266E-01  5.03219E-01  5.15463E-01
#           5.28005E-01  5.40851E-01  5.54011E-01  5.67490E-01  5.81298E-01
#           5.95441E-01  6.09929E-01  6.24769E-01  6.39970E-01  6.55541E-01
#           6.71491E-01  6.87828E-01  7.04564E-01  7.21706E-01  7.39266E-01
#           7.57253E-01  7.75678E-01  7.94551E-01  8.13883E-01  8.33685E-01
#           8.53969E-01  8.74747E-01  8.96030E-01  9.17831E-01  9.40163E-01
#           9.63038E-01  9.86469E-01  1.01047E+00  1.03506E+00  1.06024E+00
#           1.08604E+00  1.11246E+00  1.13953E+00  1.16725E+00  1.19565E+00
#           1.22474E+00  1.25454E+00  1.28507E+00  1.31633E+00  1.34836E+00
#           1.38117E+00  1.41477E+00  1.44920E+00  1.48446E+00  1.52057E+00
#           1.55757E+00  1.59547E+00  1.63429E+00  1.67405E+00  1.71478E+00
#           1.75650E+00  1.79924E+00  1.84302E+00  1.88786E+00  1.93379E+00
#           1.98084E+00  2.02904E+00  2.07841E+00  2.12898E+00  2.18078E+00
#           2.23384E+00  2.28819E+00  2.34386E+00  2.40089E+00  2.45930E+00
#           2.51914E+00  2.58043E+00  2.64322E+00  2.70753E+00  2.77341E+00
#           2.84088E+00  2.91001E+00  2.98081E+00  3.05333E+00  3.12762E+00
#           3.20372E+00  3.28167E+00  3.36152E+00  3.44330E+00  3.52708E+00
#           3.61290E+00  3.70080E+00  3.79085E+00  3.88308E+00  3.97756E+00
#           4.07434E+00  4.17347E+00  4.27501E+00  4.37903E+00  4.48557E+00
#           4.59471E+00  4.70650E+00  4.82102E+00  4.93832E+00  5.05847E+00
#           5.18155E+00  5.30762E+00  5.43676E+00  5.56904E+00  5.70453E+00
#           5.84333E+00  5.98550E+00  6.13114E+00  6.28031E+00  6.43312E+00
#           6.58964E+00  6.74997E+00  6.91420E+00  7.08243E+00  7.25475E+00
#           7.43126E+00  7.61207E+00  7.79728E+00  7.98700E+00  8.18133E+00
#           8.38038E+00  8.58428E+00  8.79315E+00  9.00709E+00  9.22624E+00
#           9.45072E+00  9.68067E+00  9.91620E+00  1.01575E+01  1.04046E+01
#           1.06578E+01  1.09171E+01  1.11827E+01  1.14548E+01  1.17335E+01
#           1.20190E+01  1.23114E+01  1.26109E+01  1.29178E+01  1.32321E+01
#           1.35540E+01  1.38838E+01  1.42216E+01  1.45676E+01  1.49221E+01
#           1.52851E+01  1.56570E+01  1.60380E+01  1.64282E+01  1.68279E+01
#           1.72374E+01  1.76568E+01  1.80864E+01  1.85264E+01  1.89772E+01
#           1.94389E+01  1.99119E+01  2.03963E+01  2.08926E+01  2.14009E+01
#           2.19216E+01  2.24550E+01  2.30014E+01  2.35610E+01  2.41343E+01
#           2.47215E+01  2.53230E+01  2.59391E+01  2.65702E+01  2.72167E+01
#           2.78789E+01  2.85572E+01  2.92520E+01  2.99637E+01  3.06928E+01
#           3.14396E+01  3.22045E+01  3.29881E+01  3.37907E+01  3.46128E+01
#           3.54550E+01  3.63177E+01  3.72013E+01  3.81064E+01  3.90336E+01
#           3.99833E+01  4.09561E+01  4.19526E+01  4.29734E+01  4.40189E+01
#           4.50900E+01  4.61870E+01  4.73108E+01  4.84619E+01  4.96410E+01
#           5.08488E+01  5.20860E+01  5.33533E+01  5.46514E+01  5.59812E+01
#           5.73432E+01  5.87384E+01  6.01676E+01  6.16315E+01  6.31311E+01
#           6.46671E+01  6.62405E+01  6.78522E+01  6.95031E+01  7.11941E+01
#           7.29263E+01  7.47007E+01  7.65182E+01  7.83800E+01  8.02870E+01
#           8.22405E+01  8.42414E+01  8.62911E+01  8.83906E+01  9.05412E+01
#           9.27442E+01  9.50007E+01  9.73122E+01  9.96799E+01  1.02105E+02
#           1.04589E+02  1.07134E+02  1.09741E+02  1.12411E+02  1.15146E+02
#           1.17948E+02  1.20817E+02  1.23757E+02  1.26768E+02  1.29852E+02
#           1.33012E+02  1.36248E+02  1.39563E+02  1.42959E+02  1.46437E+02
#           1.50000E+02
     unit =    2            # unit is [1/cm^2/(MeV/n)/source]
     axis =  eng            # axis of output
     file = detector-01.out  # file name of output for the above axis
   output = f-curr          # surface crossing forward current spectrum
     part =  neutron  
# kf/name :  2112     
#    used :        main (  %)        temp (  %)       total (  %)
#  memory :         414 (  0)           0 (  0)         414 (  0)

#------------------------------------------------------------------------------
#newpage:
#   no. =    1   reg = 100 - 200

x: Energy [MeV/n]
y:  F-Curr [1/cm^2/(MeV/n)/source]         
p: xlog ylog afac(0.8) form(0.9)
h: n            x            y(neutron ),hh0l   n 
#  e-lower      e-upper      neutron     r.err 
   1.0000E-02   1.0243E-02   8.8228E-04  0.0394
   1.0243E-02   1.0493E-02   9.0546E-04  0.0384
   1.0493E-02   1.0748E-02   7.7819E-04  0.0410
   1.0748E-02   1.1009E-02   7.9413E-04  0.0401
   1.1009E-02   1.1277E-02   8.1384E-04  0.0391
   1.1277E-02   1.1552E-02   7.8844E-04  0.0393
   1.1552E-02   1.1833E-02   7.3413E-04  0.0402
   1.1833E-02   1.2121E-02   7.3232E-04  0.0398
   1.2121E-02   1.2415E-02   7.1775E-04  0.0397
   1.2415E-02   1.2718E-02   7.5146E-04  0.0383
   1.2718E-02   1.3027E-02   7.0453E-04  0.0391
   1.3027E-02   1.3344E-02   6.8674E-04  0.0391
   1.3344E-02   1.3669E-02   7.0739E-04  0.0381
   1.3669E-02   1.4001E-02   6.7054E-04  0.0387
   1.4001E-02   1.4342E-02   6.7565E-04  0.0380
   1.4342E-02   1.4691E-02   5.9608E-04  0.0400
   1.4691E-02   1.5048E-02   6.1782E-04  0.0388
   1.5048E-02   1.5414E-02   6.1726E-04  0.0384
   1.5414E-02   1.5789E-02   5.8616E-04  0.0389
   1.5789E-02   1.6174E-02   5.5011E-04  0.0397
   1.6174E-02   1.6567E-02   5.7092E-04  0.0385
   1.6567E-02   1.6970E-02   5.9623E-04  0.0372
   1.6970E-02   1.7383E-02   5.3040E-04  0.0390
   1.7383E-02   1.7806E-02   5.4854E-04  0.0379
   1.7806E-02   1.8239E-02   5.3859E-04  0.0378
   1.8239E-02   1.8683E-02   4.9199E-04  0.0391
   1.8683E-02   1.9138E-02   4.8251E-04  0.0390
   1.9138E-02   1.9603E-02   4.6389E-04  0.0393
   1.9603E-02   2.0080E-02   4.8711E-04  0.0379
   2.0080E-02   2.0569E-02   4.3733E-04  0.0395
   2.0569E-02   2.1069E-02   4.3627E-04  0.0391
   2.1069E-02   2.1582E-02   4.5062E-04  0.0380
   2.1582E-02   2.2107E-02   4.2912E-04  0.0385
   2.2107E-02   2.2645E-02   4.1397E-04  0.0387
   2.2645E-02   2.3196E-02   3.8780E-04  0.0395
   2.3196E-02   2.3760E-02   3.7741E-04  0.0396
   2.3760E-02   2.4338E-02   3.8402E-04  0.0387
   2.4338E-02   2.4930E-02   3.5632E-04  0.0397
   2.4930E-02   2.5537E-02   3.8632E-04  0.0377
   2.5537E-02   2.6158E-02   3.5193E-04  0.0390
   2.6158E-02   2.6795E-02   3.5300E-04  0.0385
   2.6795E-02   2.7447E-02   3.2928E-04  0.0394
   2.7447E-02   2.8114E-02   3.2595E-04  0.0391
   2.8114E-02   2.8799E-02   3.3770E-04  0.0380
   2.8799E-02   2.9499E-02   3.2872E-04  0.0380
   2.9499E-02   3.0217E-02   3.3044E-04  0.0375
   3.0217E-02   3.0952E-02   3.3370E-04  0.0369
   3.0952E-02   3.1705E-02   2.9124E-04  0.0390
   3.1705E-02   3.2477E-02   2.8260E-04  0.0391
   3.2477E-02   3.3267E-02   2.9234E-04  0.0380
   3.3267E-02   3.4076E-02   2.7304E-04  0.0388
   3.4076E-02   3.4905E-02   2.6937E-04  0.0386
   3.4905E-02   3.5755E-02   2.4531E-04  0.0400
   3.5755E-02   3.6625E-02   2.5481E-04  0.0388
   3.6625E-02   3.7516E-02   2.3005E-04  0.0403
   3.7516E-02   3.8428E-02   2.5818E-04  0.0376
   3.8428E-02   3.9363E-02   2.3316E-04  0.0391
   3.9363E-02   4.0321E-02   2.1857E-04  0.0399
   4.0321E-02   4.1302E-02   2.1100E-04  0.0401
   4.1302E-02   4.2307E-02   2.1295E-04  0.0395
   4.2307E-02   4.3337E-02   2.0935E-04  0.0393
   4.3337E-02   4.4391E-02   2.0264E-04  0.0395
   4.4391E-02   4.5471E-02   1.8980E-04  0.0403
   4.5471E-02   4.6577E-02   1.7746E-04  0.0412
   4.6577E-02   4.7711E-02   1.8060E-04  0.0404
   4.7711E-02   4.8871E-02   1.7918E-04  0.0400
   4.8871E-02   5.0061E-02   1.9034E-04  0.0384
   5.0061E-02   5.1279E-02   1.7871E-04  0.0391
   5.1279E-02   5.2526E-02   1.8061E-04  0.0385
   5.2526E-02   5.3804E-02   1.6954E-04  0.0392
   5.3804E-02   5.5113E-02   1.4361E-04  0.0421
   5.5113E-02   5.6454E-02   1.5039E-04  0.0407
   5.6454E-02   5.7828E-02   1.5240E-04  0.0399
   5.7828E-02   5.9235E-02   1.4144E-04  0.0409
   5.9235E-02   6.0676E-02   1.3970E-04  0.0407
   6.0676E-02   6.2152E-02   1.3864E-04  0.0404
   6.2152E-02   6.3665E-02   1.3953E-04  0.0397
   6.3665E-02   6.5214E-02   1.2546E-04  0.0414
   6.5214E-02   6.6800E-02   1.2290E-04  0.0413
   6.6800E-02   6.8426E-02   1.2080E-04  0.0412
   6.8426E-02   7.0090E-02   1.0972E-04  0.0427
   7.0090E-02   7.1796E-02   1.1571E-04  0.0411
   7.1796E-02   7.3543E-02   1.1277E-04  0.0411
   7.3543E-02   7.5332E-02   1.0637E-04  0.0418
   7.5332E-02   7.7165E-02   9.9115E-05  0.0428
   7.7165E-02   7.9042E-02   1.0528E-04  0.0411
   7.9042E-02   8.0965E-02   9.6542E-05  0.0424
   8.0965E-02   8.2935E-02   1.0169E-04  0.0408
   8.2935E-02   8.4953E-02   9.7379E-05  0.0412
   8.4953E-02   8.7020E-02   8.9180E-05  0.0425
   8.7020E-02   8.9138E-02   7.8875E-05  0.0447
   8.9138E-02   9.1306E-02   8.2688E-05  0.0431
   9.1306E-02   9.3528E-02   7.5923E-05  0.0445
   9.3528E-02   9.5804E-02   7.2215E-05  0.0450
   9.5804E-02   9.8134E-02   7.5934E-05  0.0434
   9.8134E-02   1.0052E-01   7.2455E-05  0.0439
   1.0052E-01   1.0297E-01   7.2369E-05  0.0434
   1.0297E-01   1.0547E-01   6.1603E-05  0.0465
   1.0547E-01   1.0804E-01   6.8193E-05  0.0436
   1.0804E-01   1.1067E-01   6.3783E-05  0.0446
   1.1067E-01   1.1336E-01   6.0907E-05  0.0451
   1.1336E-01   1.1612E-01   5.7526E-05  0.0458
   1.1612E-01   1.1894E-01   5.7458E-05  0.0453
   1.1894E-01   1.2184E-01   5.5056E-05  0.0457
   1.2184E-01   1.2480E-01   5.9258E-05  0.0436
   1.2480E-01   1.2784E-01   5.1923E-05  0.0460
   1.2784E-01   1.3095E-01   4.7046E-05  0.0477
   1.3095E-01   1.3414E-01   5.1683E-05  0.0450
   1.3414E-01   1.3740E-01   4.6574E-05  0.0468
   1.3740E-01   1.4074E-01   5.0254E-05  0.0445
   1.4074E-01   1.4417E-01   4.4972E-05  0.0465
   1.4417E-01   1.4767E-01   4.3761E-05  0.0466
   1.4767E-01   1.5127E-01   4.3325E-05  0.0463
   1.5127E-01   1.5495E-01   4.0484E-05  0.0473
   1.5495E-01   1.5872E-01   4.0937E-05  0.0465
   1.5872E-01   1.6258E-01   3.7807E-05  0.0478
   1.6258E-01   1.6654E-01   3.6235E-05  0.0482
   1.6654E-01   1.7059E-01   3.5539E-05  0.0481
   1.7059E-01   1.7474E-01   3.3731E-05  0.0488
   1.7474E-01   1.7899E-01   3.4419E-05  0.0477
   1.7899E-01   1.8334E-01   3.0463E-05  0.0501
   1.8334E-01   1.8781E-01   3.3625E-05  0.0471
   1.8781E-01   1.9237E-01   2.9398E-05  0.0498
   1.9237E-01   1.9706E-01   3.0231E-05  0.0485
   1.9706E-01   2.0185E-01   2.9409E-05  0.0486
   2.0185E-01   2.0676E-01   2.6131E-05  0.0510
   2.0676E-01   2.1179E-01   2.6769E-05  0.0498
   2.1179E-01   2.1694E-01   2.4710E-05  0.0512
   2.1694E-01   2.2222E-01   2.2671E-05  0.0528
   2.2222E-01   2.2763E-01   2.2718E-05  0.0521
   2.2763E-01   2.3317E-01   2.3171E-05  0.0510
   2.3317E-01   2.3884E-01   2.1857E-05  0.0518
   2.3884E-01   2.4465E-01   2.2600E-05  0.0504
   2.4465E-01   2.5061E-01   1.9655E-05  0.0534
   2.5061E-01   2.5670E-01   1.9790E-05  0.0526
   2.5670E-01   2.6295E-01   1.8733E-05  0.0534
   2.6295E-01   2.6935E-01   1.7819E-05  0.0541
   2.6935E-01   2.7590E-01   1.6582E-05  0.0554
   2.7590E-01   2.8261E-01   1.5940E-05  0.0558
   2.8261E-01   2.8949E-01   1.7112E-05  0.0532
   2.8949E-01   2.9653E-01   1.5002E-05  0.0562
   2.9653E-01   3.0375E-01   1.3906E-05  0.0576
   3.0375E-01   3.1114E-01   1.3711E-05  0.0574
   3.1114E-01   3.1871E-01   1.4266E-05  0.0556
   3.1871E-01   3.2646E-01   1.3326E-05  0.0568
   3.2646E-01   3.3441E-01   1.1666E-05  0.0600
   3.3441E-01   3.4254E-01   1.2291E-05  0.0577
   3.4254E-01   3.5088E-01   1.2479E-05  0.0566
   3.5088E-01   3.5941E-01   1.1557E-05  0.0581
   3.5941E-01   3.6816E-01   1.1855E-05  0.0567
   3.6816E-01   3.7712E-01   1.1945E-05  0.0558
   3.7712E-01   3.8629E-01   1.1117E-05  0.0572
   3.8629E-01   3.9569E-01   1.0959E-05  0.0569
   3.9569E-01   4.0532E-01   1.0560E-05  0.0573
   4.0532E-01   4.1518E-01   9.3290E-06  0.0602
   4.1518E-01   4.2528E-01   1.0031E-05  0.0574
   4.2528E-01   4.3563E-01   9.3099E-06  0.0588
   4.3563E-01   4.4623E-01   9.7492E-06  0.0568
   4.4623E-01   4.5708E-01   9.1185E-06  0.0580
   4.5708E-01   4.6821E-01   7.9128E-06  0.0615
   4.6821E-01   4.7960E-01   8.3978E-06  0.0590
   4.7960E-01   4.9127E-01   8.3269E-06  0.0585
   4.9127E-01   5.0322E-01   8.1988E-06  0.0583
   5.0322E-01   5.1546E-01   7.4460E-06  0.0604
   5.1546E-01   5.2800E-01   6.6445E-06  0.0632
   5.2800E-01   5.4085E-01   6.2402E-06  0.0644
   5.4085E-01   5.5401E-01   6.6366E-06  0.0618
   5.5401E-01   5.6749E-01   5.6629E-06  0.0661
   5.6749E-01   5.8130E-01   6.8683E-06  0.0593
   5.8130E-01   5.9544E-01   5.9863E-06  0.0627
   5.9544E-01   6.0993E-01   5.7751E-06  0.0631
   6.0993E-01   6.2477E-01   5.7053E-06  0.0627
   6.2477E-01   6.3997E-01   5.5478E-06  0.0629
   6.3997E-01   6.5554E-01   4.9451E-06  0.0658
   6.5554E-01   6.7149E-01   4.9635E-06  0.0649
   6.7149E-01   6.8783E-01   5.2230E-06  0.0625
   6.8783E-01   7.0456E-01   5.0193E-06  0.0629
   7.0456E-01   7.2171E-01   4.5695E-06  0.0652
   7.2171E-01   7.3927E-01   4.3091E-06  0.0664
   7.3927E-01   7.5725E-01   4.1141E-06  0.0671
   7.5725E-01   7.7568E-01   4.2878E-06  0.0650
   7.7568E-01   7.9455E-01   3.8150E-06  0.0680
   7.9455E-01   8.1388E-01   4.2589E-06  0.0636
   8.1388E-01   8.3368E-01   3.9726E-06  0.0651
   8.3368E-01   8.5397E-01   4.3383E-06  0.0615
   8.5397E-01   8.7475E-01   3.8503E-06  0.0645
   8.7475E-01   8.9603E-01   3.6962E-06  0.0651
   8.9603E-01   9.1783E-01   3.6390E-06  0.0648
   9.1783E-01   9.4016E-01   3.2391E-06  0.0679
   9.4016E-01   9.6304E-01   3.4244E-06  0.0652
   9.6304E-01   9.8647E-01   3.3715E-06  0.0650
   9.8647E-01   1.0105E+00   3.6386E-06  0.0618
   1.0105E+00   1.0351E+00   3.3217E-06  0.0639
   1.0351E+00   1.0602E+00   3.3156E-06  0.0632
   1.0602E+00   1.0860E+00   3.1658E-06  0.0639
   1.0860E+00   1.1125E+00   3.8096E-06  0.0575
   1.1125E+00   1.1395E+00   3.8054E-06  0.0569
   1.1395E+00   1.1673E+00   3.8773E-06  0.0557
   1.1673E+00   1.1957E+00   4.2018E-06  0.0529
   1.1957E+00   1.2247E+00   4.4687E-06  0.0506
   1.2247E+00   1.2545E+00   4.5975E-06  0.0493
   1.2545E+00   1.2851E+00   5.0998E-06  0.0463
   1.2851E+00   1.3163E+00   5.1173E-06  0.0456
   1.3163E+00   1.3484E+00   5.3444E-06  0.0441
   1.3484E+00   1.3812E+00   5.7712E-06  0.0420
   1.3812E+00   1.4148E+00   6.3086E-06  0.0397
   1.4148E+00   1.4492E+00   6.3621E-06  0.0390
   1.4492E+00   1.4845E+00   6.6648E-06  0.0377
   1.4845E+00   1.5206E+00   6.4142E-06  0.0379
   1.5206E+00   1.5576E+00   6.7844E-06  0.0364
   1.5576E+00   1.5955E+00   7.2389E-06  0.0349
   1.5955E+00   1.6343E+00   7.2258E-06  0.0345
   1.6343E+00   1.6741E+00   7.4524E-06  0.0335
   1.6741E+00   1.7148E+00   7.8851E-06  0.0322
   1.7148E+00   1.7565E+00   8.1492E-06  0.0313
   1.7565E+00   1.7992E+00   8.2910E-06  0.0307
   1.7992E+00   1.8430E+00   8.2083E-06  0.0305
   1.8430E+00   1.8879E+00   8.7715E-06  0.0291
   1.8879E+00   1.9338E+00   9.2453E-06  0.0280
   1.9338E+00   1.9808E+00   9.0682E-06  0.0280
   1.9808E+00   2.0290E+00   9.9041E-06  0.0264
   2.0290E+00   2.0784E+00   9.4089E-06  0.0268
   2.0784E+00   2.1290E+00   9.7292E-06  0.0260
   2.1290E+00   2.1808E+00   9.7169E-06  0.0257
   2.1808E+00   2.2338E+00   1.0127E-05  0.0249
   2.2338E+00   2.2882E+00   9.8710E-06  0.0249
   2.2882E+00   2.3439E+00   1.0113E-05  0.0243
   2.3439E+00   2.4009E+00   1.0527E-05  0.0236
   2.4009E+00   2.4593E+00   1.0477E-05  0.0233
   2.4593E+00   2.5191E+00   1.0434E-05  0.0231
   2.5191E+00   2.5804E+00   1.0083E-05  0.0232
   2.5804E+00   2.6432E+00   9.6999E-06  0.0234
   2.6432E+00   2.7075E+00   9.8531E-06  0.0229
   2.7075E+00   2.7734E+00   1.0193E-05  0.0223
   2.7734E+00   2.8409E+00   1.0220E-05  0.0220
   2.8409E+00   2.9100E+00   1.0303E-05  0.0216
   2.9100E+00   2.9808E+00   1.0437E-05  0.0212
   2.9808E+00   3.0533E+00   1.0263E-05  0.0212
   3.0533E+00   3.1276E+00   9.9924E-06  0.0212
   3.1276E+00   3.2037E+00   9.6674E-06  0.0213
   3.2037E+00   3.2817E+00   9.6388E-06  0.0211
   3.2817E+00   3.3615E+00   9.0341E-06  0.0215
   3.3615E+00   3.4433E+00   9.3045E-06  0.0209
   3.4433E+00   3.5271E+00   9.0238E-06  0.0210
   3.5271E+00   3.6129E+00   9.0891E-06  0.0207
   3.6129E+00   3.7008E+00   9.2373E-06  0.0203
   3.7008E+00   3.7908E+00   9.0253E-06  0.0203
   3.7908E+00   3.8831E+00   8.7260E-06  0.0203
   3.8831E+00   3.9776E+00   8.6228E-06  0.0202
   3.9776E+00   4.0743E+00   8.3491E-06  0.0203
   4.0743E+00   4.1735E+00   8.2180E-06  0.0202
   4.1735E+00   4.2750E+00   7.8620E-06  0.0204
   4.2750E+00   4.3790E+00   7.5470E-06  0.0206
   4.3790E+00   4.4856E+00   7.4898E-06  0.0204
   4.4856E+00   4.5947E+00   7.6020E-06  0.0200
   4.5947E+00   4.7065E+00   7.2098E-06  0.0203
   4.7065E+00   4.8210E+00   7.2947E-06  0.0200
   4.8210E+00   4.9383E+00   6.7065E-06  0.0206
   4.9383E+00   5.0585E+00   6.9328E-06  0.0200
   5.0585E+00   5.1815E+00   6.5975E-06  0.0203
   5.1815E+00   5.3076E+00   6.7581E-06  0.0198
   5.3076E+00   5.4368E+00   6.7060E-06  0.0196
   5.4368E+00   5.5690E+00   6.3325E-06  0.0199
   5.5690E+00   5.7045E+00   6.4256E-06  0.0196
   5.7045E+00   5.8433E+00   6.1625E-06  0.0197
   5.8433E+00   5.9855E+00   5.9810E-06  0.0198
   5.9855E+00   6.1311E+00   6.0220E-06  0.0195
   6.1311E+00   6.2803E+00   5.8678E-06  0.0195
   6.2803E+00   6.4331E+00   5.8833E-06  0.0193
   6.4331E+00   6.5896E+00   5.7244E-06  0.0193
   6.5896E+00   6.7500E+00   5.7589E-06  0.0190
   6.7500E+00   6.9142E+00   5.9245E-06  0.0185
   6.9142E+00   7.0824E+00   5.8710E-06  0.0184
   7.0824E+00   7.2548E+00   5.7809E-06  0.0183
   7.2548E+00   7.4313E+00   5.4434E-06  0.0186
   7.4313E+00   7.6121E+00   5.6487E-06  0.0181
   7.6121E+00   7.7973E+00   5.7944E-06  0.0176
   7.7973E+00   7.9870E+00   5.6040E-06  0.0177
   7.9870E+00   8.1813E+00   5.6613E-06  0.0174
   8.1813E+00   8.3804E+00   5.7136E-06  0.0171
   8.3804E+00   8.5843E+00   5.7397E-06  0.0169
   8.5843E+00   8.7931E+00   5.6409E-06  0.0168
   8.7931E+00   9.0071E+00   5.5614E-06  0.0167
   9.0071E+00   9.2262E+00   5.8202E-06  0.0162
   9.2262E+00   9.4507E+00   5.6842E-06  0.0162
   9.4507E+00   9.6807E+00   5.7079E-06  0.0159
   9.6807E+00   9.9162E+00   5.7952E-06  0.0156
   9.9162E+00   1.0157E+01   5.6907E-06  0.0156
   1.0157E+01   1.0405E+01   5.9980E-06  0.0150
   1.0405E+01   1.0658E+01   5.8278E-06  0.0150
   1.0658E+01   1.0917E+01   6.0834E-06  0.0145
   1.0917E+01   1.1183E+01   5.9025E-06  0.0146
   1.1183E+01   1.1455E+01   6.2389E-06  0.0140
   1.1455E+01   1.1733E+01   6.3389E-06  0.0137
   1.1733E+01   1.2019E+01   6.4545E-06  0.0134
   1.2019E+01   1.2311E+01   6.5052E-06  0.0132
   1.2311E+01   1.2611E+01   6.5549E-06  0.0130
   1.2611E+01   1.2918E+01   6.5448E-06  0.0129
   1.2918E+01   1.3232E+01   6.7298E-06  0.0125
   1.3232E+01   1.3554E+01   6.8303E-06  0.0123
   1.3554E+01   1.3884E+01   7.0881E-06  0.0119
   1.3884E+01   1.4222E+01   7.1185E-06  0.0118
   1.4222E+01   1.4568E+01   7.1252E-06  0.0116
   1.4568E+01   1.4922E+01   7.3670E-06  0.0113
   1.4922E+01   1.5285E+01   7.5367E-06  0.0110
   1.5285E+01   1.5657E+01   7.5845E-06  0.0109
   1.5657E+01   1.6038E+01   7.7045E-06  0.0107
   1.6038E+01   1.6428E+01   7.8717E-06  0.0104
   1.6428E+01   1.6828E+01   8.1688E-06  0.0101
   1.6828E+01   1.7237E+01   8.1865E-06  0.0100
   1.7237E+01   1.7657E+01   8.4311E-06  0.0097
   1.7657E+01   1.8086E+01   8.6584E-06  0.0095
   1.8086E+01   1.8526E+01   8.6906E-06  0.0093
   1.8526E+01   1.8977E+01   8.8247E-06  0.0092
   1.8977E+01   1.9439E+01   8.9555E-06  0.0090
   1.9439E+01   1.9912E+01   9.1307E-06  0.0088
   1.9912E+01   2.0396E+01   1.5153E-05  0.0067
   2.0396E+01   2.0893E+01   1.6246E-05  0.0064
   2.0893E+01   2.1401E+01   1.6237E-05  0.0064
   2.1401E+01   2.1922E+01   1.6200E-05  0.0063
   2.1922E+01   2.2455E+01   1.6018E-05  0.0062
   2.2455E+01   2.3001E+01   1.5737E-05  0.0062
   2.3001E+01   2.3561E+01   1.5404E-05  0.0062
   2.3561E+01   2.4134E+01   1.4998E-05  0.0062
   2.4134E+01   2.4721E+01   1.4591E-05  0.0062
   2.4721E+01   2.5323E+01   1.4163E-05  0.0063
   2.5323E+01   2.5939E+01   1.3552E-05  0.0063
   2.5939E+01   2.6570E+01   1.2942E-05  0.0064
   2.6570E+01   2.7217E+01   1.2158E-05  0.0065
   2.7217E+01   2.7879E+01   1.1555E-05  0.0066
   2.7879E+01   2.8557E+01   1.0796E-05  0.0067
   2.8557E+01   2.9252E+01   1.0016E-05  0.0069
   2.9252E+01   2.9964E+01   9.3229E-06  0.0071
   2.9964E+01   3.0693E+01   8.5784E-06  0.0073
   3.0693E+01   3.1440E+01   7.7863E-06  0.0076
   3.1440E+01   3.2205E+01   7.2602E-06  0.0077
   3.2205E+01   3.2988E+01   6.6155E-06  0.0080
   3.2988E+01   3.3791E+01   5.9492E-06  0.0084
   3.3791E+01   3.4613E+01   5.3644E-06  0.0087
   3.4613E+01   3.5455E+01   4.9611E-06  0.0089
   3.5455E+01   3.6318E+01   4.4414E-06  0.0093
   3.6318E+01   3.7201E+01   4.0284E-06  0.0097
   3.7201E+01   3.8106E+01   3.6510E-06  0.0100
   3.8106E+01   3.9034E+01   3.1864E-06  0.0106
   3.9034E+01   3.9983E+01   2.8777E-06  0.0110
   3.9983E+01   4.0956E+01   2.5458E-06  0.0116
   4.0956E+01   4.1953E+01   2.2917E-06  0.0121
   4.1953E+01   4.2973E+01   1.8888E-06  0.0131
   4.2973E+01   4.4019E+01   1.6715E-06  0.0138
   4.4019E+01   4.5090E+01   1.4114E-06  0.0148
   4.5090E+01   4.6187E+01   1.1759E-06  0.0161
   4.6187E+01   4.7311E+01   1.0082E-06  0.0172
   4.7311E+01   4.8462E+01   8.4122E-07  0.0186
   4.8462E+01   4.9641E+01   6.7339E-07  0.0205
   4.9641E+01   5.0849E+01   5.3761E-07  0.0227
   5.0849E+01   5.2086E+01   4.2165E-07  0.0253
   5.2086E+01   5.3353E+01   3.4246E-07  0.0277
   5.3353E+01   5.4651E+01   2.2622E-07  0.0337
   5.4651E+01   5.5981E+01   1.5542E-07  0.0402
   5.5981E+01   5.7343E+01   8.5899E-08  0.0534
   5.7343E+01   5.8738E+01   2.4130E-08  0.0995
   5.8738E+01   6.0168E+01   0.0000E+00  0.0000
   6.0168E+01   6.1632E+01   0.0000E+00  0.0000
   6.1632E+01   6.3131E+01   0.0000E+00  0.0000
   6.3131E+01   6.4667E+01   0.0000E+00  0.0000
   6.4667E+01   6.6240E+01   0.0000E+00  0.0000
   6.6240E+01   6.7852E+01   0.0000E+00  0.0000
   6.7852E+01   6.9503E+01   0.0000E+00  0.0000
   6.9503E+01   7.1194E+01   0.0000E+00  0.0000
   7.1194E+01   7.2926E+01   0.0000E+00  0.0000
   7.2926E+01   7.4701E+01   0.0000E+00  0.0000
   7.4701E+01   7.6518E+01   0.0000E+00  0.0000
   7.6518E+01   7.8380E+01   0.0000E+00  0.0000
   7.8380E+01   8.0287E+01   0.0000E+00  0.0000
   8.0287E+01   8.2240E+01   0.0000E+00  0.0000
   8.2240E+01   8.4241E+01   0.0000E+00  0.0000
   8.4241E+01   8.6291E+01   0.0000E+00  0.0000
   8.6291E+01   8.8391E+01   0.0000E+00  0.0000
   8.8391E+01   9.0541E+01   0.0000E+00  0.0000
   9.0541E+01   9.2744E+01   0.0000E+00  0.0000
   9.2744E+01   9.5001E+01   0.0000E+00  0.0000
   9.5001E+01   9.7312E+01   0.0000E+00  0.0000
   9.7312E+01   9.9680E+01   0.0000E+00  0.0000
   9.9680E+01   1.0211E+02   0.0000E+00  0.0000
   1.0211E+02   1.0459E+02   0.0000E+00  0.0000
   1.0459E+02   1.0713E+02   0.0000E+00  0.0000
   1.0713E+02   1.0974E+02   0.0000E+00  0.0000
   1.0974E+02   1.1241E+02   0.0000E+00  0.0000
   1.1241E+02   1.1515E+02   0.0000E+00  0.0000
   1.1515E+02   1.1795E+02   0.0000E+00  0.0000
   1.1795E+02   1.2082E+02   0.0000E+00  0.0000
   1.2082E+02   1.2376E+02   0.0000E+00  0.0000
   1.2376E+02   1.2677E+02   0.0000E+00  0.0000
   1.2677E+02   1.2985E+02   0.0000E+00  0.0000
   1.2985E+02   1.3301E+02   0.0000E+00  0.0000
   1.3301E+02   1.3625E+02   0.0000E+00  0.0000
   1.3625E+02   1.3956E+02   0.0000E+00  0.0000
   1.3956E+02   1.4296E+02   0.0000E+00  0.0000
   1.4296E+02   1.4644E+02   0.0000E+00  0.0000
   1.4644E+02   1.5000E+02   0.0000E+00  0.0000

#   sum over                 2.4889E-06
'no. =    1   reg = 100 - 200'
msuc: {\huge [t-cross] in region mesh}
msdr: {\it plotted by \ANGEL \version}
msdl: {\it calculated by \PHITS  3.26}
wt: s(0.7)
\vspace{-3}
  region surface crossing
  area  &=&   1.0000E+00 [cm^2]
e:
 
# Information for Restart Calculation
# This calculation was newly started
# istdev =  2 # 1:Batch variance, 2:History variance
# resc2  = 3.00000000000000000E+09 # Total source weight or Total source weight / maxcas
# resc3  = 3.00000000000000000E+09 # Total history number or Total batch number
# maxcas =   500000000 # History / Batch, only used for istdev=1
# bitrseed = 0110110011111001100110101011100000010010001000001101100100111101 # bit data of rseed
