[ T-Cross ]
    title = [t-cross] in region mesh
     mesh =  reg            # mesh type is region-wise
      reg =    1            # number of crossing regions
      non     r-from    r-to       area
      1       126       226        1.000000    
   e-type =    3            # e-mesh is log given by emin, emax and ne
     emin =  1.0000000E-02  # minimum value of e-mesh points
     emax =   150.0000      # maximum value of e-mesh points
#    edel =  2.4039514E-02  # mesh width of e-mesh points
       ne =    400          # number of e-mesh points
#    data = ( e(i), i = 1, ne + 1 )
#           1.00000E-02  1.02433E-02  1.04925E-02  1.07478E-02  1.10093E-02
#           1.12772E-02  1.15516E-02  1.18326E-02  1.21205E-02  1.24154E-02
#           1.27175E-02  1.30269E-02  1.33439E-02  1.36686E-02  1.40011E-02
#           1.43418E-02  1.46907E-02  1.50482E-02  1.54143E-02  1.57894E-02
#           1.61735E-02  1.65670E-02  1.69701E-02  1.73830E-02  1.78060E-02
#           1.82392E-02  1.86830E-02  1.91375E-02  1.96032E-02  2.00801E-02
#           2.05687E-02  2.10692E-02  2.15818E-02  2.21069E-02  2.26448E-02
#           2.31957E-02  2.37601E-02  2.43382E-02  2.49304E-02  2.55369E-02
#           2.61583E-02  2.67947E-02  2.74467E-02  2.81145E-02  2.87985E-02
#           2.94992E-02  3.02169E-02  3.09521E-02  3.17052E-02  3.24766E-02
#           3.32668E-02  3.40762E-02  3.49053E-02  3.57546E-02  3.66246E-02
#           3.75157E-02  3.84284E-02  3.93634E-02  4.03212E-02  4.13022E-02
#           4.23071E-02  4.33365E-02  4.43909E-02  4.54710E-02  4.65773E-02
#           4.77106E-02  4.88714E-02  5.00605E-02  5.12785E-02  5.25262E-02
#           5.38042E-02  5.51133E-02  5.64542E-02  5.78278E-02  5.92348E-02
#           6.06760E-02  6.21523E-02  6.36645E-02  6.52135E-02  6.68002E-02
#           6.84255E-02  7.00904E-02  7.17957E-02  7.35426E-02  7.53319E-02
#           7.71648E-02  7.90423E-02  8.09655E-02  8.29354E-02  8.49533E-02
#           8.70203E-02  8.91376E-02  9.13064E-02  9.35279E-02  9.58035E-02
#           9.81345E-02  1.00522E-01  1.02968E-01  1.05473E-01  1.08040E-01
#           1.10668E-01  1.13361E-01  1.16119E-01  1.18944E-01  1.21838E-01
#           1.24803E-01  1.27839E-01  1.30950E-01  1.34136E-01  1.37399E-01
#           1.40742E-01  1.44167E-01  1.47675E-01  1.51268E-01  1.54948E-01
#           1.58718E-01  1.62580E-01  1.66535E-01  1.70587E-01  1.74738E-01
#           1.78989E-01  1.83344E-01  1.87805E-01  1.92375E-01  1.97055E-01
#           2.01850E-01  2.06761E-01  2.11792E-01  2.16945E-01  2.22223E-01
#           2.27630E-01  2.33169E-01  2.38842E-01  2.44653E-01  2.50605E-01
#           2.56703E-01  2.62949E-01  2.69346E-01  2.75900E-01  2.82613E-01
#           2.89489E-01  2.96532E-01  3.03747E-01  3.11138E-01  3.18708E-01
#           3.26462E-01  3.34405E-01  3.42542E-01  3.50876E-01  3.59413E-01
#           3.68158E-01  3.77116E-01  3.86291E-01  3.95690E-01  4.05317E-01
#           4.15179E-01  4.25281E-01  4.35628E-01  4.46227E-01  4.57084E-01
#           4.68205E-01  4.79597E-01  4.91266E-01  5.03219E-01  5.15463E-01
#           5.28005E-01  5.40851E-01  5.54011E-01  5.67490E-01  5.81298E-01
#           5.95441E-01  6.09929E-01  6.24769E-01  6.39970E-01  6.55541E-01
#           6.71491E-01  6.87828E-01  7.04564E-01  7.21706E-01  7.39266E-01
#           7.57253E-01  7.75678E-01  7.94551E-01  8.13883E-01  8.33685E-01
#           8.53969E-01  8.74747E-01  8.96030E-01  9.17831E-01  9.40163E-01
#           9.63038E-01  9.86469E-01  1.01047E+00  1.03506E+00  1.06024E+00
#           1.08604E+00  1.11246E+00  1.13953E+00  1.16725E+00  1.19565E+00
#           1.22474E+00  1.25454E+00  1.28507E+00  1.31633E+00  1.34836E+00
#           1.38117E+00  1.41477E+00  1.44920E+00  1.48446E+00  1.52057E+00
#           1.55757E+00  1.59547E+00  1.63429E+00  1.67405E+00  1.71478E+00
#           1.75650E+00  1.79924E+00  1.84302E+00  1.88786E+00  1.93379E+00
#           1.98084E+00  2.02904E+00  2.07841E+00  2.12898E+00  2.18078E+00
#           2.23384E+00  2.28819E+00  2.34386E+00  2.40089E+00  2.45930E+00
#           2.51914E+00  2.58043E+00  2.64322E+00  2.70753E+00  2.77341E+00
#           2.84088E+00  2.91001E+00  2.98081E+00  3.05333E+00  3.12762E+00
#           3.20372E+00  3.28167E+00  3.36152E+00  3.44330E+00  3.52708E+00
#           3.61290E+00  3.70080E+00  3.79085E+00  3.88308E+00  3.97756E+00
#           4.07434E+00  4.17347E+00  4.27501E+00  4.37903E+00  4.48557E+00
#           4.59471E+00  4.70650E+00  4.82102E+00  4.93832E+00  5.05847E+00
#           5.18155E+00  5.30762E+00  5.43676E+00  5.56904E+00  5.70453E+00
#           5.84333E+00  5.98550E+00  6.13114E+00  6.28031E+00  6.43312E+00
#           6.58964E+00  6.74997E+00  6.91420E+00  7.08243E+00  7.25475E+00
#           7.43126E+00  7.61207E+00  7.79728E+00  7.98700E+00  8.18133E+00
#           8.38038E+00  8.58428E+00  8.79315E+00  9.00709E+00  9.22624E+00
#           9.45072E+00  9.68067E+00  9.91620E+00  1.01575E+01  1.04046E+01
#           1.06578E+01  1.09171E+01  1.11827E+01  1.14548E+01  1.17335E+01
#           1.20190E+01  1.23114E+01  1.26109E+01  1.29178E+01  1.32321E+01
#           1.35540E+01  1.38838E+01  1.42216E+01  1.45676E+01  1.49221E+01
#           1.52851E+01  1.56570E+01  1.60380E+01  1.64282E+01  1.68279E+01
#           1.72374E+01  1.76568E+01  1.80864E+01  1.85264E+01  1.89772E+01
#           1.94389E+01  1.99119E+01  2.03963E+01  2.08926E+01  2.14009E+01
#           2.19216E+01  2.24550E+01  2.30014E+01  2.35610E+01  2.41343E+01
#           2.47215E+01  2.53230E+01  2.59391E+01  2.65702E+01  2.72167E+01
#           2.78789E+01  2.85572E+01  2.92520E+01  2.99637E+01  3.06928E+01
#           3.14396E+01  3.22045E+01  3.29881E+01  3.37907E+01  3.46128E+01
#           3.54550E+01  3.63177E+01  3.72013E+01  3.81064E+01  3.90336E+01
#           3.99833E+01  4.09561E+01  4.19526E+01  4.29734E+01  4.40189E+01
#           4.50900E+01  4.61870E+01  4.73108E+01  4.84619E+01  4.96410E+01
#           5.08488E+01  5.20860E+01  5.33533E+01  5.46514E+01  5.59812E+01
#           5.73432E+01  5.87384E+01  6.01676E+01  6.16315E+01  6.31311E+01
#           6.46671E+01  6.62405E+01  6.78522E+01  6.95031E+01  7.11941E+01
#           7.29263E+01  7.47007E+01  7.65182E+01  7.83800E+01  8.02870E+01
#           8.22405E+01  8.42414E+01  8.62911E+01  8.83906E+01  9.05412E+01
#           9.27442E+01  9.50007E+01  9.73122E+01  9.96799E+01  1.02105E+02
#           1.04589E+02  1.07134E+02  1.09741E+02  1.12411E+02  1.15146E+02
#           1.17948E+02  1.20817E+02  1.23757E+02  1.26768E+02  1.29852E+02
#           1.33012E+02  1.36248E+02  1.39563E+02  1.42959E+02  1.46437E+02
#           1.50000E+02
     unit =    2            # unit is [1/cm^2/(MeV/n)/source]
     axis =  eng            # axis of output
     file = detector-27.out  # file name of output for the above axis
   output = f-curr          # surface crossing forward current spectrum
     part =  neutron  
# kf/name :  2112     
#    used :        main (  %)        temp (  %)       total (  %)
#  memory :         414 (  0)           0 (  0)         414 (  0)

#------------------------------------------------------------------------------
#newpage:
#   no. =    1   reg = 126 - 226

x: Energy [MeV/n]
y:  F-Curr [1/cm^2/(MeV/n)/source]         
p: xlog ylog afac(0.8) form(0.9)
h: n            x            y(neutron ),hh0l   n 
#  e-lower      e-upper      neutron     r.err 
   1.0000E-02   1.0243E-02   1.9370E-04  0.0648
   1.0243E-02   1.0493E-02   1.7959E-04  0.0664
   1.0493E-02   1.0748E-02   1.7166E-04  0.0672
   1.0748E-02   1.1009E-02   1.8507E-04  0.0641
   1.1009E-02   1.1277E-02   1.4653E-04  0.0709
   1.1277E-02   1.1552E-02   1.4257E-04  0.0713
   1.1552E-02   1.1833E-02   1.5726E-04  0.0671
   1.1833E-02   1.2121E-02   1.3876E-04  0.0705
   1.2121E-02   1.2415E-02   1.4569E-04  0.0680
   1.2415E-02   1.2718E-02   1.3103E-04  0.0706
   1.2718E-02   1.3027E-02   1.4698E-04  0.0660
   1.3027E-02   1.3344E-02   1.4634E-04  0.0653
   1.3344E-02   1.3669E-02   1.3265E-04  0.0679
   1.3669E-02   1.4001E-02   1.2504E-04  0.0690
   1.4001E-02   1.4342E-02   1.2905E-04  0.0671
   1.4342E-02   1.4691E-02   1.1638E-04  0.0698
   1.4691E-02   1.5048E-02   1.2128E-04  0.0675
   1.5048E-02   1.5414E-02   1.2875E-04  0.0648
   1.5414E-02   1.5789E-02   1.2132E-04  0.0661
   1.5789E-02   1.6174E-02   1.0733E-04  0.0694
   1.6174E-02   1.6567E-02   1.1975E-04  0.0649
   1.6567E-02   1.6970E-02   1.0685E-04  0.0679
   1.6970E-02   1.7383E-02   1.0773E-04  0.0668
   1.7383E-02   1.7806E-02   1.0616E-04  0.0664
   1.7806E-02   1.8239E-02   1.0330E-04  0.0666
   1.8239E-02   1.8683E-02   1.0029E-04  0.0668
   1.8683E-02   1.9138E-02   9.8899E-05  0.0664
   1.9138E-02   1.9603E-02   9.9550E-05  0.0653
   1.9603E-02   2.0080E-02   1.0021E-04  0.0644
   2.0080E-02   2.0569E-02   8.6458E-05  0.0684
   2.0569E-02   2.1069E-02   9.4194E-05  0.0647
   2.1069E-02   2.1582E-02   9.8062E-05  0.0630
   2.1582E-02   2.2107E-02   7.6410E-05  0.0702
   2.2107E-02   2.2645E-02   8.5674E-05  0.0657
   2.2645E-02   2.3196E-02   8.3042E-05  0.0658
   2.3196E-02   2.3760E-02   8.5875E-05  0.0640
   2.3760E-02   2.4338E-02   7.8398E-05  0.0662
   2.4338E-02   2.4930E-02   8.4283E-05  0.0630
   2.4930E-02   2.5537E-02   7.9319E-05  0.0641
   2.5537E-02   2.6158E-02   7.4541E-05  0.0655
   2.6158E-02   2.6795E-02   6.7400E-05  0.0680
   2.6795E-02   2.7447E-02   8.7585E-05  0.0588
   2.7447E-02   2.8114E-02   7.1476E-05  0.0644
   2.8114E-02   2.8799E-02   6.2031E-05  0.0684
   2.8799E-02   2.9499E-02   6.7852E-05  0.0646
   2.9499E-02   3.0217E-02   6.4816E-05  0.0653
   3.0217E-02   3.0952E-02   6.1885E-05  0.0660
   3.0952E-02   3.1705E-02   6.1594E-05  0.0654
   3.1705E-02   3.2477E-02   5.6707E-05  0.0674
   3.2477E-02   3.3267E-02   6.3461E-05  0.0629
   3.3267E-02   3.4076E-02   6.4983E-05  0.0613
   3.4076E-02   3.4905E-02   5.5446E-05  0.0656
   3.4905E-02   3.5755E-02   6.2880E-05  0.0611
   3.5755E-02   3.6625E-02   5.6170E-05  0.0638
   3.6625E-02   3.7516E-02   5.0995E-05  0.0658
   3.7516E-02   3.8428E-02   5.7374E-05  0.0614
   3.8428E-02   3.9363E-02   4.7285E-05  0.0668
   3.9363E-02   4.0321E-02   5.2711E-05  0.0626
   4.0321E-02   4.1302E-02   5.4281E-05  0.0611
   4.1302E-02   4.2307E-02   4.5074E-05  0.0661
   4.2307E-02   4.3337E-02   5.0848E-05  0.0615
   4.3337E-02   4.4391E-02   4.3192E-05  0.0660
   4.4391E-02   4.5471E-02   4.6011E-05  0.0630
   4.5471E-02   4.6577E-02   4.4217E-05  0.0635
   4.6577E-02   4.7711E-02   4.3981E-05  0.0630
   4.7711E-02   4.8871E-02   4.4483E-05  0.0619
   4.8871E-02   5.0061E-02   4.1909E-05  0.0628
   5.0061E-02   5.1279E-02   3.6337E-05  0.0669
   5.1279E-02   5.2526E-02   4.2233E-05  0.0614
   5.2526E-02   5.3804E-02   4.2944E-05  0.0599
   5.3804E-02   5.5113E-02   4.0364E-05  0.0614
   5.5113E-02   5.6454E-02   3.9398E-05  0.0613
   5.6454E-02   5.7828E-02   3.4838E-05  0.0644
   5.7828E-02   5.9235E-02   3.5345E-05  0.0632
   5.9235E-02   6.0676E-02   3.4419E-05  0.0631
   6.0676E-02   6.2152E-02   3.4538E-05  0.0623
   6.2152E-02   6.3665E-02   3.2824E-05  0.0631
   6.3665E-02   6.5214E-02   3.1477E-05  0.0638
   6.5214E-02   6.6800E-02   3.2858E-05  0.0615
   6.6800E-02   6.8426E-02   3.1672E-05  0.0621
   6.8426E-02   7.0090E-02   3.3441E-05  0.0597
   7.0090E-02   7.1796E-02   3.1655E-05  0.0606
   7.1796E-02   7.3543E-02   2.9868E-05  0.0617
   7.3543E-02   7.5332E-02   2.6183E-05  0.0651
   7.5332E-02   7.7165E-02   2.8861E-05  0.0612
   7.7165E-02   7.9042E-02   2.8797E-05  0.0604
   7.9042E-02   8.0965E-02   2.7360E-05  0.0613
   8.0965E-02   8.2935E-02   2.6500E-05  0.0616
   8.2935E-02   8.4953E-02   2.4306E-05  0.0636
   8.4953E-02   8.7020E-02   2.5655E-05  0.0611
   8.7020E-02   8.9138E-02   2.5473E-05  0.0605
   8.9138E-02   9.1306E-02   2.1842E-05  0.0646
   9.1306E-02   9.3528E-02   2.4907E-05  0.0598
   9.3528E-02   9.5804E-02   2.3135E-05  0.0613
   9.5804E-02   9.8134E-02   2.2866E-05  0.0610
   9.8134E-02   1.0052E-01   2.3951E-05  0.0589
   1.0052E-01   1.0297E-01   2.0715E-05  0.0626
   1.0297E-01   1.0547E-01   2.0002E-05  0.0630
   1.0547E-01   1.0804E-01   2.0379E-05  0.0616
   1.0804E-01   1.1067E-01   1.9593E-05  0.0619
   1.1067E-01   1.1336E-01   2.0372E-05  0.0600
   1.1336E-01   1.1612E-01   1.9003E-05  0.0614
   1.1612E-01   1.1894E-01   1.9443E-05  0.0601
   1.1894E-01   1.2184E-01   1.7856E-05  0.0619
   1.2184E-01   1.2480E-01   1.8583E-05  0.0599
   1.2480E-01   1.2784E-01   1.9308E-05  0.0583
   1.2784E-01   1.3095E-01   1.6581E-05  0.0618
   1.3095E-01   1.3414E-01   1.7333E-05  0.0599
   1.3414E-01   1.3740E-01   1.6790E-05  0.0601
   1.3740E-01   1.4074E-01   1.6288E-05  0.0603
   1.4074E-01   1.4417E-01   1.5079E-05  0.0619
   1.4417E-01   1.4767E-01   1.6001E-05  0.0595
   1.4767E-01   1.5127E-01   1.4722E-05  0.0610
   1.5127E-01   1.5495E-01   1.5270E-05  0.0595
   1.5495E-01   1.5872E-01   1.4072E-05  0.0611
   1.5872E-01   1.6258E-01   1.4644E-05  0.0591
   1.6258E-01   1.6654E-01   1.3256E-05  0.0613
   1.6654E-01   1.7059E-01   1.3324E-05  0.0605
   1.7059E-01   1.7474E-01   1.2598E-05  0.0615
   1.7474E-01   1.7899E-01   1.2570E-05  0.0608
   1.7899E-01   1.8334E-01   1.1871E-05  0.0618
   1.8334E-01   1.8781E-01   1.3246E-05  0.0578
   1.8781E-01   1.9237E-01   1.2351E-05  0.0594
   1.9237E-01   1.9706E-01   1.2893E-05  0.0572
   1.9706E-01   2.0185E-01   1.1169E-05  0.0607
   2.0185E-01   2.0676E-01   1.1287E-05  0.0597
   2.0676E-01   2.1179E-01   1.2904E-05  0.0552
   2.1179E-01   2.1694E-01   1.2165E-05  0.0560
   2.1694E-01   2.2222E-01   1.2756E-05  0.0542
   2.2222E-01   2.2763E-01   1.4732E-05  0.0499
   2.2763E-01   2.3317E-01   1.2686E-05  0.0531
   2.3317E-01   2.3884E-01   1.4201E-05  0.0496
   2.3884E-01   2.4465E-01   1.4217E-05  0.0489
   2.4465E-01   2.5061E-01   1.4133E-05  0.0485
   2.5061E-01   2.5670E-01   1.5916E-05  0.0451
   2.5670E-01   2.6295E-01   1.7258E-05  0.0429
   2.6295E-01   2.6935E-01   1.6957E-05  0.0427
   2.6935E-01   2.7590E-01   1.7313E-05  0.0417
   2.7590E-01   2.8261E-01   1.7821E-05  0.0407
   2.8261E-01   2.8949E-01   1.8720E-05  0.0391
   2.8949E-01   2.9653E-01   1.9325E-05  0.0381
   2.9653E-01   3.0375E-01   1.9674E-05  0.0373
   3.0375E-01   3.1114E-01   2.0302E-05  0.0363
   3.1114E-01   3.1871E-01   2.0831E-05  0.0354
   3.1871E-01   3.2646E-01   2.1424E-05  0.0345
   3.2646E-01   3.3441E-01   2.3199E-05  0.0328
   3.3441E-01   3.4254E-01   2.1338E-05  0.0337
   3.4254E-01   3.5088E-01   2.3795E-05  0.0315
   3.5088E-01   3.5941E-01   2.3833E-05  0.0312
   3.5941E-01   3.6816E-01   2.2959E-05  0.0313
   3.6816E-01   3.7712E-01   2.4925E-05  0.0297
   3.7712E-01   3.8629E-01   2.5752E-05  0.0289
   3.8629E-01   3.9569E-01   2.6066E-05  0.0284
   3.9569E-01   4.0532E-01   2.6965E-05  0.0276
   4.0532E-01   4.1518E-01   2.7548E-05  0.0270
   4.1518E-01   4.2528E-01   2.7751E-05  0.0265
   4.2528E-01   4.3563E-01   3.0071E-05  0.0252
   4.3563E-01   4.4623E-01   2.9690E-05  0.0251
   4.4623E-01   4.5708E-01   3.0531E-05  0.0244
   4.5708E-01   4.6821E-01   2.9889E-05  0.0244
   4.6821E-01   4.7960E-01   2.9073E-05  0.0244
   4.7960E-01   4.9127E-01   3.1965E-05  0.0230
   4.9127E-01   5.0322E-01   3.1069E-05  0.0231
   5.0322E-01   5.1546E-01   3.3225E-05  0.0220
   5.1546E-01   5.2800E-01   3.1484E-05  0.0224
   5.2800E-01   5.4085E-01   3.2678E-05  0.0217
   5.4085E-01   5.5401E-01   3.3693E-05  0.0211
   5.5401E-01   5.6749E-01   3.3194E-05  0.0210
   5.6749E-01   5.8130E-01   3.3966E-05  0.0205
   5.8130E-01   5.9544E-01   3.5235E-05  0.0199
   5.9544E-01   6.0993E-01   3.6044E-05  0.0194
   6.0993E-01   6.2477E-01   3.3932E-05  0.0198
   6.2477E-01   6.3997E-01   3.5432E-05  0.0191
   6.3997E-01   6.5554E-01   3.5560E-05  0.0188
   6.5554E-01   6.7149E-01   3.6458E-05  0.0184
   6.7149E-01   6.8783E-01   3.6165E-05  0.0182
   6.8783E-01   7.0456E-01   3.6119E-05  0.0180
   7.0456E-01   7.2171E-01   3.6215E-05  0.0178
   7.2171E-01   7.3927E-01   3.5766E-05  0.0177
   7.3927E-01   7.5725E-01   3.5402E-05  0.0175
   7.5725E-01   7.7568E-01   3.7122E-05  0.0169
   7.7568E-01   7.9455E-01   3.6268E-05  0.0169
   7.9455E-01   8.1388E-01   3.6695E-05  0.0166
   8.1388E-01   8.3368E-01   3.6358E-05  0.0165
   8.3368E-01   8.5397E-01   3.5582E-05  0.0165
   8.5397E-01   8.7475E-01   3.5579E-05  0.0163
   8.7475E-01   8.9603E-01   3.5475E-05  0.0161
   8.9603E-01   9.1783E-01   3.5111E-05  0.0160
   9.1783E-01   9.4016E-01   3.4312E-05  0.0160
   9.4016E-01   9.6304E-01   3.5695E-05  0.0155
   9.6304E-01   9.8647E-01   3.4611E-05  0.0155
   9.8647E-01   1.0105E+00   3.4410E-05  0.0154
   1.0105E+00   1.0351E+00   3.3819E-05  0.0153
   1.0351E+00   1.0602E+00   3.2453E-05  0.0155
   1.0602E+00   1.0860E+00   3.2355E-05  0.0153
   1.0860E+00   1.1125E+00   3.2279E-05  0.0152
   1.1125E+00   1.1395E+00   3.1692E-05  0.0151
   1.1395E+00   1.1673E+00   3.1165E-05  0.0151
   1.1673E+00   1.1957E+00   3.1723E-05  0.0147
   1.1957E+00   1.2247E+00   2.9886E-05  0.0150
   1.2247E+00   1.2545E+00   2.9386E-05  0.0149
   1.2545E+00   1.2851E+00   2.9411E-05  0.0148
   1.2851E+00   1.3163E+00   2.8720E-05  0.0148
   1.3163E+00   1.3484E+00   2.7794E-05  0.0148
   1.3484E+00   1.3812E+00   2.7624E-05  0.0147
   1.3812E+00   1.4148E+00   2.6420E-05  0.0148
   1.4148E+00   1.4492E+00   2.6410E-05  0.0147
   1.4492E+00   1.4845E+00   2.5703E-05  0.0147
   1.4845E+00   1.5206E+00   2.5413E-05  0.0146
   1.5206E+00   1.5576E+00   2.5281E-05  0.0145
   1.5576E+00   1.5955E+00   2.4406E-05  0.0145
   1.5955E+00   1.6343E+00   2.3857E-05  0.0145
   1.6343E+00   1.6741E+00   2.2779E-05  0.0147
   1.6741E+00   1.7148E+00   2.2679E-05  0.0145
   1.7148E+00   1.7565E+00   2.1907E-05  0.0146
   1.7565E+00   1.7992E+00   2.1088E-05  0.0147
   1.7992E+00   1.8430E+00   2.1123E-05  0.0145
   1.8430E+00   1.8879E+00   2.0605E-05  0.0145
   1.8879E+00   1.9338E+00   1.9636E-05  0.0147
   1.9338E+00   1.9808E+00   1.9040E-05  0.0147
   1.9808E+00   2.0290E+00   1.8822E-05  0.0146
   2.0290E+00   2.0784E+00   1.8078E-05  0.0148
   2.0784E+00   2.1290E+00   1.7046E-05  0.0150
   2.1290E+00   2.1808E+00   1.7033E-05  0.0149
   2.1808E+00   2.2338E+00   1.6423E-05  0.0150
   2.2338E+00   2.2882E+00   1.6094E-05  0.0149
   2.2882E+00   2.3439E+00   1.5642E-05  0.0149
   2.3439E+00   2.4009E+00   1.5181E-05  0.0150
   2.4009E+00   2.4593E+00   1.4940E-05  0.0149
   2.4593E+00   2.5191E+00   1.4512E-05  0.0150
   2.5191E+00   2.5804E+00   1.4395E-05  0.0148
   2.5804E+00   2.6432E+00   1.3617E-05  0.0151
   2.6432E+00   2.7075E+00   1.3021E-05  0.0152
   2.7075E+00   2.7734E+00   1.2766E-05  0.0152
   2.7734E+00   2.8409E+00   1.2687E-05  0.0151
   2.8409E+00   2.9100E+00   1.2055E-05  0.0153
   2.9100E+00   2.9808E+00   1.1691E-05  0.0153
   2.9808E+00   3.0533E+00   1.1297E-05  0.0154
   3.0533E+00   3.1276E+00   1.1445E-05  0.0151
   3.1276E+00   3.2037E+00   1.0788E-05  0.0154
   3.2037E+00   3.2817E+00   1.0100E-05  0.0157
   3.2817E+00   3.3615E+00   9.9806E-06  0.0156
   3.3615E+00   3.4433E+00   9.6477E-06  0.0157
   3.4433E+00   3.5271E+00   9.5645E-06  0.0156
   3.5271E+00   3.6129E+00   9.2633E-06  0.0156
   3.6129E+00   3.7008E+00   9.0477E-06  0.0156
   3.7008E+00   3.7908E+00   8.7018E-06  0.0158
   3.7908E+00   3.8831E+00   8.2984E-06  0.0159
   3.8831E+00   3.9776E+00   8.4874E-06  0.0156
   3.9776E+00   4.0743E+00   7.7935E-06  0.0160
   4.0743E+00   4.1735E+00   7.9976E-06  0.0157
   4.1735E+00   4.2750E+00   8.0396E-06  0.0154
   4.2750E+00   4.3790E+00   7.5961E-06  0.0157
   4.3790E+00   4.4856E+00   7.6890E-06  0.0154
   4.4856E+00   4.5947E+00   7.5042E-06  0.0155
   4.5947E+00   4.7065E+00   7.5177E-06  0.0152
   4.7065E+00   4.8210E+00   7.2546E-06  0.0153
   4.8210E+00   4.9383E+00   7.2229E-06  0.0152
   4.9383E+00   5.0585E+00   6.8374E-06  0.0154
   5.0585E+00   5.1815E+00   6.6828E-06  0.0154
   5.1815E+00   5.3076E+00   6.5592E-06  0.0154
   5.3076E+00   5.4368E+00   6.3296E-06  0.0155
   5.4368E+00   5.5690E+00   6.2926E-06  0.0154
   5.5690E+00   5.7045E+00   5.9686E-06  0.0156
   5.7045E+00   5.8433E+00   5.7177E-06  0.0157
   5.8433E+00   5.9855E+00   5.3536E-06  0.0161
   5.9855E+00   6.1311E+00   5.1338E-06  0.0162
   6.1311E+00   6.2803E+00   5.0571E-06  0.0161
   6.2803E+00   6.4331E+00   4.7838E-06  0.0164
   6.4331E+00   6.5896E+00   4.7387E-06  0.0163
   6.5896E+00   6.7500E+00   4.4558E-06  0.0166
   6.7500E+00   6.9142E+00   4.2633E-06  0.0168
   6.9142E+00   7.0824E+00   4.1023E-06  0.0169
   7.0824E+00   7.2548E+00   4.1112E-06  0.0167
   7.2548E+00   7.4313E+00   3.7369E-06  0.0173
   7.4313E+00   7.6121E+00   3.6407E-06  0.0173
   7.6121E+00   7.7973E+00   3.4410E-06  0.0176
   7.7973E+00   7.9870E+00   3.3568E-06  0.0176
   7.9870E+00   8.1813E+00   3.1653E-06  0.0180
   8.1813E+00   8.3804E+00   3.0716E-06  0.0180
   8.3804E+00   8.5843E+00   2.9315E-06  0.0182
   8.5843E+00   8.7931E+00   2.6557E-06  0.0189
   8.7931E+00   9.0071E+00   2.6812E-06  0.0186
   9.0071E+00   9.2262E+00   2.5646E-06  0.0188
   9.2262E+00   9.4507E+00   2.4419E-06  0.0191
   9.4507E+00   9.6807E+00   2.3257E-06  0.0193
   9.6807E+00   9.9162E+00   2.1760E-06  0.0197
   9.9162E+00   1.0157E+01   2.1394E-06  0.0196
   1.0157E+01   1.0405E+01   1.9697E-06  0.0202
   1.0405E+01   1.0658E+01   1.8457E-06  0.0207
   1.0658E+01   1.0917E+01   1.7965E-06  0.0207
   1.0917E+01   1.1183E+01   1.6710E-06  0.0212
   1.1183E+01   1.1455E+01   1.6318E-06  0.0212
   1.1455E+01   1.1733E+01   1.5040E-06  0.0218
   1.1733E+01   1.2019E+01   1.4289E-06  0.0221
   1.2019E+01   1.2311E+01   1.3233E-06  0.0227
   1.2311E+01   1.2611E+01   1.2657E-06  0.0230
   1.2611E+01   1.2918E+01   1.1964E-06  0.0233
   1.2918E+01   1.3232E+01   1.1428E-06  0.0236
   1.3232E+01   1.3554E+01   1.0711E-06  0.0241
   1.3554E+01   1.3884E+01   9.9906E-07  0.0246
   1.3884E+01   1.4222E+01   9.2936E-07  0.0252
   1.4222E+01   1.4568E+01   8.8800E-07  0.0255
   1.4568E+01   1.4922E+01   7.8253E-07  0.0268
   1.4922E+01   1.5285E+01   8.0390E-07  0.0262
   1.5285E+01   1.5657E+01   7.0546E-07  0.0276
   1.5657E+01   1.6038E+01   6.3540E-07  0.0287
   1.6038E+01   1.6428E+01   6.4030E-07  0.0283
   1.6428E+01   1.6828E+01   5.8606E-07  0.0292
   1.6828E+01   1.7237E+01   5.1889E-07  0.0307
   1.7237E+01   1.7657E+01   4.9595E-07  0.0310
   1.7657E+01   1.8086E+01   4.5856E-07  0.0319
   1.8086E+01   1.8526E+01   3.9950E-07  0.0337
   1.8526E+01   1.8977E+01   3.6072E-07  0.0351
   1.8977E+01   1.9439E+01   3.4826E-07  0.0353
   1.9439E+01   1.9912E+01   3.2434E-07  0.0361
   1.9912E+01   2.0396E+01   2.9475E-07  0.0374
   2.0396E+01   2.0893E+01   2.9057E-07  0.0372
   2.0893E+01   2.1401E+01   2.4354E-07  0.0402
   2.1401E+01   2.1922E+01   2.1932E-07  0.0418
   2.1922E+01   2.2455E+01   2.0811E-07  0.0424
   2.2455E+01   2.3001E+01   1.7425E-07  0.0458
   2.3001E+01   2.3561E+01   1.5653E-07  0.0478
   2.3561E+01   2.4134E+01   1.4339E-07  0.0493
   2.4134E+01   2.4721E+01   1.1751E-07  0.0538
   2.4721E+01   2.5323E+01   9.9752E-08  0.0577
   2.5323E+01   2.5939E+01   8.1152E-08  0.0632
   2.5939E+01   2.6570E+01   8.1126E-08  0.0625
   2.6570E+01   2.7217E+01   6.9608E-08  0.0667
   2.7217E+01   2.7879E+01   5.9498E-08  0.0712
   2.7879E+01   2.8557E+01   5.3073E-08  0.0745
   2.8557E+01   2.9252E+01   3.6844E-08  0.0884
   2.9252E+01   2.9964E+01   3.5407E-08  0.0891
   2.9964E+01   3.0693E+01   3.1000E-08  0.0941
   3.0693E+01   3.1440E+01   2.3568E-08  0.1066
   3.1440E+01   3.2205E+01   2.0655E-08  0.1125
   3.2205E+01   3.2988E+01   1.7357E-08  0.1213
   3.2988E+01   3.3791E+01   1.4203E-08  0.1325
   3.3791E+01   3.4613E+01   1.2650E-08  0.1387
   3.4613E+01   3.5455E+01   8.7869E-09  0.1644
   3.5455E+01   3.6318E+01   9.0419E-09  0.1601
   3.6318E+01   3.7201E+01   5.4321E-09  0.2041
   3.7201E+01   3.8106E+01   3.5354E-09  0.2500
   3.8106E+01   3.9034E+01   4.7457E-09  0.2132
   3.9034E+01   3.9983E+01   3.7906E-09  0.2357
   3.9983E+01   4.0956E+01   3.2894E-09  0.2500
   4.0956E+01   4.1953E+01   1.6056E-09  0.3536
   4.1953E+01   4.2973E+01   1.3716E-09  0.3780
   4.2973E+01   4.4019E+01   7.6513E-10  0.5000
   4.4019E+01   4.5090E+01   7.4695E-10  0.5000
   4.5090E+01   4.6187E+01   5.4691E-10  0.5774
   4.6187E+01   4.7311E+01   5.3392E-10  0.5774
   4.7311E+01   4.8462E+01   3.4749E-10  0.7071
   4.8462E+01   4.9641E+01   3.3924E-10  0.7071
   4.9641E+01   5.0849E+01   0.0000E+00  0.0000
   5.0849E+01   5.2086E+01   0.0000E+00  0.0000
   5.2086E+01   5.3353E+01   1.5782E-10  1.0000
   5.3353E+01   5.4651E+01   3.0814E-10  0.7071
   5.4651E+01   5.5981E+01   0.0000E+00  0.0000
   5.5981E+01   5.7343E+01   0.0000E+00  0.0000
   5.7343E+01   5.8738E+01   0.0000E+00  0.0000
   5.8738E+01   6.0168E+01   1.3994E-10  1.0000
   6.0168E+01   6.1632E+01   0.0000E+00  0.0000
   6.1632E+01   6.3131E+01   0.0000E+00  0.0000
   6.3131E+01   6.4667E+01   0.0000E+00  0.0000
   6.4667E+01   6.6240E+01   0.0000E+00  0.0000
   6.6240E+01   6.7852E+01   0.0000E+00  0.0000
   6.7852E+01   6.9503E+01   0.0000E+00  0.0000
   6.9503E+01   7.1194E+01   0.0000E+00  0.0000
   7.1194E+01   7.2926E+01   0.0000E+00  0.0000
   7.2926E+01   7.4701E+01   0.0000E+00  0.0000
   7.4701E+01   7.6518E+01   0.0000E+00  0.0000
   7.6518E+01   7.8380E+01   0.0000E+00  0.0000
   7.8380E+01   8.0287E+01   0.0000E+00  0.0000
   8.0287E+01   8.2240E+01   0.0000E+00  0.0000
   8.2240E+01   8.4241E+01   0.0000E+00  0.0000
   8.4241E+01   8.6291E+01   0.0000E+00  0.0000
   8.6291E+01   8.8391E+01   0.0000E+00  0.0000
   8.8391E+01   9.0541E+01   0.0000E+00  0.0000
   9.0541E+01   9.2744E+01   0.0000E+00  0.0000
   9.2744E+01   9.5001E+01   0.0000E+00  0.0000
   9.5001E+01   9.7312E+01   0.0000E+00  0.0000
   9.7312E+01   9.9680E+01   0.0000E+00  0.0000
   9.9680E+01   1.0211E+02   0.0000E+00  0.0000
   1.0211E+02   1.0459E+02   0.0000E+00  0.0000
   1.0459E+02   1.0713E+02   0.0000E+00  0.0000
   1.0713E+02   1.0974E+02   0.0000E+00  0.0000
   1.0974E+02   1.1241E+02   0.0000E+00  0.0000
   1.1241E+02   1.1515E+02   0.0000E+00  0.0000
   1.1515E+02   1.1795E+02   0.0000E+00  0.0000
   1.1795E+02   1.2082E+02   0.0000E+00  0.0000
   1.2082E+02   1.2376E+02   0.0000E+00  0.0000
   1.2376E+02   1.2677E+02   0.0000E+00  0.0000
   1.2677E+02   1.2985E+02   0.0000E+00  0.0000
   1.2985E+02   1.3301E+02   0.0000E+00  0.0000
   1.3301E+02   1.3625E+02   0.0000E+00  0.0000
   1.3625E+02   1.3956E+02   0.0000E+00  0.0000
   1.3956E+02   1.4296E+02   0.0000E+00  0.0000
   1.4296E+02   1.4644E+02   0.0000E+00  0.0000
   1.4644E+02   1.5000E+02   0.0000E+00  0.0000

#   sum over                 7.8823E-07
'no. =    1   reg = 126 - 226'
msuc: {\huge [t-cross] in region mesh}
msdr: {\it plotted by \ANGEL \version}
msdl: {\it calculated by \PHITS  3.28}
wt: s(0.7)
\vspace{-3}
  region surface crossing
  area  &=&   1.0000E+00 [cm^2]
e:
 
# Information for Restart Calculation
# This calculation was newly started
# istdev =  2 # 1:Batch variance, 2:History variance
# resc2  = 5.00000000000000000E+09 # Total source weight or Total source weight / maxcas
# resc3  = 5.00000000000000000E+09 # Total history number or Total batch number
# maxcas =   500000000 # History / Batch, only used for istdev=1
# bitrseed = 0110100000100010111000001110001111001110100100011111101000111001 # bit data of rseed
