[ T-Cross ]
    title = [t-cross] in region mesh
     mesh =  reg            # mesh type is region-wise
      reg =    1            # number of crossing regions
      non     r-from    r-to       area
      1       100       200        1.000000    
   e-type =    3            # e-mesh is log given by emin, emax and ne
     emin =  1.0000000E-02  # minimum value of e-mesh points
     emax =   150.0000      # maximum value of e-mesh points
#    edel =  2.4039514E-02  # mesh width of e-mesh points
       ne =    400          # number of e-mesh points
#    data = ( e(i), i = 1, ne + 1 )
#           1.00000E-02  1.02433E-02  1.04925E-02  1.07478E-02  1.10093E-02
#           1.12772E-02  1.15516E-02  1.18326E-02  1.21205E-02  1.24154E-02
#           1.27175E-02  1.30269E-02  1.33439E-02  1.36686E-02  1.40011E-02
#           1.43418E-02  1.46907E-02  1.50482E-02  1.54143E-02  1.57894E-02
#           1.61735E-02  1.65670E-02  1.69701E-02  1.73830E-02  1.78060E-02
#           1.82392E-02  1.86830E-02  1.91375E-02  1.96032E-02  2.00801E-02
#           2.05687E-02  2.10692E-02  2.15818E-02  2.21069E-02  2.26448E-02
#           2.31957E-02  2.37601E-02  2.43382E-02  2.49304E-02  2.55369E-02
#           2.61583E-02  2.67947E-02  2.74467E-02  2.81145E-02  2.87985E-02
#           2.94992E-02  3.02169E-02  3.09521E-02  3.17052E-02  3.24766E-02
#           3.32668E-02  3.40762E-02  3.49053E-02  3.57546E-02  3.66246E-02
#           3.75157E-02  3.84284E-02  3.93634E-02  4.03212E-02  4.13022E-02
#           4.23071E-02  4.33365E-02  4.43909E-02  4.54710E-02  4.65773E-02
#           4.77106E-02  4.88714E-02  5.00605E-02  5.12785E-02  5.25262E-02
#           5.38042E-02  5.51133E-02  5.64542E-02  5.78278E-02  5.92348E-02
#           6.06760E-02  6.21523E-02  6.36645E-02  6.52135E-02  6.68002E-02
#           6.84255E-02  7.00904E-02  7.17957E-02  7.35426E-02  7.53319E-02
#           7.71648E-02  7.90423E-02  8.09655E-02  8.29354E-02  8.49533E-02
#           8.70203E-02  8.91376E-02  9.13064E-02  9.35279E-02  9.58035E-02
#           9.81345E-02  1.00522E-01  1.02968E-01  1.05473E-01  1.08040E-01
#           1.10668E-01  1.13361E-01  1.16119E-01  1.18944E-01  1.21838E-01
#           1.24803E-01  1.27839E-01  1.30950E-01  1.34136E-01  1.37399E-01
#           1.40742E-01  1.44167E-01  1.47675E-01  1.51268E-01  1.54948E-01
#           1.58718E-01  1.62580E-01  1.66535E-01  1.70587E-01  1.74738E-01
#           1.78989E-01  1.83344E-01  1.87805E-01  1.92375E-01  1.97055E-01
#           2.01850E-01  2.06761E-01  2.11792E-01  2.16945E-01  2.22223E-01
#           2.27630E-01  2.33169E-01  2.38842E-01  2.44653E-01  2.50605E-01
#           2.56703E-01  2.62949E-01  2.69346E-01  2.75900E-01  2.82613E-01
#           2.89489E-01  2.96532E-01  3.03747E-01  3.11138E-01  3.18708E-01
#           3.26462E-01  3.34405E-01  3.42542E-01  3.50876E-01  3.59413E-01
#           3.68158E-01  3.77116E-01  3.86291E-01  3.95690E-01  4.05317E-01
#           4.15179E-01  4.25281E-01  4.35628E-01  4.46227E-01  4.57084E-01
#           4.68205E-01  4.79597E-01  4.91266E-01  5.03219E-01  5.15463E-01
#           5.28005E-01  5.40851E-01  5.54011E-01  5.67490E-01  5.81298E-01
#           5.95441E-01  6.09929E-01  6.24769E-01  6.39970E-01  6.55541E-01
#           6.71491E-01  6.87828E-01  7.04564E-01  7.21706E-01  7.39266E-01
#           7.57253E-01  7.75678E-01  7.94551E-01  8.13883E-01  8.33685E-01
#           8.53969E-01  8.74747E-01  8.96030E-01  9.17831E-01  9.40163E-01
#           9.63038E-01  9.86469E-01  1.01047E+00  1.03506E+00  1.06024E+00
#           1.08604E+00  1.11246E+00  1.13953E+00  1.16725E+00  1.19565E+00
#           1.22474E+00  1.25454E+00  1.28507E+00  1.31633E+00  1.34836E+00
#           1.38117E+00  1.41477E+00  1.44920E+00  1.48446E+00  1.52057E+00
#           1.55757E+00  1.59547E+00  1.63429E+00  1.67405E+00  1.71478E+00
#           1.75650E+00  1.79924E+00  1.84302E+00  1.88786E+00  1.93379E+00
#           1.98084E+00  2.02904E+00  2.07841E+00  2.12898E+00  2.18078E+00
#           2.23384E+00  2.28819E+00  2.34386E+00  2.40089E+00  2.45930E+00
#           2.51914E+00  2.58043E+00  2.64322E+00  2.70753E+00  2.77341E+00
#           2.84088E+00  2.91001E+00  2.98081E+00  3.05333E+00  3.12762E+00
#           3.20372E+00  3.28167E+00  3.36152E+00  3.44330E+00  3.52708E+00
#           3.61290E+00  3.70080E+00  3.79085E+00  3.88308E+00  3.97756E+00
#           4.07434E+00  4.17347E+00  4.27501E+00  4.37903E+00  4.48557E+00
#           4.59471E+00  4.70650E+00  4.82102E+00  4.93832E+00  5.05847E+00
#           5.18155E+00  5.30762E+00  5.43676E+00  5.56904E+00  5.70453E+00
#           5.84333E+00  5.98550E+00  6.13114E+00  6.28031E+00  6.43312E+00
#           6.58964E+00  6.74997E+00  6.91420E+00  7.08243E+00  7.25475E+00
#           7.43126E+00  7.61207E+00  7.79728E+00  7.98700E+00  8.18133E+00
#           8.38038E+00  8.58428E+00  8.79315E+00  9.00709E+00  9.22624E+00
#           9.45072E+00  9.68067E+00  9.91620E+00  1.01575E+01  1.04046E+01
#           1.06578E+01  1.09171E+01  1.11827E+01  1.14548E+01  1.17335E+01
#           1.20190E+01  1.23114E+01  1.26109E+01  1.29178E+01  1.32321E+01
#           1.35540E+01  1.38838E+01  1.42216E+01  1.45676E+01  1.49221E+01
#           1.52851E+01  1.56570E+01  1.60380E+01  1.64282E+01  1.68279E+01
#           1.72374E+01  1.76568E+01  1.80864E+01  1.85264E+01  1.89772E+01
#           1.94389E+01  1.99119E+01  2.03963E+01  2.08926E+01  2.14009E+01
#           2.19216E+01  2.24550E+01  2.30014E+01  2.35610E+01  2.41343E+01
#           2.47215E+01  2.53230E+01  2.59391E+01  2.65702E+01  2.72167E+01
#           2.78789E+01  2.85572E+01  2.92520E+01  2.99637E+01  3.06928E+01
#           3.14396E+01  3.22045E+01  3.29881E+01  3.37907E+01  3.46128E+01
#           3.54550E+01  3.63177E+01  3.72013E+01  3.81064E+01  3.90336E+01
#           3.99833E+01  4.09561E+01  4.19526E+01  4.29734E+01  4.40189E+01
#           4.50900E+01  4.61870E+01  4.73108E+01  4.84619E+01  4.96410E+01
#           5.08488E+01  5.20860E+01  5.33533E+01  5.46514E+01  5.59812E+01
#           5.73432E+01  5.87384E+01  6.01676E+01  6.16315E+01  6.31311E+01
#           6.46671E+01  6.62405E+01  6.78522E+01  6.95031E+01  7.11941E+01
#           7.29263E+01  7.47007E+01  7.65182E+01  7.83800E+01  8.02870E+01
#           8.22405E+01  8.42414E+01  8.62911E+01  8.83906E+01  9.05412E+01
#           9.27442E+01  9.50007E+01  9.73122E+01  9.96799E+01  1.02105E+02
#           1.04589E+02  1.07134E+02  1.09741E+02  1.12411E+02  1.15146E+02
#           1.17948E+02  1.20817E+02  1.23757E+02  1.26768E+02  1.29852E+02
#           1.33012E+02  1.36248E+02  1.39563E+02  1.42959E+02  1.46437E+02
#           1.50000E+02
     unit =    2            # unit is [1/cm^2/(MeV/n)/source]
     axis =  eng            # axis of output
     file = detector-01.out  # file name of output for the above axis
   output = f-curr          # surface crossing forward current spectrum
     part =  neutron  
# kf/name :  2112     
#    used :        main (  %)        temp (  %)       total (  %)
#  memory :         414 (  0)           0 (  0)         414 (  0)

#------------------------------------------------------------------------------
#newpage:
#   no. =    1   reg = 100 - 200

x: Energy [MeV/n]
y:  F-Curr [1/cm^2/(MeV/n)/source]         
p: xlog ylog afac(0.8) form(0.9)
h: n            x            y(neutron ),hh0l   n 
#  e-lower      e-upper      neutron     r.err 
   1.0000E-02   1.0243E-02   2.3608E-04  0.0586
   1.0243E-02   1.0493E-02   2.3215E-04  0.0584
   1.0493E-02   1.0748E-02   2.0579E-04  0.0613
   1.0748E-02   1.1009E-02   2.2493E-04  0.0579
   1.1009E-02   1.1277E-02   1.9879E-04  0.0610
   1.1277E-02   1.1552E-02   2.2033E-04  0.0572
   1.1552E-02   1.1833E-02   1.9699E-04  0.0597
   1.1833E-02   1.2121E-02   2.0171E-04  0.0583
   1.2121E-02   1.2415E-02   1.9964E-04  0.0579
   1.2415E-02   1.2718E-02   1.8843E-04  0.0589
   1.2718E-02   1.3027E-02   1.9726E-04  0.0570
   1.3027E-02   1.3344E-02   1.9267E-04  0.0568
   1.3344E-02   1.3669E-02   1.8330E-04  0.0577
   1.3669E-02   1.4001E-02   1.7977E-04  0.0573
   1.4001E-02   1.4342E-02   1.5288E-04  0.0616
   1.4342E-02   1.4691E-02   1.6047E-04  0.0592
   1.4691E-02   1.5048E-02   1.7373E-04  0.0563
   1.5048E-02   1.5414E-02   1.6383E-04  0.0572
   1.5414E-02   1.5789E-02   1.5994E-04  0.0575
   1.5789E-02   1.6174E-02   1.4525E-04  0.0594
   1.6174E-02   1.6567E-02   1.4468E-04  0.0590
   1.6567E-02   1.6970E-02   1.4263E-04  0.0586
   1.6970E-02   1.7383E-02   1.4714E-04  0.0568
   1.7383E-02   1.7806E-02   1.3720E-04  0.0583
   1.7806E-02   1.8239E-02   1.4703E-04  0.0557
   1.8239E-02   1.8683E-02   1.4046E-04  0.0565
   1.8683E-02   1.9138E-02   1.3723E-04  0.0562
   1.9138E-02   1.9603E-02   1.3064E-04  0.0570
   1.9603E-02   2.0080E-02   1.3060E-04  0.0563
   2.0080E-02   2.0569E-02   1.2879E-04  0.0560
   2.0569E-02   2.1069E-02   1.2001E-04  0.0574
   2.1069E-02   2.1582E-02   1.2687E-04  0.0553
   2.1582E-02   2.2107E-02   1.1195E-04  0.0581
   2.2107E-02   2.2645E-02   1.1912E-04  0.0555
   2.2645E-02   2.3196E-02   1.2342E-04  0.0539
   2.3196E-02   2.3760E-02   1.1078E-04  0.0562
   2.3760E-02   2.4338E-02   1.1193E-04  0.0553
   2.4338E-02   2.4930E-02   1.1268E-04  0.0543
   2.4930E-02   2.5537E-02   1.0540E-04  0.0556
   2.5537E-02   2.6158E-02   9.8270E-05  0.0568
   2.6158E-02   2.6795E-02   1.0534E-04  0.0542
   2.6795E-02   2.7447E-02   9.3790E-05  0.0568
   2.7447E-02   2.8114E-02   9.7300E-05  0.0552
   2.8114E-02   2.8799E-02   9.6589E-05  0.0547
   2.8799E-02   2.9499E-02   9.4079E-05  0.0549
   2.9499E-02   3.0217E-02   8.3562E-05  0.0572
   3.0217E-02   3.0952E-02   9.2785E-05  0.0538
   3.0952E-02   3.1705E-02   9.4899E-05  0.0527
   3.1705E-02   3.2477E-02   8.3894E-05  0.0552
   3.2477E-02   3.3267E-02   8.0460E-05  0.0558
   3.3267E-02   3.4076E-02   8.6749E-05  0.0531
   3.4076E-02   3.4905E-02   8.2114E-05  0.0539
   3.4905E-02   3.5755E-02   8.6615E-05  0.0518
   3.5755E-02   3.6625E-02   7.7153E-05  0.0542
   3.6625E-02   3.7516E-02   7.7561E-05  0.0533
   3.7516E-02   3.8428E-02   7.4390E-05  0.0539
   3.8428E-02   3.9363E-02   7.4781E-05  0.0532
   3.9363E-02   4.0321E-02   6.8423E-05  0.0549
   4.0321E-02   4.1302E-02   7.2746E-05  0.0526
   4.1302E-02   4.2307E-02   7.0928E-05  0.0526
   4.2307E-02   4.3337E-02   6.7075E-05  0.0534
   4.3337E-02   4.4391E-02   6.8395E-05  0.0524
   4.4391E-02   4.5471E-02   6.1418E-05  0.0545
   4.5471E-02   4.6577E-02   6.1511E-05  0.0538
   4.6577E-02   4.7711E-02   6.5710E-05  0.0515
   4.7711E-02   4.8871E-02   6.2461E-05  0.0521
   4.8871E-02   5.0061E-02   5.5632E-05  0.0546
   5.0061E-02   5.1279E-02   6.0607E-05  0.0517
   5.1279E-02   5.2526E-02   6.1214E-05  0.0510
   5.2526E-02   5.3804E-02   5.1344E-05  0.0548
   5.3804E-02   5.5113E-02   5.4578E-05  0.0524
   5.5113E-02   5.6454E-02   5.2470E-05  0.0530
   5.6454E-02   5.7828E-02   5.2972E-05  0.0522
   5.7828E-02   5.9235E-02   5.4694E-05  0.0507
   5.9235E-02   6.0676E-02   4.6728E-05  0.0542
   6.0676E-02   6.2152E-02   4.6862E-05  0.0533
   6.2152E-02   6.3665E-02   4.6287E-05  0.0530
   6.3665E-02   6.5214E-02   4.8250E-05  0.0515
   6.5214E-02   6.6800E-02   4.9620E-05  0.0501
   6.6800E-02   6.8426E-02   4.5640E-05  0.0516
   6.8426E-02   7.0090E-02   4.5374E-05  0.0512
   7.0090E-02   7.1796E-02   4.8096E-05  0.0491
   7.1796E-02   7.3543E-02   4.3700E-05  0.0509
   7.3543E-02   7.5332E-02   3.8983E-05  0.0531
   7.5332E-02   7.7165E-02   4.0573E-05  0.0514
   7.7165E-02   7.9042E-02   3.8344E-05  0.0524
   7.9042E-02   8.0965E-02   4.2122E-05  0.0493
   8.0965E-02   8.2935E-02   3.7474E-05  0.0517
   8.2935E-02   8.4953E-02   3.8059E-05  0.0507
   8.4953E-02   8.7020E-02   3.4352E-05  0.0527
   8.7020E-02   8.9138E-02   3.6377E-05  0.0506
   8.9138E-02   9.1306E-02   3.5552E-05  0.0506
   9.1306E-02   9.3528E-02   3.5714E-05  0.0499
   9.3528E-02   9.5804E-02   3.5062E-05  0.0498
   9.5804E-02   9.8134E-02   3.6092E-05  0.0484
   9.8134E-02   1.0052E-01   3.1965E-05  0.0508
   1.0052E-01   1.0297E-01   3.1314E-05  0.0507
   1.0297E-01   1.0547E-01   3.0640E-05  0.0507
   1.0547E-01   1.0804E-01   3.1854E-05  0.0492
   1.0804E-01   1.1067E-01   3.0082E-05  0.0500
   1.1067E-01   1.1336E-01   3.2061E-05  0.0478
   1.1336E-01   1.1612E-01   3.1800E-05  0.0475
   1.1612E-01   1.1894E-01   2.7839E-05  0.0502
   1.1894E-01   1.2184E-01   2.9873E-05  0.0478
   1.2184E-01   1.2480E-01   2.6164E-05  0.0505
   1.2480E-01   1.2784E-01   2.5211E-05  0.0508
   1.2784E-01   1.3095E-01   2.5350E-05  0.0500
   1.3095E-01   1.3414E-01   2.5364E-05  0.0495
   1.3414E-01   1.3740E-01   2.2837E-05  0.0514
   1.3740E-01   1.4074E-01   2.3246E-05  0.0504
   1.4074E-01   1.4417E-01   2.4459E-05  0.0485
   1.4417E-01   1.4767E-01   2.3441E-05  0.0490
   1.4767E-01   1.5127E-01   2.3916E-05  0.0478
   1.5127E-01   1.5495E-01   2.0866E-05  0.0507
   1.5495E-01   1.5872E-01   2.0817E-05  0.0501
   1.5872E-01   1.6258E-01   2.1123E-05  0.0492
   1.6258E-01   1.6654E-01   2.1100E-05  0.0487
   1.6654E-01   1.7059E-01   2.1375E-05  0.0477
   1.7059E-01   1.7474E-01   2.2205E-05  0.0464
   1.7474E-01   1.7899E-01   2.0064E-05  0.0481
   1.7899E-01   1.8334E-01   1.9315E-05  0.0484
   1.8334E-01   1.8781E-01   1.9718E-05  0.0473
   1.8781E-01   1.9237E-01   1.8913E-05  0.0479
   1.9237E-01   1.9706E-01   1.8924E-05  0.0473
   1.9706E-01   2.0185E-01   1.8559E-05  0.0471
   2.0185E-01   2.0676E-01   1.8897E-05  0.0462
   2.0676E-01   2.1179E-01   1.8825E-05  0.0456
   2.1179E-01   2.1694E-01   1.9455E-05  0.0444
   2.1694E-01   2.2222E-01   2.0304E-05  0.0430
   2.2222E-01   2.2763E-01   2.1292E-05  0.0414
   2.2763E-01   2.3317E-01   2.2728E-05  0.0396
   2.3317E-01   2.3884E-01   2.1763E-05  0.0400
   2.3884E-01   2.4465E-01   2.4401E-05  0.0373
   2.4465E-01   2.5061E-01   2.3905E-05  0.0373
   2.5061E-01   2.5670E-01   2.6543E-05  0.0349
   2.5670E-01   2.6295E-01   2.7314E-05  0.0340
   2.6295E-01   2.6935E-01   2.5764E-05  0.0346
   2.6935E-01   2.7590E-01   2.7434E-05  0.0331
   2.7590E-01   2.8261E-01   2.7560E-05  0.0327
   2.8261E-01   2.8949E-01   2.9387E-05  0.0312
   2.8949E-01   2.9653E-01   2.8795E-05  0.0312
   2.9653E-01   3.0375E-01   2.9536E-05  0.0304
   3.0375E-01   3.1114E-01   3.0013E-05  0.0298
   3.1114E-01   3.1871E-01   3.3666E-05  0.0278
   3.1871E-01   3.2646E-01   3.2535E-05  0.0280
   3.2646E-01   3.3441E-01   3.4827E-05  0.0267
   3.3441E-01   3.4254E-01   3.5799E-05  0.0260
   3.4254E-01   3.5088E-01   3.6515E-05  0.0255
   3.5088E-01   3.5941E-01   3.6455E-05  0.0252
   3.5941E-01   3.6816E-01   3.7146E-05  0.0247
   3.6816E-01   3.7712E-01   3.6259E-05  0.0246
   3.7712E-01   3.8629E-01   4.0076E-05  0.0232
   3.8629E-01   3.9569E-01   4.1115E-05  0.0226
   3.9569E-01   4.0532E-01   4.1804E-05  0.0221
   4.0532E-01   4.1518E-01   4.2607E-05  0.0217
   4.1518E-01   4.2528E-01   4.4587E-05  0.0209
   4.2528E-01   4.3563E-01   4.4438E-05  0.0207
   4.3563E-01   4.4623E-01   4.5983E-05  0.0201
   4.4623E-01   4.5708E-01   4.7284E-05  0.0196
   4.5708E-01   4.6821E-01   4.7425E-05  0.0193
   4.6821E-01   4.7960E-01   4.8908E-05  0.0188
   4.7960E-01   4.9127E-01   4.8341E-05  0.0187
   4.9127E-01   5.0322E-01   5.0964E-05  0.0180
   5.0322E-01   5.1546E-01   5.0412E-05  0.0179
   5.1546E-01   5.2800E-01   5.3523E-05  0.0171
   5.2800E-01   5.4085E-01   5.1852E-05  0.0172
   5.4085E-01   5.5401E-01   5.3895E-05  0.0167
   5.5401E-01   5.6749E-01   5.4734E-05  0.0164
   5.6749E-01   5.8130E-01   5.6000E-05  0.0160
   5.8130E-01   5.9544E-01   5.5201E-05  0.0159
   5.9544E-01   6.0993E-01   5.7270E-05  0.0154
   6.0993E-01   6.2477E-01   5.8741E-05  0.0150
   6.2477E-01   6.3997E-01   5.8898E-05  0.0148
   6.3997E-01   6.5554E-01   5.7955E-05  0.0148
   6.5554E-01   6.7149E-01   5.9408E-05  0.0144
   6.7149E-01   6.8783E-01   5.9612E-05  0.0142
   6.8783E-01   7.0456E-01   6.1358E-05  0.0139
   7.0456E-01   7.2171E-01   6.1499E-05  0.0137
   7.2171E-01   7.3927E-01   6.0963E-05  0.0136
   7.3927E-01   7.5725E-01   6.1908E-05  0.0133
   7.5725E-01   7.7568E-01   6.0677E-05  0.0133
   7.7568E-01   7.9455E-01   6.1791E-05  0.0130
   7.9455E-01   8.1388E-01   6.4470E-05  0.0126
   8.1388E-01   8.3368E-01   6.4257E-05  0.0125
   8.3368E-01   8.5397E-01   6.3045E-05  0.0124
   8.5397E-01   8.7475E-01   6.5255E-05  0.0121
   8.7475E-01   8.9603E-01   6.3322E-05  0.0121
   8.9603E-01   9.1783E-01   6.3912E-05  0.0119
   9.1783E-01   9.4016E-01   6.6568E-05  0.0115
   9.4016E-01   9.6304E-01   6.7757E-05  0.0113
   9.6304E-01   9.8647E-01   6.6469E-05  0.0112
   9.8647E-01   1.0105E+00   6.5058E-05  0.0112
   1.0105E+00   1.0351E+00   6.6449E-05  0.0110
   1.0351E+00   1.0602E+00   6.7485E-05  0.0108
   1.0602E+00   1.0860E+00   6.6247E-05  0.0107
   1.0860E+00   1.1125E+00   6.4797E-05  0.0107
   1.1125E+00   1.1395E+00   6.4483E-05  0.0106
   1.1395E+00   1.1673E+00   6.4720E-05  0.0105
   1.1673E+00   1.1957E+00   6.5745E-05  0.0103
   1.1957E+00   1.2247E+00   6.6588E-05  0.0101
   1.2247E+00   1.2545E+00   6.5999E-05  0.0100
   1.2545E+00   1.2851E+00   6.4868E-05  0.0100
   1.2851E+00   1.3163E+00   6.4326E-05  0.0099
   1.3163E+00   1.3484E+00   6.4291E-05  0.0098
   1.3484E+00   1.3812E+00   6.4315E-05  0.0097
   1.3812E+00   1.4148E+00   6.4726E-05  0.0095
   1.4148E+00   1.4492E+00   6.4833E-05  0.0094
   1.4492E+00   1.4845E+00   6.4647E-05  0.0093
   1.4845E+00   1.5206E+00   6.4956E-05  0.0092
   1.5206E+00   1.5576E+00   6.4927E-05  0.0090
   1.5576E+00   1.5955E+00   6.3385E-05  0.0091
   1.5955E+00   1.6343E+00   6.2645E-05  0.0090
   1.6343E+00   1.6741E+00   6.2374E-05  0.0089
   1.6741E+00   1.7148E+00   6.2058E-05  0.0088
   1.7148E+00   1.7565E+00   6.1639E-05  0.0087
   1.7565E+00   1.7992E+00   6.1874E-05  0.0086
   1.7992E+00   1.8430E+00   6.1023E-05  0.0086
   1.8430E+00   1.8879E+00   6.0832E-05  0.0085
   1.8879E+00   1.9338E+00   6.0357E-05  0.0084
   1.9338E+00   1.9808E+00   6.0464E-05  0.0083
   1.9808E+00   2.0290E+00   6.0152E-05  0.0082
   2.0290E+00   2.0784E+00   5.8862E-05  0.0082
   2.0784E+00   2.1290E+00   5.8620E-05  0.0081
   2.1290E+00   2.1808E+00   5.6981E-05  0.0082
   2.1808E+00   2.2338E+00   5.7012E-05  0.0081
   2.2338E+00   2.2882E+00   5.6720E-05  0.0080
   2.2882E+00   2.3439E+00   5.5972E-05  0.0079
   2.3439E+00   2.4009E+00   5.5251E-05  0.0079
   2.4009E+00   2.4593E+00   5.5967E-05  0.0078
   2.4593E+00   2.5191E+00   5.5877E-05  0.0077
   2.5191E+00   2.5804E+00   5.4808E-05  0.0077
   2.5804E+00   2.6432E+00   5.3741E-05  0.0076
   2.6432E+00   2.7075E+00   5.4418E-05  0.0075
   2.7075E+00   2.7734E+00   5.3813E-05  0.0075
   2.7734E+00   2.8409E+00   5.2779E-05  0.0074
   2.8409E+00   2.9100E+00   5.1607E-05  0.0074
   2.9100E+00   2.9808E+00   5.1369E-05  0.0074
   2.9808E+00   3.0533E+00   5.1815E-05  0.0072
   3.0533E+00   3.1276E+00   5.0668E-05  0.0072
   3.1276E+00   3.2037E+00   4.9555E-05  0.0072
   3.2037E+00   3.2817E+00   5.0008E-05  0.0071
   3.2817E+00   3.3615E+00   4.8404E-05  0.0071
   3.3615E+00   3.4433E+00   4.7563E-05  0.0071
   3.4433E+00   3.5271E+00   4.7146E-05  0.0071
   3.5271E+00   3.6129E+00   4.6929E-05  0.0070
   3.6129E+00   3.7008E+00   4.5894E-05  0.0070
   3.7008E+00   3.7908E+00   4.5162E-05  0.0070
   3.7908E+00   3.8831E+00   4.4267E-05  0.0070
   3.8831E+00   3.9776E+00   4.3809E-05  0.0069
   3.9776E+00   4.0743E+00   4.3583E-05  0.0068
   4.0743E+00   4.1735E+00   4.2306E-05  0.0069
   4.1735E+00   4.2750E+00   4.2001E-05  0.0068
   4.2750E+00   4.3790E+00   4.1552E-05  0.0068
   4.3790E+00   4.4856E+00   4.0655E-05  0.0068
   4.4856E+00   4.5947E+00   3.9882E-05  0.0067
   4.5947E+00   4.7065E+00   3.9783E-05  0.0067
   4.7065E+00   4.8210E+00   3.8705E-05  0.0067
   4.8210E+00   4.9383E+00   3.8119E-05  0.0067
   4.9383E+00   5.0585E+00   3.7714E-05  0.0066
   5.0585E+00   5.1815E+00   3.7920E-05  0.0065
   5.1815E+00   5.3076E+00   3.7221E-05  0.0065
   5.3076E+00   5.4368E+00   3.6859E-05  0.0065
   5.4368E+00   5.5690E+00   3.5709E-05  0.0065
   5.5690E+00   5.7045E+00   3.5361E-05  0.0064
   5.7045E+00   5.8433E+00   3.4294E-05  0.0065
   5.8433E+00   5.9855E+00   3.3751E-05  0.0064
   5.9855E+00   6.1311E+00   3.3046E-05  0.0064
   6.1311E+00   6.2803E+00   3.2267E-05  0.0064
   6.2803E+00   6.4331E+00   3.1859E-05  0.0064
   6.4331E+00   6.5896E+00   3.0731E-05  0.0064
   6.5896E+00   6.7500E+00   3.0779E-05  0.0063
   6.7500E+00   6.9142E+00   2.9408E-05  0.0064
   6.9142E+00   7.0824E+00   2.8956E-05  0.0064
   7.0824E+00   7.2548E+00   2.8559E-05  0.0064
   7.2548E+00   7.4313E+00   2.7905E-05  0.0064
   7.4313E+00   7.6121E+00   2.7264E-05  0.0063
   7.6121E+00   7.7973E+00   2.7144E-05  0.0063
   7.7973E+00   7.9870E+00   2.6339E-05  0.0063
   7.9870E+00   8.1813E+00   2.5858E-05  0.0063
   8.1813E+00   8.3804E+00   2.5166E-05  0.0063
   8.3804E+00   8.5843E+00   2.4880E-05  0.0063
   8.5843E+00   8.7931E+00   2.4596E-05  0.0062
   8.7931E+00   9.0071E+00   2.4083E-05  0.0062
   9.0071E+00   9.2262E+00   2.3817E-05  0.0062
   9.2262E+00   9.4507E+00   2.3384E-05  0.0062
   9.4507E+00   9.6807E+00   2.3170E-05  0.0061
   9.6807E+00   9.9162E+00   2.3072E-05  0.0061
   9.9162E+00   1.0157E+01   2.2477E-05  0.0061
   1.0157E+01   1.0405E+01   2.2037E-05  0.0061
   1.0405E+01   1.0658E+01   2.1869E-05  0.0060
   1.0658E+01   1.0917E+01   2.1708E-05  0.0060
   1.0917E+01   1.1183E+01   2.1608E-05  0.0059
   1.1183E+01   1.1455E+01   2.1091E-05  0.0059
   1.1455E+01   1.1733E+01   2.1170E-05  0.0058
   1.1733E+01   1.2019E+01   2.0890E-05  0.0058
   1.2019E+01   1.2311E+01   2.0745E-05  0.0057
   1.2311E+01   1.2611E+01   2.0611E-05  0.0057
   1.2611E+01   1.2918E+01   2.0442E-05  0.0056
   1.2918E+01   1.3232E+01   2.0357E-05  0.0056
   1.3232E+01   1.3554E+01   2.0156E-05  0.0055
   1.3554E+01   1.3884E+01   2.0202E-05  0.0055
   1.3884E+01   1.4222E+01   2.0022E-05  0.0054
   1.4222E+01   1.4568E+01   2.0174E-05  0.0054
   1.4568E+01   1.4922E+01   2.0140E-05  0.0053
   1.4922E+01   1.5285E+01   2.0332E-05  0.0052
   1.5285E+01   1.5657E+01   2.0267E-05  0.0052
   1.5657E+01   1.6038E+01   2.0339E-05  0.0051
   1.6038E+01   1.6428E+01   2.0332E-05  0.0050
   1.6428E+01   1.6828E+01   2.0358E-05  0.0050
   1.6828E+01   1.7237E+01   2.0457E-05  0.0049
   1.7237E+01   1.7657E+01   2.0705E-05  0.0048
   1.7657E+01   1.8086E+01   2.1062E-05  0.0047
   1.8086E+01   1.8526E+01   2.1196E-05  0.0046
   1.8526E+01   1.8977E+01   2.1687E-05  0.0045
   1.8977E+01   1.9439E+01   2.2479E-05  0.0044
   1.9439E+01   1.9912E+01   2.3151E-05  0.0043
   1.9912E+01   2.0396E+01   2.4106E-05  0.0041
   2.0396E+01   2.0893E+01   2.4966E-05  0.0040
   2.0893E+01   2.1401E+01   2.5673E-05  0.0039
   2.1401E+01   2.1922E+01   2.6356E-05  0.0038
   2.1922E+01   2.2455E+01   2.7270E-05  0.0037
   2.2455E+01   2.3001E+01   2.8325E-05  0.0036
   2.3001E+01   2.3561E+01   2.9476E-05  0.0035
   2.3561E+01   2.4134E+01   3.0841E-05  0.0034
   2.4134E+01   2.4721E+01   3.2467E-05  0.0032
   2.4721E+01   2.5323E+01   3.4372E-05  0.0031
   2.5323E+01   2.5939E+01   3.6275E-05  0.0030
   2.5939E+01   2.6570E+01   3.8636E-05  0.0029
   2.6570E+01   2.7217E+01   4.1107E-05  0.0027
   2.7217E+01   2.7879E+01   4.4281E-05  0.0026
   2.7879E+01   2.8557E+01   4.7841E-05  0.0025
   2.8557E+01   2.9252E+01   5.1952E-05  0.0024
   2.9252E+01   2.9964E+01   5.6280E-05  0.0022
   2.9964E+01   3.0693E+01   6.1603E-05  0.0021
   3.0693E+01   3.1440E+01   6.7411E-05  0.0020
   3.1440E+01   3.2205E+01   7.4165E-05  0.0019
   3.2205E+01   3.2988E+01   8.1356E-05  0.0018
   3.2988E+01   3.3791E+01   9.0094E-05  0.0017
   3.3791E+01   3.4613E+01   9.9814E-05  0.0016
   3.4613E+01   3.5455E+01   1.1007E-04  0.0015
   3.5455E+01   3.6318E+01   1.2224E-04  0.0014
   3.6318E+01   3.7201E+01   1.3511E-04  0.0013
   3.7201E+01   3.8106E+01   1.4952E-04  0.0012
   3.8106E+01   3.9034E+01   1.6464E-04  0.0011
   3.9034E+01   3.9983E+01   1.8163E-04  0.0011
   3.9983E+01   4.0956E+01   1.9891E-04  0.0010
   4.0956E+01   4.1953E+01   2.1673E-04  0.0010
   4.1953E+01   4.2973E+01   2.3548E-04  0.0009
   4.2973E+01   4.4019E+01   2.5415E-04  0.0009
   4.4019E+01   4.5090E+01   2.7248E-04  0.0008
   4.5090E+01   4.6187E+01   2.8976E-04  0.0008
   4.6187E+01   4.7311E+01   3.0606E-04  0.0008
   4.7311E+01   4.8462E+01   3.1953E-04  0.0007
   4.8462E+01   4.9641E+01   3.3209E-04  0.0007
   4.9641E+01   5.0849E+01   3.4141E-04  0.0007
   5.0849E+01   5.2086E+01   3.4798E-04  0.0007
   5.2086E+01   5.3353E+01   3.5047E-04  0.0007
   5.3353E+01   5.4651E+01   3.4976E-04  0.0007
   5.4651E+01   5.5981E+01   3.4478E-04  0.0007
   5.5981E+01   5.7343E+01   3.3615E-04  0.0007
   5.7343E+01   5.8738E+01   3.2452E-04  0.0007
   5.8738E+01   6.0168E+01   3.0827E-04  0.0007
   6.0168E+01   6.1632E+01   2.8991E-04  0.0007
   6.1632E+01   6.3131E+01   2.6887E-04  0.0007
   6.3131E+01   6.4667E+01   2.4585E-04  0.0007
   6.4667E+01   6.6240E+01   2.2231E-04  0.0008
   6.6240E+01   6.7852E+01   1.9824E-04  0.0008
   6.7852E+01   6.9503E+01   1.7513E-04  0.0008
   6.9503E+01   7.1194E+01   1.5268E-04  0.0009
   7.1194E+01   7.2926E+01   1.3182E-04  0.0009
   7.2926E+01   7.4701E+01   1.1286E-04  0.0010
   7.4701E+01   7.6518E+01   9.6230E-05  0.0011
   7.6518E+01   7.8380E+01   8.1243E-05  0.0011
   7.8380E+01   8.0287E+01   6.8297E-05  0.0012
   8.0287E+01   8.2240E+01   5.7117E-05  0.0013
   8.2240E+01   8.4241E+01   4.7718E-05  0.0014
   8.4241E+01   8.6291E+01   4.0358E-05  0.0016
   8.6291E+01   8.8391E+01   3.4416E-05  0.0017
   8.8391E+01   9.0541E+01   2.9283E-05  0.0018
   9.0541E+01   9.2744E+01   2.4452E-05  0.0019
   9.2744E+01   9.5001E+01   2.0282E-05  0.0021
   9.5001E+01   9.7312E+01   1.6647E-05  0.0023
   9.7312E+01   9.9680E+01   1.3641E-05  0.0025
   9.9680E+01   1.0211E+02   1.1189E-05  0.0027
   1.0211E+02   1.0459E+02   9.1294E-06  0.0030
   1.0459E+02   1.0713E+02   7.4147E-06  0.0033
   1.0713E+02   1.0974E+02   6.1260E-06  0.0035
   1.0974E+02   1.1241E+02   4.9694E-06  0.0039
   1.1241E+02   1.1515E+02   4.1249E-06  0.0042
   1.1515E+02   1.1795E+02   3.4488E-06  0.0045
   1.1795E+02   1.2082E+02   2.8919E-06  0.0049
   1.2082E+02   1.2376E+02   2.0428E-06  0.0058
   1.2376E+02   1.2677E+02   7.6962E-07  0.0093
   1.2677E+02   1.2985E+02   6.8410E-08  0.0308
   1.2985E+02   1.3301E+02   0.0000E+00  0.0000
   1.3301E+02   1.3625E+02   0.0000E+00  0.0000
   1.3625E+02   1.3956E+02   0.0000E+00  0.0000
   1.3956E+02   1.4296E+02   0.0000E+00  0.0000
   1.4296E+02   1.4644E+02   0.0000E+00  0.0000
   1.4644E+02   1.5000E+02   0.0000E+00  0.0000

#   sum over                 8.2258E-05
'no. =    1   reg = 100 - 200'
msuc: {\huge [t-cross] in region mesh}
msdr: {\it plotted by \ANGEL \version}
msdl: {\it calculated by \PHITS  3.28}
wt: s(0.7)
\vspace{-3}
  region surface crossing
  area  &=&   1.0000E+00 [cm^2]
e:
 
# Information for Restart Calculation
# This calculation was newly started
# istdev =  2 # 1:Batch variance, 2:History variance
# resc2  = 5.00000000000000000E+09 # Total source weight or Total source weight / maxcas
# resc3  = 5.00000000000000000E+09 # Total history number or Total batch number
# maxcas =   500000000 # History / Batch, only used for istdev=1
# bitrseed = 0110100000100010111000001110001111001110100100011111101000111001 # bit data of rseed
