[ T-Cross ]
    title = [t-cross] in region mesh
     mesh =  reg            # mesh type is region-wise
      reg =    1            # number of crossing regions
      non     r-from    r-to       area
      1       113       213        1.000000    
   e-type =    3            # e-mesh is log given by emin, emax and ne
     emin =  1.0000000E-02  # minimum value of e-mesh points
     emax =   150.0000      # maximum value of e-mesh points
#    edel =  2.4039514E-02  # mesh width of e-mesh points
       ne =    400          # number of e-mesh points
#    data = ( e(i), i = 1, ne + 1 )
#           1.00000E-02  1.02433E-02  1.04925E-02  1.07478E-02  1.10093E-02
#           1.12772E-02  1.15516E-02  1.18326E-02  1.21205E-02  1.24154E-02
#           1.27175E-02  1.30269E-02  1.33439E-02  1.36686E-02  1.40011E-02
#           1.43418E-02  1.46907E-02  1.50482E-02  1.54143E-02  1.57894E-02
#           1.61735E-02  1.65670E-02  1.69701E-02  1.73830E-02  1.78060E-02
#           1.82392E-02  1.86830E-02  1.91375E-02  1.96032E-02  2.00801E-02
#           2.05687E-02  2.10692E-02  2.15818E-02  2.21069E-02  2.26448E-02
#           2.31957E-02  2.37601E-02  2.43382E-02  2.49304E-02  2.55369E-02
#           2.61583E-02  2.67947E-02  2.74467E-02  2.81145E-02  2.87985E-02
#           2.94992E-02  3.02169E-02  3.09521E-02  3.17052E-02  3.24766E-02
#           3.32668E-02  3.40762E-02  3.49053E-02  3.57546E-02  3.66246E-02
#           3.75157E-02  3.84284E-02  3.93634E-02  4.03212E-02  4.13022E-02
#           4.23071E-02  4.33365E-02  4.43909E-02  4.54710E-02  4.65773E-02
#           4.77106E-02  4.88714E-02  5.00605E-02  5.12785E-02  5.25262E-02
#           5.38042E-02  5.51133E-02  5.64542E-02  5.78278E-02  5.92348E-02
#           6.06760E-02  6.21523E-02  6.36645E-02  6.52135E-02  6.68002E-02
#           6.84255E-02  7.00904E-02  7.17957E-02  7.35426E-02  7.53319E-02
#           7.71648E-02  7.90423E-02  8.09655E-02  8.29354E-02  8.49533E-02
#           8.70203E-02  8.91376E-02  9.13064E-02  9.35279E-02  9.58035E-02
#           9.81345E-02  1.00522E-01  1.02968E-01  1.05473E-01  1.08040E-01
#           1.10668E-01  1.13361E-01  1.16119E-01  1.18944E-01  1.21838E-01
#           1.24803E-01  1.27839E-01  1.30950E-01  1.34136E-01  1.37399E-01
#           1.40742E-01  1.44167E-01  1.47675E-01  1.51268E-01  1.54948E-01
#           1.58718E-01  1.62580E-01  1.66535E-01  1.70587E-01  1.74738E-01
#           1.78989E-01  1.83344E-01  1.87805E-01  1.92375E-01  1.97055E-01
#           2.01850E-01  2.06761E-01  2.11792E-01  2.16945E-01  2.22223E-01
#           2.27630E-01  2.33169E-01  2.38842E-01  2.44653E-01  2.50605E-01
#           2.56703E-01  2.62949E-01  2.69346E-01  2.75900E-01  2.82613E-01
#           2.89489E-01  2.96532E-01  3.03747E-01  3.11138E-01  3.18708E-01
#           3.26462E-01  3.34405E-01  3.42542E-01  3.50876E-01  3.59413E-01
#           3.68158E-01  3.77116E-01  3.86291E-01  3.95690E-01  4.05317E-01
#           4.15179E-01  4.25281E-01  4.35628E-01  4.46227E-01  4.57084E-01
#           4.68205E-01  4.79597E-01  4.91266E-01  5.03219E-01  5.15463E-01
#           5.28005E-01  5.40851E-01  5.54011E-01  5.67490E-01  5.81298E-01
#           5.95441E-01  6.09929E-01  6.24769E-01  6.39970E-01  6.55541E-01
#           6.71491E-01  6.87828E-01  7.04564E-01  7.21706E-01  7.39266E-01
#           7.57253E-01  7.75678E-01  7.94551E-01  8.13883E-01  8.33685E-01
#           8.53969E-01  8.74747E-01  8.96030E-01  9.17831E-01  9.40163E-01
#           9.63038E-01  9.86469E-01  1.01047E+00  1.03506E+00  1.06024E+00
#           1.08604E+00  1.11246E+00  1.13953E+00  1.16725E+00  1.19565E+00
#           1.22474E+00  1.25454E+00  1.28507E+00  1.31633E+00  1.34836E+00
#           1.38117E+00  1.41477E+00  1.44920E+00  1.48446E+00  1.52057E+00
#           1.55757E+00  1.59547E+00  1.63429E+00  1.67405E+00  1.71478E+00
#           1.75650E+00  1.79924E+00  1.84302E+00  1.88786E+00  1.93379E+00
#           1.98084E+00  2.02904E+00  2.07841E+00  2.12898E+00  2.18078E+00
#           2.23384E+00  2.28819E+00  2.34386E+00  2.40089E+00  2.45930E+00
#           2.51914E+00  2.58043E+00  2.64322E+00  2.70753E+00  2.77341E+00
#           2.84088E+00  2.91001E+00  2.98081E+00  3.05333E+00  3.12762E+00
#           3.20372E+00  3.28167E+00  3.36152E+00  3.44330E+00  3.52708E+00
#           3.61290E+00  3.70080E+00  3.79085E+00  3.88308E+00  3.97756E+00
#           4.07434E+00  4.17347E+00  4.27501E+00  4.37903E+00  4.48557E+00
#           4.59471E+00  4.70650E+00  4.82102E+00  4.93832E+00  5.05847E+00
#           5.18155E+00  5.30762E+00  5.43676E+00  5.56904E+00  5.70453E+00
#           5.84333E+00  5.98550E+00  6.13114E+00  6.28031E+00  6.43312E+00
#           6.58964E+00  6.74997E+00  6.91420E+00  7.08243E+00  7.25475E+00
#           7.43126E+00  7.61207E+00  7.79728E+00  7.98700E+00  8.18133E+00
#           8.38038E+00  8.58428E+00  8.79315E+00  9.00709E+00  9.22624E+00
#           9.45072E+00  9.68067E+00  9.91620E+00  1.01575E+01  1.04046E+01
#           1.06578E+01  1.09171E+01  1.11827E+01  1.14548E+01  1.17335E+01
#           1.20190E+01  1.23114E+01  1.26109E+01  1.29178E+01  1.32321E+01
#           1.35540E+01  1.38838E+01  1.42216E+01  1.45676E+01  1.49221E+01
#           1.52851E+01  1.56570E+01  1.60380E+01  1.64282E+01  1.68279E+01
#           1.72374E+01  1.76568E+01  1.80864E+01  1.85264E+01  1.89772E+01
#           1.94389E+01  1.99119E+01  2.03963E+01  2.08926E+01  2.14009E+01
#           2.19216E+01  2.24550E+01  2.30014E+01  2.35610E+01  2.41343E+01
#           2.47215E+01  2.53230E+01  2.59391E+01  2.65702E+01  2.72167E+01
#           2.78789E+01  2.85572E+01  2.92520E+01  2.99637E+01  3.06928E+01
#           3.14396E+01  3.22045E+01  3.29881E+01  3.37907E+01  3.46128E+01
#           3.54550E+01  3.63177E+01  3.72013E+01  3.81064E+01  3.90336E+01
#           3.99833E+01  4.09561E+01  4.19526E+01  4.29734E+01  4.40189E+01
#           4.50900E+01  4.61870E+01  4.73108E+01  4.84619E+01  4.96410E+01
#           5.08488E+01  5.20860E+01  5.33533E+01  5.46514E+01  5.59812E+01
#           5.73432E+01  5.87384E+01  6.01676E+01  6.16315E+01  6.31311E+01
#           6.46671E+01  6.62405E+01  6.78522E+01  6.95031E+01  7.11941E+01
#           7.29263E+01  7.47007E+01  7.65182E+01  7.83800E+01  8.02870E+01
#           8.22405E+01  8.42414E+01  8.62911E+01  8.83906E+01  9.05412E+01
#           9.27442E+01  9.50007E+01  9.73122E+01  9.96799E+01  1.02105E+02
#           1.04589E+02  1.07134E+02  1.09741E+02  1.12411E+02  1.15146E+02
#           1.17948E+02  1.20817E+02  1.23757E+02  1.26768E+02  1.29852E+02
#           1.33012E+02  1.36248E+02  1.39563E+02  1.42959E+02  1.46437E+02
#           1.50000E+02
     unit =    2            # unit is [1/cm^2/(MeV/n)/source]
     axis =  eng            # axis of output
     file = detector-14.out  # file name of output for the above axis
   output = f-curr          # surface crossing forward current spectrum
     part =  neutron  
# kf/name :  2112     
#    used :        main (  %)        temp (  %)       total (  %)
#  memory :         414 (  0)           0 (  0)         414 (  0)

#------------------------------------------------------------------------------
#newpage:
#   no. =    1   reg = 113 - 213

x: Energy [MeV/n]
y:  F-Curr [1/cm^2/(MeV/n)/source]         
p: xlog ylog afac(0.8) form(0.9)
h: n            x            y(neutron ),hh0l   n 
#  e-lower      e-upper      neutron     r.err 
   1.0000E-02   1.0243E-02   4.6720E-04  0.0424
   1.0243E-02   1.0493E-02   4.8640E-04  0.0410
   1.0493E-02   1.0748E-02   5.0842E-04  0.0397
   1.0748E-02   1.1009E-02   4.9869E-04  0.0396
   1.1009E-02   1.1277E-02   5.0132E-04  0.0390
   1.1277E-02   1.1552E-02   4.4181E-04  0.0410
   1.1552E-02   1.1833E-02   5.0029E-04  0.0381
   1.1833E-02   1.2121E-02   4.3737E-04  0.0403
   1.2121E-02   1.2415E-02   4.7197E-04  0.0383
   1.2415E-02   1.2718E-02   4.6684E-04  0.0380
   1.2718E-02   1.3027E-02   4.0694E-04  0.0403
   1.3027E-02   1.3344E-02   4.4943E-04  0.0379
   1.3344E-02   1.3669E-02   4.4064E-04  0.0378
   1.3669E-02   1.4001E-02   4.5595E-04  0.0367
   1.4001E-02   1.4342E-02   4.3493E-04  0.0371
   1.4342E-02   1.4691E-02   4.0296E-04  0.0381
   1.4691E-02   1.5048E-02   4.1509E-04  0.0371
   1.5048E-02   1.5414E-02   4.2641E-04  0.0362
   1.5414E-02   1.5789E-02   4.1846E-04  0.0361
   1.5789E-02   1.6174E-02   4.4198E-04  0.0347
   1.6174E-02   1.6567E-02   4.0089E-04  0.0360
   1.6567E-02   1.6970E-02   3.9845E-04  0.0356
   1.6970E-02   1.7383E-02   4.0184E-04  0.0351
   1.7383E-02   1.7806E-02   4.3186E-04  0.0334
   1.7806E-02   1.8239E-02   3.6696E-04  0.0358
   1.8239E-02   1.8683E-02   4.2355E-04  0.0330
   1.8683E-02   1.9138E-02   3.9957E-04  0.0335
   1.9138E-02   1.9603E-02   4.1375E-04  0.0325
   1.9603E-02   2.0080E-02   3.8723E-04  0.0332
   2.0080E-02   2.0569E-02   3.8137E-04  0.0331
   2.0569E-02   2.1069E-02   3.8740E-04  0.0324
   2.1069E-02   2.1582E-02   3.8019E-04  0.0324
   2.1582E-02   2.2107E-02   3.7000E-04  0.0324
   2.2107E-02   2.2645E-02   3.7297E-04  0.0319
   2.2645E-02   2.3196E-02   3.8708E-04  0.0309
   2.3196E-02   2.3760E-02   3.6703E-04  0.0314
   2.3760E-02   2.4338E-02   3.8267E-04  0.0304
   2.4338E-02   2.4930E-02   3.5704E-04  0.0311
   2.4930E-02   2.5537E-02   3.5899E-04  0.0306
   2.5537E-02   2.6158E-02   3.6229E-04  0.0301
   2.6158E-02   2.6795E-02   3.5945E-04  0.0299
   2.6795E-02   2.7447E-02   3.4340E-04  0.0302
   2.7447E-02   2.8114E-02   3.6245E-04  0.0290
   2.8114E-02   2.8799E-02   3.3892E-04  0.0297
   2.8799E-02   2.9499E-02   3.3902E-04  0.0293
   2.9499E-02   3.0217E-02   3.3069E-04  0.0293
   3.0217E-02   3.0952E-02   3.4365E-04  0.0284
   3.0952E-02   3.1705E-02   3.2709E-04  0.0288
   3.1705E-02   3.2477E-02   3.3017E-04  0.0283
   3.2477E-02   3.3267E-02   3.2568E-04  0.0282
   3.3267E-02   3.4076E-02   3.2248E-04  0.0280
   3.4076E-02   3.4905E-02   3.4067E-04  0.0269
   3.4905E-02   3.5755E-02   3.1095E-04  0.0278
   3.5755E-02   3.6625E-02   3.2820E-04  0.0267
   3.6625E-02   3.7516E-02   3.1147E-04  0.0271
   3.7516E-02   3.8428E-02   3.1055E-04  0.0268
   3.8428E-02   3.9363E-02   3.0449E-04  0.0268
   3.9363E-02   4.0321E-02   3.0493E-04  0.0264
   4.0321E-02   4.1302E-02   3.2119E-04  0.0254
   4.1302E-02   4.2307E-02   3.0280E-04  0.0259
   4.2307E-02   4.3337E-02   3.1008E-04  0.0253
   4.3337E-02   4.4391E-02   2.9671E-04  0.0255
   4.4391E-02   4.5471E-02   2.7795E-04  0.0261
   4.5471E-02   4.6577E-02   2.9588E-04  0.0250
   4.6577E-02   4.7711E-02   2.9282E-04  0.0248
   4.7711E-02   4.8871E-02   2.9113E-04  0.0246
   4.8871E-02   5.0061E-02   2.8199E-04  0.0247
   5.0061E-02   5.1279E-02   2.9473E-04  0.0238
   5.1279E-02   5.2526E-02   2.8740E-04  0.0239
   5.2526E-02   5.3804E-02   2.9031E-04  0.0235
   5.3804E-02   5.5113E-02   2.8591E-04  0.0234
   5.5113E-02   5.6454E-02   2.6892E-04  0.0238
   5.6454E-02   5.7828E-02   2.7308E-04  0.0233
   5.7828E-02   5.9235E-02   2.6819E-04  0.0233
   5.9235E-02   6.0676E-02   2.7952E-04  0.0225
   6.0676E-02   6.2152E-02   2.6860E-04  0.0227
   6.2152E-02   6.3665E-02   2.6667E-04  0.0225
   6.3665E-02   6.5214E-02   2.7417E-04  0.0219
   6.5214E-02   6.6800E-02   2.4592E-04  0.0229
   6.6800E-02   6.8426E-02   2.5339E-04  0.0223
   6.8426E-02   7.0090E-02   2.4774E-04  0.0222
   7.0090E-02   7.1796E-02   2.5251E-04  0.0218
   7.1796E-02   7.3543E-02   2.4528E-04  0.0218
   7.3543E-02   7.5332E-02   2.5457E-04  0.0212
   7.5332E-02   7.7165E-02   2.4551E-04  0.0213
   7.7165E-02   7.9042E-02   2.3936E-04  0.0213
   7.9042E-02   8.0965E-02   2.5076E-04  0.0206
   8.0965E-02   8.2935E-02   2.4641E-04  0.0205
   8.2935E-02   8.4953E-02   2.3828E-04  0.0206
   8.4953E-02   8.7020E-02   2.3518E-04  0.0205
   8.7020E-02   8.9138E-02   2.3413E-04  0.0203
   8.9138E-02   9.1306E-02   2.2744E-04  0.0203
   9.1306E-02   9.3528E-02   2.2948E-04  0.0200
   9.3528E-02   9.5804E-02   2.2071E-04  0.0202
   9.5804E-02   9.8134E-02   2.1914E-04  0.0200
   9.8134E-02   1.0052E-01   2.2342E-04  0.0196
   1.0052E-01   1.0297E-01   2.2262E-04  0.0194
   1.0297E-01   1.0547E-01   2.1835E-04  0.0193
   1.0547E-01   1.0804E-01   2.1265E-04  0.0193
   1.0804E-01   1.1067E-01   2.1785E-04  0.0189
   1.1067E-01   1.1336E-01   2.1017E-04  0.0190
   1.1336E-01   1.1612E-01   2.0962E-04  0.0188
   1.1612E-01   1.1894E-01   2.1208E-04  0.0185
   1.1894E-01   1.2184E-01   2.0084E-04  0.0187
   1.2184E-01   1.2480E-01   2.0736E-04  0.0182
   1.2480E-01   1.2784E-01   1.9235E-04  0.0187
   1.2784E-01   1.3095E-01   1.9697E-04  0.0183
   1.3095E-01   1.3414E-01   1.9242E-04  0.0182
   1.3414E-01   1.3740E-01   1.9329E-04  0.0180
   1.3740E-01   1.4074E-01   1.8760E-04  0.0180
   1.4074E-01   1.4417E-01   1.8630E-04  0.0179
   1.4417E-01   1.4767E-01   1.8019E-04  0.0180
   1.4767E-01   1.5127E-01   1.8772E-04  0.0174
   1.5127E-01   1.5495E-01   1.8653E-04  0.0172
   1.5495E-01   1.5872E-01   1.8584E-04  0.0171
   1.5872E-01   1.6258E-01   1.7381E-04  0.0174
   1.6258E-01   1.6654E-01   1.6979E-04  0.0174
   1.6654E-01   1.7059E-01   1.7422E-04  0.0170
   1.7059E-01   1.7474E-01   1.7146E-04  0.0169
   1.7474E-01   1.7899E-01   1.6887E-04  0.0169
   1.7899E-01   1.8334E-01   1.6599E-04  0.0168
   1.8334E-01   1.8781E-01   1.6900E-04  0.0165
   1.8781E-01   1.9237E-01   1.6576E-04  0.0164
   1.9237E-01   1.9706E-01   1.6730E-04  0.0161
   1.9706E-01   2.0185E-01   1.5694E-04  0.0165
   2.0185E-01   2.0676E-01   1.5915E-04  0.0162
   2.0676E-01   2.1179E-01   1.5919E-04  0.0160
   2.1179E-01   2.1694E-01   1.5719E-04  0.0159
   2.1694E-01   2.2222E-01   1.4928E-04  0.0161
   2.2222E-01   2.2763E-01   1.5075E-04  0.0158
   2.2763E-01   2.3317E-01   1.4404E-04  0.0160
   2.3317E-01   2.3884E-01   1.4062E-04  0.0160
   2.3884E-01   2.4465E-01   1.4276E-04  0.0157
   2.4465E-01   2.5061E-01   1.3991E-04  0.0157
   2.5061E-01   2.5670E-01   1.3900E-04  0.0155
   2.5670E-01   2.6295E-01   1.3900E-04  0.0153
   2.6295E-01   2.6935E-01   1.3761E-04  0.0152
   2.6935E-01   2.7590E-01   1.2849E-04  0.0156
   2.7590E-01   2.8261E-01   1.3033E-04  0.0153
   2.8261E-01   2.8949E-01   1.2807E-04  0.0152
   2.8949E-01   2.9653E-01   1.2752E-04  0.0151
   2.9653E-01   3.0375E-01   1.2092E-04  0.0153
   3.0375E-01   3.1114E-01   1.2217E-04  0.0150
   3.1114E-01   3.1871E-01   1.1897E-04  0.0151
   3.1871E-01   3.2646E-01   1.1909E-04  0.0149
   3.2646E-01   3.3441E-01   1.1397E-04  0.0150
   3.3441E-01   3.4254E-01   1.1347E-04  0.0149
   3.4254E-01   3.5088E-01   1.1264E-04  0.0147
   3.5088E-01   3.5941E-01   1.1106E-04  0.0147
   3.5941E-01   3.6816E-01   1.0418E-04  0.0150
   3.6816E-01   3.7712E-01   1.0524E-04  0.0147
   3.7712E-01   3.8629E-01   1.0318E-04  0.0147
   3.8629E-01   3.9569E-01   1.0182E-04  0.0146
   3.9569E-01   4.0532E-01   1.0139E-04  0.0145
   4.0532E-01   4.1518E-01   9.6684E-05  0.0146
   4.1518E-01   4.2528E-01   9.5580E-05  0.0145
   4.2528E-01   4.3563E-01   9.3152E-05  0.0146
   4.3563E-01   4.4623E-01   8.9245E-05  0.0147
   4.4623E-01   4.5708E-01   9.0565E-05  0.0144
   4.5708E-01   4.6821E-01   8.7606E-05  0.0145
   4.6821E-01   4.7960E-01   8.6475E-05  0.0144
   4.7960E-01   4.9127E-01   8.4928E-05  0.0144
   4.9127E-01   5.0322E-01   8.3354E-05  0.0143
   5.0322E-01   5.1546E-01   7.6724E-05  0.0147
   5.1546E-01   5.2800E-01   7.9263E-05  0.0143
   5.2800E-01   5.4085E-01   7.5140E-05  0.0145
   5.4085E-01   5.5401E-01   7.3324E-05  0.0145
   5.5401E-01   5.6749E-01   7.3369E-05  0.0144
   5.6749E-01   5.8130E-01   6.8922E-05  0.0146
   5.8130E-01   5.9544E-01   6.9362E-05  0.0144
   5.9544E-01   6.0993E-01   6.5996E-05  0.0146
   6.0993E-01   6.2477E-01   6.2998E-05  0.0148
   6.2477E-01   6.3997E-01   6.1274E-05  0.0148
   6.3997E-01   6.5554E-01   5.9976E-05  0.0148
   6.5554E-01   6.7149E-01   5.9204E-05  0.0147
   6.7149E-01   6.8783E-01   5.5174E-05  0.0150
   6.8783E-01   7.0456E-01   5.4217E-05  0.0150
   7.0456E-01   7.2171E-01   5.2251E-05  0.0151
   7.2171E-01   7.3927E-01   5.1079E-05  0.0151
   7.3927E-01   7.5725E-01   4.9617E-05  0.0151
   7.5725E-01   7.7568E-01   4.7995E-05  0.0152
   7.7568E-01   7.9455E-01   4.5903E-05  0.0153
   7.9455E-01   8.1388E-01   4.5225E-05  0.0153
   8.1388E-01   8.3368E-01   4.2419E-05  0.0156
   8.3368E-01   8.5397E-01   4.2287E-05  0.0154
   8.5397E-01   8.7475E-01   3.9514E-05  0.0158
   8.7475E-01   8.9603E-01   3.7464E-05  0.0160
   8.9603E-01   9.1783E-01   3.5301E-05  0.0163
   9.1783E-01   9.4016E-01   3.3959E-05  0.0164
   9.4016E-01   9.6304E-01   3.2787E-05  0.0165
   9.6304E-01   9.8647E-01   3.2130E-05  0.0165
   9.8647E-01   1.0105E+00   2.9318E-05  0.0170
   1.0105E+00   1.0351E+00   3.0290E-05  0.0166
   1.0351E+00   1.0602E+00   3.0883E-05  0.0162
   1.0602E+00   1.0860E+00   3.0561E-05  0.0161
   1.0860E+00   1.1125E+00   3.0144E-05  0.0160
   1.1125E+00   1.1395E+00   3.1539E-05  0.0155
   1.1395E+00   1.1673E+00   3.1828E-05  0.0152
   1.1673E+00   1.1957E+00   3.2933E-05  0.0148
   1.1957E+00   1.2247E+00   3.3905E-05  0.0144
   1.2247E+00   1.2545E+00   3.2545E-05  0.0145
   1.2545E+00   1.2851E+00   3.2748E-05  0.0143
   1.2851E+00   1.3163E+00   3.2929E-05  0.0141
   1.3163E+00   1.3484E+00   3.4161E-05  0.0137
   1.3484E+00   1.3812E+00   3.5328E-05  0.0133
   1.3812E+00   1.4148E+00   3.5430E-05  0.0131
   1.4148E+00   1.4492E+00   3.4226E-05  0.0132
   1.4492E+00   1.4845E+00   3.4195E-05  0.0130
   1.4845E+00   1.5206E+00   3.4100E-05  0.0129
   1.5206E+00   1.5576E+00   3.3356E-05  0.0129
   1.5576E+00   1.5955E+00   3.3797E-05  0.0126
   1.5955E+00   1.6343E+00   3.3326E-05  0.0126
   1.6343E+00   1.6741E+00   3.3217E-05  0.0124
   1.6741E+00   1.7148E+00   3.3370E-05  0.0123
   1.7148E+00   1.7565E+00   3.3316E-05  0.0121
   1.7565E+00   1.7992E+00   3.2737E-05  0.0121
   1.7992E+00   1.8430E+00   3.1962E-05  0.0121
   1.8430E+00   1.8879E+00   3.1134E-05  0.0121
   1.8879E+00   1.9338E+00   3.0981E-05  0.0120
   1.9338E+00   1.9808E+00   3.0382E-05  0.0119
   1.9808E+00   2.0290E+00   3.0187E-05  0.0118
   2.0290E+00   2.0784E+00   2.9123E-05  0.0119
   2.0784E+00   2.1290E+00   2.9255E-05  0.0117
   2.1290E+00   2.1808E+00   2.8071E-05  0.0118
   2.1808E+00   2.2338E+00   2.7147E-05  0.0119
   2.2338E+00   2.2882E+00   2.6757E-05  0.0118
   2.2882E+00   2.3439E+00   2.6163E-05  0.0118
   2.3439E+00   2.4009E+00   2.6009E-05  0.0117
   2.4009E+00   2.4593E+00   2.5186E-05  0.0118
   2.4593E+00   2.5191E+00   2.4018E-05  0.0119
   2.5191E+00   2.5804E+00   2.3267E-05  0.0120
   2.5804E+00   2.6432E+00   2.2131E-05  0.0121
   2.6432E+00   2.7075E+00   2.1507E-05  0.0121
   2.7075E+00   2.7734E+00   2.1041E-05  0.0121
   2.7734E+00   2.8409E+00   2.0411E-05  0.0122
   2.8409E+00   2.9100E+00   1.9649E-05  0.0123
   2.9100E+00   2.9808E+00   1.9269E-05  0.0122
   2.9808E+00   3.0533E+00   1.8758E-05  0.0122
   3.0533E+00   3.1276E+00   1.7694E-05  0.0125
   3.1276E+00   3.2037E+00   1.6818E-05  0.0126
   3.2037E+00   3.2817E+00   1.6272E-05  0.0127
   3.2817E+00   3.3615E+00   1.5550E-05  0.0128
   3.3615E+00   3.4433E+00   1.4867E-05  0.0130
   3.4433E+00   3.5271E+00   1.4204E-05  0.0131
   3.5271E+00   3.6129E+00   1.3405E-05  0.0133
   3.6129E+00   3.7008E+00   1.3087E-05  0.0133
   3.7008E+00   3.7908E+00   1.2837E-05  0.0133
   3.7908E+00   3.8831E+00   1.1963E-05  0.0136
   3.8831E+00   3.9776E+00   1.1677E-05  0.0136
   3.9776E+00   4.0743E+00   1.1094E-05  0.0138
   4.0743E+00   4.1735E+00   1.0351E-05  0.0141
   4.1735E+00   4.2750E+00   1.0032E-05  0.0142
   4.2750E+00   4.3790E+00   9.6533E-06  0.0143
   4.3790E+00   4.4856E+00   9.0811E-06  0.0145
   4.4856E+00   4.5947E+00   8.6336E-06  0.0147
   4.5947E+00   4.7065E+00   8.1857E-06  0.0149
   4.7065E+00   4.8210E+00   7.9182E-06  0.0150
   4.8210E+00   4.9383E+00   7.7057E-06  0.0150
   4.9383E+00   5.0585E+00   7.3698E-06  0.0152
   5.0585E+00   5.1815E+00   7.0124E-06  0.0154
   5.1815E+00   5.3076E+00   6.7617E-06  0.0155
   5.3076E+00   5.4368E+00   6.2439E-06  0.0159
   5.4368E+00   5.5690E+00   5.9182E-06  0.0161
   5.5690E+00   5.7045E+00   5.9402E-06  0.0159
   5.7045E+00   5.8433E+00   5.5830E-06  0.0162
   5.8433E+00   5.9855E+00   5.3786E-06  0.0163
   5.9855E+00   6.1311E+00   5.1794E-06  0.0164
   6.1311E+00   6.2803E+00   5.1550E-06  0.0163
   6.2803E+00   6.4331E+00   4.8379E-06  0.0166
   6.4331E+00   6.5896E+00   4.6206E-06  0.0168
   6.5896E+00   6.7500E+00   4.5071E-06  0.0168
   6.7500E+00   6.9142E+00   4.5367E-06  0.0165
   6.9142E+00   7.0824E+00   4.4871E-06  0.0164
   7.0824E+00   7.2548E+00   4.2076E-06  0.0168
   7.2548E+00   7.4313E+00   4.3248E-06  0.0163
   7.4313E+00   7.6121E+00   4.1391E-06  0.0165
   7.6121E+00   7.7973E+00   4.1153E-06  0.0164
   7.7973E+00   7.9870E+00   4.2916E-06  0.0158
   7.9870E+00   8.1813E+00   4.1033E-06  0.0160
   8.1813E+00   8.3804E+00   3.9688E-06  0.0161
   8.3804E+00   8.5843E+00   4.1062E-06  0.0156
   8.5843E+00   8.7931E+00   4.0580E-06  0.0155
   8.7931E+00   9.0071E+00   3.9835E-06  0.0155
   9.0071E+00   9.2262E+00   4.1543E-06  0.0150
   9.2262E+00   9.4507E+00   4.0906E-06  0.0149
   9.4507E+00   9.6807E+00   4.1501E-06  0.0146
   9.6807E+00   9.9162E+00   4.1633E-06  0.0144
   9.9162E+00   1.0157E+01   4.2264E-06  0.0141
   1.0157E+01   1.0405E+01   4.3857E-06  0.0137
   1.0405E+01   1.0658E+01   4.3307E-06  0.0136
   1.0658E+01   1.0917E+01   4.4462E-06  0.0133
   1.0917E+01   1.1183E+01   4.5139E-06  0.0130
   1.1183E+01   1.1455E+01   4.4835E-06  0.0129
   1.1455E+01   1.1733E+01   4.5630E-06  0.0127
   1.1733E+01   1.2019E+01   4.7234E-06  0.0123
   1.2019E+01   1.2311E+01   4.7117E-06  0.0122
   1.2311E+01   1.2611E+01   4.8216E-06  0.0119
   1.2611E+01   1.2918E+01   4.8191E-06  0.0117
   1.2918E+01   1.3232E+01   4.9027E-06  0.0115
   1.3232E+01   1.3554E+01   4.9742E-06  0.0113
   1.3554E+01   1.3884E+01   4.8938E-06  0.0112
   1.3884E+01   1.4222E+01   5.1778E-06  0.0108
   1.4222E+01   1.4568E+01   5.0864E-06  0.0108
   1.4568E+01   1.4922E+01   5.0416E-06  0.0107
   1.4922E+01   1.5285E+01   5.1784E-06  0.0104
   1.5285E+01   1.5657E+01   5.1893E-06  0.0103
   1.5657E+01   1.6038E+01   5.1250E-06  0.0102
   1.6038E+01   1.6428E+01   5.1206E-06  0.0101
   1.6428E+01   1.6828E+01   5.1693E-06  0.0099
   1.6828E+01   1.7237E+01   5.1278E-06  0.0098
   1.7237E+01   1.7657E+01   5.1317E-06  0.0097
   1.7657E+01   1.8086E+01   5.1509E-06  0.0096
   1.8086E+01   1.8526E+01   5.0835E-06  0.0095
   1.8526E+01   1.8977E+01   4.9621E-06  0.0095
   1.8977E+01   1.9439E+01   4.9589E-06  0.0094
   1.9439E+01   1.9912E+01   4.8034E-06  0.0095
   1.9912E+01   2.0396E+01   7.2119E-06  0.0076
   2.0396E+01   2.0893E+01   7.7786E-06  0.0073
   2.0893E+01   2.1401E+01   7.5011E-06  0.0073
   2.1401E+01   2.1922E+01   7.2148E-06  0.0074
   2.1922E+01   2.2455E+01   6.8368E-06  0.0075
   2.2455E+01   2.3001E+01   6.5048E-06  0.0076
   2.3001E+01   2.3561E+01   6.1938E-06  0.0077
   2.3561E+01   2.4134E+01   5.8947E-06  0.0078
   2.4134E+01   2.4721E+01   5.6522E-06  0.0078
   2.4721E+01   2.5323E+01   5.3103E-06  0.0080
   2.5323E+01   2.5939E+01   5.0324E-06  0.0081
   2.5939E+01   2.6570E+01   4.7476E-06  0.0083
   2.6570E+01   2.7217E+01   4.4335E-06  0.0084
   2.7217E+01   2.7879E+01   4.1630E-06  0.0086
   2.7879E+01   2.8557E+01   3.8818E-06  0.0088
   2.8557E+01   2.9252E+01   3.6069E-06  0.0090
   2.9252E+01   2.9964E+01   3.2995E-06  0.0093
   2.9964E+01   3.0693E+01   3.1282E-06  0.0095
   3.0693E+01   3.1440E+01   2.7951E-06  0.0099
   3.1440E+01   3.2205E+01   2.5559E-06  0.0102
   3.2205E+01   3.2988E+01   2.3295E-06  0.0106
   3.2988E+01   3.3791E+01   2.0964E-06  0.0110
   3.3791E+01   3.4613E+01   1.8448E-06  0.0116
   3.4613E+01   3.5455E+01   1.6702E-06  0.0120
   3.5455E+01   3.6318E+01   1.4978E-06  0.0126
   3.6318E+01   3.7201E+01   1.2883E-06  0.0134
   3.7201E+01   3.8106E+01   1.1704E-06  0.0139
   3.8106E+01   3.9034E+01   9.8898E-07  0.0149
   3.9034E+01   3.9983E+01   8.3204E-07  0.0161
   3.9983E+01   4.0956E+01   7.1326E-07  0.0171
   4.0956E+01   4.1953E+01   5.9576E-07  0.0185
   4.1953E+01   4.2973E+01   4.7105E-07  0.0206
   4.2973E+01   4.4019E+01   3.7066E-07  0.0229
   4.4019E+01   4.5090E+01   3.0126E-07  0.0251
   4.5090E+01   4.6187E+01   2.2769E-07  0.0286
   4.6187E+01   4.7311E+01   1.7398E-07  0.0323
   4.7311E+01   4.8462E+01   1.2464E-07  0.0377
   4.8462E+01   4.9641E+01   8.7752E-08  0.0444
   4.9641E+01   5.0849E+01   5.4577E-08  0.0556
   5.0849E+01   5.2086E+01   3.2166E-08  0.0716
   5.2086E+01   5.3353E+01   1.3527E-08  0.1091
   5.3353E+01   5.4651E+01   3.6159E-09  0.2085
   5.4651E+01   5.5981E+01   6.1391E-10  0.5000
   5.5981E+01   5.7343E+01   0.0000E+00  0.0000
   5.7343E+01   5.8738E+01   0.0000E+00  0.0000
   5.8738E+01   6.0168E+01   0.0000E+00  0.0000
   6.0168E+01   6.1632E+01   0.0000E+00  0.0000
   6.1632E+01   6.3131E+01   0.0000E+00  0.0000
   6.3131E+01   6.4667E+01   0.0000E+00  0.0000
   6.4667E+01   6.6240E+01   0.0000E+00  0.0000
   6.6240E+01   6.7852E+01   0.0000E+00  0.0000
   6.7852E+01   6.9503E+01   0.0000E+00  0.0000
   6.9503E+01   7.1194E+01   0.0000E+00  0.0000
   7.1194E+01   7.2926E+01   0.0000E+00  0.0000
   7.2926E+01   7.4701E+01   0.0000E+00  0.0000
   7.4701E+01   7.6518E+01   0.0000E+00  0.0000
   7.6518E+01   7.8380E+01   0.0000E+00  0.0000
   7.8380E+01   8.0287E+01   0.0000E+00  0.0000
   8.0287E+01   8.2240E+01   0.0000E+00  0.0000
   8.2240E+01   8.4241E+01   0.0000E+00  0.0000
   8.4241E+01   8.6291E+01   0.0000E+00  0.0000
   8.6291E+01   8.8391E+01   0.0000E+00  0.0000
   8.8391E+01   9.0541E+01   0.0000E+00  0.0000
   9.0541E+01   9.2744E+01   0.0000E+00  0.0000
   9.2744E+01   9.5001E+01   0.0000E+00  0.0000
   9.5001E+01   9.7312E+01   0.0000E+00  0.0000
   9.7312E+01   9.9680E+01   0.0000E+00  0.0000
   9.9680E+01   1.0211E+02   0.0000E+00  0.0000
   1.0211E+02   1.0459E+02   0.0000E+00  0.0000
   1.0459E+02   1.0713E+02   0.0000E+00  0.0000
   1.0713E+02   1.0974E+02   0.0000E+00  0.0000
   1.0974E+02   1.1241E+02   0.0000E+00  0.0000
   1.1241E+02   1.1515E+02   0.0000E+00  0.0000
   1.1515E+02   1.1795E+02   0.0000E+00  0.0000
   1.1795E+02   1.2082E+02   0.0000E+00  0.0000
   1.2082E+02   1.2376E+02   0.0000E+00  0.0000
   1.2376E+02   1.2677E+02   0.0000E+00  0.0000
   1.2677E+02   1.2985E+02   0.0000E+00  0.0000
   1.2985E+02   1.3301E+02   0.0000E+00  0.0000
   1.3301E+02   1.3625E+02   0.0000E+00  0.0000
   1.3625E+02   1.3956E+02   0.0000E+00  0.0000
   1.3956E+02   1.4296E+02   0.0000E+00  0.0000
   1.4296E+02   1.4644E+02   0.0000E+00  0.0000
   1.4644E+02   1.5000E+02   0.0000E+00  0.0000

#   sum over                 2.2209E-06
'no. =    1   reg = 113 - 213'
msuc: {\huge [t-cross] in region mesh}
msdr: {\it plotted by \ANGEL \version}
msdl: {\it calculated by \PHITS  3.26}
wt: s(0.7)
\vspace{-3}
  region surface crossing
  area  &=&   1.0000E+00 [cm^2]
e:
 
# Information for Restart Calculation
# This calculation was newly started
# istdev =  2 # 1:Batch variance, 2:History variance
# resc2  = 4.90000000000000000E+09 # Total source weight or Total source weight / maxcas
# resc3  = 4.90000000000000000E+09 # Total history number or Total batch number
# maxcas =   100000000 # History / Batch, only used for istdev=1
# bitrseed = 1010100001101100001010110100011000011010110011110100001101011000 # bit data of rseed
