[ T-Cross ]
    title = [t-cross] in region mesh
     mesh =  reg            # mesh type is region-wise
      reg =    1            # number of crossing regions
      non     r-from    r-to       area
      1       106       206        1.000000    
   e-type =    3            # e-mesh is log given by emin, emax and ne
     emin =  1.0000000E-02  # minimum value of e-mesh points
     emax =   150.0000      # maximum value of e-mesh points
#    edel =  2.4039514E-02  # mesh width of e-mesh points
       ne =    400          # number of e-mesh points
#    data = ( e(i), i = 1, ne + 1 )
#           1.00000E-02  1.02433E-02  1.04925E-02  1.07478E-02  1.10093E-02
#           1.12772E-02  1.15516E-02  1.18326E-02  1.21205E-02  1.24154E-02
#           1.27175E-02  1.30269E-02  1.33439E-02  1.36686E-02  1.40011E-02
#           1.43418E-02  1.46907E-02  1.50482E-02  1.54143E-02  1.57894E-02
#           1.61735E-02  1.65670E-02  1.69701E-02  1.73830E-02  1.78060E-02
#           1.82392E-02  1.86830E-02  1.91375E-02  1.96032E-02  2.00801E-02
#           2.05687E-02  2.10692E-02  2.15818E-02  2.21069E-02  2.26448E-02
#           2.31957E-02  2.37601E-02  2.43382E-02  2.49304E-02  2.55369E-02
#           2.61583E-02  2.67947E-02  2.74467E-02  2.81145E-02  2.87985E-02
#           2.94992E-02  3.02169E-02  3.09521E-02  3.17052E-02  3.24766E-02
#           3.32668E-02  3.40762E-02  3.49053E-02  3.57546E-02  3.66246E-02
#           3.75157E-02  3.84284E-02  3.93634E-02  4.03212E-02  4.13022E-02
#           4.23071E-02  4.33365E-02  4.43909E-02  4.54710E-02  4.65773E-02
#           4.77106E-02  4.88714E-02  5.00605E-02  5.12785E-02  5.25262E-02
#           5.38042E-02  5.51133E-02  5.64542E-02  5.78278E-02  5.92348E-02
#           6.06760E-02  6.21523E-02  6.36645E-02  6.52135E-02  6.68002E-02
#           6.84255E-02  7.00904E-02  7.17957E-02  7.35426E-02  7.53319E-02
#           7.71648E-02  7.90423E-02  8.09655E-02  8.29354E-02  8.49533E-02
#           8.70203E-02  8.91376E-02  9.13064E-02  9.35279E-02  9.58035E-02
#           9.81345E-02  1.00522E-01  1.02968E-01  1.05473E-01  1.08040E-01
#           1.10668E-01  1.13361E-01  1.16119E-01  1.18944E-01  1.21838E-01
#           1.24803E-01  1.27839E-01  1.30950E-01  1.34136E-01  1.37399E-01
#           1.40742E-01  1.44167E-01  1.47675E-01  1.51268E-01  1.54948E-01
#           1.58718E-01  1.62580E-01  1.66535E-01  1.70587E-01  1.74738E-01
#           1.78989E-01  1.83344E-01  1.87805E-01  1.92375E-01  1.97055E-01
#           2.01850E-01  2.06761E-01  2.11792E-01  2.16945E-01  2.22223E-01
#           2.27630E-01  2.33169E-01  2.38842E-01  2.44653E-01  2.50605E-01
#           2.56703E-01  2.62949E-01  2.69346E-01  2.75900E-01  2.82613E-01
#           2.89489E-01  2.96532E-01  3.03747E-01  3.11138E-01  3.18708E-01
#           3.26462E-01  3.34405E-01  3.42542E-01  3.50876E-01  3.59413E-01
#           3.68158E-01  3.77116E-01  3.86291E-01  3.95690E-01  4.05317E-01
#           4.15179E-01  4.25281E-01  4.35628E-01  4.46227E-01  4.57084E-01
#           4.68205E-01  4.79597E-01  4.91266E-01  5.03219E-01  5.15463E-01
#           5.28005E-01  5.40851E-01  5.54011E-01  5.67490E-01  5.81298E-01
#           5.95441E-01  6.09929E-01  6.24769E-01  6.39970E-01  6.55541E-01
#           6.71491E-01  6.87828E-01  7.04564E-01  7.21706E-01  7.39266E-01
#           7.57253E-01  7.75678E-01  7.94551E-01  8.13883E-01  8.33685E-01
#           8.53969E-01  8.74747E-01  8.96030E-01  9.17831E-01  9.40163E-01
#           9.63038E-01  9.86469E-01  1.01047E+00  1.03506E+00  1.06024E+00
#           1.08604E+00  1.11246E+00  1.13953E+00  1.16725E+00  1.19565E+00
#           1.22474E+00  1.25454E+00  1.28507E+00  1.31633E+00  1.34836E+00
#           1.38117E+00  1.41477E+00  1.44920E+00  1.48446E+00  1.52057E+00
#           1.55757E+00  1.59547E+00  1.63429E+00  1.67405E+00  1.71478E+00
#           1.75650E+00  1.79924E+00  1.84302E+00  1.88786E+00  1.93379E+00
#           1.98084E+00  2.02904E+00  2.07841E+00  2.12898E+00  2.18078E+00
#           2.23384E+00  2.28819E+00  2.34386E+00  2.40089E+00  2.45930E+00
#           2.51914E+00  2.58043E+00  2.64322E+00  2.70753E+00  2.77341E+00
#           2.84088E+00  2.91001E+00  2.98081E+00  3.05333E+00  3.12762E+00
#           3.20372E+00  3.28167E+00  3.36152E+00  3.44330E+00  3.52708E+00
#           3.61290E+00  3.70080E+00  3.79085E+00  3.88308E+00  3.97756E+00
#           4.07434E+00  4.17347E+00  4.27501E+00  4.37903E+00  4.48557E+00
#           4.59471E+00  4.70650E+00  4.82102E+00  4.93832E+00  5.05847E+00
#           5.18155E+00  5.30762E+00  5.43676E+00  5.56904E+00  5.70453E+00
#           5.84333E+00  5.98550E+00  6.13114E+00  6.28031E+00  6.43312E+00
#           6.58964E+00  6.74997E+00  6.91420E+00  7.08243E+00  7.25475E+00
#           7.43126E+00  7.61207E+00  7.79728E+00  7.98700E+00  8.18133E+00
#           8.38038E+00  8.58428E+00  8.79315E+00  9.00709E+00  9.22624E+00
#           9.45072E+00  9.68067E+00  9.91620E+00  1.01575E+01  1.04046E+01
#           1.06578E+01  1.09171E+01  1.11827E+01  1.14548E+01  1.17335E+01
#           1.20190E+01  1.23114E+01  1.26109E+01  1.29178E+01  1.32321E+01
#           1.35540E+01  1.38838E+01  1.42216E+01  1.45676E+01  1.49221E+01
#           1.52851E+01  1.56570E+01  1.60380E+01  1.64282E+01  1.68279E+01
#           1.72374E+01  1.76568E+01  1.80864E+01  1.85264E+01  1.89772E+01
#           1.94389E+01  1.99119E+01  2.03963E+01  2.08926E+01  2.14009E+01
#           2.19216E+01  2.24550E+01  2.30014E+01  2.35610E+01  2.41343E+01
#           2.47215E+01  2.53230E+01  2.59391E+01  2.65702E+01  2.72167E+01
#           2.78789E+01  2.85572E+01  2.92520E+01  2.99637E+01  3.06928E+01
#           3.14396E+01  3.22045E+01  3.29881E+01  3.37907E+01  3.46128E+01
#           3.54550E+01  3.63177E+01  3.72013E+01  3.81064E+01  3.90336E+01
#           3.99833E+01  4.09561E+01  4.19526E+01  4.29734E+01  4.40189E+01
#           4.50900E+01  4.61870E+01  4.73108E+01  4.84619E+01  4.96410E+01
#           5.08488E+01  5.20860E+01  5.33533E+01  5.46514E+01  5.59812E+01
#           5.73432E+01  5.87384E+01  6.01676E+01  6.16315E+01  6.31311E+01
#           6.46671E+01  6.62405E+01  6.78522E+01  6.95031E+01  7.11941E+01
#           7.29263E+01  7.47007E+01  7.65182E+01  7.83800E+01  8.02870E+01
#           8.22405E+01  8.42414E+01  8.62911E+01  8.83906E+01  9.05412E+01
#           9.27442E+01  9.50007E+01  9.73122E+01  9.96799E+01  1.02105E+02
#           1.04589E+02  1.07134E+02  1.09741E+02  1.12411E+02  1.15146E+02
#           1.17948E+02  1.20817E+02  1.23757E+02  1.26768E+02  1.29852E+02
#           1.33012E+02  1.36248E+02  1.39563E+02  1.42959E+02  1.46437E+02
#           1.50000E+02
     unit =    2            # unit is [1/cm^2/(MeV/n)/source]
     axis =  eng            # axis of output
     file = detector-07.out  # file name of output for the above axis
   output = f-curr          # surface crossing forward current spectrum
     part =  neutron  
# kf/name :  2112     
#    used :        main (  %)        temp (  %)       total (  %)
#  memory :         414 (  0)           0 (  0)         414 (  0)

#------------------------------------------------------------------------------
#newpage:
#   no. =    1   reg = 106 - 206

x: Energy [MeV/n]
y:  F-Curr [1/cm^2/(MeV/n)/source]         
p: xlog ylog afac(0.8) form(0.9)
h: n            x            y(neutron ),hh0l   n 
#  e-lower      e-upper      neutron     r.err 
   1.0000E-02   1.0243E-02   5.8062E-05  0.1187
   1.0243E-02   1.0493E-02   5.4768E-05  0.1205
   1.0493E-02   1.0748E-02   6.3355E-05  0.1111
   1.0748E-02   1.1009E-02   5.2538E-05  0.1204
   1.1009E-02   1.1277E-02   4.6971E-05  0.1260
   1.1277E-02   1.1552E-02   4.2961E-05  0.1302
   1.1552E-02   1.1833E-02   5.1879E-05  0.1168
   1.1833E-02   1.2121E-02   4.9440E-05  0.1180
   1.2121E-02   1.2415E-02   4.9320E-05  0.1171
   1.2415E-02   1.2718E-02   4.3347E-05  0.1233
   1.2718E-02   1.3027E-02   5.1529E-05  0.1118
   1.3027E-02   1.3344E-02   4.3224E-05  0.1205
   1.3344E-02   1.3669E-02   4.0601E-05  0.1231
   1.3669E-02   1.4001E-02   4.5755E-05  0.1142
   1.4001E-02   1.4342E-02   3.7985E-05  0.1241
   1.4342E-02   1.4691E-02   3.6616E-05  0.1250
   1.4691E-02   1.5048E-02   3.5779E-05  0.1243
   1.5048E-02   1.5414E-02   4.4735E-05  0.1104
   1.5414E-02   1.5789E-02   4.0145E-05  0.1148
   1.5789E-02   1.6174E-02   4.3963E-05  0.1085
   1.6174E-02   1.6567E-02   3.7518E-05  0.1163
   1.6567E-02   1.6970E-02   4.0580E-05  0.1104
   1.6970E-02   1.7383E-02   3.9107E-05  0.1111
   1.7383E-02   1.7806E-02   3.2076E-05  0.1213
   1.7806E-02   1.8239E-02   3.2682E-05  0.1187
   1.8239E-02   1.8683E-02   3.5930E-05  0.1118
   1.8683E-02   1.9138E-02   3.6170E-05  0.1099
   1.9138E-02   1.9603E-02   2.6036E-05  0.1281
   1.9603E-02   2.0080E-02   3.3444E-05  0.1118
   2.0080E-02   2.0569E-02   2.4074E-05  0.1302
   2.0569E-02   2.1069E-02   3.2546E-05  0.1105
   2.1069E-02   2.1582E-02   2.9377E-05  0.1148
   2.1582E-02   2.2107E-02   2.7683E-05  0.1171
   2.2107E-02   2.2645E-02   2.2940E-05  0.1270
   2.2645E-02   2.3196E-02   3.2563E-05  0.1054
   2.3196E-02   2.3760E-02   3.1113E-05  0.1063
   2.3760E-02   2.4338E-02   2.4834E-05  0.1179
   2.4338E-02   2.4930E-02   2.3595E-05  0.1195
   2.4930E-02   2.5537E-02   2.4117E-05  0.1164
   2.5537E-02   2.6158E-02   2.3736E-05  0.1163
   2.6158E-02   2.6795E-02   2.4378E-05  0.1133
   2.6795E-02   2.7447E-02   2.5687E-05  0.1091
   2.7447E-02   2.8114E-02   2.0777E-05  0.1196
   2.8114E-02   2.8799E-02   2.4173E-05  0.1098
   2.8799E-02   2.9499E-02   1.9954E-05  0.1195
   2.9499E-02   3.0217E-02   2.2729E-05  0.1102
   3.0217E-02   3.0952E-02   2.5813E-05  0.1020
   3.0952E-02   3.1705E-02   2.1330E-05  0.1112
   3.1705E-02   3.2477E-02   2.4435E-05  0.1027
   3.2477E-02   3.3267E-02   1.8603E-05  0.1161
   3.3267E-02   3.4076E-02   1.9733E-05  0.1118
   3.4076E-02   3.4905E-02   1.5152E-05  0.1260
   3.4905E-02   3.5755E-02   1.4300E-05  0.1281
   3.5755E-02   3.6625E-02   1.9453E-05  0.1085
   3.6625E-02   3.7516E-02   1.5656E-05  0.1195
   3.7516E-02   3.8428E-02   1.7030E-05  0.1132
   3.8428E-02   3.9363E-02   1.6858E-05  0.1125
   3.9363E-02   4.0321E-02   1.9128E-05  0.1042
   4.0321E-02   4.1302E-02   1.5460E-05  0.1147
   4.1302E-02   4.2307E-02   1.6092E-05  0.1111
   4.2307E-02   4.3337E-02   1.5131E-05  0.1132
   4.3337E-02   4.4391E-02   1.3404E-05  0.1187
   4.4391E-02   4.5471E-02   1.4820E-05  0.1113
   4.5471E-02   4.6577E-02   1.5849E-05  0.1066
   4.6577E-02   4.7711E-02   1.3681E-05  0.1133
   4.7711E-02   4.8871E-02   1.4759E-05  0.1079
   4.8871E-02   5.0061E-02   1.3419E-05  0.1118
   5.0061E-02   5.1279E-02   1.1901E-05  0.1171
   5.1279E-02   5.2526E-02   1.3364E-05  0.1092
   5.2526E-02   5.3804E-02   1.0739E-05  0.1204
   5.3804E-02   5.5113E-02   1.3254E-05  0.1072
   5.5113E-02   5.6454E-02   9.7316E-06  0.1232
   5.6454E-02   5.7828E-02   1.2147E-05  0.1092
   5.7828E-02   5.9235E-02   1.1746E-05  0.1098
   5.9235E-02   6.0676E-02   1.0344E-05  0.1155
   6.0676E-02   6.2152E-02   1.0238E-05  0.1148
   6.2152E-02   6.3665E-02   1.0558E-05  0.1118
   6.3665E-02   6.5214E-02   9.1132E-06  0.1187
   6.5214E-02   6.6800E-02   1.0069E-05  0.1118
   6.6800E-02   6.8426E-02   9.7379E-06  0.1122
   6.8426E-02   7.0090E-02   8.6181E-06  0.1179
   7.0090E-02   7.1796E-02   1.1663E-05  0.1000
   7.1796E-02   7.3543E-02   1.0876E-05  0.1021
   7.3543E-02   7.5332E-02   8.9087E-06  0.1118
   7.5332E-02   7.7165E-02   1.0199E-05  0.1030
   7.7165E-02   7.9042E-02   1.0424E-05  0.1010
   7.9042E-02   8.0965E-02   7.6043E-06  0.1163
   8.0965E-02   8.2935E-02   8.8971E-06  0.1066
   8.2935E-02   8.4953E-02   9.1936E-06  0.1034
   8.4953E-02   8.7020E-02   7.1476E-06  0.1162
   8.7020E-02   8.9138E-02   8.1162E-06  0.1073
   8.9138E-02   9.1306E-02   8.1265E-06  0.1061
   9.1306E-02   9.3528E-02   6.6507E-06  0.1162
   9.3528E-02   9.5804E-02   8.4340E-06  0.1017
   9.5804E-02   9.8134E-02   7.1657E-06  0.1092
   9.8134E-02   1.0052E-01   5.3109E-06  0.1251
   1.0052E-01   1.0297E-01   8.6721E-06  0.0969
   1.0297E-01   1.0547E-01   8.3466E-06  0.0976
   1.0547E-01   1.0804E-01   9.7428E-06  0.0892
   1.0804E-01   1.1067E-01   8.9402E-06  0.0921
   1.1067E-01   1.1336E-01   1.0222E-05  0.0851
   1.1336E-01   1.1612E-01   1.0538E-05  0.0828
   1.1612E-01   1.1894E-01   1.0204E-05  0.0830
   1.1894E-01   1.2184E-01   1.0795E-05  0.0799
   1.2184E-01   1.2480E-01   1.1592E-05  0.0762
   1.2480E-01   1.2784E-01   1.2138E-05  0.0735
   1.2784E-01   1.3095E-01   1.1918E-05  0.0733
   1.3095E-01   1.3414E-01   1.2177E-05  0.0716
   1.3414E-01   1.3740E-01   1.2425E-05  0.0701
   1.3740E-01   1.4074E-01   1.4407E-05  0.0643
   1.4074E-01   1.4417E-01   1.4924E-05  0.0624
   1.4417E-01   1.4767E-01   1.4143E-05  0.0633
   1.4767E-01   1.5127E-01   1.5503E-05  0.0598
   1.5127E-01   1.5495E-01   1.4973E-05  0.0601
   1.5495E-01   1.5872E-01   1.7287E-05  0.0553
   1.5872E-01   1.6258E-01   1.8265E-05  0.0531
   1.6258E-01   1.6654E-01   1.6629E-05  0.0551
   1.6654E-01   1.7059E-01   1.9316E-05  0.0504
   1.7059E-01   1.7474E-01   1.8723E-05  0.0506
   1.7474E-01   1.7899E-01   1.9543E-05  0.0490
   1.7899E-01   1.8334E-01   2.0181E-05  0.0476
   1.8334E-01   1.8781E-01   2.0318E-05  0.0469
   1.8781E-01   1.9237E-01   2.1863E-05  0.0447
   1.9237E-01   1.9706E-01   2.2980E-05  0.0430
   1.9706E-01   2.0185E-01   2.2888E-05  0.0426
   2.0185E-01   2.0676E-01   2.4336E-05  0.0408
   2.0676E-01   2.1179E-01   2.4483E-05  0.0402
   2.1179E-01   2.1694E-01   2.5189E-05  0.0392
   2.1694E-01   2.2222E-01   2.6503E-05  0.0377
   2.2222E-01   2.2763E-01   2.4723E-05  0.0386
   2.2763E-01   2.3317E-01   2.7190E-05  0.0364
   2.3317E-01   2.3884E-01   2.8103E-05  0.0354
   2.3884E-01   2.4465E-01   2.7517E-05  0.0353
   2.4465E-01   2.5061E-01   3.0833E-05  0.0329
   2.5061E-01   2.5670E-01   3.1292E-05  0.0323
   2.5670E-01   2.6295E-01   3.0704E-05  0.0322
   2.6295E-01   2.6935E-01   3.1959E-05  0.0312
   2.6935E-01   2.7590E-01   3.2137E-05  0.0308
   2.7590E-01   2.8261E-01   3.4510E-05  0.0293
   2.8261E-01   2.8949E-01   3.5238E-05  0.0287
   2.8949E-01   2.9653E-01   3.5956E-05  0.0281
   2.9653E-01   3.0375E-01   3.8359E-05  0.0268
   3.0375E-01   3.1114E-01   3.6148E-05  0.0273
   3.1114E-01   3.1871E-01   3.8328E-05  0.0262
   3.1871E-01   3.2646E-01   3.7367E-05  0.0262
   3.2646E-01   3.3441E-01   4.0334E-05  0.0249
   3.3441E-01   3.4254E-01   4.0633E-05  0.0245
   3.4254E-01   3.5088E-01   4.0246E-05  0.0244
   3.5088E-01   3.5941E-01   4.2830E-05  0.0233
   3.5941E-01   3.6816E-01   4.3505E-05  0.0229
   3.6816E-01   3.7712E-01   4.1627E-05  0.0231
   3.7712E-01   3.8629E-01   4.4500E-05  0.0221
   3.8629E-01   3.9569E-01   4.4235E-05  0.0219
   3.9569E-01   4.0532E-01   4.7897E-05  0.0208
   4.0532E-01   4.1518E-01   4.7223E-05  0.0207
   4.1518E-01   4.2528E-01   4.8585E-05  0.0201
   4.2528E-01   4.3563E-01   5.0130E-05  0.0196
   4.3563E-01   4.4623E-01   5.0969E-05  0.0192
   4.4623E-01   4.5708E-01   5.2235E-05  0.0187
   4.5708E-01   4.6821E-01   5.1210E-05  0.0187
   4.6821E-01   4.7960E-01   5.2382E-05  0.0183
   4.7960E-01   4.9127E-01   5.3286E-05  0.0179
   4.9127E-01   5.0322E-01   5.5090E-05  0.0174
   5.0322E-01   5.1546E-01   5.4483E-05  0.0173
   5.1546E-01   5.2800E-01   5.4369E-05  0.0171
   5.2800E-01   5.4085E-01   5.4952E-05  0.0168
   5.4085E-01   5.5401E-01   5.6100E-05  0.0164
   5.5401E-01   5.6749E-01   5.6283E-05  0.0162
   5.6749E-01   5.8130E-01   5.7713E-05  0.0158
   5.8130E-01   5.9544E-01   5.8722E-05  0.0155
   5.9544E-01   6.0993E-01   5.6899E-05  0.0155
   6.0993E-01   6.2477E-01   5.9001E-05  0.0151
   6.2477E-01   6.3997E-01   5.8926E-05  0.0149
   6.3997E-01   6.5554E-01   5.9761E-05  0.0146
   6.5554E-01   6.7149E-01   5.9068E-05  0.0145
   6.7149E-01   6.8783E-01   6.0003E-05  0.0142
   6.8783E-01   7.0456E-01   5.9804E-05  0.0141
   7.0456E-01   7.2171E-01   6.2397E-05  0.0136
   7.2171E-01   7.3927E-01   5.9634E-05  0.0138
   7.3927E-01   7.5725E-01   6.2176E-05  0.0133
   7.5725E-01   7.7568E-01   6.0321E-05  0.0134
   7.7568E-01   7.9455E-01   6.1763E-05  0.0131
   7.9455E-01   8.1388E-01   6.1033E-05  0.0130
   8.1388E-01   8.3368E-01   6.0465E-05  0.0129
   8.3368E-01   8.5397E-01   5.9723E-05  0.0128
   8.5397E-01   8.7475E-01   5.9011E-05  0.0127
   8.7475E-01   8.9603E-01   5.8878E-05  0.0126
   8.9603E-01   9.1783E-01   5.7120E-05  0.0126
   9.1783E-01   9.4016E-01   5.6822E-05  0.0125
   9.4016E-01   9.6304E-01   5.3658E-05  0.0127
   9.6304E-01   9.8647E-01   5.3365E-05  0.0126
   9.8647E-01   1.0105E+00   5.2452E-05  0.0126
   1.0105E+00   1.0351E+00   5.1314E-05  0.0125
   1.0351E+00   1.0602E+00   5.2319E-05  0.0123
   1.0602E+00   1.0860E+00   5.3409E-05  0.0120
   1.0860E+00   1.1125E+00   5.3488E-05  0.0118
   1.1125E+00   1.1395E+00   5.5038E-05  0.0115
   1.1395E+00   1.1673E+00   5.6819E-05  0.0112
   1.1673E+00   1.1957E+00   5.7743E-05  0.0110
   1.1957E+00   1.2247E+00   5.8186E-05  0.0108
   1.2247E+00   1.2545E+00   5.9006E-05  0.0106
   1.2545E+00   1.2851E+00   6.0250E-05  0.0104
   1.2851E+00   1.3163E+00   6.1211E-05  0.0102
   1.3163E+00   1.3484E+00   6.1008E-05  0.0101
   1.3484E+00   1.3812E+00   6.2343E-05  0.0098
   1.3812E+00   1.4148E+00   6.3517E-05  0.0096
   1.4148E+00   1.4492E+00   6.3695E-05  0.0095
   1.4492E+00   1.4845E+00   6.4450E-05  0.0093
   1.4845E+00   1.5206E+00   6.3984E-05  0.0092
   1.5206E+00   1.5576E+00   6.3994E-05  0.0091
   1.5576E+00   1.5955E+00   6.3671E-05  0.0090
   1.5955E+00   1.6343E+00   6.4175E-05  0.0089
   1.6343E+00   1.6741E+00   6.4001E-05  0.0088
   1.6741E+00   1.7148E+00   6.5078E-05  0.0086
   1.7148E+00   1.7565E+00   6.5414E-05  0.0085
   1.7565E+00   1.7992E+00   6.2441E-05  0.0086
   1.7992E+00   1.8430E+00   6.0407E-05  0.0086
   1.8430E+00   1.8879E+00   5.9963E-05  0.0085
   1.8879E+00   1.9338E+00   5.9733E-05  0.0084
   1.9338E+00   1.9808E+00   5.9250E-05  0.0084
   1.9808E+00   2.0290E+00   5.8848E-05  0.0083
   2.0290E+00   2.0784E+00   5.8933E-05  0.0082
   2.0784E+00   2.1290E+00   6.0277E-05  0.0080
   2.1290E+00   2.1808E+00   6.0909E-05  0.0078
   2.1808E+00   2.2338E+00   6.2526E-05  0.0076
   2.2338E+00   2.2882E+00   6.0528E-05  0.0077
   2.2882E+00   2.3439E+00   5.9696E-05  0.0077
   2.3439E+00   2.4009E+00   5.9642E-05  0.0076
   2.4009E+00   2.4593E+00   6.0396E-05  0.0074
   2.4593E+00   2.5191E+00   5.9888E-05  0.0074
   2.5191E+00   2.5804E+00   6.0366E-05  0.0073
   2.5804E+00   2.6432E+00   6.0546E-05  0.0072
   2.6432E+00   2.7075E+00   5.9861E-05  0.0071
   2.7075E+00   2.7734E+00   5.9063E-05  0.0071
   2.7734E+00   2.8409E+00   5.8034E-05  0.0071
   2.8409E+00   2.9100E+00   5.8654E-05  0.0069
   2.9100E+00   2.9808E+00   5.8139E-05  0.0069
   2.9808E+00   3.0533E+00   5.9090E-05  0.0068
   3.0533E+00   3.1276E+00   5.7586E-05  0.0068
   3.1276E+00   3.2037E+00   5.8085E-05  0.0067
   3.2037E+00   3.2817E+00   5.7348E-05  0.0066
   3.2817E+00   3.3615E+00   5.7484E-05  0.0065
   3.3615E+00   3.4433E+00   5.6744E-05  0.0065
   3.4433E+00   3.5271E+00   5.6479E-05  0.0064
   3.5271E+00   3.6129E+00   5.7039E-05  0.0063
   3.6129E+00   3.7008E+00   5.6683E-05  0.0063
   3.7008E+00   3.7908E+00   5.6297E-05  0.0062
   3.7908E+00   3.8831E+00   5.5969E-05  0.0062
   3.8831E+00   3.9776E+00   5.4571E-05  0.0062
   3.9776E+00   4.0743E+00   5.4810E-05  0.0061
   4.0743E+00   4.1735E+00   5.4125E-05  0.0061
   4.1735E+00   4.2750E+00   5.4505E-05  0.0060
   4.2750E+00   4.3790E+00   5.2933E-05  0.0060
   4.3790E+00   4.4856E+00   5.2889E-05  0.0059
   4.4856E+00   4.5947E+00   5.2345E-05  0.0059
   4.5947E+00   4.7065E+00   5.1676E-05  0.0058
   4.7065E+00   4.8210E+00   5.0953E-05  0.0058
   4.8210E+00   4.9383E+00   5.0720E-05  0.0058
   4.9383E+00   5.0585E+00   5.0173E-05  0.0057
   5.0585E+00   5.1815E+00   4.9878E-05  0.0057
   5.1815E+00   5.3076E+00   4.9570E-05  0.0056
   5.3076E+00   5.4368E+00   4.8552E-05  0.0056
   5.4368E+00   5.5690E+00   4.8150E-05  0.0056
   5.5690E+00   5.7045E+00   4.7729E-05  0.0055
   5.7045E+00   5.8433E+00   4.7194E-05  0.0055
   5.8433E+00   5.9855E+00   4.6569E-05  0.0055
   5.9855E+00   6.1311E+00   4.6297E-05  0.0054
   6.1311E+00   6.2803E+00   4.6280E-05  0.0054
   6.2803E+00   6.4331E+00   4.5252E-05  0.0054
   6.4331E+00   6.5896E+00   4.4619E-05  0.0053
   6.5896E+00   6.7500E+00   4.4237E-05  0.0053
   6.7500E+00   6.9142E+00   4.4148E-05  0.0052
   6.9142E+00   7.0824E+00   4.3185E-05  0.0052
   7.0824E+00   7.2548E+00   4.3511E-05  0.0051
   7.2548E+00   7.4313E+00   4.2863E-05  0.0051
   7.4313E+00   7.6121E+00   4.2238E-05  0.0051
   7.6121E+00   7.7973E+00   4.1533E-05  0.0051
   7.7973E+00   7.9870E+00   4.1230E-05  0.0050
   7.9870E+00   8.1813E+00   4.0489E-05  0.0050
   8.1813E+00   8.3804E+00   3.9608E-05  0.0050
   8.3804E+00   8.5843E+00   3.9176E-05  0.0050
   8.5843E+00   8.7931E+00   3.8790E-05  0.0050
   8.7931E+00   9.0071E+00   3.8165E-05  0.0049
   9.0071E+00   9.2262E+00   3.7074E-05  0.0049
   9.2262E+00   9.4507E+00   3.6419E-05  0.0049
   9.4507E+00   9.6807E+00   3.5650E-05  0.0049
   9.6807E+00   9.9162E+00   3.5067E-05  0.0049
   9.9162E+00   1.0157E+01   3.5544E-05  0.0048
   1.0157E+01   1.0405E+01   3.4720E-05  0.0048
   1.0405E+01   1.0658E+01   3.3756E-05  0.0048
   1.0658E+01   1.0917E+01   3.2918E-05  0.0048
   1.0917E+01   1.1183E+01   3.1862E-05  0.0049
   1.1183E+01   1.1455E+01   3.1577E-05  0.0048
   1.1455E+01   1.1733E+01   3.0827E-05  0.0048
   1.1733E+01   1.2019E+01   3.0022E-05  0.0048
   1.2019E+01   1.2311E+01   2.9190E-05  0.0048
   1.2311E+01   1.2611E+01   2.8538E-05  0.0048
   1.2611E+01   1.2918E+01   2.8013E-05  0.0048
   1.2918E+01   1.3232E+01   2.7190E-05  0.0048
   1.3232E+01   1.3554E+01   2.6082E-05  0.0049
   1.3554E+01   1.3884E+01   2.5440E-05  0.0049
   1.3884E+01   1.4222E+01   2.4744E-05  0.0049
   1.4222E+01   1.4568E+01   2.3543E-05  0.0050
   1.4568E+01   1.4922E+01   2.2587E-05  0.0050
   1.4922E+01   1.5285E+01   2.1845E-05  0.0050
   1.5285E+01   1.5657E+01   2.1004E-05  0.0051
   1.5657E+01   1.6038E+01   1.9994E-05  0.0051
   1.6038E+01   1.6428E+01   1.8787E-05  0.0052
   1.6428E+01   1.6828E+01   1.7805E-05  0.0053
   1.6828E+01   1.7237E+01   1.6709E-05  0.0054
   1.7237E+01   1.7657E+01   1.5426E-05  0.0056
   1.7657E+01   1.8086E+01   1.4029E-05  0.0058
   1.8086E+01   1.8526E+01   1.2535E-05  0.0060
   1.8526E+01   1.8977E+01   1.1418E-05  0.0062
   1.8977E+01   1.9439E+01   1.0082E-05  0.0066
   1.9439E+01   1.9912E+01   8.6808E-06  0.0070
   1.9912E+01   2.0396E+01   7.3049E-06  0.0075
   2.0396E+01   2.0893E+01   6.0622E-06  0.0082
   2.0893E+01   2.1401E+01   4.7603E-06  0.0091
   2.1401E+01   2.1922E+01   3.6389E-06  0.0103
   2.1922E+01   2.2455E+01   2.6826E-06  0.0118
   2.2455E+01   2.3001E+01   1.8677E-06  0.0140
   2.3001E+01   2.3561E+01   1.2165E-06  0.0171
   2.3561E+01   2.4134E+01   7.0754E-07  0.0222
   2.4134E+01   2.4721E+01   3.8351E-07  0.0298
   2.4721E+01   2.5323E+01   2.0482E-07  0.0403
   2.5323E+01   2.5939E+01   9.7382E-08  0.0577
   2.5939E+01   2.6570E+01   2.6619E-08  0.1091
   2.6570E+01   2.7217E+01   2.1656E-09  0.3780
   2.7217E+01   2.7879E+01   3.0202E-10  1.0000
   2.7879E+01   2.8557E+01   2.9485E-10  1.0000
   2.8557E+01   2.9252E+01   0.0000E+00  0.0000
   2.9252E+01   2.9964E+01   0.0000E+00  0.0000
   2.9964E+01   3.0693E+01   0.0000E+00  0.0000
   3.0693E+01   3.1440E+01   2.6782E-10  1.0000
   3.1440E+01   3.2205E+01   0.0000E+00  0.0000
   3.2205E+01   3.2988E+01   0.0000E+00  0.0000
   3.2988E+01   3.3791E+01   0.0000E+00  0.0000
   3.3791E+01   3.4613E+01   0.0000E+00  0.0000
   3.4613E+01   3.5455E+01   0.0000E+00  0.0000
   3.5455E+01   3.6318E+01   0.0000E+00  0.0000
   3.6318E+01   3.7201E+01   0.0000E+00  0.0000
   3.7201E+01   3.8106E+01   0.0000E+00  0.0000
   3.8106E+01   3.9034E+01   0.0000E+00  0.0000
   3.9034E+01   3.9983E+01   0.0000E+00  0.0000
   3.9983E+01   4.0956E+01   0.0000E+00  0.0000
   4.0956E+01   4.1953E+01   0.0000E+00  0.0000
   4.1953E+01   4.2973E+01   0.0000E+00  0.0000
   4.2973E+01   4.4019E+01   0.0000E+00  0.0000
   4.4019E+01   4.5090E+01   0.0000E+00  0.0000
   4.5090E+01   4.6187E+01   0.0000E+00  0.0000
   4.6187E+01   4.7311E+01   0.0000E+00  0.0000
   4.7311E+01   4.8462E+01   0.0000E+00  0.0000
   4.8462E+01   4.9641E+01   0.0000E+00  0.0000
   4.9641E+01   5.0849E+01   0.0000E+00  0.0000
   5.0849E+01   5.2086E+01   0.0000E+00  0.0000
   5.2086E+01   5.3353E+01   0.0000E+00  0.0000
   5.3353E+01   5.4651E+01   0.0000E+00  0.0000
   5.4651E+01   5.5981E+01   0.0000E+00  0.0000
   5.5981E+01   5.7343E+01   0.0000E+00  0.0000
   5.7343E+01   5.8738E+01   0.0000E+00  0.0000
   5.8738E+01   6.0168E+01   0.0000E+00  0.0000
   6.0168E+01   6.1632E+01   0.0000E+00  0.0000
   6.1632E+01   6.3131E+01   0.0000E+00  0.0000
   6.3131E+01   6.4667E+01   0.0000E+00  0.0000
   6.4667E+01   6.6240E+01   0.0000E+00  0.0000
   6.6240E+01   6.7852E+01   0.0000E+00  0.0000
   6.7852E+01   6.9503E+01   0.0000E+00  0.0000
   6.9503E+01   7.1194E+01   0.0000E+00  0.0000
   7.1194E+01   7.2926E+01   0.0000E+00  0.0000
   7.2926E+01   7.4701E+01   0.0000E+00  0.0000
   7.4701E+01   7.6518E+01   0.0000E+00  0.0000
   7.6518E+01   7.8380E+01   0.0000E+00  0.0000
   7.8380E+01   8.0287E+01   0.0000E+00  0.0000
   8.0287E+01   8.2240E+01   0.0000E+00  0.0000
   8.2240E+01   8.4241E+01   0.0000E+00  0.0000
   8.4241E+01   8.6291E+01   0.0000E+00  0.0000
   8.6291E+01   8.8391E+01   0.0000E+00  0.0000
   8.8391E+01   9.0541E+01   0.0000E+00  0.0000
   9.0541E+01   9.2744E+01   0.0000E+00  0.0000
   9.2744E+01   9.5001E+01   0.0000E+00  0.0000
   9.5001E+01   9.7312E+01   0.0000E+00  0.0000
   9.7312E+01   9.9680E+01   0.0000E+00  0.0000
   9.9680E+01   1.0211E+02   0.0000E+00  0.0000
   1.0211E+02   1.0459E+02   0.0000E+00  0.0000
   1.0459E+02   1.0713E+02   0.0000E+00  0.0000
   1.0713E+02   1.0974E+02   0.0000E+00  0.0000
   1.0974E+02   1.1241E+02   0.0000E+00  0.0000
   1.1241E+02   1.1515E+02   0.0000E+00  0.0000
   1.1515E+02   1.1795E+02   0.0000E+00  0.0000
   1.1795E+02   1.2082E+02   0.0000E+00  0.0000
   1.2082E+02   1.2376E+02   0.0000E+00  0.0000
   1.2376E+02   1.2677E+02   0.0000E+00  0.0000
   1.2677E+02   1.2985E+02   0.0000E+00  0.0000
   1.2985E+02   1.3301E+02   0.0000E+00  0.0000
   1.3301E+02   1.3625E+02   0.0000E+00  0.0000
   1.3625E+02   1.3956E+02   0.0000E+00  0.0000
   1.3956E+02   1.4296E+02   0.0000E+00  0.0000
   1.4296E+02   1.4644E+02   0.0000E+00  0.0000
   1.4644E+02   1.5000E+02   0.0000E+00  0.0000

#   sum over                 4.7806E-06
'no. =    1   reg = 106 - 206'
msuc: {\huge [t-cross] in region mesh}
msdr: {\it plotted by \ANGEL \version}
msdl: {\it calculated by \PHITS  3.26}
wt: s(0.7)
\vspace{-3}
  region surface crossing
  area  &=&   1.0000E+00 [cm^2]
e:
 
# Information for Restart Calculation
# This calculation was newly started
# istdev =  2 # 1:Batch variance, 2:History variance
# resc2  = 5.00000000000000000E+09 # Total source weight or Total source weight / maxcas
# resc3  = 5.00000000000000000E+09 # Total history number or Total batch number
# maxcas =   100000000 # History / Batch, only used for istdev=1
# bitrseed = 0110100000100010111000001110001111001110100100011111101000111001 # bit data of rseed
