[ T-Cross ]
    title = [t-cross] in region mesh
     mesh =  reg            # mesh type is region-wise
      reg =    1            # number of crossing regions
      non     r-from    r-to       area
      1       112       212        1.000000    
   e-type =    3            # e-mesh is log given by emin, emax and ne
     emin =  1.0000000E-02  # minimum value of e-mesh points
     emax =   150.0000      # maximum value of e-mesh points
#    edel =  2.4039514E-02  # mesh width of e-mesh points
       ne =    400          # number of e-mesh points
#    data = ( e(i), i = 1, ne + 1 )
#           1.00000E-02  1.02433E-02  1.04925E-02  1.07478E-02  1.10093E-02
#           1.12772E-02  1.15516E-02  1.18326E-02  1.21205E-02  1.24154E-02
#           1.27175E-02  1.30269E-02  1.33439E-02  1.36686E-02  1.40011E-02
#           1.43418E-02  1.46907E-02  1.50482E-02  1.54143E-02  1.57894E-02
#           1.61735E-02  1.65670E-02  1.69701E-02  1.73830E-02  1.78060E-02
#           1.82392E-02  1.86830E-02  1.91375E-02  1.96032E-02  2.00801E-02
#           2.05687E-02  2.10692E-02  2.15818E-02  2.21069E-02  2.26448E-02
#           2.31957E-02  2.37601E-02  2.43382E-02  2.49304E-02  2.55369E-02
#           2.61583E-02  2.67947E-02  2.74467E-02  2.81145E-02  2.87985E-02
#           2.94992E-02  3.02169E-02  3.09521E-02  3.17052E-02  3.24766E-02
#           3.32668E-02  3.40762E-02  3.49053E-02  3.57546E-02  3.66246E-02
#           3.75157E-02  3.84284E-02  3.93634E-02  4.03212E-02  4.13022E-02
#           4.23071E-02  4.33365E-02  4.43909E-02  4.54710E-02  4.65773E-02
#           4.77106E-02  4.88714E-02  5.00605E-02  5.12785E-02  5.25262E-02
#           5.38042E-02  5.51133E-02  5.64542E-02  5.78278E-02  5.92348E-02
#           6.06760E-02  6.21523E-02  6.36645E-02  6.52135E-02  6.68002E-02
#           6.84255E-02  7.00904E-02  7.17957E-02  7.35426E-02  7.53319E-02
#           7.71648E-02  7.90423E-02  8.09655E-02  8.29354E-02  8.49533E-02
#           8.70203E-02  8.91376E-02  9.13064E-02  9.35279E-02  9.58035E-02
#           9.81345E-02  1.00522E-01  1.02968E-01  1.05473E-01  1.08040E-01
#           1.10668E-01  1.13361E-01  1.16119E-01  1.18944E-01  1.21838E-01
#           1.24803E-01  1.27839E-01  1.30950E-01  1.34136E-01  1.37399E-01
#           1.40742E-01  1.44167E-01  1.47675E-01  1.51268E-01  1.54948E-01
#           1.58718E-01  1.62580E-01  1.66535E-01  1.70587E-01  1.74738E-01
#           1.78989E-01  1.83344E-01  1.87805E-01  1.92375E-01  1.97055E-01
#           2.01850E-01  2.06761E-01  2.11792E-01  2.16945E-01  2.22223E-01
#           2.27630E-01  2.33169E-01  2.38842E-01  2.44653E-01  2.50605E-01
#           2.56703E-01  2.62949E-01  2.69346E-01  2.75900E-01  2.82613E-01
#           2.89489E-01  2.96532E-01  3.03747E-01  3.11138E-01  3.18708E-01
#           3.26462E-01  3.34405E-01  3.42542E-01  3.50876E-01  3.59413E-01
#           3.68158E-01  3.77116E-01  3.86291E-01  3.95690E-01  4.05317E-01
#           4.15179E-01  4.25281E-01  4.35628E-01  4.46227E-01  4.57084E-01
#           4.68205E-01  4.79597E-01  4.91266E-01  5.03219E-01  5.15463E-01
#           5.28005E-01  5.40851E-01  5.54011E-01  5.67490E-01  5.81298E-01
#           5.95441E-01  6.09929E-01  6.24769E-01  6.39970E-01  6.55541E-01
#           6.71491E-01  6.87828E-01  7.04564E-01  7.21706E-01  7.39266E-01
#           7.57253E-01  7.75678E-01  7.94551E-01  8.13883E-01  8.33685E-01
#           8.53969E-01  8.74747E-01  8.96030E-01  9.17831E-01  9.40163E-01
#           9.63038E-01  9.86469E-01  1.01047E+00  1.03506E+00  1.06024E+00
#           1.08604E+00  1.11246E+00  1.13953E+00  1.16725E+00  1.19565E+00
#           1.22474E+00  1.25454E+00  1.28507E+00  1.31633E+00  1.34836E+00
#           1.38117E+00  1.41477E+00  1.44920E+00  1.48446E+00  1.52057E+00
#           1.55757E+00  1.59547E+00  1.63429E+00  1.67405E+00  1.71478E+00
#           1.75650E+00  1.79924E+00  1.84302E+00  1.88786E+00  1.93379E+00
#           1.98084E+00  2.02904E+00  2.07841E+00  2.12898E+00  2.18078E+00
#           2.23384E+00  2.28819E+00  2.34386E+00  2.40089E+00  2.45930E+00
#           2.51914E+00  2.58043E+00  2.64322E+00  2.70753E+00  2.77341E+00
#           2.84088E+00  2.91001E+00  2.98081E+00  3.05333E+00  3.12762E+00
#           3.20372E+00  3.28167E+00  3.36152E+00  3.44330E+00  3.52708E+00
#           3.61290E+00  3.70080E+00  3.79085E+00  3.88308E+00  3.97756E+00
#           4.07434E+00  4.17347E+00  4.27501E+00  4.37903E+00  4.48557E+00
#           4.59471E+00  4.70650E+00  4.82102E+00  4.93832E+00  5.05847E+00
#           5.18155E+00  5.30762E+00  5.43676E+00  5.56904E+00  5.70453E+00
#           5.84333E+00  5.98550E+00  6.13114E+00  6.28031E+00  6.43312E+00
#           6.58964E+00  6.74997E+00  6.91420E+00  7.08243E+00  7.25475E+00
#           7.43126E+00  7.61207E+00  7.79728E+00  7.98700E+00  8.18133E+00
#           8.38038E+00  8.58428E+00  8.79315E+00  9.00709E+00  9.22624E+00
#           9.45072E+00  9.68067E+00  9.91620E+00  1.01575E+01  1.04046E+01
#           1.06578E+01  1.09171E+01  1.11827E+01  1.14548E+01  1.17335E+01
#           1.20190E+01  1.23114E+01  1.26109E+01  1.29178E+01  1.32321E+01
#           1.35540E+01  1.38838E+01  1.42216E+01  1.45676E+01  1.49221E+01
#           1.52851E+01  1.56570E+01  1.60380E+01  1.64282E+01  1.68279E+01
#           1.72374E+01  1.76568E+01  1.80864E+01  1.85264E+01  1.89772E+01
#           1.94389E+01  1.99119E+01  2.03963E+01  2.08926E+01  2.14009E+01
#           2.19216E+01  2.24550E+01  2.30014E+01  2.35610E+01  2.41343E+01
#           2.47215E+01  2.53230E+01  2.59391E+01  2.65702E+01  2.72167E+01
#           2.78789E+01  2.85572E+01  2.92520E+01  2.99637E+01  3.06928E+01
#           3.14396E+01  3.22045E+01  3.29881E+01  3.37907E+01  3.46128E+01
#           3.54550E+01  3.63177E+01  3.72013E+01  3.81064E+01  3.90336E+01
#           3.99833E+01  4.09561E+01  4.19526E+01  4.29734E+01  4.40189E+01
#           4.50900E+01  4.61870E+01  4.73108E+01  4.84619E+01  4.96410E+01
#           5.08488E+01  5.20860E+01  5.33533E+01  5.46514E+01  5.59812E+01
#           5.73432E+01  5.87384E+01  6.01676E+01  6.16315E+01  6.31311E+01
#           6.46671E+01  6.62405E+01  6.78522E+01  6.95031E+01  7.11941E+01
#           7.29263E+01  7.47007E+01  7.65182E+01  7.83800E+01  8.02870E+01
#           8.22405E+01  8.42414E+01  8.62911E+01  8.83906E+01  9.05412E+01
#           9.27442E+01  9.50007E+01  9.73122E+01  9.96799E+01  1.02105E+02
#           1.04589E+02  1.07134E+02  1.09741E+02  1.12411E+02  1.15146E+02
#           1.17948E+02  1.20817E+02  1.23757E+02  1.26768E+02  1.29852E+02
#           1.33012E+02  1.36248E+02  1.39563E+02  1.42959E+02  1.46437E+02
#           1.50000E+02
     unit =    2            # unit is [1/cm^2/(MeV/n)/source]
     axis =  eng            # axis of output
     file = detector-13.out  # file name of output for the above axis
   output = f-curr          # surface crossing forward current spectrum
     part =  neutron  
# kf/name :  2112     
#    used :        main (  %)        temp (  %)       total (  %)
#  memory :         414 (  0)           0 (  0)         414 (  0)

#------------------------------------------------------------------------------
#newpage:
#   no. =    1   reg = 112 - 212

x: Energy [MeV/n]
y:  F-Curr [1/cm^2/(MeV/n)/source]         
p: xlog ylog afac(0.8) form(0.9)
h: n            x            y(neutron ),hh0l   n 
#  e-lower      e-upper      neutron     r.err 
   1.0000E-02   1.0243E-02   1.0794E-04  0.2748
   1.0243E-02   1.0493E-02   1.5373E-04  0.2277
   1.0493E-02   1.0748E-02   9.4010E-05  0.2887
   1.0748E-02   1.1009E-02   1.0814E-04  0.2648
   1.1009E-02   1.1277E-02   1.5679E-04  0.2182
   1.1277E-02   1.1552E-02   1.0326E-04  0.2596
   1.1552E-02   1.1833E-02   5.0849E-05  0.3708
   1.1833E-02   1.2121E-02   1.6077E-04  0.2073
   1.2121E-02   1.2415E-02   4.0691E-05  0.4082
   1.2415E-02   1.2718E-02   8.7009E-05  0.2746
   1.2718E-02   1.3027E-02   1.4220E-04  0.2132
   1.3027E-02   1.3344E-02   1.1989E-04  0.2294
   1.3344E-02   1.3669E-02   1.3675E-04  0.2115
   1.3669E-02   1.4001E-02   6.6152E-05  0.3015
   1.4001E-02   1.4342E-02   7.6323E-05  0.2774
   1.4342E-02   1.4691E-02   4.5852E-05  0.3536
   1.4691E-02   1.5048E-02   5.0358E-05  0.3333
   1.5048E-02   1.5414E-02   6.5550E-05  0.2887
   1.5414E-02   1.5789E-02   6.4816E-05  0.2853
   1.5789E-02   1.6174E-02   5.9870E-05  0.2917
   1.6174E-02   1.6567E-02   9.6566E-05  0.2294
   1.6567E-02   1.6970E-02   9.5088E-05  0.2276
   1.6970E-02   1.7383E-02   3.3907E-05  0.3780
   1.7383E-02   1.7806E-02   3.3101E-05  0.3780
   1.7806E-02   1.8239E-02   6.2322E-05  0.2696
   1.8239E-02   1.8683E-02   7.7273E-05  0.2406
   1.8683E-02   1.9138E-02   7.1107E-05  0.2477
   1.9138E-02   1.9603E-02   7.3019E-05  0.2425
   1.9603E-02   2.0080E-02   5.8705E-05  0.2673
   2.0080E-02   2.0569E-02   5.7311E-05  0.2673
   2.0569E-02   2.1069E-02   4.1962E-05  0.3049
   2.1069E-02   2.1582E-02   3.5113E-05  0.3333
   2.1582E-02   2.2107E-02   5.3921E-05  0.2645
   2.2107E-02   2.2645E-02   5.7634E-05  0.2519
   2.2645E-02   2.3196E-02   4.7190E-05  0.2774
   2.3196E-02   2.3760E-02   4.3042E-05  0.2855
   2.3760E-02   2.4338E-02   3.1851E-05  0.3266
   2.4338E-02   2.4930E-02   6.4171E-05  0.2294
   2.4930E-02   2.5537E-02   5.3441E-05  0.2471
   2.5537E-02   2.6158E-02   6.6398E-05  0.2155
   2.6158E-02   2.6795E-02   2.8282E-05  0.3333
   2.6795E-02   2.7447E-02   4.6017E-05  0.2582
   2.7447E-02   2.8114E-02   2.6954E-05  0.3333
   2.8114E-02   2.8799E-02   4.8242E-05  0.2443
   2.8799E-02   2.9499E-02   3.4252E-05  0.2887
   2.9499E-02   3.0217E-02   4.4937E-05  0.2482
   3.0217E-02   3.0952E-02   5.7127E-05  0.2182
   3.0952E-02   3.1705E-02   3.3197E-05  0.2800
   3.1705E-02   3.2477E-02   2.3748E-05  0.3280
   3.2477E-02   3.3267E-02   2.4045E-05  0.3201
   3.3267E-02   3.4076E-02   3.7064E-05  0.2582
   3.4076E-02   3.4905E-02   3.0153E-05  0.2800
   3.4905E-02   3.5755E-02   1.4130E-05  0.4082
   3.5755E-02   3.6625E-02   2.3357E-05  0.3117
   3.6625E-02   3.7516E-02   2.4688E-05  0.3015
   3.7516E-02   3.8428E-02   2.8336E-05  0.2713
   3.8428E-02   3.9363E-02   2.1391E-05  0.3162
   3.9363E-02   4.0321E-02   2.2971E-05  0.3015
   4.0321E-02   4.1302E-02   2.8541E-05  0.2673
   4.1302E-02   4.2307E-02   1.5922E-05  0.3536
   4.2307E-02   4.3337E-02   3.3030E-05  0.2425
   4.3337E-02   4.4391E-02   3.7936E-05  0.2236
   4.4391E-02   4.5471E-02   2.0369E-05  0.3015
   4.5471E-02   4.6577E-02   2.2018E-05  0.2848
   4.6577E-02   4.7711E-02   2.8468E-05  0.2481
   4.7711E-02   4.8871E-02   2.2398E-05  0.2774
   4.8871E-02   5.0061E-02   2.5230E-05  0.2582
   5.0061E-02   5.1279E-02   1.3957E-05  0.3379
   5.1279E-02   5.2526E-02   3.1259E-05  0.2250
   5.2526E-02   5.3804E-02   1.9306E-05  0.2815
   5.3804E-02   5.5113E-02   1.5483E-05  0.3123
   5.5113E-02   5.6454E-02   2.3864E-05  0.2500
   5.6454E-02   5.7828E-02   2.1841E-05  0.2582
   5.7828E-02   5.9235E-02   1.5636E-05  0.3015
   5.9235E-02   6.0676E-02   1.3877E-05  0.3162
   6.0676E-02   6.2152E-02   1.4902E-05  0.2946
   6.2152E-02   6.3665E-02   1.5871E-05  0.2887
   6.3665E-02   6.5214E-02   1.5691E-05  0.2853
   6.5214E-02   6.6800E-02   1.7827E-05  0.2647
   6.6800E-02   6.8426E-02   1.4151E-05  0.2917
   6.8426E-02   7.0090E-02   1.6388E-05  0.2670
   7.0090E-02   7.1796E-02   1.6419E-05  0.2673
   7.1796E-02   7.3543E-02   1.1449E-05  0.3162
   7.3543E-02   7.5332E-02   1.7884E-05  0.2500
   7.5332E-02   7.7165E-02   9.8206E-06  0.3333
   7.7165E-02   7.9042E-02   1.7900E-05  0.2402
   7.9042E-02   8.0965E-02   1.6639E-05  0.2500
   8.0965E-02   8.2935E-02   1.7259E-05  0.2425
   8.2935E-02   8.4953E-02   1.7840E-05  0.2357
   8.4953E-02   8.7020E-02   1.2579E-05  0.2774
   8.7020E-02   8.9138E-02   1.0391E-05  0.3015
   8.9138E-02   9.1306E-02   1.5216E-05  0.2443
   9.1306E-02   9.3528E-02   1.4090E-05  0.2497
   9.3528E-02   9.5804E-02   1.5381E-05  0.2373
   9.5804E-02   9.8134E-02   1.2133E-05  0.2648
   9.8134E-02   1.0052E-01   9.2139E-06  0.3015
   1.0052E-01   1.0297E-01   1.1562E-05  0.2648
   1.0297E-01   1.0547E-01   8.1012E-06  0.3120
   1.0547E-01   1.0804E-01   7.9211E-06  0.3116
   1.0804E-01   1.1067E-01   5.5417E-06  0.3643
   1.1067E-01   1.1336E-01   9.7649E-06  0.2745
   1.1336E-01   1.1612E-01   8.0954E-06  0.2974
   1.1612E-01   1.1894E-01   5.3092E-06  0.3590
   1.1894E-01   1.2184E-01   1.1748E-05  0.2425
   1.2184E-01   1.2480E-01   9.5861E-06  0.2637
   1.2480E-01   1.2784E-01   1.1856E-05  0.2357
   1.2784E-01   1.3095E-01   9.7470E-06  0.2557
   1.3095E-01   1.3414E-01   9.5077E-06  0.2559
   1.3414E-01   1.3740E-01   9.9041E-06  0.2477
   1.3740E-01   1.4074E-01   8.9739E-06  0.2582
   1.4074E-01   1.4417E-01   8.7607E-06  0.2582
   1.4417E-01   1.4767E-01   5.8626E-06  0.3082
   1.4767E-01   1.5127E-01   8.9061E-06  0.2500
   1.5127E-01   1.5495E-01   9.8519E-06  0.2341
   1.5495E-01   1.5872E-01   6.1765E-06  0.2883
   1.5872E-01   1.6258E-01   8.6469E-06  0.2417
   1.6258E-01   1.6654E-01   8.0896E-06  0.2500
   1.6654E-01   1.7059E-01   9.8718E-06  0.2236
   1.7059E-01   1.7474E-01   7.3268E-06  0.2551
   1.7474E-01   1.7899E-01   8.0734E-06  0.2404
   1.7899E-01   1.8334E-01   7.8072E-06  0.2425
   1.8334E-01   1.8781E-01   7.0207E-06  0.2496
   1.8781E-01   1.9237E-01   1.0784E-05  0.2000
   1.9237E-01   1.9706E-01   4.7616E-06  0.2979
   1.9706E-01   2.0185E-01   5.0057E-06  0.2826
   2.0185E-01   2.0676E-01   4.4796E-06  0.3015
   2.0676E-01   2.1179E-01   6.2284E-06  0.2495
   2.1179E-01   2.1694E-01   1.2420E-05  0.1768
   2.1694E-01   2.2222E-01   8.9041E-06  0.2052
   2.2222E-01   2.2763E-01   1.1097E-05  0.1826
   2.2763E-01   2.3317E-01   6.8612E-06  0.2294
   2.3317E-01   2.3884E-01   1.0638E-05  0.1816
   2.3884E-01   2.4465E-01   7.2837E-06  0.2167
   2.4465E-01   2.5061E-01   1.1696E-05  0.1682
   2.5061E-01   2.5670E-01   9.9398E-06  0.1794
   2.5670E-01   2.6295E-01   1.1688E-05  0.1650
   2.6295E-01   2.6935E-01   9.6909E-06  0.1796
   2.6935E-01   2.7590E-01   9.2001E-06  0.1818
   2.7590E-01   2.8261E-01   1.2489E-05  0.1533
   2.8261E-01   2.8949E-01   1.5652E-05  0.1357
   2.8949E-01   2.9653E-01   1.6185E-05  0.1319
   2.9653E-01   3.0375E-01   1.2841E-05  0.1457
   3.0375E-01   3.1114E-01   1.9214E-05  0.1183
   3.1114E-01   3.1871E-01   1.7701E-05  0.1217
   3.1871E-01   3.2646E-01   1.4531E-05  0.1329
   3.2646E-01   3.3441E-01   1.6057E-05  0.1247
   3.3441E-01   3.4254E-01   1.5696E-05  0.1246
   3.4254E-01   3.5088E-01   1.8220E-05  0.1143
   3.5088E-01   3.5941E-01   2.1658E-05  0.1035
   3.5941E-01   3.6816E-01   2.1872E-05  0.1014
   3.6816E-01   3.7712E-01   2.2271E-05  0.0996
   3.7712E-01   3.8629E-01   2.0582E-05  0.1027
   3.8629E-01   3.9569E-01   1.8791E-05  0.1059
   3.9569E-01   4.0532E-01   2.5469E-05  0.0897
   4.0532E-01   4.1518E-01   2.3971E-05  0.0917
   4.1518E-01   4.2528E-01   2.7169E-05  0.0851
   4.2528E-01   4.3563E-01   3.0974E-05  0.0785
   4.3563E-01   4.4623E-01   2.7378E-05  0.0822
   4.4623E-01   4.5708E-01   3.4172E-05  0.0732
   4.5708E-01   4.6821E-01   3.2930E-05  0.0736
   4.6821E-01   4.7960E-01   2.7789E-05  0.0791
   4.7960E-01   4.9127E-01   3.6066E-05  0.0686
   4.9127E-01   5.0322E-01   3.4135E-05  0.0697
   5.0322E-01   5.1546E-01   3.1511E-05  0.0717
   5.1546E-01   5.2800E-01   3.5359E-05  0.0668
   5.2800E-01   5.4085E-01   3.6893E-05  0.0647
   5.4085E-01   5.5401E-01   3.4319E-05  0.0662
   5.5401E-01   5.6749E-01   3.9875E-05  0.0609
   5.6749E-01   5.8130E-01   3.9424E-05  0.0602
   5.8130E-01   5.9544E-01   3.7385E-05  0.0613
   5.9544E-01   6.0993E-01   3.9992E-05  0.0585
   6.0993E-01   6.2477E-01   3.9821E-05  0.0578
   6.2477E-01   6.3997E-01   3.9229E-05  0.0577
   6.3997E-01   6.5554E-01   4.3583E-05  0.0540
   6.5554E-01   6.7149E-01   4.4639E-05  0.0527
   6.7149E-01   6.8783E-01   4.3742E-05  0.0526
   6.8783E-01   7.0456E-01   4.2840E-05  0.0526
   7.0456E-01   7.2171E-01   4.5668E-05  0.0503
   7.2171E-01   7.3927E-01   4.5612E-05  0.0497
   7.3927E-01   7.5725E-01   4.5982E-05  0.0490
   7.5725E-01   7.7568E-01   4.8885E-05  0.0468
   7.7568E-01   7.9455E-01   4.9890E-05  0.0458
   7.9455E-01   8.1388E-01   4.8200E-05  0.0461
   8.1388E-01   8.3368E-01   4.7833E-05  0.0456
   8.3368E-01   8.5397E-01   4.7533E-05  0.0453
   8.5397E-01   8.7475E-01   4.7225E-05  0.0449
   8.7475E-01   8.9603E-01   4.7856E-05  0.0440
   8.9603E-01   9.1783E-01   4.7367E-05  0.0438
   9.1783E-01   9.4016E-01   4.5734E-05  0.0440
   9.4016E-01   9.6304E-01   4.9206E-05  0.0420
   9.6304E-01   9.8647E-01   5.2535E-05  0.0401
   9.8647E-01   1.0105E+00   5.4474E-05  0.0390
   1.0105E+00   1.0351E+00   5.1807E-05  0.0395
   1.0351E+00   1.0602E+00   4.9701E-05  0.0398
   1.0602E+00   1.0860E+00   4.8401E-05  0.0397
   1.0860E+00   1.1125E+00   4.9096E-05  0.0390
   1.1125E+00   1.1395E+00   4.6204E-05  0.0398
   1.1395E+00   1.1673E+00   4.7938E-05  0.0385
   1.1673E+00   1.1957E+00   4.5816E-05  0.0390
   1.1957E+00   1.2247E+00   5.0203E-05  0.0367
   1.2247E+00   1.2545E+00   4.6899E-05  0.0376
   1.2545E+00   1.2851E+00   4.7401E-05  0.0369
   1.2851E+00   1.3163E+00   4.9743E-05  0.0356
   1.3163E+00   1.3484E+00   4.5993E-05  0.0366
   1.3484E+00   1.3812E+00   4.8323E-05  0.0352
   1.3812E+00   1.4148E+00   4.6570E-05  0.0355
   1.4148E+00   1.4492E+00   4.1062E-05  0.0373
   1.4492E+00   1.4845E+00   4.6179E-05  0.0348
   1.4845E+00   1.5206E+00   4.4726E-05  0.0349
   1.5206E+00   1.5576E+00   4.3298E-05  0.0351
   1.5576E+00   1.5955E+00   4.4980E-05  0.0341
   1.5955E+00   1.6343E+00   4.4593E-05  0.0338
   1.6343E+00   1.6741E+00   4.2981E-05  0.0340
   1.6741E+00   1.7148E+00   4.2084E-05  0.0339
   1.7148E+00   1.7565E+00   4.0489E-05  0.0341
   1.7565E+00   1.7992E+00   4.0520E-05  0.0337
   1.7992E+00   1.8430E+00   4.3835E-05  0.0320
   1.8430E+00   1.8879E+00   4.1913E-05  0.0324
   1.8879E+00   1.9338E+00   4.0117E-05  0.0326
   1.9338E+00   1.9808E+00   4.1335E-05  0.0318
   1.9808E+00   2.0290E+00   3.9894E-05  0.0320
   2.0290E+00   2.0784E+00   4.0494E-05  0.0314
   2.0784E+00   2.1290E+00   3.9801E-05  0.0313
   2.1290E+00   2.1808E+00   3.9336E-05  0.0310
   2.1808E+00   2.2338E+00   3.9544E-05  0.0306
   2.2338E+00   2.2882E+00   3.6308E-05  0.0315
   2.2882E+00   2.3439E+00   3.8049E-05  0.0304
   2.3439E+00   2.4009E+00   3.5915E-05  0.0310
   2.4009E+00   2.4593E+00   3.7006E-05  0.0301
   2.4593E+00   2.5191E+00   3.5669E-05  0.0304
   2.5191E+00   2.5804E+00   3.7485E-05  0.0293
   2.5804E+00   2.6432E+00   3.5624E-05  0.0296
   2.6432E+00   2.7075E+00   3.5836E-05  0.0292
   2.7075E+00   2.7734E+00   3.4659E-05  0.0294
   2.7734E+00   2.8409E+00   3.4553E-05  0.0290
   2.8409E+00   2.9100E+00   3.3593E-05  0.0291
   2.9100E+00   2.9808E+00   3.4928E-05  0.0282
   2.9808E+00   3.0533E+00   3.2714E-05  0.0288
   3.0533E+00   3.1276E+00   3.5220E-05  0.0275
   3.1276E+00   3.2037E+00   3.2863E-05  0.0281
   3.2037E+00   3.2817E+00   3.5802E-05  0.0265
   3.2817E+00   3.3615E+00   3.4600E-05  0.0267
   3.3615E+00   3.4433E+00   3.3688E-05  0.0267
   3.4433E+00   3.5271E+00   3.4678E-05  0.0261
   3.5271E+00   3.6129E+00   3.6421E-05  0.0251
   3.6129E+00   3.7008E+00   3.3570E-05  0.0259
   3.7008E+00   3.7908E+00   3.5406E-05  0.0249
   3.7908E+00   3.8831E+00   3.5922E-05  0.0244
   3.8831E+00   3.9776E+00   3.5087E-05  0.0244
   3.9776E+00   4.0743E+00   3.6562E-05  0.0236
   4.0743E+00   4.1735E+00   3.6062E-05  0.0235
   4.1735E+00   4.2750E+00   3.3603E-05  0.0241
   4.2750E+00   4.3790E+00   3.1373E-05  0.0246
   4.3790E+00   4.4856E+00   3.1072E-05  0.0244
   4.4856E+00   4.5947E+00   2.9837E-05  0.0246
   4.5947E+00   4.7065E+00   2.7215E-05  0.0255
   4.7065E+00   4.8210E+00   2.5342E-05  0.0261
   4.8210E+00   4.9383E+00   2.4398E-05  0.0263
   4.9383E+00   5.0585E+00   2.3201E-05  0.0266
   5.0585E+00   5.1815E+00   2.2601E-05  0.0267
   5.1815E+00   5.3076E+00   2.1668E-05  0.0269
   5.3076E+00   5.4368E+00   1.9764E-05  0.0279
   5.4368E+00   5.5690E+00   1.9742E-05  0.0275
   5.5690E+00   5.7045E+00   1.9676E-05  0.0273
   5.7045E+00   5.8433E+00   1.9566E-05  0.0270
   5.8433E+00   5.9855E+00   1.8738E-05  0.0273
   5.9855E+00   6.1311E+00   1.8781E-05  0.0269
   6.1311E+00   6.2803E+00   1.8488E-05  0.0268
   6.2803E+00   6.4331E+00   1.7146E-05  0.0275
   6.4331E+00   6.5896E+00   1.7067E-05  0.0272
   6.5896E+00   6.7500E+00   1.6381E-05  0.0275
   6.7500E+00   6.9142E+00   1.5650E-05  0.0278
   6.9142E+00   7.0824E+00   1.5492E-05  0.0276
   7.0824E+00   7.2548E+00   1.5045E-05  0.0277
   7.2548E+00   7.4313E+00   1.4865E-05  0.0275
   7.4313E+00   7.6121E+00   1.3536E-05  0.0285
   7.6121E+00   7.7973E+00   1.3519E-05  0.0282
   7.7973E+00   7.9870E+00   1.3397E-05  0.0280
   7.9870E+00   8.1813E+00   1.3164E-05  0.0279
   8.1813E+00   8.3804E+00   1.2585E-05  0.0282
   8.3804E+00   8.5843E+00   1.2093E-05  0.0284
   8.5843E+00   8.7931E+00   1.1832E-05  0.0284
   8.7931E+00   9.0071E+00   1.1449E-05  0.0285
   9.0071E+00   9.2262E+00   1.0354E-05  0.0296
   9.2262E+00   9.4507E+00   1.0319E-05  0.0293
   9.4507E+00   9.6807E+00   9.9733E-06  0.0295
   9.6807E+00   9.9162E+00   9.8640E-06  0.0293
   9.9162E+00   1.0157E+01   9.3385E-06  0.0297
   1.0157E+01   1.0405E+01   9.0379E-06  0.0299
   1.0405E+01   1.0658E+01   8.7971E-06  0.0299
   1.0658E+01   1.0917E+01   8.7826E-06  0.0296
   1.0917E+01   1.1183E+01   8.6122E-06  0.0295
   1.1183E+01   1.1455E+01   8.2495E-06  0.0298
   1.1455E+01   1.1733E+01   7.6778E-06  0.0305
   1.1733E+01   1.2019E+01   7.6117E-06  0.0303
   1.2019E+01   1.2311E+01   7.3337E-06  0.0305
   1.2311E+01   1.2611E+01   6.3205E-06  0.0325
   1.2611E+01   1.2918E+01   6.3459E-06  0.0320
   1.2918E+01   1.3232E+01   6.0550E-06  0.0324
   1.3232E+01   1.3554E+01   5.6498E-06  0.0331
   1.3554E+01   1.3884E+01   5.4200E-06  0.0334
   1.3884E+01   1.4222E+01   5.4756E-06  0.0329
   1.4222E+01   1.4568E+01   5.0817E-06  0.0337
   1.4568E+01   1.4922E+01   4.3529E-06  0.0360
   1.4922E+01   1.5285E+01   4.0142E-06  0.0370
   1.5285E+01   1.5657E+01   3.6515E-06  0.0384
   1.5657E+01   1.6038E+01   2.9331E-06  0.0423
   1.6038E+01   1.6428E+01   2.6088E-06  0.0443
   1.6428E+01   1.6828E+01   2.0590E-06  0.0493
   1.6828E+01   1.7237E+01   1.5973E-06  0.0553
   1.7237E+01   1.7657E+01   1.2644E-06  0.0614
   1.7657E+01   1.8086E+01   1.0614E-06  0.0662
   1.8086E+01   1.8526E+01   7.7717E-07  0.0765
   1.8526E+01   1.8977E+01   6.4476E-07  0.0829
   1.8977E+01   1.9439E+01   4.7647E-07  0.0953
   1.9439E+01   1.9912E+01   3.2138E-07  0.1147
   1.9912E+01   2.0396E+01   9.9077E-08  0.2041
   2.0396E+01   2.0893E+01   6.0452E-08  0.2582
   2.0893E+01   2.1401E+01   1.5738E-08  0.5000
   2.1401E+01   2.1922E+01   0.0000E+00  0.0000
   2.1922E+01   2.2455E+01   0.0000E+00  0.0000
   2.2455E+01   2.3001E+01   0.0000E+00  0.0000
   2.3001E+01   2.3561E+01   0.0000E+00  0.0000
   2.3561E+01   2.4134E+01   0.0000E+00  0.0000
   2.4134E+01   2.4721E+01   0.0000E+00  0.0000
   2.4721E+01   2.5323E+01   0.0000E+00  0.0000
   2.5323E+01   2.5939E+01   0.0000E+00  0.0000
   2.5939E+01   2.6570E+01   0.0000E+00  0.0000
   2.6570E+01   2.7217E+01   0.0000E+00  0.0000
   2.7217E+01   2.7879E+01   0.0000E+00  0.0000
   2.7879E+01   2.8557E+01   0.0000E+00  0.0000
   2.8557E+01   2.9252E+01   0.0000E+00  0.0000
   2.9252E+01   2.9964E+01   0.0000E+00  0.0000
   2.9964E+01   3.0693E+01   0.0000E+00  0.0000
   3.0693E+01   3.1440E+01   0.0000E+00  0.0000
   3.1440E+01   3.2205E+01   0.0000E+00  0.0000
   3.2205E+01   3.2988E+01   0.0000E+00  0.0000
   3.2988E+01   3.3791E+01   0.0000E+00  0.0000
   3.3791E+01   3.4613E+01   0.0000E+00  0.0000
   3.4613E+01   3.5455E+01   0.0000E+00  0.0000
   3.5455E+01   3.6318E+01   0.0000E+00  0.0000
   3.6318E+01   3.7201E+01   0.0000E+00  0.0000
   3.7201E+01   3.8106E+01   0.0000E+00  0.0000
   3.8106E+01   3.9034E+01   0.0000E+00  0.0000
   3.9034E+01   3.9983E+01   0.0000E+00  0.0000
   3.9983E+01   4.0956E+01   0.0000E+00  0.0000
   4.0956E+01   4.1953E+01   0.0000E+00  0.0000
   4.1953E+01   4.2973E+01   0.0000E+00  0.0000
   4.2973E+01   4.4019E+01   0.0000E+00  0.0000
   4.4019E+01   4.5090E+01   0.0000E+00  0.0000
   4.5090E+01   4.6187E+01   0.0000E+00  0.0000
   4.6187E+01   4.7311E+01   0.0000E+00  0.0000
   4.7311E+01   4.8462E+01   0.0000E+00  0.0000
   4.8462E+01   4.9641E+01   0.0000E+00  0.0000
   4.9641E+01   5.0849E+01   0.0000E+00  0.0000
   5.0849E+01   5.2086E+01   0.0000E+00  0.0000
   5.2086E+01   5.3353E+01   0.0000E+00  0.0000
   5.3353E+01   5.4651E+01   0.0000E+00  0.0000
   5.4651E+01   5.5981E+01   0.0000E+00  0.0000
   5.5981E+01   5.7343E+01   0.0000E+00  0.0000
   5.7343E+01   5.8738E+01   0.0000E+00  0.0000
   5.8738E+01   6.0168E+01   0.0000E+00  0.0000
   6.0168E+01   6.1632E+01   0.0000E+00  0.0000
   6.1632E+01   6.3131E+01   0.0000E+00  0.0000
   6.3131E+01   6.4667E+01   0.0000E+00  0.0000
   6.4667E+01   6.6240E+01   0.0000E+00  0.0000
   6.6240E+01   6.7852E+01   0.0000E+00  0.0000
   6.7852E+01   6.9503E+01   0.0000E+00  0.0000
   6.9503E+01   7.1194E+01   0.0000E+00  0.0000
   7.1194E+01   7.2926E+01   0.0000E+00  0.0000
   7.2926E+01   7.4701E+01   0.0000E+00  0.0000
   7.4701E+01   7.6518E+01   0.0000E+00  0.0000
   7.6518E+01   7.8380E+01   0.0000E+00  0.0000
   7.8380E+01   8.0287E+01   0.0000E+00  0.0000
   8.0287E+01   8.2240E+01   0.0000E+00  0.0000
   8.2240E+01   8.4241E+01   0.0000E+00  0.0000
   8.4241E+01   8.6291E+01   0.0000E+00  0.0000
   8.6291E+01   8.8391E+01   0.0000E+00  0.0000
   8.8391E+01   9.0541E+01   0.0000E+00  0.0000
   9.0541E+01   9.2744E+01   0.0000E+00  0.0000
   9.2744E+01   9.5001E+01   0.0000E+00  0.0000
   9.5001E+01   9.7312E+01   0.0000E+00  0.0000
   9.7312E+01   9.9680E+01   0.0000E+00  0.0000
   9.9680E+01   1.0211E+02   0.0000E+00  0.0000
   1.0211E+02   1.0459E+02   0.0000E+00  0.0000
   1.0459E+02   1.0713E+02   0.0000E+00  0.0000
   1.0713E+02   1.0974E+02   0.0000E+00  0.0000
   1.0974E+02   1.1241E+02   0.0000E+00  0.0000
   1.1241E+02   1.1515E+02   0.0000E+00  0.0000
   1.1515E+02   1.1795E+02   0.0000E+00  0.0000
   1.1795E+02   1.2082E+02   0.0000E+00  0.0000
   1.2082E+02   1.2376E+02   0.0000E+00  0.0000
   1.2376E+02   1.2677E+02   0.0000E+00  0.0000
   1.2677E+02   1.2985E+02   0.0000E+00  0.0000
   1.2985E+02   1.3301E+02   0.0000E+00  0.0000
   1.3301E+02   1.3625E+02   0.0000E+00  0.0000
   1.3625E+02   1.3956E+02   0.0000E+00  0.0000
   1.3956E+02   1.4296E+02   0.0000E+00  0.0000
   1.4296E+02   1.4644E+02   0.0000E+00  0.0000
   1.4644E+02   1.5000E+02   0.0000E+00  0.0000

#   sum over                 1.9589E-06
'no. =    1   reg = 112 - 212'
msuc: {\huge [t-cross] in region mesh}
msdr: {\it plotted by \ANGEL \version}
msdl: {\it calculated by \PHITS  3.26}
wt: s(0.7)
\vspace{-3}
  region surface crossing
  area  &=&   1.0000E+00 [cm^2]
e:
 
# Information for Restart Calculation
# This calculation was newly started
# istdev =  2 # 1:Batch variance, 2:History variance
# resc2  = 5.00000000000000000E+08 # Total source weight or Total source weight / maxcas
# resc3  = 5.00000000000000000E+08 # Total history number or Total batch number
# maxcas =   500000000 # History / Batch, only used for istdev=1
# bitrseed = 1101101111010011011000101101110001100110110010110001010100010001 # bit data of rseed
