[ T-Cross ]
    title = [t-cross] in region mesh
     mesh =  reg            # mesh type is region-wise
      reg =    1            # number of crossing regions
      non     r-from    r-to       area
      1       104       204        1.000000    
   e-type =    3            # e-mesh is log given by emin, emax and ne
     emin =  1.0000000E-02  # minimum value of e-mesh points
     emax =   150.0000      # maximum value of e-mesh points
#    edel =  2.4039514E-02  # mesh width of e-mesh points
       ne =    400          # number of e-mesh points
#    data = ( e(i), i = 1, ne + 1 )
#           1.00000E-02  1.02433E-02  1.04925E-02  1.07478E-02  1.10093E-02
#           1.12772E-02  1.15516E-02  1.18326E-02  1.21205E-02  1.24154E-02
#           1.27175E-02  1.30269E-02  1.33439E-02  1.36686E-02  1.40011E-02
#           1.43418E-02  1.46907E-02  1.50482E-02  1.54143E-02  1.57894E-02
#           1.61735E-02  1.65670E-02  1.69701E-02  1.73830E-02  1.78060E-02
#           1.82392E-02  1.86830E-02  1.91375E-02  1.96032E-02  2.00801E-02
#           2.05687E-02  2.10692E-02  2.15818E-02  2.21069E-02  2.26448E-02
#           2.31957E-02  2.37601E-02  2.43382E-02  2.49304E-02  2.55369E-02
#           2.61583E-02  2.67947E-02  2.74467E-02  2.81145E-02  2.87985E-02
#           2.94992E-02  3.02169E-02  3.09521E-02  3.17052E-02  3.24766E-02
#           3.32668E-02  3.40762E-02  3.49053E-02  3.57546E-02  3.66246E-02
#           3.75157E-02  3.84284E-02  3.93634E-02  4.03212E-02  4.13022E-02
#           4.23071E-02  4.33365E-02  4.43909E-02  4.54710E-02  4.65773E-02
#           4.77106E-02  4.88714E-02  5.00605E-02  5.12785E-02  5.25262E-02
#           5.38042E-02  5.51133E-02  5.64542E-02  5.78278E-02  5.92348E-02
#           6.06760E-02  6.21523E-02  6.36645E-02  6.52135E-02  6.68002E-02
#           6.84255E-02  7.00904E-02  7.17957E-02  7.35426E-02  7.53319E-02
#           7.71648E-02  7.90423E-02  8.09655E-02  8.29354E-02  8.49533E-02
#           8.70203E-02  8.91376E-02  9.13064E-02  9.35279E-02  9.58035E-02
#           9.81345E-02  1.00522E-01  1.02968E-01  1.05473E-01  1.08040E-01
#           1.10668E-01  1.13361E-01  1.16119E-01  1.18944E-01  1.21838E-01
#           1.24803E-01  1.27839E-01  1.30950E-01  1.34136E-01  1.37399E-01
#           1.40742E-01  1.44167E-01  1.47675E-01  1.51268E-01  1.54948E-01
#           1.58718E-01  1.62580E-01  1.66535E-01  1.70587E-01  1.74738E-01
#           1.78989E-01  1.83344E-01  1.87805E-01  1.92375E-01  1.97055E-01
#           2.01850E-01  2.06761E-01  2.11792E-01  2.16945E-01  2.22223E-01
#           2.27630E-01  2.33169E-01  2.38842E-01  2.44653E-01  2.50605E-01
#           2.56703E-01  2.62949E-01  2.69346E-01  2.75900E-01  2.82613E-01
#           2.89489E-01  2.96532E-01  3.03747E-01  3.11138E-01  3.18708E-01
#           3.26462E-01  3.34405E-01  3.42542E-01  3.50876E-01  3.59413E-01
#           3.68158E-01  3.77116E-01  3.86291E-01  3.95690E-01  4.05317E-01
#           4.15179E-01  4.25281E-01  4.35628E-01  4.46227E-01  4.57084E-01
#           4.68205E-01  4.79597E-01  4.91266E-01  5.03219E-01  5.15463E-01
#           5.28005E-01  5.40851E-01  5.54011E-01  5.67490E-01  5.81298E-01
#           5.95441E-01  6.09929E-01  6.24769E-01  6.39970E-01  6.55541E-01
#           6.71491E-01  6.87828E-01  7.04564E-01  7.21706E-01  7.39266E-01
#           7.57253E-01  7.75678E-01  7.94551E-01  8.13883E-01  8.33685E-01
#           8.53969E-01  8.74747E-01  8.96030E-01  9.17831E-01  9.40163E-01
#           9.63038E-01  9.86469E-01  1.01047E+00  1.03506E+00  1.06024E+00
#           1.08604E+00  1.11246E+00  1.13953E+00  1.16725E+00  1.19565E+00
#           1.22474E+00  1.25454E+00  1.28507E+00  1.31633E+00  1.34836E+00
#           1.38117E+00  1.41477E+00  1.44920E+00  1.48446E+00  1.52057E+00
#           1.55757E+00  1.59547E+00  1.63429E+00  1.67405E+00  1.71478E+00
#           1.75650E+00  1.79924E+00  1.84302E+00  1.88786E+00  1.93379E+00
#           1.98084E+00  2.02904E+00  2.07841E+00  2.12898E+00  2.18078E+00
#           2.23384E+00  2.28819E+00  2.34386E+00  2.40089E+00  2.45930E+00
#           2.51914E+00  2.58043E+00  2.64322E+00  2.70753E+00  2.77341E+00
#           2.84088E+00  2.91001E+00  2.98081E+00  3.05333E+00  3.12762E+00
#           3.20372E+00  3.28167E+00  3.36152E+00  3.44330E+00  3.52708E+00
#           3.61290E+00  3.70080E+00  3.79085E+00  3.88308E+00  3.97756E+00
#           4.07434E+00  4.17347E+00  4.27501E+00  4.37903E+00  4.48557E+00
#           4.59471E+00  4.70650E+00  4.82102E+00  4.93832E+00  5.05847E+00
#           5.18155E+00  5.30762E+00  5.43676E+00  5.56904E+00  5.70453E+00
#           5.84333E+00  5.98550E+00  6.13114E+00  6.28031E+00  6.43312E+00
#           6.58964E+00  6.74997E+00  6.91420E+00  7.08243E+00  7.25475E+00
#           7.43126E+00  7.61207E+00  7.79728E+00  7.98700E+00  8.18133E+00
#           8.38038E+00  8.58428E+00  8.79315E+00  9.00709E+00  9.22624E+00
#           9.45072E+00  9.68067E+00  9.91620E+00  1.01575E+01  1.04046E+01
#           1.06578E+01  1.09171E+01  1.11827E+01  1.14548E+01  1.17335E+01
#           1.20190E+01  1.23114E+01  1.26109E+01  1.29178E+01  1.32321E+01
#           1.35540E+01  1.38838E+01  1.42216E+01  1.45676E+01  1.49221E+01
#           1.52851E+01  1.56570E+01  1.60380E+01  1.64282E+01  1.68279E+01
#           1.72374E+01  1.76568E+01  1.80864E+01  1.85264E+01  1.89772E+01
#           1.94389E+01  1.99119E+01  2.03963E+01  2.08926E+01  2.14009E+01
#           2.19216E+01  2.24550E+01  2.30014E+01  2.35610E+01  2.41343E+01
#           2.47215E+01  2.53230E+01  2.59391E+01  2.65702E+01  2.72167E+01
#           2.78789E+01  2.85572E+01  2.92520E+01  2.99637E+01  3.06928E+01
#           3.14396E+01  3.22045E+01  3.29881E+01  3.37907E+01  3.46128E+01
#           3.54550E+01  3.63177E+01  3.72013E+01  3.81064E+01  3.90336E+01
#           3.99833E+01  4.09561E+01  4.19526E+01  4.29734E+01  4.40189E+01
#           4.50900E+01  4.61870E+01  4.73108E+01  4.84619E+01  4.96410E+01
#           5.08488E+01  5.20860E+01  5.33533E+01  5.46514E+01  5.59812E+01
#           5.73432E+01  5.87384E+01  6.01676E+01  6.16315E+01  6.31311E+01
#           6.46671E+01  6.62405E+01  6.78522E+01  6.95031E+01  7.11941E+01
#           7.29263E+01  7.47007E+01  7.65182E+01  7.83800E+01  8.02870E+01
#           8.22405E+01  8.42414E+01  8.62911E+01  8.83906E+01  9.05412E+01
#           9.27442E+01  9.50007E+01  9.73122E+01  9.96799E+01  1.02105E+02
#           1.04589E+02  1.07134E+02  1.09741E+02  1.12411E+02  1.15146E+02
#           1.17948E+02  1.20817E+02  1.23757E+02  1.26768E+02  1.29852E+02
#           1.33012E+02  1.36248E+02  1.39563E+02  1.42959E+02  1.46437E+02
#           1.50000E+02
     unit =    2            # unit is [1/cm^2/(MeV/n)/source]
     axis =  eng            # axis of output
     file = detector-05.out  # file name of output for the above axis
   output = f-curr          # surface crossing forward current spectrum
     part =  neutron  
# kf/name :  2112     
#    used :        main (  %)        temp (  %)       total (  %)
#  memory :         414 (  0)           0 (  0)         414 (  0)

#------------------------------------------------------------------------------
#newpage:
#   no. =    1   reg = 104 - 204

x: Energy [MeV/n]
y:  F-Curr [1/cm^2/(MeV/n)/source]         
p: xlog ylog afac(0.8) form(0.9)
h: n            x            y(neutron ),hh0l   n 
#  e-lower      e-upper      neutron     r.err 
   1.0000E-02   1.0243E-02   6.1568E-03  0.0211
   1.0243E-02   1.0493E-02   6.2353E-03  0.0207
   1.0493E-02   1.0748E-02   6.1551E-03  0.0206
   1.0748E-02   1.1009E-02   5.9630E-03  0.0207
   1.1009E-02   1.1277E-02   5.7865E-03  0.0207
   1.1277E-02   1.1552E-02   5.8094E-03  0.0205
   1.1552E-02   1.1833E-02   6.1411E-03  0.0197
   1.1833E-02   1.2121E-02   5.8192E-03  0.0199
   1.2121E-02   1.2415E-02   5.9206E-03  0.0195
   1.2415E-02   1.2718E-02   5.7138E-03  0.0197
   1.2718E-02   1.3027E-02   5.7289E-03  0.0194
   1.3027E-02   1.3344E-02   5.6233E-03  0.0193
   1.3344E-02   1.3669E-02   5.7289E-03  0.0189
   1.3669E-02   1.4001E-02   5.4104E-03  0.0192
   1.4001E-02   1.4342E-02   5.4776E-03  0.0189
   1.4342E-02   1.4691E-02   5.3590E-03  0.0189
   1.4691E-02   1.5048E-02   5.2280E-03  0.0189
   1.5048E-02   1.5414E-02   5.4825E-03  0.0182
   1.5414E-02   1.5789E-02   5.3861E-03  0.0182
   1.5789E-02   1.6174E-02   5.2217E-03  0.0182
   1.6174E-02   1.6567E-02   5.1790E-03  0.0181
   1.6567E-02   1.6970E-02   5.2941E-03  0.0177
   1.6970E-02   1.7383E-02   4.9504E-03  0.0181
   1.7383E-02   1.7806E-02   4.9715E-03  0.0178
   1.7806E-02   1.8239E-02   4.9950E-03  0.0176
   1.8239E-02   1.8683E-02   4.9950E-03  0.0173
   1.8683E-02   1.9138E-02   4.9497E-03  0.0172
   1.9138E-02   1.9603E-02   4.8765E-03  0.0171
   1.9603E-02   2.0080E-02   4.7998E-03  0.0171
   2.0080E-02   2.0569E-02   4.8141E-03  0.0168
   2.0569E-02   2.1069E-02   4.6718E-03  0.0169
   2.1069E-02   2.1582E-02   4.7091E-03  0.0166
   2.1582E-02   2.2107E-02   4.6607E-03  0.0165
   2.2107E-02   2.2645E-02   4.6144E-03  0.0164
   2.2645E-02   2.3196E-02   4.5423E-03  0.0163
   2.3196E-02   2.3760E-02   4.4167E-03  0.0164
   2.3760E-02   2.4338E-02   4.4283E-03  0.0161
   2.4338E-02   2.4930E-02   4.4413E-03  0.0159
   2.4930E-02   2.5537E-02   4.4776E-03  0.0157
   2.5537E-02   2.6158E-02   4.3165E-03  0.0158
   2.6158E-02   2.6795E-02   4.3282E-03  0.0156
   2.6795E-02   2.7447E-02   4.2254E-03  0.0156
   2.7447E-02   2.8114E-02   4.1759E-03  0.0155
   2.8114E-02   2.8799E-02   4.2327E-03  0.0152
   2.8799E-02   2.9499E-02   4.1863E-03  0.0151
   2.9499E-02   3.0217E-02   4.0535E-03  0.0151
   3.0217E-02   3.0952E-02   4.0796E-03  0.0149
   3.0952E-02   3.1705E-02   4.1385E-03  0.0146
   3.1705E-02   3.2477E-02   3.9434E-03  0.0148
   3.2477E-02   3.3267E-02   3.8978E-03  0.0147
   3.3267E-02   3.4076E-02   3.8983E-03  0.0145
   3.4076E-02   3.4905E-02   3.8749E-03  0.0144
   3.4905E-02   3.5755E-02   3.8362E-03  0.0143
   3.5755E-02   3.6625E-02   3.7826E-03  0.0142
   3.6625E-02   3.7516E-02   3.7497E-03  0.0141
   3.7516E-02   3.8428E-02   3.7606E-03  0.0139
   3.8428E-02   3.9363E-02   3.7234E-03  0.0138
   3.9363E-02   4.0321E-02   3.6475E-03  0.0138
   4.0321E-02   4.1302E-02   3.6920E-03  0.0136
   4.1302E-02   4.2307E-02   3.4908E-03  0.0138
   4.2307E-02   4.3337E-02   3.6566E-03  0.0133
   4.3337E-02   4.4391E-02   3.5176E-03  0.0134
   4.4391E-02   4.5471E-02   3.4918E-03  0.0133
   4.5471E-02   4.6577E-02   3.4230E-03  0.0133
   4.6577E-02   4.7711E-02   3.3826E-03  0.0132
   4.7711E-02   4.8871E-02   3.3573E-03  0.0131
   4.8871E-02   5.0061E-02   3.3785E-03  0.0129
   5.0061E-02   5.1279E-02   3.2745E-03  0.0129
   5.1279E-02   5.2526E-02   3.2434E-03  0.0128
   5.2526E-02   5.3804E-02   3.1578E-03  0.0129
   5.3804E-02   5.5113E-02   3.2457E-03  0.0125
   5.5113E-02   5.6454E-02   3.2390E-03  0.0124
   5.6454E-02   5.7828E-02   3.1630E-03  0.0124
   5.7828E-02   5.9235E-02   3.1298E-03  0.0123
   5.9235E-02   6.0676E-02   3.0474E-03  0.0123
   6.0676E-02   6.2152E-02   3.0116E-03  0.0122
   6.2152E-02   6.3665E-02   2.9952E-03  0.0121
   6.3665E-02   6.5214E-02   2.9791E-03  0.0120
   6.5214E-02   6.6800E-02   2.9495E-03  0.0119
   6.6800E-02   6.8426E-02   2.8944E-03  0.0119
   6.8426E-02   7.0090E-02   2.8595E-03  0.0118
   7.0090E-02   7.1796E-02   2.8186E-03  0.0118
   7.1796E-02   7.3543E-02   2.7783E-03  0.0117
   7.3543E-02   7.5332E-02   2.7910E-03  0.0116
   7.5332E-02   7.7165E-02   2.7589E-03  0.0115
   7.7165E-02   7.9042E-02   2.7253E-03  0.0114
   7.9042E-02   8.0965E-02   2.6810E-03  0.0114
   8.0965E-02   8.2935E-02   2.6752E-03  0.0112
   8.2935E-02   8.4953E-02   2.7065E-03  0.0110
   8.4953E-02   8.7020E-02   2.6051E-03  0.0111
   8.7020E-02   8.9138E-02   2.6122E-03  0.0110
   8.9138E-02   9.1306E-02   2.5566E-03  0.0110
   9.1306E-02   9.3528E-02   2.5031E-03  0.0110
   9.3528E-02   9.5804E-02   2.5037E-03  0.0108
   9.5804E-02   9.8134E-02   2.4408E-03  0.0108
   9.8134E-02   1.0052E-01   2.4540E-03  0.0107
   1.0052E-01   1.0297E-01   2.3970E-03  0.0107
   1.0297E-01   1.0547E-01   2.4093E-03  0.0105
   1.0547E-01   1.0804E-01   2.3474E-03  0.0105
   1.0804E-01   1.1067E-01   2.3875E-03  0.0103
   1.1067E-01   1.1336E-01   2.3189E-03  0.0103
   1.1336E-01   1.1612E-01   2.2774E-03  0.0103
   1.1612E-01   1.1894E-01   2.2823E-03  0.0102
   1.1894E-01   1.2184E-01   2.2345E-03  0.0102
   1.2184E-01   1.2480E-01   2.1983E-03  0.0101
   1.2480E-01   1.2784E-01   2.1601E-03  0.0101
   1.2784E-01   1.3095E-01   2.1538E-03  0.0100
   1.3095E-01   1.3414E-01   2.1272E-03  0.0099
   1.3414E-01   1.3740E-01   2.1118E-03  0.0098
   1.3740E-01   1.4074E-01   2.1092E-03  0.0097
   1.4074E-01   1.4417E-01   2.0722E-03  0.0097
   1.4417E-01   1.4767E-01   2.0460E-03  0.0096
   1.4767E-01   1.5127E-01   1.9918E-03  0.0097
   1.5127E-01   1.5495E-01   1.9965E-03  0.0095
   1.5495E-01   1.5872E-01   1.9688E-03  0.0095
   1.5872E-01   1.6258E-01   1.9440E-03  0.0094
   1.6258E-01   1.6654E-01   1.9228E-03  0.0094
   1.6654E-01   1.7059E-01   1.9073E-03  0.0093
   1.7059E-01   1.7474E-01   1.8862E-03  0.0092
   1.7474E-01   1.7899E-01   1.8497E-03  0.0092
   1.7899E-01   1.8334E-01   1.8378E-03  0.0091
   1.8334E-01   1.8781E-01   1.8048E-03  0.0091
   1.8781E-01   1.9237E-01   1.7704E-03  0.0091
   1.9237E-01   1.9706E-01   1.7490E-03  0.0090
   1.9706E-01   2.0185E-01   1.7505E-03  0.0089
   2.0185E-01   2.0676E-01   1.7033E-03  0.0089
   2.0676E-01   2.1179E-01   1.6916E-03  0.0089
   2.1179E-01   2.1694E-01   1.6569E-03  0.0088
   2.1694E-01   2.2222E-01   1.6390E-03  0.0088
   2.2222E-01   2.2763E-01   1.6084E-03  0.0088
   2.2763E-01   2.3317E-01   1.6002E-03  0.0087
   2.3317E-01   2.3884E-01   1.6074E-03  0.0086
   2.3884E-01   2.4465E-01   1.5488E-03  0.0086
   2.4465E-01   2.5061E-01   1.5192E-03  0.0086
   2.5061E-01   2.5670E-01   1.4907E-03  0.0086
   2.5670E-01   2.6295E-01   1.4942E-03  0.0085
   2.6295E-01   2.6935E-01   1.4650E-03  0.0084
   2.6935E-01   2.7590E-01   1.4241E-03  0.0085
   2.7590E-01   2.8261E-01   1.4146E-03  0.0084
   2.8261E-01   2.8949E-01   1.4049E-03  0.0083
   2.8949E-01   2.9653E-01   1.3916E-03  0.0082
   2.9653E-01   3.0375E-01   1.3508E-03  0.0083
   3.0375E-01   3.1114E-01   1.3291E-03  0.0082
   3.1114E-01   3.1871E-01   1.3067E-03  0.0082
   3.1871E-01   3.2646E-01   1.3030E-03  0.0081
   3.2646E-01   3.3441E-01   1.2781E-03  0.0081
   3.3441E-01   3.4254E-01   1.2382E-03  0.0081
   3.4254E-01   3.5088E-01   1.2134E-03  0.0081
   3.5088E-01   3.5941E-01   1.1977E-03  0.0081
   3.5941E-01   3.6816E-01   1.1863E-03  0.0080
   3.6816E-01   3.7712E-01   1.1649E-03  0.0080
   3.7712E-01   3.8629E-01   1.1433E-03  0.0080
   3.8629E-01   3.9569E-01   1.1187E-03  0.0080
   3.9569E-01   4.0532E-01   1.0917E-03  0.0080
   4.0532E-01   4.1518E-01   1.0636E-03  0.0080
   4.1518E-01   4.2528E-01   1.0574E-03  0.0079
   4.2528E-01   4.3563E-01   1.0316E-03  0.0079
   4.3563E-01   4.4623E-01   9.9929E-04  0.0079
   4.4623E-01   4.5708E-01   9.8566E-04  0.0079
   4.5708E-01   4.6821E-01   9.6308E-04  0.0079
   4.6821E-01   4.7960E-01   9.5718E-04  0.0078
   4.7960E-01   4.9127E-01   9.3019E-04  0.0078
   4.9127E-01   5.0322E-01   9.0009E-04  0.0079
   5.0322E-01   5.1546E-01   8.6967E-04  0.0079
   5.1546E-01   5.2800E-01   8.5890E-04  0.0079
   5.2800E-01   5.4085E-01   8.3827E-04  0.0079
   5.4085E-01   5.5401E-01   8.3345E-04  0.0078
   5.5401E-01   5.6749E-01   8.0918E-04  0.0078
   5.6749E-01   5.8130E-01   8.0188E-04  0.0078
   5.8130E-01   5.9544E-01   7.6563E-04  0.0078
   5.9544E-01   6.0993E-01   7.4521E-04  0.0079
   6.0993E-01   6.2477E-01   7.2080E-04  0.0079
   6.2477E-01   6.3997E-01   7.1600E-04  0.0078
   6.3997E-01   6.5554E-01   6.8127E-04  0.0079
   6.5554E-01   6.7149E-01   6.7014E-04  0.0079
   6.7149E-01   6.8783E-01   6.4653E-04  0.0079
   6.8783E-01   7.0456E-01   6.2916E-04  0.0080
   7.0456E-01   7.2171E-01   6.1515E-04  0.0080
   7.2171E-01   7.3927E-01   5.9139E-04  0.0080
   7.3927E-01   7.5725E-01   5.7421E-04  0.0080
   7.5725E-01   7.7568E-01   5.4400E-04  0.0082
   7.7568E-01   7.9455E-01   5.3954E-04  0.0081
   7.9455E-01   8.1388E-01   5.1928E-04  0.0082
   8.1388E-01   8.3368E-01   4.9738E-04  0.0082
   8.3368E-01   8.5397E-01   4.8461E-04  0.0082
   8.5397E-01   8.7475E-01   4.6121E-04  0.0083
   8.7475E-01   8.9603E-01   4.4827E-04  0.0084
   8.9603E-01   9.1783E-01   4.3472E-04  0.0084
   9.1783E-01   9.4016E-01   4.0681E-04  0.0086
   9.4016E-01   9.6304E-01   3.9100E-04  0.0086
   9.6304E-01   9.8647E-01   3.7605E-04  0.0087
   9.8647E-01   1.0105E+00   3.5875E-04  0.0088
   1.0105E+00   1.0351E+00   3.5525E-04  0.0087
   1.0351E+00   1.0602E+00   3.5953E-04  0.0086
   1.0602E+00   1.0860E+00   3.5677E-04  0.0085
   1.0860E+00   1.1125E+00   3.6607E-04  0.0083
   1.1125E+00   1.1395E+00   3.7663E-04  0.0081
   1.1395E+00   1.1673E+00   3.8403E-04  0.0079
   1.1673E+00   1.1957E+00   3.8680E-04  0.0078
   1.1957E+00   1.2247E+00   3.8740E-04  0.0077
   1.2247E+00   1.2545E+00   3.9218E-04  0.0076
   1.2545E+00   1.2851E+00   3.9742E-04  0.0074
   1.2851E+00   1.3163E+00   3.9893E-04  0.0073
   1.3163E+00   1.3484E+00   4.0262E-04  0.0072
   1.3484E+00   1.3812E+00   4.1089E-04  0.0070
   1.3812E+00   1.4148E+00   4.1756E-04  0.0069
   1.4148E+00   1.4492E+00   4.1056E-04  0.0069
   1.4492E+00   1.4845E+00   4.0699E-04  0.0068
   1.4845E+00   1.5206E+00   4.0418E-04  0.0068
   1.5206E+00   1.5576E+00   4.0450E-04  0.0067
   1.5576E+00   1.5955E+00   3.9996E-04  0.0066
   1.5955E+00   1.6343E+00   4.0039E-04  0.0066
   1.6343E+00   1.6741E+00   4.0017E-04  0.0065
   1.6741E+00   1.7148E+00   4.0547E-04  0.0064
   1.7148E+00   1.7565E+00   4.0471E-04  0.0063
   1.7565E+00   1.7992E+00   3.9747E-04  0.0063
   1.7992E+00   1.8430E+00   3.9123E-04  0.0062
   1.8430E+00   1.8879E+00   3.8387E-04  0.0062
   1.8879E+00   1.9338E+00   3.7918E-04  0.0062
   1.9338E+00   1.9808E+00   3.7562E-04  0.0061
   1.9808E+00   2.0290E+00   3.7716E-04  0.0061
   2.0290E+00   2.0784E+00   3.6606E-04  0.0061
   2.0784E+00   2.1290E+00   3.5414E-04  0.0061
   2.1290E+00   2.1808E+00   3.4711E-04  0.0061
   2.1808E+00   2.2338E+00   3.3778E-04  0.0061
   2.2338E+00   2.2882E+00   3.3309E-04  0.0061
   2.2882E+00   2.3439E+00   3.2579E-04  0.0061
   2.3439E+00   2.4009E+00   3.2383E-04  0.0060
   2.4009E+00   2.4593E+00   3.1480E-04  0.0060
   2.4593E+00   2.5191E+00   3.0540E-04  0.0060
   2.5191E+00   2.5804E+00   2.9105E-04  0.0061
   2.5804E+00   2.6432E+00   2.8128E-04  0.0061
   2.6432E+00   2.7075E+00   2.7038E-04  0.0062
   2.7075E+00   2.7734E+00   2.6203E-04  0.0062
   2.7734E+00   2.8409E+00   2.5846E-04  0.0062
   2.8409E+00   2.9100E+00   2.4644E-04  0.0063
   2.9100E+00   2.9808E+00   2.4090E-04  0.0063
   2.9808E+00   3.0533E+00   2.3311E-04  0.0063
   3.0533E+00   3.1276E+00   2.2436E-04  0.0063
   3.1276E+00   3.2037E+00   2.1323E-04  0.0064
   3.2037E+00   3.2817E+00   2.0329E-04  0.0065
   3.2817E+00   3.3615E+00   1.9331E-04  0.0066
   3.3615E+00   3.4433E+00   1.8425E-04  0.0067
   3.4433E+00   3.5271E+00   1.7757E-04  0.0067
   3.5271E+00   3.6129E+00   1.6969E-04  0.0068
   3.6129E+00   3.7008E+00   1.6168E-04  0.0069
   3.7008E+00   3.7908E+00   1.5470E-04  0.0069
   3.7908E+00   3.8831E+00   1.4520E-04  0.0071
   3.8831E+00   3.9776E+00   1.4000E-04  0.0071
   3.9776E+00   4.0743E+00   1.3331E-04  0.0072
   4.0743E+00   4.1735E+00   1.2745E-04  0.0073
   4.1735E+00   4.2750E+00   1.1824E-04  0.0075
   4.2750E+00   4.3790E+00   1.1238E-04  0.0076
   4.3790E+00   4.4856E+00   1.0766E-04  0.0076
   4.4856E+00   4.5947E+00   1.0127E-04  0.0078
   4.5947E+00   4.7065E+00   9.7031E-05  0.0078
   4.7065E+00   4.8210E+00   8.9847E-05  0.0081
   4.8210E+00   4.9383E+00   8.5553E-05  0.0082
   4.9383E+00   5.0585E+00   8.1324E-05  0.0083
   5.0585E+00   5.1815E+00   7.6603E-05  0.0084
   5.1815E+00   5.3076E+00   7.3075E-05  0.0085
   5.3076E+00   5.4368E+00   6.8510E-05  0.0087
   5.4368E+00   5.5690E+00   6.3869E-05  0.0089
   5.5690E+00   5.7045E+00   6.0428E-05  0.0090
   5.7045E+00   5.8433E+00   5.6265E-05  0.0092
   5.8433E+00   5.9855E+00   5.5074E-05  0.0092
   5.9855E+00   6.1311E+00   5.1392E-05  0.0094
   6.1311E+00   6.2803E+00   4.7903E-05  0.0097
   6.2803E+00   6.4331E+00   4.6098E-05  0.0097
   6.4331E+00   6.5896E+00   4.3517E-05  0.0099
   6.5896E+00   6.7500E+00   4.1242E-05  0.0100
   6.7500E+00   6.9142E+00   4.0120E-05  0.0101
   6.9142E+00   7.0824E+00   3.8143E-05  0.0102
   7.0824E+00   7.2548E+00   3.6107E-05  0.0104
   7.2548E+00   7.4313E+00   3.5268E-05  0.0103
   7.4313E+00   7.6121E+00   3.4215E-05  0.0104
   7.6121E+00   7.7973E+00   3.2479E-05  0.0105
   7.7973E+00   7.9870E+00   3.1196E-05  0.0106
   7.9870E+00   8.1813E+00   3.0781E-05  0.0106
   8.1813E+00   8.3804E+00   2.9941E-05  0.0106
   8.3804E+00   8.5843E+00   2.8906E-05  0.0106
   8.5843E+00   8.7931E+00   2.8526E-05  0.0106
   8.7931E+00   9.0071E+00   2.7665E-05  0.0106
   9.0071E+00   9.2262E+00   2.7058E-05  0.0106
   9.2262E+00   9.4507E+00   2.6413E-05  0.0106
   9.4507E+00   9.6807E+00   2.6269E-05  0.0105
   9.6807E+00   9.9162E+00   2.6265E-05  0.0104
   9.9162E+00   1.0157E+01   2.5818E-05  0.0103
   1.0157E+01   1.0405E+01   2.5300E-05  0.0103
   1.0405E+01   1.0658E+01   2.5047E-05  0.0103
   1.0658E+01   1.0917E+01   2.5187E-05  0.0101
   1.0917E+01   1.1183E+01   2.4536E-05  0.0101
   1.1183E+01   1.1455E+01   2.4760E-05  0.0099
   1.1455E+01   1.1733E+01   2.4423E-05  0.0099
   1.1733E+01   1.2019E+01   2.4527E-05  0.0098
   1.2019E+01   1.2311E+01   2.4417E-05  0.0097
   1.2311E+01   1.2611E+01   2.4110E-05  0.0096
   1.2611E+01   1.2918E+01   2.4148E-05  0.0095
   1.2918E+01   1.3232E+01   2.4351E-05  0.0093
   1.3232E+01   1.3554E+01   2.4629E-05  0.0092
   1.3554E+01   1.3884E+01   2.4514E-05  0.0091
   1.3884E+01   1.4222E+01   2.4255E-05  0.0090
   1.4222E+01   1.4568E+01   2.4211E-05  0.0089
   1.4568E+01   1.4922E+01   2.4403E-05  0.0088
   1.4922E+01   1.5285E+01   2.4689E-05  0.0086
   1.5285E+01   1.5657E+01   2.4632E-05  0.0085
   1.5657E+01   1.6038E+01   2.4772E-05  0.0084
   1.6038E+01   1.6428E+01   2.4932E-05  0.0083
   1.6428E+01   1.6828E+01   2.5018E-05  0.0082
   1.6828E+01   1.7237E+01   2.4805E-05  0.0081
   1.7237E+01   1.7657E+01   2.4813E-05  0.0080
   1.7657E+01   1.8086E+01   2.5463E-05  0.0078
   1.8086E+01   1.8526E+01   2.5462E-05  0.0077
   1.8526E+01   1.8977E+01   2.5728E-05  0.0076
   1.8977E+01   1.9439E+01   2.5882E-05  0.0075
   1.9439E+01   1.9912E+01   2.6278E-05  0.0073
   1.9912E+01   2.0396E+01   2.6495E-05  0.0072
   2.0396E+01   2.0893E+01   2.7167E-05  0.0070
   2.0893E+01   2.1401E+01   2.7461E-05  0.0069
   2.1401E+01   2.1922E+01   2.7715E-05  0.0068
   2.1922E+01   2.2455E+01   2.8748E-05  0.0066
   2.2455E+01   2.3001E+01   2.9239E-05  0.0065
   2.3001E+01   2.3561E+01   3.0001E-05  0.0063
   2.3561E+01   2.4134E+01   3.0639E-05  0.0062
   2.4134E+01   2.4721E+01   3.1832E-05  0.0060
   2.4721E+01   2.5323E+01   3.2618E-05  0.0058
   2.5323E+01   2.5939E+01   3.3786E-05  0.0057
   2.5939E+01   2.6570E+01   3.4911E-05  0.0055
   2.6570E+01   2.7217E+01   3.6549E-05  0.0053
   2.7217E+01   2.7879E+01   3.7370E-05  0.0052
   2.7879E+01   2.8557E+01   3.9642E-05  0.0050
   2.8557E+01   2.9252E+01   4.1790E-05  0.0048
   2.9252E+01   2.9964E+01   4.3685E-05  0.0046
   2.9964E+01   3.0693E+01   4.5333E-05  0.0045
   3.0693E+01   3.1440E+01   4.8089E-05  0.0043
   3.1440E+01   3.2205E+01   5.1227E-05  0.0041
   3.2205E+01   3.2988E+01   5.3388E-05  0.0040
   3.2988E+01   3.3791E+01   5.6849E-05  0.0038
   3.3791E+01   3.4613E+01   5.9866E-05  0.0037
   3.4613E+01   3.5455E+01   6.2629E-05  0.0036
   3.5455E+01   3.6318E+01   6.6450E-05  0.0034
   3.6318E+01   3.7201E+01   6.9067E-05  0.0033
   3.7201E+01   3.8106E+01   7.2302E-05  0.0032
   3.8106E+01   3.9034E+01   7.5035E-05  0.0031
   3.9034E+01   3.9983E+01   7.7504E-05  0.0030
   3.9983E+01   4.0956E+01   7.9764E-05  0.0029
   4.0956E+01   4.1953E+01   8.1951E-05  0.0029
   4.1953E+01   4.2973E+01   8.3102E-05  0.0028
   4.2973E+01   4.4019E+01   8.4095E-05  0.0028
   4.4019E+01   4.5090E+01   8.4142E-05  0.0027
   4.5090E+01   4.6187E+01   8.4716E-05  0.0027
   4.6187E+01   4.7311E+01   8.3654E-05  0.0027
   4.7311E+01   4.8462E+01   8.1773E-05  0.0027
   4.8462E+01   4.9641E+01   8.0205E-05  0.0027
   4.9641E+01   5.0849E+01   7.7240E-05  0.0027
   5.0849E+01   5.2086E+01   7.3979E-05  0.0027
   5.2086E+01   5.3353E+01   7.0573E-05  0.0027
   5.3353E+01   5.4651E+01   6.6229E-05  0.0028
   5.4651E+01   5.5981E+01   6.1974E-05  0.0028
   5.5981E+01   5.7343E+01   5.7445E-05  0.0029
   5.7343E+01   5.8738E+01   5.2886E-05  0.0030
   5.8738E+01   6.0168E+01   4.8192E-05  0.0031
   6.0168E+01   6.1632E+01   4.3806E-05  0.0032
   6.1632E+01   6.3131E+01   3.9525E-05  0.0034
   6.3131E+01   6.4667E+01   3.5514E-05  0.0035
   6.4667E+01   6.6240E+01   3.1812E-05  0.0036
   6.6240E+01   6.7852E+01   2.8314E-05  0.0038
   6.7852E+01   6.9503E+01   2.5127E-05  0.0040
   6.9503E+01   7.1194E+01   2.2436E-05  0.0042
   7.1194E+01   7.2926E+01   1.9841E-05  0.0044
   7.2926E+01   7.4701E+01   1.7596E-05  0.0046
   7.4701E+01   7.6518E+01   1.5570E-05  0.0049
   7.6518E+01   7.8380E+01   1.3614E-05  0.0051
   7.8380E+01   8.0287E+01   1.1851E-05  0.0054
   8.0287E+01   8.2240E+01   1.0307E-05  0.0058
   8.2240E+01   8.4241E+01   8.8637E-06  0.0061
   8.4241E+01   8.6291E+01   7.6120E-06  0.0065
   8.6291E+01   8.8391E+01   6.5434E-06  0.0070
   8.8391E+01   9.0541E+01   5.6065E-06  0.0074
   9.0541E+01   9.2744E+01   4.7158E-06  0.0080
   9.2744E+01   9.5001E+01   4.0788E-06  0.0085
   9.5001E+01   9.7312E+01   3.3869E-06  0.0092
   9.7312E+01   9.9680E+01   2.7008E-06  0.0102
   9.9680E+01   1.0211E+02   2.1111E-06  0.0114
   1.0211E+02   1.0459E+02   1.5897E-06  0.0130
   1.0459E+02   1.0713E+02   1.1409E-06  0.0152
   1.0713E+02   1.0974E+02   7.7571E-07  0.0182
   1.0974E+02   1.1241E+02   4.1747E-07  0.0245
   1.1241E+02   1.1515E+02   1.0847E-07  0.0474
   1.1515E+02   1.1795E+02   0.0000E+00  0.0000
   1.1795E+02   1.2082E+02   0.0000E+00  0.0000
   1.2082E+02   1.2376E+02   0.0000E+00  0.0000
   1.2376E+02   1.2677E+02   0.0000E+00  0.0000
   1.2677E+02   1.2985E+02   0.0000E+00  0.0000
   1.2985E+02   1.3301E+02   0.0000E+00  0.0000
   1.3301E+02   1.3625E+02   0.0000E+00  0.0000
   1.3625E+02   1.3956E+02   0.0000E+00  0.0000
   1.3956E+02   1.4296E+02   0.0000E+00  0.0000
   1.4296E+02   1.4644E+02   0.0000E+00  0.0000
   1.4644E+02   1.5000E+02   0.0000E+00  0.0000

#   sum over                 3.7691E-05
'no. =    1   reg = 104 - 204'
msuc: {\huge [t-cross] in region mesh}
msdr: {\it plotted by \ANGEL \version}
msdl: {\it calculated by \PHITS  3.26}
wt: s(0.7)
\vspace{-3}
  region surface crossing
  area  &=&   1.0000E+00 [cm^2]
e:
 
# Information for Restart Calculation
# This calculation was newly started
# istdev =  2 # 1:Batch variance, 2:History variance
# resc2  = 1.50000000000000000E+09 # Total source weight or Total source weight / maxcas
# resc3  = 1.50000000000000000E+09 # Total history number or Total batch number
# maxcas =   500000000 # History / Batch, only used for istdev=1
# bitrseed = 0000010101110101110110100110011001100101000001100111100100101101 # bit data of rseed
