[ T-Cross ]
    title = [t-cross] in region mesh
     mesh =  reg            # mesh type is region-wise
      reg =    1            # number of crossing regions
      non     r-from    r-to       area
      1       119       219        1.000000    
   e-type =    3            # e-mesh is log given by emin, emax and ne
     emin =  1.0000000E-02  # minimum value of e-mesh points
     emax =   150.0000      # maximum value of e-mesh points
#    edel =  2.4039514E-02  # mesh width of e-mesh points
       ne =    400          # number of e-mesh points
#    data = ( e(i), i = 1, ne + 1 )
#           1.00000E-02  1.02433E-02  1.04925E-02  1.07478E-02  1.10093E-02
#           1.12772E-02  1.15516E-02  1.18326E-02  1.21205E-02  1.24154E-02
#           1.27175E-02  1.30269E-02  1.33439E-02  1.36686E-02  1.40011E-02
#           1.43418E-02  1.46907E-02  1.50482E-02  1.54143E-02  1.57894E-02
#           1.61735E-02  1.65670E-02  1.69701E-02  1.73830E-02  1.78060E-02
#           1.82392E-02  1.86830E-02  1.91375E-02  1.96032E-02  2.00801E-02
#           2.05687E-02  2.10692E-02  2.15818E-02  2.21069E-02  2.26448E-02
#           2.31957E-02  2.37601E-02  2.43382E-02  2.49304E-02  2.55369E-02
#           2.61583E-02  2.67947E-02  2.74467E-02  2.81145E-02  2.87985E-02
#           2.94992E-02  3.02169E-02  3.09521E-02  3.17052E-02  3.24766E-02
#           3.32668E-02  3.40762E-02  3.49053E-02  3.57546E-02  3.66246E-02
#           3.75157E-02  3.84284E-02  3.93634E-02  4.03212E-02  4.13022E-02
#           4.23071E-02  4.33365E-02  4.43909E-02  4.54710E-02  4.65773E-02
#           4.77106E-02  4.88714E-02  5.00605E-02  5.12785E-02  5.25262E-02
#           5.38042E-02  5.51133E-02  5.64542E-02  5.78278E-02  5.92348E-02
#           6.06760E-02  6.21523E-02  6.36645E-02  6.52135E-02  6.68002E-02
#           6.84255E-02  7.00904E-02  7.17957E-02  7.35426E-02  7.53319E-02
#           7.71648E-02  7.90423E-02  8.09655E-02  8.29354E-02  8.49533E-02
#           8.70203E-02  8.91376E-02  9.13064E-02  9.35279E-02  9.58035E-02
#           9.81345E-02  1.00522E-01  1.02968E-01  1.05473E-01  1.08040E-01
#           1.10668E-01  1.13361E-01  1.16119E-01  1.18944E-01  1.21838E-01
#           1.24803E-01  1.27839E-01  1.30950E-01  1.34136E-01  1.37399E-01
#           1.40742E-01  1.44167E-01  1.47675E-01  1.51268E-01  1.54948E-01
#           1.58718E-01  1.62580E-01  1.66535E-01  1.70587E-01  1.74738E-01
#           1.78989E-01  1.83344E-01  1.87805E-01  1.92375E-01  1.97055E-01
#           2.01850E-01  2.06761E-01  2.11792E-01  2.16945E-01  2.22223E-01
#           2.27630E-01  2.33169E-01  2.38842E-01  2.44653E-01  2.50605E-01
#           2.56703E-01  2.62949E-01  2.69346E-01  2.75900E-01  2.82613E-01
#           2.89489E-01  2.96532E-01  3.03747E-01  3.11138E-01  3.18708E-01
#           3.26462E-01  3.34405E-01  3.42542E-01  3.50876E-01  3.59413E-01
#           3.68158E-01  3.77116E-01  3.86291E-01  3.95690E-01  4.05317E-01
#           4.15179E-01  4.25281E-01  4.35628E-01  4.46227E-01  4.57084E-01
#           4.68205E-01  4.79597E-01  4.91266E-01  5.03219E-01  5.15463E-01
#           5.28005E-01  5.40851E-01  5.54011E-01  5.67490E-01  5.81298E-01
#           5.95441E-01  6.09929E-01  6.24769E-01  6.39970E-01  6.55541E-01
#           6.71491E-01  6.87828E-01  7.04564E-01  7.21706E-01  7.39266E-01
#           7.57253E-01  7.75678E-01  7.94551E-01  8.13883E-01  8.33685E-01
#           8.53969E-01  8.74747E-01  8.96030E-01  9.17831E-01  9.40163E-01
#           9.63038E-01  9.86469E-01  1.01047E+00  1.03506E+00  1.06024E+00
#           1.08604E+00  1.11246E+00  1.13953E+00  1.16725E+00  1.19565E+00
#           1.22474E+00  1.25454E+00  1.28507E+00  1.31633E+00  1.34836E+00
#           1.38117E+00  1.41477E+00  1.44920E+00  1.48446E+00  1.52057E+00
#           1.55757E+00  1.59547E+00  1.63429E+00  1.67405E+00  1.71478E+00
#           1.75650E+00  1.79924E+00  1.84302E+00  1.88786E+00  1.93379E+00
#           1.98084E+00  2.02904E+00  2.07841E+00  2.12898E+00  2.18078E+00
#           2.23384E+00  2.28819E+00  2.34386E+00  2.40089E+00  2.45930E+00
#           2.51914E+00  2.58043E+00  2.64322E+00  2.70753E+00  2.77341E+00
#           2.84088E+00  2.91001E+00  2.98081E+00  3.05333E+00  3.12762E+00
#           3.20372E+00  3.28167E+00  3.36152E+00  3.44330E+00  3.52708E+00
#           3.61290E+00  3.70080E+00  3.79085E+00  3.88308E+00  3.97756E+00
#           4.07434E+00  4.17347E+00  4.27501E+00  4.37903E+00  4.48557E+00
#           4.59471E+00  4.70650E+00  4.82102E+00  4.93832E+00  5.05847E+00
#           5.18155E+00  5.30762E+00  5.43676E+00  5.56904E+00  5.70453E+00
#           5.84333E+00  5.98550E+00  6.13114E+00  6.28031E+00  6.43312E+00
#           6.58964E+00  6.74997E+00  6.91420E+00  7.08243E+00  7.25475E+00
#           7.43126E+00  7.61207E+00  7.79728E+00  7.98700E+00  8.18133E+00
#           8.38038E+00  8.58428E+00  8.79315E+00  9.00709E+00  9.22624E+00
#           9.45072E+00  9.68067E+00  9.91620E+00  1.01575E+01  1.04046E+01
#           1.06578E+01  1.09171E+01  1.11827E+01  1.14548E+01  1.17335E+01
#           1.20190E+01  1.23114E+01  1.26109E+01  1.29178E+01  1.32321E+01
#           1.35540E+01  1.38838E+01  1.42216E+01  1.45676E+01  1.49221E+01
#           1.52851E+01  1.56570E+01  1.60380E+01  1.64282E+01  1.68279E+01
#           1.72374E+01  1.76568E+01  1.80864E+01  1.85264E+01  1.89772E+01
#           1.94389E+01  1.99119E+01  2.03963E+01  2.08926E+01  2.14009E+01
#           2.19216E+01  2.24550E+01  2.30014E+01  2.35610E+01  2.41343E+01
#           2.47215E+01  2.53230E+01  2.59391E+01  2.65702E+01  2.72167E+01
#           2.78789E+01  2.85572E+01  2.92520E+01  2.99637E+01  3.06928E+01
#           3.14396E+01  3.22045E+01  3.29881E+01  3.37907E+01  3.46128E+01
#           3.54550E+01  3.63177E+01  3.72013E+01  3.81064E+01  3.90336E+01
#           3.99833E+01  4.09561E+01  4.19526E+01  4.29734E+01  4.40189E+01
#           4.50900E+01  4.61870E+01  4.73108E+01  4.84619E+01  4.96410E+01
#           5.08488E+01  5.20860E+01  5.33533E+01  5.46514E+01  5.59812E+01
#           5.73432E+01  5.87384E+01  6.01676E+01  6.16315E+01  6.31311E+01
#           6.46671E+01  6.62405E+01  6.78522E+01  6.95031E+01  7.11941E+01
#           7.29263E+01  7.47007E+01  7.65182E+01  7.83800E+01  8.02870E+01
#           8.22405E+01  8.42414E+01  8.62911E+01  8.83906E+01  9.05412E+01
#           9.27442E+01  9.50007E+01  9.73122E+01  9.96799E+01  1.02105E+02
#           1.04589E+02  1.07134E+02  1.09741E+02  1.12411E+02  1.15146E+02
#           1.17948E+02  1.20817E+02  1.23757E+02  1.26768E+02  1.29852E+02
#           1.33012E+02  1.36248E+02  1.39563E+02  1.42959E+02  1.46437E+02
#           1.50000E+02
     unit =    2            # unit is [1/cm^2/(MeV/n)/source]
     axis =  eng            # axis of output
     file = detector-20.out  # file name of output for the above axis
   output = f-curr          # surface crossing forward current spectrum
     part =  neutron  
# kf/name :  2112     
#    used :        main (  %)        temp (  %)       total (  %)
#  memory :         414 (  0)           0 (  0)         414 (  0)

#------------------------------------------------------------------------------
#newpage:
#   no. =    1   reg = 119 - 219

x: Energy [MeV/n]
y:  F-Curr [1/cm^2/(MeV/n)/source]         
p: xlog ylog afac(0.8) form(0.9)
h: n            x            y(neutron ),hh0l   n 
#  e-lower      e-upper      neutron     r.err 
   1.0000E-02   1.0243E-02   3.8812E-02  0.0084
   1.0243E-02   1.0493E-02   3.7858E-02  0.0084
   1.0493E-02   1.0748E-02   3.7283E-02  0.0084
   1.0748E-02   1.1009E-02   3.7978E-02  0.0082
   1.1009E-02   1.1277E-02   3.7026E-02  0.0082
   1.1277E-02   1.1552E-02   3.6402E-02  0.0082
   1.1552E-02   1.1833E-02   3.6564E-02  0.0081
   1.1833E-02   1.2121E-02   3.6048E-02  0.0080
   1.2121E-02   1.2415E-02   3.5506E-02  0.0080
   1.2415E-02   1.2718E-02   3.5287E-02  0.0079
   1.2718E-02   1.3027E-02   3.4547E-02  0.0079
   1.3027E-02   1.3344E-02   3.4764E-02  0.0078
   1.3344E-02   1.3669E-02   3.4243E-02  0.0077
   1.3669E-02   1.4001E-02   3.3849E-02  0.0077
   1.4001E-02   1.4342E-02   3.3181E-02  0.0077
   1.4342E-02   1.4691E-02   3.3584E-02  0.0075
   1.4691E-02   1.5048E-02   3.3265E-02  0.0075
   1.5048E-02   1.5414E-02   3.2596E-02  0.0075
   1.5414E-02   1.5789E-02   3.1909E-02  0.0075
   1.5789E-02   1.6174E-02   3.2229E-02  0.0073
   1.6174E-02   1.6567E-02   3.1779E-02  0.0073
   1.6567E-02   1.6970E-02   3.1245E-02  0.0073
   1.6970E-02   1.7383E-02   3.0837E-02  0.0072
   1.7383E-02   1.7806E-02   3.0778E-02  0.0072
   1.7806E-02   1.8239E-02   3.0984E-02  0.0070
   1.8239E-02   1.8683E-02   3.0350E-02  0.0070
   1.8683E-02   1.9138E-02   3.0080E-02  0.0070
   1.9138E-02   1.9603E-02   2.9502E-02  0.0070
   1.9603E-02   2.0080E-02   2.9703E-02  0.0069
   2.0080E-02   2.0569E-02   2.9601E-02  0.0068
   2.0569E-02   2.1069E-02   2.9095E-02  0.0068
   2.1069E-02   2.1582E-02   2.8853E-02  0.0067
   2.1582E-02   2.2107E-02   2.8331E-02  0.0067
   2.2107E-02   2.2645E-02   2.7929E-02  0.0067
   2.2645E-02   2.3196E-02   2.7777E-02  0.0066
   2.3196E-02   2.3760E-02   2.7771E-02  0.0065
   2.3760E-02   2.4338E-02   2.7562E-02  0.0065
   2.4338E-02   2.4930E-02   2.7093E-02  0.0064
   2.4930E-02   2.5537E-02   2.6850E-02  0.0064
   2.5537E-02   2.6158E-02   2.6617E-02  0.0064
   2.6158E-02   2.6795E-02   2.6285E-02  0.0063
   2.6795E-02   2.7447E-02   2.5946E-02  0.0063
   2.7447E-02   2.8114E-02   2.5763E-02  0.0062
   2.8114E-02   2.8799E-02   2.5380E-02  0.0062
   2.8799E-02   2.9499E-02   2.5337E-02  0.0061
   2.9499E-02   3.0217E-02   2.5028E-02  0.0061
   3.0217E-02   3.0952E-02   2.4748E-02  0.0061
   3.0952E-02   3.1705E-02   2.4932E-02  0.0060
   3.1705E-02   3.2477E-02   2.4490E-02  0.0059
   3.2477E-02   3.3267E-02   2.4260E-02  0.0059
   3.3267E-02   3.4076E-02   2.3800E-02  0.0059
   3.4076E-02   3.4905E-02   2.3431E-02  0.0059
   3.4905E-02   3.5755E-02   2.3679E-02  0.0058
   3.5755E-02   3.6625E-02   2.3225E-02  0.0057
   3.6625E-02   3.7516E-02   2.3076E-02  0.0057
   3.7516E-02   3.8428E-02   2.2714E-02  0.0057
   3.8428E-02   3.9363E-02   2.2490E-02  0.0056
   3.9363E-02   4.0321E-02   2.2547E-02  0.0056
   4.0321E-02   4.1302E-02   2.2148E-02  0.0055
   4.1302E-02   4.2307E-02   2.1827E-02  0.0055
   4.2307E-02   4.3337E-02   2.1631E-02  0.0055
   4.3337E-02   4.4391E-02   2.1585E-02  0.0054
   4.4391E-02   4.5471E-02   2.1312E-02  0.0054
   4.5471E-02   4.6577E-02   2.1149E-02  0.0053
   4.6577E-02   4.7711E-02   2.1239E-02  0.0053
   4.7711E-02   4.8871E-02   2.0524E-02  0.0053
   4.8871E-02   5.0061E-02   2.0333E-02  0.0053
   5.0061E-02   5.1279E-02   2.0223E-02  0.0052
   5.1279E-02   5.2526E-02   2.0151E-02  0.0052
   5.2526E-02   5.3804E-02   1.9963E-02  0.0051
   5.3804E-02   5.5113E-02   1.9772E-02  0.0051
   5.5113E-02   5.6454E-02   1.9543E-02  0.0050
   5.6454E-02   5.7828E-02   1.9225E-02  0.0050
   5.7828E-02   5.9235E-02   1.9087E-02  0.0050
   5.9235E-02   6.0676E-02   1.8820E-02  0.0050
   6.0676E-02   6.2152E-02   1.8714E-02  0.0049
   6.2152E-02   6.3665E-02   1.8675E-02  0.0049
   6.3665E-02   6.5214E-02   1.8162E-02  0.0049
   6.5214E-02   6.6800E-02   1.8032E-02  0.0048
   6.6800E-02   6.8426E-02   1.7961E-02  0.0048
   6.8426E-02   7.0090E-02   1.7873E-02  0.0047
   7.0090E-02   7.1796E-02   1.7657E-02  0.0047
   7.1796E-02   7.3543E-02   1.7350E-02  0.0047
   7.3543E-02   7.5332E-02   1.7238E-02  0.0047
   7.5332E-02   7.7165E-02   1.7137E-02  0.0046
   7.7165E-02   7.9042E-02   1.6875E-02  0.0046
   7.9042E-02   8.0965E-02   1.6623E-02  0.0046
   8.0965E-02   8.2935E-02   1.6505E-02  0.0045
   8.2935E-02   8.4953E-02   1.6406E-02  0.0045
   8.4953E-02   8.7020E-02   1.6184E-02  0.0045
   8.7020E-02   8.9138E-02   1.6028E-02  0.0044
   8.9138E-02   9.1306E-02   1.5868E-02  0.0044
   9.1306E-02   9.3528E-02   1.5704E-02  0.0044
   9.3528E-02   9.5804E-02   1.5537E-02  0.0043
   9.5804E-02   9.8134E-02   1.5356E-02  0.0043
   9.8134E-02   1.0052E-01   1.5099E-02  0.0043
   1.0052E-01   1.0297E-01   1.4963E-02  0.0043
   1.0297E-01   1.0547E-01   1.4788E-02  0.0042
   1.0547E-01   1.0804E-01   1.4808E-02  0.0042
   1.0804E-01   1.1067E-01   1.4495E-02  0.0042
   1.1067E-01   1.1336E-01   1.4334E-02  0.0042
   1.1336E-01   1.1612E-01   1.4220E-02  0.0041
   1.1612E-01   1.1894E-01   1.4018E-02  0.0041
   1.1894E-01   1.2184E-01   1.3869E-02  0.0041
   1.2184E-01   1.2480E-01   1.3703E-02  0.0041
   1.2480E-01   1.2784E-01   1.3655E-02  0.0040
   1.2784E-01   1.3095E-01   1.3490E-02  0.0040
   1.3095E-01   1.3414E-01   1.3260E-02  0.0040
   1.3414E-01   1.3740E-01   1.3149E-02  0.0039
   1.3740E-01   1.4074E-01   1.3015E-02  0.0039
   1.4074E-01   1.4417E-01   1.2873E-02  0.0039
   1.4417E-01   1.4767E-01   1.2651E-02  0.0039
   1.4767E-01   1.5127E-01   1.2514E-02  0.0039
   1.5127E-01   1.5495E-01   1.2439E-02  0.0038
   1.5495E-01   1.5872E-01   1.2210E-02  0.0038
   1.5872E-01   1.6258E-01   1.1998E-02  0.0038
   1.6258E-01   1.6654E-01   1.1910E-02  0.0038
   1.6654E-01   1.7059E-01   1.1781E-02  0.0037
   1.7059E-01   1.7474E-01   1.1649E-02  0.0037
   1.7474E-01   1.7899E-01   1.1522E-02  0.0037
   1.7899E-01   1.8334E-01   1.1450E-02  0.0037
   1.8334E-01   1.8781E-01   1.1201E-02  0.0037
   1.8781E-01   1.9237E-01   1.1064E-02  0.0036
   1.9237E-01   1.9706E-01   1.0879E-02  0.0036
   1.9706E-01   2.0185E-01   1.0774E-02  0.0036
   2.0185E-01   2.0676E-01   1.0639E-02  0.0036
   2.0676E-01   2.1179E-01   1.0549E-02  0.0035
   2.1179E-01   2.1694E-01   1.0361E-02  0.0035
   2.1694E-01   2.2222E-01   1.0261E-02  0.0035
   2.2222E-01   2.2763E-01   1.0069E-02  0.0035
   2.2763E-01   2.3317E-01   9.9799E-03  0.0035
   2.3317E-01   2.3884E-01   9.7978E-03  0.0035
   2.3884E-01   2.4465E-01   9.6675E-03  0.0034
   2.4465E-01   2.5061E-01   9.5789E-03  0.0034
   2.5061E-01   2.5670E-01   9.4266E-03  0.0034
   2.5670E-01   2.6295E-01   9.3219E-03  0.0034
   2.6295E-01   2.6935E-01   9.0911E-03  0.0034
   2.6935E-01   2.7590E-01   9.0487E-03  0.0034
   2.7590E-01   2.8261E-01   8.8592E-03  0.0034
   2.8261E-01   2.8949E-01   8.7849E-03  0.0033
   2.8949E-01   2.9653E-01   8.6178E-03  0.0033
   2.9653E-01   3.0375E-01   8.4777E-03  0.0033
   3.0375E-01   3.1114E-01   8.3154E-03  0.0033
   3.1114E-01   3.1871E-01   8.1966E-03  0.0033
   3.1871E-01   3.2646E-01   8.0977E-03  0.0033
   3.2646E-01   3.3441E-01   7.9435E-03  0.0033
   3.3441E-01   3.4254E-01   7.8422E-03  0.0032
   3.4254E-01   3.5088E-01   7.6837E-03  0.0032
   3.5088E-01   3.5941E-01   7.5613E-03  0.0032
   3.5941E-01   3.6816E-01   7.5049E-03  0.0032
   3.6816E-01   3.7712E-01   7.2950E-03  0.0032
   3.7712E-01   3.8629E-01   7.1927E-03  0.0032
   3.8629E-01   3.9569E-01   7.0077E-03  0.0032
   3.9569E-01   4.0532E-01   6.8917E-03  0.0032
   4.0532E-01   4.1518E-01   6.7640E-03  0.0032
   4.1518E-01   4.2528E-01   6.6442E-03  0.0032
   4.2528E-01   4.3563E-01   6.5300E-03  0.0031
   4.3563E-01   4.4623E-01   6.3836E-03  0.0031
   4.4623E-01   4.5708E-01   6.2820E-03  0.0031
   4.5708E-01   4.6821E-01   6.1628E-03  0.0031
   4.6821E-01   4.7960E-01   6.0166E-03  0.0031
   4.7960E-01   4.9127E-01   5.9200E-03  0.0031
   4.9127E-01   5.0322E-01   5.7690E-03  0.0031
   5.0322E-01   5.1546E-01   5.6217E-03  0.0031
   5.1546E-01   5.2800E-01   5.5198E-03  0.0031
   5.2800E-01   5.4085E-01   5.4027E-03  0.0031
   5.4085E-01   5.5401E-01   5.2872E-03  0.0031
   5.5401E-01   5.6749E-01   5.1573E-03  0.0031
   5.6749E-01   5.8130E-01   5.0536E-03  0.0031
   5.8130E-01   5.9544E-01   4.9228E-03  0.0031
   5.9544E-01   6.0993E-01   4.8113E-03  0.0031
   6.0993E-01   6.2477E-01   4.6712E-03  0.0031
   6.2477E-01   6.3997E-01   4.5470E-03  0.0031
   6.3997E-01   6.5554E-01   4.3879E-03  0.0031
   6.5554E-01   6.7149E-01   4.3197E-03  0.0031
   6.7149E-01   6.8783E-01   4.1757E-03  0.0031
   6.8783E-01   7.0456E-01   4.0391E-03  0.0031
   7.0456E-01   7.2171E-01   3.9274E-03  0.0032
   7.2171E-01   7.3927E-01   3.8303E-03  0.0032
   7.3927E-01   7.5725E-01   3.7360E-03  0.0032
   7.5725E-01   7.7568E-01   3.5978E-03  0.0032
   7.7568E-01   7.9455E-01   3.4545E-03  0.0032
   7.9455E-01   8.1388E-01   3.3577E-03  0.0032
   8.1388E-01   8.3368E-01   3.2365E-03  0.0032
   8.3368E-01   8.5397E-01   3.1326E-03  0.0032
   8.5397E-01   8.7475E-01   3.0051E-03  0.0033
   8.7475E-01   8.9603E-01   2.8867E-03  0.0033
   8.9603E-01   9.1783E-01   2.7757E-03  0.0033
   9.1783E-01   9.4016E-01   2.6738E-03  0.0033
   9.4016E-01   9.6304E-01   2.5313E-03  0.0034
   9.6304E-01   9.8647E-01   2.4232E-03  0.0034
   9.8647E-01   1.0105E+00   2.3331E-03  0.0035
   1.0105E+00   1.0351E+00   2.3128E-03  0.0034
   1.0351E+00   1.0602E+00   2.3214E-03  0.0034
   1.0602E+00   1.0860E+00   2.3394E-03  0.0033
   1.0860E+00   1.1125E+00   2.3657E-03  0.0033
   1.1125E+00   1.1395E+00   2.4056E-03  0.0032
   1.1395E+00   1.1673E+00   2.4652E-03  0.0031
   1.1673E+00   1.1957E+00   2.5303E-03  0.0031
   1.1957E+00   1.2247E+00   2.5710E-03  0.0030
   1.2247E+00   1.2545E+00   2.5760E-03  0.0030
   1.2545E+00   1.2851E+00   2.5604E-03  0.0029
   1.2851E+00   1.3163E+00   2.5762E-03  0.0029
   1.3163E+00   1.3484E+00   2.6115E-03  0.0028
   1.3484E+00   1.3812E+00   2.6409E-03  0.0028
   1.3812E+00   1.4148E+00   2.6770E-03  0.0027
   1.4148E+00   1.4492E+00   2.6484E-03  0.0027
   1.4492E+00   1.4845E+00   2.6304E-03  0.0027
   1.4845E+00   1.5206E+00   2.6041E-03  0.0027
   1.5206E+00   1.5576E+00   2.5909E-03  0.0026
   1.5576E+00   1.5955E+00   2.5912E-03  0.0026
   1.5955E+00   1.6343E+00   2.5772E-03  0.0026
   1.6343E+00   1.6741E+00   2.5953E-03  0.0025
   1.6741E+00   1.7148E+00   2.6196E-03  0.0025
   1.7148E+00   1.7565E+00   2.5793E-03  0.0025
   1.7565E+00   1.7992E+00   2.5244E-03  0.0025
   1.7992E+00   1.8430E+00   2.4935E-03  0.0025
   1.8430E+00   1.8879E+00   2.4484E-03  0.0025
   1.8879E+00   1.9338E+00   2.4321E-03  0.0024
   1.9338E+00   1.9808E+00   2.4177E-03  0.0024
   1.9808E+00   2.0290E+00   2.3944E-03  0.0024
   2.0290E+00   2.0784E+00   2.3318E-03  0.0024
   2.0784E+00   2.1290E+00   2.2804E-03  0.0024
   2.1290E+00   2.1808E+00   2.1967E-03  0.0024
   2.1808E+00   2.2338E+00   2.1496E-03  0.0024
   2.2338E+00   2.2882E+00   2.0916E-03  0.0024
   2.2882E+00   2.3439E+00   2.0496E-03  0.0024
   2.3439E+00   2.4009E+00   2.0321E-03  0.0024
   2.4009E+00   2.4593E+00   1.9807E-03  0.0024
   2.4593E+00   2.5191E+00   1.9043E-03  0.0024
   2.5191E+00   2.5804E+00   1.8297E-03  0.0024
   2.5804E+00   2.6432E+00   1.7637E-03  0.0025
   2.6432E+00   2.7075E+00   1.7032E-03  0.0025
   2.7075E+00   2.7734E+00   1.6387E-03  0.0025
   2.7734E+00   2.8409E+00   1.5782E-03  0.0025
   2.8409E+00   2.9100E+00   1.5322E-03  0.0025
   2.9100E+00   2.9808E+00   1.4893E-03  0.0025
   2.9808E+00   3.0533E+00   1.4283E-03  0.0025
   3.0533E+00   3.1276E+00   1.3707E-03  0.0026
   3.1276E+00   3.2037E+00   1.2993E-03  0.0026
   3.2037E+00   3.2817E+00   1.2350E-03  0.0026
   3.2817E+00   3.3615E+00   1.1795E-03  0.0027
   3.3615E+00   3.4433E+00   1.1140E-03  0.0027
   3.4433E+00   3.5271E+00   1.0659E-03  0.0027
   3.5271E+00   3.6129E+00   1.0184E-03  0.0028
   3.6129E+00   3.7008E+00   9.7074E-04  0.0028
   3.7008E+00   3.7908E+00   9.1459E-04  0.0028
   3.7908E+00   3.8831E+00   8.6655E-04  0.0029
   3.8831E+00   3.9776E+00   8.1777E-04  0.0029
   3.9776E+00   4.0743E+00   7.7684E-04  0.0030
   4.0743E+00   4.1735E+00   7.3008E-04  0.0030
   4.1735E+00   4.2750E+00   6.8690E-04  0.0031
   4.2750E+00   4.3790E+00   6.3937E-04  0.0032
   4.3790E+00   4.4856E+00   5.9846E-04  0.0032
   4.4856E+00   4.5947E+00   5.5958E-04  0.0033
   4.5947E+00   4.7065E+00   5.2282E-04  0.0034
   4.7065E+00   4.8210E+00   4.8696E-04  0.0035
   4.8210E+00   4.9383E+00   4.5545E-04  0.0035
   4.9383E+00   5.0585E+00   4.2451E-04  0.0036
   5.0585E+00   5.1815E+00   3.9582E-04  0.0037
   5.1815E+00   5.3076E+00   3.6822E-04  0.0038
   5.3076E+00   5.4368E+00   3.4171E-04  0.0039
   5.4368E+00   5.5690E+00   3.1032E-04  0.0040
   5.5690E+00   5.7045E+00   2.9051E-04  0.0041
   5.7045E+00   5.8433E+00   2.6859E-04  0.0042
   5.8433E+00   5.9855E+00   2.4486E-04  0.0044
   5.9855E+00   6.1311E+00   2.2689E-04  0.0045
   6.1311E+00   6.2803E+00   2.0800E-04  0.0046
   6.2803E+00   6.4331E+00   1.9105E-04  0.0048
   6.4331E+00   6.5896E+00   1.7593E-04  0.0049
   6.5896E+00   6.7500E+00   1.6128E-04  0.0051
   6.7500E+00   6.9142E+00   1.4706E-04  0.0053
   6.9142E+00   7.0824E+00   1.3483E-04  0.0054
   7.0824E+00   7.2548E+00   1.2208E-04  0.0056
   7.2548E+00   7.4313E+00   1.1287E-04  0.0058
   7.4313E+00   7.6121E+00   1.0307E-04  0.0060
   7.6121E+00   7.7973E+00   9.3997E-05  0.0062
   7.7973E+00   7.9870E+00   8.6037E-05  0.0064
   7.9870E+00   8.1813E+00   7.7135E-05  0.0067
   8.1813E+00   8.3804E+00   7.0174E-05  0.0069
   8.3804E+00   8.5843E+00   6.3997E-05  0.0071
   8.5843E+00   8.7931E+00   5.8447E-05  0.0074
   8.7931E+00   9.0071E+00   5.3615E-05  0.0076
   9.0071E+00   9.2262E+00   4.8691E-05  0.0079
   9.2262E+00   9.4507E+00   4.4284E-05  0.0082
   9.4507E+00   9.6807E+00   4.0826E-05  0.0084
   9.6807E+00   9.9162E+00   3.6806E-05  0.0088
   9.9162E+00   1.0157E+01   3.3101E-05  0.0091
   1.0157E+01   1.0405E+01   3.0438E-05  0.0094
   1.0405E+01   1.0658E+01   2.8312E-05  0.0096
   1.0658E+01   1.0917E+01   2.5489E-05  0.0100
   1.0917E+01   1.1183E+01   2.3431E-05  0.0103
   1.1183E+01   1.1455E+01   2.1492E-05  0.0107
   1.1455E+01   1.1733E+01   1.9990E-05  0.0109
   1.1733E+01   1.2019E+01   1.8422E-05  0.0112
   1.2019E+01   1.2311E+01   1.7088E-05  0.0115
   1.2311E+01   1.2611E+01   1.5495E-05  0.0120
   1.2611E+01   1.2918E+01   1.4399E-05  0.0123
   1.2918E+01   1.3232E+01   1.3439E-05  0.0125
   1.3232E+01   1.3554E+01   1.2870E-05  0.0127
   1.3554E+01   1.3884E+01   1.1557E-05  0.0132
   1.3884E+01   1.4222E+01   1.1017E-05  0.0133
   1.4222E+01   1.4568E+01   1.0123E-05  0.0138
   1.4568E+01   1.4922E+01   9.4392E-06  0.0141
   1.4922E+01   1.5285E+01   9.1939E-06  0.0141
   1.5285E+01   1.5657E+01   8.4136E-06  0.0146
   1.5657E+01   1.6038E+01   8.1332E-06  0.0147
   1.6038E+01   1.6428E+01   7.5052E-06  0.0151
   1.6428E+01   1.6828E+01   7.4220E-06  0.0150
   1.6828E+01   1.7237E+01   6.9624E-06  0.0153
   1.7237E+01   1.7657E+01   6.6047E-06  0.0155
   1.7657E+01   1.8086E+01   6.3501E-06  0.0156
   1.8086E+01   1.8526E+01   6.0098E-06  0.0159
   1.8526E+01   1.8977E+01   5.7281E-06  0.0160
   1.8977E+01   1.9439E+01   5.6404E-06  0.0160
   1.9439E+01   1.9912E+01   5.2985E-06  0.0163
   1.9912E+01   2.0396E+01   4.6270E-06  0.0172
   2.0396E+01   2.0893E+01   4.4587E-06  0.0174
   2.0893E+01   2.1401E+01   4.1731E-06  0.0177
   2.1401E+01   2.1922E+01   3.9844E-06  0.0179
   2.1922E+01   2.2455E+01   3.8635E-06  0.0180
   2.2455E+01   2.3001E+01   3.7168E-06  0.0181
   2.3001E+01   2.3561E+01   3.6857E-06  0.0180
   2.3561E+01   2.4134E+01   3.4435E-06  0.0184
   2.4134E+01   2.4721E+01   3.3344E-06  0.0185
   2.4721E+01   2.5323E+01   3.1455E-06  0.0188
   2.5323E+01   2.5939E+01   3.0773E-06  0.0188
   2.5939E+01   2.6570E+01   2.8109E-06  0.0194
   2.6570E+01   2.7217E+01   2.6822E-06  0.0196
   2.7217E+01   2.7879E+01   2.6216E-06  0.0196
   2.7879E+01   2.8557E+01   2.3745E-06  0.0203
   2.8557E+01   2.9252E+01   2.1934E-06  0.0209
   2.9252E+01   2.9964E+01   2.1553E-06  0.0208
   2.9964E+01   3.0693E+01   2.0191E-06  0.0213
   3.0693E+01   3.1440E+01   1.9568E-06  0.0214
   3.1440E+01   3.2205E+01   1.6855E-06  0.0227
   3.2205E+01   3.2988E+01   1.6455E-06  0.0227
   3.2988E+01   3.3791E+01   1.4884E-06  0.0236
   3.3791E+01   3.4613E+01   1.4271E-06  0.0238
   3.4613E+01   3.5455E+01   1.3552E-06  0.0242
   3.5455E+01   3.6318E+01   1.1986E-06  0.0254
   3.6318E+01   3.7201E+01   1.1204E-06  0.0259
   3.7201E+01   3.8106E+01   1.0039E-06  0.0271
   3.8106E+01   3.9034E+01   9.1534E-07  0.0280
   3.9034E+01   3.9983E+01   8.7886E-07  0.0283
   3.9983E+01   4.0956E+01   7.7575E-07  0.0297
   4.0956E+01   4.1953E+01   6.8507E-07  0.0312
   4.1953E+01   4.2973E+01   5.8977E-07  0.0333
   4.2973E+01   4.4019E+01   5.6173E-07  0.0337
   4.4019E+01   4.5090E+01   4.9112E-07  0.0356
   4.5090E+01   4.6187E+01   4.1504E-07  0.0383
   4.6187E+01   4.7311E+01   3.8561E-07  0.0392
   4.7311E+01   4.8462E+01   3.1622E-07  0.0428
   4.8462E+01   4.9641E+01   2.6065E-07  0.0466
   4.9641E+01   5.0849E+01   2.6881E-07  0.0453
   5.0849E+01   5.2086E+01   2.1824E-07  0.0497
   5.2086E+01   5.3353E+01   1.9201E-07  0.0523
   5.3353E+01   5.4651E+01   1.6434E-07  0.0559
   5.4651E+01   5.5981E+01   1.2634E-07  0.0630
   5.5981E+01   5.7343E+01   1.0964E-07  0.0668
   5.7343E+01   5.8738E+01   9.4132E-08  0.0712
   5.8738E+01   6.0168E+01   8.1167E-08  0.0758
   6.0168E+01   6.1632E+01   5.9202E-08  0.0877
   6.1632E+01   6.3131E+01   5.0682E-08  0.0937
   6.3131E+01   6.4667E+01   4.4270E-08  0.0990
   6.4667E+01   6.6240E+01   3.4744E-08  0.1104
   6.6240E+01   6.7852E+01   2.2751E-08  0.1348
   6.7852E+01   6.9503E+01   1.8172E-08  0.1491
   6.9503E+01   7.1194E+01   2.1288E-08  0.1361
   7.1194E+01   7.2926E+01   1.2701E-08  0.1741
   7.2926E+01   7.4701E+01   7.5145E-09  0.2236
   7.4701E+01   7.6518E+01   5.8688E-09  0.2500
   7.6518E+01   7.8380E+01   5.0132E-09  0.2673
   7.8380E+01   8.0287E+01   5.2437E-09  0.2582
   8.0287E+01   8.2240E+01   4.7779E-09  0.2673
   8.2240E+01   8.4241E+01   1.9990E-09  0.4082
   8.4241E+01   8.6291E+01   9.7577E-10  0.5774
   8.6291E+01   8.8391E+01   1.9052E-09  0.4082
   8.8391E+01   9.0541E+01   9.2997E-10  0.5774
   9.0541E+01   9.2744E+01   9.0788E-10  0.5774
   9.2744E+01   9.5001E+01   0.0000E+00  0.0000
   9.5001E+01   9.7312E+01   0.0000E+00  0.0000
   9.7312E+01   9.9680E+01   0.0000E+00  0.0000
   9.9680E+01   1.0211E+02   0.0000E+00  0.0000
   1.0211E+02   1.0459E+02   0.0000E+00  0.0000
   1.0459E+02   1.0713E+02   0.0000E+00  0.0000
   1.0713E+02   1.0974E+02   0.0000E+00  0.0000
   1.0974E+02   1.1241E+02   0.0000E+00  0.0000
   1.1241E+02   1.1515E+02   0.0000E+00  0.0000
   1.1515E+02   1.1795E+02   0.0000E+00  0.0000
   1.1795E+02   1.2082E+02   0.0000E+00  0.0000
   1.2082E+02   1.2376E+02   0.0000E+00  0.0000
   1.2376E+02   1.2677E+02   0.0000E+00  0.0000
   1.2677E+02   1.2985E+02   0.0000E+00  0.0000
   1.2985E+02   1.3301E+02   0.0000E+00  0.0000
   1.3301E+02   1.3625E+02   0.0000E+00  0.0000
   1.3625E+02   1.3956E+02   0.0000E+00  0.0000
   1.3956E+02   1.4296E+02   0.0000E+00  0.0000
   1.4296E+02   1.4644E+02   0.0000E+00  0.0000
   1.4644E+02   1.5000E+02   0.0000E+00  0.0000

#   sum over                 9.5987E-05
'no. =    1   reg = 119 - 219'
msuc: {\huge [t-cross] in region mesh}
msdr: {\it plotted by \ANGEL \version}
msdl: {\it calculated by \PHITS  3.26}
wt: s(0.7)
\vspace{-3}
  region surface crossing
  area  &=&   1.0000E+00 [cm^2]
e:
 
# Information for Restart Calculation
# This calculation was newly started
# istdev =  2 # 1:Batch variance, 2:History variance
# resc2  = 1.50000000000000000E+09 # Total source weight or Total source weight / maxcas
# resc3  = 1.50000000000000000E+09 # Total history number or Total batch number
# maxcas =   500000000 # History / Batch, only used for istdev=1
# bitrseed = 0000010101110101110110100110011001100101000001100111100100101101 # bit data of rseed
