[ T-Cross ]
    title = [t-cross] in region mesh
     mesh =  reg            # mesh type is region-wise
      reg =    1            # number of crossing regions
      non     r-from    r-to       area
      1       125       225        1.000000    
   e-type =    3            # e-mesh is log given by emin, emax and ne
     emin =  1.0000000E-02  # minimum value of e-mesh points
     emax =   150.0000      # maximum value of e-mesh points
#    edel =  2.4039514E-02  # mesh width of e-mesh points
       ne =    400          # number of e-mesh points
#    data = ( e(i), i = 1, ne + 1 )
#           1.00000E-02  1.02433E-02  1.04925E-02  1.07478E-02  1.10093E-02
#           1.12772E-02  1.15516E-02  1.18326E-02  1.21205E-02  1.24154E-02
#           1.27175E-02  1.30269E-02  1.33439E-02  1.36686E-02  1.40011E-02
#           1.43418E-02  1.46907E-02  1.50482E-02  1.54143E-02  1.57894E-02
#           1.61735E-02  1.65670E-02  1.69701E-02  1.73830E-02  1.78060E-02
#           1.82392E-02  1.86830E-02  1.91375E-02  1.96032E-02  2.00801E-02
#           2.05687E-02  2.10692E-02  2.15818E-02  2.21069E-02  2.26448E-02
#           2.31957E-02  2.37601E-02  2.43382E-02  2.49304E-02  2.55369E-02
#           2.61583E-02  2.67947E-02  2.74467E-02  2.81145E-02  2.87985E-02
#           2.94992E-02  3.02169E-02  3.09521E-02  3.17052E-02  3.24766E-02
#           3.32668E-02  3.40762E-02  3.49053E-02  3.57546E-02  3.66246E-02
#           3.75157E-02  3.84284E-02  3.93634E-02  4.03212E-02  4.13022E-02
#           4.23071E-02  4.33365E-02  4.43909E-02  4.54710E-02  4.65773E-02
#           4.77106E-02  4.88714E-02  5.00605E-02  5.12785E-02  5.25262E-02
#           5.38042E-02  5.51133E-02  5.64542E-02  5.78278E-02  5.92348E-02
#           6.06760E-02  6.21523E-02  6.36645E-02  6.52135E-02  6.68002E-02
#           6.84255E-02  7.00904E-02  7.17957E-02  7.35426E-02  7.53319E-02
#           7.71648E-02  7.90423E-02  8.09655E-02  8.29354E-02  8.49533E-02
#           8.70203E-02  8.91376E-02  9.13064E-02  9.35279E-02  9.58035E-02
#           9.81345E-02  1.00522E-01  1.02968E-01  1.05473E-01  1.08040E-01
#           1.10668E-01  1.13361E-01  1.16119E-01  1.18944E-01  1.21838E-01
#           1.24803E-01  1.27839E-01  1.30950E-01  1.34136E-01  1.37399E-01
#           1.40742E-01  1.44167E-01  1.47675E-01  1.51268E-01  1.54948E-01
#           1.58718E-01  1.62580E-01  1.66535E-01  1.70587E-01  1.74738E-01
#           1.78989E-01  1.83344E-01  1.87805E-01  1.92375E-01  1.97055E-01
#           2.01850E-01  2.06761E-01  2.11792E-01  2.16945E-01  2.22223E-01
#           2.27630E-01  2.33169E-01  2.38842E-01  2.44653E-01  2.50605E-01
#           2.56703E-01  2.62949E-01  2.69346E-01  2.75900E-01  2.82613E-01
#           2.89489E-01  2.96532E-01  3.03747E-01  3.11138E-01  3.18708E-01
#           3.26462E-01  3.34405E-01  3.42542E-01  3.50876E-01  3.59413E-01
#           3.68158E-01  3.77116E-01  3.86291E-01  3.95690E-01  4.05317E-01
#           4.15179E-01  4.25281E-01  4.35628E-01  4.46227E-01  4.57084E-01
#           4.68205E-01  4.79597E-01  4.91266E-01  5.03219E-01  5.15463E-01
#           5.28005E-01  5.40851E-01  5.54011E-01  5.67490E-01  5.81298E-01
#           5.95441E-01  6.09929E-01  6.24769E-01  6.39970E-01  6.55541E-01
#           6.71491E-01  6.87828E-01  7.04564E-01  7.21706E-01  7.39266E-01
#           7.57253E-01  7.75678E-01  7.94551E-01  8.13883E-01  8.33685E-01
#           8.53969E-01  8.74747E-01  8.96030E-01  9.17831E-01  9.40163E-01
#           9.63038E-01  9.86469E-01  1.01047E+00  1.03506E+00  1.06024E+00
#           1.08604E+00  1.11246E+00  1.13953E+00  1.16725E+00  1.19565E+00
#           1.22474E+00  1.25454E+00  1.28507E+00  1.31633E+00  1.34836E+00
#           1.38117E+00  1.41477E+00  1.44920E+00  1.48446E+00  1.52057E+00
#           1.55757E+00  1.59547E+00  1.63429E+00  1.67405E+00  1.71478E+00
#           1.75650E+00  1.79924E+00  1.84302E+00  1.88786E+00  1.93379E+00
#           1.98084E+00  2.02904E+00  2.07841E+00  2.12898E+00  2.18078E+00
#           2.23384E+00  2.28819E+00  2.34386E+00  2.40089E+00  2.45930E+00
#           2.51914E+00  2.58043E+00  2.64322E+00  2.70753E+00  2.77341E+00
#           2.84088E+00  2.91001E+00  2.98081E+00  3.05333E+00  3.12762E+00
#           3.20372E+00  3.28167E+00  3.36152E+00  3.44330E+00  3.52708E+00
#           3.61290E+00  3.70080E+00  3.79085E+00  3.88308E+00  3.97756E+00
#           4.07434E+00  4.17347E+00  4.27501E+00  4.37903E+00  4.48557E+00
#           4.59471E+00  4.70650E+00  4.82102E+00  4.93832E+00  5.05847E+00
#           5.18155E+00  5.30762E+00  5.43676E+00  5.56904E+00  5.70453E+00
#           5.84333E+00  5.98550E+00  6.13114E+00  6.28031E+00  6.43312E+00
#           6.58964E+00  6.74997E+00  6.91420E+00  7.08243E+00  7.25475E+00
#           7.43126E+00  7.61207E+00  7.79728E+00  7.98700E+00  8.18133E+00
#           8.38038E+00  8.58428E+00  8.79315E+00  9.00709E+00  9.22624E+00
#           9.45072E+00  9.68067E+00  9.91620E+00  1.01575E+01  1.04046E+01
#           1.06578E+01  1.09171E+01  1.11827E+01  1.14548E+01  1.17335E+01
#           1.20190E+01  1.23114E+01  1.26109E+01  1.29178E+01  1.32321E+01
#           1.35540E+01  1.38838E+01  1.42216E+01  1.45676E+01  1.49221E+01
#           1.52851E+01  1.56570E+01  1.60380E+01  1.64282E+01  1.68279E+01
#           1.72374E+01  1.76568E+01  1.80864E+01  1.85264E+01  1.89772E+01
#           1.94389E+01  1.99119E+01  2.03963E+01  2.08926E+01  2.14009E+01
#           2.19216E+01  2.24550E+01  2.30014E+01  2.35610E+01  2.41343E+01
#           2.47215E+01  2.53230E+01  2.59391E+01  2.65702E+01  2.72167E+01
#           2.78789E+01  2.85572E+01  2.92520E+01  2.99637E+01  3.06928E+01
#           3.14396E+01  3.22045E+01  3.29881E+01  3.37907E+01  3.46128E+01
#           3.54550E+01  3.63177E+01  3.72013E+01  3.81064E+01  3.90336E+01
#           3.99833E+01  4.09561E+01  4.19526E+01  4.29734E+01  4.40189E+01
#           4.50900E+01  4.61870E+01  4.73108E+01  4.84619E+01  4.96410E+01
#           5.08488E+01  5.20860E+01  5.33533E+01  5.46514E+01  5.59812E+01
#           5.73432E+01  5.87384E+01  6.01676E+01  6.16315E+01  6.31311E+01
#           6.46671E+01  6.62405E+01  6.78522E+01  6.95031E+01  7.11941E+01
#           7.29263E+01  7.47007E+01  7.65182E+01  7.83800E+01  8.02870E+01
#           8.22405E+01  8.42414E+01  8.62911E+01  8.83906E+01  9.05412E+01
#           9.27442E+01  9.50007E+01  9.73122E+01  9.96799E+01  1.02105E+02
#           1.04589E+02  1.07134E+02  1.09741E+02  1.12411E+02  1.15146E+02
#           1.17948E+02  1.20817E+02  1.23757E+02  1.26768E+02  1.29852E+02
#           1.33012E+02  1.36248E+02  1.39563E+02  1.42959E+02  1.46437E+02
#           1.50000E+02
     unit =    2            # unit is [1/cm^2/(MeV/n)/source]
     axis =  eng            # axis of output
     file = detector-26.out  # file name of output for the above axis
   output = f-curr          # surface crossing forward current spectrum
     part =  neutron  
# kf/name :  2112     
#    used :        main (  %)        temp (  %)       total (  %)
#  memory :         414 (  0)           0 (  0)         414 (  0)

#------------------------------------------------------------------------------
#newpage:
#   no. =    1   reg = 125 - 225

x: Energy [MeV/n]
y:  F-Curr [1/cm^2/(MeV/n)/source]         
p: xlog ylog afac(0.8) form(0.9)
h: n            x            y(neutron ),hh0l   n 
#  e-lower      e-upper      neutron     r.err 
   1.0000E-02   1.0243E-02   1.5808E-02  0.0141
   1.0243E-02   1.0493E-02   1.5411E-02  0.0142
   1.0493E-02   1.0748E-02   1.5846E-02  0.0138
   1.0748E-02   1.1009E-02   1.4890E-02  0.0141
   1.1009E-02   1.1277E-02   1.4717E-02  0.0140
   1.1277E-02   1.1552E-02   1.4273E-02  0.0140
   1.1552E-02   1.1833E-02   1.4133E-02  0.0139
   1.1833E-02   1.2121E-02   1.3734E-02  0.0139
   1.2121E-02   1.2415E-02   1.3994E-02  0.0137
   1.2415E-02   1.2718E-02   1.3221E-02  0.0139
   1.2718E-02   1.3027E-02   1.3230E-02  0.0137
   1.3027E-02   1.3344E-02   1.2683E-02  0.0138
   1.3344E-02   1.3669E-02   1.2692E-02  0.0137
   1.3669E-02   1.4001E-02   1.2114E-02  0.0138
   1.4001E-02   1.4342E-02   1.2284E-02  0.0136
   1.4342E-02   1.4691E-02   1.1366E-02  0.0139
   1.4691E-02   1.5048E-02   1.1799E-02  0.0135
   1.5048E-02   1.5414E-02   1.1221E-02  0.0137
   1.5414E-02   1.5789E-02   1.1211E-02  0.0135
   1.5789E-02   1.6174E-02   1.1015E-02  0.0135
   1.6174E-02   1.6567E-02   1.0719E-02  0.0135
   1.6567E-02   1.6970E-02   1.0442E-02  0.0135
   1.6970E-02   1.7383E-02   1.0429E-02  0.0134
   1.7383E-02   1.7806E-02   1.0243E-02  0.0133
   1.7806E-02   1.8239E-02   1.0106E-02  0.0133
   1.8239E-02   1.8683E-02   9.7746E-03  0.0133
   1.8683E-02   1.9138E-02   9.7082E-03  0.0132
   1.9138E-02   1.9603E-02   9.5107E-03  0.0132
   1.9603E-02   2.0080E-02   9.2356E-03  0.0132
   2.0080E-02   2.0569E-02   9.3712E-03  0.0130
   2.0569E-02   2.1069E-02   9.2009E-03  0.0129
   2.1069E-02   2.1582E-02   8.8323E-03  0.0130
   2.1582E-02   2.2107E-02   8.5580E-03  0.0131
   2.2107E-02   2.2645E-02   8.4005E-03  0.0130
   2.2645E-02   2.3196E-02   8.2373E-03  0.0130
   2.3196E-02   2.3760E-02   8.2795E-03  0.0128
   2.3760E-02   2.4338E-02   8.0263E-03  0.0129
   2.4338E-02   2.4930E-02   7.7616E-03  0.0129
   2.4930E-02   2.5537E-02   7.7129E-03  0.0128
   2.5537E-02   2.6158E-02   7.7402E-03  0.0126
   2.6158E-02   2.6795E-02   7.4802E-03  0.0127
   2.6795E-02   2.7447E-02   7.2966E-03  0.0127
   2.7447E-02   2.8114E-02   7.1624E-03  0.0127
   2.8114E-02   2.8799E-02   7.2228E-03  0.0125
   2.8799E-02   2.9499E-02   6.8098E-03  0.0127
   2.9499E-02   3.0217E-02   6.8688E-03  0.0125
   3.0217E-02   3.0952E-02   6.7433E-03  0.0125
   3.0952E-02   3.1705E-02   6.6689E-03  0.0124
   3.1705E-02   3.2477E-02   6.3485E-03  0.0125
   3.2477E-02   3.3267E-02   6.2323E-03  0.0125
   3.3267E-02   3.4076E-02   6.1783E-03  0.0124
   3.4076E-02   3.4905E-02   6.1670E-03  0.0123
   3.4905E-02   3.5755E-02   5.9988E-03  0.0123
   3.5755E-02   3.6625E-02   6.0199E-03  0.0121
   3.6625E-02   3.7516E-02   5.7716E-03  0.0122
   3.7516E-02   3.8428E-02   5.5430E-03  0.0123
   3.8428E-02   3.9363E-02   5.5870E-03  0.0121
   3.9363E-02   4.0321E-02   5.4624E-03  0.0121
   4.0321E-02   4.1302E-02   5.4447E-03  0.0120
   4.1302E-02   4.2307E-02   5.2519E-03  0.0121
   4.2307E-02   4.3337E-02   5.1802E-03  0.0120
   4.3337E-02   4.4391E-02   5.1593E-03  0.0119
   4.4391E-02   4.5471E-02   5.0268E-03  0.0119
   4.5471E-02   4.6577E-02   4.9369E-03  0.0119
   4.6577E-02   4.7711E-02   4.7002E-03  0.0120
   4.7711E-02   4.8871E-02   4.6763E-03  0.0119
   4.8871E-02   5.0061E-02   4.5678E-03  0.0119
   5.0061E-02   5.1279E-02   4.5724E-03  0.0118
   5.1279E-02   5.2526E-02   4.4847E-03  0.0117
   5.2526E-02   5.3804E-02   4.3848E-03  0.0117
   5.3804E-02   5.5113E-02   4.3374E-03  0.0116
   5.5113E-02   5.6454E-02   4.2427E-03  0.0116
   5.6454E-02   5.7828E-02   4.1425E-03  0.0116
   5.7828E-02   5.9235E-02   4.1184E-03  0.0115
   5.9235E-02   6.0676E-02   4.0457E-03  0.0115
   6.0676E-02   6.2152E-02   3.9598E-03  0.0115
   6.2152E-02   6.3665E-02   3.8980E-03  0.0114
   6.3665E-02   6.5214E-02   3.7652E-03  0.0115
   6.5214E-02   6.6800E-02   3.7189E-03  0.0114
   6.6800E-02   6.8426E-02   3.6093E-03  0.0115
   6.8426E-02   7.0090E-02   3.6053E-03  0.0113
   7.0090E-02   7.1796E-02   3.5743E-03  0.0112
   7.1796E-02   7.3543E-02   3.5109E-03  0.0112
   7.3543E-02   7.5332E-02   3.4707E-03  0.0111
   7.5332E-02   7.7165E-02   3.3906E-03  0.0111
   7.7165E-02   7.9042E-02   3.3318E-03  0.0111
   7.9042E-02   8.0965E-02   3.2123E-03  0.0112
   8.0965E-02   8.2935E-02   3.2055E-03  0.0110
   8.2935E-02   8.4953E-02   3.1328E-03  0.0110
   8.4953E-02   8.7020E-02   3.0572E-03  0.0110
   8.7020E-02   8.9138E-02   3.0805E-03  0.0109
   8.9138E-02   9.1306E-02   2.9591E-03  0.0109
   9.1306E-02   9.3528E-02   2.9054E-03  0.0109
   9.3528E-02   9.5804E-02   2.8148E-03  0.0110
   9.5804E-02   9.8134E-02   2.8194E-03  0.0108
   9.8134E-02   1.0052E-01   2.8122E-03  0.0107
   1.0052E-01   1.0297E-01   2.7583E-03  0.0107
   1.0297E-01   1.0547E-01   2.6854E-03  0.0107
   1.0547E-01   1.0804E-01   2.6333E-03  0.0107
   1.0804E-01   1.1067E-01   2.6050E-03  0.0106
   1.1067E-01   1.1336E-01   2.5260E-03  0.0106
   1.1336E-01   1.1612E-01   2.5190E-03  0.0105
   1.1612E-01   1.1894E-01   2.4561E-03  0.0105
   1.1894E-01   1.2184E-01   2.4346E-03  0.0104
   1.2184E-01   1.2480E-01   2.3857E-03  0.0104
   1.2480E-01   1.2784E-01   2.3488E-03  0.0104
   1.2784E-01   1.3095E-01   2.3027E-03  0.0104
   1.3095E-01   1.3414E-01   2.2159E-03  0.0104
   1.3414E-01   1.3740E-01   2.2050E-03  0.0103
   1.3740E-01   1.4074E-01   2.1655E-03  0.0103
   1.4074E-01   1.4417E-01   2.1679E-03  0.0102
   1.4417E-01   1.4767E-01   2.0987E-03  0.0102
   1.4767E-01   1.5127E-01   2.0654E-03  0.0102
   1.5127E-01   1.5495E-01   2.0000E-03  0.0102
   1.5495E-01   1.5872E-01   2.0073E-03  0.0101
   1.5872E-01   1.6258E-01   1.9559E-03  0.0101
   1.6258E-01   1.6654E-01   1.9287E-03  0.0100
   1.6654E-01   1.7059E-01   1.8462E-03  0.0101
   1.7059E-01   1.7474E-01   1.8445E-03  0.0100
   1.7474E-01   1.7899E-01   1.8540E-03  0.0099
   1.7899E-01   1.8334E-01   1.7681E-03  0.0100
   1.8334E-01   1.8781E-01   1.7399E-03  0.0100
   1.8781E-01   1.9237E-01   1.7439E-03  0.0098
   1.9237E-01   1.9706E-01   1.7215E-03  0.0098
   1.9706E-01   2.0185E-01   1.6890E-03  0.0097
   2.0185E-01   2.0676E-01   1.6357E-03  0.0098
   2.0676E-01   2.1179E-01   1.6035E-03  0.0098
   2.1179E-01   2.1694E-01   1.5854E-03  0.0097
   2.1694E-01   2.2222E-01   1.5583E-03  0.0097
   2.2222E-01   2.2763E-01   1.5391E-03  0.0096
   2.2763E-01   2.3317E-01   1.4922E-03  0.0096
   2.3317E-01   2.3884E-01   1.4653E-03  0.0096
   2.3884E-01   2.4465E-01   1.4504E-03  0.0096
   2.4465E-01   2.5061E-01   1.4318E-03  0.0095
   2.5061E-01   2.5670E-01   1.4017E-03  0.0095
   2.5670E-01   2.6295E-01   1.3831E-03  0.0094
   2.6295E-01   2.6935E-01   1.3623E-03  0.0094
   2.6935E-01   2.7590E-01   1.3456E-03  0.0093
   2.7590E-01   2.8261E-01   1.3071E-03  0.0094
   2.8261E-01   2.8949E-01   1.2774E-03  0.0094
   2.8949E-01   2.9653E-01   1.2648E-03  0.0093
   2.9653E-01   3.0375E-01   1.2395E-03  0.0093
   3.0375E-01   3.1114E-01   1.1902E-03  0.0094
   3.1114E-01   3.1871E-01   1.1876E-03  0.0093
   3.1871E-01   3.2646E-01   1.1744E-03  0.0092
   3.2646E-01   3.3441E-01   1.1336E-03  0.0092
   3.3441E-01   3.4254E-01   1.1339E-03  0.0091
   3.4254E-01   3.5088E-01   1.0860E-03  0.0092
   3.5088E-01   3.5941E-01   1.0789E-03  0.0091
   3.5941E-01   3.6816E-01   1.0367E-03  0.0092
   3.6816E-01   3.7712E-01   1.0301E-03  0.0091
   3.7712E-01   3.8629E-01   1.0114E-03  0.0091
   3.8629E-01   3.9569E-01   1.0056E-03  0.0090
   3.9569E-01   4.0532E-01   9.6219E-04  0.0091
   4.0532E-01   4.1518E-01   9.5950E-04  0.0090
   4.1518E-01   4.2528E-01   9.2921E-04  0.0091
   4.2528E-01   4.3563E-01   9.0710E-04  0.0091
   4.3563E-01   4.4623E-01   8.9637E-04  0.0090
   4.4623E-01   4.5708E-01   8.7975E-04  0.0090
   4.5708E-01   4.6821E-01   8.4959E-04  0.0090
   4.6821E-01   4.7960E-01   8.2590E-04  0.0090
   4.7960E-01   4.9127E-01   8.1386E-04  0.0090
   4.9127E-01   5.0322E-01   8.0077E-04  0.0090
   5.0322E-01   5.1546E-01   7.7032E-04  0.0090
   5.1546E-01   5.2800E-01   7.5564E-04  0.0090
   5.2800E-01   5.4085E-01   7.4428E-04  0.0090
   5.4085E-01   5.5401E-01   7.2318E-04  0.0090
   5.5401E-01   5.6749E-01   7.0803E-04  0.0090
   5.6749E-01   5.8130E-01   6.9360E-04  0.0090
   5.8130E-01   5.9544E-01   6.6981E-04  0.0090
   5.9544E-01   6.0993E-01   6.4559E-04  0.0091
   6.0993E-01   6.2477E-01   6.2575E-04  0.0091
   6.2477E-01   6.3997E-01   6.2020E-04  0.0090
   6.3997E-01   6.5554E-01   5.9544E-04  0.0091
   6.5554E-01   6.7149E-01   5.8298E-04  0.0091
   6.7149E-01   6.8783E-01   5.6895E-04  0.0091
   6.8783E-01   7.0456E-01   5.5699E-04  0.0091
   7.0456E-01   7.2171E-01   5.3966E-04  0.0091
   7.2171E-01   7.3927E-01   5.1694E-04  0.0092
   7.3927E-01   7.5725E-01   5.0233E-04  0.0092
   7.5725E-01   7.7568E-01   4.9077E-04  0.0092
   7.7568E-01   7.9455E-01   4.7280E-04  0.0093
   7.9455E-01   8.1388E-01   4.5640E-04  0.0093
   8.1388E-01   8.3368E-01   4.3988E-04  0.0094
   8.3368E-01   8.5397E-01   4.2341E-04  0.0095
   8.5397E-01   8.7475E-01   4.0511E-04  0.0096
   8.7475E-01   8.9603E-01   3.9178E-04  0.0096
   8.9603E-01   9.1783E-01   3.7542E-04  0.0097
   9.1783E-01   9.4016E-01   3.6144E-04  0.0098
   9.4016E-01   9.6304E-01   3.4852E-04  0.0098
   9.6304E-01   9.8647E-01   3.3359E-04  0.0099
   9.8647E-01   1.0105E+00   3.1471E-04  0.0101
   1.0105E+00   1.0351E+00   3.1404E-04  0.0100
   1.0351E+00   1.0602E+00   3.2104E-04  0.0098
   1.0602E+00   1.0860E+00   3.2434E-04  0.0096
   1.0860E+00   1.1125E+00   3.3274E-04  0.0094
   1.1125E+00   1.1395E+00   3.3856E-04  0.0092
   1.1395E+00   1.1673E+00   3.4830E-04  0.0089
   1.1673E+00   1.1957E+00   3.5441E-04  0.0087
   1.1957E+00   1.2247E+00   3.6353E-04  0.0085
   1.2247E+00   1.2545E+00   3.6460E-04  0.0084
   1.2545E+00   1.2851E+00   3.6455E-04  0.0083
   1.2851E+00   1.3163E+00   3.6972E-04  0.0082
   1.3163E+00   1.3484E+00   3.7856E-04  0.0080
   1.3484E+00   1.3812E+00   3.8266E-04  0.0078
   1.3812E+00   1.4148E+00   3.8914E-04  0.0077
   1.4148E+00   1.4492E+00   3.8447E-04  0.0076
   1.4492E+00   1.4845E+00   3.8867E-04  0.0075
   1.4845E+00   1.5206E+00   3.8657E-04  0.0074
   1.5206E+00   1.5576E+00   3.8419E-04  0.0074
   1.5576E+00   1.5955E+00   3.8298E-04  0.0073
   1.5955E+00   1.6343E+00   3.9037E-04  0.0071
   1.6343E+00   1.6741E+00   3.9823E-04  0.0070
   1.6741E+00   1.7148E+00   4.0081E-04  0.0069
   1.7148E+00   1.7565E+00   3.9787E-04  0.0068
   1.7565E+00   1.7992E+00   3.9360E-04  0.0068
   1.7992E+00   1.8430E+00   3.8802E-04  0.0067
   1.8430E+00   1.8879E+00   3.8096E-04  0.0067
   1.8879E+00   1.9338E+00   3.9060E-04  0.0066
   1.9338E+00   1.9808E+00   3.7871E-04  0.0066
   1.9808E+00   2.0290E+00   3.8272E-04  0.0065
   2.0290E+00   2.0784E+00   3.7299E-04  0.0065
   2.0784E+00   2.1290E+00   3.6685E-04  0.0064
   2.1290E+00   2.1808E+00   3.5565E-04  0.0065
   2.1808E+00   2.2338E+00   3.4930E-04  0.0064
   2.2338E+00   2.2882E+00   3.4141E-04  0.0064
   2.2882E+00   2.3439E+00   3.3691E-04  0.0064
   2.3439E+00   2.4009E+00   3.3430E-04  0.0064
   2.4009E+00   2.4593E+00   3.2998E-04  0.0063
   2.4593E+00   2.5191E+00   3.1964E-04  0.0063
   2.5191E+00   2.5804E+00   3.0355E-04  0.0064
   2.5804E+00   2.6432E+00   2.9129E-04  0.0065
   2.6432E+00   2.7075E+00   2.8406E-04  0.0065
   2.7075E+00   2.7734E+00   2.7305E-04  0.0065
   2.7734E+00   2.8409E+00   2.6718E-04  0.0065
   2.8409E+00   2.9100E+00   2.5980E-04  0.0065
   2.9100E+00   2.9808E+00   2.5321E-04  0.0066
   2.9808E+00   3.0533E+00   2.4303E-04  0.0066
   3.0533E+00   3.1276E+00   2.3105E-04  0.0067
   3.1276E+00   3.2037E+00   2.1768E-04  0.0068
   3.2037E+00   3.2817E+00   2.0746E-04  0.0069
   3.2817E+00   3.3615E+00   1.9648E-04  0.0070
   3.3615E+00   3.4433E+00   1.8478E-04  0.0071
   3.4433E+00   3.5271E+00   1.7673E-04  0.0072
   3.5271E+00   3.6129E+00   1.7052E-04  0.0073
   3.6129E+00   3.7008E+00   1.6163E-04  0.0074
   3.7008E+00   3.7908E+00   1.5130E-04  0.0075
   3.7908E+00   3.8831E+00   1.4312E-04  0.0076
   3.8831E+00   3.9776E+00   1.3465E-04  0.0078
   3.9776E+00   4.0743E+00   1.2734E-04  0.0079
   4.0743E+00   4.1735E+00   1.1832E-04  0.0081
   4.1735E+00   4.2750E+00   1.0873E-04  0.0083
   4.2750E+00   4.3790E+00   1.0115E-04  0.0086
   4.3790E+00   4.4856E+00   9.4016E-05  0.0088
   4.4856E+00   4.5947E+00   8.6824E-05  0.0090
   4.5947E+00   4.7065E+00   7.8621E-05  0.0094
   4.7065E+00   4.8210E+00   7.3784E-05  0.0095
   4.8210E+00   4.9383E+00   6.9021E-05  0.0097
   4.9383E+00   5.0585E+00   6.3771E-05  0.0100
   5.0585E+00   5.1815E+00   5.8806E-05  0.0103
   5.1815E+00   5.3076E+00   5.3794E-05  0.0107
   5.3076E+00   5.4368E+00   4.9860E-05  0.0109
   5.4368E+00   5.5690E+00   4.4998E-05  0.0114
   5.5690E+00   5.7045E+00   4.0418E-05  0.0119
   5.7045E+00   5.8433E+00   3.7138E-05  0.0122
   5.8433E+00   5.9855E+00   3.4075E-05  0.0126
   5.9855E+00   6.1311E+00   3.0513E-05  0.0132
   6.1311E+00   6.2803E+00   2.6890E-05  0.0138
   6.2803E+00   6.4331E+00   2.5181E-05  0.0141
   6.4331E+00   6.5896E+00   2.2982E-05  0.0146
   6.5896E+00   6.7500E+00   2.0296E-05  0.0154
   6.7500E+00   6.9142E+00   1.7652E-05  0.0163
   6.9142E+00   7.0824E+00   1.6472E-05  0.0167
   7.0824E+00   7.2548E+00   1.4981E-05  0.0173
   7.2548E+00   7.4313E+00   1.3471E-05  0.0180
   7.4313E+00   7.6121E+00   1.1980E-05  0.0188
   7.6121E+00   7.7973E+00   1.0522E-05  0.0199
   7.7973E+00   7.9870E+00   9.5868E-06  0.0206
   7.9870E+00   8.1813E+00   8.6544E-06  0.0214
   8.1813E+00   8.3804E+00   7.6843E-06  0.0224
   8.3804E+00   8.5843E+00   7.0527E-06  0.0231
   8.5843E+00   8.7931E+00   6.2652E-06  0.0242
   8.7931E+00   9.0071E+00   5.5874E-06  0.0254
   9.0071E+00   9.2262E+00   5.0282E-06  0.0264
   9.2262E+00   9.4507E+00   4.5130E-06  0.0275
   9.4507E+00   9.6807E+00   4.1967E-06  0.0282
   9.6807E+00   9.9162E+00   3.6300E-06  0.0300
   9.9162E+00   1.0157E+01   3.5119E-06  0.0301
   1.0157E+01   1.0405E+01   3.2075E-06  0.0311
   1.0405E+01   1.0658E+01   2.9079E-06  0.0323
   1.0658E+01   1.0917E+01   2.5467E-06  0.0341
   1.0917E+01   1.1183E+01   2.3950E-06  0.0347
   1.1183E+01   1.1455E+01   2.0384E-06  0.0372
   1.1455E+01   1.1733E+01   2.0466E-06  0.0366
   1.1733E+01   1.2019E+01   1.9616E-06  0.0370
   1.2019E+01   1.2311E+01   1.7703E-06  0.0385
   1.2311E+01   1.2611E+01   1.6140E-06  0.0397
   1.2611E+01   1.2918E+01   1.3224E-06  0.0434
   1.2918E+01   1.3232E+01   1.3938E-06  0.0417
   1.3232E+01   1.3554E+01   1.3213E-06  0.0424
   1.3554E+01   1.3884E+01   1.1861E-06  0.0442
   1.3884E+01   1.4222E+01   1.0771E-06  0.0458
   1.4222E+01   1.4568E+01   1.0293E-06  0.0463
   1.4568E+01   1.4922E+01   9.5817E-07  0.0474
   1.4922E+01   1.5285E+01   8.8138E-07  0.0489
   1.5285E+01   1.5657E+01   8.9354E-07  0.0479
   1.5657E+01   1.6038E+01   8.0871E-07  0.0498
   1.6038E+01   1.6428E+01   8.2400E-07  0.0487
   1.6428E+01   1.6828E+01   7.3611E-07  0.0508
   1.6828E+01   1.7237E+01   7.2332E-07  0.0508
   1.7237E+01   1.7657E+01   6.6946E-07  0.0521
   1.7657E+01   1.8086E+01   5.8283E-07  0.0552
   1.8086E+01   1.8526E+01   5.6898E-07  0.0551
   1.8526E+01   1.8977E+01   5.2219E-07  0.0570
   1.8977E+01   1.9439E+01   5.0229E-07  0.0575
   1.9439E+01   1.9912E+01   4.7654E-07  0.0583
   1.9912E+01   2.0396E+01   2.6833E-07  0.0769
   2.0396E+01   2.0893E+01   3.4411E-07  0.0671
   2.0893E+01   2.1401E+01   3.0870E-07  0.0700
   2.1401E+01   2.1922E+01   2.8216E-07  0.0724
   2.1922E+01   2.2455E+01   2.8411E-07  0.0712
   2.2455E+01   2.3001E+01   2.2950E-07  0.0783
   2.3001E+01   2.3561E+01   2.7078E-07  0.0712
   2.3561E+01   2.4134E+01   2.4019E-07  0.0747
   2.4134E+01   2.4721E+01   2.0436E-07  0.0801
   2.4721E+01   2.5323E+01   2.1485E-07  0.0772
   2.5323E+01   2.5939E+01   1.8977E-07  0.0811
   2.5939E+01   2.6570E+01   2.0842E-07  0.0765
   2.6570E+01   2.7217E+01   1.6896E-07  0.0839
   2.7217E+01   2.7879E+01   1.7773E-07  0.0808
   2.7879E+01   2.8557E+01   1.7804E-07  0.0798
   2.8557E+01   2.9252E+01   1.4614E-07  0.0870
   2.9252E+01   2.9964E+01   1.4591E-07  0.0861
   2.9964E+01   3.0693E+01   1.3611E-07  0.0880
   3.0693E+01   3.1440E+01   1.1537E-07  0.0945
   3.1440E+01   3.2205E+01   1.1765E-07  0.0925
   3.2205E+01   3.2988E+01   8.9336E-08  0.1048
   3.2988E+01   3.3791E+01   1.1309E-07  0.0921
   3.3791E+01   3.4613E+01   9.1692E-08  0.1010
   3.4613E+01   3.5455E+01   9.4994E-08  0.0981
   3.5455E+01   3.6318E+01   7.3120E-08  0.1104
   3.6318E+01   3.7201E+01   6.3549E-08  0.1170
   3.7201E+01   3.8106E+01   7.3937E-08  0.1072
   3.8106E+01   3.9034E+01   5.5587E-08  0.1222
   3.9034E+01   3.9983E+01   5.9127E-08  0.1170
   3.9983E+01   4.0956E+01   4.8234E-08  0.1280
   4.0956E+01   4.1953E+01   4.7860E-08  0.1270
   4.1953E+01   4.2973E+01   3.4666E-08  0.1474
   4.2973E+01   4.4019E+01   3.6049E-08  0.1429
   4.4019E+01   4.5090E+01   3.2320E-08  0.1491
   4.5090E+01   4.6187E+01   1.8230E-08  0.1961
   4.6187E+01   4.7311E+01   1.8482E-08  0.1925
   4.7311E+01   4.8462E+01   1.4033E-08  0.2182
   4.8462E+01   4.9641E+01   1.5005E-08  0.2085
   4.9641E+01   5.0849E+01   1.4648E-08  0.2085
   5.0849E+01   5.2086E+01   1.5544E-08  0.2000
   5.2086E+01   5.3353E+01   8.4978E-09  0.2673
   5.3353E+01   5.4651E+01   7.1108E-09  0.2887
   5.4651E+01   5.5981E+01   4.6280E-09  0.3536
   5.5981E+01   5.7343E+01   6.2123E-09  0.3015
   5.7343E+01   5.8738E+01   1.6540E-09  0.5774
   5.8738E+01   6.0168E+01   3.2295E-09  0.4082
   6.0168E+01   6.1632E+01   3.6782E-09  0.3780
   6.1632E+01   6.3131E+01   1.5389E-09  0.5774
   6.3131E+01   6.4667E+01   5.0079E-10  1.0000
   6.4667E+01   6.6240E+01   9.7779E-10  0.7071
   6.6240E+01   6.7852E+01   9.5457E-10  0.7071
   6.7852E+01   6.9503E+01   9.3189E-10  0.7071
   6.9503E+01   7.1194E+01   0.0000E+00  0.0000
   7.1194E+01   7.2926E+01   0.0000E+00  0.0000
   7.2926E+01   7.4701E+01   0.0000E+00  0.0000
   7.4701E+01   7.6518E+01   0.0000E+00  0.0000
   7.6518E+01   7.8380E+01   0.0000E+00  0.0000
   7.8380E+01   8.0287E+01   0.0000E+00  0.0000
   8.0287E+01   8.2240E+01   0.0000E+00  0.0000
   8.2240E+01   8.4241E+01   0.0000E+00  0.0000
   8.4241E+01   8.6291E+01   0.0000E+00  0.0000
   8.6291E+01   8.8391E+01   0.0000E+00  0.0000
   8.8391E+01   9.0541E+01   0.0000E+00  0.0000
   9.0541E+01   9.2744E+01   0.0000E+00  0.0000
   9.2744E+01   9.5001E+01   0.0000E+00  0.0000
   9.5001E+01   9.7312E+01   0.0000E+00  0.0000
   9.7312E+01   9.9680E+01   0.0000E+00  0.0000
   9.9680E+01   1.0211E+02   0.0000E+00  0.0000
   1.0211E+02   1.0459E+02   0.0000E+00  0.0000
   1.0459E+02   1.0713E+02   0.0000E+00  0.0000
   1.0713E+02   1.0974E+02   0.0000E+00  0.0000
   1.0974E+02   1.1241E+02   0.0000E+00  0.0000
   1.1241E+02   1.1515E+02   0.0000E+00  0.0000
   1.1515E+02   1.1795E+02   0.0000E+00  0.0000
   1.1795E+02   1.2082E+02   0.0000E+00  0.0000
   1.2082E+02   1.2376E+02   0.0000E+00  0.0000
   1.2376E+02   1.2677E+02   0.0000E+00  0.0000
   1.2677E+02   1.2985E+02   0.0000E+00  0.0000
   1.2985E+02   1.3301E+02   0.0000E+00  0.0000
   1.3301E+02   1.3625E+02   0.0000E+00  0.0000
   1.3625E+02   1.3956E+02   0.0000E+00  0.0000
   1.3956E+02   1.4296E+02   0.0000E+00  0.0000
   1.4296E+02   1.4644E+02   0.0000E+00  0.0000
   1.4644E+02   1.5000E+02   0.0000E+00  0.0000

#   sum over                 1.5725E-05
'no. =    1   reg = 125 - 225'
msuc: {\huge [t-cross] in region mesh}
msdr: {\it plotted by \ANGEL \version}
msdl: {\it calculated by \PHITS  3.26}
wt: s(0.7)
\vspace{-3}
  region surface crossing
  area  &=&   1.0000E+00 [cm^2]
e:
 
# Information for Restart Calculation
# This calculation was newly started
# istdev =  2 # 1:Batch variance, 2:History variance
# resc2  = 1.30000000000000000E+09 # Total source weight or Total source weight / maxcas
# resc3  = 1.30000000000000000E+09 # Total history number or Total batch number
# maxcas =   100000000 # History / Batch, only used for istdev=1
# bitrseed = 0011100100011011011100110110011010100101001111100010111010011000 # bit data of rseed
