[ T-Cross ]
    title = [t-cross] in region mesh
     mesh =  reg            # mesh type is region-wise
      reg =    1            # number of crossing regions
      non     r-from    r-to       area
      1       107       207        1.000000    
   e-type =    3            # e-mesh is log given by emin, emax and ne
     emin =  1.0000000E-02  # minimum value of e-mesh points
     emax =   150.0000      # maximum value of e-mesh points
#    edel =  2.4039514E-02  # mesh width of e-mesh points
       ne =    400          # number of e-mesh points
#    data = ( e(i), i = 1, ne + 1 )
#           1.00000E-02  1.02433E-02  1.04925E-02  1.07478E-02  1.10093E-02
#           1.12772E-02  1.15516E-02  1.18326E-02  1.21205E-02  1.24154E-02
#           1.27175E-02  1.30269E-02  1.33439E-02  1.36686E-02  1.40011E-02
#           1.43418E-02  1.46907E-02  1.50482E-02  1.54143E-02  1.57894E-02
#           1.61735E-02  1.65670E-02  1.69701E-02  1.73830E-02  1.78060E-02
#           1.82392E-02  1.86830E-02  1.91375E-02  1.96032E-02  2.00801E-02
#           2.05687E-02  2.10692E-02  2.15818E-02  2.21069E-02  2.26448E-02
#           2.31957E-02  2.37601E-02  2.43382E-02  2.49304E-02  2.55369E-02
#           2.61583E-02  2.67947E-02  2.74467E-02  2.81145E-02  2.87985E-02
#           2.94992E-02  3.02169E-02  3.09521E-02  3.17052E-02  3.24766E-02
#           3.32668E-02  3.40762E-02  3.49053E-02  3.57546E-02  3.66246E-02
#           3.75157E-02  3.84284E-02  3.93634E-02  4.03212E-02  4.13022E-02
#           4.23071E-02  4.33365E-02  4.43909E-02  4.54710E-02  4.65773E-02
#           4.77106E-02  4.88714E-02  5.00605E-02  5.12785E-02  5.25262E-02
#           5.38042E-02  5.51133E-02  5.64542E-02  5.78278E-02  5.92348E-02
#           6.06760E-02  6.21523E-02  6.36645E-02  6.52135E-02  6.68002E-02
#           6.84255E-02  7.00904E-02  7.17957E-02  7.35426E-02  7.53319E-02
#           7.71648E-02  7.90423E-02  8.09655E-02  8.29354E-02  8.49533E-02
#           8.70203E-02  8.91376E-02  9.13064E-02  9.35279E-02  9.58035E-02
#           9.81345E-02  1.00522E-01  1.02968E-01  1.05473E-01  1.08040E-01
#           1.10668E-01  1.13361E-01  1.16119E-01  1.18944E-01  1.21838E-01
#           1.24803E-01  1.27839E-01  1.30950E-01  1.34136E-01  1.37399E-01
#           1.40742E-01  1.44167E-01  1.47675E-01  1.51268E-01  1.54948E-01
#           1.58718E-01  1.62580E-01  1.66535E-01  1.70587E-01  1.74738E-01
#           1.78989E-01  1.83344E-01  1.87805E-01  1.92375E-01  1.97055E-01
#           2.01850E-01  2.06761E-01  2.11792E-01  2.16945E-01  2.22223E-01
#           2.27630E-01  2.33169E-01  2.38842E-01  2.44653E-01  2.50605E-01
#           2.56703E-01  2.62949E-01  2.69346E-01  2.75900E-01  2.82613E-01
#           2.89489E-01  2.96532E-01  3.03747E-01  3.11138E-01  3.18708E-01
#           3.26462E-01  3.34405E-01  3.42542E-01  3.50876E-01  3.59413E-01
#           3.68158E-01  3.77116E-01  3.86291E-01  3.95690E-01  4.05317E-01
#           4.15179E-01  4.25281E-01  4.35628E-01  4.46227E-01  4.57084E-01
#           4.68205E-01  4.79597E-01  4.91266E-01  5.03219E-01  5.15463E-01
#           5.28005E-01  5.40851E-01  5.54011E-01  5.67490E-01  5.81298E-01
#           5.95441E-01  6.09929E-01  6.24769E-01  6.39970E-01  6.55541E-01
#           6.71491E-01  6.87828E-01  7.04564E-01  7.21706E-01  7.39266E-01
#           7.57253E-01  7.75678E-01  7.94551E-01  8.13883E-01  8.33685E-01
#           8.53969E-01  8.74747E-01  8.96030E-01  9.17831E-01  9.40163E-01
#           9.63038E-01  9.86469E-01  1.01047E+00  1.03506E+00  1.06024E+00
#           1.08604E+00  1.11246E+00  1.13953E+00  1.16725E+00  1.19565E+00
#           1.22474E+00  1.25454E+00  1.28507E+00  1.31633E+00  1.34836E+00
#           1.38117E+00  1.41477E+00  1.44920E+00  1.48446E+00  1.52057E+00
#           1.55757E+00  1.59547E+00  1.63429E+00  1.67405E+00  1.71478E+00
#           1.75650E+00  1.79924E+00  1.84302E+00  1.88786E+00  1.93379E+00
#           1.98084E+00  2.02904E+00  2.07841E+00  2.12898E+00  2.18078E+00
#           2.23384E+00  2.28819E+00  2.34386E+00  2.40089E+00  2.45930E+00
#           2.51914E+00  2.58043E+00  2.64322E+00  2.70753E+00  2.77341E+00
#           2.84088E+00  2.91001E+00  2.98081E+00  3.05333E+00  3.12762E+00
#           3.20372E+00  3.28167E+00  3.36152E+00  3.44330E+00  3.52708E+00
#           3.61290E+00  3.70080E+00  3.79085E+00  3.88308E+00  3.97756E+00
#           4.07434E+00  4.17347E+00  4.27501E+00  4.37903E+00  4.48557E+00
#           4.59471E+00  4.70650E+00  4.82102E+00  4.93832E+00  5.05847E+00
#           5.18155E+00  5.30762E+00  5.43676E+00  5.56904E+00  5.70453E+00
#           5.84333E+00  5.98550E+00  6.13114E+00  6.28031E+00  6.43312E+00
#           6.58964E+00  6.74997E+00  6.91420E+00  7.08243E+00  7.25475E+00
#           7.43126E+00  7.61207E+00  7.79728E+00  7.98700E+00  8.18133E+00
#           8.38038E+00  8.58428E+00  8.79315E+00  9.00709E+00  9.22624E+00
#           9.45072E+00  9.68067E+00  9.91620E+00  1.01575E+01  1.04046E+01
#           1.06578E+01  1.09171E+01  1.11827E+01  1.14548E+01  1.17335E+01
#           1.20190E+01  1.23114E+01  1.26109E+01  1.29178E+01  1.32321E+01
#           1.35540E+01  1.38838E+01  1.42216E+01  1.45676E+01  1.49221E+01
#           1.52851E+01  1.56570E+01  1.60380E+01  1.64282E+01  1.68279E+01
#           1.72374E+01  1.76568E+01  1.80864E+01  1.85264E+01  1.89772E+01
#           1.94389E+01  1.99119E+01  2.03963E+01  2.08926E+01  2.14009E+01
#           2.19216E+01  2.24550E+01  2.30014E+01  2.35610E+01  2.41343E+01
#           2.47215E+01  2.53230E+01  2.59391E+01  2.65702E+01  2.72167E+01
#           2.78789E+01  2.85572E+01  2.92520E+01  2.99637E+01  3.06928E+01
#           3.14396E+01  3.22045E+01  3.29881E+01  3.37907E+01  3.46128E+01
#           3.54550E+01  3.63177E+01  3.72013E+01  3.81064E+01  3.90336E+01
#           3.99833E+01  4.09561E+01  4.19526E+01  4.29734E+01  4.40189E+01
#           4.50900E+01  4.61870E+01  4.73108E+01  4.84619E+01  4.96410E+01
#           5.08488E+01  5.20860E+01  5.33533E+01  5.46514E+01  5.59812E+01
#           5.73432E+01  5.87384E+01  6.01676E+01  6.16315E+01  6.31311E+01
#           6.46671E+01  6.62405E+01  6.78522E+01  6.95031E+01  7.11941E+01
#           7.29263E+01  7.47007E+01  7.65182E+01  7.83800E+01  8.02870E+01
#           8.22405E+01  8.42414E+01  8.62911E+01  8.83906E+01  9.05412E+01
#           9.27442E+01  9.50007E+01  9.73122E+01  9.96799E+01  1.02105E+02
#           1.04589E+02  1.07134E+02  1.09741E+02  1.12411E+02  1.15146E+02
#           1.17948E+02  1.20817E+02  1.23757E+02  1.26768E+02  1.29852E+02
#           1.33012E+02  1.36248E+02  1.39563E+02  1.42959E+02  1.46437E+02
#           1.50000E+02
     unit =    2            # unit is [1/cm^2/(MeV/n)/source]
     axis =  eng            # axis of output
     file = detector-08.out  # file name of output for the above axis
   output = f-curr          # surface crossing forward current spectrum
     part =  neutron  
# kf/name :  2112     
#    used :        main (  %)        temp (  %)       total (  %)
#  memory :         414 (  0)           0 (  0)         414 (  0)

#------------------------------------------------------------------------------
#newpage:
#   no. =    1   reg = 107 - 207

x: Energy [MeV/n]
y:  F-Curr [1/cm^2/(MeV/n)/source]         
p: xlog ylog afac(0.8) form(0.9)
h: n            x            y(neutron ),hh0l   n 
#  e-lower      e-upper      neutron     r.err 
   1.0000E-02   1.0243E-02   2.2194E-04  0.0680
   1.0243E-02   1.0493E-02   2.0433E-04  0.0700
   1.0493E-02   1.0748E-02   2.0271E-04  0.0694
   1.0748E-02   1.1009E-02   1.7399E-04  0.0741
   1.1009E-02   1.1277E-02   2.1279E-04  0.0662
   1.1277E-02   1.1552E-02   1.8633E-04  0.0699
   1.1552E-02   1.1833E-02   1.8101E-04  0.0701
   1.1833E-02   1.2121E-02   1.8583E-04  0.0684
   1.2121E-02   1.2415E-02   1.8311E-04  0.0680
   1.2415E-02   1.2718E-02   1.8975E-04  0.0660
   1.2718E-02   1.3027E-02   1.9027E-04  0.0651
   1.3027E-02   1.3344E-02   1.8153E-04  0.0659
   1.3344E-02   1.3669E-02   1.9019E-04  0.0636
   1.3669E-02   1.4001E-02   1.8004E-04  0.0646
   1.4001E-02   1.4342E-02   2.0635E-04  0.0596
   1.4342E-02   1.4691E-02   1.8090E-04  0.0629
   1.4691E-02   1.5048E-02   1.8475E-04  0.0615
   1.5048E-02   1.5414E-02   1.8104E-04  0.0614
   1.5414E-02   1.5789E-02   1.7942E-04  0.0609
   1.5789E-02   1.6174E-02   1.8459E-04  0.0593
   1.6174E-02   1.6567E-02   1.8718E-04  0.0582
   1.6567E-02   1.6970E-02   1.7321E-04  0.0598
   1.6970E-02   1.7383E-02   1.7468E-04  0.0588
   1.7383E-02   1.7806E-02   1.8147E-04  0.0570
   1.7806E-02   1.8239E-02   1.8300E-04  0.0561
   1.8239E-02   1.8683E-02   1.6168E-04  0.0590
   1.8683E-02   1.9138E-02   1.6389E-04  0.0579
   1.9138E-02   1.9603E-02   1.6018E-04  0.0579
   1.9603E-02   2.0080E-02   1.7681E-04  0.0544
   2.0080E-02   2.0569E-02   1.6886E-04  0.0550
   2.0569E-02   2.1069E-02   1.5669E-04  0.0564
   2.1069E-02   2.1582E-02   1.5808E-04  0.0555
   2.1582E-02   2.2107E-02   1.5384E-04  0.0556
   2.2107E-02   2.2645E-02   1.5229E-04  0.0552
   2.2645E-02   2.3196E-02   1.5662E-04  0.0538
   2.3196E-02   2.3760E-02   1.5244E-04  0.0539
   2.3760E-02   2.4338E-02   1.3703E-04  0.0561
   2.4338E-02   2.4930E-02   1.4586E-04  0.0538
   2.4930E-02   2.5537E-02   1.6211E-04  0.0504
   2.5537E-02   2.6158E-02   1.6040E-04  0.0501
   2.6158E-02   2.6795E-02   1.5201E-04  0.0508
   2.6795E-02   2.7447E-02   1.4764E-04  0.0509
   2.7447E-02   2.8114E-02   1.3652E-04  0.0523
   2.8114E-02   2.8799E-02   1.4411E-04  0.0503
   2.8799E-02   2.9499E-02   1.5003E-04  0.0487
   2.9499E-02   3.0217E-02   1.4002E-04  0.0498
   3.0217E-02   3.0952E-02   1.4411E-04  0.0485
   3.0952E-02   3.1705E-02   1.4955E-04  0.0471
   3.1705E-02   3.2477E-02   1.5302E-04  0.0460
   3.2477E-02   3.3267E-02   1.4965E-04  0.0460
   3.3267E-02   3.4076E-02   1.3868E-04  0.0471
   3.4076E-02   3.4905E-02   1.3844E-04  0.0467
   3.4905E-02   3.5755E-02   1.2942E-04  0.0477
   3.5755E-02   3.6625E-02   1.3649E-04  0.0459
   3.6625E-02   3.7516E-02   1.3321E-04  0.0459
   3.7516E-02   3.8428E-02   1.2534E-04  0.0467
   3.8428E-02   3.9363E-02   1.2152E-04  0.0469
   3.9363E-02   4.0321E-02   1.3151E-04  0.0445
   4.0321E-02   4.1302E-02   1.2647E-04  0.0449
   4.1302E-02   4.2307E-02   1.2135E-04  0.0453
   4.2307E-02   4.3337E-02   1.2336E-04  0.0443
   4.3337E-02   4.4391E-02   1.1456E-04  0.0455
   4.4391E-02   4.5471E-02   1.1759E-04  0.0443
   4.5471E-02   4.6577E-02   1.2138E-04  0.0431
   4.6577E-02   4.7711E-02   1.1091E-04  0.0446
   4.7711E-02   4.8871E-02   1.1967E-04  0.0424
   4.8871E-02   5.0061E-02   1.1346E-04  0.0430
   5.0061E-02   5.1279E-02   1.0944E-04  0.0433
   5.1279E-02   5.2526E-02   1.0579E-04  0.0435
   5.2526E-02   5.3804E-02   1.0407E-04  0.0433
   5.3804E-02   5.5113E-02   1.0255E-04  0.0431
   5.5113E-02   5.6454E-02   1.0434E-04  0.0423
   5.6454E-02   5.7828E-02   1.0292E-04  0.0420
   5.7828E-02   5.9235E-02   9.9947E-05  0.0422
   5.9235E-02   6.0676E-02   9.2567E-05  0.0433
   6.0676E-02   6.2152E-02   9.7312E-05  0.0417
   6.2152E-02   6.3665E-02   1.0304E-04  0.0400
   6.3665E-02   6.5214E-02   9.3279E-05  0.0416
   6.5214E-02   6.6800E-02   9.3591E-05  0.0410
   6.6800E-02   6.8426E-02   8.5157E-05  0.0425
   6.8426E-02   7.0090E-02   9.3900E-05  0.0400
   7.0090E-02   7.1796E-02   1.0267E-04  0.0378
   7.1796E-02   7.3543E-02   8.2434E-05  0.0416
   7.3543E-02   7.5332E-02   9.0478E-05  0.0393
   7.5332E-02   7.7165E-02   9.4517E-05  0.0380
   7.7165E-02   7.9042E-02   8.1558E-05  0.0404
   7.9042E-02   8.0965E-02   7.8620E-05  0.0406
   8.0965E-02   8.2935E-02   8.2778E-05  0.0391
   8.2935E-02   8.4953E-02   7.9311E-05  0.0395
   8.4953E-02   8.7020E-02   8.1662E-05  0.0385
   8.7020E-02   8.9138E-02   7.8675E-05  0.0387
   8.9138E-02   9.1306E-02   7.0657E-05  0.0403
   9.1306E-02   9.3528E-02   7.8573E-05  0.0378
   9.3528E-02   9.5804E-02   7.0538E-05  0.0394
   9.5804E-02   9.8134E-02   7.4554E-05  0.0379
   9.8134E-02   1.0052E-01   7.2208E-05  0.0381
   1.0052E-01   1.0297E-01   6.8246E-05  0.0387
   1.0297E-01   1.0547E-01   6.6555E-05  0.0387
   1.0547E-01   1.0804E-01   6.4816E-05  0.0387
   1.0804E-01   1.1067E-01   6.3799E-05  0.0386
   1.1067E-01   1.1336E-01   6.6642E-05  0.0373
   1.1336E-01   1.1612E-01   6.0266E-05  0.0387
   1.1612E-01   1.1894E-01   6.3622E-05  0.0373
   1.1894E-01   1.2184E-01   5.9588E-05  0.0380
   1.2184E-01   1.2480E-01   6.0031E-05  0.0374
   1.2480E-01   1.2784E-01   5.4268E-05  0.0389
   1.2784E-01   1.3095E-01   5.0249E-05  0.0399
   1.3095E-01   1.3414E-01   5.3143E-05  0.0384
   1.3414E-01   1.3740E-01   4.9740E-05  0.0392
   1.3740E-01   1.4074E-01   4.8694E-05  0.0392
   1.4074E-01   1.4417E-01   4.7669E-05  0.0391
   1.4417E-01   1.4767E-01   4.7170E-05  0.0388
   1.4767E-01   1.5127E-01   4.3729E-05  0.0399
   1.5127E-01   1.5495E-01   4.6087E-05  0.0383
   1.5495E-01   1.5872E-01   4.2406E-05  0.0395
   1.5872E-01   1.6258E-01   4.0212E-05  0.0401
   1.6258E-01   1.6654E-01   4.0423E-05  0.0395
   1.6654E-01   1.7059E-01   3.9892E-05  0.0393
   1.7059E-01   1.7474E-01   3.8788E-05  0.0394
   1.7474E-01   1.7899E-01   3.9976E-05  0.0383
   1.7899E-01   1.8334E-01   3.6048E-05  0.0399
   1.8334E-01   1.8781E-01   3.4765E-05  0.0401
   1.8781E-01   1.9237E-01   3.4946E-05  0.0395
   1.9237E-01   1.9706E-01   3.4706E-05  0.0392
   1.9706E-01   2.0185E-01   3.4617E-05  0.0388
   2.0185E-01   2.0676E-01   3.6294E-05  0.0374
   2.0676E-01   2.1179E-01   3.6980E-05  0.0367
   2.1179E-01   2.1694E-01   3.7000E-05  0.0362
   2.1694E-01   2.2222E-01   3.8519E-05  0.0350
   2.2222E-01   2.2763E-01   3.9624E-05  0.0341
   2.2763E-01   2.3317E-01   3.6980E-05  0.0349
   2.3317E-01   2.3884E-01   4.1240E-05  0.0326
   2.3884E-01   2.4465E-01   4.0209E-05  0.0327
   2.4465E-01   2.5061E-01   4.5910E-05  0.0302
   2.5061E-01   2.5670E-01   4.2934E-05  0.0309
   2.5670E-01   2.6295E-01   4.5342E-05  0.0297
   2.6295E-01   2.6935E-01   4.4987E-05  0.0294
   2.6935E-01   2.7590E-01   4.5228E-05  0.0290
   2.7590E-01   2.8261E-01   4.6609E-05  0.0282
   2.8261E-01   2.8949E-01   5.0363E-05  0.0269
   2.8949E-01   2.9653E-01   4.8197E-05  0.0271
   2.9653E-01   3.0375E-01   5.1042E-05  0.0260
   3.0375E-01   3.1114E-01   5.1549E-05  0.0256
   3.1114E-01   3.1871E-01   4.9654E-05  0.0258
   3.1871E-01   3.2646E-01   5.4158E-05  0.0244
   3.2646E-01   3.3441E-01   5.3717E-05  0.0242
   3.3441E-01   3.4254E-01   5.3748E-05  0.0239
   3.4254E-01   3.5088E-01   5.5812E-05  0.0231
   3.5088E-01   3.5941E-01   5.7458E-05  0.0226
   3.5941E-01   3.6816E-01   5.6395E-05  0.0225
   3.6816E-01   3.7712E-01   5.9705E-05  0.0216
   3.7712E-01   3.8629E-01   6.0352E-05  0.0212
   3.8629E-01   3.9569E-01   6.0675E-05  0.0209
   3.9569E-01   4.0532E-01   6.0131E-05  0.0208
   4.0532E-01   4.1518E-01   6.3386E-05  0.0200
   4.1518E-01   4.2528E-01   6.2162E-05  0.0199
   4.2528E-01   4.3563E-01   6.3904E-05  0.0194
   4.3563E-01   4.4623E-01   6.4681E-05  0.0191
   4.4623E-01   4.5708E-01   6.5143E-05  0.0188
   4.5708E-01   4.6821E-01   6.7499E-05  0.0182
   4.6821E-01   4.7960E-01   6.8103E-05  0.0179
   4.7960E-01   4.9127E-01   6.6633E-05  0.0179
   4.9127E-01   5.0322E-01   6.8362E-05  0.0175
   5.0322E-01   5.1546E-01   6.9535E-05  0.0171
   5.1546E-01   5.2800E-01   6.8103E-05  0.0171
   5.2800E-01   5.4085E-01   7.0832E-05  0.0166
   5.4085E-01   5.5401E-01   7.1429E-05  0.0163
   5.5401E-01   5.6749E-01   7.1234E-05  0.0161
   5.6749E-01   5.8130E-01   7.3339E-05  0.0157
   5.8130E-01   5.9544E-01   7.3244E-05  0.0155
   5.9544E-01   6.0993E-01   7.3324E-05  0.0153
   6.0993E-01   6.2477E-01   7.4685E-05  0.0150
   6.2477E-01   6.3997E-01   7.6595E-05  0.0146
   6.3997E-01   6.5554E-01   7.5706E-05  0.0145
   6.5554E-01   6.7149E-01   7.6738E-05  0.0143
   6.7149E-01   6.8783E-01   7.5042E-05  0.0143
   6.8783E-01   7.0456E-01   7.8923E-05  0.0137
   7.0456E-01   7.2171E-01   7.9442E-05  0.0135
   7.2171E-01   7.3927E-01   7.9223E-05  0.0134
   7.3927E-01   7.5725E-01   7.9699E-05  0.0132
   7.5725E-01   7.7568E-01   7.9271E-05  0.0131
   7.7568E-01   7.9455E-01   7.9084E-05  0.0129
   7.9455E-01   8.1388E-01   8.1630E-05  0.0126
   8.1388E-01   8.3368E-01   7.9687E-05  0.0126
   8.3368E-01   8.5397E-01   7.9853E-05  0.0124
   8.5397E-01   8.7475E-01   8.0700E-05  0.0122
   8.7475E-01   8.9603E-01   8.0059E-05  0.0121
   8.9603E-01   9.1783E-01   8.0240E-05  0.0119
   9.1783E-01   9.4016E-01   7.9844E-05  0.0118
   9.4016E-01   9.6304E-01   7.8941E-05  0.0118
   9.6304E-01   9.8647E-01   7.6803E-05  0.0118
   9.8647E-01   1.0105E+00   7.4457E-05  0.0118
   1.0105E+00   1.0351E+00   7.6095E-05  0.0115
   1.0351E+00   1.0602E+00   7.6271E-05  0.0114
   1.0602E+00   1.0860E+00   7.6612E-05  0.0112
   1.0860E+00   1.1125E+00   7.7344E-05  0.0110
   1.1125E+00   1.1395E+00   7.8115E-05  0.0109
   1.1395E+00   1.1673E+00   7.9754E-05  0.0106
   1.1673E+00   1.1957E+00   8.1294E-05  0.0104
   1.1957E+00   1.2247E+00   8.2119E-05  0.0102
   1.2247E+00   1.2545E+00   8.2350E-05  0.0101
   1.2545E+00   1.2851E+00   8.3701E-05  0.0099
   1.2851E+00   1.3163E+00   8.4745E-05  0.0097
   1.3163E+00   1.3484E+00   8.5348E-05  0.0096
   1.3484E+00   1.3812E+00   8.4688E-05  0.0095
   1.3812E+00   1.4148E+00   8.7165E-05  0.0092
   1.4148E+00   1.4492E+00   8.7478E-05  0.0091
   1.4492E+00   1.4845E+00   8.7517E-05  0.0090
   1.4845E+00   1.5206E+00   8.9269E-05  0.0088
   1.5206E+00   1.5576E+00   8.6718E-05  0.0088
   1.5576E+00   1.5955E+00   8.8620E-05  0.0086
   1.5955E+00   1.6343E+00   8.9340E-05  0.0085
   1.6343E+00   1.6741E+00   8.9066E-05  0.0084
   1.6741E+00   1.7148E+00   9.0675E-05  0.0082
   1.7148E+00   1.7565E+00   9.0691E-05  0.0081
   1.7565E+00   1.7992E+00   9.0329E-05  0.0080
   1.7992E+00   1.8430E+00   8.9768E-05  0.0080
   1.8430E+00   1.8879E+00   9.0325E-05  0.0078
   1.8879E+00   1.9338E+00   9.0662E-05  0.0077
   1.9338E+00   1.9808E+00   9.0724E-05  0.0076
   1.9808E+00   2.0290E+00   9.1161E-05  0.0075
   2.0290E+00   2.0784E+00   9.1119E-05  0.0074
   2.0784E+00   2.1290E+00   9.1643E-05  0.0073
   2.1290E+00   2.1808E+00   9.1940E-05  0.0072
   2.1808E+00   2.2338E+00   9.1958E-05  0.0072
   2.2338E+00   2.2882E+00   9.0254E-05  0.0071
   2.2882E+00   2.3439E+00   9.0401E-05  0.0070
   2.3439E+00   2.4009E+00   9.1237E-05  0.0069
   2.4009E+00   2.4593E+00   9.0156E-05  0.0069
   2.4593E+00   2.5191E+00   8.9665E-05  0.0068
   2.5191E+00   2.5804E+00   9.0906E-05  0.0067
   2.5804E+00   2.6432E+00   9.0035E-05  0.0066
   2.6432E+00   2.7075E+00   9.0261E-05  0.0066
   2.7075E+00   2.7734E+00   9.0303E-05  0.0065
   2.7734E+00   2.8409E+00   8.9175E-05  0.0064
   2.8409E+00   2.9100E+00   8.9381E-05  0.0064
   2.9100E+00   2.9808E+00   8.8416E-05  0.0063
   2.9808E+00   3.0533E+00   8.7947E-05  0.0063
   3.0533E+00   3.1276E+00   8.7740E-05  0.0062
   3.1276E+00   3.2037E+00   8.7153E-05  0.0061
   3.2037E+00   3.2817E+00   8.5748E-05  0.0061
   3.2817E+00   3.3615E+00   8.5096E-05  0.0061
   3.3615E+00   3.4433E+00   8.5220E-05  0.0060
   3.4433E+00   3.5271E+00   8.4546E-05  0.0059
   3.5271E+00   3.6129E+00   8.3577E-05  0.0059
   3.6129E+00   3.7008E+00   8.2197E-05  0.0059
   3.7008E+00   3.7908E+00   8.1812E-05  0.0058
   3.7908E+00   3.8831E+00   8.0865E-05  0.0058
   3.8831E+00   3.9776E+00   8.0241E-05  0.0057
   3.9776E+00   4.0743E+00   7.9160E-05  0.0057
   4.0743E+00   4.1735E+00   7.8469E-05  0.0057
   4.1735E+00   4.2750E+00   7.8507E-05  0.0056
   4.2750E+00   4.3790E+00   7.6873E-05  0.0056
   4.3790E+00   4.4856E+00   7.6472E-05  0.0055
   4.4856E+00   4.5947E+00   7.7079E-05  0.0054
   4.5947E+00   4.7065E+00   7.4947E-05  0.0055
   4.7065E+00   4.8210E+00   7.4278E-05  0.0054
   4.8210E+00   4.9383E+00   7.3446E-05  0.0054
   4.9383E+00   5.0585E+00   7.2217E-05  0.0054
   5.0585E+00   5.1815E+00   7.0764E-05  0.0054
   5.1815E+00   5.3076E+00   6.9550E-05  0.0053
   5.3076E+00   5.4368E+00   6.7720E-05  0.0053
   5.4368E+00   5.5690E+00   6.6602E-05  0.0053
   5.5690E+00   5.7045E+00   6.4613E-05  0.0053
   5.7045E+00   5.8433E+00   6.4110E-05  0.0053
   5.8433E+00   5.9855E+00   6.1475E-05  0.0053
   5.9855E+00   6.1311E+00   6.0463E-05  0.0053
   6.1311E+00   6.2803E+00   5.9053E-05  0.0053
   6.2803E+00   6.4331E+00   5.7265E-05  0.0053
   6.4331E+00   6.5896E+00   5.4677E-05  0.0054
   6.5896E+00   6.7500E+00   5.3853E-05  0.0054
   6.7500E+00   6.9142E+00   5.1760E-05  0.0054
   6.9142E+00   7.0824E+00   4.9435E-05  0.0055
   7.0824E+00   7.2548E+00   4.7526E-05  0.0055
   7.2548E+00   7.4313E+00   4.5221E-05  0.0056
   7.4313E+00   7.6121E+00   4.3130E-05  0.0057
   7.6121E+00   7.7973E+00   4.1242E-05  0.0057
   7.7973E+00   7.9870E+00   3.9894E-05  0.0057
   7.9870E+00   8.1813E+00   3.7845E-05  0.0058
   8.1813E+00   8.3804E+00   3.6481E-05  0.0059
   8.3804E+00   8.5843E+00   3.4601E-05  0.0060
   8.5843E+00   8.7931E+00   3.3197E-05  0.0060
   8.7931E+00   9.0071E+00   3.2203E-05  0.0060
   9.0071E+00   9.2262E+00   3.0607E-05  0.0061
   9.2262E+00   9.4507E+00   2.9517E-05  0.0061
   9.4507E+00   9.6807E+00   2.7960E-05  0.0062
   9.6807E+00   9.9162E+00   2.6421E-05  0.0063
   9.9162E+00   1.0157E+01   2.5139E-05  0.0064
   1.0157E+01   1.0405E+01   2.3809E-05  0.0065
   1.0405E+01   1.0658E+01   2.2775E-05  0.0066
   1.0658E+01   1.0917E+01   2.1438E-05  0.0067
   1.0917E+01   1.1183E+01   2.0382E-05  0.0068
   1.1183E+01   1.1455E+01   1.9226E-05  0.0069
   1.1455E+01   1.1733E+01   1.8109E-05  0.0070
   1.1733E+01   1.2019E+01   1.7219E-05  0.0071
   1.2019E+01   1.2311E+01   1.6106E-05  0.0073
   1.2311E+01   1.2611E+01   1.5298E-05  0.0074
   1.2611E+01   1.2918E+01   1.4502E-05  0.0075
   1.2918E+01   1.3232E+01   1.3595E-05  0.0076
   1.3232E+01   1.3554E+01   1.2929E-05  0.0077
   1.3554E+01   1.3884E+01   1.2223E-05  0.0079
   1.3884E+01   1.4222E+01   1.1442E-05  0.0080
   1.4222E+01   1.4568E+01   1.0800E-05  0.0082
   1.4568E+01   1.4922E+01   1.0363E-05  0.0082
   1.4922E+01   1.5285E+01   9.6914E-06  0.0084
   1.5285E+01   1.5657E+01   9.0764E-06  0.0086
   1.5657E+01   1.6038E+01   8.5827E-06  0.0087
   1.6038E+01   1.6428E+01   8.0464E-06  0.0089
   1.6428E+01   1.6828E+01   7.6646E-06  0.0090
   1.6828E+01   1.7237E+01   7.2260E-06  0.0092
   1.7237E+01   1.7657E+01   6.7759E-06  0.0094
   1.7657E+01   1.8086E+01   6.2705E-06  0.0096
   1.8086E+01   1.8526E+01   5.7720E-06  0.0099
   1.8526E+01   1.8977E+01   5.0827E-06  0.0104
   1.8977E+01   1.9439E+01   4.5432E-06  0.0109
   1.9439E+01   1.9912E+01   3.9866E-06  0.0115
   1.9912E+01   2.0396E+01   3.5374E-06  0.0121
   2.0396E+01   2.0893E+01   3.0478E-06  0.0129
   2.0893E+01   2.1401E+01   2.7389E-06  0.0134
   2.1401E+01   2.1922E+01   2.3531E-06  0.0143
   2.1922E+01   2.2455E+01   1.9199E-06  0.0156
   2.2455E+01   2.3001E+01   1.5105E-06  0.0174
   2.3001E+01   2.3561E+01   1.1128E-06  0.0200
   2.3561E+01   2.4134E+01   7.8368E-07  0.0236
   2.4134E+01   2.4721E+01   7.6251E-07  0.0236
   2.4721E+01   2.5323E+01   6.6002E-07  0.0251
   2.5323E+01   2.5939E+01   5.3844E-07  0.0275
   2.5939E+01   2.6570E+01   4.1672E-07  0.0308
   2.6570E+01   2.7217E+01   3.3799E-07  0.0338
   2.7217E+01   2.7879E+01   3.0504E-07  0.0352
   2.7879E+01   2.8557E+01   9.2509E-08  0.0631
   2.8557E+01   2.9252E+01   4.6775E-09  0.2774
   2.9252E+01   2.9964E+01   0.0000E+00  0.0000
   2.9964E+01   3.0693E+01   0.0000E+00  0.0000
   3.0693E+01   3.1440E+01   0.0000E+00  0.0000
   3.1440E+01   3.2205E+01   0.0000E+00  0.0000
   3.2205E+01   3.2988E+01   0.0000E+00  0.0000
   3.2988E+01   3.3791E+01   0.0000E+00  0.0000
   3.3791E+01   3.4613E+01   0.0000E+00  0.0000
   3.4613E+01   3.5455E+01   0.0000E+00  0.0000
   3.5455E+01   3.6318E+01   0.0000E+00  0.0000
   3.6318E+01   3.7201E+01   0.0000E+00  0.0000
   3.7201E+01   3.8106E+01   0.0000E+00  0.0000
   3.8106E+01   3.9034E+01   0.0000E+00  0.0000
   3.9034E+01   3.9983E+01   0.0000E+00  0.0000
   3.9983E+01   4.0956E+01   0.0000E+00  0.0000
   4.0956E+01   4.1953E+01   0.0000E+00  0.0000
   4.1953E+01   4.2973E+01   0.0000E+00  0.0000
   4.2973E+01   4.4019E+01   0.0000E+00  0.0000
   4.4019E+01   4.5090E+01   0.0000E+00  0.0000
   4.5090E+01   4.6187E+01   0.0000E+00  0.0000
   4.6187E+01   4.7311E+01   0.0000E+00  0.0000
   4.7311E+01   4.8462E+01   0.0000E+00  0.0000
   4.8462E+01   4.9641E+01   0.0000E+00  0.0000
   4.9641E+01   5.0849E+01   0.0000E+00  0.0000
   5.0849E+01   5.2086E+01   0.0000E+00  0.0000
   5.2086E+01   5.3353E+01   0.0000E+00  0.0000
   5.3353E+01   5.4651E+01   0.0000E+00  0.0000
   5.4651E+01   5.5981E+01   0.0000E+00  0.0000
   5.5981E+01   5.7343E+01   0.0000E+00  0.0000
   5.7343E+01   5.8738E+01   0.0000E+00  0.0000
   5.8738E+01   6.0168E+01   0.0000E+00  0.0000
   6.0168E+01   6.1632E+01   0.0000E+00  0.0000
   6.1632E+01   6.3131E+01   0.0000E+00  0.0000
   6.3131E+01   6.4667E+01   0.0000E+00  0.0000
   6.4667E+01   6.6240E+01   0.0000E+00  0.0000
   6.6240E+01   6.7852E+01   0.0000E+00  0.0000
   6.7852E+01   6.9503E+01   0.0000E+00  0.0000
   6.9503E+01   7.1194E+01   0.0000E+00  0.0000
   7.1194E+01   7.2926E+01   0.0000E+00  0.0000
   7.2926E+01   7.4701E+01   0.0000E+00  0.0000
   7.4701E+01   7.6518E+01   0.0000E+00  0.0000
   7.6518E+01   7.8380E+01   0.0000E+00  0.0000
   7.8380E+01   8.0287E+01   0.0000E+00  0.0000
   8.0287E+01   8.2240E+01   0.0000E+00  0.0000
   8.2240E+01   8.4241E+01   0.0000E+00  0.0000
   8.4241E+01   8.6291E+01   0.0000E+00  0.0000
   8.6291E+01   8.8391E+01   0.0000E+00  0.0000
   8.8391E+01   9.0541E+01   0.0000E+00  0.0000
   9.0541E+01   9.2744E+01   0.0000E+00  0.0000
   9.2744E+01   9.5001E+01   0.0000E+00  0.0000
   9.5001E+01   9.7312E+01   0.0000E+00  0.0000
   9.7312E+01   9.9680E+01   0.0000E+00  0.0000
   9.9680E+01   1.0211E+02   0.0000E+00  0.0000
   1.0211E+02   1.0459E+02   0.0000E+00  0.0000
   1.0459E+02   1.0713E+02   0.0000E+00  0.0000
   1.0713E+02   1.0974E+02   0.0000E+00  0.0000
   1.0974E+02   1.1241E+02   0.0000E+00  0.0000
   1.1241E+02   1.1515E+02   0.0000E+00  0.0000
   1.1515E+02   1.1795E+02   0.0000E+00  0.0000
   1.1795E+02   1.2082E+02   0.0000E+00  0.0000
   1.2082E+02   1.2376E+02   0.0000E+00  0.0000
   1.2376E+02   1.2677E+02   0.0000E+00  0.0000
   1.2677E+02   1.2985E+02   0.0000E+00  0.0000
   1.2985E+02   1.3301E+02   0.0000E+00  0.0000
   1.3301E+02   1.3625E+02   0.0000E+00  0.0000
   1.3625E+02   1.3956E+02   0.0000E+00  0.0000
   1.3956E+02   1.4296E+02   0.0000E+00  0.0000
   1.4296E+02   1.4644E+02   0.0000E+00  0.0000
   1.4644E+02   1.5000E+02   0.0000E+00  0.0000

#   sum over                 5.0598E-06
'no. =    1   reg = 107 - 207'
msuc: {\huge [t-cross] in region mesh}
msdr: {\it plotted by \ANGEL \version}
msdl: {\it calculated by \PHITS  3.26}
wt: s(0.7)
\vspace{-3}
  region surface crossing
  area  &=&   1.0000E+00 [cm^2]
e:
 
# Information for Restart Calculation
# This calculation was newly started
# istdev =  2 # 1:Batch variance, 2:History variance
# resc2  = 4.00000000000000000E+09 # Total source weight or Total source weight / maxcas
# resc3  = 4.00000000000000000E+09 # Total history number or Total batch number
# maxcas =   500000000 # History / Batch, only used for istdev=1
# bitrseed = 1000111101111101011101111011110101001010011101000111000001010111 # bit data of rseed
