[ T-Cross ]
    title = [t-cross] in region mesh
     mesh =  reg            # mesh type is region-wise
      reg =    1            # number of crossing regions
      non     r-from    r-to       area
      1       112       212        1.000000    
   e-type =    3            # e-mesh is log given by emin, emax and ne
     emin =  1.0000000E-02  # minimum value of e-mesh points
     emax =   150.0000      # maximum value of e-mesh points
#    edel =  2.4039514E-02  # mesh width of e-mesh points
       ne =    400          # number of e-mesh points
#    data = ( e(i), i = 1, ne + 1 )
#           1.00000E-02  1.02433E-02  1.04925E-02  1.07478E-02  1.10093E-02
#           1.12772E-02  1.15516E-02  1.18326E-02  1.21205E-02  1.24154E-02
#           1.27175E-02  1.30269E-02  1.33439E-02  1.36686E-02  1.40011E-02
#           1.43418E-02  1.46907E-02  1.50482E-02  1.54143E-02  1.57894E-02
#           1.61735E-02  1.65670E-02  1.69701E-02  1.73830E-02  1.78060E-02
#           1.82392E-02  1.86830E-02  1.91375E-02  1.96032E-02  2.00801E-02
#           2.05687E-02  2.10692E-02  2.15818E-02  2.21069E-02  2.26448E-02
#           2.31957E-02  2.37601E-02  2.43382E-02  2.49304E-02  2.55369E-02
#           2.61583E-02  2.67947E-02  2.74467E-02  2.81145E-02  2.87985E-02
#           2.94992E-02  3.02169E-02  3.09521E-02  3.17052E-02  3.24766E-02
#           3.32668E-02  3.40762E-02  3.49053E-02  3.57546E-02  3.66246E-02
#           3.75157E-02  3.84284E-02  3.93634E-02  4.03212E-02  4.13022E-02
#           4.23071E-02  4.33365E-02  4.43909E-02  4.54710E-02  4.65773E-02
#           4.77106E-02  4.88714E-02  5.00605E-02  5.12785E-02  5.25262E-02
#           5.38042E-02  5.51133E-02  5.64542E-02  5.78278E-02  5.92348E-02
#           6.06760E-02  6.21523E-02  6.36645E-02  6.52135E-02  6.68002E-02
#           6.84255E-02  7.00904E-02  7.17957E-02  7.35426E-02  7.53319E-02
#           7.71648E-02  7.90423E-02  8.09655E-02  8.29354E-02  8.49533E-02
#           8.70203E-02  8.91376E-02  9.13064E-02  9.35279E-02  9.58035E-02
#           9.81345E-02  1.00522E-01  1.02968E-01  1.05473E-01  1.08040E-01
#           1.10668E-01  1.13361E-01  1.16119E-01  1.18944E-01  1.21838E-01
#           1.24803E-01  1.27839E-01  1.30950E-01  1.34136E-01  1.37399E-01
#           1.40742E-01  1.44167E-01  1.47675E-01  1.51268E-01  1.54948E-01
#           1.58718E-01  1.62580E-01  1.66535E-01  1.70587E-01  1.74738E-01
#           1.78989E-01  1.83344E-01  1.87805E-01  1.92375E-01  1.97055E-01
#           2.01850E-01  2.06761E-01  2.11792E-01  2.16945E-01  2.22223E-01
#           2.27630E-01  2.33169E-01  2.38842E-01  2.44653E-01  2.50605E-01
#           2.56703E-01  2.62949E-01  2.69346E-01  2.75900E-01  2.82613E-01
#           2.89489E-01  2.96532E-01  3.03747E-01  3.11138E-01  3.18708E-01
#           3.26462E-01  3.34405E-01  3.42542E-01  3.50876E-01  3.59413E-01
#           3.68158E-01  3.77116E-01  3.86291E-01  3.95690E-01  4.05317E-01
#           4.15179E-01  4.25281E-01  4.35628E-01  4.46227E-01  4.57084E-01
#           4.68205E-01  4.79597E-01  4.91266E-01  5.03219E-01  5.15463E-01
#           5.28005E-01  5.40851E-01  5.54011E-01  5.67490E-01  5.81298E-01
#           5.95441E-01  6.09929E-01  6.24769E-01  6.39970E-01  6.55541E-01
#           6.71491E-01  6.87828E-01  7.04564E-01  7.21706E-01  7.39266E-01
#           7.57253E-01  7.75678E-01  7.94551E-01  8.13883E-01  8.33685E-01
#           8.53969E-01  8.74747E-01  8.96030E-01  9.17831E-01  9.40163E-01
#           9.63038E-01  9.86469E-01  1.01047E+00  1.03506E+00  1.06024E+00
#           1.08604E+00  1.11246E+00  1.13953E+00  1.16725E+00  1.19565E+00
#           1.22474E+00  1.25454E+00  1.28507E+00  1.31633E+00  1.34836E+00
#           1.38117E+00  1.41477E+00  1.44920E+00  1.48446E+00  1.52057E+00
#           1.55757E+00  1.59547E+00  1.63429E+00  1.67405E+00  1.71478E+00
#           1.75650E+00  1.79924E+00  1.84302E+00  1.88786E+00  1.93379E+00
#           1.98084E+00  2.02904E+00  2.07841E+00  2.12898E+00  2.18078E+00
#           2.23384E+00  2.28819E+00  2.34386E+00  2.40089E+00  2.45930E+00
#           2.51914E+00  2.58043E+00  2.64322E+00  2.70753E+00  2.77341E+00
#           2.84088E+00  2.91001E+00  2.98081E+00  3.05333E+00  3.12762E+00
#           3.20372E+00  3.28167E+00  3.36152E+00  3.44330E+00  3.52708E+00
#           3.61290E+00  3.70080E+00  3.79085E+00  3.88308E+00  3.97756E+00
#           4.07434E+00  4.17347E+00  4.27501E+00  4.37903E+00  4.48557E+00
#           4.59471E+00  4.70650E+00  4.82102E+00  4.93832E+00  5.05847E+00
#           5.18155E+00  5.30762E+00  5.43676E+00  5.56904E+00  5.70453E+00
#           5.84333E+00  5.98550E+00  6.13114E+00  6.28031E+00  6.43312E+00
#           6.58964E+00  6.74997E+00  6.91420E+00  7.08243E+00  7.25475E+00
#           7.43126E+00  7.61207E+00  7.79728E+00  7.98700E+00  8.18133E+00
#           8.38038E+00  8.58428E+00  8.79315E+00  9.00709E+00  9.22624E+00
#           9.45072E+00  9.68067E+00  9.91620E+00  1.01575E+01  1.04046E+01
#           1.06578E+01  1.09171E+01  1.11827E+01  1.14548E+01  1.17335E+01
#           1.20190E+01  1.23114E+01  1.26109E+01  1.29178E+01  1.32321E+01
#           1.35540E+01  1.38838E+01  1.42216E+01  1.45676E+01  1.49221E+01
#           1.52851E+01  1.56570E+01  1.60380E+01  1.64282E+01  1.68279E+01
#           1.72374E+01  1.76568E+01  1.80864E+01  1.85264E+01  1.89772E+01
#           1.94389E+01  1.99119E+01  2.03963E+01  2.08926E+01  2.14009E+01
#           2.19216E+01  2.24550E+01  2.30014E+01  2.35610E+01  2.41343E+01
#           2.47215E+01  2.53230E+01  2.59391E+01  2.65702E+01  2.72167E+01
#           2.78789E+01  2.85572E+01  2.92520E+01  2.99637E+01  3.06928E+01
#           3.14396E+01  3.22045E+01  3.29881E+01  3.37907E+01  3.46128E+01
#           3.54550E+01  3.63177E+01  3.72013E+01  3.81064E+01  3.90336E+01
#           3.99833E+01  4.09561E+01  4.19526E+01  4.29734E+01  4.40189E+01
#           4.50900E+01  4.61870E+01  4.73108E+01  4.84619E+01  4.96410E+01
#           5.08488E+01  5.20860E+01  5.33533E+01  5.46514E+01  5.59812E+01
#           5.73432E+01  5.87384E+01  6.01676E+01  6.16315E+01  6.31311E+01
#           6.46671E+01  6.62405E+01  6.78522E+01  6.95031E+01  7.11941E+01
#           7.29263E+01  7.47007E+01  7.65182E+01  7.83800E+01  8.02870E+01
#           8.22405E+01  8.42414E+01  8.62911E+01  8.83906E+01  9.05412E+01
#           9.27442E+01  9.50007E+01  9.73122E+01  9.96799E+01  1.02105E+02
#           1.04589E+02  1.07134E+02  1.09741E+02  1.12411E+02  1.15146E+02
#           1.17948E+02  1.20817E+02  1.23757E+02  1.26768E+02  1.29852E+02
#           1.33012E+02  1.36248E+02  1.39563E+02  1.42959E+02  1.46437E+02
#           1.50000E+02
     unit =    2            # unit is [1/cm^2/(MeV/n)/source]
     axis =  eng            # axis of output
     file = detector-13.out  # file name of output for the above axis
   output = f-curr          # surface crossing forward current spectrum
     part =  neutron  
# kf/name :  2112     
#    used :        main (  %)        temp (  %)       total (  %)
#  memory :         414 (  0)           0 (  0)         414 (  0)

#------------------------------------------------------------------------------
#newpage:
#   no. =    1   reg = 112 - 212

x: Energy [MeV/n]
y:  F-Curr [1/cm^2/(MeV/n)/source]         
p: xlog ylog afac(0.8) form(0.9)
h: n            x            y(neutron ),hh0l   n 
#  e-lower      e-upper      neutron     r.err 
   1.0000E-02   1.0243E-02   1.1092E-03  0.0269
   1.0243E-02   1.0493E-02   1.0691E-03  0.0271
   1.0493E-02   1.0748E-02   1.1074E-03  0.0262
   1.0748E-02   1.1009E-02   1.0126E-03  0.0271
   1.1009E-02   1.1277E-02   1.0217E-03  0.0267
   1.1277E-02   1.1552E-02   9.6877E-04  0.0271
   1.1552E-02   1.1833E-02   9.4694E-04  0.0270
   1.1833E-02   1.2121E-02   9.1341E-04  0.0273
   1.2121E-02   1.2415E-02   9.3872E-04  0.0265
   1.2415E-02   1.2718E-02   9.3757E-04  0.0263
   1.2718E-02   1.3027E-02   9.2056E-04  0.0262
   1.3027E-02   1.3344E-02   8.8653E-04  0.0263
   1.3344E-02   1.3669E-02   8.3614E-04  0.0268
   1.3669E-02   1.4001E-02   8.3111E-04  0.0265
   1.4001E-02   1.4342E-02   7.9381E-04  0.0269
   1.4342E-02   1.4691E-02   8.0372E-04  0.0264
   1.4691E-02   1.5048E-02   7.7273E-04  0.0266
   1.5048E-02   1.5414E-02   7.5758E-04  0.0265
   1.5414E-02   1.5789E-02   7.4977E-04  0.0263
   1.5789E-02   1.6174E-02   7.3043E-04  0.0264
   1.6174E-02   1.6567E-02   6.9767E-04  0.0266
   1.6567E-02   1.6970E-02   7.0360E-04  0.0262
   1.6970E-02   1.7383E-02   6.6936E-04  0.0266
   1.7383E-02   1.7806E-02   6.5267E-04  0.0266
   1.7806E-02   1.8239E-02   6.3815E-04  0.0266
   1.8239E-02   1.8683E-02   6.5201E-04  0.0259
   1.8683E-02   1.9138E-02   6.0461E-04  0.0266
   1.9138E-02   1.9603E-02   6.3256E-04  0.0257
   1.9603E-02   2.0080E-02   5.7989E-04  0.0266
   2.0080E-02   2.0569E-02   5.7321E-04  0.0264
   2.0569E-02   2.1069E-02   5.7978E-04  0.0260
   2.1069E-02   2.1582E-02   5.7528E-04  0.0257
   2.1582E-02   2.2107E-02   5.6515E-04  0.0257
   2.2107E-02   2.2645E-02   5.5738E-04  0.0255
   2.2645E-02   2.3196E-02   5.3425E-04  0.0257
   2.3196E-02   2.3760E-02   5.1451E-04  0.0259
   2.3760E-02   2.4338E-02   4.9775E-04  0.0261
   2.4338E-02   2.4930E-02   4.8837E-04  0.0260
   2.4930E-02   2.5537E-02   4.9397E-04  0.0255
   2.5537E-02   2.6158E-02   4.8198E-04  0.0255
   2.6158E-02   2.6795E-02   4.6368E-04  0.0257
   2.6795E-02   2.7447E-02   4.6283E-04  0.0254
   2.7447E-02   2.8114E-02   4.4610E-04  0.0256
   2.8114E-02   2.8799E-02   4.5413E-04  0.0250
   2.8799E-02   2.9499E-02   4.3191E-04  0.0254
   2.9499E-02   3.0217E-02   4.3844E-04  0.0249
   3.0217E-02   3.0952E-02   4.2471E-04  0.0250
   3.0952E-02   3.1705E-02   4.0154E-04  0.0254
   3.1705E-02   3.2477E-02   3.9209E-04  0.0254
   3.2477E-02   3.3267E-02   3.9051E-04  0.0252
   3.3267E-02   3.4076E-02   3.9499E-04  0.0247
   3.4076E-02   3.4905E-02   3.6462E-04  0.0254
   3.4905E-02   3.5755E-02   3.7526E-04  0.0247
   3.5755E-02   3.6625E-02   3.5523E-04  0.0251
   3.6625E-02   3.7516E-02   3.4151E-04  0.0253
   3.7516E-02   3.8428E-02   3.3373E-04  0.0253
   3.8428E-02   3.9363E-02   3.4251E-04  0.0247
   3.9363E-02   4.0321E-02   3.2940E-04  0.0249
   4.0321E-02   4.1302E-02   3.1925E-04  0.0249
   4.1302E-02   4.2307E-02   3.1210E-04  0.0250
   4.2307E-02   4.3337E-02   3.1327E-04  0.0246
   4.3337E-02   4.4391E-02   2.9226E-04  0.0251
   4.4391E-02   4.5471E-02   2.9497E-04  0.0247
   4.5471E-02   4.6577E-02   2.9103E-04  0.0246
   4.6577E-02   4.7711E-02   2.7915E-04  0.0248
   4.7711E-02   4.8871E-02   2.6915E-04  0.0250
   4.8871E-02   5.0061E-02   2.6466E-04  0.0249
   5.0061E-02   5.1279E-02   2.7054E-04  0.0243
   5.1279E-02   5.2526E-02   2.6866E-04  0.0241
   5.2526E-02   5.3804E-02   2.5820E-04  0.0243
   5.3804E-02   5.5113E-02   2.5116E-04  0.0244
   5.5113E-02   5.6454E-02   2.5002E-04  0.0241
   5.6454E-02   5.7828E-02   2.4778E-04  0.0239
   5.7828E-02   5.9235E-02   2.4490E-04  0.0238
   5.9235E-02   6.0676E-02   2.3641E-04  0.0239
   6.0676E-02   6.2152E-02   2.3869E-04  0.0236
   6.2152E-02   6.3665E-02   2.2466E-04  0.0239
   6.3665E-02   6.5214E-02   2.1055E-04  0.0244
   6.5214E-02   6.6800E-02   2.1670E-04  0.0238
   6.6800E-02   6.8426E-02   2.1058E-04  0.0239
   6.8426E-02   7.0090E-02   2.0238E-04  0.0241
   7.0090E-02   7.1796E-02   2.0250E-04  0.0238
   7.1796E-02   7.3543E-02   2.0084E-04  0.0236
   7.3543E-02   7.5332E-02   1.9563E-04  0.0236
   7.5332E-02   7.7165E-02   1.8468E-04  0.0240
   7.7165E-02   7.9042E-02   1.8581E-04  0.0236
   7.9042E-02   8.0965E-02   1.8088E-04  0.0237
   8.0965E-02   8.2935E-02   1.6880E-04  0.0242
   8.2935E-02   8.4953E-02   1.7113E-04  0.0238
   8.4953E-02   8.7020E-02   1.7472E-04  0.0232
   8.7020E-02   8.9138E-02   1.6765E-04  0.0234
   8.9138E-02   9.1306E-02   1.6082E-04  0.0237
   9.1306E-02   9.3528E-02   1.6214E-04  0.0233
   9.3528E-02   9.5804E-02   1.5808E-04  0.0233
   9.5804E-02   9.8134E-02   1.5663E-04  0.0231
   9.8134E-02   1.0052E-01   1.5131E-04  0.0233
   1.0052E-01   1.0297E-01   1.4467E-04  0.0235
   1.0297E-01   1.0547E-01   1.4978E-04  0.0228
   1.0547E-01   1.0804E-01   1.4815E-04  0.0226
   1.0804E-01   1.1067E-01   1.3994E-04  0.0230
   1.1067E-01   1.1336E-01   1.3529E-04  0.0231
   1.1336E-01   1.1612E-01   1.3534E-04  0.0228
   1.1612E-01   1.1894E-01   1.3278E-04  0.0228
   1.1894E-01   1.2184E-01   1.3030E-04  0.0228
   1.2184E-01   1.2480E-01   1.2489E-04  0.0229
   1.2480E-01   1.2784E-01   1.2823E-04  0.0224
   1.2784E-01   1.3095E-01   1.2047E-04  0.0228
   1.3095E-01   1.3414E-01   1.1964E-04  0.0226
   1.3414E-01   1.3740E-01   1.1544E-04  0.0228
   1.3740E-01   1.4074E-01   1.1587E-04  0.0225
   1.4074E-01   1.4417E-01   1.1360E-04  0.0224
   1.4417E-01   1.4767E-01   1.1279E-04  0.0222
   1.4767E-01   1.5127E-01   1.0913E-04  0.0223
   1.5127E-01   1.5495E-01   1.0794E-04  0.0222
   1.5495E-01   1.5872E-01   1.0641E-04  0.0221
   1.5872E-01   1.6258E-01   1.0222E-04  0.0222
   1.6258E-01   1.6654E-01   9.9169E-05  0.0223
   1.6654E-01   1.7059E-01   9.7958E-05  0.0222
   1.7059E-01   1.7474E-01   1.0023E-04  0.0216
   1.7474E-01   1.7899E-01   9.8446E-05  0.0216
   1.7899E-01   1.8334E-01   9.7513E-05  0.0215
   1.8334E-01   1.8781E-01   1.0064E-04  0.0208
   1.8781E-01   1.9237E-01   9.3350E-05  0.0214
   1.9237E-01   1.9706E-01   9.0124E-05  0.0215
   1.9706E-01   2.0185E-01   9.3616E-05  0.0209
   2.0185E-01   2.0676E-01   9.6344E-05  0.0203
   2.0676E-01   2.1179E-01   1.0006E-04  0.0197
   2.1179E-01   2.1694E-01   1.0291E-04  0.0192
   2.1694E-01   2.2222E-01   1.1032E-04  0.0183
   2.2222E-01   2.2763E-01   1.1217E-04  0.0179
   2.2763E-01   2.3317E-01   1.1722E-04  0.0173
   2.3317E-01   2.3884E-01   1.2334E-04  0.0167
   2.3884E-01   2.4465E-01   1.2244E-04  0.0166
   2.4465E-01   2.5061E-01   1.3366E-04  0.0157
   2.5061E-01   2.5670E-01   1.3886E-04  0.0152
   2.5670E-01   2.6295E-01   1.3686E-04  0.0151
   2.6295E-01   2.6935E-01   1.4712E-04  0.0144
   2.6935E-01   2.7590E-01   1.5442E-04  0.0139
   2.7590E-01   2.8261E-01   1.6019E-04  0.0135
   2.8261E-01   2.8949E-01   1.6333E-04  0.0132
   2.8949E-01   2.9653E-01   1.7073E-04  0.0127
   2.9653E-01   3.0375E-01   1.7947E-04  0.0123
   3.0375E-01   3.1114E-01   1.8761E-04  0.0119
   3.1114E-01   3.1871E-01   1.9635E-04  0.0115
   3.1871E-01   3.2646E-01   2.0237E-04  0.0112
   3.2646E-01   3.3441E-01   2.1164E-04  0.0108
   3.3441E-01   3.4254E-01   2.2419E-04  0.0103
   3.4254E-01   3.5088E-01   2.2867E-04  0.0101
   3.5088E-01   3.5941E-01   2.3181E-04  0.0099
   3.5941E-01   3.6816E-01   2.4130E-04  0.0096
   3.6816E-01   3.7712E-01   2.5292E-04  0.0093
   3.7712E-01   3.8629E-01   2.6434E-04  0.0090
   3.8629E-01   3.9569E-01   2.7105E-04  0.0088
   3.9569E-01   4.0532E-01   2.8624E-04  0.0084
   4.0532E-01   4.1518E-01   2.9785E-04  0.0082
   4.1518E-01   4.2528E-01   3.0573E-04  0.0079
   4.2528E-01   4.3563E-01   3.1880E-04  0.0077
   4.3563E-01   4.4623E-01   3.3190E-04  0.0075
   4.4623E-01   4.5708E-01   3.4276E-04  0.0072
   4.5708E-01   4.6821E-01   3.5361E-04  0.0070
   4.6821E-01   4.7960E-01   3.7278E-04  0.0068
   4.7960E-01   4.9127E-01   3.8264E-04  0.0066
   4.9127E-01   5.0322E-01   3.9967E-04  0.0064
   5.0322E-01   5.1546E-01   4.0635E-04  0.0063
   5.1546E-01   5.2800E-01   4.2597E-04  0.0060
   5.2800E-01   5.4085E-01   4.4069E-04  0.0059
   5.4085E-01   5.5401E-01   4.5151E-04  0.0057
   5.5401E-01   5.6749E-01   4.7391E-04  0.0055
   5.6749E-01   5.8130E-01   4.9417E-04  0.0054
   5.8130E-01   5.9544E-01   5.0393E-04  0.0052
   5.9544E-01   6.0993E-01   5.2151E-04  0.0051
   6.0993E-01   6.2477E-01   5.2932E-04  0.0050
   6.2477E-01   6.3997E-01   5.5077E-04  0.0048
   6.3997E-01   6.5554E-01   5.7596E-04  0.0047
   6.5554E-01   6.7149E-01   5.8787E-04  0.0046
   6.7149E-01   6.8783E-01   6.0948E-04  0.0044
   6.8783E-01   7.0456E-01   6.2819E-04  0.0043
   7.0456E-01   7.2171E-01   6.4285E-04  0.0042
   7.2171E-01   7.3927E-01   6.6246E-04  0.0041
   7.3927E-01   7.5725E-01   6.8450E-04  0.0040
   7.5725E-01   7.7568E-01   6.9456E-04  0.0039
   7.7568E-01   7.9455E-01   7.2266E-04  0.0038
   7.9455E-01   8.1388E-01   7.3860E-04  0.0037
   8.1388E-01   8.3368E-01   7.6509E-04  0.0036
   8.3368E-01   8.5397E-01   7.8643E-04  0.0035
   8.5397E-01   8.7475E-01   8.0237E-04  0.0034
   8.7475E-01   8.9603E-01   8.2588E-04  0.0033
   8.9603E-01   9.1783E-01   8.5060E-04  0.0032
   9.1783E-01   9.4016E-01   8.6825E-04  0.0032
   9.4016E-01   9.6304E-01   8.8822E-04  0.0031
   9.6304E-01   9.8647E-01   9.0412E-04  0.0030
   9.8647E-01   1.0105E+00   9.2264E-04  0.0030
   1.0105E+00   1.0351E+00   9.2781E-04  0.0029
   1.0351E+00   1.0602E+00   9.3549E-04  0.0029
   1.0602E+00   1.0860E+00   9.4766E-04  0.0028
   1.0860E+00   1.1125E+00   9.5881E-04  0.0028
   1.1125E+00   1.1395E+00   9.7127E-04  0.0027
   1.1395E+00   1.1673E+00   9.9238E-04  0.0027
   1.1673E+00   1.1957E+00   1.0148E-03  0.0026
   1.1957E+00   1.2247E+00   1.0239E-03  0.0026
   1.2247E+00   1.2545E+00   1.0323E-03  0.0025
   1.2545E+00   1.2851E+00   1.0372E-03  0.0025
   1.2851E+00   1.3163E+00   1.0433E-03  0.0024
   1.3163E+00   1.3484E+00   1.0520E-03  0.0024
   1.3484E+00   1.3812E+00   1.0681E-03  0.0024
   1.3812E+00   1.4148E+00   1.0967E-03  0.0023
   1.4148E+00   1.4492E+00   1.1148E-03  0.0023
   1.4492E+00   1.4845E+00   1.1256E-03  0.0022
   1.4845E+00   1.5206E+00   1.1358E-03  0.0022
   1.5206E+00   1.5576E+00   1.1287E-03  0.0022
   1.5576E+00   1.5955E+00   1.1259E-03  0.0021
   1.5955E+00   1.6343E+00   1.1174E-03  0.0021
   1.6343E+00   1.6741E+00   1.1099E-03  0.0021
   1.6741E+00   1.7148E+00   1.1030E-03  0.0021
   1.7148E+00   1.7565E+00   1.1073E-03  0.0021
   1.7565E+00   1.7992E+00   1.1198E-03  0.0020
   1.7992E+00   1.8430E+00   1.1274E-03  0.0020
   1.8430E+00   1.8879E+00   1.1214E-03  0.0020
   1.8879E+00   1.9338E+00   1.1180E-03  0.0019
   1.9338E+00   1.9808E+00   1.1239E-03  0.0019
   1.9808E+00   2.0290E+00   1.1330E-03  0.0019
   2.0290E+00   2.0784E+00   1.1178E-03  0.0019
   2.0784E+00   2.1290E+00   1.1015E-03  0.0019
   2.1290E+00   2.1808E+00   1.0865E-03  0.0019
   2.1808E+00   2.2338E+00   1.0734E-03  0.0019
   2.2338E+00   2.2882E+00   1.0594E-03  0.0018
   2.2882E+00   2.3439E+00   1.0525E-03  0.0018
   2.3439E+00   2.4009E+00   1.0541E-03  0.0018
   2.4009E+00   2.4593E+00   1.0581E-03  0.0018
   2.4593E+00   2.5191E+00   1.0534E-03  0.0018
   2.5191E+00   2.5804E+00   1.0459E-03  0.0017
   2.5804E+00   2.6432E+00   1.0251E-03  0.0017
   2.6432E+00   2.7075E+00   1.0159E-03  0.0017
   2.7075E+00   2.7734E+00   1.0011E-03  0.0017
   2.7734E+00   2.8409E+00   9.8718E-04  0.0017
   2.8409E+00   2.9100E+00   9.7596E-04  0.0017
   2.9100E+00   2.9808E+00   9.6674E-04  0.0017
   2.9808E+00   3.0533E+00   9.6634E-04  0.0017
   3.0533E+00   3.1276E+00   9.4860E-04  0.0017
   3.1276E+00   3.2037E+00   9.2673E-04  0.0017
   3.2037E+00   3.2817E+00   9.1016E-04  0.0017
   3.2817E+00   3.3615E+00   8.9468E-04  0.0017
   3.3615E+00   3.4433E+00   8.8059E-04  0.0016
   3.4433E+00   3.5271E+00   8.7775E-04  0.0016
   3.5271E+00   3.6129E+00   8.6154E-04  0.0016
   3.6129E+00   3.7008E+00   8.4125E-04  0.0016
   3.7008E+00   3.7908E+00   8.2226E-04  0.0016
   3.7908E+00   3.8831E+00   8.0925E-04  0.0016
   3.8831E+00   3.9776E+00   8.0025E-04  0.0016
   3.9776E+00   4.0743E+00   7.9055E-04  0.0016
   4.0743E+00   4.1735E+00   7.7560E-04  0.0016
   4.1735E+00   4.2750E+00   7.5880E-04  0.0016
   4.2750E+00   4.3790E+00   7.4811E-04  0.0016
   4.3790E+00   4.4856E+00   7.3687E-04  0.0016
   4.4856E+00   4.5947E+00   7.3106E-04  0.0016
   4.5947E+00   4.7065E+00   7.1411E-04  0.0016
   4.7065E+00   4.8210E+00   7.0335E-04  0.0016
   4.8210E+00   4.9383E+00   6.9359E-04  0.0016
   4.9383E+00   5.0585E+00   6.9019E-04  0.0015
   5.0585E+00   5.1815E+00   6.9540E-04  0.0015
   5.1815E+00   5.3076E+00   6.8940E-04  0.0015
   5.3076E+00   5.4368E+00   6.7630E-04  0.0015
   5.4368E+00   5.5690E+00   6.6416E-04  0.0015
   5.5690E+00   5.7045E+00   6.4419E-04  0.0015
   5.7045E+00   5.8433E+00   6.2931E-04  0.0015
   5.8433E+00   5.9855E+00   6.1623E-04  0.0015
   5.9855E+00   6.1311E+00   6.0427E-04  0.0015
   6.1311E+00   6.2803E+00   5.8663E-04  0.0015
   6.2803E+00   6.4331E+00   5.7219E-04  0.0015
   6.4331E+00   6.5896E+00   5.6042E-04  0.0015
   6.5896E+00   6.7500E+00   5.4536E-04  0.0015
   6.7500E+00   6.9142E+00   5.3263E-04  0.0015
   6.9142E+00   7.0824E+00   5.2078E-04  0.0015
   7.0824E+00   7.2548E+00   5.0869E-04  0.0015
   7.2548E+00   7.4313E+00   4.9749E-04  0.0015
   7.4313E+00   7.6121E+00   4.8463E-04  0.0015
   7.6121E+00   7.7973E+00   4.7221E-04  0.0015
   7.7973E+00   7.9870E+00   4.6074E-04  0.0015
   7.9870E+00   8.1813E+00   4.5224E-04  0.0015
   8.1813E+00   8.3804E+00   4.4050E-04  0.0015
   8.3804E+00   8.5843E+00   4.3086E-04  0.0015
   8.5843E+00   8.7931E+00   4.1978E-04  0.0015
   8.7931E+00   9.0071E+00   4.1075E-04  0.0015
   9.0071E+00   9.2262E+00   4.0108E-04  0.0015
   9.2262E+00   9.4507E+00   3.9206E-04  0.0015
   9.4507E+00   9.6807E+00   3.8189E-04  0.0015
   9.6807E+00   9.9162E+00   3.7503E-04  0.0015
   9.9162E+00   1.0157E+01   3.6610E-04  0.0015
   1.0157E+01   1.0405E+01   3.5588E-04  0.0015
   1.0405E+01   1.0658E+01   3.4813E-04  0.0015
   1.0658E+01   1.0917E+01   3.3978E-04  0.0015
   1.0917E+01   1.1183E+01   3.3230E-04  0.0015
   1.1183E+01   1.1455E+01   3.2402E-04  0.0015
   1.1455E+01   1.1733E+01   3.1585E-04  0.0015
   1.1733E+01   1.2019E+01   3.0842E-04  0.0015
   1.2019E+01   1.2311E+01   3.0075E-04  0.0015
   1.2311E+01   1.2611E+01   2.9325E-04  0.0015
   1.2611E+01   1.2918E+01   2.8574E-04  0.0015
   1.2918E+01   1.3232E+01   2.7944E-04  0.0015
   1.3232E+01   1.3554E+01   2.7170E-04  0.0015
   1.3554E+01   1.3884E+01   2.6425E-04  0.0015
   1.3884E+01   1.4222E+01   2.5719E-04  0.0015
   1.4222E+01   1.4568E+01   2.5061E-04  0.0015
   1.4568E+01   1.4922E+01   2.4387E-04  0.0015
   1.4922E+01   1.5285E+01   2.3695E-04  0.0015
   1.5285E+01   1.5657E+01   2.3062E-04  0.0015
   1.5657E+01   1.6038E+01   2.2421E-04  0.0015
   1.6038E+01   1.6428E+01   2.1752E-04  0.0015
   1.6428E+01   1.6828E+01   2.1047E-04  0.0015
   1.6828E+01   1.7237E+01   2.0512E-04  0.0015
   1.7237E+01   1.7657E+01   1.9870E-04  0.0015
   1.7657E+01   1.8086E+01   1.9317E-04  0.0016
   1.8086E+01   1.8526E+01   1.8730E-04  0.0016
   1.8526E+01   1.8977E+01   1.8158E-04  0.0016
   1.8977E+01   1.9439E+01   1.7981E-04  0.0016
   1.9439E+01   1.9912E+01   1.8291E-04  0.0015
   1.9912E+01   2.0396E+01   1.8372E-04  0.0015
   2.0396E+01   2.0893E+01   1.7953E-04  0.0015
   2.0893E+01   2.1401E+01   1.7413E-04  0.0015
   2.1401E+01   2.1922E+01   1.6835E-04  0.0015
   2.1922E+01   2.2455E+01   1.6284E-04  0.0015
   2.2455E+01   2.3001E+01   1.5679E-04  0.0015
   2.3001E+01   2.3561E+01   1.5123E-04  0.0015
   2.3561E+01   2.4134E+01   1.4587E-04  0.0015
   2.4134E+01   2.4721E+01   1.4056E-04  0.0016
   2.4721E+01   2.5323E+01   1.3504E-04  0.0016
   2.5323E+01   2.5939E+01   1.3017E-04  0.0016
   2.5939E+01   2.6570E+01   1.2459E-04  0.0016
   2.6570E+01   2.7217E+01   1.1928E-04  0.0016
   2.7217E+01   2.7879E+01   1.1440E-04  0.0016
   2.7879E+01   2.8557E+01   1.0965E-04  0.0016
   2.8557E+01   2.9252E+01   1.0442E-04  0.0017
   2.9252E+01   2.9964E+01   1.0003E-04  0.0017
   2.9964E+01   3.0693E+01   9.4840E-05  0.0017
   3.0693E+01   3.1440E+01   9.0506E-05  0.0017
   3.1440E+01   3.2205E+01   8.6232E-05  0.0017
   3.2205E+01   3.2988E+01   8.2051E-05  0.0018
   3.2988E+01   3.3791E+01   7.7733E-05  0.0018
   3.3791E+01   3.4613E+01   7.3469E-05  0.0018
   3.4613E+01   3.5455E+01   6.9348E-05  0.0019
   3.5455E+01   3.6318E+01   6.5722E-05  0.0019
   3.6318E+01   3.7201E+01   6.1833E-05  0.0019
   3.7201E+01   3.8106E+01   5.8587E-05  0.0019
   3.8106E+01   3.9034E+01   5.4937E-05  0.0020
   3.9034E+01   3.9983E+01   5.1138E-05  0.0020
   3.9983E+01   4.0956E+01   4.8052E-05  0.0021
   4.0956E+01   4.1953E+01   4.5099E-05  0.0021
   4.1953E+01   4.2973E+01   4.1953E-05  0.0022
   4.2973E+01   4.4019E+01   3.9174E-05  0.0022
   4.4019E+01   4.5090E+01   3.6359E-05  0.0023
   4.5090E+01   4.6187E+01   3.3820E-05  0.0023
   4.6187E+01   4.7311E+01   3.1053E-05  0.0024
   4.7311E+01   4.8462E+01   2.8880E-05  0.0025
   4.8462E+01   4.9641E+01   2.6587E-05  0.0025
   4.9641E+01   5.0849E+01   2.4381E-05  0.0026
   5.0849E+01   5.2086E+01   2.2234E-05  0.0027
   5.2086E+01   5.3353E+01   2.0343E-05  0.0028
   5.3353E+01   5.4651E+01   1.8434E-05  0.0029
   5.4651E+01   5.5981E+01   1.6684E-05  0.0030
   5.5981E+01   5.7343E+01   1.5000E-05  0.0031
   5.7343E+01   5.8738E+01   1.3496E-05  0.0033
   5.8738E+01   6.0168E+01   1.2125E-05  0.0034
   6.0168E+01   6.1632E+01   1.0770E-05  0.0036
   6.1632E+01   6.3131E+01   9.5940E-06  0.0037
   6.3131E+01   6.4667E+01   8.5058E-06  0.0039
   6.4667E+01   6.6240E+01   7.4940E-06  0.0041
   6.6240E+01   6.7852E+01   6.5775E-06  0.0043
   6.7852E+01   6.9503E+01   5.7593E-06  0.0046
   6.9503E+01   7.1194E+01   5.0651E-06  0.0048
   7.1194E+01   7.2926E+01   4.3429E-06  0.0052
   7.2926E+01   7.4701E+01   3.7590E-06  0.0055
   7.4701E+01   7.6518E+01   3.2319E-06  0.0058
   7.6518E+01   7.8380E+01   2.7445E-06  0.0063
   7.8380E+01   8.0287E+01   2.3509E-06  0.0067
   8.0287E+01   8.2240E+01   1.9977E-06  0.0072
   8.2240E+01   8.4241E+01   1.6919E-06  0.0077
   8.4241E+01   8.6291E+01   1.4185E-06  0.0083
   8.6291E+01   8.8391E+01   1.1961E-06  0.0089
   8.8391E+01   9.0541E+01   9.8614E-07  0.0097
   9.0541E+01   9.2744E+01   8.0529E-07  0.0106
   9.2744E+01   9.5001E+01   6.5951E-07  0.0116
   9.5001E+01   9.7312E+01   5.3092E-07  0.0128
   9.7312E+01   9.9680E+01   4.1188E-07  0.0143
   9.9680E+01   1.0211E+02   3.2738E-07  0.0159
   1.0211E+02   1.0459E+02   2.5013E-07  0.0179
   1.0459E+02   1.0713E+02   1.8352E-07  0.0207
   1.0713E+02   1.0974E+02   1.2783E-07  0.0245
   1.0974E+02   1.1241E+02   8.7563E-08  0.0292
   1.1241E+02   1.1515E+02   5.5282E-08  0.0364
   1.1515E+02   1.1795E+02   3.3267E-08  0.0463
   1.1795E+02   1.2082E+02   1.7911E-08  0.0624
   1.2082E+02   1.2376E+02   1.0750E-08  0.0796
   1.2376E+02   1.2677E+02   4.3174E-09  0.1240
   1.2677E+02   1.2985E+02   2.3992E-09  0.1644
   1.2985E+02   1.3301E+02   1.3927E-09  0.2132
   1.3301E+02   1.3625E+02   1.8540E-10  0.5774
   1.3625E+02   1.3956E+02   1.8099E-10  0.5774
   1.3956E+02   1.4296E+02   1.1780E-10  0.7071
   1.4296E+02   1.4644E+02   0.0000E+00  0.0000
   1.4644E+02   1.5000E+02   0.0000E+00  0.0000

#   sum over                 7.9571E-05
'no. =    1   reg = 112 - 212'
msuc: {\huge [t-cross] in region mesh}
msdr: {\it plotted by \ANGEL \version}
msdl: {\it calculated by \PHITS  3.28}
wt: s(0.7)
\vspace{-3}
  region surface crossing
  area  &=&   1.0000E+00 [cm^2]
e:
 
# Information for Restart Calculation
# This calculation was newly started
# istdev =  2 # 1:Batch variance, 2:History variance
# resc2  = 5.00000000000000000E+09 # Total source weight or Total source weight / maxcas
# resc3  = 5.00000000000000000E+09 # Total history number or Total batch number
# maxcas =   500000000 # History / Batch, only used for istdev=1
# bitrseed = 0110100000100010111000001110001111001110100100011111101000111001 # bit data of rseed
