[ T-Cross ]
    title = [t-cross] in region mesh
     mesh =  reg            # mesh type is region-wise
      reg =    1            # number of crossing regions
      non     r-from    r-to       area
      1       113       213        1.000000    
   e-type =    3            # e-mesh is log given by emin, emax and ne
     emin =  1.0000000E-02  # minimum value of e-mesh points
     emax =   150.0000      # maximum value of e-mesh points
#    edel =  2.4039514E-02  # mesh width of e-mesh points
       ne =    400          # number of e-mesh points
#    data = ( e(i), i = 1, ne + 1 )
#           1.00000E-02  1.02433E-02  1.04925E-02  1.07478E-02  1.10093E-02
#           1.12772E-02  1.15516E-02  1.18326E-02  1.21205E-02  1.24154E-02
#           1.27175E-02  1.30269E-02  1.33439E-02  1.36686E-02  1.40011E-02
#           1.43418E-02  1.46907E-02  1.50482E-02  1.54143E-02  1.57894E-02
#           1.61735E-02  1.65670E-02  1.69701E-02  1.73830E-02  1.78060E-02
#           1.82392E-02  1.86830E-02  1.91375E-02  1.96032E-02  2.00801E-02
#           2.05687E-02  2.10692E-02  2.15818E-02  2.21069E-02  2.26448E-02
#           2.31957E-02  2.37601E-02  2.43382E-02  2.49304E-02  2.55369E-02
#           2.61583E-02  2.67947E-02  2.74467E-02  2.81145E-02  2.87985E-02
#           2.94992E-02  3.02169E-02  3.09521E-02  3.17052E-02  3.24766E-02
#           3.32668E-02  3.40762E-02  3.49053E-02  3.57546E-02  3.66246E-02
#           3.75157E-02  3.84284E-02  3.93634E-02  4.03212E-02  4.13022E-02
#           4.23071E-02  4.33365E-02  4.43909E-02  4.54710E-02  4.65773E-02
#           4.77106E-02  4.88714E-02  5.00605E-02  5.12785E-02  5.25262E-02
#           5.38042E-02  5.51133E-02  5.64542E-02  5.78278E-02  5.92348E-02
#           6.06760E-02  6.21523E-02  6.36645E-02  6.52135E-02  6.68002E-02
#           6.84255E-02  7.00904E-02  7.17957E-02  7.35426E-02  7.53319E-02
#           7.71648E-02  7.90423E-02  8.09655E-02  8.29354E-02  8.49533E-02
#           8.70203E-02  8.91376E-02  9.13064E-02  9.35279E-02  9.58035E-02
#           9.81345E-02  1.00522E-01  1.02968E-01  1.05473E-01  1.08040E-01
#           1.10668E-01  1.13361E-01  1.16119E-01  1.18944E-01  1.21838E-01
#           1.24803E-01  1.27839E-01  1.30950E-01  1.34136E-01  1.37399E-01
#           1.40742E-01  1.44167E-01  1.47675E-01  1.51268E-01  1.54948E-01
#           1.58718E-01  1.62580E-01  1.66535E-01  1.70587E-01  1.74738E-01
#           1.78989E-01  1.83344E-01  1.87805E-01  1.92375E-01  1.97055E-01
#           2.01850E-01  2.06761E-01  2.11792E-01  2.16945E-01  2.22223E-01
#           2.27630E-01  2.33169E-01  2.38842E-01  2.44653E-01  2.50605E-01
#           2.56703E-01  2.62949E-01  2.69346E-01  2.75900E-01  2.82613E-01
#           2.89489E-01  2.96532E-01  3.03747E-01  3.11138E-01  3.18708E-01
#           3.26462E-01  3.34405E-01  3.42542E-01  3.50876E-01  3.59413E-01
#           3.68158E-01  3.77116E-01  3.86291E-01  3.95690E-01  4.05317E-01
#           4.15179E-01  4.25281E-01  4.35628E-01  4.46227E-01  4.57084E-01
#           4.68205E-01  4.79597E-01  4.91266E-01  5.03219E-01  5.15463E-01
#           5.28005E-01  5.40851E-01  5.54011E-01  5.67490E-01  5.81298E-01
#           5.95441E-01  6.09929E-01  6.24769E-01  6.39970E-01  6.55541E-01
#           6.71491E-01  6.87828E-01  7.04564E-01  7.21706E-01  7.39266E-01
#           7.57253E-01  7.75678E-01  7.94551E-01  8.13883E-01  8.33685E-01
#           8.53969E-01  8.74747E-01  8.96030E-01  9.17831E-01  9.40163E-01
#           9.63038E-01  9.86469E-01  1.01047E+00  1.03506E+00  1.06024E+00
#           1.08604E+00  1.11246E+00  1.13953E+00  1.16725E+00  1.19565E+00
#           1.22474E+00  1.25454E+00  1.28507E+00  1.31633E+00  1.34836E+00
#           1.38117E+00  1.41477E+00  1.44920E+00  1.48446E+00  1.52057E+00
#           1.55757E+00  1.59547E+00  1.63429E+00  1.67405E+00  1.71478E+00
#           1.75650E+00  1.79924E+00  1.84302E+00  1.88786E+00  1.93379E+00
#           1.98084E+00  2.02904E+00  2.07841E+00  2.12898E+00  2.18078E+00
#           2.23384E+00  2.28819E+00  2.34386E+00  2.40089E+00  2.45930E+00
#           2.51914E+00  2.58043E+00  2.64322E+00  2.70753E+00  2.77341E+00
#           2.84088E+00  2.91001E+00  2.98081E+00  3.05333E+00  3.12762E+00
#           3.20372E+00  3.28167E+00  3.36152E+00  3.44330E+00  3.52708E+00
#           3.61290E+00  3.70080E+00  3.79085E+00  3.88308E+00  3.97756E+00
#           4.07434E+00  4.17347E+00  4.27501E+00  4.37903E+00  4.48557E+00
#           4.59471E+00  4.70650E+00  4.82102E+00  4.93832E+00  5.05847E+00
#           5.18155E+00  5.30762E+00  5.43676E+00  5.56904E+00  5.70453E+00
#           5.84333E+00  5.98550E+00  6.13114E+00  6.28031E+00  6.43312E+00
#           6.58964E+00  6.74997E+00  6.91420E+00  7.08243E+00  7.25475E+00
#           7.43126E+00  7.61207E+00  7.79728E+00  7.98700E+00  8.18133E+00
#           8.38038E+00  8.58428E+00  8.79315E+00  9.00709E+00  9.22624E+00
#           9.45072E+00  9.68067E+00  9.91620E+00  1.01575E+01  1.04046E+01
#           1.06578E+01  1.09171E+01  1.11827E+01  1.14548E+01  1.17335E+01
#           1.20190E+01  1.23114E+01  1.26109E+01  1.29178E+01  1.32321E+01
#           1.35540E+01  1.38838E+01  1.42216E+01  1.45676E+01  1.49221E+01
#           1.52851E+01  1.56570E+01  1.60380E+01  1.64282E+01  1.68279E+01
#           1.72374E+01  1.76568E+01  1.80864E+01  1.85264E+01  1.89772E+01
#           1.94389E+01  1.99119E+01  2.03963E+01  2.08926E+01  2.14009E+01
#           2.19216E+01  2.24550E+01  2.30014E+01  2.35610E+01  2.41343E+01
#           2.47215E+01  2.53230E+01  2.59391E+01  2.65702E+01  2.72167E+01
#           2.78789E+01  2.85572E+01  2.92520E+01  2.99637E+01  3.06928E+01
#           3.14396E+01  3.22045E+01  3.29881E+01  3.37907E+01  3.46128E+01
#           3.54550E+01  3.63177E+01  3.72013E+01  3.81064E+01  3.90336E+01
#           3.99833E+01  4.09561E+01  4.19526E+01  4.29734E+01  4.40189E+01
#           4.50900E+01  4.61870E+01  4.73108E+01  4.84619E+01  4.96410E+01
#           5.08488E+01  5.20860E+01  5.33533E+01  5.46514E+01  5.59812E+01
#           5.73432E+01  5.87384E+01  6.01676E+01  6.16315E+01  6.31311E+01
#           6.46671E+01  6.62405E+01  6.78522E+01  6.95031E+01  7.11941E+01
#           7.29263E+01  7.47007E+01  7.65182E+01  7.83800E+01  8.02870E+01
#           8.22405E+01  8.42414E+01  8.62911E+01  8.83906E+01  9.05412E+01
#           9.27442E+01  9.50007E+01  9.73122E+01  9.96799E+01  1.02105E+02
#           1.04589E+02  1.07134E+02  1.09741E+02  1.12411E+02  1.15146E+02
#           1.17948E+02  1.20817E+02  1.23757E+02  1.26768E+02  1.29852E+02
#           1.33012E+02  1.36248E+02  1.39563E+02  1.42959E+02  1.46437E+02
#           1.50000E+02
     unit =    2            # unit is [1/cm^2/(MeV/n)/source]
     axis =  eng            # axis of output
     file = detector-14.out  # file name of output for the above axis
   output = f-curr          # surface crossing forward current spectrum
     part =  neutron  
# kf/name :  2112     
#    used :        main (  %)        temp (  %)       total (  %)
#  memory :         414 (  0)           0 (  0)         414 (  0)

#------------------------------------------------------------------------------
#newpage:
#   no. =    1   reg = 113 - 213

x: Energy [MeV/n]
y:  F-Curr [1/cm^2/(MeV/n)/source]         
p: xlog ylog afac(0.8) form(0.9)
h: n            x            y(neutron ),hh0l   n 
#  e-lower      e-upper      neutron     r.err 
   1.0000E-02   1.0243E-02   7.7736E-04  0.0320
   1.0243E-02   1.0493E-02   7.1221E-04  0.0331
   1.0493E-02   1.0748E-02   7.3293E-04  0.0322
   1.0748E-02   1.1009E-02   7.1604E-04  0.0322
   1.1009E-02   1.1277E-02   6.7767E-04  0.0327
   1.1277E-02   1.1552E-02   6.7959E-04  0.0323
   1.1552E-02   1.1833E-02   6.7505E-04  0.0319
   1.1833E-02   1.2121E-02   6.4263E-04  0.0324
   1.2121E-02   1.2415E-02   6.4344E-04  0.0320
   1.2415E-02   1.2718E-02   6.0503E-04  0.0326
   1.2718E-02   1.3027E-02   5.8891E-04  0.0325
   1.3027E-02   1.3344E-02   6.0001E-04  0.0320
   1.3344E-02   1.3669E-02   5.9022E-04  0.0318
   1.3669E-02   1.4001E-02   5.8247E-04  0.0317
   1.4001E-02   1.4342E-02   5.7561E-04  0.0314
   1.4342E-02   1.4691E-02   5.4251E-04  0.0320
   1.4691E-02   1.5048E-02   5.6391E-04  0.0310
   1.5048E-02   1.5414E-02   5.0794E-04  0.0323
   1.5414E-02   1.5789E-02   4.7686E-04  0.0329
   1.5789E-02   1.6174E-02   5.2289E-04  0.0311
   1.6174E-02   1.6567E-02   4.8533E-04  0.0319
   1.6567E-02   1.6970E-02   4.8877E-04  0.0314
   1.6970E-02   1.7383E-02   4.8923E-04  0.0310
   1.7383E-02   1.7806E-02   4.7137E-04  0.0311
   1.7806E-02   1.8239E-02   4.3545E-04  0.0320
   1.8239E-02   1.8683E-02   4.4663E-04  0.0312
   1.8683E-02   1.9138E-02   4.1695E-04  0.0320
   1.9138E-02   1.9603E-02   4.3289E-04  0.0310
   1.9603E-02   2.0080E-02   4.2994E-04  0.0307
   2.0080E-02   2.0569E-02   3.9671E-04  0.0317
   2.0569E-02   2.1069E-02   4.0100E-04  0.0312
   2.1069E-02   2.1582E-02   3.9829E-04  0.0309
   2.1582E-02   2.2107E-02   3.9180E-04  0.0307
   2.2107E-02   2.2645E-02   3.5375E-04  0.0319
   2.2645E-02   2.3196E-02   3.7305E-04  0.0307
   2.3196E-02   2.3760E-02   3.4944E-04  0.0313
   2.3760E-02   2.4338E-02   3.3894E-04  0.0314
   2.4338E-02   2.4930E-02   3.1701E-04  0.0321
   2.4930E-02   2.5537E-02   3.3662E-04  0.0308
   2.5537E-02   2.6158E-02   3.2635E-04  0.0309
   2.6158E-02   2.6795E-02   3.2497E-04  0.0307
   2.6795E-02   2.7447E-02   3.1172E-04  0.0309
   2.7447E-02   2.8114E-02   3.1027E-04  0.0306
   2.8114E-02   2.8799E-02   2.8987E-04  0.0313
   2.8799E-02   2.9499E-02   2.8974E-04  0.0309
   2.9499E-02   3.0217E-02   2.9765E-04  0.0301
   3.0217E-02   3.0952E-02   2.8264E-04  0.0305
   3.0952E-02   3.1705E-02   2.7441E-04  0.0307
   3.1705E-02   3.2477E-02   2.7155E-04  0.0304
   3.2477E-02   3.3267E-02   2.5876E-04  0.0309
   3.3267E-02   3.4076E-02   2.5020E-04  0.0309
   3.4076E-02   3.4905E-02   2.5774E-04  0.0301
   3.4905E-02   3.5755E-02   2.5901E-04  0.0297
   3.5755E-02   3.6625E-02   2.3763E-04  0.0306
   3.6625E-02   3.7516E-02   2.3562E-04  0.0304
   3.7516E-02   3.8428E-02   2.3829E-04  0.0299
   3.8428E-02   3.9363E-02   2.2468E-04  0.0304
   3.9363E-02   4.0321E-02   2.1729E-04  0.0305
   4.0321E-02   4.1302E-02   2.1670E-04  0.0302
   4.1302E-02   4.2307E-02   2.1189E-04  0.0302
   4.2307E-02   4.3337E-02   2.0044E-04  0.0306
   4.3337E-02   4.4391E-02   1.9032E-04  0.0311
   4.4391E-02   4.5471E-02   1.9062E-04  0.0307
   4.5471E-02   4.6577E-02   1.9429E-04  0.0300
   4.6577E-02   4.7711E-02   1.9626E-04  0.0295
   4.7711E-02   4.8871E-02   1.8765E-04  0.0299
   4.8871E-02   5.0061E-02   1.8037E-04  0.0300
   5.0061E-02   5.1279E-02   1.7862E-04  0.0299
   5.1279E-02   5.2526E-02   1.7062E-04  0.0301
   5.2526E-02   5.3804E-02   1.7709E-04  0.0292
   5.3804E-02   5.5113E-02   1.6252E-04  0.0302
   5.5113E-02   5.6454E-02   1.6892E-04  0.0293
   5.6454E-02   5.7828E-02   1.6093E-04  0.0297
   5.7828E-02   5.9235E-02   1.5819E-04  0.0295
   5.9235E-02   6.0676E-02   1.5756E-04  0.0292
   6.0676E-02   6.2152E-02   1.4941E-04  0.0296
   6.2152E-02   6.3665E-02   1.5192E-04  0.0291
   6.3665E-02   6.5214E-02   1.4272E-04  0.0296
   6.5214E-02   6.6800E-02   1.4643E-04  0.0289
   6.6800E-02   6.8426E-02   1.4573E-04  0.0286
   6.8426E-02   7.0090E-02   1.3634E-04  0.0292
   7.0090E-02   7.1796E-02   1.3671E-04  0.0288
   7.1796E-02   7.3543E-02   1.3209E-04  0.0290
   7.3543E-02   7.5332E-02   1.3099E-04  0.0288
   7.5332E-02   7.7165E-02   1.2495E-04  0.0290
   7.7165E-02   7.9042E-02   1.2778E-04  0.0284
   7.9042E-02   8.0965E-02   1.1873E-04  0.0291
   8.0965E-02   8.2935E-02   1.2542E-04  0.0280
   8.2935E-02   8.4953E-02   1.1659E-04  0.0287
   8.4953E-02   8.7020E-02   1.1988E-04  0.0280
   8.7020E-02   8.9138E-02   1.1236E-04  0.0286
   8.9138E-02   9.1306E-02   1.1354E-04  0.0281
   9.1306E-02   9.3528E-02   1.0418E-04  0.0289
   9.3528E-02   9.5804E-02   1.0436E-04  0.0285
   9.5804E-02   9.8134E-02   1.0246E-04  0.0285
   9.8134E-02   1.0052E-01   9.9680E-05  0.0286
   1.0052E-01   1.0297E-01   1.0248E-04  0.0278
   1.0297E-01   1.0547E-01   9.5604E-05  0.0284
   1.0547E-01   1.0804E-01   9.8621E-05  0.0277
   1.0804E-01   1.1067E-01   9.0165E-05  0.0285
   1.1067E-01   1.1336E-01   9.2266E-05  0.0279
   1.1336E-01   1.1612E-01   9.0661E-05  0.0278
   1.1612E-01   1.1894E-01   8.8947E-05  0.0278
   1.1894E-01   1.2184E-01   8.3024E-05  0.0284
   1.2184E-01   1.2480E-01   8.6761E-05  0.0275
   1.2480E-01   1.2784E-01   8.2469E-05  0.0278
   1.2784E-01   1.3095E-01   7.7272E-05  0.0283
   1.3095E-01   1.3414E-01   7.8303E-05  0.0278
   1.3414E-01   1.3740E-01   7.6779E-05  0.0278
   1.3740E-01   1.4074E-01   7.8009E-05  0.0273
   1.4074E-01   1.4417E-01   7.6662E-05  0.0272
   1.4417E-01   1.4767E-01   7.7959E-05  0.0266
   1.4767E-01   1.5127E-01   7.2397E-05  0.0273
   1.5127E-01   1.5495E-01   7.1586E-05  0.0271
   1.5495E-01   1.5872E-01   6.9858E-05  0.0271
   1.5872E-01   1.6258E-01   7.0276E-05  0.0267
   1.6258E-01   1.6654E-01   6.6464E-05  0.0271
   1.6654E-01   1.7059E-01   6.6860E-05  0.0268
   1.7059E-01   1.7474E-01   6.4862E-05  0.0268
   1.7474E-01   1.7899E-01   6.7124E-05  0.0261
   1.7899E-01   1.8334E-01   6.5813E-05  0.0260
   1.8334E-01   1.8781E-01   6.4566E-05  0.0260
   1.8781E-01   1.9237E-01   6.4764E-05  0.0256
   1.9237E-01   1.9706E-01   6.3961E-05  0.0254
   1.9706E-01   2.0185E-01   6.2557E-05  0.0254
   2.0185E-01   2.0676E-01   6.4296E-05  0.0248
   2.0676E-01   2.1179E-01   6.9044E-05  0.0236
   2.1179E-01   2.1694E-01   7.0025E-05  0.0232
   2.1694E-01   2.2222E-01   7.2375E-05  0.0225
   2.2222E-01   2.2763E-01   7.6824E-05  0.0216
   2.2763E-01   2.3317E-01   8.3971E-05  0.0204
   2.3317E-01   2.3884E-01   8.8957E-05  0.0196
   2.3884E-01   2.4465E-01   8.7729E-05  0.0195
   2.4465E-01   2.5061E-01   9.1455E-05  0.0189
   2.5061E-01   2.5670E-01   9.3423E-05  0.0185
   2.5670E-01   2.6295E-01   9.9262E-05  0.0177
   2.6295E-01   2.6935E-01   1.0232E-04  0.0172
   2.6935E-01   2.7590E-01   1.0824E-04  0.0165
   2.7590E-01   2.8261E-01   1.1548E-04  0.0158
   2.8261E-01   2.8949E-01   1.1406E-04  0.0157
   2.8949E-01   2.9653E-01   1.2680E-04  0.0147
   2.9653E-01   3.0375E-01   1.2931E-04  0.0144
   3.0375E-01   3.1114E-01   1.3242E-04  0.0141
   3.1114E-01   3.1871E-01   1.4208E-04  0.0134
   3.1871E-01   3.2646E-01   1.4717E-04  0.0131
   3.2646E-01   3.3441E-01   1.5346E-04  0.0126
   3.3441E-01   3.4254E-01   1.5965E-04  0.0122
   3.4254E-01   3.5088E-01   1.6558E-04  0.0119
   3.5088E-01   3.5941E-01   1.7187E-04  0.0115
   3.5941E-01   3.6816E-01   1.7877E-04  0.0112
   3.6816E-01   3.7712E-01   1.9126E-04  0.0107
   3.7712E-01   3.8629E-01   1.9782E-04  0.0104
   3.8629E-01   3.9569E-01   2.0142E-04  0.0101
   3.9569E-01   4.0532E-01   2.1483E-04  0.0097
   4.0532E-01   4.1518E-01   2.2733E-04  0.0093
   4.1518E-01   4.2528E-01   2.3507E-04  0.0091
   4.2528E-01   4.3563E-01   2.4169E-04  0.0088
   4.3563E-01   4.4623E-01   2.5195E-04  0.0085
   4.4623E-01   4.5708E-01   2.6529E-04  0.0082
   4.5708E-01   4.6821E-01   2.7496E-04  0.0080
   4.6821E-01   4.7960E-01   2.8878E-04  0.0077
   4.7960E-01   4.9127E-01   2.9205E-04  0.0076
   4.9127E-01   5.0322E-01   3.1013E-04  0.0072
   5.0322E-01   5.1546E-01   3.2201E-04  0.0070
   5.1546E-01   5.2800E-01   3.3977E-04  0.0068
   5.2800E-01   5.4085E-01   3.5114E-04  0.0066
   5.4085E-01   5.5401E-01   3.6225E-04  0.0064
   5.5401E-01   5.6749E-01   3.8196E-04  0.0062
   5.6749E-01   5.8130E-01   3.9067E-04  0.0060
   5.8130E-01   5.9544E-01   4.0864E-04  0.0058
   5.9544E-01   6.0993E-01   4.1894E-04  0.0057
   6.0993E-01   6.2477E-01   4.3483E-04  0.0055
   6.2477E-01   6.3997E-01   4.5205E-04  0.0053
   6.3997E-01   6.5554E-01   4.6809E-04  0.0052
   6.5554E-01   6.7149E-01   4.8526E-04  0.0050
   6.7149E-01   6.8783E-01   5.0560E-04  0.0049
   6.8783E-01   7.0456E-01   5.2223E-04  0.0047
   7.0456E-01   7.2171E-01   5.3736E-04  0.0046
   7.2171E-01   7.3927E-01   5.5401E-04  0.0045
   7.3927E-01   7.5725E-01   5.8130E-04  0.0043
   7.5725E-01   7.7568E-01   5.9328E-04  0.0042
   7.7568E-01   7.9455E-01   6.1571E-04  0.0041
   7.9455E-01   8.1388E-01   6.3091E-04  0.0040
   8.1388E-01   8.3368E-01   6.5327E-04  0.0039
   8.3368E-01   8.5397E-01   6.7463E-04  0.0038
   8.5397E-01   8.7475E-01   6.9441E-04  0.0037
   8.7475E-01   8.9603E-01   7.1274E-04  0.0036
   8.9603E-01   9.1783E-01   7.3725E-04  0.0035
   9.1783E-01   9.4016E-01   7.5437E-04  0.0034
   9.4016E-01   9.6304E-01   7.6873E-04  0.0033
   9.6304E-01   9.8647E-01   7.9261E-04  0.0032
   9.8647E-01   1.0105E+00   8.0457E-04  0.0032
   1.0105E+00   1.0351E+00   8.1494E-04  0.0031
   1.0351E+00   1.0602E+00   8.1844E-04  0.0031
   1.0602E+00   1.0860E+00   8.2825E-04  0.0030
   1.0860E+00   1.1125E+00   8.4534E-04  0.0030
   1.1125E+00   1.1395E+00   8.6388E-04  0.0029
   1.1395E+00   1.1673E+00   8.7277E-04  0.0028
   1.1673E+00   1.1957E+00   8.9966E-04  0.0028
   1.1957E+00   1.2247E+00   9.1500E-04  0.0027
   1.2247E+00   1.2545E+00   9.1762E-04  0.0027
   1.2545E+00   1.2851E+00   9.1695E-04  0.0026
   1.2851E+00   1.3163E+00   9.2595E-04  0.0026
   1.3163E+00   1.3484E+00   9.3968E-04  0.0025
   1.3484E+00   1.3812E+00   9.5743E-04  0.0025
   1.3812E+00   1.4148E+00   9.7859E-04  0.0024
   1.4148E+00   1.4492E+00   9.9495E-04  0.0024
   1.4492E+00   1.4845E+00   1.0082E-03  0.0023
   1.4845E+00   1.5206E+00   1.0147E-03  0.0023
   1.5206E+00   1.5576E+00   1.0125E-03  0.0023
   1.5576E+00   1.5955E+00   1.0078E-03  0.0023
   1.5955E+00   1.6343E+00   9.9221E-04  0.0022
   1.6343E+00   1.6741E+00   9.8576E-04  0.0022
   1.6741E+00   1.7148E+00   9.8255E-04  0.0022
   1.7148E+00   1.7565E+00   9.8628E-04  0.0022
   1.7565E+00   1.7992E+00   9.9373E-04  0.0021
   1.7992E+00   1.8430E+00   9.9901E-04  0.0021
   1.8430E+00   1.8879E+00   9.9384E-04  0.0021
   1.8879E+00   1.9338E+00   9.9266E-04  0.0021
   1.9338E+00   1.9808E+00   9.9331E-04  0.0020
   1.9808E+00   2.0290E+00   1.0024E-03  0.0020
   2.0290E+00   2.0784E+00   9.9020E-04  0.0020
   2.0784E+00   2.1290E+00   9.7459E-04  0.0020
   2.1290E+00   2.1808E+00   9.5970E-04  0.0020
   2.1808E+00   2.2338E+00   9.4231E-04  0.0020
   2.2338E+00   2.2882E+00   9.3355E-04  0.0020
   2.2882E+00   2.3439E+00   9.2123E-04  0.0019
   2.3439E+00   2.4009E+00   9.2066E-04  0.0019
   2.4009E+00   2.4593E+00   9.2377E-04  0.0019
   2.4593E+00   2.5191E+00   9.2124E-04  0.0019
   2.5191E+00   2.5804E+00   9.1118E-04  0.0019
   2.5804E+00   2.6432E+00   8.9617E-04  0.0019
   2.6432E+00   2.7075E+00   8.8056E-04  0.0019
   2.7075E+00   2.7734E+00   8.6799E-04  0.0018
   2.7734E+00   2.8409E+00   8.5263E-04  0.0018
   2.8409E+00   2.9100E+00   8.4008E-04  0.0018
   2.9100E+00   2.9808E+00   8.3398E-04  0.0018
   2.9808E+00   3.0533E+00   8.3107E-04  0.0018
   3.0533E+00   3.1276E+00   8.1258E-04  0.0018
   3.1276E+00   3.2037E+00   7.9534E-04  0.0018
   3.2037E+00   3.2817E+00   7.7824E-04  0.0018
   3.2817E+00   3.3615E+00   7.6554E-04  0.0018
   3.3615E+00   3.4433E+00   7.5176E-04  0.0018
   3.4433E+00   3.5271E+00   7.4760E-04  0.0018
   3.5271E+00   3.6129E+00   7.3291E-04  0.0018
   3.6129E+00   3.7008E+00   7.1666E-04  0.0018
   3.7008E+00   3.7908E+00   7.0289E-04  0.0018
   3.7908E+00   3.8831E+00   6.8604E-04  0.0018
   3.8831E+00   3.9776E+00   6.7656E-04  0.0017
   3.9776E+00   4.0743E+00   6.7126E-04  0.0017
   4.0743E+00   4.1735E+00   6.5779E-04  0.0017
   4.1735E+00   4.2750E+00   6.4295E-04  0.0017
   4.2750E+00   4.3790E+00   6.3251E-04  0.0017
   4.3790E+00   4.4856E+00   6.2310E-04  0.0017
   4.4856E+00   4.5947E+00   6.1596E-04  0.0017
   4.5947E+00   4.7065E+00   6.0244E-04  0.0017
   4.7065E+00   4.8210E+00   5.9283E-04  0.0017
   4.8210E+00   4.9383E+00   5.8274E-04  0.0017
   4.9383E+00   5.0585E+00   5.7886E-04  0.0017
   5.0585E+00   5.1815E+00   5.7874E-04  0.0017
   5.1815E+00   5.3076E+00   5.7211E-04  0.0017
   5.3076E+00   5.4368E+00   5.5907E-04  0.0016
   5.4368E+00   5.5690E+00   5.4514E-04  0.0017
   5.5690E+00   5.7045E+00   5.3137E-04  0.0017
   5.7045E+00   5.8433E+00   5.1681E-04  0.0017
   5.8433E+00   5.9855E+00   5.0491E-04  0.0017
   5.9855E+00   6.1311E+00   4.9283E-04  0.0017
   6.1311E+00   6.2803E+00   4.7792E-04  0.0017
   6.2803E+00   6.4331E+00   4.6538E-04  0.0017
   6.4331E+00   6.5896E+00   4.5587E-04  0.0017
   6.5896E+00   6.7500E+00   4.4341E-04  0.0017
   6.7500E+00   6.9142E+00   4.3192E-04  0.0017
   6.9142E+00   7.0824E+00   4.1966E-04  0.0017
   7.0824E+00   7.2548E+00   4.0700E-04  0.0017
   7.2548E+00   7.4313E+00   3.9723E-04  0.0017
   7.4313E+00   7.6121E+00   3.8706E-04  0.0017
   7.6121E+00   7.7973E+00   3.7712E-04  0.0017
   7.7973E+00   7.9870E+00   3.6609E-04  0.0017
   7.9870E+00   8.1813E+00   3.5868E-04  0.0017
   8.1813E+00   8.3804E+00   3.4828E-04  0.0017
   8.3804E+00   8.5843E+00   3.3973E-04  0.0017
   8.5843E+00   8.7931E+00   3.3005E-04  0.0017
   8.7931E+00   9.0071E+00   3.2350E-04  0.0017
   9.0071E+00   9.2262E+00   3.1377E-04  0.0017
   9.2262E+00   9.4507E+00   3.0630E-04  0.0017
   9.4507E+00   9.6807E+00   2.9692E-04  0.0017
   9.6807E+00   9.9162E+00   2.9008E-04  0.0017
   9.9162E+00   1.0157E+01   2.8206E-04  0.0017
   1.0157E+01   1.0405E+01   2.7417E-04  0.0017
   1.0405E+01   1.0658E+01   2.6643E-04  0.0017
   1.0658E+01   1.0917E+01   2.5957E-04  0.0017
   1.0917E+01   1.1183E+01   2.5248E-04  0.0017
   1.1183E+01   1.1455E+01   2.4547E-04  0.0017
   1.1455E+01   1.1733E+01   2.3884E-04  0.0017
   1.1733E+01   1.2019E+01   2.3157E-04  0.0017
   1.2019E+01   1.2311E+01   2.2519E-04  0.0017
   1.2311E+01   1.2611E+01   2.1875E-04  0.0017
   1.2611E+01   1.2918E+01   2.1245E-04  0.0017
   1.2918E+01   1.3232E+01   2.0581E-04  0.0018
   1.3232E+01   1.3554E+01   1.9945E-04  0.0018
   1.3554E+01   1.3884E+01   1.9375E-04  0.0018
   1.3884E+01   1.4222E+01   1.8793E-04  0.0018
   1.4222E+01   1.4568E+01   1.8254E-04  0.0018
   1.4568E+01   1.4922E+01   1.7601E-04  0.0018
   1.4922E+01   1.5285E+01   1.7062E-04  0.0018
   1.5285E+01   1.5657E+01   1.6525E-04  0.0018
   1.5657E+01   1.6038E+01   1.5988E-04  0.0018
   1.6038E+01   1.6428E+01   1.5519E-04  0.0018
   1.6428E+01   1.6828E+01   1.4946E-04  0.0018
   1.6828E+01   1.7237E+01   1.4425E-04  0.0018
   1.7237E+01   1.7657E+01   1.3898E-04  0.0019
   1.7657E+01   1.8086E+01   1.3461E-04  0.0019
   1.8086E+01   1.8526E+01   1.2950E-04  0.0019
   1.8526E+01   1.8977E+01   1.2547E-04  0.0019
   1.8977E+01   1.9439E+01   1.2459E-04  0.0019
   1.9439E+01   1.9912E+01   1.2639E-04  0.0018
   1.9912E+01   2.0396E+01   1.2615E-04  0.0018
   2.0396E+01   2.0893E+01   1.2290E-04  0.0018
   2.0893E+01   2.1401E+01   1.1860E-04  0.0018
   2.1401E+01   2.1922E+01   1.1418E-04  0.0018
   2.1922E+01   2.2455E+01   1.0927E-04  0.0019
   2.2455E+01   2.3001E+01   1.0539E-04  0.0019
   2.3001E+01   2.3561E+01   1.0121E-04  0.0019
   2.3561E+01   2.4134E+01   9.6376E-05  0.0019
   2.4134E+01   2.4721E+01   9.2472E-05  0.0019
   2.4721E+01   2.5323E+01   8.8216E-05  0.0019
   2.5323E+01   2.5939E+01   8.4327E-05  0.0020
   2.5939E+01   2.6570E+01   8.0383E-05  0.0020
   2.6570E+01   2.7217E+01   7.6445E-05  0.0020
   2.7217E+01   2.7879E+01   7.2795E-05  0.0020
   2.7879E+01   2.8557E+01   6.9106E-05  0.0021
   2.8557E+01   2.9252E+01   6.5542E-05  0.0021
   2.9252E+01   2.9964E+01   6.2067E-05  0.0021
   2.9964E+01   3.0693E+01   5.8835E-05  0.0022
   3.0693E+01   3.1440E+01   5.5508E-05  0.0022
   3.1440E+01   3.2205E+01   5.2380E-05  0.0022
   3.2205E+01   3.2988E+01   4.9465E-05  0.0023
   3.2988E+01   3.3791E+01   4.6493E-05  0.0023
   3.3791E+01   3.4613E+01   4.3544E-05  0.0024
   3.4613E+01   3.5455E+01   4.0786E-05  0.0024
   3.5455E+01   3.6318E+01   3.8263E-05  0.0025
   3.6318E+01   3.7201E+01   3.5631E-05  0.0025
   3.7201E+01   3.8106E+01   3.3466E-05  0.0026
   3.8106E+01   3.9034E+01   3.1128E-05  0.0026
   3.9034E+01   3.9983E+01   2.8665E-05  0.0027
   3.9983E+01   4.0956E+01   2.6786E-05  0.0028
   4.0956E+01   4.1953E+01   2.4958E-05  0.0028
   4.1953E+01   4.2973E+01   2.3035E-05  0.0029
   4.2973E+01   4.4019E+01   2.1227E-05  0.0030
   4.4019E+01   4.5090E+01   1.9491E-05  0.0031
   4.5090E+01   4.6187E+01   1.7977E-05  0.0032
   4.6187E+01   4.7311E+01   1.6326E-05  0.0033
   4.7311E+01   4.8462E+01   1.4921E-05  0.0034
   4.8462E+01   4.9641E+01   1.3725E-05  0.0035
   4.9641E+01   5.0849E+01   1.2363E-05  0.0037
   5.0849E+01   5.2086E+01   1.1121E-05  0.0038
   5.2086E+01   5.3353E+01   1.0137E-05  0.0039
   5.3353E+01   5.4651E+01   9.0718E-06  0.0041
   5.4651E+01   5.5981E+01   8.1849E-06  0.0043
   5.5981E+01   5.7343E+01   7.2650E-06  0.0045
   5.7343E+01   5.8738E+01   6.4363E-06  0.0047
   5.8738E+01   6.0168E+01   5.7129E-06  0.0049
   6.0168E+01   6.1632E+01   5.1169E-06  0.0052
   6.1632E+01   6.3131E+01   4.4504E-06  0.0055
   6.3131E+01   6.4667E+01   3.9581E-06  0.0057
   6.4667E+01   6.6240E+01   3.4373E-06  0.0061
   6.6240E+01   6.7852E+01   2.9708E-06  0.0065
   6.7852E+01   6.9503E+01   2.5602E-06  0.0069
   6.9503E+01   7.1194E+01   2.2054E-06  0.0073
   7.1194E+01   7.2926E+01   1.8855E-06  0.0078
   7.2926E+01   7.4701E+01   1.6229E-06  0.0083
   7.4701E+01   7.6518E+01   1.3676E-06  0.0090
   7.6518E+01   7.8380E+01   1.1418E-06  0.0097
   7.8380E+01   8.0287E+01   9.5331E-07  0.0105
   8.0287E+01   8.2240E+01   8.0176E-07  0.0113
   8.2240E+01   8.4241E+01   6.4628E-07  0.0124
   8.4241E+01   8.6291E+01   5.1521E-07  0.0138
   8.6291E+01   8.8391E+01   4.2657E-07  0.0149
   8.8391E+01   9.0541E+01   3.3581E-07  0.0166
   9.0541E+01   9.2744E+01   2.5965E-07  0.0187
   9.2744E+01   9.5001E+01   2.0412E-07  0.0208
   9.5001E+01   9.7312E+01   1.5696E-07  0.0235
   9.7312E+01   9.9680E+01   1.0542E-07  0.0283
   9.9680E+01   1.0211E+02   7.7599E-08  0.0326
   1.0211E+02   1.0459E+02   5.0638E-08  0.0399
   1.0459E+02   1.0713E+02   3.1595E-08  0.0499
   1.0713E+02   1.0974E+02   1.9182E-08  0.0632
   1.0974E+02   1.1241E+02   1.0786E-08  0.0833
   1.1241E+02   1.1515E+02   6.7275E-09  0.1043
   1.1515E+02   1.1795E+02   3.8550E-09  0.1361
   1.1795E+02   1.2082E+02   1.8817E-09  0.1925
   1.2082E+02   1.2376E+02   7.4841E-10  0.3015
   1.2376E+02   1.2677E+02   3.9852E-10  0.4082
   1.2677E+02   1.2985E+02   1.9453E-10  0.5774
   1.2985E+02   1.3301E+02   6.3303E-11  1.0000
   1.3301E+02   1.3625E+02   0.0000E+00  0.0000
   1.3625E+02   1.3956E+02   0.0000E+00  0.0000
   1.3956E+02   1.4296E+02   0.0000E+00  0.0000
   1.4296E+02   1.4644E+02   0.0000E+00  0.0000
   1.4644E+02   1.5000E+02   0.0000E+00  0.0000

#   sum over                 6.0642E-05
'no. =    1   reg = 113 - 213'
msuc: {\huge [t-cross] in region mesh}
msdr: {\it plotted by \ANGEL \version}
msdl: {\it calculated by \PHITS  3.28}
wt: s(0.7)
\vspace{-3}
  region surface crossing
  area  &=&   1.0000E+00 [cm^2]
e:
 
# Information for Restart Calculation
# This calculation was newly started
# istdev =  2 # 1:Batch variance, 2:History variance
# resc2  = 5.00000000000000000E+09 # Total source weight or Total source weight / maxcas
# resc3  = 5.00000000000000000E+09 # Total history number or Total batch number
# maxcas =   500000000 # History / Batch, only used for istdev=1
# bitrseed = 0110100000100010111000001110001111001110100100011111101000111001 # bit data of rseed
