[ T-Cross ]
    title = [t-cross] in region mesh
     mesh =  reg            # mesh type is region-wise
      reg =    1            # number of crossing regions
      non     r-from    r-to       area
      1       100       200        1.000000    
   e-type =    3            # e-mesh is log given by emin, emax and ne
     emin =  1.0000000E-02  # minimum value of e-mesh points
     emax =   150.0000      # maximum value of e-mesh points
#    edel =  2.4039514E-02  # mesh width of e-mesh points
       ne =    400          # number of e-mesh points
#    data = ( e(i), i = 1, ne + 1 )
#           1.00000E-02  1.02433E-02  1.04925E-02  1.07478E-02  1.10093E-02
#           1.12772E-02  1.15516E-02  1.18326E-02  1.21205E-02  1.24154E-02
#           1.27175E-02  1.30269E-02  1.33439E-02  1.36686E-02  1.40011E-02
#           1.43418E-02  1.46907E-02  1.50482E-02  1.54143E-02  1.57894E-02
#           1.61735E-02  1.65670E-02  1.69701E-02  1.73830E-02  1.78060E-02
#           1.82392E-02  1.86830E-02  1.91375E-02  1.96032E-02  2.00801E-02
#           2.05687E-02  2.10692E-02  2.15818E-02  2.21069E-02  2.26448E-02
#           2.31957E-02  2.37601E-02  2.43382E-02  2.49304E-02  2.55369E-02
#           2.61583E-02  2.67947E-02  2.74467E-02  2.81145E-02  2.87985E-02
#           2.94992E-02  3.02169E-02  3.09521E-02  3.17052E-02  3.24766E-02
#           3.32668E-02  3.40762E-02  3.49053E-02  3.57546E-02  3.66246E-02
#           3.75157E-02  3.84284E-02  3.93634E-02  4.03212E-02  4.13022E-02
#           4.23071E-02  4.33365E-02  4.43909E-02  4.54710E-02  4.65773E-02
#           4.77106E-02  4.88714E-02  5.00605E-02  5.12785E-02  5.25262E-02
#           5.38042E-02  5.51133E-02  5.64542E-02  5.78278E-02  5.92348E-02
#           6.06760E-02  6.21523E-02  6.36645E-02  6.52135E-02  6.68002E-02
#           6.84255E-02  7.00904E-02  7.17957E-02  7.35426E-02  7.53319E-02
#           7.71648E-02  7.90423E-02  8.09655E-02  8.29354E-02  8.49533E-02
#           8.70203E-02  8.91376E-02  9.13064E-02  9.35279E-02  9.58035E-02
#           9.81345E-02  1.00522E-01  1.02968E-01  1.05473E-01  1.08040E-01
#           1.10668E-01  1.13361E-01  1.16119E-01  1.18944E-01  1.21838E-01
#           1.24803E-01  1.27839E-01  1.30950E-01  1.34136E-01  1.37399E-01
#           1.40742E-01  1.44167E-01  1.47675E-01  1.51268E-01  1.54948E-01
#           1.58718E-01  1.62580E-01  1.66535E-01  1.70587E-01  1.74738E-01
#           1.78989E-01  1.83344E-01  1.87805E-01  1.92375E-01  1.97055E-01
#           2.01850E-01  2.06761E-01  2.11792E-01  2.16945E-01  2.22223E-01
#           2.27630E-01  2.33169E-01  2.38842E-01  2.44653E-01  2.50605E-01
#           2.56703E-01  2.62949E-01  2.69346E-01  2.75900E-01  2.82613E-01
#           2.89489E-01  2.96532E-01  3.03747E-01  3.11138E-01  3.18708E-01
#           3.26462E-01  3.34405E-01  3.42542E-01  3.50876E-01  3.59413E-01
#           3.68158E-01  3.77116E-01  3.86291E-01  3.95690E-01  4.05317E-01
#           4.15179E-01  4.25281E-01  4.35628E-01  4.46227E-01  4.57084E-01
#           4.68205E-01  4.79597E-01  4.91266E-01  5.03219E-01  5.15463E-01
#           5.28005E-01  5.40851E-01  5.54011E-01  5.67490E-01  5.81298E-01
#           5.95441E-01  6.09929E-01  6.24769E-01  6.39970E-01  6.55541E-01
#           6.71491E-01  6.87828E-01  7.04564E-01  7.21706E-01  7.39266E-01
#           7.57253E-01  7.75678E-01  7.94551E-01  8.13883E-01  8.33685E-01
#           8.53969E-01  8.74747E-01  8.96030E-01  9.17831E-01  9.40163E-01
#           9.63038E-01  9.86469E-01  1.01047E+00  1.03506E+00  1.06024E+00
#           1.08604E+00  1.11246E+00  1.13953E+00  1.16725E+00  1.19565E+00
#           1.22474E+00  1.25454E+00  1.28507E+00  1.31633E+00  1.34836E+00
#           1.38117E+00  1.41477E+00  1.44920E+00  1.48446E+00  1.52057E+00
#           1.55757E+00  1.59547E+00  1.63429E+00  1.67405E+00  1.71478E+00
#           1.75650E+00  1.79924E+00  1.84302E+00  1.88786E+00  1.93379E+00
#           1.98084E+00  2.02904E+00  2.07841E+00  2.12898E+00  2.18078E+00
#           2.23384E+00  2.28819E+00  2.34386E+00  2.40089E+00  2.45930E+00
#           2.51914E+00  2.58043E+00  2.64322E+00  2.70753E+00  2.77341E+00
#           2.84088E+00  2.91001E+00  2.98081E+00  3.05333E+00  3.12762E+00
#           3.20372E+00  3.28167E+00  3.36152E+00  3.44330E+00  3.52708E+00
#           3.61290E+00  3.70080E+00  3.79085E+00  3.88308E+00  3.97756E+00
#           4.07434E+00  4.17347E+00  4.27501E+00  4.37903E+00  4.48557E+00
#           4.59471E+00  4.70650E+00  4.82102E+00  4.93832E+00  5.05847E+00
#           5.18155E+00  5.30762E+00  5.43676E+00  5.56904E+00  5.70453E+00
#           5.84333E+00  5.98550E+00  6.13114E+00  6.28031E+00  6.43312E+00
#           6.58964E+00  6.74997E+00  6.91420E+00  7.08243E+00  7.25475E+00
#           7.43126E+00  7.61207E+00  7.79728E+00  7.98700E+00  8.18133E+00
#           8.38038E+00  8.58428E+00  8.79315E+00  9.00709E+00  9.22624E+00
#           9.45072E+00  9.68067E+00  9.91620E+00  1.01575E+01  1.04046E+01
#           1.06578E+01  1.09171E+01  1.11827E+01  1.14548E+01  1.17335E+01
#           1.20190E+01  1.23114E+01  1.26109E+01  1.29178E+01  1.32321E+01
#           1.35540E+01  1.38838E+01  1.42216E+01  1.45676E+01  1.49221E+01
#           1.52851E+01  1.56570E+01  1.60380E+01  1.64282E+01  1.68279E+01
#           1.72374E+01  1.76568E+01  1.80864E+01  1.85264E+01  1.89772E+01
#           1.94389E+01  1.99119E+01  2.03963E+01  2.08926E+01  2.14009E+01
#           2.19216E+01  2.24550E+01  2.30014E+01  2.35610E+01  2.41343E+01
#           2.47215E+01  2.53230E+01  2.59391E+01  2.65702E+01  2.72167E+01
#           2.78789E+01  2.85572E+01  2.92520E+01  2.99637E+01  3.06928E+01
#           3.14396E+01  3.22045E+01  3.29881E+01  3.37907E+01  3.46128E+01
#           3.54550E+01  3.63177E+01  3.72013E+01  3.81064E+01  3.90336E+01
#           3.99833E+01  4.09561E+01  4.19526E+01  4.29734E+01  4.40189E+01
#           4.50900E+01  4.61870E+01  4.73108E+01  4.84619E+01  4.96410E+01
#           5.08488E+01  5.20860E+01  5.33533E+01  5.46514E+01  5.59812E+01
#           5.73432E+01  5.87384E+01  6.01676E+01  6.16315E+01  6.31311E+01
#           6.46671E+01  6.62405E+01  6.78522E+01  6.95031E+01  7.11941E+01
#           7.29263E+01  7.47007E+01  7.65182E+01  7.83800E+01  8.02870E+01
#           8.22405E+01  8.42414E+01  8.62911E+01  8.83906E+01  9.05412E+01
#           9.27442E+01  9.50007E+01  9.73122E+01  9.96799E+01  1.02105E+02
#           1.04589E+02  1.07134E+02  1.09741E+02  1.12411E+02  1.15146E+02
#           1.17948E+02  1.20817E+02  1.23757E+02  1.26768E+02  1.29852E+02
#           1.33012E+02  1.36248E+02  1.39563E+02  1.42959E+02  1.46437E+02
#           1.50000E+02
     unit =    2            # unit is [1/cm^2/(MeV/n)/source]
     axis =  eng            # axis of output
     file = detector-01.out  # file name of output for the above axis
   output = f-curr          # surface crossing forward current spectrum
     part =  neutron  
# kf/name :  2112     
#    used :        main (  %)        temp (  %)       total (  %)
#  memory :         414 (  0)           0 (  0)         414 (  0)

#------------------------------------------------------------------------------
#newpage:
#   no. =    1   reg = 100 - 200

x: Energy [MeV/n]
y:  F-Curr [1/cm^2/(MeV/n)/source]         
p: xlog ylog afac(0.8) form(0.9)
h: n            x            y(neutron ),hh0l   n 
#  e-lower      e-upper      neutron     r.err 
   1.0000E-02   1.0243E-02   1.3056E-04  0.0792
   1.0243E-02   1.0493E-02   1.0899E-04  0.0856
   1.0493E-02   1.0748E-02   1.2063E-04  0.0804
   1.0748E-02   1.1009E-02   1.0846E-04  0.0838
   1.1009E-02   1.1277E-02   1.2618E-04  0.0769
   1.1277E-02   1.1552E-02   1.1517E-04  0.0794
   1.1552E-02   1.1833E-02   1.2773E-04  0.0745
   1.1833E-02   1.2121E-02   1.0664E-04  0.0806
   1.2121E-02   1.2415E-02   1.1249E-04  0.0775
   1.2415E-02   1.2718E-02   1.0210E-04  0.0804
   1.2718E-02   1.3027E-02   9.5565E-05  0.0819
   1.3027E-02   1.3344E-02   9.7819E-05  0.0801
   1.3344E-02   1.3669E-02   9.8338E-05  0.0790
   1.3669E-02   1.4001E-02   9.0081E-05  0.0816
   1.4001E-02   1.4342E-02   9.1807E-05  0.0799
   1.4342E-02   1.4691E-02   1.0526E-04  0.0735
   1.4691E-02   1.5048E-02   9.0636E-05  0.0784
   1.5048E-02   1.5414E-02   8.3222E-05  0.0808
   1.5414E-02   1.5789E-02   9.2181E-05  0.0759
   1.5789E-02   1.6174E-02   7.0841E-05  0.0855
   1.6174E-02   1.6567E-02   7.6405E-05  0.0813
   1.6567E-02   1.6970E-02   7.9875E-05  0.0787
   1.6970E-02   1.7383E-02   7.2398E-05  0.0817
   1.7383E-02   1.7806E-02   8.4336E-05  0.0748
   1.7806E-02   1.8239E-02   8.4899E-05  0.0736
   1.8239E-02   1.8683E-02   7.3759E-05  0.0779
   1.8683E-02   1.9138E-02   8.7266E-05  0.0710
   1.9138E-02   1.9603E-02   8.0538E-05  0.0728
   1.9603E-02   2.0080E-02   6.9377E-05  0.0775
   2.0080E-02   2.0569E-02   8.0272E-05  0.0713
   2.0569E-02   2.1069E-02   7.0166E-05  0.0753
   2.1069E-02   2.1582E-02   7.2631E-05  0.0731
   2.1582E-02   2.2107E-02   7.1140E-05  0.0729
   2.2107E-02   2.2645E-02   6.1349E-05  0.0775
   2.2645E-02   2.3196E-02   6.5809E-05  0.0740
   2.3196E-02   2.3760E-02   6.7099E-05  0.0724
   2.3760E-02   2.4338E-02   6.4955E-05  0.0728
   2.4338E-02   2.4930E-02   6.0507E-05  0.0746
   2.4930E-02   2.5537E-02   6.9678E-05  0.0686
   2.5537E-02   2.6158E-02   6.3449E-05  0.0710
   2.6158E-02   2.6795E-02   7.0378E-05  0.0666
   2.6795E-02   2.7447E-02   6.1672E-05  0.0703
   2.7447E-02   2.8114E-02   6.2402E-05  0.0692
   2.8114E-02   2.8799E-02   5.1441E-05  0.0751
   2.8799E-02   2.9499E-02   5.0941E-05  0.0747
   2.9499E-02   3.0217E-02   5.2929E-05  0.0724
   3.0217E-02   3.0952E-02   5.1510E-05  0.0726
   3.0952E-02   3.1705E-02   5.4084E-05  0.0698
   3.1705E-02   3.2477E-02   5.6568E-05  0.0676
   3.2477E-02   3.3267E-02   5.1718E-05  0.0699
   3.3267E-02   3.4076E-02   5.0892E-05  0.0696
   3.4076E-02   3.4905E-02   4.8684E-05  0.0703
   3.4905E-02   3.5755E-02   4.8926E-05  0.0693
   3.5755E-02   3.6625E-02   4.8854E-05  0.0685
   3.6625E-02   3.7516E-02   4.8801E-05  0.0677
   3.7516E-02   3.8428E-02   4.1655E-05  0.0724
   3.8428E-02   3.9363E-02   3.8608E-05  0.0742
   3.9363E-02   4.0321E-02   4.2450E-05  0.0699
   4.0321E-02   4.1302E-02   4.2956E-05  0.0688
   4.1302E-02   4.2307E-02   4.4796E-05  0.0665
   4.2307E-02   4.3337E-02   3.5891E-05  0.0733
   4.3337E-02   4.4391E-02   4.0903E-05  0.0679
   4.4391E-02   4.5471E-02   4.1279E-05  0.0669
   4.5471E-02   4.6577E-02   3.7361E-05  0.0693
   4.6577E-02   4.7711E-02   3.7822E-05  0.0682
   4.7711E-02   4.8871E-02   4.0574E-05  0.0651
   4.8871E-02   5.0061E-02   3.5329E-05  0.0689
   5.0061E-02   5.1279E-02   3.6328E-05  0.0670
   5.1279E-02   5.2526E-02   3.5748E-05  0.0669
   5.2526E-02   5.3804E-02   3.1576E-05  0.0703
   5.3804E-02   5.5113E-02   3.2570E-05  0.0683
   5.5113E-02   5.6454E-02   3.3238E-05  0.0668
   5.6454E-02   5.7828E-02   3.0163E-05  0.0695
   5.7828E-02   5.9235E-02   3.2634E-05  0.0658
   5.9235E-02   6.0676E-02   3.1323E-05  0.0664
   6.0676E-02   6.2152E-02   3.1531E-05  0.0655
   6.2152E-02   6.3665E-02   2.8484E-05  0.0680
   6.3665E-02   6.5214E-02   2.6769E-05  0.0692
   6.5214E-02   6.6800E-02   2.8742E-05  0.0660
   6.6800E-02   6.8426E-02   2.9270E-05  0.0646
   6.8426E-02   7.0090E-02   2.9007E-05  0.0642
   7.0090E-02   7.1796E-02   2.9823E-05  0.0625
   7.1796E-02   7.3543E-02   3.0466E-05  0.0612
   7.3543E-02   7.5332E-02   2.5906E-05  0.0656
   7.5332E-02   7.7165E-02   2.3772E-05  0.0677
   7.7165E-02   7.9042E-02   2.2772E-05  0.0681
   7.9042E-02   8.0965E-02   2.5091E-05  0.0643
   8.0965E-02   8.2935E-02   2.5230E-05  0.0633
   8.2935E-02   8.4953E-02   2.0374E-05  0.0696
   8.4953E-02   8.7020E-02   2.3698E-05  0.0638
   8.7020E-02   8.9138E-02   2.1933E-05  0.0655
   8.9138E-02   9.1306E-02   2.2255E-05  0.0643
   9.1306E-02   9.3528E-02   2.0578E-05  0.0659
   9.3528E-02   9.5804E-02   2.1868E-05  0.0633
   9.5804E-02   9.8134E-02   2.0101E-05  0.0651
   9.8134E-02   1.0052E-01   1.8730E-05  0.0665
   1.0052E-01   1.0297E-01   1.9927E-05  0.0639
   1.0297E-01   1.0547E-01   1.9397E-05  0.0640
   1.0547E-01   1.0804E-01   1.7916E-05  0.0658
   1.0804E-01   1.1067E-01   1.8718E-05  0.0636
   1.1067E-01   1.1336E-01   1.8589E-05  0.0630
   1.1336E-01   1.1612E-01   1.6963E-05  0.0653
   1.1612E-01   1.1894E-01   1.5779E-05  0.0667
   1.1894E-01   1.2184E-01   1.8144E-05  0.0616
   1.2184E-01   1.2480E-01   1.2705E-05  0.0726
   1.2480E-01   1.2784E-01   1.6673E-05  0.0626
   1.2784E-01   1.3095E-01   1.5674E-05  0.0640
   1.3095E-01   1.3414E-01   1.6026E-05  0.0626
   1.3414E-01   1.3740E-01   1.4941E-05  0.0639
   1.3740E-01   1.4074E-01   1.4504E-05  0.0639
   1.4074E-01   1.4417E-01   1.4352E-05  0.0636
   1.4417E-01   1.4767E-01   1.3882E-05  0.0640
   1.4767E-01   1.5127E-01   1.3564E-05  0.0640
   1.5127E-01   1.5495E-01   1.3142E-05  0.0641
   1.5495E-01   1.5872E-01   1.3124E-05  0.0634
   1.5872E-01   1.6258E-01   1.3862E-05  0.0609
   1.6258E-01   1.6654E-01   1.2485E-05  0.0633
   1.6654E-01   1.7059E-01   1.3918E-05  0.0595
   1.7059E-01   1.7474E-01   1.1055E-05  0.0659
   1.7474E-01   1.7899E-01   1.0734E-05  0.0659
   1.7899E-01   1.8334E-01   1.2270E-05  0.0609
   1.8334E-01   1.8781E-01   1.2073E-05  0.0608
   1.8781E-01   1.9237E-01   1.1140E-05  0.0626
   1.9237E-01   1.9706E-01   9.6776E-06  0.0663
   1.9706E-01   2.0185E-01   9.7576E-06  0.0653
   2.0185E-01   2.0676E-01   1.1528E-05  0.0592
   2.0676E-01   2.1179E-01   1.0460E-05  0.0615
   2.1179E-01   2.1694E-01   1.1733E-05  0.0574
   2.1694E-01   2.2222E-01   1.1739E-05  0.0567
   2.2222E-01   2.2763E-01   1.2843E-05  0.0535
   2.2763E-01   2.3317E-01   1.3053E-05  0.0525
   2.3317E-01   2.3884E-01   1.2785E-05  0.0524
   2.3884E-01   2.4465E-01   1.3288E-05  0.0508
   2.4465E-01   2.5061E-01   1.2773E-05  0.0511
   2.5061E-01   2.5670E-01   1.3186E-05  0.0498
   2.5670E-01   2.6295E-01   1.4454E-05  0.0470
   2.6295E-01   2.6935E-01   1.4948E-05  0.0456
   2.6935E-01   2.7590E-01   1.4874E-05  0.0452
   2.7590E-01   2.8261E-01   1.4383E-05  0.0454
   2.8261E-01   2.8949E-01   1.6807E-05  0.0415
   2.8949E-01   2.9653E-01   1.4872E-05  0.0436
   2.9653E-01   3.0375E-01   1.6100E-05  0.0414
   3.0375E-01   3.1114E-01   1.7241E-05  0.0395
   3.1114E-01   3.1871E-01   1.7147E-05  0.0392
   3.1871E-01   3.2646E-01   1.7015E-05  0.0389
   3.2646E-01   3.3441E-01   1.8237E-05  0.0371
   3.3441E-01   3.4254E-01   1.9227E-05  0.0357
   3.4254E-01   3.5088E-01   1.7830E-05  0.0366
   3.5088E-01   3.5941E-01   1.7139E-05  0.0369
   3.5941E-01   3.6816E-01   1.9306E-05  0.0344
   3.6816E-01   3.7712E-01   1.8358E-05  0.0348
   3.7712E-01   3.8629E-01   1.9392E-05  0.0334
   3.8629E-01   3.9569E-01   1.9657E-05  0.0328
   3.9569E-01   4.0532E-01   2.0970E-05  0.0314
   4.0532E-01   4.1518E-01   2.0641E-05  0.0313
   4.1518E-01   4.2528E-01   2.1050E-05  0.0306
   4.2528E-01   4.3563E-01   2.0994E-05  0.0303
   4.3563E-01   4.4623E-01   2.1400E-05  0.0296
   4.4623E-01   4.5708E-01   2.0344E-05  0.0300
   4.5708E-01   4.6821E-01   2.3175E-05  0.0278
   4.6821E-01   4.7960E-01   2.2185E-05  0.0281
   4.7960E-01   4.9127E-01   2.3470E-05  0.0270
   4.9127E-01   5.0322E-01   2.3844E-05  0.0264
   5.0322E-01   5.1546E-01   2.4080E-05  0.0260
   5.1546E-01   5.2800E-01   2.3160E-05  0.0262
   5.2800E-01   5.4085E-01   2.3862E-05  0.0255
   5.4085E-01   5.5401E-01   2.3662E-05  0.0253
   5.5401E-01   5.6749E-01   2.4852E-05  0.0244
   5.6749E-01   5.8130E-01   2.5430E-05  0.0238
   5.8130E-01   5.9544E-01   2.3846E-05  0.0243
   5.9544E-01   6.0993E-01   2.6006E-05  0.0230
   6.0993E-01   6.2477E-01   2.5747E-05  0.0228
   6.2477E-01   6.3997E-01   2.6248E-05  0.0223
   6.3997E-01   6.5554E-01   2.7167E-05  0.0217
   6.5554E-01   6.7149E-01   2.6950E-05  0.0215
   6.7149E-01   6.8783E-01   2.5843E-05  0.0217
   6.8783E-01   7.0456E-01   2.6629E-05  0.0212
   7.0456E-01   7.2171E-01   2.7281E-05  0.0206
   7.2171E-01   7.3927E-01   2.7414E-05  0.0204
   7.3927E-01   7.5725E-01   2.7691E-05  0.0200
   7.5725E-01   7.7568E-01   2.8120E-05  0.0196
   7.7568E-01   7.9455E-01   2.6707E-05  0.0199
   7.9455E-01   8.1388E-01   2.7627E-05  0.0193
   8.1388E-01   8.3368E-01   2.8292E-05  0.0189
   8.3368E-01   8.5397E-01   2.8754E-05  0.0185
   8.5397E-01   8.7475E-01   2.9738E-05  0.0180
   8.7475E-01   8.9603E-01   2.9470E-05  0.0178
   8.9603E-01   9.1783E-01   2.9422E-05  0.0176
   9.1783E-01   9.4016E-01   3.0377E-05  0.0171
   9.4016E-01   9.6304E-01   3.0050E-05  0.0170
   9.6304E-01   9.8647E-01   2.8907E-05  0.0172
   9.8647E-01   1.0105E+00   3.0112E-05  0.0166
   1.0105E+00   1.0351E+00   3.0386E-05  0.0163
   1.0351E+00   1.0602E+00   2.9602E-05  0.0163
   1.0602E+00   1.0860E+00   3.0993E-05  0.0158
   1.0860E+00   1.1125E+00   3.1534E-05  0.0155
   1.1125E+00   1.1395E+00   3.0639E-05  0.0155
   1.1395E+00   1.1673E+00   3.1363E-05  0.0151
   1.1673E+00   1.1957E+00   3.1434E-05  0.0149
   1.1957E+00   1.2247E+00   3.1631E-05  0.0147
   1.2247E+00   1.2545E+00   3.1936E-05  0.0145
   1.2545E+00   1.2851E+00   3.2673E-05  0.0141
   1.2851E+00   1.3163E+00   3.1994E-05  0.0141
   1.3163E+00   1.3484E+00   3.3081E-05  0.0137
   1.3484E+00   1.3812E+00   3.3543E-05  0.0135
   1.3812E+00   1.4148E+00   3.2761E-05  0.0135
   1.4148E+00   1.4492E+00   3.2892E-05  0.0133
   1.4492E+00   1.4845E+00   3.3984E-05  0.0129
   1.4845E+00   1.5206E+00   3.4298E-05  0.0127
   1.5206E+00   1.5576E+00   3.3767E-05  0.0126
   1.5576E+00   1.5955E+00   3.4574E-05  0.0123
   1.5955E+00   1.6343E+00   3.3312E-05  0.0124
   1.6343E+00   1.6741E+00   3.3861E-05  0.0122
   1.6741E+00   1.7148E+00   3.4933E-05  0.0118
   1.7148E+00   1.7565E+00   3.5652E-05  0.0116
   1.7565E+00   1.7992E+00   3.7148E-05  0.0112
   1.7992E+00   1.8430E+00   3.7517E-05  0.0110
   1.8430E+00   1.8879E+00   3.6027E-05  0.0111
   1.8879E+00   1.9338E+00   3.7054E-05  0.0108
   1.9338E+00   1.9808E+00   3.6800E-05  0.0107
   1.9808E+00   2.0290E+00   3.5924E-05  0.0107
   2.0290E+00   2.0784E+00   3.5643E-05  0.0106
   2.0784E+00   2.1290E+00   3.5067E-05  0.0106
   2.1290E+00   2.1808E+00   3.6344E-05  0.0103
   2.1808E+00   2.2338E+00   3.5880E-05  0.0102
   2.2338E+00   2.2882E+00   3.5663E-05  0.0101
   2.2882E+00   2.3439E+00   3.5947E-05  0.0100
   2.3439E+00   2.4009E+00   3.5874E-05  0.0099
   2.4009E+00   2.4593E+00   3.5583E-05  0.0098
   2.4593E+00   2.5191E+00   3.6082E-05  0.0096
   2.5191E+00   2.5804E+00   3.5957E-05  0.0095
   2.5804E+00   2.6432E+00   3.5883E-05  0.0094
   2.6432E+00   2.7075E+00   3.6325E-05  0.0092
   2.7075E+00   2.7734E+00   3.5915E-05  0.0092
   2.7734E+00   2.8409E+00   3.6114E-05  0.0090
   2.8409E+00   2.9100E+00   3.6252E-05  0.0089
   2.9100E+00   2.9808E+00   3.6072E-05  0.0088
   2.9808E+00   3.0533E+00   3.6719E-05  0.0087
   3.0533E+00   3.1276E+00   3.6736E-05  0.0085
   3.1276E+00   3.2037E+00   3.6634E-05  0.0085
   3.2037E+00   3.2817E+00   3.6056E-05  0.0084
   3.2817E+00   3.3615E+00   3.6223E-05  0.0083
   3.3615E+00   3.4433E+00   3.6789E-05  0.0081
   3.4433E+00   3.5271E+00   3.6134E-05  0.0081
   3.5271E+00   3.6129E+00   3.6480E-05  0.0080
   3.6129E+00   3.7008E+00   3.6450E-05  0.0079
   3.7008E+00   3.7908E+00   3.6052E-05  0.0078
   3.7908E+00   3.8831E+00   3.6337E-05  0.0077
   3.8831E+00   3.9776E+00   3.6130E-05  0.0076
   3.9776E+00   4.0743E+00   3.6437E-05  0.0075
   4.0743E+00   4.1735E+00   3.6457E-05  0.0074
   4.1735E+00   4.2750E+00   3.6972E-05  0.0073
   4.2750E+00   4.3790E+00   3.6876E-05  0.0072
   4.3790E+00   4.4856E+00   3.6690E-05  0.0071
   4.4856E+00   4.5947E+00   3.7081E-05  0.0070
   4.5947E+00   4.7065E+00   3.7306E-05  0.0069
   4.7065E+00   4.8210E+00   3.8400E-05  0.0067
   4.8210E+00   4.9383E+00   3.7993E-05  0.0067
   4.9383E+00   5.0585E+00   3.8444E-05  0.0066
   5.0585E+00   5.1815E+00   3.9548E-05  0.0064
   5.1815E+00   5.3076E+00   3.9351E-05  0.0063
   5.3076E+00   5.4368E+00   3.8844E-05  0.0063
   5.4368E+00   5.5690E+00   3.9090E-05  0.0062
   5.5690E+00   5.7045E+00   3.9513E-05  0.0061
   5.7045E+00   5.8433E+00   3.9840E-05  0.0060
   5.8433E+00   5.9855E+00   3.9568E-05  0.0060
   5.9855E+00   6.1311E+00   4.0176E-05  0.0058
   6.1311E+00   6.2803E+00   3.9760E-05  0.0058
   6.2803E+00   6.4331E+00   4.0469E-05  0.0057
   6.4331E+00   6.5896E+00   4.0795E-05  0.0056
   6.5896E+00   6.7500E+00   4.0777E-05  0.0055
   6.7500E+00   6.9142E+00   4.1322E-05  0.0054
   6.9142E+00   7.0824E+00   4.1466E-05  0.0054
   7.0824E+00   7.2548E+00   4.1664E-05  0.0053
   7.2548E+00   7.4313E+00   4.2180E-05  0.0052
   7.4313E+00   7.6121E+00   4.1954E-05  0.0051
   7.6121E+00   7.7973E+00   4.2236E-05  0.0051
   7.7973E+00   7.9870E+00   4.2665E-05  0.0050
   7.9870E+00   8.1813E+00   4.3214E-05  0.0049
   8.1813E+00   8.3804E+00   4.3187E-05  0.0048
   8.3804E+00   8.5843E+00   4.4071E-05  0.0047
   8.5843E+00   8.7931E+00   4.3911E-05  0.0047
   8.7931E+00   9.0071E+00   4.4096E-05  0.0046
   9.0071E+00   9.2262E+00   4.4607E-05  0.0045
   9.2262E+00   9.4507E+00   4.5002E-05  0.0044
   9.4507E+00   9.6807E+00   4.6009E-05  0.0043
   9.6807E+00   9.9162E+00   4.6365E-05  0.0043
   9.9162E+00   1.0157E+01   4.6920E-05  0.0042
   1.0157E+01   1.0405E+01   4.7810E-05  0.0041
   1.0405E+01   1.0658E+01   4.8232E-05  0.0040
   1.0658E+01   1.0917E+01   4.8843E-05  0.0040
   1.0917E+01   1.1183E+01   4.9441E-05  0.0039
   1.1183E+01   1.1455E+01   5.0567E-05  0.0038
   1.1455E+01   1.1733E+01   5.1294E-05  0.0037
   1.1733E+01   1.2019E+01   5.2584E-05  0.0036
   1.2019E+01   1.2311E+01   5.3267E-05  0.0036
   1.2311E+01   1.2611E+01   5.4662E-05  0.0035
   1.2611E+01   1.2918E+01   5.5810E-05  0.0034
   1.2918E+01   1.3232E+01   5.7039E-05  0.0033
   1.3232E+01   1.3554E+01   5.8836E-05  0.0032
   1.3554E+01   1.3884E+01   5.9855E-05  0.0032
   1.3884E+01   1.4222E+01   6.2095E-05  0.0031
   1.4222E+01   1.4568E+01   6.3982E-05  0.0030
   1.4568E+01   1.4922E+01   6.5798E-05  0.0029
   1.4922E+01   1.5285E+01   6.7906E-05  0.0028
   1.5285E+01   1.5657E+01   7.0029E-05  0.0028
   1.5657E+01   1.6038E+01   7.2569E-05  0.0027
   1.6038E+01   1.6428E+01   7.4946E-05  0.0026
   1.6428E+01   1.6828E+01   7.7846E-05  0.0025
   1.6828E+01   1.7237E+01   7.9752E-05  0.0025
   1.7237E+01   1.7657E+01   8.2931E-05  0.0024
   1.7657E+01   1.8086E+01   8.5592E-05  0.0023
   1.8086E+01   1.8526E+01   8.8726E-05  0.0023
   1.8526E+01   1.8977E+01   9.1449E-05  0.0022
   1.8977E+01   1.9439E+01   9.4418E-05  0.0021
   1.9439E+01   1.9912E+01   9.7098E-05  0.0021
   1.9912E+01   2.0396E+01   1.0058E-04  0.0020
   2.0396E+01   2.0893E+01   1.0291E-04  0.0020
   2.0893E+01   2.1401E+01   1.0543E-04  0.0019
   2.1401E+01   2.1922E+01   1.0713E-04  0.0019
   2.1922E+01   2.2455E+01   1.0903E-04  0.0019
   2.2455E+01   2.3001E+01   1.1043E-04  0.0018
   2.3001E+01   2.3561E+01   1.1088E-04  0.0018
   2.3561E+01   2.4134E+01   1.1142E-04  0.0018
   2.4134E+01   2.4721E+01   1.1119E-04  0.0018
   2.4721E+01   2.5323E+01   1.1004E-04  0.0017
   2.5323E+01   2.5939E+01   1.0857E-04  0.0017
   2.5939E+01   2.6570E+01   1.0639E-04  0.0017
   2.6570E+01   2.7217E+01   1.0350E-04  0.0017
   2.7217E+01   2.7879E+01   1.0061E-04  0.0017
   2.7879E+01   2.8557E+01   9.6394E-05  0.0017
   2.8557E+01   2.9252E+01   9.1855E-05  0.0018
   2.9252E+01   2.9964E+01   8.6560E-05  0.0018
   2.9964E+01   3.0693E+01   8.1299E-05  0.0018
   3.0693E+01   3.1440E+01   7.6099E-05  0.0019
   3.1440E+01   3.2205E+01   7.0046E-05  0.0019
   3.2205E+01   3.2988E+01   6.4646E-05  0.0020
   3.2988E+01   3.3791E+01   5.8807E-05  0.0021
   3.3791E+01   3.4613E+01   5.3577E-05  0.0021
   3.4613E+01   3.5455E+01   4.8053E-05  0.0022
   3.5455E+01   3.6318E+01   4.3074E-05  0.0023
   3.6318E+01   3.7201E+01   3.8509E-05  0.0024
   3.7201E+01   3.8106E+01   3.4319E-05  0.0025
   3.8106E+01   3.9034E+01   3.0326E-05  0.0027
   3.9034E+01   3.9983E+01   2.6482E-05  0.0028
   3.9983E+01   4.0956E+01   2.3323E-05  0.0030
   4.0956E+01   4.1953E+01   2.0434E-05  0.0031
   4.1953E+01   4.2973E+01   1.7845E-05  0.0033
   4.2973E+01   4.4019E+01   1.5471E-05  0.0035
   4.4019E+01   4.5090E+01   1.3531E-05  0.0037
   4.5090E+01   4.6187E+01   1.1860E-05  0.0039
   4.6187E+01   4.7311E+01   1.0799E-05  0.0041
   4.7311E+01   4.8462E+01   9.9474E-06  0.0042
   4.8462E+01   4.9641E+01   9.0507E-06  0.0043
   4.9641E+01   5.0849E+01   8.4828E-06  0.0044
   5.0849E+01   5.2086E+01   7.8159E-06  0.0045
   5.2086E+01   5.3353E+01   7.2567E-06  0.0047
   5.3353E+01   5.4651E+01   7.1626E-06  0.0046
   5.4651E+01   5.5981E+01   6.8200E-06  0.0047
   5.5981E+01   5.7343E+01   6.4295E-06  0.0048
   5.7343E+01   5.8738E+01   6.1627E-06  0.0048
   5.8738E+01   6.0168E+01   5.7827E-06  0.0049
   6.0168E+01   6.1632E+01   5.2675E-06  0.0051
   6.1632E+01   6.3131E+01   4.5060E-06  0.0054
   6.3131E+01   6.4667E+01   4.1784E-06  0.0056
   6.4667E+01   6.6240E+01   3.4587E-06  0.0061
   6.6240E+01   6.7852E+01   3.0492E-06  0.0064
   6.7852E+01   6.9503E+01   2.7052E-06  0.0067
   6.9503E+01   7.1194E+01   2.0805E-06  0.0075
   7.1194E+01   7.2926E+01   1.3356E-06  0.0093
   7.2926E+01   7.4701E+01   7.1620E-07  0.0125
   7.4701E+01   7.6518E+01   1.3777E-07  0.0283
   7.6518E+01   7.8380E+01   0.0000E+00  0.0000
   7.8380E+01   8.0287E+01   0.0000E+00  0.0000
   8.0287E+01   8.2240E+01   0.0000E+00  0.0000
   8.2240E+01   8.4241E+01   0.0000E+00  0.0000
   8.4241E+01   8.6291E+01   0.0000E+00  0.0000
   8.6291E+01   8.8391E+01   0.0000E+00  0.0000
   8.8391E+01   9.0541E+01   0.0000E+00  0.0000
   9.0541E+01   9.2744E+01   0.0000E+00  0.0000
   9.2744E+01   9.5001E+01   0.0000E+00  0.0000
   9.5001E+01   9.7312E+01   0.0000E+00  0.0000
   9.7312E+01   9.9680E+01   0.0000E+00  0.0000
   9.9680E+01   1.0211E+02   0.0000E+00  0.0000
   1.0211E+02   1.0459E+02   0.0000E+00  0.0000
   1.0459E+02   1.0713E+02   0.0000E+00  0.0000
   1.0713E+02   1.0974E+02   0.0000E+00  0.0000
   1.0974E+02   1.1241E+02   0.0000E+00  0.0000
   1.1241E+02   1.1515E+02   0.0000E+00  0.0000
   1.1515E+02   1.1795E+02   0.0000E+00  0.0000
   1.1795E+02   1.2082E+02   0.0000E+00  0.0000
   1.2082E+02   1.2376E+02   0.0000E+00  0.0000
   1.2376E+02   1.2677E+02   0.0000E+00  0.0000
   1.2677E+02   1.2985E+02   0.0000E+00  0.0000
   1.2985E+02   1.3301E+02   0.0000E+00  0.0000
   1.3301E+02   1.3625E+02   0.0000E+00  0.0000
   1.3625E+02   1.3956E+02   0.0000E+00  0.0000
   1.3956E+02   1.4296E+02   0.0000E+00  0.0000
   1.4296E+02   1.4644E+02   0.0000E+00  0.0000
   1.4644E+02   1.5000E+02   0.0000E+00  0.0000

#   sum over                 1.9138E-05
'no. =    1   reg = 100 - 200'
msuc: {\huge [t-cross] in region mesh}
msdr: {\it plotted by \ANGEL \version}
msdl: {\it calculated by \PHITS  3.28}
wt: s(0.7)
\vspace{-3}
  region surface crossing
  area  &=&   1.0000E+00 [cm^2]
e:
 
# Information for Restart Calculation
# This calculation was newly started
# istdev =  2 # 1:Batch variance, 2:History variance
# resc2  = 5.00000000000000000E+09 # Total source weight or Total source weight / maxcas
# resc3  = 5.00000000000000000E+09 # Total history number or Total batch number
# maxcas =   500000000 # History / Batch, only used for istdev=1
# bitrseed = 0001101011110000011001100100101010101011111110100001111101011101 # bit data of rseed
