[ T-Cross ]
    title = [t-cross] in region mesh
     mesh =  reg            # mesh type is region-wise
      reg =    1            # number of crossing regions
      non     r-from    r-to       area
      1       104       204        1.000000    
   e-type =    3            # e-mesh is log given by emin, emax and ne
     emin =  1.0000000E-02  # minimum value of e-mesh points
     emax =   150.0000      # maximum value of e-mesh points
#    edel =  2.4039514E-02  # mesh width of e-mesh points
       ne =    400          # number of e-mesh points
#    data = ( e(i), i = 1, ne + 1 )
#           1.00000E-02  1.02433E-02  1.04925E-02  1.07478E-02  1.10093E-02
#           1.12772E-02  1.15516E-02  1.18326E-02  1.21205E-02  1.24154E-02
#           1.27175E-02  1.30269E-02  1.33439E-02  1.36686E-02  1.40011E-02
#           1.43418E-02  1.46907E-02  1.50482E-02  1.54143E-02  1.57894E-02
#           1.61735E-02  1.65670E-02  1.69701E-02  1.73830E-02  1.78060E-02
#           1.82392E-02  1.86830E-02  1.91375E-02  1.96032E-02  2.00801E-02
#           2.05687E-02  2.10692E-02  2.15818E-02  2.21069E-02  2.26448E-02
#           2.31957E-02  2.37601E-02  2.43382E-02  2.49304E-02  2.55369E-02
#           2.61583E-02  2.67947E-02  2.74467E-02  2.81145E-02  2.87985E-02
#           2.94992E-02  3.02169E-02  3.09521E-02  3.17052E-02  3.24766E-02
#           3.32668E-02  3.40762E-02  3.49053E-02  3.57546E-02  3.66246E-02
#           3.75157E-02  3.84284E-02  3.93634E-02  4.03212E-02  4.13022E-02
#           4.23071E-02  4.33365E-02  4.43909E-02  4.54710E-02  4.65773E-02
#           4.77106E-02  4.88714E-02  5.00605E-02  5.12785E-02  5.25262E-02
#           5.38042E-02  5.51133E-02  5.64542E-02  5.78278E-02  5.92348E-02
#           6.06760E-02  6.21523E-02  6.36645E-02  6.52135E-02  6.68002E-02
#           6.84255E-02  7.00904E-02  7.17957E-02  7.35426E-02  7.53319E-02
#           7.71648E-02  7.90423E-02  8.09655E-02  8.29354E-02  8.49533E-02
#           8.70203E-02  8.91376E-02  9.13064E-02  9.35279E-02  9.58035E-02
#           9.81345E-02  1.00522E-01  1.02968E-01  1.05473E-01  1.08040E-01
#           1.10668E-01  1.13361E-01  1.16119E-01  1.18944E-01  1.21838E-01
#           1.24803E-01  1.27839E-01  1.30950E-01  1.34136E-01  1.37399E-01
#           1.40742E-01  1.44167E-01  1.47675E-01  1.51268E-01  1.54948E-01
#           1.58718E-01  1.62580E-01  1.66535E-01  1.70587E-01  1.74738E-01
#           1.78989E-01  1.83344E-01  1.87805E-01  1.92375E-01  1.97055E-01
#           2.01850E-01  2.06761E-01  2.11792E-01  2.16945E-01  2.22223E-01
#           2.27630E-01  2.33169E-01  2.38842E-01  2.44653E-01  2.50605E-01
#           2.56703E-01  2.62949E-01  2.69346E-01  2.75900E-01  2.82613E-01
#           2.89489E-01  2.96532E-01  3.03747E-01  3.11138E-01  3.18708E-01
#           3.26462E-01  3.34405E-01  3.42542E-01  3.50876E-01  3.59413E-01
#           3.68158E-01  3.77116E-01  3.86291E-01  3.95690E-01  4.05317E-01
#           4.15179E-01  4.25281E-01  4.35628E-01  4.46227E-01  4.57084E-01
#           4.68205E-01  4.79597E-01  4.91266E-01  5.03219E-01  5.15463E-01
#           5.28005E-01  5.40851E-01  5.54011E-01  5.67490E-01  5.81298E-01
#           5.95441E-01  6.09929E-01  6.24769E-01  6.39970E-01  6.55541E-01
#           6.71491E-01  6.87828E-01  7.04564E-01  7.21706E-01  7.39266E-01
#           7.57253E-01  7.75678E-01  7.94551E-01  8.13883E-01  8.33685E-01
#           8.53969E-01  8.74747E-01  8.96030E-01  9.17831E-01  9.40163E-01
#           9.63038E-01  9.86469E-01  1.01047E+00  1.03506E+00  1.06024E+00
#           1.08604E+00  1.11246E+00  1.13953E+00  1.16725E+00  1.19565E+00
#           1.22474E+00  1.25454E+00  1.28507E+00  1.31633E+00  1.34836E+00
#           1.38117E+00  1.41477E+00  1.44920E+00  1.48446E+00  1.52057E+00
#           1.55757E+00  1.59547E+00  1.63429E+00  1.67405E+00  1.71478E+00
#           1.75650E+00  1.79924E+00  1.84302E+00  1.88786E+00  1.93379E+00
#           1.98084E+00  2.02904E+00  2.07841E+00  2.12898E+00  2.18078E+00
#           2.23384E+00  2.28819E+00  2.34386E+00  2.40089E+00  2.45930E+00
#           2.51914E+00  2.58043E+00  2.64322E+00  2.70753E+00  2.77341E+00
#           2.84088E+00  2.91001E+00  2.98081E+00  3.05333E+00  3.12762E+00
#           3.20372E+00  3.28167E+00  3.36152E+00  3.44330E+00  3.52708E+00
#           3.61290E+00  3.70080E+00  3.79085E+00  3.88308E+00  3.97756E+00
#           4.07434E+00  4.17347E+00  4.27501E+00  4.37903E+00  4.48557E+00
#           4.59471E+00  4.70650E+00  4.82102E+00  4.93832E+00  5.05847E+00
#           5.18155E+00  5.30762E+00  5.43676E+00  5.56904E+00  5.70453E+00
#           5.84333E+00  5.98550E+00  6.13114E+00  6.28031E+00  6.43312E+00
#           6.58964E+00  6.74997E+00  6.91420E+00  7.08243E+00  7.25475E+00
#           7.43126E+00  7.61207E+00  7.79728E+00  7.98700E+00  8.18133E+00
#           8.38038E+00  8.58428E+00  8.79315E+00  9.00709E+00  9.22624E+00
#           9.45072E+00  9.68067E+00  9.91620E+00  1.01575E+01  1.04046E+01
#           1.06578E+01  1.09171E+01  1.11827E+01  1.14548E+01  1.17335E+01
#           1.20190E+01  1.23114E+01  1.26109E+01  1.29178E+01  1.32321E+01
#           1.35540E+01  1.38838E+01  1.42216E+01  1.45676E+01  1.49221E+01
#           1.52851E+01  1.56570E+01  1.60380E+01  1.64282E+01  1.68279E+01
#           1.72374E+01  1.76568E+01  1.80864E+01  1.85264E+01  1.89772E+01
#           1.94389E+01  1.99119E+01  2.03963E+01  2.08926E+01  2.14009E+01
#           2.19216E+01  2.24550E+01  2.30014E+01  2.35610E+01  2.41343E+01
#           2.47215E+01  2.53230E+01  2.59391E+01  2.65702E+01  2.72167E+01
#           2.78789E+01  2.85572E+01  2.92520E+01  2.99637E+01  3.06928E+01
#           3.14396E+01  3.22045E+01  3.29881E+01  3.37907E+01  3.46128E+01
#           3.54550E+01  3.63177E+01  3.72013E+01  3.81064E+01  3.90336E+01
#           3.99833E+01  4.09561E+01  4.19526E+01  4.29734E+01  4.40189E+01
#           4.50900E+01  4.61870E+01  4.73108E+01  4.84619E+01  4.96410E+01
#           5.08488E+01  5.20860E+01  5.33533E+01  5.46514E+01  5.59812E+01
#           5.73432E+01  5.87384E+01  6.01676E+01  6.16315E+01  6.31311E+01
#           6.46671E+01  6.62405E+01  6.78522E+01  6.95031E+01  7.11941E+01
#           7.29263E+01  7.47007E+01  7.65182E+01  7.83800E+01  8.02870E+01
#           8.22405E+01  8.42414E+01  8.62911E+01  8.83906E+01  9.05412E+01
#           9.27442E+01  9.50007E+01  9.73122E+01  9.96799E+01  1.02105E+02
#           1.04589E+02  1.07134E+02  1.09741E+02  1.12411E+02  1.15146E+02
#           1.17948E+02  1.20817E+02  1.23757E+02  1.26768E+02  1.29852E+02
#           1.33012E+02  1.36248E+02  1.39563E+02  1.42959E+02  1.46437E+02
#           1.50000E+02
     unit =    2            # unit is [1/cm^2/(MeV/n)/source]
     axis =  eng            # axis of output
     file = detector-05.out  # file name of output for the above axis
   output = f-curr          # surface crossing forward current spectrum
     part =  neutron  
# kf/name :  2112     
#    used :        main (  %)        temp (  %)       total (  %)
#  memory :         414 (  0)           0 (  0)         414 (  0)

#------------------------------------------------------------------------------
#newpage:
#   no. =    1   reg = 104 - 204

x: Energy [MeV/n]
y:  F-Curr [1/cm^2/(MeV/n)/source]         
p: xlog ylog afac(0.8) form(0.9)
h: n            x            y(neutron ),hh0l   n 
#  e-lower      e-upper      neutron     r.err 
   1.0000E-02   1.0243E-02   3.0309E-05  0.1644
   1.0243E-02   1.0493E-02   3.5396E-05  0.1498
   1.0493E-02   1.0748E-02   3.5616E-05  0.1476
   1.0748E-02   1.1009E-02   2.3690E-05  0.1796
   1.1009E-02   1.1277E-02   2.3814E-05  0.1768
   1.1277E-02   1.1552E-02   2.8403E-05  0.1601
   1.1552E-02   1.1833E-02   2.9859E-05  0.1543
   1.1833E-02   1.2121E-02   3.3252E-05  0.1443
   1.2121E-02   1.2415E-02   2.1779E-05  0.1760
   1.2415E-02   1.2718E-02   2.4917E-05  0.1623
   1.2718E-02   1.3027E-02   2.7046E-05  0.1543
   1.3027E-02   1.3344E-02   1.7024E-05  0.1925
   1.3344E-02   1.3669E-02   2.2108E-05  0.1667
   1.3669E-02   1.4001E-02   2.9451E-05  0.1429
   1.4001E-02   1.4342E-02   2.3112E-05  0.1584
   1.4342E-02   1.4691E-02   2.6820E-05  0.1459
   1.4691E-02   1.5048E-02   2.0021E-05  0.1667
   1.5048E-02   1.5414E-02   2.3975E-05  0.1508
   1.5414E-02   1.5789E-02   2.1850E-05  0.1562
   1.5789E-02   1.6174E-02   2.0087E-05  0.1602
   1.6174E-02   1.6567E-02   2.0812E-05  0.1562
   1.6567E-02   1.6970E-02   1.7334E-05  0.1690
   1.6970E-02   1.7383E-02   1.9360E-05  0.1581
   1.7383E-02   1.7806E-02   1.6932E-05  0.1667
   1.7806E-02   1.8239E-02   1.5215E-05  0.1741
   1.8239E-02   1.8683E-02   1.6651E-05  0.1644
   1.8683E-02   1.9138E-02   1.4862E-05  0.1716
   1.9138E-02   1.9603E-02   1.5400E-05  0.1667
   1.9603E-02   2.0080E-02   1.2149E-05  0.1857
   2.0080E-02   2.0569E-02   1.4310E-05  0.1690
   2.0569E-02   2.1069E-02   1.8288E-05  0.1475
   2.1069E-02   2.1582E-02   1.8712E-05  0.1443
   2.1582E-02   2.2107E-02   1.5893E-05  0.1544
   2.2107E-02   2.2645E-02   1.2630E-05  0.1715
   2.2645E-02   2.3196E-02   1.1222E-05  0.1796
   2.3196E-02   2.3760E-02   1.1328E-05  0.1768
   2.3760E-02   2.4338E-02   1.1718E-05  0.1715
   2.4338E-02   2.4930E-02   1.5179E-05  0.1491
   2.4930E-02   2.5537E-02   1.2114E-05  0.1645
   2.5537E-02   2.6158E-02   1.3473E-05  0.1543
   2.6158E-02   2.6795E-02   1.1305E-05  0.1667
   2.6795E-02   2.7447E-02   1.1037E-05  0.1667
   2.7447E-02   2.8114E-02   8.6696E-06  0.1857
   2.8114E-02   2.8799E-02   1.0127E-05  0.1691
   2.8799E-02   2.9499E-02   1.1400E-05  0.1581
   2.9499E-02   3.0217E-02   1.0810E-05  0.1602
   3.0217E-02   3.0952E-02   1.1138E-05  0.1562
   3.0952E-02   3.1705E-02   1.0605E-05  0.1581
   3.1705E-02   3.2477E-02   1.1075E-05  0.1525
   3.2477E-02   3.3267E-02   9.5845E-06  0.1622
   3.3267E-02   3.4076E-02   9.3349E-06  0.1623
   3.4076E-02   3.4905E-02   8.8686E-06  0.1644
   3.4905E-02   3.5755E-02   1.2230E-05  0.1387
   3.5755E-02   3.6625E-02   8.5252E-06  0.1633
   3.6625E-02   3.7516E-02   6.7065E-06  0.1826
   3.7516E-02   3.8428E-02   7.6411E-06  0.1690
   3.8428E-02   3.9363E-02   8.1055E-06  0.1622
   3.9363E-02   4.0321E-02   1.0165E-05  0.1429
   4.0321E-02   4.1302E-02   8.3025E-06  0.1563
   4.1302E-02   4.2307E-02   6.3624E-06  0.1768
   4.2307E-02   4.3337E-02   6.9866E-06  0.1667
   4.3337E-02   4.4391E-02   6.9721E-06  0.1645
   4.4391E-02   4.5471E-02   8.1263E-06  0.1508
   4.5471E-02   4.6577E-02   7.9289E-06  0.1508
   4.6577E-02   4.7711E-02   4.9376E-06  0.1890
   4.7711E-02   4.8871E-02   6.3682E-06  0.1644
   4.8871E-02   5.0061E-02   5.5062E-06  0.1742
   5.0061E-02   5.1279E-02   5.7264E-06  0.1690
   5.1279E-02   5.2526E-02   5.2844E-06  0.1741
   5.2526E-02   5.3804E-02   5.0008E-06  0.1768
   5.3804E-02   5.5113E-02   5.7938E-06  0.1622
   5.5113E-02   5.6454E-02   6.8918E-06  0.1467
   5.6454E-02   5.7828E-02   3.3211E-06  0.2086
   5.7828E-02   5.9235E-02   5.6778E-06  0.1581
   5.9235E-02   6.0676E-02   5.9605E-06  0.1525
   6.0676E-02   6.2152E-02   6.7117E-06  0.1416
   6.2152E-02   6.3665E-02   4.6134E-06  0.1690
   6.3665E-02   6.5214E-02   4.7455E-06  0.1645
   6.5214E-02   6.6800E-02   5.5366E-06  0.1508
   6.6800E-02   6.8426E-02   5.1479E-06  0.1543
   6.8426E-02   7.0090E-02   6.6756E-06  0.1337
   7.0090E-02   7.1796E-02   5.5016E-06  0.1459
   7.1796E-02   7.3543E-02   5.4664E-06  0.1444
   7.3543E-02   7.5332E-02   5.6942E-06  0.1400
   7.5332E-02   7.7165E-02   3.1594E-06  0.1857
   7.7165E-02   7.9042E-02   5.4068E-06  0.1401
   7.9042E-02   8.0965E-02   4.6716E-06  0.1491
   8.0965E-02   8.2935E-02   3.7504E-06  0.1644
   8.2935E-02   8.4953E-02   5.2283E-06  0.1374
   8.4953E-02   8.7020E-02   4.0577E-06  0.1543
   8.7020E-02   8.9138E-02   4.1512E-06  0.1508
   8.9138E-02   9.1306E-02   3.9605E-06  0.1525
   9.1306E-02   9.3528E-02   3.9340E-06  0.1503
   9.3528E-02   9.5804E-02   4.2139E-06  0.1443
   9.5804E-02   9.8134E-02   3.9425E-06  0.1474
   9.8134E-02   1.0052E-01   4.5156E-06  0.1361
   1.0052E-01   1.0297E-01   3.3949E-06  0.1545
   1.0297E-01   1.0547E-01   3.5144E-06  0.1500
   1.0547E-01   1.0804E-01   4.5144E-06  0.1313
   1.0804E-01   1.1067E-01   4.8632E-06  0.1250
   1.1067E-01   1.1336E-01   3.5548E-06  0.1443
   1.1336E-01   1.1612E-01   5.2001E-06  0.1179
   1.1612E-01   1.1894E-01   4.0227E-06  0.1325
   1.1894E-01   1.2184E-01   5.2981E-06  0.1140
   1.2184E-01   1.2480E-01   5.0517E-06  0.1155
   1.2480E-01   1.2784E-01   5.5171E-06  0.1091
   1.2784E-01   1.3095E-01   5.5195E-06  0.1078
   1.3095E-01   1.3414E-01   6.7443E-06  0.0963
   1.3414E-01   1.3740E-01   6.5104E-06  0.0967
   1.3740E-01   1.4074E-01   6.7834E-06  0.0938
   1.4074E-01   1.4417E-01   6.5688E-06  0.0941
   1.4417E-01   1.4767E-01   7.0296E-06  0.0898
   1.4767E-01   1.5127E-01   7.2672E-06  0.0874
   1.5127E-01   1.5495E-01   7.3744E-06  0.0857
   1.5495E-01   1.5872E-01   8.7515E-06  0.0777
   1.5872E-01   1.6258E-01   8.7039E-06  0.0770
   1.6258E-01   1.6654E-01   9.7423E-06  0.0720
   1.6654E-01   1.7059E-01   9.3225E-06  0.0727
   1.7059E-01   1.7474E-01   9.6343E-06  0.0706
   1.7474E-01   1.7899E-01   8.6100E-06  0.0738
   1.7899E-01   1.8334E-01   1.0353E-05  0.0665
   1.8334E-01   1.8781E-01   9.7595E-06  0.0677
   1.8781E-01   1.9237E-01   1.0399E-05  0.0648
   1.9237E-01   1.9706E-01   1.0786E-05  0.0629
   1.9706E-01   2.0185E-01   1.0244E-05  0.0638
   2.0185E-01   2.0676E-01   1.2323E-05  0.0574
   2.0676E-01   2.1179E-01   1.0605E-05  0.0611
   2.1179E-01   2.1694E-01   1.1988E-05  0.0568
   2.1694E-01   2.2222E-01   1.2500E-05  0.0550
   2.2222E-01   2.2763E-01   1.2990E-05  0.0533
   2.2763E-01   2.3317E-01   1.3906E-05  0.0509
   2.3317E-01   2.3884E-01   1.2545E-05  0.0529
   2.3884E-01   2.4465E-01   1.5065E-05  0.0477
   2.4465E-01   2.5061E-01   1.4242E-05  0.0485
   2.5061E-01   2.5670E-01   1.4271E-05  0.0479
   2.5670E-01   2.6295E-01   1.4332E-05  0.0472
   2.6295E-01   2.6935E-01   1.5464E-05  0.0449
   2.6935E-01   2.7590E-01   1.5001E-05  0.0450
   2.7590E-01   2.8261E-01   1.4473E-05  0.0453
   2.8261E-01   2.8949E-01   1.7289E-05  0.0410
   2.8949E-01   2.9653E-01   1.6570E-05  0.0413
   2.9653E-01   3.0375E-01   1.7745E-05  0.0395
   3.0375E-01   3.1114E-01   1.6846E-05  0.0400
   3.1114E-01   3.1871E-01   1.7453E-05  0.0388
   3.1871E-01   3.2646E-01   1.8397E-05  0.0374
   3.2646E-01   3.3441E-01   1.8209E-05  0.0371
   3.3441E-01   3.4254E-01   1.9366E-05  0.0356
   3.4254E-01   3.5088E-01   1.8980E-05  0.0355
   3.5088E-01   3.5941E-01   1.8925E-05  0.0351
   3.5941E-01   3.6816E-01   1.9360E-05  0.0343
   3.6816E-01   3.7712E-01   1.9797E-05  0.0335
   3.7712E-01   3.8629E-01   1.9928E-05  0.0330
   3.8629E-01   3.9569E-01   2.0268E-05  0.0323
   3.9569E-01   4.0532E-01   2.0456E-05  0.0318
   4.0532E-01   4.1518E-01   2.0580E-05  0.0313
   4.1518E-01   4.2528E-01   2.1383E-05  0.0304
   4.2528E-01   4.3563E-01   2.1784E-05  0.0297
   4.3563E-01   4.4623E-01   2.1629E-05  0.0295
   4.4623E-01   4.5708E-01   2.1770E-05  0.0290
   4.5708E-01   4.6821E-01   2.2398E-05  0.0283
   4.6821E-01   4.7960E-01   2.1976E-05  0.0282
   4.7960E-01   4.9127E-01   2.3180E-05  0.0271
   4.9127E-01   5.0322E-01   2.4512E-05  0.0261
   5.0322E-01   5.1546E-01   2.3128E-05  0.0265
   5.1546E-01   5.2800E-01   2.3757E-05  0.0258
   5.2800E-01   5.4085E-01   2.3251E-05  0.0258
   5.4085E-01   5.5401E-01   2.4259E-05  0.0250
   5.5401E-01   5.6749E-01   2.3593E-05  0.0250
   5.6749E-01   5.8130E-01   2.4817E-05  0.0241
   5.8130E-01   5.9544E-01   2.4883E-05  0.0238
   5.9544E-01   6.0993E-01   2.5031E-05  0.0234
   6.0993E-01   6.2477E-01   2.5335E-05  0.0230
   6.2477E-01   6.3997E-01   2.4344E-05  0.0232
   6.3997E-01   6.5554E-01   2.6610E-05  0.0219
   6.5554E-01   6.7149E-01   2.5377E-05  0.0222
   6.7149E-01   6.8783E-01   2.6483E-05  0.0214
   6.8783E-01   7.0456E-01   2.6365E-05  0.0212
   7.0456E-01   7.2171E-01   2.4986E-05  0.0216
   7.2171E-01   7.3927E-01   2.6194E-05  0.0208
   7.3927E-01   7.5725E-01   2.6103E-05  0.0206
   7.5725E-01   7.7568E-01   2.6030E-05  0.0204
   7.7568E-01   7.9455E-01   2.6329E-05  0.0200
   7.9455E-01   8.1388E-01   2.6338E-05  0.0198
   8.1388E-01   8.3368E-01   2.6260E-05  0.0196
   8.3368E-01   8.5397E-01   2.5518E-05  0.0196
   8.5397E-01   8.7475E-01   2.5146E-05  0.0195
   8.7475E-01   8.9603E-01   2.4395E-05  0.0196
   8.9603E-01   9.1783E-01   2.5001E-05  0.0191
   9.1783E-01   9.4016E-01   2.3523E-05  0.0194
   9.4016E-01   9.6304E-01   2.3755E-05  0.0191
   9.6304E-01   9.8647E-01   2.3468E-05  0.0190
   9.8647E-01   1.0105E+00   2.2470E-05  0.0192
   1.0105E+00   1.0351E+00   2.2416E-05  0.0190
   1.0351E+00   1.0602E+00   2.2845E-05  0.0186
   1.0602E+00   1.0860E+00   2.2590E-05  0.0184
   1.0860E+00   1.1125E+00   2.2369E-05  0.0183
   1.1125E+00   1.1395E+00   2.3005E-05  0.0178
   1.1395E+00   1.1673E+00   2.2303E-05  0.0179
   1.1673E+00   1.1957E+00   2.3208E-05  0.0173
   1.1957E+00   1.2247E+00   2.3415E-05  0.0170
   1.2247E+00   1.2545E+00   2.3514E-05  0.0168
   1.2545E+00   1.2851E+00   2.4434E-05  0.0163
   1.2851E+00   1.3163E+00   2.4006E-05  0.0162
   1.3163E+00   1.3484E+00   2.3451E-05  0.0162
   1.3484E+00   1.3812E+00   2.3841E-05  0.0159
   1.3812E+00   1.4148E+00   2.4317E-05  0.0156
   1.4148E+00   1.4492E+00   2.4439E-05  0.0153
   1.4492E+00   1.4845E+00   2.4016E-05  0.0153
   1.4845E+00   1.5206E+00   2.3386E-05  0.0153
   1.5206E+00   1.5576E+00   2.3912E-05  0.0149
   1.5576E+00   1.5955E+00   2.3879E-05  0.0148
   1.5955E+00   1.6343E+00   2.4004E-05  0.0146
   1.6343E+00   1.6741E+00   2.4010E-05  0.0144
   1.6741E+00   1.7148E+00   2.3530E-05  0.0143
   1.7148E+00   1.7565E+00   2.3345E-05  0.0142
   1.7565E+00   1.7992E+00   2.3167E-05  0.0141
   1.7992E+00   1.8430E+00   2.2439E-05  0.0141
   1.8430E+00   1.8879E+00   2.2151E-05  0.0140
   1.8879E+00   1.9338E+00   2.1831E-05  0.0140
   1.9338E+00   1.9808E+00   2.0914E-05  0.0141
   1.9808E+00   2.0290E+00   2.1464E-05  0.0137
   2.0290E+00   2.0784E+00   2.1300E-05  0.0136
   2.0784E+00   2.1290E+00   2.1502E-05  0.0134
   2.1290E+00   2.1808E+00   2.1512E-05  0.0132
   2.1808E+00   2.2338E+00   2.1685E-05  0.0130
   2.2338E+00   2.2882E+00   2.1933E-05  0.0128
   2.2882E+00   2.3439E+00   2.1956E-05  0.0126
   2.3439E+00   2.4009E+00   2.1595E-05  0.0126
   2.4009E+00   2.4593E+00   2.1500E-05  0.0125
   2.4593E+00   2.5191E+00   2.1275E-05  0.0124
   2.5191E+00   2.5804E+00   2.1206E-05  0.0123
   2.5804E+00   2.6432E+00   2.1449E-05  0.0121
   2.6432E+00   2.7075E+00   2.0777E-05  0.0121
   2.7075E+00   2.7734E+00   2.0793E-05  0.0120
   2.7734E+00   2.8409E+00   2.0301E-05  0.0120
   2.8409E+00   2.9100E+00   2.0703E-05  0.0117
   2.9100E+00   2.9808E+00   2.0391E-05  0.0117
   2.9808E+00   3.0533E+00   2.0335E-05  0.0115
   3.0533E+00   3.1276E+00   2.0246E-05  0.0114
   3.1276E+00   3.2037E+00   1.9899E-05  0.0114
   3.2037E+00   3.2817E+00   2.0037E-05  0.0112
   3.2817E+00   3.3615E+00   2.0050E-05  0.0111
   3.3615E+00   3.4433E+00   2.0061E-05  0.0109
   3.4433E+00   3.5271E+00   1.9672E-05  0.0109
   3.5271E+00   3.6129E+00   1.9926E-05  0.0107
   3.6129E+00   3.7008E+00   1.9420E-05  0.0107
   3.7008E+00   3.7908E+00   1.9383E-05  0.0106
   3.7908E+00   3.8831E+00   1.9444E-05  0.0105
   3.8831E+00   3.9776E+00   1.8845E-05  0.0105
   3.9776E+00   4.0743E+00   1.8665E-05  0.0105
   4.0743E+00   4.1735E+00   1.8660E-05  0.0103
   4.1735E+00   4.2750E+00   1.8645E-05  0.0102
   4.2750E+00   4.3790E+00   1.8462E-05  0.0101
   4.3790E+00   4.4856E+00   1.8091E-05  0.0101
   4.4856E+00   4.5947E+00   1.7964E-05  0.0100
   4.5947E+00   4.7065E+00   1.7743E-05  0.0100
   4.7065E+00   4.8210E+00   1.7693E-05  0.0099
   4.8210E+00   4.9383E+00   1.7295E-05  0.0099
   4.9383E+00   5.0585E+00   1.7242E-05  0.0098
   5.0585E+00   5.1815E+00   1.7322E-05  0.0096
   5.1815E+00   5.3076E+00   1.6828E-05  0.0097
   5.3076E+00   5.4368E+00   1.6841E-05  0.0095
   5.4368E+00   5.5690E+00   1.6371E-05  0.0095
   5.5690E+00   5.7045E+00   1.6442E-05  0.0094
   5.7045E+00   5.8433E+00   1.5936E-05  0.0095
   5.8433E+00   5.9855E+00   1.5814E-05  0.0094
   5.9855E+00   6.1311E+00   1.5976E-05  0.0092
   6.1311E+00   6.2803E+00   1.5739E-05  0.0092
   6.2803E+00   6.4331E+00   1.5681E-05  0.0091
   6.4331E+00   6.5896E+00   1.5302E-05  0.0091
   6.5896E+00   6.7500E+00   1.5205E-05  0.0090
   6.7500E+00   6.9142E+00   1.5207E-05  0.0089
   6.9142E+00   7.0824E+00   1.4929E-05  0.0089
   7.0824E+00   7.2548E+00   1.4778E-05  0.0088
   7.2548E+00   7.4313E+00   1.4533E-05  0.0088
   7.4313E+00   7.6121E+00   1.4329E-05  0.0087
   7.6121E+00   7.7973E+00   1.4200E-05  0.0087
   7.7973E+00   7.9870E+00   1.4277E-05  0.0086
   7.9870E+00   8.1813E+00   1.3922E-05  0.0086
   8.1813E+00   8.3804E+00   1.3642E-05  0.0085
   8.3804E+00   8.5843E+00   1.3435E-05  0.0085
   8.5843E+00   8.7931E+00   1.3423E-05  0.0084
   8.7931E+00   9.0071E+00   1.3187E-05  0.0084
   9.0071E+00   9.2262E+00   1.2868E-05  0.0084
   9.2262E+00   9.4507E+00   1.2403E-05  0.0084
   9.4507E+00   9.6807E+00   1.2421E-05  0.0083
   9.6807E+00   9.9162E+00   1.2043E-05  0.0084
   9.9162E+00   1.0157E+01   1.2274E-05  0.0082
   1.0157E+01   1.0405E+01   1.1890E-05  0.0082
   1.0405E+01   1.0658E+01   1.1888E-05  0.0081
   1.0658E+01   1.0917E+01   1.1572E-05  0.0082
   1.0917E+01   1.1183E+01   1.1525E-05  0.0081
   1.1183E+01   1.1455E+01   1.1165E-05  0.0081
   1.1455E+01   1.1733E+01   1.1263E-05  0.0080
   1.1733E+01   1.2019E+01   1.0909E-05  0.0080
   1.2019E+01   1.2311E+01   1.0887E-05  0.0079
   1.2311E+01   1.2611E+01   1.0570E-05  0.0079
   1.2611E+01   1.2918E+01   1.0559E-05  0.0079
   1.2918E+01   1.3232E+01   1.0238E-05  0.0079
   1.3232E+01   1.3554E+01   1.0210E-05  0.0078
   1.3554E+01   1.3884E+01   9.8861E-06  0.0078
   1.3884E+01   1.4222E+01   9.8407E-06  0.0078
   1.4222E+01   1.4568E+01   9.5558E-06  0.0078
   1.4568E+01   1.4922E+01   9.4272E-06  0.0077
   1.4922E+01   1.5285E+01   9.2110E-06  0.0077
   1.5285E+01   1.5657E+01   9.0594E-06  0.0077
   1.5657E+01   1.6038E+01   8.8520E-06  0.0077
   1.6038E+01   1.6428E+01   8.7197E-06  0.0077
   1.6428E+01   1.6828E+01   8.2877E-06  0.0078
   1.6828E+01   1.7237E+01   8.1239E-06  0.0078
   1.7237E+01   1.7657E+01   7.8566E-06  0.0078
   1.7657E+01   1.8086E+01   7.6481E-06  0.0078
   1.8086E+01   1.8526E+01   7.3673E-06  0.0079
   1.8526E+01   1.8977E+01   7.1355E-06  0.0079
   1.8977E+01   1.9439E+01   6.8619E-06  0.0079
   1.9439E+01   1.9912E+01   6.6014E-06  0.0080
   1.9912E+01   2.0396E+01   6.5614E-06  0.0079
   2.0396E+01   2.0893E+01   6.3475E-06  0.0080
   2.0893E+01   2.1401E+01   5.9807E-06  0.0081
   2.1401E+01   2.1922E+01   5.7530E-06  0.0082
   2.1922E+01   2.2455E+01   5.4956E-06  0.0083
   2.2455E+01   2.3001E+01   5.1996E-06  0.0084
   2.3001E+01   2.3561E+01   4.9542E-06  0.0085
   2.3561E+01   2.4134E+01   4.7207E-06  0.0086
   2.4134E+01   2.4721E+01   4.4513E-06  0.0087
   2.4721E+01   2.5323E+01   4.1603E-06  0.0089
   2.5323E+01   2.5939E+01   3.9511E-06  0.0091
   2.5939E+01   2.6570E+01   3.6095E-06  0.0094
   2.6570E+01   2.7217E+01   3.4331E-06  0.0095
   2.7217E+01   2.7879E+01   3.2032E-06  0.0097
   2.7879E+01   2.8557E+01   4.4799E-06  0.0081
   2.8557E+01   2.9252E+01   5.3703E-06  0.0073
   2.9252E+01   2.9964E+01   5.1056E-06  0.0074
   2.9964E+01   3.0693E+01   4.9802E-06  0.0074
   3.0693E+01   3.1440E+01   4.7063E-06  0.0075
   3.1440E+01   3.2205E+01   4.4442E-06  0.0077
   3.2205E+01   3.2988E+01   4.1832E-06  0.0078
   3.2988E+01   3.3791E+01   3.8683E-06  0.0080
   3.3791E+01   3.4613E+01   3.6738E-06  0.0081
   3.4613E+01   3.5455E+01   3.5058E-06  0.0082
   3.5455E+01   3.6318E+01   3.4802E-06  0.0082
   3.6318E+01   3.7201E+01   2.9648E-06  0.0087
   3.7201E+01   3.8106E+01   1.3655E-07  0.0402
   3.8106E+01   3.9034E+01   0.0000E+00  0.0000
   3.9034E+01   3.9983E+01   0.0000E+00  0.0000
   3.9983E+01   4.0956E+01   0.0000E+00  0.0000
   4.0956E+01   4.1953E+01   0.0000E+00  0.0000
   4.1953E+01   4.2973E+01   0.0000E+00  0.0000
   4.2973E+01   4.4019E+01   0.0000E+00  0.0000
   4.4019E+01   4.5090E+01   0.0000E+00  0.0000
   4.5090E+01   4.6187E+01   0.0000E+00  0.0000
   4.6187E+01   4.7311E+01   0.0000E+00  0.0000
   4.7311E+01   4.8462E+01   0.0000E+00  0.0000
   4.8462E+01   4.9641E+01   0.0000E+00  0.0000
   4.9641E+01   5.0849E+01   0.0000E+00  0.0000
   5.0849E+01   5.2086E+01   0.0000E+00  0.0000
   5.2086E+01   5.3353E+01   0.0000E+00  0.0000
   5.3353E+01   5.4651E+01   0.0000E+00  0.0000
   5.4651E+01   5.5981E+01   0.0000E+00  0.0000
   5.5981E+01   5.7343E+01   0.0000E+00  0.0000
   5.7343E+01   5.8738E+01   0.0000E+00  0.0000
   5.8738E+01   6.0168E+01   0.0000E+00  0.0000
   6.0168E+01   6.1632E+01   0.0000E+00  0.0000
   6.1632E+01   6.3131E+01   0.0000E+00  0.0000
   6.3131E+01   6.4667E+01   0.0000E+00  0.0000
   6.4667E+01   6.6240E+01   0.0000E+00  0.0000
   6.6240E+01   6.7852E+01   0.0000E+00  0.0000
   6.7852E+01   6.9503E+01   0.0000E+00  0.0000
   6.9503E+01   7.1194E+01   0.0000E+00  0.0000
   7.1194E+01   7.2926E+01   0.0000E+00  0.0000
   7.2926E+01   7.4701E+01   0.0000E+00  0.0000
   7.4701E+01   7.6518E+01   0.0000E+00  0.0000
   7.6518E+01   7.8380E+01   0.0000E+00  0.0000
   7.8380E+01   8.0287E+01   0.0000E+00  0.0000
   8.0287E+01   8.2240E+01   0.0000E+00  0.0000
   8.2240E+01   8.4241E+01   0.0000E+00  0.0000
   8.4241E+01   8.6291E+01   0.0000E+00  0.0000
   8.6291E+01   8.8391E+01   0.0000E+00  0.0000
   8.8391E+01   9.0541E+01   0.0000E+00  0.0000
   9.0541E+01   9.2744E+01   0.0000E+00  0.0000
   9.2744E+01   9.5001E+01   0.0000E+00  0.0000
   9.5001E+01   9.7312E+01   0.0000E+00  0.0000
   9.7312E+01   9.9680E+01   0.0000E+00  0.0000
   9.9680E+01   1.0211E+02   0.0000E+00  0.0000
   1.0211E+02   1.0459E+02   0.0000E+00  0.0000
   1.0459E+02   1.0713E+02   0.0000E+00  0.0000
   1.0713E+02   1.0974E+02   0.0000E+00  0.0000
   1.0974E+02   1.1241E+02   0.0000E+00  0.0000
   1.1241E+02   1.1515E+02   0.0000E+00  0.0000
   1.1515E+02   1.1795E+02   0.0000E+00  0.0000
   1.1795E+02   1.2082E+02   0.0000E+00  0.0000
   1.2082E+02   1.2376E+02   0.0000E+00  0.0000
   1.2376E+02   1.2677E+02   0.0000E+00  0.0000
   1.2677E+02   1.2985E+02   0.0000E+00  0.0000
   1.2985E+02   1.3301E+02   0.0000E+00  0.0000
   1.3301E+02   1.3625E+02   0.0000E+00  0.0000
   1.3625E+02   1.3956E+02   0.0000E+00  0.0000
   1.3956E+02   1.4296E+02   0.0000E+00  0.0000
   1.4296E+02   1.4644E+02   0.0000E+00  0.0000
   1.4644E+02   1.5000E+02   0.0000E+00  0.0000

#   sum over                 2.2856E-06
'no. =    1   reg = 104 - 204'
msuc: {\huge [t-cross] in region mesh}
msdr: {\it plotted by \ANGEL \version}
msdl: {\it calculated by \PHITS  3.26}
wt: s(0.7)
\vspace{-3}
  region surface crossing
  area  &=&   1.0000E+00 [cm^2]
e:
 
# Information for Restart Calculation
# This calculation was newly started
# istdev =  2 # 1:Batch variance, 2:History variance
# resc2  = 5.00000000000000000E+09 # Total source weight or Total source weight / maxcas
# resc3  = 5.00000000000000000E+09 # Total history number or Total batch number
# maxcas =   100000000 # History / Batch, only used for istdev=1
# bitrseed = 0110100000100010111000001110001111001110100100011111101000111001 # bit data of rseed
