[ T-Cross ]
    title = [t-cross] in region mesh
     mesh =  reg            # mesh type is region-wise
      reg =    1            # number of crossing regions
      non     r-from    r-to       area
      1       126       226        1.000000    
   e-type =    3            # e-mesh is log given by emin, emax and ne
     emin =  1.0000000E-02  # minimum value of e-mesh points
     emax =   150.0000      # maximum value of e-mesh points
#    edel =  2.4039514E-02  # mesh width of e-mesh points
       ne =    400          # number of e-mesh points
#    data = ( e(i), i = 1, ne + 1 )
#           1.00000E-02  1.02433E-02  1.04925E-02  1.07478E-02  1.10093E-02
#           1.12772E-02  1.15516E-02  1.18326E-02  1.21205E-02  1.24154E-02
#           1.27175E-02  1.30269E-02  1.33439E-02  1.36686E-02  1.40011E-02
#           1.43418E-02  1.46907E-02  1.50482E-02  1.54143E-02  1.57894E-02
#           1.61735E-02  1.65670E-02  1.69701E-02  1.73830E-02  1.78060E-02
#           1.82392E-02  1.86830E-02  1.91375E-02  1.96032E-02  2.00801E-02
#           2.05687E-02  2.10692E-02  2.15818E-02  2.21069E-02  2.26448E-02
#           2.31957E-02  2.37601E-02  2.43382E-02  2.49304E-02  2.55369E-02
#           2.61583E-02  2.67947E-02  2.74467E-02  2.81145E-02  2.87985E-02
#           2.94992E-02  3.02169E-02  3.09521E-02  3.17052E-02  3.24766E-02
#           3.32668E-02  3.40762E-02  3.49053E-02  3.57546E-02  3.66246E-02
#           3.75157E-02  3.84284E-02  3.93634E-02  4.03212E-02  4.13022E-02
#           4.23071E-02  4.33365E-02  4.43909E-02  4.54710E-02  4.65773E-02
#           4.77106E-02  4.88714E-02  5.00605E-02  5.12785E-02  5.25262E-02
#           5.38042E-02  5.51133E-02  5.64542E-02  5.78278E-02  5.92348E-02
#           6.06760E-02  6.21523E-02  6.36645E-02  6.52135E-02  6.68002E-02
#           6.84255E-02  7.00904E-02  7.17957E-02  7.35426E-02  7.53319E-02
#           7.71648E-02  7.90423E-02  8.09655E-02  8.29354E-02  8.49533E-02
#           8.70203E-02  8.91376E-02  9.13064E-02  9.35279E-02  9.58035E-02
#           9.81345E-02  1.00522E-01  1.02968E-01  1.05473E-01  1.08040E-01
#           1.10668E-01  1.13361E-01  1.16119E-01  1.18944E-01  1.21838E-01
#           1.24803E-01  1.27839E-01  1.30950E-01  1.34136E-01  1.37399E-01
#           1.40742E-01  1.44167E-01  1.47675E-01  1.51268E-01  1.54948E-01
#           1.58718E-01  1.62580E-01  1.66535E-01  1.70587E-01  1.74738E-01
#           1.78989E-01  1.83344E-01  1.87805E-01  1.92375E-01  1.97055E-01
#           2.01850E-01  2.06761E-01  2.11792E-01  2.16945E-01  2.22223E-01
#           2.27630E-01  2.33169E-01  2.38842E-01  2.44653E-01  2.50605E-01
#           2.56703E-01  2.62949E-01  2.69346E-01  2.75900E-01  2.82613E-01
#           2.89489E-01  2.96532E-01  3.03747E-01  3.11138E-01  3.18708E-01
#           3.26462E-01  3.34405E-01  3.42542E-01  3.50876E-01  3.59413E-01
#           3.68158E-01  3.77116E-01  3.86291E-01  3.95690E-01  4.05317E-01
#           4.15179E-01  4.25281E-01  4.35628E-01  4.46227E-01  4.57084E-01
#           4.68205E-01  4.79597E-01  4.91266E-01  5.03219E-01  5.15463E-01
#           5.28005E-01  5.40851E-01  5.54011E-01  5.67490E-01  5.81298E-01
#           5.95441E-01  6.09929E-01  6.24769E-01  6.39970E-01  6.55541E-01
#           6.71491E-01  6.87828E-01  7.04564E-01  7.21706E-01  7.39266E-01
#           7.57253E-01  7.75678E-01  7.94551E-01  8.13883E-01  8.33685E-01
#           8.53969E-01  8.74747E-01  8.96030E-01  9.17831E-01  9.40163E-01
#           9.63038E-01  9.86469E-01  1.01047E+00  1.03506E+00  1.06024E+00
#           1.08604E+00  1.11246E+00  1.13953E+00  1.16725E+00  1.19565E+00
#           1.22474E+00  1.25454E+00  1.28507E+00  1.31633E+00  1.34836E+00
#           1.38117E+00  1.41477E+00  1.44920E+00  1.48446E+00  1.52057E+00
#           1.55757E+00  1.59547E+00  1.63429E+00  1.67405E+00  1.71478E+00
#           1.75650E+00  1.79924E+00  1.84302E+00  1.88786E+00  1.93379E+00
#           1.98084E+00  2.02904E+00  2.07841E+00  2.12898E+00  2.18078E+00
#           2.23384E+00  2.28819E+00  2.34386E+00  2.40089E+00  2.45930E+00
#           2.51914E+00  2.58043E+00  2.64322E+00  2.70753E+00  2.77341E+00
#           2.84088E+00  2.91001E+00  2.98081E+00  3.05333E+00  3.12762E+00
#           3.20372E+00  3.28167E+00  3.36152E+00  3.44330E+00  3.52708E+00
#           3.61290E+00  3.70080E+00  3.79085E+00  3.88308E+00  3.97756E+00
#           4.07434E+00  4.17347E+00  4.27501E+00  4.37903E+00  4.48557E+00
#           4.59471E+00  4.70650E+00  4.82102E+00  4.93832E+00  5.05847E+00
#           5.18155E+00  5.30762E+00  5.43676E+00  5.56904E+00  5.70453E+00
#           5.84333E+00  5.98550E+00  6.13114E+00  6.28031E+00  6.43312E+00
#           6.58964E+00  6.74997E+00  6.91420E+00  7.08243E+00  7.25475E+00
#           7.43126E+00  7.61207E+00  7.79728E+00  7.98700E+00  8.18133E+00
#           8.38038E+00  8.58428E+00  8.79315E+00  9.00709E+00  9.22624E+00
#           9.45072E+00  9.68067E+00  9.91620E+00  1.01575E+01  1.04046E+01
#           1.06578E+01  1.09171E+01  1.11827E+01  1.14548E+01  1.17335E+01
#           1.20190E+01  1.23114E+01  1.26109E+01  1.29178E+01  1.32321E+01
#           1.35540E+01  1.38838E+01  1.42216E+01  1.45676E+01  1.49221E+01
#           1.52851E+01  1.56570E+01  1.60380E+01  1.64282E+01  1.68279E+01
#           1.72374E+01  1.76568E+01  1.80864E+01  1.85264E+01  1.89772E+01
#           1.94389E+01  1.99119E+01  2.03963E+01  2.08926E+01  2.14009E+01
#           2.19216E+01  2.24550E+01  2.30014E+01  2.35610E+01  2.41343E+01
#           2.47215E+01  2.53230E+01  2.59391E+01  2.65702E+01  2.72167E+01
#           2.78789E+01  2.85572E+01  2.92520E+01  2.99637E+01  3.06928E+01
#           3.14396E+01  3.22045E+01  3.29881E+01  3.37907E+01  3.46128E+01
#           3.54550E+01  3.63177E+01  3.72013E+01  3.81064E+01  3.90336E+01
#           3.99833E+01  4.09561E+01  4.19526E+01  4.29734E+01  4.40189E+01
#           4.50900E+01  4.61870E+01  4.73108E+01  4.84619E+01  4.96410E+01
#           5.08488E+01  5.20860E+01  5.33533E+01  5.46514E+01  5.59812E+01
#           5.73432E+01  5.87384E+01  6.01676E+01  6.16315E+01  6.31311E+01
#           6.46671E+01  6.62405E+01  6.78522E+01  6.95031E+01  7.11941E+01
#           7.29263E+01  7.47007E+01  7.65182E+01  7.83800E+01  8.02870E+01
#           8.22405E+01  8.42414E+01  8.62911E+01  8.83906E+01  9.05412E+01
#           9.27442E+01  9.50007E+01  9.73122E+01  9.96799E+01  1.02105E+02
#           1.04589E+02  1.07134E+02  1.09741E+02  1.12411E+02  1.15146E+02
#           1.17948E+02  1.20817E+02  1.23757E+02  1.26768E+02  1.29852E+02
#           1.33012E+02  1.36248E+02  1.39563E+02  1.42959E+02  1.46437E+02
#           1.50000E+02
     unit =    2            # unit is [1/cm^2/(MeV/n)/source]
     axis =  eng            # axis of output
     file = detector-27.out  # file name of output for the above axis
   output = f-curr          # surface crossing forward current spectrum
     part =  neutron  
# kf/name :  2112     
#    used :        main (  %)        temp (  %)       total (  %)
#  memory :         414 (  0)           0 (  0)         414 (  0)

#------------------------------------------------------------------------------
#newpage:
#   no. =    1   reg = 126 - 226

x: Energy [MeV/n]
y:  F-Curr [1/cm^2/(MeV/n)/source]         
p: xlog ylog afac(0.8) form(0.9)
h: n            x            y(neutron ),hh0l   n 
#  e-lower      e-upper      neutron     r.err 
   1.0000E-02   1.0243E-02   7.7268E-05  0.1031
   1.0243E-02   1.0493E-02   9.0680E-05  0.0941
   1.0493E-02   1.0748E-02   9.6360E-05  0.0902
   1.0748E-02   1.1009E-02   8.6423E-05  0.0941
   1.1009E-02   1.1277E-02   8.0637E-05  0.0962
   1.1277E-02   1.1552E-02   9.2571E-05  0.0887
   1.1552E-02   1.1833E-02   8.7526E-05  0.0902
   1.1833E-02   1.2121E-02   8.3677E-05  0.0910
   1.2121E-02   1.2415E-02   1.0512E-04  0.0803
   1.2415E-02   1.2718E-02   8.2760E-05  0.0894
   1.2718E-02   1.3027E-02   7.8855E-05  0.0905
   1.3027E-02   1.3344E-02   8.8340E-05  0.0845
   1.3344E-02   1.3669E-02   9.4250E-05  0.0808
   1.3669E-02   1.4001E-02   8.9606E-05  0.0819
   1.4001E-02   1.4342E-02   9.5110E-05  0.0786
   1.4342E-02   1.4691E-02   8.8839E-05  0.0803
   1.4691E-02   1.5048E-02   9.5122E-05  0.0767
   1.5048E-02   1.5414E-02   9.4501E-05  0.0760
   1.5414E-02   1.5789E-02   9.1723E-05  0.0762
   1.5789E-02   1.6174E-02   8.5379E-05  0.0781
   1.6174E-02   1.6567E-02   8.7417E-05  0.0762
   1.6567E-02   1.6970E-02   9.2783E-05  0.0731
   1.6970E-02   1.7383E-02   8.7673E-05  0.0743
   1.7383E-02   1.7806E-02   8.7009E-05  0.0737
   1.7806E-02   1.8239E-02   9.2329E-05  0.0707
   1.8239E-02   1.8683E-02   8.6531E-05  0.0722
   1.8683E-02   1.9138E-02   9.5475E-05  0.0679
   1.9138E-02   1.9603E-02   9.6213E-05  0.0668
   1.9603E-02   2.0080E-02   9.0573E-05  0.0680
   2.0080E-02   2.0569E-02   9.1288E-05  0.0670
   2.0569E-02   2.1069E-02   8.6721E-05  0.0679
   2.1069E-02   2.1582E-02   8.6222E-05  0.0673
   2.1582E-02   2.2107E-02   1.0360E-04  0.0606
   2.2107E-02   2.2645E-02   8.9983E-05  0.0643
   2.2645E-02   2.3196E-02   9.4017E-05  0.0621
   2.3196E-02   2.3760E-02   8.8240E-05  0.0634
   2.3760E-02   2.4338E-02   9.2371E-05  0.0612
   2.4338E-02   2.4930E-02   1.0031E-04  0.0580
   2.4930E-02   2.5537E-02   8.7376E-05  0.0614
   2.5537E-02   2.6158E-02   8.3454E-05  0.0621
   2.6158E-02   2.6795E-02   8.9559E-05  0.0592
   2.6795E-02   2.7447E-02   9.9703E-05  0.0555
   2.7447E-02   2.8114E-02   8.0563E-05  0.0610
   2.8114E-02   2.8799E-02   8.9175E-05  0.0573
   2.8799E-02   2.9499E-02   8.5344E-05  0.0578
   2.9499E-02   3.0217E-02   9.1119E-05  0.0553
   3.0217E-02   3.0952E-02   8.8683E-05  0.0554
   3.0952E-02   3.1705E-02   8.7639E-05  0.0550
   3.1705E-02   3.2477E-02   9.5273E-05  0.0521
   3.2477E-02   3.3267E-02   9.5168E-05  0.0516
   3.3267E-02   3.4076E-02   8.6819E-05  0.0533
   3.4076E-02   3.4905E-02   8.8288E-05  0.0523
   3.4905E-02   3.5755E-02   1.0150E-04  0.0482
   3.5755E-02   3.6625E-02   9.0188E-05  0.0505
   3.6625E-02   3.7516E-02   9.1347E-05  0.0496
   3.7516E-02   3.8428E-02   8.5891E-05  0.0505
   3.8428E-02   3.9363E-02   9.8610E-05  0.0466
   3.9363E-02   4.0321E-02   9.8565E-05  0.0460
   4.0321E-02   4.1302E-02   9.1943E-05  0.0471
   4.1302E-02   4.2307E-02   9.3341E-05  0.0462
   4.2307E-02   4.3337E-02   9.6564E-05  0.0449
   4.3337E-02   4.4391E-02   9.7874E-05  0.0440
   4.4391E-02   4.5471E-02   9.5179E-05  0.0441
   4.5471E-02   4.6577E-02   1.0147E-04  0.0422
   4.6577E-02   4.7711E-02   9.9536E-05  0.0421
   4.7711E-02   4.8871E-02   9.2519E-05  0.0432
   4.8871E-02   5.0061E-02   9.7891E-05  0.0415
   5.0061E-02   5.1279E-02   9.5894E-05  0.0414
   5.1279E-02   5.2526E-02   1.0186E-04  0.0397
   5.2526E-02   5.3804E-02   9.1393E-05  0.0414
   5.3804E-02   5.5113E-02   9.5791E-05  0.0399
   5.5113E-02   5.6454E-02   9.9996E-05  0.0386
   5.6454E-02   5.7828E-02   9.9740E-05  0.0382
   5.7828E-02   5.9235E-02   9.8792E-05  0.0379
   5.9235E-02   6.0676E-02   1.0116E-04  0.0370
   6.0676E-02   6.2152E-02   9.7000E-05  0.0374
   6.2152E-02   6.3665E-02   9.4828E-05  0.0373
   6.3665E-02   6.5214E-02   9.9935E-05  0.0359
   6.5214E-02   6.6800E-02   1.0424E-04  0.0348
   6.6800E-02   6.8426E-02   9.5121E-05  0.0360
   6.8426E-02   7.0090E-02   9.5024E-05  0.0356
   7.0090E-02   7.1796E-02   9.9217E-05  0.0344
   7.1796E-02   7.3543E-02   9.6801E-05  0.0344
   7.3543E-02   7.5332E-02   9.5901E-05  0.0341
   7.5332E-02   7.7165E-02   9.1331E-05  0.0346
   7.7165E-02   7.9042E-02   1.0519E-04  0.0318
   7.9042E-02   8.0965E-02   9.9524E-05  0.0323
   8.0965E-02   8.2935E-02   9.7769E-05  0.0322
   8.2935E-02   8.4953E-02   1.0527E-04  0.0307
   8.4953E-02   8.7020E-02   1.0315E-04  0.0306
   8.7020E-02   8.9138E-02   1.0249E-04  0.0304
   8.9138E-02   9.1306E-02   1.0356E-04  0.0298
   9.1306E-02   9.3528E-02   1.0218E-04  0.0297
   9.3528E-02   9.5804E-02   1.0841E-04  0.0285
   9.5804E-02   9.8134E-02   9.9701E-05  0.0293
   9.8134E-02   1.0052E-01   1.0145E-04  0.0287
   1.0052E-01   1.0297E-01   1.0066E-04  0.0285
   1.0297E-01   1.0547E-01   1.0697E-04  0.0273
   1.0547E-01   1.0804E-01   1.0529E-04  0.0272
   1.0804E-01   1.1067E-01   1.0340E-04  0.0271
   1.1067E-01   1.1336E-01   1.0421E-04  0.0267
   1.1336E-01   1.1612E-01   1.0949E-04  0.0257
   1.1612E-01   1.1894E-01   1.0928E-04  0.0254
   1.1894E-01   1.2184E-01   1.0339E-04  0.0259
   1.2184E-01   1.2480E-01   1.0815E-04  0.0250
   1.2480E-01   1.2784E-01   1.0360E-04  0.0252
   1.2784E-01   1.3095E-01   1.0760E-04  0.0244
   1.3095E-01   1.3414E-01   1.0100E-04  0.0249
   1.3414E-01   1.3740E-01   1.0234E-04  0.0245
   1.3740E-01   1.4074E-01   1.0927E-04  0.0234
   1.4074E-01   1.4417E-01   1.0717E-04  0.0233
   1.4417E-01   1.4767E-01   1.0622E-04  0.0232
   1.4767E-01   1.5127E-01   1.0543E-04  0.0230
   1.5127E-01   1.5495E-01   1.1015E-04  0.0222
   1.5495E-01   1.5872E-01   1.0435E-04  0.0225
   1.5872E-01   1.6258E-01   1.0586E-04  0.0221
   1.6258E-01   1.6654E-01   1.0785E-04  0.0217
   1.6654E-01   1.7059E-01   1.0100E-04  0.0221
   1.7059E-01   1.7474E-01   1.0334E-04  0.0216
   1.7474E-01   1.7899E-01   1.1202E-04  0.0205
   1.7899E-01   1.8334E-01   1.0865E-04  0.0206
   1.8334E-01   1.8781E-01   1.0452E-04  0.0207
   1.8781E-01   1.9237E-01   1.0374E-04  0.0205
   1.9237E-01   1.9706E-01   1.0803E-04  0.0199
   1.9706E-01   2.0185E-01   1.0769E-04  0.0197
   2.0185E-01   2.0676E-01   1.0458E-04  0.0197
   2.0676E-01   2.1179E-01   1.0644E-04  0.0193
   2.1179E-01   2.1694E-01   1.0600E-04  0.0191
   2.1694E-01   2.2222E-01   1.0522E-04  0.0190
   2.2222E-01   2.2763E-01   1.0971E-04  0.0184
   2.2763E-01   2.3317E-01   1.0816E-04  0.0183
   2.3317E-01   2.3884E-01   1.0957E-04  0.0179
   2.3884E-01   2.4465E-01   1.0418E-04  0.0182
   2.4465E-01   2.5061E-01   1.0649E-04  0.0178
   2.5061E-01   2.5670E-01   1.0401E-04  0.0178
   2.5670E-01   2.6295E-01   1.0501E-04  0.0175
   2.6295E-01   2.6935E-01   1.0329E-04  0.0174
   2.6935E-01   2.7590E-01   1.0512E-04  0.0170
   2.7590E-01   2.8261E-01   1.0612E-04  0.0168
   2.8261E-01   2.8949E-01   1.0345E-04  0.0168
   2.8949E-01   2.9653E-01   1.0466E-04  0.0165
   2.9653E-01   3.0375E-01   1.0125E-04  0.0165
   3.0375E-01   3.1114E-01   1.0626E-04  0.0160
   3.1114E-01   3.1871E-01   1.0594E-04  0.0158
   3.1871E-01   3.2646E-01   1.0453E-04  0.0157
   3.2646E-01   3.3441E-01   1.0382E-04  0.0156
   3.3441E-01   3.4254E-01   1.0075E-04  0.0156
   3.4254E-01   3.5088E-01   1.0439E-04  0.0152
   3.5088E-01   3.5941E-01   1.0276E-04  0.0151
   3.5941E-01   3.6816E-01   9.9972E-05  0.0151
   3.6816E-01   3.7712E-01   1.0090E-04  0.0149
   3.7712E-01   3.8629E-01   1.0013E-04  0.0148
   3.8629E-01   3.9569E-01   9.9797E-05  0.0146
   3.9569E-01   4.0532E-01   9.7751E-05  0.0146
   4.0532E-01   4.1518E-01   9.6160E-05  0.0145
   4.1518E-01   4.2528E-01   9.7037E-05  0.0143
   4.2528E-01   4.3563E-01   9.7522E-05  0.0141
   4.3563E-01   4.4623E-01   9.6255E-05  0.0140
   4.4623E-01   4.5708E-01   9.4031E-05  0.0140
   4.5708E-01   4.6821E-01   9.3614E-05  0.0139
   4.6821E-01   4.7960E-01   9.3576E-05  0.0137
   4.7960E-01   4.9127E-01   9.1852E-05  0.0137
   4.9127E-01   5.0322E-01   8.9950E-05  0.0136
   5.0322E-01   5.1546E-01   8.7849E-05  0.0136
   5.1546E-01   5.2800E-01   9.0376E-05  0.0133
   5.2800E-01   5.4085E-01   8.8537E-05  0.0133
   5.4085E-01   5.5401E-01   8.6751E-05  0.0132
   5.5401E-01   5.6749E-01   8.5845E-05  0.0131
   5.6749E-01   5.8130E-01   8.4291E-05  0.0131
   5.8130E-01   5.9544E-01   8.0650E-05  0.0132
   5.9544E-01   6.0993E-01   8.1851E-05  0.0130
   6.0993E-01   6.2477E-01   7.9905E-05  0.0130
   6.2477E-01   6.3997E-01   7.7277E-05  0.0130
   6.3997E-01   6.5554E-01   7.7119E-05  0.0129
   6.5554E-01   6.7149E-01   7.3809E-05  0.0130
   6.7149E-01   6.8783E-01   7.3668E-05  0.0129
   6.8783E-01   7.0456E-01   7.3558E-05  0.0127
   7.0456E-01   7.2171E-01   7.1209E-05  0.0128
   7.2171E-01   7.3927E-01   7.0425E-05  0.0127
   7.3927E-01   7.5725E-01   6.8887E-05  0.0127
   7.5725E-01   7.7568E-01   6.5995E-05  0.0128
   7.7568E-01   7.9455E-01   6.4377E-05  0.0128
   7.9455E-01   8.1388E-01   6.3416E-05  0.0128
   8.1388E-01   8.3368E-01   6.2440E-05  0.0127
   8.3368E-01   8.5397E-01   6.0606E-05  0.0128
   8.5397E-01   8.7475E-01   5.8380E-05  0.0128
   8.7475E-01   8.9603E-01   5.6058E-05  0.0129
   8.9603E-01   9.1783E-01   5.2835E-05  0.0132
   9.1783E-01   9.4016E-01   5.0789E-05  0.0133
   9.4016E-01   9.6304E-01   4.9365E-05  0.0133
   9.6304E-01   9.8647E-01   4.6266E-05  0.0136
   9.8647E-01   1.0105E+00   4.5098E-05  0.0136
   1.0105E+00   1.0351E+00   4.4817E-05  0.0135
   1.0351E+00   1.0602E+00   4.4497E-05  0.0134
   1.0602E+00   1.0860E+00   4.6257E-05  0.0129
   1.0860E+00   1.1125E+00   4.6470E-05  0.0128
   1.1125E+00   1.1395E+00   4.6304E-05  0.0126
   1.1395E+00   1.1673E+00   4.6307E-05  0.0125
   1.1673E+00   1.1957E+00   4.5594E-05  0.0124
   1.1957E+00   1.2247E+00   4.6933E-05  0.0121
   1.2247E+00   1.2545E+00   4.7520E-05  0.0119
   1.2545E+00   1.2851E+00   4.7340E-05  0.0118
   1.2851E+00   1.3163E+00   4.6289E-05  0.0118
   1.3163E+00   1.3484E+00   4.6845E-05  0.0115
   1.3484E+00   1.3812E+00   4.7405E-05  0.0113
   1.3812E+00   1.4148E+00   4.5925E-05  0.0114
   1.4148E+00   1.4492E+00   4.6815E-05  0.0111
   1.4492E+00   1.4845E+00   4.6199E-05  0.0111
   1.4845E+00   1.5206E+00   4.5296E-05  0.0111
   1.5206E+00   1.5576E+00   4.5056E-05  0.0110
   1.5576E+00   1.5955E+00   4.2682E-05  0.0111
   1.5955E+00   1.6343E+00   4.2914E-05  0.0110
   1.6343E+00   1.6741E+00   4.3020E-05  0.0108
   1.6741E+00   1.7148E+00   4.2912E-05  0.0107
   1.7148E+00   1.7565E+00   4.1477E-05  0.0107
   1.7565E+00   1.7992E+00   3.9688E-05  0.0109
   1.7992E+00   1.8430E+00   3.9360E-05  0.0108
   1.8430E+00   1.8879E+00   3.8189E-05  0.0108
   1.8879E+00   1.9338E+00   3.7281E-05  0.0108
   1.9338E+00   1.9808E+00   3.6422E-05  0.0108
   1.9808E+00   2.0290E+00   3.6090E-05  0.0107
   2.0290E+00   2.0784E+00   3.5373E-05  0.0107
   2.0784E+00   2.1290E+00   3.3910E-05  0.0108
   2.1290E+00   2.1808E+00   3.2121E-05  0.0110
   2.1808E+00   2.2338E+00   3.1104E-05  0.0110
   2.2338E+00   2.2882E+00   3.0162E-05  0.0110
   2.2882E+00   2.3439E+00   2.9375E-05  0.0110
   2.3439E+00   2.4009E+00   2.7901E-05  0.0112
   2.4009E+00   2.4593E+00   2.7161E-05  0.0112
   2.4593E+00   2.5191E+00   2.5377E-05  0.0115
   2.5191E+00   2.5804E+00   2.4516E-05  0.0115
   2.5804E+00   2.6432E+00   2.3437E-05  0.0116
   2.6432E+00   2.7075E+00   2.2112E-05  0.0118
   2.7075E+00   2.7734E+00   2.1017E-05  0.0120
   2.7734E+00   2.8409E+00   1.9933E-05  0.0122
   2.8409E+00   2.9100E+00   1.9307E-05  0.0122
   2.9100E+00   2.9808E+00   1.7981E-05  0.0125
   2.9808E+00   3.0533E+00   1.7224E-05  0.0126
   3.0533E+00   3.1276E+00   1.5855E-05  0.0130
   3.1276E+00   3.2037E+00   1.5451E-05  0.0130
   3.2037E+00   3.2817E+00   1.4553E-05  0.0132
   3.2817E+00   3.3615E+00   1.3505E-05  0.0136
   3.3615E+00   3.4433E+00   1.2357E-05  0.0140
   3.4433E+00   3.5271E+00   1.1677E-05  0.0142
   3.5271E+00   3.6129E+00   1.1307E-05  0.0143
   3.6129E+00   3.7008E+00   1.0640E-05  0.0146
   3.7008E+00   3.7908E+00   1.0146E-05  0.0147
   3.7908E+00   3.8831E+00   9.1437E-06  0.0153
   3.8831E+00   3.9776E+00   8.5679E-06  0.0157
   3.9776E+00   4.0743E+00   8.0144E-06  0.0160
   4.0743E+00   4.1735E+00   7.9342E-06  0.0159
   4.1735E+00   4.2750E+00   7.2325E-06  0.0164
   4.2750E+00   4.3790E+00   6.6280E-06  0.0169
   4.3790E+00   4.4856E+00   6.1999E-06  0.0173
   4.4856E+00   4.5947E+00   5.8061E-06  0.0177
   4.5947E+00   4.7065E+00   5.2544E-06  0.0183
   4.7065E+00   4.8210E+00   4.9451E-06  0.0187
   4.8210E+00   4.9383E+00   4.6325E-06  0.0191
   4.9383E+00   5.0585E+00   4.3399E-06  0.0195
   5.0585E+00   5.1815E+00   4.0890E-06  0.0198
   5.1815E+00   5.3076E+00   3.6170E-06  0.0208
   5.3076E+00   5.4368E+00   3.4407E-06  0.0211
   5.4368E+00   5.5690E+00   3.0380E-06  0.0222
   5.5690E+00   5.7045E+00   3.0223E-06  0.0220
   5.7045E+00   5.8433E+00   2.6708E-06  0.0231
   5.8433E+00   5.9855E+00   2.4539E-06  0.0238
   5.9855E+00   6.1311E+00   2.3279E-06  0.0241
   6.1311E+00   6.2803E+00   2.1882E-06  0.0246
   6.2803E+00   6.4331E+00   1.9679E-06  0.0256
   6.4331E+00   6.5896E+00   1.8131E-06  0.0264
   6.5896E+00   6.7500E+00   1.5971E-06  0.0278
   6.7500E+00   6.9142E+00   1.4662E-06  0.0286
   6.9142E+00   7.0824E+00   1.3547E-06  0.0294
   7.0824E+00   7.2548E+00   1.3346E-06  0.0293
   7.2548E+00   7.4313E+00   1.0938E-06  0.0319
   7.4313E+00   7.6121E+00   9.9590E-07  0.0331
   7.6121E+00   7.7973E+00   9.1519E-07  0.0341
   7.7973E+00   7.9870E+00   8.3515E-07  0.0353
   7.9870E+00   8.1813E+00   7.0175E-07  0.0380
   8.1813E+00   8.3804E+00   6.0165E-07  0.0406
   8.3804E+00   8.5843E+00   5.8670E-07  0.0406
   8.5843E+00   8.7931E+00   5.3905E-07  0.0419
   8.7931E+00   9.0071E+00   4.7903E-07  0.0438
   9.0071E+00   9.2262E+00   4.3816E-07  0.0454
   9.2262E+00   9.4507E+00   4.4330E-07  0.0446
   9.4507E+00   9.6807E+00   3.8015E-07  0.0476
   9.6807E+00   9.9162E+00   3.4564E-07  0.0492
   9.9162E+00   1.0157E+01   3.0852E-07  0.0515
   1.0157E+01   1.0405E+01   2.6579E-07  0.0549
   1.0405E+01   1.0658E+01   2.7310E-07  0.0534
   1.0658E+01   1.0917E+01   2.1426E-07  0.0596
   1.0917E+01   1.1183E+01   1.8133E-07  0.0641
   1.1183E+01   1.1455E+01   1.6972E-07  0.0653
   1.1455E+01   1.1733E+01   1.2768E-07  0.0743
   1.1733E+01   1.2019E+01   1.3051E-07  0.0728
   1.2019E+01   1.2311E+01   1.2155E-07  0.0743
   1.2311E+01   1.2611E+01   1.1509E-07  0.0759
   1.2611E+01   1.2918E+01   1.0298E-07  0.0793
   1.2918E+01   1.3232E+01   8.8859E-08  0.0840
   1.3232E+01   1.3554E+01   7.7775E-08  0.0889
   1.3554E+01   1.3884E+01   8.2501E-08  0.0852
   1.3884E+01   1.4222E+01   7.0084E-08  0.0916
   1.4222E+01   1.4568E+01   5.1132E-08  0.1062
   1.4568E+01   1.4922E+01   5.7733E-08  0.0983
   1.4922E+01   1.5285E+01   4.8701E-08  0.1059
   1.5285E+01   1.5657E+01   4.5692E-08  0.1082
   1.5657E+01   1.6038E+01   3.6225E-08  0.1204
   1.6038E+01   1.6428E+01   3.1726E-08  0.1261
   1.6428E+01   1.6828E+01   3.1999E-08  0.1246
   1.6828E+01   1.7237E+01   3.7569E-08  0.1133
   1.7237E+01   1.7657E+01   2.5274E-08  0.1374
   1.7657E+01   1.8086E+01   2.9795E-08  0.1250
   1.8086E+01   1.8526E+01   1.8180E-08  0.1581
   1.8526E+01   1.8977E+01   2.1741E-08  0.1429
   1.8977E+01   1.9439E+01   2.4690E-08  0.1325
   1.9439E+01   1.9912E+01   1.3955E-08  0.1741
   1.9912E+01   2.0396E+01   1.4862E-08  0.1667
   2.0396E+01   2.0893E+01   1.5718E-08  0.1601
   2.0893E+01   2.1401E+01   1.2197E-08  0.1796
   2.1401E+01   2.1922E+01   8.4501E-09  0.2132
   2.1922E+01   2.2455E+01   9.3743E-09  0.2000
   2.2455E+01   2.3001E+01   1.3544E-08  0.1644
   2.3001E+01   2.3561E+01   9.2917E-09  0.1961
   2.3561E+01   2.4134E+01   1.0118E-08  0.1857
   2.4134E+01   2.4721E+01   8.8555E-09  0.1961
   2.4721E+01   2.5323E+01   6.3176E-09  0.2294
   2.5323E+01   2.5939E+01   8.1152E-09  0.2000
   2.5939E+01   2.6570E+01   8.5562E-09  0.1925
   2.6570E+01   2.7217E+01   5.2593E-09  0.2425
   2.7217E+01   2.7879E+01   5.1344E-09  0.2425
   2.7879E+01   2.8557E+01   3.8330E-09  0.2774
   2.8557E+01   2.9252E+01   4.0298E-09  0.2673
   2.9252E+01   2.9964E+01   3.3721E-09  0.2887
   2.9964E+01   3.0693E+01   2.4690E-09  0.3333
   3.0693E+01   3.1440E+01   2.1425E-09  0.3536
   3.1440E+01   3.2205E+01   2.6146E-09  0.3162
   3.2205E+01   3.2988E+01   2.5524E-09  0.3162
   3.2988E+01   3.3791E+01   2.2426E-09  0.3333
   3.3791E+01   3.4613E+01   1.7028E-09  0.3780
   3.4613E+01   3.5455E+01   9.4994E-10  0.5000
   3.5455E+01   3.6318E+01   1.8548E-09  0.3536
   3.6318E+01   3.7201E+01   4.5267E-10  0.7071
   3.7201E+01   3.8106E+01   2.2096E-10  1.0000
   3.8106E+01   3.9034E+01   2.1571E-10  1.0000
   3.9034E+01   3.9983E+01   8.4236E-10  0.5000
   3.9983E+01   4.0956E+01   1.0279E-09  0.4472
   4.0956E+01   4.1953E+01   4.0141E-10  0.7071
   4.1953E+01   4.2973E+01   1.9594E-10  1.0000
   4.2973E+01   4.4019E+01   1.9128E-10  1.0000
   4.4019E+01   4.5090E+01   1.8674E-10  1.0000
   4.5090E+01   4.6187E+01   0.0000E+00  0.0000
   4.6187E+01   4.7311E+01   0.0000E+00  0.0000
   4.7311E+01   4.8462E+01   0.0000E+00  0.0000
   4.8462E+01   4.9641E+01   0.0000E+00  0.0000
   4.9641E+01   5.0849E+01   0.0000E+00  0.0000
   5.0849E+01   5.2086E+01   0.0000E+00  0.0000
   5.2086E+01   5.3353E+01   0.0000E+00  0.0000
   5.3353E+01   5.4651E+01   0.0000E+00  0.0000
   5.4651E+01   5.5981E+01   0.0000E+00  0.0000
   5.5981E+01   5.7343E+01   0.0000E+00  0.0000
   5.7343E+01   5.8738E+01   0.0000E+00  0.0000
   5.8738E+01   6.0168E+01   0.0000E+00  0.0000
   6.0168E+01   6.1632E+01   0.0000E+00  0.0000
   6.1632E+01   6.3131E+01   0.0000E+00  0.0000
   6.3131E+01   6.4667E+01   0.0000E+00  0.0000
   6.4667E+01   6.6240E+01   0.0000E+00  0.0000
   6.6240E+01   6.7852E+01   0.0000E+00  0.0000
   6.7852E+01   6.9503E+01   0.0000E+00  0.0000
   6.9503E+01   7.1194E+01   0.0000E+00  0.0000
   7.1194E+01   7.2926E+01   0.0000E+00  0.0000
   7.2926E+01   7.4701E+01   0.0000E+00  0.0000
   7.4701E+01   7.6518E+01   0.0000E+00  0.0000
   7.6518E+01   7.8380E+01   0.0000E+00  0.0000
   7.8380E+01   8.0287E+01   0.0000E+00  0.0000
   8.0287E+01   8.2240E+01   0.0000E+00  0.0000
   8.2240E+01   8.4241E+01   0.0000E+00  0.0000
   8.4241E+01   8.6291E+01   0.0000E+00  0.0000
   8.6291E+01   8.8391E+01   0.0000E+00  0.0000
   8.8391E+01   9.0541E+01   0.0000E+00  0.0000
   9.0541E+01   9.2744E+01   0.0000E+00  0.0000
   9.2744E+01   9.5001E+01   0.0000E+00  0.0000
   9.5001E+01   9.7312E+01   0.0000E+00  0.0000
   9.7312E+01   9.9680E+01   0.0000E+00  0.0000
   9.9680E+01   1.0211E+02   0.0000E+00  0.0000
   1.0211E+02   1.0459E+02   0.0000E+00  0.0000
   1.0459E+02   1.0713E+02   0.0000E+00  0.0000
   1.0713E+02   1.0974E+02   0.0000E+00  0.0000
   1.0974E+02   1.1241E+02   0.0000E+00  0.0000
   1.1241E+02   1.1515E+02   0.0000E+00  0.0000
   1.1515E+02   1.1795E+02   0.0000E+00  0.0000
   1.1795E+02   1.2082E+02   0.0000E+00  0.0000
   1.2082E+02   1.2376E+02   0.0000E+00  0.0000
   1.2376E+02   1.2677E+02   0.0000E+00  0.0000
   1.2677E+02   1.2985E+02   0.0000E+00  0.0000
   1.2985E+02   1.3301E+02   0.0000E+00  0.0000
   1.3301E+02   1.3625E+02   0.0000E+00  0.0000
   1.3625E+02   1.3956E+02   0.0000E+00  0.0000
   1.3956E+02   1.4296E+02   0.0000E+00  0.0000
   1.4296E+02   1.4644E+02   0.0000E+00  0.0000
   1.4644E+02   1.5000E+02   0.0000E+00  0.0000

#   sum over                 1.1931E-06
'no. =    1   reg = 126 - 226'
msuc: {\huge [t-cross] in region mesh}
msdr: {\it plotted by \ANGEL \version}
msdl: {\it calculated by \PHITS  3.26}
wt: s(0.7)
\vspace{-3}
  region surface crossing
  area  &=&   1.0000E+00 [cm^2]
e:
 
# Information for Restart Calculation
# This calculation was newly started
# istdev =  2 # 1:Batch variance, 2:History variance
# resc2  = 5.00000000000000000E+09 # Total source weight or Total source weight / maxcas
# resc3  = 5.00000000000000000E+09 # Total history number or Total batch number
# maxcas =   100000000 # History / Batch, only used for istdev=1
# bitrseed = 0110100000100010111000001110001111001110100100011111101000111001 # bit data of rseed
