[ T-Cross ]
    title = [t-cross] in region mesh
     mesh =  reg            # mesh type is region-wise
      reg =    1            # number of crossing regions
      non     r-from    r-to       area
      1       111       211        1.000000    
   e-type =    3            # e-mesh is log given by emin, emax and ne
     emin =  1.0000000E-02  # minimum value of e-mesh points
     emax =   150.0000      # maximum value of e-mesh points
#    edel =  2.4039514E-02  # mesh width of e-mesh points
       ne =    400          # number of e-mesh points
#    data = ( e(i), i = 1, ne + 1 )
#           1.00000E-02  1.02433E-02  1.04925E-02  1.07478E-02  1.10093E-02
#           1.12772E-02  1.15516E-02  1.18326E-02  1.21205E-02  1.24154E-02
#           1.27175E-02  1.30269E-02  1.33439E-02  1.36686E-02  1.40011E-02
#           1.43418E-02  1.46907E-02  1.50482E-02  1.54143E-02  1.57894E-02
#           1.61735E-02  1.65670E-02  1.69701E-02  1.73830E-02  1.78060E-02
#           1.82392E-02  1.86830E-02  1.91375E-02  1.96032E-02  2.00801E-02
#           2.05687E-02  2.10692E-02  2.15818E-02  2.21069E-02  2.26448E-02
#           2.31957E-02  2.37601E-02  2.43382E-02  2.49304E-02  2.55369E-02
#           2.61583E-02  2.67947E-02  2.74467E-02  2.81145E-02  2.87985E-02
#           2.94992E-02  3.02169E-02  3.09521E-02  3.17052E-02  3.24766E-02
#           3.32668E-02  3.40762E-02  3.49053E-02  3.57546E-02  3.66246E-02
#           3.75157E-02  3.84284E-02  3.93634E-02  4.03212E-02  4.13022E-02
#           4.23071E-02  4.33365E-02  4.43909E-02  4.54710E-02  4.65773E-02
#           4.77106E-02  4.88714E-02  5.00605E-02  5.12785E-02  5.25262E-02
#           5.38042E-02  5.51133E-02  5.64542E-02  5.78278E-02  5.92348E-02
#           6.06760E-02  6.21523E-02  6.36645E-02  6.52135E-02  6.68002E-02
#           6.84255E-02  7.00904E-02  7.17957E-02  7.35426E-02  7.53319E-02
#           7.71648E-02  7.90423E-02  8.09655E-02  8.29354E-02  8.49533E-02
#           8.70203E-02  8.91376E-02  9.13064E-02  9.35279E-02  9.58035E-02
#           9.81345E-02  1.00522E-01  1.02968E-01  1.05473E-01  1.08040E-01
#           1.10668E-01  1.13361E-01  1.16119E-01  1.18944E-01  1.21838E-01
#           1.24803E-01  1.27839E-01  1.30950E-01  1.34136E-01  1.37399E-01
#           1.40742E-01  1.44167E-01  1.47675E-01  1.51268E-01  1.54948E-01
#           1.58718E-01  1.62580E-01  1.66535E-01  1.70587E-01  1.74738E-01
#           1.78989E-01  1.83344E-01  1.87805E-01  1.92375E-01  1.97055E-01
#           2.01850E-01  2.06761E-01  2.11792E-01  2.16945E-01  2.22223E-01
#           2.27630E-01  2.33169E-01  2.38842E-01  2.44653E-01  2.50605E-01
#           2.56703E-01  2.62949E-01  2.69346E-01  2.75900E-01  2.82613E-01
#           2.89489E-01  2.96532E-01  3.03747E-01  3.11138E-01  3.18708E-01
#           3.26462E-01  3.34405E-01  3.42542E-01  3.50876E-01  3.59413E-01
#           3.68158E-01  3.77116E-01  3.86291E-01  3.95690E-01  4.05317E-01
#           4.15179E-01  4.25281E-01  4.35628E-01  4.46227E-01  4.57084E-01
#           4.68205E-01  4.79597E-01  4.91266E-01  5.03219E-01  5.15463E-01
#           5.28005E-01  5.40851E-01  5.54011E-01  5.67490E-01  5.81298E-01
#           5.95441E-01  6.09929E-01  6.24769E-01  6.39970E-01  6.55541E-01
#           6.71491E-01  6.87828E-01  7.04564E-01  7.21706E-01  7.39266E-01
#           7.57253E-01  7.75678E-01  7.94551E-01  8.13883E-01  8.33685E-01
#           8.53969E-01  8.74747E-01  8.96030E-01  9.17831E-01  9.40163E-01
#           9.63038E-01  9.86469E-01  1.01047E+00  1.03506E+00  1.06024E+00
#           1.08604E+00  1.11246E+00  1.13953E+00  1.16725E+00  1.19565E+00
#           1.22474E+00  1.25454E+00  1.28507E+00  1.31633E+00  1.34836E+00
#           1.38117E+00  1.41477E+00  1.44920E+00  1.48446E+00  1.52057E+00
#           1.55757E+00  1.59547E+00  1.63429E+00  1.67405E+00  1.71478E+00
#           1.75650E+00  1.79924E+00  1.84302E+00  1.88786E+00  1.93379E+00
#           1.98084E+00  2.02904E+00  2.07841E+00  2.12898E+00  2.18078E+00
#           2.23384E+00  2.28819E+00  2.34386E+00  2.40089E+00  2.45930E+00
#           2.51914E+00  2.58043E+00  2.64322E+00  2.70753E+00  2.77341E+00
#           2.84088E+00  2.91001E+00  2.98081E+00  3.05333E+00  3.12762E+00
#           3.20372E+00  3.28167E+00  3.36152E+00  3.44330E+00  3.52708E+00
#           3.61290E+00  3.70080E+00  3.79085E+00  3.88308E+00  3.97756E+00
#           4.07434E+00  4.17347E+00  4.27501E+00  4.37903E+00  4.48557E+00
#           4.59471E+00  4.70650E+00  4.82102E+00  4.93832E+00  5.05847E+00
#           5.18155E+00  5.30762E+00  5.43676E+00  5.56904E+00  5.70453E+00
#           5.84333E+00  5.98550E+00  6.13114E+00  6.28031E+00  6.43312E+00
#           6.58964E+00  6.74997E+00  6.91420E+00  7.08243E+00  7.25475E+00
#           7.43126E+00  7.61207E+00  7.79728E+00  7.98700E+00  8.18133E+00
#           8.38038E+00  8.58428E+00  8.79315E+00  9.00709E+00  9.22624E+00
#           9.45072E+00  9.68067E+00  9.91620E+00  1.01575E+01  1.04046E+01
#           1.06578E+01  1.09171E+01  1.11827E+01  1.14548E+01  1.17335E+01
#           1.20190E+01  1.23114E+01  1.26109E+01  1.29178E+01  1.32321E+01
#           1.35540E+01  1.38838E+01  1.42216E+01  1.45676E+01  1.49221E+01
#           1.52851E+01  1.56570E+01  1.60380E+01  1.64282E+01  1.68279E+01
#           1.72374E+01  1.76568E+01  1.80864E+01  1.85264E+01  1.89772E+01
#           1.94389E+01  1.99119E+01  2.03963E+01  2.08926E+01  2.14009E+01
#           2.19216E+01  2.24550E+01  2.30014E+01  2.35610E+01  2.41343E+01
#           2.47215E+01  2.53230E+01  2.59391E+01  2.65702E+01  2.72167E+01
#           2.78789E+01  2.85572E+01  2.92520E+01  2.99637E+01  3.06928E+01
#           3.14396E+01  3.22045E+01  3.29881E+01  3.37907E+01  3.46128E+01
#           3.54550E+01  3.63177E+01  3.72013E+01  3.81064E+01  3.90336E+01
#           3.99833E+01  4.09561E+01  4.19526E+01  4.29734E+01  4.40189E+01
#           4.50900E+01  4.61870E+01  4.73108E+01  4.84619E+01  4.96410E+01
#           5.08488E+01  5.20860E+01  5.33533E+01  5.46514E+01  5.59812E+01
#           5.73432E+01  5.87384E+01  6.01676E+01  6.16315E+01  6.31311E+01
#           6.46671E+01  6.62405E+01  6.78522E+01  6.95031E+01  7.11941E+01
#           7.29263E+01  7.47007E+01  7.65182E+01  7.83800E+01  8.02870E+01
#           8.22405E+01  8.42414E+01  8.62911E+01  8.83906E+01  9.05412E+01
#           9.27442E+01  9.50007E+01  9.73122E+01  9.96799E+01  1.02105E+02
#           1.04589E+02  1.07134E+02  1.09741E+02  1.12411E+02  1.15146E+02
#           1.17948E+02  1.20817E+02  1.23757E+02  1.26768E+02  1.29852E+02
#           1.33012E+02  1.36248E+02  1.39563E+02  1.42959E+02  1.46437E+02
#           1.50000E+02
     unit =    2            # unit is [1/cm^2/(MeV/n)/source]
     axis =  eng            # axis of output
     file = detector-12.out  # file name of output for the above axis
   output = f-curr          # surface crossing forward current spectrum
     part =  neutron  
# kf/name :  2112     
#    used :        main (  %)        temp (  %)       total (  %)
#  memory :         414 (  0)           0 (  0)         414 (  0)

#------------------------------------------------------------------------------
#newpage:
#   no. =    1   reg = 111 - 211

x: Energy [MeV/n]
y:  F-Curr [1/cm^2/(MeV/n)/source]         
p: xlog ylog afac(0.8) form(0.9)
h: n            x            y(neutron ),hh0l   n 
#  e-lower      e-upper      neutron     r.err 
   1.0000E-02   1.0243E-02   1.2704E-03  0.0802
   1.0243E-02   1.0493E-02   1.4445E-03  0.0744
   1.0493E-02   1.0748E-02   1.3108E-03  0.0771
   1.0748E-02   1.1009E-02   1.3287E-03  0.0749
   1.1009E-02   1.1277E-02   1.1898E-03  0.0787
   1.1277E-02   1.1552E-02   1.0089E-03  0.0845
   1.1552E-02   1.1833E-02   1.3061E-03  0.0733
   1.1833E-02   1.2121E-02   1.1628E-03  0.0769
   1.2121E-02   1.2415E-02   1.2655E-03  0.0730
   1.2415E-02   1.2718E-02   9.7081E-04  0.0821
   1.2718E-02   1.3027E-02   1.1088E-03  0.0758
   1.3027E-02   1.3344E-02   1.0720E-03  0.0761
   1.3344E-02   1.3669E-02   1.1948E-03  0.0714
   1.3669E-02   1.4001E-02   1.0411E-03  0.0757
   1.4001E-02   1.4342E-02   9.7720E-04  0.0772
   1.4342E-02   1.4691E-02   1.0313E-03  0.0741
   1.4691E-02   1.5048E-02   8.2701E-04  0.0818
   1.5048E-02   1.5414E-02   9.5828E-04  0.0751
   1.5414E-02   1.5789E-02   1.0030E-03  0.0724
   1.5789E-02   1.6174E-02   7.9050E-04  0.0808
   1.6174E-02   1.6567E-02   7.2814E-04  0.0829
   1.6567E-02   1.6970E-02   7.8337E-04  0.0791
   1.6970E-02   1.7383E-02   8.4784E-04  0.0752
   1.7383E-02   1.7806E-02   8.0929E-04  0.0763
   1.7806E-02   1.8239E-02   8.3075E-04  0.0742
   1.8239E-02   1.8683E-02   6.7951E-04  0.0809
   1.8683E-02   1.9138E-02   7.0747E-04  0.0784
   1.9138E-02   1.9603E-02   8.5138E-04  0.0711
   1.9603E-02   2.0080E-02   6.6455E-04  0.0790
   2.0080E-02   2.0569E-02   7.2439E-04  0.0746
   2.0569E-02   2.1069E-02   6.9581E-04  0.0753
   2.1069E-02   2.1582E-02   6.5402E-04  0.0769
   2.1582E-02   2.2107E-02   5.9719E-04  0.0796
   2.2107E-02   2.2645E-02   6.4751E-04  0.0754
   2.2645E-02   2.3196E-02   6.5771E-04  0.0740
   2.3196E-02   2.3760E-02   7.1334E-04  0.0701
   2.3760E-02   2.4338E-02   5.7443E-04  0.0771
   2.4338E-02   2.4930E-02   5.6622E-04  0.0766
   2.4930E-02   2.5537E-02   5.2233E-04  0.0791
   2.5537E-02   2.6158E-02   5.8783E-04  0.0737
   2.6158E-02   2.6795E-02   5.6455E-04  0.0743
   2.6795E-02   2.7447E-02   5.1169E-04  0.0770
   2.7447E-02   2.8114E-02   5.3048E-04  0.0747
   2.8114E-02   2.8799E-02   4.3417E-04  0.0814
   2.8799E-02   2.9499E-02   5.2055E-04  0.0736
   2.9499E-02   3.0217E-02   4.4797E-04  0.0782
   3.0217E-02   3.0952E-02   4.9226E-04  0.0741
   3.0952E-02   3.1705E-02   4.3846E-04  0.0775
   3.1705E-02   3.2477E-02   4.8492E-04  0.0725
   3.2477E-02   3.3267E-02   3.9921E-04  0.0792
   3.3267E-02   3.4076E-02   4.1432E-04  0.0768
   3.4076E-02   3.4905E-02   3.9503E-04  0.0777
   3.4905E-02   3.5755E-02   3.5297E-04  0.0812
   3.5755E-02   3.6625E-02   3.5201E-04  0.0804
   3.6625E-02   3.7516E-02   3.8319E-04  0.0760
   3.7516E-02   3.8428E-02   3.2757E-04  0.0810
   3.8428E-02   3.9363E-02   3.7134E-04  0.0753
   3.9363E-02   4.0321E-02   3.9224E-04  0.0728
   4.0321E-02   4.1302E-02   3.1956E-04  0.0794
   4.1302E-02   4.2307E-02   3.3187E-04  0.0768
   4.2307E-02   4.3337E-02   3.1710E-04  0.0779
   4.3337E-02   4.4391E-02   2.8842E-04  0.0805
   4.4391E-02   4.5471E-02   2.7680E-04  0.0815
   4.5471E-02   4.6577E-02   2.6289E-04  0.0823
   4.6577E-02   4.7711E-02   2.5897E-04  0.0822
   4.7711E-02   4.8871E-02   2.8135E-04  0.0778
   4.8871E-02   5.0061E-02   2.7375E-04  0.0777
   5.0061E-02   5.1279E-02   2.4191E-04  0.0819
   5.1279E-02   5.2526E-02   2.2386E-04  0.0839
   5.2526E-02   5.3804E-02   2.1476E-04  0.0846
   5.3804E-02   5.5113E-02   2.5174E-04  0.0773
   5.5113E-02   5.6454E-02   2.6191E-04  0.0750
   5.6454E-02   5.7828E-02   2.4189E-04  0.0771
   5.7828E-02   5.9235E-02   2.1518E-04  0.0805
   5.9235E-02   6.0676E-02   1.7462E-04  0.0885
   6.0676E-02   6.2152E-02   1.9696E-04  0.0823
   6.2152E-02   6.3665E-02   2.0504E-04  0.0797
   6.3665E-02   6.5214E-02   1.9594E-04  0.0806
   6.5214E-02   6.6800E-02   2.0183E-04  0.0786
   6.6800E-02   6.8426E-02   1.8874E-04  0.0803
   6.8426E-02   7.0090E-02   2.0211E-04  0.0767
   7.0090E-02   7.1796E-02   1.9867E-04  0.0763
   7.1796E-02   7.3543E-02   1.9078E-04  0.0771
   7.3543E-02   7.5332E-02   1.6603E-04  0.0812
   7.5332E-02   7.7165E-02   1.7349E-04  0.0788
   7.7165E-02   7.9042E-02   1.6198E-04  0.0807
   7.9042E-02   8.0965E-02   1.5311E-04  0.0820
   8.0965E-02   8.2935E-02   1.5624E-04  0.0800
   8.2935E-02   8.4953E-02   1.5834E-04  0.0788
   8.4953E-02   8.7020E-02   1.5253E-04  0.0793
   8.7020E-02   8.9138E-02   1.3644E-04  0.0824
   8.9138E-02   9.1306E-02   1.3786E-04  0.0811
   9.1306E-02   9.3528E-02   1.5931E-04  0.0746
   9.3528E-02   9.5804E-02   1.5199E-04  0.0756
   9.5804E-02   9.8134E-02   1.5834E-04  0.0731
   9.8134E-02   1.0052E-01   1.3725E-04  0.0774
   1.0052E-01   1.0297E-01   1.5054E-04  0.0733
   1.0297E-01   1.0547E-01   1.2961E-04  0.0781
   1.0547E-01   1.0804E-01   1.2006E-04  0.0802
   1.0804E-01   1.1067E-01   1.3210E-04  0.0752
   1.1067E-01   1.1336E-01   1.1523E-04  0.0797
   1.1336E-01   1.1612E-01   1.1328E-04  0.0796
   1.1612E-01   1.1894E-01   1.0907E-04  0.0798
   1.1894E-01   1.2184E-01   1.2574E-04  0.0736
   1.2184E-01   1.2480E-01   9.8217E-05  0.0824
   1.2480E-01   1.2784E-01   1.0887E-04  0.0771
   1.2784E-01   1.3095E-01   1.0684E-04  0.0768
   1.3095E-01   1.3414E-01   1.0748E-04  0.0758
   1.3414E-01   1.3740E-01   1.1426E-04  0.0730
   1.3740E-01   1.4074E-01   8.3789E-05  0.0839
   1.4074E-01   1.4417E-01   1.0328E-04  0.0747
   1.4417E-01   1.4767E-01   9.8869E-05  0.0754
   1.4767E-01   1.5127E-01   9.4230E-05  0.0765
   1.5127E-01   1.5495E-01   1.0620E-04  0.0709
   1.5495E-01   1.5872E-01   1.0717E-04  0.0699
   1.5872E-01   1.6258E-01   8.3094E-05  0.0784
   1.6258E-01   1.6654E-01   9.6315E-05  0.0721
   1.6654E-01   1.7059E-01   8.8969E-05  0.0740
   1.7059E-01   1.7474E-01   1.0240E-04  0.0681
   1.7474E-01   1.7899E-01   8.0172E-05  0.0761
   1.7899E-01   1.8334E-01   9.2028E-05  0.0702
   1.8334E-01   1.8781E-01   8.8327E-05  0.0708
   1.8781E-01   1.9237E-01   8.0476E-05  0.0731
   1.9237E-01   1.9706E-01   7.9375E-05  0.0727
   1.9706E-01   2.0185E-01   8.3642E-05  0.0702
   2.0185E-01   2.0676E-01   9.0928E-05  0.0664
   2.0676E-01   2.1179E-01   7.9539E-05  0.0702
   2.1179E-01   2.1694E-01   9.5532E-05  0.0634
   2.1694E-01   2.2222E-01   1.0446E-04  0.0598
   2.2222E-01   2.2763E-01   1.0553E-04  0.0589
   2.2763E-01   2.3317E-01   1.0841E-04  0.0573
   2.3317E-01   2.3884E-01   1.1305E-04  0.0556
   2.3884E-01   2.4465E-01   1.1361E-04  0.0548
   2.4465E-01   2.5061E-01   1.2179E-04  0.0522
   2.5061E-01   2.5670E-01   1.2431E-04  0.0509
   2.5670E-01   2.6295E-01   1.2402E-04  0.0504
   2.6295E-01   2.6935E-01   1.2805E-04  0.0491
   2.6935E-01   2.7590E-01   1.5088E-04  0.0447
   2.7590E-01   2.8261E-01   1.4517E-04  0.0450
   2.8261E-01   2.8949E-01   1.6357E-04  0.0419
   2.8949E-01   2.9653E-01   1.4681E-04  0.0437
   2.9653E-01   3.0375E-01   1.7292E-04  0.0398
   3.0375E-01   3.1114E-01   1.7549E-04  0.0391
   3.1114E-01   3.1871E-01   1.8563E-04  0.0375
   3.1871E-01   3.2646E-01   1.8395E-04  0.0373
   3.2646E-01   3.3441E-01   1.9289E-04  0.0359
   3.3441E-01   3.4254E-01   2.1107E-04  0.0339
   3.4254E-01   3.5088E-01   2.1420E-04  0.0333
   3.5088E-01   3.5941E-01   2.2018E-04  0.0324
   3.5941E-01   3.6816E-01   2.2680E-04  0.0316
   3.6816E-01   3.7712E-01   2.1530E-04  0.0319
   3.7712E-01   3.8629E-01   2.3270E-04  0.0304
   3.8629E-01   3.9569E-01   2.5952E-04  0.0285
   3.9569E-01   4.0532E-01   2.5520E-04  0.0283
   4.0532E-01   4.1518E-01   2.7539E-04  0.0270
   4.1518E-01   4.2528E-01   2.8123E-04  0.0264
   4.2528E-01   4.3563E-01   2.8513E-04  0.0259
   4.3563E-01   4.4623E-01   3.0656E-04  0.0247
   4.4623E-01   4.5708E-01   3.1043E-04  0.0242
   4.5708E-01   4.6821E-01   3.1639E-04  0.0237
   4.6821E-01   4.7960E-01   3.2987E-04  0.0229
   4.7960E-01   4.9127E-01   3.4010E-04  0.0223
   4.9127E-01   5.0322E-01   3.6935E-04  0.0212
   5.0322E-01   5.1546E-01   3.4992E-04  0.0215
   5.1546E-01   5.2800E-01   3.7697E-04  0.0205
   5.2800E-01   5.4085E-01   3.8266E-04  0.0201
   5.4085E-01   5.5401E-01   3.9753E-04  0.0195
   5.5401E-01   5.6749E-01   4.0477E-04  0.0191
   5.6749E-01   5.8130E-01   4.1127E-04  0.0187
   5.8130E-01   5.9544E-01   4.1675E-04  0.0183
   5.9544E-01   6.0993E-01   4.3276E-04  0.0178
   6.0993E-01   6.2477E-01   4.4740E-04  0.0173
   6.2477E-01   6.3997E-01   4.6019E-04  0.0168
   6.3997E-01   6.5554E-01   4.6680E-04  0.0165
   6.5554E-01   6.7149E-01   4.7142E-04  0.0162
   6.7149E-01   6.8783E-01   4.6352E-04  0.0162
   6.8783E-01   7.0456E-01   4.9039E-04  0.0155
   7.0456E-01   7.2171E-01   5.0103E-04  0.0152
   7.2171E-01   7.3927E-01   5.0529E-04  0.0149
   7.3927E-01   7.5725E-01   5.0882E-04  0.0147
   7.5725E-01   7.7568E-01   5.3753E-04  0.0141
   7.7568E-01   7.9455E-01   5.2157E-04  0.0142
   7.9455E-01   8.1388E-01   5.2520E-04  0.0140
   8.1388E-01   8.3368E-01   5.3777E-04  0.0136
   8.3368E-01   8.5397E-01   5.5005E-04  0.0133
   8.5397E-01   8.7475E-01   5.2961E-04  0.0134
   8.7475E-01   8.9603E-01   5.6134E-04  0.0129
   8.9603E-01   9.1783E-01   5.5067E-04  0.0128
   9.1783E-01   9.4016E-01   5.4914E-04  0.0127
   9.4016E-01   9.6304E-01   5.5889E-04  0.0124
   9.6304E-01   9.8647E-01   5.6559E-04  0.0122
   9.8647E-01   1.0105E+00   5.5951E-04  0.0121
   1.0105E+00   1.0351E+00   5.5983E-04  0.0120
   1.0351E+00   1.0602E+00   5.7532E-04  0.0117
   1.0602E+00   1.0860E+00   5.7890E-04  0.0115
   1.0860E+00   1.1125E+00   5.6136E-04  0.0115
   1.1125E+00   1.1395E+00   5.6481E-04  0.0114
   1.1395E+00   1.1673E+00   5.6920E-04  0.0112
   1.1673E+00   1.1957E+00   5.6735E-04  0.0111
   1.1957E+00   1.2247E+00   5.7784E-04  0.0108
   1.2247E+00   1.2545E+00   5.5649E-04  0.0109
   1.2545E+00   1.2851E+00   5.6055E-04  0.0107
   1.2851E+00   1.3163E+00   5.6528E-04  0.0106
   1.3163E+00   1.3484E+00   5.5910E-04  0.0105
   1.3484E+00   1.3812E+00   5.5714E-04  0.0104
   1.3812E+00   1.4148E+00   5.6290E-04  0.0102
   1.4148E+00   1.4492E+00   5.4957E-04  0.0102
   1.4492E+00   1.4845E+00   5.5616E-04  0.0100
   1.4845E+00   1.5206E+00   5.5850E-04  0.0099
   1.5206E+00   1.5576E+00   5.4903E-04  0.0099
   1.5576E+00   1.5955E+00   5.4991E-04  0.0097
   1.5955E+00   1.6343E+00   5.4821E-04  0.0096
   1.6343E+00   1.6741E+00   5.4387E-04  0.0096
   1.6741E+00   1.7148E+00   5.5064E-04  0.0094
   1.7148E+00   1.7565E+00   5.3373E-04  0.0094
   1.7565E+00   1.7992E+00   5.3251E-04  0.0093
   1.7992E+00   1.8430E+00   5.3578E-04  0.0092
   1.8430E+00   1.8879E+00   5.3118E-04  0.0091
   1.8879E+00   1.9338E+00   5.2281E-04  0.0091
   1.9338E+00   1.9808E+00   5.1463E-04  0.0090
   1.9808E+00   2.0290E+00   5.1826E-04  0.0089
   2.0290E+00   2.0784E+00   5.0351E-04  0.0089
   2.0784E+00   2.1290E+00   4.9782E-04  0.0088
   2.1290E+00   2.1808E+00   5.0109E-04  0.0087
   2.1808E+00   2.2338E+00   4.9065E-04  0.0087
   2.2338E+00   2.2882E+00   4.8420E-04  0.0087
   2.2882E+00   2.3439E+00   4.8146E-04  0.0086
   2.3439E+00   2.4009E+00   4.8085E-04  0.0085
   2.4009E+00   2.4593E+00   4.7755E-04  0.0084
   2.4593E+00   2.5191E+00   4.7299E-04  0.0083
   2.5191E+00   2.5804E+00   4.5948E-04  0.0084
   2.5804E+00   2.6432E+00   4.5959E-04  0.0083
   2.6432E+00   2.7075E+00   4.4822E-04  0.0083
   2.7075E+00   2.7734E+00   4.4265E-04  0.0082
   2.7734E+00   2.8409E+00   4.3817E-04  0.0082
   2.8409E+00   2.9100E+00   4.3162E-04  0.0081
   2.9100E+00   2.9808E+00   4.2675E-04  0.0081
   2.9808E+00   3.0533E+00   4.2006E-04  0.0080
   3.0533E+00   3.1276E+00   4.1659E-04  0.0080
   3.1276E+00   3.2037E+00   4.0859E-04  0.0080
   3.2037E+00   3.2817E+00   3.9937E-04  0.0080
   3.2817E+00   3.3615E+00   3.9563E-04  0.0079
   3.3615E+00   3.4433E+00   3.8338E-04  0.0079
   3.4433E+00   3.5271E+00   3.8517E-04  0.0078
   3.5271E+00   3.6129E+00   3.7945E-04  0.0078
   3.6129E+00   3.7008E+00   3.7004E-04  0.0078
   3.7008E+00   3.7908E+00   3.5931E-04  0.0078
   3.7908E+00   3.8831E+00   3.5554E-04  0.0078
   3.8831E+00   3.9776E+00   3.5122E-04  0.0077
   3.9776E+00   4.0743E+00   3.4395E-04  0.0077
   4.0743E+00   4.1735E+00   3.4112E-04  0.0076
   4.1735E+00   4.2750E+00   3.2740E-04  0.0077
   4.2750E+00   4.3790E+00   3.2490E-04  0.0076
   4.3790E+00   4.4856E+00   3.2340E-04  0.0076
   4.4856E+00   4.5947E+00   3.1665E-04  0.0076
   4.5947E+00   4.7065E+00   3.0614E-04  0.0076
   4.7065E+00   4.8210E+00   2.9909E-04  0.0076
   4.8210E+00   4.9383E+00   2.9178E-04  0.0076
   4.9383E+00   5.0585E+00   2.8049E-04  0.0077
   5.0585E+00   5.1815E+00   2.7136E-04  0.0077
   5.1815E+00   5.3076E+00   2.6662E-04  0.0077
   5.3076E+00   5.4368E+00   2.6063E-04  0.0077
   5.4368E+00   5.5690E+00   2.5561E-04  0.0076
   5.5690E+00   5.7045E+00   2.4589E-04  0.0077
   5.7045E+00   5.8433E+00   2.3286E-04  0.0078
   5.8433E+00   5.9855E+00   2.3084E-04  0.0078
   5.9855E+00   6.1311E+00   2.2232E-04  0.0078
   6.1311E+00   6.2803E+00   2.1296E-04  0.0079
   6.2803E+00   6.4331E+00   2.0510E-04  0.0079
   6.4331E+00   6.5896E+00   2.0176E-04  0.0079
   6.5896E+00   6.7500E+00   1.9101E-04  0.0080
   6.7500E+00   6.9142E+00   1.8390E-04  0.0081
   6.9142E+00   7.0824E+00   1.7310E-04  0.0082
   7.0824E+00   7.2548E+00   1.6682E-04  0.0083
   7.2548E+00   7.4313E+00   1.5831E-04  0.0084
   7.4313E+00   7.6121E+00   1.4968E-04  0.0086
   7.6121E+00   7.7973E+00   1.4229E-04  0.0087
   7.7973E+00   7.9870E+00   1.3797E-04  0.0087
   7.9870E+00   8.1813E+00   1.2989E-04  0.0089
   8.1813E+00   8.3804E+00   1.2384E-04  0.0090
   8.3804E+00   8.5843E+00   1.1652E-04  0.0091
   8.5843E+00   8.7931E+00   1.1165E-04  0.0092
   8.7931E+00   9.0071E+00   1.0834E-04  0.0093
   9.0071E+00   9.2262E+00   1.0457E-04  0.0093
   9.2262E+00   9.4507E+00   1.0104E-04  0.0094
   9.4507E+00   9.6807E+00   9.6253E-05  0.0095
   9.6807E+00   9.9162E+00   9.3169E-05  0.0095
   9.9162E+00   1.0157E+01   9.1316E-05  0.0095
   1.0157E+01   1.0405E+01   8.7932E-05  0.0096
   1.0405E+01   1.0658E+01   8.6692E-05  0.0095
   1.0658E+01   1.0917E+01   8.4268E-05  0.0095
   1.0917E+01   1.1183E+01   8.0678E-05  0.0096
   1.1183E+01   1.1455E+01   7.9850E-05  0.0096
   1.1455E+01   1.1733E+01   7.8491E-05  0.0095
   1.1733E+01   1.2019E+01   7.7138E-05  0.0095
   1.2019E+01   1.2311E+01   7.1978E-05  0.0097
   1.2311E+01   1.2611E+01   6.9468E-05  0.0098
   1.2611E+01   1.2918E+01   6.7281E-05  0.0098
   1.2918E+01   1.3232E+01   6.4532E-05  0.0099
   1.3232E+01   1.3554E+01   6.2519E-05  0.0100
   1.3554E+01   1.3884E+01   5.9424E-05  0.0101
   1.3884E+01   1.4222E+01   5.8245E-05  0.0101
   1.4222E+01   1.4568E+01   5.4134E-05  0.0103
   1.4568E+01   1.4922E+01   5.2250E-05  0.0104
   1.4922E+01   1.5285E+01   4.9184E-05  0.0106
   1.5285E+01   1.5657E+01   4.7159E-05  0.0107
   1.5657E+01   1.6038E+01   4.5606E-05  0.0107
   1.6038E+01   1.6428E+01   4.2170E-05  0.0110
   1.6428E+01   1.6828E+01   4.0523E-05  0.0111
   1.6828E+01   1.7237E+01   3.8502E-05  0.0113
   1.7237E+01   1.7657E+01   3.6272E-05  0.0115
   1.7657E+01   1.8086E+01   3.4673E-05  0.0116
   1.8086E+01   1.8526E+01   3.3234E-05  0.0117
   1.8526E+01   1.8977E+01   3.1485E-05  0.0119
   1.8977E+01   1.9439E+01   3.0806E-05  0.0119
   1.9439E+01   1.9912E+01   3.0104E-05  0.0119
   1.9912E+01   2.0396E+01   2.8807E-05  0.0120
   2.0396E+01   2.0893E+01   2.7586E-05  0.0121
   2.0893E+01   2.1401E+01   2.7136E-05  0.0120
   2.1401E+01   2.1922E+01   2.6399E-05  0.0121
   2.1922E+01   2.2455E+01   2.6466E-05  0.0119
   2.2455E+01   2.3001E+01   2.5551E-05  0.0120
   2.3001E+01   2.3561E+01   2.4684E-05  0.0120
   2.3561E+01   2.4134E+01   2.3075E-05  0.0123
   2.4134E+01   2.4721E+01   2.2592E-05  0.0123
   2.4721E+01   2.5323E+01   2.1753E-05  0.0124
   2.5323E+01   2.5939E+01   2.0807E-05  0.0125
   2.5939E+01   2.6570E+01   1.9828E-05  0.0126
   2.6570E+01   2.7217E+01   1.8825E-05  0.0128
   2.7217E+01   2.7879E+01   1.7777E-05  0.0130
   2.7879E+01   2.8557E+01   1.7013E-05  0.0132
   2.8557E+01   2.9252E+01   1.5987E-05  0.0134
   2.9252E+01   2.9964E+01   1.5093E-05  0.0136
   2.9964E+01   3.0693E+01   1.3958E-05  0.0140
   3.0693E+01   3.1440E+01   1.2826E-05  0.0145
   3.1440E+01   3.2205E+01   1.1695E-05  0.0150
   3.2205E+01   3.2988E+01   1.0674E-05  0.0155
   3.2988E+01   3.3791E+01   9.5960E-06  0.0161
   3.3791E+01   3.4613E+01   8.4923E-06  0.0169
   3.4613E+01   3.5455E+01   7.6565E-06  0.0176
   3.5455E+01   3.6318E+01   6.3734E-06  0.0191
   3.6318E+01   3.7201E+01   5.3891E-06  0.0205
   3.7201E+01   3.8106E+01   4.3441E-06  0.0226
   3.8106E+01   3.9034E+01   2.8992E-06  0.0273
   3.9034E+01   3.9983E+01   2.1059E-06  0.0316
   3.9983E+01   4.0956E+01   1.5583E-06  0.0363
   4.0956E+01   4.1953E+01   6.5831E-07  0.0552
   4.1953E+01   4.2973E+01   7.4456E-08  0.1622
   4.2973E+01   4.4019E+01   2.1041E-08  0.3015
   4.4019E+01   4.5090E+01   5.6022E-09  0.5774
   4.5090E+01   4.6187E+01   0.0000E+00  0.0000
   4.6187E+01   4.7311E+01   0.0000E+00  0.0000
   4.7311E+01   4.8462E+01   0.0000E+00  0.0000
   4.8462E+01   4.9641E+01   0.0000E+00  0.0000
   4.9641E+01   5.0849E+01   0.0000E+00  0.0000
   5.0849E+01   5.2086E+01   0.0000E+00  0.0000
   5.2086E+01   5.3353E+01   0.0000E+00  0.0000
   5.3353E+01   5.4651E+01   0.0000E+00  0.0000
   5.4651E+01   5.5981E+01   0.0000E+00  0.0000
   5.5981E+01   5.7343E+01   0.0000E+00  0.0000
   5.7343E+01   5.8738E+01   0.0000E+00  0.0000
   5.8738E+01   6.0168E+01   0.0000E+00  0.0000
   6.0168E+01   6.1632E+01   0.0000E+00  0.0000
   6.1632E+01   6.3131E+01   0.0000E+00  0.0000
   6.3131E+01   6.4667E+01   0.0000E+00  0.0000
   6.4667E+01   6.6240E+01   0.0000E+00  0.0000
   6.6240E+01   6.7852E+01   0.0000E+00  0.0000
   6.7852E+01   6.9503E+01   0.0000E+00  0.0000
   6.9503E+01   7.1194E+01   0.0000E+00  0.0000
   7.1194E+01   7.2926E+01   0.0000E+00  0.0000
   7.2926E+01   7.4701E+01   0.0000E+00  0.0000
   7.4701E+01   7.6518E+01   0.0000E+00  0.0000
   7.6518E+01   7.8380E+01   0.0000E+00  0.0000
   7.8380E+01   8.0287E+01   0.0000E+00  0.0000
   8.0287E+01   8.2240E+01   0.0000E+00  0.0000
   8.2240E+01   8.4241E+01   0.0000E+00  0.0000
   8.4241E+01   8.6291E+01   0.0000E+00  0.0000
   8.6291E+01   8.8391E+01   0.0000E+00  0.0000
   8.8391E+01   9.0541E+01   0.0000E+00  0.0000
   9.0541E+01   9.2744E+01   0.0000E+00  0.0000
   9.2744E+01   9.5001E+01   0.0000E+00  0.0000
   9.5001E+01   9.7312E+01   0.0000E+00  0.0000
   9.7312E+01   9.9680E+01   0.0000E+00  0.0000
   9.9680E+01   1.0211E+02   0.0000E+00  0.0000
   1.0211E+02   1.0459E+02   0.0000E+00  0.0000
   1.0459E+02   1.0713E+02   0.0000E+00  0.0000
   1.0713E+02   1.0974E+02   0.0000E+00  0.0000
   1.0974E+02   1.1241E+02   0.0000E+00  0.0000
   1.1241E+02   1.1515E+02   0.0000E+00  0.0000
   1.1515E+02   1.1795E+02   0.0000E+00  0.0000
   1.1795E+02   1.2082E+02   0.0000E+00  0.0000
   1.2082E+02   1.2376E+02   0.0000E+00  0.0000
   1.2376E+02   1.2677E+02   0.0000E+00  0.0000
   1.2677E+02   1.2985E+02   0.0000E+00  0.0000
   1.2985E+02   1.3301E+02   0.0000E+00  0.0000
   1.3301E+02   1.3625E+02   0.0000E+00  0.0000
   1.3625E+02   1.3956E+02   0.0000E+00  0.0000
   1.3956E+02   1.4296E+02   0.0000E+00  0.0000
   1.4296E+02   1.4644E+02   0.0000E+00  0.0000
   1.4644E+02   1.5000E+02   0.0000E+00  0.0000

#   sum over                 2.4806E-05
'no. =    1   reg = 111 - 211'
msuc: {\huge [t-cross] in region mesh}
msdr: {\it plotted by \ANGEL \version}
msdl: {\it calculated by \PHITS  3.26}
wt: s(0.7)
\vspace{-3}
  region surface crossing
  area  &=&   1.0000E+00 [cm^2]
e:
 
# Information for Restart Calculation
# This calculation was newly started
# istdev =  2 # 1:Batch variance, 2:History variance
# resc2  = 5.00000000000000000E+08 # Total source weight or Total source weight / maxcas
# resc3  = 5.00000000000000000E+08 # Total history number or Total batch number
# maxcas =   500000000 # History / Batch, only used for istdev=1
# bitrseed = 1011101111111101000111101101010011111001010110111001011111010111 # bit data of rseed
