[ T-Cross ]
    title = [t-cross] in region mesh
     mesh =  reg            # mesh type is region-wise
      reg =    1            # number of crossing regions
      non     r-from    r-to       area
      1       116       216        1.000000    
   e-type =    3            # e-mesh is log given by emin, emax and ne
     emin =  1.0000000E-02  # minimum value of e-mesh points
     emax =   150.0000      # maximum value of e-mesh points
#    edel =  2.4039514E-02  # mesh width of e-mesh points
       ne =    400          # number of e-mesh points
#    data = ( e(i), i = 1, ne + 1 )
#           1.00000E-02  1.02433E-02  1.04925E-02  1.07478E-02  1.10093E-02
#           1.12772E-02  1.15516E-02  1.18326E-02  1.21205E-02  1.24154E-02
#           1.27175E-02  1.30269E-02  1.33439E-02  1.36686E-02  1.40011E-02
#           1.43418E-02  1.46907E-02  1.50482E-02  1.54143E-02  1.57894E-02
#           1.61735E-02  1.65670E-02  1.69701E-02  1.73830E-02  1.78060E-02
#           1.82392E-02  1.86830E-02  1.91375E-02  1.96032E-02  2.00801E-02
#           2.05687E-02  2.10692E-02  2.15818E-02  2.21069E-02  2.26448E-02
#           2.31957E-02  2.37601E-02  2.43382E-02  2.49304E-02  2.55369E-02
#           2.61583E-02  2.67947E-02  2.74467E-02  2.81145E-02  2.87985E-02
#           2.94992E-02  3.02169E-02  3.09521E-02  3.17052E-02  3.24766E-02
#           3.32668E-02  3.40762E-02  3.49053E-02  3.57546E-02  3.66246E-02
#           3.75157E-02  3.84284E-02  3.93634E-02  4.03212E-02  4.13022E-02
#           4.23071E-02  4.33365E-02  4.43909E-02  4.54710E-02  4.65773E-02
#           4.77106E-02  4.88714E-02  5.00605E-02  5.12785E-02  5.25262E-02
#           5.38042E-02  5.51133E-02  5.64542E-02  5.78278E-02  5.92348E-02
#           6.06760E-02  6.21523E-02  6.36645E-02  6.52135E-02  6.68002E-02
#           6.84255E-02  7.00904E-02  7.17957E-02  7.35426E-02  7.53319E-02
#           7.71648E-02  7.90423E-02  8.09655E-02  8.29354E-02  8.49533E-02
#           8.70203E-02  8.91376E-02  9.13064E-02  9.35279E-02  9.58035E-02
#           9.81345E-02  1.00522E-01  1.02968E-01  1.05473E-01  1.08040E-01
#           1.10668E-01  1.13361E-01  1.16119E-01  1.18944E-01  1.21838E-01
#           1.24803E-01  1.27839E-01  1.30950E-01  1.34136E-01  1.37399E-01
#           1.40742E-01  1.44167E-01  1.47675E-01  1.51268E-01  1.54948E-01
#           1.58718E-01  1.62580E-01  1.66535E-01  1.70587E-01  1.74738E-01
#           1.78989E-01  1.83344E-01  1.87805E-01  1.92375E-01  1.97055E-01
#           2.01850E-01  2.06761E-01  2.11792E-01  2.16945E-01  2.22223E-01
#           2.27630E-01  2.33169E-01  2.38842E-01  2.44653E-01  2.50605E-01
#           2.56703E-01  2.62949E-01  2.69346E-01  2.75900E-01  2.82613E-01
#           2.89489E-01  2.96532E-01  3.03747E-01  3.11138E-01  3.18708E-01
#           3.26462E-01  3.34405E-01  3.42542E-01  3.50876E-01  3.59413E-01
#           3.68158E-01  3.77116E-01  3.86291E-01  3.95690E-01  4.05317E-01
#           4.15179E-01  4.25281E-01  4.35628E-01  4.46227E-01  4.57084E-01
#           4.68205E-01  4.79597E-01  4.91266E-01  5.03219E-01  5.15463E-01
#           5.28005E-01  5.40851E-01  5.54011E-01  5.67490E-01  5.81298E-01
#           5.95441E-01  6.09929E-01  6.24769E-01  6.39970E-01  6.55541E-01
#           6.71491E-01  6.87828E-01  7.04564E-01  7.21706E-01  7.39266E-01
#           7.57253E-01  7.75678E-01  7.94551E-01  8.13883E-01  8.33685E-01
#           8.53969E-01  8.74747E-01  8.96030E-01  9.17831E-01  9.40163E-01
#           9.63038E-01  9.86469E-01  1.01047E+00  1.03506E+00  1.06024E+00
#           1.08604E+00  1.11246E+00  1.13953E+00  1.16725E+00  1.19565E+00
#           1.22474E+00  1.25454E+00  1.28507E+00  1.31633E+00  1.34836E+00
#           1.38117E+00  1.41477E+00  1.44920E+00  1.48446E+00  1.52057E+00
#           1.55757E+00  1.59547E+00  1.63429E+00  1.67405E+00  1.71478E+00
#           1.75650E+00  1.79924E+00  1.84302E+00  1.88786E+00  1.93379E+00
#           1.98084E+00  2.02904E+00  2.07841E+00  2.12898E+00  2.18078E+00
#           2.23384E+00  2.28819E+00  2.34386E+00  2.40089E+00  2.45930E+00
#           2.51914E+00  2.58043E+00  2.64322E+00  2.70753E+00  2.77341E+00
#           2.84088E+00  2.91001E+00  2.98081E+00  3.05333E+00  3.12762E+00
#           3.20372E+00  3.28167E+00  3.36152E+00  3.44330E+00  3.52708E+00
#           3.61290E+00  3.70080E+00  3.79085E+00  3.88308E+00  3.97756E+00
#           4.07434E+00  4.17347E+00  4.27501E+00  4.37903E+00  4.48557E+00
#           4.59471E+00  4.70650E+00  4.82102E+00  4.93832E+00  5.05847E+00
#           5.18155E+00  5.30762E+00  5.43676E+00  5.56904E+00  5.70453E+00
#           5.84333E+00  5.98550E+00  6.13114E+00  6.28031E+00  6.43312E+00
#           6.58964E+00  6.74997E+00  6.91420E+00  7.08243E+00  7.25475E+00
#           7.43126E+00  7.61207E+00  7.79728E+00  7.98700E+00  8.18133E+00
#           8.38038E+00  8.58428E+00  8.79315E+00  9.00709E+00  9.22624E+00
#           9.45072E+00  9.68067E+00  9.91620E+00  1.01575E+01  1.04046E+01
#           1.06578E+01  1.09171E+01  1.11827E+01  1.14548E+01  1.17335E+01
#           1.20190E+01  1.23114E+01  1.26109E+01  1.29178E+01  1.32321E+01
#           1.35540E+01  1.38838E+01  1.42216E+01  1.45676E+01  1.49221E+01
#           1.52851E+01  1.56570E+01  1.60380E+01  1.64282E+01  1.68279E+01
#           1.72374E+01  1.76568E+01  1.80864E+01  1.85264E+01  1.89772E+01
#           1.94389E+01  1.99119E+01  2.03963E+01  2.08926E+01  2.14009E+01
#           2.19216E+01  2.24550E+01  2.30014E+01  2.35610E+01  2.41343E+01
#           2.47215E+01  2.53230E+01  2.59391E+01  2.65702E+01  2.72167E+01
#           2.78789E+01  2.85572E+01  2.92520E+01  2.99637E+01  3.06928E+01
#           3.14396E+01  3.22045E+01  3.29881E+01  3.37907E+01  3.46128E+01
#           3.54550E+01  3.63177E+01  3.72013E+01  3.81064E+01  3.90336E+01
#           3.99833E+01  4.09561E+01  4.19526E+01  4.29734E+01  4.40189E+01
#           4.50900E+01  4.61870E+01  4.73108E+01  4.84619E+01  4.96410E+01
#           5.08488E+01  5.20860E+01  5.33533E+01  5.46514E+01  5.59812E+01
#           5.73432E+01  5.87384E+01  6.01676E+01  6.16315E+01  6.31311E+01
#           6.46671E+01  6.62405E+01  6.78522E+01  6.95031E+01  7.11941E+01
#           7.29263E+01  7.47007E+01  7.65182E+01  7.83800E+01  8.02870E+01
#           8.22405E+01  8.42414E+01  8.62911E+01  8.83906E+01  9.05412E+01
#           9.27442E+01  9.50007E+01  9.73122E+01  9.96799E+01  1.02105E+02
#           1.04589E+02  1.07134E+02  1.09741E+02  1.12411E+02  1.15146E+02
#           1.17948E+02  1.20817E+02  1.23757E+02  1.26768E+02  1.29852E+02
#           1.33012E+02  1.36248E+02  1.39563E+02  1.42959E+02  1.46437E+02
#           1.50000E+02
     unit =    2            # unit is [1/cm^2/(MeV/n)/source]
     axis =  eng            # axis of output
     file = detector-17.out  # file name of output for the above axis
   output = f-curr          # surface crossing forward current spectrum
     part =  neutron  
# kf/name :  2112     
#    used :        main (  %)        temp (  %)       total (  %)
#  memory :         414 (  0)           0 (  0)         414 (  0)

#------------------------------------------------------------------------------
#newpage:
#   no. =    1   reg = 116 - 216

x: Energy [MeV/n]
y:  F-Curr [1/cm^2/(MeV/n)/source]         
p: xlog ylog afac(0.8) form(0.9)
h: n            x            y(neutron ),hh0l   n 
#  e-lower      e-upper      neutron     r.err 
   1.0000E-02   1.0243E-02   2.6257E-03  0.0558
   1.0243E-02   1.0493E-02   2.3655E-03  0.0580
   1.0493E-02   1.0748E-02   2.3727E-03  0.0573
   1.0748E-02   1.1009E-02   2.2523E-03  0.0581
   1.1009E-02   1.1277E-02   2.2969E-03  0.0568
   1.1277E-02   1.1552E-02   2.2708E-03  0.0565
   1.1552E-02   1.1833E-02   2.2804E-03  0.0557
   1.1833E-02   1.2121E-02   2.2949E-03  0.0551
   1.2121E-02   1.2415E-02   2.0734E-03  0.0570
   1.2415E-02   1.2718E-02   1.9818E-03  0.0575
   1.2718E-02   1.3027E-02   1.9678E-03  0.0570
   1.3027E-02   1.3344E-02   1.7841E-03  0.0592
   1.3344E-02   1.3669E-02   1.7456E-03  0.0591
   1.3669E-02   1.4001E-02   1.8927E-03  0.0562
   1.4001E-02   1.4342E-02   1.7684E-03  0.0575
   1.4342E-02   1.4691E-02   1.8638E-03  0.0552
   1.4691E-02   1.5048E-02   1.7588E-03  0.0562
   1.5048E-02   1.5414E-02   1.7388E-03  0.0560
   1.5414E-02   1.5789E-02   1.6028E-03  0.0576
   1.5789E-02   1.6174E-02   1.6673E-03  0.0557
   1.6174E-02   1.6567E-02   1.5634E-03  0.0568
   1.6567E-02   1.6970E-02   1.6390E-03  0.0549
   1.6970E-02   1.7383E-02   1.5216E-03  0.0562
   1.7383E-02   1.7806E-02   1.4035E-03  0.0579
   1.7806E-02   1.8239E-02   1.4116E-03  0.0569
   1.8239E-02   1.8683E-02   1.4448E-03  0.0556
   1.8683E-02   1.9138E-02   1.3909E-03  0.0561
   1.9138E-02   1.9603E-02   1.3895E-03  0.0555
   1.9603E-02   2.0080E-02   1.5105E-03  0.0524
   2.0080E-02   2.0569E-02   1.2317E-03  0.0575
   2.0569E-02   2.1069E-02   1.2492E-03  0.0563
   2.1069E-02   2.1582E-02   1.2795E-03  0.0550
   2.1582E-02   2.2107E-02   1.2987E-03  0.0540
   2.2107E-02   2.2645E-02   1.2942E-03  0.0534
   2.2645E-02   2.3196E-02   1.1068E-03  0.0571
   2.3196E-02   2.3760E-02   1.1440E-03  0.0554
   2.3760E-02   2.4338E-02   1.1814E-03  0.0539
   2.4338E-02   2.4930E-02   1.1469E-03  0.0541
   2.4930E-02   2.5537E-02   1.1122E-03  0.0542
   2.5537E-02   2.6158E-02   1.0855E-03  0.0542
   2.6158E-02   2.6795E-02   1.0693E-03  0.0541
   2.6795E-02   2.7447E-02   9.2060E-04  0.0575
   2.7447E-02   2.8114E-02   9.9569E-04  0.0546
   2.8114E-02   2.8799E-02   9.5559E-04  0.0551
   2.8799E-02   2.9499E-02   8.6247E-04  0.0574
   2.9499E-02   3.0217E-02   8.6965E-04  0.0565
   3.0217E-02   3.0952E-02   9.2431E-04  0.0541
   3.0952E-02   3.1705E-02   8.5945E-04  0.0553
   3.1705E-02   3.2477E-02   8.8338E-04  0.0539
   3.2477E-02   3.3267E-02   8.7289E-04  0.0537
   3.3267E-02   3.4076E-02   9.0824E-04  0.0519
   3.4076E-02   3.4905E-02   8.1264E-04  0.0542
   3.4905E-02   3.5755E-02   7.6135E-04  0.0555
   3.5755E-02   3.6625E-02   8.0464E-04  0.0534
   3.6625E-02   3.7516E-02   8.2359E-04  0.0521
   3.7516E-02   3.8428E-02   6.9802E-04  0.0558
   3.8428E-02   3.9363E-02   7.4342E-04  0.0534
   3.9363E-02   4.0321E-02   7.8117E-04  0.0515
   4.0321E-02   4.1302E-02   7.0528E-04  0.0536
   4.1302E-02   4.2307E-02   6.3453E-04  0.0557
   4.2307E-02   4.3337E-02   6.9410E-04  0.0527
   4.3337E-02   4.4391E-02   6.4225E-04  0.0542
   4.4391E-02   4.5471E-02   6.4394E-04  0.0534
   4.5471E-02   4.6577E-02   6.3433E-04  0.0531
   4.6577E-02   4.7711E-02   6.0730E-04  0.0538
   4.7711E-02   4.8871E-02   5.6004E-04  0.0551
   4.8871E-02   5.0061E-02   6.0361E-04  0.0526
   5.0061E-02   5.1279E-02   5.9323E-04  0.0525
   5.1279E-02   5.2526E-02   6.0703E-04  0.0513
   5.2526E-02   5.3804E-02   5.2197E-04  0.0545
   5.3804E-02   5.5113E-02   5.1347E-04  0.0543
   5.5113E-02   5.6454E-02   5.3183E-04  0.0528
   5.6454E-02   5.7828E-02   4.9812E-04  0.0539
   5.7828E-02   5.9235E-02   4.3530E-04  0.0570
   5.9235E-02   6.0676E-02   4.5920E-04  0.0548
   6.0676E-02   6.2152E-02   4.5552E-04  0.0543
   6.2152E-02   6.3665E-02   4.3759E-04  0.0547
   6.3665E-02   6.5214E-02   4.4582E-04  0.0536
   6.5214E-02   6.6800E-02   4.3245E-04  0.0538
   6.6800E-02   6.8426E-02   4.4980E-04  0.0521
   6.8426E-02   7.0090E-02   3.8722E-04  0.0555
   7.0090E-02   7.1796E-02   3.9770E-04  0.0541
   7.1796E-02   7.3543E-02   4.1818E-04  0.0521
   7.3543E-02   7.5332E-02   3.9014E-04  0.0533
   7.5332E-02   7.7165E-02   3.7670E-04  0.0536
   7.7165E-02   7.9042E-02   3.7038E-04  0.0534
   7.9042E-02   8.0965E-02   3.7633E-04  0.0524
   8.0965E-02   8.2935E-02   3.7408E-04  0.0519
   8.2935E-02   8.4953E-02   3.7230E-04  0.0513
   8.4953E-02   8.7020E-02   3.7552E-04  0.0507
   8.7020E-02   8.9138E-02   3.4260E-04  0.0522
   8.9138E-02   9.1306E-02   3.3657E-04  0.0521
   9.1306E-02   9.3528E-02   3.4640E-04  0.0509
   9.3528E-02   9.5804E-02   2.9306E-04  0.0546
   9.5804E-02   9.8134E-02   3.0983E-04  0.0525
   9.8134E-02   1.0052E-01   3.1255E-04  0.0517
   1.0052E-01   1.0297E-01   2.9753E-04  0.0522
   1.0297E-01   1.0547E-01   2.6283E-04  0.0549
   1.0547E-01   1.0804E-01   2.9156E-04  0.0515
   1.0804E-01   1.1067E-01   2.9753E-04  0.0503
   1.1067E-01   1.1336E-01   2.5730E-04  0.0536
   1.1336E-01   1.1612E-01   2.5941E-04  0.0525
   1.1612E-01   1.1894E-01   2.4275E-04  0.0538
   1.1894E-01   1.2184E-01   2.5332E-04  0.0520
   1.2184E-01   1.2480E-01   2.4222E-04  0.0525
   1.2480E-01   1.2784E-01   2.1799E-04  0.0548
   1.2784E-01   1.3095E-01   2.5593E-04  0.0499
   1.3095E-01   1.3414E-01   2.3623E-04  0.0514
   1.3414E-01   1.3740E-01   2.2203E-04  0.0523
   1.3740E-01   1.4074E-01   2.2673E-04  0.0512
   1.4074E-01   1.4417E-01   2.3650E-04  0.0496
   1.4417E-01   1.4767E-01   2.0304E-04  0.0528
   1.4767E-01   1.5127E-01   2.1817E-04  0.0503
   1.5127E-01   1.5495E-01   2.0676E-04  0.0511
   1.5495E-01   1.5872E-01   1.8408E-04  0.0535
   1.5872E-01   1.6258E-01   2.1554E-04  0.0488
   1.6258E-01   1.6654E-01   2.0086E-04  0.0500
   1.6654E-01   1.7059E-01   2.0824E-04  0.0485
   1.7059E-01   1.7474E-01   1.8614E-04  0.0507
   1.7474E-01   1.7899E-01   1.7282E-04  0.0519
   1.7899E-01   1.8334E-01   1.8043E-04  0.0502
   1.8334E-01   1.8781E-01   1.6369E-04  0.0520
   1.8781E-01   1.9237E-01   1.6595E-04  0.0511
   1.9237E-01   1.9706E-01   1.6554E-04  0.0506
   1.9706E-01   2.0185E-01   1.6469E-04  0.0501
   2.0185E-01   2.0676E-01   1.6199E-04  0.0500
   2.0676E-01   2.1179E-01   1.7737E-04  0.0472
   2.1179E-01   2.1694E-01   1.7154E-04  0.0474
   2.1694E-01   2.2222E-01   1.7191E-04  0.0468
   2.2222E-01   2.2763E-01   1.7746E-04  0.0455
   2.2763E-01   2.3317E-01   2.1202E-04  0.0411
   2.3317E-01   2.3884E-01   2.0568E-04  0.0413
   2.3884E-01   2.4465E-01   2.0815E-04  0.0405
   2.4465E-01   2.5061E-01   2.2838E-04  0.0382
   2.5061E-01   2.5670E-01   2.2670E-04  0.0379
   2.5670E-01   2.6295E-01   2.2233E-04  0.0378
   2.6295E-01   2.6935E-01   2.3783E-04  0.0361
   2.6935E-01   2.7590E-01   2.4364E-04  0.0353
   2.7590E-01   2.8261E-01   2.5677E-04  0.0339
   2.8261E-01   2.8949E-01   2.7926E-04  0.0322
   2.8949E-01   2.9653E-01   2.6891E-04  0.0324
   2.9653E-01   3.0375E-01   2.6638E-04  0.0321
   3.0375E-01   3.1114E-01   2.9044E-04  0.0304
   3.1114E-01   3.1871E-01   2.8080E-04  0.0306
   3.1871E-01   3.2646E-01   2.8912E-04  0.0297
   3.2646E-01   3.3441E-01   2.9406E-04  0.0291
   3.3441E-01   3.4254E-01   3.1816E-04  0.0277
   3.4254E-01   3.5088E-01   3.1164E-04  0.0277
   3.5088E-01   3.5941E-01   3.0781E-04  0.0275
   3.5941E-01   3.6816E-01   3.2109E-04  0.0266
   3.6816E-01   3.7712E-01   3.3042E-04  0.0259
   3.7712E-01   3.8629E-01   3.4266E-04  0.0251
   3.8629E-01   3.9569E-01   3.4638E-04  0.0247
   3.9569E-01   4.0532E-01   3.3430E-04  0.0248
   4.0532E-01   4.1518E-01   3.6084E-04  0.0236
   4.1518E-01   4.2528E-01   3.6867E-04  0.0231
   4.2528E-01   4.3563E-01   3.7705E-04  0.0225
   4.3563E-01   4.4623E-01   3.8295E-04  0.0221
   4.4623E-01   4.5708E-01   3.7960E-04  0.0219
   4.5708E-01   4.6821E-01   3.9960E-04  0.0211
   4.6821E-01   4.7960E-01   3.9775E-04  0.0209
   4.7960E-01   4.9127E-01   4.0484E-04  0.0205
   4.9127E-01   5.0322E-01   3.8468E-04  0.0208
   5.0322E-01   5.1546E-01   3.9280E-04  0.0203
   5.1546E-01   5.2800E-01   4.1397E-04  0.0195
   5.2800E-01   5.4085E-01   4.1007E-04  0.0194
   5.4085E-01   5.5401E-01   4.1944E-04  0.0189
   5.5401E-01   5.6749E-01   3.9895E-04  0.0192
   5.6749E-01   5.8130E-01   4.2639E-04  0.0183
   5.8130E-01   5.9544E-01   4.1133E-04  0.0184
   5.9544E-01   6.0993E-01   4.1168E-04  0.0182
   6.0993E-01   6.2477E-01   4.2864E-04  0.0176
   6.2477E-01   6.3997E-01   4.2010E-04  0.0176
   6.3997E-01   6.5554E-01   4.2818E-04  0.0172
   6.5554E-01   6.7149E-01   4.3539E-04  0.0169
   6.7149E-01   6.8783E-01   4.3547E-04  0.0167
   6.8783E-01   7.0456E-01   4.2855E-04  0.0166
   7.0456E-01   7.2171E-01   4.2413E-04  0.0165
   7.2171E-01   7.3927E-01   4.2711E-04  0.0162
   7.3927E-01   7.5725E-01   4.3119E-04  0.0160
   7.5725E-01   7.7568E-01   4.2342E-04  0.0159
   7.7568E-01   7.9455E-01   4.2778E-04  0.0156
   7.9455E-01   8.1388E-01   4.3668E-04  0.0153
   8.1388E-01   8.3368E-01   4.2377E-04  0.0153
   8.3368E-01   8.5397E-01   4.3136E-04  0.0150
   8.5397E-01   8.7475E-01   4.2039E-04  0.0150
   8.7475E-01   8.9603E-01   4.2261E-04  0.0148
   8.9603E-01   9.1783E-01   4.1621E-04  0.0147
   9.1783E-01   9.4016E-01   4.1420E-04  0.0146
   9.4016E-01   9.6304E-01   4.1941E-04  0.0143
   9.6304E-01   9.8647E-01   4.2308E-04  0.0141
   9.8647E-01   1.0105E+00   4.1293E-04  0.0141
   1.0105E+00   1.0351E+00   4.2797E-04  0.0137
   1.0351E+00   1.0602E+00   4.1311E-04  0.0138
   1.0602E+00   1.0860E+00   4.1183E-04  0.0136
   1.0860E+00   1.1125E+00   4.0686E-04  0.0135
   1.1125E+00   1.1395E+00   4.0727E-04  0.0134
   1.1395E+00   1.1673E+00   3.8809E-04  0.0135
   1.1673E+00   1.1957E+00   3.9990E-04  0.0132
   1.1957E+00   1.2247E+00   3.9151E-04  0.0131
   1.2247E+00   1.2545E+00   4.0001E-04  0.0129
   1.2545E+00   1.2851E+00   3.8844E-04  0.0129
   1.2851E+00   1.3163E+00   3.8563E-04  0.0128
   1.3163E+00   1.3484E+00   3.8626E-04  0.0126
   1.3484E+00   1.3812E+00   3.7616E-04  0.0126
   1.3812E+00   1.4148E+00   3.7377E-04  0.0125
   1.4148E+00   1.4492E+00   3.6842E-04  0.0125
   1.4492E+00   1.4845E+00   3.7002E-04  0.0123
   1.4845E+00   1.5206E+00   3.6608E-04  0.0122
   1.5206E+00   1.5576E+00   3.5745E-04  0.0122
   1.5576E+00   1.5955E+00   3.5455E-04  0.0121
   1.5955E+00   1.6343E+00   3.5705E-04  0.0119
   1.6343E+00   1.6741E+00   3.4073E-04  0.0121
   1.6741E+00   1.7148E+00   3.4110E-04  0.0119
   1.7148E+00   1.7565E+00   3.3426E-04  0.0119
   1.7565E+00   1.7992E+00   3.4324E-04  0.0116
   1.7992E+00   1.8430E+00   3.3314E-04  0.0116
   1.8430E+00   1.8879E+00   3.2974E-04  0.0115
   1.8879E+00   1.9338E+00   3.1696E-04  0.0116
   1.9338E+00   1.9808E+00   3.1364E-04  0.0116
   1.9808E+00   2.0290E+00   3.0867E-04  0.0115
   2.0290E+00   2.0784E+00   3.0878E-04  0.0114
   2.0784E+00   2.1290E+00   3.0111E-04  0.0114
   2.1290E+00   2.1808E+00   2.9613E-04  0.0113
   2.1808E+00   2.2338E+00   2.9873E-04  0.0111
   2.2338E+00   2.2882E+00   2.9727E-04  0.0110
   2.2882E+00   2.3439E+00   2.8658E-04  0.0111
   2.3439E+00   2.4009E+00   2.8367E-04  0.0110
   2.4009E+00   2.4593E+00   2.8974E-04  0.0108
   2.4593E+00   2.5191E+00   2.8235E-04  0.0108
   2.5191E+00   2.5804E+00   2.7663E-04  0.0108
   2.5804E+00   2.6432E+00   2.8218E-04  0.0105
   2.6432E+00   2.7075E+00   2.7250E-04  0.0106
   2.7075E+00   2.7734E+00   2.6675E-04  0.0106
   2.7734E+00   2.8409E+00   2.6464E-04  0.0105
   2.8409E+00   2.9100E+00   2.6188E-04  0.0104
   2.9100E+00   2.9808E+00   2.6249E-04  0.0103
   2.9808E+00   3.0533E+00   2.6053E-04  0.0102
   3.0533E+00   3.1276E+00   2.5490E-04  0.0102
   3.1276E+00   3.2037E+00   2.5259E-04  0.0101
   3.2037E+00   3.2817E+00   2.5102E-04  0.0100
   3.2817E+00   3.3615E+00   2.4039E-04  0.0101
   3.3615E+00   3.4433E+00   2.4173E-04  0.0100
   3.4433E+00   3.5271E+00   2.3850E-04  0.0099
   3.5271E+00   3.6129E+00   2.2953E-04  0.0100
   3.6129E+00   3.7008E+00   2.2315E-04  0.0100
   3.7008E+00   3.7908E+00   2.1364E-04  0.0101
   3.7908E+00   3.8831E+00   2.0526E-04  0.0102
   3.8831E+00   3.9776E+00   1.9797E-04  0.0103
   3.9776E+00   4.0743E+00   1.8847E-04  0.0104
   4.0743E+00   4.1735E+00   1.7924E-04  0.0105
   4.1735E+00   4.2750E+00   1.6797E-04  0.0108
   4.2750E+00   4.3790E+00   1.5989E-04  0.0109
   4.3790E+00   4.4856E+00   1.5261E-04  0.0110
   4.4856E+00   4.5947E+00   1.4447E-04  0.0112
   4.5947E+00   4.7065E+00   1.3887E-04  0.0113
   4.7065E+00   4.8210E+00   1.2980E-04  0.0115
   4.8210E+00   4.9383E+00   1.2839E-04  0.0115
   4.9383E+00   5.0585E+00   1.1845E-04  0.0118
   5.0585E+00   5.1815E+00   1.1399E-04  0.0119
   5.1815E+00   5.3076E+00   1.1129E-04  0.0119
   5.3076E+00   5.4368E+00   1.0600E-04  0.0120
   5.4368E+00   5.5690E+00   1.0728E-04  0.0118
   5.5690E+00   5.7045E+00   1.0487E-04  0.0118
   5.7045E+00   5.8433E+00   1.0197E-04  0.0118
   5.8433E+00   5.9855E+00   9.6052E-05  0.0121
   5.9855E+00   6.1311E+00   9.3556E-05  0.0121
   6.1311E+00   6.2803E+00   9.2725E-05  0.0120
   6.2803E+00   6.4331E+00   8.7741E-05  0.0122
   6.4331E+00   6.5896E+00   8.7342E-05  0.0120
   6.5896E+00   6.7500E+00   8.3126E-05  0.0122
   6.7500E+00   6.9142E+00   8.1867E-05  0.0122
   6.9142E+00   7.0824E+00   8.0171E-05  0.0121
   7.0824E+00   7.2548E+00   7.5438E-05  0.0124
   7.2548E+00   7.4313E+00   7.3656E-05  0.0124
   7.4313E+00   7.6121E+00   7.1200E-05  0.0124
   7.6121E+00   7.7973E+00   6.9869E-05  0.0124
   7.7973E+00   7.9870E+00   6.8133E-05  0.0124
   7.9870E+00   8.1813E+00   6.6072E-05  0.0125
   8.1813E+00   8.3804E+00   6.2724E-05  0.0126
   8.3804E+00   8.5843E+00   6.0906E-05  0.0127
   8.5843E+00   8.7931E+00   5.9516E-05  0.0127
   8.7931E+00   9.0071E+00   5.6125E-05  0.0129
   9.0071E+00   9.2262E+00   5.4591E-05  0.0129
   9.2262E+00   9.4507E+00   5.2469E-05  0.0130
   9.4507E+00   9.6807E+00   5.0508E-05  0.0131
   9.6807E+00   9.9162E+00   4.8642E-05  0.0132
   9.9162E+00   1.0157E+01   4.7661E-05  0.0132
   1.0157E+01   1.0405E+01   4.7320E-05  0.0131
   1.0405E+01   1.0658E+01   4.8913E-05  0.0127
   1.0658E+01   1.0917E+01   4.8982E-05  0.0125
   1.0917E+01   1.1183E+01   4.8940E-05  0.0124
   1.1183E+01   1.1455E+01   4.8255E-05  0.0123
   1.1455E+01   1.1733E+01   4.6678E-05  0.0124
   1.1733E+01   1.2019E+01   4.3089E-05  0.0127
   1.2019E+01   1.2311E+01   4.0889E-05  0.0129
   1.2311E+01   1.2611E+01   3.9383E-05  0.0130
   1.2611E+01   1.2918E+01   3.7655E-05  0.0131
   1.2918E+01   1.3232E+01   3.6965E-05  0.0131
   1.3232E+01   1.3554E+01   3.5398E-05  0.0132
   1.3554E+01   1.3884E+01   3.3478E-05  0.0134
   1.3884E+01   1.4222E+01   3.1985E-05  0.0136
   1.4222E+01   1.4568E+01   3.1432E-05  0.0136
   1.4568E+01   1.4922E+01   2.9253E-05  0.0139
   1.4922E+01   1.5285E+01   2.7072E-05  0.0143
   1.5285E+01   1.5657E+01   2.5894E-05  0.0144
   1.5657E+01   1.6038E+01   2.4521E-05  0.0146
   1.6038E+01   1.6428E+01   2.3403E-05  0.0148
   1.6428E+01   1.6828E+01   2.2396E-05  0.0149
   1.6828E+01   1.7237E+01   2.1509E-05  0.0151
   1.7237E+01   1.7657E+01   2.0380E-05  0.0153
   1.7657E+01   1.8086E+01   1.9424E-05  0.0155
   1.8086E+01   1.8526E+01   1.9280E-05  0.0154
   1.8526E+01   1.8977E+01   1.8565E-05  0.0155
   1.8977E+01   1.9439E+01   1.8151E-05  0.0154
   1.9439E+01   1.9912E+01   1.7407E-05  0.0156
   1.9912E+01   2.0396E+01   1.5906E-05  0.0161
   2.0396E+01   2.0893E+01   1.5564E-05  0.0161
   2.0893E+01   2.1401E+01   1.3645E-05  0.0170
   2.1401E+01   2.1922E+01   1.3198E-05  0.0171
   2.1922E+01   2.2455E+01   1.2592E-05  0.0173
   2.2455E+01   2.3001E+01   1.1158E-05  0.0181
   2.3001E+01   2.3561E+01   1.0324E-05  0.0186
   2.3561E+01   2.4134E+01   9.1024E-06  0.0196
   2.4134E+01   2.4721E+01   7.7622E-06  0.0209
   2.4721E+01   2.5323E+01   7.3218E-06  0.0213
   2.5323E+01   2.5939E+01   6.1513E-06  0.0230
   2.5939E+01   2.6570E+01   4.9436E-06  0.0253
   2.6570E+01   2.7217E+01   3.9754E-06  0.0279
   2.7217E+01   2.7879E+01   3.2286E-06  0.0306
   2.7879E+01   2.8557E+01   2.4738E-06  0.0345
   2.8557E+01   2.9252E+01   1.7156E-06  0.0410
   2.9252E+01   2.9964E+01   1.1971E-06  0.0485
   2.9964E+01   3.0693E+01   6.6389E-07  0.0643
   3.0693E+01   3.1440E+01   4.0172E-07  0.0816
   3.1440E+01   3.2205E+01   1.8302E-07  0.1195
   3.2205E+01   3.2988E+01   6.3811E-08  0.2000
   3.2988E+01   3.3791E+01   9.9673E-09  0.5000
   3.3791E+01   3.4613E+01   7.2979E-09  0.5774
   3.4613E+01   3.5455E+01   7.1246E-09  0.5774
   3.5455E+01   3.6318E+01   2.3184E-09  1.0000
   3.6318E+01   3.7201E+01   0.0000E+00  0.0000
   3.7201E+01   3.8106E+01   0.0000E+00  0.0000
   3.8106E+01   3.9034E+01   0.0000E+00  0.0000
   3.9034E+01   3.9983E+01   0.0000E+00  0.0000
   3.9983E+01   4.0956E+01   0.0000E+00  0.0000
   4.0956E+01   4.1953E+01   0.0000E+00  0.0000
   4.1953E+01   4.2973E+01   0.0000E+00  0.0000
   4.2973E+01   4.4019E+01   0.0000E+00  0.0000
   4.4019E+01   4.5090E+01   0.0000E+00  0.0000
   4.5090E+01   4.6187E+01   0.0000E+00  0.0000
   4.6187E+01   4.7311E+01   0.0000E+00  0.0000
   4.7311E+01   4.8462E+01   0.0000E+00  0.0000
   4.8462E+01   4.9641E+01   0.0000E+00  0.0000
   4.9641E+01   5.0849E+01   0.0000E+00  0.0000
   5.0849E+01   5.2086E+01   0.0000E+00  0.0000
   5.2086E+01   5.3353E+01   0.0000E+00  0.0000
   5.3353E+01   5.4651E+01   0.0000E+00  0.0000
   5.4651E+01   5.5981E+01   0.0000E+00  0.0000
   5.5981E+01   5.7343E+01   0.0000E+00  0.0000
   5.7343E+01   5.8738E+01   0.0000E+00  0.0000
   5.8738E+01   6.0168E+01   0.0000E+00  0.0000
   6.0168E+01   6.1632E+01   0.0000E+00  0.0000
   6.1632E+01   6.3131E+01   0.0000E+00  0.0000
   6.3131E+01   6.4667E+01   0.0000E+00  0.0000
   6.4667E+01   6.6240E+01   0.0000E+00  0.0000
   6.6240E+01   6.7852E+01   0.0000E+00  0.0000
   6.7852E+01   6.9503E+01   0.0000E+00  0.0000
   6.9503E+01   7.1194E+01   0.0000E+00  0.0000
   7.1194E+01   7.2926E+01   0.0000E+00  0.0000
   7.2926E+01   7.4701E+01   0.0000E+00  0.0000
   7.4701E+01   7.6518E+01   0.0000E+00  0.0000
   7.6518E+01   7.8380E+01   0.0000E+00  0.0000
   7.8380E+01   8.0287E+01   0.0000E+00  0.0000
   8.0287E+01   8.2240E+01   0.0000E+00  0.0000
   8.2240E+01   8.4241E+01   0.0000E+00  0.0000
   8.4241E+01   8.6291E+01   0.0000E+00  0.0000
   8.6291E+01   8.8391E+01   0.0000E+00  0.0000
   8.8391E+01   9.0541E+01   0.0000E+00  0.0000
   9.0541E+01   9.2744E+01   0.0000E+00  0.0000
   9.2744E+01   9.5001E+01   0.0000E+00  0.0000
   9.5001E+01   9.7312E+01   0.0000E+00  0.0000
   9.7312E+01   9.9680E+01   0.0000E+00  0.0000
   9.9680E+01   1.0211E+02   0.0000E+00  0.0000
   1.0211E+02   1.0459E+02   0.0000E+00  0.0000
   1.0459E+02   1.0713E+02   0.0000E+00  0.0000
   1.0713E+02   1.0974E+02   0.0000E+00  0.0000
   1.0974E+02   1.1241E+02   0.0000E+00  0.0000
   1.1241E+02   1.1515E+02   0.0000E+00  0.0000
   1.1515E+02   1.1795E+02   0.0000E+00  0.0000
   1.1795E+02   1.2082E+02   0.0000E+00  0.0000
   1.2082E+02   1.2376E+02   0.0000E+00  0.0000
   1.2376E+02   1.2677E+02   0.0000E+00  0.0000
   1.2677E+02   1.2985E+02   0.0000E+00  0.0000
   1.2985E+02   1.3301E+02   0.0000E+00  0.0000
   1.3301E+02   1.3625E+02   0.0000E+00  0.0000
   1.3625E+02   1.3956E+02   0.0000E+00  0.0000
   1.3956E+02   1.4296E+02   0.0000E+00  0.0000
   1.4296E+02   1.4644E+02   0.0000E+00  0.0000
   1.4644E+02   1.5000E+02   0.0000E+00  0.0000

#   sum over                 1.4496E-05
'no. =    1   reg = 116 - 216'
msuc: {\huge [t-cross] in region mesh}
msdr: {\it plotted by \ANGEL \version}
msdl: {\it calculated by \PHITS  3.26}
wt: s(0.7)
\vspace{-3}
  region surface crossing
  area  &=&   1.0000E+00 [cm^2]
e:
 
# Information for Restart Calculation
# This calculation was newly started
# istdev =  2 # 1:Batch variance, 2:History variance
# resc2  = 5.00000000000000000E+08 # Total source weight or Total source weight / maxcas
# resc3  = 5.00000000000000000E+08 # Total history number or Total batch number
# maxcas =   500000000 # History / Batch, only used for istdev=1
# bitrseed = 1011101111111101000111101101010011111001010110111001011111010111 # bit data of rseed
