[ T-Cross ]
    title = [t-cross] in region mesh
     mesh =  reg            # mesh type is region-wise
      reg =    1            # number of crossing regions
      non     r-from    r-to       area
      1       100       200        1.000000    
   e-type =    3            # e-mesh is log given by emin, emax and ne
     emin =  1.0000000E-02  # minimum value of e-mesh points
     emax =   150.0000      # maximum value of e-mesh points
#    edel =  2.4039514E-02  # mesh width of e-mesh points
       ne =    400          # number of e-mesh points
#    data = ( e(i), i = 1, ne + 1 )
#           1.00000E-02  1.02433E-02  1.04925E-02  1.07478E-02  1.10093E-02
#           1.12772E-02  1.15516E-02  1.18326E-02  1.21205E-02  1.24154E-02
#           1.27175E-02  1.30269E-02  1.33439E-02  1.36686E-02  1.40011E-02
#           1.43418E-02  1.46907E-02  1.50482E-02  1.54143E-02  1.57894E-02
#           1.61735E-02  1.65670E-02  1.69701E-02  1.73830E-02  1.78060E-02
#           1.82392E-02  1.86830E-02  1.91375E-02  1.96032E-02  2.00801E-02
#           2.05687E-02  2.10692E-02  2.15818E-02  2.21069E-02  2.26448E-02
#           2.31957E-02  2.37601E-02  2.43382E-02  2.49304E-02  2.55369E-02
#           2.61583E-02  2.67947E-02  2.74467E-02  2.81145E-02  2.87985E-02
#           2.94992E-02  3.02169E-02  3.09521E-02  3.17052E-02  3.24766E-02
#           3.32668E-02  3.40762E-02  3.49053E-02  3.57546E-02  3.66246E-02
#           3.75157E-02  3.84284E-02  3.93634E-02  4.03212E-02  4.13022E-02
#           4.23071E-02  4.33365E-02  4.43909E-02  4.54710E-02  4.65773E-02
#           4.77106E-02  4.88714E-02  5.00605E-02  5.12785E-02  5.25262E-02
#           5.38042E-02  5.51133E-02  5.64542E-02  5.78278E-02  5.92348E-02
#           6.06760E-02  6.21523E-02  6.36645E-02  6.52135E-02  6.68002E-02
#           6.84255E-02  7.00904E-02  7.17957E-02  7.35426E-02  7.53319E-02
#           7.71648E-02  7.90423E-02  8.09655E-02  8.29354E-02  8.49533E-02
#           8.70203E-02  8.91376E-02  9.13064E-02  9.35279E-02  9.58035E-02
#           9.81345E-02  1.00522E-01  1.02968E-01  1.05473E-01  1.08040E-01
#           1.10668E-01  1.13361E-01  1.16119E-01  1.18944E-01  1.21838E-01
#           1.24803E-01  1.27839E-01  1.30950E-01  1.34136E-01  1.37399E-01
#           1.40742E-01  1.44167E-01  1.47675E-01  1.51268E-01  1.54948E-01
#           1.58718E-01  1.62580E-01  1.66535E-01  1.70587E-01  1.74738E-01
#           1.78989E-01  1.83344E-01  1.87805E-01  1.92375E-01  1.97055E-01
#           2.01850E-01  2.06761E-01  2.11792E-01  2.16945E-01  2.22223E-01
#           2.27630E-01  2.33169E-01  2.38842E-01  2.44653E-01  2.50605E-01
#           2.56703E-01  2.62949E-01  2.69346E-01  2.75900E-01  2.82613E-01
#           2.89489E-01  2.96532E-01  3.03747E-01  3.11138E-01  3.18708E-01
#           3.26462E-01  3.34405E-01  3.42542E-01  3.50876E-01  3.59413E-01
#           3.68158E-01  3.77116E-01  3.86291E-01  3.95690E-01  4.05317E-01
#           4.15179E-01  4.25281E-01  4.35628E-01  4.46227E-01  4.57084E-01
#           4.68205E-01  4.79597E-01  4.91266E-01  5.03219E-01  5.15463E-01
#           5.28005E-01  5.40851E-01  5.54011E-01  5.67490E-01  5.81298E-01
#           5.95441E-01  6.09929E-01  6.24769E-01  6.39970E-01  6.55541E-01
#           6.71491E-01  6.87828E-01  7.04564E-01  7.21706E-01  7.39266E-01
#           7.57253E-01  7.75678E-01  7.94551E-01  8.13883E-01  8.33685E-01
#           8.53969E-01  8.74747E-01  8.96030E-01  9.17831E-01  9.40163E-01
#           9.63038E-01  9.86469E-01  1.01047E+00  1.03506E+00  1.06024E+00
#           1.08604E+00  1.11246E+00  1.13953E+00  1.16725E+00  1.19565E+00
#           1.22474E+00  1.25454E+00  1.28507E+00  1.31633E+00  1.34836E+00
#           1.38117E+00  1.41477E+00  1.44920E+00  1.48446E+00  1.52057E+00
#           1.55757E+00  1.59547E+00  1.63429E+00  1.67405E+00  1.71478E+00
#           1.75650E+00  1.79924E+00  1.84302E+00  1.88786E+00  1.93379E+00
#           1.98084E+00  2.02904E+00  2.07841E+00  2.12898E+00  2.18078E+00
#           2.23384E+00  2.28819E+00  2.34386E+00  2.40089E+00  2.45930E+00
#           2.51914E+00  2.58043E+00  2.64322E+00  2.70753E+00  2.77341E+00
#           2.84088E+00  2.91001E+00  2.98081E+00  3.05333E+00  3.12762E+00
#           3.20372E+00  3.28167E+00  3.36152E+00  3.44330E+00  3.52708E+00
#           3.61290E+00  3.70080E+00  3.79085E+00  3.88308E+00  3.97756E+00
#           4.07434E+00  4.17347E+00  4.27501E+00  4.37903E+00  4.48557E+00
#           4.59471E+00  4.70650E+00  4.82102E+00  4.93832E+00  5.05847E+00
#           5.18155E+00  5.30762E+00  5.43676E+00  5.56904E+00  5.70453E+00
#           5.84333E+00  5.98550E+00  6.13114E+00  6.28031E+00  6.43312E+00
#           6.58964E+00  6.74997E+00  6.91420E+00  7.08243E+00  7.25475E+00
#           7.43126E+00  7.61207E+00  7.79728E+00  7.98700E+00  8.18133E+00
#           8.38038E+00  8.58428E+00  8.79315E+00  9.00709E+00  9.22624E+00
#           9.45072E+00  9.68067E+00  9.91620E+00  1.01575E+01  1.04046E+01
#           1.06578E+01  1.09171E+01  1.11827E+01  1.14548E+01  1.17335E+01
#           1.20190E+01  1.23114E+01  1.26109E+01  1.29178E+01  1.32321E+01
#           1.35540E+01  1.38838E+01  1.42216E+01  1.45676E+01  1.49221E+01
#           1.52851E+01  1.56570E+01  1.60380E+01  1.64282E+01  1.68279E+01
#           1.72374E+01  1.76568E+01  1.80864E+01  1.85264E+01  1.89772E+01
#           1.94389E+01  1.99119E+01  2.03963E+01  2.08926E+01  2.14009E+01
#           2.19216E+01  2.24550E+01  2.30014E+01  2.35610E+01  2.41343E+01
#           2.47215E+01  2.53230E+01  2.59391E+01  2.65702E+01  2.72167E+01
#           2.78789E+01  2.85572E+01  2.92520E+01  2.99637E+01  3.06928E+01
#           3.14396E+01  3.22045E+01  3.29881E+01  3.37907E+01  3.46128E+01
#           3.54550E+01  3.63177E+01  3.72013E+01  3.81064E+01  3.90336E+01
#           3.99833E+01  4.09561E+01  4.19526E+01  4.29734E+01  4.40189E+01
#           4.50900E+01  4.61870E+01  4.73108E+01  4.84619E+01  4.96410E+01
#           5.08488E+01  5.20860E+01  5.33533E+01  5.46514E+01  5.59812E+01
#           5.73432E+01  5.87384E+01  6.01676E+01  6.16315E+01  6.31311E+01
#           6.46671E+01  6.62405E+01  6.78522E+01  6.95031E+01  7.11941E+01
#           7.29263E+01  7.47007E+01  7.65182E+01  7.83800E+01  8.02870E+01
#           8.22405E+01  8.42414E+01  8.62911E+01  8.83906E+01  9.05412E+01
#           9.27442E+01  9.50007E+01  9.73122E+01  9.96799E+01  1.02105E+02
#           1.04589E+02  1.07134E+02  1.09741E+02  1.12411E+02  1.15146E+02
#           1.17948E+02  1.20817E+02  1.23757E+02  1.26768E+02  1.29852E+02
#           1.33012E+02  1.36248E+02  1.39563E+02  1.42959E+02  1.46437E+02
#           1.50000E+02
     unit =    2            # unit is [1/cm^2/(MeV/n)/source]
     axis =  eng            # axis of output
     file = detector-01.out  # file name of output for the above axis
   output = f-curr          # surface crossing forward current spectrum
     part =  neutron  
# kf/name :  2112     
#    used :        main (  %)        temp (  %)       total (  %)
#  memory :         414 (  0)           0 (  0)         414 (  0)

#------------------------------------------------------------------------------
#newpage:
#   no. =    1   reg = 100 - 200

x: Energy [MeV/n]
y:  F-Curr [1/cm^2/(MeV/n)/source]         
p: xlog ylog afac(0.8) form(0.9)
h: n            x            y(neutron ),hh0l   n 
#  e-lower      e-upper      neutron     r.err 
   1.0000E-02   1.0243E-02   1.9940E-04  0.2022
   1.0243E-02   1.0493E-02   2.4273E-04  0.1813
   1.0493E-02   1.0748E-02   2.4463E-04  0.1785
   1.0748E-02   1.1009E-02   1.9292E-04  0.1984
   1.1009E-02   1.1277E-02   2.0299E-04  0.1913
   1.1277E-02   1.1552E-02   1.8223E-04  0.2000
   1.1552E-02   1.1833E-02   1.3776E-04  0.2256
   1.1833E-02   1.2121E-02   1.9451E-04  0.1890
   1.2121E-02   1.2415E-02   1.4633E-04  0.2130
   1.2415E-02   1.2718E-02   1.1917E-04  0.2357
   1.2718E-02   1.3027E-02   1.0988E-04  0.2425
   1.3027E-02   1.3344E-02   1.3882E-04  0.2132
   1.3344E-02   1.3669E-02   1.0172E-04  0.2429
   1.3669E-02   1.4001E-02   1.3453E-04  0.2100
   1.4001E-02   1.4342E-02   1.2916E-04  0.2132
   1.4342E-02   1.4691E-02   1.2707E-04  0.2117
   1.4691E-02   1.5048E-02   1.3169E-04  0.2044
   1.5048E-02   1.5414E-02   1.3250E-04  0.2022
   1.5414E-02   1.5789E-02   1.3399E-04  0.1991
   1.5789E-02   1.6174E-02   1.1032E-04  0.2164
   1.6174E-02   1.6567E-02   1.2819E-04  0.1984
   1.6567E-02   1.6970E-02   6.9464E-05  0.2673
   1.6970E-02   1.7383E-02   1.1625E-04  0.2041
   1.7383E-02   1.7806E-02   1.0403E-04  0.2132
   1.7806E-02   1.8239E-02   1.2464E-04  0.1925
   1.8239E-02   1.8683E-02   1.2722E-04  0.1876
   1.8683E-02   1.9138E-02   1.1857E-04  0.1905
   1.9138E-02   1.9603E-02   1.2456E-04  0.1857
   1.9603E-02   2.0080E-02   1.3946E-04  0.1729
   2.0080E-02   2.0569E-02   1.5556E-04  0.1622
   2.0569E-02   2.1069E-02   7.2888E-05  0.2330
   2.1069E-02   2.1582E-02   1.0534E-04  0.1925
   2.1582E-02   2.2107E-02   9.5220E-05  0.2000
   2.2107E-02   2.2645E-02   1.0104E-04  0.1913
   2.2645E-02   2.3196E-02   8.4116E-05  0.2071
   2.3196E-02   2.3760E-02   9.5682E-05  0.1925
   2.3760E-02   2.4338E-02   9.7808E-05  0.1874
   2.4338E-02   2.4930E-02   7.8591E-05  0.2064
   2.4930E-02   2.5537E-02   8.2430E-05  0.2000
   2.5537E-02   2.6158E-02   4.7375E-05  0.2569
   2.6158E-02   2.6795E-02   6.3699E-05  0.2210
   2.6795E-02   2.7447E-02   8.2830E-05  0.1925
   2.7447E-02   2.8114E-02   4.1929E-05  0.2673
   2.8114E-02   2.8799E-02   7.3809E-05  0.1983
   2.8799E-02   2.9499E-02   5.7087E-05  0.2236
   2.9499E-02   3.0217E-02   6.5520E-05  0.2045
   3.0217E-02   3.0952E-02   8.7051E-05  0.1768
   3.0952E-02   3.1705E-02   5.4392E-05  0.2190
   3.1705E-02   3.2477E-02   6.5339E-05  0.1986
   3.2477E-02   3.3267E-02   8.9011E-05  0.1683
   3.3267E-02   3.4076E-02   7.5744E-05  0.1795
   3.4076E-02   3.4905E-02   6.7857E-05  0.1882
   3.4905E-02   3.5755E-02   5.4776E-05  0.2065
   3.5755E-02   3.6625E-02   5.7975E-05  0.1960
   3.6625E-02   3.7516E-02   4.9715E-05  0.2119
   3.7516E-02   3.8428E-02   5.5213E-05  0.1986
   3.8428E-02   3.9363E-02   5.8051E-05  0.1915
   3.9363E-02   4.0321E-02   4.8295E-05  0.2074
   4.0321E-02   4.1302E-02   3.7715E-05  0.2309
   4.1302E-02   4.2307E-02   4.9755E-05  0.2000
   4.2307E-02   4.3337E-02   4.8971E-05  0.1985
   4.3337E-02   4.4391E-02   5.5007E-05  0.1857
   4.4391E-02   4.5471E-02   5.3640E-05  0.1838
   4.5471E-02   4.6577E-02   6.8695E-05  0.1622
   4.6577E-02   4.7711E-02   6.0886E-05  0.1696
   4.7711E-02   4.8871E-02   5.7624E-05  0.1720
   4.8871E-02   5.0061E-02   5.7612E-05  0.1704
   5.0061E-02   5.1279E-02   4.9261E-05  0.1826
   5.1279E-02   5.2526E-02   2.8854E-05  0.2357
   5.2526E-02   5.3804E-02   5.0592E-05  0.1751
   5.3804E-02   5.5113E-02   4.1250E-05  0.1925
   5.5113E-02   5.6454E-02   4.7727E-05  0.1768
   5.6454E-02   5.7828E-02   4.9817E-05  0.1705
   5.7828E-02   5.9235E-02   6.1419E-05  0.1518
   5.9235E-02   6.0676E-02   4.4966E-05  0.1748
   6.0676E-02   6.2152E-02   3.9575E-05  0.1845
   6.2152E-02   6.3665E-02   4.1352E-05  0.1783
   6.3665E-02   6.5214E-02   4.4248E-05  0.1703
   6.5214E-02   6.6800E-02   4.2856E-05  0.1715
   6.6800E-02   6.8426E-02   3.3393E-05  0.1915
   6.8426E-02   7.0090E-02   2.9432E-05  0.2010
   7.0090E-02   7.1796E-02   3.7842E-05  0.1755
   7.1796E-02   7.3543E-02   3.0173E-05  0.1937
   7.3543E-02   7.5332E-02   3.8448E-05  0.1697
   7.5332E-02   7.7165E-02   2.1824E-05  0.2236
   7.7165E-02   7.9042E-02   3.8349E-05  0.1667
   7.9042E-02   8.0965E-02   2.9662E-05  0.1860
   8.0965E-02   8.2935E-02   2.6822E-05  0.1934
   8.2935E-02   8.4953E-02   3.1716E-05  0.1768
   8.4953E-02   8.7020E-02   2.4437E-05  0.1982
   8.7020E-02   8.9138E-02   3.1665E-05  0.1717
   8.9138E-02   9.1306E-02   2.5821E-05  0.1890
   9.1306E-02   9.3528E-02   3.0753E-05  0.1689
   9.3528E-02   9.5804E-02   2.2536E-05  0.1960
   9.5804E-02   9.8134E-02   2.6734E-05  0.1770
   9.8134E-02   1.0052E-01   3.2267E-05  0.1603
   1.0052E-01   1.0297E-01   3.7616E-05  0.1474
   1.0297E-01   1.0547E-01   2.7098E-05  0.1698
   1.0547E-01   1.0804E-01   2.1822E-05  0.1890
   1.0804E-01   1.1067E-01   2.5229E-05  0.1733
   1.1067E-01   1.1336E-01   1.9064E-05  0.1959
   1.1336E-01   1.1612E-01   2.0462E-05  0.1877
   1.1612E-01   1.1894E-01   1.6696E-05  0.2039
   1.1894E-01   1.2184E-01   2.8334E-05  0.1562
   1.2184E-01   1.2480E-01   2.6312E-05  0.1601
   1.2480E-01   1.2784E-01   1.8036E-05  0.1900
   1.2784E-01   1.3095E-01   2.1973E-05  0.1707
   1.3095E-01   1.3414E-01   1.5379E-05  0.2010
   1.3414E-01   1.3740E-01   2.0960E-05  0.1706
   1.3740E-01   1.4074E-01   1.7470E-05  0.1845
   1.4074E-01   1.4417E-01   1.9858E-05  0.1715
   1.4417E-01   1.4767E-01   1.8361E-05  0.1758
   1.4767E-01   1.5127E-01   1.9204E-05  0.1696
   1.5127E-01   1.5495E-01   2.0378E-05  0.1628
   1.5495E-01   1.5872E-01   1.9959E-05  0.1620
   1.5872E-01   1.6258E-01   1.6445E-05  0.1762
   1.6258E-01   1.6654E-01   1.3242E-05  0.1948
   1.6654E-01   1.7059E-01   1.8756E-05  0.1622
   1.7059E-01   1.7474E-01   1.5666E-05  0.1744
   1.7474E-01   1.7899E-01   1.9581E-05  0.1541
   1.7899E-01   1.8334E-01   1.3902E-05  0.1812
   1.8334E-01   1.8781E-01   1.9263E-05  0.1515
   1.8781E-01   1.9237E-01   1.2028E-05  0.1895
   1.9237E-01   1.9706E-01   1.5222E-05  0.1667
   1.9706E-01   2.0185E-01   1.5209E-05  0.1648
   2.0185E-01   2.0676E-01   1.5679E-05  0.1606
   2.0676E-01   2.1179E-01   1.6911E-05  0.1514
   2.1179E-01   2.1694E-01   1.4762E-05  0.1608
   2.1694E-01   2.2222E-01   1.6293E-05  0.1525
   2.2222E-01   2.2763E-01   1.8463E-05  0.1406
   2.2763E-01   2.3317E-01   1.5770E-05  0.1504
   2.3317E-01   2.3884E-01   1.6569E-05  0.1459
   2.3884E-01   2.4465E-01   1.9100E-05  0.1338
   2.4465E-01   2.5061E-01   1.5791E-05  0.1459
   2.5061E-01   2.5670E-01   1.8757E-05  0.1321
   2.5670E-01   2.6295E-01   1.8653E-05  0.1299
   2.6295E-01   2.6935E-01   2.2590E-05  0.1175
   2.6935E-01   2.7590E-01   2.4802E-05  0.1108
   2.7590E-01   2.8261E-01   2.1608E-05  0.1171
   2.8261E-01   2.8949E-01   2.2978E-05  0.1125
   2.8949E-01   2.9653E-01   2.1305E-05  0.1150
   2.9653E-01   3.0375E-01   2.2842E-05  0.1100
   3.0375E-01   3.1114E-01   2.2788E-05  0.1084
   3.1114E-01   3.1871E-01   1.9683E-05  0.1152
   3.1871E-01   3.2646E-01   2.4393E-05  0.1026
   3.2646E-01   3.3441E-01   2.2595E-05  0.1053
   3.3441E-01   3.4254E-01   3.1798E-05  0.0876
   3.4254E-01   3.5088E-01   2.4299E-05  0.0990
   3.5088E-01   3.5941E-01   2.3550E-05  0.0993
   3.5941E-01   3.6816E-01   2.6295E-05  0.0930
   3.6816E-01   3.7712E-01   2.6516E-05  0.0911
   3.7712E-01   3.8629E-01   2.9122E-05  0.0861
   3.8629E-01   3.9569E-01   3.2113E-05  0.0812
   3.9569E-01   4.0532E-01   2.8200E-05  0.0856
   4.0532E-01   4.1518E-01   2.8340E-05  0.0842
   4.1518E-01   4.2528E-01   3.1349E-05  0.0793
   4.2528E-01   4.3563E-01   2.8496E-05  0.0820
   4.3563E-01   4.4623E-01   3.1008E-05  0.0776
   4.4623E-01   4.5708E-01   3.2293E-05  0.0753
   4.5708E-01   4.6821E-01   3.1138E-05  0.0758
   4.6821E-01   4.7960E-01   3.0558E-05  0.0754
   4.7960E-01   4.9127E-01   3.2399E-05  0.0724
   4.9127E-01   5.0322E-01   3.4289E-05  0.0696
   5.0322E-01   5.1546E-01   3.2186E-05  0.0710
   5.1546E-01   5.2800E-01   3.1209E-05  0.0711
   5.2800E-01   5.4085E-01   3.7512E-05  0.0641
   5.4085E-01   5.5401E-01   2.9678E-05  0.0711
   5.5401E-01   5.6749E-01   3.1834E-05  0.0680
   5.6749E-01   5.8130E-01   3.4499E-05  0.0644
   5.8130E-01   5.9544E-01   3.0413E-05  0.0678
   5.9544E-01   6.0993E-01   3.2306E-05  0.0650
   6.0993E-01   6.2477E-01   3.6713E-05  0.0604
   6.2477E-01   6.3997E-01   3.2498E-05  0.0633
   6.3997E-01   6.5554E-01   3.1715E-05  0.0634
   6.5554E-01   6.7149E-01   3.3483E-05  0.0610
   6.7149E-01   6.8783E-01   3.1512E-05  0.0620
   6.8783E-01   7.0456E-01   3.5147E-05  0.0581
   7.0456E-01   7.2171E-01   3.6350E-05  0.0564
   7.2171E-01   7.3927E-01   3.6868E-05  0.0554
   7.3927E-01   7.5725E-01   3.5556E-05  0.0557
   7.5725E-01   7.7568E-01   3.8217E-05  0.0530
   7.7568E-01   7.9455E-01   3.8121E-05  0.0526
   7.9455E-01   8.1388E-01   3.5960E-05  0.0535
   8.1388E-01   8.3368E-01   3.2241E-05  0.0558
   8.3368E-01   8.5397E-01   3.3391E-05  0.0542
   8.5397E-01   8.7475E-01   3.4150E-05  0.0529
   8.7475E-01   8.9603E-01   3.4948E-05  0.0518
   8.9603E-01   9.1783E-01   3.9765E-05  0.0479
   9.1783E-01   9.4016E-01   3.4499E-05  0.0507
   9.4016E-01   9.6304E-01   3.1146E-05  0.0528
   9.6304E-01   9.8647E-01   3.4375E-05  0.0497
   9.8647E-01   1.0105E+00   3.4519E-05  0.0490
   1.0105E+00   1.0351E+00   3.5500E-05  0.0477
   1.0351E+00   1.0602E+00   3.2961E-05  0.0488
   1.0602E+00   1.0860E+00   3.4328E-05  0.0473
   1.0860E+00   1.1125E+00   2.8294E-05  0.0515
   1.1125E+00   1.1395E+00   3.3055E-05  0.0470
   1.1395E+00   1.1673E+00   3.4150E-05  0.0458
   1.1673E+00   1.1957E+00   3.0704E-05  0.0477
   1.1957E+00   1.2247E+00   3.2066E-05  0.0461
   1.2247E+00   1.2545E+00   3.3536E-05  0.0445
   1.2545E+00   1.2851E+00   3.0342E-05  0.0463
   1.2851E+00   1.3163E+00   2.9377E-05  0.0465
   1.3163E+00   1.3484E+00   3.0871E-05  0.0448
   1.3484E+00   1.3812E+00   3.3207E-05  0.0427
   1.3812E+00   1.4148E+00   3.1555E-05  0.0433
   1.4148E+00   1.4492E+00   3.1948E-05  0.0425
   1.4492E+00   1.4845E+00   3.1841E-05  0.0420
   1.4845E+00   1.5206E+00   3.2165E-05  0.0413
   1.5206E+00   1.5576E+00   3.3014E-05  0.0403
   1.5576E+00   1.5955E+00   3.2101E-05  0.0404
   1.5955E+00   1.6343E+00   3.2884E-05  0.0394
   1.6343E+00   1.6741E+00   2.9849E-05  0.0408
   1.6741E+00   1.7148E+00   3.0541E-05  0.0399
   1.7148E+00   1.7565E+00   2.9293E-05  0.0403
   1.7565E+00   1.7992E+00   2.9474E-05  0.0397
   1.7992E+00   1.8430E+00   3.0412E-05  0.0386
   1.8430E+00   1.8879E+00   3.0222E-05  0.0382
   1.8879E+00   1.9338E+00   2.7457E-05  0.0397
   1.9338E+00   1.9808E+00   3.0847E-05  0.0370
   1.9808E+00   2.0290E+00   2.8846E-05  0.0378
   2.0290E+00   2.0784E+00   2.8200E-05  0.0378
   2.0784E+00   2.1290E+00   2.6732E-05  0.0383
   2.1290E+00   2.1808E+00   2.9921E-05  0.0357
   2.1808E+00   2.2338E+00   2.7460E-05  0.0369
   2.2338E+00   2.2882E+00   2.7319E-05  0.0366
   2.2882E+00   2.3439E+00   2.7448E-05  0.0361
   2.3439E+00   2.4009E+00   2.7252E-05  0.0357
   2.4009E+00   2.4593E+00   2.6916E-05  0.0355
   2.4593E+00   2.5191E+00   2.6063E-05  0.0357
   2.5191E+00   2.5804E+00   2.6121E-05  0.0352
   2.5804E+00   2.6432E+00   2.7574E-05  0.0339
   2.6432E+00   2.7075E+00   2.6545E-05  0.0341
   2.7075E+00   2.7734E+00   2.6281E-05  0.0339
   2.7734E+00   2.8409E+00   2.5131E-05  0.0342
   2.8409E+00   2.9100E+00   2.5835E-05  0.0333
   2.9100E+00   2.9808E+00   2.5911E-05  0.0329
   2.9808E+00   3.0533E+00   2.5636E-05  0.0327
   3.0533E+00   3.1276E+00   2.4291E-05  0.0332
   3.1276E+00   3.2037E+00   2.3623E-05  0.0332
   3.2037E+00   3.2817E+00   2.4795E-05  0.0320
   3.2817E+00   3.3615E+00   2.3633E-05  0.0324
   3.3615E+00   3.4433E+00   2.4341E-05  0.0316
   3.4433E+00   3.5271E+00   2.3359E-05  0.0319
   3.5271E+00   3.6129E+00   2.3958E-05  0.0311
   3.6129E+00   3.7008E+00   2.2653E-05  0.0316
   3.7008E+00   3.7908E+00   2.3166E-05  0.0309
   3.7908E+00   3.8831E+00   2.1843E-05  0.0314
   3.8831E+00   3.9776E+00   2.1559E-05  0.0312
   3.9776E+00   4.0743E+00   2.3019E-05  0.0299
   4.0743E+00   4.1735E+00   2.1383E-05  0.0306
   4.1735E+00   4.2750E+00   2.1939E-05  0.0299
   4.2750E+00   4.3790E+00   2.0877E-05  0.0303
   4.3790E+00   4.4856E+00   2.0229E-05  0.0303
   4.4856E+00   4.5947E+00   2.0413E-05  0.0299
   4.5947E+00   4.7065E+00   2.0084E-05  0.0298
   4.7065E+00   4.8210E+00   1.9376E-05  0.0300
   4.8210E+00   4.9383E+00   1.9431E-05  0.0296
   4.9383E+00   5.0585E+00   1.8183E-05  0.0302
   5.0585E+00   5.1815E+00   1.8519E-05  0.0296
   5.1815E+00   5.3076E+00   1.9487E-05  0.0285
   5.3076E+00   5.4368E+00   1.8607E-05  0.0288
   5.4368E+00   5.5690E+00   1.8130E-05  0.0288
   5.5690E+00   5.7045E+00   1.7162E-05  0.0293
   5.7045E+00   5.8433E+00   1.7067E-05  0.0290
   5.8433E+00   5.9855E+00   1.6644E-05  0.0290
   5.9855E+00   6.1311E+00   1.6755E-05  0.0286
   6.1311E+00   6.2803E+00   1.6217E-05  0.0287
   6.2803E+00   6.4331E+00   1.5892E-05  0.0286
   6.4331E+00   6.5896E+00   1.6401E-05  0.0279
   6.5896E+00   6.7500E+00   1.5065E-05  0.0287
   6.7500E+00   6.9142E+00   1.4687E-05  0.0287
   6.9142E+00   7.0824E+00   1.4997E-05  0.0281
   7.0824E+00   7.2548E+00   1.5033E-05  0.0277
   7.2548E+00   7.4313E+00   1.4090E-05  0.0283
   7.4313E+00   7.6121E+00   1.4010E-05  0.0281
   7.6121E+00   7.7973E+00   1.3736E-05  0.0280
   7.7973E+00   7.9870E+00   1.3408E-05  0.0280
   7.9870E+00   8.1813E+00   1.3194E-05  0.0279
   8.1813E+00   8.3804E+00   1.3797E-05  0.0270
   8.3804E+00   8.5843E+00   1.3010E-05  0.0274
   8.5843E+00   8.7931E+00   1.2842E-05  0.0273
   8.7931E+00   9.0071E+00   1.2656E-05  0.0272
   9.0071E+00   9.2262E+00   1.3254E-05  0.0262
   9.2262E+00   9.4507E+00   1.2293E-05  0.0269
   9.4507E+00   9.6807E+00   1.2163E-05  0.0267
   9.6807E+00   9.9162E+00   1.1986E-05  0.0266
   9.9162E+00   1.0157E+01   1.2128E-05  0.0261
   1.0157E+01   1.0405E+01   1.1659E-05  0.0263
   1.0405E+01   1.0658E+01   1.2012E-05  0.0256
   1.0658E+01   1.0917E+01   1.1947E-05  0.0254
   1.0917E+01   1.1183E+01   1.2248E-05  0.0248
   1.1183E+01   1.1455E+01   1.2194E-05  0.0245
   1.1455E+01   1.1733E+01   1.1642E-05  0.0248
   1.1733E+01   1.2019E+01   1.1655E-05  0.0245
   1.2019E+01   1.2311E+01   1.1925E-05  0.0239
   1.2311E+01   1.2611E+01   1.2097E-05  0.0235
   1.2611E+01   1.2918E+01   1.2154E-05  0.0232
   1.2918E+01   1.3232E+01   1.1921E-05  0.0231
   1.3232E+01   1.3554E+01   1.1878E-05  0.0229
   1.3554E+01   1.3884E+01   1.1564E-05  0.0229
   1.3884E+01   1.4222E+01   1.2109E-05  0.0221
   1.4222E+01   1.4568E+01   1.1953E-05  0.0220
   1.4568E+01   1.4922E+01   1.2533E-05  0.0212
   1.4922E+01   1.5285E+01   1.2128E-05  0.0213
   1.5285E+01   1.5657E+01   1.3036E-05  0.0203
   1.5657E+01   1.6038E+01   1.2646E-05  0.0204
   1.6038E+01   1.6428E+01   1.2999E-05  0.0199
   1.6428E+01   1.6828E+01   1.2956E-05  0.0197
   1.6828E+01   1.7237E+01   1.3755E-05  0.0188
   1.7237E+01   1.7657E+01   1.3429E-05  0.0188
   1.7657E+01   1.8086E+01   1.4106E-05  0.0182
   1.8086E+01   1.8526E+01   1.4475E-05  0.0177
   1.8526E+01   1.8977E+01   1.5019E-05  0.0172
   1.8977E+01   1.9439E+01   1.5646E-05  0.0166
   1.9439E+01   1.9912E+01   1.6285E-05  0.0161
   1.9912E+01   2.0396E+01   1.6934E-05  0.0156
   2.0396E+01   2.0893E+01   1.8007E-05  0.0150
   2.0893E+01   2.1401E+01   1.8748E-05  0.0145
   2.1401E+01   2.1922E+01   2.0042E-05  0.0138
   2.1922E+01   2.2455E+01   2.0972E-05  0.0134
   2.2455E+01   2.3001E+01   2.2180E-05  0.0128
   2.3001E+01   2.3561E+01   2.3801E-05  0.0123
   2.3561E+01   2.4134E+01   2.5772E-05  0.0116
   2.4134E+01   2.4721E+01   2.7588E-05  0.0111
   2.4721E+01   2.5323E+01   2.9543E-05  0.0106
   2.5323E+01   2.5939E+01   3.1987E-05  0.0101
   2.5939E+01   2.6570E+01   3.5005E-05  0.0095
   2.6570E+01   2.7217E+01   3.8226E-05  0.0090
   2.7217E+01   2.7879E+01   4.1736E-05  0.0085
   2.7879E+01   2.8557E+01   4.6067E-05  0.0080
   2.8557E+01   2.9252E+01   4.9981E-05  0.0076
   2.9252E+01   2.9964E+01   5.6185E-05  0.0071
   2.9964E+01   3.0693E+01   6.1472E-05  0.0067
   3.0693E+01   3.1440E+01   6.7859E-05  0.0063
   3.1440E+01   3.2205E+01   7.4235E-05  0.0059
   3.2205E+01   3.2988E+01   8.2988E-05  0.0055
   3.2988E+01   3.3791E+01   9.0590E-05  0.0052
   3.3791E+01   3.4613E+01   1.0047E-04  0.0049
   3.4613E+01   3.5455E+01   1.0907E-04  0.0047
   3.5455E+01   3.6318E+01   1.1898E-04  0.0044
   3.6318E+01   3.7201E+01   1.2987E-04  0.0042
   3.7201E+01   3.8106E+01   1.3829E-04  0.0040
   3.8106E+01   3.9034E+01   1.5085E-04  0.0038
   3.9034E+01   3.9983E+01   1.5940E-04  0.0036
   3.9983E+01   4.0956E+01   1.6823E-04  0.0035
   4.0956E+01   4.1953E+01   1.7676E-04  0.0034
   4.1953E+01   4.2973E+01   1.8209E-04  0.0033
   4.2973E+01   4.4019E+01   1.8545E-04  0.0032
   4.4019E+01   4.5090E+01   1.8739E-04  0.0032
   4.5090E+01   4.6187E+01   1.8605E-04  0.0031
   4.6187E+01   4.7311E+01   1.8320E-04  0.0031
   4.7311E+01   4.8462E+01   1.7873E-04  0.0031
   4.8462E+01   4.9641E+01   1.6973E-04  0.0032
   4.9641E+01   5.0849E+01   1.6038E-04  0.0032
   5.0849E+01   5.2086E+01   1.4898E-04  0.0033
   5.2086E+01   5.3353E+01   1.3717E-04  0.0034
   5.3353E+01   5.4651E+01   1.2450E-04  0.0035
   5.4651E+01   5.5981E+01   1.1191E-04  0.0037
   5.5981E+01   5.7343E+01   9.8644E-05  0.0039
   5.7343E+01   5.8738E+01   8.6363E-05  0.0041
   5.8738E+01   6.0168E+01   7.5100E-05  0.0043
   6.0168E+01   6.1632E+01   6.4155E-05  0.0046
   6.1632E+01   6.3131E+01   5.5317E-05  0.0049
   6.3131E+01   6.4667E+01   4.6724E-05  0.0053
   6.4667E+01   6.6240E+01   3.9039E-05  0.0057
   6.6240E+01   6.7852E+01   3.3248E-05  0.0061
   6.7852E+01   6.9503E+01   2.7469E-05  0.0066
   6.9503E+01   7.1194E+01   2.2848E-05  0.0072
   7.1194E+01   7.2926E+01   1.8883E-05  0.0078
   7.2926E+01   7.4701E+01   1.5789E-05  0.0084
   7.4701E+01   7.6518E+01   1.2670E-05  0.0093
   7.6518E+01   7.8380E+01   1.0356E-05  0.0102
   7.8380E+01   8.0287E+01   9.5603E-06  0.0105
   8.0287E+01   8.2240E+01   8.7978E-06  0.0108
   8.2240E+01   8.4241E+01   8.2190E-06  0.0110
   8.4241E+01   8.6291E+01   7.1104E-06  0.0117
   8.6291E+01   8.8391E+01   6.0442E-06  0.0126
   8.8391E+01   9.0541E+01   5.1799E-06  0.0134
   9.0541E+01   9.2744E+01   4.3551E-06  0.0144
   9.2744E+01   9.5001E+01   3.7154E-06  0.0154
   9.5001E+01   9.7312E+01   3.0708E-06  0.0168
   9.7312E+01   9.9680E+01   1.6843E-06  0.0224
   9.9680E+01   1.0211E+02   4.8819E-07  0.0411
   1.0211E+02   1.0459E+02   1.5296E-08  0.2294
   1.0459E+02   1.0713E+02   0.0000E+00  0.0000
   1.0713E+02   1.0974E+02   0.0000E+00  0.0000
   1.0974E+02   1.1241E+02   0.0000E+00  0.0000
   1.1241E+02   1.1515E+02   0.0000E+00  0.0000
   1.1515E+02   1.1795E+02   0.0000E+00  0.0000
   1.1795E+02   1.2082E+02   0.0000E+00  0.0000
   1.2082E+02   1.2376E+02   0.0000E+00  0.0000
   1.2376E+02   1.2677E+02   0.0000E+00  0.0000
   1.2677E+02   1.2985E+02   0.0000E+00  0.0000
   1.2985E+02   1.3301E+02   0.0000E+00  0.0000
   1.3301E+02   1.3625E+02   0.0000E+00  0.0000
   1.3625E+02   1.3956E+02   0.0000E+00  0.0000
   1.3956E+02   1.4296E+02   0.0000E+00  0.0000
   1.4296E+02   1.4644E+02   0.0000E+00  0.0000
   1.4644E+02   1.5000E+02   0.0000E+00  0.0000

#   sum over                 3.5925E-05
'no. =    1   reg = 100 - 200'
msuc: {\huge [t-cross] in region mesh}
msdr: {\it plotted by \ANGEL \version}
msdl: {\it calculated by \PHITS  3.26}
wt: s(0.7)
\vspace{-3}
  region surface crossing
  area  &=&   1.0000E+00 [cm^2]
e:
 
# Information for Restart Calculation
# This calculation was newly started
# istdev =  2 # 1:Batch variance, 2:History variance
# resc2  = 5.00000000000000000E+08 # Total source weight or Total source weight / maxcas
# resc3  = 5.00000000000000000E+08 # Total history number or Total batch number
# maxcas =   500000000 # History / Batch, only used for istdev=1
# bitrseed = 1101101111010011011000101101110001100110110010110001010100010001 # bit data of rseed
