[ T-Cross ]
    title = [t-cross] in region mesh
     mesh =  reg            # mesh type is region-wise
      reg =    1            # number of crossing regions
      non     r-from    r-to       area
      1       125       225        1.000000    
   e-type =    3            # e-mesh is log given by emin, emax and ne
     emin =  1.0000000E-02  # minimum value of e-mesh points
     emax =   150.0000      # maximum value of e-mesh points
#    edel =  2.4039514E-02  # mesh width of e-mesh points
       ne =    400          # number of e-mesh points
#    data = ( e(i), i = 1, ne + 1 )
#           1.00000E-02  1.02433E-02  1.04925E-02  1.07478E-02  1.10093E-02
#           1.12772E-02  1.15516E-02  1.18326E-02  1.21205E-02  1.24154E-02
#           1.27175E-02  1.30269E-02  1.33439E-02  1.36686E-02  1.40011E-02
#           1.43418E-02  1.46907E-02  1.50482E-02  1.54143E-02  1.57894E-02
#           1.61735E-02  1.65670E-02  1.69701E-02  1.73830E-02  1.78060E-02
#           1.82392E-02  1.86830E-02  1.91375E-02  1.96032E-02  2.00801E-02
#           2.05687E-02  2.10692E-02  2.15818E-02  2.21069E-02  2.26448E-02
#           2.31957E-02  2.37601E-02  2.43382E-02  2.49304E-02  2.55369E-02
#           2.61583E-02  2.67947E-02  2.74467E-02  2.81145E-02  2.87985E-02
#           2.94992E-02  3.02169E-02  3.09521E-02  3.17052E-02  3.24766E-02
#           3.32668E-02  3.40762E-02  3.49053E-02  3.57546E-02  3.66246E-02
#           3.75157E-02  3.84284E-02  3.93634E-02  4.03212E-02  4.13022E-02
#           4.23071E-02  4.33365E-02  4.43909E-02  4.54710E-02  4.65773E-02
#           4.77106E-02  4.88714E-02  5.00605E-02  5.12785E-02  5.25262E-02
#           5.38042E-02  5.51133E-02  5.64542E-02  5.78278E-02  5.92348E-02
#           6.06760E-02  6.21523E-02  6.36645E-02  6.52135E-02  6.68002E-02
#           6.84255E-02  7.00904E-02  7.17957E-02  7.35426E-02  7.53319E-02
#           7.71648E-02  7.90423E-02  8.09655E-02  8.29354E-02  8.49533E-02
#           8.70203E-02  8.91376E-02  9.13064E-02  9.35279E-02  9.58035E-02
#           9.81345E-02  1.00522E-01  1.02968E-01  1.05473E-01  1.08040E-01
#           1.10668E-01  1.13361E-01  1.16119E-01  1.18944E-01  1.21838E-01
#           1.24803E-01  1.27839E-01  1.30950E-01  1.34136E-01  1.37399E-01
#           1.40742E-01  1.44167E-01  1.47675E-01  1.51268E-01  1.54948E-01
#           1.58718E-01  1.62580E-01  1.66535E-01  1.70587E-01  1.74738E-01
#           1.78989E-01  1.83344E-01  1.87805E-01  1.92375E-01  1.97055E-01
#           2.01850E-01  2.06761E-01  2.11792E-01  2.16945E-01  2.22223E-01
#           2.27630E-01  2.33169E-01  2.38842E-01  2.44653E-01  2.50605E-01
#           2.56703E-01  2.62949E-01  2.69346E-01  2.75900E-01  2.82613E-01
#           2.89489E-01  2.96532E-01  3.03747E-01  3.11138E-01  3.18708E-01
#           3.26462E-01  3.34405E-01  3.42542E-01  3.50876E-01  3.59413E-01
#           3.68158E-01  3.77116E-01  3.86291E-01  3.95690E-01  4.05317E-01
#           4.15179E-01  4.25281E-01  4.35628E-01  4.46227E-01  4.57084E-01
#           4.68205E-01  4.79597E-01  4.91266E-01  5.03219E-01  5.15463E-01
#           5.28005E-01  5.40851E-01  5.54011E-01  5.67490E-01  5.81298E-01
#           5.95441E-01  6.09929E-01  6.24769E-01  6.39970E-01  6.55541E-01
#           6.71491E-01  6.87828E-01  7.04564E-01  7.21706E-01  7.39266E-01
#           7.57253E-01  7.75678E-01  7.94551E-01  8.13883E-01  8.33685E-01
#           8.53969E-01  8.74747E-01  8.96030E-01  9.17831E-01  9.40163E-01
#           9.63038E-01  9.86469E-01  1.01047E+00  1.03506E+00  1.06024E+00
#           1.08604E+00  1.11246E+00  1.13953E+00  1.16725E+00  1.19565E+00
#           1.22474E+00  1.25454E+00  1.28507E+00  1.31633E+00  1.34836E+00
#           1.38117E+00  1.41477E+00  1.44920E+00  1.48446E+00  1.52057E+00
#           1.55757E+00  1.59547E+00  1.63429E+00  1.67405E+00  1.71478E+00
#           1.75650E+00  1.79924E+00  1.84302E+00  1.88786E+00  1.93379E+00
#           1.98084E+00  2.02904E+00  2.07841E+00  2.12898E+00  2.18078E+00
#           2.23384E+00  2.28819E+00  2.34386E+00  2.40089E+00  2.45930E+00
#           2.51914E+00  2.58043E+00  2.64322E+00  2.70753E+00  2.77341E+00
#           2.84088E+00  2.91001E+00  2.98081E+00  3.05333E+00  3.12762E+00
#           3.20372E+00  3.28167E+00  3.36152E+00  3.44330E+00  3.52708E+00
#           3.61290E+00  3.70080E+00  3.79085E+00  3.88308E+00  3.97756E+00
#           4.07434E+00  4.17347E+00  4.27501E+00  4.37903E+00  4.48557E+00
#           4.59471E+00  4.70650E+00  4.82102E+00  4.93832E+00  5.05847E+00
#           5.18155E+00  5.30762E+00  5.43676E+00  5.56904E+00  5.70453E+00
#           5.84333E+00  5.98550E+00  6.13114E+00  6.28031E+00  6.43312E+00
#           6.58964E+00  6.74997E+00  6.91420E+00  7.08243E+00  7.25475E+00
#           7.43126E+00  7.61207E+00  7.79728E+00  7.98700E+00  8.18133E+00
#           8.38038E+00  8.58428E+00  8.79315E+00  9.00709E+00  9.22624E+00
#           9.45072E+00  9.68067E+00  9.91620E+00  1.01575E+01  1.04046E+01
#           1.06578E+01  1.09171E+01  1.11827E+01  1.14548E+01  1.17335E+01
#           1.20190E+01  1.23114E+01  1.26109E+01  1.29178E+01  1.32321E+01
#           1.35540E+01  1.38838E+01  1.42216E+01  1.45676E+01  1.49221E+01
#           1.52851E+01  1.56570E+01  1.60380E+01  1.64282E+01  1.68279E+01
#           1.72374E+01  1.76568E+01  1.80864E+01  1.85264E+01  1.89772E+01
#           1.94389E+01  1.99119E+01  2.03963E+01  2.08926E+01  2.14009E+01
#           2.19216E+01  2.24550E+01  2.30014E+01  2.35610E+01  2.41343E+01
#           2.47215E+01  2.53230E+01  2.59391E+01  2.65702E+01  2.72167E+01
#           2.78789E+01  2.85572E+01  2.92520E+01  2.99637E+01  3.06928E+01
#           3.14396E+01  3.22045E+01  3.29881E+01  3.37907E+01  3.46128E+01
#           3.54550E+01  3.63177E+01  3.72013E+01  3.81064E+01  3.90336E+01
#           3.99833E+01  4.09561E+01  4.19526E+01  4.29734E+01  4.40189E+01
#           4.50900E+01  4.61870E+01  4.73108E+01  4.84619E+01  4.96410E+01
#           5.08488E+01  5.20860E+01  5.33533E+01  5.46514E+01  5.59812E+01
#           5.73432E+01  5.87384E+01  6.01676E+01  6.16315E+01  6.31311E+01
#           6.46671E+01  6.62405E+01  6.78522E+01  6.95031E+01  7.11941E+01
#           7.29263E+01  7.47007E+01  7.65182E+01  7.83800E+01  8.02870E+01
#           8.22405E+01  8.42414E+01  8.62911E+01  8.83906E+01  9.05412E+01
#           9.27442E+01  9.50007E+01  9.73122E+01  9.96799E+01  1.02105E+02
#           1.04589E+02  1.07134E+02  1.09741E+02  1.12411E+02  1.15146E+02
#           1.17948E+02  1.20817E+02  1.23757E+02  1.26768E+02  1.29852E+02
#           1.33012E+02  1.36248E+02  1.39563E+02  1.42959E+02  1.46437E+02
#           1.50000E+02
     unit =    2            # unit is [1/cm^2/(MeV/n)/source]
     axis =  eng            # axis of output
     file = detector-26.out  # file name of output for the above axis
   output = f-curr          # surface crossing forward current spectrum
     part =  neutron  
# kf/name :  2112     
#    used :        main (  %)        temp (  %)       total (  %)
#  memory :         414 (  0)           0 (  0)         414 (  0)

#------------------------------------------------------------------------------
#newpage:
#   no. =    1   reg = 125 - 225

x: Energy [MeV/n]
y:  F-Curr [1/cm^2/(MeV/n)/source]         
p: xlog ylog afac(0.8) form(0.9)
h: n            x            y(neutron ),hh0l   n 
#  e-lower      e-upper      neutron     r.err 
   1.0000E-02   1.0243E-02   3.0784E-03  0.0365
   1.0243E-02   1.0493E-02   2.8809E-03  0.0373
   1.0493E-02   1.0748E-02   2.7028E-03  0.0381
   1.0748E-02   1.1009E-02   2.6960E-03  0.0377
   1.1009E-02   1.1277E-02   2.7775E-03  0.0367
   1.1277E-02   1.1552E-02   2.9083E-03  0.0354
   1.1552E-02   1.1833E-02   2.7254E-03  0.0361
   1.1833E-02   1.2121E-02   2.5981E-03  0.0366
   1.2121E-02   1.2415E-02   2.7026E-03  0.0354
   1.2415E-02   1.2718E-02   2.7278E-03  0.0348
   1.2718E-02   1.3027E-02   2.6630E-03  0.0348
   1.3027E-02   1.3344E-02   2.5997E-03  0.0348
   1.3344E-02   1.3669E-02   2.6181E-03  0.0343
   1.3669E-02   1.4001E-02   2.6506E-03  0.0337
   1.4001E-02   1.4342E-02   2.4438E-03  0.0347
   1.4342E-02   1.4691E-02   2.6164E-03  0.0331
   1.4691E-02   1.5048E-02   2.4816E-03  0.0336
   1.5048E-02   1.5414E-02   2.5592E-03  0.0327
   1.5414E-02   1.5789E-02   2.5624E-03  0.0323
   1.5789E-02   1.6174E-02   2.5705E-03  0.0318
   1.6174E-02   1.6567E-02   2.5361E-03  0.0317
   1.6567E-02   1.6970E-02   2.4833E-03  0.0316
   1.6970E-02   1.7383E-02   2.5309E-03  0.0309
   1.7383E-02   1.7806E-02   2.3029E-03  0.0320
   1.7806E-02   1.8239E-02   2.4860E-03  0.0305
   1.8239E-02   1.8683E-02   2.4540E-03  0.0303
   1.8683E-02   1.9138E-02   2.4309E-03  0.0301
   1.9138E-02   1.9603E-02   2.4719E-03  0.0295
   1.9603E-02   2.0080E-02   2.3419E-03  0.0299
   2.0080E-02   2.0569E-02   2.4193E-03  0.0291
   2.0569E-02   2.1069E-02   2.3918E-03  0.0289
   2.1069E-02   2.1582E-02   2.5028E-03  0.0279
   2.1582E-02   2.2107E-02   2.4814E-03  0.0277
   2.2107E-02   2.2645E-02   2.3481E-03  0.0281
   2.2645E-02   2.3196E-02   2.4031E-03  0.0275
   2.3196E-02   2.3760E-02   2.4417E-03  0.0269
   2.3760E-02   2.4338E-02   2.2816E-03  0.0275
   2.4338E-02   2.4930E-02   2.2409E-03  0.0275
   2.4930E-02   2.5537E-02   2.2800E-03  0.0269
   2.5537E-02   2.6158E-02   2.3401E-03  0.0262
   2.6158E-02   2.6795E-02   2.2649E-03  0.0263
   2.6795E-02   2.7447E-02   2.1459E-03  0.0267
   2.7447E-02   2.8114E-02   2.2657E-03  0.0257
   2.8114E-02   2.8799E-02   2.1490E-03  0.0261
   2.8799E-02   2.9499E-02   2.2278E-03  0.0253
   2.9499E-02   3.0217E-02   2.1693E-03  0.0253
   3.0217E-02   3.0952E-02   2.1681E-03  0.0250
   3.0952E-02   3.1705E-02   2.0847E-03  0.0252
   3.1705E-02   3.2477E-02   2.0443E-03  0.0252
   3.2477E-02   3.3267E-02   2.1463E-03  0.0243
   3.3267E-02   3.4076E-02   2.2090E-03  0.0236
   3.4076E-02   3.4905E-02   2.0854E-03  0.0240
   3.4905E-02   3.5755E-02   2.1365E-03  0.0235
   3.5755E-02   3.6625E-02   2.1053E-03  0.0234
   3.6625E-02   3.7516E-02   1.9594E-03  0.0239
   3.7516E-02   3.8428E-02   2.1051E-03  0.0228
   3.8428E-02   3.9363E-02   2.0653E-03  0.0228
   3.9363E-02   4.0321E-02   2.0935E-03  0.0223
   4.0321E-02   4.1302E-02   2.0279E-03  0.0224
   4.1302E-02   4.2307E-02   1.9952E-03  0.0223
   4.2307E-02   4.3337E-02   2.0284E-03  0.0219
   4.3337E-02   4.4391E-02   1.9414E-03  0.0221
   4.4391E-02   4.5471E-02   1.9355E-03  0.0219
   4.5471E-02   4.6577E-02   1.9451E-03  0.0216
   4.6577E-02   4.7711E-02   1.9616E-03  0.0212
   4.7711E-02   4.8871E-02   1.8883E-03  0.0214
   4.8871E-02   5.0061E-02   1.8746E-03  0.0212
   5.0061E-02   5.1279E-02   1.8596E-03  0.0210
   5.1279E-02   5.2526E-02   1.8988E-03  0.0205
   5.2526E-02   5.3804E-02   1.8341E-03  0.0207
   5.3804E-02   5.5113E-02   1.8704E-03  0.0202
   5.5113E-02   5.6454E-02   1.7883E-03  0.0204
   5.6454E-02   5.7828E-02   1.8332E-03  0.0199
   5.7828E-02   5.9235E-02   1.8529E-03  0.0196
   5.9235E-02   6.0676E-02   1.8123E-03  0.0196
   6.0676E-02   6.2152E-02   1.8492E-03  0.0191
   6.2152E-02   6.3665E-02   1.7583E-03  0.0194
   6.3665E-02   6.5214E-02   1.7850E-03  0.0190
   6.5214E-02   6.6800E-02   1.7458E-03  0.0190
   6.6800E-02   6.8426E-02   1.7117E-03  0.0190
   6.8426E-02   7.0090E-02   1.6779E-03  0.0189
   7.0090E-02   7.1796E-02   1.6780E-03  0.0187
   7.1796E-02   7.3543E-02   1.6739E-03  0.0185
   7.3543E-02   7.5332E-02   1.7297E-03  0.0180
   7.5332E-02   7.7165E-02   1.5986E-03  0.0185
   7.7165E-02   7.9042E-02   1.6336E-03  0.0181
   7.9042E-02   8.0965E-02   1.6468E-03  0.0178
   8.0965E-02   8.2935E-02   1.6145E-03  0.0177
   8.2935E-02   8.4953E-02   1.5940E-03  0.0176
   8.4953E-02   8.7020E-02   1.5341E-03  0.0178
   8.7020E-02   8.9138E-02   1.5773E-03  0.0173
   8.9138E-02   9.1306E-02   1.5511E-03  0.0172
   9.1306E-02   9.3528E-02   1.5131E-03  0.0172
   9.3528E-02   9.5804E-02   1.5051E-03  0.0171
   9.5804E-02   9.8134E-02   1.4646E-03  0.0171
   9.8134E-02   1.0052E-01   1.4964E-03  0.0167
   1.0052E-01   1.0297E-01   1.4920E-03  0.0166
   1.0297E-01   1.0547E-01   1.4625E-03  0.0165
   1.0547E-01   1.0804E-01   1.4535E-03  0.0164
   1.0804E-01   1.1067E-01   1.4992E-03  0.0159
   1.1067E-01   1.1336E-01   1.4161E-03  0.0162
   1.1336E-01   1.1612E-01   1.3960E-03  0.0161
   1.1612E-01   1.1894E-01   1.3728E-03  0.0161
   1.1894E-01   1.2184E-01   1.4361E-03  0.0155
   1.2184E-01   1.2480E-01   1.3750E-03  0.0157
   1.2480E-01   1.2784E-01   1.3611E-03  0.0156
   1.2784E-01   1.3095E-01   1.3548E-03  0.0154
   1.3095E-01   1.3414E-01   1.3229E-03  0.0154
   1.3414E-01   1.3740E-01   1.3231E-03  0.0152
   1.3740E-01   1.4074E-01   1.3443E-03  0.0149
   1.4074E-01   1.4417E-01   1.2782E-03  0.0151
   1.4417E-01   1.4767E-01   1.2715E-03  0.0150
   1.4767E-01   1.5127E-01   1.2691E-03  0.0148
   1.5127E-01   1.5495E-01   1.2542E-03  0.0147
   1.5495E-01   1.5872E-01   1.2745E-03  0.0144
   1.5872E-01   1.6258E-01   1.2268E-03  0.0145
   1.6258E-01   1.6654E-01   1.2515E-03  0.0142
   1.6654E-01   1.7059E-01   1.2167E-03  0.0142
   1.7059E-01   1.7474E-01   1.1767E-03  0.0143
   1.7474E-01   1.7899E-01   1.1532E-03  0.0143
   1.7899E-01   1.8334E-01   1.1461E-03  0.0142
   1.8334E-01   1.8781E-01   1.1836E-03  0.0138
   1.8781E-01   1.9237E-01   1.1074E-03  0.0141
   1.9237E-01   1.9706E-01   1.1455E-03  0.0137
   1.9706E-01   2.0185E-01   1.1082E-03  0.0137
   2.0185E-01   2.0676E-01   1.0822E-03  0.0137
   2.0676E-01   2.1179E-01   1.0659E-03  0.0137
   2.1179E-01   2.1694E-01   1.0720E-03  0.0135
   2.1694E-01   2.2222E-01   1.0789E-03  0.0133
   2.2222E-01   2.2763E-01   1.0629E-03  0.0132
   2.2763E-01   2.3317E-01   1.0577E-03  0.0131
   2.3317E-01   2.3884E-01   1.0454E-03  0.0130
   2.3884E-01   2.4465E-01   1.0101E-03  0.0131
   2.4465E-01   2.5061E-01   9.9688E-04  0.0130
   2.5061E-01   2.5670E-01   1.0106E-03  0.0127
   2.5670E-01   2.6295E-01   9.7730E-04  0.0128
   2.6295E-01   2.6935E-01   9.9871E-04  0.0125
   2.6935E-01   2.7590E-01   9.5080E-04  0.0127
   2.7590E-01   2.8261E-01   9.4125E-04  0.0126
   2.8261E-01   2.8949E-01   9.2915E-04  0.0125
   2.8949E-01   2.9653E-01   9.3420E-04  0.0123
   2.9653E-01   3.0375E-01   9.1360E-04  0.0123
   3.0375E-01   3.1114E-01   8.9339E-04  0.0123
   3.1114E-01   3.1871E-01   8.6470E-04  0.0124
   3.1871E-01   3.2646E-01   8.6783E-04  0.0122
   3.2646E-01   3.3441E-01   8.5464E-04  0.0121
   3.3441E-01   3.4254E-01   8.4301E-04  0.0121
   3.4254E-01   3.5088E-01   8.3186E-04  0.0120
   3.5088E-01   3.5941E-01   8.1855E-04  0.0120
   3.5941E-01   3.6816E-01   8.0539E-04  0.0119
   3.6816E-01   3.7712E-01   7.9637E-04  0.0118
   3.7712E-01   3.8629E-01   7.8410E-04  0.0118
   3.8629E-01   3.9569E-01   7.7563E-04  0.0117
   3.9569E-01   4.0532E-01   7.6578E-04  0.0116
   4.0532E-01   4.1518E-01   7.3223E-04  0.0118
   4.1518E-01   4.2528E-01   7.2270E-04  0.0117
   4.2528E-01   4.3563E-01   7.0554E-04  0.0117
   4.3563E-01   4.4623E-01   6.9199E-04  0.0117
   4.4623E-01   4.5708E-01   6.8154E-04  0.0116
   4.5708E-01   4.6821E-01   6.6688E-04  0.0116
   4.6821E-01   4.7960E-01   6.5508E-04  0.0116
   4.7960E-01   4.9127E-01   6.4757E-04  0.0115
   4.9127E-01   5.0322E-01   6.3830E-04  0.0114
   5.0322E-01   5.1546E-01   6.2808E-04  0.0114
   5.1546E-01   5.2800E-01   6.1611E-04  0.0114
   5.2800E-01   5.4085E-01   5.9692E-04  0.0114
   5.4085E-01   5.5401E-01   5.7871E-04  0.0115
   5.5401E-01   5.6749E-01   5.7754E-04  0.0113
   5.6749E-01   5.8130E-01   5.6759E-04  0.0113
   5.8130E-01   5.9544E-01   5.5450E-04  0.0113
   5.9544E-01   6.0993E-01   5.3884E-04  0.0113
   6.0993E-01   6.2477E-01   5.2564E-04  0.0113
   6.2477E-01   6.3997E-01   5.1335E-04  0.0113
   6.3997E-01   6.5554E-01   4.9438E-04  0.0114
   6.5554E-01   6.7149E-01   4.7408E-04  0.0115
   6.7149E-01   6.8783E-01   4.6762E-04  0.0114
   6.8783E-01   7.0456E-01   4.7178E-04  0.0113
   7.0456E-01   7.2171E-01   4.5655E-04  0.0113
   7.2171E-01   7.3927E-01   4.4166E-04  0.0114
   7.3927E-01   7.5725E-01   4.1967E-04  0.0115
   7.5725E-01   7.7568E-01   4.0601E-04  0.0116
   7.7568E-01   7.9455E-01   3.9027E-04  0.0117
   7.9455E-01   8.1388E-01   3.8418E-04  0.0116
   8.1388E-01   8.3368E-01   3.7518E-04  0.0116
   8.3368E-01   8.5397E-01   3.6536E-04  0.0116
   8.5397E-01   8.7475E-01   3.5459E-04  0.0117
   8.7475E-01   8.9603E-01   3.3801E-04  0.0118
   8.9603E-01   9.1783E-01   3.2120E-04  0.0119
   9.1783E-01   9.4016E-01   3.1008E-04  0.0120
   9.4016E-01   9.6304E-01   2.9771E-04  0.0121
   9.6304E-01   9.8647E-01   2.8577E-04  0.0122
   9.8647E-01   1.0105E+00   2.7590E-04  0.0123
   1.0105E+00   1.0351E+00   2.7986E-04  0.0121
   1.0351E+00   1.0602E+00   2.7945E-04  0.0119
   1.0602E+00   1.0860E+00   2.8818E-04  0.0116
   1.0860E+00   1.1125E+00   2.9556E-04  0.0113
   1.1125E+00   1.1395E+00   3.0284E-04  0.0110
   1.1395E+00   1.1673E+00   3.0293E-04  0.0109
   1.1673E+00   1.1957E+00   3.0204E-04  0.0108
   1.1957E+00   1.2247E+00   3.1357E-04  0.0105
   1.2247E+00   1.2545E+00   3.1848E-04  0.0103
   1.2545E+00   1.2851E+00   3.2171E-04  0.0101
   1.2851E+00   1.3163E+00   3.2111E-04  0.0100
   1.3163E+00   1.3484E+00   3.2786E-04  0.0098
   1.3484E+00   1.3812E+00   3.3461E-04  0.0095
   1.3812E+00   1.4148E+00   3.3611E-04  0.0094
   1.4148E+00   1.4492E+00   3.3725E-04  0.0093
   1.4492E+00   1.4845E+00   3.3308E-04  0.0092
   1.4845E+00   1.5206E+00   3.3240E-04  0.0091
   1.5206E+00   1.5576E+00   3.2968E-04  0.0091
   1.5576E+00   1.5955E+00   3.2561E-04  0.0090
   1.5955E+00   1.6343E+00   3.2530E-04  0.0089
   1.6343E+00   1.6741E+00   3.3399E-04  0.0087
   1.6741E+00   1.7148E+00   3.3479E-04  0.0086
   1.7148E+00   1.7565E+00   3.2502E-04  0.0086
   1.7565E+00   1.7992E+00   3.2647E-04  0.0085
   1.7992E+00   1.8430E+00   3.1857E-04  0.0085
   1.8430E+00   1.8879E+00   3.1572E-04  0.0084
   1.8879E+00   1.9338E+00   3.1684E-04  0.0083
   1.9338E+00   1.9808E+00   3.1687E-04  0.0082
   1.9808E+00   2.0290E+00   3.1101E-04  0.0082
   2.0290E+00   2.0784E+00   3.0522E-04  0.0081
   2.0784E+00   2.1290E+00   2.9388E-04  0.0082
   2.1290E+00   2.1808E+00   2.8519E-04  0.0082
   2.1808E+00   2.2338E+00   2.8194E-04  0.0082
   2.2338E+00   2.2882E+00   2.7512E-04  0.0082
   2.2882E+00   2.3439E+00   2.6686E-04  0.0082
   2.3439E+00   2.4009E+00   2.6395E-04  0.0082
   2.4009E+00   2.4593E+00   2.5373E-04  0.0082
   2.4593E+00   2.5191E+00   2.5096E-04  0.0082
   2.5191E+00   2.5804E+00   2.4068E-04  0.0082
   2.5804E+00   2.6432E+00   2.2671E-04  0.0084
   2.6432E+00   2.7075E+00   2.2057E-04  0.0084
   2.7075E+00   2.7734E+00   2.0820E-04  0.0085
   2.7734E+00   2.8409E+00   2.0100E-04  0.0086
   2.8409E+00   2.9100E+00   1.9692E-04  0.0086
   2.9100E+00   2.9808E+00   1.8597E-04  0.0087
   2.9808E+00   3.0533E+00   1.8218E-04  0.0087
   3.0533E+00   3.1276E+00   1.7257E-04  0.0088
   3.1276E+00   3.2037E+00   1.6204E-04  0.0090
   3.2037E+00   3.2817E+00   1.5418E-04  0.0091
   3.2817E+00   3.3615E+00   1.4507E-04  0.0093
   3.3615E+00   3.4433E+00   1.3687E-04  0.0095
   3.4433E+00   3.5271E+00   1.2946E-04  0.0096
   3.5271E+00   3.6129E+00   1.2147E-04  0.0098
   3.6129E+00   3.7008E+00   1.1509E-04  0.0099
   3.7008E+00   3.7908E+00   1.0701E-04  0.0102
   3.7908E+00   3.8831E+00   1.0106E-04  0.0104
   3.8831E+00   3.9776E+00   9.6128E-05  0.0105
   3.9776E+00   4.0743E+00   9.0264E-05  0.0107
   4.0743E+00   4.1735E+00   8.4201E-05  0.0109
   4.1735E+00   4.2750E+00   7.9242E-05  0.0111
   4.2750E+00   4.3790E+00   7.1913E-05  0.0116
   4.3790E+00   4.4856E+00   6.6512E-05  0.0119
   4.4856E+00   4.5947E+00   6.2353E-05  0.0121
   4.5947E+00   4.7065E+00   5.5970E-05  0.0126
   4.7065E+00   4.8210E+00   5.3169E-05  0.0128
   4.8210E+00   4.9383E+00   5.0043E-05  0.0130
   4.9383E+00   5.0585E+00   4.6374E-05  0.0134
   5.0585E+00   5.1815E+00   4.2457E-05  0.0138
   5.1815E+00   5.3076E+00   3.9172E-05  0.0142
   5.3076E+00   5.4368E+00   3.7096E-05  0.0144
   5.4368E+00   5.5690E+00   3.3977E-05  0.0149
   5.5690E+00   5.7045E+00   3.1163E-05  0.0154
   5.7045E+00   5.8433E+00   2.9597E-05  0.0156
   5.8433E+00   5.9855E+00   2.6162E-05  0.0164
   5.9855E+00   6.1311E+00   2.3889E-05  0.0169
   6.1311E+00   6.2803E+00   2.2919E-05  0.0171
   6.2803E+00   6.4331E+00   2.1004E-05  0.0176
   6.4331E+00   6.5896E+00   1.9061E-05  0.0183
   6.5896E+00   6.7500E+00   1.7302E-05  0.0190
   6.7500E+00   6.9142E+00   1.5594E-05  0.0197
   6.9142E+00   7.0824E+00   1.4608E-05  0.0202
   7.0824E+00   7.2548E+00   1.3573E-05  0.0207
   7.2548E+00   7.4313E+00   1.2254E-05  0.0215
   7.4313E+00   7.6121E+00   1.1368E-05  0.0220
   7.6121E+00   7.7973E+00   1.0845E-05  0.0223
   7.7973E+00   7.9870E+00   9.6382E-06  0.0234
   7.9870E+00   8.1813E+00   9.2317E-06  0.0236
   8.1813E+00   8.3804E+00   8.0705E-06  0.0249
   8.3804E+00   8.5843E+00   7.2511E-06  0.0260
   8.5843E+00   8.7931E+00   6.6599E-06  0.0268
   8.7931E+00   9.0071E+00   6.4012E-06  0.0270
   9.0071E+00   9.2262E+00   5.8567E-06  0.0279
   9.2262E+00   9.4507E+00   5.3791E-06  0.0288
   9.4507E+00   9.6807E+00   4.9099E-06  0.0297
   9.6807E+00   9.9162E+00   4.3666E-06  0.0311
   9.9162E+00   1.0157E+01   4.0370E-06  0.0320
   1.0157E+01   1.0405E+01   3.4839E-06  0.0340
   1.0405E+01   1.0658E+01   3.3893E-06  0.0341
   1.0658E+01   1.0917E+01   3.0195E-06  0.0356
   1.0917E+01   1.1183E+01   2.8367E-06  0.0364
   1.1183E+01   1.1455E+01   2.6518E-06  0.0372
   1.1455E+01   1.1733E+01   2.1636E-06  0.0407
   1.1733E+01   1.2019E+01   2.0176E-06  0.0416
   1.2019E+01   1.2311E+01   1.8757E-06  0.0427
   1.2311E+01   1.2611E+01   1.8428E-06  0.0425
   1.2611E+01   1.2918E+01   1.6377E-06  0.0446
   1.2918E+01   1.3232E+01   1.4795E-06  0.0463
   1.3232E+01   1.3554E+01   1.4226E-06  0.0467
   1.3554E+01   1.3884E+01   1.1599E-06  0.0510
   1.3884E+01   1.4222E+01   1.1308E-06  0.0511
   1.4222E+01   1.4568E+01   1.0418E-06  0.0526
   1.4568E+01   1.4922E+01   1.0100E-06  0.0529
   1.4922E+01   1.5285E+01   8.9515E-07  0.0554
   1.5285E+01   1.5657E+01   8.8330E-07  0.0552
   1.5657E+01   1.6038E+01   7.7963E-07  0.0580
   1.6038E+01   1.6428E+01   7.9699E-07  0.0567
   1.6428E+01   1.6828E+01   6.1544E-07  0.0638
   1.6828E+01   1.7237E+01   6.4357E-07  0.0616
   1.7237E+01   1.7657E+01   5.3887E-07  0.0665
   1.7657E+01   1.8086E+01   5.4934E-07  0.0651
   1.8086E+01   1.8526E+01   5.1130E-07  0.0667
   1.8526E+01   1.8977E+01   5.4574E-07  0.0638
   1.8977E+01   1.9439E+01   4.5698E-07  0.0688
   1.9439E+01   1.9912E+01   4.4824E-07  0.0687
   1.9912E+01   2.0396E+01   4.4997E-07  0.0677
   2.0396E+01   2.0893E+01   4.2720E-07  0.0687
   2.0893E+01   2.1401E+01   3.8754E-07  0.0712
   2.1401E+01   2.1922E+01   3.3224E-07  0.0760
   2.1922E+01   2.2455E+01   3.1310E-07  0.0774
   2.2455E+01   2.3001E+01   2.6723E-07  0.0828
   2.3001E+01   2.3561E+01   3.0377E-07  0.0767
   2.3561E+01   2.4134E+01   2.8957E-07  0.0776
   2.4134E+01   2.4721E+01   2.2479E-07  0.0870
   2.4721E+01   2.5323E+01   2.5935E-07  0.0801
   2.5323E+01   2.5939E+01   2.3372E-07  0.0833
   2.5939E+01   2.6570E+01   2.2024E-07  0.0848
   2.6570E+01   2.7217E+01   1.8098E-07  0.0925
   2.7217E+01   2.7879E+01   1.8423E-07  0.0905
   2.7879E+01   2.8557E+01   1.6511E-07  0.0945
   2.8557E+01   2.9252E+01   1.6839E-07  0.0925
   2.9252E+01   2.9964E+01   1.3207E-07  0.1031
   2.9964E+01   3.0693E+01   1.3854E-07  0.0995
   3.0693E+01   3.1440E+01   1.1918E-07  0.1060
   3.1440E+01   3.2205E+01   1.1504E-07  0.1066
   3.2205E+01   3.2988E+01   9.5717E-08  0.1155
   3.2988E+01   3.3791E+01   8.4722E-08  0.1213
   3.3791E+01   3.4613E+01   9.8522E-08  0.1111
   3.4613E+01   3.5455E+01   8.4307E-08  0.1187
   3.5455E+01   3.6318E+01   7.7668E-08  0.1222
   3.6318E+01   3.7201E+01   6.6769E-08  0.1302
   3.7201E+01   3.8106E+01   5.3031E-08  0.1443
   3.8106E+01   3.9034E+01   3.7750E-08  0.1690
   3.9034E+01   3.9983E+01   4.0012E-08  0.1622
   3.9983E+01   4.0956E+01   4.5229E-08  0.1508
   4.0956E+01   4.1953E+01   3.4120E-08  0.1715
   4.1953E+01   4.2973E+01   2.3512E-08  0.2041
   4.2973E+01   4.4019E+01   2.6779E-08  0.1890
   4.4019E+01   4.5090E+01   2.5210E-08  0.1925
   4.5090E+01   4.6187E+01   2.6434E-08  0.1857
   4.6187E+01   4.7311E+01   1.4238E-08  0.2500
   4.7311E+01   4.8462E+01   1.3900E-08  0.2500
   4.8462E+01   4.9641E+01   1.0177E-08  0.2887
   4.9641E+01   5.0849E+01   1.4903E-08  0.2357
   5.0849E+01   5.2086E+01   7.2745E-09  0.3333
   5.2086E+01   5.3353E+01   7.8908E-09  0.3162
   5.3353E+01   5.4651E+01   3.8517E-09  0.4472
   5.4651E+01   5.5981E+01   3.7602E-09  0.4472
   5.5981E+01   5.7343E+01   2.2025E-09  0.5774
   5.7343E+01   5.8738E+01   5.7339E-09  0.3536
   5.8738E+01   6.0168E+01   2.7989E-09  0.5000
   6.0168E+01   6.1632E+01   2.0493E-09  0.5774
   6.1632E+01   6.3131E+01   6.6687E-10  1.0000
   6.3131E+01   6.4667E+01   1.3021E-09  0.7071
   6.4667E+01   6.6240E+01   6.3557E-10  1.0000
   6.6240E+01   6.7852E+01   6.2047E-10  1.0000
   6.7852E+01   6.9503E+01   1.2115E-09  0.7071
   6.9503E+01   7.1194E+01   0.0000E+00  0.0000
   7.1194E+01   7.2926E+01   5.7730E-10  1.0000
   7.2926E+01   7.4701E+01   0.0000E+00  0.0000
   7.4701E+01   7.6518E+01   0.0000E+00  0.0000
   7.6518E+01   7.8380E+01   0.0000E+00  0.0000
   7.8380E+01   8.0287E+01   0.0000E+00  0.0000
   8.0287E+01   8.2240E+01   0.0000E+00  0.0000
   8.2240E+01   8.4241E+01   0.0000E+00  0.0000
   8.4241E+01   8.6291E+01   0.0000E+00  0.0000
   8.6291E+01   8.8391E+01   0.0000E+00  0.0000
   8.8391E+01   9.0541E+01   0.0000E+00  0.0000
   9.0541E+01   9.2744E+01   0.0000E+00  0.0000
   9.2744E+01   9.5001E+01   0.0000E+00  0.0000
   9.5001E+01   9.7312E+01   0.0000E+00  0.0000
   9.7312E+01   9.9680E+01   0.0000E+00  0.0000
   9.9680E+01   1.0211E+02   0.0000E+00  0.0000
   1.0211E+02   1.0459E+02   0.0000E+00  0.0000
   1.0459E+02   1.0713E+02   0.0000E+00  0.0000
   1.0713E+02   1.0974E+02   0.0000E+00  0.0000
   1.0974E+02   1.1241E+02   0.0000E+00  0.0000
   1.1241E+02   1.1515E+02   0.0000E+00  0.0000
   1.1515E+02   1.1795E+02   0.0000E+00  0.0000
   1.1795E+02   1.2082E+02   0.0000E+00  0.0000
   1.2082E+02   1.2376E+02   0.0000E+00  0.0000
   1.2376E+02   1.2677E+02   0.0000E+00  0.0000
   1.2677E+02   1.2985E+02   0.0000E+00  0.0000
   1.2985E+02   1.3301E+02   0.0000E+00  0.0000
   1.3301E+02   1.3625E+02   0.0000E+00  0.0000
   1.3625E+02   1.3956E+02   0.0000E+00  0.0000
   1.3956E+02   1.4296E+02   0.0000E+00  0.0000
   1.4296E+02   1.4644E+02   0.0000E+00  0.0000
   1.4644E+02   1.5000E+02   0.0000E+00  0.0000

#   sum over                 1.0827E-05
'no. =    1   reg = 125 - 225'
msuc: {\huge [t-cross] in region mesh}
msdr: {\it plotted by \ANGEL \version}
msdl: {\it calculated by \PHITS  3.26}
wt: s(0.7)
\vspace{-3}
  region surface crossing
  area  &=&   1.0000E+00 [cm^2]
e:
 
# Information for Restart Calculation
# This calculation was newly started
# istdev =  2 # 1:Batch variance, 2:History variance
# resc2  = 1.00000000000000000E+09 # Total source weight or Total source weight / maxcas
# resc3  = 1.00000000000000000E+09 # Total history number or Total batch number
# maxcas =   500000000 # History / Batch, only used for istdev=1
# bitrseed = 0001001110011001001001110000100100110111001111011100001000101100 # bit data of rseed
