[ T-Cross ]
    title = [t-cross] in region mesh
     mesh =  reg            # mesh type is region-wise
      reg =    1            # number of crossing regions
      non     r-from    r-to       area
      1       104       204        1.000000    
   e-type =    3            # e-mesh is log given by emin, emax and ne
     emin =  1.0000000E-02  # minimum value of e-mesh points
     emax =   150.0000      # maximum value of e-mesh points
#    edel =  2.4039514E-02  # mesh width of e-mesh points
       ne =    400          # number of e-mesh points
#    data = ( e(i), i = 1, ne + 1 )
#           1.00000E-02  1.02433E-02  1.04925E-02  1.07478E-02  1.10093E-02
#           1.12772E-02  1.15516E-02  1.18326E-02  1.21205E-02  1.24154E-02
#           1.27175E-02  1.30269E-02  1.33439E-02  1.36686E-02  1.40011E-02
#           1.43418E-02  1.46907E-02  1.50482E-02  1.54143E-02  1.57894E-02
#           1.61735E-02  1.65670E-02  1.69701E-02  1.73830E-02  1.78060E-02
#           1.82392E-02  1.86830E-02  1.91375E-02  1.96032E-02  2.00801E-02
#           2.05687E-02  2.10692E-02  2.15818E-02  2.21069E-02  2.26448E-02
#           2.31957E-02  2.37601E-02  2.43382E-02  2.49304E-02  2.55369E-02
#           2.61583E-02  2.67947E-02  2.74467E-02  2.81145E-02  2.87985E-02
#           2.94992E-02  3.02169E-02  3.09521E-02  3.17052E-02  3.24766E-02
#           3.32668E-02  3.40762E-02  3.49053E-02  3.57546E-02  3.66246E-02
#           3.75157E-02  3.84284E-02  3.93634E-02  4.03212E-02  4.13022E-02
#           4.23071E-02  4.33365E-02  4.43909E-02  4.54710E-02  4.65773E-02
#           4.77106E-02  4.88714E-02  5.00605E-02  5.12785E-02  5.25262E-02
#           5.38042E-02  5.51133E-02  5.64542E-02  5.78278E-02  5.92348E-02
#           6.06760E-02  6.21523E-02  6.36645E-02  6.52135E-02  6.68002E-02
#           6.84255E-02  7.00904E-02  7.17957E-02  7.35426E-02  7.53319E-02
#           7.71648E-02  7.90423E-02  8.09655E-02  8.29354E-02  8.49533E-02
#           8.70203E-02  8.91376E-02  9.13064E-02  9.35279E-02  9.58035E-02
#           9.81345E-02  1.00522E-01  1.02968E-01  1.05473E-01  1.08040E-01
#           1.10668E-01  1.13361E-01  1.16119E-01  1.18944E-01  1.21838E-01
#           1.24803E-01  1.27839E-01  1.30950E-01  1.34136E-01  1.37399E-01
#           1.40742E-01  1.44167E-01  1.47675E-01  1.51268E-01  1.54948E-01
#           1.58718E-01  1.62580E-01  1.66535E-01  1.70587E-01  1.74738E-01
#           1.78989E-01  1.83344E-01  1.87805E-01  1.92375E-01  1.97055E-01
#           2.01850E-01  2.06761E-01  2.11792E-01  2.16945E-01  2.22223E-01
#           2.27630E-01  2.33169E-01  2.38842E-01  2.44653E-01  2.50605E-01
#           2.56703E-01  2.62949E-01  2.69346E-01  2.75900E-01  2.82613E-01
#           2.89489E-01  2.96532E-01  3.03747E-01  3.11138E-01  3.18708E-01
#           3.26462E-01  3.34405E-01  3.42542E-01  3.50876E-01  3.59413E-01
#           3.68158E-01  3.77116E-01  3.86291E-01  3.95690E-01  4.05317E-01
#           4.15179E-01  4.25281E-01  4.35628E-01  4.46227E-01  4.57084E-01
#           4.68205E-01  4.79597E-01  4.91266E-01  5.03219E-01  5.15463E-01
#           5.28005E-01  5.40851E-01  5.54011E-01  5.67490E-01  5.81298E-01
#           5.95441E-01  6.09929E-01  6.24769E-01  6.39970E-01  6.55541E-01
#           6.71491E-01  6.87828E-01  7.04564E-01  7.21706E-01  7.39266E-01
#           7.57253E-01  7.75678E-01  7.94551E-01  8.13883E-01  8.33685E-01
#           8.53969E-01  8.74747E-01  8.96030E-01  9.17831E-01  9.40163E-01
#           9.63038E-01  9.86469E-01  1.01047E+00  1.03506E+00  1.06024E+00
#           1.08604E+00  1.11246E+00  1.13953E+00  1.16725E+00  1.19565E+00
#           1.22474E+00  1.25454E+00  1.28507E+00  1.31633E+00  1.34836E+00
#           1.38117E+00  1.41477E+00  1.44920E+00  1.48446E+00  1.52057E+00
#           1.55757E+00  1.59547E+00  1.63429E+00  1.67405E+00  1.71478E+00
#           1.75650E+00  1.79924E+00  1.84302E+00  1.88786E+00  1.93379E+00
#           1.98084E+00  2.02904E+00  2.07841E+00  2.12898E+00  2.18078E+00
#           2.23384E+00  2.28819E+00  2.34386E+00  2.40089E+00  2.45930E+00
#           2.51914E+00  2.58043E+00  2.64322E+00  2.70753E+00  2.77341E+00
#           2.84088E+00  2.91001E+00  2.98081E+00  3.05333E+00  3.12762E+00
#           3.20372E+00  3.28167E+00  3.36152E+00  3.44330E+00  3.52708E+00
#           3.61290E+00  3.70080E+00  3.79085E+00  3.88308E+00  3.97756E+00
#           4.07434E+00  4.17347E+00  4.27501E+00  4.37903E+00  4.48557E+00
#           4.59471E+00  4.70650E+00  4.82102E+00  4.93832E+00  5.05847E+00
#           5.18155E+00  5.30762E+00  5.43676E+00  5.56904E+00  5.70453E+00
#           5.84333E+00  5.98550E+00  6.13114E+00  6.28031E+00  6.43312E+00
#           6.58964E+00  6.74997E+00  6.91420E+00  7.08243E+00  7.25475E+00
#           7.43126E+00  7.61207E+00  7.79728E+00  7.98700E+00  8.18133E+00
#           8.38038E+00  8.58428E+00  8.79315E+00  9.00709E+00  9.22624E+00
#           9.45072E+00  9.68067E+00  9.91620E+00  1.01575E+01  1.04046E+01
#           1.06578E+01  1.09171E+01  1.11827E+01  1.14548E+01  1.17335E+01
#           1.20190E+01  1.23114E+01  1.26109E+01  1.29178E+01  1.32321E+01
#           1.35540E+01  1.38838E+01  1.42216E+01  1.45676E+01  1.49221E+01
#           1.52851E+01  1.56570E+01  1.60380E+01  1.64282E+01  1.68279E+01
#           1.72374E+01  1.76568E+01  1.80864E+01  1.85264E+01  1.89772E+01
#           1.94389E+01  1.99119E+01  2.03963E+01  2.08926E+01  2.14009E+01
#           2.19216E+01  2.24550E+01  2.30014E+01  2.35610E+01  2.41343E+01
#           2.47215E+01  2.53230E+01  2.59391E+01  2.65702E+01  2.72167E+01
#           2.78789E+01  2.85572E+01  2.92520E+01  2.99637E+01  3.06928E+01
#           3.14396E+01  3.22045E+01  3.29881E+01  3.37907E+01  3.46128E+01
#           3.54550E+01  3.63177E+01  3.72013E+01  3.81064E+01  3.90336E+01
#           3.99833E+01  4.09561E+01  4.19526E+01  4.29734E+01  4.40189E+01
#           4.50900E+01  4.61870E+01  4.73108E+01  4.84619E+01  4.96410E+01
#           5.08488E+01  5.20860E+01  5.33533E+01  5.46514E+01  5.59812E+01
#           5.73432E+01  5.87384E+01  6.01676E+01  6.16315E+01  6.31311E+01
#           6.46671E+01  6.62405E+01  6.78522E+01  6.95031E+01  7.11941E+01
#           7.29263E+01  7.47007E+01  7.65182E+01  7.83800E+01  8.02870E+01
#           8.22405E+01  8.42414E+01  8.62911E+01  8.83906E+01  9.05412E+01
#           9.27442E+01  9.50007E+01  9.73122E+01  9.96799E+01  1.02105E+02
#           1.04589E+02  1.07134E+02  1.09741E+02  1.12411E+02  1.15146E+02
#           1.17948E+02  1.20817E+02  1.23757E+02  1.26768E+02  1.29852E+02
#           1.33012E+02  1.36248E+02  1.39563E+02  1.42959E+02  1.46437E+02
#           1.50000E+02
     unit =    2            # unit is [1/cm^2/(MeV/n)/source]
     axis =  eng            # axis of output
     file = detector-05.out  # file name of output for the above axis
   output = f-curr          # surface crossing forward current spectrum
     part =  neutron  
# kf/name :  2112     
#    used :        main (  %)        temp (  %)       total (  %)
#  memory :         414 (  0)           0 (  0)         414 (  0)

#------------------------------------------------------------------------------
#newpage:
#   no. =    1   reg = 104 - 204

x: Energy [MeV/n]
y:  F-Curr [1/cm^2/(MeV/n)/source]         
p: xlog ylog afac(0.8) form(0.9)
h: n            x            y(neutron ),hh0l   n 
#  e-lower      e-upper      neutron     r.err 
   1.0000E-02   1.0243E-02   3.0948E-03  0.0364
   1.0243E-02   1.0493E-02   2.9611E-03  0.0368
   1.0493E-02   1.0748E-02   2.6715E-03  0.0383
   1.0748E-02   1.1009E-02   2.9636E-03  0.0359
   1.1009E-02   1.1277E-02   2.8186E-03  0.0364
   1.1277E-02   1.1552E-02   2.7407E-03  0.0365
   1.1552E-02   1.1833E-02   2.8215E-03  0.0355
   1.1833E-02   1.2121E-02   2.7753E-03  0.0354
   1.2121E-02   1.2415E-02   2.7467E-03  0.0351
   1.2415E-02   1.2718E-02   2.7327E-03  0.0348
   1.2718E-02   1.3027E-02   2.6759E-03  0.0348
   1.3027E-02   1.3344E-02   2.7480E-03  0.0339
   1.3344E-02   1.3669E-02   2.6227E-03  0.0343
   1.3669E-02   1.4001E-02   2.8085E-03  0.0327
   1.4001E-02   1.4342E-02   2.7241E-03  0.0328
   1.4342E-02   1.4691E-02   2.6838E-03  0.0327
   1.4691E-02   1.5048E-02   2.6242E-03  0.0327
   1.5048E-02   1.5414E-02   2.6848E-03  0.0319
   1.5414E-02   1.5789E-02   2.5570E-03  0.0323
   1.5789E-02   1.6174E-02   2.6694E-03  0.0312
   1.6174E-02   1.6567E-02   2.6822E-03  0.0308
   1.6567E-02   1.6970E-02   2.6694E-03  0.0305
   1.6970E-02   1.7383E-02   2.6629E-03  0.0302
   1.7383E-02   1.7806E-02   2.6859E-03  0.0297
   1.7806E-02   1.8239E-02   2.6060E-03  0.0298
   1.8239E-02   1.8683E-02   2.4382E-03  0.0304
   1.8683E-02   1.9138E-02   2.6003E-03  0.0291
   1.9138E-02   1.9603E-02   2.4869E-03  0.0294
   1.9603E-02   2.0080E-02   2.4509E-03  0.0292
   2.0080E-02   2.0569E-02   2.4296E-03  0.0290
   2.0569E-02   2.1069E-02   2.5657E-03  0.0279
   2.1069E-02   2.1582E-02   2.3896E-03  0.0286
   2.1582E-02   2.2107E-02   2.4633E-03  0.0278
   2.2107E-02   2.2645E-02   2.3983E-03  0.0278
   2.2645E-02   2.3196E-02   2.4139E-03  0.0274
   2.3196E-02   2.3760E-02   2.4558E-03  0.0269
   2.3760E-02   2.4338E-02   2.3456E-03  0.0272
   2.4338E-02   2.4930E-02   2.2772E-03  0.0272
   2.4930E-02   2.5537E-02   2.3509E-03  0.0265
   2.5537E-02   2.6158E-02   2.3176E-03  0.0264
   2.6158E-02   2.6795E-02   2.3678E-03  0.0258
   2.6795E-02   2.7447E-02   2.2962E-03  0.0258
   2.7447E-02   2.8114E-02   2.2881E-03  0.0256
   2.8114E-02   2.8799E-02   2.3215E-03  0.0251
   2.8799E-02   2.9499E-02   2.2820E-03  0.0250
   2.9499E-02   3.0217E-02   2.1972E-03  0.0252
   3.0217E-02   3.0952E-02   2.2259E-03  0.0247
   3.0952E-02   3.1705E-02   2.2414E-03  0.0243
   3.1705E-02   3.2477E-02   2.1655E-03  0.0245
   3.2477E-02   3.3267E-02   2.1704E-03  0.0241
   3.3267E-02   3.4076E-02   2.2597E-03  0.0234
   3.4076E-02   3.4905E-02   2.0975E-03  0.0240
   3.4905E-02   3.5755E-02   2.1195E-03  0.0236
   3.5755E-02   3.6625E-02   2.1312E-03  0.0232
   3.6625E-02   3.7516E-02   2.0693E-03  0.0233
   3.7516E-02   3.8428E-02   2.0706E-03  0.0230
   3.8428E-02   3.9363E-02   2.0754E-03  0.0227
   3.9363E-02   4.0321E-02   2.0762E-03  0.0224
   4.0321E-02   4.1302E-02   2.0967E-03  0.0220
   4.1302E-02   4.2307E-02   1.9798E-03  0.0224
   4.2307E-02   4.3337E-02   2.0683E-03  0.0217
   4.3337E-02   4.4391E-02   2.0362E-03  0.0216
   4.4391E-02   4.5471E-02   2.0476E-03  0.0213
   4.5471E-02   4.6577E-02   2.0039E-03  0.0212
   4.6577E-02   4.7711E-02   2.0278E-03  0.0209
   4.7711E-02   4.8871E-02   1.9848E-03  0.0208
   4.8871E-02   5.0061E-02   1.9385E-03  0.0208
   5.0061E-02   5.1279E-02   1.8793E-03  0.0209
   5.1279E-02   5.2526E-02   1.9765E-03  0.0201
   5.2526E-02   5.3804E-02   1.8674E-03  0.0205
   5.3804E-02   5.5113E-02   1.8639E-03  0.0202
   5.5113E-02   5.6454E-02   1.8830E-03  0.0199
   5.6454E-02   5.7828E-02   1.9213E-03  0.0195
   5.7828E-02   5.9235E-02   1.8699E-03  0.0195
   5.9235E-02   6.0676E-02   1.8304E-03  0.0195
   6.0676E-02   6.2152E-02   1.8323E-03  0.0192
   6.2152E-02   6.3665E-02   1.7921E-03  0.0192
   6.3665E-02   6.5214E-02   1.7760E-03  0.0191
   6.5214E-02   6.6800E-02   1.8182E-03  0.0186
   6.6800E-02   6.8426E-02   1.7658E-03  0.0187
   6.8426E-02   7.0090E-02   1.7371E-03  0.0186
   7.0090E-02   7.1796E-02   1.7334E-03  0.0184
   7.1796E-02   7.3543E-02   1.6664E-03  0.0185
   7.3543E-02   7.5332E-02   1.7101E-03  0.0181
   7.5332E-02   7.7165E-02   1.7181E-03  0.0178
   7.7165E-02   7.9042E-02   1.6527E-03  0.0180
   7.9042E-02   8.0965E-02   1.6592E-03  0.0177
   8.0965E-02   8.2935E-02   1.6437E-03  0.0176
   8.2935E-02   8.4953E-02   1.6830E-03  0.0172
   8.4953E-02   8.7020E-02   1.6652E-03  0.0170
   8.7020E-02   8.9138E-02   1.5761E-03  0.0173
   8.9138E-02   9.1306E-02   1.6251E-03  0.0168
   9.1306E-02   9.3528E-02   1.5876E-03  0.0168
   9.3528E-02   9.5804E-02   1.5945E-03  0.0166
   9.5804E-02   9.8134E-02   1.5991E-03  0.0164
   9.8134E-02   1.0052E-01   1.5538E-03  0.0164
   1.0052E-01   1.0297E-01   1.5292E-03  0.0164
   1.0297E-01   1.0547E-01   1.4689E-03  0.0165
   1.0547E-01   1.0804E-01   1.5176E-03  0.0160
   1.0804E-01   1.1067E-01   1.4966E-03  0.0159
   1.1067E-01   1.1336E-01   1.4699E-03  0.0159
   1.1336E-01   1.1612E-01   1.4669E-03  0.0157
   1.1612E-01   1.1894E-01   1.4868E-03  0.0154
   1.1894E-01   1.2184E-01   1.4243E-03  0.0156
   1.2184E-01   1.2480E-01   1.4308E-03  0.0154
   1.2480E-01   1.2784E-01   1.3769E-03  0.0155
   1.2784E-01   1.3095E-01   1.3906E-03  0.0152
   1.3095E-01   1.3414E-01   1.3857E-03  0.0151
   1.3414E-01   1.3740E-01   1.3666E-03  0.0150
   1.3740E-01   1.4074E-01   1.3434E-03  0.0149
   1.4074E-01   1.4417E-01   1.3505E-03  0.0147
   1.4417E-01   1.4767E-01   1.3788E-03  0.0144
   1.4767E-01   1.5127E-01   1.2880E-03  0.0147
   1.5127E-01   1.5495E-01   1.3197E-03  0.0143
   1.5495E-01   1.5872E-01   1.2931E-03  0.0143
   1.5872E-01   1.6258E-01   1.2654E-03  0.0143
   1.6258E-01   1.6654E-01   1.2524E-03  0.0142
   1.6654E-01   1.7059E-01   1.2457E-03  0.0141
   1.7059E-01   1.7474E-01   1.2349E-03  0.0140
   1.7474E-01   1.7899E-01   1.2245E-03  0.0139
   1.7899E-01   1.8334E-01   1.2193E-03  0.0137
   1.8334E-01   1.8781E-01   1.1834E-03  0.0138
   1.8781E-01   1.9237E-01   1.1721E-03  0.0137
   1.9237E-01   1.9706E-01   1.1622E-03  0.0136
   1.9706E-01   2.0185E-01   1.1595E-03  0.0134
   2.0185E-01   2.0676E-01   1.1836E-03  0.0131
   2.0676E-01   2.1179E-01   1.1381E-03  0.0132
   2.1179E-01   2.1694E-01   1.1077E-03  0.0132
   2.1694E-01   2.2222E-01   1.1087E-03  0.0131
   2.2222E-01   2.2763E-01   1.1188E-03  0.0129
   2.2763E-01   2.3317E-01   1.0915E-03  0.0129
   2.3317E-01   2.3884E-01   1.1152E-03  0.0126
   2.3884E-01   2.4465E-01   1.0724E-03  0.0127
   2.4465E-01   2.5061E-01   1.0589E-03  0.0126
   2.5061E-01   2.5670E-01   1.0421E-03  0.0125
   2.5670E-01   2.6295E-01   1.0191E-03  0.0125
   2.6295E-01   2.6935E-01   9.8160E-04  0.0126
   2.6935E-01   2.7590E-01   9.9612E-04  0.0124
   2.7590E-01   2.8261E-01   1.0065E-03  0.0122
   2.8261E-01   2.8949E-01   9.3286E-04  0.0125
   2.8949E-01   2.9653E-01   9.4229E-04  0.0123
   2.9653E-01   3.0375E-01   9.3349E-04  0.0122
   3.0375E-01   3.1114E-01   9.1037E-04  0.0122
   3.1114E-01   3.1871E-01   9.2243E-04  0.0120
   3.1871E-01   3.2646E-01   9.2102E-04  0.0118
   3.2646E-01   3.3441E-01   8.8964E-04  0.0119
   3.3441E-01   3.4254E-01   8.8332E-04  0.0118
   3.4254E-01   3.5088E-01   8.6402E-04  0.0118
   3.5088E-01   3.5941E-01   8.6066E-04  0.0117
   3.5941E-01   3.6816E-01   8.4593E-04  0.0116
   3.6816E-01   3.7712E-01   8.2377E-04  0.0116
   3.7712E-01   3.8629E-01   8.2584E-04  0.0115
   3.8629E-01   3.9569E-01   8.0649E-04  0.0115
   3.9569E-01   4.0532E-01   7.7923E-04  0.0115
   4.0532E-01   4.1518E-01   7.6316E-04  0.0115
   4.1518E-01   4.2528E-01   7.5503E-04  0.0115
   4.2528E-01   4.3563E-01   7.7155E-04  0.0112
   4.3563E-01   4.4623E-01   7.3492E-04  0.0113
   4.4623E-01   4.5708E-01   7.1410E-04  0.0114
   4.5708E-01   4.6821E-01   7.1026E-04  0.0113
   4.6821E-01   4.7960E-01   7.0652E-04  0.0111
   4.7960E-01   4.9127E-01   6.7525E-04  0.0113
   4.9127E-01   5.0322E-01   6.7808E-04  0.0111
   5.0322E-01   5.1546E-01   6.4964E-04  0.0112
   5.1546E-01   5.2800E-01   6.5972E-04  0.0110
   5.2800E-01   5.4085E-01   6.2378E-04  0.0112
   5.4085E-01   5.5401E-01   6.1610E-04  0.0111
   5.5401E-01   5.6749E-01   5.9227E-04  0.0112
   5.6749E-01   5.8130E-01   5.8707E-04  0.0111
   5.8130E-01   5.9544E-01   5.7825E-04  0.0111
   5.9544E-01   6.0993E-01   5.6090E-04  0.0111
   6.0993E-01   6.2477E-01   5.3945E-04  0.0112
   6.2477E-01   6.3997E-01   5.4996E-04  0.0109
   6.3997E-01   6.5554E-01   5.2476E-04  0.0111
   6.5554E-01   6.7149E-01   5.1515E-04  0.0110
   6.7149E-01   6.8783E-01   5.1102E-04  0.0109
   6.8783E-01   7.0456E-01   4.8305E-04  0.0111
   7.0456E-01   7.2171E-01   4.8467E-04  0.0110
   7.2171E-01   7.3927E-01   4.6758E-04  0.0110
   7.3927E-01   7.5725E-01   4.5205E-04  0.0111
   7.5725E-01   7.7568E-01   4.3754E-04  0.0111
   7.7568E-01   7.9455E-01   4.3676E-04  0.0110
   7.9455E-01   8.1388E-01   4.1698E-04  0.0111
   8.1388E-01   8.3368E-01   3.9344E-04  0.0113
   8.3368E-01   8.5397E-01   3.8932E-04  0.0113
   8.5397E-01   8.7475E-01   3.7867E-04  0.0113
   8.7475E-01   8.9603E-01   3.6230E-04  0.0114
   8.9603E-01   9.1783E-01   3.5778E-04  0.0113
   9.1783E-01   9.4016E-01   3.3415E-04  0.0116
   9.4016E-01   9.6304E-01   3.3025E-04  0.0115
   9.6304E-01   9.8647E-01   3.1684E-04  0.0116
   9.8647E-01   1.0105E+00   3.0321E-04  0.0117
   1.0105E+00   1.0351E+00   3.1238E-04  0.0114
   1.0351E+00   1.0602E+00   3.0436E-04  0.0114
   1.0602E+00   1.0860E+00   3.1768E-04  0.0110
   1.0860E+00   1.1125E+00   3.2031E-04  0.0109
   1.1125E+00   1.1395E+00   3.2240E-04  0.0107
   1.1395E+00   1.1673E+00   3.3110E-04  0.0104
   1.1673E+00   1.1957E+00   3.3609E-04  0.0102
   1.1957E+00   1.2247E+00   3.4746E-04  0.0099
   1.2247E+00   1.2545E+00   3.5273E-04  0.0098
   1.2545E+00   1.2851E+00   3.4909E-04  0.0097
   1.2851E+00   1.3163E+00   3.4980E-04  0.0096
   1.3163E+00   1.3484E+00   3.6786E-04  0.0092
   1.3484E+00   1.3812E+00   3.6857E-04  0.0091
   1.3812E+00   1.4148E+00   3.6858E-04  0.0090
   1.4148E+00   1.4492E+00   3.7515E-04  0.0088
   1.4492E+00   1.4845E+00   3.6829E-04  0.0088
   1.4845E+00   1.5206E+00   3.6345E-04  0.0087
   1.5206E+00   1.5576E+00   3.6537E-04  0.0086
   1.5576E+00   1.5955E+00   3.7301E-04  0.0084
   1.5955E+00   1.6343E+00   3.7382E-04  0.0083
   1.6343E+00   1.6741E+00   3.7360E-04  0.0082
   1.6741E+00   1.7148E+00   3.7879E-04  0.0081
   1.7148E+00   1.7565E+00   3.7521E-04  0.0080
   1.7565E+00   1.7992E+00   3.7593E-04  0.0079
   1.7992E+00   1.8430E+00   3.6786E-04  0.0079
   1.8430E+00   1.8879E+00   3.6640E-04  0.0078
   1.8879E+00   1.9338E+00   3.6621E-04  0.0077
   1.9338E+00   1.9808E+00   3.6518E-04  0.0076
   1.9808E+00   2.0290E+00   3.6238E-04  0.0076
   2.0290E+00   2.0784E+00   3.5820E-04  0.0075
   2.0784E+00   2.1290E+00   3.5096E-04  0.0075
   2.1290E+00   2.1808E+00   3.4544E-04  0.0075
   2.1808E+00   2.2338E+00   3.3620E-04  0.0075
   2.2338E+00   2.2882E+00   3.3089E-04  0.0075
   2.2882E+00   2.3439E+00   3.3374E-04  0.0073
   2.3439E+00   2.4009E+00   3.2316E-04  0.0074
   2.4009E+00   2.4593E+00   3.2752E-04  0.0072
   2.4593E+00   2.5191E+00   3.1616E-04  0.0073
   2.5191E+00   2.5804E+00   3.0349E-04  0.0073
   2.5804E+00   2.6432E+00   2.9555E-04  0.0073
   2.6432E+00   2.7075E+00   2.9191E-04  0.0073
   2.7075E+00   2.7734E+00   2.8152E-04  0.0073
   2.7734E+00   2.8409E+00   2.7696E-04  0.0073
   2.8409E+00   2.9100E+00   2.7155E-04  0.0073
   2.9100E+00   2.9808E+00   2.5983E-04  0.0074
   2.9808E+00   3.0533E+00   2.5929E-04  0.0073
   3.0533E+00   3.1276E+00   2.4873E-04  0.0074
   3.1276E+00   3.2037E+00   2.4099E-04  0.0074
   3.2037E+00   3.2817E+00   2.3079E-04  0.0075
   3.2817E+00   3.3615E+00   2.2500E-04  0.0075
   3.3615E+00   3.4433E+00   2.1739E-04  0.0075
   3.4433E+00   3.5271E+00   2.1464E-04  0.0075
   3.5271E+00   3.6129E+00   2.0201E-04  0.0076
   3.6129E+00   3.7008E+00   1.9732E-04  0.0076
   3.7008E+00   3.7908E+00   1.8884E-04  0.0077
   3.7908E+00   3.8831E+00   1.8407E-04  0.0077
   3.8831E+00   3.9776E+00   1.7974E-04  0.0077
   3.9776E+00   4.0743E+00   1.7361E-04  0.0077
   4.0743E+00   4.1735E+00   1.6691E-04  0.0078
   4.1735E+00   4.2750E+00   1.6094E-04  0.0078
   4.2750E+00   4.3790E+00   1.5451E-04  0.0079
   4.3790E+00   4.4856E+00   1.5006E-04  0.0079
   4.4856E+00   4.5947E+00   1.4433E-04  0.0080
   4.5947E+00   4.7065E+00   1.3950E-04  0.0080
   4.7065E+00   4.8210E+00   1.3429E-04  0.0081
   4.8210E+00   4.9383E+00   1.2988E-04  0.0081
   4.9383E+00   5.0585E+00   1.2795E-04  0.0081
   5.0585E+00   5.1815E+00   1.2370E-04  0.0081
   5.1815E+00   5.3076E+00   1.1941E-04  0.0081
   5.3076E+00   5.4368E+00   1.1530E-04  0.0082
   5.4368E+00   5.5690E+00   1.1184E-04  0.0082
   5.5690E+00   5.7045E+00   1.0851E-04  0.0082
   5.7045E+00   5.8433E+00   1.0603E-04  0.0082
   5.8433E+00   5.9855E+00   1.0285E-04  0.0083
   5.9855E+00   6.1311E+00   1.0218E-04  0.0082
   6.1311E+00   6.2803E+00   9.8629E-05  0.0082
   6.2803E+00   6.4331E+00   9.7654E-05  0.0082
   6.4331E+00   6.5896E+00   9.3804E-05  0.0083
   6.5896E+00   6.7500E+00   9.3500E-05  0.0082
   6.7500E+00   6.9142E+00   9.1039E-05  0.0082
   6.9142E+00   7.0824E+00   9.1108E-05  0.0081
   7.0824E+00   7.2548E+00   8.8857E-05  0.0081
   7.2548E+00   7.4313E+00   8.7208E-05  0.0081
   7.4313E+00   7.6121E+00   8.6556E-05  0.0080
   7.6121E+00   7.7973E+00   8.4956E-05  0.0080
   7.7973E+00   7.9870E+00   8.3752E-05  0.0079
   7.9870E+00   8.1813E+00   8.3981E-05  0.0078
   8.1813E+00   8.3804E+00   8.2323E-05  0.0078
   8.3804E+00   8.5843E+00   8.3913E-05  0.0076
   8.5843E+00   8.7931E+00   8.3572E-05  0.0076
   8.7931E+00   9.0071E+00   8.2033E-05  0.0075
   9.0071E+00   9.2262E+00   8.2581E-05  0.0074
   9.2262E+00   9.4507E+00   8.3172E-05  0.0073
   9.4507E+00   9.6807E+00   8.4462E-05  0.0072
   9.6807E+00   9.9162E+00   8.4199E-05  0.0071
   9.9162E+00   1.0157E+01   8.5771E-05  0.0070
   1.0157E+01   1.0405E+01   8.4681E-05  0.0069
   1.0405E+01   1.0658E+01   8.7793E-05  0.0067
   1.0658E+01   1.0917E+01   8.8773E-05  0.0066
   1.0917E+01   1.1183E+01   9.0642E-05  0.0064
   1.1183E+01   1.1455E+01   8.9888E-05  0.0064
   1.1455E+01   1.1733E+01   9.3384E-05  0.0062
   1.1733E+01   1.2019E+01   9.5154E-05  0.0061
   1.2019E+01   1.2311E+01   9.7582E-05  0.0059
   1.2311E+01   1.2611E+01   9.9766E-05  0.0058
   1.2611E+01   1.2918E+01   1.0086E-04  0.0057
   1.2918E+01   1.3232E+01   1.0409E-04  0.0055
   1.3232E+01   1.3554E+01   1.0723E-04  0.0054
   1.3554E+01   1.3884E+01   1.0950E-04  0.0053
   1.3884E+01   1.4222E+01   1.1251E-04  0.0051
   1.4222E+01   1.4568E+01   1.1667E-04  0.0050
   1.4568E+01   1.4922E+01   1.2062E-04  0.0048
   1.4922E+01   1.5285E+01   1.2314E-04  0.0047
   1.5285E+01   1.5657E+01   1.2751E-04  0.0046
   1.5657E+01   1.6038E+01   1.3192E-04  0.0045
   1.6038E+01   1.6428E+01   1.3587E-04  0.0043
   1.6428E+01   1.6828E+01   1.4013E-04  0.0042
   1.6828E+01   1.7237E+01   1.4347E-04  0.0041
   1.7237E+01   1.7657E+01   1.4925E-04  0.0040
   1.7657E+01   1.8086E+01   1.5292E-04  0.0039
   1.8086E+01   1.8526E+01   1.5800E-04  0.0038
   1.8526E+01   1.8977E+01   1.6161E-04  0.0037
   1.8977E+01   1.9439E+01   1.6654E-04  0.0036
   1.9439E+01   1.9912E+01   1.7122E-04  0.0035
   1.9912E+01   2.0396E+01   1.7811E-04  0.0034
   2.0396E+01   2.0893E+01   1.8357E-04  0.0033
   2.0893E+01   2.1401E+01   1.9010E-04  0.0032
   2.1401E+01   2.1922E+01   1.9402E-04  0.0031
   2.1922E+01   2.2455E+01   1.9858E-04  0.0031
   2.2455E+01   2.3001E+01   2.0313E-04  0.0030
   2.3001E+01   2.3561E+01   2.0691E-04  0.0029
   2.3561E+01   2.4134E+01   2.1116E-04  0.0029
   2.4134E+01   2.4721E+01   2.1447E-04  0.0028
   2.4721E+01   2.5323E+01   2.2016E-04  0.0027
   2.5323E+01   2.5939E+01   2.2384E-04  0.0027
   2.5939E+01   2.6570E+01   2.2732E-04  0.0026
   2.6570E+01   2.7217E+01   2.3185E-04  0.0026
   2.7217E+01   2.7879E+01   2.3645E-04  0.0025
   2.7879E+01   2.8557E+01   2.3889E-04  0.0025
   2.8557E+01   2.9252E+01   2.4292E-04  0.0024
   2.9252E+01   2.9964E+01   2.4752E-04  0.0024
   2.9964E+01   3.0693E+01   2.4938E-04  0.0023
   3.0693E+01   3.1440E+01   2.5213E-04  0.0023
   3.1440E+01   3.2205E+01   2.5534E-04  0.0023
   3.2205E+01   3.2988E+01   2.5950E-04  0.0022
   3.2988E+01   3.3791E+01   2.6067E-04  0.0022
   3.3791E+01   3.4613E+01   2.6302E-04  0.0022
   3.4613E+01   3.5455E+01   2.6485E-04  0.0021
   3.5455E+01   3.6318E+01   2.6637E-04  0.0021
   3.6318E+01   3.7201E+01   2.6682E-04  0.0021
   3.7201E+01   3.8106E+01   2.6633E-04  0.0020
   3.8106E+01   3.9034E+01   2.6692E-04  0.0020
   3.9034E+01   3.9983E+01   2.6659E-04  0.0020
   3.9983E+01   4.0956E+01   2.6552E-04  0.0020
   4.0956E+01   4.1953E+01   2.6372E-04  0.0020
   4.1953E+01   4.2973E+01   2.5991E-04  0.0019
   4.2973E+01   4.4019E+01   2.5565E-04  0.0019
   4.4019E+01   4.5090E+01   2.5032E-04  0.0019
   4.5090E+01   4.6187E+01   2.4391E-04  0.0019
   4.6187E+01   4.7311E+01   2.3708E-04  0.0019
   4.7311E+01   4.8462E+01   2.2866E-04  0.0019
   4.8462E+01   4.9641E+01   2.1977E-04  0.0020
   4.9641E+01   5.0849E+01   2.0959E-04  0.0020
   5.0849E+01   5.2086E+01   1.9849E-04  0.0020
   5.2086E+01   5.3353E+01   1.8599E-04  0.0021
   5.3353E+01   5.4651E+01   1.7340E-04  0.0021
   5.4651E+01   5.5981E+01   1.6043E-04  0.0022
   5.5981E+01   5.7343E+01   1.4806E-04  0.0022
   5.7343E+01   5.8738E+01   1.3485E-04  0.0023
   5.8738E+01   6.0168E+01   1.2225E-04  0.0024
   6.0168E+01   6.1632E+01   1.1077E-04  0.0025
   6.1632E+01   6.3131E+01   9.8733E-05  0.0026
   6.3131E+01   6.4667E+01   8.8256E-05  0.0027
   6.4667E+01   6.6240E+01   7.8642E-05  0.0028
   6.6240E+01   6.7852E+01   6.9232E-05  0.0030
   6.7852E+01   6.9503E+01   6.1028E-05  0.0032
   6.9503E+01   7.1194E+01   5.4000E-05  0.0033
   7.1194E+01   7.2926E+01   4.7302E-05  0.0035
   7.2926E+01   7.4701E+01   4.1178E-05  0.0037
   7.4701E+01   7.6518E+01   3.5943E-05  0.0039
   7.6518E+01   7.8380E+01   3.1442E-05  0.0041
   7.8380E+01   8.0287E+01   2.7281E-05  0.0044
   8.0287E+01   8.2240E+01   2.3394E-05  0.0047
   8.2240E+01   8.4241E+01   2.0137E-05  0.0050
   8.4241E+01   8.6291E+01   1.7441E-05  0.0053
   8.6291E+01   8.8391E+01   1.5192E-05  0.0056
   8.8391E+01   9.0541E+01   1.2854E-05  0.0060
   9.0541E+01   9.2744E+01   1.0930E-05  0.0064
   9.2744E+01   9.5001E+01   9.4534E-06  0.0068
   9.5001E+01   9.7312E+01   8.0699E-06  0.0073
   9.7312E+01   9.9680E+01   6.6732E-06  0.0080
   9.9680E+01   1.0211E+02   5.6830E-06  0.0085
   1.0211E+02   1.0459E+02   4.6589E-06  0.0093
   1.0459E+02   1.0713E+02   3.6687E-06  0.0103
   1.0713E+02   1.0974E+02   2.7464E-06  0.0118
   1.0974E+02   1.1241E+02   2.0711E-06  0.0134
   1.1241E+02   1.1515E+02   1.1221E-06  0.0181
   1.1515E+02   1.1795E+02   3.3195E-07  0.0328
   1.1795E+02   1.2082E+02   0.0000E+00  0.0000
   1.2082E+02   1.2376E+02   0.0000E+00  0.0000
   1.2376E+02   1.2677E+02   0.0000E+00  0.0000
   1.2677E+02   1.2985E+02   0.0000E+00  0.0000
   1.2985E+02   1.3301E+02   0.0000E+00  0.0000
   1.3301E+02   1.3625E+02   0.0000E+00  0.0000
   1.3625E+02   1.3956E+02   0.0000E+00  0.0000
   1.3956E+02   1.4296E+02   0.0000E+00  0.0000
   1.4296E+02   1.4644E+02   0.0000E+00  0.0000
   1.4644E+02   1.5000E+02   0.0000E+00  0.0000

#   sum over                 9.3119E-05
'no. =    1   reg = 104 - 204'
msuc: {\huge [t-cross] in region mesh}
msdr: {\it plotted by \ANGEL \version}
msdl: {\it calculated by \PHITS  3.26}
wt: s(0.7)
\vspace{-3}
  region surface crossing
  area  &=&   1.0000E+00 [cm^2]
e:
 
# Information for Restart Calculation
# This calculation was newly started
# istdev =  2 # 1:Batch variance, 2:History variance
# resc2  = 1.00000000000000000E+09 # Total source weight or Total source weight / maxcas
# resc3  = 1.00000000000000000E+09 # Total history number or Total batch number
# maxcas =   500000000 # History / Batch, only used for istdev=1
# bitrseed = 0001001110011001001001110000100100110111001111011100001000101100 # bit data of rseed
