[ T-Cross ]
    title = [t-cross] in region mesh
     mesh =  reg            # mesh type is region-wise
      reg =    1            # number of crossing regions
      non     r-from    r-to       area
      1       100       200        1.000000    
   e-type =    3            # e-mesh is log given by emin, emax and ne
     emin =  1.0000000E-02  # minimum value of e-mesh points
     emax =   150.0000      # maximum value of e-mesh points
#    edel =  2.4039514E-02  # mesh width of e-mesh points
       ne =    400          # number of e-mesh points
#    data = ( e(i), i = 1, ne + 1 )
#           1.00000E-02  1.02433E-02  1.04925E-02  1.07478E-02  1.10093E-02
#           1.12772E-02  1.15516E-02  1.18326E-02  1.21205E-02  1.24154E-02
#           1.27175E-02  1.30269E-02  1.33439E-02  1.36686E-02  1.40011E-02
#           1.43418E-02  1.46907E-02  1.50482E-02  1.54143E-02  1.57894E-02
#           1.61735E-02  1.65670E-02  1.69701E-02  1.73830E-02  1.78060E-02
#           1.82392E-02  1.86830E-02  1.91375E-02  1.96032E-02  2.00801E-02
#           2.05687E-02  2.10692E-02  2.15818E-02  2.21069E-02  2.26448E-02
#           2.31957E-02  2.37601E-02  2.43382E-02  2.49304E-02  2.55369E-02
#           2.61583E-02  2.67947E-02  2.74467E-02  2.81145E-02  2.87985E-02
#           2.94992E-02  3.02169E-02  3.09521E-02  3.17052E-02  3.24766E-02
#           3.32668E-02  3.40762E-02  3.49053E-02  3.57546E-02  3.66246E-02
#           3.75157E-02  3.84284E-02  3.93634E-02  4.03212E-02  4.13022E-02
#           4.23071E-02  4.33365E-02  4.43909E-02  4.54710E-02  4.65773E-02
#           4.77106E-02  4.88714E-02  5.00605E-02  5.12785E-02  5.25262E-02
#           5.38042E-02  5.51133E-02  5.64542E-02  5.78278E-02  5.92348E-02
#           6.06760E-02  6.21523E-02  6.36645E-02  6.52135E-02  6.68002E-02
#           6.84255E-02  7.00904E-02  7.17957E-02  7.35426E-02  7.53319E-02
#           7.71648E-02  7.90423E-02  8.09655E-02  8.29354E-02  8.49533E-02
#           8.70203E-02  8.91376E-02  9.13064E-02  9.35279E-02  9.58035E-02
#           9.81345E-02  1.00522E-01  1.02968E-01  1.05473E-01  1.08040E-01
#           1.10668E-01  1.13361E-01  1.16119E-01  1.18944E-01  1.21838E-01
#           1.24803E-01  1.27839E-01  1.30950E-01  1.34136E-01  1.37399E-01
#           1.40742E-01  1.44167E-01  1.47675E-01  1.51268E-01  1.54948E-01
#           1.58718E-01  1.62580E-01  1.66535E-01  1.70587E-01  1.74738E-01
#           1.78989E-01  1.83344E-01  1.87805E-01  1.92375E-01  1.97055E-01
#           2.01850E-01  2.06761E-01  2.11792E-01  2.16945E-01  2.22223E-01
#           2.27630E-01  2.33169E-01  2.38842E-01  2.44653E-01  2.50605E-01
#           2.56703E-01  2.62949E-01  2.69346E-01  2.75900E-01  2.82613E-01
#           2.89489E-01  2.96532E-01  3.03747E-01  3.11138E-01  3.18708E-01
#           3.26462E-01  3.34405E-01  3.42542E-01  3.50876E-01  3.59413E-01
#           3.68158E-01  3.77116E-01  3.86291E-01  3.95690E-01  4.05317E-01
#           4.15179E-01  4.25281E-01  4.35628E-01  4.46227E-01  4.57084E-01
#           4.68205E-01  4.79597E-01  4.91266E-01  5.03219E-01  5.15463E-01
#           5.28005E-01  5.40851E-01  5.54011E-01  5.67490E-01  5.81298E-01
#           5.95441E-01  6.09929E-01  6.24769E-01  6.39970E-01  6.55541E-01
#           6.71491E-01  6.87828E-01  7.04564E-01  7.21706E-01  7.39266E-01
#           7.57253E-01  7.75678E-01  7.94551E-01  8.13883E-01  8.33685E-01
#           8.53969E-01  8.74747E-01  8.96030E-01  9.17831E-01  9.40163E-01
#           9.63038E-01  9.86469E-01  1.01047E+00  1.03506E+00  1.06024E+00
#           1.08604E+00  1.11246E+00  1.13953E+00  1.16725E+00  1.19565E+00
#           1.22474E+00  1.25454E+00  1.28507E+00  1.31633E+00  1.34836E+00
#           1.38117E+00  1.41477E+00  1.44920E+00  1.48446E+00  1.52057E+00
#           1.55757E+00  1.59547E+00  1.63429E+00  1.67405E+00  1.71478E+00
#           1.75650E+00  1.79924E+00  1.84302E+00  1.88786E+00  1.93379E+00
#           1.98084E+00  2.02904E+00  2.07841E+00  2.12898E+00  2.18078E+00
#           2.23384E+00  2.28819E+00  2.34386E+00  2.40089E+00  2.45930E+00
#           2.51914E+00  2.58043E+00  2.64322E+00  2.70753E+00  2.77341E+00
#           2.84088E+00  2.91001E+00  2.98081E+00  3.05333E+00  3.12762E+00
#           3.20372E+00  3.28167E+00  3.36152E+00  3.44330E+00  3.52708E+00
#           3.61290E+00  3.70080E+00  3.79085E+00  3.88308E+00  3.97756E+00
#           4.07434E+00  4.17347E+00  4.27501E+00  4.37903E+00  4.48557E+00
#           4.59471E+00  4.70650E+00  4.82102E+00  4.93832E+00  5.05847E+00
#           5.18155E+00  5.30762E+00  5.43676E+00  5.56904E+00  5.70453E+00
#           5.84333E+00  5.98550E+00  6.13114E+00  6.28031E+00  6.43312E+00
#           6.58964E+00  6.74997E+00  6.91420E+00  7.08243E+00  7.25475E+00
#           7.43126E+00  7.61207E+00  7.79728E+00  7.98700E+00  8.18133E+00
#           8.38038E+00  8.58428E+00  8.79315E+00  9.00709E+00  9.22624E+00
#           9.45072E+00  9.68067E+00  9.91620E+00  1.01575E+01  1.04046E+01
#           1.06578E+01  1.09171E+01  1.11827E+01  1.14548E+01  1.17335E+01
#           1.20190E+01  1.23114E+01  1.26109E+01  1.29178E+01  1.32321E+01
#           1.35540E+01  1.38838E+01  1.42216E+01  1.45676E+01  1.49221E+01
#           1.52851E+01  1.56570E+01  1.60380E+01  1.64282E+01  1.68279E+01
#           1.72374E+01  1.76568E+01  1.80864E+01  1.85264E+01  1.89772E+01
#           1.94389E+01  1.99119E+01  2.03963E+01  2.08926E+01  2.14009E+01
#           2.19216E+01  2.24550E+01  2.30014E+01  2.35610E+01  2.41343E+01
#           2.47215E+01  2.53230E+01  2.59391E+01  2.65702E+01  2.72167E+01
#           2.78789E+01  2.85572E+01  2.92520E+01  2.99637E+01  3.06928E+01
#           3.14396E+01  3.22045E+01  3.29881E+01  3.37907E+01  3.46128E+01
#           3.54550E+01  3.63177E+01  3.72013E+01  3.81064E+01  3.90336E+01
#           3.99833E+01  4.09561E+01  4.19526E+01  4.29734E+01  4.40189E+01
#           4.50900E+01  4.61870E+01  4.73108E+01  4.84619E+01  4.96410E+01
#           5.08488E+01  5.20860E+01  5.33533E+01  5.46514E+01  5.59812E+01
#           5.73432E+01  5.87384E+01  6.01676E+01  6.16315E+01  6.31311E+01
#           6.46671E+01  6.62405E+01  6.78522E+01  6.95031E+01  7.11941E+01
#           7.29263E+01  7.47007E+01  7.65182E+01  7.83800E+01  8.02870E+01
#           8.22405E+01  8.42414E+01  8.62911E+01  8.83906E+01  9.05412E+01
#           9.27442E+01  9.50007E+01  9.73122E+01  9.96799E+01  1.02105E+02
#           1.04589E+02  1.07134E+02  1.09741E+02  1.12411E+02  1.15146E+02
#           1.17948E+02  1.20817E+02  1.23757E+02  1.26768E+02  1.29852E+02
#           1.33012E+02  1.36248E+02  1.39563E+02  1.42959E+02  1.46437E+02
#           1.50000E+02
     unit =    2            # unit is [1/cm^2/(MeV/n)/source]
     axis =  eng            # axis of output
     file = detector-01.out  # file name of output for the above axis
   output = f-curr          # surface crossing forward current spectrum
     part =  neutron  
# kf/name :  2112     
#    used :        main (  %)        temp (  %)       total (  %)
#  memory :         414 (  0)           0 (  0)         414 (  0)

#------------------------------------------------------------------------------
#newpage:
#   no. =    1   reg = 100 - 200

x: Energy [MeV/n]
y:  F-Curr [1/cm^2/(MeV/n)/source]         
p: xlog ylog afac(0.8) form(0.9)
h: n            x            y(neutron ),hh0l   n 
#  e-lower      e-upper      neutron     r.err 
   1.0000E-02   1.0243E-02   2.9663E-05  0.1715
   1.0243E-02   1.0493E-02   4.0823E-05  0.1444
   1.0493E-02   1.0748E-02   3.0871E-05  0.1639
   1.0748E-02   1.1009E-02   2.7041E-05  0.1722
   1.1009E-02   1.1277E-02   3.3560E-05  0.1531
   1.1277E-02   1.1552E-02   2.5699E-05  0.1732
   1.1552E-02   1.1833E-02   3.5506E-05  0.1459
   1.1833E-02   1.2121E-02   3.5356E-05  0.1438
   1.2121E-02   1.2415E-02   2.7342E-05  0.1622
   1.2415E-02   1.2718E-02   2.5012E-05  0.1668
   1.2718E-02   1.3027E-02   2.7305E-05  0.1582
   1.3027E-02   1.3344E-02   2.8772E-05  0.1525
   1.3344E-02   1.3669E-02   1.4899E-05  0.2086
   1.3669E-02   1.4001E-02   1.5945E-05  0.2000
   1.4001E-02   1.4342E-02   1.7349E-05  0.1891
   1.4342E-02   1.4691E-02   2.3094E-05  0.1622
   1.4691E-02   1.5048E-02   2.4352E-05  0.1562
   1.5048E-02   1.5414E-02   1.9608E-05  0.1716
   1.5414E-02   1.5789E-02   1.8574E-05  0.1742
   1.5789E-02   1.6174E-02   1.5969E-05  0.1857
   1.6174E-02   1.6567E-02   2.2181E-05  0.1551
   1.6567E-02   1.6970E-02   2.1468E-05  0.1563
   1.6970E-02   1.7383E-02   2.1581E-05  0.1543
   1.7383E-02   1.7806E-02   1.9929E-05  0.1583
   1.7806E-02   1.8239E-02   1.6298E-05  0.1721
   1.8239E-02   1.8683E-02   1.3298E-05  0.1890
   1.8683E-02   1.9138E-02   1.7196E-05  0.1645
   1.9138E-02   1.9603E-02   1.7674E-05  0.1602
   1.9603E-02   2.0080E-02   1.8147E-05  0.1562
   2.0080E-02   2.0569E-02   1.5911E-05  0.1646
   2.0569E-02   2.1069E-02   1.9184E-05  0.1480
   2.1069E-02   2.1582E-02   1.3661E-05  0.1741
   2.1582E-02   2.2107E-02   1.5293E-05  0.1623
   2.2107E-02   2.2645E-02   1.5384E-05  0.1601
   2.2645E-02   2.3196E-02   1.6569E-05  0.1525
   2.3196E-02   2.3760E-02   1.1660E-05  0.1796
   2.3760E-02   2.4338E-02   1.2483E-05  0.1715
   2.4338E-02   2.4930E-02   1.1312E-05  0.1770
   2.4930E-02   2.5537E-02   9.8925E-06  0.1874
   2.5537E-02   2.6158E-02   1.2253E-05  0.1667
   2.6158E-02   2.6795E-02   1.2625E-05  0.1622
   2.6795E-02   2.7447E-02   1.4910E-05  0.1475
   2.7447E-02   2.8114E-02   1.1744E-05  0.1644
   2.8114E-02   2.8799E-02   1.0869E-05  0.1690
   2.8799E-02   2.9499E-02   9.3257E-06  0.1797
   2.9499E-02   3.0217E-02   1.0062E-05  0.1715
   3.0217E-02   3.0952E-02   1.0369E-05  0.1667
   3.0952E-02   3.1705E-02   1.0095E-05  0.1668
   3.1705E-02   3.2477E-02   9.3069E-06  0.1716
   3.2477E-02   3.3267E-02   9.2834E-06  0.1692
   3.3267E-02   3.4076E-02   1.1125E-05  0.1529
   3.4076E-02   3.4905E-02   1.2742E-05  0.1415
   3.4905E-02   3.5755E-02   9.7372E-06  0.1601
   3.5755E-02   3.6625E-02   1.0956E-05  0.1491
   3.6625E-02   3.7516E-02   1.0197E-05  0.1526
   3.7516E-02   3.8428E-02   1.1824E-05  0.1400
   3.8428E-02   3.9363E-02   8.9340E-06  0.1583
   3.9363E-02   4.0321E-02   6.8651E-06  0.1796
   4.0321E-02   4.1302E-02   9.6392E-06  0.1492
   4.1302E-02   4.2307E-02   6.7531E-06  0.1768
   4.2307E-02   4.3337E-02   8.5828E-06  0.1544
   4.3337E-02   4.4391E-02   9.5152E-06  0.1451
   4.4391E-02   4.5471E-02   7.8145E-06  0.1582
   4.5471E-02   4.6577E-02   8.8257E-06  0.1474
   4.6577E-02   4.7711E-02   1.0103E-05  0.1361
   4.7711E-02   4.8871E-02   8.1774E-06  0.1492
   4.8871E-02   5.0061E-02   8.5106E-06  0.1445
   5.0061E-02   5.1279E-02   5.8847E-06  0.1716
   5.1279E-02   5.2526E-02   6.9262E-06  0.1563
   5.2526E-02   5.3804E-02   4.9131E-06  0.1828
   5.3804E-02   5.5113E-02   6.7760E-06  0.1544
   5.5113E-02   5.6454E-02   8.5129E-06  0.1361
   5.6454E-02   5.7828E-02   7.1906E-06  0.1460
   5.7828E-02   5.9235E-02   7.6092E-06  0.1405
   5.9235E-02   6.0676E-02   6.4539E-06  0.1508
   6.0676E-02   6.2152E-02   7.1918E-06  0.1414
   6.2152E-02   6.3665E-02   5.7209E-06  0.1562
   6.3665E-02   6.5214E-02   7.5245E-06  0.1348
   6.5214E-02   6.6800E-02   5.9767E-06  0.1489
   6.6800E-02   6.8426E-02   5.5865E-06  0.1526
   6.8426E-02   7.0090E-02   5.9954E-06  0.1459
   7.0090E-02   7.1796E-02   5.2421E-06  0.1538
   7.1796E-02   7.3543E-02   5.5892E-06  0.1467
   7.3543E-02   7.5332E-02   6.1540E-06  0.1387
   7.5332E-02   7.7165E-02   4.7084E-06  0.1563
   7.7165E-02   7.9042E-02   5.4849E-06  0.1427
   7.9042E-02   8.0965E-02   4.3023E-06  0.1601
   8.0965E-02   8.2935E-02   6.0050E-06  0.1337
   8.2935E-02   8.4953E-02   4.6282E-06  0.1508
   8.4953E-02   8.7020E-02   4.2012E-06  0.1562
   8.7020E-02   8.9138E-02   4.9834E-06  0.1415
   8.9138E-02   9.1306E-02   3.9681E-06  0.1564
   9.1306E-02   9.3528E-02   3.9170E-06  0.1562
   9.3528E-02   9.5804E-02   5.0225E-06  0.1355
   9.5804E-02   9.8134E-02   4.3467E-06  0.1444
   9.8134E-02   1.0052E-01   4.7406E-06  0.1366
   1.0052E-01   1.0297E-01   5.3106E-06  0.1275
   1.0297E-01   1.0547E-01   5.9548E-06  0.1191
   1.0547E-01   1.0804E-01   3.7724E-06  0.1475
   1.0804E-01   1.1067E-01   4.5786E-06  0.1323
   1.1067E-01   1.1336E-01   5.4863E-06  0.1194
   1.1336E-01   1.1612E-01   5.5900E-06  0.1171
   1.1612E-01   1.1894E-01   5.8416E-06  0.1132
   1.1894E-01   1.2184E-01   7.1791E-06  0.1010
   1.2184E-01   1.2480E-01   5.3497E-06  0.1155
   1.2480E-01   1.2784E-01   5.8497E-06  0.1091
   1.2784E-01   1.3095E-01   6.1882E-06  0.1045
   1.3095E-01   1.3414E-01   6.1926E-06  0.1035
   1.3414E-01   1.3740E-01   7.0763E-06  0.0955
   1.3740E-01   1.4074E-01   6.3719E-06  0.0994
   1.4074E-01   1.4417E-01   7.6626E-06  0.0898
   1.4417E-01   1.4767E-01   8.1169E-06  0.0862
   1.4767E-01   1.5127E-01   8.3755E-06  0.0837
   1.5127E-01   1.5495E-01   8.7812E-06  0.0809
   1.5495E-01   1.5872E-01   8.8320E-06  0.0796
   1.5872E-01   1.6258E-01   9.0611E-06  0.0778
   1.6258E-01   1.6654E-01   8.4107E-06  0.0797
   1.6654E-01   1.7059E-01   9.9719E-06  0.0722
   1.7059E-01   1.7474E-01   9.1460E-06  0.0746
   1.7474E-01   1.7899E-01   1.0028E-05  0.0704
   1.7899E-01   1.8334E-01   1.0320E-05  0.0686
   1.8334E-01   1.8781E-01   1.2039E-05  0.0627
   1.8781E-01   1.9237E-01   1.1809E-05  0.0626
   1.9237E-01   1.9706E-01   1.2677E-05  0.0597
   1.9706E-01   2.0185E-01   1.4027E-05  0.0560
   2.0185E-01   2.0676E-01   1.3247E-05  0.0570
   2.0676E-01   2.1179E-01   1.3660E-05  0.0554
   2.1179E-01   2.1694E-01   1.4645E-05  0.0529
   2.1694E-01   2.2222E-01   1.3771E-05  0.0539
   2.2222E-01   2.2763E-01   1.3920E-05  0.0530
   2.2763E-01   2.3317E-01   1.5833E-05  0.0491
   2.3317E-01   2.3884E-01   1.5259E-05  0.0493
   2.3884E-01   2.4465E-01   1.4734E-05  0.0497
   2.4465E-01   2.5061E-01   1.5722E-05  0.0475
   2.5061E-01   2.5670E-01   1.6733E-05  0.0455
   2.5670E-01   2.6295E-01   1.7730E-05  0.0437
   2.6295E-01   2.6935E-01   1.8671E-05  0.0420
   2.6935E-01   2.7590E-01   1.7157E-05  0.0433
   2.7590E-01   2.8261E-01   1.6852E-05  0.0432
   2.8261E-01   2.8949E-01   1.8622E-05  0.0406
   2.8949E-01   2.9653E-01   1.9321E-05  0.0394
   2.9653E-01   3.0375E-01   2.0134E-05  0.0381
   3.0375E-01   3.1114E-01   2.0006E-05  0.0377
   3.1114E-01   3.1871E-01   2.0481E-05  0.0369
   3.1871E-01   3.2646E-01   2.1277E-05  0.0358
   3.2646E-01   3.3441E-01   2.1506E-05  0.0352
   3.3441E-01   3.4254E-01   2.2991E-05  0.0336
   3.4254E-01   3.5088E-01   2.1471E-05  0.0343
   3.5088E-01   3.5941E-01   2.2741E-05  0.0330
   3.5941E-01   3.6816E-01   2.1606E-05  0.0334
   3.6816E-01   3.7712E-01   2.3387E-05  0.0317
   3.7712E-01   3.8629E-01   2.3498E-05  0.0313
   3.8629E-01   3.9569E-01   2.4067E-05  0.0305
   3.9569E-01   4.0532E-01   2.3400E-05  0.0306
   4.0532E-01   4.1518E-01   2.5760E-05  0.0288
   4.1518E-01   4.2528E-01   2.5310E-05  0.0287
   4.2528E-01   4.3563E-01   2.6588E-05  0.0277
   4.3563E-01   4.4623E-01   2.5278E-05  0.0280
   4.4623E-01   4.5708E-01   2.4856E-05  0.0279
   4.5708E-01   4.6821E-01   2.6950E-05  0.0265
   4.6821E-01   4.7960E-01   2.6358E-05  0.0265
   4.7960E-01   4.9127E-01   2.7228E-05  0.0257
   4.9127E-01   5.0322E-01   2.7658E-05  0.0253
   5.0322E-01   5.1546E-01   2.7670E-05  0.0249
   5.1546E-01   5.2800E-01   2.8000E-05  0.0245
   5.2800E-01   5.4085E-01   2.6653E-05  0.0248
   5.4085E-01   5.5401E-01   2.7556E-05  0.0241
   5.5401E-01   5.6749E-01   2.8386E-05  0.0235
   5.6749E-01   5.8130E-01   2.7555E-05  0.0235
   5.8130E-01   5.9544E-01   2.7456E-05  0.0233
   5.9544E-01   6.0993E-01   2.7623E-05  0.0229
   6.0993E-01   6.2477E-01   2.7494E-05  0.0227
   6.2477E-01   6.3997E-01   2.7497E-05  0.0224
   6.3997E-01   6.5554E-01   2.7048E-05  0.0223
   6.5554E-01   6.7149E-01   2.6816E-05  0.0222
   6.7149E-01   6.8783E-01   2.6283E-05  0.0221
   6.8783E-01   7.0456E-01   2.6389E-05  0.0218
   7.0456E-01   7.2171E-01   2.7231E-05  0.0212
   7.2171E-01   7.3927E-01   2.7541E-05  0.0209
   7.3927E-01   7.5725E-01   2.6360E-05  0.0211
   7.5725E-01   7.7568E-01   2.7410E-05  0.0204
   7.7568E-01   7.9455E-01   2.6569E-05  0.0205
   7.9455E-01   8.1388E-01   2.6615E-05  0.0202
   8.1388E-01   8.3368E-01   2.6327E-05  0.0201
   8.3368E-01   8.5397E-01   2.4164E-05  0.0207
   8.5397E-01   8.7475E-01   2.5315E-05  0.0200
   8.7475E-01   8.9603E-01   2.3881E-05  0.0203
   8.9603E-01   9.1783E-01   2.3612E-05  0.0202
   9.1783E-01   9.4016E-01   2.4038E-05  0.0198
   9.4016E-01   9.6304E-01   2.2732E-05  0.0201
   9.6304E-01   9.8647E-01   2.0858E-05  0.0207
   9.8647E-01   1.0105E+00   2.0604E-05  0.0206
   1.0105E+00   1.0351E+00   2.0503E-05  0.0204
   1.0351E+00   1.0602E+00   2.1539E-05  0.0196
   1.0602E+00   1.0860E+00   2.1261E-05  0.0195
   1.0860E+00   1.1125E+00   2.1198E-05  0.0193
   1.1125E+00   1.1395E+00   2.1653E-05  0.0189
   1.1395E+00   1.1673E+00   2.1564E-05  0.0187
   1.1673E+00   1.1957E+00   2.2517E-05  0.0181
   1.1957E+00   1.2247E+00   2.2911E-05  0.0177
   1.2247E+00   1.2545E+00   2.3197E-05  0.0174
   1.2545E+00   1.2851E+00   2.3602E-05  0.0170
   1.2851E+00   1.3163E+00   2.3378E-05  0.0169
   1.3163E+00   1.3484E+00   2.3363E-05  0.0167
   1.3484E+00   1.3812E+00   2.4158E-05  0.0162
   1.3812E+00   1.4148E+00   2.4133E-05  0.0160
   1.4148E+00   1.4492E+00   2.3996E-05  0.0159
   1.4492E+00   1.4845E+00   2.3816E-05  0.0157
   1.4845E+00   1.5206E+00   2.4361E-05  0.0154
   1.5206E+00   1.5576E+00   2.4247E-05  0.0152
   1.5576E+00   1.5955E+00   2.3754E-05  0.0152
   1.5955E+00   1.6343E+00   2.4480E-05  0.0148
   1.6343E+00   1.6741E+00   2.4162E-05  0.0147
   1.6741E+00   1.7148E+00   2.4408E-05  0.0144
   1.7148E+00   1.7565E+00   2.4496E-05  0.0142
   1.7565E+00   1.7992E+00   2.2583E-05  0.0146
   1.7992E+00   1.8430E+00   2.1776E-05  0.0147
   1.8430E+00   1.8879E+00   2.2021E-05  0.0144
   1.8879E+00   1.9338E+00   2.1746E-05  0.0143
   1.9338E+00   1.9808E+00   2.1075E-05  0.0143
   1.9808E+00   2.0290E+00   2.1538E-05  0.0140
   2.0290E+00   2.0784E+00   2.1563E-05  0.0138
   2.0784E+00   2.1290E+00   2.1925E-05  0.0135
   2.1290E+00   2.1808E+00   2.1895E-05  0.0134
   2.1808E+00   2.2338E+00   2.1760E-05  0.0132
   2.2338E+00   2.2882E+00   2.1375E-05  0.0132
   2.2882E+00   2.3439E+00   2.0918E-05  0.0132
   2.3439E+00   2.4009E+00   2.1443E-05  0.0129
   2.4009E+00   2.4593E+00   2.0900E-05  0.0129
   2.4593E+00   2.5191E+00   2.1333E-05  0.0127
   2.5191E+00   2.5804E+00   2.0358E-05  0.0128
   2.5804E+00   2.6432E+00   2.0540E-05  0.0126
   2.6432E+00   2.7075E+00   2.0431E-05  0.0125
   2.7075E+00   2.7734E+00   1.9964E-05  0.0125
   2.7734E+00   2.8409E+00   1.9568E-05  0.0124
   2.8409E+00   2.9100E+00   1.9583E-05  0.0123
   2.9100E+00   2.9808E+00   1.9753E-05  0.0121
   2.9808E+00   3.0533E+00   1.9842E-05  0.0119
   3.0533E+00   3.1276E+00   1.9168E-05  0.0120
   3.1276E+00   3.2037E+00   1.9025E-05  0.0119
   3.2037E+00   3.2817E+00   1.8930E-05  0.0118
   3.2817E+00   3.3615E+00   1.9211E-05  0.0116
   3.3615E+00   3.4433E+00   1.8535E-05  0.0117
   3.4433E+00   3.5271E+00   1.8546E-05  0.0115
   3.5271E+00   3.6129E+00   1.8494E-05  0.0114
   3.6129E+00   3.7008E+00   1.7802E-05  0.0115
   3.7008E+00   3.7908E+00   1.8253E-05  0.0112
   3.7908E+00   3.8831E+00   1.7963E-05  0.0112
   3.8831E+00   3.9776E+00   1.7520E-05  0.0112
   3.9776E+00   4.0743E+00   1.7866E-05  0.0109
   4.0743E+00   4.1735E+00   1.7173E-05  0.0110
   4.1735E+00   4.2750E+00   1.6980E-05  0.0110
   4.2750E+00   4.3790E+00   1.6565E-05  0.0110
   4.3790E+00   4.4856E+00   1.6319E-05  0.0109
   4.4856E+00   4.5947E+00   1.5682E-05  0.0110
   4.5947E+00   4.7065E+00   1.5864E-05  0.0108
   4.7065E+00   4.8210E+00   1.5756E-05  0.0107
   4.8210E+00   4.9383E+00   1.5499E-05  0.0107
   4.9383E+00   5.0585E+00   1.5391E-05  0.0106
   5.0585E+00   5.1815E+00   1.5113E-05  0.0106
   5.1815E+00   5.3076E+00   1.5272E-05  0.0104
   5.3076E+00   5.4368E+00   1.5129E-05  0.0103
   5.4368E+00   5.5690E+00   1.4572E-05  0.0104
   5.5690E+00   5.7045E+00   1.4371E-05  0.0103
   5.7045E+00   5.8433E+00   1.3973E-05  0.0103
   5.8433E+00   5.9855E+00   1.4230E-05  0.0101
   5.9855E+00   6.1311E+00   1.3939E-05  0.0101
   6.1311E+00   6.2803E+00   1.3395E-05  0.0102
   6.2803E+00   6.4331E+00   1.3554E-05  0.0100
   6.4331E+00   6.5896E+00   1.3146E-05  0.0101
   6.5896E+00   6.7500E+00   1.3191E-05  0.0099
   6.7500E+00   6.9142E+00   1.2975E-05  0.0099
   6.9142E+00   7.0824E+00   1.2919E-05  0.0098
   7.0824E+00   7.2548E+00   1.2500E-05  0.0098
   7.2548E+00   7.4313E+00   1.2235E-05  0.0098
   7.4313E+00   7.6121E+00   1.2144E-05  0.0097
   7.6121E+00   7.7973E+00   1.2206E-05  0.0096
   7.7973E+00   7.9870E+00   1.1787E-05  0.0097
   7.9870E+00   8.1813E+00   1.1565E-05  0.0096
   8.1813E+00   8.3804E+00   1.1447E-05  0.0096
   8.3804E+00   8.5843E+00   1.1178E-05  0.0096
   8.5843E+00   8.7931E+00   1.1079E-05  0.0095
   8.7931E+00   9.0071E+00   1.0698E-05  0.0096
   9.0071E+00   9.2262E+00   1.0718E-05  0.0094
   9.2262E+00   9.4507E+00   1.0228E-05  0.0096
   9.4507E+00   9.6807E+00   1.0188E-05  0.0095
   9.6807E+00   9.9162E+00   9.9126E-06  0.0095
   9.9162E+00   1.0157E+01   1.0189E-05  0.0093
   1.0157E+01   1.0405E+01   9.9710E-06  0.0093
   1.0405E+01   1.0658E+01   9.7702E-06  0.0092
   1.0658E+01   1.0917E+01   9.4808E-06  0.0093
   1.0917E+01   1.1183E+01   9.2936E-06  0.0093
   1.1183E+01   1.1455E+01   9.1541E-06  0.0092
   1.1455E+01   1.1733E+01   9.0371E-06  0.0092
   1.1733E+01   1.2019E+01   8.9982E-06  0.0091
   1.2019E+01   1.2311E+01   8.8455E-06  0.0090
   1.2311E+01   1.2611E+01   8.6197E-06  0.0091
   1.2611E+01   1.2918E+01   8.5549E-06  0.0090
   1.2918E+01   1.3232E+01   8.5198E-06  0.0089
   1.3232E+01   1.3554E+01   8.2841E-06  0.0089
   1.3554E+01   1.3884E+01   8.2093E-06  0.0089
   1.3884E+01   1.4222E+01   8.0529E-06  0.0088
   1.4222E+01   1.4568E+01   7.9799E-06  0.0088
   1.4568E+01   1.4922E+01   7.8335E-06  0.0087
   1.4922E+01   1.5285E+01   7.9153E-06  0.0086
   1.5285E+01   1.5657E+01   7.7070E-06  0.0086
   1.5657E+01   1.6038E+01   7.5449E-06  0.0086
   1.6038E+01   1.6428E+01   7.4036E-06  0.0086
   1.6428E+01   1.6828E+01   7.3325E-06  0.0085
   1.6828E+01   1.7237E+01   7.2861E-06  0.0084
   1.7237E+01   1.7657E+01   7.1235E-06  0.0084
   1.7657E+01   1.8086E+01   7.0369E-06  0.0084
   1.8086E+01   1.8526E+01   6.9717E-06  0.0083
   1.8526E+01   1.8977E+01   6.9181E-06  0.0083
   1.8977E+01   1.9439E+01   6.8028E-06  0.0082
   1.9439E+01   1.9912E+01   6.6660E-06  0.0082
   1.9912E+01   2.0396E+01   6.5968E-06  0.0082
   2.0396E+01   2.0893E+01   6.5108E-06  0.0081
   2.0893E+01   2.1401E+01   6.3122E-06  0.0081
   2.1401E+01   2.1922E+01   6.3070E-06  0.0080
   2.1922E+01   2.2455E+01   6.2078E-06  0.0080
   2.2455E+01   2.3001E+01   6.0588E-06  0.0080
   2.3001E+01   2.3561E+01   5.8925E-06  0.0080
   2.3561E+01   2.4134E+01   5.7484E-06  0.0080
   2.4134E+01   2.4721E+01   5.6162E-06  0.0080
   2.4721E+01   2.5323E+01   5.5065E-06  0.0080
   2.5323E+01   2.5939E+01   5.3457E-06  0.0080
   2.5939E+01   2.6570E+01   5.2123E-06  0.0080
   2.6570E+01   2.7217E+01   5.1224E-06  0.0080
   2.7217E+01   2.7879E+01   5.0479E-06  0.0080
   2.7879E+01   2.8557E+01   5.4431E-06  0.0076
   2.8557E+01   2.9252E+01   5.8233E-06  0.0073
   2.9252E+01   2.9964E+01   5.7846E-06  0.0072
   2.9964E+01   3.0693E+01   5.5821E-06  0.0072
   3.0693E+01   3.1440E+01   5.6008E-06  0.0071
   3.1440E+01   3.2205E+01   5.4597E-06  0.0071
   3.2205E+01   3.2988E+01   5.3569E-06  0.0071
   3.2988E+01   3.3791E+01   5.2994E-06  0.0071
   3.3791E+01   3.4613E+01   5.1981E-06  0.0071
   3.4613E+01   3.5455E+01   5.1198E-06  0.0070
   3.5455E+01   3.6318E+01   5.0919E-06  0.0070
   3.6318E+01   3.7201E+01   5.0204E-06  0.0069
   3.7201E+01   3.8106E+01   4.9467E-06  0.0069
   3.8106E+01   3.9034E+01   4.8889E-06  0.0069
   3.9034E+01   3.9983E+01   4.7748E-06  0.0068
   3.9983E+01   4.0956E+01   4.6694E-06  0.0068
   4.0956E+01   4.1953E+01   4.5989E-06  0.0068
   4.1953E+01   4.2973E+01   4.5922E-06  0.0067
   4.2973E+01   4.4019E+01   4.4803E-06  0.0067
   4.4019E+01   4.5090E+01   4.4205E-06  0.0067
   4.5090E+01   4.6187E+01   4.3153E-06  0.0067
   4.6187E+01   4.7311E+01   4.2997E-06  0.0066
   4.7311E+01   4.8462E+01   3.9908E-06  0.0068
   4.8462E+01   4.9641E+01   3.1683E-06  0.0075
   4.9641E+01   5.0849E+01   3.0872E-06  0.0076
   5.0849E+01   5.2086E+01   2.9719E-06  0.0076
   5.2086E+01   5.3353E+01   2.9564E-06  0.0075
   5.3353E+01   5.4651E+01   2.8480E-06  0.0076
   5.4651E+01   5.5981E+01   2.8224E-06  0.0075
   5.5981E+01   5.7343E+01   2.7569E-06  0.0075
   5.7343E+01   5.8738E+01   2.6991E-06  0.0075
   5.8738E+01   6.0168E+01   2.6007E-06  0.0076
   6.0168E+01   6.1632E+01   2.5418E-06  0.0076
   6.1632E+01   6.3131E+01   2.4643E-06  0.0076
   6.3131E+01   6.4667E+01   2.3646E-06  0.0077
   6.4667E+01   6.6240E+01   2.3066E-06  0.0077
   6.6240E+01   6.7852E+01   2.2317E-06  0.0077
   6.7852E+01   6.9503E+01   2.1616E-06  0.0077
   6.9503E+01   7.1194E+01   2.0642E-06  0.0078
   7.1194E+01   7.2926E+01   1.9916E-06  0.0079
   7.2926E+01   7.4701E+01   1.8550E-06  0.0080
   7.4701E+01   7.6518E+01   1.7485E-06  0.0082
   7.6518E+01   7.8380E+01   1.6530E-06  0.0083
   7.8380E+01   8.0287E+01   1.5136E-06  0.0086
   8.0287E+01   8.2240E+01   1.3837E-06  0.0089
   8.2240E+01   8.4241E+01   1.1621E-06  0.0096
   8.4241E+01   8.6291E+01   1.0147E-06  0.0101
   8.6291E+01   8.8391E+01   4.0384E-07  0.0158
   8.8391E+01   9.0541E+01   0.0000E+00  0.0000
   9.0541E+01   9.2744E+01   0.0000E+00  0.0000
   9.2744E+01   9.5001E+01   0.0000E+00  0.0000
   9.5001E+01   9.7312E+01   0.0000E+00  0.0000
   9.7312E+01   9.9680E+01   0.0000E+00  0.0000
   9.9680E+01   1.0211E+02   0.0000E+00  0.0000
   1.0211E+02   1.0459E+02   0.0000E+00  0.0000
   1.0459E+02   1.0713E+02   0.0000E+00  0.0000
   1.0713E+02   1.0974E+02   0.0000E+00  0.0000
   1.0974E+02   1.1241E+02   0.0000E+00  0.0000
   1.1241E+02   1.1515E+02   0.0000E+00  0.0000
   1.1515E+02   1.1795E+02   0.0000E+00  0.0000
   1.1795E+02   1.2082E+02   0.0000E+00  0.0000
   1.2082E+02   1.2376E+02   0.0000E+00  0.0000
   1.2376E+02   1.2677E+02   0.0000E+00  0.0000
   1.2677E+02   1.2985E+02   0.0000E+00  0.0000
   1.2985E+02   1.3301E+02   0.0000E+00  0.0000
   1.3301E+02   1.3625E+02   0.0000E+00  0.0000
   1.3625E+02   1.3956E+02   0.0000E+00  0.0000
   1.3956E+02   1.4296E+02   0.0000E+00  0.0000
   1.4296E+02   1.4644E+02   0.0000E+00  0.0000
   1.4644E+02   1.5000E+02   0.0000E+00  0.0000

#   sum over                 3.1336E-06
'no. =    1   reg = 100 - 200'
msuc: {\huge [t-cross] in region mesh}
msdr: {\it plotted by \ANGEL \version}
msdl: {\it calculated by \PHITS  3.26}
wt: s(0.7)
\vspace{-3}
  region surface crossing
  area  &=&   1.0000E+00 [cm^2]
e:
 
# Information for Restart Calculation
# This calculation was newly started
# istdev =  2 # 1:Batch variance, 2:History variance
# resc2  = 4.70000000000000000E+09 # Total source weight or Total source weight / maxcas
# resc3  = 4.70000000000000000E+09 # Total history number or Total batch number
# maxcas =   100000000 # History / Batch, only used for istdev=1
# bitrseed = 0100110001111111101101111011011100010101001001110000010100111101 # bit data of rseed
