[ T-Cross ]
    title = [t-cross] in region mesh
     mesh =  reg            # mesh type is region-wise
      reg =    1            # number of crossing regions
      non     r-from    r-to       area
      1       109       209        1.000000    
   e-type =    3            # e-mesh is log given by emin, emax and ne
     emin =  1.0000000E-02  # minimum value of e-mesh points
     emax =   150.0000      # maximum value of e-mesh points
#    edel =  2.4039514E-02  # mesh width of e-mesh points
       ne =    400          # number of e-mesh points
#    data = ( e(i), i = 1, ne + 1 )
#           1.00000E-02  1.02433E-02  1.04925E-02  1.07478E-02  1.10093E-02
#           1.12772E-02  1.15516E-02  1.18326E-02  1.21205E-02  1.24154E-02
#           1.27175E-02  1.30269E-02  1.33439E-02  1.36686E-02  1.40011E-02
#           1.43418E-02  1.46907E-02  1.50482E-02  1.54143E-02  1.57894E-02
#           1.61735E-02  1.65670E-02  1.69701E-02  1.73830E-02  1.78060E-02
#           1.82392E-02  1.86830E-02  1.91375E-02  1.96032E-02  2.00801E-02
#           2.05687E-02  2.10692E-02  2.15818E-02  2.21069E-02  2.26448E-02
#           2.31957E-02  2.37601E-02  2.43382E-02  2.49304E-02  2.55369E-02
#           2.61583E-02  2.67947E-02  2.74467E-02  2.81145E-02  2.87985E-02
#           2.94992E-02  3.02169E-02  3.09521E-02  3.17052E-02  3.24766E-02
#           3.32668E-02  3.40762E-02  3.49053E-02  3.57546E-02  3.66246E-02
#           3.75157E-02  3.84284E-02  3.93634E-02  4.03212E-02  4.13022E-02
#           4.23071E-02  4.33365E-02  4.43909E-02  4.54710E-02  4.65773E-02
#           4.77106E-02  4.88714E-02  5.00605E-02  5.12785E-02  5.25262E-02
#           5.38042E-02  5.51133E-02  5.64542E-02  5.78278E-02  5.92348E-02
#           6.06760E-02  6.21523E-02  6.36645E-02  6.52135E-02  6.68002E-02
#           6.84255E-02  7.00904E-02  7.17957E-02  7.35426E-02  7.53319E-02
#           7.71648E-02  7.90423E-02  8.09655E-02  8.29354E-02  8.49533E-02
#           8.70203E-02  8.91376E-02  9.13064E-02  9.35279E-02  9.58035E-02
#           9.81345E-02  1.00522E-01  1.02968E-01  1.05473E-01  1.08040E-01
#           1.10668E-01  1.13361E-01  1.16119E-01  1.18944E-01  1.21838E-01
#           1.24803E-01  1.27839E-01  1.30950E-01  1.34136E-01  1.37399E-01
#           1.40742E-01  1.44167E-01  1.47675E-01  1.51268E-01  1.54948E-01
#           1.58718E-01  1.62580E-01  1.66535E-01  1.70587E-01  1.74738E-01
#           1.78989E-01  1.83344E-01  1.87805E-01  1.92375E-01  1.97055E-01
#           2.01850E-01  2.06761E-01  2.11792E-01  2.16945E-01  2.22223E-01
#           2.27630E-01  2.33169E-01  2.38842E-01  2.44653E-01  2.50605E-01
#           2.56703E-01  2.62949E-01  2.69346E-01  2.75900E-01  2.82613E-01
#           2.89489E-01  2.96532E-01  3.03747E-01  3.11138E-01  3.18708E-01
#           3.26462E-01  3.34405E-01  3.42542E-01  3.50876E-01  3.59413E-01
#           3.68158E-01  3.77116E-01  3.86291E-01  3.95690E-01  4.05317E-01
#           4.15179E-01  4.25281E-01  4.35628E-01  4.46227E-01  4.57084E-01
#           4.68205E-01  4.79597E-01  4.91266E-01  5.03219E-01  5.15463E-01
#           5.28005E-01  5.40851E-01  5.54011E-01  5.67490E-01  5.81298E-01
#           5.95441E-01  6.09929E-01  6.24769E-01  6.39970E-01  6.55541E-01
#           6.71491E-01  6.87828E-01  7.04564E-01  7.21706E-01  7.39266E-01
#           7.57253E-01  7.75678E-01  7.94551E-01  8.13883E-01  8.33685E-01
#           8.53969E-01  8.74747E-01  8.96030E-01  9.17831E-01  9.40163E-01
#           9.63038E-01  9.86469E-01  1.01047E+00  1.03506E+00  1.06024E+00
#           1.08604E+00  1.11246E+00  1.13953E+00  1.16725E+00  1.19565E+00
#           1.22474E+00  1.25454E+00  1.28507E+00  1.31633E+00  1.34836E+00
#           1.38117E+00  1.41477E+00  1.44920E+00  1.48446E+00  1.52057E+00
#           1.55757E+00  1.59547E+00  1.63429E+00  1.67405E+00  1.71478E+00
#           1.75650E+00  1.79924E+00  1.84302E+00  1.88786E+00  1.93379E+00
#           1.98084E+00  2.02904E+00  2.07841E+00  2.12898E+00  2.18078E+00
#           2.23384E+00  2.28819E+00  2.34386E+00  2.40089E+00  2.45930E+00
#           2.51914E+00  2.58043E+00  2.64322E+00  2.70753E+00  2.77341E+00
#           2.84088E+00  2.91001E+00  2.98081E+00  3.05333E+00  3.12762E+00
#           3.20372E+00  3.28167E+00  3.36152E+00  3.44330E+00  3.52708E+00
#           3.61290E+00  3.70080E+00  3.79085E+00  3.88308E+00  3.97756E+00
#           4.07434E+00  4.17347E+00  4.27501E+00  4.37903E+00  4.48557E+00
#           4.59471E+00  4.70650E+00  4.82102E+00  4.93832E+00  5.05847E+00
#           5.18155E+00  5.30762E+00  5.43676E+00  5.56904E+00  5.70453E+00
#           5.84333E+00  5.98550E+00  6.13114E+00  6.28031E+00  6.43312E+00
#           6.58964E+00  6.74997E+00  6.91420E+00  7.08243E+00  7.25475E+00
#           7.43126E+00  7.61207E+00  7.79728E+00  7.98700E+00  8.18133E+00
#           8.38038E+00  8.58428E+00  8.79315E+00  9.00709E+00  9.22624E+00
#           9.45072E+00  9.68067E+00  9.91620E+00  1.01575E+01  1.04046E+01
#           1.06578E+01  1.09171E+01  1.11827E+01  1.14548E+01  1.17335E+01
#           1.20190E+01  1.23114E+01  1.26109E+01  1.29178E+01  1.32321E+01
#           1.35540E+01  1.38838E+01  1.42216E+01  1.45676E+01  1.49221E+01
#           1.52851E+01  1.56570E+01  1.60380E+01  1.64282E+01  1.68279E+01
#           1.72374E+01  1.76568E+01  1.80864E+01  1.85264E+01  1.89772E+01
#           1.94389E+01  1.99119E+01  2.03963E+01  2.08926E+01  2.14009E+01
#           2.19216E+01  2.24550E+01  2.30014E+01  2.35610E+01  2.41343E+01
#           2.47215E+01  2.53230E+01  2.59391E+01  2.65702E+01  2.72167E+01
#           2.78789E+01  2.85572E+01  2.92520E+01  2.99637E+01  3.06928E+01
#           3.14396E+01  3.22045E+01  3.29881E+01  3.37907E+01  3.46128E+01
#           3.54550E+01  3.63177E+01  3.72013E+01  3.81064E+01  3.90336E+01
#           3.99833E+01  4.09561E+01  4.19526E+01  4.29734E+01  4.40189E+01
#           4.50900E+01  4.61870E+01  4.73108E+01  4.84619E+01  4.96410E+01
#           5.08488E+01  5.20860E+01  5.33533E+01  5.46514E+01  5.59812E+01
#           5.73432E+01  5.87384E+01  6.01676E+01  6.16315E+01  6.31311E+01
#           6.46671E+01  6.62405E+01  6.78522E+01  6.95031E+01  7.11941E+01
#           7.29263E+01  7.47007E+01  7.65182E+01  7.83800E+01  8.02870E+01
#           8.22405E+01  8.42414E+01  8.62911E+01  8.83906E+01  9.05412E+01
#           9.27442E+01  9.50007E+01  9.73122E+01  9.96799E+01  1.02105E+02
#           1.04589E+02  1.07134E+02  1.09741E+02  1.12411E+02  1.15146E+02
#           1.17948E+02  1.20817E+02  1.23757E+02  1.26768E+02  1.29852E+02
#           1.33012E+02  1.36248E+02  1.39563E+02  1.42959E+02  1.46437E+02
#           1.50000E+02
     unit =    2            # unit is [1/cm^2/(MeV/n)/source]
     axis =  eng            # axis of output
     file = detector-10.out  # file name of output for the above axis
   output = f-curr          # surface crossing forward current spectrum
     part =  neutron  
# kf/name :  2112     
#    used :        main (  %)        temp (  %)       total (  %)
#  memory :         414 (  0)           0 (  0)         414 (  0)

#------------------------------------------------------------------------------
#newpage:
#   no. =    1   reg = 109 - 209

x: Energy [MeV/n]
y:  F-Curr [1/cm^2/(MeV/n)/source]         
p: xlog ylog afac(0.8) form(0.9)
h: n            x            y(neutron ),hh0l   n 
#  e-lower      e-upper      neutron     r.err 
   1.0000E-02   1.0243E-02   0.0000E+00  0.0000
   1.0243E-02   1.0493E-02   7.5032E-07  1.0000
   1.0493E-02   1.0748E-02   7.8342E-07  1.0000
   1.0748E-02   1.1009E-02   1.5296E-06  0.7071
   1.1009E-02   1.1277E-02   9.4581E-07  0.8170
   1.1277E-02   1.1552E-02   7.2891E-07  1.0000
   1.1552E-02   1.1833E-02   0.0000E+00  0.0000
   1.1833E-02   1.2121E-02   6.9469E-07  1.0000
   1.2121E-02   1.2415E-02   0.0000E+00  0.0000
   1.2415E-02   1.2718E-02   6.6208E-07  1.0000
   1.2718E-02   1.3027E-02   3.2318E-06  0.4472
   1.3027E-02   1.3344E-02   6.3100E-07  1.0000
   1.3344E-02   1.3669E-02   1.8480E-06  0.5774
   1.3669E-02   1.4001E-02   6.0138E-07  1.0000
   1.4001E-02   1.4342E-02   1.1742E-06  0.7071
   1.4342E-02   1.4691E-02   0.0000E+00  0.0000
   1.4691E-02   1.5048E-02   8.3931E-07  0.7454
   1.5048E-02   1.5414E-02   5.4625E-07  1.0000
   1.5414E-02   1.5789E-02   5.3327E-07  1.0000
   1.5789E-02   1.6174E-02   1.1645E-06  0.6411
   1.6174E-02   1.6567E-02   1.0165E-06  0.7071
   1.6567E-02   1.6970E-02   1.9847E-06  0.5000
   1.6970E-02   1.7383E-02   1.4531E-06  0.5774
   1.7383E-02   1.7806E-02   2.1279E-06  0.4581
   1.7806E-02   1.8239E-02   2.8806E-06  0.3944
   1.8239E-02   1.8683E-02   3.6054E-06  0.3536
   1.8683E-02   1.9138E-02   0.0000E+00  0.0000
   1.9138E-02   1.9603E-02   7.1479E-07  0.6682
   1.9603E-02   2.0080E-02   9.2054E-07  0.6503
   2.0080E-02   2.0569E-02   1.7274E-06  0.4768
   2.0569E-02   2.1069E-02   1.8582E-06  0.4377
   2.1069E-02   2.1582E-02   1.7491E-06  0.4538
   2.1582E-02   2.2107E-02   3.3230E-06  0.3277
   2.2107E-02   2.2645E-02   1.9320E-06  0.4320
   2.2645E-02   2.3196E-02   1.4520E-06  0.5000
   2.3196E-02   2.3760E-02   2.9159E-06  0.3289
   2.3760E-02   2.4338E-02   2.6199E-06  0.3537
   2.4338E-02   2.4930E-02   3.6258E-06  0.2868
   2.4930E-02   2.5537E-02   4.3611E-06  0.2647
   2.5537E-02   2.6158E-02   3.8354E-06  0.2826
   2.6158E-02   2.6795E-02   2.0401E-06  0.3615
   2.6795E-02   2.7447E-02   3.2622E-06  0.3006
   2.7447E-02   2.8114E-02   2.8265E-06  0.3107
   2.8114E-02   2.8799E-02   4.1472E-06  0.2568
   2.8799E-02   2.9499E-02   4.8959E-06  0.2360
   2.9499E-02   3.0217E-02   6.5470E-06  0.2020
   3.0217E-02   3.0952E-02   4.3148E-06  0.2457
   3.0952E-02   3.1705E-02   4.6605E-06  0.2344
   3.1705E-02   3.2477E-02   4.7770E-06  0.2275
   3.2477E-02   3.3267E-02   3.8959E-06  0.2473
   3.3267E-02   3.4076E-02   4.2294E-06  0.2346
   3.4076E-02   3.4905E-02   5.0527E-06  0.2117
   3.4905E-02   3.5755E-02   5.6382E-06  0.1979
   3.5755E-02   3.6625E-02   6.1702E-06  0.1895
   3.6625E-02   3.7516E-02   5.6220E-06  0.1970
   3.7516E-02   3.8428E-02   4.3932E-06  0.2145
   3.8428E-02   3.9363E-02   7.0259E-06  0.1696
   3.9363E-02   4.0321E-02   4.9970E-06  0.1991
   4.0321E-02   4.1302E-02   9.6873E-06  0.1427
   4.1302E-02   4.2307E-02   5.3467E-06  0.1857
   4.2307E-02   4.3337E-02   6.4774E-06  0.1685
   4.3337E-02   4.4391E-02   6.9035E-06  0.1634
   4.4391E-02   4.5471E-02   7.5282E-06  0.1517
   4.5471E-02   4.6577E-02   8.6365E-06  0.1403
   4.6577E-02   4.7711E-02   7.3769E-06  0.1496
   4.7711E-02   4.8871E-02   1.1955E-05  0.1184
   4.8871E-02   5.0061E-02   7.1626E-06  0.1473
   5.0061E-02   5.1279E-02   9.7872E-06  0.1247
   5.1279E-02   5.2526E-02   9.1237E-06  0.1292
   5.2526E-02   5.3804E-02   1.1287E-05  0.1144
   5.3804E-02   5.5113E-02   1.2621E-05  0.1083
   5.5113E-02   5.6454E-02   1.3480E-05  0.1026
   5.6454E-02   5.7828E-02   1.0080E-05  0.1172
   5.7828E-02   5.9235E-02   1.1748E-05  0.1068
   5.9235E-02   6.0676E-02   1.4292E-05  0.0958
   6.0676E-02   6.2152E-02   1.5647E-05  0.0903
   6.2152E-02   6.3665E-02   1.6449E-05  0.0872
   6.3665E-02   6.5214E-02   1.6473E-05  0.0868
   6.5214E-02   6.6800E-02   1.4506E-05  0.0915
   6.6800E-02   6.8426E-02   1.5605E-05  0.0859
   6.8426E-02   7.0090E-02   1.9156E-05  0.0773
   7.0090E-02   7.1796E-02   1.8587E-05  0.0773
   7.1796E-02   7.3543E-02   1.9715E-05  0.0743
   7.3543E-02   7.5332E-02   2.3090E-05  0.0681
   7.5332E-02   7.7165E-02   2.1641E-05  0.0691
   7.7165E-02   7.9042E-02   1.8650E-05  0.0738
   7.9042E-02   8.0965E-02   2.2104E-05  0.0666
   8.0965E-02   8.2935E-02   2.2960E-05  0.0647
   8.2935E-02   8.4953E-02   2.4239E-05  0.0622
   8.4953E-02   8.7020E-02   2.2623E-05  0.0636
   8.7020E-02   8.9138E-02   2.5233E-05  0.0597
   8.9138E-02   9.1306E-02   2.7644E-05  0.0564
   9.1306E-02   9.3528E-02   2.7846E-05  0.0554
   9.3528E-02   9.5804E-02   2.9100E-05  0.0533
   9.5804E-02   9.8134E-02   3.1095E-05  0.0511
   9.8134E-02   1.0052E-01   3.0797E-05  0.0507
   1.0052E-01   1.0297E-01   3.3478E-05  0.0484
   1.0297E-01   1.0547E-01   3.5608E-05  0.0462
   1.0547E-01   1.0804E-01   3.3685E-05  0.0468
   1.0804E-01   1.1067E-01   3.5642E-05  0.0450
   1.1067E-01   1.1336E-01   3.7307E-05  0.0435
   1.1336E-01   1.1612E-01   3.8385E-05  0.0423
   1.1612E-01   1.1894E-01   3.9853E-05  0.0410
   1.1894E-01   1.2184E-01   4.2569E-05  0.0392
   1.2184E-01   1.2480E-01   4.5409E-05  0.0375
   1.2480E-01   1.2784E-01   5.0569E-05  0.0352
   1.2784E-01   1.3095E-01   5.2643E-05  0.0340
   1.3095E-01   1.3414E-01   5.3632E-05  0.0335
   1.3414E-01   1.3740E-01   5.1788E-05  0.0336
   1.3740E-01   1.4074E-01   5.4524E-05  0.0322
   1.4074E-01   1.4417E-01   5.7331E-05  0.0311
   1.4417E-01   1.4767E-01   6.1784E-05  0.0297
   1.4767E-01   1.5127E-01   6.3571E-05  0.0289
   1.5127E-01   1.5495E-01   6.8138E-05  0.0275
   1.5495E-01   1.5872E-01   6.5770E-05  0.0277
   1.5872E-01   1.6258E-01   6.8204E-05  0.0269
   1.6258E-01   1.6654E-01   7.3592E-05  0.0256
   1.6654E-01   1.7059E-01   7.4118E-05  0.0252
   1.7059E-01   1.7474E-01   7.6757E-05  0.0245
   1.7474E-01   1.7899E-01   7.9402E-05  0.0237
   1.7899E-01   1.8334E-01   8.6364E-05  0.0226
   1.8334E-01   1.8781E-01   8.7695E-05  0.0221
   1.8781E-01   1.9237E-01   9.1968E-05  0.0213
   1.9237E-01   1.9706E-01   9.3271E-05  0.0209
   1.9706E-01   2.0185E-01   9.8510E-05  0.0201
   2.0185E-01   2.0676E-01   1.0226E-04  0.0195
   2.0676E-01   2.1179E-01   1.0321E-04  0.0192
   2.1179E-01   2.1694E-01   1.0682E-04  0.0186
   2.1694E-01   2.2222E-01   1.1710E-04  0.0176
   2.2222E-01   2.2763E-01   1.1403E-04  0.0176
   2.2763E-01   2.3317E-01   1.2466E-04  0.0166
   2.3317E-01   2.3884E-01   1.2373E-04  0.0165
   2.3884E-01   2.4465E-01   1.3236E-04  0.0158
   2.4465E-01   2.5061E-01   1.3403E-04  0.0155
   2.5061E-01   2.5670E-01   1.3665E-04  0.0151
   2.5670E-01   2.6295E-01   1.4322E-04  0.0146
   2.6295E-01   2.6935E-01   1.4859E-04  0.0142
   2.6935E-01   2.7590E-01   1.5470E-04  0.0138
   2.7590E-01   2.8261E-01   1.5665E-04  0.0135
   2.8261E-01   2.8949E-01   1.6467E-04  0.0130
   2.8949E-01   2.9653E-01   1.6944E-04  0.0127
   2.9653E-01   3.0375E-01   1.7519E-04  0.0123
   3.0375E-01   3.1114E-01   1.7594E-04  0.0122
   3.1114E-01   3.1871E-01   1.8657E-04  0.0117
   3.1871E-01   3.2646E-01   1.8990E-04  0.0114
   3.2646E-01   3.3441E-01   1.9507E-04  0.0112
   3.3441E-01   3.4254E-01   2.0070E-04  0.0109
   3.4254E-01   3.5088E-01   2.1244E-04  0.0105
   3.5088E-01   3.5941E-01   2.1174E-04  0.0103
   3.5941E-01   3.6816E-01   2.2030E-04  0.0100
   3.6816E-01   3.7712E-01   2.2448E-04  0.0098
   3.7712E-01   3.8629E-01   2.3235E-04  0.0095
   3.8629E-01   3.9569E-01   2.3579E-04  0.0094
   3.9569E-01   4.0532E-01   2.4299E-04  0.0091
   4.0532E-01   4.1518E-01   2.5062E-04  0.0089
   4.1518E-01   4.2528E-01   2.5664E-04  0.0087
   4.2528E-01   4.3563E-01   2.5965E-04  0.0085
   4.3563E-01   4.4623E-01   2.7038E-04  0.0082
   4.4623E-01   4.5708E-01   2.7088E-04  0.0081
   4.5708E-01   4.6821E-01   2.8050E-04  0.0079
   4.6821E-01   4.7960E-01   2.8755E-04  0.0077
   4.7960E-01   4.9127E-01   2.9019E-04  0.0076
   4.9127E-01   5.0322E-01   3.0140E-04  0.0074
   5.0322E-01   5.1546E-01   3.0603E-04  0.0072
   5.1546E-01   5.2800E-01   3.1190E-04  0.0071
   5.2800E-01   5.4085E-01   3.2576E-04  0.0068
   5.4085E-01   5.5401E-01   3.2823E-04  0.0067
   5.5401E-01   5.6749E-01   3.4092E-04  0.0065
   5.6749E-01   5.8130E-01   3.3946E-04  0.0065
   5.8130E-01   5.9544E-01   3.5220E-04  0.0063
   5.9544E-01   6.0993E-01   3.6025E-04  0.0061
   6.0993E-01   6.2477E-01   3.6416E-04  0.0060
   6.2477E-01   6.3997E-01   3.7676E-04  0.0059
   6.3997E-01   6.5554E-01   3.8009E-04  0.0058
   6.5554E-01   6.7149E-01   3.9064E-04  0.0056
   6.7149E-01   6.8783E-01   3.9997E-04  0.0055
   6.8783E-01   7.0456E-01   4.0677E-04  0.0054
   7.0456E-01   7.2171E-01   4.1736E-04  0.0052
   7.2171E-01   7.3927E-01   4.2106E-04  0.0051
   7.3927E-01   7.5725E-01   4.2877E-04  0.0050
   7.5725E-01   7.7568E-01   4.3830E-04  0.0049
   7.7568E-01   7.9455E-01   4.4600E-04  0.0048
   7.9455E-01   8.1388E-01   4.5442E-04  0.0047
   8.1388E-01   8.3368E-01   4.5871E-04  0.0046
   8.3368E-01   8.5397E-01   4.6835E-04  0.0045
   8.5397E-01   8.7475E-01   4.7855E-04  0.0044
   8.7475E-01   8.9603E-01   4.8475E-04  0.0044
   8.9603E-01   9.1783E-01   4.8870E-04  0.0043
   9.1783E-01   9.4016E-01   4.9460E-04  0.0042
   9.4016E-01   9.6304E-01   5.0139E-04  0.0041
   9.6304E-01   9.8647E-01   5.1006E-04  0.0040
   9.8647E-01   1.0105E+00   5.1279E-04  0.0040
   1.0105E+00   1.0351E+00   5.1045E-04  0.0039
   1.0351E+00   1.0602E+00   5.0444E-04  0.0039
   1.0602E+00   1.0860E+00   5.0375E-04  0.0039
   1.0860E+00   1.1125E+00   4.9664E-04  0.0039
   1.1125E+00   1.1395E+00   4.9832E-04  0.0038
   1.1395E+00   1.1673E+00   5.0150E-04  0.0037
   1.1673E+00   1.1957E+00   5.0779E-04  0.0037
   1.1957E+00   1.2247E+00   5.0824E-04  0.0036
   1.2247E+00   1.2545E+00   5.0603E-04  0.0036
   1.2545E+00   1.2851E+00   5.0253E-04  0.0036
   1.2851E+00   1.3163E+00   4.9744E-04  0.0035
   1.3163E+00   1.3484E+00   4.9739E-04  0.0035
   1.3484E+00   1.3812E+00   4.9539E-04  0.0035
   1.3812E+00   1.4148E+00   4.9840E-04  0.0034
   1.4148E+00   1.4492E+00   4.9987E-04  0.0034
   1.4492E+00   1.4845E+00   4.9566E-04  0.0033
   1.4845E+00   1.5206E+00   4.9920E-04  0.0033
   1.5206E+00   1.5576E+00   4.9339E-04  0.0033
   1.5576E+00   1.5955E+00   4.8877E-04  0.0032
   1.5955E+00   1.6343E+00   4.8565E-04  0.0032
   1.6343E+00   1.6741E+00   4.8293E-04  0.0032
   1.6741E+00   1.7148E+00   4.7746E-04  0.0032
   1.7148E+00   1.7565E+00   4.7451E-04  0.0031
   1.7565E+00   1.7992E+00   4.7651E-04  0.0031
   1.7992E+00   1.8430E+00   4.7921E-04  0.0030
   1.8430E+00   1.8879E+00   4.7200E-04  0.0030
   1.8879E+00   1.9338E+00   4.6753E-04  0.0030
   1.9338E+00   1.9808E+00   4.6996E-04  0.0030
   1.9808E+00   2.0290E+00   4.6993E-04  0.0029
   2.0290E+00   2.0784E+00   4.6948E-04  0.0029
   2.0784E+00   2.1290E+00   4.6321E-04  0.0029
   2.1290E+00   2.1808E+00   4.5944E-04  0.0028
   2.1808E+00   2.2338E+00   4.5923E-04  0.0028
   2.2338E+00   2.2882E+00   4.5360E-04  0.0028
   2.2882E+00   2.3439E+00   4.4885E-04  0.0028
   2.3439E+00   2.4009E+00   4.4567E-04  0.0027
   2.4009E+00   2.4593E+00   4.3838E-04  0.0027
   2.4593E+00   2.5191E+00   4.3523E-04  0.0027
   2.5191E+00   2.5804E+00   4.3131E-04  0.0027
   2.5804E+00   2.6432E+00   4.2315E-04  0.0027
   2.6432E+00   2.7075E+00   4.1507E-04  0.0027
   2.7075E+00   2.7734E+00   4.1699E-04  0.0026
   2.7734E+00   2.8409E+00   4.1273E-04  0.0026
   2.8409E+00   2.9100E+00   4.0732E-04  0.0026
   2.9100E+00   2.9808E+00   4.0196E-04  0.0026
   2.9808E+00   3.0533E+00   3.9892E-04  0.0026
   3.0533E+00   3.1276E+00   3.9256E-04  0.0026
   3.1276E+00   3.2037E+00   3.8704E-04  0.0025
   3.2037E+00   3.2817E+00   3.8228E-04  0.0025
   3.2817E+00   3.3615E+00   3.7837E-04  0.0025
   3.3615E+00   3.4433E+00   3.7235E-04  0.0025
   3.4433E+00   3.5271E+00   3.6893E-04  0.0025
   3.5271E+00   3.6129E+00   3.6409E-04  0.0025
   3.6129E+00   3.7008E+00   3.5695E-04  0.0025
   3.7008E+00   3.7908E+00   3.5086E-04  0.0025
   3.7908E+00   3.8831E+00   3.4506E-04  0.0024
   3.8831E+00   3.9776E+00   3.3623E-04  0.0024
   3.9776E+00   4.0743E+00   3.2705E-04  0.0024
   4.0743E+00   4.1735E+00   3.1911E-04  0.0024
   4.1735E+00   4.2750E+00   3.1440E-04  0.0024
   4.2750E+00   4.3790E+00   3.0689E-04  0.0024
   4.3790E+00   4.4856E+00   3.0046E-04  0.0024
   4.4856E+00   4.5947E+00   2.9712E-04  0.0024
   4.5947E+00   4.7065E+00   2.9238E-04  0.0024
   4.7065E+00   4.8210E+00   2.8806E-04  0.0024
   4.8210E+00   4.9383E+00   2.8578E-04  0.0024
   4.9383E+00   5.0585E+00   2.8766E-04  0.0023
   5.0585E+00   5.1815E+00   2.9762E-04  0.0023
   5.1815E+00   5.3076E+00   3.0149E-04  0.0022
   5.3076E+00   5.4368E+00   2.9626E-04  0.0022
   5.4368E+00   5.5690E+00   2.9015E-04  0.0022
   5.5690E+00   5.7045E+00   2.8487E-04  0.0022
   5.7045E+00   5.8433E+00   2.7985E-04  0.0022
   5.8433E+00   5.9855E+00   2.7352E-04  0.0022
   5.9855E+00   6.1311E+00   2.7097E-04  0.0022
   6.1311E+00   6.2803E+00   2.6655E-04  0.0022
   6.2803E+00   6.4331E+00   2.6297E-04  0.0022
   6.4331E+00   6.5896E+00   2.6100E-04  0.0022
   6.5896E+00   6.7500E+00   2.5693E-04  0.0022
   6.7500E+00   6.9142E+00   2.5335E-04  0.0022
   6.9142E+00   7.0824E+00   2.5035E-04  0.0021
   7.0824E+00   7.2548E+00   2.4827E-04  0.0021
   7.2548E+00   7.4313E+00   2.4454E-04  0.0021
   7.4313E+00   7.6121E+00   2.4329E-04  0.0021
   7.6121E+00   7.7973E+00   2.4085E-04  0.0021
   7.7973E+00   7.9870E+00   2.3770E-04  0.0021
   7.9870E+00   8.1813E+00   2.3661E-04  0.0021
   8.1813E+00   8.3804E+00   2.3360E-04  0.0020
   8.3804E+00   8.5843E+00   2.3289E-04  0.0020
   8.5843E+00   8.7931E+00   2.2868E-04  0.0020
   8.7931E+00   9.0071E+00   2.2537E-04  0.0020
   9.0071E+00   9.2262E+00   2.2303E-04  0.0020
   9.2262E+00   9.4507E+00   2.2087E-04  0.0020
   9.4507E+00   9.6807E+00   2.1748E-04  0.0020
   9.6807E+00   9.9162E+00   2.1523E-04  0.0020
   9.9162E+00   1.0157E+01   2.1387E-04  0.0020
   1.0157E+01   1.0405E+01   2.1329E-04  0.0019
   1.0405E+01   1.0658E+01   2.1088E-04  0.0019
   1.0658E+01   1.0917E+01   2.0990E-04  0.0019
   1.0917E+01   1.1183E+01   2.0874E-04  0.0019
   1.1183E+01   1.1455E+01   2.0743E-04  0.0019
   1.1455E+01   1.1733E+01   2.0622E-04  0.0019
   1.1733E+01   1.2019E+01   2.0369E-04  0.0018
   1.2019E+01   1.2311E+01   2.0326E-04  0.0018
   1.2311E+01   1.2611E+01   2.0142E-04  0.0018
   1.2611E+01   1.2918E+01   1.9965E-04  0.0018
   1.2918E+01   1.3232E+01   1.9894E-04  0.0018
   1.3232E+01   1.3554E+01   1.9840E-04  0.0018
   1.3554E+01   1.3884E+01   1.9683E-04  0.0017
   1.3884E+01   1.4222E+01   1.9540E-04  0.0017
   1.4222E+01   1.4568E+01   1.9352E-04  0.0017
   1.4568E+01   1.4922E+01   1.9261E-04  0.0017
   1.4922E+01   1.5285E+01   1.9115E-04  0.0017
   1.5285E+01   1.5657E+01   1.9042E-04  0.0017
   1.5657E+01   1.6038E+01   1.8795E-04  0.0017
   1.6038E+01   1.6428E+01   1.8619E-04  0.0017
   1.6428E+01   1.6828E+01   1.8458E-04  0.0016
   1.6828E+01   1.7237E+01   1.8255E-04  0.0016
   1.7237E+01   1.7657E+01   1.8030E-04  0.0016
   1.7657E+01   1.8086E+01   1.7812E-04  0.0016
   1.8086E+01   1.8526E+01   1.7566E-04  0.0016
   1.8526E+01   1.8977E+01   1.7359E-04  0.0016
   1.8977E+01   1.9439E+01   1.7179E-04  0.0016
   1.9439E+01   1.9912E+01   1.6935E-04  0.0016
   1.9912E+01   2.0396E+01   1.8052E-04  0.0015
   2.0396E+01   2.0893E+01   1.8134E-04  0.0015
   2.0893E+01   2.1401E+01   1.7835E-04  0.0015
   2.1401E+01   2.1922E+01   1.7577E-04  0.0015
   2.1922E+01   2.2455E+01   1.7388E-04  0.0015
   2.2455E+01   2.3001E+01   1.7003E-04  0.0015
   2.3001E+01   2.3561E+01   1.6728E-04  0.0015
   2.3561E+01   2.4134E+01   1.6429E-04  0.0015
   2.4134E+01   2.4721E+01   1.6099E-04  0.0015
   2.4721E+01   2.5323E+01   1.5736E-04  0.0015
   2.5323E+01   2.5939E+01   1.5419E-04  0.0015
   2.5939E+01   2.6570E+01   1.5081E-04  0.0014
   2.6570E+01   2.7217E+01   1.4671E-04  0.0015
   2.7217E+01   2.7879E+01   1.4318E-04  0.0015
   2.7879E+01   2.8557E+01   1.3903E-04  0.0015
   2.8557E+01   2.9252E+01   1.3487E-04  0.0015
   2.9252E+01   2.9964E+01   1.3041E-04  0.0015
   2.9964E+01   3.0693E+01   1.2621E-04  0.0015
   3.0693E+01   3.1440E+01   1.2179E-04  0.0015
   3.1440E+01   3.2205E+01   1.1733E-04  0.0015
   3.2205E+01   3.2988E+01   1.1302E-04  0.0015
   3.2988E+01   3.3791E+01   1.0850E-04  0.0015
   3.3791E+01   3.4613E+01   1.0448E-04  0.0015
   3.4613E+01   3.5455E+01   1.0066E-04  0.0015
   3.5455E+01   3.6318E+01   9.7227E-05  0.0015
   3.6318E+01   3.7201E+01   9.3538E-05  0.0016
   3.7201E+01   3.8106E+01   8.9598E-05  0.0016
   3.8106E+01   3.9034E+01   8.4501E-05  0.0016
   3.9034E+01   3.9983E+01   7.9083E-05  0.0016
   3.9983E+01   4.0956E+01   7.3882E-05  0.0017
   4.0956E+01   4.1953E+01   6.8493E-05  0.0017
   4.1953E+01   4.2973E+01   6.2415E-05  0.0018
   4.2973E+01   4.4019E+01   5.7136E-05  0.0018
   4.4019E+01   4.5090E+01   5.1411E-05  0.0019
   4.5090E+01   4.6187E+01   4.6785E-05  0.0020
   4.6187E+01   4.7311E+01   4.2585E-05  0.0020
   4.7311E+01   4.8462E+01   3.8565E-05  0.0021
   4.8462E+01   4.9641E+01   3.4843E-05  0.0022
   4.9641E+01   5.0849E+01   3.1268E-05  0.0023
   5.0849E+01   5.2086E+01   2.7931E-05  0.0024
   5.2086E+01   5.3353E+01   2.4673E-05  0.0025
   5.3353E+01   5.4651E+01   2.1774E-05  0.0027
   5.4651E+01   5.5981E+01   1.8942E-05  0.0028
   5.5981E+01   5.7343E+01   1.6280E-05  0.0030
   5.7343E+01   5.8738E+01   1.3863E-05  0.0032
   5.8738E+01   6.0168E+01   1.1729E-05  0.0035
   6.0168E+01   6.1632E+01   9.6637E-06  0.0038
   6.1632E+01   6.3131E+01   7.8535E-06  0.0041
   6.3131E+01   6.4667E+01   6.1771E-06  0.0046
   6.4667E+01   6.6240E+01   4.7798E-06  0.0052
   6.6240E+01   6.7852E+01   3.5183E-06  0.0059
   6.7852E+01   6.9503E+01   2.4902E-06  0.0070
   6.9503E+01   7.1194E+01   1.6289E-06  0.0085
   7.1194E+01   7.2926E+01   9.8498E-07  0.0108
   7.2926E+01   7.4701E+01   5.1534E-07  0.0148
   7.4701E+01   7.6518E+01   2.3108E-07  0.0218
   7.6518E+01   7.8380E+01   6.6389E-08  0.0402
   7.8380E+01   8.0287E+01   9.3338E-09  0.1060
   8.0287E+01   8.2240E+01   3.0715E-10  0.5774
   8.2240E+01   8.4241E+01   0.0000E+00  0.0000
   8.4241E+01   8.6291E+01   0.0000E+00  0.0000
   8.6291E+01   8.8391E+01   0.0000E+00  0.0000
   8.8391E+01   9.0541E+01   0.0000E+00  0.0000
   9.0541E+01   9.2744E+01   0.0000E+00  0.0000
   9.2744E+01   9.5001E+01   0.0000E+00  0.0000
   9.5001E+01   9.7312E+01   0.0000E+00  0.0000
   9.7312E+01   9.9680E+01   0.0000E+00  0.0000
   9.9680E+01   1.0211E+02   0.0000E+00  0.0000
   1.0211E+02   1.0459E+02   0.0000E+00  0.0000
   1.0459E+02   1.0713E+02   0.0000E+00  0.0000
   1.0713E+02   1.0974E+02   0.0000E+00  0.0000
   1.0974E+02   1.1241E+02   0.0000E+00  0.0000
   1.1241E+02   1.1515E+02   0.0000E+00  0.0000
   1.1515E+02   1.1795E+02   0.0000E+00  0.0000
   1.1795E+02   1.2082E+02   0.0000E+00  0.0000
   1.2082E+02   1.2376E+02   0.0000E+00  0.0000
   1.2376E+02   1.2677E+02   0.0000E+00  0.0000
   1.2677E+02   1.2985E+02   0.0000E+00  0.0000
   1.2985E+02   1.3301E+02   0.0000E+00  0.0000
   1.3301E+02   1.3625E+02   0.0000E+00  0.0000
   1.3625E+02   1.3956E+02   0.0000E+00  0.0000
   1.3956E+02   1.4296E+02   0.0000E+00  0.0000
   1.4296E+02   1.4644E+02   0.0000E+00  0.0000
   1.4644E+02   1.5000E+02   0.0000E+00  0.0000

#   sum over                 5.5945E-05
'no. =    1   reg = 109 - 209'
msuc: {\huge [t-cross] in region mesh}
msdr: {\it plotted by \ANGEL \version}
msdl: {\it calculated by \PHITS  3.26}
wt: s(0.7)
\vspace{-3}
  region surface crossing
  area  &=&   1.0000E+00 [cm^2]
e:
 
# Information for Restart Calculation
# This calculation was newly started
# istdev =  2 # 1:Batch variance, 2:History variance
# resc2  = 5.00000000000000000E+09 # Total source weight or Total source weight / maxcas
# resc3  = 5.00000000000000000E+09 # Total history number or Total batch number
# maxcas =   100000000 # History / Batch, only used for istdev=1
# bitrseed = 0110100000100010111000001110001111001110100100011111101000111001 # bit data of rseed
