[ T-Cross ]
    title = [t-cross] in region mesh
     mesh =  reg            # mesh type is region-wise
      reg =    1            # number of crossing regions
      non     r-from    r-to       area
      1       115       215        1.000000    
   e-type =    3            # e-mesh is log given by emin, emax and ne
     emin =  1.0000000E-02  # minimum value of e-mesh points
     emax =   150.0000      # maximum value of e-mesh points
#    edel =  2.4039514E-02  # mesh width of e-mesh points
       ne =    400          # number of e-mesh points
#    data = ( e(i), i = 1, ne + 1 )
#           1.00000E-02  1.02433E-02  1.04925E-02  1.07478E-02  1.10093E-02
#           1.12772E-02  1.15516E-02  1.18326E-02  1.21205E-02  1.24154E-02
#           1.27175E-02  1.30269E-02  1.33439E-02  1.36686E-02  1.40011E-02
#           1.43418E-02  1.46907E-02  1.50482E-02  1.54143E-02  1.57894E-02
#           1.61735E-02  1.65670E-02  1.69701E-02  1.73830E-02  1.78060E-02
#           1.82392E-02  1.86830E-02  1.91375E-02  1.96032E-02  2.00801E-02
#           2.05687E-02  2.10692E-02  2.15818E-02  2.21069E-02  2.26448E-02
#           2.31957E-02  2.37601E-02  2.43382E-02  2.49304E-02  2.55369E-02
#           2.61583E-02  2.67947E-02  2.74467E-02  2.81145E-02  2.87985E-02
#           2.94992E-02  3.02169E-02  3.09521E-02  3.17052E-02  3.24766E-02
#           3.32668E-02  3.40762E-02  3.49053E-02  3.57546E-02  3.66246E-02
#           3.75157E-02  3.84284E-02  3.93634E-02  4.03212E-02  4.13022E-02
#           4.23071E-02  4.33365E-02  4.43909E-02  4.54710E-02  4.65773E-02
#           4.77106E-02  4.88714E-02  5.00605E-02  5.12785E-02  5.25262E-02
#           5.38042E-02  5.51133E-02  5.64542E-02  5.78278E-02  5.92348E-02
#           6.06760E-02  6.21523E-02  6.36645E-02  6.52135E-02  6.68002E-02
#           6.84255E-02  7.00904E-02  7.17957E-02  7.35426E-02  7.53319E-02
#           7.71648E-02  7.90423E-02  8.09655E-02  8.29354E-02  8.49533E-02
#           8.70203E-02  8.91376E-02  9.13064E-02  9.35279E-02  9.58035E-02
#           9.81345E-02  1.00522E-01  1.02968E-01  1.05473E-01  1.08040E-01
#           1.10668E-01  1.13361E-01  1.16119E-01  1.18944E-01  1.21838E-01
#           1.24803E-01  1.27839E-01  1.30950E-01  1.34136E-01  1.37399E-01
#           1.40742E-01  1.44167E-01  1.47675E-01  1.51268E-01  1.54948E-01
#           1.58718E-01  1.62580E-01  1.66535E-01  1.70587E-01  1.74738E-01
#           1.78989E-01  1.83344E-01  1.87805E-01  1.92375E-01  1.97055E-01
#           2.01850E-01  2.06761E-01  2.11792E-01  2.16945E-01  2.22223E-01
#           2.27630E-01  2.33169E-01  2.38842E-01  2.44653E-01  2.50605E-01
#           2.56703E-01  2.62949E-01  2.69346E-01  2.75900E-01  2.82613E-01
#           2.89489E-01  2.96532E-01  3.03747E-01  3.11138E-01  3.18708E-01
#           3.26462E-01  3.34405E-01  3.42542E-01  3.50876E-01  3.59413E-01
#           3.68158E-01  3.77116E-01  3.86291E-01  3.95690E-01  4.05317E-01
#           4.15179E-01  4.25281E-01  4.35628E-01  4.46227E-01  4.57084E-01
#           4.68205E-01  4.79597E-01  4.91266E-01  5.03219E-01  5.15463E-01
#           5.28005E-01  5.40851E-01  5.54011E-01  5.67490E-01  5.81298E-01
#           5.95441E-01  6.09929E-01  6.24769E-01  6.39970E-01  6.55541E-01
#           6.71491E-01  6.87828E-01  7.04564E-01  7.21706E-01  7.39266E-01
#           7.57253E-01  7.75678E-01  7.94551E-01  8.13883E-01  8.33685E-01
#           8.53969E-01  8.74747E-01  8.96030E-01  9.17831E-01  9.40163E-01
#           9.63038E-01  9.86469E-01  1.01047E+00  1.03506E+00  1.06024E+00
#           1.08604E+00  1.11246E+00  1.13953E+00  1.16725E+00  1.19565E+00
#           1.22474E+00  1.25454E+00  1.28507E+00  1.31633E+00  1.34836E+00
#           1.38117E+00  1.41477E+00  1.44920E+00  1.48446E+00  1.52057E+00
#           1.55757E+00  1.59547E+00  1.63429E+00  1.67405E+00  1.71478E+00
#           1.75650E+00  1.79924E+00  1.84302E+00  1.88786E+00  1.93379E+00
#           1.98084E+00  2.02904E+00  2.07841E+00  2.12898E+00  2.18078E+00
#           2.23384E+00  2.28819E+00  2.34386E+00  2.40089E+00  2.45930E+00
#           2.51914E+00  2.58043E+00  2.64322E+00  2.70753E+00  2.77341E+00
#           2.84088E+00  2.91001E+00  2.98081E+00  3.05333E+00  3.12762E+00
#           3.20372E+00  3.28167E+00  3.36152E+00  3.44330E+00  3.52708E+00
#           3.61290E+00  3.70080E+00  3.79085E+00  3.88308E+00  3.97756E+00
#           4.07434E+00  4.17347E+00  4.27501E+00  4.37903E+00  4.48557E+00
#           4.59471E+00  4.70650E+00  4.82102E+00  4.93832E+00  5.05847E+00
#           5.18155E+00  5.30762E+00  5.43676E+00  5.56904E+00  5.70453E+00
#           5.84333E+00  5.98550E+00  6.13114E+00  6.28031E+00  6.43312E+00
#           6.58964E+00  6.74997E+00  6.91420E+00  7.08243E+00  7.25475E+00
#           7.43126E+00  7.61207E+00  7.79728E+00  7.98700E+00  8.18133E+00
#           8.38038E+00  8.58428E+00  8.79315E+00  9.00709E+00  9.22624E+00
#           9.45072E+00  9.68067E+00  9.91620E+00  1.01575E+01  1.04046E+01
#           1.06578E+01  1.09171E+01  1.11827E+01  1.14548E+01  1.17335E+01
#           1.20190E+01  1.23114E+01  1.26109E+01  1.29178E+01  1.32321E+01
#           1.35540E+01  1.38838E+01  1.42216E+01  1.45676E+01  1.49221E+01
#           1.52851E+01  1.56570E+01  1.60380E+01  1.64282E+01  1.68279E+01
#           1.72374E+01  1.76568E+01  1.80864E+01  1.85264E+01  1.89772E+01
#           1.94389E+01  1.99119E+01  2.03963E+01  2.08926E+01  2.14009E+01
#           2.19216E+01  2.24550E+01  2.30014E+01  2.35610E+01  2.41343E+01
#           2.47215E+01  2.53230E+01  2.59391E+01  2.65702E+01  2.72167E+01
#           2.78789E+01  2.85572E+01  2.92520E+01  2.99637E+01  3.06928E+01
#           3.14396E+01  3.22045E+01  3.29881E+01  3.37907E+01  3.46128E+01
#           3.54550E+01  3.63177E+01  3.72013E+01  3.81064E+01  3.90336E+01
#           3.99833E+01  4.09561E+01  4.19526E+01  4.29734E+01  4.40189E+01
#           4.50900E+01  4.61870E+01  4.73108E+01  4.84619E+01  4.96410E+01
#           5.08488E+01  5.20860E+01  5.33533E+01  5.46514E+01  5.59812E+01
#           5.73432E+01  5.87384E+01  6.01676E+01  6.16315E+01  6.31311E+01
#           6.46671E+01  6.62405E+01  6.78522E+01  6.95031E+01  7.11941E+01
#           7.29263E+01  7.47007E+01  7.65182E+01  7.83800E+01  8.02870E+01
#           8.22405E+01  8.42414E+01  8.62911E+01  8.83906E+01  9.05412E+01
#           9.27442E+01  9.50007E+01  9.73122E+01  9.96799E+01  1.02105E+02
#           1.04589E+02  1.07134E+02  1.09741E+02  1.12411E+02  1.15146E+02
#           1.17948E+02  1.20817E+02  1.23757E+02  1.26768E+02  1.29852E+02
#           1.33012E+02  1.36248E+02  1.39563E+02  1.42959E+02  1.46437E+02
#           1.50000E+02
     unit =    2            # unit is [1/cm^2/(MeV/n)/source]
     axis =  eng            # axis of output
     file = detector-16.out  # file name of output for the above axis
   output = f-curr          # surface crossing forward current spectrum
     part =  neutron  
# kf/name :  2112     
#    used :        main (  %)        temp (  %)       total (  %)
#  memory :         414 (  0)           0 (  0)         414 (  0)

#------------------------------------------------------------------------------
#newpage:
#   no. =    1   reg = 115 - 215

x: Energy [MeV/n]
y:  F-Curr [1/cm^2/(MeV/n)/source]         
p: xlog ylog afac(0.8) form(0.9)
h: n            x            y(neutron ),hh0l   n 
#  e-lower      e-upper      neutron     r.err 
   1.0000E-02   1.0243E-02   0.0000E+00  0.0000
   1.0243E-02   1.0493E-02   0.0000E+00  0.0000
   1.0493E-02   1.0748E-02   0.0000E+00  0.0000
   1.0748E-02   1.1009E-02   7.6481E-07  1.0000
   1.1009E-02   1.1277E-02   7.4664E-07  1.0000
   1.1277E-02   1.1552E-02   2.4725E-07  1.0000
   1.1552E-02   1.1833E-02   9.8097E-08  1.0000
   1.1833E-02   1.2121E-02   6.9469E-07  1.0000
   1.2121E-02   1.2415E-02   0.0000E+00  0.0000
   1.2415E-02   1.2718E-02   1.3242E-06  0.7071
   1.2718E-02   1.3027E-02   6.4636E-07  1.0000
   1.3027E-02   1.3344E-02   1.8925E-06  0.5774
   1.3344E-02   1.3669E-02   0.0000E+00  0.0000
   1.3669E-02   1.4001E-02   0.0000E+00  0.0000
   1.4001E-02   1.4342E-02   0.0000E+00  0.0000
   1.4342E-02   1.4691E-02   5.7315E-07  1.0000
   1.4691E-02   1.5048E-02   0.0000E+00  0.0000
   1.5048E-02   1.5414E-02   0.0000E+00  0.0000
   1.5414E-02   1.5789E-02   5.3327E-07  1.0000
   1.5789E-02   1.6174E-02   0.0000E+00  0.0000
   1.6174E-02   1.6567E-02   0.0000E+00  0.0000
   1.6567E-02   1.6970E-02   0.0000E+00  0.0000
   1.6970E-02   1.7383E-02   0.0000E+00  0.0000
   1.7383E-02   1.7806E-02   4.7288E-07  1.0000
   1.7806E-02   1.8239E-02   4.6165E-07  1.0000
   1.8239E-02   1.8683E-02   0.0000E+00  0.0000
   1.8683E-02   1.9138E-02   4.3997E-07  1.0000
   1.9138E-02   1.9603E-02   0.0000E+00  0.0000
   1.9603E-02   2.0080E-02   8.3864E-07  0.7071
   2.0080E-02   2.0569E-02   1.7408E-06  0.4370
   2.0569E-02   2.1069E-02   5.9946E-07  0.7454
   2.1069E-02   2.1582E-02   1.3655E-06  0.5151
   2.1582E-02   2.2107E-02   8.5268E-07  0.6100
   2.2107E-02   2.2645E-02   3.7183E-07  1.0000
   2.2645E-02   2.3196E-02   0.0000E+00  0.0000
   2.3196E-02   2.3760E-02   1.0567E-06  0.5774
   2.3760E-02   2.4338E-02   6.9192E-07  0.7071
   2.4338E-02   2.4930E-02   2.0863E-06  0.3976
   2.4930E-02   2.5537E-02   9.8916E-07  0.5774
   2.5537E-02   2.6158E-02   5.4736E-07  0.6356
   2.6158E-02   2.6795E-02   2.7860E-06  0.3336
   2.6795E-02   2.7447E-02   1.3711E-06  0.4536
   2.7447E-02   2.8114E-02   1.1980E-06  0.5000
   2.8114E-02   2.8799E-02   1.2520E-06  0.4717
   2.8799E-02   2.9499E-02   1.7000E-06  0.3839
   2.9499E-02   3.0217E-02   1.4094E-06  0.4100
   3.0217E-02   3.0952E-02   2.2411E-06  0.3445
   3.0952E-02   3.1705E-02   1.2680E-06  0.4269
   3.1705E-02   3.2477E-02   2.5449E-06  0.3086
   3.2477E-02   3.3267E-02   1.8563E-06  0.3622
   3.3267E-02   3.4076E-02   2.7477E-06  0.2898
   3.4076E-02   3.4905E-02   1.8638E-06  0.3470
   3.4905E-02   3.5755E-02   1.2952E-06  0.4166
   3.5755E-02   3.6625E-02   2.2582E-06  0.3084
   3.6625E-02   3.7516E-02   1.1894E-06  0.4238
   3.7516E-02   3.8428E-02   2.1682E-06  0.3164
   3.8428E-02   3.9363E-02   2.1671E-06  0.3089
   3.9363E-02   4.0321E-02   2.7720E-06  0.2659
   4.0321E-02   4.1302E-02   2.6108E-06  0.2708
   4.1302E-02   4.2307E-02   3.7842E-06  0.2210
   4.2307E-02   4.3337E-02   4.1108E-06  0.2125
   4.3337E-02   4.4391E-02   2.1450E-06  0.2939
   4.4391E-02   4.5471E-02   3.5637E-06  0.2223
   4.5471E-02   4.6577E-02   3.5850E-06  0.2201
   4.6577E-02   4.7711E-02   5.1639E-06  0.1799
   4.7711E-02   4.8871E-02   3.7546E-06  0.2048
   4.8871E-02   5.0061E-02   3.4265E-06  0.2159
   5.0061E-02   5.1279E-02   2.9679E-06  0.2307
   5.1279E-02   5.2526E-02   4.1410E-06  0.1903
   5.2526E-02   5.3804E-02   5.3058E-06  0.1656
   5.3804E-02   5.5113E-02   4.1470E-06  0.1837
   5.5113E-02   5.6454E-02   4.4416E-06  0.1751
   5.6454E-02   5.7828E-02   5.8530E-06  0.1544
   5.7828E-02   5.9235E-02   5.6899E-06  0.1553
   5.9235E-02   6.0676E-02   5.7346E-06  0.1514
   6.0676E-02   6.2152E-02   6.7058E-06  0.1386
   6.2152E-02   6.3665E-02   5.9887E-06  0.1436
   6.3665E-02   6.5214E-02   6.5262E-06  0.1350
   6.5214E-02   6.6800E-02   5.2575E-06  0.1509
   6.6800E-02   6.8426E-02   5.8715E-06  0.1394
   6.8426E-02   7.0090E-02   6.1550E-06  0.1372
   7.0090E-02   7.1796E-02   7.6766E-06  0.1204
   7.1796E-02   7.3543E-02   7.4480E-06  0.1193
   7.3543E-02   7.5332E-02   8.3985E-06  0.1123
   7.5332E-02   7.7165E-02   7.7018E-06  0.1160
   7.7165E-02   7.9042E-02   9.6251E-06  0.1021
   7.9042E-02   8.0965E-02   8.8279E-06  0.1057
   8.0965E-02   8.2935E-02   9.4413E-06  0.0997
   8.2935E-02   8.4953E-02   9.8677E-06  0.0969
   8.4953E-02   8.7020E-02   9.4824E-06  0.0986
   8.7020E-02   8.9138E-02   9.6710E-06  0.0956
   8.9138E-02   9.1306E-02   1.1483E-05  0.0874
   9.1306E-02   9.3528E-02   1.0417E-05  0.0900
   9.3528E-02   9.5804E-02   1.1537E-05  0.0848
   9.5804E-02   9.8134E-02   1.4566E-05  0.0735
   9.8134E-02   1.0052E-01   1.3971E-05  0.0753
   1.0052E-01   1.0297E-01   1.3862E-05  0.0744
   1.0297E-01   1.0547E-01   1.3461E-05  0.0745
   1.0547E-01   1.0804E-01   1.3521E-05  0.0733
   1.0804E-01   1.1067E-01   1.6768E-05  0.0653
   1.1067E-01   1.1336E-01   1.6252E-05  0.0659
   1.1336E-01   1.1612E-01   1.5537E-05  0.0661
   1.1612E-01   1.1894E-01   1.9828E-05  0.0578
   1.1894E-01   1.2184E-01   1.8190E-05  0.0599
   1.2184E-01   1.2480E-01   2.0744E-05  0.0553
   1.2480E-01   1.2784E-01   1.7936E-05  0.0586
   1.2784E-01   1.3095E-01   2.0628E-05  0.0540
   1.3095E-01   1.3414E-01   2.2148E-05  0.0517
   1.3414E-01   1.3740E-01   2.3169E-05  0.0502
   1.3740E-01   1.4074E-01   2.4521E-05  0.0478
   1.4074E-01   1.4417E-01   2.5198E-05  0.0466
   1.4417E-01   1.4767E-01   2.7103E-05  0.0447
   1.4767E-01   1.5127E-01   2.6490E-05  0.0445
   1.5127E-01   1.5495E-01   2.8861E-05  0.0421
   1.5495E-01   1.5872E-01   3.0086E-05  0.0407
   1.5872E-01   1.6258E-01   3.0114E-05  0.0404
   1.6258E-01   1.6654E-01   2.9901E-05  0.0398
   1.6654E-01   1.7059E-01   3.3863E-05  0.0372
   1.7059E-01   1.7474E-01   3.5753E-05  0.0357
   1.7474E-01   1.7899E-01   3.5926E-05  0.0351
   1.7899E-01   1.8334E-01   3.7261E-05  0.0341
   1.8334E-01   1.8781E-01   4.1187E-05  0.0321
   1.8781E-01   1.9237E-01   4.3469E-05  0.0308
   1.9237E-01   1.9706E-01   4.3903E-05  0.0304
   1.9706E-01   2.0185E-01   4.2654E-05  0.0303
   2.0185E-01   2.0676E-01   4.4416E-05  0.0294
   2.0676E-01   2.1179E-01   5.1667E-05  0.0270
   2.1179E-01   2.1694E-01   5.1423E-05  0.0268
   2.1694E-01   2.2222E-01   5.2322E-05  0.0262
   2.2222E-01   2.2763E-01   5.4686E-05  0.0253
   2.2763E-01   2.3317E-01   5.5377E-05  0.0248
   2.3317E-01   2.3884E-01   6.3541E-05  0.0230
   2.3884E-01   2.4465E-01   6.2276E-05  0.0228
   2.4465E-01   2.5061E-01   6.4940E-05  0.0222
   2.5061E-01   2.5670E-01   6.8567E-05  0.0213
   2.5670E-01   2.6295E-01   6.9968E-05  0.0209
   2.6295E-01   2.6935E-01   7.4463E-05  0.0200
   2.6935E-01   2.7590E-01   7.6476E-05  0.0195
   2.7590E-01   2.8261E-01   7.7618E-05  0.0191
   2.8261E-01   2.8949E-01   8.3905E-05  0.0182
   2.8949E-01   2.9653E-01   8.6561E-05  0.0177
   2.9653E-01   3.0375E-01   8.7798E-05  0.0174
   3.0375E-01   3.1114E-01   9.1736E-05  0.0168
   3.1114E-01   3.1871E-01   9.5809E-05  0.0162
   3.1871E-01   3.2646E-01   1.0011E-04  0.0157
   3.2646E-01   3.3441E-01   1.0357E-04  0.0153
   3.3441E-01   3.4254E-01   1.0918E-04  0.0147
   3.4254E-01   3.5088E-01   1.1066E-04  0.0144
   3.5088E-01   3.5941E-01   1.1220E-04  0.0142
   3.5941E-01   3.6816E-01   1.2089E-04  0.0135
   3.6816E-01   3.7712E-01   1.2357E-04  0.0132
   3.7712E-01   3.8629E-01   1.2882E-04  0.0128
   3.8629E-01   3.9569E-01   1.3275E-04  0.0124
   3.9569E-01   4.0532E-01   1.3864E-04  0.0120
   4.0532E-01   4.1518E-01   1.4393E-04  0.0117
   4.1518E-01   4.2528E-01   1.4890E-04  0.0113
   4.2528E-01   4.3563E-01   1.5261E-04  0.0111
   4.3563E-01   4.4623E-01   1.5714E-04  0.0108
   4.4623E-01   4.5708E-01   1.6363E-04  0.0105
   4.5708E-01   4.6821E-01   1.6899E-04  0.0102
   4.6821E-01   4.7960E-01   1.7482E-04  0.0099
   4.7960E-01   4.9127E-01   1.8075E-04  0.0096
   4.9127E-01   5.0322E-01   1.8570E-04  0.0094
   5.0322E-01   5.1546E-01   1.9281E-04  0.0091
   5.1546E-01   5.2800E-01   2.0096E-04  0.0088
   5.2800E-01   5.4085E-01   2.0739E-04  0.0086
   5.4085E-01   5.5401E-01   2.1777E-04  0.0083
   5.5401E-01   5.6749E-01   2.2347E-04  0.0081
   5.6749E-01   5.8130E-01   2.3132E-04  0.0078
   5.8130E-01   5.9544E-01   2.3944E-04  0.0076
   5.9544E-01   6.0993E-01   2.4617E-04  0.0074
   6.0993E-01   6.2477E-01   2.5455E-04  0.0072
   6.2477E-01   6.3997E-01   2.5916E-04  0.0070
   6.3997E-01   6.5554E-01   2.7063E-04  0.0068
   6.5554E-01   6.7149E-01   2.7683E-04  0.0067
   6.7149E-01   6.8783E-01   2.9007E-04  0.0064
   6.8783E-01   7.0456E-01   2.9631E-04  0.0063
   7.0456E-01   7.2171E-01   3.0377E-04  0.0061
   7.2171E-01   7.3927E-01   3.1869E-04  0.0059
   7.3927E-01   7.5725E-01   3.2392E-04  0.0058
   7.5725E-01   7.7568E-01   3.3490E-04  0.0056
   7.7568E-01   7.9455E-01   3.4452E-04  0.0055
   7.9455E-01   8.1388E-01   3.5093E-04  0.0054
   8.1388E-01   8.3368E-01   3.6101E-04  0.0052
   8.3368E-01   8.5397E-01   3.6799E-04  0.0051
   8.5397E-01   8.7475E-01   3.8205E-04  0.0050
   8.7475E-01   8.9603E-01   3.9132E-04  0.0048
   8.9603E-01   9.1783E-01   3.9786E-04  0.0047
   9.1783E-01   9.4016E-01   4.0726E-04  0.0046
   9.4016E-01   9.6304E-01   4.1248E-04  0.0045
   9.6304E-01   9.8647E-01   4.1688E-04  0.0045
   9.8647E-01   1.0105E+00   4.2131E-04  0.0044
   1.0105E+00   1.0351E+00   4.1925E-04  0.0043
   1.0351E+00   1.0602E+00   4.1457E-04  0.0043
   1.0602E+00   1.0860E+00   4.1188E-04  0.0043
   1.0860E+00   1.1125E+00   4.0874E-04  0.0042
   1.1125E+00   1.1395E+00   4.1211E-04  0.0042
   1.1395E+00   1.1673E+00   4.1244E-04  0.0041
   1.1673E+00   1.1957E+00   4.1846E-04  0.0040
   1.1957E+00   1.2247E+00   4.2306E-04  0.0040
   1.2247E+00   1.2545E+00   4.1563E-04  0.0040
   1.2545E+00   1.2851E+00   4.1204E-04  0.0039
   1.2851E+00   1.3163E+00   4.1019E-04  0.0039
   1.3163E+00   1.3484E+00   4.0645E-04  0.0039
   1.3484E+00   1.3812E+00   4.0996E-04  0.0038
   1.3812E+00   1.4148E+00   4.1106E-04  0.0037
   1.4148E+00   1.4492E+00   4.1200E-04  0.0037
   1.4492E+00   1.4845E+00   4.0753E-04  0.0037
   1.4845E+00   1.5206E+00   4.0885E-04  0.0036
   1.5206E+00   1.5576E+00   4.0549E-04  0.0036
   1.5576E+00   1.5955E+00   4.0072E-04  0.0036
   1.5955E+00   1.6343E+00   3.9596E-04  0.0035
   1.6343E+00   1.6741E+00   3.8881E-04  0.0035
   1.6741E+00   1.7148E+00   3.8546E-04  0.0035
   1.7148E+00   1.7565E+00   3.8190E-04  0.0035
   1.7565E+00   1.7992E+00   3.8056E-04  0.0034
   1.7992E+00   1.8430E+00   3.8003E-04  0.0034
   1.8430E+00   1.8879E+00   3.7276E-04  0.0034
   1.8879E+00   1.9338E+00   3.6905E-04  0.0034
   1.9338E+00   1.9808E+00   3.6576E-04  0.0033
   1.9808E+00   2.0290E+00   3.6497E-04  0.0033
   2.0290E+00   2.0784E+00   3.5968E-04  0.0033
   2.0784E+00   2.1290E+00   3.5497E-04  0.0033
   2.1290E+00   2.1808E+00   3.4984E-04  0.0032
   2.1808E+00   2.2338E+00   3.4645E-04  0.0032
   2.2338E+00   2.2882E+00   3.3932E-04  0.0032
   2.2882E+00   2.3439E+00   3.3304E-04  0.0032
   2.3439E+00   2.4009E+00   3.2629E-04  0.0032
   2.4009E+00   2.4593E+00   3.1957E-04  0.0032
   2.4593E+00   2.5191E+00   3.1533E-04  0.0032
   2.5191E+00   2.5804E+00   3.0657E-04  0.0032
   2.5804E+00   2.6432E+00   2.9768E-04  0.0032
   2.6432E+00   2.7075E+00   2.9137E-04  0.0031
   2.7075E+00   2.7734E+00   2.8563E-04  0.0031
   2.7734E+00   2.8409E+00   2.8118E-04  0.0031
   2.8409E+00   2.9100E+00   2.7411E-04  0.0031
   2.9100E+00   2.9808E+00   2.6933E-04  0.0031
   2.9808E+00   3.0533E+00   2.6245E-04  0.0031
   3.0533E+00   3.1276E+00   2.5687E-04  0.0031
   3.1276E+00   3.2037E+00   2.4985E-04  0.0031
   3.2037E+00   3.2817E+00   2.4244E-04  0.0031
   3.2817E+00   3.3615E+00   2.3737E-04  0.0031
   3.3615E+00   3.4433E+00   2.3128E-04  0.0031
   3.4433E+00   3.5271E+00   2.2502E-04  0.0031
   3.5271E+00   3.6129E+00   2.1999E-04  0.0031
   3.6129E+00   3.7008E+00   2.1318E-04  0.0031
   3.7008E+00   3.7908E+00   2.0636E-04  0.0032
   3.7908E+00   3.8831E+00   2.0004E-04  0.0032
   3.8831E+00   3.9776E+00   1.9079E-04  0.0032
   3.9776E+00   4.0743E+00   1.8434E-04  0.0032
   4.0743E+00   4.1735E+00   1.7637E-04  0.0032
   4.1735E+00   4.2750E+00   1.6980E-04  0.0033
   4.2750E+00   4.3790E+00   1.6376E-04  0.0033
   4.3790E+00   4.4856E+00   1.5947E-04  0.0033
   4.4856E+00   4.5947E+00   1.5366E-04  0.0033
   4.5947E+00   4.7065E+00   1.5017E-04  0.0033
   4.7065E+00   4.8210E+00   1.4449E-04  0.0033
   4.8210E+00   4.9383E+00   1.4008E-04  0.0033
   4.9383E+00   5.0585E+00   1.3510E-04  0.0034
   5.0585E+00   5.1815E+00   1.3281E-04  0.0034
   5.1815E+00   5.3076E+00   1.2818E-04  0.0034
   5.3076E+00   5.4368E+00   1.2456E-04  0.0034
   5.4368E+00   5.5690E+00   1.1954E-04  0.0034
   5.5690E+00   5.7045E+00   1.1637E-04  0.0034
   5.7045E+00   5.8433E+00   1.1265E-04  0.0034
   5.8433E+00   5.9855E+00   1.1021E-04  0.0034
   5.9855E+00   6.1311E+00   1.0687E-04  0.0035
   6.1311E+00   6.2803E+00   1.0478E-04  0.0035
   6.2803E+00   6.4331E+00   1.0181E-04  0.0035
   6.4331E+00   6.5896E+00   9.9906E-05  0.0035
   6.5896E+00   6.7500E+00   9.6999E-05  0.0035
   6.7500E+00   6.9142E+00   9.5098E-05  0.0035
   6.9142E+00   7.0824E+00   9.2656E-05  0.0035
   7.0824E+00   7.2548E+00   9.0633E-05  0.0035
   7.2548E+00   7.4313E+00   8.8747E-05  0.0035
   7.4313E+00   7.6121E+00   8.6822E-05  0.0035
   7.6121E+00   7.7973E+00   8.5197E-05  0.0035
   7.7973E+00   7.9870E+00   8.2965E-05  0.0035
   7.9870E+00   8.1813E+00   8.0915E-05  0.0035
   8.1813E+00   8.3804E+00   7.8493E-05  0.0035
   8.3804E+00   8.5843E+00   7.6986E-05  0.0035
   8.5843E+00   8.7931E+00   7.4265E-05  0.0035
   8.7931E+00   9.0071E+00   7.1628E-05  0.0035
   9.0071E+00   9.2262E+00   6.8944E-05  0.0036
   9.2262E+00   9.4507E+00   6.6662E-05  0.0036
   9.4507E+00   9.6807E+00   6.4367E-05  0.0036
   9.6807E+00   9.9162E+00   6.2636E-05  0.0036
   9.9162E+00   1.0157E+01   6.0428E-05  0.0036
   1.0157E+01   1.0405E+01   5.8394E-05  0.0037
   1.0405E+01   1.0658E+01   5.6614E-05  0.0037
   1.0658E+01   1.0917E+01   5.5100E-05  0.0037
   1.0917E+01   1.1183E+01   5.3425E-05  0.0037
   1.1183E+01   1.1455E+01   5.1569E-05  0.0037
   1.1455E+01   1.1733E+01   4.9630E-05  0.0037
   1.1733E+01   1.2019E+01   4.7892E-05  0.0038
   1.2019E+01   1.2311E+01   4.6022E-05  0.0038
   1.2311E+01   1.2611E+01   4.4285E-05  0.0038
   1.2611E+01   1.2918E+01   4.2751E-05  0.0038
   1.2918E+01   1.3232E+01   4.1294E-05  0.0039
   1.3232E+01   1.3554E+01   3.9477E-05  0.0039
   1.3554E+01   1.3884E+01   3.7679E-05  0.0040
   1.3884E+01   1.4222E+01   3.6023E-05  0.0040
   1.4222E+01   1.4568E+01   3.4617E-05  0.0040
   1.4568E+01   1.4922E+01   3.3106E-05  0.0041
   1.4922E+01   1.5285E+01   3.1711E-05  0.0041
   1.5285E+01   1.5657E+01   3.0189E-05  0.0042
   1.5657E+01   1.6038E+01   2.8755E-05  0.0042
   1.6038E+01   1.6428E+01   2.6951E-05  0.0043
   1.6428E+01   1.6828E+01   2.5710E-05  0.0044
   1.6828E+01   1.7237E+01   2.3980E-05  0.0045
   1.7237E+01   1.7657E+01   2.2405E-05  0.0046
   1.7657E+01   1.8086E+01   2.0780E-05  0.0047
   1.8086E+01   1.8526E+01   1.9565E-05  0.0048
   1.8526E+01   1.8977E+01   1.8544E-05  0.0049
   1.8977E+01   1.9439E+01   1.7435E-05  0.0050
   1.9439E+01   1.9912E+01   1.6423E-05  0.0051
   1.9912E+01   2.0396E+01   1.6949E-05  0.0049
   2.0396E+01   2.0893E+01   1.6089E-05  0.0050
   2.0893E+01   2.1401E+01   1.5042E-05  0.0051
   2.1401E+01   2.1922E+01   1.4185E-05  0.0052
   2.1922E+01   2.2455E+01   1.3476E-05  0.0053
   2.2455E+01   2.3001E+01   1.2430E-05  0.0054
   2.3001E+01   2.3561E+01   1.1593E-05  0.0056
   2.3561E+01   2.4134E+01   1.0911E-05  0.0057
   2.4134E+01   2.4721E+01   9.9713E-06  0.0058
   2.4721E+01   2.5323E+01   9.2886E-06  0.0060
   2.5323E+01   2.5939E+01   8.4885E-06  0.0062
   2.5939E+01   2.6570E+01   7.7551E-06  0.0064
   2.6570E+01   2.7217E+01   7.2102E-06  0.0066
   2.7217E+01   2.7879E+01   6.5593E-06  0.0068
   2.7879E+01   2.8557E+01   5.9978E-06  0.0070
   2.8557E+01   2.9252E+01   5.4374E-06  0.0073
   2.9252E+01   2.9964E+01   4.9199E-06  0.0076
   2.9964E+01   3.0693E+01   4.4349E-06  0.0079
   3.0693E+01   3.1440E+01   4.0111E-06  0.0082
   3.1440E+01   3.2205E+01   3.5435E-06  0.0086
   3.2205E+01   3.2988E+01   3.1985E-06  0.0089
   3.2988E+01   3.3791E+01   2.7834E-06  0.0095
   3.3791E+01   3.4613E+01   2.4949E-06  0.0099
   3.4613E+01   3.5455E+01   2.1815E-06  0.0104
   3.5455E+01   3.6318E+01   1.8487E-06  0.0112
   3.6318E+01   3.7201E+01   1.6828E-06  0.0116
   3.7201E+01   3.8106E+01   1.4221E-06  0.0125
   3.8106E+01   3.9034E+01   1.2479E-06  0.0131
   3.9034E+01   3.9983E+01   1.0470E-06  0.0142
   3.9983E+01   4.0956E+01   9.1507E-07  0.0150
   4.0956E+01   4.1953E+01   8.0502E-07  0.0158
   4.1953E+01   4.2973E+01   6.6070E-07  0.0172
   4.2973E+01   4.4019E+01   5.5414E-07  0.0186
   4.4019E+01   4.5090E+01   4.6349E-07  0.0201
   4.5090E+01   4.6187E+01   3.8265E-07  0.0218
   4.6187E+01   4.7311E+01   2.9116E-07  0.0247
   4.7311E+01   4.8462E+01   2.6687E-07  0.0255
   4.8462E+01   4.9641E+01   2.1525E-07  0.0281
   4.9641E+01   5.0849E+01   1.5483E-07  0.0327
   5.0849E+01   5.2086E+01   1.1833E-07  0.0370
   5.2086E+01   5.3353E+01   9.4374E-08  0.0409
   5.3353E+01   5.4651E+01   6.6095E-08  0.0483
   5.4651E+01   5.5981E+01   4.2566E-08  0.0594
   5.5981E+01   5.7343E+01   3.3479E-08  0.0662
   5.7343E+01   5.8738E+01   2.0642E-08  0.0833
   5.8738E+01   6.0168E+01   9.7960E-09  0.1195
   6.0168E+01   6.1632E+01   5.3281E-09  0.1601
   6.1632E+01   6.3131E+01   9.3362E-10  0.3780
   6.3131E+01   6.4667E+01   5.2082E-10  0.5000
   6.4667E+01   6.6240E+01   1.2711E-10  1.0000
   6.6240E+01   6.7852E+01   0.0000E+00  0.0000
   6.7852E+01   6.9503E+01   0.0000E+00  0.0000
   6.9503E+01   7.1194E+01   0.0000E+00  0.0000
   7.1194E+01   7.2926E+01   0.0000E+00  0.0000
   7.2926E+01   7.4701E+01   0.0000E+00  0.0000
   7.4701E+01   7.6518E+01   0.0000E+00  0.0000
   7.6518E+01   7.8380E+01   0.0000E+00  0.0000
   7.8380E+01   8.0287E+01   0.0000E+00  0.0000
   8.0287E+01   8.2240E+01   0.0000E+00  0.0000
   8.2240E+01   8.4241E+01   0.0000E+00  0.0000
   8.4241E+01   8.6291E+01   0.0000E+00  0.0000
   8.6291E+01   8.8391E+01   0.0000E+00  0.0000
   8.8391E+01   9.0541E+01   0.0000E+00  0.0000
   9.0541E+01   9.2744E+01   0.0000E+00  0.0000
   9.2744E+01   9.5001E+01   0.0000E+00  0.0000
   9.5001E+01   9.7312E+01   0.0000E+00  0.0000
   9.7312E+01   9.9680E+01   0.0000E+00  0.0000
   9.9680E+01   1.0211E+02   0.0000E+00  0.0000
   1.0211E+02   1.0459E+02   0.0000E+00  0.0000
   1.0459E+02   1.0713E+02   0.0000E+00  0.0000
   1.0713E+02   1.0974E+02   0.0000E+00  0.0000
   1.0974E+02   1.1241E+02   0.0000E+00  0.0000
   1.1241E+02   1.1515E+02   0.0000E+00  0.0000
   1.1515E+02   1.1795E+02   0.0000E+00  0.0000
   1.1795E+02   1.2082E+02   0.0000E+00  0.0000
   1.2082E+02   1.2376E+02   0.0000E+00  0.0000
   1.2376E+02   1.2677E+02   0.0000E+00  0.0000
   1.2677E+02   1.2985E+02   0.0000E+00  0.0000
   1.2985E+02   1.3301E+02   0.0000E+00  0.0000
   1.3301E+02   1.3625E+02   0.0000E+00  0.0000
   1.3625E+02   1.3956E+02   0.0000E+00  0.0000
   1.3956E+02   1.4296E+02   0.0000E+00  0.0000
   1.4296E+02   1.4644E+02   0.0000E+00  0.0000
   1.4644E+02   1.5000E+02   0.0000E+00  0.0000

#   sum over                 1.4714E-05
'no. =    1   reg = 115 - 215'
msuc: {\huge [t-cross] in region mesh}
msdr: {\it plotted by \ANGEL \version}
msdl: {\it calculated by \PHITS  3.26}
wt: s(0.7)
\vspace{-3}
  region surface crossing
  area  &=&   1.0000E+00 [cm^2]
e:
 
# Information for Restart Calculation
# This calculation was newly started
# istdev =  2 # 1:Batch variance, 2:History variance
# resc2  = 5.00000000000000000E+09 # Total source weight or Total source weight / maxcas
# resc3  = 5.00000000000000000E+09 # Total history number or Total batch number
# maxcas =   100000000 # History / Batch, only used for istdev=1
# bitrseed = 0110100000100010111000001110001111001110100100011111101000111001 # bit data of rseed
