[ T-Cross ]
    title = [t-cross] in region mesh
     mesh =  reg            # mesh type is region-wise
      reg =    1            # number of crossing regions
      non     r-from    r-to       area
      1       100       200        1.000000    
   e-type =    3            # e-mesh is log given by emin, emax and ne
     emin =  1.0000000E-02  # minimum value of e-mesh points
     emax =   150.0000      # maximum value of e-mesh points
#    edel =  2.4039514E-02  # mesh width of e-mesh points
       ne =    400          # number of e-mesh points
#    data = ( e(i), i = 1, ne + 1 )
#           1.00000E-02  1.02433E-02  1.04925E-02  1.07478E-02  1.10093E-02
#           1.12772E-02  1.15516E-02  1.18326E-02  1.21205E-02  1.24154E-02
#           1.27175E-02  1.30269E-02  1.33439E-02  1.36686E-02  1.40011E-02
#           1.43418E-02  1.46907E-02  1.50482E-02  1.54143E-02  1.57894E-02
#           1.61735E-02  1.65670E-02  1.69701E-02  1.73830E-02  1.78060E-02
#           1.82392E-02  1.86830E-02  1.91375E-02  1.96032E-02  2.00801E-02
#           2.05687E-02  2.10692E-02  2.15818E-02  2.21069E-02  2.26448E-02
#           2.31957E-02  2.37601E-02  2.43382E-02  2.49304E-02  2.55369E-02
#           2.61583E-02  2.67947E-02  2.74467E-02  2.81145E-02  2.87985E-02
#           2.94992E-02  3.02169E-02  3.09521E-02  3.17052E-02  3.24766E-02
#           3.32668E-02  3.40762E-02  3.49053E-02  3.57546E-02  3.66246E-02
#           3.75157E-02  3.84284E-02  3.93634E-02  4.03212E-02  4.13022E-02
#           4.23071E-02  4.33365E-02  4.43909E-02  4.54710E-02  4.65773E-02
#           4.77106E-02  4.88714E-02  5.00605E-02  5.12785E-02  5.25262E-02
#           5.38042E-02  5.51133E-02  5.64542E-02  5.78278E-02  5.92348E-02
#           6.06760E-02  6.21523E-02  6.36645E-02  6.52135E-02  6.68002E-02
#           6.84255E-02  7.00904E-02  7.17957E-02  7.35426E-02  7.53319E-02
#           7.71648E-02  7.90423E-02  8.09655E-02  8.29354E-02  8.49533E-02
#           8.70203E-02  8.91376E-02  9.13064E-02  9.35279E-02  9.58035E-02
#           9.81345E-02  1.00522E-01  1.02968E-01  1.05473E-01  1.08040E-01
#           1.10668E-01  1.13361E-01  1.16119E-01  1.18944E-01  1.21838E-01
#           1.24803E-01  1.27839E-01  1.30950E-01  1.34136E-01  1.37399E-01
#           1.40742E-01  1.44167E-01  1.47675E-01  1.51268E-01  1.54948E-01
#           1.58718E-01  1.62580E-01  1.66535E-01  1.70587E-01  1.74738E-01
#           1.78989E-01  1.83344E-01  1.87805E-01  1.92375E-01  1.97055E-01
#           2.01850E-01  2.06761E-01  2.11792E-01  2.16945E-01  2.22223E-01
#           2.27630E-01  2.33169E-01  2.38842E-01  2.44653E-01  2.50605E-01
#           2.56703E-01  2.62949E-01  2.69346E-01  2.75900E-01  2.82613E-01
#           2.89489E-01  2.96532E-01  3.03747E-01  3.11138E-01  3.18708E-01
#           3.26462E-01  3.34405E-01  3.42542E-01  3.50876E-01  3.59413E-01
#           3.68158E-01  3.77116E-01  3.86291E-01  3.95690E-01  4.05317E-01
#           4.15179E-01  4.25281E-01  4.35628E-01  4.46227E-01  4.57084E-01
#           4.68205E-01  4.79597E-01  4.91266E-01  5.03219E-01  5.15463E-01
#           5.28005E-01  5.40851E-01  5.54011E-01  5.67490E-01  5.81298E-01
#           5.95441E-01  6.09929E-01  6.24769E-01  6.39970E-01  6.55541E-01
#           6.71491E-01  6.87828E-01  7.04564E-01  7.21706E-01  7.39266E-01
#           7.57253E-01  7.75678E-01  7.94551E-01  8.13883E-01  8.33685E-01
#           8.53969E-01  8.74747E-01  8.96030E-01  9.17831E-01  9.40163E-01
#           9.63038E-01  9.86469E-01  1.01047E+00  1.03506E+00  1.06024E+00
#           1.08604E+00  1.11246E+00  1.13953E+00  1.16725E+00  1.19565E+00
#           1.22474E+00  1.25454E+00  1.28507E+00  1.31633E+00  1.34836E+00
#           1.38117E+00  1.41477E+00  1.44920E+00  1.48446E+00  1.52057E+00
#           1.55757E+00  1.59547E+00  1.63429E+00  1.67405E+00  1.71478E+00
#           1.75650E+00  1.79924E+00  1.84302E+00  1.88786E+00  1.93379E+00
#           1.98084E+00  2.02904E+00  2.07841E+00  2.12898E+00  2.18078E+00
#           2.23384E+00  2.28819E+00  2.34386E+00  2.40089E+00  2.45930E+00
#           2.51914E+00  2.58043E+00  2.64322E+00  2.70753E+00  2.77341E+00
#           2.84088E+00  2.91001E+00  2.98081E+00  3.05333E+00  3.12762E+00
#           3.20372E+00  3.28167E+00  3.36152E+00  3.44330E+00  3.52708E+00
#           3.61290E+00  3.70080E+00  3.79085E+00  3.88308E+00  3.97756E+00
#           4.07434E+00  4.17347E+00  4.27501E+00  4.37903E+00  4.48557E+00
#           4.59471E+00  4.70650E+00  4.82102E+00  4.93832E+00  5.05847E+00
#           5.18155E+00  5.30762E+00  5.43676E+00  5.56904E+00  5.70453E+00
#           5.84333E+00  5.98550E+00  6.13114E+00  6.28031E+00  6.43312E+00
#           6.58964E+00  6.74997E+00  6.91420E+00  7.08243E+00  7.25475E+00
#           7.43126E+00  7.61207E+00  7.79728E+00  7.98700E+00  8.18133E+00
#           8.38038E+00  8.58428E+00  8.79315E+00  9.00709E+00  9.22624E+00
#           9.45072E+00  9.68067E+00  9.91620E+00  1.01575E+01  1.04046E+01
#           1.06578E+01  1.09171E+01  1.11827E+01  1.14548E+01  1.17335E+01
#           1.20190E+01  1.23114E+01  1.26109E+01  1.29178E+01  1.32321E+01
#           1.35540E+01  1.38838E+01  1.42216E+01  1.45676E+01  1.49221E+01
#           1.52851E+01  1.56570E+01  1.60380E+01  1.64282E+01  1.68279E+01
#           1.72374E+01  1.76568E+01  1.80864E+01  1.85264E+01  1.89772E+01
#           1.94389E+01  1.99119E+01  2.03963E+01  2.08926E+01  2.14009E+01
#           2.19216E+01  2.24550E+01  2.30014E+01  2.35610E+01  2.41343E+01
#           2.47215E+01  2.53230E+01  2.59391E+01  2.65702E+01  2.72167E+01
#           2.78789E+01  2.85572E+01  2.92520E+01  2.99637E+01  3.06928E+01
#           3.14396E+01  3.22045E+01  3.29881E+01  3.37907E+01  3.46128E+01
#           3.54550E+01  3.63177E+01  3.72013E+01  3.81064E+01  3.90336E+01
#           3.99833E+01  4.09561E+01  4.19526E+01  4.29734E+01  4.40189E+01
#           4.50900E+01  4.61870E+01  4.73108E+01  4.84619E+01  4.96410E+01
#           5.08488E+01  5.20860E+01  5.33533E+01  5.46514E+01  5.59812E+01
#           5.73432E+01  5.87384E+01  6.01676E+01  6.16315E+01  6.31311E+01
#           6.46671E+01  6.62405E+01  6.78522E+01  6.95031E+01  7.11941E+01
#           7.29263E+01  7.47007E+01  7.65182E+01  7.83800E+01  8.02870E+01
#           8.22405E+01  8.42414E+01  8.62911E+01  8.83906E+01  9.05412E+01
#           9.27442E+01  9.50007E+01  9.73122E+01  9.96799E+01  1.02105E+02
#           1.04589E+02  1.07134E+02  1.09741E+02  1.12411E+02  1.15146E+02
#           1.17948E+02  1.20817E+02  1.23757E+02  1.26768E+02  1.29852E+02
#           1.33012E+02  1.36248E+02  1.39563E+02  1.42959E+02  1.46437E+02
#           1.50000E+02
     unit =    2            # unit is [1/cm^2/(MeV/n)/source]
     axis =  eng            # axis of output
     file = detector-01.out  # file name of output for the above axis
   output = f-curr          # surface crossing forward current spectrum
     part =  neutron  
# kf/name :  2112     
#    used :        main (  %)        temp (  %)       total (  %)
#  memory :         414 (  0)           0 (  0)         414 (  0)

#------------------------------------------------------------------------------
#newpage:
#   no. =    1   reg = 100 - 200

x: Energy [MeV/n]
y:  F-Curr [1/cm^2/(MeV/n)/source]         
p: xlog ylog afac(0.8) form(0.9)
h: n            x            y(neutron ),hh0l   n 
#  e-lower      e-upper      neutron     r.err 
   1.0000E-02   1.0243E-02   3.6990E-05  0.3333
   1.0243E-02   1.0493E-02   1.2037E-05  0.5774
   1.0493E-02   1.0748E-02   7.8342E-06  0.7071
   1.0748E-02   1.1009E-02   7.6481E-06  0.7071
   1.1009E-02   1.1277E-02   2.6132E-05  0.3780
   1.1277E-02   1.1552E-02   0.0000E+00  0.0000
   1.1552E-02   1.1833E-02   1.0674E-05  0.5774
   1.1833E-02   1.2121E-02   1.3894E-05  0.5000
   1.2121E-02   1.2415E-02   1.0173E-05  0.5774
   1.2415E-02   1.2718E-02   1.3242E-05  0.5000
   1.2718E-02   1.3027E-02   9.6953E-06  0.5774
   1.3027E-02   1.3344E-02   1.5775E-05  0.4472
   1.3344E-02   1.3669E-02   1.2320E-05  0.5000
   1.3669E-02   1.4001E-02   3.0069E-06  1.0000
   1.4001E-02   1.4342E-02   1.1742E-05  0.5000
   1.4342E-02   1.4691E-02   8.5973E-06  0.5774
   1.4691E-02   1.5048E-02   1.1191E-05  0.5000
   1.5048E-02   1.5414E-02   2.4581E-05  0.3333
   1.5414E-02   1.5789E-02   2.1331E-05  0.3536
   1.5789E-02   1.6174E-02   5.2061E-06  0.7071
   1.6174E-02   1.6567E-02   1.0165E-05  0.5000
   1.6567E-02   1.6970E-02   7.4425E-06  0.5774
   1.6970E-02   1.7383E-02   4.8438E-06  0.7071
   1.7383E-02   1.7806E-02   1.6551E-05  0.3780
   1.7806E-02   1.8239E-02   1.8845E-05  0.3470
   1.8239E-02   1.8683E-02   2.2534E-05  0.3162
   1.8683E-02   1.9138E-02   1.5399E-05  0.3780
   1.9138E-02   1.9603E-02   2.5771E-05  0.2887
   1.9603E-02   2.0080E-02   8.3864E-06  0.5000
   2.0080E-02   2.0569E-02   1.0234E-05  0.4472
   2.0569E-02   2.1069E-02   1.3987E-05  0.3780
   2.1069E-02   2.1582E-02   5.8522E-06  0.5774
   2.1582E-02   2.2107E-02   1.3331E-05  0.3780
   2.2107E-02   2.2645E-02   1.8592E-05  0.3162
   2.2645E-02   2.3196E-02   1.4784E-05  0.3477
   2.3196E-02   2.3760E-02   7.0875E-06  0.5000
   2.3760E-02   2.4338E-02   1.3838E-05  0.3536
   2.4338E-02   2.4930E-02   1.1821E-05  0.3780
   2.4930E-02   2.5537E-02   1.6486E-05  0.3162
   2.5537E-02   2.6158E-02   2.2532E-05  0.2673
   2.6158E-02   2.6795E-02   1.7283E-05  0.3015
   2.6795E-02   2.7447E-02   1.5339E-05  0.3162
   2.7447E-02   2.8114E-02   2.0964E-05  0.2673
   2.8114E-02   2.8799E-02   1.1695E-05  0.3536
   2.8799E-02   2.9499E-02   5.7087E-06  0.5000
   2.9499E-02   3.0217E-02   1.1146E-05  0.3536
   3.0217E-02   3.0952E-02   1.9042E-05  0.2673
   3.0952E-02   3.1705E-02   9.2950E-06  0.3780
   3.1705E-02   3.2477E-02   1.6852E-05  0.2774
   3.2477E-02   3.3267E-02   1.7085E-05  0.2696
   3.3267E-02   3.4076E-02   1.2355E-05  0.3162
   3.4076E-02   3.4905E-02   4.8245E-06  0.5000
   3.4905E-02   3.5755E-02   1.2952E-05  0.3015
   3.5755E-02   3.6625E-02   1.2645E-05  0.3015
   3.6625E-02   3.7516E-02   1.0100E-05  0.3333
   3.7516E-02   3.8428E-02   9.8599E-06  0.3333
   3.8428E-02   3.9363E-02   1.3904E-05  0.2774
   3.9363E-02   4.0321E-02   1.7750E-05  0.2425
   4.0321E-02   4.1302E-02   1.5290E-05  0.2582
   4.1302E-02   4.2307E-02   1.2936E-05  0.2774
   4.2307E-02   4.3337E-02   1.6515E-05  0.2425
   4.3337E-02   4.4391E-02   1.4226E-05  0.2582
   4.4391E-02   4.5471E-02   1.8517E-05  0.2236
   4.5471E-02   4.6577E-02   1.2654E-05  0.2673
   4.6577E-02   4.7711E-02   1.0589E-05  0.2887
   4.7711E-02   4.8871E-02   1.1199E-05  0.2774
   4.8871E-02   5.0061E-02   1.7661E-05  0.2182
   5.0061E-02   5.1279E-02   1.4900E-05  0.2339
   5.1279E-02   5.2526E-02   1.1221E-05  0.2673
   5.2526E-02   5.3804E-02   1.4084E-05  0.2357
   5.3804E-02   5.5113E-02   1.5278E-05  0.2236
   5.5113E-02   5.6454E-02   1.4169E-05  0.2294
   5.6454E-02   5.7828E-02   1.3468E-05  0.2309
   5.7828E-02   5.9235E-02   1.2082E-05  0.2425
   5.9235E-02   6.0676E-02   1.3183E-05  0.2294
   6.0676E-02   6.2152E-02   1.4225E-05  0.2182
   6.2152E-02   6.3665E-02   2.1161E-05  0.1768
   6.3665E-02   6.5214E-02   1.0329E-05  0.2500
   6.5214E-02   6.6800E-02   1.7962E-05  0.1865
   6.6800E-02   6.8426E-02   1.3536E-05  0.2132
   6.8426E-02   7.0090E-02   1.0812E-05  0.2357
   7.0090E-02   7.1796E-02   1.9937E-05  0.1715
   7.1796E-02   7.3543E-02   2.1753E-05  0.1622
   7.3543E-02   7.5332E-02   1.5648E-05  0.1890
   7.5332E-02   7.7165E-02   1.6983E-05  0.1789
   7.7165E-02   7.9042E-02   1.1185E-05  0.2182
   7.9042E-02   8.0965E-02   1.0400E-05  0.2236
   8.0965E-02   8.2935E-02   1.5736E-05  0.1796
   8.2935E-02   8.4953E-02   1.4867E-05  0.1826
   8.4953E-02   8.7020E-02   1.3546E-05  0.1890
   8.7020E-02   8.9138E-02   1.7003E-05  0.1667
   8.9138E-02   9.1306E-02   1.3372E-05  0.1857
   9.1306E-02   9.3528E-02   1.7555E-05  0.1601
   9.3528E-02   9.5804E-02   1.5381E-05  0.1690
   9.5804E-02   9.8134E-02   1.4586E-05  0.1715
   9.8134E-02   1.0052E-01   1.2983E-05  0.1796
   1.0052E-01   1.0297E-01   1.4786E-05  0.1660
   1.0297E-01   1.0547E-01   1.3970E-05  0.1690
   1.0547E-01   1.0804E-01   1.4872E-05  0.1616
   1.0804E-01   1.1067E-01   1.3695E-05  0.1667
   1.1067E-01   1.1336E-01   1.0399E-05  0.1890
   1.1336E-01   1.1612E-01   1.5953E-05  0.1508
   1.1612E-01   1.1894E-01   1.4512E-05  0.1562
   1.1894E-01   1.2184E-01   1.3131E-05  0.1622
   1.2184E-01   1.2480E-01   1.4505E-05  0.1525
   1.2480E-01   1.2784E-01   1.1856E-05  0.1667
   1.2784E-01   1.3095E-01   1.6396E-05  0.1400
   1.3095E-01   1.3414E-01   1.4813E-05  0.1453
   1.3414E-01   1.3740E-01   1.6900E-05  0.1345
   1.3740E-01   1.4074E-01   1.0470E-05  0.1690
   1.4074E-01   1.4417E-01   1.3141E-05  0.1491
   1.4417E-01   1.4767E-01   1.2312E-05  0.1519
   1.4767E-01   1.5127E-01   1.0854E-05  0.1601
   1.5127E-01   1.5495E-01   1.4944E-05  0.1348
   1.5495E-01   1.5872E-01   1.2202E-05  0.1474
   1.5872E-01   1.6258E-01   1.1394E-05  0.1508
   1.6258E-01   1.6654E-01   1.1376E-05  0.1491
   1.6654E-01   1.7059E-01   1.0736E-05  0.1512
   1.7059E-01   1.7474E-01   1.0842E-05  0.1491
   1.7474E-01   1.7899E-01   1.1525E-05  0.1429
   1.7899E-01   1.8334E-01   1.0333E-05  0.1491
   1.8334E-01   1.8781E-01   8.2943E-06  0.1644
   1.8781E-01   1.9237E-01   9.8922E-06  0.1485
   1.9237E-01   1.9706E-01   9.6141E-06  0.1491
   1.9706E-01   2.0185E-01   1.0011E-05  0.1443
   2.0185E-01   2.0676E-01   7.9411E-06  0.1601
   2.0676E-01   2.1179E-01   9.7403E-06  0.1429
   2.1179E-01   2.1694E-01   7.6258E-06  0.1590
   2.1694E-01   2.2222E-01   8.7147E-06  0.1474
   2.2222E-01   2.2763E-01   1.0172E-05  0.1348
   2.2763E-01   2.3317E-01   1.1195E-05  0.1270
   2.3317E-01   2.3884E-01   1.0252E-05  0.1310
   2.3884E-01   2.4465E-01   1.0153E-05  0.1302
   2.4465E-01   2.5061E-01   1.1445E-05  0.1211
   2.5061E-01   2.5670E-01   9.6762E-06  0.1302
   2.5670E-01   2.6295E-01   1.3795E-05  0.1076
   2.6295E-01   2.6935E-01   1.2035E-05  0.1140
   2.6935E-01   2.7590E-01   1.0396E-05  0.1211
   2.7590E-01   2.8261E-01   1.2215E-05  0.1104
   2.8261E-01   2.8949E-01   1.0035E-05  0.1204
   2.8949E-01   2.9653E-01   9.2994E-06  0.1233
   2.9653E-01   3.0375E-01   9.7926E-06  0.1187
   3.0375E-01   3.1114E-01   1.0034E-05  0.1160
   3.1114E-01   3.1871E-01   1.2569E-05  0.1024
   3.1871E-01   3.2646E-01   1.1284E-05  0.1068
   3.2646E-01   3.3441E-01   1.1834E-05  0.1031
   3.3441E-01   3.4254E-01   1.0939E-05  0.1060
   3.4254E-01   3.5088E-01   1.3693E-05  0.0936
   3.5088E-01   3.5941E-01   9.8394E-06  0.1091
   3.5941E-01   3.6816E-01   1.2350E-05  0.0962
   3.6816E-01   3.7712E-01   1.1086E-05  0.1002
   3.7712E-01   3.8629E-01   1.0805E-05  0.1004
   3.8629E-01   3.9569E-01   1.2677E-05  0.0916
   3.9569E-01   4.0532E-01   1.1841E-05  0.0937
   4.0532E-01   4.1518E-01   8.6192E-06  0.1085
   4.1518E-01   4.2528E-01   1.1780E-05  0.0917
   4.2528E-01   4.3563E-01   1.1126E-05  0.0932
   4.3563E-01   4.4623E-01   9.3403E-06  0.1005
   4.4623E-01   4.5708E-01   1.0730E-05  0.0925
   4.5708E-01   4.6821E-01   9.8287E-06  0.0955
   4.6821E-01   4.7960E-01   1.1938E-05  0.0856
   4.7960E-01   4.9127E-01   1.1955E-05  0.0846
   4.9127E-01   5.0322E-01   1.2232E-05  0.0827
   5.0322E-01   5.1546E-01   1.2660E-05  0.0803
   5.1546E-01   5.2800E-01   1.2014E-05  0.0814
   5.2800E-01   5.4085E-01   1.1585E-05  0.0818
   5.4085E-01   5.5401E-01   1.0574E-05  0.0847
   5.5401E-01   5.6749E-01   1.0620E-05  0.0835
   5.6749E-01   5.8130E-01   1.1117E-05  0.0806
   5.8130E-01   5.9544E-01   1.2444E-05  0.0753
   5.9544E-01   6.0993E-01   1.2469E-05  0.0743
   6.0993E-01   6.2477E-01   1.1321E-05  0.0772
   6.2477E-01   6.3997E-01   1.1775E-05  0.0747
   6.3997E-01   6.5554E-01   1.2941E-05  0.0704
   6.5554E-01   6.7149E-01   1.2571E-05  0.0706
   6.7149E-01   6.8783E-01   1.1599E-05  0.0726
   6.8783E-01   7.0456E-01   1.2497E-05  0.0691
   7.0456E-01   7.2171E-01   1.1092E-05  0.0724
   7.2171E-01   7.3927E-01   1.2586E-05  0.0673
   7.3927E-01   7.5725E-01   1.2433E-05  0.0668
   7.5725E-01   7.7568E-01   1.0855E-05  0.0707
   7.7568E-01   7.9455E-01   1.2141E-05  0.0660
   7.9455E-01   8.1388E-01   1.2148E-05  0.0652
   8.1388E-01   8.3368E-01   1.2128E-05  0.0645
   8.3368E-01   8.5397E-01   1.2569E-05  0.0626
   8.5397E-01   8.7475E-01   1.3043E-05  0.0607
   8.7475E-01   8.9603E-01   1.3048E-05  0.0600
   8.9603E-01   9.1783E-01   1.1613E-05  0.0628
   9.1783E-01   9.4016E-01   1.2673E-05  0.0594
   9.4016E-01   9.6304E-01   1.2250E-05  0.0597
   9.6304E-01   9.8647E-01   1.2092E-05  0.0594
   9.8647E-01   1.0105E+00   1.2166E-05  0.0585
   1.0105E+00   1.0351E+00   1.2251E-05  0.0575
   1.0351E+00   1.0602E+00   1.4601E-05  0.0521
   1.0602E+00   1.0860E+00   1.1790E-05  0.0573
   1.0860E+00   1.1125E+00   1.1390E-05  0.0575
   1.1125E+00   1.1395E+00   1.1928E-05  0.0556
   1.1395E+00   1.1673E+00   1.1866E-05  0.0551
   1.1673E+00   1.1957E+00   1.2188E-05  0.0537
   1.1957E+00   1.2247E+00   1.1590E-05  0.0544
   1.2247E+00   1.2545E+00   1.1919E-05  0.0530
   1.2545E+00   1.2851E+00   1.2176E-05  0.0518
   1.2851E+00   1.3163E+00   1.1968E-05  0.0517
   1.3163E+00   1.3484E+00   1.2529E-05  0.0498
   1.3484E+00   1.3812E+00   1.1008E-05  0.0526
   1.3812E+00   1.4148E+00   1.1952E-05  0.0499
   1.4148E+00   1.4492E+00   1.2674E-05  0.0478
   1.4492E+00   1.4845E+00   1.2261E-05  0.0481
   1.4845E+00   1.5206E+00   1.2339E-05  0.0473
   1.5206E+00   1.5576E+00   1.3015E-05  0.0455
   1.5576E+00   1.5955E+00   1.1984E-05  0.0469
   1.5955E+00   1.6343E+00   1.2310E-05  0.0457
   1.6343E+00   1.6741E+00   1.2537E-05  0.0448
   1.6741E+00   1.7148E+00   1.1517E-05  0.0461
   1.7148E+00   1.7565E+00   1.3040E-05  0.0428
   1.7565E+00   1.7992E+00   1.3722E-05  0.0413
   1.7992E+00   1.8430E+00   1.2430E-05  0.0428
   1.8430E+00   1.8879E+00   1.3138E-05  0.0411
   1.8879E+00   1.9338E+00   1.2478E-05  0.0417
   1.9338E+00   1.9808E+00   1.3534E-05  0.0396
   1.9808E+00   2.0290E+00   1.3615E-05  0.0390
   2.0290E+00   2.0784E+00   1.2909E-05  0.0396
   2.0784E+00   2.1290E+00   1.2534E-05  0.0397
   2.1290E+00   2.1808E+00   1.3674E-05  0.0375
   2.1808E+00   2.2338E+00   1.2446E-05  0.0389
   2.2338E+00   2.2882E+00   1.3020E-05  0.0376
   2.2882E+00   2.3439E+00   1.3038E-05  0.0371
   2.3439E+00   2.4009E+00   1.3201E-05  0.0364
   2.4009E+00   2.4593E+00   1.3312E-05  0.0358
   2.4593E+00   2.5191E+00   1.2592E-05  0.0364
   2.5191E+00   2.5804E+00   1.3320E-05  0.0350
   2.5804E+00   2.6432E+00   1.3042E-05  0.0349
   2.6432E+00   2.7075E+00   1.4066E-05  0.0332
   2.7075E+00   2.7734E+00   1.3008E-05  0.0341
   2.7734E+00   2.8409E+00   1.2973E-05  0.0338
   2.8409E+00   2.9100E+00   1.3389E-05  0.0328
   2.9100E+00   2.9808E+00   1.2937E-05  0.0330
   2.9808E+00   3.0533E+00   1.2871E-05  0.0327
   3.0533E+00   3.1276E+00   1.3524E-05  0.0315
   3.1276E+00   3.2037E+00   1.3186E-05  0.0316
   3.2037E+00   3.2817E+00   1.4270E-05  0.0300
   3.2817E+00   3.3615E+00   1.3240E-05  0.0307
   3.3615E+00   3.4433E+00   1.3760E-05  0.0298
   3.4433E+00   3.5271E+00   1.3578E-05  0.0296
   3.5271E+00   3.6129E+00   1.4092E-05  0.0287
   3.6129E+00   3.7008E+00   1.3761E-05  0.0287
   3.7008E+00   3.7908E+00   1.4536E-05  0.0276
   3.7908E+00   3.8831E+00   1.4105E-05  0.0277
   3.8831E+00   3.9776E+00   1.3759E-05  0.0277
   3.9776E+00   4.0743E+00   1.3720E-05  0.0274
   4.0743E+00   4.1735E+00   1.3480E-05  0.0273
   4.1735E+00   4.2750E+00   1.3839E-05  0.0267
   4.2750E+00   4.3790E+00   1.4017E-05  0.0262
   4.3790E+00   4.4856E+00   1.4391E-05  0.0255
   4.4856E+00   4.5947E+00   1.3730E-05  0.0258
   4.5947E+00   4.7065E+00   1.4043E-05  0.0252
   4.7065E+00   4.8210E+00   1.4114E-05  0.0249
   4.8210E+00   4.9383E+00   1.4040E-05  0.0246
   4.9383E+00   5.0585E+00   1.4785E-05  0.0237
   5.0585E+00   5.1815E+00   1.3926E-05  0.0241
   5.1815E+00   5.3076E+00   1.4355E-05  0.0235
   5.3076E+00   5.4368E+00   1.5046E-05  0.0227
   5.4368E+00   5.5690E+00   1.4522E-05  0.0228
   5.5690E+00   5.7045E+00   1.4636E-05  0.0224
   5.7045E+00   5.8433E+00   1.5557E-05  0.0215
   5.8433E+00   5.9855E+00   1.5329E-05  0.0214
   5.9855E+00   6.1311E+00   1.5208E-05  0.0212
   6.1311E+00   6.2803E+00   1.5557E-05  0.0208
   6.2803E+00   6.4331E+00   1.6003E-05  0.0202
   6.4331E+00   6.5896E+00   1.5858E-05  0.0201
   6.5896E+00   6.7500E+00   1.5663E-05  0.0200
   6.7500E+00   6.9142E+00   1.5772E-05  0.0196
   6.9142E+00   7.0824E+00   1.5824E-05  0.0194
   7.0824E+00   7.2548E+00   1.6459E-05  0.0188
   7.2548E+00   7.4313E+00   1.7041E-05  0.0182
   7.4313E+00   7.6121E+00   1.7516E-05  0.0178
   7.6121E+00   7.7973E+00   1.6940E-05  0.0179
   7.7973E+00   7.9870E+00   1.7427E-05  0.0174
   7.9870E+00   8.1813E+00   1.7314E-05  0.0172
   8.1813E+00   8.3804E+00   1.7791E-05  0.0168
   8.3804E+00   8.5843E+00   1.8031E-05  0.0165
   8.5843E+00   8.7931E+00   1.8124E-05  0.0163
   8.7931E+00   9.0071E+00   1.8848E-05  0.0157
   9.0071E+00   9.2262E+00   1.9344E-05  0.0154
   9.2262E+00   9.4507E+00   1.9139E-05  0.0153
   9.4507E+00   9.6807E+00   2.0391E-05  0.0146
   9.6807E+00   9.9162E+00   1.9756E-05  0.0147
   9.9162E+00   1.0157E+01   2.1146E-05  0.0140
   1.0157E+01   1.0405E+01   2.1130E-05  0.0138
   1.0405E+01   1.0658E+01   2.1947E-05  0.0134
   1.0658E+01   1.0917E+01   2.2438E-05  0.0131
   1.0917E+01   1.1183E+01   2.3624E-05  0.0126
   1.1183E+01   1.1455E+01   2.3438E-05  0.0125
   1.1455E+01   1.1733E+01   2.4063E-05  0.0122
   1.1733E+01   1.2019E+01   2.4544E-05  0.0119
   1.2019E+01   1.2311E+01   2.5195E-05  0.0117
   1.2311E+01   1.2611E+01   2.5970E-05  0.0113
   1.2611E+01   1.2918E+01   2.7181E-05  0.0109
   1.2918E+01   1.3232E+01   2.7911E-05  0.0107
   1.3232E+01   1.3554E+01   2.8931E-05  0.0104
   1.3554E+01   1.3884E+01   2.9800E-05  0.0101
   1.3884E+01   1.4222E+01   3.1300E-05  0.0097
   1.4222E+01   1.4568E+01   3.1755E-05  0.0095
   1.4568E+01   1.4922E+01   3.2663E-05  0.0093
   1.4922E+01   1.5285E+01   3.4184E-05  0.0090
   1.5285E+01   1.5657E+01   3.5157E-05  0.0087
   1.5657E+01   1.6038E+01   3.6590E-05  0.0085
   1.6038E+01   1.6428E+01   3.7682E-05  0.0082
   1.6428E+01   1.6828E+01   3.8911E-05  0.0080
   1.6828E+01   1.7237E+01   4.0849E-05  0.0077
   1.7237E+01   1.7657E+01   4.2435E-05  0.0075
   1.7657E+01   1.8086E+01   4.3920E-05  0.0073
   1.8086E+01   1.8526E+01   4.5469E-05  0.0071
   1.8526E+01   1.8977E+01   4.5716E-05  0.0070
   1.8977E+01   1.9439E+01   4.7552E-05  0.0067
   1.9439E+01   1.9912E+01   4.8761E-05  0.0066
   1.9912E+01   2.0396E+01   4.9830E-05  0.0064
   2.0396E+01   2.0893E+01   5.1785E-05  0.0062
   2.0893E+01   2.1401E+01   5.2231E-05  0.0061
   2.1401E+01   2.1922E+01   5.2658E-05  0.0060
   2.1922E+01   2.2455E+01   5.2376E-05  0.0060
   2.2455E+01   2.3001E+01   5.2452E-05  0.0059
   2.3001E+01   2.3561E+01   5.1646E-05  0.0059
   2.3561E+01   2.4134E+01   5.1384E-05  0.0058
   2.4134E+01   2.4721E+01   5.0226E-05  0.0058
   2.4721E+01   2.5323E+01   4.8622E-05  0.0058
   2.5323E+01   2.5939E+01   4.6560E-05  0.0059
   2.5939E+01   2.6570E+01   4.4210E-05  0.0060
   2.6570E+01   2.7217E+01   4.2989E-05  0.0060
   2.7217E+01   2.7879E+01   3.9378E-05  0.0062
   2.7879E+01   2.8557E+01   3.7315E-05  0.0063
   2.8557E+01   2.9252E+01   3.4406E-05  0.0065
   2.9252E+01   2.9964E+01   3.1748E-05  0.0067
   2.9964E+01   3.0693E+01   2.8982E-05  0.0069
   3.0693E+01   3.1440E+01   2.6269E-05  0.0071
   3.1440E+01   3.2205E+01   2.3791E-05  0.0074
   3.2205E+01   3.2988E+01   2.1714E-05  0.0077
   3.2988E+01   3.3791E+01   1.9501E-05  0.0080
   3.3791E+01   3.4613E+01   1.7283E-05  0.0084
   3.4613E+01   3.5455E+01   1.5432E-05  0.0088
   3.5455E+01   3.6318E+01   1.4123E-05  0.0091
   3.6318E+01   3.7201E+01   1.2367E-05  0.0096
   3.7201E+01   3.8106E+01   1.0963E-05  0.0100
   3.8106E+01   3.9034E+01   9.8689E-06  0.0105
   3.9034E+01   3.9983E+01   8.9142E-06  0.0109
   3.9983E+01   4.0956E+01   8.0487E-06  0.0113
   4.0956E+01   4.1953E+01   7.0477E-06  0.0119
   4.1953E+01   4.2973E+01   6.2327E-06  0.0125
   4.2973E+01   4.4019E+01   5.5673E-06  0.0131
   4.4019E+01   4.5090E+01   5.0868E-06  0.0135
   4.5090E+01   4.6187E+01   4.6104E-06  0.0141
   4.6187E+01   4.7311E+01   4.3630E-06  0.0143
   4.7311E+01   4.8462E+01   4.1925E-06  0.0144
   4.8462E+01   4.9641E+01   3.9572E-06  0.0146
   4.9641E+01   5.0849E+01   3.6835E-06  0.0150
   5.0849E+01   5.2086E+01   3.4255E-06  0.0154
   5.2086E+01   5.3353E+01   3.0837E-06  0.0160
   5.3353E+01   5.4651E+01   2.6523E-06  0.0170
   5.4651E+01   5.5981E+01   2.3742E-06  0.0178
   5.5981E+01   5.7343E+01   2.1996E-06  0.0183
   5.7343E+01   5.8738E+01   1.9094E-06  0.0194
   5.8738E+01   6.0168E+01   1.6541E-06  0.0206
   6.0168E+01   6.1632E+01   1.4584E-06  0.0216
   6.1632E+01   6.3131E+01   9.4629E-07  0.0265
   6.3131E+01   6.4667E+01   5.4882E-07  0.0344
   6.4667E+01   6.6240E+01   2.6821E-07  0.0487
   6.6240E+01   6.7852E+01   9.3691E-08  0.0814
   6.7852E+01   6.9503E+01   2.4229E-09  0.5000
   6.9503E+01   7.1194E+01   0.0000E+00  0.0000
   7.1194E+01   7.2926E+01   0.0000E+00  0.0000
   7.2926E+01   7.4701E+01   0.0000E+00  0.0000
   7.4701E+01   7.6518E+01   0.0000E+00  0.0000
   7.6518E+01   7.8380E+01   0.0000E+00  0.0000
   7.8380E+01   8.0287E+01   0.0000E+00  0.0000
   8.0287E+01   8.2240E+01   0.0000E+00  0.0000
   8.2240E+01   8.4241E+01   0.0000E+00  0.0000
   8.4241E+01   8.6291E+01   0.0000E+00  0.0000
   8.6291E+01   8.8391E+01   0.0000E+00  0.0000
   8.8391E+01   9.0541E+01   0.0000E+00  0.0000
   9.0541E+01   9.2744E+01   0.0000E+00  0.0000
   9.2744E+01   9.5001E+01   0.0000E+00  0.0000
   9.5001E+01   9.7312E+01   0.0000E+00  0.0000
   9.7312E+01   9.9680E+01   0.0000E+00  0.0000
   9.9680E+01   1.0211E+02   0.0000E+00  0.0000
   1.0211E+02   1.0459E+02   0.0000E+00  0.0000
   1.0459E+02   1.0713E+02   0.0000E+00  0.0000
   1.0713E+02   1.0974E+02   0.0000E+00  0.0000
   1.0974E+02   1.1241E+02   0.0000E+00  0.0000
   1.1241E+02   1.1515E+02   0.0000E+00  0.0000
   1.1515E+02   1.1795E+02   0.0000E+00  0.0000
   1.1795E+02   1.2082E+02   0.0000E+00  0.0000
   1.2082E+02   1.2376E+02   0.0000E+00  0.0000
   1.2376E+02   1.2677E+02   0.0000E+00  0.0000
   1.2677E+02   1.2985E+02   0.0000E+00  0.0000
   1.2985E+02   1.3301E+02   0.0000E+00  0.0000
   1.3301E+02   1.3625E+02   0.0000E+00  0.0000
   1.3625E+02   1.3956E+02   0.0000E+00  0.0000
   1.3956E+02   1.4296E+02   0.0000E+00  0.0000
   1.4296E+02   1.4644E+02   0.0000E+00  0.0000
   1.4644E+02   1.5000E+02   0.0000E+00  0.0000

#   sum over                 8.0228E-06
'no. =    1   reg = 100 - 200'
msuc: {\huge [t-cross] in region mesh}
msdr: {\it plotted by \ANGEL \version}
msdl: {\it calculated by \PHITS  3.26}
wt: s(0.7)
\vspace{-3}
  region surface crossing
  area  &=&   1.0000E+00 [cm^2]
e:
 
# Information for Restart Calculation
# This calculation was newly started
# istdev =  2 # 1:Batch variance, 2:History variance
# resc2  = 1.00000000000000000E+09 # Total source weight or Total source weight / maxcas
# resc3  = 1.00000000000000000E+09 # Total history number or Total batch number
# maxcas =   500000000 # History / Batch, only used for istdev=1
# bitrseed = 0001001110011001001001110000100100110111001111011100001000101100 # bit data of rseed
