[ T-Cross ]
    title = [t-cross] in region mesh
     mesh =  reg            # mesh type is region-wise
      reg =    1            # number of crossing regions
      non     r-from    r-to       area
      1       126       226        1.000000    
   e-type =    3            # e-mesh is log given by emin, emax and ne
     emin =  1.0000000E-02  # minimum value of e-mesh points
     emax =   150.0000      # maximum value of e-mesh points
#    edel =  2.4039514E-02  # mesh width of e-mesh points
       ne =    400          # number of e-mesh points
#    data = ( e(i), i = 1, ne + 1 )
#           1.00000E-02  1.02433E-02  1.04925E-02  1.07478E-02  1.10093E-02
#           1.12772E-02  1.15516E-02  1.18326E-02  1.21205E-02  1.24154E-02
#           1.27175E-02  1.30269E-02  1.33439E-02  1.36686E-02  1.40011E-02
#           1.43418E-02  1.46907E-02  1.50482E-02  1.54143E-02  1.57894E-02
#           1.61735E-02  1.65670E-02  1.69701E-02  1.73830E-02  1.78060E-02
#           1.82392E-02  1.86830E-02  1.91375E-02  1.96032E-02  2.00801E-02
#           2.05687E-02  2.10692E-02  2.15818E-02  2.21069E-02  2.26448E-02
#           2.31957E-02  2.37601E-02  2.43382E-02  2.49304E-02  2.55369E-02
#           2.61583E-02  2.67947E-02  2.74467E-02  2.81145E-02  2.87985E-02
#           2.94992E-02  3.02169E-02  3.09521E-02  3.17052E-02  3.24766E-02
#           3.32668E-02  3.40762E-02  3.49053E-02  3.57546E-02  3.66246E-02
#           3.75157E-02  3.84284E-02  3.93634E-02  4.03212E-02  4.13022E-02
#           4.23071E-02  4.33365E-02  4.43909E-02  4.54710E-02  4.65773E-02
#           4.77106E-02  4.88714E-02  5.00605E-02  5.12785E-02  5.25262E-02
#           5.38042E-02  5.51133E-02  5.64542E-02  5.78278E-02  5.92348E-02
#           6.06760E-02  6.21523E-02  6.36645E-02  6.52135E-02  6.68002E-02
#           6.84255E-02  7.00904E-02  7.17957E-02  7.35426E-02  7.53319E-02
#           7.71648E-02  7.90423E-02  8.09655E-02  8.29354E-02  8.49533E-02
#           8.70203E-02  8.91376E-02  9.13064E-02  9.35279E-02  9.58035E-02
#           9.81345E-02  1.00522E-01  1.02968E-01  1.05473E-01  1.08040E-01
#           1.10668E-01  1.13361E-01  1.16119E-01  1.18944E-01  1.21838E-01
#           1.24803E-01  1.27839E-01  1.30950E-01  1.34136E-01  1.37399E-01
#           1.40742E-01  1.44167E-01  1.47675E-01  1.51268E-01  1.54948E-01
#           1.58718E-01  1.62580E-01  1.66535E-01  1.70587E-01  1.74738E-01
#           1.78989E-01  1.83344E-01  1.87805E-01  1.92375E-01  1.97055E-01
#           2.01850E-01  2.06761E-01  2.11792E-01  2.16945E-01  2.22223E-01
#           2.27630E-01  2.33169E-01  2.38842E-01  2.44653E-01  2.50605E-01
#           2.56703E-01  2.62949E-01  2.69346E-01  2.75900E-01  2.82613E-01
#           2.89489E-01  2.96532E-01  3.03747E-01  3.11138E-01  3.18708E-01
#           3.26462E-01  3.34405E-01  3.42542E-01  3.50876E-01  3.59413E-01
#           3.68158E-01  3.77116E-01  3.86291E-01  3.95690E-01  4.05317E-01
#           4.15179E-01  4.25281E-01  4.35628E-01  4.46227E-01  4.57084E-01
#           4.68205E-01  4.79597E-01  4.91266E-01  5.03219E-01  5.15463E-01
#           5.28005E-01  5.40851E-01  5.54011E-01  5.67490E-01  5.81298E-01
#           5.95441E-01  6.09929E-01  6.24769E-01  6.39970E-01  6.55541E-01
#           6.71491E-01  6.87828E-01  7.04564E-01  7.21706E-01  7.39266E-01
#           7.57253E-01  7.75678E-01  7.94551E-01  8.13883E-01  8.33685E-01
#           8.53969E-01  8.74747E-01  8.96030E-01  9.17831E-01  9.40163E-01
#           9.63038E-01  9.86469E-01  1.01047E+00  1.03506E+00  1.06024E+00
#           1.08604E+00  1.11246E+00  1.13953E+00  1.16725E+00  1.19565E+00
#           1.22474E+00  1.25454E+00  1.28507E+00  1.31633E+00  1.34836E+00
#           1.38117E+00  1.41477E+00  1.44920E+00  1.48446E+00  1.52057E+00
#           1.55757E+00  1.59547E+00  1.63429E+00  1.67405E+00  1.71478E+00
#           1.75650E+00  1.79924E+00  1.84302E+00  1.88786E+00  1.93379E+00
#           1.98084E+00  2.02904E+00  2.07841E+00  2.12898E+00  2.18078E+00
#           2.23384E+00  2.28819E+00  2.34386E+00  2.40089E+00  2.45930E+00
#           2.51914E+00  2.58043E+00  2.64322E+00  2.70753E+00  2.77341E+00
#           2.84088E+00  2.91001E+00  2.98081E+00  3.05333E+00  3.12762E+00
#           3.20372E+00  3.28167E+00  3.36152E+00  3.44330E+00  3.52708E+00
#           3.61290E+00  3.70080E+00  3.79085E+00  3.88308E+00  3.97756E+00
#           4.07434E+00  4.17347E+00  4.27501E+00  4.37903E+00  4.48557E+00
#           4.59471E+00  4.70650E+00  4.82102E+00  4.93832E+00  5.05847E+00
#           5.18155E+00  5.30762E+00  5.43676E+00  5.56904E+00  5.70453E+00
#           5.84333E+00  5.98550E+00  6.13114E+00  6.28031E+00  6.43312E+00
#           6.58964E+00  6.74997E+00  6.91420E+00  7.08243E+00  7.25475E+00
#           7.43126E+00  7.61207E+00  7.79728E+00  7.98700E+00  8.18133E+00
#           8.38038E+00  8.58428E+00  8.79315E+00  9.00709E+00  9.22624E+00
#           9.45072E+00  9.68067E+00  9.91620E+00  1.01575E+01  1.04046E+01
#           1.06578E+01  1.09171E+01  1.11827E+01  1.14548E+01  1.17335E+01
#           1.20190E+01  1.23114E+01  1.26109E+01  1.29178E+01  1.32321E+01
#           1.35540E+01  1.38838E+01  1.42216E+01  1.45676E+01  1.49221E+01
#           1.52851E+01  1.56570E+01  1.60380E+01  1.64282E+01  1.68279E+01
#           1.72374E+01  1.76568E+01  1.80864E+01  1.85264E+01  1.89772E+01
#           1.94389E+01  1.99119E+01  2.03963E+01  2.08926E+01  2.14009E+01
#           2.19216E+01  2.24550E+01  2.30014E+01  2.35610E+01  2.41343E+01
#           2.47215E+01  2.53230E+01  2.59391E+01  2.65702E+01  2.72167E+01
#           2.78789E+01  2.85572E+01  2.92520E+01  2.99637E+01  3.06928E+01
#           3.14396E+01  3.22045E+01  3.29881E+01  3.37907E+01  3.46128E+01
#           3.54550E+01  3.63177E+01  3.72013E+01  3.81064E+01  3.90336E+01
#           3.99833E+01  4.09561E+01  4.19526E+01  4.29734E+01  4.40189E+01
#           4.50900E+01  4.61870E+01  4.73108E+01  4.84619E+01  4.96410E+01
#           5.08488E+01  5.20860E+01  5.33533E+01  5.46514E+01  5.59812E+01
#           5.73432E+01  5.87384E+01  6.01676E+01  6.16315E+01  6.31311E+01
#           6.46671E+01  6.62405E+01  6.78522E+01  6.95031E+01  7.11941E+01
#           7.29263E+01  7.47007E+01  7.65182E+01  7.83800E+01  8.02870E+01
#           8.22405E+01  8.42414E+01  8.62911E+01  8.83906E+01  9.05412E+01
#           9.27442E+01  9.50007E+01  9.73122E+01  9.96799E+01  1.02105E+02
#           1.04589E+02  1.07134E+02  1.09741E+02  1.12411E+02  1.15146E+02
#           1.17948E+02  1.20817E+02  1.23757E+02  1.26768E+02  1.29852E+02
#           1.33012E+02  1.36248E+02  1.39563E+02  1.42959E+02  1.46437E+02
#           1.50000E+02
     unit =    2            # unit is [1/cm^2/(MeV/n)/source]
     axis =  eng            # axis of output
     file = detector-27.out  # file name of output for the above axis
   output = f-curr          # surface crossing forward current spectrum
     part =  neutron  
# kf/name :  2112     
#    used :        main (  %)        temp (  %)       total (  %)
#  memory :         414 (  0)           0 (  0)         414 (  0)

#------------------------------------------------------------------------------
#newpage:
#   no. =    1   reg = 126 - 226

x: Energy [MeV/n]
y:  F-Curr [1/cm^2/(MeV/n)/source]         
p: xlog ylog afac(0.8) form(0.9)
h: n            x            y(neutron ),hh0l   n 
#  e-lower      e-upper      neutron     r.err 
   1.0000E-02   1.0243E-02   6.9985E-03  0.0153
   1.0243E-02   1.0493E-02   6.9093E-03  0.0152
   1.0493E-02   1.0748E-02   6.6771E-03  0.0153
   1.0748E-02   1.1009E-02   6.5896E-03  0.0152
   1.1009E-02   1.1277E-02   6.4241E-03  0.0152
   1.1277E-02   1.1552E-02   6.4056E-03  0.0151
   1.1552E-02   1.1833E-02   6.4969E-03  0.0148
   1.1833E-02   1.2121E-02   6.1980E-03  0.0150
   1.2121E-02   1.2415E-02   6.2773E-03  0.0147
   1.2415E-02   1.2718E-02   6.1296E-03  0.0147
   1.2718E-02   1.3027E-02   5.8547E-03  0.0149
   1.3027E-02   1.3344E-02   5.6853E-03  0.0149
   1.3344E-02   1.3669E-02   5.6526E-03  0.0148
   1.3669E-02   1.4001E-02   5.5243E-03  0.0148
   1.4001E-02   1.4342E-02   5.3520E-03  0.0148
   1.4342E-02   1.4691E-02   5.3085E-03  0.0147
   1.4691E-02   1.5048E-02   5.2764E-03  0.0146
   1.5048E-02   1.5414E-02   5.0779E-03  0.0147
   1.5414E-02   1.5789E-02   5.0640E-03  0.0145
   1.5789E-02   1.6174E-02   4.9364E-03  0.0145
   1.6174E-02   1.6567E-02   4.9797E-03  0.0143
   1.6567E-02   1.6970E-02   4.6997E-03  0.0145
   1.6970E-02   1.7383E-02   4.7121E-03  0.0143
   1.7383E-02   1.7806E-02   4.7222E-03  0.0142
   1.7806E-02   1.8239E-02   4.4900E-03  0.0143
   1.8239E-02   1.8683E-02   4.4577E-03  0.0142
   1.8683E-02   1.9138E-02   4.4745E-03  0.0140
   1.9138E-02   1.9603E-02   4.3880E-03  0.0140
   1.9603E-02   2.0080E-02   4.3165E-03  0.0139
   2.0080E-02   2.0569E-02   4.1509E-03  0.0140
   2.0569E-02   2.1069E-02   4.1219E-03  0.0139
   2.1069E-02   2.1582E-02   4.0107E-03  0.0139
   2.1582E-02   2.2107E-02   3.9013E-03  0.0140
   2.2107E-02   2.2645E-02   3.8804E-03  0.0138
   2.2645E-02   2.3196E-02   3.8068E-03  0.0138
   2.3196E-02   2.3760E-02   3.7117E-03  0.0138
   2.3760E-02   2.4338E-02   3.6924E-03  0.0137
   2.4338E-02   2.4930E-02   3.6388E-03  0.0136
   2.4930E-02   2.5537E-02   3.6065E-03  0.0135
   2.5537E-02   2.6158E-02   3.5475E-03  0.0135
   2.6158E-02   2.6795E-02   3.3825E-03  0.0136
   2.6795E-02   2.7447E-02   3.4218E-03  0.0134
   2.7447E-02   2.8114E-02   3.3369E-03  0.0134
   2.8114E-02   2.8799E-02   3.2296E-03  0.0135
   2.8799E-02   2.9499E-02   3.2071E-03  0.0133
   2.9499E-02   3.0217E-02   3.1867E-03  0.0132
   3.0217E-02   3.0952E-02   3.0326E-03  0.0134
   3.0952E-02   3.1705E-02   2.9988E-03  0.0133
   3.1705E-02   3.2477E-02   2.9753E-03  0.0132
   3.2477E-02   3.3267E-02   2.9006E-03  0.0132
   3.3267E-02   3.4076E-02   2.8312E-03  0.0132
   3.4076E-02   3.4905E-02   2.8725E-03  0.0130
   3.4905E-02   3.5755E-02   2.7812E-03  0.0130
   3.5755E-02   3.6625E-02   2.7128E-03  0.0130
   3.6625E-02   3.7516E-02   2.6637E-03  0.0130
   3.7516E-02   3.8428E-02   2.6026E-03  0.0130
   3.8428E-02   3.9363E-02   2.5865E-03  0.0129
   3.9363E-02   4.0321E-02   2.5372E-03  0.0128
   4.0321E-02   4.1302E-02   2.4480E-03  0.0129
   4.1302E-02   4.2307E-02   2.4006E-03  0.0129
   4.2307E-02   4.3337E-02   2.3661E-03  0.0128
   4.3337E-02   4.4391E-02   2.3293E-03  0.0128
   4.4391E-02   4.5471E-02   2.2991E-03  0.0127
   4.5471E-02   4.6577E-02   2.2586E-03  0.0127
   4.6577E-02   4.7711E-02   2.2069E-03  0.0126
   4.7711E-02   4.8871E-02   2.1617E-03  0.0126
   4.8871E-02   5.0061E-02   2.1687E-03  0.0125
   5.0061E-02   5.1279E-02   2.0993E-03  0.0125
   5.1279E-02   5.2526E-02   2.0176E-03  0.0126
   5.2526E-02   5.3804E-02   2.0203E-03  0.0124
   5.3804E-02   5.5113E-02   1.9925E-03  0.0124
   5.5113E-02   5.6454E-02   1.9726E-03  0.0123
   5.6454E-02   5.7828E-02   1.9499E-03  0.0122
   5.7828E-02   5.9235E-02   1.8883E-03  0.0123
   5.9235E-02   6.0676E-02   1.8784E-03  0.0122
   6.0676E-02   6.2152E-02   1.7849E-03  0.0123
   6.2152E-02   6.3665E-02   1.8103E-03  0.0121
   6.3665E-02   6.5214E-02   1.7801E-03  0.0120
   6.5214E-02   6.6800E-02   1.7571E-03  0.0120
   6.6800E-02   6.8426E-02   1.7146E-03  0.0120
   6.8426E-02   7.0090E-02   1.6854E-03  0.0119
   7.0090E-02   7.1796E-02   1.6187E-03  0.0120
   7.1796E-02   7.3543E-02   1.5782E-03  0.0120
   7.3543E-02   7.5332E-02   1.5697E-03  0.0119
   7.5332E-02   7.7165E-02   1.5652E-03  0.0118
   7.7165E-02   7.9042E-02   1.5499E-03  0.0117
   7.9042E-02   8.0965E-02   1.4981E-03  0.0118
   8.0965E-02   8.2935E-02   1.4934E-03  0.0117
   8.2935E-02   8.4953E-02   1.4651E-03  0.0116
   8.4953E-02   8.7020E-02   1.4264E-03  0.0116
   8.7020E-02   8.9138E-02   1.4201E-03  0.0115
   8.9138E-02   9.1306E-02   1.3790E-03  0.0116
   9.1306E-02   9.3528E-02   1.3725E-03  0.0115
   9.3528E-02   9.5804E-02   1.3431E-03  0.0114
   9.5804E-02   9.8134E-02   1.2971E-03  0.0115
   9.8134E-02   1.0052E-01   1.3079E-03  0.0113
   1.0052E-01   1.0297E-01   1.2783E-03  0.0113
   1.0297E-01   1.0547E-01   1.2358E-03  0.0114
   1.0547E-01   1.0804E-01   1.2287E-03  0.0113
   1.0804E-01   1.1067E-01   1.2050E-03  0.0112
   1.1067E-01   1.1336E-01   1.1983E-03  0.0111
   1.1336E-01   1.1612E-01   1.1680E-03  0.0111
   1.1612E-01   1.1894E-01   1.1253E-03  0.0112
   1.1894E-01   1.2184E-01   1.1272E-03  0.0111
   1.2184E-01   1.2480E-01   1.0863E-03  0.0111
   1.2480E-01   1.2784E-01   1.0819E-03  0.0110
   1.2784E-01   1.3095E-01   1.0572E-03  0.0110
   1.3095E-01   1.3414E-01   1.0274E-03  0.0111
   1.3414E-01   1.3740E-01   1.0147E-03  0.0110
   1.3740E-01   1.4074E-01   9.7929E-04  0.0111
   1.4074E-01   1.4417E-01   9.9253E-04  0.0108
   1.4417E-01   1.4767E-01   9.6451E-04  0.0109
   1.4767E-01   1.5127E-01   9.5229E-04  0.0108
   1.5127E-01   1.5495E-01   9.4396E-04  0.0107
   1.5495E-01   1.5872E-01   9.3225E-04  0.0107
   1.5872E-01   1.6258E-01   8.9908E-04  0.0107
   1.6258E-01   1.6654E-01   8.8642E-04  0.0107
   1.6654E-01   1.7059E-01   8.6872E-04  0.0107
   1.7059E-01   1.7474E-01   8.7430E-04  0.0105
   1.7474E-01   1.7899E-01   8.5833E-04  0.0105
   1.7899E-01   1.8334E-01   8.3133E-04  0.0105
   1.8334E-01   1.8781E-01   8.1894E-04  0.0105
   1.8781E-01   1.9237E-01   8.0474E-04  0.0104
   1.9237E-01   1.9706E-01   7.9801E-04  0.0103
   1.9706E-01   2.0185E-01   7.7793E-04  0.0104
   2.0185E-01   2.0676E-01   7.6768E-04  0.0103
   2.0676E-01   2.1179E-01   7.5433E-04  0.0103
   2.1179E-01   2.1694E-01   7.2935E-04  0.0103
   2.1694E-01   2.2222E-01   7.2362E-04  0.0102
   2.2222E-01   2.2763E-01   7.1228E-04  0.0102
   2.2763E-01   2.3317E-01   6.9825E-04  0.0102
   2.3317E-01   2.3884E-01   6.9718E-04  0.0101
   2.3884E-01   2.4465E-01   6.7181E-04  0.0101
   2.4465E-01   2.5061E-01   6.7151E-04  0.0100
   2.5061E-01   2.5670E-01   6.6789E-04  0.0099
   2.5670E-01   2.6295E-01   6.4296E-04  0.0100
   2.6295E-01   2.6935E-01   6.3041E-04  0.0100
   2.6935E-01   2.7590E-01   6.1775E-04  0.0099
   2.7590E-01   2.8261E-01   6.2298E-04  0.0098
   2.8261E-01   2.8949E-01   5.9865E-04  0.0099
   2.8949E-01   2.9653E-01   5.8443E-04  0.0099
   2.9653E-01   3.0375E-01   5.6433E-04  0.0099
   3.0375E-01   3.1114E-01   5.6403E-04  0.0098
   3.1114E-01   3.1871E-01   5.5576E-04  0.0098
   3.1871E-01   3.2646E-01   5.3915E-04  0.0098
   3.2646E-01   3.3441E-01   5.2911E-04  0.0098
   3.3441E-01   3.4254E-01   5.3370E-04  0.0096
   3.4254E-01   3.5088E-01   5.1896E-04  0.0096
   3.5088E-01   3.5941E-01   5.0973E-04  0.0096
   3.5941E-01   3.6816E-01   4.9833E-04  0.0096
   3.6816E-01   3.7712E-01   4.8314E-04  0.0096
   3.7712E-01   3.8629E-01   4.7343E-04  0.0096
   3.8629E-01   3.9569E-01   4.6883E-04  0.0095
   3.9569E-01   4.0532E-01   4.6133E-04  0.0095
   4.0532E-01   4.1518E-01   4.4718E-04  0.0095
   4.1518E-01   4.2528E-01   4.3716E-04  0.0095
   4.2528E-01   4.3563E-01   4.2898E-04  0.0095
   4.3563E-01   4.4623E-01   4.1320E-04  0.0096
   4.4623E-01   4.5708E-01   4.0751E-04  0.0095
   4.5708E-01   4.6821E-01   4.0280E-04  0.0095
   4.6821E-01   4.7960E-01   3.9053E-04  0.0095
   4.7960E-01   4.9127E-01   3.8687E-04  0.0094
   4.9127E-01   5.0322E-01   3.7387E-04  0.0095
   5.0322E-01   5.1546E-01   3.6600E-04  0.0094
   5.1546E-01   5.2800E-01   3.5925E-04  0.0094
   5.2800E-01   5.4085E-01   3.5044E-04  0.0094
   5.4085E-01   5.5401E-01   3.3704E-04  0.0095
   5.5401E-01   5.6749E-01   3.3141E-04  0.0095
   5.6749E-01   5.8130E-01   3.2984E-04  0.0094
   5.8130E-01   5.9544E-01   3.1811E-04  0.0094
   5.9544E-01   6.0993E-01   3.1415E-04  0.0094
   6.0993E-01   6.2477E-01   3.0008E-04  0.0095
   6.2477E-01   6.3997E-01   2.9664E-04  0.0094
   6.3997E-01   6.5554E-01   2.8456E-04  0.0095
   6.5554E-01   6.7149E-01   2.7960E-04  0.0095
   6.7149E-01   6.8783E-01   2.7350E-04  0.0095
   6.8783E-01   7.0456E-01   2.6413E-04  0.0095
   7.0456E-01   7.2171E-01   2.5846E-04  0.0095
   7.2171E-01   7.3927E-01   2.4502E-04  0.0096
   7.3927E-01   7.5725E-01   2.3651E-04  0.0097
   7.5725E-01   7.7568E-01   2.3564E-04  0.0096
   7.7568E-01   7.9455E-01   2.2456E-04  0.0097
   7.9455E-01   8.1388E-01   2.1597E-04  0.0098
   8.1388E-01   8.3368E-01   2.0731E-04  0.0099
   8.3368E-01   8.5397E-01   2.0361E-04  0.0098
   8.5397E-01   8.7475E-01   1.9481E-04  0.0099
   8.7475E-01   8.9603E-01   1.8832E-04  0.0100
   8.9603E-01   9.1783E-01   1.7694E-04  0.0102
   9.1783E-01   9.4016E-01   1.7210E-04  0.0102
   9.4016E-01   9.6304E-01   1.6810E-04  0.0102
   9.6304E-01   9.8647E-01   1.6006E-04  0.0103
   9.8647E-01   1.0105E+00   1.5551E-04  0.0104
   1.0105E+00   1.0351E+00   1.5293E-04  0.0103
   1.0351E+00   1.0602E+00   1.5452E-04  0.0101
   1.0602E+00   1.0860E+00   1.5582E-04  0.0100
   1.0860E+00   1.1125E+00   1.5885E-04  0.0098
   1.1125E+00   1.1395E+00   1.6212E-04  0.0095
   1.1395E+00   1.1673E+00   1.6777E-04  0.0093
   1.1673E+00   1.1957E+00   1.7198E-04  0.0090
   1.1957E+00   1.2247E+00   1.7774E-04  0.0088
   1.2247E+00   1.2545E+00   1.7588E-04  0.0087
   1.2545E+00   1.2851E+00   1.7774E-04  0.0086
   1.2851E+00   1.3163E+00   1.8068E-04  0.0084
   1.3163E+00   1.3484E+00   1.8282E-04  0.0083
   1.3484E+00   1.3812E+00   1.8755E-04  0.0081
   1.3812E+00   1.4148E+00   1.9169E-04  0.0079
   1.4148E+00   1.4492E+00   1.9286E-04  0.0078
   1.4492E+00   1.4845E+00   1.9318E-04  0.0077
   1.4845E+00   1.5206E+00   1.8988E-04  0.0076
   1.5206E+00   1.5576E+00   1.9190E-04  0.0075
   1.5576E+00   1.5955E+00   1.9068E-04  0.0074
   1.5955E+00   1.6343E+00   1.9259E-04  0.0073
   1.6343E+00   1.6741E+00   1.9607E-04  0.0072
   1.6741E+00   1.7148E+00   2.0055E-04  0.0070
   1.7148E+00   1.7565E+00   1.9517E-04  0.0070
   1.7565E+00   1.7992E+00   1.9535E-04  0.0069
   1.7992E+00   1.8430E+00   1.9316E-04  0.0069
   1.8430E+00   1.8879E+00   1.9428E-04  0.0068
   1.8879E+00   1.9338E+00   1.9413E-04  0.0067
   1.9338E+00   1.9808E+00   1.9367E-04  0.0066
   1.9808E+00   2.0290E+00   1.9493E-04  0.0065
   2.0290E+00   2.0784E+00   1.8926E-04  0.0065
   2.0784E+00   2.1290E+00   1.8667E-04  0.0065
   2.1290E+00   2.1808E+00   1.8411E-04  0.0065
   2.1808E+00   2.2338E+00   1.7955E-04  0.0065
   2.2338E+00   2.2882E+00   1.7615E-04  0.0065
   2.2882E+00   2.3439E+00   1.7664E-04  0.0064
   2.3439E+00   2.4009E+00   1.7421E-04  0.0063
   2.4009E+00   2.4593E+00   1.7332E-04  0.0063
   2.4593E+00   2.5191E+00   1.6681E-04  0.0063
   2.5191E+00   2.5804E+00   1.6090E-04  0.0064
   2.5804E+00   2.6432E+00   1.5499E-04  0.0064
   2.6432E+00   2.7075E+00   1.5224E-04  0.0064
   2.7075E+00   2.7734E+00   1.4684E-04  0.0064
   2.7734E+00   2.8409E+00   1.4432E-04  0.0064
   2.8409E+00   2.9100E+00   1.4332E-04  0.0064
   2.9100E+00   2.9808E+00   1.3998E-04  0.0064
   2.9808E+00   3.0533E+00   1.3381E-04  0.0064
   3.0533E+00   3.1276E+00   1.2711E-04  0.0065
   3.1276E+00   3.2037E+00   1.2312E-04  0.0065
   3.2037E+00   3.2817E+00   1.1754E-04  0.0066
   3.2817E+00   3.3615E+00   1.1186E-04  0.0067
   3.3615E+00   3.4433E+00   1.0706E-04  0.0068
   3.4433E+00   3.5271E+00   1.0277E-04  0.0068
   3.5271E+00   3.6129E+00   9.9062E-05  0.0069
   3.6129E+00   3.7008E+00   9.5039E-05  0.0069
   3.7008E+00   3.7908E+00   9.0641E-05  0.0070
   3.7908E+00   3.8831E+00   8.5170E-05  0.0071
   3.8831E+00   3.9776E+00   8.1606E-05  0.0072
   3.9776E+00   4.0743E+00   7.6650E-05  0.0073
   4.0743E+00   4.1735E+00   7.1767E-05  0.0075
   4.1735E+00   4.2750E+00   6.7904E-05  0.0076
   4.2750E+00   4.3790E+00   6.4368E-05  0.0077
   4.3790E+00   4.4856E+00   5.9993E-05  0.0079
   4.4856E+00   4.5947E+00   5.5757E-05  0.0081
   4.5947E+00   4.7065E+00   5.2787E-05  0.0082
   4.7065E+00   4.8210E+00   4.9773E-05  0.0084
   4.8210E+00   4.9383E+00   4.6449E-05  0.0086
   4.9383E+00   5.0585E+00   4.3157E-05  0.0088
   5.0585E+00   5.1815E+00   4.0472E-05  0.0090
   5.1815E+00   5.3076E+00   3.7487E-05  0.0092
   5.3076E+00   5.4368E+00   3.4739E-05  0.0094
   5.4368E+00   5.5690E+00   3.1554E-05  0.0098
   5.5690E+00   5.7045E+00   2.9441E-05  0.0100
   5.7045E+00   5.8433E+00   2.7106E-05  0.0103
   5.8433E+00   5.9855E+00   2.5347E-05  0.0105
   5.9855E+00   6.1311E+00   2.3455E-05  0.0108
   6.1311E+00   6.2803E+00   2.1152E-05  0.0113
   6.2803E+00   6.4331E+00   1.9482E-05  0.0116
   6.4331E+00   6.5896E+00   1.7471E-05  0.0121
   6.5896E+00   6.7500E+00   1.6137E-05  0.0124
   6.7500E+00   6.9142E+00   1.4578E-05  0.0129
   6.9142E+00   7.0824E+00   1.3307E-05  0.0134
   7.0824E+00   7.2548E+00   1.2197E-05  0.0138
   7.2548E+00   7.4313E+00   1.1103E-05  0.0143
   7.4313E+00   7.6121E+00   1.0119E-05  0.0148
   7.6121E+00   7.7973E+00   9.1724E-06  0.0153
   7.7973E+00   7.9870E+00   8.1217E-06  0.0161
   7.9870E+00   8.1813E+00   7.4358E-06  0.0166
   8.1813E+00   8.3804E+00   6.4675E-06  0.0176
   8.3804E+00   8.5843E+00   5.9725E-06  0.0181
   8.5843E+00   8.7931E+00   5.4543E-06  0.0187
   8.7931E+00   9.0071E+00   4.9555E-06  0.0194
   9.0071E+00   9.2262E+00   4.3386E-06  0.0205
   9.2262E+00   9.4507E+00   4.0360E-06  0.0210
   9.4507E+00   9.6807E+00   3.6339E-06  0.0218
   9.6807E+00   9.9162E+00   3.3311E-06  0.0225
   9.9162E+00   1.0157E+01   2.9096E-06  0.0238
   1.0157E+01   1.0405E+01   2.6479E-06  0.0247
   1.0405E+01   1.0658E+01   2.3662E-06  0.0258
   1.0658E+01   1.0917E+01   2.1626E-06  0.0266
   1.0917E+01   1.1183E+01   1.8861E-06  0.0282
   1.1183E+01   1.1455E+01   1.7575E-06  0.0288
   1.1455E+01   1.1733E+01   1.5012E-06  0.0308
   1.1733E+01   1.2019E+01   1.3857E-06  0.0317
   1.2019E+01   1.2311E+01   1.2447E-06  0.0330
   1.2311E+01   1.2611E+01   1.0730E-06  0.0351
   1.2611E+01   1.2918E+01   1.0168E-06  0.0357
   1.2918E+01   1.3232E+01   9.3987E-07  0.0367
   1.3232E+01   1.3554E+01   8.4797E-07  0.0381
   1.3554E+01   1.3884E+01   7.7749E-07  0.0393
   1.3884E+01   1.4222E+01   7.5073E-07  0.0396
   1.4222E+01   1.4568E+01   6.7105E-07  0.0414
   1.4568E+01   1.4922E+01   5.8966E-07  0.0436
   1.4922E+01   1.5285E+01   6.2137E-07  0.0420
   1.5285E+01   1.5657E+01   5.5768E-07  0.0437
   1.5657E+01   1.6038E+01   5.0086E-07  0.0457
   1.6038E+01   1.6428E+01   4.4078E-07  0.0481
   1.6428E+01   1.6828E+01   4.9286E-07  0.0450
   1.6828E+01   1.7237E+01   4.4940E-07  0.0466
   1.7237E+01   1.7657E+01   4.0296E-07  0.0485
   1.7657E+01   1.8086E+01   4.0363E-07  0.0480
   1.8086E+01   1.8526E+01   3.8313E-07  0.0486
   1.8526E+01   1.8977E+01   3.6871E-07  0.0490
   1.8977E+01   1.9439E+01   3.2920E-07  0.0512
   1.9439E+01   1.9912E+01   3.2265E-07  0.0511
   1.9912E+01   2.0396E+01   2.7164E-07  0.0551
   2.0396E+01   2.0893E+01   2.4181E-07  0.0577
   2.0893E+01   2.1401E+01   2.2977E-07  0.0585
   2.1401E+01   2.1922E+01   2.6733E-07  0.0536
   2.1922E+01   2.2455E+01   2.5348E-07  0.0544
   2.2455E+01   2.3001E+01   2.2477E-07  0.0571
   2.3001E+01   2.3561E+01   2.4659E-07  0.0538
   2.3561E+01   2.4134E+01   2.1282E-07  0.0573
   2.4134E+01   2.4721E+01   2.0640E-07  0.0574
   2.4721E+01   2.5323E+01   2.0083E-07  0.0575
   2.5323E+01   2.5939E+01   2.1294E-07  0.0552
   2.5939E+01   2.6570E+01   1.5908E-07  0.0631
   2.6570E+01   2.7217E+01   1.7077E-07  0.0602
   2.7217E+01   2.7879E+01   1.6853E-07  0.0599
   2.7879E+01   2.8557E+01   1.5627E-07  0.0614
   2.8557E+01   2.9252E+01   1.3759E-07  0.0647
   2.9252E+01   2.9964E+01   1.4444E-07  0.0624
   2.9964E+01   3.0693E+01   1.3333E-07  0.0642
   3.0693E+01   3.1440E+01   1.1409E-07  0.0685
   3.1440E+01   3.2205E+01   1.1556E-07  0.0673
   3.2205E+01   3.2988E+01   1.1537E-07  0.0665
   3.2988E+01   3.3791E+01   9.8178E-08  0.0712
   3.3791E+01   3.4613E+01   8.6602E-08  0.0750
   3.4613E+01   3.5455E+01   8.8819E-08  0.0731
   3.5455E+01   3.6318E+01   8.2073E-08  0.0752
   3.6318E+01   3.7201E+01   7.6955E-08  0.0767
   3.7201E+01   3.8106E+01   6.5846E-08  0.0819
   3.8106E+01   3.9034E+01   5.3928E-08  0.0894
   3.9034E+01   3.9983E+01   6.0228E-08  0.0836
   3.9983E+01   4.0956E+01   4.5640E-08  0.0949
   4.0956E+01   4.1953E+01   4.7767E-08  0.0917
   4.1953E+01   4.2973E+01   3.5269E-08  0.1054
   4.2973E+01   4.4019E+01   4.0934E-08  0.0967
   4.4019E+01   4.5090E+01   3.6974E-08  0.1005
   4.5090E+01   4.6187E+01   3.0262E-08  0.1098
   4.6187E+01   4.7311E+01   3.2747E-08  0.1043
   4.7311E+01   4.8462E+01   2.5714E-08  0.1162
   4.8462E+01   4.9641E+01   1.9337E-08  0.1325
   4.9641E+01   5.0849E+01   1.6228E-08  0.1429
   5.0849E+01   5.2086E+01   1.4549E-08  0.1491
   5.2086E+01   5.3353E+01   1.1678E-08  0.1644
   5.3353E+01   5.4651E+01   1.2942E-08  0.1543
   5.4651E+01   5.5981E+01   8.1221E-09  0.1925
   5.5981E+01   5.7343E+01   8.2228E-09  0.1890
   5.7343E+01   5.8738E+01   8.0275E-09  0.1890
   5.8738E+01   6.0168E+01   6.1575E-09  0.2132
   6.0168E+01   6.1632E+01   5.1915E-09  0.2294
   6.1632E+01   6.3131E+01   4.5347E-09  0.2425
   6.3131E+01   6.4667E+01   2.3437E-09  0.3333
   6.4667E+01   6.6240E+01   3.3049E-09  0.2774
   6.6240E+01   6.7852E+01   1.9855E-09  0.3536
   6.7852E+01   6.9503E+01   2.6652E-09  0.3015
   6.9503E+01   7.1194E+01   7.0961E-10  0.5774
   7.1194E+01   7.2926E+01   2.3092E-09  0.3162
   7.2926E+01   7.4701E+01   1.1272E-09  0.4472
   7.4701E+01   7.6518E+01   1.1004E-09  0.4472
   7.6518E+01   7.8380E+01   2.1485E-10  1.0000
   7.8380E+01   8.0287E+01   8.3899E-10  0.5000
   8.0287E+01   8.2240E+01   6.1430E-10  0.5774
   8.2240E+01   8.4241E+01   1.9990E-10  1.0000
   8.4241E+01   8.6291E+01   1.9515E-10  1.0000
   8.6291E+01   8.8391E+01   0.0000E+00  0.0000
   8.8391E+01   9.0541E+01   0.0000E+00  0.0000
   9.0541E+01   9.2744E+01   0.0000E+00  0.0000
   9.2744E+01   9.5001E+01   0.0000E+00  0.0000
   9.5001E+01   9.7312E+01   0.0000E+00  0.0000
   9.7312E+01   9.9680E+01   0.0000E+00  0.0000
   9.9680E+01   1.0211E+02   0.0000E+00  0.0000
   1.0211E+02   1.0459E+02   0.0000E+00  0.0000
   1.0459E+02   1.0713E+02   0.0000E+00  0.0000
   1.0713E+02   1.0974E+02   0.0000E+00  0.0000
   1.0974E+02   1.1241E+02   0.0000E+00  0.0000
   1.1241E+02   1.1515E+02   0.0000E+00  0.0000
   1.1515E+02   1.1795E+02   0.0000E+00  0.0000
   1.1795E+02   1.2082E+02   0.0000E+00  0.0000
   1.2082E+02   1.2376E+02   0.0000E+00  0.0000
   1.2376E+02   1.2677E+02   0.0000E+00  0.0000
   1.2677E+02   1.2985E+02   0.0000E+00  0.0000
   1.2985E+02   1.3301E+02   0.0000E+00  0.0000
   1.3301E+02   1.3625E+02   0.0000E+00  0.0000
   1.3625E+02   1.3956E+02   0.0000E+00  0.0000
   1.3956E+02   1.4296E+02   0.0000E+00  0.0000
   1.4296E+02   1.4644E+02   0.0000E+00  0.0000
   1.4644E+02   1.5000E+02   0.0000E+00  0.0000

#   sum over                 7.9755E-06
'no. =    1   reg = 126 - 226'
msuc: {\huge [t-cross] in region mesh}
msdr: {\it plotted by \ANGEL \version}
msdl: {\it calculated by \PHITS  3.26}
wt: s(0.7)
\vspace{-3}
  region surface crossing
  area  &=&   1.0000E+00 [cm^2]
e:
 
# Information for Restart Calculation
# This calculation was newly started
# istdev =  2 # 1:Batch variance, 2:History variance
# resc2  = 2.50000000000000000E+09 # Total source weight or Total source weight / maxcas
# resc3  = 2.50000000000000000E+09 # Total history number or Total batch number
# maxcas =   500000000 # History / Batch, only used for istdev=1
# bitrseed = 1100001110001001100010001100011001110101000011000110100101010100 # bit data of rseed
