[ T-Cross ]
    title = [t-cross] in region mesh
     mesh =  reg            # mesh type is region-wise
      reg =    1            # number of crossing regions
      non     r-from    r-to       area
      1       116       216        1.000000    
   e-type =    3            # e-mesh is log given by emin, emax and ne
     emin =  1.0000000E-02  # minimum value of e-mesh points
     emax =   150.0000      # maximum value of e-mesh points
#    edel =  2.4039514E-02  # mesh width of e-mesh points
       ne =    400          # number of e-mesh points
#    data = ( e(i), i = 1, ne + 1 )
#           1.00000E-02  1.02433E-02  1.04925E-02  1.07478E-02  1.10093E-02
#           1.12772E-02  1.15516E-02  1.18326E-02  1.21205E-02  1.24154E-02
#           1.27175E-02  1.30269E-02  1.33439E-02  1.36686E-02  1.40011E-02
#           1.43418E-02  1.46907E-02  1.50482E-02  1.54143E-02  1.57894E-02
#           1.61735E-02  1.65670E-02  1.69701E-02  1.73830E-02  1.78060E-02
#           1.82392E-02  1.86830E-02  1.91375E-02  1.96032E-02  2.00801E-02
#           2.05687E-02  2.10692E-02  2.15818E-02  2.21069E-02  2.26448E-02
#           2.31957E-02  2.37601E-02  2.43382E-02  2.49304E-02  2.55369E-02
#           2.61583E-02  2.67947E-02  2.74467E-02  2.81145E-02  2.87985E-02
#           2.94992E-02  3.02169E-02  3.09521E-02  3.17052E-02  3.24766E-02
#           3.32668E-02  3.40762E-02  3.49053E-02  3.57546E-02  3.66246E-02
#           3.75157E-02  3.84284E-02  3.93634E-02  4.03212E-02  4.13022E-02
#           4.23071E-02  4.33365E-02  4.43909E-02  4.54710E-02  4.65773E-02
#           4.77106E-02  4.88714E-02  5.00605E-02  5.12785E-02  5.25262E-02
#           5.38042E-02  5.51133E-02  5.64542E-02  5.78278E-02  5.92348E-02
#           6.06760E-02  6.21523E-02  6.36645E-02  6.52135E-02  6.68002E-02
#           6.84255E-02  7.00904E-02  7.17957E-02  7.35426E-02  7.53319E-02
#           7.71648E-02  7.90423E-02  8.09655E-02  8.29354E-02  8.49533E-02
#           8.70203E-02  8.91376E-02  9.13064E-02  9.35279E-02  9.58035E-02
#           9.81345E-02  1.00522E-01  1.02968E-01  1.05473E-01  1.08040E-01
#           1.10668E-01  1.13361E-01  1.16119E-01  1.18944E-01  1.21838E-01
#           1.24803E-01  1.27839E-01  1.30950E-01  1.34136E-01  1.37399E-01
#           1.40742E-01  1.44167E-01  1.47675E-01  1.51268E-01  1.54948E-01
#           1.58718E-01  1.62580E-01  1.66535E-01  1.70587E-01  1.74738E-01
#           1.78989E-01  1.83344E-01  1.87805E-01  1.92375E-01  1.97055E-01
#           2.01850E-01  2.06761E-01  2.11792E-01  2.16945E-01  2.22223E-01
#           2.27630E-01  2.33169E-01  2.38842E-01  2.44653E-01  2.50605E-01
#           2.56703E-01  2.62949E-01  2.69346E-01  2.75900E-01  2.82613E-01
#           2.89489E-01  2.96532E-01  3.03747E-01  3.11138E-01  3.18708E-01
#           3.26462E-01  3.34405E-01  3.42542E-01  3.50876E-01  3.59413E-01
#           3.68158E-01  3.77116E-01  3.86291E-01  3.95690E-01  4.05317E-01
#           4.15179E-01  4.25281E-01  4.35628E-01  4.46227E-01  4.57084E-01
#           4.68205E-01  4.79597E-01  4.91266E-01  5.03219E-01  5.15463E-01
#           5.28005E-01  5.40851E-01  5.54011E-01  5.67490E-01  5.81298E-01
#           5.95441E-01  6.09929E-01  6.24769E-01  6.39970E-01  6.55541E-01
#           6.71491E-01  6.87828E-01  7.04564E-01  7.21706E-01  7.39266E-01
#           7.57253E-01  7.75678E-01  7.94551E-01  8.13883E-01  8.33685E-01
#           8.53969E-01  8.74747E-01  8.96030E-01  9.17831E-01  9.40163E-01
#           9.63038E-01  9.86469E-01  1.01047E+00  1.03506E+00  1.06024E+00
#           1.08604E+00  1.11246E+00  1.13953E+00  1.16725E+00  1.19565E+00
#           1.22474E+00  1.25454E+00  1.28507E+00  1.31633E+00  1.34836E+00
#           1.38117E+00  1.41477E+00  1.44920E+00  1.48446E+00  1.52057E+00
#           1.55757E+00  1.59547E+00  1.63429E+00  1.67405E+00  1.71478E+00
#           1.75650E+00  1.79924E+00  1.84302E+00  1.88786E+00  1.93379E+00
#           1.98084E+00  2.02904E+00  2.07841E+00  2.12898E+00  2.18078E+00
#           2.23384E+00  2.28819E+00  2.34386E+00  2.40089E+00  2.45930E+00
#           2.51914E+00  2.58043E+00  2.64322E+00  2.70753E+00  2.77341E+00
#           2.84088E+00  2.91001E+00  2.98081E+00  3.05333E+00  3.12762E+00
#           3.20372E+00  3.28167E+00  3.36152E+00  3.44330E+00  3.52708E+00
#           3.61290E+00  3.70080E+00  3.79085E+00  3.88308E+00  3.97756E+00
#           4.07434E+00  4.17347E+00  4.27501E+00  4.37903E+00  4.48557E+00
#           4.59471E+00  4.70650E+00  4.82102E+00  4.93832E+00  5.05847E+00
#           5.18155E+00  5.30762E+00  5.43676E+00  5.56904E+00  5.70453E+00
#           5.84333E+00  5.98550E+00  6.13114E+00  6.28031E+00  6.43312E+00
#           6.58964E+00  6.74997E+00  6.91420E+00  7.08243E+00  7.25475E+00
#           7.43126E+00  7.61207E+00  7.79728E+00  7.98700E+00  8.18133E+00
#           8.38038E+00  8.58428E+00  8.79315E+00  9.00709E+00  9.22624E+00
#           9.45072E+00  9.68067E+00  9.91620E+00  1.01575E+01  1.04046E+01
#           1.06578E+01  1.09171E+01  1.11827E+01  1.14548E+01  1.17335E+01
#           1.20190E+01  1.23114E+01  1.26109E+01  1.29178E+01  1.32321E+01
#           1.35540E+01  1.38838E+01  1.42216E+01  1.45676E+01  1.49221E+01
#           1.52851E+01  1.56570E+01  1.60380E+01  1.64282E+01  1.68279E+01
#           1.72374E+01  1.76568E+01  1.80864E+01  1.85264E+01  1.89772E+01
#           1.94389E+01  1.99119E+01  2.03963E+01  2.08926E+01  2.14009E+01
#           2.19216E+01  2.24550E+01  2.30014E+01  2.35610E+01  2.41343E+01
#           2.47215E+01  2.53230E+01  2.59391E+01  2.65702E+01  2.72167E+01
#           2.78789E+01  2.85572E+01  2.92520E+01  2.99637E+01  3.06928E+01
#           3.14396E+01  3.22045E+01  3.29881E+01  3.37907E+01  3.46128E+01
#           3.54550E+01  3.63177E+01  3.72013E+01  3.81064E+01  3.90336E+01
#           3.99833E+01  4.09561E+01  4.19526E+01  4.29734E+01  4.40189E+01
#           4.50900E+01  4.61870E+01  4.73108E+01  4.84619E+01  4.96410E+01
#           5.08488E+01  5.20860E+01  5.33533E+01  5.46514E+01  5.59812E+01
#           5.73432E+01  5.87384E+01  6.01676E+01  6.16315E+01  6.31311E+01
#           6.46671E+01  6.62405E+01  6.78522E+01  6.95031E+01  7.11941E+01
#           7.29263E+01  7.47007E+01  7.65182E+01  7.83800E+01  8.02870E+01
#           8.22405E+01  8.42414E+01  8.62911E+01  8.83906E+01  9.05412E+01
#           9.27442E+01  9.50007E+01  9.73122E+01  9.96799E+01  1.02105E+02
#           1.04589E+02  1.07134E+02  1.09741E+02  1.12411E+02  1.15146E+02
#           1.17948E+02  1.20817E+02  1.23757E+02  1.26768E+02  1.29852E+02
#           1.33012E+02  1.36248E+02  1.39563E+02  1.42959E+02  1.46437E+02
#           1.50000E+02
     unit =    2            # unit is [1/cm^2/(MeV/n)/source]
     axis =  eng            # axis of output
     file = detector-17.out  # file name of output for the above axis
   output = f-curr          # surface crossing forward current spectrum
     part =  neutron  
# kf/name :  2112     
#    used :        main (  %)        temp (  %)       total (  %)
#  memory :         414 (  0)           0 (  0)         414 (  0)

#------------------------------------------------------------------------------
#newpage:
#   no. =    1   reg = 116 - 216

x: Energy [MeV/n]
y:  F-Curr [1/cm^2/(MeV/n)/source]         
p: xlog ylog afac(0.8) form(0.9)
h: n            x            y(neutron ),hh0l   n 
#  e-lower      e-upper      neutron     r.err 
   1.0000E-02   1.0243E-02   4.2878E-04  0.0618
   1.0243E-02   1.0493E-02   3.5650E-04  0.0670
   1.0493E-02   1.0748E-02   3.4146E-04  0.0676
   1.0748E-02   1.1009E-02   3.3002E-04  0.0679
   1.1009E-02   1.1277E-02   3.2394E-04  0.0678
   1.1277E-02   1.1552E-02   3.0059E-04  0.0695
   1.1552E-02   1.1833E-02   3.1734E-04  0.0668
   1.1833E-02   1.2121E-02   3.0359E-04  0.0676
   1.2121E-02   1.2415E-02   3.3493E-04  0.0634
   1.2415E-02   1.2718E-02   2.8803E-04  0.0677
   1.2718E-02   1.3027E-02   2.7311E-04  0.0687
   1.3027E-02   1.3344E-02   2.5527E-04  0.0702
   1.3344E-02   1.3669E-02   2.7590E-04  0.0667
   1.3669E-02   1.4001E-02   2.9136E-04  0.0640
   1.4001E-02   1.4342E-02   2.7325E-04  0.0655
   1.4342E-02   1.4691E-02   2.8883E-04  0.0628
   1.4691E-02   1.5048E-02   2.7220E-04  0.0639
   1.5048E-02   1.5414E-02   2.5531E-04  0.0653
   1.5414E-02   1.5789E-02   2.4254E-04  0.0662
   1.5789E-02   1.6174E-02   2.4560E-04  0.0650
   1.6174E-02   1.6567E-02   2.6214E-04  0.0622
   1.6567E-02   1.6970E-02   2.0573E-04  0.0694
   1.6970E-02   1.7383E-02   2.3721E-04  0.0638
   1.7383E-02   1.7806E-02   2.4096E-04  0.0625
   1.7806E-02   1.8239E-02   2.1636E-04  0.0652
   1.8239E-02   1.8683E-02   2.2733E-04  0.0629
   1.8683E-02   1.9138E-02   2.3354E-04  0.0613
   1.9138E-02   1.9603E-02   2.1940E-04  0.0624
   1.9603E-02   2.0080E-02   2.2314E-04  0.0611
   2.0080E-02   2.0569E-02   2.0243E-04  0.0635
   2.0569E-02   2.1069E-02   2.0606E-04  0.0622
   2.1069E-02   2.1582E-02   2.0350E-04  0.0618
   2.1582E-02   2.2107E-02   1.8735E-04  0.0636
   2.2107E-02   2.2645E-02   1.9440E-04  0.0617
   2.2645E-02   2.3196E-02   1.8178E-04  0.0631
   2.3196E-02   2.3760E-02   1.8909E-04  0.0611
   2.3760E-02   2.4338E-02   1.5173E-04  0.0674
   2.4338E-02   2.4930E-02   1.9440E-04  0.0588
   2.4930E-02   2.5537E-02   1.6201E-04  0.0637
   2.5537E-02   2.6158E-02   1.6582E-04  0.0622
   2.6158E-02   2.6795E-02   1.6712E-04  0.0611
   2.6795E-02   2.7447E-02   1.5819E-04  0.0622
   2.7447E-02   2.8114E-02   1.5855E-04  0.0613
   2.8114E-02   2.8799E-02   1.3828E-04  0.0649
   2.8799E-02   2.9499E-02   1.4789E-04  0.0619
   2.9499E-02   3.0217E-02   1.2703E-04  0.0660
   3.0217E-02   3.0952E-02   1.4674E-04  0.0608
   3.0952E-02   3.1705E-02   1.6039E-04  0.0574
   3.1705E-02   3.2477E-02   1.2781E-04  0.0636
   3.2477E-02   3.3267E-02   1.3963E-04  0.0601
   3.3267E-02   3.4076E-02   1.2886E-04  0.0618
   3.4076E-02   3.4905E-02   1.3273E-04  0.0602
   3.4905E-02   3.5755E-02   1.4361E-04  0.0571
   3.5755E-02   3.6625E-02   1.2369E-04  0.0609
   3.6625E-02   3.7516E-02   1.1726E-04  0.0618
   3.7516E-02   3.8428E-02   1.2771E-04  0.0585
   3.8428E-02   3.9363E-02   1.0304E-04  0.0643
   3.9363E-02   4.0321E-02   1.2719E-04  0.0572
   4.0321E-02   4.1302E-02   1.1446E-04  0.0596
   4.1302E-02   4.2307E-02   1.1109E-04  0.0597
   4.2307E-02   4.3337E-02   1.1499E-04  0.0580
   4.3337E-02   4.4391E-02   1.0288E-04  0.0606
   4.4391E-02   4.5471E-02   9.8387E-05  0.0613
   4.5471E-02   4.6577E-02   9.8861E-05  0.0604
   4.6577E-02   4.7711E-02   9.8423E-05  0.0597
   4.7711E-02   4.8871E-02   1.0778E-04  0.0564
   4.8871E-02   5.0061E-02   9.5283E-05  0.0593
   5.0061E-02   5.1279E-02   1.0167E-04  0.0568
   5.1279E-02   5.2526E-02   8.9875E-05  0.0595
   5.2526E-02   5.3804E-02   8.8698E-05  0.0593
   5.3804E-02   5.5113E-02   9.4423E-05  0.0568
   5.5113E-02   5.6454E-02   9.0398E-05  0.0574
   5.6454E-02   5.7828E-02   8.5781E-05  0.0582
   5.7828E-02   5.9235E-02   8.7322E-05  0.0569
   5.9235E-02   6.0676E-02   8.0599E-05  0.0586
   6.0676E-02   6.2152E-02   8.6586E-05  0.0558
   6.2152E-02   6.3665E-02   7.4405E-05  0.0595
   6.3665E-02   6.5214E-02   8.1398E-05  0.0562
   6.5214E-02   6.6800E-02   7.6875E-05  0.0572
   6.6800E-02   6.8426E-02   7.9183E-05  0.0556
   6.8426E-02   7.0090E-02   7.4164E-05  0.0568
   7.0090E-02   7.1796E-02   6.8090E-05  0.0585
   7.1796E-02   7.3543E-02   6.8226E-05  0.0578
   7.3543E-02   7.5332E-02   7.1537E-05  0.0558
   7.5332E-02   7.7165E-02   6.6832E-05  0.0570
   7.7165E-02   7.9042E-02   6.9262E-05  0.0553
   7.9042E-02   8.0965E-02   5.9842E-05  0.0589
   8.0965E-02   8.2935E-02   5.7737E-05  0.0591
   8.2935E-02   8.4953E-02   5.8974E-05  0.0579
   8.4953E-02   8.7020E-02   6.2355E-05  0.0556
   8.7020E-02   8.9138E-02   5.6911E-05  0.0575
   8.9138E-02   9.1306E-02   5.5112E-05  0.0578
   9.1306E-02   9.3528E-02   5.3031E-05  0.0582
   9.3528E-02   9.5804E-02   5.5696E-05  0.0561
   9.5804E-02   9.8134E-02   5.9387E-05  0.0536
   9.8134E-02   1.0052E-01   5.6568E-05  0.0543
   1.0052E-01   1.0297E-01   5.7357E-05  0.0533
   1.0297E-01   1.0547E-01   5.5094E-05  0.0537
   1.0547E-01   1.0804E-01   5.5098E-05  0.0531
   1.0804E-01   1.1067E-01   6.0181E-05  0.0502
   1.1067E-01   1.1336E-01   6.1915E-05  0.0488
   1.1336E-01   1.1612E-01   6.1976E-05  0.0482
   1.1612E-01   1.1894E-01   6.6488E-05  0.0460
   1.1894E-01   1.2184E-01   7.3908E-05  0.0432
   1.2184E-01   1.2480E-01   6.8162E-05  0.0444
   1.2480E-01   1.2784E-01   7.0957E-05  0.0430
   1.2784E-01   1.3095E-01   7.3112E-05  0.0418
   1.3095E-01   1.3414E-01   7.5516E-05  0.0407
   1.3414E-01   1.3740E-01   8.0137E-05  0.0390
   1.3740E-01   1.4074E-01   8.2411E-05  0.0380
   1.4074E-01   1.4417E-01   8.2892E-05  0.0375
   1.4417E-01   1.4767E-01   8.2928E-05  0.0370
   1.4767E-01   1.5127E-01   8.6407E-05  0.0358
   1.5127E-01   1.5495E-01   8.6903E-05  0.0353
   1.5495E-01   1.5872E-01   9.1473E-05  0.0340
   1.5872E-01   1.6258E-01   9.0357E-05  0.0338
   1.6258E-01   1.6654E-01   9.7828E-05  0.0321
   1.6654E-01   1.7059E-01   9.6357E-05  0.0319
   1.7059E-01   1.7474E-01   1.0197E-04  0.0307
   1.7474E-01   1.7899E-01   1.0247E-04  0.0302
   1.7899E-01   1.8334E-01   1.0825E-04  0.0291
   1.8334E-01   1.8781E-01   1.1270E-04  0.0281
   1.8781E-01   1.9237E-01   1.1513E-04  0.0275
   1.9237E-01   1.9706E-01   1.1460E-04  0.0273
   1.9706E-01   2.0185E-01   1.2350E-04  0.0259
   2.0185E-01   2.0676E-01   1.1923E-04  0.0261
   2.0676E-01   2.1179E-01   1.2185E-04  0.0255
   2.1179E-01   2.1694E-01   1.2682E-04  0.0247
   2.1694E-01   2.2222E-01   1.2840E-04  0.0242
   2.2222E-01   2.2763E-01   1.3020E-04  0.0238
   2.2763E-01   2.3317E-01   1.3691E-04  0.0229
   2.3317E-01   2.3884E-01   1.4362E-04  0.0221
   2.3884E-01   2.4465E-01   1.4387E-04  0.0218
   2.4465E-01   2.5061E-01   1.4992E-04  0.0211
   2.5061E-01   2.5670E-01   1.4108E-04  0.0215
   2.5670E-01   2.6295E-01   1.5391E-04  0.0203
   2.6295E-01   2.6935E-01   1.4958E-04  0.0204
   2.6935E-01   2.7590E-01   1.5936E-04  0.0195
   2.7590E-01   2.8261E-01   1.6442E-04  0.0190
   2.8261E-01   2.8949E-01   1.6340E-04  0.0188
   2.8949E-01   2.9653E-01   1.6643E-04  0.0184
   2.9653E-01   3.0375E-01   1.6844E-04  0.0181
   3.0375E-01   3.1114E-01   1.6941E-04  0.0178
   3.1114E-01   3.1871E-01   1.7294E-04  0.0174
   3.1871E-01   3.2646E-01   1.8348E-04  0.0167
   3.2646E-01   3.3441E-01   1.8402E-04  0.0165
   3.3441E-01   3.4254E-01   1.8864E-04  0.0161
   3.4254E-01   3.5088E-01   1.8885E-04  0.0159
   3.5088E-01   3.5941E-01   1.9322E-04  0.0155
   3.5941E-01   3.6816E-01   1.9411E-04  0.0153
   3.6816E-01   3.7712E-01   2.0304E-04  0.0148
   3.7712E-01   3.8629E-01   2.0495E-04  0.0145
   3.8629E-01   3.9569E-01   2.0688E-04  0.0143
   3.9569E-01   4.0532E-01   2.0982E-04  0.0140
   4.0532E-01   4.1518E-01   2.1335E-04  0.0137
   4.1518E-01   4.2528E-01   2.1254E-04  0.0136
   4.2528E-01   4.3563E-01   2.1470E-04  0.0134
   4.3563E-01   4.4623E-01   2.2012E-04  0.0130
   4.4623E-01   4.5708E-01   2.2256E-04  0.0128
   4.5708E-01   4.6821E-01   2.2488E-04  0.0126
   4.6821E-01   4.7960E-01   2.2678E-04  0.0124
   4.7960E-01   4.9127E-01   2.2841E-04  0.0122
   4.9127E-01   5.0322E-01   2.2916E-04  0.0120
   5.0322E-01   5.1546E-01   2.2943E-04  0.0119
   5.1546E-01   5.2800E-01   2.3592E-04  0.0116
   5.2800E-01   5.4085E-01   2.3398E-04  0.0115
   5.4085E-01   5.5401E-01   2.3370E-04  0.0114
   5.5401E-01   5.6749E-01   2.3444E-04  0.0112
   5.6749E-01   5.8130E-01   2.3889E-04  0.0110
   5.8130E-01   5.9544E-01   2.4021E-04  0.0108
   5.9544E-01   6.0993E-01   2.4769E-04  0.0105
   6.0993E-01   6.2477E-01   2.4915E-04  0.0103
   6.2477E-01   6.3997E-01   2.4299E-04  0.0104
   6.3997E-01   6.5554E-01   2.4455E-04  0.0102
   6.5554E-01   6.7149E-01   2.4181E-04  0.0101
   6.7149E-01   6.8783E-01   2.3876E-04  0.0101
   6.8783E-01   7.0456E-01   2.4437E-04  0.0098
   7.0456E-01   7.2171E-01   2.3974E-04  0.0098
   7.2171E-01   7.3927E-01   2.3539E-04  0.0098
   7.3927E-01   7.5725E-01   2.3529E-04  0.0097
   7.5725E-01   7.7568E-01   2.3387E-04  0.0096
   7.7568E-01   7.9455E-01   2.2632E-04  0.0096
   7.9455E-01   8.1388E-01   2.2652E-04  0.0095
   8.1388E-01   8.3368E-01   2.2637E-04  0.0094
   8.3368E-01   8.5397E-01   2.2564E-04  0.0093
   8.5397E-01   8.7475E-01   2.1997E-04  0.0093
   8.7475E-01   8.9603E-01   2.1580E-04  0.0093
   8.9603E-01   9.1783E-01   2.1441E-04  0.0092
   9.1783E-01   9.4016E-01   2.1166E-04  0.0091
   9.4016E-01   9.6304E-01   2.0653E-04  0.0091
   9.6304E-01   9.8647E-01   1.9782E-04  0.0092
   9.8647E-01   1.0105E+00   1.8888E-04  0.0093
   1.0105E+00   1.0351E+00   1.8660E-04  0.0093
   1.0351E+00   1.0602E+00   1.9023E-04  0.0091
   1.0602E+00   1.0860E+00   1.9362E-04  0.0089
   1.0860E+00   1.1125E+00   1.9214E-04  0.0088
   1.1125E+00   1.1395E+00   1.9380E-04  0.0087
   1.1395E+00   1.1673E+00   2.0068E-04  0.0084
   1.1673E+00   1.1957E+00   2.0075E-04  0.0083
   1.1957E+00   1.2247E+00   2.0502E-04  0.0081
   1.2247E+00   1.2545E+00   2.0532E-04  0.0080
   1.2545E+00   1.2851E+00   2.0533E-04  0.0079
   1.2851E+00   1.3163E+00   2.0431E-04  0.0078
   1.3163E+00   1.3484E+00   2.0388E-04  0.0077
   1.3484E+00   1.3812E+00   2.0321E-04  0.0077
   1.3812E+00   1.4148E+00   2.0703E-04  0.0075
   1.4148E+00   1.4492E+00   2.0597E-04  0.0074
   1.4492E+00   1.4845E+00   2.0280E-04  0.0074
   1.4845E+00   1.5206E+00   2.0077E-04  0.0073
   1.5206E+00   1.5576E+00   2.0036E-04  0.0072
   1.5576E+00   1.5955E+00   1.9591E-04  0.0072
   1.5955E+00   1.6343E+00   1.9419E-04  0.0072
   1.6343E+00   1.6741E+00   1.9405E-04  0.0071
   1.6741E+00   1.7148E+00   1.9151E-04  0.0070
   1.7148E+00   1.7565E+00   1.8507E-04  0.0071
   1.7565E+00   1.7992E+00   1.7828E-04  0.0071
   1.7992E+00   1.8430E+00   1.6950E-04  0.0072
   1.8430E+00   1.8879E+00   1.6526E-04  0.0072
   1.8879E+00   1.9338E+00   1.6124E-04  0.0072
   1.9338E+00   1.9808E+00   1.6142E-04  0.0071
   1.9808E+00   2.0290E+00   1.5828E-04  0.0071
   2.0290E+00   2.0784E+00   1.5632E-04  0.0070
   2.0784E+00   2.1290E+00   1.5478E-04  0.0070
   2.1290E+00   2.1808E+00   1.5352E-04  0.0069
   2.1808E+00   2.2338E+00   1.5150E-04  0.0069
   2.2338E+00   2.2882E+00   1.4743E-04  0.0069
   2.2882E+00   2.3439E+00   1.4192E-04  0.0069
   2.3439E+00   2.4009E+00   1.3778E-04  0.0070
   2.4009E+00   2.4593E+00   1.3587E-04  0.0069
   2.4593E+00   2.5191E+00   1.3245E-04  0.0069
   2.5191E+00   2.5804E+00   1.2810E-04  0.0070
   2.5804E+00   2.6432E+00   1.2551E-04  0.0070
   2.6432E+00   2.7075E+00   1.2194E-04  0.0070
   2.7075E+00   2.7734E+00   1.2048E-04  0.0069
   2.7734E+00   2.8409E+00   1.1341E-04  0.0071
   2.8409E+00   2.9100E+00   1.1084E-04  0.0071
   2.9100E+00   2.9808E+00   1.0904E-04  0.0070
   2.9808E+00   3.0533E+00   1.0548E-04  0.0071
   3.0533E+00   3.1276E+00   1.0271E-04  0.0071
   3.1276E+00   3.2037E+00   9.8968E-05  0.0071
   3.2037E+00   3.2817E+00   9.6191E-05  0.0072
   3.2817E+00   3.3615E+00   9.5512E-05  0.0071
   3.3615E+00   3.4433E+00   9.1961E-05  0.0072
   3.4433E+00   3.5271E+00   8.8435E-05  0.0072
   3.5271E+00   3.6129E+00   8.6333E-05  0.0072
   3.6129E+00   3.7008E+00   8.4108E-05  0.0072
   3.7008E+00   3.7908E+00   8.1809E-05  0.0072
   3.7908E+00   3.8831E+00   7.8050E-05  0.0073
   3.8831E+00   3.9776E+00   7.6105E-05  0.0073
   3.9776E+00   4.0743E+00   7.3560E-05  0.0074
   4.0743E+00   4.1735E+00   7.0571E-05  0.0074
   4.1735E+00   4.2750E+00   6.8031E-05  0.0075
   4.2750E+00   4.3790E+00   6.5042E-05  0.0076
   4.3790E+00   4.4856E+00   6.3395E-05  0.0076
   4.4856E+00   4.5947E+00   6.0302E-05  0.0077
   4.5947E+00   4.7065E+00   5.8067E-05  0.0077
   4.7065E+00   4.8210E+00   5.6563E-05  0.0077
   4.8210E+00   4.9383E+00   5.3938E-05  0.0078
   4.9383E+00   5.0585E+00   5.2496E-05  0.0078
   5.0585E+00   5.1815E+00   4.9264E-05  0.0080
   5.1815E+00   5.3076E+00   4.7540E-05  0.0080
   5.3076E+00   5.4368E+00   4.5865E-05  0.0081
   5.4368E+00   5.5690E+00   4.3894E-05  0.0082
   5.5690E+00   5.7045E+00   4.1542E-05  0.0083
   5.7045E+00   5.8433E+00   3.9533E-05  0.0084
   5.8433E+00   5.9855E+00   3.7921E-05  0.0085
   5.9855E+00   6.1311E+00   3.5675E-05  0.0086
   6.1311E+00   6.2803E+00   3.4011E-05  0.0087
   6.2803E+00   6.4331E+00   3.2534E-05  0.0088
   6.4331E+00   6.5896E+00   2.9804E-05  0.0091
   6.5896E+00   6.7500E+00   2.7940E-05  0.0093
   6.7500E+00   6.9142E+00   2.6172E-05  0.0095
   6.9142E+00   7.0824E+00   2.3933E-05  0.0098
   7.0824E+00   7.2548E+00   2.1894E-05  0.0101
   7.2548E+00   7.4313E+00   1.9145E-05  0.0107
   7.4313E+00   7.6121E+00   1.7575E-05  0.0110
   7.6121E+00   7.7973E+00   1.5924E-05  0.0115
   7.7973E+00   7.9870E+00   1.4300E-05  0.0120
   7.9870E+00   8.1813E+00   1.2936E-05  0.0124
   8.1813E+00   8.3804E+00   1.1904E-05  0.0128
   8.3804E+00   8.5843E+00   1.1121E-05  0.0131
   8.5843E+00   8.7931E+00   1.0311E-05  0.0134
   8.7931E+00   9.0071E+00   9.6874E-06  0.0137
   9.0071E+00   9.2262E+00   8.7387E-06  0.0143
   9.2262E+00   9.4507E+00   8.0275E-06  0.0147
   9.4507E+00   9.6807E+00   7.5204E-06  0.0151
   9.6807E+00   9.9162E+00   7.0518E-06  0.0154
   9.9162E+00   1.0157E+01   6.4791E-06  0.0159
   1.0157E+01   1.0405E+01   5.9214E-06  0.0164
   1.0405E+01   1.0658E+01   5.5793E-06  0.0167
   1.0658E+01   1.0917E+01   5.0382E-06  0.0174
   1.0917E+01   1.1183E+01   4.4758E-06  0.0182
   1.1183E+01   1.1455E+01   4.0786E-06  0.0188
   1.1455E+01   1.1733E+01   3.7253E-06  0.0195
   1.1733E+01   1.2019E+01   3.5259E-06  0.0198
   1.2019E+01   1.2311E+01   3.2440E-06  0.0204
   1.2311E+01   1.2611E+01   3.0136E-06  0.0209
   1.2611E+01   1.2918E+01   2.6890E-06  0.0219
   1.2918E+01   1.3232E+01   2.4714E-06  0.0226
   1.3232E+01   1.3554E+01   2.2657E-06  0.0233
   1.3554E+01   1.3884E+01   1.9769E-06  0.0246
   1.3884E+01   1.4222E+01   1.8976E-06  0.0249
   1.4222E+01   1.4568E+01   1.6809E-06  0.0261
   1.4568E+01   1.4922E+01   1.4966E-06  0.0274
   1.4922E+01   1.5285E+01   1.3450E-06  0.0285
   1.5285E+01   1.5657E+01   1.2151E-06  0.0296
   1.5657E+01   1.6038E+01   1.1265E-06  0.0304
   1.6038E+01   1.6428E+01   1.0812E-06  0.0307
   1.6428E+01   1.6828E+01   8.5542E-07  0.0341
   1.6828E+01   1.7237E+01   7.5530E-07  0.0359
   1.7237E+01   1.7657E+01   6.4725E-07  0.0383
   1.7657E+01   1.8086E+01   6.5793E-07  0.0376
   1.8086E+01   1.8526E+01   6.8405E-07  0.0364
   1.8526E+01   1.8977E+01   7.3795E-07  0.0347
   1.8977E+01   1.9439E+01   6.7011E-07  0.0359
   1.9439E+01   1.9912E+01   5.9539E-07  0.0377
   1.9912E+01   2.0396E+01   5.4575E-07  0.0389
   2.0396E+01   2.0893E+01   4.6992E-07  0.0414
   2.0893E+01   2.1401E+01   4.0761E-07  0.0439
   2.1401E+01   2.1922E+01   3.2495E-07  0.0486
   2.1922E+01   2.2455E+01   2.6848E-07  0.0529
   2.2455E+01   2.3001E+01   1.9841E-07  0.0607
   2.3001E+01   2.3561E+01   8.7913E-08  0.0902
   2.3561E+01   2.4134E+01   5.7217E-08  0.1104
   2.4134E+01   2.4721E+01   4.5640E-08  0.1222
   2.4721E+01   2.5323E+01   4.1231E-08  0.1270
   2.5323E+01   2.5939E+01   3.3759E-08  0.1387
   2.5939E+01   2.6570E+01   2.3450E-08  0.1644
   2.6570E+01   2.7217E+01   1.6706E-08  0.1925
   2.7217E+01   2.7879E+01   1.4497E-08  0.2041
   2.7879E+01   2.8557E+01   5.3073E-09  0.3333
   2.8557E+01   2.9252E+01   6.3326E-09  0.3015
   2.9252E+01   2.9964E+01   3.9341E-09  0.3780
   2.9964E+01   3.0693E+01   1.0973E-09  0.7071
   3.0693E+01   3.1440E+01   5.3563E-10  1.0000
   3.1440E+01   3.2205E+01   0.0000E+00  0.0000
   3.2205E+01   3.2988E+01   0.0000E+00  0.0000
   3.2988E+01   3.3791E+01   0.0000E+00  0.0000
   3.3791E+01   3.4613E+01   0.0000E+00  0.0000
   3.4613E+01   3.5455E+01   0.0000E+00  0.0000
   3.5455E+01   3.6318E+01   0.0000E+00  0.0000
   3.6318E+01   3.7201E+01   0.0000E+00  0.0000
   3.7201E+01   3.8106E+01   0.0000E+00  0.0000
   3.8106E+01   3.9034E+01   0.0000E+00  0.0000
   3.9034E+01   3.9983E+01   0.0000E+00  0.0000
   3.9983E+01   4.0956E+01   0.0000E+00  0.0000
   4.0956E+01   4.1953E+01   0.0000E+00  0.0000
   4.1953E+01   4.2973E+01   0.0000E+00  0.0000
   4.2973E+01   4.4019E+01   0.0000E+00  0.0000
   4.4019E+01   4.5090E+01   0.0000E+00  0.0000
   4.5090E+01   4.6187E+01   0.0000E+00  0.0000
   4.6187E+01   4.7311E+01   0.0000E+00  0.0000
   4.7311E+01   4.8462E+01   0.0000E+00  0.0000
   4.8462E+01   4.9641E+01   0.0000E+00  0.0000
   4.9641E+01   5.0849E+01   0.0000E+00  0.0000
   5.0849E+01   5.2086E+01   0.0000E+00  0.0000
   5.2086E+01   5.3353E+01   0.0000E+00  0.0000
   5.3353E+01   5.4651E+01   0.0000E+00  0.0000
   5.4651E+01   5.5981E+01   0.0000E+00  0.0000
   5.5981E+01   5.7343E+01   0.0000E+00  0.0000
   5.7343E+01   5.8738E+01   0.0000E+00  0.0000
   5.8738E+01   6.0168E+01   0.0000E+00  0.0000
   6.0168E+01   6.1632E+01   0.0000E+00  0.0000
   6.1632E+01   6.3131E+01   0.0000E+00  0.0000
   6.3131E+01   6.4667E+01   0.0000E+00  0.0000
   6.4667E+01   6.6240E+01   0.0000E+00  0.0000
   6.6240E+01   6.7852E+01   0.0000E+00  0.0000
   6.7852E+01   6.9503E+01   0.0000E+00  0.0000
   6.9503E+01   7.1194E+01   0.0000E+00  0.0000
   7.1194E+01   7.2926E+01   0.0000E+00  0.0000
   7.2926E+01   7.4701E+01   0.0000E+00  0.0000
   7.4701E+01   7.6518E+01   0.0000E+00  0.0000
   7.6518E+01   7.8380E+01   0.0000E+00  0.0000
   7.8380E+01   8.0287E+01   0.0000E+00  0.0000
   8.0287E+01   8.2240E+01   0.0000E+00  0.0000
   8.2240E+01   8.4241E+01   0.0000E+00  0.0000
   8.4241E+01   8.6291E+01   0.0000E+00  0.0000
   8.6291E+01   8.8391E+01   0.0000E+00  0.0000
   8.8391E+01   9.0541E+01   0.0000E+00  0.0000
   9.0541E+01   9.2744E+01   0.0000E+00  0.0000
   9.2744E+01   9.5001E+01   0.0000E+00  0.0000
   9.5001E+01   9.7312E+01   0.0000E+00  0.0000
   9.7312E+01   9.9680E+01   0.0000E+00  0.0000
   9.9680E+01   1.0211E+02   0.0000E+00  0.0000
   1.0211E+02   1.0459E+02   0.0000E+00  0.0000
   1.0459E+02   1.0713E+02   0.0000E+00  0.0000
   1.0713E+02   1.0974E+02   0.0000E+00  0.0000
   1.0974E+02   1.1241E+02   0.0000E+00  0.0000
   1.1241E+02   1.1515E+02   0.0000E+00  0.0000
   1.1515E+02   1.1795E+02   0.0000E+00  0.0000
   1.1795E+02   1.2082E+02   0.0000E+00  0.0000
   1.2082E+02   1.2376E+02   0.0000E+00  0.0000
   1.2376E+02   1.2677E+02   0.0000E+00  0.0000
   1.2677E+02   1.2985E+02   0.0000E+00  0.0000
   1.2985E+02   1.3301E+02   0.0000E+00  0.0000
   1.3301E+02   1.3625E+02   0.0000E+00  0.0000
   1.3625E+02   1.3956E+02   0.0000E+00  0.0000
   1.3956E+02   1.4296E+02   0.0000E+00  0.0000
   1.4296E+02   1.4644E+02   0.0000E+00  0.0000
   1.4644E+02   1.5000E+02   0.0000E+00  0.0000

#   sum over                 5.3028E-06
'no. =    1   reg = 116 - 216'
msuc: {\huge [t-cross] in region mesh}
msdr: {\it plotted by \ANGEL \version}
msdl: {\it calculated by \PHITS  3.26}
wt: s(0.7)
\vspace{-3}
  region surface crossing
  area  &=&   1.0000E+00 [cm^2]
e:
 
# Information for Restart Calculation
# This calculation was newly started
# istdev =  2 # 1:Batch variance, 2:History variance
# resc2  = 2.50000000000000000E+09 # Total source weight or Total source weight / maxcas
# resc3  = 2.50000000000000000E+09 # Total history number or Total batch number
# maxcas =   100000000 # History / Batch, only used for istdev=1
# bitrseed = 1100001110001001100010001100011001110101000011000110100101010100 # bit data of rseed
