[ T-Cross ]
    title = [t-cross] in region mesh
     mesh =  reg            # mesh type is region-wise
      reg =    1            # number of crossing regions
      non     r-from    r-to       area
      1       112       212        1.000000    
   e-type =    3            # e-mesh is log given by emin, emax and ne
     emin =  1.0000000E-02  # minimum value of e-mesh points
     emax =   150.0000      # maximum value of e-mesh points
#    edel =  2.4039514E-02  # mesh width of e-mesh points
       ne =    400          # number of e-mesh points
#    data = ( e(i), i = 1, ne + 1 )
#           1.00000E-02  1.02433E-02  1.04925E-02  1.07478E-02  1.10093E-02
#           1.12772E-02  1.15516E-02  1.18326E-02  1.21205E-02  1.24154E-02
#           1.27175E-02  1.30269E-02  1.33439E-02  1.36686E-02  1.40011E-02
#           1.43418E-02  1.46907E-02  1.50482E-02  1.54143E-02  1.57894E-02
#           1.61735E-02  1.65670E-02  1.69701E-02  1.73830E-02  1.78060E-02
#           1.82392E-02  1.86830E-02  1.91375E-02  1.96032E-02  2.00801E-02
#           2.05687E-02  2.10692E-02  2.15818E-02  2.21069E-02  2.26448E-02
#           2.31957E-02  2.37601E-02  2.43382E-02  2.49304E-02  2.55369E-02
#           2.61583E-02  2.67947E-02  2.74467E-02  2.81145E-02  2.87985E-02
#           2.94992E-02  3.02169E-02  3.09521E-02  3.17052E-02  3.24766E-02
#           3.32668E-02  3.40762E-02  3.49053E-02  3.57546E-02  3.66246E-02
#           3.75157E-02  3.84284E-02  3.93634E-02  4.03212E-02  4.13022E-02
#           4.23071E-02  4.33365E-02  4.43909E-02  4.54710E-02  4.65773E-02
#           4.77106E-02  4.88714E-02  5.00605E-02  5.12785E-02  5.25262E-02
#           5.38042E-02  5.51133E-02  5.64542E-02  5.78278E-02  5.92348E-02
#           6.06760E-02  6.21523E-02  6.36645E-02  6.52135E-02  6.68002E-02
#           6.84255E-02  7.00904E-02  7.17957E-02  7.35426E-02  7.53319E-02
#           7.71648E-02  7.90423E-02  8.09655E-02  8.29354E-02  8.49533E-02
#           8.70203E-02  8.91376E-02  9.13064E-02  9.35279E-02  9.58035E-02
#           9.81345E-02  1.00522E-01  1.02968E-01  1.05473E-01  1.08040E-01
#           1.10668E-01  1.13361E-01  1.16119E-01  1.18944E-01  1.21838E-01
#           1.24803E-01  1.27839E-01  1.30950E-01  1.34136E-01  1.37399E-01
#           1.40742E-01  1.44167E-01  1.47675E-01  1.51268E-01  1.54948E-01
#           1.58718E-01  1.62580E-01  1.66535E-01  1.70587E-01  1.74738E-01
#           1.78989E-01  1.83344E-01  1.87805E-01  1.92375E-01  1.97055E-01
#           2.01850E-01  2.06761E-01  2.11792E-01  2.16945E-01  2.22223E-01
#           2.27630E-01  2.33169E-01  2.38842E-01  2.44653E-01  2.50605E-01
#           2.56703E-01  2.62949E-01  2.69346E-01  2.75900E-01  2.82613E-01
#           2.89489E-01  2.96532E-01  3.03747E-01  3.11138E-01  3.18708E-01
#           3.26462E-01  3.34405E-01  3.42542E-01  3.50876E-01  3.59413E-01
#           3.68158E-01  3.77116E-01  3.86291E-01  3.95690E-01  4.05317E-01
#           4.15179E-01  4.25281E-01  4.35628E-01  4.46227E-01  4.57084E-01
#           4.68205E-01  4.79597E-01  4.91266E-01  5.03219E-01  5.15463E-01
#           5.28005E-01  5.40851E-01  5.54011E-01  5.67490E-01  5.81298E-01
#           5.95441E-01  6.09929E-01  6.24769E-01  6.39970E-01  6.55541E-01
#           6.71491E-01  6.87828E-01  7.04564E-01  7.21706E-01  7.39266E-01
#           7.57253E-01  7.75678E-01  7.94551E-01  8.13883E-01  8.33685E-01
#           8.53969E-01  8.74747E-01  8.96030E-01  9.17831E-01  9.40163E-01
#           9.63038E-01  9.86469E-01  1.01047E+00  1.03506E+00  1.06024E+00
#           1.08604E+00  1.11246E+00  1.13953E+00  1.16725E+00  1.19565E+00
#           1.22474E+00  1.25454E+00  1.28507E+00  1.31633E+00  1.34836E+00
#           1.38117E+00  1.41477E+00  1.44920E+00  1.48446E+00  1.52057E+00
#           1.55757E+00  1.59547E+00  1.63429E+00  1.67405E+00  1.71478E+00
#           1.75650E+00  1.79924E+00  1.84302E+00  1.88786E+00  1.93379E+00
#           1.98084E+00  2.02904E+00  2.07841E+00  2.12898E+00  2.18078E+00
#           2.23384E+00  2.28819E+00  2.34386E+00  2.40089E+00  2.45930E+00
#           2.51914E+00  2.58043E+00  2.64322E+00  2.70753E+00  2.77341E+00
#           2.84088E+00  2.91001E+00  2.98081E+00  3.05333E+00  3.12762E+00
#           3.20372E+00  3.28167E+00  3.36152E+00  3.44330E+00  3.52708E+00
#           3.61290E+00  3.70080E+00  3.79085E+00  3.88308E+00  3.97756E+00
#           4.07434E+00  4.17347E+00  4.27501E+00  4.37903E+00  4.48557E+00
#           4.59471E+00  4.70650E+00  4.82102E+00  4.93832E+00  5.05847E+00
#           5.18155E+00  5.30762E+00  5.43676E+00  5.56904E+00  5.70453E+00
#           5.84333E+00  5.98550E+00  6.13114E+00  6.28031E+00  6.43312E+00
#           6.58964E+00  6.74997E+00  6.91420E+00  7.08243E+00  7.25475E+00
#           7.43126E+00  7.61207E+00  7.79728E+00  7.98700E+00  8.18133E+00
#           8.38038E+00  8.58428E+00  8.79315E+00  9.00709E+00  9.22624E+00
#           9.45072E+00  9.68067E+00  9.91620E+00  1.01575E+01  1.04046E+01
#           1.06578E+01  1.09171E+01  1.11827E+01  1.14548E+01  1.17335E+01
#           1.20190E+01  1.23114E+01  1.26109E+01  1.29178E+01  1.32321E+01
#           1.35540E+01  1.38838E+01  1.42216E+01  1.45676E+01  1.49221E+01
#           1.52851E+01  1.56570E+01  1.60380E+01  1.64282E+01  1.68279E+01
#           1.72374E+01  1.76568E+01  1.80864E+01  1.85264E+01  1.89772E+01
#           1.94389E+01  1.99119E+01  2.03963E+01  2.08926E+01  2.14009E+01
#           2.19216E+01  2.24550E+01  2.30014E+01  2.35610E+01  2.41343E+01
#           2.47215E+01  2.53230E+01  2.59391E+01  2.65702E+01  2.72167E+01
#           2.78789E+01  2.85572E+01  2.92520E+01  2.99637E+01  3.06928E+01
#           3.14396E+01  3.22045E+01  3.29881E+01  3.37907E+01  3.46128E+01
#           3.54550E+01  3.63177E+01  3.72013E+01  3.81064E+01  3.90336E+01
#           3.99833E+01  4.09561E+01  4.19526E+01  4.29734E+01  4.40189E+01
#           4.50900E+01  4.61870E+01  4.73108E+01  4.84619E+01  4.96410E+01
#           5.08488E+01  5.20860E+01  5.33533E+01  5.46514E+01  5.59812E+01
#           5.73432E+01  5.87384E+01  6.01676E+01  6.16315E+01  6.31311E+01
#           6.46671E+01  6.62405E+01  6.78522E+01  6.95031E+01  7.11941E+01
#           7.29263E+01  7.47007E+01  7.65182E+01  7.83800E+01  8.02870E+01
#           8.22405E+01  8.42414E+01  8.62911E+01  8.83906E+01  9.05412E+01
#           9.27442E+01  9.50007E+01  9.73122E+01  9.96799E+01  1.02105E+02
#           1.04589E+02  1.07134E+02  1.09741E+02  1.12411E+02  1.15146E+02
#           1.17948E+02  1.20817E+02  1.23757E+02  1.26768E+02  1.29852E+02
#           1.33012E+02  1.36248E+02  1.39563E+02  1.42959E+02  1.46437E+02
#           1.50000E+02
     unit =    2            # unit is [1/cm^2/(MeV/n)/source]
     axis =  eng            # axis of output
     file = detector-13.out  # file name of output for the above axis
   output = f-curr          # surface crossing forward current spectrum
     part =  neutron  
# kf/name :  2112     
#    used :        main (  %)        temp (  %)       total (  %)
#  memory :         414 (  0)           0 (  0)         414 (  0)

#------------------------------------------------------------------------------
#newpage:
#   no. =    1   reg = 112 - 212

x: Energy [MeV/n]
y:  F-Curr [1/cm^2/(MeV/n)/source]         
p: xlog ylog afac(0.8) form(0.9)
h: n            x            y(neutron ),hh0l   n 
#  e-lower      e-upper      neutron     r.err 
   1.0000E-02   1.0243E-02   2.1789E-04  0.0613
   1.0243E-02   1.0493E-02   2.0638E-04  0.0622
   1.0493E-02   1.0748E-02   2.0892E-04  0.0610
   1.0748E-02   1.1009E-02   1.8611E-04  0.0640
   1.1009E-02   1.1277E-02   1.8192E-04  0.0638
   1.1277E-02   1.1552E-02   1.8425E-04  0.0627
   1.1552E-02   1.1833E-02   1.8377E-04  0.0620
   1.1833E-02   1.2121E-02   1.9192E-04  0.0600
   1.2121E-02   1.2415E-02   1.4971E-04  0.0672
   1.2415E-02   1.2718E-02   1.7247E-04  0.0618
   1.2718E-02   1.3027E-02   1.9206E-04  0.0578
   1.3027E-02   1.3344E-02   1.6761E-04  0.0612
   1.3344E-02   1.3669E-02   1.7190E-04  0.0598
   1.3669E-02   1.4001E-02   1.7045E-04  0.0592
   1.4001E-02   1.4342E-02   1.5031E-04  0.0624
   1.4342E-02   1.4691E-02   1.4590E-04  0.0625
   1.4691E-02   1.5048E-02   1.5928E-04  0.0591
   1.5048E-02   1.5414E-02   1.3212E-04  0.0641
   1.5414E-02   1.5789E-02   1.4919E-04  0.0596
   1.5789E-02   1.6174E-02   1.6437E-04  0.0561
   1.6174E-02   1.6567E-02   1.2560E-04  0.0634
   1.6567E-02   1.6970E-02   1.1923E-04  0.0644
   1.6970E-02   1.7383E-02   1.1744E-04  0.0640
   1.7383E-02   1.7806E-02   1.1582E-04  0.0637
   1.7806E-02   1.8239E-02   1.2000E-04  0.0617
   1.8239E-02   1.8683E-02   1.1927E-04  0.0613
   1.8683E-02   1.9138E-02   1.2431E-04  0.0592
   1.9138E-02   1.9603E-02   1.1443E-04  0.0611
   1.9603E-02   2.0080E-02   1.1878E-04  0.0592
   2.0080E-02   2.0569E-02   1.0951E-04  0.0610
   2.0569E-02   2.1069E-02   1.1741E-04  0.0582
   2.1069E-02   2.1582E-02   1.0322E-04  0.0612
   2.1582E-02   2.2107E-02   1.0704E-04  0.0595
   2.2107E-02   2.2645E-02   9.7791E-05  0.0615
   2.2645E-02   2.3196E-02   9.8083E-05  0.0607
   2.3196E-02   2.3760E-02   8.9953E-05  0.0626
   2.3760E-02   2.4338E-02   9.0723E-05  0.0615
   2.4338E-02   2.4930E-02   8.5336E-05  0.0627
   2.4930E-02   2.5537E-02   8.7470E-05  0.0612
   2.5537E-02   2.6158E-02   8.7501E-05  0.0605
   2.6158E-02   2.6795E-02   8.4201E-05  0.0609
   2.6795E-02   2.7447E-02   9.4335E-05  0.0569
   2.7447E-02   2.8114E-02   7.8476E-05  0.0615
   2.8114E-02   2.8799E-02   8.0945E-05  0.0599
   2.8799E-02   2.9499E-02   8.0059E-05  0.0596
   2.9499E-02   3.0217E-02   8.9695E-05  0.0556
   3.0217E-02   3.0952E-02   8.2346E-05  0.0573
   3.0952E-02   3.1705E-02   6.8759E-05  0.0620
   3.1705E-02   3.2477E-02   7.6567E-05  0.0579
   3.2477E-02   3.3267E-02   7.7073E-05  0.0571
   3.3267E-02   3.4076E-02   7.9406E-05  0.0556
   3.4076E-02   3.4905E-02   7.2347E-05  0.0575
   3.4905E-02   3.5755E-02   7.1824E-05  0.0571
   3.5755E-02   3.6625E-02   6.5814E-05  0.0589
   3.6625E-02   3.7516E-02   7.1796E-05  0.0558
   3.7516E-02   3.8428E-02   7.1472E-05  0.0552
   3.8428E-02   3.9363E-02   6.2122E-05  0.0584
   3.9363E-02   4.0321E-02   5.8594E-05  0.0596
   4.0321E-02   4.1302E-02   5.5232E-05  0.0606
   4.1302E-02   4.2307E-02   5.9750E-05  0.0576
   4.2307E-02   4.3337E-02   5.7081E-05  0.0582
   4.3337E-02   4.4391E-02   5.2642E-05  0.0599
   4.4391E-02   4.5471E-02   5.4904E-05  0.0578
   4.5471E-02   4.6577E-02   5.0648E-05  0.0596
   4.6577E-02   4.7711E-02   5.4598E-05  0.0567
   4.7711E-02   4.8871E-02   5.2339E-05  0.0572
   4.8871E-02   5.0061E-02   5.2166E-05  0.0566
   5.0061E-02   5.1279E-02   5.4287E-05  0.0549
   5.1279E-02   5.2526E-02   5.1380E-05  0.0557
   5.2526E-02   5.3804E-02   5.1547E-05  0.0550
   5.3804E-02   5.5113E-02   4.7538E-05  0.0565
   5.5113E-02   5.6454E-02   4.5583E-05  0.0571
   5.6454E-02   5.7828E-02   4.7267E-05  0.0553
   5.7828E-02   5.9235E-02   4.4250E-05  0.0565
   5.9235E-02   6.0676E-02   4.2424E-05  0.0570
   6.0676E-02   6.2152E-02   4.3158E-05  0.0558
   6.2152E-02   6.3665E-02   4.0727E-05  0.0568
   6.3665E-02   6.5214E-02   4.3694E-05  0.0543
   6.5214E-02   6.6800E-02   4.0447E-05  0.0557
   6.6800E-02   6.8426E-02   3.8454E-05  0.0563
   6.8426E-02   7.0090E-02   3.9147E-05  0.0552
   7.0090E-02   7.1796E-02   4.1301E-05  0.0532
   7.1796E-02   7.3543E-02   3.9138E-05  0.0540
   7.3543E-02   7.5332E-02   3.9111E-05  0.0533
   7.5332E-02   7.7165E-02   3.7150E-05  0.0541
   7.7165E-02   7.9042E-02   3.8367E-05  0.0526
   7.9042E-02   8.0965E-02   3.6640E-05  0.0531
   8.0965E-02   8.2935E-02   3.5962E-05  0.0530
   8.2935E-02   8.4953E-02   3.5421E-05  0.0528
   8.4953E-02   8.7020E-02   3.4801E-05  0.0526
   8.7020E-02   8.9138E-02   3.6807E-05  0.0506
   8.9138E-02   9.1306E-02   3.5372E-05  0.0510
   9.1306E-02   9.3528E-02   3.4767E-05  0.0507
   9.3528E-02   9.5804E-02   3.7877E-05  0.0480
   9.5804E-02   9.8134E-02   3.4497E-05  0.0497
   9.8134E-02   1.0052E-01   2.8971E-05  0.0537
   1.0052E-01   1.0297E-01   3.3583E-05  0.0492
   1.0297E-01   1.0547E-01   3.3518E-05  0.0486
   1.0547E-01   1.0804E-01   3.7634E-05  0.0454
   1.0804E-01   1.1067E-01   3.7782E-05  0.0448
   1.1067E-01   1.1336E-01   3.7347E-05  0.0445
   1.1336E-01   1.1612E-01   3.9873E-05  0.0425
   1.1612E-01   1.1894E-01   4.3919E-05  0.0401
   1.1894E-01   1.2184E-01   4.5591E-05  0.0388
   1.2184E-01   1.2480E-01   4.6432E-05  0.0380
   1.2480E-01   1.2784E-01   4.9158E-05  0.0365
   1.2784E-01   1.3095E-01   4.9751E-05  0.0359
   1.3095E-01   1.3414E-01   5.2381E-05  0.0345
   1.3414E-01   1.3740E-01   5.6435E-05  0.0329
   1.3740E-01   1.4074E-01   5.8110E-05  0.0320
   1.4074E-01   1.4417E-01   6.3766E-05  0.0302
   1.4417E-01   1.4767E-01   6.1758E-05  0.0303
   1.4767E-01   1.5127E-01   6.6900E-05  0.0288
   1.5127E-01   1.5495E-01   6.8523E-05  0.0281
   1.5495E-01   1.5872E-01   7.6068E-05  0.0263
   1.5872E-01   1.6258E-01   7.7315E-05  0.0258
   1.6258E-01   1.6654E-01   7.7375E-05  0.0255
   1.6654E-01   1.7059E-01   8.5479E-05  0.0240
   1.7059E-01   1.7474E-01   8.9217E-05  0.0232
   1.7474E-01   1.7899E-01   9.5152E-05  0.0222
   1.7899E-01   1.8334E-01   1.0314E-04  0.0210
   1.8334E-01   1.8781E-01   1.0089E-04  0.0210
   1.8781E-01   1.9237E-01   1.0648E-04  0.0202
   1.9237E-01   1.9706E-01   1.0835E-04  0.0198
   1.9706E-01   2.0185E-01   1.1838E-04  0.0187
   2.0185E-01   2.0676E-01   1.2000E-04  0.0184
   2.0676E-01   2.1179E-01   1.2679E-04  0.0177
   2.1179E-01   2.1694E-01   1.2781E-04  0.0174
   2.1694E-01   2.2222E-01   1.3296E-04  0.0169
   2.2222E-01   2.2763E-01   1.3975E-04  0.0162
   2.2763E-01   2.3317E-01   1.4634E-04  0.0157
   2.3317E-01   2.3884E-01   1.5386E-04  0.0151
   2.3884E-01   2.4465E-01   1.6042E-04  0.0146
   2.4465E-01   2.5061E-01   1.6945E-04  0.0141
   2.5061E-01   2.5670E-01   1.7482E-04  0.0137
   2.5670E-01   2.6295E-01   1.7479E-04  0.0135
   2.6295E-01   2.6935E-01   1.8357E-04  0.0130
   2.6935E-01   2.7590E-01   1.9135E-04  0.0126
   2.7590E-01   2.8261E-01   2.0551E-04  0.0120
   2.8261E-01   2.8949E-01   2.1111E-04  0.0117
   2.8949E-01   2.9653E-01   2.1657E-04  0.0114
   2.9653E-01   3.0375E-01   2.2616E-04  0.0110
   3.0375E-01   3.1114E-01   2.2678E-04  0.0109
   3.1114E-01   3.1871E-01   2.3855E-04  0.0105
   3.1871E-01   3.2646E-01   2.4428E-04  0.0103
   3.2646E-01   3.3441E-01   2.5032E-04  0.0100
   3.3441E-01   3.4254E-01   2.6490E-04  0.0096
   3.4254E-01   3.5088E-01   2.6816E-04  0.0094
   3.5088E-01   3.5941E-01   2.7625E-04  0.0092
   3.5941E-01   3.6816E-01   2.8647E-04  0.0089
   3.6816E-01   3.7712E-01   2.9230E-04  0.0087
   3.7712E-01   3.8629E-01   2.9977E-04  0.0085
   3.8629E-01   3.9569E-01   3.1247E-04  0.0082
   3.9569E-01   4.0532E-01   3.1766E-04  0.0081
   4.0532E-01   4.1518E-01   3.2502E-04  0.0079
   4.1518E-01   4.2528E-01   3.3197E-04  0.0077
   4.2528E-01   4.3563E-01   3.3848E-04  0.0075
   4.3563E-01   4.4623E-01   3.4619E-04  0.0074
   4.4623E-01   4.5708E-01   3.5181E-04  0.0072
   4.5708E-01   4.6821E-01   3.5683E-04  0.0071
   4.6821E-01   4.7960E-01   3.5799E-04  0.0070
   4.7960E-01   4.9127E-01   3.6611E-04  0.0068
   4.9127E-01   5.0322E-01   3.6985E-04  0.0067
   5.0322E-01   5.1546E-01   3.7753E-04  0.0066
   5.1546E-01   5.2800E-01   3.8530E-04  0.0064
   5.2800E-01   5.4085E-01   3.9028E-04  0.0063
   5.4085E-01   5.5401E-01   3.8982E-04  0.0062
   5.5401E-01   5.6749E-01   3.9668E-04  0.0061
   5.6749E-01   5.8130E-01   4.0164E-04  0.0060
   5.8130E-01   5.9544E-01   3.9941E-04  0.0059
   5.9544E-01   6.0993E-01   4.1118E-04  0.0058
   6.0993E-01   6.2477E-01   4.1223E-04  0.0057
   6.2477E-01   6.3997E-01   4.1530E-04  0.0056
   6.3997E-01   6.5554E-01   4.1673E-04  0.0055
   6.5554E-01   6.7149E-01   4.1840E-04  0.0055
   6.7149E-01   6.8783E-01   4.2189E-04  0.0054
   6.8783E-01   7.0456E-01   4.2085E-04  0.0053
   7.0456E-01   7.2171E-01   4.2198E-04  0.0052
   7.2171E-01   7.3927E-01   4.2294E-04  0.0052
   7.3927E-01   7.5725E-01   4.2468E-04  0.0051
   7.5725E-01   7.7568E-01   4.2198E-04  0.0051
   7.7568E-01   7.9455E-01   4.2084E-04  0.0050
   7.9455E-01   8.1388E-01   4.2079E-04  0.0049
   8.1388E-01   8.3368E-01   4.2021E-04  0.0049
   8.3368E-01   8.5397E-01   4.2163E-04  0.0048
   8.5397E-01   8.7475E-01   4.1940E-04  0.0048
   8.7475E-01   8.9603E-01   4.1831E-04  0.0047
   8.9603E-01   9.1783E-01   4.1636E-04  0.0047
   9.1783E-01   9.4016E-01   4.1172E-04  0.0046
   9.4016E-01   9.6304E-01   4.0607E-04  0.0046
   9.6304E-01   9.8647E-01   4.0274E-04  0.0046
   9.8647E-01   1.0105E+00   3.9681E-04  0.0046
   1.0105E+00   1.0351E+00   3.9215E-04  0.0045
   1.0351E+00   1.0602E+00   3.8033E-04  0.0045
   1.0602E+00   1.0860E+00   3.8310E-04  0.0045
   1.0860E+00   1.1125E+00   3.8087E-04  0.0044
   1.1125E+00   1.1395E+00   3.8098E-04  0.0044
   1.1395E+00   1.1673E+00   3.8321E-04  0.0043
   1.1673E+00   1.1957E+00   3.8362E-04  0.0043
   1.1957E+00   1.2247E+00   3.8282E-04  0.0042
   1.2247E+00   1.2545E+00   3.8206E-04  0.0042
   1.2545E+00   1.2851E+00   3.7714E-04  0.0041
   1.2851E+00   1.3163E+00   3.7529E-04  0.0041
   1.3163E+00   1.3484E+00   3.7476E-04  0.0040
   1.3484E+00   1.3812E+00   3.6991E-04  0.0040
   1.3812E+00   1.4148E+00   3.6657E-04  0.0040
   1.4148E+00   1.4492E+00   3.6516E-04  0.0040
   1.4492E+00   1.4845E+00   3.6155E-04  0.0039
   1.4845E+00   1.5206E+00   3.5779E-04  0.0039
   1.5206E+00   1.5576E+00   3.5560E-04  0.0039
   1.5576E+00   1.5955E+00   3.4909E-04  0.0038
   1.5955E+00   1.6343E+00   3.4372E-04  0.0038
   1.6343E+00   1.6741E+00   3.3959E-04  0.0038
   1.6741E+00   1.7148E+00   3.3148E-04  0.0038
   1.7148E+00   1.7565E+00   3.2520E-04  0.0038
   1.7565E+00   1.7992E+00   3.1372E-04  0.0038
   1.7992E+00   1.8430E+00   2.9326E-04  0.0039
   1.8430E+00   1.8879E+00   2.7802E-04  0.0039
   1.8879E+00   1.9338E+00   2.6871E-04  0.0039
   1.9338E+00   1.9808E+00   2.6150E-04  0.0039
   1.9808E+00   2.0290E+00   2.5582E-04  0.0039
   2.0290E+00   2.0784E+00   2.5462E-04  0.0039
   2.0784E+00   2.1290E+00   2.5050E-04  0.0039
   2.1290E+00   2.1808E+00   2.5409E-04  0.0038
   2.1808E+00   2.2338E+00   2.5475E-04  0.0037
   2.2338E+00   2.2882E+00   2.4744E-04  0.0037
   2.2882E+00   2.3439E+00   2.3683E-04  0.0038
   2.3439E+00   2.4009E+00   2.3124E-04  0.0038
   2.4009E+00   2.4593E+00   2.2644E-04  0.0038
   2.4593E+00   2.5191E+00   2.2389E-04  0.0038
   2.5191E+00   2.5804E+00   2.1910E-04  0.0038
   2.5804E+00   2.6432E+00   2.1459E-04  0.0038
   2.6432E+00   2.7075E+00   2.1118E-04  0.0037
   2.7075E+00   2.7734E+00   2.0710E-04  0.0037
   2.7734E+00   2.8409E+00   2.0259E-04  0.0037
   2.8409E+00   2.9100E+00   1.9860E-04  0.0037
   2.9100E+00   2.9808E+00   1.9528E-04  0.0037
   2.9808E+00   3.0533E+00   1.9252E-04  0.0037
   3.0533E+00   3.1276E+00   1.8735E-04  0.0037
   3.1276E+00   3.2037E+00   1.8574E-04  0.0037
   3.2037E+00   3.2817E+00   1.8179E-04  0.0037
   3.2817E+00   3.3615E+00   1.7887E-04  0.0037
   3.3615E+00   3.4433E+00   1.7547E-04  0.0037
   3.4433E+00   3.5271E+00   1.7377E-04  0.0036
   3.5271E+00   3.6129E+00   1.7088E-04  0.0036
   3.6129E+00   3.7008E+00   1.6807E-04  0.0036
   3.7008E+00   3.7908E+00   1.6374E-04  0.0036
   3.7908E+00   3.8831E+00   1.6113E-04  0.0036
   3.8831E+00   3.9776E+00   1.5961E-04  0.0036
   3.9776E+00   4.0743E+00   1.5490E-04  0.0036
   4.0743E+00   4.1735E+00   1.5135E-04  0.0036
   4.1735E+00   4.2750E+00   1.4987E-04  0.0036
   4.2750E+00   4.3790E+00   1.4573E-04  0.0036
   4.3790E+00   4.4856E+00   1.4236E-04  0.0036
   4.4856E+00   4.5947E+00   1.3954E-04  0.0036
   4.5947E+00   4.7065E+00   1.3618E-04  0.0036
   4.7065E+00   4.8210E+00   1.3332E-04  0.0036
   4.8210E+00   4.9383E+00   1.3233E-04  0.0035
   4.9383E+00   5.0585E+00   1.3076E-04  0.0035
   5.0585E+00   5.1815E+00   1.2859E-04  0.0035
   5.1815E+00   5.3076E+00   1.2596E-04  0.0035
   5.3076E+00   5.4368E+00   1.2417E-04  0.0035
   5.4368E+00   5.5690E+00   1.2241E-04  0.0034
   5.5690E+00   5.7045E+00   1.2031E-04  0.0034
   5.7045E+00   5.8433E+00   1.1895E-04  0.0034
   5.8433E+00   5.9855E+00   1.1790E-04  0.0034
   5.9855E+00   6.1311E+00   1.1648E-04  0.0034
   6.1311E+00   6.2803E+00   1.1481E-04  0.0034
   6.2803E+00   6.4331E+00   1.1371E-04  0.0033
   6.4331E+00   6.5896E+00   1.1266E-04  0.0033
   6.5896E+00   6.7500E+00   1.1122E-04  0.0033
   6.7500E+00   6.9142E+00   1.0993E-04  0.0033
   6.9142E+00   7.0824E+00   1.0790E-04  0.0033
   7.0824E+00   7.2548E+00   1.0678E-04  0.0033
   7.2548E+00   7.4313E+00   1.0492E-04  0.0032
   7.4313E+00   7.6121E+00   1.0384E-04  0.0032
   7.6121E+00   7.7973E+00   1.0250E-04  0.0032
   7.7973E+00   7.9870E+00   1.0122E-04  0.0032
   7.9870E+00   8.1813E+00   9.9496E-05  0.0032
   8.1813E+00   8.3804E+00   9.8576E-05  0.0032
   8.3804E+00   8.5843E+00   9.6754E-05  0.0031
   8.5843E+00   8.7931E+00   9.4627E-05  0.0031
   8.7931E+00   9.0071E+00   9.2755E-05  0.0031
   9.0071E+00   9.2262E+00   9.0931E-05  0.0031
   9.2262E+00   9.4507E+00   8.8841E-05  0.0031
   9.4507E+00   9.6807E+00   8.6531E-05  0.0031
   9.6807E+00   9.9162E+00   8.4976E-05  0.0031
   9.9162E+00   1.0157E+01   8.7959E-05  0.0031
   1.0157E+01   1.0405E+01   8.6618E-05  0.0030
   1.0405E+01   1.0658E+01   8.4546E-05  0.0030
   1.0658E+01   1.0917E+01   8.2424E-05  0.0030
   1.0917E+01   1.1183E+01   7.9271E-05  0.0031
   1.1183E+01   1.1455E+01   7.7125E-05  0.0031
   1.1455E+01   1.1733E+01   7.5714E-05  0.0031
   1.1733E+01   1.2019E+01   7.4066E-05  0.0031
   1.2019E+01   1.2311E+01   7.2535E-05  0.0031
   1.2311E+01   1.2611E+01   7.0810E-05  0.0031
   1.2611E+01   1.2918E+01   6.9370E-05  0.0031
   1.2918E+01   1.3232E+01   6.7023E-05  0.0031
   1.3232E+01   1.3554E+01   6.5249E-05  0.0031
   1.3554E+01   1.3884E+01   6.3729E-05  0.0031
   1.3884E+01   1.4222E+01   6.2189E-05  0.0031
   1.4222E+01   1.4568E+01   6.0074E-05  0.0031
   1.4568E+01   1.4922E+01   5.8679E-05  0.0031
   1.4922E+01   1.5285E+01   5.6618E-05  0.0031
   1.5285E+01   1.5657E+01   5.4783E-05  0.0031
   1.5657E+01   1.6038E+01   5.2775E-05  0.0032
   1.6038E+01   1.6428E+01   5.1384E-05  0.0032
   1.6428E+01   1.6828E+01   4.9760E-05  0.0032
   1.6828E+01   1.7237E+01   4.7822E-05  0.0032
   1.7237E+01   1.7657E+01   4.6031E-05  0.0032
   1.7657E+01   1.8086E+01   4.4276E-05  0.0032
   1.8086E+01   1.8526E+01   4.2512E-05  0.0033
   1.8526E+01   1.8977E+01   4.0652E-05  0.0033
   1.8977E+01   1.9439E+01   3.8844E-05  0.0033
   1.9439E+01   1.9912E+01   3.7510E-05  0.0034
   1.9912E+01   2.0396E+01   3.5653E-05  0.0034
   2.0396E+01   2.0893E+01   3.4154E-05  0.0034
   2.0893E+01   2.1401E+01   3.2509E-05  0.0035
   2.1401E+01   2.1922E+01   3.0743E-05  0.0035
   2.1922E+01   2.2455E+01   2.8847E-05  0.0036
   2.2455E+01   2.3001E+01   2.7338E-05  0.0037
   2.3001E+01   2.3561E+01   2.5559E-05  0.0037
   2.3561E+01   2.4134E+01   2.3871E-05  0.0038
   2.4134E+01   2.4721E+01   2.2454E-05  0.0039
   2.4721E+01   2.5323E+01   2.0924E-05  0.0040
   2.5323E+01   2.5939E+01   1.9371E-05  0.0041
   2.5939E+01   2.6570E+01   1.7859E-05  0.0042
   2.6570E+01   2.7217E+01   1.6519E-05  0.0043
   2.7217E+01   2.7879E+01   1.5108E-05  0.0045
   2.7879E+01   2.8557E+01   1.4048E-05  0.0046
   2.8557E+01   2.9252E+01   1.2840E-05  0.0047
   2.9252E+01   2.9964E+01   1.1712E-05  0.0049
   2.9964E+01   3.0693E+01   1.0680E-05  0.0051
   3.0693E+01   3.1440E+01   9.6018E-06  0.0053
   3.1440E+01   3.2205E+01   8.5321E-06  0.0055
   3.2205E+01   3.2988E+01   7.7462E-06  0.0057
   3.2988E+01   3.3791E+01   6.9091E-06  0.0060
   3.3791E+01   3.4613E+01   6.1981E-06  0.0063
   3.4613E+01   3.5455E+01   5.4303E-06  0.0066
   3.5455E+01   3.6318E+01   4.7159E-06  0.0070
   3.6318E+01   3.7201E+01   4.0693E-06  0.0075
   3.7201E+01   3.8106E+01   3.4013E-06  0.0081
   3.8106E+01   3.9034E+01   2.8836E-06  0.0086
   3.9034E+01   3.9983E+01   2.4443E-06  0.0093
   3.9983E+01   4.0956E+01   2.0505E-06  0.0100
   4.0956E+01   4.1953E+01   1.7357E-06  0.0108
   4.1953E+01   4.2973E+01   1.3939E-06  0.0119
   4.2973E+01   4.4019E+01   1.1473E-06  0.0129
   4.4019E+01   4.5090E+01   9.5031E-07  0.0140
   4.5090E+01   4.6187E+01   7.2538E-07  0.0159
   4.6187E+01   4.7311E+01   5.9229E-07  0.0173
   4.7311E+01   4.8462E+01   4.7502E-07  0.0191
   4.8462E+01   4.9641E+01   4.0081E-07  0.0206
   4.9641E+01   5.0849E+01   3.1909E-07  0.0228
   5.0849E+01   5.2086E+01   2.7288E-07  0.0243
   5.2086E+01   5.3353E+01   2.4383E-07  0.0254
   5.3353E+01   5.4651E+01   2.1554E-07  0.0267
   5.4651E+01   5.5981E+01   1.5372E-07  0.0313
   5.5981E+01   5.7343E+01   7.0041E-08  0.0458
   5.7343E+01   5.8738E+01   2.7810E-08  0.0718
   5.8738E+01   6.0168E+01   1.2315E-08  0.1066
   6.0168E+01   6.1632E+01   4.2352E-09  0.1796
   6.1632E+01   6.3131E+01   2.6675E-10  0.7071
   6.3131E+01   6.4667E+01   0.0000E+00  0.0000
   6.4667E+01   6.6240E+01   0.0000E+00  0.0000
   6.6240E+01   6.7852E+01   0.0000E+00  0.0000
   6.7852E+01   6.9503E+01   0.0000E+00  0.0000
   6.9503E+01   7.1194E+01   0.0000E+00  0.0000
   7.1194E+01   7.2926E+01   0.0000E+00  0.0000
   7.2926E+01   7.4701E+01   0.0000E+00  0.0000
   7.4701E+01   7.6518E+01   0.0000E+00  0.0000
   7.6518E+01   7.8380E+01   0.0000E+00  0.0000
   7.8380E+01   8.0287E+01   0.0000E+00  0.0000
   8.0287E+01   8.2240E+01   0.0000E+00  0.0000
   8.2240E+01   8.4241E+01   0.0000E+00  0.0000
   8.4241E+01   8.6291E+01   0.0000E+00  0.0000
   8.6291E+01   8.8391E+01   0.0000E+00  0.0000
   8.8391E+01   9.0541E+01   0.0000E+00  0.0000
   9.0541E+01   9.2744E+01   0.0000E+00  0.0000
   9.2744E+01   9.5001E+01   0.0000E+00  0.0000
   9.5001E+01   9.7312E+01   0.0000E+00  0.0000
   9.7312E+01   9.9680E+01   0.0000E+00  0.0000
   9.9680E+01   1.0211E+02   0.0000E+00  0.0000
   1.0211E+02   1.0459E+02   0.0000E+00  0.0000
   1.0459E+02   1.0713E+02   0.0000E+00  0.0000
   1.0713E+02   1.0974E+02   0.0000E+00  0.0000
   1.0974E+02   1.1241E+02   0.0000E+00  0.0000
   1.1241E+02   1.1515E+02   0.0000E+00  0.0000
   1.1515E+02   1.1795E+02   0.0000E+00  0.0000
   1.1795E+02   1.2082E+02   0.0000E+00  0.0000
   1.2082E+02   1.2376E+02   0.0000E+00  0.0000
   1.2376E+02   1.2677E+02   0.0000E+00  0.0000
   1.2677E+02   1.2985E+02   0.0000E+00  0.0000
   1.2985E+02   1.3301E+02   0.0000E+00  0.0000
   1.3301E+02   1.3625E+02   0.0000E+00  0.0000
   1.3625E+02   1.3956E+02   0.0000E+00  0.0000
   1.3956E+02   1.4296E+02   0.0000E+00  0.0000
   1.4296E+02   1.4644E+02   0.0000E+00  0.0000
   1.4644E+02   1.5000E+02   0.0000E+00  0.0000

#   sum over                 1.7198E-05
'no. =    1   reg = 112 - 212'
msuc: {\huge [t-cross] in region mesh}
msdr: {\it plotted by \ANGEL \version}
msdl: {\it calculated by \PHITS  3.26}
wt: s(0.7)
\vspace{-3}
  region surface crossing
  area  &=&   1.0000E+00 [cm^2]
e:
 
# Information for Restart Calculation
# This calculation was newly started
# istdev =  2 # 1:Batch variance, 2:History variance
# resc2  = 5.00000000000000000E+09 # Total source weight or Total source weight / maxcas
# resc3  = 5.00000000000000000E+09 # Total history number or Total batch number
# maxcas =   100000000 # History / Batch, only used for istdev=1
# bitrseed = 0110100000100010111000001110001111001110100100011111101000111001 # bit data of rseed
