[ T-Cross ]
    title = [t-cross] in region mesh
     mesh =  reg            # mesh type is region-wise
      reg =    1            # number of crossing regions
      non     r-from    r-to       area
      1       117       217        1.000000    
   e-type =    3            # e-mesh is log given by emin, emax and ne
     emin =  1.0000000E-02  # minimum value of e-mesh points
     emax =   150.0000      # maximum value of e-mesh points
#    edel =  2.4039514E-02  # mesh width of e-mesh points
       ne =    400          # number of e-mesh points
#    data = ( e(i), i = 1, ne + 1 )
#           1.00000E-02  1.02433E-02  1.04925E-02  1.07478E-02  1.10093E-02
#           1.12772E-02  1.15516E-02  1.18326E-02  1.21205E-02  1.24154E-02
#           1.27175E-02  1.30269E-02  1.33439E-02  1.36686E-02  1.40011E-02
#           1.43418E-02  1.46907E-02  1.50482E-02  1.54143E-02  1.57894E-02
#           1.61735E-02  1.65670E-02  1.69701E-02  1.73830E-02  1.78060E-02
#           1.82392E-02  1.86830E-02  1.91375E-02  1.96032E-02  2.00801E-02
#           2.05687E-02  2.10692E-02  2.15818E-02  2.21069E-02  2.26448E-02
#           2.31957E-02  2.37601E-02  2.43382E-02  2.49304E-02  2.55369E-02
#           2.61583E-02  2.67947E-02  2.74467E-02  2.81145E-02  2.87985E-02
#           2.94992E-02  3.02169E-02  3.09521E-02  3.17052E-02  3.24766E-02
#           3.32668E-02  3.40762E-02  3.49053E-02  3.57546E-02  3.66246E-02
#           3.75157E-02  3.84284E-02  3.93634E-02  4.03212E-02  4.13022E-02
#           4.23071E-02  4.33365E-02  4.43909E-02  4.54710E-02  4.65773E-02
#           4.77106E-02  4.88714E-02  5.00605E-02  5.12785E-02  5.25262E-02
#           5.38042E-02  5.51133E-02  5.64542E-02  5.78278E-02  5.92348E-02
#           6.06760E-02  6.21523E-02  6.36645E-02  6.52135E-02  6.68002E-02
#           6.84255E-02  7.00904E-02  7.17957E-02  7.35426E-02  7.53319E-02
#           7.71648E-02  7.90423E-02  8.09655E-02  8.29354E-02  8.49533E-02
#           8.70203E-02  8.91376E-02  9.13064E-02  9.35279E-02  9.58035E-02
#           9.81345E-02  1.00522E-01  1.02968E-01  1.05473E-01  1.08040E-01
#           1.10668E-01  1.13361E-01  1.16119E-01  1.18944E-01  1.21838E-01
#           1.24803E-01  1.27839E-01  1.30950E-01  1.34136E-01  1.37399E-01
#           1.40742E-01  1.44167E-01  1.47675E-01  1.51268E-01  1.54948E-01
#           1.58718E-01  1.62580E-01  1.66535E-01  1.70587E-01  1.74738E-01
#           1.78989E-01  1.83344E-01  1.87805E-01  1.92375E-01  1.97055E-01
#           2.01850E-01  2.06761E-01  2.11792E-01  2.16945E-01  2.22223E-01
#           2.27630E-01  2.33169E-01  2.38842E-01  2.44653E-01  2.50605E-01
#           2.56703E-01  2.62949E-01  2.69346E-01  2.75900E-01  2.82613E-01
#           2.89489E-01  2.96532E-01  3.03747E-01  3.11138E-01  3.18708E-01
#           3.26462E-01  3.34405E-01  3.42542E-01  3.50876E-01  3.59413E-01
#           3.68158E-01  3.77116E-01  3.86291E-01  3.95690E-01  4.05317E-01
#           4.15179E-01  4.25281E-01  4.35628E-01  4.46227E-01  4.57084E-01
#           4.68205E-01  4.79597E-01  4.91266E-01  5.03219E-01  5.15463E-01
#           5.28005E-01  5.40851E-01  5.54011E-01  5.67490E-01  5.81298E-01
#           5.95441E-01  6.09929E-01  6.24769E-01  6.39970E-01  6.55541E-01
#           6.71491E-01  6.87828E-01  7.04564E-01  7.21706E-01  7.39266E-01
#           7.57253E-01  7.75678E-01  7.94551E-01  8.13883E-01  8.33685E-01
#           8.53969E-01  8.74747E-01  8.96030E-01  9.17831E-01  9.40163E-01
#           9.63038E-01  9.86469E-01  1.01047E+00  1.03506E+00  1.06024E+00
#           1.08604E+00  1.11246E+00  1.13953E+00  1.16725E+00  1.19565E+00
#           1.22474E+00  1.25454E+00  1.28507E+00  1.31633E+00  1.34836E+00
#           1.38117E+00  1.41477E+00  1.44920E+00  1.48446E+00  1.52057E+00
#           1.55757E+00  1.59547E+00  1.63429E+00  1.67405E+00  1.71478E+00
#           1.75650E+00  1.79924E+00  1.84302E+00  1.88786E+00  1.93379E+00
#           1.98084E+00  2.02904E+00  2.07841E+00  2.12898E+00  2.18078E+00
#           2.23384E+00  2.28819E+00  2.34386E+00  2.40089E+00  2.45930E+00
#           2.51914E+00  2.58043E+00  2.64322E+00  2.70753E+00  2.77341E+00
#           2.84088E+00  2.91001E+00  2.98081E+00  3.05333E+00  3.12762E+00
#           3.20372E+00  3.28167E+00  3.36152E+00  3.44330E+00  3.52708E+00
#           3.61290E+00  3.70080E+00  3.79085E+00  3.88308E+00  3.97756E+00
#           4.07434E+00  4.17347E+00  4.27501E+00  4.37903E+00  4.48557E+00
#           4.59471E+00  4.70650E+00  4.82102E+00  4.93832E+00  5.05847E+00
#           5.18155E+00  5.30762E+00  5.43676E+00  5.56904E+00  5.70453E+00
#           5.84333E+00  5.98550E+00  6.13114E+00  6.28031E+00  6.43312E+00
#           6.58964E+00  6.74997E+00  6.91420E+00  7.08243E+00  7.25475E+00
#           7.43126E+00  7.61207E+00  7.79728E+00  7.98700E+00  8.18133E+00
#           8.38038E+00  8.58428E+00  8.79315E+00  9.00709E+00  9.22624E+00
#           9.45072E+00  9.68067E+00  9.91620E+00  1.01575E+01  1.04046E+01
#           1.06578E+01  1.09171E+01  1.11827E+01  1.14548E+01  1.17335E+01
#           1.20190E+01  1.23114E+01  1.26109E+01  1.29178E+01  1.32321E+01
#           1.35540E+01  1.38838E+01  1.42216E+01  1.45676E+01  1.49221E+01
#           1.52851E+01  1.56570E+01  1.60380E+01  1.64282E+01  1.68279E+01
#           1.72374E+01  1.76568E+01  1.80864E+01  1.85264E+01  1.89772E+01
#           1.94389E+01  1.99119E+01  2.03963E+01  2.08926E+01  2.14009E+01
#           2.19216E+01  2.24550E+01  2.30014E+01  2.35610E+01  2.41343E+01
#           2.47215E+01  2.53230E+01  2.59391E+01  2.65702E+01  2.72167E+01
#           2.78789E+01  2.85572E+01  2.92520E+01  2.99637E+01  3.06928E+01
#           3.14396E+01  3.22045E+01  3.29881E+01  3.37907E+01  3.46128E+01
#           3.54550E+01  3.63177E+01  3.72013E+01  3.81064E+01  3.90336E+01
#           3.99833E+01  4.09561E+01  4.19526E+01  4.29734E+01  4.40189E+01
#           4.50900E+01  4.61870E+01  4.73108E+01  4.84619E+01  4.96410E+01
#           5.08488E+01  5.20860E+01  5.33533E+01  5.46514E+01  5.59812E+01
#           5.73432E+01  5.87384E+01  6.01676E+01  6.16315E+01  6.31311E+01
#           6.46671E+01  6.62405E+01  6.78522E+01  6.95031E+01  7.11941E+01
#           7.29263E+01  7.47007E+01  7.65182E+01  7.83800E+01  8.02870E+01
#           8.22405E+01  8.42414E+01  8.62911E+01  8.83906E+01  9.05412E+01
#           9.27442E+01  9.50007E+01  9.73122E+01  9.96799E+01  1.02105E+02
#           1.04589E+02  1.07134E+02  1.09741E+02  1.12411E+02  1.15146E+02
#           1.17948E+02  1.20817E+02  1.23757E+02  1.26768E+02  1.29852E+02
#           1.33012E+02  1.36248E+02  1.39563E+02  1.42959E+02  1.46437E+02
#           1.50000E+02
     unit =    2            # unit is [1/cm^2/(MeV/n)/source]
     axis =  eng            # axis of output
     file = detector-18.out  # file name of output for the above axis
   output = f-curr          # surface crossing forward current spectrum
     part =  neutron  
# kf/name :  2112     
#    used :        main (  %)        temp (  %)       total (  %)
#  memory :         414 (  0)           0 (  0)         414 (  0)

#------------------------------------------------------------------------------
#newpage:
#   no. =    1   reg = 117 - 217

x: Energy [MeV/n]
y:  F-Curr [1/cm^2/(MeV/n)/source]         
p: xlog ylog afac(0.8) form(0.9)
h: n            x            y(neutron ),hh0l   n 
#  e-lower      e-upper      neutron     r.err 
   1.0000E-02   1.0243E-02   3.4278E-04  0.0490
   1.0243E-02   1.0493E-02   3.0815E-04  0.0510
   1.0493E-02   1.0748E-02   3.2512E-04  0.0491
   1.0748E-02   1.1009E-02   3.2734E-04  0.0483
   1.1009E-02   1.1277E-02   3.5018E-04  0.0462
   1.1277E-02   1.1552E-02   3.2801E-04  0.0471
   1.1552E-02   1.1833E-02   3.4868E-04  0.0452
   1.1833E-02   1.2121E-02   3.2095E-04  0.0465
   1.2121E-02   1.2415E-02   3.1604E-04  0.0463
   1.2415E-02   1.2718E-02   3.4958E-04  0.0435
   1.2718E-02   1.3027E-02   3.0056E-04  0.0464
   1.3027E-02   1.3344E-02   3.3632E-04  0.0433
   1.3344E-02   1.3669E-02   3.2279E-04  0.0437
   1.3669E-02   1.4001E-02   3.2896E-04  0.0428
   1.4001E-02   1.4342E-02   3.2349E-04  0.0426
   1.4342E-02   1.4691E-02   3.5822E-04  0.0400
   1.4691E-02   1.5048E-02   3.4915E-04  0.0400
   1.5048E-02   1.5414E-02   3.3977E-04  0.0401
   1.5414E-02   1.5789E-02   3.3596E-04  0.0398
   1.5789E-02   1.6174E-02   3.4152E-04  0.0390
   1.6174E-02   1.6567E-02   3.5475E-04  0.0379
   1.6567E-02   1.6970E-02   3.3988E-04  0.0382
   1.6970E-02   1.7383E-02   3.5457E-04  0.0370
   1.7383E-02   1.7806E-02   3.1541E-04  0.0387
   1.7806E-02   1.8239E-02   3.4716E-04  0.0365
   1.8239E-02   1.8683E-02   3.3576E-04  0.0366
   1.8683E-02   1.9138E-02   3.6122E-04  0.0349
   1.9138E-02   1.9603E-02   3.3975E-04  0.0356
   1.9603E-02   2.0080E-02   3.5642E-04  0.0343
   2.0080E-02   2.0569E-02   3.7538E-04  0.0330
   2.0569E-02   2.1069E-02   3.4169E-04  0.0342
   2.1069E-02   2.1582E-02   3.4645E-04  0.0336
   2.1582E-02   2.2107E-02   3.5726E-04  0.0327
   2.2107E-02   2.2645E-02   3.6161E-04  0.0321
   2.2645E-02   2.3196E-02   3.4812E-04  0.0323
   2.3196E-02   2.3760E-02   3.6926E-04  0.0310
   2.3760E-02   2.4338E-02   3.6706E-04  0.0307
   2.4338E-02   2.4930E-02   3.6442E-04  0.0304
   2.4930E-02   2.5537E-02   3.6830E-04  0.0299
   2.5537E-02   2.6158E-02   3.7725E-04  0.0292
   2.6158E-02   2.6795E-02   3.6892E-04  0.0292
   2.6795E-02   2.7447E-02   3.6936E-04  0.0288
   2.7447E-02   2.8114E-02   3.6238E-04  0.0287
   2.8114E-02   2.8799E-02   3.5465E-04  0.0287
   2.8799E-02   2.9499E-02   3.5793E-04  0.0282
   2.9499E-02   3.0217E-02   3.5946E-04  0.0278
   3.0217E-02   3.0952E-02   3.7187E-04  0.0270
   3.0952E-02   3.1705E-02   3.6649E-04  0.0269
   3.1705E-02   3.2477E-02   3.7697E-04  0.0262
   3.2477E-02   3.3267E-02   3.7283E-04  0.0261
   3.3267E-02   3.4076E-02   3.6792E-04  0.0259
   3.4076E-02   3.4905E-02   3.7197E-04  0.0255
   3.4905E-02   3.5755E-02   4.0223E-04  0.0242
   3.5755E-02   3.6625E-02   3.8784E-04  0.0243
   3.6625E-02   3.7516E-02   3.9367E-04  0.0239
   3.7516E-02   3.8428E-02   3.8235E-04  0.0239
   3.8428E-02   3.9363E-02   3.8503E-04  0.0236
   3.9363E-02   4.0321E-02   3.9134E-04  0.0231
   4.0321E-02   4.1302E-02   3.8490E-04  0.0230
   4.1302E-02   4.2307E-02   3.8451E-04  0.0228
   4.2307E-02   4.3337E-02   3.9850E-04  0.0221
   4.3337E-02   4.4391E-02   3.8410E-04  0.0222
   4.4391E-02   4.5471E-02   3.8812E-04  0.0218
   4.5471E-02   4.6577E-02   3.9698E-04  0.0213
   4.6577E-02   4.7711E-02   3.9179E-04  0.0212
   4.7711E-02   4.8871E-02   3.8817E-04  0.0211
   4.8871E-02   5.0061E-02   4.0165E-04  0.0205
   5.0061E-02   5.1279E-02   4.1412E-04  0.0199
   5.1279E-02   5.2526E-02   4.1678E-04  0.0196
   5.2526E-02   5.3804E-02   4.2253E-04  0.0192
   5.3804E-02   5.5113E-02   3.9691E-04  0.0196
   5.5113E-02   5.6454E-02   4.1463E-04  0.0190
   5.6454E-02   5.7828E-02   3.9488E-04  0.0192
   5.7828E-02   5.9235E-02   4.0313E-04  0.0188
   5.9235E-02   6.0676E-02   4.1881E-04  0.0182
   6.0676E-02   6.2152E-02   4.1834E-04  0.0180
   6.2152E-02   6.3665E-02   4.1185E-04  0.0179
   6.3665E-02   6.5214E-02   4.2724E-04  0.0174
   6.5214E-02   6.6800E-02   4.1382E-04  0.0175
   6.6800E-02   6.8426E-02   4.2109E-04  0.0171
   6.8426E-02   7.0090E-02   4.1109E-04  0.0171
   7.0090E-02   7.1796E-02   4.3967E-04  0.0163
   7.1796E-02   7.3543E-02   4.4102E-04  0.0161
   7.3543E-02   7.5332E-02   4.1881E-04  0.0163
   7.5332E-02   7.7165E-02   4.3200E-04  0.0159
   7.7165E-02   7.9042E-02   4.2024E-04  0.0159
   7.9042E-02   8.0965E-02   4.4500E-04  0.0153
   8.0965E-02   8.2935E-02   4.3372E-04  0.0153
   8.2935E-02   8.4953E-02   4.4220E-04  0.0150
   8.4953E-02   8.7020E-02   4.4771E-04  0.0147
   8.7020E-02   8.9138E-02   4.4463E-04  0.0146
   8.9138E-02   9.1306E-02   4.4984E-04  0.0143
   9.1306E-02   9.3528E-02   4.4716E-04  0.0142
   9.3528E-02   9.5804E-02   4.5843E-04  0.0138
   9.5804E-02   9.8134E-02   4.6547E-04  0.0136
   9.8134E-02   1.0052E-01   4.4420E-04  0.0137
   1.0052E-01   1.0297E-01   4.6022E-04  0.0133
   1.0297E-01   1.0547E-01   4.6629E-04  0.0131
   1.0547E-01   1.0804E-01   4.6379E-04  0.0130
   1.0804E-01   1.1067E-01   4.5483E-04  0.0129
   1.1067E-01   1.1336E-01   4.4937E-04  0.0129
   1.1336E-01   1.1612E-01   4.7575E-04  0.0123
   1.1612E-01   1.1894E-01   4.6261E-04  0.0124
   1.1894E-01   1.2184E-01   4.7007E-04  0.0121
   1.2184E-01   1.2480E-01   4.7955E-04  0.0119
   1.2480E-01   1.2784E-01   4.7791E-04  0.0117
   1.2784E-01   1.3095E-01   4.9157E-04  0.0114
   1.3095E-01   1.3414E-01   4.7550E-04  0.0115
   1.3414E-01   1.3740E-01   4.8339E-04  0.0113
   1.3740E-01   1.4074E-01   4.9273E-04  0.0110
   1.4074E-01   1.4417E-01   4.9615E-04  0.0108
   1.4417E-01   1.4767E-01   4.9121E-04  0.0108
   1.4767E-01   1.5127E-01   5.0050E-04  0.0105
   1.5127E-01   1.5495E-01   4.9266E-04  0.0105
   1.5495E-01   1.5872E-01   5.0870E-04  0.0102
   1.5872E-01   1.6258E-01   5.0705E-04  0.0101
   1.6258E-01   1.6654E-01   5.1356E-04  0.0099
   1.6654E-01   1.7059E-01   5.1215E-04  0.0098
   1.7059E-01   1.7474E-01   5.1661E-04  0.0097
   1.7474E-01   1.7899E-01   5.1793E-04  0.0095
   1.7899E-01   1.8334E-01   5.2125E-04  0.0094
   1.8334E-01   1.8781E-01   5.2734E-04  0.0092
   1.8781E-01   1.9237E-01   5.3129E-04  0.0091
   1.9237E-01   1.9706E-01   5.2801E-04  0.0090
   1.9706E-01   2.0185E-01   5.4788E-04  0.0087
   2.0185E-01   2.0676E-01   5.2957E-04  0.0088
   2.0676E-01   2.1179E-01   5.4609E-04  0.0085
   2.1179E-01   2.1694E-01   5.3964E-04  0.0085
   2.1694E-01   2.2222E-01   5.3772E-04  0.0084
   2.2222E-01   2.2763E-01   5.4686E-04  0.0082
   2.2763E-01   2.3317E-01   5.5402E-04  0.0081
   2.3317E-01   2.3884E-01   5.5373E-04  0.0080
   2.3884E-01   2.4465E-01   5.4860E-04  0.0079
   2.4465E-01   2.5061E-01   5.6659E-04  0.0077
   2.5061E-01   2.5670E-01   5.5602E-04  0.0077
   2.5670E-01   2.6295E-01   5.6621E-04  0.0075
   2.6295E-01   2.6935E-01   5.6679E-04  0.0074
   2.6935E-01   2.7590E-01   5.6947E-04  0.0073
   2.7590E-01   2.8261E-01   5.7400E-04  0.0072
   2.8261E-01   2.8949E-01   5.7468E-04  0.0071
   2.8949E-01   2.9653E-01   5.7902E-04  0.0070
   2.9653E-01   3.0375E-01   5.8457E-04  0.0069
   3.0375E-01   3.1114E-01   5.9848E-04  0.0067
   3.1114E-01   3.1871E-01   5.9042E-04  0.0067
   3.1871E-01   3.2646E-01   5.9318E-04  0.0066
   3.2646E-01   3.3441E-01   5.9828E-04  0.0065
   3.3441E-01   3.4254E-01   6.0637E-04  0.0064
   3.4254E-01   3.5088E-01   6.0227E-04  0.0063
   3.5088E-01   3.5941E-01   6.0877E-04  0.0062
   3.5941E-01   3.6816E-01   6.1490E-04  0.0061
   3.6816E-01   3.7712E-01   6.1217E-04  0.0060
   3.7712E-01   3.8629E-01   6.2037E-04  0.0059
   3.8629E-01   3.9569E-01   6.2308E-04  0.0058
   3.9569E-01   4.0532E-01   6.2747E-04  0.0058
   4.0532E-01   4.1518E-01   6.2942E-04  0.0057
   4.1518E-01   4.2528E-01   6.2575E-04  0.0056
   4.2528E-01   4.3563E-01   6.2860E-04  0.0055
   4.3563E-01   4.4623E-01   6.3907E-04  0.0054
   4.4623E-01   4.5708E-01   6.3662E-04  0.0054
   4.5708E-01   4.6821E-01   6.4764E-04  0.0053
   4.6821E-01   4.7960E-01   6.4381E-04  0.0052
   4.7960E-01   4.9127E-01   6.4271E-04  0.0052
   4.9127E-01   5.0322E-01   6.4364E-04  0.0051
   5.0322E-01   5.1546E-01   6.5489E-04  0.0050
   5.1546E-01   5.2800E-01   6.4795E-04  0.0050
   5.2800E-01   5.4085E-01   6.5317E-04  0.0049
   5.4085E-01   5.5401E-01   6.5287E-04  0.0048
   5.5401E-01   5.6749E-01   6.5763E-04  0.0048
   5.6749E-01   5.8130E-01   6.5977E-04  0.0047
   5.8130E-01   5.9544E-01   6.5714E-04  0.0046
   5.9544E-01   6.0993E-01   6.5834E-04  0.0046
   6.0993E-01   6.2477E-01   6.6017E-04  0.0045
   6.2477E-01   6.3997E-01   6.6028E-04  0.0045
   6.3997E-01   6.5554E-01   6.6455E-04  0.0044
   6.5554E-01   6.7149E-01   6.6268E-04  0.0044
   6.7149E-01   6.8783E-01   6.6515E-04  0.0043
   6.8783E-01   7.0456E-01   6.6344E-04  0.0042
   7.0456E-01   7.2171E-01   6.5362E-04  0.0042
   7.2171E-01   7.3927E-01   6.5933E-04  0.0042
   7.3927E-01   7.5725E-01   6.5624E-04  0.0041
   7.5725E-01   7.7568E-01   6.5745E-04  0.0041
   7.7568E-01   7.9455E-01   6.5394E-04  0.0040
   7.9455E-01   8.1388E-01   6.4614E-04  0.0040
   8.1388E-01   8.3368E-01   6.4875E-04  0.0039
   8.3368E-01   8.5397E-01   6.4017E-04  0.0039
   8.5397E-01   8.7475E-01   6.3176E-04  0.0039
   8.7475E-01   8.9603E-01   6.2402E-04  0.0039
   8.9603E-01   9.1783E-01   6.1436E-04  0.0039
   9.1783E-01   9.4016E-01   6.0251E-04  0.0039
   9.4016E-01   9.6304E-01   5.8614E-04  0.0039
   9.6304E-01   9.8647E-01   5.6090E-04  0.0039
   9.8647E-01   1.0105E+00   5.4391E-04  0.0039
   1.0105E+00   1.0351E+00   5.3944E-04  0.0039
   1.0351E+00   1.0602E+00   5.3589E-04  0.0039
   1.0602E+00   1.0860E+00   5.3443E-04  0.0038
   1.0860E+00   1.1125E+00   5.2988E-04  0.0038
   1.1125E+00   1.1395E+00   5.3159E-04  0.0037
   1.1395E+00   1.1673E+00   5.3176E-04  0.0037
   1.1673E+00   1.1957E+00   5.3626E-04  0.0036
   1.1957E+00   1.2247E+00   5.4410E-04  0.0036
   1.2247E+00   1.2545E+00   5.3753E-04  0.0035
   1.2545E+00   1.2851E+00   5.3270E-04  0.0035
   1.2851E+00   1.3163E+00   5.3186E-04  0.0035
   1.3163E+00   1.3484E+00   5.2928E-04  0.0034
   1.3484E+00   1.3812E+00   5.3106E-04  0.0034
   1.3812E+00   1.4148E+00   5.3248E-04  0.0033
   1.4148E+00   1.4492E+00   5.3059E-04  0.0033
   1.4492E+00   1.4845E+00   5.2309E-04  0.0033
   1.4845E+00   1.5206E+00   5.1770E-04  0.0033
   1.5206E+00   1.5576E+00   5.1520E-04  0.0032
   1.5576E+00   1.5955E+00   5.0533E-04  0.0032
   1.5955E+00   1.6343E+00   5.0377E-04  0.0032
   1.6343E+00   1.6741E+00   5.0011E-04  0.0032
   1.6741E+00   1.7148E+00   5.0058E-04  0.0031
   1.7148E+00   1.7565E+00   4.9199E-04  0.0031
   1.7565E+00   1.7992E+00   4.8719E-04  0.0031
   1.7992E+00   1.8430E+00   4.7478E-04  0.0031
   1.8430E+00   1.8879E+00   4.6819E-04  0.0031
   1.8879E+00   1.9338E+00   4.6319E-04  0.0031
   1.9338E+00   1.9808E+00   4.5734E-04  0.0030
   1.9808E+00   2.0290E+00   4.5453E-04  0.0030
   2.0290E+00   2.0784E+00   4.4708E-04  0.0030
   2.0784E+00   2.1290E+00   4.3451E-04  0.0030
   2.1290E+00   2.1808E+00   4.2614E-04  0.0030
   2.1808E+00   2.2338E+00   4.1762E-04  0.0030
   2.2338E+00   2.2882E+00   4.0638E-04  0.0030
   2.2882E+00   2.3439E+00   3.9774E-04  0.0030
   2.3439E+00   2.4009E+00   3.8955E-04  0.0030
   2.4009E+00   2.4593E+00   3.8112E-04  0.0030
   2.4593E+00   2.5191E+00   3.6852E-04  0.0030
   2.5191E+00   2.5804E+00   3.5883E-04  0.0030
   2.5804E+00   2.6432E+00   3.5140E-04  0.0030
   2.6432E+00   2.7075E+00   3.3614E-04  0.0030
   2.7075E+00   2.7734E+00   3.2577E-04  0.0031
   2.7734E+00   2.8409E+00   3.1437E-04  0.0031
   2.8409E+00   2.9100E+00   3.0353E-04  0.0031
   2.9100E+00   2.9808E+00   2.9234E-04  0.0031
   2.9808E+00   3.0533E+00   2.8197E-04  0.0031
   3.0533E+00   3.1276E+00   2.7141E-04  0.0032
   3.1276E+00   3.2037E+00   2.5973E-04  0.0032
   3.2037E+00   3.2817E+00   2.5006E-04  0.0032
   3.2817E+00   3.3615E+00   2.3947E-04  0.0032
   3.3615E+00   3.4433E+00   2.2774E-04  0.0033
   3.4433E+00   3.5271E+00   2.1567E-04  0.0033
   3.5271E+00   3.6129E+00   2.0625E-04  0.0034
   3.6129E+00   3.7008E+00   1.9551E-04  0.0034
   3.7008E+00   3.7908E+00   1.8802E-04  0.0034
   3.7908E+00   3.8831E+00   1.7725E-04  0.0035
   3.8831E+00   3.9776E+00   1.6730E-04  0.0036
   3.9776E+00   4.0743E+00   1.5966E-04  0.0036
   4.0743E+00   4.1735E+00   1.5048E-04  0.0037
   4.1735E+00   4.2750E+00   1.4304E-04  0.0037
   4.2750E+00   4.3790E+00   1.3368E-04  0.0038
   4.3790E+00   4.4856E+00   1.2592E-04  0.0039
   4.4856E+00   4.5947E+00   1.1874E-04  0.0039
   4.5947E+00   4.7065E+00   1.1148E-04  0.0040
   4.7065E+00   4.8210E+00   1.0528E-04  0.0041
   4.8210E+00   4.9383E+00   9.8040E-05  0.0042
   4.9383E+00   5.0585E+00   9.1647E-05  0.0043
   5.0585E+00   5.1815E+00   8.6794E-05  0.0043
   5.1815E+00   5.3076E+00   8.1328E-05  0.0044
   5.3076E+00   5.4368E+00   7.5349E-05  0.0045
   5.4368E+00   5.5690E+00   7.0373E-05  0.0046
   5.5690E+00   5.7045E+00   6.5554E-05  0.0047
   5.7045E+00   5.8433E+00   6.1340E-05  0.0048
   5.8433E+00   5.9855E+00   5.6426E-05  0.0050
   5.9855E+00   6.1311E+00   5.2800E-05  0.0051
   6.1311E+00   6.2803E+00   4.9572E-05  0.0052
   6.2803E+00   6.4331E+00   4.5936E-05  0.0053
   6.4331E+00   6.5896E+00   4.1960E-05  0.0055
   6.5896E+00   6.7500E+00   3.9303E-05  0.0056
   6.7500E+00   6.9142E+00   3.6708E-05  0.0058
   6.9142E+00   7.0824E+00   3.3711E-05  0.0059
   7.0824E+00   7.2548E+00   3.0970E-05  0.0061
   7.2548E+00   7.4313E+00   2.8835E-05  0.0063
   7.4313E+00   7.6121E+00   2.6407E-05  0.0065
   7.6121E+00   7.7973E+00   2.4598E-05  0.0066
   7.7973E+00   7.9870E+00   2.2846E-05  0.0068
   7.9870E+00   8.1813E+00   2.1012E-05  0.0070
   8.1813E+00   8.3804E+00   1.9393E-05  0.0072
   8.3804E+00   8.5843E+00   1.8213E-05  0.0073
   8.5843E+00   8.7931E+00   1.6688E-05  0.0076
   8.7931E+00   9.0071E+00   1.5533E-05  0.0078
   9.0071E+00   9.2262E+00   1.4351E-05  0.0080
   9.2262E+00   9.4507E+00   1.3422E-05  0.0081
   9.4507E+00   9.6807E+00   1.2430E-05  0.0084
   9.6807E+00   9.9162E+00   1.1337E-05  0.0087
   9.9162E+00   1.0157E+01   1.0369E-05  0.0089
   1.0157E+01   1.0405E+01   9.6755E-06  0.0091
   1.0405E+01   1.0658E+01   9.1427E-06  0.0093
   1.0658E+01   1.0917E+01   8.4111E-06  0.0096
   1.0917E+01   1.1183E+01   7.8804E-06  0.0098
   1.1183E+01   1.1455E+01   7.4525E-06  0.0099
   1.1455E+01   1.1733E+01   6.9256E-06  0.0102
   1.1733E+01   1.2019E+01   6.4028E-06  0.0105
   1.2019E+01   1.2311E+01   5.9412E-06  0.0107
   1.2311E+01   1.2611E+01   5.7060E-06  0.0108
   1.2611E+01   1.2918E+01   5.2462E-06  0.0111
   1.2918E+01   1.3232E+01   4.9329E-06  0.0114
   1.3232E+01   1.3554E+01   4.7328E-06  0.0115
   1.3554E+01   1.3884E+01   4.4114E-06  0.0117
   1.3884E+01   1.4222E+01   4.1136E-06  0.0120
   1.4222E+01   1.4568E+01   3.8714E-06  0.0122
   1.4568E+01   1.4922E+01   3.6449E-06  0.0124
   1.4922E+01   1.5285E+01   3.5060E-06  0.0125
   1.5285E+01   1.5657E+01   3.3910E-06  0.0126
   1.5657E+01   1.6038E+01   3.1492E-06  0.0129
   1.6038E+01   1.6428E+01   2.9917E-06  0.0131
   1.6428E+01   1.6828E+01   2.8118E-06  0.0133
   1.6828E+01   1.7237E+01   2.6451E-06  0.0136
   1.7237E+01   1.7657E+01   2.4604E-06  0.0139
   1.7657E+01   1.8086E+01   2.4001E-06  0.0139
   1.8086E+01   1.8526E+01   2.2011E-06  0.0144
   1.8526E+01   1.8977E+01   2.1688E-06  0.0143
   1.8977E+01   1.9439E+01   2.0523E-06  0.0145
   1.9439E+01   1.9912E+01   1.9135E-06  0.0149
   1.9912E+01   2.0396E+01   1.8313E-06  0.0150
   2.0396E+01   2.0893E+01   1.7318E-06  0.0153
   2.0893E+01   2.1401E+01   1.5919E-06  0.0157
   2.1401E+01   2.1922E+01   1.5621E-06  0.0157
   2.1922E+01   2.2455E+01   1.4710E-06  0.0160
   2.2455E+01   2.3001E+01   1.3497E-06  0.0165
   2.3001E+01   2.3561E+01   1.2815E-06  0.0167
   2.3561E+01   2.4134E+01   1.1513E-06  0.0174
   2.4134E+01   2.4721E+01   1.0991E-06  0.0176
   2.4721E+01   2.5323E+01   1.0501E-06  0.0178
   2.5323E+01   2.5939E+01   9.8973E-07  0.0181
   2.5939E+01   2.6570E+01   8.6101E-07  0.0192
   2.6570E+01   2.7217E+01   8.1550E-07  0.0195
   2.7217E+01   2.7879E+01   7.9643E-07  0.0195
   2.7879E+01   2.8557E+01   7.0469E-07  0.0205
   2.8557E+01   2.9252E+01   6.4132E-07  0.0212
   2.9252E+01   2.9964E+01   5.8702E-07  0.0219
   2.9964E+01   3.0693E+01   5.2123E-07  0.0229
   3.0693E+01   3.1440E+01   5.0376E-07  0.0231
   3.1440E+01   3.2205E+01   4.4107E-07  0.0243
   3.2205E+01   3.2988E+01   3.8185E-07  0.0259
   3.2988E+01   3.3791E+01   3.4537E-07  0.0269
   3.3791E+01   3.4613E+01   3.1867E-07  0.0276
   3.4613E+01   3.5455E+01   2.8949E-07  0.0286
   3.5455E+01   3.6318E+01   2.6106E-07  0.0298
   3.6318E+01   3.7201E+01   2.3743E-07  0.0309
   3.7201E+01   3.8106E+01   2.0925E-07  0.0325
   3.8106E+01   3.9034E+01   1.6955E-07  0.0357
   3.9034E+01   3.9983E+01   1.5963E-07  0.0363
   3.9983E+01   4.0956E+01   1.3096E-07  0.0396
   4.0956E+01   4.1953E+01   1.2183E-07  0.0406
   4.1953E+01   4.2973E+01   1.0091E-07  0.0441
   4.2973E+01   4.4019E+01   8.6842E-08  0.0469
   4.4019E+01   4.5090E+01   7.8990E-08  0.0486
   4.5090E+01   4.6187E+01   6.3806E-08  0.0535
   4.6187E+01   4.7311E+01   6.4426E-08  0.0526
   4.7311E+01   4.8462E+01   5.2645E-08  0.0574
   4.8462E+01   4.9641E+01   5.2242E-08  0.0570
   4.9641E+01   5.0849E+01   4.5537E-08  0.0603
   5.0849E+01   5.2086E+01   3.5726E-08  0.0673
   5.2086E+01   5.3353E+01   3.8981E-08  0.0636
   5.3353E+01   5.4651E+01   3.3895E-08  0.0674
   5.4651E+01   5.5981E+01   2.1659E-08  0.0833
   5.5981E+01   5.7343E+01   2.2172E-08  0.0814
   5.7343E+01   5.8738E+01   1.8062E-08  0.0891
   5.8738E+01   6.0168E+01   1.4274E-08  0.0990
   6.0168E+01   6.1632E+01   8.4704E-09  0.1270
   6.1632E+01   6.3131E+01   5.6017E-09  0.1543
   6.3131E+01   6.4667E+01   2.9947E-09  0.2085
   6.4667E+01   6.6240E+01   1.2711E-09  0.3162
   6.6240E+01   6.7852E+01   3.7228E-10  0.5774
   6.7852E+01   6.9503E+01   2.4229E-10  0.7071
   6.9503E+01   7.1194E+01   0.0000E+00  0.0000
   7.1194E+01   7.2926E+01   0.0000E+00  0.0000
   7.2926E+01   7.4701E+01   0.0000E+00  0.0000
   7.4701E+01   7.6518E+01   0.0000E+00  0.0000
   7.6518E+01   7.8380E+01   0.0000E+00  0.0000
   7.8380E+01   8.0287E+01   0.0000E+00  0.0000
   8.0287E+01   8.2240E+01   0.0000E+00  0.0000
   8.2240E+01   8.4241E+01   0.0000E+00  0.0000
   8.4241E+01   8.6291E+01   0.0000E+00  0.0000
   8.6291E+01   8.8391E+01   0.0000E+00  0.0000
   8.8391E+01   9.0541E+01   0.0000E+00  0.0000
   9.0541E+01   9.2744E+01   0.0000E+00  0.0000
   9.2744E+01   9.5001E+01   0.0000E+00  0.0000
   9.5001E+01   9.7312E+01   0.0000E+00  0.0000
   9.7312E+01   9.9680E+01   0.0000E+00  0.0000
   9.9680E+01   1.0211E+02   0.0000E+00  0.0000
   1.0211E+02   1.0459E+02   0.0000E+00  0.0000
   1.0459E+02   1.0713E+02   0.0000E+00  0.0000
   1.0713E+02   1.0974E+02   0.0000E+00  0.0000
   1.0974E+02   1.1241E+02   0.0000E+00  0.0000
   1.1241E+02   1.1515E+02   0.0000E+00  0.0000
   1.1515E+02   1.1795E+02   0.0000E+00  0.0000
   1.1795E+02   1.2082E+02   0.0000E+00  0.0000
   1.2082E+02   1.2376E+02   0.0000E+00  0.0000
   1.2376E+02   1.2677E+02   0.0000E+00  0.0000
   1.2677E+02   1.2985E+02   0.0000E+00  0.0000
   1.2985E+02   1.3301E+02   0.0000E+00  0.0000
   1.3301E+02   1.3625E+02   0.0000E+00  0.0000
   1.3625E+02   1.3956E+02   0.0000E+00  0.0000
   1.3956E+02   1.4296E+02   0.0000E+00  0.0000
   1.4296E+02   1.4644E+02   0.0000E+00  0.0000
   1.4644E+02   1.5000E+02   0.0000E+00  0.0000

#   sum over                 1.3567E-05
'no. =    1   reg = 117 - 217'
msuc: {\huge [t-cross] in region mesh}
msdr: {\it plotted by \ANGEL \version}
msdl: {\it calculated by \PHITS  3.26}
wt: s(0.7)
\vspace{-3}
  region surface crossing
  area  &=&   1.0000E+00 [cm^2]
e:
 
# Information for Restart Calculation
# This calculation was newly started
# istdev =  2 # 1:Batch variance, 2:History variance
# resc2  = 5.00000000000000000E+09 # Total source weight or Total source weight / maxcas
# resc3  = 5.00000000000000000E+09 # Total history number or Total batch number
# maxcas =   500000000 # History / Batch, only used for istdev=1
# bitrseed = 0110100000100010111000001110001111001110100100011111101000111001 # bit data of rseed
