[ T-Cross ]
    title = [t-cross] in region mesh
     mesh =  reg            # mesh type is region-wise
      reg =    1            # number of crossing regions
      non     r-from    r-to       area
      1       120       220        1.000000    
   e-type =    3            # e-mesh is log given by emin, emax and ne
     emin =  1.0000000E-02  # minimum value of e-mesh points
     emax =   150.0000      # maximum value of e-mesh points
#    edel =  2.4039514E-02  # mesh width of e-mesh points
       ne =    400          # number of e-mesh points
#    data = ( e(i), i = 1, ne + 1 )
#           1.00000E-02  1.02433E-02  1.04925E-02  1.07478E-02  1.10093E-02
#           1.12772E-02  1.15516E-02  1.18326E-02  1.21205E-02  1.24154E-02
#           1.27175E-02  1.30269E-02  1.33439E-02  1.36686E-02  1.40011E-02
#           1.43418E-02  1.46907E-02  1.50482E-02  1.54143E-02  1.57894E-02
#           1.61735E-02  1.65670E-02  1.69701E-02  1.73830E-02  1.78060E-02
#           1.82392E-02  1.86830E-02  1.91375E-02  1.96032E-02  2.00801E-02
#           2.05687E-02  2.10692E-02  2.15818E-02  2.21069E-02  2.26448E-02
#           2.31957E-02  2.37601E-02  2.43382E-02  2.49304E-02  2.55369E-02
#           2.61583E-02  2.67947E-02  2.74467E-02  2.81145E-02  2.87985E-02
#           2.94992E-02  3.02169E-02  3.09521E-02  3.17052E-02  3.24766E-02
#           3.32668E-02  3.40762E-02  3.49053E-02  3.57546E-02  3.66246E-02
#           3.75157E-02  3.84284E-02  3.93634E-02  4.03212E-02  4.13022E-02
#           4.23071E-02  4.33365E-02  4.43909E-02  4.54710E-02  4.65773E-02
#           4.77106E-02  4.88714E-02  5.00605E-02  5.12785E-02  5.25262E-02
#           5.38042E-02  5.51133E-02  5.64542E-02  5.78278E-02  5.92348E-02
#           6.06760E-02  6.21523E-02  6.36645E-02  6.52135E-02  6.68002E-02
#           6.84255E-02  7.00904E-02  7.17957E-02  7.35426E-02  7.53319E-02
#           7.71648E-02  7.90423E-02  8.09655E-02  8.29354E-02  8.49533E-02
#           8.70203E-02  8.91376E-02  9.13064E-02  9.35279E-02  9.58035E-02
#           9.81345E-02  1.00522E-01  1.02968E-01  1.05473E-01  1.08040E-01
#           1.10668E-01  1.13361E-01  1.16119E-01  1.18944E-01  1.21838E-01
#           1.24803E-01  1.27839E-01  1.30950E-01  1.34136E-01  1.37399E-01
#           1.40742E-01  1.44167E-01  1.47675E-01  1.51268E-01  1.54948E-01
#           1.58718E-01  1.62580E-01  1.66535E-01  1.70587E-01  1.74738E-01
#           1.78989E-01  1.83344E-01  1.87805E-01  1.92375E-01  1.97055E-01
#           2.01850E-01  2.06761E-01  2.11792E-01  2.16945E-01  2.22223E-01
#           2.27630E-01  2.33169E-01  2.38842E-01  2.44653E-01  2.50605E-01
#           2.56703E-01  2.62949E-01  2.69346E-01  2.75900E-01  2.82613E-01
#           2.89489E-01  2.96532E-01  3.03747E-01  3.11138E-01  3.18708E-01
#           3.26462E-01  3.34405E-01  3.42542E-01  3.50876E-01  3.59413E-01
#           3.68158E-01  3.77116E-01  3.86291E-01  3.95690E-01  4.05317E-01
#           4.15179E-01  4.25281E-01  4.35628E-01  4.46227E-01  4.57084E-01
#           4.68205E-01  4.79597E-01  4.91266E-01  5.03219E-01  5.15463E-01
#           5.28005E-01  5.40851E-01  5.54011E-01  5.67490E-01  5.81298E-01
#           5.95441E-01  6.09929E-01  6.24769E-01  6.39970E-01  6.55541E-01
#           6.71491E-01  6.87828E-01  7.04564E-01  7.21706E-01  7.39266E-01
#           7.57253E-01  7.75678E-01  7.94551E-01  8.13883E-01  8.33685E-01
#           8.53969E-01  8.74747E-01  8.96030E-01  9.17831E-01  9.40163E-01
#           9.63038E-01  9.86469E-01  1.01047E+00  1.03506E+00  1.06024E+00
#           1.08604E+00  1.11246E+00  1.13953E+00  1.16725E+00  1.19565E+00
#           1.22474E+00  1.25454E+00  1.28507E+00  1.31633E+00  1.34836E+00
#           1.38117E+00  1.41477E+00  1.44920E+00  1.48446E+00  1.52057E+00
#           1.55757E+00  1.59547E+00  1.63429E+00  1.67405E+00  1.71478E+00
#           1.75650E+00  1.79924E+00  1.84302E+00  1.88786E+00  1.93379E+00
#           1.98084E+00  2.02904E+00  2.07841E+00  2.12898E+00  2.18078E+00
#           2.23384E+00  2.28819E+00  2.34386E+00  2.40089E+00  2.45930E+00
#           2.51914E+00  2.58043E+00  2.64322E+00  2.70753E+00  2.77341E+00
#           2.84088E+00  2.91001E+00  2.98081E+00  3.05333E+00  3.12762E+00
#           3.20372E+00  3.28167E+00  3.36152E+00  3.44330E+00  3.52708E+00
#           3.61290E+00  3.70080E+00  3.79085E+00  3.88308E+00  3.97756E+00
#           4.07434E+00  4.17347E+00  4.27501E+00  4.37903E+00  4.48557E+00
#           4.59471E+00  4.70650E+00  4.82102E+00  4.93832E+00  5.05847E+00
#           5.18155E+00  5.30762E+00  5.43676E+00  5.56904E+00  5.70453E+00
#           5.84333E+00  5.98550E+00  6.13114E+00  6.28031E+00  6.43312E+00
#           6.58964E+00  6.74997E+00  6.91420E+00  7.08243E+00  7.25475E+00
#           7.43126E+00  7.61207E+00  7.79728E+00  7.98700E+00  8.18133E+00
#           8.38038E+00  8.58428E+00  8.79315E+00  9.00709E+00  9.22624E+00
#           9.45072E+00  9.68067E+00  9.91620E+00  1.01575E+01  1.04046E+01
#           1.06578E+01  1.09171E+01  1.11827E+01  1.14548E+01  1.17335E+01
#           1.20190E+01  1.23114E+01  1.26109E+01  1.29178E+01  1.32321E+01
#           1.35540E+01  1.38838E+01  1.42216E+01  1.45676E+01  1.49221E+01
#           1.52851E+01  1.56570E+01  1.60380E+01  1.64282E+01  1.68279E+01
#           1.72374E+01  1.76568E+01  1.80864E+01  1.85264E+01  1.89772E+01
#           1.94389E+01  1.99119E+01  2.03963E+01  2.08926E+01  2.14009E+01
#           2.19216E+01  2.24550E+01  2.30014E+01  2.35610E+01  2.41343E+01
#           2.47215E+01  2.53230E+01  2.59391E+01  2.65702E+01  2.72167E+01
#           2.78789E+01  2.85572E+01  2.92520E+01  2.99637E+01  3.06928E+01
#           3.14396E+01  3.22045E+01  3.29881E+01  3.37907E+01  3.46128E+01
#           3.54550E+01  3.63177E+01  3.72013E+01  3.81064E+01  3.90336E+01
#           3.99833E+01  4.09561E+01  4.19526E+01  4.29734E+01  4.40189E+01
#           4.50900E+01  4.61870E+01  4.73108E+01  4.84619E+01  4.96410E+01
#           5.08488E+01  5.20860E+01  5.33533E+01  5.46514E+01  5.59812E+01
#           5.73432E+01  5.87384E+01  6.01676E+01  6.16315E+01  6.31311E+01
#           6.46671E+01  6.62405E+01  6.78522E+01  6.95031E+01  7.11941E+01
#           7.29263E+01  7.47007E+01  7.65182E+01  7.83800E+01  8.02870E+01
#           8.22405E+01  8.42414E+01  8.62911E+01  8.83906E+01  9.05412E+01
#           9.27442E+01  9.50007E+01  9.73122E+01  9.96799E+01  1.02105E+02
#           1.04589E+02  1.07134E+02  1.09741E+02  1.12411E+02  1.15146E+02
#           1.17948E+02  1.20817E+02  1.23757E+02  1.26768E+02  1.29852E+02
#           1.33012E+02  1.36248E+02  1.39563E+02  1.42959E+02  1.46437E+02
#           1.50000E+02
     unit =    2            # unit is [1/cm^2/(MeV/n)/source]
     axis =  eng            # axis of output
     file = detector-21.out  # file name of output for the above axis
   output = f-curr          # surface crossing forward current spectrum
     part =  neutron  
# kf/name :  2112     
#    used :        main (  %)        temp (  %)       total (  %)
#  memory :         414 (  0)           0 (  0)         414 (  0)

#------------------------------------------------------------------------------
#newpage:
#   no. =    1   reg = 120 - 220

x: Energy [MeV/n]
y:  F-Curr [1/cm^2/(MeV/n)/source]         
p: xlog ylog afac(0.8) form(0.9)
h: n            x            y(neutron ),hh0l   n 
#  e-lower      e-upper      neutron     r.err 
   1.0000E-02   1.0243E-02   2.1938E-03  0.0609
   1.0243E-02   1.0493E-02   2.0921E-03  0.0617
   1.0493E-02   1.0748E-02   2.0380E-03  0.0618
   1.0748E-02   1.1009E-02   1.9499E-03  0.0625
   1.1009E-02   1.1277E-02   1.9497E-03  0.0616
   1.1277E-02   1.1552E-02   1.7665E-03  0.0640
   1.1552E-02   1.1833E-02   2.0283E-03  0.0589
   1.1833E-02   1.2121E-02   1.8307E-03  0.0614
   1.2121E-02   1.2415E-02   1.8861E-03  0.0597
   1.2415E-02   1.2718E-02   1.8981E-03  0.0588
   1.2718E-02   1.3027E-02   1.6847E-03  0.0617
   1.3027E-02   1.3344E-02   1.5146E-03  0.0643
   1.3344E-02   1.3669E-02   1.5406E-03  0.0628
   1.3669E-02   1.4001E-02   1.6702E-03  0.0598
   1.4001E-02   1.4342E-02   1.6610E-03  0.0593
   1.4342E-02   1.4691E-02   1.4701E-03  0.0621
   1.4691E-02   1.5048E-02   1.6393E-03  0.0582
   1.5048E-02   1.5414E-02   1.5758E-03  0.0586
   1.5414E-02   1.5789E-02   1.4434E-03  0.0606
   1.5789E-02   1.6174E-02   1.4415E-03  0.0599
   1.6174E-02   1.6567E-02   1.2789E-03  0.0627
   1.6567E-02   1.6970E-02   1.1106E-03  0.0665
   1.6970E-02   1.7383E-02   1.2621E-03  0.0615
   1.7383E-02   1.7806E-02   1.2744E-03  0.0606
   1.7806E-02   1.8239E-02   1.2255E-03  0.0611
   1.8239E-02   1.8683E-02   1.2113E-03  0.0607
   1.8683E-02   1.9138E-02   1.2166E-03  0.0599
   1.9138E-02   1.9603E-02   1.1071E-03  0.0621
   1.9603E-02   2.0080E-02   1.0759E-03  0.0621
   2.0080E-02   2.0569E-02   1.1631E-03  0.0590
   2.0569E-02   2.1069E-02   1.0405E-03  0.0616
   2.1069E-02   2.1582E-02   1.0981E-03  0.0592
   2.1582E-02   2.2107E-02   1.0994E-03  0.0586
   2.2107E-02   2.2645E-02   1.0617E-03  0.0589
   2.2645E-02   2.3196E-02   1.0112E-03  0.0597
   2.3196E-02   2.3760E-02   9.8866E-04  0.0596
   2.3760E-02   2.4338E-02   8.8014E-04  0.0625
   2.4338E-02   2.4930E-02   9.9304E-04  0.0580
   2.4930E-02   2.5537E-02   9.0710E-04  0.0600
   2.5537E-02   2.6158E-02   9.1841E-04  0.0588
   2.6158E-02   2.6795E-02   8.8730E-04  0.0592
   2.6795E-02   2.7447E-02   9.0573E-04  0.0580
   2.7447E-02   2.8114E-02   8.4784E-04  0.0593
   2.8114E-02   2.8799E-02   8.4894E-04  0.0584
   2.8799E-02   2.9499E-02   7.7581E-04  0.0604
   2.9499E-02   3.0217E-02   8.3687E-04  0.0574
   3.0217E-02   3.0952E-02   6.8729E-04  0.0626
   3.0952E-02   3.1705E-02   7.1361E-04  0.0608
   3.1705E-02   3.2477E-02   8.0567E-04  0.0565
   3.2477E-02   3.3267E-02   7.3464E-04  0.0584
   3.3267E-02   3.4076E-02   6.5531E-04  0.0611
   3.4076E-02   3.4905E-02   7.6531E-04  0.0558
   3.4905E-02   3.5755E-02   6.9887E-04  0.0578
   3.5755E-02   3.6625E-02   7.4769E-04  0.0553
   3.6625E-02   3.7516E-02   7.3306E-04  0.0551
   3.7516E-02   3.8428E-02   7.0159E-04  0.0556
   3.8428E-02   3.9363E-02   6.2268E-04  0.0584
   3.9363E-02   4.0321E-02   6.9265E-04  0.0547
   4.0321E-02   4.1302E-02   6.2984E-04  0.0566
   4.1302E-02   4.2307E-02   6.4580E-04  0.0553
   4.2307E-02   4.3337E-02   5.7179E-04  0.0581
   4.3337E-02   4.4391E-02   5.6194E-04  0.0578
   4.4391E-02   4.5471E-02   5.3867E-04  0.0584
   4.5471E-02   4.6577E-02   5.7411E-04  0.0559
   4.6577E-02   4.7711E-02   5.5186E-04  0.0563
   4.7711E-02   4.8871E-02   5.1155E-04  0.0577
   4.8871E-02   5.0061E-02   5.4384E-04  0.0555
   5.0061E-02   5.1279E-02   5.0850E-04  0.0565
   5.1279E-02   5.2526E-02   5.0131E-04  0.0563
   5.2526E-02   5.3804E-02   4.9658E-04  0.0558
   5.3804E-02   5.5113E-02   4.8026E-04  0.0561
   5.5113E-02   5.6454E-02   4.5775E-04  0.0569
   5.6454E-02   5.7828E-02   4.3914E-04  0.0572
   5.7828E-02   5.9235E-02   4.6292E-04  0.0551
   5.9235E-02   6.0676E-02   4.6544E-04  0.0544
   6.0676E-02   6.2152E-02   4.3644E-04  0.0555
   6.2152E-02   6.3665E-02   3.6551E-04  0.0599
   6.3665E-02   6.5214E-02   4.3682E-04  0.0542
   6.5214E-02   6.6800E-02   4.0242E-04  0.0556
   6.6800E-02   6.8426E-02   3.8888E-04  0.0560
   6.8426E-02   7.0090E-02   3.8406E-04  0.0556
   7.0090E-02   7.1796E-02   4.0318E-04  0.0536
   7.1796E-02   7.3543E-02   3.8409E-04  0.0542
   7.3543E-02   7.5332E-02   3.2654E-04  0.0583
   7.5332E-02   7.7165E-02   3.2641E-04  0.0576
   7.7165E-02   7.9042E-02   3.1682E-04  0.0578
   7.9042E-02   8.0965E-02   3.1165E-04  0.0574
   8.0965E-02   8.2935E-02   3.1144E-04  0.0568
   8.2935E-02   8.4953E-02   3.3858E-04  0.0539
   8.4953E-02   8.7020E-02   3.2012E-04  0.0547
   8.7020E-02   8.9138E-02   3.1929E-04  0.0542
   8.9138E-02   9.1306E-02   2.9537E-04  0.0557
   9.1306E-02   9.3528E-02   2.8673E-04  0.0557
   9.3528E-02   9.5804E-02   2.6405E-04  0.0575
   9.5804E-02   9.8134E-02   2.6335E-04  0.0568
   9.8134E-02   1.0052E-01   2.7090E-04  0.0553
   1.0052E-01   1.0297E-01   2.8422E-04  0.0534
   1.0297E-01   1.0547E-01   2.7973E-04  0.0533
   1.0547E-01   1.0804E-01   2.9718E-04  0.0510
   1.0804E-01   1.1067E-01   2.5173E-04  0.0546
   1.1067E-01   1.1336E-01   2.4460E-04  0.0548
   1.1336E-01   1.1612E-01   2.3570E-04  0.0552
   1.1612E-01   1.1894E-01   2.2667E-04  0.0556
   1.1894E-01   1.2184E-01   2.1919E-04  0.0559
   1.2184E-01   1.2480E-01   2.2920E-04  0.0539
   1.2480E-01   1.2784E-01   2.1042E-04  0.0556
   1.2784E-01   1.3095E-01   2.0630E-04  0.0555
   1.3095E-01   1.3414E-01   1.9241E-04  0.0569
   1.3414E-01   1.3740E-01   2.0929E-04  0.0539
   1.3740E-01   1.4074E-01   2.1033E-04  0.0530
   1.4074E-01   1.4417E-01   1.9448E-04  0.0546
   1.4417E-01   1.4767E-01   1.9325E-04  0.0540
   1.4767E-01   1.5127E-01   1.7620E-04  0.0559
   1.5127E-01   1.5495E-01   1.7477E-04  0.0554
   1.5495E-01   1.5872E-01   1.9449E-04  0.0520
   1.5872E-01   1.6258E-01   1.8516E-04  0.0526
   1.6258E-01   1.6654E-01   1.7319E-04  0.0538
   1.6654E-01   1.7059E-01   1.7113E-04  0.0534
   1.7059E-01   1.7474E-01   1.5884E-04  0.0548
   1.7474E-01   1.7899E-01   1.5814E-04  0.0543
   1.7899E-01   1.8334E-01   1.5915E-04  0.0535
   1.8334E-01   1.8781E-01   1.5873E-04  0.0529
   1.8781E-01   1.9237E-01   1.4129E-04  0.0554
   1.9237E-01   1.9706E-01   1.5460E-04  0.0524
   1.9706E-01   2.0185E-01   1.4094E-04  0.0541
   2.0185E-01   2.0676E-01   1.4332E-04  0.0531
   2.0676E-01   2.1179E-01   1.4811E-04  0.0515
   2.1179E-01   2.1694E-01   1.5166E-04  0.0503
   2.1694E-01   2.2222E-01   1.6566E-04  0.0476
   2.2222E-01   2.2763E-01   1.5222E-04  0.0491
   2.2763E-01   2.3317E-01   1.7284E-04  0.0454
   2.3317E-01   2.3884E-01   1.6879E-04  0.0454
   2.3884E-01   2.4465E-01   1.8885E-04  0.0425
   2.4465E-01   2.5061E-01   1.8353E-04  0.0426
   2.5061E-01   2.5670E-01   1.9878E-04  0.0404
   2.5670E-01   2.6295E-01   2.0793E-04  0.0390
   2.6295E-01   2.6935E-01   2.0306E-04  0.0390
   2.6935E-01   2.7590E-01   2.1294E-04  0.0376
   2.7590E-01   2.8261E-01   2.0942E-04  0.0375
   2.8261E-01   2.8949E-01   2.2432E-04  0.0358
   2.8949E-01   2.9653E-01   2.4024E-04  0.0342
   2.9653E-01   3.0375E-01   2.4917E-04  0.0332
   3.0375E-01   3.1114E-01   2.3753E-04  0.0336
   3.1114E-01   3.1871E-01   2.5148E-04  0.0322
   3.1871E-01   3.2646E-01   2.6099E-04  0.0312
   3.2646E-01   3.3441E-01   2.7611E-04  0.0300
   3.3441E-01   3.4254E-01   2.6954E-04  0.0300
   3.4254E-01   3.5088E-01   2.9086E-04  0.0286
   3.5088E-01   3.5941E-01   2.9714E-04  0.0279
   3.5941E-01   3.6816E-01   2.9350E-04  0.0278
   3.6816E-01   3.7712E-01   3.1006E-04  0.0267
   3.7712E-01   3.8629E-01   3.2882E-04  0.0256
   3.8629E-01   3.9569E-01   3.2032E-04  0.0256
   3.9569E-01   4.0532E-01   3.1758E-04  0.0254
   4.0532E-01   4.1518E-01   3.2739E-04  0.0247
   4.1518E-01   4.2528E-01   3.4283E-04  0.0239
   4.2528E-01   4.3563E-01   3.4591E-04  0.0235
   4.3563E-01   4.4623E-01   3.4671E-04  0.0232
   4.4623E-01   4.5708E-01   3.6237E-04  0.0224
   4.5708E-01   4.6821E-01   3.6905E-04  0.0220
   4.6821E-01   4.7960E-01   3.5733E-04  0.0220
   4.7960E-01   4.9127E-01   3.6365E-04  0.0216
   4.9127E-01   5.0322E-01   3.6983E-04  0.0211
   5.0322E-01   5.1546E-01   3.9869E-04  0.0201
   5.1546E-01   5.2800E-01   4.0025E-04  0.0198
   5.2800E-01   5.4085E-01   3.9388E-04  0.0197
   5.4085E-01   5.5401E-01   3.9397E-04  0.0195
   5.5401E-01   5.6749E-01   4.0446E-04  0.0190
   5.6749E-01   5.8130E-01   4.2532E-04  0.0183
   5.8130E-01   5.9544E-01   4.1101E-04  0.0184
   5.9544E-01   6.0993E-01   4.2160E-04  0.0180
   6.0993E-01   6.2477E-01   4.1391E-04  0.0179
   6.2477E-01   6.3997E-01   4.1513E-04  0.0177
   6.3997E-01   6.5554E-01   4.2165E-04  0.0173
   6.5554E-01   6.7149E-01   4.3321E-04  0.0169
   6.7149E-01   6.8783E-01   4.1487E-04  0.0170
   6.8783E-01   7.0456E-01   4.1839E-04  0.0168
   7.0456E-01   7.2171E-01   4.2546E-04  0.0164
   7.2171E-01   7.3927E-01   4.2084E-04  0.0163
   7.3927E-01   7.5725E-01   4.2232E-04  0.0161
   7.5725E-01   7.7568E-01   4.3055E-04  0.0157
   7.7568E-01   7.9455E-01   4.1744E-04  0.0158
   7.9455E-01   8.1388E-01   4.3842E-04  0.0152
   8.1388E-01   8.3368E-01   4.2604E-04  0.0153
   8.3368E-01   8.5397E-01   4.1950E-04  0.0152
   8.5397E-01   8.7475E-01   4.1819E-04  0.0150
   8.7475E-01   8.9603E-01   4.1583E-04  0.0149
   8.9603E-01   9.1783E-01   4.0467E-04  0.0149
   9.1783E-01   9.4016E-01   3.9055E-04  0.0150
   9.4016E-01   9.6304E-01   4.0987E-04  0.0145
   9.6304E-01   9.8647E-01   3.9813E-04  0.0145
   9.8647E-01   1.0105E+00   3.8691E-04  0.0145
   1.0105E+00   1.0351E+00   3.8340E-04  0.0144
   1.0351E+00   1.0602E+00   3.7581E-04  0.0144
   1.0602E+00   1.0860E+00   3.7400E-04  0.0143
   1.0860E+00   1.1125E+00   3.5675E-04  0.0144
   1.1125E+00   1.1395E+00   3.6328E-04  0.0141
   1.1395E+00   1.1673E+00   3.5320E-04  0.0142
   1.1673E+00   1.1957E+00   3.4552E-04  0.0141
   1.1957E+00   1.2247E+00   3.4277E-04  0.0140
   1.2247E+00   1.2545E+00   3.4469E-04  0.0138
   1.2545E+00   1.2851E+00   3.3131E-04  0.0139
   1.2851E+00   1.3163E+00   3.1851E-04  0.0140
   1.3163E+00   1.3484E+00   3.1820E-04  0.0139
   1.3484E+00   1.3812E+00   3.0204E-04  0.0140
   1.3812E+00   1.4148E+00   3.1174E-04  0.0137
   1.4148E+00   1.4492E+00   2.9769E-04  0.0138
   1.4492E+00   1.4845E+00   2.9489E-04  0.0137
   1.4845E+00   1.5206E+00   2.8833E-04  0.0137
   1.5206E+00   1.5576E+00   2.7960E-04  0.0137
   1.5576E+00   1.5955E+00   2.8028E-04  0.0136
   1.5955E+00   1.6343E+00   2.7022E-04  0.0137
   1.6343E+00   1.6741E+00   2.5904E-04  0.0138
   1.6741E+00   1.7148E+00   2.6393E-04  0.0135
   1.7148E+00   1.7565E+00   2.4877E-04  0.0137
   1.7565E+00   1.7992E+00   2.4693E-04  0.0136
   1.7992E+00   1.8430E+00   2.4024E-04  0.0136
   1.8430E+00   1.8879E+00   2.3283E-04  0.0137
   1.8879E+00   1.9338E+00   2.2397E-04  0.0138
   1.9338E+00   1.9808E+00   2.1631E-04  0.0138
   1.9808E+00   2.0290E+00   2.1641E-04  0.0137
   2.0290E+00   2.0784E+00   2.1227E-04  0.0136
   2.0784E+00   2.1290E+00   2.0660E-04  0.0137
   2.1290E+00   2.1808E+00   1.9753E-04  0.0138
   2.1808E+00   2.2338E+00   1.9339E-04  0.0138
   2.2338E+00   2.2882E+00   1.8981E-04  0.0138
   2.2882E+00   2.3439E+00   1.8411E-04  0.0138
   2.3439E+00   2.4009E+00   1.7715E-04  0.0139
   2.4009E+00   2.4593E+00   1.7371E-04  0.0139
   2.4593E+00   2.5191E+00   1.6920E-04  0.0139
   2.5191E+00   2.5804E+00   1.6584E-04  0.0139
   2.5804E+00   2.6432E+00   1.5694E-04  0.0141
   2.6432E+00   2.7075E+00   1.5337E-04  0.0141
   2.7075E+00   2.7734E+00   1.4703E-04  0.0142
   2.7734E+00   2.8409E+00   1.4498E-04  0.0141
   2.8409E+00   2.9100E+00   1.4174E-04  0.0141
   2.9100E+00   2.9808E+00   1.3922E-04  0.0141
   2.9808E+00   3.0533E+00   1.3367E-04  0.0142
   3.0533E+00   3.1276E+00   1.2870E-04  0.0143
   3.1276E+00   3.2037E+00   1.2626E-04  0.0142
   3.2037E+00   3.2817E+00   1.2223E-04  0.0143
   3.2817E+00   3.3615E+00   1.1816E-04  0.0144
   3.3615E+00   3.4433E+00   1.1559E-04  0.0144
   3.4433E+00   3.5271E+00   1.0941E-04  0.0146
   3.5271E+00   3.6129E+00   1.0973E-04  0.0144
   3.6129E+00   3.7008E+00   1.0579E-04  0.0145
   3.7008E+00   3.7908E+00   1.0357E-04  0.0145
   3.7908E+00   3.8831E+00   9.7137E-05  0.0147
   3.8831E+00   3.9776E+00   9.8879E-05  0.0144
   3.9776E+00   4.0743E+00   9.7808E-05  0.0144
   4.0743E+00   4.1735E+00   9.3581E-05  0.0145
   4.1735E+00   4.2750E+00   9.2155E-05  0.0144
   4.2750E+00   4.3790E+00   9.0892E-05  0.0144
   4.3790E+00   4.4856E+00   8.8189E-05  0.0144
   4.4856E+00   4.5947E+00   8.8306E-05  0.0143
   4.5947E+00   4.7065E+00   8.5260E-05  0.0143
   4.7065E+00   4.8210E+00   8.3364E-05  0.0143
   4.8210E+00   4.9383E+00   8.1088E-05  0.0143
   4.9383E+00   5.0585E+00   8.1659E-05  0.0141
   5.0585E+00   5.1815E+00   7.8478E-05  0.0142
   5.1815E+00   5.3076E+00   7.6417E-05  0.0143
   5.3076E+00   5.4368E+00   7.2924E-05  0.0144
   5.4368E+00   5.5690E+00   6.9160E-05  0.0147
   5.5690E+00   5.7045E+00   6.8849E-05  0.0145
   5.7045E+00   5.8433E+00   6.5752E-05  0.0147
   5.8433E+00   5.9855E+00   6.2878E-05  0.0148
   5.9855E+00   6.1311E+00   6.2025E-05  0.0148
   6.1311E+00   6.2803E+00   6.0268E-05  0.0148
   6.2803E+00   6.4331E+00   5.5963E-05  0.0152
   6.4331E+00   6.5896E+00   5.7226E-05  0.0149
   6.5896E+00   6.7500E+00   5.2382E-05  0.0153
   6.7500E+00   6.9142E+00   4.9939E-05  0.0155
   6.9142E+00   7.0824E+00   4.9657E-05  0.0154
   7.0824E+00   7.2548E+00   4.7324E-05  0.0156
   7.2548E+00   7.4313E+00   4.4930E-05  0.0158
   7.4313E+00   7.6121E+00   4.2562E-05  0.0160
   7.6121E+00   7.7973E+00   4.2253E-05  0.0159
   7.7973E+00   7.9870E+00   4.1140E-05  0.0159
   7.9870E+00   8.1813E+00   3.9494E-05  0.0161
   8.1813E+00   8.3804E+00   3.5815E-05  0.0167
   8.3804E+00   8.5843E+00   3.4894E-05  0.0167
   8.5843E+00   8.7931E+00   3.4483E-05  0.0166
   8.7931E+00   9.0071E+00   3.1631E-05  0.0171
   9.0071E+00   9.2262E+00   3.1295E-05  0.0170
   9.2262E+00   9.4507E+00   2.9043E-05  0.0175
   9.4507E+00   9.6807E+00   2.8701E-05  0.0174
   9.6807E+00   9.9162E+00   2.7483E-05  0.0175
   9.9162E+00   1.0157E+01   2.5951E-05  0.0178
   1.0157E+01   1.0405E+01   2.4549E-05  0.0181
   1.0405E+01   1.0658E+01   2.3814E-05  0.0182
   1.0658E+01   1.0917E+01   2.2424E-05  0.0185
   1.0917E+01   1.1183E+01   2.1419E-05  0.0187
   1.1183E+01   1.1455E+01   2.0957E-05  0.0187
   1.1455E+01   1.1733E+01   1.9978E-05  0.0189
   1.1733E+01   1.2019E+01   1.8435E-05  0.0195
   1.2019E+01   1.2311E+01   1.7157E-05  0.0199
   1.2311E+01   1.2611E+01   1.6628E-05  0.0200
   1.2611E+01   1.2918E+01   1.5373E-05  0.0206
   1.2918E+01   1.3232E+01   1.4793E-05  0.0207
   1.3232E+01   1.3554E+01   1.3669E-05  0.0213
   1.3554E+01   1.3884E+01   1.2844E-05  0.0217
   1.3884E+01   1.4222E+01   1.2327E-05  0.0219
   1.4222E+01   1.4568E+01   1.1536E-05  0.0224
   1.4568E+01   1.4922E+01   1.1107E-05  0.0225
   1.4922E+01   1.5285E+01   1.0616E-05  0.0228
   1.5285E+01   1.5657E+01   9.9142E-06  0.0233
   1.5657E+01   1.6038E+01   9.1064E-06  0.0240
   1.6038E+01   1.6428E+01   8.4121E-06  0.0247
   1.6428E+01   1.6828E+01   8.2660E-06  0.0246
   1.6828E+01   1.7237E+01   7.3564E-06  0.0258
   1.7237E+01   1.7657E+01   6.8492E-06  0.0264
   1.7657E+01   1.8086E+01   6.5968E-06  0.0266
   1.8086E+01   1.8526E+01   6.1583E-06  0.0272
   1.8526E+01   1.8977E+01   5.3199E-06  0.0289
   1.8977E+01   1.9439E+01   5.3971E-06  0.0283
   1.9439E+01   1.9912E+01   4.6473E-06  0.0302
   1.9912E+01   2.0396E+01   4.5534E-06  0.0301
   2.0396E+01   2.0893E+01   4.1591E-06  0.0311
   2.0893E+01   2.1401E+01   3.7652E-06  0.0323
   2.1401E+01   2.1922E+01   3.6374E-06  0.0325
   2.1922E+01   2.2455E+01   3.0073E-06  0.0353
   2.2455E+01   2.3001E+01   2.8809E-06  0.0356
   2.3001E+01   2.3561E+01   2.4194E-06  0.0384
   2.3561E+01   2.4134E+01   2.3619E-06  0.0384
   2.4134E+01   2.4721E+01   2.0879E-06  0.0404
   2.4721E+01   2.5323E+01   1.8554E-06  0.0423
   2.5323E+01   2.5939E+01   1.5906E-06  0.0452
   2.5939E+01   2.6570E+01   1.3183E-06  0.0490
   2.6570E+01   2.7217E+01   1.1756E-06  0.0513
   2.7217E+01   2.7879E+01   1.0752E-06  0.0530
   2.7879E+01   2.8557E+01   9.1403E-07  0.0568
   2.8557E+01   2.9252E+01   8.2899E-07  0.0589
   2.9252E+01   2.9964E+01   7.1657E-07  0.0626
   2.9964E+01   3.0693E+01   5.5141E-07  0.0705
   3.0693E+01   3.1440E+01   4.2315E-07  0.0796
   3.1440E+01   3.2205E+01   3.7911E-07  0.0830
   3.2205E+01   3.2988E+01   3.0374E-07  0.0917
   3.2988E+01   3.3791E+01   2.8905E-07  0.0928
   3.3791E+01   3.4613E+01   2.7489E-07  0.0941
   3.4613E+01   3.5455E+01   2.0899E-07  0.1066
   3.5455E+01   3.6318E+01   1.8084E-07  0.1132
   3.6318E+01   3.7201E+01   1.5844E-07  0.1195
   3.7201E+01   3.8106E+01   1.2816E-07  0.1313
   3.8106E+01   3.9034E+01   1.1433E-07  0.1374
   3.9034E+01   3.9983E+01   1.0108E-07  0.1443
   3.9983E+01   4.0956E+01   8.0179E-08  0.1601
   4.0956E+01   4.1953E+01   5.8204E-08  0.1857
   4.1953E+01   4.2973E+01   2.9390E-08  0.2582
   4.2973E+01   4.4019E+01   4.9733E-08  0.1961
   4.4019E+01   4.5090E+01   2.8011E-08  0.2582
   4.5090E+01   4.6187E+01   2.1876E-08  0.2887
   4.6187E+01   4.7311E+01   2.1357E-08  0.2887
   4.7311E+01   4.8462E+01   1.5637E-08  0.3333
   4.8462E+01   4.9641E+01   8.4809E-09  0.4472
   4.9641E+01   5.0849E+01   4.9677E-09  0.5774
   5.0849E+01   5.2086E+01   6.4663E-09  0.5000
   5.2086E+01   5.3353E+01   4.7345E-09  0.5774
   5.3353E+01   5.4651E+01   4.6220E-09  0.5774
   5.4651E+01   5.5981E+01   3.0082E-09  0.7071
   5.5981E+01   5.7343E+01   0.0000E+00  0.0000
   5.7343E+01   5.8738E+01   4.3004E-09  0.5774
   5.8738E+01   6.0168E+01   1.3994E-09  1.0000
   6.0168E+01   6.1632E+01   1.3662E-09  1.0000
   6.1632E+01   6.3131E+01   0.0000E+00  0.0000
   6.3131E+01   6.4667E+01   1.3021E-09  1.0000
   6.4667E+01   6.6240E+01   0.0000E+00  0.0000
   6.6240E+01   6.7852E+01   0.0000E+00  0.0000
   6.7852E+01   6.9503E+01   0.0000E+00  0.0000
   6.9503E+01   7.1194E+01   0.0000E+00  0.0000
   7.1194E+01   7.2926E+01   0.0000E+00  0.0000
   7.2926E+01   7.4701E+01   0.0000E+00  0.0000
   7.4701E+01   7.6518E+01   0.0000E+00  0.0000
   7.6518E+01   7.8380E+01   0.0000E+00  0.0000
   7.8380E+01   8.0287E+01   0.0000E+00  0.0000
   8.0287E+01   8.2240E+01   0.0000E+00  0.0000
   8.2240E+01   8.4241E+01   0.0000E+00  0.0000
   8.4241E+01   8.6291E+01   0.0000E+00  0.0000
   8.6291E+01   8.8391E+01   0.0000E+00  0.0000
   8.8391E+01   9.0541E+01   0.0000E+00  0.0000
   9.0541E+01   9.2744E+01   0.0000E+00  0.0000
   9.2744E+01   9.5001E+01   0.0000E+00  0.0000
   9.5001E+01   9.7312E+01   0.0000E+00  0.0000
   9.7312E+01   9.9680E+01   0.0000E+00  0.0000
   9.9680E+01   1.0211E+02   0.0000E+00  0.0000
   1.0211E+02   1.0459E+02   0.0000E+00  0.0000
   1.0459E+02   1.0713E+02   0.0000E+00  0.0000
   1.0713E+02   1.0974E+02   0.0000E+00  0.0000
   1.0974E+02   1.1241E+02   0.0000E+00  0.0000
   1.1241E+02   1.1515E+02   0.0000E+00  0.0000
   1.1515E+02   1.1795E+02   0.0000E+00  0.0000
   1.1795E+02   1.2082E+02   0.0000E+00  0.0000
   1.2082E+02   1.2376E+02   0.0000E+00  0.0000
   1.2376E+02   1.2677E+02   0.0000E+00  0.0000
   1.2677E+02   1.2985E+02   0.0000E+00  0.0000
   1.2985E+02   1.3301E+02   0.0000E+00  0.0000
   1.3301E+02   1.3625E+02   0.0000E+00  0.0000
   1.3625E+02   1.3956E+02   0.0000E+00  0.0000
   1.3956E+02   1.4296E+02   0.0000E+00  0.0000
   1.4296E+02   1.4644E+02   0.0000E+00  0.0000
   1.4644E+02   1.5000E+02   0.0000E+00  0.0000

#   sum over                 9.3818E-06
'no. =    1   reg = 120 - 220'
msuc: {\huge [t-cross] in region mesh}
msdr: {\it plotted by \ANGEL \version}
msdl: {\it calculated by \PHITS  3.26}
wt: s(0.7)
\vspace{-3}
  region surface crossing
  area  &=&   1.0000E+00 [cm^2]
e:
 
# Information for Restart Calculation
# This calculation was newly started
# istdev =  2 # 1:Batch variance, 2:History variance
# resc2  = 5.00000000000000000E+08 # Total source weight or Total source weight / maxcas
# resc3  = 5.00000000000000000E+08 # Total history number or Total batch number
# maxcas =   500000000 # History / Batch, only used for istdev=1
# bitrseed = 1101101111010011011000101101110001100110110010110001010100010001 # bit data of rseed
