[ T-Cross ]
    title = [t-cross] in region mesh
     mesh =  reg            # mesh type is region-wise
      reg =    1            # number of crossing regions
      non     r-from    r-to       area
      1       100       200        1.000000    
   e-type =    3            # e-mesh is log given by emin, emax and ne
     emin =  1.0000000E-02  # minimum value of e-mesh points
     emax =   150.0000      # maximum value of e-mesh points
#    edel =  2.4039514E-02  # mesh width of e-mesh points
       ne =    400          # number of e-mesh points
#    data = ( e(i), i = 1, ne + 1 )
#           1.00000E-02  1.02433E-02  1.04925E-02  1.07478E-02  1.10093E-02
#           1.12772E-02  1.15516E-02  1.18326E-02  1.21205E-02  1.24154E-02
#           1.27175E-02  1.30269E-02  1.33439E-02  1.36686E-02  1.40011E-02
#           1.43418E-02  1.46907E-02  1.50482E-02  1.54143E-02  1.57894E-02
#           1.61735E-02  1.65670E-02  1.69701E-02  1.73830E-02  1.78060E-02
#           1.82392E-02  1.86830E-02  1.91375E-02  1.96032E-02  2.00801E-02
#           2.05687E-02  2.10692E-02  2.15818E-02  2.21069E-02  2.26448E-02
#           2.31957E-02  2.37601E-02  2.43382E-02  2.49304E-02  2.55369E-02
#           2.61583E-02  2.67947E-02  2.74467E-02  2.81145E-02  2.87985E-02
#           2.94992E-02  3.02169E-02  3.09521E-02  3.17052E-02  3.24766E-02
#           3.32668E-02  3.40762E-02  3.49053E-02  3.57546E-02  3.66246E-02
#           3.75157E-02  3.84284E-02  3.93634E-02  4.03212E-02  4.13022E-02
#           4.23071E-02  4.33365E-02  4.43909E-02  4.54710E-02  4.65773E-02
#           4.77106E-02  4.88714E-02  5.00605E-02  5.12785E-02  5.25262E-02
#           5.38042E-02  5.51133E-02  5.64542E-02  5.78278E-02  5.92348E-02
#           6.06760E-02  6.21523E-02  6.36645E-02  6.52135E-02  6.68002E-02
#           6.84255E-02  7.00904E-02  7.17957E-02  7.35426E-02  7.53319E-02
#           7.71648E-02  7.90423E-02  8.09655E-02  8.29354E-02  8.49533E-02
#           8.70203E-02  8.91376E-02  9.13064E-02  9.35279E-02  9.58035E-02
#           9.81345E-02  1.00522E-01  1.02968E-01  1.05473E-01  1.08040E-01
#           1.10668E-01  1.13361E-01  1.16119E-01  1.18944E-01  1.21838E-01
#           1.24803E-01  1.27839E-01  1.30950E-01  1.34136E-01  1.37399E-01
#           1.40742E-01  1.44167E-01  1.47675E-01  1.51268E-01  1.54948E-01
#           1.58718E-01  1.62580E-01  1.66535E-01  1.70587E-01  1.74738E-01
#           1.78989E-01  1.83344E-01  1.87805E-01  1.92375E-01  1.97055E-01
#           2.01850E-01  2.06761E-01  2.11792E-01  2.16945E-01  2.22223E-01
#           2.27630E-01  2.33169E-01  2.38842E-01  2.44653E-01  2.50605E-01
#           2.56703E-01  2.62949E-01  2.69346E-01  2.75900E-01  2.82613E-01
#           2.89489E-01  2.96532E-01  3.03747E-01  3.11138E-01  3.18708E-01
#           3.26462E-01  3.34405E-01  3.42542E-01  3.50876E-01  3.59413E-01
#           3.68158E-01  3.77116E-01  3.86291E-01  3.95690E-01  4.05317E-01
#           4.15179E-01  4.25281E-01  4.35628E-01  4.46227E-01  4.57084E-01
#           4.68205E-01  4.79597E-01  4.91266E-01  5.03219E-01  5.15463E-01
#           5.28005E-01  5.40851E-01  5.54011E-01  5.67490E-01  5.81298E-01
#           5.95441E-01  6.09929E-01  6.24769E-01  6.39970E-01  6.55541E-01
#           6.71491E-01  6.87828E-01  7.04564E-01  7.21706E-01  7.39266E-01
#           7.57253E-01  7.75678E-01  7.94551E-01  8.13883E-01  8.33685E-01
#           8.53969E-01  8.74747E-01  8.96030E-01  9.17831E-01  9.40163E-01
#           9.63038E-01  9.86469E-01  1.01047E+00  1.03506E+00  1.06024E+00
#           1.08604E+00  1.11246E+00  1.13953E+00  1.16725E+00  1.19565E+00
#           1.22474E+00  1.25454E+00  1.28507E+00  1.31633E+00  1.34836E+00
#           1.38117E+00  1.41477E+00  1.44920E+00  1.48446E+00  1.52057E+00
#           1.55757E+00  1.59547E+00  1.63429E+00  1.67405E+00  1.71478E+00
#           1.75650E+00  1.79924E+00  1.84302E+00  1.88786E+00  1.93379E+00
#           1.98084E+00  2.02904E+00  2.07841E+00  2.12898E+00  2.18078E+00
#           2.23384E+00  2.28819E+00  2.34386E+00  2.40089E+00  2.45930E+00
#           2.51914E+00  2.58043E+00  2.64322E+00  2.70753E+00  2.77341E+00
#           2.84088E+00  2.91001E+00  2.98081E+00  3.05333E+00  3.12762E+00
#           3.20372E+00  3.28167E+00  3.36152E+00  3.44330E+00  3.52708E+00
#           3.61290E+00  3.70080E+00  3.79085E+00  3.88308E+00  3.97756E+00
#           4.07434E+00  4.17347E+00  4.27501E+00  4.37903E+00  4.48557E+00
#           4.59471E+00  4.70650E+00  4.82102E+00  4.93832E+00  5.05847E+00
#           5.18155E+00  5.30762E+00  5.43676E+00  5.56904E+00  5.70453E+00
#           5.84333E+00  5.98550E+00  6.13114E+00  6.28031E+00  6.43312E+00
#           6.58964E+00  6.74997E+00  6.91420E+00  7.08243E+00  7.25475E+00
#           7.43126E+00  7.61207E+00  7.79728E+00  7.98700E+00  8.18133E+00
#           8.38038E+00  8.58428E+00  8.79315E+00  9.00709E+00  9.22624E+00
#           9.45072E+00  9.68067E+00  9.91620E+00  1.01575E+01  1.04046E+01
#           1.06578E+01  1.09171E+01  1.11827E+01  1.14548E+01  1.17335E+01
#           1.20190E+01  1.23114E+01  1.26109E+01  1.29178E+01  1.32321E+01
#           1.35540E+01  1.38838E+01  1.42216E+01  1.45676E+01  1.49221E+01
#           1.52851E+01  1.56570E+01  1.60380E+01  1.64282E+01  1.68279E+01
#           1.72374E+01  1.76568E+01  1.80864E+01  1.85264E+01  1.89772E+01
#           1.94389E+01  1.99119E+01  2.03963E+01  2.08926E+01  2.14009E+01
#           2.19216E+01  2.24550E+01  2.30014E+01  2.35610E+01  2.41343E+01
#           2.47215E+01  2.53230E+01  2.59391E+01  2.65702E+01  2.72167E+01
#           2.78789E+01  2.85572E+01  2.92520E+01  2.99637E+01  3.06928E+01
#           3.14396E+01  3.22045E+01  3.29881E+01  3.37907E+01  3.46128E+01
#           3.54550E+01  3.63177E+01  3.72013E+01  3.81064E+01  3.90336E+01
#           3.99833E+01  4.09561E+01  4.19526E+01  4.29734E+01  4.40189E+01
#           4.50900E+01  4.61870E+01  4.73108E+01  4.84619E+01  4.96410E+01
#           5.08488E+01  5.20860E+01  5.33533E+01  5.46514E+01  5.59812E+01
#           5.73432E+01  5.87384E+01  6.01676E+01  6.16315E+01  6.31311E+01
#           6.46671E+01  6.62405E+01  6.78522E+01  6.95031E+01  7.11941E+01
#           7.29263E+01  7.47007E+01  7.65182E+01  7.83800E+01  8.02870E+01
#           8.22405E+01  8.42414E+01  8.62911E+01  8.83906E+01  9.05412E+01
#           9.27442E+01  9.50007E+01  9.73122E+01  9.96799E+01  1.02105E+02
#           1.04589E+02  1.07134E+02  1.09741E+02  1.12411E+02  1.15146E+02
#           1.17948E+02  1.20817E+02  1.23757E+02  1.26768E+02  1.29852E+02
#           1.33012E+02  1.36248E+02  1.39563E+02  1.42959E+02  1.46437E+02
#           1.50000E+02
     unit =    2            # unit is [1/cm^2/(MeV/n)/source]
     axis =  eng            # axis of output
     file = detector-01.out  # file name of output for the above axis
   output = f-curr          # surface crossing forward current spectrum
     part =  neutron  
# kf/name :  2112     
#    used :        main (  %)        temp (  %)       total (  %)
#  memory :         414 (  0)           0 (  0)         414 (  0)

#------------------------------------------------------------------------------
#newpage:
#   no. =    1   reg = 100 - 200

x: Energy [MeV/n]
y:  F-Curr [1/cm^2/(MeV/n)/source]         
p: xlog ylog afac(0.8) form(0.9)
h: n            x            y(neutron ),hh0l   n 
#  e-lower      e-upper      neutron     r.err 
   1.0000E-02   1.0243E-02   2.2390E-04  0.1910
   1.0243E-02   1.0493E-02   2.1043E-04  0.1946
   1.0493E-02   1.0748E-02   1.3635E-04  0.2375
   1.0748E-02   1.1009E-02   1.7623E-04  0.2025
   1.1009E-02   1.1277E-02   1.5768E-04  0.2131
   1.1277E-02   1.1552E-02   2.0932E-04  0.1852
   1.1552E-02   1.1833E-02   1.5970E-04  0.2095
   1.1833E-02   1.2121E-02   1.5283E-04  0.2132
   1.2121E-02   1.2415E-02   1.6142E-04  0.2028
   1.2415E-02   1.2718E-02   1.2820E-04  0.2255
   1.2718E-02   1.3027E-02   1.6978E-04  0.1944
   1.3027E-02   1.3344E-02   2.2255E-04  0.1679
   1.3344E-02   1.3669E-02   1.8107E-04  0.1811
   1.3669E-02   1.4001E-02   1.2942E-04  0.2136
   1.4001E-02   1.4342E-02   1.0664E-04  0.2338
   1.4342E-02   1.4691E-02   1.1614E-04  0.2211
   1.4691E-02   1.5048E-02   1.7460E-04  0.1785
   1.5048E-02   1.5414E-02   1.3250E-04  0.2022
   1.5414E-02   1.5789E-02   1.0786E-04  0.2214
   1.5789E-02   1.6174E-02   1.1812E-04  0.2075
   1.6174E-02   1.6567E-02   1.2832E-04  0.1983
   1.6567E-02   1.6970E-02   1.2346E-04  0.1977
   1.6970E-02   1.7383E-02   1.2352E-04  0.1971
   1.7383E-02   1.7806E-02   1.3061E-04  0.1886
   1.7806E-02   1.8239E-02   1.2234E-04  0.1933
   1.8239E-02   1.8683E-02   1.0920E-04  0.2024
   1.8683E-02   1.9138E-02   7.5985E-05  0.2393
   1.9138E-02   1.9603E-02   1.0423E-04  0.2022
   1.9603E-02   2.0080E-02   1.2580E-04  0.1826
   2.0080E-02   2.0569E-02   1.0742E-04  0.1945
   2.0569E-02   2.1069E-02   7.8000E-05  0.2241
   2.1069E-02   2.1582E-02   1.0249E-04  0.1944
   2.1582E-02   2.2107E-02   1.0855E-04  0.1865
   2.2107E-02   2.2645E-02   1.0597E-04  0.1865
   2.2645E-02   2.3196E-02   1.1714E-04  0.1755
   2.3196E-02   2.3760E-02   9.3964E-05  0.1928
   2.3760E-02   2.4338E-02   7.2163E-05  0.2161
   2.4338E-02   2.4930E-02   7.8592E-05  0.2064
   2.4930E-02   2.5537E-02   5.1786E-05  0.2480
   2.5537E-02   2.6158E-02   7.4034E-05  0.2085
   2.6158E-02   2.6795E-02   8.0132E-05  0.1971
   2.6795E-02   2.7447E-02   7.9762E-05  0.1961
   2.7447E-02   2.8114E-02   7.9850E-05  0.1918
   2.8114E-02   2.8799E-02   8.3263E-05  0.1862
   2.8799E-02   2.9499E-02   6.3410E-05  0.2114
   2.9499E-02   3.0217E-02   7.3727E-05  0.1931
   3.0217E-02   3.0952E-02   7.9904E-05  0.1836
   3.0952E-02   3.1705E-02   8.2687E-05  0.1789
   3.1705E-02   3.2477E-02   8.4186E-05  0.1744
   3.2477E-02   3.3267E-02   7.7984E-05  0.1787
   3.3267E-02   3.4076E-02   6.7278E-05  0.1910
   3.4076E-02   3.4905E-02   7.0449E-05  0.1845
   3.4905E-02   3.5755E-02   5.1809E-05  0.2132
   3.5755E-02   3.6625E-02   7.5867E-05  0.1741
   3.6625E-02   3.7516E-02   6.1013E-05  0.1913
   3.7516E-02   3.8428E-02   7.5593E-05  0.1696
   3.8428E-02   3.9363E-02   3.4225E-05  0.2500
   3.9363E-02   4.0321E-02   4.9390E-05  0.2040
   4.0321E-02   4.1302E-02   6.2526E-05  0.1794
   4.1302E-02   4.2307E-02   6.4639E-05  0.1745
   4.2307E-02   4.3337E-02   7.5775E-05  0.1601
   4.3337E-02   4.4391E-02   4.4097E-05  0.2066
   4.4391E-02   4.5471E-02   5.8166E-05  0.1775
   4.5471E-02   4.6577E-02   5.9169E-05  0.1736
   4.6577E-02   4.7711E-02   4.1681E-05  0.2037
   4.7711E-02   4.8871E-02   4.4359E-05  0.1954
   4.8871E-02   5.0061E-02   3.4095E-05  0.2208
   5.0061E-02   5.1279E-02   5.5048E-05  0.1717
   5.1279E-02   5.2526E-02   6.2518E-05  0.1601
   5.2526E-02   5.3804E-02   4.5224E-05  0.1842
   5.3804E-02   5.5113E-02   5.0940E-05  0.1725
   5.5113E-02   5.6454E-02   3.9524E-05  0.1933
   5.6454E-02   5.7828E-02   3.7458E-05  0.1955
   5.7828E-02   5.9235E-02   5.1669E-05  0.1652
   5.9235E-02   6.0676E-02   4.4407E-05  0.1768
   6.0676E-02   6.2152E-02   2.9088E-05  0.2140
   6.2152E-02   6.3665E-02   5.5548E-05  0.1543
   6.3665E-02   6.5214E-02   3.4129E-05  0.1933
   6.5214E-02   6.6800E-02   3.7814E-05  0.1826
   6.6800E-02   6.8426E-02   2.2409E-05  0.2333
   6.8426E-02   7.0090E-02   3.0234E-05  0.1988
   7.0090E-02   7.1796E-02   4.4292E-05  0.1615
   7.1796E-02   7.3543E-02   2.8932E-05  0.1982
   7.3543E-02   7.5332E-02   2.8143E-05  0.1962
   7.5332E-02   7.7165E-02   4.2045E-05  0.1603
   7.7165E-02   7.9042E-02   3.5030E-05  0.1726
   7.9042E-02   8.0965E-02   3.6905E-05  0.1670
   8.0965E-02   8.2935E-02   4.2641E-05  0.1543
   8.2935E-02   8.4953E-02   3.3946E-05  0.1704
   8.4953E-02   8.7020E-02   2.3915E-05  0.1989
   8.7020E-02   8.9138E-02   2.2982E-05  0.2016
   8.9138E-02   9.1306E-02   2.8233E-05  0.1793
   9.1306E-02   9.3528E-02   2.8531E-05  0.1765
   9.3528E-02   9.5804E-02   2.5719E-05  0.1842
   9.5804E-02   9.8134E-02   2.1615E-05  0.1956
   9.8134E-02   1.0052E-01   2.6467E-05  0.1748
   1.0052E-01   1.0297E-01   2.5893E-05  0.1763
   1.0297E-01   1.0547E-01   2.5323E-05  0.1764
   1.0547E-01   1.0804E-01   2.4805E-05  0.1758
   1.0804E-01   1.1067E-01   1.7499E-05  0.2085
   1.1067E-01   1.1336E-01   2.1938E-05  0.1828
   1.1336E-01   1.1612E-01   1.8128E-05  0.2000
   1.1612E-01   1.1894E-01   2.1561E-05  0.1802
   1.1894E-01   1.2184E-01   2.0041E-05  0.1857
   1.2184E-01   1.2480E-01   1.8808E-05  0.1871
   1.2480E-01   1.2784E-01   2.3052E-05  0.1690
   1.2784E-01   1.3095E-01   1.6020E-05  0.1975
   1.3095E-01   1.3414E-01   2.6220E-05  0.1539
   1.3414E-01   1.3740E-01   1.7690E-05  0.1839
   1.3740E-01   1.4074E-01   2.9315E-05  0.1429
   1.4074E-01   1.4417E-01   1.4545E-05  0.1981
   1.4417E-01   1.4767E-01   1.5659E-05  0.1896
   1.4767E-01   1.5127E-01   1.7493E-05  0.1774
   1.5127E-01   1.5495E-01   1.7349E-05  0.1754
   1.5495E-01   1.5872E-01   1.7882E-05  0.1709
   1.5872E-01   1.6258E-01   2.0550E-05  0.1577
   1.6258E-01   1.6654E-01   1.6929E-05  0.1719
   1.6654E-01   1.7059E-01   1.4447E-05  0.1842
   1.7059E-01   1.7474E-01   1.7106E-05  0.1672
   1.7474E-01   1.7899E-01   1.3626E-05  0.1839
   1.7899E-01   1.8334E-01   1.1813E-05  0.1949
   1.8334E-01   1.8781E-01   1.7828E-05  0.1567
   1.8781E-01   1.9237E-01   1.4411E-05  0.1727
   1.9237E-01   1.9706E-01   1.8659E-05  0.1504
   1.9706E-01   2.0185E-01   1.1680E-05  0.1890
   2.0185E-01   2.0676E-01   1.7370E-05  0.1513
   2.0676E-01   2.1179E-01   1.6300E-05  0.1562
   2.1179E-01   2.1694E-01   1.4068E-05  0.1657
   2.1694E-01   2.2222E-01   1.8141E-05  0.1434
   2.2222E-01   2.2763E-01   1.4156E-05  0.1612
   2.2763E-01   2.3317E-01   1.7827E-05  0.1410
   2.3317E-01   2.3884E-01   2.1138E-05  0.1285
   2.3884E-01   2.4465E-01   1.6760E-05  0.1425
   2.4465E-01   2.5061E-01   1.7340E-05  0.1377
   2.5061E-01   2.5670E-01   1.7898E-05  0.1342
   2.5670E-01   2.6295E-01   2.3057E-05  0.1168
   2.6295E-01   2.6935E-01   2.1702E-05  0.1185
   2.6935E-01   2.7590E-01   2.1171E-05  0.1198
   2.7590E-01   2.8261E-01   2.3485E-05  0.1122
   2.8261E-01   2.8949E-01   2.1548E-05  0.1155
   2.8949E-01   2.9653E-01   2.2639E-05  0.1110
   2.9653E-01   3.0375E-01   2.6658E-05  0.1015
   3.0375E-01   3.1114E-01   2.2915E-05  0.1075
   3.1114E-01   3.1871E-01   2.7076E-05  0.0983
   3.1871E-01   3.2646E-01   2.9495E-05  0.0931
   3.2646E-01   3.3441E-01   2.5523E-05  0.0989
   3.3441E-01   3.4254E-01   3.2364E-05  0.0866
   3.4254E-01   3.5088E-01   2.8181E-05  0.0916
   3.5088E-01   3.5941E-01   3.2122E-05  0.0847
   3.5941E-01   3.6816E-01   2.6533E-05  0.0923
   3.6816E-01   3.7712E-01   3.7182E-05  0.0770
   3.7712E-01   3.8629E-01   3.6942E-05  0.0764
   3.8629E-01   3.9569E-01   3.1319E-05  0.0822
   3.9569E-01   4.0532E-01   3.2769E-05  0.0793
   4.0532E-01   4.1518E-01   2.9775E-05  0.0821
   4.1518E-01   4.2528E-01   3.5647E-05  0.0740
   4.2528E-01   4.3563E-01   3.7631E-05  0.0709
   4.3563E-01   4.4623E-01   3.4591E-05  0.0734
   4.4623E-01   4.5708E-01   3.6107E-05  0.0710
   4.5708E-01   4.6821E-01   3.9992E-05  0.0667
   4.6821E-01   4.7960E-01   3.8242E-05  0.0673
   4.7960E-01   4.9127E-01   3.5908E-05  0.0687
   4.9127E-01   5.0322E-01   3.6426E-05  0.0672
   5.0322E-01   5.1546E-01   3.8608E-05  0.0645
   5.1546E-01   5.2800E-01   4.1625E-05  0.0615
   5.2800E-01   5.4085E-01   4.4379E-05  0.0588
   5.4085E-01   5.5401E-01   3.9655E-05  0.0615
   5.5401E-01   5.6749E-01   4.4896E-05  0.0571
   5.6749E-01   5.8130E-01   4.3452E-05  0.0574
   5.8130E-01   5.9544E-01   4.3146E-05  0.0568
   5.9544E-01   6.0993E-01   4.5076E-05  0.0550
   6.0993E-01   6.2477E-01   4.6403E-05  0.0536
   6.2477E-01   6.3997E-01   3.9743E-05  0.0571
   6.3997E-01   6.5554E-01   4.6026E-05  0.0525
   6.5554E-01   6.7149E-01   4.3540E-05  0.0533
   6.7149E-01   6.8783E-01   4.4006E-05  0.0524
   6.8783E-01   7.0456E-01   4.9149E-05  0.0490
   7.0456E-01   7.2171E-01   4.9248E-05  0.0484
   7.2171E-01   7.3927E-01   4.0281E-05  0.0528
   7.3927E-01   7.5725E-01   4.5548E-05  0.0492
   7.5725E-01   7.7568E-01   4.4665E-05  0.0489
   7.7568E-01   7.9455E-01   4.9462E-05  0.0460
   7.9455E-01   8.1388E-01   4.4862E-05  0.0477
   8.1388E-01   8.3368E-01   4.5556E-05  0.0467
   8.3368E-01   8.5397E-01   4.4758E-05  0.0467
   8.5397E-01   8.7475E-01   4.5922E-05  0.0455
   8.7475E-01   8.9603E-01   4.6740E-05  0.0445
   8.9603E-01   9.1783E-01   5.1367E-05  0.0420
   9.1783E-01   9.4016E-01   4.4584E-05  0.0445
   9.4016E-01   9.6304E-01   4.7845E-05  0.0425
   9.6304E-01   9.8647E-01   4.8214E-05  0.0418
   9.8647E-01   1.0105E+00   5.0780E-05  0.0403
   1.0105E+00   1.0351E+00   4.9000E-05  0.0405
   1.0351E+00   1.0602E+00   4.1432E-05  0.0434
   1.0602E+00   1.0860E+00   4.5449E-05  0.0409
   1.0860E+00   1.1125E+00   4.5379E-05  0.0406
   1.1125E+00   1.1395E+00   4.5833E-05  0.0399
   1.1395E+00   1.1673E+00   4.5264E-05  0.0397
   1.1673E+00   1.1957E+00   4.3369E-05  0.0399
   1.1957E+00   1.2247E+00   4.4234E-05  0.0392
   1.2247E+00   1.2545E+00   4.7959E-05  0.0372
   1.2545E+00   1.2851E+00   4.3254E-05  0.0386
   1.2851E+00   1.3163E+00   4.2484E-05  0.0385
   1.3163E+00   1.3484E+00   4.2545E-05  0.0380
   1.3484E+00   1.3812E+00   4.5308E-05  0.0364
   1.3812E+00   1.4148E+00   4.5433E-05  0.0360
   1.4148E+00   1.4492E+00   4.6262E-05  0.0352
   1.4492E+00   1.4845E+00   4.4497E-05  0.0355
   1.4845E+00   1.5206E+00   4.6623E-05  0.0342
   1.5206E+00   1.5576E+00   4.5847E-05  0.0341
   1.5576E+00   1.5955E+00   4.2877E-05  0.0348
   1.5955E+00   1.6343E+00   4.1570E-05  0.0350
   1.6343E+00   1.6741E+00   4.1726E-05  0.0345
   1.6741E+00   1.7148E+00   4.3403E-05  0.0334
   1.7148E+00   1.7565E+00   4.2925E-05  0.0332
   1.7565E+00   1.7992E+00   4.3773E-05  0.0324
   1.7992E+00   1.8430E+00   4.2730E-05  0.0325
   1.8430E+00   1.8879E+00   4.1726E-05  0.0325
   1.8879E+00   1.9338E+00   4.0686E-05  0.0325
   1.9338E+00   1.9808E+00   4.1542E-05  0.0318
   1.9808E+00   2.0290E+00   4.2631E-05  0.0310
   2.0290E+00   2.0784E+00   3.9726E-05  0.0317
   2.0784E+00   2.1290E+00   3.8377E-05  0.0319
   2.1290E+00   2.1808E+00   3.8713E-05  0.0314
   2.1808E+00   2.2338E+00   3.9475E-05  0.0306
   2.2338E+00   2.2882E+00   3.9071E-05  0.0305
   2.2882E+00   2.3439E+00   3.6234E-05  0.0313
   2.3439E+00   2.4009E+00   3.9856E-05  0.0294
   2.4009E+00   2.4593E+00   3.7963E-05  0.0298
   2.4593E+00   2.5191E+00   3.7515E-05  0.0297
   2.5191E+00   2.5804E+00   3.5971E-05  0.0299
   2.5804E+00   2.6432E+00   3.5913E-05  0.0296
   2.6432E+00   2.7075E+00   3.7367E-05  0.0287
   2.7075E+00   2.7734E+00   3.7064E-05  0.0285
   2.7734E+00   2.8409E+00   3.4915E-05  0.0289
   2.8409E+00   2.9100E+00   3.4631E-05  0.0287
   2.9100E+00   2.9808E+00   3.4097E-05  0.0286
   2.9808E+00   3.0533E+00   3.5390E-05  0.0277
   3.0533E+00   3.1276E+00   3.3636E-05  0.0281
   3.1276E+00   3.2037E+00   3.2899E-05  0.0281
   3.2037E+00   3.2817E+00   3.1994E-05  0.0282
   3.2817E+00   3.3615E+00   3.3860E-05  0.0270
   3.3615E+00   3.4433E+00   3.2429E-05  0.0273
   3.4433E+00   3.5271E+00   3.2130E-05  0.0271
   3.5271E+00   3.6129E+00   3.0008E-05  0.0277
   3.6129E+00   3.7008E+00   3.1762E-05  0.0266
   3.7008E+00   3.7908E+00   3.0216E-05  0.0270
   3.7908E+00   3.8831E+00   3.2207E-05  0.0258
   3.8831E+00   3.9776E+00   2.9551E-05  0.0266
   3.9776E+00   4.0743E+00   2.9509E-05  0.0263
   4.0743E+00   4.1735E+00   2.8588E-05  0.0264
   4.1735E+00   4.2750E+00   2.8556E-05  0.0261
   4.2750E+00   4.3790E+00   2.8068E-05  0.0260
   4.3790E+00   4.4856E+00   2.7557E-05  0.0260
   4.4856E+00   4.5947E+00   2.6658E-05  0.0261
   4.5947E+00   4.7065E+00   2.5403E-05  0.0264
   4.7065E+00   4.8210E+00   2.5896E-05  0.0258
   4.8210E+00   4.9383E+00   2.6483E-05  0.0253
   4.9383E+00   5.0585E+00   2.5230E-05  0.0256
   5.0585E+00   5.1815E+00   2.6348E-05  0.0248
   5.1815E+00   5.3076E+00   2.5190E-05  0.0250
   5.3076E+00   5.4368E+00   2.3738E-05  0.0254
   5.4368E+00   5.5690E+00   2.3226E-05  0.0254
   5.5690E+00   5.7045E+00   2.3990E-05  0.0247
   5.7045E+00   5.8433E+00   2.2753E-05  0.0251
   5.8433E+00   5.9855E+00   2.2212E-05  0.0251
   5.9855E+00   6.1311E+00   2.1835E-05  0.0250
   6.1311E+00   6.2803E+00   2.1234E-05  0.0250
   6.2803E+00   6.4331E+00   2.1111E-05  0.0248
   6.4331E+00   6.5896E+00   2.0791E-05  0.0247
   6.5896E+00   6.7500E+00   1.9691E-05  0.0251
   6.7500E+00   6.9142E+00   1.9447E-05  0.0249
   6.9142E+00   7.0824E+00   1.9244E-05  0.0248
   7.0824E+00   7.2548E+00   1.8411E-05  0.0251
   7.2548E+00   7.4313E+00   1.7964E-05  0.0250
   7.4313E+00   7.6121E+00   1.8183E-05  0.0246
   7.6121E+00   7.7973E+00   1.7037E-05  0.0251
   7.7973E+00   7.9870E+00   1.6867E-05  0.0249
   7.9870E+00   8.1813E+00   1.6737E-05  0.0247
   8.1813E+00   8.3804E+00   1.7296E-05  0.0240
   8.3804E+00   8.5843E+00   1.5791E-05  0.0249
   8.5843E+00   8.7931E+00   1.5653E-05  0.0247
   8.7931E+00   9.0071E+00   1.5572E-05  0.0244
   9.0071E+00   9.2262E+00   1.5513E-05  0.0242
   9.2262E+00   9.4507E+00   1.4971E-05  0.0243
   9.4507E+00   9.6807E+00   1.3641E-05  0.0252
   9.6807E+00   9.9162E+00   1.4508E-05  0.0241
   9.9162E+00   1.0157E+01   1.3820E-05  0.0244
   1.0157E+01   1.0405E+01   1.4181E-05  0.0238
   1.0405E+01   1.0658E+01   1.3978E-05  0.0237
   1.0658E+01   1.0917E+01   1.3050E-05  0.0243
   1.0917E+01   1.1183E+01   1.3592E-05  0.0235
   1.1183E+01   1.1455E+01   1.3491E-05  0.0233
   1.1455E+01   1.1733E+01   1.3159E-05  0.0233
   1.1733E+01   1.2019E+01   1.2797E-05  0.0234
   1.2019E+01   1.2311E+01   1.2474E-05  0.0234
   1.2311E+01   1.2611E+01   1.2634E-05  0.0230
   1.2611E+01   1.2918E+01   1.2169E-05  0.0231
   1.2918E+01   1.3232E+01   1.2271E-05  0.0228
   1.3232E+01   1.3554E+01   1.2127E-05  0.0226
   1.3554E+01   1.3884E+01   1.1941E-05  0.0225
   1.3884E+01   1.4222E+01   1.1777E-05  0.0224
   1.4222E+01   1.4568E+01   1.1371E-05  0.0225
   1.4568E+01   1.4922E+01   1.1688E-05  0.0220
   1.4922E+01   1.5285E+01   1.1692E-05  0.0217
   1.5285E+01   1.5657E+01   1.1441E-05  0.0217
   1.5657E+01   1.6038E+01   1.0986E-05  0.0219
   1.6038E+01   1.6428E+01   1.1382E-05  0.0212
   1.6428E+01   1.6828E+01   1.1405E-05  0.0209
   1.6828E+01   1.7237E+01   1.1677E-05  0.0205
   1.7237E+01   1.7657E+01   1.1416E-05  0.0204
   1.7657E+01   1.8086E+01   1.0954E-05  0.0206
   1.8086E+01   1.8526E+01   1.1140E-05  0.0202
   1.8526E+01   1.8977E+01   1.1625E-05  0.0195
   1.8977E+01   1.9439E+01   1.1604E-05  0.0193
   1.9439E+01   1.9912E+01   1.1633E-05  0.0191
   1.9912E+01   2.0396E+01   1.2063E-05  0.0185
   2.0396E+01   2.0893E+01   1.2316E-05  0.0181
   2.0893E+01   2.1401E+01   1.1949E-05  0.0181
   2.1401E+01   2.1922E+01   1.2172E-05  0.0178
   2.1922E+01   2.2455E+01   1.2337E-05  0.0174
   2.2455E+01   2.3001E+01   1.2988E-05  0.0168
   2.3001E+01   2.3561E+01   1.3316E-05  0.0164
   2.3561E+01   2.4134E+01   1.3097E-05  0.0163
   2.4134E+01   2.4721E+01   1.3631E-05  0.0158
   2.4721E+01   2.5323E+01   1.4195E-05  0.0153
   2.5323E+01   2.5939E+01   1.4763E-05  0.0148
   2.5939E+01   2.6570E+01   1.4980E-05  0.0145
   2.6570E+01   2.7217E+01   1.5456E-05  0.0141
   2.7217E+01   2.7879E+01   1.6092E-05  0.0137
   2.7879E+01   2.8557E+01   1.7107E-05  0.0131
   2.8557E+01   2.9252E+01   1.7573E-05  0.0128
   2.9252E+01   2.9964E+01   1.8620E-05  0.0123
   2.9964E+01   3.0693E+01   1.9708E-05  0.0118
   3.0693E+01   3.1440E+01   2.1034E-05  0.0113
   3.1440E+01   3.2205E+01   2.2647E-05  0.0107
   3.2205E+01   3.2988E+01   2.4108E-05  0.0103
   3.2988E+01   3.3791E+01   2.6515E-05  0.0097
   3.3791E+01   3.4613E+01   2.8666E-05  0.0092
   3.4613E+01   3.5455E+01   3.1697E-05  0.0087
   3.5455E+01   3.6318E+01   3.4396E-05  0.0082
   3.6318E+01   3.7201E+01   3.7604E-05  0.0078
   3.7201E+01   3.8106E+01   4.2111E-05  0.0072
   3.8106E+01   3.9034E+01   4.7053E-05  0.0068
   3.9034E+01   3.9983E+01   5.2622E-05  0.0063
   3.9983E+01   4.0956E+01   5.9378E-05  0.0059
   4.0956E+01   4.1953E+01   6.6856E-05  0.0055
   4.1953E+01   4.2973E+01   7.5526E-05  0.0051
   4.2973E+01   4.4019E+01   8.5323E-05  0.0047
   4.4019E+01   4.5090E+01   9.6294E-05  0.0044
   4.5090E+01   4.6187E+01   1.0890E-04  0.0041
   4.6187E+01   4.7311E+01   1.2331E-04  0.0038
   4.7311E+01   4.8462E+01   1.3789E-04  0.0035
   4.8462E+01   4.9641E+01   1.5392E-04  0.0033
   4.9641E+01   5.0849E+01   1.7209E-04  0.0031
   5.0849E+01   5.2086E+01   1.9023E-04  0.0029
   5.2086E+01   5.3353E+01   2.0892E-04  0.0027
   5.3353E+01   5.4651E+01   2.2692E-04  0.0026
   5.4651E+01   5.5981E+01   2.4502E-04  0.0025
   5.5981E+01   5.7343E+01   2.5963E-04  0.0024
   5.7343E+01   5.8738E+01   2.7298E-04  0.0023
   5.8738E+01   6.0168E+01   2.8199E-04  0.0022
   6.0168E+01   6.1632E+01   2.8685E-04  0.0022
   6.1632E+01   6.3131E+01   2.8752E-04  0.0022
   6.3131E+01   6.4667E+01   2.8326E-04  0.0021
   6.4667E+01   6.6240E+01   2.7450E-04  0.0022
   6.6240E+01   6.7852E+01   2.6138E-04  0.0022
   6.7852E+01   6.9503E+01   2.4509E-04  0.0022
   6.9503E+01   7.1194E+01   2.2582E-04  0.0023
   7.1194E+01   7.2926E+01   2.0454E-04  0.0024
   7.2926E+01   7.4701E+01   1.8337E-04  0.0025
   7.4701E+01   7.6518E+01   1.6145E-04  0.0026
   7.6518E+01   7.8380E+01   1.4069E-04  0.0028
   7.8380E+01   8.0287E+01   1.2098E-04  0.0029
   8.0287E+01   8.2240E+01   1.0325E-04  0.0031
   8.2240E+01   8.4241E+01   8.7713E-05  0.0034
   8.4241E+01   8.6291E+01   7.3944E-05  0.0036
   8.6291E+01   8.8391E+01   6.1936E-05  0.0039
   8.8391E+01   9.0541E+01   5.2167E-05  0.0042
   9.0541E+01   9.2744E+01   4.3742E-05  0.0046
   9.2744E+01   9.5001E+01   3.6247E-05  0.0049
   9.5001E+01   9.7312E+01   2.9709E-05  0.0054
   9.7312E+01   9.9680E+01   2.4715E-05  0.0058
   9.9680E+01   1.0211E+02   2.0210E-05  0.0064
   1.0211E+02   1.0459E+02   1.6446E-05  0.0070
   1.0459E+02   1.0713E+02   1.3330E-05  0.0077
   1.0713E+02   1.0974E+02   1.1455E-05  0.0082
   1.0974E+02   1.1241E+02   1.0283E-05  0.0085
   1.1241E+02   1.1515E+02   8.8547E-06  0.0091
   1.1515E+02   1.1795E+02   7.0324E-06  0.0101
   1.1795E+02   1.2082E+02   5.7336E-06  0.0110
   1.2082E+02   1.2376E+02   4.6803E-06  0.0121
   1.2376E+02   1.2677E+02   3.7495E-06  0.0133
   1.2677E+02   1.2985E+02   3.0483E-06  0.0146
   1.2985E+02   1.3301E+02   2.5543E-06  0.0157
   1.3301E+02   1.3625E+02   1.6327E-06  0.0195
   1.3625E+02   1.3956E+02   4.3258E-07  0.0373
   1.3956E+02   1.4296E+02   5.3009E-09  0.3333
   1.4296E+02   1.4644E+02   0.0000E+00  0.0000
   1.4644E+02   1.5000E+02   0.0000E+00  0.0000

#   sum over                 6.7241E-05
'no. =    1   reg = 100 - 200'
msuc: {\huge [t-cross] in region mesh}
msdr: {\it plotted by \ANGEL \version}
msdl: {\it calculated by \PHITS  3.26}
wt: s(0.7)
\vspace{-3}
  region surface crossing
  area  &=&   1.0000E+00 [cm^2]
e:
 
# Information for Restart Calculation
# This calculation was newly started
# istdev =  2 # 1:Batch variance, 2:History variance
# resc2  = 5.00000000000000000E+08 # Total source weight or Total source weight / maxcas
# resc3  = 5.00000000000000000E+08 # Total history number or Total batch number
# maxcas =   500000000 # History / Batch, only used for istdev=1
# bitrseed = 1101101111010011011000101101110001100110110010110001010100010001 # bit data of rseed
