[ T-Cross ]
    title = [t-cross] in region mesh
     mesh =  reg            # mesh type is region-wise
      reg =    1            # number of crossing regions
      non     r-from    r-to       area
      1       113       213        1.000000    
   e-type =    3            # e-mesh is log given by emin, emax and ne
     emin =  1.0000000E-02  # minimum value of e-mesh points
     emax =   150.0000      # maximum value of e-mesh points
#    edel =  2.4039514E-02  # mesh width of e-mesh points
       ne =    400          # number of e-mesh points
#    data = ( e(i), i = 1, ne + 1 )
#           1.00000E-02  1.02433E-02  1.04925E-02  1.07478E-02  1.10093E-02
#           1.12772E-02  1.15516E-02  1.18326E-02  1.21205E-02  1.24154E-02
#           1.27175E-02  1.30269E-02  1.33439E-02  1.36686E-02  1.40011E-02
#           1.43418E-02  1.46907E-02  1.50482E-02  1.54143E-02  1.57894E-02
#           1.61735E-02  1.65670E-02  1.69701E-02  1.73830E-02  1.78060E-02
#           1.82392E-02  1.86830E-02  1.91375E-02  1.96032E-02  2.00801E-02
#           2.05687E-02  2.10692E-02  2.15818E-02  2.21069E-02  2.26448E-02
#           2.31957E-02  2.37601E-02  2.43382E-02  2.49304E-02  2.55369E-02
#           2.61583E-02  2.67947E-02  2.74467E-02  2.81145E-02  2.87985E-02
#           2.94992E-02  3.02169E-02  3.09521E-02  3.17052E-02  3.24766E-02
#           3.32668E-02  3.40762E-02  3.49053E-02  3.57546E-02  3.66246E-02
#           3.75157E-02  3.84284E-02  3.93634E-02  4.03212E-02  4.13022E-02
#           4.23071E-02  4.33365E-02  4.43909E-02  4.54710E-02  4.65773E-02
#           4.77106E-02  4.88714E-02  5.00605E-02  5.12785E-02  5.25262E-02
#           5.38042E-02  5.51133E-02  5.64542E-02  5.78278E-02  5.92348E-02
#           6.06760E-02  6.21523E-02  6.36645E-02  6.52135E-02  6.68002E-02
#           6.84255E-02  7.00904E-02  7.17957E-02  7.35426E-02  7.53319E-02
#           7.71648E-02  7.90423E-02  8.09655E-02  8.29354E-02  8.49533E-02
#           8.70203E-02  8.91376E-02  9.13064E-02  9.35279E-02  9.58035E-02
#           9.81345E-02  1.00522E-01  1.02968E-01  1.05473E-01  1.08040E-01
#           1.10668E-01  1.13361E-01  1.16119E-01  1.18944E-01  1.21838E-01
#           1.24803E-01  1.27839E-01  1.30950E-01  1.34136E-01  1.37399E-01
#           1.40742E-01  1.44167E-01  1.47675E-01  1.51268E-01  1.54948E-01
#           1.58718E-01  1.62580E-01  1.66535E-01  1.70587E-01  1.74738E-01
#           1.78989E-01  1.83344E-01  1.87805E-01  1.92375E-01  1.97055E-01
#           2.01850E-01  2.06761E-01  2.11792E-01  2.16945E-01  2.22223E-01
#           2.27630E-01  2.33169E-01  2.38842E-01  2.44653E-01  2.50605E-01
#           2.56703E-01  2.62949E-01  2.69346E-01  2.75900E-01  2.82613E-01
#           2.89489E-01  2.96532E-01  3.03747E-01  3.11138E-01  3.18708E-01
#           3.26462E-01  3.34405E-01  3.42542E-01  3.50876E-01  3.59413E-01
#           3.68158E-01  3.77116E-01  3.86291E-01  3.95690E-01  4.05317E-01
#           4.15179E-01  4.25281E-01  4.35628E-01  4.46227E-01  4.57084E-01
#           4.68205E-01  4.79597E-01  4.91266E-01  5.03219E-01  5.15463E-01
#           5.28005E-01  5.40851E-01  5.54011E-01  5.67490E-01  5.81298E-01
#           5.95441E-01  6.09929E-01  6.24769E-01  6.39970E-01  6.55541E-01
#           6.71491E-01  6.87828E-01  7.04564E-01  7.21706E-01  7.39266E-01
#           7.57253E-01  7.75678E-01  7.94551E-01  8.13883E-01  8.33685E-01
#           8.53969E-01  8.74747E-01  8.96030E-01  9.17831E-01  9.40163E-01
#           9.63038E-01  9.86469E-01  1.01047E+00  1.03506E+00  1.06024E+00
#           1.08604E+00  1.11246E+00  1.13953E+00  1.16725E+00  1.19565E+00
#           1.22474E+00  1.25454E+00  1.28507E+00  1.31633E+00  1.34836E+00
#           1.38117E+00  1.41477E+00  1.44920E+00  1.48446E+00  1.52057E+00
#           1.55757E+00  1.59547E+00  1.63429E+00  1.67405E+00  1.71478E+00
#           1.75650E+00  1.79924E+00  1.84302E+00  1.88786E+00  1.93379E+00
#           1.98084E+00  2.02904E+00  2.07841E+00  2.12898E+00  2.18078E+00
#           2.23384E+00  2.28819E+00  2.34386E+00  2.40089E+00  2.45930E+00
#           2.51914E+00  2.58043E+00  2.64322E+00  2.70753E+00  2.77341E+00
#           2.84088E+00  2.91001E+00  2.98081E+00  3.05333E+00  3.12762E+00
#           3.20372E+00  3.28167E+00  3.36152E+00  3.44330E+00  3.52708E+00
#           3.61290E+00  3.70080E+00  3.79085E+00  3.88308E+00  3.97756E+00
#           4.07434E+00  4.17347E+00  4.27501E+00  4.37903E+00  4.48557E+00
#           4.59471E+00  4.70650E+00  4.82102E+00  4.93832E+00  5.05847E+00
#           5.18155E+00  5.30762E+00  5.43676E+00  5.56904E+00  5.70453E+00
#           5.84333E+00  5.98550E+00  6.13114E+00  6.28031E+00  6.43312E+00
#           6.58964E+00  6.74997E+00  6.91420E+00  7.08243E+00  7.25475E+00
#           7.43126E+00  7.61207E+00  7.79728E+00  7.98700E+00  8.18133E+00
#           8.38038E+00  8.58428E+00  8.79315E+00  9.00709E+00  9.22624E+00
#           9.45072E+00  9.68067E+00  9.91620E+00  1.01575E+01  1.04046E+01
#           1.06578E+01  1.09171E+01  1.11827E+01  1.14548E+01  1.17335E+01
#           1.20190E+01  1.23114E+01  1.26109E+01  1.29178E+01  1.32321E+01
#           1.35540E+01  1.38838E+01  1.42216E+01  1.45676E+01  1.49221E+01
#           1.52851E+01  1.56570E+01  1.60380E+01  1.64282E+01  1.68279E+01
#           1.72374E+01  1.76568E+01  1.80864E+01  1.85264E+01  1.89772E+01
#           1.94389E+01  1.99119E+01  2.03963E+01  2.08926E+01  2.14009E+01
#           2.19216E+01  2.24550E+01  2.30014E+01  2.35610E+01  2.41343E+01
#           2.47215E+01  2.53230E+01  2.59391E+01  2.65702E+01  2.72167E+01
#           2.78789E+01  2.85572E+01  2.92520E+01  2.99637E+01  3.06928E+01
#           3.14396E+01  3.22045E+01  3.29881E+01  3.37907E+01  3.46128E+01
#           3.54550E+01  3.63177E+01  3.72013E+01  3.81064E+01  3.90336E+01
#           3.99833E+01  4.09561E+01  4.19526E+01  4.29734E+01  4.40189E+01
#           4.50900E+01  4.61870E+01  4.73108E+01  4.84619E+01  4.96410E+01
#           5.08488E+01  5.20860E+01  5.33533E+01  5.46514E+01  5.59812E+01
#           5.73432E+01  5.87384E+01  6.01676E+01  6.16315E+01  6.31311E+01
#           6.46671E+01  6.62405E+01  6.78522E+01  6.95031E+01  7.11941E+01
#           7.29263E+01  7.47007E+01  7.65182E+01  7.83800E+01  8.02870E+01
#           8.22405E+01  8.42414E+01  8.62911E+01  8.83906E+01  9.05412E+01
#           9.27442E+01  9.50007E+01  9.73122E+01  9.96799E+01  1.02105E+02
#           1.04589E+02  1.07134E+02  1.09741E+02  1.12411E+02  1.15146E+02
#           1.17948E+02  1.20817E+02  1.23757E+02  1.26768E+02  1.29852E+02
#           1.33012E+02  1.36248E+02  1.39563E+02  1.42959E+02  1.46437E+02
#           1.50000E+02
     unit =    2            # unit is [1/cm^2/(MeV/n)/source]
     axis =  eng            # axis of output
     file = detector-14.out  # file name of output for the above axis
   output = f-curr          # surface crossing forward current spectrum
     part =  neutron  
# kf/name :  2112     
#    used :        main (  %)        temp (  %)       total (  %)
#  memory :         414 (  0)           0 (  0)         414 (  0)

#------------------------------------------------------------------------------
#newpage:
#   no. =    1   reg = 113 - 213

x: Energy [MeV/n]
y:  F-Curr [1/cm^2/(MeV/n)/source]         
p: xlog ylog afac(0.8) form(0.9)
h: n            x            y(neutron ),hh0l   n 
#  e-lower      e-upper      neutron     r.err 
   1.0000E-02   1.0243E-02   1.7399E-04  0.2166
   1.0243E-02   1.0493E-02   2.2451E-04  0.1870
   1.0493E-02   1.0748E-02   2.5446E-04  0.1728
   1.0748E-02   1.1009E-02   1.6058E-04  0.2143
   1.1009E-02   1.1277E-02   1.9055E-04  0.1964
   1.1277E-02   1.1552E-02   1.8904E-04  0.1935
   1.1552E-02   1.1833E-02   1.6335E-04  0.2052
   1.1833E-02   1.2121E-02   2.3666E-04  0.1692
   1.2121E-02   1.2415E-02   2.2751E-04  0.1715
   1.2415E-02   1.2718E-02   1.4786E-04  0.2103
   1.2718E-02   1.3027E-02   1.8591E-04  0.1845
   1.3027E-02   1.3344E-02   2.0711E-04  0.1728
   1.3344E-02   1.3669E-02   1.6652E-04  0.1896
   1.3669E-02   1.4001E-02   1.7392E-04  0.1836
   1.4001E-02   1.4342E-02   2.1933E-04  0.1630
   1.4342E-02   1.4691E-02   2.0318E-04  0.1655
   1.4691E-02   1.5048E-02   1.2586E-04  0.2053
   1.5048E-02   1.5414E-02   1.6581E-04  0.1806
   1.5414E-02   1.5789E-02   1.5163E-04  0.1843
   1.5789E-02   1.6174E-02   1.7516E-04  0.1695
   1.6174E-02   1.6567E-02   1.5112E-04  0.1815
   1.6567E-02   1.6970E-02   1.1522E-04  0.2039
   1.6970E-02   1.7383E-02   1.3786E-04  0.1842
   1.7383E-02   1.7806E-02   1.2423E-04  0.1920
   1.7806E-02   1.8239E-02   1.3335E-04  0.1842
   1.8239E-02   1.8683E-02   9.1235E-05  0.2175
   1.8683E-02   1.9138E-02   1.2537E-04  0.1814
   1.9138E-02   1.9603E-02   1.0911E-04  0.1972
   1.9603E-02   2.0080E-02   1.0575E-04  0.1958
   2.0080E-02   2.0569E-02   1.3561E-04  0.1735
   2.0569E-02   2.1069E-02   7.7788E-05  0.2216
   2.1069E-02   2.1582E-02   1.3623E-04  0.1663
   2.1582E-02   2.2107E-02   7.2065E-05  0.2256
   2.2107E-02   2.2645E-02   1.2882E-04  0.1687
   2.2645E-02   2.3196E-02   1.2328E-04  0.1701
   2.3196E-02   2.3760E-02   1.0755E-04  0.1807
   2.3760E-02   2.4338E-02   1.1010E-04  0.1758
   2.4338E-02   2.4930E-02   1.0645E-04  0.1751
   2.4930E-02   2.5537E-02   9.8900E-05  0.1803
   2.5537E-02   2.6158E-02   1.3246E-04  0.1545
   2.6158E-02   2.6795E-02   8.9596E-05  0.1860
   2.6795E-02   2.7447E-02   1.0346E-04  0.1711
   2.7447E-02   2.8114E-02   8.8743E-05  0.1826
   2.8114E-02   2.8799E-02   9.7935E-05  0.1701
   2.8799E-02   2.9499E-02   9.1047E-05  0.1750
   2.9499E-02   3.0217E-02   7.3907E-05  0.1928
   3.0217E-02   3.0952E-02   7.2425E-05  0.1897
   3.0952E-02   3.1705E-02   8.9411E-05  0.1693
   3.1705E-02   3.2477E-02   7.9283E-05  0.1795
   3.2477E-02   3.3267E-02   9.7288E-05  0.1575
   3.3267E-02   3.4076E-02   1.0344E-04  0.1532
   3.4076E-02   3.4905E-02   8.1867E-05  0.1702
   3.4905E-02   3.5755E-02   8.1008E-05  0.1697
   3.5755E-02   3.6625E-02   9.8530E-05  0.1516
   3.6625E-02   3.7516E-02   7.0702E-05  0.1771
   3.7516E-02   3.8428E-02   4.3969E-05  0.2184
   3.8428E-02   3.9363E-02   5.7891E-05  0.1897
   3.9363E-02   4.0321E-02   7.2036E-05  0.1680
   4.0321E-02   4.1302E-02   4.8181E-05  0.2041
   4.1302E-02   4.2307E-02   7.9594E-05  0.1567
   4.2307E-02   4.3337E-02   8.6298E-05  0.1482
   4.3337E-02   4.4391E-02   6.2096E-05  0.1710
   4.4391E-02   4.5471E-02   5.1679E-05  0.1869
   4.5471E-02   4.6577E-02   6.9147E-05  0.1596
   4.6577E-02   4.7711E-02   5.6589E-05  0.1743
   4.7711E-02   4.8871E-02   5.0830E-05  0.1814
   4.8871E-02   5.0061E-02   5.5157E-05  0.1730
   5.0061E-02   5.1279E-02   5.8424E-05  0.1665
   5.1279E-02   5.2526E-02   6.5090E-05  0.1560
   5.2526E-02   5.3804E-02   4.4727E-05  0.1855
   5.3804E-02   5.5113E-02   5.4765E-05  0.1646
   5.5113E-02   5.6454E-02   5.5434E-05  0.1608
   5.6454E-02   5.7828E-02   5.1916E-05  0.1662
   5.7828E-02   5.9235E-02   3.8057E-05  0.1912
   5.9235E-02   6.0676E-02   4.7212E-05  0.1694
   6.0676E-02   6.2152E-02   5.0921E-05  0.1621
   6.2152E-02   6.3665E-02   5.6170E-05  0.1527
   6.3665E-02   6.5214E-02   4.1113E-05  0.1743
   6.5214E-02   6.6800E-02   5.3780E-05  0.1524
   6.6800E-02   6.8426E-02   4.4961E-05  0.1627
   6.8426E-02   7.0090E-02   4.1204E-05  0.1674
   7.0090E-02   7.1796E-02   3.1148E-05  0.1901
   7.1796E-02   7.3543E-02   3.5841E-05  0.1763
   7.3543E-02   7.5332E-02   4.3479E-05  0.1592
   7.5332E-02   7.7165E-02   2.6714E-05  0.2004
   7.7165E-02   7.9042E-02   3.9211E-05  0.1620
   7.9042E-02   8.0965E-02   4.1674E-05  0.1551
   8.0965E-02   8.2935E-02   4.1006E-05  0.1553
   8.2935E-02   8.4953E-02   2.5111E-05  0.1944
   8.4953E-02   8.7020E-02   3.5962E-05  0.1637
   8.7020E-02   8.9138E-02   3.3764E-05  0.1659
   8.9138E-02   9.1306E-02   2.8414E-05  0.1765
   9.1306E-02   9.3528E-02   2.4761E-05  0.1848
   9.3528E-02   9.5804E-02   3.3729E-05  0.1608
   9.5804E-02   9.8134E-02   2.9535E-05  0.1696
   9.8134E-02   1.0052E-01   3.1199E-05  0.1620
   1.0052E-01   1.0297E-01   3.0497E-05  0.1615
   1.0297E-01   1.0547E-01   3.1763E-05  0.1560
   1.0547E-01   1.0804E-01   3.5817E-05  0.1453
   1.0804E-01   1.1067E-01   2.9397E-05  0.1598
   1.1067E-01   1.1336E-01   2.5487E-05  0.1685
   1.1336E-01   1.1612E-01   3.6345E-05  0.1400
   1.1612E-01   1.1894E-01   2.5892E-05  0.1626
   1.1894E-01   1.2184E-01   2.2398E-05  0.1748
   1.2184E-01   1.2480E-01   2.3613E-05  0.1690
   1.2480E-01   1.2784E-01   2.5166E-05  0.1597
   1.2784E-01   1.3095E-01   2.3244E-05  0.1643
   1.3095E-01   1.3414E-01   3.0913E-05  0.1413
   1.3414E-01   1.3740E-01   2.7726E-05  0.1484
   1.3740E-01   1.4074E-01   2.9864E-05  0.1398
   1.4074E-01   1.4417E-01   2.7556E-05  0.1441
   1.4417E-01   1.4767E-01   2.2390E-05  0.1558
   1.4767E-01   1.5127E-01   1.9638E-05  0.1663
   1.5127E-01   1.5495E-01   1.9157E-05  0.1661
   1.5495E-01   1.5872E-01   2.7599E-05  0.1371
   1.5872E-01   1.6258E-01   2.7774E-05  0.1350
   1.6258E-01   1.6654E-01   2.6138E-05  0.1375
   1.6654E-01   1.7059E-01   2.0220E-05  0.1548
   1.7059E-01   1.7474E-01   2.1656E-05  0.1482
   1.7474E-01   1.7899E-01   2.9195E-05  0.1262
   1.7899E-01   1.8334E-01   1.6695E-05  0.1635
   1.8334E-01   1.8781E-01   1.8587E-05  0.1535
   1.8781E-01   1.9237E-01   2.0099E-05  0.1453
   1.9237E-01   1.9706E-01   2.2198E-05  0.1379
   1.9706E-01   2.0185E-01   2.3008E-05  0.1329
   2.0185E-01   2.0676E-01   2.0041E-05  0.1405
   2.0676E-01   2.1179E-01   2.1578E-05  0.1345
   2.1179E-01   2.1694E-01   2.2016E-05  0.1303
   2.1694E-01   2.2222E-01   1.9229E-05  0.1376
   2.2222E-01   2.2763E-01   2.8788E-05  0.1124
   2.2763E-01   2.3317E-01   2.5801E-05  0.1175
   2.3317E-01   2.3884E-01   2.7302E-05  0.1124
   2.3884E-01   2.4465E-01   2.6518E-05  0.1129
   2.4465E-01   2.5061E-01   3.2280E-05  0.1013
   2.5061E-01   2.5670E-01   3.2142E-05  0.0994
   2.5670E-01   2.6295E-01   3.4293E-05  0.0956
   2.6295E-01   2.6935E-01   2.9425E-05  0.1026
   2.6935E-01   2.7590E-01   3.8018E-05  0.0891
   2.7590E-01   2.8261E-01   3.8910E-05  0.0867
   2.8261E-01   2.8949E-01   3.3841E-05  0.0917
   2.8949E-01   2.9653E-01   3.7560E-05  0.0859
   2.9653E-01   3.0375E-01   4.0406E-05  0.0818
   3.0375E-01   3.1114E-01   4.3242E-05  0.0786
   3.1114E-01   3.1871E-01   4.5604E-05  0.0754
   3.1871E-01   3.2646E-01   4.1417E-05  0.0784
   3.2646E-01   3.3441E-01   4.5769E-05  0.0732
   3.3441E-01   3.4254E-01   4.6808E-05  0.0716
   3.4254E-01   3.5088E-01   5.4779E-05  0.0656
   3.5088E-01   3.5941E-01   5.2305E-05  0.0664
   3.5941E-01   3.6816E-01   5.9267E-05  0.0614
   3.6816E-01   3.7712E-01   5.6170E-05  0.0624
   3.7712E-01   3.8629E-01   5.8228E-05  0.0604
   3.8629E-01   3.9569E-01   6.8010E-05  0.0551
   3.9569E-01   4.0532E-01   6.5495E-05  0.0557
   4.0532E-01   4.1518E-01   6.9639E-05  0.0535
   4.1518E-01   4.2528E-01   7.4707E-05  0.0509
   4.2528E-01   4.3563E-01   7.3555E-05  0.0507
   4.3563E-01   4.4623E-01   7.9605E-05  0.0482
   4.4623E-01   4.5708E-01   8.3979E-05  0.0463
   4.5708E-01   4.6821E-01   8.9109E-05  0.0443
   4.6821E-01   4.7960E-01   9.3228E-05  0.0429
   4.7960E-01   4.9127E-01   9.0401E-05  0.0432
   4.9127E-01   5.0322E-01   1.0037E-04  0.0404
   5.0322E-01   5.1546E-01   1.1034E-04  0.0380
   5.1546E-01   5.2800E-01   1.0674E-04  0.0382
   5.2800E-01   5.4085E-01   1.2111E-04  0.0356
   5.4085E-01   5.5401E-01   1.2397E-04  0.0347
   5.5401E-01   5.6749E-01   1.2554E-04  0.0341
   5.6749E-01   5.8130E-01   1.3168E-04  0.0328
   5.8130E-01   5.9544E-01   1.3182E-04  0.0324
   5.9544E-01   6.0993E-01   1.4746E-04  0.0303
   6.0993E-01   6.2477E-01   1.4546E-04  0.0301
   6.2477E-01   6.3997E-01   1.5587E-04  0.0288
   6.3997E-01   6.5554E-01   1.6871E-04  0.0273
   6.5554E-01   6.7149E-01   1.6732E-04  0.0271
   6.7149E-01   6.8783E-01   1.7842E-04  0.0259
   6.8783E-01   7.0456E-01   1.9017E-04  0.0249
   7.0456E-01   7.2171E-01   1.9505E-04  0.0243
   7.2171E-01   7.3927E-01   1.9439E-04  0.0240
   7.3927E-01   7.5725E-01   2.0739E-04  0.0230
   7.5725E-01   7.7568E-01   2.1149E-04  0.0224
   7.7568E-01   7.9455E-01   2.2203E-04  0.0216
   7.9455E-01   8.1388E-01   2.2817E-04  0.0211
   8.1388E-01   8.3368E-01   2.3552E-04  0.0205
   8.3368E-01   8.5397E-01   2.5231E-04  0.0196
   8.5397E-01   8.7475E-01   2.5882E-04  0.0191
   8.7475E-01   8.9603E-01   2.7527E-04  0.0183
   8.9603E-01   9.1783E-01   2.7971E-04  0.0179
   9.1783E-01   9.4016E-01   2.9151E-04  0.0174
   9.4016E-01   9.6304E-01   3.1127E-04  0.0166
   9.6304E-01   9.8647E-01   3.2048E-04  0.0162
   9.8647E-01   1.0105E+00   3.2070E-04  0.0160
   1.0105E+00   1.0351E+00   3.3311E-04  0.0155
   1.0351E+00   1.0602E+00   3.2129E-04  0.0156
   1.0602E+00   1.0860E+00   3.2922E-04  0.0152
   1.0860E+00   1.1125E+00   3.4499E-04  0.0147
   1.1125E+00   1.1395E+00   3.4973E-04  0.0144
   1.1395E+00   1.1673E+00   3.7014E-04  0.0138
   1.1673E+00   1.1957E+00   3.8086E-04  0.0135
   1.1957E+00   1.2247E+00   3.8278E-04  0.0133
   1.2247E+00   1.2545E+00   3.9032E-04  0.0130
   1.2545E+00   1.2851E+00   4.0737E-04  0.0126
   1.2851E+00   1.3163E+00   4.1251E-04  0.0123
   1.3163E+00   1.3484E+00   4.0986E-04  0.0122
   1.3484E+00   1.3812E+00   4.3673E-04  0.0117
   1.3812E+00   1.4148E+00   4.3729E-04  0.0116
   1.4148E+00   1.4492E+00   4.4664E-04  0.0113
   1.4492E+00   1.4845E+00   4.6222E-04  0.0110
   1.4845E+00   1.5206E+00   4.7022E-04  0.0108
   1.5206E+00   1.5576E+00   4.7680E-04  0.0105
   1.5576E+00   1.5955E+00   4.7303E-04  0.0105
   1.5955E+00   1.6343E+00   4.7707E-04  0.0103
   1.6343E+00   1.6741E+00   4.7385E-04  0.0102
   1.6741E+00   1.7148E+00   4.7213E-04  0.0101
   1.7148E+00   1.7565E+00   4.8110E-04  0.0099
   1.7565E+00   1.7992E+00   4.9034E-04  0.0097
   1.7992E+00   1.8430E+00   5.0461E-04  0.0094
   1.8430E+00   1.8879E+00   5.0117E-04  0.0093
   1.8879E+00   1.9338E+00   4.9839E-04  0.0093
   1.9338E+00   1.9808E+00   5.0356E-04  0.0091
   1.9808E+00   2.0290E+00   5.0360E-04  0.0090
   2.0290E+00   2.0784E+00   5.0844E-04  0.0088
   2.0784E+00   2.1290E+00   5.0585E-04  0.0088
   2.1290E+00   2.1808E+00   4.9681E-04  0.0087
   2.1808E+00   2.2338E+00   4.9639E-04  0.0086
   2.2338E+00   2.2882E+00   4.9632E-04  0.0085
   2.2882E+00   2.3439E+00   4.9365E-04  0.0085
   2.3439E+00   2.4009E+00   4.8822E-04  0.0084
   2.4009E+00   2.4593E+00   4.9880E-04  0.0082
   2.4593E+00   2.5191E+00   5.0269E-04  0.0081
   2.5191E+00   2.5804E+00   4.8888E-04  0.0081
   2.5804E+00   2.6432E+00   4.9478E-04  0.0080
   2.6432E+00   2.7075E+00   4.8456E-04  0.0079
   2.7075E+00   2.7734E+00   4.7840E-04  0.0079
   2.7734E+00   2.8409E+00   4.7119E-04  0.0079
   2.8409E+00   2.9100E+00   4.6183E-04  0.0078
   2.9100E+00   2.9808E+00   4.6971E-04  0.0077
   2.9808E+00   3.0533E+00   4.7437E-04  0.0076
   3.0533E+00   3.1276E+00   4.5479E-04  0.0076
   3.1276E+00   3.2037E+00   4.4869E-04  0.0076
   3.2037E+00   3.2817E+00   4.3652E-04  0.0076
   3.2817E+00   3.3615E+00   4.3233E-04  0.0075
   3.3615E+00   3.4433E+00   4.2587E-04  0.0075
   3.4433E+00   3.5271E+00   4.2393E-04  0.0074
   3.5271E+00   3.6129E+00   4.1872E-04  0.0074
   3.6129E+00   3.7008E+00   4.0672E-04  0.0074
   3.7008E+00   3.7908E+00   4.0033E-04  0.0074
   3.7908E+00   3.8831E+00   3.9228E-04  0.0074
   3.8831E+00   3.9776E+00   3.7782E-04  0.0074
   3.9776E+00   4.0743E+00   3.8298E-04  0.0073
   4.0743E+00   4.1735E+00   3.7637E-04  0.0073
   4.1735E+00   4.2750E+00   3.6577E-04  0.0073
   4.2750E+00   4.3790E+00   3.6134E-04  0.0072
   4.3790E+00   4.4856E+00   3.5780E-04  0.0072
   4.4856E+00   4.5947E+00   3.5444E-04  0.0071
   4.5947E+00   4.7065E+00   3.4504E-04  0.0071
   4.7065E+00   4.8210E+00   3.3482E-04  0.0072
   4.8210E+00   4.9383E+00   3.3501E-04  0.0071
   4.9383E+00   5.0585E+00   3.3423E-04  0.0070
   5.0585E+00   5.1815E+00   3.3459E-04  0.0069
   5.1815E+00   5.3076E+00   3.3012E-04  0.0069
   5.3076E+00   5.4368E+00   3.2178E-04  0.0069
   5.4368E+00   5.5690E+00   3.1455E-04  0.0069
   5.5690E+00   5.7045E+00   3.1046E-04  0.0069
   5.7045E+00   5.8433E+00   3.0613E-04  0.0068
   5.8433E+00   5.9855E+00   2.9596E-04  0.0069
   5.9855E+00   6.1311E+00   2.8924E-04  0.0069
   6.1311E+00   6.2803E+00   2.8064E-04  0.0069
   6.2803E+00   6.4331E+00   2.7462E-04  0.0069
   6.4331E+00   6.5896E+00   2.6907E-04  0.0069
   6.5896E+00   6.7500E+00   2.6160E-04  0.0069
   6.7500E+00   6.9142E+00   2.5262E-04  0.0069
   6.9142E+00   7.0824E+00   2.4939E-04  0.0069
   7.0824E+00   7.2548E+00   2.3800E-04  0.0070
   7.2548E+00   7.4313E+00   2.3623E-04  0.0069
   7.4313E+00   7.6121E+00   2.3025E-04  0.0069
   7.6121E+00   7.7973E+00   2.2333E-04  0.0069
   7.7973E+00   7.9870E+00   2.1481E-04  0.0070
   7.9870E+00   8.1813E+00   2.1049E-04  0.0070
   8.1813E+00   8.3804E+00   2.0562E-04  0.0070
   8.3804E+00   8.5843E+00   2.0076E-04  0.0070
   8.5843E+00   8.7931E+00   1.9671E-04  0.0070
   8.7931E+00   9.0071E+00   1.8954E-04  0.0070
   9.0071E+00   9.2262E+00   1.8328E-04  0.0070
   9.2262E+00   9.4507E+00   1.7934E-04  0.0070
   9.4507E+00   9.6807E+00   1.7304E-04  0.0071
   9.6807E+00   9.9162E+00   1.6680E-04  0.0071
   9.9162E+00   1.0157E+01   1.6308E-04  0.0071
   1.0157E+01   1.0405E+01   1.5561E-04  0.0072
   1.0405E+01   1.0658E+01   1.5259E-04  0.0072
   1.0658E+01   1.0917E+01   1.4768E-04  0.0072
   1.0917E+01   1.1183E+01   1.4382E-04  0.0072
   1.1183E+01   1.1455E+01   1.3627E-04  0.0073
   1.1455E+01   1.1733E+01   1.3407E-04  0.0073
   1.1733E+01   1.2019E+01   1.2815E-04  0.0074
   1.2019E+01   1.2311E+01   1.2443E-04  0.0074
   1.2311E+01   1.2611E+01   1.1945E-04  0.0075
   1.2611E+01   1.2918E+01   1.1780E-04  0.0074
   1.2918E+01   1.3232E+01   1.1094E-04  0.0076
   1.3232E+01   1.3554E+01   1.0689E-04  0.0076
   1.3554E+01   1.3884E+01   1.0333E-04  0.0077
   1.3884E+01   1.4222E+01   9.8247E-05  0.0078
   1.4222E+01   1.4568E+01   9.5562E-05  0.0078
   1.4568E+01   1.4922E+01   9.0897E-05  0.0079
   1.4922E+01   1.5285E+01   8.7805E-05  0.0079
   1.5285E+01   1.5657E+01   8.4355E-05  0.0080
   1.5657E+01   1.6038E+01   7.9800E-05  0.0081
   1.6038E+01   1.6428E+01   7.7215E-05  0.0081
   1.6428E+01   1.6828E+01   7.2511E-05  0.0083
   1.6828E+01   1.7237E+01   7.0930E-05  0.0083
   1.7237E+01   1.7657E+01   6.5866E-05  0.0085
   1.7657E+01   1.8086E+01   6.4178E-05  0.0085
   1.8086E+01   1.8526E+01   6.0489E-05  0.0087
   1.8526E+01   1.8977E+01   5.8150E-05  0.0087
   1.8977E+01   1.9439E+01   5.6601E-05  0.0087
   1.9439E+01   1.9912E+01   5.6414E-05  0.0087
   1.9912E+01   2.0396E+01   5.5202E-05  0.0086
   2.0396E+01   2.0893E+01   5.2908E-05  0.0087
   2.0893E+01   2.1401E+01   5.0058E-05  0.0089
   2.1401E+01   2.1922E+01   4.7140E-05  0.0090
   2.1922E+01   2.2455E+01   4.4678E-05  0.0092
   2.2455E+01   2.3001E+01   4.1629E-05  0.0094
   2.3001E+01   2.3561E+01   3.9507E-05  0.0095
   2.3561E+01   2.4134E+01   3.8011E-05  0.0096
   2.4134E+01   2.4721E+01   3.4216E-05  0.0100
   2.4721E+01   2.5323E+01   3.2991E-05  0.0100
   2.5323E+01   2.5939E+01   3.0903E-05  0.0103
   2.5939E+01   2.6570E+01   2.8796E-05  0.0105
   2.6570E+01   2.7217E+01   2.5999E-05  0.0109
   2.7217E+01   2.7879E+01   2.4820E-05  0.0110
   2.7879E+01   2.8557E+01   2.3051E-05  0.0113
   2.8557E+01   2.9252E+01   2.0923E-05  0.0117
   2.9252E+01   2.9964E+01   1.9513E-05  0.0120
   2.9964E+01   3.0693E+01   1.7714E-05  0.0124
   3.0693E+01   3.1440E+01   1.6184E-05  0.0129
   3.1440E+01   3.2205E+01   1.4801E-05  0.0133
   3.2205E+01   3.2988E+01   1.3635E-05  0.0137
   3.2988E+01   3.3791E+01   1.2095E-05  0.0144
   3.3791E+01   3.4613E+01   1.1071E-05  0.0148
   3.4613E+01   3.5455E+01   1.0221E-05  0.0152
   3.5455E+01   3.6318E+01   9.2993E-06  0.0158
   3.6318E+01   3.7201E+01   8.1413E-06  0.0167
   3.7201E+01   3.8106E+01   7.3160E-06  0.0174
   3.8106E+01   3.9034E+01   6.2557E-06  0.0186
   3.9034E+01   3.9983E+01   5.6333E-06  0.0193
   3.9983E+01   4.0956E+01   5.1006E-06  0.0201
   4.0956E+01   4.1953E+01   4.5239E-06  0.0211
   4.1953E+01   4.2973E+01   4.0911E-06  0.0219
   4.2973E+01   4.4019E+01   3.1275E-06  0.0247
   4.4019E+01   4.5090E+01   2.9094E-06  0.0253
   4.5090E+01   4.6187E+01   2.4866E-06  0.0271
   4.6187E+01   4.7311E+01   2.1375E-06  0.0289
   4.7311E+01   4.8462E+01   1.8000E-06  0.0311
   4.8462E+01   4.9641E+01   1.4859E-06  0.0338
   4.9641E+01   5.0849E+01   1.2535E-06  0.0363
   5.0849E+01   5.2086E+01   1.1090E-06  0.0382
   5.2086E+01   5.3353E+01   8.6483E-07  0.0427
   5.3353E+01   5.4651E+01   6.4092E-07  0.0490
   5.4651E+01   5.5981E+01   5.5501E-07  0.0521
   5.5981E+01   5.7343E+01   3.9646E-07  0.0609
   5.7343E+01   5.8738E+01   3.0820E-07  0.0682
   5.8738E+01   6.0168E+01   2.2531E-07  0.0788
   6.0168E+01   6.1632E+01   1.7624E-07  0.0880
   6.1632E+01   6.3131E+01   1.1737E-07  0.1066
   6.3131E+01   6.4667E+01   8.8540E-08  0.1213
   6.4667E+01   6.6240E+01   6.7370E-08  0.1374
   6.6240E+01   6.7852E+01   2.4819E-08  0.2236
   6.7852E+01   6.9503E+01   2.6652E-08  0.2132
   6.9503E+01   7.1194E+01   2.3654E-08  0.2236
   7.1194E+01   7.2926E+01   1.3855E-08  0.2887
   7.2926E+01   7.4701E+01   9.0174E-09  0.3536
   7.4701E+01   7.6518E+01   4.4016E-09  0.5000
   7.6518E+01   7.8380E+01   1.0743E-09  1.0000
   7.8380E+01   8.0287E+01   1.0487E-09  1.0000
   8.0287E+01   8.2240E+01   1.0238E-09  1.0000
   8.2240E+01   8.4241E+01   0.0000E+00  0.0000
   8.4241E+01   8.6291E+01   0.0000E+00  0.0000
   8.6291E+01   8.8391E+01   0.0000E+00  0.0000
   8.8391E+01   9.0541E+01   0.0000E+00  0.0000
   9.0541E+01   9.2744E+01   0.0000E+00  0.0000
   9.2744E+01   9.5001E+01   0.0000E+00  0.0000
   9.5001E+01   9.7312E+01   0.0000E+00  0.0000
   9.7312E+01   9.9680E+01   0.0000E+00  0.0000
   9.9680E+01   1.0211E+02   0.0000E+00  0.0000
   1.0211E+02   1.0459E+02   0.0000E+00  0.0000
   1.0459E+02   1.0713E+02   0.0000E+00  0.0000
   1.0713E+02   1.0974E+02   0.0000E+00  0.0000
   1.0974E+02   1.1241E+02   0.0000E+00  0.0000
   1.1241E+02   1.1515E+02   0.0000E+00  0.0000
   1.1515E+02   1.1795E+02   0.0000E+00  0.0000
   1.1795E+02   1.2082E+02   0.0000E+00  0.0000
   1.2082E+02   1.2376E+02   0.0000E+00  0.0000
   1.2376E+02   1.2677E+02   0.0000E+00  0.0000
   1.2677E+02   1.2985E+02   0.0000E+00  0.0000
   1.2985E+02   1.3301E+02   0.0000E+00  0.0000
   1.3301E+02   1.3625E+02   0.0000E+00  0.0000
   1.3625E+02   1.3956E+02   0.0000E+00  0.0000
   1.3956E+02   1.4296E+02   0.0000E+00  0.0000
   1.4296E+02   1.4644E+02   0.0000E+00  0.0000
   1.4644E+02   1.5000E+02   0.0000E+00  0.0000

#   sum over                 2.9728E-05
'no. =    1   reg = 113 - 213'
msuc: {\huge [t-cross] in region mesh}
msdr: {\it plotted by \ANGEL \version}
msdl: {\it calculated by \PHITS  3.26}
wt: s(0.7)
\vspace{-3}
  region surface crossing
  area  &=&   1.0000E+00 [cm^2]
e:
 
# Information for Restart Calculation
# This calculation was newly started
# istdev =  2 # 1:Batch variance, 2:History variance
# resc2  = 5.00000000000000000E+08 # Total source weight or Total source weight / maxcas
# resc3  = 5.00000000000000000E+08 # Total history number or Total batch number
# maxcas =   500000000 # History / Batch, only used for istdev=1
# bitrseed = 1101101111010011011000101101110001100110110010110001010100010001 # bit data of rseed
