[ T-Cross ]
    title = [t-cross] in region mesh
     mesh =  reg            # mesh type is region-wise
      reg =    1            # number of crossing regions
      non     r-from    r-to       area
      1       111       211        1.000000    
   e-type =    3            # e-mesh is log given by emin, emax and ne
     emin =  1.0000000E-02  # minimum value of e-mesh points
     emax =   150.0000      # maximum value of e-mesh points
#    edel =  2.4039514E-02  # mesh width of e-mesh points
       ne =    400          # number of e-mesh points
#    data = ( e(i), i = 1, ne + 1 )
#           1.00000E-02  1.02433E-02  1.04925E-02  1.07478E-02  1.10093E-02
#           1.12772E-02  1.15516E-02  1.18326E-02  1.21205E-02  1.24154E-02
#           1.27175E-02  1.30269E-02  1.33439E-02  1.36686E-02  1.40011E-02
#           1.43418E-02  1.46907E-02  1.50482E-02  1.54143E-02  1.57894E-02
#           1.61735E-02  1.65670E-02  1.69701E-02  1.73830E-02  1.78060E-02
#           1.82392E-02  1.86830E-02  1.91375E-02  1.96032E-02  2.00801E-02
#           2.05687E-02  2.10692E-02  2.15818E-02  2.21069E-02  2.26448E-02
#           2.31957E-02  2.37601E-02  2.43382E-02  2.49304E-02  2.55369E-02
#           2.61583E-02  2.67947E-02  2.74467E-02  2.81145E-02  2.87985E-02
#           2.94992E-02  3.02169E-02  3.09521E-02  3.17052E-02  3.24766E-02
#           3.32668E-02  3.40762E-02  3.49053E-02  3.57546E-02  3.66246E-02
#           3.75157E-02  3.84284E-02  3.93634E-02  4.03212E-02  4.13022E-02
#           4.23071E-02  4.33365E-02  4.43909E-02  4.54710E-02  4.65773E-02
#           4.77106E-02  4.88714E-02  5.00605E-02  5.12785E-02  5.25262E-02
#           5.38042E-02  5.51133E-02  5.64542E-02  5.78278E-02  5.92348E-02
#           6.06760E-02  6.21523E-02  6.36645E-02  6.52135E-02  6.68002E-02
#           6.84255E-02  7.00904E-02  7.17957E-02  7.35426E-02  7.53319E-02
#           7.71648E-02  7.90423E-02  8.09655E-02  8.29354E-02  8.49533E-02
#           8.70203E-02  8.91376E-02  9.13064E-02  9.35279E-02  9.58035E-02
#           9.81345E-02  1.00522E-01  1.02968E-01  1.05473E-01  1.08040E-01
#           1.10668E-01  1.13361E-01  1.16119E-01  1.18944E-01  1.21838E-01
#           1.24803E-01  1.27839E-01  1.30950E-01  1.34136E-01  1.37399E-01
#           1.40742E-01  1.44167E-01  1.47675E-01  1.51268E-01  1.54948E-01
#           1.58718E-01  1.62580E-01  1.66535E-01  1.70587E-01  1.74738E-01
#           1.78989E-01  1.83344E-01  1.87805E-01  1.92375E-01  1.97055E-01
#           2.01850E-01  2.06761E-01  2.11792E-01  2.16945E-01  2.22223E-01
#           2.27630E-01  2.33169E-01  2.38842E-01  2.44653E-01  2.50605E-01
#           2.56703E-01  2.62949E-01  2.69346E-01  2.75900E-01  2.82613E-01
#           2.89489E-01  2.96532E-01  3.03747E-01  3.11138E-01  3.18708E-01
#           3.26462E-01  3.34405E-01  3.42542E-01  3.50876E-01  3.59413E-01
#           3.68158E-01  3.77116E-01  3.86291E-01  3.95690E-01  4.05317E-01
#           4.15179E-01  4.25281E-01  4.35628E-01  4.46227E-01  4.57084E-01
#           4.68205E-01  4.79597E-01  4.91266E-01  5.03219E-01  5.15463E-01
#           5.28005E-01  5.40851E-01  5.54011E-01  5.67490E-01  5.81298E-01
#           5.95441E-01  6.09929E-01  6.24769E-01  6.39970E-01  6.55541E-01
#           6.71491E-01  6.87828E-01  7.04564E-01  7.21706E-01  7.39266E-01
#           7.57253E-01  7.75678E-01  7.94551E-01  8.13883E-01  8.33685E-01
#           8.53969E-01  8.74747E-01  8.96030E-01  9.17831E-01  9.40163E-01
#           9.63038E-01  9.86469E-01  1.01047E+00  1.03506E+00  1.06024E+00
#           1.08604E+00  1.11246E+00  1.13953E+00  1.16725E+00  1.19565E+00
#           1.22474E+00  1.25454E+00  1.28507E+00  1.31633E+00  1.34836E+00
#           1.38117E+00  1.41477E+00  1.44920E+00  1.48446E+00  1.52057E+00
#           1.55757E+00  1.59547E+00  1.63429E+00  1.67405E+00  1.71478E+00
#           1.75650E+00  1.79924E+00  1.84302E+00  1.88786E+00  1.93379E+00
#           1.98084E+00  2.02904E+00  2.07841E+00  2.12898E+00  2.18078E+00
#           2.23384E+00  2.28819E+00  2.34386E+00  2.40089E+00  2.45930E+00
#           2.51914E+00  2.58043E+00  2.64322E+00  2.70753E+00  2.77341E+00
#           2.84088E+00  2.91001E+00  2.98081E+00  3.05333E+00  3.12762E+00
#           3.20372E+00  3.28167E+00  3.36152E+00  3.44330E+00  3.52708E+00
#           3.61290E+00  3.70080E+00  3.79085E+00  3.88308E+00  3.97756E+00
#           4.07434E+00  4.17347E+00  4.27501E+00  4.37903E+00  4.48557E+00
#           4.59471E+00  4.70650E+00  4.82102E+00  4.93832E+00  5.05847E+00
#           5.18155E+00  5.30762E+00  5.43676E+00  5.56904E+00  5.70453E+00
#           5.84333E+00  5.98550E+00  6.13114E+00  6.28031E+00  6.43312E+00
#           6.58964E+00  6.74997E+00  6.91420E+00  7.08243E+00  7.25475E+00
#           7.43126E+00  7.61207E+00  7.79728E+00  7.98700E+00  8.18133E+00
#           8.38038E+00  8.58428E+00  8.79315E+00  9.00709E+00  9.22624E+00
#           9.45072E+00  9.68067E+00  9.91620E+00  1.01575E+01  1.04046E+01
#           1.06578E+01  1.09171E+01  1.11827E+01  1.14548E+01  1.17335E+01
#           1.20190E+01  1.23114E+01  1.26109E+01  1.29178E+01  1.32321E+01
#           1.35540E+01  1.38838E+01  1.42216E+01  1.45676E+01  1.49221E+01
#           1.52851E+01  1.56570E+01  1.60380E+01  1.64282E+01  1.68279E+01
#           1.72374E+01  1.76568E+01  1.80864E+01  1.85264E+01  1.89772E+01
#           1.94389E+01  1.99119E+01  2.03963E+01  2.08926E+01  2.14009E+01
#           2.19216E+01  2.24550E+01  2.30014E+01  2.35610E+01  2.41343E+01
#           2.47215E+01  2.53230E+01  2.59391E+01  2.65702E+01  2.72167E+01
#           2.78789E+01  2.85572E+01  2.92520E+01  2.99637E+01  3.06928E+01
#           3.14396E+01  3.22045E+01  3.29881E+01  3.37907E+01  3.46128E+01
#           3.54550E+01  3.63177E+01  3.72013E+01  3.81064E+01  3.90336E+01
#           3.99833E+01  4.09561E+01  4.19526E+01  4.29734E+01  4.40189E+01
#           4.50900E+01  4.61870E+01  4.73108E+01  4.84619E+01  4.96410E+01
#           5.08488E+01  5.20860E+01  5.33533E+01  5.46514E+01  5.59812E+01
#           5.73432E+01  5.87384E+01  6.01676E+01  6.16315E+01  6.31311E+01
#           6.46671E+01  6.62405E+01  6.78522E+01  6.95031E+01  7.11941E+01
#           7.29263E+01  7.47007E+01  7.65182E+01  7.83800E+01  8.02870E+01
#           8.22405E+01  8.42414E+01  8.62911E+01  8.83906E+01  9.05412E+01
#           9.27442E+01  9.50007E+01  9.73122E+01  9.96799E+01  1.02105E+02
#           1.04589E+02  1.07134E+02  1.09741E+02  1.12411E+02  1.15146E+02
#           1.17948E+02  1.20817E+02  1.23757E+02  1.26768E+02  1.29852E+02
#           1.33012E+02  1.36248E+02  1.39563E+02  1.42959E+02  1.46437E+02
#           1.50000E+02
     unit =    2            # unit is [1/cm^2/(MeV/n)/source]
     axis =  eng            # axis of output
     file = detector-12.out  # file name of output for the above axis
   output = f-curr          # surface crossing forward current spectrum
     part =  neutron  
# kf/name :  2112     
#    used :        main (  %)        temp (  %)       total (  %)
#  memory :         414 (  0)           0 (  0)         414 (  0)

#------------------------------------------------------------------------------
#newpage:
#   no. =    1   reg = 111 - 211

x: Energy [MeV/n]
y:  F-Curr [1/cm^2/(MeV/n)/source]         
p: xlog ylog afac(0.8) form(0.9)
h: n            x            y(neutron ),hh0l   n 
#  e-lower      e-upper      neutron     r.err 
   1.0000E-02   1.0243E-02   2.8524E-03  0.0380
   1.0243E-02   1.0493E-02   2.8007E-03  0.0379
   1.0493E-02   1.0748E-02   2.9221E-03  0.0366
   1.0748E-02   1.1009E-02   2.9101E-03  0.0362
   1.1009E-02   1.1277E-02   3.0015E-03  0.0353
   1.1277E-02   1.1552E-02   3.0104E-03  0.0348
   1.1552E-02   1.1833E-02   2.7859E-03  0.0357
   1.1833E-02   1.2121E-02   2.9142E-03  0.0345
   1.2121E-02   1.2415E-02   2.7874E-03  0.0349
   1.2415E-02   1.2718E-02   2.8105E-03  0.0343
   1.2718E-02   1.3027E-02   2.8116E-03  0.0339
   1.3027E-02   1.3344E-02   2.9783E-03  0.0325
   1.3344E-02   1.3669E-02   3.0154E-03  0.0320
   1.3669E-02   1.4001E-02   2.8085E-03  0.0327
   1.4001E-02   1.4342E-02   2.9326E-03  0.0316
   1.4342E-02   1.4691E-02   2.6164E-03  0.0331
   1.4691E-02   1.5048E-02   2.8341E-03  0.0314
   1.5048E-02   1.5414E-02   2.8842E-03  0.0308
   1.5414E-02   1.5789E-02   2.8237E-03  0.0307
   1.5789E-02   1.6174E-02   2.7618E-03  0.0307
   1.6174E-02   1.6567E-02   2.9249E-03  0.0295
   1.6567E-02   1.6970E-02   2.7537E-03  0.0300
   1.6970E-02   1.7383E-02   2.8022E-03  0.0294
   1.7383E-02   1.7806E-02   2.8042E-03  0.0290
   1.7806E-02   1.8239E-02   2.9453E-03  0.0280
   1.8239E-02   1.8683E-02   2.8077E-03  0.0283
   1.8683E-02   1.9138E-02   2.8972E-03  0.0276
   1.9138E-02   1.9603E-02   2.8005E-03  0.0277
   1.9603E-02   2.0080E-02   2.7549E-03  0.0276
   2.0080E-02   2.0569E-02   2.9187E-03  0.0265
   2.0569E-02   2.1069E-02   2.7535E-03  0.0269
   2.1069E-02   2.1582E-02   2.8227E-03  0.0263
   2.1582E-02   2.2107E-02   2.7709E-03  0.0262
   2.2107E-02   2.2645E-02   2.8538E-03  0.0255
   2.2645E-02   2.3196E-02   2.8750E-03  0.0251
   2.3196E-02   2.3760E-02   2.7943E-03  0.0252
   2.3760E-02   2.4338E-02   2.8533E-03  0.0246
   2.4338E-02   2.4930E-02   2.8235E-03  0.0245
   2.4930E-02   2.5537E-02   2.7696E-03  0.0244
   2.5537E-02   2.6158E-02   2.7248E-03  0.0243
   2.6158E-02   2.6795E-02   2.7810E-03  0.0238
   2.6795E-02   2.7447E-02   2.8132E-03  0.0234
   2.7447E-02   2.8114E-02   2.9650E-03  0.0225
   2.8114E-02   2.8799E-02   2.7922E-03  0.0229
   2.8799E-02   2.9499E-02   2.8222E-03  0.0225
   2.9499E-02   3.0217E-02   2.8736E-03  0.0220
   3.0217E-02   3.0952E-02   2.7734E-03  0.0221
   3.0952E-02   3.1705E-02   2.6889E-03  0.0222
   3.1705E-02   3.2477E-02   2.7664E-03  0.0216
   3.2477E-02   3.3267E-02   2.7816E-03  0.0213
   3.3267E-02   3.4076E-02   2.7934E-03  0.0210
   3.4076E-02   3.4905E-02   2.8730E-03  0.0205
   3.4905E-02   3.5755E-02   2.8577E-03  0.0203
   3.5755E-02   3.6625E-02   2.7732E-03  0.0204
   3.6625E-02   3.7516E-02   2.7169E-03  0.0203
   3.7516E-02   3.8428E-02   2.7849E-03  0.0198
   3.8428E-02   3.9363E-02   2.7824E-03  0.0196
   3.9363E-02   4.0321E-02   2.7419E-03  0.0195
   4.0321E-02   4.1302E-02   2.8072E-03  0.0191
   4.1302E-02   4.2307E-02   2.7176E-03  0.0191
   4.2307E-02   4.3337E-02   2.6997E-03  0.0190
   4.3337E-02   4.4391E-02   2.7902E-03  0.0184
   4.4391E-02   4.5471E-02   2.7850E-03  0.0182
   4.5471E-02   4.6577E-02   2.8508E-03  0.0178
   4.6577E-02   4.7711E-02   2.6980E-03  0.0181
   4.7711E-02   4.8871E-02   2.7446E-03  0.0177
   4.8871E-02   5.0061E-02   2.7525E-03  0.0175
   5.0061E-02   5.1279E-02   2.7791E-03  0.0172
   5.1279E-02   5.2526E-02   2.6814E-03  0.0173
   5.2526E-02   5.3804E-02   2.6815E-03  0.0171
   5.3804E-02   5.5113E-02   2.7087E-03  0.0168
   5.5113E-02   5.6454E-02   2.6973E-03  0.0166
   5.6454E-02   5.7828E-02   2.7046E-03  0.0164
   5.7828E-02   5.9235E-02   2.7207E-03  0.0162
   5.9235E-02   6.0676E-02   2.6679E-03  0.0161
   6.0676E-02   6.2152E-02   2.7437E-03  0.0157
   6.2152E-02   6.3665E-02   2.7496E-03  0.0155
   6.3665E-02   6.5214E-02   2.6339E-03  0.0157
   6.5214E-02   6.6800E-02   2.7006E-03  0.0153
   6.6800E-02   6.8426E-02   2.6703E-03  0.0152
   6.8426E-02   7.0090E-02   2.5912E-03  0.0152
   7.0090E-02   7.1796E-02   2.6575E-03  0.0149
   7.1796E-02   7.3543E-02   2.6050E-03  0.0148
   7.3543E-02   7.5332E-02   2.6669E-03  0.0145
   7.5332E-02   7.7165E-02   2.6112E-03  0.0145
   7.7165E-02   7.9042E-02   2.6717E-03  0.0141
   7.9042E-02   8.0965E-02   2.5814E-03  0.0142
   8.0965E-02   8.2935E-02   2.5714E-03  0.0141
   8.2935E-02   8.4953E-02   2.6270E-03  0.0137
   8.4953E-02   8.7020E-02   2.6239E-03  0.0136
   8.7020E-02   8.9138E-02   2.6555E-03  0.0133
   8.9138E-02   9.1306E-02   2.5994E-03  0.0133
   9.1306E-02   9.3528E-02   2.6004E-03  0.0132
   9.3528E-02   9.5804E-02   2.5558E-03  0.0131
   9.5804E-02   9.8134E-02   2.6002E-03  0.0128
   9.8134E-02   1.0052E-01   2.6159E-03  0.0127
   1.0052E-01   1.0297E-01   2.5597E-03  0.0126
   1.0297E-01   1.0547E-01   2.5480E-03  0.0125
   1.0547E-01   1.0804E-01   2.5171E-03  0.0124
   1.0804E-01   1.1067E-01   2.5058E-03  0.0123
   1.1067E-01   1.1336E-01   2.5711E-03  0.0120
   1.1336E-01   1.1612E-01   2.4841E-03  0.0121
   1.1612E-01   1.1894E-01   2.4830E-03  0.0119
   1.1894E-01   1.2184E-01   2.4912E-03  0.0118
   1.2184E-01   1.2480E-01   2.5233E-03  0.0116
   1.2480E-01   1.2784E-01   2.4668E-03  0.0116
   1.2784E-01   1.3095E-01   2.4575E-03  0.0114
   1.3095E-01   1.3414E-01   2.4538E-03  0.0113
   1.3414E-01   1.3740E-01   2.4597E-03  0.0112
   1.3740E-01   1.4074E-01   2.4069E-03  0.0111
   1.4074E-01   1.4417E-01   2.4034E-03  0.0110
   1.4417E-01   1.4767E-01   2.4231E-03  0.0108
   1.4767E-01   1.5127E-01   2.3910E-03  0.0108
   1.5127E-01   1.5495E-01   2.3535E-03  0.0107
   1.5495E-01   1.5872E-01   2.4317E-03  0.0104
   1.5872E-01   1.6258E-01   2.3420E-03  0.0105
   1.6258E-01   1.6654E-01   2.3345E-03  0.0104
   1.6654E-01   1.7059E-01   2.3376E-03  0.0103
   1.7059E-01   1.7474E-01   2.3755E-03  0.0101
   1.7474E-01   1.7899E-01   2.3292E-03  0.0100
   1.7899E-01   1.8334E-01   2.2765E-03  0.0100
   1.8334E-01   1.8781E-01   2.2805E-03  0.0099
   1.8781E-01   1.9237E-01   2.2806E-03  0.0098
   1.9237E-01   1.9706E-01   2.2616E-03  0.0097
   1.9706E-01   2.0185E-01   2.2569E-03  0.0096
   2.0185E-01   2.0676E-01   2.2772E-03  0.0095
   2.0676E-01   2.1179E-01   2.2295E-03  0.0094
   2.1179E-01   2.1694E-01   2.2059E-03  0.0094
   2.1694E-01   2.2222E-01   2.1977E-03  0.0093
   2.2222E-01   2.2763E-01   2.2025E-03  0.0092
   2.2763E-01   2.3317E-01   2.1410E-03  0.0092
   2.3317E-01   2.3884E-01   2.1917E-03  0.0090
   2.3884E-01   2.4465E-01   2.1683E-03  0.0089
   2.4465E-01   2.5061E-01   2.1521E-03  0.0088
   2.5061E-01   2.5670E-01   2.1355E-03  0.0088
   2.5670E-01   2.6295E-01   2.1033E-03  0.0087
   2.6295E-01   2.6935E-01   2.0971E-03  0.0086
   2.6935E-01   2.7590E-01   2.0959E-03  0.0085
   2.7590E-01   2.8261E-01   2.0942E-03  0.0084
   2.8261E-01   2.8949E-01   2.0522E-03  0.0084
   2.8949E-01   2.9653E-01   2.0090E-03  0.0084
   2.9653E-01   3.0375E-01   2.0134E-03  0.0083
   3.0375E-01   3.1114E-01   1.9856E-03  0.0083
   3.1114E-01   3.1871E-01   1.9547E-03  0.0082
   3.1871E-01   3.2646E-01   1.9606E-03  0.0081
   3.2646E-01   3.3441E-01   1.9245E-03  0.0081
   3.3441E-01   3.4254E-01   1.9043E-03  0.0080
   3.4254E-01   3.5088E-01   1.8975E-03  0.0080
   3.5088E-01   3.5941E-01   1.8709E-03  0.0079
   3.5941E-01   3.6816E-01   1.8832E-03  0.0078
   3.6816E-01   3.7712E-01   1.8387E-03  0.0078
   3.7712E-01   3.8629E-01   1.8235E-03  0.0077
   3.8629E-01   3.9569E-01   1.8021E-03  0.0077
   3.9569E-01   4.0532E-01   1.7821E-03  0.0076
   4.0532E-01   4.1518E-01   1.7498E-03  0.0076
   4.1518E-01   4.2528E-01   1.7429E-03  0.0075
   4.2528E-01   4.3563E-01   1.6918E-03  0.0076
   4.3563E-01   4.4623E-01   1.6936E-03  0.0075
   4.4623E-01   4.5708E-01   1.6532E-03  0.0075
   4.5708E-01   4.6821E-01   1.6210E-03  0.0074
   4.6821E-01   4.7960E-01   1.6167E-03  0.0074
   4.7960E-01   4.9127E-01   1.5908E-03  0.0073
   4.9127E-01   5.0322E-01   1.5893E-03  0.0073
   5.0322E-01   5.1546E-01   1.5467E-03  0.0073
   5.1546E-01   5.2800E-01   1.5241E-03  0.0072
   5.2800E-01   5.4085E-01   1.5014E-03  0.0072
   5.4085E-01   5.5401E-01   1.4729E-03  0.0072
   5.5401E-01   5.6749E-01   1.4484E-03  0.0072
   5.6749E-01   5.8130E-01   1.4309E-03  0.0071
   5.8130E-01   5.9544E-01   1.3846E-03  0.0071
   5.9544E-01   6.0993E-01   1.3628E-03  0.0071
   6.0993E-01   6.2477E-01   1.3513E-03  0.0071
   6.2477E-01   6.3997E-01   1.3259E-03  0.0070
   6.3997E-01   6.5554E-01   1.3012E-03  0.0070
   6.5554E-01   6.7149E-01   1.2565E-03  0.0071
   6.7149E-01   6.8783E-01   1.2259E-03  0.0071
   6.8783E-01   7.0456E-01   1.2142E-03  0.0070
   7.0456E-01   7.2171E-01   1.1737E-03  0.0070
   7.2171E-01   7.3927E-01   1.1279E-03  0.0071
   7.3927E-01   7.5725E-01   1.0984E-03  0.0071
   7.5725E-01   7.7568E-01   1.0806E-03  0.0071
   7.7568E-01   7.9455E-01   1.0433E-03  0.0071
   7.9455E-01   8.1388E-01   1.0220E-03  0.0071
   8.1388E-01   8.3368E-01   9.9695E-04  0.0071
   8.3368E-01   8.5397E-01   9.5173E-04  0.0072
   8.5397E-01   8.7475E-01   9.3802E-04  0.0072
   8.7475E-01   8.9603E-01   8.8424E-04  0.0073
   8.9603E-01   9.1783E-01   8.7112E-04  0.0073
   9.1783E-01   9.4016E-01   8.4177E-04  0.0073
   9.4016E-01   9.6304E-01   8.1100E-04  0.0073
   9.6304E-01   9.8647E-01   7.8512E-04  0.0074
   9.8647E-01   1.0105E+00   7.6464E-04  0.0074
   1.0105E+00   1.0351E+00   7.4694E-04  0.0074
   1.0351E+00   1.0602E+00   7.5898E-04  0.0072
   1.0602E+00   1.0860E+00   7.7528E-04  0.0071
   1.0860E+00   1.1125E+00   7.7834E-04  0.0070
   1.1125E+00   1.1395E+00   8.0345E-04  0.0068
   1.1395E+00   1.1673E+00   8.2079E-04  0.0066
   1.1673E+00   1.1957E+00   8.5265E-04  0.0064
   1.1957E+00   1.2247E+00   8.6667E-04  0.0063
   1.2247E+00   1.2545E+00   8.6604E-04  0.0062
   1.2545E+00   1.2851E+00   8.7695E-04  0.0061
   1.2851E+00   1.3163E+00   8.8346E-04  0.0060
   1.3163E+00   1.3484E+00   9.0273E-04  0.0059
   1.3484E+00   1.3812E+00   9.1634E-04  0.0058
   1.3812E+00   1.4148E+00   9.3253E-04  0.0056
   1.4148E+00   1.4492E+00   9.4540E-04  0.0055
   1.4492E+00   1.4845E+00   9.4455E-04  0.0055
   1.4845E+00   1.5206E+00   9.3318E-04  0.0054
   1.5206E+00   1.5576E+00   9.4143E-04  0.0054
   1.5576E+00   1.5955E+00   9.4823E-04  0.0053
   1.5955E+00   1.6343E+00   9.6184E-04  0.0052
   1.6343E+00   1.6741E+00   9.6269E-04  0.0051
   1.6741E+00   1.7148E+00   9.8927E-04  0.0050
   1.7148E+00   1.7565E+00   9.9065E-04  0.0049
   1.7565E+00   1.7992E+00   9.9183E-04  0.0049
   1.7992E+00   1.8430E+00   9.8117E-04  0.0048
   1.8430E+00   1.8879E+00   9.8817E-04  0.0048
   1.8879E+00   1.9338E+00   9.8164E-04  0.0047
   1.9338E+00   1.9808E+00   9.9296E-04  0.0046
   1.9808E+00   2.0290E+00   1.0130E-03  0.0045
   2.0290E+00   2.0784E+00   1.0045E-03  0.0045
   2.0784E+00   2.1290E+00   9.8921E-04  0.0045
   2.1290E+00   2.1808E+00   9.7935E-04  0.0044
   2.1808E+00   2.2338E+00   9.8203E-04  0.0044
   2.2338E+00   2.2882E+00   9.8416E-04  0.0043
   2.2882E+00   2.3439E+00   9.7592E-04  0.0043
   2.3439E+00   2.4009E+00   9.8979E-04  0.0042
   2.4009E+00   2.4593E+00   9.9152E-04  0.0042
   2.4593E+00   2.5191E+00   9.7236E-04  0.0041
   2.5191E+00   2.5804E+00   9.5880E-04  0.0041
   2.5804E+00   2.6432E+00   9.5017E-04  0.0041
   2.6432E+00   2.7075E+00   9.4289E-04  0.0041
   2.7075E+00   2.7734E+00   9.2829E-04  0.0040
   2.7734E+00   2.8409E+00   9.3033E-04  0.0040
   2.8409E+00   2.9100E+00   9.2711E-04  0.0040
   2.9100E+00   2.9808E+00   9.1762E-04  0.0039
   2.9808E+00   3.0533E+00   9.0880E-04  0.0039
   3.0533E+00   3.1276E+00   8.9208E-04  0.0039
   3.1276E+00   3.2037E+00   8.7076E-04  0.0039
   3.2037E+00   3.2817E+00   8.6009E-04  0.0039
   3.2817E+00   3.3615E+00   8.4536E-04  0.0039
   3.3615E+00   3.4433E+00   8.3468E-04  0.0038
   3.4433E+00   3.5271E+00   8.1428E-04  0.0038
   3.5271E+00   3.6129E+00   8.0891E-04  0.0038
   3.6129E+00   3.7008E+00   7.9872E-04  0.0038
   3.7008E+00   3.7908E+00   7.8114E-04  0.0038
   3.7908E+00   3.8831E+00   7.6052E-04  0.0038
   3.8831E+00   3.9776E+00   7.4358E-04  0.0038
   3.9776E+00   4.0743E+00   7.2593E-04  0.0038
   4.0743E+00   4.1735E+00   7.1010E-04  0.0038
   4.1735E+00   4.2750E+00   6.9177E-04  0.0038
   4.2750E+00   4.3790E+00   6.7056E-04  0.0038
   4.3790E+00   4.4856E+00   6.4853E-04  0.0038
   4.4856E+00   4.5947E+00   6.3153E-04  0.0038
   4.5947E+00   4.7065E+00   6.1355E-04  0.0038
   4.7065E+00   4.8210E+00   6.0107E-04  0.0038
   4.8210E+00   4.9383E+00   5.8199E-04  0.0038
   4.9383E+00   5.0585E+00   5.7087E-04  0.0038
   5.0585E+00   5.1815E+00   5.4901E-04  0.0038
   5.1815E+00   5.3076E+00   5.2761E-04  0.0039
   5.3076E+00   5.4368E+00   5.0946E-04  0.0039
   5.4368E+00   5.5690E+00   4.9777E-04  0.0039
   5.5690E+00   5.7045E+00   4.7476E-04  0.0039
   5.7045E+00   5.8433E+00   4.5848E-04  0.0040
   5.8433E+00   5.9855E+00   4.4099E-04  0.0040
   5.9855E+00   6.1311E+00   4.3106E-04  0.0040
   6.1311E+00   6.2803E+00   4.1464E-04  0.0040
   6.2803E+00   6.4331E+00   3.9883E-04  0.0041
   6.4331E+00   6.5896E+00   3.8427E-04  0.0041
   6.5896E+00   6.7500E+00   3.6951E-04  0.0041
   6.7500E+00   6.9142E+00   3.5307E-04  0.0042
   6.9142E+00   7.0824E+00   3.3986E-04  0.0042
   7.0824E+00   7.2548E+00   3.2704E-04  0.0042
   7.2548E+00   7.4313E+00   3.1637E-04  0.0042
   7.4313E+00   7.6121E+00   3.0307E-04  0.0043
   7.6121E+00   7.7973E+00   2.9229E-04  0.0043
   7.7973E+00   7.9870E+00   2.8151E-04  0.0043
   7.9870E+00   8.1813E+00   2.7297E-04  0.0043
   8.1813E+00   8.3804E+00   2.6228E-04  0.0044
   8.3804E+00   8.5843E+00   2.5259E-04  0.0044
   8.5843E+00   8.7931E+00   2.4296E-04  0.0044
   8.7931E+00   9.0071E+00   2.3358E-04  0.0045
   9.0071E+00   9.2262E+00   2.2471E-04  0.0045
   9.2262E+00   9.4507E+00   2.1666E-04  0.0045
   9.4507E+00   9.6807E+00   2.0858E-04  0.0046
   9.6807E+00   9.9162E+00   2.0197E-04  0.0046
   9.9162E+00   1.0157E+01   1.9458E-04  0.0046
   1.0157E+01   1.0405E+01   1.8783E-04  0.0046
   1.0405E+01   1.0658E+01   1.8300E-04  0.0046
   1.0658E+01   1.0917E+01   1.7624E-04  0.0047
   1.0917E+01   1.1183E+01   1.6965E-04  0.0047
   1.1183E+01   1.1455E+01   1.6377E-04  0.0047
   1.1455E+01   1.1733E+01   1.5814E-04  0.0048
   1.1733E+01   1.2019E+01   1.5289E-04  0.0048
   1.2019E+01   1.2311E+01   1.4761E-04  0.0048
   1.2311E+01   1.2611E+01   1.4205E-04  0.0048
   1.2611E+01   1.2918E+01   1.3796E-04  0.0049
   1.2918E+01   1.3232E+01   1.3313E-04  0.0049
   1.3232E+01   1.3554E+01   1.2833E-04  0.0049
   1.3554E+01   1.3884E+01   1.2452E-04  0.0049
   1.3884E+01   1.4222E+01   1.2036E-04  0.0050
   1.4222E+01   1.4568E+01   1.1561E-04  0.0050
   1.4568E+01   1.4922E+01   1.1271E-04  0.0050
   1.4922E+01   1.5285E+01   1.0682E-04  0.0051
   1.5285E+01   1.5657E+01   1.0406E-04  0.0051
   1.5657E+01   1.6038E+01   9.9993E-05  0.0051
   1.6038E+01   1.6428E+01   9.6665E-05  0.0051
   1.6428E+01   1.6828E+01   9.2353E-05  0.0052
   1.6828E+01   1.7237E+01   8.8893E-05  0.0052
   1.7237E+01   1.7657E+01   8.6367E-05  0.0053
   1.7657E+01   1.8086E+01   8.2246E-05  0.0053
   1.8086E+01   1.8526E+01   7.9352E-05  0.0054
   1.8526E+01   1.8977E+01   7.6289E-05  0.0054
   1.8977E+01   1.9439E+01   7.3400E-05  0.0054
   1.9439E+01   1.9912E+01   7.0005E-05  0.0055
   1.9912E+01   2.0396E+01   6.8008E-05  0.0055
   2.0396E+01   2.0893E+01   6.6542E-05  0.0055
   2.0893E+01   2.1401E+01   6.2998E-05  0.0056
   2.1401E+01   2.1922E+01   5.9639E-05  0.0057
   2.1922E+01   2.2455E+01   5.7167E-05  0.0057
   2.2455E+01   2.3001E+01   5.4930E-05  0.0058
   2.3001E+01   2.3561E+01   5.2755E-05  0.0058
   2.3561E+01   2.4134E+01   4.9514E-05  0.0059
   2.4134E+01   2.4721E+01   4.6858E-05  0.0060
   2.4721E+01   2.5323E+01   4.4827E-05  0.0061
   2.5323E+01   2.5939E+01   4.2936E-05  0.0061
   2.5939E+01   2.6570E+01   4.0891E-05  0.0062
   2.6570E+01   2.7217E+01   3.8574E-05  0.0063
   2.7217E+01   2.7879E+01   3.6572E-05  0.0064
   2.7879E+01   2.8557E+01   3.4124E-05  0.0066
   2.8557E+01   2.9252E+01   3.2197E-05  0.0067
   2.9252E+01   2.9964E+01   2.9854E-05  0.0069
   2.9964E+01   3.0693E+01   2.7987E-05  0.0070
   3.0693E+01   3.1440E+01   2.6174E-05  0.0072
   3.1440E+01   3.2205E+01   2.4637E-05  0.0073
   3.2205E+01   3.2988E+01   2.3066E-05  0.0074
   3.2988E+01   3.3791E+01   2.1466E-05  0.0076
   3.3791E+01   3.4613E+01   1.9796E-05  0.0078
   3.4613E+01   3.5455E+01   1.8368E-05  0.0080
   3.5455E+01   3.6318E+01   1.6610E-05  0.0084
   3.6318E+01   3.7201E+01   1.5569E-05  0.0085
   3.7201E+01   3.8106E+01   1.4275E-05  0.0088
   3.8106E+01   3.9034E+01   1.3126E-05  0.0091
   3.9034E+01   3.9983E+01   1.1882E-05  0.0094
   3.9983E+01   4.0956E+01   1.0786E-05  0.0098
   4.0956E+01   4.1953E+01   1.0025E-05  0.0100
   4.1953E+01   4.2973E+01   8.9709E-06  0.0105
   4.2973E+01   4.4019E+01   8.0922E-06  0.0109
   4.4019E+01   4.5090E+01   7.1782E-06  0.0114
   4.5090E+01   4.6187E+01   6.4234E-06  0.0119
   4.6187E+01   4.7311E+01   5.7414E-06  0.0124
   4.7311E+01   4.8462E+01   5.1585E-06  0.0130
   4.8462E+01   4.9641E+01   4.4940E-06  0.0137
   4.9641E+01   5.0849E+01   4.0147E-06  0.0144
   5.0849E+01   5.2086E+01   3.5500E-06  0.0151
   5.2086E+01   5.3353E+01   3.0719E-06  0.0160
   5.3353E+01   5.4651E+01   2.6523E-06  0.0170
   5.4651E+01   5.5981E+01   2.2689E-06  0.0182
   5.5981E+01   5.7343E+01   2.1034E-06  0.0187
   5.7343E+01   5.8738E+01   1.7281E-06  0.0204
   5.8738E+01   6.0168E+01   1.4736E-06  0.0218
   6.0168E+01   6.1632E+01   1.2098E-06  0.0238
   6.1632E+01   6.3131E+01   1.0723E-06  0.0249
   6.3131E+01   6.4667E+01   8.4959E-07  0.0277
   6.4667E+01   6.6240E+01   7.4743E-07  0.0292
   6.6240E+01   6.7852E+01   6.0682E-07  0.0320
   6.7852E+01   6.9503E+01   5.1063E-07  0.0344
   6.9503E+01   7.1194E+01   4.0389E-07  0.0383
   7.1194E+01   7.2926E+01   3.5446E-07  0.0404
   7.2926E+01   7.4701E+01   2.6488E-07  0.0461
   7.4701E+01   7.6518E+01   2.2448E-07  0.0495
   7.6518E+01   7.8380E+01   1.6436E-07  0.0572
   7.8380E+01   8.0287E+01   1.3371E-07  0.0626
   8.0287E+01   8.2240E+01   7.3204E-08  0.0836
   8.2240E+01   8.4241E+01   5.7472E-08  0.0933
   8.4241E+01   8.6291E+01   3.4640E-08  0.1187
   8.6291E+01   8.8391E+01   1.0955E-08  0.2085
   8.8391E+01   9.0541E+01   1.3950E-09  0.5774
   9.0541E+01   9.2744E+01   0.0000E+00  0.0000
   9.2744E+01   9.5001E+01   0.0000E+00  0.0000
   9.5001E+01   9.7312E+01   0.0000E+00  0.0000
   9.7312E+01   9.9680E+01   0.0000E+00  0.0000
   9.9680E+01   1.0211E+02   0.0000E+00  0.0000
   1.0211E+02   1.0459E+02   0.0000E+00  0.0000
   1.0459E+02   1.0713E+02   0.0000E+00  0.0000
   1.0713E+02   1.0974E+02   0.0000E+00  0.0000
   1.0974E+02   1.1241E+02   0.0000E+00  0.0000
   1.1241E+02   1.1515E+02   0.0000E+00  0.0000
   1.1515E+02   1.1795E+02   0.0000E+00  0.0000
   1.1795E+02   1.2082E+02   0.0000E+00  0.0000
   1.2082E+02   1.2376E+02   0.0000E+00  0.0000
   1.2376E+02   1.2677E+02   0.0000E+00  0.0000
   1.2677E+02   1.2985E+02   0.0000E+00  0.0000
   1.2985E+02   1.3301E+02   0.0000E+00  0.0000
   1.3301E+02   1.3625E+02   0.0000E+00  0.0000
   1.3625E+02   1.3956E+02   0.0000E+00  0.0000
   1.3956E+02   1.4296E+02   0.0000E+00  0.0000
   1.4296E+02   1.4644E+02   0.0000E+00  0.0000
   1.4644E+02   1.5000E+02   0.0000E+00  0.0000

#   sum over                 5.6893E-05
'no. =    1   reg = 111 - 211'
msuc: {\huge [t-cross] in region mesh}
msdr: {\it plotted by \ANGEL \version}
msdl: {\it calculated by \PHITS  3.26}
wt: s(0.7)
\vspace{-3}
  region surface crossing
  area  &=&   1.0000E+00 [cm^2]
e:
 
# Information for Restart Calculation
# This calculation was newly started
# istdev =  2 # 1:Batch variance, 2:History variance
# resc2  = 1.00000000000000000E+09 # Total source weight or Total source weight / maxcas
# resc3  = 1.00000000000000000E+09 # Total history number or Total batch number
# maxcas =   500000000 # History / Batch, only used for istdev=1
# bitrseed = 0001001110011001001001110000100100110111001111011100001000101100 # bit data of rseed
