10 <--- remaining batch number

-------------------------------------------------------------------------------
 start calculation
-------------------------------------------------------------------------------

 date = 2022-09-16
 time = 04h 46m 05

