[ T-Cross ]
    title = [t-cross] in region mesh
     mesh =  reg            # mesh type is region-wise
      reg =    1            # number of crossing regions
      non     r-from    r-to       area
      1       117       217        1.000000    
   e-type =    3            # e-mesh is log given by emin, emax and ne
     emin =  1.0000000E-02  # minimum value of e-mesh points
     emax =   150.0000      # maximum value of e-mesh points
#    edel =  2.4039514E-02  # mesh width of e-mesh points
       ne =    400          # number of e-mesh points
#    data = ( e(i), i = 1, ne + 1 )
#           1.00000E-02  1.02433E-02  1.04925E-02  1.07478E-02  1.10093E-02
#           1.12772E-02  1.15516E-02  1.18326E-02  1.21205E-02  1.24154E-02
#           1.27175E-02  1.30269E-02  1.33439E-02  1.36686E-02  1.40011E-02
#           1.43418E-02  1.46907E-02  1.50482E-02  1.54143E-02  1.57894E-02
#           1.61735E-02  1.65670E-02  1.69701E-02  1.73830E-02  1.78060E-02
#           1.82392E-02  1.86830E-02  1.91375E-02  1.96032E-02  2.00801E-02
#           2.05687E-02  2.10692E-02  2.15818E-02  2.21069E-02  2.26448E-02
#           2.31957E-02  2.37601E-02  2.43382E-02  2.49304E-02  2.55369E-02
#           2.61583E-02  2.67947E-02  2.74467E-02  2.81145E-02  2.87985E-02
#           2.94992E-02  3.02169E-02  3.09521E-02  3.17052E-02  3.24766E-02
#           3.32668E-02  3.40762E-02  3.49053E-02  3.57546E-02  3.66246E-02
#           3.75157E-02  3.84284E-02  3.93634E-02  4.03212E-02  4.13022E-02
#           4.23071E-02  4.33365E-02  4.43909E-02  4.54710E-02  4.65773E-02
#           4.77106E-02  4.88714E-02  5.00605E-02  5.12785E-02  5.25262E-02
#           5.38042E-02  5.51133E-02  5.64542E-02  5.78278E-02  5.92348E-02
#           6.06760E-02  6.21523E-02  6.36645E-02  6.52135E-02  6.68002E-02
#           6.84255E-02  7.00904E-02  7.17957E-02  7.35426E-02  7.53319E-02
#           7.71648E-02  7.90423E-02  8.09655E-02  8.29354E-02  8.49533E-02
#           8.70203E-02  8.91376E-02  9.13064E-02  9.35279E-02  9.58035E-02
#           9.81345E-02  1.00522E-01  1.02968E-01  1.05473E-01  1.08040E-01
#           1.10668E-01  1.13361E-01  1.16119E-01  1.18944E-01  1.21838E-01
#           1.24803E-01  1.27839E-01  1.30950E-01  1.34136E-01  1.37399E-01
#           1.40742E-01  1.44167E-01  1.47675E-01  1.51268E-01  1.54948E-01
#           1.58718E-01  1.62580E-01  1.66535E-01  1.70587E-01  1.74738E-01
#           1.78989E-01  1.83344E-01  1.87805E-01  1.92375E-01  1.97055E-01
#           2.01850E-01  2.06761E-01  2.11792E-01  2.16945E-01  2.22223E-01
#           2.27630E-01  2.33169E-01  2.38842E-01  2.44653E-01  2.50605E-01
#           2.56703E-01  2.62949E-01  2.69346E-01  2.75900E-01  2.82613E-01
#           2.89489E-01  2.96532E-01  3.03747E-01  3.11138E-01  3.18708E-01
#           3.26462E-01  3.34405E-01  3.42542E-01  3.50876E-01  3.59413E-01
#           3.68158E-01  3.77116E-01  3.86291E-01  3.95690E-01  4.05317E-01
#           4.15179E-01  4.25281E-01  4.35628E-01  4.46227E-01  4.57084E-01
#           4.68205E-01  4.79597E-01  4.91266E-01  5.03219E-01  5.15463E-01
#           5.28005E-01  5.40851E-01  5.54011E-01  5.67490E-01  5.81298E-01
#           5.95441E-01  6.09929E-01  6.24769E-01  6.39970E-01  6.55541E-01
#           6.71491E-01  6.87828E-01  7.04564E-01  7.21706E-01  7.39266E-01
#           7.57253E-01  7.75678E-01  7.94551E-01  8.13883E-01  8.33685E-01
#           8.53969E-01  8.74747E-01  8.96030E-01  9.17831E-01  9.40163E-01
#           9.63038E-01  9.86469E-01  1.01047E+00  1.03506E+00  1.06024E+00
#           1.08604E+00  1.11246E+00  1.13953E+00  1.16725E+00  1.19565E+00
#           1.22474E+00  1.25454E+00  1.28507E+00  1.31633E+00  1.34836E+00
#           1.38117E+00  1.41477E+00  1.44920E+00  1.48446E+00  1.52057E+00
#           1.55757E+00  1.59547E+00  1.63429E+00  1.67405E+00  1.71478E+00
#           1.75650E+00  1.79924E+00  1.84302E+00  1.88786E+00  1.93379E+00
#           1.98084E+00  2.02904E+00  2.07841E+00  2.12898E+00  2.18078E+00
#           2.23384E+00  2.28819E+00  2.34386E+00  2.40089E+00  2.45930E+00
#           2.51914E+00  2.58043E+00  2.64322E+00  2.70753E+00  2.77341E+00
#           2.84088E+00  2.91001E+00  2.98081E+00  3.05333E+00  3.12762E+00
#           3.20372E+00  3.28167E+00  3.36152E+00  3.44330E+00  3.52708E+00
#           3.61290E+00  3.70080E+00  3.79085E+00  3.88308E+00  3.97756E+00
#           4.07434E+00  4.17347E+00  4.27501E+00  4.37903E+00  4.48557E+00
#           4.59471E+00  4.70650E+00  4.82102E+00  4.93832E+00  5.05847E+00
#           5.18155E+00  5.30762E+00  5.43676E+00  5.56904E+00  5.70453E+00
#           5.84333E+00  5.98550E+00  6.13114E+00  6.28031E+00  6.43312E+00
#           6.58964E+00  6.74997E+00  6.91420E+00  7.08243E+00  7.25475E+00
#           7.43126E+00  7.61207E+00  7.79728E+00  7.98700E+00  8.18133E+00
#           8.38038E+00  8.58428E+00  8.79315E+00  9.00709E+00  9.22624E+00
#           9.45072E+00  9.68067E+00  9.91620E+00  1.01575E+01  1.04046E+01
#           1.06578E+01  1.09171E+01  1.11827E+01  1.14548E+01  1.17335E+01
#           1.20190E+01  1.23114E+01  1.26109E+01  1.29178E+01  1.32321E+01
#           1.35540E+01  1.38838E+01  1.42216E+01  1.45676E+01  1.49221E+01
#           1.52851E+01  1.56570E+01  1.60380E+01  1.64282E+01  1.68279E+01
#           1.72374E+01  1.76568E+01  1.80864E+01  1.85264E+01  1.89772E+01
#           1.94389E+01  1.99119E+01  2.03963E+01  2.08926E+01  2.14009E+01
#           2.19216E+01  2.24550E+01  2.30014E+01  2.35610E+01  2.41343E+01
#           2.47215E+01  2.53230E+01  2.59391E+01  2.65702E+01  2.72167E+01
#           2.78789E+01  2.85572E+01  2.92520E+01  2.99637E+01  3.06928E+01
#           3.14396E+01  3.22045E+01  3.29881E+01  3.37907E+01  3.46128E+01
#           3.54550E+01  3.63177E+01  3.72013E+01  3.81064E+01  3.90336E+01
#           3.99833E+01  4.09561E+01  4.19526E+01  4.29734E+01  4.40189E+01
#           4.50900E+01  4.61870E+01  4.73108E+01  4.84619E+01  4.96410E+01
#           5.08488E+01  5.20860E+01  5.33533E+01  5.46514E+01  5.59812E+01
#           5.73432E+01  5.87384E+01  6.01676E+01  6.16315E+01  6.31311E+01
#           6.46671E+01  6.62405E+01  6.78522E+01  6.95031E+01  7.11941E+01
#           7.29263E+01  7.47007E+01  7.65182E+01  7.83800E+01  8.02870E+01
#           8.22405E+01  8.42414E+01  8.62911E+01  8.83906E+01  9.05412E+01
#           9.27442E+01  9.50007E+01  9.73122E+01  9.96799E+01  1.02105E+02
#           1.04589E+02  1.07134E+02  1.09741E+02  1.12411E+02  1.15146E+02
#           1.17948E+02  1.20817E+02  1.23757E+02  1.26768E+02  1.29852E+02
#           1.33012E+02  1.36248E+02  1.39563E+02  1.42959E+02  1.46437E+02
#           1.50000E+02
     unit =    2            # unit is [1/cm^2/(MeV/n)/source]
     axis =  eng            # axis of output
     file = detector-18.out  # file name of output for the above axis
   output = f-curr          # surface crossing forward current spectrum
     part =  neutron  
# kf/name :  2112     
#    used :        main (  %)        temp (  %)       total (  %)
#  memory :         414 (  0)           0 (  0)         414 (  0)

#------------------------------------------------------------------------------
#newpage:
#   no. =    1   reg = 117 - 217

x: Energy [MeV/n]
y:  F-Curr [1/cm^2/(MeV/n)/source]         
p: xlog ylog afac(0.8) form(0.9)
h: n            x            y(neutron ),hh0l   n 
#  e-lower      e-upper      neutron     r.err 
   1.0000E-02   1.0243E-02   2.8224E-03  0.0381
   1.0243E-02   1.0493E-02   2.4664E-03  0.0403
   1.0493E-02   1.0748E-02   2.6283E-03  0.0385
   1.0748E-02   1.1009E-02   2.5953E-03  0.0383
   1.1009E-02   1.1277E-02   2.3555E-03  0.0397
   1.1277E-02   1.1552E-02   2.5316E-03  0.0379
   1.1552E-02   1.1833E-02   2.5794E-03  0.0371
   1.1833E-02   1.2121E-02   2.3601E-03  0.0383
   1.2121E-02   1.2415E-02   2.2930E-03  0.0384
   1.2415E-02   1.2718E-02   2.2780E-03  0.0381
   1.2718E-02   1.3027E-02   2.1605E-03  0.0386
   1.3027E-02   1.3344E-02   1.9979E-03  0.0397
   1.3344E-02   1.3669E-02   2.0909E-03  0.0383
   1.3669E-02   1.4001E-02   2.0024E-03  0.0387
   1.4001E-02   1.4342E-02   2.0625E-03  0.0377
   1.4342E-02   1.4691E-02   1.9386E-03  0.0384
   1.4691E-02   1.5048E-02   1.8785E-03  0.0385
   1.5048E-02   1.5414E-02   1.9682E-03  0.0372
   1.5414E-02   1.5789E-02   1.8205E-03  0.0382
   1.5789E-02   1.6174E-02   1.7993E-03  0.0380
   1.6174E-02   1.6567E-02   1.7807E-03  0.0377
   1.6567E-02   1.6970E-02   1.8248E-03  0.0368
   1.6970E-02   1.7383E-02   1.7470E-03  0.0372
   1.7383E-02   1.7806E-02   1.5818E-03  0.0386
   1.7806E-02   1.8239E-02   1.7331E-03  0.0364
   1.8239E-02   1.8683E-02   1.6973E-03  0.0364
   1.8683E-02   1.9138E-02   1.5649E-03  0.0375
   1.9138E-02   1.9603E-02   1.6016E-03  0.0366
   1.9603E-02   2.0080E-02   1.5527E-03  0.0367
   2.0080E-02   2.0569E-02   1.5975E-03  0.0357
   2.0569E-02   2.1069E-02   1.5504E-03  0.0359
   2.1069E-02   2.1582E-02   1.4346E-03  0.0368
   2.1582E-02   2.2107E-02   1.4907E-03  0.0357
   2.2107E-02   2.2645E-02   1.3855E-03  0.0366
   2.2645E-02   2.3196E-02   1.3895E-03  0.0361
   2.3196E-02   2.3760E-02   1.2988E-03  0.0369
   2.3760E-02   2.4338E-02   1.3100E-03  0.0363
   2.4338E-02   2.4930E-02   1.3622E-03  0.0352
   2.4930E-02   2.5537E-02   1.2584E-03  0.0361
   2.5537E-02   2.6158E-02   1.2384E-03  0.0360
   2.6158E-02   2.6795E-02   1.2291E-03  0.0357
   2.6795E-02   2.7447E-02   1.1805E-03  0.0360
   2.7447E-02   2.8114E-02   1.0895E-03  0.0370
   2.8114E-02   2.8799E-02   1.1567E-03  0.0355
   2.8799E-02   2.9499E-02   1.1514E-03  0.0351
   2.9499E-02   3.0217E-02   1.1283E-03  0.0351
   3.0217E-02   3.0952E-02   1.0258E-03  0.0363
   3.0952E-02   3.1705E-02   1.0415E-03  0.0356
   3.1705E-02   3.2477E-02   1.1148E-03  0.0340
   3.2477E-02   3.3267E-02   9.5055E-04  0.0364
   3.3267E-02   3.4076E-02   1.0107E-03  0.0349
   3.4076E-02   3.4905E-02   9.8666E-04  0.0349
   3.4905E-02   3.5755E-02   9.3646E-04  0.0354
   3.5755E-02   3.6625E-02   9.0069E-04  0.0356
   3.6625E-02   3.7516E-02   9.0657E-04  0.0351
   3.7516E-02   3.8428E-02   8.7394E-04  0.0353
   3.8428E-02   3.9363E-02   8.2937E-04  0.0359
   3.9363E-02   4.0321E-02   8.7441E-04  0.0345
   4.0321E-02   4.1302E-02   8.7234E-04  0.0341
   4.1302E-02   4.2307E-02   8.4720E-04  0.0342
   4.2307E-02   4.3337E-02   8.0456E-04  0.0347
   4.3337E-02   4.4391E-02   8.2796E-04  0.0338
   4.4391E-02   4.5471E-02   7.8287E-04  0.0343
   4.5471E-02   4.6577E-02   7.4159E-04  0.0349
   4.6577E-02   4.7711E-02   7.1749E-04  0.0350
   4.7711E-02   4.8871E-02   6.8561E-04  0.0354
   4.8871E-02   5.0061E-02   7.0182E-04  0.0346
   5.0061E-02   5.1279E-02   7.1757E-04  0.0338
   5.1279E-02   5.2526E-02   6.7612E-04  0.0344
   5.2526E-02   5.3804E-02   6.9968E-04  0.0334
   5.3804E-02   5.5113E-02   6.7913E-04  0.0335
   5.5113E-02   5.6454E-02   6.0459E-04  0.0350
   5.6454E-02   5.7828E-02   6.4647E-04  0.0335
   5.7828E-02   5.9235E-02   5.8585E-04  0.0347
   5.9235E-02   6.0676E-02   6.1928E-04  0.0334
   6.0676E-02   6.2152E-02   5.8163E-04  0.0340
   6.2152E-02   6.3665E-02   5.4005E-04  0.0349
   6.3665E-02   6.5214E-02   5.8765E-04  0.0331
   6.5214E-02   6.6800E-02   5.6636E-04  0.0333
   6.6800E-02   6.8426E-02   5.1153E-04  0.0346
   6.8426E-02   7.0090E-02   5.4811E-04  0.0331
   7.0090E-02   7.1796E-02   4.9245E-04  0.0345
   7.1796E-02   7.3543E-02   5.1141E-04  0.0334
   7.3543E-02   7.5332E-02   5.1638E-04  0.0328
   7.5332E-02   7.7165E-02   4.7356E-04  0.0339
   7.7165E-02   7.9042E-02   4.7347E-04  0.0335
   7.9042E-02   8.0965E-02   4.8287E-04  0.0327
   8.0965E-02   8.2935E-02   4.5111E-04  0.0335
   8.2935E-02   8.4953E-02   4.5185E-04  0.0330
   8.4953E-02   8.7020E-02   4.3084E-04  0.0334
   8.7020E-02   8.9138E-02   4.3672E-04  0.0328
   8.9138E-02   9.1306E-02   4.1785E-04  0.0331
   9.1306E-02   9.3528E-02   4.2258E-04  0.0326
   9.3528E-02   9.5804E-02   4.2033E-04  0.0323
   9.5804E-02   9.8134E-02   3.9947E-04  0.0327
   9.8134E-02   1.0052E-01   4.0619E-04  0.0321
   1.0052E-01   1.0297E-01   4.0477E-04  0.0317
   1.0297E-01   1.0547E-01   3.7900E-04  0.0324
   1.0547E-01   1.0804E-01   3.4152E-04  0.0337
   1.0804E-01   1.1067E-01   3.4212E-04  0.0333
   1.1067E-01   1.1336E-01   3.3657E-04  0.0332
   1.1336E-01   1.1612E-01   3.4039E-04  0.0326
   1.1612E-01   1.1894E-01   3.3215E-04  0.0326
   1.1894E-01   1.2184E-01   3.1533E-04  0.0330
   1.2184E-01   1.2480E-01   3.0087E-04  0.0334
   1.2480E-01   1.2784E-01   3.0603E-04  0.0327
   1.2784E-01   1.3095E-01   3.0432E-04  0.0324
   1.3095E-01   1.3414E-01   2.9921E-04  0.0323
   1.3414E-01   1.3740E-01   2.9084E-04  0.0324
   1.3740E-01   1.4074E-01   2.8667E-04  0.0322
   1.4074E-01   1.4417E-01   2.9450E-04  0.0314
   1.4417E-01   1.4767E-01   2.7897E-04  0.0319
   1.4767E-01   1.5127E-01   2.5563E-04  0.0329
   1.5127E-01   1.5495E-01   2.5380E-04  0.0327
   1.5495E-01   1.5872E-01   2.4370E-04  0.0329
   1.5872E-01   1.6258E-01   2.3672E-04  0.0330
   1.6258E-01   1.6654E-01   2.2873E-04  0.0332
   1.6654E-01   1.7059E-01   2.4316E-04  0.0318
   1.7059E-01   1.7474E-01   2.1992E-04  0.0330
   1.7474E-01   1.7899E-01   2.2149E-04  0.0325
   1.7899E-01   1.8334E-01   2.1078E-04  0.0330
   1.8334E-01   1.8781E-01   2.2325E-04  0.0316
   1.8781E-01   1.9237E-01   2.1323E-04  0.0320
   1.9237E-01   1.9706E-01   1.9222E-04  0.0333
   1.9706E-01   2.0185E-01   1.9303E-04  0.0328
   2.0185E-01   2.0676E-01   2.0009E-04  0.0318
   2.0676E-01   2.1179E-01   2.1384E-04  0.0304
   2.1179E-01   2.1694E-01   2.0847E-04  0.0304
   2.1694E-01   2.2222E-01   2.1646E-04  0.0295
   2.2222E-01   2.2763E-01   2.3130E-04  0.0282
   2.2763E-01   2.3317E-01   2.2642E-04  0.0282
   2.3317E-01   2.3884E-01   2.3891E-04  0.0271
   2.3884E-01   2.4465E-01   2.4020E-04  0.0267
   2.4465E-01   2.5061E-01   2.5081E-04  0.0258
   2.5061E-01   2.5670E-01   2.6195E-04  0.0250
   2.5670E-01   2.6295E-01   2.6217E-04  0.0247
   2.6295E-01   2.6935E-01   2.5862E-04  0.0245
   2.6935E-01   2.7590E-01   2.6724E-04  0.0238
   2.7590E-01   2.8261E-01   2.7402E-04  0.0233
   2.8261E-01   2.8949E-01   2.8965E-04  0.0223
   2.8949E-01   2.9653E-01   2.9523E-04  0.0219
   2.9653E-01   3.0375E-01   2.9445E-04  0.0216
   3.0375E-01   3.1114E-01   3.1165E-04  0.0208
   3.1114E-01   3.1871E-01   3.2017E-04  0.0203
   3.1871E-01   3.2646E-01   3.1625E-04  0.0201
   3.2646E-01   3.3441E-01   3.2385E-04  0.0197
   3.3441E-01   3.4254E-01   3.2678E-04  0.0193
   3.4254E-01   3.5088E-01   3.3585E-04  0.0189
   3.5088E-01   3.5941E-01   3.4327E-04  0.0184
   3.5941E-01   3.6816E-01   3.3601E-04  0.0184
   3.6816E-01   3.7712E-01   3.4564E-04  0.0179
   3.7712E-01   3.8629E-01   3.4146E-04  0.0178
   3.8629E-01   3.9569E-01   3.5452E-04  0.0173
   3.9569E-01   4.0532E-01   3.6706E-04  0.0168
   4.0532E-01   4.1518E-01   3.6712E-04  0.0166
   4.1518E-01   4.2528E-01   3.6397E-04  0.0164
   4.2528E-01   4.3563E-01   3.7225E-04  0.0161
   4.3563E-01   4.4623E-01   3.6760E-04  0.0160
   4.4623E-01   4.5708E-01   3.6877E-04  0.0158
   4.5708E-01   4.6821E-01   3.7376E-04  0.0155
   4.6821E-01   4.7960E-01   3.8115E-04  0.0151
   4.7960E-01   4.9127E-01   3.8517E-04  0.0149
   4.9127E-01   5.0322E-01   3.8737E-04  0.0147
   5.0322E-01   5.1546E-01   3.9426E-04  0.0144
   5.1546E-01   5.2800E-01   3.8723E-04  0.0143
   5.2800E-01   5.4085E-01   3.8543E-04  0.0142
   5.4085E-01   5.5401E-01   3.8274E-04  0.0140
   5.5401E-01   5.6749E-01   3.9303E-04  0.0137
   5.6749E-01   5.8130E-01   3.7900E-04  0.0138
   5.8130E-01   5.9544E-01   3.9350E-04  0.0134
   5.9544E-01   6.0993E-01   3.7729E-04  0.0135
   6.0993E-01   6.2477E-01   3.7818E-04  0.0133
   6.2477E-01   6.3997E-01   3.7415E-04  0.0132
   6.3997E-01   6.5554E-01   3.7752E-04  0.0130
   6.5554E-01   6.7149E-01   3.7733E-04  0.0128
   6.7149E-01   6.8783E-01   3.6600E-04  0.0129
   6.8783E-01   7.0456E-01   3.7070E-04  0.0126
   7.0456E-01   7.2171E-01   3.6950E-04  0.0125
   7.2171E-01   7.3927E-01   3.5930E-04  0.0125
   7.3927E-01   7.5725E-01   3.5753E-04  0.0124
   7.5725E-01   7.7568E-01   3.5732E-04  0.0123
   7.7568E-01   7.9455E-01   3.4502E-04  0.0123
   7.9455E-01   8.1388E-01   3.4924E-04  0.0121
   8.1388E-01   8.3368E-01   3.4170E-04  0.0121
   8.3368E-01   8.5397E-01   3.2774E-04  0.0122
   8.5397E-01   8.7475E-01   3.3450E-04  0.0119
   8.7475E-01   8.9603E-01   3.2669E-04  0.0119
   8.9603E-01   9.1783E-01   3.2123E-04  0.0119
   9.1783E-01   9.4016E-01   3.1424E-04  0.0119
   9.4016E-01   9.6304E-01   3.0880E-04  0.0118
   9.6304E-01   9.8647E-01   3.1109E-04  0.0117
   9.8647E-01   1.0105E+00   2.9822E-04  0.0118
   1.0105E+00   1.0351E+00   2.9961E-04  0.0116
   1.0351E+00   1.0602E+00   2.9569E-04  0.0115
   1.0602E+00   1.0860E+00   2.8775E-04  0.0115
   1.0860E+00   1.1125E+00   2.7612E-04  0.0116
   1.1125E+00   1.1395E+00   2.6697E-04  0.0117
   1.1395E+00   1.1673E+00   2.7027E-04  0.0115
   1.1673E+00   1.1957E+00   2.6565E-04  0.0114
   1.1957E+00   1.2247E+00   2.6052E-04  0.0114
   1.2247E+00   1.2545E+00   2.5817E-04  0.0113
   1.2545E+00   1.2851E+00   2.4060E-04  0.0116
   1.2851E+00   1.3163E+00   2.4268E-04  0.0114
   1.3163E+00   1.3484E+00   2.3674E-04  0.0114
   1.3484E+00   1.3812E+00   2.3325E-04  0.0114
   1.3812E+00   1.4148E+00   2.2896E-04  0.0113
   1.4148E+00   1.4492E+00   2.2512E-04  0.0113
   1.4492E+00   1.4845E+00   2.1512E-04  0.0114
   1.4845E+00   1.5206E+00   2.1660E-04  0.0112
   1.5206E+00   1.5576E+00   2.1013E-04  0.0113
   1.5576E+00   1.5955E+00   2.0450E-04  0.0113
   1.5955E+00   1.6343E+00   1.9929E-04  0.0113
   1.6343E+00   1.6741E+00   1.9365E-04  0.0113
   1.6741E+00   1.7148E+00   1.9171E-04  0.0112
   1.7148E+00   1.7565E+00   1.8479E-04  0.0113
   1.7565E+00   1.7992E+00   1.8147E-04  0.0113
   1.7992E+00   1.8430E+00   1.7794E-04  0.0112
   1.8430E+00   1.8879E+00   1.7408E-04  0.0112
   1.8879E+00   1.9338E+00   1.7407E-04  0.0111
   1.9338E+00   1.9808E+00   1.6801E-04  0.0112
   1.9808E+00   2.0290E+00   1.6665E-04  0.0111
   2.0290E+00   2.0784E+00   1.6216E-04  0.0111
   2.0784E+00   2.1290E+00   1.6087E-04  0.0110
   2.1290E+00   2.1808E+00   1.5387E-04  0.0111
   2.1808E+00   2.2338E+00   1.5554E-04  0.0109
   2.2338E+00   2.2882E+00   1.5264E-04  0.0109
   2.2882E+00   2.3439E+00   1.4647E-04  0.0110
   2.3439E+00   2.4009E+00   1.4617E-04  0.0108
   2.4009E+00   2.4593E+00   1.4195E-04  0.0109
   2.4593E+00   2.5191E+00   1.4354E-04  0.0107
   2.5191E+00   2.5804E+00   1.4191E-04  0.0106
   2.5804E+00   2.6432E+00   1.3536E-04  0.0107
   2.6432E+00   2.7075E+00   1.3483E-04  0.0106
   2.7075E+00   2.7734E+00   1.3319E-04  0.0106
   2.7734E+00   2.8409E+00   1.3260E-04  0.0105
   2.8409E+00   2.9100E+00   1.3096E-04  0.0104
   2.9100E+00   2.9808E+00   1.2593E-04  0.0105
   2.9808E+00   3.0533E+00   1.2615E-04  0.0104
   3.0533E+00   3.1276E+00   1.2545E-04  0.0103
   3.1276E+00   3.2037E+00   1.2091E-04  0.0103
   3.2037E+00   3.2817E+00   1.2212E-04  0.0102
   3.2817E+00   3.3615E+00   1.1860E-04  0.0102
   3.3615E+00   3.4433E+00   1.1950E-04  0.0100
   3.4433E+00   3.5271E+00   1.1834E-04  0.0100
   3.5271E+00   3.6129E+00   1.1546E-04  0.0100
   3.6129E+00   3.7008E+00   1.1319E-04  0.0099
   3.7008E+00   3.7908E+00   1.1231E-04  0.0099
   3.7908E+00   3.8831E+00   1.0971E-04  0.0099
   3.8831E+00   3.9776E+00   1.0900E-04  0.0098
   3.9776E+00   4.0743E+00   1.0700E-04  0.0098
   4.0743E+00   4.1735E+00   1.0635E-04  0.0097
   4.1735E+00   4.2750E+00   1.0632E-04  0.0096
   4.2750E+00   4.3790E+00   1.0395E-04  0.0096
   4.3790E+00   4.4856E+00   1.0347E-04  0.0095
   4.4856E+00   4.5947E+00   1.0227E-04  0.0094
   4.5947E+00   4.7065E+00   9.9093E-05  0.0094
   4.7065E+00   4.8210E+00   9.6966E-05  0.0094
   4.8210E+00   4.9383E+00   9.4371E-05  0.0095
   4.9383E+00   5.0585E+00   9.1430E-05  0.0095
   5.0585E+00   5.1815E+00   8.8729E-05  0.0095
   5.1815E+00   5.3076E+00   8.7143E-05  0.0095
   5.3076E+00   5.4368E+00   8.5038E-05  0.0095
   5.4368E+00   5.5690E+00   8.3368E-05  0.0095
   5.5690E+00   5.7045E+00   8.2640E-05  0.0094
   5.7045E+00   5.8433E+00   7.9580E-05  0.0095
   5.8433E+00   5.9855E+00   7.9682E-05  0.0094
   5.9855E+00   6.1311E+00   7.7169E-05  0.0094
   6.1311E+00   6.2803E+00   7.4430E-05  0.0094
   6.2803E+00   6.4331E+00   7.3040E-05  0.0094
   6.4331E+00   6.5896E+00   7.1801E-05  0.0094
   6.5896E+00   6.7500E+00   6.9708E-05  0.0094
   6.7500E+00   6.9142E+00   6.8586E-05  0.0094
   6.9142E+00   7.0824E+00   6.8124E-05  0.0093
   7.0824E+00   7.2548E+00   6.5267E-05  0.0094
   7.2548E+00   7.4313E+00   6.3336E-05  0.0094
   7.4313E+00   7.6121E+00   6.1658E-05  0.0094
   7.6121E+00   7.7973E+00   5.9556E-05  0.0095
   7.7973E+00   7.9870E+00   5.7002E-05  0.0096
   7.9870E+00   8.1813E+00   5.6537E-05  0.0095
   8.1813E+00   8.3804E+00   5.4965E-05  0.0095
   8.3804E+00   8.5843E+00   5.3090E-05  0.0096
   8.5843E+00   8.7931E+00   5.1919E-05  0.0096
   8.7931E+00   9.0071E+00   5.0064E-05  0.0096
   9.0071E+00   9.2262E+00   4.8454E-05  0.0097
   9.2262E+00   9.4507E+00   4.6911E-05  0.0097
   9.4507E+00   9.6807E+00   4.5701E-05  0.0097
   9.6807E+00   9.9162E+00   4.3390E-05  0.0099
   9.9162E+00   1.0157E+01   4.1609E-05  0.0100
   1.0157E+01   1.0405E+01   4.1006E-05  0.0099
   1.0405E+01   1.0658E+01   4.1214E-05  0.0098
   1.0658E+01   1.0917E+01   4.0875E-05  0.0097
   1.0917E+01   1.1183E+01   3.9226E-05  0.0098
   1.1183E+01   1.1455E+01   3.7706E-05  0.0099
   1.1455E+01   1.1733E+01   3.5418E-05  0.0101
   1.1733E+01   1.2019E+01   3.3832E-05  0.0102
   1.2019E+01   1.2311E+01   3.2886E-05  0.0102
   1.2311E+01   1.2611E+01   3.0598E-05  0.0104
   1.2611E+01   1.2918E+01   2.9574E-05  0.0105
   1.2918E+01   1.3232E+01   2.8403E-05  0.0106
   1.3232E+01   1.3554E+01   2.6920E-05  0.0107
   1.3554E+01   1.3884E+01   2.5552E-05  0.0109
   1.3884E+01   1.4222E+01   2.4301E-05  0.0110
   1.4222E+01   1.4568E+01   2.2992E-05  0.0112
   1.4568E+01   1.4922E+01   2.1258E-05  0.0115
   1.4922E+01   1.5285E+01   1.9790E-05  0.0118
   1.5285E+01   1.5657E+01   1.8817E-05  0.0120
   1.5657E+01   1.6038E+01   1.7307E-05  0.0123
   1.6038E+01   1.6428E+01   1.5878E-05  0.0127
   1.6428E+01   1.6828E+01   1.4761E-05  0.0130
   1.6828E+01   1.7237E+01   1.3656E-05  0.0134
   1.7237E+01   1.7657E+01   1.2506E-05  0.0138
   1.7657E+01   1.8086E+01   1.1810E-05  0.0140
   1.8086E+01   1.8526E+01   1.0984E-05  0.0144
   1.8526E+01   1.8977E+01   9.7815E-06  0.0151
   1.8977E+01   1.9439E+01   8.9728E-06  0.0155
   1.9439E+01   1.9912E+01   8.1680E-06  0.0161
   1.9912E+01   2.0396E+01   7.4535E-06  0.0166
   2.0396E+01   2.0893E+01   6.4241E-06  0.0177
   2.0893E+01   2.1401E+01   5.9016E-06  0.0183
   2.1401E+01   2.1922E+01   5.0950E-06  0.0194
   2.1922E+01   2.2455E+01   4.5203E-06  0.0204
   2.2455E+01   2.3001E+01   3.8583E-06  0.0218
   2.3001E+01   2.3561E+01   3.4415E-06  0.0228
   2.3561E+01   2.4134E+01   2.9742E-06  0.0242
   2.4134E+01   2.4721E+01   2.5953E-06  0.0256
   2.4721E+01   2.5323E+01   2.1613E-06  0.0277
   2.5323E+01   2.5939E+01   1.9136E-06  0.0291
   2.5939E+01   2.6570E+01   1.5639E-06  0.0318
   2.6570E+01   2.7217E+01   1.2715E-06  0.0349
   2.7217E+01   2.7879E+01   1.1114E-06  0.0369
   2.7879E+01   2.8557E+01   9.3614E-07  0.0397
   2.8557E+01   2.9252E+01   6.8219E-07  0.0459
   2.9252E+01   2.9964E+01   6.0557E-07  0.0482
   2.9964E+01   3.0693E+01   4.9380E-07  0.0527
   3.0693E+01   3.1440E+01   3.7628E-07  0.0597
   3.1440E+01   3.2205E+01   3.4512E-07  0.0615
   3.2205E+01   3.2988E+01   2.5142E-07  0.0712
   3.2988E+01   3.3791E+01   1.9062E-07  0.0808
   3.3791E+01   3.4613E+01   1.5934E-07  0.0874
   3.4613E+01   3.5455E+01   1.1874E-07  0.1000
   3.5455E+01   3.6318E+01   1.2172E-07  0.0976
   3.6318E+01   3.7201E+01   8.6008E-08  0.1147
   3.7201E+01   3.8106E+01   9.2804E-08  0.1091
   3.8106E+01   3.9034E+01   7.1185E-08  0.1231
   3.9034E+01   3.9983E+01   5.6859E-08  0.1361
   3.9983E+01   4.0956E+01   5.2425E-08  0.1400
   4.0956E+01   4.1953E+01   5.0176E-08  0.1414
   4.1953E+01   4.2973E+01   3.5269E-08  0.1667
   4.2973E+01   4.4019E+01   3.8256E-08  0.1581
   4.4019E+01   4.5090E+01   2.7077E-08  0.1857
   4.5090E+01   4.6187E+01   3.0992E-08  0.1715
   4.6187E+01   4.7311E+01   2.2247E-08  0.2000
   4.7311E+01   4.8462E+01   1.1293E-08  0.2774
   4.8462E+01   4.9641E+01   1.2721E-08  0.2582
   4.9641E+01   5.0849E+01   9.1074E-09  0.3015
   5.0849E+01   5.2086E+01   8.0828E-09  0.3162
   5.2086E+01   5.3353E+01   1.5782E-09  0.7071
   5.3353E+01   5.4651E+01   7.7034E-10  1.0000
   5.4651E+01   5.5981E+01   0.0000E+00  0.0000
   5.5981E+01   5.7343E+01   0.0000E+00  0.0000
   5.7343E+01   5.8738E+01   0.0000E+00  0.0000
   5.8738E+01   6.0168E+01   0.0000E+00  0.0000
   6.0168E+01   6.1632E+01   0.0000E+00  0.0000
   6.1632E+01   6.3131E+01   0.0000E+00  0.0000
   6.3131E+01   6.4667E+01   0.0000E+00  0.0000
   6.4667E+01   6.6240E+01   0.0000E+00  0.0000
   6.6240E+01   6.7852E+01   0.0000E+00  0.0000
   6.7852E+01   6.9503E+01   0.0000E+00  0.0000
   6.9503E+01   7.1194E+01   0.0000E+00  0.0000
   7.1194E+01   7.2926E+01   0.0000E+00  0.0000
   7.2926E+01   7.4701E+01   0.0000E+00  0.0000
   7.4701E+01   7.6518E+01   0.0000E+00  0.0000
   7.6518E+01   7.8380E+01   0.0000E+00  0.0000
   7.8380E+01   8.0287E+01   0.0000E+00  0.0000
   8.0287E+01   8.2240E+01   0.0000E+00  0.0000
   8.2240E+01   8.4241E+01   0.0000E+00  0.0000
   8.4241E+01   8.6291E+01   0.0000E+00  0.0000
   8.6291E+01   8.8391E+01   0.0000E+00  0.0000
   8.8391E+01   9.0541E+01   0.0000E+00  0.0000
   9.0541E+01   9.2744E+01   0.0000E+00  0.0000
   9.2744E+01   9.5001E+01   0.0000E+00  0.0000
   9.5001E+01   9.7312E+01   0.0000E+00  0.0000
   9.7312E+01   9.9680E+01   0.0000E+00  0.0000
   9.9680E+01   1.0211E+02   0.0000E+00  0.0000
   1.0211E+02   1.0459E+02   0.0000E+00  0.0000
   1.0459E+02   1.0713E+02   0.0000E+00  0.0000
   1.0713E+02   1.0974E+02   0.0000E+00  0.0000
   1.0974E+02   1.1241E+02   0.0000E+00  0.0000
   1.1241E+02   1.1515E+02   0.0000E+00  0.0000
   1.1515E+02   1.1795E+02   0.0000E+00  0.0000
   1.1795E+02   1.2082E+02   0.0000E+00  0.0000
   1.2082E+02   1.2376E+02   0.0000E+00  0.0000
   1.2376E+02   1.2677E+02   0.0000E+00  0.0000
   1.2677E+02   1.2985E+02   0.0000E+00  0.0000
   1.2985E+02   1.3301E+02   0.0000E+00  0.0000
   1.3301E+02   1.3625E+02   0.0000E+00  0.0000
   1.3625E+02   1.3956E+02   0.0000E+00  0.0000
   1.3956E+02   1.4296E+02   0.0000E+00  0.0000
   1.4296E+02   1.4644E+02   0.0000E+00  0.0000
   1.4644E+02   1.5000E+02   0.0000E+00  0.0000

#   sum over                 1.0167E-05
'no. =    1   reg = 117 - 217'
msuc: {\huge [t-cross] in region mesh}
msdr: {\it plotted by \ANGEL \version}
msdl: {\it calculated by \PHITS  3.26}
wt: s(0.7)
\vspace{-3}
  region surface crossing
  area  &=&   1.0000E+00 [cm^2]
e:
 
# Information for Restart Calculation
# This calculation was newly started
# istdev =  2 # 1:Batch variance, 2:History variance
# resc2  = 1.00000000000000000E+09 # Total source weight or Total source weight / maxcas
# resc3  = 1.00000000000000000E+09 # Total history number or Total batch number
# maxcas =   500000000 # History / Batch, only used for istdev=1
# bitrseed = 1111100110111101100011010100110001111110100101101011111100101100 # bit data of rseed
