[ T-Cross ]
    title = [t-cross] in region mesh
     mesh =  reg            # mesh type is region-wise
      reg =    1            # number of crossing regions
      non     r-from    r-to       area
      1       120       220        1.000000    
   e-type =    3            # e-mesh is log given by emin, emax and ne
     emin =  1.0000000E-02  # minimum value of e-mesh points
     emax =   150.0000      # maximum value of e-mesh points
#    edel =  2.4039514E-02  # mesh width of e-mesh points
       ne =    400          # number of e-mesh points
#    data = ( e(i), i = 1, ne + 1 )
#           1.00000E-02  1.02433E-02  1.04925E-02  1.07478E-02  1.10093E-02
#           1.12772E-02  1.15516E-02  1.18326E-02  1.21205E-02  1.24154E-02
#           1.27175E-02  1.30269E-02  1.33439E-02  1.36686E-02  1.40011E-02
#           1.43418E-02  1.46907E-02  1.50482E-02  1.54143E-02  1.57894E-02
#           1.61735E-02  1.65670E-02  1.69701E-02  1.73830E-02  1.78060E-02
#           1.82392E-02  1.86830E-02  1.91375E-02  1.96032E-02  2.00801E-02
#           2.05687E-02  2.10692E-02  2.15818E-02  2.21069E-02  2.26448E-02
#           2.31957E-02  2.37601E-02  2.43382E-02  2.49304E-02  2.55369E-02
#           2.61583E-02  2.67947E-02  2.74467E-02  2.81145E-02  2.87985E-02
#           2.94992E-02  3.02169E-02  3.09521E-02  3.17052E-02  3.24766E-02
#           3.32668E-02  3.40762E-02  3.49053E-02  3.57546E-02  3.66246E-02
#           3.75157E-02  3.84284E-02  3.93634E-02  4.03212E-02  4.13022E-02
#           4.23071E-02  4.33365E-02  4.43909E-02  4.54710E-02  4.65773E-02
#           4.77106E-02  4.88714E-02  5.00605E-02  5.12785E-02  5.25262E-02
#           5.38042E-02  5.51133E-02  5.64542E-02  5.78278E-02  5.92348E-02
#           6.06760E-02  6.21523E-02  6.36645E-02  6.52135E-02  6.68002E-02
#           6.84255E-02  7.00904E-02  7.17957E-02  7.35426E-02  7.53319E-02
#           7.71648E-02  7.90423E-02  8.09655E-02  8.29354E-02  8.49533E-02
#           8.70203E-02  8.91376E-02  9.13064E-02  9.35279E-02  9.58035E-02
#           9.81345E-02  1.00522E-01  1.02968E-01  1.05473E-01  1.08040E-01
#           1.10668E-01  1.13361E-01  1.16119E-01  1.18944E-01  1.21838E-01
#           1.24803E-01  1.27839E-01  1.30950E-01  1.34136E-01  1.37399E-01
#           1.40742E-01  1.44167E-01  1.47675E-01  1.51268E-01  1.54948E-01
#           1.58718E-01  1.62580E-01  1.66535E-01  1.70587E-01  1.74738E-01
#           1.78989E-01  1.83344E-01  1.87805E-01  1.92375E-01  1.97055E-01
#           2.01850E-01  2.06761E-01  2.11792E-01  2.16945E-01  2.22223E-01
#           2.27630E-01  2.33169E-01  2.38842E-01  2.44653E-01  2.50605E-01
#           2.56703E-01  2.62949E-01  2.69346E-01  2.75900E-01  2.82613E-01
#           2.89489E-01  2.96532E-01  3.03747E-01  3.11138E-01  3.18708E-01
#           3.26462E-01  3.34405E-01  3.42542E-01  3.50876E-01  3.59413E-01
#           3.68158E-01  3.77116E-01  3.86291E-01  3.95690E-01  4.05317E-01
#           4.15179E-01  4.25281E-01  4.35628E-01  4.46227E-01  4.57084E-01
#           4.68205E-01  4.79597E-01  4.91266E-01  5.03219E-01  5.15463E-01
#           5.28005E-01  5.40851E-01  5.54011E-01  5.67490E-01  5.81298E-01
#           5.95441E-01  6.09929E-01  6.24769E-01  6.39970E-01  6.55541E-01
#           6.71491E-01  6.87828E-01  7.04564E-01  7.21706E-01  7.39266E-01
#           7.57253E-01  7.75678E-01  7.94551E-01  8.13883E-01  8.33685E-01
#           8.53969E-01  8.74747E-01  8.96030E-01  9.17831E-01  9.40163E-01
#           9.63038E-01  9.86469E-01  1.01047E+00  1.03506E+00  1.06024E+00
#           1.08604E+00  1.11246E+00  1.13953E+00  1.16725E+00  1.19565E+00
#           1.22474E+00  1.25454E+00  1.28507E+00  1.31633E+00  1.34836E+00
#           1.38117E+00  1.41477E+00  1.44920E+00  1.48446E+00  1.52057E+00
#           1.55757E+00  1.59547E+00  1.63429E+00  1.67405E+00  1.71478E+00
#           1.75650E+00  1.79924E+00  1.84302E+00  1.88786E+00  1.93379E+00
#           1.98084E+00  2.02904E+00  2.07841E+00  2.12898E+00  2.18078E+00
#           2.23384E+00  2.28819E+00  2.34386E+00  2.40089E+00  2.45930E+00
#           2.51914E+00  2.58043E+00  2.64322E+00  2.70753E+00  2.77341E+00
#           2.84088E+00  2.91001E+00  2.98081E+00  3.05333E+00  3.12762E+00
#           3.20372E+00  3.28167E+00  3.36152E+00  3.44330E+00  3.52708E+00
#           3.61290E+00  3.70080E+00  3.79085E+00  3.88308E+00  3.97756E+00
#           4.07434E+00  4.17347E+00  4.27501E+00  4.37903E+00  4.48557E+00
#           4.59471E+00  4.70650E+00  4.82102E+00  4.93832E+00  5.05847E+00
#           5.18155E+00  5.30762E+00  5.43676E+00  5.56904E+00  5.70453E+00
#           5.84333E+00  5.98550E+00  6.13114E+00  6.28031E+00  6.43312E+00
#           6.58964E+00  6.74997E+00  6.91420E+00  7.08243E+00  7.25475E+00
#           7.43126E+00  7.61207E+00  7.79728E+00  7.98700E+00  8.18133E+00
#           8.38038E+00  8.58428E+00  8.79315E+00  9.00709E+00  9.22624E+00
#           9.45072E+00  9.68067E+00  9.91620E+00  1.01575E+01  1.04046E+01
#           1.06578E+01  1.09171E+01  1.11827E+01  1.14548E+01  1.17335E+01
#           1.20190E+01  1.23114E+01  1.26109E+01  1.29178E+01  1.32321E+01
#           1.35540E+01  1.38838E+01  1.42216E+01  1.45676E+01  1.49221E+01
#           1.52851E+01  1.56570E+01  1.60380E+01  1.64282E+01  1.68279E+01
#           1.72374E+01  1.76568E+01  1.80864E+01  1.85264E+01  1.89772E+01
#           1.94389E+01  1.99119E+01  2.03963E+01  2.08926E+01  2.14009E+01
#           2.19216E+01  2.24550E+01  2.30014E+01  2.35610E+01  2.41343E+01
#           2.47215E+01  2.53230E+01  2.59391E+01  2.65702E+01  2.72167E+01
#           2.78789E+01  2.85572E+01  2.92520E+01  2.99637E+01  3.06928E+01
#           3.14396E+01  3.22045E+01  3.29881E+01  3.37907E+01  3.46128E+01
#           3.54550E+01  3.63177E+01  3.72013E+01  3.81064E+01  3.90336E+01
#           3.99833E+01  4.09561E+01  4.19526E+01  4.29734E+01  4.40189E+01
#           4.50900E+01  4.61870E+01  4.73108E+01  4.84619E+01  4.96410E+01
#           5.08488E+01  5.20860E+01  5.33533E+01  5.46514E+01  5.59812E+01
#           5.73432E+01  5.87384E+01  6.01676E+01  6.16315E+01  6.31311E+01
#           6.46671E+01  6.62405E+01  6.78522E+01  6.95031E+01  7.11941E+01
#           7.29263E+01  7.47007E+01  7.65182E+01  7.83800E+01  8.02870E+01
#           8.22405E+01  8.42414E+01  8.62911E+01  8.83906E+01  9.05412E+01
#           9.27442E+01  9.50007E+01  9.73122E+01  9.96799E+01  1.02105E+02
#           1.04589E+02  1.07134E+02  1.09741E+02  1.12411E+02  1.15146E+02
#           1.17948E+02  1.20817E+02  1.23757E+02  1.26768E+02  1.29852E+02
#           1.33012E+02  1.36248E+02  1.39563E+02  1.42959E+02  1.46437E+02
#           1.50000E+02
     unit =    2            # unit is [1/cm^2/(MeV/n)/source]
     axis =  eng            # axis of output
     file = detector-21.out  # file name of output for the above axis
   output = f-curr          # surface crossing forward current spectrum
     part =  neutron  
# kf/name :  2112     
#    used :        main (  %)        temp (  %)       total (  %)
#  memory :         414 (  0)           0 (  0)         414 (  0)

#------------------------------------------------------------------------------
#newpage:
#   no. =    1   reg = 120 - 220

x: Energy [MeV/n]
y:  F-Curr [1/cm^2/(MeV/n)/source]         
p: xlog ylog afac(0.8) form(0.9)
h: n            x            y(neutron ),hh0l   n 
#  e-lower      e-upper      neutron     r.err 
   1.0000E-02   1.0243E-02   1.4368E-04  0.0755
   1.0243E-02   1.0493E-02   1.5388E-04  0.0722
   1.0493E-02   1.0748E-02   1.4855E-04  0.0726
   1.0748E-02   1.1009E-02   1.4200E-04  0.0733
   1.1009E-02   1.1277E-02   1.4476E-04  0.0718
   1.1277E-02   1.1552E-02   1.5445E-04  0.0687
   1.1552E-02   1.1833E-02   1.5083E-04  0.0686
   1.1833E-02   1.2121E-02   1.2262E-04  0.0751
   1.2121E-02   1.2415E-02   1.2502E-04  0.0736
   1.2415E-02   1.2718E-02   1.2626E-04  0.0724
   1.2718E-02   1.3027E-02   1.2567E-04  0.0716
   1.3027E-02   1.3344E-02   1.1898E-04  0.0728
   1.3344E-02   1.3669E-02   1.0934E-04  0.0750
   1.3669E-02   1.4001E-02   1.2351E-04  0.0697
   1.4001E-02   1.4342E-02   1.1324E-04  0.0720
   1.4342E-02   1.4691E-02   1.1513E-04  0.0705
   1.4691E-02   1.5048E-02   1.1624E-04  0.0693
   1.5048E-02   1.5414E-02   1.1137E-04  0.0700
   1.5414E-02   1.5789E-02   1.0640E-04  0.0707
   1.5789E-02   1.6174E-02   1.1604E-04  0.0670
   1.6174E-02   1.6567E-02   9.6467E-05  0.0724
   1.6567E-02   1.6970E-02   9.8886E-05  0.0707
   1.6970E-02   1.7383E-02   8.5200E-05  0.0754
   1.7383E-02   1.7806E-02   1.0626E-04  0.0667
   1.7806E-02   1.8239E-02   9.2416E-05  0.0706
   1.8239E-02   1.8683E-02   8.8638E-05  0.0713
   1.8683E-02   1.9138E-02   8.4997E-05  0.0718
   1.9138E-02   1.9603E-02   8.5791E-05  0.0706
   1.9603E-02   2.0080E-02   8.5750E-05  0.0699
   2.0080E-02   2.0569E-02   7.3789E-05  0.0744
   2.0569E-02   2.1069E-02   8.8365E-05  0.0671
   2.1069E-02   2.1582E-02   7.8246E-05  0.0706
   2.1582E-02   2.2107E-02   7.7578E-05  0.0700
   2.2107E-02   2.2645E-02   7.5933E-05  0.0699
   2.2645E-02   2.3196E-02   7.1065E-05  0.0714
   2.3196E-02   2.3760E-02   7.2676E-05  0.0698
   2.3760E-02   2.4338E-02   7.2840E-05  0.0689
   2.4338E-02   2.4930E-02   7.1284E-05  0.0687
   2.4930E-02   2.5537E-02   6.3586E-05  0.0720
   2.5537E-02   2.6158E-02   6.8415E-05  0.0685
   2.6158E-02   2.6795E-02   7.1198E-05  0.0664
   2.6795E-02   2.7447E-02   5.4632E-05  0.0749
   2.7447E-02   2.8114E-02   5.7477E-05  0.0720
   2.8114E-02   2.8799E-02   5.9545E-05  0.0700
   2.8799E-02   2.9499E-02   6.9231E-05  0.0642
   2.9499E-02   3.0217E-02   5.9763E-05  0.0682
   3.0217E-02   3.0952E-02   5.9810E-05  0.0674
   3.0952E-02   3.1705E-02   5.6422E-05  0.0685
   3.1705E-02   3.2477E-02   5.3350E-05  0.0697
   3.2477E-02   3.3267E-02   5.3985E-05  0.0684
   3.3267E-02   3.4076E-02   5.8382E-05  0.0650
   3.4076E-02   3.4905E-02   5.3143E-05  0.0673
   3.4905E-02   3.5755E-02   5.2176E-05  0.0671
   3.5755E-02   3.6625E-02   4.8316E-05  0.0689
   3.6625E-02   3.7516E-02   4.7084E-05  0.0690
   3.7516E-02   3.8428E-02   4.7693E-05  0.0677
   3.8428E-02   3.9363E-02   4.9345E-05  0.0658
   3.9363E-02   4.0321E-02   4.3190E-05  0.0694
   4.0321E-02   4.1302E-02   4.5642E-05  0.0667
   4.1302E-02   4.2307E-02   4.3061E-05  0.0679
   4.2307E-02   4.3337E-02   4.1704E-05  0.0681
   4.3337E-02   4.4391E-02   3.9372E-05  0.0693
   4.4391E-02   4.5471E-02   3.8089E-05  0.0697
   4.5471E-02   4.6577E-02   4.1697E-05  0.0658
   4.6577E-02   4.7711E-02   4.3599E-05  0.0635
   4.7711E-02   4.8871E-02   4.6298E-05  0.0610
   4.8871E-02   5.0061E-02   3.4946E-05  0.0693
   5.0061E-02   5.1279E-02   3.7941E-05  0.0657
   5.1279E-02   5.2526E-02   3.7032E-05  0.0657
   5.2526E-02   5.3804E-02   3.6270E-05  0.0657
   5.3804E-02   5.5113E-02   3.6460E-05  0.0647
   5.5113E-02   5.6454E-02   3.3835E-05  0.0664
   5.6454E-02   5.7828E-02   3.5731E-05  0.0638
   5.7828E-02   5.9235E-02   3.4825E-05  0.0638
   5.9235E-02   6.0676E-02   3.2796E-05  0.0650
   6.0676E-02   6.2152E-02   3.2907E-05  0.0641
   6.2152E-02   6.3665E-02   3.1718E-05  0.0645
   6.3665E-02   6.5214E-02   3.2097E-05  0.0634
   6.5214E-02   6.6800E-02   3.0831E-05  0.0638
   6.6800E-02   6.8426E-02   2.9603E-05  0.0644
   6.8426E-02   7.0090E-02   2.7853E-05  0.0657
   7.0090E-02   7.1796E-02   2.9639E-05  0.0628
   7.1796E-02   7.3543E-02   2.4476E-05  0.0684
   7.3543E-02   7.5332E-02   2.7860E-05  0.0633
   7.5332E-02   7.7165E-02   2.3929E-05  0.0675
   7.7165E-02   7.9042E-02   2.4005E-05  0.0665
   7.9042E-02   8.0965E-02   2.3487E-05  0.0665
   8.0965E-02   8.2935E-02   2.4631E-05  0.0642
   8.2935E-02   8.4953E-02   2.5845E-05  0.0619
   8.4953E-02   8.7020E-02   2.2891E-05  0.0650
   8.7020E-02   8.9138E-02   2.6013E-05  0.0602
   8.9138E-02   9.1306E-02   2.2811E-05  0.0635
   9.1306E-02   9.3528E-02   2.1449E-05  0.0647
   9.3528E-02   9.5804E-02   2.0959E-05  0.0647
   9.5804E-02   9.8134E-02   2.2098E-05  0.0623
   9.8134E-02   1.0052E-01   2.1739E-05  0.0620
   1.0052E-01   1.0297E-01   1.8794E-05  0.0659
   1.0297E-01   1.0547E-01   2.1776E-05  0.0605
   1.0547E-01   1.0804E-01   2.2222E-05  0.0592
   1.0804E-01   1.1067E-01   2.2282E-05  0.0584
   1.1067E-01   1.1336E-01   2.3371E-05  0.0563
   1.1336E-01   1.1612E-01   2.6809E-05  0.0519
   1.1612E-01   1.1894E-01   2.5234E-05  0.0529
   1.1894E-01   1.2184E-01   2.6236E-05  0.0513
   1.2184E-01   1.2480E-01   2.8188E-05  0.0489
   1.2480E-01   1.2784E-01   2.8381E-05  0.0481
   1.2784E-01   1.3095E-01   2.8903E-05  0.0471
   1.3095E-01   1.3414E-01   2.8366E-05  0.0470
   1.3414E-01   1.3740E-01   3.1747E-05  0.0439
   1.3740E-01   1.4074E-01   3.3274E-05  0.0423
   1.4074E-01   1.4417E-01   3.3798E-05  0.0415
   1.4417E-01   1.4767E-01   3.3970E-05  0.0409
   1.4767E-01   1.5127E-01   3.3359E-05  0.0408
   1.5127E-01   1.5495E-01   3.5757E-05  0.0389
   1.5495E-01   1.5872E-01   3.7895E-05  0.0374
   1.5872E-01   1.6258E-01   4.0541E-05  0.0357
   1.6258E-01   1.6654E-01   3.9579E-05  0.0357
   1.6654E-01   1.7059E-01   4.1632E-05  0.0344
   1.7059E-01   1.7474E-01   4.0551E-05  0.0344
   1.7474E-01   1.7899E-01   4.2170E-05  0.0334
   1.7899E-01   1.8334E-01   4.1368E-05  0.0333
   1.8334E-01   1.8781E-01   4.8576E-05  0.0303
   1.8781E-01   1.9237E-01   4.7722E-05  0.0302
   1.9237E-01   1.9706E-01   4.6932E-05  0.0301
   1.9706E-01   2.0185E-01   4.8124E-05  0.0294
   2.0185E-01   2.0676E-01   5.0853E-05  0.0283
   2.0676E-01   2.1179E-01   5.0170E-05  0.0281
   2.1179E-01   2.1694E-01   5.4760E-05  0.0266
   2.1694E-01   2.2222E-01   5.3200E-05  0.0267
   2.2222E-01   2.2763E-01   5.4758E-05  0.0260
   2.2763E-01   2.3317E-01   5.5312E-05  0.0255
   2.3317E-01   2.3884E-01   5.8978E-05  0.0244
   2.3884E-01   2.4465E-01   5.7267E-05  0.0245
   2.4465E-01   2.5061E-01   6.2633E-05  0.0231
   2.5061E-01   2.5670E-01   5.9750E-05  0.0234
   2.5670E-01   2.6295E-01   6.2108E-05  0.0227
   2.6295E-01   2.6935E-01   6.1771E-05  0.0225
   2.6935E-01   2.7590E-01   6.4974E-05  0.0216
   2.7590E-01   2.8261E-01   6.6424E-05  0.0211
   2.8261E-01   2.8949E-01   6.8783E-05  0.0205
   2.8949E-01   2.9653E-01   6.8517E-05  0.0203
   2.9653E-01   3.0375E-01   6.7608E-05  0.0202
   3.0375E-01   3.1114E-01   6.7088E-05  0.0200
   3.1114E-01   3.1871E-01   7.1533E-05  0.0192
   3.1871E-01   3.2646E-01   7.1179E-05  0.0190
   3.2646E-01   3.3441E-01   7.4924E-05  0.0183
   3.3441E-01   3.4254E-01   7.3944E-05  0.0182
   3.4254E-01   3.5088E-01   7.6666E-05  0.0177
   3.5088E-01   3.5941E-01   7.6387E-05  0.0175
   3.5941E-01   3.6816E-01   7.7522E-05  0.0171
   3.6816E-01   3.7712E-01   8.0681E-05  0.0166
   3.7712E-01   3.8629E-01   7.9752E-05  0.0165
   3.8629E-01   3.9569E-01   8.0671E-05  0.0162
   3.9569E-01   4.0532E-01   8.0774E-05  0.0160
   4.0532E-01   4.1518E-01   8.2906E-05  0.0156
   4.1518E-01   4.2528E-01   8.4139E-05  0.0153
   4.2528E-01   4.3563E-01   8.3724E-05  0.0152
   4.3563E-01   4.4623E-01   8.4634E-05  0.0149
   4.4623E-01   4.5708E-01   8.4046E-05  0.0148
   4.5708E-01   4.6821E-01   8.9763E-05  0.0141
   4.6821E-01   4.7960E-01   8.7523E-05  0.0141
   4.7960E-01   4.9127E-01   8.6037E-05  0.0141
   4.9127E-01   5.0322E-01   8.5784E-05  0.0139
   5.0322E-01   5.1546E-01   8.7856E-05  0.0136
   5.1546E-01   5.2800E-01   8.9575E-05  0.0133
   5.2800E-01   5.4085E-01   9.0862E-05  0.0130
   5.4085E-01   5.5401E-01   8.9678E-05  0.0130
   5.5401E-01   5.6749E-01   9.2348E-05  0.0126
   5.6749E-01   5.8130E-01   9.1736E-05  0.0125
   5.8130E-01   5.9544E-01   9.1969E-05  0.0124
   5.9544E-01   6.0993E-01   9.3357E-05  0.0121
   6.0993E-01   6.2477E-01   9.3152E-05  0.0120
   6.2477E-01   6.3997E-01   9.2562E-05  0.0119
   6.3997E-01   6.5554E-01   9.1714E-05  0.0118
   6.5554E-01   6.7149E-01   9.1393E-05  0.0117
   6.7149E-01   6.8783E-01   8.9726E-05  0.0116
   6.8783E-01   7.0456E-01   8.9956E-05  0.0115
   7.0456E-01   7.2171E-01   8.9858E-05  0.0113
   7.2171E-01   7.3927E-01   8.9317E-05  0.0112
   7.3927E-01   7.5725E-01   8.8571E-05  0.0112
   7.5725E-01   7.7568E-01   8.9219E-05  0.0110
   7.7568E-01   7.9455E-01   8.8240E-05  0.0109
   7.9455E-01   8.1388E-01   8.6855E-05  0.0109
   8.1388E-01   8.3368E-01   8.5611E-05  0.0108
   8.3368E-01   8.5397E-01   8.5731E-05  0.0107
   8.5397E-01   8.7475E-01   8.3092E-05  0.0107
   8.7475E-01   8.9603E-01   8.2038E-05  0.0106
   8.9603E-01   9.1783E-01   8.1526E-05  0.0105
   9.1783E-01   9.4016E-01   7.8316E-05  0.0106
   9.4016E-01   9.6304E-01   7.9433E-05  0.0104
   9.6304E-01   9.8647E-01   7.5992E-05  0.0105
   9.8647E-01   1.0105E+00   7.4087E-05  0.0105
   1.0105E+00   1.0351E+00   7.2962E-05  0.0105
   1.0351E+00   1.0602E+00   7.2246E-05  0.0104
   1.0602E+00   1.0860E+00   7.0234E-05  0.0104
   1.0860E+00   1.1125E+00   7.0886E-05  0.0102
   1.1125E+00   1.1395E+00   7.0560E-05  0.0101
   1.1395E+00   1.1673E+00   6.9625E-05  0.0101
   1.1673E+00   1.1957E+00   6.8589E-05  0.0100
   1.1957E+00   1.2247E+00   6.9569E-05  0.0098
   1.2247E+00   1.2545E+00   6.6630E-05  0.0099
   1.2545E+00   1.2851E+00   6.6891E-05  0.0098
   1.2851E+00   1.3163E+00   6.5817E-05  0.0097
   1.3163E+00   1.3484E+00   6.5529E-05  0.0096
   1.3484E+00   1.3812E+00   6.5037E-05  0.0095
   1.3812E+00   1.4148E+00   6.4523E-05  0.0094
   1.4148E+00   1.4492E+00   6.2682E-05  0.0094
   1.4492E+00   1.4845E+00   6.2940E-05  0.0093
   1.4845E+00   1.5206E+00   5.9923E-05  0.0094
   1.5206E+00   1.5576E+00   6.0099E-05  0.0093
   1.5576E+00   1.5955E+00   5.7616E-05  0.0093
   1.5955E+00   1.6343E+00   5.7114E-05  0.0092
   1.6343E+00   1.6741E+00   5.5312E-05  0.0093
   1.6741E+00   1.7148E+00   5.3609E-05  0.0093
   1.7148E+00   1.7565E+00   5.2922E-05  0.0092
   1.7565E+00   1.7992E+00   4.9150E-05  0.0094
   1.7992E+00   1.8430E+00   4.5858E-05  0.0096
   1.8430E+00   1.8879E+00   4.2281E-05  0.0099
   1.8879E+00   1.9338E+00   4.0411E-05  0.0100
   1.9338E+00   1.9808E+00   3.9373E-05  0.0100
   1.9808E+00   2.0290E+00   3.7683E-05  0.0101
   2.0290E+00   2.0784E+00   3.7418E-05  0.0100
   2.0784E+00   2.1290E+00   3.8355E-05  0.0097
   2.1290E+00   2.1808E+00   3.7679E-05  0.0096
   2.1808E+00   2.2338E+00   3.7789E-05  0.0095
   2.2338E+00   2.2882E+00   3.7213E-05  0.0095
   2.2882E+00   2.3439E+00   3.5328E-05  0.0096
   2.3439E+00   2.4009E+00   3.4196E-05  0.0097
   2.4009E+00   2.4593E+00   3.3418E-05  0.0097
   2.4593E+00   2.5191E+00   3.3481E-05  0.0096
   2.5191E+00   2.5804E+00   3.2012E-05  0.0097
   2.5804E+00   2.6432E+00   3.1541E-05  0.0096
   2.6432E+00   2.7075E+00   3.1433E-05  0.0095
   2.7075E+00   2.7734E+00   3.0395E-05  0.0096
   2.7734E+00   2.8409E+00   2.9723E-05  0.0096
   2.8409E+00   2.9100E+00   2.9503E-05  0.0095
   2.9100E+00   2.9808E+00   2.9278E-05  0.0095
   2.9808E+00   3.0533E+00   2.8852E-05  0.0094
   3.0533E+00   3.1276E+00   2.8612E-05  0.0094
   3.1276E+00   3.2037E+00   2.7588E-05  0.0094
   3.2037E+00   3.2817E+00   2.7850E-05  0.0093
   3.2817E+00   3.3615E+00   2.7540E-05  0.0092
   3.3615E+00   3.4433E+00   2.7263E-05  0.0092
   3.4433E+00   3.5271E+00   2.7268E-05  0.0091
   3.5271E+00   3.6129E+00   2.7199E-05  0.0090
   3.6129E+00   3.7008E+00   2.6890E-05  0.0089
   3.7008E+00   3.7908E+00   2.6688E-05  0.0089
   3.7908E+00   3.8831E+00   2.6431E-05  0.0088
   3.8831E+00   3.9776E+00   2.6022E-05  0.0088
   3.9776E+00   4.0743E+00   2.5508E-05  0.0088
   4.0743E+00   4.1735E+00   2.5593E-05  0.0086
   4.1735E+00   4.2750E+00   2.5265E-05  0.0086
   4.2750E+00   4.3790E+00   2.4812E-05  0.0086
   4.3790E+00   4.4856E+00   2.4321E-05  0.0086
   4.4856E+00   4.5947E+00   2.3888E-05  0.0085
   4.5947E+00   4.7065E+00   2.3338E-05  0.0085
   4.7065E+00   4.8210E+00   2.2921E-05  0.0085
   4.8210E+00   4.9383E+00   2.3241E-05  0.0084
   4.9383E+00   5.0585E+00   2.2620E-05  0.0084
   5.0585E+00   5.1815E+00   2.2525E-05  0.0083
   5.1815E+00   5.3076E+00   2.2058E-05  0.0083
   5.3076E+00   5.4368E+00   2.2021E-05  0.0082
   5.4368E+00   5.5690E+00   2.1639E-05  0.0082
   5.5690E+00   5.7045E+00   2.1448E-05  0.0081
   5.7045E+00   5.8433E+00   2.1022E-05  0.0081
   5.8433E+00   5.9855E+00   2.0699E-05  0.0081
   5.9855E+00   6.1311E+00   2.0213E-05  0.0081
   6.1311E+00   6.2803E+00   2.0140E-05  0.0080
   6.2803E+00   6.4331E+00   2.0184E-05  0.0079
   6.4331E+00   6.5896E+00   1.9623E-05  0.0079
   6.5896E+00   6.7500E+00   1.9240E-05  0.0079
   6.7500E+00   6.9142E+00   1.9011E-05  0.0079
   6.9142E+00   7.0824E+00   1.8594E-05  0.0079
   7.0824E+00   7.2548E+00   1.8410E-05  0.0078
   7.2548E+00   7.4313E+00   1.8199E-05  0.0078
   7.4313E+00   7.6121E+00   1.7989E-05  0.0077
   7.6121E+00   7.7973E+00   1.7693E-05  0.0077
   7.7973E+00   7.9870E+00   1.7196E-05  0.0077
   7.9870E+00   8.1813E+00   1.6781E-05  0.0077
   8.1813E+00   8.3804E+00   1.6738E-05  0.0077
   8.3804E+00   8.5843E+00   1.6026E-05  0.0077
   8.5843E+00   8.7931E+00   1.5730E-05  0.0077
   8.7931E+00   9.0071E+00   1.5371E-05  0.0077
   9.0071E+00   9.2262E+00   1.5106E-05  0.0077
   9.2262E+00   9.4507E+00   1.4497E-05  0.0078
   9.4507E+00   9.6807E+00   1.4176E-05  0.0078
   9.6807E+00   9.9162E+00   1.3914E-05  0.0078
   9.9162E+00   1.0157E+01   1.4214E-05  0.0076
   1.0157E+01   1.0405E+01   1.3699E-05  0.0077
   1.0405E+01   1.0658E+01   1.3257E-05  0.0077
   1.0658E+01   1.0917E+01   1.2668E-05  0.0078
   1.0917E+01   1.1183E+01   1.2170E-05  0.0079
   1.1183E+01   1.1455E+01   1.1982E-05  0.0078
   1.1455E+01   1.1733E+01   1.1391E-05  0.0079
   1.1733E+01   1.2019E+01   1.1229E-05  0.0079
   1.2019E+01   1.2311E+01   1.0665E-05  0.0080
   1.2311E+01   1.2611E+01   1.0326E-05  0.0080
   1.2611E+01   1.2918E+01   1.0141E-05  0.0080
   1.2918E+01   1.3232E+01   9.6161E-06  0.0081
   1.3232E+01   1.3554E+01   9.3302E-06  0.0082
   1.3554E+01   1.3884E+01   8.8038E-06  0.0083
   1.3884E+01   1.4222E+01   8.6099E-06  0.0083
   1.4222E+01   1.4568E+01   8.1869E-06  0.0084
   1.4568E+01   1.4922E+01   7.8072E-06  0.0085
   1.4922E+01   1.5285E+01   7.3735E-06  0.0086
   1.5285E+01   1.5657E+01   6.9902E-06  0.0088
   1.5657E+01   1.6038E+01   6.5590E-06  0.0089
   1.6038E+01   1.6428E+01   6.1245E-06  0.0091
   1.6428E+01   1.6828E+01   5.8228E-06  0.0093
   1.6828E+01   1.7237E+01   5.4689E-06  0.0094
   1.7237E+01   1.7657E+01   4.9154E-06  0.0098
   1.7657E+01   1.8086E+01   4.5126E-06  0.0102
   1.8086E+01   1.8526E+01   4.2345E-06  0.0104
   1.8526E+01   1.8977E+01   3.9085E-06  0.0107
   1.8977E+01   1.9439E+01   3.5130E-06  0.0111
   1.9439E+01   1.9912E+01   3.1914E-06  0.0115
   1.9912E+01   2.0396E+01   2.8262E-06  0.0121
   2.0396E+01   2.0893E+01   2.4943E-06  0.0127
   2.0893E+01   2.1401E+01   2.2233E-06  0.0133
   2.1401E+01   2.1922E+01   1.9800E-06  0.0139
   2.1922E+01   2.2455E+01   1.7545E-06  0.0146
   2.2455E+01   2.3001E+01   1.5470E-06  0.0154
   2.3001E+01   2.3561E+01   1.3619E-06  0.0162
   2.3561E+01   2.4134E+01   1.1485E-06  0.0174
   2.4134E+01   2.4721E+01   9.6389E-07  0.0188
   2.4721E+01   2.5323E+01   8.3592E-07  0.0199
   2.5323E+01   2.5939E+01   7.1414E-07  0.0213
   2.5939E+01   2.6570E+01   5.8499E-07  0.0233
   2.6570E+01   2.7217E+01   4.7365E-07  0.0256
   2.7217E+01   2.7879E+01   3.7360E-07  0.0284
   2.7879E+01   2.8557E+01   2.9278E-07  0.0317
   2.8557E+01   2.9252E+01   2.4294E-07  0.0344
   2.9252E+01   2.9964E+01   1.8687E-07  0.0388
   2.9964E+01   3.0693E+01   1.5006E-07  0.0428
   3.0693E+01   3.1440E+01   1.2105E-07  0.0470
   3.1440E+01   3.2205E+01   8.4711E-08  0.0556
   3.2205E+01   3.2988E+01   6.4066E-08  0.0631
   3.2988E+01   3.3791E+01   4.9089E-08  0.0712
   3.3791E+01   3.4613E+01   4.6220E-08  0.0725
   3.4613E+01   3.5455E+01   3.7523E-08  0.0796
   3.5455E+01   3.6318E+01   2.5735E-08  0.0949
   3.6318E+01   3.7201E+01   2.0370E-08  0.1054
   3.7201E+01   3.8106E+01   1.6130E-08  0.1170
   3.8106E+01   3.9034E+01   1.7904E-08  0.1098
   3.9034E+01   3.9983E+01   1.6637E-08  0.1125
   3.9983E+01   4.0956E+01   1.2952E-08  0.1260
   4.0956E+01   4.1953E+01   3.0106E-09  0.2582
   4.1953E+01   4.2973E+01   0.0000E+00  0.0000
   4.2973E+01   4.4019E+01   0.0000E+00  0.0000
   4.4019E+01   4.5090E+01   0.0000E+00  0.0000
   4.5090E+01   4.6187E+01   0.0000E+00  0.0000
   4.6187E+01   4.7311E+01   0.0000E+00  0.0000
   4.7311E+01   4.8462E+01   0.0000E+00  0.0000
   4.8462E+01   4.9641E+01   0.0000E+00  0.0000
   4.9641E+01   5.0849E+01   0.0000E+00  0.0000
   5.0849E+01   5.2086E+01   0.0000E+00  0.0000
   5.2086E+01   5.3353E+01   0.0000E+00  0.0000
   5.3353E+01   5.4651E+01   0.0000E+00  0.0000
   5.4651E+01   5.5981E+01   0.0000E+00  0.0000
   5.5981E+01   5.7343E+01   0.0000E+00  0.0000
   5.7343E+01   5.8738E+01   0.0000E+00  0.0000
   5.8738E+01   6.0168E+01   0.0000E+00  0.0000
   6.0168E+01   6.1632E+01   0.0000E+00  0.0000
   6.1632E+01   6.3131E+01   0.0000E+00  0.0000
   6.3131E+01   6.4667E+01   0.0000E+00  0.0000
   6.4667E+01   6.6240E+01   0.0000E+00  0.0000
   6.6240E+01   6.7852E+01   0.0000E+00  0.0000
   6.7852E+01   6.9503E+01   0.0000E+00  0.0000
   6.9503E+01   7.1194E+01   0.0000E+00  0.0000
   7.1194E+01   7.2926E+01   0.0000E+00  0.0000
   7.2926E+01   7.4701E+01   0.0000E+00  0.0000
   7.4701E+01   7.6518E+01   0.0000E+00  0.0000
   7.6518E+01   7.8380E+01   0.0000E+00  0.0000
   7.8380E+01   8.0287E+01   0.0000E+00  0.0000
   8.0287E+01   8.2240E+01   0.0000E+00  0.0000
   8.2240E+01   8.4241E+01   0.0000E+00  0.0000
   8.4241E+01   8.6291E+01   0.0000E+00  0.0000
   8.6291E+01   8.8391E+01   0.0000E+00  0.0000
   8.8391E+01   9.0541E+01   0.0000E+00  0.0000
   9.0541E+01   9.2744E+01   0.0000E+00  0.0000
   9.2744E+01   9.5001E+01   0.0000E+00  0.0000
   9.5001E+01   9.7312E+01   0.0000E+00  0.0000
   9.7312E+01   9.9680E+01   0.0000E+00  0.0000
   9.9680E+01   1.0211E+02   0.0000E+00  0.0000
   1.0211E+02   1.0459E+02   0.0000E+00  0.0000
   1.0459E+02   1.0713E+02   0.0000E+00  0.0000
   1.0713E+02   1.0974E+02   0.0000E+00  0.0000
   1.0974E+02   1.1241E+02   0.0000E+00  0.0000
   1.1241E+02   1.1515E+02   0.0000E+00  0.0000
   1.1515E+02   1.1795E+02   0.0000E+00  0.0000
   1.1795E+02   1.2082E+02   0.0000E+00  0.0000
   1.2082E+02   1.2376E+02   0.0000E+00  0.0000
   1.2376E+02   1.2677E+02   0.0000E+00  0.0000
   1.2677E+02   1.2985E+02   0.0000E+00  0.0000
   1.2985E+02   1.3301E+02   0.0000E+00  0.0000
   1.3301E+02   1.3625E+02   0.0000E+00  0.0000
   1.3625E+02   1.3956E+02   0.0000E+00  0.0000
   1.3956E+02   1.4296E+02   0.0000E+00  0.0000
   1.4296E+02   1.4644E+02   0.0000E+00  0.0000
   1.4644E+02   1.5000E+02   0.0000E+00  0.0000

#   sum over                 2.6329E-06
'no. =    1   reg = 120 - 220'
msuc: {\huge [t-cross] in region mesh}
msdr: {\it plotted by \ANGEL \version}
msdl: {\it calculated by \PHITS  3.26}
wt: s(0.7)
\vspace{-3}
  region surface crossing
  area  &=&   1.0000E+00 [cm^2]
e:
 
# Information for Restart Calculation
# This calculation was newly started
# istdev =  2 # 1:Batch variance, 2:History variance
# resc2  = 5.00000000000000000E+09 # Total source weight or Total source weight / maxcas
# resc3  = 5.00000000000000000E+09 # Total history number or Total batch number
# maxcas =   100000000 # History / Batch, only used for istdev=1
# bitrseed = 0110100000100010111000001110001111001110100100011111101000111001 # bit data of rseed
