[ T-Cross ]
    title = [t-cross] in region mesh
     mesh =  reg            # mesh type is region-wise
      reg =    1            # number of crossing regions
      non     r-from    r-to       area
      1       117       217        1.000000    
   e-type =    3            # e-mesh is log given by emin, emax and ne
     emin =  1.0000000E-02  # minimum value of e-mesh points
     emax =   150.0000      # maximum value of e-mesh points
#    edel =  2.4039514E-02  # mesh width of e-mesh points
       ne =    400          # number of e-mesh points
#    data = ( e(i), i = 1, ne + 1 )
#           1.00000E-02  1.02433E-02  1.04925E-02  1.07478E-02  1.10093E-02
#           1.12772E-02  1.15516E-02  1.18326E-02  1.21205E-02  1.24154E-02
#           1.27175E-02  1.30269E-02  1.33439E-02  1.36686E-02  1.40011E-02
#           1.43418E-02  1.46907E-02  1.50482E-02  1.54143E-02  1.57894E-02
#           1.61735E-02  1.65670E-02  1.69701E-02  1.73830E-02  1.78060E-02
#           1.82392E-02  1.86830E-02  1.91375E-02  1.96032E-02  2.00801E-02
#           2.05687E-02  2.10692E-02  2.15818E-02  2.21069E-02  2.26448E-02
#           2.31957E-02  2.37601E-02  2.43382E-02  2.49304E-02  2.55369E-02
#           2.61583E-02  2.67947E-02  2.74467E-02  2.81145E-02  2.87985E-02
#           2.94992E-02  3.02169E-02  3.09521E-02  3.17052E-02  3.24766E-02
#           3.32668E-02  3.40762E-02  3.49053E-02  3.57546E-02  3.66246E-02
#           3.75157E-02  3.84284E-02  3.93634E-02  4.03212E-02  4.13022E-02
#           4.23071E-02  4.33365E-02  4.43909E-02  4.54710E-02  4.65773E-02
#           4.77106E-02  4.88714E-02  5.00605E-02  5.12785E-02  5.25262E-02
#           5.38042E-02  5.51133E-02  5.64542E-02  5.78278E-02  5.92348E-02
#           6.06760E-02  6.21523E-02  6.36645E-02  6.52135E-02  6.68002E-02
#           6.84255E-02  7.00904E-02  7.17957E-02  7.35426E-02  7.53319E-02
#           7.71648E-02  7.90423E-02  8.09655E-02  8.29354E-02  8.49533E-02
#           8.70203E-02  8.91376E-02  9.13064E-02  9.35279E-02  9.58035E-02
#           9.81345E-02  1.00522E-01  1.02968E-01  1.05473E-01  1.08040E-01
#           1.10668E-01  1.13361E-01  1.16119E-01  1.18944E-01  1.21838E-01
#           1.24803E-01  1.27839E-01  1.30950E-01  1.34136E-01  1.37399E-01
#           1.40742E-01  1.44167E-01  1.47675E-01  1.51268E-01  1.54948E-01
#           1.58718E-01  1.62580E-01  1.66535E-01  1.70587E-01  1.74738E-01
#           1.78989E-01  1.83344E-01  1.87805E-01  1.92375E-01  1.97055E-01
#           2.01850E-01  2.06761E-01  2.11792E-01  2.16945E-01  2.22223E-01
#           2.27630E-01  2.33169E-01  2.38842E-01  2.44653E-01  2.50605E-01
#           2.56703E-01  2.62949E-01  2.69346E-01  2.75900E-01  2.82613E-01
#           2.89489E-01  2.96532E-01  3.03747E-01  3.11138E-01  3.18708E-01
#           3.26462E-01  3.34405E-01  3.42542E-01  3.50876E-01  3.59413E-01
#           3.68158E-01  3.77116E-01  3.86291E-01  3.95690E-01  4.05317E-01
#           4.15179E-01  4.25281E-01  4.35628E-01  4.46227E-01  4.57084E-01
#           4.68205E-01  4.79597E-01  4.91266E-01  5.03219E-01  5.15463E-01
#           5.28005E-01  5.40851E-01  5.54011E-01  5.67490E-01  5.81298E-01
#           5.95441E-01  6.09929E-01  6.24769E-01  6.39970E-01  6.55541E-01
#           6.71491E-01  6.87828E-01  7.04564E-01  7.21706E-01  7.39266E-01
#           7.57253E-01  7.75678E-01  7.94551E-01  8.13883E-01  8.33685E-01
#           8.53969E-01  8.74747E-01  8.96030E-01  9.17831E-01  9.40163E-01
#           9.63038E-01  9.86469E-01  1.01047E+00  1.03506E+00  1.06024E+00
#           1.08604E+00  1.11246E+00  1.13953E+00  1.16725E+00  1.19565E+00
#           1.22474E+00  1.25454E+00  1.28507E+00  1.31633E+00  1.34836E+00
#           1.38117E+00  1.41477E+00  1.44920E+00  1.48446E+00  1.52057E+00
#           1.55757E+00  1.59547E+00  1.63429E+00  1.67405E+00  1.71478E+00
#           1.75650E+00  1.79924E+00  1.84302E+00  1.88786E+00  1.93379E+00
#           1.98084E+00  2.02904E+00  2.07841E+00  2.12898E+00  2.18078E+00
#           2.23384E+00  2.28819E+00  2.34386E+00  2.40089E+00  2.45930E+00
#           2.51914E+00  2.58043E+00  2.64322E+00  2.70753E+00  2.77341E+00
#           2.84088E+00  2.91001E+00  2.98081E+00  3.05333E+00  3.12762E+00
#           3.20372E+00  3.28167E+00  3.36152E+00  3.44330E+00  3.52708E+00
#           3.61290E+00  3.70080E+00  3.79085E+00  3.88308E+00  3.97756E+00
#           4.07434E+00  4.17347E+00  4.27501E+00  4.37903E+00  4.48557E+00
#           4.59471E+00  4.70650E+00  4.82102E+00  4.93832E+00  5.05847E+00
#           5.18155E+00  5.30762E+00  5.43676E+00  5.56904E+00  5.70453E+00
#           5.84333E+00  5.98550E+00  6.13114E+00  6.28031E+00  6.43312E+00
#           6.58964E+00  6.74997E+00  6.91420E+00  7.08243E+00  7.25475E+00
#           7.43126E+00  7.61207E+00  7.79728E+00  7.98700E+00  8.18133E+00
#           8.38038E+00  8.58428E+00  8.79315E+00  9.00709E+00  9.22624E+00
#           9.45072E+00  9.68067E+00  9.91620E+00  1.01575E+01  1.04046E+01
#           1.06578E+01  1.09171E+01  1.11827E+01  1.14548E+01  1.17335E+01
#           1.20190E+01  1.23114E+01  1.26109E+01  1.29178E+01  1.32321E+01
#           1.35540E+01  1.38838E+01  1.42216E+01  1.45676E+01  1.49221E+01
#           1.52851E+01  1.56570E+01  1.60380E+01  1.64282E+01  1.68279E+01
#           1.72374E+01  1.76568E+01  1.80864E+01  1.85264E+01  1.89772E+01
#           1.94389E+01  1.99119E+01  2.03963E+01  2.08926E+01  2.14009E+01
#           2.19216E+01  2.24550E+01  2.30014E+01  2.35610E+01  2.41343E+01
#           2.47215E+01  2.53230E+01  2.59391E+01  2.65702E+01  2.72167E+01
#           2.78789E+01  2.85572E+01  2.92520E+01  2.99637E+01  3.06928E+01
#           3.14396E+01  3.22045E+01  3.29881E+01  3.37907E+01  3.46128E+01
#           3.54550E+01  3.63177E+01  3.72013E+01  3.81064E+01  3.90336E+01
#           3.99833E+01  4.09561E+01  4.19526E+01  4.29734E+01  4.40189E+01
#           4.50900E+01  4.61870E+01  4.73108E+01  4.84619E+01  4.96410E+01
#           5.08488E+01  5.20860E+01  5.33533E+01  5.46514E+01  5.59812E+01
#           5.73432E+01  5.87384E+01  6.01676E+01  6.16315E+01  6.31311E+01
#           6.46671E+01  6.62405E+01  6.78522E+01  6.95031E+01  7.11941E+01
#           7.29263E+01  7.47007E+01  7.65182E+01  7.83800E+01  8.02870E+01
#           8.22405E+01  8.42414E+01  8.62911E+01  8.83906E+01  9.05412E+01
#           9.27442E+01  9.50007E+01  9.73122E+01  9.96799E+01  1.02105E+02
#           1.04589E+02  1.07134E+02  1.09741E+02  1.12411E+02  1.15146E+02
#           1.17948E+02  1.20817E+02  1.23757E+02  1.26768E+02  1.29852E+02
#           1.33012E+02  1.36248E+02  1.39563E+02  1.42959E+02  1.46437E+02
#           1.50000E+02
     unit =    2            # unit is [1/cm^2/(MeV/n)/source]
     axis =  eng            # axis of output
     file = detector-18.out  # file name of output for the above axis
   output = f-curr          # surface crossing forward current spectrum
     part =  neutron  
# kf/name :  2112     
#    used :        main (  %)        temp (  %)       total (  %)
#  memory :         414 (  0)           0 (  0)         414 (  0)

#------------------------------------------------------------------------------
#newpage:
#   no. =    1   reg = 117 - 217

x: Energy [MeV/n]
y:  F-Curr [1/cm^2/(MeV/n)/source]         
p: xlog ylog afac(0.8) form(0.9)
h: n            x            y(neutron ),hh0l   n 
#  e-lower      e-upper      neutron     r.err 
   1.0000E-02   1.0243E-02   9.1404E-03  0.0095
   1.0243E-02   1.0493E-02   8.8818E-03  0.0095
   1.0493E-02   1.0748E-02   8.6854E-03  0.0095
   1.0748E-02   1.1009E-02   8.5454E-03  0.0094
   1.1009E-02   1.1277E-02   8.3964E-03  0.0094
   1.1277E-02   1.1552E-02   8.0683E-03  0.0095
   1.1552E-02   1.1833E-02   7.9647E-03  0.0094
   1.1833E-02   1.2121E-02   7.8156E-03  0.0094
   1.2121E-02   1.2415E-02   7.5472E-03  0.0095
   1.2415E-02   1.2718E-02   7.3852E-03  0.0094
   1.2718E-02   1.3027E-02   7.4587E-03  0.0093
   1.3027E-02   1.3344E-02   7.0171E-03  0.0095
   1.3344E-02   1.3669E-02   6.9708E-03  0.0094
   1.3669E-02   1.4001E-02   6.7685E-03  0.0094
   1.4001E-02   1.4342E-02   6.6678E-03  0.0094
   1.4342E-02   1.4691E-02   6.5811E-03  0.0093
   1.4691E-02   1.5048E-02   6.5521E-03  0.0092
   1.5048E-02   1.5414E-02   6.3719E-03  0.0092
   1.5414E-02   1.5789E-02   6.2342E-03  0.0092
   1.5789E-02   1.6174E-02   6.0747E-03  0.0092
   1.6174E-02   1.6567E-02   5.8955E-03  0.0093
   1.6567E-02   1.6970E-02   5.7724E-03  0.0092
   1.6970E-02   1.7383E-02   5.7523E-03  0.0091
   1.7383E-02   1.7806E-02   5.6749E-03  0.0091
   1.7806E-02   1.8239E-02   5.4666E-03  0.0092
   1.8239E-02   1.8683E-02   5.3268E-03  0.0092
   1.8683E-02   1.9138E-02   5.2333E-03  0.0091
   1.9138E-02   1.9603E-02   5.0878E-03  0.0092
   1.9603E-02   2.0080E-02   5.0283E-03  0.0091
   2.0080E-02   2.0569E-02   4.9234E-03  0.0091
   2.0569E-02   2.1069E-02   4.8745E-03  0.0090
   2.1069E-02   2.1582E-02   4.8052E-03  0.0090
   2.1582E-02   2.2107E-02   4.6395E-03  0.0090
   2.2107E-02   2.2645E-02   4.5210E-03  0.0090
   2.2645E-02   2.3196E-02   4.4868E-03  0.0090
   2.3196E-02   2.3760E-02   4.3703E-03  0.0090
   2.3760E-02   2.4338E-02   4.2538E-03  0.0090
   2.4338E-02   2.4930E-02   4.1583E-03  0.0090
   2.4930E-02   2.5537E-02   4.0729E-03  0.0090
   2.5537E-02   2.6158E-02   3.9672E-03  0.0090
   2.6158E-02   2.6795E-02   3.9572E-03  0.0089
   2.6795E-02   2.7447E-02   3.8492E-03  0.0089
   2.7447E-02   2.8114E-02   3.8173E-03  0.0088
   2.8114E-02   2.8799E-02   3.7405E-03  0.0088
   2.8799E-02   2.9499E-02   3.6415E-03  0.0088
   2.9499E-02   3.0217E-02   3.5343E-03  0.0089
   3.0217E-02   3.0952E-02   3.4997E-03  0.0088
   3.0952E-02   3.1705E-02   3.3951E-03  0.0088
   3.1705E-02   3.2477E-02   3.3428E-03  0.0088
   3.2477E-02   3.3267E-02   3.2621E-03  0.0088
   3.3267E-02   3.4076E-02   3.1922E-03  0.0088
   3.4076E-02   3.4905E-02   3.1754E-03  0.0087
   3.4905E-02   3.5755E-02   3.0589E-03  0.0087
   3.5755E-02   3.6625E-02   2.9461E-03  0.0088
   3.6625E-02   3.7516E-02   2.9476E-03  0.0087
   3.7516E-02   3.8428E-02   2.9091E-03  0.0087
   3.8428E-02   3.9363E-02   2.8284E-03  0.0087
   3.9363E-02   4.0321E-02   2.7883E-03  0.0086
   4.0321E-02   4.1302E-02   2.6996E-03  0.0087
   4.1302E-02   4.2307E-02   2.6606E-03  0.0086
   4.2307E-02   4.3337E-02   2.6062E-03  0.0086
   4.3337E-02   4.4391E-02   2.5447E-03  0.0086
   4.4391E-02   4.5471E-02   2.4973E-03  0.0086
   4.5471E-02   4.6577E-02   2.4333E-03  0.0086
   4.6577E-02   4.7711E-02   2.3866E-03  0.0086
   4.7711E-02   4.8871E-02   2.3459E-03  0.0085
   4.8871E-02   5.0061E-02   2.2902E-03  0.0085
   5.0061E-02   5.1279E-02   2.2666E-03  0.0085
   5.1279E-02   5.2526E-02   2.2207E-03  0.0085
   5.2526E-02   5.3804E-02   2.1357E-03  0.0085
   5.3804E-02   5.5113E-02   2.1311E-03  0.0084
   5.5113E-02   5.6454E-02   2.0927E-03  0.0084
   5.6454E-02   5.7828E-02   2.0384E-03  0.0084
   5.7828E-02   5.9235E-02   1.9749E-03  0.0085
   5.9235E-02   6.0676E-02   1.9349E-03  0.0084
   6.0676E-02   6.2152E-02   1.9079E-03  0.0084
   6.2152E-02   6.3665E-02   1.8485E-03  0.0084
   6.3665E-02   6.5214E-02   1.8212E-03  0.0084
   6.5214E-02   6.6800E-02   1.8092E-03  0.0083
   6.6800E-02   6.8426E-02   1.7601E-03  0.0083
   6.8426E-02   7.0090E-02   1.7129E-03  0.0084
   7.0090E-02   7.1796E-02   1.6790E-03  0.0083
   7.1796E-02   7.3543E-02   1.6683E-03  0.0083
   7.3543E-02   7.5332E-02   1.6122E-03  0.0083
   7.5332E-02   7.7165E-02   1.5945E-03  0.0083
   7.7165E-02   7.9042E-02   1.5452E-03  0.0083
   7.9042E-02   8.0965E-02   1.5067E-03  0.0083
   8.0965E-02   8.2935E-02   1.4679E-03  0.0083
   8.2935E-02   8.4953E-02   1.4646E-03  0.0082
   8.4953E-02   8.7020E-02   1.4205E-03  0.0082
   8.7020E-02   8.9138E-02   1.3852E-03  0.0082
   8.9138E-02   9.1306E-02   1.3755E-03  0.0082
   9.1306E-02   9.3528E-02   1.3324E-03  0.0082
   9.3528E-02   9.5804E-02   1.3078E-03  0.0082
   9.5804E-02   9.8134E-02   1.2749E-03  0.0082
   9.8134E-02   1.0052E-01   1.2627E-03  0.0081
   1.0052E-01   1.0297E-01   1.2121E-03  0.0082
   1.0297E-01   1.0547E-01   1.1898E-03  0.0082
   1.0547E-01   1.0804E-01   1.1784E-03  0.0081
   1.0804E-01   1.1067E-01   1.1548E-03  0.0081
   1.1067E-01   1.1336E-01   1.1386E-03  0.0081
   1.1336E-01   1.1612E-01   1.0942E-03  0.0081
   1.1612E-01   1.1894E-01   1.0760E-03  0.0081
   1.1894E-01   1.2184E-01   1.0549E-03  0.0081
   1.2184E-01   1.2480E-01   1.0467E-03  0.0080
   1.2480E-01   1.2784E-01   9.9938E-04  0.0081
   1.2784E-01   1.3095E-01   9.9764E-04  0.0080
   1.3095E-01   1.3414E-01   9.7660E-04  0.0080
   1.3414E-01   1.3740E-01   9.5243E-04  0.0080
   1.3740E-01   1.4074E-01   9.4093E-04  0.0080
   1.4074E-01   1.4417E-01   9.0117E-04  0.0080
   1.4417E-01   1.4767E-01   9.1136E-04  0.0079
   1.4767E-01   1.5127E-01   8.7751E-04  0.0079
   1.5127E-01   1.5495E-01   8.5396E-04  0.0080
   1.5495E-01   1.5872E-01   8.3440E-04  0.0080
   1.5872E-01   1.6258E-01   8.2321E-04  0.0079
   1.6258E-01   1.6654E-01   8.0454E-04  0.0079
   1.6654E-01   1.7059E-01   7.8735E-04  0.0079
   1.7059E-01   1.7474E-01   7.8466E-04  0.0078
   1.7474E-01   1.7899E-01   7.6498E-04  0.0078
   1.7899E-01   1.8334E-01   7.4035E-04  0.0079
   1.8334E-01   1.8781E-01   7.2467E-04  0.0078
   1.8781E-01   1.9237E-01   7.1717E-04  0.0078
   1.9237E-01   1.9706E-01   7.0380E-04  0.0078
   1.9706E-01   2.0185E-01   7.0736E-04  0.0077
   2.0185E-01   2.0676E-01   7.0943E-04  0.0076
   2.0676E-01   2.1179E-01   7.3077E-04  0.0074
   2.1179E-01   2.1694E-01   7.5150E-04  0.0072
   2.1694E-01   2.2222E-01   7.7080E-04  0.0070
   2.2222E-01   2.2763E-01   8.0194E-04  0.0068
   2.2763E-01   2.3317E-01   8.2097E-04  0.0066
   2.3317E-01   2.3884E-01   8.3870E-04  0.0065
   2.3884E-01   2.4465E-01   8.5217E-04  0.0063
   2.4465E-01   2.5061E-01   8.8159E-04  0.0062
   2.5061E-01   2.5670E-01   9.0226E-04  0.0060
   2.5670E-01   2.6295E-01   9.2442E-04  0.0059
   2.6295E-01   2.6935E-01   9.5610E-04  0.0057
   2.6935E-01   2.7590E-01   9.5436E-04  0.0056
   2.7590E-01   2.8261E-01   9.8874E-04  0.0055
   2.8261E-01   2.8949E-01   1.0101E-03  0.0053
   2.8949E-01   2.9653E-01   1.0438E-03  0.0052
   2.9653E-01   3.0375E-01   1.0558E-03  0.0051
   3.0375E-01   3.1114E-01   1.0826E-03  0.0050
   3.1114E-01   3.1871E-01   1.0928E-03  0.0049
   3.1871E-01   3.2646E-01   1.1157E-03  0.0048
   3.2646E-01   3.3441E-01   1.1416E-03  0.0047
   3.3441E-01   3.4254E-01   1.1617E-03  0.0046
   3.4254E-01   3.5088E-01   1.1806E-03  0.0045
   3.5088E-01   3.5941E-01   1.1971E-03  0.0044
   3.5941E-01   3.6816E-01   1.2171E-03  0.0043
   3.6816E-01   3.7712E-01   1.2289E-03  0.0042
   3.7712E-01   3.8629E-01   1.2468E-03  0.0042
   3.8629E-01   3.9569E-01   1.2724E-03  0.0041
   3.9569E-01   4.0532E-01   1.2907E-03  0.0040
   4.0532E-01   4.1518E-01   1.2938E-03  0.0039
   4.1518E-01   4.2528E-01   1.3240E-03  0.0039
   4.2528E-01   4.3563E-01   1.3425E-03  0.0038
   4.3563E-01   4.4623E-01   1.3432E-03  0.0037
   4.4623E-01   4.5708E-01   1.3627E-03  0.0037
   4.5708E-01   4.6821E-01   1.3714E-03  0.0036
   4.6821E-01   4.7960E-01   1.3838E-03  0.0035
   4.7960E-01   4.9127E-01   1.3924E-03  0.0035
   4.9127E-01   5.0322E-01   1.3931E-03  0.0035
   5.0322E-01   5.1546E-01   1.3979E-03  0.0034
   5.1546E-01   5.2800E-01   1.4201E-03  0.0033
   5.2800E-01   5.4085E-01   1.4167E-03  0.0033
   5.4085E-01   5.5401E-01   1.4243E-03  0.0033
   5.5401E-01   5.6749E-01   1.4300E-03  0.0032
   5.6749E-01   5.8130E-01   1.4292E-03  0.0032
   5.8130E-01   5.9544E-01   1.4238E-03  0.0031
   5.9544E-01   6.0993E-01   1.4226E-03  0.0031
   6.0993E-01   6.2477E-01   1.4136E-03  0.0031
   6.2477E-01   6.3997E-01   1.4104E-03  0.0030
   6.3997E-01   6.5554E-01   1.4083E-03  0.0030
   6.5554E-01   6.7149E-01   1.3997E-03  0.0030
   6.7149E-01   6.8783E-01   1.3898E-03  0.0030
   6.8783E-01   7.0456E-01   1.3700E-03  0.0029
   7.0456E-01   7.2171E-01   1.3596E-03  0.0029
   7.2171E-01   7.3927E-01   1.3418E-03  0.0029
   7.3927E-01   7.5725E-01   1.3272E-03  0.0029
   7.5725E-01   7.7568E-01   1.3066E-03  0.0029
   7.7568E-01   7.9455E-01   1.2826E-03  0.0029
   7.9455E-01   8.1388E-01   1.2626E-03  0.0028
   8.1388E-01   8.3368E-01   1.2332E-03  0.0028
   8.3368E-01   8.5397E-01   1.2123E-03  0.0028
   8.5397E-01   8.7475E-01   1.1856E-03  0.0028
   8.7475E-01   8.9603E-01   1.1607E-03  0.0028
   8.9603E-01   9.1783E-01   1.1295E-03  0.0028
   9.1783E-01   9.4016E-01   1.0960E-03  0.0028
   9.4016E-01   9.6304E-01   1.0709E-03  0.0028
   9.6304E-01   9.8647E-01   1.0408E-03  0.0029
   9.8647E-01   1.0105E+00   1.0081E-03  0.0029
   1.0105E+00   1.0351E+00   1.0010E-03  0.0028
   1.0351E+00   1.0602E+00   1.0018E-03  0.0028
   1.0602E+00   1.0860E+00   1.0106E-03  0.0028
   1.0860E+00   1.1125E+00   1.0091E-03  0.0027
   1.1125E+00   1.1395E+00   1.0246E-03  0.0027
   1.1395E+00   1.1673E+00   1.0297E-03  0.0026
   1.1673E+00   1.1957E+00   1.0502E-03  0.0026
   1.1957E+00   1.2247E+00   1.0576E-03  0.0025
   1.2247E+00   1.2545E+00   1.0557E-03  0.0025
   1.2545E+00   1.2851E+00   1.0546E-03  0.0025
   1.2851E+00   1.3163E+00   1.0561E-03  0.0024
   1.3163E+00   1.3484E+00   1.0606E-03  0.0024
   1.3484E+00   1.3812E+00   1.0584E-03  0.0024
   1.3812E+00   1.4148E+00   1.0710E-03  0.0023
   1.4148E+00   1.4492E+00   1.0639E-03  0.0023
   1.4492E+00   1.4845E+00   1.0552E-03  0.0023
   1.4845E+00   1.5206E+00   1.0446E-03  0.0023
   1.5206E+00   1.5576E+00   1.0326E-03  0.0023
   1.5576E+00   1.5955E+00   1.0289E-03  0.0023
   1.5955E+00   1.6343E+00   1.0201E-03  0.0022
   1.6343E+00   1.6741E+00   1.0192E-03  0.0022
   1.6741E+00   1.7148E+00   1.0250E-03  0.0022
   1.7148E+00   1.7565E+00   1.0129E-03  0.0022
   1.7565E+00   1.7992E+00   1.0028E-03  0.0021
   1.7992E+00   1.8430E+00   9.9129E-04  0.0021
   1.8430E+00   1.8879E+00   9.7084E-04  0.0021
   1.8879E+00   1.9338E+00   9.6657E-04  0.0021
   1.9338E+00   1.9808E+00   9.5969E-04  0.0021
   1.9808E+00   2.0290E+00   9.5659E-04  0.0021
   2.0290E+00   2.0784E+00   9.4215E-04  0.0021
   2.0784E+00   2.1290E+00   9.2297E-04  0.0021
   2.1290E+00   2.1808E+00   9.0106E-04  0.0021
   2.1808E+00   2.2338E+00   8.8828E-04  0.0020
   2.2338E+00   2.2882E+00   8.7212E-04  0.0020
   2.2882E+00   2.3439E+00   8.6357E-04  0.0020
   2.3439E+00   2.4009E+00   8.5645E-04  0.0020
   2.4009E+00   2.4593E+00   8.4931E-04  0.0020
   2.4593E+00   2.5191E+00   8.3549E-04  0.0020
   2.5191E+00   2.5804E+00   8.1642E-04  0.0020
   2.5804E+00   2.6432E+00   7.9897E-04  0.0020
   2.6432E+00   2.7075E+00   7.8444E-04  0.0020
   2.7075E+00   2.7734E+00   7.6940E-04  0.0020
   2.7734E+00   2.8409E+00   7.5085E-04  0.0020
   2.8409E+00   2.9100E+00   7.4172E-04  0.0020
   2.9100E+00   2.9808E+00   7.3381E-04  0.0019
   2.9808E+00   3.0533E+00   7.2094E-04  0.0019
   3.0533E+00   3.1276E+00   7.0291E-04  0.0019
   3.1276E+00   3.2037E+00   6.9034E-04  0.0019
   3.2037E+00   3.2817E+00   6.7667E-04  0.0019
   3.2817E+00   3.3615E+00   6.6136E-04  0.0019
   3.3615E+00   3.4433E+00   6.4409E-04  0.0019
   3.4433E+00   3.5271E+00   6.3358E-04  0.0019
   3.5271E+00   3.6129E+00   6.2288E-04  0.0019
   3.6129E+00   3.7008E+00   6.0984E-04  0.0019
   3.7008E+00   3.7908E+00   5.9308E-04  0.0019
   3.7908E+00   3.8831E+00   5.8168E-04  0.0019
   3.8831E+00   3.9776E+00   5.6727E-04  0.0019
   3.9776E+00   4.0743E+00   5.5608E-04  0.0019
   4.0743E+00   4.1735E+00   5.4111E-04  0.0019
   4.1735E+00   4.2750E+00   5.2704E-04  0.0019
   4.2750E+00   4.3790E+00   5.1334E-04  0.0019
   4.3790E+00   4.4856E+00   4.9933E-04  0.0019
   4.4856E+00   4.5947E+00   4.8646E-04  0.0019
   4.5947E+00   4.7065E+00   4.7026E-04  0.0019
   4.7065E+00   4.8210E+00   4.5657E-04  0.0019
   4.8210E+00   4.9383E+00   4.4229E-04  0.0020
   4.9383E+00   5.0585E+00   4.2302E-04  0.0020
   5.0585E+00   5.1815E+00   4.0929E-04  0.0020
   5.1815E+00   5.3076E+00   3.9570E-04  0.0020
   5.3076E+00   5.4368E+00   3.8266E-04  0.0020
   5.4368E+00   5.5690E+00   3.7077E-04  0.0020
   5.5690E+00   5.7045E+00   3.5839E-04  0.0020
   5.7045E+00   5.8433E+00   3.4613E-04  0.0020
   5.8433E+00   5.9855E+00   3.3245E-04  0.0020
   5.9855E+00   6.1311E+00   3.2348E-04  0.0020
   6.1311E+00   6.2803E+00   3.0945E-04  0.0021
   6.2803E+00   6.4331E+00   2.9913E-04  0.0021
   6.4331E+00   6.5896E+00   2.8781E-04  0.0021
   6.5896E+00   6.7500E+00   2.7611E-04  0.0021
   6.7500E+00   6.9142E+00   2.6470E-04  0.0021
   6.9142E+00   7.0824E+00   2.5387E-04  0.0022
   7.0824E+00   7.2548E+00   2.4333E-04  0.0022
   7.2548E+00   7.4313E+00   2.3242E-04  0.0022
   7.4313E+00   7.6121E+00   2.2223E-04  0.0022
   7.6121E+00   7.7973E+00   2.1200E-04  0.0022
   7.7973E+00   7.9870E+00   2.0254E-04  0.0023
   7.9870E+00   8.1813E+00   1.9262E-04  0.0023
   8.1813E+00   8.3804E+00   1.8380E-04  0.0023
   8.3804E+00   8.5843E+00   1.7568E-04  0.0024
   8.5843E+00   8.7931E+00   1.6794E-04  0.0024
   8.7931E+00   9.0071E+00   1.5937E-04  0.0024
   9.0071E+00   9.2262E+00   1.5197E-04  0.0024
   9.2262E+00   9.4507E+00   1.4426E-04  0.0025
   9.4507E+00   9.6807E+00   1.3778E-04  0.0025
   9.6807E+00   9.9162E+00   1.3083E-04  0.0025
   9.9162E+00   1.0157E+01   1.2508E-04  0.0026
   1.0157E+01   1.0405E+01   1.2258E-04  0.0026
   1.0405E+01   1.0658E+01   1.2316E-04  0.0025
   1.0658E+01   1.0917E+01   1.1967E-04  0.0025
   1.0917E+01   1.1183E+01   1.1528E-04  0.0026
   1.1183E+01   1.1455E+01   1.1045E-04  0.0026
   1.1455E+01   1.1733E+01   1.0510E-04  0.0026
   1.1733E+01   1.2019E+01   9.8453E-05  0.0027
   1.2019E+01   1.2311E+01   9.1459E-05  0.0027
   1.2311E+01   1.2611E+01   8.5332E-05  0.0028
   1.2611E+01   1.2918E+01   8.0613E-05  0.0028
   1.2918E+01   1.3232E+01   7.7068E-05  0.0029
   1.3232E+01   1.3554E+01   7.3298E-05  0.0029
   1.3554E+01   1.3884E+01   6.9114E-05  0.0030
   1.3884E+01   1.4222E+01   6.4905E-05  0.0030
   1.4222E+01   1.4568E+01   6.0860E-05  0.0031
   1.4568E+01   1.4922E+01   5.6593E-05  0.0032
   1.4922E+01   1.5285E+01   5.2119E-05  0.0032
   1.5285E+01   1.5657E+01   4.8860E-05  0.0033
   1.5657E+01   1.6038E+01   4.5486E-05  0.0034
   1.6038E+01   1.6428E+01   4.2393E-05  0.0035
   1.6428E+01   1.6828E+01   3.9159E-05  0.0036
   1.6828E+01   1.7237E+01   3.6669E-05  0.0036
   1.7237E+01   1.7657E+01   3.4038E-05  0.0037
   1.7657E+01   1.8086E+01   3.1819E-05  0.0038
   1.8086E+01   1.8526E+01   2.9661E-05  0.0039
   1.8526E+01   1.8977E+01   2.8209E-05  0.0040
   1.8977E+01   1.9439E+01   2.6435E-05  0.0040
   1.9439E+01   1.9912E+01   2.5210E-05  0.0041
   1.9912E+01   2.0396E+01   2.3225E-05  0.0042
   2.0396E+01   2.0893E+01   2.1563E-05  0.0043
   2.0893E+01   2.1401E+01   2.0105E-05  0.0044
   2.1401E+01   2.1922E+01   1.8628E-05  0.0045
   2.1922E+01   2.2455E+01   1.7173E-05  0.0047
   2.2455E+01   2.3001E+01   1.5919E-05  0.0048
   2.3001E+01   2.3561E+01   1.4625E-05  0.0049
   2.3561E+01   2.4134E+01   1.3305E-05  0.0051
   2.4134E+01   2.4721E+01   1.2352E-05  0.0053
   2.4721E+01   2.5323E+01   1.1315E-05  0.0054
   2.5323E+01   2.5939E+01   1.0425E-05  0.0056
   2.5939E+01   2.6570E+01   9.5535E-06  0.0058
   2.6570E+01   2.7217E+01   8.6744E-06  0.0060
   2.7217E+01   2.7879E+01   7.8982E-06  0.0062
   2.7879E+01   2.8557E+01   7.1855E-06  0.0064
   2.8557E+01   2.9252E+01   6.5099E-06  0.0066
   2.9252E+01   2.9964E+01   5.8618E-06  0.0069
   2.9964E+01   3.0693E+01   5.3662E-06  0.0071
   3.0693E+01   3.1440E+01   4.8108E-06  0.0075
   3.1440E+01   3.2205E+01   4.3179E-06  0.0078
   3.2205E+01   3.2988E+01   3.9104E-06  0.0081
   3.2988E+01   3.3791E+01   3.4639E-06  0.0085
   3.3791E+01   3.4613E+01   3.0950E-06  0.0089
   3.4613E+01   3.5455E+01   2.7477E-06  0.0093
   3.5455E+01   3.6318E+01   2.4385E-06  0.0098
   3.6318E+01   3.7201E+01   2.1488E-06  0.0103
   3.7201E+01   3.8106E+01   1.8870E-06  0.0108
   3.8106E+01   3.9034E+01   1.6515E-06  0.0114
   3.9034E+01   3.9983E+01   1.4413E-06  0.0121
   3.9983E+01   4.0956E+01   1.2956E-06  0.0126
   4.0956E+01   4.1953E+01   1.1171E-06  0.0134
   4.1953E+01   4.2973E+01   9.5519E-07  0.0143
   4.2973E+01   4.4019E+01   8.4241E-07  0.0151
   4.4019E+01   4.5090E+01   7.2305E-07  0.0161
   4.5090E+01   4.6187E+01   6.5702E-07  0.0167
   4.6187E+01   4.7311E+01   5.3249E-07  0.0183
   4.7311E+01   4.8462E+01   4.5765E-07  0.0195
   4.8462E+01   4.9641E+01   3.9776E-07  0.0207
   4.9641E+01   5.0849E+01   3.2290E-07  0.0226
   5.0849E+01   5.2086E+01   2.8031E-07  0.0240
   5.2086E+01   5.3353E+01   2.3846E-07  0.0257
   5.3353E+01   5.4651E+01   1.9659E-07  0.0280
   5.4651E+01   5.5981E+01   1.6891E-07  0.0298
   5.5981E+01   5.7343E+01   1.3700E-07  0.0327
   5.7343E+01   5.8738E+01   1.2457E-07  0.0339
   5.8738E+01   6.0168E+01   9.5441E-08  0.0383
   6.0168E+01   6.1632E+01   8.2791E-08  0.0406
   6.1632E+01   6.3131E+01   6.7354E-08  0.0445
   6.3131E+01   6.4667E+01   5.4817E-08  0.0487
   6.4667E+01   6.6240E+01   3.7498E-08  0.0582
   6.6240E+01   6.7852E+01   3.3009E-08  0.0613
   6.7852E+01   6.9503E+01   2.2049E-08  0.0741
   6.9503E+01   7.1194E+01   1.6676E-08  0.0842
   7.1194E+01   7.2926E+01   1.2931E-08  0.0945
   7.2926E+01   7.4701E+01   9.5809E-09  0.1085
   7.4701E+01   7.6518E+01   7.4827E-09  0.1213
   7.6518E+01   7.8380E+01   5.3713E-09  0.1414
   7.8380E+01   8.0287E+01   3.1462E-09  0.1826
   8.0287E+01   8.2240E+01   2.9691E-09  0.1857
   8.2240E+01   8.4241E+01   2.1989E-09  0.2132
   8.4241E+01   8.6291E+01   1.6588E-09  0.2425
   8.6291E+01   8.8391E+01   8.5733E-10  0.3333
   8.8391E+01   9.0541E+01   1.2090E-09  0.2774
   9.0541E+01   9.2744E+01   4.5394E-10  0.4472
   9.2744E+01   9.5001E+01   8.8631E-11  1.0000
   9.5001E+01   9.7312E+01   3.4610E-10  0.5000
   9.7312E+01   9.9680E+01   8.4471E-11  1.0000
   9.9680E+01   1.0211E+02   0.0000E+00  0.0000
   1.0211E+02   1.0459E+02   1.6101E-10  0.7071
   1.0459E+02   1.0713E+02   0.0000E+00  0.0000
   1.0713E+02   1.0974E+02   0.0000E+00  0.0000
   1.0974E+02   1.1241E+02   0.0000E+00  0.0000
   1.1241E+02   1.1515E+02   0.0000E+00  0.0000
   1.1515E+02   1.1795E+02   0.0000E+00  0.0000
   1.1795E+02   1.2082E+02   0.0000E+00  0.0000
   1.2082E+02   1.2376E+02   0.0000E+00  0.0000
   1.2376E+02   1.2677E+02   0.0000E+00  0.0000
   1.2677E+02   1.2985E+02   0.0000E+00  0.0000
   1.2985E+02   1.3301E+02   0.0000E+00  0.0000
   1.3301E+02   1.3625E+02   0.0000E+00  0.0000
   1.3625E+02   1.3956E+02   0.0000E+00  0.0000
   1.3956E+02   1.4296E+02   0.0000E+00  0.0000
   1.4296E+02   1.4644E+02   0.0000E+00  0.0000
   1.4644E+02   1.5000E+02   0.0000E+00  0.0000

#   sum over                 4.1893E-05
'no. =    1   reg = 117 - 217'
msuc: {\huge [t-cross] in region mesh}
msdr: {\it plotted by \ANGEL \version}
msdl: {\it calculated by \PHITS  3.28}
wt: s(0.7)
\vspace{-3}
  region surface crossing
  area  &=&   1.0000E+00 [cm^2]
e:
 
# Information for Restart Calculation
# This calculation was newly started
# istdev =  2 # 1:Batch variance, 2:History variance
# resc2  = 5.00000000000000000E+09 # Total source weight or Total source weight / maxcas
# resc3  = 5.00000000000000000E+09 # Total history number or Total batch number
# maxcas =   500000000 # History / Batch, only used for istdev=1
# bitrseed = 0110100000100010111000001110001111001110100100011111101000111001 # bit data of rseed
