[ T-Cross ]
    title = [t-cross] in region mesh
     mesh =  reg            # mesh type is region-wise
      reg =    1            # number of crossing regions
      non     r-from    r-to       area
      1       104       204        1.000000    
   e-type =    3            # e-mesh is log given by emin, emax and ne
     emin =  1.0000000E-02  # minimum value of e-mesh points
     emax =   150.0000      # maximum value of e-mesh points
#    edel =  2.4039514E-02  # mesh width of e-mesh points
       ne =    400          # number of e-mesh points
#    data = ( e(i), i = 1, ne + 1 )
#           1.00000E-02  1.02433E-02  1.04925E-02  1.07478E-02  1.10093E-02
#           1.12772E-02  1.15516E-02  1.18326E-02  1.21205E-02  1.24154E-02
#           1.27175E-02  1.30269E-02  1.33439E-02  1.36686E-02  1.40011E-02
#           1.43418E-02  1.46907E-02  1.50482E-02  1.54143E-02  1.57894E-02
#           1.61735E-02  1.65670E-02  1.69701E-02  1.73830E-02  1.78060E-02
#           1.82392E-02  1.86830E-02  1.91375E-02  1.96032E-02  2.00801E-02
#           2.05687E-02  2.10692E-02  2.15818E-02  2.21069E-02  2.26448E-02
#           2.31957E-02  2.37601E-02  2.43382E-02  2.49304E-02  2.55369E-02
#           2.61583E-02  2.67947E-02  2.74467E-02  2.81145E-02  2.87985E-02
#           2.94992E-02  3.02169E-02  3.09521E-02  3.17052E-02  3.24766E-02
#           3.32668E-02  3.40762E-02  3.49053E-02  3.57546E-02  3.66246E-02
#           3.75157E-02  3.84284E-02  3.93634E-02  4.03212E-02  4.13022E-02
#           4.23071E-02  4.33365E-02  4.43909E-02  4.54710E-02  4.65773E-02
#           4.77106E-02  4.88714E-02  5.00605E-02  5.12785E-02  5.25262E-02
#           5.38042E-02  5.51133E-02  5.64542E-02  5.78278E-02  5.92348E-02
#           6.06760E-02  6.21523E-02  6.36645E-02  6.52135E-02  6.68002E-02
#           6.84255E-02  7.00904E-02  7.17957E-02  7.35426E-02  7.53319E-02
#           7.71648E-02  7.90423E-02  8.09655E-02  8.29354E-02  8.49533E-02
#           8.70203E-02  8.91376E-02  9.13064E-02  9.35279E-02  9.58035E-02
#           9.81345E-02  1.00522E-01  1.02968E-01  1.05473E-01  1.08040E-01
#           1.10668E-01  1.13361E-01  1.16119E-01  1.18944E-01  1.21838E-01
#           1.24803E-01  1.27839E-01  1.30950E-01  1.34136E-01  1.37399E-01
#           1.40742E-01  1.44167E-01  1.47675E-01  1.51268E-01  1.54948E-01
#           1.58718E-01  1.62580E-01  1.66535E-01  1.70587E-01  1.74738E-01
#           1.78989E-01  1.83344E-01  1.87805E-01  1.92375E-01  1.97055E-01
#           2.01850E-01  2.06761E-01  2.11792E-01  2.16945E-01  2.22223E-01
#           2.27630E-01  2.33169E-01  2.38842E-01  2.44653E-01  2.50605E-01
#           2.56703E-01  2.62949E-01  2.69346E-01  2.75900E-01  2.82613E-01
#           2.89489E-01  2.96532E-01  3.03747E-01  3.11138E-01  3.18708E-01
#           3.26462E-01  3.34405E-01  3.42542E-01  3.50876E-01  3.59413E-01
#           3.68158E-01  3.77116E-01  3.86291E-01  3.95690E-01  4.05317E-01
#           4.15179E-01  4.25281E-01  4.35628E-01  4.46227E-01  4.57084E-01
#           4.68205E-01  4.79597E-01  4.91266E-01  5.03219E-01  5.15463E-01
#           5.28005E-01  5.40851E-01  5.54011E-01  5.67490E-01  5.81298E-01
#           5.95441E-01  6.09929E-01  6.24769E-01  6.39970E-01  6.55541E-01
#           6.71491E-01  6.87828E-01  7.04564E-01  7.21706E-01  7.39266E-01
#           7.57253E-01  7.75678E-01  7.94551E-01  8.13883E-01  8.33685E-01
#           8.53969E-01  8.74747E-01  8.96030E-01  9.17831E-01  9.40163E-01
#           9.63038E-01  9.86469E-01  1.01047E+00  1.03506E+00  1.06024E+00
#           1.08604E+00  1.11246E+00  1.13953E+00  1.16725E+00  1.19565E+00
#           1.22474E+00  1.25454E+00  1.28507E+00  1.31633E+00  1.34836E+00
#           1.38117E+00  1.41477E+00  1.44920E+00  1.48446E+00  1.52057E+00
#           1.55757E+00  1.59547E+00  1.63429E+00  1.67405E+00  1.71478E+00
#           1.75650E+00  1.79924E+00  1.84302E+00  1.88786E+00  1.93379E+00
#           1.98084E+00  2.02904E+00  2.07841E+00  2.12898E+00  2.18078E+00
#           2.23384E+00  2.28819E+00  2.34386E+00  2.40089E+00  2.45930E+00
#           2.51914E+00  2.58043E+00  2.64322E+00  2.70753E+00  2.77341E+00
#           2.84088E+00  2.91001E+00  2.98081E+00  3.05333E+00  3.12762E+00
#           3.20372E+00  3.28167E+00  3.36152E+00  3.44330E+00  3.52708E+00
#           3.61290E+00  3.70080E+00  3.79085E+00  3.88308E+00  3.97756E+00
#           4.07434E+00  4.17347E+00  4.27501E+00  4.37903E+00  4.48557E+00
#           4.59471E+00  4.70650E+00  4.82102E+00  4.93832E+00  5.05847E+00
#           5.18155E+00  5.30762E+00  5.43676E+00  5.56904E+00  5.70453E+00
#           5.84333E+00  5.98550E+00  6.13114E+00  6.28031E+00  6.43312E+00
#           6.58964E+00  6.74997E+00  6.91420E+00  7.08243E+00  7.25475E+00
#           7.43126E+00  7.61207E+00  7.79728E+00  7.98700E+00  8.18133E+00
#           8.38038E+00  8.58428E+00  8.79315E+00  9.00709E+00  9.22624E+00
#           9.45072E+00  9.68067E+00  9.91620E+00  1.01575E+01  1.04046E+01
#           1.06578E+01  1.09171E+01  1.11827E+01  1.14548E+01  1.17335E+01
#           1.20190E+01  1.23114E+01  1.26109E+01  1.29178E+01  1.32321E+01
#           1.35540E+01  1.38838E+01  1.42216E+01  1.45676E+01  1.49221E+01
#           1.52851E+01  1.56570E+01  1.60380E+01  1.64282E+01  1.68279E+01
#           1.72374E+01  1.76568E+01  1.80864E+01  1.85264E+01  1.89772E+01
#           1.94389E+01  1.99119E+01  2.03963E+01  2.08926E+01  2.14009E+01
#           2.19216E+01  2.24550E+01  2.30014E+01  2.35610E+01  2.41343E+01
#           2.47215E+01  2.53230E+01  2.59391E+01  2.65702E+01  2.72167E+01
#           2.78789E+01  2.85572E+01  2.92520E+01  2.99637E+01  3.06928E+01
#           3.14396E+01  3.22045E+01  3.29881E+01  3.37907E+01  3.46128E+01
#           3.54550E+01  3.63177E+01  3.72013E+01  3.81064E+01  3.90336E+01
#           3.99833E+01  4.09561E+01  4.19526E+01  4.29734E+01  4.40189E+01
#           4.50900E+01  4.61870E+01  4.73108E+01  4.84619E+01  4.96410E+01
#           5.08488E+01  5.20860E+01  5.33533E+01  5.46514E+01  5.59812E+01
#           5.73432E+01  5.87384E+01  6.01676E+01  6.16315E+01  6.31311E+01
#           6.46671E+01  6.62405E+01  6.78522E+01  6.95031E+01  7.11941E+01
#           7.29263E+01  7.47007E+01  7.65182E+01  7.83800E+01  8.02870E+01
#           8.22405E+01  8.42414E+01  8.62911E+01  8.83906E+01  9.05412E+01
#           9.27442E+01  9.50007E+01  9.73122E+01  9.96799E+01  1.02105E+02
#           1.04589E+02  1.07134E+02  1.09741E+02  1.12411E+02  1.15146E+02
#           1.17948E+02  1.20817E+02  1.23757E+02  1.26768E+02  1.29852E+02
#           1.33012E+02  1.36248E+02  1.39563E+02  1.42959E+02  1.46437E+02
#           1.50000E+02
     unit =    2            # unit is [1/cm^2/(MeV/n)/source]
     axis =  eng            # axis of output
     file = detector-05.out  # file name of output for the above axis
   output = f-curr          # surface crossing forward current spectrum
     part =  neutron  
# kf/name :  2112     
#    used :        main (  %)        temp (  %)       total (  %)
#  memory :         414 (  0)           0 (  0)         414 (  0)

#------------------------------------------------------------------------------
#newpage:
#   no. =    1   reg = 104 - 204

x: Energy [MeV/n]
y:  F-Curr [1/cm^2/(MeV/n)/source]         
p: xlog ylog afac(0.8) form(0.9)
h: n            x            y(neutron ),hh0l   n 
#  e-lower      e-upper      neutron     r.err 
   1.0000E-02   1.0243E-02   3.0585E-05  0.1601
   1.0243E-02   1.0493E-02   3.2732E-05  0.1516
   1.0493E-02   1.0748E-02   3.0370E-05  0.1580
   1.0748E-02   1.1009E-02   2.7736E-05  0.1629
   1.1009E-02   1.1277E-02   2.9618E-05  0.1526
   1.1277E-02   1.1552E-02   2.6319E-05  0.1644
   1.1552E-02   1.1833E-02   2.4512E-05  0.1676
   1.1833E-02   1.2121E-02   2.9501E-05  0.1505
   1.2121E-02   1.2415E-02   2.9260E-05  0.1506
   1.2415E-02   1.2718E-02   2.7188E-05  0.1533
   1.2718E-02   1.3027E-02   2.8189E-05  0.1495
   1.3027E-02   1.3344E-02   2.5692E-05  0.1544
   1.3344E-02   1.3669E-02   2.0913E-05  0.1697
   1.3669E-02   1.4001E-02   1.6128E-05  0.1880
   1.4001E-02   1.4342E-02   2.8473E-05  0.1409
   1.4342E-02   1.4691E-02   2.3895E-05  0.1524
   1.4691E-02   1.5048E-02   2.4200E-05  0.1492
   1.5048E-02   1.5414E-02   2.5087E-05  0.1453
   1.5414E-02   1.5789E-02   1.4137E-05  0.1904
   1.5789E-02   1.6174E-02   1.2992E-05  0.1971
   1.6174E-02   1.6567E-02   2.1823E-05  0.1493
   1.6567E-02   1.6970E-02   1.9979E-05  0.1557
   1.6970E-02   1.7383E-02   2.7353E-05  0.1317
   1.7383E-02   1.7806E-02   1.2863E-05  0.1861
   1.7806E-02   1.8239E-02   1.8493E-05  0.1544
   1.8239E-02   1.8683E-02   1.5041E-05  0.1703
   1.8683E-02   1.9138E-02   1.6324E-05  0.1622
   1.9138E-02   1.9603E-02   1.6109E-05  0.1611
   1.9603E-02   2.0080E-02   2.3627E-05  0.1304
   2.0080E-02   2.0569E-02   1.2986E-05  0.1715
   2.0569E-02   2.1069E-02   1.9529E-05  0.1394
   2.1069E-02   2.1582E-02   1.8884E-05  0.1414
   2.1582E-02   2.2107E-02   1.6345E-05  0.1514
   2.2107E-02   2.2645E-02   1.5477E-05  0.1528
   2.2645E-02   2.3196E-02   1.4567E-05  0.1547
   2.3196E-02   2.3760E-02   1.4217E-05  0.1552
   2.3760E-02   2.4338E-02   1.1466E-05  0.1695
   2.4338E-02   2.4930E-02   1.4768E-05  0.1461
   2.4930E-02   2.5537E-02   1.3172E-05  0.1557
   2.5537E-02   2.6158E-02   1.4761E-05  0.1453
   2.6158E-02   2.6795E-02   1.3073E-05  0.1532
   2.6795E-02   2.7447E-02   1.0940E-05  0.1632
   2.7447E-02   2.8114E-02   1.3455E-05  0.1467
   2.8114E-02   2.8799E-02   1.4679E-05  0.1387
   2.8799E-02   2.9499E-02   1.0636E-05  0.1601
   2.9499E-02   3.0217E-02   1.0869E-05  0.1572
   3.0217E-02   3.0952E-02   1.2573E-05  0.1458
   3.0952E-02   3.1705E-02   9.7467E-06  0.1623
   3.1705E-02   3.2477E-02   1.2327E-05  0.1426
   3.2477E-02   3.3267E-02   1.3784E-05  0.1325
   3.3267E-02   3.4076E-02   1.0203E-05  0.1536
   3.4076E-02   3.4905E-02   1.2389E-05  0.1376
   3.4905E-02   3.5755E-02   1.2119E-05  0.1362
   3.5755E-02   3.6625E-02   9.1870E-06  0.1538
   3.6625E-02   3.7516E-02   1.0196E-05  0.1443
   3.7516E-02   3.8428E-02   6.8310E-06  0.1765
   3.8428E-02   3.9363E-02   8.4277E-06  0.1541
   3.9363E-02   4.0321E-02   7.6693E-06  0.1619
   4.0321E-02   4.1302E-02   1.0055E-05  0.1393
   4.1302E-02   4.2307E-02   7.5711E-06  0.1590
   4.2307E-02   4.3337E-02   8.5490E-06  0.1483
   4.3337E-02   4.4391E-02   7.6520E-06  0.1541
   4.4391E-02   4.5471E-02   7.9503E-06  0.1516
   4.5471E-02   4.6577E-02   8.8974E-06  0.1404
   4.6577E-02   4.7711E-02   8.3758E-06  0.1428
   4.7711E-02   4.8871E-02   7.7944E-06  0.1471
   4.8871E-02   5.0061E-02   6.7634E-06  0.1548
   5.0061E-02   5.1279E-02   7.4691E-06  0.1466
   5.1279E-02   5.2526E-02   7.1285E-06  0.1469
   5.2526E-02   5.3804E-02   5.0897E-06  0.1708
   5.3804E-02   5.5113E-02   7.8759E-06  0.1362
   5.5113E-02   5.6454E-02   4.7450E-06  0.1733
   5.6454E-02   5.7828E-02   7.1227E-06  0.1392
   5.7828E-02   5.9235E-02   6.0450E-06  0.1514
   5.9235E-02   6.0676E-02   6.4563E-06  0.1441
   6.0676E-02   6.2152E-02   5.2933E-06  0.1556
   6.2152E-02   6.3665E-02   6.5283E-06  0.1391
   6.3665E-02   6.5214E-02   6.1419E-06  0.1430
   6.5214E-02   6.6800E-02   5.6054E-06  0.1469
   6.6800E-02   6.8426E-02   3.9574E-06  0.1720
   6.8426E-02   7.0090E-02   5.1048E-06  0.1491
   7.0090E-02   7.1796E-02   5.3620E-06  0.1449
   7.1796E-02   7.3543E-02   5.1071E-06  0.1478
   7.3543E-02   7.5332E-02   5.5497E-06  0.1405
   7.5332E-02   7.7165E-02   4.2918E-06  0.1560
   7.7165E-02   7.9042E-02   5.7055E-06  0.1352
   7.9042E-02   8.0965E-02   4.3132E-06  0.1518
   8.0965E-02   8.2935E-02   6.2721E-06  0.1252
   8.2935E-02   8.4953E-02   3.9134E-06  0.1555
   8.4953E-02   8.7020E-02   3.8526E-06  0.1538
   8.7020E-02   8.9138E-02   5.9136E-06  0.1245
   8.9138E-02   9.1306E-02   4.4974E-06  0.1391
   9.1306E-02   9.3528E-02   4.8923E-06  0.1327
   9.3528E-02   9.5804E-02   3.7282E-06  0.1506
   9.5804E-02   9.8134E-02   4.7819E-06  0.1317
   9.8134E-02   1.0052E-01   4.0859E-06  0.1380
   1.0052E-01   1.0297E-01   4.5920E-06  0.1314
   1.0297E-01   1.0547E-01   3.4895E-06  0.1489
   1.0547E-01   1.0804E-01   4.3418E-06  0.1325
   1.0804E-01   1.1067E-01   4.2049E-06  0.1327
   1.1067E-01   1.1336E-01   4.1379E-06  0.1316
   1.1336E-01   1.1612E-01   3.4128E-06  0.1412
   1.1612E-01   1.1894E-01   3.3648E-06  0.1420
   1.1894E-01   1.2184E-01   3.3894E-06  0.1385
   1.2184E-01   1.2480E-01   3.8218E-06  0.1307
   1.2480E-01   1.2784E-01   4.3824E-06  0.1203
   1.2784E-01   1.3095E-01   3.5715E-06  0.1319
   1.3095E-01   1.3414E-01   3.2046E-06  0.1380
   1.3414E-01   1.3740E-01   3.4299E-06  0.1318
   1.3740E-01   1.4074E-01   3.6231E-06  0.1256
   1.4074E-01   1.4417E-01   4.1716E-06  0.1162
   1.4417E-01   1.4767E-01   2.8146E-06  0.1401
   1.4767E-01   1.5127E-01   2.6369E-06  0.1424
   1.5127E-01   1.5495E-01   2.9578E-06  0.1329
   1.5495E-01   1.5872E-01   2.6912E-06  0.1374
   1.5872E-01   1.6258E-01   2.8719E-06  0.1319
   1.6258E-01   1.6654E-01   2.3266E-06  0.1461
   1.6654E-01   1.7059E-01   2.2596E-06  0.1443
   1.7059E-01   1.7474E-01   3.0938E-06  0.1228
   1.7474E-01   1.7899E-01   2.1693E-06  0.1448
   1.7899E-01   1.8334E-01   2.4896E-06  0.1338
   1.8334E-01   1.8781E-01   2.9582E-06  0.1207
   1.8781E-01   1.9237E-01   2.4172E-06  0.1326
   1.9237E-01   1.9706E-01   2.5532E-06  0.1263
   1.9706E-01   2.0185E-01   2.3524E-06  0.1303
   2.0185E-01   2.0676E-01   2.5425E-06  0.1234
   2.0676E-01   2.1179E-01   2.9309E-06  0.1155
   2.1179E-01   2.1694E-01   2.9254E-06  0.1128
   2.1694E-01   2.2222E-01   2.9024E-06  0.1127
   2.2222E-01   2.2763E-01   2.7418E-06  0.1145
   2.2763E-01   2.3317E-01   3.1178E-06  0.1053
   2.3317E-01   2.3884E-01   3.1879E-06  0.1030
   2.3884E-01   2.4465E-01   3.4860E-06  0.0979
   2.4465E-01   2.5061E-01   3.0827E-06  0.1029
   2.5061E-01   2.5670E-01   3.6345E-06  0.0932
   2.5670E-01   2.6295E-01   4.1139E-06  0.0868
   2.6295E-01   2.6935E-01   4.2179E-06  0.0840
   2.6935E-01   2.7590E-01   4.1752E-06  0.0840
   2.7590E-01   2.8261E-01   4.4606E-06  0.0807
   2.8261E-01   2.8949E-01   4.3295E-06  0.0805
   2.8949E-01   2.9653E-01   4.8140E-06  0.0751
   2.9653E-01   3.0375E-01   5.3553E-06  0.0708
   3.0375E-01   3.1114E-01   5.1806E-06  0.0712
   3.1114E-01   3.1871E-01   5.6260E-06  0.0677
   3.1871E-01   3.2646E-01   5.5867E-06  0.0668
   3.2646E-01   3.3441E-01   5.6065E-06  0.0658
   3.3441E-01   3.4254E-01   5.9111E-06  0.0637
   3.4254E-01   3.5088E-01   6.4069E-06  0.0603
   3.5088E-01   3.5941E-01   6.3603E-06  0.0599
   3.5941E-01   3.6816E-01   6.4817E-06  0.0583
   3.6816E-01   3.7712E-01   6.3353E-06  0.0586
   3.7712E-01   3.8629E-01   7.3489E-06  0.0536
   3.8629E-01   3.9569E-01   6.2749E-06  0.0573
   3.9569E-01   4.0532E-01   7.6174E-06  0.0514
   4.0532E-01   4.1518E-01   7.5193E-06  0.0512
   4.1518E-01   4.2528E-01   8.6994E-06  0.0472
   4.2528E-01   4.3563E-01   8.1686E-06  0.0478
   4.3563E-01   4.4623E-01   9.1498E-06  0.0448
   4.4623E-01   4.5708E-01   9.5293E-06  0.0434
   4.5708E-01   4.6821E-01   1.0347E-05  0.0411
   4.6821E-01   4.7960E-01   9.6857E-06  0.0420
   4.7960E-01   4.9127E-01   1.0643E-05  0.0395
   4.9127E-01   5.0322E-01   1.0909E-05  0.0385
   5.0322E-01   5.1546E-01   1.0767E-05  0.0384
   5.1546E-01   5.2800E-01   1.1648E-05  0.0365
   5.2800E-01   5.4085E-01   1.2429E-05  0.0349
   5.4085E-01   5.5401E-01   1.2899E-05  0.0339
   5.5401E-01   5.6749E-01   1.3478E-05  0.0327
   5.6749E-01   5.8130E-01   1.3115E-05  0.0328
   5.8130E-01   5.9544E-01   1.3582E-05  0.0318
   5.9544E-01   6.0993E-01   1.4889E-05  0.0301
   6.0993E-01   6.2477E-01   1.5309E-05  0.0293
   6.2477E-01   6.3997E-01   1.5841E-05  0.0285
   6.3997E-01   6.5554E-01   1.5833E-05  0.0281
   6.5554E-01   6.7149E-01   1.7168E-05  0.0267
   6.7149E-01   6.8783E-01   1.7990E-05  0.0258
   6.8783E-01   7.0456E-01   1.8131E-05  0.0254
   7.0456E-01   7.2171E-01   1.8274E-05  0.0250
   7.2171E-01   7.3927E-01   1.9829E-05  0.0237
   7.3927E-01   7.5725E-01   2.0076E-05  0.0233
   7.5725E-01   7.7568E-01   2.1267E-05  0.0223
   7.7568E-01   7.9455E-01   2.1553E-05  0.0219
   7.9455E-01   8.1388E-01   2.2137E-05  0.0214
   8.1388E-01   8.3368E-01   2.3647E-05  0.0205
   8.3368E-01   8.5397E-01   2.4855E-05  0.0197
   8.5397E-01   8.7475E-01   2.5833E-05  0.0191
   8.7475E-01   8.9603E-01   2.5351E-05  0.0190
   8.9603E-01   9.1783E-01   2.7323E-05  0.0181
   9.1783E-01   9.4016E-01   2.6653E-05  0.0182
   9.4016E-01   9.6304E-01   2.8186E-05  0.0174
   9.6304E-01   9.8647E-01   2.9049E-05  0.0170
   9.8647E-01   1.0105E+00   3.0372E-05  0.0164
   1.0105E+00   1.0351E+00   3.0822E-05  0.0161
   1.0351E+00   1.0602E+00   3.1109E-05  0.0158
   1.0602E+00   1.0860E+00   3.1741E-05  0.0155
   1.0860E+00   1.1125E+00   3.3715E-05  0.0149
   1.1125E+00   1.1395E+00   3.4089E-05  0.0146
   1.1395E+00   1.1673E+00   3.5311E-05  0.0142
   1.1673E+00   1.1957E+00   3.6714E-05  0.0137
   1.1957E+00   1.2247E+00   3.8293E-05  0.0133
   1.2247E+00   1.2545E+00   3.7593E-05  0.0132
   1.2545E+00   1.2851E+00   3.8738E-05  0.0129
   1.2851E+00   1.3163E+00   3.9481E-05  0.0126
   1.3163E+00   1.3484E+00   4.0894E-05  0.0122
   1.3484E+00   1.3812E+00   4.1780E-05  0.0120
   1.3812E+00   1.4148E+00   4.3926E-05  0.0115
   1.4148E+00   1.4492E+00   4.4511E-05  0.0113
   1.4492E+00   1.4845E+00   4.5545E-05  0.0111
   1.4845E+00   1.5206E+00   4.6636E-05  0.0108
   1.5206E+00   1.5576E+00   4.7028E-05  0.0106
   1.5576E+00   1.5955E+00   4.6299E-05  0.0106
   1.5955E+00   1.6343E+00   4.6341E-05  0.0104
   1.6343E+00   1.6741E+00   4.6615E-05  0.0103
   1.6741E+00   1.7148E+00   4.7295E-05  0.0101
   1.7148E+00   1.7565E+00   4.7901E-05  0.0099
   1.7565E+00   1.7992E+00   4.9300E-05  0.0097
   1.7992E+00   1.8430E+00   5.0845E-05  0.0094
   1.8430E+00   1.8879E+00   5.1083E-05  0.0093
   1.8879E+00   1.9338E+00   5.0209E-05  0.0092
   1.9338E+00   1.9808E+00   5.2162E-05  0.0089
   1.9808E+00   2.0290E+00   5.2266E-05  0.0088
   2.0290E+00   2.0784E+00   5.2238E-05  0.0087
   2.0784E+00   2.1290E+00   5.1784E-05  0.0087
   2.1290E+00   2.1808E+00   5.1857E-05  0.0086
   2.1808E+00   2.2338E+00   5.0971E-05  0.0085
   2.2338E+00   2.2882E+00   5.1693E-05  0.0084
   2.2882E+00   2.3439E+00   5.2056E-05  0.0082
   2.3439E+00   2.4009E+00   5.2332E-05  0.0081
   2.4009E+00   2.4593E+00   5.2832E-05  0.0080
   2.4593E+00   2.5191E+00   5.4025E-05  0.0078
   2.5191E+00   2.5804E+00   5.3851E-05  0.0077
   2.5804E+00   2.6432E+00   5.4697E-05  0.0076
   2.6432E+00   2.7075E+00   5.2996E-05  0.0076
   2.7075E+00   2.7734E+00   5.2315E-05  0.0076
   2.7734E+00   2.8409E+00   5.2586E-05  0.0075
   2.8409E+00   2.9100E+00   5.2522E-05  0.0074
   2.9100E+00   2.9808E+00   5.3734E-05  0.0072
   2.9808E+00   3.0533E+00   5.3350E-05  0.0071
   3.0533E+00   3.1276E+00   5.3493E-05  0.0071
   3.1276E+00   3.2037E+00   5.3401E-05  0.0070
   3.2037E+00   3.2817E+00   5.3739E-05  0.0069
   3.2817E+00   3.3615E+00   5.3337E-05  0.0068
   3.3615E+00   3.4433E+00   5.2989E-05  0.0068
   3.4433E+00   3.5271E+00   5.3873E-05  0.0066
   3.5271E+00   3.6129E+00   5.4301E-05  0.0065
   3.6129E+00   3.7008E+00   5.4288E-05  0.0064
   3.7008E+00   3.7908E+00   5.4263E-05  0.0064
   3.7908E+00   3.8831E+00   5.3374E-05  0.0063
   3.8831E+00   3.9776E+00   5.4154E-05  0.0062
   3.9776E+00   4.0743E+00   5.4976E-05  0.0061
   4.0743E+00   4.1735E+00   5.5393E-05  0.0060
   4.1735E+00   4.2750E+00   5.5831E-05  0.0059
   4.2750E+00   4.3790E+00   5.5951E-05  0.0058
   4.3790E+00   4.4856E+00   5.6068E-05  0.0058
   4.4856E+00   4.5947E+00   5.7117E-05  0.0056
   4.5947E+00   4.7065E+00   5.6682E-05  0.0056
   4.7065E+00   4.8210E+00   5.7048E-05  0.0055
   4.8210E+00   4.9383E+00   5.7070E-05  0.0054
   4.9383E+00   5.0585E+00   5.7142E-05  0.0054
   5.0585E+00   5.1815E+00   5.7526E-05  0.0053
   5.1815E+00   5.3076E+00   5.7352E-05  0.0052
   5.3076E+00   5.4368E+00   5.7896E-05  0.0052
   5.4368E+00   5.5690E+00   5.7986E-05  0.0051
   5.5690E+00   5.7045E+00   5.7572E-05  0.0050
   5.7045E+00   5.8433E+00   5.7594E-05  0.0050
   5.8433E+00   5.9855E+00   5.7625E-05  0.0049
   5.9855E+00   6.1311E+00   5.8307E-05  0.0048
   6.1311E+00   6.2803E+00   5.8340E-05  0.0048
   6.2803E+00   6.4331E+00   5.7998E-05  0.0047
   6.4331E+00   6.5896E+00   5.8487E-05  0.0047
   6.5896E+00   6.7500E+00   5.8197E-05  0.0046
   6.7500E+00   6.9142E+00   5.8478E-05  0.0046
   6.9142E+00   7.0824E+00   5.8383E-05  0.0045
   7.0824E+00   7.2548E+00   5.8219E-05  0.0045
   7.2548E+00   7.4313E+00   5.8632E-05  0.0044
   7.4313E+00   7.6121E+00   5.8998E-05  0.0043
   7.6121E+00   7.7973E+00   5.8501E-05  0.0043
   7.7973E+00   7.9870E+00   5.8267E-05  0.0042
   7.9870E+00   8.1813E+00   5.8319E-05  0.0042
   8.1813E+00   8.3804E+00   5.7681E-05  0.0042
   8.3804E+00   8.5843E+00   5.7579E-05  0.0041
   8.5843E+00   8.7931E+00   5.7190E-05  0.0041
   8.7931E+00   9.0071E+00   5.8100E-05  0.0040
   9.0071E+00   9.2262E+00   5.7634E-05  0.0040
   9.2262E+00   9.4507E+00   5.7382E-05  0.0039
   9.4507E+00   9.6807E+00   5.7128E-05  0.0039
   9.6807E+00   9.9162E+00   5.6662E-05  0.0039
   9.9162E+00   1.0157E+01   5.6011E-05  0.0038
   1.0157E+01   1.0405E+01   5.5715E-05  0.0038
   1.0405E+01   1.0658E+01   5.5395E-05  0.0038
   1.0658E+01   1.0917E+01   5.4793E-05  0.0037
   1.0917E+01   1.1183E+01   5.3886E-05  0.0037
   1.1183E+01   1.1455E+01   5.2671E-05  0.0037
   1.1455E+01   1.1733E+01   5.2334E-05  0.0037
   1.1733E+01   1.2019E+01   5.1025E-05  0.0037
   1.2019E+01   1.2311E+01   4.9879E-05  0.0037
   1.2311E+01   1.2611E+01   4.8779E-05  0.0037
   1.2611E+01   1.2918E+01   4.7581E-05  0.0037
   1.2918E+01   1.3232E+01   4.6068E-05  0.0037
   1.3232E+01   1.3554E+01   4.4380E-05  0.0037
   1.3554E+01   1.3884E+01   4.2982E-05  0.0038
   1.3884E+01   1.4222E+01   4.1736E-05  0.0038
   1.4222E+01   1.4568E+01   3.9732E-05  0.0038
   1.4568E+01   1.4922E+01   3.8136E-05  0.0038
   1.4922E+01   1.5285E+01   3.6115E-05  0.0039
   1.5285E+01   1.5657E+01   3.4223E-05  0.0040
   1.5657E+01   1.6038E+01   3.2450E-05  0.0040
   1.6038E+01   1.6428E+01   3.0422E-05  0.0041
   1.6428E+01   1.6828E+01   2.8432E-05  0.0042
   1.6828E+01   1.7237E+01   2.6823E-05  0.0043
   1.7237E+01   1.7657E+01   2.4939E-05  0.0044
   1.7657E+01   1.8086E+01   2.3338E-05  0.0045
   1.8086E+01   1.8526E+01   2.1489E-05  0.0046
   1.8526E+01   1.8977E+01   1.9837E-05  0.0047
   1.8977E+01   1.9439E+01   1.8348E-05  0.0049
   1.9439E+01   1.9912E+01   1.7242E-05  0.0050
   1.9912E+01   2.0396E+01   1.6627E-05  0.0050
   2.0396E+01   2.0893E+01   1.5506E-05  0.0051
   2.0893E+01   2.1401E+01   1.4310E-05  0.0052
   2.1401E+01   2.1922E+01   1.3231E-05  0.0054
   2.1922E+01   2.2455E+01   1.2564E-05  0.0055
   2.2455E+01   2.3001E+01   1.2015E-05  0.0055
   2.3001E+01   2.3561E+01   1.1356E-05  0.0056
   2.3561E+01   2.4134E+01   1.1003E-05  0.0056
   2.4134E+01   2.4721E+01   1.1128E-05  0.0055
   2.4721E+01   2.5323E+01   1.1487E-05  0.0054
   2.5323E+01   2.5939E+01   1.1840E-05  0.0052
   2.5939E+01   2.6570E+01   1.2228E-05  0.0051
   2.6570E+01   2.7217E+01   1.1990E-05  0.0051
   2.7217E+01   2.7879E+01   1.0724E-05  0.0053
   2.7879E+01   2.8557E+01   9.4231E-06  0.0056
   2.8557E+01   2.9252E+01   7.9710E-06  0.0060
   2.9252E+01   2.9964E+01   6.1285E-06  0.0068
   2.9964E+01   3.0693E+01   4.8085E-06  0.0076
   3.0693E+01   3.1440E+01   3.4674E-06  0.0088
   3.1440E+01   3.2205E+01   2.3565E-06  0.0105
   3.2205E+01   3.2988E+01   1.2926E-06  0.0141
   3.2988E+01   3.3791E+01   3.3864E-07  0.0271
   3.3791E+01   3.4613E+01   3.6489E-09  0.2582
   3.4613E+01   3.5455E+01   0.0000E+00  0.0000
   3.5455E+01   3.6318E+01   0.0000E+00  0.0000
   3.6318E+01   3.7201E+01   0.0000E+00  0.0000
   3.7201E+01   3.8106E+01   0.0000E+00  0.0000
   3.8106E+01   3.9034E+01   0.0000E+00  0.0000
   3.9034E+01   3.9983E+01   0.0000E+00  0.0000
   3.9983E+01   4.0956E+01   0.0000E+00  0.0000
   4.0956E+01   4.1953E+01   0.0000E+00  0.0000
   4.1953E+01   4.2973E+01   0.0000E+00  0.0000
   4.2973E+01   4.4019E+01   0.0000E+00  0.0000
   4.4019E+01   4.5090E+01   0.0000E+00  0.0000
   4.5090E+01   4.6187E+01   0.0000E+00  0.0000
   4.6187E+01   4.7311E+01   0.0000E+00  0.0000
   4.7311E+01   4.8462E+01   0.0000E+00  0.0000
   4.8462E+01   4.9641E+01   0.0000E+00  0.0000
   4.9641E+01   5.0849E+01   0.0000E+00  0.0000
   5.0849E+01   5.2086E+01   0.0000E+00  0.0000
   5.2086E+01   5.3353E+01   0.0000E+00  0.0000
   5.3353E+01   5.4651E+01   0.0000E+00  0.0000
   5.4651E+01   5.5981E+01   0.0000E+00  0.0000
   5.5981E+01   5.7343E+01   0.0000E+00  0.0000
   5.7343E+01   5.8738E+01   0.0000E+00  0.0000
   5.8738E+01   6.0168E+01   0.0000E+00  0.0000
   6.0168E+01   6.1632E+01   0.0000E+00  0.0000
   6.1632E+01   6.3131E+01   0.0000E+00  0.0000
   6.3131E+01   6.4667E+01   0.0000E+00  0.0000
   6.4667E+01   6.6240E+01   0.0000E+00  0.0000
   6.6240E+01   6.7852E+01   0.0000E+00  0.0000
   6.7852E+01   6.9503E+01   0.0000E+00  0.0000
   6.9503E+01   7.1194E+01   0.0000E+00  0.0000
   7.1194E+01   7.2926E+01   0.0000E+00  0.0000
   7.2926E+01   7.4701E+01   0.0000E+00  0.0000
   7.4701E+01   7.6518E+01   0.0000E+00  0.0000
   7.6518E+01   7.8380E+01   0.0000E+00  0.0000
   7.8380E+01   8.0287E+01   0.0000E+00  0.0000
   8.0287E+01   8.2240E+01   0.0000E+00  0.0000
   8.2240E+01   8.4241E+01   0.0000E+00  0.0000
   8.4241E+01   8.6291E+01   0.0000E+00  0.0000
   8.6291E+01   8.8391E+01   0.0000E+00  0.0000
   8.8391E+01   9.0541E+01   0.0000E+00  0.0000
   9.0541E+01   9.2744E+01   0.0000E+00  0.0000
   9.2744E+01   9.5001E+01   0.0000E+00  0.0000
   9.5001E+01   9.7312E+01   0.0000E+00  0.0000
   9.7312E+01   9.9680E+01   0.0000E+00  0.0000
   9.9680E+01   1.0211E+02   0.0000E+00  0.0000
   1.0211E+02   1.0459E+02   0.0000E+00  0.0000
   1.0459E+02   1.0713E+02   0.0000E+00  0.0000
   1.0713E+02   1.0974E+02   0.0000E+00  0.0000
   1.0974E+02   1.1241E+02   0.0000E+00  0.0000
   1.1241E+02   1.1515E+02   0.0000E+00  0.0000
   1.1515E+02   1.1795E+02   0.0000E+00  0.0000
   1.1795E+02   1.2082E+02   0.0000E+00  0.0000
   1.2082E+02   1.2376E+02   0.0000E+00  0.0000
   1.2376E+02   1.2677E+02   0.0000E+00  0.0000
   1.2677E+02   1.2985E+02   0.0000E+00  0.0000
   1.2985E+02   1.3301E+02   0.0000E+00  0.0000
   1.3301E+02   1.3625E+02   0.0000E+00  0.0000
   1.3625E+02   1.3956E+02   0.0000E+00  0.0000
   1.3956E+02   1.4296E+02   0.0000E+00  0.0000
   1.4296E+02   1.4644E+02   0.0000E+00  0.0000
   1.4644E+02   1.5000E+02   0.0000E+00  0.0000

#   sum over                 6.6558E-06
'no. =    1   reg = 104 - 204'
msuc: {\huge [t-cross] in region mesh}
msdr: {\it plotted by \ANGEL \version}
msdl: {\it calculated by \PHITS  3.28}
wt: s(0.7)
\vspace{-3}
  region surface crossing
  area  &=&   1.0000E+00 [cm^2]
e:
 
# Information for Restart Calculation
# This calculation was newly started
# istdev =  2 # 1:Batch variance, 2:History variance
# resc2  = 5.00000000000000000E+09 # Total source weight or Total source weight / maxcas
# resc3  = 5.00000000000000000E+09 # Total history number or Total batch number
# maxcas =   500000000 # History / Batch, only used for istdev=1
# bitrseed = 0110100000100010111000001110001111001110100100011111101000111001 # bit data of rseed
