10 <--- remaining batch number

-------------------------------------------------------------------------------
 start calculation
-------------------------------------------------------------------------------

 date = 2022-09-16
 time = 15h 14m 56

