[ T-Cross ]
    title = [t-cross] in region mesh
     mesh =  reg            # mesh type is region-wise
      reg =    1            # number of crossing regions
      non     r-from    r-to       area
      1       110       210        1.000000    
   e-type =    3            # e-mesh is log given by emin, emax and ne
     emin =  1.0000000E-02  # minimum value of e-mesh points
     emax =   150.0000      # maximum value of e-mesh points
#    edel =  2.4039514E-02  # mesh width of e-mesh points
       ne =    400          # number of e-mesh points
#    data = ( e(i), i = 1, ne + 1 )
#           1.00000E-02  1.02433E-02  1.04925E-02  1.07478E-02  1.10093E-02
#           1.12772E-02  1.15516E-02  1.18326E-02  1.21205E-02  1.24154E-02
#           1.27175E-02  1.30269E-02  1.33439E-02  1.36686E-02  1.40011E-02
#           1.43418E-02  1.46907E-02  1.50482E-02  1.54143E-02  1.57894E-02
#           1.61735E-02  1.65670E-02  1.69701E-02  1.73830E-02  1.78060E-02
#           1.82392E-02  1.86830E-02  1.91375E-02  1.96032E-02  2.00801E-02
#           2.05687E-02  2.10692E-02  2.15818E-02  2.21069E-02  2.26448E-02
#           2.31957E-02  2.37601E-02  2.43382E-02  2.49304E-02  2.55369E-02
#           2.61583E-02  2.67947E-02  2.74467E-02  2.81145E-02  2.87985E-02
#           2.94992E-02  3.02169E-02  3.09521E-02  3.17052E-02  3.24766E-02
#           3.32668E-02  3.40762E-02  3.49053E-02  3.57546E-02  3.66246E-02
#           3.75157E-02  3.84284E-02  3.93634E-02  4.03212E-02  4.13022E-02
#           4.23071E-02  4.33365E-02  4.43909E-02  4.54710E-02  4.65773E-02
#           4.77106E-02  4.88714E-02  5.00605E-02  5.12785E-02  5.25262E-02
#           5.38042E-02  5.51133E-02  5.64542E-02  5.78278E-02  5.92348E-02
#           6.06760E-02  6.21523E-02  6.36645E-02  6.52135E-02  6.68002E-02
#           6.84255E-02  7.00904E-02  7.17957E-02  7.35426E-02  7.53319E-02
#           7.71648E-02  7.90423E-02  8.09655E-02  8.29354E-02  8.49533E-02
#           8.70203E-02  8.91376E-02  9.13064E-02  9.35279E-02  9.58035E-02
#           9.81345E-02  1.00522E-01  1.02968E-01  1.05473E-01  1.08040E-01
#           1.10668E-01  1.13361E-01  1.16119E-01  1.18944E-01  1.21838E-01
#           1.24803E-01  1.27839E-01  1.30950E-01  1.34136E-01  1.37399E-01
#           1.40742E-01  1.44167E-01  1.47675E-01  1.51268E-01  1.54948E-01
#           1.58718E-01  1.62580E-01  1.66535E-01  1.70587E-01  1.74738E-01
#           1.78989E-01  1.83344E-01  1.87805E-01  1.92375E-01  1.97055E-01
#           2.01850E-01  2.06761E-01  2.11792E-01  2.16945E-01  2.22223E-01
#           2.27630E-01  2.33169E-01  2.38842E-01  2.44653E-01  2.50605E-01
#           2.56703E-01  2.62949E-01  2.69346E-01  2.75900E-01  2.82613E-01
#           2.89489E-01  2.96532E-01  3.03747E-01  3.11138E-01  3.18708E-01
#           3.26462E-01  3.34405E-01  3.42542E-01  3.50876E-01  3.59413E-01
#           3.68158E-01  3.77116E-01  3.86291E-01  3.95690E-01  4.05317E-01
#           4.15179E-01  4.25281E-01  4.35628E-01  4.46227E-01  4.57084E-01
#           4.68205E-01  4.79597E-01  4.91266E-01  5.03219E-01  5.15463E-01
#           5.28005E-01  5.40851E-01  5.54011E-01  5.67490E-01  5.81298E-01
#           5.95441E-01  6.09929E-01  6.24769E-01  6.39970E-01  6.55541E-01
#           6.71491E-01  6.87828E-01  7.04564E-01  7.21706E-01  7.39266E-01
#           7.57253E-01  7.75678E-01  7.94551E-01  8.13883E-01  8.33685E-01
#           8.53969E-01  8.74747E-01  8.96030E-01  9.17831E-01  9.40163E-01
#           9.63038E-01  9.86469E-01  1.01047E+00  1.03506E+00  1.06024E+00
#           1.08604E+00  1.11246E+00  1.13953E+00  1.16725E+00  1.19565E+00
#           1.22474E+00  1.25454E+00  1.28507E+00  1.31633E+00  1.34836E+00
#           1.38117E+00  1.41477E+00  1.44920E+00  1.48446E+00  1.52057E+00
#           1.55757E+00  1.59547E+00  1.63429E+00  1.67405E+00  1.71478E+00
#           1.75650E+00  1.79924E+00  1.84302E+00  1.88786E+00  1.93379E+00
#           1.98084E+00  2.02904E+00  2.07841E+00  2.12898E+00  2.18078E+00
#           2.23384E+00  2.28819E+00  2.34386E+00  2.40089E+00  2.45930E+00
#           2.51914E+00  2.58043E+00  2.64322E+00  2.70753E+00  2.77341E+00
#           2.84088E+00  2.91001E+00  2.98081E+00  3.05333E+00  3.12762E+00
#           3.20372E+00  3.28167E+00  3.36152E+00  3.44330E+00  3.52708E+00
#           3.61290E+00  3.70080E+00  3.79085E+00  3.88308E+00  3.97756E+00
#           4.07434E+00  4.17347E+00  4.27501E+00  4.37903E+00  4.48557E+00
#           4.59471E+00  4.70650E+00  4.82102E+00  4.93832E+00  5.05847E+00
#           5.18155E+00  5.30762E+00  5.43676E+00  5.56904E+00  5.70453E+00
#           5.84333E+00  5.98550E+00  6.13114E+00  6.28031E+00  6.43312E+00
#           6.58964E+00  6.74997E+00  6.91420E+00  7.08243E+00  7.25475E+00
#           7.43126E+00  7.61207E+00  7.79728E+00  7.98700E+00  8.18133E+00
#           8.38038E+00  8.58428E+00  8.79315E+00  9.00709E+00  9.22624E+00
#           9.45072E+00  9.68067E+00  9.91620E+00  1.01575E+01  1.04046E+01
#           1.06578E+01  1.09171E+01  1.11827E+01  1.14548E+01  1.17335E+01
#           1.20190E+01  1.23114E+01  1.26109E+01  1.29178E+01  1.32321E+01
#           1.35540E+01  1.38838E+01  1.42216E+01  1.45676E+01  1.49221E+01
#           1.52851E+01  1.56570E+01  1.60380E+01  1.64282E+01  1.68279E+01
#           1.72374E+01  1.76568E+01  1.80864E+01  1.85264E+01  1.89772E+01
#           1.94389E+01  1.99119E+01  2.03963E+01  2.08926E+01  2.14009E+01
#           2.19216E+01  2.24550E+01  2.30014E+01  2.35610E+01  2.41343E+01
#           2.47215E+01  2.53230E+01  2.59391E+01  2.65702E+01  2.72167E+01
#           2.78789E+01  2.85572E+01  2.92520E+01  2.99637E+01  3.06928E+01
#           3.14396E+01  3.22045E+01  3.29881E+01  3.37907E+01  3.46128E+01
#           3.54550E+01  3.63177E+01  3.72013E+01  3.81064E+01  3.90336E+01
#           3.99833E+01  4.09561E+01  4.19526E+01  4.29734E+01  4.40189E+01
#           4.50900E+01  4.61870E+01  4.73108E+01  4.84619E+01  4.96410E+01
#           5.08488E+01  5.20860E+01  5.33533E+01  5.46514E+01  5.59812E+01
#           5.73432E+01  5.87384E+01  6.01676E+01  6.16315E+01  6.31311E+01
#           6.46671E+01  6.62405E+01  6.78522E+01  6.95031E+01  7.11941E+01
#           7.29263E+01  7.47007E+01  7.65182E+01  7.83800E+01  8.02870E+01
#           8.22405E+01  8.42414E+01  8.62911E+01  8.83906E+01  9.05412E+01
#           9.27442E+01  9.50007E+01  9.73122E+01  9.96799E+01  1.02105E+02
#           1.04589E+02  1.07134E+02  1.09741E+02  1.12411E+02  1.15146E+02
#           1.17948E+02  1.20817E+02  1.23757E+02  1.26768E+02  1.29852E+02
#           1.33012E+02  1.36248E+02  1.39563E+02  1.42959E+02  1.46437E+02
#           1.50000E+02
     unit =    2            # unit is [1/cm^2/(MeV/n)/source]
     axis =  eng            # axis of output
     file = detector-11.out  # file name of output for the above axis
   output = f-curr          # surface crossing forward current spectrum
     part =  neutron  
# kf/name :  2112     
#    used :        main (  %)        temp (  %)       total (  %)
#  memory :         414 (  0)           0 (  0)         414 (  0)

#------------------------------------------------------------------------------
#newpage:
#   no. =    1   reg = 110 - 210

x: Energy [MeV/n]
y:  F-Curr [1/cm^2/(MeV/n)/source]         
p: xlog ylog afac(0.8) form(0.9)
h: n            x            y(neutron ),hh0l   n 
#  e-lower      e-upper      neutron     r.err 
   1.0000E-02   1.0243E-02   1.8495E-04  0.0667
   1.0243E-02   1.0493E-02   1.7494E-04  0.0677
   1.0493E-02   1.0748E-02   1.5825E-04  0.0704
   1.0748E-02   1.1009E-02   1.6826E-04  0.0674
   1.1009E-02   1.1277E-02   1.4634E-04  0.0714
   1.1277E-02   1.1552E-02   1.5744E-04  0.0680
   1.1552E-02   1.1833E-02   1.7221E-04  0.0643
   1.1833E-02   1.2121E-02   1.4866E-04  0.0684
   1.2121E-02   1.2415E-02   1.5259E-04  0.0667
   1.2415E-02   1.2718E-02   1.7876E-04  0.0609
   1.2718E-02   1.3027E-02   1.4543E-04  0.0667
   1.3027E-02   1.3344E-02   1.5712E-04  0.0634
   1.3344E-02   1.3669E-02   1.4908E-04  0.0643
   1.3669E-02   1.4001E-02   1.6358E-04  0.0606
   1.4001E-02   1.4342E-02   1.3738E-04  0.0654
   1.4342E-02   1.4691E-02   1.4386E-04  0.0631
   1.4691E-02   1.5048E-02   1.4548E-04  0.0620
   1.5048E-02   1.5414E-02   1.5896E-04  0.0586
   1.5414E-02   1.5789E-02   1.4185E-04  0.0613
   1.5789E-02   1.6174E-02   1.5046E-04  0.0588
   1.6174E-02   1.6567E-02   1.3570E-04  0.0612
   1.6567E-02   1.6970E-02   1.5034E-04  0.0574
   1.6970E-02   1.7383E-02   1.3853E-04  0.0591
   1.7383E-02   1.7806E-02   1.3761E-04  0.0586
   1.7806E-02   1.8239E-02   1.2372E-04  0.0611
   1.8239E-02   1.8683E-02   1.4422E-04  0.0559
   1.8683E-02   1.9138E-02   1.3815E-04  0.0564
   1.9138E-02   1.9603E-02   1.1984E-04  0.0599
   1.9603E-02   2.0080E-02   1.2035E-04  0.0590
   2.0080E-02   2.0569E-02   1.1462E-04  0.0598
   2.0569E-02   2.1069E-02   1.1829E-04  0.0581
   2.1069E-02   2.1582E-02   1.1860E-04  0.0574
   2.1582E-02   2.2107E-02   1.2759E-04  0.0546
   2.2107E-02   2.2645E-02   1.1973E-04  0.0557
   2.2645E-02   2.3196E-02   1.1834E-04  0.0554
   2.3196E-02   2.3760E-02   1.1872E-04  0.0546
   2.3760E-02   2.4338E-02   1.2247E-04  0.0531
   2.4338E-02   2.4930E-02   1.0774E-04  0.0560
   2.4930E-02   2.5537E-02   1.0782E-04  0.0553
   2.5537E-02   2.6158E-02   1.1105E-04  0.0538
   2.6158E-02   2.6795E-02   1.1250E-04  0.0529
   2.6795E-02   2.7447E-02   1.0338E-04  0.0545
   2.7447E-02   2.8114E-02   1.0991E-04  0.0522
   2.8114E-02   2.8799E-02   1.0526E-04  0.0527
   2.8799E-02   2.9499E-02   1.0618E-04  0.0518
   2.9499E-02   3.0217E-02   1.0366E-04  0.0518
   3.0217E-02   3.0952E-02   1.0201E-04  0.0516
   3.0952E-02   3.1705E-02   1.0331E-04  0.0507
   3.1705E-02   3.2477E-02   1.0034E-04  0.0508
   3.2477E-02   3.3267E-02   9.1118E-05  0.0527
   3.3267E-02   3.4076E-02   9.5625E-05  0.0508
   3.4076E-02   3.4905E-02   9.7214E-05  0.0498
   3.4905E-02   3.5755E-02   9.9379E-05  0.0487
   3.5755E-02   3.6625E-02   8.6673E-05  0.0515
   3.6625E-02   3.7516E-02   9.5163E-05  0.0486
   3.7516E-02   3.8428E-02   9.3231E-05  0.0485
   3.8428E-02   3.9363E-02   8.6845E-05  0.0496
   3.9363E-02   4.0321E-02   8.5827E-05  0.0493
   4.0321E-02   4.1302E-02   8.5011E-05  0.0490
   4.1302E-02   4.2307E-02   9.4336E-05  0.0459
   4.2307E-02   4.3337E-02   7.6746E-05  0.0503
   4.3337E-02   4.4391E-02   7.6630E-05  0.0498
   4.4391E-02   4.5471E-02   8.0921E-05  0.0478
   4.5471E-02   4.6577E-02   8.4241E-05  0.0463
   4.6577E-02   4.7711E-02   8.0123E-05  0.0469
   4.7711E-02   4.8871E-02   8.1665E-05  0.0459
   4.8871E-02   5.0061E-02   7.1988E-05  0.0483
   5.0061E-02   5.1279E-02   7.6354E-05  0.0464
   5.1279E-02   5.2526E-02   7.1495E-05  0.0474
   5.2526E-02   5.3804E-02   7.6995E-05  0.0451
   5.3804E-02   5.5113E-02   6.7527E-05  0.0476
   5.5113E-02   5.6454E-02   7.5320E-05  0.0446
   5.6454E-02   5.7828E-02   6.5377E-05  0.0472
   5.7828E-02   5.9235E-02   7.3063E-05  0.0441
   5.9235E-02   6.0676E-02   6.8553E-05  0.0450
   6.0676E-02   6.2152E-02   7.1801E-05  0.0434
   6.2152E-02   6.3665E-02   6.5202E-05  0.0450
   6.3665E-02   6.5214E-02   6.6236E-05  0.0442
   6.5214E-02   6.6800E-02   6.2394E-05  0.0449
   6.6800E-02   6.8426E-02   6.0543E-05  0.0451
   6.8426E-02   7.0090E-02   6.4030E-05  0.0433
   7.0090E-02   7.1796E-02   5.8522E-05  0.0448
   7.1796E-02   7.3543E-02   6.0108E-05  0.0436
   7.3543E-02   7.5332E-02   5.8345E-05  0.0438
   7.5332E-02   7.7165E-02   6.0015E-05  0.0426
   7.7165E-02   7.9042E-02   6.1039E-05  0.0418
   7.9042E-02   8.0965E-02   5.5742E-05  0.0432
   8.0965E-02   8.2935E-02   5.7768E-05  0.0419
   8.2935E-02   8.4953E-02   5.6693E-05  0.0418
   8.4953E-02   8.7020E-02   5.0799E-05  0.0436
   8.7020E-02   8.9138E-02   4.9025E-05  0.0439
   8.9138E-02   9.1306E-02   5.1918E-05  0.0421
   9.1306E-02   9.3528E-02   5.0415E-05  0.0423
   9.3528E-02   9.5804E-02   4.7899E-05  0.0428
   9.5804E-02   9.8134E-02   4.8907E-05  0.0419
   9.8134E-02   1.0052E-01   4.6740E-05  0.0423
   1.0052E-01   1.0297E-01   4.7674E-05  0.0414
   1.0297E-01   1.0547E-01   4.7420E-05  0.0410
   1.0547E-01   1.0804E-01   4.5514E-05  0.0414
   1.0804E-01   1.1067E-01   4.6107E-05  0.0406
   1.1067E-01   1.1336E-01   4.3229E-05  0.0415
   1.1336E-01   1.1612E-01   3.9229E-05  0.0430
   1.1612E-01   1.1894E-01   4.2191E-05  0.0410
   1.1894E-01   1.2184E-01   4.1880E-05  0.0406
   1.2184E-01   1.2480E-01   3.9536E-05  0.0413
   1.2480E-01   1.2784E-01   3.9650E-05  0.0408
   1.2784E-01   1.3095E-01   3.6651E-05  0.0419
   1.3095E-01   1.3414E-01   3.8040E-05  0.0406
   1.3414E-01   1.3740E-01   3.6769E-05  0.0408
   1.3740E-01   1.4074E-01   3.6643E-05  0.0404
   1.4074E-01   1.4417E-01   3.4225E-05  0.0413
   1.4417E-01   1.4767E-01   3.2671E-05  0.0418
   1.4767E-01   1.5127E-01   3.3398E-05  0.0408
   1.5127E-01   1.5495E-01   3.3202E-05  0.0405
   1.5495E-01   1.5872E-01   3.3156E-05  0.0400
   1.5872E-01   1.6258E-01   3.0297E-05  0.0413
   1.6258E-01   1.6654E-01   3.0083E-05  0.0410
   1.6654E-01   1.7059E-01   3.1244E-05  0.0397
   1.7059E-01   1.7474E-01   2.8189E-05  0.0413
   1.7474E-01   1.7899E-01   2.8555E-05  0.0406
   1.7899E-01   1.8334E-01   2.5672E-05  0.0423
   1.8334E-01   1.8781E-01   2.8514E-05  0.0397
   1.8781E-01   1.9237E-01   2.6480E-05  0.0407
   1.9237E-01   1.9706E-01   2.3757E-05  0.0424
   1.9706E-01   2.0185E-01   2.3443E-05  0.0422
   2.0185E-01   2.0676E-01   2.3660E-05  0.0415
   2.0676E-01   2.1179E-01   2.3575E-05  0.0411
   2.1179E-01   2.1694E-01   2.2666E-05  0.0414
   2.1694E-01   2.2222E-01   2.2166E-05  0.0413
   2.2222E-01   2.2763E-01   2.0973E-05  0.0420
   2.2763E-01   2.3317E-01   2.0511E-05  0.0420
   2.3317E-01   2.3884E-01   1.9918E-05  0.0421
   2.3884E-01   2.4465E-01   1.9548E-05  0.0420
   2.4465E-01   2.5061E-01   1.7942E-05  0.0433
   2.5061E-01   2.5670E-01   1.7876E-05  0.0428
   2.5670E-01   2.6295E-01   1.7772E-05  0.0424
   2.6295E-01   2.6935E-01   1.7162E-05  0.0427
   2.6935E-01   2.7590E-01   1.6175E-05  0.0434
   2.7590E-01   2.8261E-01   1.5791E-05  0.0434
   2.8261E-01   2.8949E-01   1.5125E-05  0.0439
   2.8949E-01   2.9653E-01   1.4169E-05  0.0448
   2.9653E-01   3.0375E-01   1.3833E-05  0.0448
   3.0375E-01   3.1114E-01   1.3071E-05  0.0455
   3.1114E-01   3.1871E-01   1.3553E-05  0.0442
   3.1871E-01   3.2646E-01   1.2844E-05  0.0448
   3.2646E-01   3.3441E-01   1.2136E-05  0.0455
   3.3441E-01   3.4254E-01   1.2733E-05  0.0439
   3.4254E-01   3.5088E-01   1.0883E-05  0.0469
   3.5088E-01   3.5941E-01   1.2604E-05  0.0431
   3.5941E-01   3.6816E-01   1.1069E-05  0.0455
   3.6816E-01   3.7712E-01   1.0003E-05  0.0472
   3.7712E-01   3.8629E-01   1.0463E-05  0.0456
   3.8629E-01   3.9569E-01   9.8736E-06  0.0464
   3.9569E-01   4.0532E-01   9.0782E-06  0.0478
   4.0532E-01   4.1518E-01   8.0108E-06  0.0503
   4.1518E-01   4.2528E-01   7.6621E-06  0.0508
   4.2528E-01   4.3563E-01   7.5188E-06  0.0507
   4.3563E-01   4.4623E-01   7.5100E-06  0.0501
   4.4623E-01   4.5708E-01   7.4606E-06  0.0497
   4.5708E-01   4.6821E-01   7.0856E-06  0.0504
   4.6821E-01   4.7960E-01   6.6890E-06  0.0512
   4.7960E-01   4.9127E-01   6.3416E-06  0.0520
   4.9127E-01   5.0322E-01   6.5591E-06  0.0505
   5.0322E-01   5.1546E-01   5.6355E-06  0.0538
   5.1546E-01   5.2800E-01   5.7249E-06  0.0528
   5.2800E-01   5.4085E-01   5.5422E-06  0.0530
   5.4085E-01   5.5401E-01   5.2890E-06  0.0536
   5.5401E-01   5.6749E-01   5.1931E-06  0.0535
   5.6749E-01   5.8130E-01   4.9393E-06  0.0542
   5.8130E-01   5.9544E-01   4.6241E-06  0.0553
   5.9544E-01   6.0993E-01   4.2105E-06  0.0573
   6.0993E-01   6.2477E-01   4.2453E-06  0.0563
   6.2477E-01   6.3997E-01   4.2760E-06  0.0555
   6.3997E-01   6.5554E-01   3.8790E-06  0.0575
   6.5554E-01   6.7149E-01   3.7367E-06  0.0579
   6.7149E-01   6.8783E-01   4.1866E-06  0.0541
   6.8783E-01   7.0456E-01   3.8481E-06  0.0557
   7.0456E-01   7.2171E-01   4.1417E-06  0.0531
   7.2171E-01   7.3927E-01   2.8702E-06  0.0630
   7.3927E-01   7.5725E-01   2.9132E-06  0.0618
   7.5725E-01   7.7568E-01   3.2565E-06  0.0577
   7.7568E-01   7.9455E-01   2.8613E-06  0.0609
   7.9455E-01   8.1388E-01   2.7519E-06  0.0613
   8.1388E-01   8.3368E-01   2.9491E-06  0.0585
   8.3368E-01   8.5397E-01   2.5636E-06  0.0620
   8.5397E-01   8.7475E-01   2.7722E-06  0.0589
   8.7475E-01   8.9603E-01   2.4432E-06  0.0620
   8.9603E-01   9.1783E-01   2.6971E-06  0.0583
   9.1783E-01   9.4016E-01   2.1942E-06  0.0639
   9.4016E-01   9.6304E-01   2.5006E-06  0.0591
   9.6304E-01   9.8647E-01   2.1168E-06  0.0635
   9.8647E-01   1.0105E+00   2.3082E-06  0.0601
   1.0105E+00   1.0351E+00   2.3754E-06  0.0587
   1.0351E+00   1.0602E+00   2.5731E-06  0.0556
   1.0602E+00   1.0860E+00   2.4189E-06  0.0566
   1.0860E+00   1.1125E+00   2.7475E-06  0.0525
   1.1125E+00   1.1395E+00   2.9408E-06  0.0501
   1.1395E+00   1.1673E+00   3.0874E-06  0.0483
   1.1673E+00   1.1957E+00   3.0634E-06  0.0479
   1.1957E+00   1.2247E+00   3.4340E-06  0.0447
   1.2247E+00   1.2545E+00   3.2082E-06  0.0457
   1.2545E+00   1.2851E+00   3.3875E-06  0.0440
   1.2851E+00   1.3163E+00   3.5885E-06  0.0422
   1.3163E+00   1.3484E+00   3.9903E-06  0.0396
   1.3484E+00   1.3812E+00   3.8834E-06  0.0396
   1.3812E+00   1.4148E+00   4.1780E-06  0.0377
   1.4148E+00   1.4492E+00   4.2705E-06  0.0369
   1.4492E+00   1.4845E+00   4.1180E-06  0.0371
   1.4845E+00   1.5206E+00   4.3912E-06  0.0355
   1.5206E+00   1.5576E+00   4.6653E-06  0.0340
   1.5576E+00   1.5955E+00   4.9767E-06  0.0326
   1.5955E+00   1.6343E+00   5.3530E-06  0.0310
   1.6343E+00   1.6741E+00   5.1655E-06  0.0312
   1.6741E+00   1.7148E+00   5.4308E-06  0.0301
   1.7148E+00   1.7565E+00   5.6517E-06  0.0291
   1.7565E+00   1.7992E+00   5.5783E-06  0.0290
   1.7992E+00   1.8430E+00   5.5280E-06  0.0287
   1.8430E+00   1.8879E+00   6.0077E-06  0.0272
   1.8879E+00   1.9338E+00   5.8607E-06  0.0273
   1.9338E+00   1.9808E+00   6.0658E-06  0.0265
   1.9808E+00   2.0290E+00   6.1002E-06  0.0261
   2.0290E+00   2.0784E+00   6.2753E-06  0.0254
   2.0784E+00   2.1290E+00   6.5059E-06  0.0247
   2.1290E+00   2.1808E+00   6.2703E-06  0.0248
   2.1808E+00   2.2338E+00   6.1402E-06  0.0248
   2.2338E+00   2.2882E+00   6.4065E-06  0.0240
   2.2882E+00   2.3439E+00   6.3837E-06  0.0237
   2.3439E+00   2.4009E+00   6.2425E-06  0.0237
   2.4009E+00   2.4593E+00   6.3031E-06  0.0233
   2.4593E+00   2.5191E+00   6.3840E-06  0.0229
   2.5191E+00   2.5804E+00   6.1182E-06  0.0231
   2.5804E+00   2.6432E+00   6.0047E-06  0.0230
   2.6432E+00   2.7075E+00   5.9865E-06  0.0228
   2.7075E+00   2.7734E+00   6.2056E-06  0.0221
   2.7734E+00   2.8409E+00   6.1234E-06  0.0220
   2.8409E+00   2.9100E+00   6.3541E-06  0.0213
   2.9100E+00   2.9808E+00   5.9602E-06  0.0218
   2.9808E+00   3.0533E+00   5.9345E-06  0.0216
   3.0533E+00   3.1276E+00   6.0573E-06  0.0211
   3.1276E+00   3.2037E+00   6.0449E-06  0.0209
   3.2037E+00   3.2817E+00   5.5575E-06  0.0215
   3.2817E+00   3.3615E+00   5.6284E-06  0.0211
   3.3615E+00   3.4433E+00   5.5876E-06  0.0209
   3.4433E+00   3.5271E+00   5.6864E-06  0.0205
   3.5271E+00   3.6129E+00   5.5700E-06  0.0205
   3.6129E+00   3.7008E+00   5.5060E-06  0.0203
   3.7008E+00   3.7908E+00   5.3507E-06  0.0204
   3.7908E+00   3.8831E+00   5.2692E-06  0.0203
   3.8831E+00   3.9776E+00   5.3684E-06  0.0199
   3.9776E+00   4.0743E+00   5.2554E-06  0.0198
   4.0743E+00   4.1735E+00   5.1810E-06  0.0197
   4.1735E+00   4.2750E+00   5.2450E-06  0.0194
   4.2750E+00   4.3790E+00   5.0993E-06  0.0194
   4.3790E+00   4.4856E+00   4.8993E-06  0.0196
   4.4856E+00   4.5947E+00   5.0010E-06  0.0191
   4.5947E+00   4.7065E+00   4.8518E-06  0.0192
   4.7065E+00   4.8210E+00   4.7802E-06  0.0191
   4.8210E+00   4.9383E+00   4.8167E-06  0.0188
   4.9383E+00   5.0585E+00   4.8089E-06  0.0186
   5.0585E+00   5.1815E+00   4.6589E-06  0.0187
   5.1815E+00   5.3076E+00   4.6006E-06  0.0186
   5.3076E+00   5.4368E+00   4.4975E-06  0.0186
   5.4368E+00   5.5690E+00   4.5056E-06  0.0183
   5.5690E+00   5.7045E+00   4.2967E-06  0.0185
   5.7045E+00   5.8433E+00   4.2177E-06  0.0185
   5.8433E+00   5.9855E+00   4.1246E-06  0.0185
   5.9855E+00   6.1311E+00   4.1790E-06  0.0181
   6.1311E+00   6.2803E+00   4.0529E-06  0.0182
   6.2803E+00   6.4331E+00   4.1674E-06  0.0177
   6.4331E+00   6.5896E+00   3.9675E-06  0.0179
   6.5896E+00   6.7500E+00   3.8470E-06  0.0180
   6.7500E+00   6.9142E+00   3.7733E-06  0.0180
   6.9142E+00   7.0824E+00   3.5880E-06  0.0182
   7.0824E+00   7.2548E+00   3.4540E-06  0.0183
   7.2548E+00   7.4313E+00   3.4003E-06  0.0183
   7.4313E+00   7.6121E+00   3.4180E-06  0.0180
   7.6121E+00   7.7973E+00   3.2088E-06  0.0183
   7.7973E+00   7.9870E+00   3.1068E-06  0.0184
   7.9870E+00   8.1813E+00   2.9841E-06  0.0186
   8.1813E+00   8.3804E+00   2.8695E-06  0.0187
   8.3804E+00   8.5843E+00   2.6935E-06  0.0191
   8.5843E+00   8.7931E+00   2.5720E-06  0.0193
   8.7931E+00   9.0071E+00   2.4380E-06  0.0196
   9.0071E+00   9.2262E+00   2.4070E-06  0.0195
   9.2262E+00   9.4507E+00   2.2666E-06  0.0198
   9.4507E+00   9.6807E+00   2.1262E-06  0.0202
   9.6807E+00   9.9162E+00   1.9610E-06  0.0208
   9.9162E+00   1.0157E+01   1.8639E-06  0.0211
   1.0157E+01   1.0405E+01   1.7440E-06  0.0215
   1.0405E+01   1.0658E+01   1.6828E-06  0.0217
   1.0658E+01   1.0917E+01   1.5352E-06  0.0224
   1.0917E+01   1.1183E+01   1.3576E-06  0.0235
   1.1183E+01   1.1455E+01   1.3279E-06  0.0235
   1.1455E+01   1.1733E+01   1.2587E-06  0.0239
   1.1733E+01   1.2019E+01   1.1251E-06  0.0249
   1.2019E+01   1.2311E+01   1.0676E-06  0.0253
   1.2311E+01   1.2611E+01   9.8616E-07  0.0260
   1.2611E+01   1.2918E+01   8.6464E-07  0.0274
   1.2918E+01   1.3232E+01   7.8206E-07  0.0285
   1.3232E+01   1.3554E+01   6.9856E-07  0.0298
   1.3554E+01   1.3884E+01   6.4194E-07  0.0307
   1.3884E+01   1.4222E+01   5.6601E-07  0.0323
   1.4222E+01   1.4568E+01   5.2193E-07  0.0333
   1.4568E+01   1.4922E+01   4.6891E-07  0.0347
   1.4922E+01   1.5285E+01   3.9662E-07  0.0373
   1.5285E+01   1.5657E+01   3.5386E-07  0.0390
   1.5657E+01   1.6038E+01   3.0608E-07  0.0414
   1.6038E+01   1.6428E+01   2.4602E-07  0.0456
   1.6428E+01   1.6828E+01   2.1891E-07  0.0478
   1.6828E+01   1.7237E+01   1.8733E-07  0.0510
   1.7237E+01   1.7657E+01   1.4282E-07  0.0578
   1.7657E+01   1.8086E+01   1.2011E-07  0.0623
   1.8086E+01   1.8526E+01   1.0271E-07  0.0665
   1.8526E+01   1.8977E+01   7.6537E-08  0.0761
   1.8977E+01   1.9439E+01   6.7139E-08  0.0802
   1.9439E+01   1.9912E+01   4.8207E-08  0.0937
   1.9912E+01   2.0396E+01   2.6833E-08  0.1240
   2.0396E+01   2.0893E+01   2.2166E-08  0.1348
   2.0893E+01   2.1401E+01   1.1410E-08  0.1857
   2.1401E+01   2.1922E+01   6.5296E-09  0.2425
   2.1922E+01   2.2455E+01   4.1247E-09  0.3015
   2.2455E+01   2.3001E+01   3.6607E-10  1.0000
   2.3001E+01   2.3561E+01   0.0000E+00  0.0000
   2.3561E+01   2.4134E+01   0.0000E+00  0.0000
   2.4134E+01   2.4721E+01   0.0000E+00  0.0000
   2.4721E+01   2.5323E+01   0.0000E+00  0.0000
   2.5323E+01   2.5939E+01   0.0000E+00  0.0000
   2.5939E+01   2.6570E+01   0.0000E+00  0.0000
   2.6570E+01   2.7217E+01   0.0000E+00  0.0000
   2.7217E+01   2.7879E+01   0.0000E+00  0.0000
   2.7879E+01   2.8557E+01   0.0000E+00  0.0000
   2.8557E+01   2.9252E+01   0.0000E+00  0.0000
   2.9252E+01   2.9964E+01   0.0000E+00  0.0000
   2.9964E+01   3.0693E+01   0.0000E+00  0.0000
   3.0693E+01   3.1440E+01   0.0000E+00  0.0000
   3.1440E+01   3.2205E+01   0.0000E+00  0.0000
   3.2205E+01   3.2988E+01   0.0000E+00  0.0000
   3.2988E+01   3.3791E+01   0.0000E+00  0.0000
   3.3791E+01   3.4613E+01   0.0000E+00  0.0000
   3.4613E+01   3.5455E+01   0.0000E+00  0.0000
   3.5455E+01   3.6318E+01   0.0000E+00  0.0000
   3.6318E+01   3.7201E+01   0.0000E+00  0.0000
   3.7201E+01   3.8106E+01   0.0000E+00  0.0000
   3.8106E+01   3.9034E+01   0.0000E+00  0.0000
   3.9034E+01   3.9983E+01   0.0000E+00  0.0000
   3.9983E+01   4.0956E+01   0.0000E+00  0.0000
   4.0956E+01   4.1953E+01   0.0000E+00  0.0000
   4.1953E+01   4.2973E+01   0.0000E+00  0.0000
   4.2973E+01   4.4019E+01   0.0000E+00  0.0000
   4.4019E+01   4.5090E+01   0.0000E+00  0.0000
   4.5090E+01   4.6187E+01   0.0000E+00  0.0000
   4.6187E+01   4.7311E+01   0.0000E+00  0.0000
   4.7311E+01   4.8462E+01   0.0000E+00  0.0000
   4.8462E+01   4.9641E+01   0.0000E+00  0.0000
   4.9641E+01   5.0849E+01   0.0000E+00  0.0000
   5.0849E+01   5.2086E+01   0.0000E+00  0.0000
   5.2086E+01   5.3353E+01   0.0000E+00  0.0000
   5.3353E+01   5.4651E+01   0.0000E+00  0.0000
   5.4651E+01   5.5981E+01   0.0000E+00  0.0000
   5.5981E+01   5.7343E+01   0.0000E+00  0.0000
   5.7343E+01   5.8738E+01   0.0000E+00  0.0000
   5.8738E+01   6.0168E+01   0.0000E+00  0.0000
   6.0168E+01   6.1632E+01   0.0000E+00  0.0000
   6.1632E+01   6.3131E+01   0.0000E+00  0.0000
   6.3131E+01   6.4667E+01   0.0000E+00  0.0000
   6.4667E+01   6.6240E+01   0.0000E+00  0.0000
   6.6240E+01   6.7852E+01   0.0000E+00  0.0000
   6.7852E+01   6.9503E+01   0.0000E+00  0.0000
   6.9503E+01   7.1194E+01   0.0000E+00  0.0000
   7.1194E+01   7.2926E+01   0.0000E+00  0.0000
   7.2926E+01   7.4701E+01   0.0000E+00  0.0000
   7.4701E+01   7.6518E+01   0.0000E+00  0.0000
   7.6518E+01   7.8380E+01   0.0000E+00  0.0000
   7.8380E+01   8.0287E+01   0.0000E+00  0.0000
   8.0287E+01   8.2240E+01   0.0000E+00  0.0000
   8.2240E+01   8.4241E+01   0.0000E+00  0.0000
   8.4241E+01   8.6291E+01   0.0000E+00  0.0000
   8.6291E+01   8.8391E+01   0.0000E+00  0.0000
   8.8391E+01   9.0541E+01   0.0000E+00  0.0000
   9.0541E+01   9.2744E+01   0.0000E+00  0.0000
   9.2744E+01   9.5001E+01   0.0000E+00  0.0000
   9.5001E+01   9.7312E+01   0.0000E+00  0.0000
   9.7312E+01   9.9680E+01   0.0000E+00  0.0000
   9.9680E+01   1.0211E+02   0.0000E+00  0.0000
   1.0211E+02   1.0459E+02   0.0000E+00  0.0000
   1.0459E+02   1.0713E+02   0.0000E+00  0.0000
   1.0713E+02   1.0974E+02   0.0000E+00  0.0000
   1.0974E+02   1.1241E+02   0.0000E+00  0.0000
   1.1241E+02   1.1515E+02   0.0000E+00  0.0000
   1.1515E+02   1.1795E+02   0.0000E+00  0.0000
   1.1795E+02   1.2082E+02   0.0000E+00  0.0000
   1.2082E+02   1.2376E+02   0.0000E+00  0.0000
   1.2376E+02   1.2677E+02   0.0000E+00  0.0000
   1.2677E+02   1.2985E+02   0.0000E+00  0.0000
   1.2985E+02   1.3301E+02   0.0000E+00  0.0000
   1.3301E+02   1.3625E+02   0.0000E+00  0.0000
   1.3625E+02   1.3956E+02   0.0000E+00  0.0000
   1.3956E+02   1.4296E+02   0.0000E+00  0.0000
   1.4296E+02   1.4644E+02   0.0000E+00  0.0000
   1.4644E+02   1.5000E+02   0.0000E+00  0.0000

#   sum over                 4.0050E-07
'no. =    1   reg = 110 - 210'
msuc: {\huge [t-cross] in region mesh}
msdr: {\it plotted by \ANGEL \version}
msdl: {\it calculated by \PHITS  3.26}
wt: s(0.7)
\vspace{-3}
  region surface crossing
  area  &=&   1.0000E+00 [cm^2]
e:
 
# Information for Restart Calculation
# This calculation was newly started
# istdev =  2 # 1:Batch variance, 2:History variance
# resc2  = 5.00000000000000000E+09 # Total source weight or Total source weight / maxcas
# resc3  = 5.00000000000000000E+09 # Total history number or Total batch number
# maxcas =   500000000 # History / Batch, only used for istdev=1
# bitrseed = 0110100000100010111000001110001111001110100100011111101000111001 # bit data of rseed
