0 <--- number of remaining batches 

-------------------------------------------------------------------------------
bat[      10] ncas =     5000000000.
 bitrseed = 0001011101011011011000011100010110101100100111100111010011101011
          cpu time =   4 h. 39 m. 38.34 s.

 date = 2022-06-05
 time = 15h 18m 43s

