[ T-Cross ]
    title = [t-cross] in region mesh
     mesh =  reg            # mesh type is region-wise
      reg =    1            # number of crossing regions
      non     r-from    r-to       area
      1       114       214        1.000000    
   e-type =    3            # e-mesh is log given by emin, emax and ne
     emin =  1.0000000E-02  # minimum value of e-mesh points
     emax =   150.0000      # maximum value of e-mesh points
#    edel =  2.4039514E-02  # mesh width of e-mesh points
       ne =    400          # number of e-mesh points
#    data = ( e(i), i = 1, ne + 1 )
#           1.00000E-02  1.02433E-02  1.04925E-02  1.07478E-02  1.10093E-02
#           1.12772E-02  1.15516E-02  1.18326E-02  1.21205E-02  1.24154E-02
#           1.27175E-02  1.30269E-02  1.33439E-02  1.36686E-02  1.40011E-02
#           1.43418E-02  1.46907E-02  1.50482E-02  1.54143E-02  1.57894E-02
#           1.61735E-02  1.65670E-02  1.69701E-02  1.73830E-02  1.78060E-02
#           1.82392E-02  1.86830E-02  1.91375E-02  1.96032E-02  2.00801E-02
#           2.05687E-02  2.10692E-02  2.15818E-02  2.21069E-02  2.26448E-02
#           2.31957E-02  2.37601E-02  2.43382E-02  2.49304E-02  2.55369E-02
#           2.61583E-02  2.67947E-02  2.74467E-02  2.81145E-02  2.87985E-02
#           2.94992E-02  3.02169E-02  3.09521E-02  3.17052E-02  3.24766E-02
#           3.32668E-02  3.40762E-02  3.49053E-02  3.57546E-02  3.66246E-02
#           3.75157E-02  3.84284E-02  3.93634E-02  4.03212E-02  4.13022E-02
#           4.23071E-02  4.33365E-02  4.43909E-02  4.54710E-02  4.65773E-02
#           4.77106E-02  4.88714E-02  5.00605E-02  5.12785E-02  5.25262E-02
#           5.38042E-02  5.51133E-02  5.64542E-02  5.78278E-02  5.92348E-02
#           6.06760E-02  6.21523E-02  6.36645E-02  6.52135E-02  6.68002E-02
#           6.84255E-02  7.00904E-02  7.17957E-02  7.35426E-02  7.53319E-02
#           7.71648E-02  7.90423E-02  8.09655E-02  8.29354E-02  8.49533E-02
#           8.70203E-02  8.91376E-02  9.13064E-02  9.35279E-02  9.58035E-02
#           9.81345E-02  1.00522E-01  1.02968E-01  1.05473E-01  1.08040E-01
#           1.10668E-01  1.13361E-01  1.16119E-01  1.18944E-01  1.21838E-01
#           1.24803E-01  1.27839E-01  1.30950E-01  1.34136E-01  1.37399E-01
#           1.40742E-01  1.44167E-01  1.47675E-01  1.51268E-01  1.54948E-01
#           1.58718E-01  1.62580E-01  1.66535E-01  1.70587E-01  1.74738E-01
#           1.78989E-01  1.83344E-01  1.87805E-01  1.92375E-01  1.97055E-01
#           2.01850E-01  2.06761E-01  2.11792E-01  2.16945E-01  2.22223E-01
#           2.27630E-01  2.33169E-01  2.38842E-01  2.44653E-01  2.50605E-01
#           2.56703E-01  2.62949E-01  2.69346E-01  2.75900E-01  2.82613E-01
#           2.89489E-01  2.96532E-01  3.03747E-01  3.11138E-01  3.18708E-01
#           3.26462E-01  3.34405E-01  3.42542E-01  3.50876E-01  3.59413E-01
#           3.68158E-01  3.77116E-01  3.86291E-01  3.95690E-01  4.05317E-01
#           4.15179E-01  4.25281E-01  4.35628E-01  4.46227E-01  4.57084E-01
#           4.68205E-01  4.79597E-01  4.91266E-01  5.03219E-01  5.15463E-01
#           5.28005E-01  5.40851E-01  5.54011E-01  5.67490E-01  5.81298E-01
#           5.95441E-01  6.09929E-01  6.24769E-01  6.39970E-01  6.55541E-01
#           6.71491E-01  6.87828E-01  7.04564E-01  7.21706E-01  7.39266E-01
#           7.57253E-01  7.75678E-01  7.94551E-01  8.13883E-01  8.33685E-01
#           8.53969E-01  8.74747E-01  8.96030E-01  9.17831E-01  9.40163E-01
#           9.63038E-01  9.86469E-01  1.01047E+00  1.03506E+00  1.06024E+00
#           1.08604E+00  1.11246E+00  1.13953E+00  1.16725E+00  1.19565E+00
#           1.22474E+00  1.25454E+00  1.28507E+00  1.31633E+00  1.34836E+00
#           1.38117E+00  1.41477E+00  1.44920E+00  1.48446E+00  1.52057E+00
#           1.55757E+00  1.59547E+00  1.63429E+00  1.67405E+00  1.71478E+00
#           1.75650E+00  1.79924E+00  1.84302E+00  1.88786E+00  1.93379E+00
#           1.98084E+00  2.02904E+00  2.07841E+00  2.12898E+00  2.18078E+00
#           2.23384E+00  2.28819E+00  2.34386E+00  2.40089E+00  2.45930E+00
#           2.51914E+00  2.58043E+00  2.64322E+00  2.70753E+00  2.77341E+00
#           2.84088E+00  2.91001E+00  2.98081E+00  3.05333E+00  3.12762E+00
#           3.20372E+00  3.28167E+00  3.36152E+00  3.44330E+00  3.52708E+00
#           3.61290E+00  3.70080E+00  3.79085E+00  3.88308E+00  3.97756E+00
#           4.07434E+00  4.17347E+00  4.27501E+00  4.37903E+00  4.48557E+00
#           4.59471E+00  4.70650E+00  4.82102E+00  4.93832E+00  5.05847E+00
#           5.18155E+00  5.30762E+00  5.43676E+00  5.56904E+00  5.70453E+00
#           5.84333E+00  5.98550E+00  6.13114E+00  6.28031E+00  6.43312E+00
#           6.58964E+00  6.74997E+00  6.91420E+00  7.08243E+00  7.25475E+00
#           7.43126E+00  7.61207E+00  7.79728E+00  7.98700E+00  8.18133E+00
#           8.38038E+00  8.58428E+00  8.79315E+00  9.00709E+00  9.22624E+00
#           9.45072E+00  9.68067E+00  9.91620E+00  1.01575E+01  1.04046E+01
#           1.06578E+01  1.09171E+01  1.11827E+01  1.14548E+01  1.17335E+01
#           1.20190E+01  1.23114E+01  1.26109E+01  1.29178E+01  1.32321E+01
#           1.35540E+01  1.38838E+01  1.42216E+01  1.45676E+01  1.49221E+01
#           1.52851E+01  1.56570E+01  1.60380E+01  1.64282E+01  1.68279E+01
#           1.72374E+01  1.76568E+01  1.80864E+01  1.85264E+01  1.89772E+01
#           1.94389E+01  1.99119E+01  2.03963E+01  2.08926E+01  2.14009E+01
#           2.19216E+01  2.24550E+01  2.30014E+01  2.35610E+01  2.41343E+01
#           2.47215E+01  2.53230E+01  2.59391E+01  2.65702E+01  2.72167E+01
#           2.78789E+01  2.85572E+01  2.92520E+01  2.99637E+01  3.06928E+01
#           3.14396E+01  3.22045E+01  3.29881E+01  3.37907E+01  3.46128E+01
#           3.54550E+01  3.63177E+01  3.72013E+01  3.81064E+01  3.90336E+01
#           3.99833E+01  4.09561E+01  4.19526E+01  4.29734E+01  4.40189E+01
#           4.50900E+01  4.61870E+01  4.73108E+01  4.84619E+01  4.96410E+01
#           5.08488E+01  5.20860E+01  5.33533E+01  5.46514E+01  5.59812E+01
#           5.73432E+01  5.87384E+01  6.01676E+01  6.16315E+01  6.31311E+01
#           6.46671E+01  6.62405E+01  6.78522E+01  6.95031E+01  7.11941E+01
#           7.29263E+01  7.47007E+01  7.65182E+01  7.83800E+01  8.02870E+01
#           8.22405E+01  8.42414E+01  8.62911E+01  8.83906E+01  9.05412E+01
#           9.27442E+01  9.50007E+01  9.73122E+01  9.96799E+01  1.02105E+02
#           1.04589E+02  1.07134E+02  1.09741E+02  1.12411E+02  1.15146E+02
#           1.17948E+02  1.20817E+02  1.23757E+02  1.26768E+02  1.29852E+02
#           1.33012E+02  1.36248E+02  1.39563E+02  1.42959E+02  1.46437E+02
#           1.50000E+02
     unit =    2            # unit is [1/cm^2/(MeV/n)/source]
     axis =  eng            # axis of output
     file = detector-15.out  # file name of output for the above axis
   output = f-curr          # surface crossing forward current spectrum
     part =  neutron  
# kf/name :  2112     
#    used :        main (  %)        temp (  %)       total (  %)
#  memory :         414 (  0)           0 (  0)         414 (  0)

#------------------------------------------------------------------------------
#newpage:
#   no. =    1   reg = 114 - 214

x: Energy [MeV/n]
y:  F-Curr [1/cm^2/(MeV/n)/source]         
p: xlog ylog afac(0.8) form(0.9)
h: n            x            y(neutron ),hh0l   n 
#  e-lower      e-upper      neutron     r.err 
   1.0000E-02   1.0243E-02   1.9481E-04  0.0650
   1.0243E-02   1.0493E-02   2.1426E-04  0.0612
   1.0493E-02   1.0748E-02   2.3111E-04  0.0582
   1.0748E-02   1.1009E-02   1.6290E-04  0.0685
   1.1009E-02   1.1277E-02   2.1205E-04  0.0593
   1.1277E-02   1.1552E-02   2.2377E-04  0.0571
   1.1552E-02   1.1833E-02   2.1917E-04  0.0570
   1.1833E-02   1.2121E-02   2.4106E-04  0.0537
   1.2121E-02   1.2415E-02   2.2719E-04  0.0546
   1.2415E-02   1.2718E-02   2.2842E-04  0.0538
   1.2718E-02   1.3027E-02   2.2429E-04  0.0537
   1.3027E-02   1.3344E-02   2.1706E-04  0.0539
   1.3344E-02   1.3669E-02   2.5010E-04  0.0496
   1.3669E-02   1.4001E-02   2.1529E-04  0.0529
   1.4001E-02   1.4342E-02   2.3777E-04  0.0497
   1.4342E-02   1.4691E-02   2.3671E-04  0.0492
   1.4691E-02   1.5048E-02   2.2382E-04  0.0500
   1.5048E-02   1.5414E-02   2.2178E-04  0.0496
   1.5414E-02   1.5789E-02   2.4211E-04  0.0469
   1.5789E-02   1.6174E-02   2.1865E-04  0.0488
   1.6174E-02   1.6567E-02   2.0330E-04  0.0500
   1.6567E-02   1.6970E-02   2.2129E-04  0.0474
   1.6970E-02   1.7383E-02   2.4607E-04  0.0444
   1.7383E-02   1.7806E-02   2.3124E-04  0.0452
   1.7806E-02   1.8239E-02   2.3082E-04  0.0447
   1.8239E-02   1.8683E-02   2.2669E-04  0.0446
   1.8683E-02   1.9138E-02   2.3231E-04  0.0435
   1.9138E-02   1.9603E-02   2.3967E-04  0.0423
   1.9603E-02   2.0080E-02   2.2937E-04  0.0428
   2.0080E-02   2.0569E-02   2.2883E-04  0.0423
   2.0569E-02   2.1069E-02   2.3539E-04  0.0412
   2.1069E-02   2.1582E-02   2.4228E-04  0.0401
   2.1582E-02   2.2107E-02   2.4376E-04  0.0395
   2.2107E-02   2.2645E-02   2.5210E-04  0.0384
   2.2645E-02   2.3196E-02   2.5827E-04  0.0375
   2.3196E-02   2.3760E-02   2.5196E-04  0.0375
   2.3760E-02   2.4338E-02   2.3802E-04  0.0381
   2.4338E-02   2.4930E-02   2.5533E-04  0.0364
   2.4930E-02   2.5537E-02   2.6213E-04  0.0355
   2.5537E-02   2.6158E-02   2.4222E-04  0.0364
   2.6158E-02   2.6795E-02   2.4762E-04  0.0356
   2.6795E-02   2.7447E-02   2.5156E-04  0.0349
   2.7447E-02   2.8114E-02   2.5262E-04  0.0344
   2.8114E-02   2.8799E-02   2.1607E-04  0.0368
   2.8799E-02   2.9499E-02   2.4576E-04  0.0341
   2.9499E-02   3.0217E-02   2.4884E-04  0.0335
   3.0217E-02   3.0952E-02   2.5190E-04  0.0329
   3.0952E-02   3.1705E-02   2.6345E-04  0.0318
   3.1705E-02   3.2477E-02   2.5641E-04  0.0318
   3.2477E-02   3.3267E-02   2.4602E-04  0.0321
   3.3267E-02   3.4076E-02   2.5648E-04  0.0310
   3.4076E-02   3.4905E-02   2.6438E-04  0.0302
   3.4905E-02   3.5755E-02   2.6328E-04  0.0299
   3.5755E-02   3.6625E-02   2.6048E-04  0.0297
   3.6625E-02   3.7516E-02   2.6102E-04  0.0293
   3.7516E-02   3.8428E-02   2.6425E-04  0.0288
   3.8428E-02   3.9363E-02   2.6203E-04  0.0286
   3.9363E-02   4.0321E-02   2.6019E-04  0.0283
   4.0321E-02   4.1302E-02   2.6900E-04  0.0275
   4.1302E-02   4.2307E-02   2.6848E-04  0.0272
   4.2307E-02   4.3337E-02   2.7473E-04  0.0266
   4.3337E-02   4.4391E-02   2.6043E-04  0.0270
   4.4391E-02   4.5471E-02   2.7813E-04  0.0258
   4.5471E-02   4.6577E-02   2.5417E-04  0.0267
   4.6577E-02   4.7711E-02   2.6772E-04  0.0257
   4.7711E-02   4.8871E-02   2.8479E-04  0.0246
   4.8871E-02   5.0061E-02   2.6171E-04  0.0254
   5.0061E-02   5.1279E-02   2.7307E-04  0.0245
   5.1279E-02   5.2526E-02   2.6899E-04  0.0244
   5.2526E-02   5.3804E-02   2.7136E-04  0.0240
   5.3804E-02   5.5113E-02   2.8340E-04  0.0232
   5.5113E-02   5.6454E-02   2.8278E-04  0.0230
   5.6454E-02   5.7828E-02   2.7767E-04  0.0229
   5.7828E-02   5.9235E-02   2.8373E-04  0.0224
   5.9235E-02   6.0676E-02   2.7643E-04  0.0224
   6.0676E-02   6.2152E-02   2.8199E-04  0.0219
   6.2152E-02   6.3665E-02   2.9520E-04  0.0212
   6.3665E-02   6.5214E-02   2.7514E-04  0.0217
   6.5214E-02   6.6800E-02   2.8165E-04  0.0212
   6.6800E-02   6.8426E-02   2.8647E-04  0.0207
   6.8426E-02   7.0090E-02   2.9192E-04  0.0203
   7.0090E-02   7.1796E-02   2.7590E-04  0.0206
   7.1796E-02   7.3543E-02   2.9339E-04  0.0198
   7.3543E-02   7.5332E-02   2.8893E-04  0.0197
   7.5332E-02   7.7165E-02   2.9102E-04  0.0194
   7.7165E-02   7.9042E-02   2.9912E-04  0.0189
   7.9042E-02   8.0965E-02   3.0803E-04  0.0184
   8.0965E-02   8.2935E-02   3.0051E-04  0.0184
   8.2935E-02   8.4953E-02   2.9501E-04  0.0183
   8.4953E-02   8.7020E-02   3.0083E-04  0.0179
   8.7020E-02   8.9138E-02   3.0331E-04  0.0176
   8.9138E-02   9.1306E-02   2.9934E-04  0.0176
   9.1306E-02   9.3528E-02   3.1676E-04  0.0169
   9.3528E-02   9.5804E-02   3.1051E-04  0.0168
   9.5804E-02   9.8134E-02   3.0562E-04  0.0168
   9.8134E-02   1.0052E-01   3.0640E-04  0.0165
   1.0052E-01   1.0297E-01   3.1941E-04  0.0160
   1.0297E-01   1.0547E-01   3.2084E-04  0.0158
   1.0547E-01   1.0804E-01   3.1065E-04  0.0158
   1.0804E-01   1.1067E-01   3.1734E-04  0.0155
   1.1067E-01   1.1336E-01   3.2214E-04  0.0152
   1.1336E-01   1.1612E-01   3.0977E-04  0.0153
   1.1612E-01   1.1894E-01   3.0942E-04  0.0151
   1.1894E-01   1.2184E-01   3.2001E-04  0.0147
   1.2184E-01   1.2480E-01   3.2576E-04  0.0144
   1.2480E-01   1.2784E-01   3.2293E-04  0.0143
   1.2784E-01   1.3095E-01   3.2722E-04  0.0140
   1.3095E-01   1.3414E-01   3.2865E-04  0.0138
   1.3414E-01   1.3740E-01   3.3588E-04  0.0135
   1.3740E-01   1.4074E-01   3.3437E-04  0.0134
   1.4074E-01   1.4417E-01   3.3667E-04  0.0132
   1.4417E-01   1.4767E-01   3.3962E-04  0.0130
   1.4767E-01   1.5127E-01   3.3927E-04  0.0128
   1.5127E-01   1.5495E-01   3.3740E-04  0.0127
   1.5495E-01   1.5872E-01   3.4090E-04  0.0125
   1.5872E-01   1.6258E-01   3.3749E-04  0.0124
   1.6258E-01   1.6654E-01   3.3739E-04  0.0122
   1.6654E-01   1.7059E-01   3.3688E-04  0.0121
   1.7059E-01   1.7474E-01   3.4444E-04  0.0118
   1.7474E-01   1.7899E-01   3.3922E-04  0.0118
   1.7899E-01   1.8334E-01   3.5436E-04  0.0114
   1.8334E-01   1.8781E-01   3.5248E-04  0.0113
   1.8781E-01   1.9237E-01   3.4367E-04  0.0113
   1.9237E-01   1.9706E-01   3.5303E-04  0.0110
   1.9706E-01   2.0185E-01   3.5889E-04  0.0108
   2.0185E-01   2.0676E-01   3.5639E-04  0.0107
   2.0676E-01   2.1179E-01   3.5367E-04  0.0106
   2.1179E-01   2.1694E-01   3.5837E-04  0.0104
   2.1694E-01   2.2222E-01   3.4969E-04  0.0104
   2.2222E-01   2.2763E-01   3.6413E-04  0.0101
   2.2763E-01   2.3317E-01   3.5938E-04  0.0100
   2.3317E-01   2.3884E-01   3.6274E-04  0.0099
   2.3884E-01   2.4465E-01   3.6786E-04  0.0097
   2.4465E-01   2.5061E-01   3.6592E-04  0.0096
   2.5061E-01   2.5670E-01   3.6227E-04  0.0095
   2.5670E-01   2.6295E-01   3.6471E-04  0.0094
   2.6295E-01   2.6935E-01   3.7310E-04  0.0092
   2.6935E-01   2.7590E-01   3.7149E-04  0.0091
   2.7590E-01   2.8261E-01   3.7237E-04  0.0089
   2.8261E-01   2.8949E-01   3.7080E-04  0.0089
   2.8949E-01   2.9653E-01   3.6825E-04  0.0088
   2.9653E-01   3.0375E-01   3.7148E-04  0.0086
   3.0375E-01   3.1114E-01   3.7126E-04  0.0085
   3.1114E-01   3.1871E-01   3.7186E-04  0.0084
   3.1871E-01   3.2646E-01   3.7650E-04  0.0083
   3.2646E-01   3.3441E-01   3.7635E-04  0.0082
   3.3441E-01   3.4254E-01   3.7736E-04  0.0081
   3.4254E-01   3.5088E-01   3.7619E-04  0.0080
   3.5088E-01   3.5941E-01   3.7248E-04  0.0079
   3.5941E-01   3.6816E-01   3.8178E-04  0.0077
   3.6816E-01   3.7712E-01   3.7213E-04  0.0077
   3.7712E-01   3.8629E-01   3.7192E-04  0.0077
   3.8629E-01   3.9569E-01   3.7854E-04  0.0075
   3.9569E-01   4.0532E-01   3.7751E-04  0.0074
   4.0532E-01   4.1518E-01   3.7222E-04  0.0074
   4.1518E-01   4.2528E-01   3.7472E-04  0.0073
   4.2528E-01   4.3563E-01   3.7192E-04  0.0072
   4.3563E-01   4.4623E-01   3.6957E-04  0.0071
   4.4623E-01   4.5708E-01   3.7129E-04  0.0070
   4.5708E-01   4.6821E-01   3.6885E-04  0.0070
   4.6821E-01   4.7960E-01   3.6714E-04  0.0069
   4.7960E-01   4.9127E-01   3.7156E-04  0.0068
   4.9127E-01   5.0322E-01   3.6440E-04  0.0068
   5.0322E-01   5.1546E-01   3.6390E-04  0.0067
   5.1546E-01   5.2800E-01   3.6463E-04  0.0066
   5.2800E-01   5.4085E-01   3.5863E-04  0.0066
   5.4085E-01   5.5401E-01   3.5177E-04  0.0066
   5.5401E-01   5.6749E-01   3.5555E-04  0.0065
   5.6749E-01   5.8130E-01   3.5453E-04  0.0064
   5.8130E-01   5.9544E-01   3.4941E-04  0.0064
   5.9544E-01   6.0993E-01   3.4432E-04  0.0063
   6.0993E-01   6.2477E-01   3.4010E-04  0.0063
   6.2477E-01   6.3997E-01   3.3809E-04  0.0062
   6.3997E-01   6.5554E-01   3.3355E-04  0.0062
   6.5554E-01   6.7149E-01   3.3182E-04  0.0061
   6.7149E-01   6.8783E-01   3.2462E-04  0.0061
   6.8783E-01   7.0456E-01   3.2422E-04  0.0061
   7.0456E-01   7.2171E-01   3.1611E-04  0.0061
   7.2171E-01   7.3927E-01   3.1150E-04  0.0060
   7.3927E-01   7.5725E-01   3.0600E-04  0.0060
   7.5725E-01   7.7568E-01   2.9842E-04  0.0060
   7.7568E-01   7.9455E-01   2.9381E-04  0.0060
   7.9455E-01   8.1388E-01   2.8589E-04  0.0060
   8.1388E-01   8.3368E-01   2.7909E-04  0.0060
   8.3368E-01   8.5397E-01   2.7152E-04  0.0060
   8.5397E-01   8.7475E-01   2.6319E-04  0.0060
   8.7475E-01   8.9603E-01   2.5589E-04  0.0061
   8.9603E-01   9.1783E-01   2.5026E-04  0.0061
   9.1783E-01   9.4016E-01   2.3809E-04  0.0061
   9.4016E-01   9.6304E-01   2.3109E-04  0.0062
   9.6304E-01   9.8647E-01   2.2258E-04  0.0062
   9.8647E-01   1.0105E+00   2.1744E-04  0.0062
   1.0105E+00   1.0351E+00   2.1532E-04  0.0061
   1.0351E+00   1.0602E+00   2.1790E-04  0.0060
   1.0602E+00   1.0860E+00   2.1876E-04  0.0060
   1.0860E+00   1.1125E+00   2.2196E-04  0.0058
   1.1125E+00   1.1395E+00   2.2326E-04  0.0058
   1.1395E+00   1.1673E+00   2.2866E-04  0.0056
   1.1673E+00   1.1957E+00   2.3295E-04  0.0055
   1.1957E+00   1.2247E+00   2.3589E-04  0.0054
   1.2247E+00   1.2545E+00   2.3954E-04  0.0053
   1.2545E+00   1.2851E+00   2.3961E-04  0.0052
   1.2851E+00   1.3163E+00   2.4165E-04  0.0051
   1.3163E+00   1.3484E+00   2.4471E-04  0.0051
   1.3484E+00   1.3812E+00   2.4615E-04  0.0050
   1.3812E+00   1.4148E+00   2.5241E-04  0.0049
   1.4148E+00   1.4492E+00   2.5100E-04  0.0048
   1.4492E+00   1.4845E+00   2.5031E-04  0.0048
   1.4845E+00   1.5206E+00   2.5182E-04  0.0047
   1.5206E+00   1.5576E+00   2.5255E-04  0.0046
   1.5576E+00   1.5955E+00   2.5284E-04  0.0046
   1.5955E+00   1.6343E+00   2.5478E-04  0.0045
   1.6343E+00   1.6741E+00   2.5956E-04  0.0044
   1.6741E+00   1.7148E+00   2.6549E-04  0.0043
   1.7148E+00   1.7565E+00   2.6543E-04  0.0043
   1.7565E+00   1.7992E+00   2.6562E-04  0.0042
   1.7992E+00   1.8430E+00   2.6407E-04  0.0042
   1.8430E+00   1.8879E+00   2.6193E-04  0.0041
   1.8879E+00   1.9338E+00   2.6496E-04  0.0041
   1.9338E+00   1.9808E+00   2.6641E-04  0.0040
   1.9808E+00   2.0290E+00   2.7072E-04  0.0039
   2.0290E+00   2.0784E+00   2.7240E-04  0.0039
   2.0784E+00   2.1290E+00   2.6784E-04  0.0038
   2.1290E+00   2.1808E+00   2.6595E-04  0.0038
   2.1808E+00   2.2338E+00   2.6684E-04  0.0038
   2.2338E+00   2.2882E+00   2.6656E-04  0.0037
   2.2882E+00   2.3439E+00   2.6713E-04  0.0037
   2.3439E+00   2.4009E+00   2.7084E-04  0.0036
   2.4009E+00   2.4593E+00   2.7049E-04  0.0036
   2.4593E+00   2.5191E+00   2.7020E-04  0.0035
   2.5191E+00   2.5804E+00   2.6728E-04  0.0035
   2.5804E+00   2.6432E+00   2.6499E-04  0.0035
   2.6432E+00   2.7075E+00   2.6323E-04  0.0034
   2.7075E+00   2.7734E+00   2.6247E-04  0.0034
   2.7734E+00   2.8409E+00   2.6381E-04  0.0034
   2.8409E+00   2.9100E+00   2.6473E-04  0.0033
   2.9100E+00   2.9808E+00   2.6522E-04  0.0033
   2.9808E+00   3.0533E+00   2.6500E-04  0.0032
   3.0533E+00   3.1276E+00   2.6174E-04  0.0032
   3.1276E+00   3.2037E+00   2.5829E-04  0.0032
   3.2037E+00   3.2817E+00   2.5400E-04  0.0032
   3.2817E+00   3.3615E+00   2.5019E-04  0.0032
   3.3615E+00   3.4433E+00   2.4820E-04  0.0031
   3.4433E+00   3.5271E+00   2.4837E-04  0.0031
   3.5271E+00   3.6129E+00   2.4923E-04  0.0031
   3.6129E+00   3.7008E+00   2.4593E-04  0.0030
   3.7008E+00   3.7908E+00   2.4129E-04  0.0030
   3.7908E+00   3.8831E+00   2.3839E-04  0.0030
   3.8831E+00   3.9776E+00   2.3494E-04  0.0030
   3.9776E+00   4.0743E+00   2.3203E-04  0.0030
   4.0743E+00   4.1735E+00   2.2758E-04  0.0030
   4.1735E+00   4.2750E+00   2.2294E-04  0.0030
   4.2750E+00   4.3790E+00   2.1665E-04  0.0030
   4.3790E+00   4.4856E+00   2.1216E-04  0.0030
   4.4856E+00   4.5947E+00   2.0748E-04  0.0030
   4.5947E+00   4.7065E+00   2.0467E-04  0.0030
   4.7065E+00   4.8210E+00   2.0089E-04  0.0029
   4.8210E+00   4.9383E+00   1.9775E-04  0.0029
   4.9383E+00   5.0585E+00   1.9334E-04  0.0029
   5.0585E+00   5.1815E+00   1.8719E-04  0.0029
   5.1815E+00   5.3076E+00   1.8277E-04  0.0029
   5.3076E+00   5.4368E+00   1.7666E-04  0.0030
   5.4368E+00   5.5690E+00   1.7129E-04  0.0030
   5.5690E+00   5.7045E+00   1.6515E-04  0.0030
   5.7045E+00   5.8433E+00   1.6138E-04  0.0030
   5.8433E+00   5.9855E+00   1.5649E-04  0.0030
   5.9855E+00   6.1311E+00   1.5149E-04  0.0030
   6.1311E+00   6.2803E+00   1.4710E-04  0.0030
   6.2803E+00   6.4331E+00   1.4065E-04  0.0031
   6.4331E+00   6.5896E+00   1.3531E-04  0.0031
   6.5896E+00   6.7500E+00   1.3111E-04  0.0031
   6.7500E+00   6.9142E+00   1.2675E-04  0.0031
   6.9142E+00   7.0824E+00   1.2100E-04  0.0031
   7.0824E+00   7.2548E+00   1.1625E-04  0.0032
   7.2548E+00   7.4313E+00   1.1171E-04  0.0032
   7.4313E+00   7.6121E+00   1.0731E-04  0.0032
   7.6121E+00   7.7973E+00   1.0327E-04  0.0032
   7.7973E+00   7.9870E+00   9.8354E-05  0.0033
   7.9870E+00   8.1813E+00   9.4811E-05  0.0033
   8.1813E+00   8.3804E+00   9.0569E-05  0.0033
   8.3804E+00   8.5843E+00   8.6491E-05  0.0034
   8.5843E+00   8.7931E+00   8.3273E-05  0.0034
   8.7931E+00   9.0071E+00   7.9330E-05  0.0034
   9.0071E+00   9.2262E+00   7.5946E-05  0.0035
   9.2262E+00   9.4507E+00   7.3241E-05  0.0035
   9.4507E+00   9.6807E+00   6.9952E-05  0.0035
   9.6807E+00   9.9162E+00   6.7125E-05  0.0036
   9.9162E+00   1.0157E+01   6.4266E-05  0.0036
   1.0157E+01   1.0405E+01   6.1817E-05  0.0036
   1.0405E+01   1.0658E+01   5.8724E-05  0.0037
   1.0658E+01   1.0917E+01   5.6779E-05  0.0037
   1.0917E+01   1.1183E+01   5.3196E-05  0.0038
   1.1183E+01   1.1455E+01   5.1598E-05  0.0038
   1.1455E+01   1.1733E+01   4.9634E-05  0.0038
   1.1733E+01   1.2019E+01   4.7377E-05  0.0038
   1.2019E+01   1.2311E+01   4.5253E-05  0.0039
   1.2311E+01   1.2611E+01   4.3761E-05  0.0039
   1.2611E+01   1.2918E+01   4.1940E-05  0.0039
   1.2918E+01   1.3232E+01   4.0307E-05  0.0040
   1.3232E+01   1.3554E+01   3.8910E-05  0.0040
   1.3554E+01   1.3884E+01   3.7410E-05  0.0040
   1.3884E+01   1.4222E+01   3.6019E-05  0.0041
   1.4222E+01   1.4568E+01   3.4602E-05  0.0041
   1.4568E+01   1.4922E+01   3.3147E-05  0.0041
   1.4922E+01   1.5285E+01   3.1730E-05  0.0042
   1.5285E+01   1.5657E+01   3.1197E-05  0.0042
   1.5657E+01   1.6038E+01   2.9607E-05  0.0042
   1.6038E+01   1.6428E+01   2.8643E-05  0.0042
   1.6428E+01   1.6828E+01   2.7315E-05  0.0043
   1.6828E+01   1.7237E+01   2.6552E-05  0.0043
   1.7237E+01   1.7657E+01   2.5521E-05  0.0043
   1.7657E+01   1.8086E+01   2.4539E-05  0.0044
   1.8086E+01   1.8526E+01   2.3807E-05  0.0044
   1.8526E+01   1.8977E+01   2.2879E-05  0.0044
   1.8977E+01   1.9439E+01   2.2070E-05  0.0044
   1.9439E+01   1.9912E+01   2.1159E-05  0.0045
   1.9912E+01   2.0396E+01   1.9756E-05  0.0046
   2.0396E+01   2.0893E+01   1.9433E-05  0.0046
   2.0893E+01   2.1401E+01   1.8719E-05  0.0046
   2.1401E+01   2.1922E+01   1.7824E-05  0.0046
   2.1922E+01   2.2455E+01   1.7099E-05  0.0047
   2.2455E+01   2.3001E+01   1.6496E-05  0.0047
   2.3001E+01   2.3561E+01   1.5701E-05  0.0048
   2.3561E+01   2.4134E+01   1.5101E-05  0.0048
   2.4134E+01   2.4721E+01   1.4504E-05  0.0048
   2.4721E+01   2.5323E+01   1.3805E-05  0.0049
   2.5323E+01   2.5939E+01   1.3182E-05  0.0050
   2.5939E+01   2.6570E+01   1.2511E-05  0.0050
   2.6570E+01   2.7217E+01   1.1920E-05  0.0051
   2.7217E+01   2.7879E+01   1.1221E-05  0.0052
   2.7879E+01   2.8557E+01   1.0688E-05  0.0053
   2.8557E+01   2.9252E+01   1.0170E-05  0.0053
   2.9252E+01   2.9964E+01   9.5624E-06  0.0054
   2.9964E+01   3.0693E+01   9.0420E-06  0.0055
   3.0693E+01   3.1440E+01   8.4207E-06  0.0056
   3.1440E+01   3.2205E+01   7.8771E-06  0.0058
   3.2205E+01   3.2988E+01   7.3684E-06  0.0059
   3.2988E+01   3.3791E+01   6.9138E-06  0.0060
   3.3791E+01   3.4613E+01   6.3966E-06  0.0062
   3.4613E+01   3.5455E+01   5.8721E-06  0.0064
   3.5455E+01   3.6318E+01   5.5415E-06  0.0065
   3.6318E+01   3.7201E+01   5.0186E-06  0.0067
   3.7201E+01   3.8106E+01   4.6347E-06  0.0069
   3.8106E+01   3.9034E+01   4.3160E-06  0.0071
   3.9034E+01   3.9983E+01   3.9188E-06  0.0073
   3.9983E+01   4.0956E+01   3.5630E-06  0.0076
   4.0956E+01   4.1953E+01   3.2695E-06  0.0078
   4.1953E+01   4.2973E+01   2.9533E-06  0.0081
   4.2973E+01   4.4019E+01   2.6846E-06  0.0084
   4.4019E+01   4.5090E+01   2.4332E-06  0.0088
   4.5090E+01   4.6187E+01   2.1577E-06  0.0092
   4.6187E+01   4.7311E+01   1.9559E-06  0.0095
   4.7311E+01   4.8462E+01   1.7361E-06  0.0100
   4.8462E+01   4.9641E+01   1.5491E-06  0.0105
   4.9641E+01   5.0849E+01   1.3491E-06  0.0111
   5.0849E+01   5.2086E+01   1.1984E-06  0.0116
   5.2086E+01   5.3353E+01   1.0749E-06  0.0121
   5.3353E+01   5.4651E+01   9.3211E-07  0.0129
   5.4651E+01   5.5981E+01   8.0529E-07  0.0137
   5.5981E+01   5.7343E+01   6.9116E-07  0.0146
   5.7343E+01   5.8738E+01   6.0407E-07  0.0154
   5.8738E+01   6.0168E+01   5.2549E-07  0.0163
   6.0168E+01   6.1632E+01   4.5631E-07  0.0173
   6.1632E+01   6.3131E+01   3.8532E-07  0.0186
   6.3131E+01   6.4667E+01   3.4557E-07  0.0194
   6.4667E+01   6.6240E+01   2.9249E-07  0.0208
   6.6240E+01   6.7852E+01   2.4496E-07  0.0225
   6.7852E+01   6.9503E+01   2.0958E-07  0.0240
   6.9503E+01   7.1194E+01   1.8308E-07  0.0254
   7.1194E+01   7.2926E+01   1.7100E-07  0.0260
   7.2926E+01   7.4701E+01   1.3954E-07  0.0284
   7.4701E+01   7.6518E+01   1.1279E-07  0.0312
   7.6518E+01   7.8380E+01   9.7972E-08  0.0331
   7.8380E+01   8.0287E+01   8.2326E-08  0.0357
   8.0287E+01   8.2240E+01   6.1942E-08  0.0407
   8.2240E+01   8.4241E+01   5.6672E-08  0.0420
   8.4241E+01   8.6291E+01   4.5471E-08  0.0463
   8.6291E+01   8.8391E+01   3.3055E-08  0.0537
   8.8391E+01   9.0541E+01   2.5667E-08  0.0602
   9.0541E+01   9.2744E+01   1.7613E-08  0.0718
   9.2744E+01   9.5001E+01   1.0458E-08  0.0921
   9.5001E+01   9.7312E+01   2.7688E-09  0.1768
   9.7312E+01   9.9680E+01   1.2671E-09  0.2582
   9.9680E+01   1.0211E+02   8.2464E-10  0.3162
   1.0211E+02   1.0459E+02   1.6101E-10  0.7071
   1.0459E+02   1.0713E+02   0.0000E+00  0.0000
   1.0713E+02   1.0974E+02   0.0000E+00  0.0000
   1.0974E+02   1.1241E+02   0.0000E+00  0.0000
   1.1241E+02   1.1515E+02   0.0000E+00  0.0000
   1.1515E+02   1.1795E+02   0.0000E+00  0.0000
   1.1795E+02   1.2082E+02   0.0000E+00  0.0000
   1.2082E+02   1.2376E+02   0.0000E+00  0.0000
   1.2376E+02   1.2677E+02   0.0000E+00  0.0000
   1.2677E+02   1.2985E+02   0.0000E+00  0.0000
   1.2985E+02   1.3301E+02   0.0000E+00  0.0000
   1.3301E+02   1.3625E+02   0.0000E+00  0.0000
   1.3625E+02   1.3956E+02   0.0000E+00  0.0000
   1.3956E+02   1.4296E+02   0.0000E+00  0.0000
   1.4296E+02   1.4644E+02   0.0000E+00  0.0000
   1.4644E+02   1.5000E+02   0.0000E+00  0.0000

#   sum over                 1.6422E-05
'no. =    1   reg = 114 - 214'
msuc: {\huge [t-cross] in region mesh}
msdr: {\it plotted by \ANGEL \version}
msdl: {\it calculated by \PHITS  3.26}
wt: s(0.7)
\vspace{-3}
  region surface crossing
  area  &=&   1.0000E+00 [cm^2]
e:
 
# Information for Restart Calculation
# This calculation was newly started
# istdev =  2 # 1:Batch variance, 2:History variance
# resc2  = 5.00000000000000000E+09 # Total source weight or Total source weight / maxcas
# resc3  = 5.00000000000000000E+09 # Total history number or Total batch number
# maxcas =   500000000 # History / Batch, only used for istdev=1
# bitrseed = 0110100000100010111000001110001111001110100100011111101000111001 # bit data of rseed
