10 <--- remaining batch number

-------------------------------------------------------------------------------
 start calculation
-------------------------------------------------------------------------------

 date = 2022-09-16
 time = 18h 52m 53

