0 <--- number of remaining batches 

-------------------------------------------------------------------------------
bat[      10] ncas =     5000000000.
 bitrseed = 0001011101011011011000011100010110101100100111100111010011101011
          cpu time =   5 h. 43 m. 42.68 s.

 date = 2022-06-05
 time = 02h 08m 47s

