[ T-Cross ]
    title = [t-cross] in region mesh
     mesh =  reg            # mesh type is region-wise
      reg =    1            # number of crossing regions
      non     r-from    r-to       area
      1       114       214        1.000000    
   e-type =    3            # e-mesh is log given by emin, emax and ne
     emin =  1.0000000E-02  # minimum value of e-mesh points
     emax =   150.0000      # maximum value of e-mesh points
#    edel =  2.4039514E-02  # mesh width of e-mesh points
       ne =    400          # number of e-mesh points
#    data = ( e(i), i = 1, ne + 1 )
#           1.00000E-02  1.02433E-02  1.04925E-02  1.07478E-02  1.10093E-02
#           1.12772E-02  1.15516E-02  1.18326E-02  1.21205E-02  1.24154E-02
#           1.27175E-02  1.30269E-02  1.33439E-02  1.36686E-02  1.40011E-02
#           1.43418E-02  1.46907E-02  1.50482E-02  1.54143E-02  1.57894E-02
#           1.61735E-02  1.65670E-02  1.69701E-02  1.73830E-02  1.78060E-02
#           1.82392E-02  1.86830E-02  1.91375E-02  1.96032E-02  2.00801E-02
#           2.05687E-02  2.10692E-02  2.15818E-02  2.21069E-02  2.26448E-02
#           2.31957E-02  2.37601E-02  2.43382E-02  2.49304E-02  2.55369E-02
#           2.61583E-02  2.67947E-02  2.74467E-02  2.81145E-02  2.87985E-02
#           2.94992E-02  3.02169E-02  3.09521E-02  3.17052E-02  3.24766E-02
#           3.32668E-02  3.40762E-02  3.49053E-02  3.57546E-02  3.66246E-02
#           3.75157E-02  3.84284E-02  3.93634E-02  4.03212E-02  4.13022E-02
#           4.23071E-02  4.33365E-02  4.43909E-02  4.54710E-02  4.65773E-02
#           4.77106E-02  4.88714E-02  5.00605E-02  5.12785E-02  5.25262E-02
#           5.38042E-02  5.51133E-02  5.64542E-02  5.78278E-02  5.92348E-02
#           6.06760E-02  6.21523E-02  6.36645E-02  6.52135E-02  6.68002E-02
#           6.84255E-02  7.00904E-02  7.17957E-02  7.35426E-02  7.53319E-02
#           7.71648E-02  7.90423E-02  8.09655E-02  8.29354E-02  8.49533E-02
#           8.70203E-02  8.91376E-02  9.13064E-02  9.35279E-02  9.58035E-02
#           9.81345E-02  1.00522E-01  1.02968E-01  1.05473E-01  1.08040E-01
#           1.10668E-01  1.13361E-01  1.16119E-01  1.18944E-01  1.21838E-01
#           1.24803E-01  1.27839E-01  1.30950E-01  1.34136E-01  1.37399E-01
#           1.40742E-01  1.44167E-01  1.47675E-01  1.51268E-01  1.54948E-01
#           1.58718E-01  1.62580E-01  1.66535E-01  1.70587E-01  1.74738E-01
#           1.78989E-01  1.83344E-01  1.87805E-01  1.92375E-01  1.97055E-01
#           2.01850E-01  2.06761E-01  2.11792E-01  2.16945E-01  2.22223E-01
#           2.27630E-01  2.33169E-01  2.38842E-01  2.44653E-01  2.50605E-01
#           2.56703E-01  2.62949E-01  2.69346E-01  2.75900E-01  2.82613E-01
#           2.89489E-01  2.96532E-01  3.03747E-01  3.11138E-01  3.18708E-01
#           3.26462E-01  3.34405E-01  3.42542E-01  3.50876E-01  3.59413E-01
#           3.68158E-01  3.77116E-01  3.86291E-01  3.95690E-01  4.05317E-01
#           4.15179E-01  4.25281E-01  4.35628E-01  4.46227E-01  4.57084E-01
#           4.68205E-01  4.79597E-01  4.91266E-01  5.03219E-01  5.15463E-01
#           5.28005E-01  5.40851E-01  5.54011E-01  5.67490E-01  5.81298E-01
#           5.95441E-01  6.09929E-01  6.24769E-01  6.39970E-01  6.55541E-01
#           6.71491E-01  6.87828E-01  7.04564E-01  7.21706E-01  7.39266E-01
#           7.57253E-01  7.75678E-01  7.94551E-01  8.13883E-01  8.33685E-01
#           8.53969E-01  8.74747E-01  8.96030E-01  9.17831E-01  9.40163E-01
#           9.63038E-01  9.86469E-01  1.01047E+00  1.03506E+00  1.06024E+00
#           1.08604E+00  1.11246E+00  1.13953E+00  1.16725E+00  1.19565E+00
#           1.22474E+00  1.25454E+00  1.28507E+00  1.31633E+00  1.34836E+00
#           1.38117E+00  1.41477E+00  1.44920E+00  1.48446E+00  1.52057E+00
#           1.55757E+00  1.59547E+00  1.63429E+00  1.67405E+00  1.71478E+00
#           1.75650E+00  1.79924E+00  1.84302E+00  1.88786E+00  1.93379E+00
#           1.98084E+00  2.02904E+00  2.07841E+00  2.12898E+00  2.18078E+00
#           2.23384E+00  2.28819E+00  2.34386E+00  2.40089E+00  2.45930E+00
#           2.51914E+00  2.58043E+00  2.64322E+00  2.70753E+00  2.77341E+00
#           2.84088E+00  2.91001E+00  2.98081E+00  3.05333E+00  3.12762E+00
#           3.20372E+00  3.28167E+00  3.36152E+00  3.44330E+00  3.52708E+00
#           3.61290E+00  3.70080E+00  3.79085E+00  3.88308E+00  3.97756E+00
#           4.07434E+00  4.17347E+00  4.27501E+00  4.37903E+00  4.48557E+00
#           4.59471E+00  4.70650E+00  4.82102E+00  4.93832E+00  5.05847E+00
#           5.18155E+00  5.30762E+00  5.43676E+00  5.56904E+00  5.70453E+00
#           5.84333E+00  5.98550E+00  6.13114E+00  6.28031E+00  6.43312E+00
#           6.58964E+00  6.74997E+00  6.91420E+00  7.08243E+00  7.25475E+00
#           7.43126E+00  7.61207E+00  7.79728E+00  7.98700E+00  8.18133E+00
#           8.38038E+00  8.58428E+00  8.79315E+00  9.00709E+00  9.22624E+00
#           9.45072E+00  9.68067E+00  9.91620E+00  1.01575E+01  1.04046E+01
#           1.06578E+01  1.09171E+01  1.11827E+01  1.14548E+01  1.17335E+01
#           1.20190E+01  1.23114E+01  1.26109E+01  1.29178E+01  1.32321E+01
#           1.35540E+01  1.38838E+01  1.42216E+01  1.45676E+01  1.49221E+01
#           1.52851E+01  1.56570E+01  1.60380E+01  1.64282E+01  1.68279E+01
#           1.72374E+01  1.76568E+01  1.80864E+01  1.85264E+01  1.89772E+01
#           1.94389E+01  1.99119E+01  2.03963E+01  2.08926E+01  2.14009E+01
#           2.19216E+01  2.24550E+01  2.30014E+01  2.35610E+01  2.41343E+01
#           2.47215E+01  2.53230E+01  2.59391E+01  2.65702E+01  2.72167E+01
#           2.78789E+01  2.85572E+01  2.92520E+01  2.99637E+01  3.06928E+01
#           3.14396E+01  3.22045E+01  3.29881E+01  3.37907E+01  3.46128E+01
#           3.54550E+01  3.63177E+01  3.72013E+01  3.81064E+01  3.90336E+01
#           3.99833E+01  4.09561E+01  4.19526E+01  4.29734E+01  4.40189E+01
#           4.50900E+01  4.61870E+01  4.73108E+01  4.84619E+01  4.96410E+01
#           5.08488E+01  5.20860E+01  5.33533E+01  5.46514E+01  5.59812E+01
#           5.73432E+01  5.87384E+01  6.01676E+01  6.16315E+01  6.31311E+01
#           6.46671E+01  6.62405E+01  6.78522E+01  6.95031E+01  7.11941E+01
#           7.29263E+01  7.47007E+01  7.65182E+01  7.83800E+01  8.02870E+01
#           8.22405E+01  8.42414E+01  8.62911E+01  8.83906E+01  9.05412E+01
#           9.27442E+01  9.50007E+01  9.73122E+01  9.96799E+01  1.02105E+02
#           1.04589E+02  1.07134E+02  1.09741E+02  1.12411E+02  1.15146E+02
#           1.17948E+02  1.20817E+02  1.23757E+02  1.26768E+02  1.29852E+02
#           1.33012E+02  1.36248E+02  1.39563E+02  1.42959E+02  1.46437E+02
#           1.50000E+02
     unit =    2            # unit is [1/cm^2/(MeV/n)/source]
     axis =  eng            # axis of output
     file = detector-15.out  # file name of output for the above axis
   output = f-curr          # surface crossing forward current spectrum
     part =  neutron  
# kf/name :  2112     
#    used :        main (  %)        temp (  %)       total (  %)
#  memory :         414 (  0)           0 (  0)         414 (  0)

#------------------------------------------------------------------------------
#newpage:
#   no. =    1   reg = 114 - 214

x: Energy [MeV/n]
y:  F-Curr [1/cm^2/(MeV/n)/source]         
p: xlog ylog afac(0.8) form(0.9)
h: n            x            y(neutron ),hh0l   n 
#  e-lower      e-upper      neutron     r.err 
   1.0000E-02   1.0243E-02   5.9184E-05  0.1179
   1.0243E-02   1.0493E-02   5.4569E-05  0.1213
   1.0493E-02   1.0748E-02   5.8756E-05  0.1155
   1.0748E-02   1.1009E-02   4.5889E-05  0.1291
   1.1009E-02   1.1277E-02   5.9731E-05  0.1118
   1.1277E-02   1.1552E-02   5.1752E-05  0.1187
   1.1552E-02   1.1833E-02   4.8388E-05  0.1213
   1.1833E-02   1.2121E-02   6.9469E-05  0.1000
   1.2121E-02   1.2415E-02   5.5612E-05  0.1104
   1.2415E-02   1.2718E-02   6.0249E-05  0.1048
   1.2718E-02   1.3027E-02   6.0111E-05  0.1037
   1.3027E-02   1.3344E-02   6.4362E-05  0.0990
   1.3344E-02   1.3669E-02   5.8521E-05  0.1026
   1.3669E-02   1.4001E-02   6.8558E-05  0.0937
   1.4001E-02   1.4342E-02   5.5774E-05  0.1026
   1.4342E-02   1.4691E-02   5.3303E-05  0.1037
   1.4691E-02   1.5048E-02   5.2037E-05  0.1037
   1.5048E-02   1.5414E-02   5.4079E-05  0.1005
   1.5414E-02   1.5789E-02   6.7192E-05  0.0891
   1.5789E-02   1.6174E-02   5.8308E-05  0.0945
   1.6174E-02   1.6567E-02   6.0481E-05  0.0917
   1.6567E-02   1.6970E-02   6.2517E-05  0.0891
   1.6970E-02   1.7383E-02   5.9579E-05  0.0902
   1.7383E-02   1.7806E-02   5.4381E-05  0.0933
   1.7806E-02   1.8239E-02   6.7400E-05  0.0828
   1.8239E-02   1.8683E-02   5.7687E-05  0.0884
   1.8683E-02   1.9138E-02   5.1037E-05  0.0928
   1.9138E-02   1.9603E-02   6.1851E-05  0.0833
   1.9603E-02   2.0080E-02   5.7028E-05  0.0857
   2.0080E-02   2.0569E-02   6.4270E-05  0.0798
   2.0569E-02   2.1069E-02   6.1145E-05  0.0808
   2.1069E-02   2.1582E-02   5.3840E-05  0.0851
   2.1582E-02   2.2107E-02   6.1321E-05  0.0788
   2.2107E-02   2.2645E-02   5.9865E-05  0.0788
   2.2645E-02   2.3196E-02   6.9696E-05  0.0722
   2.3196E-02   2.3760E-02   7.3356E-05  0.0695
   2.3760E-02   2.4338E-02   6.6424E-05  0.0722
   2.4338E-02   2.4930E-02   6.3158E-05  0.0731
   2.4930E-02   2.5537E-02   6.4955E-05  0.0712
   2.5537E-02   2.6158E-02   7.3712E-05  0.0661
   2.6158E-02   2.6795E-02   6.0649E-05  0.0720
   2.6795E-02   2.7447E-02   6.6571E-05  0.0679
   2.7447E-02   2.8114E-02   6.6487E-05  0.0671
   2.8114E-02   2.8799E-02   6.8709E-05  0.0652
   2.8799E-02   2.9499E-02   6.1653E-05  0.0680
   2.9499E-02   3.0217E-02   7.0499E-05  0.0629
   3.0217E-02   3.0952E-02   6.3656E-05  0.0654
   3.0952E-02   3.1705E-02   7.3032E-05  0.0603
   3.1705E-02   3.2477E-02   6.5594E-05  0.0629
   3.2477E-02   3.3267E-02   7.0617E-05  0.0599
   3.3267E-02   3.4076E-02   7.1904E-05  0.0586
   3.4076E-02   3.4905E-02   6.1271E-05  0.0627
   3.4905E-02   3.5755E-02   6.8058E-05  0.0588
   3.5755E-02   3.6625E-02   6.8051E-05  0.0581
   3.6625E-02   3.7516E-02   7.4963E-05  0.0547
   3.7516E-02   3.8428E-02   6.6609E-05  0.0574
   3.8428E-02   3.9363E-02   6.8664E-05  0.0558
   3.9363E-02   4.0321E-02   6.2230E-05  0.0579
   4.0321E-02   4.1302E-02   5.9121E-05  0.0587
   4.1302E-02   4.2307E-02   6.5876E-05  0.0550
   4.2307E-02   4.3337E-02   6.7032E-05  0.0538
   4.3337E-02   4.4391E-02   6.8664E-05  0.0526
   4.4391E-02   4.5471E-02   7.6847E-05  0.0491
   4.5471E-02   4.6577E-02   7.1768E-05  0.0502
   4.6577E-02   4.7711E-02   6.9004E-05  0.0506
   4.7711E-02   4.8871E-02   7.1672E-05  0.0490
   4.8871E-02   5.0061E-02   6.8793E-05  0.0494
   5.0061E-02   5.1279E-02   7.1920E-05  0.0478
   5.1279E-02   5.2526E-02   6.8609E-05  0.0483
   5.2526E-02   5.3804E-02   7.3552E-05  0.0461
   5.3804E-02   5.5113E-02   7.1958E-05  0.0461
   5.5113E-02   5.6454E-02   7.3977E-05  0.0449
   5.6454E-02   5.7828E-02   7.9355E-05  0.0428
   5.7828E-02   5.9235E-02   7.5125E-05  0.0435
   5.9235E-02   6.0676E-02   7.1883E-05  0.0439
   6.0676E-02   6.2152E-02   7.0988E-05  0.0437
   6.2152E-02   6.3665E-02   7.5122E-05  0.0420
   6.3665E-02   6.5214E-02   7.3079E-05  0.0420
   6.5214E-02   6.6800E-02   7.5377E-05  0.0409
   6.6800E-02   6.8426E-02   8.1093E-05  0.0390
   6.8426E-02   7.0090E-02   7.5082E-05  0.0400
   7.0090E-02   7.1796E-02   8.1977E-05  0.0378
   7.1796E-02   7.3543E-02   7.6939E-05  0.0386
   7.3543E-02   7.5332E-02   7.6229E-05  0.0383
   7.5332E-02   7.7165E-02   7.4964E-05  0.0382
   7.7165E-02   7.9042E-02   7.6272E-05  0.0374
   7.9042E-02   8.0965E-02   8.0700E-05  0.0359
   8.0965E-02   8.2935E-02   7.7464E-05  0.0362
   8.2935E-02   8.4953E-02   7.4533E-05  0.0365
   8.4953E-02   8.7020E-02   7.9440E-05  0.0349
   8.7020E-02   8.9138E-02   8.0009E-05  0.0344
   8.9138E-02   9.1306E-02   8.4287E-05  0.0331
   9.1306E-02   9.3528E-02   7.8954E-05  0.0338
   9.3528E-02   9.5804E-02   7.8836E-05  0.0334
   9.5804E-02   9.8134E-02   7.7736E-05  0.0332
   9.8134E-02   1.0052E-01   7.8570E-05  0.0327
   1.0052E-01   1.0297E-01   8.2509E-05  0.0315
   1.0297E-01   1.0547E-01   7.8953E-05  0.0318
   1.0547E-01   1.0804E-01   7.8870E-05  0.0314
   1.0804E-01   1.1067E-01   7.3573E-05  0.0322
   1.1067E-01   1.1336E-01   8.4675E-05  0.0296
   1.1336E-01   1.1612E-01   8.4622E-05  0.0293
   1.1612E-01   1.1894E-01   8.4381E-05  0.0290
   1.1894E-01   1.2184E-01   8.1686E-05  0.0291
   1.2184E-01   1.2480E-01   8.5953E-05  0.0280
   1.2480E-01   1.2784E-01   8.2067E-05  0.0283
   1.2784E-01   1.3095E-01   8.6869E-05  0.0272
   1.3095E-01   1.3414E-01   8.6689E-05  0.0269
   1.3414E-01   1.3740E-01   8.8368E-05  0.0263
   1.3740E-01   1.4074E-01   8.5072E-05  0.0265
   1.4074E-01   1.4417E-01   8.8659E-05  0.0257
   1.4417E-01   1.4767E-01   8.6610E-05  0.0257
   1.4767E-01   1.5127E-01   9.1343E-05  0.0247
   1.5127E-01   1.5495E-01   8.6837E-05  0.0250
   1.5495E-01   1.5872E-01   8.8329E-05  0.0245
   1.5872E-01   1.6258E-01   9.0374E-05  0.0239
   1.6258E-01   1.6654E-01   8.8885E-05  0.0239
   1.6654E-01   1.7059E-01   8.7612E-05  0.0237
   1.7059E-01   1.7474E-01   9.0735E-05  0.0230
   1.7474E-01   1.7899E-01   9.3802E-05  0.0224
   1.7899E-01   1.8334E-01   9.1115E-05  0.0225
   1.8334E-01   1.8781E-01   9.0520E-05  0.0223
   1.8781E-01   1.9237E-01   9.5985E-05  0.0214
   1.9237E-01   1.9706E-01   9.3492E-05  0.0214
   1.9706E-01   2.0185E-01   9.5150E-05  0.0209
   2.0185E-01   2.0676E-01   9.7859E-05  0.0204
   2.0676E-01   2.1179E-01   9.5932E-05  0.0204
   2.1179E-01   2.1694E-01   9.8621E-05  0.0198
   2.1694E-01   2.2222E-01   9.4725E-05  0.0200
   2.2222E-01   2.2763E-01   9.5323E-05  0.0197
   2.2763E-01   2.3317E-01   9.4503E-05  0.0195
   2.3317E-01   2.3884E-01   9.6842E-05  0.0191
   2.3884E-01   2.4465E-01   9.8396E-05  0.0187
   2.4465E-01   2.5061E-01   9.9284E-05  0.0184
   2.5061E-01   2.5670E-01   1.0024E-04  0.0181
   2.5670E-01   2.6295E-01   9.8755E-05  0.0180
   2.6295E-01   2.6935E-01   9.8785E-05  0.0178
   2.6935E-01   2.7590E-01   9.8178E-05  0.0176
   2.7590E-01   2.8261E-01   1.0122E-04  0.0172
   2.8261E-01   2.8949E-01   1.0398E-04  0.0167
   2.8949E-01   2.9653E-01   1.0336E-04  0.0166
   2.9653E-01   3.0375E-01   1.0226E-04  0.0165
   3.0375E-01   3.1114E-01   9.9643E-05  0.0165
   3.1114E-01   3.1871E-01   1.0473E-04  0.0159
   3.1871E-01   3.2646E-01   1.0281E-04  0.0158
   3.2646E-01   3.3441E-01   1.0457E-04  0.0155
   3.3441E-01   3.4254E-01   1.0651E-04  0.0152
   3.4254E-01   3.5088E-01   1.0540E-04  0.0151
   3.5088E-01   3.5941E-01   1.1032E-04  0.0146
   3.5941E-01   3.6816E-01   1.0651E-04  0.0147
   3.6816E-01   3.7712E-01   1.0903E-04  0.0143
   3.7712E-01   3.8629E-01   1.0885E-04  0.0142
   3.8629E-01   3.9569E-01   1.0955E-04  0.0139
   3.9569E-01   4.0532E-01   1.1050E-04  0.0137
   4.0532E-01   4.1518E-01   1.1000E-04  0.0136
   4.1518E-01   4.2528E-01   1.1163E-04  0.0133
   4.2528E-01   4.3563E-01   1.1077E-04  0.0132
   4.3563E-01   4.4623E-01   1.1137E-04  0.0130
   4.4623E-01   4.5708E-01   1.1102E-04  0.0129
   4.5708E-01   4.6821E-01   1.1368E-04  0.0126
   4.6821E-01   4.7960E-01   1.1363E-04  0.0124
   4.7960E-01   4.9127E-01   1.1273E-04  0.0123
   4.9127E-01   5.0322E-01   1.1381E-04  0.0121
   5.0322E-01   5.1546E-01   1.1285E-04  0.0120
   5.1546E-01   5.2800E-01   1.1290E-04  0.0119
   5.2800E-01   5.4085E-01   1.1517E-04  0.0116
   5.4085E-01   5.5401E-01   1.1279E-04  0.0116
   5.5401E-01   5.6749E-01   1.1472E-04  0.0114
   5.6749E-01   5.8130E-01   1.1630E-04  0.0112
   5.8130E-01   5.9544E-01   1.1480E-04  0.0111
   5.9544E-01   6.0993E-01   1.1484E-04  0.0110
   6.0993E-01   6.2477E-01   1.1497E-04  0.0108
   6.2477E-01   6.3997E-01   1.1856E-04  0.0105
   6.3997E-01   6.5554E-01   1.1694E-04  0.0105
   6.5554E-01   6.7149E-01   1.1679E-04  0.0104
   6.7149E-01   6.8783E-01   1.1642E-04  0.0103
   6.8783E-01   7.0456E-01   1.1601E-04  0.0102
   7.0456E-01   7.2171E-01   1.1595E-04  0.0100
   7.2171E-01   7.3927E-01   1.1493E-04  0.0100
   7.3927E-01   7.5725E-01   1.1636E-04  0.0098
   7.5725E-01   7.7568E-01   1.1740E-04  0.0096
   7.7568E-01   7.9455E-01   1.1561E-04  0.0096
   7.9455E-01   8.1388E-01   1.1428E-04  0.0095
   8.1388E-01   8.3368E-01   1.1437E-04  0.0094
   8.3368E-01   8.5397E-01   1.1211E-04  0.0094
   8.5397E-01   8.7475E-01   1.1379E-04  0.0092
   8.7475E-01   8.9603E-01   1.1246E-04  0.0091
   8.9603E-01   9.1783E-01   1.1032E-04  0.0091
   9.1783E-01   9.4016E-01   1.0864E-04  0.0091
   9.4016E-01   9.6304E-01   1.0591E-04  0.0091
   9.6304E-01   9.8647E-01   1.0419E-04  0.0091
   9.8647E-01   1.0105E+00   9.9985E-05  0.0091
   1.0105E+00   1.0351E+00   1.0005E-04  0.0090
   1.0351E+00   1.0602E+00   1.0095E-04  0.0089
   1.0602E+00   1.0860E+00   1.0151E-04  0.0087
   1.0860E+00   1.1125E+00   1.0032E-04  0.0087
   1.1125E+00   1.1395E+00   1.0354E-04  0.0085
   1.1395E+00   1.1673E+00   1.0541E-04  0.0083
   1.1673E+00   1.1957E+00   1.0664E-04  0.0081
   1.1957E+00   1.2247E+00   1.1112E-04  0.0079
   1.2247E+00   1.2545E+00   1.0900E-04  0.0078
   1.2545E+00   1.2851E+00   1.0917E-04  0.0077
   1.2851E+00   1.3163E+00   1.1089E-04  0.0076
   1.3163E+00   1.3484E+00   1.1043E-04  0.0075
   1.3484E+00   1.3812E+00   1.1185E-04  0.0074
   1.3812E+00   1.4148E+00   1.1577E-04  0.0072
   1.4148E+00   1.4492E+00   1.1589E-04  0.0071
   1.4492E+00   1.4845E+00   1.1614E-04  0.0070
   1.4845E+00   1.5206E+00   1.1461E-04  0.0070
   1.5206E+00   1.5576E+00   1.1495E-04  0.0069
   1.5576E+00   1.5955E+00   1.1677E-04  0.0067
   1.5955E+00   1.6343E+00   1.1749E-04  0.0066
   1.6343E+00   1.6741E+00   1.1942E-04  0.0065
   1.6741E+00   1.7148E+00   1.2111E-04  0.0064
   1.7148E+00   1.7565E+00   1.2193E-04  0.0063
   1.7565E+00   1.7992E+00   1.2145E-04  0.0062
   1.7992E+00   1.8430E+00   1.2304E-04  0.0061
   1.8430E+00   1.8879E+00   1.2133E-04  0.0061
   1.8879E+00   1.9338E+00   1.2305E-04  0.0060
   1.9338E+00   1.9808E+00   1.2268E-04  0.0059
   1.9808E+00   2.0290E+00   1.2535E-04  0.0058
   2.0290E+00   2.0784E+00   1.2585E-04  0.0057
   2.0784E+00   2.1290E+00   1.2368E-04  0.0057
   2.1290E+00   2.1808E+00   1.2365E-04  0.0056
   2.1808E+00   2.2338E+00   1.2374E-04  0.0055
   2.2338E+00   2.2882E+00   1.2290E-04  0.0055
   2.2882E+00   2.3439E+00   1.2270E-04  0.0054
   2.3439E+00   2.4009E+00   1.2469E-04  0.0053
   2.4009E+00   2.4593E+00   1.2463E-04  0.0052
   2.4593E+00   2.5191E+00   1.2489E-04  0.0052
   2.5191E+00   2.5804E+00   1.2254E-04  0.0052
   2.5804E+00   2.6432E+00   1.2103E-04  0.0051
   2.6432E+00   2.7075E+00   1.2064E-04  0.0051
   2.7075E+00   2.7734E+00   1.1955E-04  0.0050
   2.7734E+00   2.8409E+00   1.1890E-04  0.0050
   2.8409E+00   2.9100E+00   1.1919E-04  0.0049
   2.9100E+00   2.9808E+00   1.1847E-04  0.0049
   2.9808E+00   3.0533E+00   1.1648E-04  0.0049
   3.0533E+00   3.1276E+00   1.1474E-04  0.0048
   3.1276E+00   3.2037E+00   1.1314E-04  0.0048
   3.2037E+00   3.2817E+00   1.1079E-04  0.0048
   3.2817E+00   3.3615E+00   1.0955E-04  0.0048
   3.3615E+00   3.4433E+00   1.0831E-04  0.0048
   3.4433E+00   3.5271E+00   1.0583E-04  0.0048
   3.5271E+00   3.6129E+00   1.0466E-04  0.0047
   3.6129E+00   3.7008E+00   1.0386E-04  0.0047
   3.7008E+00   3.7908E+00   1.0031E-04  0.0047
   3.7908E+00   3.8831E+00   9.8877E-05  0.0047
   3.8831E+00   3.9776E+00   9.7820E-05  0.0047
   3.9776E+00   4.0743E+00   9.5146E-05  0.0047
   4.0743E+00   4.1735E+00   9.2825E-05  0.0047
   4.1735E+00   4.2750E+00   8.9980E-05  0.0047
   4.2750E+00   4.3790E+00   8.7542E-05  0.0047
   4.3790E+00   4.4856E+00   8.4504E-05  0.0047
   4.4856E+00   4.5947E+00   8.2703E-05  0.0047
   4.5947E+00   4.7065E+00   8.0347E-05  0.0047
   4.7065E+00   4.8210E+00   7.7938E-05  0.0047
   4.8210E+00   4.9383E+00   7.5880E-05  0.0047
   4.9383E+00   5.0585E+00   7.3976E-05  0.0047
   5.0585E+00   5.1815E+00   7.1778E-05  0.0048
   5.1815E+00   5.3076E+00   6.8737E-05  0.0048
   5.3076E+00   5.4368E+00   6.6700E-05  0.0048
   5.4368E+00   5.5690E+00   6.3966E-05  0.0049
   5.5690E+00   5.7045E+00   6.1517E-05  0.0049
   5.7045E+00   5.8433E+00   5.8928E-05  0.0049
   5.8433E+00   5.9855E+00   5.7192E-05  0.0050
   5.9855E+00   6.1311E+00   5.5218E-05  0.0050
   6.1311E+00   6.2803E+00   5.2487E-05  0.0051
   6.2803E+00   6.4331E+00   5.0652E-05  0.0051
   6.4331E+00   6.5896E+00   4.8751E-05  0.0051
   6.5896E+00   6.7500E+00   4.6421E-05  0.0052
   6.7500E+00   6.9142E+00   4.4667E-05  0.0052
   6.9142E+00   7.0824E+00   4.2592E-05  0.0053
   7.0824E+00   7.2548E+00   4.0759E-05  0.0053
   7.2548E+00   7.4313E+00   3.9118E-05  0.0054
   7.4313E+00   7.6121E+00   3.6973E-05  0.0055
   7.6121E+00   7.7973E+00   3.5903E-05  0.0055
   7.7973E+00   7.9870E+00   3.4058E-05  0.0056
   7.9870E+00   8.1813E+00   3.2296E-05  0.0056
   8.1813E+00   8.3804E+00   3.1117E-05  0.0057
   8.3804E+00   8.5843E+00   2.9570E-05  0.0058
   8.5843E+00   8.7931E+00   2.8234E-05  0.0058
   8.7931E+00   9.0071E+00   2.7020E-05  0.0059
   9.0071E+00   9.2262E+00   2.6007E-05  0.0059
   9.2262E+00   9.4507E+00   2.4631E-05  0.0060
   9.4507E+00   9.6807E+00   2.3377E-05  0.0061
   9.6807E+00   9.9162E+00   2.2608E-05  0.0061
   9.9162E+00   1.0157E+01   2.1558E-05  0.0062
   1.0157E+01   1.0405E+01   2.0654E-05  0.0063
   1.0405E+01   1.0658E+01   1.9736E-05  0.0063
   1.0658E+01   1.0917E+01   1.8567E-05  0.0064
   1.0917E+01   1.1183E+01   1.8093E-05  0.0065
   1.1183E+01   1.1455E+01   1.7237E-05  0.0065
   1.1455E+01   1.1733E+01   1.6576E-05  0.0066
   1.1733E+01   1.2019E+01   1.5795E-05  0.0067
   1.2019E+01   1.2311E+01   1.5285E-05  0.0067
   1.2311E+01   1.2611E+01   1.4469E-05  0.0068
   1.2611E+01   1.2918E+01   1.3803E-05  0.0069
   1.2918E+01   1.3232E+01   1.3364E-05  0.0069
   1.3232E+01   1.3554E+01   1.2824E-05  0.0070
   1.3554E+01   1.3884E+01   1.2120E-05  0.0071
   1.3884E+01   1.4222E+01   1.1637E-05  0.0071
   1.4222E+01   1.4568E+01   1.1284E-05  0.0072
   1.4568E+01   1.4922E+01   1.0763E-05  0.0072
   1.4922E+01   1.5285E+01   1.0256E-05  0.0073
   1.5285E+01   1.5657E+01   9.8303E-06  0.0074
   1.5657E+01   1.6038E+01   9.3041E-06  0.0075
   1.6038E+01   1.6428E+01   8.9443E-06  0.0076
   1.6428E+01   1.6828E+01   8.7443E-06  0.0076
   1.6828E+01   1.7237E+01   8.1549E-06  0.0077
   1.7237E+01   1.7657E+01   7.8293E-06  0.0078
   1.7657E+01   1.8086E+01   7.3803E-06  0.0079
   1.8086E+01   1.8526E+01   7.0827E-06  0.0080
   1.8526E+01   1.8977E+01   6.6146E-06  0.0082
   1.8977E+01   1.9439E+01   6.4250E-06  0.0082
   1.9439E+01   1.9912E+01   6.0816E-06  0.0083
   1.9912E+01   2.0396E+01   5.3411E-06  0.0088
   2.0396E+01   2.0893E+01   5.1207E-06  0.0089
   2.0893E+01   2.1401E+01   4.8189E-06  0.0090
   2.1401E+01   2.1922E+01   4.6092E-06  0.0091
   2.1922E+01   2.2455E+01   4.2908E-06  0.0093
   2.2455E+01   2.3001E+01   4.0337E-06  0.0095
   2.3001E+01   2.3561E+01   3.7170E-06  0.0098
   2.3561E+01   2.4134E+01   3.4843E-06  0.0100
   2.4134E+01   2.4721E+01   3.2857E-06  0.0102
   2.4721E+01   2.5323E+01   3.0378E-06  0.0105
   2.5323E+01   2.5939E+01   2.7946E-06  0.0108
   2.5939E+01   2.6570E+01   2.6011E-06  0.0110
   2.6570E+01   2.7217E+01   2.4125E-06  0.0113
   2.7217E+01   2.7879E+01   2.1727E-06  0.0118
   2.7879E+01   2.8557E+01   1.9413E-06  0.0123
   2.8557E+01   2.9252E+01   1.8416E-06  0.0125
   2.9252E+01   2.9964E+01   1.6734E-06  0.0130
   2.9964E+01   3.0693E+01   1.5267E-06  0.0134
   3.0693E+01   3.1440E+01   1.3474E-06  0.0141
   3.1440E+01   3.2205E+01   1.2095E-06  0.0147
   3.2205E+01   3.2988E+01   1.0947E-06  0.0153
   3.2988E+01   3.3791E+01   9.9997E-07  0.0158
   3.3791E+01   3.4613E+01   8.6967E-07  0.0167
   3.4613E+01   3.5455E+01   7.8061E-07  0.0174
   3.5455E+01   3.6318E+01   6.9901E-07  0.0182
   3.6318E+01   3.7201E+01   6.0138E-07  0.0194
   3.7201E+01   3.8106E+01   5.4975E-07  0.0200
   3.8106E+01   3.9034E+01   4.6637E-07  0.0215
   3.9034E+01   3.9983E+01   4.2602E-07  0.0222
   3.9983E+01   4.0956E+01   3.7088E-07  0.0235
   4.0956E+01   4.1953E+01   3.2895E-07  0.0247
   4.1953E+01   4.2973E+01   2.8646E-07  0.0262
   4.2973E+01   4.4019E+01   2.4771E-07  0.0278
   4.4019E+01   4.5090E+01   2.2838E-07  0.0286
   4.5090E+01   4.6187E+01   1.9251E-07  0.0308
   4.6187E+01   4.7311E+01   1.6196E-07  0.0331
   4.7311E+01   4.8462E+01   1.4073E-07  0.0351
   4.8462E+01   4.9641E+01   1.2077E-07  0.0375
   4.9641E+01   5.0849E+01   9.3227E-08  0.0421
   5.0849E+01   5.2086E+01   7.6625E-08  0.0459
   5.2086E+01   5.3353E+01   6.4863E-08  0.0493
   5.3353E+01   5.4651E+01   3.9441E-08  0.0625
   5.4651E+01   5.5981E+01   2.8878E-08  0.0722
   5.5981E+01   5.7343E+01   1.7327E-08  0.0921
   5.7343E+01   5.8738E+01   7.0241E-09  0.1429
   5.8738E+01   6.0168E+01   2.9388E-09  0.2182
   6.0168E+01   6.1632E+01   1.0930E-09  0.3536
   6.1632E+01   6.3131E+01   2.6675E-10  0.7071
   6.3131E+01   6.4667E+01   0.0000E+00  0.0000
   6.4667E+01   6.6240E+01   0.0000E+00  0.0000
   6.6240E+01   6.7852E+01   0.0000E+00  0.0000
   6.7852E+01   6.9503E+01   0.0000E+00  0.0000
   6.9503E+01   7.1194E+01   0.0000E+00  0.0000
   7.1194E+01   7.2926E+01   0.0000E+00  0.0000
   7.2926E+01   7.4701E+01   0.0000E+00  0.0000
   7.4701E+01   7.6518E+01   0.0000E+00  0.0000
   7.6518E+01   7.8380E+01   0.0000E+00  0.0000
   7.8380E+01   8.0287E+01   0.0000E+00  0.0000
   8.0287E+01   8.2240E+01   0.0000E+00  0.0000
   8.2240E+01   8.4241E+01   0.0000E+00  0.0000
   8.4241E+01   8.6291E+01   0.0000E+00  0.0000
   8.6291E+01   8.8391E+01   0.0000E+00  0.0000
   8.8391E+01   9.0541E+01   0.0000E+00  0.0000
   9.0541E+01   9.2744E+01   0.0000E+00  0.0000
   9.2744E+01   9.5001E+01   0.0000E+00  0.0000
   9.5001E+01   9.7312E+01   0.0000E+00  0.0000
   9.7312E+01   9.9680E+01   0.0000E+00  0.0000
   9.9680E+01   1.0211E+02   0.0000E+00  0.0000
   1.0211E+02   1.0459E+02   0.0000E+00  0.0000
   1.0459E+02   1.0713E+02   0.0000E+00  0.0000
   1.0713E+02   1.0974E+02   0.0000E+00  0.0000
   1.0974E+02   1.1241E+02   0.0000E+00  0.0000
   1.1241E+02   1.1515E+02   0.0000E+00  0.0000
   1.1515E+02   1.1795E+02   0.0000E+00  0.0000
   1.1795E+02   1.2082E+02   0.0000E+00  0.0000
   1.2082E+02   1.2376E+02   0.0000E+00  0.0000
   1.2376E+02   1.2677E+02   0.0000E+00  0.0000
   1.2677E+02   1.2985E+02   0.0000E+00  0.0000
   1.2985E+02   1.3301E+02   0.0000E+00  0.0000
   1.3301E+02   1.3625E+02   0.0000E+00  0.0000
   1.3625E+02   1.3956E+02   0.0000E+00  0.0000
   1.3956E+02   1.4296E+02   0.0000E+00  0.0000
   1.4296E+02   1.4644E+02   0.0000E+00  0.0000
   1.4644E+02   1.5000E+02   0.0000E+00  0.0000

#   sum over                 5.9452E-06
'no. =    1   reg = 114 - 214'
msuc: {\huge [t-cross] in region mesh}
msdr: {\it plotted by \ANGEL \version}
msdl: {\it calculated by \PHITS  3.26}
wt: s(0.7)
\vspace{-3}
  region surface crossing
  area  &=&   1.0000E+00 [cm^2]
e:
 
# Information for Restart Calculation
# This calculation was newly started
# istdev =  2 # 1:Batch variance, 2:History variance
# resc2  = 5.00000000000000000E+09 # Total source weight or Total source weight / maxcas
# resc3  = 5.00000000000000000E+09 # Total history number or Total batch number
# maxcas =   500000000 # History / Batch, only used for istdev=1
# bitrseed = 0110100000100010111000001110001111001110100100011111101000111001 # bit data of rseed
