[ T-Cross ]
    title = [t-cross] in region mesh
     mesh =  reg            # mesh type is region-wise
      reg =    1            # number of crossing regions
      non     r-from    r-to       area
      1       100       200        1.000000    
   e-type =    3            # e-mesh is log given by emin, emax and ne
     emin =  1.0000000E-02  # minimum value of e-mesh points
     emax =   150.0000      # maximum value of e-mesh points
#    edel =  2.4039514E-02  # mesh width of e-mesh points
       ne =    400          # number of e-mesh points
#    data = ( e(i), i = 1, ne + 1 )
#           1.00000E-02  1.02433E-02  1.04925E-02  1.07478E-02  1.10093E-02
#           1.12772E-02  1.15516E-02  1.18326E-02  1.21205E-02  1.24154E-02
#           1.27175E-02  1.30269E-02  1.33439E-02  1.36686E-02  1.40011E-02
#           1.43418E-02  1.46907E-02  1.50482E-02  1.54143E-02  1.57894E-02
#           1.61735E-02  1.65670E-02  1.69701E-02  1.73830E-02  1.78060E-02
#           1.82392E-02  1.86830E-02  1.91375E-02  1.96032E-02  2.00801E-02
#           2.05687E-02  2.10692E-02  2.15818E-02  2.21069E-02  2.26448E-02
#           2.31957E-02  2.37601E-02  2.43382E-02  2.49304E-02  2.55369E-02
#           2.61583E-02  2.67947E-02  2.74467E-02  2.81145E-02  2.87985E-02
#           2.94992E-02  3.02169E-02  3.09521E-02  3.17052E-02  3.24766E-02
#           3.32668E-02  3.40762E-02  3.49053E-02  3.57546E-02  3.66246E-02
#           3.75157E-02  3.84284E-02  3.93634E-02  4.03212E-02  4.13022E-02
#           4.23071E-02  4.33365E-02  4.43909E-02  4.54710E-02  4.65773E-02
#           4.77106E-02  4.88714E-02  5.00605E-02  5.12785E-02  5.25262E-02
#           5.38042E-02  5.51133E-02  5.64542E-02  5.78278E-02  5.92348E-02
#           6.06760E-02  6.21523E-02  6.36645E-02  6.52135E-02  6.68002E-02
#           6.84255E-02  7.00904E-02  7.17957E-02  7.35426E-02  7.53319E-02
#           7.71648E-02  7.90423E-02  8.09655E-02  8.29354E-02  8.49533E-02
#           8.70203E-02  8.91376E-02  9.13064E-02  9.35279E-02  9.58035E-02
#           9.81345E-02  1.00522E-01  1.02968E-01  1.05473E-01  1.08040E-01
#           1.10668E-01  1.13361E-01  1.16119E-01  1.18944E-01  1.21838E-01
#           1.24803E-01  1.27839E-01  1.30950E-01  1.34136E-01  1.37399E-01
#           1.40742E-01  1.44167E-01  1.47675E-01  1.51268E-01  1.54948E-01
#           1.58718E-01  1.62580E-01  1.66535E-01  1.70587E-01  1.74738E-01
#           1.78989E-01  1.83344E-01  1.87805E-01  1.92375E-01  1.97055E-01
#           2.01850E-01  2.06761E-01  2.11792E-01  2.16945E-01  2.22223E-01
#           2.27630E-01  2.33169E-01  2.38842E-01  2.44653E-01  2.50605E-01
#           2.56703E-01  2.62949E-01  2.69346E-01  2.75900E-01  2.82613E-01
#           2.89489E-01  2.96532E-01  3.03747E-01  3.11138E-01  3.18708E-01
#           3.26462E-01  3.34405E-01  3.42542E-01  3.50876E-01  3.59413E-01
#           3.68158E-01  3.77116E-01  3.86291E-01  3.95690E-01  4.05317E-01
#           4.15179E-01  4.25281E-01  4.35628E-01  4.46227E-01  4.57084E-01
#           4.68205E-01  4.79597E-01  4.91266E-01  5.03219E-01  5.15463E-01
#           5.28005E-01  5.40851E-01  5.54011E-01  5.67490E-01  5.81298E-01
#           5.95441E-01  6.09929E-01  6.24769E-01  6.39970E-01  6.55541E-01
#           6.71491E-01  6.87828E-01  7.04564E-01  7.21706E-01  7.39266E-01
#           7.57253E-01  7.75678E-01  7.94551E-01  8.13883E-01  8.33685E-01
#           8.53969E-01  8.74747E-01  8.96030E-01  9.17831E-01  9.40163E-01
#           9.63038E-01  9.86469E-01  1.01047E+00  1.03506E+00  1.06024E+00
#           1.08604E+00  1.11246E+00  1.13953E+00  1.16725E+00  1.19565E+00
#           1.22474E+00  1.25454E+00  1.28507E+00  1.31633E+00  1.34836E+00
#           1.38117E+00  1.41477E+00  1.44920E+00  1.48446E+00  1.52057E+00
#           1.55757E+00  1.59547E+00  1.63429E+00  1.67405E+00  1.71478E+00
#           1.75650E+00  1.79924E+00  1.84302E+00  1.88786E+00  1.93379E+00
#           1.98084E+00  2.02904E+00  2.07841E+00  2.12898E+00  2.18078E+00
#           2.23384E+00  2.28819E+00  2.34386E+00  2.40089E+00  2.45930E+00
#           2.51914E+00  2.58043E+00  2.64322E+00  2.70753E+00  2.77341E+00
#           2.84088E+00  2.91001E+00  2.98081E+00  3.05333E+00  3.12762E+00
#           3.20372E+00  3.28167E+00  3.36152E+00  3.44330E+00  3.52708E+00
#           3.61290E+00  3.70080E+00  3.79085E+00  3.88308E+00  3.97756E+00
#           4.07434E+00  4.17347E+00  4.27501E+00  4.37903E+00  4.48557E+00
#           4.59471E+00  4.70650E+00  4.82102E+00  4.93832E+00  5.05847E+00
#           5.18155E+00  5.30762E+00  5.43676E+00  5.56904E+00  5.70453E+00
#           5.84333E+00  5.98550E+00  6.13114E+00  6.28031E+00  6.43312E+00
#           6.58964E+00  6.74997E+00  6.91420E+00  7.08243E+00  7.25475E+00
#           7.43126E+00  7.61207E+00  7.79728E+00  7.98700E+00  8.18133E+00
#           8.38038E+00  8.58428E+00  8.79315E+00  9.00709E+00  9.22624E+00
#           9.45072E+00  9.68067E+00  9.91620E+00  1.01575E+01  1.04046E+01
#           1.06578E+01  1.09171E+01  1.11827E+01  1.14548E+01  1.17335E+01
#           1.20190E+01  1.23114E+01  1.26109E+01  1.29178E+01  1.32321E+01
#           1.35540E+01  1.38838E+01  1.42216E+01  1.45676E+01  1.49221E+01
#           1.52851E+01  1.56570E+01  1.60380E+01  1.64282E+01  1.68279E+01
#           1.72374E+01  1.76568E+01  1.80864E+01  1.85264E+01  1.89772E+01
#           1.94389E+01  1.99119E+01  2.03963E+01  2.08926E+01  2.14009E+01
#           2.19216E+01  2.24550E+01  2.30014E+01  2.35610E+01  2.41343E+01
#           2.47215E+01  2.53230E+01  2.59391E+01  2.65702E+01  2.72167E+01
#           2.78789E+01  2.85572E+01  2.92520E+01  2.99637E+01  3.06928E+01
#           3.14396E+01  3.22045E+01  3.29881E+01  3.37907E+01  3.46128E+01
#           3.54550E+01  3.63177E+01  3.72013E+01  3.81064E+01  3.90336E+01
#           3.99833E+01  4.09561E+01  4.19526E+01  4.29734E+01  4.40189E+01
#           4.50900E+01  4.61870E+01  4.73108E+01  4.84619E+01  4.96410E+01
#           5.08488E+01  5.20860E+01  5.33533E+01  5.46514E+01  5.59812E+01
#           5.73432E+01  5.87384E+01  6.01676E+01  6.16315E+01  6.31311E+01
#           6.46671E+01  6.62405E+01  6.78522E+01  6.95031E+01  7.11941E+01
#           7.29263E+01  7.47007E+01  7.65182E+01  7.83800E+01  8.02870E+01
#           8.22405E+01  8.42414E+01  8.62911E+01  8.83906E+01  9.05412E+01
#           9.27442E+01  9.50007E+01  9.73122E+01  9.96799E+01  1.02105E+02
#           1.04589E+02  1.07134E+02  1.09741E+02  1.12411E+02  1.15146E+02
#           1.17948E+02  1.20817E+02  1.23757E+02  1.26768E+02  1.29852E+02
#           1.33012E+02  1.36248E+02  1.39563E+02  1.42959E+02  1.46437E+02
#           1.50000E+02
     unit =    2            # unit is [1/cm^2/(MeV/n)/source]
     axis =  eng            # axis of output
     file = detector-01.out  # file name of output for the above axis
   output = f-curr          # surface crossing forward current spectrum
     part =  neutron  
# kf/name :  2112     
#    used :        main (  %)        temp (  %)       total (  %)
#  memory :         414 (  0)           0 (  0)         414 (  0)

#------------------------------------------------------------------------------
#newpage:
#   no. =    1   reg = 100 - 200

x: Energy [MeV/n]
y:  F-Curr [1/cm^2/(MeV/n)/source]         
p: xlog ylog afac(0.8) form(0.9)
h: n            x            y(neutron ),hh0l   n 
#  e-lower      e-upper      neutron     r.err 
   1.0000E-02   1.0243E-02   3.7319E-03  0.0332
   1.0243E-02   1.0493E-02   3.7757E-03  0.0326
   1.0493E-02   1.0748E-02   3.8152E-03  0.0320
   1.0748E-02   1.1009E-02   3.7131E-03  0.0321
   1.1009E-02   1.1277E-02   3.7593E-03  0.0315
   1.1277E-02   1.1552E-02   3.5935E-03  0.0318
   1.1552E-02   1.1833E-02   3.4121E-03  0.0323
   1.1833E-02   1.2121E-02   3.4491E-03  0.0317
   1.2121E-02   1.2415E-02   3.4113E-03  0.0315
   1.2415E-02   1.2718E-02   3.2872E-03  0.0317
   1.2718E-02   1.3027E-02   3.3255E-03  0.0312
   1.3027E-02   1.3344E-02   3.3159E-03  0.0308
   1.3344E-02   1.3669E-02   3.1478E-03  0.0313
   1.3669E-02   1.4001E-02   3.1091E-03  0.0311
   1.4001E-02   1.4342E-02   3.1938E-03  0.0303
   1.4342E-02   1.4691E-02   3.0778E-03  0.0305
   1.4691E-02   1.5048E-02   3.1082E-03  0.0300
   1.5048E-02   1.5414E-02   2.9907E-03  0.0302
   1.5414E-02   1.5789E-02   3.1890E-03  0.0289
   1.5789E-02   1.6174E-02   2.9727E-03  0.0296
   1.6174E-02   1.6567E-02   2.9478E-03  0.0294
   1.6567E-02   1.6970E-02   2.9274E-03  0.0291
   1.6970E-02   1.7383E-02   2.9063E-03  0.0289
   1.7383E-02   1.7806E-02   2.8798E-03  0.0287
   1.7806E-02   1.8239E-02   2.8668E-03  0.0284
   1.8239E-02   1.8683E-02   2.7199E-03  0.0288
   1.8683E-02   1.9138E-02   2.6706E-03  0.0287
   1.9138E-02   1.9603E-02   2.6931E-03  0.0282
   1.9603E-02   2.0080E-02   2.5327E-03  0.0288
   2.0080E-02   2.0569E-02   2.5933E-03  0.0281
   2.0569E-02   2.1069E-02   2.5577E-03  0.0280
   2.1069E-02   2.1582E-02   2.5164E-03  0.0278
   2.1582E-02   2.2107E-02   2.6128E-03  0.0270
   2.2107E-02   2.2645E-02   2.4504E-03  0.0275
   2.2645E-02   2.3196E-02   2.3831E-03  0.0276
   2.3196E-02   2.3760E-02   2.5604E-03  0.0263
   2.3760E-02   2.4338E-02   2.2816E-03  0.0275
   2.4338E-02   2.4930E-02   2.3591E-03  0.0268
   2.4930E-02   2.5537E-02   2.3995E-03  0.0262
   2.5537E-02   2.6158E-02   2.3144E-03  0.0264
   2.6158E-02   2.6795E-02   2.2893E-03  0.0262
   2.6795E-02   2.7447E-02   2.2149E-03  0.0263
   2.7447E-02   2.8114E-02   2.1339E-03  0.0265
   2.8114E-02   2.8799E-02   2.1841E-03  0.0259
   2.8799E-02   2.9499E-02   2.2392E-03  0.0252
   2.9499E-02   3.0217E-02   2.1150E-03  0.0257
   3.0217E-02   3.0952E-02   2.0838E-03  0.0256
   3.0952E-02   3.1705E-02   2.0423E-03  0.0255
   3.1705E-02   3.2477E-02   2.0612E-03  0.0251
   3.2477E-02   3.3267E-02   1.9135E-03  0.0257
   3.3267E-02   3.4076E-02   2.0027E-03  0.0248
   3.4076E-02   3.4905E-02   1.9370E-03  0.0250
   3.4905E-02   3.5755E-02   1.9046E-03  0.0249
   3.5755E-02   3.6625E-02   1.9024E-03  0.0246
   3.6625E-02   3.7516E-02   1.8819E-03  0.0244
   3.7516E-02   3.8428E-02   1.8778E-03  0.0242
   3.8428E-02   3.9363E-02   1.8300E-03  0.0242
   3.9363E-02   4.0321E-02   1.7896E-03  0.0242
   4.0321E-02   4.1302E-02   1.8093E-03  0.0237
   4.1302E-02   4.2307E-02   1.7802E-03  0.0236
   4.2307E-02   4.3337E-02   1.7516E-03  0.0236
   4.3337E-02   4.4391E-02   1.7251E-03  0.0234
   4.4391E-02   4.5471E-02   1.7082E-03  0.0233
   4.5471E-02   4.6577E-02   1.6152E-03  0.0237
   4.6577E-02   4.7711E-02   1.6289E-03  0.0233
   4.7711E-02   4.8871E-02   1.6152E-03  0.0231
   4.8871E-02   5.0061E-02   1.6147E-03  0.0228
   5.0061E-02   5.1279E-02   1.6412E-03  0.0224
   5.1279E-02   5.2526E-02   1.5381E-03  0.0228
   5.2526E-02   5.3804E-02   1.5798E-03  0.0223
   5.3804E-02   5.5113E-02   1.5568E-03  0.0222
   5.5113E-02   5.6454E-02   1.4490E-03  0.0227
   5.6454E-02   5.7828E-02   1.4801E-03  0.0222
   5.7828E-02   5.9235E-02   1.4272E-03  0.0223
   5.9235E-02   6.0676E-02   1.4397E-03  0.0220
   6.0676E-02   6.2152E-02   1.4259E-03  0.0218
   6.2152E-02   6.3665E-02   1.4462E-03  0.0214
   6.3665E-02   6.5214E-02   1.3215E-03  0.0221
   6.5214E-02   6.6800E-02   1.3809E-03  0.0214
   6.6800E-02   6.8426E-02   1.3450E-03  0.0214
   6.8426E-02   7.0090E-02   1.3046E-03  0.0215
   7.0090E-02   7.1796E-02   1.3106E-03  0.0212
   7.1796E-02   7.3543E-02   1.2823E-03  0.0211
   7.3543E-02   7.5332E-02   1.2843E-03  0.0209
   7.5332E-02   7.7165E-02   1.2936E-03  0.0205
   7.7165E-02   7.9042E-02   1.2016E-03  0.0211
   7.9042E-02   8.0965E-02   1.2256E-03  0.0206
   8.0965E-02   8.2935E-02   1.2254E-03  0.0204
   8.2935E-02   8.4953E-02   1.1700E-03  0.0206
   8.4953E-02   8.7020E-02   1.1635E-03  0.0204
   8.7020E-02   8.9138E-02   1.1397E-03  0.0204
   8.9138E-02   9.1306E-02   1.1292E-03  0.0202
   9.1306E-02   9.3528E-02   1.1316E-03  0.0199
   9.3528E-02   9.5804E-02   1.1478E-03  0.0196
   9.5804E-02   9.8134E-02   1.0931E-03  0.0198
   9.8134E-02   1.0052E-01   1.0692E-03  0.0198
   1.0052E-01   1.0297E-01   1.0949E-03  0.0193
   1.0297E-01   1.0547E-01   1.0653E-03  0.0194
   1.0547E-01   1.0804E-01   1.0412E-03  0.0193
   1.0804E-01   1.1067E-01   1.0169E-03  0.0193
   1.1067E-01   1.1336E-01   1.0068E-03  0.0192
   1.1336E-01   1.1612E-01   9.7855E-04  0.0192
   1.1612E-01   1.1894E-01   9.8504E-04  0.0190
   1.1894E-01   1.2184E-01   9.7892E-04  0.0188
   1.2184E-01   1.2480E-01   9.4487E-04  0.0189
   1.2480E-01   1.2784E-01   9.2375E-04  0.0189
   1.2784E-01   1.3095E-01   9.0534E-04  0.0188
   1.3095E-01   1.3414E-01   8.9545E-04  0.0187
   1.3414E-01   1.3740E-01   9.0727E-04  0.0184
   1.3740E-01   1.4074E-01   8.9619E-04  0.0183
   1.4074E-01   1.4417E-01   8.7812E-04  0.0182
   1.4417E-01   1.4767E-01   8.5469E-04  0.0183
   1.4767E-01   1.5127E-01   8.7308E-04  0.0179
   1.5127E-01   1.5495E-01   8.3821E-04  0.0180
   1.5495E-01   1.5872E-01   8.2281E-04  0.0180
   1.5872E-01   1.6258E-01   8.1621E-04  0.0178
   1.6258E-01   1.6654E-01   7.9834E-04  0.0178
   1.6654E-01   1.7059E-01   7.8975E-04  0.0177
   1.7059E-01   1.7474E-01   7.7532E-04  0.0176
   1.7474E-01   1.7899E-01   7.7290E-04  0.0174
   1.7899E-01   1.8334E-01   7.5776E-04  0.0174
   1.8334E-01   1.8781E-01   7.3684E-04  0.0174
   1.8781E-01   1.9237E-01   7.2656E-04  0.0174
   1.9237E-01   1.9706E-01   7.2084E-04  0.0172
   1.9706E-01   2.0185E-01   7.2041E-04  0.0170
   2.0185E-01   2.0676E-01   7.2834E-04  0.0167
   2.0676E-01   2.1179E-01   6.8639E-04  0.0170
   2.1179E-01   2.1694E-01   6.7931E-04  0.0169
   2.1694E-01   2.2222E-01   6.6251E-04  0.0169
   2.2222E-01   2.2763E-01   6.5250E-04  0.0168
   2.2763E-01   2.3317E-01   6.7194E-04  0.0164
   2.3317E-01   2.3884E-01   6.4162E-04  0.0166
   2.3884E-01   2.4465E-01   6.1140E-04  0.0168
   2.4465E-01   2.5061E-01   6.1385E-04  0.0165
   2.5061E-01   2.5670E-01   6.1772E-04  0.0163
   2.5670E-01   2.6295E-01   5.8792E-04  0.0165
   2.6295E-01   2.6935E-01   5.8802E-04  0.0163
   2.6935E-01   2.7590E-01   5.7894E-04  0.0162
   2.7590E-01   2.8261E-01   5.7084E-04  0.0162
   2.8261E-01   2.8949E-01   5.4616E-04  0.0163
   2.8949E-01   2.9653E-01   5.5257E-04  0.0160
   2.9653E-01   3.0375E-01   5.4235E-04  0.0160
   3.0375E-01   3.1114E-01   5.3637E-04  0.0159
   3.1114E-01   3.1871E-01   5.2812E-04  0.0158
   3.1871E-01   3.2646E-01   5.1596E-04  0.0158
   3.2646E-01   3.3441E-01   5.0320E-04  0.0158
   3.3441E-01   3.4254E-01   4.8965E-04  0.0158
   3.4254E-01   3.5088E-01   4.8354E-04  0.0158
   3.5088E-01   3.5941E-01   4.7534E-04  0.0157
   3.5941E-01   3.6816E-01   4.6256E-04  0.0157
   3.6816E-01   3.7712E-01   4.5715E-04  0.0156
   3.7712E-01   3.8629E-01   4.4205E-04  0.0157
   3.8629E-01   3.9569E-01   4.4336E-04  0.0155
   3.9569E-01   4.0532E-01   4.3386E-04  0.0155
   4.0532E-01   4.1518E-01   4.2599E-04  0.0154
   4.1518E-01   4.2528E-01   4.2340E-04  0.0153
   4.2528E-01   4.3563E-01   4.1199E-04  0.0153
   4.3563E-01   4.4623E-01   3.9739E-04  0.0154
   4.4623E-01   4.5708E-01   3.8344E-04  0.0155
   4.5708E-01   4.6821E-01   3.7757E-04  0.0154
   4.6821E-01   4.7960E-01   3.7782E-04  0.0152
   4.7960E-01   4.9127E-01   3.6781E-04  0.0153
   4.9127E-01   5.0322E-01   3.6585E-04  0.0151
   5.0322E-01   5.1546E-01   3.5136E-04  0.0152
   5.1546E-01   5.2800E-01   3.4836E-04  0.0151
   5.2800E-01   5.4085E-01   3.3152E-04  0.0153
   5.4085E-01   5.5401E-01   3.2600E-04  0.0153
   5.5401E-01   5.6749E-01   3.2427E-04  0.0151
   5.6749E-01   5.8130E-01   3.1874E-04  0.0151
   5.8130E-01   5.9544E-01   3.0403E-04  0.0152
   5.9544E-01   6.0993E-01   3.0198E-04  0.0151
   6.0993E-01   6.2477E-01   2.8531E-04  0.0154
   6.2477E-01   6.3997E-01   2.8340E-04  0.0152
   6.3997E-01   6.5554E-01   2.7506E-04  0.0153
   6.5554E-01   6.7149E-01   2.6170E-04  0.0155
   6.7149E-01   6.8783E-01   2.5377E-04  0.0155
   6.8783E-01   7.0456E-01   2.4696E-04  0.0156
   7.0456E-01   7.2171E-01   2.4285E-04  0.0155
   7.2171E-01   7.3927E-01   2.3639E-04  0.0155
   7.3927E-01   7.5725E-01   2.3378E-04  0.0154
   7.5725E-01   7.7568E-01   2.1813E-04  0.0158
   7.7568E-01   7.9455E-01   2.1438E-04  0.0157
   7.9455E-01   8.1388E-01   2.0831E-04  0.0158
   8.1388E-01   8.3368E-01   1.9806E-04  0.0160
   8.3368E-01   8.5397E-01   1.9424E-04  0.0159
   8.5397E-01   8.7475E-01   1.8462E-04  0.0161
   8.7475E-01   8.9603E-01   1.7812E-04  0.0162
   8.9603E-01   9.1783E-01   1.7086E-04  0.0164
   9.1783E-01   9.4016E-01   1.6824E-04  0.0163
   9.4016E-01   9.6304E-01   1.5843E-04  0.0166
   9.6304E-01   9.8647E-01   1.5108E-04  0.0168
   9.8647E-01   1.0105E+00   1.4874E-04  0.0167
   1.0105E+00   1.0351E+00   1.4883E-04  0.0165
   1.0351E+00   1.0602E+00   1.4899E-04  0.0163
   1.0602E+00   1.0860E+00   1.4735E-04  0.0162
   1.0860E+00   1.1125E+00   1.5017E-04  0.0159
   1.1125E+00   1.1395E+00   1.5535E-04  0.0154
   1.1395E+00   1.1673E+00   1.5805E-04  0.0151
   1.1673E+00   1.1957E+00   1.6613E-04  0.0146
   1.1957E+00   1.2247E+00   1.6985E-04  0.0142
   1.2247E+00   1.2545E+00   1.6524E-04  0.0143
   1.2545E+00   1.2851E+00   1.6549E-04  0.0141
   1.2851E+00   1.3163E+00   1.6634E-04  0.0139
   1.3163E+00   1.3484E+00   1.7020E-04  0.0135
   1.3484E+00   1.3812E+00   1.7533E-04  0.0132
   1.3812E+00   1.4148E+00   1.7911E-04  0.0129
   1.4148E+00   1.4492E+00   1.7846E-04  0.0128
   1.4492E+00   1.4845E+00   1.7813E-04  0.0126
   1.4845E+00   1.5206E+00   1.7620E-04  0.0125
   1.5206E+00   1.5576E+00   1.7720E-04  0.0124
   1.5576E+00   1.5955E+00   1.7954E-04  0.0121
   1.5955E+00   1.6343E+00   1.7834E-04  0.0120
   1.6343E+00   1.6741E+00   1.7823E-04  0.0119
   1.6741E+00   1.7148E+00   1.8107E-04  0.0116
   1.7148E+00   1.7565E+00   1.7914E-04  0.0116
   1.7565E+00   1.7992E+00   1.7590E-04  0.0115
   1.7992E+00   1.8430E+00   1.7404E-04  0.0115
   1.8430E+00   1.8879E+00   1.7241E-04  0.0114
   1.8879E+00   1.9338E+00   1.6949E-04  0.0113
   1.9338E+00   1.9808E+00   1.7413E-04  0.0110
   1.9808E+00   2.0290E+00   1.7742E-04  0.0108
   2.0290E+00   2.0784E+00   1.7216E-04  0.0109
   2.0784E+00   2.1290E+00   1.6530E-04  0.0109
   2.1290E+00   2.1808E+00   1.6172E-04  0.0109
   2.1808E+00   2.2338E+00   1.5999E-04  0.0109
   2.2338E+00   2.2882E+00   1.5648E-04  0.0108
   2.2882E+00   2.3439E+00   1.5437E-04  0.0108
   2.3439E+00   2.4009E+00   1.5487E-04  0.0106
   2.4009E+00   2.4593E+00   1.5234E-04  0.0106
   2.4593E+00   2.5191E+00   1.4561E-04  0.0107
   2.5191E+00   2.5804E+00   1.4330E-04  0.0107
   2.5804E+00   2.6432E+00   1.4036E-04  0.0107
   2.6432E+00   2.7075E+00   1.3326E-04  0.0108
   2.7075E+00   2.7734E+00   1.2938E-04  0.0108
   2.7734E+00   2.8409E+00   1.2955E-04  0.0107
   2.8409E+00   2.9100E+00   1.2355E-04  0.0108
   2.9100E+00   2.9808E+00   1.2358E-04  0.0107
   2.9808E+00   3.0533E+00   1.1899E-04  0.0108
   3.0533E+00   3.1276E+00   1.1377E-04  0.0109
   3.1276E+00   3.2037E+00   1.0793E-04  0.0110
   3.2037E+00   3.2817E+00   1.0377E-04  0.0111
   3.2817E+00   3.3615E+00   1.0051E-04  0.0112
   3.3615E+00   3.4433E+00   9.5429E-05  0.0113
   3.4433E+00   3.5271E+00   9.2005E-05  0.0114
   3.5271E+00   3.6129E+00   8.8677E-05  0.0115
   3.6129E+00   3.7008E+00   8.5650E-05  0.0115
   3.7008E+00   3.7908E+00   8.3493E-05  0.0115
   3.7908E+00   3.8831E+00   7.7943E-05  0.0118
   3.8831E+00   3.9776E+00   7.4461E-05  0.0119
   3.9776E+00   4.0743E+00   6.9892E-05  0.0122
   4.0743E+00   4.1735E+00   6.7607E-05  0.0122
   4.1735E+00   4.2750E+00   6.4514E-05  0.0124
   4.2750E+00   4.3790E+00   5.9742E-05  0.0127
   4.3790E+00   4.4856E+00   5.7900E-05  0.0127
   4.4856E+00   4.5947E+00   5.3327E-05  0.0131
   4.5947E+00   4.7065E+00   5.0687E-05  0.0133
   4.7065E+00   4.8210E+00   4.8440E-05  0.0134
   4.8210E+00   4.9383E+00   4.4433E-05  0.0139
   4.9383E+00   5.0585E+00   4.2787E-05  0.0139
   5.0585E+00   5.1815E+00   3.9910E-05  0.0143
   5.1815E+00   5.3076E+00   3.8740E-05  0.0143
   5.3076E+00   5.4368E+00   3.5628E-05  0.0147
   5.4368E+00   5.5690E+00   3.3300E-05  0.0151
   5.5690E+00   5.7045E+00   3.1188E-05  0.0154
   5.7045E+00   5.8433E+00   2.9093E-05  0.0157
   5.8433E+00   5.9855E+00   2.7206E-05  0.0161
   5.9855E+00   6.1311E+00   2.5709E-05  0.0163
   6.1311E+00   6.2803E+00   2.4367E-05  0.0166
   6.2803E+00   6.4331E+00   2.2126E-05  0.0172
   6.4331E+00   6.5896E+00   2.1281E-05  0.0173
   6.5896E+00   6.7500E+00   2.0358E-05  0.0175
   6.7500E+00   6.9142E+00   1.8456E-05  0.0182
   6.9142E+00   7.0824E+00   1.7524E-05  0.0184
   7.0824E+00   7.2548E+00   1.6321E-05  0.0189
   7.2548E+00   7.4313E+00   1.5557E-05  0.0191
   7.4313E+00   7.6121E+00   1.4568E-05  0.0195
   7.6121E+00   7.7973E+00   1.3601E-05  0.0199
   7.7973E+00   7.9870E+00   1.3257E-05  0.0199
   7.9870E+00   8.1813E+00   1.2378E-05  0.0204
   8.1813E+00   8.3804E+00   1.1775E-05  0.0207
   8.3804E+00   8.5843E+00   1.1471E-05  0.0207
   8.5843E+00   8.7931E+00   1.0976E-05  0.0209
   8.7931E+00   9.0071E+00   1.0183E-05  0.0214
   9.0071E+00   9.2262E+00   9.9316E-06  0.0214
   9.2262E+00   9.4507E+00   9.3460E-06  0.0218
   9.4507E+00   9.6807E+00   9.1609E-06  0.0218
   9.6807E+00   9.9162E+00   8.8351E-06  0.0219
   9.9162E+00   1.0157E+01   8.6957E-06  0.0218
   1.0157E+01   1.0405E+01   8.4568E-06  0.0219
   1.0405E+01   1.0658E+01   8.1374E-06  0.0220
   1.0658E+01   1.0917E+01   7.7821E-06  0.0222
   1.0917E+01   1.1183E+01   7.5691E-06  0.0223
   1.1183E+01   1.1455E+01   7.4076E-06  0.0223
   1.1455E+01   1.1733E+01   7.5887E-06  0.0217
   1.1733E+01   1.2019E+01   7.2403E-06  0.0220
   1.2019E+01   1.2311E+01   7.2838E-06  0.0217
   1.2311E+01   1.2611E+01   7.2009E-06  0.0215
   1.2611E+01   1.2918E+01   6.9549E-06  0.0216
   1.2918E+01   1.3232E+01   6.8279E-06  0.0216
   1.3232E+01   1.3554E+01   6.7216E-06  0.0215
   1.3554E+01   1.3884E+01   6.7151E-06  0.0212
   1.3884E+01   1.4222E+01   6.6991E-06  0.0210
   1.4222E+01   1.4568E+01   6.3854E-06  0.0213
   1.4568E+01   1.4922E+01   6.5610E-06  0.0207
   1.4922E+01   1.5285E+01   6.4355E-06  0.0207
   1.5285E+01   1.5657E+01   6.4211E-06  0.0205
   1.5657E+01   1.6038E+01   6.3972E-06  0.0203
   1.6038E+01   1.6428E+01   6.4477E-06  0.0199
   1.6428E+01   1.6828E+01   6.4096E-06  0.0198
   1.6828E+01   1.7237E+01   6.4125E-06  0.0195
   1.7237E+01   1.7657E+01   6.3400E-06  0.0194
   1.7657E+01   1.8086E+01   6.1545E-06  0.0194
   1.8086E+01   1.8526E+01   6.3287E-06  0.0189
   1.8526E+01   1.8977E+01   6.0963E-06  0.0191
   1.8977E+01   1.9439E+01   6.2894E-06  0.0186
   1.9439E+01   1.9912E+01   6.3800E-06  0.0182
   1.9912E+01   2.0396E+01   5.8971E-06  0.0187
   2.0396E+01   2.0893E+01   6.1681E-06  0.0181
   2.0893E+01   2.1401E+01   6.1338E-06  0.0179
   2.1401E+01   2.1922E+01   5.9958E-06  0.0179
   2.1922E+01   2.2455E+01   6.0390E-06  0.0176
   2.2455E+01   2.3001E+01   6.1023E-06  0.0173
   2.3001E+01   2.3561E+01   6.1807E-06  0.0170
   2.3561E+01   2.4134E+01   6.1142E-06  0.0169
   2.4134E+01   2.4721E+01   6.1835E-06  0.0166
   2.4721E+01   2.5323E+01   6.1547E-06  0.0164
   2.5323E+01   2.5939E+01   6.2292E-06  0.0161
   2.5939E+01   2.6570E+01   6.2952E-06  0.0159
   2.6570E+01   2.7217E+01   6.3328E-06  0.0156
   2.7217E+01   2.7879E+01   6.3470E-06  0.0154
   2.7879E+01   2.8557E+01   6.1962E-06  0.0154
   2.8557E+01   2.9252E+01   6.4074E-06  0.0150
   2.9252E+01   2.9964E+01   6.5334E-06  0.0147
   2.9964E+01   3.0693E+01   6.4797E-06  0.0145
   3.0693E+01   3.1440E+01   6.4999E-06  0.0144
   3.1440E+01   3.2205E+01   6.7926E-06  0.0139
   3.2205E+01   3.2988E+01   6.7410E-06  0.0138
   3.2988E+01   3.3791E+01   6.8687E-06  0.0135
   3.3791E+01   3.4613E+01   6.9829E-06  0.0132
   3.4613E+01   3.5455E+01   7.2302E-06  0.0128
   3.5455E+01   3.6318E+01   7.4573E-06  0.0125
   3.6318E+01   3.7201E+01   7.5506E-06  0.0122
   3.7201E+01   3.8106E+01   7.9789E-06  0.0118
   3.8106E+01   3.9034E+01   8.4247E-06  0.0113
   3.9034E+01   3.9983E+01   8.6510E-06  0.0110
   3.9983E+01   4.0956E+01   9.1085E-06  0.0106
   4.0956E+01   4.1953E+01   9.8907E-06  0.0101
   4.1953E+01   4.2973E+01   1.0711E-05  0.0096
   4.2973E+01   4.4019E+01   1.1336E-05  0.0092
   4.4019E+01   4.5090E+01   1.2527E-05  0.0086
   4.5090E+01   4.6187E+01   1.3612E-05  0.0082
   4.6187E+01   4.7311E+01   1.4930E-05  0.0077
   4.7311E+01   4.8462E+01   1.6575E-05  0.0072
   4.8462E+01   4.9641E+01   1.8861E-05  0.0067
   4.9641E+01   5.0849E+01   2.1101E-05  0.0063
   5.0849E+01   5.2086E+01   2.3690E-05  0.0058
   5.2086E+01   5.3353E+01   2.6794E-05  0.0054
   5.3353E+01   5.4651E+01   2.9997E-05  0.0051
   5.4651E+01   5.5981E+01   3.3960E-05  0.0047
   5.5981E+01   5.7343E+01   3.8144E-05  0.0044
   5.7343E+01   5.8738E+01   4.2763E-05  0.0041
   5.8738E+01   6.0168E+01   4.6983E-05  0.0039
   6.0168E+01   6.1632E+01   5.1055E-05  0.0037
   6.1632E+01   6.3131E+01   5.5233E-05  0.0035
   6.3131E+01   6.4667E+01   5.8748E-05  0.0033
   6.4667E+01   6.6240E+01   6.1624E-05  0.0032
   6.6240E+01   6.7852E+01   6.3413E-05  0.0031
   6.7852E+01   6.9503E+01   6.4869E-05  0.0031
   6.9503E+01   7.1194E+01   6.4427E-05  0.0030
   7.1194E+01   7.2926E+01   6.2753E-05  0.0030
   7.2926E+01   7.4701E+01   6.0472E-05  0.0031
   7.4701E+01   7.6518E+01   5.7021E-05  0.0031
   7.6518E+01   7.8380E+01   5.2617E-05  0.0032
   7.8380E+01   8.0287E+01   4.7430E-05  0.0033
   8.0287E+01   8.2240E+01   4.2397E-05  0.0035
   8.2240E+01   8.4241E+01   3.7430E-05  0.0037
   8.4241E+01   8.6291E+01   3.2622E-05  0.0039
   8.6291E+01   8.8391E+01   2.8083E-05  0.0041
   8.8391E+01   9.0541E+01   2.3908E-05  0.0044
   9.0541E+01   9.2744E+01   2.0523E-05  0.0047
   9.2744E+01   9.5001E+01   1.7316E-05  0.0051
   9.5001E+01   9.7312E+01   1.4590E-05  0.0054
   9.7312E+01   9.9680E+01   1.2356E-05  0.0058
   9.9680E+01   1.0211E+02   1.0509E-05  0.0063
   1.0211E+02   1.0459E+02   8.7425E-06  0.0068
   1.0459E+02   1.0713E+02   7.4216E-06  0.0073
   1.0713E+02   1.0974E+02   6.2897E-06  0.0078
   1.0974E+02   1.1241E+02   5.4654E-06  0.0083
   1.1241E+02   1.1515E+02   4.6526E-06  0.0089
   1.1515E+02   1.1795E+02   3.9670E-06  0.0095
   1.1795E+02   1.2082E+02   3.3933E-06  0.0101
   1.2082E+02   1.2376E+02   2.9123E-06  0.0108
   1.2376E+02   1.2677E+02   2.5599E-06  0.0114
   1.2677E+02   1.2985E+02   2.1444E-06  0.0123
   1.2985E+02   1.3301E+02   1.7718E-06  0.0134
   1.3301E+02   1.3625E+02   1.4585E-06  0.0146
   1.3625E+02   1.3956E+02   1.1357E-06  0.0163
   1.3956E+02   1.4296E+02   9.1646E-07  0.0179
   1.4296E+02   1.4644E+02   6.7763E-07  0.0206
   1.4644E+02   1.5000E+02   4.6759E-07  0.0245

#   sum over                 2.3840E-05
'no. =    1   reg = 100 - 200'
msuc: {\huge [t-cross] in region mesh}
msdr: {\it plotted by \ANGEL \version}
msdl: {\it calculated by \PHITS  3.26}
wt: s(0.7)
\vspace{-3}
  region surface crossing
  area  &=&   1.0000E+00 [cm^2]
e:
 
# Information for Restart Calculation
# This calculation was newly started
# istdev =  2 # 1:Batch variance, 2:History variance
# resc2  = 1.00000000000000000E+09 # Total source weight or Total source weight / maxcas
# resc3  = 1.00000000000000000E+09 # Total history number or Total batch number
# maxcas =   500000000 # History / Batch, only used for istdev=1
# bitrseed = 0001001110011001001001110000100100110111001111011100001000101100 # bit data of rseed
