[ T-Cross ]
    title = [t-cross] in region mesh
     mesh =  reg            # mesh type is region-wise
      reg =    1            # number of crossing regions
      non     r-from    r-to       area
      1       111       211        1.000000    
   e-type =    3            # e-mesh is log given by emin, emax and ne
     emin =  1.0000000E-02  # minimum value of e-mesh points
     emax =   150.0000      # maximum value of e-mesh points
#    edel =  2.4039514E-02  # mesh width of e-mesh points
       ne =    400          # number of e-mesh points
#    data = ( e(i), i = 1, ne + 1 )
#           1.00000E-02  1.02433E-02  1.04925E-02  1.07478E-02  1.10093E-02
#           1.12772E-02  1.15516E-02  1.18326E-02  1.21205E-02  1.24154E-02
#           1.27175E-02  1.30269E-02  1.33439E-02  1.36686E-02  1.40011E-02
#           1.43418E-02  1.46907E-02  1.50482E-02  1.54143E-02  1.57894E-02
#           1.61735E-02  1.65670E-02  1.69701E-02  1.73830E-02  1.78060E-02
#           1.82392E-02  1.86830E-02  1.91375E-02  1.96032E-02  2.00801E-02
#           2.05687E-02  2.10692E-02  2.15818E-02  2.21069E-02  2.26448E-02
#           2.31957E-02  2.37601E-02  2.43382E-02  2.49304E-02  2.55369E-02
#           2.61583E-02  2.67947E-02  2.74467E-02  2.81145E-02  2.87985E-02
#           2.94992E-02  3.02169E-02  3.09521E-02  3.17052E-02  3.24766E-02
#           3.32668E-02  3.40762E-02  3.49053E-02  3.57546E-02  3.66246E-02
#           3.75157E-02  3.84284E-02  3.93634E-02  4.03212E-02  4.13022E-02
#           4.23071E-02  4.33365E-02  4.43909E-02  4.54710E-02  4.65773E-02
#           4.77106E-02  4.88714E-02  5.00605E-02  5.12785E-02  5.25262E-02
#           5.38042E-02  5.51133E-02  5.64542E-02  5.78278E-02  5.92348E-02
#           6.06760E-02  6.21523E-02  6.36645E-02  6.52135E-02  6.68002E-02
#           6.84255E-02  7.00904E-02  7.17957E-02  7.35426E-02  7.53319E-02
#           7.71648E-02  7.90423E-02  8.09655E-02  8.29354E-02  8.49533E-02
#           8.70203E-02  8.91376E-02  9.13064E-02  9.35279E-02  9.58035E-02
#           9.81345E-02  1.00522E-01  1.02968E-01  1.05473E-01  1.08040E-01
#           1.10668E-01  1.13361E-01  1.16119E-01  1.18944E-01  1.21838E-01
#           1.24803E-01  1.27839E-01  1.30950E-01  1.34136E-01  1.37399E-01
#           1.40742E-01  1.44167E-01  1.47675E-01  1.51268E-01  1.54948E-01
#           1.58718E-01  1.62580E-01  1.66535E-01  1.70587E-01  1.74738E-01
#           1.78989E-01  1.83344E-01  1.87805E-01  1.92375E-01  1.97055E-01
#           2.01850E-01  2.06761E-01  2.11792E-01  2.16945E-01  2.22223E-01
#           2.27630E-01  2.33169E-01  2.38842E-01  2.44653E-01  2.50605E-01
#           2.56703E-01  2.62949E-01  2.69346E-01  2.75900E-01  2.82613E-01
#           2.89489E-01  2.96532E-01  3.03747E-01  3.11138E-01  3.18708E-01
#           3.26462E-01  3.34405E-01  3.42542E-01  3.50876E-01  3.59413E-01
#           3.68158E-01  3.77116E-01  3.86291E-01  3.95690E-01  4.05317E-01
#           4.15179E-01  4.25281E-01  4.35628E-01  4.46227E-01  4.57084E-01
#           4.68205E-01  4.79597E-01  4.91266E-01  5.03219E-01  5.15463E-01
#           5.28005E-01  5.40851E-01  5.54011E-01  5.67490E-01  5.81298E-01
#           5.95441E-01  6.09929E-01  6.24769E-01  6.39970E-01  6.55541E-01
#           6.71491E-01  6.87828E-01  7.04564E-01  7.21706E-01  7.39266E-01
#           7.57253E-01  7.75678E-01  7.94551E-01  8.13883E-01  8.33685E-01
#           8.53969E-01  8.74747E-01  8.96030E-01  9.17831E-01  9.40163E-01
#           9.63038E-01  9.86469E-01  1.01047E+00  1.03506E+00  1.06024E+00
#           1.08604E+00  1.11246E+00  1.13953E+00  1.16725E+00  1.19565E+00
#           1.22474E+00  1.25454E+00  1.28507E+00  1.31633E+00  1.34836E+00
#           1.38117E+00  1.41477E+00  1.44920E+00  1.48446E+00  1.52057E+00
#           1.55757E+00  1.59547E+00  1.63429E+00  1.67405E+00  1.71478E+00
#           1.75650E+00  1.79924E+00  1.84302E+00  1.88786E+00  1.93379E+00
#           1.98084E+00  2.02904E+00  2.07841E+00  2.12898E+00  2.18078E+00
#           2.23384E+00  2.28819E+00  2.34386E+00  2.40089E+00  2.45930E+00
#           2.51914E+00  2.58043E+00  2.64322E+00  2.70753E+00  2.77341E+00
#           2.84088E+00  2.91001E+00  2.98081E+00  3.05333E+00  3.12762E+00
#           3.20372E+00  3.28167E+00  3.36152E+00  3.44330E+00  3.52708E+00
#           3.61290E+00  3.70080E+00  3.79085E+00  3.88308E+00  3.97756E+00
#           4.07434E+00  4.17347E+00  4.27501E+00  4.37903E+00  4.48557E+00
#           4.59471E+00  4.70650E+00  4.82102E+00  4.93832E+00  5.05847E+00
#           5.18155E+00  5.30762E+00  5.43676E+00  5.56904E+00  5.70453E+00
#           5.84333E+00  5.98550E+00  6.13114E+00  6.28031E+00  6.43312E+00
#           6.58964E+00  6.74997E+00  6.91420E+00  7.08243E+00  7.25475E+00
#           7.43126E+00  7.61207E+00  7.79728E+00  7.98700E+00  8.18133E+00
#           8.38038E+00  8.58428E+00  8.79315E+00  9.00709E+00  9.22624E+00
#           9.45072E+00  9.68067E+00  9.91620E+00  1.01575E+01  1.04046E+01
#           1.06578E+01  1.09171E+01  1.11827E+01  1.14548E+01  1.17335E+01
#           1.20190E+01  1.23114E+01  1.26109E+01  1.29178E+01  1.32321E+01
#           1.35540E+01  1.38838E+01  1.42216E+01  1.45676E+01  1.49221E+01
#           1.52851E+01  1.56570E+01  1.60380E+01  1.64282E+01  1.68279E+01
#           1.72374E+01  1.76568E+01  1.80864E+01  1.85264E+01  1.89772E+01
#           1.94389E+01  1.99119E+01  2.03963E+01  2.08926E+01  2.14009E+01
#           2.19216E+01  2.24550E+01  2.30014E+01  2.35610E+01  2.41343E+01
#           2.47215E+01  2.53230E+01  2.59391E+01  2.65702E+01  2.72167E+01
#           2.78789E+01  2.85572E+01  2.92520E+01  2.99637E+01  3.06928E+01
#           3.14396E+01  3.22045E+01  3.29881E+01  3.37907E+01  3.46128E+01
#           3.54550E+01  3.63177E+01  3.72013E+01  3.81064E+01  3.90336E+01
#           3.99833E+01  4.09561E+01  4.19526E+01  4.29734E+01  4.40189E+01
#           4.50900E+01  4.61870E+01  4.73108E+01  4.84619E+01  4.96410E+01
#           5.08488E+01  5.20860E+01  5.33533E+01  5.46514E+01  5.59812E+01
#           5.73432E+01  5.87384E+01  6.01676E+01  6.16315E+01  6.31311E+01
#           6.46671E+01  6.62405E+01  6.78522E+01  6.95031E+01  7.11941E+01
#           7.29263E+01  7.47007E+01  7.65182E+01  7.83800E+01  8.02870E+01
#           8.22405E+01  8.42414E+01  8.62911E+01  8.83906E+01  9.05412E+01
#           9.27442E+01  9.50007E+01  9.73122E+01  9.96799E+01  1.02105E+02
#           1.04589E+02  1.07134E+02  1.09741E+02  1.12411E+02  1.15146E+02
#           1.17948E+02  1.20817E+02  1.23757E+02  1.26768E+02  1.29852E+02
#           1.33012E+02  1.36248E+02  1.39563E+02  1.42959E+02  1.46437E+02
#           1.50000E+02
     unit =    2            # unit is [1/cm^2/(MeV/n)/source]
     axis =  eng            # axis of output
     file = detector-12.out  # file name of output for the above axis
   output = f-curr          # surface crossing forward current spectrum
     part =  neutron  
# kf/name :  2112     
#    used :        main (  %)        temp (  %)       total (  %)
#  memory :         414 (  0)           0 (  0)         414 (  0)

#------------------------------------------------------------------------------
#newpage:
#   no. =    1   reg = 111 - 211

x: Energy [MeV/n]
y:  F-Curr [1/cm^2/(MeV/n)/source]         
p: xlog ylog afac(0.8) form(0.9)
h: n            x            y(neutron ),hh0l   n 
#  e-lower      e-upper      neutron     r.err 
   1.0000E-02   1.0243E-02   4.3292E-04  0.0796
   1.0243E-02   1.0493E-02   4.4404E-04  0.0776
   1.0493E-02   1.0748E-02   4.5438E-04  0.0758
   1.0748E-02   1.1009E-02   4.3594E-04  0.0765
   1.1009E-02   1.1277E-02   3.7830E-04  0.0811
   1.1277E-02   1.1552E-02   4.2277E-04  0.0758
   1.1552E-02   1.1833E-02   4.7202E-04  0.0709
   1.1833E-02   1.2121E-02   4.4460E-04  0.0722
   1.2121E-02   1.2415E-02   3.9787E-04  0.0754
   1.2415E-02   1.2718E-02   4.3256E-04  0.0714
   1.2718E-02   1.3027E-02   4.1367E-04  0.0722
   1.3027E-02   1.3344E-02   4.7115E-04  0.0668
   1.3344E-02   1.3669E-02   3.7782E-04  0.0737
   1.3669E-02   1.4001E-02   4.0493E-04  0.0704
   1.4001E-02   1.4342E-02   4.5598E-04  0.0655
   1.4342E-02   1.4691E-02   5.0437E-04  0.0615
   1.4691E-02   1.5048E-02   4.5882E-04  0.0638
   1.5048E-02   1.5414E-02   5.0983E-04  0.0598
   1.5414E-02   1.5789E-02   4.3195E-04  0.0642
   1.5789E-02   1.6174E-02   4.6334E-04  0.0612
   1.6174E-02   1.6567E-02   4.6758E-04  0.0602
   1.6567E-02   1.6970E-02   4.1182E-04  0.0634
   1.6970E-02   1.7383E-02   4.5693E-04  0.0594
   1.7383E-02   1.7806E-02   4.2559E-04  0.0609
   1.7806E-02   1.8239E-02   4.6472E-04  0.0575
   1.8239E-02   1.8683E-02   4.0561E-04  0.0609
   1.8683E-02   1.9138E-02   4.5171E-04  0.0570
   1.9138E-02   1.9603E-02   4.3955E-04  0.0571
   1.9603E-02   2.0080E-02   4.2771E-04  0.0572
   2.0080E-02   2.0569E-02   4.7895E-04  0.0534
   2.0569E-02   2.1069E-02   4.1429E-04  0.0567
   2.1069E-02   2.1582E-02   4.1746E-04  0.0558
   2.1582E-02   2.2107E-02   4.7864E-04  0.0515
   2.2107E-02   2.2645E-02   3.8547E-04  0.0567
   2.2645E-02   2.3196E-02   4.7795E-04  0.0503
   2.3196E-02   2.3760E-02   4.8550E-04  0.0493
   2.3760E-02   2.4338E-02   4.2438E-04  0.0521
   2.4338E-02   2.4930E-02   4.6496E-04  0.0492
   2.4930E-02   2.5537E-02   4.5721E-04  0.0490
   2.5537E-02   2.6158E-02   4.1953E-04  0.0506
   2.6158E-02   2.6795E-02   4.6089E-04  0.0477
   2.6795E-02   2.7447E-02   4.5608E-04  0.0474
   2.7447E-02   2.8114E-02   4.3526E-04  0.0479
   2.8114E-02   2.8799E-02   4.7755E-04  0.0452
   2.8799E-02   2.9499E-02   4.4908E-04  0.0460
   2.9499E-02   3.0217E-02   4.6999E-04  0.0445
   3.0217E-02   3.0952E-02   4.6971E-04  0.0439
   3.0952E-02   3.1705E-02   4.7537E-04  0.0432
   3.1705E-02   3.2477E-02   4.6754E-04  0.0430
   3.2477E-02   3.3267E-02   4.6909E-04  0.0424
   3.3267E-02   3.4076E-02   4.5877E-04  0.0424
   3.4076E-02   3.4905E-02   4.8004E-04  0.0409
   3.4905E-02   3.5755E-02   4.5843E-04  0.0414
   3.5755E-02   3.6625E-02   4.2915E-04  0.0423
   3.6625E-02   3.7516E-02   4.5861E-04  0.0404
   3.7516E-02   3.8428E-02   4.8277E-04  0.0389
   3.8428E-02   3.9363E-02   4.5205E-04  0.0397
   3.9363E-02   4.0321E-02   4.7577E-04  0.0382
   4.0321E-02   4.1302E-02   5.0286E-04  0.0368
   4.1302E-02   4.2307E-02   4.4183E-04  0.0387
   4.2307E-02   4.3337E-02   4.7602E-04  0.0369
   4.3337E-02   4.4391E-02   4.5270E-04  0.0374
   4.4391E-02   4.5471E-02   4.8330E-04  0.0357
   4.5471E-02   4.6577E-02   4.8689E-04  0.0352
   4.6577E-02   4.7711E-02   4.4297E-04  0.0364
   4.7711E-02   4.8871E-02   4.5743E-04  0.0354
   4.8871E-02   5.0061E-02   5.0796E-04  0.0332
   5.0061E-02   5.1279E-02   5.0957E-04  0.0328
   5.1279E-02   5.2526E-02   4.8571E-04  0.0332
   5.2526E-02   5.3804E-02   5.0600E-04  0.0321
   5.3804E-02   5.5113E-02   4.7157E-04  0.0329
   5.5113E-02   5.6454E-02   4.7081E-04  0.0325
   5.6454E-02   5.7828E-02   4.7564E-04  0.0319
   5.7828E-02   5.9235E-02   4.6648E-04  0.0319
   5.9235E-02   6.0676E-02   4.8200E-04  0.0310
   6.0676E-02   6.2152E-02   4.7597E-04  0.0308
   6.2152E-02   6.3665E-02   4.5143E-04  0.0312
   6.3665E-02   6.5214E-02   4.9408E-04  0.0295
   6.5214E-02   6.6800E-02   4.7688E-04  0.0297
   6.6800E-02   6.8426E-02   4.8524E-04  0.0291
   6.8426E-02   7.0090E-02   4.9854E-04  0.0283
   7.0090E-02   7.1796E-02   4.7927E-04  0.0286
   7.1796E-02   7.3543E-02   4.9155E-04  0.0279
   7.3543E-02   7.5332E-02   4.9552E-04  0.0274
   7.5332E-02   7.7165E-02   5.0958E-04  0.0267
   7.7165E-02   7.9042E-02   5.2482E-04  0.0260
   7.9042E-02   8.0965E-02   5.0264E-04  0.0263
   8.0965E-02   8.2935E-02   4.9307E-04  0.0262
   8.2935E-02   8.4953E-02   4.9342E-04  0.0259
   8.4953E-02   8.7020E-02   4.8735E-04  0.0257
   8.7020E-02   8.9138E-02   4.9875E-04  0.0251
   8.9138E-02   9.1306E-02   5.0228E-04  0.0247
   9.1306E-02   9.3528E-02   5.0745E-04  0.0243
   9.3528E-02   9.5804E-02   4.9364E-04  0.0244
   9.5804E-02   9.8134E-02   5.0537E-04  0.0238
   9.8134E-02   1.0052E-01   4.9755E-04  0.0237
   1.0052E-01   1.0297E-01   5.1735E-04  0.0230
   1.0297E-01   1.0547E-01   5.2023E-04  0.0226
   1.0547E-01   1.0804E-01   5.0891E-04  0.0226
   1.0804E-01   1.1067E-01   5.0190E-04  0.0225
   1.1067E-01   1.1336E-01   5.3751E-04  0.0215
   1.1336E-01   1.1612E-01   5.2245E-04  0.0215
   1.1612E-01   1.1894E-01   5.3399E-04  0.0210
   1.1894E-01   1.2184E-01   5.1394E-04  0.0212
   1.2184E-01   1.2480E-01   5.3569E-04  0.0205
   1.2480E-01   1.2784E-01   5.2296E-04  0.0205
   1.2784E-01   1.3095E-01   5.4548E-04  0.0198
   1.3095E-01   1.3414E-01   5.1390E-04  0.0202
   1.3414E-01   1.3740E-01   5.4540E-04  0.0194
   1.3740E-01   1.4074E-01   5.3783E-04  0.0193
   1.4074E-01   1.4417E-01   5.1474E-04  0.0194
   1.4417E-01   1.4767E-01   5.3387E-04  0.0189
   1.4767E-01   1.5127E-01   5.5311E-04  0.0183
   1.5127E-01   1.5495E-01   5.4341E-04  0.0183
   1.5495E-01   1.5872E-01   5.4819E-04  0.0180
   1.5872E-01   1.6258E-01   5.4259E-04  0.0178
   1.6258E-01   1.6654E-01   5.3779E-04  0.0177
   1.6654E-01   1.7059E-01   5.3933E-04  0.0175
   1.7059E-01   1.7474E-01   5.5270E-04  0.0170
   1.7474E-01   1.7899E-01   5.4012E-04  0.0170
   1.7899E-01   1.8334E-01   5.4980E-04  0.0167
   1.8334E-01   1.8781E-01   5.4638E-04  0.0165
   1.8781E-01   1.9237E-01   5.5514E-04  0.0162
   1.9237E-01   1.9706E-01   5.4950E-04  0.0161
   1.9706E-01   2.0185E-01   5.5195E-04  0.0159
   2.0185E-01   2.0676E-01   5.5581E-04  0.0156
   2.0676E-01   2.1179E-01   5.7262E-04  0.0152
   2.1179E-01   2.1694E-01   5.5973E-04  0.0152
   2.1694E-01   2.2222E-01   5.5383E-04  0.0151
   2.2222E-01   2.2763E-01   5.5053E-04  0.0150
   2.2763E-01   2.3317E-01   5.6141E-04  0.0146
   2.3317E-01   2.3884E-01   5.6136E-04  0.0145
   2.3884E-01   2.4465E-01   5.5525E-04  0.0144
   2.4465E-01   2.5061E-01   5.6071E-04  0.0141
   2.5061E-01   2.5670E-01   5.6745E-04  0.0139
   2.5670E-01   2.6295E-01   5.5744E-04  0.0138
   2.6295E-01   2.6935E-01   5.7385E-04  0.0135
   2.6935E-01   2.7590E-01   5.6444E-04  0.0134
   2.7590E-01   2.8261E-01   5.5337E-04  0.0134
   2.8261E-01   2.8949E-01   5.5171E-04  0.0133
   2.8949E-01   2.9653E-01   5.6392E-04  0.0130
   2.9653E-01   3.0375E-01   5.6365E-04  0.0128
   3.0375E-01   3.1114E-01   5.5951E-04  0.0127
   3.1114E-01   3.1871E-01   5.5727E-04  0.0126
   3.1871E-01   3.2646E-01   5.6110E-04  0.0124
   3.2646E-01   3.3441E-01   5.6905E-04  0.0121
   3.3441E-01   3.4254E-01   5.6987E-04  0.0120
   3.4254E-01   3.5088E-01   5.5313E-04  0.0120
   3.5088E-01   3.5941E-01   5.5280E-04  0.0119
   3.5941E-01   3.6816E-01   5.5378E-04  0.0117
   3.6816E-01   3.7712E-01   5.4881E-04  0.0116
   3.7712E-01   3.8629E-01   5.3715E-04  0.0116
   3.8629E-01   3.9569E-01   5.3979E-04  0.0115
   3.9569E-01   4.0532E-01   5.4327E-04  0.0113
   4.0532E-01   4.1518E-01   5.4436E-04  0.0111
   4.1518E-01   4.2528E-01   5.3044E-04  0.0112
   4.2528E-01   4.3563E-01   5.3662E-04  0.0110
   4.3563E-01   4.4623E-01   5.3193E-04  0.0109
   4.4623E-01   4.5708E-01   5.2550E-04  0.0108
   4.5708E-01   4.6821E-01   5.3567E-04  0.0106
   4.6821E-01   4.7960E-01   5.2631E-04  0.0105
   4.7960E-01   4.9127E-01   5.2264E-04  0.0105
   4.9127E-01   5.0322E-01   5.0044E-04  0.0106
   5.0322E-01   5.1546E-01   5.0382E-04  0.0104
   5.1546E-01   5.2800E-01   4.9994E-04  0.0103
   5.2800E-01   5.4085E-01   4.9055E-04  0.0103
   5.4085E-01   5.5401E-01   4.9010E-04  0.0102
   5.5401E-01   5.6749E-01   4.8350E-04  0.0101
   5.6749E-01   5.8130E-01   4.7344E-04  0.0101
   5.8130E-01   5.9544E-01   4.6655E-04  0.0101
   5.9544E-01   6.0993E-01   4.6240E-04  0.0100
   6.0993E-01   6.2477E-01   4.5903E-04  0.0099
   6.2477E-01   6.3997E-01   4.4791E-04  0.0099
   6.3997E-01   6.5554E-01   4.3791E-04  0.0099
   6.5554E-01   6.7149E-01   4.2450E-04  0.0099
   6.7149E-01   6.8783E-01   4.2154E-04  0.0098
   6.8783E-01   7.0456E-01   4.0666E-04  0.0099
   7.0456E-01   7.2171E-01   4.0107E-04  0.0098
   7.2171E-01   7.3927E-01   3.8926E-04  0.0099
   7.3927E-01   7.5725E-01   3.7966E-04  0.0099
   7.5725E-01   7.7568E-01   3.6459E-04  0.0100
   7.7568E-01   7.9455E-01   3.5711E-04  0.0099
   7.9455E-01   8.1388E-01   3.4228E-04  0.0100
   8.1388E-01   8.3368E-01   3.2888E-04  0.0101
   8.3368E-01   8.5397E-01   3.2222E-04  0.0101
   8.5397E-01   8.7475E-01   3.0752E-04  0.0102
   8.7475E-01   8.9603E-01   2.9450E-04  0.0103
   8.9603E-01   9.1783E-01   2.8590E-04  0.0103
   9.1783E-01   9.4016E-01   2.6920E-04  0.0105
   9.4016E-01   9.6304E-01   2.5660E-04  0.0107
   9.6304E-01   9.8647E-01   2.5137E-04  0.0106
   9.8647E-01   1.0105E+00   2.4229E-04  0.0107
   1.0105E+00   1.0351E+00   2.4162E-04  0.0106
   1.0351E+00   1.0602E+00   2.3869E-04  0.0105
   1.0602E+00   1.0860E+00   2.4975E-04  0.0102
   1.0860E+00   1.1125E+00   2.5068E-04  0.0100
   1.1125E+00   1.1395E+00   2.5640E-04  0.0098
   1.1395E+00   1.1673E+00   2.6382E-04  0.0095
   1.1673E+00   1.1957E+00   2.7821E-04  0.0092
   1.1957E+00   1.2247E+00   2.8086E-04  0.0090
   1.2247E+00   1.2545E+00   2.7722E-04  0.0090
   1.2545E+00   1.2851E+00   2.8707E-04  0.0087
   1.2851E+00   1.3163E+00   2.8268E-04  0.0087
   1.3163E+00   1.3484E+00   2.9294E-04  0.0084
   1.3484E+00   1.3812E+00   2.9399E-04  0.0083
   1.3812E+00   1.4148E+00   3.0132E-04  0.0081
   1.4148E+00   1.4492E+00   2.9821E-04  0.0081
   1.4492E+00   1.4845E+00   2.9915E-04  0.0080
   1.4845E+00   1.5206E+00   3.0062E-04  0.0078
   1.5206E+00   1.5576E+00   2.9893E-04  0.0078
   1.5576E+00   1.5955E+00   3.0754E-04  0.0076
   1.5955E+00   1.6343E+00   3.0537E-04  0.0075
   1.6343E+00   1.6741E+00   3.1264E-04  0.0073
   1.6741E+00   1.7148E+00   3.2004E-04  0.0072
   1.7148E+00   1.7565E+00   3.2311E-04  0.0070
   1.7565E+00   1.7992E+00   3.1532E-04  0.0070
   1.7992E+00   1.8430E+00   3.1453E-04  0.0070
   1.8430E+00   1.8879E+00   3.1534E-04  0.0069
   1.8879E+00   1.9338E+00   3.1388E-04  0.0068
   1.9338E+00   1.9808E+00   3.2094E-04  0.0066
   1.9808E+00   2.0290E+00   3.2730E-04  0.0065
   2.0290E+00   2.0784E+00   3.2105E-04  0.0065
   2.0784E+00   2.1290E+00   3.1968E-04  0.0064
   2.1290E+00   2.1808E+00   3.1618E-04  0.0064
   2.1808E+00   2.2338E+00   3.1145E-04  0.0064
   2.2338E+00   2.2882E+00   3.1178E-04  0.0063
   2.2882E+00   2.3439E+00   3.1478E-04  0.0062
   2.3439E+00   2.4009E+00   3.1988E-04  0.0060
   2.4009E+00   2.4593E+00   3.1910E-04  0.0060
   2.4593E+00   2.5191E+00   3.1117E-04  0.0060
   2.5191E+00   2.5804E+00   3.0974E-04  0.0059
   2.5804E+00   2.6432E+00   3.0619E-04  0.0059
   2.6432E+00   2.7075E+00   3.0412E-04  0.0058
   2.7075E+00   2.7734E+00   3.0284E-04  0.0058
   2.7734E+00   2.8409E+00   3.0162E-04  0.0057
   2.8409E+00   2.9100E+00   3.0273E-04  0.0056
   2.9100E+00   2.9808E+00   2.9784E-04  0.0056
   2.9808E+00   3.0533E+00   2.9909E-04  0.0055
   3.0533E+00   3.1276E+00   2.9278E-04  0.0055
   3.1276E+00   3.2037E+00   2.8628E-04  0.0055
   3.2037E+00   3.2817E+00   2.8131E-04  0.0055
   3.2817E+00   3.3615E+00   2.7534E-04  0.0055
   3.3615E+00   3.4433E+00   2.7437E-04  0.0055
   3.4433E+00   3.5271E+00   2.6785E-04  0.0055
   3.5271E+00   3.6129E+00   2.6660E-04  0.0054
   3.6129E+00   3.7008E+00   2.6125E-04  0.0054
   3.7008E+00   3.7908E+00   2.5826E-04  0.0054
   3.7908E+00   3.8831E+00   2.5268E-04  0.0053
   3.8831E+00   3.9776E+00   2.4715E-04  0.0053
   3.9776E+00   4.0743E+00   2.4350E-04  0.0053
   4.0743E+00   4.1735E+00   2.3554E-04  0.0053
   4.1735E+00   4.2750E+00   2.3034E-04  0.0053
   4.2750E+00   4.3790E+00   2.2217E-04  0.0054
   4.3790E+00   4.4856E+00   2.1813E-04  0.0054
   4.4856E+00   4.5947E+00   2.1199E-04  0.0054
   4.5947E+00   4.7065E+00   2.0601E-04  0.0054
   4.7065E+00   4.8210E+00   2.0239E-04  0.0054
   4.8210E+00   4.9383E+00   1.9653E-04  0.0054
   4.9383E+00   5.0585E+00   1.9008E-04  0.0054
   5.0585E+00   5.1815E+00   1.8457E-04  0.0054
   5.1815E+00   5.3076E+00   1.7871E-04  0.0054
   5.3076E+00   5.4368E+00   1.7373E-04  0.0054
   5.4368E+00   5.5690E+00   1.6612E-04  0.0055
   5.5690E+00   5.7045E+00   1.6116E-04  0.0055
   5.7045E+00   5.8433E+00   1.5590E-04  0.0055
   5.8433E+00   5.9855E+00   1.5106E-04  0.0056
   5.9855E+00   6.1311E+00   1.4602E-04  0.0056
   6.1311E+00   6.2803E+00   1.4085E-04  0.0056
   6.2803E+00   6.4331E+00   1.3557E-04  0.0057
   6.4331E+00   6.5896E+00   1.2982E-04  0.0057
   6.5896E+00   6.7500E+00   1.2457E-04  0.0058
   6.7500E+00   6.9142E+00   1.2023E-04  0.0058
   6.9142E+00   7.0824E+00   1.1612E-04  0.0058
   7.0824E+00   7.2548E+00   1.1089E-04  0.0059
   7.2548E+00   7.4313E+00   1.0742E-04  0.0059
   7.4313E+00   7.6121E+00   1.0175E-04  0.0060
   7.6121E+00   7.7973E+00   9.7976E-05  0.0061
   7.7973E+00   7.9870E+00   9.4358E-05  0.0061
   7.9870E+00   8.1813E+00   8.9508E-05  0.0062
   8.1813E+00   8.3804E+00   8.7201E-05  0.0062
   8.3804E+00   8.5843E+00   8.4247E-05  0.0062
   8.5843E+00   8.7931E+00   8.0855E-05  0.0063
   8.7931E+00   9.0071E+00   7.7213E-05  0.0064
   9.0071E+00   9.2262E+00   7.4162E-05  0.0064
   9.2262E+00   9.4507E+00   7.0938E-05  0.0065
   9.4507E+00   9.6807E+00   6.8128E-05  0.0065
   9.6807E+00   9.9162E+00   6.5899E-05  0.0066
   9.9162E+00   1.0157E+01   6.3155E-05  0.0066
   1.0157E+01   1.0405E+01   6.0991E-05  0.0066
   1.0405E+01   1.0658E+01   5.8875E-05  0.0067
   1.0658E+01   1.0917E+01   5.5651E-05  0.0068
   1.0917E+01   1.1183E+01   5.3148E-05  0.0069
   1.1183E+01   1.1455E+01   5.1570E-05  0.0069
   1.1455E+01   1.1733E+01   4.8840E-05  0.0070
   1.1733E+01   1.2019E+01   4.6467E-05  0.0071
   1.2019E+01   1.2311E+01   4.4507E-05  0.0072
   1.2311E+01   1.2611E+01   4.2903E-05  0.0072
   1.2611E+01   1.2918E+01   4.1571E-05  0.0072
   1.2918E+01   1.3232E+01   4.0111E-05  0.0073
   1.3232E+01   1.3554E+01   3.7975E-05  0.0074
   1.3554E+01   1.3884E+01   3.6107E-05  0.0075
   1.3884E+01   1.4222E+01   3.4466E-05  0.0076
   1.4222E+01   1.4568E+01   3.2469E-05  0.0077
   1.4568E+01   1.4922E+01   3.1413E-05  0.0077
   1.4922E+01   1.5285E+01   3.0270E-05  0.0078
   1.5285E+01   1.5657E+01   2.8761E-05  0.0079
   1.5657E+01   1.6038E+01   2.7202E-05  0.0080
   1.6038E+01   1.6428E+01   2.6125E-05  0.0081
   1.6428E+01   1.6828E+01   2.4220E-05  0.0083
   1.6828E+01   1.7237E+01   2.3735E-05  0.0083
   1.7237E+01   1.7657E+01   2.2082E-05  0.0085
   1.7657E+01   1.8086E+01   2.0850E-05  0.0086
   1.8086E+01   1.8526E+01   1.9858E-05  0.0087
   1.8526E+01   1.8977E+01   1.8953E-05  0.0088
   1.8977E+01   1.9439E+01   1.7824E-05  0.0090
   1.9439E+01   1.9912E+01   1.7274E-05  0.0090
   1.9912E+01   2.0396E+01   1.5826E-05  0.0093
   2.0396E+01   2.0893E+01   1.4908E-05  0.0095
   2.0893E+01   2.1401E+01   1.4199E-05  0.0096
   2.1401E+01   2.1922E+01   1.3518E-05  0.0097
   2.1922E+01   2.2455E+01   1.2382E-05  0.0100
   2.2455E+01   2.3001E+01   1.1687E-05  0.0102
   2.3001E+01   2.3561E+01   1.0668E-05  0.0106
   2.3561E+01   2.4134E+01   1.0200E-05  0.0107
   2.4134E+01   2.4721E+01   9.3789E-06  0.0110
   2.4721E+01   2.5323E+01   8.8114E-06  0.0112
   2.5323E+01   2.5939E+01   8.2212E-06  0.0115
   2.5939E+01   2.6570E+01   7.5263E-06  0.0118
   2.6570E+01   2.7217E+01   6.9423E-06  0.0122
   2.7217E+01   2.7879E+01   6.1683E-06  0.0128
   2.7879E+01   2.8557E+01   5.8350E-06  0.0130
   2.8557E+01   2.9252E+01   5.1745E-06  0.0136
   2.9252E+01   2.9964E+01   4.7856E-06  0.0140
   2.9964E+01   3.0693E+01   4.2101E-06  0.0147
   3.0693E+01   3.1440E+01   3.9753E-06  0.0150
   3.1440E+01   3.2205E+01   3.5933E-06  0.0156
   3.2205E+01   3.2988E+01   3.1838E-06  0.0163
   3.2988E+01   3.3791E+01   2.8465E-06  0.0171
   3.3791E+01   3.4613E+01   2.6264E-06  0.0176
   3.4613E+01   3.5455E+01   2.2110E-06  0.0189
   3.5455E+01   3.6318E+01   1.9452E-06  0.0199
   3.6318E+01   3.7201E+01   1.7262E-06  0.0209
   3.7201E+01   3.8106E+01   1.5047E-06  0.0221
   3.8106E+01   3.9034E+01   1.2928E-06  0.0236
   3.9034E+01   3.9983E+01   1.1323E-06  0.0249
   3.9983E+01   4.0956E+01   9.7105E-07  0.0266
   4.0956E+01   4.1953E+01   8.2155E-07  0.0285
   4.1953E+01   4.2973E+01   7.1060E-07  0.0303
   4.2973E+01   4.4019E+01   5.8596E-07  0.0330
   4.4019E+01   4.5090E+01   5.0357E-07  0.0352
   4.5090E+01   4.6187E+01   3.8466E-07  0.0397
   4.6187E+01   4.7311E+01   2.8238E-07  0.0458
   4.7311E+01   4.8462E+01   2.4266E-07  0.0489
   4.8462E+01   4.9641E+01   1.9054E-07  0.0545
   4.9641E+01   5.0849E+01   1.3082E-07  0.0650
   5.0849E+01   5.2086E+01   7.3823E-08  0.0854
   5.2086E+01   5.3353E+01   4.2084E-08  0.1118
   5.3353E+01   5.4651E+01   1.6434E-08  0.1768
   5.4651E+01   5.5981E+01   2.0054E-09  0.5000
   5.5981E+01   5.7343E+01   0.0000E+00  0.0000
   5.7343E+01   5.8738E+01   0.0000E+00  0.0000
   5.8738E+01   6.0168E+01   0.0000E+00  0.0000
   6.0168E+01   6.1632E+01   0.0000E+00  0.0000
   6.1632E+01   6.3131E+01   0.0000E+00  0.0000
   6.3131E+01   6.4667E+01   0.0000E+00  0.0000
   6.4667E+01   6.6240E+01   0.0000E+00  0.0000
   6.6240E+01   6.7852E+01   0.0000E+00  0.0000
   6.7852E+01   6.9503E+01   0.0000E+00  0.0000
   6.9503E+01   7.1194E+01   0.0000E+00  0.0000
   7.1194E+01   7.2926E+01   0.0000E+00  0.0000
   7.2926E+01   7.4701E+01   0.0000E+00  0.0000
   7.4701E+01   7.6518E+01   0.0000E+00  0.0000
   7.6518E+01   7.8380E+01   0.0000E+00  0.0000
   7.8380E+01   8.0287E+01   0.0000E+00  0.0000
   8.0287E+01   8.2240E+01   0.0000E+00  0.0000
   8.2240E+01   8.4241E+01   0.0000E+00  0.0000
   8.4241E+01   8.6291E+01   0.0000E+00  0.0000
   8.6291E+01   8.8391E+01   0.0000E+00  0.0000
   8.8391E+01   9.0541E+01   0.0000E+00  0.0000
   9.0541E+01   9.2744E+01   0.0000E+00  0.0000
   9.2744E+01   9.5001E+01   0.0000E+00  0.0000
   9.5001E+01   9.7312E+01   0.0000E+00  0.0000
   9.7312E+01   9.9680E+01   0.0000E+00  0.0000
   9.9680E+01   1.0211E+02   0.0000E+00  0.0000
   1.0211E+02   1.0459E+02   0.0000E+00  0.0000
   1.0459E+02   1.0713E+02   0.0000E+00  0.0000
   1.0713E+02   1.0974E+02   0.0000E+00  0.0000
   1.0974E+02   1.1241E+02   0.0000E+00  0.0000
   1.1241E+02   1.1515E+02   0.0000E+00  0.0000
   1.1515E+02   1.1795E+02   0.0000E+00  0.0000
   1.1795E+02   1.2082E+02   0.0000E+00  0.0000
   1.2082E+02   1.2376E+02   0.0000E+00  0.0000
   1.2376E+02   1.2677E+02   0.0000E+00  0.0000
   1.2677E+02   1.2985E+02   0.0000E+00  0.0000
   1.2985E+02   1.3301E+02   0.0000E+00  0.0000
   1.3301E+02   1.3625E+02   0.0000E+00  0.0000
   1.3625E+02   1.3956E+02   0.0000E+00  0.0000
   1.3956E+02   1.4296E+02   0.0000E+00  0.0000
   1.4296E+02   1.4644E+02   0.0000E+00  0.0000
   1.4644E+02   1.5000E+02   0.0000E+00  0.0000

#   sum over                 1.7000E-05
'no. =    1   reg = 111 - 211'
msuc: {\huge [t-cross] in region mesh}
msdr: {\it plotted by \ANGEL \version}
msdl: {\it calculated by \PHITS  3.26}
wt: s(0.7)
\vspace{-3}
  region surface crossing
  area  &=&   1.0000E+00 [cm^2]
e:
 
# Information for Restart Calculation
# This calculation was newly started
# istdev =  2 # 1:Batch variance, 2:History variance
# resc2  = 1.50000000000000000E+09 # Total source weight or Total source weight / maxcas
# resc3  = 1.50000000000000000E+09 # Total history number or Total batch number
# maxcas =   500000000 # History / Batch, only used for istdev=1
# bitrseed = 0000010101110101110110100110011001100101000001100111100100101101 # bit data of rseed
