[ T-Cross ]
    title = [t-cross] in region mesh
     mesh =  reg            # mesh type is region-wise
      reg =    1            # number of crossing regions
      non     r-from    r-to       area
      1       104       204        1.000000    
   e-type =    3            # e-mesh is log given by emin, emax and ne
     emin =  1.0000000E-02  # minimum value of e-mesh points
     emax =   150.0000      # maximum value of e-mesh points
#    edel =  2.4039514E-02  # mesh width of e-mesh points
       ne =    400          # number of e-mesh points
#    data = ( e(i), i = 1, ne + 1 )
#           1.00000E-02  1.02433E-02  1.04925E-02  1.07478E-02  1.10093E-02
#           1.12772E-02  1.15516E-02  1.18326E-02  1.21205E-02  1.24154E-02
#           1.27175E-02  1.30269E-02  1.33439E-02  1.36686E-02  1.40011E-02
#           1.43418E-02  1.46907E-02  1.50482E-02  1.54143E-02  1.57894E-02
#           1.61735E-02  1.65670E-02  1.69701E-02  1.73830E-02  1.78060E-02
#           1.82392E-02  1.86830E-02  1.91375E-02  1.96032E-02  2.00801E-02
#           2.05687E-02  2.10692E-02  2.15818E-02  2.21069E-02  2.26448E-02
#           2.31957E-02  2.37601E-02  2.43382E-02  2.49304E-02  2.55369E-02
#           2.61583E-02  2.67947E-02  2.74467E-02  2.81145E-02  2.87985E-02
#           2.94992E-02  3.02169E-02  3.09521E-02  3.17052E-02  3.24766E-02
#           3.32668E-02  3.40762E-02  3.49053E-02  3.57546E-02  3.66246E-02
#           3.75157E-02  3.84284E-02  3.93634E-02  4.03212E-02  4.13022E-02
#           4.23071E-02  4.33365E-02  4.43909E-02  4.54710E-02  4.65773E-02
#           4.77106E-02  4.88714E-02  5.00605E-02  5.12785E-02  5.25262E-02
#           5.38042E-02  5.51133E-02  5.64542E-02  5.78278E-02  5.92348E-02
#           6.06760E-02  6.21523E-02  6.36645E-02  6.52135E-02  6.68002E-02
#           6.84255E-02  7.00904E-02  7.17957E-02  7.35426E-02  7.53319E-02
#           7.71648E-02  7.90423E-02  8.09655E-02  8.29354E-02  8.49533E-02
#           8.70203E-02  8.91376E-02  9.13064E-02  9.35279E-02  9.58035E-02
#           9.81345E-02  1.00522E-01  1.02968E-01  1.05473E-01  1.08040E-01
#           1.10668E-01  1.13361E-01  1.16119E-01  1.18944E-01  1.21838E-01
#           1.24803E-01  1.27839E-01  1.30950E-01  1.34136E-01  1.37399E-01
#           1.40742E-01  1.44167E-01  1.47675E-01  1.51268E-01  1.54948E-01
#           1.58718E-01  1.62580E-01  1.66535E-01  1.70587E-01  1.74738E-01
#           1.78989E-01  1.83344E-01  1.87805E-01  1.92375E-01  1.97055E-01
#           2.01850E-01  2.06761E-01  2.11792E-01  2.16945E-01  2.22223E-01
#           2.27630E-01  2.33169E-01  2.38842E-01  2.44653E-01  2.50605E-01
#           2.56703E-01  2.62949E-01  2.69346E-01  2.75900E-01  2.82613E-01
#           2.89489E-01  2.96532E-01  3.03747E-01  3.11138E-01  3.18708E-01
#           3.26462E-01  3.34405E-01  3.42542E-01  3.50876E-01  3.59413E-01
#           3.68158E-01  3.77116E-01  3.86291E-01  3.95690E-01  4.05317E-01
#           4.15179E-01  4.25281E-01  4.35628E-01  4.46227E-01  4.57084E-01
#           4.68205E-01  4.79597E-01  4.91266E-01  5.03219E-01  5.15463E-01
#           5.28005E-01  5.40851E-01  5.54011E-01  5.67490E-01  5.81298E-01
#           5.95441E-01  6.09929E-01  6.24769E-01  6.39970E-01  6.55541E-01
#           6.71491E-01  6.87828E-01  7.04564E-01  7.21706E-01  7.39266E-01
#           7.57253E-01  7.75678E-01  7.94551E-01  8.13883E-01  8.33685E-01
#           8.53969E-01  8.74747E-01  8.96030E-01  9.17831E-01  9.40163E-01
#           9.63038E-01  9.86469E-01  1.01047E+00  1.03506E+00  1.06024E+00
#           1.08604E+00  1.11246E+00  1.13953E+00  1.16725E+00  1.19565E+00
#           1.22474E+00  1.25454E+00  1.28507E+00  1.31633E+00  1.34836E+00
#           1.38117E+00  1.41477E+00  1.44920E+00  1.48446E+00  1.52057E+00
#           1.55757E+00  1.59547E+00  1.63429E+00  1.67405E+00  1.71478E+00
#           1.75650E+00  1.79924E+00  1.84302E+00  1.88786E+00  1.93379E+00
#           1.98084E+00  2.02904E+00  2.07841E+00  2.12898E+00  2.18078E+00
#           2.23384E+00  2.28819E+00  2.34386E+00  2.40089E+00  2.45930E+00
#           2.51914E+00  2.58043E+00  2.64322E+00  2.70753E+00  2.77341E+00
#           2.84088E+00  2.91001E+00  2.98081E+00  3.05333E+00  3.12762E+00
#           3.20372E+00  3.28167E+00  3.36152E+00  3.44330E+00  3.52708E+00
#           3.61290E+00  3.70080E+00  3.79085E+00  3.88308E+00  3.97756E+00
#           4.07434E+00  4.17347E+00  4.27501E+00  4.37903E+00  4.48557E+00
#           4.59471E+00  4.70650E+00  4.82102E+00  4.93832E+00  5.05847E+00
#           5.18155E+00  5.30762E+00  5.43676E+00  5.56904E+00  5.70453E+00
#           5.84333E+00  5.98550E+00  6.13114E+00  6.28031E+00  6.43312E+00
#           6.58964E+00  6.74997E+00  6.91420E+00  7.08243E+00  7.25475E+00
#           7.43126E+00  7.61207E+00  7.79728E+00  7.98700E+00  8.18133E+00
#           8.38038E+00  8.58428E+00  8.79315E+00  9.00709E+00  9.22624E+00
#           9.45072E+00  9.68067E+00  9.91620E+00  1.01575E+01  1.04046E+01
#           1.06578E+01  1.09171E+01  1.11827E+01  1.14548E+01  1.17335E+01
#           1.20190E+01  1.23114E+01  1.26109E+01  1.29178E+01  1.32321E+01
#           1.35540E+01  1.38838E+01  1.42216E+01  1.45676E+01  1.49221E+01
#           1.52851E+01  1.56570E+01  1.60380E+01  1.64282E+01  1.68279E+01
#           1.72374E+01  1.76568E+01  1.80864E+01  1.85264E+01  1.89772E+01
#           1.94389E+01  1.99119E+01  2.03963E+01  2.08926E+01  2.14009E+01
#           2.19216E+01  2.24550E+01  2.30014E+01  2.35610E+01  2.41343E+01
#           2.47215E+01  2.53230E+01  2.59391E+01  2.65702E+01  2.72167E+01
#           2.78789E+01  2.85572E+01  2.92520E+01  2.99637E+01  3.06928E+01
#           3.14396E+01  3.22045E+01  3.29881E+01  3.37907E+01  3.46128E+01
#           3.54550E+01  3.63177E+01  3.72013E+01  3.81064E+01  3.90336E+01
#           3.99833E+01  4.09561E+01  4.19526E+01  4.29734E+01  4.40189E+01
#           4.50900E+01  4.61870E+01  4.73108E+01  4.84619E+01  4.96410E+01
#           5.08488E+01  5.20860E+01  5.33533E+01  5.46514E+01  5.59812E+01
#           5.73432E+01  5.87384E+01  6.01676E+01  6.16315E+01  6.31311E+01
#           6.46671E+01  6.62405E+01  6.78522E+01  6.95031E+01  7.11941E+01
#           7.29263E+01  7.47007E+01  7.65182E+01  7.83800E+01  8.02870E+01
#           8.22405E+01  8.42414E+01  8.62911E+01  8.83906E+01  9.05412E+01
#           9.27442E+01  9.50007E+01  9.73122E+01  9.96799E+01  1.02105E+02
#           1.04589E+02  1.07134E+02  1.09741E+02  1.12411E+02  1.15146E+02
#           1.17948E+02  1.20817E+02  1.23757E+02  1.26768E+02  1.29852E+02
#           1.33012E+02  1.36248E+02  1.39563E+02  1.42959E+02  1.46437E+02
#           1.50000E+02
     unit =    2            # unit is [1/cm^2/(MeV/n)/source]
     axis =  eng            # axis of output
     file = detector-05.out  # file name of output for the above axis
   output = f-curr          # surface crossing forward current spectrum
     part =  neutron  
# kf/name :  2112     
#    used :        main (  %)        temp (  %)       total (  %)
#  memory :         414 (  0)           0 (  0)         414 (  0)

#------------------------------------------------------------------------------
#newpage:
#   no. =    1   reg = 104 - 204

x: Energy [MeV/n]
y:  F-Curr [1/cm^2/(MeV/n)/source]         
p: xlog ylog afac(0.8) form(0.9)
h: n            x            y(neutron ),hh0l   n 
#  e-lower      e-upper      neutron     r.err 
   1.0000E-02   1.0243E-02   5.1147E-05  0.1336
   1.0243E-02   1.0493E-02   3.2991E-05  0.1644
   1.0493E-02   1.0748E-02   5.6580E-05  0.1240
   1.0748E-02   1.1009E-02   4.5039E-05  0.1374
   1.1009E-02   1.1277E-02   3.9821E-05  0.1443
   1.1277E-02   1.1552E-02   4.0495E-05  0.1414
   1.1552E-02   1.1833E-02   4.8230E-05  0.1280
   1.1833E-02   1.2121E-02   3.9752E-05  0.1390
   1.2121E-02   1.2415E-02   3.9938E-05  0.1374
   1.2415E-02   1.2718E-02   4.4139E-05  0.1291
   1.2718E-02   1.3027E-02   3.1376E-05  0.1506
   1.3027E-02   1.3344E-02   4.2768E-05  0.1280
   1.3344E-02   1.3669E-02   5.4072E-05  0.1125
   1.3669E-02   1.4001E-02   4.6774E-05  0.1195
   1.4001E-02   1.4342E-02   3.3921E-05  0.1387
   1.4342E-02   1.4691E-02   4.0121E-05  0.1260
   1.4691E-02   1.5048E-02   3.7613E-05  0.1283
   1.5048E-02   1.5414E-02   4.4307E-05  0.1170
   1.5414E-02   1.5789E-02   4.3847E-05  0.1162
   1.5789E-02   1.6174E-02   5.0325E-05  0.1072
   1.6174E-02   1.6567E-02   4.1789E-05  0.1162
   1.6567E-02   1.6970E-02   4.4655E-05  0.1111
   1.6970E-02   1.7383E-02   5.2475E-05  0.1011
   1.7383E-02   1.7806E-02   5.1032E-05  0.1014
   1.7806E-02   1.8239E-02   4.2574E-05  0.1098
   1.8239E-02   1.8683E-02   4.1563E-05  0.1098
   1.8683E-02   1.9138E-02   3.4709E-05  0.1187
   1.9138E-02   1.9603E-02   4.1043E-05  0.1078
   1.9603E-02   2.0080E-02   4.6591E-05  0.1000
   2.0080E-02   2.0569E-02   4.9123E-05  0.0960
   2.0569E-02   2.1069E-02   4.4257E-05  0.1000
   2.1069E-02   2.1582E-02   3.4680E-05  0.1118
   2.1582E-02   2.2107E-02   4.3644E-05  0.0984
   2.2107E-02   2.2645E-02   4.3793E-05  0.0971
   2.2645E-02   2.3196E-02   4.4027E-05  0.0957
   2.3196E-02   2.3760E-02   4.1344E-05  0.0976
   2.3760E-02   2.4338E-02   4.5421E-05  0.0919
   2.4338E-02   2.4930E-02   4.4282E-05  0.0921
   2.4930E-02   2.5537E-02   4.7993E-05  0.0874
   2.5537E-02   2.6158E-02   4.5064E-05  0.0889
   2.6158E-02   2.6795E-02   4.0502E-05  0.0928
   2.6795E-02   2.7447E-02   4.2434E-05  0.0895
   2.7447E-02   2.8114E-02   4.3426E-05  0.0875
   2.8114E-02   2.8799E-02   3.6060E-05  0.0949
   2.8799E-02   2.9499E-02   4.2181E-05  0.0867
   2.9499E-02   3.0217E-02   4.9848E-05  0.0788
   3.0217E-02   3.0952E-02   3.8783E-05  0.0882
   3.0952E-02   3.1705E-02   3.8360E-05  0.0877
   3.1705E-02   3.2477E-02   4.2202E-05  0.0825
   3.2477E-02   3.3267E-02   3.8247E-05  0.0857
   3.3267E-02   3.4076E-02   4.3435E-05  0.0795
   3.4076E-02   3.4905E-02   4.7173E-05  0.0754
   3.4905E-02   3.5755E-02   4.1391E-05  0.0795
   3.5755E-02   3.6625E-02   4.2149E-05  0.0778
   3.6625E-02   3.7516E-02   3.9651E-05  0.0793
   3.7516E-02   3.8428E-02   4.6256E-05  0.0725
   3.8428E-02   3.9363E-02   4.1830E-05  0.0753
   3.9363E-02   4.0321E-02   4.3660E-05  0.0729
   4.0321E-02   4.1302E-02   4.4737E-05  0.0711
   4.1302E-02   4.2307E-02   3.9761E-05  0.0745
   4.2307E-02   4.3337E-02   4.1493E-05  0.0721
   4.3337E-02   4.4391E-02   4.6183E-05  0.0675
   4.4391E-02   4.5471E-02   4.2870E-05  0.0692
   4.5471E-02   4.6577E-02   4.0916E-05  0.0700
   4.6577E-02   4.7711E-02   4.0821E-05  0.0693
   4.7711E-02   4.8871E-02   4.2720E-05  0.0669
   4.8871E-02   5.0061E-02   3.9896E-05  0.0684
   5.0061E-02   5.1279E-02   4.1019E-05  0.0666
   5.1279E-02   5.2526E-02   3.6013E-05  0.0703
   5.2526E-02   5.3804E-02   4.0602E-05  0.0654
   5.3804E-02   5.5113E-02   4.2208E-05  0.0634
   5.5113E-02   5.6454E-02   4.3253E-05  0.0619
   5.6454E-02   5.7828E-02   4.0633E-05  0.0631
   5.7828E-02   5.9235E-02   3.8617E-05  0.0639
   5.9235E-02   6.0676E-02   4.2525E-05  0.0602
   6.0676E-02   6.2152E-02   3.6653E-05  0.0641
   6.2152E-02   6.3665E-02   4.3765E-05  0.0579
   6.3665E-02   6.5214E-02   3.7300E-05  0.0620
   6.5214E-02   6.6800E-02   4.0265E-05  0.0590
   6.6800E-02   6.8426E-02   3.7903E-05  0.0600
   6.8426E-02   7.0090E-02   4.3424E-05  0.0554
   7.0090E-02   7.1796E-02   3.8832E-05  0.0579
   7.1796E-02   7.3543E-02   3.6785E-05  0.0588
   7.3543E-02   7.5332E-02   3.6968E-05  0.0579
   7.5332E-02   7.7165E-02   4.1543E-05  0.0540
   7.7165E-02   7.9042E-02   4.4149E-05  0.0518
   7.9042E-02   8.0965E-02   4.0905E-05  0.0531
   8.0965E-02   8.2935E-02   3.7892E-05  0.0545
   8.2935E-02   8.4953E-02   3.7698E-05  0.0540
   8.4953E-02   8.7020E-02   3.7221E-05  0.0537
   8.7020E-02   8.9138E-02   3.7612E-05  0.0528
   8.9138E-02   9.1306E-02   3.7399E-05  0.0523
   9.1306E-02   9.3528E-02   3.6394E-05  0.0524
   9.3528E-02   9.5804E-02   3.7126E-05  0.0513
   9.5804E-02   9.8134E-02   3.8626E-05  0.0497
   9.8134E-02   1.0052E-01   3.8620E-05  0.0491
   1.0052E-01   1.0297E-01   3.4858E-05  0.0510
   1.0297E-01   1.0547E-01   3.5846E-05  0.0497
   1.0547E-01   1.0804E-01   3.4998E-05  0.0497
   1.0804E-01   1.1067E-01   3.5208E-05  0.0490
   1.1067E-01   1.1336E-01   3.6076E-05  0.0478
   1.1336E-01   1.1612E-01   3.5612E-05  0.0475
   1.1612E-01   1.1894E-01   3.3336E-05  0.0485
   1.1894E-01   1.2184E-01   3.3825E-05  0.0476
   1.2184E-01   1.2480E-01   3.3209E-05  0.0475
   1.2480E-01   1.2784E-01   3.3245E-05  0.0469
   1.2784E-01   1.3095E-01   3.0409E-05  0.0485
   1.3095E-01   1.3414E-01   2.9827E-05  0.0483
   1.3414E-01   1.3740E-01   3.0879E-05  0.0469
   1.3740E-01   1.4074E-01   3.2335E-05  0.0453
   1.4074E-01   1.4417E-01   2.9600E-05  0.0468
   1.4417E-01   1.4767E-01   3.1513E-05  0.0448
   1.4767E-01   1.5127E-01   3.0069E-05  0.0453
   1.5127E-01   1.5495E-01   3.0420E-05  0.0445
   1.5495E-01   1.5872E-01   2.7127E-05  0.0466
   1.5872E-01   1.6258E-01   2.8628E-05  0.0448
   1.6258E-01   1.6654E-01   2.6290E-05  0.0462
   1.6654E-01   1.7059E-01   2.6124E-05  0.0458
   1.7059E-01   1.7474E-01   2.5833E-05  0.0455
   1.7474E-01   1.7899E-01   2.5654E-05  0.0451
   1.7899E-01   1.8334E-01   2.6243E-05  0.0441
   1.8334E-01   1.8781E-01   2.6384E-05  0.0434
   1.8781E-01   1.9237E-01   2.4478E-05  0.0446
   1.9237E-01   1.9706E-01   2.4419E-05  0.0441
   1.9706E-01   2.0185E-01   2.4039E-05  0.0439
   2.0185E-01   2.0676E-01   2.3733E-05  0.0437
   2.0676E-01   2.1179E-01   2.4958E-05  0.0421
   2.1179E-01   2.1694E-01   2.5163E-05  0.0414
   2.1694E-01   2.2222E-01   2.3946E-05  0.0419
   2.2222E-01   2.2763E-01   2.3473E-05  0.0418
   2.2763E-01   2.3317E-01   2.4963E-05  0.0401
   2.3317E-01   2.3884E-01   2.5539E-05  0.0392
   2.3884E-01   2.4465E-01   2.4393E-05  0.0396
   2.4465E-01   2.5061E-01   2.6362E-05  0.0376
   2.5061E-01   2.5670E-01   2.6058E-05  0.0374
   2.5670E-01   2.6295E-01   2.5268E-05  0.0375
   2.6295E-01   2.6935E-01   2.6663E-05  0.0361
   2.6935E-01   2.7590E-01   2.7065E-05  0.0354
   2.7590E-01   2.8261E-01   2.8801E-05  0.0339
   2.8261E-01   2.8949E-01   2.9430E-05  0.0331
   2.8949E-01   2.9653E-01   2.6369E-05  0.0346
   2.9653E-01   3.0375E-01   2.7936E-05  0.0332
   3.0375E-01   3.1114E-01   2.7248E-05  0.0332
   3.1114E-01   3.1871E-01   2.8861E-05  0.0319
   3.1871E-01   3.2646E-01   3.0157E-05  0.0308
   3.2646E-01   3.3441E-01   2.9072E-05  0.0310
   3.3441E-01   3.4254E-01   2.8818E-05  0.0308
   3.4254E-01   3.5088E-01   2.9391E-05  0.0301
   3.5088E-01   3.5941E-01   2.9242E-05  0.0298
   3.5941E-01   3.6816E-01   3.1264E-05  0.0285
   3.6816E-01   3.7712E-01   3.0667E-05  0.0284
   3.7712E-01   3.8629E-01   2.9611E-05  0.0286
   3.8629E-01   3.9569E-01   3.1508E-05  0.0274
   3.9569E-01   4.0532E-01   3.2361E-05  0.0267
   4.0532E-01   4.1518E-01   3.1223E-05  0.0269
   4.1518E-01   4.2528E-01   3.2308E-05  0.0261
   4.2528E-01   4.3563E-01   3.2050E-05  0.0259
   4.3563E-01   4.4623E-01   3.1818E-05  0.0257
   4.4623E-01   4.5708E-01   3.3030E-05  0.0249
   4.5708E-01   4.6821E-01   3.3227E-05  0.0245
   4.6821E-01   4.7960E-01   3.3965E-05  0.0240
   4.7960E-01   4.9127E-01   3.4005E-05  0.0236
   4.9127E-01   5.0322E-01   3.5434E-05  0.0229
   5.0322E-01   5.1546E-01   3.5207E-05  0.0227
   5.1546E-01   5.2800E-01   3.5402E-05  0.0224
   5.2800E-01   5.4085E-01   3.6458E-05  0.0218
   5.4085E-01   5.5401E-01   3.6061E-05  0.0216
   5.5401E-01   5.6749E-01   3.6892E-05  0.0211
   5.6749E-01   5.8130E-01   3.8011E-05  0.0206
   5.8130E-01   5.9544E-01   3.6873E-05  0.0206
   5.9544E-01   6.0993E-01   3.7492E-05  0.0202
   6.0993E-01   6.2477E-01   3.7813E-05  0.0199
   6.2477E-01   6.3997E-01   3.8247E-05  0.0195
   6.3997E-01   6.5554E-01   3.7207E-05  0.0196
   6.5554E-01   6.7149E-01   3.8024E-05  0.0191
   6.7149E-01   6.8783E-01   3.9863E-05  0.0185
   6.8783E-01   7.0456E-01   3.7868E-05  0.0187
   7.0456E-01   7.2171E-01   3.9467E-05  0.0181
   7.2171E-01   7.3927E-01   4.0250E-05  0.0177
   7.3927E-01   7.5725E-01   4.0182E-05  0.0175
   7.5725E-01   7.7568E-01   3.9835E-05  0.0174
   7.7568E-01   7.9455E-01   4.0894E-05  0.0170
   7.9455E-01   8.1388E-01   4.1314E-05  0.0167
   8.1388E-01   8.3368E-01   4.1417E-05  0.0165
   8.3368E-01   8.5397E-01   4.1647E-05  0.0162
   8.5397E-01   8.7475E-01   4.1265E-05  0.0161
   8.7475E-01   8.9603E-01   4.0974E-05  0.0160
   8.9603E-01   9.1783E-01   4.1739E-05  0.0156
   9.1783E-01   9.4016E-01   4.2106E-05  0.0154
   9.4016E-01   9.6304E-01   4.1727E-05  0.0152
   9.6304E-01   9.8647E-01   4.2505E-05  0.0149
   9.8647E-01   1.0105E+00   4.2781E-05  0.0147
   1.0105E+00   1.0351E+00   4.3422E-05  0.0144
   1.0351E+00   1.0602E+00   4.2313E-05  0.0144
   1.0602E+00   1.0860E+00   4.3024E-05  0.0141
   1.0860E+00   1.1125E+00   4.2601E-05  0.0140
   1.1125E+00   1.1395E+00   4.1904E-05  0.0140
   1.1395E+00   1.1673E+00   4.2223E-05  0.0138
   1.1673E+00   1.1957E+00   4.1193E-05  0.0138
   1.1957E+00   1.2247E+00   4.1052E-05  0.0136
   1.2247E+00   1.2545E+00   4.1487E-05  0.0134
   1.2545E+00   1.2851E+00   4.1401E-05  0.0133
   1.2851E+00   1.3163E+00   4.1012E-05  0.0132
   1.3163E+00   1.3484E+00   4.1988E-05  0.0128
   1.3484E+00   1.3812E+00   4.1647E-05  0.0127
   1.3812E+00   1.4148E+00   4.1803E-05  0.0126
   1.4148E+00   1.4492E+00   4.2241E-05  0.0124
   1.4492E+00   1.4845E+00   4.2204E-05  0.0122
   1.4845E+00   1.5206E+00   4.3103E-05  0.0119
   1.5206E+00   1.5576E+00   4.2645E-05  0.0119
   1.5576E+00   1.5955E+00   4.2642E-05  0.0117
   1.5955E+00   1.6343E+00   4.3386E-05  0.0115
   1.6343E+00   1.6741E+00   4.2579E-05  0.0115
   1.6741E+00   1.7148E+00   4.2524E-05  0.0113
   1.7148E+00   1.7565E+00   4.4217E-05  0.0110
   1.7565E+00   1.7992E+00   4.5066E-05  0.0107
   1.7992E+00   1.8430E+00   4.5186E-05  0.0106
   1.8430E+00   1.8879E+00   4.4818E-05  0.0105
   1.8879E+00   1.9338E+00   4.5021E-05  0.0104
   1.9338E+00   1.9808E+00   4.5292E-05  0.0102
   1.9808E+00   2.0290E+00   4.6194E-05  0.0100
   2.0290E+00   2.0784E+00   4.6049E-05  0.0099
   2.0784E+00   2.1290E+00   4.6789E-05  0.0097
   2.1290E+00   2.1808E+00   4.7120E-05  0.0095
   2.1808E+00   2.2338E+00   4.7653E-05  0.0094
   2.2338E+00   2.2882E+00   4.8353E-05  0.0092
   2.2882E+00   2.3439E+00   4.8780E-05  0.0090
   2.3439E+00   2.4009E+00   4.8814E-05  0.0089
   2.4009E+00   2.4593E+00   4.9771E-05  0.0087
   2.4593E+00   2.5191E+00   4.9217E-05  0.0087
   2.5191E+00   2.5804E+00   5.0356E-05  0.0085
   2.5804E+00   2.6432E+00   5.0213E-05  0.0084
   2.6432E+00   2.7075E+00   5.0640E-05  0.0083
   2.7075E+00   2.7734E+00   5.1824E-05  0.0081
   2.7734E+00   2.8409E+00   5.1807E-05  0.0080
   2.8409E+00   2.9100E+00   5.3139E-05  0.0078
   2.9100E+00   2.9808E+00   5.2673E-05  0.0077
   2.9808E+00   3.0533E+00   5.3241E-05  0.0076
   3.0533E+00   3.1276E+00   5.4210E-05  0.0074
   3.1276E+00   3.2037E+00   5.5038E-05  0.0073
   3.2037E+00   3.2817E+00   5.4087E-05  0.0073
   3.2817E+00   3.3615E+00   5.4643E-05  0.0071
   3.3615E+00   3.4433E+00   5.4945E-05  0.0070
   3.4433E+00   3.5271E+00   5.5962E-05  0.0069
   3.5271E+00   3.6129E+00   5.5503E-05  0.0068
   3.6129E+00   3.7008E+00   5.5436E-05  0.0068
   3.7008E+00   3.7908E+00   5.6582E-05  0.0066
   3.7908E+00   3.8831E+00   5.6476E-05  0.0065
   3.8831E+00   3.9776E+00   5.7230E-05  0.0064
   3.9776E+00   4.0743E+00   5.6925E-05  0.0063
   4.0743E+00   4.1735E+00   5.7585E-05  0.0062
   4.1735E+00   4.2750E+00   5.7669E-05  0.0062
   4.2750E+00   4.3790E+00   5.8061E-05  0.0061
   4.3790E+00   4.4856E+00   5.8218E-05  0.0060
   4.4856E+00   4.5947E+00   5.8635E-05  0.0059
   4.5947E+00   4.7065E+00   5.9032E-05  0.0058
   4.7065E+00   4.8210E+00   5.9606E-05  0.0057
   4.8210E+00   4.9383E+00   6.0173E-05  0.0056
   4.9383E+00   5.0585E+00   5.9712E-05  0.0056
   5.0585E+00   5.1815E+00   6.0793E-05  0.0054
   5.1815E+00   5.3076E+00   6.0964E-05  0.0054
   5.3076E+00   5.4368E+00   6.1556E-05  0.0053
   5.4368E+00   5.5690E+00   6.2025E-05  0.0052
   5.5690E+00   5.7045E+00   6.2541E-05  0.0051
   5.7045E+00   5.8433E+00   6.3066E-05  0.0050
   5.8433E+00   5.9855E+00   6.2913E-05  0.0050
   5.9855E+00   6.1311E+00   6.3966E-05  0.0049
   6.1311E+00   6.2803E+00   6.4061E-05  0.0048
   6.2803E+00   6.4331E+00   6.4115E-05  0.0048
   6.4331E+00   6.5896E+00   6.4355E-05  0.0047
   6.5896E+00   6.7500E+00   6.4791E-05  0.0046
   6.7500E+00   6.9142E+00   6.4804E-05  0.0046
   6.9142E+00   7.0824E+00   6.5213E-05  0.0045
   7.0824E+00   7.2548E+00   6.4760E-05  0.0045
   7.2548E+00   7.4313E+00   6.5003E-05  0.0044
   7.4313E+00   7.6121E+00   6.4522E-05  0.0044
   7.6121E+00   7.7973E+00   6.4540E-05  0.0043
   7.7973E+00   7.9870E+00   6.4875E-05  0.0042
   7.9870E+00   8.1813E+00   6.4542E-05  0.0042
   8.1813E+00   8.3804E+00   6.3490E-05  0.0042
   8.3804E+00   8.5843E+00   6.2489E-05  0.0042
   8.5843E+00   8.7931E+00   6.1092E-05  0.0042
   8.7931E+00   9.0071E+00   6.0727E-05  0.0041
   9.0071E+00   9.2262E+00   5.8952E-05  0.0041
   9.2262E+00   9.4507E+00   5.7464E-05  0.0042
   9.4507E+00   9.6807E+00   5.5918E-05  0.0042
   9.6807E+00   9.9162E+00   5.5105E-05  0.0041
   9.9162E+00   1.0157E+01   5.3234E-05  0.0042
   1.0157E+01   1.0405E+01   5.1424E-05  0.0042
   1.0405E+01   1.0658E+01   4.9925E-05  0.0042
   1.0658E+01   1.0917E+01   4.7604E-05  0.0042
   1.0917E+01   1.1183E+01   4.5527E-05  0.0043
   1.1183E+01   1.1455E+01   4.3466E-05  0.0043
   1.1455E+01   1.1733E+01   4.1160E-05  0.0044
   1.1733E+01   1.2019E+01   3.9426E-05  0.0044
   1.2019E+01   1.2311E+01   3.7361E-05  0.0045
   1.2311E+01   1.2611E+01   3.5112E-05  0.0046
   1.2611E+01   1.2918E+01   3.2496E-05  0.0047
   1.2918E+01   1.3232E+01   3.0569E-05  0.0048
   1.3232E+01   1.3554E+01   2.8805E-05  0.0049
   1.3554E+01   1.3884E+01   2.6421E-05  0.0051
   1.3884E+01   1.4222E+01   2.4593E-05  0.0052
   1.4222E+01   1.4568E+01   2.2652E-05  0.0053
   1.4568E+01   1.4922E+01   2.0732E-05  0.0055
   1.4922E+01   1.5285E+01   1.8692E-05  0.0057
   1.5285E+01   1.5657E+01   1.7018E-05  0.0059
   1.5657E+01   1.6038E+01   1.5423E-05  0.0061
   1.6038E+01   1.6428E+01   1.3962E-05  0.0064
   1.6428E+01   1.6828E+01   1.2519E-05  0.0067
   1.6828E+01   1.7237E+01   1.1042E-05  0.0070
   1.7237E+01   1.7657E+01   9.7542E-06  0.0074
   1.7657E+01   1.8086E+01   8.5393E-06  0.0078
   1.8086E+01   1.8526E+01   7.4941E-06  0.0082
   1.8526E+01   1.8977E+01   6.4248E-06  0.0088
   1.8977E+01   1.9439E+01   5.6594E-06  0.0092
   1.9439E+01   1.9912E+01   4.7173E-06  0.0100
   1.9912E+01   2.0396E+01   3.9934E-06  0.0107
   2.0396E+01   2.0893E+01   3.3634E-06  0.0115
   2.0893E+01   2.1401E+01   2.8494E-06  0.0124
   2.1401E+01   2.1922E+01   2.3178E-06  0.0136
   2.1922E+01   2.2455E+01   1.8045E-06  0.0152
   2.2455E+01   2.3001E+01   1.4256E-06  0.0169
   2.3001E+01   2.3561E+01   1.2599E-06  0.0178
   2.3561E+01   2.4134E+01   1.2455E-06  0.0176
   2.4134E+01   2.4721E+01   1.2511E-06  0.0174
   2.4721E+01   2.5323E+01   1.2402E-06  0.0173
   2.5323E+01   2.5939E+01   1.3417E-06  0.0164
   2.5939E+01   2.6570E+01   1.3105E-06  0.0164
   2.6570E+01   2.7217E+01   1.3320E-06  0.0161
   2.7217E+01   2.7879E+01   1.3437E-06  0.0158
   2.7879E+01   2.8557E+01   1.3855E-06  0.0154
   2.8557E+01   2.9252E+01   1.4341E-06  0.0149
   2.9252E+01   2.9964E+01   1.4160E-06  0.0148
   2.9964E+01   3.0693E+01   1.4378E-06  0.0146
   3.0693E+01   3.1440E+01   1.4212E-06  0.0145
   3.1440E+01   3.2205E+01   1.3604E-06  0.0146
   3.2205E+01   3.2988E+01   1.3959E-06  0.0143
   3.2988E+01   3.3791E+01   1.3744E-06  0.0142
   3.3791E+01   3.4613E+01   1.3877E-06  0.0140
   3.4613E+01   3.5455E+01   1.3906E-06  0.0138
   3.5455E+01   3.6318E+01   1.2965E-06  0.0141
   3.6318E+01   3.7201E+01   1.2499E-06  0.0142
   3.7201E+01   3.8106E+01   9.5946E-07  0.0160
   3.8106E+01   3.9034E+01   5.9920E-07  0.0200
   3.9034E+01   3.9983E+01   4.8342E-07  0.0220
   3.9983E+01   4.0956E+01   3.8376E-07  0.0244
   4.0956E+01   4.1953E+01   7.8051E-09  0.1690
   4.1953E+01   4.2973E+01   0.0000E+00  0.0000
   4.2973E+01   4.4019E+01   0.0000E+00  0.0000
   4.4019E+01   4.5090E+01   0.0000E+00  0.0000
   4.5090E+01   4.6187E+01   0.0000E+00  0.0000
   4.6187E+01   4.7311E+01   0.0000E+00  0.0000
   4.7311E+01   4.8462E+01   0.0000E+00  0.0000
   4.8462E+01   4.9641E+01   0.0000E+00  0.0000
   4.9641E+01   5.0849E+01   0.0000E+00  0.0000
   5.0849E+01   5.2086E+01   0.0000E+00  0.0000
   5.2086E+01   5.3353E+01   0.0000E+00  0.0000
   5.3353E+01   5.4651E+01   0.0000E+00  0.0000
   5.4651E+01   5.5981E+01   0.0000E+00  0.0000
   5.5981E+01   5.7343E+01   0.0000E+00  0.0000
   5.7343E+01   5.8738E+01   0.0000E+00  0.0000
   5.8738E+01   6.0168E+01   0.0000E+00  0.0000
   6.0168E+01   6.1632E+01   0.0000E+00  0.0000
   6.1632E+01   6.3131E+01   0.0000E+00  0.0000
   6.3131E+01   6.4667E+01   0.0000E+00  0.0000
   6.4667E+01   6.6240E+01   0.0000E+00  0.0000
   6.6240E+01   6.7852E+01   0.0000E+00  0.0000
   6.7852E+01   6.9503E+01   0.0000E+00  0.0000
   6.9503E+01   7.1194E+01   0.0000E+00  0.0000
   7.1194E+01   7.2926E+01   0.0000E+00  0.0000
   7.2926E+01   7.4701E+01   0.0000E+00  0.0000
   7.4701E+01   7.6518E+01   0.0000E+00  0.0000
   7.6518E+01   7.8380E+01   0.0000E+00  0.0000
   7.8380E+01   8.0287E+01   0.0000E+00  0.0000
   8.0287E+01   8.2240E+01   0.0000E+00  0.0000
   8.2240E+01   8.4241E+01   0.0000E+00  0.0000
   8.4241E+01   8.6291E+01   0.0000E+00  0.0000
   8.6291E+01   8.8391E+01   0.0000E+00  0.0000
   8.8391E+01   9.0541E+01   0.0000E+00  0.0000
   9.0541E+01   9.2744E+01   0.0000E+00  0.0000
   9.2744E+01   9.5001E+01   0.0000E+00  0.0000
   9.5001E+01   9.7312E+01   0.0000E+00  0.0000
   9.7312E+01   9.9680E+01   0.0000E+00  0.0000
   9.9680E+01   1.0211E+02   0.0000E+00  0.0000
   1.0211E+02   1.0459E+02   0.0000E+00  0.0000
   1.0459E+02   1.0713E+02   0.0000E+00  0.0000
   1.0713E+02   1.0974E+02   0.0000E+00  0.0000
   1.0974E+02   1.1241E+02   0.0000E+00  0.0000
   1.1241E+02   1.1515E+02   0.0000E+00  0.0000
   1.1515E+02   1.1795E+02   0.0000E+00  0.0000
   1.1795E+02   1.2082E+02   0.0000E+00  0.0000
   1.2082E+02   1.2376E+02   0.0000E+00  0.0000
   1.2376E+02   1.2677E+02   0.0000E+00  0.0000
   1.2677E+02   1.2985E+02   0.0000E+00  0.0000
   1.2985E+02   1.3301E+02   0.0000E+00  0.0000
   1.3301E+02   1.3625E+02   0.0000E+00  0.0000
   1.3625E+02   1.3956E+02   0.0000E+00  0.0000
   1.3956E+02   1.4296E+02   0.0000E+00  0.0000
   1.4296E+02   1.4644E+02   0.0000E+00  0.0000
   1.4644E+02   1.5000E+02   0.0000E+00  0.0000

#   sum over                 5.3978E-06
'no. =    1   reg = 104 - 204'
msuc: {\huge [t-cross] in region mesh}
msdr: {\it plotted by \ANGEL \version}
msdl: {\it calculated by \PHITS  3.26}
wt: s(0.7)
\vspace{-3}
  region surface crossing
  area  &=&   1.0000E+00 [cm^2]
e:
 
# Information for Restart Calculation
# This calculation was newly started
# istdev =  2 # 1:Batch variance, 2:History variance
# resc2  = 4.50000000000000000E+09 # Total source weight or Total source weight / maxcas
# resc3  = 4.50000000000000000E+09 # Total history number or Total batch number
# maxcas =   500000000 # History / Batch, only used for istdev=1
# bitrseed = 0001011101011011011000011100010110101100100111100111010011101011 # bit data of rseed
