[ T-Cross ]
    title = [t-cross] in region mesh
     mesh =  reg            # mesh type is region-wise
      reg =    1            # number of crossing regions
      non     r-from    r-to       area
      1       115       215        1.000000    
   e-type =    3            # e-mesh is log given by emin, emax and ne
     emin =  1.0000000E-02  # minimum value of e-mesh points
     emax =   150.0000      # maximum value of e-mesh points
#    edel =  2.4039514E-02  # mesh width of e-mesh points
       ne =    400          # number of e-mesh points
#    data = ( e(i), i = 1, ne + 1 )
#           1.00000E-02  1.02433E-02  1.04925E-02  1.07478E-02  1.10093E-02
#           1.12772E-02  1.15516E-02  1.18326E-02  1.21205E-02  1.24154E-02
#           1.27175E-02  1.30269E-02  1.33439E-02  1.36686E-02  1.40011E-02
#           1.43418E-02  1.46907E-02  1.50482E-02  1.54143E-02  1.57894E-02
#           1.61735E-02  1.65670E-02  1.69701E-02  1.73830E-02  1.78060E-02
#           1.82392E-02  1.86830E-02  1.91375E-02  1.96032E-02  2.00801E-02
#           2.05687E-02  2.10692E-02  2.15818E-02  2.21069E-02  2.26448E-02
#           2.31957E-02  2.37601E-02  2.43382E-02  2.49304E-02  2.55369E-02
#           2.61583E-02  2.67947E-02  2.74467E-02  2.81145E-02  2.87985E-02
#           2.94992E-02  3.02169E-02  3.09521E-02  3.17052E-02  3.24766E-02
#           3.32668E-02  3.40762E-02  3.49053E-02  3.57546E-02  3.66246E-02
#           3.75157E-02  3.84284E-02  3.93634E-02  4.03212E-02  4.13022E-02
#           4.23071E-02  4.33365E-02  4.43909E-02  4.54710E-02  4.65773E-02
#           4.77106E-02  4.88714E-02  5.00605E-02  5.12785E-02  5.25262E-02
#           5.38042E-02  5.51133E-02  5.64542E-02  5.78278E-02  5.92348E-02
#           6.06760E-02  6.21523E-02  6.36645E-02  6.52135E-02  6.68002E-02
#           6.84255E-02  7.00904E-02  7.17957E-02  7.35426E-02  7.53319E-02
#           7.71648E-02  7.90423E-02  8.09655E-02  8.29354E-02  8.49533E-02
#           8.70203E-02  8.91376E-02  9.13064E-02  9.35279E-02  9.58035E-02
#           9.81345E-02  1.00522E-01  1.02968E-01  1.05473E-01  1.08040E-01
#           1.10668E-01  1.13361E-01  1.16119E-01  1.18944E-01  1.21838E-01
#           1.24803E-01  1.27839E-01  1.30950E-01  1.34136E-01  1.37399E-01
#           1.40742E-01  1.44167E-01  1.47675E-01  1.51268E-01  1.54948E-01
#           1.58718E-01  1.62580E-01  1.66535E-01  1.70587E-01  1.74738E-01
#           1.78989E-01  1.83344E-01  1.87805E-01  1.92375E-01  1.97055E-01
#           2.01850E-01  2.06761E-01  2.11792E-01  2.16945E-01  2.22223E-01
#           2.27630E-01  2.33169E-01  2.38842E-01  2.44653E-01  2.50605E-01
#           2.56703E-01  2.62949E-01  2.69346E-01  2.75900E-01  2.82613E-01
#           2.89489E-01  2.96532E-01  3.03747E-01  3.11138E-01  3.18708E-01
#           3.26462E-01  3.34405E-01  3.42542E-01  3.50876E-01  3.59413E-01
#           3.68158E-01  3.77116E-01  3.86291E-01  3.95690E-01  4.05317E-01
#           4.15179E-01  4.25281E-01  4.35628E-01  4.46227E-01  4.57084E-01
#           4.68205E-01  4.79597E-01  4.91266E-01  5.03219E-01  5.15463E-01
#           5.28005E-01  5.40851E-01  5.54011E-01  5.67490E-01  5.81298E-01
#           5.95441E-01  6.09929E-01  6.24769E-01  6.39970E-01  6.55541E-01
#           6.71491E-01  6.87828E-01  7.04564E-01  7.21706E-01  7.39266E-01
#           7.57253E-01  7.75678E-01  7.94551E-01  8.13883E-01  8.33685E-01
#           8.53969E-01  8.74747E-01  8.96030E-01  9.17831E-01  9.40163E-01
#           9.63038E-01  9.86469E-01  1.01047E+00  1.03506E+00  1.06024E+00
#           1.08604E+00  1.11246E+00  1.13953E+00  1.16725E+00  1.19565E+00
#           1.22474E+00  1.25454E+00  1.28507E+00  1.31633E+00  1.34836E+00
#           1.38117E+00  1.41477E+00  1.44920E+00  1.48446E+00  1.52057E+00
#           1.55757E+00  1.59547E+00  1.63429E+00  1.67405E+00  1.71478E+00
#           1.75650E+00  1.79924E+00  1.84302E+00  1.88786E+00  1.93379E+00
#           1.98084E+00  2.02904E+00  2.07841E+00  2.12898E+00  2.18078E+00
#           2.23384E+00  2.28819E+00  2.34386E+00  2.40089E+00  2.45930E+00
#           2.51914E+00  2.58043E+00  2.64322E+00  2.70753E+00  2.77341E+00
#           2.84088E+00  2.91001E+00  2.98081E+00  3.05333E+00  3.12762E+00
#           3.20372E+00  3.28167E+00  3.36152E+00  3.44330E+00  3.52708E+00
#           3.61290E+00  3.70080E+00  3.79085E+00  3.88308E+00  3.97756E+00
#           4.07434E+00  4.17347E+00  4.27501E+00  4.37903E+00  4.48557E+00
#           4.59471E+00  4.70650E+00  4.82102E+00  4.93832E+00  5.05847E+00
#           5.18155E+00  5.30762E+00  5.43676E+00  5.56904E+00  5.70453E+00
#           5.84333E+00  5.98550E+00  6.13114E+00  6.28031E+00  6.43312E+00
#           6.58964E+00  6.74997E+00  6.91420E+00  7.08243E+00  7.25475E+00
#           7.43126E+00  7.61207E+00  7.79728E+00  7.98700E+00  8.18133E+00
#           8.38038E+00  8.58428E+00  8.79315E+00  9.00709E+00  9.22624E+00
#           9.45072E+00  9.68067E+00  9.91620E+00  1.01575E+01  1.04046E+01
#           1.06578E+01  1.09171E+01  1.11827E+01  1.14548E+01  1.17335E+01
#           1.20190E+01  1.23114E+01  1.26109E+01  1.29178E+01  1.32321E+01
#           1.35540E+01  1.38838E+01  1.42216E+01  1.45676E+01  1.49221E+01
#           1.52851E+01  1.56570E+01  1.60380E+01  1.64282E+01  1.68279E+01
#           1.72374E+01  1.76568E+01  1.80864E+01  1.85264E+01  1.89772E+01
#           1.94389E+01  1.99119E+01  2.03963E+01  2.08926E+01  2.14009E+01
#           2.19216E+01  2.24550E+01  2.30014E+01  2.35610E+01  2.41343E+01
#           2.47215E+01  2.53230E+01  2.59391E+01  2.65702E+01  2.72167E+01
#           2.78789E+01  2.85572E+01  2.92520E+01  2.99637E+01  3.06928E+01
#           3.14396E+01  3.22045E+01  3.29881E+01  3.37907E+01  3.46128E+01
#           3.54550E+01  3.63177E+01  3.72013E+01  3.81064E+01  3.90336E+01
#           3.99833E+01  4.09561E+01  4.19526E+01  4.29734E+01  4.40189E+01
#           4.50900E+01  4.61870E+01  4.73108E+01  4.84619E+01  4.96410E+01
#           5.08488E+01  5.20860E+01  5.33533E+01  5.46514E+01  5.59812E+01
#           5.73432E+01  5.87384E+01  6.01676E+01  6.16315E+01  6.31311E+01
#           6.46671E+01  6.62405E+01  6.78522E+01  6.95031E+01  7.11941E+01
#           7.29263E+01  7.47007E+01  7.65182E+01  7.83800E+01  8.02870E+01
#           8.22405E+01  8.42414E+01  8.62911E+01  8.83906E+01  9.05412E+01
#           9.27442E+01  9.50007E+01  9.73122E+01  9.96799E+01  1.02105E+02
#           1.04589E+02  1.07134E+02  1.09741E+02  1.12411E+02  1.15146E+02
#           1.17948E+02  1.20817E+02  1.23757E+02  1.26768E+02  1.29852E+02
#           1.33012E+02  1.36248E+02  1.39563E+02  1.42959E+02  1.46437E+02
#           1.50000E+02
     unit =    2            # unit is [1/cm^2/(MeV/n)/source]
     axis =  eng            # axis of output
     file = detector-16.out  # file name of output for the above axis
   output = f-curr          # surface crossing forward current spectrum
     part =  neutron  
# kf/name :  2112     
#    used :        main (  %)        temp (  %)       total (  %)
#  memory :         414 (  0)           0 (  0)         414 (  0)

#------------------------------------------------------------------------------
#newpage:
#   no. =    1   reg = 115 - 215

x: Energy [MeV/n]
y:  F-Curr [1/cm^2/(MeV/n)/source]         
p: xlog ylog afac(0.8) form(0.9)
h: n            x            y(neutron ),hh0l   n 
#  e-lower      e-upper      neutron     r.err 
   1.0000E-02   1.0243E-02   4.1265E-03  0.0446
   1.0243E-02   1.0493E-02   4.1408E-03  0.0440
   1.0493E-02   1.0748E-02   4.3245E-03  0.0426
   1.0748E-02   1.1009E-02   3.4799E-03  0.0469
   1.1009E-02   1.1277E-02   3.7705E-03  0.0445
   1.1277E-02   1.1552E-02   3.4842E-03  0.0457
   1.1552E-02   1.1833E-02   3.7857E-03  0.0434
   1.1833E-02   1.2121E-02   3.4665E-03  0.0449
   1.2121E-02   1.2415E-02   3.7572E-03  0.0425
   1.2415E-02   1.2718E-02   3.4693E-03  0.0437
   1.2718E-02   1.3027E-02   3.5420E-03  0.0427
   1.3027E-02   1.3344E-02   3.5336E-03  0.0423
   1.3344E-02   1.3669E-02   3.4004E-03  0.0426
   1.3669E-02   1.4001E-02   3.3437E-03  0.0424
   1.4001E-02   1.4342E-02   3.4932E-03  0.0410
   1.4342E-02   1.4691E-02   3.2784E-03  0.0418
   1.4691E-02   1.5048E-02   3.1726E-03  0.0420
   1.5048E-02   1.5414E-02   3.4359E-03  0.0399
   1.5414E-02   1.5789E-02   3.3010E-03  0.0402
   1.5789E-02   1.6174E-02   3.2382E-03  0.0401
   1.6174E-02   1.6567E-02   3.1003E-03  0.0405
   1.6567E-02   1.6970E-02   3.2896E-03  0.0388
   1.6970E-02   1.7383E-02   3.0758E-03  0.0397
   1.7383E-02   1.7806E-02   3.1352E-03  0.0388
   1.7806E-02   1.8239E-02   3.1207E-03  0.0385
   1.8239E-02   1.8683E-02   3.0556E-03  0.0384
   1.8683E-02   1.9138E-02   2.9830E-03  0.0384
   1.9138E-02   1.9603E-02   3.0539E-03  0.0375
   1.9603E-02   2.0080E-02   2.8430E-03  0.0384
   2.0080E-02   2.0569E-02   2.9392E-03  0.0373
   2.0569E-02   2.1069E-02   2.7815E-03  0.0379
   2.1069E-02   2.1582E-02   2.7622E-03  0.0376
   2.1582E-02   2.2107E-02   2.6776E-03  0.0377
   2.2107E-02   2.2645E-02   2.8594E-03  0.0361
   2.2645E-02   2.3196E-02   2.6517E-03  0.0370
   2.3196E-02   2.3760E-02   2.5976E-03  0.0369
   2.3760E-02   2.4338E-02   2.7469E-03  0.0355
   2.4338E-02   2.4930E-02   2.6411E-03  0.0358
   2.4930E-02   2.5537E-02   2.6674E-03  0.0352
   2.5537E-02   2.6158E-02   2.9388E-03  0.0331
   2.6158E-02   2.6795E-02   2.6428E-03  0.0345
   2.6795E-02   2.7447E-02   2.7395E-03  0.0335
   2.7447E-02   2.8114E-02   2.6056E-03  0.0339
   2.8114E-02   2.8799E-02   2.6343E-03  0.0333
   2.8799E-02   2.9499E-02   2.5603E-03  0.0334
   2.9499E-02   3.0217E-02   2.5330E-03  0.0332
   3.0217E-02   3.0952E-02   2.3667E-03  0.0339
   3.0952E-02   3.1705E-02   2.4141E-03  0.0332
   3.1705E-02   3.2477E-02   2.3373E-03  0.0333
   3.2477E-02   3.3267E-02   2.4298E-03  0.0323
   3.3267E-02   3.4076E-02   2.4289E-03  0.0319
   3.4076E-02   3.4905E-02   2.2699E-03  0.0326
   3.4905E-02   3.5755E-02   2.3149E-03  0.0319
   3.5755E-02   3.6625E-02   2.2438E-03  0.0320
   3.6625E-02   3.7516E-02   2.1883E-03  0.0320
   3.7516E-02   3.8428E-02   2.3335E-03  0.0306
   3.8428E-02   3.9363E-02   2.0792E-03  0.0321
   3.9363E-02   4.0321E-02   2.2407E-03  0.0305
   4.0321E-02   4.1302E-02   2.1548E-03  0.0308
   4.1302E-02   4.2307E-02   2.2271E-03  0.0299
   4.2307E-02   4.3337E-02   2.1936E-03  0.0298
   4.3337E-02   4.4391E-02   2.0656E-03  0.0303
   4.4391E-02   4.5471E-02   2.1443E-03  0.0294
   4.5471E-02   4.6577E-02   2.0608E-03  0.0296
   4.6577E-02   4.7711E-02   2.0807E-03  0.0291
   4.7711E-02   4.8871E-02   2.0313E-03  0.0291
   4.8871E-02   5.0061E-02   1.9225E-03  0.0296
   5.0061E-02   5.1279E-02   2.0000E-03  0.0287
   5.1279E-02   5.2526E-02   2.0054E-03  0.0283
   5.2526E-02   5.3804E-02   2.0532E-03  0.0276
   5.3804E-02   5.5113E-02   2.0472E-03  0.0273
   5.5113E-02   5.6454E-02   1.9986E-03  0.0273
   5.6454E-02   5.7828E-02   1.8987E-03  0.0277
   5.7828E-02   5.9235E-02   1.9723E-03  0.0269
   5.9235E-02   6.0676E-02   1.9317E-03  0.0268
   6.0676E-02   6.2152E-02   1.9684E-03  0.0262
   6.2152E-02   6.3665E-02   1.9931E-03  0.0258
   6.3665E-02   6.5214E-02   1.8993E-03  0.0261
   6.5214E-02   6.6800E-02   1.8907E-03  0.0258
   6.6800E-02   6.8426E-02   1.8372E-03  0.0259
   6.8426E-02   7.0090E-02   1.8789E-03  0.0253
   7.0090E-02   7.1796E-02   1.8518E-03  0.0252
   7.1796E-02   7.3543E-02   1.8330E-03  0.0250
   7.3543E-02   7.5332E-02   1.8420E-03  0.0246
   7.5332E-02   7.7165E-02   1.7961E-03  0.0246
   7.7165E-02   7.9042E-02   1.8163E-03  0.0242
   7.9042E-02   8.0965E-02   1.8158E-03  0.0239
   8.0965E-02   8.2935E-02   1.8234E-03  0.0236
   8.2935E-02   8.4953E-02   1.7196E-03  0.0240
   8.4953E-02   8.7020E-02   1.7175E-03  0.0237
   8.7020E-02   8.9138E-02   1.7164E-03  0.0235
   8.9138E-02   9.1306E-02   1.7586E-03  0.0229
   9.1306E-02   9.3528E-02   1.7627E-03  0.0226
   9.3528E-02   9.5804E-02   1.6910E-03  0.0228
   9.5804E-02   9.8134E-02   1.6954E-03  0.0225
   9.8134E-02   1.0052E-01   1.6610E-03  0.0225
   1.0052E-01   1.0297E-01   1.6988E-03  0.0219
   1.0297E-01   1.0547E-01   1.6761E-03  0.0218
   1.0547E-01   1.0804E-01   1.7076E-03  0.0214
   1.0804E-01   1.1067E-01   1.7225E-03  0.0210
   1.1067E-01   1.1336E-01   1.6430E-03  0.0213
   1.1336E-01   1.1612E-01   1.7026E-03  0.0206
   1.1612E-01   1.1894E-01   1.6898E-03  0.0205
   1.1894E-01   1.2184E-01   1.6676E-03  0.0204
   1.2184E-01   1.2480E-01   1.6708E-03  0.0201
   1.2480E-01   1.2784E-01   1.6163E-03  0.0202
   1.2784E-01   1.3095E-01   1.6014E-03  0.0200
   1.3095E-01   1.3414E-01   1.5718E-03  0.0200
   1.3414E-01   1.3740E-01   1.6233E-03  0.0194
   1.3740E-01   1.4074E-01   1.5680E-03  0.0195
   1.4074E-01   1.4417E-01   1.6161E-03  0.0190
   1.4417E-01   1.4767E-01   1.5708E-03  0.0191
   1.4767E-01   1.5127E-01   1.5664E-03  0.0189
   1.5127E-01   1.5495E-01   1.5471E-03  0.0187
   1.5495E-01   1.5872E-01   1.5050E-03  0.0188
   1.5872E-01   1.6258E-01   1.6052E-03  0.0180
   1.6258E-01   1.6654E-01   1.5057E-03  0.0183
   1.6654E-01   1.7059E-01   1.5553E-03  0.0178
   1.7059E-01   1.7474E-01   1.5439E-03  0.0177
   1.7474E-01   1.7899E-01   1.5293E-03  0.0176
   1.7899E-01   1.8334E-01   1.4547E-03  0.0178
   1.8334E-01   1.8781E-01   1.5033E-03  0.0173
   1.8781E-01   1.9237E-01   1.5052E-03  0.0171
   1.9237E-01   1.9706E-01   1.5177E-03  0.0168
   1.9706E-01   2.0185E-01   1.4938E-03  0.0167
   2.0185E-01   2.0676E-01   1.4632E-03  0.0167
   2.0676E-01   2.1179E-01   1.4654E-03  0.0165
   2.1179E-01   2.1694E-01   1.4450E-03  0.0164
   2.1694E-01   2.2222E-01   1.4770E-03  0.0160
   2.2222E-01   2.2763E-01   1.4382E-03  0.0160
   2.2763E-01   2.3317E-01   1.3856E-03  0.0161
   2.3317E-01   2.3884E-01   1.4641E-03  0.0155
   2.3884E-01   2.4465E-01   1.4166E-03  0.0156
   2.4465E-01   2.5061E-01   1.3896E-03  0.0156
   2.5061E-01   2.5670E-01   1.3786E-03  0.0154
   2.5670E-01   2.6295E-01   1.3404E-03  0.0155
   2.6295E-01   2.6935E-01   1.3717E-03  0.0151
   2.6935E-01   2.7590E-01   1.3559E-03  0.0150
   2.7590E-01   2.8261E-01   1.3794E-03  0.0147
   2.8261E-01   2.8949E-01   1.3763E-03  0.0145
   2.8949E-01   2.9653E-01   1.3607E-03  0.0144
   2.9653E-01   3.0375E-01   1.3611E-03  0.0143
   3.0375E-01   3.1114E-01   1.3693E-03  0.0141
   3.1114E-01   3.1871E-01   1.3001E-03  0.0143
   3.1871E-01   3.2646E-01   1.2958E-03  0.0141
   3.2646E-01   3.3441E-01   1.3028E-03  0.0139
   3.3441E-01   3.4254E-01   1.2679E-03  0.0139
   3.4254E-01   3.5088E-01   1.2999E-03  0.0136
   3.5088E-01   3.5941E-01   1.2646E-03  0.0136
   3.5941E-01   3.6816E-01   1.2604E-03  0.0135
   3.6816E-01   3.7712E-01   1.2492E-03  0.0134
   3.7712E-01   3.8629E-01   1.2165E-03  0.0134
   3.8629E-01   3.9569E-01   1.2016E-03  0.0133
   3.9569E-01   4.0532E-01   1.2186E-03  0.0131
   4.0532E-01   4.1518E-01   1.1866E-03  0.0131
   4.1518E-01   4.2528E-01   1.1998E-03  0.0129
   4.2528E-01   4.3563E-01   1.1630E-03  0.0129
   4.3563E-01   4.4623E-01   1.1508E-03  0.0128
   4.4623E-01   4.5708E-01   1.1556E-03  0.0126
   4.5708E-01   4.6821E-01   1.1189E-03  0.0127
   4.6821E-01   4.7960E-01   1.1431E-03  0.0124
   4.7960E-01   4.9127E-01   1.1103E-03  0.0124
   4.9127E-01   5.0322E-01   1.0839E-03  0.0124
   5.0322E-01   5.1546E-01   1.0690E-03  0.0124
   5.1546E-01   5.2800E-01   1.0525E-03  0.0123
   5.2800E-01   5.4085E-01   1.0454E-03  0.0122
   5.4085E-01   5.5401E-01   1.0464E-03  0.0121
   5.5401E-01   5.6749E-01   1.0051E-03  0.0122
   5.6749E-01   5.8130E-01   9.7759E-04  0.0122
   5.8130E-01   5.9544E-01   1.0034E-03  0.0119
   5.9544E-01   6.0993E-01   9.7145E-04  0.0119
   6.0993E-01   6.2477E-01   9.4016E-04  0.0120
   6.2477E-01   6.3997E-01   9.3243E-04  0.0119
   6.3997E-01   6.5554E-01   9.0810E-04  0.0119
   6.5554E-01   6.7149E-01   9.0070E-04  0.0118
   6.7149E-01   6.8783E-01   8.5629E-04  0.0120
   6.8783E-01   7.0456E-01   8.4097E-04  0.0119
   7.0456E-01   7.2171E-01   8.3663E-04  0.0118
   7.2171E-01   7.3927E-01   8.1790E-04  0.0118
   7.3927E-01   7.5725E-01   7.9358E-04  0.0118
   7.5725E-01   7.7568E-01   7.6810E-04  0.0119
   7.7568E-01   7.9455E-01   7.4742E-04  0.0119
   7.9455E-01   8.1388E-01   7.3360E-04  0.0119
   8.1388E-01   8.3368E-01   7.0911E-04  0.0119
   8.3368E-01   8.5397E-01   6.7767E-04  0.0121
   8.5397E-01   8.7475E-01   6.4627E-04  0.0122
   8.7475E-01   8.9603E-01   6.2631E-04  0.0123
   8.9603E-01   9.1783E-01   5.9511E-04  0.0124
   9.1783E-01   9.4016E-01   5.8500E-04  0.0124
   9.4016E-01   9.6304E-01   5.4461E-04  0.0127
   9.6304E-01   9.8647E-01   5.3825E-04  0.0126
   9.8647E-01   1.0105E+00   5.0755E-04  0.0128
   1.0105E+00   1.0351E+00   4.8882E-04  0.0129
   1.0351E+00   1.0602E+00   5.0580E-04  0.0125
   1.0602E+00   1.0860E+00   4.7875E-04  0.0127
   1.0860E+00   1.1125E+00   4.8229E-04  0.0125
   1.1125E+00   1.1395E+00   4.9100E-04  0.0123
   1.1395E+00   1.1673E+00   4.9124E-04  0.0121
   1.1673E+00   1.1957E+00   4.9095E-04  0.0120
   1.1957E+00   1.2247E+00   5.0359E-04  0.0117
   1.2247E+00   1.2545E+00   4.9297E-04  0.0117
   1.2545E+00   1.2851E+00   4.8480E-04  0.0116
   1.2851E+00   1.3163E+00   4.7648E-04  0.0116
   1.3163E+00   1.3484E+00   4.7590E-04  0.0115
   1.3484E+00   1.3812E+00   4.8917E-04  0.0112
   1.3812E+00   1.4148E+00   4.9189E-04  0.0110
   1.4148E+00   1.4492E+00   4.7469E-04  0.0111
   1.4492E+00   1.4845E+00   4.6069E-04  0.0111
   1.4845E+00   1.5206E+00   4.5905E-04  0.0110
   1.5206E+00   1.5576E+00   4.3815E-04  0.0111
   1.5576E+00   1.5955E+00   4.3170E-04  0.0111
   1.5955E+00   1.6343E+00   4.2819E-04  0.0110
   1.6343E+00   1.6741E+00   4.1561E-04  0.0110
   1.6741E+00   1.7148E+00   4.2356E-04  0.0108
   1.7148E+00   1.7565E+00   4.1321E-04  0.0108
   1.7565E+00   1.7992E+00   3.9596E-04  0.0109
   1.7992E+00   1.8430E+00   3.9240E-04  0.0108
   1.8430E+00   1.8879E+00   3.8511E-04  0.0108
   1.8879E+00   1.9338E+00   3.7389E-04  0.0108
   1.9338E+00   1.9808E+00   3.6637E-04  0.0108
   1.9808E+00   2.0290E+00   3.5684E-04  0.0108
   2.0290E+00   2.0784E+00   3.4342E-04  0.0109
   2.0784E+00   2.1290E+00   3.3257E-04  0.0109
   2.1290E+00   2.1808E+00   3.2554E-04  0.0109
   2.1808E+00   2.2338E+00   3.0716E-04  0.0111
   2.2338E+00   2.2882E+00   2.9942E-04  0.0111
   2.2882E+00   2.3439E+00   2.9574E-04  0.0110
   2.3439E+00   2.4009E+00   2.7814E-04  0.0112
   2.4009E+00   2.4593E+00   2.7874E-04  0.0111
   2.4593E+00   2.5191E+00   2.5997E-04  0.0114
   2.5191E+00   2.5804E+00   2.5331E-04  0.0114
   2.5804E+00   2.6432E+00   2.4701E-04  0.0114
   2.6432E+00   2.7075E+00   2.3041E-04  0.0116
   2.7075E+00   2.7734E+00   2.2415E-04  0.0117
   2.7734E+00   2.8409E+00   2.1633E-04  0.0117
   2.8409E+00   2.9100E+00   2.0876E-04  0.0118
   2.9100E+00   2.9808E+00   1.9881E-04  0.0119
   2.9808E+00   3.0533E+00   1.9406E-04  0.0119
   3.0533E+00   3.1276E+00   1.8325E-04  0.0121
   3.1276E+00   3.2037E+00   1.7220E-04  0.0124
   3.2037E+00   3.2817E+00   1.6910E-04  0.0123
   3.2817E+00   3.3615E+00   1.5537E-04  0.0127
   3.3615E+00   3.4433E+00   1.5095E-04  0.0127
   3.4433E+00   3.5271E+00   1.4242E-04  0.0130
   3.5271E+00   3.6129E+00   1.3855E-04  0.0130
   3.6129E+00   3.7008E+00   1.3180E-04  0.0132
   3.7008E+00   3.7908E+00   1.2354E-04  0.0134
   3.7908E+00   3.8831E+00   1.1757E-04  0.0136
   3.8831E+00   3.9776E+00   1.1601E-04  0.0135
   3.9776E+00   4.0743E+00   1.0670E-04  0.0139
   4.0743E+00   4.1735E+00   1.0211E-04  0.0141
   4.1735E+00   4.2750E+00   9.6313E-05  0.0143
   4.2750E+00   4.3790E+00   9.3372E-05  0.0144
   4.3790E+00   4.4856E+00   8.8563E-05  0.0146
   4.4856E+00   4.5947E+00   8.0596E-05  0.0151
   4.5947E+00   4.7065E+00   7.9075E-05  0.0150
   4.7065E+00   4.8210E+00   7.5205E-05  0.0152
   4.8210E+00   4.9383E+00   7.1748E-05  0.0154
   4.9383E+00   5.0585E+00   6.7830E-05  0.0157
   5.0585E+00   5.1815E+00   6.3473E-05  0.0160
   5.1815E+00   5.3076E+00   6.0363E-05  0.0162
   5.3076E+00   5.4368E+00   5.8248E-05  0.0163
   5.4368E+00   5.5690E+00   5.4377E-05  0.0167
   5.5690E+00   5.7045E+00   5.3093E-05  0.0167
   5.7045E+00   5.8433E+00   4.8604E-05  0.0172
   5.8433E+00   5.9855E+00   4.5367E-05  0.0176
   5.9855E+00   6.1311E+00   4.6885E-05  0.0171
   6.1311E+00   6.2803E+00   4.3050E-05  0.0176
   6.2803E+00   6.4331E+00   4.0699E-05  0.0179
   6.4331E+00   6.5896E+00   3.9394E-05  0.0180
   6.5896E+00   6.7500E+00   3.7080E-05  0.0183
   6.7500E+00   6.9142E+00   3.6862E-05  0.0182
   6.9142E+00   7.0824E+00   3.4768E-05  0.0185
   7.0824E+00   7.2548E+00   3.3838E-05  0.0185
   7.2548E+00   7.4313E+00   3.2009E-05  0.0188
   7.4313E+00   7.6121E+00   3.0264E-05  0.0191
   7.6121E+00   7.7973E+00   3.0134E-05  0.0189
   7.7973E+00   7.9870E+00   2.8295E-05  0.0193
   7.9870E+00   8.1813E+00   2.7880E-05  0.0192
   8.1813E+00   8.3804E+00   2.6535E-05  0.0195
   8.3804E+00   8.5843E+00   2.6204E-05  0.0194
   8.5843E+00   8.7931E+00   2.4226E-05  0.0199
   8.7931E+00   9.0071E+00   2.3716E-05  0.0198
   9.0071E+00   9.2262E+00   2.2368E-05  0.0202
   9.2262E+00   9.4507E+00   2.2064E-05  0.0201
   9.4507E+00   9.6807E+00   2.1379E-05  0.0202
   9.6807E+00   9.9162E+00   2.0884E-05  0.0202
   9.9162E+00   1.0157E+01   1.9870E-05  0.0204
   1.0157E+01   1.0405E+01   1.8573E-05  0.0208
   1.0405E+01   1.0658E+01   1.8092E-05  0.0209
   1.0658E+01   1.0917E+01   1.7431E-05  0.0210
   1.0917E+01   1.1183E+01   1.6742E-05  0.0212
   1.1183E+01   1.1455E+01   1.5914E-05  0.0215
   1.1455E+01   1.1733E+01   1.5622E-05  0.0214
   1.1733E+01   1.2019E+01   1.4813E-05  0.0217
   1.2019E+01   1.2311E+01   1.3996E-05  0.0221
   1.2311E+01   1.2611E+01   1.3581E-05  0.0221
   1.2611E+01   1.2918E+01   1.2619E-05  0.0227
   1.2918E+01   1.3232E+01   1.1667E-05  0.0233
   1.3232E+01   1.3554E+01   1.1235E-05  0.0235
   1.3554E+01   1.3884E+01   1.0504E-05  0.0240
   1.3884E+01   1.4222E+01   9.8371E-06  0.0245
   1.4222E+01   1.4568E+01   9.3375E-06  0.0249
   1.4568E+01   1.4922E+01   9.0424E-06  0.0250
   1.4922E+01   1.5285E+01   7.9930E-06  0.0262
   1.5285E+01   1.5657E+01   7.9080E-06  0.0260
   1.5657E+01   1.6038E+01   7.0456E-06  0.0273
   1.6038E+01   1.6428E+01   7.0269E-06  0.0270
   1.6428E+01   1.6828E+01   6.2395E-06  0.0283
   1.6828E+01   1.7237E+01   5.5686E-06  0.0296
   1.7237E+01   1.7657E+01   5.0620E-06  0.0307
   1.7657E+01   1.8086E+01   4.5693E-06  0.0319
   1.8086E+01   1.8526E+01   4.3676E-06  0.0322
   1.8526E+01   1.8977E+01   4.0376E-06  0.0331
   1.8977E+01   1.9439E+01   3.5064E-06  0.0351
   1.9439E+01   1.9912E+01   3.2286E-06  0.0362
   1.9912E+01   2.0396E+01   1.7338E-06  0.0488
   2.0396E+01   2.0893E+01   1.5677E-06  0.0507
   2.0893E+01   2.1401E+01   1.3259E-06  0.0545
   2.1401E+01   2.1922E+01   1.2867E-06  0.0546
   2.1922E+01   2.2455E+01   1.2637E-06  0.0545
   2.2455E+01   2.3001E+01   1.0250E-06  0.0598
   2.3001E+01   2.3561E+01   9.1487E-07  0.0625
   2.3561E+01   2.4134E+01   7.9894E-07  0.0661
   2.4134E+01   2.4721E+01   7.8337E-07  0.0659
   2.4721E+01   2.5323E+01   7.0159E-07  0.0688
   2.5323E+01   2.5939E+01   5.7780E-07  0.0750
   2.5939E+01   2.6570E+01   5.4190E-07  0.0765
   2.6570E+01   2.7217E+01   4.6715E-07  0.0814
   2.7217E+01   2.7879E+01   4.2585E-07  0.0842
   2.7879E+01   2.8557E+01   4.0394E-07  0.0854
   2.8557E+01   2.9252E+01   2.9360E-07  0.0990
   2.9252E+01   2.9964E+01   2.8101E-07  0.1000
   2.9964E+01   3.0693E+01   2.0575E-07  0.1155
   3.0693E+01   3.1440E+01   1.9551E-07  0.1170
   3.1440E+01   3.2205E+01   1.5164E-07  0.1313
   3.2205E+01   3.2988E+01   1.6080E-07  0.1260
   3.2988E+01   3.3791E+01   1.0466E-07  0.1543
   3.3791E+01   3.4613E+01   9.2440E-08  0.1622
   3.4613E+01   3.5455E+01   5.2247E-08  0.2132
   3.5455E+01   3.6318E+01   7.8827E-08  0.1715
   3.6318E+01   3.7201E+01   3.1687E-08  0.2673
   3.7201E+01   3.8106E+01   3.0935E-08  0.2673
   3.8106E+01   3.9034E+01   8.6285E-09  0.5000
   3.9034E+01   3.9983E+01   6.3177E-09  0.5774
   3.9983E+01   4.0956E+01   4.1117E-09  0.7071
   4.0956E+01   4.1953E+01   1.0035E-08  0.4472
   4.1953E+01   4.2973E+01   1.9594E-09  1.0000
   4.2973E+01   4.4019E+01   1.9128E-09  1.0000
   4.4019E+01   4.5090E+01   0.0000E+00  0.0000
   4.5090E+01   4.6187E+01   0.0000E+00  0.0000
   4.6187E+01   4.7311E+01   0.0000E+00  0.0000
   4.7311E+01   4.8462E+01   0.0000E+00  0.0000
   4.8462E+01   4.9641E+01   0.0000E+00  0.0000
   4.9641E+01   5.0849E+01   0.0000E+00  0.0000
   5.0849E+01   5.2086E+01   0.0000E+00  0.0000
   5.2086E+01   5.3353E+01   0.0000E+00  0.0000
   5.3353E+01   5.4651E+01   0.0000E+00  0.0000
   5.4651E+01   5.5981E+01   0.0000E+00  0.0000
   5.5981E+01   5.7343E+01   0.0000E+00  0.0000
   5.7343E+01   5.8738E+01   0.0000E+00  0.0000
   5.8738E+01   6.0168E+01   0.0000E+00  0.0000
   6.0168E+01   6.1632E+01   0.0000E+00  0.0000
   6.1632E+01   6.3131E+01   0.0000E+00  0.0000
   6.3131E+01   6.4667E+01   0.0000E+00  0.0000
   6.4667E+01   6.6240E+01   0.0000E+00  0.0000
   6.6240E+01   6.7852E+01   0.0000E+00  0.0000
   6.7852E+01   6.9503E+01   0.0000E+00  0.0000
   6.9503E+01   7.1194E+01   0.0000E+00  0.0000
   7.1194E+01   7.2926E+01   0.0000E+00  0.0000
   7.2926E+01   7.4701E+01   0.0000E+00  0.0000
   7.4701E+01   7.6518E+01   0.0000E+00  0.0000
   7.6518E+01   7.8380E+01   0.0000E+00  0.0000
   7.8380E+01   8.0287E+01   0.0000E+00  0.0000
   8.0287E+01   8.2240E+01   0.0000E+00  0.0000
   8.2240E+01   8.4241E+01   0.0000E+00  0.0000
   8.4241E+01   8.6291E+01   0.0000E+00  0.0000
   8.6291E+01   8.8391E+01   0.0000E+00  0.0000
   8.8391E+01   9.0541E+01   0.0000E+00  0.0000
   9.0541E+01   9.2744E+01   0.0000E+00  0.0000
   9.2744E+01   9.5001E+01   0.0000E+00  0.0000
   9.5001E+01   9.7312E+01   0.0000E+00  0.0000
   9.7312E+01   9.9680E+01   0.0000E+00  0.0000
   9.9680E+01   1.0211E+02   0.0000E+00  0.0000
   1.0211E+02   1.0459E+02   0.0000E+00  0.0000
   1.0459E+02   1.0713E+02   0.0000E+00  0.0000
   1.0713E+02   1.0974E+02   0.0000E+00  0.0000
   1.0974E+02   1.1241E+02   0.0000E+00  0.0000
   1.1241E+02   1.1515E+02   0.0000E+00  0.0000
   1.1515E+02   1.1795E+02   0.0000E+00  0.0000
   1.1795E+02   1.2082E+02   0.0000E+00  0.0000
   1.2082E+02   1.2376E+02   0.0000E+00  0.0000
   1.2376E+02   1.2677E+02   0.0000E+00  0.0000
   1.2677E+02   1.2985E+02   0.0000E+00  0.0000
   1.2985E+02   1.3301E+02   0.0000E+00  0.0000
   1.3301E+02   1.3625E+02   0.0000E+00  0.0000
   1.3625E+02   1.3956E+02   0.0000E+00  0.0000
   1.3956E+02   1.4296E+02   0.0000E+00  0.0000
   1.4296E+02   1.4644E+02   0.0000E+00  0.0000
   1.4644E+02   1.5000E+02   0.0000E+00  0.0000

#   sum over                 1.5667E-05
'no. =    1   reg = 115 - 215'
msuc: {\huge [t-cross] in region mesh}
msdr: {\it plotted by \ANGEL \version}
msdl: {\it calculated by \PHITS  3.26}
wt: s(0.7)
\vspace{-3}
  region surface crossing
  area  &=&   1.0000E+00 [cm^2]
e:
 
# Information for Restart Calculation
# This calculation was newly started
# istdev =  2 # 1:Batch variance, 2:History variance
# resc2  = 5.00000000000000000E+08 # Total source weight or Total source weight / maxcas
# resc3  = 5.00000000000000000E+08 # Total history number or Total batch number
# maxcas =   500000000 # History / Batch, only used for istdev=1
# bitrseed = 1101101111010011011000101101110001100110110010110001010100010001 # bit data of rseed
