[ T-Cross ]
    title = [t-cross] in region mesh
     mesh =  reg            # mesh type is region-wise
      reg =    1            # number of crossing regions
      non     r-from    r-to       area
      1       121       221        1.000000    
   e-type =    3            # e-mesh is log given by emin, emax and ne
     emin =  1.0000000E-02  # minimum value of e-mesh points
     emax =   150.0000      # maximum value of e-mesh points
#    edel =  2.4039514E-02  # mesh width of e-mesh points
       ne =    400          # number of e-mesh points
#    data = ( e(i), i = 1, ne + 1 )
#           1.00000E-02  1.02433E-02  1.04925E-02  1.07478E-02  1.10093E-02
#           1.12772E-02  1.15516E-02  1.18326E-02  1.21205E-02  1.24154E-02
#           1.27175E-02  1.30269E-02  1.33439E-02  1.36686E-02  1.40011E-02
#           1.43418E-02  1.46907E-02  1.50482E-02  1.54143E-02  1.57894E-02
#           1.61735E-02  1.65670E-02  1.69701E-02  1.73830E-02  1.78060E-02
#           1.82392E-02  1.86830E-02  1.91375E-02  1.96032E-02  2.00801E-02
#           2.05687E-02  2.10692E-02  2.15818E-02  2.21069E-02  2.26448E-02
#           2.31957E-02  2.37601E-02  2.43382E-02  2.49304E-02  2.55369E-02
#           2.61583E-02  2.67947E-02  2.74467E-02  2.81145E-02  2.87985E-02
#           2.94992E-02  3.02169E-02  3.09521E-02  3.17052E-02  3.24766E-02
#           3.32668E-02  3.40762E-02  3.49053E-02  3.57546E-02  3.66246E-02
#           3.75157E-02  3.84284E-02  3.93634E-02  4.03212E-02  4.13022E-02
#           4.23071E-02  4.33365E-02  4.43909E-02  4.54710E-02  4.65773E-02
#           4.77106E-02  4.88714E-02  5.00605E-02  5.12785E-02  5.25262E-02
#           5.38042E-02  5.51133E-02  5.64542E-02  5.78278E-02  5.92348E-02
#           6.06760E-02  6.21523E-02  6.36645E-02  6.52135E-02  6.68002E-02
#           6.84255E-02  7.00904E-02  7.17957E-02  7.35426E-02  7.53319E-02
#           7.71648E-02  7.90423E-02  8.09655E-02  8.29354E-02  8.49533E-02
#           8.70203E-02  8.91376E-02  9.13064E-02  9.35279E-02  9.58035E-02
#           9.81345E-02  1.00522E-01  1.02968E-01  1.05473E-01  1.08040E-01
#           1.10668E-01  1.13361E-01  1.16119E-01  1.18944E-01  1.21838E-01
#           1.24803E-01  1.27839E-01  1.30950E-01  1.34136E-01  1.37399E-01
#           1.40742E-01  1.44167E-01  1.47675E-01  1.51268E-01  1.54948E-01
#           1.58718E-01  1.62580E-01  1.66535E-01  1.70587E-01  1.74738E-01
#           1.78989E-01  1.83344E-01  1.87805E-01  1.92375E-01  1.97055E-01
#           2.01850E-01  2.06761E-01  2.11792E-01  2.16945E-01  2.22223E-01
#           2.27630E-01  2.33169E-01  2.38842E-01  2.44653E-01  2.50605E-01
#           2.56703E-01  2.62949E-01  2.69346E-01  2.75900E-01  2.82613E-01
#           2.89489E-01  2.96532E-01  3.03747E-01  3.11138E-01  3.18708E-01
#           3.26462E-01  3.34405E-01  3.42542E-01  3.50876E-01  3.59413E-01
#           3.68158E-01  3.77116E-01  3.86291E-01  3.95690E-01  4.05317E-01
#           4.15179E-01  4.25281E-01  4.35628E-01  4.46227E-01  4.57084E-01
#           4.68205E-01  4.79597E-01  4.91266E-01  5.03219E-01  5.15463E-01
#           5.28005E-01  5.40851E-01  5.54011E-01  5.67490E-01  5.81298E-01
#           5.95441E-01  6.09929E-01  6.24769E-01  6.39970E-01  6.55541E-01
#           6.71491E-01  6.87828E-01  7.04564E-01  7.21706E-01  7.39266E-01
#           7.57253E-01  7.75678E-01  7.94551E-01  8.13883E-01  8.33685E-01
#           8.53969E-01  8.74747E-01  8.96030E-01  9.17831E-01  9.40163E-01
#           9.63038E-01  9.86469E-01  1.01047E+00  1.03506E+00  1.06024E+00
#           1.08604E+00  1.11246E+00  1.13953E+00  1.16725E+00  1.19565E+00
#           1.22474E+00  1.25454E+00  1.28507E+00  1.31633E+00  1.34836E+00
#           1.38117E+00  1.41477E+00  1.44920E+00  1.48446E+00  1.52057E+00
#           1.55757E+00  1.59547E+00  1.63429E+00  1.67405E+00  1.71478E+00
#           1.75650E+00  1.79924E+00  1.84302E+00  1.88786E+00  1.93379E+00
#           1.98084E+00  2.02904E+00  2.07841E+00  2.12898E+00  2.18078E+00
#           2.23384E+00  2.28819E+00  2.34386E+00  2.40089E+00  2.45930E+00
#           2.51914E+00  2.58043E+00  2.64322E+00  2.70753E+00  2.77341E+00
#           2.84088E+00  2.91001E+00  2.98081E+00  3.05333E+00  3.12762E+00
#           3.20372E+00  3.28167E+00  3.36152E+00  3.44330E+00  3.52708E+00
#           3.61290E+00  3.70080E+00  3.79085E+00  3.88308E+00  3.97756E+00
#           4.07434E+00  4.17347E+00  4.27501E+00  4.37903E+00  4.48557E+00
#           4.59471E+00  4.70650E+00  4.82102E+00  4.93832E+00  5.05847E+00
#           5.18155E+00  5.30762E+00  5.43676E+00  5.56904E+00  5.70453E+00
#           5.84333E+00  5.98550E+00  6.13114E+00  6.28031E+00  6.43312E+00
#           6.58964E+00  6.74997E+00  6.91420E+00  7.08243E+00  7.25475E+00
#           7.43126E+00  7.61207E+00  7.79728E+00  7.98700E+00  8.18133E+00
#           8.38038E+00  8.58428E+00  8.79315E+00  9.00709E+00  9.22624E+00
#           9.45072E+00  9.68067E+00  9.91620E+00  1.01575E+01  1.04046E+01
#           1.06578E+01  1.09171E+01  1.11827E+01  1.14548E+01  1.17335E+01
#           1.20190E+01  1.23114E+01  1.26109E+01  1.29178E+01  1.32321E+01
#           1.35540E+01  1.38838E+01  1.42216E+01  1.45676E+01  1.49221E+01
#           1.52851E+01  1.56570E+01  1.60380E+01  1.64282E+01  1.68279E+01
#           1.72374E+01  1.76568E+01  1.80864E+01  1.85264E+01  1.89772E+01
#           1.94389E+01  1.99119E+01  2.03963E+01  2.08926E+01  2.14009E+01
#           2.19216E+01  2.24550E+01  2.30014E+01  2.35610E+01  2.41343E+01
#           2.47215E+01  2.53230E+01  2.59391E+01  2.65702E+01  2.72167E+01
#           2.78789E+01  2.85572E+01  2.92520E+01  2.99637E+01  3.06928E+01
#           3.14396E+01  3.22045E+01  3.29881E+01  3.37907E+01  3.46128E+01
#           3.54550E+01  3.63177E+01  3.72013E+01  3.81064E+01  3.90336E+01
#           3.99833E+01  4.09561E+01  4.19526E+01  4.29734E+01  4.40189E+01
#           4.50900E+01  4.61870E+01  4.73108E+01  4.84619E+01  4.96410E+01
#           5.08488E+01  5.20860E+01  5.33533E+01  5.46514E+01  5.59812E+01
#           5.73432E+01  5.87384E+01  6.01676E+01  6.16315E+01  6.31311E+01
#           6.46671E+01  6.62405E+01  6.78522E+01  6.95031E+01  7.11941E+01
#           7.29263E+01  7.47007E+01  7.65182E+01  7.83800E+01  8.02870E+01
#           8.22405E+01  8.42414E+01  8.62911E+01  8.83906E+01  9.05412E+01
#           9.27442E+01  9.50007E+01  9.73122E+01  9.96799E+01  1.02105E+02
#           1.04589E+02  1.07134E+02  1.09741E+02  1.12411E+02  1.15146E+02
#           1.17948E+02  1.20817E+02  1.23757E+02  1.26768E+02  1.29852E+02
#           1.33012E+02  1.36248E+02  1.39563E+02  1.42959E+02  1.46437E+02
#           1.50000E+02
     unit =    2            # unit is [1/cm^2/(MeV/n)/source]
     axis =  eng            # axis of output
     file = detector-22.out  # file name of output for the above axis
   output = f-curr          # surface crossing forward current spectrum
     part =  neutron  
# kf/name :  2112     
#    used :        main (  %)        temp (  %)       total (  %)
#  memory :         414 (  0)           0 (  0)         414 (  0)

#------------------------------------------------------------------------------
#newpage:
#   no. =    1   reg = 121 - 221

x: Energy [MeV/n]
y:  F-Curr [1/cm^2/(MeV/n)/source]         
p: xlog ylog afac(0.8) form(0.9)
h: n            x            y(neutron ),hh0l   n 
#  e-lower      e-upper      neutron     r.err 
   1.0000E-02   1.0243E-02   2.3756E-03  0.0588
   1.0243E-02   1.0493E-02   2.2148E-03  0.0602
   1.0493E-02   1.0748E-02   2.5618E-03  0.0553
   1.0748E-02   1.1009E-02   2.2409E-03  0.0584
   1.1009E-02   1.1277E-02   2.2250E-03  0.0579
   1.1277E-02   1.1552E-02   2.5439E-03  0.0535
   1.1552E-02   1.1833E-02   2.2913E-03  0.0557
   1.1833E-02   1.2121E-02   2.1327E-03  0.0571
   1.2121E-02   1.2415E-02   2.3669E-03  0.0535
   1.2415E-02   1.2718E-02   2.0657E-03  0.0566
   1.2718E-02   1.3027E-02   2.3333E-03  0.0526
   1.3027E-02   1.3344E-02   2.2401E-03  0.0531
   1.3344E-02   1.3669E-02   2.1129E-03  0.0540
   1.3669E-02   1.4001E-02   2.1469E-03  0.0529
   1.4001E-02   1.4342E-02   2.2838E-03  0.0507
   1.4342E-02   1.4691E-02   1.9888E-03  0.0537
   1.4691E-02   1.5048E-02   2.0759E-03  0.0519
   1.5048E-02   1.5414E-02   2.1358E-03  0.0506
   1.5414E-02   1.5789E-02   1.9224E-03  0.0526
   1.5789E-02   1.6174E-02   1.9575E-03  0.0516
   1.6174E-02   1.6567E-02   1.9135E-03  0.0515
   1.6567E-02   1.6970E-02   1.9053E-03  0.0510
   1.6970E-02   1.7383E-02   1.9278E-03  0.0501
   1.7383E-02   1.7806E-02   1.7827E-03  0.0515
   1.7806E-02   1.8239E-02   1.8050E-03  0.0506
   1.8239E-02   1.8683E-02   1.6720E-03  0.0519
   1.8683E-02   1.9138E-02   1.7731E-03  0.0498
   1.9138E-02   1.9603E-02   1.8341E-03  0.0484
   1.9603E-02   2.0080E-02   1.5892E-03  0.0514
   2.0080E-02   2.0569E-02   1.7029E-03  0.0490
   2.0569E-02   2.1069E-02   1.6585E-03  0.0491
   2.1069E-02   2.1582E-02   1.7713E-03  0.0469
   2.1582E-02   2.2107E-02   1.7787E-03  0.0463
   2.2107E-02   2.2645E-02   1.7253E-03  0.0464
   2.2645E-02   2.3196E-02   1.5645E-03  0.0482
   2.3196E-02   2.3760E-02   1.7116E-03  0.0455
   2.3760E-02   2.4338E-02   1.6433E-03  0.0459
   2.4338E-02   2.4930E-02   1.5469E-03  0.0467
   2.4930E-02   2.5537E-02   1.5596E-03  0.0460
   2.5537E-02   2.6158E-02   1.4517E-03  0.0471
   2.6158E-02   2.6795E-02   1.5366E-03  0.0452
   2.6795E-02   2.7447E-02   1.4419E-03  0.0461
   2.7447E-02   2.8114E-02   1.4585E-03  0.0454
   2.8114E-02   2.8799E-02   1.6022E-03  0.0427
   2.8799E-02   2.9499E-02   1.4842E-03  0.0439
   2.9499E-02   3.0217E-02   1.5772E-03  0.0420
   3.0217E-02   3.0952E-02   1.3738E-03  0.0445
   3.0952E-02   3.1705E-02   1.3969E-03  0.0436
   3.1705E-02   3.2477E-02   1.3767E-03  0.0434
   3.2477E-02   3.3267E-02   1.5414E-03  0.0405
   3.3267E-02   3.4076E-02   1.4356E-03  0.0415
   3.4076E-02   3.4905E-02   1.4015E-03  0.0415
   3.4905E-02   3.5755E-02   1.3682E-03  0.0415
   3.5755E-02   3.6625E-02   1.3449E-03  0.0413
   3.6625E-02   3.7516E-02   1.4117E-03  0.0399
   3.7516E-02   3.8428E-02   1.3388E-03  0.0405
   3.8428E-02   3.9363E-02   1.3583E-03  0.0397
   3.9363E-02   4.0321E-02   1.3302E-03  0.0396
   4.0321E-02   4.1302E-02   1.2925E-03  0.0397
   4.1302E-02   4.2307E-02   1.3275E-03  0.0387
   4.2307E-02   4.3337E-02   1.3931E-03  0.0373
   4.3337E-02   4.4391E-02   1.1760E-03  0.0402
   4.4391E-02   4.5471E-02   1.3295E-03  0.0373
   4.5471E-02   4.6577E-02   1.2437E-03  0.0381
   4.6577E-02   4.7711E-02   1.1701E-03  0.0388
   4.7711E-02   4.8871E-02   1.2784E-03  0.0368
   4.8871E-02   5.0061E-02   1.2278E-03  0.0370
   5.0061E-02   5.1279E-02   1.1855E-03  0.0372
   5.1279E-02   5.2526E-02   1.1910E-03  0.0367
   5.2526E-02   5.3804E-02   1.2817E-03  0.0349
   5.3804E-02   5.5113E-02   1.1367E-03  0.0367
   5.5113E-02   5.6454E-02   1.2156E-03  0.0350
   5.6454E-02   5.7828E-02   1.1838E-03  0.0351
   5.7828E-02   5.9235E-02   1.2068E-03  0.0343
   5.9235E-02   6.0676E-02   1.1116E-03  0.0353
   6.0676E-02   6.2152E-02   1.1922E-03  0.0337
   6.2152E-02   6.3665E-02   1.1308E-03  0.0342
   6.3665E-02   6.5214E-02   1.1775E-03  0.0331
   6.5214E-02   6.6800E-02   1.0891E-03  0.0340
   6.6800E-02   6.8426E-02   1.0656E-03  0.0340
   6.8426E-02   7.0090E-02   1.1124E-03  0.0329
   7.0090E-02   7.1796E-02   1.0672E-03  0.0331
   7.1796E-02   7.3543E-02   1.0819E-03  0.0325
   7.3543E-02   7.5332E-02   1.0987E-03  0.0319
   7.5332E-02   7.7165E-02   1.0868E-03  0.0317
   7.7165E-02   7.9042E-02   1.0013E-03  0.0326
   7.9042E-02   8.0965E-02   1.0478E-03  0.0315
   8.0965E-02   8.2935E-02   1.0335E-03  0.0313
   8.2935E-02   8.4953E-02   1.0367E-03  0.0309
   8.4953E-02   8.7020E-02   1.0266E-03  0.0307
   8.7020E-02   8.9138E-02   1.0306E-03  0.0303
   8.9138E-02   9.1306E-02   1.0467E-03  0.0297
   9.1306E-02   9.3528E-02   9.9930E-04  0.0300
   9.3528E-02   9.5804E-02   1.0459E-03  0.0290
   9.5804E-02   9.8134E-02   9.7384E-04  0.0297
   9.8134E-02   1.0052E-01   1.0294E-03  0.0285
   1.0052E-01   1.0297E-01   9.9845E-04  0.0286
   1.0297E-01   1.0547E-01   9.5558E-04  0.0289
   1.0547E-01   1.0804E-01   9.9601E-04  0.0280
   1.0804E-01   1.1067E-01   1.0043E-03  0.0275
   1.1067E-01   1.1336E-01   9.4628E-04  0.0280
   1.1336E-01   1.1612E-01   9.8798E-04  0.0271
   1.1612E-01   1.1894E-01   9.9884E-04  0.0266
   1.1894E-01   1.2184E-01   9.7719E-04  0.0266
   1.2184E-01   1.2480E-01   9.6140E-04  0.0265
   1.2480E-01   1.2784E-01   9.5635E-04  0.0262
   1.2784E-01   1.3095E-01   9.0984E-04  0.0266
   1.3095E-01   1.3414E-01   9.6419E-04  0.0255
   1.3414E-01   1.3740E-01   9.7438E-04  0.0251
   1.3740E-01   1.4074E-01   9.2132E-04  0.0255
   1.4074E-01   1.4417E-01   9.1404E-04  0.0253
   1.4417E-01   1.4767E-01   9.0601E-04  0.0251
   1.4767E-01   1.5127E-01   9.1622E-04  0.0246
   1.5127E-01   1.5495E-01   8.7761E-04  0.0249
   1.5495E-01   1.5872E-01   9.1087E-04  0.0241
   1.5872E-01   1.6258E-01   9.0995E-04  0.0239
   1.6258E-01   1.6654E-01   9.2474E-04  0.0234
   1.6654E-01   1.7059E-01   9.0475E-04  0.0234
   1.7059E-01   1.7474E-01   8.7652E-04  0.0234
   1.7474E-01   1.7899E-01   8.7592E-04  0.0232
   1.7899E-01   1.8334E-01   8.8359E-04  0.0228
   1.8334E-01   1.8781E-01   8.9533E-04  0.0224
   1.8781E-01   1.9237E-01   8.7056E-04  0.0224
   1.9237E-01   1.9706E-01   8.4219E-04  0.0225
   1.9706E-01   2.0185E-01   8.5598E-04  0.0221
   2.0185E-01   2.0676E-01   8.5560E-04  0.0218
   2.0676E-01   2.1179E-01   8.4561E-04  0.0217
   2.1179E-01   2.1694E-01   8.6783E-04  0.0211
   2.1694E-01   2.2222E-01   8.2562E-04  0.0214
   2.2222E-01   2.2763E-01   8.4263E-04  0.0210
   2.2763E-01   2.3317E-01   8.2009E-04  0.0210
   2.3317E-01   2.3884E-01   8.3340E-04  0.0206
   2.3884E-01   2.4465E-01   8.2874E-04  0.0204
   2.4465E-01   2.5061E-01   8.3090E-04  0.0201
   2.5061E-01   2.5670E-01   8.0132E-04  0.0202
   2.5670E-01   2.6295E-01   8.1623E-04  0.0198
   2.6295E-01   2.6935E-01   8.1701E-04  0.0196
   2.6935E-01   2.7590E-01   8.1484E-04  0.0194
   2.7590E-01   2.8261E-01   7.9012E-04  0.0194
   2.8261E-01   2.8949E-01   7.8183E-04  0.0193
   2.8949E-01   2.9653E-01   7.8029E-04  0.0191
   2.9653E-01   3.0375E-01   7.7950E-04  0.0189
   3.0375E-01   3.1114E-01   7.7154E-04  0.0187
   3.1114E-01   3.1871E-01   7.5876E-04  0.0187
   3.1871E-01   3.2646E-01   7.7221E-04  0.0183
   3.2646E-01   3.3441E-01   7.4278E-04  0.0184
   3.3441E-01   3.4254E-01   7.4382E-04  0.0182
   3.4254E-01   3.5088E-01   7.5327E-04  0.0179
   3.5088E-01   3.5941E-01   7.4170E-04  0.0178
   3.5941E-01   3.6816E-01   7.3438E-04  0.0177
   3.6816E-01   3.7712E-01   7.3502E-04  0.0174
   3.7712E-01   3.8629E-01   6.8487E-04  0.0178
   3.8629E-01   3.9569E-01   7.1499E-04  0.0173
   3.9569E-01   4.0532E-01   6.9136E-04  0.0173
   4.0532E-01   4.1518E-01   6.9481E-04  0.0171
   4.1518E-01   4.2528E-01   6.7573E-04  0.0171
   4.2528E-01   4.3563E-01   6.7205E-04  0.0170
   4.3563E-01   4.4623E-01   6.7949E-04  0.0167
   4.4623E-01   4.5708E-01   6.4179E-04  0.0169
   4.5708E-01   4.6821E-01   6.6288E-04  0.0165
   4.6821E-01   4.7960E-01   6.3379E-04  0.0166
   4.7960E-01   4.9127E-01   6.1702E-04  0.0167
   4.9127E-01   5.0322E-01   6.3332E-04  0.0163
   5.0322E-01   5.1546E-01   6.0831E-04  0.0164
   5.1546E-01   5.2800E-01   6.0806E-04  0.0162
   5.2800E-01   5.4085E-01   5.9081E-04  0.0162
   5.4085E-01   5.5401E-01   5.9015E-04  0.0161
   5.5401E-01   5.6749E-01   5.8875E-04  0.0159
   5.6749E-01   5.8130E-01   5.6274E-04  0.0160
   5.8130E-01   5.9544E-01   5.4767E-04  0.0161
   5.9544E-01   6.0993E-01   5.4530E-04  0.0159
   6.0993E-01   6.2477E-01   5.3881E-04  0.0158
   6.2477E-01   6.3997E-01   5.1825E-04  0.0159
   6.3997E-01   6.5554E-01   5.1159E-04  0.0158
   6.5554E-01   6.7149E-01   5.0759E-04  0.0157
   6.7149E-01   6.8783E-01   5.0092E-04  0.0156
   6.8783E-01   7.0456E-01   4.9380E-04  0.0156
   7.0456E-01   7.2171E-01   4.6352E-04  0.0159
   7.2171E-01   7.3927E-01   4.5912E-04  0.0158
   7.3927E-01   7.5725E-01   4.3965E-04  0.0159
   7.5725E-01   7.7568E-01   4.1922E-04  0.0161
   7.7568E-01   7.9455E-01   4.1403E-04  0.0160
   7.9455E-01   8.1388E-01   4.0896E-04  0.0159
   8.1388E-01   8.3368E-01   4.0177E-04  0.0159
   8.3368E-01   8.5397E-01   3.8187E-04  0.0161
   8.5397E-01   8.7475E-01   3.6433E-04  0.0163
   8.7475E-01   8.9603E-01   3.4901E-04  0.0164
   8.9603E-01   9.1783E-01   3.4494E-04  0.0163
   9.1783E-01   9.4016E-01   3.2071E-04  0.0167
   9.4016E-01   9.6304E-01   3.0898E-04  0.0168
   9.6304E-01   9.8647E-01   2.9285E-04  0.0171
   9.8647E-01   1.0105E+00   2.8281E-04  0.0172
   1.0105E+00   1.0351E+00   2.7398E-04  0.0172
   1.0351E+00   1.0602E+00   2.7907E-04  0.0169
   1.0602E+00   1.0860E+00   2.7159E-04  0.0169
   1.0860E+00   1.1125E+00   2.6756E-04  0.0168
   1.1125E+00   1.1395E+00   2.6793E-04  0.0166
   1.1395E+00   1.1673E+00   2.7036E-04  0.0163
   1.1673E+00   1.1957E+00   2.7197E-04  0.0161
   1.1957E+00   1.2247E+00   2.6090E-04  0.0162
   1.2247E+00   1.2545E+00   2.6511E-04  0.0159
   1.2545E+00   1.2851E+00   2.6563E-04  0.0157
   1.2851E+00   1.3163E+00   2.5701E-04  0.0158
   1.3163E+00   1.3484E+00   2.5322E-04  0.0157
   1.3484E+00   1.3812E+00   2.5275E-04  0.0155
   1.3812E+00   1.4148E+00   2.5222E-04  0.0154
   1.4148E+00   1.4492E+00   2.4025E-04  0.0156
   1.4492E+00   1.4845E+00   2.4056E-04  0.0154
   1.4845E+00   1.5206E+00   2.2842E-04  0.0156
   1.5206E+00   1.5576E+00   2.2688E-04  0.0154
   1.5576E+00   1.5955E+00   2.2477E-04  0.0153
   1.5955E+00   1.6343E+00   2.1948E-04  0.0153
   1.6343E+00   1.6741E+00   2.1165E-04  0.0154
   1.6741E+00   1.7148E+00   2.1905E-04  0.0150
   1.7148E+00   1.7565E+00   2.0296E-04  0.0154
   1.7565E+00   1.7992E+00   2.0081E-04  0.0153
   1.7992E+00   1.8430E+00   1.9330E-04  0.0154
   1.8430E+00   1.8879E+00   1.7802E-04  0.0158
   1.8879E+00   1.9338E+00   1.8187E-04  0.0155
   1.9338E+00   1.9808E+00   1.7658E-04  0.0155
   1.9808E+00   2.0290E+00   1.6952E-04  0.0156
   2.0290E+00   2.0784E+00   1.5931E-04  0.0160
   2.0784E+00   2.1290E+00   1.5215E-04  0.0161
   2.1290E+00   2.1808E+00   1.4622E-04  0.0162
   2.1808E+00   2.2338E+00   1.3739E-04  0.0166
   2.2338E+00   2.2882E+00   1.3648E-04  0.0164
   2.2882E+00   2.3439E+00   1.2642E-04  0.0169
   2.3439E+00   2.4009E+00   1.2096E-04  0.0170
   2.4009E+00   2.4593E+00   1.1682E-04  0.0171
   2.4593E+00   2.5191E+00   1.1401E-04  0.0171
   2.5191E+00   2.5804E+00   1.0226E-04  0.0179
   2.5804E+00   2.6432E+00   9.5629E-05  0.0183
   2.6432E+00   2.7075E+00   9.0373E-05  0.0186
   2.7075E+00   2.7734E+00   8.5949E-05  0.0188
   2.7734E+00   2.8409E+00   8.1773E-05  0.0190
   2.8409E+00   2.9100E+00   7.6677E-05  0.0194
   2.9100E+00   2.9808E+00   7.4799E-05  0.0194
   2.9808E+00   3.0533E+00   6.9824E-05  0.0199
   3.0533E+00   3.1276E+00   6.4423E-05  0.0204
   3.1276E+00   3.2037E+00   5.9713E-05  0.0210
   3.2037E+00   3.2817E+00   5.6858E-05  0.0212
   3.2817E+00   3.3615E+00   5.3278E-05  0.0217
   3.3615E+00   3.4433E+00   4.8246E-05  0.0225
   3.4433E+00   3.5271E+00   4.3567E-05  0.0234
   3.5271E+00   3.6129E+00   4.1507E-05  0.0237
   3.6129E+00   3.7008E+00   4.0999E-05  0.0236
   3.7008E+00   3.7908E+00   3.6427E-05  0.0247
   3.7908E+00   3.8831E+00   3.1875E-05  0.0261
   3.8831E+00   3.9776E+00   3.0504E-05  0.0264
   3.9776E+00   4.0743E+00   2.7610E-05  0.0274
   4.0743E+00   4.1735E+00   2.4957E-05  0.0284
   4.1735E+00   4.2750E+00   2.4443E-05  0.0284
   4.2750E+00   4.3790E+00   2.1987E-05  0.0296
   4.3790E+00   4.4856E+00   2.0836E-05  0.0300
   4.4856E+00   4.5947E+00   1.7959E-05  0.0319
   4.5947E+00   4.7065E+00   1.7175E-05  0.0323
   4.7065E+00   4.8210E+00   1.5736E-05  0.0333
   4.8210E+00   4.9383E+00   1.4800E-05  0.0339
   4.9383E+00   5.0585E+00   1.3450E-05  0.0352
   5.0585E+00   5.1815E+00   1.2285E-05  0.0364
   5.1815E+00   5.3076E+00   1.1676E-05  0.0369
   5.3076E+00   5.4368E+00   1.0129E-05  0.0391
   5.4368E+00   5.5690E+00   8.9809E-06  0.0410
   5.5690E+00   5.7045E+00   9.0923E-06  0.0403
   5.7045E+00   5.8433E+00   7.6371E-06  0.0434
   5.8433E+00   5.9855E+00   7.1603E-06  0.0443
   5.9855E+00   6.1311E+00   6.4821E-06  0.0460
   6.1311E+00   6.2803E+00   5.7784E-06  0.0482
   6.2803E+00   6.4331E+00   5.7328E-06  0.0478
   6.4331E+00   6.5896E+00   5.0600E-06  0.0503
   6.5896E+00   6.7500E+00   4.6154E-06  0.0520
   6.7500E+00   6.9142E+00   4.0065E-06  0.0551
   6.9142E+00   7.0824E+00   3.6141E-06  0.0574
   7.0824E+00   7.2548E+00   3.1221E-06  0.0610
   7.2548E+00   7.4313E+00   2.7420E-06  0.0643
   7.4313E+00   7.6121E+00   2.7543E-06  0.0634
   7.6121E+00   7.7973E+00   2.4891E-06  0.0658
   7.7973E+00   7.9870E+00   2.0241E-06  0.0722
   7.9870E+00   8.1813E+00   2.0018E-06  0.0717
   8.1813E+00   8.3804E+00   2.0095E-06  0.0707
   8.3804E+00   8.5843E+00   1.6822E-06  0.0763
   8.5843E+00   8.7931E+00   1.3454E-06  0.0843
   8.7931E+00   9.0071E+00   1.3602E-06  0.0828
   9.0071E+00   9.2262E+00   1.0951E-06  0.0911
   9.2262E+00   9.4507E+00   1.1939E-06  0.0864
   9.4507E+00   9.6807E+00   9.9590E-07  0.0931
   9.6807E+00   9.9162E+00   8.6610E-07  0.0988
   9.9162E+00   1.0157E+01   6.1342E-07  0.1162
   1.0157E+01   1.0405E+01   7.0810E-07  0.1068
   1.0405E+01   1.0658E+01   6.1228E-07  0.1130
   1.0658E+01   1.0917E+01   5.6303E-07  0.1158
   1.0917E+01   1.1183E+01   5.2330E-07  0.1193
   1.1183E+01   1.1455E+01   3.5651E-07  0.1432
   1.1455E+01   1.1733E+01   4.5568E-07  0.1242
   1.1733E+01   1.2019E+01   3.8181E-07  0.1351
   1.2019E+01   1.2311E+01   3.1118E-07  0.1478
   1.2311E+01   1.2611E+01   3.4052E-07  0.1380
   1.2611E+01   1.2918E+01   2.4443E-07  0.1617
   1.2918E+01   1.3232E+01   2.2908E-07  0.1655
   1.3232E+01   1.3554E+01   2.1121E-07  0.1715
   1.3554E+01   1.3884E+01   1.4555E-07  0.2041
   1.3884E+01   1.4222E+01   1.4209E-07  0.2041
   1.4222E+01   1.4568E+01   1.2716E-07  0.2132
   1.4568E+01   1.4922E+01   1.5235E-07  0.1907
   1.4922E+01   1.5285E+01   1.2670E-07  0.2085
   1.5285E+01   1.5657E+01   8.3356E-08  0.2519
   1.5657E+01   1.6038E+01   1.1550E-07  0.2108
   1.6038E+01   1.6428E+01   1.0763E-07  0.2156
   1.6428E+01   1.6828E+01   1.2009E-07  0.2041
   1.6828E+01   1.7237E+01   8.3041E-08  0.2425
   1.7237E+01   1.7657E+01   6.9147E-08  0.2603
   1.7657E+01   1.8086E+01   4.6555E-08  0.3082
   1.8086E+01   1.8526E+01   4.0904E-08  0.3333
   1.8526E+01   1.8977E+01   7.0991E-08  0.2500
   1.8977E+01   1.9439E+01   6.9305E-08  0.2500
   1.9439E+01   1.9912E+01   7.1887E-08  0.2425
   1.9912E+01   2.0396E+01   4.9539E-08  0.2887
   2.0396E+01   2.0893E+01   4.4332E-08  0.3015
   2.0893E+01   2.1401E+01   7.0820E-08  0.2357
   2.1401E+01   2.1922E+01   2.6887E-08  0.3780
   2.1922E+01   2.2455E+01   3.7497E-08  0.3162
   2.2455E+01   2.3001E+01   2.9285E-08  0.3536
   2.3001E+01   2.3561E+01   4.6458E-08  0.2774
   2.3561E+01   2.4134E+01   2.4422E-08  0.3780
   2.4134E+01   2.4721E+01   2.3842E-08  0.3780
   2.4721E+01   2.5323E+01   1.3300E-08  0.5000
   2.5323E+01   2.5939E+01   3.2461E-08  0.3162
   2.5939E+01   2.6570E+01   1.2676E-08  0.5000
   2.6570E+01   2.7217E+01   6.1874E-09  0.7071
   2.7217E+01   2.7879E+01   1.5101E-08  0.4472
   2.7879E+01   2.8557E+01   8.8454E-09  0.5774
   2.8557E+01   2.9252E+01   8.6353E-09  0.5774
   2.9252E+01   2.9964E+01   1.1240E-08  0.5000
   2.9964E+01   3.0693E+01   1.3717E-08  0.4472
   3.0693E+01   3.1440E+01   5.3563E-09  0.7071
   3.1440E+01   3.2205E+01   7.8437E-09  0.5774
   3.2205E+01   3.2988E+01   2.5524E-09  1.0000
   3.2988E+01   3.3791E+01   2.4918E-09  1.0000
   3.3791E+01   3.4613E+01   0.0000E+00  0.0000
   3.4613E+01   3.5455E+01   2.3749E-09  1.0000
   3.5455E+01   3.6318E+01   0.0000E+00  0.0000
   3.6318E+01   3.7201E+01   0.0000E+00  0.0000
   3.7201E+01   3.8106E+01   0.0000E+00  0.0000
   3.8106E+01   3.9034E+01   2.1571E-09  1.0000
   3.9034E+01   3.9983E+01   0.0000E+00  0.0000
   3.9983E+01   4.0956E+01   0.0000E+00  0.0000
   4.0956E+01   4.1953E+01   0.0000E+00  0.0000
   4.1953E+01   4.2973E+01   0.0000E+00  0.0000
   4.2973E+01   4.4019E+01   0.0000E+00  0.0000
   4.4019E+01   4.5090E+01   0.0000E+00  0.0000
   4.5090E+01   4.6187E+01   0.0000E+00  0.0000
   4.6187E+01   4.7311E+01   0.0000E+00  0.0000
   4.7311E+01   4.8462E+01   0.0000E+00  0.0000
   4.8462E+01   4.9641E+01   0.0000E+00  0.0000
   4.9641E+01   5.0849E+01   0.0000E+00  0.0000
   5.0849E+01   5.2086E+01   0.0000E+00  0.0000
   5.2086E+01   5.3353E+01   0.0000E+00  0.0000
   5.3353E+01   5.4651E+01   0.0000E+00  0.0000
   5.4651E+01   5.5981E+01   0.0000E+00  0.0000
   5.5981E+01   5.7343E+01   0.0000E+00  0.0000
   5.7343E+01   5.8738E+01   0.0000E+00  0.0000
   5.8738E+01   6.0168E+01   0.0000E+00  0.0000
   6.0168E+01   6.1632E+01   0.0000E+00  0.0000
   6.1632E+01   6.3131E+01   0.0000E+00  0.0000
   6.3131E+01   6.4667E+01   0.0000E+00  0.0000
   6.4667E+01   6.6240E+01   0.0000E+00  0.0000
   6.6240E+01   6.7852E+01   0.0000E+00  0.0000
   6.7852E+01   6.9503E+01   0.0000E+00  0.0000
   6.9503E+01   7.1194E+01   0.0000E+00  0.0000
   7.1194E+01   7.2926E+01   0.0000E+00  0.0000
   7.2926E+01   7.4701E+01   0.0000E+00  0.0000
   7.4701E+01   7.6518E+01   0.0000E+00  0.0000
   7.6518E+01   7.8380E+01   0.0000E+00  0.0000
   7.8380E+01   8.0287E+01   0.0000E+00  0.0000
   8.0287E+01   8.2240E+01   0.0000E+00  0.0000
   8.2240E+01   8.4241E+01   0.0000E+00  0.0000
   8.4241E+01   8.6291E+01   0.0000E+00  0.0000
   8.6291E+01   8.8391E+01   0.0000E+00  0.0000
   8.8391E+01   9.0541E+01   0.0000E+00  0.0000
   9.0541E+01   9.2744E+01   0.0000E+00  0.0000
   9.2744E+01   9.5001E+01   0.0000E+00  0.0000
   9.5001E+01   9.7312E+01   0.0000E+00  0.0000
   9.7312E+01   9.9680E+01   0.0000E+00  0.0000
   9.9680E+01   1.0211E+02   0.0000E+00  0.0000
   1.0211E+02   1.0459E+02   0.0000E+00  0.0000
   1.0459E+02   1.0713E+02   0.0000E+00  0.0000
   1.0713E+02   1.0974E+02   0.0000E+00  0.0000
   1.0974E+02   1.1241E+02   0.0000E+00  0.0000
   1.1241E+02   1.1515E+02   0.0000E+00  0.0000
   1.1515E+02   1.1795E+02   0.0000E+00  0.0000
   1.1795E+02   1.2082E+02   0.0000E+00  0.0000
   1.2082E+02   1.2376E+02   0.0000E+00  0.0000
   1.2376E+02   1.2677E+02   0.0000E+00  0.0000
   1.2677E+02   1.2985E+02   0.0000E+00  0.0000
   1.2985E+02   1.3301E+02   0.0000E+00  0.0000
   1.3301E+02   1.3625E+02   0.0000E+00  0.0000
   1.3625E+02   1.3956E+02   0.0000E+00  0.0000
   1.3956E+02   1.4296E+02   0.0000E+00  0.0000
   1.4296E+02   1.4644E+02   0.0000E+00  0.0000
   1.4644E+02   1.5000E+02   0.0000E+00  0.0000

#   sum over                 7.2322E-06
'no. =    1   reg = 121 - 221'
msuc: {\huge [t-cross] in region mesh}
msdr: {\it plotted by \ANGEL \version}
msdl: {\it calculated by \PHITS  3.26}
wt: s(0.7)
\vspace{-3}
  region surface crossing
  area  &=&   1.0000E+00 [cm^2]
e:
 
# Information for Restart Calculation
# This calculation was newly started
# istdev =  2 # 1:Batch variance, 2:History variance
# resc2  = 5.00000000000000000E+08 # Total source weight or Total source weight / maxcas
# resc3  = 5.00000000000000000E+08 # Total history number or Total batch number
# maxcas =   500000000 # History / Batch, only used for istdev=1
# bitrseed = 1101101111010011011000101101110001100110110010110001010100010001 # bit data of rseed
