[ T-Cross ]
    title = [t-cross] in region mesh
     mesh =  reg            # mesh type is region-wise
      reg =    1            # number of crossing regions
      non     r-from    r-to       area
      1       111       211        1.000000    
   e-type =    3            # e-mesh is log given by emin, emax and ne
     emin =  1.0000000E-02  # minimum value of e-mesh points
     emax =   150.0000      # maximum value of e-mesh points
#    edel =  2.4039514E-02  # mesh width of e-mesh points
       ne =    400          # number of e-mesh points
#    data = ( e(i), i = 1, ne + 1 )
#           1.00000E-02  1.02433E-02  1.04925E-02  1.07478E-02  1.10093E-02
#           1.12772E-02  1.15516E-02  1.18326E-02  1.21205E-02  1.24154E-02
#           1.27175E-02  1.30269E-02  1.33439E-02  1.36686E-02  1.40011E-02
#           1.43418E-02  1.46907E-02  1.50482E-02  1.54143E-02  1.57894E-02
#           1.61735E-02  1.65670E-02  1.69701E-02  1.73830E-02  1.78060E-02
#           1.82392E-02  1.86830E-02  1.91375E-02  1.96032E-02  2.00801E-02
#           2.05687E-02  2.10692E-02  2.15818E-02  2.21069E-02  2.26448E-02
#           2.31957E-02  2.37601E-02  2.43382E-02  2.49304E-02  2.55369E-02
#           2.61583E-02  2.67947E-02  2.74467E-02  2.81145E-02  2.87985E-02
#           2.94992E-02  3.02169E-02  3.09521E-02  3.17052E-02  3.24766E-02
#           3.32668E-02  3.40762E-02  3.49053E-02  3.57546E-02  3.66246E-02
#           3.75157E-02  3.84284E-02  3.93634E-02  4.03212E-02  4.13022E-02
#           4.23071E-02  4.33365E-02  4.43909E-02  4.54710E-02  4.65773E-02
#           4.77106E-02  4.88714E-02  5.00605E-02  5.12785E-02  5.25262E-02
#           5.38042E-02  5.51133E-02  5.64542E-02  5.78278E-02  5.92348E-02
#           6.06760E-02  6.21523E-02  6.36645E-02  6.52135E-02  6.68002E-02
#           6.84255E-02  7.00904E-02  7.17957E-02  7.35426E-02  7.53319E-02
#           7.71648E-02  7.90423E-02  8.09655E-02  8.29354E-02  8.49533E-02
#           8.70203E-02  8.91376E-02  9.13064E-02  9.35279E-02  9.58035E-02
#           9.81345E-02  1.00522E-01  1.02968E-01  1.05473E-01  1.08040E-01
#           1.10668E-01  1.13361E-01  1.16119E-01  1.18944E-01  1.21838E-01
#           1.24803E-01  1.27839E-01  1.30950E-01  1.34136E-01  1.37399E-01
#           1.40742E-01  1.44167E-01  1.47675E-01  1.51268E-01  1.54948E-01
#           1.58718E-01  1.62580E-01  1.66535E-01  1.70587E-01  1.74738E-01
#           1.78989E-01  1.83344E-01  1.87805E-01  1.92375E-01  1.97055E-01
#           2.01850E-01  2.06761E-01  2.11792E-01  2.16945E-01  2.22223E-01
#           2.27630E-01  2.33169E-01  2.38842E-01  2.44653E-01  2.50605E-01
#           2.56703E-01  2.62949E-01  2.69346E-01  2.75900E-01  2.82613E-01
#           2.89489E-01  2.96532E-01  3.03747E-01  3.11138E-01  3.18708E-01
#           3.26462E-01  3.34405E-01  3.42542E-01  3.50876E-01  3.59413E-01
#           3.68158E-01  3.77116E-01  3.86291E-01  3.95690E-01  4.05317E-01
#           4.15179E-01  4.25281E-01  4.35628E-01  4.46227E-01  4.57084E-01
#           4.68205E-01  4.79597E-01  4.91266E-01  5.03219E-01  5.15463E-01
#           5.28005E-01  5.40851E-01  5.54011E-01  5.67490E-01  5.81298E-01
#           5.95441E-01  6.09929E-01  6.24769E-01  6.39970E-01  6.55541E-01
#           6.71491E-01  6.87828E-01  7.04564E-01  7.21706E-01  7.39266E-01
#           7.57253E-01  7.75678E-01  7.94551E-01  8.13883E-01  8.33685E-01
#           8.53969E-01  8.74747E-01  8.96030E-01  9.17831E-01  9.40163E-01
#           9.63038E-01  9.86469E-01  1.01047E+00  1.03506E+00  1.06024E+00
#           1.08604E+00  1.11246E+00  1.13953E+00  1.16725E+00  1.19565E+00
#           1.22474E+00  1.25454E+00  1.28507E+00  1.31633E+00  1.34836E+00
#           1.38117E+00  1.41477E+00  1.44920E+00  1.48446E+00  1.52057E+00
#           1.55757E+00  1.59547E+00  1.63429E+00  1.67405E+00  1.71478E+00
#           1.75650E+00  1.79924E+00  1.84302E+00  1.88786E+00  1.93379E+00
#           1.98084E+00  2.02904E+00  2.07841E+00  2.12898E+00  2.18078E+00
#           2.23384E+00  2.28819E+00  2.34386E+00  2.40089E+00  2.45930E+00
#           2.51914E+00  2.58043E+00  2.64322E+00  2.70753E+00  2.77341E+00
#           2.84088E+00  2.91001E+00  2.98081E+00  3.05333E+00  3.12762E+00
#           3.20372E+00  3.28167E+00  3.36152E+00  3.44330E+00  3.52708E+00
#           3.61290E+00  3.70080E+00  3.79085E+00  3.88308E+00  3.97756E+00
#           4.07434E+00  4.17347E+00  4.27501E+00  4.37903E+00  4.48557E+00
#           4.59471E+00  4.70650E+00  4.82102E+00  4.93832E+00  5.05847E+00
#           5.18155E+00  5.30762E+00  5.43676E+00  5.56904E+00  5.70453E+00
#           5.84333E+00  5.98550E+00  6.13114E+00  6.28031E+00  6.43312E+00
#           6.58964E+00  6.74997E+00  6.91420E+00  7.08243E+00  7.25475E+00
#           7.43126E+00  7.61207E+00  7.79728E+00  7.98700E+00  8.18133E+00
#           8.38038E+00  8.58428E+00  8.79315E+00  9.00709E+00  9.22624E+00
#           9.45072E+00  9.68067E+00  9.91620E+00  1.01575E+01  1.04046E+01
#           1.06578E+01  1.09171E+01  1.11827E+01  1.14548E+01  1.17335E+01
#           1.20190E+01  1.23114E+01  1.26109E+01  1.29178E+01  1.32321E+01
#           1.35540E+01  1.38838E+01  1.42216E+01  1.45676E+01  1.49221E+01
#           1.52851E+01  1.56570E+01  1.60380E+01  1.64282E+01  1.68279E+01
#           1.72374E+01  1.76568E+01  1.80864E+01  1.85264E+01  1.89772E+01
#           1.94389E+01  1.99119E+01  2.03963E+01  2.08926E+01  2.14009E+01
#           2.19216E+01  2.24550E+01  2.30014E+01  2.35610E+01  2.41343E+01
#           2.47215E+01  2.53230E+01  2.59391E+01  2.65702E+01  2.72167E+01
#           2.78789E+01  2.85572E+01  2.92520E+01  2.99637E+01  3.06928E+01
#           3.14396E+01  3.22045E+01  3.29881E+01  3.37907E+01  3.46128E+01
#           3.54550E+01  3.63177E+01  3.72013E+01  3.81064E+01  3.90336E+01
#           3.99833E+01  4.09561E+01  4.19526E+01  4.29734E+01  4.40189E+01
#           4.50900E+01  4.61870E+01  4.73108E+01  4.84619E+01  4.96410E+01
#           5.08488E+01  5.20860E+01  5.33533E+01  5.46514E+01  5.59812E+01
#           5.73432E+01  5.87384E+01  6.01676E+01  6.16315E+01  6.31311E+01
#           6.46671E+01  6.62405E+01  6.78522E+01  6.95031E+01  7.11941E+01
#           7.29263E+01  7.47007E+01  7.65182E+01  7.83800E+01  8.02870E+01
#           8.22405E+01  8.42414E+01  8.62911E+01  8.83906E+01  9.05412E+01
#           9.27442E+01  9.50007E+01  9.73122E+01  9.96799E+01  1.02105E+02
#           1.04589E+02  1.07134E+02  1.09741E+02  1.12411E+02  1.15146E+02
#           1.17948E+02  1.20817E+02  1.23757E+02  1.26768E+02  1.29852E+02
#           1.33012E+02  1.36248E+02  1.39563E+02  1.42959E+02  1.46437E+02
#           1.50000E+02
     unit =    2            # unit is [1/cm^2/(MeV/n)/source]
     axis =  eng            # axis of output
     file = detector-12.out  # file name of output for the above axis
   output = f-curr          # surface crossing forward current spectrum
     part =  neutron  
# kf/name :  2112     
#    used :        main (  %)        temp (  %)       total (  %)
#  memory :         414 (  0)           0 (  0)         414 (  0)

#------------------------------------------------------------------------------
#newpage:
#   no. =    1   reg = 111 - 211

x: Energy [MeV/n]
y:  F-Curr [1/cm^2/(MeV/n)/source]         
p: xlog ylog afac(0.8) form(0.9)
h: n            x            y(neutron ),hh0l   n 
#  e-lower      e-upper      neutron     r.err 
   1.0000E-02   1.0243E-02   1.0801E-03  0.0435
   1.0243E-02   1.0493E-02   1.1103E-03  0.0424
   1.0493E-02   1.0748E-02   1.0282E-03  0.0435
   1.0748E-02   1.1009E-02   9.8502E-04  0.0440
   1.1009E-02   1.1277E-02   1.0033E-03  0.0431
   1.1277E-02   1.1552E-02   9.9433E-04  0.0428
   1.1552E-02   1.1833E-02   1.0337E-03  0.0415
   1.1833E-02   1.2121E-02   9.2983E-04  0.0432
   1.2121E-02   1.2415E-02   9.3033E-04  0.0426
   1.2415E-02   1.2718E-02   1.0251E-03  0.0401
   1.2718E-02   1.3027E-02   8.9741E-04  0.0424
   1.3027E-02   1.3344E-02   9.0432E-04  0.0417
   1.3344E-02   1.3669E-02   9.6545E-04  0.0399
   1.3669E-02   1.4001E-02   8.3919E-04  0.0423
   1.4001E-02   1.4342E-02   8.5992E-04  0.0412
   1.4342E-02   1.4691E-02   8.5450E-04  0.0409
   1.4691E-02   1.5048E-02   8.1550E-04  0.0413
   1.5048E-02   1.5414E-02   8.3932E-04  0.0403
   1.5414E-02   1.5789E-02   8.0854E-04  0.0405
   1.5789E-02   1.6174E-02   8.0923E-04  0.0400
   1.6174E-02   1.6567E-02   7.3447E-04  0.0415
   1.6567E-02   1.6970E-02   7.5158E-04  0.0405
   1.6970E-02   1.7383E-02   7.4889E-04  0.0401
   1.7383E-02   1.7806E-02   7.1615E-04  0.0406
   1.7806E-02   1.8239E-02   7.6872E-04  0.0387
   1.8239E-02   1.8683E-02   7.1115E-04  0.0398
   1.8683E-02   1.9138E-02   7.1425E-04  0.0392
   1.9138E-02   1.9603E-02   7.0407E-04  0.0390
   1.9603E-02   2.0080E-02   6.7969E-04  0.0392
   2.0080E-02   2.0569E-02   6.5971E-04  0.0393
   2.0569E-02   2.1069E-02   6.7893E-04  0.0383
   2.1069E-02   2.1582E-02   6.3994E-04  0.0390
   2.1582E-02   2.2107E-02   6.6144E-04  0.0379
   2.2107E-02   2.2645E-02   6.0880E-04  0.0390
   2.2645E-02   2.3196E-02   6.1449E-04  0.0383
   2.3196E-02   2.3760E-02   6.0659E-04  0.0382
   2.3760E-02   2.4338E-02   5.9807E-04  0.0380
   2.4338E-02   2.4930E-02   6.0640E-04  0.0372
   2.4930E-02   2.5537E-02   5.9713E-04  0.0371
   2.5537E-02   2.6158E-02   6.0926E-04  0.0363
   2.6158E-02   2.6795E-02   5.5929E-04  0.0374
   2.6795E-02   2.7447E-02   5.5415E-04  0.0371
   2.7447E-02   2.8114E-02   5.4583E-04  0.0370
   2.8114E-02   2.8799E-02   5.6379E-04  0.0359
   2.8799E-02   2.9499E-02   5.7171E-04  0.0353
   2.9499E-02   3.0217E-02   5.2900E-04  0.0362
   3.0217E-02   3.0952E-02   5.0193E-04  0.0367
   3.0952E-02   3.1705E-02   4.9933E-04  0.0364
   3.1705E-02   3.2477E-02   5.0105E-04  0.0359
   3.2477E-02   3.3267E-02   4.4142E-04  0.0378
   3.3267E-02   3.4076E-02   4.8808E-04  0.0355
   3.4076E-02   3.4905E-02   4.9289E-04  0.0349
   3.4905E-02   3.5755E-02   4.5361E-04  0.0360
   3.5755E-02   3.6625E-02   4.0758E-04  0.0375
   3.6625E-02   3.7516E-02   4.3669E-04  0.0358
   3.7516E-02   3.8428E-02   4.2247E-04  0.0359
   3.8428E-02   3.9363E-02   4.3186E-04  0.0351
   3.9363E-02   4.0321E-02   4.3910E-04  0.0344
   4.0321E-02   4.1302E-02   4.4133E-04  0.0339
   4.1302E-02   4.2307E-02   4.2695E-04  0.0341
   4.2307E-02   4.3337E-02   3.9033E-04  0.0352
   4.3337E-02   4.4391E-02   3.9803E-04  0.0344
   4.4391E-02   4.5471E-02   3.9646E-04  0.0341
   4.5471E-02   4.6577E-02   3.9636E-04  0.0337
   4.6577E-02   4.7711E-02   3.7095E-04  0.0344
   4.7711E-02   4.8871E-02   3.6625E-04  0.0342
   4.8871E-02   5.0061E-02   3.4561E-04  0.0348
   5.0061E-02   5.1279E-02   3.9294E-04  0.0322
   5.1279E-02   5.2526E-02   3.5519E-04  0.0335
   5.2526E-02   5.3804E-02   3.5557E-04  0.0331
   5.3804E-02   5.5113E-02   3.6639E-04  0.0322
   5.5113E-02   5.6454E-02   3.4453E-04  0.0328
   5.6454E-02   5.7828E-02   3.2784E-04  0.0333
   5.7828E-02   5.9235E-02   3.3482E-04  0.0325
   5.9235E-02   6.0676E-02   3.5061E-04  0.0314
   6.0676E-02   6.2152E-02   2.9838E-04  0.0336
   6.2152E-02   6.3665E-02   2.9697E-04  0.0333
   6.3665E-02   6.5214E-02   3.0454E-04  0.0325
   6.5214E-02   6.6800E-02   3.1429E-04  0.0316
   6.6800E-02   6.8426E-02   3.0938E-04  0.0315
   6.8426E-02   7.0090E-02   2.9600E-04  0.0318
   7.0090E-02   7.1796E-02   2.8570E-04  0.0320
   7.1796E-02   7.3543E-02   2.7604E-04  0.0321
   7.3543E-02   7.5332E-02   2.8205E-04  0.0314
   7.5332E-02   7.7165E-02   2.6332E-04  0.0321
   7.7165E-02   7.9042E-02   2.5771E-04  0.0321
   7.9042E-02   8.0965E-02   2.7046E-04  0.0310
   8.0965E-02   8.2935E-02   2.4577E-04  0.0321
   8.2935E-02   8.4953E-02   2.3399E-04  0.0325
   8.4953E-02   8.7020E-02   2.4739E-04  0.0312
   8.7020E-02   8.9138E-02   2.4771E-04  0.0308
   8.9138E-02   9.1306E-02   2.3801E-04  0.0311
   9.1306E-02   9.3528E-02   2.4385E-04  0.0303
   9.3528E-02   9.5804E-02   2.2591E-04  0.0311
   9.5804E-02   9.8134E-02   2.2073E-04  0.0311
   9.8134E-02   1.0052E-01   2.2325E-04  0.0306
   1.0052E-01   1.0297E-01   2.1498E-04  0.0308
   1.0297E-01   1.0547E-01   2.1819E-04  0.0302
   1.0547E-01   1.0804E-01   2.1079E-04  0.0304
   1.0804E-01   1.1067E-01   1.9951E-04  0.0308
   1.1067E-01   1.1336E-01   2.0752E-04  0.0299
   1.1336E-01   1.1612E-01   2.1408E-04  0.0291
   1.1612E-01   1.1894E-01   2.0525E-04  0.0293
   1.1894E-01   1.2184E-01   1.9894E-04  0.0294
   1.2184E-01   1.2480E-01   1.8803E-04  0.0299
   1.2480E-01   1.2784E-01   1.8840E-04  0.0295
   1.2784E-01   1.3095E-01   1.9193E-04  0.0289
   1.3095E-01   1.3414E-01   1.8305E-04  0.0292
   1.3414E-01   1.3740E-01   1.7446E-04  0.0296
   1.3740E-01   1.4074E-01   1.6905E-04  0.0297
   1.4074E-01   1.4417E-01   1.5859E-04  0.0303
   1.4417E-01   1.4767E-01   1.6215E-04  0.0296
   1.4767E-01   1.5127E-01   1.5560E-04  0.0298
   1.5127E-01   1.5495E-01   1.5773E-04  0.0293
   1.5495E-01   1.5872E-01   1.4764E-04  0.0299
   1.5872E-01   1.6258E-01   1.5783E-04  0.0286
   1.6258E-01   1.6654E-01   1.4609E-04  0.0293
   1.6654E-01   1.7059E-01   1.3477E-04  0.0302
   1.7059E-01   1.7474E-01   1.3516E-04  0.0298
   1.7474E-01   1.7899E-01   1.3446E-04  0.0295
   1.7899E-01   1.8334E-01   1.3730E-04  0.0289
   1.8334E-01   1.8781E-01   1.3076E-04  0.0292
   1.8781E-01   1.9237E-01   1.3456E-04  0.0285
   1.9237E-01   1.9706E-01   1.2774E-04  0.0289
   1.9706E-01   2.0185E-01   1.2647E-04  0.0286
   2.0185E-01   2.0676E-01   1.2831E-04  0.0281
   2.0676E-01   2.1179E-01   1.3082E-04  0.0275
   2.1179E-01   2.1694E-01   1.3400E-04  0.0269
   2.1694E-01   2.2222E-01   1.3987E-04  0.0260
   2.2222E-01   2.2763E-01   1.4256E-04  0.0254
   2.2763E-01   2.3317E-01   1.4444E-04  0.0249
   2.3317E-01   2.3884E-01   1.4425E-04  0.0247
   2.3884E-01   2.4465E-01   1.5101E-04  0.0238
   2.4465E-01   2.5061E-01   1.5833E-04  0.0230
   2.5061E-01   2.5670E-01   1.6916E-04  0.0220
   2.5670E-01   2.6295E-01   1.6532E-04  0.0220
   2.6295E-01   2.6935E-01   1.6833E-04  0.0215
   2.6935E-01   2.7590E-01   1.7725E-04  0.0207
   2.7590E-01   2.8261E-01   1.8991E-04  0.0198
   2.8261E-01   2.8949E-01   1.8893E-04  0.0196
   2.8949E-01   2.9653E-01   1.8146E-04  0.0198
   2.9653E-01   3.0375E-01   1.9486E-04  0.0188
   3.0375E-01   3.1114E-01   1.9485E-04  0.0186
   3.1114E-01   3.1871E-01   1.9439E-04  0.0184
   3.1871E-01   3.2646E-01   2.0881E-04  0.0175
   3.2646E-01   3.3441E-01   2.1449E-04  0.0171
   3.3441E-01   3.4254E-01   2.1709E-04  0.0168
   3.4254E-01   3.5088E-01   2.3404E-04  0.0160
   3.5088E-01   3.5941E-01   2.3041E-04  0.0159
   3.5941E-01   3.6816E-01   2.3858E-04  0.0154
   3.6816E-01   3.7712E-01   2.4212E-04  0.0151
   3.7712E-01   3.8629E-01   2.4552E-04  0.0149
   3.8629E-01   3.9569E-01   2.5076E-04  0.0145
   3.9569E-01   4.0532E-01   2.5515E-04  0.0142
   4.0532E-01   4.1518E-01   2.6237E-04  0.0139
   4.1518E-01   4.2528E-01   2.6492E-04  0.0136
   4.2528E-01   4.3563E-01   2.7286E-04  0.0133
   4.3563E-01   4.4623E-01   2.7745E-04  0.0130
   4.4623E-01   4.5708E-01   2.8469E-04  0.0127
   4.5708E-01   4.6821E-01   2.9339E-04  0.0123
   4.6821E-01   4.7960E-01   2.9327E-04  0.0122
   4.7960E-01   4.9127E-01   3.0485E-04  0.0118
   4.9127E-01   5.0322E-01   3.0906E-04  0.0116
   5.0322E-01   5.1546E-01   3.2043E-04  0.0113
   5.1546E-01   5.2800E-01   3.2246E-04  0.0111
   5.2800E-01   5.4085E-01   3.2798E-04  0.0109
   5.4085E-01   5.5401E-01   3.3474E-04  0.0106
   5.5401E-01   5.6749E-01   3.4007E-04  0.0104
   5.6749E-01   5.8130E-01   3.4606E-04  0.0102
   5.8130E-01   5.9544E-01   3.4931E-04  0.0100
   5.9544E-01   6.0993E-01   3.5604E-04  0.0098
   6.0993E-01   6.2477E-01   3.6118E-04  0.0096
   6.2477E-01   6.3997E-01   3.7236E-04  0.0094
   6.3997E-01   6.5554E-01   3.7898E-04  0.0092
   6.5554E-01   6.7149E-01   3.8463E-04  0.0090
   6.7149E-01   6.8783E-01   3.8738E-04  0.0089
   6.8783E-01   7.0456E-01   3.9712E-04  0.0087
   7.0456E-01   7.2171E-01   3.9809E-04  0.0085
   7.2171E-01   7.3927E-01   3.9536E-04  0.0085
   7.3927E-01   7.5725E-01   4.0728E-04  0.0082
   7.5725E-01   7.7568E-01   4.2180E-04  0.0080
   7.7568E-01   7.9455E-01   4.2861E-04  0.0078
   7.9455E-01   8.1388E-01   4.3319E-04  0.0077
   8.1388E-01   8.3368E-01   4.4774E-04  0.0075
   8.3368E-01   8.5397E-01   4.4563E-04  0.0074
   8.5397E-01   8.7475E-01   4.5857E-04  0.0072
   8.7475E-01   8.9603E-01   4.5767E-04  0.0071
   8.9603E-01   9.1783E-01   4.6752E-04  0.0070
   9.1783E-01   9.4016E-01   4.7820E-04  0.0068
   9.4016E-01   9.6304E-01   4.7918E-04  0.0067
   9.6304E-01   9.8647E-01   4.8631E-04  0.0066
   9.8647E-01   1.0105E+00   4.9598E-04  0.0065
   1.0105E+00   1.0351E+00   4.9812E-04  0.0064
   1.0351E+00   1.0602E+00   5.0194E-04  0.0063
   1.0602E+00   1.0860E+00   5.0217E-04  0.0062
   1.0860E+00   1.1125E+00   5.0582E-04  0.0061
   1.1125E+00   1.1395E+00   5.0381E-04  0.0060
   1.1395E+00   1.1673E+00   5.0726E-04  0.0059
   1.1673E+00   1.1957E+00   5.1660E-04  0.0058
   1.1957E+00   1.2247E+00   5.2906E-04  0.0057
   1.2247E+00   1.2545E+00   5.2655E-04  0.0056
   1.2545E+00   1.2851E+00   5.2314E-04  0.0056
   1.2851E+00   1.3163E+00   5.2844E-04  0.0055
   1.3163E+00   1.3484E+00   5.2762E-04  0.0054
   1.3484E+00   1.3812E+00   5.3123E-04  0.0053
   1.3812E+00   1.4148E+00   5.4071E-04  0.0052
   1.4148E+00   1.4492E+00   5.3771E-04  0.0052
   1.4492E+00   1.4845E+00   5.4322E-04  0.0051
   1.4845E+00   1.5206E+00   5.4423E-04  0.0050
   1.5206E+00   1.5576E+00   5.4359E-04  0.0050
   1.5576E+00   1.5955E+00   5.4459E-04  0.0049
   1.5955E+00   1.6343E+00   5.4159E-04  0.0049
   1.6343E+00   1.6741E+00   5.3666E-04  0.0048
   1.6741E+00   1.7148E+00   5.3348E-04  0.0048
   1.7148E+00   1.7565E+00   5.2859E-04  0.0047
   1.7565E+00   1.7992E+00   5.3036E-04  0.0047
   1.7992E+00   1.8430E+00   5.3009E-04  0.0046
   1.8430E+00   1.8879E+00   5.2212E-04  0.0046
   1.8879E+00   1.9338E+00   5.1686E-04  0.0046
   1.9338E+00   1.9808E+00   5.1423E-04  0.0045
   1.9808E+00   2.0290E+00   5.1358E-04  0.0045
   2.0290E+00   2.0784E+00   5.0734E-04  0.0045
   2.0784E+00   2.1290E+00   5.0178E-04  0.0044
   2.1290E+00   2.1808E+00   4.9051E-04  0.0044
   2.1808E+00   2.2338E+00   4.9005E-04  0.0044
   2.2338E+00   2.2882E+00   4.7624E-04  0.0044
   2.2882E+00   2.3439E+00   4.7575E-04  0.0043
   2.3439E+00   2.4009E+00   4.6503E-04  0.0043
   2.4009E+00   2.4593E+00   4.6182E-04  0.0043
   2.4593E+00   2.5191E+00   4.6376E-04  0.0042
   2.5191E+00   2.5804E+00   4.5514E-04  0.0042
   2.5804E+00   2.6432E+00   4.5131E-04  0.0042
   2.6432E+00   2.7075E+00   4.4282E-04  0.0042
   2.7075E+00   2.7734E+00   4.3604E-04  0.0042
   2.7734E+00   2.8409E+00   4.2466E-04  0.0042
   2.8409E+00   2.9100E+00   4.1888E-04  0.0041
   2.9100E+00   2.9808E+00   4.1362E-04  0.0041
   2.9808E+00   3.0533E+00   4.0765E-04  0.0041
   3.0533E+00   3.1276E+00   3.9624E-04  0.0041
   3.1276E+00   3.2037E+00   3.8822E-04  0.0041
   3.2037E+00   3.2817E+00   3.7654E-04  0.0041
   3.2817E+00   3.3615E+00   3.6946E-04  0.0041
   3.3615E+00   3.4433E+00   3.6414E-04  0.0041
   3.4433E+00   3.5271E+00   3.5929E-04  0.0041
   3.5271E+00   3.6129E+00   3.4977E-04  0.0041
   3.6129E+00   3.7008E+00   3.4319E-04  0.0041
   3.7008E+00   3.7908E+00   3.3225E-04  0.0041
   3.7908E+00   3.8831E+00   3.2446E-04  0.0041
   3.8831E+00   3.9776E+00   3.1760E-04  0.0041
   3.9776E+00   4.0743E+00   3.1080E-04  0.0041
   4.0743E+00   4.1735E+00   3.0511E-04  0.0041
   4.1735E+00   4.2750E+00   2.9593E-04  0.0041
   4.2750E+00   4.3790E+00   2.9099E-04  0.0041
   4.3790E+00   4.4856E+00   2.8242E-04  0.0041
   4.4856E+00   4.5947E+00   2.7755E-04  0.0041
   4.5947E+00   4.7065E+00   2.7215E-04  0.0040
   4.7065E+00   4.8210E+00   2.6613E-04  0.0040
   4.8210E+00   4.9383E+00   2.6380E-04  0.0040
   4.9383E+00   5.0585E+00   2.6449E-04  0.0040
   5.0585E+00   5.1815E+00   2.6740E-04  0.0039
   5.1815E+00   5.3076E+00   2.6709E-04  0.0038
   5.3076E+00   5.4368E+00   2.5910E-04  0.0039
   5.4368E+00   5.5690E+00   2.5278E-04  0.0039
   5.5690E+00   5.7045E+00   2.4676E-04  0.0039
   5.7045E+00   5.8433E+00   2.4032E-04  0.0039
   5.8433E+00   5.9855E+00   2.3478E-04  0.0039
   5.9855E+00   6.1311E+00   2.2938E-04  0.0039
   6.1311E+00   6.2803E+00   2.2313E-04  0.0039
   6.2803E+00   6.4331E+00   2.1810E-04  0.0039
   6.4331E+00   6.5896E+00   2.1114E-04  0.0039
   6.5896E+00   6.7500E+00   2.0637E-04  0.0039
   6.7500E+00   6.9142E+00   2.0213E-04  0.0039
   6.9142E+00   7.0824E+00   1.9628E-04  0.0039
   7.0824E+00   7.2548E+00   1.9152E-04  0.0039
   7.2548E+00   7.4313E+00   1.8582E-04  0.0039
   7.4313E+00   7.6121E+00   1.8060E-04  0.0039
   7.6121E+00   7.7973E+00   1.7593E-04  0.0039
   7.7973E+00   7.9870E+00   1.7324E-04  0.0039
   7.9870E+00   8.1813E+00   1.6855E-04  0.0039
   8.1813E+00   8.3804E+00   1.6355E-04  0.0039
   8.3804E+00   8.5843E+00   1.5971E-04  0.0039
   8.5843E+00   8.7931E+00   1.5506E-04  0.0039
   8.7931E+00   9.0071E+00   1.5071E-04  0.0039
   9.0071E+00   9.2262E+00   1.4549E-04  0.0040
   9.2262E+00   9.4507E+00   1.4200E-04  0.0040
   9.4507E+00   9.6807E+00   1.3641E-04  0.0040
   9.6807E+00   9.9162E+00   1.3226E-04  0.0040
   9.9162E+00   1.0157E+01   1.2748E-04  0.0040
   1.0157E+01   1.0405E+01   1.2362E-04  0.0040
   1.0405E+01   1.0658E+01   1.1898E-04  0.0041
   1.0658E+01   1.0917E+01   1.1554E-04  0.0041
   1.0917E+01   1.1183E+01   1.1101E-04  0.0041
   1.1183E+01   1.1455E+01   1.0650E-04  0.0042
   1.1455E+01   1.1733E+01   1.0346E-04  0.0042
   1.1733E+01   1.2019E+01   9.8375E-05  0.0042
   1.2019E+01   1.2311E+01   9.6365E-05  0.0042
   1.2311E+01   1.2611E+01   9.2065E-05  0.0043
   1.2611E+01   1.2918E+01   8.8128E-05  0.0043
   1.2918E+01   1.3232E+01   8.5277E-05  0.0043
   1.3232E+01   1.3554E+01   8.1648E-05  0.0044
   1.3554E+01   1.3884E+01   7.7457E-05  0.0044
   1.3884E+01   1.4222E+01   7.4485E-05  0.0045
   1.4222E+01   1.4568E+01   7.0371E-05  0.0045
   1.4568E+01   1.4922E+01   6.7981E-05  0.0046
   1.4922E+01   1.5285E+01   6.4217E-05  0.0046
   1.5285E+01   1.5657E+01   6.1781E-05  0.0047
   1.5657E+01   1.6038E+01   5.8692E-05  0.0047
   1.6038E+01   1.6428E+01   5.5391E-05  0.0048
   1.6428E+01   1.6828E+01   5.2554E-05  0.0049
   1.6828E+01   1.7237E+01   5.0091E-05  0.0049
   1.7237E+01   1.7657E+01   4.7013E-05  0.0050
   1.7657E+01   1.8086E+01   4.4546E-05  0.0051
   1.8086E+01   1.8526E+01   4.2351E-05  0.0052
   1.8526E+01   1.8977E+01   3.9573E-05  0.0053
   1.8977E+01   1.9439E+01   3.7667E-05  0.0054
   1.9439E+01   1.9912E+01   3.5520E-05  0.0055
   1.9912E+01   2.0396E+01   3.4171E-05  0.0055
   2.0396E+01   2.0893E+01   3.2068E-05  0.0056
   2.0893E+01   2.1401E+01   3.0181E-05  0.0057
   2.1401E+01   2.1922E+01   2.8059E-05  0.0059
   2.1922E+01   2.2455E+01   2.5913E-05  0.0060
   2.2455E+01   2.3001E+01   2.4502E-05  0.0061
   2.3001E+01   2.3561E+01   2.2783E-05  0.0063
   2.3561E+01   2.4134E+01   2.1039E-05  0.0064
   2.4134E+01   2.4721E+01   1.9444E-05  0.0066
   2.4721E+01   2.5323E+01   1.8004E-05  0.0068
   2.5323E+01   2.5939E+01   1.6784E-05  0.0070
   2.5939E+01   2.6570E+01   1.5635E-05  0.0071
   2.6570E+01   2.7217E+01   1.4222E-05  0.0074
   2.7217E+01   2.7879E+01   1.3071E-05  0.0076
   2.7879E+01   2.8557E+01   1.1900E-05  0.0079
   2.8557E+01   2.9252E+01   1.0798E-05  0.0082
   2.9252E+01   2.9964E+01   9.8086E-06  0.0085
   2.9964E+01   3.0693E+01   8.7903E-06  0.0088
   3.0693E+01   3.1440E+01   8.1202E-06  0.0091
   3.1440E+01   3.2205E+01   7.1763E-06  0.0095
   3.2205E+01   3.2988E+01   6.2235E-06  0.0101
   3.2988E+01   3.3791E+01   5.6022E-06  0.0105
   3.3791E+01   3.4613E+01   4.9066E-06  0.0111
   3.4613E+01   3.5455E+01   4.3068E-06  0.0117
   3.5455E+01   3.6318E+01   3.7217E-06  0.0125
   3.6318E+01   3.7201E+01   3.2491E-06  0.0132
   3.7201E+01   3.8106E+01   2.7609E-06  0.0141
   3.8106E+01   3.9034E+01   2.3777E-06  0.0151
   3.9034E+01   3.9983E+01   1.9953E-06  0.0162
   3.9983E+01   4.0956E+01   1.6411E-06  0.0177
   4.0956E+01   4.1953E+01   1.3176E-06  0.0195
   4.1953E+01   4.2973E+01   1.1100E-06  0.0210
   4.2973E+01   4.4019E+01   8.8468E-07  0.0232
   4.4019E+01   4.5090E+01   6.9654E-07  0.0259
   4.5090E+01   4.6187E+01   5.2321E-07  0.0295
   4.6187E+01   4.7311E+01   3.8798E-07  0.0339
   4.7311E+01   4.8462E+01   2.9189E-07  0.0386
   4.8462E+01   4.9641E+01   2.1457E-07  0.0445
   4.9641E+01   5.0849E+01   1.5731E-07  0.0513
   5.0849E+01   5.2086E+01   1.0952E-07  0.0607
   5.2086E+01   5.3353E+01   7.5752E-08  0.0722
   5.3353E+01   5.4651E+01   3.9672E-08  0.0985
   5.4651E+01   5.5981E+01   2.0681E-08  0.1348
   5.5981E+01   5.7343E+01   1.1380E-08  0.1796
   5.7343E+01   5.8738E+01   5.0172E-09  0.2673
   5.8738E+01   6.0168E+01   1.0496E-09  0.5774
   6.0168E+01   6.1632E+01   6.8310E-10  0.7071
   6.1632E+01   6.3131E+01   3.3343E-10  1.0000
   6.3131E+01   6.4667E+01   0.0000E+00  0.0000
   6.4667E+01   6.6240E+01   0.0000E+00  0.0000
   6.6240E+01   6.7852E+01   0.0000E+00  0.0000
   6.7852E+01   6.9503E+01   0.0000E+00  0.0000
   6.9503E+01   7.1194E+01   0.0000E+00  0.0000
   7.1194E+01   7.2926E+01   0.0000E+00  0.0000
   7.2926E+01   7.4701E+01   0.0000E+00  0.0000
   7.4701E+01   7.6518E+01   0.0000E+00  0.0000
   7.6518E+01   7.8380E+01   0.0000E+00  0.0000
   7.8380E+01   8.0287E+01   0.0000E+00  0.0000
   8.0287E+01   8.2240E+01   0.0000E+00  0.0000
   8.2240E+01   8.4241E+01   0.0000E+00  0.0000
   8.4241E+01   8.6291E+01   0.0000E+00  0.0000
   8.6291E+01   8.8391E+01   0.0000E+00  0.0000
   8.8391E+01   9.0541E+01   0.0000E+00  0.0000
   9.0541E+01   9.2744E+01   0.0000E+00  0.0000
   9.2744E+01   9.5001E+01   0.0000E+00  0.0000
   9.5001E+01   9.7312E+01   0.0000E+00  0.0000
   9.7312E+01   9.9680E+01   0.0000E+00  0.0000
   9.9680E+01   1.0211E+02   0.0000E+00  0.0000
   1.0211E+02   1.0459E+02   0.0000E+00  0.0000
   1.0459E+02   1.0713E+02   0.0000E+00  0.0000
   1.0713E+02   1.0974E+02   0.0000E+00  0.0000
   1.0974E+02   1.1241E+02   0.0000E+00  0.0000
   1.1241E+02   1.1515E+02   0.0000E+00  0.0000
   1.1515E+02   1.1795E+02   0.0000E+00  0.0000
   1.1795E+02   1.2082E+02   0.0000E+00  0.0000
   1.2082E+02   1.2376E+02   0.0000E+00  0.0000
   1.2376E+02   1.2677E+02   0.0000E+00  0.0000
   1.2677E+02   1.2985E+02   0.0000E+00  0.0000
   1.2985E+02   1.3301E+02   0.0000E+00  0.0000
   1.3301E+02   1.3625E+02   0.0000E+00  0.0000
   1.3625E+02   1.3956E+02   0.0000E+00  0.0000
   1.3956E+02   1.4296E+02   0.0000E+00  0.0000
   1.4296E+02   1.4644E+02   0.0000E+00  0.0000
   1.4644E+02   1.5000E+02   0.0000E+00  0.0000

#   sum over                 2.5664E-05
'no. =    1   reg = 111 - 211'
msuc: {\huge [t-cross] in region mesh}
msdr: {\it plotted by \ANGEL \version}
msdl: {\it calculated by \PHITS  3.26}
wt: s(0.7)
\vspace{-3}
  region surface crossing
  area  &=&   1.0000E+00 [cm^2]
e:
 
# Information for Restart Calculation
# This calculation was newly started
# istdev =  2 # 1:Batch variance, 2:History variance
# resc2  = 2.00000000000000000E+09 # Total source weight or Total source weight / maxcas
# resc3  = 2.00000000000000000E+09 # Total history number or Total batch number
# maxcas =   500000000 # History / Batch, only used for istdev=1
# bitrseed = 0011011010010000100111110110001101100001010011100000011100000110 # bit data of rseed
