[ T-Cross ]
    title = [t-cross] in region mesh
     mesh =  reg            # mesh type is region-wise
      reg =    1            # number of crossing regions
      non     r-from    r-to       area
      1       126       226        1.000000    
   e-type =    3            # e-mesh is log given by emin, emax and ne
     emin =  1.0000000E-02  # minimum value of e-mesh points
     emax =   150.0000      # maximum value of e-mesh points
#    edel =  2.4039514E-02  # mesh width of e-mesh points
       ne =    400          # number of e-mesh points
#    data = ( e(i), i = 1, ne + 1 )
#           1.00000E-02  1.02433E-02  1.04925E-02  1.07478E-02  1.10093E-02
#           1.12772E-02  1.15516E-02  1.18326E-02  1.21205E-02  1.24154E-02
#           1.27175E-02  1.30269E-02  1.33439E-02  1.36686E-02  1.40011E-02
#           1.43418E-02  1.46907E-02  1.50482E-02  1.54143E-02  1.57894E-02
#           1.61735E-02  1.65670E-02  1.69701E-02  1.73830E-02  1.78060E-02
#           1.82392E-02  1.86830E-02  1.91375E-02  1.96032E-02  2.00801E-02
#           2.05687E-02  2.10692E-02  2.15818E-02  2.21069E-02  2.26448E-02
#           2.31957E-02  2.37601E-02  2.43382E-02  2.49304E-02  2.55369E-02
#           2.61583E-02  2.67947E-02  2.74467E-02  2.81145E-02  2.87985E-02
#           2.94992E-02  3.02169E-02  3.09521E-02  3.17052E-02  3.24766E-02
#           3.32668E-02  3.40762E-02  3.49053E-02  3.57546E-02  3.66246E-02
#           3.75157E-02  3.84284E-02  3.93634E-02  4.03212E-02  4.13022E-02
#           4.23071E-02  4.33365E-02  4.43909E-02  4.54710E-02  4.65773E-02
#           4.77106E-02  4.88714E-02  5.00605E-02  5.12785E-02  5.25262E-02
#           5.38042E-02  5.51133E-02  5.64542E-02  5.78278E-02  5.92348E-02
#           6.06760E-02  6.21523E-02  6.36645E-02  6.52135E-02  6.68002E-02
#           6.84255E-02  7.00904E-02  7.17957E-02  7.35426E-02  7.53319E-02
#           7.71648E-02  7.90423E-02  8.09655E-02  8.29354E-02  8.49533E-02
#           8.70203E-02  8.91376E-02  9.13064E-02  9.35279E-02  9.58035E-02
#           9.81345E-02  1.00522E-01  1.02968E-01  1.05473E-01  1.08040E-01
#           1.10668E-01  1.13361E-01  1.16119E-01  1.18944E-01  1.21838E-01
#           1.24803E-01  1.27839E-01  1.30950E-01  1.34136E-01  1.37399E-01
#           1.40742E-01  1.44167E-01  1.47675E-01  1.51268E-01  1.54948E-01
#           1.58718E-01  1.62580E-01  1.66535E-01  1.70587E-01  1.74738E-01
#           1.78989E-01  1.83344E-01  1.87805E-01  1.92375E-01  1.97055E-01
#           2.01850E-01  2.06761E-01  2.11792E-01  2.16945E-01  2.22223E-01
#           2.27630E-01  2.33169E-01  2.38842E-01  2.44653E-01  2.50605E-01
#           2.56703E-01  2.62949E-01  2.69346E-01  2.75900E-01  2.82613E-01
#           2.89489E-01  2.96532E-01  3.03747E-01  3.11138E-01  3.18708E-01
#           3.26462E-01  3.34405E-01  3.42542E-01  3.50876E-01  3.59413E-01
#           3.68158E-01  3.77116E-01  3.86291E-01  3.95690E-01  4.05317E-01
#           4.15179E-01  4.25281E-01  4.35628E-01  4.46227E-01  4.57084E-01
#           4.68205E-01  4.79597E-01  4.91266E-01  5.03219E-01  5.15463E-01
#           5.28005E-01  5.40851E-01  5.54011E-01  5.67490E-01  5.81298E-01
#           5.95441E-01  6.09929E-01  6.24769E-01  6.39970E-01  6.55541E-01
#           6.71491E-01  6.87828E-01  7.04564E-01  7.21706E-01  7.39266E-01
#           7.57253E-01  7.75678E-01  7.94551E-01  8.13883E-01  8.33685E-01
#           8.53969E-01  8.74747E-01  8.96030E-01  9.17831E-01  9.40163E-01
#           9.63038E-01  9.86469E-01  1.01047E+00  1.03506E+00  1.06024E+00
#           1.08604E+00  1.11246E+00  1.13953E+00  1.16725E+00  1.19565E+00
#           1.22474E+00  1.25454E+00  1.28507E+00  1.31633E+00  1.34836E+00
#           1.38117E+00  1.41477E+00  1.44920E+00  1.48446E+00  1.52057E+00
#           1.55757E+00  1.59547E+00  1.63429E+00  1.67405E+00  1.71478E+00
#           1.75650E+00  1.79924E+00  1.84302E+00  1.88786E+00  1.93379E+00
#           1.98084E+00  2.02904E+00  2.07841E+00  2.12898E+00  2.18078E+00
#           2.23384E+00  2.28819E+00  2.34386E+00  2.40089E+00  2.45930E+00
#           2.51914E+00  2.58043E+00  2.64322E+00  2.70753E+00  2.77341E+00
#           2.84088E+00  2.91001E+00  2.98081E+00  3.05333E+00  3.12762E+00
#           3.20372E+00  3.28167E+00  3.36152E+00  3.44330E+00  3.52708E+00
#           3.61290E+00  3.70080E+00  3.79085E+00  3.88308E+00  3.97756E+00
#           4.07434E+00  4.17347E+00  4.27501E+00  4.37903E+00  4.48557E+00
#           4.59471E+00  4.70650E+00  4.82102E+00  4.93832E+00  5.05847E+00
#           5.18155E+00  5.30762E+00  5.43676E+00  5.56904E+00  5.70453E+00
#           5.84333E+00  5.98550E+00  6.13114E+00  6.28031E+00  6.43312E+00
#           6.58964E+00  6.74997E+00  6.91420E+00  7.08243E+00  7.25475E+00
#           7.43126E+00  7.61207E+00  7.79728E+00  7.98700E+00  8.18133E+00
#           8.38038E+00  8.58428E+00  8.79315E+00  9.00709E+00  9.22624E+00
#           9.45072E+00  9.68067E+00  9.91620E+00  1.01575E+01  1.04046E+01
#           1.06578E+01  1.09171E+01  1.11827E+01  1.14548E+01  1.17335E+01
#           1.20190E+01  1.23114E+01  1.26109E+01  1.29178E+01  1.32321E+01
#           1.35540E+01  1.38838E+01  1.42216E+01  1.45676E+01  1.49221E+01
#           1.52851E+01  1.56570E+01  1.60380E+01  1.64282E+01  1.68279E+01
#           1.72374E+01  1.76568E+01  1.80864E+01  1.85264E+01  1.89772E+01
#           1.94389E+01  1.99119E+01  2.03963E+01  2.08926E+01  2.14009E+01
#           2.19216E+01  2.24550E+01  2.30014E+01  2.35610E+01  2.41343E+01
#           2.47215E+01  2.53230E+01  2.59391E+01  2.65702E+01  2.72167E+01
#           2.78789E+01  2.85572E+01  2.92520E+01  2.99637E+01  3.06928E+01
#           3.14396E+01  3.22045E+01  3.29881E+01  3.37907E+01  3.46128E+01
#           3.54550E+01  3.63177E+01  3.72013E+01  3.81064E+01  3.90336E+01
#           3.99833E+01  4.09561E+01  4.19526E+01  4.29734E+01  4.40189E+01
#           4.50900E+01  4.61870E+01  4.73108E+01  4.84619E+01  4.96410E+01
#           5.08488E+01  5.20860E+01  5.33533E+01  5.46514E+01  5.59812E+01
#           5.73432E+01  5.87384E+01  6.01676E+01  6.16315E+01  6.31311E+01
#           6.46671E+01  6.62405E+01  6.78522E+01  6.95031E+01  7.11941E+01
#           7.29263E+01  7.47007E+01  7.65182E+01  7.83800E+01  8.02870E+01
#           8.22405E+01  8.42414E+01  8.62911E+01  8.83906E+01  9.05412E+01
#           9.27442E+01  9.50007E+01  9.73122E+01  9.96799E+01  1.02105E+02
#           1.04589E+02  1.07134E+02  1.09741E+02  1.12411E+02  1.15146E+02
#           1.17948E+02  1.20817E+02  1.23757E+02  1.26768E+02  1.29852E+02
#           1.33012E+02  1.36248E+02  1.39563E+02  1.42959E+02  1.46437E+02
#           1.50000E+02
     unit =    2            # unit is [1/cm^2/(MeV/n)/source]
     axis =  eng            # axis of output
     file = detector-27.out  # file name of output for the above axis
   output = f-curr          # surface crossing forward current spectrum
     part =  neutron  
# kf/name :  2112     
#    used :        main (  %)        temp (  %)       total (  %)
#  memory :         414 (  0)           0 (  0)         414 (  0)

#------------------------------------------------------------------------------
#newpage:
#   no. =    1   reg = 126 - 226

x: Energy [MeV/n]
y:  F-Curr [1/cm^2/(MeV/n)/source]         
p: xlog ylog afac(0.8) form(0.9)
h: n            x            y(neutron ),hh0l   n 
#  e-lower      e-upper      neutron     r.err 
   1.0000E-02   1.0243E-02   2.4277E-03  0.0336
   1.0243E-02   1.0493E-02   2.5118E-03  0.0326
   1.0493E-02   1.0748E-02   2.4625E-03  0.0326
   1.0748E-02   1.1009E-02   2.4397E-03  0.0323
   1.1009E-02   1.1277E-02   2.1030E-03  0.0344
   1.1277E-02   1.1552E-02   2.2572E-03  0.0328
   1.1552E-02   1.1833E-02   2.2178E-03  0.0327
   1.1833E-02   1.2121E-02   2.1929E-03  0.0325
   1.2121E-02   1.2415E-02   2.3443E-03  0.0311
   1.2415E-02   1.2718E-02   2.1297E-03  0.0322
   1.2718E-02   1.3027E-02   2.2321E-03  0.0311
   1.3027E-02   1.3344E-02   2.1717E-03  0.0311
   1.3344E-02   1.3669E-02   2.0185E-03  0.0319
   1.3669E-02   1.4001E-02   2.1309E-03  0.0307
   1.4001E-02   1.4342E-02   2.1194E-03  0.0304
   1.4342E-02   1.4691E-02   2.1302E-03  0.0299
   1.4691E-02   1.5048E-02   2.0405E-03  0.0302
   1.5048E-02   1.5414E-02   2.0430E-03  0.0299
   1.5414E-02   1.5789E-02   1.9269E-03  0.0304
   1.5789E-02   1.6174E-02   1.9957E-03  0.0295
   1.6174E-02   1.6567E-02   2.0923E-03  0.0285
   1.6567E-02   1.6970E-02   2.0219E-03  0.0286
   1.6970E-02   1.7383E-02   2.0070E-03  0.0284
   1.7383E-02   1.7806E-02   1.9609E-03  0.0284
   1.7806E-02   1.8239E-02   1.7912E-03  0.0293
   1.8239E-02   1.8683E-02   1.9049E-03  0.0281
   1.8683E-02   1.9138E-02   1.9212E-03  0.0276
   1.9138E-02   1.9603E-02   1.8441E-03  0.0279
   1.9603E-02   2.0080E-02   1.8324E-03  0.0276
   2.0080E-02   2.0569E-02   1.8571E-03  0.0271
   2.0569E-02   2.1069E-02   1.7984E-03  0.0272
   2.1069E-02   2.1582E-02   1.8298E-03  0.0267
   2.1582E-02   2.2107E-02   1.7533E-03  0.0269
   2.2107E-02   2.2645E-02   1.7798E-03  0.0264
   2.2645E-02   2.3196E-02   1.7472E-03  0.0263
   2.3196E-02   2.3760E-02   1.6986E-03  0.0264
   2.3760E-02   2.4338E-02   1.7552E-03  0.0256
   2.4338E-02   2.4930E-02   1.7349E-03  0.0255
   2.4930E-02   2.5537E-02   1.6178E-03  0.0261
   2.5537E-02   2.6158E-02   1.5300E-03  0.0265
   2.6158E-02   2.6795E-02   1.6131E-03  0.0255
   2.6795E-02   2.7447E-02   1.6627E-03  0.0248
   2.7447E-02   2.8114E-02   1.5763E-03  0.0252
   2.8114E-02   2.8799E-02   1.6100E-03  0.0246
   2.8799E-02   2.9499E-02   1.5880E-03  0.0245
   2.9499E-02   3.0217E-02   1.5721E-03  0.0243
   3.0217E-02   3.0952E-02   1.5578E-03  0.0241
   3.0952E-02   3.1705E-02   1.5262E-03  0.0241
   3.1705E-02   3.2477E-02   1.5832E-03  0.0234
   3.2477E-02   3.3267E-02   1.5102E-03  0.0236
   3.3267E-02   3.4076E-02   1.4892E-03  0.0235
   3.4076E-02   3.4905E-02   1.5028E-03  0.0231
   3.4905E-02   3.5755E-02   1.3769E-03  0.0239
   3.5755E-02   3.6625E-02   1.4775E-03  0.0228
   3.6625E-02   3.7516E-02   1.4529E-03  0.0227
   3.7516E-02   3.8428E-02   1.4096E-03  0.0228
   3.8428E-02   3.9363E-02   1.3932E-03  0.0226
   3.9363E-02   4.0321E-02   1.3309E-03  0.0229
   4.0321E-02   4.1302E-02   1.3407E-03  0.0225
   4.1302E-02   4.2307E-02   1.3799E-03  0.0219
   4.2307E-02   4.3337E-02   1.3717E-03  0.0217
   4.3337E-02   4.4391E-02   1.3202E-03  0.0219
   4.4391E-02   4.5471E-02   1.3166E-03  0.0217
   4.5471E-02   4.6577E-02   1.3185E-03  0.0214
   4.6577E-02   4.7711E-02   1.2124E-03  0.0220
   4.7711E-02   4.8871E-02   1.2554E-03  0.0214
   4.8871E-02   5.0061E-02   1.2536E-03  0.0211
   5.0061E-02   5.1279E-02   1.2534E-03  0.0209
   5.1279E-02   5.2526E-02   1.2504E-03  0.0207
   5.2526E-02   5.3804E-02   1.1907E-03  0.0209
   5.3804E-02   5.5113E-02   1.2120E-03  0.0205
   5.5113E-02   5.6454E-02   1.1862E-03  0.0205
   5.6454E-02   5.7828E-02   1.1474E-03  0.0206
   5.7828E-02   5.9235E-02   1.1812E-03  0.0200
   5.9235E-02   6.0676E-02   1.1634E-03  0.0199
   6.0676E-02   6.2152E-02   1.1737E-03  0.0196
   6.2152E-02   6.3665E-02   1.1445E-03  0.0196
   6.3665E-02   6.5214E-02   1.1125E-03  0.0197
   6.5214E-02   6.6800E-02   1.0823E-03  0.0197
   6.6800E-02   6.8426E-02   1.1017E-03  0.0193
   6.8426E-02   7.0090E-02   1.0880E-03  0.0192
   7.0090E-02   7.1796E-02   1.0758E-03  0.0191
   7.1796E-02   7.3543E-02   1.0892E-03  0.0187
   7.3543E-02   7.5332E-02   1.0108E-03  0.0192
   7.5332E-02   7.7165E-02   1.0384E-03  0.0187
   7.7165E-02   7.9042E-02   1.0196E-03  0.0187
   7.9042E-02   8.0965E-02   1.0370E-03  0.0183
   8.0965E-02   8.2935E-02   9.8581E-04  0.0185
   8.2935E-02   8.4953E-02   9.6999E-04  0.0185
   8.4953E-02   8.7020E-02   9.9501E-04  0.0180
   8.7020E-02   8.9138E-02   9.9436E-04  0.0178
   8.9138E-02   9.1306E-02   9.6905E-04  0.0178
   9.1306E-02   9.3528E-02   9.6299E-04  0.0177
   9.3528E-02   9.5804E-02   9.8582E-04  0.0172
   9.5804E-02   9.8134E-02   9.4381E-04  0.0174
   9.8134E-02   1.0052E-01   9.3144E-04  0.0173
   1.0052E-01   1.0297E-01   9.2213E-04  0.0172
   1.0297E-01   1.0547E-01   8.7442E-04  0.0174
   1.0547E-01   1.0804E-01   8.6897E-04  0.0173
   1.0804E-01   1.1067E-01   8.9322E-04  0.0169
   1.1067E-01   1.1336E-01   8.5195E-04  0.0170
   1.1336E-01   1.1612E-01   8.3631E-04  0.0170
   1.1612E-01   1.1894E-01   8.3909E-04  0.0168
   1.1894E-01   1.2184E-01   8.2423E-04  0.0167
   1.2184E-01   1.2480E-01   8.2714E-04  0.0165
   1.2480E-01   1.2784E-01   8.1759E-04  0.0164
   1.2784E-01   1.3095E-01   8.0696E-04  0.0163
   1.3095E-01   1.3414E-01   7.9993E-04  0.0162
   1.3414E-01   1.3740E-01   8.0728E-04  0.0159
   1.3740E-01   1.4074E-01   7.7016E-04  0.0161
   1.4074E-01   1.4417E-01   7.7289E-04  0.0159
   1.4417E-01   1.4767E-01   7.7354E-04  0.0157
   1.4767E-01   1.5127E-01   7.6964E-04  0.0155
   1.5127E-01   1.5495E-01   7.4900E-04  0.0156
   1.5495E-01   1.5872E-01   7.4323E-04  0.0154
   1.5872E-01   1.6258E-01   7.2308E-04  0.0155
   1.6258E-01   1.6654E-01   7.0093E-04  0.0155
   1.6654E-01   1.7059E-01   7.0913E-04  0.0152
   1.7059E-01   1.7474E-01   7.0240E-04  0.0151
   1.7474E-01   1.7899E-01   6.7364E-04  0.0153
   1.7899E-01   1.8334E-01   6.7770E-04  0.0150
   1.8334E-01   1.8781E-01   6.7744E-04  0.0149
   1.8781E-01   1.9237E-01   6.6383E-04  0.0148
   1.9237E-01   1.9706E-01   6.4379E-04  0.0149
   1.9706E-01   2.0185E-01   6.3239E-04  0.0148
   2.0185E-01   2.0676E-01   6.4859E-04  0.0145
   2.0676E-01   2.1179E-01   6.3226E-04  0.0145
   2.1179E-01   2.1694E-01   6.1206E-04  0.0145
   2.1694E-01   2.2222E-01   6.1003E-04  0.0144
   2.2222E-01   2.2763E-01   6.0195E-04  0.0143
   2.2763E-01   2.3317E-01   5.9114E-04  0.0143
   2.3317E-01   2.3884E-01   5.7181E-04  0.0143
   2.3884E-01   2.4465E-01   5.6947E-04  0.0142
   2.4465E-01   2.5061E-01   5.7364E-04  0.0140
   2.5061E-01   2.5670E-01   5.7259E-04  0.0138
   2.5670E-01   2.6295E-01   5.4063E-04  0.0141
   2.6295E-01   2.6935E-01   5.4196E-04  0.0139
   2.6935E-01   2.7590E-01   5.4058E-04  0.0137
   2.7590E-01   2.8261E-01   5.3271E-04  0.0137
   2.8261E-01   2.8949E-01   5.1366E-04  0.0137
   2.8949E-01   2.9653E-01   5.1348E-04  0.0136
   2.9653E-01   3.0375E-01   5.0174E-04  0.0136
   3.0375E-01   3.1114E-01   4.9848E-04  0.0135
   3.1114E-01   3.1871E-01   4.8801E-04  0.0134
   3.1871E-01   3.2646E-01   4.8953E-04  0.0133
   3.2646E-01   3.3441E-01   4.7119E-04  0.0133
   3.3441E-01   3.4254E-01   4.8031E-04  0.0131
   3.4254E-01   3.5088E-01   4.5987E-04  0.0132
   3.5088E-01   3.5941E-01   4.4582E-04  0.0132
   3.5941E-01   3.6816E-01   4.4072E-04  0.0132
   3.6816E-01   3.7712E-01   4.3963E-04  0.0130
   3.7712E-01   3.8629E-01   4.2628E-04  0.0131
   3.8629E-01   3.9569E-01   4.1764E-04  0.0130
   3.9569E-01   4.0532E-01   4.1112E-04  0.0130
   4.0532E-01   4.1518E-01   4.1338E-04  0.0128
   4.1518E-01   4.2528E-01   4.0759E-04  0.0127
   4.2528E-01   4.3563E-01   3.8457E-04  0.0129
   4.3563E-01   4.4623E-01   3.8657E-04  0.0128
   4.4623E-01   4.5708E-01   3.7628E-04  0.0128
   4.5708E-01   4.6821E-01   3.6255E-04  0.0129
   4.6821E-01   4.7960E-01   3.5610E-04  0.0128
   4.7960E-01   4.9127E-01   3.5096E-04  0.0128
   4.9127E-01   5.0322E-01   3.3755E-04  0.0129
   5.0322E-01   5.1546E-01   3.2931E-04  0.0129
   5.1546E-01   5.2800E-01   3.3223E-04  0.0126
   5.2800E-01   5.4085E-01   3.1858E-04  0.0128
   5.4085E-01   5.5401E-01   3.2167E-04  0.0125
   5.5401E-01   5.6749E-01   3.0748E-04  0.0127
   5.6749E-01   5.8130E-01   3.0607E-04  0.0126
   5.8130E-01   5.9544E-01   2.9210E-04  0.0127
   5.9544E-01   6.0993E-01   2.8724E-04  0.0127
   6.0993E-01   6.2477E-01   2.7855E-04  0.0127
   6.2477E-01   6.3997E-01   2.6546E-04  0.0129
   6.3997E-01   6.5554E-01   2.6348E-04  0.0127
   6.5554E-01   6.7149E-01   2.5196E-04  0.0129
   6.7149E-01   6.8783E-01   2.5328E-04  0.0127
   6.8783E-01   7.0456E-01   2.4348E-04  0.0128
   7.0456E-01   7.2171E-01   2.3944E-04  0.0127
   7.2171E-01   7.3927E-01   2.2802E-04  0.0129
   7.3927E-01   7.5725E-01   2.2227E-04  0.0129
   7.5725E-01   7.7568E-01   2.1265E-04  0.0130
   7.7568E-01   7.9455E-01   2.0836E-04  0.0130
   7.9455E-01   8.1388E-01   2.0084E-04  0.0131
   8.1388E-01   8.3368E-01   1.9594E-04  0.0131
   8.3368E-01   8.5397E-01   1.8934E-04  0.0132
   8.5397E-01   8.7475E-01   1.7926E-04  0.0134
   8.7475E-01   8.9603E-01   1.7391E-04  0.0134
   8.9603E-01   9.1783E-01   1.6788E-04  0.0135
   9.1783E-01   9.4016E-01   1.6097E-04  0.0136
   9.4016E-01   9.6304E-01   1.5175E-04  0.0139
   9.6304E-01   9.8647E-01   1.4536E-04  0.0140
   9.8647E-01   1.0105E+00   1.4332E-04  0.0139
   1.0105E+00   1.0351E+00   1.3696E-04  0.0141
   1.0351E+00   1.0602E+00   1.4046E-04  0.0137
   1.0602E+00   1.0860E+00   1.3994E-04  0.0136
   1.0860E+00   1.1125E+00   1.4260E-04  0.0133
   1.1125E+00   1.1395E+00   1.4559E-04  0.0130
   1.1395E+00   1.1673E+00   1.5021E-04  0.0127
   1.1673E+00   1.1957E+00   1.5136E-04  0.0125
   1.1957E+00   1.2247E+00   1.5723E-04  0.0121
   1.2247E+00   1.2545E+00   1.5567E-04  0.0120
   1.2545E+00   1.2851E+00   1.5966E-04  0.0117
   1.2851E+00   1.3163E+00   1.5565E-04  0.0117
   1.3163E+00   1.3484E+00   1.6022E-04  0.0114
   1.3484E+00   1.3812E+00   1.6389E-04  0.0111
   1.3812E+00   1.4148E+00   1.6424E-04  0.0110
   1.4148E+00   1.4492E+00   1.6137E-04  0.0110
   1.4492E+00   1.4845E+00   1.6126E-04  0.0108
   1.4845E+00   1.5206E+00   1.6103E-04  0.0107
   1.5206E+00   1.5576E+00   1.6110E-04  0.0106
   1.5576E+00   1.5955E+00   1.6001E-04  0.0105
   1.5955E+00   1.6343E+00   1.5890E-04  0.0104
   1.6343E+00   1.6741E+00   1.6063E-04  0.0102
   1.6741E+00   1.7148E+00   1.6289E-04  0.0100
   1.7148E+00   1.7565E+00   1.6070E-04  0.0100
   1.7565E+00   1.7992E+00   1.5855E-04  0.0099
   1.7992E+00   1.8430E+00   1.5739E-04  0.0098
   1.8430E+00   1.8879E+00   1.5616E-04  0.0098
   1.8879E+00   1.9338E+00   1.5282E-04  0.0097
   1.9338E+00   1.9808E+00   1.5389E-04  0.0096
   1.9808E+00   2.0290E+00   1.5147E-04  0.0096
   2.0290E+00   2.0784E+00   1.4502E-04  0.0097
   2.0784E+00   2.1290E+00   1.4483E-04  0.0095
   2.1290E+00   2.1808E+00   1.4248E-04  0.0095
   2.1808E+00   2.2338E+00   1.3933E-04  0.0095
   2.2338E+00   2.2882E+00   1.3179E-04  0.0096
   2.2882E+00   2.3439E+00   1.3110E-04  0.0096
   2.3439E+00   2.4009E+00   1.3047E-04  0.0095
   2.4009E+00   2.4593E+00   1.2711E-04  0.0095
   2.4593E+00   2.5191E+00   1.2262E-04  0.0095
   2.5191E+00   2.5804E+00   1.1762E-04  0.0096
   2.5804E+00   2.6432E+00   1.1227E-04  0.0097
   2.6432E+00   2.7075E+00   1.0973E-04  0.0097
   2.7075E+00   2.7734E+00   1.0588E-04  0.0098
   2.7734E+00   2.8409E+00   1.0288E-04  0.0098
   2.8409E+00   2.9100E+00   1.0145E-04  0.0098
   2.9100E+00   2.9808E+00   9.7605E-05  0.0098
   2.9808E+00   3.0533E+00   9.3655E-05  0.0099
   3.0533E+00   3.1276E+00   8.9442E-05  0.0100
   3.1276E+00   3.2037E+00   8.5110E-05  0.0101
   3.2037E+00   3.2817E+00   8.0719E-05  0.0103
   3.2817E+00   3.3615E+00   7.6790E-05  0.0104
   3.3615E+00   3.4433E+00   7.3588E-05  0.0105
   3.4433E+00   3.5271E+00   7.0145E-05  0.0107
   3.5271E+00   3.6129E+00   6.6219E-05  0.0108
   3.6129E+00   3.7008E+00   6.3326E-05  0.0109
   3.7008E+00   3.7908E+00   6.0341E-05  0.0111
   3.7908E+00   3.8831E+00   5.6234E-05  0.0113
   3.8831E+00   3.9776E+00   5.3536E-05  0.0115
   3.9776E+00   4.0743E+00   5.0845E-05  0.0116
   4.0743E+00   4.1735E+00   4.9174E-05  0.0117
   4.1735E+00   4.2750E+00   4.4079E-05  0.0122
   4.2750E+00   4.3790E+00   4.2020E-05  0.0124
   4.3790E+00   4.4856E+00   3.8444E-05  0.0128
   4.4856E+00   4.5947E+00   3.5784E-05  0.0131
   4.5947E+00   4.7065E+00   3.3127E-05  0.0134
   4.7065E+00   4.8210E+00   3.0908E-05  0.0137
   4.8210E+00   4.9383E+00   2.9480E-05  0.0139
   4.9383E+00   5.0585E+00   2.7154E-05  0.0143
   5.0585E+00   5.1815E+00   2.6092E-05  0.0144
   5.1815E+00   5.3076E+00   2.3532E-05  0.0150
   5.3076E+00   5.4368E+00   2.1140E-05  0.0156
   5.4368E+00   5.5690E+00   2.0139E-05  0.0158
   5.5690E+00   5.7045E+00   1.8008E-05  0.0165
   5.7045E+00   5.8433E+00   1.6019E-05  0.0173
   5.8433E+00   5.9855E+00   1.4602E-05  0.0179
   5.9855E+00   6.1311E+00   1.3678E-05  0.0183
   6.1311E+00   6.2803E+00   1.2093E-05  0.0192
   6.2803E+00   6.4331E+00   1.1496E-05  0.0195
   6.4331E+00   6.5896E+00   1.0256E-05  0.0204
   6.5896E+00   6.7500E+00   9.5698E-06  0.0208
   6.7500E+00   6.9142E+00   8.3926E-06  0.0220
   6.9142E+00   7.0824E+00   7.6206E-06  0.0228
   7.0824E+00   7.2548E+00   6.6098E-06  0.0242
   7.2548E+00   7.4313E+00   6.3036E-06  0.0245
   7.4313E+00   7.6121E+00   5.8976E-06  0.0250
   7.6121E+00   7.7973E+00   5.2644E-06  0.0261
   7.7973E+00   7.9870E+00   4.5490E-06  0.0278
   7.9870E+00   8.1813E+00   4.3071E-06  0.0282
   8.1813E+00   8.3804E+00   3.9034E-06  0.0293
   8.3804E+00   8.5843E+00   3.4216E-06  0.0309
   8.5843E+00   8.7931E+00   2.9222E-06  0.0330
   8.7931E+00   9.0071E+00   2.6565E-06  0.0342
   9.0071E+00   9.2262E+00   2.4869E-06  0.0349
   9.2262E+00   9.4507E+00   2.2481E-06  0.0363
   9.4507E+00   9.6807E+00   2.0701E-06  0.0374
   9.6807E+00   9.9162E+00   1.7322E-06  0.0404
   9.9162E+00   1.0157E+01   1.5985E-06  0.0415
   1.0157E+01   1.0405E+01   1.5497E-06  0.0417
   1.0405E+01   1.0658E+01   1.2272E-06  0.0462
   1.0658E+01   1.0917E+01   1.1003E-06  0.0483
   1.0917E+01   1.1183E+01   1.0742E-06  0.0483
   1.1183E+01   1.1455E+01   9.8009E-07  0.0499
   1.1455E+01   1.1733E+01   8.7428E-07  0.0522
   1.1733E+01   1.2019E+01   7.9280E-07  0.0542
   1.2019E+01   1.2311E+01   7.2382E-07  0.0559
   1.2311E+01   1.2611E+01   6.7658E-07  0.0572
   1.2611E+01   1.2918E+01   5.3123E-07  0.0638
   1.2918E+01   1.3232E+01   6.0346E-07  0.0591
   1.3232E+01   1.3554E+01   4.8041E-07  0.0655
   1.3554E+01   1.3884E+01   4.8012E-07  0.0648
   1.3884E+01   1.4222E+01   4.5983E-07  0.0653
   1.4222E+01   1.4568E+01   3.9207E-07  0.0700
   1.4568E+01   1.4922E+01   4.1286E-07  0.0673
   1.4922E+01   1.5285E+01   3.9295E-07  0.0681
   1.5285E+01   1.5657E+01   3.2267E-07  0.0743
   1.5657E+01   1.6038E+01   3.5175E-07  0.0704
   1.6038E+01   1.6428E+01   3.1863E-07  0.0730
   1.6428E+01   1.6828E+01   3.3191E-07  0.0707
   1.6828E+01   1.7237E+01   2.8413E-07  0.0756
   1.7237E+01   1.7657E+01   2.5592E-07  0.0786
   1.7657E+01   1.8086E+01   3.0338E-07  0.0714
   1.8086E+01   1.8526E+01   2.4845E-07  0.0780
   1.8526E+01   1.8977E+01   2.4403E-07  0.0778
   1.8977E+01   1.9439E+01   2.1225E-07  0.0823
   1.9439E+01   1.9912E+01   2.2905E-07  0.0784
   1.9912E+01   2.0396E+01   1.6994E-07  0.0899
   2.0396E+01   2.0893E+01   2.0151E-07  0.0816
   2.0893E+01   2.1401E+01   1.8754E-07  0.0836
   2.1401E+01   2.1922E+01   1.7028E-07  0.0867
   2.1922E+01   2.2455E+01   1.8499E-07  0.0822
   2.2455E+01   2.3001E+01   1.4521E-07  0.0917
   2.3001E+01   2.3561E+01   1.4652E-07  0.0902
   2.3561E+01   2.4134E+01   1.6630E-07  0.0836
   2.4134E+01   2.4721E+01   1.6349E-07  0.0833
   2.4721E+01   2.5323E+01   1.4298E-07  0.0880
   2.5323E+01   2.5939E+01   1.3850E-07  0.0884
   2.5939E+01   2.6570E+01   1.3944E-07  0.0870
   2.6570E+01   2.7217E+01   1.2272E-07  0.0917
   2.7217E+01   2.7879E+01   1.2282E-07  0.0905
   2.7879E+01   2.8557E+01   1.1794E-07  0.0913
   2.8557E+01   2.9252E+01   1.2377E-07  0.0880
   2.9252E+01   2.9964E+01   9.6479E-08  0.0985
   2.9964E+01   3.0693E+01   1.1156E-07  0.0905
   3.0693E+01   3.1440E+01   8.3023E-08  0.1037
   3.1440E+01   3.2205E+01   1.0458E-07  0.0913
   3.2205E+01   3.2988E+01   8.5082E-08  0.1000
   3.2988E+01   3.3791E+01   7.0602E-08  0.1085
   3.3791E+01   3.4613E+01   6.5681E-08  0.1111
   3.4613E+01   3.5455E+01   7.1246E-08  0.1054
   3.5455E+01   3.6318E+01   6.4144E-08  0.1098
   3.6318E+01   3.7201E+01   7.0919E-08  0.1031
   3.7201E+01   3.8106E+01   6.1133E-08  0.1098
   3.8106E+01   3.9034E+01   5.0333E-08  0.1195
   3.9034E+01   3.9983E+01   4.6330E-08  0.1231
   3.9983E+01   4.0956E+01   4.3173E-08  0.1260
   4.0956E+01   4.1953E+01   3.8134E-08  0.1325
   4.1953E+01   4.2973E+01   3.3309E-08  0.1400
   4.2973E+01   4.4019E+01   3.8256E-08  0.1291
   4.4019E+01   4.5090E+01   2.4898E-08  0.1581
   4.5090E+01   4.6187E+01   2.4307E-08  0.1581
   4.6187E+01   4.7311E+01   2.6103E-08  0.1508
   4.7311E+01   4.8462E+01   1.5058E-08  0.1961
   4.8462E+01   4.9641E+01   2.0920E-08  0.1644
   4.9641E+01   5.0849E+01   1.8767E-08  0.1715
   5.0849E+01   5.2086E+01   1.5627E-08  0.1857
   5.2086E+01   5.3353E+01   1.1047E-08  0.2182
   5.3353E+01   5.4651E+01   1.1298E-08  0.2132
   5.4651E+01   5.5981E+01   1.1030E-08  0.2132
   5.5981E+01   5.7343E+01   9.2996E-09  0.2294
   5.7343E+01   5.8738E+01   8.1231E-09  0.2425
   5.8738E+01   6.0168E+01   5.5977E-09  0.2887
   6.0168E+01   6.1632E+01   7.2863E-09  0.2500
   6.1632E+01   6.3131E+01   4.4458E-09  0.3162
   6.3131E+01   6.4667E+01   3.0381E-09  0.3780
   6.4667E+01   6.6240E+01   2.9660E-09  0.3780
   6.6240E+01   6.7852E+01   2.0682E-09  0.4472
   6.7852E+01   6.9503E+01   1.6153E-09  0.5000
   6.9503E+01   7.1194E+01   1.1827E-09  0.5774
   7.1194E+01   7.2926E+01   3.8486E-10  1.0000
   7.2926E+01   7.4701E+01   1.1272E-09  0.5774
   7.4701E+01   7.6518E+01   1.4672E-09  0.5000
   7.6518E+01   7.8380E+01   7.1617E-10  0.7071
   7.8380E+01   8.0287E+01   0.0000E+00  0.0000
   8.0287E+01   8.2240E+01   3.4128E-10  1.0000
   8.2240E+01   8.4241E+01   3.3317E-10  1.0000
   8.4241E+01   8.6291E+01   0.0000E+00  0.0000
   8.6291E+01   8.8391E+01   0.0000E+00  0.0000
   8.8391E+01   9.0541E+01   0.0000E+00  0.0000
   9.0541E+01   9.2744E+01   0.0000E+00  0.0000
   9.2744E+01   9.5001E+01   2.9544E-10  1.0000
   9.5001E+01   9.7312E+01   2.8842E-10  1.0000
   9.7312E+01   9.9680E+01   0.0000E+00  0.0000
   9.9680E+01   1.0211E+02   0.0000E+00  0.0000
   1.0211E+02   1.0459E+02   0.0000E+00  0.0000
   1.0459E+02   1.0713E+02   0.0000E+00  0.0000
   1.0713E+02   1.0974E+02   0.0000E+00  0.0000
   1.0974E+02   1.1241E+02   2.4968E-10  1.0000
   1.1241E+02   1.1515E+02   0.0000E+00  0.0000
   1.1515E+02   1.1795E+02   0.0000E+00  0.0000
   1.1795E+02   1.2082E+02   0.0000E+00  0.0000
   1.2082E+02   1.2376E+02   0.0000E+00  0.0000
   1.2376E+02   1.2677E+02   0.0000E+00  0.0000
   1.2677E+02   1.2985E+02   0.0000E+00  0.0000
   1.2985E+02   1.3301E+02   0.0000E+00  0.0000
   1.3301E+02   1.3625E+02   0.0000E+00  0.0000
   1.3625E+02   1.3956E+02   0.0000E+00  0.0000
   1.3956E+02   1.4296E+02   0.0000E+00  0.0000
   1.4296E+02   1.4644E+02   0.0000E+00  0.0000
   1.4644E+02   1.5000E+02   0.0000E+00  0.0000

#   sum over                 5.8924E-06
'no. =    1   reg = 126 - 226'
msuc: {\huge [t-cross] in region mesh}
msdr: {\it plotted by \ANGEL \version}
msdl: {\it calculated by \PHITS  3.26}
wt: s(0.7)
\vspace{-3}
  region surface crossing
  area  &=&   1.0000E+00 [cm^2]
e:
 
# Information for Restart Calculation
# This calculation was newly started
# istdev =  2 # 1:Batch variance, 2:History variance
# resc2  = 1.50000000000000000E+09 # Total source weight or Total source weight / maxcas
# resc3  = 1.50000000000000000E+09 # Total history number or Total batch number
# maxcas =   500000000 # History / Batch, only used for istdev=1
# bitrseed = 0000010101110101110110100110011001100101000001100111100100101101 # bit data of rseed
