[ T-Cross ]
    title = [t-cross] in region mesh
     mesh =  reg            # mesh type is region-wise
      reg =    1            # number of crossing regions
      non     r-from    r-to       area
      1       109       209        1.000000    
   e-type =    3            # e-mesh is log given by emin, emax and ne
     emin =  1.0000000E-02  # minimum value of e-mesh points
     emax =   150.0000      # maximum value of e-mesh points
#    edel =  2.4039514E-02  # mesh width of e-mesh points
       ne =    400          # number of e-mesh points
#    data = ( e(i), i = 1, ne + 1 )
#           1.00000E-02  1.02433E-02  1.04925E-02  1.07478E-02  1.10093E-02
#           1.12772E-02  1.15516E-02  1.18326E-02  1.21205E-02  1.24154E-02
#           1.27175E-02  1.30269E-02  1.33439E-02  1.36686E-02  1.40011E-02
#           1.43418E-02  1.46907E-02  1.50482E-02  1.54143E-02  1.57894E-02
#           1.61735E-02  1.65670E-02  1.69701E-02  1.73830E-02  1.78060E-02
#           1.82392E-02  1.86830E-02  1.91375E-02  1.96032E-02  2.00801E-02
#           2.05687E-02  2.10692E-02  2.15818E-02  2.21069E-02  2.26448E-02
#           2.31957E-02  2.37601E-02  2.43382E-02  2.49304E-02  2.55369E-02
#           2.61583E-02  2.67947E-02  2.74467E-02  2.81145E-02  2.87985E-02
#           2.94992E-02  3.02169E-02  3.09521E-02  3.17052E-02  3.24766E-02
#           3.32668E-02  3.40762E-02  3.49053E-02  3.57546E-02  3.66246E-02
#           3.75157E-02  3.84284E-02  3.93634E-02  4.03212E-02  4.13022E-02
#           4.23071E-02  4.33365E-02  4.43909E-02  4.54710E-02  4.65773E-02
#           4.77106E-02  4.88714E-02  5.00605E-02  5.12785E-02  5.25262E-02
#           5.38042E-02  5.51133E-02  5.64542E-02  5.78278E-02  5.92348E-02
#           6.06760E-02  6.21523E-02  6.36645E-02  6.52135E-02  6.68002E-02
#           6.84255E-02  7.00904E-02  7.17957E-02  7.35426E-02  7.53319E-02
#           7.71648E-02  7.90423E-02  8.09655E-02  8.29354E-02  8.49533E-02
#           8.70203E-02  8.91376E-02  9.13064E-02  9.35279E-02  9.58035E-02
#           9.81345E-02  1.00522E-01  1.02968E-01  1.05473E-01  1.08040E-01
#           1.10668E-01  1.13361E-01  1.16119E-01  1.18944E-01  1.21838E-01
#           1.24803E-01  1.27839E-01  1.30950E-01  1.34136E-01  1.37399E-01
#           1.40742E-01  1.44167E-01  1.47675E-01  1.51268E-01  1.54948E-01
#           1.58718E-01  1.62580E-01  1.66535E-01  1.70587E-01  1.74738E-01
#           1.78989E-01  1.83344E-01  1.87805E-01  1.92375E-01  1.97055E-01
#           2.01850E-01  2.06761E-01  2.11792E-01  2.16945E-01  2.22223E-01
#           2.27630E-01  2.33169E-01  2.38842E-01  2.44653E-01  2.50605E-01
#           2.56703E-01  2.62949E-01  2.69346E-01  2.75900E-01  2.82613E-01
#           2.89489E-01  2.96532E-01  3.03747E-01  3.11138E-01  3.18708E-01
#           3.26462E-01  3.34405E-01  3.42542E-01  3.50876E-01  3.59413E-01
#           3.68158E-01  3.77116E-01  3.86291E-01  3.95690E-01  4.05317E-01
#           4.15179E-01  4.25281E-01  4.35628E-01  4.46227E-01  4.57084E-01
#           4.68205E-01  4.79597E-01  4.91266E-01  5.03219E-01  5.15463E-01
#           5.28005E-01  5.40851E-01  5.54011E-01  5.67490E-01  5.81298E-01
#           5.95441E-01  6.09929E-01  6.24769E-01  6.39970E-01  6.55541E-01
#           6.71491E-01  6.87828E-01  7.04564E-01  7.21706E-01  7.39266E-01
#           7.57253E-01  7.75678E-01  7.94551E-01  8.13883E-01  8.33685E-01
#           8.53969E-01  8.74747E-01  8.96030E-01  9.17831E-01  9.40163E-01
#           9.63038E-01  9.86469E-01  1.01047E+00  1.03506E+00  1.06024E+00
#           1.08604E+00  1.11246E+00  1.13953E+00  1.16725E+00  1.19565E+00
#           1.22474E+00  1.25454E+00  1.28507E+00  1.31633E+00  1.34836E+00
#           1.38117E+00  1.41477E+00  1.44920E+00  1.48446E+00  1.52057E+00
#           1.55757E+00  1.59547E+00  1.63429E+00  1.67405E+00  1.71478E+00
#           1.75650E+00  1.79924E+00  1.84302E+00  1.88786E+00  1.93379E+00
#           1.98084E+00  2.02904E+00  2.07841E+00  2.12898E+00  2.18078E+00
#           2.23384E+00  2.28819E+00  2.34386E+00  2.40089E+00  2.45930E+00
#           2.51914E+00  2.58043E+00  2.64322E+00  2.70753E+00  2.77341E+00
#           2.84088E+00  2.91001E+00  2.98081E+00  3.05333E+00  3.12762E+00
#           3.20372E+00  3.28167E+00  3.36152E+00  3.44330E+00  3.52708E+00
#           3.61290E+00  3.70080E+00  3.79085E+00  3.88308E+00  3.97756E+00
#           4.07434E+00  4.17347E+00  4.27501E+00  4.37903E+00  4.48557E+00
#           4.59471E+00  4.70650E+00  4.82102E+00  4.93832E+00  5.05847E+00
#           5.18155E+00  5.30762E+00  5.43676E+00  5.56904E+00  5.70453E+00
#           5.84333E+00  5.98550E+00  6.13114E+00  6.28031E+00  6.43312E+00
#           6.58964E+00  6.74997E+00  6.91420E+00  7.08243E+00  7.25475E+00
#           7.43126E+00  7.61207E+00  7.79728E+00  7.98700E+00  8.18133E+00
#           8.38038E+00  8.58428E+00  8.79315E+00  9.00709E+00  9.22624E+00
#           9.45072E+00  9.68067E+00  9.91620E+00  1.01575E+01  1.04046E+01
#           1.06578E+01  1.09171E+01  1.11827E+01  1.14548E+01  1.17335E+01
#           1.20190E+01  1.23114E+01  1.26109E+01  1.29178E+01  1.32321E+01
#           1.35540E+01  1.38838E+01  1.42216E+01  1.45676E+01  1.49221E+01
#           1.52851E+01  1.56570E+01  1.60380E+01  1.64282E+01  1.68279E+01
#           1.72374E+01  1.76568E+01  1.80864E+01  1.85264E+01  1.89772E+01
#           1.94389E+01  1.99119E+01  2.03963E+01  2.08926E+01  2.14009E+01
#           2.19216E+01  2.24550E+01  2.30014E+01  2.35610E+01  2.41343E+01
#           2.47215E+01  2.53230E+01  2.59391E+01  2.65702E+01  2.72167E+01
#           2.78789E+01  2.85572E+01  2.92520E+01  2.99637E+01  3.06928E+01
#           3.14396E+01  3.22045E+01  3.29881E+01  3.37907E+01  3.46128E+01
#           3.54550E+01  3.63177E+01  3.72013E+01  3.81064E+01  3.90336E+01
#           3.99833E+01  4.09561E+01  4.19526E+01  4.29734E+01  4.40189E+01
#           4.50900E+01  4.61870E+01  4.73108E+01  4.84619E+01  4.96410E+01
#           5.08488E+01  5.20860E+01  5.33533E+01  5.46514E+01  5.59812E+01
#           5.73432E+01  5.87384E+01  6.01676E+01  6.16315E+01  6.31311E+01
#           6.46671E+01  6.62405E+01  6.78522E+01  6.95031E+01  7.11941E+01
#           7.29263E+01  7.47007E+01  7.65182E+01  7.83800E+01  8.02870E+01
#           8.22405E+01  8.42414E+01  8.62911E+01  8.83906E+01  9.05412E+01
#           9.27442E+01  9.50007E+01  9.73122E+01  9.96799E+01  1.02105E+02
#           1.04589E+02  1.07134E+02  1.09741E+02  1.12411E+02  1.15146E+02
#           1.17948E+02  1.20817E+02  1.23757E+02  1.26768E+02  1.29852E+02
#           1.33012E+02  1.36248E+02  1.39563E+02  1.42959E+02  1.46437E+02
#           1.50000E+02
     unit =    2            # unit is [1/cm^2/(MeV/n)/source]
     axis =  eng            # axis of output
     file = detector-10.out  # file name of output for the above axis
   output = f-curr          # surface crossing forward current spectrum
     part =  neutron  
# kf/name :  2112     
#    used :        main (  %)        temp (  %)       total (  %)
#  memory :         414 (  0)           0 (  0)         414 (  0)

#------------------------------------------------------------------------------
#newpage:
#   no. =    1   reg = 109 - 209

x: Energy [MeV/n]
y:  F-Curr [1/cm^2/(MeV/n)/source]         
p: xlog ylog afac(0.8) form(0.9)
h: n            x            y(neutron ),hh0l   n 
#  e-lower      e-upper      neutron     r.err 
   1.0000E-02   1.0243E-02   2.0740E-04  0.0712
   1.0243E-02   1.0493E-02   2.5190E-04  0.0638
   1.0493E-02   1.0748E-02   2.1366E-04  0.0685
   1.0748E-02   1.1009E-02   2.0275E-04  0.0695
   1.1009E-02   1.1277E-02   2.1875E-04  0.0661
   1.1277E-02   1.1552E-02   1.9672E-04  0.0689
   1.1552E-02   1.1833E-02   2.1702E-04  0.0648
   1.1833E-02   1.2121E-02   1.9492E-04  0.0676
   1.2121E-02   1.2415E-02   2.0659E-04  0.0648
   1.2415E-02   1.2718E-02   2.2127E-04  0.0619
   1.2718E-02   1.3027E-02   1.8788E-04  0.0664
   1.3027E-02   1.3344E-02   1.7248E-04  0.0684
   1.3344E-02   1.3669E-02   1.7023E-04  0.0680
   1.3669E-02   1.4001E-02   1.8572E-04  0.0644
   1.4001E-02   1.4342E-02   1.6051E-04  0.0684
   1.4342E-02   1.4691E-02   1.8290E-04  0.0634
   1.4691E-02   1.5048E-02   1.7008E-04  0.0649
   1.5048E-02   1.5414E-02   1.8246E-04  0.0619
   1.5414E-02   1.5789E-02   1.4808E-04  0.0679
   1.5789E-02   1.6174E-02   1.5986E-04  0.0646
   1.6174E-02   1.6567E-02   1.4187E-04  0.0677
   1.6567E-02   1.6970E-02   1.4100E-04  0.0671
   1.6970E-02   1.7383E-02   1.5122E-04  0.0640
   1.7383E-02   1.7806E-02   1.2606E-04  0.0693
   1.7806E-02   1.8239E-02   1.4555E-04  0.0638
   1.8239E-02   1.8683E-02   1.3902E-04  0.0644
   1.8683E-02   1.9138E-02   1.3229E-04  0.0652
   1.9138E-02   1.9603E-02   1.3898E-04  0.0629
   1.9603E-02   2.0080E-02   1.2414E-04  0.0658
   2.0080E-02   2.0569E-02   1.2066E-04  0.0659
   2.0569E-02   2.1069E-02   1.1259E-04  0.0674
   2.1069E-02   2.1582E-02   1.2501E-04  0.0632
   2.1582E-02   2.2107E-02   1.2104E-04  0.0634
   2.2107E-02   2.2645E-02   1.1946E-04  0.0631
   2.2645E-02   2.3196E-02   1.2143E-04  0.0619
   2.3196E-02   2.3760E-02   9.8955E-05  0.0677
   2.3760E-02   2.4338E-02   9.6641E-05  0.0677
   2.4338E-02   2.4930E-02   1.0286E-04  0.0648
   2.4930E-02   2.5537E-02   9.3140E-05  0.0673
   2.5537E-02   2.6158E-02   1.0713E-04  0.0620
   2.6158E-02   2.6795E-02   1.0312E-04  0.0625
   2.6795E-02   2.7447E-02   9.3740E-05  0.0647
   2.7447E-02   2.8114E-02   1.0087E-04  0.0617
   2.8114E-02   2.8799E-02   9.3937E-05  0.0630
   2.8799E-02   2.9499E-02   8.2551E-05  0.0665
   2.9499E-02   3.0217E-02   9.7726E-05  0.0604
   3.0217E-02   3.0952E-02   8.2189E-05  0.0651
   3.0952E-02   3.1705E-02   8.6275E-05  0.0628
   3.1705E-02   3.2477E-02   9.2315E-05  0.0600
   3.2477E-02   3.3267E-02   8.4016E-05  0.0621
   3.3267E-02   3.4076E-02   7.7895E-05  0.0637
   3.4076E-02   3.4905E-02   7.7927E-05  0.0629
   3.4905E-02   3.5755E-02   8.2095E-05  0.0606
   3.5755E-02   3.6625E-02   7.4433E-05  0.0629
   3.6625E-02   3.7516E-02   6.7551E-05  0.0652
   3.7516E-02   3.8428E-02   7.5220E-05  0.0611
   3.8428E-02   3.9363E-02   7.3677E-05  0.0609
   3.9363E-02   4.0321E-02   6.1725E-05  0.0658
   4.0321E-02   4.1302E-02   6.0368E-05  0.0658
   4.1302E-02   4.2307E-02   6.8719E-05  0.0609
   4.2307E-02   4.3337E-02   7.3875E-05  0.0582
   4.3337E-02   4.4391E-02   5.9840E-05  0.0637
   4.4391E-02   4.5471E-02   6.1204E-05  0.0623
   4.5471E-02   4.6577E-02   6.1782E-05  0.0612
   4.6577E-02   4.7711E-02   6.0989E-05  0.0609
   4.7711E-02   4.8871E-02   5.9366E-05  0.0610
   4.8871E-02   5.0061E-02   5.1514E-05  0.0647
   5.0061E-02   5.1279E-02   5.2607E-05  0.0632
   5.1279E-02   5.2526E-02   5.7706E-05  0.0596
   5.2526E-02   5.3804E-02   5.3717E-05  0.0611
   5.3804E-02   5.5113E-02   5.4384E-05  0.0599
   5.5113E-02   5.6454E-02   4.6507E-05  0.0640
   5.6454E-02   5.7828E-02   5.5614E-05  0.0579
   5.7828E-02   5.9235E-02   4.9545E-05  0.0606
   5.9235E-02   6.0676E-02   4.9811E-05  0.0597
   6.0676E-02   6.2152E-02   4.7528E-05  0.0604
   6.2152E-02   6.3665E-02   4.9433E-05  0.0585
   6.3665E-02   6.5214E-02   4.7199E-05  0.0592
   6.5214E-02   6.6800E-02   4.8223E-05  0.0578
   6.6800E-02   6.8426E-02   4.5376E-05  0.0589
   6.8426E-02   7.0090E-02   4.0198E-05  0.0618
   7.0090E-02   7.1796E-02   3.7417E-05  0.0634
   7.1796E-02   7.3543E-02   4.8249E-05  0.0551
   7.3543E-02   7.5332E-02   3.9246E-05  0.0604
   7.5332E-02   7.7165E-02   3.9686E-05  0.0593
   7.7165E-02   7.9042E-02   3.8372E-05  0.0596
   7.9042E-02   8.0965E-02   4.0365E-05  0.0574
   8.0965E-02   8.2935E-02   3.6192E-05  0.0599
   8.2935E-02   8.4953E-02   4.3080E-05  0.0543
   8.4953E-02   8.7020E-02   3.8634E-05  0.0566
   8.7020E-02   8.9138E-02   3.7875E-05  0.0565
   8.9138E-02   9.1306E-02   3.8255E-05  0.0555
   9.1306E-02   9.3528E-02   3.5066E-05  0.0573
   9.3528E-02   9.5804E-02   3.3589E-05  0.0579
   9.5804E-02   9.8134E-02   2.9355E-05  0.0612
   9.8134E-02   1.0052E-01   3.4072E-05  0.0561
   1.0052E-01   1.0297E-01   3.4518E-05  0.0550
   1.0297E-01   1.0547E-01   3.1850E-05  0.0566
   1.0547E-01   1.0804E-01   3.6476E-05  0.0523
   1.0804E-01   1.1067E-01   3.5951E-05  0.0521
   1.1067E-01   1.1336E-01   3.3970E-05  0.0529
   1.1336E-01   1.1612E-01   3.4839E-05  0.0516
   1.1612E-01   1.1894E-01   3.9713E-05  0.0478
   1.1894E-01   1.2184E-01   4.1414E-05  0.0462
   1.2184E-01   1.2480E-01   4.2394E-05  0.0451
   1.2480E-01   1.2784E-01   4.1987E-05  0.0448
   1.2784E-01   1.3095E-01   4.5634E-05  0.0425
   1.3095E-01   1.3414E-01   4.5145E-05  0.0422
   1.3414E-01   1.3740E-01   4.9939E-05  0.0396
   1.3740E-01   1.4074E-01   5.0695E-05  0.0389
   1.4074E-01   1.4417E-01   4.7998E-05  0.0395
   1.4417E-01   1.4767E-01   5.5611E-05  0.0362
   1.4767E-01   1.5127E-01   5.5351E-05  0.0359
   1.5127E-01   1.5495E-01   5.7585E-05  0.0348
   1.5495E-01   1.5872E-01   5.9965E-05  0.0336
   1.5872E-01   1.6258E-01   6.0066E-05  0.0332
   1.6258E-01   1.6654E-01   6.0331E-05  0.0328
   1.6654E-01   1.7059E-01   6.1541E-05  0.0320
   1.7059E-01   1.7474E-01   6.2813E-05  0.0313
   1.7474E-01   1.7899E-01   6.6858E-05  0.0300
   1.7899E-01   1.8334E-01   7.0585E-05  0.0289
   1.8334E-01   1.8781E-01   7.2774E-05  0.0281
   1.8781E-01   1.9237E-01   7.2030E-05  0.0279
   1.9237E-01   1.9706E-01   7.3163E-05  0.0273
   1.9706E-01   2.0185E-01   7.8540E-05  0.0261
   2.0185E-01   2.0676E-01   8.0021E-05  0.0255
   2.0676E-01   2.1179E-01   7.5766E-05  0.0259
   2.1179E-01   2.1694E-01   8.4986E-05  0.0242
   2.1694E-01   2.2222E-01   8.3666E-05  0.0241
   2.2222E-01   2.2763E-01   8.7670E-05  0.0232
   2.2763E-01   2.3317E-01   8.6737E-05  0.0231
   2.3317E-01   2.3884E-01   9.3082E-05  0.0220
   2.3884E-01   2.4465E-01   9.3094E-05  0.0217
   2.4465E-01   2.5061E-01   9.6851E-05  0.0211
   2.5061E-01   2.5670E-01   1.0068E-04  0.0204
   2.5670E-01   2.6295E-01   9.9736E-05  0.0203
   2.6295E-01   2.6935E-01   1.0132E-04  0.0199
   2.6935E-01   2.7590E-01   1.0345E-04  0.0194
   2.7590E-01   2.8261E-01   1.1106E-04  0.0185
   2.8261E-01   2.8949E-01   1.1158E-04  0.0183
   2.8949E-01   2.9653E-01   1.1133E-04  0.0181
   2.9653E-01   3.0375E-01   1.1762E-04  0.0174
   3.0375E-01   3.1114E-01   1.1792E-04  0.0171
   3.1114E-01   3.1871E-01   1.1954E-04  0.0168
   3.1871E-01   3.2646E-01   1.1863E-04  0.0167
   3.2646E-01   3.3441E-01   1.2375E-04  0.0161
   3.3441E-01   3.4254E-01   1.2399E-04  0.0159
   3.4254E-01   3.5088E-01   1.2906E-04  0.0154
   3.5088E-01   3.5941E-01   1.3453E-04  0.0149
   3.5941E-01   3.6816E-01   1.3557E-04  0.0147
   3.6816E-01   3.7712E-01   1.3759E-04  0.0144
   3.7712E-01   3.8629E-01   1.3641E-04  0.0143
   3.8629E-01   3.9569E-01   1.4049E-04  0.0139
   3.9569E-01   4.0532E-01   1.4189E-04  0.0137
   4.0532E-01   4.1518E-01   1.4796E-04  0.0132
   4.1518E-01   4.2528E-01   1.5018E-04  0.0130
   4.2528E-01   4.3563E-01   1.5123E-04  0.0128
   4.3563E-01   4.4623E-01   1.5082E-04  0.0126
   4.4623E-01   4.5708E-01   1.5500E-04  0.0123
   4.5708E-01   4.6821E-01   1.5808E-04  0.0121
   4.6821E-01   4.7960E-01   1.5732E-04  0.0119
   4.7960E-01   4.9127E-01   1.5732E-04  0.0118
   4.9127E-01   5.0322E-01   1.6289E-04  0.0115
   5.0322E-01   5.1546E-01   1.6781E-04  0.0112
   5.1546E-01   5.2800E-01   1.6465E-04  0.0111
   5.2800E-01   5.4085E-01   1.6822E-04  0.0109
   5.4085E-01   5.5401E-01   1.6774E-04  0.0108
   5.5401E-01   5.6749E-01   1.7438E-04  0.0104
   5.6749E-01   5.8130E-01   1.7394E-04  0.0103
   5.8130E-01   5.9544E-01   1.7416E-04  0.0102
   5.9544E-01   6.0993E-01   1.7719E-04  0.0100
   6.0993E-01   6.2477E-01   1.8079E-04  0.0098
   6.2477E-01   6.3997E-01   1.8120E-04  0.0096
   6.3997E-01   6.5554E-01   1.8357E-04  0.0095
   6.5554E-01   6.7149E-01   1.8815E-04  0.0092
   6.7149E-01   6.8783E-01   1.8908E-04  0.0091
   6.8783E-01   7.0456E-01   1.9173E-04  0.0089
   7.0456E-01   7.2171E-01   1.8695E-04  0.0089
   7.2171E-01   7.3927E-01   1.9483E-04  0.0086
   7.3927E-01   7.5725E-01   1.9675E-04  0.0085
   7.5725E-01   7.7568E-01   1.9630E-04  0.0084
   7.7568E-01   7.9455E-01   1.9663E-04  0.0083
   7.9455E-01   8.1388E-01   1.9537E-04  0.0082
   8.1388E-01   8.3368E-01   2.0044E-04  0.0080
   8.3368E-01   8.5397E-01   2.0021E-04  0.0079
   8.5397E-01   8.7475E-01   2.0127E-04  0.0078
   8.7475E-01   8.9603E-01   2.0643E-04  0.0076
   8.9603E-01   9.1783E-01   2.0553E-04  0.0075
   9.1783E-01   9.4016E-01   2.0612E-04  0.0074
   9.4016E-01   9.6304E-01   2.0289E-04  0.0074
   9.6304E-01   9.8647E-01   2.0433E-04  0.0073
   9.8647E-01   1.0105E+00   1.9960E-04  0.0073
   1.0105E+00   1.0351E+00   2.0262E-04  0.0072
   1.0351E+00   1.0602E+00   2.0169E-04  0.0071
   1.0602E+00   1.0860E+00   1.9965E-04  0.0070
   1.0860E+00   1.1125E+00   2.0449E-04  0.0069
   1.1125E+00   1.1395E+00   2.0394E-04  0.0068
   1.1395E+00   1.1673E+00   2.0366E-04  0.0067
   1.1673E+00   1.1957E+00   2.0360E-04  0.0066
   1.1957E+00   1.2247E+00   2.0224E-04  0.0066
   1.2247E+00   1.2545E+00   2.0883E-04  0.0064
   1.2545E+00   1.2851E+00   2.0616E-04  0.0064
   1.2851E+00   1.3163E+00   2.0972E-04  0.0062
   1.3163E+00   1.3484E+00   2.0855E-04  0.0062
   1.3484E+00   1.3812E+00   2.0778E-04  0.0061
   1.3812E+00   1.4148E+00   2.0810E-04  0.0060
   1.4148E+00   1.4492E+00   2.0818E-04  0.0060
   1.4492E+00   1.4845E+00   2.0551E-04  0.0059
   1.4845E+00   1.5206E+00   2.0769E-04  0.0058
   1.5206E+00   1.5576E+00   2.0442E-04  0.0058
   1.5576E+00   1.5955E+00   2.0496E-04  0.0057
   1.5955E+00   1.6343E+00   2.0282E-04  0.0057
   1.6343E+00   1.6741E+00   2.0202E-04  0.0056
   1.6741E+00   1.7148E+00   2.0179E-04  0.0056
   1.7148E+00   1.7565E+00   1.9838E-04  0.0055
   1.7565E+00   1.7992E+00   1.9464E-04  0.0055
   1.7992E+00   1.8430E+00   1.8805E-04  0.0055
   1.8430E+00   1.8879E+00   1.7880E-04  0.0056
   1.8879E+00   1.9338E+00   1.7827E-04  0.0055
   1.9338E+00   1.9808E+00   1.7633E-04  0.0055
   1.9808E+00   2.0290E+00   1.7441E-04  0.0055
   2.0290E+00   2.0784E+00   1.7266E-04  0.0054
   2.0784E+00   2.1290E+00   1.7337E-04  0.0053
   2.1290E+00   2.1808E+00   1.7423E-04  0.0053
   2.1808E+00   2.2338E+00   1.7700E-04  0.0051
   2.2338E+00   2.2882E+00   1.7374E-04  0.0051
   2.2882E+00   2.3439E+00   1.7118E-04  0.0051
   2.3439E+00   2.4009E+00   1.6801E-04  0.0051
   2.4009E+00   2.4593E+00   1.6474E-04  0.0051
   2.4593E+00   2.5191E+00   1.6589E-04  0.0050
   2.5191E+00   2.5804E+00   1.6455E-04  0.0050
   2.5804E+00   2.6432E+00   1.6325E-04  0.0049
   2.6432E+00   2.7075E+00   1.6019E-04  0.0049
   2.7075E+00   2.7734E+00   1.6006E-04  0.0049
   2.7734E+00   2.8409E+00   1.5654E-04  0.0049
   2.8409E+00   2.9100E+00   1.5703E-04  0.0048
   2.9100E+00   2.9808E+00   1.5488E-04  0.0048
   2.9808E+00   3.0533E+00   1.5399E-04  0.0047
   3.0533E+00   3.1276E+00   1.5124E-04  0.0047
   3.1276E+00   3.2037E+00   1.5034E-04  0.0047
   3.2037E+00   3.2817E+00   1.4859E-04  0.0047
   3.2817E+00   3.3615E+00   1.4829E-04  0.0046
   3.3615E+00   3.4433E+00   1.4706E-04  0.0046
   3.4433E+00   3.5271E+00   1.4587E-04  0.0045
   3.5271E+00   3.6129E+00   1.4454E-04  0.0045
   3.6129E+00   3.7008E+00   1.4384E-04  0.0045
   3.7008E+00   3.7908E+00   1.4060E-04  0.0045
   3.7908E+00   3.8831E+00   1.4007E-04  0.0044
   3.8831E+00   3.9776E+00   1.3792E-04  0.0044
   3.9776E+00   4.0743E+00   1.3629E-04  0.0044
   4.0743E+00   4.1735E+00   1.3480E-04  0.0043
   4.1735E+00   4.2750E+00   1.3345E-04  0.0043
   4.2750E+00   4.3790E+00   1.3056E-04  0.0043
   4.3790E+00   4.4856E+00   1.3017E-04  0.0043
   4.4856E+00   4.5947E+00   1.2834E-04  0.0042
   4.5947E+00   4.7065E+00   1.2742E-04  0.0042
   4.7065E+00   4.8210E+00   1.2531E-04  0.0042
   4.8210E+00   4.9383E+00   1.2463E-04  0.0042
   4.9383E+00   5.0585E+00   1.2383E-04  0.0041
   5.0585E+00   5.1815E+00   1.2160E-04  0.0041
   5.1815E+00   5.3076E+00   1.2098E-04  0.0041
   5.3076E+00   5.4368E+00   1.1880E-04  0.0041
   5.4368E+00   5.5690E+00   1.1669E-04  0.0040
   5.5690E+00   5.7045E+00   1.1440E-04  0.0040
   5.7045E+00   5.8433E+00   1.1306E-04  0.0040
   5.8433E+00   5.9855E+00   1.1250E-04  0.0040
   5.9855E+00   6.1311E+00   1.1159E-04  0.0039
   6.1311E+00   6.2803E+00   1.1063E-04  0.0039
   6.2803E+00   6.4331E+00   1.0880E-04  0.0039
   6.4331E+00   6.5896E+00   1.0745E-04  0.0039
   6.5896E+00   6.7500E+00   1.0619E-04  0.0039
   6.7500E+00   6.9142E+00   1.0508E-04  0.0038
   6.9142E+00   7.0824E+00   1.0467E-04  0.0038
   7.0824E+00   7.2548E+00   1.0399E-04  0.0038
   7.2548E+00   7.4313E+00   1.0250E-04  0.0037
   7.4313E+00   7.6121E+00   1.0125E-04  0.0037
   7.6121E+00   7.7973E+00   9.9488E-05  0.0037
   7.7973E+00   7.9870E+00   9.9177E-05  0.0037
   7.9870E+00   8.1813E+00   9.8319E-05  0.0036
   8.1813E+00   8.3804E+00   9.6654E-05  0.0036
   8.3804E+00   8.5843E+00   9.5764E-05  0.0036
   8.5843E+00   8.7931E+00   9.4714E-05  0.0036
   8.7931E+00   9.0071E+00   9.2795E-05  0.0036
   9.0071E+00   9.2262E+00   9.1727E-05  0.0036
   9.2262E+00   9.4507E+00   9.0076E-05  0.0035
   9.4507E+00   9.6807E+00   8.8232E-05  0.0035
   9.6807E+00   9.9162E+00   8.7607E-05  0.0035
   9.9162E+00   1.0157E+01   8.8192E-05  0.0035
   1.0157E+01   1.0405E+01   8.6522E-05  0.0035
   1.0405E+01   1.0658E+01   8.4157E-05  0.0035
   1.0658E+01   1.0917E+01   8.1757E-05  0.0035
   1.0917E+01   1.1183E+01   7.9078E-05  0.0035
   1.1183E+01   1.1455E+01   7.7598E-05  0.0035
   1.1455E+01   1.1733E+01   7.5806E-05  0.0035
   1.1733E+01   1.2019E+01   7.4249E-05  0.0035
   1.2019E+01   1.2311E+01   7.2310E-05  0.0035
   1.2311E+01   1.2611E+01   6.9971E-05  0.0035
   1.2611E+01   1.2918E+01   6.7980E-05  0.0035
   1.2918E+01   1.3232E+01   6.6292E-05  0.0035
   1.3232E+01   1.3554E+01   6.3825E-05  0.0035
   1.3554E+01   1.3884E+01   6.1847E-05  0.0035
   1.3884E+01   1.4222E+01   5.9864E-05  0.0036
   1.4222E+01   1.4568E+01   5.7360E-05  0.0036
   1.4568E+01   1.4922E+01   5.5308E-05  0.0036
   1.4922E+01   1.5285E+01   5.2770E-05  0.0037
   1.5285E+01   1.5657E+01   5.0334E-05  0.0037
   1.5657E+01   1.6038E+01   4.8158E-05  0.0037
   1.6038E+01   1.6428E+01   4.5865E-05  0.0038
   1.6428E+01   1.6828E+01   4.3651E-05  0.0038
   1.6828E+01   1.7237E+01   4.1205E-05  0.0039
   1.7237E+01   1.7657E+01   3.9294E-05  0.0039
   1.7657E+01   1.8086E+01   3.7011E-05  0.0040
   1.8086E+01   1.8526E+01   3.4593E-05  0.0041
   1.8526E+01   1.8977E+01   3.2529E-05  0.0042
   1.8977E+01   1.9439E+01   3.0173E-05  0.0043
   1.9439E+01   1.9912E+01   2.8078E-05  0.0044
   1.9912E+01   2.0396E+01   2.6170E-05  0.0045
   2.0396E+01   2.0893E+01   2.4146E-05  0.0046
   2.0893E+01   2.1401E+01   2.1814E-05  0.0048
   2.1401E+01   2.1922E+01   2.0071E-05  0.0050
   2.1922E+01   2.2455E+01   1.7855E-05  0.0052
   2.2455E+01   2.3001E+01   1.6266E-05  0.0054
   2.3001E+01   2.3561E+01   1.4567E-05  0.0056
   2.3561E+01   2.4134E+01   1.3070E-05  0.0058
   2.4134E+01   2.4721E+01   1.1997E-05  0.0060
   2.4721E+01   2.5323E+01   1.5341E-05  0.0053
   2.5323E+01   2.5939E+01   2.1542E-05  0.0044
   2.5939E+01   2.6570E+01   2.2611E-05  0.0042
   2.6570E+01   2.7217E+01   2.1393E-05  0.0043
   2.7217E+01   2.7879E+01   2.0014E-05  0.0044
   2.7879E+01   2.8557E+01   1.8957E-05  0.0045
   2.8557E+01   2.9252E+01   1.7863E-05  0.0045
   2.9252E+01   2.9964E+01   1.6909E-05  0.0046
   2.9964E+01   3.0693E+01   1.5874E-05  0.0047
   3.0693E+01   3.1440E+01   1.5085E-05  0.0048
   3.1440E+01   3.2205E+01   1.4212E-05  0.0049
   3.2205E+01   3.2988E+01   1.3608E-05  0.0049
   3.2988E+01   3.3791E+01   1.2914E-05  0.0050
   3.3791E+01   3.4613E+01   1.2476E-05  0.0050
   3.4613E+01   3.5455E+01   1.1848E-05  0.0051
   3.5455E+01   3.6318E+01   1.1327E-05  0.0051
   3.6318E+01   3.7201E+01   9.3416E-06  0.0056
   3.7201E+01   3.8106E+01   3.1056E-06  0.0096
   3.8106E+01   3.9034E+01   1.3551E-07  0.0452
   3.9034E+01   3.9983E+01   1.1609E-08  0.1525
   3.9983E+01   4.0956E+01   7.9072E-10  0.5774
   4.0956E+01   4.1953E+01   5.1462E-10  0.7071
   4.1953E+01   4.2973E+01   5.0240E-10  0.7071
   4.2973E+01   4.4019E+01   2.4523E-10  1.0000
   4.4019E+01   4.5090E+01   0.0000E+00  0.0000
   4.5090E+01   4.6187E+01   0.0000E+00  0.0000
   4.6187E+01   4.7311E+01   0.0000E+00  0.0000
   4.7311E+01   4.8462E+01   0.0000E+00  0.0000
   4.8462E+01   4.9641E+01   0.0000E+00  0.0000
   4.9641E+01   5.0849E+01   0.0000E+00  0.0000
   5.0849E+01   5.2086E+01   0.0000E+00  0.0000
   5.2086E+01   5.3353E+01   0.0000E+00  0.0000
   5.3353E+01   5.4651E+01   0.0000E+00  0.0000
   5.4651E+01   5.5981E+01   0.0000E+00  0.0000
   5.5981E+01   5.7343E+01   0.0000E+00  0.0000
   5.7343E+01   5.8738E+01   0.0000E+00  0.0000
   5.8738E+01   6.0168E+01   0.0000E+00  0.0000
   6.0168E+01   6.1632E+01   0.0000E+00  0.0000
   6.1632E+01   6.3131E+01   0.0000E+00  0.0000
   6.3131E+01   6.4667E+01   0.0000E+00  0.0000
   6.4667E+01   6.6240E+01   0.0000E+00  0.0000
   6.6240E+01   6.7852E+01   0.0000E+00  0.0000
   6.7852E+01   6.9503E+01   0.0000E+00  0.0000
   6.9503E+01   7.1194E+01   0.0000E+00  0.0000
   7.1194E+01   7.2926E+01   0.0000E+00  0.0000
   7.2926E+01   7.4701E+01   0.0000E+00  0.0000
   7.4701E+01   7.6518E+01   0.0000E+00  0.0000
   7.6518E+01   7.8380E+01   0.0000E+00  0.0000
   7.8380E+01   8.0287E+01   0.0000E+00  0.0000
   8.0287E+01   8.2240E+01   0.0000E+00  0.0000
   8.2240E+01   8.4241E+01   0.0000E+00  0.0000
   8.4241E+01   8.6291E+01   0.0000E+00  0.0000
   8.6291E+01   8.8391E+01   0.0000E+00  0.0000
   8.8391E+01   9.0541E+01   0.0000E+00  0.0000
   9.0541E+01   9.2744E+01   0.0000E+00  0.0000
   9.2744E+01   9.5001E+01   0.0000E+00  0.0000
   9.5001E+01   9.7312E+01   0.0000E+00  0.0000
   9.7312E+01   9.9680E+01   0.0000E+00  0.0000
   9.9680E+01   1.0211E+02   0.0000E+00  0.0000
   1.0211E+02   1.0459E+02   0.0000E+00  0.0000
   1.0459E+02   1.0713E+02   0.0000E+00  0.0000
   1.0713E+02   1.0974E+02   0.0000E+00  0.0000
   1.0974E+02   1.1241E+02   0.0000E+00  0.0000
   1.1241E+02   1.1515E+02   0.0000E+00  0.0000
   1.1515E+02   1.1795E+02   0.0000E+00  0.0000
   1.1795E+02   1.2082E+02   0.0000E+00  0.0000
   1.2082E+02   1.2376E+02   0.0000E+00  0.0000
   1.2376E+02   1.2677E+02   0.0000E+00  0.0000
   1.2677E+02   1.2985E+02   0.0000E+00  0.0000
   1.2985E+02   1.3301E+02   0.0000E+00  0.0000
   1.3301E+02   1.3625E+02   0.0000E+00  0.0000
   1.3625E+02   1.3956E+02   0.0000E+00  0.0000
   1.3956E+02   1.4296E+02   0.0000E+00  0.0000
   1.4296E+02   1.4644E+02   0.0000E+00  0.0000
   1.4644E+02   1.5000E+02   0.0000E+00  0.0000

#   sum over                 1.4165E-05
'no. =    1   reg = 109 - 209'
msuc: {\huge [t-cross] in region mesh}
msdr: {\it plotted by \ANGEL \version}
msdl: {\it calculated by \PHITS  3.26}
wt: s(0.7)
\vspace{-3}
  region surface crossing
  area  &=&   1.0000E+00 [cm^2]
e:
 
# Information for Restart Calculation
# This calculation was newly started
# istdev =  2 # 1:Batch variance, 2:History variance
# resc2  = 3.90000000000000000E+09 # Total source weight or Total source weight / maxcas
# resc3  = 3.90000000000000000E+09 # Total history number or Total batch number
# maxcas =   100000000 # History / Batch, only used for istdev=1
# bitrseed = 1001000100011001100110111101101111001101001011101000111110000101 # bit data of rseed
