[ T-Cross ]
    title = [t-cross] in region mesh
     mesh =  reg            # mesh type is region-wise
      reg =    1            # number of crossing regions
      non     r-from    r-to       area
      1       104       204        1.000000    
   e-type =    3            # e-mesh is log given by emin, emax and ne
     emin =  1.0000000E-02  # minimum value of e-mesh points
     emax =   150.0000      # maximum value of e-mesh points
#    edel =  2.4039514E-02  # mesh width of e-mesh points
       ne =    400          # number of e-mesh points
#    data = ( e(i), i = 1, ne + 1 )
#           1.00000E-02  1.02433E-02  1.04925E-02  1.07478E-02  1.10093E-02
#           1.12772E-02  1.15516E-02  1.18326E-02  1.21205E-02  1.24154E-02
#           1.27175E-02  1.30269E-02  1.33439E-02  1.36686E-02  1.40011E-02
#           1.43418E-02  1.46907E-02  1.50482E-02  1.54143E-02  1.57894E-02
#           1.61735E-02  1.65670E-02  1.69701E-02  1.73830E-02  1.78060E-02
#           1.82392E-02  1.86830E-02  1.91375E-02  1.96032E-02  2.00801E-02
#           2.05687E-02  2.10692E-02  2.15818E-02  2.21069E-02  2.26448E-02
#           2.31957E-02  2.37601E-02  2.43382E-02  2.49304E-02  2.55369E-02
#           2.61583E-02  2.67947E-02  2.74467E-02  2.81145E-02  2.87985E-02
#           2.94992E-02  3.02169E-02  3.09521E-02  3.17052E-02  3.24766E-02
#           3.32668E-02  3.40762E-02  3.49053E-02  3.57546E-02  3.66246E-02
#           3.75157E-02  3.84284E-02  3.93634E-02  4.03212E-02  4.13022E-02
#           4.23071E-02  4.33365E-02  4.43909E-02  4.54710E-02  4.65773E-02
#           4.77106E-02  4.88714E-02  5.00605E-02  5.12785E-02  5.25262E-02
#           5.38042E-02  5.51133E-02  5.64542E-02  5.78278E-02  5.92348E-02
#           6.06760E-02  6.21523E-02  6.36645E-02  6.52135E-02  6.68002E-02
#           6.84255E-02  7.00904E-02  7.17957E-02  7.35426E-02  7.53319E-02
#           7.71648E-02  7.90423E-02  8.09655E-02  8.29354E-02  8.49533E-02
#           8.70203E-02  8.91376E-02  9.13064E-02  9.35279E-02  9.58035E-02
#           9.81345E-02  1.00522E-01  1.02968E-01  1.05473E-01  1.08040E-01
#           1.10668E-01  1.13361E-01  1.16119E-01  1.18944E-01  1.21838E-01
#           1.24803E-01  1.27839E-01  1.30950E-01  1.34136E-01  1.37399E-01
#           1.40742E-01  1.44167E-01  1.47675E-01  1.51268E-01  1.54948E-01
#           1.58718E-01  1.62580E-01  1.66535E-01  1.70587E-01  1.74738E-01
#           1.78989E-01  1.83344E-01  1.87805E-01  1.92375E-01  1.97055E-01
#           2.01850E-01  2.06761E-01  2.11792E-01  2.16945E-01  2.22223E-01
#           2.27630E-01  2.33169E-01  2.38842E-01  2.44653E-01  2.50605E-01
#           2.56703E-01  2.62949E-01  2.69346E-01  2.75900E-01  2.82613E-01
#           2.89489E-01  2.96532E-01  3.03747E-01  3.11138E-01  3.18708E-01
#           3.26462E-01  3.34405E-01  3.42542E-01  3.50876E-01  3.59413E-01
#           3.68158E-01  3.77116E-01  3.86291E-01  3.95690E-01  4.05317E-01
#           4.15179E-01  4.25281E-01  4.35628E-01  4.46227E-01  4.57084E-01
#           4.68205E-01  4.79597E-01  4.91266E-01  5.03219E-01  5.15463E-01
#           5.28005E-01  5.40851E-01  5.54011E-01  5.67490E-01  5.81298E-01
#           5.95441E-01  6.09929E-01  6.24769E-01  6.39970E-01  6.55541E-01
#           6.71491E-01  6.87828E-01  7.04564E-01  7.21706E-01  7.39266E-01
#           7.57253E-01  7.75678E-01  7.94551E-01  8.13883E-01  8.33685E-01
#           8.53969E-01  8.74747E-01  8.96030E-01  9.17831E-01  9.40163E-01
#           9.63038E-01  9.86469E-01  1.01047E+00  1.03506E+00  1.06024E+00
#           1.08604E+00  1.11246E+00  1.13953E+00  1.16725E+00  1.19565E+00
#           1.22474E+00  1.25454E+00  1.28507E+00  1.31633E+00  1.34836E+00
#           1.38117E+00  1.41477E+00  1.44920E+00  1.48446E+00  1.52057E+00
#           1.55757E+00  1.59547E+00  1.63429E+00  1.67405E+00  1.71478E+00
#           1.75650E+00  1.79924E+00  1.84302E+00  1.88786E+00  1.93379E+00
#           1.98084E+00  2.02904E+00  2.07841E+00  2.12898E+00  2.18078E+00
#           2.23384E+00  2.28819E+00  2.34386E+00  2.40089E+00  2.45930E+00
#           2.51914E+00  2.58043E+00  2.64322E+00  2.70753E+00  2.77341E+00
#           2.84088E+00  2.91001E+00  2.98081E+00  3.05333E+00  3.12762E+00
#           3.20372E+00  3.28167E+00  3.36152E+00  3.44330E+00  3.52708E+00
#           3.61290E+00  3.70080E+00  3.79085E+00  3.88308E+00  3.97756E+00
#           4.07434E+00  4.17347E+00  4.27501E+00  4.37903E+00  4.48557E+00
#           4.59471E+00  4.70650E+00  4.82102E+00  4.93832E+00  5.05847E+00
#           5.18155E+00  5.30762E+00  5.43676E+00  5.56904E+00  5.70453E+00
#           5.84333E+00  5.98550E+00  6.13114E+00  6.28031E+00  6.43312E+00
#           6.58964E+00  6.74997E+00  6.91420E+00  7.08243E+00  7.25475E+00
#           7.43126E+00  7.61207E+00  7.79728E+00  7.98700E+00  8.18133E+00
#           8.38038E+00  8.58428E+00  8.79315E+00  9.00709E+00  9.22624E+00
#           9.45072E+00  9.68067E+00  9.91620E+00  1.01575E+01  1.04046E+01
#           1.06578E+01  1.09171E+01  1.11827E+01  1.14548E+01  1.17335E+01
#           1.20190E+01  1.23114E+01  1.26109E+01  1.29178E+01  1.32321E+01
#           1.35540E+01  1.38838E+01  1.42216E+01  1.45676E+01  1.49221E+01
#           1.52851E+01  1.56570E+01  1.60380E+01  1.64282E+01  1.68279E+01
#           1.72374E+01  1.76568E+01  1.80864E+01  1.85264E+01  1.89772E+01
#           1.94389E+01  1.99119E+01  2.03963E+01  2.08926E+01  2.14009E+01
#           2.19216E+01  2.24550E+01  2.30014E+01  2.35610E+01  2.41343E+01
#           2.47215E+01  2.53230E+01  2.59391E+01  2.65702E+01  2.72167E+01
#           2.78789E+01  2.85572E+01  2.92520E+01  2.99637E+01  3.06928E+01
#           3.14396E+01  3.22045E+01  3.29881E+01  3.37907E+01  3.46128E+01
#           3.54550E+01  3.63177E+01  3.72013E+01  3.81064E+01  3.90336E+01
#           3.99833E+01  4.09561E+01  4.19526E+01  4.29734E+01  4.40189E+01
#           4.50900E+01  4.61870E+01  4.73108E+01  4.84619E+01  4.96410E+01
#           5.08488E+01  5.20860E+01  5.33533E+01  5.46514E+01  5.59812E+01
#           5.73432E+01  5.87384E+01  6.01676E+01  6.16315E+01  6.31311E+01
#           6.46671E+01  6.62405E+01  6.78522E+01  6.95031E+01  7.11941E+01
#           7.29263E+01  7.47007E+01  7.65182E+01  7.83800E+01  8.02870E+01
#           8.22405E+01  8.42414E+01  8.62911E+01  8.83906E+01  9.05412E+01
#           9.27442E+01  9.50007E+01  9.73122E+01  9.96799E+01  1.02105E+02
#           1.04589E+02  1.07134E+02  1.09741E+02  1.12411E+02  1.15146E+02
#           1.17948E+02  1.20817E+02  1.23757E+02  1.26768E+02  1.29852E+02
#           1.33012E+02  1.36248E+02  1.39563E+02  1.42959E+02  1.46437E+02
#           1.50000E+02
     unit =    2            # unit is [1/cm^2/(MeV/n)/source]
     axis =  eng            # axis of output
     file = detector-05.out  # file name of output for the above axis
   output = f-curr          # surface crossing forward current spectrum
     part =  neutron  
# kf/name :  2112     
#    used :        main (  %)        temp (  %)       total (  %)
#  memory :         414 (  0)           0 (  0)         414 (  0)

#------------------------------------------------------------------------------
#newpage:
#   no. =    1   reg = 104 - 204

x: Energy [MeV/n]
y:  F-Curr [1/cm^2/(MeV/n)/source]         
p: xlog ylog afac(0.8) form(0.9)
h: n            x            y(neutron ),hh0l   n 
#  e-lower      e-upper      neutron     r.err 
   1.0000E-02   1.0243E-02   6.8311E-06  0.3780
   1.0243E-02   1.0493E-02   8.4304E-06  0.3338
   1.0493E-02   1.0748E-02   6.5109E-06  0.3780
   1.0748E-02   1.1009E-02   5.4521E-06  0.4082
   1.1009E-02   1.1277E-02   2.6629E-06  0.5774
   1.1277E-02   1.1552E-02   1.7343E-06  0.7071
   1.1552E-02   1.1833E-02   4.1558E-06  0.4475
   1.1833E-02   1.2121E-02   5.7828E-06  0.3780
   1.2121E-02   1.2415E-02   5.5144E-06  0.3785
   1.2415E-02   1.2718E-02   6.2958E-06  0.3536
   1.2718E-02   1.3027E-02   2.3074E-06  0.5774
   1.3027E-02   1.3344E-02   3.0006E-06  0.5000
   1.3344E-02   1.3669E-02   6.5896E-06  0.3333
   1.3669E-02   1.4001E-02   4.2867E-06  0.4082
   1.4001E-02   1.4342E-02   2.7901E-06  0.5000
   1.4342E-02   1.4691E-02   4.0925E-06  0.4082
   1.4691E-02   1.5048E-02   5.9907E-06  0.3333
   1.5048E-02   1.5414E-02   7.7886E-06  0.2887
   1.5414E-02   1.5789E-02   3.8046E-06  0.4082
   1.5789E-02   1.6174E-02   5.5236E-06  0.3334
   1.6174E-02   1.6567E-02   3.6271E-06  0.4082
   1.6567E-02   1.6970E-02   1.7672E-06  0.5774
   1.6970E-02   1.7383E-02   2.3032E-06  0.5000
   1.7383E-02   1.7806E-02   1.1252E-06  0.7071
   1.7806E-02   1.8239E-02   4.6638E-07  1.0000
   1.8239E-02   1.8683E-02   2.1448E-06  0.5000
   1.8683E-02   1.9138E-02   2.0927E-06  0.5000
   1.9138E-02   1.9603E-02   1.5309E-06  0.5774
   1.9603E-02   2.0080E-02   1.9546E-06  0.5003
   2.0080E-02   2.0569E-02   3.4071E-06  0.3780
   2.0569E-02   2.1069E-02   2.8515E-06  0.4082
   2.1069E-02   2.1582E-02   4.0608E-06  0.3342
   2.1582E-02   2.2107E-02   2.7171E-06  0.4082
   2.2107E-02   2.2645E-02   1.8880E-06  0.4725
   2.2645E-02   2.3196E-02   1.4161E-06  0.5348
   2.3196E-02   2.3760E-02   4.2148E-07  1.0000
   2.3760E-02   2.4338E-02   1.2291E-06  0.5774
   2.4338E-02   2.4930E-02   3.2109E-06  0.3536
   2.4930E-02   2.5537E-02   1.1743E-06  0.5774
   2.5537E-02   2.6158E-02   2.2933E-06  0.4082
   2.6158E-02   2.6795E-02   2.2408E-06  0.4082
   2.6795E-02   2.7447E-02   3.2820E-06  0.3333
   2.7447E-02   2.8114E-02   2.7881E-06  0.3542
   2.8114E-02   2.8799E-02   2.0855E-06  0.4082
   2.8799E-02   2.9499E-02   2.7149E-06  0.3536
   2.9499E-02   3.0217E-02   5.8309E-07  0.7138
   3.0217E-02   3.0952E-02   3.5085E-06  0.3018
   3.0952E-02   3.1705E-02   1.2630E-06  0.5000
   3.1705E-02   3.2477E-02   1.2339E-06  0.5000
   3.2477E-02   3.3267E-02   1.8057E-06  0.4082
   3.3267E-02   3.4076E-02   8.8077E-07  0.5774
   3.4076E-02   3.4905E-02   2.2917E-06  0.3536
   3.4905E-02   3.5755E-02   8.4052E-07  0.5774
   3.5755E-02   3.6625E-02   2.4603E-06  0.3333
   3.6625E-02   3.7516E-02   1.8654E-06  0.3780
   3.7516E-02   3.8428E-02   1.0426E-06  0.5000
   3.8428E-02   3.9363E-02   2.4569E-06  0.3179
   3.9363E-02   4.0321E-02   2.9571E-06  0.2887
   4.0321E-02   4.1302E-02   1.2125E-06  0.4472
   4.1302E-02   4.2307E-02   1.4201E-06  0.4082
   4.2307E-02   4.3337E-02   4.6199E-07  0.7071
   4.3337E-02   4.4391E-02   1.1277E-06  0.4472
   4.4391E-02   4.5471E-02   1.5418E-06  0.3780
   4.5471E-02   4.6577E-02   1.2282E-06  0.4095
   4.6577E-02   4.7711E-02   1.0487E-06  0.4472
   4.7711E-02   4.8871E-02   1.6381E-06  0.3536
   4.8871E-02   5.0061E-02   9.9815E-07  0.4472
   5.0061E-02   5.1279E-02   1.3644E-06  0.3780
   5.1279E-02   5.2526E-02   2.8207E-06  0.2585
   5.2526E-02   5.3804E-02   1.2837E-06  0.3781
   5.3804E-02   5.5113E-02   7.2654E-07  0.5000
   5.5113E-02   5.6454E-02   1.5955E-06  0.3333
   5.6454E-02   5.7828E-02   5.1999E-07  0.5774
   5.7828E-02   5.9235E-02   6.7359E-07  0.5000
   5.9235E-02   6.0676E-02   1.3417E-06  0.3440
   6.0676E-02   6.2152E-02   1.1263E-06  0.3780
   6.2152E-02   6.3665E-02   1.5724E-06  0.3162
   6.3665E-02   6.5214E-02   1.8388E-06  0.2887
   6.5214E-02   6.6800E-02   1.1665E-06  0.3544
   6.6800E-02   6.8426E-02   1.3153E-06  0.3333
   6.8426E-02   7.0090E-02   9.6871E-07  0.3792
   7.0090E-02   7.1796E-02   6.9764E-07  0.4472
   7.1796E-02   7.3543E-02   1.2536E-07  1.0000
   7.3543E-02   7.5332E-02   1.0626E-06  0.3536
   7.5332E-02   7.7165E-02   1.1540E-06  0.3335
   7.7165E-02   7.9042E-02   1.4725E-06  0.2902
   7.9042E-02   8.0965E-02   3.7101E-07  0.5774
   8.0965E-02   8.2935E-02   4.8272E-07  0.5000
   8.2935E-02   8.4953E-02   1.7678E-06  0.2582
   8.4953E-02   8.7020E-02   5.7454E-07  0.4472
   8.7020E-02   8.9138E-02   1.0104E-06  0.3333
   8.9138E-02   9.1306E-02   9.8669E-07  0.3333
   9.1306E-02   9.3528E-02   7.4948E-07  0.3780
   9.3528E-02   9.5804E-02   8.3528E-07  0.3536
   9.5804E-02   9.8134E-02   1.1118E-06  0.3016
   9.8134E-02   1.0052E-01   3.9794E-07  0.5000
   1.0052E-01   1.0297E-01   1.1508E-06  0.2890
   1.0297E-01   1.0547E-01   1.1392E-06  0.2887
   1.0547E-01   1.0804E-01   1.0901E-06  0.2892
   1.0804E-01   1.1067E-01   8.8499E-07  0.3169
   1.1067E-01   1.1336E-01   7.8467E-07  0.3335
   1.1336E-01   1.1612E-01   1.3792E-06  0.2500
   1.1612E-01   1.1894E-01   1.0935E-06  0.2774
   1.1894E-01   1.2184E-01   1.3960E-06  0.2425
   1.2184E-01   1.2480E-01   8.0245E-07  0.3162
   1.2480E-01   1.2784E-01   1.3307E-06  0.2425
   1.2784E-01   1.3095E-01   7.6395E-07  0.3162
   1.3095E-01   1.3414E-01   2.0659E-06  0.1891
   1.3414E-01   1.3740E-01   1.9466E-06  0.1926
   1.3740E-01   1.4074E-01   1.4219E-06  0.2236
   1.4074E-01   1.4417E-01   2.0587E-06  0.1828
   1.4417E-01   1.4767E-01   1.8295E-06  0.1925
   1.4767E-01   1.5127E-01   1.6536E-06  0.2000
   1.5127E-01   1.5495E-01   1.5488E-06  0.2041
   1.5495E-01   1.5872E-01   2.4462E-06  0.1602
   1.5872E-01   1.6258E-01   2.0925E-06  0.1715
   1.6258E-01   1.6654E-01   2.0912E-06  0.1691
   1.6654E-01   1.7059E-01   2.0156E-06  0.1700
   1.7059E-01   1.7474E-01   2.7822E-06  0.1430
   1.7474E-01   1.7899E-01   2.6154E-06  0.1459
   1.7899E-01   1.8334E-01   2.7048E-06  0.1415
   1.8334E-01   1.8781E-01   2.7330E-06  0.1389
   1.8781E-01   1.9237E-01   3.0594E-06  0.1302
   1.9237E-01   1.9706E-01   3.8397E-06  0.1148
   1.9706E-01   2.0185E-01   3.2201E-06  0.1240
   2.0185E-01   2.0676E-01   3.1825E-06  0.1229
   2.0676E-01   2.1179E-01   3.6393E-06  0.1136
   2.1179E-01   2.1694E-01   3.5964E-06  0.1132
   2.1694E-01   2.2222E-01   4.0764E-06  0.1049
   2.2222E-01   2.2763E-01   3.9008E-06  0.1057
   2.2763E-01   2.3317E-01   4.3755E-06  0.0987
   2.3317E-01   2.3884E-01   3.6601E-06  0.1067
   2.3884E-01   2.4465E-01   5.3810E-06  0.0871
   2.4465E-01   2.5061E-01   5.0201E-06  0.0891
   2.5061E-01   2.5670E-01   4.8947E-06  0.0891
   2.5670E-01   2.6295E-01   5.1448E-06  0.0858
   2.6295E-01   2.6935E-01   5.3394E-06  0.0833
   2.6935E-01   2.7590E-01   6.0165E-06  0.0776
   2.7590E-01   2.8261E-01   5.8613E-06  0.0776
   2.8261E-01   2.8949E-01   5.3516E-06  0.0802
   2.8949E-01   2.9653E-01   6.4058E-06  0.0725
   2.9653E-01   3.0375E-01   7.5857E-06  0.0658
   3.0375E-01   3.1114E-01   6.7241E-06  0.0689
   3.1114E-01   3.1871E-01   7.0224E-06  0.0668
   3.1871E-01   3.2646E-01   7.7460E-06  0.0628
   3.2646E-01   3.3441E-01   8.4876E-06  0.0593
   3.3441E-01   3.4254E-01   9.1335E-06  0.0564
   3.4254E-01   3.5088E-01   8.1900E-06  0.0589
   3.5088E-01   3.5941E-01   8.9084E-06  0.0558
   3.5941E-01   3.6816E-01   8.0506E-06  0.0580
   3.6816E-01   3.7712E-01   9.4925E-06  0.0528
   3.7712E-01   3.8629E-01   1.1297E-05  0.0478
   3.8629E-01   3.9569E-01   1.0213E-05  0.0497
   3.9569E-01   4.0532E-01   1.2129E-05  0.0450
   4.0532E-01   4.1518E-01   1.2545E-05  0.0437
   4.1518E-01   4.2528E-01   1.3464E-05  0.0417
   4.2528E-01   4.3563E-01   1.2066E-05  0.0435
   4.3563E-01   4.4623E-01   1.2368E-05  0.0425
   4.4623E-01   4.5708E-01   1.2692E-05  0.0415
   4.5708E-01   4.6821E-01   1.3418E-05  0.0398
   4.6821E-01   4.7960E-01   1.3978E-05  0.0386
   4.7960E-01   4.9127E-01   1.4031E-05  0.0380
   4.9127E-01   5.0322E-01   1.5419E-05  0.0358
   5.0322E-01   5.1546E-01   1.5179E-05  0.0357
   5.1546E-01   5.2800E-01   1.4658E-05  0.0359
   5.2800E-01   5.4085E-01   1.5152E-05  0.0349
   5.4085E-01   5.5401E-01   1.6257E-05  0.0333
   5.5401E-01   5.6749E-01   1.6107E-05  0.0330
   5.6749E-01   5.8130E-01   1.6724E-05  0.0320
   5.8130E-01   5.9544E-01   1.7046E-05  0.0313
   5.9544E-01   6.0993E-01   1.7062E-05  0.0310
   6.0993E-01   6.2477E-01   1.7938E-05  0.0298
   6.2477E-01   6.3997E-01   1.8538E-05  0.0290
   6.3997E-01   6.5554E-01   1.8791E-05  0.0284
   6.5554E-01   6.7149E-01   1.9583E-05  0.0275
   6.7149E-01   6.8783E-01   1.9720E-05  0.0271
   6.8783E-01   7.0456E-01   1.9903E-05  0.0267
   7.0456E-01   7.2171E-01   2.0957E-05  0.0257
   7.2171E-01   7.3927E-01   2.1773E-05  0.0249
   7.3927E-01   7.5725E-01   1.9878E-05  0.0257
   7.5725E-01   7.7568E-01   2.1399E-05  0.0245
   7.7568E-01   7.9455E-01   2.1493E-05  0.0241
   7.9455E-01   8.1388E-01   2.2586E-05  0.0233
   8.1388E-01   8.3368E-01   2.2048E-05  0.0233
   8.3368E-01   8.5397E-01   2.1745E-05  0.0231
   8.5397E-01   8.7475E-01   2.2504E-05  0.0225
   8.7475E-01   8.9603E-01   2.3376E-05  0.0218
   8.9603E-01   9.1783E-01   2.2708E-05  0.0218
   9.1783E-01   9.4016E-01   2.2551E-05  0.0217
   9.4016E-01   9.6304E-01   2.2694E-05  0.0213
   9.6304E-01   9.8647E-01   2.2223E-05  0.0213
   9.8647E-01   1.0105E+00   2.2397E-05  0.0210
   1.0105E+00   1.0351E+00   2.2675E-05  0.0206
   1.0351E+00   1.0602E+00   2.2184E-05  0.0205
   1.0602E+00   1.0860E+00   2.2913E-05  0.0200
   1.0860E+00   1.1125E+00   2.3526E-05  0.0195
   1.1125E+00   1.1395E+00   2.3141E-05  0.0194
   1.1395E+00   1.1673E+00   2.4172E-05  0.0188
   1.1673E+00   1.1957E+00   2.3861E-05  0.0186
   1.1957E+00   1.2247E+00   2.3584E-05  0.0185
   1.2247E+00   1.2545E+00   2.4486E-05  0.0180
   1.2545E+00   1.2851E+00   2.4148E-05  0.0179
   1.2851E+00   1.3163E+00   2.5380E-05  0.0172
   1.3163E+00   1.3484E+00   2.4171E-05  0.0174
   1.3484E+00   1.3812E+00   2.5024E-05  0.0169
   1.3812E+00   1.4148E+00   2.4958E-05  0.0167
   1.4148E+00   1.4492E+00   2.5720E-05  0.0163
   1.4492E+00   1.4845E+00   2.5140E-05  0.0163
   1.4845E+00   1.5206E+00   2.6057E-05  0.0158
   1.5206E+00   1.5576E+00   2.6412E-05  0.0155
   1.5576E+00   1.5955E+00   2.5784E-05  0.0155
   1.5955E+00   1.6343E+00   2.5677E-05  0.0153
   1.6343E+00   1.6741E+00   2.5439E-05  0.0152
   1.6741E+00   1.7148E+00   2.5696E-05  0.0149
   1.7148E+00   1.7565E+00   2.5955E-05  0.0147
   1.7565E+00   1.7992E+00   2.6227E-05  0.0144
   1.7992E+00   1.8430E+00   2.4432E-05  0.0147
   1.8430E+00   1.8879E+00   2.3055E-05  0.0149
   1.8879E+00   1.9338E+00   2.2618E-05  0.0149
   1.9338E+00   1.9808E+00   2.2685E-05  0.0147
   1.9808E+00   2.0290E+00   2.2562E-05  0.0145
   2.0290E+00   2.0784E+00   2.2046E-05  0.0145
   2.0784E+00   2.1290E+00   2.3253E-05  0.0139
   2.1290E+00   2.1808E+00   2.3570E-05  0.0136
   2.1808E+00   2.2338E+00   2.3998E-05  0.0133
   2.2338E+00   2.2882E+00   2.3905E-05  0.0132
   2.2882E+00   2.3439E+00   2.3422E-05  0.0132
   2.3439E+00   2.4009E+00   2.3222E-05  0.0131
   2.4009E+00   2.4593E+00   2.3268E-05  0.0130
   2.4593E+00   2.5191E+00   2.2775E-05  0.0129
   2.5191E+00   2.5804E+00   2.2646E-05  0.0128
   2.5804E+00   2.6432E+00   2.2717E-05  0.0127
   2.6432E+00   2.7075E+00   2.2768E-05  0.0125
   2.7075E+00   2.7734E+00   2.2353E-05  0.0125
   2.7734E+00   2.8409E+00   2.2773E-05  0.0122
   2.8409E+00   2.9100E+00   2.1923E-05  0.0123
   2.9100E+00   2.9808E+00   2.2814E-05  0.0119
   2.9808E+00   3.0533E+00   2.1721E-05  0.0121
   3.0533E+00   3.1276E+00   2.1643E-05  0.0120
   3.1276E+00   3.2037E+00   2.1775E-05  0.0118
   3.2037E+00   3.2817E+00   2.2034E-05  0.0116
   3.2817E+00   3.3615E+00   2.1707E-05  0.0115
   3.3615E+00   3.4433E+00   2.1837E-05  0.0114
   3.4433E+00   3.5271E+00   2.1546E-05  0.0113
   3.5271E+00   3.6129E+00   2.1586E-05  0.0112
   3.6129E+00   3.7008E+00   2.1651E-05  0.0110
   3.7008E+00   3.7908E+00   2.1472E-05  0.0110
   3.7908E+00   3.8831E+00   2.1483E-05  0.0108
   3.8831E+00   3.9776E+00   2.1174E-05  0.0108
   3.9776E+00   4.0743E+00   2.1179E-05  0.0107
   4.0743E+00   4.1735E+00   2.1022E-05  0.0106
   4.1735E+00   4.2750E+00   2.1095E-05  0.0104
   4.2750E+00   4.3790E+00   2.0373E-05  0.0105
   4.3790E+00   4.4856E+00   2.0141E-05  0.0104
   4.4856E+00   4.5947E+00   1.9944E-05  0.0103
   4.5947E+00   4.7065E+00   1.9485E-05  0.0103
   4.7065E+00   4.8210E+00   1.9527E-05  0.0102
   4.8210E+00   4.9383E+00   1.9212E-05  0.0101
   4.9383E+00   5.0585E+00   1.9477E-05  0.0100
   5.0585E+00   5.1815E+00   1.9127E-05  0.0099
   5.1815E+00   5.3076E+00   1.9195E-05  0.0098
   5.3076E+00   5.4368E+00   1.9133E-05  0.0097
   5.4368E+00   5.5690E+00   1.8662E-05  0.0097
   5.5690E+00   5.7045E+00   1.8525E-05  0.0096
   5.7045E+00   5.8433E+00   1.8144E-05  0.0096
   5.8433E+00   5.9855E+00   1.8275E-05  0.0095
   5.9855E+00   6.1311E+00   1.8035E-05  0.0094
   6.1311E+00   6.2803E+00   1.8130E-05  0.0093
   6.2803E+00   6.4331E+00   1.8211E-05  0.0092
   6.4331E+00   6.5896E+00   1.7869E-05  0.0091
   6.5896E+00   6.7500E+00   1.7777E-05  0.0091
   6.7500E+00   6.9142E+00   1.7727E-05  0.0090
   6.9142E+00   7.0824E+00   1.7576E-05  0.0089
   7.0824E+00   7.2548E+00   1.7327E-05  0.0089
   7.2548E+00   7.4313E+00   1.7355E-05  0.0087
   7.4313E+00   7.6121E+00   1.7307E-05  0.0086
   7.6121E+00   7.7973E+00   1.7412E-05  0.0085
   7.7973E+00   7.9870E+00   1.6865E-05  0.0086
   7.9870E+00   8.1813E+00   1.6881E-05  0.0084
   8.1813E+00   8.3804E+00   1.6855E-05  0.0084
   8.3804E+00   8.5843E+00   1.6837E-05  0.0083
   8.5843E+00   8.7931E+00   1.6563E-05  0.0082
   8.7931E+00   9.0071E+00   1.6320E-05  0.0082
   9.0071E+00   9.2262E+00   1.6049E-05  0.0082
   9.2262E+00   9.4507E+00   1.5952E-05  0.0081
   9.4507E+00   9.6807E+00   1.5520E-05  0.0081
   9.6807E+00   9.9162E+00   1.5373E-05  0.0081
   9.9162E+00   1.0157E+01   1.6048E-05  0.0078
   1.0157E+01   1.0405E+01   1.5555E-05  0.0079
   1.0405E+01   1.0658E+01   1.5276E-05  0.0078
   1.0658E+01   1.0917E+01   1.5245E-05  0.0077
   1.0917E+01   1.1183E+01   1.4541E-05  0.0078
   1.1183E+01   1.1455E+01   1.4376E-05  0.0078
   1.1455E+01   1.1733E+01   1.4083E-05  0.0078
   1.1733E+01   1.2019E+01   1.3732E-05  0.0078
   1.2019E+01   1.2311E+01   1.3669E-05  0.0077
   1.2311E+01   1.2611E+01   1.3244E-05  0.0077
   1.2611E+01   1.2918E+01   1.3102E-05  0.0077
   1.2918E+01   1.3232E+01   1.2925E-05  0.0076
   1.3232E+01   1.3554E+01   1.2518E-05  0.0077
   1.3554E+01   1.3884E+01   1.2246E-05  0.0077
   1.3884E+01   1.4222E+01   1.2051E-05  0.0076
   1.4222E+01   1.4568E+01   1.1660E-05  0.0077
   1.4568E+01   1.4922E+01   1.1504E-05  0.0076
   1.4922E+01   1.5285E+01   1.1114E-05  0.0077
   1.5285E+01   1.5657E+01   1.0830E-05  0.0077
   1.5657E+01   1.6038E+01   1.0511E-05  0.0077
   1.6038E+01   1.6428E+01   1.0241E-05  0.0077
   1.6428E+01   1.6828E+01   9.8610E-06  0.0078
   1.6828E+01   1.7237E+01   9.8354E-06  0.0077
   1.7237E+01   1.7657E+01   9.4005E-06  0.0078
   1.7657E+01   1.8086E+01   9.0866E-06  0.0078
   1.8086E+01   1.8526E+01   8.7655E-06  0.0079
   1.8526E+01   1.8977E+01   8.5108E-06  0.0079
   1.8977E+01   1.9439E+01   8.2047E-06  0.0079
   1.9439E+01   1.9912E+01   8.0767E-06  0.0079
   1.9912E+01   2.0396E+01   7.6824E-06  0.0080
   2.0396E+01   2.0893E+01   7.3593E-06  0.0081
   2.0893E+01   2.1401E+01   7.0468E-06  0.0082
   2.1401E+01   2.1922E+01   6.7299E-06  0.0082
   2.1922E+01   2.2455E+01   6.4437E-06  0.0083
   2.2455E+01   2.3001E+01   6.1512E-06  0.0084
   2.3001E+01   2.3561E+01   5.7660E-06  0.0086
   2.3561E+01   2.4134E+01   5.5157E-06  0.0087
   2.4134E+01   2.4721E+01   5.2367E-06  0.0088
   2.4721E+01   2.5323E+01   4.9243E-06  0.0090
   2.5323E+01   2.5939E+01   4.5847E-06  0.0092
   2.5939E+01   2.6570E+01   4.3321E-06  0.0093
   2.6570E+01   2.7217E+01   3.9224E-06  0.0097
   2.7217E+01   2.7879E+01   4.0126E-06  0.0095
   2.7879E+01   2.8557E+01   8.7184E-06  0.0063
   2.8557E+01   2.9252E+01   1.1986E-05  0.0053
   2.9252E+01   2.9964E+01   1.1975E-05  0.0053
   2.9964E+01   3.0693E+01   1.1926E-05  0.0052
   3.0693E+01   3.1440E+01   1.1835E-05  0.0052
   3.1440E+01   3.2205E+01   1.1799E-05  0.0051
   3.2205E+01   3.2988E+01   1.1631E-05  0.0051
   3.2988E+01   3.3791E+01   1.1548E-05  0.0051
   3.3791E+01   3.4613E+01   1.1515E-05  0.0050
   3.4613E+01   3.5455E+01   1.1399E-05  0.0050
   3.5455E+01   3.6318E+01   1.1104E-05  0.0050
   3.6318E+01   3.7201E+01   9.4703E-06  0.0053
   3.7201E+01   3.8106E+01   5.1584E-07  0.0226
   3.8106E+01   3.9034E+01   0.0000E+00  0.0000
   3.9034E+01   3.9983E+01   0.0000E+00  0.0000
   3.9983E+01   4.0956E+01   2.4475E-10  1.0000
   4.0956E+01   4.1953E+01   2.3893E-10  1.0000
   4.1953E+01   4.2973E+01   2.3326E-10  1.0000
   4.2973E+01   4.4019E+01   2.2772E-10  1.0000
   4.4019E+01   4.5090E+01   0.0000E+00  0.0000
   4.5090E+01   4.6187E+01   0.0000E+00  0.0000
   4.6187E+01   4.7311E+01   0.0000E+00  0.0000
   4.7311E+01   4.8462E+01   0.0000E+00  0.0000
   4.8462E+01   4.9641E+01   0.0000E+00  0.0000
   4.9641E+01   5.0849E+01   0.0000E+00  0.0000
   5.0849E+01   5.2086E+01   0.0000E+00  0.0000
   5.2086E+01   5.3353E+01   0.0000E+00  0.0000
   5.3353E+01   5.4651E+01   0.0000E+00  0.0000
   5.4651E+01   5.5981E+01   0.0000E+00  0.0000
   5.5981E+01   5.7343E+01   0.0000E+00  0.0000
   5.7343E+01   5.8738E+01   0.0000E+00  0.0000
   5.8738E+01   6.0168E+01   0.0000E+00  0.0000
   6.0168E+01   6.1632E+01   0.0000E+00  0.0000
   6.1632E+01   6.3131E+01   0.0000E+00  0.0000
   6.3131E+01   6.4667E+01   0.0000E+00  0.0000
   6.4667E+01   6.6240E+01   0.0000E+00  0.0000
   6.6240E+01   6.7852E+01   0.0000E+00  0.0000
   6.7852E+01   6.9503E+01   0.0000E+00  0.0000
   6.9503E+01   7.1194E+01   0.0000E+00  0.0000
   7.1194E+01   7.2926E+01   0.0000E+00  0.0000
   7.2926E+01   7.4701E+01   0.0000E+00  0.0000
   7.4701E+01   7.6518E+01   0.0000E+00  0.0000
   7.6518E+01   7.8380E+01   0.0000E+00  0.0000
   7.8380E+01   8.0287E+01   0.0000E+00  0.0000
   8.0287E+01   8.2240E+01   0.0000E+00  0.0000
   8.2240E+01   8.4241E+01   0.0000E+00  0.0000
   8.4241E+01   8.6291E+01   0.0000E+00  0.0000
   8.6291E+01   8.8391E+01   0.0000E+00  0.0000
   8.8391E+01   9.0541E+01   0.0000E+00  0.0000
   9.0541E+01   9.2744E+01   0.0000E+00  0.0000
   9.2744E+01   9.5001E+01   0.0000E+00  0.0000
   9.5001E+01   9.7312E+01   0.0000E+00  0.0000
   9.7312E+01   9.9680E+01   0.0000E+00  0.0000
   9.9680E+01   1.0211E+02   0.0000E+00  0.0000
   1.0211E+02   1.0459E+02   0.0000E+00  0.0000
   1.0459E+02   1.0713E+02   0.0000E+00  0.0000
   1.0713E+02   1.0974E+02   0.0000E+00  0.0000
   1.0974E+02   1.1241E+02   0.0000E+00  0.0000
   1.1241E+02   1.1515E+02   0.0000E+00  0.0000
   1.1515E+02   1.1795E+02   0.0000E+00  0.0000
   1.1795E+02   1.2082E+02   0.0000E+00  0.0000
   1.2082E+02   1.2376E+02   0.0000E+00  0.0000
   1.2376E+02   1.2677E+02   0.0000E+00  0.0000
   1.2677E+02   1.2985E+02   0.0000E+00  0.0000
   1.2985E+02   1.3301E+02   0.0000E+00  0.0000
   1.3301E+02   1.3625E+02   0.0000E+00  0.0000
   1.3625E+02   1.3956E+02   0.0000E+00  0.0000
   1.3956E+02   1.4296E+02   0.0000E+00  0.0000
   1.4296E+02   1.4644E+02   0.0000E+00  0.0000
   1.4644E+02   1.5000E+02   0.0000E+00  0.0000

#   sum over                 3.0103E-06
'no. =    1   reg = 104 - 204'
msuc: {\huge [t-cross] in region mesh}
msdr: {\it plotted by \ANGEL \version}
msdl: {\it calculated by \PHITS  3.26}
wt: s(0.7)
\vspace{-3}
  region surface crossing
  area  &=&   1.0000E+00 [cm^2]
e:
 
# Information for Restart Calculation
# This calculation was newly started
# istdev =  2 # 1:Batch variance, 2:History variance
# resc2  = 4.20000000000000000E+09 # Total source weight or Total source weight / maxcas
# resc3  = 4.20000000000000000E+09 # Total history number or Total batch number
# maxcas =   100000000 # History / Batch, only used for istdev=1
# bitrseed = 1101011101000111110110101100101110110111100010010110000001011111 # bit data of rseed
