0 <--- number of remaining batches 

-------------------------------------------------------------------------------
bat[      10] ncas =     5000000000.
 bitrseed = 0001011101011011011000011100010110101100100111100111010011101011
          cpu time = -16.703 s.

 date = 2022-06-04
 time = 20h 49m 31s

