[ T-Cross ]
    title = [t-cross] in region mesh
     mesh =  reg            # mesh type is region-wise
      reg =    1            # number of crossing regions
      non     r-from    r-to       area
      1       106       206        1.000000    
   e-type =    3            # e-mesh is log given by emin, emax and ne
     emin =  1.0000000E-02  # minimum value of e-mesh points
     emax =   150.0000      # maximum value of e-mesh points
#    edel =  2.4039514E-02  # mesh width of e-mesh points
       ne =    400          # number of e-mesh points
#    data = ( e(i), i = 1, ne + 1 )
#           1.00000E-02  1.02433E-02  1.04925E-02  1.07478E-02  1.10093E-02
#           1.12772E-02  1.15516E-02  1.18326E-02  1.21205E-02  1.24154E-02
#           1.27175E-02  1.30269E-02  1.33439E-02  1.36686E-02  1.40011E-02
#           1.43418E-02  1.46907E-02  1.50482E-02  1.54143E-02  1.57894E-02
#           1.61735E-02  1.65670E-02  1.69701E-02  1.73830E-02  1.78060E-02
#           1.82392E-02  1.86830E-02  1.91375E-02  1.96032E-02  2.00801E-02
#           2.05687E-02  2.10692E-02  2.15818E-02  2.21069E-02  2.26448E-02
#           2.31957E-02  2.37601E-02  2.43382E-02  2.49304E-02  2.55369E-02
#           2.61583E-02  2.67947E-02  2.74467E-02  2.81145E-02  2.87985E-02
#           2.94992E-02  3.02169E-02  3.09521E-02  3.17052E-02  3.24766E-02
#           3.32668E-02  3.40762E-02  3.49053E-02  3.57546E-02  3.66246E-02
#           3.75157E-02  3.84284E-02  3.93634E-02  4.03212E-02  4.13022E-02
#           4.23071E-02  4.33365E-02  4.43909E-02  4.54710E-02  4.65773E-02
#           4.77106E-02  4.88714E-02  5.00605E-02  5.12785E-02  5.25262E-02
#           5.38042E-02  5.51133E-02  5.64542E-02  5.78278E-02  5.92348E-02
#           6.06760E-02  6.21523E-02  6.36645E-02  6.52135E-02  6.68002E-02
#           6.84255E-02  7.00904E-02  7.17957E-02  7.35426E-02  7.53319E-02
#           7.71648E-02  7.90423E-02  8.09655E-02  8.29354E-02  8.49533E-02
#           8.70203E-02  8.91376E-02  9.13064E-02  9.35279E-02  9.58035E-02
#           9.81345E-02  1.00522E-01  1.02968E-01  1.05473E-01  1.08040E-01
#           1.10668E-01  1.13361E-01  1.16119E-01  1.18944E-01  1.21838E-01
#           1.24803E-01  1.27839E-01  1.30950E-01  1.34136E-01  1.37399E-01
#           1.40742E-01  1.44167E-01  1.47675E-01  1.51268E-01  1.54948E-01
#           1.58718E-01  1.62580E-01  1.66535E-01  1.70587E-01  1.74738E-01
#           1.78989E-01  1.83344E-01  1.87805E-01  1.92375E-01  1.97055E-01
#           2.01850E-01  2.06761E-01  2.11792E-01  2.16945E-01  2.22223E-01
#           2.27630E-01  2.33169E-01  2.38842E-01  2.44653E-01  2.50605E-01
#           2.56703E-01  2.62949E-01  2.69346E-01  2.75900E-01  2.82613E-01
#           2.89489E-01  2.96532E-01  3.03747E-01  3.11138E-01  3.18708E-01
#           3.26462E-01  3.34405E-01  3.42542E-01  3.50876E-01  3.59413E-01
#           3.68158E-01  3.77116E-01  3.86291E-01  3.95690E-01  4.05317E-01
#           4.15179E-01  4.25281E-01  4.35628E-01  4.46227E-01  4.57084E-01
#           4.68205E-01  4.79597E-01  4.91266E-01  5.03219E-01  5.15463E-01
#           5.28005E-01  5.40851E-01  5.54011E-01  5.67490E-01  5.81298E-01
#           5.95441E-01  6.09929E-01  6.24769E-01  6.39970E-01  6.55541E-01
#           6.71491E-01  6.87828E-01  7.04564E-01  7.21706E-01  7.39266E-01
#           7.57253E-01  7.75678E-01  7.94551E-01  8.13883E-01  8.33685E-01
#           8.53969E-01  8.74747E-01  8.96030E-01  9.17831E-01  9.40163E-01
#           9.63038E-01  9.86469E-01  1.01047E+00  1.03506E+00  1.06024E+00
#           1.08604E+00  1.11246E+00  1.13953E+00  1.16725E+00  1.19565E+00
#           1.22474E+00  1.25454E+00  1.28507E+00  1.31633E+00  1.34836E+00
#           1.38117E+00  1.41477E+00  1.44920E+00  1.48446E+00  1.52057E+00
#           1.55757E+00  1.59547E+00  1.63429E+00  1.67405E+00  1.71478E+00
#           1.75650E+00  1.79924E+00  1.84302E+00  1.88786E+00  1.93379E+00
#           1.98084E+00  2.02904E+00  2.07841E+00  2.12898E+00  2.18078E+00
#           2.23384E+00  2.28819E+00  2.34386E+00  2.40089E+00  2.45930E+00
#           2.51914E+00  2.58043E+00  2.64322E+00  2.70753E+00  2.77341E+00
#           2.84088E+00  2.91001E+00  2.98081E+00  3.05333E+00  3.12762E+00
#           3.20372E+00  3.28167E+00  3.36152E+00  3.44330E+00  3.52708E+00
#           3.61290E+00  3.70080E+00  3.79085E+00  3.88308E+00  3.97756E+00
#           4.07434E+00  4.17347E+00  4.27501E+00  4.37903E+00  4.48557E+00
#           4.59471E+00  4.70650E+00  4.82102E+00  4.93832E+00  5.05847E+00
#           5.18155E+00  5.30762E+00  5.43676E+00  5.56904E+00  5.70453E+00
#           5.84333E+00  5.98550E+00  6.13114E+00  6.28031E+00  6.43312E+00
#           6.58964E+00  6.74997E+00  6.91420E+00  7.08243E+00  7.25475E+00
#           7.43126E+00  7.61207E+00  7.79728E+00  7.98700E+00  8.18133E+00
#           8.38038E+00  8.58428E+00  8.79315E+00  9.00709E+00  9.22624E+00
#           9.45072E+00  9.68067E+00  9.91620E+00  1.01575E+01  1.04046E+01
#           1.06578E+01  1.09171E+01  1.11827E+01  1.14548E+01  1.17335E+01
#           1.20190E+01  1.23114E+01  1.26109E+01  1.29178E+01  1.32321E+01
#           1.35540E+01  1.38838E+01  1.42216E+01  1.45676E+01  1.49221E+01
#           1.52851E+01  1.56570E+01  1.60380E+01  1.64282E+01  1.68279E+01
#           1.72374E+01  1.76568E+01  1.80864E+01  1.85264E+01  1.89772E+01
#           1.94389E+01  1.99119E+01  2.03963E+01  2.08926E+01  2.14009E+01
#           2.19216E+01  2.24550E+01  2.30014E+01  2.35610E+01  2.41343E+01
#           2.47215E+01  2.53230E+01  2.59391E+01  2.65702E+01  2.72167E+01
#           2.78789E+01  2.85572E+01  2.92520E+01  2.99637E+01  3.06928E+01
#           3.14396E+01  3.22045E+01  3.29881E+01  3.37907E+01  3.46128E+01
#           3.54550E+01  3.63177E+01  3.72013E+01  3.81064E+01  3.90336E+01
#           3.99833E+01  4.09561E+01  4.19526E+01  4.29734E+01  4.40189E+01
#           4.50900E+01  4.61870E+01  4.73108E+01  4.84619E+01  4.96410E+01
#           5.08488E+01  5.20860E+01  5.33533E+01  5.46514E+01  5.59812E+01
#           5.73432E+01  5.87384E+01  6.01676E+01  6.16315E+01  6.31311E+01
#           6.46671E+01  6.62405E+01  6.78522E+01  6.95031E+01  7.11941E+01
#           7.29263E+01  7.47007E+01  7.65182E+01  7.83800E+01  8.02870E+01
#           8.22405E+01  8.42414E+01  8.62911E+01  8.83906E+01  9.05412E+01
#           9.27442E+01  9.50007E+01  9.73122E+01  9.96799E+01  1.02105E+02
#           1.04589E+02  1.07134E+02  1.09741E+02  1.12411E+02  1.15146E+02
#           1.17948E+02  1.20817E+02  1.23757E+02  1.26768E+02  1.29852E+02
#           1.33012E+02  1.36248E+02  1.39563E+02  1.42959E+02  1.46437E+02
#           1.50000E+02
     unit =    2            # unit is [1/cm^2/(MeV/n)/source]
     axis =  eng            # axis of output
     file = detector-07.out  # file name of output for the above axis
   output = f-curr          # surface crossing forward current spectrum
     part =  neutron  
# kf/name :  2112     
#    used :        main (  %)        temp (  %)       total (  %)
#  memory :         414 (  0)           0 (  0)         414 (  0)

#------------------------------------------------------------------------------
#newpage:
#   no. =    1   reg = 106 - 206

x: Energy [MeV/n]
y:  F-Curr [1/cm^2/(MeV/n)/source]         
p: xlog ylog afac(0.8) form(0.9)
h: n            x            y(neutron ),hh0l   n 
#  e-lower      e-upper      neutron     r.err 
   1.0000E-02   1.0243E-02   4.9244E-04  0.0420
   1.0243E-02   1.0493E-02   4.4621E-04  0.0436
   1.0493E-02   1.0748E-02   4.7730E-04  0.0417
   1.0748E-02   1.1009E-02   4.6922E-04  0.0415
   1.1009E-02   1.1277E-02   4.5575E-04  0.0416
   1.1277E-02   1.1552E-02   4.1878E-04  0.0429
   1.1552E-02   1.1833E-02   3.8665E-04  0.0441
   1.1833E-02   1.2121E-02   4.0585E-04  0.0426
   1.2121E-02   1.2415E-02   3.8307E-04  0.0432
   1.2415E-02   1.2718E-02   3.8962E-04  0.0424
   1.2718E-02   1.3027E-02   3.9391E-04  0.0416
   1.3027E-02   1.3344E-02   3.6428E-04  0.0428
   1.3344E-02   1.3669E-02   3.4888E-04  0.0431
   1.3669E-02   1.4001E-02   3.5137E-04  0.0425
   1.4001E-02   1.4342E-02   3.5085E-04  0.0420
   1.4342E-02   1.4691E-02   3.4754E-04  0.0417
   1.4691E-02   1.5048E-02   3.4949E-04  0.0411
   1.5048E-02   1.5414E-02   3.2620E-04  0.0420
   1.5414E-02   1.5789E-02   3.1891E-04  0.0420
   1.5789E-02   1.6174E-02   3.1127E-04  0.0420
   1.6174E-02   1.6567E-02   2.8973E-04  0.0431
   1.6567E-02   1.6970E-02   2.8284E-04  0.0430
   1.6970E-02   1.7383E-02   2.8232E-04  0.0425
   1.7383E-02   1.7806E-02   2.6602E-04  0.0433
   1.7806E-02   1.8239E-02   2.7506E-04  0.0421
   1.8239E-02   1.8683E-02   2.7184E-04  0.0418
   1.8683E-02   1.9138E-02   2.5766E-04  0.0425
   1.9138E-02   1.9603E-02   2.5553E-04  0.0421
   1.9603E-02   2.0080E-02   2.7011E-04  0.0405
   2.0080E-02   2.0569E-02   2.5216E-04  0.0414
   2.0569E-02   2.1069E-02   2.2502E-04  0.0433
   2.1069E-02   2.1582E-02   2.4940E-04  0.0406
   2.1582E-02   2.2107E-02   2.2730E-04  0.0421
   2.2107E-02   2.2645E-02   2.1791E-04  0.0425
   2.2645E-02   2.3196E-02   2.2175E-04  0.0416
   2.3196E-02   2.3760E-02   2.2128E-04  0.0411
   2.3760E-02   2.4338E-02   2.2193E-04  0.0405
   2.4338E-02   2.4930E-02   2.0210E-04  0.0420
   2.4930E-02   2.5537E-02   1.9736E-04  0.0420
   2.5537E-02   2.6158E-02   2.0655E-04  0.0406
   2.6158E-02   2.6795E-02   1.9028E-04  0.0417
   2.6795E-02   2.7447E-02   1.7643E-04  0.0428
   2.7447E-02   2.8114E-02   1.8087E-04  0.0418
   2.8114E-02   2.8799E-02   1.8364E-04  0.0410
   2.8799E-02   2.9499E-02   1.7153E-04  0.0419
   2.9499E-02   3.0217E-02   1.6778E-04  0.0419
   3.0217E-02   3.0952E-02   1.7130E-04  0.0409
   3.0952E-02   3.1705E-02   1.5216E-04  0.0429
   3.1705E-02   3.2477E-02   1.6228E-04  0.0411
   3.2477E-02   3.3267E-02   1.4778E-04  0.0425
   3.3267E-02   3.4076E-02   1.5625E-04  0.0408
   3.4076E-02   3.4905E-02   1.5024E-04  0.0412
   3.4905E-02   3.5755E-02   1.4789E-04  0.0410
   3.5755E-02   3.6625E-02   1.4502E-04  0.0409
   3.6625E-02   3.7516E-02   1.3724E-04  0.0415
   3.7516E-02   3.8428E-02   1.3280E-04  0.0418
   3.8428E-02   3.9363E-02   1.3906E-04  0.0403
   3.9363E-02   4.0321E-02   1.2816E-04  0.0414
   4.0321E-02   4.1302E-02   1.2883E-04  0.0408
   4.1302E-02   4.2307E-02   1.3022E-04  0.0401
   4.2307E-02   4.3337E-02   1.2257E-04  0.0409
   4.3337E-02   4.4391E-02   1.1661E-04  0.0414
   4.4391E-02   4.5471E-02   1.2466E-04  0.0396
   4.5471E-02   4.6577E-02   1.0729E-04  0.0422
   4.6577E-02   4.7711E-02   1.0856E-04  0.0414
   4.7711E-02   4.8871E-02   1.1201E-04  0.0403
   4.8871E-02   5.0061E-02   1.0909E-04  0.0403
   5.0061E-02   5.1279E-02   1.0641E-04  0.0403
   5.1279E-02   5.2526E-02   1.0136E-04  0.0408
   5.2526E-02   5.3804E-02   9.6644E-05  0.0413
   5.3804E-02   5.5113E-02   1.0264E-04  0.0396
   5.5113E-02   5.6454E-02   9.3464E-05  0.0410
   5.6454E-02   5.7828E-02   9.2577E-05  0.0407
   5.7828E-02   5.9235E-02   8.9537E-05  0.0409
   5.9235E-02   6.0676E-02   8.6296E-05  0.0412
   6.0676E-02   6.2152E-02   9.2647E-05  0.0393
   6.2152E-02   6.3665E-02   8.5458E-05  0.0404
   6.3665E-02   6.5214E-02   7.9255E-05  0.0415
   6.5214E-02   6.6800E-02   8.5182E-05  0.0395
   6.6800E-02   6.8426E-02   8.3752E-05  0.0393
   6.8426E-02   7.0090E-02   8.1798E-05  0.0394
   7.0090E-02   7.1796E-02   8.2107E-05  0.0388
   7.1796E-02   7.3543E-02   7.4039E-05  0.0404
   7.3543E-02   7.5332E-02   7.3426E-05  0.0400
   7.5332E-02   7.7165E-02   7.2756E-05  0.0398
   7.7165E-02   7.9042E-02   6.9634E-05  0.0402
   7.9042E-02   8.0965E-02   7.3118E-05  0.0387
   8.0965E-02   8.2935E-02   7.0815E-05  0.0389
   8.2935E-02   8.4953E-02   7.0486E-05  0.0385
   8.4953E-02   8.7020E-02   6.9464E-05  0.0383
   8.7020E-02   8.9138E-02   6.6406E-05  0.0387
   8.9138E-02   9.1306E-02   6.5463E-05  0.0386
   9.1306E-02   9.3528E-02   6.7880E-05  0.0374
   9.3528E-02   9.5804E-02   6.7263E-05  0.0371
   9.5804E-02   9.8134E-02   5.9834E-05  0.0389
   9.8134E-02   1.0052E-01   6.5856E-05  0.0366
   1.0052E-01   1.0297E-01   6.4880E-05  0.0365
   1.0297E-01   1.0547E-01   7.3159E-05  0.0339
   1.0547E-01   1.0804E-01   7.1490E-05  0.0339
   1.0804E-01   1.1067E-01   7.4249E-05  0.0329
   1.1067E-01   1.1336E-01   7.8397E-05  0.0316
   1.1336E-01   1.1612E-01   8.2909E-05  0.0304
   1.1612E-01   1.1894E-01   8.8020E-05  0.0291
   1.1894E-01   1.2184E-01   9.1352E-05  0.0282
   1.2184E-01   1.2480E-01   8.7531E-05  0.0285
   1.2480E-01   1.2784E-01   9.1039E-05  0.0276
   1.2784E-01   1.3095E-01   1.0132E-04  0.0259
   1.3095E-01   1.3414E-01   1.0137E-04  0.0256
   1.3414E-01   1.3740E-01   1.0297E-04  0.0250
   1.3740E-01   1.4074E-01   1.0483E-04  0.0245
   1.4074E-01   1.4417E-01   1.1243E-04  0.0234
   1.4417E-01   1.4767E-01   1.1847E-04  0.0225
   1.4767E-01   1.5127E-01   1.2088E-04  0.0220
   1.5127E-01   1.5495E-01   1.3152E-04  0.0209
   1.5495E-01   1.5872E-01   1.3283E-04  0.0205
   1.5872E-01   1.6258E-01   1.3830E-04  0.0199
   1.6258E-01   1.6654E-01   1.4310E-04  0.0193
   1.6654E-01   1.7059E-01   1.5022E-04  0.0186
   1.7059E-01   1.7474E-01   1.5445E-04  0.0181
   1.7474E-01   1.7899E-01   1.5809E-04  0.0177
   1.7899E-01   1.8334E-01   1.6595E-04  0.0171
   1.8334E-01   1.8781E-01   1.6840E-04  0.0168
   1.8781E-01   1.9237E-01   1.7849E-04  0.0161
   1.9237E-01   1.9706E-01   1.7676E-04  0.0160
   1.9706E-01   2.0185E-01   1.8399E-04  0.0155
   2.0185E-01   2.0676E-01   1.9421E-04  0.0149
   2.0676E-01   2.1179E-01   1.9437E-04  0.0147
   2.1179E-01   2.1694E-01   2.0778E-04  0.0140
   2.1694E-01   2.2222E-01   2.0714E-04  0.0139
   2.2222E-01   2.2763E-01   2.1492E-04  0.0135
   2.2763E-01   2.3317E-01   2.2325E-04  0.0131
   2.3317E-01   2.3884E-01   2.2679E-04  0.0128
   2.3884E-01   2.4465E-01   2.3601E-04  0.0124
   2.4465E-01   2.5061E-01   2.4436E-04  0.0120
   2.5061E-01   2.5670E-01   2.5233E-04  0.0117
   2.5670E-01   2.6295E-01   2.5596E-04  0.0115
   2.6295E-01   2.6935E-01   2.5772E-04  0.0113
   2.6935E-01   2.7590E-01   2.6798E-04  0.0110
   2.7590E-01   2.8261E-01   2.6946E-04  0.0108
   2.8261E-01   2.8949E-01   2.8298E-04  0.0104
   2.8949E-01   2.9653E-01   2.8862E-04  0.0102
   2.9653E-01   3.0375E-01   2.9706E-04  0.0099
   3.0375E-01   3.1114E-01   2.9389E-04  0.0099
   3.1114E-01   3.1871E-01   3.0620E-04  0.0095
   3.1871E-01   3.2646E-01   3.1008E-04  0.0094
   3.2646E-01   3.3441E-01   3.2221E-04  0.0091
   3.3441E-01   3.4254E-01   3.1863E-04  0.0090
   3.4254E-01   3.5088E-01   3.3118E-04  0.0087
   3.5088E-01   3.5941E-01   3.3960E-04  0.0085
   3.5941E-01   3.6816E-01   3.4861E-04  0.0083
   3.6816E-01   3.7712E-01   3.5869E-04  0.0081
   3.7712E-01   3.8629E-01   3.5865E-04  0.0080
   3.8629E-01   3.9569E-01   3.6183E-04  0.0079
   3.9569E-01   4.0532E-01   3.7157E-04  0.0077
   4.0532E-01   4.1518E-01   3.7612E-04  0.0075
   4.1518E-01   4.2528E-01   3.7916E-04  0.0074
   4.2528E-01   4.3563E-01   3.8073E-04  0.0073
   4.3563E-01   4.4623E-01   3.9300E-04  0.0071
   4.4623E-01   4.5708E-01   3.9247E-04  0.0070
   4.5708E-01   4.6821E-01   3.9890E-04  0.0069
   4.6821E-01   4.7960E-01   3.9955E-04  0.0068
   4.7960E-01   4.9127E-01   4.0105E-04  0.0067
   4.9127E-01   5.0322E-01   4.0778E-04  0.0066
   5.0322E-01   5.1546E-01   4.1030E-04  0.0065
   5.1546E-01   5.2800E-01   4.1378E-04  0.0064
   5.2800E-01   5.4085E-01   4.1763E-04  0.0063
   5.4085E-01   5.5401E-01   4.1931E-04  0.0062
   5.5401E-01   5.6749E-01   4.1970E-04  0.0061
   5.6749E-01   5.8130E-01   4.2094E-04  0.0060
   5.8130E-01   5.9544E-01   4.2054E-04  0.0059
   5.9544E-01   6.0993E-01   4.2316E-04  0.0059
   6.0993E-01   6.2477E-01   4.2094E-04  0.0058
   6.2477E-01   6.3997E-01   4.2251E-04  0.0057
   6.3997E-01   6.5554E-01   4.2065E-04  0.0057
   6.5554E-01   6.7149E-01   4.1726E-04  0.0056
   6.7149E-01   6.8783E-01   4.1485E-04  0.0056
   6.8783E-01   7.0456E-01   4.1474E-04  0.0055
   7.0456E-01   7.2171E-01   4.1221E-04  0.0055
   7.2171E-01   7.3927E-01   4.0921E-04  0.0054
   7.3927E-01   7.5725E-01   4.0892E-04  0.0053
   7.5725E-01   7.7568E-01   3.9777E-04  0.0053
   7.7568E-01   7.9455E-01   3.9440E-04  0.0053
   7.9455E-01   8.1388E-01   3.9222E-04  0.0053
   8.1388E-01   8.3368E-01   3.8172E-04  0.0053
   8.3368E-01   8.5397E-01   3.7455E-04  0.0053
   8.5397E-01   8.7475E-01   3.6978E-04  0.0052
   8.7475E-01   8.9603E-01   3.5772E-04  0.0052
   8.9603E-01   9.1783E-01   3.4915E-04  0.0052
   9.1783E-01   9.4016E-01   3.3533E-04  0.0053
   9.4016E-01   9.6304E-01   3.2710E-04  0.0053
   9.6304E-01   9.8647E-01   3.1578E-04  0.0053
   9.8647E-01   1.0105E+00   3.0741E-04  0.0053
   1.0105E+00   1.0351E+00   3.0701E-04  0.0053
   1.0351E+00   1.0602E+00   3.1077E-04  0.0052
   1.0602E+00   1.0860E+00   3.1442E-04  0.0051
   1.0860E+00   1.1125E+00   3.1915E-04  0.0050
   1.1125E+00   1.1395E+00   3.2703E-04  0.0049
   1.1395E+00   1.1673E+00   3.3307E-04  0.0047
   1.1673E+00   1.1957E+00   3.4226E-04  0.0046
   1.1957E+00   1.2247E+00   3.4699E-04  0.0045
   1.2247E+00   1.2545E+00   3.5204E-04  0.0045
   1.2545E+00   1.2851E+00   3.5555E-04  0.0044
   1.2851E+00   1.3163E+00   3.5595E-04  0.0043
   1.3163E+00   1.3484E+00   3.6175E-04  0.0042
   1.3484E+00   1.3812E+00   3.6387E-04  0.0042
   1.3812E+00   1.4148E+00   3.7666E-04  0.0040
   1.4148E+00   1.4492E+00   3.7805E-04  0.0040
   1.4492E+00   1.4845E+00   3.7622E-04  0.0039
   1.4845E+00   1.5206E+00   3.7501E-04  0.0039
   1.5206E+00   1.5576E+00   3.6958E-04  0.0039
   1.5576E+00   1.5955E+00   3.7024E-04  0.0038
   1.5955E+00   1.6343E+00   3.7365E-04  0.0038
   1.6343E+00   1.6741E+00   3.7509E-04  0.0037
   1.6741E+00   1.7148E+00   3.7465E-04  0.0037
   1.7148E+00   1.7565E+00   3.6869E-04  0.0037
   1.7565E+00   1.7992E+00   3.5160E-04  0.0037
   1.7992E+00   1.8430E+00   3.4295E-04  0.0037
   1.8430E+00   1.8879E+00   3.3373E-04  0.0037
   1.8879E+00   1.9338E+00   3.3228E-04  0.0036
   1.9338E+00   1.9808E+00   3.3129E-04  0.0036
   1.9808E+00   2.0290E+00   3.3275E-04  0.0036
   2.0290E+00   2.0784E+00   3.3492E-04  0.0035
   2.0784E+00   2.1290E+00   3.3899E-04  0.0034
   2.1290E+00   2.1808E+00   3.4298E-04  0.0034
   2.1808E+00   2.2338E+00   3.4434E-04  0.0033
   2.2338E+00   2.2882E+00   3.3987E-04  0.0033
   2.2882E+00   2.3439E+00   3.3306E-04  0.0033
   2.3439E+00   2.4009E+00   3.3206E-04  0.0033
   2.4009E+00   2.4593E+00   3.3373E-04  0.0032
   2.4593E+00   2.5191E+00   3.3102E-04  0.0032
   2.5191E+00   2.5804E+00   3.2992E-04  0.0032
   2.5804E+00   2.6432E+00   3.2734E-04  0.0031
   2.6432E+00   2.7075E+00   3.2566E-04  0.0031
   2.7075E+00   2.7734E+00   3.2275E-04  0.0031
   2.7734E+00   2.8409E+00   3.2292E-04  0.0031
   2.8409E+00   2.9100E+00   3.2167E-04  0.0030
   2.9100E+00   2.9808E+00   3.2147E-04  0.0030
   2.9808E+00   3.0533E+00   3.1778E-04  0.0030
   3.0533E+00   3.1276E+00   3.1360E-04  0.0030
   3.1276E+00   3.2037E+00   3.1243E-04  0.0029
   3.2037E+00   3.2817E+00   3.1112E-04  0.0029
   3.2817E+00   3.3615E+00   3.0853E-04  0.0029
   3.3615E+00   3.4433E+00   3.0665E-04  0.0029
   3.4433E+00   3.5271E+00   3.0785E-04  0.0028
   3.5271E+00   3.6129E+00   3.0500E-04  0.0028
   3.6129E+00   3.7008E+00   3.0070E-04  0.0028
   3.7008E+00   3.7908E+00   2.9903E-04  0.0028
   3.7908E+00   3.8831E+00   2.9647E-04  0.0027
   3.8831E+00   3.9776E+00   2.9239E-04  0.0027
   3.9776E+00   4.0743E+00   2.9020E-04  0.0027
   4.0743E+00   4.1735E+00   2.8627E-04  0.0027
   4.1735E+00   4.2750E+00   2.8177E-04  0.0027
   4.2750E+00   4.3790E+00   2.7828E-04  0.0027
   4.3790E+00   4.4856E+00   2.7309E-04  0.0027
   4.4856E+00   4.5947E+00   2.6971E-04  0.0026
   4.5947E+00   4.7065E+00   2.6484E-04  0.0026
   4.7065E+00   4.8210E+00   2.6259E-04  0.0026
   4.8210E+00   4.9383E+00   2.5973E-04  0.0026
   4.9383E+00   5.0585E+00   2.5604E-04  0.0026
   5.0585E+00   5.1815E+00   2.5409E-04  0.0026
   5.1815E+00   5.3076E+00   2.5167E-04  0.0026
   5.3076E+00   5.4368E+00   2.4787E-04  0.0025
   5.4368E+00   5.5690E+00   2.4455E-04  0.0025
   5.5690E+00   5.7045E+00   2.4254E-04  0.0025
   5.7045E+00   5.8433E+00   2.3948E-04  0.0025
   5.8433E+00   5.9855E+00   2.3621E-04  0.0025
   5.9855E+00   6.1311E+00   2.3383E-04  0.0025
   6.1311E+00   6.2803E+00   2.3128E-04  0.0025
   6.2803E+00   6.4331E+00   2.2969E-04  0.0024
   6.4331E+00   6.5896E+00   2.2688E-04  0.0024
   6.5896E+00   6.7500E+00   2.2338E-04  0.0024
   6.7500E+00   6.9142E+00   2.2109E-04  0.0024
   6.9142E+00   7.0824E+00   2.1778E-04  0.0024
   7.0824E+00   7.2548E+00   2.1479E-04  0.0024
   7.2548E+00   7.4313E+00   2.1206E-04  0.0024
   7.4313E+00   7.6121E+00   2.0901E-04  0.0023
   7.6121E+00   7.7973E+00   2.0587E-04  0.0023
   7.7973E+00   7.9870E+00   2.0273E-04  0.0023
   7.9870E+00   8.1813E+00   1.9950E-04  0.0023
   8.1813E+00   8.3804E+00   1.9693E-04  0.0023
   8.3804E+00   8.5843E+00   1.9352E-04  0.0023
   8.5843E+00   8.7931E+00   1.9124E-04  0.0023
   8.7931E+00   9.0071E+00   1.8597E-04  0.0023
   9.0071E+00   9.2262E+00   1.8243E-04  0.0023
   9.2262E+00   9.4507E+00   1.7865E-04  0.0023
   9.4507E+00   9.6807E+00   1.7395E-04  0.0023
   9.6807E+00   9.9162E+00   1.7331E-04  0.0023
   9.9162E+00   1.0157E+01   1.7732E-04  0.0022
   1.0157E+01   1.0405E+01   1.7415E-04  0.0022
   1.0405E+01   1.0658E+01   1.7184E-04  0.0022
   1.0658E+01   1.0917E+01   1.6788E-04  0.0022
   1.0917E+01   1.1183E+01   1.6332E-04  0.0022
   1.1183E+01   1.1455E+01   1.6072E-04  0.0022
   1.1455E+01   1.1733E+01   1.5859E-04  0.0022
   1.1733E+01   1.2019E+01   1.5646E-04  0.0022
   1.2019E+01   1.2311E+01   1.5443E-04  0.0022
   1.2311E+01   1.2611E+01   1.5275E-04  0.0022
   1.2611E+01   1.2918E+01   1.5161E-04  0.0021
   1.2918E+01   1.3232E+01   1.4923E-04  0.0021
   1.3232E+01   1.3554E+01   1.4678E-04  0.0021
   1.3554E+01   1.3884E+01   1.4519E-04  0.0021
   1.3884E+01   1.4222E+01   1.4385E-04  0.0021
   1.4222E+01   1.4568E+01   1.4169E-04  0.0021
   1.4568E+01   1.4922E+01   1.4058E-04  0.0021
   1.4922E+01   1.5285E+01   1.3899E-04  0.0021
   1.5285E+01   1.5657E+01   1.3742E-04  0.0020
   1.5657E+01   1.6038E+01   1.3540E-04  0.0020
   1.6038E+01   1.6428E+01   1.3438E-04  0.0020
   1.6428E+01   1.6828E+01   1.3231E-04  0.0020
   1.6828E+01   1.7237E+01   1.3093E-04  0.0020
   1.7237E+01   1.7657E+01   1.2944E-04  0.0020
   1.7657E+01   1.8086E+01   1.2781E-04  0.0020
   1.8086E+01   1.8526E+01   1.2616E-04  0.0020
   1.8526E+01   1.8977E+01   1.2406E-04  0.0020
   1.8977E+01   1.9439E+01   1.2253E-04  0.0019
   1.9439E+01   1.9912E+01   1.2229E-04  0.0019
   1.9912E+01   2.0396E+01   1.2148E-04  0.0019
   2.0396E+01   2.0893E+01   1.2073E-04  0.0019
   2.0893E+01   2.1401E+01   1.1900E-04  0.0019
   2.1401E+01   2.1922E+01   1.1735E-04  0.0019
   2.1922E+01   2.2455E+01   1.1620E-04  0.0019
   2.2455E+01   2.3001E+01   1.1515E-04  0.0018
   2.3001E+01   2.3561E+01   1.1361E-04  0.0018
   2.3561E+01   2.4134E+01   1.1187E-04  0.0018
   2.4134E+01   2.4721E+01   1.1058E-04  0.0018
   2.4721E+01   2.5323E+01   1.0905E-04  0.0018
   2.5323E+01   2.5939E+01   1.0790E-04  0.0018
   2.5939E+01   2.6570E+01   1.0657E-04  0.0018
   2.6570E+01   2.7217E+01   1.0506E-04  0.0018
   2.7217E+01   2.7879E+01   1.0566E-04  0.0017
   2.7879E+01   2.8557E+01   1.0754E-04  0.0017
   2.8557E+01   2.9252E+01   1.0616E-04  0.0017
   2.9252E+01   2.9964E+01   1.0549E-04  0.0017
   2.9964E+01   3.0693E+01   1.0384E-04  0.0017
   3.0693E+01   3.1440E+01   1.0276E-04  0.0017
   3.1440E+01   3.2205E+01   1.0083E-04  0.0017
   3.2205E+01   3.2988E+01   1.0012E-04  0.0016
   3.2988E+01   3.3791E+01   9.8733E-05  0.0016
   3.3791E+01   3.4613E+01   9.7373E-05  0.0016
   3.4613E+01   3.5455E+01   9.6158E-05  0.0016
   3.5455E+01   3.6318E+01   9.4748E-05  0.0016
   3.6318E+01   3.7201E+01   9.3545E-05  0.0016
   3.7201E+01   3.8106E+01   9.2222E-05  0.0016
   3.8106E+01   3.9034E+01   9.0886E-05  0.0016
   3.9034E+01   3.9983E+01   8.9551E-05  0.0016
   3.9983E+01   4.0956E+01   8.8107E-05  0.0016
   4.0956E+01   4.1953E+01   8.6336E-05  0.0016
   4.1953E+01   4.2973E+01   8.5003E-05  0.0016
   4.2973E+01   4.4019E+01   8.3420E-05  0.0016
   4.4019E+01   4.5090E+01   8.2173E-05  0.0016
   4.5090E+01   4.6187E+01   8.0443E-05  0.0016
   4.6187E+01   4.7311E+01   7.8705E-05  0.0016
   4.7311E+01   4.8462E+01   7.5019E-05  0.0016
   4.8462E+01   4.9641E+01   7.2634E-05  0.0016
   4.9641E+01   5.0849E+01   7.1142E-05  0.0016
   5.0849E+01   5.2086E+01   6.9715E-05  0.0016
   5.2086E+01   5.3353E+01   6.7847E-05  0.0016
   5.3353E+01   5.4651E+01   6.6233E-05  0.0016
   5.4651E+01   5.5981E+01   6.4458E-05  0.0016
   5.5981E+01   5.7343E+01   6.2663E-05  0.0016
   5.7343E+01   5.8738E+01   6.0661E-05  0.0016
   5.8738E+01   6.0168E+01   5.8697E-05  0.0016
   6.0168E+01   6.1632E+01   5.6542E-05  0.0016
   6.1632E+01   6.3131E+01   5.4284E-05  0.0016
   6.3131E+01   6.4667E+01   5.1890E-05  0.0016
   6.4667E+01   6.6240E+01   4.9400E-05  0.0017
   6.6240E+01   6.7852E+01   4.6733E-05  0.0017
   6.7852E+01   6.9503E+01   4.3753E-05  0.0017
   6.9503E+01   7.1194E+01   4.0678E-05  0.0018
   7.1194E+01   7.2926E+01   3.7307E-05  0.0018
   7.2926E+01   7.4701E+01   3.3633E-05  0.0019
   7.4701E+01   7.6518E+01   2.9694E-05  0.0020
   7.6518E+01   7.8380E+01   2.5067E-05  0.0021
   7.8380E+01   8.0287E+01   2.0354E-05  0.0023
   8.0287E+01   8.2240E+01   1.5728E-05  0.0026
   8.2240E+01   8.4241E+01   1.1412E-05  0.0031
   8.4241E+01   8.6291E+01   7.6949E-06  0.0037
   8.6291E+01   8.8391E+01   4.9839E-06  0.0045
   8.8391E+01   9.0541E+01   3.3698E-06  0.0054
   9.0541E+01   9.2744E+01   2.5077E-06  0.0062
   9.2744E+01   9.5001E+01   9.6797E-07  0.0099
   9.5001E+01   9.7312E+01   0.0000E+00  0.0000
   9.7312E+01   9.9680E+01   0.0000E+00  0.0000
   9.9680E+01   1.0211E+02   0.0000E+00  0.0000
   1.0211E+02   1.0459E+02   0.0000E+00  0.0000
   1.0459E+02   1.0713E+02   0.0000E+00  0.0000
   1.0713E+02   1.0974E+02   0.0000E+00  0.0000
   1.0974E+02   1.1241E+02   0.0000E+00  0.0000
   1.1241E+02   1.1515E+02   0.0000E+00  0.0000
   1.1515E+02   1.1795E+02   0.0000E+00  0.0000
   1.1795E+02   1.2082E+02   0.0000E+00  0.0000
   1.2082E+02   1.2376E+02   0.0000E+00  0.0000
   1.2376E+02   1.2677E+02   0.0000E+00  0.0000
   1.2677E+02   1.2985E+02   0.0000E+00  0.0000
   1.2985E+02   1.3301E+02   0.0000E+00  0.0000
   1.3301E+02   1.3625E+02   0.0000E+00  0.0000
   1.3625E+02   1.3956E+02   0.0000E+00  0.0000
   1.3956E+02   1.4296E+02   0.0000E+00  0.0000
   1.4296E+02   1.4644E+02   0.0000E+00  0.0000
   1.4644E+02   1.5000E+02   0.0000E+00  0.0000

#   sum over                 5.6530E-05
'no. =    1   reg = 106 - 206'
msuc: {\huge [t-cross] in region mesh}
msdr: {\it plotted by \ANGEL \version}
msdl: {\it calculated by \PHITS  3.26}
wt: s(0.7)
\vspace{-3}
  region surface crossing
  area  &=&   1.0000E+00 [cm^2]
e:
 
# Information for Restart Calculation
# This calculation was newly started
# istdev =  2 # 1:Batch variance, 2:History variance
# resc2  = 4.70000000000000000E+09 # Total source weight or Total source weight / maxcas
# resc3  = 4.70000000000000000E+09 # Total history number or Total batch number
# maxcas =   100000000 # History / Batch, only used for istdev=1
# bitrseed = 0100110001111111101101111011011100010101001001110000010100111101 # bit data of rseed
