[ T-Cross ]
    title = [t-cross] in region mesh
     mesh =  reg            # mesh type is region-wise
      reg =    1            # number of crossing regions
      non     r-from    r-to       area
      1       120       220        1.000000    
   e-type =    3            # e-mesh is log given by emin, emax and ne
     emin =  1.0000000E-02  # minimum value of e-mesh points
     emax =   150.0000      # maximum value of e-mesh points
#    edel =  2.4039514E-02  # mesh width of e-mesh points
       ne =    400          # number of e-mesh points
#    data = ( e(i), i = 1, ne + 1 )
#           1.00000E-02  1.02433E-02  1.04925E-02  1.07478E-02  1.10093E-02
#           1.12772E-02  1.15516E-02  1.18326E-02  1.21205E-02  1.24154E-02
#           1.27175E-02  1.30269E-02  1.33439E-02  1.36686E-02  1.40011E-02
#           1.43418E-02  1.46907E-02  1.50482E-02  1.54143E-02  1.57894E-02
#           1.61735E-02  1.65670E-02  1.69701E-02  1.73830E-02  1.78060E-02
#           1.82392E-02  1.86830E-02  1.91375E-02  1.96032E-02  2.00801E-02
#           2.05687E-02  2.10692E-02  2.15818E-02  2.21069E-02  2.26448E-02
#           2.31957E-02  2.37601E-02  2.43382E-02  2.49304E-02  2.55369E-02
#           2.61583E-02  2.67947E-02  2.74467E-02  2.81145E-02  2.87985E-02
#           2.94992E-02  3.02169E-02  3.09521E-02  3.17052E-02  3.24766E-02
#           3.32668E-02  3.40762E-02  3.49053E-02  3.57546E-02  3.66246E-02
#           3.75157E-02  3.84284E-02  3.93634E-02  4.03212E-02  4.13022E-02
#           4.23071E-02  4.33365E-02  4.43909E-02  4.54710E-02  4.65773E-02
#           4.77106E-02  4.88714E-02  5.00605E-02  5.12785E-02  5.25262E-02
#           5.38042E-02  5.51133E-02  5.64542E-02  5.78278E-02  5.92348E-02
#           6.06760E-02  6.21523E-02  6.36645E-02  6.52135E-02  6.68002E-02
#           6.84255E-02  7.00904E-02  7.17957E-02  7.35426E-02  7.53319E-02
#           7.71648E-02  7.90423E-02  8.09655E-02  8.29354E-02  8.49533E-02
#           8.70203E-02  8.91376E-02  9.13064E-02  9.35279E-02  9.58035E-02
#           9.81345E-02  1.00522E-01  1.02968E-01  1.05473E-01  1.08040E-01
#           1.10668E-01  1.13361E-01  1.16119E-01  1.18944E-01  1.21838E-01
#           1.24803E-01  1.27839E-01  1.30950E-01  1.34136E-01  1.37399E-01
#           1.40742E-01  1.44167E-01  1.47675E-01  1.51268E-01  1.54948E-01
#           1.58718E-01  1.62580E-01  1.66535E-01  1.70587E-01  1.74738E-01
#           1.78989E-01  1.83344E-01  1.87805E-01  1.92375E-01  1.97055E-01
#           2.01850E-01  2.06761E-01  2.11792E-01  2.16945E-01  2.22223E-01
#           2.27630E-01  2.33169E-01  2.38842E-01  2.44653E-01  2.50605E-01
#           2.56703E-01  2.62949E-01  2.69346E-01  2.75900E-01  2.82613E-01
#           2.89489E-01  2.96532E-01  3.03747E-01  3.11138E-01  3.18708E-01
#           3.26462E-01  3.34405E-01  3.42542E-01  3.50876E-01  3.59413E-01
#           3.68158E-01  3.77116E-01  3.86291E-01  3.95690E-01  4.05317E-01
#           4.15179E-01  4.25281E-01  4.35628E-01  4.46227E-01  4.57084E-01
#           4.68205E-01  4.79597E-01  4.91266E-01  5.03219E-01  5.15463E-01
#           5.28005E-01  5.40851E-01  5.54011E-01  5.67490E-01  5.81298E-01
#           5.95441E-01  6.09929E-01  6.24769E-01  6.39970E-01  6.55541E-01
#           6.71491E-01  6.87828E-01  7.04564E-01  7.21706E-01  7.39266E-01
#           7.57253E-01  7.75678E-01  7.94551E-01  8.13883E-01  8.33685E-01
#           8.53969E-01  8.74747E-01  8.96030E-01  9.17831E-01  9.40163E-01
#           9.63038E-01  9.86469E-01  1.01047E+00  1.03506E+00  1.06024E+00
#           1.08604E+00  1.11246E+00  1.13953E+00  1.16725E+00  1.19565E+00
#           1.22474E+00  1.25454E+00  1.28507E+00  1.31633E+00  1.34836E+00
#           1.38117E+00  1.41477E+00  1.44920E+00  1.48446E+00  1.52057E+00
#           1.55757E+00  1.59547E+00  1.63429E+00  1.67405E+00  1.71478E+00
#           1.75650E+00  1.79924E+00  1.84302E+00  1.88786E+00  1.93379E+00
#           1.98084E+00  2.02904E+00  2.07841E+00  2.12898E+00  2.18078E+00
#           2.23384E+00  2.28819E+00  2.34386E+00  2.40089E+00  2.45930E+00
#           2.51914E+00  2.58043E+00  2.64322E+00  2.70753E+00  2.77341E+00
#           2.84088E+00  2.91001E+00  2.98081E+00  3.05333E+00  3.12762E+00
#           3.20372E+00  3.28167E+00  3.36152E+00  3.44330E+00  3.52708E+00
#           3.61290E+00  3.70080E+00  3.79085E+00  3.88308E+00  3.97756E+00
#           4.07434E+00  4.17347E+00  4.27501E+00  4.37903E+00  4.48557E+00
#           4.59471E+00  4.70650E+00  4.82102E+00  4.93832E+00  5.05847E+00
#           5.18155E+00  5.30762E+00  5.43676E+00  5.56904E+00  5.70453E+00
#           5.84333E+00  5.98550E+00  6.13114E+00  6.28031E+00  6.43312E+00
#           6.58964E+00  6.74997E+00  6.91420E+00  7.08243E+00  7.25475E+00
#           7.43126E+00  7.61207E+00  7.79728E+00  7.98700E+00  8.18133E+00
#           8.38038E+00  8.58428E+00  8.79315E+00  9.00709E+00  9.22624E+00
#           9.45072E+00  9.68067E+00  9.91620E+00  1.01575E+01  1.04046E+01
#           1.06578E+01  1.09171E+01  1.11827E+01  1.14548E+01  1.17335E+01
#           1.20190E+01  1.23114E+01  1.26109E+01  1.29178E+01  1.32321E+01
#           1.35540E+01  1.38838E+01  1.42216E+01  1.45676E+01  1.49221E+01
#           1.52851E+01  1.56570E+01  1.60380E+01  1.64282E+01  1.68279E+01
#           1.72374E+01  1.76568E+01  1.80864E+01  1.85264E+01  1.89772E+01
#           1.94389E+01  1.99119E+01  2.03963E+01  2.08926E+01  2.14009E+01
#           2.19216E+01  2.24550E+01  2.30014E+01  2.35610E+01  2.41343E+01
#           2.47215E+01  2.53230E+01  2.59391E+01  2.65702E+01  2.72167E+01
#           2.78789E+01  2.85572E+01  2.92520E+01  2.99637E+01  3.06928E+01
#           3.14396E+01  3.22045E+01  3.29881E+01  3.37907E+01  3.46128E+01
#           3.54550E+01  3.63177E+01  3.72013E+01  3.81064E+01  3.90336E+01
#           3.99833E+01  4.09561E+01  4.19526E+01  4.29734E+01  4.40189E+01
#           4.50900E+01  4.61870E+01  4.73108E+01  4.84619E+01  4.96410E+01
#           5.08488E+01  5.20860E+01  5.33533E+01  5.46514E+01  5.59812E+01
#           5.73432E+01  5.87384E+01  6.01676E+01  6.16315E+01  6.31311E+01
#           6.46671E+01  6.62405E+01  6.78522E+01  6.95031E+01  7.11941E+01
#           7.29263E+01  7.47007E+01  7.65182E+01  7.83800E+01  8.02870E+01
#           8.22405E+01  8.42414E+01  8.62911E+01  8.83906E+01  9.05412E+01
#           9.27442E+01  9.50007E+01  9.73122E+01  9.96799E+01  1.02105E+02
#           1.04589E+02  1.07134E+02  1.09741E+02  1.12411E+02  1.15146E+02
#           1.17948E+02  1.20817E+02  1.23757E+02  1.26768E+02  1.29852E+02
#           1.33012E+02  1.36248E+02  1.39563E+02  1.42959E+02  1.46437E+02
#           1.50000E+02
     unit =    2            # unit is [1/cm^2/(MeV/n)/source]
     axis =  eng            # axis of output
     file = detector-21.out  # file name of output for the above axis
   output = f-curr          # surface crossing forward current spectrum
     part =  neutron  
# kf/name :  2112     
#    used :        main (  %)        temp (  %)       total (  %)
#  memory :         414 (  0)           0 (  0)         414 (  0)

#------------------------------------------------------------------------------
#newpage:
#   no. =    1   reg = 120 - 220

x: Energy [MeV/n]
y:  F-Curr [1/cm^2/(MeV/n)/source]         
p: xlog ylog afac(0.8) form(0.9)
h: n            x            y(neutron ),hh0l   n 
#  e-lower      e-upper      neutron     r.err 
   1.0000E-02   1.0243E-02   2.5591E-03  0.0399
   1.0243E-02   1.0493E-02   2.6951E-03  0.0383
   1.0493E-02   1.0748E-02   2.6225E-03  0.0385
   1.0748E-02   1.1009E-02   2.6869E-03  0.0376
   1.1009E-02   1.1277E-02   2.3797E-03  0.0394
   1.1277E-02   1.1552E-02   2.4315E-03  0.0385
   1.1552E-02   1.1833E-02   2.5256E-03  0.0373
   1.1833E-02   1.2121E-02   2.3293E-03  0.0384
   1.2121E-02   1.2415E-02   2.2247E-03  0.0388
   1.2415E-02   1.2718E-02   2.3447E-03  0.0374
   1.2718E-02   1.3027E-02   2.1615E-03  0.0385
   1.3027E-02   1.3344E-02   2.1776E-03  0.0379
   1.3344E-02   1.3669E-02   2.1151E-03  0.0380
   1.3669E-02   1.4001E-02   2.1218E-03  0.0375
   1.4001E-02   1.4342E-02   2.0265E-03  0.0379
   1.4342E-02   1.4691E-02   2.0536E-03  0.0372
   1.4691E-02   1.5048E-02   1.9392E-03  0.0378
   1.5048E-02   1.5414E-02   1.8589E-03  0.0381
   1.5414E-02   1.5789E-02   1.7677E-03  0.0387
   1.5789E-02   1.6174E-02   1.7215E-03  0.0387
   1.6174E-02   1.6567E-02   1.7887E-03  0.0376
   1.6567E-02   1.6970E-02   1.7211E-03  0.0378
   1.6970E-02   1.7383E-02   1.6672E-03  0.0379
   1.7383E-02   1.7806E-02   1.6428E-03  0.0378
   1.7806E-02   1.8239E-02   1.6036E-03  0.0377
   1.8239E-02   1.8683E-02   1.5105E-03  0.0385
   1.8683E-02   1.9138E-02   1.5588E-03  0.0374
   1.9138E-02   1.9603E-02   1.4611E-03  0.0382
   1.9603E-02   2.0080E-02   1.6174E-03  0.0359
   2.0080E-02   2.0569E-02   1.3557E-03  0.0387
   2.0569E-02   2.1069E-02   1.4077E-03  0.0375
   2.1069E-02   2.1582E-02   1.4428E-03  0.0367
   2.1582E-02   2.2107E-02   1.3950E-03  0.0368
   2.2107E-02   2.2645E-02   1.3098E-03  0.0375
   2.2645E-02   2.3196E-02   1.2055E-03  0.0386
   2.3196E-02   2.3760E-02   1.2921E-03  0.0369
   2.3760E-02   2.4338E-02   1.2750E-03  0.0367
   2.4338E-02   2.4930E-02   1.1888E-03  0.0376
   2.4930E-02   2.5537E-02   1.1808E-03  0.0372
   2.5537E-02   2.6158E-02   1.1531E-03  0.0372
   2.6158E-02   2.6795E-02   1.1439E-03  0.0369
   2.6795E-02   2.7447E-02   1.0949E-03  0.0373
   2.7447E-02   2.8114E-02   1.1015E-03  0.0368
   2.8114E-02   2.8799E-02   1.0976E-03  0.0363
   2.8799E-02   2.9499E-02   1.0730E-03  0.0363
   2.9499E-02   3.0217E-02   9.5755E-04  0.0380
   3.0217E-02   3.0952E-02   9.3474E-04  0.0380
   3.0952E-02   3.1705E-02   1.0441E-03  0.0355
   3.1705E-02   3.2477E-02   9.8511E-04  0.0361
   3.2477E-02   3.3267E-02   9.3076E-04  0.0367
   3.3267E-02   3.4076E-02   8.6015E-04  0.0377
   3.4076E-02   3.4905E-02   9.0063E-04  0.0364
   3.4905E-02   3.5755E-02   8.6268E-04  0.0368
   3.5755E-02   3.6625E-02   8.9549E-04  0.0357
   3.6625E-02   3.7516E-02   8.8265E-04  0.0355
   3.7516E-02   3.8428E-02   8.3310E-04  0.0361
   3.8428E-02   3.9363E-02   7.7238E-04  0.0371
   3.9363E-02   4.0321E-02   7.9655E-04  0.0361
   4.0321E-02   4.1302E-02   7.8299E-04  0.0359
   4.1302E-02   4.2307E-02   8.4587E-04  0.0342
   4.2307E-02   4.3337E-02   7.4373E-04  0.0360
   4.3337E-02   4.4391E-02   6.8028E-04  0.0372
   4.4391E-02   4.5471E-02   7.7675E-04  0.0344
   4.5471E-02   4.6577E-02   6.8996E-04  0.0361
   4.6577E-02   4.7711E-02   6.7891E-04  0.0359
   4.7711E-02   4.8871E-02   6.8081E-04  0.0354
   4.8871E-02   5.0061E-02   6.9661E-04  0.0347
   5.0061E-02   5.1279E-02   6.7968E-04  0.0346
   5.1279E-02   5.2526E-02   6.3331E-04  0.0354
   5.2526E-02   5.3804E-02   6.2755E-04  0.0352
   5.3804E-02   5.5113E-02   6.2152E-04  0.0349
   5.5113E-02   5.6454E-02   6.0274E-04  0.0350
   5.6454E-02   5.7828E-02   6.1938E-04  0.0341
   5.7828E-02   5.9235E-02   5.6608E-04  0.0353
   5.9235E-02   6.0676E-02   5.6660E-04  0.0349
   6.0676E-02   6.2152E-02   5.4515E-04  0.0351
   6.2152E-02   6.3665E-02   5.3212E-04  0.0350
   6.3665E-02   6.5214E-02   5.4669E-04  0.0342
   6.5214E-02   6.6800E-02   4.8877E-04  0.0358
   6.6800E-02   6.8426E-02   5.0612E-04  0.0347
   6.8426E-02   7.0090E-02   4.6613E-04  0.0358
   7.0090E-02   7.1796E-02   4.6688E-04  0.0353
   7.1796E-02   7.3543E-02   4.6543E-04  0.0349
   7.3543E-02   7.5332E-02   4.4043E-04  0.0354
   7.5332E-02   7.7165E-02   4.1832E-04  0.0359
   7.7165E-02   7.9042E-02   4.4497E-04  0.0344
   7.9042E-02   8.0965E-02   4.3317E-04  0.0345
   8.0965E-02   8.2935E-02   4.1462E-04  0.0348
   8.2935E-02   8.4953E-02   4.1560E-04  0.0344
   8.4953E-02   8.7020E-02   3.9607E-04  0.0348
   8.7020E-02   8.9138E-02   3.6919E-04  0.0356
   8.9138E-02   9.1306E-02   3.8646E-04  0.0344
   9.1306E-02   9.3528E-02   3.6999E-04  0.0347
   9.3528E-02   9.5804E-02   3.4179E-04  0.0357
   9.5804E-02   9.8134E-02   3.3836E-04  0.0355
   9.8134E-02   1.0052E-01   3.3214E-04  0.0354
   1.0052E-01   1.0297E-01   3.3605E-04  0.0347
   1.0297E-01   1.0547E-01   3.2922E-04  0.0346
   1.0547E-01   1.0804E-01   3.3892E-04  0.0338
   1.0804E-01   1.1067E-01   3.2784E-04  0.0339
   1.1067E-01   1.1336E-01   2.9924E-04  0.0351
   1.1336E-01   1.1612E-01   2.8463E-04  0.0356
   1.1612E-01   1.1894E-01   2.8822E-04  0.0349
   1.1894E-01   1.2184E-01   2.8031E-04  0.0350
   1.2184E-01   1.2480E-01   2.7962E-04  0.0346
   1.2480E-01   1.2784E-01   2.7579E-04  0.0344
   1.2784E-01   1.3095E-01   2.7363E-04  0.0341
   1.3095E-01   1.3414E-01   2.5526E-04  0.0349
   1.3414E-01   1.3740E-01   2.4396E-04  0.0352
   1.3740E-01   1.4074E-01   2.5075E-04  0.0344
   1.4074E-01   1.4417E-01   2.4983E-04  0.0341
   1.4417E-01   1.4767E-01   2.2744E-04  0.0353
   1.4767E-01   1.5127E-01   2.2835E-04  0.0348
   1.5127E-01   1.5495E-01   2.3556E-04  0.0338
   1.5495E-01   1.5872E-01   2.2617E-04  0.0341
   1.5872E-01   1.6258E-01   2.1864E-04  0.0343
   1.6258E-01   1.6654E-01   2.0876E-04  0.0347
   1.6654E-01   1.7059E-01   2.0527E-04  0.0345
   1.7059E-01   1.7474E-01   1.9536E-04  0.0350
   1.7474E-01   1.7899E-01   2.0123E-04  0.0340
   1.7899E-01   1.8334E-01   1.9990E-04  0.0338
   1.8334E-01   1.8781E-01   2.0409E-04  0.0330
   1.8781E-01   1.9237E-01   1.9114E-04  0.0336
   1.9237E-01   1.9706E-01   1.9298E-04  0.0331
   1.9706E-01   2.0185E-01   1.7558E-04  0.0343
   2.0185E-01   2.0676E-01   1.9136E-04  0.0325
   2.0676E-01   2.1179E-01   1.9991E-04  0.0314
   2.1179E-01   2.1694E-01   1.9211E-04  0.0317
   2.1694E-01   2.2222E-01   2.1011E-04  0.0298
   2.2222E-01   2.2763E-01   2.1888E-04  0.0289
   2.2763E-01   2.3317E-01   2.1607E-04  0.0287
   2.3317E-01   2.3884E-01   2.3134E-04  0.0274
   2.3884E-01   2.4465E-01   2.3428E-04  0.0269
   2.4465E-01   2.5061E-01   2.5238E-04  0.0257
   2.5061E-01   2.5670E-01   2.3848E-04  0.0261
   2.5670E-01   2.6295E-01   2.5383E-04  0.0250
   2.6295E-01   2.6935E-01   2.6861E-04  0.0240
   2.6935E-01   2.7590E-01   2.7702E-04  0.0233
   2.7590E-01   2.8261E-01   2.7732E-04  0.0230
   2.8261E-01   2.8949E-01   2.8579E-04  0.0224
   2.8949E-01   2.9653E-01   3.0373E-04  0.0215
   2.9653E-01   3.0375E-01   3.0798E-04  0.0211
   3.0375E-01   3.1114E-01   3.1562E-04  0.0206
   3.1114E-01   3.1871E-01   3.2025E-04  0.0202
   3.1871E-01   3.2646E-01   3.3132E-04  0.0196
   3.2646E-01   3.3441E-01   3.3888E-04  0.0192
   3.3441E-01   3.4254E-01   3.5125E-04  0.0186
   3.4254E-01   3.5088E-01   3.6990E-04  0.0179
   3.5088E-01   3.5941E-01   3.6427E-04  0.0178
   3.5941E-01   3.6816E-01   3.8135E-04  0.0172
   3.6816E-01   3.7712E-01   3.8208E-04  0.0170
   3.7712E-01   3.8629E-01   4.1048E-04  0.0162
   3.8629E-01   3.9569E-01   4.1120E-04  0.0160
   3.9569E-01   4.0532E-01   4.1762E-04  0.0157
   4.0532E-01   4.1518E-01   4.1402E-04  0.0155
   4.1518E-01   4.2528E-01   4.2545E-04  0.0151
   4.2528E-01   4.3563E-01   4.4591E-04  0.0146
   4.3563E-01   4.4623E-01   4.5268E-04  0.0143
   4.4623E-01   4.5708E-01   4.5023E-04  0.0142
   4.5708E-01   4.6821E-01   4.7021E-04  0.0137
   4.6821E-01   4.7960E-01   4.7009E-04  0.0136
   4.7960E-01   4.9127E-01   4.8481E-04  0.0132
   4.9127E-01   5.0322E-01   4.8753E-04  0.0130
   5.0322E-01   5.1546E-01   4.8916E-04  0.0128
   5.1546E-01   5.2800E-01   5.0421E-04  0.0125
   5.2800E-01   5.4085E-01   5.0323E-04  0.0123
   5.4085E-01   5.5401E-01   5.1648E-04  0.0120
   5.5401E-01   5.6749E-01   5.2408E-04  0.0118
   5.6749E-01   5.8130E-01   5.1163E-04  0.0118
   5.8130E-01   5.9544E-01   5.2634E-04  0.0115
   5.9544E-01   6.0993E-01   5.2216E-04  0.0114
   6.0993E-01   6.2477E-01   5.3727E-04  0.0111
   6.2477E-01   6.3997E-01   5.3220E-04  0.0110
   6.3997E-01   6.5554E-01   5.5641E-04  0.0107
   6.5554E-01   6.7149E-01   5.5047E-04  0.0106
   6.7149E-01   6.8783E-01   5.4363E-04  0.0105
   6.8783E-01   7.0456E-01   5.4342E-04  0.0104
   7.0456E-01   7.2171E-01   5.4645E-04  0.0103
   7.2171E-01   7.3927E-01   5.4827E-04  0.0101
   7.3927E-01   7.5725E-01   5.5106E-04  0.0100
   7.5725E-01   7.7568E-01   5.5402E-04  0.0098
   7.7568E-01   7.9455E-01   5.4731E-04  0.0098
   7.9455E-01   8.1388E-01   5.4775E-04  0.0096
   8.1388E-01   8.3368E-01   5.4475E-04  0.0095
   8.3368E-01   8.5397E-01   5.3132E-04  0.0096
   8.5397E-01   8.7475E-01   5.3383E-04  0.0094
   8.7475E-01   8.9603E-01   5.2536E-04  0.0094
   8.9603E-01   9.1783E-01   5.3188E-04  0.0092
   9.1783E-01   9.4016E-01   5.1251E-04  0.0093
   9.4016E-01   9.6304E-01   5.2484E-04  0.0090
   9.6304E-01   9.8647E-01   5.1323E-04  0.0090
   9.8647E-01   1.0105E+00   5.1329E-04  0.0089
   1.0105E+00   1.0351E+00   4.9630E-04  0.0090
   1.0351E+00   1.0602E+00   4.8939E-04  0.0089
   1.0602E+00   1.0860E+00   4.6926E-04  0.0090
   1.0860E+00   1.1125E+00   4.6019E-04  0.0090
   1.1125E+00   1.1395E+00   4.6176E-04  0.0089
   1.1395E+00   1.1673E+00   4.5033E-04  0.0089
   1.1673E+00   1.1957E+00   4.4827E-04  0.0088
   1.1957E+00   1.2247E+00   4.3931E-04  0.0088
   1.2247E+00   1.2545E+00   4.3205E-04  0.0087
   1.2545E+00   1.2851E+00   4.2952E-04  0.0086
   1.2851E+00   1.3163E+00   4.1155E-04  0.0087
   1.3163E+00   1.3484E+00   3.9961E-04  0.0087
   1.3484E+00   1.3812E+00   3.8784E-04  0.0088
   1.3812E+00   1.4148E+00   3.9096E-04  0.0086
   1.4148E+00   1.4492E+00   3.8486E-04  0.0086
   1.4492E+00   1.4845E+00   3.7186E-04  0.0086
   1.4845E+00   1.5206E+00   3.6755E-04  0.0086
   1.5206E+00   1.5576E+00   3.5912E-04  0.0086
   1.5576E+00   1.5955E+00   3.4828E-04  0.0086
   1.5955E+00   1.6343E+00   3.3796E-04  0.0086
   1.6343E+00   1.6741E+00   3.2951E-04  0.0086
   1.6741E+00   1.7148E+00   3.1590E-04  0.0087
   1.7148E+00   1.7565E+00   3.0867E-04  0.0087
   1.7565E+00   1.7992E+00   3.0172E-04  0.0087
   1.7992E+00   1.8430E+00   2.9825E-04  0.0087
   1.8430E+00   1.8879E+00   2.9056E-04  0.0087
   1.8879E+00   1.9338E+00   2.7722E-04  0.0088
   1.9338E+00   1.9808E+00   2.7190E-04  0.0087
   1.9808E+00   2.0290E+00   2.6490E-04  0.0087
   2.0290E+00   2.0784E+00   2.6303E-04  0.0087
   2.0784E+00   2.1290E+00   2.5207E-04  0.0088
   2.1290E+00   2.1808E+00   2.4350E-04  0.0088
   2.1808E+00   2.2338E+00   2.3899E-04  0.0088
   2.2338E+00   2.2882E+00   2.2854E-04  0.0089
   2.2882E+00   2.3439E+00   2.1987E-04  0.0089
   2.3439E+00   2.4009E+00   2.1671E-04  0.0089
   2.4009E+00   2.4593E+00   2.0762E-04  0.0090
   2.4593E+00   2.5191E+00   2.0163E-04  0.0090
   2.5191E+00   2.5804E+00   1.9758E-04  0.0090
   2.5804E+00   2.6432E+00   1.9192E-04  0.0090
   2.6432E+00   2.7075E+00   1.8350E-04  0.0091
   2.7075E+00   2.7734E+00   1.7909E-04  0.0091
   2.7734E+00   2.8409E+00   1.7348E-04  0.0091
   2.8409E+00   2.9100E+00   1.6598E-04  0.0092
   2.9100E+00   2.9808E+00   1.6324E-04  0.0092
   2.9808E+00   3.0533E+00   1.5890E-04  0.0092
   3.0533E+00   3.1276E+00   1.5271E-04  0.0093
   3.1276E+00   3.2037E+00   1.4798E-04  0.0093
   3.2037E+00   3.2817E+00   1.4256E-04  0.0094
   3.2817E+00   3.3615E+00   1.3871E-04  0.0094
   3.3615E+00   3.4433E+00   1.3503E-04  0.0094
   3.4433E+00   3.5271E+00   1.3215E-04  0.0094
   3.5271E+00   3.6129E+00   1.3192E-04  0.0093
   3.6129E+00   3.7008E+00   1.2452E-04  0.0094
   3.7008E+00   3.7908E+00   1.2033E-04  0.0095
   3.7908E+00   3.8831E+00   1.1827E-04  0.0095
   3.8831E+00   3.9776E+00   1.1549E-04  0.0095
   3.9776E+00   4.0743E+00   1.1608E-04  0.0093
   4.0743E+00   4.1735E+00   1.1177E-04  0.0094
   4.1735E+00   4.2750E+00   1.1126E-04  0.0093
   4.2750E+00   4.3790E+00   1.0998E-04  0.0092
   4.3790E+00   4.4856E+00   1.0645E-04  0.0093
   4.4856E+00   4.5947E+00   1.0620E-04  0.0092
   4.5947E+00   4.7065E+00   1.0602E-04  0.0091
   4.7065E+00   4.8210E+00   1.0132E-04  0.0092
   4.8210E+00   4.9383E+00   9.9995E-05  0.0091
   4.9383E+00   5.0585E+00   9.6543E-05  0.0092
   5.0585E+00   5.1815E+00   9.5792E-05  0.0091
   5.1815E+00   5.3076E+00   9.2019E-05  0.0092
   5.3076E+00   5.4368E+00   8.9520E-05  0.0092
   5.4368E+00   5.5690E+00   8.5644E-05  0.0093
   5.5690E+00   5.7045E+00   8.3147E-05  0.0093
   5.7045E+00   5.8433E+00   7.8916E-05  0.0095
   5.8433E+00   5.9855E+00   7.7487E-05  0.0095
   5.9855E+00   6.1311E+00   7.4657E-05  0.0095
   6.1311E+00   6.2803E+00   7.1963E-05  0.0096
   6.2803E+00   6.4331E+00   6.8766E-05  0.0097
   6.4331E+00   6.5896E+00   6.7175E-05  0.0097
   6.5896E+00   6.7500E+00   6.3589E-05  0.0098
   6.7500E+00   6.9142E+00   6.0932E-05  0.0099
   6.9142E+00   7.0824E+00   5.8861E-05  0.0100
   7.0824E+00   7.2548E+00   5.5822E-05  0.0101
   7.2548E+00   7.4313E+00   5.3318E-05  0.0103
   7.4313E+00   7.6121E+00   5.1432E-05  0.0103
   7.6121E+00   7.7973E+00   4.8433E-05  0.0105
   7.7973E+00   7.9870E+00   4.7396E-05  0.0105
   7.9870E+00   8.1813E+00   4.6257E-05  0.0105
   8.1813E+00   8.3804E+00   4.3727E-05  0.0107
   8.3804E+00   8.5843E+00   4.0765E-05  0.0109
   8.5843E+00   8.7931E+00   3.9494E-05  0.0110
   8.7931E+00   9.0071E+00   3.7302E-05  0.0112
   9.0071E+00   9.2262E+00   3.5712E-05  0.0113
   9.2262E+00   9.4507E+00   3.4037E-05  0.0114
   9.4507E+00   9.6807E+00   3.2254E-05  0.0116
   9.6807E+00   9.9162E+00   3.0046E-05  0.0119
   9.9162E+00   1.0157E+01   2.9132E-05  0.0119
   1.0157E+01   1.0405E+01   2.7180E-05  0.0122
   1.0405E+01   1.0658E+01   2.6685E-05  0.0121
   1.0658E+01   1.0917E+01   2.4825E-05  0.0124
   1.0917E+01   1.1183E+01   2.3189E-05  0.0127
   1.1183E+01   1.1455E+01   2.1730E-05  0.0130
   1.1455E+01   1.1733E+01   2.0517E-05  0.0132
   1.1733E+01   1.2019E+01   1.9336E-05  0.0134
   1.2019E+01   1.2311E+01   1.8256E-05  0.0137
   1.2311E+01   1.2611E+01   1.6711E-05  0.0141
   1.2611E+01   1.2918E+01   1.5972E-05  0.0143
   1.2918E+01   1.3232E+01   1.5372E-05  0.0144
   1.3232E+01   1.3554E+01   1.3745E-05  0.0150
   1.3554E+01   1.3884E+01   1.3178E-05  0.0152
   1.3884E+01   1.4222E+01   1.2349E-05  0.0155
   1.4222E+01   1.4568E+01   1.1478E-05  0.0159
   1.4568E+01   1.4922E+01   1.0478E-05  0.0164
   1.4922E+01   1.5285E+01   9.4433E-06  0.0171
   1.5285E+01   1.5657E+01   9.0027E-06  0.0173
   1.5657E+01   1.6038E+01   8.4831E-06  0.0176
   1.6038E+01   1.6428E+01   7.9541E-06  0.0179
   1.6428E+01   1.6828E+01   7.1508E-06  0.0187
   1.6828E+01   1.7237E+01   6.6146E-06  0.0192
   1.7237E+01   1.7657E+01   6.1564E-06  0.0197
   1.7657E+01   1.8086E+01   5.4283E-06  0.0207
   1.8086E+01   1.8526E+01   4.8653E-06  0.0216
   1.8526E+01   1.8977E+01   4.6211E-06  0.0219
   1.8977E+01   1.9439E+01   4.2319E-06  0.0226
   1.9439E+01   1.9912E+01   3.9665E-06  0.0231
   1.9912E+01   2.0396E+01   3.5750E-06  0.0240
   2.0396E+01   2.0893E+01   3.3128E-06  0.0247
   2.0893E+01   2.1401E+01   2.8210E-06  0.0264
   2.1401E+01   2.1922E+01   2.6080E-06  0.0271
   2.1922E+01   2.2455E+01   2.1692E-06  0.0294
   2.2455E+01   2.3001E+01   1.9639E-06  0.0305
   2.3001E+01   2.3561E+01   1.7779E-06  0.0317
   2.3561E+01   2.4134E+01   1.4025E-06  0.0353
   2.4134E+01   2.4721E+01   1.1546E-06  0.0384
   2.4721E+01   2.5323E+01   9.7923E-07  0.0412
   2.5323E+01   2.5939E+01   9.0241E-07  0.0424
   2.5939E+01   2.6570E+01   7.1144E-07  0.0472
   2.6570E+01   2.7217E+01   6.5587E-07  0.0486
   2.7217E+01   2.7879E+01   5.6025E-07  0.0519
   2.7879E+01   2.8557E+01   4.5996E-07  0.0566
   2.8557E+01   2.9252E+01   3.4829E-07  0.0643
   2.9252E+01   2.9964E+01   2.8522E-07  0.0702
   2.9964E+01   3.0693E+01   2.6062E-07  0.0725
   3.0693E+01   3.1440E+01   2.2497E-07  0.0772
   3.1440E+01   3.2205E+01   1.7779E-07  0.0857
   3.2205E+01   3.2988E+01   1.1869E-07  0.1037
   3.2988E+01   3.3791E+01   1.0964E-07  0.1066
   3.3791E+01   3.4613E+01   8.3926E-08  0.1204
   3.4613E+01   3.5455E+01   7.1246E-08  0.1291
   3.5455E+01   3.6318E+01   4.4050E-08  0.1622
   3.6318E+01   3.7201E+01   4.3004E-08  0.1622
   3.7201E+01   3.8106E+01   3.8668E-08  0.1690
   3.8106E+01   3.9034E+01   2.2650E-08  0.2182
   3.9034E+01   3.9983E+01   1.6847E-08  0.2500
   3.9983E+01   4.0956E+01   1.7475E-08  0.2425
   4.0956E+01   4.1953E+01   8.0281E-09  0.3536
   4.1953E+01   4.2973E+01   7.8374E-09  0.3536
   4.2973E+01   4.4019E+01   6.6949E-09  0.3780
   4.4019E+01   4.5090E+01   5.6022E-09  0.4082
   4.5090E+01   4.6187E+01   3.6461E-09  0.5000
   4.6187E+01   4.7311E+01   2.6696E-09  0.5774
   4.7311E+01   4.8462E+01   8.6873E-10  1.0000
   4.8462E+01   4.9641E+01   8.4809E-10  1.0000
   4.9641E+01   5.0849E+01   0.0000E+00  0.0000
   5.0849E+01   5.2086E+01   0.0000E+00  0.0000
   5.2086E+01   5.3353E+01   0.0000E+00  0.0000
   5.3353E+01   5.4651E+01   0.0000E+00  0.0000
   5.4651E+01   5.5981E+01   0.0000E+00  0.0000
   5.5981E+01   5.7343E+01   0.0000E+00  0.0000
   5.7343E+01   5.8738E+01   0.0000E+00  0.0000
   5.8738E+01   6.0168E+01   0.0000E+00  0.0000
   6.0168E+01   6.1632E+01   0.0000E+00  0.0000
   6.1632E+01   6.3131E+01   0.0000E+00  0.0000
   6.3131E+01   6.4667E+01   0.0000E+00  0.0000
   6.4667E+01   6.6240E+01   0.0000E+00  0.0000
   6.6240E+01   6.7852E+01   0.0000E+00  0.0000
   6.7852E+01   6.9503E+01   0.0000E+00  0.0000
   6.9503E+01   7.1194E+01   0.0000E+00  0.0000
   7.1194E+01   7.2926E+01   0.0000E+00  0.0000
   7.2926E+01   7.4701E+01   0.0000E+00  0.0000
   7.4701E+01   7.6518E+01   0.0000E+00  0.0000
   7.6518E+01   7.8380E+01   0.0000E+00  0.0000
   7.8380E+01   8.0287E+01   0.0000E+00  0.0000
   8.0287E+01   8.2240E+01   0.0000E+00  0.0000
   8.2240E+01   8.4241E+01   0.0000E+00  0.0000
   8.4241E+01   8.6291E+01   0.0000E+00  0.0000
   8.6291E+01   8.8391E+01   0.0000E+00  0.0000
   8.8391E+01   9.0541E+01   0.0000E+00  0.0000
   9.0541E+01   9.2744E+01   0.0000E+00  0.0000
   9.2744E+01   9.5001E+01   0.0000E+00  0.0000
   9.5001E+01   9.7312E+01   0.0000E+00  0.0000
   9.7312E+01   9.9680E+01   0.0000E+00  0.0000
   9.9680E+01   1.0211E+02   0.0000E+00  0.0000
   1.0211E+02   1.0459E+02   0.0000E+00  0.0000
   1.0459E+02   1.0713E+02   0.0000E+00  0.0000
   1.0713E+02   1.0974E+02   0.0000E+00  0.0000
   1.0974E+02   1.1241E+02   0.0000E+00  0.0000
   1.1241E+02   1.1515E+02   0.0000E+00  0.0000
   1.1515E+02   1.1795E+02   0.0000E+00  0.0000
   1.1795E+02   1.2082E+02   0.0000E+00  0.0000
   1.2082E+02   1.2376E+02   0.0000E+00  0.0000
   1.2376E+02   1.2677E+02   0.0000E+00  0.0000
   1.2677E+02   1.2985E+02   0.0000E+00  0.0000
   1.2985E+02   1.3301E+02   0.0000E+00  0.0000
   1.3301E+02   1.3625E+02   0.0000E+00  0.0000
   1.3625E+02   1.3956E+02   0.0000E+00  0.0000
   1.3956E+02   1.4296E+02   0.0000E+00  0.0000
   1.4296E+02   1.4644E+02   0.0000E+00  0.0000
   1.4644E+02   1.5000E+02   0.0000E+00  0.0000

#   sum over                 1.1309E-05
'no. =    1   reg = 120 - 220'
msuc: {\huge [t-cross] in region mesh}
msdr: {\it plotted by \ANGEL \version}
msdl: {\it calculated by \PHITS  3.26}
wt: s(0.7)
\vspace{-3}
  region surface crossing
  area  &=&   1.0000E+00 [cm^2]
e:
 
# Information for Restart Calculation
# This calculation was newly started
# istdev =  2 # 1:Batch variance, 2:History variance
# resc2  = 1.00000000000000000E+09 # Total source weight or Total source weight / maxcas
# resc3  = 1.00000000000000000E+09 # Total history number or Total batch number
# maxcas =   500000000 # History / Batch, only used for istdev=1
# bitrseed = 0001001110011001001001110000100100110111001111011100001000101100 # bit data of rseed
