[ T-Cross ]
    title = [t-cross] in region mesh
     mesh =  reg            # mesh type is region-wise
      reg =    1            # number of crossing regions
      non     r-from    r-to       area
      1       119       219        1.000000    
   e-type =    3            # e-mesh is log given by emin, emax and ne
     emin =  1.0000000E-02  # minimum value of e-mesh points
     emax =   150.0000      # maximum value of e-mesh points
#    edel =  2.4039514E-02  # mesh width of e-mesh points
       ne =    400          # number of e-mesh points
#    data = ( e(i), i = 1, ne + 1 )
#           1.00000E-02  1.02433E-02  1.04925E-02  1.07478E-02  1.10093E-02
#           1.12772E-02  1.15516E-02  1.18326E-02  1.21205E-02  1.24154E-02
#           1.27175E-02  1.30269E-02  1.33439E-02  1.36686E-02  1.40011E-02
#           1.43418E-02  1.46907E-02  1.50482E-02  1.54143E-02  1.57894E-02
#           1.61735E-02  1.65670E-02  1.69701E-02  1.73830E-02  1.78060E-02
#           1.82392E-02  1.86830E-02  1.91375E-02  1.96032E-02  2.00801E-02
#           2.05687E-02  2.10692E-02  2.15818E-02  2.21069E-02  2.26448E-02
#           2.31957E-02  2.37601E-02  2.43382E-02  2.49304E-02  2.55369E-02
#           2.61583E-02  2.67947E-02  2.74467E-02  2.81145E-02  2.87985E-02
#           2.94992E-02  3.02169E-02  3.09521E-02  3.17052E-02  3.24766E-02
#           3.32668E-02  3.40762E-02  3.49053E-02  3.57546E-02  3.66246E-02
#           3.75157E-02  3.84284E-02  3.93634E-02  4.03212E-02  4.13022E-02
#           4.23071E-02  4.33365E-02  4.43909E-02  4.54710E-02  4.65773E-02
#           4.77106E-02  4.88714E-02  5.00605E-02  5.12785E-02  5.25262E-02
#           5.38042E-02  5.51133E-02  5.64542E-02  5.78278E-02  5.92348E-02
#           6.06760E-02  6.21523E-02  6.36645E-02  6.52135E-02  6.68002E-02
#           6.84255E-02  7.00904E-02  7.17957E-02  7.35426E-02  7.53319E-02
#           7.71648E-02  7.90423E-02  8.09655E-02  8.29354E-02  8.49533E-02
#           8.70203E-02  8.91376E-02  9.13064E-02  9.35279E-02  9.58035E-02
#           9.81345E-02  1.00522E-01  1.02968E-01  1.05473E-01  1.08040E-01
#           1.10668E-01  1.13361E-01  1.16119E-01  1.18944E-01  1.21838E-01
#           1.24803E-01  1.27839E-01  1.30950E-01  1.34136E-01  1.37399E-01
#           1.40742E-01  1.44167E-01  1.47675E-01  1.51268E-01  1.54948E-01
#           1.58718E-01  1.62580E-01  1.66535E-01  1.70587E-01  1.74738E-01
#           1.78989E-01  1.83344E-01  1.87805E-01  1.92375E-01  1.97055E-01
#           2.01850E-01  2.06761E-01  2.11792E-01  2.16945E-01  2.22223E-01
#           2.27630E-01  2.33169E-01  2.38842E-01  2.44653E-01  2.50605E-01
#           2.56703E-01  2.62949E-01  2.69346E-01  2.75900E-01  2.82613E-01
#           2.89489E-01  2.96532E-01  3.03747E-01  3.11138E-01  3.18708E-01
#           3.26462E-01  3.34405E-01  3.42542E-01  3.50876E-01  3.59413E-01
#           3.68158E-01  3.77116E-01  3.86291E-01  3.95690E-01  4.05317E-01
#           4.15179E-01  4.25281E-01  4.35628E-01  4.46227E-01  4.57084E-01
#           4.68205E-01  4.79597E-01  4.91266E-01  5.03219E-01  5.15463E-01
#           5.28005E-01  5.40851E-01  5.54011E-01  5.67490E-01  5.81298E-01
#           5.95441E-01  6.09929E-01  6.24769E-01  6.39970E-01  6.55541E-01
#           6.71491E-01  6.87828E-01  7.04564E-01  7.21706E-01  7.39266E-01
#           7.57253E-01  7.75678E-01  7.94551E-01  8.13883E-01  8.33685E-01
#           8.53969E-01  8.74747E-01  8.96030E-01  9.17831E-01  9.40163E-01
#           9.63038E-01  9.86469E-01  1.01047E+00  1.03506E+00  1.06024E+00
#           1.08604E+00  1.11246E+00  1.13953E+00  1.16725E+00  1.19565E+00
#           1.22474E+00  1.25454E+00  1.28507E+00  1.31633E+00  1.34836E+00
#           1.38117E+00  1.41477E+00  1.44920E+00  1.48446E+00  1.52057E+00
#           1.55757E+00  1.59547E+00  1.63429E+00  1.67405E+00  1.71478E+00
#           1.75650E+00  1.79924E+00  1.84302E+00  1.88786E+00  1.93379E+00
#           1.98084E+00  2.02904E+00  2.07841E+00  2.12898E+00  2.18078E+00
#           2.23384E+00  2.28819E+00  2.34386E+00  2.40089E+00  2.45930E+00
#           2.51914E+00  2.58043E+00  2.64322E+00  2.70753E+00  2.77341E+00
#           2.84088E+00  2.91001E+00  2.98081E+00  3.05333E+00  3.12762E+00
#           3.20372E+00  3.28167E+00  3.36152E+00  3.44330E+00  3.52708E+00
#           3.61290E+00  3.70080E+00  3.79085E+00  3.88308E+00  3.97756E+00
#           4.07434E+00  4.17347E+00  4.27501E+00  4.37903E+00  4.48557E+00
#           4.59471E+00  4.70650E+00  4.82102E+00  4.93832E+00  5.05847E+00
#           5.18155E+00  5.30762E+00  5.43676E+00  5.56904E+00  5.70453E+00
#           5.84333E+00  5.98550E+00  6.13114E+00  6.28031E+00  6.43312E+00
#           6.58964E+00  6.74997E+00  6.91420E+00  7.08243E+00  7.25475E+00
#           7.43126E+00  7.61207E+00  7.79728E+00  7.98700E+00  8.18133E+00
#           8.38038E+00  8.58428E+00  8.79315E+00  9.00709E+00  9.22624E+00
#           9.45072E+00  9.68067E+00  9.91620E+00  1.01575E+01  1.04046E+01
#           1.06578E+01  1.09171E+01  1.11827E+01  1.14548E+01  1.17335E+01
#           1.20190E+01  1.23114E+01  1.26109E+01  1.29178E+01  1.32321E+01
#           1.35540E+01  1.38838E+01  1.42216E+01  1.45676E+01  1.49221E+01
#           1.52851E+01  1.56570E+01  1.60380E+01  1.64282E+01  1.68279E+01
#           1.72374E+01  1.76568E+01  1.80864E+01  1.85264E+01  1.89772E+01
#           1.94389E+01  1.99119E+01  2.03963E+01  2.08926E+01  2.14009E+01
#           2.19216E+01  2.24550E+01  2.30014E+01  2.35610E+01  2.41343E+01
#           2.47215E+01  2.53230E+01  2.59391E+01  2.65702E+01  2.72167E+01
#           2.78789E+01  2.85572E+01  2.92520E+01  2.99637E+01  3.06928E+01
#           3.14396E+01  3.22045E+01  3.29881E+01  3.37907E+01  3.46128E+01
#           3.54550E+01  3.63177E+01  3.72013E+01  3.81064E+01  3.90336E+01
#           3.99833E+01  4.09561E+01  4.19526E+01  4.29734E+01  4.40189E+01
#           4.50900E+01  4.61870E+01  4.73108E+01  4.84619E+01  4.96410E+01
#           5.08488E+01  5.20860E+01  5.33533E+01  5.46514E+01  5.59812E+01
#           5.73432E+01  5.87384E+01  6.01676E+01  6.16315E+01  6.31311E+01
#           6.46671E+01  6.62405E+01  6.78522E+01  6.95031E+01  7.11941E+01
#           7.29263E+01  7.47007E+01  7.65182E+01  7.83800E+01  8.02870E+01
#           8.22405E+01  8.42414E+01  8.62911E+01  8.83906E+01  9.05412E+01
#           9.27442E+01  9.50007E+01  9.73122E+01  9.96799E+01  1.02105E+02
#           1.04589E+02  1.07134E+02  1.09741E+02  1.12411E+02  1.15146E+02
#           1.17948E+02  1.20817E+02  1.23757E+02  1.26768E+02  1.29852E+02
#           1.33012E+02  1.36248E+02  1.39563E+02  1.42959E+02  1.46437E+02
#           1.50000E+02
     unit =    2            # unit is [1/cm^2/(MeV/n)/source]
     axis =  eng            # axis of output
     file = detector-20.out  # file name of output for the above axis
   output = f-curr          # surface crossing forward current spectrum
     part =  neutron  
# kf/name :  2112     
#    used :        main (  %)        temp (  %)       total (  %)
#  memory :         414 (  0)           0 (  0)         414 (  0)

#------------------------------------------------------------------------------
#newpage:
#   no. =    1   reg = 119 - 219

x: Energy [MeV/n]
y:  F-Curr [1/cm^2/(MeV/n)/source]         
p: xlog ylog afac(0.8) form(0.9)
h: n            x            y(neutron ),hh0l   n 
#  e-lower      e-upper      neutron     r.err 
   1.0000E-02   1.0243E-02   3.2105E-03  0.0356
   1.0243E-02   1.0493E-02   3.4676E-03  0.0338
   1.0493E-02   1.0748E-02   3.3829E-03  0.0339
   1.0748E-02   1.1009E-02   3.2719E-03  0.0340
   1.1009E-02   1.1277E-02   3.0765E-03  0.0347
   1.1277E-02   1.1552E-02   3.0416E-03  0.0345
   1.1552E-02   1.1833E-02   3.0503E-03  0.0340
   1.1833E-02   1.2121E-02   2.9922E-03  0.0339
   1.2121E-02   1.2415E-02   2.9711E-03  0.0336
   1.2415E-02   1.2718E-02   2.8201E-03  0.0341
   1.2718E-02   1.3027E-02   2.9730E-03  0.0328
   1.3027E-02   1.3344E-02   2.8384E-03  0.0332
   1.3344E-02   1.3669E-02   2.6033E-03  0.0343
   1.3669E-02   1.4001E-02   2.6933E-03  0.0333
   1.4001E-02   1.4342E-02   2.5582E-03  0.0337
   1.4342E-02   1.4691E-02   2.6368E-03  0.0328
   1.4691E-02   1.5048E-02   2.5139E-03  0.0332
   1.5048E-02   1.5414E-02   2.5568E-03  0.0325
   1.5414E-02   1.5789E-02   2.4642E-03  0.0328
   1.5789E-02   1.6174E-02   2.3240E-03  0.0333
   1.6174E-02   1.6567E-02   2.2834E-03  0.0332
   1.6567E-02   1.6970E-02   2.2045E-03  0.0334
   1.6970E-02   1.7383E-02   2.0956E-03  0.0338
   1.7383E-02   1.7806E-02   2.0439E-03  0.0339
   1.7806E-02   1.8239E-02   1.9759E-03  0.0340
   1.8239E-02   1.8683E-02   2.0120E-03  0.0333
   1.8683E-02   1.9138E-02   2.0029E-03  0.0330
   1.9138E-02   1.9603E-02   1.8483E-03  0.0339
   1.9603E-02   2.0080E-02   1.9100E-03  0.0330
   2.0080E-02   2.0569E-02   1.8843E-03  0.0328
   2.0569E-02   2.1069E-02   1.8270E-03  0.0329
   2.1069E-02   2.1582E-02   1.8238E-03  0.0326
   2.1582E-02   2.2107E-02   1.7800E-03  0.0326
   2.2107E-02   2.2645E-02   1.7052E-03  0.0329
   2.2645E-02   2.3196E-02   1.7282E-03  0.0323
   2.3196E-02   2.3760E-02   1.6067E-03  0.0331
   2.3760E-02   2.4338E-02   1.5698E-03  0.0331
   2.4338E-02   2.4930E-02   1.5968E-03  0.0324
   2.4930E-02   2.5537E-02   1.6168E-03  0.0318
   2.5537E-02   2.6158E-02   1.5395E-03  0.0322
   2.6158E-02   2.6795E-02   1.4567E-03  0.0327
   2.6795E-02   2.7447E-02   1.4652E-03  0.0322
   2.7447E-02   2.8114E-02   1.3355E-03  0.0334
   2.8114E-02   2.8799E-02   1.3761E-03  0.0324
   2.8799E-02   2.9499E-02   1.2755E-03  0.0332
   2.9499E-02   3.0217E-02   1.3261E-03  0.0323
   3.0217E-02   3.0952E-02   1.3128E-03  0.0320
   3.0952E-02   3.1705E-02   1.2384E-03  0.0326
   3.1705E-02   3.2477E-02   1.2812E-03  0.0317
   3.2477E-02   3.3267E-02   1.2030E-03  0.0323
   3.3267E-02   3.4076E-02   1.1844E-03  0.0321
   3.4076E-02   3.4905E-02   1.0797E-03  0.0332
   3.4905E-02   3.5755E-02   1.2479E-03  0.0306
   3.5755E-02   3.6625E-02   1.1536E-03  0.0314
   3.6625E-02   3.7516E-02   1.0801E-03  0.0320
   3.7516E-02   3.8428E-02   1.0500E-03  0.0322
   3.8428E-02   3.9363E-02   1.0396E-03  0.0319
   3.9363E-02   4.0321E-02   1.0225E-03  0.0318
   4.0321E-02   4.1302E-02   9.9942E-04  0.0318
   4.1302E-02   4.2307E-02   9.7971E-04  0.0317
   4.2307E-02   4.3337E-02   9.6886E-04  0.0315
   4.3337E-02   4.4391E-02   9.2656E-04  0.0319
   4.4391E-02   4.5471E-02   9.3362E-04  0.0314
   4.5471E-02   4.6577E-02   8.9670E-04  0.0316
   4.6577E-02   4.7711E-02   8.9084E-04  0.0313
   4.7711E-02   4.8871E-02   8.7290E-04  0.0313
   4.8871E-02   5.0061E-02   8.5728E-04  0.0312
   5.0061E-02   5.1279E-02   8.3547E-04  0.0312
   5.1279E-02   5.2526E-02   8.0299E-04  0.0315
   5.2526E-02   5.3804E-02   7.5742E-04  0.0320
   5.3804E-02   5.5113E-02   7.0731E-04  0.0327
   5.5113E-02   5.6454E-02   7.8368E-04  0.0307
   5.6454E-02   5.7828E-02   7.2713E-04  0.0315
   5.7828E-02   5.9235E-02   6.8091E-04  0.0322
   5.9235E-02   6.0676E-02   7.0491E-04  0.0313
   6.0676E-02   6.2152E-02   6.9183E-04  0.0312
   6.2152E-02   6.3665E-02   7.0024E-04  0.0306
   6.3665E-02   6.5214E-02   6.6455E-04  0.0310
   6.5214E-02   6.6800E-02   6.5223E-04  0.0309
   6.6800E-02   6.8426E-02   6.4156E-04  0.0308
   6.8426E-02   7.0090E-02   6.6295E-04  0.0300
   7.0090E-02   7.1796E-02   6.2793E-04  0.0304
   7.1796E-02   7.3543E-02   5.8868E-04  0.0311
   7.3543E-02   7.5332E-02   5.8018E-04  0.0309
   7.5332E-02   7.7165E-02   5.7267E-04  0.0307
   7.7165E-02   7.9042E-02   5.7882E-04  0.0302
   7.9042E-02   8.0965E-02   5.6384E-04  0.0303
   8.0965E-02   8.2935E-02   5.3310E-04  0.0307
   8.2935E-02   8.4953E-02   5.3448E-04  0.0303
   8.4953E-02   8.7020E-02   5.0534E-04  0.0308
   8.7020E-02   8.9138E-02   5.0194E-04  0.0305
   8.9138E-02   9.1306E-02   5.1812E-04  0.0297
   9.1306E-02   9.3528E-02   4.6593E-04  0.0309
   9.3528E-02   9.5804E-02   4.6894E-04  0.0305
   9.5804E-02   9.8134E-02   4.4910E-04  0.0307
   9.8134E-02   1.0052E-01   4.5040E-04  0.0304
   1.0052E-01   1.0297E-01   4.2057E-04  0.0310
   1.0297E-01   1.0547E-01   4.2221E-04  0.0306
   1.0547E-01   1.0804E-01   4.1153E-04  0.0306
   1.0804E-01   1.1067E-01   3.9566E-04  0.0309
   1.1067E-01   1.1336E-01   4.0680E-04  0.0301
   1.1336E-01   1.1612E-01   3.9106E-04  0.0303
   1.1612E-01   1.1894E-01   3.6500E-04  0.0310
   1.1894E-01   1.2184E-01   3.6779E-04  0.0305
   1.2184E-01   1.2480E-01   3.6428E-04  0.0303
   1.2480E-01   1.2784E-01   3.6531E-04  0.0299
   1.2784E-01   1.3095E-01   3.5161E-04  0.0301
   1.3095E-01   1.3414E-01   3.3796E-04  0.0304
   1.3414E-01   1.3740E-01   3.5621E-04  0.0292
   1.3740E-01   1.4074E-01   3.2910E-04  0.0300
   1.4074E-01   1.4417E-01   3.2020E-04  0.0301
   1.4417E-01   1.4767E-01   3.0933E-04  0.0302
   1.4767E-01   1.5127E-01   2.9782E-04  0.0304
   1.5127E-01   1.5495E-01   3.0020E-04  0.0300
   1.5495E-01   1.5872E-01   2.8894E-04  0.0301
   1.5872E-01   1.6258E-01   2.7956E-04  0.0303
   1.6258E-01   1.6654E-01   2.7241E-04  0.0303
   1.6654E-01   1.7059E-01   2.7441E-04  0.0299
   1.7059E-01   1.7474E-01   2.5836E-04  0.0304
   1.7474E-01   1.7899E-01   2.7168E-04  0.0293
   1.7899E-01   1.8334E-01   2.5308E-04  0.0300
   1.8334E-01   1.8781E-01   2.4752E-04  0.0300
   1.8781E-01   1.9237E-01   2.3382E-04  0.0304
   1.9237E-01   1.9706E-01   2.3024E-04  0.0303
   1.9706E-01   2.0185E-01   2.3497E-04  0.0296
   2.0185E-01   2.0676E-01   2.3275E-04  0.0294
   2.0676E-01   2.1179E-01   2.5234E-04  0.0279
   2.1179E-01   2.1694E-01   2.7386E-04  0.0265
   2.1694E-01   2.2222E-01   2.6479E-04  0.0266
   2.2222E-01   2.2763E-01   2.7390E-04  0.0258
   2.2763E-01   2.3317E-01   2.9454E-04  0.0246
   2.3317E-01   2.3884E-01   3.0931E-04  0.0238
   2.3884E-01   2.4465E-01   3.0523E-04  0.0236
   2.4465E-01   2.5061E-01   3.1234E-04  0.0231
   2.5061E-01   2.5670E-01   3.1789E-04  0.0226
   2.5670E-01   2.6295E-01   3.1957E-04  0.0223
   2.6295E-01   2.6935E-01   3.4553E-04  0.0212
   2.6935E-01   2.7590E-01   3.6104E-04  0.0204
   2.7590E-01   2.8261E-01   3.7216E-04  0.0199
   2.8261E-01   2.8949E-01   3.8973E-04  0.0192
   2.8949E-01   2.9653E-01   4.0467E-04  0.0186
   2.9653E-01   3.0375E-01   4.1544E-04  0.0181
   3.0375E-01   3.1114E-01   4.1230E-04  0.0180
   3.1114E-01   3.1871E-01   4.2277E-04  0.0176
   3.1871E-01   3.2646E-01   4.5113E-04  0.0168
   3.2646E-01   3.3441E-01   4.5701E-04  0.0165
   3.3441E-01   3.4254E-01   4.5870E-04  0.0163
   3.4254E-01   3.5088E-01   4.6871E-04  0.0159
   3.5088E-01   3.5941E-01   4.9288E-04  0.0153
   3.5941E-01   3.6816E-01   4.9297E-04  0.0151
   3.6816E-01   3.7712E-01   5.1319E-04  0.0147
   3.7712E-01   3.8629E-01   5.3104E-04  0.0142
   3.8629E-01   3.9569E-01   5.3045E-04  0.0141
   3.9569E-01   4.0532E-01   5.5802E-04  0.0136
   4.0532E-01   4.1518E-01   5.5986E-04  0.0134
   4.1518E-01   4.2528E-01   5.6516E-04  0.0132
   4.2528E-01   4.3563E-01   5.8500E-04  0.0128
   4.3563E-01   4.4623E-01   5.9059E-04  0.0126
   4.4623E-01   4.5708E-01   6.0866E-04  0.0122
   4.5708E-01   4.6821E-01   6.1752E-04  0.0120
   4.6821E-01   4.7960E-01   6.3664E-04  0.0117
   4.7960E-01   4.9127E-01   6.3959E-04  0.0115
   4.9127E-01   5.0322E-01   6.5329E-04  0.0112
   5.0322E-01   5.1546E-01   6.7149E-04  0.0110
   5.1546E-01   5.2800E-01   6.8145E-04  0.0107
   5.2800E-01   5.4085E-01   6.8891E-04  0.0105
   5.4085E-01   5.5401E-01   6.9640E-04  0.0104
   5.5401E-01   5.6749E-01   6.9811E-04  0.0102
   5.6749E-01   5.8130E-01   7.0382E-04  0.0101
   5.8130E-01   5.9544E-01   7.0372E-04  0.0099
   5.9544E-01   6.0993E-01   7.1967E-04  0.0097
   6.0993E-01   6.2477E-01   7.2408E-04  0.0096
   6.2477E-01   6.3997E-01   7.3705E-04  0.0094
   6.3997E-01   6.5554E-01   7.2291E-04  0.0094
   6.5554E-01   6.7149E-01   7.2916E-04  0.0092
   6.7149E-01   6.8783E-01   7.3641E-04  0.0090
   6.8783E-01   7.0456E-01   7.4600E-04  0.0089
   7.0456E-01   7.2171E-01   7.3651E-04  0.0088
   7.2171E-01   7.3927E-01   7.5078E-04  0.0086
   7.3927E-01   7.5725E-01   7.5021E-04  0.0085
   7.5725E-01   7.7568E-01   7.5358E-04  0.0084
   7.7568E-01   7.9455E-01   7.5782E-04  0.0083
   7.9455E-01   8.1388E-01   7.5611E-04  0.0082
   8.1388E-01   8.3368E-01   7.4705E-04  0.0082
   8.3368E-01   8.5397E-01   7.6057E-04  0.0080
   8.5397E-01   8.7475E-01   7.4705E-04  0.0080
   8.7475E-01   8.9603E-01   7.5764E-04  0.0078
   8.9603E-01   9.1783E-01   7.5189E-04  0.0077
   9.1783E-01   9.4016E-01   7.4448E-04  0.0077
   9.4016E-01   9.6304E-01   7.3593E-04  0.0076
   9.6304E-01   9.8647E-01   7.3695E-04  0.0075
   9.8647E-01   1.0105E+00   7.2154E-04  0.0075
   1.0105E+00   1.0351E+00   7.2158E-04  0.0074
   1.0351E+00   1.0602E+00   6.9743E-04  0.0075
   1.0602E+00   1.0860E+00   6.8906E-04  0.0074
   1.0860E+00   1.1125E+00   6.7975E-04  0.0074
   1.1125E+00   1.1395E+00   6.6659E-04  0.0074
   1.1395E+00   1.1673E+00   6.6268E-04  0.0073
   1.1673E+00   1.1957E+00   6.4535E-04  0.0073
   1.1957E+00   1.2247E+00   6.5542E-04  0.0072
   1.2247E+00   1.2545E+00   6.2778E-04  0.0072
   1.2545E+00   1.2851E+00   6.2224E-04  0.0072
   1.2851E+00   1.3163E+00   6.0695E-04  0.0072
   1.3163E+00   1.3484E+00   5.9177E-04  0.0072
   1.3484E+00   1.3812E+00   5.8788E-04  0.0071
   1.3812E+00   1.4148E+00   5.8336E-04  0.0071
   1.4148E+00   1.4492E+00   5.6172E-04  0.0071
   1.4492E+00   1.4845E+00   5.5888E-04  0.0070
   1.4845E+00   1.5206E+00   5.5619E-04  0.0070
   1.5206E+00   1.5576E+00   5.3723E-04  0.0070
   1.5576E+00   1.5955E+00   5.2682E-04  0.0070
   1.5955E+00   1.6343E+00   5.1472E-04  0.0070
   1.6343E+00   1.6741E+00   5.0191E-04  0.0070
   1.6741E+00   1.7148E+00   4.8693E-04  0.0070
   1.7148E+00   1.7565E+00   4.7083E-04  0.0071
   1.7565E+00   1.7992E+00   4.5669E-04  0.0071
   1.7992E+00   1.8430E+00   4.5352E-04  0.0070
   1.8430E+00   1.8879E+00   4.4391E-04  0.0070
   1.8879E+00   1.9338E+00   4.2948E-04  0.0070
   1.9338E+00   1.9808E+00   4.1764E-04  0.0071
   1.9808E+00   2.0290E+00   4.0822E-04  0.0070
   2.0290E+00   2.0784E+00   3.9665E-04  0.0071
   2.0784E+00   2.1290E+00   3.8325E-04  0.0071
   2.1290E+00   2.1808E+00   3.7670E-04  0.0071
   2.1808E+00   2.2338E+00   3.6002E-04  0.0072
   2.2338E+00   2.2882E+00   3.4617E-04  0.0072
   2.2882E+00   2.3439E+00   3.4140E-04  0.0072
   2.3439E+00   2.4009E+00   3.3203E-04  0.0072
   2.4009E+00   2.4593E+00   3.2325E-04  0.0072
   2.4593E+00   2.5191E+00   3.1659E-04  0.0072
   2.5191E+00   2.5804E+00   3.0597E-04  0.0072
   2.5804E+00   2.6432E+00   2.9196E-04  0.0073
   2.6432E+00   2.7075E+00   2.8911E-04  0.0072
   2.7075E+00   2.7734E+00   2.7535E-04  0.0073
   2.7734E+00   2.8409E+00   2.6873E-04  0.0073
   2.8409E+00   2.9100E+00   2.6144E-04  0.0073
   2.9100E+00   2.9808E+00   2.5378E-04  0.0074
   2.9808E+00   3.0533E+00   2.4927E-04  0.0073
   3.0533E+00   3.1276E+00   2.3732E-04  0.0074
   3.1276E+00   3.2037E+00   2.3001E-04  0.0075
   3.2037E+00   3.2817E+00   2.2058E-04  0.0075
   3.2817E+00   3.3615E+00   2.1314E-04  0.0076
   3.3615E+00   3.4433E+00   2.1009E-04  0.0075
   3.4433E+00   3.5271E+00   2.0099E-04  0.0076
   3.5271E+00   3.6129E+00   1.9902E-04  0.0076
   3.6129E+00   3.7008E+00   1.9309E-04  0.0076
   3.7008E+00   3.7908E+00   1.8664E-04  0.0076
   3.7908E+00   3.8831E+00   1.8449E-04  0.0076
   3.8831E+00   3.9776E+00   1.8013E-04  0.0076
   3.9776E+00   4.0743E+00   1.7659E-04  0.0076
   4.0743E+00   4.1735E+00   1.7451E-04  0.0075
   4.1735E+00   4.2750E+00   1.6924E-04  0.0075
   4.2750E+00   4.3790E+00   1.6820E-04  0.0075
   4.3790E+00   4.4856E+00   1.6651E-04  0.0074
   4.4856E+00   4.5947E+00   1.6301E-04  0.0074
   4.5947E+00   4.7065E+00   1.5605E-04  0.0075
   4.7065E+00   4.8210E+00   1.5602E-04  0.0074
   4.8210E+00   4.9383E+00   1.5175E-04  0.0074
   4.9383E+00   5.0585E+00   1.4863E-04  0.0074
   5.0585E+00   5.1815E+00   1.4477E-04  0.0074
   5.1815E+00   5.3076E+00   1.4100E-04  0.0074
   5.3076E+00   5.4368E+00   1.3807E-04  0.0074
   5.4368E+00   5.5690E+00   1.3247E-04  0.0075
   5.5690E+00   5.7045E+00   1.2972E-04  0.0075
   5.7045E+00   5.8433E+00   1.2316E-04  0.0076
   5.8433E+00   5.9855E+00   1.1865E-04  0.0076
   5.9855E+00   6.1311E+00   1.1547E-04  0.0077
   6.1311E+00   6.2803E+00   1.1102E-04  0.0077
   6.2803E+00   6.4331E+00   1.0654E-04  0.0078
   6.4331E+00   6.5896E+00   1.0539E-04  0.0077
   6.5896E+00   6.7500E+00   9.9137E-05  0.0079
   6.7500E+00   6.9142E+00   9.2983E-05  0.0080
   6.9142E+00   7.0824E+00   9.0778E-05  0.0080
   7.0824E+00   7.2548E+00   8.7236E-05  0.0081
   7.2548E+00   7.4313E+00   8.4451E-05  0.0082
   7.4313E+00   7.6121E+00   8.1874E-05  0.0082
   7.6121E+00   7.7973E+00   7.6384E-05  0.0084
   7.7973E+00   7.9870E+00   7.4468E-05  0.0084
   7.9870E+00   8.1813E+00   7.0779E-05  0.0085
   8.1813E+00   8.3804E+00   6.8186E-05  0.0086
   8.3804E+00   8.5843E+00   6.4264E-05  0.0087
   8.5843E+00   8.7931E+00   6.1504E-05  0.0088
   8.7931E+00   9.0071E+00   5.8519E-05  0.0089
   9.0071E+00   9.2262E+00   5.6982E-05  0.0089
   9.2262E+00   9.4507E+00   5.3778E-05  0.0091
   9.4507E+00   9.6807E+00   5.0428E-05  0.0093
   9.6807E+00   9.9162E+00   4.9532E-05  0.0092
   9.9162E+00   1.0157E+01   4.6016E-05  0.0095
   1.0157E+01   1.0405E+01   4.4485E-05  0.0095
   1.0405E+01   1.0658E+01   4.1958E-05  0.0097
   1.0658E+01   1.0917E+01   3.9264E-05  0.0099
   1.0917E+01   1.1183E+01   3.7226E-05  0.0100
   1.1183E+01   1.1455E+01   3.5653E-05  0.0101
   1.1455E+01   1.1733E+01   3.3206E-05  0.0104
   1.1733E+01   1.2019E+01   3.1222E-05  0.0106
   1.2019E+01   1.2311E+01   2.9457E-05  0.0108
   1.2311E+01   1.2611E+01   2.7868E-05  0.0109
   1.2611E+01   1.2918E+01   2.6406E-05  0.0111
   1.2918E+01   1.3232E+01   2.4467E-05  0.0114
   1.3232E+01   1.3554E+01   2.3155E-05  0.0116
   1.3554E+01   1.3884E+01   2.1355E-05  0.0119
   1.3884E+01   1.4222E+01   2.0171E-05  0.0121
   1.4222E+01   1.4568E+01   1.8557E-05  0.0125
   1.4568E+01   1.4922E+01   1.7159E-05  0.0128
   1.4922E+01   1.5285E+01   1.6616E-05  0.0129
   1.5285E+01   1.5657E+01   1.4989E-05  0.0134
   1.5657E+01   1.6038E+01   1.3873E-05  0.0138
   1.6038E+01   1.6428E+01   1.2628E-05  0.0142
   1.6428E+01   1.6828E+01   1.1941E-05  0.0145
   1.6828E+01   1.7237E+01   1.1038E-05  0.0149
   1.7237E+01   1.7657E+01   1.0427E-05  0.0151
   1.7657E+01   1.8086E+01   9.5606E-06  0.0156
   1.8086E+01   1.8526E+01   8.6398E-06  0.0162
   1.8526E+01   1.8977E+01   7.9465E-06  0.0167
   1.8977E+01   1.9439E+01   7.2467E-06  0.0173
   1.9439E+01   1.9912E+01   7.0724E-06  0.0173
   1.9912E+01   2.0396E+01   6.2026E-06  0.0182
   2.0396E+01   2.0893E+01   5.7792E-06  0.0187
   2.0893E+01   2.1401E+01   5.1325E-06  0.0196
   2.1401E+01   2.1922E+01   4.6149E-06  0.0204
   2.1922E+01   2.2455E+01   4.0872E-06  0.0214
   2.2455E+01   2.3001E+01   3.6021E-06  0.0225
   2.3001E+01   2.3561E+01   3.1234E-06  0.0239
   2.3561E+01   2.4134E+01   2.6602E-06  0.0256
   2.4134E+01   2.4721E+01   2.5238E-06  0.0260
   2.4721E+01   2.5323E+01   1.9934E-06  0.0289
   2.5323E+01   2.5939E+01   1.7513E-06  0.0304
   2.5939E+01   2.6570E+01   1.4831E-06  0.0327
   2.6570E+01   2.7217E+01   1.2700E-06  0.0349
   2.7217E+01   2.7879E+01   1.0782E-06  0.0374
   2.7879E+01   2.8557E+01   8.5653E-07  0.0415
   2.8557E+01   2.9252E+01   7.5271E-07  0.0437
   2.9252E+01   2.9964E+01   6.6318E-07  0.0460
   2.9964E+01   3.0693E+01   5.4181E-07  0.0503
   3.0693E+01   3.1440E+01   4.5261E-07  0.0544
   3.1440E+01   3.2205E+01   3.2943E-07  0.0630
   3.2205E+01   3.2988E+01   2.8587E-07  0.0668
   3.2988E+01   3.3791E+01   2.3797E-07  0.0724
   3.3791E+01   3.4613E+01   2.0556E-07  0.0769
   3.4613E+01   3.5455E+01   1.6980E-07  0.0836
   3.5455E+01   3.6318E+01   1.5881E-07  0.0854
   3.6318E+01   3.7201E+01   9.1667E-08  0.1111
   3.7201E+01   3.8106E+01   7.5127E-08  0.1213
   3.8106E+01   3.9034E+01   6.9028E-08  0.1250
   3.9034E+01   3.9983E+01   4.0012E-08  0.1622
   3.9983E+01   4.0956E+01   3.5978E-08  0.1690
   4.0956E+01   4.1953E+01   2.8098E-08  0.1890
   4.1953E+01   4.2973E+01   1.7634E-08  0.2357
   4.2973E+01   4.4019E+01   1.0521E-08  0.3015
   4.4019E+01   4.5090E+01   9.3369E-09  0.3162
   4.5090E+01   4.6187E+01   5.4691E-09  0.4082
   4.6187E+01   4.7311E+01   2.6696E-09  0.5774
   4.7311E+01   4.8462E+01   6.0811E-09  0.3780
   4.8462E+01   4.9641E+01   3.3924E-09  0.5000
   4.9641E+01   5.0849E+01   1.6559E-09  0.7071
   5.0849E+01   5.2086E+01   8.0828E-10  1.0000
   5.2086E+01   5.3353E+01   7.8908E-10  1.0000
   5.3353E+01   5.4651E+01   0.0000E+00  0.0000
   5.4651E+01   5.5981E+01   0.0000E+00  0.0000
   5.5981E+01   5.7343E+01   0.0000E+00  0.0000
   5.7343E+01   5.8738E+01   0.0000E+00  0.0000
   5.8738E+01   6.0168E+01   0.0000E+00  0.0000
   6.0168E+01   6.1632E+01   0.0000E+00  0.0000
   6.1632E+01   6.3131E+01   0.0000E+00  0.0000
   6.3131E+01   6.4667E+01   0.0000E+00  0.0000
   6.4667E+01   6.6240E+01   0.0000E+00  0.0000
   6.6240E+01   6.7852E+01   0.0000E+00  0.0000
   6.7852E+01   6.9503E+01   0.0000E+00  0.0000
   6.9503E+01   7.1194E+01   0.0000E+00  0.0000
   7.1194E+01   7.2926E+01   0.0000E+00  0.0000
   7.2926E+01   7.4701E+01   0.0000E+00  0.0000
   7.4701E+01   7.6518E+01   0.0000E+00  0.0000
   7.6518E+01   7.8380E+01   0.0000E+00  0.0000
   7.8380E+01   8.0287E+01   0.0000E+00  0.0000
   8.0287E+01   8.2240E+01   0.0000E+00  0.0000
   8.2240E+01   8.4241E+01   0.0000E+00  0.0000
   8.4241E+01   8.6291E+01   0.0000E+00  0.0000
   8.6291E+01   8.8391E+01   0.0000E+00  0.0000
   8.8391E+01   9.0541E+01   0.0000E+00  0.0000
   9.0541E+01   9.2744E+01   0.0000E+00  0.0000
   9.2744E+01   9.5001E+01   0.0000E+00  0.0000
   9.5001E+01   9.7312E+01   0.0000E+00  0.0000
   9.7312E+01   9.9680E+01   0.0000E+00  0.0000
   9.9680E+01   1.0211E+02   0.0000E+00  0.0000
   1.0211E+02   1.0459E+02   0.0000E+00  0.0000
   1.0459E+02   1.0713E+02   0.0000E+00  0.0000
   1.0713E+02   1.0974E+02   0.0000E+00  0.0000
   1.0974E+02   1.1241E+02   0.0000E+00  0.0000
   1.1241E+02   1.1515E+02   0.0000E+00  0.0000
   1.1515E+02   1.1795E+02   0.0000E+00  0.0000
   1.1795E+02   1.2082E+02   0.0000E+00  0.0000
   1.2082E+02   1.2376E+02   0.0000E+00  0.0000
   1.2376E+02   1.2677E+02   0.0000E+00  0.0000
   1.2677E+02   1.2985E+02   0.0000E+00  0.0000
   1.2985E+02   1.3301E+02   0.0000E+00  0.0000
   1.3301E+02   1.3625E+02   0.0000E+00  0.0000
   1.3625E+02   1.3956E+02   0.0000E+00  0.0000
   1.3956E+02   1.4296E+02   0.0000E+00  0.0000
   1.4296E+02   1.4644E+02   0.0000E+00  0.0000
   1.4644E+02   1.5000E+02   0.0000E+00  0.0000

#   sum over                 1.6847E-05
'no. =    1   reg = 119 - 219'
msuc: {\huge [t-cross] in region mesh}
msdr: {\it plotted by \ANGEL \version}
msdl: {\it calculated by \PHITS  3.26}
wt: s(0.7)
\vspace{-3}
  region surface crossing
  area  &=&   1.0000E+00 [cm^2]
e:
 
# Information for Restart Calculation
# This calculation was newly started
# istdev =  2 # 1:Batch variance, 2:History variance
# resc2  = 1.00000000000000000E+09 # Total source weight or Total source weight / maxcas
# resc3  = 1.00000000000000000E+09 # Total history number or Total batch number
# maxcas =   500000000 # History / Batch, only used for istdev=1
# bitrseed = 0001001110011001001001110000100100110111001111011100001000101100 # bit data of rseed
