[ T-Cross ]
    title = [t-cross] in region mesh
     mesh =  reg            # mesh type is region-wise
      reg =    1            # number of crossing regions
      non     r-from    r-to       area
      1       110       210        1.000000    
   e-type =    3            # e-mesh is log given by emin, emax and ne
     emin =  1.0000000E-02  # minimum value of e-mesh points
     emax =   150.0000      # maximum value of e-mesh points
#    edel =  2.4039514E-02  # mesh width of e-mesh points
       ne =    400          # number of e-mesh points
#    data = ( e(i), i = 1, ne + 1 )
#           1.00000E-02  1.02433E-02  1.04925E-02  1.07478E-02  1.10093E-02
#           1.12772E-02  1.15516E-02  1.18326E-02  1.21205E-02  1.24154E-02
#           1.27175E-02  1.30269E-02  1.33439E-02  1.36686E-02  1.40011E-02
#           1.43418E-02  1.46907E-02  1.50482E-02  1.54143E-02  1.57894E-02
#           1.61735E-02  1.65670E-02  1.69701E-02  1.73830E-02  1.78060E-02
#           1.82392E-02  1.86830E-02  1.91375E-02  1.96032E-02  2.00801E-02
#           2.05687E-02  2.10692E-02  2.15818E-02  2.21069E-02  2.26448E-02
#           2.31957E-02  2.37601E-02  2.43382E-02  2.49304E-02  2.55369E-02
#           2.61583E-02  2.67947E-02  2.74467E-02  2.81145E-02  2.87985E-02
#           2.94992E-02  3.02169E-02  3.09521E-02  3.17052E-02  3.24766E-02
#           3.32668E-02  3.40762E-02  3.49053E-02  3.57546E-02  3.66246E-02
#           3.75157E-02  3.84284E-02  3.93634E-02  4.03212E-02  4.13022E-02
#           4.23071E-02  4.33365E-02  4.43909E-02  4.54710E-02  4.65773E-02
#           4.77106E-02  4.88714E-02  5.00605E-02  5.12785E-02  5.25262E-02
#           5.38042E-02  5.51133E-02  5.64542E-02  5.78278E-02  5.92348E-02
#           6.06760E-02  6.21523E-02  6.36645E-02  6.52135E-02  6.68002E-02
#           6.84255E-02  7.00904E-02  7.17957E-02  7.35426E-02  7.53319E-02
#           7.71648E-02  7.90423E-02  8.09655E-02  8.29354E-02  8.49533E-02
#           8.70203E-02  8.91376E-02  9.13064E-02  9.35279E-02  9.58035E-02
#           9.81345E-02  1.00522E-01  1.02968E-01  1.05473E-01  1.08040E-01
#           1.10668E-01  1.13361E-01  1.16119E-01  1.18944E-01  1.21838E-01
#           1.24803E-01  1.27839E-01  1.30950E-01  1.34136E-01  1.37399E-01
#           1.40742E-01  1.44167E-01  1.47675E-01  1.51268E-01  1.54948E-01
#           1.58718E-01  1.62580E-01  1.66535E-01  1.70587E-01  1.74738E-01
#           1.78989E-01  1.83344E-01  1.87805E-01  1.92375E-01  1.97055E-01
#           2.01850E-01  2.06761E-01  2.11792E-01  2.16945E-01  2.22223E-01
#           2.27630E-01  2.33169E-01  2.38842E-01  2.44653E-01  2.50605E-01
#           2.56703E-01  2.62949E-01  2.69346E-01  2.75900E-01  2.82613E-01
#           2.89489E-01  2.96532E-01  3.03747E-01  3.11138E-01  3.18708E-01
#           3.26462E-01  3.34405E-01  3.42542E-01  3.50876E-01  3.59413E-01
#           3.68158E-01  3.77116E-01  3.86291E-01  3.95690E-01  4.05317E-01
#           4.15179E-01  4.25281E-01  4.35628E-01  4.46227E-01  4.57084E-01
#           4.68205E-01  4.79597E-01  4.91266E-01  5.03219E-01  5.15463E-01
#           5.28005E-01  5.40851E-01  5.54011E-01  5.67490E-01  5.81298E-01
#           5.95441E-01  6.09929E-01  6.24769E-01  6.39970E-01  6.55541E-01
#           6.71491E-01  6.87828E-01  7.04564E-01  7.21706E-01  7.39266E-01
#           7.57253E-01  7.75678E-01  7.94551E-01  8.13883E-01  8.33685E-01
#           8.53969E-01  8.74747E-01  8.96030E-01  9.17831E-01  9.40163E-01
#           9.63038E-01  9.86469E-01  1.01047E+00  1.03506E+00  1.06024E+00
#           1.08604E+00  1.11246E+00  1.13953E+00  1.16725E+00  1.19565E+00
#           1.22474E+00  1.25454E+00  1.28507E+00  1.31633E+00  1.34836E+00
#           1.38117E+00  1.41477E+00  1.44920E+00  1.48446E+00  1.52057E+00
#           1.55757E+00  1.59547E+00  1.63429E+00  1.67405E+00  1.71478E+00
#           1.75650E+00  1.79924E+00  1.84302E+00  1.88786E+00  1.93379E+00
#           1.98084E+00  2.02904E+00  2.07841E+00  2.12898E+00  2.18078E+00
#           2.23384E+00  2.28819E+00  2.34386E+00  2.40089E+00  2.45930E+00
#           2.51914E+00  2.58043E+00  2.64322E+00  2.70753E+00  2.77341E+00
#           2.84088E+00  2.91001E+00  2.98081E+00  3.05333E+00  3.12762E+00
#           3.20372E+00  3.28167E+00  3.36152E+00  3.44330E+00  3.52708E+00
#           3.61290E+00  3.70080E+00  3.79085E+00  3.88308E+00  3.97756E+00
#           4.07434E+00  4.17347E+00  4.27501E+00  4.37903E+00  4.48557E+00
#           4.59471E+00  4.70650E+00  4.82102E+00  4.93832E+00  5.05847E+00
#           5.18155E+00  5.30762E+00  5.43676E+00  5.56904E+00  5.70453E+00
#           5.84333E+00  5.98550E+00  6.13114E+00  6.28031E+00  6.43312E+00
#           6.58964E+00  6.74997E+00  6.91420E+00  7.08243E+00  7.25475E+00
#           7.43126E+00  7.61207E+00  7.79728E+00  7.98700E+00  8.18133E+00
#           8.38038E+00  8.58428E+00  8.79315E+00  9.00709E+00  9.22624E+00
#           9.45072E+00  9.68067E+00  9.91620E+00  1.01575E+01  1.04046E+01
#           1.06578E+01  1.09171E+01  1.11827E+01  1.14548E+01  1.17335E+01
#           1.20190E+01  1.23114E+01  1.26109E+01  1.29178E+01  1.32321E+01
#           1.35540E+01  1.38838E+01  1.42216E+01  1.45676E+01  1.49221E+01
#           1.52851E+01  1.56570E+01  1.60380E+01  1.64282E+01  1.68279E+01
#           1.72374E+01  1.76568E+01  1.80864E+01  1.85264E+01  1.89772E+01
#           1.94389E+01  1.99119E+01  2.03963E+01  2.08926E+01  2.14009E+01
#           2.19216E+01  2.24550E+01  2.30014E+01  2.35610E+01  2.41343E+01
#           2.47215E+01  2.53230E+01  2.59391E+01  2.65702E+01  2.72167E+01
#           2.78789E+01  2.85572E+01  2.92520E+01  2.99637E+01  3.06928E+01
#           3.14396E+01  3.22045E+01  3.29881E+01  3.37907E+01  3.46128E+01
#           3.54550E+01  3.63177E+01  3.72013E+01  3.81064E+01  3.90336E+01
#           3.99833E+01  4.09561E+01  4.19526E+01  4.29734E+01  4.40189E+01
#           4.50900E+01  4.61870E+01  4.73108E+01  4.84619E+01  4.96410E+01
#           5.08488E+01  5.20860E+01  5.33533E+01  5.46514E+01  5.59812E+01
#           5.73432E+01  5.87384E+01  6.01676E+01  6.16315E+01  6.31311E+01
#           6.46671E+01  6.62405E+01  6.78522E+01  6.95031E+01  7.11941E+01
#           7.29263E+01  7.47007E+01  7.65182E+01  7.83800E+01  8.02870E+01
#           8.22405E+01  8.42414E+01  8.62911E+01  8.83906E+01  9.05412E+01
#           9.27442E+01  9.50007E+01  9.73122E+01  9.96799E+01  1.02105E+02
#           1.04589E+02  1.07134E+02  1.09741E+02  1.12411E+02  1.15146E+02
#           1.17948E+02  1.20817E+02  1.23757E+02  1.26768E+02  1.29852E+02
#           1.33012E+02  1.36248E+02  1.39563E+02  1.42959E+02  1.46437E+02
#           1.50000E+02
     unit =    2            # unit is [1/cm^2/(MeV/n)/source]
     axis =  eng            # axis of output
     file = detector-11.out  # file name of output for the above axis
   output = f-curr          # surface crossing forward current spectrum
     part =  neutron  
# kf/name :  2112     
#    used :        main (  %)        temp (  %)       total (  %)
#  memory :         414 (  0)           0 (  0)         414 (  0)

#------------------------------------------------------------------------------
#newpage:
#   no. =    1   reg = 110 - 210

x: Energy [MeV/n]
y:  F-Curr [1/cm^2/(MeV/n)/source]         
p: xlog ylog afac(0.8) form(0.9)
h: n            x            y(neutron ),hh0l   n 
#  e-lower      e-upper      neutron     r.err 
   1.0000E-02   1.0243E-02   3.2696E-03  0.0353
   1.0243E-02   1.0493E-02   3.3828E-03  0.0343
   1.0493E-02   1.0748E-02   3.1374E-03  0.0351
   1.0748E-02   1.1009E-02   3.3641E-03  0.0335
   1.1009E-02   1.1277E-02   3.4686E-03  0.0326
   1.1277E-02   1.1552E-02   3.0659E-03  0.0342
   1.1552E-02   1.1833E-02   3.1882E-03  0.0332
   1.1833E-02   1.2121E-02   3.1977E-03  0.0327
   1.2121E-02   1.2415E-02   3.0900E-03  0.0329
   1.2415E-02   1.2718E-02   2.8904E-03  0.0337
   1.2718E-02   1.3027E-02   2.8589E-03  0.0335
   1.3027E-02   1.3344E-02   2.7174E-03  0.0339
   1.3344E-02   1.3669E-02   2.9256E-03  0.0323
   1.3669E-02   1.4001E-02   2.6655E-03  0.0334
   1.4001E-02   1.4342E-02   2.7431E-03  0.0326
   1.4342E-02   1.4691E-02   2.4277E-03  0.0341
   1.4691E-02   1.5048E-02   2.4216E-03  0.0338
   1.5048E-02   1.5414E-02   2.5595E-03  0.0324
   1.5414E-02   1.5789E-02   2.2687E-03  0.0341
   1.5789E-02   1.6174E-02   2.2552E-03  0.0338
   1.6174E-02   1.6567E-02   2.3813E-03  0.0325
   1.6567E-02   1.6970E-02   2.2113E-03  0.0333
   1.6970E-02   1.7383E-02   2.2177E-03  0.0328
   1.7383E-02   1.7806E-02   2.0084E-03  0.0341
   1.7806E-02   1.8239E-02   2.2436E-03  0.0318
   1.8239E-02   1.8683E-02   2.0528E-03  0.0329
   1.8683E-02   1.9138E-02   1.9713E-03  0.0332
   1.9138E-02   1.9603E-02   1.9742E-03  0.0327
   1.9603E-02   2.0080E-02   1.9067E-03  0.0329
   2.0080E-02   2.0569E-02   1.9098E-03  0.0325
   2.0569E-02   2.1069E-02   1.8123E-03  0.0330
   2.1069E-02   2.1582E-02   1.8246E-03  0.0325
   2.1582E-02   2.2107E-02   1.7688E-03  0.0326
   2.2107E-02   2.2645E-02   1.7791E-03  0.0321
   2.2645E-02   2.3196E-02   1.7325E-03  0.0322
   2.3196E-02   2.3760E-02   1.6593E-03  0.0325
   2.3760E-02   2.4338E-02   1.7248E-03  0.0315
   2.4338E-02   2.4930E-02   1.6490E-03  0.0318
   2.4930E-02   2.5537E-02   1.5477E-03  0.0324
   2.5537E-02   2.6158E-02   1.5474E-03  0.0321
   2.6158E-02   2.6795E-02   1.5135E-03  0.0320
   2.6795E-02   2.7447E-02   1.4495E-03  0.0324
   2.7447E-02   2.8114E-02   1.4342E-03  0.0321
   2.8114E-02   2.8799E-02   1.4491E-03  0.0316
   2.8799E-02   2.9499E-02   1.4353E-03  0.0313
   2.9499E-02   3.0217E-02   1.4202E-03  0.0312
   3.0217E-02   3.0952E-02   1.3640E-03  0.0314
   3.0952E-02   3.1705E-02   1.3720E-03  0.0309
   3.1705E-02   3.2477E-02   1.2685E-03  0.0318
   3.2477E-02   3.3267E-02   1.2869E-03  0.0312
   3.3267E-02   3.4076E-02   1.2749E-03  0.0310
   3.4076E-02   3.4905E-02   1.2360E-03  0.0310
   3.4905E-02   3.5755E-02   1.2557E-03  0.0304
   3.5755E-02   3.6625E-02   1.2408E-03  0.0303
   3.6625E-02   3.7516E-02   1.1552E-03  0.0310
   3.7516E-02   3.8428E-02   1.1803E-03  0.0303
   3.8428E-02   3.9363E-02   1.1190E-03  0.0307
   3.9363E-02   4.0321E-02   1.1202E-03  0.0303
   4.0321E-02   4.1302E-02   1.1141E-03  0.0301
   4.1302E-02   4.2307E-02   1.0648E-03  0.0304
   4.2307E-02   4.3337E-02   1.0708E-03  0.0299
   4.3337E-02   4.4391E-02   9.6756E-04  0.0311
   4.4391E-02   4.5471E-02   1.0001E-03  0.0302
   4.5471E-02   4.6577E-02   9.5577E-04  0.0305
   4.6577E-02   4.7711E-02   9.9900E-04  0.0296
   4.7711E-02   4.8871E-02   9.5938E-04  0.0298
   4.8871E-02   5.0061E-02   9.2896E-04  0.0299
   5.0061E-02   5.1279E-02   9.0876E-04  0.0299
   5.1279E-02   5.2526E-02   8.5269E-04  0.0305
   5.2526E-02   5.3804E-02   8.4372E-04  0.0302
   5.3804E-02   5.5113E-02   8.4159E-04  0.0299
   5.5113E-02   5.6454E-02   8.3587E-04  0.0297
   5.6454E-02   5.7828E-02   8.1436E-04  0.0297
   5.7828E-02   5.9235E-02   7.9970E-04  0.0297
   5.9235E-02   6.0676E-02   8.0611E-04  0.0292
   6.0676E-02   6.2152E-02   8.2079E-04  0.0285
   6.2152E-02   6.3665E-02   7.3284E-04  0.0298
   6.3665E-02   6.5214E-02   7.3026E-04  0.0295
   6.5214E-02   6.6800E-02   7.1646E-04  0.0295
   6.6800E-02   6.8426E-02   7.1155E-04  0.0292
   6.8426E-02   7.0090E-02   6.9276E-04  0.0293
   7.0090E-02   7.1796E-02   6.9798E-04  0.0288
   7.1796E-02   7.3543E-02   6.5188E-04  0.0295
   7.3543E-02   7.5332E-02   6.2925E-04  0.0296
   7.5332E-02   7.7165E-02   6.7527E-04  0.0283
   7.7165E-02   7.9042E-02   6.5059E-04  0.0284
   7.9042E-02   8.0965E-02   6.3227E-04  0.0285
   8.0965E-02   8.2935E-02   6.1380E-04  0.0286
   8.2935E-02   8.4953E-02   5.9248E-04  0.0287
   8.4953E-02   8.7020E-02   6.2957E-04  0.0276
   8.7020E-02   8.9138E-02   5.8835E-04  0.0282
   8.9138E-02   9.1306E-02   5.5461E-04  0.0287
   9.1306E-02   9.3528E-02   5.5635E-04  0.0283
   9.3528E-02   9.5804E-02   5.2468E-04  0.0287
   9.5804E-02   9.8134E-02   5.1982E-04  0.0286
   9.8134E-02   1.0052E-01   5.2048E-04  0.0282
   1.0052E-01   1.0297E-01   5.3626E-04  0.0275
   1.0297E-01   1.0547E-01   5.0533E-04  0.0279
   1.0547E-01   1.0804E-01   4.8255E-04  0.0283
   1.0804E-01   1.1067E-01   4.8741E-04  0.0278
   1.1067E-01   1.1336E-01   4.4549E-04  0.0287
   1.1336E-01   1.1612E-01   4.7678E-04  0.0274
   1.1612E-01   1.1894E-01   4.3351E-04  0.0284
   1.1894E-01   1.2184E-01   4.3170E-04  0.0281
   1.2184E-01   1.2480E-01   4.4909E-04  0.0272
   1.2480E-01   1.2784E-01   4.2687E-04  0.0276
   1.2784E-01   1.3095E-01   4.3676E-04  0.0270
   1.3095E-01   1.3414E-01   4.0901E-04  0.0276
   1.3414E-01   1.3740E-01   3.7208E-04  0.0285
   1.3740E-01   1.4074E-01   3.9580E-04  0.0273
   1.4074E-01   1.4417E-01   3.8368E-04  0.0274
   1.4417E-01   1.4767E-01   3.8846E-04  0.0270
   1.4767E-01   1.5127E-01   3.7728E-04  0.0270
   1.5127E-01   1.5495E-01   3.6227E-04  0.0273
   1.5495E-01   1.5872E-01   3.5471E-04  0.0272
   1.5872E-01   1.6258E-01   3.4802E-04  0.0271
   1.6258E-01   1.6654E-01   3.6222E-04  0.0263
   1.6654E-01   1.7059E-01   3.4765E-04  0.0265
   1.7059E-01   1.7474E-01   3.3673E-04  0.0266
   1.7474E-01   1.7899E-01   3.2038E-04  0.0270
   1.7899E-01   1.8334E-01   3.2082E-04  0.0266
   1.8334E-01   1.8781E-01   3.0475E-04  0.0269
   1.8781E-01   1.9237E-01   3.1421E-04  0.0262
   1.9237E-01   1.9706E-01   3.0888E-04  0.0261
   1.9706E-01   2.0185E-01   2.9661E-04  0.0264
   2.0185E-01   2.0676E-01   3.1580E-04  0.0252
   2.0676E-01   2.1179E-01   3.1659E-04  0.0249
   2.1179E-01   2.1694E-01   3.3274E-04  0.0240
   2.1694E-01   2.2222E-01   3.5128E-04  0.0231
   2.2222E-01   2.2763E-01   3.5453E-04  0.0227
   2.2763E-01   2.3317E-01   3.7664E-04  0.0218
   2.3317E-01   2.3884E-01   3.8686E-04  0.0212
   2.3884E-01   2.4465E-01   3.9316E-04  0.0208
   2.4465E-01   2.5061E-01   4.0706E-04  0.0202
   2.5061E-01   2.5670E-01   4.2527E-04  0.0195
   2.5670E-01   2.6295E-01   4.2475E-04  0.0193
   2.6295E-01   2.6935E-01   4.6135E-04  0.0183
   2.6935E-01   2.7590E-01   4.5932E-04  0.0181
   2.7590E-01   2.8261E-01   4.8422E-04  0.0174
   2.8261E-01   2.8949E-01   4.7661E-04  0.0173
   2.8949E-01   2.9653E-01   5.1615E-04  0.0165
   2.9653E-01   3.0375E-01   5.0818E-04  0.0164
   3.0375E-01   3.1114E-01   5.3950E-04  0.0157
   3.1114E-01   3.1871E-01   5.5811E-04  0.0153
   3.1871E-01   3.2646E-01   5.5995E-04  0.0151
   3.2646E-01   3.3441E-01   5.8370E-04  0.0146
   3.3441E-01   3.4254E-01   6.1003E-04  0.0141
   3.4254E-01   3.5088E-01   6.2478E-04  0.0138
   3.5088E-01   3.5941E-01   6.3258E-04  0.0135
   3.5941E-01   3.6816E-01   6.6645E-04  0.0130
   3.6816E-01   3.7712E-01   6.8373E-04  0.0127
   3.7712E-01   3.8629E-01   6.9319E-04  0.0125
   3.8629E-01   3.9569E-01   7.1622E-04  0.0121
   3.9569E-01   4.0532E-01   7.4068E-04  0.0118
   4.0532E-01   4.1518E-01   7.6240E-04  0.0115
   4.1518E-01   4.2528E-01   7.5958E-04  0.0113
   4.2528E-01   4.3563E-01   8.0146E-04  0.0109
   4.3563E-01   4.4623E-01   8.2762E-04  0.0106
   4.4623E-01   4.5708E-01   8.5366E-04  0.0103
   4.5708E-01   4.6821E-01   8.6512E-04  0.0101
   4.6821E-01   4.7960E-01   8.7761E-04  0.0099
   4.7960E-01   4.9127E-01   9.0836E-04  0.0096
   4.9127E-01   5.0322E-01   9.2635E-04  0.0094
   5.0322E-01   5.1546E-01   9.4770E-04  0.0092
   5.1546E-01   5.2800E-01   9.6863E-04  0.0090
   5.2800E-01   5.4085E-01   1.0138E-03  0.0087
   5.4085E-01   5.5401E-01   9.8986E-04  0.0087
   5.5401E-01   5.6749E-01   1.0421E-03  0.0084
   5.6749E-01   5.8130E-01   1.0580E-03  0.0082
   5.8130E-01   5.9544E-01   1.0712E-03  0.0081
   5.9544E-01   6.0993E-01   1.1008E-03  0.0079
   6.0993E-01   6.2477E-01   1.1099E-03  0.0077
   6.2477E-01   6.3997E-01   1.1336E-03  0.0076
   6.3997E-01   6.5554E-01   1.1674E-03  0.0074
   6.5554E-01   6.7149E-01   1.1874E-03  0.0072
   6.7149E-01   6.8783E-01   1.2016E-03  0.0071
   6.8783E-01   7.0456E-01   1.2216E-03  0.0069
   7.0456E-01   7.2171E-01   1.2457E-03  0.0068
   7.2171E-01   7.3927E-01   1.2365E-03  0.0067
   7.3927E-01   7.5725E-01   1.2698E-03  0.0066
   7.5725E-01   7.7568E-01   1.2943E-03  0.0064
   7.7568E-01   7.9455E-01   1.2992E-03  0.0063
   7.9455E-01   8.1388E-01   1.3316E-03  0.0062
   8.1388E-01   8.3368E-01   1.3453E-03  0.0061
   8.3368E-01   8.5397E-01   1.3639E-03  0.0060
   8.5397E-01   8.7475E-01   1.3853E-03  0.0059
   8.7475E-01   8.9603E-01   1.4003E-03  0.0058
   8.9603E-01   9.1783E-01   1.4357E-03  0.0056
   9.1783E-01   9.4016E-01   1.4409E-03  0.0055
   9.4016E-01   9.6304E-01   1.4447E-03  0.0055
   9.6304E-01   9.8647E-01   1.4749E-03  0.0053
   9.8647E-01   1.0105E+00   1.4704E-03  0.0053
   1.0105E+00   1.0351E+00   1.4823E-03  0.0052
   1.0351E+00   1.0602E+00   1.4755E-03  0.0051
   1.0602E+00   1.0860E+00   1.4834E-03  0.0051
   1.0860E+00   1.1125E+00   1.4748E-03  0.0050
   1.1125E+00   1.1395E+00   1.4972E-03  0.0049
   1.1395E+00   1.1673E+00   1.4876E-03  0.0049
   1.1673E+00   1.1957E+00   1.5225E-03  0.0048
   1.1957E+00   1.2247E+00   1.5398E-03  0.0047
   1.2247E+00   1.2545E+00   1.5185E-03  0.0047
   1.2545E+00   1.2851E+00   1.5213E-03  0.0046
   1.2851E+00   1.3163E+00   1.5116E-03  0.0046
   1.3163E+00   1.3484E+00   1.5188E-03  0.0045
   1.3484E+00   1.3812E+00   1.5414E-03  0.0044
   1.3812E+00   1.4148E+00   1.5550E-03  0.0043
   1.4148E+00   1.4492E+00   1.5602E-03  0.0043
   1.4492E+00   1.4845E+00   1.5666E-03  0.0042
   1.4845E+00   1.5206E+00   1.5679E-03  0.0042
   1.5206E+00   1.5576E+00   1.5584E-03  0.0041
   1.5576E+00   1.5955E+00   1.5457E-03  0.0041
   1.5955E+00   1.6343E+00   1.5301E-03  0.0041
   1.6343E+00   1.6741E+00   1.5189E-03  0.0040
   1.6741E+00   1.7148E+00   1.5097E-03  0.0040
   1.7148E+00   1.7565E+00   1.4980E-03  0.0040
   1.7565E+00   1.7992E+00   1.4978E-03  0.0039
   1.7992E+00   1.8430E+00   1.4973E-03  0.0039
   1.8430E+00   1.8879E+00   1.4878E-03  0.0038
   1.8879E+00   1.9338E+00   1.4811E-03  0.0038
   1.9338E+00   1.9808E+00   1.4891E-03  0.0037
   1.9808E+00   2.0290E+00   1.4778E-03  0.0037
   2.0290E+00   2.0784E+00   1.4620E-03  0.0037
   2.0784E+00   2.1290E+00   1.4473E-03  0.0037
   2.1290E+00   2.1808E+00   1.4306E-03  0.0036
   2.1808E+00   2.2338E+00   1.4134E-03  0.0036
   2.2338E+00   2.2882E+00   1.3914E-03  0.0036
   2.2882E+00   2.3439E+00   1.3791E-03  0.0036
   2.3439E+00   2.4009E+00   1.3765E-03  0.0035
   2.4009E+00   2.4593E+00   1.3751E-03  0.0035
   2.4593E+00   2.5191E+00   1.3560E-03  0.0035
   2.5191E+00   2.5804E+00   1.3588E-03  0.0034
   2.5804E+00   2.6432E+00   1.3423E-03  0.0034
   2.6432E+00   2.7075E+00   1.3288E-03  0.0034
   2.7075E+00   2.7734E+00   1.3026E-03  0.0034
   2.7734E+00   2.8409E+00   1.2972E-03  0.0034
   2.8409E+00   2.9100E+00   1.2807E-03  0.0033
   2.9100E+00   2.9808E+00   1.2667E-03  0.0033
   2.9808E+00   3.0533E+00   1.2707E-03  0.0033
   3.0533E+00   3.1276E+00   1.2318E-03  0.0033
   3.1276E+00   3.2037E+00   1.2202E-03  0.0033
   3.2037E+00   3.2817E+00   1.1988E-03  0.0032
   3.2817E+00   3.3615E+00   1.1713E-03  0.0032
   3.3615E+00   3.4433E+00   1.1557E-03  0.0032
   3.4433E+00   3.5271E+00   1.1466E-03  0.0032
   3.5271E+00   3.6129E+00   1.1249E-03  0.0032
   3.6129E+00   3.7008E+00   1.1050E-03  0.0032
   3.7008E+00   3.7908E+00   1.0878E-03  0.0032
   3.7908E+00   3.8831E+00   1.0674E-03  0.0032
   3.8831E+00   3.9776E+00   1.0559E-03  0.0031
   3.9776E+00   4.0743E+00   1.0410E-03  0.0031
   4.0743E+00   4.1735E+00   1.0196E-03  0.0031
   4.1735E+00   4.2750E+00   9.9878E-04  0.0031
   4.2750E+00   4.3790E+00   9.9166E-04  0.0031
   4.3790E+00   4.4856E+00   9.7378E-04  0.0031
   4.4856E+00   4.5947E+00   9.5745E-04  0.0031
   4.5947E+00   4.7065E+00   9.4491E-04  0.0031
   4.7065E+00   4.8210E+00   9.2408E-04  0.0031
   4.8210E+00   4.9383E+00   9.1823E-04  0.0030
   4.9383E+00   5.0585E+00   9.1977E-04  0.0030
   5.0585E+00   5.1815E+00   9.4020E-04  0.0029
   5.1815E+00   5.3076E+00   9.3325E-04  0.0029
   5.3076E+00   5.4368E+00   9.1918E-04  0.0029
   5.4368E+00   5.5690E+00   9.0198E-04  0.0029
   5.5690E+00   5.7045E+00   8.8254E-04  0.0029
   5.7045E+00   5.8433E+00   8.6202E-04  0.0029
   5.8433E+00   5.9855E+00   8.4425E-04  0.0029
   5.9855E+00   6.1311E+00   8.3148E-04  0.0029
   6.1311E+00   6.2803E+00   8.1136E-04  0.0029
   6.2803E+00   6.4331E+00   7.9358E-04  0.0029
   6.4331E+00   6.5896E+00   7.7537E-04  0.0029
   6.5896E+00   6.7500E+00   7.5761E-04  0.0029
   6.7500E+00   6.9142E+00   7.4135E-04  0.0029
   6.9142E+00   7.0824E+00   7.3043E-04  0.0028
   7.0824E+00   7.2548E+00   7.1463E-04  0.0028
   7.2548E+00   7.4313E+00   6.9756E-04  0.0028
   7.4313E+00   7.6121E+00   6.8323E-04  0.0028
   7.6121E+00   7.7973E+00   6.6688E-04  0.0028
   7.7973E+00   7.9870E+00   6.5204E-04  0.0028
   7.9870E+00   8.1813E+00   6.4227E-04  0.0028
   8.1813E+00   8.3804E+00   6.2926E-04  0.0028
   8.3804E+00   8.5843E+00   6.1506E-04  0.0028
   8.5843E+00   8.7931E+00   6.0579E-04  0.0028
   8.7931E+00   9.0071E+00   5.8923E-04  0.0028
   9.0071E+00   9.2262E+00   5.7982E-04  0.0028
   9.2262E+00   9.4507E+00   5.6570E-04  0.0028
   9.4507E+00   9.6807E+00   5.5297E-04  0.0028
   9.6807E+00   9.9162E+00   5.4011E-04  0.0028
   9.9162E+00   1.0157E+01   5.2488E-04  0.0028
   1.0157E+01   1.0405E+01   5.1579E-04  0.0028
   1.0405E+01   1.0658E+01   5.0336E-04  0.0028
   1.0658E+01   1.0917E+01   4.9189E-04  0.0028
   1.0917E+01   1.1183E+01   4.7763E-04  0.0028
   1.1183E+01   1.1455E+01   4.6631E-04  0.0028
   1.1455E+01   1.1733E+01   4.5363E-04  0.0028
   1.1733E+01   1.2019E+01   4.4274E-04  0.0028
   1.2019E+01   1.2311E+01   4.3139E-04  0.0028
   1.2311E+01   1.2611E+01   4.1990E-04  0.0028
   1.2611E+01   1.2918E+01   4.0898E-04  0.0028
   1.2918E+01   1.3232E+01   3.9686E-04  0.0028
   1.3232E+01   1.3554E+01   3.8625E-04  0.0028
   1.3554E+01   1.3884E+01   3.7416E-04  0.0028
   1.3884E+01   1.4222E+01   3.6339E-04  0.0029
   1.4222E+01   1.4568E+01   3.5169E-04  0.0029
   1.4568E+01   1.4922E+01   3.4033E-04  0.0029
   1.4922E+01   1.5285E+01   3.2714E-04  0.0029
   1.5285E+01   1.5657E+01   3.1835E-04  0.0029
   1.5657E+01   1.6038E+01   3.0924E-04  0.0029
   1.6038E+01   1.6428E+01   2.9620E-04  0.0029
   1.6428E+01   1.6828E+01   2.8660E-04  0.0030
   1.6828E+01   1.7237E+01   2.7420E-04  0.0030
   1.7237E+01   1.7657E+01   2.6564E-04  0.0030
   1.7657E+01   1.8086E+01   2.5486E-04  0.0030
   1.8086E+01   1.8526E+01   2.4289E-04  0.0031
   1.8526E+01   1.8977E+01   2.3402E-04  0.0031
   1.8977E+01   1.9439E+01   2.2738E-04  0.0031
   1.9439E+01   1.9912E+01   2.2445E-04  0.0031
   1.9912E+01   2.0396E+01   2.2081E-04  0.0031
   2.0396E+01   2.0893E+01   2.1357E-04  0.0031
   2.0893E+01   2.1401E+01   2.0264E-04  0.0031
   2.1401E+01   2.1922E+01   1.9549E-04  0.0031
   2.1922E+01   2.2455E+01   1.8562E-04  0.0032
   2.2455E+01   2.3001E+01   1.7543E-04  0.0032
   2.3001E+01   2.3561E+01   1.6772E-04  0.0033
   2.3561E+01   2.4134E+01   1.5847E-04  0.0033
   2.4134E+01   2.4721E+01   1.4997E-04  0.0034
   2.4721E+01   2.5323E+01   1.4335E-04  0.0034
   2.5323E+01   2.5939E+01   1.3435E-04  0.0035
   2.5939E+01   2.6570E+01   1.2669E-04  0.0035
   2.6570E+01   2.7217E+01   1.1973E-04  0.0036
   2.7217E+01   2.7879E+01   1.1215E-04  0.0037
   2.7879E+01   2.8557E+01   1.0492E-04  0.0037
   2.8557E+01   2.9252E+01   9.8135E-05  0.0038
   2.9252E+01   2.9964E+01   9.2311E-05  0.0039
   2.9964E+01   3.0693E+01   8.6245E-05  0.0040
   3.0693E+01   3.1440E+01   8.0767E-05  0.0041
   3.1440E+01   3.2205E+01   7.5361E-05  0.0042
   3.2205E+01   3.2988E+01   6.9298E-05  0.0043
   3.2988E+01   3.3791E+01   6.4274E-05  0.0044
   3.3791E+01   3.4613E+01   5.9651E-05  0.0045
   3.4613E+01   3.5455E+01   5.5273E-05  0.0046
   3.5455E+01   3.6318E+01   5.1168E-05  0.0048
   3.6318E+01   3.7201E+01   4.6994E-05  0.0049
   3.7201E+01   3.8106E+01   4.3280E-05  0.0051
   3.8106E+01   3.9034E+01   3.9437E-05  0.0052
   3.9034E+01   3.9983E+01   3.6154E-05  0.0054
   3.9983E+01   4.0956E+01   3.2750E-05  0.0056
   4.0956E+01   4.1953E+01   3.0245E-05  0.0058
   4.1953E+01   4.2973E+01   2.7464E-05  0.0060
   4.2973E+01   4.4019E+01   2.4842E-05  0.0062
   4.4019E+01   4.5090E+01   2.2266E-05  0.0065
   4.5090E+01   4.6187E+01   1.9750E-05  0.0068
   4.6187E+01   4.7311E+01   1.7772E-05  0.0071
   4.7311E+01   4.8462E+01   1.6066E-05  0.0074
   4.8462E+01   4.9641E+01   1.4165E-05  0.0077
   4.9641E+01   5.0849E+01   1.2514E-05  0.0081
   5.0849E+01   5.2086E+01   1.1043E-05  0.0086
   5.2086E+01   5.3353E+01   9.6836E-06  0.0090
   5.3353E+01   5.4651E+01   8.4075E-06  0.0096
   5.4651E+01   5.5981E+01   7.2482E-06  0.0102
   5.5981E+01   5.7343E+01   6.2501E-06  0.0108
   5.7343E+01   5.8738E+01   5.3928E-06  0.0115
   5.8738E+01   6.0168E+01   4.4278E-06  0.0126
   6.0168E+01   6.1632E+01   3.6860E-06  0.0136
   6.1632E+01   6.3131E+01   3.0363E-06  0.0148
   6.3131E+01   6.4667E+01   2.4915E-06  0.0162
   6.4667E+01   6.6240E+01   1.9537E-06  0.0180
   6.6240E+01   6.7852E+01   1.5915E-06  0.0197
   6.7852E+01   6.9503E+01   1.1648E-06  0.0228
   6.9503E+01   7.1194E+01   8.4680E-07  0.0264
   7.1194E+01   7.2926E+01   5.7961E-07  0.0316
   7.2926E+01   7.4701E+01   4.2100E-07  0.0366
   7.4701E+01   7.6518E+01   2.7015E-07  0.0451
   7.6518E+01   7.8380E+01   1.6490E-07  0.0571
   7.8380E+01   8.0287E+01   1.0592E-07  0.0704
   8.0287E+01   8.2240E+01   6.1430E-08  0.0913
   8.2240E+01   8.4241E+01   4.2979E-08  0.1078
   8.4241E+01   8.6291E+01   2.2443E-08  0.1474
   8.6291E+01   8.8391E+01   1.4289E-08  0.1826
   8.8391E+01   9.0541E+01   4.6498E-09  0.3162
   9.0541E+01   9.2744E+01   1.8158E-09  0.5000
   9.2744E+01   9.5001E+01   0.0000E+00  0.0000
   9.5001E+01   9.7312E+01   0.0000E+00  0.0000
   9.7312E+01   9.9680E+01   0.0000E+00  0.0000
   9.9680E+01   1.0211E+02   0.0000E+00  0.0000
   1.0211E+02   1.0459E+02   0.0000E+00  0.0000
   1.0459E+02   1.0713E+02   0.0000E+00  0.0000
   1.0713E+02   1.0974E+02   0.0000E+00  0.0000
   1.0974E+02   1.1241E+02   0.0000E+00  0.0000
   1.1241E+02   1.1515E+02   0.0000E+00  0.0000
   1.1515E+02   1.1795E+02   0.0000E+00  0.0000
   1.1795E+02   1.2082E+02   0.0000E+00  0.0000
   1.2082E+02   1.2376E+02   0.0000E+00  0.0000
   1.2376E+02   1.2677E+02   0.0000E+00  0.0000
   1.2677E+02   1.2985E+02   0.0000E+00  0.0000
   1.2985E+02   1.3301E+02   0.0000E+00  0.0000
   1.3301E+02   1.3625E+02   0.0000E+00  0.0000
   1.3625E+02   1.3956E+02   0.0000E+00  0.0000
   1.3956E+02   1.4296E+02   0.0000E+00  0.0000
   1.4296E+02   1.4644E+02   0.0000E+00  0.0000
   1.4644E+02   1.5000E+02   0.0000E+00  0.0000

#   sum over                 1.0195E-04
'no. =    1   reg = 110 - 210'
msuc: {\huge [t-cross] in region mesh}
msdr: {\it plotted by \ANGEL \version}
msdl: {\it calculated by \PHITS  3.26}
wt: s(0.7)
\vspace{-3}
  region surface crossing
  area  &=&   1.0000E+00 [cm^2]
e:
 
# Information for Restart Calculation
# This calculation was newly started
# istdev =  2 # 1:Batch variance, 2:History variance
# resc2  = 1.00000000000000000E+09 # Total source weight or Total source weight / maxcas
# resc3  = 1.00000000000000000E+09 # Total history number or Total batch number
# maxcas =   500000000 # History / Batch, only used for istdev=1
# bitrseed = 0001001110011001001001110000100100110111001111011100001000101100 # bit data of rseed
