[ T-Cross ]
    title = [t-cross] in region mesh
     mesh =  reg            # mesh type is region-wise
      reg =    1            # number of crossing regions
      non     r-from    r-to       area
      1       116       216        1.000000    
   e-type =    3            # e-mesh is log given by emin, emax and ne
     emin =  1.0000000E-02  # minimum value of e-mesh points
     emax =   150.0000      # maximum value of e-mesh points
#    edel =  2.4039514E-02  # mesh width of e-mesh points
       ne =    400          # number of e-mesh points
#    data = ( e(i), i = 1, ne + 1 )
#           1.00000E-02  1.02433E-02  1.04925E-02  1.07478E-02  1.10093E-02
#           1.12772E-02  1.15516E-02  1.18326E-02  1.21205E-02  1.24154E-02
#           1.27175E-02  1.30269E-02  1.33439E-02  1.36686E-02  1.40011E-02
#           1.43418E-02  1.46907E-02  1.50482E-02  1.54143E-02  1.57894E-02
#           1.61735E-02  1.65670E-02  1.69701E-02  1.73830E-02  1.78060E-02
#           1.82392E-02  1.86830E-02  1.91375E-02  1.96032E-02  2.00801E-02
#           2.05687E-02  2.10692E-02  2.15818E-02  2.21069E-02  2.26448E-02
#           2.31957E-02  2.37601E-02  2.43382E-02  2.49304E-02  2.55369E-02
#           2.61583E-02  2.67947E-02  2.74467E-02  2.81145E-02  2.87985E-02
#           2.94992E-02  3.02169E-02  3.09521E-02  3.17052E-02  3.24766E-02
#           3.32668E-02  3.40762E-02  3.49053E-02  3.57546E-02  3.66246E-02
#           3.75157E-02  3.84284E-02  3.93634E-02  4.03212E-02  4.13022E-02
#           4.23071E-02  4.33365E-02  4.43909E-02  4.54710E-02  4.65773E-02
#           4.77106E-02  4.88714E-02  5.00605E-02  5.12785E-02  5.25262E-02
#           5.38042E-02  5.51133E-02  5.64542E-02  5.78278E-02  5.92348E-02
#           6.06760E-02  6.21523E-02  6.36645E-02  6.52135E-02  6.68002E-02
#           6.84255E-02  7.00904E-02  7.17957E-02  7.35426E-02  7.53319E-02
#           7.71648E-02  7.90423E-02  8.09655E-02  8.29354E-02  8.49533E-02
#           8.70203E-02  8.91376E-02  9.13064E-02  9.35279E-02  9.58035E-02
#           9.81345E-02  1.00522E-01  1.02968E-01  1.05473E-01  1.08040E-01
#           1.10668E-01  1.13361E-01  1.16119E-01  1.18944E-01  1.21838E-01
#           1.24803E-01  1.27839E-01  1.30950E-01  1.34136E-01  1.37399E-01
#           1.40742E-01  1.44167E-01  1.47675E-01  1.51268E-01  1.54948E-01
#           1.58718E-01  1.62580E-01  1.66535E-01  1.70587E-01  1.74738E-01
#           1.78989E-01  1.83344E-01  1.87805E-01  1.92375E-01  1.97055E-01
#           2.01850E-01  2.06761E-01  2.11792E-01  2.16945E-01  2.22223E-01
#           2.27630E-01  2.33169E-01  2.38842E-01  2.44653E-01  2.50605E-01
#           2.56703E-01  2.62949E-01  2.69346E-01  2.75900E-01  2.82613E-01
#           2.89489E-01  2.96532E-01  3.03747E-01  3.11138E-01  3.18708E-01
#           3.26462E-01  3.34405E-01  3.42542E-01  3.50876E-01  3.59413E-01
#           3.68158E-01  3.77116E-01  3.86291E-01  3.95690E-01  4.05317E-01
#           4.15179E-01  4.25281E-01  4.35628E-01  4.46227E-01  4.57084E-01
#           4.68205E-01  4.79597E-01  4.91266E-01  5.03219E-01  5.15463E-01
#           5.28005E-01  5.40851E-01  5.54011E-01  5.67490E-01  5.81298E-01
#           5.95441E-01  6.09929E-01  6.24769E-01  6.39970E-01  6.55541E-01
#           6.71491E-01  6.87828E-01  7.04564E-01  7.21706E-01  7.39266E-01
#           7.57253E-01  7.75678E-01  7.94551E-01  8.13883E-01  8.33685E-01
#           8.53969E-01  8.74747E-01  8.96030E-01  9.17831E-01  9.40163E-01
#           9.63038E-01  9.86469E-01  1.01047E+00  1.03506E+00  1.06024E+00
#           1.08604E+00  1.11246E+00  1.13953E+00  1.16725E+00  1.19565E+00
#           1.22474E+00  1.25454E+00  1.28507E+00  1.31633E+00  1.34836E+00
#           1.38117E+00  1.41477E+00  1.44920E+00  1.48446E+00  1.52057E+00
#           1.55757E+00  1.59547E+00  1.63429E+00  1.67405E+00  1.71478E+00
#           1.75650E+00  1.79924E+00  1.84302E+00  1.88786E+00  1.93379E+00
#           1.98084E+00  2.02904E+00  2.07841E+00  2.12898E+00  2.18078E+00
#           2.23384E+00  2.28819E+00  2.34386E+00  2.40089E+00  2.45930E+00
#           2.51914E+00  2.58043E+00  2.64322E+00  2.70753E+00  2.77341E+00
#           2.84088E+00  2.91001E+00  2.98081E+00  3.05333E+00  3.12762E+00
#           3.20372E+00  3.28167E+00  3.36152E+00  3.44330E+00  3.52708E+00
#           3.61290E+00  3.70080E+00  3.79085E+00  3.88308E+00  3.97756E+00
#           4.07434E+00  4.17347E+00  4.27501E+00  4.37903E+00  4.48557E+00
#           4.59471E+00  4.70650E+00  4.82102E+00  4.93832E+00  5.05847E+00
#           5.18155E+00  5.30762E+00  5.43676E+00  5.56904E+00  5.70453E+00
#           5.84333E+00  5.98550E+00  6.13114E+00  6.28031E+00  6.43312E+00
#           6.58964E+00  6.74997E+00  6.91420E+00  7.08243E+00  7.25475E+00
#           7.43126E+00  7.61207E+00  7.79728E+00  7.98700E+00  8.18133E+00
#           8.38038E+00  8.58428E+00  8.79315E+00  9.00709E+00  9.22624E+00
#           9.45072E+00  9.68067E+00  9.91620E+00  1.01575E+01  1.04046E+01
#           1.06578E+01  1.09171E+01  1.11827E+01  1.14548E+01  1.17335E+01
#           1.20190E+01  1.23114E+01  1.26109E+01  1.29178E+01  1.32321E+01
#           1.35540E+01  1.38838E+01  1.42216E+01  1.45676E+01  1.49221E+01
#           1.52851E+01  1.56570E+01  1.60380E+01  1.64282E+01  1.68279E+01
#           1.72374E+01  1.76568E+01  1.80864E+01  1.85264E+01  1.89772E+01
#           1.94389E+01  1.99119E+01  2.03963E+01  2.08926E+01  2.14009E+01
#           2.19216E+01  2.24550E+01  2.30014E+01  2.35610E+01  2.41343E+01
#           2.47215E+01  2.53230E+01  2.59391E+01  2.65702E+01  2.72167E+01
#           2.78789E+01  2.85572E+01  2.92520E+01  2.99637E+01  3.06928E+01
#           3.14396E+01  3.22045E+01  3.29881E+01  3.37907E+01  3.46128E+01
#           3.54550E+01  3.63177E+01  3.72013E+01  3.81064E+01  3.90336E+01
#           3.99833E+01  4.09561E+01  4.19526E+01  4.29734E+01  4.40189E+01
#           4.50900E+01  4.61870E+01  4.73108E+01  4.84619E+01  4.96410E+01
#           5.08488E+01  5.20860E+01  5.33533E+01  5.46514E+01  5.59812E+01
#           5.73432E+01  5.87384E+01  6.01676E+01  6.16315E+01  6.31311E+01
#           6.46671E+01  6.62405E+01  6.78522E+01  6.95031E+01  7.11941E+01
#           7.29263E+01  7.47007E+01  7.65182E+01  7.83800E+01  8.02870E+01
#           8.22405E+01  8.42414E+01  8.62911E+01  8.83906E+01  9.05412E+01
#           9.27442E+01  9.50007E+01  9.73122E+01  9.96799E+01  1.02105E+02
#           1.04589E+02  1.07134E+02  1.09741E+02  1.12411E+02  1.15146E+02
#           1.17948E+02  1.20817E+02  1.23757E+02  1.26768E+02  1.29852E+02
#           1.33012E+02  1.36248E+02  1.39563E+02  1.42959E+02  1.46437E+02
#           1.50000E+02
     unit =    2            # unit is [1/cm^2/(MeV/n)/source]
     axis =  eng            # axis of output
     file = detector-17.out  # file name of output for the above axis
   output = f-curr          # surface crossing forward current spectrum
     part =  neutron  
# kf/name :  2112     
#    used :        main (  %)        temp (  %)       total (  %)
#  memory :         414 (  0)           0 (  0)         414 (  0)

#------------------------------------------------------------------------------
#newpage:
#   no. =    1   reg = 116 - 216

x: Energy [MeV/n]
y:  F-Curr [1/cm^2/(MeV/n)/source]         
p: xlog ylog afac(0.8) form(0.9)
h: n            x            y(neutron ),hh0l   n 
#  e-lower      e-upper      neutron     r.err 
   1.0000E-02   1.0243E-02   2.6750E-03  0.0552
   1.0243E-02   1.0493E-02   2.6148E-03  0.0553
   1.0493E-02   1.0748E-02   2.4438E-03  0.0565
   1.0748E-02   1.1009E-02   2.2609E-03  0.0579
   1.1009E-02   1.1277E-02   2.3219E-03  0.0566
   1.1277E-02   1.1552E-02   2.2456E-03  0.0567
   1.1552E-02   1.1833E-02   2.3529E-03  0.0549
   1.1833E-02   1.2121E-02   2.3227E-03  0.0546
   1.2121E-02   1.2415E-02   2.3342E-03  0.0538
   1.2415E-02   1.2718E-02   2.1956E-03  0.0548
   1.2718E-02   1.3027E-02   2.0078E-03  0.0566
   1.3027E-02   1.3344E-02   2.1474E-03  0.0540
   1.3344E-02   1.3669E-02   2.0546E-03  0.0546
   1.3669E-02   1.4001E-02   2.0673E-03  0.0538
   1.4001E-02   1.4342E-02   1.9039E-03  0.0553
   1.4342E-02   1.4691E-02   1.6568E-03  0.0587
   1.4691E-02   1.5048E-02   1.9653E-03  0.0532
   1.5048E-02   1.5414E-02   1.9123E-03  0.0533
   1.5414E-02   1.5789E-02   1.8171E-03  0.0540
   1.5789E-02   1.6174E-02   1.7888E-03  0.0537
   1.6174E-02   1.6567E-02   1.7121E-03  0.0543
   1.6567E-02   1.6970E-02   1.7257E-03  0.0534
   1.6970E-02   1.7383E-02   1.6875E-03  0.0534
   1.7383E-02   1.7806E-02   1.6854E-03  0.0529
   1.7806E-02   1.8239E-02   1.5590E-03  0.0543
   1.8239E-02   1.8683E-02   1.4941E-03  0.0548
   1.8683E-02   1.9138E-02   1.5860E-03  0.0526
   1.9138E-02   1.9603E-02   1.3940E-03  0.0554
   1.9603E-02   2.0080E-02   1.4536E-03  0.0535
   2.0080E-02   2.0569E-02   1.3801E-03  0.0543
   2.0569E-02   2.1069E-02   1.2846E-03  0.0557
   2.1069E-02   2.1582E-02   1.3417E-03  0.0537
   2.1582E-02   2.2107E-02   1.2995E-03  0.0540
   2.2107E-02   2.2645E-02   1.2245E-03  0.0549
   2.2645E-02   2.3196E-02   1.2753E-03  0.0532
   2.3196E-02   2.3760E-02   1.1739E-03  0.0546
   2.3760E-02   2.4338E-02   1.1250E-03  0.0553
   2.4338E-02   2.4930E-02   1.2776E-03  0.0513
   2.4930E-02   2.5537E-02   1.1536E-03  0.0534
   2.5537E-02   2.6158E-02   1.1325E-03  0.0532
   2.6158E-02   2.6795E-02   9.6206E-04  0.0570
   2.6795E-02   2.7447E-02   1.0736E-03  0.0533
   2.7447E-02   2.8114E-02   1.0601E-03  0.0530
   2.8114E-02   2.8799E-02   9.6719E-04  0.0547
   2.8799E-02   2.9499E-02   1.0374E-03  0.0524
   2.9499E-02   3.0217E-02   1.0176E-03  0.0521
   3.0217E-02   3.0952E-02   9.8359E-04  0.0524
   3.0952E-02   3.1705E-02   8.9988E-04  0.0541
   3.1705E-02   3.2477E-02   8.7667E-04  0.0542
   3.2477E-02   3.3267E-02   9.7875E-04  0.0507
   3.3267E-02   3.4076E-02   8.4756E-04  0.0538
   3.4076E-02   3.4905E-02   8.8878E-04  0.0520
   3.4905E-02   3.5755E-02   8.3018E-04  0.0530
   3.5755E-02   3.6625E-02   7.9753E-04  0.0535
   3.6625E-02   3.7516E-02   8.6440E-04  0.0508
   3.7516E-02   3.8428E-02   7.9478E-04  0.0523
   3.8428E-02   3.9363E-02   7.9962E-04  0.0515
   3.9363E-02   4.0321E-02   7.8878E-04  0.0513
   4.0321E-02   4.1302E-02   7.7871E-04  0.0510
   4.1302E-02   4.2307E-02   6.9019E-04  0.0536
   4.2307E-02   4.3337E-02   7.4390E-04  0.0510
   4.3337E-02   4.4391E-02   7.0834E-04  0.0516
   4.4391E-02   4.5471E-02   6.4611E-04  0.0534
   4.5471E-02   4.6577E-02   6.3879E-04  0.0530
   4.6577E-02   4.7711E-02   6.7827E-04  0.0509
   4.7711E-02   4.8871E-02   6.4081E-04  0.0518
   4.8871E-02   5.0061E-02   6.0929E-04  0.0524
   5.0061E-02   5.1279E-02   5.8557E-04  0.0528
   5.1279E-02   5.2526E-02   5.8990E-04  0.0519
   5.2526E-02   5.3804E-02   6.0605E-04  0.0507
   5.3804E-02   5.5113E-02   5.7750E-04  0.0513
   5.5113E-02   5.6454E-02   5.3876E-04  0.0524
   5.6454E-02   5.7828E-02   5.2505E-04  0.0525
   5.7828E-02   5.9235E-02   5.1291E-04  0.0525
   5.9235E-02   6.0676E-02   5.1723E-04  0.0516
   6.0676E-02   6.2152E-02   5.1601E-04  0.0511
   6.2152E-02   6.3665E-02   4.7497E-04  0.0526
   6.3665E-02   6.5214E-02   4.6423E-04  0.0526
   6.5214E-02   6.6800E-02   4.8687E-04  0.0507
   6.6800E-02   6.8426E-02   4.5256E-04  0.0520
   6.8426E-02   7.0090E-02   4.5645E-04  0.0511
   7.0090E-02   7.1796E-02   4.2879E-04  0.0522
   7.1796E-02   7.3543E-02   4.4455E-04  0.0506
   7.3543E-02   7.5332E-02   4.3670E-04  0.0504
   7.5332E-02   7.7165E-02   4.2144E-04  0.0507
   7.7165E-02   7.9042E-02   3.8212E-04  0.0526
   7.9042E-02   8.0965E-02   3.8798E-04  0.0515
   8.0965E-02   8.2935E-02   3.9654E-04  0.0504
   8.2935E-02   8.4953E-02   3.9524E-04  0.0499
   8.4953E-02   8.7020E-02   3.9405E-04  0.0494
   8.7020E-02   8.9138E-02   3.6648E-04  0.0507
   8.9138E-02   9.1306E-02   3.8384E-04  0.0488
   9.1306E-02   9.3528E-02   3.4235E-04  0.0512
   9.3528E-02   9.5804E-02   3.3045E-04  0.0514
   9.5804E-02   9.8134E-02   3.1797E-04  0.0517
   9.8134E-02   1.0052E-01   3.2827E-04  0.0503
   1.0052E-01   1.0297E-01   3.2558E-04  0.0500
   1.0297E-01   1.0547E-01   3.2483E-04  0.0494
   1.0547E-01   1.0804E-01   3.0988E-04  0.0500
   1.0804E-01   1.1067E-01   2.8390E-04  0.0517
   1.1067E-01   1.1336E-01   2.9261E-04  0.0502
   1.1336E-01   1.1612E-01   3.1917E-04  0.0475
   1.1612E-01   1.1894E-01   2.4399E-04  0.0536
   1.1894E-01   1.2184E-01   2.4823E-04  0.0526
   1.2184E-01   1.2480E-01   3.0233E-04  0.0472
   1.2480E-01   1.2784E-01   2.3217E-04  0.0531
   1.2784E-01   1.3095E-01   2.5229E-04  0.0503
   1.3095E-01   1.3414E-01   2.4371E-04  0.0506
   1.3414E-01   1.3740E-01   2.4839E-04  0.0495
   1.3740E-01   1.4074E-01   2.2318E-04  0.0515
   1.4074E-01   1.4417E-01   2.4477E-04  0.0487
   1.4417E-01   1.4767E-01   2.2278E-04  0.0504
   1.4767E-01   1.5127E-01   2.1397E-04  0.0508
   1.5127E-01   1.5495E-01   2.0724E-04  0.0510
   1.5495E-01   1.5872E-01   1.8143E-04  0.0539
   1.5872E-01   1.6258E-01   1.9331E-04  0.0516
   1.6258E-01   1.6654E-01   1.9803E-04  0.0505
   1.6654E-01   1.7059E-01   2.0152E-04  0.0492
   1.7059E-01   1.7474E-01   1.8138E-04  0.0513
   1.7474E-01   1.7899E-01   1.6904E-04  0.0525
   1.7899E-01   1.8334E-01   1.8439E-04  0.0498
   1.8334E-01   1.8781E-01   1.6543E-04  0.0519
   1.8781E-01   1.9237E-01   1.8670E-04  0.0483
   1.9237E-01   1.9706E-01   1.6356E-04  0.0508
   1.9706E-01   2.0185E-01   1.7116E-04  0.0493
   2.0185E-01   2.0676E-01   1.8261E-04  0.0471
   2.0676E-01   2.1179E-01   1.8597E-04  0.0461
   2.1179E-01   2.1694E-01   1.8508E-04  0.0456
   2.1694E-01   2.2222E-01   1.8876E-04  0.0447
   2.2222E-01   2.2763E-01   2.0392E-04  0.0424
   2.2763E-01   2.3317E-01   2.0170E-04  0.0422
   2.3317E-01   2.3884E-01   2.1644E-04  0.0403
   2.3884E-01   2.4465E-01   2.2398E-04  0.0391
   2.4465E-01   2.5061E-01   2.4489E-04  0.0369
   2.5061E-01   2.5670E-01   2.2968E-04  0.0376
   2.5670E-01   2.6295E-01   2.2662E-04  0.0374
   2.6295E-01   2.6935E-01   2.4167E-04  0.0358
   2.6935E-01   2.7590E-01   2.5512E-04  0.0345
   2.7590E-01   2.8261E-01   2.5911E-04  0.0338
   2.8261E-01   2.8949E-01   2.7335E-04  0.0325
   2.8949E-01   2.9653E-01   2.7021E-04  0.0323
   2.9653E-01   3.0375E-01   3.0829E-04  0.0299
   3.0375E-01   3.1114E-01   2.8458E-04  0.0307
   3.1114E-01   3.1871E-01   3.0384E-04  0.0294
   3.1871E-01   3.2646E-01   3.1330E-04  0.0286
   3.2646E-01   3.3441E-01   3.0475E-04  0.0286
   3.3441E-01   3.4254E-01   3.1516E-04  0.0278
   3.4254E-01   3.5088E-01   3.1701E-04  0.0274
   3.5088E-01   3.5941E-01   3.3671E-04  0.0263
   3.5941E-01   3.6816E-01   3.4788E-04  0.0255
   3.6816E-01   3.7712E-01   3.3510E-04  0.0257
   3.7712E-01   3.8629E-01   3.4849E-04  0.0249
   3.8629E-01   3.9569E-01   3.7085E-04  0.0239
   3.9569E-01   4.0532E-01   3.6810E-04  0.0237
   4.0532E-01   4.1518E-01   3.6978E-04  0.0233
   4.1518E-01   4.2528E-01   3.7345E-04  0.0229
   4.2528E-01   4.3563E-01   3.9050E-04  0.0222
   4.3563E-01   4.4623E-01   4.0368E-04  0.0215
   4.4623E-01   4.5708E-01   3.9558E-04  0.0215
   4.5708E-01   4.6821E-01   4.0372E-04  0.0210
   4.6821E-01   4.7960E-01   4.0896E-04  0.0206
   4.7960E-01   4.9127E-01   4.1487E-04  0.0202
   4.9127E-01   5.0322E-01   4.1810E-04  0.0199
   5.0322E-01   5.1546E-01   4.2473E-04  0.0195
   5.1546E-01   5.2800E-01   4.1074E-04  0.0196
   5.2800E-01   5.4085E-01   4.2758E-04  0.0190
   5.4085E-01   5.5401E-01   4.2591E-04  0.0188
   5.5401E-01   5.6749E-01   4.3987E-04  0.0183
   5.6749E-01   5.8130E-01   4.3383E-04  0.0182
   5.8130E-01   5.9544E-01   4.2747E-04  0.0181
   5.9544E-01   6.0993E-01   4.3352E-04  0.0178
   6.0993E-01   6.2477E-01   4.2339E-04  0.0177
   6.2477E-01   6.3997E-01   4.3629E-04  0.0173
   6.3997E-01   6.5554E-01   4.4009E-04  0.0170
   6.5554E-01   6.7149E-01   4.3928E-04  0.0168
   6.7149E-01   6.8783E-01   4.4577E-04  0.0165
   6.8783E-01   7.0456E-01   4.4147E-04  0.0164
   7.0456E-01   7.2171E-01   4.2808E-04  0.0164
   7.2171E-01   7.3927E-01   4.4101E-04  0.0160
   7.3927E-01   7.5725E-01   4.4166E-04  0.0158
   7.5725E-01   7.7568E-01   4.3333E-04  0.0157
   7.7568E-01   7.9455E-01   4.3301E-04  0.0155
   7.9455E-01   8.1388E-01   4.4403E-04  0.0152
   8.1388E-01   8.3368E-01   4.2524E-04  0.0153
   8.3368E-01   8.5397E-01   4.2932E-04  0.0151
   8.5397E-01   8.7475E-01   4.3632E-04  0.0148
   8.7475E-01   8.9603E-01   4.3422E-04  0.0146
   8.9603E-01   9.1783E-01   4.4238E-04  0.0143
   9.1783E-01   9.4016E-01   4.3631E-04  0.0142
   9.4016E-01   9.6304E-01   4.1797E-04  0.0144
   9.6304E-01   9.8647E-01   4.3414E-04  0.0139
   9.8647E-01   1.0105E+00   4.3582E-04  0.0137
   1.0105E+00   1.0351E+00   4.1518E-04  0.0139
   1.0351E+00   1.0602E+00   4.1361E-04  0.0138
   1.0602E+00   1.0860E+00   4.2502E-04  0.0134
   1.0860E+00   1.1125E+00   4.1714E-04  0.0134
   1.1125E+00   1.1395E+00   4.1358E-04  0.0133
   1.1395E+00   1.1673E+00   4.0875E-04  0.0132
   1.1673E+00   1.1957E+00   4.0161E-04  0.0132
   1.1957E+00   1.2247E+00   4.0824E-04  0.0129
   1.2247E+00   1.2545E+00   4.0702E-04  0.0128
   1.2545E+00   1.2851E+00   3.9572E-04  0.0128
   1.2851E+00   1.3163E+00   4.0114E-04  0.0125
   1.3163E+00   1.3484E+00   4.0026E-04  0.0124
   1.3484E+00   1.3812E+00   3.7974E-04  0.0126
   1.3812E+00   1.4148E+00   3.8785E-04  0.0123
   1.4148E+00   1.4492E+00   3.8710E-04  0.0122
   1.4492E+00   1.4845E+00   3.7528E-04  0.0122
   1.4845E+00   1.5206E+00   3.7324E-04  0.0121
   1.5206E+00   1.5576E+00   3.7443E-04  0.0119
   1.5576E+00   1.5955E+00   3.6628E-04  0.0119
   1.5955E+00   1.6343E+00   3.6949E-04  0.0117
   1.6343E+00   1.6741E+00   3.5635E-04  0.0118
   1.6741E+00   1.7148E+00   3.5238E-04  0.0117
   1.7148E+00   1.7565E+00   3.5294E-04  0.0116
   1.7565E+00   1.7992E+00   3.4320E-04  0.0116
   1.7992E+00   1.8430E+00   3.4730E-04  0.0114
   1.8430E+00   1.8879E+00   3.3681E-04  0.0114
   1.8879E+00   1.9338E+00   3.3183E-04  0.0114
   1.9338E+00   1.9808E+00   3.2464E-04  0.0114
   1.9808E+00   2.0290E+00   3.2635E-04  0.0112
   2.0290E+00   2.0784E+00   3.2167E-04  0.0111
   2.0784E+00   2.1290E+00   3.2056E-04  0.0110
   2.1290E+00   2.1808E+00   3.0864E-04  0.0111
   2.1808E+00   2.2338E+00   3.1214E-04  0.0109
   2.2338E+00   2.2882E+00   3.0754E-04  0.0109
   2.2882E+00   2.3439E+00   3.0069E-04  0.0108
   2.3439E+00   2.4009E+00   2.9856E-04  0.0108
   2.4009E+00   2.4593E+00   2.9141E-04  0.0108
   2.4593E+00   2.5191E+00   2.9081E-04  0.0106
   2.5191E+00   2.5804E+00   2.8938E-04  0.0105
   2.5804E+00   2.6432E+00   2.8777E-04  0.0104
   2.6432E+00   2.7075E+00   2.8307E-04  0.0104
   2.7075E+00   2.7734E+00   2.8092E-04  0.0103
   2.7734E+00   2.8409E+00   2.7434E-04  0.0103
   2.8409E+00   2.9100E+00   2.6804E-04  0.0103
   2.9100E+00   2.9808E+00   2.7177E-04  0.0101
   2.9808E+00   3.0533E+00   2.7118E-04  0.0100
   3.0533E+00   3.1276E+00   2.6313E-04  0.0101
   3.1276E+00   3.2037E+00   2.6308E-04  0.0099
   3.2037E+00   3.2817E+00   2.5962E-04  0.0099
   3.2817E+00   3.3615E+00   2.5538E-04  0.0098
   3.3615E+00   3.4433E+00   2.4439E-04  0.0099
   3.4433E+00   3.5271E+00   2.4434E-04  0.0098
   3.5271E+00   3.6129E+00   2.3530E-04  0.0099
   3.6129E+00   3.7008E+00   2.2756E-04  0.0099
   3.7008E+00   3.7908E+00   2.1688E-04  0.0101
   3.7908E+00   3.8831E+00   2.0666E-04  0.0102
   3.8831E+00   3.9776E+00   1.9937E-04  0.0102
   3.9776E+00   4.0743E+00   1.8855E-04  0.0104
   4.0743E+00   4.1735E+00   1.7977E-04  0.0105
   4.1735E+00   4.2750E+00   1.7697E-04  0.0105
   4.2750E+00   4.3790E+00   1.6576E-04  0.0107
   4.3790E+00   4.4856E+00   1.6103E-04  0.0107
   4.4856E+00   4.5947E+00   1.5588E-04  0.0108
   4.5947E+00   4.7065E+00   1.4422E-04  0.0111
   4.7065E+00   4.8210E+00   1.3917E-04  0.0111
   4.8210E+00   4.9383E+00   1.3518E-04  0.0112
   4.9383E+00   5.0585E+00   1.2845E-04  0.0113
   5.0585E+00   5.1815E+00   1.2183E-04  0.0115
   5.1815E+00   5.3076E+00   1.2311E-04  0.0113
   5.3076E+00   5.4368E+00   1.1980E-04  0.0113
   5.4368E+00   5.5690E+00   1.1651E-04  0.0113
   5.5690E+00   5.7045E+00   1.1517E-04  0.0113
   5.7045E+00   5.8433E+00   1.1110E-04  0.0113
   5.8433E+00   5.9855E+00   1.0531E-04  0.0115
   5.9855E+00   6.1311E+00   1.0725E-04  0.0113
   6.1311E+00   6.2803E+00   1.0449E-04  0.0113
   6.2803E+00   6.4331E+00   9.9968E-05  0.0114
   6.4331E+00   6.5896E+00   9.6838E-05  0.0115
   6.5896E+00   6.7500E+00   9.5857E-05  0.0114
   6.7500E+00   6.9142E+00   9.1515E-05  0.0115
   6.9142E+00   7.0824E+00   9.0034E-05  0.0115
   7.0824E+00   7.2548E+00   8.6129E-05  0.0116
   7.2548E+00   7.4313E+00   8.2863E-05  0.0117
   7.4313E+00   7.6121E+00   8.1706E-05  0.0116
   7.6121E+00   7.7973E+00   7.9453E-05  0.0116
   7.7973E+00   7.9870E+00   7.7509E-05  0.0116
   7.9870E+00   8.1813E+00   7.4351E-05  0.0117
   8.1813E+00   8.3804E+00   7.5217E-05  0.0115
   8.3804E+00   8.5843E+00   7.1407E-05  0.0117
   8.5843E+00   8.7931E+00   6.7950E-05  0.0118
   8.7931E+00   9.0071E+00   6.6539E-05  0.0118
   9.0071E+00   9.2262E+00   6.3808E-05  0.0119
   9.2262E+00   9.4507E+00   6.2013E-05  0.0120
   9.4507E+00   9.6807E+00   5.8812E-05  0.0121
   9.6807E+00   9.9162E+00   5.6711E-05  0.0122
   9.9162E+00   1.0157E+01   5.5102E-05  0.0122
   1.0157E+01   1.0405E+01   5.6173E-05  0.0120
   1.0405E+01   1.0658E+01   5.6188E-05  0.0118
   1.0658E+01   1.0917E+01   5.5438E-05  0.0118
   1.0917E+01   1.1183E+01   5.5410E-05  0.0116
   1.1183E+01   1.1455E+01   5.3634E-05  0.0117
   1.1455E+01   1.1733E+01   5.1329E-05  0.0118
   1.1733E+01   1.2019E+01   4.8482E-05  0.0120
   1.2019E+01   1.2311E+01   4.5473E-05  0.0123
   1.2311E+01   1.2611E+01   4.3541E-05  0.0124
   1.2611E+01   1.2918E+01   4.1455E-05  0.0125
   1.2918E+01   1.3232E+01   3.9329E-05  0.0127
   1.3232E+01   1.3554E+01   3.8615E-05  0.0127
   1.3554E+01   1.3884E+01   3.7656E-05  0.0127
   1.3884E+01   1.4222E+01   3.5427E-05  0.0129
   1.4222E+01   1.4568E+01   3.3325E-05  0.0132
   1.4568E+01   1.4922E+01   3.1480E-05  0.0134
   1.4922E+01   1.5285E+01   3.0304E-05  0.0135
   1.5285E+01   1.5657E+01   2.8155E-05  0.0138
   1.5657E+01   1.6038E+01   2.7572E-05  0.0138
   1.6038E+01   1.6428E+01   2.5868E-05  0.0141
   1.6428E+01   1.6828E+01   2.4240E-05  0.0144
   1.6828E+01   1.7237E+01   2.2606E-05  0.0147
   1.7237E+01   1.7657E+01   2.2203E-05  0.0147
   1.7657E+01   1.8086E+01   2.1343E-05  0.0148
   1.8086E+01   1.8526E+01   2.0721E-05  0.0148
   1.8526E+01   1.8977E+01   2.0302E-05  0.0148
   1.8977E+01   1.9439E+01   1.9141E-05  0.0150
   1.9439E+01   1.9912E+01   1.8104E-05  0.0153
   1.9912E+01   2.0396E+01   1.7153E-05  0.0155
   2.0396E+01   2.0893E+01   1.6423E-05  0.0157
   2.0893E+01   2.1401E+01   1.5537E-05  0.0159
   2.1401E+01   2.1922E+01   1.4012E-05  0.0166
   2.1922E+01   2.2455E+01   1.2944E-05  0.0170
   2.2455E+01   2.3001E+01   1.2044E-05  0.0174
   2.3001E+01   2.3561E+01   1.1300E-05  0.0178
   2.3561E+01   2.4134E+01   1.0023E-05  0.0187
   2.4134E+01   2.4721E+01   8.9100E-06  0.0196
   2.4721E+01   2.5323E+01   7.9934E-06  0.0204
   2.5323E+01   2.5939E+01   7.0245E-06  0.0215
   2.5939E+01   2.6570E+01   5.5742E-06  0.0238
   2.6570E+01   2.7217E+01   5.0922E-06  0.0246
   2.7217E+01   2.7879E+01   4.1468E-06  0.0270
   2.7879E+01   2.8557E+01   3.2138E-06  0.0303
   2.8557E+01   2.9252E+01   2.6280E-06  0.0331
   2.9252E+01   2.9964E+01   1.8884E-06  0.0386
   2.9964E+01   3.0693E+01   1.3086E-06  0.0458
   3.0693E+01   3.1440E+01   8.4362E-07  0.0563
   3.1440E+01   3.2205E+01   4.5232E-07  0.0760
   3.2205E+01   3.2988E+01   3.1650E-07  0.0898
   3.2988E+01   3.3791E+01   1.4203E-07  0.1325
   3.3791E+01   3.4613E+01   3.6489E-08  0.2582
   3.4613E+01   3.5455E+01   4.7497E-09  0.7071
   3.5455E+01   3.6318E+01   1.1592E-08  0.4472
   3.6318E+01   3.7201E+01   0.0000E+00  0.0000
   3.7201E+01   3.8106E+01   4.4192E-09  0.7071
   3.8106E+01   3.9034E+01   0.0000E+00  0.0000
   3.9034E+01   3.9983E+01   0.0000E+00  0.0000
   3.9983E+01   4.0956E+01   0.0000E+00  0.0000
   4.0956E+01   4.1953E+01   0.0000E+00  0.0000
   4.1953E+01   4.2973E+01   0.0000E+00  0.0000
   4.2973E+01   4.4019E+01   0.0000E+00  0.0000
   4.4019E+01   4.5090E+01   0.0000E+00  0.0000
   4.5090E+01   4.6187E+01   0.0000E+00  0.0000
   4.6187E+01   4.7311E+01   0.0000E+00  0.0000
   4.7311E+01   4.8462E+01   0.0000E+00  0.0000
   4.8462E+01   4.9641E+01   0.0000E+00  0.0000
   4.9641E+01   5.0849E+01   0.0000E+00  0.0000
   5.0849E+01   5.2086E+01   0.0000E+00  0.0000
   5.2086E+01   5.3353E+01   0.0000E+00  0.0000
   5.3353E+01   5.4651E+01   0.0000E+00  0.0000
   5.4651E+01   5.5981E+01   0.0000E+00  0.0000
   5.5981E+01   5.7343E+01   0.0000E+00  0.0000
   5.7343E+01   5.8738E+01   0.0000E+00  0.0000
   5.8738E+01   6.0168E+01   0.0000E+00  0.0000
   6.0168E+01   6.1632E+01   0.0000E+00  0.0000
   6.1632E+01   6.3131E+01   0.0000E+00  0.0000
   6.3131E+01   6.4667E+01   0.0000E+00  0.0000
   6.4667E+01   6.6240E+01   0.0000E+00  0.0000
   6.6240E+01   6.7852E+01   0.0000E+00  0.0000
   6.7852E+01   6.9503E+01   0.0000E+00  0.0000
   6.9503E+01   7.1194E+01   0.0000E+00  0.0000
   7.1194E+01   7.2926E+01   0.0000E+00  0.0000
   7.2926E+01   7.4701E+01   0.0000E+00  0.0000
   7.4701E+01   7.6518E+01   0.0000E+00  0.0000
   7.6518E+01   7.8380E+01   0.0000E+00  0.0000
   7.8380E+01   8.0287E+01   0.0000E+00  0.0000
   8.0287E+01   8.2240E+01   0.0000E+00  0.0000
   8.2240E+01   8.4241E+01   0.0000E+00  0.0000
   8.4241E+01   8.6291E+01   0.0000E+00  0.0000
   8.6291E+01   8.8391E+01   0.0000E+00  0.0000
   8.8391E+01   9.0541E+01   0.0000E+00  0.0000
   9.0541E+01   9.2744E+01   0.0000E+00  0.0000
   9.2744E+01   9.5001E+01   0.0000E+00  0.0000
   9.5001E+01   9.7312E+01   0.0000E+00  0.0000
   9.7312E+01   9.9680E+01   0.0000E+00  0.0000
   9.9680E+01   1.0211E+02   0.0000E+00  0.0000
   1.0211E+02   1.0459E+02   0.0000E+00  0.0000
   1.0459E+02   1.0713E+02   0.0000E+00  0.0000
   1.0713E+02   1.0974E+02   0.0000E+00  0.0000
   1.0974E+02   1.1241E+02   0.0000E+00  0.0000
   1.1241E+02   1.1515E+02   0.0000E+00  0.0000
   1.1515E+02   1.1795E+02   0.0000E+00  0.0000
   1.1795E+02   1.2082E+02   0.0000E+00  0.0000
   1.2082E+02   1.2376E+02   0.0000E+00  0.0000
   1.2376E+02   1.2677E+02   0.0000E+00  0.0000
   1.2677E+02   1.2985E+02   0.0000E+00  0.0000
   1.2985E+02   1.3301E+02   0.0000E+00  0.0000
   1.3301E+02   1.3625E+02   0.0000E+00  0.0000
   1.3625E+02   1.3956E+02   0.0000E+00  0.0000
   1.3956E+02   1.4296E+02   0.0000E+00  0.0000
   1.4296E+02   1.4644E+02   0.0000E+00  0.0000
   1.4644E+02   1.5000E+02   0.0000E+00  0.0000

#   sum over                 1.5440E-05
'no. =    1   reg = 116 - 216'
msuc: {\huge [t-cross] in region mesh}
msdr: {\it plotted by \ANGEL \version}
msdl: {\it calculated by \PHITS  3.26}
wt: s(0.7)
\vspace{-3}
  region surface crossing
  area  &=&   1.0000E+00 [cm^2]
e:
 
# Information for Restart Calculation
# This calculation was newly started
# istdev =  2 # 1:Batch variance, 2:History variance
# resc2  = 5.00000000000000000E+08 # Total source weight or Total source weight / maxcas
# resc3  = 5.00000000000000000E+08 # Total history number or Total batch number
# maxcas =   500000000 # History / Batch, only used for istdev=1
# bitrseed = 1011101111111101000111101101010011111001010110111001011111010111 # bit data of rseed
