[ T-Cross ]
    title = [t-cross] in region mesh
     mesh =  reg            # mesh type is region-wise
      reg =    1            # number of crossing regions
      non     r-from    r-to       area
      1       120       220        1.000000    
   e-type =    3            # e-mesh is log given by emin, emax and ne
     emin =  1.0000000E-02  # minimum value of e-mesh points
     emax =   150.0000      # maximum value of e-mesh points
#    edel =  2.4039514E-02  # mesh width of e-mesh points
       ne =    400          # number of e-mesh points
#    data = ( e(i), i = 1, ne + 1 )
#           1.00000E-02  1.02433E-02  1.04925E-02  1.07478E-02  1.10093E-02
#           1.12772E-02  1.15516E-02  1.18326E-02  1.21205E-02  1.24154E-02
#           1.27175E-02  1.30269E-02  1.33439E-02  1.36686E-02  1.40011E-02
#           1.43418E-02  1.46907E-02  1.50482E-02  1.54143E-02  1.57894E-02
#           1.61735E-02  1.65670E-02  1.69701E-02  1.73830E-02  1.78060E-02
#           1.82392E-02  1.86830E-02  1.91375E-02  1.96032E-02  2.00801E-02
#           2.05687E-02  2.10692E-02  2.15818E-02  2.21069E-02  2.26448E-02
#           2.31957E-02  2.37601E-02  2.43382E-02  2.49304E-02  2.55369E-02
#           2.61583E-02  2.67947E-02  2.74467E-02  2.81145E-02  2.87985E-02
#           2.94992E-02  3.02169E-02  3.09521E-02  3.17052E-02  3.24766E-02
#           3.32668E-02  3.40762E-02  3.49053E-02  3.57546E-02  3.66246E-02
#           3.75157E-02  3.84284E-02  3.93634E-02  4.03212E-02  4.13022E-02
#           4.23071E-02  4.33365E-02  4.43909E-02  4.54710E-02  4.65773E-02
#           4.77106E-02  4.88714E-02  5.00605E-02  5.12785E-02  5.25262E-02
#           5.38042E-02  5.51133E-02  5.64542E-02  5.78278E-02  5.92348E-02
#           6.06760E-02  6.21523E-02  6.36645E-02  6.52135E-02  6.68002E-02
#           6.84255E-02  7.00904E-02  7.17957E-02  7.35426E-02  7.53319E-02
#           7.71648E-02  7.90423E-02  8.09655E-02  8.29354E-02  8.49533E-02
#           8.70203E-02  8.91376E-02  9.13064E-02  9.35279E-02  9.58035E-02
#           9.81345E-02  1.00522E-01  1.02968E-01  1.05473E-01  1.08040E-01
#           1.10668E-01  1.13361E-01  1.16119E-01  1.18944E-01  1.21838E-01
#           1.24803E-01  1.27839E-01  1.30950E-01  1.34136E-01  1.37399E-01
#           1.40742E-01  1.44167E-01  1.47675E-01  1.51268E-01  1.54948E-01
#           1.58718E-01  1.62580E-01  1.66535E-01  1.70587E-01  1.74738E-01
#           1.78989E-01  1.83344E-01  1.87805E-01  1.92375E-01  1.97055E-01
#           2.01850E-01  2.06761E-01  2.11792E-01  2.16945E-01  2.22223E-01
#           2.27630E-01  2.33169E-01  2.38842E-01  2.44653E-01  2.50605E-01
#           2.56703E-01  2.62949E-01  2.69346E-01  2.75900E-01  2.82613E-01
#           2.89489E-01  2.96532E-01  3.03747E-01  3.11138E-01  3.18708E-01
#           3.26462E-01  3.34405E-01  3.42542E-01  3.50876E-01  3.59413E-01
#           3.68158E-01  3.77116E-01  3.86291E-01  3.95690E-01  4.05317E-01
#           4.15179E-01  4.25281E-01  4.35628E-01  4.46227E-01  4.57084E-01
#           4.68205E-01  4.79597E-01  4.91266E-01  5.03219E-01  5.15463E-01
#           5.28005E-01  5.40851E-01  5.54011E-01  5.67490E-01  5.81298E-01
#           5.95441E-01  6.09929E-01  6.24769E-01  6.39970E-01  6.55541E-01
#           6.71491E-01  6.87828E-01  7.04564E-01  7.21706E-01  7.39266E-01
#           7.57253E-01  7.75678E-01  7.94551E-01  8.13883E-01  8.33685E-01
#           8.53969E-01  8.74747E-01  8.96030E-01  9.17831E-01  9.40163E-01
#           9.63038E-01  9.86469E-01  1.01047E+00  1.03506E+00  1.06024E+00
#           1.08604E+00  1.11246E+00  1.13953E+00  1.16725E+00  1.19565E+00
#           1.22474E+00  1.25454E+00  1.28507E+00  1.31633E+00  1.34836E+00
#           1.38117E+00  1.41477E+00  1.44920E+00  1.48446E+00  1.52057E+00
#           1.55757E+00  1.59547E+00  1.63429E+00  1.67405E+00  1.71478E+00
#           1.75650E+00  1.79924E+00  1.84302E+00  1.88786E+00  1.93379E+00
#           1.98084E+00  2.02904E+00  2.07841E+00  2.12898E+00  2.18078E+00
#           2.23384E+00  2.28819E+00  2.34386E+00  2.40089E+00  2.45930E+00
#           2.51914E+00  2.58043E+00  2.64322E+00  2.70753E+00  2.77341E+00
#           2.84088E+00  2.91001E+00  2.98081E+00  3.05333E+00  3.12762E+00
#           3.20372E+00  3.28167E+00  3.36152E+00  3.44330E+00  3.52708E+00
#           3.61290E+00  3.70080E+00  3.79085E+00  3.88308E+00  3.97756E+00
#           4.07434E+00  4.17347E+00  4.27501E+00  4.37903E+00  4.48557E+00
#           4.59471E+00  4.70650E+00  4.82102E+00  4.93832E+00  5.05847E+00
#           5.18155E+00  5.30762E+00  5.43676E+00  5.56904E+00  5.70453E+00
#           5.84333E+00  5.98550E+00  6.13114E+00  6.28031E+00  6.43312E+00
#           6.58964E+00  6.74997E+00  6.91420E+00  7.08243E+00  7.25475E+00
#           7.43126E+00  7.61207E+00  7.79728E+00  7.98700E+00  8.18133E+00
#           8.38038E+00  8.58428E+00  8.79315E+00  9.00709E+00  9.22624E+00
#           9.45072E+00  9.68067E+00  9.91620E+00  1.01575E+01  1.04046E+01
#           1.06578E+01  1.09171E+01  1.11827E+01  1.14548E+01  1.17335E+01
#           1.20190E+01  1.23114E+01  1.26109E+01  1.29178E+01  1.32321E+01
#           1.35540E+01  1.38838E+01  1.42216E+01  1.45676E+01  1.49221E+01
#           1.52851E+01  1.56570E+01  1.60380E+01  1.64282E+01  1.68279E+01
#           1.72374E+01  1.76568E+01  1.80864E+01  1.85264E+01  1.89772E+01
#           1.94389E+01  1.99119E+01  2.03963E+01  2.08926E+01  2.14009E+01
#           2.19216E+01  2.24550E+01  2.30014E+01  2.35610E+01  2.41343E+01
#           2.47215E+01  2.53230E+01  2.59391E+01  2.65702E+01  2.72167E+01
#           2.78789E+01  2.85572E+01  2.92520E+01  2.99637E+01  3.06928E+01
#           3.14396E+01  3.22045E+01  3.29881E+01  3.37907E+01  3.46128E+01
#           3.54550E+01  3.63177E+01  3.72013E+01  3.81064E+01  3.90336E+01
#           3.99833E+01  4.09561E+01  4.19526E+01  4.29734E+01  4.40189E+01
#           4.50900E+01  4.61870E+01  4.73108E+01  4.84619E+01  4.96410E+01
#           5.08488E+01  5.20860E+01  5.33533E+01  5.46514E+01  5.59812E+01
#           5.73432E+01  5.87384E+01  6.01676E+01  6.16315E+01  6.31311E+01
#           6.46671E+01  6.62405E+01  6.78522E+01  6.95031E+01  7.11941E+01
#           7.29263E+01  7.47007E+01  7.65182E+01  7.83800E+01  8.02870E+01
#           8.22405E+01  8.42414E+01  8.62911E+01  8.83906E+01  9.05412E+01
#           9.27442E+01  9.50007E+01  9.73122E+01  9.96799E+01  1.02105E+02
#           1.04589E+02  1.07134E+02  1.09741E+02  1.12411E+02  1.15146E+02
#           1.17948E+02  1.20817E+02  1.23757E+02  1.26768E+02  1.29852E+02
#           1.33012E+02  1.36248E+02  1.39563E+02  1.42959E+02  1.46437E+02
#           1.50000E+02
     unit =    2            # unit is [1/cm^2/(MeV/n)/source]
     axis =  eng            # axis of output
     file = detector-21.out  # file name of output for the above axis
   output = f-curr          # surface crossing forward current spectrum
     part =  neutron  
# kf/name :  2112     
#    used :        main (  %)        temp (  %)       total (  %)
#  memory :         414 (  0)           0 (  0)         414 (  0)

#------------------------------------------------------------------------------
#newpage:
#   no. =    1   reg = 120 - 220

x: Energy [MeV/n]
y:  F-Curr [1/cm^2/(MeV/n)/source]         
p: xlog ylog afac(0.8) form(0.9)
h: n            x            y(neutron ),hh0l   n 
#  e-lower      e-upper      neutron     r.err 
   1.0000E-02   1.0243E-02   0.0000E+00  0.0000
   1.0243E-02   1.0493E-02   8.0248E-07  1.0000
   1.0493E-02   1.0748E-02   0.0000E+00  0.0000
   1.0748E-02   1.1009E-02   0.0000E+00  0.0000
   1.1009E-02   1.1277E-02   1.4933E-06  0.7071
   1.1277E-02   1.1552E-02   0.0000E+00  0.0000
   1.1552E-02   1.1833E-02   0.0000E+00  0.0000
   1.1833E-02   1.2121E-02   0.0000E+00  0.0000
   1.2121E-02   1.2415E-02   0.0000E+00  0.0000
   1.2415E-02   1.2718E-02   0.0000E+00  0.0000
   1.2718E-02   1.3027E-02   6.4636E-07  1.0000
   1.3027E-02   1.3344E-02   6.3100E-07  1.0000
   1.3344E-02   1.3669E-02   0.0000E+00  0.0000
   1.3669E-02   1.4001E-02   6.0138E-07  1.0000
   1.4001E-02   1.4342E-02   0.0000E+00  0.0000
   1.4342E-02   1.4691E-02   0.0000E+00  0.0000
   1.4691E-02   1.5048E-02   0.0000E+00  0.0000
   1.5048E-02   1.5414E-02   0.0000E+00  0.0000
   1.5414E-02   1.5789E-02   0.0000E+00  0.0000
   1.5789E-02   1.6174E-02   1.1485E-06  0.6478
   1.6174E-02   1.6567E-02   6.3190E-07  0.8278
   1.6567E-02   1.6970E-02   0.0000E+00  0.0000
   1.6970E-02   1.7383E-02   1.5504E-06  0.5448
   1.7383E-02   1.7806E-02   1.8915E-06  0.5000
   1.7806E-02   1.8239E-02   4.6165E-07  1.0000
   1.8239E-02   1.8683E-02   4.5068E-07  1.0000
   1.8683E-02   1.9138E-02   4.3997E-07  1.0000
   1.9138E-02   1.9603E-02   4.2952E-07  1.0000
   1.9603E-02   2.0080E-02   2.6482E-06  0.3911
   2.0080E-02   2.0569E-02   1.2281E-06  0.5774
   2.0569E-02   2.1069E-02   8.9435E-07  0.6408
   2.1069E-02   2.1582E-02   1.5606E-06  0.5000
   2.1582E-02   2.2107E-02   1.1426E-06  0.5774
   2.2107E-02   2.2645E-02   1.1155E-06  0.5774
   2.2645E-02   2.3196E-02   1.0890E-06  0.5774
   2.3196E-02   2.3760E-02   8.2599E-07  0.6231
   2.3760E-02   2.4338E-02   2.7677E-06  0.3536
   2.4338E-02   2.4930E-02   1.8517E-06  0.4165
   2.4930E-02   2.5537E-02   1.3189E-06  0.5000
   2.5537E-02   2.6158E-02   2.2532E-06  0.3780
   2.6158E-02   2.6795E-02   9.4273E-07  0.5774
   2.6795E-02   2.7447E-02   2.3055E-06  0.3556
   2.7447E-02   2.8114E-02   2.5093E-06  0.3406
   2.8114E-02   2.8799E-02   2.9238E-06  0.3162
   2.8799E-02   2.9499E-02   2.1605E-06  0.3546
   2.9499E-02   3.0217E-02   2.0143E-06  0.3674
   3.0217E-02   3.0952E-02   2.9924E-06  0.3015
   3.0952E-02   3.1705E-02   2.4506E-06  0.3260
   3.1705E-02   3.2477E-02   2.3334E-06  0.3333
   3.2477E-02   3.3267E-02   2.4199E-06  0.3169
   3.3267E-02   3.4076E-02   2.7609E-06  0.2959
   3.4076E-02   3.4905E-02   1.6886E-06  0.3780
   3.4905E-02   3.5755E-02   3.2460E-06  0.2677
   3.5755E-02   3.6625E-02   1.7036E-06  0.3593
   3.6625E-02   3.7516E-02   1.7955E-06  0.3536
   3.7516E-02   3.8428E-02   4.2086E-06  0.2272
   3.8428E-02   3.9363E-02   2.7159E-06  0.2761
   3.9363E-02   4.0321E-02   3.0790E-06  0.2566
   4.0321E-02   4.1302E-02   4.1566E-06  0.2202
   4.1302E-02   4.2307E-02   3.6674E-06  0.2266
   4.2307E-02   4.3337E-02   3.8980E-06  0.2189
   4.3337E-02   4.4391E-02   4.0257E-06  0.2162
   4.4391E-02   4.5471E-02   4.2850E-06  0.2041
   4.5471E-02   4.6577E-02   4.5684E-06  0.1957
   4.6577E-02   4.7711E-02   4.4395E-06  0.1989
   4.7711E-02   4.8871E-02   5.3016E-06  0.1782
   4.8871E-02   5.0061E-02   5.6222E-06  0.1705
   5.0061E-02   5.1279E-02   5.4522E-06  0.1718
   5.1279E-02   5.2526E-02   4.6907E-06  0.1835
   5.2526E-02   5.3804E-02   5.6672E-06  0.1657
   5.3804E-02   5.5113E-02   5.5300E-06  0.1624
   5.5113E-02   5.6454E-02   5.8463E-06  0.1565
   5.6454E-02   5.7828E-02   6.2958E-06  0.1505
   5.7828E-02   5.9235E-02   5.8368E-06  0.1536
   5.9235E-02   6.0676E-02   5.6431E-06  0.1545
   6.0676E-02   6.2152E-02   6.7347E-06  0.1411
   6.2152E-02   6.3665E-02   7.1372E-06  0.1344
   6.3665E-02   6.5214E-02   6.2691E-06  0.1419
   6.5214E-02   6.6800E-02   8.8537E-06  0.1180
   6.6800E-02   6.8426E-02   7.8334E-06  0.1237
   6.8426E-02   7.0090E-02   7.2301E-06  0.1258
   7.0090E-02   7.1796E-02   8.3932E-06  0.1168
   7.1796E-02   7.3543E-02   8.2608E-06  0.1159
   7.3543E-02   7.5332E-02   9.1551E-06  0.1087
   7.5332E-02   7.7165E-02   1.0305E-05  0.1010
   7.7165E-02   7.9042E-02   1.0619E-05  0.0990
   7.9042E-02   8.0965E-02   1.2408E-05  0.0906
   8.0965E-02   8.2935E-02   1.0835E-05  0.0955
   8.2935E-02   8.4953E-02   1.1873E-05  0.0903
   8.4953E-02   8.7020E-02   8.9465E-06  0.1022
   8.7020E-02   8.9138E-02   1.2135E-05  0.0871
   8.9138E-02   9.1306E-02   1.2340E-05  0.0852
   9.1306E-02   9.3528E-02   1.3498E-05  0.0806
   9.3528E-02   9.5804E-02   1.5215E-05  0.0751
   9.5804E-02   9.8134E-02   1.3649E-05  0.0781
   9.8134E-02   1.0052E-01   1.4585E-05  0.0749
   1.0052E-01   1.0297E-01   1.4254E-05  0.0746
   1.0297E-01   1.0547E-01   1.5109E-05  0.0718
   1.0547E-01   1.0804E-01   1.6887E-05  0.0670
   1.0804E-01   1.1067E-01   1.5772E-05  0.0687
   1.1067E-01   1.1336E-01   1.8244E-05  0.0631
   1.1336E-01   1.1612E-01   1.8544E-05  0.0616
   1.1612E-01   1.1894E-01   1.8932E-05  0.0602
   1.1894E-01   1.2184E-01   2.0723E-05  0.0569
   1.2184E-01   1.2480E-01   2.1422E-05  0.0555
   1.2480E-01   1.2784E-01   2.3200E-05  0.0527
   1.2784E-01   1.3095E-01   2.2547E-05  0.0527
   1.3095E-01   1.3414E-01   2.3976E-05  0.0504
   1.3414E-01   1.3740E-01   2.5674E-05  0.0483
   1.3740E-01   1.4074E-01   2.6795E-05  0.0467
   1.4074E-01   1.4417E-01   2.5078E-05  0.0477
   1.4417E-01   1.4767E-01   2.9040E-05  0.0438
   1.4767E-01   1.5127E-01   3.0268E-05  0.0423
   1.5127E-01   1.5495E-01   2.9083E-05  0.0426
   1.5495E-01   1.5872E-01   3.3472E-05  0.0394
   1.5872E-01   1.6258E-01   3.0197E-05  0.0408
   1.6258E-01   1.6654E-01   3.0666E-05  0.0401
   1.6654E-01   1.7059E-01   3.6307E-05  0.0364
   1.7059E-01   1.7474E-01   3.4595E-05  0.0368
   1.7474E-01   1.7899E-01   3.5422E-05  0.0360
   1.7899E-01   1.8334E-01   3.7325E-05  0.0347
   1.8334E-01   1.8781E-01   3.7312E-05  0.0342
   1.8781E-01   1.9237E-01   4.2044E-05  0.0319
   1.9237E-01   1.9706E-01   4.3085E-05  0.0311
   1.9706E-01   2.0185E-01   4.0967E-05  0.0315
   2.0185E-01   2.0676E-01   4.5391E-05  0.0296
   2.0676E-01   2.1179E-01   4.6581E-05  0.0288
   2.1179E-01   2.1694E-01   5.0357E-05  0.0274
   2.1694E-01   2.2222E-01   5.0488E-05  0.0270
   2.2222E-01   2.2763E-01   5.5342E-05  0.0256
   2.2763E-01   2.3317E-01   5.3896E-05  0.0256
   2.3317E-01   2.3884E-01   5.3506E-05  0.0254
   2.3884E-01   2.4465E-01   5.5921E-05  0.0245
   2.4465E-01   2.5061E-01   5.8864E-05  0.0236
   2.5061E-01   2.5670E-01   6.0047E-05  0.0231
   2.5670E-01   2.6295E-01   6.2599E-05  0.0224
   2.6295E-01   2.6935E-01   6.4382E-05  0.0218
   2.6935E-01   2.7590E-01   6.7501E-05  0.0210
   2.7590E-01   2.8261E-01   6.7925E-05  0.0207
   2.8261E-01   2.8949E-01   7.0459E-05  0.0201
   2.8949E-01   2.9653E-01   7.1121E-05  0.0198
   2.9653E-01   3.0375E-01   7.2343E-05  0.0194
   3.0375E-01   3.1114E-01   7.9675E-05  0.0183
   3.1114E-01   3.1871E-01   7.8010E-05  0.0182
   3.1871E-01   3.2646E-01   8.1927E-05  0.0176
   3.2646E-01   3.3441E-01   8.2251E-05  0.0173
   3.3441E-01   3.4254E-01   8.5049E-05  0.0168
   3.4254E-01   3.5088E-01   8.8026E-05  0.0164
   3.5088E-01   3.5941E-01   8.7892E-05  0.0162
   3.5941E-01   3.6816E-01   8.8430E-05  0.0159
   3.6816E-01   3.7712E-01   9.3237E-05  0.0153
   3.7712E-01   3.8629E-01   9.4795E-05  0.0150
   3.8629E-01   3.9569E-01   9.5889E-05  0.0148
   3.9569E-01   4.0532E-01   1.0031E-04  0.0143
   4.0532E-01   4.1518E-01   9.7656E-05  0.0143
   4.1518E-01   4.2528E-01   1.0139E-04  0.0139
   4.2528E-01   4.3563E-01   1.0353E-04  0.0136
   4.3563E-01   4.4623E-01   1.0255E-04  0.0135
   4.4623E-01   4.5708E-01   1.0881E-04  0.0129
   4.5708E-01   4.6821E-01   1.0710E-04  0.0129
   4.6821E-01   4.7960E-01   1.0952E-04  0.0126
   4.7960E-01   4.9127E-01   1.1040E-04  0.0124
   4.9127E-01   5.0322E-01   1.1393E-04  0.0120
   5.0322E-01   5.1546E-01   1.1294E-04  0.0119
   5.1546E-01   5.2800E-01   1.1333E-04  0.0118
   5.2800E-01   5.4085E-01   1.1495E-04  0.0115
   5.4085E-01   5.5401E-01   1.1476E-04  0.0114
   5.5401E-01   5.6749E-01   1.1721E-04  0.0112
   5.6749E-01   5.8130E-01   1.1764E-04  0.0110
   5.8130E-01   5.9544E-01   1.1943E-04  0.0108
   5.9544E-01   6.0993E-01   1.2357E-04  0.0105
   6.0993E-01   6.2477E-01   1.2197E-04  0.0104
   6.2477E-01   6.3997E-01   1.2361E-04  0.0102
   6.3997E-01   6.5554E-01   1.2224E-04  0.0102
   6.5554E-01   6.7149E-01   1.2480E-04  0.0099
   6.7149E-01   6.8783E-01   1.2395E-04  0.0099
   6.8783E-01   7.0456E-01   1.2470E-04  0.0097
   7.0456E-01   7.2171E-01   1.2262E-04  0.0097
   7.2171E-01   7.3927E-01   1.2487E-04  0.0095
   7.3927E-01   7.5725E-01   1.2446E-04  0.0094
   7.5725E-01   7.7568E-01   1.2276E-04  0.0093
   7.7568E-01   7.9455E-01   1.2593E-04  0.0091
   7.9455E-01   8.1388E-01   1.2528E-04  0.0090
   8.1388E-01   8.3368E-01   1.2382E-04  0.0089
   8.3368E-01   8.5397E-01   1.2673E-04  0.0087
   8.5397E-01   8.7475E-01   1.2657E-04  0.0086
   8.7475E-01   8.9603E-01   1.2344E-04  0.0086
   8.9603E-01   9.1783E-01   1.2499E-04  0.0085
   9.1783E-01   9.4016E-01   1.2538E-04  0.0083
   9.4016E-01   9.6304E-01   1.2398E-04  0.0083
   9.6304E-01   9.8647E-01   1.2338E-04  0.0082
   9.8647E-01   1.0105E+00   1.2257E-04  0.0081
   1.0105E+00   1.0351E+00   1.2004E-04  0.0081
   1.0351E+00   1.0602E+00   1.1881E-04  0.0081
   1.0602E+00   1.0860E+00   1.1801E-04  0.0080
   1.0860E+00   1.1125E+00   1.1358E-04  0.0081
   1.1125E+00   1.1395E+00   1.1454E-04  0.0079
   1.1395E+00   1.1673E+00   1.1160E-04  0.0079
   1.1673E+00   1.1957E+00   1.1100E-04  0.0078
   1.1957E+00   1.2247E+00   1.0966E-04  0.0078
   1.2247E+00   1.2545E+00   1.0798E-04  0.0078
   1.2545E+00   1.2851E+00   1.0567E-04  0.0078
   1.2851E+00   1.3163E+00   1.0449E-04  0.0077
   1.3163E+00   1.3484E+00   1.0340E-04  0.0077
   1.3484E+00   1.3812E+00   1.0038E-04  0.0077
   1.3812E+00   1.4148E+00   1.0066E-04  0.0076
   1.4148E+00   1.4492E+00   9.9116E-05  0.0075
   1.4492E+00   1.4845E+00   9.7692E-05  0.0075
   1.4845E+00   1.5206E+00   9.5617E-05  0.0075
   1.5206E+00   1.5576E+00   9.4176E-05  0.0075
   1.5576E+00   1.5955E+00   9.2020E-05  0.0074
   1.5955E+00   1.6343E+00   8.9493E-05  0.0075
   1.6343E+00   1.6741E+00   8.8729E-05  0.0074
   1.6741E+00   1.7148E+00   8.7328E-05  0.0074
   1.7148E+00   1.7565E+00   8.5479E-05  0.0074
   1.7565E+00   1.7992E+00   8.3182E-05  0.0074
   1.7992E+00   1.8430E+00   8.2261E-05  0.0073
   1.8430E+00   1.8879E+00   7.9953E-05  0.0073
   1.8879E+00   1.9338E+00   7.8561E-05  0.0073
   1.9338E+00   1.9808E+00   7.7086E-05  0.0073
   1.9808E+00   2.0290E+00   7.5617E-05  0.0073
   2.0290E+00   2.0784E+00   7.4806E-05  0.0072
   2.0784E+00   2.1290E+00   7.2821E-05  0.0072
   2.1290E+00   2.1808E+00   7.0365E-05  0.0072
   2.1808E+00   2.2338E+00   6.8696E-05  0.0072
   2.2338E+00   2.2882E+00   6.6745E-05  0.0072
   2.2882E+00   2.3439E+00   6.5652E-05  0.0072
   2.3439E+00   2.4009E+00   6.3698E-05  0.0072
   2.4009E+00   2.4593E+00   6.2152E-05  0.0072
   2.4593E+00   2.5191E+00   6.0759E-05  0.0072
   2.5191E+00   2.5804E+00   5.7879E-05  0.0073
   2.5804E+00   2.6432E+00   5.5782E-05  0.0073
   2.6432E+00   2.7075E+00   5.4559E-05  0.0073
   2.7075E+00   2.7734E+00   5.2606E-05  0.0074
   2.7734E+00   2.8409E+00   5.0805E-05  0.0074
   2.8409E+00   2.9100E+00   4.9001E-05  0.0074
   2.9100E+00   2.9808E+00   4.8028E-05  0.0074
   2.9808E+00   3.0533E+00   4.5364E-05  0.0075
   3.0533E+00   3.1276E+00   4.3632E-05  0.0076
   3.1276E+00   3.2037E+00   4.1872E-05  0.0077
   3.2037E+00   3.2817E+00   4.1054E-05  0.0077
   3.2817E+00   3.3615E+00   3.8507E-05  0.0078
   3.3615E+00   3.4433E+00   3.7793E-05  0.0078
   3.4433E+00   3.5271E+00   3.6027E-05  0.0079
   3.5271E+00   3.6129E+00   3.4688E-05  0.0079
   3.6129E+00   3.7008E+00   3.3505E-05  0.0080
   3.7008E+00   3.7908E+00   3.2664E-05  0.0080
   3.7908E+00   3.8831E+00   3.1229E-05  0.0080
   3.8831E+00   3.9776E+00   2.9966E-05  0.0081
   3.9776E+00   4.0743E+00   2.8670E-05  0.0082
   4.0743E+00   4.1735E+00   2.7966E-05  0.0082
   4.1735E+00   4.2750E+00   2.6875E-05  0.0082
   4.2750E+00   4.3790E+00   2.6511E-05  0.0082
   4.3790E+00   4.4856E+00   2.5742E-05  0.0082
   4.4856E+00   4.5947E+00   2.4577E-05  0.0083
   4.5947E+00   4.7065E+00   2.4020E-05  0.0084
   4.7065E+00   4.8210E+00   2.3343E-05  0.0084
   4.8210E+00   4.9383E+00   2.2715E-05  0.0084
   4.9383E+00   5.0585E+00   2.2346E-05  0.0084
   5.0585E+00   5.1815E+00   2.1457E-05  0.0084
   5.1815E+00   5.3076E+00   2.1131E-05  0.0084
   5.3076E+00   5.4368E+00   2.0930E-05  0.0083
   5.4368E+00   5.5690E+00   1.9944E-05  0.0084
   5.5690E+00   5.7045E+00   1.9559E-05  0.0084
   5.7045E+00   5.8433E+00   1.8942E-05  0.0085
   5.8433E+00   5.9855E+00   1.8318E-05  0.0085
   5.9855E+00   6.1311E+00   1.8141E-05  0.0085
   6.1311E+00   6.2803E+00   1.7718E-05  0.0085
   6.2803E+00   6.4331E+00   1.7424E-05  0.0084
   6.4331E+00   6.5896E+00   1.6795E-05  0.0085
   6.5896E+00   6.7500E+00   1.6659E-05  0.0085
   6.7500E+00   6.9142E+00   1.6038E-05  0.0085
   6.9142E+00   7.0824E+00   1.5783E-05  0.0085
   7.0824E+00   7.2548E+00   1.4988E-05  0.0086
   7.2548E+00   7.4313E+00   1.4369E-05  0.0087
   7.4313E+00   7.6121E+00   1.4138E-05  0.0087
   7.6121E+00   7.7973E+00   1.3675E-05  0.0087
   7.7973E+00   7.9870E+00   1.3446E-05  0.0087
   7.9870E+00   8.1813E+00   1.3089E-05  0.0087
   8.1813E+00   8.3804E+00   1.2526E-05  0.0088
   8.3804E+00   8.5843E+00   1.2035E-05  0.0089
   8.5843E+00   8.7931E+00   1.1344E-05  0.0090
   8.7931E+00   9.0071E+00   1.0998E-05  0.0091
   9.0071E+00   9.2262E+00   1.0804E-05  0.0090
   9.2262E+00   9.4507E+00   9.9909E-06  0.0093
   9.4507E+00   9.6807E+00   9.7268E-06  0.0093
   9.6807E+00   9.9162E+00   9.2028E-06  0.0095
   9.9162E+00   1.0157E+01   8.8745E-06  0.0095
   1.0157E+01   1.0405E+01   8.5585E-06  0.0096
   1.0405E+01   1.0658E+01   7.9527E-06  0.0098
   1.0658E+01   1.0917E+01   7.5695E-06  0.0099
   1.0917E+01   1.1183E+01   7.3150E-06  0.0100
   1.1183E+01   1.1455E+01   6.9037E-06  0.0102
   1.1455E+01   1.1733E+01   6.6314E-06  0.0103
   1.1733E+01   1.2019E+01   6.1876E-06  0.0105
   1.2019E+01   1.2311E+01   5.7942E-06  0.0107
   1.2311E+01   1.2611E+01   5.5252E-06  0.0109
   1.2611E+01   1.2918E+01   5.1850E-06  0.0111
   1.2918E+01   1.3232E+01   4.8432E-06  0.0113
   1.3232E+01   1.3554E+01   4.4594E-06  0.0117
   1.3554E+01   1.3884E+01   4.1983E-06  0.0119
   1.3884E+01   1.4222E+01   3.7926E-06  0.0124
   1.4222E+01   1.4568E+01   3.5550E-06  0.0126
   1.4568E+01   1.4922E+01   3.2639E-06  0.0130
   1.4922E+01   1.5285E+01   3.0745E-06  0.0133
   1.5285E+01   1.5657E+01   2.8095E-06  0.0137
   1.5657E+01   1.6038E+01   2.6405E-06  0.0140
   1.6038E+01   1.6428E+01   2.4128E-06  0.0145
   1.6428E+01   1.6828E+01   2.1911E-06  0.0150
   1.6828E+01   1.7237E+01   1.9980E-06  0.0156
   1.7237E+01   1.7657E+01   1.8107E-06  0.0162
   1.7657E+01   1.8086E+01   1.6781E-06  0.0166
   1.8086E+01   1.8526E+01   1.5249E-06  0.0172
   1.8526E+01   1.8977E+01   1.4802E-06  0.0173
   1.8977E+01   1.9439E+01   1.2976E-06  0.0182
   1.9439E+01   1.9912E+01   1.1704E-06  0.0190
   1.9912E+01   2.0396E+01   1.1393E-06  0.0190
   2.0396E+01   2.0893E+01   1.0370E-06  0.0197
   2.0893E+01   2.1401E+01   9.3757E-07  0.0205
   2.1401E+01   2.1922E+01   7.9700E-07  0.0220
   2.1922E+01   2.2455E+01   7.2182E-07  0.0228
   2.2455E+01   2.3001E+01   6.4684E-07  0.0238
   2.3001E+01   2.3561E+01   5.7858E-07  0.0249
   2.3561E+01   2.4134E+01   5.2402E-07  0.0258
   2.4134E+01   2.4721E+01   4.4550E-07  0.0277
   2.4721E+01   2.5323E+01   3.6675E-07  0.0301
   2.5323E+01   2.5939E+01   3.2883E-07  0.0314
   2.5939E+01   2.6570E+01   2.6239E-07  0.0348
   2.6570E+01   2.7217E+01   2.3698E-07  0.0361
   2.7217E+01   2.7879E+01   1.8242E-07  0.0407
   2.7879E+01   2.8557E+01   1.5656E-07  0.0434
   2.8557E+01   2.9252E+01   1.3270E-07  0.0466
   2.9252E+01   2.9964E+01   9.4419E-08  0.0546
   2.9964E+01   3.0693E+01   7.4344E-08  0.0607
   3.0693E+01   3.1440E+01   5.9723E-08  0.0670
   3.1440E+01   3.2205E+01   4.5493E-08  0.0758
   3.2205E+01   3.2988E+01   3.2671E-08  0.0884
   3.2988E+01   3.3791E+01   2.5167E-08  0.0995
   3.3791E+01   3.4613E+01   1.8245E-08  0.1155
   3.4613E+01   3.5455E+01   1.4724E-08  0.1270
   3.5455E+01   3.6318E+01   9.7375E-09  0.1543
   3.6318E+01   3.7201E+01   7.6955E-09  0.1715
   3.7201E+01   3.8106E+01   3.5354E-09  0.2500
   3.8106E+01   3.9034E+01   2.1571E-09  0.3162
   3.9034E+01   3.9983E+01   1.8953E-09  0.3333
   3.9983E+01   4.0956E+01   2.0559E-10  1.0000
   4.0956E+01   4.1953E+01   6.0211E-10  0.5774
   4.1953E+01   4.2973E+01   0.0000E+00  0.0000
   4.2973E+01   4.4019E+01   0.0000E+00  0.0000
   4.4019E+01   4.5090E+01   0.0000E+00  0.0000
   4.5090E+01   4.6187E+01   0.0000E+00  0.0000
   4.6187E+01   4.7311E+01   0.0000E+00  0.0000
   4.7311E+01   4.8462E+01   0.0000E+00  0.0000
   4.8462E+01   4.9641E+01   0.0000E+00  0.0000
   4.9641E+01   5.0849E+01   0.0000E+00  0.0000
   5.0849E+01   5.2086E+01   0.0000E+00  0.0000
   5.2086E+01   5.3353E+01   0.0000E+00  0.0000
   5.3353E+01   5.4651E+01   0.0000E+00  0.0000
   5.4651E+01   5.5981E+01   0.0000E+00  0.0000
   5.5981E+01   5.7343E+01   0.0000E+00  0.0000
   5.7343E+01   5.8738E+01   0.0000E+00  0.0000
   5.8738E+01   6.0168E+01   0.0000E+00  0.0000
   6.0168E+01   6.1632E+01   0.0000E+00  0.0000
   6.1632E+01   6.3131E+01   0.0000E+00  0.0000
   6.3131E+01   6.4667E+01   0.0000E+00  0.0000
   6.4667E+01   6.6240E+01   0.0000E+00  0.0000
   6.6240E+01   6.7852E+01   0.0000E+00  0.0000
   6.7852E+01   6.9503E+01   0.0000E+00  0.0000
   6.9503E+01   7.1194E+01   0.0000E+00  0.0000
   7.1194E+01   7.2926E+01   0.0000E+00  0.0000
   7.2926E+01   7.4701E+01   0.0000E+00  0.0000
   7.4701E+01   7.6518E+01   0.0000E+00  0.0000
   7.6518E+01   7.8380E+01   0.0000E+00  0.0000
   7.8380E+01   8.0287E+01   0.0000E+00  0.0000
   8.0287E+01   8.2240E+01   0.0000E+00  0.0000
   8.2240E+01   8.4241E+01   0.0000E+00  0.0000
   8.4241E+01   8.6291E+01   0.0000E+00  0.0000
   8.6291E+01   8.8391E+01   0.0000E+00  0.0000
   8.8391E+01   9.0541E+01   0.0000E+00  0.0000
   9.0541E+01   9.2744E+01   0.0000E+00  0.0000
   9.2744E+01   9.5001E+01   0.0000E+00  0.0000
   9.5001E+01   9.7312E+01   0.0000E+00  0.0000
   9.7312E+01   9.9680E+01   0.0000E+00  0.0000
   9.9680E+01   1.0211E+02   0.0000E+00  0.0000
   1.0211E+02   1.0459E+02   0.0000E+00  0.0000
   1.0459E+02   1.0713E+02   0.0000E+00  0.0000
   1.0713E+02   1.0974E+02   0.0000E+00  0.0000
   1.0974E+02   1.1241E+02   0.0000E+00  0.0000
   1.1241E+02   1.1515E+02   0.0000E+00  0.0000
   1.1515E+02   1.1795E+02   0.0000E+00  0.0000
   1.1795E+02   1.2082E+02   0.0000E+00  0.0000
   1.2082E+02   1.2376E+02   0.0000E+00  0.0000
   1.2376E+02   1.2677E+02   0.0000E+00  0.0000
   1.2677E+02   1.2985E+02   0.0000E+00  0.0000
   1.2985E+02   1.3301E+02   0.0000E+00  0.0000
   1.3301E+02   1.3625E+02   0.0000E+00  0.0000
   1.3625E+02   1.3956E+02   0.0000E+00  0.0000
   1.3956E+02   1.4296E+02   0.0000E+00  0.0000
   1.4296E+02   1.4644E+02   0.0000E+00  0.0000
   1.4644E+02   1.5000E+02   0.0000E+00  0.0000

#   sum over                 2.8260E-06
'no. =    1   reg = 120 - 220'
msuc: {\huge [t-cross] in region mesh}
msdr: {\it plotted by \ANGEL \version}
msdl: {\it calculated by \PHITS  3.26}
wt: s(0.7)
\vspace{-3}
  region surface crossing
  area  &=&   1.0000E+00 [cm^2]
e:
 
# Information for Restart Calculation
# This calculation was newly started
# istdev =  2 # 1:Batch variance, 2:History variance
# resc2  = 5.00000000000000000E+09 # Total source weight or Total source weight / maxcas
# resc3  = 5.00000000000000000E+09 # Total history number or Total batch number
# maxcas =   100000000 # History / Batch, only used for istdev=1
# bitrseed = 0110100000100010111000001110001111001110100100011111101000111001 # bit data of rseed
