[ T-Cross ]
    title = [t-cross] in region mesh
     mesh =  reg            # mesh type is region-wise
      reg =    1            # number of crossing regions
      non     r-from    r-to       area
      1       104       204        1.000000    
   e-type =    3            # e-mesh is log given by emin, emax and ne
     emin =  1.0000000E-02  # minimum value of e-mesh points
     emax =   150.0000      # maximum value of e-mesh points
#    edel =  2.4039514E-02  # mesh width of e-mesh points
       ne =    400          # number of e-mesh points
#    data = ( e(i), i = 1, ne + 1 )
#           1.00000E-02  1.02433E-02  1.04925E-02  1.07478E-02  1.10093E-02
#           1.12772E-02  1.15516E-02  1.18326E-02  1.21205E-02  1.24154E-02
#           1.27175E-02  1.30269E-02  1.33439E-02  1.36686E-02  1.40011E-02
#           1.43418E-02  1.46907E-02  1.50482E-02  1.54143E-02  1.57894E-02
#           1.61735E-02  1.65670E-02  1.69701E-02  1.73830E-02  1.78060E-02
#           1.82392E-02  1.86830E-02  1.91375E-02  1.96032E-02  2.00801E-02
#           2.05687E-02  2.10692E-02  2.15818E-02  2.21069E-02  2.26448E-02
#           2.31957E-02  2.37601E-02  2.43382E-02  2.49304E-02  2.55369E-02
#           2.61583E-02  2.67947E-02  2.74467E-02  2.81145E-02  2.87985E-02
#           2.94992E-02  3.02169E-02  3.09521E-02  3.17052E-02  3.24766E-02
#           3.32668E-02  3.40762E-02  3.49053E-02  3.57546E-02  3.66246E-02
#           3.75157E-02  3.84284E-02  3.93634E-02  4.03212E-02  4.13022E-02
#           4.23071E-02  4.33365E-02  4.43909E-02  4.54710E-02  4.65773E-02
#           4.77106E-02  4.88714E-02  5.00605E-02  5.12785E-02  5.25262E-02
#           5.38042E-02  5.51133E-02  5.64542E-02  5.78278E-02  5.92348E-02
#           6.06760E-02  6.21523E-02  6.36645E-02  6.52135E-02  6.68002E-02
#           6.84255E-02  7.00904E-02  7.17957E-02  7.35426E-02  7.53319E-02
#           7.71648E-02  7.90423E-02  8.09655E-02  8.29354E-02  8.49533E-02
#           8.70203E-02  8.91376E-02  9.13064E-02  9.35279E-02  9.58035E-02
#           9.81345E-02  1.00522E-01  1.02968E-01  1.05473E-01  1.08040E-01
#           1.10668E-01  1.13361E-01  1.16119E-01  1.18944E-01  1.21838E-01
#           1.24803E-01  1.27839E-01  1.30950E-01  1.34136E-01  1.37399E-01
#           1.40742E-01  1.44167E-01  1.47675E-01  1.51268E-01  1.54948E-01
#           1.58718E-01  1.62580E-01  1.66535E-01  1.70587E-01  1.74738E-01
#           1.78989E-01  1.83344E-01  1.87805E-01  1.92375E-01  1.97055E-01
#           2.01850E-01  2.06761E-01  2.11792E-01  2.16945E-01  2.22223E-01
#           2.27630E-01  2.33169E-01  2.38842E-01  2.44653E-01  2.50605E-01
#           2.56703E-01  2.62949E-01  2.69346E-01  2.75900E-01  2.82613E-01
#           2.89489E-01  2.96532E-01  3.03747E-01  3.11138E-01  3.18708E-01
#           3.26462E-01  3.34405E-01  3.42542E-01  3.50876E-01  3.59413E-01
#           3.68158E-01  3.77116E-01  3.86291E-01  3.95690E-01  4.05317E-01
#           4.15179E-01  4.25281E-01  4.35628E-01  4.46227E-01  4.57084E-01
#           4.68205E-01  4.79597E-01  4.91266E-01  5.03219E-01  5.15463E-01
#           5.28005E-01  5.40851E-01  5.54011E-01  5.67490E-01  5.81298E-01
#           5.95441E-01  6.09929E-01  6.24769E-01  6.39970E-01  6.55541E-01
#           6.71491E-01  6.87828E-01  7.04564E-01  7.21706E-01  7.39266E-01
#           7.57253E-01  7.75678E-01  7.94551E-01  8.13883E-01  8.33685E-01
#           8.53969E-01  8.74747E-01  8.96030E-01  9.17831E-01  9.40163E-01
#           9.63038E-01  9.86469E-01  1.01047E+00  1.03506E+00  1.06024E+00
#           1.08604E+00  1.11246E+00  1.13953E+00  1.16725E+00  1.19565E+00
#           1.22474E+00  1.25454E+00  1.28507E+00  1.31633E+00  1.34836E+00
#           1.38117E+00  1.41477E+00  1.44920E+00  1.48446E+00  1.52057E+00
#           1.55757E+00  1.59547E+00  1.63429E+00  1.67405E+00  1.71478E+00
#           1.75650E+00  1.79924E+00  1.84302E+00  1.88786E+00  1.93379E+00
#           1.98084E+00  2.02904E+00  2.07841E+00  2.12898E+00  2.18078E+00
#           2.23384E+00  2.28819E+00  2.34386E+00  2.40089E+00  2.45930E+00
#           2.51914E+00  2.58043E+00  2.64322E+00  2.70753E+00  2.77341E+00
#           2.84088E+00  2.91001E+00  2.98081E+00  3.05333E+00  3.12762E+00
#           3.20372E+00  3.28167E+00  3.36152E+00  3.44330E+00  3.52708E+00
#           3.61290E+00  3.70080E+00  3.79085E+00  3.88308E+00  3.97756E+00
#           4.07434E+00  4.17347E+00  4.27501E+00  4.37903E+00  4.48557E+00
#           4.59471E+00  4.70650E+00  4.82102E+00  4.93832E+00  5.05847E+00
#           5.18155E+00  5.30762E+00  5.43676E+00  5.56904E+00  5.70453E+00
#           5.84333E+00  5.98550E+00  6.13114E+00  6.28031E+00  6.43312E+00
#           6.58964E+00  6.74997E+00  6.91420E+00  7.08243E+00  7.25475E+00
#           7.43126E+00  7.61207E+00  7.79728E+00  7.98700E+00  8.18133E+00
#           8.38038E+00  8.58428E+00  8.79315E+00  9.00709E+00  9.22624E+00
#           9.45072E+00  9.68067E+00  9.91620E+00  1.01575E+01  1.04046E+01
#           1.06578E+01  1.09171E+01  1.11827E+01  1.14548E+01  1.17335E+01
#           1.20190E+01  1.23114E+01  1.26109E+01  1.29178E+01  1.32321E+01
#           1.35540E+01  1.38838E+01  1.42216E+01  1.45676E+01  1.49221E+01
#           1.52851E+01  1.56570E+01  1.60380E+01  1.64282E+01  1.68279E+01
#           1.72374E+01  1.76568E+01  1.80864E+01  1.85264E+01  1.89772E+01
#           1.94389E+01  1.99119E+01  2.03963E+01  2.08926E+01  2.14009E+01
#           2.19216E+01  2.24550E+01  2.30014E+01  2.35610E+01  2.41343E+01
#           2.47215E+01  2.53230E+01  2.59391E+01  2.65702E+01  2.72167E+01
#           2.78789E+01  2.85572E+01  2.92520E+01  2.99637E+01  3.06928E+01
#           3.14396E+01  3.22045E+01  3.29881E+01  3.37907E+01  3.46128E+01
#           3.54550E+01  3.63177E+01  3.72013E+01  3.81064E+01  3.90336E+01
#           3.99833E+01  4.09561E+01  4.19526E+01  4.29734E+01  4.40189E+01
#           4.50900E+01  4.61870E+01  4.73108E+01  4.84619E+01  4.96410E+01
#           5.08488E+01  5.20860E+01  5.33533E+01  5.46514E+01  5.59812E+01
#           5.73432E+01  5.87384E+01  6.01676E+01  6.16315E+01  6.31311E+01
#           6.46671E+01  6.62405E+01  6.78522E+01  6.95031E+01  7.11941E+01
#           7.29263E+01  7.47007E+01  7.65182E+01  7.83800E+01  8.02870E+01
#           8.22405E+01  8.42414E+01  8.62911E+01  8.83906E+01  9.05412E+01
#           9.27442E+01  9.50007E+01  9.73122E+01  9.96799E+01  1.02105E+02
#           1.04589E+02  1.07134E+02  1.09741E+02  1.12411E+02  1.15146E+02
#           1.17948E+02  1.20817E+02  1.23757E+02  1.26768E+02  1.29852E+02
#           1.33012E+02  1.36248E+02  1.39563E+02  1.42959E+02  1.46437E+02
#           1.50000E+02
     unit =    2            # unit is [1/cm^2/(MeV/n)/source]
     axis =  eng            # axis of output
     file = detector-05.out  # file name of output for the above axis
   output = f-curr          # surface crossing forward current spectrum
     part =  neutron  
# kf/name :  2112     
#    used :        main (  %)        temp (  %)       total (  %)
#  memory :         414 (  0)           0 (  0)         414 (  0)

#------------------------------------------------------------------------------
#newpage:
#   no. =    1   reg = 104 - 204

x: Energy [MeV/n]
y:  F-Curr [1/cm^2/(MeV/n)/source]         
p: xlog ylog afac(0.8) form(0.9)
h: n            x            y(neutron ),hh0l   n 
#  e-lower      e-upper      neutron     r.err 
   1.0000E-02   1.0243E-02   5.6493E-04  0.0379
   1.0243E-02   1.0493E-02   5.6966E-04  0.0373
   1.0493E-02   1.0748E-02   5.0409E-04  0.0392
   1.0748E-02   1.1009E-02   5.9741E-04  0.0356
   1.1009E-02   1.1277E-02   5.2247E-04  0.0375
   1.1277E-02   1.1552E-02   5.2293E-04  0.0371
   1.1552E-02   1.1833E-02   5.2237E-04  0.0366
   1.1833E-02   1.2121E-02   4.9830E-04  0.0371
   1.2121E-02   1.2415E-02   5.0011E-04  0.0366
   1.2415E-02   1.2718E-02   4.5685E-04  0.0378
   1.2718E-02   1.3027E-02   4.9178E-04  0.0360
   1.3027E-02   1.3344E-02   4.4856E-04  0.0373
   1.3344E-02   1.3669E-02   4.5657E-04  0.0365
   1.3669E-02   1.4001E-02   4.3468E-04  0.0370
   1.4001E-02   1.4342E-02   4.1094E-04  0.0376
   1.4342E-02   1.4691E-02   4.0494E-04  0.0374
   1.4691E-02   1.5048E-02   4.0684E-04  0.0368
   1.5048E-02   1.5414E-02   4.2482E-04  0.0356
   1.5414E-02   1.5789E-02   3.8958E-04  0.0368
   1.5789E-02   1.6174E-02   3.7795E-04  0.0369
   1.6174E-02   1.6567E-02   3.7657E-04  0.0365
   1.6567E-02   1.6970E-02   3.6218E-04  0.0368
   1.6970E-02   1.7383E-02   3.3849E-04  0.0376
   1.7383E-02   1.7806E-02   3.6012E-04  0.0360
   1.7806E-02   1.8239E-02   3.6304E-04  0.0354
   1.8239E-02   1.8683E-02   3.5440E-04  0.0355
   1.8683E-02   1.9138E-02   3.5149E-04  0.0352
   1.9138E-02   1.9603E-02   3.0051E-04  0.0376
   1.9603E-02   2.0080E-02   3.0567E-04  0.0368
   2.0080E-02   2.0569E-02   3.1012E-04  0.0362
   2.0569E-02   2.1069E-02   2.9781E-04  0.0364
   2.1069E-02   2.1582E-02   2.9783E-04  0.0360
   2.1582E-02   2.2107E-02   2.8447E-04  0.0364
   2.2107E-02   2.2645E-02   3.0622E-04  0.0346
   2.2645E-02   2.3196E-02   2.9190E-04  0.0350
   2.3196E-02   2.3760E-02   2.7476E-04  0.0357
   2.3760E-02   2.4338E-02   2.6871E-04  0.0356
   2.4338E-02   2.4930E-02   2.6601E-04  0.0354
   2.4930E-02   2.5537E-02   2.5351E-04  0.0358
   2.5537E-02   2.6158E-02   2.5479E-04  0.0353
   2.6158E-02   2.6795E-02   2.4431E-04  0.0356
   2.6795E-02   2.7447E-02   2.4067E-04  0.0355
   2.7447E-02   2.8114E-02   2.3905E-04  0.0352
   2.8114E-02   2.8799E-02   2.3523E-04  0.0350
   2.8799E-02   2.9499E-02   2.3248E-04  0.0348
   2.9499E-02   3.0217E-02   2.2943E-04  0.0346
   3.0217E-02   3.0952E-02   2.3228E-04  0.0339
   3.0952E-02   3.1705E-02   2.1811E-04  0.0347
   3.1705E-02   3.2477E-02   2.1441E-04  0.0345
   3.2477E-02   3.3267E-02   1.9833E-04  0.0355
   3.3267E-02   3.4076E-02   2.0113E-04  0.0348
   3.4076E-02   3.4905E-02   2.0063E-04  0.0345
   3.4905E-02   3.5755E-02   1.9846E-04  0.0343
   3.5755E-02   3.6625E-02   1.8119E-04  0.0354
   3.6625E-02   3.7516E-02   1.8952E-04  0.0342
   3.7516E-02   3.8428E-02   1.8157E-04  0.0345
   3.8428E-02   3.9363E-02   1.8336E-04  0.0339
   3.9363E-02   4.0321E-02   1.8141E-04  0.0337
   4.0321E-02   4.1302E-02   1.6976E-04  0.0345
   4.1302E-02   4.2307E-02   1.6492E-04  0.0345
   4.2307E-02   4.3337E-02   1.6069E-04  0.0346
   4.3337E-02   4.4391E-02   1.6782E-04  0.0334
   4.4391E-02   4.5471E-02   1.6440E-04  0.0334
   4.5471E-02   4.6577E-02   1.6382E-04  0.0330
   4.6577E-02   4.7711E-02   1.5399E-04  0.0336
   4.7711E-02   4.8871E-02   1.4202E-04  0.0346
   4.8871E-02   5.0061E-02   1.5752E-04  0.0325
   5.0061E-02   5.1279E-02   1.3745E-04  0.0344
   5.1279E-02   5.2526E-02   1.3772E-04  0.0339
   5.2526E-02   5.3804E-02   1.3599E-04  0.0337
   5.3804E-02   5.5113E-02   1.3389E-04  0.0335
   5.5113E-02   5.6454E-02   1.2985E-04  0.0337
   5.6454E-02   5.7828E-02   1.2476E-04  0.0339
   5.7828E-02   5.9235E-02   1.1922E-04  0.0343
   5.9235E-02   6.0676E-02   1.2000E-04  0.0338
   6.0676E-02   6.2152E-02   1.1725E-04  0.0338
   6.2152E-02   6.3665E-02   1.2004E-04  0.0330
   6.3665E-02   6.5214E-02   1.1961E-04  0.0326
   6.5214E-02   6.6800E-02   1.1790E-04  0.0325
   6.6800E-02   6.8426E-02   1.0251E-04  0.0345
   6.8426E-02   7.0090E-02   1.0837E-04  0.0331
   7.0090E-02   7.1796E-02   1.0483E-04  0.0332
   7.1796E-02   7.3543E-02   9.8880E-05  0.0338
   7.3543E-02   7.5332E-02   1.0540E-04  0.0324
   7.5332E-02   7.7165E-02   1.0541E-04  0.0319
   7.7165E-02   7.9042E-02   1.0212E-04  0.0321
   7.9042E-02   8.0965E-02   9.0998E-05  0.0336
   8.0965E-02   8.2935E-02   9.8745E-05  0.0319
   8.2935E-02   8.4953E-02   9.2794E-05  0.0325
   8.4953E-02   8.7020E-02   9.1377E-05  0.0324
   8.7020E-02   8.9138E-02   8.6500E-05  0.0329
   8.9138E-02   9.1306E-02   8.7595E-05  0.0323
   9.1306E-02   9.3528E-02   8.4685E-05  0.0324
   9.3528E-02   9.5804E-02   8.2521E-05  0.0324
   9.5804E-02   9.8134E-02   8.4010E-05  0.0317
   9.8134E-02   1.0052E-01   8.1176E-05  0.0320
   1.0052E-01   1.0297E-01   8.2110E-05  0.0314
   1.0297E-01   1.0547E-01   7.6125E-05  0.0322
   1.0547E-01   1.0804E-01   7.7334E-05  0.0315
   1.0804E-01   1.1067E-01   7.4037E-05  0.0319
   1.1067E-01   1.1336E-01   7.0928E-05  0.0322
   1.1336E-01   1.1612E-01   6.7825E-05  0.0325
   1.1612E-01   1.1894E-01   7.0434E-05  0.0315
   1.1894E-01   1.2184E-01   6.9451E-05  0.0314
   1.2184E-01   1.2480E-01   7.0152E-05  0.0308
   1.2480E-01   1.2784E-01   6.0174E-05  0.0328
   1.2784E-01   1.3095E-01   6.3385E-05  0.0317
   1.3095E-01   1.3414E-01   6.2571E-05  0.0314
   1.3414E-01   1.3740E-01   6.0936E-05  0.0315
   1.3740E-01   1.4074E-01   5.6851E-05  0.0322
   1.4074E-01   1.4417E-01   5.8343E-05  0.0314
   1.4417E-01   1.4767E-01   5.7645E-05  0.0312
   1.4767E-01   1.5127E-01   6.1506E-05  0.0299
   1.5127E-01   1.5495E-01   5.5052E-05  0.0312
   1.5495E-01   1.5872E-01   5.2600E-05  0.0315
   1.5872E-01   1.6258E-01   5.4159E-05  0.0307
   1.6258E-01   1.6654E-01   5.0068E-05  0.0316
   1.6654E-01   1.7059E-01   4.9548E-05  0.0314
   1.7059E-01   1.7474E-01   4.8324E-05  0.0314
   1.7474E-01   1.7899E-01   4.8706E-05  0.0309
   1.7899E-01   1.8334E-01   4.7415E-05  0.0310
   1.8334E-01   1.8781E-01   4.9503E-05  0.0299
   1.8781E-01   1.9237E-01   4.3864E-05  0.0314
   1.9237E-01   1.9706E-01   4.6423E-05  0.0301
   1.9706E-01   2.0185E-01   4.5503E-05  0.0301
   2.0185E-01   2.0676E-01   4.7096E-05  0.0292
   2.0676E-01   2.1179E-01   4.7863E-05  0.0286
   2.1179E-01   2.1694E-01   5.0586E-05  0.0275
   2.1694E-01   2.2222E-01   4.7883E-05  0.0279
   2.2222E-01   2.2763E-01   5.1567E-05  0.0266
   2.2763E-01   2.3317E-01   5.5554E-05  0.0253
   2.3317E-01   2.3884E-01   5.4900E-05  0.0252
   2.3884E-01   2.4465E-01   5.5747E-05  0.0247
   2.4465E-01   2.5061E-01   5.7529E-05  0.0240
   2.5061E-01   2.5670E-01   6.1720E-05  0.0229
   2.5670E-01   2.6295E-01   6.0224E-05  0.0229
   2.6295E-01   2.6935E-01   6.5604E-05  0.0217
   2.6935E-01   2.7590E-01   6.4258E-05  0.0217
   2.7590E-01   2.8261E-01   6.8052E-05  0.0208
   2.8261E-01   2.8949E-01   7.3491E-05  0.0198
   2.8949E-01   2.9653E-01   7.3255E-05  0.0196
   2.9653E-01   3.0375E-01   7.3807E-05  0.0192
   3.0375E-01   3.1114E-01   7.8414E-05  0.0184
   3.1114E-01   3.1871E-01   7.8210E-05  0.0183
   3.1871E-01   3.2646E-01   8.0803E-05  0.0177
   3.2646E-01   3.3441E-01   8.5503E-05  0.0170
   3.3441E-01   3.4254E-01   8.3808E-05  0.0170
   3.4254E-01   3.5088E-01   8.8090E-05  0.0164
   3.5088E-01   3.5941E-01   9.0730E-05  0.0160
   3.5941E-01   3.6816E-01   9.3643E-05  0.0155
   3.6816E-01   3.7712E-01   9.5689E-05  0.0152
   3.7712E-01   3.8629E-01   9.8723E-05  0.0148
   3.8629E-01   3.9569E-01   9.9401E-05  0.0145
   3.9569E-01   4.0532E-01   1.0090E-04  0.0142
   4.0532E-01   4.1518E-01   1.0170E-04  0.0140
   4.1518E-01   4.2528E-01   1.0580E-04  0.0136
   4.2528E-01   4.3563E-01   1.0841E-04  0.0133
   4.3563E-01   4.4623E-01   1.0961E-04  0.0130
   4.4623E-01   4.5708E-01   1.1516E-04  0.0126
   4.5708E-01   4.6821E-01   1.1675E-04  0.0123
   4.6821E-01   4.7960E-01   1.1839E-04  0.0121
   4.7960E-01   4.9127E-01   1.1911E-04  0.0119
   4.9127E-01   5.0322E-01   1.2281E-04  0.0116
   5.0322E-01   5.1546E-01   1.2396E-04  0.0114
   5.1546E-01   5.2800E-01   1.2706E-04  0.0111
   5.2800E-01   5.4085E-01   1.2802E-04  0.0109
   5.4085E-01   5.5401E-01   1.3262E-04  0.0106
   5.5401E-01   5.6749E-01   1.3373E-04  0.0105
   5.6749E-01   5.8130E-01   1.3433E-04  0.0103
   5.8130E-01   5.9544E-01   1.3905E-04  0.0100
   5.9544E-01   6.0993E-01   1.3850E-04  0.0099
   6.0993E-01   6.2477E-01   1.4058E-04  0.0097
   6.2477E-01   6.3997E-01   1.4089E-04  0.0096
   6.3997E-01   6.5554E-01   1.4187E-04  0.0094
   6.5554E-01   6.7149E-01   1.4556E-04  0.0092
   6.7149E-01   6.8783E-01   1.4635E-04  0.0091
   6.8783E-01   7.0456E-01   1.4644E-04  0.0090
   7.0456E-01   7.2171E-01   1.4858E-04  0.0088
   7.2171E-01   7.3927E-01   1.4828E-04  0.0087
   7.3927E-01   7.5725E-01   1.5156E-04  0.0085
   7.5725E-01   7.7568E-01   1.5132E-04  0.0084
   7.7568E-01   7.9455E-01   1.5372E-04  0.0082
   7.9455E-01   8.1388E-01   1.5523E-04  0.0081
   8.1388E-01   8.3368E-01   1.5520E-04  0.0080
   8.3368E-01   8.5397E-01   1.5729E-04  0.0079
   8.5397E-01   8.7475E-01   1.5455E-04  0.0078
   8.7475E-01   8.9603E-01   1.5703E-04  0.0077
   8.9603E-01   9.1783E-01   1.5739E-04  0.0076
   9.1783E-01   9.4016E-01   1.5938E-04  0.0074
   9.4016E-01   9.6304E-01   1.5972E-04  0.0073
   9.6304E-01   9.8647E-01   1.6257E-04  0.0072
   9.8647E-01   1.0105E+00   1.6460E-04  0.0071
   1.0105E+00   1.0351E+00   1.6165E-04  0.0070
   1.0351E+00   1.0602E+00   1.5926E-04  0.0070
   1.0602E+00   1.0860E+00   1.5996E-04  0.0069
   1.0860E+00   1.1125E+00   1.5828E-04  0.0069
   1.1125E+00   1.1395E+00   1.5713E-04  0.0068
   1.1395E+00   1.1673E+00   1.5784E-04  0.0067
   1.1673E+00   1.1957E+00   1.5745E-04  0.0066
   1.1957E+00   1.2247E+00   1.5998E-04  0.0065
   1.2247E+00   1.2545E+00   1.5949E-04  0.0064
   1.2545E+00   1.2851E+00   1.5536E-04  0.0064
   1.2851E+00   1.3163E+00   1.5658E-04  0.0063
   1.3163E+00   1.3484E+00   1.5478E-04  0.0063
   1.3484E+00   1.3812E+00   1.5610E-04  0.0062
   1.3812E+00   1.4148E+00   1.5545E-04  0.0061
   1.4148E+00   1.4492E+00   1.5516E-04  0.0061
   1.4492E+00   1.4845E+00   1.5632E-04  0.0060
   1.4845E+00   1.5206E+00   1.5726E-04  0.0059
   1.5206E+00   1.5576E+00   1.5545E-04  0.0058
   1.5576E+00   1.5955E+00   1.5366E-04  0.0058
   1.5955E+00   1.6343E+00   1.5257E-04  0.0058
   1.6343E+00   1.6741E+00   1.5238E-04  0.0057
   1.6741E+00   1.7148E+00   1.5099E-04  0.0057
   1.7148E+00   1.7565E+00   1.4862E-04  0.0056
   1.7565E+00   1.7992E+00   1.4710E-04  0.0056
   1.7992E+00   1.8430E+00   1.4812E-04  0.0055
   1.8430E+00   1.8879E+00   1.4676E-04  0.0055
   1.8879E+00   1.9338E+00   1.4587E-04  0.0054
   1.9338E+00   1.9808E+00   1.4512E-04  0.0054
   1.9808E+00   2.0290E+00   1.4616E-04  0.0053
   2.0290E+00   2.0784E+00   1.4368E-04  0.0053
   2.0784E+00   2.1290E+00   1.4258E-04  0.0052
   2.1290E+00   2.1808E+00   1.4000E-04  0.0052
   2.1808E+00   2.2338E+00   1.3813E-04  0.0052
   2.2338E+00   2.2882E+00   1.3554E-04  0.0052
   2.2882E+00   2.3439E+00   1.3579E-04  0.0051
   2.3439E+00   2.4009E+00   1.3595E-04  0.0050
   2.4009E+00   2.4593E+00   1.3403E-04  0.0050
   2.4593E+00   2.5191E+00   1.3380E-04  0.0050
   2.5191E+00   2.5804E+00   1.3309E-04  0.0049
   2.5804E+00   2.6432E+00   1.3009E-04  0.0049
   2.6432E+00   2.7075E+00   1.2894E-04  0.0049
   2.7075E+00   2.7734E+00   1.2779E-04  0.0048
   2.7734E+00   2.8409E+00   1.2529E-04  0.0048
   2.8409E+00   2.9100E+00   1.2390E-04  0.0048
   2.9100E+00   2.9808E+00   1.2275E-04  0.0048
   2.9808E+00   3.0533E+00   1.2300E-04  0.0047
   3.0533E+00   3.1276E+00   1.2130E-04  0.0047
   3.1276E+00   3.2037E+00   1.1926E-04  0.0047
   3.2037E+00   3.2817E+00   1.1596E-04  0.0047
   3.2817E+00   3.3615E+00   1.1467E-04  0.0046
   3.3615E+00   3.4433E+00   1.1368E-04  0.0046
   3.4433E+00   3.5271E+00   1.1137E-04  0.0046
   3.5271E+00   3.6129E+00   1.1086E-04  0.0046
   3.6129E+00   3.7008E+00   1.0819E-04  0.0046
   3.7008E+00   3.7908E+00   1.0711E-04  0.0045
   3.7908E+00   3.8831E+00   1.0539E-04  0.0045
   3.8831E+00   3.9776E+00   1.0318E-04  0.0045
   3.9776E+00   4.0743E+00   1.0153E-04  0.0045
   4.0743E+00   4.1735E+00   9.9817E-05  0.0045
   4.1735E+00   4.2750E+00   9.9321E-05  0.0044
   4.2750E+00   4.3790E+00   9.6313E-05  0.0044
   4.3790E+00   4.4856E+00   9.5682E-05  0.0044
   4.4856E+00   4.5947E+00   9.4178E-05  0.0044
   4.5947E+00   4.7065E+00   9.2479E-05  0.0044
   4.7065E+00   4.8210E+00   9.0871E-05  0.0044
   4.8210E+00   4.9383E+00   8.9367E-05  0.0043
   4.9383E+00   5.0585E+00   8.8003E-05  0.0043
   5.0585E+00   5.1815E+00   8.8108E-05  0.0043
   5.1815E+00   5.3076E+00   8.7280E-05  0.0042
   5.3076E+00   5.4368E+00   8.4963E-05  0.0042
   5.4368E+00   5.5690E+00   8.4320E-05  0.0042
   5.5690E+00   5.7045E+00   8.1187E-05  0.0042
   5.7045E+00   5.8433E+00   7.9457E-05  0.0042
   5.8433E+00   5.9855E+00   7.7467E-05  0.0042
   5.9855E+00   6.1311E+00   7.6382E-05  0.0042
   6.1311E+00   6.2803E+00   7.4393E-05  0.0042
   6.2803E+00   6.4331E+00   7.2973E-05  0.0042
   6.4331E+00   6.5896E+00   7.0954E-05  0.0042
   6.5896E+00   6.7500E+00   6.9423E-05  0.0042
   6.7500E+00   6.9142E+00   6.7733E-05  0.0042
   6.9142E+00   7.0824E+00   6.6038E-05  0.0042
   7.0824E+00   7.2548E+00   6.4515E-05  0.0042
   7.2548E+00   7.4313E+00   6.2935E-05  0.0042
   7.4313E+00   7.6121E+00   6.1781E-05  0.0042
   7.6121E+00   7.7973E+00   6.0373E-05  0.0042
   7.7973E+00   7.9870E+00   5.9409E-05  0.0042
   7.9870E+00   8.1813E+00   5.7574E-05  0.0042
   8.1813E+00   8.3804E+00   5.6663E-05  0.0042
   8.3804E+00   8.5843E+00   5.5248E-05  0.0042
   8.5843E+00   8.7931E+00   5.4525E-05  0.0042
   8.7931E+00   9.0071E+00   5.3024E-05  0.0042
   9.0071E+00   9.2262E+00   5.1734E-05  0.0042
   9.2262E+00   9.4507E+00   5.0735E-05  0.0042
   9.4507E+00   9.6807E+00   4.9949E-05  0.0042
   9.6807E+00   9.9162E+00   4.9328E-05  0.0041
   9.9162E+00   1.0157E+01   4.7972E-05  0.0041
   1.0157E+01   1.0405E+01   4.6717E-05  0.0042
   1.0405E+01   1.0658E+01   4.6547E-05  0.0041
   1.0658E+01   1.0917E+01   4.5345E-05  0.0041
   1.0917E+01   1.1183E+01   4.4786E-05  0.0041
   1.1183E+01   1.1455E+01   4.4295E-05  0.0041
   1.1455E+01   1.1733E+01   4.3407E-05  0.0041
   1.1733E+01   1.2019E+01   4.2794E-05  0.0040
   1.2019E+01   1.2311E+01   4.2024E-05  0.0040
   1.2311E+01   1.2611E+01   4.1502E-05  0.0040
   1.2611E+01   1.2918E+01   4.0940E-05  0.0040
   1.2918E+01   1.3232E+01   4.0236E-05  0.0040
   1.3232E+01   1.3554E+01   3.9629E-05  0.0040
   1.3554E+01   1.3884E+01   3.9079E-05  0.0039
   1.3884E+01   1.4222E+01   3.8452E-05  0.0039
   1.4222E+01   1.4568E+01   3.8023E-05  0.0039
   1.4568E+01   1.4922E+01   3.7557E-05  0.0039
   1.4922E+01   1.5285E+01   3.7190E-05  0.0038
   1.5285E+01   1.5657E+01   3.6751E-05  0.0038
   1.5657E+01   1.6038E+01   3.6498E-05  0.0038
   1.6038E+01   1.6428E+01   3.5923E-05  0.0038
   1.6428E+01   1.6828E+01   3.5824E-05  0.0037
   1.6828E+01   1.7237E+01   3.5620E-05  0.0037
   1.7237E+01   1.7657E+01   3.5173E-05  0.0037
   1.7657E+01   1.8086E+01   3.4671E-05  0.0037
   1.8086E+01   1.8526E+01   3.4703E-05  0.0036
   1.8526E+01   1.8977E+01   3.4696E-05  0.0036
   1.8977E+01   1.9439E+01   3.4927E-05  0.0035
   1.9439E+01   1.9912E+01   3.5461E-05  0.0035
   1.9912E+01   2.0396E+01   3.6050E-05  0.0034
   2.0396E+01   2.0893E+01   3.6095E-05  0.0033
   2.0893E+01   2.1401E+01   3.6210E-05  0.0033
   2.1401E+01   2.1922E+01   3.5582E-05  0.0033
   2.1922E+01   2.2455E+01   3.6001E-05  0.0032
   2.2455E+01   2.3001E+01   3.6162E-05  0.0032
   2.3001E+01   2.3561E+01   3.6333E-05  0.0031
   2.3561E+01   2.4134E+01   3.6504E-05  0.0031
   2.4134E+01   2.4721E+01   3.6758E-05  0.0030
   2.4721E+01   2.5323E+01   3.6880E-05  0.0030
   2.5323E+01   2.5939E+01   3.7348E-05  0.0029
   2.5939E+01   2.6570E+01   3.7805E-05  0.0029
   2.6570E+01   2.7217E+01   3.8256E-05  0.0028
   2.7217E+01   2.7879E+01   3.8988E-05  0.0028
   2.7879E+01   2.8557E+01   3.9189E-05  0.0027
   2.8557E+01   2.9252E+01   4.0376E-05  0.0027
   2.9252E+01   2.9964E+01   4.1259E-05  0.0026
   2.9964E+01   3.0693E+01   4.2090E-05  0.0026
   3.0693E+01   3.1440E+01   4.3388E-05  0.0025
   3.1440E+01   3.2205E+01   4.4636E-05  0.0024
   3.2205E+01   3.2988E+01   4.6169E-05  0.0024
   3.2988E+01   3.3791E+01   4.8192E-05  0.0023
   3.3791E+01   3.4613E+01   5.0206E-05  0.0022
   3.4613E+01   3.5455E+01   5.2365E-05  0.0021
   3.5455E+01   3.6318E+01   5.4921E-05  0.0021
   3.6318E+01   3.7201E+01   5.8014E-05  0.0020
   3.7201E+01   3.8106E+01   6.1191E-05  0.0019
   3.8106E+01   3.9034E+01   6.5072E-05  0.0018
   3.9034E+01   3.9983E+01   6.9373E-05  0.0017
   3.9983E+01   4.0956E+01   7.4627E-05  0.0017
   4.0956E+01   4.1953E+01   7.9811E-05  0.0016
   4.1953E+01   4.2973E+01   8.6094E-05  0.0015
   4.2973E+01   4.4019E+01   9.3429E-05  0.0014
   4.4019E+01   4.5090E+01   1.0127E-04  0.0014
   4.5090E+01   4.6187E+01   1.1027E-04  0.0013
   4.6187E+01   4.7311E+01   1.2064E-04  0.0012
   4.7311E+01   4.8462E+01   1.3172E-04  0.0011
   4.8462E+01   4.9641E+01   1.4448E-04  0.0011
   4.9641E+01   5.0849E+01   1.5808E-04  0.0010
   5.0849E+01   5.2086E+01   1.7327E-04  0.0010
   5.2086E+01   5.3353E+01   1.8972E-04  0.0009
   5.3353E+01   5.4651E+01   2.0753E-04  0.0009
   5.4651E+01   5.5981E+01   2.2589E-04  0.0008
   5.5981E+01   5.7343E+01   2.4569E-04  0.0008
   5.7343E+01   5.8738E+01   2.6563E-04  0.0007
   5.8738E+01   6.0168E+01   2.8507E-04  0.0007
   6.0168E+01   6.1632E+01   3.0447E-04  0.0007
   6.1632E+01   6.3131E+01   3.2237E-04  0.0006
   6.3131E+01   6.4667E+01   3.3825E-04  0.0006
   6.4667E+01   6.6240E+01   3.5197E-04  0.0006
   6.6240E+01   6.7852E+01   3.6142E-04  0.0006
   6.7852E+01   6.9503E+01   3.6739E-04  0.0006
   6.9503E+01   7.1194E+01   3.6940E-04  0.0006
   7.1194E+01   7.2926E+01   3.6660E-04  0.0006
   7.2926E+01   7.4701E+01   3.5926E-04  0.0006
   7.4701E+01   7.6518E+01   3.4774E-04  0.0006
   7.6518E+01   7.8380E+01   3.3166E-04  0.0006
   7.8380E+01   8.0287E+01   3.1271E-04  0.0006
   8.0287E+01   8.2240E+01   2.9134E-04  0.0006
   8.2240E+01   8.4241E+01   2.6812E-04  0.0006
   8.4241E+01   8.6291E+01   2.4448E-04  0.0006
   8.6291E+01   8.8391E+01   2.2049E-04  0.0007
   8.8391E+01   9.0541E+01   1.9754E-04  0.0007
   9.0541E+01   9.2744E+01   1.7529E-04  0.0007
   9.2744E+01   9.5001E+01   1.5467E-04  0.0008
   9.5001E+01   9.7312E+01   1.3594E-04  0.0008
   9.7312E+01   9.9680E+01   1.1862E-04  0.0008
   9.9680E+01   1.0211E+02   1.0313E-04  0.0009
   1.0211E+02   1.0459E+02   8.9049E-05  0.0010
   1.0459E+02   1.0713E+02   7.6498E-05  0.0010
   1.0713E+02   1.0974E+02   6.5585E-05  0.0011
   1.0974E+02   1.1241E+02   5.5739E-05  0.0012
   1.1241E+02   1.1515E+02   4.7184E-05  0.0012
   1.1515E+02   1.1795E+02   3.9428E-05  0.0013
   1.1795E+02   1.2082E+02   3.2805E-05  0.0015
   1.2082E+02   1.2376E+02   2.7270E-05  0.0016
   1.2376E+02   1.2677E+02   2.4313E-05  0.0017
   1.2677E+02   1.2985E+02   2.1468E-05  0.0017
   1.2985E+02   1.3301E+02   1.7744E-05  0.0019
   1.3301E+02   1.3625E+02   1.4243E-05  0.0021
   1.3625E+02   1.3956E+02   1.1354E-05  0.0023
   1.3956E+02   1.4296E+02   8.9442E-06  0.0026
   1.4296E+02   1.4644E+02   7.0762E-06  0.0029
   1.4644E+02   1.5000E+02   5.6802E-06  0.0031

#   sum over                 1.2069E-04
'no. =    1   reg = 104 - 204'
msuc: {\huge [t-cross] in region mesh}
msdr: {\it plotted by \ANGEL \version}
msdl: {\it calculated by \PHITS  3.28}
wt: s(0.7)
\vspace{-3}
  region surface crossing
  area  &=&   1.0000E+00 [cm^2]
e:
 
# Information for Restart Calculation
# This calculation was newly started
# istdev =  2 # 1:Batch variance, 2:History variance
# resc2  = 5.00000000000000000E+09 # Total source weight or Total source weight / maxcas
# resc3  = 5.00000000000000000E+09 # Total history number or Total batch number
# maxcas =   500000000 # History / Batch, only used for istdev=1
# bitrseed = 0110100000100010111000001110001111001110100100011111101000111001 # bit data of rseed
