4 <--- number of remaining batches 

-------------------------------------------------------------------------------
bat[       6] ncas =     3000000000.
 bitrseed = 1100001110001001100010001100011001110101000011000110100101010100
          cpu time = -54.844 s.

 date = 2022-06-08
 time = 08h 53m 25s

