[ T-Cross ]
    title = [t-cross] in region mesh
     mesh =  reg            # mesh type is region-wise
      reg =    1            # number of crossing regions
      non     r-from    r-to       area
      1       100       200        1.000000    
   e-type =    3            # e-mesh is log given by emin, emax and ne
     emin =  1.0000000E-02  # minimum value of e-mesh points
     emax =   150.0000      # maximum value of e-mesh points
#    edel =  2.4039514E-02  # mesh width of e-mesh points
       ne =    400          # number of e-mesh points
#    data = ( e(i), i = 1, ne + 1 )
#           1.00000E-02  1.02433E-02  1.04925E-02  1.07478E-02  1.10093E-02
#           1.12772E-02  1.15516E-02  1.18326E-02  1.21205E-02  1.24154E-02
#           1.27175E-02  1.30269E-02  1.33439E-02  1.36686E-02  1.40011E-02
#           1.43418E-02  1.46907E-02  1.50482E-02  1.54143E-02  1.57894E-02
#           1.61735E-02  1.65670E-02  1.69701E-02  1.73830E-02  1.78060E-02
#           1.82392E-02  1.86830E-02  1.91375E-02  1.96032E-02  2.00801E-02
#           2.05687E-02  2.10692E-02  2.15818E-02  2.21069E-02  2.26448E-02
#           2.31957E-02  2.37601E-02  2.43382E-02  2.49304E-02  2.55369E-02
#           2.61583E-02  2.67947E-02  2.74467E-02  2.81145E-02  2.87985E-02
#           2.94992E-02  3.02169E-02  3.09521E-02  3.17052E-02  3.24766E-02
#           3.32668E-02  3.40762E-02  3.49053E-02  3.57546E-02  3.66246E-02
#           3.75157E-02  3.84284E-02  3.93634E-02  4.03212E-02  4.13022E-02
#           4.23071E-02  4.33365E-02  4.43909E-02  4.54710E-02  4.65773E-02
#           4.77106E-02  4.88714E-02  5.00605E-02  5.12785E-02  5.25262E-02
#           5.38042E-02  5.51133E-02  5.64542E-02  5.78278E-02  5.92348E-02
#           6.06760E-02  6.21523E-02  6.36645E-02  6.52135E-02  6.68002E-02
#           6.84255E-02  7.00904E-02  7.17957E-02  7.35426E-02  7.53319E-02
#           7.71648E-02  7.90423E-02  8.09655E-02  8.29354E-02  8.49533E-02
#           8.70203E-02  8.91376E-02  9.13064E-02  9.35279E-02  9.58035E-02
#           9.81345E-02  1.00522E-01  1.02968E-01  1.05473E-01  1.08040E-01
#           1.10668E-01  1.13361E-01  1.16119E-01  1.18944E-01  1.21838E-01
#           1.24803E-01  1.27839E-01  1.30950E-01  1.34136E-01  1.37399E-01
#           1.40742E-01  1.44167E-01  1.47675E-01  1.51268E-01  1.54948E-01
#           1.58718E-01  1.62580E-01  1.66535E-01  1.70587E-01  1.74738E-01
#           1.78989E-01  1.83344E-01  1.87805E-01  1.92375E-01  1.97055E-01
#           2.01850E-01  2.06761E-01  2.11792E-01  2.16945E-01  2.22223E-01
#           2.27630E-01  2.33169E-01  2.38842E-01  2.44653E-01  2.50605E-01
#           2.56703E-01  2.62949E-01  2.69346E-01  2.75900E-01  2.82613E-01
#           2.89489E-01  2.96532E-01  3.03747E-01  3.11138E-01  3.18708E-01
#           3.26462E-01  3.34405E-01  3.42542E-01  3.50876E-01  3.59413E-01
#           3.68158E-01  3.77116E-01  3.86291E-01  3.95690E-01  4.05317E-01
#           4.15179E-01  4.25281E-01  4.35628E-01  4.46227E-01  4.57084E-01
#           4.68205E-01  4.79597E-01  4.91266E-01  5.03219E-01  5.15463E-01
#           5.28005E-01  5.40851E-01  5.54011E-01  5.67490E-01  5.81298E-01
#           5.95441E-01  6.09929E-01  6.24769E-01  6.39970E-01  6.55541E-01
#           6.71491E-01  6.87828E-01  7.04564E-01  7.21706E-01  7.39266E-01
#           7.57253E-01  7.75678E-01  7.94551E-01  8.13883E-01  8.33685E-01
#           8.53969E-01  8.74747E-01  8.96030E-01  9.17831E-01  9.40163E-01
#           9.63038E-01  9.86469E-01  1.01047E+00  1.03506E+00  1.06024E+00
#           1.08604E+00  1.11246E+00  1.13953E+00  1.16725E+00  1.19565E+00
#           1.22474E+00  1.25454E+00  1.28507E+00  1.31633E+00  1.34836E+00
#           1.38117E+00  1.41477E+00  1.44920E+00  1.48446E+00  1.52057E+00
#           1.55757E+00  1.59547E+00  1.63429E+00  1.67405E+00  1.71478E+00
#           1.75650E+00  1.79924E+00  1.84302E+00  1.88786E+00  1.93379E+00
#           1.98084E+00  2.02904E+00  2.07841E+00  2.12898E+00  2.18078E+00
#           2.23384E+00  2.28819E+00  2.34386E+00  2.40089E+00  2.45930E+00
#           2.51914E+00  2.58043E+00  2.64322E+00  2.70753E+00  2.77341E+00
#           2.84088E+00  2.91001E+00  2.98081E+00  3.05333E+00  3.12762E+00
#           3.20372E+00  3.28167E+00  3.36152E+00  3.44330E+00  3.52708E+00
#           3.61290E+00  3.70080E+00  3.79085E+00  3.88308E+00  3.97756E+00
#           4.07434E+00  4.17347E+00  4.27501E+00  4.37903E+00  4.48557E+00
#           4.59471E+00  4.70650E+00  4.82102E+00  4.93832E+00  5.05847E+00
#           5.18155E+00  5.30762E+00  5.43676E+00  5.56904E+00  5.70453E+00
#           5.84333E+00  5.98550E+00  6.13114E+00  6.28031E+00  6.43312E+00
#           6.58964E+00  6.74997E+00  6.91420E+00  7.08243E+00  7.25475E+00
#           7.43126E+00  7.61207E+00  7.79728E+00  7.98700E+00  8.18133E+00
#           8.38038E+00  8.58428E+00  8.79315E+00  9.00709E+00  9.22624E+00
#           9.45072E+00  9.68067E+00  9.91620E+00  1.01575E+01  1.04046E+01
#           1.06578E+01  1.09171E+01  1.11827E+01  1.14548E+01  1.17335E+01
#           1.20190E+01  1.23114E+01  1.26109E+01  1.29178E+01  1.32321E+01
#           1.35540E+01  1.38838E+01  1.42216E+01  1.45676E+01  1.49221E+01
#           1.52851E+01  1.56570E+01  1.60380E+01  1.64282E+01  1.68279E+01
#           1.72374E+01  1.76568E+01  1.80864E+01  1.85264E+01  1.89772E+01
#           1.94389E+01  1.99119E+01  2.03963E+01  2.08926E+01  2.14009E+01
#           2.19216E+01  2.24550E+01  2.30014E+01  2.35610E+01  2.41343E+01
#           2.47215E+01  2.53230E+01  2.59391E+01  2.65702E+01  2.72167E+01
#           2.78789E+01  2.85572E+01  2.92520E+01  2.99637E+01  3.06928E+01
#           3.14396E+01  3.22045E+01  3.29881E+01  3.37907E+01  3.46128E+01
#           3.54550E+01  3.63177E+01  3.72013E+01  3.81064E+01  3.90336E+01
#           3.99833E+01  4.09561E+01  4.19526E+01  4.29734E+01  4.40189E+01
#           4.50900E+01  4.61870E+01  4.73108E+01  4.84619E+01  4.96410E+01
#           5.08488E+01  5.20860E+01  5.33533E+01  5.46514E+01  5.59812E+01
#           5.73432E+01  5.87384E+01  6.01676E+01  6.16315E+01  6.31311E+01
#           6.46671E+01  6.62405E+01  6.78522E+01  6.95031E+01  7.11941E+01
#           7.29263E+01  7.47007E+01  7.65182E+01  7.83800E+01  8.02870E+01
#           8.22405E+01  8.42414E+01  8.62911E+01  8.83906E+01  9.05412E+01
#           9.27442E+01  9.50007E+01  9.73122E+01  9.96799E+01  1.02105E+02
#           1.04589E+02  1.07134E+02  1.09741E+02  1.12411E+02  1.15146E+02
#           1.17948E+02  1.20817E+02  1.23757E+02  1.26768E+02  1.29852E+02
#           1.33012E+02  1.36248E+02  1.39563E+02  1.42959E+02  1.46437E+02
#           1.50000E+02
     unit =    2            # unit is [1/cm^2/(MeV/n)/source]
     axis =  eng            # axis of output
     file = detector-01.out  # file name of output for the above axis
   output = f-curr          # surface crossing forward current spectrum
     part =  neutron  
# kf/name :  2112     
#    used :        main (  %)        temp (  %)       total (  %)
#  memory :         414 (  0)           0 (  0)         414 (  0)

#------------------------------------------------------------------------------
#newpage:
#   no. =    1   reg = 100 - 200

x: Energy [MeV/n]
y:  F-Curr [1/cm^2/(MeV/n)/source]         
p: xlog ylog afac(0.8) form(0.9)
h: n            x            y(neutron ),hh0l   n 
#  e-lower      e-upper      neutron     r.err 
   1.0000E-02   1.0243E-02   7.5624E-05  0.1043
   1.0243E-02   1.0493E-02   9.0680E-05  0.0941
   1.0493E-02   1.0748E-02   9.2443E-05  0.0921
   1.0748E-02   1.1009E-02   7.4186E-05  0.1015
   1.1009E-02   1.1277E-02   9.1090E-05  0.0905
   1.1277E-02   1.1552E-02   8.3824E-05  0.0933
   1.1552E-02   1.1833E-02   7.7564E-05  0.0958
   1.1833E-02   1.2121E-02   7.5128E-05  0.0961
   1.2121E-02   1.2415E-02   7.1210E-05  0.0976
   1.2415E-02   1.2718E-02   8.0774E-05  0.0905
   1.2718E-02   1.3027E-02   7.1099E-05  0.0953
   1.3027E-02   1.3344E-02   8.1399E-05  0.0880
   1.3344E-02   1.3669E-02   7.7090E-05  0.0893
   1.3669E-02   1.4001E-02   9.0809E-05  0.0814
   1.4001E-02   1.4342E-02   8.8652E-05  0.0814
   1.4342E-02   1.4691E-02   7.9668E-05  0.0848
   1.4691E-02   1.5048E-02   8.2252E-05  0.0825
   1.5048E-02   1.5414E-02   8.1391E-05  0.0819
   1.5414E-02   1.5789E-02   9.5989E-05  0.0745
   1.5789E-02   1.6174E-02   9.2913E-05  0.0748
   1.6174E-02   1.6567E-02   8.4368E-05  0.0776
   1.6567E-02   1.6970E-02   8.4349E-05  0.0767
   1.6970E-02   1.7383E-02   8.5251E-05  0.0754
   1.7383E-02   1.7806E-02   7.8971E-05  0.0774
   1.7806E-02   1.8239E-02   7.5248E-05  0.0783
   1.8239E-02   1.8683E-02   9.2081E-05  0.0699
   1.8683E-02   1.9138E-02   9.2162E-05  0.0691
   1.9138E-02   1.9603E-02   9.0630E-05  0.0688
   1.9603E-02   2.0080E-02   9.3509E-05  0.0670
   2.0080E-02   2.0569E-02   8.8831E-05  0.0679
   2.0569E-02   2.1069E-02   9.4714E-05  0.0650
   2.1069E-02   2.1582E-02   8.0370E-05  0.0697
   2.1582E-02   2.2107E-02   8.6840E-05  0.0662
   2.2107E-02   2.2645E-02   9.0727E-05  0.0640
   2.2645E-02   2.3196E-02   8.6757E-05  0.0647
   2.3196E-02   2.3760E-02   9.1429E-05  0.0623
   2.3760E-02   2.4338E-02   9.2025E-05  0.0613
   2.4338E-02   2.4930E-02   8.8488E-05  0.0618
   2.4930E-02   2.5537E-02   8.9684E-05  0.0606
   2.5537E-02   2.6158E-02   8.9163E-05  0.0601
   2.6158E-02   2.6795E-02   8.8616E-05  0.0595
   2.6795E-02   2.7447E-02   9.0500E-05  0.0582
   2.7447E-02   2.8114E-02   8.9591E-05  0.0578
   2.8114E-02   2.8799E-02   9.3561E-05  0.0559
   2.8799E-02   2.9499E-02   7.9636E-05  0.0599
   2.9499E-02   3.0217E-02   9.7807E-05  0.0534
   3.0217E-02   3.0952E-02   9.4396E-05  0.0537
   3.0952E-02   3.1705E-02   8.3390E-05  0.0564
   3.1705E-02   3.2477E-02   8.9705E-05  0.0538
   3.2477E-02   3.3267E-02   9.3706E-05  0.0520
   3.3267E-02   3.4076E-02   8.9201E-05  0.0526
   3.4076E-02   3.4905E-02   9.4801E-05  0.0504
   3.4905E-02   3.5755E-02   8.7369E-05  0.0519
   3.5755E-02   3.6625E-02   8.7822E-05  0.0512
   3.6625E-02   3.7516E-02   9.2694E-05  0.0492
   3.7516E-02   3.8428E-02   9.2464E-05  0.0487
   3.8428E-02   3.9363E-02   9.2715E-05  0.0480
   3.9363E-02   4.0321E-02   8.8541E-05  0.0486
   4.0321E-02   4.1302E-02   1.0112E-04  0.0449
   4.1302E-02   4.2307E-02   8.9361E-05  0.0472
   4.2307E-02   4.3337E-02   9.3844E-05  0.0455
   4.3337E-02   4.4391E-02   8.8201E-05  0.0464
   4.4391E-02   4.5471E-02   8.7402E-05  0.0460
   4.5471E-02   4.6577E-02   9.5088E-05  0.0436
   4.6577E-02   4.7711E-02   9.3939E-05  0.0433
   4.7711E-02   4.8871E-02   9.5621E-05  0.0424
   4.8871E-02   5.0061E-02   1.0546E-04  0.0399
   5.0061E-02   5.1279E-02   9.4745E-05  0.0416
   5.1279E-02   5.2526E-02   9.5883E-05  0.0409
   5.2526E-02   5.3804E-02   9.7652E-05  0.0400
   5.3804E-02   5.5113E-02   8.9986E-05  0.0412
   5.5113E-02   5.6454E-02   9.8763E-05  0.0389
   5.6454E-02   5.7828E-02   9.1440E-05  0.0399
   5.7828E-02   5.9235E-02   9.2281E-05  0.0392
   5.9235E-02   6.0676E-02   9.7694E-05  0.0377
   6.0676E-02   6.2152E-02   9.6923E-05  0.0374
   6.2152E-02   6.3665E-02   1.0197E-04  0.0360
   6.3665E-02   6.5214E-02   1.0187E-04  0.0356
   6.5214E-02   6.6800E-02   1.0449E-04  0.0347
   6.6800E-02   6.8426E-02   1.0179E-04  0.0348
   6.8426E-02   7.0090E-02   1.0717E-04  0.0335
   7.0090E-02   7.1796E-02   1.0367E-04  0.0336
   7.1796E-02   7.3543E-02   1.0018E-04  0.0338
   7.3543E-02   7.5332E-02   9.4949E-05  0.0343
   7.5332E-02   7.7165E-02   1.0355E-04  0.0325
   7.7165E-02   7.9042E-02   1.0881E-04  0.0313
   7.9042E-02   8.0965E-02   1.0358E-04  0.0317
   8.0965E-02   8.2935E-02   1.0645E-04  0.0309
   8.2935E-02   8.4953E-02   1.0238E-04  0.0311
   8.4953E-02   8.7020E-02   1.0553E-04  0.0303
   8.7020E-02   8.9138E-02   1.0145E-04  0.0305
   8.9138E-02   9.1306E-02   9.9348E-05  0.0305
   9.1306E-02   9.3528E-02   1.0366E-04  0.0295
   9.3528E-02   9.5804E-02   1.0770E-04  0.0286
   9.5804E-02   9.8134E-02   1.0270E-04  0.0289
   9.8134E-02   1.0052E-01   1.0442E-04  0.0283
   1.0052E-01   1.0297E-01   1.0516E-04  0.0279
   1.0297E-01   1.0547E-01   1.0402E-04  0.0277
   1.0547E-01   1.0804E-01   1.0693E-04  0.0270
   1.0804E-01   1.1067E-01   1.0271E-04  0.0272
   1.1067E-01   1.1336E-01   1.0161E-04  0.0270
   1.1336E-01   1.1612E-01   1.0507E-04  0.0263
   1.1612E-01   1.1894E-01   1.0215E-04  0.0263
   1.1894E-01   1.2184E-01   1.0111E-04  0.0261
   1.2184E-01   1.2480E-01   1.0485E-04  0.0254
   1.2480E-01   1.2784E-01   1.0605E-04  0.0249
   1.2784E-01   1.3095E-01   1.0564E-04  0.0247
   1.3095E-01   1.3414E-01   1.0653E-04  0.0243
   1.3414E-01   1.3740E-01   1.0321E-04  0.0244
   1.3740E-01   1.4074E-01   1.0297E-04  0.0241
   1.4074E-01   1.4417E-01   1.0630E-04  0.0234
   1.4417E-01   1.4767E-01   1.1044E-04  0.0227
   1.4767E-01   1.5127E-01   1.0696E-04  0.0228
   1.5127E-01   1.5495E-01   1.1145E-04  0.0221
   1.5495E-01   1.5872E-01   1.0992E-04  0.0220
   1.5872E-01   1.6258E-01   1.0441E-04  0.0223
   1.6258E-01   1.6654E-01   1.1063E-04  0.0214
   1.6654E-01   1.7059E-01   1.0746E-04  0.0214
   1.7059E-01   1.7474E-01   1.1011E-04  0.0209
   1.7474E-01   1.7899E-01   1.0622E-04  0.0210
   1.7899E-01   1.8334E-01   1.0811E-04  0.0206
   1.8334E-01   1.8781E-01   1.0604E-04  0.0206
   1.8781E-01   1.9237E-01   1.0697E-04  0.0202
   1.9237E-01   1.9706E-01   1.0776E-04  0.0199
   1.9706E-01   2.0185E-01   1.0858E-04  0.0196
   2.0185E-01   2.0676E-01   1.0534E-04  0.0197
   2.0676E-01   2.1179E-01   1.0797E-04  0.0192
   2.1179E-01   2.1694E-01   1.0790E-04  0.0190
   2.1694E-01   2.2222E-01   1.0936E-04  0.0186
   2.2222E-01   2.2763E-01   1.0857E-04  0.0185
   2.2763E-01   2.3317E-01   1.0932E-04  0.0182
   2.3317E-01   2.3884E-01   1.0809E-04  0.0181
   2.3884E-01   2.4465E-01   1.0754E-04  0.0179
   2.4465E-01   2.5061E-01   1.1094E-04  0.0174
   2.5061E-01   2.5670E-01   1.0961E-04  0.0173
   2.5670E-01   2.6295E-01   1.0704E-04  0.0173
   2.6295E-01   2.6935E-01   1.0652E-04  0.0171
   2.6935E-01   2.7590E-01   1.0806E-04  0.0168
   2.7590E-01   2.8261E-01   1.1007E-04  0.0165
   2.8261E-01   2.8949E-01   1.0876E-04  0.0164
   2.8949E-01   2.9653E-01   1.0370E-04  0.0165
   2.9653E-01   3.0375E-01   1.0649E-04  0.0161
   3.0375E-01   3.1114E-01   1.0652E-04  0.0159
   3.1114E-01   3.1871E-01   1.0673E-04  0.0157
   3.1871E-01   3.2646E-01   1.0153E-04  0.0159
   3.2646E-01   3.3441E-01   1.0155E-04  0.0157
   3.3441E-01   3.4254E-01   1.0204E-04  0.0155
   3.4254E-01   3.5088E-01   1.0287E-04  0.0153
   3.5088E-01   3.5941E-01   1.0467E-04  0.0150
   3.5941E-01   3.6816E-01   1.0292E-04  0.0149
   3.6816E-01   3.7712E-01   1.0224E-04  0.0148
   3.7712E-01   3.8629E-01   1.0069E-04  0.0147
   3.8629E-01   3.9569E-01   1.0286E-04  0.0144
   3.9569E-01   4.0532E-01   9.9756E-05  0.0144
   4.0532E-01   4.1518E-01   1.0033E-04  0.0142
   4.1518E-01   4.2528E-01   9.9724E-05  0.0141
   4.2528E-01   4.3563E-01   9.6662E-05  0.0141
   4.3563E-01   4.4623E-01   9.6568E-05  0.0140
   4.4623E-01   4.5708E-01   9.7139E-05  0.0138
   4.5708E-01   4.6821E-01   9.4760E-05  0.0138
   4.6821E-01   4.7960E-01   9.4532E-05  0.0136
   4.7960E-01   4.9127E-01   9.4807E-05  0.0134
   4.9127E-01   5.0322E-01   9.2212E-05  0.0135
   5.0322E-01   5.1546E-01   9.2565E-05  0.0133
   5.1546E-01   5.2800E-01   9.1741E-05  0.0132
   5.2800E-01   5.4085E-01   9.0728E-05  0.0131
   5.4085E-01   5.5401E-01   9.1098E-05  0.0129
   5.5401E-01   5.6749E-01   8.7847E-05  0.0130
   5.6749E-01   5.8130E-01   8.7839E-05  0.0128
   5.8130E-01   5.9544E-01   8.4897E-05  0.0129
   5.9544E-01   6.0993E-01   8.6164E-05  0.0127
   6.0993E-01   6.2477E-01   8.2970E-05  0.0127
   6.2477E-01   6.3997E-01   8.1891E-05  0.0127
   6.3997E-01   6.5554E-01   7.9405E-05  0.0127
   6.5554E-01   6.7149E-01   7.8588E-05  0.0126
   6.7149E-01   6.8783E-01   7.8775E-05  0.0125
   6.8783E-01   7.0456E-01   7.7179E-05  0.0124
   7.0456E-01   7.2171E-01   7.6162E-05  0.0124
   7.2171E-01   7.3927E-01   7.2423E-05  0.0125
   7.3927E-01   7.5725E-01   7.0255E-05  0.0126
   7.5725E-01   7.7568E-01   7.0335E-05  0.0124
   7.7568E-01   7.9455E-01   6.7734E-05  0.0125
   7.9455E-01   8.1388E-01   6.5526E-05  0.0126
   8.1388E-01   8.3368E-01   6.4695E-05  0.0125
   8.3368E-01   8.5397E-01   6.2247E-05  0.0126
   8.5397E-01   8.7475E-01   6.1450E-05  0.0125
   8.7475E-01   8.9603E-01   5.8812E-05  0.0126
   8.9603E-01   9.1783E-01   5.6518E-05  0.0127
   9.1783E-01   9.4016E-01   5.4967E-05  0.0128
   9.4016E-01   9.6304E-01   5.2384E-05  0.0129
   9.6304E-01   9.8647E-01   5.1589E-05  0.0129
   9.8647E-01   1.0105E+00   4.8146E-05  0.0132
   1.0105E+00   1.0351E+00   4.8078E-05  0.0130
   1.0351E+00   1.0602E+00   4.8906E-05  0.0127
   1.0602E+00   1.0860E+00   4.9225E-05  0.0125
   1.0860E+00   1.1125E+00   5.0177E-05  0.0123
   1.1125E+00   1.1395E+00   4.9675E-05  0.0122
   1.1395E+00   1.1673E+00   4.9393E-05  0.0121
   1.1673E+00   1.1957E+00   5.2440E-05  0.0116
   1.1957E+00   1.2247E+00   5.2712E-05  0.0114
   1.2247E+00   1.2545E+00   5.1615E-05  0.0114
   1.2545E+00   1.2851E+00   5.2034E-05  0.0112
   1.2851E+00   1.3163E+00   5.1699E-05  0.0111
   1.3163E+00   1.3484E+00   5.2884E-05  0.0109
   1.3484E+00   1.3812E+00   5.2946E-05  0.0107
   1.3812E+00   1.4148E+00   5.3457E-05  0.0105
   1.4148E+00   1.4492E+00   5.2737E-05  0.0105
   1.4492E+00   1.4845E+00   5.2723E-05  0.0104
   1.4845E+00   1.5206E+00   5.1396E-05  0.0104
   1.5206E+00   1.5576E+00   5.1446E-05  0.0102
   1.5576E+00   1.5955E+00   4.9746E-05  0.0103
   1.5955E+00   1.6343E+00   5.0047E-05  0.0101
   1.6343E+00   1.6741E+00   5.0468E-05  0.0100
   1.6741E+00   1.7148E+00   5.0257E-05  0.0099
   1.7148E+00   1.7565E+00   5.0155E-05  0.0098
   1.7565E+00   1.7992E+00   4.8153E-05  0.0099
   1.7992E+00   1.8430E+00   4.8326E-05  0.0097
   1.8430E+00   1.8879E+00   4.6570E-05  0.0098
   1.8879E+00   1.9338E+00   4.5978E-05  0.0097
   1.9338E+00   1.9808E+00   4.5327E-05  0.0097
   1.9808E+00   2.0290E+00   4.5073E-05  0.0096
   2.0290E+00   2.0784E+00   4.4548E-05  0.0095
   2.0784E+00   2.1290E+00   4.2481E-05  0.0096
   2.1290E+00   2.1808E+00   4.1571E-05  0.0096
   2.1808E+00   2.2338E+00   4.0894E-05  0.0096
   2.2338E+00   2.2882E+00   3.9119E-05  0.0097
   2.2882E+00   2.3439E+00   3.8899E-05  0.0096
   2.3439E+00   2.4009E+00   3.8083E-05  0.0096
   2.4009E+00   2.4593E+00   3.6722E-05  0.0096
   2.4593E+00   2.5191E+00   3.5723E-05  0.0097
   2.5191E+00   2.5804E+00   3.4736E-05  0.0097
   2.5804E+00   2.6432E+00   3.3754E-05  0.0097
   2.6432E+00   2.7075E+00   3.2508E-05  0.0098
   2.7075E+00   2.7734E+00   3.1030E-05  0.0099
   2.7734E+00   2.8409E+00   2.9798E-05  0.0100
   2.8409E+00   2.9100E+00   2.9276E-05  0.0099
   2.9100E+00   2.9808E+00   2.8881E-05  0.0099
   2.9808E+00   3.0533E+00   2.8167E-05  0.0099
   3.0533E+00   3.1276E+00   2.6609E-05  0.0100
   3.1276E+00   3.2037E+00   2.5302E-05  0.0102
   3.2037E+00   3.2817E+00   2.5064E-05  0.0101
   3.2817E+00   3.3615E+00   2.3128E-05  0.0104
   3.3615E+00   3.4433E+00   2.2982E-05  0.0103
   3.4433E+00   3.5271E+00   2.1703E-05  0.0105
   3.5271E+00   3.6129E+00   2.1217E-05  0.0105
   3.6129E+00   3.7008E+00   2.0075E-05  0.0106
   3.7008E+00   3.7908E+00   1.9325E-05  0.0107
   3.7908E+00   3.8831E+00   1.8525E-05  0.0108
   3.8831E+00   3.9776E+00   1.7669E-05  0.0109
   3.9776E+00   4.0743E+00   1.7181E-05  0.0109
   4.0743E+00   4.1735E+00   1.6409E-05  0.0111
   4.1735E+00   4.2750E+00   1.6041E-05  0.0111
   4.2750E+00   4.3790E+00   1.5253E-05  0.0112
   4.3790E+00   4.4856E+00   1.4952E-05  0.0112
   4.4856E+00   4.5947E+00   1.3832E-05  0.0115
   4.5947E+00   4.7065E+00   1.3594E-05  0.0114
   4.7065E+00   4.8210E+00   1.3106E-05  0.0115
   4.8210E+00   4.9383E+00   1.2540E-05  0.0116
   4.9383E+00   5.0585E+00   1.2139E-05  0.0117
   5.0585E+00   5.1815E+00   1.1457E-05  0.0119
   5.1815E+00   5.3076E+00   1.1087E-05  0.0119
   5.3076E+00   5.4368E+00   1.0697E-05  0.0120
   5.4368E+00   5.5690E+00   1.0035E-05  0.0122
   5.5690E+00   5.7045E+00   9.9570E-06  0.0121
   5.7045E+00   5.8433E+00   9.6510E-06  0.0122
   5.8433E+00   5.9855E+00   9.3379E-06  0.0122
   5.9855E+00   6.1311E+00   8.8770E-06  0.0124
   6.1311E+00   6.2803E+00   8.5151E-06  0.0125
   6.2803E+00   6.4331E+00   8.0781E-06  0.0127
   6.4331E+00   6.5896E+00   8.0254E-06  0.0126
   6.5896E+00   6.7500E+00   7.7564E-06  0.0127
   6.7500E+00   6.9142E+00   7.4428E-06  0.0128
   6.9142E+00   7.0824E+00   7.2826E-06  0.0128
   7.0824E+00   7.2548E+00   7.0535E-06  0.0128
   7.2548E+00   7.4313E+00   6.8219E-06  0.0129
   7.4313E+00   7.6121E+00   6.6685E-06  0.0129
   7.6121E+00   7.7973E+00   6.5049E-06  0.0129
   7.7973E+00   7.9870E+00   6.4260E-06  0.0128
   7.9870E+00   8.1813E+00   6.0666E-06  0.0130
   8.1813E+00   8.3804E+00   6.0215E-06  0.0129
   8.3804E+00   8.5843E+00   6.0205E-06  0.0128
   8.5843E+00   8.7931E+00   5.9257E-06  0.0127
   8.7931E+00   9.0071E+00   5.6893E-06  0.0128
   9.0071E+00   9.2262E+00   5.6539E-06  0.0127
   9.2262E+00   9.4507E+00   5.4968E-06  0.0127
   9.4507E+00   9.6807E+00   5.4521E-06  0.0126
   9.6807E+00   9.9162E+00   5.3932E-06  0.0125
   9.9162E+00   1.0157E+01   5.4864E-06  0.0123
   1.0157E+01   1.0405E+01   5.2262E-06  0.0124
   1.0405E+01   1.0658E+01   5.3109E-06  0.0122
   1.0658E+01   1.0917E+01   5.3436E-06  0.0120
   1.0917E+01   1.1183E+01   5.2269E-06  0.0120
   1.1183E+01   1.1455E+01   5.2924E-06  0.0118
   1.1455E+01   1.1733E+01   5.1530E-06  0.0118
   1.1733E+01   1.2019E+01   5.1673E-06  0.0116
   1.2019E+01   1.2311E+01   5.1204E-06  0.0116
   1.2311E+01   1.2611E+01   5.2364E-06  0.0113
   1.2611E+01   1.2918E+01   5.1595E-06  0.0112
   1.2918E+01   1.3232E+01   5.0900E-06  0.0112
   1.3232E+01   1.3554E+01   5.1672E-06  0.0110
   1.3554E+01   1.3884E+01   5.0771E-06  0.0109
   1.3884E+01   1.4222E+01   5.1713E-06  0.0107
   1.4222E+01   1.4568E+01   5.1301E-06  0.0106
   1.4568E+01   1.4922E+01   5.3017E-06  0.0103
   1.4922E+01   1.5285E+01   5.2798E-06  0.0102
   1.5285E+01   1.5657E+01   5.3139E-06  0.0101
   1.5657E+01   1.6038E+01   5.3742E-06  0.0099
   1.6038E+01   1.6428E+01   5.3787E-06  0.0098
   1.6428E+01   1.6828E+01   5.4726E-06  0.0096
   1.6828E+01   1.7237E+01   5.4090E-06  0.0095
   1.7237E+01   1.7657E+01   5.4344E-06  0.0094
   1.7657E+01   1.8086E+01   5.4252E-06  0.0093
   1.8086E+01   1.8526E+01   5.5606E-06  0.0090
   1.8526E+01   1.8977E+01   5.5091E-06  0.0090
   1.8977E+01   1.9439E+01   5.6072E-06  0.0088
   1.9439E+01   1.9912E+01   5.5376E-06  0.0087
   1.9912E+01   2.0396E+01   5.4922E-06  0.0087
   2.0396E+01   2.0893E+01   5.5298E-06  0.0085
   2.0893E+01   2.1401E+01   5.4567E-06  0.0085
   2.1401E+01   2.1922E+01   5.4388E-06  0.0084
   2.1922E+01   2.2455E+01   5.3767E-06  0.0084
   2.2455E+01   2.3001E+01   5.3600E-06  0.0083
   2.3001E+01   2.3561E+01   5.2602E-06  0.0082
   2.3561E+01   2.4134E+01   5.1924E-06  0.0082
   2.4134E+01   2.4721E+01   5.1277E-06  0.0082
   2.4721E+01   2.5323E+01   5.0877E-06  0.0081
   2.5323E+01   2.5939E+01   5.0490E-06  0.0080
   2.5939E+01   2.6570E+01   4.9937E-06  0.0080
   2.6570E+01   2.7217E+01   4.9116E-06  0.0079
   2.7217E+01   2.7879E+01   4.8583E-06  0.0079
   2.7879E+01   2.8557E+01   4.7618E-06  0.0079
   2.8557E+01   2.9252E+01   4.6829E-06  0.0078
   2.9252E+01   2.9964E+01   4.6198E-06  0.0078
   2.9964E+01   3.0693E+01   4.5454E-06  0.0078
   3.0693E+01   3.1440E+01   4.5149E-06  0.0077
   3.1440E+01   3.2205E+01   4.4053E-06  0.0077
   3.2205E+01   3.2988E+01   4.2585E-06  0.0077
   3.2988E+01   3.3791E+01   4.2715E-06  0.0076
   3.3791E+01   3.4613E+01   4.0318E-06  0.0078
   3.4613E+01   3.5455E+01   3.8584E-06  0.0078
   3.5455E+01   3.6318E+01   3.7313E-06  0.0079
   3.6318E+01   3.7201E+01   3.5533E-06  0.0080
   3.7201E+01   3.8106E+01   3.3878E-06  0.0081
   3.8106E+01   3.9034E+01   3.2243E-06  0.0082
   3.9034E+01   3.9983E+01   3.0234E-06  0.0083
   3.9983E+01   4.0956E+01   2.9391E-06  0.0084
   4.0956E+01   4.1953E+01   2.7916E-06  0.0085
   4.1953E+01   4.2973E+01   2.6506E-06  0.0086
   4.2973E+01   4.4019E+01   2.5580E-06  0.0086
   4.4019E+01   4.5090E+01   2.4278E-06  0.0088
   4.5090E+01   4.6187E+01   2.3333E-06  0.0088
   4.6187E+01   4.7311E+01   2.2672E-06  0.0089
   4.7311E+01   4.8462E+01   2.1701E-06  0.0089
   4.8462E+01   4.9641E+01   2.0497E-06  0.0091
   4.9641E+01   5.0849E+01   1.9576E-06  0.0092
   5.0849E+01   5.2086E+01   1.8715E-06  0.0093
   5.2086E+01   5.3353E+01   1.7715E-06  0.0094
   5.3353E+01   5.4651E+01   1.6772E-06  0.0096
   5.4651E+01   5.5981E+01   1.5718E-06  0.0098
   5.5981E+01   5.7343E+01   1.4524E-06  0.0101
   5.7343E+01   5.8738E+01   1.3410E-06  0.0103
   5.8738E+01   6.0168E+01   1.2386E-06  0.0106
   6.0168E+01   6.1632E+01   1.1413E-06  0.0109
   6.1632E+01   6.3131E+01   1.0267E-06  0.0114
   6.3131E+01   6.4667E+01   8.8735E-07  0.0121
   6.4667E+01   6.6240E+01   7.6103E-07  0.0129
   6.6240E+01   6.7852E+01   6.3288E-07  0.0140
   6.7852E+01   6.9503E+01   4.9161E-07  0.0157
   6.9503E+01   7.1194E+01   3.3127E-07  0.0189
   7.1194E+01   7.2926E+01   1.5991E-07  0.0269
   7.2926E+01   7.4701E+01   5.1850E-09  0.1474
   7.4701E+01   7.6518E+01   0.0000E+00  0.0000
   7.6518E+01   7.8380E+01   0.0000E+00  0.0000
   7.8380E+01   8.0287E+01   0.0000E+00  0.0000
   8.0287E+01   8.2240E+01   0.0000E+00  0.0000
   8.2240E+01   8.4241E+01   0.0000E+00  0.0000
   8.4241E+01   8.6291E+01   0.0000E+00  0.0000
   8.6291E+01   8.8391E+01   0.0000E+00  0.0000
   8.8391E+01   9.0541E+01   0.0000E+00  0.0000
   9.0541E+01   9.2744E+01   0.0000E+00  0.0000
   9.2744E+01   9.5001E+01   0.0000E+00  0.0000
   9.5001E+01   9.7312E+01   0.0000E+00  0.0000
   9.7312E+01   9.9680E+01   0.0000E+00  0.0000
   9.9680E+01   1.0211E+02   0.0000E+00  0.0000
   1.0211E+02   1.0459E+02   0.0000E+00  0.0000
   1.0459E+02   1.0713E+02   0.0000E+00  0.0000
   1.0713E+02   1.0974E+02   0.0000E+00  0.0000
   1.0974E+02   1.1241E+02   0.0000E+00  0.0000
   1.1241E+02   1.1515E+02   0.0000E+00  0.0000
   1.1515E+02   1.1795E+02   0.0000E+00  0.0000
   1.1795E+02   1.2082E+02   0.0000E+00  0.0000
   1.2082E+02   1.2376E+02   0.0000E+00  0.0000
   1.2376E+02   1.2677E+02   0.0000E+00  0.0000
   1.2677E+02   1.2985E+02   0.0000E+00  0.0000
   1.2985E+02   1.3301E+02   0.0000E+00  0.0000
   1.3301E+02   1.3625E+02   0.0000E+00  0.0000
   1.3625E+02   1.3956E+02   0.0000E+00  0.0000
   1.3956E+02   1.4296E+02   0.0000E+00  0.0000
   1.4296E+02   1.4644E+02   0.0000E+00  0.0000
   1.4644E+02   1.5000E+02   0.0000E+00  0.0000

#   sum over                 2.9068E-06
'no. =    1   reg = 100 - 200'
msuc: {\huge [t-cross] in region mesh}
msdr: {\it plotted by \ANGEL \version}
msdl: {\it calculated by \PHITS  3.26}
wt: s(0.7)
\vspace{-3}
  region surface crossing
  area  &=&   1.0000E+00 [cm^2]
e:
 
# Information for Restart Calculation
# This calculation was newly started
# istdev =  2 # 1:Batch variance, 2:History variance
# resc2  = 5.00000000000000000E+09 # Total source weight or Total source weight / maxcas
# resc3  = 5.00000000000000000E+09 # Total history number or Total batch number
# maxcas =   100000000 # History / Batch, only used for istdev=1
# bitrseed = 0110100000100010111000001110001111001110100100011111101000111001 # bit data of rseed
