[ T-Cross ]
    title = [t-cross] in region mesh
     mesh =  reg            # mesh type is region-wise
      reg =    1            # number of crossing regions
      non     r-from    r-to       area
      1       113       213        1.000000    
   e-type =    3            # e-mesh is log given by emin, emax and ne
     emin =  1.0000000E-02  # minimum value of e-mesh points
     emax =   150.0000      # maximum value of e-mesh points
#    edel =  2.4039514E-02  # mesh width of e-mesh points
       ne =    400          # number of e-mesh points
#    data = ( e(i), i = 1, ne + 1 )
#           1.00000E-02  1.02433E-02  1.04925E-02  1.07478E-02  1.10093E-02
#           1.12772E-02  1.15516E-02  1.18326E-02  1.21205E-02  1.24154E-02
#           1.27175E-02  1.30269E-02  1.33439E-02  1.36686E-02  1.40011E-02
#           1.43418E-02  1.46907E-02  1.50482E-02  1.54143E-02  1.57894E-02
#           1.61735E-02  1.65670E-02  1.69701E-02  1.73830E-02  1.78060E-02
#           1.82392E-02  1.86830E-02  1.91375E-02  1.96032E-02  2.00801E-02
#           2.05687E-02  2.10692E-02  2.15818E-02  2.21069E-02  2.26448E-02
#           2.31957E-02  2.37601E-02  2.43382E-02  2.49304E-02  2.55369E-02
#           2.61583E-02  2.67947E-02  2.74467E-02  2.81145E-02  2.87985E-02
#           2.94992E-02  3.02169E-02  3.09521E-02  3.17052E-02  3.24766E-02
#           3.32668E-02  3.40762E-02  3.49053E-02  3.57546E-02  3.66246E-02
#           3.75157E-02  3.84284E-02  3.93634E-02  4.03212E-02  4.13022E-02
#           4.23071E-02  4.33365E-02  4.43909E-02  4.54710E-02  4.65773E-02
#           4.77106E-02  4.88714E-02  5.00605E-02  5.12785E-02  5.25262E-02
#           5.38042E-02  5.51133E-02  5.64542E-02  5.78278E-02  5.92348E-02
#           6.06760E-02  6.21523E-02  6.36645E-02  6.52135E-02  6.68002E-02
#           6.84255E-02  7.00904E-02  7.17957E-02  7.35426E-02  7.53319E-02
#           7.71648E-02  7.90423E-02  8.09655E-02  8.29354E-02  8.49533E-02
#           8.70203E-02  8.91376E-02  9.13064E-02  9.35279E-02  9.58035E-02
#           9.81345E-02  1.00522E-01  1.02968E-01  1.05473E-01  1.08040E-01
#           1.10668E-01  1.13361E-01  1.16119E-01  1.18944E-01  1.21838E-01
#           1.24803E-01  1.27839E-01  1.30950E-01  1.34136E-01  1.37399E-01
#           1.40742E-01  1.44167E-01  1.47675E-01  1.51268E-01  1.54948E-01
#           1.58718E-01  1.62580E-01  1.66535E-01  1.70587E-01  1.74738E-01
#           1.78989E-01  1.83344E-01  1.87805E-01  1.92375E-01  1.97055E-01
#           2.01850E-01  2.06761E-01  2.11792E-01  2.16945E-01  2.22223E-01
#           2.27630E-01  2.33169E-01  2.38842E-01  2.44653E-01  2.50605E-01
#           2.56703E-01  2.62949E-01  2.69346E-01  2.75900E-01  2.82613E-01
#           2.89489E-01  2.96532E-01  3.03747E-01  3.11138E-01  3.18708E-01
#           3.26462E-01  3.34405E-01  3.42542E-01  3.50876E-01  3.59413E-01
#           3.68158E-01  3.77116E-01  3.86291E-01  3.95690E-01  4.05317E-01
#           4.15179E-01  4.25281E-01  4.35628E-01  4.46227E-01  4.57084E-01
#           4.68205E-01  4.79597E-01  4.91266E-01  5.03219E-01  5.15463E-01
#           5.28005E-01  5.40851E-01  5.54011E-01  5.67490E-01  5.81298E-01
#           5.95441E-01  6.09929E-01  6.24769E-01  6.39970E-01  6.55541E-01
#           6.71491E-01  6.87828E-01  7.04564E-01  7.21706E-01  7.39266E-01
#           7.57253E-01  7.75678E-01  7.94551E-01  8.13883E-01  8.33685E-01
#           8.53969E-01  8.74747E-01  8.96030E-01  9.17831E-01  9.40163E-01
#           9.63038E-01  9.86469E-01  1.01047E+00  1.03506E+00  1.06024E+00
#           1.08604E+00  1.11246E+00  1.13953E+00  1.16725E+00  1.19565E+00
#           1.22474E+00  1.25454E+00  1.28507E+00  1.31633E+00  1.34836E+00
#           1.38117E+00  1.41477E+00  1.44920E+00  1.48446E+00  1.52057E+00
#           1.55757E+00  1.59547E+00  1.63429E+00  1.67405E+00  1.71478E+00
#           1.75650E+00  1.79924E+00  1.84302E+00  1.88786E+00  1.93379E+00
#           1.98084E+00  2.02904E+00  2.07841E+00  2.12898E+00  2.18078E+00
#           2.23384E+00  2.28819E+00  2.34386E+00  2.40089E+00  2.45930E+00
#           2.51914E+00  2.58043E+00  2.64322E+00  2.70753E+00  2.77341E+00
#           2.84088E+00  2.91001E+00  2.98081E+00  3.05333E+00  3.12762E+00
#           3.20372E+00  3.28167E+00  3.36152E+00  3.44330E+00  3.52708E+00
#           3.61290E+00  3.70080E+00  3.79085E+00  3.88308E+00  3.97756E+00
#           4.07434E+00  4.17347E+00  4.27501E+00  4.37903E+00  4.48557E+00
#           4.59471E+00  4.70650E+00  4.82102E+00  4.93832E+00  5.05847E+00
#           5.18155E+00  5.30762E+00  5.43676E+00  5.56904E+00  5.70453E+00
#           5.84333E+00  5.98550E+00  6.13114E+00  6.28031E+00  6.43312E+00
#           6.58964E+00  6.74997E+00  6.91420E+00  7.08243E+00  7.25475E+00
#           7.43126E+00  7.61207E+00  7.79728E+00  7.98700E+00  8.18133E+00
#           8.38038E+00  8.58428E+00  8.79315E+00  9.00709E+00  9.22624E+00
#           9.45072E+00  9.68067E+00  9.91620E+00  1.01575E+01  1.04046E+01
#           1.06578E+01  1.09171E+01  1.11827E+01  1.14548E+01  1.17335E+01
#           1.20190E+01  1.23114E+01  1.26109E+01  1.29178E+01  1.32321E+01
#           1.35540E+01  1.38838E+01  1.42216E+01  1.45676E+01  1.49221E+01
#           1.52851E+01  1.56570E+01  1.60380E+01  1.64282E+01  1.68279E+01
#           1.72374E+01  1.76568E+01  1.80864E+01  1.85264E+01  1.89772E+01
#           1.94389E+01  1.99119E+01  2.03963E+01  2.08926E+01  2.14009E+01
#           2.19216E+01  2.24550E+01  2.30014E+01  2.35610E+01  2.41343E+01
#           2.47215E+01  2.53230E+01  2.59391E+01  2.65702E+01  2.72167E+01
#           2.78789E+01  2.85572E+01  2.92520E+01  2.99637E+01  3.06928E+01
#           3.14396E+01  3.22045E+01  3.29881E+01  3.37907E+01  3.46128E+01
#           3.54550E+01  3.63177E+01  3.72013E+01  3.81064E+01  3.90336E+01
#           3.99833E+01  4.09561E+01  4.19526E+01  4.29734E+01  4.40189E+01
#           4.50900E+01  4.61870E+01  4.73108E+01  4.84619E+01  4.96410E+01
#           5.08488E+01  5.20860E+01  5.33533E+01  5.46514E+01  5.59812E+01
#           5.73432E+01  5.87384E+01  6.01676E+01  6.16315E+01  6.31311E+01
#           6.46671E+01  6.62405E+01  6.78522E+01  6.95031E+01  7.11941E+01
#           7.29263E+01  7.47007E+01  7.65182E+01  7.83800E+01  8.02870E+01
#           8.22405E+01  8.42414E+01  8.62911E+01  8.83906E+01  9.05412E+01
#           9.27442E+01  9.50007E+01  9.73122E+01  9.96799E+01  1.02105E+02
#           1.04589E+02  1.07134E+02  1.09741E+02  1.12411E+02  1.15146E+02
#           1.17948E+02  1.20817E+02  1.23757E+02  1.26768E+02  1.29852E+02
#           1.33012E+02  1.36248E+02  1.39563E+02  1.42959E+02  1.46437E+02
#           1.50000E+02
     unit =    2            # unit is [1/cm^2/(MeV/n)/source]
     axis =  eng            # axis of output
     file = detector-14.out  # file name of output for the above axis
   output = f-curr          # surface crossing forward current spectrum
     part =  neutron  
# kf/name :  2112     
#    used :        main (  %)        temp (  %)       total (  %)
#  memory :         414 (  0)           0 (  0)         414 (  0)

#------------------------------------------------------------------------------
#newpage:
#   no. =    1   reg = 113 - 213

x: Energy [MeV/n]
y:  F-Curr [1/cm^2/(MeV/n)/source]         
p: xlog ylog afac(0.8) form(0.9)
h: n            x            y(neutron ),hh0l   n 
#  e-lower      e-upper      neutron     r.err 
   1.0000E-02   1.0243E-02   1.7344E-03  0.0688
   1.0243E-02   1.0493E-02   1.6852E-03  0.0690
   1.0493E-02   1.0748E-02   1.7549E-03  0.0668
   1.0748E-02   1.1009E-02   1.6290E-03  0.0685
   1.1009E-02   1.1277E-02   1.8591E-03  0.0634
   1.1277E-02   1.1552E-02   1.6182E-03  0.0671
   1.1552E-02   1.1833E-02   1.6794E-03  0.0651
   1.1833E-02   1.2121E-02   1.7228E-03  0.0635
   1.2121E-02   1.2415E-02   1.4920E-03  0.0674
   1.2415E-02   1.2718E-02   1.5427E-03  0.0655
   1.2718E-02   1.3027E-02   1.8356E-03  0.0593
   1.3027E-02   1.3344E-02   1.5523E-03  0.0638
   1.3344E-02   1.3669E-02   1.6448E-03  0.0612
   1.3669E-02   1.4001E-02   1.6959E-03  0.0595
   1.4001E-02   1.4342E-02   1.4266E-03  0.0642
   1.4342E-02   1.4691E-02   1.5647E-03  0.0605
   1.4691E-02   1.5048E-02   1.5499E-03  0.0601
   1.5048E-02   1.5414E-02   1.4421E-03  0.0615
   1.5414E-02   1.5789E-02   1.5412E-03  0.0588
   1.5789E-02   1.6174E-02   1.5254E-03  0.0584
   1.6174E-02   1.6567E-02   1.4282E-03  0.0597
   1.6567E-02   1.6970E-02   1.4240E-03  0.0590
   1.6970E-02   1.7383E-02   1.3853E-03  0.0591
   1.7383E-02   1.7806E-02   1.4446E-03  0.0572
   1.7806E-02   1.8239E-02   1.2972E-03  0.0597
   1.8239E-02   1.8683E-02   1.3025E-03  0.0588
   1.8683E-02   1.9138E-02   1.2847E-03  0.0585
   1.9138E-02   1.9603E-02   1.2886E-03  0.0577
   1.9603E-02   2.0080E-02   1.3083E-03  0.0566
   2.0080E-02   2.0569E-02   1.3693E-03  0.0547
   2.0569E-02   2.1069E-02   1.2489E-03  0.0565
   2.1069E-02   2.1582E-02   1.2329E-03  0.0563
   2.1582E-02   2.2107E-02   1.3559E-03  0.0530
   2.2107E-02   2.2645E-02   1.2717E-03  0.0541
   2.2645E-02   2.3196E-02   1.1180E-03  0.0570
   2.3196E-02   2.3760E-02   1.2297E-03  0.0537
   2.3760E-02   2.4338E-02   1.1590E-03  0.0546
   2.4338E-02   2.4930E-02   1.2125E-03  0.0528
   2.4930E-02   2.5537E-02   1.1540E-03  0.0535
   2.5537E-02   2.6158E-02   1.1330E-03  0.0533
   2.6158E-02   2.6795E-02   1.1376E-03  0.0526
   2.6795E-02   2.7447E-02   1.1289E-03  0.0521
   2.7447E-02   2.8114E-02   1.1141E-03  0.0518
   2.8114E-02   2.8799E-02   1.1958E-03  0.0494
   2.8799E-02   2.9499E-02   1.1646E-03  0.0495
   2.9499E-02   3.0217E-02   1.0895E-03  0.0506
   3.0217E-02   3.0952E-02   1.0691E-03  0.0504
   3.0952E-02   3.1705E-02   9.5872E-04  0.0526
   3.1705E-02   3.2477E-02   1.1122E-03  0.0483
   3.2477E-02   3.3267E-02   9.6180E-04  0.0513
   3.3267E-02   3.4076E-02   9.7108E-04  0.0504
   3.4076E-02   3.4905E-02   9.4560E-04  0.0505
   3.4905E-02   3.5755E-02   8.8664E-04  0.0515
   3.5755E-02   3.6625E-02   9.3110E-04  0.0497
   3.6625E-02   3.7516E-02   9.4153E-04  0.0488
   3.7516E-02   3.8428E-02   9.2902E-04  0.0486
   3.8428E-02   3.9363E-02   8.3851E-04  0.0505
   3.9363E-02   4.0321E-02   8.7288E-04  0.0489
   4.0321E-02   4.1302E-02   8.3584E-04  0.0494
   4.1302E-02   4.2307E-02   8.2196E-04  0.0492
   4.2307E-02   4.3337E-02   8.0632E-04  0.0491
   4.3337E-02   4.4391E-02   7.4165E-04  0.0506
   4.4391E-02   4.5471E-02   8.0365E-04  0.0480
   4.5471E-02   4.6577E-02   7.8637E-04  0.0479
   4.6577E-02   4.7711E-02   7.5005E-04  0.0485
   4.7711E-02   4.8871E-02   8.2871E-04  0.0456
   4.8871E-02   5.0061E-02   7.5184E-04  0.0473
   5.0061E-02   5.1279E-02   7.9638E-04  0.0454
   5.1279E-02   5.2526E-02   6.3159E-04  0.0504
   5.2526E-02   5.3804E-02   6.8153E-04  0.0479
   5.3804E-02   5.5113E-02   6.6687E-04  0.0479
   5.5113E-02   5.6454E-02   6.9578E-04  0.0463
   5.6454E-02   5.7828E-02   6.1445E-04  0.0487
   5.7828E-02   5.9235E-02   6.8230E-04  0.0456
   5.9235E-02   6.0676E-02   6.5222E-04  0.0461
   6.0676E-02   6.2152E-02   6.2047E-04  0.0467
   6.2152E-02   6.3665E-02   6.3351E-04  0.0457
   6.3665E-02   6.5214E-02   5.9264E-04  0.0467
   6.5214E-02   6.6800E-02   5.9306E-04  0.0461
   6.6800E-02   6.8426E-02   6.0420E-04  0.0451
   6.8426E-02   7.0090E-02   5.8264E-04  0.0454
   7.0090E-02   7.1796E-02   5.9108E-04  0.0445
   7.1796E-02   7.3543E-02   5.8734E-04  0.0442
   7.3543E-02   7.5332E-02   5.9128E-04  0.0435
   7.5332E-02   7.7165E-02   5.3031E-04  0.0454
   7.7165E-02   7.9042E-02   5.7098E-04  0.0432
   7.9042E-02   8.0965E-02   5.0854E-04  0.0452
   8.0965E-02   8.2935E-02   5.0763E-04  0.0447
   8.2935E-02   8.4953E-02   4.8268E-04  0.0453
   8.4953E-02   8.7020E-02   4.6928E-04  0.0454
   8.7020E-02   8.9138E-02   4.8317E-04  0.0442
   8.9138E-02   9.1306E-02   4.8691E-04  0.0435
   9.1306E-02   9.3528E-02   4.8615E-04  0.0430
   9.3528E-02   9.5804E-02   4.7196E-04  0.0432
   9.5804E-02   9.8134E-02   4.1528E-04  0.0455
   9.8134E-02   1.0052E-01   4.3892E-04  0.0437
   1.0052E-01   1.0297E-01   4.3749E-04  0.0432
   1.0297E-01   1.0547E-01   4.2869E-04  0.0432
   1.0547E-01   1.0804E-01   3.9708E-04  0.0443
   1.0804E-01   1.1067E-01   4.0629E-04  0.0433
   1.1067E-01   1.1336E-01   3.7361E-04  0.0446
   1.1336E-01   1.1612E-01   3.5857E-04  0.0450
   1.1612E-01   1.1894E-01   3.9571E-04  0.0423
   1.1894E-01   1.2184E-01   3.6144E-04  0.0437
   1.2184E-01   1.2480E-01   3.7579E-04  0.0424
   1.2480E-01   1.2784E-01   3.1681E-04  0.0456
   1.2784E-01   1.3095E-01   3.5558E-04  0.0425
   1.3095E-01   1.3414E-01   3.3552E-04  0.0432
   1.3414E-01   1.3740E-01   3.0610E-04  0.0447
   1.3740E-01   1.4074E-01   3.2426E-04  0.0430
   1.4074E-01   1.4417E-01   3.0195E-04  0.0440
   1.4417E-01   1.4767E-01   3.2329E-04  0.0420
   1.4767E-01   1.5127E-01   2.8861E-04  0.0439
   1.5127E-01   1.5495E-01   3.0811E-04  0.0420
   1.5495E-01   1.5872E-01   2.8647E-04  0.0430
   1.5872E-01   1.6258E-01   2.6776E-04  0.0440
   1.6258E-01   1.6654E-01   2.7454E-04  0.0429
   1.6654E-01   1.7059E-01   2.6358E-04  0.0433
   1.7059E-01   1.7474E-01   2.3901E-04  0.0449
   1.7474E-01   1.7899E-01   2.7543E-04  0.0413
   1.7899E-01   1.8334E-01   2.5810E-04  0.0422
   1.8334E-01   1.8781E-01   2.5757E-04  0.0417
   1.8781E-01   1.9237E-01   2.4248E-04  0.0425
   1.9237E-01   1.9706E-01   2.2817E-04  0.0433
   1.9706E-01   2.0185E-01   2.1233E-04  0.0443
   2.0185E-01   2.0676E-01   2.2276E-04  0.0428
   2.0676E-01   2.1179E-01   2.0872E-04  0.0436
   2.1179E-01   2.1694E-01   2.0415E-04  0.0436
   2.1694E-01   2.2222E-01   2.0612E-04  0.0429
   2.2222E-01   2.2763E-01   2.0677E-04  0.0423
   2.2763E-01   2.3317E-01   1.8164E-04  0.0446
   2.3317E-01   2.3884E-01   1.8579E-04  0.0436
   2.3884E-01   2.4465E-01   1.9445E-04  0.0421
   2.4465E-01   2.5061E-01   1.8412E-04  0.0427
   2.5061E-01   2.5670E-01   1.7450E-04  0.0434
   2.5670E-01   2.6295E-01   1.7452E-04  0.0428
   2.6295E-01   2.6935E-01   1.6318E-04  0.0438
   2.6935E-01   2.7590E-01   1.5900E-04  0.0438
   2.7590E-01   2.8261E-01   1.6401E-04  0.0426
   2.8261E-01   2.8949E-01   1.5008E-04  0.0440
   2.8949E-01   2.9653E-01   1.6682E-04  0.0412
   2.9653E-01   3.0375E-01   1.4761E-04  0.0433
   3.0375E-01   3.1114E-01   1.4411E-04  0.0433
   3.1114E-01   3.1871E-01   1.5112E-04  0.0418
   3.1871E-01   3.2646E-01   1.4714E-04  0.0419
   3.2646E-01   3.3441E-01   1.3496E-04  0.0432
   3.3441E-01   3.4254E-01   1.4023E-04  0.0419
   3.4254E-01   3.5088E-01   1.3726E-04  0.0418
   3.5088E-01   3.5941E-01   1.2709E-04  0.0429
   3.5941E-01   3.6816E-01   1.2373E-04  0.0430
   3.6816E-01   3.7712E-01   1.1543E-04  0.0440
   3.7712E-01   3.8629E-01   1.1705E-04  0.0432
   3.8629E-01   3.9569E-01   1.1214E-04  0.0436
   3.9569E-01   4.0532E-01   1.2496E-04  0.0408
   4.0532E-01   4.1518E-01   1.1114E-04  0.0427
   4.1518E-01   4.2528E-01   1.0206E-04  0.0440
   4.2528E-01   4.3563E-01   1.0727E-04  0.0424
   4.3563E-01   4.4623E-01   1.0161E-04  0.0431
   4.4623E-01   4.5708E-01   1.0482E-04  0.0419
   4.5708E-01   4.6821E-01   9.8730E-05  0.0427
   4.6821E-01   4.7960E-01   9.7087E-05  0.0425
   4.7960E-01   4.9127E-01   9.9152E-05  0.0416
   4.9127E-01   5.0322E-01   9.4705E-05  0.0420
   5.0322E-01   5.1546E-01   8.8699E-05  0.0429
   5.1546E-01   5.2800E-01   9.4087E-05  0.0412
   5.2800E-01   5.4085E-01   8.8894E-05  0.0418
   5.4085E-01   5.5401E-01   8.7010E-05  0.0418
   5.5401E-01   5.6749E-01   8.5389E-05  0.0417
   5.6749E-01   5.8130E-01   8.0681E-05  0.0424
   5.8130E-01   5.9544E-01   8.5693E-05  0.0406
   5.9544E-01   6.0993E-01   7.6894E-05  0.0424
   6.0993E-01   6.2477E-01   7.4730E-05  0.0425
   6.2477E-01   6.3997E-01   7.4731E-05  0.0420
   6.3997E-01   6.5554E-01   7.6103E-05  0.0411
   6.5554E-01   6.7149E-01   6.8590E-05  0.0428
   6.7149E-01   6.8783E-01   7.1796E-05  0.0413
   6.8783E-01   7.0456E-01   6.9493E-05  0.0415
   7.0456E-01   7.2171E-01   6.1251E-05  0.0436
   7.2171E-01   7.3927E-01   6.5035E-05  0.0418
   7.3927E-01   7.5725E-01   6.2935E-05  0.0420
   7.5725E-01   7.7568E-01   6.0463E-05  0.0424
   7.7568E-01   7.9455E-01   6.0192E-05  0.0420
   7.9455E-01   8.1388E-01   5.4314E-05  0.0436
   8.1388E-01   8.3368E-01   5.5953E-05  0.0425
   8.3368E-01   8.5397E-01   5.3194E-05  0.0430
   8.5397E-01   8.7475E-01   5.3423E-05  0.0424
   8.7475E-01   8.9603E-01   5.2623E-05  0.0423
   8.9603E-01   9.1783E-01   4.8805E-05  0.0434
   9.1783E-01   9.4016E-01   5.2482E-05  0.0413
   9.4016E-01   9.6304E-01   4.7213E-05  0.0430
   9.6304E-01   9.8647E-01   4.7116E-05  0.0426
   9.8647E-01   1.0105E+00   4.3330E-05  0.0439
   1.0105E+00   1.0351E+00   4.8158E-05  0.0411
   1.0351E+00   1.0602E+00   4.6697E-05  0.0412
   1.0602E+00   1.0860E+00   5.1790E-05  0.0387
   1.0860E+00   1.1125E+00   4.9122E-05  0.0392
   1.1125E+00   1.1395E+00   5.3829E-05  0.0370
   1.1395E+00   1.1673E+00   5.8646E-05  0.0351
   1.1673E+00   1.1957E+00   6.2500E-05  0.0336
   1.1957E+00   1.2247E+00   6.6859E-05  0.0321
   1.2247E+00   1.2545E+00   6.5808E-05  0.0319
   1.2545E+00   1.2851E+00   6.6800E-05  0.0313
   1.2851E+00   1.3163E+00   7.2665E-05  0.0297
   1.3163E+00   1.3484E+00   7.3968E-05  0.0291
   1.3484E+00   1.3812E+00   7.5259E-05  0.0285
   1.3812E+00   1.4148E+00   8.4065E-05  0.0266
   1.4148E+00   1.4492E+00   8.5002E-05  0.0261
   1.4492E+00   1.4845E+00   9.2172E-05  0.0248
   1.4845E+00   1.5206E+00   8.9512E-05  0.0249
   1.5206E+00   1.5576E+00   9.4333E-05  0.0239
   1.5576E+00   1.5955E+00   9.5258E-05  0.0235
   1.5955E+00   1.6343E+00   1.0448E-04  0.0222
   1.6343E+00   1.6741E+00   1.0500E-04  0.0219
   1.6741E+00   1.7148E+00   1.1247E-04  0.0209
   1.7148E+00   1.7565E+00   1.2068E-04  0.0199
   1.7565E+00   1.7992E+00   1.2032E-04  0.0197
   1.7992E+00   1.8430E+00   1.2155E-04  0.0194
   1.8430E+00   1.8879E+00   1.2656E-04  0.0188
   1.8879E+00   1.9338E+00   1.3002E-04  0.0183
   1.9338E+00   1.9808E+00   1.4025E-04  0.0174
   1.9808E+00   2.0290E+00   1.4257E-04  0.0171
   2.0290E+00   2.0784E+00   1.5141E-04  0.0164
   2.0784E+00   2.1290E+00   1.4740E-04  0.0164
   2.1290E+00   2.1808E+00   1.5911E-04  0.0156
   2.1808E+00   2.2338E+00   1.5748E-04  0.0155
   2.2338E+00   2.2882E+00   1.6739E-04  0.0148
   2.2882E+00   2.3439E+00   1.7150E-04  0.0145
   2.3439E+00   2.4009E+00   1.7460E-04  0.0142
   2.4009E+00   2.4593E+00   1.8387E-04  0.0136
   2.4593E+00   2.5191E+00   1.8830E-04  0.0133
   2.5191E+00   2.5804E+00   1.8681E-04  0.0132
   2.5804E+00   2.6432E+00   1.9127E-04  0.0129
   2.6432E+00   2.7075E+00   1.9760E-04  0.0125
   2.7075E+00   2.7734E+00   1.9783E-04  0.0124
   2.7734E+00   2.8409E+00   2.0949E-04  0.0119
   2.8409E+00   2.9100E+00   2.1700E-04  0.0115
   2.9100E+00   2.9808E+00   2.2163E-04  0.0113
   2.9808E+00   3.0533E+00   2.2465E-04  0.0111
   3.0533E+00   3.1276E+00   2.2588E-04  0.0109
   3.1276E+00   3.2037E+00   2.2674E-04  0.0108
   3.2037E+00   3.2817E+00   2.2176E-04  0.0108
   3.2817E+00   3.3615E+00   2.2203E-04  0.0106
   3.3615E+00   3.4433E+00   2.1951E-04  0.0106
   3.4433E+00   3.5271E+00   2.3353E-04  0.0101
   3.5271E+00   3.6129E+00   2.3604E-04  0.0099
   3.6129E+00   3.7008E+00   2.3805E-04  0.0098
   3.7008E+00   3.7908E+00   2.3252E-04  0.0098
   3.7908E+00   3.8831E+00   2.3386E-04  0.0096
   3.8831E+00   3.9776E+00   2.3164E-04  0.0096
   3.9776E+00   4.0743E+00   2.3542E-04  0.0094
   4.0743E+00   4.1735E+00   2.3757E-04  0.0092
   4.1735E+00   4.2750E+00   2.2790E-04  0.0093
   4.2750E+00   4.3790E+00   2.2388E-04  0.0093
   4.3790E+00   4.4856E+00   2.2692E-04  0.0091
   4.4856E+00   4.5947E+00   2.2071E-04  0.0091
   4.5947E+00   4.7065E+00   2.2033E-04  0.0090
   4.7065E+00   4.8210E+00   2.1686E-04  0.0090
   4.8210E+00   4.9383E+00   2.1640E-04  0.0089
   4.9383E+00   5.0585E+00   2.1177E-04  0.0089
   5.0585E+00   5.1815E+00   2.0730E-04  0.0089
   5.1815E+00   5.3076E+00   2.0092E-04  0.0089
   5.3076E+00   5.4368E+00   1.9571E-04  0.0089
   5.4368E+00   5.5690E+00   1.8990E-04  0.0089
   5.5690E+00   5.7045E+00   1.8300E-04  0.0090
   5.7045E+00   5.8433E+00   1.8137E-04  0.0089
   5.8433E+00   5.9855E+00   1.7889E-04  0.0089
   5.9855E+00   6.1311E+00   1.7645E-04  0.0088
   6.1311E+00   6.2803E+00   1.6853E-04  0.0089
   6.2803E+00   6.4331E+00   1.6261E-04  0.0090
   6.4331E+00   6.5896E+00   1.5782E-04  0.0090
   6.5896E+00   6.7500E+00   1.5338E-04  0.0090
   6.7500E+00   6.9142E+00   1.5045E-04  0.0090
   6.9142E+00   7.0824E+00   1.4436E-04  0.0091
   7.0824E+00   7.2548E+00   1.3821E-04  0.0092
   7.2548E+00   7.4313E+00   1.3575E-04  0.0091
   7.4313E+00   7.6121E+00   1.2825E-04  0.0093
   7.6121E+00   7.7973E+00   1.2775E-04  0.0092
   7.7973E+00   7.9870E+00   1.2227E-04  0.0093
   7.9870E+00   8.1813E+00   1.1821E-04  0.0093
   8.1813E+00   8.3804E+00   1.1263E-04  0.0094
   8.3804E+00   8.5843E+00   1.0735E-04  0.0096
   8.5843E+00   8.7931E+00   1.0434E-04  0.0096
   8.7931E+00   9.0071E+00   9.9965E-05  0.0097
   9.0071E+00   9.2262E+00   9.7477E-05  0.0097
   9.2262E+00   9.4507E+00   9.4181E-05  0.0097
   9.4507E+00   9.6807E+00   9.0792E-05  0.0098
   9.6807E+00   9.9162E+00   8.6670E-05  0.0099
   9.9162E+00   1.0157E+01   8.3591E-05  0.0099
   1.0157E+01   1.0405E+01   8.1909E-05  0.0099
   1.0405E+01   1.0658E+01   7.5508E-05  0.0102
   1.0658E+01   1.0917E+01   7.3911E-05  0.0102
   1.0917E+01   1.1183E+01   6.9226E-05  0.0104
   1.1183E+01   1.1455E+01   6.7961E-05  0.0104
   1.1455E+01   1.1733E+01   6.4900E-05  0.0105
   1.1733E+01   1.2019E+01   6.2805E-05  0.0106
   1.2019E+01   1.2311E+01   5.9405E-05  0.0107
   1.2311E+01   1.2611E+01   5.9280E-05  0.0106
   1.2611E+01   1.2918E+01   5.5841E-05  0.0108
   1.2918E+01   1.3232E+01   5.3761E-05  0.0109
   1.3232E+01   1.3554E+01   5.2676E-05  0.0109
   1.3554E+01   1.3884E+01   5.0337E-05  0.0110
   1.3884E+01   1.4222E+01   4.7829E-05  0.0111
   1.4222E+01   1.4568E+01   4.6222E-05  0.0112
   1.4568E+01   1.4922E+01   4.4329E-05  0.0113
   1.4922E+01   1.5285E+01   4.2543E-05  0.0114
   1.5285E+01   1.5657E+01   4.0799E-05  0.0115
   1.5657E+01   1.6038E+01   4.0410E-05  0.0114
   1.6038E+01   1.6428E+01   3.8371E-05  0.0116
   1.6428E+01   1.6828E+01   3.6411E-05  0.0117
   1.6828E+01   1.7237E+01   3.4972E-05  0.0118
   1.7237E+01   1.7657E+01   3.2969E-05  0.0120
   1.7657E+01   1.8086E+01   3.2155E-05  0.0120
   1.8086E+01   1.8526E+01   3.0796E-05  0.0121
   1.8526E+01   1.8977E+01   2.9337E-05  0.0123
   1.8977E+01   1.9439E+01   2.8281E-05  0.0124
   1.9439E+01   1.9912E+01   2.7194E-05  0.0125
   1.9912E+01   2.0396E+01   2.6594E-05  0.0125
   2.0396E+01   2.0893E+01   2.6119E-05  0.0124
   2.0893E+01   2.1401E+01   2.4925E-05  0.0126
   2.1401E+01   2.1922E+01   2.3637E-05  0.0127
   2.1922E+01   2.2455E+01   2.2603E-05  0.0129
   2.2455E+01   2.3001E+01   2.1268E-05  0.0131
   2.3001E+01   2.3561E+01   2.0413E-05  0.0132
   2.3561E+01   2.4134E+01   1.9119E-05  0.0135
   2.4134E+01   2.4721E+01   1.8304E-05  0.0136
   2.4721E+01   2.5323E+01   1.7300E-05  0.0139
   2.5323E+01   2.5939E+01   1.6279E-05  0.0141
   2.5939E+01   2.6570E+01   1.5046E-05  0.0145
   2.6570E+01   2.7217E+01   1.3956E-05  0.0149
   2.7217E+01   2.7879E+01   1.3413E-05  0.0150
   2.7879E+01   2.8557E+01   1.2304E-05  0.0155
   2.8557E+01   2.9252E+01   1.1540E-05  0.0158
   2.9252E+01   2.9964E+01   1.0723E-05  0.0162
   2.9964E+01   3.0693E+01   9.9555E-06  0.0166
   3.0693E+01   3.1440E+01   8.6264E-06  0.0176
   3.1440E+01   3.2205E+01   8.3038E-06  0.0177
   3.2205E+01   3.2988E+01   7.7237E-06  0.0182
   3.2988E+01   3.3791E+01   6.8999E-06  0.0190
   3.3791E+01   3.4613E+01   6.2251E-06  0.0198
   3.4613E+01   3.5455E+01   5.7661E-06  0.0203
   3.5455E+01   3.6318E+01   5.1446E-06  0.0212
   3.6318E+01   3.7201E+01   4.7712E-06  0.0218
   3.7201E+01   3.8106E+01   4.1320E-06  0.0231
   3.8106E+01   3.9034E+01   3.7297E-06  0.0240
   3.9034E+01   3.9983E+01   3.2178E-06  0.0256
   3.9983E+01   4.0956E+01   2.9502E-06  0.0264
   4.0956E+01   4.1953E+01   2.4305E-06  0.0287
   4.1953E+01   4.2973E+01   2.2082E-06  0.0298
   4.2973E+01   4.4019E+01   1.9587E-06  0.0312
   4.4019E+01   4.5090E+01   1.7796E-06  0.0324
   4.5090E+01   4.6187E+01   1.5332E-06  0.0345
   4.6187E+01   4.7311E+01   1.2974E-06  0.0370
   4.7311E+01   4.8462E+01   1.1502E-06  0.0389
   4.8462E+01   4.9641E+01   9.9566E-07  0.0413
   4.9641E+01   5.0849E+01   8.7597E-07  0.0435
   5.0849E+01   5.2086E+01   7.6463E-07  0.0460
   5.2086E+01   5.3353E+01   6.6914E-07  0.0486
   5.3353E+01   5.4651E+01   5.1305E-07  0.0548
   5.4651E+01   5.5981E+01   4.4972E-07  0.0578
   5.5981E+01   5.7343E+01   4.1114E-07  0.0598
   5.7343E+01   5.8738E+01   2.9816E-07  0.0693
   5.8738E+01   6.0168E+01   2.6309E-07  0.0729
   6.0168E+01   6.1632E+01   2.1586E-07  0.0796
   6.1632E+01   6.3131E+01   1.9473E-07  0.0828
   6.3131E+01   6.4667E+01   1.5364E-07  0.0921
   6.4667E+01   6.6240E+01   1.4491E-07  0.0937
   6.6240E+01   6.7852E+01   9.4311E-08  0.1147
   6.7852E+01   6.9503E+01   8.1168E-08  0.1222
   6.9503E+01   7.1194E+01   7.0961E-08  0.1291
   7.1194E+01   7.2926E+01   2.6556E-08  0.2085
   7.2926E+01   7.4701E+01   2.1416E-08  0.2294
   7.4701E+01   7.6518E+01   1.6506E-08  0.2582
   7.6518E+01   7.8380E+01   4.2970E-09  0.5000
   7.8380E+01   8.0287E+01   3.1462E-09  0.5774
   8.0287E+01   8.2240E+01   0.0000E+00  0.0000
   8.2240E+01   8.4241E+01   0.0000E+00  0.0000
   8.4241E+01   8.6291E+01   0.0000E+00  0.0000
   8.6291E+01   8.8391E+01   0.0000E+00  0.0000
   8.8391E+01   9.0541E+01   0.0000E+00  0.0000
   9.0541E+01   9.2744E+01   0.0000E+00  0.0000
   9.2744E+01   9.5001E+01   0.0000E+00  0.0000
   9.5001E+01   9.7312E+01   0.0000E+00  0.0000
   9.7312E+01   9.9680E+01   0.0000E+00  0.0000
   9.9680E+01   1.0211E+02   0.0000E+00  0.0000
   1.0211E+02   1.0459E+02   0.0000E+00  0.0000
   1.0459E+02   1.0713E+02   0.0000E+00  0.0000
   1.0713E+02   1.0974E+02   0.0000E+00  0.0000
   1.0974E+02   1.1241E+02   0.0000E+00  0.0000
   1.1241E+02   1.1515E+02   0.0000E+00  0.0000
   1.1515E+02   1.1795E+02   0.0000E+00  0.0000
   1.1795E+02   1.2082E+02   0.0000E+00  0.0000
   1.2082E+02   1.2376E+02   0.0000E+00  0.0000
   1.2376E+02   1.2677E+02   0.0000E+00  0.0000
   1.2677E+02   1.2985E+02   0.0000E+00  0.0000
   1.2985E+02   1.3301E+02   0.0000E+00  0.0000
   1.3301E+02   1.3625E+02   0.0000E+00  0.0000
   1.3625E+02   1.3956E+02   0.0000E+00  0.0000
   1.3956E+02   1.4296E+02   0.0000E+00  0.0000
   1.4296E+02   1.4644E+02   0.0000E+00  0.0000
   1.4644E+02   1.5000E+02   0.0000E+00  0.0000

#   sum over                 1.5458E-05
'no. =    1   reg = 113 - 213'
msuc: {\huge [t-cross] in region mesh}
msdr: {\it plotted by \ANGEL \version}
msdl: {\it calculated by \PHITS  3.26}
wt: s(0.7)
\vspace{-3}
  region surface crossing
  area  &=&   1.0000E+00 [cm^2]
e:
 
# Information for Restart Calculation
# This calculation was newly started
# istdev =  2 # 1:Batch variance, 2:History variance
# resc2  = 5.00000000000000000E+08 # Total source weight or Total source weight / maxcas
# resc3  = 5.00000000000000000E+08 # Total history number or Total batch number
# maxcas =   500000000 # History / Batch, only used for istdev=1
# bitrseed = 1101101111010011011000101101110001100110110010110001010100010001 # bit data of rseed
