[ T-Cross ]
    title = [t-cross] in region mesh
     mesh =  reg            # mesh type is region-wise
      reg =    1            # number of crossing regions
      non     r-from    r-to       area
      1       113       213        1.000000    
   e-type =    3            # e-mesh is log given by emin, emax and ne
     emin =  1.0000000E-02  # minimum value of e-mesh points
     emax =   150.0000      # maximum value of e-mesh points
#    edel =  2.4039514E-02  # mesh width of e-mesh points
       ne =    400          # number of e-mesh points
#    data = ( e(i), i = 1, ne + 1 )
#           1.00000E-02  1.02433E-02  1.04925E-02  1.07478E-02  1.10093E-02
#           1.12772E-02  1.15516E-02  1.18326E-02  1.21205E-02  1.24154E-02
#           1.27175E-02  1.30269E-02  1.33439E-02  1.36686E-02  1.40011E-02
#           1.43418E-02  1.46907E-02  1.50482E-02  1.54143E-02  1.57894E-02
#           1.61735E-02  1.65670E-02  1.69701E-02  1.73830E-02  1.78060E-02
#           1.82392E-02  1.86830E-02  1.91375E-02  1.96032E-02  2.00801E-02
#           2.05687E-02  2.10692E-02  2.15818E-02  2.21069E-02  2.26448E-02
#           2.31957E-02  2.37601E-02  2.43382E-02  2.49304E-02  2.55369E-02
#           2.61583E-02  2.67947E-02  2.74467E-02  2.81145E-02  2.87985E-02
#           2.94992E-02  3.02169E-02  3.09521E-02  3.17052E-02  3.24766E-02
#           3.32668E-02  3.40762E-02  3.49053E-02  3.57546E-02  3.66246E-02
#           3.75157E-02  3.84284E-02  3.93634E-02  4.03212E-02  4.13022E-02
#           4.23071E-02  4.33365E-02  4.43909E-02  4.54710E-02  4.65773E-02
#           4.77106E-02  4.88714E-02  5.00605E-02  5.12785E-02  5.25262E-02
#           5.38042E-02  5.51133E-02  5.64542E-02  5.78278E-02  5.92348E-02
#           6.06760E-02  6.21523E-02  6.36645E-02  6.52135E-02  6.68002E-02
#           6.84255E-02  7.00904E-02  7.17957E-02  7.35426E-02  7.53319E-02
#           7.71648E-02  7.90423E-02  8.09655E-02  8.29354E-02  8.49533E-02
#           8.70203E-02  8.91376E-02  9.13064E-02  9.35279E-02  9.58035E-02
#           9.81345E-02  1.00522E-01  1.02968E-01  1.05473E-01  1.08040E-01
#           1.10668E-01  1.13361E-01  1.16119E-01  1.18944E-01  1.21838E-01
#           1.24803E-01  1.27839E-01  1.30950E-01  1.34136E-01  1.37399E-01
#           1.40742E-01  1.44167E-01  1.47675E-01  1.51268E-01  1.54948E-01
#           1.58718E-01  1.62580E-01  1.66535E-01  1.70587E-01  1.74738E-01
#           1.78989E-01  1.83344E-01  1.87805E-01  1.92375E-01  1.97055E-01
#           2.01850E-01  2.06761E-01  2.11792E-01  2.16945E-01  2.22223E-01
#           2.27630E-01  2.33169E-01  2.38842E-01  2.44653E-01  2.50605E-01
#           2.56703E-01  2.62949E-01  2.69346E-01  2.75900E-01  2.82613E-01
#           2.89489E-01  2.96532E-01  3.03747E-01  3.11138E-01  3.18708E-01
#           3.26462E-01  3.34405E-01  3.42542E-01  3.50876E-01  3.59413E-01
#           3.68158E-01  3.77116E-01  3.86291E-01  3.95690E-01  4.05317E-01
#           4.15179E-01  4.25281E-01  4.35628E-01  4.46227E-01  4.57084E-01
#           4.68205E-01  4.79597E-01  4.91266E-01  5.03219E-01  5.15463E-01
#           5.28005E-01  5.40851E-01  5.54011E-01  5.67490E-01  5.81298E-01
#           5.95441E-01  6.09929E-01  6.24769E-01  6.39970E-01  6.55541E-01
#           6.71491E-01  6.87828E-01  7.04564E-01  7.21706E-01  7.39266E-01
#           7.57253E-01  7.75678E-01  7.94551E-01  8.13883E-01  8.33685E-01
#           8.53969E-01  8.74747E-01  8.96030E-01  9.17831E-01  9.40163E-01
#           9.63038E-01  9.86469E-01  1.01047E+00  1.03506E+00  1.06024E+00
#           1.08604E+00  1.11246E+00  1.13953E+00  1.16725E+00  1.19565E+00
#           1.22474E+00  1.25454E+00  1.28507E+00  1.31633E+00  1.34836E+00
#           1.38117E+00  1.41477E+00  1.44920E+00  1.48446E+00  1.52057E+00
#           1.55757E+00  1.59547E+00  1.63429E+00  1.67405E+00  1.71478E+00
#           1.75650E+00  1.79924E+00  1.84302E+00  1.88786E+00  1.93379E+00
#           1.98084E+00  2.02904E+00  2.07841E+00  2.12898E+00  2.18078E+00
#           2.23384E+00  2.28819E+00  2.34386E+00  2.40089E+00  2.45930E+00
#           2.51914E+00  2.58043E+00  2.64322E+00  2.70753E+00  2.77341E+00
#           2.84088E+00  2.91001E+00  2.98081E+00  3.05333E+00  3.12762E+00
#           3.20372E+00  3.28167E+00  3.36152E+00  3.44330E+00  3.52708E+00
#           3.61290E+00  3.70080E+00  3.79085E+00  3.88308E+00  3.97756E+00
#           4.07434E+00  4.17347E+00  4.27501E+00  4.37903E+00  4.48557E+00
#           4.59471E+00  4.70650E+00  4.82102E+00  4.93832E+00  5.05847E+00
#           5.18155E+00  5.30762E+00  5.43676E+00  5.56904E+00  5.70453E+00
#           5.84333E+00  5.98550E+00  6.13114E+00  6.28031E+00  6.43312E+00
#           6.58964E+00  6.74997E+00  6.91420E+00  7.08243E+00  7.25475E+00
#           7.43126E+00  7.61207E+00  7.79728E+00  7.98700E+00  8.18133E+00
#           8.38038E+00  8.58428E+00  8.79315E+00  9.00709E+00  9.22624E+00
#           9.45072E+00  9.68067E+00  9.91620E+00  1.01575E+01  1.04046E+01
#           1.06578E+01  1.09171E+01  1.11827E+01  1.14548E+01  1.17335E+01
#           1.20190E+01  1.23114E+01  1.26109E+01  1.29178E+01  1.32321E+01
#           1.35540E+01  1.38838E+01  1.42216E+01  1.45676E+01  1.49221E+01
#           1.52851E+01  1.56570E+01  1.60380E+01  1.64282E+01  1.68279E+01
#           1.72374E+01  1.76568E+01  1.80864E+01  1.85264E+01  1.89772E+01
#           1.94389E+01  1.99119E+01  2.03963E+01  2.08926E+01  2.14009E+01
#           2.19216E+01  2.24550E+01  2.30014E+01  2.35610E+01  2.41343E+01
#           2.47215E+01  2.53230E+01  2.59391E+01  2.65702E+01  2.72167E+01
#           2.78789E+01  2.85572E+01  2.92520E+01  2.99637E+01  3.06928E+01
#           3.14396E+01  3.22045E+01  3.29881E+01  3.37907E+01  3.46128E+01
#           3.54550E+01  3.63177E+01  3.72013E+01  3.81064E+01  3.90336E+01
#           3.99833E+01  4.09561E+01  4.19526E+01  4.29734E+01  4.40189E+01
#           4.50900E+01  4.61870E+01  4.73108E+01  4.84619E+01  4.96410E+01
#           5.08488E+01  5.20860E+01  5.33533E+01  5.46514E+01  5.59812E+01
#           5.73432E+01  5.87384E+01  6.01676E+01  6.16315E+01  6.31311E+01
#           6.46671E+01  6.62405E+01  6.78522E+01  6.95031E+01  7.11941E+01
#           7.29263E+01  7.47007E+01  7.65182E+01  7.83800E+01  8.02870E+01
#           8.22405E+01  8.42414E+01  8.62911E+01  8.83906E+01  9.05412E+01
#           9.27442E+01  9.50007E+01  9.73122E+01  9.96799E+01  1.02105E+02
#           1.04589E+02  1.07134E+02  1.09741E+02  1.12411E+02  1.15146E+02
#           1.17948E+02  1.20817E+02  1.23757E+02  1.26768E+02  1.29852E+02
#           1.33012E+02  1.36248E+02  1.39563E+02  1.42959E+02  1.46437E+02
#           1.50000E+02
     unit =    2            # unit is [1/cm^2/(MeV/n)/source]
     axis =  eng            # axis of output
     file = detector-14.out  # file name of output for the above axis
   output = f-curr          # surface crossing forward current spectrum
     part =  neutron  
# kf/name :  2112     
#    used :        main (  %)        temp (  %)       total (  %)
#  memory :         414 (  0)           0 (  0)         414 (  0)

#------------------------------------------------------------------------------
#newpage:
#   no. =    1   reg = 113 - 213

x: Energy [MeV/n]
y:  F-Curr [1/cm^2/(MeV/n)/source]         
p: xlog ylog afac(0.8) form(0.9)
h: n            x            y(neutron ),hh0l   n 
#  e-lower      e-upper      neutron     r.err 
   1.0000E-02   1.0243E-02   2.6238E-03  0.0250
   1.0243E-02   1.0493E-02   2.6530E-03  0.0246
   1.0493E-02   1.0748E-02   2.5712E-03  0.0247
   1.0748E-02   1.1009E-02   2.5147E-03  0.0247
   1.1009E-02   1.1277E-02   2.4490E-03  0.0247
   1.1277E-02   1.1552E-02   2.4265E-03  0.0245
   1.1552E-02   1.1833E-02   2.3255E-03  0.0247
   1.1833E-02   1.2121E-02   2.2703E-03  0.0247
   1.2121E-02   1.2415E-02   2.3262E-03  0.0241
   1.2415E-02   1.2718E-02   2.2524E-03  0.0242
   1.2718E-02   1.3027E-02   2.2041E-03  0.0242
   1.3027E-02   1.3344E-02   2.0823E-03  0.0246
   1.3344E-02   1.3669E-02   2.1289E-03  0.0241
   1.3669E-02   1.4001E-02   2.0567E-03  0.0242
   1.4001E-02   1.4342E-02   2.0044E-03  0.0242
   1.4342E-02   1.4691E-02   1.9934E-03  0.0240
   1.4691E-02   1.5048E-02   2.0043E-03  0.0236
   1.5048E-02   1.5414E-02   1.9064E-03  0.0239
   1.5414E-02   1.5789E-02   1.9134E-03  0.0236
   1.5789E-02   1.6174E-02   1.8554E-03  0.0237
   1.6174E-02   1.6567E-02   1.7890E-03  0.0238
   1.6567E-02   1.6970E-02   1.8904E-03  0.0229
   1.6970E-02   1.7383E-02   1.7971E-03  0.0232
   1.7383E-02   1.7806E-02   1.7374E-03  0.0233
   1.7806E-02   1.8239E-02   1.6716E-03  0.0235
   1.8239E-02   1.8683E-02   1.5909E-03  0.0238
   1.8683E-02   1.9138E-02   1.6041E-03  0.0234
   1.9138E-02   1.9603E-02   1.6081E-03  0.0231
   1.9603E-02   2.0080E-02   1.5293E-03  0.0234
   2.0080E-02   2.0569E-02   1.4966E-03  0.0234
   2.0569E-02   2.1069E-02   1.5434E-03  0.0228
   2.1069E-02   2.1582E-02   1.4755E-03  0.0230
   2.1582E-02   2.2107E-02   1.5007E-03  0.0225
   2.2107E-02   2.2645E-02   1.4888E-03  0.0223
   2.2645E-02   2.3196E-02   1.4012E-03  0.0228
   2.3196E-02   2.3760E-02   1.3335E-03  0.0231
   2.3760E-02   2.4338E-02   1.3665E-03  0.0225
   2.4338E-02   2.4930E-02   1.3537E-03  0.0223
   2.4930E-02   2.5537E-02   1.3459E-03  0.0221
   2.5537E-02   2.6158E-02   1.3320E-03  0.0220
   2.6158E-02   2.6795E-02   1.2934E-03  0.0220
   2.6795E-02   2.7447E-02   1.2879E-03  0.0218
   2.7447E-02   2.8114E-02   1.2372E-03  0.0220
   2.8114E-02   2.8799E-02   1.2218E-03  0.0219
   2.8799E-02   2.9499E-02   1.2311E-03  0.0215
   2.9499E-02   3.0217E-02   1.1687E-03  0.0218
   3.0217E-02   3.0952E-02   1.1850E-03  0.0214
   3.0952E-02   3.1705E-02   1.1680E-03  0.0213
   3.1705E-02   3.2477E-02   1.1247E-03  0.0215
   3.2477E-02   3.3267E-02   1.0853E-03  0.0216
   3.3267E-02   3.4076E-02   1.0724E-03  0.0215
   3.4076E-02   3.4905E-02   1.0402E-03  0.0215
   3.4905E-02   3.5755E-02   1.0392E-03  0.0213
   3.5755E-02   3.6625E-02   9.9042E-04  0.0215
   3.6625E-02   3.7516E-02   1.0028E-03  0.0212
   3.7516E-02   3.8428E-02   9.9673E-04  0.0210
   3.8428E-02   3.9363E-02   9.3091E-04  0.0214
   3.9363E-02   4.0321E-02   9.5099E-04  0.0210
   4.0321E-02   4.1302E-02   9.3574E-04  0.0209
   4.1302E-02   4.2307E-02   9.0117E-04  0.0210
   4.2307E-02   4.3337E-02   8.6772E-04  0.0212
   4.3337E-02   4.4391E-02   8.6835E-04  0.0209
   4.4391E-02   4.5471E-02   8.4495E-04  0.0209
   4.5471E-02   4.6577E-02   8.0554E-04  0.0212
   4.6577E-02   4.7711E-02   8.1499E-04  0.0208
   4.7711E-02   4.8871E-02   8.2389E-04  0.0205
   4.8871E-02   5.0061E-02   7.9372E-04  0.0206
   5.0061E-02   5.1279E-02   7.8193E-04  0.0205
   5.1279E-02   5.2526E-02   7.6656E-04  0.0205
   5.2526E-02   5.3804E-02   7.6150E-04  0.0203
   5.3804E-02   5.5113E-02   7.3913E-04  0.0203
   5.5113E-02   5.6454E-02   7.0815E-04  0.0205
   5.6454E-02   5.7828E-02   7.0094E-04  0.0204
   5.7828E-02   5.9235E-02   7.0391E-04  0.0201
   5.9235E-02   6.0676E-02   6.6443E-04  0.0204
   6.0676E-02   6.2152E-02   6.7141E-04  0.0201
   6.2152E-02   6.3665E-02   6.4515E-04  0.0202
   6.3665E-02   6.5214E-02   6.3705E-04  0.0201
   6.5214E-02   6.6800E-02   6.5217E-04  0.0197
   6.6800E-02   6.8426E-02   6.2536E-04  0.0198
   6.8426E-02   7.0090E-02   6.1387E-04  0.0198
   7.0090E-02   7.1796E-02   6.1641E-04  0.0195
   7.1796E-02   7.3543E-02   6.1116E-04  0.0194
   7.3543E-02   7.5332E-02   5.9832E-04  0.0193
   7.5332E-02   7.7165E-02   5.9851E-04  0.0191
   7.7165E-02   7.9042E-02   5.8738E-04  0.0190
   7.9042E-02   8.0965E-02   5.7645E-04  0.0190
   8.0965E-02   8.2935E-02   5.3697E-04  0.0194
   8.2935E-02   8.4953E-02   5.3244E-04  0.0193
   8.4953E-02   8.7020E-02   5.3411E-04  0.0190
   8.7020E-02   8.9138E-02   5.1226E-04  0.0192
   8.9138E-02   9.1306E-02   5.2518E-04  0.0187
   9.1306E-02   9.3528E-02   5.1117E-04  0.0188
   9.3528E-02   9.5804E-02   4.9622E-04  0.0188
   9.5804E-02   9.8134E-02   4.8589E-04  0.0188
   9.8134E-02   1.0052E-01   4.7963E-04  0.0187
   1.0052E-01   1.0297E-01   4.6325E-04  0.0188
   1.0297E-01   1.0547E-01   4.5456E-04  0.0187
   1.0547E-01   1.0804E-01   4.4501E-04  0.0187
   1.0804E-01   1.1067E-01   4.4281E-04  0.0185
   1.1067E-01   1.1336E-01   4.3934E-04  0.0184
   1.1336E-01   1.1612E-01   4.1956E-04  0.0186
   1.1612E-01   1.1894E-01   4.3352E-04  0.0181
   1.1894E-01   1.2184E-01   4.2467E-04  0.0180
   1.2184E-01   1.2480E-01   4.2194E-04  0.0179
   1.2480E-01   1.2784E-01   4.0783E-04  0.0180
   1.2784E-01   1.3095E-01   4.0187E-04  0.0179
   1.3095E-01   1.3414E-01   3.8134E-04  0.0181
   1.3414E-01   1.3740E-01   3.8546E-04  0.0178
   1.3740E-01   1.4074E-01   3.9844E-04  0.0173
   1.4074E-01   1.4417E-01   3.7583E-04  0.0176
   1.4417E-01   1.4767E-01   3.5887E-04  0.0178
   1.4767E-01   1.5127E-01   3.5775E-04  0.0176
   1.5127E-01   1.5495E-01   3.5800E-04  0.0174
   1.5495E-01   1.5872E-01   3.4960E-04  0.0174
   1.5872E-01   1.6258E-01   3.3700E-04  0.0175
   1.6258E-01   1.6654E-01   3.3263E-04  0.0174
   1.6654E-01   1.7059E-01   3.2340E-04  0.0175
   1.7059E-01   1.7474E-01   3.2434E-04  0.0172
   1.7474E-01   1.7899E-01   3.2638E-04  0.0170
   1.7899E-01   1.8334E-01   3.0218E-04  0.0174
   1.8334E-01   1.8781E-01   2.9823E-04  0.0173
   1.8781E-01   1.9237E-01   3.0524E-04  0.0169
   1.9237E-01   1.9706E-01   2.9970E-04  0.0169
   1.9706E-01   2.0185E-01   2.8128E-04  0.0172
   2.0185E-01   2.0676E-01   2.8967E-04  0.0168
   2.0676E-01   2.1179E-01   2.8883E-04  0.0166
   2.1179E-01   2.1694E-01   2.7494E-04  0.0168
   2.1694E-01   2.2222E-01   2.7038E-04  0.0167
   2.2222E-01   2.2763E-01   2.6914E-04  0.0166
   2.2763E-01   2.3317E-01   2.6484E-04  0.0165
   2.3317E-01   2.3884E-01   2.5901E-04  0.0165
   2.3884E-01   2.4465E-01   2.5633E-04  0.0164
   2.4465E-01   2.5061E-01   2.5286E-04  0.0163
   2.5061E-01   2.5670E-01   2.5158E-04  0.0161
   2.5670E-01   2.6295E-01   2.3594E-04  0.0165
   2.6295E-01   2.6935E-01   2.3586E-04  0.0163
   2.6935E-01   2.7590E-01   2.2660E-04  0.0164
   2.7590E-01   2.8261E-01   2.2715E-04  0.0162
   2.8261E-01   2.8949E-01   2.2387E-04  0.0161
   2.8949E-01   2.9653E-01   2.1132E-04  0.0164
   2.9653E-01   3.0375E-01   2.1683E-04  0.0160
   3.0375E-01   3.1114E-01   2.0686E-04  0.0162
   3.1114E-01   3.1871E-01   2.0739E-04  0.0160
   3.1871E-01   3.2646E-01   2.0329E-04  0.0159
   3.2646E-01   3.3441E-01   1.9768E-04  0.0160
   3.3441E-01   3.4254E-01   1.9547E-04  0.0159
   3.4254E-01   3.5088E-01   1.8907E-04  0.0159
   3.5088E-01   3.5941E-01   1.8760E-04  0.0158
   3.5941E-01   3.6816E-01   1.8468E-04  0.0157
   3.6816E-01   3.7712E-01   1.8050E-04  0.0157
   3.7712E-01   3.8629E-01   1.7283E-04  0.0159
   3.8629E-01   3.9569E-01   1.7364E-04  0.0157
   3.9569E-01   4.0532E-01   1.7662E-04  0.0153
   4.0532E-01   4.1518E-01   1.6669E-04  0.0156
   4.1518E-01   4.2528E-01   1.6338E-04  0.0156
   4.2528E-01   4.3563E-01   1.5530E-04  0.0158
   4.3563E-01   4.4623E-01   1.5699E-04  0.0155
   4.4623E-01   4.5708E-01   1.5284E-04  0.0155
   4.5708E-01   4.6821E-01   1.5272E-04  0.0153
   4.6821E-01   4.7960E-01   1.4930E-04  0.0153
   4.7960E-01   4.9127E-01   1.4455E-04  0.0154
   4.9127E-01   5.0322E-01   1.3563E-04  0.0157
   5.0322E-01   5.1546E-01   1.3620E-04  0.0155
   5.1546E-01   5.2800E-01   1.3697E-04  0.0153
   5.2800E-01   5.4085E-01   1.2674E-04  0.0157
   5.4085E-01   5.5401E-01   1.2908E-04  0.0153
   5.5401E-01   5.6749E-01   1.2618E-04  0.0153
   5.6749E-01   5.8130E-01   1.2078E-04  0.0155
   5.8130E-01   5.9544E-01   1.1939E-04  0.0154
   5.9544E-01   6.0993E-01   1.1421E-04  0.0155
   6.0993E-01   6.2477E-01   1.1823E-04  0.0151
   6.2477E-01   6.3997E-01   1.0857E-04  0.0156
   6.3997E-01   6.5554E-01   1.0612E-04  0.0156
   6.5554E-01   6.7149E-01   1.0839E-04  0.0152
   6.7149E-01   6.8783E-01   1.0135E-04  0.0155
   6.8783E-01   7.0456E-01   9.7135E-05  0.0157
   7.0456E-01   7.2171E-01   9.6928E-05  0.0155
   7.2171E-01   7.3927E-01   9.0434E-05  0.0159
   7.3927E-01   7.5725E-01   8.9521E-05  0.0158
   7.5725E-01   7.7568E-01   8.9120E-05  0.0156
   7.7568E-01   7.9455E-01   8.5106E-05  0.0158
   7.9455E-01   8.1388E-01   8.1047E-05  0.0160
   8.1388E-01   8.3368E-01   7.8092E-05  0.0161
   8.3368E-01   8.5397E-01   7.8741E-05  0.0158
   8.5397E-01   8.7475E-01   7.2799E-05  0.0163
   8.7475E-01   8.9603E-01   7.1211E-05  0.0162
   8.9603E-01   9.1783E-01   6.8556E-05  0.0164
   9.1783E-01   9.4016E-01   6.5987E-05  0.0165
   9.4016E-01   9.6304E-01   6.2042E-05  0.0168
   9.6304E-01   9.8647E-01   5.9407E-05  0.0170
   9.8647E-01   1.0105E+00   5.8413E-05  0.0169
   1.0105E+00   1.0351E+00   5.6049E-05  0.0170
   1.0351E+00   1.0602E+00   5.6433E-05  0.0168
   1.0602E+00   1.0860E+00   5.8721E-05  0.0162
   1.0860E+00   1.1125E+00   5.8855E-05  0.0160
   1.1125E+00   1.1395E+00   6.3139E-05  0.0153
   1.1395E+00   1.1673E+00   6.3472E-05  0.0151
   1.1673E+00   1.1957E+00   6.6591E-05  0.0145
   1.1957E+00   1.2247E+00   6.8818E-05  0.0141
   1.2247E+00   1.2545E+00   6.7922E-05  0.0141
   1.2545E+00   1.2851E+00   6.7023E-05  0.0140
   1.2851E+00   1.3163E+00   6.8987E-05  0.0136
   1.3163E+00   1.3484E+00   7.0589E-05  0.0133
   1.3484E+00   1.3812E+00   7.1900E-05  0.0130
   1.3812E+00   1.4148E+00   7.2239E-05  0.0128
   1.4148E+00   1.4492E+00   7.2784E-05  0.0126
   1.4492E+00   1.4845E+00   7.2212E-05  0.0125
   1.4845E+00   1.5206E+00   7.3697E-05  0.0123
   1.5206E+00   1.5576E+00   7.3098E-05  0.0122
   1.5576E+00   1.5955E+00   7.3151E-05  0.0120
   1.5955E+00   1.6343E+00   7.5916E-05  0.0117
   1.6343E+00   1.6741E+00   7.6095E-05  0.0115
   1.6741E+00   1.7148E+00   7.7062E-05  0.0113
   1.7148E+00   1.7565E+00   7.6976E-05  0.0112
   1.7565E+00   1.7992E+00   7.6552E-05  0.0111
   1.7992E+00   1.8430E+00   7.5985E-05  0.0110
   1.8430E+00   1.8879E+00   7.6678E-05  0.0108
   1.8879E+00   1.9338E+00   7.5767E-05  0.0107
   1.9338E+00   1.9808E+00   7.5842E-05  0.0106
   1.9808E+00   2.0290E+00   7.5908E-05  0.0105
   2.0290E+00   2.0784E+00   7.5162E-05  0.0104
   2.0784E+00   2.1290E+00   7.5516E-05  0.0102
   2.1290E+00   2.1808E+00   7.2406E-05  0.0103
   2.1808E+00   2.2338E+00   6.9845E-05  0.0104
   2.2338E+00   2.2882E+00   7.2506E-05  0.0101
   2.2882E+00   2.3439E+00   7.1682E-05  0.0100
   2.3439E+00   2.4009E+00   7.1849E-05  0.0099
   2.4009E+00   2.4593E+00   6.9786E-05  0.0099
   2.4593E+00   2.5191E+00   6.9105E-05  0.0098
   2.5191E+00   2.5804E+00   6.6726E-05  0.0099
   2.5804E+00   2.6432E+00   6.5236E-05  0.0099
   2.6432E+00   2.7075E+00   6.4408E-05  0.0098
   2.7075E+00   2.7734E+00   6.2724E-05  0.0098
   2.7734E+00   2.8409E+00   6.2425E-05  0.0097
   2.8409E+00   2.9100E+00   6.1967E-05  0.0097
   2.9100E+00   2.9808E+00   6.2427E-05  0.0095
   2.9808E+00   3.0533E+00   5.9764E-05  0.0096
   3.0533E+00   3.1276E+00   5.7211E-05  0.0097
   3.1276E+00   3.2037E+00   5.5576E-05  0.0097
   3.2037E+00   3.2817E+00   5.4495E-05  0.0097
   3.2817E+00   3.3615E+00   5.2822E-05  0.0097
   3.3615E+00   3.4433E+00   5.0697E-05  0.0098
   3.4433E+00   3.5271E+00   5.0276E-05  0.0097
   3.5271E+00   3.6129E+00   4.8937E-05  0.0098
   3.6129E+00   3.7008E+00   4.8154E-05  0.0097
   3.7008E+00   3.7908E+00   4.6551E-05  0.0098
   3.7908E+00   3.8831E+00   4.5829E-05  0.0097
   3.8831E+00   3.9776E+00   4.3919E-05  0.0098
   3.9776E+00   4.0743E+00   4.3651E-05  0.0097
   4.0743E+00   4.1735E+00   4.1754E-05  0.0098
   4.1735E+00   4.2750E+00   3.9908E-05  0.0099
   4.2750E+00   4.3790E+00   3.8968E-05  0.0099
   4.3790E+00   4.4856E+00   3.8155E-05  0.0099
   4.4856E+00   4.5947E+00   3.6810E-05  0.0100
   4.5947E+00   4.7065E+00   3.5906E-05  0.0100
   4.7065E+00   4.8210E+00   3.5875E-05  0.0099
   4.8210E+00   4.9383E+00   3.4865E-05  0.0099
   4.9383E+00   5.0585E+00   3.3742E-05  0.0099
   5.0585E+00   5.1815E+00   3.2225E-05  0.0100
   5.1815E+00   5.3076E+00   3.1477E-05  0.0100
   5.3076E+00   5.4368E+00   3.1134E-05  0.0100
   5.4368E+00   5.5690E+00   3.0153E-05  0.0100
   5.5690E+00   5.7045E+00   2.9109E-05  0.0101
   5.7045E+00   5.8433E+00   2.8958E-05  0.0100
   5.8433E+00   5.9855E+00   2.8467E-05  0.0099
   5.9855E+00   6.1311E+00   2.8234E-05  0.0099
   6.1311E+00   6.2803E+00   2.7814E-05  0.0098
   6.2803E+00   6.4331E+00   2.7315E-05  0.0098
   6.4331E+00   6.5896E+00   2.6943E-05  0.0097
   6.5896E+00   6.7500E+00   2.6549E-05  0.0097
   6.7500E+00   6.9142E+00   2.6493E-05  0.0096
   6.9142E+00   7.0824E+00   2.6570E-05  0.0095
   7.0824E+00   7.2548E+00   2.6533E-05  0.0094
   7.2548E+00   7.4313E+00   2.6223E-05  0.0093
   7.4313E+00   7.6121E+00   2.6042E-05  0.0092
   7.6121E+00   7.7973E+00   2.5695E-05  0.0092
   7.7973E+00   7.9870E+00   2.6180E-05  0.0090
   7.9870E+00   8.1813E+00   2.6696E-05  0.0088
   8.1813E+00   8.3804E+00   2.5731E-05  0.0088
   8.3804E+00   8.5843E+00   2.6122E-05  0.0087
   8.5843E+00   8.7931E+00   2.6197E-05  0.0085
   8.7931E+00   9.0071E+00   2.6267E-05  0.0084
   9.0071E+00   9.2262E+00   2.6535E-05  0.0083
   9.2262E+00   9.4507E+00   2.6449E-05  0.0082
   9.4507E+00   9.6807E+00   2.7001E-05  0.0080
   9.6807E+00   9.9162E+00   2.6626E-05  0.0080
   9.9162E+00   1.0157E+01   2.7415E-05  0.0078
   1.0157E+01   1.0405E+01   2.7310E-05  0.0077
   1.0405E+01   1.0658E+01   2.7814E-05  0.0075
   1.0658E+01   1.0917E+01   2.8283E-05  0.0074
   1.0917E+01   1.1183E+01   2.8937E-05  0.0072
   1.1183E+01   1.1455E+01   2.8904E-05  0.0071
   1.1455E+01   1.1733E+01   2.9566E-05  0.0070
   1.1733E+01   1.2019E+01   2.9550E-05  0.0069
   1.2019E+01   1.2311E+01   2.9749E-05  0.0068
   1.2311E+01   1.2611E+01   3.0191E-05  0.0066
   1.2611E+01   1.2918E+01   3.0752E-05  0.0065
   1.2918E+01   1.3232E+01   3.1367E-05  0.0064
   1.3232E+01   1.3554E+01   3.1285E-05  0.0063
   1.3554E+01   1.3884E+01   3.1747E-05  0.0062
   1.3884E+01   1.4222E+01   3.2600E-05  0.0060
   1.4222E+01   1.4568E+01   3.2438E-05  0.0060
   1.4568E+01   1.4922E+01   3.2917E-05  0.0058
   1.4922E+01   1.5285E+01   3.3117E-05  0.0058
   1.5285E+01   1.5657E+01   3.3627E-05  0.0057
   1.5657E+01   1.6038E+01   3.3751E-05  0.0056
   1.6038E+01   1.6428E+01   3.3948E-05  0.0055
   1.6428E+01   1.6828E+01   3.3879E-05  0.0054
   1.6828E+01   1.7237E+01   3.4002E-05  0.0054
   1.7237E+01   1.7657E+01   3.3992E-05  0.0053
   1.7657E+01   1.8086E+01   3.4411E-05  0.0052
   1.8086E+01   1.8526E+01   3.4431E-05  0.0051
   1.8526E+01   1.8977E+01   3.4046E-05  0.0051
   1.8977E+01   1.9439E+01   3.4566E-05  0.0050
   1.9439E+01   1.9912E+01   3.4252E-05  0.0050
   1.9912E+01   2.0396E+01   5.2840E-05  0.0040
   2.0396E+01   2.0893E+01   5.8750E-05  0.0037
   2.0893E+01   2.1401E+01   5.7998E-05  0.0037
   2.1401E+01   2.1922E+01   5.5961E-05  0.0037
   2.1922E+01   2.2455E+01   5.4707E-05  0.0037
   2.2455E+01   2.3001E+01   5.3373E-05  0.0037
   2.3001E+01   2.3561E+01   5.1486E-05  0.0037
   2.3561E+01   2.4134E+01   4.9911E-05  0.0037
   2.4134E+01   2.4721E+01   4.8762E-05  0.0037
   2.4721E+01   2.5323E+01   4.6527E-05  0.0038
   2.5323E+01   2.5939E+01   4.4955E-05  0.0038
   2.5939E+01   2.6570E+01   4.3944E-05  0.0038
   2.6570E+01   2.7217E+01   4.2213E-05  0.0038
   2.7217E+01   2.7879E+01   4.0770E-05  0.0038
   2.7879E+01   2.8557E+01   3.9188E-05  0.0039
   2.8557E+01   2.9252E+01   3.7491E-05  0.0039
   2.9252E+01   2.9964E+01   3.5705E-05  0.0040
   2.9964E+01   3.0693E+01   3.4208E-05  0.0040
   3.0693E+01   3.1440E+01   3.2865E-05  0.0040
   3.1440E+01   3.2205E+01   3.1183E-05  0.0041
   3.2205E+01   3.2988E+01   2.9787E-05  0.0041
   3.2988E+01   3.3791E+01   2.8377E-05  0.0042
   3.3791E+01   3.4613E+01   2.6614E-05  0.0043
   3.4613E+01   3.5455E+01   2.4982E-05  0.0044
   3.5455E+01   3.6318E+01   2.3735E-05  0.0044
   3.6318E+01   3.7201E+01   2.2196E-05  0.0045
   3.7201E+01   3.8106E+01   2.0910E-05  0.0046
   3.8106E+01   3.9034E+01   1.9469E-05  0.0047
   3.9034E+01   3.9983E+01   1.8058E-05  0.0048
   3.9983E+01   4.0956E+01   1.6870E-05  0.0049
   4.0956E+01   4.1953E+01   1.5728E-05  0.0051
   4.1953E+01   4.2973E+01   1.4550E-05  0.0052
   4.2973E+01   4.4019E+01   1.3276E-05  0.0054
   4.4019E+01   4.5090E+01   1.2320E-05  0.0055
   4.5090E+01   4.6187E+01   1.1238E-05  0.0057
   4.6187E+01   4.7311E+01   1.0239E-05  0.0059
   4.7311E+01   4.8462E+01   9.3489E-06  0.0061
   4.8462E+01   4.9641E+01   8.4680E-06  0.0063
   4.9641E+01   5.0849E+01   7.6582E-06  0.0066
   5.0849E+01   5.2086E+01   6.8400E-06  0.0069
   5.2086E+01   5.3353E+01   6.1833E-06  0.0071
   5.3353E+01   5.4651E+01   5.4851E-06  0.0075
   5.4651E+01   5.5981E+01   4.8985E-06  0.0078
   5.5981E+01   5.7343E+01   4.4230E-06  0.0081
   5.7343E+01   5.8738E+01   3.8552E-06  0.0086
   5.8738E+01   6.0168E+01   3.3914E-06  0.0091
   6.0168E+01   6.1632E+01   2.9991E-06  0.0095
   6.1632E+01   6.3131E+01   2.5320E-06  0.0103
   6.3131E+01   6.4667E+01   2.2760E-06  0.0107
   6.4667E+01   6.6240E+01   1.9568E-06  0.0114
   6.6240E+01   6.7852E+01   1.6797E-06  0.0122
   6.7852E+01   6.9503E+01   1.4261E-06  0.0130
   6.9503E+01   7.1194E+01   1.2014E-06  0.0140
   7.1194E+01   7.2926E+01   1.0013E-06  0.0152
   7.2926E+01   7.4701E+01   8.5124E-07  0.0163
   7.4701E+01   7.6518E+01   7.2780E-07  0.0174
   7.6518E+01   7.8380E+01   5.9492E-07  0.0190
   7.8380E+01   8.0287E+01   4.7487E-07  0.0210
   8.0287E+01   8.2240E+01   3.8762E-07  0.0230
   8.2240E+01   8.4241E+01   3.1045E-07  0.0254
   8.4241E+01   8.6291E+01   2.4609E-07  0.0282
   8.6291E+01   8.8391E+01   2.0881E-07  0.0302
   8.8391E+01   9.0541E+01   1.5251E-07  0.0349
   9.0541E+01   9.2744E+01   1.2438E-07  0.0382
   9.2744E+01   9.5001E+01   9.4658E-08  0.0433
   9.5001E+01   9.7312E+01   6.1260E-08  0.0531
   9.7312E+01   9.9680E+01   5.3386E-08  0.0563
   9.9680E+01   1.0211E+02   3.9253E-08  0.0648
   1.0211E+02   1.0459E+02   2.7372E-08  0.0767
   1.0459E+02   1.0713E+02   2.1063E-08  0.0864
   1.0713E+02   1.0974E+02   1.5038E-08  0.1010
   1.0974E+02   1.1241E+02   9.5877E-09  0.1250
   1.1241E+02   1.1515E+02   4.6800E-09  0.1768
   1.1515E+02   1.1795E+02   2.9983E-09  0.2182
   1.1795E+02   1.2082E+02   2.2302E-09  0.2500
   1.2082E+02   1.2376E+02   9.5252E-10  0.3780
   1.2376E+02   1.2677E+02   0.0000E+00  0.0000
   1.2677E+02   1.2985E+02   0.0000E+00  0.0000
   1.2985E+02   1.3301E+02   0.0000E+00  0.0000
   1.3301E+02   1.3625E+02   0.0000E+00  0.0000
   1.3625E+02   1.3956E+02   0.0000E+00  0.0000
   1.3956E+02   1.4296E+02   0.0000E+00  0.0000
   1.4296E+02   1.4644E+02   0.0000E+00  0.0000
   1.4644E+02   1.5000E+02   0.0000E+00  0.0000

#   sum over                 1.2295E-05
'no. =    1   reg = 113 - 213'
msuc: {\huge [t-cross] in region mesh}
msdr: {\it plotted by \ANGEL \version}
msdl: {\it calculated by \PHITS  3.26}
wt: s(0.7)
\vspace{-3}
  region surface crossing
  area  &=&   1.0000E+00 [cm^2]
e:
 
# Information for Restart Calculation
# This calculation was newly started
# istdev =  2 # 1:Batch variance, 2:History variance
# resc2  = 2.50000000000000000E+09 # Total source weight or Total source weight / maxcas
# resc3  = 2.50000000000000000E+09 # Total history number or Total batch number
# maxcas =   500000000 # History / Batch, only used for istdev=1
# bitrseed = 1100001110001001100010001100011001110101000011000110100101010100 # bit data of rseed
