[ T-Cross ]
    title = [t-cross] in region mesh
     mesh =  reg            # mesh type is region-wise
      reg =    1            # number of crossing regions
      non     r-from    r-to       area
      1       112       212        1.000000    
   e-type =    3            # e-mesh is log given by emin, emax and ne
     emin =  1.0000000E-02  # minimum value of e-mesh points
     emax =   150.0000      # maximum value of e-mesh points
#    edel =  2.4039514E-02  # mesh width of e-mesh points
       ne =    400          # number of e-mesh points
#    data = ( e(i), i = 1, ne + 1 )
#           1.00000E-02  1.02433E-02  1.04925E-02  1.07478E-02  1.10093E-02
#           1.12772E-02  1.15516E-02  1.18326E-02  1.21205E-02  1.24154E-02
#           1.27175E-02  1.30269E-02  1.33439E-02  1.36686E-02  1.40011E-02
#           1.43418E-02  1.46907E-02  1.50482E-02  1.54143E-02  1.57894E-02
#           1.61735E-02  1.65670E-02  1.69701E-02  1.73830E-02  1.78060E-02
#           1.82392E-02  1.86830E-02  1.91375E-02  1.96032E-02  2.00801E-02
#           2.05687E-02  2.10692E-02  2.15818E-02  2.21069E-02  2.26448E-02
#           2.31957E-02  2.37601E-02  2.43382E-02  2.49304E-02  2.55369E-02
#           2.61583E-02  2.67947E-02  2.74467E-02  2.81145E-02  2.87985E-02
#           2.94992E-02  3.02169E-02  3.09521E-02  3.17052E-02  3.24766E-02
#           3.32668E-02  3.40762E-02  3.49053E-02  3.57546E-02  3.66246E-02
#           3.75157E-02  3.84284E-02  3.93634E-02  4.03212E-02  4.13022E-02
#           4.23071E-02  4.33365E-02  4.43909E-02  4.54710E-02  4.65773E-02
#           4.77106E-02  4.88714E-02  5.00605E-02  5.12785E-02  5.25262E-02
#           5.38042E-02  5.51133E-02  5.64542E-02  5.78278E-02  5.92348E-02
#           6.06760E-02  6.21523E-02  6.36645E-02  6.52135E-02  6.68002E-02
#           6.84255E-02  7.00904E-02  7.17957E-02  7.35426E-02  7.53319E-02
#           7.71648E-02  7.90423E-02  8.09655E-02  8.29354E-02  8.49533E-02
#           8.70203E-02  8.91376E-02  9.13064E-02  9.35279E-02  9.58035E-02
#           9.81345E-02  1.00522E-01  1.02968E-01  1.05473E-01  1.08040E-01
#           1.10668E-01  1.13361E-01  1.16119E-01  1.18944E-01  1.21838E-01
#           1.24803E-01  1.27839E-01  1.30950E-01  1.34136E-01  1.37399E-01
#           1.40742E-01  1.44167E-01  1.47675E-01  1.51268E-01  1.54948E-01
#           1.58718E-01  1.62580E-01  1.66535E-01  1.70587E-01  1.74738E-01
#           1.78989E-01  1.83344E-01  1.87805E-01  1.92375E-01  1.97055E-01
#           2.01850E-01  2.06761E-01  2.11792E-01  2.16945E-01  2.22223E-01
#           2.27630E-01  2.33169E-01  2.38842E-01  2.44653E-01  2.50605E-01
#           2.56703E-01  2.62949E-01  2.69346E-01  2.75900E-01  2.82613E-01
#           2.89489E-01  2.96532E-01  3.03747E-01  3.11138E-01  3.18708E-01
#           3.26462E-01  3.34405E-01  3.42542E-01  3.50876E-01  3.59413E-01
#           3.68158E-01  3.77116E-01  3.86291E-01  3.95690E-01  4.05317E-01
#           4.15179E-01  4.25281E-01  4.35628E-01  4.46227E-01  4.57084E-01
#           4.68205E-01  4.79597E-01  4.91266E-01  5.03219E-01  5.15463E-01
#           5.28005E-01  5.40851E-01  5.54011E-01  5.67490E-01  5.81298E-01
#           5.95441E-01  6.09929E-01  6.24769E-01  6.39970E-01  6.55541E-01
#           6.71491E-01  6.87828E-01  7.04564E-01  7.21706E-01  7.39266E-01
#           7.57253E-01  7.75678E-01  7.94551E-01  8.13883E-01  8.33685E-01
#           8.53969E-01  8.74747E-01  8.96030E-01  9.17831E-01  9.40163E-01
#           9.63038E-01  9.86469E-01  1.01047E+00  1.03506E+00  1.06024E+00
#           1.08604E+00  1.11246E+00  1.13953E+00  1.16725E+00  1.19565E+00
#           1.22474E+00  1.25454E+00  1.28507E+00  1.31633E+00  1.34836E+00
#           1.38117E+00  1.41477E+00  1.44920E+00  1.48446E+00  1.52057E+00
#           1.55757E+00  1.59547E+00  1.63429E+00  1.67405E+00  1.71478E+00
#           1.75650E+00  1.79924E+00  1.84302E+00  1.88786E+00  1.93379E+00
#           1.98084E+00  2.02904E+00  2.07841E+00  2.12898E+00  2.18078E+00
#           2.23384E+00  2.28819E+00  2.34386E+00  2.40089E+00  2.45930E+00
#           2.51914E+00  2.58043E+00  2.64322E+00  2.70753E+00  2.77341E+00
#           2.84088E+00  2.91001E+00  2.98081E+00  3.05333E+00  3.12762E+00
#           3.20372E+00  3.28167E+00  3.36152E+00  3.44330E+00  3.52708E+00
#           3.61290E+00  3.70080E+00  3.79085E+00  3.88308E+00  3.97756E+00
#           4.07434E+00  4.17347E+00  4.27501E+00  4.37903E+00  4.48557E+00
#           4.59471E+00  4.70650E+00  4.82102E+00  4.93832E+00  5.05847E+00
#           5.18155E+00  5.30762E+00  5.43676E+00  5.56904E+00  5.70453E+00
#           5.84333E+00  5.98550E+00  6.13114E+00  6.28031E+00  6.43312E+00
#           6.58964E+00  6.74997E+00  6.91420E+00  7.08243E+00  7.25475E+00
#           7.43126E+00  7.61207E+00  7.79728E+00  7.98700E+00  8.18133E+00
#           8.38038E+00  8.58428E+00  8.79315E+00  9.00709E+00  9.22624E+00
#           9.45072E+00  9.68067E+00  9.91620E+00  1.01575E+01  1.04046E+01
#           1.06578E+01  1.09171E+01  1.11827E+01  1.14548E+01  1.17335E+01
#           1.20190E+01  1.23114E+01  1.26109E+01  1.29178E+01  1.32321E+01
#           1.35540E+01  1.38838E+01  1.42216E+01  1.45676E+01  1.49221E+01
#           1.52851E+01  1.56570E+01  1.60380E+01  1.64282E+01  1.68279E+01
#           1.72374E+01  1.76568E+01  1.80864E+01  1.85264E+01  1.89772E+01
#           1.94389E+01  1.99119E+01  2.03963E+01  2.08926E+01  2.14009E+01
#           2.19216E+01  2.24550E+01  2.30014E+01  2.35610E+01  2.41343E+01
#           2.47215E+01  2.53230E+01  2.59391E+01  2.65702E+01  2.72167E+01
#           2.78789E+01  2.85572E+01  2.92520E+01  2.99637E+01  3.06928E+01
#           3.14396E+01  3.22045E+01  3.29881E+01  3.37907E+01  3.46128E+01
#           3.54550E+01  3.63177E+01  3.72013E+01  3.81064E+01  3.90336E+01
#           3.99833E+01  4.09561E+01  4.19526E+01  4.29734E+01  4.40189E+01
#           4.50900E+01  4.61870E+01  4.73108E+01  4.84619E+01  4.96410E+01
#           5.08488E+01  5.20860E+01  5.33533E+01  5.46514E+01  5.59812E+01
#           5.73432E+01  5.87384E+01  6.01676E+01  6.16315E+01  6.31311E+01
#           6.46671E+01  6.62405E+01  6.78522E+01  6.95031E+01  7.11941E+01
#           7.29263E+01  7.47007E+01  7.65182E+01  7.83800E+01  8.02870E+01
#           8.22405E+01  8.42414E+01  8.62911E+01  8.83906E+01  9.05412E+01
#           9.27442E+01  9.50007E+01  9.73122E+01  9.96799E+01  1.02105E+02
#           1.04589E+02  1.07134E+02  1.09741E+02  1.12411E+02  1.15146E+02
#           1.17948E+02  1.20817E+02  1.23757E+02  1.26768E+02  1.29852E+02
#           1.33012E+02  1.36248E+02  1.39563E+02  1.42959E+02  1.46437E+02
#           1.50000E+02
     unit =    2            # unit is [1/cm^2/(MeV/n)/source]
     axis =  eng            # axis of output
     file = detector-13.out  # file name of output for the above axis
   output = f-curr          # surface crossing forward current spectrum
     part =  neutron  
# kf/name :  2112     
#    used :        main (  %)        temp (  %)       total (  %)
#  memory :         414 (  0)           0 (  0)         414 (  0)

#------------------------------------------------------------------------------
#newpage:
#   no. =    1   reg = 112 - 212

x: Energy [MeV/n]
y:  F-Curr [1/cm^2/(MeV/n)/source]         
p: xlog ylog afac(0.8) form(0.9)
h: n            x            y(neutron ),hh0l   n 
#  e-lower      e-upper      neutron     r.err 
   1.0000E-02   1.0243E-02   1.6522E-04  0.0705
   1.0243E-02   1.0493E-02   1.9420E-04  0.0643
   1.0493E-02   1.0748E-02   1.8724E-04  0.0647
   1.0748E-02   1.1009E-02   1.9197E-04  0.0631
   1.1009E-02   1.1277E-02   1.9189E-04  0.0624
   1.1277E-02   1.1552E-02   1.8806E-04  0.0623
   1.1552E-02   1.1833E-02   1.7719E-04  0.0634
   1.1833E-02   1.2121E-02   2.0007E-04  0.0589
   1.2121E-02   1.2415E-02   1.7158E-04  0.0629
   1.2415E-02   1.2718E-02   1.7413E-04  0.0617
   1.2718E-02   1.3027E-02   1.8744E-04  0.0587
   1.3027E-02   1.3344E-02   1.8867E-04  0.0578
   1.3344E-02   1.3669E-02   1.8665E-04  0.0574
   1.3669E-02   1.4001E-02   2.0086E-04  0.0547
   1.4001E-02   1.4342E-02   1.9676E-04  0.0546
   1.4342E-02   1.4691E-02   1.7997E-04  0.0564
   1.4691E-02   1.5048E-02   1.8473E-04  0.0550
   1.5048E-02   1.5414E-02   1.9610E-04  0.0528
   1.5414E-02   1.5789E-02   1.9251E-04  0.0526
   1.5789E-02   1.6174E-02   2.1918E-04  0.0487
   1.6174E-02   1.6567E-02   1.9591E-04  0.0509
   1.6567E-02   1.6970E-02   1.9102E-04  0.0510
   1.6970E-02   1.7383E-02   1.7971E-04  0.0519
   1.7383E-02   1.7806E-02   1.9814E-04  0.0489
   1.7806E-02   1.8239E-02   1.9168E-04  0.0491
   1.8239E-02   1.8683E-02   2.0416E-04  0.0470
   1.8683E-02   1.9138E-02   1.9975E-04  0.0469
   1.9138E-02   1.9603E-02   1.8341E-04  0.0484
   1.9603E-02   2.0080E-02   1.9792E-04  0.0460
   2.0080E-02   2.0569E-02   1.8012E-04  0.0477
   2.0569E-02   2.1069E-02   2.0741E-04  0.0439
   2.1069E-02   2.1582E-02   1.8337E-04  0.0461
   2.1582E-02   2.2107E-02   1.9311E-04  0.0444
   2.2107E-02   2.2645E-02   2.0414E-04  0.0427
   2.2645E-02   2.3196E-02   1.9856E-04  0.0428
   2.3196E-02   2.3760E-02   2.0129E-04  0.0420
   2.3760E-02   2.4338E-02   1.8613E-04  0.0431
   2.4338E-02   2.4930E-02   2.1041E-04  0.0401
   2.4930E-02   2.5537E-02   1.9420E-04  0.0412
   2.5537E-02   2.6158E-02   1.9506E-04  0.0406
   2.6158E-02   2.6795E-02   1.8949E-04  0.0407
   2.6795E-02   2.7447E-02   2.0339E-04  0.0388
   2.7447E-02   2.8114E-02   1.9976E-04  0.0387
   2.8114E-02   2.8799E-02   1.9999E-04  0.0382
   2.8799E-02   2.9499E-02   1.9752E-04  0.0380
   2.9499E-02   3.0217E-02   1.9255E-04  0.0380
   3.0217E-02   3.0952E-02   1.9454E-04  0.0374
   3.0952E-02   3.1705E-02   1.9546E-04  0.0369
   3.1705E-02   3.2477E-02   2.1260E-04  0.0349
   3.2477E-02   3.3267E-02   1.8983E-04  0.0365
   3.3267E-02   3.4076E-02   2.0657E-04  0.0346
   3.4076E-02   3.4905E-02   2.0456E-04  0.0343
   3.4905E-02   3.5755E-02   2.0017E-04  0.0343
   3.5755E-02   3.6625E-02   2.0056E-04  0.0339
   3.6625E-02   3.7516E-02   1.9396E-04  0.0340
   3.7516E-02   3.8428E-02   2.0224E-04  0.0329
   3.8428E-02   3.9363E-02   1.9829E-04  0.0328
   3.9363E-02   4.0321E-02   1.9379E-04  0.0328
   4.0321E-02   4.1302E-02   2.0867E-04  0.0313
   4.1302E-02   4.2307E-02   1.9763E-04  0.0317
   4.2307E-02   4.3337E-02   2.0770E-04  0.0306
   4.3337E-02   4.4391E-02   2.0875E-04  0.0301
   4.4391E-02   4.5471E-02   2.0147E-04  0.0303
   4.5471E-02   4.6577E-02   2.0843E-04  0.0294
   4.6577E-02   4.7711E-02   2.0266E-04  0.0295
   4.7711E-02   4.8871E-02   1.9831E-04  0.0295
   4.8871E-02   5.0061E-02   2.1378E-04  0.0280
   5.0061E-02   5.1279E-02   2.0943E-04  0.0280
   5.1279E-02   5.2526E-02   2.1308E-04  0.0274
   5.2526E-02   5.3804E-02   2.0908E-04  0.0274
   5.3804E-02   5.5113E-02   2.0273E-04  0.0275
   5.5113E-02   5.6454E-02   2.1269E-04  0.0265
   5.6454E-02   5.7828E-02   2.1787E-04  0.0259
   5.7828E-02   5.9235E-02   2.0869E-04  0.0261
   5.9235E-02   6.0676E-02   2.1051E-04  0.0257
   6.0676E-02   6.2152E-02   2.2102E-04  0.0248
   6.2152E-02   6.3665E-02   2.1320E-04  0.0249
   6.3665E-02   6.5214E-02   2.2104E-04  0.0242
   6.5214E-02   6.6800E-02   2.2285E-04  0.0238
   6.6800E-02   6.8426E-02   2.0858E-04  0.0243
   6.8426E-02   7.0090E-02   2.1503E-04  0.0236
   7.0090E-02   7.1796E-02   2.1151E-04  0.0235
   7.1796E-02   7.3543E-02   2.1891E-04  0.0229
   7.3543E-02   7.5332E-02   2.2624E-04  0.0222
   7.5332E-02   7.7165E-02   2.1509E-04  0.0225
   7.7165E-02   7.9042E-02   2.2839E-04  0.0216
   7.9042E-02   8.0965E-02   2.2848E-04  0.0213
   8.0965E-02   8.2935E-02   2.2823E-04  0.0211
   8.2935E-02   8.4953E-02   2.2264E-04  0.0211
   8.4953E-02   8.7020E-02   2.2390E-04  0.0208
   8.7020E-02   8.9138E-02   2.1943E-04  0.0207
   8.9138E-02   9.1306E-02   2.2476E-04  0.0203
   9.1306E-02   9.3528E-02   2.3462E-04  0.0196
   9.3528E-02   9.5804E-02   2.3211E-04  0.0195
   9.5804E-02   9.8134E-02   2.2722E-04  0.0194
   9.8134E-02   1.0052E-01   2.3261E-04  0.0190
   1.0052E-01   1.0297E-01   2.3735E-04  0.0186
   1.0297E-01   1.0547E-01   2.3727E-04  0.0183
   1.0547E-01   1.0804E-01   2.3092E-04  0.0184
   1.0804E-01   1.1067E-01   2.3221E-04  0.0181
   1.1067E-01   1.1336E-01   2.4103E-04  0.0176
   1.1336E-01   1.1612E-01   2.4212E-04  0.0173
   1.1612E-01   1.1894E-01   2.4023E-04  0.0172
   1.1894E-01   1.2184E-01   2.3698E-04  0.0171
   1.2184E-01   1.2480E-01   2.3833E-04  0.0168
   1.2480E-01   1.2784E-01   2.4884E-04  0.0163
   1.2784E-01   1.3095E-01   2.4974E-04  0.0160
   1.3095E-01   1.3414E-01   2.4820E-04  0.0159
   1.3414E-01   1.3740E-01   2.4558E-04  0.0158
   1.3740E-01   1.4074E-01   2.4584E-04  0.0156
   1.4074E-01   1.4417E-01   2.4742E-04  0.0154
   1.4417E-01   1.4767E-01   2.4751E-04  0.0152
   1.4767E-01   1.5127E-01   2.5023E-04  0.0149
   1.5127E-01   1.5495E-01   2.5753E-04  0.0145
   1.5495E-01   1.5872E-01   2.5001E-04  0.0146
   1.5872E-01   1.6258E-01   2.4847E-04  0.0144
   1.6258E-01   1.6654E-01   2.5364E-04  0.0141
   1.6654E-01   1.7059E-01   2.4685E-04  0.0141
   1.7059E-01   1.7474E-01   2.5947E-04  0.0136
   1.7474E-01   1.7899E-01   2.6175E-04  0.0134
   1.7899E-01   1.8334E-01   2.5141E-04  0.0135
   1.8334E-01   1.8781E-01   2.5937E-04  0.0131
   1.8781E-01   1.9237E-01   2.4940E-04  0.0132
   1.9237E-01   1.9706E-01   2.5437E-04  0.0130
   1.9706E-01   2.0185E-01   2.6425E-04  0.0126
   2.0185E-01   2.0676E-01   2.5831E-04  0.0126
   2.0676E-01   2.1179E-01   2.5464E-04  0.0125
   2.1179E-01   2.1694E-01   2.6873E-04  0.0120
   2.1694E-01   2.2222E-01   2.5389E-04  0.0122
   2.2222E-01   2.2763E-01   2.6402E-04  0.0118
   2.2763E-01   2.3317E-01   2.7014E-04  0.0116
   2.3317E-01   2.3884E-01   2.6936E-04  0.0114
   2.3884E-01   2.4465E-01   2.7763E-04  0.0111
   2.4465E-01   2.5061E-01   2.7441E-04  0.0111
   2.5061E-01   2.5670E-01   2.6610E-04  0.0111
   2.5670E-01   2.6295E-01   2.6662E-04  0.0110
   2.6295E-01   2.6935E-01   2.7213E-04  0.0107
   2.6935E-01   2.7590E-01   2.7097E-04  0.0106
   2.7590E-01   2.8261E-01   2.6933E-04  0.0105
   2.8261E-01   2.8949E-01   2.6341E-04  0.0105
   2.8949E-01   2.9653E-01   2.6631E-04  0.0103
   2.9653E-01   3.0375E-01   2.6848E-04  0.0102
   3.0375E-01   3.1114E-01   2.7164E-04  0.0100
   3.1114E-01   3.1871E-01   2.7342E-04  0.0098
   3.1871E-01   3.2646E-01   2.7530E-04  0.0097
   3.2646E-01   3.3441E-01   2.7548E-04  0.0096
   3.3441E-01   3.4254E-01   2.7090E-04  0.0095
   3.4254E-01   3.5088E-01   2.6951E-04  0.0094
   3.5088E-01   3.5941E-01   2.6683E-04  0.0094
   3.5941E-01   3.6816E-01   2.6788E-04  0.0092
   3.6816E-01   3.7712E-01   2.6701E-04  0.0091
   3.7712E-01   3.8629E-01   2.6917E-04  0.0090
   3.8629E-01   3.9569E-01   2.6635E-04  0.0089
   3.9569E-01   4.0532E-01   2.6946E-04  0.0088
   4.0532E-01   4.1518E-01   2.6723E-04  0.0087
   4.1518E-01   4.2528E-01   2.6515E-04  0.0086
   4.2528E-01   4.3563E-01   2.6424E-04  0.0086
   4.3563E-01   4.4623E-01   2.6484E-04  0.0084
   4.4623E-01   4.5708E-01   2.6638E-04  0.0083
   4.5708E-01   4.6821E-01   2.6442E-04  0.0082
   4.6821E-01   4.7960E-01   2.6602E-04  0.0081
   4.7960E-01   4.9127E-01   2.6384E-04  0.0081
   4.9127E-01   5.0322E-01   2.6120E-04  0.0080
   5.0322E-01   5.1546E-01   2.5640E-04  0.0080
   5.1546E-01   5.2800E-01   2.5611E-04  0.0079
   5.2800E-01   5.4085E-01   2.5458E-04  0.0078
   5.4085E-01   5.5401E-01   2.5664E-04  0.0077
   5.5401E-01   5.6749E-01   2.5089E-04  0.0077
   5.6749E-01   5.8130E-01   2.5088E-04  0.0076
   5.8130E-01   5.9544E-01   2.5073E-04  0.0075
   5.9544E-01   6.0993E-01   2.4683E-04  0.0075
   6.0993E-01   6.2477E-01   2.4495E-04  0.0074
   6.2477E-01   6.3997E-01   2.4217E-04  0.0074
   6.3997E-01   6.5554E-01   2.3701E-04  0.0074
   6.5554E-01   6.7149E-01   2.3492E-04  0.0073
   6.7149E-01   6.8783E-01   2.3256E-04  0.0073
   6.8783E-01   7.0456E-01   2.2803E-04  0.0072
   7.0456E-01   7.2171E-01   2.2719E-04  0.0072
   7.2171E-01   7.3927E-01   2.2317E-04  0.0071
   7.3927E-01   7.5725E-01   2.1894E-04  0.0071
   7.5725E-01   7.7568E-01   2.1345E-04  0.0071
   7.7568E-01   7.9455E-01   2.1322E-04  0.0070
   7.9455E-01   8.1388E-01   2.0561E-04  0.0071
   8.1388E-01   8.3368E-01   2.0195E-04  0.0071
   8.3368E-01   8.5397E-01   1.9439E-04  0.0071
   8.5397E-01   8.7475E-01   1.9118E-04  0.0071
   8.7475E-01   8.9603E-01   1.8538E-04  0.0071
   8.9603E-01   9.1783E-01   1.7919E-04  0.0072
   9.1783E-01   9.4016E-01   1.7149E-04  0.0072
   9.4016E-01   9.6304E-01   1.6837E-04  0.0072
   9.6304E-01   9.8647E-01   1.6321E-04  0.0072
   9.8647E-01   1.0105E+00   1.5710E-04  0.0073
   1.0105E+00   1.0351E+00   1.5743E-04  0.0072
   1.0351E+00   1.0602E+00   1.5701E-04  0.0071
   1.0602E+00   1.0860E+00   1.6126E-04  0.0069
   1.0860E+00   1.1125E+00   1.6497E-04  0.0068
   1.1125E+00   1.1395E+00   1.6715E-04  0.0066
   1.1395E+00   1.1673E+00   1.6967E-04  0.0065
   1.1673E+00   1.1957E+00   1.7294E-04  0.0064
   1.1957E+00   1.2247E+00   1.7637E-04  0.0062
   1.2247E+00   1.2545E+00   1.7848E-04  0.0061
   1.2545E+00   1.2851E+00   1.8020E-04  0.0060
   1.2851E+00   1.3163E+00   1.8178E-04  0.0059
   1.3163E+00   1.3484E+00   1.8285E-04  0.0058
   1.3484E+00   1.3812E+00   1.8599E-04  0.0057
   1.3812E+00   1.4148E+00   1.9043E-04  0.0056
   1.4148E+00   1.4492E+00   1.9331E-04  0.0055
   1.4492E+00   1.4845E+00   1.9210E-04  0.0054
   1.4845E+00   1.5206E+00   1.9194E-04  0.0054
   1.5206E+00   1.5576E+00   1.9340E-04  0.0053
   1.5576E+00   1.5955E+00   1.9434E-04  0.0052
   1.5955E+00   1.6343E+00   1.9627E-04  0.0051
   1.6343E+00   1.6741E+00   1.9859E-04  0.0050
   1.6741E+00   1.7148E+00   2.0449E-04  0.0049
   1.7148E+00   1.7565E+00   2.0556E-04  0.0048
   1.7565E+00   1.7992E+00   2.0356E-04  0.0048
   1.7992E+00   1.8430E+00   2.0501E-04  0.0047
   1.8430E+00   1.8879E+00   2.0634E-04  0.0046
   1.8879E+00   1.9338E+00   2.0663E-04  0.0046
   1.9338E+00   1.9808E+00   2.0939E-04  0.0045
   1.9808E+00   2.0290E+00   2.1447E-04  0.0044
   2.0290E+00   2.0784E+00   2.1426E-04  0.0043
   2.0784E+00   2.1290E+00   2.1207E-04  0.0043
   2.1290E+00   2.1808E+00   2.1107E-04  0.0043
   2.1808E+00   2.2338E+00   2.1262E-04  0.0042
   2.2338E+00   2.2882E+00   2.1443E-04  0.0041
   2.2882E+00   2.3439E+00   2.1518E-04  0.0041
   2.3439E+00   2.4009E+00   2.1807E-04  0.0040
   2.4009E+00   2.4593E+00   2.2083E-04  0.0039
   2.4593E+00   2.5191E+00   2.1759E-04  0.0039
   2.5191E+00   2.5804E+00   2.1757E-04  0.0039
   2.5804E+00   2.6432E+00   2.1500E-04  0.0038
   2.6432E+00   2.7075E+00   2.1396E-04  0.0038
   2.7075E+00   2.7734E+00   2.1441E-04  0.0038
   2.7734E+00   2.8409E+00   2.1666E-04  0.0037
   2.8409E+00   2.9100E+00   2.1737E-04  0.0036
   2.9100E+00   2.9808E+00   2.1775E-04  0.0036
   2.9808E+00   3.0533E+00   2.1471E-04  0.0036
   3.0533E+00   3.1276E+00   2.1258E-04  0.0036
   3.1276E+00   3.2037E+00   2.1024E-04  0.0035
   3.2037E+00   3.2817E+00   2.0745E-04  0.0035
   3.2817E+00   3.3615E+00   2.0686E-04  0.0035
   3.3615E+00   3.4433E+00   2.0543E-04  0.0034
   3.4433E+00   3.5271E+00   2.0428E-04  0.0034
   3.5271E+00   3.6129E+00   2.0309E-04  0.0034
   3.6129E+00   3.7008E+00   1.9862E-04  0.0034
   3.7008E+00   3.7908E+00   1.9432E-04  0.0034
   3.7908E+00   3.8831E+00   1.9242E-04  0.0033
   3.8831E+00   3.9776E+00   1.8931E-04  0.0033
   3.9776E+00   4.0743E+00   1.8840E-04  0.0033
   4.0743E+00   4.1735E+00   1.8334E-04  0.0033
   4.1735E+00   4.2750E+00   1.7757E-04  0.0033
   4.2750E+00   4.3790E+00   1.7410E-04  0.0033
   4.3790E+00   4.4856E+00   1.6932E-04  0.0033
   4.4856E+00   4.5947E+00   1.6561E-04  0.0033
   4.5947E+00   4.7065E+00   1.6167E-04  0.0033
   4.7065E+00   4.8210E+00   1.5760E-04  0.0033
   4.8210E+00   4.9383E+00   1.5377E-04  0.0033
   4.9383E+00   5.0585E+00   1.4845E-04  0.0033
   5.0585E+00   5.1815E+00   1.4287E-04  0.0034
   5.1815E+00   5.3076E+00   1.3856E-04  0.0034
   5.3076E+00   5.4368E+00   1.3298E-04  0.0034
   5.4368E+00   5.5690E+00   1.2921E-04  0.0034
   5.5690E+00   5.7045E+00   1.2406E-04  0.0034
   5.7045E+00   5.8433E+00   1.2064E-04  0.0034
   5.8433E+00   5.9855E+00   1.1605E-04  0.0035
   5.9855E+00   6.1311E+00   1.1123E-04  0.0035
   6.1311E+00   6.2803E+00   1.0613E-04  0.0035
   6.2803E+00   6.4331E+00   1.0238E-04  0.0036
   6.4331E+00   6.5896E+00   9.7374E-05  0.0036
   6.5896E+00   6.7500E+00   9.3466E-05  0.0036
   6.7500E+00   6.9142E+00   8.8904E-05  0.0037
   6.9142E+00   7.0824E+00   8.4961E-05  0.0037
   7.0824E+00   7.2548E+00   8.1511E-05  0.0038
   7.2548E+00   7.4313E+00   7.7349E-05  0.0038
   7.4313E+00   7.6121E+00   7.3808E-05  0.0039
   7.6121E+00   7.7973E+00   7.0765E-05  0.0039
   7.7973E+00   7.9870E+00   6.7424E-05  0.0039
   7.9870E+00   8.1813E+00   6.4608E-05  0.0040
   8.1813E+00   8.3804E+00   6.0704E-05  0.0041
   8.3804E+00   8.5843E+00   5.8020E-05  0.0041
   8.5843E+00   8.7931E+00   5.5933E-05  0.0041
   8.7931E+00   9.0071E+00   5.2878E-05  0.0042
   9.0071E+00   9.2262E+00   5.0578E-05  0.0042
   9.2262E+00   9.4507E+00   4.8608E-05  0.0043
   9.4507E+00   9.6807E+00   4.5963E-05  0.0043
   9.6807E+00   9.9162E+00   4.4573E-05  0.0044
   9.9162E+00   1.0157E+01   4.2774E-05  0.0044
   1.0157E+01   1.0405E+01   4.1064E-05  0.0044
   1.0405E+01   1.0658E+01   3.8954E-05  0.0045
   1.0658E+01   1.0917E+01   3.7725E-05  0.0045
   1.0917E+01   1.1183E+01   3.6200E-05  0.0046
   1.1183E+01   1.1455E+01   3.5102E-05  0.0046
   1.1455E+01   1.1733E+01   3.3504E-05  0.0046
   1.1733E+01   1.2019E+01   3.2323E-05  0.0046
   1.2019E+01   1.2311E+01   3.1562E-05  0.0046
   1.2311E+01   1.2611E+01   3.0134E-05  0.0047
   1.2611E+01   1.2918E+01   2.9142E-05  0.0047
   1.2918E+01   1.3232E+01   2.8455E-05  0.0047
   1.3232E+01   1.3554E+01   2.7722E-05  0.0047
   1.3554E+01   1.3884E+01   2.6636E-05  0.0048
   1.3884E+01   1.4222E+01   2.5775E-05  0.0048
   1.4222E+01   1.4568E+01   2.4960E-05  0.0048
   1.4568E+01   1.4922E+01   2.4468E-05  0.0048
   1.4922E+01   1.5285E+01   2.3557E-05  0.0048
   1.5285E+01   1.5657E+01   2.2834E-05  0.0048
   1.5657E+01   1.6038E+01   2.2342E-05  0.0048
   1.6038E+01   1.6428E+01   2.1812E-05  0.0048
   1.6428E+01   1.6828E+01   2.1157E-05  0.0049
   1.6828E+01   1.7237E+01   2.0402E-05  0.0049
   1.7237E+01   1.7657E+01   1.9782E-05  0.0049
   1.7657E+01   1.8086E+01   1.9241E-05  0.0049
   1.8086E+01   1.8526E+01   1.8774E-05  0.0049
   1.8526E+01   1.8977E+01   1.8241E-05  0.0049
   1.8977E+01   1.9439E+01   1.7539E-05  0.0050
   1.9439E+01   1.9912E+01   1.6883E-05  0.0050
   1.9912E+01   2.0396E+01   1.6173E-05  0.0051
   2.0396E+01   2.0893E+01   1.5763E-05  0.0051
   2.0893E+01   2.1401E+01   1.5278E-05  0.0051
   2.1401E+01   2.1922E+01   1.4603E-05  0.0051
   2.1922E+01   2.2455E+01   1.4155E-05  0.0051
   2.2455E+01   2.3001E+01   1.3508E-05  0.0052
   2.3001E+01   2.3561E+01   1.2933E-05  0.0053
   2.3561E+01   2.4134E+01   1.2509E-05  0.0053
   2.4134E+01   2.4721E+01   1.1991E-05  0.0053
   2.4721E+01   2.5323E+01   1.1288E-05  0.0054
   2.5323E+01   2.5939E+01   1.0769E-05  0.0055
   2.5939E+01   2.6570E+01   1.0237E-05  0.0056
   2.6570E+01   2.7217E+01   9.7102E-06  0.0056
   2.7217E+01   2.7879E+01   9.0534E-06  0.0058
   2.7879E+01   2.8557E+01   8.7030E-06  0.0058
   2.8557E+01   2.9252E+01   8.1402E-06  0.0059
   2.9252E+01   2.9964E+01   7.5321E-06  0.0061
   2.9964E+01   3.0693E+01   7.0547E-06  0.0062
   3.0693E+01   3.1440E+01   6.4854E-06  0.0064
   3.1440E+01   3.2205E+01   5.9437E-06  0.0066
   3.2205E+01   3.2988E+01   5.5751E-06  0.0068
   3.2988E+01   3.3791E+01   5.1050E-06  0.0070
   3.3791E+01   3.4613E+01   4.7363E-06  0.0072
   3.4613E+01   3.5455E+01   4.2773E-06  0.0075
   3.5455E+01   3.6318E+01   3.8929E-06  0.0077
   3.6318E+01   3.7201E+01   3.5689E-06  0.0080
   3.7201E+01   3.8106E+01   3.1001E-06  0.0084
   3.8106E+01   3.9034E+01   2.8720E-06  0.0087
   3.9034E+01   3.9983E+01   2.5178E-06  0.0091
   3.9983E+01   4.0956E+01   2.2436E-06  0.0096
   4.0956E+01   4.1953E+01   1.9561E-06  0.0101
   4.1953E+01   4.2973E+01   1.7340E-06  0.0106
   4.2973E+01   4.4019E+01   1.4690E-06  0.0114
   4.4019E+01   4.5090E+01   1.2773E-06  0.0121
   4.5090E+01   4.6187E+01   1.0714E-06  0.0130
   4.6187E+01   4.7311E+01   9.1069E-07  0.0140
   4.7311E+01   4.8462E+01   7.5406E-07  0.0152
   4.8462E+01   4.9641E+01   5.9553E-07  0.0169
   4.9641E+01   5.0849E+01   4.8700E-07  0.0184
   5.0849E+01   5.2086E+01   3.7504E-07  0.0208
   5.2086E+01   5.3353E+01   2.9370E-07  0.0232
   5.3353E+01   5.4651E+01   2.2016E-07  0.0265
   5.4651E+01   5.5981E+01   1.5026E-07  0.0316
   5.5981E+01   5.7343E+01   1.1233E-07  0.0362
   5.7343E+01   5.8738E+01   6.5797E-08  0.0467
   5.8738E+01   6.0168E+01   3.4426E-08  0.0638
   6.0168E+01   6.1632E+01   1.8580E-08  0.0857
   6.1632E+01   6.3131E+01   3.8678E-09  0.1857
   6.3131E+01   6.4667E+01   0.0000E+00  0.0000
   6.4667E+01   6.6240E+01   0.0000E+00  0.0000
   6.6240E+01   6.7852E+01   0.0000E+00  0.0000
   6.7852E+01   6.9503E+01   0.0000E+00  0.0000
   6.9503E+01   7.1194E+01   0.0000E+00  0.0000
   7.1194E+01   7.2926E+01   0.0000E+00  0.0000
   7.2926E+01   7.4701E+01   0.0000E+00  0.0000
   7.4701E+01   7.6518E+01   0.0000E+00  0.0000
   7.6518E+01   7.8380E+01   0.0000E+00  0.0000
   7.8380E+01   8.0287E+01   0.0000E+00  0.0000
   8.0287E+01   8.2240E+01   0.0000E+00  0.0000
   8.2240E+01   8.4241E+01   0.0000E+00  0.0000
   8.4241E+01   8.6291E+01   0.0000E+00  0.0000
   8.6291E+01   8.8391E+01   0.0000E+00  0.0000
   8.8391E+01   9.0541E+01   0.0000E+00  0.0000
   9.0541E+01   9.2744E+01   0.0000E+00  0.0000
   9.2744E+01   9.5001E+01   0.0000E+00  0.0000
   9.5001E+01   9.7312E+01   0.0000E+00  0.0000
   9.7312E+01   9.9680E+01   0.0000E+00  0.0000
   9.9680E+01   1.0211E+02   0.0000E+00  0.0000
   1.0211E+02   1.0459E+02   0.0000E+00  0.0000
   1.0459E+02   1.0713E+02   0.0000E+00  0.0000
   1.0713E+02   1.0974E+02   0.0000E+00  0.0000
   1.0974E+02   1.1241E+02   0.0000E+00  0.0000
   1.1241E+02   1.1515E+02   0.0000E+00  0.0000
   1.1515E+02   1.1795E+02   0.0000E+00  0.0000
   1.1795E+02   1.2082E+02   0.0000E+00  0.0000
   1.2082E+02   1.2376E+02   0.0000E+00  0.0000
   1.2376E+02   1.2677E+02   0.0000E+00  0.0000
   1.2677E+02   1.2985E+02   0.0000E+00  0.0000
   1.2985E+02   1.3301E+02   0.0000E+00  0.0000
   1.3301E+02   1.3625E+02   0.0000E+00  0.0000
   1.3625E+02   1.3956E+02   0.0000E+00  0.0000
   1.3956E+02   1.4296E+02   0.0000E+00  0.0000
   1.4296E+02   1.4644E+02   0.0000E+00  0.0000
   1.4644E+02   1.5000E+02   0.0000E+00  0.0000

#   sum over                 1.2299E-05
'no. =    1   reg = 112 - 212'
msuc: {\huge [t-cross] in region mesh}
msdr: {\it plotted by \ANGEL \version}
msdl: {\it calculated by \PHITS  3.26}
wt: s(0.7)
\vspace{-3}
  region surface crossing
  area  &=&   1.0000E+00 [cm^2]
e:
 
# Information for Restart Calculation
# This calculation was newly started
# istdev =  2 # 1:Batch variance, 2:History variance
# resc2  = 5.00000000000000000E+09 # Total source weight or Total source weight / maxcas
# resc3  = 5.00000000000000000E+09 # Total history number or Total batch number
# maxcas =   100000000 # History / Batch, only used for istdev=1
# bitrseed = 0110100000100010111000001110001111001110100100011111101000111001 # bit data of rseed
