[ T-Cross ]
    title = [t-cross] in region mesh
     mesh =  reg            # mesh type is region-wise
      reg =    1            # number of crossing regions
      non     r-from    r-to       area
      1       125       225        1.000000    
   e-type =    3            # e-mesh is log given by emin, emax and ne
     emin =  1.0000000E-02  # minimum value of e-mesh points
     emax =   150.0000      # maximum value of e-mesh points
#    edel =  2.4039514E-02  # mesh width of e-mesh points
       ne =    400          # number of e-mesh points
#    data = ( e(i), i = 1, ne + 1 )
#           1.00000E-02  1.02433E-02  1.04925E-02  1.07478E-02  1.10093E-02
#           1.12772E-02  1.15516E-02  1.18326E-02  1.21205E-02  1.24154E-02
#           1.27175E-02  1.30269E-02  1.33439E-02  1.36686E-02  1.40011E-02
#           1.43418E-02  1.46907E-02  1.50482E-02  1.54143E-02  1.57894E-02
#           1.61735E-02  1.65670E-02  1.69701E-02  1.73830E-02  1.78060E-02
#           1.82392E-02  1.86830E-02  1.91375E-02  1.96032E-02  2.00801E-02
#           2.05687E-02  2.10692E-02  2.15818E-02  2.21069E-02  2.26448E-02
#           2.31957E-02  2.37601E-02  2.43382E-02  2.49304E-02  2.55369E-02
#           2.61583E-02  2.67947E-02  2.74467E-02  2.81145E-02  2.87985E-02
#           2.94992E-02  3.02169E-02  3.09521E-02  3.17052E-02  3.24766E-02
#           3.32668E-02  3.40762E-02  3.49053E-02  3.57546E-02  3.66246E-02
#           3.75157E-02  3.84284E-02  3.93634E-02  4.03212E-02  4.13022E-02
#           4.23071E-02  4.33365E-02  4.43909E-02  4.54710E-02  4.65773E-02
#           4.77106E-02  4.88714E-02  5.00605E-02  5.12785E-02  5.25262E-02
#           5.38042E-02  5.51133E-02  5.64542E-02  5.78278E-02  5.92348E-02
#           6.06760E-02  6.21523E-02  6.36645E-02  6.52135E-02  6.68002E-02
#           6.84255E-02  7.00904E-02  7.17957E-02  7.35426E-02  7.53319E-02
#           7.71648E-02  7.90423E-02  8.09655E-02  8.29354E-02  8.49533E-02
#           8.70203E-02  8.91376E-02  9.13064E-02  9.35279E-02  9.58035E-02
#           9.81345E-02  1.00522E-01  1.02968E-01  1.05473E-01  1.08040E-01
#           1.10668E-01  1.13361E-01  1.16119E-01  1.18944E-01  1.21838E-01
#           1.24803E-01  1.27839E-01  1.30950E-01  1.34136E-01  1.37399E-01
#           1.40742E-01  1.44167E-01  1.47675E-01  1.51268E-01  1.54948E-01
#           1.58718E-01  1.62580E-01  1.66535E-01  1.70587E-01  1.74738E-01
#           1.78989E-01  1.83344E-01  1.87805E-01  1.92375E-01  1.97055E-01
#           2.01850E-01  2.06761E-01  2.11792E-01  2.16945E-01  2.22223E-01
#           2.27630E-01  2.33169E-01  2.38842E-01  2.44653E-01  2.50605E-01
#           2.56703E-01  2.62949E-01  2.69346E-01  2.75900E-01  2.82613E-01
#           2.89489E-01  2.96532E-01  3.03747E-01  3.11138E-01  3.18708E-01
#           3.26462E-01  3.34405E-01  3.42542E-01  3.50876E-01  3.59413E-01
#           3.68158E-01  3.77116E-01  3.86291E-01  3.95690E-01  4.05317E-01
#           4.15179E-01  4.25281E-01  4.35628E-01  4.46227E-01  4.57084E-01
#           4.68205E-01  4.79597E-01  4.91266E-01  5.03219E-01  5.15463E-01
#           5.28005E-01  5.40851E-01  5.54011E-01  5.67490E-01  5.81298E-01
#           5.95441E-01  6.09929E-01  6.24769E-01  6.39970E-01  6.55541E-01
#           6.71491E-01  6.87828E-01  7.04564E-01  7.21706E-01  7.39266E-01
#           7.57253E-01  7.75678E-01  7.94551E-01  8.13883E-01  8.33685E-01
#           8.53969E-01  8.74747E-01  8.96030E-01  9.17831E-01  9.40163E-01
#           9.63038E-01  9.86469E-01  1.01047E+00  1.03506E+00  1.06024E+00
#           1.08604E+00  1.11246E+00  1.13953E+00  1.16725E+00  1.19565E+00
#           1.22474E+00  1.25454E+00  1.28507E+00  1.31633E+00  1.34836E+00
#           1.38117E+00  1.41477E+00  1.44920E+00  1.48446E+00  1.52057E+00
#           1.55757E+00  1.59547E+00  1.63429E+00  1.67405E+00  1.71478E+00
#           1.75650E+00  1.79924E+00  1.84302E+00  1.88786E+00  1.93379E+00
#           1.98084E+00  2.02904E+00  2.07841E+00  2.12898E+00  2.18078E+00
#           2.23384E+00  2.28819E+00  2.34386E+00  2.40089E+00  2.45930E+00
#           2.51914E+00  2.58043E+00  2.64322E+00  2.70753E+00  2.77341E+00
#           2.84088E+00  2.91001E+00  2.98081E+00  3.05333E+00  3.12762E+00
#           3.20372E+00  3.28167E+00  3.36152E+00  3.44330E+00  3.52708E+00
#           3.61290E+00  3.70080E+00  3.79085E+00  3.88308E+00  3.97756E+00
#           4.07434E+00  4.17347E+00  4.27501E+00  4.37903E+00  4.48557E+00
#           4.59471E+00  4.70650E+00  4.82102E+00  4.93832E+00  5.05847E+00
#           5.18155E+00  5.30762E+00  5.43676E+00  5.56904E+00  5.70453E+00
#           5.84333E+00  5.98550E+00  6.13114E+00  6.28031E+00  6.43312E+00
#           6.58964E+00  6.74997E+00  6.91420E+00  7.08243E+00  7.25475E+00
#           7.43126E+00  7.61207E+00  7.79728E+00  7.98700E+00  8.18133E+00
#           8.38038E+00  8.58428E+00  8.79315E+00  9.00709E+00  9.22624E+00
#           9.45072E+00  9.68067E+00  9.91620E+00  1.01575E+01  1.04046E+01
#           1.06578E+01  1.09171E+01  1.11827E+01  1.14548E+01  1.17335E+01
#           1.20190E+01  1.23114E+01  1.26109E+01  1.29178E+01  1.32321E+01
#           1.35540E+01  1.38838E+01  1.42216E+01  1.45676E+01  1.49221E+01
#           1.52851E+01  1.56570E+01  1.60380E+01  1.64282E+01  1.68279E+01
#           1.72374E+01  1.76568E+01  1.80864E+01  1.85264E+01  1.89772E+01
#           1.94389E+01  1.99119E+01  2.03963E+01  2.08926E+01  2.14009E+01
#           2.19216E+01  2.24550E+01  2.30014E+01  2.35610E+01  2.41343E+01
#           2.47215E+01  2.53230E+01  2.59391E+01  2.65702E+01  2.72167E+01
#           2.78789E+01  2.85572E+01  2.92520E+01  2.99637E+01  3.06928E+01
#           3.14396E+01  3.22045E+01  3.29881E+01  3.37907E+01  3.46128E+01
#           3.54550E+01  3.63177E+01  3.72013E+01  3.81064E+01  3.90336E+01
#           3.99833E+01  4.09561E+01  4.19526E+01  4.29734E+01  4.40189E+01
#           4.50900E+01  4.61870E+01  4.73108E+01  4.84619E+01  4.96410E+01
#           5.08488E+01  5.20860E+01  5.33533E+01  5.46514E+01  5.59812E+01
#           5.73432E+01  5.87384E+01  6.01676E+01  6.16315E+01  6.31311E+01
#           6.46671E+01  6.62405E+01  6.78522E+01  6.95031E+01  7.11941E+01
#           7.29263E+01  7.47007E+01  7.65182E+01  7.83800E+01  8.02870E+01
#           8.22405E+01  8.42414E+01  8.62911E+01  8.83906E+01  9.05412E+01
#           9.27442E+01  9.50007E+01  9.73122E+01  9.96799E+01  1.02105E+02
#           1.04589E+02  1.07134E+02  1.09741E+02  1.12411E+02  1.15146E+02
#           1.17948E+02  1.20817E+02  1.23757E+02  1.26768E+02  1.29852E+02
#           1.33012E+02  1.36248E+02  1.39563E+02  1.42959E+02  1.46437E+02
#           1.50000E+02
     unit =    2            # unit is [1/cm^2/(MeV/n)/source]
     axis =  eng            # axis of output
     file = detector-26.out  # file name of output for the above axis
   output = f-curr          # surface crossing forward current spectrum
     part =  neutron  
# kf/name :  2112     
#    used :        main (  %)        temp (  %)       total (  %)
#  memory :         414 (  0)           0 (  0)         414 (  0)

#------------------------------------------------------------------------------
#newpage:
#   no. =    1   reg = 125 - 225

x: Energy [MeV/n]
y:  F-Curr [1/cm^2/(MeV/n)/source]         
p: xlog ylog afac(0.8) form(0.9)
h: n            x            y(neutron ),hh0l   n 
#  e-lower      e-upper      neutron     r.err 
   1.0000E-02   1.0243E-02   1.6361E-02  0.0139
   1.0243E-02   1.0493E-02   1.6074E-02  0.0139
   1.0493E-02   1.0748E-02   1.5445E-02  0.0140
   1.0748E-02   1.1009E-02   1.5070E-02  0.0140
   1.1009E-02   1.1277E-02   1.4946E-02  0.0139
   1.1277E-02   1.1552E-02   1.4589E-02  0.0139
   1.1552E-02   1.1833E-02   1.4325E-02  0.0138
   1.1833E-02   1.2121E-02   1.4102E-02  0.0138
   1.2121E-02   1.2415E-02   1.3966E-02  0.0137
   1.2415E-02   1.2718E-02   1.3573E-02  0.0137
   1.2718E-02   1.3027E-02   1.3278E-02  0.0137
   1.3027E-02   1.3344E-02   1.3169E-02  0.0136
   1.3344E-02   1.3669E-02   1.2467E-02  0.0138
   1.3669E-02   1.4001E-02   1.2641E-02  0.0135
   1.4001E-02   1.4342E-02   1.2339E-02  0.0135
   1.4342E-02   1.4691E-02   1.2166E-02  0.0135
   1.4691E-02   1.5048E-02   1.2125E-02  0.0133
   1.5048E-02   1.5414E-02   1.1619E-02  0.0134
   1.5414E-02   1.5789E-02   1.1451E-02  0.0134
   1.5789E-02   1.6174E-02   1.1145E-02  0.0134
   1.6174E-02   1.6567E-02   1.1120E-02  0.0133
   1.6567E-02   1.6970E-02   1.0603E-02  0.0134
   1.6970E-02   1.7383E-02   1.0530E-02  0.0133
   1.7383E-02   1.7806E-02   1.0083E-02  0.0134
   1.7806E-02   1.8239E-02   1.0034E-02  0.0133
   1.8239E-02   1.8683E-02   9.9982E-03  0.0132
   1.8683E-02   1.9138E-02   9.5661E-03  0.0133
   1.9138E-02   1.9603E-02   9.5487E-03  0.0132
   1.9603E-02   2.0080E-02   9.6121E-03  0.0130
   2.0080E-02   2.0569E-02   9.1713E-03  0.0131
   2.0569E-02   2.1069E-02   9.0441E-03  0.0130
   2.1069E-02   2.1582E-02   8.9103E-03  0.0130
   2.1582E-02   2.2107E-02   8.8276E-03  0.0129
   2.2107E-02   2.2645E-02   8.5536E-03  0.0129
   2.2645E-02   2.3196E-02   8.3546E-03  0.0129
   2.3196E-02   2.3760E-02   8.2311E-03  0.0129
   2.3760E-02   2.4338E-02   8.0156E-03  0.0129
   2.4338E-02   2.4930E-02   8.0487E-03  0.0127
   2.4930E-02   2.5537E-02   7.7852E-03  0.0128
   2.5537E-02   2.6158E-02   7.8120E-03  0.0126
   2.6158E-02   2.6795E-02   7.6083E-03  0.0126
   2.6795E-02   2.7447E-02   7.5243E-03  0.0125
   2.7447E-02   2.8114E-02   7.2379E-03  0.0126
   2.8114E-02   2.8799E-02   7.1267E-03  0.0126
   2.8799E-02   2.9499E-02   7.0194E-03  0.0125
   2.9499E-02   3.0217E-02   6.8827E-03  0.0125
   3.0217E-02   3.0952E-02   6.7307E-03  0.0125
   3.0952E-02   3.1705E-02   6.6516E-03  0.0124
   3.1705E-02   3.2477E-02   6.5414E-03  0.0123
   3.2477E-02   3.3267E-02   6.4454E-03  0.0123
   3.3267E-02   3.4076E-02   6.1726E-03  0.0124
   3.4076E-02   3.4905E-02   6.1123E-03  0.0123
   3.4905E-02   3.5755E-02   5.9299E-03  0.0124
   3.5755E-02   3.6625E-02   5.9306E-03  0.0122
   3.6625E-02   3.7516E-02   5.7897E-03  0.0122
   3.7516E-02   3.8428E-02   5.7664E-03  0.0121
   3.8428E-02   3.9363E-02   5.5294E-03  0.0122
   3.9363E-02   4.0321E-02   5.5371E-03  0.0120
   4.0321E-02   4.1302E-02   5.4479E-03  0.0120
   4.1302E-02   4.2307E-02   5.2913E-03  0.0120
   4.2307E-02   4.3337E-02   5.2213E-03  0.0120
   4.3337E-02   4.4391E-02   5.0841E-03  0.0120
   4.4391E-02   4.5471E-02   5.0221E-03  0.0119
   4.5471E-02   4.6577E-02   5.0902E-03  0.0117
   4.6577E-02   4.7711E-02   4.8872E-03  0.0118
   4.7711E-02   4.8871E-02   4.7453E-03  0.0118
   4.8871E-02   5.0061E-02   4.7386E-03  0.0117
   5.0061E-02   5.1279E-02   4.6065E-03  0.0117
   5.1279E-02   5.2526E-02   4.5933E-03  0.0116
   5.2526E-02   5.3804E-02   4.3758E-03  0.0117
   5.3804E-02   5.5113E-02   4.3518E-03  0.0116
   5.5113E-02   5.6454E-02   4.2966E-03  0.0116
   5.6454E-02   5.7828E-02   4.1486E-03  0.0116
   5.7828E-02   5.9235E-02   4.1400E-03  0.0115
   5.9235E-02   6.0676E-02   4.0249E-03  0.0115
   6.0676E-02   6.2152E-02   4.0033E-03  0.0114
   6.2152E-02   6.3665E-02   3.8543E-03  0.0115
   6.3665E-02   6.5214E-02   3.8258E-03  0.0114
   6.5214E-02   6.6800E-02   3.8648E-03  0.0112
   6.6800E-02   6.8426E-02   3.6504E-03  0.0114
   6.8426E-02   7.0090E-02   3.6377E-03  0.0113
   7.0090E-02   7.1796E-02   3.5377E-03  0.0113
   7.1796E-02   7.3543E-02   3.5081E-03  0.0112
   7.3543E-02   7.5332E-02   3.5148E-03  0.0111
   7.5332E-02   7.7165E-02   3.3554E-03  0.0112
   7.7165E-02   7.9042E-02   3.3398E-03  0.0111
   7.9042E-02   8.0965E-02   3.3141E-03  0.0110
   8.0965E-02   8.2935E-02   3.2195E-03  0.0110
   8.2935E-02   8.4953E-02   3.1430E-03  0.0110
   8.4953E-02   8.7020E-02   3.1912E-03  0.0108
   8.7020E-02   8.9138E-02   3.0228E-03  0.0110
   8.9138E-02   9.1306E-02   3.0496E-03  0.0108
   9.1306E-02   9.3528E-02   2.9387E-03  0.0109
   9.3528E-02   9.5804E-02   2.8868E-03  0.0108
   9.5804E-02   9.8134E-02   2.8605E-03  0.0107
   9.8134E-02   1.0052E-01   2.8592E-03  0.0106
   1.0052E-01   1.0297E-01   2.7020E-03  0.0108
   1.0297E-01   1.0547E-01   2.7396E-03  0.0106
   1.0547E-01   1.0804E-01   2.6198E-03  0.0107
   1.0804E-01   1.1067E-01   2.5860E-03  0.0106
   1.1067E-01   1.1336E-01   2.5348E-03  0.0106
   1.1336E-01   1.1612E-01   2.4692E-03  0.0106
   1.1612E-01   1.1894E-01   2.4591E-03  0.0105
   1.1894E-01   1.2184E-01   2.4262E-03  0.0105
   1.2184E-01   1.2480E-01   2.4228E-03  0.0103
   1.2480E-01   1.2784E-01   2.3275E-03  0.0104
   1.2784E-01   1.3095E-01   2.3094E-03  0.0103
   1.3095E-01   1.3414E-01   2.2423E-03  0.0104
   1.3414E-01   1.3740E-01   2.2512E-03  0.0102
   1.3740E-01   1.4074E-01   2.1878E-03  0.0103
   1.4074E-01   1.4417E-01   2.1363E-03  0.0103
   1.4417E-01   1.4767E-01   2.1079E-03  0.0102
   1.4767E-01   1.5127E-01   2.0750E-03  0.0102
   1.5127E-01   1.5495E-01   2.0327E-03  0.0101
   1.5495E-01   1.5872E-01   2.0114E-03  0.0101
   1.5872E-01   1.6258E-01   1.9788E-03  0.0100
   1.6258E-01   1.6654E-01   1.9643E-03  0.0100
   1.6654E-01   1.7059E-01   1.9339E-03  0.0099
   1.7059E-01   1.7474E-01   1.8861E-03  0.0099
   1.7474E-01   1.7899E-01   1.8432E-03  0.0099
   1.7899E-01   1.8334E-01   1.8180E-03  0.0099
   1.8334E-01   1.8781E-01   1.7404E-03  0.0100
   1.8781E-01   1.9237E-01   1.7455E-03  0.0098
   1.9237E-01   1.9706E-01   1.6982E-03  0.0098
   1.9706E-01   2.0185E-01   1.6644E-03  0.0098
   2.0185E-01   2.0676E-01   1.6629E-03  0.0097
   2.0676E-01   2.1179E-01   1.5935E-03  0.0098
   2.1179E-01   2.1694E-01   1.6010E-03  0.0097
   2.1694E-01   2.2222E-01   1.5955E-03  0.0096
   2.2222E-01   2.2763E-01   1.5583E-03  0.0096
   2.2763E-01   2.3317E-01   1.5074E-03  0.0096
   2.3317E-01   2.3884E-01   1.4493E-03  0.0097
   2.3884E-01   2.4465E-01   1.4875E-03  0.0094
   2.4465E-01   2.5061E-01   1.4307E-03  0.0095
   2.5061E-01   2.5670E-01   1.4219E-03  0.0094
   2.5670E-01   2.6295E-01   1.4039E-03  0.0094
   2.6295E-01   2.6935E-01   1.3462E-03  0.0095
   2.6935E-01   2.7590E-01   1.3754E-03  0.0092
   2.7590E-01   2.8261E-01   1.3098E-03  0.0094
   2.8261E-01   2.8949E-01   1.2926E-03  0.0093
   2.8949E-01   2.9653E-01   1.2687E-03  0.0093
   2.9653E-01   3.0375E-01   1.2427E-03  0.0093
   3.0375E-01   3.1114E-01   1.2179E-03  0.0092
   3.1114E-01   3.1871E-01   1.1981E-03  0.0092
   3.1871E-01   3.2646E-01   1.1640E-03  0.0092
   3.2646E-01   3.3441E-01   1.1614E-03  0.0091
   3.3441E-01   3.4254E-01   1.1236E-03  0.0092
   3.4254E-01   3.5088E-01   1.1002E-03  0.0092
   3.5088E-01   3.5941E-01   1.0896E-03  0.0091
   3.5941E-01   3.6816E-01   1.0533E-03  0.0091
   3.6816E-01   3.7712E-01   1.0381E-03  0.0091
   3.7712E-01   3.8629E-01   1.0263E-03  0.0090
   3.8629E-01   3.9569E-01   1.0001E-03  0.0090
   3.9569E-01   4.0532E-01   9.8413E-04  0.0090
   4.0532E-01   4.1518E-01   9.5935E-04  0.0090
   4.1518E-01   4.2528E-01   9.4631E-04  0.0090
   4.2528E-01   4.3563E-01   9.0390E-04  0.0091
   4.3563E-01   4.4623E-01   9.0776E-04  0.0089
   4.4623E-01   4.5708E-01   8.8039E-04  0.0090
   4.5708E-01   4.6821E-01   8.5588E-04  0.0090
   4.6821E-01   4.7960E-01   8.5443E-04  0.0089
   4.7960E-01   4.9127E-01   8.2434E-04  0.0089
   4.9127E-01   5.0322E-01   8.1184E-04  0.0089
   5.0322E-01   5.1546E-01   7.9695E-04  0.0089
   5.1546E-01   5.2800E-01   7.7306E-04  0.0089
   5.2800E-01   5.4085E-01   7.5308E-04  0.0089
   5.4085E-01   5.5401E-01   7.3431E-04  0.0089
   5.5401E-01   5.6749E-01   7.1596E-04  0.0089
   5.6749E-01   5.8130E-01   6.9305E-04  0.0090
   5.8130E-01   5.9544E-01   6.8034E-04  0.0089
   5.9544E-01   6.0993E-01   6.6734E-04  0.0089
   6.0993E-01   6.2477E-01   6.3990E-04  0.0090
   6.2477E-01   6.3997E-01   6.3209E-04  0.0089
   6.3997E-01   6.5554E-01   6.0833E-04  0.0090
   6.5554E-01   6.7149E-01   5.8853E-04  0.0091
   6.7149E-01   6.8783E-01   5.7342E-04  0.0091
   6.8783E-01   7.0456E-01   5.6715E-04  0.0090
   7.0456E-01   7.2171E-01   5.4323E-04  0.0091
   7.2171E-01   7.3927E-01   5.1994E-04  0.0092
   7.3927E-01   7.5725E-01   5.0212E-04  0.0092
   7.5725E-01   7.7568E-01   4.9063E-04  0.0092
   7.7568E-01   7.9455E-01   4.7284E-04  0.0093
   7.9455E-01   8.1388E-01   4.5085E-04  0.0094
   8.1388E-01   8.3368E-01   4.4264E-04  0.0094
   8.3368E-01   8.5397E-01   4.2333E-04  0.0095
   8.5397E-01   8.7475E-01   4.1224E-04  0.0095
   8.7475E-01   8.9603E-01   3.9525E-04  0.0096
   8.9603E-01   9.1783E-01   3.7830E-04  0.0097
   9.1783E-01   9.4016E-01   3.6309E-04  0.0097
   9.4016E-01   9.6304E-01   3.4764E-04  0.0098
   9.6304E-01   9.8647E-01   3.3055E-04  0.0100
   9.8647E-01   1.0105E+00   3.1463E-04  0.0101
   1.0105E+00   1.0351E+00   3.1573E-04  0.0100
   1.0351E+00   1.0602E+00   3.2600E-04  0.0097
   1.0602E+00   1.0860E+00   3.2415E-04  0.0096
   1.0860E+00   1.1125E+00   3.3521E-04  0.0093
   1.1125E+00   1.1395E+00   3.3865E-04  0.0092
   1.1395E+00   1.1673E+00   3.4592E-04  0.0090
   1.1673E+00   1.1957E+00   3.6175E-04  0.0087
   1.1957E+00   1.2247E+00   3.6694E-04  0.0085
   1.2247E+00   1.2545E+00   3.6936E-04  0.0084
   1.2545E+00   1.2851E+00   3.6970E-04  0.0083
   1.2851E+00   1.3163E+00   3.7026E-04  0.0082
   1.3163E+00   1.3484E+00   3.7754E-04  0.0080
   1.3484E+00   1.3812E+00   3.8175E-04  0.0078
   1.3812E+00   1.4148E+00   3.8997E-04  0.0077
   1.4148E+00   1.4492E+00   3.8968E-04  0.0076
   1.4492E+00   1.4845E+00   3.8684E-04  0.0075
   1.4845E+00   1.5206E+00   3.9020E-04  0.0074
   1.5206E+00   1.5576E+00   3.8827E-04  0.0073
   1.5576E+00   1.5955E+00   3.9571E-04  0.0072
   1.5955E+00   1.6343E+00   3.9531E-04  0.0071
   1.6343E+00   1.6741E+00   3.9574E-04  0.0070
   1.6741E+00   1.7148E+00   4.0597E-04  0.0068
   1.7148E+00   1.7565E+00   4.0005E-04  0.0068
   1.7565E+00   1.7992E+00   3.9204E-04  0.0068
   1.7992E+00   1.8430E+00   3.9446E-04  0.0067
   1.8430E+00   1.8879E+00   3.9040E-04  0.0066
   1.8879E+00   1.9338E+00   3.8600E-04  0.0066
   1.9338E+00   1.9808E+00   3.8422E-04  0.0065
   1.9808E+00   2.0290E+00   3.8525E-04  0.0064
   2.0290E+00   2.0784E+00   3.8097E-04  0.0064
   2.0784E+00   2.1290E+00   3.6523E-04  0.0065
   2.1290E+00   2.1808E+00   3.5882E-04  0.0064
   2.1808E+00   2.2338E+00   3.5226E-04  0.0064
   2.2338E+00   2.2882E+00   3.5274E-04  0.0063
   2.2882E+00   2.3439E+00   3.4277E-04  0.0064
   2.3439E+00   2.4009E+00   3.4225E-04  0.0063
   2.4009E+00   2.4593E+00   3.3247E-04  0.0063
   2.4593E+00   2.5191E+00   3.2267E-04  0.0063
   2.5191E+00   2.5804E+00   3.0718E-04  0.0064
   2.5804E+00   2.6432E+00   2.9718E-04  0.0064
   2.6432E+00   2.7075E+00   2.8812E-04  0.0064
   2.7075E+00   2.7734E+00   2.8305E-04  0.0064
   2.7734E+00   2.8409E+00   2.6769E-04  0.0065
   2.8409E+00   2.9100E+00   2.6872E-04  0.0064
   2.9100E+00   2.9808E+00   2.5966E-04  0.0065
   2.9808E+00   3.0533E+00   2.4692E-04  0.0066
   3.0533E+00   3.1276E+00   2.3778E-04  0.0066
   3.1276E+00   3.2037E+00   2.2111E-04  0.0068
   3.2037E+00   3.2817E+00   2.0953E-04  0.0069
   3.2817E+00   3.3615E+00   2.0043E-04  0.0069
   3.3615E+00   3.4433E+00   1.9201E-04  0.0070
   3.4433E+00   3.5271E+00   1.8103E-04  0.0071
   3.5271E+00   3.6129E+00   1.7628E-04  0.0071
   3.6129E+00   3.7008E+00   1.6506E-04  0.0073
   3.7008E+00   3.7908E+00   1.5549E-04  0.0074
   3.7908E+00   3.8831E+00   1.4749E-04  0.0075
   3.8831E+00   3.9776E+00   1.3607E-04  0.0077
   3.9776E+00   4.0743E+00   1.2864E-04  0.0079
   4.0743E+00   4.1735E+00   1.2143E-04  0.0080
   4.1735E+00   4.2750E+00   1.1214E-04  0.0082
   4.2750E+00   4.3790E+00   1.0405E-04  0.0084
   4.3790E+00   4.4856E+00   9.6792E-05  0.0086
   4.4856E+00   4.5947E+00   8.8505E-05  0.0089
   4.5947E+00   4.7065E+00   8.2897E-05  0.0091
   4.7065E+00   4.8210E+00   7.7411E-05  0.0093
   4.8210E+00   4.9383E+00   7.0261E-05  0.0097
   4.9383E+00   5.0585E+00   6.6370E-05  0.0098
   5.0585E+00   5.1815E+00   6.0106E-05  0.0102
   5.1815E+00   5.3076E+00   5.5817E-05  0.0105
   5.3076E+00   5.4368E+00   5.0637E-05  0.0108
   5.4368E+00   5.5690E+00   4.7268E-05  0.0111
   5.5690E+00   5.7045E+00   4.0985E-05  0.0118
   5.7045E+00   5.8433E+00   3.7886E-05  0.0121
   5.8433E+00   5.9855E+00   3.4595E-05  0.0125
   5.9855E+00   6.1311E+00   3.1804E-05  0.0129
   6.1311E+00   6.2803E+00   2.8471E-05  0.0135
   6.2803E+00   6.4331E+00   2.6184E-05  0.0139
   6.4331E+00   6.5896E+00   2.3760E-05  0.0144
   6.5896E+00   6.7500E+00   2.0823E-05  0.0152
   6.7500E+00   6.9142E+00   1.8873E-05  0.0157
   6.9142E+00   7.0824E+00   1.7209E-05  0.0163
   7.0824E+00   7.2548E+00   1.5089E-05  0.0172
   7.2548E+00   7.4313E+00   1.4253E-05  0.0175
   7.4313E+00   7.6121E+00   1.2711E-05  0.0183
   7.6121E+00   7.7973E+00   1.1410E-05  0.0191
   7.7973E+00   7.9870E+00   1.0096E-05  0.0200
   7.9870E+00   8.1813E+00   9.5108E-06  0.0204
   8.1813E+00   8.3804E+00   8.0234E-06  0.0219
   8.3804E+00   8.5843E+00   7.6088E-06  0.0223
   8.5843E+00   8.7931E+00   6.7182E-06  0.0234
   8.7931E+00   9.0071E+00   5.9469E-06  0.0246
   9.0071E+00   9.2262E+00   5.2054E-06  0.0260
   9.2262E+00   9.4507E+00   4.9276E-06  0.0263
   9.4507E+00   9.6807E+00   4.7169E-06  0.0266
   9.6807E+00   9.9162E+00   4.0856E-06  0.0282
   9.9162E+00   1.0157E+01   3.6362E-06  0.0296
   1.0157E+01   1.0405E+01   3.6557E-06  0.0291
   1.0405E+01   1.0658E+01   3.1100E-06  0.0312
   1.0658E+01   1.0917E+01   2.9353E-06  0.0317
   1.0917E+01   1.1183E+01   2.5702E-06  0.0335
   1.1183E+01   1.1455E+01   2.4102E-06  0.0342
   1.1455E+01   1.1733E+01   2.2080E-06  0.0353
   1.1733E+01   1.2019E+01   2.0411E-06  0.0362
   1.2019E+01   1.2311E+01   1.8190E-06  0.0379
   1.2311E+01   1.2611E+01   1.8130E-06  0.0375
   1.2611E+01   1.2918E+01   1.6634E-06  0.0387
   1.2918E+01   1.3232E+01   1.4391E-06  0.0411
   1.3232E+01   1.3554E+01   1.3428E-06  0.0420
   1.3554E+01   1.3884E+01   1.2398E-06  0.0432
   1.3884E+01   1.4222E+01   1.1591E-06  0.0442
   1.4222E+01   1.4568E+01   1.0949E-06  0.0449
   1.4568E+01   1.4922E+01   1.0938E-06  0.0443
   1.4922E+01   1.5285E+01   9.3435E-07  0.0474
   1.5285E+01   1.5657E+01   9.1733E-07  0.0473
   1.5657E+01   1.6038E+01   8.7938E-07  0.0477
   1.6038E+01   1.6428E+01   8.4174E-07  0.0482
   1.6428E+01   1.6828E+01   7.6786E-07  0.0497
   1.6828E+01   1.7237E+01   7.3647E-07  0.0503
   1.7237E+01   1.7657E+01   7.0064E-07  0.0508
   1.7657E+01   1.8086E+01   6.5803E-07  0.0519
   1.8086E+01   1.8526E+01   5.8734E-07  0.0544
   1.8526E+01   1.8977E+01   6.1008E-07  0.0525
   1.8977E+01   1.9439E+01   5.7726E-07  0.0536
   1.9439E+01   1.9912E+01   4.5702E-07  0.0595
   1.9912E+01   2.0396E+01   2.9215E-07  0.0737
   2.0396E+01   2.0893E+01   2.7746E-07  0.0747
   2.0893E+01   2.1401E+01   2.7238E-07  0.0745
   2.1401E+01   2.1922E+01   2.9398E-07  0.0709
   2.1922E+01   2.2455E+01   2.5527E-07  0.0752
   2.2455E+01   2.3001E+01   2.3654E-07  0.0772
   2.3001E+01   2.3561E+01   2.3779E-07  0.0760
   2.3561E+01   2.4134E+01   1.8383E-07  0.0854
   2.4134E+01   2.4721E+01   2.4628E-07  0.0729
   2.4721E+01   2.5323E+01   2.1485E-07  0.0772
   2.5323E+01   2.5939E+01   1.9476E-07  0.0801
   2.5939E+01   2.6570E+01   1.5357E-07  0.0891
   2.6570E+01   2.7217E+01   1.7491E-07  0.0825
   2.7217E+01   2.7879E+01   1.8586E-07  0.0791
   2.7879E+01   2.8557E+01   1.5083E-07  0.0867
   2.8557E+01   2.9252E+01   1.4282E-07  0.0880
   2.9252E+01   2.9964E+01   1.5347E-07  0.0839
   2.9964E+01   3.0693E+01   1.1817E-07  0.0945
   3.0693E+01   3.1440E+01   1.2052E-07  0.0925
   3.1440E+01   3.2205E+01   9.6537E-08  0.1021
   3.2205E+01   3.2988E+01   1.0406E-07  0.0971
   3.2988E+01   3.3791E+01   8.8172E-08  0.1043
   3.3791E+01   3.4613E+01   8.9820E-08  0.1021
   3.4613E+01   3.5455E+01   7.5813E-08  0.1098
   3.5455E+01   3.6318E+01   6.5095E-08  0.1170
   3.6318E+01   3.7201E+01   6.7031E-08  0.1140
   3.7201E+01   3.8106E+01   5.8640E-08  0.1204
   3.8106E+01   3.9034E+01   5.1439E-08  0.1270
   3.9034E+01   3.9983E+01   4.8597E-08  0.1291
   3.9983E+01   4.0956E+01   5.0606E-08  0.1250
   4.0956E+01   4.1953E+01   4.6316E-08  0.1291
   4.1953E+01   4.2973E+01   3.2405E-08  0.1525
   4.2973E+01   4.4019E+01   3.9728E-08  0.1361
   4.4019E+01   4.5090E+01   1.5801E-08  0.2132
   4.5090E+01   4.6187E+01   2.1035E-08  0.1826
   4.6187E+01   4.7311E+01   1.3690E-08  0.2236
   4.7311E+01   4.8462E+01   1.1360E-08  0.2425
   4.8462E+01   4.9641E+01   1.5657E-08  0.2041
   4.9641E+01   5.0849E+01   1.4011E-08  0.2132
   5.0849E+01   5.2086E+01   8.7046E-09  0.2673
   5.2086E+01   5.3353E+01   1.0319E-08  0.2425
   5.3353E+01   5.4651E+01   5.9257E-09  0.3162
   5.4651E+01   5.5981E+01   4.6280E-09  0.3536
   5.5981E+01   5.7343E+01   2.2590E-09  0.5000
   5.7343E+01   5.8738E+01   6.0647E-09  0.3015
   5.8738E+01   6.0168E+01   5.9207E-09  0.3015
   6.0168E+01   6.1632E+01   1.0509E-09  0.7071
   6.1632E+01   6.3131E+01   1.0260E-09  0.7071
   6.3131E+01   6.4667E+01   2.0032E-09  0.5000
   6.4667E+01   6.6240E+01   4.8890E-10  1.0000
   6.6240E+01   6.7852E+01   4.7728E-10  1.0000
   6.7852E+01   6.9503E+01   0.0000E+00  0.0000
   6.9503E+01   7.1194E+01   0.0000E+00  0.0000
   7.1194E+01   7.2926E+01   0.0000E+00  0.0000
   7.2926E+01   7.4701E+01   0.0000E+00  0.0000
   7.4701E+01   7.6518E+01   0.0000E+00  0.0000
   7.6518E+01   7.8380E+01   0.0000E+00  0.0000
   7.8380E+01   8.0287E+01   0.0000E+00  0.0000
   8.0287E+01   8.2240E+01   0.0000E+00  0.0000
   8.2240E+01   8.4241E+01   0.0000E+00  0.0000
   8.4241E+01   8.6291E+01   0.0000E+00  0.0000
   8.6291E+01   8.8391E+01   0.0000E+00  0.0000
   8.8391E+01   9.0541E+01   0.0000E+00  0.0000
   9.0541E+01   9.2744E+01   0.0000E+00  0.0000
   9.2744E+01   9.5001E+01   0.0000E+00  0.0000
   9.5001E+01   9.7312E+01   0.0000E+00  0.0000
   9.7312E+01   9.9680E+01   0.0000E+00  0.0000
   9.9680E+01   1.0211E+02   0.0000E+00  0.0000
   1.0211E+02   1.0459E+02   0.0000E+00  0.0000
   1.0459E+02   1.0713E+02   0.0000E+00  0.0000
   1.0713E+02   1.0974E+02   0.0000E+00  0.0000
   1.0974E+02   1.1241E+02   0.0000E+00  0.0000
   1.1241E+02   1.1515E+02   0.0000E+00  0.0000
   1.1515E+02   1.1795E+02   0.0000E+00  0.0000
   1.1795E+02   1.2082E+02   0.0000E+00  0.0000
   1.2082E+02   1.2376E+02   0.0000E+00  0.0000
   1.2376E+02   1.2677E+02   0.0000E+00  0.0000
   1.2677E+02   1.2985E+02   0.0000E+00  0.0000
   1.2985E+02   1.3301E+02   0.0000E+00  0.0000
   1.3301E+02   1.3625E+02   0.0000E+00  0.0000
   1.3625E+02   1.3956E+02   0.0000E+00  0.0000
   1.3956E+02   1.4296E+02   0.0000E+00  0.0000
   1.4296E+02   1.4644E+02   0.0000E+00  0.0000
   1.4644E+02   1.5000E+02   0.0000E+00  0.0000

#   sum over                 1.5935E-05
'no. =    1   reg = 125 - 225'
msuc: {\huge [t-cross] in region mesh}
msdr: {\it plotted by \ANGEL \version}
msdl: {\it calculated by \PHITS  3.26}
wt: s(0.7)
\vspace{-3}
  region surface crossing
  area  &=&   1.0000E+00 [cm^2]
e:
 
# Information for Restart Calculation
# This calculation was newly started
# istdev =  2 # 1:Batch variance, 2:History variance
# resc2  = 1.30000000000000000E+09 # Total source weight or Total source weight / maxcas
# resc3  = 1.30000000000000000E+09 # Total history number or Total batch number
# maxcas =   100000000 # History / Batch, only used for istdev=1
# bitrseed = 0011100100011011011100110110011010100101001111100010111010011000 # bit data of rseed
