[ T-Cross ]
    title = [t-cross] in region mesh
     mesh =  reg            # mesh type is region-wise
      reg =    1            # number of crossing regions
      non     r-from    r-to       area
      1       121       221        1.000000    
   e-type =    3            # e-mesh is log given by emin, emax and ne
     emin =  1.0000000E-02  # minimum value of e-mesh points
     emax =   150.0000      # maximum value of e-mesh points
#    edel =  2.4039514E-02  # mesh width of e-mesh points
       ne =    400          # number of e-mesh points
#    data = ( e(i), i = 1, ne + 1 )
#           1.00000E-02  1.02433E-02  1.04925E-02  1.07478E-02  1.10093E-02
#           1.12772E-02  1.15516E-02  1.18326E-02  1.21205E-02  1.24154E-02
#           1.27175E-02  1.30269E-02  1.33439E-02  1.36686E-02  1.40011E-02
#           1.43418E-02  1.46907E-02  1.50482E-02  1.54143E-02  1.57894E-02
#           1.61735E-02  1.65670E-02  1.69701E-02  1.73830E-02  1.78060E-02
#           1.82392E-02  1.86830E-02  1.91375E-02  1.96032E-02  2.00801E-02
#           2.05687E-02  2.10692E-02  2.15818E-02  2.21069E-02  2.26448E-02
#           2.31957E-02  2.37601E-02  2.43382E-02  2.49304E-02  2.55369E-02
#           2.61583E-02  2.67947E-02  2.74467E-02  2.81145E-02  2.87985E-02
#           2.94992E-02  3.02169E-02  3.09521E-02  3.17052E-02  3.24766E-02
#           3.32668E-02  3.40762E-02  3.49053E-02  3.57546E-02  3.66246E-02
#           3.75157E-02  3.84284E-02  3.93634E-02  4.03212E-02  4.13022E-02
#           4.23071E-02  4.33365E-02  4.43909E-02  4.54710E-02  4.65773E-02
#           4.77106E-02  4.88714E-02  5.00605E-02  5.12785E-02  5.25262E-02
#           5.38042E-02  5.51133E-02  5.64542E-02  5.78278E-02  5.92348E-02
#           6.06760E-02  6.21523E-02  6.36645E-02  6.52135E-02  6.68002E-02
#           6.84255E-02  7.00904E-02  7.17957E-02  7.35426E-02  7.53319E-02
#           7.71648E-02  7.90423E-02  8.09655E-02  8.29354E-02  8.49533E-02
#           8.70203E-02  8.91376E-02  9.13064E-02  9.35279E-02  9.58035E-02
#           9.81345E-02  1.00522E-01  1.02968E-01  1.05473E-01  1.08040E-01
#           1.10668E-01  1.13361E-01  1.16119E-01  1.18944E-01  1.21838E-01
#           1.24803E-01  1.27839E-01  1.30950E-01  1.34136E-01  1.37399E-01
#           1.40742E-01  1.44167E-01  1.47675E-01  1.51268E-01  1.54948E-01
#           1.58718E-01  1.62580E-01  1.66535E-01  1.70587E-01  1.74738E-01
#           1.78989E-01  1.83344E-01  1.87805E-01  1.92375E-01  1.97055E-01
#           2.01850E-01  2.06761E-01  2.11792E-01  2.16945E-01  2.22223E-01
#           2.27630E-01  2.33169E-01  2.38842E-01  2.44653E-01  2.50605E-01
#           2.56703E-01  2.62949E-01  2.69346E-01  2.75900E-01  2.82613E-01
#           2.89489E-01  2.96532E-01  3.03747E-01  3.11138E-01  3.18708E-01
#           3.26462E-01  3.34405E-01  3.42542E-01  3.50876E-01  3.59413E-01
#           3.68158E-01  3.77116E-01  3.86291E-01  3.95690E-01  4.05317E-01
#           4.15179E-01  4.25281E-01  4.35628E-01  4.46227E-01  4.57084E-01
#           4.68205E-01  4.79597E-01  4.91266E-01  5.03219E-01  5.15463E-01
#           5.28005E-01  5.40851E-01  5.54011E-01  5.67490E-01  5.81298E-01
#           5.95441E-01  6.09929E-01  6.24769E-01  6.39970E-01  6.55541E-01
#           6.71491E-01  6.87828E-01  7.04564E-01  7.21706E-01  7.39266E-01
#           7.57253E-01  7.75678E-01  7.94551E-01  8.13883E-01  8.33685E-01
#           8.53969E-01  8.74747E-01  8.96030E-01  9.17831E-01  9.40163E-01
#           9.63038E-01  9.86469E-01  1.01047E+00  1.03506E+00  1.06024E+00
#           1.08604E+00  1.11246E+00  1.13953E+00  1.16725E+00  1.19565E+00
#           1.22474E+00  1.25454E+00  1.28507E+00  1.31633E+00  1.34836E+00
#           1.38117E+00  1.41477E+00  1.44920E+00  1.48446E+00  1.52057E+00
#           1.55757E+00  1.59547E+00  1.63429E+00  1.67405E+00  1.71478E+00
#           1.75650E+00  1.79924E+00  1.84302E+00  1.88786E+00  1.93379E+00
#           1.98084E+00  2.02904E+00  2.07841E+00  2.12898E+00  2.18078E+00
#           2.23384E+00  2.28819E+00  2.34386E+00  2.40089E+00  2.45930E+00
#           2.51914E+00  2.58043E+00  2.64322E+00  2.70753E+00  2.77341E+00
#           2.84088E+00  2.91001E+00  2.98081E+00  3.05333E+00  3.12762E+00
#           3.20372E+00  3.28167E+00  3.36152E+00  3.44330E+00  3.52708E+00
#           3.61290E+00  3.70080E+00  3.79085E+00  3.88308E+00  3.97756E+00
#           4.07434E+00  4.17347E+00  4.27501E+00  4.37903E+00  4.48557E+00
#           4.59471E+00  4.70650E+00  4.82102E+00  4.93832E+00  5.05847E+00
#           5.18155E+00  5.30762E+00  5.43676E+00  5.56904E+00  5.70453E+00
#           5.84333E+00  5.98550E+00  6.13114E+00  6.28031E+00  6.43312E+00
#           6.58964E+00  6.74997E+00  6.91420E+00  7.08243E+00  7.25475E+00
#           7.43126E+00  7.61207E+00  7.79728E+00  7.98700E+00  8.18133E+00
#           8.38038E+00  8.58428E+00  8.79315E+00  9.00709E+00  9.22624E+00
#           9.45072E+00  9.68067E+00  9.91620E+00  1.01575E+01  1.04046E+01
#           1.06578E+01  1.09171E+01  1.11827E+01  1.14548E+01  1.17335E+01
#           1.20190E+01  1.23114E+01  1.26109E+01  1.29178E+01  1.32321E+01
#           1.35540E+01  1.38838E+01  1.42216E+01  1.45676E+01  1.49221E+01
#           1.52851E+01  1.56570E+01  1.60380E+01  1.64282E+01  1.68279E+01
#           1.72374E+01  1.76568E+01  1.80864E+01  1.85264E+01  1.89772E+01
#           1.94389E+01  1.99119E+01  2.03963E+01  2.08926E+01  2.14009E+01
#           2.19216E+01  2.24550E+01  2.30014E+01  2.35610E+01  2.41343E+01
#           2.47215E+01  2.53230E+01  2.59391E+01  2.65702E+01  2.72167E+01
#           2.78789E+01  2.85572E+01  2.92520E+01  2.99637E+01  3.06928E+01
#           3.14396E+01  3.22045E+01  3.29881E+01  3.37907E+01  3.46128E+01
#           3.54550E+01  3.63177E+01  3.72013E+01  3.81064E+01  3.90336E+01
#           3.99833E+01  4.09561E+01  4.19526E+01  4.29734E+01  4.40189E+01
#           4.50900E+01  4.61870E+01  4.73108E+01  4.84619E+01  4.96410E+01
#           5.08488E+01  5.20860E+01  5.33533E+01  5.46514E+01  5.59812E+01
#           5.73432E+01  5.87384E+01  6.01676E+01  6.16315E+01  6.31311E+01
#           6.46671E+01  6.62405E+01  6.78522E+01  6.95031E+01  7.11941E+01
#           7.29263E+01  7.47007E+01  7.65182E+01  7.83800E+01  8.02870E+01
#           8.22405E+01  8.42414E+01  8.62911E+01  8.83906E+01  9.05412E+01
#           9.27442E+01  9.50007E+01  9.73122E+01  9.96799E+01  1.02105E+02
#           1.04589E+02  1.07134E+02  1.09741E+02  1.12411E+02  1.15146E+02
#           1.17948E+02  1.20817E+02  1.23757E+02  1.26768E+02  1.29852E+02
#           1.33012E+02  1.36248E+02  1.39563E+02  1.42959E+02  1.46437E+02
#           1.50000E+02
     unit =    2            # unit is [1/cm^2/(MeV/n)/source]
     axis =  eng            # axis of output
     file = detector-22.out  # file name of output for the above axis
   output = f-curr          # surface crossing forward current spectrum
     part =  neutron  
# kf/name :  2112     
#    used :        main (  %)        temp (  %)       total (  %)
#  memory :         414 (  0)           0 (  0)         414 (  0)

#------------------------------------------------------------------------------
#newpage:
#   no. =    1   reg = 121 - 221

x: Energy [MeV/n]
y:  F-Curr [1/cm^2/(MeV/n)/source]         
p: xlog ylog afac(0.8) form(0.9)
h: n            x            y(neutron ),hh0l   n 
#  e-lower      e-upper      neutron     r.err 
   1.0000E-02   1.0243E-02   2.6010E-02  0.0110
   1.0243E-02   1.0493E-02   2.5942E-02  0.0109
   1.0493E-02   1.0748E-02   2.4774E-02  0.0110
   1.0748E-02   1.1009E-02   2.4537E-02  0.0110
   1.1009E-02   1.1277E-02   2.4188E-02  0.0109
   1.1277E-02   1.1552E-02   2.3430E-02  0.0109
   1.1552E-02   1.1833E-02   2.2746E-02  0.0110
   1.1833E-02   1.2121E-02   2.3032E-02  0.0108
   1.2121E-02   1.2415E-02   2.2219E-02  0.0108
   1.2415E-02   1.2718E-02   2.1821E-02  0.0108
   1.2718E-02   1.3027E-02   2.1454E-02  0.0108
   1.3027E-02   1.3344E-02   2.0750E-02  0.0108
   1.3344E-02   1.3669E-02   2.0824E-02  0.0107
   1.3669E-02   1.4001E-02   2.0797E-02  0.0105
   1.4001E-02   1.4342E-02   1.9766E-02  0.0107
   1.4342E-02   1.4691E-02   1.9605E-02  0.0106
   1.4691E-02   1.5048E-02   1.8792E-02  0.0107
   1.5048E-02   1.5414E-02   1.9054E-02  0.0105
   1.5414E-02   1.5789E-02   1.8570E-02  0.0105
   1.5789E-02   1.6174E-02   1.8041E-02  0.0105
   1.6174E-02   1.6567E-02   1.7608E-02  0.0105
   1.6567E-02   1.6970E-02   1.7538E-02  0.0104
   1.6970E-02   1.7383E-02   1.7207E-02  0.0104
   1.7383E-02   1.7806E-02   1.6527E-02  0.0105
   1.7806E-02   1.8239E-02   1.6650E-02  0.0103
   1.8239E-02   1.8683E-02   1.5821E-02  0.0105
   1.8683E-02   1.9138E-02   1.6069E-02  0.0103
   1.9138E-02   1.9603E-02   1.5433E-02  0.0103
   1.9603E-02   2.0080E-02   1.5136E-02  0.0103
   2.0080E-02   2.0569E-02   1.4946E-02  0.0103
   2.0569E-02   2.1069E-02   1.4762E-02  0.0102
   2.1069E-02   2.1582E-02   1.4364E-02  0.0102
   2.1582E-02   2.2107E-02   1.3915E-02  0.0103
   2.2107E-02   2.2645E-02   1.3945E-02  0.0101
   2.2645E-02   2.3196E-02   1.3618E-02  0.0101
   2.3196E-02   2.3760E-02   1.3385E-02  0.0101
   2.3760E-02   2.4338E-02   1.3354E-02  0.0100
   2.4338E-02   2.4930E-02   1.2821E-02  0.0101
   2.4930E-02   2.5537E-02   1.2586E-02  0.0100
   2.5537E-02   2.6158E-02   1.2315E-02  0.0100
   2.6158E-02   2.6795E-02   1.2313E-02  0.0099
   2.6795E-02   2.7447E-02   1.1963E-02  0.0099
   2.7447E-02   2.8114E-02   1.1774E-02  0.0099
   2.8114E-02   2.8799E-02   1.1460E-02  0.0099
   2.8799E-02   2.9499E-02   1.1252E-02  0.0099
   2.9499E-02   3.0217E-02   1.0986E-02  0.0099
   3.0217E-02   3.0952E-02   1.0957E-02  0.0098
   3.0952E-02   3.1705E-02   1.0700E-02  0.0098
   3.1705E-02   3.2477E-02   1.0563E-02  0.0097
   3.2477E-02   3.3267E-02   1.0171E-02  0.0098
   3.3267E-02   3.4076E-02   1.0174E-02  0.0097
   3.4076E-02   3.4905E-02   9.8058E-03  0.0097
   3.4905E-02   3.5755E-02   9.8152E-03  0.0096
   3.5755E-02   3.6625E-02   9.6046E-03  0.0096
   3.6625E-02   3.7516E-02   9.5448E-03  0.0095
   3.7516E-02   3.8428E-02   9.2742E-03  0.0095
   3.8428E-02   3.9363E-02   9.1901E-03  0.0095
   3.9363E-02   4.0321E-02   9.0220E-03  0.0094
   4.0321E-02   4.1302E-02   8.5635E-03  0.0096
   4.1302E-02   4.2307E-02   8.6544E-03  0.0094
   4.2307E-02   4.3337E-02   8.3928E-03  0.0094
   4.3337E-02   4.4391E-02   8.3758E-03  0.0093
   4.4391E-02   4.5471E-02   8.2395E-03  0.0093
   4.5471E-02   4.6577E-02   7.9048E-03  0.0094
   4.6577E-02   4.7711E-02   7.8032E-03  0.0093
   4.7711E-02   4.8871E-02   7.7858E-03  0.0092
   4.8871E-02   5.0061E-02   7.6135E-03  0.0092
   5.0061E-02   5.1279E-02   7.3354E-03  0.0093
   5.1279E-02   5.2526E-02   7.2848E-03  0.0092
   5.2526E-02   5.3804E-02   7.2752E-03  0.0091
   5.3804E-02   5.5113E-02   6.9919E-03  0.0092
   5.5113E-02   5.6454E-02   6.8009E-03  0.0092
   5.6454E-02   5.7828E-02   6.8345E-03  0.0091
   5.7828E-02   5.9235E-02   6.6858E-03  0.0090
   5.9235E-02   6.0676E-02   6.5153E-03  0.0091
   6.0676E-02   6.2152E-02   6.3847E-03  0.0090
   6.2152E-02   6.3665E-02   6.3526E-03  0.0089
   6.3665E-02   6.5214E-02   6.1846E-03  0.0090
   6.5214E-02   6.6800E-02   6.2171E-03  0.0088
   6.6800E-02   6.8426E-02   6.0491E-03  0.0088
   6.8426E-02   7.0090E-02   5.8994E-03  0.0089
   7.0090E-02   7.1796E-02   5.7831E-03  0.0088
   7.1796E-02   7.3543E-02   5.5943E-03  0.0089
   7.3543E-02   7.5332E-02   5.5949E-03  0.0088
   7.5332E-02   7.7165E-02   5.3875E-03  0.0088
   7.7165E-02   7.9042E-02   5.3580E-03  0.0087
   7.9042E-02   8.0965E-02   5.3114E-03  0.0087
   8.0965E-02   8.2935E-02   5.1528E-03  0.0087
   8.2935E-02   8.4953E-02   5.2515E-03  0.0085
   8.4953E-02   8.7020E-02   5.0356E-03  0.0086
   8.7020E-02   8.9138E-02   4.9690E-03  0.0086
   8.9138E-02   9.1306E-02   4.8535E-03  0.0085
   9.1306E-02   9.3528E-02   4.7818E-03  0.0085
   9.3528E-02   9.5804E-02   4.7073E-03  0.0085
   9.5804E-02   9.8134E-02   4.5709E-03  0.0085
   9.8134E-02   1.0052E-01   4.5184E-03  0.0084
   1.0052E-01   1.0297E-01   4.4334E-03  0.0084
   1.0297E-01   1.0547E-01   4.4269E-03  0.0083
   1.0547E-01   1.0804E-01   4.2621E-03  0.0084
   1.0804E-01   1.1067E-01   4.2589E-03  0.0083
   1.1067E-01   1.1336E-01   4.0855E-03  0.0084
   1.1336E-01   1.1612E-01   4.0367E-03  0.0083
   1.1612E-01   1.1894E-01   4.0187E-03  0.0082
   1.1894E-01   1.2184E-01   3.8815E-03  0.0083
   1.2184E-01   1.2480E-01   3.8774E-03  0.0082
   1.2480E-01   1.2784E-01   3.7311E-03  0.0082
   1.2784E-01   1.3095E-01   3.7205E-03  0.0082
   1.3095E-01   1.3414E-01   3.6340E-03  0.0082
   1.3414E-01   1.3740E-01   3.5748E-03  0.0081
   1.3740E-01   1.4074E-01   3.5659E-03  0.0080
   1.4074E-01   1.4417E-01   3.4589E-03  0.0081
   1.4417E-01   1.4767E-01   3.4059E-03  0.0080
   1.4767E-01   1.5127E-01   3.3793E-03  0.0080
   1.5127E-01   1.5495E-01   3.2483E-03  0.0080
   1.5495E-01   1.5872E-01   3.2131E-03  0.0080
   1.5872E-01   1.6258E-01   3.1606E-03  0.0079
   1.6258E-01   1.6654E-01   3.1450E-03  0.0079
   1.6654E-01   1.7059E-01   3.1132E-03  0.0078
   1.7059E-01   1.7474E-01   3.0378E-03  0.0078
   1.7474E-01   1.7899E-01   2.9343E-03  0.0079
   1.7899E-01   1.8334E-01   2.9257E-03  0.0078
   1.8334E-01   1.8781E-01   2.8562E-03  0.0078
   1.8781E-01   1.9237E-01   2.7992E-03  0.0078
   1.9237E-01   1.9706E-01   2.7615E-03  0.0077
   1.9706E-01   2.0185E-01   2.7138E-03  0.0077
   2.0185E-01   2.0676E-01   2.6620E-03  0.0077
   2.0676E-01   2.1179E-01   2.6410E-03  0.0076
   2.1179E-01   2.1694E-01   2.5925E-03  0.0076
   2.1694E-01   2.2222E-01   2.5144E-03  0.0076
   2.2222E-01   2.2763E-01   2.5194E-03  0.0075
   2.2763E-01   2.3317E-01   2.4450E-03  0.0075
   2.3317E-01   2.3884E-01   2.3904E-03  0.0075
   2.3884E-01   2.4465E-01   2.3880E-03  0.0074
   2.4465E-01   2.5061E-01   2.3288E-03  0.0075
   2.5061E-01   2.5670E-01   2.2802E-03  0.0074
   2.5670E-01   2.6295E-01   2.2346E-03  0.0074
   2.6295E-01   2.6935E-01   2.2094E-03  0.0074
   2.6935E-01   2.7590E-01   2.1539E-03  0.0074
   2.7590E-01   2.8261E-01   2.1302E-03  0.0073
   2.8261E-01   2.8949E-01   2.0697E-03  0.0074
   2.8949E-01   2.9653E-01   2.0479E-03  0.0073
   2.9653E-01   3.0375E-01   1.9975E-03  0.0073
   3.0375E-01   3.1114E-01   1.9587E-03  0.0073
   3.1114E-01   3.1871E-01   1.9362E-03  0.0072
   3.1871E-01   3.2646E-01   1.8789E-03  0.0073
   3.2646E-01   3.3441E-01   1.8611E-03  0.0072
   3.3441E-01   3.4254E-01   1.8448E-03  0.0072
   3.4254E-01   3.5088E-01   1.7930E-03  0.0072
   3.5088E-01   3.5941E-01   1.7470E-03  0.0072
   3.5941E-01   3.6816E-01   1.7044E-03  0.0072
   3.6816E-01   3.7712E-01   1.6881E-03  0.0071
   3.7712E-01   3.8629E-01   1.6313E-03  0.0072
   3.8629E-01   3.9569E-01   1.6136E-03  0.0071
   3.9569E-01   4.0532E-01   1.5813E-03  0.0071
   4.0532E-01   4.1518E-01   1.5409E-03  0.0071
   4.1518E-01   4.2528E-01   1.5132E-03  0.0071
   4.2528E-01   4.3563E-01   1.4850E-03  0.0071
   4.3563E-01   4.4623E-01   1.4716E-03  0.0070
   4.4623E-01   4.5708E-01   1.4258E-03  0.0070
   4.5708E-01   4.6821E-01   1.4130E-03  0.0070
   4.6821E-01   4.7960E-01   1.3472E-03  0.0071
   4.7960E-01   4.9127E-01   1.3311E-03  0.0070
   4.9127E-01   5.0322E-01   1.2809E-03  0.0071
   5.0322E-01   5.1546E-01   1.2686E-03  0.0070
   5.1546E-01   5.2800E-01   1.2464E-03  0.0070
   5.2800E-01   5.4085E-01   1.2147E-03  0.0070
   5.4085E-01   5.5401E-01   1.1729E-03  0.0071
   5.5401E-01   5.6749E-01   1.1481E-03  0.0071
   5.6749E-01   5.8130E-01   1.1248E-03  0.0070
   5.8130E-01   5.9544E-01   1.1022E-03  0.0070
   5.9544E-01   6.0993E-01   1.0776E-03  0.0070
   6.0993E-01   6.2477E-01   1.0323E-03  0.0071
   6.2477E-01   6.3997E-01   1.0098E-03  0.0071
   6.3997E-01   6.5554E-01   9.7702E-04  0.0071
   6.5554E-01   6.7149E-01   9.5419E-04  0.0071
   6.7149E-01   6.8783E-01   9.2374E-04  0.0071
   6.8783E-01   7.0456E-01   8.9764E-04  0.0072
   7.0456E-01   7.2171E-01   8.7614E-04  0.0072
   7.2171E-01   7.3927E-01   8.4652E-04  0.0072
   7.3927E-01   7.5725E-01   8.2028E-04  0.0072
   7.5725E-01   7.7568E-01   7.8795E-04  0.0073
   7.7568E-01   7.9455E-01   7.7066E-04  0.0073
   7.9455E-01   8.1388E-01   7.4307E-04  0.0073
   8.1388E-01   8.3368E-01   7.1491E-04  0.0074
   8.3368E-01   8.5397E-01   6.9264E-04  0.0074
   8.5397E-01   8.7475E-01   6.6376E-04  0.0075
   8.7475E-01   8.9603E-01   6.3461E-04  0.0075
   8.9603E-01   9.1783E-01   6.1832E-04  0.0076
   9.1783E-01   9.4016E-01   5.8665E-04  0.0077
   9.4016E-01   9.6304E-01   5.6387E-04  0.0077
   9.6304E-01   9.8647E-01   5.3899E-04  0.0078
   9.8647E-01   1.0105E+00   5.2535E-04  0.0078
   1.0105E+00   1.0351E+00   5.1505E-04  0.0078
   1.0351E+00   1.0602E+00   5.1651E-04  0.0077
   1.0602E+00   1.0860E+00   5.4317E-04  0.0074
   1.0860E+00   1.1125E+00   5.4225E-04  0.0073
   1.1125E+00   1.1395E+00   5.5256E-04  0.0072
   1.1395E+00   1.1673E+00   5.6468E-04  0.0070
   1.1673E+00   1.1957E+00   5.7685E-04  0.0069
   1.1957E+00   1.2247E+00   5.8979E-04  0.0067
   1.2247E+00   1.2545E+00   5.9075E-04  0.0066
   1.2545E+00   1.2851E+00   5.9854E-04  0.0065
   1.2851E+00   1.3163E+00   6.0654E-04  0.0064
   1.3163E+00   1.3484E+00   6.1246E-04  0.0063
   1.3484E+00   1.3812E+00   6.2797E-04  0.0061
   1.3812E+00   1.4148E+00   6.4208E-04  0.0060
   1.4148E+00   1.4492E+00   6.3926E-04  0.0059
   1.4492E+00   1.4845E+00   6.3573E-04  0.0059
   1.4845E+00   1.5206E+00   6.3248E-04  0.0058
   1.5206E+00   1.5576E+00   6.2598E-04  0.0058
   1.5576E+00   1.5955E+00   6.3267E-04  0.0057
   1.5955E+00   1.6343E+00   6.4005E-04  0.0056
   1.6343E+00   1.6741E+00   6.4359E-04  0.0055
   1.6741E+00   1.7148E+00   6.6034E-04  0.0054
   1.7148E+00   1.7565E+00   6.4206E-04  0.0054
   1.7565E+00   1.7992E+00   6.3990E-04  0.0053
   1.7992E+00   1.8430E+00   6.3531E-04  0.0053
   1.8430E+00   1.8879E+00   6.2452E-04  0.0052
   1.8879E+00   1.9338E+00   6.3205E-04  0.0051
   1.9338E+00   1.9808E+00   6.3180E-04  0.0051
   1.9808E+00   2.0290E+00   6.2664E-04  0.0050
   2.0290E+00   2.0784E+00   6.1822E-04  0.0050
   2.0784E+00   2.1290E+00   5.9791E-04  0.0050
   2.1290E+00   2.1808E+00   5.8913E-04  0.0050
   2.1808E+00   2.2338E+00   5.7487E-04  0.0050
   2.2338E+00   2.2882E+00   5.6441E-04  0.0050
   2.2882E+00   2.3439E+00   5.5692E-04  0.0050
   2.3439E+00   2.4009E+00   5.5438E-04  0.0049
   2.4009E+00   2.4593E+00   5.3895E-04  0.0049
   2.4593E+00   2.5191E+00   5.2335E-04  0.0050
   2.5191E+00   2.5804E+00   5.0248E-04  0.0050
   2.5804E+00   2.6432E+00   4.8435E-04  0.0050
   2.6432E+00   2.7075E+00   4.6573E-04  0.0051
   2.7075E+00   2.7734E+00   4.5325E-04  0.0051
   2.7734E+00   2.8409E+00   4.4142E-04  0.0051
   2.8409E+00   2.9100E+00   4.3535E-04  0.0051
   2.9100E+00   2.9808E+00   4.1907E-04  0.0051
   2.9808E+00   3.0533E+00   4.0560E-04  0.0051
   3.0533E+00   3.1276E+00   3.8227E-04  0.0052
   3.1276E+00   3.2037E+00   3.6493E-04  0.0053
   3.2037E+00   3.2817E+00   3.4390E-04  0.0054
   3.2817E+00   3.3615E+00   3.2672E-04  0.0054
   3.3615E+00   3.4433E+00   3.1169E-04  0.0055
   3.4433E+00   3.5271E+00   2.9752E-04  0.0056
   3.5271E+00   3.6129E+00   2.8279E-04  0.0056
   3.6129E+00   3.7008E+00   2.6688E-04  0.0057
   3.7008E+00   3.7908E+00   2.5471E-04  0.0058
   3.7908E+00   3.8831E+00   2.3868E-04  0.0059
   3.8831E+00   3.9776E+00   2.2589E-04  0.0060
   3.9776E+00   4.0743E+00   2.1242E-04  0.0061
   4.0743E+00   4.1735E+00   1.9755E-04  0.0063
   4.1735E+00   4.2750E+00   1.8558E-04  0.0064
   4.2750E+00   4.3790E+00   1.6966E-04  0.0066
   4.3790E+00   4.4856E+00   1.5873E-04  0.0067
   4.4856E+00   4.5947E+00   1.4503E-04  0.0070
   4.5947E+00   4.7065E+00   1.3488E-04  0.0071
   4.7065E+00   4.8210E+00   1.2652E-04  0.0073
   4.8210E+00   4.9383E+00   1.1632E-04  0.0075
   4.9383E+00   5.0585E+00   1.0677E-04  0.0077
   5.0585E+00   5.1815E+00   9.9613E-05  0.0079
   5.1815E+00   5.3076E+00   9.1371E-05  0.0082
   5.3076E+00   5.4368E+00   8.3706E-05  0.0084
   5.4368E+00   5.5690E+00   7.5361E-05  0.0088
   5.5690E+00   5.7045E+00   7.0020E-05  0.0090
   5.7045E+00   5.8433E+00   6.3103E-05  0.0094
   5.8433E+00   5.9855E+00   5.6848E-05  0.0098
   5.9855E+00   6.1311E+00   5.2170E-05  0.0101
   6.1311E+00   6.2803E+00   4.7943E-05  0.0104
   6.2803E+00   6.4331E+00   4.3633E-05  0.0107
   6.4331E+00   6.5896E+00   3.9031E-05  0.0112
   6.5896E+00   6.7500E+00   3.5146E-05  0.0117
   6.7500E+00   6.9142E+00   3.1905E-05  0.0121
   6.9142E+00   7.0824E+00   2.9416E-05  0.0125
   7.0824E+00   7.2548E+00   2.5419E-05  0.0132
   7.2548E+00   7.4313E+00   2.3657E-05  0.0136
   7.4313E+00   7.6121E+00   2.0489E-05  0.0144
   7.6121E+00   7.7973E+00   1.9090E-05  0.0147
   7.7973E+00   7.9870E+00   1.6831E-05  0.0155
   7.9870E+00   8.1813E+00   1.5177E-05  0.0161
   8.1813E+00   8.3804E+00   1.3841E-05  0.0167
   8.3804E+00   8.5843E+00   1.2588E-05  0.0173
   8.5843E+00   8.7931E+00   1.1402E-05  0.0180
   8.7931E+00   9.0071E+00   1.0461E-05  0.0185
   9.0071E+00   9.2262E+00   9.2719E-06  0.0194
   9.2262E+00   9.4507E+00   8.5393E-06  0.0200
   9.4507E+00   9.6807E+00   7.6892E-06  0.0208
   9.6807E+00   9.9162E+00   6.7815E-06  0.0219
   9.9162E+00   1.0157E+01   6.2968E-06  0.0225
   1.0157E+01   1.0405E+01   5.7302E-06  0.0233
   1.0405E+01   1.0658E+01   5.4984E-06  0.0235
   1.0658E+01   1.0917E+01   4.6247E-06  0.0253
   1.0917E+01   1.1183E+01   4.4627E-06  0.0254
   1.1183E+01   1.1455E+01   3.9990E-06  0.0265
   1.1455E+01   1.1733E+01   3.7122E-06  0.0272
   1.1733E+01   1.2019E+01   3.4516E-06  0.0278
   1.2019E+01   1.2311E+01   3.2684E-06  0.0283
   1.2311E+01   1.2611E+01   2.8505E-06  0.0299
   1.2611E+01   1.2918E+01   2.6637E-06  0.0306
   1.2918E+01   1.3232E+01   2.5319E-06  0.0310
   1.3232E+01   1.3554E+01   2.3654E-06  0.0317
   1.3554E+01   1.3884E+01   2.1273E-06  0.0330
   1.3884E+01   1.4222E+01   2.0768E-06  0.0330
   1.4222E+01   1.4568E+01   1.8140E-06  0.0349
   1.4568E+01   1.4922E+01   1.8013E-06  0.0346
   1.4922E+01   1.5285E+01   1.6992E-06  0.0352
   1.5285E+01   1.5657E+01   1.6216E-06  0.0356
   1.5657E+01   1.6038E+01   1.4488E-06  0.0372
   1.6038E+01   1.6428E+01   1.3060E-06  0.0387
   1.6428E+01   1.6828E+01   1.3577E-06  0.0375
   1.6828E+01   1.7237E+01   1.1789E-06  0.0397
   1.7237E+01   1.7657E+01   1.1087E-06  0.0405
   1.7657E+01   1.8086E+01   1.1254E-06  0.0397
   1.8086E+01   1.8526E+01   1.0523E-06  0.0405
   1.8526E+01   1.8977E+01   9.3858E-07  0.0425
   1.8977E+01   1.9439E+01   9.0046E-07  0.0429
   1.9439E+01   1.9912E+01   7.4815E-07  0.0465
   1.9912E+01   2.0396E+01   5.0968E-07  0.0558
   2.0396E+01   2.0893E+01   4.6502E-07  0.0577
   2.0893E+01   2.1401E+01   4.5549E-07  0.0576
   2.1401E+01   2.1922E+01   4.1364E-07  0.0598
   2.1922E+01   2.2455E+01   4.1103E-07  0.0592
   2.2455E+01   2.3001E+01   4.2661E-07  0.0574
   2.3001E+01   2.3561E+01   3.8624E-07  0.0597
   2.3561E+01   2.4134E+01   4.1866E-07  0.0566
   2.4134E+01   2.4721E+01   3.7335E-07  0.0592
   2.4721E+01   2.5323E+01   3.2355E-07  0.0629
   2.5323E+01   2.5939E+01   3.3834E-07  0.0607
   2.5939E+01   2.6570E+01   3.0593E-07  0.0631
   2.6570E+01   2.7217E+01   3.2603E-07  0.0604
   2.7217E+01   2.7879E+01   2.9854E-07  0.0624
   2.7879E+01   2.8557E+01   2.4041E-07  0.0687
   2.8557E+01   2.9252E+01   2.3028E-07  0.0693
   2.9252E+01   2.9964E+01   2.0643E-07  0.0724
   2.9964E+01   3.0693E+01   2.1208E-07  0.0705
   3.0693E+01   3.1440E+01   2.0395E-07  0.0711
   3.1440E+01   3.2205E+01   1.8201E-07  0.0743
   3.2205E+01   3.2988E+01   1.7278E-07  0.0754
   3.2988E+01   3.3791E+01   1.4759E-07  0.0806
   3.3791E+01   3.4613E+01   1.3941E-07  0.0819
   3.4613E+01   3.5455E+01   1.3427E-07  0.0825
   3.5455E+01   3.6318E+01   1.2038E-07  0.0861
   3.6318E+01   3.7201E+01   9.8370E-08  0.0941
   3.7201E+01   3.8106E+01   1.0283E-07  0.0909
   3.8106E+01   3.9034E+01   8.3796E-08  0.0995
   3.9034E+01   3.9983E+01   7.0466E-08  0.1072
   3.9983E+01   4.0956E+01   7.5909E-08  0.1021
   4.0956E+01   4.1953E+01   5.7123E-08  0.1162
   4.1953E+01   4.2973E+01   5.4259E-08  0.1179
   4.2973E+01   4.4019E+01   4.4142E-08  0.1291
   4.4019E+01   4.5090E+01   4.4530E-08  0.1270
   4.5090E+01   4.6187E+01   4.5576E-08  0.1240
   4.6187E+01   4.7311E+01   3.5595E-08  0.1387
   4.7311E+01   4.8462E+01   2.2052E-08  0.1741
   4.8462E+01   4.9641E+01   2.5443E-08  0.1601
   4.9641E+01   5.0849E+01   2.1654E-08  0.1715
   5.0849E+01   5.2086E+01   1.6166E-08  0.1961
   5.2086E+01   5.3353E+01   1.5175E-08  0.2000
   5.3353E+01   5.4651E+01   1.0074E-08  0.2425
   5.4651E+01   5.5981E+01   1.0991E-08  0.2294
   5.5981E+01   5.7343E+01   9.6008E-09  0.2425
   5.7343E+01   5.8738E+01   6.0647E-09  0.3015
   5.8738E+01   6.0168E+01   5.9207E-09  0.3015
   6.0168E+01   6.1632E+01   4.2037E-09  0.3536
   6.1632E+01   6.3131E+01   5.6427E-09  0.3015
   6.3131E+01   6.4667E+01   1.5024E-09  0.5774
   6.4667E+01   6.6240E+01   1.4667E-09  0.5774
   6.6240E+01   6.7852E+01   0.0000E+00  0.0000
   6.7852E+01   6.9503E+01   0.0000E+00  0.0000
   6.9503E+01   7.1194E+01   9.0976E-10  0.7071
   7.1194E+01   7.2926E+01   0.0000E+00  0.0000
   7.2926E+01   7.4701E+01   8.6705E-10  0.7071
   7.4701E+01   7.6518E+01   0.0000E+00  0.0000
   7.6518E+01   7.8380E+01   0.0000E+00  0.0000
   7.8380E+01   8.0287E+01   0.0000E+00  0.0000
   8.0287E+01   8.2240E+01   0.0000E+00  0.0000
   8.2240E+01   8.4241E+01   0.0000E+00  0.0000
   8.4241E+01   8.6291E+01   0.0000E+00  0.0000
   8.6291E+01   8.8391E+01   0.0000E+00  0.0000
   8.8391E+01   9.0541E+01   0.0000E+00  0.0000
   9.0541E+01   9.2744E+01   0.0000E+00  0.0000
   9.2744E+01   9.5001E+01   0.0000E+00  0.0000
   9.5001E+01   9.7312E+01   0.0000E+00  0.0000
   9.7312E+01   9.9680E+01   0.0000E+00  0.0000
   9.9680E+01   1.0211E+02   0.0000E+00  0.0000
   1.0211E+02   1.0459E+02   0.0000E+00  0.0000
   1.0459E+02   1.0713E+02   0.0000E+00  0.0000
   1.0713E+02   1.0974E+02   0.0000E+00  0.0000
   1.0974E+02   1.1241E+02   0.0000E+00  0.0000
   1.1241E+02   1.1515E+02   0.0000E+00  0.0000
   1.1515E+02   1.1795E+02   0.0000E+00  0.0000
   1.1795E+02   1.2082E+02   0.0000E+00  0.0000
   1.2082E+02   1.2376E+02   0.0000E+00  0.0000
   1.2376E+02   1.2677E+02   0.0000E+00  0.0000
   1.2677E+02   1.2985E+02   0.0000E+00  0.0000
   1.2985E+02   1.3301E+02   0.0000E+00  0.0000
   1.3301E+02   1.3625E+02   0.0000E+00  0.0000
   1.3625E+02   1.3956E+02   0.0000E+00  0.0000
   1.3956E+02   1.4296E+02   0.0000E+00  0.0000
   1.4296E+02   1.4644E+02   0.0000E+00  0.0000
   1.4644E+02   1.5000E+02   0.0000E+00  0.0000

#   sum over                 2.5847E-05
'no. =    1   reg = 121 - 221'
msuc: {\huge [t-cross] in region mesh}
msdr: {\it plotted by \ANGEL \version}
msdl: {\it calculated by \PHITS  3.26}
wt: s(0.7)
\vspace{-3}
  region surface crossing
  area  &=&   1.0000E+00 [cm^2]
e:
 
# Information for Restart Calculation
# This calculation was newly started
# istdev =  2 # 1:Batch variance, 2:History variance
# resc2  = 1.30000000000000000E+09 # Total source weight or Total source weight / maxcas
# resc3  = 1.30000000000000000E+09 # Total history number or Total batch number
# maxcas =   100000000 # History / Batch, only used for istdev=1
# bitrseed = 0011100100011011011100110110011010100101001111100010111010011000 # bit data of rseed
