[ T-Cross ]
    title = [t-cross] in region mesh
     mesh =  reg            # mesh type is region-wise
      reg =    1            # number of crossing regions
      non     r-from    r-to       area
      1       112       212        1.000000    
   e-type =    3            # e-mesh is log given by emin, emax and ne
     emin =  1.0000000E-02  # minimum value of e-mesh points
     emax =   150.0000      # maximum value of e-mesh points
#    edel =  2.4039514E-02  # mesh width of e-mesh points
       ne =    400          # number of e-mesh points
#    data = ( e(i), i = 1, ne + 1 )
#           1.00000E-02  1.02433E-02  1.04925E-02  1.07478E-02  1.10093E-02
#           1.12772E-02  1.15516E-02  1.18326E-02  1.21205E-02  1.24154E-02
#           1.27175E-02  1.30269E-02  1.33439E-02  1.36686E-02  1.40011E-02
#           1.43418E-02  1.46907E-02  1.50482E-02  1.54143E-02  1.57894E-02
#           1.61735E-02  1.65670E-02  1.69701E-02  1.73830E-02  1.78060E-02
#           1.82392E-02  1.86830E-02  1.91375E-02  1.96032E-02  2.00801E-02
#           2.05687E-02  2.10692E-02  2.15818E-02  2.21069E-02  2.26448E-02
#           2.31957E-02  2.37601E-02  2.43382E-02  2.49304E-02  2.55369E-02
#           2.61583E-02  2.67947E-02  2.74467E-02  2.81145E-02  2.87985E-02
#           2.94992E-02  3.02169E-02  3.09521E-02  3.17052E-02  3.24766E-02
#           3.32668E-02  3.40762E-02  3.49053E-02  3.57546E-02  3.66246E-02
#           3.75157E-02  3.84284E-02  3.93634E-02  4.03212E-02  4.13022E-02
#           4.23071E-02  4.33365E-02  4.43909E-02  4.54710E-02  4.65773E-02
#           4.77106E-02  4.88714E-02  5.00605E-02  5.12785E-02  5.25262E-02
#           5.38042E-02  5.51133E-02  5.64542E-02  5.78278E-02  5.92348E-02
#           6.06760E-02  6.21523E-02  6.36645E-02  6.52135E-02  6.68002E-02
#           6.84255E-02  7.00904E-02  7.17957E-02  7.35426E-02  7.53319E-02
#           7.71648E-02  7.90423E-02  8.09655E-02  8.29354E-02  8.49533E-02
#           8.70203E-02  8.91376E-02  9.13064E-02  9.35279E-02  9.58035E-02
#           9.81345E-02  1.00522E-01  1.02968E-01  1.05473E-01  1.08040E-01
#           1.10668E-01  1.13361E-01  1.16119E-01  1.18944E-01  1.21838E-01
#           1.24803E-01  1.27839E-01  1.30950E-01  1.34136E-01  1.37399E-01
#           1.40742E-01  1.44167E-01  1.47675E-01  1.51268E-01  1.54948E-01
#           1.58718E-01  1.62580E-01  1.66535E-01  1.70587E-01  1.74738E-01
#           1.78989E-01  1.83344E-01  1.87805E-01  1.92375E-01  1.97055E-01
#           2.01850E-01  2.06761E-01  2.11792E-01  2.16945E-01  2.22223E-01
#           2.27630E-01  2.33169E-01  2.38842E-01  2.44653E-01  2.50605E-01
#           2.56703E-01  2.62949E-01  2.69346E-01  2.75900E-01  2.82613E-01
#           2.89489E-01  2.96532E-01  3.03747E-01  3.11138E-01  3.18708E-01
#           3.26462E-01  3.34405E-01  3.42542E-01  3.50876E-01  3.59413E-01
#           3.68158E-01  3.77116E-01  3.86291E-01  3.95690E-01  4.05317E-01
#           4.15179E-01  4.25281E-01  4.35628E-01  4.46227E-01  4.57084E-01
#           4.68205E-01  4.79597E-01  4.91266E-01  5.03219E-01  5.15463E-01
#           5.28005E-01  5.40851E-01  5.54011E-01  5.67490E-01  5.81298E-01
#           5.95441E-01  6.09929E-01  6.24769E-01  6.39970E-01  6.55541E-01
#           6.71491E-01  6.87828E-01  7.04564E-01  7.21706E-01  7.39266E-01
#           7.57253E-01  7.75678E-01  7.94551E-01  8.13883E-01  8.33685E-01
#           8.53969E-01  8.74747E-01  8.96030E-01  9.17831E-01  9.40163E-01
#           9.63038E-01  9.86469E-01  1.01047E+00  1.03506E+00  1.06024E+00
#           1.08604E+00  1.11246E+00  1.13953E+00  1.16725E+00  1.19565E+00
#           1.22474E+00  1.25454E+00  1.28507E+00  1.31633E+00  1.34836E+00
#           1.38117E+00  1.41477E+00  1.44920E+00  1.48446E+00  1.52057E+00
#           1.55757E+00  1.59547E+00  1.63429E+00  1.67405E+00  1.71478E+00
#           1.75650E+00  1.79924E+00  1.84302E+00  1.88786E+00  1.93379E+00
#           1.98084E+00  2.02904E+00  2.07841E+00  2.12898E+00  2.18078E+00
#           2.23384E+00  2.28819E+00  2.34386E+00  2.40089E+00  2.45930E+00
#           2.51914E+00  2.58043E+00  2.64322E+00  2.70753E+00  2.77341E+00
#           2.84088E+00  2.91001E+00  2.98081E+00  3.05333E+00  3.12762E+00
#           3.20372E+00  3.28167E+00  3.36152E+00  3.44330E+00  3.52708E+00
#           3.61290E+00  3.70080E+00  3.79085E+00  3.88308E+00  3.97756E+00
#           4.07434E+00  4.17347E+00  4.27501E+00  4.37903E+00  4.48557E+00
#           4.59471E+00  4.70650E+00  4.82102E+00  4.93832E+00  5.05847E+00
#           5.18155E+00  5.30762E+00  5.43676E+00  5.56904E+00  5.70453E+00
#           5.84333E+00  5.98550E+00  6.13114E+00  6.28031E+00  6.43312E+00
#           6.58964E+00  6.74997E+00  6.91420E+00  7.08243E+00  7.25475E+00
#           7.43126E+00  7.61207E+00  7.79728E+00  7.98700E+00  8.18133E+00
#           8.38038E+00  8.58428E+00  8.79315E+00  9.00709E+00  9.22624E+00
#           9.45072E+00  9.68067E+00  9.91620E+00  1.01575E+01  1.04046E+01
#           1.06578E+01  1.09171E+01  1.11827E+01  1.14548E+01  1.17335E+01
#           1.20190E+01  1.23114E+01  1.26109E+01  1.29178E+01  1.32321E+01
#           1.35540E+01  1.38838E+01  1.42216E+01  1.45676E+01  1.49221E+01
#           1.52851E+01  1.56570E+01  1.60380E+01  1.64282E+01  1.68279E+01
#           1.72374E+01  1.76568E+01  1.80864E+01  1.85264E+01  1.89772E+01
#           1.94389E+01  1.99119E+01  2.03963E+01  2.08926E+01  2.14009E+01
#           2.19216E+01  2.24550E+01  2.30014E+01  2.35610E+01  2.41343E+01
#           2.47215E+01  2.53230E+01  2.59391E+01  2.65702E+01  2.72167E+01
#           2.78789E+01  2.85572E+01  2.92520E+01  2.99637E+01  3.06928E+01
#           3.14396E+01  3.22045E+01  3.29881E+01  3.37907E+01  3.46128E+01
#           3.54550E+01  3.63177E+01  3.72013E+01  3.81064E+01  3.90336E+01
#           3.99833E+01  4.09561E+01  4.19526E+01  4.29734E+01  4.40189E+01
#           4.50900E+01  4.61870E+01  4.73108E+01  4.84619E+01  4.96410E+01
#           5.08488E+01  5.20860E+01  5.33533E+01  5.46514E+01  5.59812E+01
#           5.73432E+01  5.87384E+01  6.01676E+01  6.16315E+01  6.31311E+01
#           6.46671E+01  6.62405E+01  6.78522E+01  6.95031E+01  7.11941E+01
#           7.29263E+01  7.47007E+01  7.65182E+01  7.83800E+01  8.02870E+01
#           8.22405E+01  8.42414E+01  8.62911E+01  8.83906E+01  9.05412E+01
#           9.27442E+01  9.50007E+01  9.73122E+01  9.96799E+01  1.02105E+02
#           1.04589E+02  1.07134E+02  1.09741E+02  1.12411E+02  1.15146E+02
#           1.17948E+02  1.20817E+02  1.23757E+02  1.26768E+02  1.29852E+02
#           1.33012E+02  1.36248E+02  1.39563E+02  1.42959E+02  1.46437E+02
#           1.50000E+02
     unit =    2            # unit is [1/cm^2/(MeV/n)/source]
     axis =  eng            # axis of output
     file = detector-13.out  # file name of output for the above axis
   output = f-curr          # surface crossing forward current spectrum
     part =  neutron  
# kf/name :  2112     
#    used :        main (  %)        temp (  %)       total (  %)
#  memory :         414 (  0)           0 (  0)         414 (  0)

#------------------------------------------------------------------------------
#newpage:
#   no. =    1   reg = 112 - 212

x: Energy [MeV/n]
y:  F-Curr [1/cm^2/(MeV/n)/source]         
p: xlog ylog afac(0.8) form(0.9)
h: n            x            y(neutron ),hh0l   n 
#  e-lower      e-upper      neutron     r.err 
   1.0000E-02   1.0243E-02   5.9210E-04  0.0587
   1.0243E-02   1.0493E-02   6.5991E-04  0.0550
   1.0493E-02   1.0748E-02   5.6786E-04  0.0587
   1.0748E-02   1.1009E-02   5.4913E-04  0.0588
   1.1009E-02   1.1277E-02   5.9207E-04  0.0560
   1.1277E-02   1.1552E-02   5.7176E-04  0.0563
   1.1552E-02   1.1833E-02   5.5730E-04  0.0564
   1.1833E-02   1.2121E-02   5.6099E-04  0.0555
   1.2121E-02   1.2415E-02   5.1591E-04  0.0572
   1.2415E-02   1.2718E-02   5.0023E-04  0.0573
   1.2718E-02   1.3027E-02   5.2787E-04  0.0551
   1.3027E-02   1.3344E-02   4.8369E-04  0.0569
   1.3344E-02   1.3669E-02   5.0189E-04  0.0553
   1.3669E-02   1.4001E-02   4.6858E-04  0.0565
   1.4001E-02   1.4342E-02   4.8166E-04  0.0551
   1.4342E-02   1.4691E-02   4.6422E-04  0.0555
   1.4691E-02   1.5048E-02   5.0576E-04  0.0524
   1.5048E-02   1.5414E-02   4.2733E-04  0.0564
   1.5414E-02   1.5789E-02   4.4937E-04  0.0543
   1.5789E-02   1.6174E-02   4.3757E-04  0.0544
   1.6174E-02   1.6567E-02   4.3905E-04  0.0537
   1.6567E-02   1.6970E-02   4.3085E-04  0.0535
   1.6970E-02   1.7383E-02   4.0488E-04  0.0544
   1.7383E-02   1.7806E-02   3.8425E-04  0.0553
   1.7806E-02   1.8239E-02   4.3727E-04  0.0513
   1.8239E-02   1.8683E-02   3.8340E-04  0.0540
   1.8683E-02   1.9138E-02   3.8994E-04  0.0530
   1.9138E-02   1.9603E-02   3.6461E-04  0.0542
   1.9603E-02   2.0080E-02   3.5899E-04  0.0539
   2.0080E-02   2.0569E-02   3.5140E-04  0.0538
   2.0569E-02   2.1069E-02   3.8252E-04  0.0510
   2.1069E-02   2.1582E-02   3.3897E-04  0.0535
   2.1582E-02   2.2107E-02   3.5619E-04  0.0516
   2.2107E-02   2.2645E-02   3.0620E-04  0.0549
   2.2645E-02   2.3196E-02   3.0616E-04  0.0543
   2.3196E-02   2.3760E-02   3.1630E-04  0.0527
   2.3760E-02   2.4338E-02   3.0356E-04  0.0533
   2.4338E-02   2.4930E-02   3.4008E-04  0.0497
   2.4930E-02   2.5537E-02   3.0442E-04  0.0519
   2.5537E-02   2.6158E-02   3.0230E-04  0.0514
   2.6158E-02   2.6795E-02   3.1520E-04  0.0498
   2.6795E-02   2.7447E-02   2.9979E-04  0.0504
   2.7447E-02   2.8114E-02   2.5752E-04  0.0538
   2.8114E-02   2.8799E-02   2.6999E-04  0.0518
   2.8799E-02   2.9499E-02   2.5147E-04  0.0531
   2.9499E-02   3.0217E-02   2.6529E-04  0.0511
   3.0217E-02   3.0952E-02   2.7579E-04  0.0496
   3.0952E-02   3.1705E-02   2.9180E-04  0.0476
   3.1705E-02   3.2477E-02   2.5340E-04  0.0504
   3.2477E-02   3.3267E-02   2.4585E-04  0.0507
   3.3267E-02   3.4076E-02   2.4699E-04  0.0498
   3.4076E-02   3.4905E-02   2.2361E-04  0.0518
   3.4905E-02   3.5755E-02   2.2881E-04  0.0506
   3.5755E-02   3.6625E-02   2.1983E-04  0.0510
   3.6625E-02   3.7516E-02   2.2427E-04  0.0499
   3.7516E-02   3.8428E-02   2.1633E-04  0.0502
   3.8428E-02   3.9363E-02   2.3011E-04  0.0481
   3.9363E-02   4.0321E-02   2.2099E-04  0.0485
   4.0321E-02   4.1302E-02   2.2328E-04  0.0477
   4.1302E-02   4.2307E-02   2.0841E-04  0.0487
   4.2307E-02   4.3337E-02   2.0628E-04  0.0484
   4.3337E-02   4.4391E-02   1.9078E-04  0.0496
   4.4391E-02   4.5471E-02   1.9227E-04  0.0489
   4.5471E-02   4.6577E-02   1.9307E-04  0.0483
   4.6577E-02   4.7711E-02   1.8173E-04  0.0491
   4.7711E-02   4.8871E-02   1.8346E-04  0.0484
   4.8871E-02   5.0061E-02   1.7925E-04  0.0483
   5.0061E-02   5.1279E-02   1.7641E-04  0.0481
   5.1279E-02   5.2526E-02   1.8827E-04  0.0460
   5.2526E-02   5.3804E-02   1.6599E-04  0.0484
   5.3804E-02   5.5113E-02   1.6232E-04  0.0484
   5.5113E-02   5.6454E-02   1.6441E-04  0.0476
   5.6454E-02   5.7828E-02   1.6879E-04  0.0463
   5.7828E-02   5.9235E-02   1.5384E-04  0.0479
   5.9235E-02   6.0676E-02   1.5957E-04  0.0464
   6.0676E-02   6.2152E-02   1.5046E-04  0.0472
   6.2152E-02   6.3665E-02   1.5476E-04  0.0461
   6.3665E-02   6.5214E-02   1.4006E-04  0.0479
   6.5214E-02   6.6800E-02   1.4365E-04  0.0467
   6.6800E-02   6.8426E-02   1.4087E-04  0.0466
   6.8426E-02   7.0090E-02   1.4415E-04  0.0455
   7.0090E-02   7.1796E-02   1.3658E-04  0.0462
   7.1796E-02   7.3543E-02   1.3548E-04  0.0459
   7.3543E-02   7.5332E-02   1.3170E-04  0.0459
   7.5332E-02   7.7165E-02   1.3989E-04  0.0440
   7.7165E-02   7.9042E-02   1.4054E-04  0.0434
   7.9042E-02   8.0965E-02   1.2460E-04  0.0455
   8.0965E-02   8.2935E-02   1.1839E-04  0.0462
   8.2935E-02   8.4953E-02   1.2188E-04  0.0450
   8.4953E-02   8.7020E-02   1.1664E-04  0.0454
   8.7020E-02   8.9138E-02   1.1836E-04  0.0446
   8.9138E-02   9.1306E-02   1.1485E-04  0.0447
   9.1306E-02   9.3528E-02   1.1644E-04  0.0439
   9.3528E-02   9.5804E-02   1.1205E-04  0.0442
   9.5804E-02   9.8134E-02   1.0700E-04  0.0447
   9.8134E-02   1.0052E-01   1.0761E-04  0.0440
   1.0052E-01   1.0297E-01   1.0256E-04  0.0445
   1.0297E-01   1.0547E-01   1.0354E-04  0.0437
   1.0547E-01   1.0804E-01   1.0396E-04  0.0431
   1.0804E-01   1.1067E-01   1.0418E-04  0.0426
   1.1067E-01   1.1336E-01   1.0111E-04  0.0428
   1.1336E-01   1.1612E-01   9.8439E-05  0.0427
   1.1612E-01   1.1894E-01   8.9656E-05  0.0443
   1.1894E-01   1.2184E-01   9.7363E-05  0.0420
   1.2184E-01   1.2480E-01   9.2267E-05  0.0426
   1.2480E-01   1.2784E-01   8.4124E-05  0.0442
   1.2784E-01   1.3095E-01   8.7149E-05  0.0428
   1.3095E-01   1.3414E-01   8.1825E-05  0.0437
   1.3414E-01   1.3740E-01   7.9377E-05  0.0438
   1.3740E-01   1.4074E-01   8.2330E-05  0.0425
   1.4074E-01   1.4417E-01   7.7288E-05  0.0433
   1.4417E-01   1.4767E-01   7.4104E-05  0.0437
   1.4767E-01   1.5127E-01   7.7773E-05  0.0421
   1.5127E-01   1.5495E-01   7.3039E-05  0.0431
   1.5495E-01   1.5872E-01   7.9243E-05  0.0408
   1.5872E-01   1.6258E-01   7.5016E-05  0.0414
   1.6258E-01   1.6654E-01   7.2069E-05  0.0418
   1.6654E-01   1.7059E-01   7.5241E-05  0.0404
   1.7059E-01   1.7474E-01   6.3181E-05  0.0435
   1.7474E-01   1.7899E-01   6.4715E-05  0.0426
   1.7899E-01   1.8334E-01   6.5820E-05  0.0417
   1.8334E-01   1.8781E-01   6.4341E-05  0.0416
   1.8781E-01   1.9237E-01   6.6636E-05  0.0404
   1.9237E-01   1.9706E-01   5.7713E-05  0.0430
   1.9706E-01   2.0185E-01   6.1323E-05  0.0411
   2.0185E-01   2.0676E-01   6.1836E-05  0.0405
   2.0676E-01   2.1179E-01   6.1246E-05  0.0402
   2.1179E-01   2.1694E-01   6.6467E-05  0.0381
   2.1694E-01   2.2222E-01   6.9131E-05  0.0369
   2.2222E-01   2.2763E-01   6.6452E-05  0.0372
   2.2763E-01   2.3317E-01   7.2576E-05  0.0351
   2.3317E-01   2.3884E-01   7.1247E-05  0.0351
   2.3884E-01   2.4465E-01   7.7427E-05  0.0333
   2.4465E-01   2.5061E-01   7.9517E-05  0.0324
   2.5061E-01   2.5670E-01   9.0456E-05  0.0300
   2.5670E-01   2.6295E-01   8.3543E-05  0.0309
   2.6295E-01   2.6935E-01   8.9969E-05  0.0294
   2.6935E-01   2.7590E-01   9.2720E-05  0.0286
   2.7590E-01   2.8261E-01   9.3950E-05  0.0281
   2.8261E-01   2.8949E-01   9.4772E-05  0.0276
   2.8949E-01   2.9653E-01   9.5226E-05  0.0272
   2.9653E-01   3.0375E-01   9.8444E-05  0.0265
   3.0375E-01   3.1114E-01   1.0506E-04  0.0253
   3.1114E-01   3.1871E-01   1.0422E-04  0.0251
   3.1871E-01   3.2646E-01   1.1034E-04  0.0241
   3.2646E-01   3.3441E-01   1.1471E-04  0.0234
   3.3441E-01   3.4254E-01   1.1617E-04  0.0229
   3.4254E-01   3.5088E-01   1.1247E-04  0.0230
   3.5088E-01   3.5941E-01   1.2130E-04  0.0219
   3.5941E-01   3.6816E-01   1.2024E-04  0.0217
   3.6816E-01   3.7712E-01   1.3058E-04  0.0206
   3.7712E-01   3.8629E-01   1.3116E-04  0.0203
   3.8629E-01   3.9569E-01   1.3692E-04  0.0196
   3.9569E-01   4.0532E-01   1.3285E-04  0.0197
   4.0532E-01   4.1518E-01   1.3852E-04  0.0191
   4.1518E-01   4.2528E-01   1.4514E-04  0.0184
   4.2528E-01   4.3563E-01   1.4580E-04  0.0181
   4.3563E-01   4.4623E-01   1.5357E-04  0.0175
   4.4623E-01   4.5708E-01   1.5728E-04  0.0170
   4.5708E-01   4.6821E-01   1.6223E-04  0.0166
   4.6821E-01   4.7960E-01   1.6394E-04  0.0163
   4.7960E-01   4.9127E-01   1.7174E-04  0.0157
   4.9127E-01   5.0322E-01   1.7116E-04  0.0156
   5.0322E-01   5.1546E-01   1.7805E-04  0.0151
   5.1546E-01   5.2800E-01   1.8548E-04  0.0146
   5.2800E-01   5.4085E-01   1.8810E-04  0.0143
   5.4085E-01   5.5401E-01   1.9353E-04  0.0140
   5.5401E-01   5.6749E-01   1.9873E-04  0.0136
   5.6749E-01   5.8130E-01   1.9676E-04  0.0135
   5.8130E-01   5.9544E-01   2.0878E-04  0.0130
   5.9544E-01   6.0993E-01   2.0740E-04  0.0129
   6.0993E-01   6.2477E-01   2.1159E-04  0.0126
   6.2477E-01   6.3997E-01   2.2334E-04  0.0121
   6.3997E-01   6.5554E-01   2.2466E-04  0.0119
   6.5554E-01   6.7149E-01   2.3041E-04  0.0116
   6.7149E-01   6.8783E-01   2.3420E-04  0.0114
   6.8783E-01   7.0456E-01   2.4141E-04  0.0111
   7.0456E-01   7.2171E-01   2.4422E-04  0.0109
   7.2171E-01   7.3927E-01   2.5354E-04  0.0106
   7.3927E-01   7.5725E-01   2.5618E-04  0.0104
   7.5725E-01   7.7568E-01   2.6417E-04  0.0101
   7.7568E-01   7.9455E-01   2.6341E-04  0.0100
   7.9455E-01   8.1388E-01   2.7434E-04  0.0097
   8.1388E-01   8.3368E-01   2.8103E-04  0.0094
   8.3368E-01   8.5397E-01   2.9128E-04  0.0092
   8.5397E-01   8.7475E-01   2.9348E-04  0.0090
   8.7475E-01   8.9603E-01   3.0223E-04  0.0088
   8.9603E-01   9.1783E-01   3.1083E-04  0.0086
   9.1783E-01   9.4016E-01   3.2159E-04  0.0083
   9.4016E-01   9.6304E-01   3.2530E-04  0.0082
   9.6304E-01   9.8647E-01   3.3153E-04  0.0080
   9.8647E-01   1.0105E+00   3.3908E-04  0.0078
   1.0105E+00   1.0351E+00   3.4120E-04  0.0077
   1.0351E+00   1.0602E+00   3.5085E-04  0.0075
   1.0602E+00   1.0860E+00   3.5035E-04  0.0074
   1.0860E+00   1.1125E+00   3.5433E-04  0.0073
   1.1125E+00   1.1395E+00   3.6124E-04  0.0071
   1.1395E+00   1.1673E+00   3.6826E-04  0.0070
   1.1673E+00   1.1957E+00   3.7939E-04  0.0068
   1.1957E+00   1.2247E+00   3.8771E-04  0.0066
   1.2247E+00   1.2545E+00   3.8964E-04  0.0065
   1.2545E+00   1.2851E+00   3.8923E-04  0.0065
   1.2851E+00   1.3163E+00   3.9382E-04  0.0063
   1.3163E+00   1.3484E+00   4.0005E-04  0.0062
   1.3484E+00   1.3812E+00   4.0419E-04  0.0061
   1.3812E+00   1.4148E+00   4.2047E-04  0.0059
   1.4148E+00   1.4492E+00   4.2258E-04  0.0058
   1.4492E+00   1.4845E+00   4.3059E-04  0.0057
   1.4845E+00   1.5206E+00   4.3994E-04  0.0056
   1.5206E+00   1.5576E+00   4.4155E-04  0.0055
   1.5576E+00   1.5955E+00   4.3797E-04  0.0055
   1.5955E+00   1.6343E+00   4.4142E-04  0.0054
   1.6343E+00   1.6741E+00   4.4128E-04  0.0053
   1.6741E+00   1.7148E+00   4.4479E-04  0.0052
   1.7148E+00   1.7565E+00   4.4427E-04  0.0052
   1.7565E+00   1.7992E+00   4.5078E-04  0.0051
   1.7992E+00   1.8430E+00   4.5192E-04  0.0050
   1.8430E+00   1.8879E+00   4.5298E-04  0.0049
   1.8879E+00   1.9338E+00   4.5431E-04  0.0049
   1.9338E+00   1.9808E+00   4.5566E-04  0.0048
   1.9808E+00   2.0290E+00   4.5577E-04  0.0047
   2.0290E+00   2.0784E+00   4.5042E-04  0.0047
   2.0784E+00   2.1290E+00   4.4886E-04  0.0047
   2.1290E+00   2.1808E+00   4.4828E-04  0.0046
   2.1808E+00   2.2338E+00   4.4230E-04  0.0046
   2.2338E+00   2.2882E+00   4.3896E-04  0.0046
   2.2882E+00   2.3439E+00   4.3829E-04  0.0045
   2.3439E+00   2.4009E+00   4.3918E-04  0.0044
   2.4009E+00   2.4593E+00   4.3770E-04  0.0044
   2.4593E+00   2.5191E+00   4.4154E-04  0.0043
   2.5191E+00   2.5804E+00   4.3273E-04  0.0043
   2.5804E+00   2.6432E+00   4.2425E-04  0.0043
   2.6432E+00   2.7075E+00   4.2399E-04  0.0043
   2.7075E+00   2.7734E+00   4.1533E-04  0.0043
   2.7734E+00   2.8409E+00   4.0758E-04  0.0042
   2.8409E+00   2.9100E+00   4.0376E-04  0.0042
   2.9100E+00   2.9808E+00   3.9749E-04  0.0042
   2.9808E+00   3.0533E+00   3.9904E-04  0.0041
   3.0533E+00   3.1276E+00   3.8926E-04  0.0041
   3.1276E+00   3.2037E+00   3.7856E-04  0.0041
   3.2037E+00   3.2817E+00   3.7041E-04  0.0041
   3.2817E+00   3.3615E+00   3.6545E-04  0.0041
   3.3615E+00   3.4433E+00   3.6105E-04  0.0041
   3.4433E+00   3.5271E+00   3.5369E-04  0.0041
   3.5271E+00   3.6129E+00   3.4947E-04  0.0041
   3.6129E+00   3.7008E+00   3.4007E-04  0.0041
   3.7008E+00   3.7908E+00   3.3164E-04  0.0041
   3.7908E+00   3.8831E+00   3.2525E-04  0.0041
   3.8831E+00   3.9776E+00   3.1943E-04  0.0041
   3.9776E+00   4.0743E+00   3.1024E-04  0.0041
   4.0743E+00   4.1735E+00   3.0865E-04  0.0040
   4.1735E+00   4.2750E+00   2.9738E-04  0.0041
   4.2750E+00   4.3790E+00   2.9158E-04  0.0040
   4.3790E+00   4.4856E+00   2.8950E-04  0.0040
   4.4856E+00   4.5947E+00   2.8266E-04  0.0040
   4.5947E+00   4.7065E+00   2.7894E-04  0.0040
   4.7065E+00   4.8210E+00   2.7684E-04  0.0040
   4.8210E+00   4.9383E+00   2.7401E-04  0.0039
   4.9383E+00   5.0585E+00   2.7449E-04  0.0039
   5.0585E+00   5.1815E+00   2.7626E-04  0.0038
   5.1815E+00   5.3076E+00   2.7256E-04  0.0038
   5.3076E+00   5.4368E+00   2.6543E-04  0.0038
   5.4368E+00   5.5690E+00   2.5882E-04  0.0038
   5.5690E+00   5.7045E+00   2.5401E-04  0.0038
   5.7045E+00   5.8433E+00   2.4662E-04  0.0038
   5.8433E+00   5.9855E+00   2.4111E-04  0.0038
   5.9855E+00   6.1311E+00   2.3583E-04  0.0038
   6.1311E+00   6.2803E+00   2.2915E-04  0.0038
   6.2803E+00   6.4331E+00   2.2421E-04  0.0038
   6.4331E+00   6.5896E+00   2.1831E-04  0.0038
   6.5896E+00   6.7500E+00   2.1354E-04  0.0038
   6.7500E+00   6.9142E+00   2.0600E-04  0.0038
   6.9142E+00   7.0824E+00   2.0025E-04  0.0038
   7.0824E+00   7.2548E+00   1.9591E-04  0.0038
   7.2548E+00   7.4313E+00   1.8982E-04  0.0039
   7.4313E+00   7.6121E+00   1.8513E-04  0.0039
   7.6121E+00   7.7973E+00   1.8122E-04  0.0039
   7.7973E+00   7.9870E+00   1.7509E-04  0.0039
   7.9870E+00   8.1813E+00   1.6967E-04  0.0039
   8.1813E+00   8.3804E+00   1.6638E-04  0.0039
   8.3804E+00   8.5843E+00   1.5981E-04  0.0039
   8.5843E+00   8.7931E+00   1.5611E-04  0.0039
   8.7931E+00   9.0071E+00   1.4922E-04  0.0040
   9.0071E+00   9.2262E+00   1.4506E-04  0.0040
   9.2262E+00   9.4507E+00   1.3913E-04  0.0040
   9.4507E+00   9.6807E+00   1.3488E-04  0.0040
   9.6807E+00   9.9162E+00   1.2913E-04  0.0041
   9.9162E+00   1.0157E+01   1.2570E-04  0.0041
   1.0157E+01   1.0405E+01   1.2016E-04  0.0041
   1.0405E+01   1.0658E+01   1.1623E-04  0.0041
   1.0658E+01   1.0917E+01   1.1138E-04  0.0042
   1.0917E+01   1.1183E+01   1.0686E-04  0.0042
   1.1183E+01   1.1455E+01   1.0270E-04  0.0042
   1.1455E+01   1.1733E+01   9.8880E-05  0.0043
   1.1733E+01   1.2019E+01   9.5463E-05  0.0043
   1.2019E+01   1.2311E+01   9.0447E-05  0.0043
   1.2311E+01   1.2611E+01   8.7040E-05  0.0044
   1.2611E+01   1.2918E+01   8.2697E-05  0.0044
   1.2918E+01   1.3232E+01   7.9926E-05  0.0045
   1.3232E+01   1.3554E+01   7.5267E-05  0.0045
   1.3554E+01   1.3884E+01   7.1987E-05  0.0046
   1.3884E+01   1.4222E+01   6.8949E-05  0.0046
   1.4222E+01   1.4568E+01   6.5656E-05  0.0047
   1.4568E+01   1.4922E+01   6.2038E-05  0.0048
   1.4922E+01   1.5285E+01   5.8373E-05  0.0049
   1.5285E+01   1.5657E+01   5.5287E-05  0.0049
   1.5657E+01   1.6038E+01   5.2684E-05  0.0050
   1.6038E+01   1.6428E+01   4.9260E-05  0.0051
   1.6428E+01   1.6828E+01   4.6705E-05  0.0052
   1.6828E+01   1.7237E+01   4.4197E-05  0.0053
   1.7237E+01   1.7657E+01   4.1618E-05  0.0054
   1.7657E+01   1.8086E+01   3.9315E-05  0.0054
   1.8086E+01   1.8526E+01   3.6322E-05  0.0056
   1.8526E+01   1.8977E+01   3.4397E-05  0.0057
   1.8977E+01   1.9439E+01   3.2605E-05  0.0058
   1.9439E+01   1.9912E+01   3.0841E-05  0.0059
   1.9912E+01   2.0396E+01   2.9705E-05  0.0059
   2.0396E+01   2.0893E+01   2.7909E-05  0.0060
   2.0893E+01   2.1401E+01   2.5850E-05  0.0062
   2.1401E+01   2.1922E+01   2.4038E-05  0.0063
   2.1922E+01   2.2455E+01   2.2444E-05  0.0065
   2.2455E+01   2.3001E+01   2.0550E-05  0.0067
   2.3001E+01   2.3561E+01   1.9233E-05  0.0068
   2.3561E+01   2.4134E+01   1.7539E-05  0.0071
   2.4134E+01   2.4721E+01   1.6155E-05  0.0073
   2.4721E+01   2.5323E+01   1.4487E-05  0.0076
   2.5323E+01   2.5939E+01   1.3246E-05  0.0078
   2.5939E+01   2.6570E+01   1.2187E-05  0.0081
   2.6570E+01   2.7217E+01   1.0874E-05  0.0084
   2.7217E+01   2.7879E+01   9.7840E-06  0.0088
   2.7879E+01   2.8557E+01   8.8255E-06  0.0091
   2.8557E+01   2.9252E+01   7.6473E-06  0.0097
   2.9252E+01   2.9964E+01   6.8819E-06  0.0101
   2.9964E+01   3.0693E+01   6.0388E-06  0.0107
   3.0693E+01   3.1440E+01   5.2224E-06  0.0113
   3.1440E+01   3.2205E+01   4.5944E-06  0.0119
   3.2205E+01   3.2988E+01   3.9454E-06  0.0127
   3.2988E+01   3.3791E+01   3.3166E-06  0.0137
   3.3791E+01   3.4613E+01   2.8340E-06  0.0146
   3.4613E+01   3.5455E+01   2.3838E-06  0.0158
   3.5455E+01   3.6318E+01   2.0281E-06  0.0169
   3.6318E+01   3.7201E+01   1.6913E-06  0.0183
   3.7201E+01   3.8106E+01   1.4042E-06  0.0198
   3.8106E+01   3.9034E+01   1.1454E-06  0.0217
   3.9034E+01   3.9983E+01   9.1817E-07  0.0239
   3.9983E+01   4.0956E+01   7.4320E-07  0.0263
   4.0956E+01   4.1953E+01   5.5745E-07  0.0300
   4.1953E+01   4.2973E+01   4.4429E-07  0.0332
   4.2973E+01   4.4019E+01   3.2853E-07  0.0382
   4.4019E+01   4.5090E+01   2.3996E-07  0.0441
   4.5090E+01   4.6187E+01   1.8549E-07  0.0496
   4.6187E+01   4.7311E+01   1.5128E-07  0.0542
   4.7311E+01   4.8462E+01   1.1033E-07  0.0627
   4.8462E+01   4.9641E+01   6.6151E-08  0.0801
   4.9641E+01   5.0849E+01   4.9677E-08  0.0913
   5.0849E+01   5.2086E+01   3.0311E-08  0.1155
   5.2086E+01   5.3353E+01   1.9727E-08  0.1414
   5.3353E+01   5.4651E+01   1.0014E-08  0.1961
   5.4651E+01   5.5981E+01   6.0163E-09  0.2500
   5.5981E+01   5.7343E+01   1.8354E-09  0.4472
   5.7343E+01   5.8738E+01   7.1674E-10  0.7071
   5.8738E+01   6.0168E+01   0.0000E+00  0.0000
   6.0168E+01   6.1632E+01   0.0000E+00  0.0000
   6.1632E+01   6.3131E+01   0.0000E+00  0.0000
   6.3131E+01   6.4667E+01   0.0000E+00  0.0000
   6.4667E+01   6.6240E+01   0.0000E+00  0.0000
   6.6240E+01   6.7852E+01   0.0000E+00  0.0000
   6.7852E+01   6.9503E+01   0.0000E+00  0.0000
   6.9503E+01   7.1194E+01   0.0000E+00  0.0000
   7.1194E+01   7.2926E+01   0.0000E+00  0.0000
   7.2926E+01   7.4701E+01   0.0000E+00  0.0000
   7.4701E+01   7.6518E+01   0.0000E+00  0.0000
   7.6518E+01   7.8380E+01   0.0000E+00  0.0000
   7.8380E+01   8.0287E+01   0.0000E+00  0.0000
   8.0287E+01   8.2240E+01   0.0000E+00  0.0000
   8.2240E+01   8.4241E+01   0.0000E+00  0.0000
   8.4241E+01   8.6291E+01   0.0000E+00  0.0000
   8.6291E+01   8.8391E+01   0.0000E+00  0.0000
   8.8391E+01   9.0541E+01   0.0000E+00  0.0000
   9.0541E+01   9.2744E+01   0.0000E+00  0.0000
   9.2744E+01   9.5001E+01   0.0000E+00  0.0000
   9.5001E+01   9.7312E+01   0.0000E+00  0.0000
   9.7312E+01   9.9680E+01   0.0000E+00  0.0000
   9.9680E+01   1.0211E+02   0.0000E+00  0.0000
   1.0211E+02   1.0459E+02   0.0000E+00  0.0000
   1.0459E+02   1.0713E+02   0.0000E+00  0.0000
   1.0713E+02   1.0974E+02   0.0000E+00  0.0000
   1.0974E+02   1.1241E+02   0.0000E+00  0.0000
   1.1241E+02   1.1515E+02   0.0000E+00  0.0000
   1.1515E+02   1.1795E+02   0.0000E+00  0.0000
   1.1795E+02   1.2082E+02   0.0000E+00  0.0000
   1.2082E+02   1.2376E+02   0.0000E+00  0.0000
   1.2376E+02   1.2677E+02   0.0000E+00  0.0000
   1.2677E+02   1.2985E+02   0.0000E+00  0.0000
   1.2985E+02   1.3301E+02   0.0000E+00  0.0000
   1.3301E+02   1.3625E+02   0.0000E+00  0.0000
   1.3625E+02   1.3956E+02   0.0000E+00  0.0000
   1.3956E+02   1.4296E+02   0.0000E+00  0.0000
   1.4296E+02   1.4644E+02   0.0000E+00  0.0000
   1.4644E+02   1.5000E+02   0.0000E+00  0.0000

#   sum over                 2.3226E-05
'no. =    1   reg = 112 - 212'
msuc: {\huge [t-cross] in region mesh}
msdr: {\it plotted by \ANGEL \version}
msdl: {\it calculated by \PHITS  3.26}
wt: s(0.7)
\vspace{-3}
  region surface crossing
  area  &=&   1.0000E+00 [cm^2]
e:
 
# Information for Restart Calculation
# This calculation was newly started
# istdev =  2 # 1:Batch variance, 2:History variance
# resc2  = 2.00000000000000000E+09 # Total source weight or Total source weight / maxcas
# resc3  = 2.00000000000000000E+09 # Total history number or Total batch number
# maxcas =   500000000 # History / Batch, only used for istdev=1
# bitrseed = 0011011010010000100111110110001101100001010011100000011100000110 # bit data of rseed
