[ T-Cross ]
    title = [t-cross] in region mesh
     mesh =  reg            # mesh type is region-wise
      reg =    1            # number of crossing regions
      non     r-from    r-to       area
      1       126       226        1.000000    
   e-type =    3            # e-mesh is log given by emin, emax and ne
     emin =  1.0000000E-02  # minimum value of e-mesh points
     emax =   150.0000      # maximum value of e-mesh points
#    edel =  2.4039514E-02  # mesh width of e-mesh points
       ne =    400          # number of e-mesh points
#    data = ( e(i), i = 1, ne + 1 )
#           1.00000E-02  1.02433E-02  1.04925E-02  1.07478E-02  1.10093E-02
#           1.12772E-02  1.15516E-02  1.18326E-02  1.21205E-02  1.24154E-02
#           1.27175E-02  1.30269E-02  1.33439E-02  1.36686E-02  1.40011E-02
#           1.43418E-02  1.46907E-02  1.50482E-02  1.54143E-02  1.57894E-02
#           1.61735E-02  1.65670E-02  1.69701E-02  1.73830E-02  1.78060E-02
#           1.82392E-02  1.86830E-02  1.91375E-02  1.96032E-02  2.00801E-02
#           2.05687E-02  2.10692E-02  2.15818E-02  2.21069E-02  2.26448E-02
#           2.31957E-02  2.37601E-02  2.43382E-02  2.49304E-02  2.55369E-02
#           2.61583E-02  2.67947E-02  2.74467E-02  2.81145E-02  2.87985E-02
#           2.94992E-02  3.02169E-02  3.09521E-02  3.17052E-02  3.24766E-02
#           3.32668E-02  3.40762E-02  3.49053E-02  3.57546E-02  3.66246E-02
#           3.75157E-02  3.84284E-02  3.93634E-02  4.03212E-02  4.13022E-02
#           4.23071E-02  4.33365E-02  4.43909E-02  4.54710E-02  4.65773E-02
#           4.77106E-02  4.88714E-02  5.00605E-02  5.12785E-02  5.25262E-02
#           5.38042E-02  5.51133E-02  5.64542E-02  5.78278E-02  5.92348E-02
#           6.06760E-02  6.21523E-02  6.36645E-02  6.52135E-02  6.68002E-02
#           6.84255E-02  7.00904E-02  7.17957E-02  7.35426E-02  7.53319E-02
#           7.71648E-02  7.90423E-02  8.09655E-02  8.29354E-02  8.49533E-02
#           8.70203E-02  8.91376E-02  9.13064E-02  9.35279E-02  9.58035E-02
#           9.81345E-02  1.00522E-01  1.02968E-01  1.05473E-01  1.08040E-01
#           1.10668E-01  1.13361E-01  1.16119E-01  1.18944E-01  1.21838E-01
#           1.24803E-01  1.27839E-01  1.30950E-01  1.34136E-01  1.37399E-01
#           1.40742E-01  1.44167E-01  1.47675E-01  1.51268E-01  1.54948E-01
#           1.58718E-01  1.62580E-01  1.66535E-01  1.70587E-01  1.74738E-01
#           1.78989E-01  1.83344E-01  1.87805E-01  1.92375E-01  1.97055E-01
#           2.01850E-01  2.06761E-01  2.11792E-01  2.16945E-01  2.22223E-01
#           2.27630E-01  2.33169E-01  2.38842E-01  2.44653E-01  2.50605E-01
#           2.56703E-01  2.62949E-01  2.69346E-01  2.75900E-01  2.82613E-01
#           2.89489E-01  2.96532E-01  3.03747E-01  3.11138E-01  3.18708E-01
#           3.26462E-01  3.34405E-01  3.42542E-01  3.50876E-01  3.59413E-01
#           3.68158E-01  3.77116E-01  3.86291E-01  3.95690E-01  4.05317E-01
#           4.15179E-01  4.25281E-01  4.35628E-01  4.46227E-01  4.57084E-01
#           4.68205E-01  4.79597E-01  4.91266E-01  5.03219E-01  5.15463E-01
#           5.28005E-01  5.40851E-01  5.54011E-01  5.67490E-01  5.81298E-01
#           5.95441E-01  6.09929E-01  6.24769E-01  6.39970E-01  6.55541E-01
#           6.71491E-01  6.87828E-01  7.04564E-01  7.21706E-01  7.39266E-01
#           7.57253E-01  7.75678E-01  7.94551E-01  8.13883E-01  8.33685E-01
#           8.53969E-01  8.74747E-01  8.96030E-01  9.17831E-01  9.40163E-01
#           9.63038E-01  9.86469E-01  1.01047E+00  1.03506E+00  1.06024E+00
#           1.08604E+00  1.11246E+00  1.13953E+00  1.16725E+00  1.19565E+00
#           1.22474E+00  1.25454E+00  1.28507E+00  1.31633E+00  1.34836E+00
#           1.38117E+00  1.41477E+00  1.44920E+00  1.48446E+00  1.52057E+00
#           1.55757E+00  1.59547E+00  1.63429E+00  1.67405E+00  1.71478E+00
#           1.75650E+00  1.79924E+00  1.84302E+00  1.88786E+00  1.93379E+00
#           1.98084E+00  2.02904E+00  2.07841E+00  2.12898E+00  2.18078E+00
#           2.23384E+00  2.28819E+00  2.34386E+00  2.40089E+00  2.45930E+00
#           2.51914E+00  2.58043E+00  2.64322E+00  2.70753E+00  2.77341E+00
#           2.84088E+00  2.91001E+00  2.98081E+00  3.05333E+00  3.12762E+00
#           3.20372E+00  3.28167E+00  3.36152E+00  3.44330E+00  3.52708E+00
#           3.61290E+00  3.70080E+00  3.79085E+00  3.88308E+00  3.97756E+00
#           4.07434E+00  4.17347E+00  4.27501E+00  4.37903E+00  4.48557E+00
#           4.59471E+00  4.70650E+00  4.82102E+00  4.93832E+00  5.05847E+00
#           5.18155E+00  5.30762E+00  5.43676E+00  5.56904E+00  5.70453E+00
#           5.84333E+00  5.98550E+00  6.13114E+00  6.28031E+00  6.43312E+00
#           6.58964E+00  6.74997E+00  6.91420E+00  7.08243E+00  7.25475E+00
#           7.43126E+00  7.61207E+00  7.79728E+00  7.98700E+00  8.18133E+00
#           8.38038E+00  8.58428E+00  8.79315E+00  9.00709E+00  9.22624E+00
#           9.45072E+00  9.68067E+00  9.91620E+00  1.01575E+01  1.04046E+01
#           1.06578E+01  1.09171E+01  1.11827E+01  1.14548E+01  1.17335E+01
#           1.20190E+01  1.23114E+01  1.26109E+01  1.29178E+01  1.32321E+01
#           1.35540E+01  1.38838E+01  1.42216E+01  1.45676E+01  1.49221E+01
#           1.52851E+01  1.56570E+01  1.60380E+01  1.64282E+01  1.68279E+01
#           1.72374E+01  1.76568E+01  1.80864E+01  1.85264E+01  1.89772E+01
#           1.94389E+01  1.99119E+01  2.03963E+01  2.08926E+01  2.14009E+01
#           2.19216E+01  2.24550E+01  2.30014E+01  2.35610E+01  2.41343E+01
#           2.47215E+01  2.53230E+01  2.59391E+01  2.65702E+01  2.72167E+01
#           2.78789E+01  2.85572E+01  2.92520E+01  2.99637E+01  3.06928E+01
#           3.14396E+01  3.22045E+01  3.29881E+01  3.37907E+01  3.46128E+01
#           3.54550E+01  3.63177E+01  3.72013E+01  3.81064E+01  3.90336E+01
#           3.99833E+01  4.09561E+01  4.19526E+01  4.29734E+01  4.40189E+01
#           4.50900E+01  4.61870E+01  4.73108E+01  4.84619E+01  4.96410E+01
#           5.08488E+01  5.20860E+01  5.33533E+01  5.46514E+01  5.59812E+01
#           5.73432E+01  5.87384E+01  6.01676E+01  6.16315E+01  6.31311E+01
#           6.46671E+01  6.62405E+01  6.78522E+01  6.95031E+01  7.11941E+01
#           7.29263E+01  7.47007E+01  7.65182E+01  7.83800E+01  8.02870E+01
#           8.22405E+01  8.42414E+01  8.62911E+01  8.83906E+01  9.05412E+01
#           9.27442E+01  9.50007E+01  9.73122E+01  9.96799E+01  1.02105E+02
#           1.04589E+02  1.07134E+02  1.09741E+02  1.12411E+02  1.15146E+02
#           1.17948E+02  1.20817E+02  1.23757E+02  1.26768E+02  1.29852E+02
#           1.33012E+02  1.36248E+02  1.39563E+02  1.42959E+02  1.46437E+02
#           1.50000E+02
     unit =    2            # unit is [1/cm^2/(MeV/n)/source]
     axis =  eng            # axis of output
     file = detector-27.out  # file name of output for the above axis
   output = f-curr          # surface crossing forward current spectrum
     part =  neutron  
# kf/name :  2112     
#    used :        main (  %)        temp (  %)       total (  %)
#  memory :         414 (  0)           0 (  0)         414 (  0)

#------------------------------------------------------------------------------
#newpage:
#   no. =    1   reg = 126 - 226

x: Energy [MeV/n]
y:  F-Curr [1/cm^2/(MeV/n)/source]         
p: xlog ylog afac(0.8) form(0.9)
h: n            x            y(neutron ),hh0l   n 
#  e-lower      e-upper      neutron     r.err 
   1.0000E-02   1.0243E-02   3.7730E-04  0.0467
   1.0243E-02   1.0493E-02   3.7877E-04  0.0460
   1.0493E-02   1.0748E-02   3.5019E-04  0.0473
   1.0748E-02   1.1009E-02   3.7858E-04  0.0449
   1.1009E-02   1.1277E-02   3.8975E-04  0.0438
   1.1277E-02   1.1552E-02   3.7612E-04  0.0440
   1.1552E-02   1.1833E-02   3.5864E-04  0.0445
   1.1833E-02   1.2121E-02   3.1886E-04  0.0467
   1.2121E-02   1.2415E-02   3.4350E-04  0.0444
   1.2415E-02   1.2718E-02   3.3237E-04  0.0446
   1.2718E-02   1.3027E-02   3.3352E-04  0.0440
   1.3027E-02   1.3344E-02   3.2055E-04  0.0444
   1.3344E-02   1.3669E-02   3.3450E-04  0.0429
   1.3669E-02   1.4001E-02   3.0430E-04  0.0445
   1.4001E-02   1.4342E-02   2.9942E-04  0.0443
   1.4342E-02   1.4691E-02   2.9976E-04  0.0437
   1.4691E-02   1.5048E-02   2.8704E-04  0.0442
   1.5048E-02   1.5414E-02   3.2010E-04  0.0413
   1.5414E-02   1.5789E-02   2.9810E-04  0.0423
   1.5789E-02   1.6174E-02   3.0924E-04  0.0410
   1.6174E-02   1.6567E-02   3.0088E-04  0.0411
   1.6567E-02   1.6970E-02   3.1011E-04  0.0400
   1.6970E-02   1.7383E-02   2.7755E-04  0.0418
   1.7383E-02   1.7806E-02   2.8798E-04  0.0405
   1.7806E-02   1.8239E-02   2.7606E-04  0.0409
   1.8239E-02   1.8683E-02   2.7041E-04  0.0408
   1.8683E-02   1.9138E-02   2.7102E-04  0.0403
   1.9138E-02   1.9603E-02   2.7081E-04  0.0398
   1.9603E-02   2.0080E-02   2.4446E-04  0.0414
   2.0080E-02   2.0569E-02   2.6977E-04  0.0390
   2.0569E-02   2.1069E-02   2.5417E-04  0.0397
   2.1069E-02   2.1582E-02   2.4969E-04  0.0395
   2.1582E-02   2.2107E-02   2.4376E-04  0.0395
   2.2107E-02   2.2645E-02   2.5024E-04  0.0385
   2.2645E-02   2.3196E-02   2.6281E-04  0.0372
   2.3196E-02   2.3760E-02   2.3956E-04  0.0385
   2.3760E-02   2.4338E-02   2.5290E-04  0.0370
   2.4338E-02   2.4930E-02   2.2798E-04  0.0385
   2.4930E-02   2.5537E-02   2.2652E-04  0.0382
   2.5537E-02   2.6158E-02   2.4206E-04  0.0365
   2.6158E-02   2.6795E-02   2.2720E-04  0.0372
   2.6795E-02   2.7447E-02   2.1076E-04  0.0382
   2.7447E-02   2.8114E-02   2.1983E-04  0.0369
   2.8114E-02   2.8799E-02   2.3595E-04  0.0352
   2.8799E-02   2.9499E-02   2.1693E-04  0.0363
   2.9499E-02   3.0217E-02   2.0592E-04  0.0368
   3.0217E-02   3.0952E-02   2.2252E-04  0.0350
   3.0952E-02   3.1705E-02   2.1113E-04  0.0355
   3.1705E-02   3.2477E-02   2.2037E-04  0.0343
   3.2477E-02   3.3267E-02   2.0780E-04  0.0349
   3.3267E-02   3.4076E-02   2.1571E-04  0.0338
   3.4076E-02   3.4905E-02   2.0022E-04  0.0347
   3.4905E-02   3.5755E-02   1.9782E-04  0.0345
   3.5755E-02   3.6625E-02   2.0967E-04  0.0331
   3.6625E-02   3.7516E-02   2.0514E-04  0.0331
   3.7516E-02   3.8428E-02   1.8822E-04  0.0341
   3.8428E-02   3.9363E-02   2.0856E-04  0.0320
   3.9363E-02   4.0321E-02   1.9817E-04  0.0325
   4.0321E-02   4.1302E-02   1.8531E-04  0.0332
   4.1302E-02   4.2307E-02   1.9922E-04  0.0316
   4.2307E-02   4.3337E-02   1.8924E-04  0.0320
   4.3337E-02   4.4391E-02   1.8475E-04  0.0320
   4.4391E-02   4.5471E-02   1.9777E-04  0.0306
   4.5471E-02   4.6577E-02   1.8746E-04  0.0311
   4.6577E-02   4.7711E-02   1.8584E-04  0.0308
   4.7711E-02   4.8871E-02   1.8814E-04  0.0303
   4.8871E-02   5.0061E-02   1.7375E-04  0.0311
   5.0061E-02   5.1279E-02   1.8079E-04  0.0301
   5.1279E-02   5.2526E-02   1.7024E-04  0.0307
   5.2526E-02   5.3804E-02   1.9171E-04  0.0286
   5.3804E-02   5.5113E-02   1.8562E-04  0.0287
   5.5113E-02   5.6454E-02   1.7555E-04  0.0291
   5.6454E-02   5.7828E-02   1.7800E-04  0.0286
   5.7828E-02   5.9235E-02   1.8223E-04  0.0279
   5.9235E-02   6.0676E-02   1.7568E-04  0.0281
   6.0676E-02   6.2152E-02   1.7774E-04  0.0276
   6.2152E-02   6.3665E-02   1.8132E-04  0.0270
   6.3665E-02   6.5214E-02   1.7573E-04  0.0271
   6.5214E-02   6.6800E-02   1.5907E-04  0.0281
   6.6800E-02   6.8426E-02   1.7621E-04  0.0264
   6.8426E-02   7.0090E-02   1.6482E-04  0.0270
   7.0090E-02   7.1796E-02   1.6970E-04  0.0263
   7.1796E-02   7.3543E-02   1.6842E-04  0.0261
   7.3543E-02   7.5332E-02   1.5905E-04  0.0265
   7.5332E-02   7.7165E-02   1.6553E-04  0.0257
   7.7165E-02   7.9042E-02   1.6799E-04  0.0252
   7.9042E-02   8.0965E-02   1.6150E-04  0.0254
   8.0965E-02   8.2935E-02   1.6589E-04  0.0247
   8.2935E-02   8.4953E-02   1.5962E-04  0.0249
   8.4953E-02   8.7020E-02   1.5946E-04  0.0246
   8.7020E-02   8.9138E-02   1.6125E-04  0.0242
   8.9138E-02   9.1306E-02   1.5852E-04  0.0241
   9.1306E-02   9.3528E-02   1.5683E-04  0.0240
   9.3528E-02   9.5804E-02   1.5732E-04  0.0236
   9.5804E-02   9.8134E-02   1.5599E-04  0.0235
   9.8134E-02   1.0052E-01   1.4742E-04  0.0238
   1.0052E-01   1.0297E-01   1.5504E-04  0.0230
   1.0297E-01   1.0547E-01   1.5431E-04  0.0227
   1.0547E-01   1.0804E-01   1.5119E-04  0.0227
   1.0804E-01   1.1067E-01   1.5460E-04  0.0222
   1.1067E-01   1.1336E-01   1.5108E-04  0.0222
   1.1336E-01   1.1612E-01   1.4539E-04  0.0223
   1.1612E-01   1.1894E-01   1.4965E-04  0.0217
   1.1894E-01   1.2184E-01   1.4862E-04  0.0216
   1.2184E-01   1.2480E-01   1.4526E-04  0.0216
   1.2480E-01   1.2784E-01   1.4816E-04  0.0211
   1.2784E-01   1.3095E-01   1.4943E-04  0.0207
   1.3095E-01   1.3414E-01   1.4714E-04  0.0207
   1.3414E-01   1.3740E-01   1.4744E-04  0.0204
   1.3740E-01   1.4074E-01   1.4203E-04  0.0205
   1.4074E-01   1.4417E-01   1.4671E-04  0.0200
   1.4417E-01   1.4767E-01   1.4511E-04  0.0198
   1.4767E-01   1.5127E-01   1.4901E-04  0.0193
   1.5127E-01   1.5495E-01   1.4368E-04  0.0194
   1.5495E-01   1.5872E-01   1.3920E-04  0.0195
   1.5872E-01   1.6258E-01   1.4310E-04  0.0190
   1.6258E-01   1.6654E-01   1.3818E-04  0.0191
   1.6654E-01   1.7059E-01   1.3811E-04  0.0189
   1.7059E-01   1.7474E-01   1.4239E-04  0.0184
   1.7474E-01   1.7899E-01   1.3383E-04  0.0188
   1.7899E-01   1.8334E-01   1.3681E-04  0.0183
   1.8334E-01   1.8781E-01   1.3874E-04  0.0180
   1.8781E-01   1.9237E-01   1.3192E-04  0.0182
   1.9237E-01   1.9706E-01   1.3780E-04  0.0176
   1.9706E-01   2.0185E-01   1.3837E-04  0.0174
   2.0185E-01   2.0676E-01   1.3439E-04  0.0174
   2.0676E-01   2.1179E-01   1.3505E-04  0.0172
   2.1179E-01   2.1694E-01   1.3565E-04  0.0169
   2.1694E-01   2.2222E-01   1.3542E-04  0.0167
   2.2222E-01   2.2763E-01   1.3091E-04  0.0168
   2.2763E-01   2.3317E-01   1.3191E-04  0.0165
   2.3317E-01   2.3884E-01   1.3555E-04  0.0161
   2.3884E-01   2.4465E-01   1.3020E-04  0.0163
   2.4465E-01   2.5061E-01   1.2888E-04  0.0161
   2.5061E-01   2.5670E-01   1.3032E-04  0.0159
   2.5670E-01   2.6295E-01   1.3017E-04  0.0157
   2.6295E-01   2.6935E-01   1.2955E-04  0.0155
   2.6935E-01   2.7590E-01   1.2690E-04  0.0155
   2.7590E-01   2.8261E-01   1.2522E-04  0.0154
   2.8261E-01   2.8949E-01   1.2622E-04  0.0152
   2.8949E-01   2.9653E-01   1.2846E-04  0.0149
   2.9653E-01   3.0375E-01   1.2480E-04  0.0149
   3.0375E-01   3.1114E-01   1.2010E-04  0.0150
   3.1114E-01   3.1871E-01   1.2206E-04  0.0147
   3.1871E-01   3.2646E-01   1.2287E-04  0.0145
   3.2646E-01   3.3441E-01   1.2187E-04  0.0144
   3.3441E-01   3.4254E-01   1.2013E-04  0.0143
   3.4254E-01   3.5088E-01   1.2059E-04  0.0141
   3.5088E-01   3.5941E-01   1.1821E-04  0.0141
   3.5941E-01   3.6816E-01   1.1858E-04  0.0139
   3.6816E-01   3.7712E-01   1.1644E-04  0.0138
   3.7712E-01   3.8629E-01   1.1605E-04  0.0137
   3.8629E-01   3.9569E-01   1.1680E-04  0.0135
   3.9569E-01   4.0532E-01   1.1340E-04  0.0135
   4.0532E-01   4.1518E-01   1.1304E-04  0.0134
   4.1518E-01   4.2528E-01   1.1357E-04  0.0132
   4.2528E-01   4.3563E-01   1.0979E-04  0.0133
   4.3563E-01   4.4623E-01   1.0765E-04  0.0132
   4.4623E-01   4.5708E-01   1.0935E-04  0.0130
   4.5708E-01   4.6821E-01   1.0706E-04  0.0130
   4.6821E-01   4.7960E-01   1.0615E-04  0.0129
   4.7960E-01   4.9127E-01   1.0441E-04  0.0128
   4.9127E-01   5.0322E-01   1.0327E-04  0.0127
   5.0322E-01   5.1546E-01   1.0249E-04  0.0126
   5.1546E-01   5.2800E-01   1.0000E-04  0.0126
   5.2800E-01   5.4085E-01   9.7721E-05  0.0126
   5.4085E-01   5.5401E-01   9.9291E-05  0.0124
   5.5401E-01   5.6749E-01   9.4432E-05  0.0125
   5.6749E-01   5.8130E-01   9.4326E-05  0.0124
   5.8130E-01   5.9544E-01   9.4220E-05  0.0123
   5.9544E-01   6.0993E-01   9.2728E-05  0.0122
   6.0993E-01   6.2477E-01   8.8099E-05  0.0124
   6.2477E-01   6.3997E-01   8.8020E-05  0.0122
   6.3997E-01   6.5554E-01   8.5364E-05  0.0123
   6.5554E-01   6.7149E-01   8.3186E-05  0.0123
   6.7149E-01   6.8783E-01   8.4870E-05  0.0120
   6.8783E-01   7.0456E-01   8.3237E-05  0.0120
   7.0456E-01   7.2171E-01   7.8133E-05  0.0122
   7.2171E-01   7.3927E-01   7.6061E-05  0.0122
   7.3927E-01   7.5725E-01   7.6233E-05  0.0121
   7.5725E-01   7.7568E-01   7.4802E-05  0.0120
   7.7568E-01   7.9455E-01   7.1531E-05  0.0122
   7.9455E-01   8.1388E-01   6.8415E-05  0.0123
   8.1388E-01   8.3368E-01   6.7184E-05  0.0123
   8.3368E-01   8.5397E-01   6.5529E-05  0.0123
   8.5397E-01   8.7475E-01   6.1749E-05  0.0125
   8.7475E-01   8.9603E-01   5.9389E-05  0.0126
   8.9603E-01   9.1783E-01   5.8162E-05  0.0126
   9.1783E-01   9.4016E-01   5.4551E-05  0.0128
   9.4016E-01   9.6304E-01   5.3049E-05  0.0128
   9.6304E-01   9.8647E-01   4.9967E-05  0.0131
   9.8647E-01   1.0105E+00   4.7172E-05  0.0133
   1.0105E+00   1.0351E+00   4.5864E-05  0.0133
   1.0351E+00   1.0602E+00   4.5934E-05  0.0132
   1.0602E+00   1.0860E+00   4.4518E-05  0.0132
   1.0860E+00   1.1125E+00   4.5360E-05  0.0129
   1.1125E+00   1.1395E+00   4.4519E-05  0.0129
   1.1395E+00   1.1673E+00   4.5128E-05  0.0126
   1.1673E+00   1.1957E+00   4.4366E-05  0.0126
   1.1957E+00   1.2247E+00   4.4302E-05  0.0125
   1.2247E+00   1.2545E+00   4.2961E-05  0.0125
   1.2545E+00   1.2851E+00   4.3336E-05  0.0123
   1.2851E+00   1.3163E+00   4.1923E-05  0.0124
   1.3163E+00   1.3484E+00   4.0965E-05  0.0123
   1.3484E+00   1.3812E+00   4.1461E-05  0.0121
   1.3812E+00   1.4148E+00   4.1048E-05  0.0120
   1.4148E+00   1.4492E+00   4.0136E-05  0.0120
   1.4492E+00   1.4845E+00   3.8690E-05  0.0121
   1.4845E+00   1.5206E+00   3.8042E-05  0.0121
   1.5206E+00   1.5576E+00   3.5890E-05  0.0123
   1.5576E+00   1.5955E+00   3.4974E-05  0.0123
   1.5955E+00   1.6343E+00   3.3922E-05  0.0123
   1.6343E+00   1.6741E+00   3.3684E-05  0.0122
   1.6741E+00   1.7148E+00   3.2879E-05  0.0122
   1.7148E+00   1.7565E+00   3.1537E-05  0.0123
   1.7565E+00   1.7992E+00   3.0110E-05  0.0125
   1.7992E+00   1.8430E+00   2.8568E-05  0.0126
   1.8430E+00   1.8879E+00   2.8259E-05  0.0126
   1.8879E+00   1.9338E+00   2.6652E-05  0.0128
   1.9338E+00   1.9808E+00   2.6270E-05  0.0127
   1.9808E+00   2.0290E+00   2.5583E-05  0.0127
   2.0290E+00   2.0784E+00   2.3477E-05  0.0131
   2.0784E+00   2.1290E+00   2.2868E-05  0.0132
   2.1290E+00   2.1808E+00   2.1602E-05  0.0134
   2.1808E+00   2.2338E+00   2.0196E-05  0.0137
   2.2338E+00   2.2882E+00   1.9113E-05  0.0139
   2.2882E+00   2.3439E+00   1.8221E-05  0.0140
   2.3439E+00   2.4009E+00   1.7269E-05  0.0143
   2.4009E+00   2.4593E+00   1.6698E-05  0.0143
   2.4593E+00   2.5191E+00   1.5760E-05  0.0146
   2.5191E+00   2.5804E+00   1.4406E-05  0.0150
   2.5804E+00   2.6432E+00   1.4007E-05  0.0151
   2.6432E+00   2.7075E+00   1.2671E-05  0.0157
   2.7075E+00   2.7734E+00   1.2147E-05  0.0158
   2.7734E+00   2.8409E+00   1.1218E-05  0.0163
   2.8409E+00   2.9100E+00   1.0246E-05  0.0168
   2.9100E+00   2.9808E+00   9.6267E-06  0.0171
   2.9808E+00   3.0533E+00   9.2850E-06  0.0172
   3.0533E+00   3.1276E+00   8.5422E-06  0.0178
   3.1276E+00   3.2037E+00   7.7769E-06  0.0184
   3.2037E+00   3.2817E+00   7.1816E-06  0.0189
   3.2817E+00   3.3615E+00   6.5602E-06  0.0195
   3.3615E+00   3.4433E+00   6.0767E-06  0.0201
   3.4433E+00   3.5271E+00   5.6387E-06  0.0206
   3.5271E+00   3.6129E+00   5.1855E-06  0.0212
   3.6129E+00   3.7008E+00   4.6880E-06  0.0220
   3.7008E+00   3.7908E+00   4.3690E-06  0.0225
   3.7908E+00   3.8831E+00   3.9768E-06  0.0234
   3.8831E+00   3.9776E+00   3.6664E-06  0.0240
   3.9776E+00   4.0743E+00   3.4182E-06  0.0246
   4.0743E+00   4.1735E+00   3.0969E-06  0.0255
   4.1735E+00   4.2750E+00   2.8894E-06  0.0261
   4.2750E+00   4.3790E+00   2.6054E-06  0.0272
   4.3790E+00   4.4856E+00   2.3277E-06  0.0284
   4.4856E+00   4.5947E+00   2.1624E-06  0.0291
   4.5947E+00   4.7065E+00   1.8409E-06  0.0312
   4.7065E+00   4.8210E+00   1.6749E-06  0.0323
   4.8210E+00   4.9383E+00   1.5959E-06  0.0327
   4.9383E+00   5.0585E+00   1.5597E-06  0.0327
   5.0585E+00   5.1815E+00   1.3065E-06  0.0353
   5.1815E+00   5.3076E+00   1.1708E-06  0.0368
   5.3076E+00   5.4368E+00   1.0973E-06  0.0376
   5.4368E+00   5.5690E+00   9.9939E-07  0.0389
   5.5690E+00   5.7045E+00   9.5942E-07  0.0392
   5.7045E+00   5.8433E+00   7.9541E-07  0.0426
   5.8433E+00   5.9855E+00   7.6667E-07  0.0428
   5.9855E+00   6.1311E+00   6.4546E-07  0.0461
   6.1311E+00   6.2803E+00   6.4148E-07  0.0457
   6.2803E+00   6.4331E+00   5.7721E-07  0.0476
   6.4331E+00   6.5896E+00   4.6511E-07  0.0524
   6.5896E+00   6.7500E+00   5.0078E-07  0.0499
   6.7500E+00   6.9142E+00   4.1880E-07  0.0539
   6.9142E+00   7.0824E+00   3.8995E-07  0.0552
   7.0824E+00   7.2548E+00   3.5494E-07  0.0571
   7.2548E+00   7.4313E+00   3.3347E-07  0.0583
   7.4313E+00   7.6121E+00   2.8870E-07  0.0619
   7.6121E+00   7.7973E+00   2.4772E-07  0.0660
   7.7973E+00   7.9870E+00   2.3168E-07  0.0674
   7.9870E+00   8.1813E+00   1.9090E-07  0.0733
   8.1813E+00   8.3804E+00   1.9235E-07  0.0722
   8.3804E+00   8.5843E+00   1.7133E-07  0.0755
   8.5843E+00   8.7931E+00   1.7871E-07  0.0731
   8.7931E+00   9.0071E+00   1.3789E-07  0.0823
   9.0071E+00   9.2262E+00   1.3096E-07  0.0834
   9.2262E+00   9.4507E+00   1.4968E-07  0.0770
   9.4507E+00   9.6807E+00   1.0916E-07  0.0888
   9.6807E+00   9.9162E+00   9.6800E-08  0.0935
   9.9162E+00   1.0157E+01   7.9165E-08  0.1022
   1.0157E+01   1.0405E+01   7.0406E-08  0.1069
   1.0405E+01   1.0658E+01   7.7424E-08  0.1008
   1.0658E+01   1.0917E+01   5.6688E-08  0.1160
   1.0917E+01   1.1183E+01   5.9860E-08  0.1116
   1.1183E+01   1.1455E+01   5.9908E-08  0.1106
   1.1455E+01   1.1733E+01   4.7003E-08  0.1224
   1.1733E+01   1.2019E+01   3.7480E-08  0.1364
   1.2019E+01   1.2311E+01   4.0009E-08  0.1305
   1.2311E+01   1.2611E+01   3.9059E-08  0.1305
   1.2611E+01   1.2918E+01   3.1939E-08  0.1414
   1.2918E+01   1.3232E+01   3.3408E-08  0.1377
   1.3232E+01   1.3554E+01   2.3296E-08  0.1628
   1.3554E+01   1.3884E+01   3.0323E-08  0.1400
   1.3884E+01   1.4222E+01   2.6347E-08  0.1495
   1.4222E+01   1.4568E+01   2.3698E-08  0.1552
   1.4568E+01   1.4922E+01   2.1442E-08  0.1612
   1.4922E+01   1.5285E+01   1.8729E-08  0.1702
   1.5285E+01   1.5657E+01   1.6671E-08  0.1796
   1.5657E+01   1.6038E+01   1.6013E-08  0.1803
   1.6038E+01   1.6428E+01   1.4864E-08  0.1857
   1.6428E+01   1.6828E+01   5.7542E-09  0.2917
   1.6828E+01   1.7237E+01   1.1235E-08  0.2085
   1.7237E+01   1.7657E+01   1.2876E-08  0.1907
   1.7657E+01   1.8086E+01   6.2849E-09  0.2696
   1.8086E+01   1.8526E+01   7.9535E-09  0.2339
   1.8526E+01   1.8977E+01   7.3209E-09  0.2443
   1.8977E+01   1.9439E+01   5.4144E-09  0.2800
   1.9439E+01   1.9912E+01   2.9601E-09  0.3780
   1.9912E+01   2.0396E+01   8.2564E-10  0.7071
   2.0396E+01   2.0893E+01   2.8211E-09  0.3780
   2.0893E+01   2.1401E+01   1.5738E-09  0.5000
   2.1401E+01   2.1922E+01   7.6819E-10  0.7071
   2.1922E+01   2.2455E+01   2.2498E-09  0.4082
   2.2455E+01   2.3001E+01   3.6607E-10  1.0000
   2.3001E+01   2.3561E+01   3.5737E-10  1.0000
   2.3561E+01   2.4134E+01   1.3955E-09  0.5000
   2.4134E+01   2.4721E+01   1.0218E-09  0.5774
   2.4721E+01   2.5323E+01   3.3251E-10  1.0000
   2.5323E+01   2.5939E+01   1.2984E-09  0.5000
   2.5939E+01   2.6570E+01   3.1690E-10  1.0000
   2.6570E+01   2.7217E+01   0.0000E+00  0.0000
   2.7217E+01   2.7879E+01   0.0000E+00  0.0000
   2.7879E+01   2.8557E+01   5.8970E-10  0.7071
   2.8557E+01   2.9252E+01   2.8784E-10  1.0000
   2.9252E+01   2.9964E+01   0.0000E+00  0.0000
   2.9964E+01   3.0693E+01   0.0000E+00  0.0000
   3.0693E+01   3.1440E+01   0.0000E+00  0.0000
   3.1440E+01   3.2205E+01   0.0000E+00  0.0000
   3.2205E+01   3.2988E+01   0.0000E+00  0.0000
   3.2988E+01   3.3791E+01   0.0000E+00  0.0000
   3.3791E+01   3.4613E+01   0.0000E+00  0.0000
   3.4613E+01   3.5455E+01   0.0000E+00  0.0000
   3.5455E+01   3.6318E+01   0.0000E+00  0.0000
   3.6318E+01   3.7201E+01   0.0000E+00  0.0000
   3.7201E+01   3.8106E+01   0.0000E+00  0.0000
   3.8106E+01   3.9034E+01   0.0000E+00  0.0000
   3.9034E+01   3.9983E+01   0.0000E+00  0.0000
   3.9983E+01   4.0956E+01   0.0000E+00  0.0000
   4.0956E+01   4.1953E+01   0.0000E+00  0.0000
   4.1953E+01   4.2973E+01   0.0000E+00  0.0000
   4.2973E+01   4.4019E+01   0.0000E+00  0.0000
   4.4019E+01   4.5090E+01   0.0000E+00  0.0000
   4.5090E+01   4.6187E+01   0.0000E+00  0.0000
   4.6187E+01   4.7311E+01   0.0000E+00  0.0000
   4.7311E+01   4.8462E+01   0.0000E+00  0.0000
   4.8462E+01   4.9641E+01   0.0000E+00  0.0000
   4.9641E+01   5.0849E+01   0.0000E+00  0.0000
   5.0849E+01   5.2086E+01   0.0000E+00  0.0000
   5.2086E+01   5.3353E+01   0.0000E+00  0.0000
   5.3353E+01   5.4651E+01   0.0000E+00  0.0000
   5.4651E+01   5.5981E+01   0.0000E+00  0.0000
   5.5981E+01   5.7343E+01   0.0000E+00  0.0000
   5.7343E+01   5.8738E+01   0.0000E+00  0.0000
   5.8738E+01   6.0168E+01   0.0000E+00  0.0000
   6.0168E+01   6.1632E+01   0.0000E+00  0.0000
   6.1632E+01   6.3131E+01   0.0000E+00  0.0000
   6.3131E+01   6.4667E+01   0.0000E+00  0.0000
   6.4667E+01   6.6240E+01   0.0000E+00  0.0000
   6.6240E+01   6.7852E+01   0.0000E+00  0.0000
   6.7852E+01   6.9503E+01   0.0000E+00  0.0000
   6.9503E+01   7.1194E+01   0.0000E+00  0.0000
   7.1194E+01   7.2926E+01   0.0000E+00  0.0000
   7.2926E+01   7.4701E+01   0.0000E+00  0.0000
   7.4701E+01   7.6518E+01   0.0000E+00  0.0000
   7.6518E+01   7.8380E+01   0.0000E+00  0.0000
   7.8380E+01   8.0287E+01   0.0000E+00  0.0000
   8.0287E+01   8.2240E+01   0.0000E+00  0.0000
   8.2240E+01   8.4241E+01   0.0000E+00  0.0000
   8.4241E+01   8.6291E+01   0.0000E+00  0.0000
   8.6291E+01   8.8391E+01   0.0000E+00  0.0000
   8.8391E+01   9.0541E+01   0.0000E+00  0.0000
   9.0541E+01   9.2744E+01   0.0000E+00  0.0000
   9.2744E+01   9.5001E+01   0.0000E+00  0.0000
   9.5001E+01   9.7312E+01   0.0000E+00  0.0000
   9.7312E+01   9.9680E+01   0.0000E+00  0.0000
   9.9680E+01   1.0211E+02   0.0000E+00  0.0000
   1.0211E+02   1.0459E+02   0.0000E+00  0.0000
   1.0459E+02   1.0713E+02   0.0000E+00  0.0000
   1.0713E+02   1.0974E+02   0.0000E+00  0.0000
   1.0974E+02   1.1241E+02   0.0000E+00  0.0000
   1.1241E+02   1.1515E+02   0.0000E+00  0.0000
   1.1515E+02   1.1795E+02   0.0000E+00  0.0000
   1.1795E+02   1.2082E+02   0.0000E+00  0.0000
   1.2082E+02   1.2376E+02   0.0000E+00  0.0000
   1.2376E+02   1.2677E+02   0.0000E+00  0.0000
   1.2677E+02   1.2985E+02   0.0000E+00  0.0000
   1.2985E+02   1.3301E+02   0.0000E+00  0.0000
   1.3301E+02   1.3625E+02   0.0000E+00  0.0000
   1.3625E+02   1.3956E+02   0.0000E+00  0.0000
   1.3956E+02   1.4296E+02   0.0000E+00  0.0000
   1.4296E+02   1.4644E+02   0.0000E+00  0.0000
   1.4644E+02   1.5000E+02   0.0000E+00  0.0000

#   sum over                 1.1258E-06
'no. =    1   reg = 126 - 226'
msuc: {\huge [t-cross] in region mesh}
msdr: {\it plotted by \ANGEL \version}
msdl: {\it calculated by \PHITS  3.26}
wt: s(0.7)
\vspace{-3}
  region surface crossing
  area  &=&   1.0000E+00 [cm^2]
e:
 
# Information for Restart Calculation
# This calculation was newly started
# istdev =  2 # 1:Batch variance, 2:History variance
# resc2  = 5.00000000000000000E+09 # Total source weight or Total source weight / maxcas
# resc3  = 5.00000000000000000E+09 # Total history number or Total batch number
# maxcas =   100000000 # History / Batch, only used for istdev=1
# bitrseed = 0110100000100010111000001110001111001110100100011111101000111001 # bit data of rseed
