[ T-Cross ]
    title = [t-cross] in region mesh
     mesh =  reg            # mesh type is region-wise
      reg =    1            # number of crossing regions
      non     r-from    r-to       area
      1       121       221        1.000000    
   e-type =    3            # e-mesh is log given by emin, emax and ne
     emin =  1.0000000E-02  # minimum value of e-mesh points
     emax =   150.0000      # maximum value of e-mesh points
#    edel =  2.4039514E-02  # mesh width of e-mesh points
       ne =    400          # number of e-mesh points
#    data = ( e(i), i = 1, ne + 1 )
#           1.00000E-02  1.02433E-02  1.04925E-02  1.07478E-02  1.10093E-02
#           1.12772E-02  1.15516E-02  1.18326E-02  1.21205E-02  1.24154E-02
#           1.27175E-02  1.30269E-02  1.33439E-02  1.36686E-02  1.40011E-02
#           1.43418E-02  1.46907E-02  1.50482E-02  1.54143E-02  1.57894E-02
#           1.61735E-02  1.65670E-02  1.69701E-02  1.73830E-02  1.78060E-02
#           1.82392E-02  1.86830E-02  1.91375E-02  1.96032E-02  2.00801E-02
#           2.05687E-02  2.10692E-02  2.15818E-02  2.21069E-02  2.26448E-02
#           2.31957E-02  2.37601E-02  2.43382E-02  2.49304E-02  2.55369E-02
#           2.61583E-02  2.67947E-02  2.74467E-02  2.81145E-02  2.87985E-02
#           2.94992E-02  3.02169E-02  3.09521E-02  3.17052E-02  3.24766E-02
#           3.32668E-02  3.40762E-02  3.49053E-02  3.57546E-02  3.66246E-02
#           3.75157E-02  3.84284E-02  3.93634E-02  4.03212E-02  4.13022E-02
#           4.23071E-02  4.33365E-02  4.43909E-02  4.54710E-02  4.65773E-02
#           4.77106E-02  4.88714E-02  5.00605E-02  5.12785E-02  5.25262E-02
#           5.38042E-02  5.51133E-02  5.64542E-02  5.78278E-02  5.92348E-02
#           6.06760E-02  6.21523E-02  6.36645E-02  6.52135E-02  6.68002E-02
#           6.84255E-02  7.00904E-02  7.17957E-02  7.35426E-02  7.53319E-02
#           7.71648E-02  7.90423E-02  8.09655E-02  8.29354E-02  8.49533E-02
#           8.70203E-02  8.91376E-02  9.13064E-02  9.35279E-02  9.58035E-02
#           9.81345E-02  1.00522E-01  1.02968E-01  1.05473E-01  1.08040E-01
#           1.10668E-01  1.13361E-01  1.16119E-01  1.18944E-01  1.21838E-01
#           1.24803E-01  1.27839E-01  1.30950E-01  1.34136E-01  1.37399E-01
#           1.40742E-01  1.44167E-01  1.47675E-01  1.51268E-01  1.54948E-01
#           1.58718E-01  1.62580E-01  1.66535E-01  1.70587E-01  1.74738E-01
#           1.78989E-01  1.83344E-01  1.87805E-01  1.92375E-01  1.97055E-01
#           2.01850E-01  2.06761E-01  2.11792E-01  2.16945E-01  2.22223E-01
#           2.27630E-01  2.33169E-01  2.38842E-01  2.44653E-01  2.50605E-01
#           2.56703E-01  2.62949E-01  2.69346E-01  2.75900E-01  2.82613E-01
#           2.89489E-01  2.96532E-01  3.03747E-01  3.11138E-01  3.18708E-01
#           3.26462E-01  3.34405E-01  3.42542E-01  3.50876E-01  3.59413E-01
#           3.68158E-01  3.77116E-01  3.86291E-01  3.95690E-01  4.05317E-01
#           4.15179E-01  4.25281E-01  4.35628E-01  4.46227E-01  4.57084E-01
#           4.68205E-01  4.79597E-01  4.91266E-01  5.03219E-01  5.15463E-01
#           5.28005E-01  5.40851E-01  5.54011E-01  5.67490E-01  5.81298E-01
#           5.95441E-01  6.09929E-01  6.24769E-01  6.39970E-01  6.55541E-01
#           6.71491E-01  6.87828E-01  7.04564E-01  7.21706E-01  7.39266E-01
#           7.57253E-01  7.75678E-01  7.94551E-01  8.13883E-01  8.33685E-01
#           8.53969E-01  8.74747E-01  8.96030E-01  9.17831E-01  9.40163E-01
#           9.63038E-01  9.86469E-01  1.01047E+00  1.03506E+00  1.06024E+00
#           1.08604E+00  1.11246E+00  1.13953E+00  1.16725E+00  1.19565E+00
#           1.22474E+00  1.25454E+00  1.28507E+00  1.31633E+00  1.34836E+00
#           1.38117E+00  1.41477E+00  1.44920E+00  1.48446E+00  1.52057E+00
#           1.55757E+00  1.59547E+00  1.63429E+00  1.67405E+00  1.71478E+00
#           1.75650E+00  1.79924E+00  1.84302E+00  1.88786E+00  1.93379E+00
#           1.98084E+00  2.02904E+00  2.07841E+00  2.12898E+00  2.18078E+00
#           2.23384E+00  2.28819E+00  2.34386E+00  2.40089E+00  2.45930E+00
#           2.51914E+00  2.58043E+00  2.64322E+00  2.70753E+00  2.77341E+00
#           2.84088E+00  2.91001E+00  2.98081E+00  3.05333E+00  3.12762E+00
#           3.20372E+00  3.28167E+00  3.36152E+00  3.44330E+00  3.52708E+00
#           3.61290E+00  3.70080E+00  3.79085E+00  3.88308E+00  3.97756E+00
#           4.07434E+00  4.17347E+00  4.27501E+00  4.37903E+00  4.48557E+00
#           4.59471E+00  4.70650E+00  4.82102E+00  4.93832E+00  5.05847E+00
#           5.18155E+00  5.30762E+00  5.43676E+00  5.56904E+00  5.70453E+00
#           5.84333E+00  5.98550E+00  6.13114E+00  6.28031E+00  6.43312E+00
#           6.58964E+00  6.74997E+00  6.91420E+00  7.08243E+00  7.25475E+00
#           7.43126E+00  7.61207E+00  7.79728E+00  7.98700E+00  8.18133E+00
#           8.38038E+00  8.58428E+00  8.79315E+00  9.00709E+00  9.22624E+00
#           9.45072E+00  9.68067E+00  9.91620E+00  1.01575E+01  1.04046E+01
#           1.06578E+01  1.09171E+01  1.11827E+01  1.14548E+01  1.17335E+01
#           1.20190E+01  1.23114E+01  1.26109E+01  1.29178E+01  1.32321E+01
#           1.35540E+01  1.38838E+01  1.42216E+01  1.45676E+01  1.49221E+01
#           1.52851E+01  1.56570E+01  1.60380E+01  1.64282E+01  1.68279E+01
#           1.72374E+01  1.76568E+01  1.80864E+01  1.85264E+01  1.89772E+01
#           1.94389E+01  1.99119E+01  2.03963E+01  2.08926E+01  2.14009E+01
#           2.19216E+01  2.24550E+01  2.30014E+01  2.35610E+01  2.41343E+01
#           2.47215E+01  2.53230E+01  2.59391E+01  2.65702E+01  2.72167E+01
#           2.78789E+01  2.85572E+01  2.92520E+01  2.99637E+01  3.06928E+01
#           3.14396E+01  3.22045E+01  3.29881E+01  3.37907E+01  3.46128E+01
#           3.54550E+01  3.63177E+01  3.72013E+01  3.81064E+01  3.90336E+01
#           3.99833E+01  4.09561E+01  4.19526E+01  4.29734E+01  4.40189E+01
#           4.50900E+01  4.61870E+01  4.73108E+01  4.84619E+01  4.96410E+01
#           5.08488E+01  5.20860E+01  5.33533E+01  5.46514E+01  5.59812E+01
#           5.73432E+01  5.87384E+01  6.01676E+01  6.16315E+01  6.31311E+01
#           6.46671E+01  6.62405E+01  6.78522E+01  6.95031E+01  7.11941E+01
#           7.29263E+01  7.47007E+01  7.65182E+01  7.83800E+01  8.02870E+01
#           8.22405E+01  8.42414E+01  8.62911E+01  8.83906E+01  9.05412E+01
#           9.27442E+01  9.50007E+01  9.73122E+01  9.96799E+01  1.02105E+02
#           1.04589E+02  1.07134E+02  1.09741E+02  1.12411E+02  1.15146E+02
#           1.17948E+02  1.20817E+02  1.23757E+02  1.26768E+02  1.29852E+02
#           1.33012E+02  1.36248E+02  1.39563E+02  1.42959E+02  1.46437E+02
#           1.50000E+02
     unit =    2            # unit is [1/cm^2/(MeV/n)/source]
     axis =  eng            # axis of output
     file = detector-22.out  # file name of output for the above axis
   output = f-curr          # surface crossing forward current spectrum
     part =  neutron  
# kf/name :  2112     
#    used :        main (  %)        temp (  %)       total (  %)
#  memory :         414 (  0)           0 (  0)         414 (  0)

#------------------------------------------------------------------------------
#newpage:
#   no. =    1   reg = 121 - 221

x: Energy [MeV/n]
y:  F-Curr [1/cm^2/(MeV/n)/source]         
p: xlog ylog afac(0.8) form(0.9)
h: n            x            y(neutron ),hh0l   n 
#  e-lower      e-upper      neutron     r.err 
   1.0000E-02   1.0243E-02   4.5210E-04  0.1348
   1.0243E-02   1.0493E-02   6.1390E-04  0.1141
   1.0493E-02   1.0748E-02   5.7973E-04  0.1162
   1.0748E-02   1.1009E-02   4.6896E-04  0.1274
   1.1009E-02   1.1277E-02   4.4052E-04  0.1302
   1.1277E-02   1.1552E-02   5.5540E-04  0.1144
   1.1552E-02   1.1833E-02   3.7465E-04  0.1373
   1.1833E-02   1.2121E-02   4.9323E-04  0.1187
   1.2121E-02   1.2415E-02   4.3404E-04  0.1250
   1.2415E-02   1.2718E-02   4.5022E-04  0.1213
   1.2718E-02   1.3027E-02   4.3725E-04  0.1212
   1.3027E-02   1.3344E-02   3.2812E-04  0.1387
   1.3344E-02   1.3669E-02   4.0657E-04  0.1231
   1.3669E-02   1.4001E-02   3.8597E-04  0.1247
   1.4001E-02   1.4342E-02   4.1181E-04  0.1193
   1.4342E-02   1.4691E-02   3.5249E-04  0.1273
   1.4691E-02   1.5048E-02   5.6877E-04  0.0990
   1.5048E-02   1.5414E-02   3.6052E-04  0.1231
   1.5414E-02   1.5789E-02   3.3596E-04  0.1260
   1.5789E-02   1.6174E-02   4.0087E-04  0.1140
   1.6174E-02   1.6567E-02   2.7331E-04  0.1357
   1.6567E-02   1.6970E-02   3.6220E-04  0.1170
   1.6970E-02   1.7383E-02   3.0578E-04  0.1258
   1.7383E-02   1.7806E-02   3.5466E-04  0.1155
   1.7806E-02   1.8239E-02   3.4768E-04  0.1150
   1.8239E-02   1.8683E-02   2.5752E-04  0.1316
   1.8683E-02   1.9138E-02   3.7838E-04  0.1078
   1.9138E-02   1.9603E-02   3.5277E-04  0.1103
   1.9603E-02   2.0080E-02   3.1185E-04  0.1157
   2.0080E-02   2.0569E-02   3.4438E-04  0.1090
   2.0569E-02   2.1069E-02   3.4020E-04  0.1083
   2.1069E-02   2.1582E-02   2.9328E-04  0.1148
   2.1582E-02   2.2107E-02   3.5041E-04  0.1043
   2.2107E-02   2.2645E-02   3.3162E-04  0.1055
   2.2645E-02   2.3196E-02   3.0931E-04  0.1079
   2.3196E-02   2.3760E-02   3.1284E-04  0.1063
   2.3760E-02   2.4338E-02   2.9985E-04  0.1072
   2.4338E-02   2.4930E-02   3.2254E-04  0.1022
   2.4930E-02   2.5537E-02   2.8026E-04  0.1085
   2.5537E-02   2.6158E-02   2.7521E-04  0.1080
   2.6158E-02   2.6795E-02   3.1161E-04  0.1004
   2.6795E-02   2.7447E-02   2.9544E-04  0.1018
   2.7447E-02   2.8114E-02   2.9100E-04  0.1014
   2.8114E-02   2.8799E-02   2.4414E-04  0.1093
   2.8799E-02   2.9499E-02   3.1868E-04  0.0945
   2.9499E-02   3.0217E-02   2.5408E-04  0.1046
   3.0217E-02   3.0952E-02   2.8920E-04  0.0969
   3.0952E-02   3.1705E-02   2.4867E-04  0.1031
   3.1705E-02   3.2477E-02   2.1293E-04  0.1103
   3.2477E-02   3.3267E-02   2.3328E-04  0.1041
   3.3267E-02   3.4076E-02   1.7083E-04  0.1202
   3.4076E-02   3.4905E-02   2.2434E-04  0.1037
   3.4905E-02   3.5755E-02   2.4761E-04  0.0975
   3.5755E-02   3.6625E-02   2.4599E-04  0.0967
   3.6625E-02   3.7516E-02   2.4015E-04  0.0967
   3.7516E-02   3.8428E-02   2.2695E-04  0.0980
   3.8428E-02   3.9363E-02   2.0107E-04  0.1031
   3.9363E-02   4.0321E-02   2.1849E-04  0.0976
   4.0321E-02   4.1302E-02   2.1610E-04  0.0969
   4.1302E-02   4.2307E-02   2.1555E-04  0.0960
   4.2307E-02   4.3337E-02   2.1826E-04  0.0942
   4.3337E-02   4.4391E-02   2.3263E-04  0.0902
   4.4391E-02   4.5471E-02   1.8920E-04  0.0989
   4.5471E-02   4.6577E-02   1.9643E-04  0.0958
   4.6577E-02   4.7711E-02   1.5883E-04  0.1054
   4.7711E-02   4.8871E-02   1.7574E-04  0.0988
   4.8871E-02   5.0061E-02   1.8196E-04  0.0959
   5.0061E-02   5.1279E-02   1.8744E-04  0.0935
   5.1279E-02   5.2526E-02   1.8105E-04  0.0938
   5.2526E-02   5.3804E-02   2.2066E-04  0.0842
   5.3804E-02   5.5113E-02   1.7692E-04  0.0927
   5.5113E-02   5.6454E-02   1.9364E-04  0.0876
   5.6454E-02   5.7828E-02   1.9555E-04  0.0862
   5.7828E-02   5.9235E-02   1.6541E-04  0.0926
   5.9235E-02   6.0676E-02   1.6414E-04  0.0919
   6.0676E-02   6.2152E-02   1.4654E-04  0.0959
   6.2152E-02   6.3665E-02   1.7524E-04  0.0868
   6.3665E-02   6.5214E-02   1.5793E-04  0.0901
   6.5214E-02   6.6800E-02   1.6176E-04  0.0882
   6.6800E-02   6.8426E-02   1.7923E-04  0.0827
   6.8426E-02   7.0090E-02   1.6613E-04  0.0848
   7.0090E-02   7.1796E-02   1.4913E-04  0.0886
   7.1796E-02   7.3543E-02   1.7646E-04  0.0804
   7.3543E-02   7.5332E-02   1.3988E-04  0.0893
   7.5332E-02   7.7165E-02   1.2999E-04  0.0916
   7.7165E-02   7.9042E-02   1.5267E-04  0.0835
   7.9042E-02   8.0965E-02   1.4834E-04  0.0836
   8.0965E-02   8.2935E-02   1.4450E-04  0.0836
   8.2935E-02   8.4953E-02   1.2159E-04  0.0901
   8.4953E-02   8.7020E-02   1.2882E-04  0.0866
   8.7020E-02   8.9138E-02   1.3427E-04  0.0838
   8.9138E-02   9.1306E-02   1.3379E-04  0.0828
   9.1306E-02   9.3528E-02   1.3776E-04  0.0807
   9.3528E-02   9.5804E-02   1.2630E-04  0.0833
   9.5804E-02   9.8134E-02   1.2294E-04  0.0835
   9.8134E-02   1.0052E-01   1.1849E-04  0.0838
   1.0052E-01   1.0297E-01   1.3147E-04  0.0787
   1.0297E-01   1.0547E-01   1.2866E-04  0.0787
   1.0547E-01   1.0804E-01   1.0962E-04  0.0842
   1.0804E-01   1.1067E-01   1.1855E-04  0.0800
   1.1067E-01   1.1336E-01   1.0919E-04  0.0825
   1.1336E-01   1.1612E-01   1.1892E-04  0.0781
   1.1612E-01   1.1894E-01   1.1198E-04  0.0795
   1.1894E-01   1.2184E-01   1.1068E-04  0.0790
   1.2184E-01   1.2480E-01   1.2120E-04  0.0745
   1.2480E-01   1.2784E-01   1.0779E-04  0.0781
   1.2784E-01   1.3095E-01   1.1007E-04  0.0763
   1.3095E-01   1.3414E-01   1.0764E-04  0.0763
   1.3414E-01   1.3740E-01   9.9368E-05  0.0785
   1.3740E-01   1.4074E-01   1.0030E-04  0.0771
   1.4074E-01   1.4417E-01   1.0172E-04  0.0757
   1.4417E-01   1.4767E-01   8.8572E-05  0.0802
   1.4767E-01   1.5127E-01   9.2382E-05  0.0775
   1.5127E-01   1.5495E-01   9.0019E-05  0.0776
   1.5495E-01   1.5872E-01   8.2498E-05  0.0801
   1.5872E-01   1.6258E-01   9.2445E-05  0.0748
   1.6258E-01   1.6654E-01   8.6746E-05  0.0762
   1.6654E-01   1.7059E-01   7.8975E-05  0.0789
   1.7059E-01   1.7474E-01   7.5653E-05  0.0797
   1.7474E-01   1.7899E-01   6.8761E-05  0.0825
   1.7899E-01   1.8334E-01   6.8026E-05  0.0820
   1.8334E-01   1.8781E-01   7.0916E-05  0.0795
   1.8781E-01   1.9237E-01   7.5575E-05  0.0760
   1.9237E-01   1.9706E-01   6.9987E-05  0.0780
   1.9706E-01   2.0185E-01   5.8978E-05  0.0840
   2.0185E-01   2.0676E-01   6.9475E-05  0.0763
   2.0676E-01   2.1179E-01   6.4907E-05  0.0779
   2.1179E-01   2.1694E-01   6.4040E-05  0.0778
   2.1694E-01   2.2222E-01   6.2862E-05  0.0775
   2.2222E-01   2.2763E-01   6.8492E-05  0.0735
   2.2763E-01   2.3317E-01   6.9532E-05  0.0719
   2.3317E-01   2.3884E-01   6.4667E-05  0.0738
   2.3884E-01   2.4465E-01   7.4262E-05  0.0680
   2.4465E-01   2.5061E-01   7.4296E-05  0.0671
   2.5061E-01   2.5670E-01   6.7835E-05  0.0695
   2.5670E-01   2.6295E-01   8.3078E-05  0.0620
   2.6295E-01   2.6935E-01   7.6954E-05  0.0637
   2.6935E-01   2.7590E-01   7.4037E-05  0.0641
   2.7590E-01   2.8261E-01   7.6546E-05  0.0623
   2.8261E-01   2.8949E-01   7.0382E-05  0.0641
   2.8949E-01   2.9653E-01   7.4196E-05  0.0618
   2.9653E-01   3.0375E-01   7.9509E-05  0.0589
   3.0375E-01   3.1114E-01   8.3351E-05  0.0569
   3.1114E-01   3.1871E-01   7.3976E-05  0.0596
   3.1871E-01   3.2646E-01   7.9981E-05  0.0567
   3.2646E-01   3.3441E-01   8.3299E-05  0.0549
   3.3441E-01   3.4254E-01   7.9630E-05  0.0555
   3.4254E-01   3.5088E-01   7.6181E-05  0.0560
   3.5088E-01   3.5941E-01   7.8258E-05  0.0546
   3.5941E-01   3.6816E-01   8.7063E-05  0.0512
   3.6816E-01   3.7712E-01   7.4632E-05  0.0545
   3.7712E-01   3.8629E-01   8.5026E-05  0.0505
   3.8629E-01   3.9569E-01   8.3012E-05  0.0505
   3.9569E-01   4.0532E-01   8.4753E-05  0.0494
   4.0532E-01   4.1518E-01   7.7835E-05  0.0510
   4.1518E-01   4.2528E-01   8.1747E-05  0.0491
   4.2528E-01   4.3563E-01   8.0353E-05  0.0489
   4.3563E-01   4.4623E-01   7.0631E-05  0.0515
   4.4623E-01   4.5708E-01   8.1003E-05  0.0475
   4.5708E-01   4.6821E-01   8.1003E-05  0.0470
   4.6821E-01   4.7960E-01   8.0367E-05  0.0467
   4.7960E-01   4.9127E-01   8.3176E-05  0.0453
   4.9127E-01   5.0322E-01   7.8665E-05  0.0460
   5.0322E-01   5.1546E-01   7.6583E-05  0.0461
   5.1546E-01   5.2800E-01   7.8206E-05  0.0450
   5.2800E-01   5.4085E-01   7.8712E-05  0.0443
   5.4085E-01   5.5401E-01   8.1486E-05  0.0431
   5.5401E-01   5.6749E-01   8.5052E-05  0.0417
   5.6749E-01   5.8130E-01   8.0351E-05  0.0424
   5.8130E-01   5.9544E-01   8.0572E-05  0.0418
   5.9544E-01   6.0993E-01   7.5824E-05  0.0425
   6.0993E-01   6.2477E-01   7.9134E-05  0.0412
   6.2477E-01   6.3997E-01   7.6233E-05  0.0414
   6.3997E-01   6.5554E-01   8.0036E-05  0.0400
   6.5554E-01   6.7149E-01   7.8655E-05  0.0399
   6.7149E-01   6.8783E-01   7.6586E-05  0.0399
   6.8783E-01   7.0456E-01   7.6275E-05  0.0395
   7.0456E-01   7.2171E-01   7.6577E-05  0.0390
   7.2171E-01   7.3927E-01   7.5456E-05  0.0387
   7.3927E-01   7.5725E-01   7.2427E-05  0.0390
   7.5725E-01   7.7568E-01   7.4850E-05  0.0380
   7.7568E-01   7.9455E-01   7.4960E-05  0.0375
   7.9455E-01   8.1388E-01   6.8708E-05  0.0387
   8.1388E-01   8.3368E-01   6.8633E-05  0.0383
   8.3368E-01   8.5397E-01   7.0621E-05  0.0372
   8.5397E-01   8.7475E-01   6.9986E-05  0.0370
   8.7475E-01   8.9603E-01   6.7724E-05  0.0372
   8.9603E-01   9.1783E-01   6.7889E-05  0.0366
   9.1783E-01   9.4016E-01   6.4715E-05  0.0371
   9.4016E-01   9.6304E-01   6.1028E-05  0.0377
   9.6304E-01   9.8647E-01   5.9143E-05  0.0378
   9.8647E-01   1.0105E+00   5.7665E-05  0.0379
   1.0105E+00   1.0351E+00   5.4417E-05  0.0385
   1.0351E+00   1.0602E+00   5.2606E-05  0.0387
   1.0602E+00   1.0860E+00   5.4530E-05  0.0376
   1.0860E+00   1.1125E+00   5.1422E-05  0.0382
   1.1125E+00   1.1395E+00   5.0623E-05  0.0381
   1.1395E+00   1.1673E+00   4.5843E-05  0.0395
   1.1673E+00   1.1957E+00   4.7181E-05  0.0385
   1.1957E+00   1.2247E+00   4.5516E-05  0.0386
   1.2247E+00   1.2545E+00   4.1922E-05  0.0398
   1.2545E+00   1.2851E+00   4.5713E-05  0.0377
   1.2851E+00   1.3163E+00   4.1485E-05  0.0391
   1.3163E+00   1.3484E+00   4.2450E-05  0.0382
   1.3484E+00   1.3812E+00   4.1988E-05  0.0380
   1.3812E+00   1.4148E+00   4.1010E-05  0.0379
   1.4148E+00   1.4492E+00   3.6875E-05  0.0395
   1.4492E+00   1.4845E+00   3.3859E-05  0.0407
   1.4845E+00   1.5206E+00   3.7331E-05  0.0383
   1.5206E+00   1.5576E+00   3.4466E-05  0.0395
   1.5576E+00   1.5955E+00   3.2314E-05  0.0402
   1.5955E+00   1.6343E+00   3.4183E-05  0.0385
   1.6343E+00   1.6741E+00   3.4917E-05  0.0378
   1.6741E+00   1.7148E+00   3.2009E-05  0.0390
   1.7148E+00   1.7565E+00   3.2629E-05  0.0382
   1.7565E+00   1.7992E+00   3.0217E-05  0.0392
   1.7992E+00   1.8430E+00   3.1533E-05  0.0379
   1.8430E+00   1.8879E+00   2.7191E-05  0.0403
   1.8879E+00   1.9338E+00   2.7908E-05  0.0393
   1.9338E+00   1.9808E+00   2.8724E-05  0.0383
   1.9808E+00   2.0290E+00   2.7453E-05  0.0386
   2.0290E+00   2.0784E+00   2.6047E-05  0.0391
   2.0784E+00   2.1290E+00   2.6017E-05  0.0389
   2.1290E+00   2.1808E+00   2.5550E-05  0.0387
   2.1808E+00   2.2338E+00   2.3053E-05  0.0402
   2.2338E+00   2.2882E+00   2.3603E-05  0.0393
   2.2882E+00   2.3439E+00   2.3852E-05  0.0386
   2.3439E+00   2.4009E+00   2.1153E-05  0.0405
   2.4009E+00   2.4593E+00   2.0292E-05  0.0409
   2.4593E+00   2.5191E+00   2.0802E-05  0.0399
   2.5191E+00   2.5804E+00   2.1706E-05  0.0386
   2.5804E+00   2.6432E+00   2.0011E-05  0.0397
   2.6432E+00   2.7075E+00   2.0429E-05  0.0388
   2.7075E+00   2.7734E+00   1.9743E-05  0.0390
   2.7734E+00   2.8409E+00   2.0375E-05  0.0379
   2.8409E+00   2.9100E+00   1.7031E-05  0.0410
   2.9100E+00   2.9808E+00   1.7130E-05  0.0404
   2.9808E+00   3.0533E+00   1.6158E-05  0.0412
   3.0533E+00   3.1276E+00   1.5071E-05  0.0421
   3.1276E+00   3.2037E+00   1.5059E-05  0.0416
   3.2037E+00   3.2817E+00   1.4297E-05  0.0422
   3.2817E+00   3.3615E+00   1.4563E-05  0.0413
   3.3615E+00   3.4433E+00   1.5181E-05  0.0399
   3.4433E+00   3.5271E+00   1.3135E-05  0.0424
   3.5271E+00   3.6129E+00   1.3039E-05  0.0420
   3.6129E+00   3.7008E+00   1.2072E-05  0.0431
   3.7008E+00   3.7908E+00   1.2709E-05  0.0416
   3.7908E+00   3.8831E+00   1.1427E-05  0.0433
   3.8831E+00   3.9776E+00   1.1942E-05  0.0419
   3.9776E+00   4.0743E+00   1.1955E-05  0.0414
   4.0743E+00   4.1735E+00   1.1213E-05  0.0423
   4.1735E+00   4.2750E+00   1.0953E-05  0.0423
   4.2750E+00   4.3790E+00   9.5343E-06  0.0447
   4.3790E+00   4.4856E+00   9.3079E-06  0.0448
   4.4856E+00   4.5947E+00   8.5588E-06  0.0461
   4.5947E+00   4.7065E+00   9.0416E-06  0.0443
   4.7065E+00   4.8210E+00   7.9158E-06  0.0469
   4.8210E+00   4.9383E+00   8.0368E-06  0.0459
   4.9383E+00   5.0585E+00   8.3165E-06  0.0446
   5.0585E+00   5.1815E+00   6.4394E-06  0.0500
   5.1815E+00   5.3076E+00   6.1992E-06  0.0504
   5.3076E+00   5.4368E+00   7.0006E-06  0.0469
   5.4368E+00   5.5690E+00   6.2184E-06  0.0492
   5.5690E+00   5.7045E+00   6.5642E-06  0.0473
   5.7045E+00   5.8433E+00   5.0403E-06  0.0533
   5.8433E+00   5.9855E+00   5.0602E-06  0.0525
   5.9855E+00   6.1311E+00   5.2817E-06  0.0508
   6.1311E+00   6.2803E+00   4.7243E-06  0.0532
   6.2803E+00   6.4331E+00   4.6004E-06  0.0532
   6.4331E+00   6.5896E+00   4.3234E-06  0.0542
   6.5896E+00   6.7500E+00   4.2330E-06  0.0542
   6.7500E+00   6.9142E+00   4.0440E-06  0.0548
   6.9142E+00   7.0824E+00   3.7141E-06  0.0565
   7.0824E+00   7.2548E+00   3.2504E-06  0.0596
   7.2548E+00   7.4313E+00   3.0975E-06  0.0602
   7.4313E+00   7.6121E+00   3.1068E-06  0.0596
   7.6121E+00   7.7973E+00   2.7805E-06  0.0623
   7.7973E+00   7.9870E+00   2.5846E-06  0.0638
   7.9870E+00   8.1813E+00   2.6105E-06  0.0627
   8.1813E+00   8.3804E+00   2.2946E-06  0.0661
   8.3804E+00   8.5843E+00   2.3605E-06  0.0643
   8.5843E+00   8.7931E+00   2.1513E-06  0.0666
   8.7931E+00   9.0071E+00   1.9461E-06  0.0693
   9.0071E+00   9.2262E+00   1.7750E-06  0.0717
   9.2262E+00   9.4507E+00   1.7388E-06  0.0716
   9.4507E+00   9.6807E+00   1.8777E-06  0.0679
   9.6807E+00   9.9162E+00   1.6515E-06  0.0717
   9.9162E+00   1.0157E+01   1.7325E-06  0.0692
   1.0157E+01   1.0405E+01   1.6225E-06  0.0705
   1.0405E+01   1.0658E+01   1.8065E-06  0.0661
   1.0658E+01   1.0917E+01   1.8561E-06  0.0644
   1.0917E+01   1.1183E+01   1.5473E-06  0.0697
   1.1183E+01   1.1455E+01   1.5247E-06  0.0694
   1.1455E+01   1.1733E+01   1.6182E-06  0.0666
   1.1733E+01   1.2019E+01   1.3521E-06  0.0720
   1.2019E+01   1.2311E+01   1.3198E-06  0.0719
   1.2311E+01   1.2611E+01   1.3501E-06  0.0703
   1.2611E+01   1.2918E+01   1.1077E-06  0.0766
   1.2918E+01   1.3232E+01   9.9999E-07  0.0797
   1.3232E+01   1.3554E+01   9.9564E-07  0.0789
   1.3554E+01   1.3884E+01   1.0925E-06  0.0744
   1.3884E+01   1.4222E+01   8.3947E-07  0.0838
   1.4222E+01   1.4568E+01   8.0440E-07  0.0847
   1.4568E+01   1.4922E+01   7.5612E-07  0.0862
   1.4922E+01   1.5285E+01   6.5455E-07  0.0915
   1.5285E+01   1.5657E+01   6.5071E-07  0.0909
   1.5657E+01   1.6038E+01   5.4601E-07  0.0981
   1.6038E+01   1.6428E+01   6.3554E-07  0.0898
   1.6428E+01   1.6828E+01   6.4046E-07  0.0884
   1.6828E+01   1.7237E+01   5.0802E-07  0.0981
   1.7237E+01   1.7657E+01   4.3872E-07  0.1043
   1.7657E+01   1.8086E+01   3.5847E-07  0.1140
   1.8086E+01   1.8526E+01   3.4087E-07  0.1155
   1.8526E+01   1.8977E+01   3.3721E-07  0.1147
   1.8977E+01   1.9439E+01   3.3353E-07  0.1140
   1.9439E+01   1.9912E+01   2.2412E-07  0.1374
   1.9912E+01   2.0396E+01   2.5595E-07  0.1270
   2.0396E+01   2.0893E+01   1.6927E-07  0.1543
   2.0893E+01   2.1401E+01   1.7311E-07  0.1508
   2.1401E+01   2.1922E+01   8.0660E-08  0.2182
   2.1922E+01   2.2455E+01   6.7495E-08  0.2357
   2.2455E+01   2.3001E+01   6.5892E-08  0.2357
   2.3001E+01   2.3561E+01   2.1442E-08  0.4082
   2.3561E+01   2.4134E+01   2.7911E-08  0.3536
   2.4134E+01   2.4721E+01   0.0000E+00  0.0000
   2.4721E+01   2.5323E+01   9.9752E-09  0.5774
   2.5323E+01   2.5939E+01   6.4922E-09  0.7071
   2.5939E+01   2.6570E+01   3.1690E-09  1.0000
   2.6570E+01   2.7217E+01   3.0937E-09  1.0000
   2.7217E+01   2.7879E+01   0.0000E+00  0.0000
   2.7879E+01   2.8557E+01   0.0000E+00  0.0000
   2.8557E+01   2.9252E+01   2.8784E-09  1.0000
   2.9252E+01   2.9964E+01   0.0000E+00  0.0000
   2.9964E+01   3.0693E+01   0.0000E+00  0.0000
   3.0693E+01   3.1440E+01   0.0000E+00  0.0000
   3.1440E+01   3.2205E+01   0.0000E+00  0.0000
   3.2205E+01   3.2988E+01   0.0000E+00  0.0000
   3.2988E+01   3.3791E+01   0.0000E+00  0.0000
   3.3791E+01   3.4613E+01   0.0000E+00  0.0000
   3.4613E+01   3.5455E+01   0.0000E+00  0.0000
   3.5455E+01   3.6318E+01   0.0000E+00  0.0000
   3.6318E+01   3.7201E+01   0.0000E+00  0.0000
   3.7201E+01   3.8106E+01   0.0000E+00  0.0000
   3.8106E+01   3.9034E+01   0.0000E+00  0.0000
   3.9034E+01   3.9983E+01   0.0000E+00  0.0000
   3.9983E+01   4.0956E+01   0.0000E+00  0.0000
   4.0956E+01   4.1953E+01   0.0000E+00  0.0000
   4.1953E+01   4.2973E+01   0.0000E+00  0.0000
   4.2973E+01   4.4019E+01   0.0000E+00  0.0000
   4.4019E+01   4.5090E+01   0.0000E+00  0.0000
   4.5090E+01   4.6187E+01   0.0000E+00  0.0000
   4.6187E+01   4.7311E+01   0.0000E+00  0.0000
   4.7311E+01   4.8462E+01   0.0000E+00  0.0000
   4.8462E+01   4.9641E+01   0.0000E+00  0.0000
   4.9641E+01   5.0849E+01   0.0000E+00  0.0000
   5.0849E+01   5.2086E+01   0.0000E+00  0.0000
   5.2086E+01   5.3353E+01   0.0000E+00  0.0000
   5.3353E+01   5.4651E+01   0.0000E+00  0.0000
   5.4651E+01   5.5981E+01   0.0000E+00  0.0000
   5.5981E+01   5.7343E+01   0.0000E+00  0.0000
   5.7343E+01   5.8738E+01   0.0000E+00  0.0000
   5.8738E+01   6.0168E+01   0.0000E+00  0.0000
   6.0168E+01   6.1632E+01   0.0000E+00  0.0000
   6.1632E+01   6.3131E+01   0.0000E+00  0.0000
   6.3131E+01   6.4667E+01   0.0000E+00  0.0000
   6.4667E+01   6.6240E+01   0.0000E+00  0.0000
   6.6240E+01   6.7852E+01   0.0000E+00  0.0000
   6.7852E+01   6.9503E+01   0.0000E+00  0.0000
   6.9503E+01   7.1194E+01   0.0000E+00  0.0000
   7.1194E+01   7.2926E+01   0.0000E+00  0.0000
   7.2926E+01   7.4701E+01   0.0000E+00  0.0000
   7.4701E+01   7.6518E+01   0.0000E+00  0.0000
   7.6518E+01   7.8380E+01   0.0000E+00  0.0000
   7.8380E+01   8.0287E+01   0.0000E+00  0.0000
   8.0287E+01   8.2240E+01   0.0000E+00  0.0000
   8.2240E+01   8.4241E+01   0.0000E+00  0.0000
   8.4241E+01   8.6291E+01   0.0000E+00  0.0000
   8.6291E+01   8.8391E+01   0.0000E+00  0.0000
   8.8391E+01   9.0541E+01   0.0000E+00  0.0000
   9.0541E+01   9.2744E+01   0.0000E+00  0.0000
   9.2744E+01   9.5001E+01   0.0000E+00  0.0000
   9.5001E+01   9.7312E+01   0.0000E+00  0.0000
   9.7312E+01   9.9680E+01   0.0000E+00  0.0000
   9.9680E+01   1.0211E+02   0.0000E+00  0.0000
   1.0211E+02   1.0459E+02   0.0000E+00  0.0000
   1.0459E+02   1.0713E+02   0.0000E+00  0.0000
   1.0713E+02   1.0974E+02   0.0000E+00  0.0000
   1.0974E+02   1.1241E+02   0.0000E+00  0.0000
   1.1241E+02   1.1515E+02   0.0000E+00  0.0000
   1.1515E+02   1.1795E+02   0.0000E+00  0.0000
   1.1795E+02   1.2082E+02   0.0000E+00  0.0000
   1.2082E+02   1.2376E+02   0.0000E+00  0.0000
   1.2376E+02   1.2677E+02   0.0000E+00  0.0000
   1.2677E+02   1.2985E+02   0.0000E+00  0.0000
   1.2985E+02   1.3301E+02   0.0000E+00  0.0000
   1.3301E+02   1.3625E+02   0.0000E+00  0.0000
   1.3625E+02   1.3956E+02   0.0000E+00  0.0000
   1.3956E+02   1.4296E+02   0.0000E+00  0.0000
   1.4296E+02   1.4644E+02   0.0000E+00  0.0000
   1.4644E+02   1.5000E+02   0.0000E+00  0.0000

#   sum over                 1.3126E-06
'no. =    1   reg = 121 - 221'
msuc: {\huge [t-cross] in region mesh}
msdr: {\it plotted by \ANGEL \version}
msdl: {\it calculated by \PHITS  3.26}
wt: s(0.7)
\vspace{-3}
  region surface crossing
  area  &=&   1.0000E+00 [cm^2]
e:
 
# Information for Restart Calculation
# This calculation was newly started
# istdev =  2 # 1:Batch variance, 2:History variance
# resc2  = 5.00000000000000000E+08 # Total source weight or Total source weight / maxcas
# resc3  = 5.00000000000000000E+08 # Total history number or Total batch number
# maxcas =   500000000 # History / Batch, only used for istdev=1
# bitrseed = 1101101111010011011000101101110001100110110010110001010100010001 # bit data of rseed
