[ T-Cross ]
    title = [t-cross] in region mesh
     mesh =  reg            # mesh type is region-wise
      reg =    1            # number of crossing regions
      non     r-from    r-to       area
      1       118       218        1.000000    
   e-type =    3            # e-mesh is log given by emin, emax and ne
     emin =  1.0000000E-02  # minimum value of e-mesh points
     emax =   150.0000      # maximum value of e-mesh points
#    edel =  2.4039514E-02  # mesh width of e-mesh points
       ne =    400          # number of e-mesh points
#    data = ( e(i), i = 1, ne + 1 )
#           1.00000E-02  1.02433E-02  1.04925E-02  1.07478E-02  1.10093E-02
#           1.12772E-02  1.15516E-02  1.18326E-02  1.21205E-02  1.24154E-02
#           1.27175E-02  1.30269E-02  1.33439E-02  1.36686E-02  1.40011E-02
#           1.43418E-02  1.46907E-02  1.50482E-02  1.54143E-02  1.57894E-02
#           1.61735E-02  1.65670E-02  1.69701E-02  1.73830E-02  1.78060E-02
#           1.82392E-02  1.86830E-02  1.91375E-02  1.96032E-02  2.00801E-02
#           2.05687E-02  2.10692E-02  2.15818E-02  2.21069E-02  2.26448E-02
#           2.31957E-02  2.37601E-02  2.43382E-02  2.49304E-02  2.55369E-02
#           2.61583E-02  2.67947E-02  2.74467E-02  2.81145E-02  2.87985E-02
#           2.94992E-02  3.02169E-02  3.09521E-02  3.17052E-02  3.24766E-02
#           3.32668E-02  3.40762E-02  3.49053E-02  3.57546E-02  3.66246E-02
#           3.75157E-02  3.84284E-02  3.93634E-02  4.03212E-02  4.13022E-02
#           4.23071E-02  4.33365E-02  4.43909E-02  4.54710E-02  4.65773E-02
#           4.77106E-02  4.88714E-02  5.00605E-02  5.12785E-02  5.25262E-02
#           5.38042E-02  5.51133E-02  5.64542E-02  5.78278E-02  5.92348E-02
#           6.06760E-02  6.21523E-02  6.36645E-02  6.52135E-02  6.68002E-02
#           6.84255E-02  7.00904E-02  7.17957E-02  7.35426E-02  7.53319E-02
#           7.71648E-02  7.90423E-02  8.09655E-02  8.29354E-02  8.49533E-02
#           8.70203E-02  8.91376E-02  9.13064E-02  9.35279E-02  9.58035E-02
#           9.81345E-02  1.00522E-01  1.02968E-01  1.05473E-01  1.08040E-01
#           1.10668E-01  1.13361E-01  1.16119E-01  1.18944E-01  1.21838E-01
#           1.24803E-01  1.27839E-01  1.30950E-01  1.34136E-01  1.37399E-01
#           1.40742E-01  1.44167E-01  1.47675E-01  1.51268E-01  1.54948E-01
#           1.58718E-01  1.62580E-01  1.66535E-01  1.70587E-01  1.74738E-01
#           1.78989E-01  1.83344E-01  1.87805E-01  1.92375E-01  1.97055E-01
#           2.01850E-01  2.06761E-01  2.11792E-01  2.16945E-01  2.22223E-01
#           2.27630E-01  2.33169E-01  2.38842E-01  2.44653E-01  2.50605E-01
#           2.56703E-01  2.62949E-01  2.69346E-01  2.75900E-01  2.82613E-01
#           2.89489E-01  2.96532E-01  3.03747E-01  3.11138E-01  3.18708E-01
#           3.26462E-01  3.34405E-01  3.42542E-01  3.50876E-01  3.59413E-01
#           3.68158E-01  3.77116E-01  3.86291E-01  3.95690E-01  4.05317E-01
#           4.15179E-01  4.25281E-01  4.35628E-01  4.46227E-01  4.57084E-01
#           4.68205E-01  4.79597E-01  4.91266E-01  5.03219E-01  5.15463E-01
#           5.28005E-01  5.40851E-01  5.54011E-01  5.67490E-01  5.81298E-01
#           5.95441E-01  6.09929E-01  6.24769E-01  6.39970E-01  6.55541E-01
#           6.71491E-01  6.87828E-01  7.04564E-01  7.21706E-01  7.39266E-01
#           7.57253E-01  7.75678E-01  7.94551E-01  8.13883E-01  8.33685E-01
#           8.53969E-01  8.74747E-01  8.96030E-01  9.17831E-01  9.40163E-01
#           9.63038E-01  9.86469E-01  1.01047E+00  1.03506E+00  1.06024E+00
#           1.08604E+00  1.11246E+00  1.13953E+00  1.16725E+00  1.19565E+00
#           1.22474E+00  1.25454E+00  1.28507E+00  1.31633E+00  1.34836E+00
#           1.38117E+00  1.41477E+00  1.44920E+00  1.48446E+00  1.52057E+00
#           1.55757E+00  1.59547E+00  1.63429E+00  1.67405E+00  1.71478E+00
#           1.75650E+00  1.79924E+00  1.84302E+00  1.88786E+00  1.93379E+00
#           1.98084E+00  2.02904E+00  2.07841E+00  2.12898E+00  2.18078E+00
#           2.23384E+00  2.28819E+00  2.34386E+00  2.40089E+00  2.45930E+00
#           2.51914E+00  2.58043E+00  2.64322E+00  2.70753E+00  2.77341E+00
#           2.84088E+00  2.91001E+00  2.98081E+00  3.05333E+00  3.12762E+00
#           3.20372E+00  3.28167E+00  3.36152E+00  3.44330E+00  3.52708E+00
#           3.61290E+00  3.70080E+00  3.79085E+00  3.88308E+00  3.97756E+00
#           4.07434E+00  4.17347E+00  4.27501E+00  4.37903E+00  4.48557E+00
#           4.59471E+00  4.70650E+00  4.82102E+00  4.93832E+00  5.05847E+00
#           5.18155E+00  5.30762E+00  5.43676E+00  5.56904E+00  5.70453E+00
#           5.84333E+00  5.98550E+00  6.13114E+00  6.28031E+00  6.43312E+00
#           6.58964E+00  6.74997E+00  6.91420E+00  7.08243E+00  7.25475E+00
#           7.43126E+00  7.61207E+00  7.79728E+00  7.98700E+00  8.18133E+00
#           8.38038E+00  8.58428E+00  8.79315E+00  9.00709E+00  9.22624E+00
#           9.45072E+00  9.68067E+00  9.91620E+00  1.01575E+01  1.04046E+01
#           1.06578E+01  1.09171E+01  1.11827E+01  1.14548E+01  1.17335E+01
#           1.20190E+01  1.23114E+01  1.26109E+01  1.29178E+01  1.32321E+01
#           1.35540E+01  1.38838E+01  1.42216E+01  1.45676E+01  1.49221E+01
#           1.52851E+01  1.56570E+01  1.60380E+01  1.64282E+01  1.68279E+01
#           1.72374E+01  1.76568E+01  1.80864E+01  1.85264E+01  1.89772E+01
#           1.94389E+01  1.99119E+01  2.03963E+01  2.08926E+01  2.14009E+01
#           2.19216E+01  2.24550E+01  2.30014E+01  2.35610E+01  2.41343E+01
#           2.47215E+01  2.53230E+01  2.59391E+01  2.65702E+01  2.72167E+01
#           2.78789E+01  2.85572E+01  2.92520E+01  2.99637E+01  3.06928E+01
#           3.14396E+01  3.22045E+01  3.29881E+01  3.37907E+01  3.46128E+01
#           3.54550E+01  3.63177E+01  3.72013E+01  3.81064E+01  3.90336E+01
#           3.99833E+01  4.09561E+01  4.19526E+01  4.29734E+01  4.40189E+01
#           4.50900E+01  4.61870E+01  4.73108E+01  4.84619E+01  4.96410E+01
#           5.08488E+01  5.20860E+01  5.33533E+01  5.46514E+01  5.59812E+01
#           5.73432E+01  5.87384E+01  6.01676E+01  6.16315E+01  6.31311E+01
#           6.46671E+01  6.62405E+01  6.78522E+01  6.95031E+01  7.11941E+01
#           7.29263E+01  7.47007E+01  7.65182E+01  7.83800E+01  8.02870E+01
#           8.22405E+01  8.42414E+01  8.62911E+01  8.83906E+01  9.05412E+01
#           9.27442E+01  9.50007E+01  9.73122E+01  9.96799E+01  1.02105E+02
#           1.04589E+02  1.07134E+02  1.09741E+02  1.12411E+02  1.15146E+02
#           1.17948E+02  1.20817E+02  1.23757E+02  1.26768E+02  1.29852E+02
#           1.33012E+02  1.36248E+02  1.39563E+02  1.42959E+02  1.46437E+02
#           1.50000E+02
     unit =    2            # unit is [1/cm^2/(MeV/n)/source]
     axis =  eng            # axis of output
     file = detector-19.out  # file name of output for the above axis
   output = f-curr          # surface crossing forward current spectrum
     part =  neutron  
# kf/name :  2112     
#    used :        main (  %)        temp (  %)       total (  %)
#  memory :         414 (  0)           0 (  0)         414 (  0)

#------------------------------------------------------------------------------
#newpage:
#   no. =    1   reg = 118 - 218

x: Energy [MeV/n]
y:  F-Curr [1/cm^2/(MeV/n)/source]         
p: xlog ylog afac(0.8) form(0.9)
h: n            x            y(neutron ),hh0l   n 
#  e-lower      e-upper      neutron     r.err 
   1.0000E-02   1.0243E-02   1.9662E-03  0.0646
   1.0243E-02   1.0493E-02   1.9895E-03  0.0634
   1.0493E-02   1.0748E-02   2.2420E-03  0.0590
   1.0748E-02   1.1009E-02   2.1808E-03  0.0591
   1.1009E-02   1.1277E-02   1.9568E-03  0.0617
   1.1277E-02   1.1552E-02   1.9508E-03  0.0610
   1.1552E-02   1.1833E-02   1.9581E-03  0.0602
   1.1833E-02   1.2121E-02   1.9231E-03  0.0600
   1.2121E-02   1.2415E-02   1.8727E-03  0.0602
   1.2415E-02   1.2718E-02   1.7861E-03  0.0608
   1.2718E-02   1.3027E-02   1.9544E-03  0.0574
   1.3027E-02   1.3344E-02   1.7674E-03  0.0596
   1.3344E-02   1.3669E-02   1.6047E-03  0.0619
   1.3669E-02   1.4001E-02   1.7766E-03  0.0581
   1.4001E-02   1.4342E-02   1.7405E-03  0.0579
   1.4342E-02   1.4691E-02   1.7262E-03  0.0576
   1.4691E-02   1.5048E-02   1.5469E-03  0.0600
   1.5048E-02   1.5414E-02   1.4774E-03  0.0607
   1.5414E-02   1.5789E-02   1.7145E-03  0.0557
   1.5789E-02   1.6174E-02   1.6042E-03  0.0569
   1.6174E-02   1.6567E-02   1.4549E-03  0.0590
   1.6567E-02   1.6970E-02   1.5777E-03  0.0560
   1.6970E-02   1.7383E-02   1.5765E-03  0.0554
   1.7383E-02   1.7806E-02   1.4462E-03  0.0571
   1.7806E-02   1.8239E-02   1.4744E-03  0.0559
   1.8239E-02   1.8683E-02   1.4668E-03  0.0554
   1.8683E-02   1.9138E-02   1.6149E-03  0.0521
   1.9138E-02   1.9603E-02   1.3630E-03  0.0560
   1.9603E-02   2.0080E-02   1.2842E-03  0.0570
   2.0080E-02   2.0569E-02   1.3324E-03  0.0554
   2.0569E-02   2.1069E-02   1.3580E-03  0.0542
   2.1069E-02   2.1582E-02   1.3218E-03  0.0542
   2.1582E-02   2.2107E-02   1.3070E-03  0.0539
   2.2107E-02   2.2645E-02   1.3580E-03  0.0522
   2.2645E-02   2.3196E-02   1.2194E-03  0.0545
   2.3196E-02   2.3760E-02   1.2390E-03  0.0534
   2.3760E-02   2.4338E-02   1.3548E-03  0.0504
   2.4338E-02   2.4930E-02   1.1606E-03  0.0539
   2.4930E-02   2.5537E-02   1.2536E-03  0.0512
   2.5537E-02   2.6158E-02   1.2032E-03  0.0517
   2.6158E-02   2.6795E-02   1.1617E-03  0.0519
   2.6795E-02   2.7447E-02   1.2127E-03  0.0502
   2.7447E-02   2.8114E-02   1.1490E-03  0.0510
   2.8114E-02   2.8799E-02   1.1898E-03  0.0495
   2.8799E-02   2.9499E-02   9.7382E-04  0.0541
   2.9499E-02   3.0217E-02   1.2268E-03  0.0476
   3.0217E-02   3.0952E-02   1.0059E-03  0.0519
   3.0952E-02   3.1705E-02   1.0148E-03  0.0511
   3.1705E-02   3.2477E-02   1.0676E-03  0.0492
   3.2477E-02   3.3267E-02   1.0790E-03  0.0484
   3.3267E-02   3.4076E-02   1.1077E-03  0.0471
   3.4076E-02   3.4905E-02   9.9540E-04  0.0492
   3.4905E-02   3.5755E-02   1.0483E-03  0.0473
   3.5755E-02   3.6625E-02   1.0334E-03  0.0471
   3.6625E-02   3.7516E-02   9.4227E-04  0.0487
   3.7516E-02   3.8428E-02   1.0263E-03  0.0461
   3.8428E-02   3.9363E-02   9.5167E-04  0.0473
   3.9363E-02   4.0321E-02   9.5916E-04  0.0466
   4.0321E-02   4.1302E-02   1.0001E-03  0.0451
   4.1302E-02   4.2307E-02   9.2786E-04  0.0462
   4.2307E-02   4.3337E-02   8.9182E-04  0.0466
   4.3337E-02   4.4391E-02   8.9572E-04  0.0460
   4.4391E-02   4.5471E-02   8.5762E-04  0.0464
   4.5471E-02   4.6577E-02   8.1708E-04  0.0470
   4.6577E-02   4.7711E-02   9.3644E-04  0.0434
   4.7711E-02   4.8871E-02   7.6143E-04  0.0475
   4.8871E-02   5.0061E-02   7.8951E-04  0.0461
   5.0061E-02   5.1279E-02   8.5822E-04  0.0437
   5.1279E-02   5.2526E-02   7.8372E-04  0.0452
   5.2526E-02   5.3804E-02   8.2805E-04  0.0434
   5.3804E-02   5.5113E-02   7.1816E-04  0.0461
   5.5113E-02   5.6454E-02   7.6740E-04  0.0440
   5.6454E-02   5.7828E-02   6.9643E-04  0.0457
   5.7828E-02   5.9235E-02   7.4927E-04  0.0435
   5.9235E-02   6.0676E-02   7.2039E-04  0.0438
   6.0676E-02   6.2152E-02   7.0517E-04  0.0437
   6.2152E-02   6.3665E-02   7.1124E-04  0.0431
   6.3665E-02   6.5214E-02   7.3328E-04  0.0419
   6.5214E-02   6.6800E-02   7.1067E-04  0.0420
   6.6800E-02   6.8426E-02   6.5460E-04  0.0433
   6.8426E-02   7.0090E-02   6.9492E-04  0.0415
   7.0090E-02   7.1796E-02   6.5793E-04  0.0422
   7.1796E-02   7.3543E-02   6.3598E-04  0.0424
   7.3543E-02   7.5332E-02   6.6366E-04  0.0410
   7.5332E-02   7.7165E-02   6.1814E-04  0.0420
   7.7165E-02   7.9042E-02   6.3949E-04  0.0408
   7.9042E-02   8.0965E-02   6.3552E-04  0.0404
   8.0965E-02   8.2935E-02   5.4919E-04  0.0429
   8.2935E-02   8.4953E-02   6.0043E-04  0.0405
   8.4953E-02   8.7020E-02   5.7311E-04  0.0411
   8.7020E-02   8.9138E-02   5.8663E-04  0.0401
   8.9138E-02   9.1306E-02   5.9215E-04  0.0394
   9.1306E-02   9.3528E-02   5.7204E-04  0.0396
   9.3528E-02   9.5804E-02   5.4231E-04  0.0402
   9.5804E-02   9.8134E-02   5.6580E-04  0.0389
   9.8134E-02   1.0052E-01   5.5830E-04  0.0387
   1.0052E-01   1.0297E-01   5.2862E-04  0.0393
   1.0297E-01   1.0547E-01   5.2833E-04  0.0389
   1.0547E-01   1.0804E-01   4.9652E-04  0.0396
   1.0804E-01   1.1067E-01   5.0313E-04  0.0388
   1.1067E-01   1.1336E-01   5.0188E-04  0.0384
   1.1336E-01   1.1612E-01   4.6982E-04  0.0392
   1.1612E-01   1.1894E-01   4.4538E-04  0.0398
   1.1894E-01   1.2184E-01   4.5160E-04  0.0391
   1.2184E-01   1.2480E-01   4.6381E-04  0.0381
   1.2480E-01   1.2784E-01   4.5608E-04  0.0379
   1.2784E-01   1.3095E-01   3.9059E-04  0.0405
   1.3095E-01   1.3414E-01   4.2841E-04  0.0382
   1.3414E-01   1.3740E-01   4.2262E-04  0.0380
   1.3740E-01   1.4074E-01   4.1029E-04  0.0382
   1.4074E-01   1.4417E-01   4.0307E-04  0.0380
   1.4417E-01   1.4767E-01   3.9054E-04  0.0382
   1.4767E-01   1.5127E-01   3.9508E-04  0.0375
   1.5127E-01   1.5495E-01   3.7517E-04  0.0380
   1.5495E-01   1.5872E-01   3.6413E-04  0.0381
   1.5872E-01   1.6258E-01   3.5068E-04  0.0384
   1.6258E-01   1.6654E-01   3.7585E-04  0.0367
   1.6654E-01   1.7059E-01   3.4614E-04  0.0377
   1.7059E-01   1.7474E-01   3.4040E-04  0.0376
   1.7474E-01   1.7899E-01   3.3025E-04  0.0377
   1.7899E-01   1.8334E-01   3.1452E-04  0.0382
   1.8334E-01   1.8781E-01   3.2551E-04  0.0371
   1.8781E-01   1.9237E-01   2.9238E-04  0.0386
   1.9237E-01   1.9706E-01   2.8949E-04  0.0383
   1.9706E-01   2.0185E-01   2.9585E-04  0.0375
   2.0185E-01   2.0676E-01   2.8320E-04  0.0379
   2.0676E-01   2.1179E-01   3.1829E-04  0.0353
   2.1179E-01   2.1694E-01   3.2572E-04  0.0345
   2.1694E-01   2.2222E-01   3.0326E-04  0.0353
   2.2222E-01   2.2763E-01   3.2337E-04  0.0338
   2.2763E-01   2.3317E-01   3.2237E-04  0.0334
   2.3317E-01   2.3884E-01   3.2655E-04  0.0328
   2.3884E-01   2.4465E-01   3.3023E-04  0.0322
   2.4465E-01   2.5061E-01   3.3646E-04  0.0316
   2.5061E-01   2.5670E-01   3.4844E-04  0.0306
   2.5670E-01   2.6295E-01   3.6062E-04  0.0298
   2.6295E-01   2.6935E-01   3.6562E-04  0.0292
   2.6935E-01   2.7590E-01   3.4640E-04  0.0296
   2.7590E-01   2.8261E-01   3.6426E-04  0.0286
   2.8261E-01   2.8949E-01   3.6077E-04  0.0283
   2.8949E-01   2.9653E-01   3.5832E-04  0.0281
   2.9653E-01   3.0375E-01   3.8524E-04  0.0268
   3.0375E-01   3.1114E-01   3.7922E-04  0.0267
   3.1114E-01   3.1871E-01   3.7802E-04  0.0264
   3.1871E-01   3.2646E-01   3.7477E-04  0.0262
   3.2646E-01   3.3441E-01   3.8249E-04  0.0256
   3.3441E-01   3.4254E-01   3.8223E-04  0.0253
   3.4254E-01   3.5088E-01   3.8957E-04  0.0248
   3.5088E-01   3.5941E-01   3.7949E-04  0.0248
   3.5941E-01   3.6816E-01   4.1323E-04  0.0235
   3.6816E-01   3.7712E-01   3.9862E-04  0.0236
   3.7712E-01   3.8629E-01   4.0847E-04  0.0230
   3.8629E-01   3.9569E-01   4.1388E-04  0.0226
   3.9569E-01   4.0532E-01   4.0701E-04  0.0225
   4.0532E-01   4.1518E-01   4.1107E-04  0.0222
   4.1518E-01   4.2528E-01   4.0897E-04  0.0220
   4.2528E-01   4.3563E-01   4.2413E-04  0.0213
   4.3563E-01   4.4623E-01   4.2198E-04  0.0211
   4.4623E-01   4.5708E-01   4.0771E-04  0.0212
   4.5708E-01   4.6821E-01   4.3756E-04  0.0202
   4.6821E-01   4.7960E-01   4.2635E-04  0.0203
   4.7960E-01   4.9127E-01   4.3461E-04  0.0198
   4.9127E-01   5.0322E-01   4.3871E-04  0.0195
   5.0322E-01   5.1546E-01   4.4566E-04  0.0191
   5.1546E-01   5.2800E-01   4.2564E-04  0.0193
   5.2800E-01   5.4085E-01   4.2952E-04  0.0190
   5.4085E-01   5.5401E-01   4.3949E-04  0.0186
   5.5401E-01   5.6749E-01   4.3875E-04  0.0183
   5.6749E-01   5.8130E-01   4.2473E-04  0.0184
   5.8130E-01   5.9544E-01   4.3614E-04  0.0180
   5.9544E-01   6.0993E-01   4.2995E-04  0.0179
   6.0993E-01   6.2477E-01   4.2818E-04  0.0177
   6.2477E-01   6.3997E-01   4.2052E-04  0.0176
   6.3997E-01   6.5554E-01   4.2915E-04  0.0173
   6.5554E-01   6.7149E-01   4.2548E-04  0.0171
   6.7149E-01   6.8783E-01   4.2580E-04  0.0169
   6.8783E-01   7.0456E-01   4.2963E-04  0.0166
   7.0456E-01   7.2171E-01   4.2755E-04  0.0165
   7.2171E-01   7.3927E-01   4.2096E-04  0.0164
   7.3927E-01   7.5725E-01   4.1463E-04  0.0163
   7.5725E-01   7.7568E-01   4.1780E-04  0.0161
   7.7568E-01   7.9455E-01   4.2166E-04  0.0158
   7.9455E-01   8.1388E-01   4.1164E-04  0.0158
   8.1388E-01   8.3368E-01   4.0276E-04  0.0158
   8.3368E-01   8.5397E-01   4.0215E-04  0.0156
   8.5397E-01   8.7475E-01   3.9769E-04  0.0155
   8.7475E-01   8.9603E-01   3.8819E-04  0.0155
   8.9603E-01   9.1783E-01   3.7584E-04  0.0156
   9.1783E-01   9.4016E-01   3.7956E-04  0.0153
   9.4016E-01   9.6304E-01   3.6809E-04  0.0154
   9.6304E-01   9.8647E-01   3.4702E-04  0.0156
   9.8647E-01   1.0105E+00   3.3651E-04  0.0157
   1.0105E+00   1.0351E+00   3.2774E-04  0.0157
   1.0351E+00   1.0602E+00   3.3322E-04  0.0154
   1.0602E+00   1.0860E+00   3.2675E-04  0.0154
   1.0860E+00   1.1125E+00   3.2770E-04  0.0152
   1.1125E+00   1.1395E+00   3.1223E-04  0.0153
   1.1395E+00   1.1673E+00   3.1657E-04  0.0150
   1.1673E+00   1.1957E+00   3.0900E-04  0.0150
   1.1957E+00   1.2247E+00   2.9331E-04  0.0153
   1.2247E+00   1.2545E+00   2.9729E-04  0.0150
   1.2545E+00   1.2851E+00   2.9161E-04  0.0149
   1.2851E+00   1.3163E+00   2.8673E-04  0.0149
   1.3163E+00   1.3484E+00   2.8569E-04  0.0147
   1.3484E+00   1.3812E+00   2.7051E-04  0.0150
   1.3812E+00   1.4148E+00   2.7281E-04  0.0147
   1.4148E+00   1.4492E+00   2.6087E-04  0.0149
   1.4492E+00   1.4845E+00   2.5739E-04  0.0148
   1.4845E+00   1.5206E+00   2.4609E-04  0.0149
   1.5206E+00   1.5576E+00   2.4250E-04  0.0149
   1.5576E+00   1.5955E+00   2.3434E-04  0.0149
   1.5955E+00   1.6343E+00   2.2980E-04  0.0149
   1.6343E+00   1.6741E+00   2.2431E-04  0.0149
   1.6741E+00   1.7148E+00   2.1741E-04  0.0150
   1.7148E+00   1.7565E+00   2.1722E-04  0.0148
   1.7565E+00   1.7992E+00   2.1421E-04  0.0147
   1.7992E+00   1.8430E+00   2.0300E-04  0.0149
   1.8430E+00   1.8879E+00   1.9886E-04  0.0149
   1.8879E+00   1.9338E+00   1.9823E-04  0.0148
   1.9338E+00   1.9808E+00   1.9347E-04  0.0148
   1.9808E+00   2.0290E+00   1.8603E-04  0.0149
   2.0290E+00   2.0784E+00   1.8706E-04  0.0147
   2.0784E+00   2.1290E+00   1.7837E-04  0.0148
   2.1290E+00   2.1808E+00   1.7149E-04  0.0149
   2.1808E+00   2.2338E+00   1.6972E-04  0.0148
   2.2338E+00   2.2882E+00   1.5951E-04  0.0151
   2.2882E+00   2.3439E+00   1.6067E-04  0.0149
   2.3439E+00   2.4009E+00   1.5478E-04  0.0150
   2.4009E+00   2.4593E+00   1.4937E-04  0.0151
   2.4593E+00   2.5191E+00   1.4897E-04  0.0149
   2.5191E+00   2.5804E+00   1.4207E-04  0.0151
   2.5804E+00   2.6432E+00   1.3974E-04  0.0150
   2.6432E+00   2.7075E+00   1.3673E-04  0.0150
   2.7075E+00   2.7734E+00   1.3083E-04  0.0152
   2.7734E+00   2.8409E+00   1.2798E-04  0.0151
   2.8409E+00   2.9100E+00   1.2225E-04  0.0153
   2.9100E+00   2.9808E+00   1.2078E-04  0.0152
   2.9808E+00   3.0533E+00   1.1537E-04  0.0154
   3.0533E+00   3.1276E+00   1.1823E-04  0.0150
   3.1276E+00   3.2037E+00   1.0696E-04  0.0156
   3.2037E+00   3.2817E+00   1.0219E-04  0.0158
   3.2817E+00   3.3615E+00   9.7471E-05  0.0160
   3.3615E+00   3.4433E+00   9.3079E-05  0.0161
   3.4433E+00   3.5271E+00   9.0450E-05  0.0162
   3.5271E+00   3.6129E+00   8.5933E-05  0.0164
   3.6129E+00   3.7008E+00   8.3627E-05  0.0164
   3.7008E+00   3.7908E+00   7.8041E-05  0.0168
   3.7908E+00   3.8831E+00   7.9606E-05  0.0164
   3.8831E+00   3.9776E+00   7.5999E-05  0.0166
   3.9776E+00   4.0743E+00   7.2822E-05  0.0168
   4.0743E+00   4.1735E+00   7.2356E-05  0.0166
   4.1735E+00   4.2750E+00   6.6640E-05  0.0171
   4.2750E+00   4.3790E+00   6.2751E-05  0.0174
   4.3790E+00   4.4856E+00   6.2625E-05  0.0172
   4.4856E+00   4.5947E+00   5.8163E-05  0.0177
   4.5947E+00   4.7065E+00   5.7458E-05  0.0176
   4.7065E+00   4.8210E+00   5.4689E-05  0.0178
   4.8210E+00   4.9383E+00   5.3087E-05  0.0178
   4.9383E+00   5.0585E+00   4.9152E-05  0.0183
   5.0585E+00   5.1815E+00   4.6460E-05  0.0186
   5.1815E+00   5.3076E+00   4.5625E-05  0.0186
   5.3076E+00   5.4368E+00   4.3661E-05  0.0188
   5.4368E+00   5.5690E+00   4.1333E-05  0.0191
   5.5690E+00   5.7045E+00   3.9690E-05  0.0192
   5.7045E+00   5.8433E+00   3.6700E-05  0.0198
   5.8433E+00   5.9855E+00   3.4851E-05  0.0200
   5.9855E+00   6.1311E+00   3.3797E-05  0.0201
   6.1311E+00   6.2803E+00   3.0759E-05  0.0208
   6.2803E+00   6.4331E+00   2.9780E-05  0.0209
   6.4331E+00   6.5896E+00   2.9086E-05  0.0209
   6.5896E+00   6.7500E+00   2.6545E-05  0.0216
   6.7500E+00   6.9142E+00   2.4737E-05  0.0221
   6.9142E+00   7.0824E+00   2.3142E-05  0.0226
   7.0824E+00   7.2548E+00   2.1853E-05  0.0230
   7.2548E+00   7.4313E+00   2.1440E-05  0.0229
   7.4313E+00   7.6121E+00   1.9592E-05  0.0237
   7.6121E+00   7.7973E+00   1.8022E-05  0.0244
   7.7973E+00   7.9870E+00   1.6641E-05  0.0251
   7.9870E+00   8.1813E+00   1.6573E-05  0.0249
   8.1813E+00   8.3804E+00   1.5833E-05  0.0251
   8.3804E+00   8.5843E+00   1.5096E-05  0.0254
   8.5843E+00   8.7931E+00   1.4912E-05  0.0253
   8.7931E+00   9.0071E+00   1.3710E-05  0.0261
   9.0071E+00   9.2262E+00   1.2775E-05  0.0267
   9.2262E+00   9.4507E+00   1.2308E-05  0.0269
   9.4507E+00   9.6807E+00   1.1936E-05  0.0270
   9.6807E+00   9.9162E+00   1.1238E-05  0.0274
   9.9162E+00   1.0157E+01   1.0810E-05  0.0277
   1.0157E+01   1.0405E+01   1.0260E-05  0.0281
   1.0405E+01   1.0658E+01   1.0954E-05  0.0268
   1.0658E+01   1.0917E+01   1.1509E-05  0.0259
   1.0917E+01   1.1183E+01   1.0518E-05  0.0267
   1.1183E+01   1.1455E+01   9.8678E-06  0.0273
   1.1455E+01   1.1733E+01   9.5754E-06  0.0273
   1.1733E+01   1.2019E+01   8.8411E-06  0.0281
   1.2019E+01   1.2311E+01   8.2772E-06  0.0287
   1.2311E+01   1.2611E+01   7.9819E-06  0.0289
   1.2611E+01   1.2918E+01   7.1790E-06  0.0301
   1.2918E+01   1.3232E+01   7.1733E-06  0.0298
   1.3232E+01   1.3554E+01   6.8871E-06  0.0300
   1.3554E+01   1.3884E+01   6.8667E-06  0.0297
   1.3884E+01   1.4222E+01   5.9460E-06  0.0315
   1.4222E+01   1.4568E+01   5.7702E-06  0.0316
   1.4568E+01   1.4922E+01   5.2240E-06  0.0328
   1.4922E+01   1.5285E+01   5.1124E-06  0.0328
   1.5285E+01   1.5657E+01   4.5534E-06  0.0343
   1.5657E+01   1.6038E+01   4.2768E-06  0.0350
   1.6038E+01   1.6428E+01   4.0056E-06  0.0358
   1.6428E+01   1.6828E+01   3.7595E-06  0.0365
   1.6828E+01   1.7237E+01   3.4991E-06  0.0374
   1.7237E+01   1.7657E+01   3.3953E-06  0.0375
   1.7657E+01   1.8086E+01   3.1346E-06  0.0385
   1.8086E+01   1.8526E+01   3.0019E-06  0.0389
   1.8526E+01   1.8977E+01   2.6444E-06  0.0410
   1.8977E+01   1.9439E+01   2.5599E-06  0.0411
   1.9439E+01   1.9912E+01   2.3596E-06  0.0423
   1.9912E+01   2.0396E+01   1.9196E-06  0.0464
   2.0396E+01   2.0893E+01   1.7249E-06  0.0483
   2.0893E+01   2.1401E+01   1.4833E-06  0.0515
   2.1401E+01   2.1922E+01   1.1753E-06  0.0572
   2.1922E+01   2.2455E+01   1.1287E-06  0.0576
   2.2455E+01   2.3001E+01   8.6758E-07  0.0650
   2.3001E+01   2.3561E+01   6.7543E-07  0.0727
   2.3561E+01   2.4134E+01   4.7099E-07  0.0861
   2.4134E+01   2.4721E+01   3.7125E-07  0.0958
   2.4721E+01   2.5323E+01   1.8620E-07  0.1336
   2.5323E+01   2.5939E+01   1.0063E-07  0.1796
   2.5939E+01   2.6570E+01   4.4366E-08  0.2673
   2.6570E+01   2.7217E+01   2.7843E-08  0.3333
   2.7217E+01   2.7879E+01   2.7182E-08  0.3333
   2.7879E+01   2.8557E+01   2.3588E-08  0.3536
   2.8557E+01   2.9252E+01   1.7271E-08  0.4082
   2.9252E+01   2.9964E+01   8.4302E-09  0.5774
   2.9964E+01   3.0693E+01   5.4867E-09  0.7071
   3.0693E+01   3.1440E+01   0.0000E+00  0.0000
   3.1440E+01   3.2205E+01   0.0000E+00  0.0000
   3.2205E+01   3.2988E+01   0.0000E+00  0.0000
   3.2988E+01   3.3791E+01   0.0000E+00  0.0000
   3.3791E+01   3.4613E+01   0.0000E+00  0.0000
   3.4613E+01   3.5455E+01   0.0000E+00  0.0000
   3.5455E+01   3.6318E+01   0.0000E+00  0.0000
   3.6318E+01   3.7201E+01   0.0000E+00  0.0000
   3.7201E+01   3.8106E+01   0.0000E+00  0.0000
   3.8106E+01   3.9034E+01   0.0000E+00  0.0000
   3.9034E+01   3.9983E+01   0.0000E+00  0.0000
   3.9983E+01   4.0956E+01   0.0000E+00  0.0000
   4.0956E+01   4.1953E+01   0.0000E+00  0.0000
   4.1953E+01   4.2973E+01   0.0000E+00  0.0000
   4.2973E+01   4.4019E+01   0.0000E+00  0.0000
   4.4019E+01   4.5090E+01   0.0000E+00  0.0000
   4.5090E+01   4.6187E+01   0.0000E+00  0.0000
   4.6187E+01   4.7311E+01   0.0000E+00  0.0000
   4.7311E+01   4.8462E+01   0.0000E+00  0.0000
   4.8462E+01   4.9641E+01   0.0000E+00  0.0000
   4.9641E+01   5.0849E+01   0.0000E+00  0.0000
   5.0849E+01   5.2086E+01   0.0000E+00  0.0000
   5.2086E+01   5.3353E+01   0.0000E+00  0.0000
   5.3353E+01   5.4651E+01   0.0000E+00  0.0000
   5.4651E+01   5.5981E+01   0.0000E+00  0.0000
   5.5981E+01   5.7343E+01   0.0000E+00  0.0000
   5.7343E+01   5.8738E+01   0.0000E+00  0.0000
   5.8738E+01   6.0168E+01   0.0000E+00  0.0000
   6.0168E+01   6.1632E+01   0.0000E+00  0.0000
   6.1632E+01   6.3131E+01   0.0000E+00  0.0000
   6.3131E+01   6.4667E+01   0.0000E+00  0.0000
   6.4667E+01   6.6240E+01   0.0000E+00  0.0000
   6.6240E+01   6.7852E+01   0.0000E+00  0.0000
   6.7852E+01   6.9503E+01   0.0000E+00  0.0000
   6.9503E+01   7.1194E+01   0.0000E+00  0.0000
   7.1194E+01   7.2926E+01   0.0000E+00  0.0000
   7.2926E+01   7.4701E+01   0.0000E+00  0.0000
   7.4701E+01   7.6518E+01   0.0000E+00  0.0000
   7.6518E+01   7.8380E+01   0.0000E+00  0.0000
   7.8380E+01   8.0287E+01   0.0000E+00  0.0000
   8.0287E+01   8.2240E+01   0.0000E+00  0.0000
   8.2240E+01   8.4241E+01   0.0000E+00  0.0000
   8.4241E+01   8.6291E+01   0.0000E+00  0.0000
   8.6291E+01   8.8391E+01   0.0000E+00  0.0000
   8.8391E+01   9.0541E+01   0.0000E+00  0.0000
   9.0541E+01   9.2744E+01   0.0000E+00  0.0000
   9.2744E+01   9.5001E+01   0.0000E+00  0.0000
   9.5001E+01   9.7312E+01   0.0000E+00  0.0000
   9.7312E+01   9.9680E+01   0.0000E+00  0.0000
   9.9680E+01   1.0211E+02   0.0000E+00  0.0000
   1.0211E+02   1.0459E+02   0.0000E+00  0.0000
   1.0459E+02   1.0713E+02   0.0000E+00  0.0000
   1.0713E+02   1.0974E+02   0.0000E+00  0.0000
   1.0974E+02   1.1241E+02   0.0000E+00  0.0000
   1.1241E+02   1.1515E+02   0.0000E+00  0.0000
   1.1515E+02   1.1795E+02   0.0000E+00  0.0000
   1.1795E+02   1.2082E+02   0.0000E+00  0.0000
   1.2082E+02   1.2376E+02   0.0000E+00  0.0000
   1.2376E+02   1.2677E+02   0.0000E+00  0.0000
   1.2677E+02   1.2985E+02   0.0000E+00  0.0000
   1.2985E+02   1.3301E+02   0.0000E+00  0.0000
   1.3301E+02   1.3625E+02   0.0000E+00  0.0000
   1.3625E+02   1.3956E+02   0.0000E+00  0.0000
   1.3956E+02   1.4296E+02   0.0000E+00  0.0000
   1.4296E+02   1.4644E+02   0.0000E+00  0.0000
   1.4644E+02   1.5000E+02   0.0000E+00  0.0000

#   sum over                 7.8340E-06
'no. =    1   reg = 118 - 218'
msuc: {\huge [t-cross] in region mesh}
msdr: {\it plotted by \ANGEL \version}
msdl: {\it calculated by \PHITS  3.26}
wt: s(0.7)
\vspace{-3}
  region surface crossing
  area  &=&   1.0000E+00 [cm^2]
e:
 
# Information for Restart Calculation
# This calculation was newly started
# istdev =  2 # 1:Batch variance, 2:History variance
# resc2  = 5.00000000000000000E+08 # Total source weight or Total source weight / maxcas
# resc3  = 5.00000000000000000E+08 # Total history number or Total batch number
# maxcas =   500000000 # History / Batch, only used for istdev=1
# bitrseed = 1101101111010011011000101101110001100110110010110001010100010001 # bit data of rseed
