[ T-Cross ]
    title = [t-cross] in region mesh
     mesh =  reg            # mesh type is region-wise
      reg =    1            # number of crossing regions
      non     r-from    r-to       area
      1       121       221        1.000000    
   e-type =    3            # e-mesh is log given by emin, emax and ne
     emin =  1.0000000E-02  # minimum value of e-mesh points
     emax =   150.0000      # maximum value of e-mesh points
#    edel =  2.4039514E-02  # mesh width of e-mesh points
       ne =    400          # number of e-mesh points
#    data = ( e(i), i = 1, ne + 1 )
#           1.00000E-02  1.02433E-02  1.04925E-02  1.07478E-02  1.10093E-02
#           1.12772E-02  1.15516E-02  1.18326E-02  1.21205E-02  1.24154E-02
#           1.27175E-02  1.30269E-02  1.33439E-02  1.36686E-02  1.40011E-02
#           1.43418E-02  1.46907E-02  1.50482E-02  1.54143E-02  1.57894E-02
#           1.61735E-02  1.65670E-02  1.69701E-02  1.73830E-02  1.78060E-02
#           1.82392E-02  1.86830E-02  1.91375E-02  1.96032E-02  2.00801E-02
#           2.05687E-02  2.10692E-02  2.15818E-02  2.21069E-02  2.26448E-02
#           2.31957E-02  2.37601E-02  2.43382E-02  2.49304E-02  2.55369E-02
#           2.61583E-02  2.67947E-02  2.74467E-02  2.81145E-02  2.87985E-02
#           2.94992E-02  3.02169E-02  3.09521E-02  3.17052E-02  3.24766E-02
#           3.32668E-02  3.40762E-02  3.49053E-02  3.57546E-02  3.66246E-02
#           3.75157E-02  3.84284E-02  3.93634E-02  4.03212E-02  4.13022E-02
#           4.23071E-02  4.33365E-02  4.43909E-02  4.54710E-02  4.65773E-02
#           4.77106E-02  4.88714E-02  5.00605E-02  5.12785E-02  5.25262E-02
#           5.38042E-02  5.51133E-02  5.64542E-02  5.78278E-02  5.92348E-02
#           6.06760E-02  6.21523E-02  6.36645E-02  6.52135E-02  6.68002E-02
#           6.84255E-02  7.00904E-02  7.17957E-02  7.35426E-02  7.53319E-02
#           7.71648E-02  7.90423E-02  8.09655E-02  8.29354E-02  8.49533E-02
#           8.70203E-02  8.91376E-02  9.13064E-02  9.35279E-02  9.58035E-02
#           9.81345E-02  1.00522E-01  1.02968E-01  1.05473E-01  1.08040E-01
#           1.10668E-01  1.13361E-01  1.16119E-01  1.18944E-01  1.21838E-01
#           1.24803E-01  1.27839E-01  1.30950E-01  1.34136E-01  1.37399E-01
#           1.40742E-01  1.44167E-01  1.47675E-01  1.51268E-01  1.54948E-01
#           1.58718E-01  1.62580E-01  1.66535E-01  1.70587E-01  1.74738E-01
#           1.78989E-01  1.83344E-01  1.87805E-01  1.92375E-01  1.97055E-01
#           2.01850E-01  2.06761E-01  2.11792E-01  2.16945E-01  2.22223E-01
#           2.27630E-01  2.33169E-01  2.38842E-01  2.44653E-01  2.50605E-01
#           2.56703E-01  2.62949E-01  2.69346E-01  2.75900E-01  2.82613E-01
#           2.89489E-01  2.96532E-01  3.03747E-01  3.11138E-01  3.18708E-01
#           3.26462E-01  3.34405E-01  3.42542E-01  3.50876E-01  3.59413E-01
#           3.68158E-01  3.77116E-01  3.86291E-01  3.95690E-01  4.05317E-01
#           4.15179E-01  4.25281E-01  4.35628E-01  4.46227E-01  4.57084E-01
#           4.68205E-01  4.79597E-01  4.91266E-01  5.03219E-01  5.15463E-01
#           5.28005E-01  5.40851E-01  5.54011E-01  5.67490E-01  5.81298E-01
#           5.95441E-01  6.09929E-01  6.24769E-01  6.39970E-01  6.55541E-01
#           6.71491E-01  6.87828E-01  7.04564E-01  7.21706E-01  7.39266E-01
#           7.57253E-01  7.75678E-01  7.94551E-01  8.13883E-01  8.33685E-01
#           8.53969E-01  8.74747E-01  8.96030E-01  9.17831E-01  9.40163E-01
#           9.63038E-01  9.86469E-01  1.01047E+00  1.03506E+00  1.06024E+00
#           1.08604E+00  1.11246E+00  1.13953E+00  1.16725E+00  1.19565E+00
#           1.22474E+00  1.25454E+00  1.28507E+00  1.31633E+00  1.34836E+00
#           1.38117E+00  1.41477E+00  1.44920E+00  1.48446E+00  1.52057E+00
#           1.55757E+00  1.59547E+00  1.63429E+00  1.67405E+00  1.71478E+00
#           1.75650E+00  1.79924E+00  1.84302E+00  1.88786E+00  1.93379E+00
#           1.98084E+00  2.02904E+00  2.07841E+00  2.12898E+00  2.18078E+00
#           2.23384E+00  2.28819E+00  2.34386E+00  2.40089E+00  2.45930E+00
#           2.51914E+00  2.58043E+00  2.64322E+00  2.70753E+00  2.77341E+00
#           2.84088E+00  2.91001E+00  2.98081E+00  3.05333E+00  3.12762E+00
#           3.20372E+00  3.28167E+00  3.36152E+00  3.44330E+00  3.52708E+00
#           3.61290E+00  3.70080E+00  3.79085E+00  3.88308E+00  3.97756E+00
#           4.07434E+00  4.17347E+00  4.27501E+00  4.37903E+00  4.48557E+00
#           4.59471E+00  4.70650E+00  4.82102E+00  4.93832E+00  5.05847E+00
#           5.18155E+00  5.30762E+00  5.43676E+00  5.56904E+00  5.70453E+00
#           5.84333E+00  5.98550E+00  6.13114E+00  6.28031E+00  6.43312E+00
#           6.58964E+00  6.74997E+00  6.91420E+00  7.08243E+00  7.25475E+00
#           7.43126E+00  7.61207E+00  7.79728E+00  7.98700E+00  8.18133E+00
#           8.38038E+00  8.58428E+00  8.79315E+00  9.00709E+00  9.22624E+00
#           9.45072E+00  9.68067E+00  9.91620E+00  1.01575E+01  1.04046E+01
#           1.06578E+01  1.09171E+01  1.11827E+01  1.14548E+01  1.17335E+01
#           1.20190E+01  1.23114E+01  1.26109E+01  1.29178E+01  1.32321E+01
#           1.35540E+01  1.38838E+01  1.42216E+01  1.45676E+01  1.49221E+01
#           1.52851E+01  1.56570E+01  1.60380E+01  1.64282E+01  1.68279E+01
#           1.72374E+01  1.76568E+01  1.80864E+01  1.85264E+01  1.89772E+01
#           1.94389E+01  1.99119E+01  2.03963E+01  2.08926E+01  2.14009E+01
#           2.19216E+01  2.24550E+01  2.30014E+01  2.35610E+01  2.41343E+01
#           2.47215E+01  2.53230E+01  2.59391E+01  2.65702E+01  2.72167E+01
#           2.78789E+01  2.85572E+01  2.92520E+01  2.99637E+01  3.06928E+01
#           3.14396E+01  3.22045E+01  3.29881E+01  3.37907E+01  3.46128E+01
#           3.54550E+01  3.63177E+01  3.72013E+01  3.81064E+01  3.90336E+01
#           3.99833E+01  4.09561E+01  4.19526E+01  4.29734E+01  4.40189E+01
#           4.50900E+01  4.61870E+01  4.73108E+01  4.84619E+01  4.96410E+01
#           5.08488E+01  5.20860E+01  5.33533E+01  5.46514E+01  5.59812E+01
#           5.73432E+01  5.87384E+01  6.01676E+01  6.16315E+01  6.31311E+01
#           6.46671E+01  6.62405E+01  6.78522E+01  6.95031E+01  7.11941E+01
#           7.29263E+01  7.47007E+01  7.65182E+01  7.83800E+01  8.02870E+01
#           8.22405E+01  8.42414E+01  8.62911E+01  8.83906E+01  9.05412E+01
#           9.27442E+01  9.50007E+01  9.73122E+01  9.96799E+01  1.02105E+02
#           1.04589E+02  1.07134E+02  1.09741E+02  1.12411E+02  1.15146E+02
#           1.17948E+02  1.20817E+02  1.23757E+02  1.26768E+02  1.29852E+02
#           1.33012E+02  1.36248E+02  1.39563E+02  1.42959E+02  1.46437E+02
#           1.50000E+02
     unit =    2            # unit is [1/cm^2/(MeV/n)/source]
     axis =  eng            # axis of output
     file = detector-22.out  # file name of output for the above axis
   output = f-curr          # surface crossing forward current spectrum
     part =  neutron  
# kf/name :  2112     
#    used :        main (  %)        temp (  %)       total (  %)
#  memory :         414 (  0)           0 (  0)         414 (  0)

#------------------------------------------------------------------------------
#newpage:
#   no. =    1   reg = 121 - 221

x: Energy [MeV/n]
y:  F-Curr [1/cm^2/(MeV/n)/source]         
p: xlog ylog afac(0.8) form(0.9)
h: n            x            y(neutron ),hh0l   n 
#  e-lower      e-upper      neutron     r.err 
   1.0000E-02   1.0243E-02   1.6247E-02  0.0159
   1.0243E-02   1.0493E-02   1.5616E-02  0.0160
   1.0493E-02   1.0748E-02   1.5386E-02  0.0160
   1.0748E-02   1.1009E-02   1.5229E-02  0.0158
   1.1009E-02   1.1277E-02   1.5616E-02  0.0155
   1.1277E-02   1.1552E-02   1.5006E-02  0.0156
   1.1552E-02   1.1833E-02   1.4940E-02  0.0154
   1.1833E-02   1.2121E-02   1.4818E-02  0.0153
   1.2121E-02   1.2415E-02   1.4601E-02  0.0152
   1.2415E-02   1.2718E-02   1.4337E-02  0.0152
   1.2718E-02   1.3027E-02   1.4288E-02  0.0150
   1.3027E-02   1.3344E-02   1.4223E-02  0.0149
   1.3344E-02   1.3669E-02   1.3897E-02  0.0149
   1.3669E-02   1.4001E-02   1.3880E-02  0.0147
   1.4001E-02   1.4342E-02   1.3706E-02  0.0146
   1.4342E-02   1.4691E-02   1.3293E-02  0.0147
   1.4691E-02   1.5048E-02   1.3311E-02  0.0145
   1.5048E-02   1.5414E-02   1.2744E-02  0.0146
   1.5414E-02   1.5789E-02   1.2889E-02  0.0144
   1.5789E-02   1.6174E-02   1.2627E-02  0.0144
   1.6174E-02   1.6567E-02   1.2426E-02  0.0143
   1.6567E-02   1.6970E-02   1.2472E-02  0.0141
   1.6970E-02   1.7383E-02   1.2209E-02  0.0141
   1.7383E-02   1.7806E-02   1.2122E-02  0.0140
   1.7806E-02   1.8239E-02   1.1853E-02  0.0140
   1.8239E-02   1.8683E-02   1.1887E-02  0.0138
   1.8683E-02   1.9138E-02   1.1728E-02  0.0137
   1.9138E-02   1.9603E-02   1.1580E-02  0.0136
   1.9603E-02   2.0080E-02   1.1194E-02  0.0137
   2.0080E-02   2.0569E-02   1.0924E-02  0.0137
   2.0569E-02   2.1069E-02   1.1096E-02  0.0134
   2.1069E-02   2.1582E-02   1.1164E-02  0.0132
   2.1582E-02   2.2107E-02   1.0868E-02  0.0132
   2.2107E-02   2.2645E-02   1.0577E-02  0.0133
   2.2645E-02   2.3196E-02   1.0512E-02  0.0131
   2.3196E-02   2.3760E-02   1.0305E-02  0.0131
   2.3760E-02   2.4338E-02   1.0183E-02  0.0130
   2.4338E-02   2.4930E-02   1.0078E-02  0.0129
   2.4930E-02   2.5537E-02   1.0084E-02  0.0128
   2.5537E-02   2.6158E-02   9.9254E-03  0.0127
   2.6158E-02   2.6795E-02   9.7659E-03  0.0127
   2.6795E-02   2.7447E-02   9.7264E-03  0.0126
   2.7447E-02   2.8114E-02   9.6316E-03  0.0125
   2.8114E-02   2.8799E-02   9.5154E-03  0.0124
   2.8799E-02   2.9499E-02   9.0739E-03  0.0125
   2.9499E-02   3.0217E-02   9.3014E-03  0.0122
   3.0217E-02   3.0952E-02   9.0397E-03  0.0123
   3.0952E-02   3.1705E-02   9.1105E-03  0.0121
   3.1705E-02   3.2477E-02   8.8085E-03  0.0121
   3.2477E-02   3.3267E-02   8.7689E-03  0.0120
   3.3267E-02   3.4076E-02   8.7051E-03  0.0119
   3.4076E-02   3.4905E-02   8.5092E-03  0.0119
   3.4905E-02   3.5755E-02   8.3236E-03  0.0119
   3.5755E-02   3.6625E-02   8.5167E-03  0.0116
   3.6625E-02   3.7516E-02   8.3043E-03  0.0116
   3.7516E-02   3.8428E-02   8.2977E-03  0.0115
   3.8428E-02   3.9363E-02   7.9091E-03  0.0116
   3.9363E-02   4.0321E-02   8.0658E-03  0.0114
   4.0321E-02   4.1302E-02   7.9120E-03  0.0114
   4.1302E-02   4.2307E-02   7.6235E-03  0.0114
   4.2307E-02   4.3337E-02   7.5770E-03  0.0113
   4.3337E-02   4.4391E-02   7.6545E-03  0.0111
   4.4391E-02   4.5471E-02   7.3533E-03  0.0112
   4.5471E-02   4.6577E-02   7.5772E-03  0.0109
   4.6577E-02   4.7711E-02   7.3293E-03  0.0110
   4.7711E-02   4.8871E-02   7.1044E-03  0.0110
   4.8871E-02   5.0061E-02   7.3073E-03  0.0107
   5.0061E-02   5.1279E-02   6.9687E-03  0.0109
   5.1279E-02   5.2526E-02   6.8176E-03  0.0108
   5.2526E-02   5.3804E-02   7.0039E-03  0.0106
   5.3804E-02   5.5113E-02   6.7768E-03  0.0106
   5.5113E-02   5.6454E-02   6.6408E-03  0.0106
   5.6454E-02   5.7828E-02   6.7182E-03  0.0104
   5.7828E-02   5.9235E-02   6.5061E-03  0.0105
   5.9235E-02   6.0676E-02   6.4140E-03  0.0104
   6.0676E-02   6.2152E-02   6.4946E-03  0.0102
   6.2152E-02   6.3665E-02   6.2491E-03  0.0103
   6.3665E-02   6.5214E-02   6.1817E-03  0.0102
   6.5214E-02   6.6800E-02   6.1247E-03  0.0101
   6.6800E-02   6.8426E-02   5.9853E-03  0.0101
   6.8426E-02   7.0090E-02   6.0234E-03  0.0100
   7.0090E-02   7.1796E-02   5.8662E-03  0.0100
   7.1796E-02   7.3543E-02   5.8998E-03  0.0099
   7.3543E-02   7.5332E-02   5.6993E-03  0.0099
   7.5332E-02   7.7165E-02   5.6899E-03  0.0098
   7.7165E-02   7.9042E-02   5.6432E-03  0.0097
   7.9042E-02   8.0965E-02   5.5775E-03  0.0097
   8.0965E-02   8.2935E-02   5.4494E-03  0.0097
   8.2935E-02   8.4953E-02   5.3519E-03  0.0096
   8.4953E-02   8.7020E-02   5.3126E-03  0.0095
   8.7020E-02   8.9138E-02   5.2166E-03  0.0095
   8.9138E-02   9.1306E-02   5.1771E-03  0.0094
   9.1306E-02   9.3528E-02   5.1237E-03  0.0094
   9.3528E-02   9.5804E-02   5.1114E-03  0.0093
   9.5804E-02   9.8134E-02   4.9368E-03  0.0093
   9.8134E-02   1.0052E-01   4.9039E-03  0.0092
   1.0052E-01   1.0297E-01   4.9015E-03  0.0091
   1.0297E-01   1.0547E-01   4.7499E-03  0.0092
   1.0547E-01   1.0804E-01   4.6888E-03  0.0091
   1.0804E-01   1.1067E-01   4.5791E-03  0.0091
   1.1067E-01   1.1336E-01   4.6638E-03  0.0089
   1.1336E-01   1.1612E-01   4.5277E-03  0.0089
   1.1612E-01   1.1894E-01   4.4684E-03  0.0089
   1.1894E-01   1.2184E-01   4.4309E-03  0.0088
   1.2184E-01   1.2480E-01   4.4019E-03  0.0088
   1.2480E-01   1.2784E-01   4.4024E-03  0.0087
   1.2784E-01   1.3095E-01   4.2965E-03  0.0087
   1.3095E-01   1.3414E-01   4.2787E-03  0.0086
   1.3414E-01   1.3740E-01   4.1742E-03  0.0086
   1.3740E-01   1.4074E-01   4.0870E-03  0.0086
   1.4074E-01   1.4417E-01   4.0286E-03  0.0085
   1.4417E-01   1.4767E-01   3.9647E-03  0.0085
   1.4767E-01   1.5127E-01   3.9307E-03  0.0084
   1.5127E-01   1.5495E-01   3.8931E-03  0.0084
   1.5495E-01   1.5872E-01   3.8156E-03  0.0083
   1.5872E-01   1.6258E-01   3.7659E-03  0.0083
   1.6258E-01   1.6654E-01   3.6963E-03  0.0083
   1.6654E-01   1.7059E-01   3.6691E-03  0.0082
   1.7059E-01   1.7474E-01   3.5983E-03  0.0082
   1.7474E-01   1.7899E-01   3.5029E-03  0.0082
   1.7899E-01   1.8334E-01   3.5468E-03  0.0080
   1.8334E-01   1.8781E-01   3.4482E-03  0.0081
   1.8781E-01   1.9237E-01   3.4531E-03  0.0080
   1.9237E-01   1.9706E-01   3.4055E-03  0.0079
   1.9706E-01   2.0185E-01   3.3338E-03  0.0079
   2.0185E-01   2.0676E-01   3.2533E-03  0.0079
   2.0676E-01   2.1179E-01   3.2451E-03  0.0078
   2.1179E-01   2.1694E-01   3.1778E-03  0.0078
   2.1694E-01   2.2222E-01   3.1460E-03  0.0078
   2.2222E-01   2.2763E-01   3.0936E-03  0.0077
   2.2763E-01   2.3317E-01   3.0465E-03  0.0077
   2.3317E-01   2.3884E-01   2.9907E-03  0.0077
   2.3884E-01   2.4465E-01   2.9169E-03  0.0077
   2.4465E-01   2.5061E-01   2.9099E-03  0.0076
   2.5061E-01   2.5670E-01   2.8783E-03  0.0075
   2.5670E-01   2.6295E-01   2.8135E-03  0.0075
   2.6295E-01   2.6935E-01   2.7452E-03  0.0075
   2.6935E-01   2.7590E-01   2.7382E-03  0.0075
   2.7590E-01   2.8261E-01   2.6238E-03  0.0075
   2.8261E-01   2.8949E-01   2.6515E-03  0.0074
   2.8949E-01   2.9653E-01   2.5906E-03  0.0074
   2.9653E-01   3.0375E-01   2.5073E-03  0.0074
   3.0375E-01   3.1114E-01   2.4849E-03  0.0074
   3.1114E-01   3.1871E-01   2.4693E-03  0.0073
   3.1871E-01   3.2646E-01   2.4190E-03  0.0073
   3.2646E-01   3.3441E-01   2.3469E-03  0.0073
   3.3441E-01   3.4254E-01   2.3190E-03  0.0073
   3.4254E-01   3.5088E-01   2.2928E-03  0.0072
   3.5088E-01   3.5941E-01   2.2323E-03  0.0072
   3.5941E-01   3.6816E-01   2.2117E-03  0.0072
   3.6816E-01   3.7712E-01   2.1640E-03  0.0072
   3.7712E-01   3.8629E-01   2.1476E-03  0.0071
   3.8629E-01   3.9569E-01   2.0829E-03  0.0071
   3.9569E-01   4.0532E-01   2.0536E-03  0.0071
   4.0532E-01   4.1518E-01   2.0017E-03  0.0071
   4.1518E-01   4.2528E-01   1.9697E-03  0.0071
   4.2528E-01   4.3563E-01   1.9609E-03  0.0070
   4.3563E-01   4.4623E-01   1.9106E-03  0.0070
   4.4623E-01   4.5708E-01   1.8710E-03  0.0070
   4.5708E-01   4.6821E-01   1.8261E-03  0.0070
   4.6821E-01   4.7960E-01   1.7918E-03  0.0070
   4.7960E-01   4.9127E-01   1.7456E-03  0.0070
   4.9127E-01   5.0322E-01   1.7070E-03  0.0070
   5.0322E-01   5.1546E-01   1.6885E-03  0.0070
   5.1546E-01   5.2800E-01   1.6188E-03  0.0070
   5.2800E-01   5.4085E-01   1.6035E-03  0.0070
   5.4085E-01   5.5401E-01   1.5897E-03  0.0069
   5.5401E-01   5.6749E-01   1.5434E-03  0.0069
   5.6749E-01   5.8130E-01   1.5071E-03  0.0069
   5.8130E-01   5.9544E-01   1.4776E-03  0.0069
   5.9544E-01   6.0993E-01   1.4225E-03  0.0070
   6.0993E-01   6.2477E-01   1.3825E-03  0.0070
   6.2477E-01   6.3997E-01   1.3510E-03  0.0070
   6.3997E-01   6.5554E-01   1.3178E-03  0.0070
   6.5554E-01   6.7149E-01   1.2736E-03  0.0070
   6.7149E-01   6.8783E-01   1.2544E-03  0.0070
   6.8783E-01   7.0456E-01   1.2125E-03  0.0070
   7.0456E-01   7.2171E-01   1.1789E-03  0.0070
   7.2171E-01   7.3927E-01   1.1381E-03  0.0071
   7.3927E-01   7.5725E-01   1.0995E-03  0.0071
   7.5725E-01   7.7568E-01   1.0739E-03  0.0071
   7.7568E-01   7.9455E-01   1.0235E-03  0.0072
   7.9455E-01   8.1388E-01   9.8660E-04  0.0072
   8.1388E-01   8.3368E-01   9.6251E-04  0.0072
   8.3368E-01   8.5397E-01   9.2505E-04  0.0073
   8.5397E-01   8.7475E-01   8.9832E-04  0.0073
   8.7475E-01   8.9603E-01   8.7331E-04  0.0073
   8.9603E-01   9.1783E-01   8.3133E-04  0.0074
   9.1783E-01   9.4016E-01   7.9367E-04  0.0075
   9.4016E-01   9.6304E-01   7.6770E-04  0.0075
   9.6304E-01   9.8647E-01   7.2102E-04  0.0077
   9.8647E-01   1.0105E+00   6.9654E-04  0.0077
   1.0105E+00   1.0351E+00   7.0206E-04  0.0076
   1.0351E+00   1.0602E+00   6.9882E-04  0.0075
   1.0602E+00   1.0860E+00   7.1277E-04  0.0074
   1.0860E+00   1.1125E+00   7.2330E-04  0.0072
   1.1125E+00   1.1395E+00   7.3852E-04  0.0071
   1.1395E+00   1.1673E+00   7.5266E-04  0.0069
   1.1673E+00   1.1957E+00   7.8385E-04  0.0067
   1.1957E+00   1.2247E+00   7.9366E-04  0.0066
   1.2247E+00   1.2545E+00   7.9389E-04  0.0065
   1.2545E+00   1.2851E+00   7.9858E-04  0.0064
   1.2851E+00   1.3163E+00   8.1054E-04  0.0063
   1.3163E+00   1.3484E+00   8.1468E-04  0.0062
   1.3484E+00   1.3812E+00   8.2735E-04  0.0061
   1.3812E+00   1.4148E+00   8.4031E-04  0.0060
   1.4148E+00   1.4492E+00   8.3689E-04  0.0059
   1.4492E+00   1.4845E+00   8.3585E-04  0.0058
   1.4845E+00   1.5206E+00   8.2235E-04  0.0058
   1.5206E+00   1.5576E+00   8.2118E-04  0.0057
   1.5576E+00   1.5955E+00   8.2810E-04  0.0056
   1.5955E+00   1.6343E+00   8.3267E-04  0.0056
   1.6343E+00   1.6741E+00   8.3715E-04  0.0055
   1.6741E+00   1.7148E+00   8.5466E-04  0.0054
   1.7148E+00   1.7565E+00   8.4780E-04  0.0053
   1.7565E+00   1.7992E+00   8.3019E-04  0.0053
   1.7992E+00   1.8430E+00   8.2235E-04  0.0053
   1.8430E+00   1.8879E+00   8.1629E-04  0.0052
   1.8879E+00   1.9338E+00   8.0077E-04  0.0052
   1.9338E+00   1.9808E+00   8.0913E-04  0.0051
   1.9808E+00   2.0290E+00   8.0276E-04  0.0051
   2.0290E+00   2.0784E+00   7.7998E-04  0.0051
   2.0784E+00   2.1290E+00   7.6480E-04  0.0051
   2.1290E+00   2.1808E+00   7.4240E-04  0.0051
   2.1808E+00   2.2338E+00   7.2618E-04  0.0051
   2.2338E+00   2.2882E+00   7.1846E-04  0.0051
   2.2882E+00   2.3439E+00   7.0763E-04  0.0050
   2.3439E+00   2.4009E+00   6.9844E-04  0.0050
   2.4009E+00   2.4593E+00   6.8019E-04  0.0050
   2.4593E+00   2.5191E+00   6.6186E-04  0.0050
   2.5191E+00   2.5804E+00   6.3647E-04  0.0051
   2.5804E+00   2.6432E+00   6.1720E-04  0.0051
   2.6432E+00   2.7075E+00   5.9738E-04  0.0051
   2.7075E+00   2.7734E+00   5.7720E-04  0.0051
   2.7734E+00   2.8409E+00   5.5882E-04  0.0052
   2.8409E+00   2.9100E+00   5.4524E-04  0.0052
   2.9100E+00   2.9808E+00   5.2850E-04  0.0052
   2.9808E+00   3.0533E+00   5.1498E-04  0.0052
   3.0533E+00   3.1276E+00   4.9307E-04  0.0052
   3.1276E+00   3.2037E+00   4.6933E-04  0.0053
   3.2037E+00   3.2817E+00   4.4564E-04  0.0054
   3.2817E+00   3.3615E+00   4.2479E-04  0.0054
   3.3615E+00   3.4433E+00   4.0862E-04  0.0055
   3.4433E+00   3.5271E+00   3.8793E-04  0.0056
   3.5271E+00   3.6129E+00   3.7001E-04  0.0056
   3.6129E+00   3.7008E+00   3.5589E-04  0.0057
   3.7008E+00   3.7908E+00   3.3840E-04  0.0057
   3.7908E+00   3.8831E+00   3.1874E-04  0.0058
   3.8831E+00   3.9776E+00   3.0074E-04  0.0059
   3.9776E+00   4.0743E+00   2.8642E-04  0.0060
   4.0743E+00   4.1735E+00   2.6913E-04  0.0061
   4.1735E+00   4.2750E+00   2.5552E-04  0.0062
   4.2750E+00   4.3790E+00   2.3935E-04  0.0063
   4.3790E+00   4.4856E+00   2.2088E-04  0.0065
   4.4856E+00   4.5947E+00   2.0908E-04  0.0066
   4.5947E+00   4.7065E+00   1.9504E-04  0.0068
   4.7065E+00   4.8210E+00   1.8201E-04  0.0069
   4.8210E+00   4.9383E+00   1.6947E-04  0.0071
   4.9383E+00   5.0585E+00   1.5911E-04  0.0072
   5.0585E+00   5.1815E+00   1.4705E-04  0.0074
   5.1815E+00   5.3076E+00   1.3621E-04  0.0076
   5.3076E+00   5.4368E+00   1.2616E-04  0.0078
   5.4368E+00   5.5690E+00   1.1755E-04  0.0080
   5.5690E+00   5.7045E+00   1.0787E-04  0.0083
   5.7045E+00   5.8433E+00   9.8267E-05  0.0086
   5.8433E+00   5.9855E+00   8.8262E-05  0.0089
   5.9855E+00   6.1311E+00   8.1857E-05  0.0092
   6.1311E+00   6.2803E+00   7.5086E-05  0.0094
   6.2803E+00   6.4331E+00   6.8479E-05  0.0098
   6.4331E+00   6.5896E+00   6.4444E-05  0.0100
   6.5896E+00   6.7500E+00   5.7631E-05  0.0104
   6.7500E+00   6.9142E+00   5.1713E-05  0.0109
   6.9142E+00   7.0824E+00   4.7263E-05  0.0112
   7.0824E+00   7.2548E+00   4.3538E-05  0.0115
   7.2548E+00   7.4313E+00   3.9311E-05  0.0120
   7.4313E+00   7.6121E+00   3.4738E-05  0.0126
   7.6121E+00   7.7973E+00   3.1278E-05  0.0131
   7.7973E+00   7.9870E+00   2.8327E-05  0.0136
   7.9870E+00   8.1813E+00   2.6681E-05  0.0139
   8.1813E+00   8.3804E+00   2.3867E-05  0.0145
   8.3804E+00   8.5843E+00   2.1167E-05  0.0152
   8.5843E+00   8.7931E+00   1.9601E-05  0.0156
   8.7931E+00   9.0071E+00   1.7021E-05  0.0166
   9.0071E+00   9.2262E+00   1.5727E-05  0.0170
   9.2262E+00   9.4507E+00   1.3974E-05  0.0178
   9.4507E+00   9.6807E+00   1.2531E-05  0.0186
   9.6807E+00   9.9162E+00   1.1368E-05  0.0193
   9.9162E+00   1.0157E+01   1.0673E-05  0.0197
   1.0157E+01   1.0405E+01   9.3287E-06  0.0208
   1.0405E+01   1.0658E+01   8.5443E-06  0.0215
   1.0658E+01   1.0917E+01   7.5758E-06  0.0225
   1.0917E+01   1.1183E+01   7.1926E-06  0.0228
   1.1183E+01   1.1455E+01   6.1874E-06  0.0243
   1.1455E+01   1.1733E+01   5.6063E-06  0.0252
   1.1733E+01   1.2019E+01   4.8391E-06  0.0268
   1.2019E+01   1.2311E+01   4.5532E-06  0.0273
   1.2311E+01   1.2611E+01   4.3316E-06  0.0277
   1.2611E+01   1.2918E+01   3.8278E-06  0.0291
   1.2918E+01   1.3232E+01   3.4680E-06  0.0302
   1.3232E+01   1.3554E+01   3.2490E-06  0.0308
   1.3554E+01   1.3884E+01   3.0748E-06  0.0313
   1.3884E+01   1.4222E+01   2.8004E-06  0.0324
   1.4222E+01   1.4568E+01   2.6472E-06  0.0330
   1.4568E+01   1.4922E+01   2.3389E-06  0.0346
   1.4922E+01   1.5285E+01   2.2159E-06  0.0352
   1.5285E+01   1.5657E+01   2.1834E-06  0.0350
   1.5657E+01   1.6038E+01   1.9727E-06  0.0365
   1.6038E+01   1.6428E+01   1.9297E-06  0.0364
   1.6428E+01   1.6828E+01   1.8176E-06  0.0370
   1.6828E+01   1.7237E+01   1.6425E-06  0.0385
   1.7237E+01   1.7657E+01   1.6810E-06  0.0376
   1.7657E+01   1.8086E+01   1.4490E-06  0.0400
   1.8086E+01   1.8526E+01   1.3907E-06  0.0404
   1.8526E+01   1.8977E+01   1.4387E-06  0.0392
   1.8977E+01   1.9439E+01   1.3222E-06  0.0404
   1.9439E+01   1.9912E+01   1.3394E-06  0.0397
   1.9912E+01   2.0396E+01   1.1621E-06  0.0421
   2.0396E+01   2.0893E+01   1.1546E-06  0.0418
   2.0893E+01   2.1401E+01   1.1272E-06  0.0418
   2.1401E+01   2.1922E+01   9.8713E-07  0.0441
   2.1922E+01   2.2455E+01   1.0424E-06  0.0424
   2.2455E+01   2.3001E+01   1.0323E-06  0.0421
   2.3001E+01   2.3561E+01   1.0149E-06  0.0420
   2.3561E+01   2.4134E+01   8.9314E-07  0.0442
   2.4134E+01   2.4721E+01   8.4298E-07  0.0449
   2.4721E+01   2.5323E+01   8.6119E-07  0.0439
   2.5323E+01   2.5939E+01   8.3424E-07  0.0441
   2.5939E+01   2.6570E+01   7.7323E-07  0.0453
   2.6570E+01   2.7217E+01   7.6879E-07  0.0449
   2.7217E+01   2.7879E+01   6.8257E-07  0.0470
   2.7879E+01   2.8557E+01   6.7668E-07  0.0467
   2.8557E+01   2.9252E+01   7.1385E-07  0.0449
   2.9252E+01   2.9964E+01   6.5194E-07  0.0464
   2.9964E+01   3.0693E+01   5.7884E-07  0.0487
   3.0693E+01   3.1440E+01   5.5974E-07  0.0489
   3.1440E+01   3.2205E+01   5.3729E-07  0.0493
   3.2205E+01   3.2988E+01   5.0666E-07  0.0502
   3.2988E+01   3.3791E+01   4.9712E-07  0.0501
   3.3791E+01   3.4613E+01   4.5612E-07  0.0516
   3.4613E+01   3.5455E+01   4.0847E-07  0.0539
   3.5455E+01   3.6318E+01   3.8602E-07  0.0548
   3.6318E+01   3.7201E+01   3.4516E-07  0.0573
   3.7201E+01   3.8106E+01   2.9940E-07  0.0607
   3.8106E+01   3.9034E+01   3.0739E-07  0.0592
   3.9034E+01   3.9983E+01   2.8114E-07  0.0612
   3.9983E+01   4.0956E+01   2.9091E-07  0.0594
   4.0956E+01   4.1953E+01   2.5389E-07  0.0629
   4.1953E+01   4.2973E+01   2.2141E-07  0.0665
   4.2973E+01   4.4019E+01   2.0467E-07  0.0684
   4.4019E+01   4.5090E+01   1.7927E-07  0.0722
   4.5090E+01   4.6187E+01   1.5769E-07  0.0760
   4.6187E+01   4.7311E+01   1.5039E-07  0.0769
   4.7311E+01   4.8462E+01   1.3378E-07  0.0806
   4.8462E+01   4.9641E+01   1.2976E-07  0.0808
   4.9641E+01   5.0849E+01   1.1591E-07  0.0845
   5.0849E+01   5.2086E+01   9.7802E-08  0.0909
   5.2086E+01   5.3353E+01   8.2854E-08  0.0976
   5.3353E+01   5.4651E+01   6.9331E-08  0.1054
   5.4651E+01   5.5981E+01   6.0915E-08  0.1111
   5.5981E+01   5.7343E+01   5.5798E-08  0.1147
   5.7343E+01   5.8738E+01   4.8022E-08  0.1222
   5.8738E+01   6.0168E+01   4.9680E-08  0.1187
   6.0168E+01   6.1632E+01   2.8690E-08  0.1543
   6.1632E+01   6.3131E+01   4.2013E-08  0.1260
   6.3131E+01   6.4667E+01   2.7994E-08  0.1525
   6.4667E+01   6.6240E+01   2.0974E-08  0.1741
   6.6240E+01   6.7852E+01   1.9855E-08  0.1768
   6.7852E+01   6.9503E+01   1.8778E-08  0.1796
   6.9503E+01   7.1194E+01   1.1827E-08  0.2236
   7.1194E+01   7.2926E+01   8.6595E-09  0.2582
   7.2926E+01   7.4701E+01   9.5809E-09  0.2425
   7.4701E+01   7.6518E+01   4.4016E-09  0.3536
   7.6518E+01   7.8380E+01   6.9827E-09  0.2774
   7.8380E+01   8.0287E+01   1.5731E-09  0.5774
   8.0287E+01   8.2240E+01   5.6311E-09  0.3015
   8.2240E+01   8.4241E+01   1.9990E-09  0.5000
   8.4241E+01   8.6291E+01   1.9515E-09  0.5000
   8.6291E+01   8.8391E+01   1.4289E-09  0.5774
   8.8391E+01   9.0541E+01   0.0000E+00  0.0000
   9.0541E+01   9.2744E+01   9.0788E-10  0.7071
   9.2744E+01   9.5001E+01   1.3295E-09  0.5774
   9.5001E+01   9.7312E+01   4.3263E-10  1.0000
   9.7312E+01   9.9680E+01   4.2235E-10  1.0000
   9.9680E+01   1.0211E+02   0.0000E+00  0.0000
   1.0211E+02   1.0459E+02   0.0000E+00  0.0000
   1.0459E+02   1.0713E+02   0.0000E+00  0.0000
   1.0713E+02   1.0974E+02   3.8363E-10  1.0000
   1.0974E+02   1.1241E+02   0.0000E+00  0.0000
   1.1241E+02   1.1515E+02   0.0000E+00  0.0000
   1.1515E+02   1.1795E+02   0.0000E+00  0.0000
   1.1795E+02   1.2082E+02   0.0000E+00  0.0000
   1.2082E+02   1.2376E+02   0.0000E+00  0.0000
   1.2376E+02   1.2677E+02   0.0000E+00  0.0000
   1.2677E+02   1.2985E+02   0.0000E+00  0.0000
   1.2985E+02   1.3301E+02   0.0000E+00  0.0000
   1.3301E+02   1.3625E+02   0.0000E+00  0.0000
   1.3625E+02   1.3956E+02   0.0000E+00  0.0000
   1.3956E+02   1.4296E+02   0.0000E+00  0.0000
   1.4296E+02   1.4644E+02   0.0000E+00  0.0000
   1.4644E+02   1.5000E+02   0.0000E+00  0.0000

#   sum over                 3.1494E-05
'no. =    1   reg = 121 - 221'
msuc: {\huge [t-cross] in region mesh}
msdr: {\it plotted by \ANGEL \version}
msdl: {\it calculated by \PHITS  3.26}
wt: s(0.7)
\vspace{-3}
  region surface crossing
  area  &=&   1.0000E+00 [cm^2]
e:
 
# Information for Restart Calculation
# This calculation was newly started
# istdev =  2 # 1:Batch variance, 2:History variance
# resc2  = 1.00000000000000000E+09 # Total source weight or Total source weight / maxcas
# resc3  = 1.00000000000000000E+09 # Total history number or Total batch number
# maxcas =   500000000 # History / Batch, only used for istdev=1
# bitrseed = 0001001110011001001001110000100100110111001111011100001000101100 # bit data of rseed
