[ T-Cross ]
    title = [t-cross] in region mesh
     mesh =  reg            # mesh type is region-wise
      reg =    1            # number of crossing regions
      non     r-from    r-to       area
      1       104       204        1.000000    
   e-type =    3            # e-mesh is log given by emin, emax and ne
     emin =  1.0000000E-02  # minimum value of e-mesh points
     emax =   150.0000      # maximum value of e-mesh points
#    edel =  2.4039514E-02  # mesh width of e-mesh points
       ne =    400          # number of e-mesh points
#    data = ( e(i), i = 1, ne + 1 )
#           1.00000E-02  1.02433E-02  1.04925E-02  1.07478E-02  1.10093E-02
#           1.12772E-02  1.15516E-02  1.18326E-02  1.21205E-02  1.24154E-02
#           1.27175E-02  1.30269E-02  1.33439E-02  1.36686E-02  1.40011E-02
#           1.43418E-02  1.46907E-02  1.50482E-02  1.54143E-02  1.57894E-02
#           1.61735E-02  1.65670E-02  1.69701E-02  1.73830E-02  1.78060E-02
#           1.82392E-02  1.86830E-02  1.91375E-02  1.96032E-02  2.00801E-02
#           2.05687E-02  2.10692E-02  2.15818E-02  2.21069E-02  2.26448E-02
#           2.31957E-02  2.37601E-02  2.43382E-02  2.49304E-02  2.55369E-02
#           2.61583E-02  2.67947E-02  2.74467E-02  2.81145E-02  2.87985E-02
#           2.94992E-02  3.02169E-02  3.09521E-02  3.17052E-02  3.24766E-02
#           3.32668E-02  3.40762E-02  3.49053E-02  3.57546E-02  3.66246E-02
#           3.75157E-02  3.84284E-02  3.93634E-02  4.03212E-02  4.13022E-02
#           4.23071E-02  4.33365E-02  4.43909E-02  4.54710E-02  4.65773E-02
#           4.77106E-02  4.88714E-02  5.00605E-02  5.12785E-02  5.25262E-02
#           5.38042E-02  5.51133E-02  5.64542E-02  5.78278E-02  5.92348E-02
#           6.06760E-02  6.21523E-02  6.36645E-02  6.52135E-02  6.68002E-02
#           6.84255E-02  7.00904E-02  7.17957E-02  7.35426E-02  7.53319E-02
#           7.71648E-02  7.90423E-02  8.09655E-02  8.29354E-02  8.49533E-02
#           8.70203E-02  8.91376E-02  9.13064E-02  9.35279E-02  9.58035E-02
#           9.81345E-02  1.00522E-01  1.02968E-01  1.05473E-01  1.08040E-01
#           1.10668E-01  1.13361E-01  1.16119E-01  1.18944E-01  1.21838E-01
#           1.24803E-01  1.27839E-01  1.30950E-01  1.34136E-01  1.37399E-01
#           1.40742E-01  1.44167E-01  1.47675E-01  1.51268E-01  1.54948E-01
#           1.58718E-01  1.62580E-01  1.66535E-01  1.70587E-01  1.74738E-01
#           1.78989E-01  1.83344E-01  1.87805E-01  1.92375E-01  1.97055E-01
#           2.01850E-01  2.06761E-01  2.11792E-01  2.16945E-01  2.22223E-01
#           2.27630E-01  2.33169E-01  2.38842E-01  2.44653E-01  2.50605E-01
#           2.56703E-01  2.62949E-01  2.69346E-01  2.75900E-01  2.82613E-01
#           2.89489E-01  2.96532E-01  3.03747E-01  3.11138E-01  3.18708E-01
#           3.26462E-01  3.34405E-01  3.42542E-01  3.50876E-01  3.59413E-01
#           3.68158E-01  3.77116E-01  3.86291E-01  3.95690E-01  4.05317E-01
#           4.15179E-01  4.25281E-01  4.35628E-01  4.46227E-01  4.57084E-01
#           4.68205E-01  4.79597E-01  4.91266E-01  5.03219E-01  5.15463E-01
#           5.28005E-01  5.40851E-01  5.54011E-01  5.67490E-01  5.81298E-01
#           5.95441E-01  6.09929E-01  6.24769E-01  6.39970E-01  6.55541E-01
#           6.71491E-01  6.87828E-01  7.04564E-01  7.21706E-01  7.39266E-01
#           7.57253E-01  7.75678E-01  7.94551E-01  8.13883E-01  8.33685E-01
#           8.53969E-01  8.74747E-01  8.96030E-01  9.17831E-01  9.40163E-01
#           9.63038E-01  9.86469E-01  1.01047E+00  1.03506E+00  1.06024E+00
#           1.08604E+00  1.11246E+00  1.13953E+00  1.16725E+00  1.19565E+00
#           1.22474E+00  1.25454E+00  1.28507E+00  1.31633E+00  1.34836E+00
#           1.38117E+00  1.41477E+00  1.44920E+00  1.48446E+00  1.52057E+00
#           1.55757E+00  1.59547E+00  1.63429E+00  1.67405E+00  1.71478E+00
#           1.75650E+00  1.79924E+00  1.84302E+00  1.88786E+00  1.93379E+00
#           1.98084E+00  2.02904E+00  2.07841E+00  2.12898E+00  2.18078E+00
#           2.23384E+00  2.28819E+00  2.34386E+00  2.40089E+00  2.45930E+00
#           2.51914E+00  2.58043E+00  2.64322E+00  2.70753E+00  2.77341E+00
#           2.84088E+00  2.91001E+00  2.98081E+00  3.05333E+00  3.12762E+00
#           3.20372E+00  3.28167E+00  3.36152E+00  3.44330E+00  3.52708E+00
#           3.61290E+00  3.70080E+00  3.79085E+00  3.88308E+00  3.97756E+00
#           4.07434E+00  4.17347E+00  4.27501E+00  4.37903E+00  4.48557E+00
#           4.59471E+00  4.70650E+00  4.82102E+00  4.93832E+00  5.05847E+00
#           5.18155E+00  5.30762E+00  5.43676E+00  5.56904E+00  5.70453E+00
#           5.84333E+00  5.98550E+00  6.13114E+00  6.28031E+00  6.43312E+00
#           6.58964E+00  6.74997E+00  6.91420E+00  7.08243E+00  7.25475E+00
#           7.43126E+00  7.61207E+00  7.79728E+00  7.98700E+00  8.18133E+00
#           8.38038E+00  8.58428E+00  8.79315E+00  9.00709E+00  9.22624E+00
#           9.45072E+00  9.68067E+00  9.91620E+00  1.01575E+01  1.04046E+01
#           1.06578E+01  1.09171E+01  1.11827E+01  1.14548E+01  1.17335E+01
#           1.20190E+01  1.23114E+01  1.26109E+01  1.29178E+01  1.32321E+01
#           1.35540E+01  1.38838E+01  1.42216E+01  1.45676E+01  1.49221E+01
#           1.52851E+01  1.56570E+01  1.60380E+01  1.64282E+01  1.68279E+01
#           1.72374E+01  1.76568E+01  1.80864E+01  1.85264E+01  1.89772E+01
#           1.94389E+01  1.99119E+01  2.03963E+01  2.08926E+01  2.14009E+01
#           2.19216E+01  2.24550E+01  2.30014E+01  2.35610E+01  2.41343E+01
#           2.47215E+01  2.53230E+01  2.59391E+01  2.65702E+01  2.72167E+01
#           2.78789E+01  2.85572E+01  2.92520E+01  2.99637E+01  3.06928E+01
#           3.14396E+01  3.22045E+01  3.29881E+01  3.37907E+01  3.46128E+01
#           3.54550E+01  3.63177E+01  3.72013E+01  3.81064E+01  3.90336E+01
#           3.99833E+01  4.09561E+01  4.19526E+01  4.29734E+01  4.40189E+01
#           4.50900E+01  4.61870E+01  4.73108E+01  4.84619E+01  4.96410E+01
#           5.08488E+01  5.20860E+01  5.33533E+01  5.46514E+01  5.59812E+01
#           5.73432E+01  5.87384E+01  6.01676E+01  6.16315E+01  6.31311E+01
#           6.46671E+01  6.62405E+01  6.78522E+01  6.95031E+01  7.11941E+01
#           7.29263E+01  7.47007E+01  7.65182E+01  7.83800E+01  8.02870E+01
#           8.22405E+01  8.42414E+01  8.62911E+01  8.83906E+01  9.05412E+01
#           9.27442E+01  9.50007E+01  9.73122E+01  9.96799E+01  1.02105E+02
#           1.04589E+02  1.07134E+02  1.09741E+02  1.12411E+02  1.15146E+02
#           1.17948E+02  1.20817E+02  1.23757E+02  1.26768E+02  1.29852E+02
#           1.33012E+02  1.36248E+02  1.39563E+02  1.42959E+02  1.46437E+02
#           1.50000E+02
     unit =    2            # unit is [1/cm^2/(MeV/n)/source]
     axis =  eng            # axis of output
     file = detector-05.out  # file name of output for the above axis
   output = f-curr          # surface crossing forward current spectrum
     part =  neutron  
# kf/name :  2112     
#    used :        main (  %)        temp (  %)       total (  %)
#  memory :         414 (  0)           0 (  0)         414 (  0)

#------------------------------------------------------------------------------
#newpage:
#   no. =    1   reg = 104 - 204

x: Energy [MeV/n]
y:  F-Curr [1/cm^2/(MeV/n)/source]         
p: xlog ylog afac(0.8) form(0.9)
h: n            x            y(neutron ),hh0l   n 
#  e-lower      e-upper      neutron     r.err 
   1.0000E-02   1.0243E-02   1.2616E-05  0.5000
   1.0243E-02   1.0493E-02   3.0311E-06  1.0000
   1.0493E-02   1.0748E-02   1.8018E-05  0.4083
   1.0748E-02   1.1009E-02   2.0546E-05  0.3780
   1.1009E-02   1.1277E-02   1.4317E-05  0.4472
   1.1277E-02   1.1552E-02   8.3936E-06  0.5774
   1.1552E-02   1.1833E-02   1.0931E-05  0.5000
   1.1833E-02   1.2121E-02   5.3415E-06  0.7071
   1.2121E-02   1.2415E-02   5.6368E-06  0.6586
   1.2415E-02   1.2718E-02   2.5441E-06  1.0000
   1.2718E-02   1.3027E-02   7.4503E-06  0.5774
   1.3027E-02   1.3344E-02   9.6767E-06  0.5000
   1.3344E-02   1.3669E-02   2.3558E-06  1.0000
   1.3669E-02   1.4001E-02   0.0000E+00  0.0000
   1.4001E-02   1.4342E-02   3.7824E-06  0.7194
   1.4342E-02   1.4691E-02   6.1942E-06  0.5798
   1.4691E-02   1.5048E-02   2.1459E-06  1.0000
   1.5048E-02   1.5414E-02   2.0978E-06  1.0000
   1.5414E-02   1.5789E-02   0.0000E+00  0.0000
   1.5789E-02   1.6174E-02   5.9978E-06  0.5774
   1.6174E-02   1.6567E-02   9.7595E-06  0.4472
   1.6567E-02   1.6970E-02   3.8013E-06  0.7071
   1.6970E-02   1.7383E-02   1.1166E-05  0.4082
   1.7383E-02   1.7806E-02   1.8037E-06  1.0000
   1.7806E-02   1.8239E-02   5.3218E-06  0.5774
   1.8239E-02   1.8683E-02   3.4577E-06  0.7071
   1.8683E-02   1.9138E-02   5.0748E-06  0.5774
   1.9138E-02   1.9603E-02   6.2548E-06  0.5021
   1.9603E-02   2.0080E-02   1.6118E-06  1.0000
   2.0080E-02   2.0569E-02   4.7217E-06  0.5774
   2.0569E-02   2.1069E-02   4.6063E-06  0.5774
   2.1069E-02   2.1582E-02   5.4360E-06  0.5079
   2.1582E-02   2.2107E-02   4.3884E-06  0.5774
   2.2107E-02   2.2645E-02   1.4288E-06  1.0000
   2.2645E-02   2.3196E-02   1.3939E-06  1.0000
   2.3196E-02   2.3760E-02   3.8279E-06  0.5795
   2.3760E-02   2.4338E-02   3.9842E-06  0.5774
   2.4338E-02   2.4930E-02   6.4809E-06  0.4472
   2.4930E-02   2.5537E-02   4.8274E-06  0.5017
   2.5537E-02   2.6158E-02   4.9375E-06  0.5000
   2.6158E-02   2.6795E-02   6.0242E-06  0.4472
   2.6795E-02   2.7447E-02   3.0708E-06  0.5903
   2.7447E-02   2.8114E-02   2.3022E-06  0.7071
   2.8114E-02   2.8799E-02   6.7342E-06  0.4082
   2.8799E-02   2.9499E-02   3.2876E-06  0.5774
   2.9499E-02   3.0217E-02   4.2804E-06  0.5000
   3.0217E-02   3.0952E-02   6.1073E-06  0.4089
   3.0952E-02   3.1705E-02   2.0422E-06  0.7071
   3.1705E-02   3.2477E-02   8.4661E-07  1.0000
   3.2477E-02   3.3267E-02   2.9138E-06  0.5774
   3.3267E-02   3.4076E-02   2.8404E-06  0.5774
   3.4076E-02   3.4905E-02   3.2810E-06  0.5077
   3.4905E-02   3.5755E-02   2.7151E-06  0.5774
   3.5755E-02   3.6625E-02   3.5268E-06  0.5000
   3.6625E-02   3.7516E-02   4.3061E-06  0.4472
   3.7516E-02   3.8428E-02   5.0504E-06  0.4082
   3.8428E-02   3.9363E-02   5.7519E-06  0.3780
   3.9363E-02   4.0321E-02   1.6054E-06  0.7071
   4.0321E-02   4.1302E-02   7.8375E-07  1.0000
   4.1302E-02   4.2307E-02   2.2927E-06  0.5774
   4.2307E-02   4.3337E-02   2.1771E-06  0.5778
   4.3337E-02   4.4391E-02   3.6387E-06  0.4472
   4.4391E-02   4.5471E-02   3.5566E-06  0.4472
   4.5471E-02   4.6577E-02   2.7670E-06  0.5000
   4.6577E-02   4.7711E-02   3.3893E-06  0.4472
   4.7711E-02   4.8871E-02   6.6195E-07  1.0000
   4.8871E-02   5.0061E-02   1.9391E-06  0.5774
   5.0061E-02   5.1279E-02   6.2675E-07  1.0000
   5.1279E-02   5.2526E-02   1.2319E-06  0.7071
   5.2526E-02   5.3804E-02   2.4063E-06  0.5000
   5.3804E-02   5.5113E-02   5.8381E-07  1.0000
   5.5113E-02   5.6454E-02   2.8659E-06  0.4472
   5.6454E-02   5.7828E-02   2.1258E-06  0.5021
   5.7828E-02   5.9235E-02   1.0929E-06  0.7071
   5.9235E-02   6.0676E-02   5.3250E-07  1.0000
   6.0676E-02   6.2152E-02   1.5622E-06  0.5774
   6.2152E-02   6.3665E-02   9.2700E-07  0.7104
   6.3665E-02   6.5214E-02   2.4793E-06  0.4472
   6.5214E-02   6.6800E-02   1.9335E-06  0.5000
   6.6800E-02   6.8426E-02   1.7473E-06  0.5045
   6.8426E-02   7.0090E-02   1.3836E-06  0.5774
   7.0090E-02   7.1796E-02   1.3512E-06  0.5774
   7.1796E-02   7.3543E-02   2.6347E-06  0.4083
   7.3543E-02   7.5332E-02   4.2958E-07  1.0000
   7.5332E-02   7.7165E-02   8.3666E-07  0.7071
   7.7165E-02   7.9042E-02   1.2275E-06  0.5774
   7.9042E-02   8.0965E-02   1.5944E-06  0.5000
   8.0965E-02   8.2935E-02   7.1840E-07  0.7095
   8.2935E-02   8.4953E-02   0.0000E+00  0.0000
   8.4953E-02   8.7020E-02   7.4318E-07  0.7071
   8.7020E-02   8.9138E-02   1.0889E-06  0.5774
   8.9138E-02   9.1306E-02   1.0632E-06  0.5774
   9.1306E-02   9.3528E-02   1.3837E-06  0.5000
   9.3528E-02   9.5804E-02   6.7584E-07  0.7071
   9.5804E-02   9.8134E-02   3.2953E-07  1.0000
   9.8134E-02   1.0052E-01   1.6067E-06  0.4472
   1.0052E-01   1.0297E-01   1.5705E-06  0.4472
   1.0297E-01   1.0547E-01   1.2262E-06  0.5000
   1.0547E-01   1.0804E-01   1.7962E-06  0.4082
   1.0804E-01   1.1067E-01   1.1693E-06  0.5000
   1.1067E-01   1.1336E-01   1.4245E-06  0.4472
   1.1336E-01   1.1612E-01   1.9483E-06  0.3780
   1.1612E-01   1.1894E-01   2.1724E-06  0.3536
   1.1894E-01   1.2184E-01   2.3874E-06  0.3333
   1.2184E-01   1.2480E-01   1.0365E-06  0.5000
   1.2480E-01   1.2784E-01   2.6887E-06  0.3023
   1.2784E-01   1.3095E-01   2.7150E-06  0.3015
   1.3095E-01   1.3414E-01   2.1684E-06  0.3333
   1.3414E-01   1.3740E-01   2.5286E-06  0.3023
   1.3740E-01   1.4074E-01   1.8369E-06  0.3536
   1.4074E-01   1.4417E-01   2.4672E-06  0.3015
   1.4417E-01   1.4767E-01   2.3780E-06  0.3018
   1.4767E-01   1.5127E-01   3.8464E-06  0.2357
   1.5127E-01   1.5495E-01   4.1719E-06  0.2236
   1.5495E-01   1.5872E-01   2.4415E-06  0.2887
   1.5872E-01   1.6258E-01   2.3860E-06  0.2887
   1.6258E-01   1.6654E-01   3.4636E-06  0.2358
   1.6654E-01   1.7059E-01   2.4291E-06  0.2777
   1.7059E-01   1.7474E-01   3.6998E-06  0.2236
   1.7474E-01   1.7899E-01   3.5846E-06  0.2237
   1.7899E-01   1.8334E-01   3.4974E-06  0.2238
   1.8334E-01   1.8781E-01   3.7860E-06  0.2132
   1.8781E-01   1.9237E-01   3.9657E-06  0.2048
   1.9237E-01   1.9706E-01   4.6552E-06  0.1869
   1.9706E-01   2.0185E-01   5.4392E-06  0.1715
   2.0185E-01   2.0676E-01   3.3717E-06  0.2136
   2.0676E-01   2.1179E-01   5.9788E-06  0.1594
   2.1179E-01   2.1694E-01   5.2758E-06  0.1662
   2.1694E-01   2.2222E-01   4.7998E-06  0.1741
   2.2222E-01   2.2763E-01   5.9632E-06  0.1543
   2.2763E-01   2.3317E-01   5.2628E-06  0.1622
   2.3317E-01   2.3884E-01   6.2213E-06  0.1474
   2.3884E-01   2.4465E-01   7.3553E-06  0.1337
   2.4465E-01   2.5061E-01   6.9626E-06  0.1361
   2.5061E-01   2.5670E-01   6.8994E-06  0.1349
   2.5670E-01   2.6295E-01   7.9351E-06  0.1241
   2.6295E-01   2.6935E-01   7.4167E-06  0.1270
   2.6935E-01   2.7590E-01   7.7476E-06  0.1224
   2.7590E-01   2.8261E-01   6.2763E-06  0.1343
   2.8261E-01   2.8949E-01   8.4104E-06  0.1148
   2.8949E-01   2.9653E-01   9.6006E-06  0.1061
   2.9653E-01   3.0375E-01   1.0678E-05  0.0996
   3.0375E-01   3.1114E-01   1.1780E-05  0.0935
   3.1114E-01   3.1871E-01   1.0035E-05  0.1003
   3.1871E-01   3.2646E-01   1.0390E-05  0.0973
   3.2646E-01   3.3441E-01   1.3736E-05  0.0836
   3.3441E-01   3.4254E-01   1.1387E-05  0.0909
   3.4254E-01   3.5088E-01   1.2505E-05  0.0858
   3.5088E-01   3.5941E-01   1.2565E-05  0.0843
   3.5941E-01   3.6816E-01   1.5362E-05  0.0754
   3.6816E-01   3.7712E-01   1.4372E-05  0.0772
   3.7712E-01   3.8629E-01   1.6241E-05  0.0716
   3.8629E-01   3.9569E-01   1.6180E-05  0.0708
   3.9569E-01   4.0532E-01   1.6069E-05  0.0702
   4.0532E-01   4.1518E-01   1.7682E-05  0.0662
   4.1518E-01   4.2528E-01   1.9057E-05  0.0630
   4.2528E-01   4.3563E-01   1.8425E-05  0.0633
   4.3563E-01   4.4623E-01   1.9205E-05  0.0613
   4.4623E-01   4.5708E-01   1.9096E-05  0.0606
   4.5708E-01   4.6821E-01   2.0747E-05  0.0576
   4.6821E-01   4.7960E-01   2.0797E-05  0.0568
   4.7960E-01   4.9127E-01   2.0957E-05  0.0558
   4.9127E-01   5.0322E-01   2.1563E-05  0.0544
   5.0322E-01   5.1546E-01   2.1176E-05  0.0543
   5.1546E-01   5.2800E-01   2.3002E-05  0.0515
   5.2800E-01   5.4085E-01   2.4732E-05  0.0490
   5.4085E-01   5.5401E-01   2.5959E-05  0.0473
   5.5401E-01   5.6749E-01   2.5056E-05  0.0475
   5.6749E-01   5.8130E-01   2.5435E-05  0.0466
   5.8130E-01   5.9544E-01   2.8432E-05  0.0436
   5.9544E-01   6.0993E-01   2.9019E-05  0.0427
   6.0993E-01   6.2477E-01   2.9342E-05  0.0419
   6.2477E-01   6.3997E-01   2.9737E-05  0.0411
   6.3997E-01   6.5554E-01   3.0434E-05  0.0401
   6.5554E-01   6.7149E-01   3.1841E-05  0.0388
   6.7149E-01   6.8783E-01   3.2162E-05  0.0381
   6.8783E-01   7.0456E-01   3.2345E-05  0.0375
   7.0456E-01   7.2171E-01   3.0790E-05  0.0380
   7.2171E-01   7.3927E-01   3.4389E-05  0.0355
   7.3927E-01   7.5725E-01   3.4220E-05  0.0352
   7.5725E-01   7.7568E-01   3.6832E-05  0.0335
   7.7568E-01   7.9455E-01   3.5720E-05  0.0336
   7.9455E-01   8.1388E-01   3.6532E-05  0.0329
   8.1388E-01   8.3368E-01   3.6139E-05  0.0327
   8.3368E-01   8.5397E-01   3.5990E-05  0.0323
   8.5397E-01   8.7475E-01   3.6516E-05  0.0317
   8.7475E-01   8.9603E-01   3.8045E-05  0.0307
   8.9603E-01   9.1783E-01   3.6575E-05  0.0309
   9.1783E-01   9.4016E-01   3.8819E-05  0.0296
   9.4016E-01   9.6304E-01   3.9282E-05  0.0291
   9.6304E-01   9.8647E-01   3.8005E-05  0.0292
   9.8647E-01   1.0105E+00   3.7461E-05  0.0291
   1.0105E+00   1.0351E+00   3.8542E-05  0.0283
   1.0351E+00   1.0602E+00   3.5853E-05  0.0290
   1.0602E+00   1.0860E+00   3.7862E-05  0.0279
   1.0860E+00   1.1125E+00   3.8401E-05  0.0274
   1.1125E+00   1.1395E+00   3.9804E-05  0.0266
   1.1395E+00   1.1673E+00   3.8822E-05  0.0266
   1.1673E+00   1.1957E+00   4.2204E-05  0.0252
   1.1957E+00   1.2247E+00   4.1630E-05  0.0250
   1.2247E+00   1.2545E+00   3.9398E-05  0.0254
   1.2545E+00   1.2851E+00   4.1407E-05  0.0245
   1.2851E+00   1.3163E+00   4.3225E-05  0.0237
   1.3163E+00   1.3484E+00   4.2055E-05  0.0237
   1.3484E+00   1.3812E+00   4.2873E-05  0.0232
   1.3812E+00   1.4148E+00   4.2755E-05  0.0229
   1.4148E+00   1.4492E+00   4.3889E-05  0.0224
   1.4492E+00   1.4845E+00   4.5153E-05  0.0218
   1.4845E+00   1.5206E+00   4.3637E-05  0.0219
   1.5206E+00   1.5576E+00   4.4159E-05  0.0215
   1.5576E+00   1.5955E+00   4.3277E-05  0.0214
   1.5955E+00   1.6343E+00   4.3115E-05  0.0212
   1.6343E+00   1.6741E+00   4.3821E-05  0.0208
   1.6741E+00   1.7148E+00   4.3028E-05  0.0207
   1.7148E+00   1.7565E+00   4.3094E-05  0.0205
   1.7565E+00   1.7992E+00   4.1979E-05  0.0204
   1.7992E+00   1.8430E+00   3.8343E-05  0.0211
   1.8430E+00   1.8879E+00   3.6315E-05  0.0213
   1.8879E+00   1.9338E+00   3.7198E-05  0.0208
   1.9338E+00   1.9808E+00   3.7105E-05  0.0205
   1.9808E+00   2.0290E+00   3.5063E-05  0.0208
   2.0290E+00   2.0784E+00   3.5805E-05  0.0203
   2.0784E+00   2.1290E+00   3.7001E-05  0.0197
   2.1290E+00   2.1808E+00   3.6728E-05  0.0195
   2.1808E+00   2.2338E+00   3.8024E-05  0.0189
   2.2338E+00   2.2882E+00   3.7956E-05  0.0187
   2.2882E+00   2.3439E+00   3.5603E-05  0.0192
   2.3439E+00   2.4009E+00   3.6079E-05  0.0189
   2.4009E+00   2.4593E+00   3.5789E-05  0.0187
   2.4593E+00   2.5191E+00   3.4663E-05  0.0188
   2.5191E+00   2.5804E+00   3.6513E-05  0.0181
   2.5804E+00   2.6432E+00   3.6283E-05  0.0179
   2.6432E+00   2.7075E+00   3.3626E-05  0.0184
   2.7075E+00   2.7734E+00   3.6207E-05  0.0175
   2.7734E+00   2.8409E+00   3.5048E-05  0.0176
   2.8409E+00   2.9100E+00   3.5429E-05  0.0173
   2.9100E+00   2.9808E+00   3.4783E-05  0.0172
   2.9808E+00   3.0533E+00   3.4924E-05  0.0170
   3.0533E+00   3.1276E+00   3.3712E-05  0.0171
   3.1276E+00   3.2037E+00   3.5227E-05  0.0166
   3.2037E+00   3.2817E+00   3.3544E-05  0.0168
   3.2817E+00   3.3615E+00   3.3387E-05  0.0167
   3.3615E+00   3.4433E+00   3.3809E-05  0.0164
   3.4433E+00   3.5271E+00   3.4588E-05  0.0160
   3.5271E+00   3.6129E+00   3.3476E-05  0.0161
   3.6129E+00   3.7008E+00   3.2923E-05  0.0160
   3.7008E+00   3.7908E+00   3.3037E-05  0.0158
   3.7908E+00   3.8831E+00   3.3270E-05  0.0156
   3.8831E+00   3.9776E+00   3.2164E-05  0.0157
   3.9776E+00   4.0743E+00   3.2953E-05  0.0153
   4.0743E+00   4.1735E+00   3.2115E-05  0.0153
   4.1735E+00   4.2750E+00   3.1433E-05  0.0153
   4.2750E+00   4.3790E+00   3.1489E-05  0.0151
   4.3790E+00   4.4856E+00   3.0687E-05  0.0151
   4.4856E+00   4.5947E+00   3.0679E-05  0.0149
   4.5947E+00   4.7065E+00   2.9705E-05  0.0150
   4.7065E+00   4.8210E+00   2.9678E-05  0.0148
   4.8210E+00   4.9383E+00   2.8379E-05  0.0150
   4.9383E+00   5.0585E+00   2.9814E-05  0.0144
   5.0585E+00   5.1815E+00   2.8337E-05  0.0146
   5.1815E+00   5.3076E+00   2.8308E-05  0.0144
   5.3076E+00   5.4368E+00   2.8238E-05  0.0143
   5.4368E+00   5.5690E+00   2.7631E-05  0.0143
   5.5690E+00   5.7045E+00   2.8169E-05  0.0140
   5.7045E+00   5.8433E+00   2.7724E-05  0.0139
   5.8433E+00   5.9855E+00   2.7296E-05  0.0139
   5.9855E+00   6.1311E+00   2.7495E-05  0.0137
   6.1311E+00   6.2803E+00   2.7716E-05  0.0135
   6.2803E+00   6.4331E+00   2.7653E-05  0.0133
   6.4331E+00   6.5896E+00   2.7595E-05  0.0132
   6.5896E+00   6.7500E+00   2.6854E-05  0.0132
   6.7500E+00   6.9142E+00   2.7023E-05  0.0130
   6.9142E+00   7.0824E+00   2.6170E-05  0.0131
   7.0824E+00   7.2548E+00   2.6680E-05  0.0128
   7.2548E+00   7.4313E+00   2.6653E-05  0.0126
   7.4313E+00   7.6121E+00   2.6200E-05  0.0126
   7.6121E+00   7.7973E+00   2.6406E-05  0.0124
   7.7973E+00   7.9870E+00   2.5570E-05  0.0125
   7.9870E+00   8.1813E+00   2.5891E-05  0.0122
   8.1813E+00   8.3804E+00   2.5588E-05  0.0122
   8.3804E+00   8.5843E+00   2.5120E-05  0.0121
   8.5843E+00   8.7931E+00   2.4803E-05  0.0120
   8.7931E+00   9.0071E+00   2.4796E-05  0.0119
   9.0071E+00   9.2262E+00   2.4300E-05  0.0119
   9.2262E+00   9.4507E+00   2.3830E-05  0.0119
   9.4507E+00   9.6807E+00   2.3234E-05  0.0119
   9.6807E+00   9.9162E+00   2.3284E-05  0.0118
   9.9162E+00   1.0157E+01   2.4389E-05  0.0114
   1.0157E+01   1.0405E+01   2.4387E-05  0.0113
   1.0405E+01   1.0658E+01   2.3820E-05  0.0113
   1.0658E+01   1.0917E+01   2.3757E-05  0.0111
   1.0917E+01   1.1183E+01   2.2419E-05  0.0113
   1.1183E+01   1.1455E+01   2.2611E-05  0.0112
   1.1455E+01   1.1733E+01   2.2005E-05  0.0112
   1.1733E+01   1.2019E+01   2.1941E-05  0.0111
   1.2019E+01   1.2311E+01   2.1711E-05  0.0110
   1.2311E+01   1.2611E+01   2.1327E-05  0.0110
   1.2611E+01   1.2918E+01   2.1106E-05  0.0109
   1.2918E+01   1.3232E+01   2.0912E-05  0.0108
   1.3232E+01   1.3554E+01   2.0500E-05  0.0108
   1.3554E+01   1.3884E+01   2.0450E-05  0.0107
   1.3884E+01   1.4222E+01   1.9996E-05  0.0107
   1.4222E+01   1.4568E+01   1.9962E-05  0.0105
   1.4568E+01   1.4922E+01   1.9315E-05  0.0106
   1.4922E+01   1.5285E+01   1.8892E-05  0.0106
   1.5285E+01   1.5657E+01   1.8836E-05  0.0105
   1.5657E+01   1.6038E+01   1.8656E-05  0.0104
   1.6038E+01   1.6428E+01   1.8268E-05  0.0104
   1.6428E+01   1.6828E+01   1.7437E-05  0.0105
   1.6828E+01   1.7237E+01   1.7413E-05  0.0104
   1.7237E+01   1.7657E+01   1.7016E-05  0.0104
   1.7657E+01   1.8086E+01   1.6500E-05  0.0104
   1.8086E+01   1.8526E+01   1.6487E-05  0.0103
   1.8526E+01   1.8977E+01   1.5716E-05  0.0104
   1.8977E+01   1.9439E+01   1.5465E-05  0.0104
   1.9439E+01   1.9912E+01   1.5422E-05  0.0103
   1.9912E+01   2.0396E+01   1.4868E-05  0.0103
   2.0396E+01   2.0893E+01   1.4724E-05  0.0103
   2.0893E+01   2.1401E+01   1.4346E-05  0.0103
   2.1401E+01   2.1922E+01   1.3993E-05  0.0103
   2.1922E+01   2.2455E+01   1.3610E-05  0.0103
   2.2455E+01   2.3001E+01   1.3547E-05  0.0102
   2.3001E+01   2.3561E+01   1.2893E-05  0.0103
   2.3561E+01   2.4134E+01   1.2377E-05  0.0104
   2.4134E+01   2.4721E+01   1.2250E-05  0.0103
   2.4721E+01   2.5323E+01   1.2001E-05  0.0103
   2.5323E+01   2.5939E+01   1.1494E-05  0.0104
   2.5939E+01   2.6570E+01   1.1278E-05  0.0104
   2.6570E+01   2.7217E+01   1.0747E-05  0.0105
   2.7217E+01   2.7879E+01   1.0628E-05  0.0105
   2.7879E+01   2.8557E+01   1.5745E-05  0.0085
   2.8557E+01   2.9252E+01   1.8927E-05  0.0076
   2.9252E+01   2.9964E+01   1.8900E-05  0.0076
   2.9964E+01   3.0693E+01   1.8799E-05  0.0075
   3.0693E+01   3.1440E+01   1.8877E-05  0.0074
   3.1440E+01   3.2205E+01   1.8598E-05  0.0074
   3.2205E+01   3.2988E+01   1.8437E-05  0.0073
   3.2988E+01   3.3791E+01   1.8542E-05  0.0072
   3.3791E+01   3.4613E+01   1.8133E-05  0.0072
   3.4613E+01   3.5455E+01   1.8227E-05  0.0071
   3.5455E+01   3.6318E+01   1.8038E-05  0.0070
   3.6318E+01   3.7201E+01   1.8101E-05  0.0069
   3.7201E+01   3.8106E+01   1.8014E-05  0.0069
   3.8106E+01   3.9034E+01   1.7738E-05  0.0068
   3.9034E+01   3.9983E+01   1.7264E-05  0.0068
   3.9983E+01   4.0956E+01   1.7249E-05  0.0068
   4.0956E+01   4.1953E+01   1.6938E-05  0.0068
   4.1953E+01   4.2973E+01   1.6691E-05  0.0067
   4.2973E+01   4.4019E+01   1.6310E-05  0.0067
   4.4019E+01   4.5090E+01   1.5967E-05  0.0067
   4.5090E+01   4.6187E+01   1.5529E-05  0.0067
   4.6187E+01   4.7311E+01   1.5187E-05  0.0067
   4.7311E+01   4.8462E+01   1.2407E-05  0.0073
   4.8462E+01   4.9641E+01   6.9472E-06  0.0097
   4.9641E+01   5.0849E+01   6.7038E-06  0.0097
   5.0849E+01   5.2086E+01   6.2872E-06  0.0099
   5.2086E+01   5.3353E+01   5.8161E-06  0.0102
   5.3353E+01   5.4651E+01   5.3343E-06  0.0105
   5.4651E+01   5.5981E+01   1.7152E-06  0.0184
   5.5981E+01   5.7343E+01   5.6475E-10  1.0000
   5.7343E+01   5.8738E+01   0.0000E+00  0.0000
   5.8738E+01   6.0168E+01   5.3824E-10  1.0000
   6.0168E+01   6.1632E+01   0.0000E+00  0.0000
   6.1632E+01   6.3131E+01   0.0000E+00  0.0000
   6.3131E+01   6.4667E+01   0.0000E+00  0.0000
   6.4667E+01   6.6240E+01   0.0000E+00  0.0000
   6.6240E+01   6.7852E+01   0.0000E+00  0.0000
   6.7852E+01   6.9503E+01   0.0000E+00  0.0000
   6.9503E+01   7.1194E+01   0.0000E+00  0.0000
   7.1194E+01   7.2926E+01   0.0000E+00  0.0000
   7.2926E+01   7.4701E+01   0.0000E+00  0.0000
   7.4701E+01   7.6518E+01   0.0000E+00  0.0000
   7.6518E+01   7.8380E+01   0.0000E+00  0.0000
   7.8380E+01   8.0287E+01   0.0000E+00  0.0000
   8.0287E+01   8.2240E+01   0.0000E+00  0.0000
   8.2240E+01   8.4241E+01   0.0000E+00  0.0000
   8.4241E+01   8.6291E+01   0.0000E+00  0.0000
   8.6291E+01   8.8391E+01   0.0000E+00  0.0000
   8.8391E+01   9.0541E+01   0.0000E+00  0.0000
   9.0541E+01   9.2744E+01   0.0000E+00  0.0000
   9.2744E+01   9.5001E+01   0.0000E+00  0.0000
   9.5001E+01   9.7312E+01   0.0000E+00  0.0000
   9.7312E+01   9.9680E+01   0.0000E+00  0.0000
   9.9680E+01   1.0211E+02   0.0000E+00  0.0000
   1.0211E+02   1.0459E+02   0.0000E+00  0.0000
   1.0459E+02   1.0713E+02   0.0000E+00  0.0000
   1.0713E+02   1.0974E+02   0.0000E+00  0.0000
   1.0974E+02   1.1241E+02   0.0000E+00  0.0000
   1.1241E+02   1.1515E+02   0.0000E+00  0.0000
   1.1515E+02   1.1795E+02   0.0000E+00  0.0000
   1.1795E+02   1.2082E+02   0.0000E+00  0.0000
   1.2082E+02   1.2376E+02   0.0000E+00  0.0000
   1.2376E+02   1.2677E+02   0.0000E+00  0.0000
   1.2677E+02   1.2985E+02   0.0000E+00  0.0000
   1.2985E+02   1.3301E+02   0.0000E+00  0.0000
   1.3301E+02   1.3625E+02   0.0000E+00  0.0000
   1.3625E+02   1.3956E+02   0.0000E+00  0.0000
   1.3956E+02   1.4296E+02   0.0000E+00  0.0000
   1.4296E+02   1.4644E+02   0.0000E+00  0.0000
   1.4644E+02   1.5000E+02   0.0000E+00  0.0000

#   sum over                 6.5205E-06
'no. =    1   reg = 104 - 204'
msuc: {\huge [t-cross] in region mesh}
msdr: {\it plotted by \ANGEL \version}
msdl: {\it calculated by \PHITS  3.26}
wt: s(0.7)
\vspace{-3}
  region surface crossing
  area  &=&   1.0000E+00 [cm^2]
e:
 
# Information for Restart Calculation
# This calculation was newly started
# istdev =  2 # 1:Batch variance, 2:History variance
# resc2  = 1.30000000000000000E+09 # Total source weight or Total source weight / maxcas
# resc3  = 1.30000000000000000E+09 # Total history number or Total batch number
# maxcas =   100000000 # History / Batch, only used for istdev=1
# bitrseed = 0011100100011011011100110110011010100101001111100010111010011000 # bit data of rseed
