[ T-Cross ]
    title = [t-cross] in region mesh
     mesh =  reg            # mesh type is region-wise
      reg =    1            # number of crossing regions
      non     r-from    r-to       area
      1       100       200        1.000000    
   e-type =    3            # e-mesh is log given by emin, emax and ne
     emin =  1.0000000E-02  # minimum value of e-mesh points
     emax =   150.0000      # maximum value of e-mesh points
#    edel =  2.4039514E-02  # mesh width of e-mesh points
       ne =    400          # number of e-mesh points
#    data = ( e(i), i = 1, ne + 1 )
#           1.00000E-02  1.02433E-02  1.04925E-02  1.07478E-02  1.10093E-02
#           1.12772E-02  1.15516E-02  1.18326E-02  1.21205E-02  1.24154E-02
#           1.27175E-02  1.30269E-02  1.33439E-02  1.36686E-02  1.40011E-02
#           1.43418E-02  1.46907E-02  1.50482E-02  1.54143E-02  1.57894E-02
#           1.61735E-02  1.65670E-02  1.69701E-02  1.73830E-02  1.78060E-02
#           1.82392E-02  1.86830E-02  1.91375E-02  1.96032E-02  2.00801E-02
#           2.05687E-02  2.10692E-02  2.15818E-02  2.21069E-02  2.26448E-02
#           2.31957E-02  2.37601E-02  2.43382E-02  2.49304E-02  2.55369E-02
#           2.61583E-02  2.67947E-02  2.74467E-02  2.81145E-02  2.87985E-02
#           2.94992E-02  3.02169E-02  3.09521E-02  3.17052E-02  3.24766E-02
#           3.32668E-02  3.40762E-02  3.49053E-02  3.57546E-02  3.66246E-02
#           3.75157E-02  3.84284E-02  3.93634E-02  4.03212E-02  4.13022E-02
#           4.23071E-02  4.33365E-02  4.43909E-02  4.54710E-02  4.65773E-02
#           4.77106E-02  4.88714E-02  5.00605E-02  5.12785E-02  5.25262E-02
#           5.38042E-02  5.51133E-02  5.64542E-02  5.78278E-02  5.92348E-02
#           6.06760E-02  6.21523E-02  6.36645E-02  6.52135E-02  6.68002E-02
#           6.84255E-02  7.00904E-02  7.17957E-02  7.35426E-02  7.53319E-02
#           7.71648E-02  7.90423E-02  8.09655E-02  8.29354E-02  8.49533E-02
#           8.70203E-02  8.91376E-02  9.13064E-02  9.35279E-02  9.58035E-02
#           9.81345E-02  1.00522E-01  1.02968E-01  1.05473E-01  1.08040E-01
#           1.10668E-01  1.13361E-01  1.16119E-01  1.18944E-01  1.21838E-01
#           1.24803E-01  1.27839E-01  1.30950E-01  1.34136E-01  1.37399E-01
#           1.40742E-01  1.44167E-01  1.47675E-01  1.51268E-01  1.54948E-01
#           1.58718E-01  1.62580E-01  1.66535E-01  1.70587E-01  1.74738E-01
#           1.78989E-01  1.83344E-01  1.87805E-01  1.92375E-01  1.97055E-01
#           2.01850E-01  2.06761E-01  2.11792E-01  2.16945E-01  2.22223E-01
#           2.27630E-01  2.33169E-01  2.38842E-01  2.44653E-01  2.50605E-01
#           2.56703E-01  2.62949E-01  2.69346E-01  2.75900E-01  2.82613E-01
#           2.89489E-01  2.96532E-01  3.03747E-01  3.11138E-01  3.18708E-01
#           3.26462E-01  3.34405E-01  3.42542E-01  3.50876E-01  3.59413E-01
#           3.68158E-01  3.77116E-01  3.86291E-01  3.95690E-01  4.05317E-01
#           4.15179E-01  4.25281E-01  4.35628E-01  4.46227E-01  4.57084E-01
#           4.68205E-01  4.79597E-01  4.91266E-01  5.03219E-01  5.15463E-01
#           5.28005E-01  5.40851E-01  5.54011E-01  5.67490E-01  5.81298E-01
#           5.95441E-01  6.09929E-01  6.24769E-01  6.39970E-01  6.55541E-01
#           6.71491E-01  6.87828E-01  7.04564E-01  7.21706E-01  7.39266E-01
#           7.57253E-01  7.75678E-01  7.94551E-01  8.13883E-01  8.33685E-01
#           8.53969E-01  8.74747E-01  8.96030E-01  9.17831E-01  9.40163E-01
#           9.63038E-01  9.86469E-01  1.01047E+00  1.03506E+00  1.06024E+00
#           1.08604E+00  1.11246E+00  1.13953E+00  1.16725E+00  1.19565E+00
#           1.22474E+00  1.25454E+00  1.28507E+00  1.31633E+00  1.34836E+00
#           1.38117E+00  1.41477E+00  1.44920E+00  1.48446E+00  1.52057E+00
#           1.55757E+00  1.59547E+00  1.63429E+00  1.67405E+00  1.71478E+00
#           1.75650E+00  1.79924E+00  1.84302E+00  1.88786E+00  1.93379E+00
#           1.98084E+00  2.02904E+00  2.07841E+00  2.12898E+00  2.18078E+00
#           2.23384E+00  2.28819E+00  2.34386E+00  2.40089E+00  2.45930E+00
#           2.51914E+00  2.58043E+00  2.64322E+00  2.70753E+00  2.77341E+00
#           2.84088E+00  2.91001E+00  2.98081E+00  3.05333E+00  3.12762E+00
#           3.20372E+00  3.28167E+00  3.36152E+00  3.44330E+00  3.52708E+00
#           3.61290E+00  3.70080E+00  3.79085E+00  3.88308E+00  3.97756E+00
#           4.07434E+00  4.17347E+00  4.27501E+00  4.37903E+00  4.48557E+00
#           4.59471E+00  4.70650E+00  4.82102E+00  4.93832E+00  5.05847E+00
#           5.18155E+00  5.30762E+00  5.43676E+00  5.56904E+00  5.70453E+00
#           5.84333E+00  5.98550E+00  6.13114E+00  6.28031E+00  6.43312E+00
#           6.58964E+00  6.74997E+00  6.91420E+00  7.08243E+00  7.25475E+00
#           7.43126E+00  7.61207E+00  7.79728E+00  7.98700E+00  8.18133E+00
#           8.38038E+00  8.58428E+00  8.79315E+00  9.00709E+00  9.22624E+00
#           9.45072E+00  9.68067E+00  9.91620E+00  1.01575E+01  1.04046E+01
#           1.06578E+01  1.09171E+01  1.11827E+01  1.14548E+01  1.17335E+01
#           1.20190E+01  1.23114E+01  1.26109E+01  1.29178E+01  1.32321E+01
#           1.35540E+01  1.38838E+01  1.42216E+01  1.45676E+01  1.49221E+01
#           1.52851E+01  1.56570E+01  1.60380E+01  1.64282E+01  1.68279E+01
#           1.72374E+01  1.76568E+01  1.80864E+01  1.85264E+01  1.89772E+01
#           1.94389E+01  1.99119E+01  2.03963E+01  2.08926E+01  2.14009E+01
#           2.19216E+01  2.24550E+01  2.30014E+01  2.35610E+01  2.41343E+01
#           2.47215E+01  2.53230E+01  2.59391E+01  2.65702E+01  2.72167E+01
#           2.78789E+01  2.85572E+01  2.92520E+01  2.99637E+01  3.06928E+01
#           3.14396E+01  3.22045E+01  3.29881E+01  3.37907E+01  3.46128E+01
#           3.54550E+01  3.63177E+01  3.72013E+01  3.81064E+01  3.90336E+01
#           3.99833E+01  4.09561E+01  4.19526E+01  4.29734E+01  4.40189E+01
#           4.50900E+01  4.61870E+01  4.73108E+01  4.84619E+01  4.96410E+01
#           5.08488E+01  5.20860E+01  5.33533E+01  5.46514E+01  5.59812E+01
#           5.73432E+01  5.87384E+01  6.01676E+01  6.16315E+01  6.31311E+01
#           6.46671E+01  6.62405E+01  6.78522E+01  6.95031E+01  7.11941E+01
#           7.29263E+01  7.47007E+01  7.65182E+01  7.83800E+01  8.02870E+01
#           8.22405E+01  8.42414E+01  8.62911E+01  8.83906E+01  9.05412E+01
#           9.27442E+01  9.50007E+01  9.73122E+01  9.96799E+01  1.02105E+02
#           1.04589E+02  1.07134E+02  1.09741E+02  1.12411E+02  1.15146E+02
#           1.17948E+02  1.20817E+02  1.23757E+02  1.26768E+02  1.29852E+02
#           1.33012E+02  1.36248E+02  1.39563E+02  1.42959E+02  1.46437E+02
#           1.50000E+02
     unit =    2            # unit is [1/cm^2/(MeV/n)/source]
     axis =  eng            # axis of output
     file = detector-01.out  # file name of output for the above axis
   output = f-curr          # surface crossing forward current spectrum
     part =  neutron  
# kf/name :  2112     
#    used :        main (  %)        temp (  %)       total (  %)
#  memory :         414 (  0)           0 (  0)         414 (  0)

#------------------------------------------------------------------------------
#newpage:
#   no. =    1   reg = 100 - 200

x: Energy [MeV/n]
y:  F-Curr [1/cm^2/(MeV/n)/source]         
p: xlog ylog afac(0.8) form(0.9)
h: n            x            y(neutron ),hh0l   n 
#  e-lower      e-upper      neutron     r.err 
   1.0000E-02   1.0243E-02   6.7404E-05  0.1104
   1.0243E-02   1.0493E-02   6.9013E-05  0.1078
   1.0493E-02   1.0748E-02   7.5208E-05  0.1021
   1.0748E-02   1.1009E-02   7.1127E-05  0.1037
   1.1009E-02   1.1277E-02   6.9438E-05  0.1037
   1.1277E-02   1.1552E-02   7.7993E-05  0.0967
   1.1552E-02   1.1833E-02   6.4043E-05  0.1054
   1.1833E-02   1.2121E-02   7.5721E-05  0.0958
   1.2121E-02   1.2415E-02   4.9508E-05  0.1170
   1.2415E-02   1.2718E-02   5.9587E-05  0.1054
   1.2718E-02   1.3027E-02   6.9160E-05  0.0967
   1.3027E-02   1.3344E-02   6.2469E-05  0.1005
   1.3344E-02   1.3669E-02   7.7618E-05  0.0891
   1.3669E-02   1.4001E-02   6.9159E-05  0.0933
   1.4001E-02   1.4342E-02   6.5755E-05  0.0945
   1.4342E-02   1.4691E-02   6.7059E-05  0.0925
   1.4691E-02   1.5048E-02   7.6097E-05  0.0857
   1.5048E-02   1.5414E-02   6.7735E-05  0.0898
   1.5414E-02   1.5789E-02   5.7593E-05  0.0962
   1.5789E-02   1.6174E-02   5.4143E-05  0.0981
   1.6174E-02   1.6567E-02   4.8791E-05  0.1021
   1.6567E-02   1.6970E-02   5.7059E-05  0.0933
   1.6970E-02   1.7383E-02   6.1517E-05  0.0887
   1.7383E-02   1.7806E-02   4.7288E-05  0.1010
   1.7806E-02   1.8239E-02   5.7244E-05  0.0898
   1.8239E-02   1.8683E-02   5.4758E-05  0.0906
   1.8683E-02   1.9138E-02   5.8957E-05  0.0864
   1.9138E-02   1.9603E-02   5.5838E-05  0.0877
   1.9603E-02   2.0080E-02   5.7447E-05  0.0854
   2.0080E-02   2.0569E-02   5.4445E-05  0.0867
   2.0569E-02   2.1069E-02   5.1553E-05  0.0880
   2.1069E-02   2.1582E-02   5.3450E-05  0.0854
   2.1582E-02   2.2107E-02   4.4944E-05  0.0921
   2.2107E-02   2.2645E-02   4.7966E-05  0.0880
   2.2645E-02   2.3196E-02   5.3361E-05  0.0825
   2.3196E-02   2.3760E-02   4.9258E-05  0.0848
   2.3760E-02   2.4338E-02   5.2240E-05  0.0814
   2.4338E-02   2.4930E-02   4.7284E-05  0.0845
   2.4930E-02   2.5537E-02   4.3193E-05  0.0874
   2.5537E-02   2.6158E-02   4.5064E-05  0.0845
   2.6158E-02   2.6795E-02   4.6822E-05  0.0819
   2.6795E-02   2.7447E-02   4.2949E-05  0.0845
   2.7447E-02   2.8114E-02   4.7919E-05  0.0791
   2.8114E-02   2.8799E-02   4.5319E-05  0.0803
   2.8799E-02   2.9499E-02   4.7667E-05  0.0774
   2.9499E-02   3.0217E-02   4.3748E-05  0.0798
   3.0217E-02   3.0952E-02   4.5430E-05  0.0774
   3.0952E-02   3.1705E-02   3.6915E-05  0.0848
   3.1705E-02   3.2477E-02   4.6927E-05  0.0743
   3.2477E-02   3.3267E-02   4.2269E-05  0.0774
   3.3267E-02   3.4076E-02   4.2747E-05  0.0760
   3.4076E-02   3.4905E-02   4.5592E-05  0.0727
   3.4905E-02   3.5755E-02   4.4273E-05  0.0729
   3.5755E-02   3.6625E-02   4.1612E-05  0.0743
   3.6625E-02   3.7516E-02   3.6135E-05  0.0788
   3.7516E-02   3.8428E-02   3.5277E-05  0.0788
   3.8428E-02   3.9363E-02   3.9572E-05  0.0735
   3.9363E-02   4.0321E-02   3.8632E-05  0.0735
   4.0321E-02   4.1302E-02   4.0365E-05  0.0711
   4.1302E-02   4.2307E-02   3.8610E-05  0.0718
   4.2307E-02   4.3337E-02   3.4390E-05  0.0752
   4.3337E-02   4.4391E-02   3.4711E-05  0.0739
   4.4391E-02   4.5471E-02   3.5553E-05  0.0722
   4.5471E-02   4.6577E-02   3.7601E-05  0.0693
   4.6577E-02   4.7711E-02   3.4590E-05  0.0714
   4.7711E-02   4.8871E-02   3.7904E-05  0.0674
   4.8871E-02   5.0061E-02   3.1789E-05  0.0727
   5.0061E-02   5.1279E-02   3.2676E-05  0.0709
   5.1279E-02   5.2526E-02   3.3984E-05  0.0687
   5.2526E-02   5.3804E-02   3.1299E-05  0.0707
   5.3804E-02   5.5113E-02   3.2541E-05  0.0685
   5.5113E-02   5.6454E-02   2.9680E-05  0.0709
   5.6454E-02   5.7828E-02   2.9703E-05  0.0700
   5.7828E-02   5.9235E-02   3.0135E-05  0.0687
   5.9235E-02   6.0676E-02   3.0807E-05  0.0671
   6.0676E-02   6.2152E-02   2.8314E-05  0.0692
   6.2152E-02   6.3665E-02   2.6848E-05  0.0702
   6.3665E-02   6.5214E-02   2.6210E-05  0.0702
   6.5214E-02   6.6800E-02   2.8613E-05  0.0664
   6.6800E-02   6.8426E-02   2.7564E-05  0.0668
   6.8426E-02   7.0090E-02   2.8831E-05  0.0645
   7.0090E-02   7.1796E-02   2.6387E-05  0.0667
   7.1796E-02   7.3543E-02   2.3700E-05  0.0695
   7.3543E-02   7.5332E-02   2.4590E-05  0.0674
   7.5332E-02   7.7165E-02   2.4551E-05  0.0667
   7.7165E-02   7.9042E-02   2.3862E-05  0.0668
   7.9042E-02   8.0965E-02   2.5479E-05  0.0639
   8.0965E-02   8.2935E-02   2.3249E-05  0.0661
   8.2935E-02   8.4953E-02   2.4283E-05  0.0639
   8.4953E-02   8.7020E-02   2.5061E-05  0.0621
   8.7020E-02   8.9138E-02   2.1159E-05  0.0668
   8.9138E-02   9.1306E-02   2.4253E-05  0.0617
   9.1306E-02   9.3528E-02   2.3047E-05  0.0625
   9.3528E-02   9.5804E-02   2.1884E-05  0.0634
   9.5804E-02   9.8134E-02   2.1450E-05  0.0632
   9.8134E-02   1.0052E-01   2.2616E-05  0.0609
   1.0052E-01   1.0297E-01   1.8563E-05  0.0664
   1.0297E-01   1.0547E-01   1.9479E-05  0.0640
   1.0547E-01   1.0804E-01   1.8393E-05  0.0651
   1.0804E-01   1.1067E-01   1.7271E-05  0.0664
   1.1067E-01   1.1336E-01   1.9386E-05  0.0619
   1.1336E-01   1.1612E-01   1.7838E-05  0.0638
   1.1612E-01   1.1894E-01   1.8688E-05  0.0615
   1.1894E-01   1.2184E-01   1.8314E-05  0.0614
   1.2184E-01   1.2480E-01   1.6192E-05  0.0645
   1.2480E-01   1.2784E-01   1.6993E-05  0.0623
   1.2784E-01   1.3095E-01   1.5689E-05  0.0640
   1.3095E-01   1.3414E-01   1.6258E-05  0.0621
   1.3414E-01   1.3740E-01   1.6423E-05  0.0611
   1.3740E-01   1.4074E-01   1.5076E-05  0.0630
   1.4074E-01   1.4417E-01   1.4718E-05  0.0630
   1.4417E-01   1.4767E-01   1.4939E-05  0.0618
   1.4767E-01   1.5127E-01   1.3137E-05  0.0651
   1.5127E-01   1.5495E-01   1.4129E-05  0.0620
   1.5495E-01   1.5872E-01   1.2361E-05  0.0655
   1.5872E-01   1.6258E-01   1.2740E-05  0.0638
   1.6258E-01   1.6654E-01   1.3196E-05  0.0619
   1.6654E-01   1.7059E-01   1.4018E-05  0.0593
   1.7059E-01   1.7474E-01   1.2432E-05  0.0623
   1.7474E-01   1.7899E-01   1.1572E-05  0.0638
   1.7899E-01   1.8334E-01   1.2400E-05  0.0609
   1.8334E-01   1.8781E-01   1.1343E-05  0.0629
   1.8781E-01   1.9237E-01   1.0154E-05  0.0657
   1.9237E-01   1.9706E-01   1.1323E-05  0.0614
   1.9706E-01   2.0185E-01   1.0470E-05  0.0631
   2.0185E-01   2.0676E-01   8.7556E-06  0.0682
   2.0676E-01   2.1179E-01   8.4283E-06  0.0687
   2.1179E-01   2.1694E-01   9.0044E-06  0.0657
   2.1694E-01   2.2222E-01   7.3128E-06  0.0720
   2.2222E-01   2.2763E-01   1.0061E-05  0.0606
   2.2763E-01   2.3317E-01   8.0167E-06  0.0671
   2.3317E-01   2.3884E-01   8.4256E-06  0.0647
   2.3884E-01   2.4465E-01   7.9502E-06  0.0658
   2.4465E-01   2.5061E-01   8.2317E-06  0.0639
   2.5061E-01   2.5670E-01   7.9050E-06  0.0644
   2.5670E-01   2.6295E-01   6.1481E-06  0.0722
   2.6295E-01   2.6935E-01   7.2838E-06  0.0655
   2.6935E-01   2.7590E-01   7.3549E-06  0.0644
   2.7590E-01   2.8261E-01   6.2269E-06  0.0692
   2.8261E-01   2.8949E-01   6.3989E-06  0.0674
   2.8949E-01   2.9653E-01   5.8778E-06  0.0695
   2.9653E-01   3.0375E-01   6.3480E-06  0.0661
   3.0375E-01   3.1114E-01   5.7101E-06  0.0688
   3.1114E-01   3.1871E-01   6.1029E-06  0.0658
   3.1871E-01   3.2646E-01   4.3846E-06  0.0767
   3.2646E-01   3.3441E-01   5.0610E-06  0.0705
   3.3441E-01   3.4254E-01   4.5967E-06  0.0731
   3.4254E-01   3.5088E-01   4.4995E-06  0.0730
   3.5088E-01   3.5941E-01   4.7557E-06  0.0702
   3.5941E-01   3.6816E-01   4.0710E-06  0.0750
   3.6816E-01   3.7712E-01   4.3315E-06  0.0718
   3.7712E-01   3.8629E-01   3.9889E-06  0.0739
   3.8629E-01   3.9569E-01   3.7452E-06  0.0754
   3.9569E-01   4.0532E-01   3.5108E-06  0.0769
   4.0532E-01   4.1518E-01   3.9547E-06  0.0716
   4.1518E-01   4.2528E-01   3.1678E-06  0.0791
   4.2528E-01   4.3563E-01   2.8026E-06  0.0830
   4.3563E-01   4.4623E-01   3.3588E-06  0.0750
   4.4623E-01   4.5708E-01   2.8921E-06  0.0798
   4.5708E-01   4.6821E-01   3.1651E-06  0.0754
   4.6821E-01   4.7960E-01   2.8441E-06  0.0786
   4.7960E-01   4.9127E-01   2.4681E-06  0.0833
   4.9127E-01   5.0322E-01   2.5768E-06  0.0806
   5.0322E-01   5.1546E-01   2.1562E-06  0.0870
   5.1546E-01   5.2800E-01   2.2645E-06  0.0839
   5.2800E-01   5.4085E-01   2.1328E-06  0.0854
   5.4085E-01   5.5401E-01   2.0822E-06  0.0854
   5.5401E-01   5.6749E-01   1.8695E-06  0.0891
   5.6749E-01   5.8130E-01   2.0424E-06  0.0842
   5.8130E-01   5.9544E-01   1.6969E-06  0.0913
   5.9544E-01   6.0993E-01   1.6566E-06  0.0913
   6.0993E-01   6.2477E-01   1.5229E-06  0.0941
   6.2477E-01   6.3997E-01   1.6446E-06  0.0894
   6.3997E-01   6.5554E-01   1.6056E-06  0.0894
   6.5554E-01   6.7149E-01   1.2038E-06  0.1021
   6.7149E-01   6.8783E-01   1.7260E-06  0.0842
   6.8783E-01   7.0456E-01   1.4460E-06  0.0909
   7.0456E-01   7.2171E-01   1.1550E-06  0.1005
   7.2171E-01   7.3927E-01   1.2187E-06  0.0967
   7.3927E-01   7.5725E-01   1.2231E-06  0.0953
   7.5725E-01   7.7568E-01   1.3026E-06  0.0913
   7.7568E-01   7.9455E-01   1.1763E-06  0.0949
   7.9455E-01   8.1388E-01   1.0863E-06  0.0976
   8.1388E-01   8.3368E-01   1.0504E-06  0.0981
   8.3368E-01   8.5397E-01   1.0057E-06  0.0990
   8.5397E-01   8.7475E-01   1.0299E-06  0.0967
   8.7475E-01   8.9603E-01   9.5850E-07  0.0990
   8.9603E-01   9.1783E-01   8.1647E-07  0.1060
   9.1783E-01   9.4016E-01   8.7768E-07  0.1010
   9.4016E-01   9.6304E-01   7.8689E-07  0.1054
   9.6304E-01   9.8647E-01   6.3163E-07  0.1162
   9.8647E-01   1.0105E+00   7.9995E-07  0.1021
   1.0105E+00   1.0351E+00   7.6468E-07  0.1031
   1.0351E+00   1.0602E+00   7.4651E-07  0.1031
   1.0602E+00   1.0860E+00   9.0710E-07  0.0925
   1.0860E+00   1.1125E+00   9.6124E-07  0.0887
   1.1125E+00   1.1395E+00   8.2757E-07  0.0945
   1.1395E+00   1.1673E+00   1.0243E-06  0.0839
   1.1673E+00   1.1957E+00   1.0634E-06  0.0814
   1.1957E+00   1.2247E+00   1.2100E-06  0.0754
   1.2247E+00   1.2545E+00   1.1074E-06  0.0778
   1.2545E+00   1.2851E+00   1.2973E-06  0.0711
   1.2851E+00   1.3163E+00   1.2665E-06  0.0711
   1.3163E+00   1.3484E+00   1.3488E-06  0.0680
   1.3484E+00   1.3812E+00   1.4265E-06  0.0654
   1.3812E+00   1.4148E+00   1.3748E-06  0.0658
   1.4148E+00   1.4492E+00   1.5687E-06  0.0609
   1.4492E+00   1.4845E+00   1.3840E-06  0.0640
   1.4845E+00   1.5206E+00   1.5394E-06  0.0600
   1.5206E+00   1.5576E+00   1.4488E-06  0.0611
   1.5576E+00   1.5955E+00   1.5832E-06  0.0577
   1.5955E+00   1.6343E+00   1.6693E-06  0.0556
   1.6343E+00   1.6741E+00   1.7101E-06  0.0542
   1.6741E+00   1.7148E+00   1.7186E-06  0.0535
   1.7148E+00   1.7565E+00   1.7641E-06  0.0521
   1.7565E+00   1.7992E+00   1.7222E-06  0.0521
   1.7992E+00   1.8430E+00   1.6858E-06  0.0521
   1.8430E+00   1.8879E+00   1.7394E-06  0.0506
   1.8879E+00   1.9338E+00   1.8549E-06  0.0485
   1.9338E+00   1.9808E+00   1.8236E-06  0.0483
   1.9808E+00   2.0290E+00   1.8798E-06  0.0470
   2.0290E+00   2.0784E+00   1.8271E-06  0.0471
   2.0784E+00   2.1290E+00   1.8667E-06  0.0460
   2.1290E+00   2.1808E+00   1.8803E-06  0.0453
   2.1808E+00   2.2338E+00   1.9525E-06  0.0439
   2.2338E+00   2.2882E+00   1.8289E-06  0.0449
   2.2882E+00   2.3439E+00   1.9183E-06  0.0433
   2.3439E+00   2.4009E+00   1.9219E-06  0.0427
   2.4009E+00   2.4593E+00   1.8728E-06  0.0428
   2.4593E+00   2.5191E+00   1.7080E-06  0.0442
   2.5191E+00   2.5804E+00   1.8045E-06  0.0425
   2.5804E+00   2.6432E+00   1.7138E-06  0.0431
   2.6432E+00   2.7075E+00   1.6389E-06  0.0436
   2.7075E+00   2.7734E+00   1.6303E-06  0.0432
   2.7734E+00   2.8409E+00   1.7042E-06  0.0417
   2.8409E+00   2.9100E+00   1.5798E-06  0.0428
   2.9100E+00   2.9808E+00   1.4237E-06  0.0445
   2.9808E+00   3.0533E+00   1.5746E-06  0.0418
   3.0533E+00   3.1276E+00   1.5386E-06  0.0418
   3.1276E+00   3.2037E+00   1.4429E-06  0.0427
   3.2037E+00   3.2817E+00   1.3496E-06  0.0436
   3.2817E+00   3.3615E+00   1.3376E-06  0.0433
   3.3615E+00   3.4433E+00   1.3890E-06  0.0420
   3.4433E+00   3.5271E+00   1.3106E-06  0.0427
   3.5271E+00   3.6129E+00   1.3214E-06  0.0420
   3.6129E+00   3.7008E+00   1.2138E-06  0.0433
   3.7008E+00   3.7908E+00   1.3371E-06  0.0408
   3.7908E+00   3.8831E+00   1.1731E-06  0.0430
   3.8831E+00   3.9776E+00   1.1304E-06  0.0433
   3.9776E+00   4.0743E+00   1.1532E-06  0.0423
   4.0743E+00   4.1735E+00   1.0753E-06  0.0433
   4.1735E+00   4.2750E+00   1.0340E-06  0.0436
   4.2750E+00   4.3790E+00   1.0172E-06  0.0435
   4.3790E+00   4.4856E+00   9.8925E-07  0.0436
   4.4856E+00   4.5947E+00   9.6209E-07  0.0436
   4.5947E+00   4.7065E+00   9.0524E-07  0.0445
   4.7065E+00   4.8210E+00   8.9597E-07  0.0442
   4.8210E+00   4.9383E+00   8.8662E-07  0.0439
   4.9383E+00   5.0585E+00   8.5724E-07  0.0441
   5.0585E+00   5.1815E+00   9.2625E-07  0.0419
   5.1815E+00   5.3076E+00   8.7411E-07  0.0426
   5.3076E+00   5.4368E+00   8.4251E-07  0.0429
   5.4368E+00   5.5690E+00   8.0435E-07  0.0434
   5.5690E+00   5.7045E+00   8.2657E-07  0.0423
   5.7045E+00   5.8433E+00   7.9253E-07  0.0426
   5.8433E+00   5.9855E+00   7.3572E-07  0.0437
   5.9855E+00   6.1311E+00   8.4597E-07  0.0403
   6.1311E+00   6.2803E+00   7.9772E-07  0.0410
   6.2803E+00   6.4331E+00   8.3767E-07  0.0395
   6.4331E+00   6.5896E+00   8.1649E-07  0.0396
   6.5896E+00   6.7500E+00   8.4949E-07  0.0383
   6.7500E+00   6.9142E+00   8.3540E-07  0.0382
   6.9142E+00   7.0824E+00   8.0189E-07  0.0385
   7.0824E+00   7.2548E+00   8.3681E-07  0.0372
   7.2548E+00   7.4313E+00   7.7388E-07  0.0383
   7.4313E+00   7.6121E+00   8.2766E-07  0.0366
   7.6121E+00   7.7973E+00   9.0709E-07  0.0345
   7.7973E+00   7.9870E+00   8.4358E-07  0.0353
   7.9870E+00   8.1813E+00   9.0279E-07  0.0338
   8.1813E+00   8.3804E+00   8.4011E-07  0.0346
   8.3804E+00   8.5843E+00   8.4172E-07  0.0341
   8.5843E+00   8.7931E+00   8.7809E-07  0.0330
   8.7931E+00   9.0071E+00   8.8808E-07  0.0324
   9.0071E+00   9.2262E+00   8.7338E-07  0.0323
   9.2262E+00   9.4507E+00   8.7490E-07  0.0319
   9.4507E+00   9.6807E+00   8.8717E-07  0.0313
   9.6807E+00   9.9162E+00   9.1917E-07  0.0304
   9.9162E+00   1.0157E+01   8.3061E-07  0.0316
   1.0157E+01   1.0405E+01   8.2302E-07  0.0314
   1.0405E+01   1.0658E+01   8.1611E-07  0.0311
   1.0658E+01   1.0917E+01   8.5650E-07  0.0300
   1.0917E+01   1.1183E+01   8.5008E-07  0.0298
   1.1183E+01   1.1455E+01   8.4717E-07  0.0295
   1.1455E+01   1.1733E+01   8.2848E-07  0.0294
   1.1733E+01   1.2019E+01   8.3122E-07  0.0290
   1.2019E+01   1.2311E+01   8.0942E-07  0.0291
   1.2311E+01   1.2611E+01   7.7818E-07  0.0293
   1.2611E+01   1.2918E+01   7.5937E-07  0.0293
   1.2918E+01   1.3232E+01   7.5787E-07  0.0290
   1.3232E+01   1.3554E+01   7.3521E-07  0.0291
   1.3554E+01   1.3884E+01   7.1138E-07  0.0292
   1.3884E+01   1.4222E+01   7.1817E-07  0.0287
   1.4222E+01   1.4568E+01   7.0313E-07  0.0287
   1.4568E+01   1.4922E+01   6.6696E-07  0.0291
   1.4922E+01   1.5285E+01   6.7977E-07  0.0285
   1.5285E+01   1.5657E+01   6.6416E-07  0.0285
   1.5657E+01   1.6038E+01   5.9089E-07  0.0298
   1.6038E+01   1.6428E+01   6.0505E-07  0.0291
   1.6428E+01   1.6828E+01   5.5190E-07  0.0301
   1.6828E+01   1.7237E+01   5.3048E-07  0.0303
   1.7237E+01   1.7657E+01   5.0358E-07  0.0308
   1.7657E+01   1.8086E+01   4.6904E-07  0.0315
   1.8086E+01   1.8526E+01   4.2722E-07  0.0326
   1.8526E+01   1.8977E+01   4.2262E-07  0.0324
   1.8977E+01   1.9439E+01   3.8312E-07  0.0336
   1.9439E+01   1.9912E+01   3.2941E-07  0.0358
   1.9912E+01   2.0396E+01   3.3315E-07  0.0352
   2.0396E+01   2.0893E+01   2.7929E-07  0.0380
   2.0893E+01   2.1401E+01   2.6518E-07  0.0385
   2.1401E+01   2.1922E+01   2.2470E-07  0.0413
   2.1922E+01   2.2455E+01   1.8936E-07  0.0445
   2.2455E+01   2.3001E+01   1.3947E-07  0.0512
   2.3001E+01   2.3561E+01   7.1832E-08  0.0705
   2.3561E+01   2.4134E+01   7.6754E-09  0.2132
   2.4134E+01   2.4721E+01   0.0000E+00  0.0000
   2.4721E+01   2.5323E+01   0.0000E+00  0.0000
   2.5323E+01   2.5939E+01   0.0000E+00  0.0000
   2.5939E+01   2.6570E+01   0.0000E+00  0.0000
   2.6570E+01   2.7217E+01   0.0000E+00  0.0000
   2.7217E+01   2.7879E+01   0.0000E+00  0.0000
   2.7879E+01   2.8557E+01   0.0000E+00  0.0000
   2.8557E+01   2.9252E+01   0.0000E+00  0.0000
   2.9252E+01   2.9964E+01   0.0000E+00  0.0000
   2.9964E+01   3.0693E+01   0.0000E+00  0.0000
   3.0693E+01   3.1440E+01   0.0000E+00  0.0000
   3.1440E+01   3.2205E+01   0.0000E+00  0.0000
   3.2205E+01   3.2988E+01   0.0000E+00  0.0000
   3.2988E+01   3.3791E+01   0.0000E+00  0.0000
   3.3791E+01   3.4613E+01   0.0000E+00  0.0000
   3.4613E+01   3.5455E+01   0.0000E+00  0.0000
   3.5455E+01   3.6318E+01   0.0000E+00  0.0000
   3.6318E+01   3.7201E+01   0.0000E+00  0.0000
   3.7201E+01   3.8106E+01   0.0000E+00  0.0000
   3.8106E+01   3.9034E+01   0.0000E+00  0.0000
   3.9034E+01   3.9983E+01   0.0000E+00  0.0000
   3.9983E+01   4.0956E+01   0.0000E+00  0.0000
   4.0956E+01   4.1953E+01   0.0000E+00  0.0000
   4.1953E+01   4.2973E+01   0.0000E+00  0.0000
   4.2973E+01   4.4019E+01   0.0000E+00  0.0000
   4.4019E+01   4.5090E+01   0.0000E+00  0.0000
   4.5090E+01   4.6187E+01   0.0000E+00  0.0000
   4.6187E+01   4.7311E+01   0.0000E+00  0.0000
   4.7311E+01   4.8462E+01   0.0000E+00  0.0000
   4.8462E+01   4.9641E+01   0.0000E+00  0.0000
   4.9641E+01   5.0849E+01   0.0000E+00  0.0000
   5.0849E+01   5.2086E+01   0.0000E+00  0.0000
   5.2086E+01   5.3353E+01   0.0000E+00  0.0000
   5.3353E+01   5.4651E+01   0.0000E+00  0.0000
   5.4651E+01   5.5981E+01   0.0000E+00  0.0000
   5.5981E+01   5.7343E+01   0.0000E+00  0.0000
   5.7343E+01   5.8738E+01   0.0000E+00  0.0000
   5.8738E+01   6.0168E+01   0.0000E+00  0.0000
   6.0168E+01   6.1632E+01   0.0000E+00  0.0000
   6.1632E+01   6.3131E+01   0.0000E+00  0.0000
   6.3131E+01   6.4667E+01   0.0000E+00  0.0000
   6.4667E+01   6.6240E+01   0.0000E+00  0.0000
   6.6240E+01   6.7852E+01   0.0000E+00  0.0000
   6.7852E+01   6.9503E+01   0.0000E+00  0.0000
   6.9503E+01   7.1194E+01   0.0000E+00  0.0000
   7.1194E+01   7.2926E+01   0.0000E+00  0.0000
   7.2926E+01   7.4701E+01   0.0000E+00  0.0000
   7.4701E+01   7.6518E+01   0.0000E+00  0.0000
   7.6518E+01   7.8380E+01   0.0000E+00  0.0000
   7.8380E+01   8.0287E+01   0.0000E+00  0.0000
   8.0287E+01   8.2240E+01   0.0000E+00  0.0000
   8.2240E+01   8.4241E+01   0.0000E+00  0.0000
   8.4241E+01   8.6291E+01   0.0000E+00  0.0000
   8.6291E+01   8.8391E+01   0.0000E+00  0.0000
   8.8391E+01   9.0541E+01   0.0000E+00  0.0000
   9.0541E+01   9.2744E+01   0.0000E+00  0.0000
   9.2744E+01   9.5001E+01   0.0000E+00  0.0000
   9.5001E+01   9.7312E+01   0.0000E+00  0.0000
   9.7312E+01   9.9680E+01   0.0000E+00  0.0000
   9.9680E+01   1.0211E+02   0.0000E+00  0.0000
   1.0211E+02   1.0459E+02   0.0000E+00  0.0000
   1.0459E+02   1.0713E+02   0.0000E+00  0.0000
   1.0713E+02   1.0974E+02   0.0000E+00  0.0000
   1.0974E+02   1.1241E+02   0.0000E+00  0.0000
   1.1241E+02   1.1515E+02   0.0000E+00  0.0000
   1.1515E+02   1.1795E+02   0.0000E+00  0.0000
   1.1795E+02   1.2082E+02   0.0000E+00  0.0000
   1.2082E+02   1.2376E+02   0.0000E+00  0.0000
   1.2376E+02   1.2677E+02   0.0000E+00  0.0000
   1.2677E+02   1.2985E+02   0.0000E+00  0.0000
   1.2985E+02   1.3301E+02   0.0000E+00  0.0000
   1.3301E+02   1.3625E+02   0.0000E+00  0.0000
   1.3625E+02   1.3956E+02   0.0000E+00  0.0000
   1.3956E+02   1.4296E+02   0.0000E+00  0.0000
   1.4296E+02   1.4644E+02   0.0000E+00  0.0000
   1.4644E+02   1.5000E+02   0.0000E+00  0.0000

#   sum over                 1.5783E-07
'no. =    1   reg = 100 - 200'
msuc: {\huge [t-cross] in region mesh}
msdr: {\it plotted by \ANGEL \version}
msdl: {\it calculated by \PHITS  3.26}
wt: s(0.7)
\vspace{-3}
  region surface crossing
  area  &=&   1.0000E+00 [cm^2]
e:
 
# Information for Restart Calculation
# This calculation was newly started
# istdev =  2 # 1:Batch variance, 2:History variance
# resc2  = 5.00000000000000000E+09 # Total source weight or Total source weight / maxcas
# resc3  = 5.00000000000000000E+09 # Total history number or Total batch number
# maxcas =   100000000 # History / Batch, only used for istdev=1
# bitrseed = 0110100000100010111000001110001111001110100100011111101000111001 # bit data of rseed
