[ T-Cross ]
    title = [t-cross] in region mesh
     mesh =  reg            # mesh type is region-wise
      reg =    1            # number of crossing regions
      non     r-from    r-to       area
      1       113       213        1.000000    
   e-type =    3            # e-mesh is log given by emin, emax and ne
     emin =  1.0000000E-02  # minimum value of e-mesh points
     emax =   150.0000      # maximum value of e-mesh points
#    edel =  2.4039514E-02  # mesh width of e-mesh points
       ne =    400          # number of e-mesh points
#    data = ( e(i), i = 1, ne + 1 )
#           1.00000E-02  1.02433E-02  1.04925E-02  1.07478E-02  1.10093E-02
#           1.12772E-02  1.15516E-02  1.18326E-02  1.21205E-02  1.24154E-02
#           1.27175E-02  1.30269E-02  1.33439E-02  1.36686E-02  1.40011E-02
#           1.43418E-02  1.46907E-02  1.50482E-02  1.54143E-02  1.57894E-02
#           1.61735E-02  1.65670E-02  1.69701E-02  1.73830E-02  1.78060E-02
#           1.82392E-02  1.86830E-02  1.91375E-02  1.96032E-02  2.00801E-02
#           2.05687E-02  2.10692E-02  2.15818E-02  2.21069E-02  2.26448E-02
#           2.31957E-02  2.37601E-02  2.43382E-02  2.49304E-02  2.55369E-02
#           2.61583E-02  2.67947E-02  2.74467E-02  2.81145E-02  2.87985E-02
#           2.94992E-02  3.02169E-02  3.09521E-02  3.17052E-02  3.24766E-02
#           3.32668E-02  3.40762E-02  3.49053E-02  3.57546E-02  3.66246E-02
#           3.75157E-02  3.84284E-02  3.93634E-02  4.03212E-02  4.13022E-02
#           4.23071E-02  4.33365E-02  4.43909E-02  4.54710E-02  4.65773E-02
#           4.77106E-02  4.88714E-02  5.00605E-02  5.12785E-02  5.25262E-02
#           5.38042E-02  5.51133E-02  5.64542E-02  5.78278E-02  5.92348E-02
#           6.06760E-02  6.21523E-02  6.36645E-02  6.52135E-02  6.68002E-02
#           6.84255E-02  7.00904E-02  7.17957E-02  7.35426E-02  7.53319E-02
#           7.71648E-02  7.90423E-02  8.09655E-02  8.29354E-02  8.49533E-02
#           8.70203E-02  8.91376E-02  9.13064E-02  9.35279E-02  9.58035E-02
#           9.81345E-02  1.00522E-01  1.02968E-01  1.05473E-01  1.08040E-01
#           1.10668E-01  1.13361E-01  1.16119E-01  1.18944E-01  1.21838E-01
#           1.24803E-01  1.27839E-01  1.30950E-01  1.34136E-01  1.37399E-01
#           1.40742E-01  1.44167E-01  1.47675E-01  1.51268E-01  1.54948E-01
#           1.58718E-01  1.62580E-01  1.66535E-01  1.70587E-01  1.74738E-01
#           1.78989E-01  1.83344E-01  1.87805E-01  1.92375E-01  1.97055E-01
#           2.01850E-01  2.06761E-01  2.11792E-01  2.16945E-01  2.22223E-01
#           2.27630E-01  2.33169E-01  2.38842E-01  2.44653E-01  2.50605E-01
#           2.56703E-01  2.62949E-01  2.69346E-01  2.75900E-01  2.82613E-01
#           2.89489E-01  2.96532E-01  3.03747E-01  3.11138E-01  3.18708E-01
#           3.26462E-01  3.34405E-01  3.42542E-01  3.50876E-01  3.59413E-01
#           3.68158E-01  3.77116E-01  3.86291E-01  3.95690E-01  4.05317E-01
#           4.15179E-01  4.25281E-01  4.35628E-01  4.46227E-01  4.57084E-01
#           4.68205E-01  4.79597E-01  4.91266E-01  5.03219E-01  5.15463E-01
#           5.28005E-01  5.40851E-01  5.54011E-01  5.67490E-01  5.81298E-01
#           5.95441E-01  6.09929E-01  6.24769E-01  6.39970E-01  6.55541E-01
#           6.71491E-01  6.87828E-01  7.04564E-01  7.21706E-01  7.39266E-01
#           7.57253E-01  7.75678E-01  7.94551E-01  8.13883E-01  8.33685E-01
#           8.53969E-01  8.74747E-01  8.96030E-01  9.17831E-01  9.40163E-01
#           9.63038E-01  9.86469E-01  1.01047E+00  1.03506E+00  1.06024E+00
#           1.08604E+00  1.11246E+00  1.13953E+00  1.16725E+00  1.19565E+00
#           1.22474E+00  1.25454E+00  1.28507E+00  1.31633E+00  1.34836E+00
#           1.38117E+00  1.41477E+00  1.44920E+00  1.48446E+00  1.52057E+00
#           1.55757E+00  1.59547E+00  1.63429E+00  1.67405E+00  1.71478E+00
#           1.75650E+00  1.79924E+00  1.84302E+00  1.88786E+00  1.93379E+00
#           1.98084E+00  2.02904E+00  2.07841E+00  2.12898E+00  2.18078E+00
#           2.23384E+00  2.28819E+00  2.34386E+00  2.40089E+00  2.45930E+00
#           2.51914E+00  2.58043E+00  2.64322E+00  2.70753E+00  2.77341E+00
#           2.84088E+00  2.91001E+00  2.98081E+00  3.05333E+00  3.12762E+00
#           3.20372E+00  3.28167E+00  3.36152E+00  3.44330E+00  3.52708E+00
#           3.61290E+00  3.70080E+00  3.79085E+00  3.88308E+00  3.97756E+00
#           4.07434E+00  4.17347E+00  4.27501E+00  4.37903E+00  4.48557E+00
#           4.59471E+00  4.70650E+00  4.82102E+00  4.93832E+00  5.05847E+00
#           5.18155E+00  5.30762E+00  5.43676E+00  5.56904E+00  5.70453E+00
#           5.84333E+00  5.98550E+00  6.13114E+00  6.28031E+00  6.43312E+00
#           6.58964E+00  6.74997E+00  6.91420E+00  7.08243E+00  7.25475E+00
#           7.43126E+00  7.61207E+00  7.79728E+00  7.98700E+00  8.18133E+00
#           8.38038E+00  8.58428E+00  8.79315E+00  9.00709E+00  9.22624E+00
#           9.45072E+00  9.68067E+00  9.91620E+00  1.01575E+01  1.04046E+01
#           1.06578E+01  1.09171E+01  1.11827E+01  1.14548E+01  1.17335E+01
#           1.20190E+01  1.23114E+01  1.26109E+01  1.29178E+01  1.32321E+01
#           1.35540E+01  1.38838E+01  1.42216E+01  1.45676E+01  1.49221E+01
#           1.52851E+01  1.56570E+01  1.60380E+01  1.64282E+01  1.68279E+01
#           1.72374E+01  1.76568E+01  1.80864E+01  1.85264E+01  1.89772E+01
#           1.94389E+01  1.99119E+01  2.03963E+01  2.08926E+01  2.14009E+01
#           2.19216E+01  2.24550E+01  2.30014E+01  2.35610E+01  2.41343E+01
#           2.47215E+01  2.53230E+01  2.59391E+01  2.65702E+01  2.72167E+01
#           2.78789E+01  2.85572E+01  2.92520E+01  2.99637E+01  3.06928E+01
#           3.14396E+01  3.22045E+01  3.29881E+01  3.37907E+01  3.46128E+01
#           3.54550E+01  3.63177E+01  3.72013E+01  3.81064E+01  3.90336E+01
#           3.99833E+01  4.09561E+01  4.19526E+01  4.29734E+01  4.40189E+01
#           4.50900E+01  4.61870E+01  4.73108E+01  4.84619E+01  4.96410E+01
#           5.08488E+01  5.20860E+01  5.33533E+01  5.46514E+01  5.59812E+01
#           5.73432E+01  5.87384E+01  6.01676E+01  6.16315E+01  6.31311E+01
#           6.46671E+01  6.62405E+01  6.78522E+01  6.95031E+01  7.11941E+01
#           7.29263E+01  7.47007E+01  7.65182E+01  7.83800E+01  8.02870E+01
#           8.22405E+01  8.42414E+01  8.62911E+01  8.83906E+01  9.05412E+01
#           9.27442E+01  9.50007E+01  9.73122E+01  9.96799E+01  1.02105E+02
#           1.04589E+02  1.07134E+02  1.09741E+02  1.12411E+02  1.15146E+02
#           1.17948E+02  1.20817E+02  1.23757E+02  1.26768E+02  1.29852E+02
#           1.33012E+02  1.36248E+02  1.39563E+02  1.42959E+02  1.46437E+02
#           1.50000E+02
     unit =    2            # unit is [1/cm^2/(MeV/n)/source]
     axis =  eng            # axis of output
     file = detector-14.out  # file name of output for the above axis
   output = f-curr          # surface crossing forward current spectrum
     part =  neutron  
# kf/name :  2112     
#    used :        main (  %)        temp (  %)       total (  %)
#  memory :         414 (  0)           0 (  0)         414 (  0)

#------------------------------------------------------------------------------
#newpage:
#   no. =    1   reg = 113 - 213

x: Energy [MeV/n]
y:  F-Curr [1/cm^2/(MeV/n)/source]         
p: xlog ylog afac(0.8) form(0.9)
h: n            x            y(neutron ),hh0l   n 
#  e-lower      e-upper      neutron     r.err 
   1.0000E-02   1.0243E-02   3.0414E-05  0.2309
   1.0243E-02   1.0493E-02   2.5910E-05  0.2479
   1.0493E-02   1.0748E-02   2.6636E-05  0.2425
   1.0748E-02   1.1009E-02   3.4416E-05  0.2096
   1.1009E-02   1.1277E-02   2.2399E-05  0.2582
   1.1277E-02   1.1552E-02   1.4578E-05  0.3162
   1.1552E-02   1.1833E-02   1.7078E-05  0.2887
   1.1833E-02   1.2121E-02   2.7788E-05  0.2236
   1.2121E-02   1.2415E-02   1.9213E-05  0.2644
   1.2415E-02   1.2718E-02   2.7807E-05  0.2182
   1.2718E-02   1.3027E-02   2.3269E-05  0.2357
   1.3027E-02   1.3344E-02   3.0489E-05  0.2029
   1.3344E-02   1.3669E-02   2.5873E-05  0.2182
   1.3669E-02   1.4001E-02   3.3677E-05  0.1890
   1.4001E-02   1.4342E-02   1.7613E-05  0.2582
   1.4342E-02   1.4691E-02   2.7511E-05  0.2041
   1.4691E-02   1.5048E-02   3.0381E-05  0.1915
   1.5048E-02   1.5414E-02   3.6052E-05  0.1741
   1.5414E-02   1.5789E-02   3.0930E-05  0.1857
   1.5789E-02   1.6174E-02   2.0824E-05  0.2236
   1.6174E-02   1.6567E-02   2.5412E-05  0.2000
   1.6567E-02   1.6970E-02   2.1831E-05  0.2132
   1.6970E-02   1.7383E-02   2.4219E-05  0.2000
   1.7383E-02   1.7806E-02   2.3644E-05  0.2000
   1.7806E-02   1.8239E-02   2.5852E-05  0.1890
   1.8239E-02   1.8683E-02   2.1633E-05  0.2041
   1.8683E-02   1.9138E-02   2.3759E-05  0.1925
   1.9138E-02   1.9603E-02   2.4912E-05  0.1857
   1.9603E-02   2.0080E-02   3.4384E-05  0.1562
   2.0080E-02   2.0569E-02   2.5380E-05  0.1796
   2.0569E-02   2.1069E-02   1.8383E-05  0.2085
   2.1069E-02   2.1582E-02   2.1068E-05  0.1925
   2.1582E-02   2.2107E-02   1.9169E-05  0.1988
   2.2107E-02   2.2645E-02   3.0490E-05  0.1562
   2.2645E-02   2.3196E-02   2.0108E-05  0.1886
   2.3196E-02   2.3760E-02   2.1263E-05  0.1826
   2.3760E-02   2.4338E-02   2.4217E-05  0.1690
   2.4338E-02   2.4930E-02   1.7563E-05  0.1961
   2.4930E-02   2.5537E-02   2.9778E-05  0.1486
   2.5537E-02   2.6158E-02   1.9957E-05  0.1796
   2.6158E-02   2.6795E-02   1.5712E-05  0.2000
   2.6795E-02   2.7447E-02   2.6491E-05  0.1519
   2.7447E-02   2.8114E-02   2.5756E-05  0.1525
   2.8114E-02   2.8799E-02   2.1636E-05  0.1644
   2.8799E-02   2.9499E-02   2.1693E-05  0.1622
   2.9499E-02   3.0217E-02   2.2014E-05  0.1586
   3.0217E-02   3.0952E-02   2.4568E-05  0.1486
   3.0952E-02   3.1705E-02   2.9309E-05  0.1344
   3.1705E-02   3.2477E-02   2.8001E-05  0.1361
   3.2477E-02   3.3267E-02   1.8305E-05  0.1660
   3.3267E-02   3.4076E-02   2.0756E-05  0.1543
   3.4076E-02   3.4905E-02   1.9539E-05  0.1566
   3.4905E-02   3.5755E-02   1.8915E-05  0.1575
   3.5755E-02   3.6625E-02   1.9312E-05  0.1543
   3.6625E-02   3.7516E-02   2.0200E-05  0.1491
   3.7516E-02   3.8428E-02   1.8681E-05  0.1525
   3.8428E-02   3.9363E-02   1.7540E-05  0.1562
   3.9363E-02   4.0321E-02   2.2621E-05  0.1357
   4.0321E-02   4.1302E-02   2.7318E-05  0.1222
   4.1302E-02   4.2307E-02   1.8907E-05  0.1447
   4.2307E-02   4.3337E-02   1.9818E-05  0.1400
   4.3337E-02   4.4391E-02   2.1434E-05  0.1327
   4.4391E-02   4.5471E-02   2.2776E-05  0.1273
   4.5471E-02   4.6577E-02   1.9992E-05  0.1342
   4.6577E-02   4.7711E-02   1.8707E-05  0.1374
   4.7711E-02   4.8871E-02   1.9296E-05  0.1336
   4.8871E-02   5.0061E-02   2.3590E-05  0.1193
   5.0061E-02   5.1279E-02   2.2331E-05  0.1213
   5.1279E-02   5.2526E-02   1.8274E-05  0.1325
   5.2526E-02   5.3804E-02   1.7214E-05  0.1348
   5.3804E-02   5.5113E-02   1.4204E-05  0.1460
   5.5113E-02   5.6454E-02   1.9986E-05  0.1222
   5.6454E-02   5.7828E-02   1.5143E-05  0.1387
   5.7828E-02   5.9235E-02   2.2782E-05  0.1116
   5.9235E-02   6.0676E-02   1.6190E-05  0.1306
   6.0676E-02   6.2152E-02   1.4902E-05  0.1348
   6.2152E-02   6.3665E-02   1.7193E-05  0.1240
   6.3665E-02   6.5214E-02   1.4977E-05  0.1313
   6.5214E-02   6.6800E-02   1.5378E-05  0.1275
   6.6800E-02   6.8426E-02   1.3083E-05  0.1370
   6.8426E-02   7.0090E-02   1.8740E-05  0.1132
   7.0090E-02   7.1796E-02   1.4777E-05  0.1260
   7.1796E-02   7.3543E-02   1.4655E-05  0.1245
   7.3543E-02   7.5332E-02   1.7213E-05  0.1140
   7.5332E-02   7.7165E-02   1.8550E-05  0.1085
   7.7165E-02   7.9042E-02   1.6554E-05  0.1131
   7.9042E-02   8.0965E-02   1.6674E-05  0.1116
   8.0965E-02   8.2935E-02   1.4625E-05  0.1173
   8.2935E-02   8.4953E-02   1.2759E-05  0.1244
   8.4953E-02   8.7020E-02   1.1743E-05  0.1279
   8.7020E-02   8.9138E-02   1.5114E-05  0.1118
   8.9138E-02   9.1306E-02   1.3533E-05  0.1165
   9.1306E-02   9.3528E-02   1.6025E-05  0.1060
   9.3528E-02   9.5804E-02   1.3916E-05  0.1123
   9.5804E-02   9.8134E-02   1.2527E-05  0.1170
   9.8134E-02   1.0052E-01   1.4267E-05  0.1083
   1.0052E-01   1.0297E-01   1.2593E-05  0.1140
   1.0297E-01   1.0547E-01   1.2726E-05  0.1117
   1.0547E-01   1.0804E-01   1.4106E-05  0.1050
   1.0804E-01   1.1067E-01   1.6586E-05  0.0958
   1.1067E-01   1.1336E-01   1.2201E-05  0.1103
   1.1336E-01   1.1612E-01   1.2498E-05  0.1076
   1.1612E-01   1.1894E-01   1.5031E-05  0.0970
   1.1894E-01   1.2184E-01   1.1610E-05  0.1091
   1.2184E-01   1.2480E-01   1.1626E-05  0.1076
   1.2480E-01   1.2784E-01   1.0584E-05  0.1114
   1.2784E-01   1.3095E-01   1.0311E-05  0.1116
   1.3095E-01   1.3414E-01   1.2074E-05  0.1019
   1.3414E-01   1.3740E-01   1.2546E-05  0.0987
   1.3740E-01   1.4074E-01   1.1263E-05  0.1027
   1.4074E-01   1.4417E-01   1.0315E-05  0.1063
   1.4417E-01   1.4767E-01   1.0035E-05  0.1066
   1.4767E-01   1.5127E-01   1.2469E-05  0.0945
   1.5127E-01   1.5495E-01   1.1286E-05  0.0979
   1.5495E-01   1.5872E-01   9.1384E-06  0.1077
   1.5872E-01   1.6258E-01   1.1290E-05  0.0958
   1.6258E-01   1.6654E-01   1.1446E-05  0.0939
   1.6654E-01   1.7059E-01   8.7859E-06  0.1060
   1.7059E-01   1.7474E-01   1.0652E-05  0.0949
   1.7474E-01   1.7899E-01   9.9879E-06  0.0970
   1.7899E-01   1.8334E-01   9.4146E-06  0.0987
   1.8334E-01   1.8781E-01   8.0701E-06  0.1054
   1.8781E-01   1.9237E-01   9.3938E-06  0.0964
   1.9237E-01   1.9706E-01   8.4762E-06  0.1003
   1.9706E-01   2.0185E-01   1.0606E-05  0.0885
   2.0185E-01   2.0676E-01   8.5817E-06  0.0973
   2.0676E-01   2.1179E-01   9.8978E-06  0.0895
   2.1179E-01   2.1694E-01   9.6796E-06  0.0894
   2.1694E-01   2.2222E-01   1.0923E-05  0.0833
   2.2222E-01   2.2763E-01   1.0489E-05  0.0838
   2.2763E-01   2.3317E-01   1.0484E-05  0.0830
   2.3317E-01   2.3884E-01   9.4744E-06  0.0862
   2.3884E-01   2.4465E-01   9.9421E-06  0.0831
   2.4465E-01   2.5061E-01   1.1992E-05  0.0747
   2.5061E-01   2.5670E-01   1.0638E-05  0.0785
   2.5670E-01   2.6295E-01   1.0631E-05  0.0775
   2.6295E-01   2.6935E-01   1.1160E-05  0.0748
   2.6935E-01   2.7590E-01   1.2418E-05  0.0700
   2.7590E-01   2.8261E-01   1.1650E-05  0.0714
   2.8261E-01   2.8949E-01   1.4040E-05  0.0642
   2.8949E-01   2.9653E-01   1.4263E-05  0.0630
   2.9653E-01   3.0375E-01   1.4692E-05  0.0614
   3.0375E-01   3.1114E-01   1.5135E-05  0.0598
   3.1114E-01   3.1871E-01   1.3262E-05  0.0631
   3.1871E-01   3.2646E-01   1.4019E-05  0.0605
   3.2646E-01   3.3441E-01   1.2950E-05  0.0622
   3.3441E-01   3.4254E-01   1.5385E-05  0.0564
   3.4254E-01   3.5088E-01   1.5819E-05  0.0550
   3.5088E-01   3.5941E-01   1.5362E-05  0.0552
   3.5941E-01   3.6816E-01   1.5380E-05  0.0544
   3.6816E-01   3.7712E-01   1.6848E-05  0.0514
   3.7712E-01   3.8629E-01   1.6577E-05  0.0512
   3.8629E-01   3.9569E-01   1.6492E-05  0.0507
   3.9569E-01   4.0532E-01   1.5563E-05  0.0516
   4.0532E-01   4.1518E-01   1.5953E-05  0.0503
   4.1518E-01   4.2528E-01   1.7750E-05  0.0471
   4.2528E-01   4.3563E-01   1.7295E-05  0.0472
   4.3563E-01   4.4623E-01   1.9993E-05  0.0434
   4.4623E-01   4.5708E-01   1.9299E-05  0.0436
   4.5708E-01   4.6821E-01   1.8066E-05  0.0445
   4.6821E-01   4.7960E-01   1.8560E-05  0.0434
   4.7960E-01   4.9127E-01   1.7311E-05  0.0444
   4.9127E-01   5.0322E-01   1.9955E-05  0.0408
   5.0322E-01   5.1546E-01   1.9955E-05  0.0404
   5.1546E-01   5.2800E-01   2.0694E-05  0.0391
   5.2800E-01   5.4085E-01   2.2254E-05  0.0373
   5.4085E-01   5.5401E-01   2.0570E-05  0.0384
   5.5401E-01   5.6749E-01   1.9558E-05  0.0389
   5.6749E-01   5.8130E-01   2.1308E-05  0.0368
   5.8130E-01   5.9544E-01   2.1191E-05  0.0364
   5.9544E-01   6.0993E-01   2.1355E-05  0.0359
   6.0993E-01   6.2477E-01   2.2725E-05  0.0344
   6.2477E-01   6.3997E-01   2.2161E-05  0.0344
   6.3997E-01   6.5554E-01   2.2272E-05  0.0339
   6.5554E-01   6.7149E-01   2.2814E-05  0.0331
   6.7149E-01   6.8783E-01   2.3134E-05  0.0325
   6.8783E-01   7.0456E-01   2.4071E-05  0.0314
   7.0456E-01   7.2171E-01   2.3307E-05  0.0316
   7.2171E-01   7.3927E-01   2.3524E-05  0.0310
   7.3927E-01   7.5725E-01   2.3202E-05  0.0308
   7.5725E-01   7.7568E-01   2.3251E-05  0.0305
   7.7568E-01   7.9455E-01   2.2640E-05  0.0305
   7.9455E-01   8.1388E-01   2.4595E-05  0.0289
   8.1388E-01   8.3368E-01   2.3812E-05  0.0291
   8.3368E-01   8.5397E-01   2.3296E-05  0.0290
   8.5397E-01   8.7475E-01   2.3699E-05  0.0284
   8.7475E-01   8.9603E-01   2.1954E-05  0.0292
   8.9603E-01   9.1783E-01   2.3301E-05  0.0280
   9.1783E-01   9.4016E-01   2.3288E-05  0.0276
   9.4016E-01   9.6304E-01   2.2986E-05  0.0275
   9.6304E-01   9.8647E-01   2.2204E-05  0.0277
   9.8647E-01   1.0105E+00   2.3487E-05  0.0266
   1.0105E+00   1.0351E+00   2.3555E-05  0.0262
   1.0351E+00   1.0602E+00   2.3714E-05  0.0258
   1.0602E+00   1.0860E+00   2.4521E-05  0.0251
   1.0860E+00   1.1125E+00   2.5075E-05  0.0245
   1.1125E+00   1.1395E+00   2.6437E-05  0.0236
   1.1395E+00   1.1673E+00   2.7885E-05  0.0227
   1.1673E+00   1.1957E+00   2.8838E-05  0.0220
   1.1957E+00   1.2247E+00   3.0413E-05  0.0212
   1.2247E+00   1.2545E+00   3.1549E-05  0.0206
   1.2545E+00   1.2851E+00   3.2577E-05  0.0200
   1.2851E+00   1.3163E+00   3.3277E-05  0.0196
   1.3163E+00   1.3484E+00   3.5384E-05  0.0187
   1.3484E+00   1.3812E+00   3.5275E-05  0.0185
   1.3812E+00   1.4148E+00   3.8715E-05  0.0175
   1.4148E+00   1.4492E+00   3.8915E-05  0.0172
   1.4492E+00   1.4845E+00   4.0012E-05  0.0168
   1.4845E+00   1.5206E+00   4.0044E-05  0.0166
   1.5206E+00   1.5576E+00   4.2816E-05  0.0158
   1.5576E+00   1.5955E+00   4.4414E-05  0.0154
   1.5955E+00   1.6343E+00   4.5980E-05  0.0149
   1.6343E+00   1.6741E+00   4.8029E-05  0.0144
   1.6741E+00   1.7148E+00   5.0016E-05  0.0140
   1.7148E+00   1.7565E+00   5.3089E-05  0.0134
   1.7565E+00   1.7992E+00   5.4143E-05  0.0131
   1.7992E+00   1.8430E+00   5.4001E-05  0.0130
   1.8430E+00   1.8879E+00   5.8357E-05  0.0123
   1.8879E+00   1.9338E+00   5.9316E-05  0.0121
   1.9338E+00   1.9808E+00   6.0663E-05  0.0118
   1.9808E+00   2.0290E+00   6.3240E-05  0.0114
   2.0290E+00   2.0784E+00   6.4084E-05  0.0112
   2.0784E+00   2.1290E+00   6.6608E-05  0.0109
   2.1290E+00   2.1808E+00   6.7688E-05  0.0106
   2.1808E+00   2.2338E+00   6.8749E-05  0.0104
   2.2338E+00   2.2882E+00   7.1284E-05  0.0101
   2.2882E+00   2.3439E+00   7.3617E-05  0.0098
   2.3439E+00   2.4009E+00   7.5969E-05  0.0096
   2.4009E+00   2.4593E+00   7.9023E-05  0.0093
   2.4593E+00   2.5191E+00   7.9362E-05  0.0092
   2.5191E+00   2.5804E+00   8.0279E-05  0.0090
   2.5804E+00   2.6432E+00   8.2784E-05  0.0087
   2.6432E+00   2.7075E+00   8.4645E-05  0.0085
   2.7075E+00   2.7734E+00   8.6362E-05  0.0084
   2.7734E+00   2.8409E+00   9.0047E-05  0.0081
   2.8409E+00   2.9100E+00   8.9558E-05  0.0080
   2.9100E+00   2.9808E+00   9.1312E-05  0.0078
   2.9808E+00   3.0533E+00   9.6294E-05  0.0075
   3.0533E+00   3.1276E+00   9.4482E-05  0.0075
   3.1276E+00   3.2037E+00   9.5563E-05  0.0074
   3.2037E+00   3.2817E+00   9.5575E-05  0.0073
   3.2817E+00   3.3615E+00   9.8861E-05  0.0071
   3.3615E+00   3.4433E+00   9.8767E-05  0.0070
   3.4433E+00   3.5271E+00   1.0015E-04  0.0069
   3.5271E+00   3.6129E+00   1.0298E-04  0.0067
   3.6129E+00   3.7008E+00   1.0375E-04  0.0066
   3.7008E+00   3.7908E+00   1.0349E-04  0.0065
   3.7908E+00   3.8831E+00   1.0435E-04  0.0064
   3.8831E+00   3.9776E+00   1.0453E-04  0.0063
   3.9776E+00   4.0743E+00   1.0728E-04  0.0062
   4.0743E+00   4.1735E+00   1.0492E-04  0.0062
   4.1735E+00   4.2750E+00   1.0599E-04  0.0061
   4.2750E+00   4.3790E+00   1.0695E-04  0.0060
   4.3790E+00   4.4856E+00   1.0731E-04  0.0059
   4.4856E+00   4.5947E+00   1.0632E-04  0.0059
   4.5947E+00   4.7065E+00   1.0781E-04  0.0057
   4.7065E+00   4.8210E+00   1.0634E-04  0.0057
   4.8210E+00   4.9383E+00   1.0697E-04  0.0056
   4.9383E+00   5.0585E+00   1.0701E-04  0.0056
   5.0585E+00   5.1815E+00   1.0493E-04  0.0056
   5.1815E+00   5.3076E+00   1.0488E-04  0.0055
   5.3076E+00   5.4368E+00   1.0312E-04  0.0055
   5.4368E+00   5.5690E+00   1.0256E-04  0.0054
   5.5690E+00   5.7045E+00   1.0077E-04  0.0054
   5.7045E+00   5.8433E+00   9.9961E-05  0.0054
   5.8433E+00   5.9855E+00   9.8866E-05  0.0053
   5.9855E+00   6.1311E+00   9.7099E-05  0.0053
   6.1311E+00   6.2803E+00   9.5912E-05  0.0053
   6.2803E+00   6.4331E+00   9.3327E-05  0.0053
   6.4331E+00   6.5896E+00   9.1753E-05  0.0053
   6.5896E+00   6.7500E+00   9.0795E-05  0.0052
   6.7500E+00   6.9142E+00   8.8638E-05  0.0052
   6.9142E+00   7.0824E+00   8.6523E-05  0.0052
   7.0824E+00   7.2548E+00   8.3967E-05  0.0052
   7.2548E+00   7.4313E+00   8.1103E-05  0.0053
   7.4313E+00   7.6121E+00   7.9206E-05  0.0053
   7.6121E+00   7.7973E+00   7.6583E-05  0.0053
   7.7973E+00   7.9870E+00   7.3985E-05  0.0053
   7.9870E+00   8.1813E+00   7.1564E-05  0.0054
   8.1813E+00   8.3804E+00   6.8836E-05  0.0054
   8.3804E+00   8.5843E+00   6.6365E-05  0.0054
   8.5843E+00   8.7931E+00   6.4769E-05  0.0054
   8.7931E+00   9.0071E+00   6.2031E-05  0.0055
   9.0071E+00   9.2262E+00   5.9739E-05  0.0055
   9.2262E+00   9.4507E+00   5.8247E-05  0.0055
   9.4507E+00   9.6807E+00   5.5411E-05  0.0056
   9.6807E+00   9.9162E+00   5.3827E-05  0.0056
   9.9162E+00   1.0157E+01   5.2390E-05  0.0056
   1.0157E+01   1.0405E+01   5.0339E-05  0.0057
   1.0405E+01   1.0658E+01   4.8694E-05  0.0057
   1.0658E+01   1.0917E+01   4.7054E-05  0.0057
   1.0917E+01   1.1183E+01   4.5789E-05  0.0057
   1.1183E+01   1.1455E+01   4.3652E-05  0.0058
   1.1455E+01   1.1733E+01   4.2319E-05  0.0058
   1.1733E+01   1.2019E+01   4.0705E-05  0.0059
   1.2019E+01   1.2311E+01   3.9221E-05  0.0059
   1.2311E+01   1.2611E+01   3.7518E-05  0.0060
   1.2611E+01   1.2918E+01   3.5989E-05  0.0060
   1.2918E+01   1.3232E+01   3.4766E-05  0.0060
   1.3232E+01   1.3554E+01   3.3000E-05  0.0061
   1.3554E+01   1.3884E+01   3.1635E-05  0.0062
   1.3884E+01   1.4222E+01   3.0566E-05  0.0062
   1.4222E+01   1.4568E+01   2.9062E-05  0.0063
   1.4568E+01   1.4922E+01   2.7899E-05  0.0064
   1.4922E+01   1.5285E+01   2.6802E-05  0.0064
   1.5285E+01   1.5657E+01   2.5124E-05  0.0065
   1.5657E+01   1.6038E+01   2.4010E-05  0.0066
   1.6038E+01   1.6428E+01   2.2794E-05  0.0067
   1.6428E+01   1.6828E+01   2.2026E-05  0.0067
   1.6828E+01   1.7237E+01   2.0600E-05  0.0069
   1.7237E+01   1.7657E+01   1.9799E-05  0.0069
   1.7657E+01   1.8086E+01   1.8382E-05  0.0071
   1.8086E+01   1.8526E+01   1.7463E-05  0.0072
   1.8526E+01   1.8977E+01   1.6409E-05  0.0074
   1.8977E+01   1.9439E+01   1.5513E-05  0.0075
   1.9439E+01   1.9912E+01   1.4719E-05  0.0076
   1.9912E+01   2.0396E+01   1.4507E-05  0.0075
   2.0396E+01   2.0893E+01   1.3597E-05  0.0077
   2.0893E+01   2.1401E+01   1.2587E-05  0.0079
   2.1401E+01   2.1922E+01   1.1694E-05  0.0081
   2.1922E+01   2.2455E+01   1.0726E-05  0.0084
   2.2455E+01   2.3001E+01   9.8208E-06  0.0086
   2.3001E+01   2.3561E+01   9.1201E-06  0.0089
   2.3561E+01   2.4134E+01   8.3125E-06  0.0092
   2.4134E+01   2.4721E+01   7.5810E-06  0.0095
   2.4721E+01   2.5323E+01   6.9148E-06  0.0098
   2.5323E+01   2.5939E+01   6.3117E-06  0.0101
   2.5939E+01   2.6570E+01   5.7751E-06  0.0105
   2.6570E+01   2.7217E+01   5.2556E-06  0.0109
   2.7217E+01   2.7879E+01   4.8553E-06  0.0112
   2.7879E+01   2.8557E+01   4.2977E-06  0.0117
   2.8557E+01   2.9252E+01   3.9953E-06  0.0120
   2.9252E+01   2.9964E+01   3.6559E-06  0.0124
   2.9964E+01   3.0693E+01   3.2947E-06  0.0129
   3.0693E+01   3.1440E+01   2.9101E-06  0.0136
   3.1440E+01   3.2205E+01   2.7244E-06  0.0139
   3.2205E+01   3.2988E+01   2.4269E-06  0.0145
   3.2988E+01   3.3791E+01   2.2337E-06  0.0149
   3.3791E+01   3.4613E+01   2.0565E-06  0.0154
   3.4613E+01   3.5455E+01   1.8073E-06  0.0162
   3.5455E+01   3.6318E+01   1.6493E-06  0.0168
   3.6318E+01   3.7201E+01   1.4422E-06  0.0177
   3.7201E+01   3.8106E+01   1.2025E-06  0.0192
   3.8106E+01   3.9034E+01   1.0570E-06  0.0202
   3.9034E+01   3.9983E+01   8.7015E-07  0.0220
   3.9983E+01   4.0956E+01   7.8123E-07  0.0229
   4.0956E+01   4.1953E+01   6.7476E-07  0.0244
   4.1953E+01   4.2973E+01   6.0505E-07  0.0254
   4.2973E+01   4.4019E+01   4.5602E-07  0.0290
   4.4019E+01   4.5090E+01   4.0560E-07  0.0303
   4.5090E+01   4.6187E+01   3.2304E-07  0.0336
   4.6187E+01   4.7311E+01   2.4774E-07  0.0379
   4.7311E+01   4.8462E+01   2.0120E-07  0.0416
   4.8462E+01   4.9641E+01   1.5401E-07  0.0469
   4.9641E+01   5.0849E+01   1.2419E-07  0.0516
   5.0849E+01   5.2086E+01   9.5701E-08  0.0581
   5.2086E+01   5.3353E+01   6.2495E-08  0.0711
   5.3353E+01   5.4651E+01   4.4063E-08  0.0836
   5.4651E+01   5.5981E+01   2.8277E-08  0.1031
   5.5981E+01   5.7343E+01   2.3494E-08  0.1118
   5.7343E+01   5.8738E+01   9.4610E-09  0.1741
   5.8738E+01   6.0168E+01   7.8368E-09  0.1890
   6.0168E+01   6.1632E+01   4.3718E-09  0.2500
   6.1632E+01   6.3131E+01   1.8672E-09  0.3780
   6.3131E+01   6.4667E+01   0.0000E+00  0.0000
   6.4667E+01   6.6240E+01   0.0000E+00  0.0000
   6.6240E+01   6.7852E+01   0.0000E+00  0.0000
   6.7852E+01   6.9503E+01   0.0000E+00  0.0000
   6.9503E+01   7.1194E+01   0.0000E+00  0.0000
   7.1194E+01   7.2926E+01   0.0000E+00  0.0000
   7.2926E+01   7.4701E+01   0.0000E+00  0.0000
   7.4701E+01   7.6518E+01   0.0000E+00  0.0000
   7.6518E+01   7.8380E+01   0.0000E+00  0.0000
   7.8380E+01   8.0287E+01   0.0000E+00  0.0000
   8.0287E+01   8.2240E+01   0.0000E+00  0.0000
   8.2240E+01   8.4241E+01   0.0000E+00  0.0000
   8.4241E+01   8.6291E+01   0.0000E+00  0.0000
   8.6291E+01   8.8391E+01   0.0000E+00  0.0000
   8.8391E+01   9.0541E+01   0.0000E+00  0.0000
   9.0541E+01   9.2744E+01   0.0000E+00  0.0000
   9.2744E+01   9.5001E+01   0.0000E+00  0.0000
   9.5001E+01   9.7312E+01   0.0000E+00  0.0000
   9.7312E+01   9.9680E+01   0.0000E+00  0.0000
   9.9680E+01   1.0211E+02   0.0000E+00  0.0000
   1.0211E+02   1.0459E+02   0.0000E+00  0.0000
   1.0459E+02   1.0713E+02   0.0000E+00  0.0000
   1.0713E+02   1.0974E+02   0.0000E+00  0.0000
   1.0974E+02   1.1241E+02   0.0000E+00  0.0000
   1.1241E+02   1.1515E+02   0.0000E+00  0.0000
   1.1515E+02   1.1795E+02   0.0000E+00  0.0000
   1.1795E+02   1.2082E+02   0.0000E+00  0.0000
   1.2082E+02   1.2376E+02   0.0000E+00  0.0000
   1.2376E+02   1.2677E+02   0.0000E+00  0.0000
   1.2677E+02   1.2985E+02   0.0000E+00  0.0000
   1.2985E+02   1.3301E+02   0.0000E+00  0.0000
   1.3301E+02   1.3625E+02   0.0000E+00  0.0000
   1.3625E+02   1.3956E+02   0.0000E+00  0.0000
   1.3956E+02   1.4296E+02   0.0000E+00  0.0000
   1.4296E+02   1.4644E+02   0.0000E+00  0.0000
   1.4644E+02   1.5000E+02   0.0000E+00  0.0000

#   sum over                 7.5598E-06
'no. =    1   reg = 113 - 213'
msuc: {\huge [t-cross] in region mesh}
msdr: {\it plotted by \ANGEL \version}
msdl: {\it calculated by \PHITS  3.26}
wt: s(0.7)
\vspace{-3}
  region surface crossing
  area  &=&   1.0000E+00 [cm^2]
e:
 
# Information for Restart Calculation
# This calculation was newly started
# istdev =  2 # 1:Batch variance, 2:History variance
# resc2  = 2.50000000000000000E+09 # Total source weight or Total source weight / maxcas
# resc3  = 2.50000000000000000E+09 # Total history number or Total batch number
# maxcas =   500000000 # History / Batch, only used for istdev=1
# bitrseed = 1100001110001001100010001100011001110101000011000110100101010100 # bit data of rseed
