0 <--- number of remaining batches 

-------------------------------------------------------------------------------
bat[      10] ncas =     5000000000.
 bitrseed = 0001011101011011011000011100010110101100100111100111010011101011
          cpu time =   1 h. 38 m.  6.80 s.

 date = 2022-08-27
 time = 05h 40m 55s

-------------------------------------------------------------------------------
next initial random seed:
 bitrseed = 0110100000100010111000001110001111001110100100011111101000111001
