[ T-Cross ]
    title = [t-cross] in region mesh
     mesh =  reg            # mesh type is region-wise
      reg =    1            # number of crossing regions
      non     r-from    r-to       area
      1       110       210        1.000000    
   e-type =    3            # e-mesh is log given by emin, emax and ne
     emin =  1.0000000E-02  # minimum value of e-mesh points
     emax =   150.0000      # maximum value of e-mesh points
#    edel =  2.4039514E-02  # mesh width of e-mesh points
       ne =    400          # number of e-mesh points
#    data = ( e(i), i = 1, ne + 1 )
#           1.00000E-02  1.02433E-02  1.04925E-02  1.07478E-02  1.10093E-02
#           1.12772E-02  1.15516E-02  1.18326E-02  1.21205E-02  1.24154E-02
#           1.27175E-02  1.30269E-02  1.33439E-02  1.36686E-02  1.40011E-02
#           1.43418E-02  1.46907E-02  1.50482E-02  1.54143E-02  1.57894E-02
#           1.61735E-02  1.65670E-02  1.69701E-02  1.73830E-02  1.78060E-02
#           1.82392E-02  1.86830E-02  1.91375E-02  1.96032E-02  2.00801E-02
#           2.05687E-02  2.10692E-02  2.15818E-02  2.21069E-02  2.26448E-02
#           2.31957E-02  2.37601E-02  2.43382E-02  2.49304E-02  2.55369E-02
#           2.61583E-02  2.67947E-02  2.74467E-02  2.81145E-02  2.87985E-02
#           2.94992E-02  3.02169E-02  3.09521E-02  3.17052E-02  3.24766E-02
#           3.32668E-02  3.40762E-02  3.49053E-02  3.57546E-02  3.66246E-02
#           3.75157E-02  3.84284E-02  3.93634E-02  4.03212E-02  4.13022E-02
#           4.23071E-02  4.33365E-02  4.43909E-02  4.54710E-02  4.65773E-02
#           4.77106E-02  4.88714E-02  5.00605E-02  5.12785E-02  5.25262E-02
#           5.38042E-02  5.51133E-02  5.64542E-02  5.78278E-02  5.92348E-02
#           6.06760E-02  6.21523E-02  6.36645E-02  6.52135E-02  6.68002E-02
#           6.84255E-02  7.00904E-02  7.17957E-02  7.35426E-02  7.53319E-02
#           7.71648E-02  7.90423E-02  8.09655E-02  8.29354E-02  8.49533E-02
#           8.70203E-02  8.91376E-02  9.13064E-02  9.35279E-02  9.58035E-02
#           9.81345E-02  1.00522E-01  1.02968E-01  1.05473E-01  1.08040E-01
#           1.10668E-01  1.13361E-01  1.16119E-01  1.18944E-01  1.21838E-01
#           1.24803E-01  1.27839E-01  1.30950E-01  1.34136E-01  1.37399E-01
#           1.40742E-01  1.44167E-01  1.47675E-01  1.51268E-01  1.54948E-01
#           1.58718E-01  1.62580E-01  1.66535E-01  1.70587E-01  1.74738E-01
#           1.78989E-01  1.83344E-01  1.87805E-01  1.92375E-01  1.97055E-01
#           2.01850E-01  2.06761E-01  2.11792E-01  2.16945E-01  2.22223E-01
#           2.27630E-01  2.33169E-01  2.38842E-01  2.44653E-01  2.50605E-01
#           2.56703E-01  2.62949E-01  2.69346E-01  2.75900E-01  2.82613E-01
#           2.89489E-01  2.96532E-01  3.03747E-01  3.11138E-01  3.18708E-01
#           3.26462E-01  3.34405E-01  3.42542E-01  3.50876E-01  3.59413E-01
#           3.68158E-01  3.77116E-01  3.86291E-01  3.95690E-01  4.05317E-01
#           4.15179E-01  4.25281E-01  4.35628E-01  4.46227E-01  4.57084E-01
#           4.68205E-01  4.79597E-01  4.91266E-01  5.03219E-01  5.15463E-01
#           5.28005E-01  5.40851E-01  5.54011E-01  5.67490E-01  5.81298E-01
#           5.95441E-01  6.09929E-01  6.24769E-01  6.39970E-01  6.55541E-01
#           6.71491E-01  6.87828E-01  7.04564E-01  7.21706E-01  7.39266E-01
#           7.57253E-01  7.75678E-01  7.94551E-01  8.13883E-01  8.33685E-01
#           8.53969E-01  8.74747E-01  8.96030E-01  9.17831E-01  9.40163E-01
#           9.63038E-01  9.86469E-01  1.01047E+00  1.03506E+00  1.06024E+00
#           1.08604E+00  1.11246E+00  1.13953E+00  1.16725E+00  1.19565E+00
#           1.22474E+00  1.25454E+00  1.28507E+00  1.31633E+00  1.34836E+00
#           1.38117E+00  1.41477E+00  1.44920E+00  1.48446E+00  1.52057E+00
#           1.55757E+00  1.59547E+00  1.63429E+00  1.67405E+00  1.71478E+00
#           1.75650E+00  1.79924E+00  1.84302E+00  1.88786E+00  1.93379E+00
#           1.98084E+00  2.02904E+00  2.07841E+00  2.12898E+00  2.18078E+00
#           2.23384E+00  2.28819E+00  2.34386E+00  2.40089E+00  2.45930E+00
#           2.51914E+00  2.58043E+00  2.64322E+00  2.70753E+00  2.77341E+00
#           2.84088E+00  2.91001E+00  2.98081E+00  3.05333E+00  3.12762E+00
#           3.20372E+00  3.28167E+00  3.36152E+00  3.44330E+00  3.52708E+00
#           3.61290E+00  3.70080E+00  3.79085E+00  3.88308E+00  3.97756E+00
#           4.07434E+00  4.17347E+00  4.27501E+00  4.37903E+00  4.48557E+00
#           4.59471E+00  4.70650E+00  4.82102E+00  4.93832E+00  5.05847E+00
#           5.18155E+00  5.30762E+00  5.43676E+00  5.56904E+00  5.70453E+00
#           5.84333E+00  5.98550E+00  6.13114E+00  6.28031E+00  6.43312E+00
#           6.58964E+00  6.74997E+00  6.91420E+00  7.08243E+00  7.25475E+00
#           7.43126E+00  7.61207E+00  7.79728E+00  7.98700E+00  8.18133E+00
#           8.38038E+00  8.58428E+00  8.79315E+00  9.00709E+00  9.22624E+00
#           9.45072E+00  9.68067E+00  9.91620E+00  1.01575E+01  1.04046E+01
#           1.06578E+01  1.09171E+01  1.11827E+01  1.14548E+01  1.17335E+01
#           1.20190E+01  1.23114E+01  1.26109E+01  1.29178E+01  1.32321E+01
#           1.35540E+01  1.38838E+01  1.42216E+01  1.45676E+01  1.49221E+01
#           1.52851E+01  1.56570E+01  1.60380E+01  1.64282E+01  1.68279E+01
#           1.72374E+01  1.76568E+01  1.80864E+01  1.85264E+01  1.89772E+01
#           1.94389E+01  1.99119E+01  2.03963E+01  2.08926E+01  2.14009E+01
#           2.19216E+01  2.24550E+01  2.30014E+01  2.35610E+01  2.41343E+01
#           2.47215E+01  2.53230E+01  2.59391E+01  2.65702E+01  2.72167E+01
#           2.78789E+01  2.85572E+01  2.92520E+01  2.99637E+01  3.06928E+01
#           3.14396E+01  3.22045E+01  3.29881E+01  3.37907E+01  3.46128E+01
#           3.54550E+01  3.63177E+01  3.72013E+01  3.81064E+01  3.90336E+01
#           3.99833E+01  4.09561E+01  4.19526E+01  4.29734E+01  4.40189E+01
#           4.50900E+01  4.61870E+01  4.73108E+01  4.84619E+01  4.96410E+01
#           5.08488E+01  5.20860E+01  5.33533E+01  5.46514E+01  5.59812E+01
#           5.73432E+01  5.87384E+01  6.01676E+01  6.16315E+01  6.31311E+01
#           6.46671E+01  6.62405E+01  6.78522E+01  6.95031E+01  7.11941E+01
#           7.29263E+01  7.47007E+01  7.65182E+01  7.83800E+01  8.02870E+01
#           8.22405E+01  8.42414E+01  8.62911E+01  8.83906E+01  9.05412E+01
#           9.27442E+01  9.50007E+01  9.73122E+01  9.96799E+01  1.02105E+02
#           1.04589E+02  1.07134E+02  1.09741E+02  1.12411E+02  1.15146E+02
#           1.17948E+02  1.20817E+02  1.23757E+02  1.26768E+02  1.29852E+02
#           1.33012E+02  1.36248E+02  1.39563E+02  1.42959E+02  1.46437E+02
#           1.50000E+02
     unit =    2            # unit is [1/cm^2/(MeV/n)/source]
     axis =  eng            # axis of output
     file = detector-11.out  # file name of output for the above axis
   output = f-curr          # surface crossing forward current spectrum
     part =  neutron  
# kf/name :  2112     
#    used :        main (  %)        temp (  %)       total (  %)
#  memory :         414 (  0)           0 (  0)         414 (  0)

#------------------------------------------------------------------------------
#newpage:
#   no. =    1   reg = 110 - 210

x: Energy [MeV/n]
y:  F-Curr [1/cm^2/(MeV/n)/source]         
p: xlog ylog afac(0.8) form(0.9)
h: n            x            y(neutron ),hh0l   n 
#  e-lower      e-upper      neutron     r.err 
   1.0000E-02   1.0243E-02   2.4685E-03  0.0405
   1.0243E-02   1.0493E-02   2.3979E-03  0.0407
   1.0493E-02   1.0748E-02   2.2749E-03  0.0412
   1.0748E-02   1.1009E-02   2.3052E-03  0.0405
   1.1009E-02   1.1277E-02   2.0204E-03  0.0427
   1.1277E-02   1.1552E-02   2.1176E-03  0.0413
   1.1552E-02   1.1833E-02   2.2138E-03  0.0399
   1.1833E-02   1.2121E-02   2.0663E-03  0.0407
   1.2121E-02   1.2415E-02   1.9568E-03  0.0414
   1.2415E-02   1.2718E-02   2.1311E-03  0.0392
   1.2718E-02   1.3027E-02   1.8359E-03  0.0417
   1.3027E-02   1.3344E-02   1.8897E-03  0.0406
   1.3344E-02   1.3669E-02   1.8405E-03  0.0407
   1.3669E-02   1.4001E-02   1.8763E-03  0.0397
   1.4001E-02   1.4342E-02   1.9341E-03  0.0388
   1.4342E-02   1.4691E-02   1.9182E-03  0.0384
   1.4691E-02   1.5048E-02   1.8417E-03  0.0387
   1.5048E-02   1.5414E-02   1.5684E-03  0.0415
   1.5414E-02   1.5789E-02   1.7244E-03  0.0391
   1.5789E-02   1.6174E-02   1.5273E-03  0.0410
   1.6174E-02   1.6567E-02   1.5783E-03  0.0398
   1.6567E-02   1.6970E-02   1.6695E-03  0.0383
   1.6970E-02   1.7383E-02   1.5727E-03  0.0390
   1.7383E-02   1.7806E-02   1.4859E-03  0.0397
   1.7806E-02   1.8239E-02   1.6147E-03  0.0376
   1.8239E-02   1.8683E-02   1.4396E-03  0.0393
   1.8683E-02   1.9138E-02   1.3916E-03  0.0395
   1.9138E-02   1.9603E-02   1.3304E-03  0.0399
   1.9603E-02   2.0080E-02   1.3350E-03  0.0393
   2.0080E-02   2.0569E-02   1.3764E-03  0.0383
   2.0569E-02   2.1069E-02   1.2781E-03  0.0393
   2.1069E-02   2.1582E-02   1.2548E-03  0.0392
   2.1582E-02   2.2107E-02   1.2133E-03  0.0394
   2.2107E-02   2.2645E-02   1.3177E-03  0.0373
   2.2645E-02   2.3196E-02   1.1991E-03  0.0386
   2.3196E-02   2.3760E-02   1.0876E-03  0.0401
   2.3760E-02   2.4338E-02   1.2427E-03  0.0371
   2.4338E-02   2.4930E-02   1.1710E-03  0.0378
   2.4930E-02   2.5537E-02   1.1123E-03  0.0383
   2.5537E-02   2.6158E-02   1.1061E-03  0.0380
   2.6158E-02   2.6795E-02   9.7367E-04  0.0399
   2.6795E-02   2.7447E-02   1.0522E-03  0.0380
   2.7447E-02   2.8114E-02   9.9047E-04  0.0386
   2.8114E-02   2.8799E-02   1.0463E-03  0.0371
   2.8799E-02   2.9499E-02   9.5971E-04  0.0383
   2.9499E-02   3.0217E-02   9.8818E-04  0.0374
   3.0217E-02   3.0952E-02   9.4630E-04  0.0377
   3.0952E-02   3.1705E-02   9.1846E-04  0.0378
   3.1705E-02   3.2477E-02   9.0573E-04  0.0376
   3.2477E-02   3.3267E-02   8.5993E-04  0.0381
   3.3267E-02   3.4076E-02   9.1760E-04  0.0365
   3.4076E-02   3.4905E-02   8.2841E-04  0.0379
   3.4905E-02   3.5755E-02   8.3924E-04  0.0372
   3.5755E-02   3.6625E-02   8.5665E-04  0.0364
   3.6625E-02   3.7516E-02   8.0140E-04  0.0372
   3.7516E-02   3.8428E-02   8.4582E-04  0.0358
   3.8428E-02   3.9363E-02   7.5969E-04  0.0372
   3.9363E-02   4.0321E-02   7.5438E-04  0.0370
   4.0321E-02   4.1302E-02   7.4865E-04  0.0367
   4.1302E-02   4.2307E-02   7.0437E-04  0.0374
   4.2307E-02   4.3337E-02   7.4644E-04  0.0358
   4.3337E-02   4.4391E-02   7.3639E-04  0.0356
   4.4391E-02   4.5471E-02   6.6467E-04  0.0370
   4.5471E-02   4.6577E-02   7.0964E-04  0.0355
   4.6577E-02   4.7711E-02   7.2094E-04  0.0348
   4.7711E-02   4.8871E-02   6.5050E-04  0.0362
   4.8871E-02   5.0061E-02   6.1247E-04  0.0368
   5.0061E-02   5.1279E-02   6.5671E-04  0.0351
   5.1279E-02   5.2526E-02   6.4596E-04  0.0350
   5.2526E-02   5.3804E-02   6.3104E-04  0.0350
   5.3804E-02   5.5113E-02   6.4689E-04  0.0342
   5.5113E-02   5.6454E-02   5.8528E-04  0.0355
   5.6454E-02   5.7828E-02   5.7987E-04  0.0352
   5.7828E-02   5.9235E-02   5.7992E-04  0.0348
   5.9235E-02   6.0676E-02   5.3606E-04  0.0358
   6.0676E-02   6.2152E-02   5.3747E-04  0.0353
   6.2152E-02   6.3665E-02   5.3336E-04  0.0350
   6.3665E-02   6.5214E-02   5.0182E-04  0.0357
   6.5214E-02   6.6800E-02   4.7239E-04  0.0363
   6.6800E-02   6.8426E-02   4.7438E-04  0.0358
   6.8426E-02   7.0090E-02   4.9474E-04  0.0346
   7.0090E-02   7.1796E-02   4.6625E-04  0.0352
   7.1796E-02   7.3543E-02   4.5466E-04  0.0353
   7.3543E-02   7.5332E-02   4.6559E-04  0.0345
   7.5332E-02   7.7165E-02   4.5118E-04  0.0345
   7.7165E-02   7.9042E-02   4.3887E-04  0.0346
   7.9042E-02   8.0965E-02   4.2780E-04  0.0347
   8.0965E-02   8.2935E-02   4.3053E-04  0.0341
   8.2935E-02   8.4953E-02   4.2838E-04  0.0338
   8.4953E-02   8.7020E-02   4.1377E-04  0.0340
   8.7020E-02   8.9138E-02   3.7083E-04  0.0355
   8.9138E-02   9.1306E-02   4.0779E-04  0.0334
   9.1306E-02   9.3528E-02   3.8692E-04  0.0339
   9.3528E-02   9.5804E-02   3.8323E-04  0.0337
   9.5804E-02   9.8134E-02   3.7612E-04  0.0336
   9.8134E-02   1.0052E-01   3.7976E-04  0.0330
   1.0052E-01   1.0297E-01   3.7495E-04  0.0328
   1.0297E-01   1.0547E-01   3.3539E-04  0.0343
   1.0547E-01   1.0804E-01   3.4204E-04  0.0335
   1.0804E-01   1.1067E-01   3.3713E-04  0.0334
   1.1067E-01   1.1336E-01   3.0740E-04  0.0345
   1.1336E-01   1.1612E-01   3.2250E-04  0.0333
   1.1612E-01   1.1894E-01   3.2708E-04  0.0327
   1.1894E-01   1.2184E-01   3.0410E-04  0.0335
   1.2184E-01   1.2480E-01   3.1177E-04  0.0327
   1.2480E-01   1.2784E-01   3.0606E-04  0.0326
   1.2784E-01   1.3095E-01   3.0452E-04  0.0323
   1.3095E-01   1.3414E-01   2.9281E-04  0.0326
   1.3414E-01   1.3740E-01   2.9050E-04  0.0323
   1.3740E-01   1.4074E-01   2.7987E-04  0.0325
   1.4074E-01   1.4417E-01   2.5810E-04  0.0334
   1.4417E-01   1.4767E-01   2.6185E-04  0.0327
   1.4767E-01   1.5127E-01   2.5358E-04  0.0329
   1.5127E-01   1.5495E-01   2.6561E-04  0.0318
   1.5495E-01   1.5872E-01   2.6317E-04  0.0316
   1.5872E-01   1.6258E-01   2.5445E-04  0.0317
   1.6258E-01   1.6654E-01   2.4016E-04  0.0322
   1.6654E-01   1.7059E-01   2.4881E-04  0.0313
   1.7059E-01   1.7474E-01   2.3147E-04  0.0320
   1.7474E-01   1.7899E-01   2.2804E-04  0.0319
   1.7899E-01   1.8334E-01   2.1796E-04  0.0323
   1.8334E-01   1.8781E-01   2.1668E-04  0.0320
   1.8781E-01   1.9237E-01   2.1400E-04  0.0318
   1.9237E-01   1.9706E-01   2.0813E-04  0.0319
   1.9706E-01   2.0185E-01   2.0102E-04  0.0320
   2.0185E-01   2.0676E-01   2.1584E-04  0.0305
   2.0676E-01   2.1179E-01   2.1871E-04  0.0300
   2.1179E-01   2.1694E-01   2.2715E-04  0.0290
   2.1694E-01   2.2222E-01   2.3844E-04  0.0280
   2.2222E-01   2.2763E-01   2.5449E-04  0.0268
   2.2763E-01   2.3317E-01   2.4814E-04  0.0268
   2.3317E-01   2.3884E-01   2.6048E-04  0.0259
   2.3884E-01   2.4465E-01   2.7453E-04  0.0249
   2.4465E-01   2.5061E-01   2.8490E-04  0.0242
   2.5061E-01   2.5670E-01   2.8899E-04  0.0237
   2.5670E-01   2.6295E-01   2.9606E-04  0.0231
   2.6295E-01   2.6935E-01   3.0716E-04  0.0224
   2.6935E-01   2.7590E-01   3.1475E-04  0.0219
   2.7590E-01   2.8261E-01   3.1799E-04  0.0215
   2.8261E-01   2.8949E-01   3.4032E-04  0.0205
   2.8949E-01   2.9653E-01   3.5323E-04  0.0199
   2.9653E-01   3.0375E-01   3.5430E-04  0.0197
   3.0375E-01   3.1114E-01   3.6373E-04  0.0192
   3.1114E-01   3.1871E-01   3.8453E-04  0.0184
   3.1871E-01   3.2646E-01   3.9788E-04  0.0179
   3.2646E-01   3.3441E-01   4.0508E-04  0.0175
   3.3441E-01   3.4254E-01   4.1402E-04  0.0171
   3.4254E-01   3.5088E-01   4.3884E-04  0.0164
   3.5088E-01   3.5941E-01   4.3917E-04  0.0162
   3.5941E-01   3.6816E-01   4.5415E-04  0.0158
   3.6816E-01   3.7712E-01   4.6701E-04  0.0154
   3.7712E-01   3.8629E-01   4.7325E-04  0.0151
   3.8629E-01   3.9569E-01   4.8352E-04  0.0147
   3.9569E-01   4.0532E-01   4.8599E-04  0.0145
   4.0532E-01   4.1518E-01   5.2769E-04  0.0138
   4.1518E-01   4.2528E-01   5.3064E-04  0.0136
   4.2528E-01   4.3563E-01   5.3987E-04  0.0133
   4.3563E-01   4.4623E-01   5.6506E-04  0.0128
   4.4623E-01   4.5708E-01   5.7042E-04  0.0126
   4.5708E-01   4.6821E-01   5.8608E-04  0.0123
   4.6821E-01   4.7960E-01   6.0415E-04  0.0120
   4.7960E-01   4.9127E-01   6.0896E-04  0.0118
   4.9127E-01   5.0322E-01   6.2908E-04  0.0114
   5.0322E-01   5.1546E-01   6.3235E-04  0.0113
   5.1546E-01   5.2800E-01   6.5629E-04  0.0110
   5.2800E-01   5.4085E-01   6.7610E-04  0.0107
   5.4085E-01   5.5401E-01   6.8524E-04  0.0105
   5.5401E-01   5.6749E-01   6.9763E-04  0.0102
   5.6749E-01   5.8130E-01   7.2411E-04  0.0099
   5.8130E-01   5.9544E-01   7.2256E-04  0.0098
   5.9544E-01   6.0993E-01   7.4508E-04  0.0096
   6.0993E-01   6.2477E-01   7.5573E-04  0.0094
   6.2477E-01   6.3997E-01   7.6405E-04  0.0092
   6.3997E-01   6.5554E-01   7.8121E-04  0.0090
   6.5554E-01   6.7149E-01   8.0735E-04  0.0088
   6.7149E-01   6.8783E-01   8.1480E-04  0.0086
   6.8783E-01   7.0456E-01   8.2046E-04  0.0085
   7.0456E-01   7.2171E-01   8.2763E-04  0.0083
   7.2171E-01   7.3927E-01   8.5529E-04  0.0081
   7.3927E-01   7.5725E-01   8.5144E-04  0.0080
   7.5725E-01   7.7568E-01   8.7786E-04  0.0078
   7.7568E-01   7.9455E-01   8.8141E-04  0.0077
   7.9455E-01   8.1388E-01   8.9373E-04  0.0076
   8.1388E-01   8.3368E-01   9.0233E-04  0.0074
   8.3368E-01   8.5397E-01   9.1425E-04  0.0073
   8.5397E-01   8.7475E-01   9.2623E-04  0.0072
   8.7475E-01   8.9603E-01   9.4036E-04  0.0070
   8.9603E-01   9.1783E-01   9.6166E-04  0.0069
   9.1783E-01   9.4016E-01   9.6111E-04  0.0068
   9.4016E-01   9.6304E-01   9.8145E-04  0.0066
   9.6304E-01   9.8647E-01   9.9073E-04  0.0065
   9.8647E-01   1.0105E+00   1.0049E-03  0.0064
   1.0105E+00   1.0351E+00   9.9486E-04  0.0063
   1.0351E+00   1.0602E+00   9.8584E-04  0.0063
   1.0602E+00   1.0860E+00   9.9718E-04  0.0062
   1.0860E+00   1.1125E+00   9.9810E-04  0.0061
   1.1125E+00   1.1395E+00   1.0045E-03  0.0060
   1.1395E+00   1.1673E+00   1.0063E-03  0.0059
   1.1673E+00   1.1957E+00   1.0275E-03  0.0058
   1.1957E+00   1.2247E+00   1.0236E-03  0.0058
   1.2247E+00   1.2545E+00   1.0276E-03  0.0057
   1.2545E+00   1.2851E+00   1.0205E-03  0.0056
   1.2851E+00   1.3163E+00   1.0115E-03  0.0056
   1.3163E+00   1.3484E+00   1.0357E-03  0.0054
   1.3484E+00   1.3812E+00   1.0345E-03  0.0054
   1.3812E+00   1.4148E+00   1.0459E-03  0.0053
   1.4148E+00   1.4492E+00   1.0448E-03  0.0052
   1.4492E+00   1.4845E+00   1.0366E-03  0.0052
   1.4845E+00   1.5206E+00   1.0470E-03  0.0051
   1.5206E+00   1.5576E+00   1.0342E-03  0.0051
   1.5576E+00   1.5955E+00   1.0307E-03  0.0050
   1.5955E+00   1.6343E+00   1.0205E-03  0.0050
   1.6343E+00   1.6741E+00   1.0134E-03  0.0049
   1.6741E+00   1.7148E+00   1.0210E-03  0.0049
   1.7148E+00   1.7565E+00   9.9649E-04  0.0049
   1.7565E+00   1.7992E+00   1.0083E-03  0.0048
   1.7992E+00   1.8430E+00   1.0174E-03  0.0047
   1.8430E+00   1.8879E+00   9.9515E-04  0.0047
   1.8879E+00   1.9338E+00   9.9474E-04  0.0046
   1.9338E+00   1.9808E+00   9.9686E-04  0.0046
   1.9808E+00   2.0290E+00   9.9314E-04  0.0045
   2.0290E+00   2.0784E+00   9.8279E-04  0.0045
   2.0784E+00   2.1290E+00   9.7138E-04  0.0045
   2.1290E+00   2.1808E+00   9.5269E-04  0.0045
   2.1808E+00   2.2338E+00   9.3760E-04  0.0044
   2.2338E+00   2.2882E+00   9.3208E-04  0.0044
   2.2882E+00   2.3439E+00   9.2651E-04  0.0044
   2.3439E+00   2.4009E+00   9.2377E-04  0.0043
   2.4009E+00   2.4593E+00   9.1394E-04  0.0043
   2.4593E+00   2.5191E+00   9.1300E-04  0.0042
   2.5191E+00   2.5804E+00   9.0776E-04  0.0042
   2.5804E+00   2.6432E+00   8.9824E-04  0.0042
   2.6432E+00   2.7075E+00   8.7915E-04  0.0042
   2.7075E+00   2.7734E+00   8.7405E-04  0.0041
   2.7734E+00   2.8409E+00   8.6531E-04  0.0041
   2.8409E+00   2.9100E+00   8.5035E-04  0.0041
   2.9100E+00   2.9808E+00   8.4061E-04  0.0041
   2.9808E+00   3.0533E+00   8.4270E-04  0.0040
   3.0533E+00   3.1276E+00   8.2689E-04  0.0040
   3.1276E+00   3.2037E+00   8.1970E-04  0.0040
   3.2037E+00   3.2817E+00   8.0677E-04  0.0040
   3.2817E+00   3.3615E+00   7.8648E-04  0.0040
   3.3615E+00   3.4433E+00   7.7380E-04  0.0039
   3.4433E+00   3.5271E+00   7.7417E-04  0.0039
   3.5271E+00   3.6129E+00   7.5826E-04  0.0039
   3.6129E+00   3.7008E+00   7.4290E-04  0.0039
   3.7008E+00   3.7908E+00   7.3358E-04  0.0039
   3.7908E+00   3.8831E+00   7.2167E-04  0.0039
   3.8831E+00   3.9776E+00   7.1108E-04  0.0038
   3.9776E+00   4.0743E+00   6.9670E-04  0.0038
   4.0743E+00   4.1735E+00   6.9282E-04  0.0038
   4.1735E+00   4.2750E+00   6.7703E-04  0.0038
   4.2750E+00   4.3790E+00   6.6692E-04  0.0038
   4.3790E+00   4.4856E+00   6.6091E-04  0.0037
   4.4856E+00   4.5947E+00   6.4943E-04  0.0037
   4.5947E+00   4.7065E+00   6.4033E-04  0.0037
   4.7065E+00   4.8210E+00   6.3438E-04  0.0037
   4.8210E+00   4.9383E+00   6.2230E-04  0.0037
   4.9383E+00   5.0585E+00   6.2200E-04  0.0036
   5.0585E+00   5.1815E+00   6.3178E-04  0.0036
   5.1815E+00   5.3076E+00   6.3416E-04  0.0035
   5.3076E+00   5.4368E+00   6.2686E-04  0.0035
   5.4368E+00   5.5690E+00   6.1742E-04  0.0035
   5.5690E+00   5.7045E+00   6.0314E-04  0.0035
   5.7045E+00   5.8433E+00   5.9105E-04  0.0035
   5.8433E+00   5.9855E+00   5.8133E-04  0.0035
   5.9855E+00   6.1311E+00   5.6870E-04  0.0035
   6.1311E+00   6.2803E+00   5.5760E-04  0.0035
   6.2803E+00   6.4331E+00   5.4945E-04  0.0034
   6.4331E+00   6.5896E+00   5.3643E-04  0.0034
   6.5896E+00   6.7500E+00   5.2538E-04  0.0034
   6.7500E+00   6.9142E+00   5.1883E-04  0.0034
   6.9142E+00   7.0824E+00   5.0717E-04  0.0034
   7.0824E+00   7.2548E+00   4.9942E-04  0.0034
   7.2548E+00   7.4313E+00   4.9152E-04  0.0034
   7.4313E+00   7.6121E+00   4.7833E-04  0.0034
   7.6121E+00   7.7973E+00   4.7548E-04  0.0034
   7.7973E+00   7.9870E+00   4.6477E-04  0.0034
   7.9870E+00   8.1813E+00   4.5716E-04  0.0033
   8.1813E+00   8.3804E+00   4.4918E-04  0.0033
   8.3804E+00   8.5843E+00   4.4429E-04  0.0033
   8.5843E+00   8.7931E+00   4.3566E-04  0.0033
   8.7931E+00   9.0071E+00   4.2654E-04  0.0033
   9.0071E+00   9.2262E+00   4.2045E-04  0.0033
   9.2262E+00   9.4507E+00   4.1294E-04  0.0033
   9.4507E+00   9.6807E+00   4.0886E-04  0.0033
   9.6807E+00   9.9162E+00   3.9753E-04  0.0033
   9.9162E+00   1.0157E+01   3.9211E-04  0.0032
   1.0157E+01   1.0405E+01   3.8295E-04  0.0032
   1.0405E+01   1.0658E+01   3.7928E-04  0.0032
   1.0658E+01   1.0917E+01   3.7222E-04  0.0032
   1.0917E+01   1.1183E+01   3.6532E-04  0.0032
   1.1183E+01   1.1455E+01   3.6224E-04  0.0032
   1.1455E+01   1.1733E+01   3.5232E-04  0.0032
   1.1733E+01   1.2019E+01   3.4554E-04  0.0032
   1.2019E+01   1.2311E+01   3.3962E-04  0.0032
   1.2311E+01   1.2611E+01   3.3513E-04  0.0032
   1.2611E+01   1.2918E+01   3.2813E-04  0.0032
   1.2918E+01   1.3232E+01   3.2216E-04  0.0031
   1.3232E+01   1.3554E+01   3.1776E-04  0.0031
   1.3554E+01   1.3884E+01   3.1092E-04  0.0031
   1.3884E+01   1.4222E+01   3.0608E-04  0.0031
   1.4222E+01   1.4568E+01   2.9935E-04  0.0031
   1.4568E+01   1.4922E+01   2.9329E-04  0.0031
   1.4922E+01   1.5285E+01   2.8626E-04  0.0031
   1.5285E+01   1.5657E+01   2.8093E-04  0.0031
   1.5657E+01   1.6038E+01   2.7593E-04  0.0031
   1.6038E+01   1.6428E+01   2.6858E-04  0.0031
   1.6428E+01   1.6828E+01   2.6149E-04  0.0031
   1.6828E+01   1.7237E+01   2.5707E-04  0.0031
   1.7237E+01   1.7657E+01   2.4918E-04  0.0031
   1.7657E+01   1.8086E+01   2.4375E-04  0.0031
   1.8086E+01   1.8526E+01   2.3757E-04  0.0031
   1.8526E+01   1.8977E+01   2.3244E-04  0.0031
   1.8977E+01   1.9439E+01   2.2725E-04  0.0031
   1.9439E+01   1.9912E+01   2.2649E-04  0.0031
   1.9912E+01   2.0396E+01   2.2639E-04  0.0030
   2.0396E+01   2.0893E+01   2.2148E-04  0.0030
   2.0893E+01   2.1401E+01   2.1465E-04  0.0030
   2.1401E+01   2.1922E+01   2.0878E-04  0.0030
   2.1922E+01   2.2455E+01   2.0174E-04  0.0030
   2.2455E+01   2.3001E+01   1.9557E-04  0.0031
   2.3001E+01   2.3561E+01   1.8904E-04  0.0031
   2.3561E+01   2.4134E+01   1.8330E-04  0.0031
   2.4134E+01   2.4721E+01   1.7562E-04  0.0031
   2.4721E+01   2.5323E+01   1.6869E-04  0.0031
   2.5323E+01   2.5939E+01   1.6304E-04  0.0032
   2.5939E+01   2.6570E+01   1.5630E-04  0.0032
   2.6570E+01   2.7217E+01   1.4995E-04  0.0032
   2.7217E+01   2.7879E+01   1.4479E-04  0.0032
   2.7879E+01   2.8557E+01   1.3793E-04  0.0033
   2.8557E+01   2.9252E+01   1.3169E-04  0.0033
   2.9252E+01   2.9964E+01   1.2610E-04  0.0033
   2.9964E+01   3.0693E+01   1.2047E-04  0.0034
   3.0693E+01   3.1440E+01   1.1440E-04  0.0034
   3.1440E+01   3.2205E+01   1.0830E-04  0.0035
   3.2205E+01   3.2988E+01   1.0305E-04  0.0035
   3.2988E+01   3.3791E+01   9.7823E-05  0.0036
   3.3791E+01   3.4613E+01   9.1738E-05  0.0036
   3.4613E+01   3.5455E+01   8.7384E-05  0.0037
   3.5455E+01   3.6318E+01   8.1768E-05  0.0038
   3.6318E+01   3.7201E+01   7.7201E-05  0.0038
   3.7201E+01   3.8106E+01   7.2587E-05  0.0039
   3.8106E+01   3.9034E+01   6.7584E-05  0.0040
   3.9034E+01   3.9983E+01   6.3037E-05  0.0041
   3.9983E+01   4.0956E+01   5.8756E-05  0.0042
   4.0956E+01   4.1953E+01   5.5098E-05  0.0043
   4.1953E+01   4.2973E+01   5.1066E-05  0.0044
   4.2973E+01   4.4019E+01   4.6928E-05  0.0045
   4.4019E+01   4.5090E+01   4.3612E-05  0.0046
   4.5090E+01   4.6187E+01   4.0317E-05  0.0048
   4.6187E+01   4.7311E+01   3.7296E-05  0.0049
   4.7311E+01   4.8462E+01   3.4435E-05  0.0050
   4.8462E+01   4.9641E+01   3.1217E-05  0.0052
   4.9641E+01   5.0849E+01   2.8734E-05  0.0054
   5.0849E+01   5.2086E+01   2.6262E-05  0.0055
   5.2086E+01   5.3353E+01   2.4066E-05  0.0057
   5.3353E+01   5.4651E+01   2.1519E-05  0.0060
   5.4651E+01   5.5981E+01   1.9674E-05  0.0062
   5.5981E+01   5.7343E+01   1.7664E-05  0.0064
   5.7343E+01   5.8738E+01   1.6107E-05  0.0067
   5.8738E+01   6.0168E+01   1.4518E-05  0.0069
   6.0168E+01   6.1632E+01   1.2891E-05  0.0073
   6.1632E+01   6.3131E+01   1.1553E-05  0.0076
   6.3131E+01   6.4667E+01   1.0302E-05  0.0079
   6.4667E+01   6.6240E+01   8.9894E-06  0.0084
   6.6240E+01   6.7852E+01   7.9135E-06  0.0089
   6.7852E+01   6.9503E+01   7.0295E-06  0.0093
   6.9503E+01   7.1194E+01   6.1476E-06  0.0098
   7.1194E+01   7.2926E+01   5.3273E-06  0.0104
   7.2926E+01   7.4701E+01   4.5628E-06  0.0111
   7.4701E+01   7.6518E+01   3.8921E-06  0.0119
   7.6518E+01   7.8380E+01   3.3979E-06  0.0126
   7.8380E+01   8.0287E+01   2.8678E-06  0.0135
   8.0287E+01   8.2240E+01   2.3164E-06  0.0149
   8.2240E+01   8.4241E+01   1.8856E-06  0.0163
   8.4241E+01   8.6291E+01   1.5583E-06  0.0177
   8.6291E+01   8.8391E+01   1.1860E-06  0.0200
   8.8391E+01   9.0541E+01   8.8068E-07  0.0230
   9.0541E+01   9.2744E+01   6.5640E-07  0.0263
   9.2744E+01   9.5001E+01   4.8304E-07  0.0303
   9.5001E+01   9.7312E+01   3.0933E-07  0.0374
   9.7312E+01   9.9680E+01   1.7232E-07  0.0495
   9.9680E+01   1.0211E+02   1.1380E-07  0.0602
   1.0211E+02   1.0459E+02   5.7964E-08  0.0833
   1.0459E+02   1.0713E+02   3.5760E-08  0.1048
   1.0713E+02   1.0974E+02   2.0333E-08  0.1374
   1.0974E+02   1.1241E+02   1.1610E-08  0.1796
   1.1241E+02   1.1515E+02   5.8500E-09  0.2500
   1.1515E+02   1.1795E+02   2.4986E-09  0.3780
   1.1795E+02   1.2082E+02   1.3938E-09  0.5000
   1.2082E+02   1.2376E+02   0.0000E+00  0.0000
   1.2376E+02   1.2677E+02   0.0000E+00  0.0000
   1.2677E+02   1.2985E+02   0.0000E+00  0.0000
   1.2985E+02   1.3301E+02   0.0000E+00  0.0000
   1.3301E+02   1.3625E+02   0.0000E+00  0.0000
   1.3625E+02   1.3956E+02   0.0000E+00  0.0000
   1.3956E+02   1.4296E+02   0.0000E+00  0.0000
   1.4296E+02   1.4644E+02   0.0000E+00  0.0000
   1.4644E+02   1.5000E+02   0.0000E+00  0.0000

#   sum over                 8.5470E-05
'no. =    1   reg = 110 - 210'
msuc: {\huge [t-cross] in region mesh}
msdr: {\it plotted by \ANGEL \version}
msdl: {\it calculated by \PHITS  3.26}
wt: s(0.7)
\vspace{-3}
  region surface crossing
  area  &=&   1.0000E+00 [cm^2]
e:
 
# Information for Restart Calculation
# This calculation was newly started
# istdev =  2 # 1:Batch variance, 2:History variance
# resc2  = 1.00000000000000000E+09 # Total source weight or Total source weight / maxcas
# resc3  = 1.00000000000000000E+09 # Total history number or Total batch number
# maxcas =   500000000 # History / Batch, only used for istdev=1
# bitrseed = 0001001110011001001001110000100100110111001111011100001000101100 # bit data of rseed
