[ T-Cross ]
    title = [t-cross] in region mesh
     mesh =  reg            # mesh type is region-wise
      reg =    1            # number of crossing regions
      non     r-from    r-to       area
      1       118       218        1.000000    
   e-type =    3            # e-mesh is log given by emin, emax and ne
     emin =  1.0000000E-02  # minimum value of e-mesh points
     emax =   150.0000      # maximum value of e-mesh points
#    edel =  2.4039514E-02  # mesh width of e-mesh points
       ne =    400          # number of e-mesh points
#    data = ( e(i), i = 1, ne + 1 )
#           1.00000E-02  1.02433E-02  1.04925E-02  1.07478E-02  1.10093E-02
#           1.12772E-02  1.15516E-02  1.18326E-02  1.21205E-02  1.24154E-02
#           1.27175E-02  1.30269E-02  1.33439E-02  1.36686E-02  1.40011E-02
#           1.43418E-02  1.46907E-02  1.50482E-02  1.54143E-02  1.57894E-02
#           1.61735E-02  1.65670E-02  1.69701E-02  1.73830E-02  1.78060E-02
#           1.82392E-02  1.86830E-02  1.91375E-02  1.96032E-02  2.00801E-02
#           2.05687E-02  2.10692E-02  2.15818E-02  2.21069E-02  2.26448E-02
#           2.31957E-02  2.37601E-02  2.43382E-02  2.49304E-02  2.55369E-02
#           2.61583E-02  2.67947E-02  2.74467E-02  2.81145E-02  2.87985E-02
#           2.94992E-02  3.02169E-02  3.09521E-02  3.17052E-02  3.24766E-02
#           3.32668E-02  3.40762E-02  3.49053E-02  3.57546E-02  3.66246E-02
#           3.75157E-02  3.84284E-02  3.93634E-02  4.03212E-02  4.13022E-02
#           4.23071E-02  4.33365E-02  4.43909E-02  4.54710E-02  4.65773E-02
#           4.77106E-02  4.88714E-02  5.00605E-02  5.12785E-02  5.25262E-02
#           5.38042E-02  5.51133E-02  5.64542E-02  5.78278E-02  5.92348E-02
#           6.06760E-02  6.21523E-02  6.36645E-02  6.52135E-02  6.68002E-02
#           6.84255E-02  7.00904E-02  7.17957E-02  7.35426E-02  7.53319E-02
#           7.71648E-02  7.90423E-02  8.09655E-02  8.29354E-02  8.49533E-02
#           8.70203E-02  8.91376E-02  9.13064E-02  9.35279E-02  9.58035E-02
#           9.81345E-02  1.00522E-01  1.02968E-01  1.05473E-01  1.08040E-01
#           1.10668E-01  1.13361E-01  1.16119E-01  1.18944E-01  1.21838E-01
#           1.24803E-01  1.27839E-01  1.30950E-01  1.34136E-01  1.37399E-01
#           1.40742E-01  1.44167E-01  1.47675E-01  1.51268E-01  1.54948E-01
#           1.58718E-01  1.62580E-01  1.66535E-01  1.70587E-01  1.74738E-01
#           1.78989E-01  1.83344E-01  1.87805E-01  1.92375E-01  1.97055E-01
#           2.01850E-01  2.06761E-01  2.11792E-01  2.16945E-01  2.22223E-01
#           2.27630E-01  2.33169E-01  2.38842E-01  2.44653E-01  2.50605E-01
#           2.56703E-01  2.62949E-01  2.69346E-01  2.75900E-01  2.82613E-01
#           2.89489E-01  2.96532E-01  3.03747E-01  3.11138E-01  3.18708E-01
#           3.26462E-01  3.34405E-01  3.42542E-01  3.50876E-01  3.59413E-01
#           3.68158E-01  3.77116E-01  3.86291E-01  3.95690E-01  4.05317E-01
#           4.15179E-01  4.25281E-01  4.35628E-01  4.46227E-01  4.57084E-01
#           4.68205E-01  4.79597E-01  4.91266E-01  5.03219E-01  5.15463E-01
#           5.28005E-01  5.40851E-01  5.54011E-01  5.67490E-01  5.81298E-01
#           5.95441E-01  6.09929E-01  6.24769E-01  6.39970E-01  6.55541E-01
#           6.71491E-01  6.87828E-01  7.04564E-01  7.21706E-01  7.39266E-01
#           7.57253E-01  7.75678E-01  7.94551E-01  8.13883E-01  8.33685E-01
#           8.53969E-01  8.74747E-01  8.96030E-01  9.17831E-01  9.40163E-01
#           9.63038E-01  9.86469E-01  1.01047E+00  1.03506E+00  1.06024E+00
#           1.08604E+00  1.11246E+00  1.13953E+00  1.16725E+00  1.19565E+00
#           1.22474E+00  1.25454E+00  1.28507E+00  1.31633E+00  1.34836E+00
#           1.38117E+00  1.41477E+00  1.44920E+00  1.48446E+00  1.52057E+00
#           1.55757E+00  1.59547E+00  1.63429E+00  1.67405E+00  1.71478E+00
#           1.75650E+00  1.79924E+00  1.84302E+00  1.88786E+00  1.93379E+00
#           1.98084E+00  2.02904E+00  2.07841E+00  2.12898E+00  2.18078E+00
#           2.23384E+00  2.28819E+00  2.34386E+00  2.40089E+00  2.45930E+00
#           2.51914E+00  2.58043E+00  2.64322E+00  2.70753E+00  2.77341E+00
#           2.84088E+00  2.91001E+00  2.98081E+00  3.05333E+00  3.12762E+00
#           3.20372E+00  3.28167E+00  3.36152E+00  3.44330E+00  3.52708E+00
#           3.61290E+00  3.70080E+00  3.79085E+00  3.88308E+00  3.97756E+00
#           4.07434E+00  4.17347E+00  4.27501E+00  4.37903E+00  4.48557E+00
#           4.59471E+00  4.70650E+00  4.82102E+00  4.93832E+00  5.05847E+00
#           5.18155E+00  5.30762E+00  5.43676E+00  5.56904E+00  5.70453E+00
#           5.84333E+00  5.98550E+00  6.13114E+00  6.28031E+00  6.43312E+00
#           6.58964E+00  6.74997E+00  6.91420E+00  7.08243E+00  7.25475E+00
#           7.43126E+00  7.61207E+00  7.79728E+00  7.98700E+00  8.18133E+00
#           8.38038E+00  8.58428E+00  8.79315E+00  9.00709E+00  9.22624E+00
#           9.45072E+00  9.68067E+00  9.91620E+00  1.01575E+01  1.04046E+01
#           1.06578E+01  1.09171E+01  1.11827E+01  1.14548E+01  1.17335E+01
#           1.20190E+01  1.23114E+01  1.26109E+01  1.29178E+01  1.32321E+01
#           1.35540E+01  1.38838E+01  1.42216E+01  1.45676E+01  1.49221E+01
#           1.52851E+01  1.56570E+01  1.60380E+01  1.64282E+01  1.68279E+01
#           1.72374E+01  1.76568E+01  1.80864E+01  1.85264E+01  1.89772E+01
#           1.94389E+01  1.99119E+01  2.03963E+01  2.08926E+01  2.14009E+01
#           2.19216E+01  2.24550E+01  2.30014E+01  2.35610E+01  2.41343E+01
#           2.47215E+01  2.53230E+01  2.59391E+01  2.65702E+01  2.72167E+01
#           2.78789E+01  2.85572E+01  2.92520E+01  2.99637E+01  3.06928E+01
#           3.14396E+01  3.22045E+01  3.29881E+01  3.37907E+01  3.46128E+01
#           3.54550E+01  3.63177E+01  3.72013E+01  3.81064E+01  3.90336E+01
#           3.99833E+01  4.09561E+01  4.19526E+01  4.29734E+01  4.40189E+01
#           4.50900E+01  4.61870E+01  4.73108E+01  4.84619E+01  4.96410E+01
#           5.08488E+01  5.20860E+01  5.33533E+01  5.46514E+01  5.59812E+01
#           5.73432E+01  5.87384E+01  6.01676E+01  6.16315E+01  6.31311E+01
#           6.46671E+01  6.62405E+01  6.78522E+01  6.95031E+01  7.11941E+01
#           7.29263E+01  7.47007E+01  7.65182E+01  7.83800E+01  8.02870E+01
#           8.22405E+01  8.42414E+01  8.62911E+01  8.83906E+01  9.05412E+01
#           9.27442E+01  9.50007E+01  9.73122E+01  9.96799E+01  1.02105E+02
#           1.04589E+02  1.07134E+02  1.09741E+02  1.12411E+02  1.15146E+02
#           1.17948E+02  1.20817E+02  1.23757E+02  1.26768E+02  1.29852E+02
#           1.33012E+02  1.36248E+02  1.39563E+02  1.42959E+02  1.46437E+02
#           1.50000E+02
     unit =    2            # unit is [1/cm^2/(MeV/n)/source]
     axis =  eng            # axis of output
     file = detector-19.out  # file name of output for the above axis
   output = f-curr          # surface crossing forward current spectrum
     part =  neutron  
# kf/name :  2112     
#    used :        main (  %)        temp (  %)       total (  %)
#  memory :         414 (  0)           0 (  0)         414 (  0)

#------------------------------------------------------------------------------
#newpage:
#   no. =    1   reg = 118 - 218

x: Energy [MeV/n]
y:  F-Curr [1/cm^2/(MeV/n)/source]         
p: xlog ylog afac(0.8) form(0.9)
h: n            x            y(neutron ),hh0l   n 
#  e-lower      e-upper      neutron     r.err 
   1.0000E-02   1.0243E-02   2.7699E-03  0.0543
   1.0243E-02   1.0493E-02   2.7066E-03  0.0543
   1.0493E-02   1.0748E-02   2.8191E-03  0.0526
   1.0748E-02   1.1009E-02   2.5013E-03  0.0552
   1.1009E-02   1.1277E-02   2.6308E-03  0.0532
   1.1277E-02   1.1552E-02   2.6856E-03  0.0519
   1.1552E-02   1.1833E-02   2.5637E-03  0.0526
   1.1833E-02   1.2121E-02   2.4016E-03  0.0536
   1.2121E-02   1.2415E-02   2.1085E-03  0.0565
   1.2415E-02   1.2718E-02   2.5289E-03  0.0510
   1.2718E-02   1.3027E-02   2.4781E-03  0.0509
   1.3027E-02   1.3344E-02   2.3536E-03  0.0516
   1.3344E-02   1.3669E-02   2.1465E-03  0.0534
   1.3669E-02   1.4001E-02   2.3182E-03  0.0508
   1.4001E-02   1.4342E-02   2.1111E-03  0.0526
   1.4342E-02   1.4691E-02   2.2062E-03  0.0508
   1.4691E-02   1.5048E-02   2.1202E-03  0.0512
   1.5048E-02   1.5414E-02   2.1603E-03  0.0502
   1.5414E-02   1.5789E-02   1.9095E-03  0.0527
   1.5789E-02   1.6174E-02   1.8803E-03  0.0525
   1.6174E-02   1.6567E-02   1.7912E-03  0.0532
   1.6567E-02   1.6970E-02   1.9851E-03  0.0499
   1.6970E-02   1.7383E-02   1.8300E-03  0.0513
   1.7383E-02   1.7806E-02   1.7624E-03  0.0517
   1.7806E-02   1.8239E-02   1.7920E-03  0.0506
   1.8239E-02   1.8683E-02   1.6901E-03  0.0514
   1.8683E-02   1.9138E-02   1.6468E-03  0.0515
   1.9138E-02   1.9603E-02   1.7541E-03  0.0493
   1.9603E-02   2.0080E-02   1.6507E-03  0.0503
   2.0080E-02   2.0569E-02   1.6325E-03  0.0500
   2.0569E-02   2.1069E-02   1.5967E-03  0.0499
   2.1069E-02   2.1582E-02   1.5892E-03  0.0494
   2.1582E-02   2.2107E-02   1.5121E-03  0.0501
   2.2107E-02   2.2645E-02   1.4846E-03  0.0499
   2.2645E-02   2.3196E-02   1.3967E-03  0.0507
   2.3196E-02   2.3760E-02   1.5418E-03  0.0478
   2.3760E-02   2.4338E-02   1.3442E-03  0.0506
   2.4338E-02   2.4930E-02   1.4089E-03  0.0488
   2.4930E-02   2.5537E-02   1.3146E-03  0.0500
   2.5537E-02   2.6158E-02   1.2629E-03  0.0503
   2.6158E-02   2.6795E-02   1.1986E-03  0.0511
   2.6795E-02   2.7447E-02   1.3139E-03  0.0481
   2.7447E-02   2.8114E-02   1.0828E-03  0.0524
   2.8114E-02   2.8799E-02   1.1987E-03  0.0493
   2.8799E-02   2.9499E-02   1.2661E-03  0.0474
   2.9499E-02   3.0217E-02   1.1771E-03  0.0485
   3.0217E-02   3.0952E-02   1.0723E-03  0.0502
   3.0952E-02   3.1705E-02   1.1110E-03  0.0488
   3.1705E-02   3.2477E-02   9.8636E-04  0.0512
   3.2477E-02   3.3267E-02   1.0498E-03  0.0490
   3.3267E-02   3.4076E-02   1.1005E-03  0.0472
   3.4076E-02   3.4905E-02   1.0645E-03  0.0475
   3.4905E-02   3.5755E-02   9.9385E-04  0.0485
   3.5755E-02   3.6625E-02   9.8961E-04  0.0481
   3.6625E-02   3.7516E-02   9.7742E-04  0.0478
   3.7516E-02   3.8428E-02   9.7809E-04  0.0471
   3.8428E-02   3.9363E-02   9.0970E-04  0.0483
   3.9363E-02   4.0321E-02   9.4049E-04  0.0470
   4.0321E-02   4.1302E-02   8.3988E-04  0.0491
   4.1302E-02   4.2307E-02   8.6832E-04  0.0478
   4.2307E-02   4.3337E-02   9.1096E-04  0.0460
   4.3337E-02   4.4391E-02   8.3774E-04  0.0474
   4.4391E-02   4.5471E-02   8.2333E-04  0.0473
   4.5471E-02   4.6577E-02   7.7988E-04  0.0480
   4.6577E-02   4.7711E-02   8.0936E-04  0.0465
   4.7711E-02   4.8871E-02   7.4192E-04  0.0480
   4.8871E-02   5.0061E-02   7.5138E-04  0.0471
   5.0061E-02   5.1279E-02   7.5229E-04  0.0466
   5.1279E-02   5.2526E-02   7.4501E-04  0.0462
   5.2526E-02   5.3804E-02   7.4604E-04  0.0457
   5.3804E-02   5.5113E-02   7.0207E-04  0.0465
   5.5113E-02   5.6454E-02   7.0194E-04  0.0460
   5.6454E-02   5.7828E-02   6.8657E-04  0.0459
   5.7828E-02   5.9235E-02   6.7587E-04  0.0458
   5.9235E-02   6.0676E-02   6.2818E-04  0.0469
   6.0676E-02   6.2152E-02   6.4371E-04  0.0458
   6.2152E-02   6.3665E-02   6.2817E-04  0.0458
   6.3665E-02   6.5214E-02   5.9212E-04  0.0465
   6.5214E-02   6.6800E-02   6.1596E-04  0.0451
   6.6800E-02   6.8426E-02   6.1851E-04  0.0445
   6.8426E-02   7.0090E-02   6.1155E-04  0.0442
   7.0090E-02   7.1796E-02   4.8117E-04  0.0493
   7.1796E-02   7.3543E-02   5.1971E-04  0.0468
   7.3543E-02   7.5332E-02   4.9839E-04  0.0472
   7.5332E-02   7.7165E-02   5.2911E-04  0.0453
   7.7165E-02   7.9042E-02   4.8616E-04  0.0466
   7.9042E-02   8.0965E-02   4.7977E-04  0.0464
   8.0965E-02   8.2935E-02   4.5880E-04  0.0469
   8.2935E-02   8.4953E-02   4.5326E-04  0.0467
   8.4953E-02   8.7020E-02   4.7247E-04  0.0451
   8.7020E-02   8.9138E-02   4.4972E-04  0.0457
   8.9138E-02   9.1306E-02   4.2060E-04  0.0467
   9.1306E-02   9.3528E-02   4.1651E-04  0.0464
   9.3528E-02   9.5804E-02   4.0481E-04  0.0464
   9.5804E-02   9.8134E-02   4.0200E-04  0.0460
   9.8134E-02   1.0052E-01   4.2563E-04  0.0442
   1.0052E-01   1.0297E-01   3.8518E-04  0.0460
   1.0297E-01   1.0547E-01   3.5605E-04  0.0472
   1.0547E-01   1.0804E-01   3.7778E-04  0.0453
   1.0804E-01   1.1067E-01   3.5853E-04  0.0459
   1.1067E-01   1.1336E-01   3.5898E-04  0.0454
   1.1336E-01   1.1612E-01   3.7396E-04  0.0439
   1.1612E-01   1.1894E-01   3.7844E-04  0.0432
   1.1894E-01   1.2184E-01   3.4526E-04  0.0447
   1.2184E-01   1.2480E-01   3.4232E-04  0.0443
   1.2480E-01   1.2784E-01   3.2550E-04  0.0449
   1.2784E-01   1.3095E-01   2.9134E-04  0.0469
   1.3095E-01   1.3414E-01   3.1880E-04  0.0442
   1.3414E-01   1.3740E-01   2.9718E-04  0.0453
   1.3740E-01   1.4074E-01   2.7770E-04  0.0463
   1.4074E-01   1.4417E-01   2.8298E-04  0.0453
   1.4417E-01   1.4767E-01   3.0113E-04  0.0434
   1.4767E-01   1.5127E-01   2.4066E-04  0.0480
   1.5127E-01   1.5495E-01   2.6938E-04  0.0448
   1.5495E-01   1.5872E-01   2.5772E-04  0.0452
   1.5872E-01   1.6258E-01   2.8528E-04  0.0425
   1.6258E-01   1.6654E-01   2.5248E-04  0.0447
   1.6654E-01   1.7059E-01   2.4940E-04  0.0444
   1.7059E-01   1.7474E-01   2.5428E-04  0.0434
   1.7474E-01   1.7899E-01   2.2603E-04  0.0455
   1.7899E-01   1.8334E-01   2.3263E-04  0.0443
   1.8334E-01   1.8781E-01   2.1403E-04  0.0457
   1.8781E-01   1.9237E-01   2.2147E-04  0.0443
   1.9237E-01   1.9706E-01   2.0428E-04  0.0456
   1.9706E-01   2.0185E-01   2.1678E-04  0.0437
   2.0185E-01   2.0676E-01   2.0706E-04  0.0442
   2.0676E-01   2.1179E-01   2.1231E-04  0.0431
   2.1179E-01   2.1694E-01   2.1396E-04  0.0424
   2.1694E-01   2.2222E-01   2.2010E-04  0.0414
   2.2222E-01   2.2763E-01   2.2983E-04  0.0400
   2.2763E-01   2.3317E-01   2.3878E-04  0.0388
   2.3317E-01   2.3884E-01   2.4002E-04  0.0382
   2.3884E-01   2.4465E-01   2.6358E-04  0.0360
   2.4465E-01   2.5061E-01   2.6116E-04  0.0358
   2.5061E-01   2.5670E-01   2.7053E-04  0.0347
   2.5670E-01   2.6295E-01   2.8498E-04  0.0334
   2.6295E-01   2.6935E-01   2.7267E-04  0.0337
   2.6935E-01   2.7590E-01   2.8280E-04  0.0327
   2.7590E-01   2.8261E-01   2.8549E-04  0.0322
   2.8261E-01   2.8949E-01   2.9164E-04  0.0315
   2.8949E-01   2.9653E-01   3.0277E-04  0.0305
   2.9653E-01   3.0375E-01   3.2027E-04  0.0293
   3.0375E-01   3.1114E-01   3.1163E-04  0.0294
   3.1114E-01   3.1871E-01   3.1727E-04  0.0287
   3.1871E-01   3.2646E-01   3.3110E-04  0.0278
   3.2646E-01   3.3441E-01   3.3092E-04  0.0275
   3.3441E-01   3.4254E-01   3.2031E-04  0.0276
   3.4254E-01   3.5088E-01   3.5063E-04  0.0261
   3.5088E-01   3.5941E-01   3.4721E-04  0.0259
   3.5941E-01   3.6816E-01   3.6098E-04  0.0251
   3.6816E-01   3.7712E-01   3.4734E-04  0.0252
   3.7712E-01   3.8629E-01   3.6374E-04  0.0244
   3.8629E-01   3.9569E-01   3.6889E-04  0.0239
   3.9569E-01   4.0532E-01   3.6224E-04  0.0239
   4.0532E-01   4.1518E-01   3.6515E-04  0.0235
   4.1518E-01   4.2528E-01   3.8473E-04  0.0226
   4.2528E-01   4.3563E-01   3.7037E-04  0.0228
   4.3563E-01   4.4623E-01   3.8665E-04  0.0220
   4.4623E-01   4.5708E-01   3.8295E-04  0.0219
   4.5708E-01   4.6821E-01   3.9450E-04  0.0213
   4.6821E-01   4.7960E-01   4.0159E-04  0.0208
   4.7960E-01   4.9127E-01   4.0463E-04  0.0205
   4.9127E-01   5.0322E-01   4.0332E-04  0.0203
   5.0322E-01   5.1546E-01   4.0136E-04  0.0201
   5.1546E-01   5.2800E-01   4.0505E-04  0.0197
   5.2800E-01   5.4085E-01   3.9327E-04  0.0198
   5.4085E-01   5.5401E-01   4.0444E-04  0.0193
   5.5401E-01   5.6749E-01   4.0677E-04  0.0190
   5.6749E-01   5.8130E-01   4.1303E-04  0.0186
   5.8130E-01   5.9544E-01   4.0646E-04  0.0186
   5.9544E-01   6.0993E-01   4.1186E-04  0.0182
   6.0993E-01   6.2477E-01   4.1327E-04  0.0180
   6.2477E-01   6.3997E-01   4.1954E-04  0.0176
   6.3997E-01   6.5554E-01   4.0964E-04  0.0176
   6.5554E-01   6.7149E-01   4.0891E-04  0.0174
   6.7149E-01   6.8783E-01   3.9814E-04  0.0175
   6.8783E-01   7.0456E-01   4.0345E-04  0.0171
   7.0456E-01   7.2171E-01   4.0120E-04  0.0170
   7.2171E-01   7.3927E-01   4.0891E-04  0.0166
   7.3927E-01   7.5725E-01   3.9709E-04  0.0166
   7.5725E-01   7.7568E-01   4.0576E-04  0.0163
   7.7568E-01   7.9455E-01   3.8812E-04  0.0164
   7.9455E-01   8.1388E-01   3.9402E-04  0.0161
   8.1388E-01   8.3368E-01   4.0402E-04  0.0157
   8.3368E-01   8.5397E-01   3.9452E-04  0.0157
   8.5397E-01   8.7475E-01   3.9086E-04  0.0156
   8.7475E-01   8.9603E-01   3.8313E-04  0.0156
   8.9603E-01   9.1783E-01   3.9224E-04  0.0152
   9.1783E-01   9.4016E-01   3.8919E-04  0.0151
   9.4016E-01   9.6304E-01   3.8430E-04  0.0150
   9.6304E-01   9.8647E-01   3.8437E-04  0.0148
   9.8647E-01   1.0105E+00   3.8082E-04  0.0147
   1.0105E+00   1.0351E+00   3.7589E-04  0.0146
   1.0351E+00   1.0602E+00   3.7727E-04  0.0144
   1.0602E+00   1.0860E+00   3.6316E-04  0.0145
   1.0860E+00   1.1125E+00   3.6043E-04  0.0144
   1.1125E+00   1.1395E+00   3.6181E-04  0.0142
   1.1395E+00   1.1673E+00   3.5692E-04  0.0141
   1.1673E+00   1.1957E+00   3.5573E-04  0.0140
   1.1957E+00   1.2247E+00   3.5767E-04  0.0138
   1.2247E+00   1.2545E+00   3.5135E-04  0.0137
   1.2545E+00   1.2851E+00   3.3855E-04  0.0138
   1.2851E+00   1.3163E+00   3.4095E-04  0.0136
   1.3163E+00   1.3484E+00   3.4235E-04  0.0134
   1.3484E+00   1.3812E+00   3.4202E-04  0.0132
   1.3812E+00   1.4148E+00   3.3292E-04  0.0133
   1.4148E+00   1.4492E+00   3.2824E-04  0.0132
   1.4492E+00   1.4845E+00   3.2304E-04  0.0132
   1.4845E+00   1.5206E+00   3.3050E-04  0.0128
   1.5206E+00   1.5576E+00   3.3088E-04  0.0127
   1.5576E+00   1.5955E+00   3.2243E-04  0.0127
   1.5955E+00   1.6343E+00   3.0908E-04  0.0128
   1.6343E+00   1.6741E+00   3.0628E-04  0.0127
   1.6741E+00   1.7148E+00   3.0842E-04  0.0125
   1.7148E+00   1.7565E+00   2.9990E-04  0.0125
   1.7565E+00   1.7992E+00   2.9492E-04  0.0125
   1.7992E+00   1.8430E+00   3.0136E-04  0.0122
   1.8430E+00   1.8879E+00   2.9086E-04  0.0123
   1.8879E+00   1.9338E+00   2.8816E-04  0.0122
   1.9338E+00   1.9808E+00   2.8922E-04  0.0120
   1.9808E+00   2.0290E+00   2.8059E-04  0.0121
   2.0290E+00   2.0784E+00   2.7558E-04  0.0120
   2.0784E+00   2.1290E+00   2.7356E-04  0.0119
   2.1290E+00   2.1808E+00   2.6852E-04  0.0119
   2.1808E+00   2.2338E+00   2.6450E-04  0.0118
   2.2338E+00   2.2882E+00   2.6475E-04  0.0117
   2.2882E+00   2.3439E+00   2.6563E-04  0.0115
   2.3439E+00   2.4009E+00   2.6050E-04  0.0115
   2.4009E+00   2.4593E+00   2.5190E-04  0.0116
   2.4593E+00   2.5191E+00   2.5613E-04  0.0113
   2.5191E+00   2.5804E+00   2.5297E-04  0.0113
   2.5804E+00   2.6432E+00   2.5114E-04  0.0112
   2.6432E+00   2.7075E+00   2.5382E-04  0.0110
   2.7075E+00   2.7734E+00   2.4211E-04  0.0111
   2.7734E+00   2.8409E+00   2.4294E-04  0.0110
   2.8409E+00   2.9100E+00   2.3359E-04  0.0110
   2.9100E+00   2.9808E+00   2.3786E-04  0.0108
   2.9808E+00   3.0533E+00   2.2472E-04  0.0110
   3.0533E+00   3.1276E+00   2.2318E-04  0.0109
   3.1276E+00   3.2037E+00   2.2097E-04  0.0108
   3.2037E+00   3.2817E+00   2.0998E-04  0.0110
   3.2817E+00   3.3615E+00   2.0671E-04  0.0109
   3.3615E+00   3.4433E+00   1.9449E-04  0.0111
   3.4433E+00   3.5271E+00   1.8816E-04  0.0112
   3.5271E+00   3.6129E+00   1.8582E-04  0.0111
   3.6129E+00   3.7008E+00   1.8340E-04  0.0111
   3.7008E+00   3.7908E+00   1.7877E-04  0.0111
   3.7908E+00   3.8831E+00   1.7496E-04  0.0111
   3.8831E+00   3.9776E+00   1.6910E-04  0.0111
   3.9776E+00   4.0743E+00   1.6384E-04  0.0112
   4.0743E+00   4.1735E+00   1.6160E-04  0.0111
   4.1735E+00   4.2750E+00   1.5811E-04  0.0111
   4.2750E+00   4.3790E+00   1.5419E-04  0.0111
   4.3790E+00   4.4856E+00   1.5122E-04  0.0111
   4.4856E+00   4.5947E+00   1.4601E-04  0.0111
   4.5947E+00   4.7065E+00   1.4536E-04  0.0110
   4.7065E+00   4.8210E+00   1.4282E-04  0.0110
   4.8210E+00   4.9383E+00   1.3470E-04  0.0112
   4.9383E+00   5.0585E+00   1.3101E-04  0.0112
   5.0585E+00   5.1815E+00   1.2967E-04  0.0111
   5.1815E+00   5.3076E+00   1.2561E-04  0.0112
   5.3076E+00   5.4368E+00   1.2162E-04  0.0112
   5.4368E+00   5.5690E+00   1.2144E-04  0.0111
   5.5690E+00   5.7045E+00   1.1642E-04  0.0112
   5.7045E+00   5.8433E+00   1.1436E-04  0.0112
   5.8433E+00   5.9855E+00   1.1385E-04  0.0111
   5.9855E+00   6.1311E+00   1.1021E-04  0.0111
   6.1311E+00   6.2803E+00   1.0795E-04  0.0111
   6.2803E+00   6.4331E+00   1.0390E-04  0.0112
   6.4331E+00   6.5896E+00   1.0302E-04  0.0111
   6.5896E+00   6.7500E+00   1.0060E-04  0.0111
   6.7500E+00   6.9142E+00   9.8208E-05  0.0111
   6.9142E+00   7.0824E+00   9.4548E-05  0.0112
   7.0824E+00   7.2548E+00   9.1651E-05  0.0112
   7.2548E+00   7.4313E+00   9.0001E-05  0.0112
   7.4313E+00   7.6121E+00   8.7884E-05  0.0112
   7.6121E+00   7.7973E+00   8.5896E-05  0.0112
   7.7973E+00   7.9870E+00   8.2276E-05  0.0113
   7.9870E+00   8.1813E+00   8.1623E-05  0.0112
   8.1813E+00   8.3804E+00   7.7395E-05  0.0114
   8.3804E+00   8.5843E+00   7.5492E-05  0.0114
   8.5843E+00   8.7931E+00   7.2675E-05  0.0115
   8.7931E+00   9.0071E+00   6.8980E-05  0.0116
   9.0071E+00   9.2262E+00   6.8361E-05  0.0115
   9.2262E+00   9.4507E+00   6.4349E-05  0.0117
   9.4507E+00   9.6807E+00   6.3664E-05  0.0117
   9.6807E+00   9.9162E+00   6.2024E-05  0.0117
   9.9162E+00   1.0157E+01   5.7448E-05  0.0120
   1.0157E+01   1.0405E+01   5.6123E-05  0.0120
   1.0405E+01   1.0658E+01   5.8049E-05  0.0117
   1.0658E+01   1.0917E+01   5.7320E-05  0.0116
   1.0917E+01   1.1183E+01   5.5824E-05  0.0116
   1.1183E+01   1.1455E+01   5.3243E-05  0.0117
   1.1455E+01   1.1733E+01   5.2235E-05  0.0117
   1.1733E+01   1.2019E+01   4.7434E-05  0.0121
   1.2019E+01   1.2311E+01   4.5639E-05  0.0122
   1.2311E+01   1.2611E+01   4.2360E-05  0.0125
   1.2611E+01   1.2918E+01   4.1369E-05  0.0125
   1.2918E+01   1.3232E+01   3.9583E-05  0.0127
   1.3232E+01   1.3554E+01   3.7366E-05  0.0129
   1.3554E+01   1.3884E+01   3.6321E-05  0.0129
   1.3884E+01   1.4222E+01   3.3892E-05  0.0132
   1.4222E+01   1.4568E+01   3.2422E-05  0.0133
   1.4568E+01   1.4922E+01   2.9589E-05  0.0138
   1.4922E+01   1.5285E+01   2.7967E-05  0.0140
   1.5285E+01   1.5657E+01   2.6097E-05  0.0143
   1.5657E+01   1.6038E+01   2.4493E-05  0.0146
   1.6038E+01   1.6428E+01   2.3173E-05  0.0149
   1.6428E+01   1.6828E+01   2.2001E-05  0.0151
   1.6828E+01   1.7237E+01   2.0889E-05  0.0153
   1.7237E+01   1.7657E+01   1.8646E-05  0.0160
   1.7657E+01   1.8086E+01   1.7972E-05  0.0161
   1.8086E+01   1.8526E+01   1.7048E-05  0.0163
   1.8526E+01   1.8977E+01   1.5479E-05  0.0169
   1.8977E+01   1.9439E+01   1.4789E-05  0.0171
   1.9439E+01   1.9912E+01   1.3736E-05  0.0175
   1.9912E+01   2.0396E+01   1.3214E-05  0.0177
   2.0396E+01   2.0893E+01   1.2485E-05  0.0180
   2.0893E+01   2.1401E+01   1.1044E-05  0.0189
   2.1401E+01   2.1922E+01   1.0159E-05  0.0194
   2.1922E+01   2.2455E+01   9.6856E-06  0.0197
   2.2455E+01   2.3001E+01   8.4342E-06  0.0208
   2.3001E+01   2.3561E+01   7.7514E-06  0.0215
   2.3561E+01   2.4134E+01   6.9009E-06  0.0225
   2.4134E+01   2.4721E+01   6.1886E-06  0.0235
   2.4721E+01   2.5323E+01   5.5928E-06  0.0244
   2.5323E+01   2.5939E+01   4.7166E-06  0.0262
   2.5939E+01   2.6570E+01   4.0088E-06  0.0281
   2.6570E+01   2.7217E+01   3.4711E-06  0.0299
   2.7217E+01   2.7879E+01   3.0232E-06  0.0316
   2.7879E+01   2.8557E+01   2.3175E-06  0.0357
   2.8557E+01   2.9252E+01   1.8221E-06  0.0397
   2.9252E+01   2.9964E+01   1.2477E-06  0.0475
   2.9964E+01   3.0693E+01   9.8485E-07  0.0528
   3.0693E+01   3.1440E+01   7.8738E-07  0.0583
   3.1440E+01   3.2205E+01   5.6736E-07  0.0679
   3.2205E+01   3.2988E+01   4.6710E-07  0.0739
   3.2988E+01   3.3791E+01   2.7161E-07  0.0958
   3.3791E+01   3.4613E+01   2.2623E-07  0.1037
   3.4613E+01   3.5455E+01   1.7574E-07  0.1162
   3.5455E+01   3.6318E+01   8.3464E-08  0.1667
   3.6318E+01   3.7201E+01   3.3951E-08  0.2582
   3.7201E+01   3.8106E+01   6.6288E-09  0.5774
   3.8106E+01   3.9034E+01   4.3143E-09  0.7071
   3.9034E+01   3.9983E+01   0.0000E+00  0.0000
   3.9983E+01   4.0956E+01   0.0000E+00  0.0000
   4.0956E+01   4.1953E+01   2.0070E-09  1.0000
   4.1953E+01   4.2973E+01   0.0000E+00  0.0000
   4.2973E+01   4.4019E+01   0.0000E+00  0.0000
   4.4019E+01   4.5090E+01   0.0000E+00  0.0000
   4.5090E+01   4.6187E+01   0.0000E+00  0.0000
   4.6187E+01   4.7311E+01   0.0000E+00  0.0000
   4.7311E+01   4.8462E+01   0.0000E+00  0.0000
   4.8462E+01   4.9641E+01   0.0000E+00  0.0000
   4.9641E+01   5.0849E+01   0.0000E+00  0.0000
   5.0849E+01   5.2086E+01   0.0000E+00  0.0000
   5.2086E+01   5.3353E+01   0.0000E+00  0.0000
   5.3353E+01   5.4651E+01   0.0000E+00  0.0000
   5.4651E+01   5.5981E+01   0.0000E+00  0.0000
   5.5981E+01   5.7343E+01   0.0000E+00  0.0000
   5.7343E+01   5.8738E+01   0.0000E+00  0.0000
   5.8738E+01   6.0168E+01   0.0000E+00  0.0000
   6.0168E+01   6.1632E+01   0.0000E+00  0.0000
   6.1632E+01   6.3131E+01   0.0000E+00  0.0000
   6.3131E+01   6.4667E+01   0.0000E+00  0.0000
   6.4667E+01   6.6240E+01   0.0000E+00  0.0000
   6.6240E+01   6.7852E+01   0.0000E+00  0.0000
   6.7852E+01   6.9503E+01   0.0000E+00  0.0000
   6.9503E+01   7.1194E+01   0.0000E+00  0.0000
   7.1194E+01   7.2926E+01   0.0000E+00  0.0000
   7.2926E+01   7.4701E+01   0.0000E+00  0.0000
   7.4701E+01   7.6518E+01   0.0000E+00  0.0000
   7.6518E+01   7.8380E+01   0.0000E+00  0.0000
   7.8380E+01   8.0287E+01   0.0000E+00  0.0000
   8.0287E+01   8.2240E+01   0.0000E+00  0.0000
   8.2240E+01   8.4241E+01   0.0000E+00  0.0000
   8.4241E+01   8.6291E+01   0.0000E+00  0.0000
   8.6291E+01   8.8391E+01   0.0000E+00  0.0000
   8.8391E+01   9.0541E+01   0.0000E+00  0.0000
   9.0541E+01   9.2744E+01   0.0000E+00  0.0000
   9.2744E+01   9.5001E+01   0.0000E+00  0.0000
   9.5001E+01   9.7312E+01   0.0000E+00  0.0000
   9.7312E+01   9.9680E+01   0.0000E+00  0.0000
   9.9680E+01   1.0211E+02   0.0000E+00  0.0000
   1.0211E+02   1.0459E+02   0.0000E+00  0.0000
   1.0459E+02   1.0713E+02   0.0000E+00  0.0000
   1.0713E+02   1.0974E+02   0.0000E+00  0.0000
   1.0974E+02   1.1241E+02   0.0000E+00  0.0000
   1.1241E+02   1.1515E+02   0.0000E+00  0.0000
   1.1515E+02   1.1795E+02   0.0000E+00  0.0000
   1.1795E+02   1.2082E+02   0.0000E+00  0.0000
   1.2082E+02   1.2376E+02   0.0000E+00  0.0000
   1.2376E+02   1.2677E+02   0.0000E+00  0.0000
   1.2677E+02   1.2985E+02   0.0000E+00  0.0000
   1.2985E+02   1.3301E+02   0.0000E+00  0.0000
   1.3301E+02   1.3625E+02   0.0000E+00  0.0000
   1.3625E+02   1.3956E+02   0.0000E+00  0.0000
   1.3956E+02   1.4296E+02   0.0000E+00  0.0000
   1.4296E+02   1.4644E+02   0.0000E+00  0.0000
   1.4644E+02   1.5000E+02   0.0000E+00  0.0000

#   sum over                 1.4420E-05
'no. =    1   reg = 118 - 218'
msuc: {\huge [t-cross] in region mesh}
msdr: {\it plotted by \ANGEL \version}
msdl: {\it calculated by \PHITS  3.26}
wt: s(0.7)
\vspace{-3}
  region surface crossing
  area  &=&   1.0000E+00 [cm^2]
e:
 
# Information for Restart Calculation
# This calculation was newly started
# istdev =  2 # 1:Batch variance, 2:History variance
# resc2  = 5.00000000000000000E+08 # Total source weight or Total source weight / maxcas
# resc3  = 5.00000000000000000E+08 # Total history number or Total batch number
# maxcas =   500000000 # History / Batch, only used for istdev=1
# bitrseed = 1101101111010011011000101101110001100110110010110001010100010001 # bit data of rseed
