[ T-Cross ]
    title = [t-cross] in region mesh
     mesh =  reg            # mesh type is region-wise
      reg =    1            # number of crossing regions
      non     r-from    r-to       area
      1       125       225        1.000000    
   e-type =    3            # e-mesh is log given by emin, emax and ne
     emin =  1.0000000E-02  # minimum value of e-mesh points
     emax =   150.0000      # maximum value of e-mesh points
#    edel =  2.4039514E-02  # mesh width of e-mesh points
       ne =    400          # number of e-mesh points
#    data = ( e(i), i = 1, ne + 1 )
#           1.00000E-02  1.02433E-02  1.04925E-02  1.07478E-02  1.10093E-02
#           1.12772E-02  1.15516E-02  1.18326E-02  1.21205E-02  1.24154E-02
#           1.27175E-02  1.30269E-02  1.33439E-02  1.36686E-02  1.40011E-02
#           1.43418E-02  1.46907E-02  1.50482E-02  1.54143E-02  1.57894E-02
#           1.61735E-02  1.65670E-02  1.69701E-02  1.73830E-02  1.78060E-02
#           1.82392E-02  1.86830E-02  1.91375E-02  1.96032E-02  2.00801E-02
#           2.05687E-02  2.10692E-02  2.15818E-02  2.21069E-02  2.26448E-02
#           2.31957E-02  2.37601E-02  2.43382E-02  2.49304E-02  2.55369E-02
#           2.61583E-02  2.67947E-02  2.74467E-02  2.81145E-02  2.87985E-02
#           2.94992E-02  3.02169E-02  3.09521E-02  3.17052E-02  3.24766E-02
#           3.32668E-02  3.40762E-02  3.49053E-02  3.57546E-02  3.66246E-02
#           3.75157E-02  3.84284E-02  3.93634E-02  4.03212E-02  4.13022E-02
#           4.23071E-02  4.33365E-02  4.43909E-02  4.54710E-02  4.65773E-02
#           4.77106E-02  4.88714E-02  5.00605E-02  5.12785E-02  5.25262E-02
#           5.38042E-02  5.51133E-02  5.64542E-02  5.78278E-02  5.92348E-02
#           6.06760E-02  6.21523E-02  6.36645E-02  6.52135E-02  6.68002E-02
#           6.84255E-02  7.00904E-02  7.17957E-02  7.35426E-02  7.53319E-02
#           7.71648E-02  7.90423E-02  8.09655E-02  8.29354E-02  8.49533E-02
#           8.70203E-02  8.91376E-02  9.13064E-02  9.35279E-02  9.58035E-02
#           9.81345E-02  1.00522E-01  1.02968E-01  1.05473E-01  1.08040E-01
#           1.10668E-01  1.13361E-01  1.16119E-01  1.18944E-01  1.21838E-01
#           1.24803E-01  1.27839E-01  1.30950E-01  1.34136E-01  1.37399E-01
#           1.40742E-01  1.44167E-01  1.47675E-01  1.51268E-01  1.54948E-01
#           1.58718E-01  1.62580E-01  1.66535E-01  1.70587E-01  1.74738E-01
#           1.78989E-01  1.83344E-01  1.87805E-01  1.92375E-01  1.97055E-01
#           2.01850E-01  2.06761E-01  2.11792E-01  2.16945E-01  2.22223E-01
#           2.27630E-01  2.33169E-01  2.38842E-01  2.44653E-01  2.50605E-01
#           2.56703E-01  2.62949E-01  2.69346E-01  2.75900E-01  2.82613E-01
#           2.89489E-01  2.96532E-01  3.03747E-01  3.11138E-01  3.18708E-01
#           3.26462E-01  3.34405E-01  3.42542E-01  3.50876E-01  3.59413E-01
#           3.68158E-01  3.77116E-01  3.86291E-01  3.95690E-01  4.05317E-01
#           4.15179E-01  4.25281E-01  4.35628E-01  4.46227E-01  4.57084E-01
#           4.68205E-01  4.79597E-01  4.91266E-01  5.03219E-01  5.15463E-01
#           5.28005E-01  5.40851E-01  5.54011E-01  5.67490E-01  5.81298E-01
#           5.95441E-01  6.09929E-01  6.24769E-01  6.39970E-01  6.55541E-01
#           6.71491E-01  6.87828E-01  7.04564E-01  7.21706E-01  7.39266E-01
#           7.57253E-01  7.75678E-01  7.94551E-01  8.13883E-01  8.33685E-01
#           8.53969E-01  8.74747E-01  8.96030E-01  9.17831E-01  9.40163E-01
#           9.63038E-01  9.86469E-01  1.01047E+00  1.03506E+00  1.06024E+00
#           1.08604E+00  1.11246E+00  1.13953E+00  1.16725E+00  1.19565E+00
#           1.22474E+00  1.25454E+00  1.28507E+00  1.31633E+00  1.34836E+00
#           1.38117E+00  1.41477E+00  1.44920E+00  1.48446E+00  1.52057E+00
#           1.55757E+00  1.59547E+00  1.63429E+00  1.67405E+00  1.71478E+00
#           1.75650E+00  1.79924E+00  1.84302E+00  1.88786E+00  1.93379E+00
#           1.98084E+00  2.02904E+00  2.07841E+00  2.12898E+00  2.18078E+00
#           2.23384E+00  2.28819E+00  2.34386E+00  2.40089E+00  2.45930E+00
#           2.51914E+00  2.58043E+00  2.64322E+00  2.70753E+00  2.77341E+00
#           2.84088E+00  2.91001E+00  2.98081E+00  3.05333E+00  3.12762E+00
#           3.20372E+00  3.28167E+00  3.36152E+00  3.44330E+00  3.52708E+00
#           3.61290E+00  3.70080E+00  3.79085E+00  3.88308E+00  3.97756E+00
#           4.07434E+00  4.17347E+00  4.27501E+00  4.37903E+00  4.48557E+00
#           4.59471E+00  4.70650E+00  4.82102E+00  4.93832E+00  5.05847E+00
#           5.18155E+00  5.30762E+00  5.43676E+00  5.56904E+00  5.70453E+00
#           5.84333E+00  5.98550E+00  6.13114E+00  6.28031E+00  6.43312E+00
#           6.58964E+00  6.74997E+00  6.91420E+00  7.08243E+00  7.25475E+00
#           7.43126E+00  7.61207E+00  7.79728E+00  7.98700E+00  8.18133E+00
#           8.38038E+00  8.58428E+00  8.79315E+00  9.00709E+00  9.22624E+00
#           9.45072E+00  9.68067E+00  9.91620E+00  1.01575E+01  1.04046E+01
#           1.06578E+01  1.09171E+01  1.11827E+01  1.14548E+01  1.17335E+01
#           1.20190E+01  1.23114E+01  1.26109E+01  1.29178E+01  1.32321E+01
#           1.35540E+01  1.38838E+01  1.42216E+01  1.45676E+01  1.49221E+01
#           1.52851E+01  1.56570E+01  1.60380E+01  1.64282E+01  1.68279E+01
#           1.72374E+01  1.76568E+01  1.80864E+01  1.85264E+01  1.89772E+01
#           1.94389E+01  1.99119E+01  2.03963E+01  2.08926E+01  2.14009E+01
#           2.19216E+01  2.24550E+01  2.30014E+01  2.35610E+01  2.41343E+01
#           2.47215E+01  2.53230E+01  2.59391E+01  2.65702E+01  2.72167E+01
#           2.78789E+01  2.85572E+01  2.92520E+01  2.99637E+01  3.06928E+01
#           3.14396E+01  3.22045E+01  3.29881E+01  3.37907E+01  3.46128E+01
#           3.54550E+01  3.63177E+01  3.72013E+01  3.81064E+01  3.90336E+01
#           3.99833E+01  4.09561E+01  4.19526E+01  4.29734E+01  4.40189E+01
#           4.50900E+01  4.61870E+01  4.73108E+01  4.84619E+01  4.96410E+01
#           5.08488E+01  5.20860E+01  5.33533E+01  5.46514E+01  5.59812E+01
#           5.73432E+01  5.87384E+01  6.01676E+01  6.16315E+01  6.31311E+01
#           6.46671E+01  6.62405E+01  6.78522E+01  6.95031E+01  7.11941E+01
#           7.29263E+01  7.47007E+01  7.65182E+01  7.83800E+01  8.02870E+01
#           8.22405E+01  8.42414E+01  8.62911E+01  8.83906E+01  9.05412E+01
#           9.27442E+01  9.50007E+01  9.73122E+01  9.96799E+01  1.02105E+02
#           1.04589E+02  1.07134E+02  1.09741E+02  1.12411E+02  1.15146E+02
#           1.17948E+02  1.20817E+02  1.23757E+02  1.26768E+02  1.29852E+02
#           1.33012E+02  1.36248E+02  1.39563E+02  1.42959E+02  1.46437E+02
#           1.50000E+02
     unit =    2            # unit is [1/cm^2/(MeV/n)/source]
     axis =  eng            # axis of output
     file = detector-26.out  # file name of output for the above axis
   output = f-curr          # surface crossing forward current spectrum
     part =  neutron  
# kf/name :  2112     
#    used :        main (  %)        temp (  %)       total (  %)
#  memory :         414 (  0)           0 (  0)         414 (  0)

#------------------------------------------------------------------------------
#newpage:
#   no. =    1   reg = 125 - 225

x: Energy [MeV/n]
y:  F-Curr [1/cm^2/(MeV/n)/source]         
p: xlog ylog afac(0.8) form(0.9)
h: n            x            y(neutron ),hh0l   n 
#  e-lower      e-upper      neutron     r.err 
   1.0000E-02   1.0243E-02   7.2336E-04  0.1066
   1.0243E-02   1.0493E-02   7.2223E-04  0.1054
   1.0493E-02   1.0748E-02   6.5024E-04  0.1098
   1.0748E-02   1.1009E-02   6.8068E-04  0.1060
   1.1009E-02   1.1277E-02   6.7944E-04  0.1048
   1.1277E-02   1.1552E-02   6.7788E-04  0.1037
   1.1552E-02   1.1833E-02   7.4006E-04  0.0981
   1.1833E-02   1.2121E-02   6.1133E-04  0.1066
   1.2121E-02   1.2415E-02   6.2394E-04  0.1043
   1.2415E-02   1.2718E-02   7.0181E-04  0.0971
   1.2718E-02   1.3027E-02   7.0453E-04  0.0958
   1.3027E-02   1.3344E-02   8.0768E-04  0.0884
   1.3344E-02   1.3669E-02   7.5154E-04  0.0905
   1.3669E-02   1.4001E-02   6.7956E-04  0.0941
   1.4001E-02   1.4342E-02   7.5149E-04  0.0884
   1.4342E-02   1.4691E-02   8.3680E-04  0.0828
   1.4691E-02   1.5048E-02   7.9454E-04  0.0839
   1.5048E-02   1.5414E-02   7.8113E-04  0.0836
   1.5414E-02   1.5789E-02   7.5725E-04  0.0839
   1.5789E-02   1.6174E-02   6.7679E-04  0.0877
   1.6174E-02   1.6567E-02   7.7761E-04  0.0808
   1.6567E-02   1.6970E-02   6.3510E-04  0.0884
   1.6970E-02   1.7383E-02   6.8782E-04  0.0839
   1.7383E-02   1.7806E-02   8.3226E-04  0.0754
   1.7806E-02   1.8239E-02   7.2017E-04  0.0801
   1.8239E-02   1.8683E-02   7.7517E-04  0.0762
   1.8683E-02   1.9138E-02   8.0515E-04  0.0739
   1.9138E-02   1.9603E-02   7.7314E-04  0.0745
   1.9603E-02   2.0080E-02   7.7575E-04  0.0735
   2.0080E-02   2.0569E-02   7.5118E-04  0.0738
   2.0569E-02   2.1069E-02   9.3515E-04  0.0654
   2.1069E-02   2.1582E-02   8.0370E-04  0.0697
   2.1582E-02   2.2107E-02   8.1127E-04  0.0685
   2.2107E-02   2.2645E-02   9.1099E-04  0.0639
   2.2645E-02   2.3196E-02   7.7319E-04  0.0685
   2.3196E-02   2.3760E-02   7.6191E-04  0.0682
   2.3760E-02   2.4338E-02   8.3030E-04  0.0645
   2.4338E-02   2.4930E-02   8.0720E-04  0.0647
   2.4930E-02   2.5537E-02   6.6603E-04  0.0704
   2.5537E-02   2.6158E-02   8.4978E-04  0.0615
   2.6158E-02   2.6795E-02   8.1703E-04  0.0620
   2.6795E-02   2.7447E-02   8.7125E-04  0.0593
   2.7447E-02   2.8114E-02   8.7751E-04  0.0584
   2.8114E-02   2.8799E-02   7.9234E-04  0.0607
   2.8799E-02   2.9499E-02   8.2490E-04  0.0588
   2.9499E-02   3.0217E-02   8.5825E-04  0.0570
   3.0217E-02   3.0952E-02   8.8411E-04  0.0555
   3.0952E-02   3.1705E-02   8.1796E-04  0.0570
   3.1705E-02   3.2477E-02   9.1780E-04  0.0531
   3.2477E-02   3.3267E-02   8.2513E-04  0.0554
   3.3267E-02   3.4076E-02   8.5247E-04  0.0538
   3.4076E-02   3.4905E-02   9.2630E-04  0.0510
   3.4905E-02   3.5755E-02   8.2894E-04  0.0533
   3.5755E-02   3.6625E-02   8.8742E-04  0.0509
   3.6625E-02   3.7516E-02   8.7981E-04  0.0505
   3.7516E-02   3.8428E-02   9.0930E-04  0.0491
   3.8428E-02   3.9363E-02   9.7541E-04  0.0468
   3.9363E-02   4.0321E-02   9.7730E-04  0.0462
   4.0321E-02   4.1302E-02   8.7662E-04  0.0482
   4.1302E-02   4.2307E-02   8.9958E-04  0.0470
   4.2307E-02   4.3337E-02   9.4621E-04  0.0453
   4.3337E-02   4.4391E-02   9.6357E-04  0.0444
   4.4391E-02   4.5471E-02   9.7031E-04  0.0437
   4.5471E-02   4.6577E-02   9.1111E-04  0.0445
   4.6577E-02   4.7711E-02   9.4947E-04  0.0431
   4.7711E-02   4.8871E-02   9.8722E-04  0.0418
   4.8871E-02   5.0061E-02   9.4695E-04  0.0421
   5.0061E-02   5.1279E-02   9.0804E-04  0.0425
   5.1279E-02   5.2526E-02   9.6502E-04  0.0408
   5.2526E-02   5.3804E-02   1.0063E-03  0.0394
   5.3804E-02   5.5113E-02   9.5027E-04  0.0401
   5.5113E-02   5.6454E-02   1.0023E-03  0.0386
   5.6454E-02   5.7828E-02   9.9157E-04  0.0383
   5.7828E-02   5.9235E-02   9.1543E-04  0.0394
   5.9235E-02   6.0676E-02   9.5890E-04  0.0380
   6.0676E-02   6.2152E-02   1.0215E-03  0.0364
   6.2152E-02   6.3665E-02   1.0369E-03  0.0357
   6.3665E-02   6.5214E-02   9.5545E-04  0.0368
   6.5214E-02   6.6800E-02   1.0361E-03  0.0349
   6.6800E-02   6.8426E-02   9.6474E-04  0.0357
   6.8426E-02   7.0090E-02   9.8868E-04  0.0349
   7.0090E-02   7.1796E-02   9.8513E-04  0.0345
   7.1796E-02   7.3543E-02   1.0384E-03  0.0332
   7.3543E-02   7.5332E-02   1.0060E-03  0.0333
   7.5332E-02   7.7165E-02   1.0475E-03  0.0323
   7.7165E-02   7.9042E-02   1.0940E-03  0.0312
   7.9042E-02   8.0965E-02   1.0358E-03  0.0317
   8.0965E-02   8.2935E-02   1.0325E-03  0.0314
   8.2935E-02   8.4953E-02   9.8915E-04  0.0317
   8.4953E-02   8.7020E-02   9.9275E-04  0.0312
   8.7020E-02   8.9138E-02   9.8995E-04  0.0309
   8.9138E-02   9.1306E-02   1.0089E-03  0.0303
   9.1306E-02   9.3528E-02   1.0461E-03  0.0293
   9.3528E-02   9.5804E-02   1.0626E-03  0.0288
   9.5804E-02   9.8134E-02   1.0270E-03  0.0289
   9.8134E-02   1.0052E-01   1.0361E-03  0.0284
   1.0052E-01   1.0297E-01   1.0197E-03  0.0283
   1.0297E-01   1.0547E-01   1.0817E-03  0.0272
   1.0547E-01   1.0804E-01   1.0116E-03  0.0278
   1.0804E-01   1.1067E-01   1.0735E-03  0.0266
   1.1067E-01   1.1336E-01   1.0711E-03  0.0263
   1.1336E-01   1.1612E-01   9.9052E-04  0.0271
   1.1612E-01   1.1894E-01   1.0640E-03  0.0258
   1.1894E-01   1.2184E-01   1.0035E-03  0.0262
   1.2184E-01   1.2480E-01   1.0147E-03  0.0258
   1.2480E-01   1.2784E-01   1.0821E-03  0.0247
   1.2784E-01   1.3095E-01   1.0777E-03  0.0244
   1.3095E-01   1.3414E-01   1.0213E-03  0.0248
   1.3414E-01   1.3740E-01   1.0467E-03  0.0242
   1.3740E-01   1.4074E-01   1.0649E-03  0.0237
   1.4074E-01   1.4417E-01   1.0863E-03  0.0232
   1.4417E-01   1.4767E-01   1.0839E-03  0.0229
   1.4767E-01   1.5127E-01   1.0621E-03  0.0229
   1.5127E-01   1.5495E-01   1.1026E-03  0.0222
   1.5495E-01   1.5872E-01   1.0743E-03  0.0222
   1.5872E-01   1.6258E-01   1.0192E-03  0.0225
   1.6258E-01   1.6654E-01   1.0527E-03  0.0219
   1.6654E-01   1.7059E-01   1.0662E-03  0.0215
   1.7059E-01   1.7474E-01   1.0697E-03  0.0212
   1.7474E-01   1.7899E-01   1.0669E-03  0.0210
   1.7899E-01   1.8334E-01   1.0632E-03  0.0208
   1.8334E-01   1.8781E-01   1.0823E-03  0.0204
   1.8781E-01   1.9237E-01   1.0456E-03  0.0205
   1.9237E-01   1.9706E-01   1.0785E-03  0.0199
   1.9706E-01   2.0185E-01   1.0345E-03  0.0201
   2.0185E-01   2.0676E-01   1.0531E-03  0.0197
   2.0676E-01   2.1179E-01   1.0527E-03  0.0194
   2.1179E-01   2.1694E-01   1.0308E-03  0.0194
   2.1694E-01   2.2222E-01   1.0518E-03  0.0190
   2.2222E-01   2.2763E-01   1.0132E-03  0.0191
   2.2763E-01   2.3317E-01   9.9415E-04  0.0191
   2.3317E-01   2.3884E-01   9.9415E-04  0.0188
   2.3884E-01   2.4465E-01   1.0297E-03  0.0183
   2.4465E-01   2.5061E-01   1.0090E-03  0.0182
   2.5061E-01   2.5670E-01   1.0007E-03  0.0181
   2.5670E-01   2.6295E-01   9.9171E-04  0.0180
   2.6295E-01   2.6935E-01   9.4721E-04  0.0182
   2.6935E-01   2.7590E-01   9.7506E-04  0.0177
   2.7590E-01   2.8261E-01   9.5756E-04  0.0176
   2.8261E-01   2.8949E-01   9.9765E-04  0.0171
   2.8949E-01   2.9653E-01   9.8190E-04  0.0170
   2.9653E-01   3.0375E-01   9.6911E-04  0.0169
   3.0375E-01   3.1114E-01   9.3635E-04  0.0170
   3.1114E-01   3.1871E-01   9.3868E-04  0.0168
   3.1871E-01   3.2646E-01   9.5739E-04  0.0164
   3.2646E-01   3.3441E-01   9.2496E-04  0.0165
   3.3441E-01   3.4254E-01   9.1736E-04  0.0164
   3.4254E-01   3.5088E-01   9.0829E-04  0.0163
   3.5088E-01   3.5941E-01   9.0054E-04  0.0161
   3.5941E-01   3.6816E-01   8.8624E-04  0.0161
   3.6816E-01   3.7712E-01   8.8551E-04  0.0159
   3.7712E-01   3.8629E-01   8.7537E-04  0.0158
   3.8629E-01   3.9569E-01   8.6033E-04  0.0157
   3.9569E-01   4.0532E-01   8.4332E-04  0.0157
   4.0532E-01   4.1518E-01   8.4235E-04  0.0155
   4.1518E-01   4.2528E-01   8.5174E-04  0.0153
   4.2528E-01   4.3563E-01   8.3402E-04  0.0152
   4.3563E-01   4.4623E-01   8.2176E-04  0.0152
   4.4623E-01   4.5708E-01   8.1201E-04  0.0151
   4.5708E-01   4.6821E-01   7.6646E-04  0.0153
   4.6821E-01   4.7960E-01   7.9004E-04  0.0149
   4.7960E-01   4.9127E-01   7.6133E-04  0.0150
   4.9127E-01   5.0322E-01   7.4844E-04  0.0150
   5.0322E-01   5.1546E-01   7.3033E-04  0.0150
   5.1546E-01   5.2800E-01   7.1538E-04  0.0149
   5.2800E-01   5.4085E-01   7.0010E-04  0.0149
   5.4085E-01   5.5401E-01   7.0247E-04  0.0147
   5.5401E-01   5.6749E-01   7.0062E-04  0.0146
   5.6749E-01   5.8130E-01   6.9107E-04  0.0145
   5.8130E-01   5.9544E-01   6.6985E-04  0.0145
   5.9544E-01   6.0993E-01   6.3089E-04  0.0148
   6.0993E-01   6.2477E-01   6.3261E-04  0.0146
   6.2477E-01   6.3997E-01   6.0772E-04  0.0147
   6.3997E-01   6.5554E-01   6.1049E-04  0.0145
   6.5554E-01   6.7149E-01   5.8596E-04  0.0146
   6.7149E-01   6.8783E-01   5.7058E-04  0.0147
   6.8783E-01   7.0456E-01   5.6383E-04  0.0146
   7.0456E-01   7.2171E-01   5.3644E-04  0.0148
   7.2171E-01   7.3927E-01   5.1971E-04  0.0148
   7.3927E-01   7.5725E-01   5.0681E-04  0.0148
   7.5725E-01   7.7568E-01   4.9705E-04  0.0148
   7.7568E-01   7.9455E-01   4.7539E-04  0.0149
   7.9455E-01   8.1388E-01   4.5727E-04  0.0150
   8.1388E-01   8.3368E-01   4.5631E-04  0.0149
   8.3368E-01   8.5397E-01   4.3876E-04  0.0150
   8.5397E-01   8.7475E-01   4.0813E-04  0.0154
   8.7475E-01   8.9603E-01   4.0351E-04  0.0153
   8.9603E-01   9.1783E-01   3.8888E-04  0.0154
   9.1783E-01   9.4016E-01   3.6997E-04  0.0156
   9.4016E-01   9.6304E-01   3.4955E-04  0.0158
   9.6304E-01   9.8647E-01   3.3963E-04  0.0159
   9.8647E-01   1.0105E+00   3.1123E-04  0.0164
   1.0105E+00   1.0351E+00   3.1034E-04  0.0162
   1.0351E+00   1.0602E+00   3.1147E-04  0.0160
   1.0602E+00   1.0860E+00   3.1842E-04  0.0156
   1.0860E+00   1.1125E+00   3.1305E-04  0.0156
   1.1125E+00   1.1395E+00   3.1987E-04  0.0152
   1.1395E+00   1.1673E+00   3.1675E-04  0.0151
   1.1673E+00   1.1957E+00   3.4246E-04  0.0143
   1.1957E+00   1.2247E+00   3.3447E-04  0.0143
   1.2247E+00   1.2545E+00   3.3102E-04  0.0142
   1.2545E+00   1.2851E+00   3.2827E-04  0.0141
   1.2851E+00   1.3163E+00   3.3358E-04  0.0139
   1.3163E+00   1.3484E+00   3.3315E-04  0.0137
   1.3484E+00   1.3812E+00   3.3524E-04  0.0135
   1.3812E+00   1.4148E+00   3.3317E-04  0.0134
   1.4148E+00   1.4492E+00   3.3490E-04  0.0132
   1.4492E+00   1.4845E+00   3.1855E-04  0.0133
   1.4845E+00   1.5206E+00   3.0633E-04  0.0135
   1.5206E+00   1.5576E+00   3.1095E-04  0.0132
   1.5576E+00   1.5955E+00   3.1121E-04  0.0130
   1.5955E+00   1.6343E+00   3.0099E-04  0.0131
   1.6343E+00   1.6741E+00   3.0219E-04  0.0129
   1.6741E+00   1.7148E+00   3.0959E-04  0.0126
   1.7148E+00   1.7565E+00   2.9423E-04  0.0128
   1.7565E+00   1.7992E+00   2.8790E-04  0.0128
   1.7992E+00   1.8430E+00   2.8504E-04  0.0127
   1.8430E+00   1.8879E+00   2.6868E-04  0.0129
   1.8879E+00   1.9338E+00   2.7000E-04  0.0127
   1.9338E+00   1.9808E+00   2.7179E-04  0.0125
   1.9808E+00   2.0290E+00   2.6349E-04  0.0126
   2.0290E+00   2.0784E+00   2.5081E-04  0.0127
   2.0784E+00   2.1290E+00   2.5169E-04  0.0125
   2.1290E+00   2.1808E+00   2.3826E-04  0.0127
   2.1808E+00   2.2338E+00   2.2280E-04  0.0130
   2.2338E+00   2.2882E+00   2.1979E-04  0.0129
   2.2882E+00   2.3439E+00   2.0918E-04  0.0131
   2.3439E+00   2.4009E+00   2.0881E-04  0.0130
   2.4009E+00   2.4593E+00   2.0132E-04  0.0130
   2.4593E+00   2.5191E+00   1.9443E-04  0.0131
   2.5191E+00   2.5804E+00   1.8459E-04  0.0133
   2.5804E+00   2.6432E+00   1.8030E-04  0.0133
   2.6432E+00   2.7075E+00   1.7157E-04  0.0135
   2.7075E+00   2.7734E+00   1.6045E-04  0.0138
   2.7734E+00   2.8409E+00   1.5750E-04  0.0137
   2.8409E+00   2.9100E+00   1.4803E-04  0.0140
   2.9100E+00   2.9808E+00   1.4395E-04  0.0140
   2.9808E+00   3.0533E+00   1.3788E-04  0.0141
   3.0533E+00   3.1276E+00   1.3251E-04  0.0143
   3.1276E+00   3.2037E+00   1.2447E-04  0.0145
   3.2037E+00   3.2817E+00   1.1620E-04  0.0149
   3.2817E+00   3.3615E+00   1.0873E-04  0.0152
   3.3615E+00   3.4433E+00   1.0092E-04  0.0156
   3.4433E+00   3.5271E+00   9.3843E-05  0.0160
   3.5271E+00   3.6129E+00   9.0076E-05  0.0161
   3.6129E+00   3.7008E+00   8.5320E-05  0.0163
   3.7008E+00   3.7908E+00   7.8162E-05  0.0169
   3.7908E+00   3.8831E+00   7.4918E-05  0.0170
   3.8831E+00   3.9776E+00   6.9921E-05  0.0174
   3.9776E+00   4.0743E+00   6.3259E-05  0.0181
   4.0743E+00   4.1735E+00   6.0788E-05  0.0182
   4.1735E+00   4.2750E+00   5.4105E-05  0.0191
   4.2750E+00   4.3790E+00   5.1358E-05  0.0193
   4.3790E+00   4.4856E+00   4.7698E-05  0.0199
   4.4856E+00   4.5947E+00   4.4018E-05  0.0204
   4.5947E+00   4.7065E+00   4.0307E-05  0.0211
   4.7065E+00   4.8210E+00   3.4878E-05  0.0224
   4.8210E+00   4.9383E+00   3.4067E-05  0.0224
   4.9383E+00   5.0585E+00   3.0544E-05  0.0234
   5.0585E+00   5.1815E+00   2.7983E-05  0.0241
   5.1815E+00   5.3076E+00   2.6509E-05  0.0245
   5.3076E+00   5.4368E+00   2.5477E-05  0.0247
   5.4368E+00   5.5690E+00   2.2150E-05  0.0261
   5.5690E+00   5.7045E+00   2.0827E-05  0.0266
   5.7045E+00   5.8433E+00   1.8214E-05  0.0281
   5.8433E+00   5.9855E+00   1.6445E-05  0.0293
   5.9855E+00   6.1311E+00   1.4434E-05  0.0308
   6.1311E+00   6.2803E+00   1.3501E-05  0.0315
   6.2803E+00   6.4331E+00   1.2028E-05  0.0330
   6.4331E+00   6.5896E+00   1.0823E-05  0.0344
   6.5896E+00   6.7500E+00   9.2184E-06  0.0368
   6.7500E+00   6.9142E+00   9.3952E-06  0.0360
   6.9142E+00   7.0824E+00   8.0427E-06  0.0384
   7.0824E+00   7.2548E+00   7.3003E-06  0.0399
   7.2548E+00   7.4313E+00   6.7757E-06  0.0409
   7.4313E+00   7.6121E+00   5.8294E-06  0.0436
   7.6121E+00   7.7973E+00   5.1132E-06  0.0459
   7.7973E+00   7.9870E+00   5.0602E-06  0.0456
   7.9870E+00   8.1813E+00   4.2865E-06  0.0490
   8.1813E+00   8.3804E+00   3.9235E-06  0.0506
   8.3804E+00   8.5843E+00   3.4281E-06  0.0535
   8.5843E+00   8.7931E+00   3.3706E-06  0.0533
   8.7931E+00   9.0071E+00   2.9821E-06  0.0559
   9.0071E+00   9.2262E+00   2.4139E-06  0.0614
   9.2262E+00   9.4507E+00   2.2318E-06  0.0632
   9.4507E+00   9.6807E+00   2.0353E-06  0.0654
   9.6807E+00   9.9162E+00   2.0336E-06  0.0645
   9.9162E+00   1.0157E+01   1.7118E-06  0.0695
   1.0157E+01   1.0405E+01   1.5781E-06  0.0714
   1.0405E+01   1.0658E+01   1.4181E-06  0.0744
   1.0658E+01   1.0917E+01   1.2340E-06  0.0789
   1.0917E+01   1.1183E+01   1.0767E-06  0.0835
   1.1183E+01   1.1455E+01   1.1394E-06  0.0803
   1.1455E+01   1.1733E+01   8.8983E-07  0.0896
   1.1733E+01   1.2019E+01   9.7728E-07  0.0846
   1.2019E+01   1.2311E+01   7.8993E-07  0.0929
   1.2311E+01   1.2611E+01   8.0455E-07  0.0910
   1.2611E+01   1.2918E+01   6.9419E-07  0.0968
   1.2918E+01   1.3232E+01   6.9361E-07  0.0956
   1.3232E+01   1.3554E+01   5.6531E-07  0.1045
   1.3554E+01   1.3884E+01   5.7614E-07  0.1021
   1.3884E+01   1.4222E+01   5.3877E-07  0.1045
   1.4222E+01   1.4568E+01   5.4043E-07  0.1030
   1.4568E+01   1.4922E+01   5.9812E-07  0.0967
   1.4922E+01   1.5285E+01   4.2141E-07  0.1141
   1.5285E+01   1.5657E+01   4.4636E-07  0.1098
   1.5657E+01   1.6038E+01   5.2238E-07  0.1001
   1.6038E+01   1.6428E+01   3.9209E-07  0.1141
   1.6428E+01   1.6828E+01   3.2523E-07  0.1240
   1.6828E+01   1.7237E+01   3.9078E-07  0.1115
   1.7237E+01   1.7657E+01   3.4573E-07  0.1172
   1.7657E+01   1.8086E+01   3.0028E-07  0.1243
   1.8086E+01   1.8526E+01   4.1358E-07  0.1048
   1.8526E+01   1.8977E+01   4.2373E-07  0.1022
   1.8977E+01   1.9439E+01   3.0537E-07  0.1189
   1.9439E+01   1.9912E+01   3.2138E-07  0.1147
   1.9912E+01   2.0396E+01   2.9723E-07  0.1179
   2.0396E+01   2.0893E+01   2.7002E-07  0.1222
   2.0893E+01   2.1401E+01   2.9115E-07  0.1162
   2.1401E+01   2.1922E+01   2.8039E-07  0.1170
   2.1922E+01   2.2455E+01   2.6623E-07  0.1187
   2.2455E+01   2.3001E+01   2.4893E-07  0.1213
   2.3001E+01   2.3561E+01   2.0728E-07  0.1313
   2.3561E+01   2.4134E+01   2.0584E-07  0.1302
   2.4134E+01   2.4721E+01   2.1117E-07  0.1270
   2.4721E+01   2.5323E+01   2.0283E-07  0.1280
   2.5323E+01   2.5939E+01   1.7853E-07  0.1348
   2.5939E+01   2.6570E+01   1.7429E-07  0.1348
   2.6570E+01   2.7217E+01   2.1037E-07  0.1213
   2.7217E+01   2.7879E+01   1.5403E-07  0.1400
   2.7879E+01   2.8557E+01   2.1819E-07  0.1162
   2.8557E+01   2.9252E+01   1.4680E-07  0.1400
   2.9252E+01   2.9964E+01   1.4050E-07  0.1414
   2.9964E+01   3.0693E+01   1.5363E-07  0.1336
   3.0693E+01   3.1440E+01   8.0345E-08  0.1826
   3.1440E+01   3.2205E+01   1.0458E-07  0.1581
   3.2205E+01   3.2988E+01   1.0720E-07  0.1543
   3.2988E+01   3.3791E+01   1.1213E-07  0.1491
   3.3791E+01   3.4613E+01   1.0460E-07  0.1525
   3.4613E+01   3.5455E+01   8.3120E-08  0.1690
   3.5455E+01   3.6318E+01   7.1872E-08  0.1796
   3.6318E+01   3.7201E+01   5.6584E-08  0.2000
   3.7201E+01   3.8106E+01   5.9659E-08  0.1925
   3.8106E+01   3.9034E+01   5.8242E-08  0.1925
   3.9034E+01   3.9983E+01   5.2647E-08  0.2000
   3.9983E+01   4.0956E+01   5.9620E-08  0.1857
   4.0956E+01   4.1953E+01   3.8134E-08  0.2294
   4.1953E+01   4.2973E+01   3.1350E-08  0.2500
   4.2973E+01   4.4019E+01   4.7821E-08  0.2000
   4.4019E+01   4.5090E+01   3.1746E-08  0.2425
   4.5090E+01   4.6187E+01   2.3699E-08  0.2774
   4.6187E+01   4.7311E+01   2.8476E-08  0.2500
   4.7311E+01   4.8462E+01   2.9537E-08  0.2425
   4.8462E+01   4.9641E+01   8.4809E-09  0.4472
   4.9641E+01   5.0849E+01   8.2795E-09  0.4472
   5.0849E+01   5.2086E+01   6.4663E-09  0.5000
   5.2086E+01   5.3353E+01   9.4690E-09  0.4082
   5.3353E+01   5.4651E+01   7.7034E-09  0.4472
   5.4651E+01   5.5981E+01   6.0163E-09  0.5000
   5.5981E+01   5.7343E+01   2.9367E-09  0.7071
   5.7343E+01   5.8738E+01   4.3004E-09  0.5774
   5.8738E+01   6.0168E+01   2.7989E-09  0.7071
   6.0168E+01   6.1632E+01   5.4648E-09  0.5000
   6.1632E+01   6.3131E+01   2.6675E-09  0.7071
   6.3131E+01   6.4667E+01   3.9062E-09  0.5774
   6.4667E+01   6.6240E+01   2.5423E-09  0.7071
   6.6240E+01   6.7852E+01   0.0000E+00  0.0000
   6.7852E+01   6.9503E+01   0.0000E+00  0.0000
   6.9503E+01   7.1194E+01   0.0000E+00  0.0000
   7.1194E+01   7.2926E+01   2.3092E-09  0.7071
   7.2926E+01   7.4701E+01   0.0000E+00  0.0000
   7.4701E+01   7.6518E+01   0.0000E+00  0.0000
   7.6518E+01   7.8380E+01   0.0000E+00  0.0000
   7.8380E+01   8.0287E+01   0.0000E+00  0.0000
   8.0287E+01   8.2240E+01   0.0000E+00  0.0000
   8.2240E+01   8.4241E+01   0.0000E+00  0.0000
   8.4241E+01   8.6291E+01   0.0000E+00  0.0000
   8.6291E+01   8.8391E+01   0.0000E+00  0.0000
   8.8391E+01   9.0541E+01   0.0000E+00  0.0000
   9.0541E+01   9.2744E+01   0.0000E+00  0.0000
   9.2744E+01   9.5001E+01   0.0000E+00  0.0000
   9.5001E+01   9.7312E+01   0.0000E+00  0.0000
   9.7312E+01   9.9680E+01   0.0000E+00  0.0000
   9.9680E+01   1.0211E+02   0.0000E+00  0.0000
   1.0211E+02   1.0459E+02   0.0000E+00  0.0000
   1.0459E+02   1.0713E+02   0.0000E+00  0.0000
   1.0713E+02   1.0974E+02   0.0000E+00  0.0000
   1.0974E+02   1.1241E+02   0.0000E+00  0.0000
   1.1241E+02   1.1515E+02   0.0000E+00  0.0000
   1.1515E+02   1.1795E+02   0.0000E+00  0.0000
   1.1795E+02   1.2082E+02   0.0000E+00  0.0000
   1.2082E+02   1.2376E+02   0.0000E+00  0.0000
   1.2376E+02   1.2677E+02   0.0000E+00  0.0000
   1.2677E+02   1.2985E+02   0.0000E+00  0.0000
   1.2985E+02   1.3301E+02   0.0000E+00  0.0000
   1.3301E+02   1.3625E+02   0.0000E+00  0.0000
   1.3625E+02   1.3956E+02   0.0000E+00  0.0000
   1.3956E+02   1.4296E+02   0.0000E+00  0.0000
   1.4296E+02   1.4644E+02   0.0000E+00  0.0000
   1.4644E+02   1.5000E+02   0.0000E+00  0.0000

#   sum over                 9.4714E-06
'no. =    1   reg = 125 - 225'
msuc: {\huge [t-cross] in region mesh}
msdr: {\it plotted by \ANGEL \version}
msdl: {\it calculated by \PHITS  3.26}
wt: s(0.7)
\vspace{-3}
  region surface crossing
  area  &=&   1.0000E+00 [cm^2]
e:
 
# Information for Restart Calculation
# This calculation was newly started
# istdev =  2 # 1:Batch variance, 2:History variance
# resc2  = 5.00000000000000000E+08 # Total source weight or Total source weight / maxcas
# resc3  = 5.00000000000000000E+08 # Total history number or Total batch number
# maxcas =   500000000 # History / Batch, only used for istdev=1
# bitrseed = 1101101111010011011000101101110001100110110010110001010100010001 # bit data of rseed
