[ T-Cross ]
    title = [t-cross] in region mesh
     mesh =  reg            # mesh type is region-wise
      reg =    1            # number of crossing regions
      non     r-from    r-to       area
      1       108       208        1.000000    
   e-type =    3            # e-mesh is log given by emin, emax and ne
     emin =  1.0000000E-02  # minimum value of e-mesh points
     emax =   150.0000      # maximum value of e-mesh points
#    edel =  2.4039514E-02  # mesh width of e-mesh points
       ne =    400          # number of e-mesh points
#    data = ( e(i), i = 1, ne + 1 )
#           1.00000E-02  1.02433E-02  1.04925E-02  1.07478E-02  1.10093E-02
#           1.12772E-02  1.15516E-02  1.18326E-02  1.21205E-02  1.24154E-02
#           1.27175E-02  1.30269E-02  1.33439E-02  1.36686E-02  1.40011E-02
#           1.43418E-02  1.46907E-02  1.50482E-02  1.54143E-02  1.57894E-02
#           1.61735E-02  1.65670E-02  1.69701E-02  1.73830E-02  1.78060E-02
#           1.82392E-02  1.86830E-02  1.91375E-02  1.96032E-02  2.00801E-02
#           2.05687E-02  2.10692E-02  2.15818E-02  2.21069E-02  2.26448E-02
#           2.31957E-02  2.37601E-02  2.43382E-02  2.49304E-02  2.55369E-02
#           2.61583E-02  2.67947E-02  2.74467E-02  2.81145E-02  2.87985E-02
#           2.94992E-02  3.02169E-02  3.09521E-02  3.17052E-02  3.24766E-02
#           3.32668E-02  3.40762E-02  3.49053E-02  3.57546E-02  3.66246E-02
#           3.75157E-02  3.84284E-02  3.93634E-02  4.03212E-02  4.13022E-02
#           4.23071E-02  4.33365E-02  4.43909E-02  4.54710E-02  4.65773E-02
#           4.77106E-02  4.88714E-02  5.00605E-02  5.12785E-02  5.25262E-02
#           5.38042E-02  5.51133E-02  5.64542E-02  5.78278E-02  5.92348E-02
#           6.06760E-02  6.21523E-02  6.36645E-02  6.52135E-02  6.68002E-02
#           6.84255E-02  7.00904E-02  7.17957E-02  7.35426E-02  7.53319E-02
#           7.71648E-02  7.90423E-02  8.09655E-02  8.29354E-02  8.49533E-02
#           8.70203E-02  8.91376E-02  9.13064E-02  9.35279E-02  9.58035E-02
#           9.81345E-02  1.00522E-01  1.02968E-01  1.05473E-01  1.08040E-01
#           1.10668E-01  1.13361E-01  1.16119E-01  1.18944E-01  1.21838E-01
#           1.24803E-01  1.27839E-01  1.30950E-01  1.34136E-01  1.37399E-01
#           1.40742E-01  1.44167E-01  1.47675E-01  1.51268E-01  1.54948E-01
#           1.58718E-01  1.62580E-01  1.66535E-01  1.70587E-01  1.74738E-01
#           1.78989E-01  1.83344E-01  1.87805E-01  1.92375E-01  1.97055E-01
#           2.01850E-01  2.06761E-01  2.11792E-01  2.16945E-01  2.22223E-01
#           2.27630E-01  2.33169E-01  2.38842E-01  2.44653E-01  2.50605E-01
#           2.56703E-01  2.62949E-01  2.69346E-01  2.75900E-01  2.82613E-01
#           2.89489E-01  2.96532E-01  3.03747E-01  3.11138E-01  3.18708E-01
#           3.26462E-01  3.34405E-01  3.42542E-01  3.50876E-01  3.59413E-01
#           3.68158E-01  3.77116E-01  3.86291E-01  3.95690E-01  4.05317E-01
#           4.15179E-01  4.25281E-01  4.35628E-01  4.46227E-01  4.57084E-01
#           4.68205E-01  4.79597E-01  4.91266E-01  5.03219E-01  5.15463E-01
#           5.28005E-01  5.40851E-01  5.54011E-01  5.67490E-01  5.81298E-01
#           5.95441E-01  6.09929E-01  6.24769E-01  6.39970E-01  6.55541E-01
#           6.71491E-01  6.87828E-01  7.04564E-01  7.21706E-01  7.39266E-01
#           7.57253E-01  7.75678E-01  7.94551E-01  8.13883E-01  8.33685E-01
#           8.53969E-01  8.74747E-01  8.96030E-01  9.17831E-01  9.40163E-01
#           9.63038E-01  9.86469E-01  1.01047E+00  1.03506E+00  1.06024E+00
#           1.08604E+00  1.11246E+00  1.13953E+00  1.16725E+00  1.19565E+00
#           1.22474E+00  1.25454E+00  1.28507E+00  1.31633E+00  1.34836E+00
#           1.38117E+00  1.41477E+00  1.44920E+00  1.48446E+00  1.52057E+00
#           1.55757E+00  1.59547E+00  1.63429E+00  1.67405E+00  1.71478E+00
#           1.75650E+00  1.79924E+00  1.84302E+00  1.88786E+00  1.93379E+00
#           1.98084E+00  2.02904E+00  2.07841E+00  2.12898E+00  2.18078E+00
#           2.23384E+00  2.28819E+00  2.34386E+00  2.40089E+00  2.45930E+00
#           2.51914E+00  2.58043E+00  2.64322E+00  2.70753E+00  2.77341E+00
#           2.84088E+00  2.91001E+00  2.98081E+00  3.05333E+00  3.12762E+00
#           3.20372E+00  3.28167E+00  3.36152E+00  3.44330E+00  3.52708E+00
#           3.61290E+00  3.70080E+00  3.79085E+00  3.88308E+00  3.97756E+00
#           4.07434E+00  4.17347E+00  4.27501E+00  4.37903E+00  4.48557E+00
#           4.59471E+00  4.70650E+00  4.82102E+00  4.93832E+00  5.05847E+00
#           5.18155E+00  5.30762E+00  5.43676E+00  5.56904E+00  5.70453E+00
#           5.84333E+00  5.98550E+00  6.13114E+00  6.28031E+00  6.43312E+00
#           6.58964E+00  6.74997E+00  6.91420E+00  7.08243E+00  7.25475E+00
#           7.43126E+00  7.61207E+00  7.79728E+00  7.98700E+00  8.18133E+00
#           8.38038E+00  8.58428E+00  8.79315E+00  9.00709E+00  9.22624E+00
#           9.45072E+00  9.68067E+00  9.91620E+00  1.01575E+01  1.04046E+01
#           1.06578E+01  1.09171E+01  1.11827E+01  1.14548E+01  1.17335E+01
#           1.20190E+01  1.23114E+01  1.26109E+01  1.29178E+01  1.32321E+01
#           1.35540E+01  1.38838E+01  1.42216E+01  1.45676E+01  1.49221E+01
#           1.52851E+01  1.56570E+01  1.60380E+01  1.64282E+01  1.68279E+01
#           1.72374E+01  1.76568E+01  1.80864E+01  1.85264E+01  1.89772E+01
#           1.94389E+01  1.99119E+01  2.03963E+01  2.08926E+01  2.14009E+01
#           2.19216E+01  2.24550E+01  2.30014E+01  2.35610E+01  2.41343E+01
#           2.47215E+01  2.53230E+01  2.59391E+01  2.65702E+01  2.72167E+01
#           2.78789E+01  2.85572E+01  2.92520E+01  2.99637E+01  3.06928E+01
#           3.14396E+01  3.22045E+01  3.29881E+01  3.37907E+01  3.46128E+01
#           3.54550E+01  3.63177E+01  3.72013E+01  3.81064E+01  3.90336E+01
#           3.99833E+01  4.09561E+01  4.19526E+01  4.29734E+01  4.40189E+01
#           4.50900E+01  4.61870E+01  4.73108E+01  4.84619E+01  4.96410E+01
#           5.08488E+01  5.20860E+01  5.33533E+01  5.46514E+01  5.59812E+01
#           5.73432E+01  5.87384E+01  6.01676E+01  6.16315E+01  6.31311E+01
#           6.46671E+01  6.62405E+01  6.78522E+01  6.95031E+01  7.11941E+01
#           7.29263E+01  7.47007E+01  7.65182E+01  7.83800E+01  8.02870E+01
#           8.22405E+01  8.42414E+01  8.62911E+01  8.83906E+01  9.05412E+01
#           9.27442E+01  9.50007E+01  9.73122E+01  9.96799E+01  1.02105E+02
#           1.04589E+02  1.07134E+02  1.09741E+02  1.12411E+02  1.15146E+02
#           1.17948E+02  1.20817E+02  1.23757E+02  1.26768E+02  1.29852E+02
#           1.33012E+02  1.36248E+02  1.39563E+02  1.42959E+02  1.46437E+02
#           1.50000E+02
     unit =    2            # unit is [1/cm^2/(MeV/n)/source]
     axis =  eng            # axis of output
     file = detector-09.out  # file name of output for the above axis
   output = f-curr          # surface crossing forward current spectrum
     part =  neutron  
# kf/name :  2112     
#    used :        main (  %)        temp (  %)       total (  %)
#  memory :         414 (  0)           0 (  0)         414 (  0)

#------------------------------------------------------------------------------
#newpage:
#   no. =    1   reg = 108 - 208

x: Energy [MeV/n]
y:  F-Curr [1/cm^2/(MeV/n)/source]         
p: xlog ylog afac(0.8) form(0.9)
h: n            x            y(neutron ),hh0l   n 
#  e-lower      e-upper      neutron     r.err 
   1.0000E-02   1.0243E-02   2.6962E-04  0.0552
   1.0243E-02   1.0493E-02   2.6402E-04  0.0551
   1.0493E-02   1.0748E-02   2.6244E-04  0.0546
   1.0748E-02   1.1009E-02   2.7852E-04  0.0524
   1.1009E-02   1.1277E-02   2.5087E-04  0.0546
   1.1277E-02   1.1552E-02   2.5803E-04  0.0531
   1.1552E-02   1.1833E-02   2.3696E-04  0.0548
   1.1833E-02   1.2121E-02   2.4731E-04  0.0530
   1.2121E-02   1.2415E-02   2.5364E-04  0.0517
   1.2415E-02   1.2718E-02   2.4696E-04  0.0518
   1.2718E-02   1.3027E-02   2.5660E-04  0.0502
   1.3027E-02   1.3344E-02   2.4357E-04  0.0509
   1.3344E-02   1.3669E-02   2.5133E-04  0.0495
   1.3669E-02   1.4001E-02   2.6641E-04  0.0475
   1.4001E-02   1.4342E-02   2.5187E-04  0.0483
   1.4342E-02   1.4691E-02   2.5104E-04  0.0478
   1.4691E-02   1.5048E-02   2.5683E-04  0.0467
   1.5048E-02   1.5414E-02   2.3216E-04  0.0485
   1.5414E-02   1.5789E-02   2.4477E-04  0.0467
   1.5789E-02   1.6174E-02   2.5614E-04  0.0451
   1.6174E-02   1.6567E-02   2.2007E-04  0.0481
   1.6567E-02   1.6970E-02   2.4908E-04  0.0446
   1.6970E-02   1.7383E-02   2.2960E-04  0.0459
   1.7383E-02   1.7806E-02   2.4495E-04  0.0439
   1.7806E-02   1.8239E-02   2.5390E-04  0.0426
   1.8239E-02   1.8683E-02   2.3030E-04  0.0442
   1.8683E-02   1.9138E-02   2.3935E-04  0.0429
   1.9138E-02   1.9603E-02   2.2593E-04  0.0436
   1.9603E-02   2.0080E-02   2.6669E-04  0.0397
   2.0080E-02   2.0569E-02   2.4971E-04  0.0405
   2.0569E-02   2.1069E-02   2.4738E-04  0.0402
   2.1069E-02   2.1582E-02   2.3760E-04  0.0405
   2.1582E-02   2.2107E-02   2.3957E-04  0.0399
   2.2107E-02   2.2645E-02   2.4392E-04  0.0390
   2.2645E-02   2.3196E-02   2.3050E-04  0.0397
   2.3196E-02   2.3760E-02   2.3956E-04  0.0385
   2.3760E-02   2.4338E-02   2.2764E-04  0.0390
   2.4338E-02   2.4930E-02   2.3135E-04  0.0382
   2.4930E-02   2.5537E-02   2.4366E-04  0.0368
   2.5537E-02   2.6158E-02   2.2436E-04  0.0379
   2.6158E-02   2.6795E-02   2.4008E-04  0.0362
   2.6795E-02   2.7447E-02   2.3929E-04  0.0358
   2.7447E-02   2.8114E-02   2.2432E-04  0.0365
   2.8114E-02   2.8799E-02   2.3156E-04  0.0355
   2.8799E-02   2.9499E-02   2.4062E-04  0.0344
   2.9499E-02   3.0217E-02   2.3212E-04  0.0346
   3.0217E-02   3.0952E-02   2.3177E-04  0.0343
   3.0952E-02   3.1705E-02   2.3383E-04  0.0337
   3.1705E-02   3.2477E-02   2.3463E-04  0.0332
   3.2477E-02   3.3267E-02   2.6121E-04  0.0311
   3.3267E-02   3.4076E-02   2.3103E-04  0.0327
   3.4076E-02   3.4905E-02   2.2651E-04  0.0326
   3.4905E-02   3.5755E-02   2.3314E-04  0.0318
   3.5755E-02   3.6625E-02   2.2369E-04  0.0321
   3.6625E-02   3.7516E-02   2.2040E-04  0.0319
   3.7516E-02   3.8428E-02   2.3795E-04  0.0303
   3.8428E-02   3.9363E-02   2.3679E-04  0.0301
   3.9363E-02   4.0321E-02   2.3347E-04  0.0299
   4.0321E-02   4.1302E-02   2.2996E-04  0.0298
   4.1302E-02   4.2307E-02   2.2671E-04  0.0296
   4.2307E-02   4.3337E-02   2.3043E-04  0.0290
   4.3337E-02   4.4391E-02   2.2818E-04  0.0288
   4.4391E-02   4.5471E-02   2.2536E-04  0.0287
   4.5471E-02   4.6577E-02   2.3175E-04  0.0279
   4.6577E-02   4.7711E-02   2.4001E-04  0.0271
   4.7711E-02   4.8871E-02   2.3225E-04  0.0272
   4.8871E-02   5.0061E-02   2.4257E-04  0.0263
   5.0061E-02   5.1279E-02   2.3054E-04  0.0267
   5.1279E-02   5.2526E-02   2.2955E-04  0.0264
   5.2526E-02   5.3804E-02   2.3239E-04  0.0259
   5.3804E-02   5.5113E-02   2.2718E-04  0.0259
   5.5113E-02   5.6454E-02   2.3073E-04  0.0254
   5.6454E-02   5.7828E-02   2.3825E-04  0.0247
   5.7828E-02   5.9235E-02   2.3369E-04  0.0247
   5.9235E-02   6.0676E-02   2.3660E-04  0.0242
   6.0676E-02   6.2152E-02   2.4250E-04  0.0236
   6.2152E-02   6.3665E-02   2.3978E-04  0.0235
   6.3665E-02   6.5214E-02   2.4235E-04  0.0231
   6.5214E-02   6.6800E-02   2.3861E-04  0.0230
   6.6800E-02   6.8426E-02   2.3971E-04  0.0227
   6.8426E-02   7.0090E-02   2.3786E-04  0.0225
   7.0090E-02   7.1796E-02   2.3983E-04  0.0221
   7.1796E-02   7.3543E-02   2.4320E-04  0.0217
   7.3543E-02   7.5332E-02   2.4836E-04  0.0212
   7.5332E-02   7.7165E-02   2.4410E-04  0.0211
   7.7165E-02   7.9042E-02   2.4011E-04  0.0211
   7.9042E-02   8.0965E-02   2.4907E-04  0.0204
   8.0965E-02   8.2935E-02   2.5224E-04  0.0201
   8.2935E-02   8.4953E-02   2.4283E-04  0.0202
   8.4953E-02   8.7020E-02   2.5399E-04  0.0195
   8.7020E-02   8.9138E-02   2.4522E-04  0.0196
   8.9138E-02   9.1306E-02   2.4889E-04  0.0192
   9.1306E-02   9.3528E-02   2.4865E-04  0.0190
   9.3528E-02   9.5804E-02   2.4872E-04  0.0188
   9.5804E-02   9.8134E-02   2.4891E-04  0.0186
   9.8134E-02   1.0052E-01   2.4643E-04  0.0184
   1.0052E-01   1.0297E-01   2.4777E-04  0.0182
   1.0297E-01   1.0547E-01   2.5203E-04  0.0178
   1.0547E-01   1.0804E-01   2.5376E-04  0.0175
   1.0804E-01   1.1067E-01   2.5161E-04  0.0174
   1.1067E-01   1.1336E-01   2.4949E-04  0.0173
   1.1336E-01   1.1612E-01   2.4908E-04  0.0171
   1.1612E-01   1.1894E-01   2.5350E-04  0.0167
   1.1894E-01   1.2184E-01   2.5013E-04  0.0166
   1.2184E-01   1.2480E-01   2.5833E-04  0.0162
   1.2480E-01   1.2784E-01   2.5634E-04  0.0160
   1.2784E-01   1.3095E-01   2.6539E-04  0.0156
   1.3095E-01   1.3414E-01   2.5931E-04  0.0156
   1.3414E-01   1.3740E-01   2.6235E-04  0.0153
   1.3740E-01   1.4074E-01   2.6294E-04  0.0151
   1.4074E-01   1.4417E-01   2.6481E-04  0.0149
   1.4417E-01   1.4767E-01   2.7039E-04  0.0145
   1.4767E-01   1.5127E-01   2.6857E-04  0.0144
   1.5127E-01   1.5495E-01   2.6964E-04  0.0142
   1.5495E-01   1.5872E-01   2.6547E-04  0.0141
   1.5872E-01   1.6258E-01   2.6962E-04  0.0139
   1.6258E-01   1.6654E-01   2.6697E-04  0.0138
   1.6654E-01   1.7059E-01   2.6920E-04  0.0135
   1.7059E-01   1.7474E-01   2.7519E-04  0.0132
   1.7474E-01   1.7899E-01   2.7891E-04  0.0130
   1.7899E-01   1.8334E-01   2.8147E-04  0.0128
   1.8334E-01   1.8781E-01   2.7946E-04  0.0127
   1.8781E-01   1.9237E-01   2.8803E-04  0.0123
   1.9237E-01   1.9706E-01   2.8265E-04  0.0123
   1.9706E-01   2.0185E-01   2.7732E-04  0.0123
   2.0185E-01   2.0676E-01   2.8421E-04  0.0120
   2.0676E-01   2.1179E-01   2.8255E-04  0.0119
   2.1179E-01   2.1694E-01   2.8531E-04  0.0117
   2.1694E-01   2.2222E-01   2.8479E-04  0.0115
   2.2222E-01   2.2763E-01   2.8401E-04  0.0114
   2.2763E-01   2.3317E-01   2.9107E-04  0.0111
   2.3317E-01   2.3884E-01   2.8902E-04  0.0110
   2.3884E-01   2.4465E-01   2.9457E-04  0.0108
   2.4465E-01   2.5061E-01   2.9043E-04  0.0108
   2.5061E-01   2.5670E-01   2.9104E-04  0.0106
   2.5670E-01   2.6295E-01   2.9905E-04  0.0103
   2.6295E-01   2.6935E-01   2.9577E-04  0.0103
   2.6935E-01   2.7590E-01   2.9295E-04  0.0102
   2.7590E-01   2.8261E-01   2.9839E-04  0.0100
   2.8261E-01   2.8949E-01   2.9729E-04  0.0099
   2.8949E-01   2.9653E-01   3.0136E-04  0.0097
   2.9653E-01   3.0375E-01   3.0383E-04  0.0096
   3.0375E-01   3.1114E-01   3.0800E-04  0.0094
   3.1114E-01   3.1871E-01   3.0445E-04  0.0093
   3.1871E-01   3.2646E-01   3.0367E-04  0.0092
   3.2646E-01   3.3441E-01   3.1135E-04  0.0090
   3.3441E-01   3.4254E-01   3.0503E-04  0.0090
   3.4254E-01   3.5088E-01   3.0620E-04  0.0089
   3.5088E-01   3.5941E-01   3.1176E-04  0.0087
   3.5941E-01   3.6816E-01   3.0963E-04  0.0086
   3.6816E-01   3.7712E-01   3.1056E-04  0.0085
   3.7712E-01   3.8629E-01   3.1290E-04  0.0083
   3.8629E-01   3.9569E-01   3.0592E-04  0.0083
   3.9569E-01   4.0532E-01   3.1520E-04  0.0081
   4.0532E-01   4.1518E-01   3.1610E-04  0.0080
   4.1518E-01   4.2528E-01   3.1264E-04  0.0080
   4.2528E-01   4.3563E-01   3.1725E-04  0.0078
   4.3563E-01   4.4623E-01   3.1893E-04  0.0077
   4.4623E-01   4.5708E-01   3.1814E-04  0.0076
   4.5708E-01   4.6821E-01   3.2119E-04  0.0075
   4.6821E-01   4.7960E-01   3.1267E-04  0.0075
   4.7960E-01   4.9127E-01   3.2063E-04  0.0073
   4.9127E-01   5.0322E-01   3.1628E-04  0.0073
   5.0322E-01   5.1546E-01   3.1765E-04  0.0072
   5.1546E-01   5.2800E-01   3.1790E-04  0.0071
   5.2800E-01   5.4085E-01   3.2015E-04  0.0070
   5.4085E-01   5.5401E-01   3.1564E-04  0.0069
   5.5401E-01   5.6749E-01   3.2036E-04  0.0068
   5.6749E-01   5.8130E-01   3.1345E-04  0.0068
   5.8130E-01   5.9544E-01   3.1690E-04  0.0067
   5.9544E-01   6.0993E-01   3.1276E-04  0.0066
   6.0993E-01   6.2477E-01   3.1655E-04  0.0065
   6.2477E-01   6.3997E-01   3.1328E-04  0.0065
   6.3997E-01   6.5554E-01   3.1280E-04  0.0064
   6.5554E-01   6.7149E-01   3.0912E-04  0.0064
   6.7149E-01   6.8783E-01   3.0660E-04  0.0063
   6.8783E-01   7.0456E-01   3.0594E-04  0.0063
   7.0456E-01   7.2171E-01   3.0076E-04  0.0062
   7.2171E-01   7.3927E-01   3.0101E-04  0.0062
   7.3927E-01   7.5725E-01   3.0093E-04  0.0061
   7.5725E-01   7.7568E-01   2.9302E-04  0.0061
   7.7568E-01   7.9455E-01   2.9016E-04  0.0060
   7.9455E-01   8.1388E-01   2.8385E-04  0.0060
   8.1388E-01   8.3368E-01   2.7957E-04  0.0060
   8.3368E-01   8.5397E-01   2.7502E-04  0.0060
   8.5397E-01   8.7475E-01   2.6479E-04  0.0060
   8.7475E-01   8.9603E-01   2.5637E-04  0.0061
   8.9603E-01   9.1783E-01   2.5128E-04  0.0060
   9.1783E-01   9.4016E-01   2.3880E-04  0.0061
   9.4016E-01   9.6304E-01   2.2793E-04  0.0062
   9.6304E-01   9.8647E-01   2.1839E-04  0.0063
   9.8647E-01   1.0105E+00   2.1005E-04  0.0063
   1.0105E+00   1.0351E+00   2.0847E-04  0.0062
   1.0351E+00   1.0602E+00   2.1203E-04  0.0061
   1.0602E+00   1.0860E+00   2.1195E-04  0.0060
   1.0860E+00   1.1125E+00   2.1297E-04  0.0060
   1.1125E+00   1.1395E+00   2.1507E-04  0.0059
   1.1395E+00   1.1673E+00   2.1984E-04  0.0057
   1.1673E+00   1.1957E+00   2.2455E-04  0.0056
   1.1957E+00   1.2247E+00   2.2927E-04  0.0055
   1.2247E+00   1.2545E+00   2.2924E-04  0.0054
   1.2545E+00   1.2851E+00   2.3023E-04  0.0053
   1.2851E+00   1.3163E+00   2.3226E-04  0.0052
   1.3163E+00   1.3484E+00   2.3401E-04  0.0052
   1.3484E+00   1.3812E+00   2.3544E-04  0.0051
   1.3812E+00   1.4148E+00   2.4095E-04  0.0050
   1.4148E+00   1.4492E+00   2.4182E-04  0.0049
   1.4492E+00   1.4845E+00   2.3834E-04  0.0049
   1.4845E+00   1.5206E+00   2.3616E-04  0.0048
   1.5206E+00   1.5576E+00   2.3661E-04  0.0048
   1.5576E+00   1.5955E+00   2.3613E-04  0.0047
   1.5955E+00   1.6343E+00   2.3625E-04  0.0047
   1.6343E+00   1.6741E+00   2.3820E-04  0.0046
   1.6741E+00   1.7148E+00   2.4087E-04  0.0045
   1.7148E+00   1.7565E+00   2.3880E-04  0.0045
   1.7565E+00   1.7992E+00   2.3687E-04  0.0044
   1.7992E+00   1.8430E+00   2.3254E-04  0.0044
   1.8430E+00   1.8879E+00   2.3093E-04  0.0044
   1.8879E+00   1.9338E+00   2.3041E-04  0.0043
   1.9338E+00   1.9808E+00   2.2912E-04  0.0043
   1.9808E+00   2.0290E+00   2.3063E-04  0.0042
   2.0290E+00   2.0784E+00   2.2557E-04  0.0042
   2.0784E+00   2.1290E+00   2.2162E-04  0.0042
   2.1290E+00   2.1808E+00   2.1670E-04  0.0042
   2.1808E+00   2.2338E+00   2.1431E-04  0.0042
   2.2338E+00   2.2882E+00   2.1127E-04  0.0042
   2.2882E+00   2.3439E+00   2.0681E-04  0.0042
   2.3439E+00   2.4009E+00   2.0638E-04  0.0041
   2.4009E+00   2.4593E+00   2.0448E-04  0.0041
   2.4593E+00   2.5191E+00   1.9779E-04  0.0041
   2.5191E+00   2.5804E+00   1.9320E-04  0.0041
   2.5804E+00   2.6432E+00   1.8957E-04  0.0041
   2.6432E+00   2.7075E+00   1.8437E-04  0.0041
   2.7075E+00   2.7734E+00   1.7902E-04  0.0041
   2.7734E+00   2.8409E+00   1.7356E-04  0.0041
   2.8409E+00   2.9100E+00   1.7135E-04  0.0041
   2.9100E+00   2.9808E+00   1.6692E-04  0.0041
   2.9808E+00   3.0533E+00   1.6206E-04  0.0041
   3.0533E+00   3.1276E+00   1.5737E-04  0.0041
   3.1276E+00   3.2037E+00   1.5190E-04  0.0042
   3.2037E+00   3.2817E+00   1.4751E-04  0.0042
   3.2817E+00   3.3615E+00   1.4280E-04  0.0042
   3.3615E+00   3.4433E+00   1.3798E-04  0.0042
   3.4433E+00   3.5271E+00   1.3470E-04  0.0042
   3.5271E+00   3.6129E+00   1.3097E-04  0.0042
   3.6129E+00   3.7008E+00   1.2629E-04  0.0042
   3.7008E+00   3.7908E+00   1.2217E-04  0.0043
   3.7908E+00   3.8831E+00   1.1683E-04  0.0043
   3.8831E+00   3.9776E+00   1.1335E-04  0.0043
   3.9776E+00   4.0743E+00   1.0961E-04  0.0043
   4.0743E+00   4.1735E+00   1.0544E-04  0.0044
   4.1735E+00   4.2750E+00   1.0222E-04  0.0044
   4.2750E+00   4.3790E+00   9.8065E-05  0.0044
   4.3790E+00   4.4856E+00   9.5640E-05  0.0044
   4.4856E+00   4.5947E+00   9.1733E-05  0.0045
   4.5947E+00   4.7065E+00   8.8479E-05  0.0045
   4.7065E+00   4.8210E+00   8.5330E-05  0.0045
   4.8210E+00   4.9383E+00   8.3210E-05  0.0045
   4.9383E+00   5.0585E+00   8.0221E-05  0.0046
   5.0585E+00   5.1815E+00   7.7148E-05  0.0046
   5.1815E+00   5.3076E+00   7.5149E-05  0.0046
   5.3076E+00   5.4368E+00   7.2318E-05  0.0046
   5.4368E+00   5.5690E+00   6.9599E-05  0.0047
   5.5690E+00   5.7045E+00   6.8124E-05  0.0047
   5.7045E+00   5.8433E+00   6.6148E-05  0.0047
   5.8433E+00   5.9855E+00   6.3852E-05  0.0047
   5.9855E+00   6.1311E+00   6.2197E-05  0.0047
   6.1311E+00   6.2803E+00   5.9877E-05  0.0047
   6.2803E+00   6.4331E+00   5.8577E-05  0.0047
   6.4331E+00   6.5896E+00   5.6961E-05  0.0047
   6.5896E+00   6.7500E+00   5.5305E-05  0.0047
   6.7500E+00   6.9142E+00   5.4247E-05  0.0047
   6.9142E+00   7.0824E+00   5.2617E-05  0.0047
   7.0824E+00   7.2548E+00   5.1219E-05  0.0048
   7.2548E+00   7.4313E+00   5.0085E-05  0.0048
   7.4313E+00   7.6121E+00   4.8377E-05  0.0048
   7.6121E+00   7.7973E+00   4.7307E-05  0.0048
   7.7973E+00   7.9870E+00   4.6054E-05  0.0048
   7.9870E+00   8.1813E+00   4.5129E-05  0.0048
   8.1813E+00   8.3804E+00   4.3798E-05  0.0048
   8.3804E+00   8.5843E+00   4.3192E-05  0.0048
   8.5843E+00   8.7931E+00   4.1614E-05  0.0048
   8.7931E+00   9.0071E+00   4.0482E-05  0.0048
   9.0071E+00   9.2262E+00   3.9625E-05  0.0048
   9.2262E+00   9.4507E+00   3.8233E-05  0.0048
   9.4507E+00   9.6807E+00   3.7005E-05  0.0048
   9.6807E+00   9.9162E+00   3.6432E-05  0.0048
   9.9162E+00   1.0157E+01   3.5259E-05  0.0048
   1.0157E+01   1.0405E+01   3.4035E-05  0.0049
   1.0405E+01   1.0658E+01   3.3067E-05  0.0049
   1.0658E+01   1.0917E+01   3.1769E-05  0.0049
   1.0917E+01   1.1183E+01   3.0371E-05  0.0050
   1.1183E+01   1.1455E+01   2.8761E-05  0.0051
   1.1455E+01   1.1733E+01   2.7811E-05  0.0051
   1.1733E+01   1.2019E+01   2.6556E-05  0.0051
   1.2019E+01   1.2311E+01   2.5206E-05  0.0052
   1.2311E+01   1.2611E+01   2.3646E-05  0.0053
   1.2611E+01   1.2918E+01   2.2595E-05  0.0054
   1.2918E+01   1.3232E+01   2.1239E-05  0.0055
   1.3232E+01   1.3554E+01   1.9838E-05  0.0056
   1.3554E+01   1.3884E+01   1.8574E-05  0.0057
   1.3884E+01   1.4222E+01   1.7351E-05  0.0058
   1.4222E+01   1.4568E+01   1.6301E-05  0.0060
   1.4568E+01   1.4922E+01   1.4890E-05  0.0062
   1.4922E+01   1.5285E+01   1.3790E-05  0.0063
   1.5285E+01   1.5657E+01   1.2601E-05  0.0065
   1.5657E+01   1.6038E+01   1.1419E-05  0.0068
   1.6038E+01   1.6428E+01   1.0463E-05  0.0070
   1.6428E+01   1.6828E+01   9.4374E-06  0.0073
   1.6828E+01   1.7237E+01   8.5707E-06  0.0075
   1.7237E+01   1.7657E+01   7.5562E-06  0.0079
   1.7657E+01   1.8086E+01   6.7476E-06  0.0083
   1.8086E+01   1.8526E+01   5.9239E-06  0.0088
   1.8526E+01   1.8977E+01   5.1352E-06  0.0093
   1.8977E+01   1.9439E+01   4.5022E-06  0.0098
   1.9439E+01   1.9912E+01   3.8337E-06  0.0105
   1.9912E+01   2.0396E+01   3.1787E-06  0.0114
   2.0396E+01   2.0893E+01   2.6599E-06  0.0123
   2.0893E+01   2.1401E+01   2.1698E-06  0.0135
   2.1401E+01   2.1922E+01   1.7707E-06  0.0147
   2.1922E+01   2.2455E+01   1.4178E-06  0.0163
   2.2455E+01   2.3001E+01   1.0506E-06  0.0187
   2.3001E+01   2.3561E+01   7.8229E-07  0.0214
   2.3561E+01   2.4134E+01   5.4775E-07  0.0252
   2.4134E+01   2.4721E+01   3.5490E-07  0.0310
   2.4721E+01   2.5323E+01   2.2544E-07  0.0384
   2.5323E+01   2.5939E+01   1.0160E-07  0.0565
   2.5939E+01   2.6570E+01   4.1197E-08  0.0877
   2.6570E+01   2.7217E+01   6.8062E-09  0.2132
   2.7217E+01   2.7879E+01   3.0202E-10  1.0000
   2.7879E+01   2.8557E+01   0.0000E+00  0.0000
   2.8557E+01   2.9252E+01   0.0000E+00  0.0000
   2.9252E+01   2.9964E+01   0.0000E+00  0.0000
   2.9964E+01   3.0693E+01   0.0000E+00  0.0000
   3.0693E+01   3.1440E+01   0.0000E+00  0.0000
   3.1440E+01   3.2205E+01   0.0000E+00  0.0000
   3.2205E+01   3.2988E+01   0.0000E+00  0.0000
   3.2988E+01   3.3791E+01   0.0000E+00  0.0000
   3.3791E+01   3.4613E+01   0.0000E+00  0.0000
   3.4613E+01   3.5455E+01   0.0000E+00  0.0000
   3.5455E+01   3.6318E+01   0.0000E+00  0.0000
   3.6318E+01   3.7201E+01   0.0000E+00  0.0000
   3.7201E+01   3.8106E+01   0.0000E+00  0.0000
   3.8106E+01   3.9034E+01   0.0000E+00  0.0000
   3.9034E+01   3.9983E+01   0.0000E+00  0.0000
   3.9983E+01   4.0956E+01   0.0000E+00  0.0000
   4.0956E+01   4.1953E+01   0.0000E+00  0.0000
   4.1953E+01   4.2973E+01   0.0000E+00  0.0000
   4.2973E+01   4.4019E+01   0.0000E+00  0.0000
   4.4019E+01   4.5090E+01   0.0000E+00  0.0000
   4.5090E+01   4.6187E+01   0.0000E+00  0.0000
   4.6187E+01   4.7311E+01   0.0000E+00  0.0000
   4.7311E+01   4.8462E+01   0.0000E+00  0.0000
   4.8462E+01   4.9641E+01   0.0000E+00  0.0000
   4.9641E+01   5.0849E+01   0.0000E+00  0.0000
   5.0849E+01   5.2086E+01   0.0000E+00  0.0000
   5.2086E+01   5.3353E+01   0.0000E+00  0.0000
   5.3353E+01   5.4651E+01   0.0000E+00  0.0000
   5.4651E+01   5.5981E+01   0.0000E+00  0.0000
   5.5981E+01   5.7343E+01   0.0000E+00  0.0000
   5.7343E+01   5.8738E+01   0.0000E+00  0.0000
   5.8738E+01   6.0168E+01   0.0000E+00  0.0000
   6.0168E+01   6.1632E+01   0.0000E+00  0.0000
   6.1632E+01   6.3131E+01   0.0000E+00  0.0000
   6.3131E+01   6.4667E+01   0.0000E+00  0.0000
   6.4667E+01   6.6240E+01   0.0000E+00  0.0000
   6.6240E+01   6.7852E+01   0.0000E+00  0.0000
   6.7852E+01   6.9503E+01   0.0000E+00  0.0000
   6.9503E+01   7.1194E+01   0.0000E+00  0.0000
   7.1194E+01   7.2926E+01   0.0000E+00  0.0000
   7.2926E+01   7.4701E+01   0.0000E+00  0.0000
   7.4701E+01   7.6518E+01   0.0000E+00  0.0000
   7.6518E+01   7.8380E+01   0.0000E+00  0.0000
   7.8380E+01   8.0287E+01   0.0000E+00  0.0000
   8.0287E+01   8.2240E+01   0.0000E+00  0.0000
   8.2240E+01   8.4241E+01   0.0000E+00  0.0000
   8.4241E+01   8.6291E+01   0.0000E+00  0.0000
   8.6291E+01   8.8391E+01   0.0000E+00  0.0000
   8.8391E+01   9.0541E+01   0.0000E+00  0.0000
   9.0541E+01   9.2744E+01   0.0000E+00  0.0000
   9.2744E+01   9.5001E+01   0.0000E+00  0.0000
   9.5001E+01   9.7312E+01   0.0000E+00  0.0000
   9.7312E+01   9.9680E+01   0.0000E+00  0.0000
   9.9680E+01   1.0211E+02   0.0000E+00  0.0000
   1.0211E+02   1.0459E+02   0.0000E+00  0.0000
   1.0459E+02   1.0713E+02   0.0000E+00  0.0000
   1.0713E+02   1.0974E+02   0.0000E+00  0.0000
   1.0974E+02   1.1241E+02   0.0000E+00  0.0000
   1.1241E+02   1.1515E+02   0.0000E+00  0.0000
   1.1515E+02   1.1795E+02   0.0000E+00  0.0000
   1.1795E+02   1.2082E+02   0.0000E+00  0.0000
   1.2082E+02   1.2376E+02   0.0000E+00  0.0000
   1.2376E+02   1.2677E+02   0.0000E+00  0.0000
   1.2677E+02   1.2985E+02   0.0000E+00  0.0000
   1.2985E+02   1.3301E+02   0.0000E+00  0.0000
   1.3301E+02   1.3625E+02   0.0000E+00  0.0000
   1.3625E+02   1.3956E+02   0.0000E+00  0.0000
   1.3956E+02   1.4296E+02   0.0000E+00  0.0000
   1.4296E+02   1.4644E+02   0.0000E+00  0.0000
   1.4644E+02   1.5000E+02   0.0000E+00  0.0000

#   sum over                 9.0797E-06
'no. =    1   reg = 108 - 208'
msuc: {\huge [t-cross] in region mesh}
msdr: {\it plotted by \ANGEL \version}
msdl: {\it calculated by \PHITS  3.26}
wt: s(0.7)
\vspace{-3}
  region surface crossing
  area  &=&   1.0000E+00 [cm^2]
e:
 
# Information for Restart Calculation
# This calculation was newly started
# istdev =  2 # 1:Batch variance, 2:History variance
# resc2  = 5.00000000000000000E+09 # Total source weight or Total source weight / maxcas
# resc3  = 5.00000000000000000E+09 # Total history number or Total batch number
# maxcas =   100000000 # History / Batch, only used for istdev=1
# bitrseed = 0110100000100010111000001110001111001110100100011111101000111001 # bit data of rseed
