[ T-Cross ]
    title = [t-cross] in region mesh
     mesh =  reg            # mesh type is region-wise
      reg =    1            # number of crossing regions
      non     r-from    r-to       area
      1       126       226        1.000000    
   e-type =    3            # e-mesh is log given by emin, emax and ne
     emin =  1.0000000E-02  # minimum value of e-mesh points
     emax =   150.0000      # maximum value of e-mesh points
#    edel =  2.4039514E-02  # mesh width of e-mesh points
       ne =    400          # number of e-mesh points
#    data = ( e(i), i = 1, ne + 1 )
#           1.00000E-02  1.02433E-02  1.04925E-02  1.07478E-02  1.10093E-02
#           1.12772E-02  1.15516E-02  1.18326E-02  1.21205E-02  1.24154E-02
#           1.27175E-02  1.30269E-02  1.33439E-02  1.36686E-02  1.40011E-02
#           1.43418E-02  1.46907E-02  1.50482E-02  1.54143E-02  1.57894E-02
#           1.61735E-02  1.65670E-02  1.69701E-02  1.73830E-02  1.78060E-02
#           1.82392E-02  1.86830E-02  1.91375E-02  1.96032E-02  2.00801E-02
#           2.05687E-02  2.10692E-02  2.15818E-02  2.21069E-02  2.26448E-02
#           2.31957E-02  2.37601E-02  2.43382E-02  2.49304E-02  2.55369E-02
#           2.61583E-02  2.67947E-02  2.74467E-02  2.81145E-02  2.87985E-02
#           2.94992E-02  3.02169E-02  3.09521E-02  3.17052E-02  3.24766E-02
#           3.32668E-02  3.40762E-02  3.49053E-02  3.57546E-02  3.66246E-02
#           3.75157E-02  3.84284E-02  3.93634E-02  4.03212E-02  4.13022E-02
#           4.23071E-02  4.33365E-02  4.43909E-02  4.54710E-02  4.65773E-02
#           4.77106E-02  4.88714E-02  5.00605E-02  5.12785E-02  5.25262E-02
#           5.38042E-02  5.51133E-02  5.64542E-02  5.78278E-02  5.92348E-02
#           6.06760E-02  6.21523E-02  6.36645E-02  6.52135E-02  6.68002E-02
#           6.84255E-02  7.00904E-02  7.17957E-02  7.35426E-02  7.53319E-02
#           7.71648E-02  7.90423E-02  8.09655E-02  8.29354E-02  8.49533E-02
#           8.70203E-02  8.91376E-02  9.13064E-02  9.35279E-02  9.58035E-02
#           9.81345E-02  1.00522E-01  1.02968E-01  1.05473E-01  1.08040E-01
#           1.10668E-01  1.13361E-01  1.16119E-01  1.18944E-01  1.21838E-01
#           1.24803E-01  1.27839E-01  1.30950E-01  1.34136E-01  1.37399E-01
#           1.40742E-01  1.44167E-01  1.47675E-01  1.51268E-01  1.54948E-01
#           1.58718E-01  1.62580E-01  1.66535E-01  1.70587E-01  1.74738E-01
#           1.78989E-01  1.83344E-01  1.87805E-01  1.92375E-01  1.97055E-01
#           2.01850E-01  2.06761E-01  2.11792E-01  2.16945E-01  2.22223E-01
#           2.27630E-01  2.33169E-01  2.38842E-01  2.44653E-01  2.50605E-01
#           2.56703E-01  2.62949E-01  2.69346E-01  2.75900E-01  2.82613E-01
#           2.89489E-01  2.96532E-01  3.03747E-01  3.11138E-01  3.18708E-01
#           3.26462E-01  3.34405E-01  3.42542E-01  3.50876E-01  3.59413E-01
#           3.68158E-01  3.77116E-01  3.86291E-01  3.95690E-01  4.05317E-01
#           4.15179E-01  4.25281E-01  4.35628E-01  4.46227E-01  4.57084E-01
#           4.68205E-01  4.79597E-01  4.91266E-01  5.03219E-01  5.15463E-01
#           5.28005E-01  5.40851E-01  5.54011E-01  5.67490E-01  5.81298E-01
#           5.95441E-01  6.09929E-01  6.24769E-01  6.39970E-01  6.55541E-01
#           6.71491E-01  6.87828E-01  7.04564E-01  7.21706E-01  7.39266E-01
#           7.57253E-01  7.75678E-01  7.94551E-01  8.13883E-01  8.33685E-01
#           8.53969E-01  8.74747E-01  8.96030E-01  9.17831E-01  9.40163E-01
#           9.63038E-01  9.86469E-01  1.01047E+00  1.03506E+00  1.06024E+00
#           1.08604E+00  1.11246E+00  1.13953E+00  1.16725E+00  1.19565E+00
#           1.22474E+00  1.25454E+00  1.28507E+00  1.31633E+00  1.34836E+00
#           1.38117E+00  1.41477E+00  1.44920E+00  1.48446E+00  1.52057E+00
#           1.55757E+00  1.59547E+00  1.63429E+00  1.67405E+00  1.71478E+00
#           1.75650E+00  1.79924E+00  1.84302E+00  1.88786E+00  1.93379E+00
#           1.98084E+00  2.02904E+00  2.07841E+00  2.12898E+00  2.18078E+00
#           2.23384E+00  2.28819E+00  2.34386E+00  2.40089E+00  2.45930E+00
#           2.51914E+00  2.58043E+00  2.64322E+00  2.70753E+00  2.77341E+00
#           2.84088E+00  2.91001E+00  2.98081E+00  3.05333E+00  3.12762E+00
#           3.20372E+00  3.28167E+00  3.36152E+00  3.44330E+00  3.52708E+00
#           3.61290E+00  3.70080E+00  3.79085E+00  3.88308E+00  3.97756E+00
#           4.07434E+00  4.17347E+00  4.27501E+00  4.37903E+00  4.48557E+00
#           4.59471E+00  4.70650E+00  4.82102E+00  4.93832E+00  5.05847E+00
#           5.18155E+00  5.30762E+00  5.43676E+00  5.56904E+00  5.70453E+00
#           5.84333E+00  5.98550E+00  6.13114E+00  6.28031E+00  6.43312E+00
#           6.58964E+00  6.74997E+00  6.91420E+00  7.08243E+00  7.25475E+00
#           7.43126E+00  7.61207E+00  7.79728E+00  7.98700E+00  8.18133E+00
#           8.38038E+00  8.58428E+00  8.79315E+00  9.00709E+00  9.22624E+00
#           9.45072E+00  9.68067E+00  9.91620E+00  1.01575E+01  1.04046E+01
#           1.06578E+01  1.09171E+01  1.11827E+01  1.14548E+01  1.17335E+01
#           1.20190E+01  1.23114E+01  1.26109E+01  1.29178E+01  1.32321E+01
#           1.35540E+01  1.38838E+01  1.42216E+01  1.45676E+01  1.49221E+01
#           1.52851E+01  1.56570E+01  1.60380E+01  1.64282E+01  1.68279E+01
#           1.72374E+01  1.76568E+01  1.80864E+01  1.85264E+01  1.89772E+01
#           1.94389E+01  1.99119E+01  2.03963E+01  2.08926E+01  2.14009E+01
#           2.19216E+01  2.24550E+01  2.30014E+01  2.35610E+01  2.41343E+01
#           2.47215E+01  2.53230E+01  2.59391E+01  2.65702E+01  2.72167E+01
#           2.78789E+01  2.85572E+01  2.92520E+01  2.99637E+01  3.06928E+01
#           3.14396E+01  3.22045E+01  3.29881E+01  3.37907E+01  3.46128E+01
#           3.54550E+01  3.63177E+01  3.72013E+01  3.81064E+01  3.90336E+01
#           3.99833E+01  4.09561E+01  4.19526E+01  4.29734E+01  4.40189E+01
#           4.50900E+01  4.61870E+01  4.73108E+01  4.84619E+01  4.96410E+01
#           5.08488E+01  5.20860E+01  5.33533E+01  5.46514E+01  5.59812E+01
#           5.73432E+01  5.87384E+01  6.01676E+01  6.16315E+01  6.31311E+01
#           6.46671E+01  6.62405E+01  6.78522E+01  6.95031E+01  7.11941E+01
#           7.29263E+01  7.47007E+01  7.65182E+01  7.83800E+01  8.02870E+01
#           8.22405E+01  8.42414E+01  8.62911E+01  8.83906E+01  9.05412E+01
#           9.27442E+01  9.50007E+01  9.73122E+01  9.96799E+01  1.02105E+02
#           1.04589E+02  1.07134E+02  1.09741E+02  1.12411E+02  1.15146E+02
#           1.17948E+02  1.20817E+02  1.23757E+02  1.26768E+02  1.29852E+02
#           1.33012E+02  1.36248E+02  1.39563E+02  1.42959E+02  1.46437E+02
#           1.50000E+02
     unit =    2            # unit is [1/cm^2/(MeV/n)/source]
     axis =  eng            # axis of output
     file = detector-27.out  # file name of output for the above axis
   output = f-curr          # surface crossing forward current spectrum
     part =  neutron  
# kf/name :  2112     
#    used :        main (  %)        temp (  %)       total (  %)
#  memory :         414 (  0)           0 (  0)         414 (  0)

#------------------------------------------------------------------------------
#newpage:
#   no. =    1   reg = 126 - 226

x: Energy [MeV/n]
y:  F-Curr [1/cm^2/(MeV/n)/source]         
p: xlog ylog afac(0.8) form(0.9)
h: n            x            y(neutron ),hh0l   n 
#  e-lower      e-upper      neutron     r.err 
   1.0000E-02   1.0243E-02   5.3295E-04  0.0392
   1.0243E-02   1.0493E-02   5.2753E-04  0.0389
   1.0493E-02   1.0748E-02   4.9748E-04  0.0396
   1.0748E-02   1.1009E-02   5.1639E-04  0.0384
   1.1009E-02   1.1277E-02   4.9991E-04  0.0386
   1.1277E-02   1.1552E-02   5.0106E-04  0.0381
   1.1552E-02   1.1833E-02   4.6670E-04  0.0390
   1.1833E-02   1.2121E-02   4.5011E-04  0.0392
   1.2121E-02   1.2415E-02   4.0719E-04  0.0407
   1.2415E-02   1.2718E-02   4.5140E-04  0.0382
   1.2718E-02   1.3027E-02   4.0943E-04  0.0397
   1.3027E-02   1.3344E-02   4.3289E-04  0.0381
   1.3344E-02   1.3669E-02   4.3835E-04  0.0374
   1.3669E-02   1.4001E-02   4.1105E-04  0.0381
   1.4001E-02   1.4342E-02   4.2406E-04  0.0371
   1.4342E-02   1.4691E-02   3.9755E-04  0.0379
   1.4691E-02   1.5048E-02   3.8481E-04  0.0380
   1.5048E-02   1.5414E-02   3.6717E-04  0.0384
   1.5414E-02   1.5789E-02   3.2688E-04  0.0403
   1.5789E-02   1.6174E-02   3.7472E-04  0.0372
   1.6174E-02   1.6567E-02   3.6275E-04  0.0373
   1.6567E-02   1.6970E-02   3.4813E-04  0.0377
   1.6970E-02   1.7383E-02   3.3353E-04  0.0380
   1.7383E-02   1.7806E-02   3.4679E-04  0.0369
   1.7806E-02   1.8239E-02   3.4644E-04  0.0364
   1.8239E-02   1.8683E-02   3.3800E-04  0.0365
   1.8683E-02   1.9138E-02   3.1026E-04  0.0376
   1.9138E-02   1.9603E-02   3.1167E-04  0.0370
   1.9603E-02   2.0080E-02   3.1895E-04  0.0362
   2.0080E-02   2.0569E-02   3.0584E-04  0.0365
   2.0569E-02   2.1069E-02   2.7129E-04  0.0383
   2.1069E-02   2.1582E-02   2.7277E-04  0.0377
   2.1582E-02   2.2107E-02   2.6235E-04  0.0380
   2.2107E-02   2.2645E-02   2.7048E-04  0.0370
   2.2645E-02   2.3196E-02   2.6506E-04  0.0369
   2.3196E-02   2.3760E-02   2.5636E-04  0.0371
   2.3760E-02   2.4338E-02   2.4910E-04  0.0372
   2.4338E-02   2.4930E-02   2.3700E-04  0.0376
   2.4930E-02   2.5537E-02   2.4437E-04  0.0366
   2.5537E-02   2.6158E-02   2.4168E-04  0.0364
   2.6158E-02   2.6795E-02   2.1224E-04  0.0383
   2.6795E-02   2.7447E-02   2.4499E-04  0.0353
   2.7447E-02   2.8114E-02   2.1303E-04  0.0374
   2.8114E-02   2.8799E-02   2.2028E-04  0.0364
   2.8799E-02   2.9499E-02   1.9869E-04  0.0378
   2.9499E-02   3.0217E-02   2.2198E-04  0.0353
   3.0217E-02   3.0952E-02   2.0890E-04  0.0360
   3.0952E-02   3.1705E-02   1.8868E-04  0.0374
   3.1705E-02   3.2477E-02   1.9471E-04  0.0364
   3.2477E-02   3.3267E-02   1.8780E-04  0.0366
   3.3267E-02   3.4076E-02   1.8012E-04  0.0369
   3.4076E-02   3.4905E-02   1.8043E-04  0.0365
   3.4905E-02   3.5755E-02   1.7303E-04  0.0368
   3.5755E-02   3.6625E-02   1.7096E-04  0.0366
   3.6625E-02   3.7516E-02   1.6802E-04  0.0365
   3.7516E-02   3.8428E-02   1.8119E-04  0.0347
   3.8428E-02   3.9363E-02   1.5427E-04  0.0371
   3.9363E-02   4.0321E-02   1.6254E-04  0.0358
   4.0321E-02   4.1302E-02   1.6706E-04  0.0349
   4.1302E-02   4.2307E-02   1.6380E-04  0.0348
   4.2307E-02   4.3337E-02   1.4929E-04  0.0360
   4.3337E-02   4.4391E-02   1.5736E-04  0.0346
   4.4391E-02   4.5471E-02   1.4587E-04  0.0355
   4.5471E-02   4.6577E-02   1.4335E-04  0.0354
   4.6577E-02   4.7711E-02   1.4644E-04  0.0346
   4.7711E-02   4.8871E-02   1.3989E-04  0.0350
   4.8871E-02   5.0061E-02   1.4298E-04  0.0342
   5.0061E-02   5.1279E-02   1.2321E-04  0.0364
   5.1279E-02   5.2526E-02   1.3620E-04  0.0342
   5.2526E-02   5.3804E-02   1.3002E-04  0.0346
   5.3804E-02   5.5113E-02   1.2009E-04  0.0356
   5.5113E-02   5.6454E-02   1.1816E-04  0.0355
   5.6454E-02   5.7828E-02   1.1049E-04  0.0362
   5.7828E-02   5.9235E-02   1.1490E-04  0.0351
   5.9235E-02   6.0676E-02   1.1637E-04  0.0344
   6.0676E-02   6.2152E-02   1.1607E-04  0.0341
   6.2152E-02   6.3665E-02   1.0737E-04  0.0350
   6.3665E-02   6.5214E-02   1.0659E-04  0.0347
   6.5214E-02   6.6800E-02   1.0670E-04  0.0343
   6.6800E-02   6.8426E-02   1.0256E-04  0.0346
   6.8426E-02   7.0090E-02   1.0165E-04  0.0343
   7.0090E-02   7.1796E-02   9.8554E-05  0.0344
   7.1796E-02   7.3543E-02   9.9719E-05  0.0338
   7.3543E-02   7.5332E-02   9.7411E-05  0.0338
   7.5332E-02   7.7165E-02   9.8460E-05  0.0332
   7.7165E-02   7.9042E-02   9.0536E-05  0.0342
   7.9042E-02   8.0965E-02   8.9816E-05  0.0339
   8.0965E-02   8.2935E-02   9.0033E-05  0.0335
   8.2935E-02   8.4953E-02   8.9669E-05  0.0332
   8.4953E-02   8.7020E-02   8.6465E-05  0.0334
   8.7020E-02   8.9138E-02   8.3054E-05  0.0336
   8.9138E-02   9.1306E-02   8.0814E-05  0.0337
   9.1306E-02   9.3528E-02   7.8998E-05  0.0337
   9.3528E-02   9.5804E-02   7.6431E-05  0.0338
   9.5804E-02   9.8134E-02   7.4343E-05  0.0339
   9.8134E-02   1.0052E-01   7.0144E-05  0.0345
   1.0052E-01   1.0297E-01   7.6076E-05  0.0327
   1.0297E-01   1.0547E-01   7.1228E-05  0.0334
   1.0547E-01   1.0804E-01   6.6784E-05  0.0340
   1.0804E-01   1.1067E-01   6.6070E-05  0.0339
   1.1067E-01   1.1336E-01   6.2794E-05  0.0343
   1.1336E-01   1.1612E-01   6.6308E-05  0.0330
   1.1612E-01   1.1894E-01   5.9438E-05  0.0344
   1.1894E-01   1.2184E-01   6.2360E-05  0.0332
   1.2184E-01   1.2480E-01   5.7891E-05  0.0341
   1.2480E-01   1.2784E-01   5.7036E-05  0.0339
   1.2784E-01   1.3095E-01   5.3922E-05  0.0344
   1.3095E-01   1.3414E-01   5.7449E-05  0.0330
   1.3414E-01   1.3740E-01   5.5776E-05  0.0331
   1.3740E-01   1.4074E-01   5.3365E-05  0.0334
   1.4074E-01   1.4417E-01   5.3542E-05  0.0329
   1.4417E-01   1.4767E-01   4.9975E-05  0.0337
   1.4767E-01   1.5127E-01   4.8707E-05  0.0337
   1.5127E-01   1.5495E-01   4.9440E-05  0.0331
   1.5495E-01   1.5872E-01   4.9185E-05  0.0327
   1.5872E-01   1.6258E-01   4.7251E-05  0.0330
   1.6258E-01   1.6654E-01   4.4820E-05  0.0335
   1.6654E-01   1.7059E-01   4.2371E-05  0.0340
   1.7059E-01   1.7474E-01   4.4459E-05  0.0328
   1.7474E-01   1.7899E-01   4.2767E-05  0.0331
   1.7899E-01   1.8334E-01   4.2731E-05  0.0327
   1.8334E-01   1.8781E-01   4.1719E-05  0.0327
   1.8781E-01   1.9237E-01   4.0062E-05  0.0330
   1.9237E-01   1.9706E-01   3.7831E-05  0.0335
   1.9706E-01   2.0185E-01   3.9052E-05  0.0326
   2.0185E-01   2.0676E-01   4.0699E-05  0.0316
   2.0676E-01   2.1179E-01   4.1447E-05  0.0309
   2.1179E-01   2.1694E-01   3.9937E-05  0.0311
   2.1694E-01   2.2222E-01   4.1198E-05  0.0302
   2.2222E-01   2.2763E-01   4.7201E-05  0.0279
   2.2763E-01   2.3317E-01   4.4443E-05  0.0284
   2.3317E-01   2.3884E-01   4.6722E-05  0.0274
   2.3884E-01   2.4465E-01   4.8326E-05  0.0266
   2.4465E-01   2.5061E-01   4.6708E-05  0.0267
   2.5061E-01   2.5670E-01   4.8928E-05  0.0258
   2.5670E-01   2.6295E-01   5.2066E-05  0.0247
   2.6295E-01   2.6935E-01   5.2115E-05  0.0244
   2.6935E-01   2.7590E-01   5.2812E-05  0.0240
   2.7590E-01   2.8261E-01   5.4290E-05  0.0233
   2.8261E-01   2.8949E-01   5.1544E-05  0.0237
   2.8949E-01   2.9653E-01   5.5857E-05  0.0225
   2.9653E-01   3.0375E-01   5.6721E-05  0.0220
   3.0375E-01   3.1114E-01   5.8204E-05  0.0215
   3.1114E-01   3.1871E-01   6.0045E-05  0.0209
   3.1871E-01   3.2646E-01   6.0354E-05  0.0206
   3.2646E-01   3.3441E-01   6.2228E-05  0.0201
   3.3441E-01   3.4254E-01   6.1607E-05  0.0199
   3.4254E-01   3.5088E-01   6.2766E-05  0.0195
   3.5088E-01   3.5941E-01   6.4546E-05  0.0190
   3.5941E-01   3.6816E-01   6.4285E-05  0.0188
   3.6816E-01   3.7712E-01   6.4874E-05  0.0185
   3.7712E-01   3.8629E-01   6.5220E-05  0.0182
   3.8629E-01   3.9569E-01   6.8538E-05  0.0176
   3.9569E-01   4.0532E-01   6.7998E-05  0.0174
   4.0532E-01   4.1518E-01   6.8073E-05  0.0172
   4.1518E-01   4.2528E-01   6.8909E-05  0.0169
   4.2528E-01   4.3563E-01   7.0613E-05  0.0165
   4.3563E-01   4.4623E-01   7.0370E-05  0.0163
   4.4623E-01   4.5708E-01   7.0784E-05  0.0161
   4.5708E-01   4.6821E-01   7.0535E-05  0.0159
   4.6821E-01   4.7960E-01   7.0628E-05  0.0157
   4.7960E-01   4.9127E-01   7.0979E-05  0.0155
   4.9127E-01   5.0322E-01   7.1617E-05  0.0152
   5.0322E-01   5.1546E-01   7.3500E-05  0.0149
   5.1546E-01   5.2800E-01   7.1953E-05  0.0148
   5.2800E-01   5.4085E-01   7.4420E-05  0.0144
   5.4085E-01   5.5401E-01   7.5993E-05  0.0141
   5.5401E-01   5.6749E-01   7.2853E-05  0.0142
   5.6749E-01   5.8130E-01   7.2982E-05  0.0140
   5.8130E-01   5.9544E-01   7.2280E-05  0.0139
   5.9544E-01   6.0993E-01   7.2703E-05  0.0137
   6.0993E-01   6.2477E-01   7.3904E-05  0.0135
   6.2477E-01   6.3997E-01   7.0616E-05  0.0136
   6.3997E-01   6.5554E-01   7.2287E-05  0.0133
   6.5554E-01   6.7149E-01   7.1944E-05  0.0131
   6.7149E-01   6.8783E-01   7.0777E-05  0.0131
   6.8783E-01   7.0456E-01   7.1942E-05  0.0128
   7.0456E-01   7.2171E-01   7.0448E-05  0.0128
   7.2171E-01   7.3927E-01   6.7620E-05  0.0129
   7.3927E-01   7.5725E-01   6.8658E-05  0.0127
   7.5725E-01   7.7568E-01   6.6893E-05  0.0127
   7.7568E-01   7.9455E-01   6.4719E-05  0.0127
   7.9455E-01   8.1388E-01   6.5833E-05  0.0125
   8.1388E-01   8.3368E-01   6.2615E-05  0.0127
   8.3368E-01   8.5397E-01   6.1218E-05  0.0126
   8.5397E-01   8.7475E-01   5.9287E-05  0.0127
   8.7475E-01   8.9603E-01   5.8989E-05  0.0126
   8.9603E-01   9.1783E-01   5.6759E-05  0.0127
   9.1783E-01   9.4016E-01   5.5126E-05  0.0127
   9.4016E-01   9.6304E-01   5.3736E-05  0.0127
   9.6304E-01   9.8647E-01   5.1253E-05  0.0128
   9.8647E-01   1.0105E+00   4.9441E-05  0.0129
   1.0105E+00   1.0351E+00   4.8031E-05  0.0129
   1.0351E+00   1.0602E+00   4.8527E-05  0.0127
   1.0602E+00   1.0860E+00   4.8074E-05  0.0126
   1.0860E+00   1.1125E+00   4.7390E-05  0.0126
   1.1125E+00   1.1395E+00   4.7053E-05  0.0125
   1.1395E+00   1.1673E+00   4.7684E-05  0.0122
   1.1673E+00   1.1957E+00   4.7100E-05  0.0122
   1.1957E+00   1.2247E+00   4.8108E-05  0.0119
   1.2247E+00   1.2545E+00   4.6687E-05  0.0119
   1.2545E+00   1.2851E+00   4.6748E-05  0.0118
   1.2851E+00   1.3163E+00   4.5833E-05  0.0117
   1.3163E+00   1.3484E+00   4.5518E-05  0.0116
   1.3484E+00   1.3812E+00   4.5073E-05  0.0116
   1.3812E+00   1.4148E+00   4.4254E-05  0.0115
   1.4148E+00   1.4492E+00   4.3045E-05  0.0115
   1.4492E+00   1.4845E+00   4.4139E-05  0.0113
   1.4845E+00   1.5206E+00   4.1094E-05  0.0115
   1.5206E+00   1.5576E+00   4.1100E-05  0.0114
   1.5576E+00   1.5955E+00   3.9887E-05  0.0114
   1.5955E+00   1.6343E+00   3.8996E-05  0.0114
   1.6343E+00   1.6741E+00   3.8271E-05  0.0114
   1.6741E+00   1.7148E+00   3.8769E-05  0.0112
   1.7148E+00   1.7565E+00   3.7268E-05  0.0113
   1.7565E+00   1.7992E+00   3.6309E-05  0.0113
   1.7992E+00   1.8430E+00   3.5746E-05  0.0112
   1.8430E+00   1.8879E+00   3.4660E-05  0.0113
   1.8879E+00   1.9338E+00   3.3393E-05  0.0113
   1.9338E+00   1.9808E+00   3.4109E-05  0.0111
   1.9808E+00   2.0290E+00   3.2257E-05  0.0113
   2.0290E+00   2.0784E+00   3.1439E-05  0.0113
   2.0784E+00   2.1290E+00   3.1000E-05  0.0112
   2.1290E+00   2.1808E+00   3.0103E-05  0.0112
   2.1808E+00   2.2338E+00   2.9258E-05  0.0113
   2.2338E+00   2.2882E+00   2.8427E-05  0.0113
   2.2882E+00   2.3439E+00   2.7343E-05  0.0114
   2.3439E+00   2.4009E+00   2.7357E-05  0.0112
   2.4009E+00   2.4593E+00   2.6423E-05  0.0113
   2.4593E+00   2.5191E+00   2.5760E-05  0.0113
   2.5191E+00   2.5804E+00   2.4431E-05  0.0115
   2.5804E+00   2.6432E+00   2.4194E-05  0.0114
   2.6432E+00   2.7075E+00   2.3592E-05  0.0114
   2.7075E+00   2.7734E+00   2.3407E-05  0.0113
   2.7734E+00   2.8409E+00   2.2509E-05  0.0114
   2.8409E+00   2.9100E+00   2.1537E-05  0.0115
   2.9100E+00   2.9808E+00   2.0741E-05  0.0116
   2.9808E+00   3.0533E+00   2.0969E-05  0.0114
   3.0533E+00   3.1276E+00   1.9490E-05  0.0117
   3.1276E+00   3.2037E+00   1.9387E-05  0.0116
   3.2037E+00   3.2817E+00   1.8640E-05  0.0116
   3.2817E+00   3.3615E+00   1.8120E-05  0.0117
   3.3615E+00   3.4433E+00   1.7520E-05  0.0117
   3.4433E+00   3.5271E+00   1.6979E-05  0.0118
   3.5271E+00   3.6129E+00   1.6724E-05  0.0117
   3.6129E+00   3.7008E+00   1.6203E-05  0.0118
   3.7008E+00   3.7908E+00   1.5537E-05  0.0119
   3.7908E+00   3.8831E+00   1.5339E-05  0.0118
   3.8831E+00   3.9776E+00   1.4843E-05  0.0118
   3.9776E+00   4.0743E+00   1.4632E-05  0.0118
   4.0743E+00   4.1735E+00   1.4286E-05  0.0118
   4.1735E+00   4.2750E+00   1.3490E-05  0.0120
   4.2750E+00   4.3790E+00   1.3158E-05  0.0120
   4.3790E+00   4.4856E+00   1.2461E-05  0.0122
   4.4856E+00   4.5947E+00   1.1822E-05  0.0124
   4.5947E+00   4.7065E+00   1.1313E-05  0.0125
   4.7065E+00   4.8210E+00   1.0798E-05  0.0126
   4.8210E+00   4.9383E+00   1.0668E-05  0.0126
   4.9383E+00   5.0585E+00   9.6415E-06  0.0131
   5.0585E+00   5.1815E+00   9.5276E-06  0.0130
   5.1815E+00   5.3076E+00   8.8220E-06  0.0133
   5.3076E+00   5.4368E+00   8.7432E-06  0.0132
   5.4368E+00   5.5690E+00   8.1944E-06  0.0135
   5.5690E+00   5.7045E+00   7.8531E-06  0.0136
   5.7045E+00   5.8433E+00   7.4419E-06  0.0138
   5.8433E+00   5.9855E+00   7.1384E-06  0.0140
   5.9855E+00   6.1311E+00   6.6967E-06  0.0142
   6.1311E+00   6.2803E+00   6.3668E-06  0.0144
   6.2803E+00   6.4331E+00   5.9308E-06  0.0148
   6.4331E+00   6.5896E+00   5.6603E-06  0.0150
   6.5896E+00   6.7500E+00   5.1679E-06  0.0155
   6.7500E+00   6.9142E+00   5.0454E-06  0.0155
   6.9142E+00   7.0824E+00   4.7565E-06  0.0157
   7.0824E+00   7.2548E+00   4.4502E-06  0.0161
   7.2548E+00   7.4313E+00   4.1482E-06  0.0165
   7.4313E+00   7.6121E+00   3.8980E-06  0.0168
   7.6121E+00   7.7973E+00   3.6373E-06  0.0172
   7.7973E+00   7.9870E+00   3.4526E-06  0.0174
   7.9870E+00   8.1813E+00   3.3144E-06  0.0176
   8.1813E+00   8.3804E+00   3.0389E-06  0.0181
   8.3804E+00   8.5843E+00   2.8195E-06  0.0186
   8.5843E+00   8.7931E+00   2.7194E-06  0.0187
   8.7931E+00   9.0071E+00   2.5054E-06  0.0193
   9.0071E+00   9.2262E+00   2.3965E-06  0.0195
   9.2262E+00   9.4507E+00   2.1678E-06  0.0202
   9.4507E+00   9.6807E+00   1.9996E-06  0.0208
   9.6807E+00   9.9162E+00   1.9491E-06  0.0208
   9.9162E+00   1.0157E+01   1.8283E-06  0.0212
   1.0157E+01   1.0405E+01   1.8491E-06  0.0209
   1.0405E+01   1.0658E+01   1.9619E-06  0.0200
   1.0658E+01   1.0917E+01   1.9789E-06  0.0197
   1.0917E+01   1.1183E+01   1.9426E-06  0.0196
   1.1183E+01   1.1455E+01   1.8071E-06  0.0201
   1.1455E+01   1.1733E+01   1.7090E-06  0.0204
   1.1733E+01   1.2019E+01   1.5619E-06  0.0211
   1.2019E+01   1.2311E+01   1.4497E-06  0.0217
   1.2311E+01   1.2611E+01   1.3168E-06  0.0225
   1.2611E+01   1.2918E+01   1.2081E-06  0.0232
   1.2918E+01   1.3232E+01   1.1352E-06  0.0236
   1.3232E+01   1.3554E+01   1.0682E-06  0.0241
   1.3554E+01   1.3884E+01   9.9002E-07  0.0247
   1.3884E+01   1.4222E+01   9.1662E-07  0.0254
   1.4222E+01   1.4568E+01   7.9023E-07  0.0270
   1.4568E+01   1.4922E+01   7.2271E-07  0.0279
   1.4922E+01   1.5285E+01   6.9758E-07  0.0281
   1.5285E+01   1.5657E+01   6.0756E-07  0.0297
   1.5657E+01   1.6038E+01   5.5315E-07  0.0308
   1.6038E+01   1.6428E+01   4.9102E-07  0.0323
   1.6428E+01   1.6828E+01   4.7258E-07  0.0325
   1.6828E+01   1.7237E+01   4.1824E-07  0.0341
   1.7237E+01   1.7657E+01   3.8683E-07  0.0351
   1.7657E+01   1.8086E+01   3.1162E-07  0.0386
   1.8086E+01   1.8526E+01   2.9419E-07  0.0393
   1.8526E+01   1.8977E+01   3.0098E-07  0.0384
   1.8977E+01   1.9439E+01   2.6098E-07  0.0407
   1.9439E+01   1.9912E+01   2.5414E-07  0.0408
   1.9912E+01   2.0396E+01   1.9134E-07  0.0464
   2.0396E+01   2.0893E+01   1.7813E-07  0.0476
   2.0893E+01   2.1401E+01   1.5974E-07  0.0496
   2.1401E+01   2.1922E+01   1.4941E-07  0.0507
   2.1922E+01   2.2455E+01   1.2412E-07  0.0550
   2.2455E+01   2.3001E+01   1.1092E-07  0.0574
   2.3001E+01   2.3561E+01   9.5776E-08  0.0611
   2.3561E+01   2.4134E+01   9.2454E-08  0.0614
   2.4134E+01   2.4721E+01   7.6975E-08  0.0665
   2.4721E+01   2.5323E+01   6.8829E-08  0.0695
   2.5323E+01   2.5939E+01   5.8754E-08  0.0743
   2.5939E+01   2.6570E+01   4.5633E-08  0.0833
   2.6570E+01   2.7217E+01   3.5578E-08  0.0933
   2.7217E+01   2.7879E+01   2.7182E-08  0.1054
   2.7879E+01   2.8557E+01   2.8305E-08  0.1021
   2.8557E+01   2.9252E+01   2.4179E-08  0.1091
   2.9252E+01   2.9964E+01   2.1919E-08  0.1132
   2.9964E+01   3.0693E+01   1.6460E-08  0.1291
   3.0693E+01   3.1440E+01   1.2855E-08  0.1443
   3.1440E+01   3.2205E+01   1.3857E-08  0.1374
   3.2205E+01   3.2988E+01   8.6783E-09  0.1715
   3.2988E+01   3.3791E+01   6.9771E-09  0.1890
   3.3791E+01   3.4613E+01   8.0277E-09  0.1741
   3.4613E+01   3.5455E+01   4.5122E-09  0.2294
   3.5455E+01   3.6318E+01   4.1732E-09  0.2357
   3.6318E+01   3.7201E+01   1.5844E-09  0.3780
   3.7201E+01   3.8106E+01   2.8725E-09  0.2774
   3.8106E+01   3.9034E+01   2.3728E-09  0.3015
   3.9034E+01   3.9983E+01   1.0529E-09  0.4472
   3.9983E+01   4.0956E+01   2.2615E-09  0.3015
   4.0956E+01   4.1953E+01   1.2042E-09  0.4082
   4.1953E+01   4.2973E+01   1.1756E-09  0.4082
   4.2973E+01   4.4019E+01   9.5641E-10  0.4472
   4.4019E+01   4.5090E+01   1.1204E-09  0.4082
   4.5090E+01   4.6187E+01   3.6461E-10  0.7071
   4.6187E+01   4.7311E+01   3.5595E-10  0.7071
   4.7311E+01   4.8462E+01   3.4749E-10  0.7071
   4.8462E+01   4.9641E+01   0.0000E+00  0.0000
   4.9641E+01   5.0849E+01   4.9677E-10  0.5774
   5.0849E+01   5.2086E+01   0.0000E+00  0.0000
   5.2086E+01   5.3353E+01   1.5782E-10  1.0000
   5.3353E+01   5.4651E+01   0.0000E+00  0.0000
   5.4651E+01   5.5981E+01   0.0000E+00  0.0000
   5.5981E+01   5.7343E+01   0.0000E+00  0.0000
   5.7343E+01   5.8738E+01   0.0000E+00  0.0000
   5.8738E+01   6.0168E+01   1.3994E-10  1.0000
   6.0168E+01   6.1632E+01   0.0000E+00  0.0000
   6.1632E+01   6.3131E+01   1.3337E-10  1.0000
   6.3131E+01   6.4667E+01   0.0000E+00  0.0000
   6.4667E+01   6.6240E+01   0.0000E+00  0.0000
   6.6240E+01   6.7852E+01   0.0000E+00  0.0000
   6.7852E+01   6.9503E+01   0.0000E+00  0.0000
   6.9503E+01   7.1194E+01   0.0000E+00  0.0000
   7.1194E+01   7.2926E+01   0.0000E+00  0.0000
   7.2926E+01   7.4701E+01   0.0000E+00  0.0000
   7.4701E+01   7.6518E+01   0.0000E+00  0.0000
   7.6518E+01   7.8380E+01   0.0000E+00  0.0000
   7.8380E+01   8.0287E+01   0.0000E+00  0.0000
   8.0287E+01   8.2240E+01   0.0000E+00  0.0000
   8.2240E+01   8.4241E+01   0.0000E+00  0.0000
   8.4241E+01   8.6291E+01   0.0000E+00  0.0000
   8.6291E+01   8.8391E+01   0.0000E+00  0.0000
   8.8391E+01   9.0541E+01   0.0000E+00  0.0000
   9.0541E+01   9.2744E+01   0.0000E+00  0.0000
   9.2744E+01   9.5001E+01   0.0000E+00  0.0000
   9.5001E+01   9.7312E+01   0.0000E+00  0.0000
   9.7312E+01   9.9680E+01   0.0000E+00  0.0000
   9.9680E+01   1.0211E+02   0.0000E+00  0.0000
   1.0211E+02   1.0459E+02   0.0000E+00  0.0000
   1.0459E+02   1.0713E+02   0.0000E+00  0.0000
   1.0713E+02   1.0974E+02   0.0000E+00  0.0000
   1.0974E+02   1.1241E+02   0.0000E+00  0.0000
   1.1241E+02   1.1515E+02   0.0000E+00  0.0000
   1.1515E+02   1.1795E+02   0.0000E+00  0.0000
   1.1795E+02   1.2082E+02   0.0000E+00  0.0000
   1.2082E+02   1.2376E+02   0.0000E+00  0.0000
   1.2376E+02   1.2677E+02   0.0000E+00  0.0000
   1.2677E+02   1.2985E+02   0.0000E+00  0.0000
   1.2985E+02   1.3301E+02   0.0000E+00  0.0000
   1.3301E+02   1.3625E+02   0.0000E+00  0.0000
   1.3625E+02   1.3956E+02   0.0000E+00  0.0000
   1.3956E+02   1.4296E+02   0.0000E+00  0.0000
   1.4296E+02   1.4644E+02   0.0000E+00  0.0000
   1.4644E+02   1.5000E+02   0.0000E+00  0.0000

#   sum over                 1.3337E-06
'no. =    1   reg = 126 - 226'
msuc: {\huge [t-cross] in region mesh}
msdr: {\it plotted by \ANGEL \version}
msdl: {\it calculated by \PHITS  3.28}
wt: s(0.7)
\vspace{-3}
  region surface crossing
  area  &=&   1.0000E+00 [cm^2]
e:
 
# Information for Restart Calculation
# This calculation was newly started
# istdev =  2 # 1:Batch variance, 2:History variance
# resc2  = 5.00000000000000000E+09 # Total source weight or Total source weight / maxcas
# resc3  = 5.00000000000000000E+09 # Total history number or Total batch number
# maxcas =   500000000 # History / Batch, only used for istdev=1
# bitrseed = 0110100000100010111000001110001111001110100100011111101000111001 # bit data of rseed
