7 <--- number of remaining batches 

-------------------------------------------------------------------------------
bat[       3] ncas =     1500000000.
 bitrseed = 0001001110011001001001110000100100110111001111011100001000101100
          cpu time =   3 h.  7 m. 24.41 s.

 date = 2022-06-05
 time = 09h 01m 52s

