[ T-Cross ]
    title = [t-cross] in region mesh
     mesh =  reg            # mesh type is region-wise
      reg =    1            # number of crossing regions
      non     r-from    r-to       area
      1       111       211        1.000000    
   e-type =    3            # e-mesh is log given by emin, emax and ne
     emin =  1.0000000E-02  # minimum value of e-mesh points
     emax =   150.0000      # maximum value of e-mesh points
#    edel =  2.4039514E-02  # mesh width of e-mesh points
       ne =    400          # number of e-mesh points
#    data = ( e(i), i = 1, ne + 1 )
#           1.00000E-02  1.02433E-02  1.04925E-02  1.07478E-02  1.10093E-02
#           1.12772E-02  1.15516E-02  1.18326E-02  1.21205E-02  1.24154E-02
#           1.27175E-02  1.30269E-02  1.33439E-02  1.36686E-02  1.40011E-02
#           1.43418E-02  1.46907E-02  1.50482E-02  1.54143E-02  1.57894E-02
#           1.61735E-02  1.65670E-02  1.69701E-02  1.73830E-02  1.78060E-02
#           1.82392E-02  1.86830E-02  1.91375E-02  1.96032E-02  2.00801E-02
#           2.05687E-02  2.10692E-02  2.15818E-02  2.21069E-02  2.26448E-02
#           2.31957E-02  2.37601E-02  2.43382E-02  2.49304E-02  2.55369E-02
#           2.61583E-02  2.67947E-02  2.74467E-02  2.81145E-02  2.87985E-02
#           2.94992E-02  3.02169E-02  3.09521E-02  3.17052E-02  3.24766E-02
#           3.32668E-02  3.40762E-02  3.49053E-02  3.57546E-02  3.66246E-02
#           3.75157E-02  3.84284E-02  3.93634E-02  4.03212E-02  4.13022E-02
#           4.23071E-02  4.33365E-02  4.43909E-02  4.54710E-02  4.65773E-02
#           4.77106E-02  4.88714E-02  5.00605E-02  5.12785E-02  5.25262E-02
#           5.38042E-02  5.51133E-02  5.64542E-02  5.78278E-02  5.92348E-02
#           6.06760E-02  6.21523E-02  6.36645E-02  6.52135E-02  6.68002E-02
#           6.84255E-02  7.00904E-02  7.17957E-02  7.35426E-02  7.53319E-02
#           7.71648E-02  7.90423E-02  8.09655E-02  8.29354E-02  8.49533E-02
#           8.70203E-02  8.91376E-02  9.13064E-02  9.35279E-02  9.58035E-02
#           9.81345E-02  1.00522E-01  1.02968E-01  1.05473E-01  1.08040E-01
#           1.10668E-01  1.13361E-01  1.16119E-01  1.18944E-01  1.21838E-01
#           1.24803E-01  1.27839E-01  1.30950E-01  1.34136E-01  1.37399E-01
#           1.40742E-01  1.44167E-01  1.47675E-01  1.51268E-01  1.54948E-01
#           1.58718E-01  1.62580E-01  1.66535E-01  1.70587E-01  1.74738E-01
#           1.78989E-01  1.83344E-01  1.87805E-01  1.92375E-01  1.97055E-01
#           2.01850E-01  2.06761E-01  2.11792E-01  2.16945E-01  2.22223E-01
#           2.27630E-01  2.33169E-01  2.38842E-01  2.44653E-01  2.50605E-01
#           2.56703E-01  2.62949E-01  2.69346E-01  2.75900E-01  2.82613E-01
#           2.89489E-01  2.96532E-01  3.03747E-01  3.11138E-01  3.18708E-01
#           3.26462E-01  3.34405E-01  3.42542E-01  3.50876E-01  3.59413E-01
#           3.68158E-01  3.77116E-01  3.86291E-01  3.95690E-01  4.05317E-01
#           4.15179E-01  4.25281E-01  4.35628E-01  4.46227E-01  4.57084E-01
#           4.68205E-01  4.79597E-01  4.91266E-01  5.03219E-01  5.15463E-01
#           5.28005E-01  5.40851E-01  5.54011E-01  5.67490E-01  5.81298E-01
#           5.95441E-01  6.09929E-01  6.24769E-01  6.39970E-01  6.55541E-01
#           6.71491E-01  6.87828E-01  7.04564E-01  7.21706E-01  7.39266E-01
#           7.57253E-01  7.75678E-01  7.94551E-01  8.13883E-01  8.33685E-01
#           8.53969E-01  8.74747E-01  8.96030E-01  9.17831E-01  9.40163E-01
#           9.63038E-01  9.86469E-01  1.01047E+00  1.03506E+00  1.06024E+00
#           1.08604E+00  1.11246E+00  1.13953E+00  1.16725E+00  1.19565E+00
#           1.22474E+00  1.25454E+00  1.28507E+00  1.31633E+00  1.34836E+00
#           1.38117E+00  1.41477E+00  1.44920E+00  1.48446E+00  1.52057E+00
#           1.55757E+00  1.59547E+00  1.63429E+00  1.67405E+00  1.71478E+00
#           1.75650E+00  1.79924E+00  1.84302E+00  1.88786E+00  1.93379E+00
#           1.98084E+00  2.02904E+00  2.07841E+00  2.12898E+00  2.18078E+00
#           2.23384E+00  2.28819E+00  2.34386E+00  2.40089E+00  2.45930E+00
#           2.51914E+00  2.58043E+00  2.64322E+00  2.70753E+00  2.77341E+00
#           2.84088E+00  2.91001E+00  2.98081E+00  3.05333E+00  3.12762E+00
#           3.20372E+00  3.28167E+00  3.36152E+00  3.44330E+00  3.52708E+00
#           3.61290E+00  3.70080E+00  3.79085E+00  3.88308E+00  3.97756E+00
#           4.07434E+00  4.17347E+00  4.27501E+00  4.37903E+00  4.48557E+00
#           4.59471E+00  4.70650E+00  4.82102E+00  4.93832E+00  5.05847E+00
#           5.18155E+00  5.30762E+00  5.43676E+00  5.56904E+00  5.70453E+00
#           5.84333E+00  5.98550E+00  6.13114E+00  6.28031E+00  6.43312E+00
#           6.58964E+00  6.74997E+00  6.91420E+00  7.08243E+00  7.25475E+00
#           7.43126E+00  7.61207E+00  7.79728E+00  7.98700E+00  8.18133E+00
#           8.38038E+00  8.58428E+00  8.79315E+00  9.00709E+00  9.22624E+00
#           9.45072E+00  9.68067E+00  9.91620E+00  1.01575E+01  1.04046E+01
#           1.06578E+01  1.09171E+01  1.11827E+01  1.14548E+01  1.17335E+01
#           1.20190E+01  1.23114E+01  1.26109E+01  1.29178E+01  1.32321E+01
#           1.35540E+01  1.38838E+01  1.42216E+01  1.45676E+01  1.49221E+01
#           1.52851E+01  1.56570E+01  1.60380E+01  1.64282E+01  1.68279E+01
#           1.72374E+01  1.76568E+01  1.80864E+01  1.85264E+01  1.89772E+01
#           1.94389E+01  1.99119E+01  2.03963E+01  2.08926E+01  2.14009E+01
#           2.19216E+01  2.24550E+01  2.30014E+01  2.35610E+01  2.41343E+01
#           2.47215E+01  2.53230E+01  2.59391E+01  2.65702E+01  2.72167E+01
#           2.78789E+01  2.85572E+01  2.92520E+01  2.99637E+01  3.06928E+01
#           3.14396E+01  3.22045E+01  3.29881E+01  3.37907E+01  3.46128E+01
#           3.54550E+01  3.63177E+01  3.72013E+01  3.81064E+01  3.90336E+01
#           3.99833E+01  4.09561E+01  4.19526E+01  4.29734E+01  4.40189E+01
#           4.50900E+01  4.61870E+01  4.73108E+01  4.84619E+01  4.96410E+01
#           5.08488E+01  5.20860E+01  5.33533E+01  5.46514E+01  5.59812E+01
#           5.73432E+01  5.87384E+01  6.01676E+01  6.16315E+01  6.31311E+01
#           6.46671E+01  6.62405E+01  6.78522E+01  6.95031E+01  7.11941E+01
#           7.29263E+01  7.47007E+01  7.65182E+01  7.83800E+01  8.02870E+01
#           8.22405E+01  8.42414E+01  8.62911E+01  8.83906E+01  9.05412E+01
#           9.27442E+01  9.50007E+01  9.73122E+01  9.96799E+01  1.02105E+02
#           1.04589E+02  1.07134E+02  1.09741E+02  1.12411E+02  1.15146E+02
#           1.17948E+02  1.20817E+02  1.23757E+02  1.26768E+02  1.29852E+02
#           1.33012E+02  1.36248E+02  1.39563E+02  1.42959E+02  1.46437E+02
#           1.50000E+02
     unit =    2            # unit is [1/cm^2/(MeV/n)/source]
     axis =  eng            # axis of output
     file = detector-12.out  # file name of output for the above axis
   output = f-curr          # surface crossing forward current spectrum
     part =  neutron  
# kf/name :  2112     
#    used :        main (  %)        temp (  %)       total (  %)
#  memory :         414 (  0)           0 (  0)         414 (  0)

#------------------------------------------------------------------------------
#newpage:
#   no. =    1   reg = 111 - 211

x: Energy [MeV/n]
y:  F-Curr [1/cm^2/(MeV/n)/source]         
p: xlog ylog afac(0.8) form(0.9)
h: n            x            y(neutron ),hh0l   n 
#  e-lower      e-upper      neutron     r.err 
   1.0000E-02   1.0243E-02   4.2212E-05  0.1388
   1.0243E-02   1.0493E-02   4.5405E-05  0.1325
   1.0493E-02   1.0748E-02   3.6682E-05  0.1455
   1.0748E-02   1.1009E-02   3.0432E-05  0.1575
   1.1009E-02   1.1277E-02   2.9047E-05  0.1601
   1.1277E-02   1.1552E-02   3.3975E-05  0.1459
   1.1552E-02   1.1833E-02   2.5359E-05  0.1668
   1.1833E-02   1.2121E-02   2.2508E-05  0.1747
   1.2121E-02   1.2415E-02   2.3479E-05  0.1691
   1.2415E-02   1.2718E-02   3.1625E-05  0.1439
   1.2718E-02   1.3027E-02   2.8785E-05  0.1492
   1.3027E-02   1.3344E-02   2.1373E-05  0.1715
   1.3344E-02   1.3669E-02   2.6847E-05  0.1508
   1.3669E-02   1.4001E-02   2.3215E-05  0.1602
   1.4001E-02   1.4342E-02   2.7820E-05  0.1445
   1.4342E-02   1.4691E-02   2.6400E-05  0.1463
   1.4691E-02   1.5048E-02   2.0395E-05  0.1646
   1.5048E-02   1.5414E-02   2.0254E-05  0.1630
   1.5414E-02   1.5789E-02   2.4378E-05  0.1475
   1.5789E-02   1.6174E-02   2.4907E-05  0.1443
   1.6174E-02   1.6567E-02   2.2176E-05  0.1508
   1.6567E-02   1.6970E-02   1.5837E-05  0.1768
   1.6970E-02   1.7383E-02   2.5099E-05  0.1382
   1.7383E-02   1.7806E-02   2.1118E-05  0.1491
   1.7806E-02   1.8239E-02   1.9678E-05  0.1526
   1.8239E-02   1.8683E-02   1.8885E-05  0.1543
   1.8683E-02   1.9138E-02   1.9738E-05  0.1491
   1.9138E-02   1.9603E-02   1.7878E-05  0.1544
   1.9603E-02   2.0080E-02   1.7150E-05  0.1562
   2.0080E-02   2.0569E-02   1.8273E-05  0.1487
   2.0569E-02   2.1069E-02   1.7062E-05  0.1526
   2.1069E-02   2.1582E-02   1.6668E-05  0.1525
   2.1582E-02   2.2107E-02   1.6049E-05  0.1530
   2.2107E-02   2.2645E-02   1.5831E-05  0.1526
   2.2645E-02   2.3196E-02   1.4439E-05  0.1581
   2.3196E-02   2.3760E-02   1.7055E-05  0.1430
   2.3760E-02   2.4338E-02   1.7040E-05  0.1416
   2.4338E-02   2.4930E-02   1.9086E-05  0.1325
   2.4930E-02   2.5537E-02   1.3357E-05  0.1563
   2.5537E-02   2.6158E-02   1.3084E-05  0.1563
   2.6158E-02   2.6795E-02   1.3828E-05  0.1493
   2.6795E-02   2.7447E-02   1.6355E-05  0.1362
   2.7447E-02   2.8114E-02   1.1753E-05  0.1585
   2.8114E-02   2.8799E-02   1.3990E-05  0.1443
   2.8799E-02   2.9499E-02   1.5230E-05  0.1362
   2.9499E-02   3.0217E-02   1.1587E-05  0.1544
   3.0217E-02   3.0952E-02   1.2371E-05  0.1476
   3.0952E-02   3.1705E-02   1.4022E-05  0.1374
   3.1705E-02   3.2477E-02   1.6504E-05  0.1250
   3.2477E-02   3.3267E-02   1.3019E-05  0.1387
   3.3267E-02   3.4076E-02   9.6093E-06  0.1601
   3.4076E-02   3.4905E-02   9.5718E-06  0.1582
   3.4905E-02   3.5755E-02   1.1054E-05  0.1452
   3.5755E-02   3.6625E-02   1.1068E-05  0.1430
   3.6625E-02   3.7516E-02   1.5388E-05  0.1204
   3.7516E-02   3.8428E-02   1.0721E-05  0.1418
   3.8428E-02   3.9363E-02   9.0393E-06  0.1532
   3.9363E-02   4.0321E-02   1.1650E-05  0.1336
   4.0321E-02   4.1302E-02   8.8735E-06  0.1508
   4.1302E-02   4.2307E-02   7.6024E-06  0.1604
   4.2307E-02   4.3337E-02   1.1183E-05  0.1313
   4.3337E-02   4.4391E-02   8.7006E-06  0.1469
   4.4391E-02   4.5471E-02   8.6417E-06  0.1459
   4.5471E-02   4.6577E-02   8.7347E-06  0.1430
   4.6577E-02   4.7711E-02   8.4334E-06  0.1443
   4.7711E-02   4.8871E-02   9.1617E-06  0.1364
   4.8871E-02   5.0061E-02   1.0164E-05  0.1281
   5.0061E-02   5.1279E-02   6.9832E-06  0.1526
   5.1279E-02   5.2526E-02   6.4878E-06  0.1564
   5.2526E-02   5.3804E-02   9.0502E-06  0.1307
   5.3804E-02   5.5113E-02   6.8594E-06  0.1486
   5.5113E-02   5.6454E-02   8.8663E-06  0.1292
   5.6454E-02   5.7828E-02   7.6152E-06  0.1375
   5.7828E-02   5.9235E-02   5.7391E-06  0.1564
   5.9235E-02   6.0676E-02   7.0137E-06  0.1401
   6.0676E-02   6.2152E-02   6.5635E-06  0.1431
   6.2152E-02   6.3665E-02   6.2826E-06  0.1445
   6.3665E-02   6.5214E-02   7.0261E-06  0.1349
   6.5214E-02   6.6800E-02   7.5112E-06  0.1291
   6.6800E-02   6.8426E-02   8.5533E-06  0.1196
   6.8426E-02   7.0090E-02   6.0732E-06  0.1401
   7.0090E-02   7.1796E-02   6.8737E-06  0.1302
   7.1796E-02   7.3543E-02   6.8771E-06  0.1283
   7.3543E-02   7.5332E-02   6.2144E-06  0.1331
   7.5332E-02   7.7165E-02   6.6901E-06  0.1271
   7.7165E-02   7.9042E-02   6.2305E-06  0.1295
   7.9042E-02   8.0965E-02   5.3943E-06  0.1387
   8.0965E-02   8.2935E-02   6.5566E-06  0.1241
   8.2935E-02   8.4953E-02   4.4427E-06  0.1479
   8.4953E-02   8.7020E-02   5.7999E-06  0.1283
   8.7020E-02   8.9138E-02   7.0123E-06  0.1156
   8.9138E-02   9.1306E-02   6.8333E-06  0.1156
   9.1306E-02   9.3528E-02   4.1990E-06  0.1459
   9.3528E-02   9.5804E-02   6.4326E-06  0.1164
   9.5804E-02   9.8134E-02   4.8207E-06  0.1326
   9.8134E-02   1.0052E-01   5.8487E-06  0.1193
   1.0052E-01   1.0297E-01   5.8556E-06  0.1179
   1.0297E-01   1.0547E-01   5.4815E-06  0.1197
   1.0547E-01   1.0804E-01   5.3242E-06  0.1205
   1.0804E-01   1.1067E-01   4.8013E-06  0.1252
   1.1067E-01   1.1336E-01   6.4440E-06  0.1067
   1.1336E-01   1.1612E-01   5.4508E-06  0.1148
   1.1612E-01   1.1894E-01   7.4504E-06  0.0972
   1.1894E-01   1.2184E-01   5.9215E-06  0.1075
   1.2184E-01   1.2480E-01   6.6299E-06  0.1005
   1.2480E-01   1.2784E-01   7.9181E-06  0.0909
   1.2784E-01   1.3095E-01   8.3946E-06  0.0868
   1.3095E-01   1.3414E-01   8.2657E-06  0.0869
   1.3414E-01   1.3740E-01   9.0047E-06  0.0822
   1.3740E-01   1.4074E-01   1.0257E-05  0.0761
   1.4074E-01   1.4417E-01   8.0169E-06  0.0851
   1.4417E-01   1.4767E-01   1.1097E-05  0.0714
   1.4767E-01   1.5127E-01   1.0366E-05  0.0730
   1.5127E-01   1.5495E-01   1.0070E-05  0.0730
   1.5495E-01   1.5872E-01   1.0225E-05  0.0718
   1.5872E-01   1.6258E-01   1.1496E-05  0.0669
   1.6258E-01   1.6654E-01   1.2021E-05  0.0647
   1.6654E-01   1.7059E-01   1.2214E-05  0.0634
   1.7059E-01   1.7474E-01   1.2216E-05  0.0625
   1.7474E-01   1.7899E-01   1.4549E-05  0.0566
   1.7899E-01   1.8334E-01   1.2086E-05  0.0614
   1.8334E-01   1.8781E-01   1.5959E-05  0.0528
   1.8781E-01   1.9237E-01   1.5145E-05  0.0535
   1.9237E-01   1.9706E-01   1.5520E-05  0.0523
   1.9706E-01   2.0185E-01   1.7366E-05  0.0488
   2.0185E-01   2.0676E-01   1.6862E-05  0.0489
   2.0676E-01   2.1179E-01   1.6652E-05  0.0487
   2.1179E-01   2.1694E-01   1.6977E-05  0.0476
   2.1694E-01   2.2222E-01   1.8399E-05  0.0452
   2.2222E-01   2.2763E-01   2.0086E-05  0.0428
   2.2763E-01   2.3317E-01   1.9751E-05  0.0426
   2.3317E-01   2.3884E-01   1.9300E-05  0.0426
   2.3884E-01   2.4465E-01   2.0062E-05  0.0413
   2.4465E-01   2.5061E-01   2.1599E-05  0.0393
   2.5061E-01   2.5670E-01   2.1783E-05  0.0386
   2.5670E-01   2.6295E-01   2.2260E-05  0.0377
   2.6295E-01   2.6935E-01   2.3298E-05  0.0365
   2.6935E-01   2.7590E-01   2.5926E-05  0.0342
   2.7590E-01   2.8261E-01   2.6047E-05  0.0337
   2.8261E-01   2.8949E-01   2.8441E-05  0.0319
   2.8949E-01   2.9653E-01   2.7679E-05  0.0319
   2.9653E-01   3.0375E-01   2.8198E-05  0.0312
   3.0375E-01   3.1114E-01   2.7653E-05  0.0312
   3.1114E-01   3.1871E-01   3.0498E-05  0.0293
   3.1871E-01   3.2646E-01   2.9922E-05  0.0292
   3.2646E-01   3.3441E-01   3.1802E-05  0.0280
   3.3441E-01   3.4254E-01   3.1571E-05  0.0278
   3.4254E-01   3.5088E-01   3.3020E-05  0.0268
   3.5088E-01   3.5941E-01   3.4839E-05  0.0258
   3.5941E-01   3.6816E-01   3.4054E-05  0.0258
   3.6816E-01   3.7712E-01   3.4558E-05  0.0253
   3.7712E-01   3.8629E-01   3.6457E-05  0.0243
   3.8629E-01   3.9569E-01   3.7315E-05  0.0238
   3.9569E-01   4.0532E-01   3.9639E-05  0.0228
   4.0532E-01   4.1518E-01   4.0241E-05  0.0223
   4.1518E-01   4.2528E-01   3.9040E-05  0.0224
   4.2528E-01   4.3563E-01   3.9395E-05  0.0220
   4.3563E-01   4.4623E-01   3.9915E-05  0.0216
   4.4623E-01   4.5708E-01   4.2328E-05  0.0208
   4.5708E-01   4.6821E-01   4.3555E-05  0.0202
   4.6821E-01   4.7960E-01   4.5135E-05  0.0196
   4.7960E-01   4.9127E-01   4.4185E-05  0.0196
   4.9127E-01   5.0322E-01   4.4499E-05  0.0193
   5.0322E-01   5.1546E-01   4.5283E-05  0.0189
   5.1546E-01   5.2800E-01   4.6676E-05  0.0184
   5.2800E-01   5.4085E-01   4.5918E-05  0.0183
   5.4085E-01   5.5401E-01   4.7330E-05  0.0178
   5.5401E-01   5.6749E-01   4.6013E-05  0.0179
   5.6749E-01   5.8130E-01   4.6620E-05  0.0175
   5.8130E-01   5.9544E-01   4.8024E-05  0.0171
   5.9544E-01   6.0993E-01   4.8759E-05  0.0167
   6.0993E-01   6.2477E-01   4.8813E-05  0.0165
   6.2477E-01   6.3997E-01   4.9273E-05  0.0162
   6.3997E-01   6.5554E-01   4.9857E-05  0.0160
   6.5554E-01   6.7149E-01   4.8594E-05  0.0160
   6.7149E-01   6.8783E-01   4.8333E-05  0.0158
   6.8783E-01   7.0456E-01   5.1245E-05  0.0152
   7.0456E-01   7.2171E-01   4.9659E-05  0.0152
   7.2171E-01   7.3927E-01   4.8600E-05  0.0152
   7.3927E-01   7.5725E-01   4.9401E-05  0.0149
   7.5725E-01   7.7568E-01   4.7894E-05  0.0150
   7.7568E-01   7.9455E-01   4.7993E-05  0.0148
   7.9455E-01   8.1388E-01   4.7081E-05  0.0147
   8.1388E-01   8.3368E-01   4.6226E-05  0.0147
   8.3368E-01   8.5397E-01   4.4022E-05  0.0149
   8.5397E-01   8.7475E-01   4.4683E-05  0.0146
   8.7475E-01   8.9603E-01   4.3151E-05  0.0146
   8.9603E-01   9.1783E-01   4.0614E-05  0.0149
   9.1783E-01   9.4016E-01   4.0893E-05  0.0147
   9.4016E-01   9.6304E-01   3.9259E-05  0.0148
   9.6304E-01   9.8647E-01   3.8125E-05  0.0148
   9.8647E-01   1.0105E+00   3.7512E-05  0.0148
   1.0105E+00   1.0351E+00   3.9025E-05  0.0143
   1.0351E+00   1.0602E+00   3.8409E-05  0.0142
   1.0602E+00   1.0860E+00   4.0345E-05  0.0137
   1.0860E+00   1.1125E+00   4.1154E-05  0.0134
   1.1125E+00   1.1395E+00   4.1799E-05  0.0132
   1.1395E+00   1.1673E+00   4.4394E-05  0.0126
   1.1673E+00   1.1957E+00   4.6166E-05  0.0122
   1.1957E+00   1.2247E+00   4.8393E-05  0.0118
   1.2247E+00   1.2545E+00   4.8654E-05  0.0116
   1.2545E+00   1.2851E+00   5.0160E-05  0.0113
   1.2851E+00   1.3163E+00   5.0174E-05  0.0112
   1.3163E+00   1.3484E+00   5.2511E-05  0.0108
   1.3484E+00   1.3812E+00   5.3823E-05  0.0105
   1.3812E+00   1.4148E+00   5.4615E-05  0.0103
   1.4148E+00   1.4492E+00   5.5990E-05  0.0100
   1.4492E+00   1.4845E+00   5.6623E-05  0.0099
   1.4845E+00   1.5206E+00   5.6601E-05  0.0097
   1.5206E+00   1.5576E+00   5.7452E-05  0.0096
   1.5576E+00   1.5955E+00   5.8892E-05  0.0093
   1.5955E+00   1.6343E+00   5.8011E-05  0.0093
   1.6343E+00   1.6741E+00   5.8918E-05  0.0091
   1.6741E+00   1.7148E+00   5.9124E-05  0.0090
   1.7148E+00   1.7565E+00   5.8807E-05  0.0089
   1.7565E+00   1.7992E+00   5.5797E-05  0.0090
   1.7992E+00   1.8430E+00   5.3853E-05  0.0090
   1.8430E+00   1.8879E+00   5.1401E-05  0.0091
   1.8879E+00   1.9338E+00   5.2402E-05  0.0089
   1.9338E+00   1.9808E+00   5.2930E-05  0.0087
   1.9808E+00   2.0290E+00   5.3353E-05  0.0086
   2.0290E+00   2.0784E+00   5.4817E-05  0.0083
   2.0784E+00   2.1290E+00   5.6211E-05  0.0081
   2.1290E+00   2.1808E+00   5.7697E-05  0.0079
   2.1808E+00   2.2338E+00   5.8126E-05  0.0078
   2.2338E+00   2.2882E+00   5.7574E-05  0.0077
   2.2882E+00   2.3439E+00   5.6281E-05  0.0078
   2.3439E+00   2.4009E+00   5.6505E-05  0.0077
   2.4009E+00   2.4593E+00   5.6854E-05  0.0076
   2.4593E+00   2.5191E+00   5.7400E-05  0.0074
   2.5191E+00   2.5804E+00   5.6210E-05  0.0074
   2.5804E+00   2.6432E+00   5.6540E-05  0.0073
   2.6432E+00   2.7075E+00   5.5991E-05  0.0073
   2.7075E+00   2.7734E+00   5.5659E-05  0.0072
   2.7734E+00   2.8409E+00   5.5072E-05  0.0071
   2.8409E+00   2.9100E+00   5.5081E-05  0.0071
   2.9100E+00   2.9808E+00   5.5290E-05  0.0070
   2.9808E+00   3.0533E+00   5.4973E-05  0.0069
   3.0533E+00   3.1276E+00   5.3512E-05  0.0069
   3.1276E+00   3.2037E+00   5.3280E-05  0.0069
   3.2037E+00   3.2817E+00   5.2886E-05  0.0068
   3.2817E+00   3.3615E+00   5.1950E-05  0.0068
   3.3615E+00   3.4433E+00   5.1775E-05  0.0067
   3.4433E+00   3.5271E+00   5.1167E-05  0.0067
   3.5271E+00   3.6129E+00   5.0269E-05  0.0067
   3.6129E+00   3.7008E+00   5.0336E-05  0.0066
   3.7008E+00   3.7908E+00   4.8840E-05  0.0066
   3.7908E+00   3.8831E+00   4.7900E-05  0.0066
   3.8831E+00   3.9776E+00   4.7138E-05  0.0066
   3.9776E+00   4.0743E+00   4.6501E-05  0.0066
   4.0743E+00   4.1735E+00   4.5052E-05  0.0066
   4.1735E+00   4.2750E+00   4.3822E-05  0.0066
   4.2750E+00   4.3790E+00   4.2427E-05  0.0066
   4.3790E+00   4.4856E+00   4.0952E-05  0.0066
   4.4856E+00   4.5947E+00   3.9540E-05  0.0067
   4.5947E+00   4.7065E+00   3.8522E-05  0.0067
   4.7065E+00   4.8210E+00   3.7335E-05  0.0067
   4.8210E+00   4.9383E+00   3.6649E-05  0.0067
   4.9383E+00   5.0585E+00   3.5483E-05  0.0067
   5.0585E+00   5.1815E+00   3.4289E-05  0.0068
   5.1815E+00   5.3076E+00   3.3073E-05  0.0068
   5.3076E+00   5.4368E+00   3.2381E-05  0.0068
   5.4368E+00   5.5690E+00   3.1081E-05  0.0068
   5.5690E+00   5.7045E+00   3.0210E-05  0.0069
   5.7045E+00   5.8433E+00   2.9292E-05  0.0069
   5.8433E+00   5.9855E+00   2.8199E-05  0.0069
   5.9855E+00   6.1311E+00   2.7612E-05  0.0069
   6.1311E+00   6.2803E+00   2.6739E-05  0.0070
   6.2803E+00   6.4331E+00   2.5789E-05  0.0070
   6.4331E+00   6.5896E+00   2.4413E-05  0.0071
   6.5896E+00   6.7500E+00   2.3635E-05  0.0072
   6.7500E+00   6.9142E+00   2.2660E-05  0.0072
   6.9142E+00   7.0824E+00   2.1300E-05  0.0074
   7.0824E+00   7.2548E+00   2.0407E-05  0.0074
   7.2548E+00   7.4313E+00   1.9254E-05  0.0076
   7.4313E+00   7.6121E+00   1.8325E-05  0.0077
   7.6121E+00   7.7973E+00   1.7216E-05  0.0078
   7.7973E+00   7.9870E+00   1.6382E-05  0.0079
   7.9870E+00   8.1813E+00   1.5320E-05  0.0081
   8.1813E+00   8.3804E+00   1.3734E-05  0.0084
   8.3804E+00   8.5843E+00   1.2735E-05  0.0086
   8.5843E+00   8.7931E+00   1.1474E-05  0.0090
   8.7931E+00   9.0071E+00   1.0800E-05  0.0092
   9.0071E+00   9.2262E+00   9.8888E-06  0.0095
   9.2262E+00   9.4507E+00   9.1582E-06  0.0098
   9.4507E+00   9.6807E+00   8.5064E-06  0.0100
   9.6807E+00   9.9162E+00   8.1939E-06  0.0101
   9.9162E+00   1.0157E+01   7.8455E-06  0.0102
   1.0157E+01   1.0405E+01   7.3945E-06  0.0104
   1.0405E+01   1.0658E+01   6.9866E-06  0.0106
   1.0658E+01   1.0917E+01   6.3234E-06  0.0110
   1.0917E+01   1.1183E+01   5.8315E-06  0.0113
   1.1183E+01   1.1455E+01   5.4176E-06  0.0116
   1.1455E+01   1.1733E+01   4.8873E-06  0.0121
   1.1733E+01   1.2019E+01   4.7475E-06  0.0121
   1.2019E+01   1.2311E+01   4.4265E-06  0.0124
   1.2311E+01   1.2611E+01   4.0305E-06  0.0128
   1.2611E+01   1.2918E+01   3.6550E-06  0.0133
   1.2918E+01   1.3232E+01   3.4311E-06  0.0136
   1.3232E+01   1.3554E+01   3.1288E-06  0.0141
   1.3554E+01   1.3884E+01   2.8859E-06  0.0145
   1.3884E+01   1.4222E+01   2.6294E-06  0.0150
   1.4222E+01   1.4568E+01   2.4347E-06  0.0154
   1.4568E+01   1.4922E+01   2.1304E-06  0.0162
   1.4922E+01   1.5285E+01   1.9355E-06  0.0168
   1.5285E+01   1.5657E+01   1.7564E-06  0.0175
   1.5657E+01   1.6038E+01   1.6286E-06  0.0179
   1.6038E+01   1.6428E+01   1.3729E-06  0.0193
   1.6428E+01   1.6828E+01   1.2055E-06  0.0203
   1.6828E+01   1.7237E+01   1.0634E-06  0.0214
   1.7237E+01   1.7657E+01   8.9810E-07  0.0230
   1.7657E+01   1.8086E+01   7.7810E-07  0.0244
   1.8086E+01   1.8526E+01   6.3414E-07  0.0267
   1.8526E+01   1.8977E+01   4.9519E-07  0.0299
   1.8977E+01   1.9439E+01   4.0652E-07  0.0326
   1.9439E+01   1.9912E+01   3.1757E-07  0.0365
   1.9912E+01   2.0396E+01   2.3902E-07  0.0416
   2.0396E+01   2.0893E+01   1.8136E-07  0.0471
   2.0893E+01   2.1401E+01   1.1095E-07  0.0595
   2.1401E+01   2.1922E+01   7.2594E-08  0.0727
   2.1922E+01   2.2455E+01   3.2623E-08  0.1072
   2.2455E+01   2.3001E+01   1.0616E-08  0.1857
   2.3001E+01   2.3561E+01   4.6458E-09  0.2774
   2.3561E+01   2.4134E+01   2.4422E-09  0.3780
   2.4134E+01   2.4721E+01   3.4060E-10  1.0000
   2.4721E+01   2.5323E+01   3.3251E-10  1.0000
   2.5323E+01   2.5939E+01   3.2461E-10  1.0000
   2.5939E+01   2.6570E+01   0.0000E+00  0.0000
   2.6570E+01   2.7217E+01   3.0937E-10  1.0000
   2.7217E+01   2.7879E+01   0.0000E+00  0.0000
   2.7879E+01   2.8557E+01   0.0000E+00  0.0000
   2.8557E+01   2.9252E+01   0.0000E+00  0.0000
   2.9252E+01   2.9964E+01   0.0000E+00  0.0000
   2.9964E+01   3.0693E+01   0.0000E+00  0.0000
   3.0693E+01   3.1440E+01   0.0000E+00  0.0000
   3.1440E+01   3.2205E+01   0.0000E+00  0.0000
   3.2205E+01   3.2988E+01   0.0000E+00  0.0000
   3.2988E+01   3.3791E+01   0.0000E+00  0.0000
   3.3791E+01   3.4613E+01   0.0000E+00  0.0000
   3.4613E+01   3.5455E+01   0.0000E+00  0.0000
   3.5455E+01   3.6318E+01   0.0000E+00  0.0000
   3.6318E+01   3.7201E+01   0.0000E+00  0.0000
   3.7201E+01   3.8106E+01   0.0000E+00  0.0000
   3.8106E+01   3.9034E+01   0.0000E+00  0.0000
   3.9034E+01   3.9983E+01   0.0000E+00  0.0000
   3.9983E+01   4.0956E+01   0.0000E+00  0.0000
   4.0956E+01   4.1953E+01   0.0000E+00  0.0000
   4.1953E+01   4.2973E+01   0.0000E+00  0.0000
   4.2973E+01   4.4019E+01   0.0000E+00  0.0000
   4.4019E+01   4.5090E+01   0.0000E+00  0.0000
   4.5090E+01   4.6187E+01   0.0000E+00  0.0000
   4.6187E+01   4.7311E+01   0.0000E+00  0.0000
   4.7311E+01   4.8462E+01   0.0000E+00  0.0000
   4.8462E+01   4.9641E+01   0.0000E+00  0.0000
   4.9641E+01   5.0849E+01   0.0000E+00  0.0000
   5.0849E+01   5.2086E+01   0.0000E+00  0.0000
   5.2086E+01   5.3353E+01   0.0000E+00  0.0000
   5.3353E+01   5.4651E+01   0.0000E+00  0.0000
   5.4651E+01   5.5981E+01   0.0000E+00  0.0000
   5.5981E+01   5.7343E+01   0.0000E+00  0.0000
   5.7343E+01   5.8738E+01   0.0000E+00  0.0000
   5.8738E+01   6.0168E+01   0.0000E+00  0.0000
   6.0168E+01   6.1632E+01   0.0000E+00  0.0000
   6.1632E+01   6.3131E+01   0.0000E+00  0.0000
   6.3131E+01   6.4667E+01   0.0000E+00  0.0000
   6.4667E+01   6.6240E+01   0.0000E+00  0.0000
   6.6240E+01   6.7852E+01   0.0000E+00  0.0000
   6.7852E+01   6.9503E+01   0.0000E+00  0.0000
   6.9503E+01   7.1194E+01   0.0000E+00  0.0000
   7.1194E+01   7.2926E+01   0.0000E+00  0.0000
   7.2926E+01   7.4701E+01   0.0000E+00  0.0000
   7.4701E+01   7.6518E+01   0.0000E+00  0.0000
   7.6518E+01   7.8380E+01   0.0000E+00  0.0000
   7.8380E+01   8.0287E+01   0.0000E+00  0.0000
   8.0287E+01   8.2240E+01   0.0000E+00  0.0000
   8.2240E+01   8.4241E+01   0.0000E+00  0.0000
   8.4241E+01   8.6291E+01   0.0000E+00  0.0000
   8.6291E+01   8.8391E+01   0.0000E+00  0.0000
   8.8391E+01   9.0541E+01   0.0000E+00  0.0000
   9.0541E+01   9.2744E+01   0.0000E+00  0.0000
   9.2744E+01   9.5001E+01   0.0000E+00  0.0000
   9.5001E+01   9.7312E+01   0.0000E+00  0.0000
   9.7312E+01   9.9680E+01   0.0000E+00  0.0000
   9.9680E+01   1.0211E+02   0.0000E+00  0.0000
   1.0211E+02   1.0459E+02   0.0000E+00  0.0000
   1.0459E+02   1.0713E+02   0.0000E+00  0.0000
   1.0713E+02   1.0974E+02   0.0000E+00  0.0000
   1.0974E+02   1.1241E+02   0.0000E+00  0.0000
   1.1241E+02   1.1515E+02   0.0000E+00  0.0000
   1.1515E+02   1.1795E+02   0.0000E+00  0.0000
   1.1795E+02   1.2082E+02   0.0000E+00  0.0000
   1.2082E+02   1.2376E+02   0.0000E+00  0.0000
   1.2376E+02   1.2677E+02   0.0000E+00  0.0000
   1.2677E+02   1.2985E+02   0.0000E+00  0.0000
   1.2985E+02   1.3301E+02   0.0000E+00  0.0000
   1.3301E+02   1.3625E+02   0.0000E+00  0.0000
   1.3625E+02   1.3956E+02   0.0000E+00  0.0000
   1.3956E+02   1.4296E+02   0.0000E+00  0.0000
   1.4296E+02   1.4644E+02   0.0000E+00  0.0000
   1.4644E+02   1.5000E+02   0.0000E+00  0.0000

#   sum over                 2.3797E-06
'no. =    1   reg = 111 - 211'
msuc: {\huge [t-cross] in region mesh}
msdr: {\it plotted by \ANGEL \version}
msdl: {\it calculated by \PHITS  3.26}
wt: s(0.7)
\vspace{-3}
  region surface crossing
  area  &=&   1.0000E+00 [cm^2]
e:
 
# Information for Restart Calculation
# This calculation was newly started
# istdev =  2 # 1:Batch variance, 2:History variance
# resc2  = 5.00000000000000000E+09 # Total source weight or Total source weight / maxcas
# resc3  = 5.00000000000000000E+09 # Total history number or Total batch number
# maxcas =   100000000 # History / Batch, only used for istdev=1
# bitrseed = 0110100000100010111000001110001111001110100100011111101000111001 # bit data of rseed
