[ T-Cross ]
    title = [t-cross] in region mesh
     mesh =  reg            # mesh type is region-wise
      reg =    1            # number of crossing regions
      non     r-from    r-to       area
      1       107       207        1.000000    
   e-type =    3            # e-mesh is log given by emin, emax and ne
     emin =  1.0000000E-02  # minimum value of e-mesh points
     emax =   150.0000      # maximum value of e-mesh points
#    edel =  2.4039514E-02  # mesh width of e-mesh points
       ne =    400          # number of e-mesh points
#    data = ( e(i), i = 1, ne + 1 )
#           1.00000E-02  1.02433E-02  1.04925E-02  1.07478E-02  1.10093E-02
#           1.12772E-02  1.15516E-02  1.18326E-02  1.21205E-02  1.24154E-02
#           1.27175E-02  1.30269E-02  1.33439E-02  1.36686E-02  1.40011E-02
#           1.43418E-02  1.46907E-02  1.50482E-02  1.54143E-02  1.57894E-02
#           1.61735E-02  1.65670E-02  1.69701E-02  1.73830E-02  1.78060E-02
#           1.82392E-02  1.86830E-02  1.91375E-02  1.96032E-02  2.00801E-02
#           2.05687E-02  2.10692E-02  2.15818E-02  2.21069E-02  2.26448E-02
#           2.31957E-02  2.37601E-02  2.43382E-02  2.49304E-02  2.55369E-02
#           2.61583E-02  2.67947E-02  2.74467E-02  2.81145E-02  2.87985E-02
#           2.94992E-02  3.02169E-02  3.09521E-02  3.17052E-02  3.24766E-02
#           3.32668E-02  3.40762E-02  3.49053E-02  3.57546E-02  3.66246E-02
#           3.75157E-02  3.84284E-02  3.93634E-02  4.03212E-02  4.13022E-02
#           4.23071E-02  4.33365E-02  4.43909E-02  4.54710E-02  4.65773E-02
#           4.77106E-02  4.88714E-02  5.00605E-02  5.12785E-02  5.25262E-02
#           5.38042E-02  5.51133E-02  5.64542E-02  5.78278E-02  5.92348E-02
#           6.06760E-02  6.21523E-02  6.36645E-02  6.52135E-02  6.68002E-02
#           6.84255E-02  7.00904E-02  7.17957E-02  7.35426E-02  7.53319E-02
#           7.71648E-02  7.90423E-02  8.09655E-02  8.29354E-02  8.49533E-02
#           8.70203E-02  8.91376E-02  9.13064E-02  9.35279E-02  9.58035E-02
#           9.81345E-02  1.00522E-01  1.02968E-01  1.05473E-01  1.08040E-01
#           1.10668E-01  1.13361E-01  1.16119E-01  1.18944E-01  1.21838E-01
#           1.24803E-01  1.27839E-01  1.30950E-01  1.34136E-01  1.37399E-01
#           1.40742E-01  1.44167E-01  1.47675E-01  1.51268E-01  1.54948E-01
#           1.58718E-01  1.62580E-01  1.66535E-01  1.70587E-01  1.74738E-01
#           1.78989E-01  1.83344E-01  1.87805E-01  1.92375E-01  1.97055E-01
#           2.01850E-01  2.06761E-01  2.11792E-01  2.16945E-01  2.22223E-01
#           2.27630E-01  2.33169E-01  2.38842E-01  2.44653E-01  2.50605E-01
#           2.56703E-01  2.62949E-01  2.69346E-01  2.75900E-01  2.82613E-01
#           2.89489E-01  2.96532E-01  3.03747E-01  3.11138E-01  3.18708E-01
#           3.26462E-01  3.34405E-01  3.42542E-01  3.50876E-01  3.59413E-01
#           3.68158E-01  3.77116E-01  3.86291E-01  3.95690E-01  4.05317E-01
#           4.15179E-01  4.25281E-01  4.35628E-01  4.46227E-01  4.57084E-01
#           4.68205E-01  4.79597E-01  4.91266E-01  5.03219E-01  5.15463E-01
#           5.28005E-01  5.40851E-01  5.54011E-01  5.67490E-01  5.81298E-01
#           5.95441E-01  6.09929E-01  6.24769E-01  6.39970E-01  6.55541E-01
#           6.71491E-01  6.87828E-01  7.04564E-01  7.21706E-01  7.39266E-01
#           7.57253E-01  7.75678E-01  7.94551E-01  8.13883E-01  8.33685E-01
#           8.53969E-01  8.74747E-01  8.96030E-01  9.17831E-01  9.40163E-01
#           9.63038E-01  9.86469E-01  1.01047E+00  1.03506E+00  1.06024E+00
#           1.08604E+00  1.11246E+00  1.13953E+00  1.16725E+00  1.19565E+00
#           1.22474E+00  1.25454E+00  1.28507E+00  1.31633E+00  1.34836E+00
#           1.38117E+00  1.41477E+00  1.44920E+00  1.48446E+00  1.52057E+00
#           1.55757E+00  1.59547E+00  1.63429E+00  1.67405E+00  1.71478E+00
#           1.75650E+00  1.79924E+00  1.84302E+00  1.88786E+00  1.93379E+00
#           1.98084E+00  2.02904E+00  2.07841E+00  2.12898E+00  2.18078E+00
#           2.23384E+00  2.28819E+00  2.34386E+00  2.40089E+00  2.45930E+00
#           2.51914E+00  2.58043E+00  2.64322E+00  2.70753E+00  2.77341E+00
#           2.84088E+00  2.91001E+00  2.98081E+00  3.05333E+00  3.12762E+00
#           3.20372E+00  3.28167E+00  3.36152E+00  3.44330E+00  3.52708E+00
#           3.61290E+00  3.70080E+00  3.79085E+00  3.88308E+00  3.97756E+00
#           4.07434E+00  4.17347E+00  4.27501E+00  4.37903E+00  4.48557E+00
#           4.59471E+00  4.70650E+00  4.82102E+00  4.93832E+00  5.05847E+00
#           5.18155E+00  5.30762E+00  5.43676E+00  5.56904E+00  5.70453E+00
#           5.84333E+00  5.98550E+00  6.13114E+00  6.28031E+00  6.43312E+00
#           6.58964E+00  6.74997E+00  6.91420E+00  7.08243E+00  7.25475E+00
#           7.43126E+00  7.61207E+00  7.79728E+00  7.98700E+00  8.18133E+00
#           8.38038E+00  8.58428E+00  8.79315E+00  9.00709E+00  9.22624E+00
#           9.45072E+00  9.68067E+00  9.91620E+00  1.01575E+01  1.04046E+01
#           1.06578E+01  1.09171E+01  1.11827E+01  1.14548E+01  1.17335E+01
#           1.20190E+01  1.23114E+01  1.26109E+01  1.29178E+01  1.32321E+01
#           1.35540E+01  1.38838E+01  1.42216E+01  1.45676E+01  1.49221E+01
#           1.52851E+01  1.56570E+01  1.60380E+01  1.64282E+01  1.68279E+01
#           1.72374E+01  1.76568E+01  1.80864E+01  1.85264E+01  1.89772E+01
#           1.94389E+01  1.99119E+01  2.03963E+01  2.08926E+01  2.14009E+01
#           2.19216E+01  2.24550E+01  2.30014E+01  2.35610E+01  2.41343E+01
#           2.47215E+01  2.53230E+01  2.59391E+01  2.65702E+01  2.72167E+01
#           2.78789E+01  2.85572E+01  2.92520E+01  2.99637E+01  3.06928E+01
#           3.14396E+01  3.22045E+01  3.29881E+01  3.37907E+01  3.46128E+01
#           3.54550E+01  3.63177E+01  3.72013E+01  3.81064E+01  3.90336E+01
#           3.99833E+01  4.09561E+01  4.19526E+01  4.29734E+01  4.40189E+01
#           4.50900E+01  4.61870E+01  4.73108E+01  4.84619E+01  4.96410E+01
#           5.08488E+01  5.20860E+01  5.33533E+01  5.46514E+01  5.59812E+01
#           5.73432E+01  5.87384E+01  6.01676E+01  6.16315E+01  6.31311E+01
#           6.46671E+01  6.62405E+01  6.78522E+01  6.95031E+01  7.11941E+01
#           7.29263E+01  7.47007E+01  7.65182E+01  7.83800E+01  8.02870E+01
#           8.22405E+01  8.42414E+01  8.62911E+01  8.83906E+01  9.05412E+01
#           9.27442E+01  9.50007E+01  9.73122E+01  9.96799E+01  1.02105E+02
#           1.04589E+02  1.07134E+02  1.09741E+02  1.12411E+02  1.15146E+02
#           1.17948E+02  1.20817E+02  1.23757E+02  1.26768E+02  1.29852E+02
#           1.33012E+02  1.36248E+02  1.39563E+02  1.42959E+02  1.46437E+02
#           1.50000E+02
     unit =    2            # unit is [1/cm^2/(MeV/n)/source]
     axis =  eng            # axis of output
     file = detector-08.out  # file name of output for the above axis
   output = f-curr          # surface crossing forward current spectrum
     part =  neutron  
# kf/name :  2112     
#    used :        main (  %)        temp (  %)       total (  %)
#  memory :         414 (  0)           0 (  0)         414 (  0)

#------------------------------------------------------------------------------
#newpage:
#   no. =    1   reg = 107 - 207

x: Energy [MeV/n]
y:  F-Curr [1/cm^2/(MeV/n)/source]         
p: xlog ylog afac(0.8) form(0.9)
h: n            x            y(neutron ),hh0l   n 
#  e-lower      e-upper      neutron     r.err 
   1.0000E-02   1.0243E-02   5.9381E-05  0.1172
   1.0243E-02   1.0493E-02   5.2745E-05  0.1224
   1.0493E-02   1.0748E-02   4.7890E-05  0.1271
   1.0748E-02   1.1009E-02   4.6115E-05  0.1281
   1.1009E-02   1.1277E-02   4.0630E-05  0.1346
   1.1277E-02   1.1552E-02   5.1554E-05  0.1187
   1.1552E-02   1.1833E-02   5.1693E-05  0.1171
   1.1833E-02   1.2121E-02   3.6915E-05  0.1368
   1.2121E-02   1.2415E-02   4.1742E-05  0.1268
   1.2415E-02   1.2718E-02   4.6995E-05  0.1176
   1.2718E-02   1.3027E-02   4.3588E-05  0.1213
   1.3027E-02   1.3344E-02   3.1998E-05  0.1401
   1.3344E-02   1.3669E-02   2.6188E-05  0.1526
   1.3669E-02   1.4001E-02   3.4870E-05  0.1303
   1.4001E-02   1.4342E-02   2.8105E-05  0.1443
   1.4342E-02   1.4691E-02   3.9267E-05  0.1200
   1.4691E-02   1.5048E-02   3.4501E-05  0.1270
   1.5048E-02   1.5414E-02   4.2838E-05  0.1126
   1.5414E-02   1.5789E-02   3.5432E-05  0.1222
   1.5789E-02   1.6174E-02   3.2308E-05  0.1262
   1.6174E-02   1.6567E-02   2.8288E-05  0.1331
   1.6567E-02   1.6970E-02   3.3238E-05  0.1214
   1.6970E-02   1.7383E-02   2.8417E-05  0.1302
   1.7383E-02   1.7806E-02   2.9117E-05  0.1271
   1.7806E-02   1.8239E-02   2.5251E-05  0.1349
   1.8239E-02   1.8683E-02   3.1315E-05  0.1196
   1.8683E-02   1.9138E-02   3.0707E-05  0.1192
   1.9138E-02   1.9603E-02   3.2626E-05  0.1139
   1.9603E-02   2.0080E-02   2.7334E-05  0.1234
   2.0080E-02   2.0569E-02   2.6312E-05  0.1241
   2.0569E-02   2.1069E-02   2.6253E-05  0.1227
   2.1069E-02   2.1582E-02   2.1943E-05  0.1326
   2.1582E-02   2.2107E-02   2.4771E-05  0.1232
   2.2107E-02   2.2645E-02   2.7572E-05  0.1156
   2.2645E-02   2.3196E-02   1.8819E-05  0.1387
   2.3196E-02   2.3760E-02   2.5062E-05  0.1187
   2.3760E-02   2.4338E-02   2.0515E-05  0.1292
   2.4338E-02   2.4930E-02   2.1828E-05  0.1241
   2.4930E-02   2.5537E-02   3.1126E-05  0.1026
   2.5537E-02   2.6158E-02   1.7127E-05  0.1366
   2.6158E-02   2.6795E-02   2.4550E-05  0.1126
   2.6795E-02   2.7447E-02   2.3380E-05  0.1140
   2.7447E-02   2.8114E-02   2.2367E-05  0.1155
   2.8114E-02   2.8799E-02   2.3570E-05  0.1111
   2.8799E-02   2.9499E-02   2.1216E-05  0.1155
   2.9499E-02   3.0217E-02   1.4994E-05  0.1361
   3.0217E-02   3.0952E-02   1.6975E-05  0.1261
   3.0952E-02   3.1705E-02   1.7955E-05  0.1207
   3.1705E-02   3.2477E-02   2.1256E-05  0.1099
   3.2477E-02   3.3267E-02   1.7258E-05  0.1205
   3.3267E-02   3.4076E-02   1.9117E-05  0.1133
   3.4076E-02   3.4905E-02   1.5454E-05  0.1244
   3.4905E-02   3.5755E-02   1.7296E-05  0.1160
   3.5755E-02   3.6625E-02   1.6578E-05  0.1172
   3.6625E-02   3.7516E-02   1.6205E-05  0.1171
   3.7516E-02   3.8428E-02   1.7237E-05  0.1125
   3.8428E-02   3.9363E-02   1.3806E-05  0.1237
   3.9363E-02   4.0321E-02   1.6002E-05  0.1140
   4.0321E-02   4.1302E-02   1.3583E-05  0.1222
   4.1302E-02   4.2307E-02   1.4996E-05  0.1142
   4.2307E-02   4.3337E-02   1.3369E-05  0.1200
   4.3337E-02   4.4391E-02   1.4149E-05  0.1155
   4.4391E-02   4.5471E-02   1.1959E-05  0.1241
   4.5471E-02   4.6577E-02   1.1909E-05  0.1227
   4.6577E-02   4.7711E-02   1.2931E-05  0.1164
   4.7711E-02   4.8871E-02   1.2056E-05  0.1189
   4.8871E-02   5.0061E-02   1.4025E-05  0.1091
   5.0061E-02   5.1279E-02   1.0556E-05  0.1237
   5.1279E-02   5.2526E-02   1.2267E-05  0.1140
   5.2526E-02   5.3804E-02   1.0294E-05  0.1231
   5.3804E-02   5.5113E-02   1.2031E-05  0.1125
   5.5113E-02   5.6454E-02   9.6369E-06  0.1241
   5.6454E-02   5.7828E-02   9.7261E-06  0.1218
   5.7828E-02   5.9235E-02   9.8944E-06  0.1196
   5.9235E-02   6.0676E-02   1.3205E-05  0.1021
   6.0676E-02   6.2152E-02   1.1112E-05  0.1096
   6.2152E-02   6.3665E-02   8.9195E-06  0.1213
   6.3665E-02   6.5214E-02   8.7662E-06  0.1205
   6.5214E-02   6.6800E-02   9.4213E-06  0.1155
   6.6800E-02   6.8426E-02   8.6901E-06  0.1187
   6.8426E-02   7.0090E-02   8.4743E-06  0.1187
   7.0090E-02   7.1796E-02   8.9778E-06  0.1140
   7.1796E-02   7.3543E-02   9.6685E-06  0.1085
   7.3543E-02   7.5332E-02   8.7196E-06  0.1130
   7.5332E-02   7.7165E-02   9.8854E-06  0.1046
   7.7165E-02   7.9042E-02   9.5168E-06  0.1054
   7.9042E-02   8.0965E-02   9.7145E-06  0.1032
   8.0965E-02   8.2935E-02   8.3772E-06  0.1098
   8.2935E-02   8.4953E-02   7.2754E-06  0.1163
   8.4953E-02   8.7020E-02   7.6236E-06  0.1122
   8.7020E-02   8.9138E-02   7.5191E-06  0.1115
   8.9138E-02   9.1306E-02   8.0689E-06  0.1064
   9.1306E-02   9.3528E-02   7.3236E-06  0.1102
   9.3528E-02   9.5804E-02   6.6028E-06  0.1148
   9.5804E-02   9.8134E-02   7.0595E-06  0.1098
   9.8134E-02   1.0052E-01   8.3427E-06  0.0996
   1.0052E-01   1.0297E-01   8.0735E-06  0.1005
   1.0297E-01   1.0547E-01   7.7096E-06  0.1016
   1.0547E-01   1.0804E-01   8.7189E-06  0.0941
   1.0804E-01   1.1067E-01   7.7148E-06  0.0987
   1.1067E-01   1.1336E-01   9.3349E-06  0.0890
   1.1336E-01   1.1612E-01   8.3188E-06  0.0926
   1.1612E-01   1.1894E-01   9.5596E-06  0.0854
   1.1894E-01   1.2184E-01   9.6230E-06  0.0845
   1.2184E-01   1.2480E-01   9.3195E-06  0.0848
   1.2480E-01   1.2784E-01   1.0866E-05  0.0776
   1.2784E-01   1.3095E-01   1.1179E-05  0.0755
   1.3095E-01   1.3414E-01   1.3859E-05  0.0670
   1.3414E-01   1.3740E-01   1.2271E-05  0.0705
   1.3740E-01   1.4074E-01   1.4758E-05  0.0635
   1.4074E-01   1.4417E-01   1.3049E-05  0.0667
   1.4417E-01   1.4767E-01   1.4380E-05  0.0628
   1.4767E-01   1.5127E-01   1.4427E-05  0.0619
   1.5127E-01   1.5495E-01   1.6280E-05  0.0576
   1.5495E-01   1.5872E-01   1.4449E-05  0.0604
   1.5872E-01   1.6258E-01   1.7224E-05  0.0547
   1.6258E-01   1.6654E-01   1.7137E-05  0.0542
   1.6654E-01   1.7059E-01   1.7478E-05  0.0530
   1.7059E-01   1.7474E-01   1.9104E-05  0.0501
   1.7474E-01   1.7899E-01   1.8397E-05  0.0504
   1.7899E-01   1.8334E-01   1.9288E-05  0.0486
   1.8334E-01   1.8781E-01   1.9190E-05  0.0482
   1.8781E-01   1.9237E-01   2.1547E-05  0.0450
   1.9237E-01   1.9706E-01   2.1188E-05  0.0447
   1.9706E-01   2.0185E-01   2.0964E-05  0.0444
   2.0185E-01   2.0676E-01   2.2957E-05  0.0420
   2.0676E-01   2.1179E-01   2.4136E-05  0.0405
   2.1179E-01   2.1694E-01   2.3769E-05  0.0403
   2.1694E-01   2.2222E-01   2.5872E-05  0.0381
   2.2222E-01   2.2763E-01   2.6628E-05  0.0372
   2.2763E-01   2.3317E-01   2.6552E-05  0.0368
   2.3317E-01   2.3884E-01   2.6994E-05  0.0360
   2.3884E-01   2.4465E-01   3.0382E-05  0.0336
   2.4465E-01   2.5061E-01   3.0371E-05  0.0332
   2.5061E-01   2.5670E-01   3.2320E-05  0.0317
   2.5670E-01   2.6295E-01   3.3243E-05  0.0309
   2.6295E-01   2.6935E-01   3.2916E-05  0.0307
   2.6935E-01   2.7590E-01   3.4302E-05  0.0297
   2.7590E-01   2.8261E-01   3.3436E-05  0.0298
   2.8261E-01   2.8949E-01   3.5022E-05  0.0287
   2.8949E-01   2.9653E-01   3.6126E-05  0.0279
   2.9653E-01   3.0375E-01   3.6350E-05  0.0275
   3.0375E-01   3.1114E-01   3.7872E-05  0.0266
   3.1114E-01   3.1871E-01   3.9049E-05  0.0259
   3.1871E-01   3.2646E-01   4.1725E-05  0.0248
   3.2646E-01   3.3441E-01   4.0981E-05  0.0247
   3.3441E-01   3.4254E-01   4.0795E-05  0.0245
   3.4254E-01   3.5088E-01   4.3508E-05  0.0234
   3.5088E-01   3.5941E-01   4.4036E-05  0.0230
   3.5941E-01   3.6816E-01   4.6412E-05  0.0221
   3.6816E-01   3.7712E-01   4.7069E-05  0.0217
   3.7712E-01   3.8629E-01   4.8856E-05  0.0211
   3.8629E-01   3.9569E-01   5.0063E-05  0.0205
   3.9569E-01   4.0532E-01   4.5974E-05  0.0212
   4.0532E-01   4.1518E-01   5.1612E-05  0.0197
   4.1518E-01   4.2528E-01   5.2363E-05  0.0194
   4.2528E-01   4.3563E-01   5.0948E-05  0.0194
   4.3563E-01   4.4623E-01   5.1910E-05  0.0190
   4.4623E-01   4.5708E-01   5.4876E-05  0.0183
   4.5708E-01   4.6821E-01   5.4425E-05  0.0181
   4.6821E-01   4.7960E-01   5.5309E-05  0.0177
   4.7960E-01   4.9127E-01   5.8503E-05  0.0170
   4.9127E-01   5.0322E-01   5.6586E-05  0.0171
   5.0322E-01   5.1546E-01   5.7102E-05  0.0168
   5.1546E-01   5.2800E-01   5.6852E-05  0.0167
   5.2800E-01   5.4085E-01   6.0268E-05  0.0160
   5.4085E-01   5.5401E-01   6.0004E-05  0.0158
   5.5401E-01   5.6749E-01   6.0556E-05  0.0156
   5.6749E-01   5.8130E-01   6.2524E-05  0.0152
   5.8130E-01   5.9544E-01   6.3128E-05  0.0149
   5.9544E-01   6.0993E-01   6.3294E-05  0.0147
   6.0993E-01   6.2477E-01   6.2819E-05  0.0146
   6.2477E-01   6.3997E-01   6.3503E-05  0.0143
   6.3997E-01   6.5554E-01   6.3790E-05  0.0141
   6.5554E-01   6.7149E-01   6.4254E-05  0.0139
   6.7149E-01   6.8783E-01   6.3017E-05  0.0139
   6.8783E-01   7.0456E-01   6.4688E-05  0.0135
   7.0456E-01   7.2171E-01   6.3415E-05  0.0135
   7.2171E-01   7.3927E-01   6.3624E-05  0.0133
   7.3927E-01   7.5725E-01   6.5043E-05  0.0130
   7.5725E-01   7.7568E-01   6.3531E-05  0.0130
   7.7568E-01   7.9455E-01   6.3067E-05  0.0129
   7.9455E-01   8.1388E-01   6.3058E-05  0.0127
   8.1388E-01   8.3368E-01   6.1557E-05  0.0127
   8.3368E-01   8.5397E-01   6.0742E-05  0.0127
   8.5397E-01   8.7475E-01   5.9887E-05  0.0126
   8.7475E-01   8.9603E-01   5.8174E-05  0.0126
   8.9603E-01   9.1783E-01   5.6050E-05  0.0127
   9.1783E-01   9.4016E-01   5.5235E-05  0.0127
   9.4016E-01   9.6304E-01   5.3514E-05  0.0127
   9.6304E-01   9.8647E-01   5.1370E-05  0.0128
   9.8647E-01   1.0105E+00   5.0970E-05  0.0127
   1.0105E+00   1.0351E+00   5.0894E-05  0.0126
   1.0351E+00   1.0602E+00   5.2076E-05  0.0123
   1.0602E+00   1.0860E+00   5.2619E-05  0.0120
   1.0860E+00   1.1125E+00   5.4385E-05  0.0117
   1.1125E+00   1.1395E+00   5.5983E-05  0.0114
   1.1395E+00   1.1673E+00   5.7396E-05  0.0111
   1.1673E+00   1.1957E+00   5.8628E-05  0.0109
   1.1957E+00   1.2247E+00   6.1998E-05  0.0104
   1.2247E+00   1.2545E+00   6.2571E-05  0.0103
   1.2545E+00   1.2851E+00   6.3270E-05  0.0101
   1.2851E+00   1.3163E+00   6.4835E-05  0.0098
   1.3163E+00   1.3484E+00   6.5169E-05  0.0097
   1.3484E+00   1.3812E+00   6.8282E-05  0.0094
   1.3812E+00   1.4148E+00   7.0094E-05  0.0091
   1.4148E+00   1.4492E+00   7.0055E-05  0.0090
   1.4492E+00   1.4845E+00   7.0758E-05  0.0089
   1.4845E+00   1.5206E+00   7.0674E-05  0.0088
   1.5206E+00   1.5576E+00   7.1306E-05  0.0086
   1.5576E+00   1.5955E+00   7.1985E-05  0.0085
   1.5955E+00   1.6343E+00   7.2006E-05  0.0084
   1.6343E+00   1.6741E+00   7.2576E-05  0.0082
   1.6741E+00   1.7148E+00   7.4302E-05  0.0080
   1.7148E+00   1.7565E+00   7.3176E-05  0.0080
   1.7565E+00   1.7992E+00   7.2469E-05  0.0079
   1.7992E+00   1.8430E+00   6.8899E-05  0.0080
   1.8430E+00   1.8879E+00   6.7046E-05  0.0080
   1.8879E+00   1.9338E+00   6.7361E-05  0.0079
   1.9338E+00   1.9808E+00   6.7596E-05  0.0078
   1.9808E+00   2.0290E+00   6.8741E-05  0.0076
   2.0290E+00   2.0784E+00   6.8908E-05  0.0075
   2.0784E+00   2.1290E+00   7.0707E-05  0.0073
   2.1290E+00   2.1808E+00   7.2315E-05  0.0071
   2.1808E+00   2.2338E+00   7.2558E-05  0.0070
   2.2338E+00   2.2882E+00   7.1607E-05  0.0070
   2.2882E+00   2.3439E+00   7.0159E-05  0.0070
   2.3439E+00   2.4009E+00   7.1263E-05  0.0069
   2.4009E+00   2.4593E+00   7.0828E-05  0.0068
   2.4593E+00   2.5191E+00   7.1305E-05  0.0067
   2.5191E+00   2.5804E+00   7.1008E-05  0.0067
   2.5804E+00   2.6432E+00   7.0987E-05  0.0066
   2.6432E+00   2.7075E+00   7.1321E-05  0.0065
   2.7075E+00   2.7734E+00   7.1024E-05  0.0064
   2.7734E+00   2.8409E+00   7.0747E-05  0.0064
   2.8409E+00   2.9100E+00   7.1109E-05  0.0063
   2.9100E+00   2.9808E+00   7.1711E-05  0.0062
   2.9808E+00   3.0533E+00   7.0520E-05  0.0062
   3.0533E+00   3.1276E+00   7.1007E-05  0.0061
   3.1276E+00   3.2037E+00   6.9909E-05  0.0060
   3.2037E+00   3.2817E+00   7.0793E-05  0.0059
   3.2817E+00   3.3615E+00   7.0138E-05  0.0059
   3.3615E+00   3.4433E+00   7.0014E-05  0.0058
   3.4433E+00   3.5271E+00   7.0260E-05  0.0058
   3.5271E+00   3.6129E+00   7.0089E-05  0.0057
   3.6129E+00   3.7008E+00   6.9572E-05  0.0057
   3.7008E+00   3.7908E+00   6.9160E-05  0.0056
   3.7908E+00   3.8831E+00   6.8455E-05  0.0056
   3.8831E+00   3.9776E+00   6.8216E-05  0.0055
   3.9776E+00   4.0743E+00   6.7644E-05  0.0055
   4.0743E+00   4.1735E+00   6.7377E-05  0.0054
   4.1735E+00   4.2750E+00   6.5951E-05  0.0054
   4.2750E+00   4.3790E+00   6.5208E-05  0.0054
   4.3790E+00   4.4856E+00   6.4720E-05  0.0053
   4.4856E+00   4.5947E+00   6.3617E-05  0.0053
   4.5947E+00   4.7065E+00   6.2652E-05  0.0053
   4.7065E+00   4.8210E+00   6.3255E-05  0.0052
   4.8210E+00   4.9383E+00   6.1951E-05  0.0052
   4.9383E+00   5.0585E+00   6.1959E-05  0.0051
   5.0585E+00   5.1815E+00   6.1157E-05  0.0051
   5.1815E+00   5.3076E+00   6.0528E-05  0.0051
   5.3076E+00   5.4368E+00   5.9640E-05  0.0050
   5.4368E+00   5.5690E+00   5.8964E-05  0.0050
   5.5690E+00   5.7045E+00   5.8409E-05  0.0050
   5.7045E+00   5.8433E+00   5.8425E-05  0.0049
   5.8433E+00   5.9855E+00   5.7613E-05  0.0049
   5.9855E+00   6.1311E+00   5.7132E-05  0.0049
   6.1311E+00   6.2803E+00   5.6479E-05  0.0048
   6.2803E+00   6.4331E+00   5.5628E-05  0.0048
   6.4331E+00   6.5896E+00   5.4989E-05  0.0048
   6.5896E+00   6.7500E+00   5.4417E-05  0.0048
   6.7500E+00   6.9142E+00   5.4110E-05  0.0047
   6.9142E+00   7.0824E+00   5.2969E-05  0.0047
   7.0824E+00   7.2548E+00   5.2710E-05  0.0047
   7.2548E+00   7.4313E+00   5.1737E-05  0.0047
   7.4313E+00   7.6121E+00   5.0763E-05  0.0046
   7.6121E+00   7.7973E+00   5.0350E-05  0.0046
   7.7973E+00   7.9870E+00   4.9085E-05  0.0046
   7.9870E+00   8.1813E+00   4.8564E-05  0.0046
   8.1813E+00   8.3804E+00   4.7756E-05  0.0046
   8.3804E+00   8.5843E+00   4.6819E-05  0.0046
   8.5843E+00   8.7931E+00   4.5450E-05  0.0046
   8.7931E+00   9.0071E+00   4.4729E-05  0.0046
   9.0071E+00   9.2262E+00   4.3356E-05  0.0046
   9.2262E+00   9.4507E+00   4.1782E-05  0.0046
   9.4507E+00   9.6807E+00   4.1178E-05  0.0046
   9.6807E+00   9.9162E+00   4.0296E-05  0.0046
   9.9162E+00   1.0157E+01   4.0976E-05  0.0045
   1.0157E+01   1.0405E+01   3.9621E-05  0.0045
   1.0405E+01   1.0658E+01   3.7936E-05  0.0046
   1.0658E+01   1.0917E+01   3.6691E-05  0.0046
   1.0917E+01   1.1183E+01   3.4922E-05  0.0046
   1.1183E+01   1.1455E+01   3.3964E-05  0.0046
   1.1455E+01   1.1733E+01   3.2784E-05  0.0047
   1.1733E+01   1.2019E+01   3.1448E-05  0.0047
   1.2019E+01   1.2311E+01   3.0096E-05  0.0048
   1.2311E+01   1.2611E+01   2.8920E-05  0.0048
   1.2611E+01   1.2918E+01   2.7753E-05  0.0048
   1.2918E+01   1.3232E+01   2.6325E-05  0.0049
   1.3232E+01   1.3554E+01   2.5046E-05  0.0050
   1.3554E+01   1.3884E+01   2.3430E-05  0.0051
   1.3884E+01   1.4222E+01   2.1957E-05  0.0052
   1.4222E+01   1.4568E+01   2.0550E-05  0.0053
   1.4568E+01   1.4922E+01   1.9322E-05  0.0054
   1.4922E+01   1.5285E+01   1.7739E-05  0.0056
   1.5285E+01   1.5657E+01   1.6280E-05  0.0057
   1.5657E+01   1.6038E+01   1.4965E-05  0.0059
   1.6038E+01   1.6428E+01   1.3405E-05  0.0062
   1.6428E+01   1.6828E+01   1.2073E-05  0.0064
   1.6828E+01   1.7237E+01   1.0764E-05  0.0067
   1.7237E+01   1.7657E+01   9.3618E-06  0.0071
   1.7657E+01   1.8086E+01   8.1584E-06  0.0076
   1.8086E+01   1.8526E+01   7.1034E-06  0.0080
   1.8526E+01   1.8977E+01   5.9018E-06  0.0087
   1.8977E+01   1.9439E+01   4.9434E-06  0.0094
   1.9439E+01   1.9912E+01   4.0885E-06  0.0102
   1.9912E+01   2.0396E+01   3.3967E-06  0.0110
   2.0396E+01   2.0893E+01   2.6825E-06  0.0123
   2.0893E+01   2.1401E+01   2.0664E-06  0.0138
   2.1401E+01   2.1922E+01   1.5245E-06  0.0159
   2.1922E+01   2.2455E+01   1.0593E-06  0.0188
   2.2455E+01   2.3001E+01   7.5263E-07  0.0221
   2.3001E+01   2.3561E+01   4.7602E-07  0.0274
   2.3561E+01   2.4134E+01   2.6690E-07  0.0362
   2.4134E+01   2.4721E+01   1.5054E-07  0.0476
   2.4721E+01   2.5323E+01   6.7499E-08  0.0702
   2.5323E+01   2.5939E+01   2.6618E-08  0.1104
   2.5939E+01   2.6570E+01   3.4859E-09  0.3015
   2.6570E+01   2.7217E+01   0.0000E+00  0.0000
   2.7217E+01   2.7879E+01   0.0000E+00  0.0000
   2.7879E+01   2.8557E+01   2.9485E-10  1.0000
   2.8557E+01   2.9252E+01   0.0000E+00  0.0000
   2.9252E+01   2.9964E+01   0.0000E+00  0.0000
   2.9964E+01   3.0693E+01   0.0000E+00  0.0000
   3.0693E+01   3.1440E+01   0.0000E+00  0.0000
   3.1440E+01   3.2205E+01   0.0000E+00  0.0000
   3.2205E+01   3.2988E+01   0.0000E+00  0.0000
   3.2988E+01   3.3791E+01   0.0000E+00  0.0000
   3.3791E+01   3.4613E+01   0.0000E+00  0.0000
   3.4613E+01   3.5455E+01   0.0000E+00  0.0000
   3.5455E+01   3.6318E+01   0.0000E+00  0.0000
   3.6318E+01   3.7201E+01   0.0000E+00  0.0000
   3.7201E+01   3.8106E+01   0.0000E+00  0.0000
   3.8106E+01   3.9034E+01   0.0000E+00  0.0000
   3.9034E+01   3.9983E+01   0.0000E+00  0.0000
   3.9983E+01   4.0956E+01   0.0000E+00  0.0000
   4.0956E+01   4.1953E+01   0.0000E+00  0.0000
   4.1953E+01   4.2973E+01   0.0000E+00  0.0000
   4.2973E+01   4.4019E+01   0.0000E+00  0.0000
   4.4019E+01   4.5090E+01   0.0000E+00  0.0000
   4.5090E+01   4.6187E+01   0.0000E+00  0.0000
   4.6187E+01   4.7311E+01   0.0000E+00  0.0000
   4.7311E+01   4.8462E+01   0.0000E+00  0.0000
   4.8462E+01   4.9641E+01   0.0000E+00  0.0000
   4.9641E+01   5.0849E+01   0.0000E+00  0.0000
   5.0849E+01   5.2086E+01   0.0000E+00  0.0000
   5.2086E+01   5.3353E+01   0.0000E+00  0.0000
   5.3353E+01   5.4651E+01   0.0000E+00  0.0000
   5.4651E+01   5.5981E+01   0.0000E+00  0.0000
   5.5981E+01   5.7343E+01   0.0000E+00  0.0000
   5.7343E+01   5.8738E+01   0.0000E+00  0.0000
   5.8738E+01   6.0168E+01   0.0000E+00  0.0000
   6.0168E+01   6.1632E+01   0.0000E+00  0.0000
   6.1632E+01   6.3131E+01   0.0000E+00  0.0000
   6.3131E+01   6.4667E+01   0.0000E+00  0.0000
   6.4667E+01   6.6240E+01   0.0000E+00  0.0000
   6.6240E+01   6.7852E+01   0.0000E+00  0.0000
   6.7852E+01   6.9503E+01   0.0000E+00  0.0000
   6.9503E+01   7.1194E+01   0.0000E+00  0.0000
   7.1194E+01   7.2926E+01   0.0000E+00  0.0000
   7.2926E+01   7.4701E+01   0.0000E+00  0.0000
   7.4701E+01   7.6518E+01   0.0000E+00  0.0000
   7.6518E+01   7.8380E+01   0.0000E+00  0.0000
   7.8380E+01   8.0287E+01   0.0000E+00  0.0000
   8.0287E+01   8.2240E+01   0.0000E+00  0.0000
   8.2240E+01   8.4241E+01   0.0000E+00  0.0000
   8.4241E+01   8.6291E+01   0.0000E+00  0.0000
   8.6291E+01   8.8391E+01   0.0000E+00  0.0000
   8.8391E+01   9.0541E+01   0.0000E+00  0.0000
   9.0541E+01   9.2744E+01   0.0000E+00  0.0000
   9.2744E+01   9.5001E+01   0.0000E+00  0.0000
   9.5001E+01   9.7312E+01   0.0000E+00  0.0000
   9.7312E+01   9.9680E+01   0.0000E+00  0.0000
   9.9680E+01   1.0211E+02   0.0000E+00  0.0000
   1.0211E+02   1.0459E+02   0.0000E+00  0.0000
   1.0459E+02   1.0713E+02   0.0000E+00  0.0000
   1.0713E+02   1.0974E+02   0.0000E+00  0.0000
   1.0974E+02   1.1241E+02   0.0000E+00  0.0000
   1.1241E+02   1.1515E+02   0.0000E+00  0.0000
   1.1515E+02   1.1795E+02   0.0000E+00  0.0000
   1.1795E+02   1.2082E+02   0.0000E+00  0.0000
   1.2082E+02   1.2376E+02   0.0000E+00  0.0000
   1.2376E+02   1.2677E+02   0.0000E+00  0.0000
   1.2677E+02   1.2985E+02   0.0000E+00  0.0000
   1.2985E+02   1.3301E+02   0.0000E+00  0.0000
   1.3301E+02   1.3625E+02   0.0000E+00  0.0000
   1.3625E+02   1.3956E+02   0.0000E+00  0.0000
   1.3956E+02   1.4296E+02   0.0000E+00  0.0000
   1.4296E+02   1.4644E+02   0.0000E+00  0.0000
   1.4644E+02   1.5000E+02   0.0000E+00  0.0000

#   sum over                 5.1383E-06
'no. =    1   reg = 107 - 207'
msuc: {\huge [t-cross] in region mesh}
msdr: {\it plotted by \ANGEL \version}
msdl: {\it calculated by \PHITS  3.26}
wt: s(0.7)
\vspace{-3}
  region surface crossing
  area  &=&   1.0000E+00 [cm^2]
e:
 
# Information for Restart Calculation
# This calculation was newly started
# istdev =  2 # 1:Batch variance, 2:History variance
# resc2  = 5.00000000000000000E+09 # Total source weight or Total source weight / maxcas
# resc3  = 5.00000000000000000E+09 # Total history number or Total batch number
# maxcas =   100000000 # History / Batch, only used for istdev=1
# bitrseed = 0110100000100010111000001110001111001110100100011111101000111001 # bit data of rseed
