[ T-Cross ]
    title = [t-cross] in region mesh
     mesh =  reg            # mesh type is region-wise
      reg =    1            # number of crossing regions
      non     r-from    r-to       area
      1       100       200        1.000000    
   e-type =    3            # e-mesh is log given by emin, emax and ne
     emin =  1.0000000E-02  # minimum value of e-mesh points
     emax =   150.0000      # maximum value of e-mesh points
#    edel =  2.4039514E-02  # mesh width of e-mesh points
       ne =    400          # number of e-mesh points
#    data = ( e(i), i = 1, ne + 1 )
#           1.00000E-02  1.02433E-02  1.04925E-02  1.07478E-02  1.10093E-02
#           1.12772E-02  1.15516E-02  1.18326E-02  1.21205E-02  1.24154E-02
#           1.27175E-02  1.30269E-02  1.33439E-02  1.36686E-02  1.40011E-02
#           1.43418E-02  1.46907E-02  1.50482E-02  1.54143E-02  1.57894E-02
#           1.61735E-02  1.65670E-02  1.69701E-02  1.73830E-02  1.78060E-02
#           1.82392E-02  1.86830E-02  1.91375E-02  1.96032E-02  2.00801E-02
#           2.05687E-02  2.10692E-02  2.15818E-02  2.21069E-02  2.26448E-02
#           2.31957E-02  2.37601E-02  2.43382E-02  2.49304E-02  2.55369E-02
#           2.61583E-02  2.67947E-02  2.74467E-02  2.81145E-02  2.87985E-02
#           2.94992E-02  3.02169E-02  3.09521E-02  3.17052E-02  3.24766E-02
#           3.32668E-02  3.40762E-02  3.49053E-02  3.57546E-02  3.66246E-02
#           3.75157E-02  3.84284E-02  3.93634E-02  4.03212E-02  4.13022E-02
#           4.23071E-02  4.33365E-02  4.43909E-02  4.54710E-02  4.65773E-02
#           4.77106E-02  4.88714E-02  5.00605E-02  5.12785E-02  5.25262E-02
#           5.38042E-02  5.51133E-02  5.64542E-02  5.78278E-02  5.92348E-02
#           6.06760E-02  6.21523E-02  6.36645E-02  6.52135E-02  6.68002E-02
#           6.84255E-02  7.00904E-02  7.17957E-02  7.35426E-02  7.53319E-02
#           7.71648E-02  7.90423E-02  8.09655E-02  8.29354E-02  8.49533E-02
#           8.70203E-02  8.91376E-02  9.13064E-02  9.35279E-02  9.58035E-02
#           9.81345E-02  1.00522E-01  1.02968E-01  1.05473E-01  1.08040E-01
#           1.10668E-01  1.13361E-01  1.16119E-01  1.18944E-01  1.21838E-01
#           1.24803E-01  1.27839E-01  1.30950E-01  1.34136E-01  1.37399E-01
#           1.40742E-01  1.44167E-01  1.47675E-01  1.51268E-01  1.54948E-01
#           1.58718E-01  1.62580E-01  1.66535E-01  1.70587E-01  1.74738E-01
#           1.78989E-01  1.83344E-01  1.87805E-01  1.92375E-01  1.97055E-01
#           2.01850E-01  2.06761E-01  2.11792E-01  2.16945E-01  2.22223E-01
#           2.27630E-01  2.33169E-01  2.38842E-01  2.44653E-01  2.50605E-01
#           2.56703E-01  2.62949E-01  2.69346E-01  2.75900E-01  2.82613E-01
#           2.89489E-01  2.96532E-01  3.03747E-01  3.11138E-01  3.18708E-01
#           3.26462E-01  3.34405E-01  3.42542E-01  3.50876E-01  3.59413E-01
#           3.68158E-01  3.77116E-01  3.86291E-01  3.95690E-01  4.05317E-01
#           4.15179E-01  4.25281E-01  4.35628E-01  4.46227E-01  4.57084E-01
#           4.68205E-01  4.79597E-01  4.91266E-01  5.03219E-01  5.15463E-01
#           5.28005E-01  5.40851E-01  5.54011E-01  5.67490E-01  5.81298E-01
#           5.95441E-01  6.09929E-01  6.24769E-01  6.39970E-01  6.55541E-01
#           6.71491E-01  6.87828E-01  7.04564E-01  7.21706E-01  7.39266E-01
#           7.57253E-01  7.75678E-01  7.94551E-01  8.13883E-01  8.33685E-01
#           8.53969E-01  8.74747E-01  8.96030E-01  9.17831E-01  9.40163E-01
#           9.63038E-01  9.86469E-01  1.01047E+00  1.03506E+00  1.06024E+00
#           1.08604E+00  1.11246E+00  1.13953E+00  1.16725E+00  1.19565E+00
#           1.22474E+00  1.25454E+00  1.28507E+00  1.31633E+00  1.34836E+00
#           1.38117E+00  1.41477E+00  1.44920E+00  1.48446E+00  1.52057E+00
#           1.55757E+00  1.59547E+00  1.63429E+00  1.67405E+00  1.71478E+00
#           1.75650E+00  1.79924E+00  1.84302E+00  1.88786E+00  1.93379E+00
#           1.98084E+00  2.02904E+00  2.07841E+00  2.12898E+00  2.18078E+00
#           2.23384E+00  2.28819E+00  2.34386E+00  2.40089E+00  2.45930E+00
#           2.51914E+00  2.58043E+00  2.64322E+00  2.70753E+00  2.77341E+00
#           2.84088E+00  2.91001E+00  2.98081E+00  3.05333E+00  3.12762E+00
#           3.20372E+00  3.28167E+00  3.36152E+00  3.44330E+00  3.52708E+00
#           3.61290E+00  3.70080E+00  3.79085E+00  3.88308E+00  3.97756E+00
#           4.07434E+00  4.17347E+00  4.27501E+00  4.37903E+00  4.48557E+00
#           4.59471E+00  4.70650E+00  4.82102E+00  4.93832E+00  5.05847E+00
#           5.18155E+00  5.30762E+00  5.43676E+00  5.56904E+00  5.70453E+00
#           5.84333E+00  5.98550E+00  6.13114E+00  6.28031E+00  6.43312E+00
#           6.58964E+00  6.74997E+00  6.91420E+00  7.08243E+00  7.25475E+00
#           7.43126E+00  7.61207E+00  7.79728E+00  7.98700E+00  8.18133E+00
#           8.38038E+00  8.58428E+00  8.79315E+00  9.00709E+00  9.22624E+00
#           9.45072E+00  9.68067E+00  9.91620E+00  1.01575E+01  1.04046E+01
#           1.06578E+01  1.09171E+01  1.11827E+01  1.14548E+01  1.17335E+01
#           1.20190E+01  1.23114E+01  1.26109E+01  1.29178E+01  1.32321E+01
#           1.35540E+01  1.38838E+01  1.42216E+01  1.45676E+01  1.49221E+01
#           1.52851E+01  1.56570E+01  1.60380E+01  1.64282E+01  1.68279E+01
#           1.72374E+01  1.76568E+01  1.80864E+01  1.85264E+01  1.89772E+01
#           1.94389E+01  1.99119E+01  2.03963E+01  2.08926E+01  2.14009E+01
#           2.19216E+01  2.24550E+01  2.30014E+01  2.35610E+01  2.41343E+01
#           2.47215E+01  2.53230E+01  2.59391E+01  2.65702E+01  2.72167E+01
#           2.78789E+01  2.85572E+01  2.92520E+01  2.99637E+01  3.06928E+01
#           3.14396E+01  3.22045E+01  3.29881E+01  3.37907E+01  3.46128E+01
#           3.54550E+01  3.63177E+01  3.72013E+01  3.81064E+01  3.90336E+01
#           3.99833E+01  4.09561E+01  4.19526E+01  4.29734E+01  4.40189E+01
#           4.50900E+01  4.61870E+01  4.73108E+01  4.84619E+01  4.96410E+01
#           5.08488E+01  5.20860E+01  5.33533E+01  5.46514E+01  5.59812E+01
#           5.73432E+01  5.87384E+01  6.01676E+01  6.16315E+01  6.31311E+01
#           6.46671E+01  6.62405E+01  6.78522E+01  6.95031E+01  7.11941E+01
#           7.29263E+01  7.47007E+01  7.65182E+01  7.83800E+01  8.02870E+01
#           8.22405E+01  8.42414E+01  8.62911E+01  8.83906E+01  9.05412E+01
#           9.27442E+01  9.50007E+01  9.73122E+01  9.96799E+01  1.02105E+02
#           1.04589E+02  1.07134E+02  1.09741E+02  1.12411E+02  1.15146E+02
#           1.17948E+02  1.20817E+02  1.23757E+02  1.26768E+02  1.29852E+02
#           1.33012E+02  1.36248E+02  1.39563E+02  1.42959E+02  1.46437E+02
#           1.50000E+02
     unit =    2            # unit is [1/cm^2/(MeV/n)/source]
     axis =  eng            # axis of output
     file = detector-01.out  # file name of output for the above axis
   output = f-curr          # surface crossing forward current spectrum
     part =  neutron  
# kf/name :  2112     
#    used :        main (  %)        temp (  %)       total (  %)
#  memory :         414 (  0)           0 (  0)         414 (  0)

#------------------------------------------------------------------------------
#newpage:
#   no. =    1   reg = 100 - 200

x: Energy [MeV/n]
y:  F-Curr [1/cm^2/(MeV/n)/source]         
p: xlog ylog afac(0.8) form(0.9)
h: n            x            y(neutron ),hh0l   n 
#  e-lower      e-upper      neutron     r.err 
   1.0000E-02   1.0243E-02   4.6854E-05  0.1325
   1.0243E-02   1.0493E-02   4.7346E-05  0.1302
   1.0493E-02   1.0748E-02   4.3088E-05  0.1348
   1.0748E-02   1.1009E-02   5.5066E-05  0.1179
   1.1009E-02   1.1277E-02   5.4505E-05  0.1170
   1.1277E-02   1.1552E-02   4.6650E-05  0.1250
   1.1552E-02   1.1833E-02   5.0523E-05  0.1187
   1.1833E-02   1.2121E-02   4.6544E-05  0.1222
   1.2121E-02   1.2415E-02   5.6290E-05  0.1098
   1.2415E-02   1.2718E-02   5.6939E-05  0.1078
   1.2718E-02   1.3027E-02   4.6538E-05  0.1179
   1.3027E-02   1.3344E-02   5.1111E-05  0.1111
   1.3344E-02   1.3669E-02   6.1601E-05  0.1000
   1.3669E-02   1.4001E-02   5.0516E-05  0.1091
   1.4001E-02   1.4342E-02   5.8123E-05  0.1005
   1.4342E-02   1.4691E-02   4.6999E-05  0.1104
   1.4691E-02   1.5048E-02   5.2597E-05  0.1031
   1.5048E-02   1.5414E-02   4.8616E-05  0.1060
   1.5414E-02   1.5789E-02   4.7461E-05  0.1060
   1.5789E-02   1.6174E-02   4.8416E-05  0.1037
   1.6174E-02   1.6567E-02   4.4725E-05  0.1066
   1.6567E-02   1.6970E-02   5.3090E-05  0.0967
   1.6970E-02   1.7383E-02   4.7954E-05  0.1005
   1.7383E-02   1.7806E-02   5.0598E-05  0.0967
   1.7806E-02   1.8239E-02   5.0781E-05  0.0953
   1.8239E-02   1.8683E-02   5.9490E-05  0.0870
   1.8683E-02   1.9138E-02   4.9717E-05  0.0941
   1.9138E-02   1.9603E-02   5.6268E-05  0.0874
   1.9603E-02   2.0080E-02   5.1996E-05  0.0898
   2.0080E-02   2.0569E-02   5.6492E-05  0.0851
   2.0569E-02   2.1069E-02   5.5550E-05  0.0848
   2.1069E-02   2.1582E-02   6.2033E-05  0.0793
   2.1582E-02   2.2107E-02   4.7610E-05  0.0894
   2.2107E-02   2.2645E-02   5.6890E-05  0.0808
   2.2645E-02   2.3196E-02   5.5902E-05  0.0806
   2.3196E-02   2.3760E-02   6.4497E-05  0.0741
   2.3760E-02   2.4338E-02   4.5667E-05  0.0870
   2.4338E-02   2.4930E-02   4.8635E-05  0.0833
   2.4930E-02   2.5537E-02   5.0777E-05  0.0806
   2.5537E-02   2.6158E-02   5.6652E-05  0.0754
   2.6158E-02   2.6795E-02   5.4835E-05  0.0756
   2.6795E-02   2.7447E-02   5.5220E-05  0.0745
   2.7447E-02   2.8114E-02   4.8817E-05  0.0783
   2.8114E-02   2.8799E-02   5.6721E-05  0.0718
   2.8799E-02   2.9499E-02   4.8809E-05  0.0765
   2.9499E-02   3.0217E-02   5.0993E-05  0.0739
   3.0217E-02   3.0952E-02   5.4407E-05  0.0707
   3.0952E-02   3.1705E-02   5.0724E-05  0.0724
   3.1705E-02   3.2477E-02   6.0668E-05  0.0654
   3.2477E-02   3.3267E-02   5.2393E-05  0.0695
   3.3267E-02   3.4076E-02   5.8067E-05  0.0652
   3.4076E-02   3.4905E-02   5.5482E-05  0.0659
   3.4905E-02   3.5755E-02   5.8167E-05  0.0636
   3.5755E-02   3.6625E-02   5.3797E-05  0.0654
   3.6625E-02   3.7516E-02   5.9252E-05  0.0615
   3.7516E-02   3.8428E-02   5.4120E-05  0.0636
   3.8428E-02   3.9363E-02   5.4760E-05  0.0625
   3.9363E-02   4.0321E-02   5.4085E-05  0.0621
   4.0321E-02   4.1302E-02   5.8713E-05  0.0589
   4.1302E-02   4.2307E-02   5.8910E-05  0.0581
   4.2307E-02   4.3337E-02   5.4402E-05  0.0598
   4.3337E-02   4.4391E-02   5.8232E-05  0.0571
   4.4391E-02   4.5471E-02   5.6108E-05  0.0574
   4.5471E-02   4.6577E-02   5.8933E-05  0.0554
   4.6577E-02   4.7711E-02   5.1003E-05  0.0588
   4.7711E-02   4.8871E-02   5.5822E-05  0.0556
   4.8871E-02   5.0061E-02   5.4328E-05  0.0556
   5.0061E-02   5.1279E-02   5.8456E-05  0.0530
   5.1279E-02   5.2526E-02   6.0273E-05  0.0516
   5.2526E-02   5.3804E-02   5.3990E-05  0.0538
   5.3804E-02   5.5113E-02   5.7215E-05  0.0517
   5.5113E-02   5.6454E-02   5.6229E-05  0.0515
   5.6454E-02   5.7828E-02   5.6058E-05  0.0510
   5.7828E-02   5.9235E-02   5.5722E-05  0.0505
   5.9235E-02   6.0676E-02   5.8700E-05  0.0486
   6.0676E-02   6.2152E-02   6.1641E-05  0.0469
   6.2152E-02   6.3665E-02   5.9648E-05  0.0471
   6.3665E-02   6.5214E-02   5.6811E-05  0.0477
   6.5214E-02   6.6800E-02   6.2016E-05  0.0451
   6.6800E-02   6.8426E-02   6.0050E-05  0.0453
   6.8426E-02   7.0090E-02   5.8744E-05  0.0452
   7.0090E-02   7.1796E-02   5.9812E-05  0.0443
   7.1796E-02   7.3543E-02   5.9307E-05  0.0439
   7.3543E-02   7.5332E-02   6.0245E-05  0.0431
   7.5332E-02   7.7165E-02   6.0778E-05  0.0424
   7.7165E-02   7.9042E-02   6.1146E-05  0.0417
   7.9042E-02   8.0965E-02   6.0629E-05  0.0414
   8.0965E-02   8.2935E-02   5.7260E-05  0.0421
   8.2935E-02   8.4953E-02   6.1252E-05  0.0402
   8.4953E-02   8.7020E-02   5.6314E-05  0.0415
   8.7020E-02   8.9138E-02   5.4882E-05  0.0415
   8.9138E-02   9.1306E-02   5.9480E-05  0.0394
   9.1306E-02   9.3528E-02   5.4736E-05  0.0406
   9.3528E-02   9.5804E-02   5.9764E-05  0.0383
   9.5804E-02   9.8134E-02   6.1519E-05  0.0373
   9.8134E-02   1.0052E-01   6.0393E-05  0.0372
   1.0052E-01   1.0297E-01   6.3374E-05  0.0359
   1.0297E-01   1.0547E-01   5.9235E-05  0.0367
   1.0547E-01   1.0804E-01   6.0477E-05  0.0359
   1.0804E-01   1.1067E-01   6.4062E-05  0.0345
   1.1067E-01   1.1336E-01   6.0535E-05  0.0350
   1.1336E-01   1.1612E-01   6.0330E-05  0.0347
   1.1612E-01   1.1894E-01   6.4489E-05  0.0331
   1.1894E-01   1.2184E-01   6.3027E-05  0.0331
   1.2184E-01   1.2480E-01   6.3959E-05  0.0325
   1.2480E-01   1.2784E-01   6.2110E-05  0.0326
   1.2784E-01   1.3095E-01   6.2757E-05  0.0320
   1.3095E-01   1.3414E-01   6.2647E-05  0.0317
   1.3414E-01   1.3740E-01   6.5939E-05  0.0305
   1.3740E-01   1.4074E-01   6.1860E-05  0.0311
   1.4074E-01   1.4417E-01   6.2902E-05  0.0305
   1.4417E-01   1.4767E-01   6.6482E-05  0.0293
   1.4767E-01   1.5127E-01   6.6629E-05  0.0289
   1.5127E-01   1.5495E-01   6.4448E-05  0.0290
   1.5495E-01   1.5872E-01   6.6578E-05  0.0282
   1.5872E-01   1.6258E-01   6.2096E-05  0.0289
   1.6258E-01   1.6654E-01   7.0481E-05  0.0268
   1.6654E-01   1.7059E-01   6.5598E-05  0.0274
   1.7059E-01   1.7474E-01   6.5775E-05  0.0271
   1.7474E-01   1.7899E-01   6.7647E-05  0.0264
   1.7899E-01   1.8334E-01   6.9209E-05  0.0258
   1.8334E-01   1.8781E-01   6.7565E-05  0.0258
   1.8781E-01   1.9237E-01   7.0118E-05  0.0250
   1.9237E-01   1.9706E-01   6.9521E-05  0.0248
   1.9706E-01   2.0185E-01   6.6284E-05  0.0251
   2.0185E-01   2.0676E-01   6.9882E-05  0.0241
   2.0676E-01   2.1179E-01   6.9255E-05  0.0240
   2.1179E-01   2.1694E-01   7.0832E-05  0.0234
   2.1694E-01   2.2222E-01   7.0551E-05  0.0232
   2.2222E-01   2.2763E-01   7.1021E-05  0.0228
   2.2763E-01   2.3317E-01   7.2656E-05  0.0223
   2.3317E-01   2.3884E-01   7.3821E-05  0.0219
   2.3884E-01   2.4465E-01   6.9246E-05  0.0223
   2.4465E-01   2.5061E-01   7.0759E-05  0.0218
   2.5061E-01   2.5670E-01   7.0522E-05  0.0216
   2.5670E-01   2.6295E-01   6.9647E-05  0.0214
   2.6295E-01   2.6935E-01   6.9900E-05  0.0211
   2.6935E-01   2.7590E-01   7.0101E-05  0.0209
   2.7590E-01   2.8261E-01   7.2726E-05  0.0202
   2.8261E-01   2.8949E-01   7.3616E-05  0.0199
   2.8949E-01   2.9653E-01   7.5304E-05  0.0194
   2.9653E-01   3.0375E-01   7.4263E-05  0.0193
   3.0375E-01   3.1114E-01   7.4935E-05  0.0190
   3.1114E-01   3.1871E-01   7.4317E-05  0.0189
   3.1871E-01   3.2646E-01   7.5634E-05  0.0185
   3.2646E-01   3.3441E-01   7.4933E-05  0.0183
   3.3441E-01   3.4254E-01   7.3153E-05  0.0183
   3.4254E-01   3.5088E-01   7.4511E-05  0.0179
   3.5088E-01   3.5941E-01   7.4241E-05  0.0178
   3.5941E-01   3.6816E-01   7.6331E-05  0.0173
   3.6816E-01   3.7712E-01   7.7074E-05  0.0170
   3.7712E-01   3.8629E-01   7.4459E-05  0.0171
   3.8629E-01   3.9569E-01   7.7074E-05  0.0166
   3.9569E-01   4.0532E-01   7.6552E-05  0.0165
   4.0532E-01   4.1518E-01   7.4977E-05  0.0164
   4.1518E-01   4.2528E-01   7.7671E-05  0.0160
   4.2528E-01   4.3563E-01   7.7604E-05  0.0158
   4.3563E-01   4.4623E-01   7.6704E-05  0.0157
   4.4623E-01   4.5708E-01   7.8345E-05  0.0153
   4.5708E-01   4.6821E-01   7.5567E-05  0.0154
   4.6821E-01   4.7960E-01   7.6915E-05  0.0151
   4.7960E-01   4.9127E-01   7.6699E-05  0.0149
   4.9127E-01   5.0322E-01   7.8274E-05  0.0146
   5.0322E-01   5.1546E-01   7.6121E-05  0.0146
   5.1546E-01   5.2800E-01   7.8586E-05  0.0142
   5.2800E-01   5.4085E-01   7.5116E-05  0.0144
   5.4085E-01   5.5401E-01   7.6615E-05  0.0141
   5.5401E-01   5.6749E-01   7.6946E-05  0.0139
   5.6749E-01   5.8130E-01   7.5235E-05  0.0139
   5.8130E-01   5.9544E-01   7.6474E-05  0.0136
   5.9544E-01   6.0993E-01   7.6272E-05  0.0135
   6.0993E-01   6.2477E-01   7.5512E-05  0.0134
   6.2477E-01   6.3997E-01   7.5402E-05  0.0132
   6.3997E-01   6.5554E-01   7.5859E-05  0.0130
   6.5554E-01   6.7149E-01   7.4860E-05  0.0129
   6.7149E-01   6.8783E-01   7.4465E-05  0.0128
   6.8783E-01   7.0456E-01   7.3891E-05  0.0127
   7.0456E-01   7.2171E-01   7.0794E-05  0.0128
   7.2171E-01   7.3927E-01   7.1721E-05  0.0126
   7.3927E-01   7.5725E-01   7.0729E-05  0.0125
   7.5725E-01   7.7568E-01   7.0308E-05  0.0124
   7.7568E-01   7.9455E-01   6.9899E-05  0.0123
   7.9455E-01   8.1388E-01   6.7318E-05  0.0124
   8.1388E-01   8.3368E-01   6.6871E-05  0.0123
   8.3368E-01   8.5397E-01   6.5588E-05  0.0123
   8.5397E-01   8.7475E-01   6.4343E-05  0.0122
   8.7475E-01   8.9603E-01   6.2020E-05  0.0123
   8.9603E-01   9.1783E-01   6.0896E-05  0.0123
   9.1783E-01   9.4016E-01   5.7175E-05  0.0125
   9.4016E-01   9.6304E-01   5.6691E-05  0.0124
   9.6304E-01   9.8647E-01   5.5908E-05  0.0124
   9.8647E-01   1.0105E+00   5.2722E-05  0.0126
   1.0105E+00   1.0351E+00   5.2746E-05  0.0124
   1.0351E+00   1.0602E+00   5.1910E-05  0.0124
   1.0602E+00   1.0860E+00   5.1650E-05  0.0123
   1.0860E+00   1.1125E+00   5.1233E-05  0.0122
   1.1125E+00   1.1395E+00   5.1557E-05  0.0120
   1.1395E+00   1.1673E+00   5.2284E-05  0.0117
   1.1673E+00   1.1957E+00   5.2919E-05  0.0115
   1.1957E+00   1.2247E+00   5.1332E-05  0.0116
   1.2247E+00   1.2545E+00   5.2478E-05  0.0113
   1.2545E+00   1.2851E+00   5.1048E-05  0.0113
   1.2851E+00   1.3163E+00   5.0853E-05  0.0112
   1.3163E+00   1.3484E+00   5.1918E-05  0.0110
   1.3484E+00   1.3812E+00   5.0715E-05  0.0110
   1.3812E+00   1.4148E+00   5.1034E-05  0.0108
   1.4148E+00   1.4492E+00   5.0804E-05  0.0107
   1.4492E+00   1.4845E+00   4.9937E-05  0.0107
   1.4845E+00   1.5206E+00   4.9543E-05  0.0106
   1.5206E+00   1.5576E+00   4.7815E-05  0.0106
   1.5576E+00   1.5955E+00   4.6996E-05  0.0106
   1.5955E+00   1.6343E+00   4.7451E-05  0.0104
   1.6343E+00   1.6741E+00   4.6251E-05  0.0104
   1.6741E+00   1.7148E+00   4.6554E-05  0.0103
   1.7148E+00   1.7565E+00   4.5659E-05  0.0102
   1.7565E+00   1.7992E+00   4.4315E-05  0.0103
   1.7992E+00   1.8430E+00   4.3667E-05  0.0102
   1.8430E+00   1.8879E+00   4.2491E-05  0.0102
   1.8879E+00   1.9338E+00   4.2344E-05  0.0101
   1.9338E+00   1.9808E+00   4.1721E-05  0.0101
   1.9808E+00   2.0290E+00   4.0058E-05  0.0102
   2.0290E+00   2.0784E+00   4.0097E-05  0.0101
   2.0784E+00   2.1290E+00   3.8122E-05  0.0102
   2.1290E+00   2.1808E+00   3.7282E-05  0.0102
   2.1808E+00   2.2338E+00   3.6593E-05  0.0101
   2.2338E+00   2.2882E+00   3.5157E-05  0.0102
   2.2882E+00   2.3439E+00   3.4496E-05  0.0102
   2.3439E+00   2.4009E+00   3.4423E-05  0.0101
   2.4009E+00   2.4593E+00   3.2870E-05  0.0102
   2.4593E+00   2.5191E+00   3.2378E-05  0.0102
   2.5191E+00   2.5804E+00   3.1606E-05  0.0102
   2.5804E+00   2.6432E+00   3.0307E-05  0.0103
   2.6432E+00   2.7075E+00   2.9324E-05  0.0103
   2.7075E+00   2.7734E+00   2.8620E-05  0.0103
   2.7734E+00   2.8409E+00   2.8102E-05  0.0103
   2.8409E+00   2.9100E+00   2.7625E-05  0.0102
   2.9100E+00   2.9808E+00   2.6118E-05  0.0104
   2.9808E+00   3.0533E+00   2.5969E-05  0.0103
   3.0533E+00   3.1276E+00   2.4853E-05  0.0104
   3.1276E+00   3.2037E+00   2.4645E-05  0.0103
   3.2037E+00   3.2817E+00   2.4018E-05  0.0103
   3.2817E+00   3.3615E+00   2.3013E-05  0.0104
   3.3615E+00   3.4433E+00   2.2474E-05  0.0104
   3.4433E+00   3.5271E+00   2.1552E-05  0.0105
   3.5271E+00   3.6129E+00   2.2006E-05  0.0103
   3.6129E+00   3.7008E+00   2.0678E-05  0.0105
   3.7008E+00   3.7908E+00   2.0299E-05  0.0105
   3.7908E+00   3.8831E+00   1.9715E-05  0.0105
   3.8831E+00   3.9776E+00   1.9288E-05  0.0105
   3.9776E+00   4.0743E+00   1.9044E-05  0.0104
   4.0743E+00   4.1735E+00   1.8594E-05  0.0104
   4.1735E+00   4.2750E+00   1.8012E-05  0.0105
   4.2750E+00   4.3790E+00   1.7449E-05  0.0105
   4.3790E+00   4.4856E+00   1.7165E-05  0.0105
   4.4856E+00   4.5947E+00   1.6793E-05  0.0104
   4.5947E+00   4.7065E+00   1.6448E-05  0.0104
   4.7065E+00   4.8210E+00   1.6137E-05  0.0104
   4.8210E+00   4.9383E+00   1.6018E-05  0.0103
   4.9383E+00   5.0585E+00   1.5897E-05  0.0102
   5.0585E+00   5.1815E+00   1.5737E-05  0.0102
   5.1815E+00   5.3076E+00   1.5556E-05  0.0101
   5.3076E+00   5.4368E+00   1.5045E-05  0.0101
   5.4368E+00   5.5690E+00   1.5073E-05  0.0100
   5.5690E+00   5.7045E+00   1.4551E-05  0.0101
   5.7045E+00   5.8433E+00   1.4727E-05  0.0099
   5.8433E+00   5.9855E+00   1.4728E-05  0.0098
   5.9855E+00   6.1311E+00   1.4342E-05  0.0098
   6.1311E+00   6.2803E+00   1.4708E-05  0.0095
   6.2803E+00   6.4331E+00   1.4430E-05  0.0095
   6.4331E+00   6.5896E+00   1.4474E-05  0.0094
   6.5896E+00   6.7500E+00   1.4560E-05  0.0093
   6.7500E+00   6.9142E+00   1.4692E-05  0.0091
   6.9142E+00   7.0824E+00   1.4575E-05  0.0090
   7.0824E+00   7.2548E+00   1.4640E-05  0.0089
   7.2548E+00   7.4313E+00   1.4689E-05  0.0088
   7.4313E+00   7.6121E+00   1.4948E-05  0.0086
   7.6121E+00   7.7973E+00   1.5186E-05  0.0084
   7.7973E+00   7.9870E+00   1.5013E-05  0.0084
   7.9870E+00   8.1813E+00   1.5469E-05  0.0082
   8.1813E+00   8.3804E+00   1.5936E-05  0.0079
   8.3804E+00   8.5843E+00   1.5895E-05  0.0079
   8.5843E+00   8.7931E+00   1.6459E-05  0.0076
   8.7931E+00   9.0071E+00   1.6738E-05  0.0075
   9.0071E+00   9.2262E+00   1.7465E-05  0.0072
   9.2262E+00   9.4507E+00   1.7643E-05  0.0071
   9.4507E+00   9.6807E+00   1.8239E-05  0.0069
   9.6807E+00   9.9162E+00   1.8844E-05  0.0067
   9.9162E+00   1.0157E+01   1.9387E-05  0.0065
   1.0157E+01   1.0405E+01   1.9997E-05  0.0064
   1.0405E+01   1.0658E+01   2.0691E-05  0.0062
   1.0658E+01   1.0917E+01   2.1719E-05  0.0060
   1.0917E+01   1.1183E+01   2.2500E-05  0.0058
   1.1183E+01   1.1455E+01   2.3405E-05  0.0056
   1.1455E+01   1.1733E+01   2.4360E-05  0.0054
   1.1733E+01   1.2019E+01   2.5465E-05  0.0052
   1.2019E+01   1.2311E+01   2.6499E-05  0.0051
   1.2311E+01   1.2611E+01   2.7489E-05  0.0049
   1.2611E+01   1.2918E+01   2.8869E-05  0.0048
   1.2918E+01   1.3232E+01   3.0293E-05  0.0046
   1.3232E+01   1.3554E+01   3.1825E-05  0.0044
   1.3554E+01   1.3884E+01   3.3134E-05  0.0043
   1.3884E+01   1.4222E+01   3.5139E-05  0.0041
   1.4222E+01   1.4568E+01   3.6419E-05  0.0040
   1.4568E+01   1.4922E+01   3.8623E-05  0.0038
   1.4922E+01   1.5285E+01   4.0348E-05  0.0037
   1.5285E+01   1.5657E+01   4.2090E-05  0.0036
   1.5657E+01   1.6038E+01   4.4128E-05  0.0034
   1.6038E+01   1.6428E+01   4.6176E-05  0.0033
   1.6428E+01   1.6828E+01   4.8434E-05  0.0032
   1.6828E+01   1.7237E+01   5.0509E-05  0.0031
   1.7237E+01   1.7657E+01   5.2564E-05  0.0030
   1.7657E+01   1.8086E+01   5.4803E-05  0.0029
   1.8086E+01   1.8526E+01   5.6891E-05  0.0028
   1.8526E+01   1.8977E+01   5.8747E-05  0.0027
   1.8977E+01   1.9439E+01   6.1165E-05  0.0027
   1.9439E+01   1.9912E+01   6.3231E-05  0.0026
   1.9912E+01   2.0396E+01   6.6271E-05  0.0025
   2.0396E+01   2.0893E+01   6.8650E-05  0.0024
   2.0893E+01   2.1401E+01   7.0180E-05  0.0024
   2.1401E+01   2.1922E+01   7.1913E-05  0.0023
   2.1922E+01   2.2455E+01   7.3379E-05  0.0023
   2.2455E+01   2.3001E+01   7.4676E-05  0.0022
   2.3001E+01   2.3561E+01   7.5669E-05  0.0022
   2.3561E+01   2.4134E+01   7.6234E-05  0.0021
   2.4134E+01   2.4721E+01   7.6748E-05  0.0021
   2.4721E+01   2.5323E+01   7.7202E-05  0.0021
   2.5323E+01   2.5939E+01   7.6739E-05  0.0021
   2.5939E+01   2.6570E+01   7.6574E-05  0.0020
   2.6570E+01   2.7217E+01   7.5801E-05  0.0020
   2.7217E+01   2.7879E+01   7.4551E-05  0.0020
   2.7879E+01   2.8557E+01   7.2846E-05  0.0020
   2.8557E+01   2.9252E+01   7.1032E-05  0.0020
   2.9252E+01   2.9964E+01   6.8686E-05  0.0020
   2.9964E+01   3.0693E+01   6.5997E-05  0.0020
   3.0693E+01   3.1440E+01   6.3309E-05  0.0021
   3.1440E+01   3.2205E+01   5.9902E-05  0.0021
   3.2205E+01   3.2988E+01   5.6224E-05  0.0021
   3.2988E+01   3.3791E+01   5.2596E-05  0.0022
   3.3791E+01   3.4613E+01   4.8881E-05  0.0022
   3.4613E+01   3.5455E+01   4.4953E-05  0.0023
   3.5455E+01   3.6318E+01   4.1072E-05  0.0024
   3.6318E+01   3.7201E+01   3.7347E-05  0.0025
   3.7201E+01   3.8106E+01   3.3782E-05  0.0026
   3.8106E+01   3.9034E+01   3.0482E-05  0.0027
   3.9034E+01   3.9983E+01   2.7268E-05  0.0028
   3.9983E+01   4.0956E+01   2.4547E-05  0.0029
   4.0956E+01   4.1953E+01   2.1796E-05  0.0030
   4.1953E+01   4.2973E+01   1.9266E-05  0.0032
   4.2973E+01   4.4019E+01   1.7226E-05  0.0033
   4.4019E+01   4.5090E+01   1.5054E-05  0.0035
   4.5090E+01   4.6187E+01   1.3366E-05  0.0037
   4.6187E+01   4.7311E+01   1.1807E-05  0.0039
   4.7311E+01   4.8462E+01   1.0352E-05  0.0041
   4.8462E+01   4.9641E+01   9.1818E-06  0.0043
   4.9641E+01   5.0849E+01   7.9930E-06  0.0046
   5.0849E+01   5.2086E+01   7.1169E-06  0.0048
   5.2086E+01   5.3353E+01   6.2008E-06  0.0050
   5.3353E+01   5.4651E+01   5.5192E-06  0.0053
   5.4651E+01   5.5981E+01   4.8275E-06  0.0056
   5.5981E+01   5.7343E+01   4.2284E-06  0.0059
   5.7343E+01   5.8738E+01   3.6906E-06  0.0062
   5.8738E+01   6.0168E+01   3.1592E-06  0.0067
   6.0168E+01   6.1632E+01   2.6820E-06  0.0071
   6.1632E+01   6.3131E+01   2.2340E-06  0.0077
   6.3131E+01   6.4667E+01   1.7700E-06  0.0086
   6.4667E+01   6.6240E+01   1.4657E-06  0.0093
   6.6240E+01   6.7852E+01   1.1758E-06  0.0103
   6.7852E+01   6.9503E+01   8.5759E-07  0.0119
   6.9503E+01   7.1194E+01   5.5385E-07  0.0146
   7.1194E+01   7.2926E+01   2.6948E-07  0.0207
   7.2926E+01   7.4701E+01   4.7454E-08  0.0487
   7.4701E+01   7.6518E+01   0.0000E+00  0.0000
   7.6518E+01   7.8380E+01   0.0000E+00  0.0000
   7.8380E+01   8.0287E+01   0.0000E+00  0.0000
   8.0287E+01   8.2240E+01   0.0000E+00  0.0000
   8.2240E+01   8.4241E+01   0.0000E+00  0.0000
   8.4241E+01   8.6291E+01   0.0000E+00  0.0000
   8.6291E+01   8.8391E+01   0.0000E+00  0.0000
   8.8391E+01   9.0541E+01   0.0000E+00  0.0000
   9.0541E+01   9.2744E+01   0.0000E+00  0.0000
   9.2744E+01   9.5001E+01   0.0000E+00  0.0000
   9.5001E+01   9.7312E+01   0.0000E+00  0.0000
   9.7312E+01   9.9680E+01   0.0000E+00  0.0000
   9.9680E+01   1.0211E+02   0.0000E+00  0.0000
   1.0211E+02   1.0459E+02   0.0000E+00  0.0000
   1.0459E+02   1.0713E+02   0.0000E+00  0.0000
   1.0713E+02   1.0974E+02   0.0000E+00  0.0000
   1.0974E+02   1.1241E+02   0.0000E+00  0.0000
   1.1241E+02   1.1515E+02   0.0000E+00  0.0000
   1.1515E+02   1.1795E+02   0.0000E+00  0.0000
   1.1795E+02   1.2082E+02   0.0000E+00  0.0000
   1.2082E+02   1.2376E+02   0.0000E+00  0.0000
   1.2376E+02   1.2677E+02   0.0000E+00  0.0000
   1.2677E+02   1.2985E+02   0.0000E+00  0.0000
   1.2985E+02   1.3301E+02   0.0000E+00  0.0000
   1.3301E+02   1.3625E+02   0.0000E+00  0.0000
   1.3625E+02   1.3956E+02   0.0000E+00  0.0000
   1.3956E+02   1.4296E+02   0.0000E+00  0.0000
   1.4296E+02   1.4644E+02   0.0000E+00  0.0000
   1.4644E+02   1.5000E+02   0.0000E+00  0.0000

#   sum over                 1.3907E-05
'no. =    1   reg = 100 - 200'
msuc: {\huge [t-cross] in region mesh}
msdr: {\it plotted by \ANGEL \version}
msdl: {\it calculated by \PHITS  3.26}
wt: s(0.7)
\vspace{-3}
  region surface crossing
  area  &=&   1.0000E+00 [cm^2]
e:
 
# Information for Restart Calculation
# This calculation was newly started
# istdev =  2 # 1:Batch variance, 2:History variance
# resc2  = 5.00000000000000000E+09 # Total source weight or Total source weight / maxcas
# resc3  = 5.00000000000000000E+09 # Total history number or Total batch number
# maxcas =   500000000 # History / Batch, only used for istdev=1
# bitrseed = 0110100000100010111000001110001111001110100100011111101000111001 # bit data of rseed
