[ T-Cross ]
    title = [t-cross] in region mesh
     mesh =  reg            # mesh type is region-wise
      reg =    1            # number of crossing regions
      non     r-from    r-to       area
      1       105       205        1.000000    
   e-type =    3            # e-mesh is log given by emin, emax and ne
     emin =  1.0000000E-02  # minimum value of e-mesh points
     emax =   150.0000      # maximum value of e-mesh points
#    edel =  2.4039514E-02  # mesh width of e-mesh points
       ne =    400          # number of e-mesh points
#    data = ( e(i), i = 1, ne + 1 )
#           1.00000E-02  1.02433E-02  1.04925E-02  1.07478E-02  1.10093E-02
#           1.12772E-02  1.15516E-02  1.18326E-02  1.21205E-02  1.24154E-02
#           1.27175E-02  1.30269E-02  1.33439E-02  1.36686E-02  1.40011E-02
#           1.43418E-02  1.46907E-02  1.50482E-02  1.54143E-02  1.57894E-02
#           1.61735E-02  1.65670E-02  1.69701E-02  1.73830E-02  1.78060E-02
#           1.82392E-02  1.86830E-02  1.91375E-02  1.96032E-02  2.00801E-02
#           2.05687E-02  2.10692E-02  2.15818E-02  2.21069E-02  2.26448E-02
#           2.31957E-02  2.37601E-02  2.43382E-02  2.49304E-02  2.55369E-02
#           2.61583E-02  2.67947E-02  2.74467E-02  2.81145E-02  2.87985E-02
#           2.94992E-02  3.02169E-02  3.09521E-02  3.17052E-02  3.24766E-02
#           3.32668E-02  3.40762E-02  3.49053E-02  3.57546E-02  3.66246E-02
#           3.75157E-02  3.84284E-02  3.93634E-02  4.03212E-02  4.13022E-02
#           4.23071E-02  4.33365E-02  4.43909E-02  4.54710E-02  4.65773E-02
#           4.77106E-02  4.88714E-02  5.00605E-02  5.12785E-02  5.25262E-02
#           5.38042E-02  5.51133E-02  5.64542E-02  5.78278E-02  5.92348E-02
#           6.06760E-02  6.21523E-02  6.36645E-02  6.52135E-02  6.68002E-02
#           6.84255E-02  7.00904E-02  7.17957E-02  7.35426E-02  7.53319E-02
#           7.71648E-02  7.90423E-02  8.09655E-02  8.29354E-02  8.49533E-02
#           8.70203E-02  8.91376E-02  9.13064E-02  9.35279E-02  9.58035E-02
#           9.81345E-02  1.00522E-01  1.02968E-01  1.05473E-01  1.08040E-01
#           1.10668E-01  1.13361E-01  1.16119E-01  1.18944E-01  1.21838E-01
#           1.24803E-01  1.27839E-01  1.30950E-01  1.34136E-01  1.37399E-01
#           1.40742E-01  1.44167E-01  1.47675E-01  1.51268E-01  1.54948E-01
#           1.58718E-01  1.62580E-01  1.66535E-01  1.70587E-01  1.74738E-01
#           1.78989E-01  1.83344E-01  1.87805E-01  1.92375E-01  1.97055E-01
#           2.01850E-01  2.06761E-01  2.11792E-01  2.16945E-01  2.22223E-01
#           2.27630E-01  2.33169E-01  2.38842E-01  2.44653E-01  2.50605E-01
#           2.56703E-01  2.62949E-01  2.69346E-01  2.75900E-01  2.82613E-01
#           2.89489E-01  2.96532E-01  3.03747E-01  3.11138E-01  3.18708E-01
#           3.26462E-01  3.34405E-01  3.42542E-01  3.50876E-01  3.59413E-01
#           3.68158E-01  3.77116E-01  3.86291E-01  3.95690E-01  4.05317E-01
#           4.15179E-01  4.25281E-01  4.35628E-01  4.46227E-01  4.57084E-01
#           4.68205E-01  4.79597E-01  4.91266E-01  5.03219E-01  5.15463E-01
#           5.28005E-01  5.40851E-01  5.54011E-01  5.67490E-01  5.81298E-01
#           5.95441E-01  6.09929E-01  6.24769E-01  6.39970E-01  6.55541E-01
#           6.71491E-01  6.87828E-01  7.04564E-01  7.21706E-01  7.39266E-01
#           7.57253E-01  7.75678E-01  7.94551E-01  8.13883E-01  8.33685E-01
#           8.53969E-01  8.74747E-01  8.96030E-01  9.17831E-01  9.40163E-01
#           9.63038E-01  9.86469E-01  1.01047E+00  1.03506E+00  1.06024E+00
#           1.08604E+00  1.11246E+00  1.13953E+00  1.16725E+00  1.19565E+00
#           1.22474E+00  1.25454E+00  1.28507E+00  1.31633E+00  1.34836E+00
#           1.38117E+00  1.41477E+00  1.44920E+00  1.48446E+00  1.52057E+00
#           1.55757E+00  1.59547E+00  1.63429E+00  1.67405E+00  1.71478E+00
#           1.75650E+00  1.79924E+00  1.84302E+00  1.88786E+00  1.93379E+00
#           1.98084E+00  2.02904E+00  2.07841E+00  2.12898E+00  2.18078E+00
#           2.23384E+00  2.28819E+00  2.34386E+00  2.40089E+00  2.45930E+00
#           2.51914E+00  2.58043E+00  2.64322E+00  2.70753E+00  2.77341E+00
#           2.84088E+00  2.91001E+00  2.98081E+00  3.05333E+00  3.12762E+00
#           3.20372E+00  3.28167E+00  3.36152E+00  3.44330E+00  3.52708E+00
#           3.61290E+00  3.70080E+00  3.79085E+00  3.88308E+00  3.97756E+00
#           4.07434E+00  4.17347E+00  4.27501E+00  4.37903E+00  4.48557E+00
#           4.59471E+00  4.70650E+00  4.82102E+00  4.93832E+00  5.05847E+00
#           5.18155E+00  5.30762E+00  5.43676E+00  5.56904E+00  5.70453E+00
#           5.84333E+00  5.98550E+00  6.13114E+00  6.28031E+00  6.43312E+00
#           6.58964E+00  6.74997E+00  6.91420E+00  7.08243E+00  7.25475E+00
#           7.43126E+00  7.61207E+00  7.79728E+00  7.98700E+00  8.18133E+00
#           8.38038E+00  8.58428E+00  8.79315E+00  9.00709E+00  9.22624E+00
#           9.45072E+00  9.68067E+00  9.91620E+00  1.01575E+01  1.04046E+01
#           1.06578E+01  1.09171E+01  1.11827E+01  1.14548E+01  1.17335E+01
#           1.20190E+01  1.23114E+01  1.26109E+01  1.29178E+01  1.32321E+01
#           1.35540E+01  1.38838E+01  1.42216E+01  1.45676E+01  1.49221E+01
#           1.52851E+01  1.56570E+01  1.60380E+01  1.64282E+01  1.68279E+01
#           1.72374E+01  1.76568E+01  1.80864E+01  1.85264E+01  1.89772E+01
#           1.94389E+01  1.99119E+01  2.03963E+01  2.08926E+01  2.14009E+01
#           2.19216E+01  2.24550E+01  2.30014E+01  2.35610E+01  2.41343E+01
#           2.47215E+01  2.53230E+01  2.59391E+01  2.65702E+01  2.72167E+01
#           2.78789E+01  2.85572E+01  2.92520E+01  2.99637E+01  3.06928E+01
#           3.14396E+01  3.22045E+01  3.29881E+01  3.37907E+01  3.46128E+01
#           3.54550E+01  3.63177E+01  3.72013E+01  3.81064E+01  3.90336E+01
#           3.99833E+01  4.09561E+01  4.19526E+01  4.29734E+01  4.40189E+01
#           4.50900E+01  4.61870E+01  4.73108E+01  4.84619E+01  4.96410E+01
#           5.08488E+01  5.20860E+01  5.33533E+01  5.46514E+01  5.59812E+01
#           5.73432E+01  5.87384E+01  6.01676E+01  6.16315E+01  6.31311E+01
#           6.46671E+01  6.62405E+01  6.78522E+01  6.95031E+01  7.11941E+01
#           7.29263E+01  7.47007E+01  7.65182E+01  7.83800E+01  8.02870E+01
#           8.22405E+01  8.42414E+01  8.62911E+01  8.83906E+01  9.05412E+01
#           9.27442E+01  9.50007E+01  9.73122E+01  9.96799E+01  1.02105E+02
#           1.04589E+02  1.07134E+02  1.09741E+02  1.12411E+02  1.15146E+02
#           1.17948E+02  1.20817E+02  1.23757E+02  1.26768E+02  1.29852E+02
#           1.33012E+02  1.36248E+02  1.39563E+02  1.42959E+02  1.46437E+02
#           1.50000E+02
     unit =    2            # unit is [1/cm^2/(MeV/n)/source]
     axis =  eng            # axis of output
     file = detector-06.out  # file name of output for the above axis
   output = f-curr          # surface crossing forward current spectrum
     part =  neutron  
# kf/name :  2112     
#    used :        main (  %)        temp (  %)       total (  %)
#  memory :         414 (  0)           0 (  0)         414 (  0)

#------------------------------------------------------------------------------
#newpage:
#   no. =    1   reg = 105 - 205

x: Energy [MeV/n]
y:  F-Curr [1/cm^2/(MeV/n)/source]         
p: xlog ylog afac(0.8) form(0.9)
h: n            x            y(neutron ),hh0l   n 
#  e-lower      e-upper      neutron     r.err 
   1.0000E-02   1.0243E-02   8.1101E-04  0.1005
   1.0243E-02   1.0493E-02   9.6172E-04  0.0909
   1.0493E-02   1.0748E-02   8.6777E-04  0.0945
   1.0748E-02   1.1009E-02   9.3090E-04  0.0904
   1.1009E-02   1.1277E-02   8.2097E-04  0.0950
   1.1277E-02   1.1552E-02   7.8933E-04  0.0960
   1.1552E-02   1.1833E-02   8.2627E-04  0.0925
   1.1833E-02   1.2121E-02   8.5673E-04  0.0899
   1.2121E-02   1.2415E-02   8.6791E-04  0.0882
   1.2415E-02   1.2718E-02   8.4864E-04  0.0880
   1.2718E-02   1.3027E-02   7.2742E-04  0.0941
   1.3027E-02   1.3344E-02   7.2139E-04  0.0934
   1.3344E-02   1.3669E-02   6.4128E-04  0.0977
   1.3669E-02   1.4001E-02   6.6069E-04  0.0952
   1.4001E-02   1.4342E-02   6.1058E-04  0.0981
   1.4342E-02   1.4691E-02   7.6508E-04  0.0864
   1.4691E-02   1.5048E-02   6.4712E-04  0.0928
   1.5048E-02   1.5414E-02   5.9549E-04  0.0955
   1.5414E-02   1.5789E-02   7.4954E-04  0.0840
   1.5789E-02   1.6174E-02   6.5956E-04  0.0886
   1.6174E-02   1.6567E-02   5.6767E-04  0.0944
   1.6567E-02   1.6970E-02   5.7601E-04  0.0925
   1.6970E-02   1.7383E-02   5.9609E-04  0.0899
   1.7383E-02   1.7806E-02   7.2200E-04  0.0806
   1.7806E-02   1.8239E-02   5.8711E-04  0.0886
   1.8239E-02   1.8683E-02   4.9110E-04  0.0953
   1.8683E-02   1.9138E-02   5.8292E-04  0.0866
   1.9138E-02   1.9603E-02   5.0851E-04  0.0918
   1.9603E-02   2.0080E-02   5.2390E-04  0.0890
   2.0080E-02   2.0569E-02   4.7891E-04  0.0919
   2.0569E-02   2.1069E-02   5.2876E-04  0.0866
   2.1069E-02   2.1582E-02   5.1741E-04  0.0865
   2.1582E-02   2.2107E-02   5.1038E-04  0.0862
   2.2107E-02   2.2645E-02   4.6044E-04  0.0897
   2.2645E-02   2.3196E-02   4.6040E-04  0.0886
   2.3196E-02   2.3760E-02   4.2739E-04  0.0909
   2.3760E-02   2.4338E-02   4.8209E-04  0.0846
   2.4338E-02   2.4930E-02   4.5036E-04  0.0865
   2.4930E-02   2.5537E-02   4.7493E-04  0.0829
   2.5537E-02   2.6158E-02   4.7009E-04  0.0826
   2.6158E-02   2.6795E-02   4.5150E-04  0.0831
   2.6795E-02   2.7447E-02   4.2376E-04  0.0848
   2.7447E-02   2.8114E-02   5.2811E-04  0.0751
   2.8114E-02   2.8799E-02   4.1667E-04  0.0836
   2.8799E-02   2.9499E-02   4.2484E-04  0.0818
   2.9499E-02   3.0217E-02   4.4902E-04  0.0786
   3.0217E-02   3.0952E-02   4.2750E-04  0.0794
   3.0952E-02   3.1705E-02   4.0491E-04  0.0809
   3.1705E-02   3.2477E-02   3.3667E-04  0.0874
   3.2477E-02   3.3267E-02   3.6023E-04  0.0836
   3.3267E-02   3.4076E-02   3.3975E-04  0.0850
   3.4076E-02   3.4905E-02   3.7435E-04  0.0801
   3.4905E-02   3.5755E-02   3.3204E-04  0.0838
   3.5755E-02   3.6625E-02   3.7574E-04  0.0779
   3.6625E-02   3.7516E-02   3.5005E-04  0.0799
   3.7516E-02   3.8428E-02   3.1975E-04  0.0824
   3.8428E-02   3.9363E-02   3.1702E-04  0.0817
   3.9363E-02   4.0321E-02   3.3953E-04  0.0781
   4.0321E-02   4.1302E-02   3.2305E-04  0.0793
   4.1302E-02   4.2307E-02   3.4010E-04  0.0764
   4.2307E-02   4.3337E-02   2.8274E-04  0.0824
   4.3337E-02   4.4391E-02   3.0525E-04  0.0787
   4.4391E-02   4.5471E-02   3.3912E-04  0.0735
   4.5471E-02   4.6577E-02   3.1300E-04  0.0758
   4.6577E-02   4.7711E-02   2.8123E-04  0.0790
   4.7711E-02   4.8871E-02   3.1451E-04  0.0739
   4.8871E-02   5.0061E-02   2.7555E-04  0.0780
   5.0061E-02   5.1279E-02   2.4029E-04  0.0824
   5.1279E-02   5.2526E-02   2.5601E-04  0.0789
   5.2526E-02   5.3804E-02   2.3579E-04  0.0813
   5.3804E-02   5.5113E-02   2.7906E-04  0.0739
   5.5113E-02   5.6454E-02   2.7941E-04  0.0728
   5.6454E-02   5.7828E-02   2.4977E-04  0.0760
   5.7828E-02   5.9235E-02   2.3927E-04  0.0768
   5.9235E-02   6.0676E-02   2.5557E-04  0.0734
   6.0676E-02   6.2152E-02   2.5589E-04  0.0725
   6.2152E-02   6.3665E-02   2.1973E-04  0.0774
   6.3665E-02   6.5214E-02   2.3365E-04  0.0742
   6.5214E-02   6.6800E-02   2.3575E-04  0.0729
   6.6800E-02   6.8426E-02   2.0832E-04  0.0768
   6.8426E-02   7.0090E-02   2.1627E-04  0.0742
   7.0090E-02   7.1796E-02   1.8195E-04  0.0801
   7.1796E-02   7.3543E-02   2.0097E-04  0.0753
   7.3543E-02   7.5332E-02   1.7922E-04  0.0787
   7.5332E-02   7.7165E-02   1.8308E-04  0.0771
   7.7165E-02   7.9042E-02   1.8904E-04  0.0748
   7.9042E-02   8.0965E-02   2.2033E-04  0.0685
   8.0965E-02   8.2935E-02   2.1517E-04  0.0685
   8.2935E-02   8.4953E-02   1.7800E-04  0.0744
   8.4953E-02   8.7020E-02   1.9709E-04  0.0699
   8.7020E-02   8.9138E-02   1.8206E-04  0.0719
   8.9138E-02   9.1306E-02   1.6506E-04  0.0746
   9.1306E-02   9.3528E-02   1.6636E-04  0.0735
   9.3528E-02   9.5804E-02   1.6096E-04  0.0737
   9.5804E-02   9.8134E-02   1.5417E-04  0.0744
   9.8134E-02   1.0052E-01   1.4138E-04  0.0766
   1.0052E-01   1.0297E-01   1.3783E-04  0.0768
   1.0297E-01   1.0547E-01   1.5867E-04  0.0707
   1.0547E-01   1.0804E-01   1.5013E-04  0.0719
   1.0804E-01   1.1067E-01   1.4218E-04  0.0730
   1.1067E-01   1.1336E-01   1.3641E-04  0.0737
   1.1336E-01   1.1612E-01   1.6311E-04  0.0666
   1.1612E-01   1.1894E-01   1.5060E-04  0.0684
   1.1894E-01   1.2184E-01   1.2464E-04  0.0743
   1.2184E-01   1.2480E-01   1.2471E-04  0.0733
   1.2480E-01   1.2784E-01   1.2726E-04  0.0718
   1.2784E-01   1.3095E-01   1.1860E-04  0.0734
   1.3095E-01   1.3414E-01   1.4320E-04  0.0660
   1.3414E-01   1.3740E-01   1.1369E-04  0.0732
   1.3740E-01   1.4074E-01   1.1237E-04  0.0729
   1.4074E-01   1.4417E-01   9.4379E-05  0.0785
   1.4417E-01   1.4767E-01   1.1201E-04  0.0712
   1.4767E-01   1.5127E-01   1.0983E-04  0.0711
   1.5127E-01   1.5495E-01   9.4605E-05  0.0753
   1.5495E-01   1.5872E-01   9.6352E-05  0.0741
   1.5872E-01   1.6258E-01   1.0033E-04  0.0715
   1.6258E-01   1.6654E-01   9.3172E-05  0.0736
   1.6654E-01   1.7059E-01   9.2218E-05  0.0729
   1.7059E-01   1.7474E-01   7.8883E-05  0.0777
   1.7474E-01   1.7899E-01   8.1693E-05  0.0758
   1.7899E-01   1.8334E-01   8.3075E-05  0.0741
   1.8334E-01   1.8781E-01   8.3718E-05  0.0731
   1.8781E-01   1.9237E-01   8.8068E-05  0.0704
   1.9237E-01   1.9706E-01   7.8434E-05  0.0737
   1.9706E-01   2.0185E-01   8.7932E-05  0.0687
   2.0185E-01   2.0676E-01   7.8630E-05  0.0715
   2.0676E-01   2.1179E-01   8.0332E-05  0.0701
   2.1179E-01   2.1694E-01   8.9623E-05  0.0656
   2.1694E-01   2.2222E-01   9.1887E-05  0.0639
   2.2222E-01   2.2763E-01   8.2769E-05  0.0666
   2.2763E-01   2.3317E-01   9.7011E-05  0.0608
   2.3317E-01   2.3884E-01   9.9907E-05  0.0593
   2.3884E-01   2.4465E-01   1.0179E-04  0.0580
   2.4465E-01   2.5061E-01   1.0098E-04  0.0574
   2.5061E-01   2.5670E-01   9.6273E-05  0.0582
   2.5670E-01   2.6295E-01   1.0915E-04  0.0540
   2.6295E-01   2.6935E-01   1.0446E-04  0.0545
   2.6935E-01   2.7590E-01   1.1250E-04  0.0520
   2.7590E-01   2.8261E-01   1.2106E-04  0.0495
   2.8261E-01   2.8949E-01   1.1377E-04  0.0504
   2.8949E-01   2.9653E-01   1.2277E-04  0.0480
   2.9653E-01   3.0375E-01   1.2576E-04  0.0469
   3.0375E-01   3.1114E-01   1.3467E-04  0.0447
   3.1114E-01   3.1871E-01   1.2195E-04  0.0464
   3.1871E-01   3.2646E-01   1.3085E-04  0.0443
   3.2646E-01   3.3441E-01   1.3215E-04  0.0435
   3.3441E-01   3.4254E-01   1.3587E-04  0.0424
   3.4254E-01   3.5088E-01   1.4293E-04  0.0408
   3.5088E-01   3.5941E-01   1.4708E-04  0.0398
   3.5941E-01   3.6816E-01   1.4489E-04  0.0396
   3.6816E-01   3.7712E-01   1.5924E-04  0.0373
   3.7712E-01   3.8629E-01   1.6076E-04  0.0367
   3.8629E-01   3.9569E-01   1.6309E-04  0.0360
   3.9569E-01   4.0532E-01   1.5767E-04  0.0362
   4.0532E-01   4.1518E-01   1.8150E-04  0.0333
   4.1518E-01   4.2528E-01   1.7477E-04  0.0336
   4.2528E-01   4.3563E-01   1.7284E-04  0.0334
   4.3563E-01   4.4623E-01   1.7589E-04  0.0326
   4.4623E-01   4.5708E-01   1.8837E-04  0.0312
   4.5708E-01   4.6821E-01   1.8004E-04  0.0315
   4.6821E-01   4.7960E-01   1.9406E-04  0.0300
   4.7960E-01   4.9127E-01   1.9140E-04  0.0298
   4.9127E-01   5.0322E-01   2.0944E-04  0.0282
   5.0322E-01   5.1546E-01   1.9716E-04  0.0287
   5.1546E-01   5.2800E-01   2.0637E-04  0.0277
   5.2800E-01   5.4085E-01   2.1603E-04  0.0268
   5.4085E-01   5.5401E-01   2.2740E-04  0.0258
   5.5401E-01   5.6749E-01   2.2319E-04  0.0257
   5.6749E-01   5.8130E-01   2.3086E-04  0.0250
   5.8130E-01   5.9544E-01   2.3180E-04  0.0246
   5.9544E-01   6.0993E-01   2.2595E-04  0.0246
   6.0993E-01   6.2477E-01   2.3782E-04  0.0237
   6.2477E-01   6.3997E-01   2.4321E-04  0.0232
   6.3997E-01   6.5554E-01   2.5632E-04  0.0223
   6.5554E-01   6.7149E-01   2.6565E-04  0.0217
   6.7149E-01   6.8783E-01   2.6056E-04  0.0216
   6.8783E-01   7.0456E-01   2.6001E-04  0.0214
   7.0456E-01   7.2171E-01   2.6964E-04  0.0207
   7.2171E-01   7.3927E-01   2.7251E-04  0.0204
   7.3927E-01   7.5725E-01   2.7824E-04  0.0199
   7.5725E-01   7.7568E-01   2.8290E-04  0.0195
   7.7568E-01   7.9455E-01   2.9071E-04  0.0190
   7.9455E-01   8.1388E-01   2.9717E-04  0.0186
   8.1388E-01   8.3368E-01   3.1281E-04  0.0179
   8.3368E-01   8.5397E-01   3.0075E-04  0.0181
   8.5397E-01   8.7475E-01   3.0420E-04  0.0177
   8.7475E-01   8.9603E-01   3.1193E-04  0.0173
   8.9603E-01   9.1783E-01   3.1869E-04  0.0169
   9.1783E-01   9.4016E-01   3.2298E-04  0.0166
   9.4016E-01   9.6304E-01   3.2958E-04  0.0162
   9.6304E-01   9.8647E-01   3.3919E-04  0.0158
   9.8647E-01   1.0105E+00   3.2487E-04  0.0160
   1.0105E+00   1.0351E+00   3.4588E-04  0.0153
   1.0351E+00   1.0602E+00   3.3831E-04  0.0153
   1.0602E+00   1.0860E+00   3.5489E-04  0.0147
   1.0860E+00   1.1125E+00   3.4491E-04  0.0148
   1.1125E+00   1.1395E+00   3.5055E-04  0.0145
   1.1395E+00   1.1673E+00   3.5709E-04  0.0142
   1.1673E+00   1.1957E+00   3.7998E-04  0.0136
   1.1957E+00   1.2247E+00   3.8240E-04  0.0134
   1.2247E+00   1.2545E+00   3.8058E-04  0.0132
   1.2545E+00   1.2851E+00   3.6918E-04  0.0133
   1.2851E+00   1.3163E+00   3.8035E-04  0.0129
   1.3163E+00   1.3484E+00   3.7767E-04  0.0128
   1.3484E+00   1.3812E+00   3.9225E-04  0.0124
   1.3812E+00   1.4148E+00   3.8793E-04  0.0123
   1.4148E+00   1.4492E+00   3.9788E-04  0.0121
   1.4492E+00   1.4845E+00   3.9690E-04  0.0119
   1.4845E+00   1.5206E+00   4.0899E-04  0.0116
   1.5206E+00   1.5576E+00   4.0378E-04  0.0115
   1.5576E+00   1.5955E+00   4.0904E-04  0.0113
   1.5955E+00   1.6343E+00   4.0973E-04  0.0112
   1.6343E+00   1.6741E+00   4.0495E-04  0.0111
   1.6741E+00   1.7148E+00   4.1239E-04  0.0109
   1.7148E+00   1.7565E+00   4.1346E-04  0.0107
   1.7565E+00   1.7992E+00   4.1509E-04  0.0106
   1.7992E+00   1.8430E+00   4.1968E-04  0.0104
   1.8430E+00   1.8879E+00   4.1428E-04  0.0103
   1.8879E+00   1.9338E+00   4.1022E-04  0.0103
   1.9338E+00   1.9808E+00   4.1863E-04  0.0100
   1.9808E+00   2.0290E+00   4.2099E-04  0.0099
   2.0290E+00   2.0784E+00   4.2179E-04  0.0098
   2.0784E+00   2.1290E+00   4.2524E-04  0.0096
   2.1290E+00   2.1808E+00   4.2251E-04  0.0095
   2.1808E+00   2.2338E+00   4.2040E-04  0.0094
   2.2338E+00   2.2882E+00   4.1988E-04  0.0093
   2.2882E+00   2.3439E+00   4.2589E-04  0.0092
   2.3439E+00   2.4009E+00   4.2167E-04  0.0091
   2.4009E+00   2.4593E+00   4.2385E-04  0.0090
   2.4593E+00   2.5191E+00   4.2046E-04  0.0089
   2.5191E+00   2.5804E+00   4.2756E-04  0.0087
   2.5804E+00   2.6432E+00   4.2979E-04  0.0086
   2.6432E+00   2.7075E+00   4.2612E-04  0.0085
   2.7075E+00   2.7734E+00   4.2431E-04  0.0084
   2.7734E+00   2.8409E+00   4.2932E-04  0.0083
   2.8409E+00   2.9100E+00   4.1896E-04  0.0083
   2.9100E+00   2.9808E+00   4.2808E-04  0.0081
   2.9808E+00   3.0533E+00   4.1852E-04  0.0081
   3.0533E+00   3.1276E+00   4.2006E-04  0.0080
   3.1276E+00   3.2037E+00   4.2143E-04  0.0079
   3.2037E+00   3.2817E+00   4.2206E-04  0.0078
   3.2817E+00   3.3615E+00   4.1453E-04  0.0077
   3.3615E+00   3.4433E+00   4.1024E-04  0.0077
   3.4433E+00   3.5271E+00   4.0803E-04  0.0076
   3.5271E+00   3.6129E+00   4.1470E-04  0.0075
   3.6129E+00   3.7008E+00   4.1177E-04  0.0074
   3.7008E+00   3.7908E+00   4.1289E-04  0.0073
   3.7908E+00   3.8831E+00   4.0423E-04  0.0073
   3.8831E+00   3.9776E+00   4.0853E-04  0.0072
   3.9776E+00   4.0743E+00   4.0441E-04  0.0071
   4.0743E+00   4.1735E+00   4.0405E-04  0.0070
   4.1735E+00   4.2750E+00   3.9964E-04  0.0070
   4.2750E+00   4.3790E+00   4.0338E-04  0.0069
   4.3790E+00   4.4856E+00   3.9765E-04  0.0069
   4.4856E+00   4.5947E+00   4.0182E-04  0.0067
   4.5947E+00   4.7065E+00   4.0180E-04  0.0067
   4.7065E+00   4.8210E+00   4.0233E-04  0.0066
   4.8210E+00   4.9383E+00   4.0365E-04  0.0065
   4.9383E+00   5.0585E+00   4.0119E-04  0.0064
   5.0585E+00   5.1815E+00   4.0132E-04  0.0063
   5.1815E+00   5.3076E+00   3.9785E-04  0.0063
   5.3076E+00   5.4368E+00   3.9276E-04  0.0063
   5.4368E+00   5.5690E+00   3.9359E-04  0.0062
   5.5690E+00   5.7045E+00   3.9112E-04  0.0061
   5.7045E+00   5.8433E+00   3.9352E-04  0.0060
   5.8433E+00   5.9855E+00   3.8309E-04  0.0060
   5.9855E+00   6.1311E+00   3.8686E-04  0.0059
   6.1311E+00   6.2803E+00   3.8714E-04  0.0059
   6.2803E+00   6.4331E+00   3.7982E-04  0.0059
   6.4331E+00   6.5896E+00   3.7629E-04  0.0058
   6.5896E+00   6.7500E+00   3.7580E-04  0.0057
   6.7500E+00   6.9142E+00   3.7348E-04  0.0057
   6.9142E+00   7.0824E+00   3.6605E-04  0.0057
   7.0824E+00   7.2548E+00   3.6607E-04  0.0056
   7.2548E+00   7.4313E+00   3.6509E-04  0.0056
   7.4313E+00   7.6121E+00   3.6236E-04  0.0055
   7.6121E+00   7.7973E+00   3.5597E-04  0.0055
   7.7973E+00   7.9870E+00   3.5568E-04  0.0054
   7.9870E+00   8.1813E+00   3.5096E-04  0.0054
   8.1813E+00   8.3804E+00   3.4945E-04  0.0054
   8.3804E+00   8.5843E+00   3.4517E-04  0.0053
   8.5843E+00   8.7931E+00   3.4050E-04  0.0053
   8.7931E+00   9.0071E+00   3.4126E-04  0.0052
   9.0071E+00   9.2262E+00   3.3555E-04  0.0052
   9.2262E+00   9.4507E+00   3.2996E-04  0.0052
   9.4507E+00   9.6807E+00   3.2781E-04  0.0051
   9.6807E+00   9.9162E+00   3.2782E-04  0.0051
   9.9162E+00   1.0157E+01   3.2716E-04  0.0050
   1.0157E+01   1.0405E+01   3.2615E-04  0.0050
   1.0405E+01   1.0658E+01   3.2181E-04  0.0050
   1.0658E+01   1.0917E+01   3.2364E-04  0.0049
   1.0917E+01   1.1183E+01   3.1853E-04  0.0049
   1.1183E+01   1.1455E+01   3.1561E-04  0.0048
   1.1455E+01   1.1733E+01   3.1537E-04  0.0048
   1.1733E+01   1.2019E+01   3.1267E-04  0.0047
   1.2019E+01   1.2311E+01   3.1230E-04  0.0047
   1.2311E+01   1.2611E+01   3.1159E-04  0.0046
   1.2611E+01   1.2918E+01   3.0844E-04  0.0046
   1.2918E+01   1.3232E+01   3.0622E-04  0.0046
   1.3232E+01   1.3554E+01   3.0312E-04  0.0045
   1.3554E+01   1.3884E+01   3.0650E-04  0.0044
   1.3884E+01   1.4222E+01   3.0228E-04  0.0044
   1.4222E+01   1.4568E+01   3.0179E-04  0.0044
   1.4568E+01   1.4922E+01   3.0158E-04  0.0043
   1.4922E+01   1.5285E+01   3.0041E-04  0.0043
   1.5285E+01   1.5657E+01   2.9969E-04  0.0042
   1.5657E+01   1.6038E+01   2.9676E-04  0.0042
   1.6038E+01   1.6428E+01   2.9812E-04  0.0041
   1.6428E+01   1.6828E+01   2.9498E-04  0.0041
   1.6828E+01   1.7237E+01   2.9394E-04  0.0041
   1.7237E+01   1.7657E+01   2.9013E-04  0.0041
   1.7657E+01   1.8086E+01   2.9094E-04  0.0040
   1.8086E+01   1.8526E+01   2.9063E-04  0.0040
   1.8526E+01   1.8977E+01   2.8732E-04  0.0039
   1.8977E+01   1.9439E+01   2.8809E-04  0.0039
   1.9439E+01   1.9912E+01   2.8899E-04  0.0038
   1.9912E+01   2.0396E+01   2.9456E-04  0.0037
   2.0396E+01   2.0893E+01   2.9470E-04  0.0037
   2.0893E+01   2.1401E+01   2.9260E-04  0.0037
   2.1401E+01   2.1922E+01   2.9053E-04  0.0036
   2.1922E+01   2.2455E+01   2.8933E-04  0.0036
   2.2455E+01   2.3001E+01   2.8798E-04  0.0036
   2.3001E+01   2.3561E+01   2.8391E-04  0.0035
   2.3561E+01   2.4134E+01   2.7992E-04  0.0035
   2.4134E+01   2.4721E+01   2.7528E-04  0.0035
   2.4721E+01   2.5323E+01   2.7205E-04  0.0035
   2.5323E+01   2.5939E+01   2.7016E-04  0.0035
   2.5939E+01   2.6570E+01   2.6522E-04  0.0035
   2.6570E+01   2.7217E+01   2.5924E-04  0.0035
   2.7217E+01   2.7879E+01   2.5567E-04  0.0034
   2.7879E+01   2.8557E+01   2.4993E-04  0.0034
   2.8557E+01   2.9252E+01   2.4259E-04  0.0034
   2.9252E+01   2.9964E+01   2.3855E-04  0.0034
   2.9964E+01   3.0693E+01   2.2953E-04  0.0035
   3.0693E+01   3.1440E+01   2.2221E-04  0.0035
   3.1440E+01   3.2205E+01   2.1290E-04  0.0035
   3.2205E+01   3.2988E+01   2.0436E-04  0.0035
   3.2988E+01   3.3791E+01   1.9442E-04  0.0036
   3.3791E+01   3.4613E+01   1.8543E-04  0.0036
   3.4613E+01   3.5455E+01   1.7595E-04  0.0037
   3.5455E+01   3.6318E+01   1.6467E-04  0.0038
   3.6318E+01   3.7201E+01   1.5521E-04  0.0038
   3.7201E+01   3.8106E+01   1.4612E-04  0.0039
   3.8106E+01   3.9034E+01   1.3637E-04  0.0040
   3.9034E+01   3.9983E+01   1.2666E-04  0.0041
   3.9983E+01   4.0956E+01   1.1716E-04  0.0042
   4.0956E+01   4.1953E+01   1.0705E-04  0.0043
   4.1953E+01   4.2973E+01   9.8709E-05  0.0045
   4.2973E+01   4.4019E+01   9.1320E-05  0.0046
   4.4019E+01   4.5090E+01   8.2643E-05  0.0048
   4.5090E+01   4.6187E+01   7.6436E-05  0.0049
   4.6187E+01   4.7311E+01   7.0465E-05  0.0050
   4.7311E+01   4.8462E+01   6.5372E-05  0.0052
   4.8462E+01   4.9641E+01   5.9814E-05  0.0053
   4.9641E+01   5.0849E+01   5.5287E-05  0.0055
   5.0849E+01   5.2086E+01   5.0377E-05  0.0057
   5.2086E+01   5.3353E+01   4.6865E-05  0.0058
   5.3353E+01   5.4651E+01   4.2946E-05  0.0060
   5.4651E+01   5.5981E+01   3.9020E-05  0.0062
   5.5981E+01   5.7343E+01   3.6047E-05  0.0064
   5.7343E+01   5.8738E+01   3.3313E-05  0.0066
   5.8738E+01   6.0168E+01   3.2250E-05  0.0066
   6.0168E+01   6.1632E+01   2.9122E-05  0.0068
   6.1632E+01   6.3131E+01   2.5985E-05  0.0072
   6.3131E+01   6.4667E+01   2.3673E-05  0.0074
   6.4667E+01   6.6240E+01   2.0664E-05  0.0078
   6.6240E+01   6.7852E+01   1.8361E-05  0.0082
   6.7852E+01   6.9503E+01   1.6675E-05  0.0085
   6.9503E+01   7.1194E+01   1.4305E-05  0.0091
   7.1194E+01   7.2926E+01   1.2041E-05  0.0098
   7.2926E+01   7.4701E+01   1.0442E-05  0.0104
   7.4701E+01   7.6518E+01   8.8802E-06  0.0111
   7.6518E+01   7.8380E+01   7.6616E-06  0.0118
   7.8380E+01   8.0287E+01   6.6564E-06  0.0126
   8.0287E+01   8.2240E+01   5.2543E-06  0.0140
   8.2240E+01   8.4241E+01   3.0495E-06  0.0181
   8.4241E+01   8.6291E+01   1.2519E-06  0.0279
   8.6291E+01   8.8391E+01   1.3813E-07  0.0830
   8.8391E+01   9.0541E+01   0.0000E+00  0.0000
   9.0541E+01   9.2744E+01   0.0000E+00  0.0000
   9.2744E+01   9.5001E+01   0.0000E+00  0.0000
   9.5001E+01   9.7312E+01   0.0000E+00  0.0000
   9.7312E+01   9.9680E+01   0.0000E+00  0.0000
   9.9680E+01   1.0211E+02   0.0000E+00  0.0000
   1.0211E+02   1.0459E+02   0.0000E+00  0.0000
   1.0459E+02   1.0713E+02   0.0000E+00  0.0000
   1.0713E+02   1.0974E+02   0.0000E+00  0.0000
   1.0974E+02   1.1241E+02   0.0000E+00  0.0000
   1.1241E+02   1.1515E+02   0.0000E+00  0.0000
   1.1515E+02   1.1795E+02   0.0000E+00  0.0000
   1.1795E+02   1.2082E+02   0.0000E+00  0.0000
   1.2082E+02   1.2376E+02   0.0000E+00  0.0000
   1.2376E+02   1.2677E+02   0.0000E+00  0.0000
   1.2677E+02   1.2985E+02   0.0000E+00  0.0000
   1.2985E+02   1.3301E+02   0.0000E+00  0.0000
   1.3301E+02   1.3625E+02   0.0000E+00  0.0000
   1.3625E+02   1.3956E+02   0.0000E+00  0.0000
   1.3956E+02   1.4296E+02   0.0000E+00  0.0000
   1.4296E+02   1.4644E+02   0.0000E+00  0.0000
   1.4644E+02   1.5000E+02   0.0000E+00  0.0000

#   sum over                 8.4915E-05
'no. =    1   reg = 105 - 205'
msuc: {\huge [t-cross] in region mesh}
msdr: {\it plotted by \ANGEL \version}
msdl: {\it calculated by \PHITS  3.26}
wt: s(0.7)
\vspace{-3}
  region surface crossing
  area  &=&   1.0000E+00 [cm^2]
e:
 
# Information for Restart Calculation
# This calculation was newly started
# istdev =  2 # 1:Batch variance, 2:History variance
# resc2  = 5.00000000000000000E+08 # Total source weight or Total source weight / maxcas
# resc3  = 5.00000000000000000E+08 # Total history number or Total batch number
# maxcas =   500000000 # History / Batch, only used for istdev=1
# bitrseed = 1011101111111101000111101101010011111001010110111001011111010111 # bit data of rseed
