[ T-Cross ]
    title = [t-cross] in region mesh
     mesh =  reg            # mesh type is region-wise
      reg =    1            # number of crossing regions
      non     r-from    r-to       area
      1       117       217        1.000000    
   e-type =    3            # e-mesh is log given by emin, emax and ne
     emin =  1.0000000E-02  # minimum value of e-mesh points
     emax =   150.0000      # maximum value of e-mesh points
#    edel =  2.4039514E-02  # mesh width of e-mesh points
       ne =    400          # number of e-mesh points
#    data = ( e(i), i = 1, ne + 1 )
#           1.00000E-02  1.02433E-02  1.04925E-02  1.07478E-02  1.10093E-02
#           1.12772E-02  1.15516E-02  1.18326E-02  1.21205E-02  1.24154E-02
#           1.27175E-02  1.30269E-02  1.33439E-02  1.36686E-02  1.40011E-02
#           1.43418E-02  1.46907E-02  1.50482E-02  1.54143E-02  1.57894E-02
#           1.61735E-02  1.65670E-02  1.69701E-02  1.73830E-02  1.78060E-02
#           1.82392E-02  1.86830E-02  1.91375E-02  1.96032E-02  2.00801E-02
#           2.05687E-02  2.10692E-02  2.15818E-02  2.21069E-02  2.26448E-02
#           2.31957E-02  2.37601E-02  2.43382E-02  2.49304E-02  2.55369E-02
#           2.61583E-02  2.67947E-02  2.74467E-02  2.81145E-02  2.87985E-02
#           2.94992E-02  3.02169E-02  3.09521E-02  3.17052E-02  3.24766E-02
#           3.32668E-02  3.40762E-02  3.49053E-02  3.57546E-02  3.66246E-02
#           3.75157E-02  3.84284E-02  3.93634E-02  4.03212E-02  4.13022E-02
#           4.23071E-02  4.33365E-02  4.43909E-02  4.54710E-02  4.65773E-02
#           4.77106E-02  4.88714E-02  5.00605E-02  5.12785E-02  5.25262E-02
#           5.38042E-02  5.51133E-02  5.64542E-02  5.78278E-02  5.92348E-02
#           6.06760E-02  6.21523E-02  6.36645E-02  6.52135E-02  6.68002E-02
#           6.84255E-02  7.00904E-02  7.17957E-02  7.35426E-02  7.53319E-02
#           7.71648E-02  7.90423E-02  8.09655E-02  8.29354E-02  8.49533E-02
#           8.70203E-02  8.91376E-02  9.13064E-02  9.35279E-02  9.58035E-02
#           9.81345E-02  1.00522E-01  1.02968E-01  1.05473E-01  1.08040E-01
#           1.10668E-01  1.13361E-01  1.16119E-01  1.18944E-01  1.21838E-01
#           1.24803E-01  1.27839E-01  1.30950E-01  1.34136E-01  1.37399E-01
#           1.40742E-01  1.44167E-01  1.47675E-01  1.51268E-01  1.54948E-01
#           1.58718E-01  1.62580E-01  1.66535E-01  1.70587E-01  1.74738E-01
#           1.78989E-01  1.83344E-01  1.87805E-01  1.92375E-01  1.97055E-01
#           2.01850E-01  2.06761E-01  2.11792E-01  2.16945E-01  2.22223E-01
#           2.27630E-01  2.33169E-01  2.38842E-01  2.44653E-01  2.50605E-01
#           2.56703E-01  2.62949E-01  2.69346E-01  2.75900E-01  2.82613E-01
#           2.89489E-01  2.96532E-01  3.03747E-01  3.11138E-01  3.18708E-01
#           3.26462E-01  3.34405E-01  3.42542E-01  3.50876E-01  3.59413E-01
#           3.68158E-01  3.77116E-01  3.86291E-01  3.95690E-01  4.05317E-01
#           4.15179E-01  4.25281E-01  4.35628E-01  4.46227E-01  4.57084E-01
#           4.68205E-01  4.79597E-01  4.91266E-01  5.03219E-01  5.15463E-01
#           5.28005E-01  5.40851E-01  5.54011E-01  5.67490E-01  5.81298E-01
#           5.95441E-01  6.09929E-01  6.24769E-01  6.39970E-01  6.55541E-01
#           6.71491E-01  6.87828E-01  7.04564E-01  7.21706E-01  7.39266E-01
#           7.57253E-01  7.75678E-01  7.94551E-01  8.13883E-01  8.33685E-01
#           8.53969E-01  8.74747E-01  8.96030E-01  9.17831E-01  9.40163E-01
#           9.63038E-01  9.86469E-01  1.01047E+00  1.03506E+00  1.06024E+00
#           1.08604E+00  1.11246E+00  1.13953E+00  1.16725E+00  1.19565E+00
#           1.22474E+00  1.25454E+00  1.28507E+00  1.31633E+00  1.34836E+00
#           1.38117E+00  1.41477E+00  1.44920E+00  1.48446E+00  1.52057E+00
#           1.55757E+00  1.59547E+00  1.63429E+00  1.67405E+00  1.71478E+00
#           1.75650E+00  1.79924E+00  1.84302E+00  1.88786E+00  1.93379E+00
#           1.98084E+00  2.02904E+00  2.07841E+00  2.12898E+00  2.18078E+00
#           2.23384E+00  2.28819E+00  2.34386E+00  2.40089E+00  2.45930E+00
#           2.51914E+00  2.58043E+00  2.64322E+00  2.70753E+00  2.77341E+00
#           2.84088E+00  2.91001E+00  2.98081E+00  3.05333E+00  3.12762E+00
#           3.20372E+00  3.28167E+00  3.36152E+00  3.44330E+00  3.52708E+00
#           3.61290E+00  3.70080E+00  3.79085E+00  3.88308E+00  3.97756E+00
#           4.07434E+00  4.17347E+00  4.27501E+00  4.37903E+00  4.48557E+00
#           4.59471E+00  4.70650E+00  4.82102E+00  4.93832E+00  5.05847E+00
#           5.18155E+00  5.30762E+00  5.43676E+00  5.56904E+00  5.70453E+00
#           5.84333E+00  5.98550E+00  6.13114E+00  6.28031E+00  6.43312E+00
#           6.58964E+00  6.74997E+00  6.91420E+00  7.08243E+00  7.25475E+00
#           7.43126E+00  7.61207E+00  7.79728E+00  7.98700E+00  8.18133E+00
#           8.38038E+00  8.58428E+00  8.79315E+00  9.00709E+00  9.22624E+00
#           9.45072E+00  9.68067E+00  9.91620E+00  1.01575E+01  1.04046E+01
#           1.06578E+01  1.09171E+01  1.11827E+01  1.14548E+01  1.17335E+01
#           1.20190E+01  1.23114E+01  1.26109E+01  1.29178E+01  1.32321E+01
#           1.35540E+01  1.38838E+01  1.42216E+01  1.45676E+01  1.49221E+01
#           1.52851E+01  1.56570E+01  1.60380E+01  1.64282E+01  1.68279E+01
#           1.72374E+01  1.76568E+01  1.80864E+01  1.85264E+01  1.89772E+01
#           1.94389E+01  1.99119E+01  2.03963E+01  2.08926E+01  2.14009E+01
#           2.19216E+01  2.24550E+01  2.30014E+01  2.35610E+01  2.41343E+01
#           2.47215E+01  2.53230E+01  2.59391E+01  2.65702E+01  2.72167E+01
#           2.78789E+01  2.85572E+01  2.92520E+01  2.99637E+01  3.06928E+01
#           3.14396E+01  3.22045E+01  3.29881E+01  3.37907E+01  3.46128E+01
#           3.54550E+01  3.63177E+01  3.72013E+01  3.81064E+01  3.90336E+01
#           3.99833E+01  4.09561E+01  4.19526E+01  4.29734E+01  4.40189E+01
#           4.50900E+01  4.61870E+01  4.73108E+01  4.84619E+01  4.96410E+01
#           5.08488E+01  5.20860E+01  5.33533E+01  5.46514E+01  5.59812E+01
#           5.73432E+01  5.87384E+01  6.01676E+01  6.16315E+01  6.31311E+01
#           6.46671E+01  6.62405E+01  6.78522E+01  6.95031E+01  7.11941E+01
#           7.29263E+01  7.47007E+01  7.65182E+01  7.83800E+01  8.02870E+01
#           8.22405E+01  8.42414E+01  8.62911E+01  8.83906E+01  9.05412E+01
#           9.27442E+01  9.50007E+01  9.73122E+01  9.96799E+01  1.02105E+02
#           1.04589E+02  1.07134E+02  1.09741E+02  1.12411E+02  1.15146E+02
#           1.17948E+02  1.20817E+02  1.23757E+02  1.26768E+02  1.29852E+02
#           1.33012E+02  1.36248E+02  1.39563E+02  1.42959E+02  1.46437E+02
#           1.50000E+02
     unit =    2            # unit is [1/cm^2/(MeV/n)/source]
     axis =  eng            # axis of output
     file = detector-18.out  # file name of output for the above axis
   output = f-curr          # surface crossing forward current spectrum
     part =  neutron  
# kf/name :  2112     
#    used :        main (  %)        temp (  %)       total (  %)
#  memory :         414 (  0)           0 (  0)         414 (  0)

#------------------------------------------------------------------------------
#newpage:
#   no. =    1   reg = 117 - 217

x: Energy [MeV/n]
y:  F-Curr [1/cm^2/(MeV/n)/source]         
p: xlog ylog afac(0.8) form(0.9)
h: n            x            y(neutron ),hh0l   n 
#  e-lower      e-upper      neutron     r.err 
   1.0000E-02   1.0243E-02   7.9992E-03  0.0320
   1.0243E-02   1.0493E-02   7.8308E-03  0.0320
   1.0493E-02   1.0748E-02   7.5947E-03  0.0320
   1.0748E-02   1.1009E-02   7.9714E-03  0.0309
   1.1009E-02   1.1277E-02   7.2061E-03  0.0321
   1.1277E-02   1.1552E-02   7.4452E-03  0.0312
   1.1552E-02   1.1833E-02   7.0904E-03  0.0316
   1.1833E-02   1.2121E-02   7.2715E-03  0.0308
   1.2121E-02   1.2415E-02   6.9979E-03  0.0311
   1.2415E-02   1.2718E-02   6.8981E-03  0.0309
   1.2718E-02   1.3027E-02   6.4964E-03  0.0315
   1.3027E-02   1.3344E-02   6.4746E-03  0.0312
   1.3344E-02   1.3669E-02   6.2002E-03  0.0315
   1.3669E-02   1.4001E-02   6.0744E-03  0.0314
   1.4001E-02   1.4342E-02   6.0309E-03  0.0311
   1.4342E-02   1.4691E-02   5.9427E-03  0.0310
   1.4691E-02   1.5048E-02   5.9526E-03  0.0306
   1.5048E-02   1.5414E-02   5.9890E-03  0.0301
   1.5414E-02   1.5789E-02   5.4981E-03  0.0311
   1.5789E-02   1.6174E-02   5.2152E-03  0.0315
   1.6174E-02   1.6567E-02   5.2199E-03  0.0311
   1.6567E-02   1.6970E-02   5.6102E-03  0.0297
   1.6970E-02   1.7383E-02   5.1820E-03  0.0305
   1.7383E-02   1.7806E-02   4.9987E-03  0.0307
   1.7806E-02   1.8239E-02   5.2044E-03  0.0297
   1.8239E-02   1.8683E-02   4.7820E-03  0.0306
   1.8683E-02   1.9138E-02   4.9986E-03  0.0296
   1.9138E-02   1.9603E-02   4.8057E-03  0.0298
   1.9603E-02   2.0080E-02   4.6708E-03  0.0299
   2.0080E-02   2.0569E-02   4.4701E-03  0.0302
   2.0569E-02   2.1069E-02   4.4584E-03  0.0299
   2.1069E-02   2.1582E-02   4.4666E-03  0.0295
   2.1582E-02   2.2107E-02   4.2570E-03  0.0299
   2.2107E-02   2.2645E-02   4.2549E-03  0.0295
   2.2645E-02   2.3196E-02   4.1773E-03  0.0294
   2.3196E-02   2.3760E-02   4.1019E-03  0.0293
   2.3760E-02   2.4338E-02   3.9724E-03  0.0294
   2.4338E-02   2.4930E-02   3.8704E-03  0.0295
   2.4930E-02   2.5537E-02   3.7092E-03  0.0297
   2.5537E-02   2.6158E-02   3.5388E-03  0.0301
   2.6158E-02   2.6795E-02   3.5452E-03  0.0297
   2.6795E-02   2.7447E-02   3.5528E-03  0.0293
   2.7447E-02   2.8114E-02   3.5163E-03  0.0291
   2.8114E-02   2.8799E-02   3.3797E-03  0.0294
   2.8799E-02   2.9499E-02   3.3064E-03  0.0293
   2.9499E-02   3.0217E-02   3.1614E-03  0.0296
   3.0217E-02   3.0952E-02   3.4033E-03  0.0282
   3.0952E-02   3.1705E-02   3.0609E-03  0.0294
   3.1705E-02   3.2477E-02   3.0388E-03  0.0291
   3.2477E-02   3.3267E-02   2.9910E-03  0.0290
   3.3267E-02   3.4076E-02   2.9241E-03  0.0290
   3.4076E-02   3.4905E-02   2.8378E-03  0.0291
   3.4905E-02   3.5755E-02   2.8658E-03  0.0286
   3.5755E-02   3.6625E-02   2.6358E-03  0.0295
   3.6625E-02   3.7516E-02   2.8501E-03  0.0280
   3.7516E-02   3.8428E-02   2.6336E-03  0.0288
   3.8428E-02   3.9363E-02   2.5367E-03  0.0290
   3.9363E-02   4.0321E-02   2.5511E-03  0.0285
   4.0321E-02   4.1302E-02   2.3734E-03  0.0293
   4.1302E-02   4.2307E-02   2.4197E-03  0.0286
   4.2307E-02   4.3337E-02   2.3962E-03  0.0284
   4.3337E-02   4.4391E-02   2.3217E-03  0.0285
   4.4391E-02   4.5471E-02   2.1470E-03  0.0293
   4.5471E-02   4.6577E-02   2.3467E-03  0.0277
   4.6577E-02   4.7711E-02   2.3592E-03  0.0273
   4.7711E-02   4.8871E-02   2.3117E-03  0.0272
   4.8871E-02   5.0061E-02   2.2064E-03  0.0275
   5.0061E-02   5.1279E-02   2.0556E-03  0.0282
   5.1279E-02   5.2526E-02   2.0599E-03  0.0278
   5.2526E-02   5.3804E-02   1.9758E-03  0.0281
   5.3804E-02   5.5113E-02   1.8292E-03  0.0288
   5.5113E-02   5.6454E-02   1.9591E-03  0.0275
   5.6454E-02   5.7828E-02   1.9004E-03  0.0276
   5.7828E-02   5.9235E-02   1.8540E-03  0.0276
   5.9235E-02   6.0676E-02   1.7149E-03  0.0284
   6.0676E-02   6.2152E-02   1.7800E-03  0.0275
   6.2152E-02   6.3665E-02   1.7915E-03  0.0271
   6.3665E-02   6.5214E-02   1.7368E-03  0.0272
   6.5214E-02   6.6800E-02   1.6544E-03  0.0275
   6.6800E-02   6.8426E-02   1.6179E-03  0.0275
   6.8426E-02   7.0090E-02   1.6245E-03  0.0271
   7.0090E-02   7.1796E-02   1.6012E-03  0.0270
   7.1796E-02   7.3543E-02   1.5487E-03  0.0271
   7.3543E-02   7.5332E-02   1.4704E-03  0.0275
   7.5332E-02   7.7165E-02   1.5168E-03  0.0268
   7.7165E-02   7.9042E-02   1.4594E-03  0.0270
   7.9042E-02   8.0965E-02   1.4297E-03  0.0269
   8.0965E-02   8.2935E-02   1.3920E-03  0.0269
   8.2935E-02   8.4953E-02   1.3417E-03  0.0271
   8.4953E-02   8.7020E-02   1.3350E-03  0.0268
   8.7020E-02   8.9138E-02   1.2671E-03  0.0272
   8.9138E-02   9.1306E-02   1.2324E-03  0.0273
   9.1306E-02   9.3528E-02   1.2160E-03  0.0271
   9.3528E-02   9.5804E-02   1.2160E-03  0.0268
   9.5804E-02   9.8134E-02   1.1782E-03  0.0269
   9.8134E-02   1.0052E-01   1.1690E-03  0.0267
   1.0052E-01   1.0297E-01   1.1548E-03  0.0265
   1.0297E-01   1.0547E-01   1.1095E-03  0.0267
   1.0547E-01   1.0804E-01   1.1085E-03  0.0265
   1.0804E-01   1.1067E-01   1.1112E-03  0.0261
   1.1067E-01   1.1336E-01   1.0761E-03  0.0262
   1.1336E-01   1.1612E-01   1.0212E-03  0.0266
   1.1612E-01   1.1894E-01   1.0232E-03  0.0263
   1.1894E-01   1.2184E-01   1.0008E-03  0.0262
   1.2184E-01   1.2480E-01   9.4766E-04  0.0266
   1.2480E-01   1.2784E-01   9.7882E-04  0.0259
   1.2784E-01   1.3095E-01   9.5099E-04  0.0260
   1.3095E-01   1.3414E-01   8.9657E-04  0.0264
   1.3414E-01   1.3740E-01   9.2963E-04  0.0256
   1.3740E-01   1.4074E-01   9.0476E-04  0.0257
   1.4074E-01   1.4417E-01   8.4013E-04  0.0263
   1.4417E-01   1.4767E-01   8.2420E-04  0.0262
   1.4767E-01   1.5127E-01   8.5066E-04  0.0255
   1.5127E-01   1.5495E-01   7.9647E-04  0.0260
   1.5495E-01   1.5872E-01   8.0711E-04  0.0256
   1.5872E-01   1.6258E-01   7.7831E-04  0.0257
   1.6258E-01   1.6654E-01   7.7767E-04  0.0254
   1.6654E-01   1.7059E-01   7.2490E-04  0.0260
   1.7059E-01   1.7474E-01   7.3267E-04  0.0256
   1.7474E-01   1.7899E-01   6.8912E-04  0.0261
   1.7899E-01   1.8334E-01   6.6552E-04  0.0262
   1.8334E-01   1.8781E-01   6.8583E-04  0.0255
   1.8781E-01   1.9237E-01   6.4718E-04  0.0259
   1.9237E-01   1.9706E-01   6.3901E-04  0.0258
   1.9706E-01   2.0185E-01   6.2628E-04  0.0257
   2.0185E-01   2.0676E-01   6.6212E-04  0.0247
   2.0676E-01   2.1179E-01   6.5954E-04  0.0245
   2.1179E-01   2.1694E-01   6.7041E-04  0.0240
   2.1694E-01   2.2222E-01   7.1649E-04  0.0229
   2.2222E-01   2.2763E-01   6.9066E-04  0.0231
   2.2763E-01   2.3317E-01   7.5744E-04  0.0218
   2.3317E-01   2.3884E-01   7.5328E-04  0.0216
   2.3884E-01   2.4465E-01   7.7562E-04  0.0210
   2.4465E-01   2.5061E-01   8.0552E-04  0.0204
   2.5061E-01   2.5670E-01   8.3987E-04  0.0197
   2.5670E-01   2.6295E-01   8.5957E-04  0.0193
   2.6295E-01   2.6935E-01   8.6790E-04  0.0189
   2.6935E-01   2.7590E-01   8.7954E-04  0.0186
   2.7590E-01   2.8261E-01   8.9548E-04  0.0182
   2.8261E-01   2.8949E-01   9.4744E-04  0.0175
   2.8949E-01   2.9653E-01   9.6519E-04  0.0171
   2.9653E-01   3.0375E-01   9.6190E-04  0.0169
   3.0375E-01   3.1114E-01   9.8498E-04  0.0165
   3.1114E-01   3.1871E-01   1.0092E-03  0.0161
   3.1871E-01   3.2646E-01   1.0173E-03  0.0159
   3.2646E-01   3.3441E-01   1.0150E-03  0.0157
   3.3441E-01   3.4254E-01   1.0265E-03  0.0154
   3.4254E-01   3.5088E-01   1.0278E-03  0.0152
   3.5088E-01   3.5941E-01   1.0794E-03  0.0147
   3.5941E-01   3.6816E-01   1.1324E-03  0.0142
   3.6816E-01   3.7712E-01   1.1037E-03  0.0142
   3.7712E-01   3.8629E-01   1.1521E-03  0.0137
   3.8629E-01   3.9569E-01   1.1601E-03  0.0135
   3.9569E-01   4.0532E-01   1.1581E-03  0.0134
   4.0532E-01   4.1518E-01   1.1787E-03  0.0131
   4.1518E-01   4.2528E-01   1.2117E-03  0.0127
   4.2528E-01   4.3563E-01   1.2114E-03  0.0126
   4.3563E-01   4.4623E-01   1.2239E-03  0.0124
   4.4623E-01   4.5708E-01   1.2278E-03  0.0122
   4.5708E-01   4.6821E-01   1.2360E-03  0.0120
   4.6821E-01   4.7960E-01   1.2645E-03  0.0117
   4.7960E-01   4.9127E-01   1.2573E-03  0.0116
   4.9127E-01   5.0322E-01   1.2596E-03  0.0115
   5.0322E-01   5.1546E-01   1.2799E-03  0.0113
   5.1546E-01   5.2800E-01   1.2685E-03  0.0112
   5.2800E-01   5.4085E-01   1.2642E-03  0.0111
   5.4085E-01   5.5401E-01   1.2855E-03  0.0108
   5.5401E-01   5.6749E-01   1.2892E-03  0.0107
   5.6749E-01   5.8130E-01   1.2996E-03  0.0105
   5.8130E-01   5.9544E-01   1.3123E-03  0.0103
   5.9544E-01   6.0993E-01   1.3144E-03  0.0102
   6.0993E-01   6.2477E-01   1.3024E-03  0.0101
   6.2477E-01   6.3997E-01   1.3010E-03  0.0100
   6.3997E-01   6.5554E-01   1.2970E-03  0.0099
   6.5554E-01   6.7149E-01   1.3241E-03  0.0097
   6.7149E-01   6.8783E-01   1.2781E-03  0.0098
   6.8783E-01   7.0456E-01   1.2657E-03  0.0097
   7.0456E-01   7.2171E-01   1.2490E-03  0.0096
   7.2171E-01   7.3927E-01   1.2398E-03  0.0095
   7.3927E-01   7.5725E-01   1.2567E-03  0.0094
   7.5725E-01   7.7568E-01   1.2164E-03  0.0094
   7.7568E-01   7.9455E-01   1.2228E-03  0.0093
   7.9455E-01   8.1388E-01   1.1855E-03  0.0093
   8.1388E-01   8.3368E-01   1.1695E-03  0.0093
   8.3368E-01   8.5397E-01   1.1357E-03  0.0093
   8.5397E-01   8.7475E-01   1.1366E-03  0.0092
   8.7475E-01   8.9603E-01   1.0819E-03  0.0093
   8.9603E-01   9.1783E-01   1.0753E-03  0.0092
   9.1783E-01   9.4016E-01   1.0453E-03  0.0092
   9.4016E-01   9.6304E-01   1.0295E-03  0.0092
   9.6304E-01   9.8647E-01   9.8209E-04  0.0093
   9.8647E-01   1.0105E+00   9.6171E-04  0.0093
   1.0105E+00   1.0351E+00   9.5504E-04  0.0092
   1.0351E+00   1.0602E+00   9.5757E-04  0.0091
   1.0602E+00   1.0860E+00   9.5007E-04  0.0090
   1.0860E+00   1.1125E+00   9.6753E-04  0.0088
   1.1125E+00   1.1395E+00   9.5468E-04  0.0088
   1.1395E+00   1.1673E+00   9.6827E-04  0.0086
   1.1673E+00   1.1957E+00   9.7976E-04  0.0084
   1.1957E+00   1.2247E+00   9.8423E-04  0.0083
   1.2247E+00   1.2545E+00   9.8001E-04  0.0082
   1.2545E+00   1.2851E+00   9.7793E-04  0.0081
   1.2851E+00   1.3163E+00   9.6890E-04  0.0081
   1.3163E+00   1.3484E+00   9.8994E-04  0.0079
   1.3484E+00   1.3812E+00   9.8157E-04  0.0078
   1.3812E+00   1.4148E+00   1.0048E-03  0.0077
   1.4148E+00   1.4492E+00   9.8104E-04  0.0077
   1.4492E+00   1.4845E+00   9.8224E-04  0.0076
   1.4845E+00   1.5206E+00   9.7296E-04  0.0075
   1.5206E+00   1.5576E+00   9.4422E-04  0.0075
   1.5576E+00   1.5955E+00   9.4641E-04  0.0074
   1.5955E+00   1.6343E+00   9.5297E-04  0.0073
   1.6343E+00   1.6741E+00   9.4490E-04  0.0073
   1.6741E+00   1.7148E+00   9.4339E-04  0.0072
   1.7148E+00   1.7565E+00   9.3351E-04  0.0071
   1.7565E+00   1.7992E+00   9.2806E-04  0.0071
   1.7992E+00   1.8430E+00   9.1741E-04  0.0070
   1.8430E+00   1.8879E+00   9.0018E-04  0.0070
   1.8879E+00   1.9338E+00   8.9268E-04  0.0069
   1.9338E+00   1.9808E+00   8.8578E-04  0.0069
   1.9808E+00   2.0290E+00   8.8826E-04  0.0068
   2.0290E+00   2.0784E+00   8.6493E-04  0.0068
   2.0784E+00   2.1290E+00   8.4761E-04  0.0068
   2.1290E+00   2.1808E+00   8.4140E-04  0.0067
   2.1808E+00   2.2338E+00   8.1900E-04  0.0067
   2.2338E+00   2.2882E+00   8.0106E-04  0.0067
   2.2882E+00   2.3439E+00   7.8710E-04  0.0067
   2.3439E+00   2.4009E+00   7.8794E-04  0.0066
   2.4009E+00   2.4593E+00   7.8460E-04  0.0066
   2.4593E+00   2.5191E+00   7.6017E-04  0.0066
   2.5191E+00   2.5804E+00   7.4454E-04  0.0066
   2.5804E+00   2.6432E+00   7.4116E-04  0.0065
   2.6432E+00   2.7075E+00   7.2195E-04  0.0065
   2.7075E+00   2.7734E+00   6.9818E-04  0.0065
   2.7734E+00   2.8409E+00   6.7699E-04  0.0066
   2.8409E+00   2.9100E+00   6.7341E-04  0.0065
   2.9100E+00   2.9808E+00   6.5651E-04  0.0065
   2.9808E+00   3.0533E+00   6.4436E-04  0.0065
   3.0533E+00   3.1276E+00   6.3328E-04  0.0065
   3.1276E+00   3.2037E+00   6.2351E-04  0.0065
   3.2037E+00   3.2817E+00   5.9927E-04  0.0065
   3.2817E+00   3.3615E+00   5.8680E-04  0.0065
   3.3615E+00   3.4433E+00   5.7448E-04  0.0065
   3.4433E+00   3.5271E+00   5.5383E-04  0.0065
   3.5271E+00   3.6129E+00   5.3822E-04  0.0065
   3.6129E+00   3.7008E+00   5.3526E-04  0.0065
   3.7008E+00   3.7908E+00   5.2061E-04  0.0065
   3.7908E+00   3.8831E+00   5.0137E-04  0.0065
   3.8831E+00   3.9776E+00   4.8991E-04  0.0065
   3.9776E+00   4.0743E+00   4.8257E-04  0.0065
   4.0743E+00   4.1735E+00   4.5843E-04  0.0066
   4.1735E+00   4.2750E+00   4.5213E-04  0.0066
   4.2750E+00   4.3790E+00   4.3198E-04  0.0066
   4.3790E+00   4.4856E+00   4.2327E-04  0.0066
   4.4856E+00   4.5947E+00   4.1052E-04  0.0066
   4.5947E+00   4.7065E+00   3.9347E-04  0.0067
   4.7065E+00   4.8210E+00   3.7917E-04  0.0068
   4.8210E+00   4.9383E+00   3.6194E-04  0.0068
   4.9383E+00   5.0585E+00   3.5011E-04  0.0069
   5.0585E+00   5.1815E+00   3.3341E-04  0.0069
   5.1815E+00   5.3076E+00   3.1952E-04  0.0070
   5.3076E+00   5.4368E+00   3.0799E-04  0.0071
   5.4368E+00   5.5690E+00   2.9623E-04  0.0071
   5.5690E+00   5.7045E+00   2.8424E-04  0.0072
   5.7045E+00   5.8433E+00   2.7277E-04  0.0072
   5.8433E+00   5.9855E+00   2.6005E-04  0.0073
   5.9855E+00   6.1311E+00   2.4712E-04  0.0074
   6.1311E+00   6.2803E+00   2.3425E-04  0.0075
   6.2803E+00   6.4331E+00   2.2180E-04  0.0076
   6.4331E+00   6.5896E+00   2.1645E-04  0.0076
   6.5896E+00   6.7500E+00   2.0579E-04  0.0078
   6.7500E+00   6.9142E+00   1.9193E-04  0.0079
   6.9142E+00   7.0824E+00   1.8588E-04  0.0080
   7.0824E+00   7.2548E+00   1.7389E-04  0.0081
   7.2548E+00   7.4313E+00   1.6392E-04  0.0083
   7.4313E+00   7.6121E+00   1.5507E-04  0.0084
   7.6121E+00   7.7973E+00   1.4658E-04  0.0086
   7.7973E+00   7.9870E+00   1.3728E-04  0.0087
   7.9870E+00   8.1813E+00   1.3185E-04  0.0088
   8.1813E+00   8.3804E+00   1.2320E-04  0.0090
   8.3804E+00   8.5843E+00   1.1755E-04  0.0091
   8.5843E+00   8.7931E+00   1.1068E-04  0.0093
   8.7931E+00   9.0071E+00   1.0464E-04  0.0094
   9.0071E+00   9.2262E+00   9.8585E-05  0.0096
   9.2262E+00   9.4507E+00   9.3326E-05  0.0097
   9.4507E+00   9.6807E+00   8.9399E-05  0.0098
   9.6807E+00   9.9162E+00   8.3123E-05  0.0101
   9.9162E+00   1.0157E+01   7.7818E-05  0.0103
   1.0157E+01   1.0405E+01   7.7857E-05  0.0102
   1.0405E+01   1.0658E+01   7.8371E-05  0.0100
   1.0658E+01   1.0917E+01   7.5728E-05  0.0101
   1.0917E+01   1.1183E+01   7.3506E-05  0.0101
   1.1183E+01   1.1455E+01   7.0917E-05  0.0102
   1.1455E+01   1.1733E+01   6.6899E-05  0.0103
   1.1733E+01   1.2019E+01   6.1745E-05  0.0106
   1.2019E+01   1.2311E+01   5.7833E-05  0.0109
   1.2311E+01   1.2611E+01   5.4773E-05  0.0110
   1.2611E+01   1.2918E+01   4.9535E-05  0.0115
   1.2918E+01   1.3232E+01   4.8595E-05  0.0114
   1.3232E+01   1.3554E+01   4.6062E-05  0.0116
   1.3554E+01   1.3884E+01   4.2929E-05  0.0119
   1.3884E+01   1.4222E+01   3.9842E-05  0.0122
   1.4222E+01   1.4568E+01   3.7095E-05  0.0125
   1.4568E+01   1.4922E+01   3.4028E-05  0.0129
   1.4922E+01   1.5285E+01   3.1494E-05  0.0132
   1.5285E+01   1.5657E+01   2.9973E-05  0.0134
   1.5657E+01   1.6038E+01   2.7779E-05  0.0137
   1.6038E+01   1.6428E+01   2.4928E-05  0.0143
   1.6428E+01   1.6828E+01   2.3663E-05  0.0145
   1.6828E+01   1.7237E+01   2.1605E-05  0.0150
   1.7237E+01   1.7657E+01   2.0406E-05  0.0153
   1.7657E+01   1.8086E+01   1.8335E-05  0.0159
   1.8086E+01   1.8526E+01   1.7118E-05  0.0163
   1.8526E+01   1.8977E+01   1.6101E-05  0.0166
   1.8977E+01   1.9439E+01   1.5140E-05  0.0169
   1.9439E+01   1.9912E+01   1.4011E-05  0.0174
   1.9912E+01   2.0396E+01   1.2604E-05  0.0181
   2.0396E+01   2.0893E+01   1.1913E-05  0.0184
   2.0893E+01   2.1401E+01   1.0694E-05  0.0192
   2.1401E+01   2.1922E+01   1.0017E-05  0.0196
   2.1922E+01   2.2455E+01   8.9769E-06  0.0204
   2.2455E+01   2.3001E+01   7.9180E-06  0.0215
   2.3001E+01   2.3561E+01   7.2189E-06  0.0222
   2.3561E+01   2.4134E+01   6.5450E-06  0.0231
   2.4134E+01   2.4721E+01   5.6948E-06  0.0245
   2.4721E+01   2.5323E+01   5.3966E-06  0.0248
   2.5323E+01   2.5939E+01   4.6549E-06  0.0264
   2.5939E+01   2.6570E+01   4.1514E-06  0.0276
   2.6570E+01   2.7217E+01   3.7217E-06  0.0288
   2.7217E+01   2.7879E+01   3.1108E-06  0.0312
   2.7879E+01   2.8557E+01   2.6979E-06  0.0331
   2.8557E+01   2.9252E+01   2.5042E-06  0.0339
   2.9252E+01   2.9964E+01   2.0008E-06  0.0375
   2.9964E+01   3.0693E+01   1.6570E-06  0.0407
   3.0693E+01   3.1440E+01   1.2989E-06  0.0454
   3.1440E+01   3.2205E+01   1.2236E-06  0.0462
   3.2205E+01   3.2988E+01   1.0108E-06  0.0503
   3.2988E+01   3.3791E+01   8.2728E-07  0.0549
   3.3791E+01   3.4613E+01   7.2492E-07  0.0579
   3.4613E+01   3.5455E+01   6.2221E-07  0.0618
   3.5455E+01   3.6318E+01   4.7064E-07  0.0702
   3.6318E+01   3.7201E+01   4.2778E-07  0.0727
   3.7201E+01   3.8106E+01   3.9331E-07  0.0750
   3.8106E+01   3.9034E+01   2.4376E-07  0.0941
   3.9034E+01   3.9983E+01   2.9061E-07  0.0851
   3.9983E+01   4.0956E+01   1.9325E-07  0.1031
   4.0956E+01   4.1953E+01   1.9468E-07  0.1015
   4.1953E+01   4.2973E+01   1.4107E-07  0.1179
   4.2973E+01   4.4019E+01   1.3390E-07  0.1195
   4.4019E+01   4.5090E+01   1.2698E-07  0.1213
   4.5090E+01   4.6187E+01   1.0574E-07  0.1313
   4.6187E+01   4.7311E+01   7.2969E-08  0.1562
   4.7311E+01   4.8462E+01   6.7761E-08  0.1601
   4.8462E+01   4.9641E+01   4.4101E-08  0.1961
   4.9641E+01   5.0849E+01   4.3053E-08  0.1961
   5.0849E+01   5.2086E+01   3.0715E-08  0.2294
   5.2086E+01   5.3353E+01   2.8407E-08  0.2357
   5.3353E+01   5.4651E+01   1.8488E-08  0.2887
   5.4651E+01   5.5981E+01   2.1057E-08  0.2673
   5.5981E+01   5.7343E+01   1.3215E-08  0.3333
   5.7343E+01   5.8738E+01   7.1674E-09  0.4472
   5.8738E+01   6.0168E+01   1.3994E-09  1.0000
   6.0168E+01   6.1632E+01   6.8310E-09  0.4472
   6.1632E+01   6.3131E+01   1.3337E-09  1.0000
   6.3131E+01   6.4667E+01   2.6041E-09  0.7071
   6.4667E+01   6.6240E+01   1.2711E-09  1.0000
   6.6240E+01   6.7852E+01   1.2409E-09  1.0000
   6.7852E+01   6.9503E+01   0.0000E+00  0.0000
   6.9503E+01   7.1194E+01   1.1827E-09  1.0000
   7.1194E+01   7.2926E+01   0.0000E+00  0.0000
   7.2926E+01   7.4701E+01   0.0000E+00  0.0000
   7.4701E+01   7.6518E+01   0.0000E+00  0.0000
   7.6518E+01   7.8380E+01   0.0000E+00  0.0000
   7.8380E+01   8.0287E+01   0.0000E+00  0.0000
   8.0287E+01   8.2240E+01   0.0000E+00  0.0000
   8.2240E+01   8.4241E+01   0.0000E+00  0.0000
   8.4241E+01   8.6291E+01   0.0000E+00  0.0000
   8.6291E+01   8.8391E+01   0.0000E+00  0.0000
   8.8391E+01   9.0541E+01   0.0000E+00  0.0000
   9.0541E+01   9.2744E+01   0.0000E+00  0.0000
   9.2744E+01   9.5001E+01   0.0000E+00  0.0000
   9.5001E+01   9.7312E+01   0.0000E+00  0.0000
   9.7312E+01   9.9680E+01   0.0000E+00  0.0000
   9.9680E+01   1.0211E+02   0.0000E+00  0.0000
   1.0211E+02   1.0459E+02   0.0000E+00  0.0000
   1.0459E+02   1.0713E+02   0.0000E+00  0.0000
   1.0713E+02   1.0974E+02   0.0000E+00  0.0000
   1.0974E+02   1.1241E+02   0.0000E+00  0.0000
   1.1241E+02   1.1515E+02   0.0000E+00  0.0000
   1.1515E+02   1.1795E+02   0.0000E+00  0.0000
   1.1795E+02   1.2082E+02   0.0000E+00  0.0000
   1.2082E+02   1.2376E+02   0.0000E+00  0.0000
   1.2376E+02   1.2677E+02   0.0000E+00  0.0000
   1.2677E+02   1.2985E+02   0.0000E+00  0.0000
   1.2985E+02   1.3301E+02   0.0000E+00  0.0000
   1.3301E+02   1.3625E+02   0.0000E+00  0.0000
   1.3625E+02   1.3956E+02   0.0000E+00  0.0000
   1.3956E+02   1.4296E+02   0.0000E+00  0.0000
   1.4296E+02   1.4644E+02   0.0000E+00  0.0000
   1.4644E+02   1.5000E+02   0.0000E+00  0.0000

#   sum over                 3.4875E-05
'no. =    1   reg = 117 - 217'
msuc: {\huge [t-cross] in region mesh}
msdr: {\it plotted by \ANGEL \version}
msdl: {\it calculated by \PHITS  3.26}
wt: s(0.7)
\vspace{-3}
  region surface crossing
  area  &=&   1.0000E+00 [cm^2]
e:
 
# Information for Restart Calculation
# This calculation was newly started
# istdev =  2 # 1:Batch variance, 2:History variance
# resc2  = 5.00000000000000000E+08 # Total source weight or Total source weight / maxcas
# resc3  = 5.00000000000000000E+08 # Total history number or Total batch number
# maxcas =   500000000 # History / Batch, only used for istdev=1
# bitrseed = 1101101111010011011000101101110001100110110010110001010100010001 # bit data of rseed
