[ T-Cross ]
    title = [t-cross] in region mesh
     mesh =  reg            # mesh type is region-wise
      reg =    1            # number of crossing regions
      non     r-from    r-to       area
      1       113       213        1.000000    
   e-type =    3            # e-mesh is log given by emin, emax and ne
     emin =  1.0000000E-02  # minimum value of e-mesh points
     emax =   150.0000      # maximum value of e-mesh points
#    edel =  2.4039514E-02  # mesh width of e-mesh points
       ne =    400          # number of e-mesh points
#    data = ( e(i), i = 1, ne + 1 )
#           1.00000E-02  1.02433E-02  1.04925E-02  1.07478E-02  1.10093E-02
#           1.12772E-02  1.15516E-02  1.18326E-02  1.21205E-02  1.24154E-02
#           1.27175E-02  1.30269E-02  1.33439E-02  1.36686E-02  1.40011E-02
#           1.43418E-02  1.46907E-02  1.50482E-02  1.54143E-02  1.57894E-02
#           1.61735E-02  1.65670E-02  1.69701E-02  1.73830E-02  1.78060E-02
#           1.82392E-02  1.86830E-02  1.91375E-02  1.96032E-02  2.00801E-02
#           2.05687E-02  2.10692E-02  2.15818E-02  2.21069E-02  2.26448E-02
#           2.31957E-02  2.37601E-02  2.43382E-02  2.49304E-02  2.55369E-02
#           2.61583E-02  2.67947E-02  2.74467E-02  2.81145E-02  2.87985E-02
#           2.94992E-02  3.02169E-02  3.09521E-02  3.17052E-02  3.24766E-02
#           3.32668E-02  3.40762E-02  3.49053E-02  3.57546E-02  3.66246E-02
#           3.75157E-02  3.84284E-02  3.93634E-02  4.03212E-02  4.13022E-02
#           4.23071E-02  4.33365E-02  4.43909E-02  4.54710E-02  4.65773E-02
#           4.77106E-02  4.88714E-02  5.00605E-02  5.12785E-02  5.25262E-02
#           5.38042E-02  5.51133E-02  5.64542E-02  5.78278E-02  5.92348E-02
#           6.06760E-02  6.21523E-02  6.36645E-02  6.52135E-02  6.68002E-02
#           6.84255E-02  7.00904E-02  7.17957E-02  7.35426E-02  7.53319E-02
#           7.71648E-02  7.90423E-02  8.09655E-02  8.29354E-02  8.49533E-02
#           8.70203E-02  8.91376E-02  9.13064E-02  9.35279E-02  9.58035E-02
#           9.81345E-02  1.00522E-01  1.02968E-01  1.05473E-01  1.08040E-01
#           1.10668E-01  1.13361E-01  1.16119E-01  1.18944E-01  1.21838E-01
#           1.24803E-01  1.27839E-01  1.30950E-01  1.34136E-01  1.37399E-01
#           1.40742E-01  1.44167E-01  1.47675E-01  1.51268E-01  1.54948E-01
#           1.58718E-01  1.62580E-01  1.66535E-01  1.70587E-01  1.74738E-01
#           1.78989E-01  1.83344E-01  1.87805E-01  1.92375E-01  1.97055E-01
#           2.01850E-01  2.06761E-01  2.11792E-01  2.16945E-01  2.22223E-01
#           2.27630E-01  2.33169E-01  2.38842E-01  2.44653E-01  2.50605E-01
#           2.56703E-01  2.62949E-01  2.69346E-01  2.75900E-01  2.82613E-01
#           2.89489E-01  2.96532E-01  3.03747E-01  3.11138E-01  3.18708E-01
#           3.26462E-01  3.34405E-01  3.42542E-01  3.50876E-01  3.59413E-01
#           3.68158E-01  3.77116E-01  3.86291E-01  3.95690E-01  4.05317E-01
#           4.15179E-01  4.25281E-01  4.35628E-01  4.46227E-01  4.57084E-01
#           4.68205E-01  4.79597E-01  4.91266E-01  5.03219E-01  5.15463E-01
#           5.28005E-01  5.40851E-01  5.54011E-01  5.67490E-01  5.81298E-01
#           5.95441E-01  6.09929E-01  6.24769E-01  6.39970E-01  6.55541E-01
#           6.71491E-01  6.87828E-01  7.04564E-01  7.21706E-01  7.39266E-01
#           7.57253E-01  7.75678E-01  7.94551E-01  8.13883E-01  8.33685E-01
#           8.53969E-01  8.74747E-01  8.96030E-01  9.17831E-01  9.40163E-01
#           9.63038E-01  9.86469E-01  1.01047E+00  1.03506E+00  1.06024E+00
#           1.08604E+00  1.11246E+00  1.13953E+00  1.16725E+00  1.19565E+00
#           1.22474E+00  1.25454E+00  1.28507E+00  1.31633E+00  1.34836E+00
#           1.38117E+00  1.41477E+00  1.44920E+00  1.48446E+00  1.52057E+00
#           1.55757E+00  1.59547E+00  1.63429E+00  1.67405E+00  1.71478E+00
#           1.75650E+00  1.79924E+00  1.84302E+00  1.88786E+00  1.93379E+00
#           1.98084E+00  2.02904E+00  2.07841E+00  2.12898E+00  2.18078E+00
#           2.23384E+00  2.28819E+00  2.34386E+00  2.40089E+00  2.45930E+00
#           2.51914E+00  2.58043E+00  2.64322E+00  2.70753E+00  2.77341E+00
#           2.84088E+00  2.91001E+00  2.98081E+00  3.05333E+00  3.12762E+00
#           3.20372E+00  3.28167E+00  3.36152E+00  3.44330E+00  3.52708E+00
#           3.61290E+00  3.70080E+00  3.79085E+00  3.88308E+00  3.97756E+00
#           4.07434E+00  4.17347E+00  4.27501E+00  4.37903E+00  4.48557E+00
#           4.59471E+00  4.70650E+00  4.82102E+00  4.93832E+00  5.05847E+00
#           5.18155E+00  5.30762E+00  5.43676E+00  5.56904E+00  5.70453E+00
#           5.84333E+00  5.98550E+00  6.13114E+00  6.28031E+00  6.43312E+00
#           6.58964E+00  6.74997E+00  6.91420E+00  7.08243E+00  7.25475E+00
#           7.43126E+00  7.61207E+00  7.79728E+00  7.98700E+00  8.18133E+00
#           8.38038E+00  8.58428E+00  8.79315E+00  9.00709E+00  9.22624E+00
#           9.45072E+00  9.68067E+00  9.91620E+00  1.01575E+01  1.04046E+01
#           1.06578E+01  1.09171E+01  1.11827E+01  1.14548E+01  1.17335E+01
#           1.20190E+01  1.23114E+01  1.26109E+01  1.29178E+01  1.32321E+01
#           1.35540E+01  1.38838E+01  1.42216E+01  1.45676E+01  1.49221E+01
#           1.52851E+01  1.56570E+01  1.60380E+01  1.64282E+01  1.68279E+01
#           1.72374E+01  1.76568E+01  1.80864E+01  1.85264E+01  1.89772E+01
#           1.94389E+01  1.99119E+01  2.03963E+01  2.08926E+01  2.14009E+01
#           2.19216E+01  2.24550E+01  2.30014E+01  2.35610E+01  2.41343E+01
#           2.47215E+01  2.53230E+01  2.59391E+01  2.65702E+01  2.72167E+01
#           2.78789E+01  2.85572E+01  2.92520E+01  2.99637E+01  3.06928E+01
#           3.14396E+01  3.22045E+01  3.29881E+01  3.37907E+01  3.46128E+01
#           3.54550E+01  3.63177E+01  3.72013E+01  3.81064E+01  3.90336E+01
#           3.99833E+01  4.09561E+01  4.19526E+01  4.29734E+01  4.40189E+01
#           4.50900E+01  4.61870E+01  4.73108E+01  4.84619E+01  4.96410E+01
#           5.08488E+01  5.20860E+01  5.33533E+01  5.46514E+01  5.59812E+01
#           5.73432E+01  5.87384E+01  6.01676E+01  6.16315E+01  6.31311E+01
#           6.46671E+01  6.62405E+01  6.78522E+01  6.95031E+01  7.11941E+01
#           7.29263E+01  7.47007E+01  7.65182E+01  7.83800E+01  8.02870E+01
#           8.22405E+01  8.42414E+01  8.62911E+01  8.83906E+01  9.05412E+01
#           9.27442E+01  9.50007E+01  9.73122E+01  9.96799E+01  1.02105E+02
#           1.04589E+02  1.07134E+02  1.09741E+02  1.12411E+02  1.15146E+02
#           1.17948E+02  1.20817E+02  1.23757E+02  1.26768E+02  1.29852E+02
#           1.33012E+02  1.36248E+02  1.39563E+02  1.42959E+02  1.46437E+02
#           1.50000E+02
     unit =    2            # unit is [1/cm^2/(MeV/n)/source]
     axis =  eng            # axis of output
     file = detector-14.out  # file name of output for the above axis
   output = f-curr          # surface crossing forward current spectrum
     part =  neutron  
# kf/name :  2112     
#    used :        main (  %)        temp (  %)       total (  %)
#  memory :         414 (  0)           0 (  0)         414 (  0)

#------------------------------------------------------------------------------
#newpage:
#   no. =    1   reg = 113 - 213

x: Energy [MeV/n]
y:  F-Curr [1/cm^2/(MeV/n)/source]         
p: xlog ylog afac(0.8) form(0.9)
h: n            x            y(neutron ),hh0l   n 
#  e-lower      e-upper      neutron     r.err 
   1.0000E-02   1.0243E-02   1.2316E-03  0.0814
   1.0243E-02   1.0493E-02   1.5311E-03  0.0720
   1.0493E-02   1.0748E-02   1.1776E-03  0.0814
   1.0748E-02   1.1009E-02   1.2870E-03  0.0766
   1.1009E-02   1.1277E-02   1.2405E-03  0.0772
   1.1277E-02   1.1552E-02   1.2179E-03  0.0770
   1.1552E-02   1.1833E-02   1.0745E-03  0.0812
   1.1833E-02   1.2121E-02   1.2928E-03  0.0728
   1.2121E-02   1.2415E-02   1.2631E-03  0.0729
   1.2415E-02   1.2718E-02   1.1671E-03  0.0752
   1.2718E-02   1.3027E-02   1.1375E-03  0.0750
   1.3027E-02   1.3344E-02   1.0573E-03  0.0770
   1.3344E-02   1.3669E-02   9.7387E-04  0.0792
   1.3669E-02   1.4001E-02   1.0368E-03  0.0758
   1.4001E-02   1.4342E-02   1.1282E-03  0.0718
   1.4342E-02   1.4691E-02   8.1009E-04  0.0838
   1.4691E-02   1.5048E-02   9.8785E-04  0.0750
   1.5048E-02   1.5414E-02   9.1607E-04  0.0771
   1.5414E-02   1.5789E-02   1.0442E-03  0.0713
   1.5789E-02   1.6174E-02   9.3969E-04  0.0744
   1.6174E-02   1.6567E-02   8.3987E-04  0.0774
   1.6567E-02   1.6970E-02   9.3397E-04  0.0727
   1.6970E-02   1.7383E-02   8.1401E-04  0.0768
   1.7383E-02   1.7806E-02   8.2037E-04  0.0756
   1.7806E-02   1.8239E-02   9.6627E-04  0.0689
   1.8239E-02   1.8683E-02   8.5136E-04  0.0724
   1.8683E-02   1.9138E-02   7.5762E-04  0.0758
   1.9138E-02   1.9603E-02   7.5147E-04  0.0751
   1.9603E-02   2.0080E-02   7.9745E-04  0.0722
   2.0080E-02   2.0569E-02   8.2786E-04  0.0701
   2.0569E-02   2.1069E-02   7.6716E-04  0.0718
   2.1069E-02   2.1582E-02   7.6693E-04  0.0709
   2.1582E-02   2.2107E-02   5.9929E-04  0.0795
   2.2107E-02   2.2645E-02   7.0508E-04  0.0724
   2.2645E-02   2.3196E-02   5.7658E-04  0.0791
   2.3196E-02   2.3760E-02   6.5426E-04  0.0732
   2.3760E-02   2.4338E-02   6.5135E-04  0.0724
   2.4338E-02   2.4930E-02   5.8838E-04  0.0754
   2.4930E-02   2.5537E-02   6.1043E-04  0.0729
   2.5537E-02   2.6158E-02   5.9651E-04  0.0733
   2.6158E-02   2.6795E-02   5.3586E-04  0.0764
   2.6795E-02   2.7447E-02   5.5765E-04  0.0739
   2.7447E-02   2.8114E-02   5.6490E-04  0.0726
   2.8114E-02   2.8799E-02   5.4493E-04  0.0729
   2.8799E-02   2.9499E-02   4.5612E-04  0.0788
   2.9499E-02   3.0217E-02   4.3469E-04  0.0798
   3.0217E-02   3.0952E-02   5.3821E-04  0.0708
   3.0952E-02   3.1705E-02   5.2314E-04  0.0709
   3.1705E-02   3.2477E-02   5.6209E-04  0.0677
   3.2477E-02   3.3267E-02   4.9504E-04  0.0712
   3.3267E-02   3.4076E-02   4.6126E-04  0.0728
   3.4076E-02   3.4905E-02   4.5302E-04  0.0724
   3.4905E-02   3.5755E-02   4.1131E-04  0.0754
   3.5755E-02   3.6625E-02   4.4743E-04  0.0713
   3.6625E-02   3.7516E-02   4.7222E-04  0.0685
   3.7516E-02   3.8428E-02   4.5069E-04  0.0695
   3.8428E-02   3.9363E-02   4.3049E-04  0.0702
   3.9363E-02   4.0321E-02   4.1466E-04  0.0705
   4.0321E-02   4.1302E-02   3.3662E-04  0.0775
   4.1302E-02   4.2307E-02   3.7445E-04  0.0725
   4.2307E-02   4.3337E-02   3.8206E-04  0.0708
   4.3337E-02   4.4391E-02   4.0102E-04  0.0684
   4.4391E-02   4.5471E-02   3.7044E-04  0.0701
   4.5471E-02   4.6577E-02   3.6311E-04  0.0701
   4.6577E-02   4.7711E-02   3.1789E-04  0.0741
   4.7711E-02   4.8871E-02   3.4516E-04  0.0703
   4.8871E-02   5.0061E-02   3.6325E-04  0.0677
   5.0061E-02   5.1279E-02   3.3158E-04  0.0700
   5.1279E-02   5.2526E-02   3.2382E-04  0.0701
   5.2526E-02   5.3804E-02   3.7038E-04  0.0646
   5.3804E-02   5.5113E-02   3.1892E-04  0.0688
   5.5113E-02   5.6454E-02   2.8154E-04  0.0725
   5.6454E-02   5.7828E-02   2.6125E-04  0.0744
   5.7828E-02   5.9235E-02   2.8494E-04  0.0704
   5.9235E-02   6.0676E-02   2.9396E-04  0.0684
   6.0676E-02   6.2152E-02   2.7728E-04  0.0695
   6.2152E-02   6.3665E-02   2.8084E-04  0.0684
   6.3665E-02   6.5214E-02   2.6448E-04  0.0696
   6.5214E-02   6.6800E-02   2.7982E-04  0.0668
   6.6800E-02   6.8426E-02   2.7938E-04  0.0661
   6.8426E-02   7.0090E-02   2.6566E-04  0.0671
   7.0090E-02   7.1796E-02   2.7657E-04  0.0649
   7.1796E-02   7.3543E-02   2.4350E-04  0.0682
   7.3543E-02   7.5332E-02   2.4607E-04  0.0670
   7.5332E-02   7.7165E-02   2.4351E-04  0.0667
   7.7165E-02   7.9042E-02   2.2270E-04  0.0688
   7.9042E-02   8.0965E-02   2.3752E-04  0.0658
   8.0965E-02   8.2935E-02   2.0404E-04  0.0703
   8.2935E-02   8.4953E-02   2.2017E-04  0.0668
   8.4953E-02   8.7020E-02   1.9702E-04  0.0698
   8.7020E-02   8.9138E-02   2.1678E-04  0.0655
   8.9138E-02   9.1306E-02   1.8369E-04  0.0703
   9.1306E-02   9.3528E-02   2.1264E-04  0.0645
   9.3528E-02   9.5804E-02   1.8774E-04  0.0680
   9.5804E-02   9.8134E-02   1.7156E-04  0.0703
   9.8134E-02   1.0052E-01   1.8727E-04  0.0666
   1.0052E-01   1.0297E-01   1.8182E-04  0.0667
   1.0297E-01   1.0547E-01   1.6381E-04  0.0692
   1.0547E-01   1.0804E-01   1.8383E-04  0.0649
   1.0804E-01   1.1067E-01   1.7613E-04  0.0654
   1.1067E-01   1.1336E-01   1.7158E-04  0.0656
   1.1336E-01   1.1612E-01   1.5341E-04  0.0685
   1.1612E-01   1.1894E-01   1.6333E-04  0.0655
   1.1894E-01   1.2184E-01   1.4977E-04  0.0676
   1.2184E-01   1.2480E-01   1.5871E-04  0.0648
   1.2480E-01   1.2784E-01   1.6450E-04  0.0630
   1.2784E-01   1.3095E-01   1.4048E-04  0.0674
   1.3095E-01   1.3414E-01   1.4654E-04  0.0650
   1.3414E-01   1.3740E-01   1.3888E-04  0.0660
   1.3740E-01   1.4074E-01   1.3263E-04  0.0667
   1.4074E-01   1.4417E-01   1.3662E-04  0.0650
   1.4417E-01   1.4767E-01   1.4096E-04  0.0631
   1.4767E-01   1.5127E-01   1.2176E-04  0.0673
   1.5127E-01   1.5495E-01   1.3454E-04  0.0633
   1.5495E-01   1.5872E-01   1.2975E-04  0.0637
   1.5872E-01   1.6258E-01   1.1973E-04  0.0656
   1.6258E-01   1.6654E-01   1.2494E-04  0.0634
   1.6654E-01   1.7059E-01   1.2444E-04  0.0627
   1.7059E-01   1.7474E-01   1.1373E-04  0.0649
   1.7474E-01   1.7899E-01   1.1925E-04  0.0624
   1.7899E-01   1.8334E-01   1.2544E-04  0.0602
   1.8334E-01   1.8781E-01   1.1429E-04  0.0623
   1.8781E-01   1.9237E-01   1.0296E-04  0.0649
   1.9237E-01   1.9706E-01   1.0740E-04  0.0627
   1.9706E-01   2.0185E-01   1.1954E-04  0.0587
   2.0185E-01   2.0676E-01   1.1502E-04  0.0593
   2.0676E-01   2.1179E-01   1.1868E-04  0.0575
   2.1179E-01   2.1694E-01   1.3172E-04  0.0540
   2.1694E-01   2.2222E-01   1.2474E-04  0.0548
   2.2222E-01   2.2763E-01   1.4309E-04  0.0507
   2.2763E-01   2.3317E-01   1.4025E-04  0.0505
   2.3317E-01   2.3884E-01   1.3767E-04  0.0504
   2.3884E-01   2.4465E-01   1.5196E-04  0.0474
   2.4465E-01   2.5061E-01   1.5782E-04  0.0459
   2.5061E-01   2.5670E-01   1.6349E-04  0.0445
   2.5670E-01   2.6295E-01   1.6598E-04  0.0437
   2.6295E-01   2.6935E-01   1.7531E-04  0.0420
   2.6935E-01   2.7590E-01   1.7100E-04  0.0420
   2.7590E-01   2.8261E-01   1.7951E-04  0.0406
   2.8261E-01   2.8949E-01   1.9887E-04  0.0381
   2.8949E-01   2.9653E-01   1.8736E-04  0.0387
   2.9653E-01   3.0375E-01   1.9182E-04  0.0378
   3.0375E-01   3.1114E-01   2.1236E-04  0.0355
   3.1114E-01   3.1871E-01   2.0873E-04  0.0354
   3.1871E-01   3.2646E-01   2.0684E-04  0.0351
   3.2646E-01   3.3441E-01   2.3476E-04  0.0326
   3.3441E-01   3.4254E-01   2.2336E-04  0.0330
   3.4254E-01   3.5088E-01   2.4737E-04  0.0310
   3.5088E-01   3.5941E-01   2.3798E-04  0.0312
   3.5941E-01   3.6816E-01   2.4366E-04  0.0305
   3.6816E-01   3.7712E-01   2.5646E-04  0.0293
   3.7712E-01   3.8629E-01   2.6496E-04  0.0285
   3.8629E-01   3.9569E-01   2.6350E-04  0.0283
   3.9569E-01   4.0532E-01   2.6967E-04  0.0276
   4.0532E-01   4.1518E-01   2.7093E-04  0.0272
   4.1518E-01   4.2528E-01   2.7380E-04  0.0268
   4.2528E-01   4.3563E-01   2.7859E-04  0.0262
   4.3563E-01   4.4623E-01   2.8569E-04  0.0256
   4.4623E-01   4.5708E-01   2.9343E-04  0.0249
   4.5708E-01   4.6821E-01   2.9164E-04  0.0247
   4.6821E-01   4.7960E-01   3.0278E-04  0.0240
   4.7960E-01   4.9127E-01   3.1127E-04  0.0233
   4.9127E-01   5.0322E-01   3.0766E-04  0.0232
   5.0322E-01   5.1546E-01   3.1023E-04  0.0228
   5.1546E-01   5.2800E-01   3.2669E-04  0.0220
   5.2800E-01   5.4085E-01   3.2143E-04  0.0219
   5.4085E-01   5.5401E-01   3.2557E-04  0.0215
   5.5401E-01   5.6749E-01   3.2708E-04  0.0212
   5.6749E-01   5.8130E-01   3.3254E-04  0.0208
   5.8130E-01   5.9544E-01   3.3172E-04  0.0205
   5.9544E-01   6.0993E-01   3.2378E-04  0.0205
   6.0993E-01   6.2477E-01   3.4342E-04  0.0197
   6.2477E-01   6.3997E-01   3.3462E-04  0.0197
   6.3997E-01   6.5554E-01   3.3893E-04  0.0194
   6.5554E-01   6.7149E-01   3.3631E-04  0.0192
   6.7149E-01   6.8783E-01   3.2457E-04  0.0193
   6.8783E-01   7.0456E-01   3.3151E-04  0.0189
   7.0456E-01   7.2171E-01   3.2712E-04  0.0188
   7.2171E-01   7.3927E-01   3.2572E-04  0.0186
   7.3927E-01   7.5725E-01   3.1836E-04  0.0186
   7.5725E-01   7.7568E-01   3.0606E-04  0.0187
   7.7568E-01   7.9455E-01   3.1090E-04  0.0183
   7.9455E-01   8.1388E-01   3.0191E-04  0.0184
   8.1388E-01   8.3368E-01   2.9543E-04  0.0184
   8.3368E-01   8.5397E-01   2.9709E-04  0.0181
   8.5397E-01   8.7475E-01   2.9461E-04  0.0180
   8.7475E-01   8.9603E-01   2.8481E-04  0.0181
   8.9603E-01   9.1783E-01   2.7988E-04  0.0180
   9.1783E-01   9.4016E-01   2.7120E-04  0.0181
   9.4016E-01   9.6304E-01   2.7581E-04  0.0177
   9.6304E-01   9.8647E-01   2.7194E-04  0.0176
   9.8647E-01   1.0105E+00   2.6870E-04  0.0175
   1.0105E+00   1.0351E+00   2.8672E-04  0.0167
   1.0351E+00   1.0602E+00   2.8158E-04  0.0167
   1.0602E+00   1.0860E+00   2.9608E-04  0.0161
   1.0860E+00   1.1125E+00   3.0720E-04  0.0156
   1.1125E+00   1.1395E+00   3.2053E-04  0.0151
   1.1395E+00   1.1673E+00   3.4267E-04  0.0144
   1.1673E+00   1.1957E+00   3.5493E-04  0.0140
   1.1957E+00   1.2247E+00   3.6475E-04  0.0136
   1.2247E+00   1.2545E+00   3.7785E-04  0.0132
   1.2545E+00   1.2851E+00   3.7907E-04  0.0131
   1.2851E+00   1.3163E+00   3.9509E-04  0.0126
   1.3163E+00   1.3484E+00   4.1320E-04  0.0122
   1.3484E+00   1.3812E+00   4.3084E-04  0.0118
   1.3812E+00   1.4148E+00   4.3617E-04  0.0116
   1.4148E+00   1.4492E+00   4.6465E-04  0.0111
   1.4492E+00   1.4845E+00   4.6249E-04  0.0110
   1.4845E+00   1.5206E+00   4.7062E-04  0.0108
   1.5206E+00   1.5576E+00   4.8656E-04  0.0105
   1.5576E+00   1.5955E+00   4.9270E-04  0.0103
   1.5955E+00   1.6343E+00   5.0650E-04  0.0100
   1.6343E+00   1.6741E+00   5.2163E-04  0.0098
   1.6741E+00   1.7148E+00   5.4473E-04  0.0094
   1.7148E+00   1.7565E+00   5.5847E-04  0.0092
   1.7565E+00   1.7992E+00   5.6577E-04  0.0090
   1.7992E+00   1.8430E+00   5.5942E-04  0.0090
   1.8430E+00   1.8879E+00   5.7436E-04  0.0088
   1.8879E+00   1.9338E+00   5.8460E-04  0.0086
   1.9338E+00   1.9808E+00   6.0600E-04  0.0083
   1.9808E+00   2.0290E+00   6.1916E-04  0.0081
   2.0290E+00   2.0784E+00   6.1759E-04  0.0081
   2.0784E+00   2.1290E+00   6.1119E-04  0.0080
   2.1290E+00   2.1808E+00   6.2263E-04  0.0078
   2.1808E+00   2.2338E+00   6.3251E-04  0.0077
   2.2338E+00   2.2882E+00   6.2833E-04  0.0076
   2.2882E+00   2.3439E+00   6.4286E-04  0.0074
   2.3439E+00   2.4009E+00   6.4223E-04  0.0073
   2.4009E+00   2.4593E+00   6.7135E-04  0.0071
   2.4593E+00   2.5191E+00   6.6083E-04  0.0071
   2.5191E+00   2.5804E+00   6.7074E-04  0.0069
   2.5804E+00   2.6432E+00   6.6221E-04  0.0069
   2.6432E+00   2.7075E+00   6.5969E-04  0.0068
   2.7075E+00   2.7734E+00   6.5691E-04  0.0068
   2.7734E+00   2.8409E+00   6.6406E-04  0.0066
   2.8409E+00   2.9100E+00   6.6910E-04  0.0065
   2.9100E+00   2.9808E+00   6.7974E-04  0.0064
   2.9808E+00   3.0533E+00   6.7811E-04  0.0063
   3.0533E+00   3.1276E+00   6.7172E-04  0.0063
   3.1276E+00   3.2037E+00   6.6452E-04  0.0063
   3.2037E+00   3.2817E+00   6.5111E-04  0.0062
   3.2817E+00   3.3615E+00   6.5483E-04  0.0061
   3.3615E+00   3.4433E+00   6.4923E-04  0.0061
   3.4433E+00   3.5271E+00   6.4583E-04  0.0060
   3.5271E+00   3.6129E+00   6.4983E-04  0.0060
   3.6129E+00   3.7008E+00   6.3624E-04  0.0059
   3.7008E+00   3.7908E+00   6.3046E-04  0.0059
   3.7908E+00   3.8831E+00   6.2176E-04  0.0059
   3.8831E+00   3.9776E+00   6.1748E-04  0.0058
   3.9776E+00   4.0743E+00   6.1821E-04  0.0057
   4.0743E+00   4.1735E+00   6.0698E-04  0.0057
   4.1735E+00   4.2750E+00   5.8883E-04  0.0058
   4.2750E+00   4.3790E+00   5.9232E-04  0.0057
   4.3790E+00   4.4856E+00   5.7876E-04  0.0057
   4.4856E+00   4.5947E+00   5.6870E-04  0.0056
   4.5947E+00   4.7065E+00   5.5732E-04  0.0056
   4.7065E+00   4.8210E+00   5.5010E-04  0.0056
   4.8210E+00   4.9383E+00   5.4080E-04  0.0056
   4.9383E+00   5.0585E+00   5.2628E-04  0.0056
   5.0585E+00   5.1815E+00   5.1155E-04  0.0056
   5.1815E+00   5.3076E+00   4.9816E-04  0.0056
   5.3076E+00   5.4368E+00   4.8470E-04  0.0056
   5.4368E+00   5.5690E+00   4.7738E-04  0.0056
   5.5690E+00   5.7045E+00   4.6268E-04  0.0056
   5.7045E+00   5.8433E+00   4.5236E-04  0.0056
   5.8433E+00   5.9855E+00   4.3917E-04  0.0056
   5.9855E+00   6.1311E+00   4.2901E-04  0.0056
   6.1311E+00   6.2803E+00   4.1337E-04  0.0057
   6.2803E+00   6.4331E+00   4.0450E-04  0.0057
   6.4331E+00   6.5896E+00   3.9075E-04  0.0057
   6.5896E+00   6.7500E+00   3.7765E-04  0.0057
   6.7500E+00   6.9142E+00   3.6413E-04  0.0058
   6.9142E+00   7.0824E+00   3.5237E-04  0.0058
   7.0824E+00   7.2548E+00   3.4151E-04  0.0058
   7.2548E+00   7.4313E+00   3.3186E-04  0.0058
   7.4313E+00   7.6121E+00   3.1902E-04  0.0059
   7.6121E+00   7.7973E+00   3.0501E-04  0.0059
   7.7973E+00   7.9870E+00   2.9273E-04  0.0060
   7.9870E+00   8.1813E+00   2.8071E-04  0.0060
   8.1813E+00   8.3804E+00   2.6873E-04  0.0061
   8.3804E+00   8.5843E+00   2.5889E-04  0.0061
   8.5843E+00   8.7931E+00   2.5061E-04  0.0062
   8.7931E+00   9.0071E+00   2.3920E-04  0.0062
   9.0071E+00   9.2262E+00   2.2637E-04  0.0063
   9.2262E+00   9.4507E+00   2.1768E-04  0.0064
   9.4507E+00   9.6807E+00   2.0915E-04  0.0064
   9.6807E+00   9.9162E+00   2.0224E-04  0.0065
   9.9162E+00   1.0157E+01   1.9436E-04  0.0065
   1.0157E+01   1.0405E+01   1.8770E-04  0.0066
   1.0405E+01   1.0658E+01   1.8565E-04  0.0065
   1.0658E+01   1.0917E+01   1.8082E-04  0.0065
   1.0917E+01   1.1183E+01   1.7543E-04  0.0065
   1.1183E+01   1.1455E+01   1.6796E-04  0.0066
   1.1455E+01   1.1733E+01   1.6117E-04  0.0067
   1.1733E+01   1.2019E+01   1.5263E-04  0.0068
   1.2019E+01   1.2311E+01   1.4822E-04  0.0068
   1.2311E+01   1.2611E+01   1.3947E-04  0.0069
   1.2611E+01   1.2918E+01   1.3459E-04  0.0070
   1.2918E+01   1.3232E+01   1.2833E-04  0.0070
   1.3232E+01   1.3554E+01   1.2396E-04  0.0071
   1.3554E+01   1.3884E+01   1.1676E-04  0.0072
   1.3884E+01   1.4222E+01   1.1233E-04  0.0073
   1.4222E+01   1.4568E+01   1.0704E-04  0.0073
   1.4568E+01   1.4922E+01   1.0212E-04  0.0074
   1.4922E+01   1.5285E+01   9.6437E-05  0.0076
   1.5285E+01   1.5657E+01   8.9728E-05  0.0077
   1.5657E+01   1.6038E+01   8.6048E-05  0.0078
   1.6038E+01   1.6428E+01   8.1653E-05  0.0079
   1.6428E+01   1.6828E+01   7.7741E-05  0.0080
   1.6828E+01   1.7237E+01   7.3447E-05  0.0082
   1.7237E+01   1.7657E+01   7.1360E-05  0.0082
   1.7657E+01   1.8086E+01   6.5586E-05  0.0084
   1.8086E+01   1.8526E+01   6.2670E-05  0.0085
   1.8526E+01   1.8977E+01   5.9793E-05  0.0086
   1.8977E+01   1.9439E+01   5.6589E-05  0.0087
   1.9439E+01   1.9912E+01   5.5694E-05  0.0087
   1.9912E+01   2.0396E+01   5.5339E-05  0.0086
   2.0396E+01   2.0893E+01   5.2364E-05  0.0088
   2.0893E+01   2.1401E+01   4.9668E-05  0.0089
   2.1401E+01   2.1922E+01   4.6702E-05  0.0091
   2.1922E+01   2.2455E+01   4.4243E-05  0.0092
   2.2455E+01   2.3001E+01   4.0524E-05  0.0095
   2.3001E+01   2.3561E+01   3.8703E-05  0.0096
   2.3561E+01   2.4134E+01   3.5890E-05  0.0099
   2.4134E+01   2.4721E+01   3.2854E-05  0.0102
   2.4721E+01   2.5323E+01   3.0408E-05  0.0105
   2.5323E+01   2.5939E+01   2.8176E-05  0.0107
   2.5939E+01   2.6570E+01   2.6027E-05  0.0110
   2.6570E+01   2.7217E+01   2.3862E-05  0.0114
   2.7217E+01   2.7879E+01   2.1564E-05  0.0118
   2.7879E+01   2.8557E+01   1.9604E-05  0.0123
   2.8557E+01   2.9252E+01   1.8169E-05  0.0126
   2.9252E+01   2.9964E+01   1.6967E-05  0.0129
   2.9964E+01   3.0693E+01   1.5113E-05  0.0135
   3.0693E+01   3.1440E+01   1.3538E-05  0.0141
   3.1440E+01   3.2205E+01   1.1930E-05  0.0148
   3.2205E+01   3.2988E+01   1.1399E-05  0.0150
   3.2988E+01   3.3791E+01   9.6907E-06  0.0160
   3.3791E+01   3.4613E+01   8.6042E-06  0.0168
   3.4613E+01   3.5455E+01   7.6138E-06  0.0177
   3.5455E+01   3.6318E+01   6.8950E-06  0.0183
   3.6318E+01   3.7201E+01   5.9662E-06  0.0195
   3.7201E+01   3.8106E+01   5.0998E-06  0.0208
   3.8106E+01   3.9034E+01   4.4911E-06  0.0219
   3.9034E+01   3.9983E+01   3.7422E-06  0.0237
   3.9983E+01   4.0956E+01   3.2318E-06  0.0252
   4.0956E+01   4.1953E+01   2.9463E-06  0.0261
   4.1953E+01   4.2973E+01   2.4845E-06  0.0281
   4.2973E+01   4.4019E+01   2.1098E-06  0.0301
   4.4019E+01   4.5090E+01   1.7143E-06  0.0330
   4.5090E+01   4.6187E+01   1.5222E-06  0.0346
   4.6187E+01   4.7311E+01   1.3028E-06  0.0370
   4.7311E+01   4.8462E+01   1.1311E-06  0.0392
   4.8462E+01   4.9641E+01   8.9219E-07  0.0436
   4.9641E+01   5.0849E+01   7.9317E-07  0.0457
   5.0849E+01   5.2086E+01   6.7087E-07  0.0491
   5.2086E+01   5.3353E+01   5.5709E-07  0.0532
   5.3353E+01   5.4651E+01   4.7915E-07  0.0567
   5.4651E+01   5.5981E+01   3.8505E-07  0.0625
   5.5981E+01   5.7343E+01   3.4213E-07  0.0655
   5.7343E+01   5.8738E+01   3.1107E-07  0.0679
   5.8738E+01   6.0168E+01   2.4070E-07  0.0762
   6.0168E+01   6.1632E+01   1.8717E-07  0.0854
   6.1632E+01   6.3131E+01   1.6538E-07  0.0898
   6.3131E+01   6.4667E+01   1.4453E-07  0.0949
   6.4667E+01   6.6240E+01   1.0805E-07  0.1085
   6.6240E+01   6.7852E+01   8.4384E-08  0.1213
   6.7852E+01   6.9503E+01   5.8150E-08  0.1443
   6.9503E+01   7.1194E+01   4.8490E-08  0.1562
   7.1194E+01   7.2926E+01   2.4246E-08  0.2182
   7.2926E+01   7.4701E+01   1.4653E-08  0.2774
   7.4701E+01   7.6518E+01   1.5406E-08  0.2673
   7.6518E+01   7.8380E+01   6.4456E-09  0.4082
   7.8380E+01   8.0287E+01   4.1950E-09  0.5000
   8.0287E+01   8.2240E+01   1.0238E-09  1.0000
   8.2240E+01   8.4241E+01   0.0000E+00  0.0000
   8.4241E+01   8.6291E+01   0.0000E+00  0.0000
   8.6291E+01   8.8391E+01   0.0000E+00  0.0000
   8.8391E+01   9.0541E+01   0.0000E+00  0.0000
   9.0541E+01   9.2744E+01   0.0000E+00  0.0000
   9.2744E+01   9.5001E+01   0.0000E+00  0.0000
   9.5001E+01   9.7312E+01   0.0000E+00  0.0000
   9.7312E+01   9.9680E+01   0.0000E+00  0.0000
   9.9680E+01   1.0211E+02   0.0000E+00  0.0000
   1.0211E+02   1.0459E+02   0.0000E+00  0.0000
   1.0459E+02   1.0713E+02   0.0000E+00  0.0000
   1.0713E+02   1.0974E+02   0.0000E+00  0.0000
   1.0974E+02   1.1241E+02   0.0000E+00  0.0000
   1.1241E+02   1.1515E+02   0.0000E+00  0.0000
   1.1515E+02   1.1795E+02   0.0000E+00  0.0000
   1.1795E+02   1.2082E+02   0.0000E+00  0.0000
   1.2082E+02   1.2376E+02   0.0000E+00  0.0000
   1.2376E+02   1.2677E+02   0.0000E+00  0.0000
   1.2677E+02   1.2985E+02   0.0000E+00  0.0000
   1.2985E+02   1.3301E+02   0.0000E+00  0.0000
   1.3301E+02   1.3625E+02   0.0000E+00  0.0000
   1.3625E+02   1.3956E+02   0.0000E+00  0.0000
   1.3956E+02   1.4296E+02   0.0000E+00  0.0000
   1.4296E+02   1.4644E+02   0.0000E+00  0.0000
   1.4644E+02   1.5000E+02   0.0000E+00  0.0000

#   sum over                 3.8455E-05
'no. =    1   reg = 113 - 213'
msuc: {\huge [t-cross] in region mesh}
msdr: {\it plotted by \ANGEL \version}
msdl: {\it calculated by \PHITS  3.26}
wt: s(0.7)
\vspace{-3}
  region surface crossing
  area  &=&   1.0000E+00 [cm^2]
e:
 
# Information for Restart Calculation
# This calculation was newly started
# istdev =  2 # 1:Batch variance, 2:History variance
# resc2  = 5.00000000000000000E+08 # Total source weight or Total source weight / maxcas
# resc3  = 5.00000000000000000E+08 # Total history number or Total batch number
# maxcas =   500000000 # History / Batch, only used for istdev=1
# bitrseed = 1101101111010011011000101101110001100110110010110001010100010001 # bit data of rseed
