[ T-Cross ]
    title = [t-cross] in region mesh
     mesh =  reg            # mesh type is region-wise
      reg =    1            # number of crossing regions
      non     r-from    r-to       area
      1       121       221        1.000000    
   e-type =    3            # e-mesh is log given by emin, emax and ne
     emin =  1.0000000E-02  # minimum value of e-mesh points
     emax =   150.0000      # maximum value of e-mesh points
#    edel =  2.4039514E-02  # mesh width of e-mesh points
       ne =    400          # number of e-mesh points
#    data = ( e(i), i = 1, ne + 1 )
#           1.00000E-02  1.02433E-02  1.04925E-02  1.07478E-02  1.10093E-02
#           1.12772E-02  1.15516E-02  1.18326E-02  1.21205E-02  1.24154E-02
#           1.27175E-02  1.30269E-02  1.33439E-02  1.36686E-02  1.40011E-02
#           1.43418E-02  1.46907E-02  1.50482E-02  1.54143E-02  1.57894E-02
#           1.61735E-02  1.65670E-02  1.69701E-02  1.73830E-02  1.78060E-02
#           1.82392E-02  1.86830E-02  1.91375E-02  1.96032E-02  2.00801E-02
#           2.05687E-02  2.10692E-02  2.15818E-02  2.21069E-02  2.26448E-02
#           2.31957E-02  2.37601E-02  2.43382E-02  2.49304E-02  2.55369E-02
#           2.61583E-02  2.67947E-02  2.74467E-02  2.81145E-02  2.87985E-02
#           2.94992E-02  3.02169E-02  3.09521E-02  3.17052E-02  3.24766E-02
#           3.32668E-02  3.40762E-02  3.49053E-02  3.57546E-02  3.66246E-02
#           3.75157E-02  3.84284E-02  3.93634E-02  4.03212E-02  4.13022E-02
#           4.23071E-02  4.33365E-02  4.43909E-02  4.54710E-02  4.65773E-02
#           4.77106E-02  4.88714E-02  5.00605E-02  5.12785E-02  5.25262E-02
#           5.38042E-02  5.51133E-02  5.64542E-02  5.78278E-02  5.92348E-02
#           6.06760E-02  6.21523E-02  6.36645E-02  6.52135E-02  6.68002E-02
#           6.84255E-02  7.00904E-02  7.17957E-02  7.35426E-02  7.53319E-02
#           7.71648E-02  7.90423E-02  8.09655E-02  8.29354E-02  8.49533E-02
#           8.70203E-02  8.91376E-02  9.13064E-02  9.35279E-02  9.58035E-02
#           9.81345E-02  1.00522E-01  1.02968E-01  1.05473E-01  1.08040E-01
#           1.10668E-01  1.13361E-01  1.16119E-01  1.18944E-01  1.21838E-01
#           1.24803E-01  1.27839E-01  1.30950E-01  1.34136E-01  1.37399E-01
#           1.40742E-01  1.44167E-01  1.47675E-01  1.51268E-01  1.54948E-01
#           1.58718E-01  1.62580E-01  1.66535E-01  1.70587E-01  1.74738E-01
#           1.78989E-01  1.83344E-01  1.87805E-01  1.92375E-01  1.97055E-01
#           2.01850E-01  2.06761E-01  2.11792E-01  2.16945E-01  2.22223E-01
#           2.27630E-01  2.33169E-01  2.38842E-01  2.44653E-01  2.50605E-01
#           2.56703E-01  2.62949E-01  2.69346E-01  2.75900E-01  2.82613E-01
#           2.89489E-01  2.96532E-01  3.03747E-01  3.11138E-01  3.18708E-01
#           3.26462E-01  3.34405E-01  3.42542E-01  3.50876E-01  3.59413E-01
#           3.68158E-01  3.77116E-01  3.86291E-01  3.95690E-01  4.05317E-01
#           4.15179E-01  4.25281E-01  4.35628E-01  4.46227E-01  4.57084E-01
#           4.68205E-01  4.79597E-01  4.91266E-01  5.03219E-01  5.15463E-01
#           5.28005E-01  5.40851E-01  5.54011E-01  5.67490E-01  5.81298E-01
#           5.95441E-01  6.09929E-01  6.24769E-01  6.39970E-01  6.55541E-01
#           6.71491E-01  6.87828E-01  7.04564E-01  7.21706E-01  7.39266E-01
#           7.57253E-01  7.75678E-01  7.94551E-01  8.13883E-01  8.33685E-01
#           8.53969E-01  8.74747E-01  8.96030E-01  9.17831E-01  9.40163E-01
#           9.63038E-01  9.86469E-01  1.01047E+00  1.03506E+00  1.06024E+00
#           1.08604E+00  1.11246E+00  1.13953E+00  1.16725E+00  1.19565E+00
#           1.22474E+00  1.25454E+00  1.28507E+00  1.31633E+00  1.34836E+00
#           1.38117E+00  1.41477E+00  1.44920E+00  1.48446E+00  1.52057E+00
#           1.55757E+00  1.59547E+00  1.63429E+00  1.67405E+00  1.71478E+00
#           1.75650E+00  1.79924E+00  1.84302E+00  1.88786E+00  1.93379E+00
#           1.98084E+00  2.02904E+00  2.07841E+00  2.12898E+00  2.18078E+00
#           2.23384E+00  2.28819E+00  2.34386E+00  2.40089E+00  2.45930E+00
#           2.51914E+00  2.58043E+00  2.64322E+00  2.70753E+00  2.77341E+00
#           2.84088E+00  2.91001E+00  2.98081E+00  3.05333E+00  3.12762E+00
#           3.20372E+00  3.28167E+00  3.36152E+00  3.44330E+00  3.52708E+00
#           3.61290E+00  3.70080E+00  3.79085E+00  3.88308E+00  3.97756E+00
#           4.07434E+00  4.17347E+00  4.27501E+00  4.37903E+00  4.48557E+00
#           4.59471E+00  4.70650E+00  4.82102E+00  4.93832E+00  5.05847E+00
#           5.18155E+00  5.30762E+00  5.43676E+00  5.56904E+00  5.70453E+00
#           5.84333E+00  5.98550E+00  6.13114E+00  6.28031E+00  6.43312E+00
#           6.58964E+00  6.74997E+00  6.91420E+00  7.08243E+00  7.25475E+00
#           7.43126E+00  7.61207E+00  7.79728E+00  7.98700E+00  8.18133E+00
#           8.38038E+00  8.58428E+00  8.79315E+00  9.00709E+00  9.22624E+00
#           9.45072E+00  9.68067E+00  9.91620E+00  1.01575E+01  1.04046E+01
#           1.06578E+01  1.09171E+01  1.11827E+01  1.14548E+01  1.17335E+01
#           1.20190E+01  1.23114E+01  1.26109E+01  1.29178E+01  1.32321E+01
#           1.35540E+01  1.38838E+01  1.42216E+01  1.45676E+01  1.49221E+01
#           1.52851E+01  1.56570E+01  1.60380E+01  1.64282E+01  1.68279E+01
#           1.72374E+01  1.76568E+01  1.80864E+01  1.85264E+01  1.89772E+01
#           1.94389E+01  1.99119E+01  2.03963E+01  2.08926E+01  2.14009E+01
#           2.19216E+01  2.24550E+01  2.30014E+01  2.35610E+01  2.41343E+01
#           2.47215E+01  2.53230E+01  2.59391E+01  2.65702E+01  2.72167E+01
#           2.78789E+01  2.85572E+01  2.92520E+01  2.99637E+01  3.06928E+01
#           3.14396E+01  3.22045E+01  3.29881E+01  3.37907E+01  3.46128E+01
#           3.54550E+01  3.63177E+01  3.72013E+01  3.81064E+01  3.90336E+01
#           3.99833E+01  4.09561E+01  4.19526E+01  4.29734E+01  4.40189E+01
#           4.50900E+01  4.61870E+01  4.73108E+01  4.84619E+01  4.96410E+01
#           5.08488E+01  5.20860E+01  5.33533E+01  5.46514E+01  5.59812E+01
#           5.73432E+01  5.87384E+01  6.01676E+01  6.16315E+01  6.31311E+01
#           6.46671E+01  6.62405E+01  6.78522E+01  6.95031E+01  7.11941E+01
#           7.29263E+01  7.47007E+01  7.65182E+01  7.83800E+01  8.02870E+01
#           8.22405E+01  8.42414E+01  8.62911E+01  8.83906E+01  9.05412E+01
#           9.27442E+01  9.50007E+01  9.73122E+01  9.96799E+01  1.02105E+02
#           1.04589E+02  1.07134E+02  1.09741E+02  1.12411E+02  1.15146E+02
#           1.17948E+02  1.20817E+02  1.23757E+02  1.26768E+02  1.29852E+02
#           1.33012E+02  1.36248E+02  1.39563E+02  1.42959E+02  1.46437E+02
#           1.50000E+02
     unit =    2            # unit is [1/cm^2/(MeV/n)/source]
     axis =  eng            # axis of output
     file = detector-22.out  # file name of output for the above axis
   output = f-curr          # surface crossing forward current spectrum
     part =  neutron  
# kf/name :  2112     
#    used :        main (  %)        temp (  %)       total (  %)
#  memory :         414 (  0)           0 (  0)         414 (  0)

#------------------------------------------------------------------------------
#newpage:
#   no. =    1   reg = 121 - 221

x: Energy [MeV/n]
y:  F-Curr [1/cm^2/(MeV/n)/source]         
p: xlog ylog afac(0.8) form(0.9)
h: n            x            y(neutron ),hh0l   n 
#  e-lower      e-upper      neutron     r.err 
   1.0000E-02   1.0243E-02   1.5653E-03  0.0724
   1.0243E-02   1.0493E-02   1.2988E-03  0.0784
   1.0493E-02   1.0748E-02   1.3861E-03  0.0750
   1.0748E-02   1.1009E-02   1.3974E-03  0.0738
   1.1009E-02   1.1277E-02   1.2273E-03  0.0778
   1.1277E-02   1.1552E-02   1.2844E-03  0.0753
   1.1552E-02   1.1833E-02   1.3746E-03  0.0719
   1.1833E-02   1.2121E-02   1.2669E-03  0.0737
   1.2121E-02   1.2415E-02   1.1591E-03  0.0764
   1.2415E-02   1.2718E-02   1.2566E-03  0.0725
   1.2718E-02   1.3027E-02   1.2600E-03  0.0715
   1.3027E-02   1.3344E-02   1.1828E-03  0.0730
   1.3344E-02   1.3669E-02   1.0314E-03  0.0772
   1.3669E-02   1.4001E-02   1.1612E-03  0.0718
   1.4001E-02   1.4342E-02   1.2051E-03  0.0698
   1.4342E-02   1.4691E-02   9.3961E-04  0.0779
   1.4691E-02   1.5048E-02   9.8882E-04  0.0751
   1.5048E-02   1.5414E-02   9.7095E-04  0.0749
   1.5414E-02   1.5789E-02   1.0172E-03  0.0723
   1.5789E-02   1.6174E-02   1.0777E-03  0.0695
   1.6174E-02   1.6567E-02   1.0085E-03  0.0709
   1.6567E-02   1.6970E-02   9.3070E-04  0.0729
   1.6970E-02   1.7383E-02   9.2406E-04  0.0723
   1.7383E-02   1.7806E-02   9.4876E-04  0.0705
   1.7806E-02   1.8239E-02   8.5728E-04  0.0732
   1.8239E-02   1.8683E-02   8.1994E-04  0.0739
   1.8683E-02   1.9138E-02   8.9656E-04  0.0699
   1.9138E-02   1.9603E-02   1.0080E-03  0.0651
   1.9603E-02   2.0080E-02   8.4437E-04  0.0704
   2.0080E-02   2.0569E-02   7.7091E-04  0.0727
   2.0569E-02   2.1069E-02   8.0477E-04  0.0703
   2.1069E-02   2.1582E-02   8.0261E-04  0.0696
   2.1582E-02   2.2107E-02   7.9607E-04  0.0689
   2.2107E-02   2.2645E-02   7.4046E-04  0.0707
   2.2645E-02   2.3196E-02   7.1609E-04  0.0712
   2.3196E-02   2.3760E-02   6.7768E-04  0.0721
   2.3760E-02   2.4338E-02   6.4839E-04  0.0730
   2.4338E-02   2.4930E-02   6.9969E-04  0.0694
   2.4930E-02   2.5537E-02   7.4359E-04  0.0665
   2.5537E-02   2.6158E-02   6.3426E-04  0.0711
   2.6158E-02   2.6795E-02   6.7540E-04  0.0681
   2.6795E-02   2.7447E-02   6.7162E-04  0.0675
   2.7447E-02   2.8114E-02   6.1295E-04  0.0698
   2.8114E-02   2.8799E-02   5.9178E-04  0.0701
   2.8799E-02   2.9499E-02   6.2429E-04  0.0675
   2.9499E-02   3.0217E-02   5.8378E-04  0.0690
   3.0217E-02   3.0952E-02   5.5980E-04  0.0696
   3.0952E-02   3.1705E-02   5.6072E-04  0.0687
   3.1705E-02   3.2477E-02   4.9243E-04  0.0724
   3.2477E-02   3.3267E-02   5.9678E-04  0.0650
   3.3267E-02   3.4076E-02   5.8390E-04  0.0649
   3.4076E-02   3.4905E-02   5.7390E-04  0.0647
   3.4905E-02   3.5755E-02   4.5742E-04  0.0716
   3.5755E-02   3.6625E-02   4.7792E-04  0.0692
   3.6625E-02   3.7516E-02   5.1379E-04  0.0659
   3.7516E-02   3.8428E-02   5.0987E-04  0.0655
   3.8428E-02   3.9363E-02   4.9436E-04  0.0657
   3.9363E-02   4.0321E-02   3.8175E-04  0.0738
   4.0321E-02   4.1302E-02   4.3435E-04  0.0683
   4.1302E-02   4.2307E-02   4.4616E-04  0.0668
   4.2307E-02   4.3337E-02   4.4966E-04  0.0655
   4.3337E-02   4.4391E-02   4.5782E-04  0.0643
   4.4391E-02   4.5471E-02   3.9179E-04  0.0686
   4.5471E-02   4.6577E-02   4.6103E-04  0.0625
   4.6577E-02   4.7711E-02   4.2322E-04  0.0645
   4.7711E-02   4.8871E-02   3.9505E-04  0.0658
   4.8871E-02   5.0061E-02   3.7028E-04  0.0673
   5.0061E-02   5.1279E-02   3.6610E-04  0.0668
   5.1279E-02   5.2526E-02   3.6499E-04  0.0662
   5.2526E-02   5.3804E-02   3.1263E-04  0.0707
   5.3804E-02   5.5113E-02   3.3836E-04  0.0670
   5.5113E-02   5.6454E-02   3.4006E-04  0.0662
   5.6454E-02   5.7828E-02   3.4168E-04  0.0652
   5.7828E-02   5.9235E-02   3.4704E-04  0.0639
   5.9235E-02   6.0676E-02   3.4031E-04  0.0637
   6.0676E-02   6.2152E-02   3.1248E-04  0.0658
   6.2152E-02   6.3665E-02   3.1553E-04  0.0647
   6.3665E-02   6.5214E-02   2.5791E-04  0.0706
   6.5214E-02   6.6800E-02   2.6628E-04  0.0688
   6.6800E-02   6.8426E-02   2.5983E-04  0.0687
   6.8426E-02   7.0090E-02   2.8956E-04  0.0643
   7.0090E-02   7.1796E-02   2.8105E-04  0.0645
   7.1796E-02   7.3543E-02   2.7048E-04  0.0649
   7.3543E-02   7.5332E-02   2.7982E-04  0.0632
   7.5332E-02   7.7165E-02   2.6517E-04  0.0640
   7.7165E-02   7.9042E-02   2.6259E-04  0.0637
   7.9042E-02   8.0965E-02   2.6382E-04  0.0626
   8.0965E-02   8.2935E-02   2.4039E-04  0.0649
   8.2935E-02   8.4953E-02   2.3056E-04  0.0655
   8.4953E-02   8.7020E-02   2.0458E-04  0.0687
   8.7020E-02   8.9138E-02   2.1601E-04  0.0660
   8.9138E-02   9.1306E-02   2.2232E-04  0.0643
   9.1306E-02   9.3528E-02   2.2638E-04  0.0630
   9.3528E-02   9.5804E-02   2.0345E-04  0.0656
   9.5804E-02   9.8134E-02   1.8404E-04  0.0682
   9.8134E-02   1.0052E-01   1.9306E-04  0.0658
   1.0052E-01   1.0297E-01   1.6381E-04  0.0706
   1.0297E-01   1.0547E-01   2.0709E-04  0.0620
   1.0547E-01   1.0804E-01   1.6149E-04  0.0693
   1.0804E-01   1.1067E-01   1.7148E-04  0.0664
   1.1067E-01   1.1336E-01   1.7816E-04  0.0644
   1.1336E-01   1.1612E-01   1.5775E-04  0.0677
   1.1612E-01   1.1894E-01   1.5432E-04  0.0677
   1.1894E-01   1.2184E-01   1.6208E-04  0.0652
   1.2184E-01   1.2480E-01   1.5064E-04  0.0667
   1.2480E-01   1.2784E-01   1.3617E-04  0.0695
   1.2784E-01   1.3095E-01   1.4636E-04  0.0659
   1.3095E-01   1.3414E-01   1.4350E-04  0.0661
   1.3414E-01   1.3740E-01   1.3755E-04  0.0667
   1.3740E-01   1.4074E-01   1.2477E-04  0.0691
   1.4074E-01   1.4417E-01   1.5386E-04  0.0615
   1.4417E-01   1.4767E-01   1.1763E-04  0.0695
   1.4767E-01   1.5127E-01   1.4465E-04  0.0619
   1.5127E-01   1.5495E-01   1.2931E-04  0.0647
   1.5495E-01   1.5872E-01   1.3090E-04  0.0635
   1.5872E-01   1.6258E-01   1.0322E-04  0.0707
   1.6258E-01   1.6654E-01   1.0652E-04  0.0687
   1.6654E-01   1.7059E-01   9.4043E-05  0.0721
   1.7059E-01   1.7474E-01   9.7171E-05  0.0703
   1.7474E-01   1.7899E-01   9.9385E-05  0.0688
   1.7899E-01   1.8334E-01   1.0401E-04  0.0663
   1.8334E-01   1.8781E-01   1.0967E-04  0.0637
   1.8781E-01   1.9237E-01   1.1451E-04  0.0617
   1.9237E-01   1.9706E-01   1.0011E-04  0.0651
   1.9706E-01   2.0185E-01   1.0150E-04  0.0639
   2.0185E-01   2.0676E-01   9.2662E-05  0.0662
   2.0676E-01   2.1179E-01   9.8578E-05  0.0634
   2.1179E-01   2.1694E-01   9.7920E-05  0.0628
   2.1694E-01   2.2222E-01   9.5819E-05  0.0628
   2.2222E-01   2.2763E-01   1.1417E-04  0.0569
   2.2763E-01   2.3317E-01   1.0994E-04  0.0573
   2.3317E-01   2.3884E-01   1.1653E-04  0.0550
   2.3884E-01   2.4465E-01   1.1236E-04  0.0552
   2.4465E-01   2.5061E-01   1.3010E-04  0.0508
   2.5061E-01   2.5670E-01   1.2388E-04  0.0513
   2.5670E-01   2.6295E-01   1.2395E-04  0.0507
   2.6295E-01   2.6935E-01   1.3260E-04  0.0485
   2.6935E-01   2.7590E-01   1.2612E-04  0.0491
   2.7590E-01   2.8261E-01   1.3610E-04  0.0467
   2.8261E-01   2.8949E-01   1.3439E-04  0.0464
   2.8949E-01   2.9653E-01   1.3937E-04  0.0450
   2.9653E-01   3.0375E-01   1.3966E-04  0.0444
   3.0375E-01   3.1114E-01   1.4817E-04  0.0426
   3.1114E-01   3.1871E-01   1.5286E-04  0.0415
   3.1871E-01   3.2646E-01   1.4646E-04  0.0419
   3.2646E-01   3.3441E-01   1.5323E-04  0.0404
   3.3441E-01   3.4254E-01   1.6028E-04  0.0391
   3.4254E-01   3.5088E-01   1.6607E-04  0.0379
   3.5088E-01   3.5941E-01   1.5777E-04  0.0385
   3.5941E-01   3.6816E-01   1.5589E-04  0.0382
   3.6816E-01   3.7712E-01   1.5962E-04  0.0373
   3.7712E-01   3.8629E-01   1.6879E-04  0.0358
   3.8629E-01   3.9569E-01   1.5981E-04  0.0364
   3.9569E-01   4.0532E-01   1.6816E-04  0.0351
   4.0532E-01   4.1518E-01   1.6554E-04  0.0349
   4.1518E-01   4.2528E-01   1.7532E-04  0.0335
   4.2528E-01   4.3563E-01   1.6729E-04  0.0339
   4.3563E-01   4.4623E-01   1.6786E-04  0.0334
   4.4623E-01   4.5708E-01   1.5814E-04  0.0339
   4.5708E-01   4.6821E-01   1.5529E-04  0.0339
   4.6821E-01   4.7960E-01   1.6517E-04  0.0325
   4.7960E-01   4.9127E-01   1.5824E-04  0.0328
   4.9127E-01   5.0322E-01   1.5817E-04  0.0324
   5.0322E-01   5.1546E-01   1.7581E-04  0.0304
   5.1546E-01   5.2800E-01   1.5716E-04  0.0318
   5.2800E-01   5.4085E-01   1.5513E-04  0.0316
   5.4085E-01   5.5401E-01   1.6264E-04  0.0305
   5.5401E-01   5.6749E-01   1.6355E-04  0.0300
   5.6749E-01   5.8130E-01   1.5128E-04  0.0308
   5.8130E-01   5.9544E-01   1.4786E-04  0.0308
   5.9544E-01   6.0993E-01   1.5208E-04  0.0300
   6.0993E-01   6.2477E-01   1.5233E-04  0.0296
   6.2477E-01   6.3997E-01   1.4820E-04  0.0297
   6.3997E-01   6.5554E-01   1.5312E-04  0.0289
   6.5554E-01   6.7149E-01   1.4872E-04  0.0289
   6.7149E-01   6.8783E-01   1.5235E-04  0.0282
   6.8783E-01   7.0456E-01   1.3530E-04  0.0296
   7.0456E-01   7.2171E-01   1.3334E-04  0.0295
   7.2171E-01   7.3927E-01   1.3239E-04  0.0292
   7.3927E-01   7.5725E-01   1.2864E-04  0.0293
   7.5725E-01   7.7568E-01   1.2429E-04  0.0294
   7.7568E-01   7.9455E-01   1.2324E-04  0.0292
   7.9455E-01   8.1388E-01   1.3006E-04  0.0281
   8.1388E-01   8.3368E-01   1.1095E-04  0.0300
   8.3368E-01   8.5397E-01   1.1786E-04  0.0288
   8.5397E-01   8.7475E-01   1.1126E-04  0.0292
   8.7475E-01   8.9603E-01   1.1076E-04  0.0290
   8.9603E-01   9.1783E-01   1.0369E-04  0.0296
   9.1783E-01   9.4016E-01   9.8395E-05  0.0300
   9.4016E-01   9.6304E-01   1.0000E-04  0.0294
   9.6304E-01   9.8647E-01   9.2955E-05  0.0302
   9.8647E-01   1.0105E+00   9.3154E-05  0.0297
   1.0105E+00   1.0351E+00   9.1611E-05  0.0296
   1.0351E+00   1.0602E+00   9.0278E-05  0.0295
   1.0602E+00   1.0860E+00   8.6949E-05  0.0297
   1.0860E+00   1.1125E+00   8.1218E-05  0.0304
   1.1125E+00   1.1395E+00   7.8235E-05  0.0306
   1.1395E+00   1.1673E+00   8.1880E-05  0.0295
   1.1673E+00   1.1957E+00   7.3360E-05  0.0308
   1.1957E+00   1.2247E+00   7.6657E-05  0.0297
   1.2247E+00   1.2545E+00   6.8622E-05  0.0310
   1.2545E+00   1.2851E+00   6.8537E-05  0.0307
   1.2851E+00   1.3163E+00   6.5941E-05  0.0310
   1.3163E+00   1.3484E+00   6.2013E-05  0.0316
   1.3484E+00   1.3812E+00   6.4825E-05  0.0305
   1.3812E+00   1.4148E+00   6.6414E-05  0.0297
   1.4148E+00   1.4492E+00   6.4660E-05  0.0298
   1.4492E+00   1.4845E+00   6.0097E-05  0.0306
   1.4845E+00   1.5206E+00   5.8650E-05  0.0305
   1.5206E+00   1.5576E+00   5.4700E-05  0.0312
   1.5576E+00   1.5955E+00   5.3963E-05  0.0311
   1.5955E+00   1.6343E+00   5.1681E-05  0.0314
   1.6343E+00   1.6741E+00   5.3713E-05  0.0304
   1.6741E+00   1.7148E+00   4.8103E-05  0.0317
   1.7148E+00   1.7565E+00   4.6831E-05  0.0318
   1.7565E+00   1.7992E+00   4.8767E-05  0.0308
   1.7992E+00   1.8430E+00   4.6580E-05  0.0311
   1.8430E+00   1.8879E+00   4.5032E-05  0.0312
   1.8879E+00   1.9338E+00   4.4445E-05  0.0311
   1.9338E+00   1.9808E+00   4.2637E-05  0.0313
   1.9808E+00   2.0290E+00   4.2562E-05  0.0310
   2.0290E+00   2.0784E+00   4.1029E-05  0.0312
   2.0784E+00   2.1290E+00   4.1193E-05  0.0308
   2.1290E+00   2.1808E+00   3.9468E-05  0.0311
   2.1808E+00   2.2338E+00   3.9530E-05  0.0307
   2.2338E+00   2.2882E+00   3.6097E-05  0.0317
   2.2882E+00   2.3439E+00   3.6650E-05  0.0311
   2.3439E+00   2.4009E+00   3.8021E-05  0.0302
   2.4009E+00   2.4593E+00   3.3924E-05  0.0316
   2.4593E+00   2.5191E+00   3.2758E-05  0.0317
   2.5191E+00   2.5804E+00   3.5628E-05  0.0301
   2.5804E+00   2.6432E+00   3.3786E-05  0.0305
   2.6432E+00   2.7075E+00   3.1010E-05  0.0315
   2.7075E+00   2.7734E+00   3.0912E-05  0.0311
   2.7734E+00   2.8409E+00   3.0151E-05  0.0312
   2.8409E+00   2.9100E+00   2.8792E-05  0.0315
   2.9100E+00   2.9808E+00   2.9353E-05  0.0308
   2.9808E+00   3.0533E+00   3.0116E-05  0.0301
   3.0533E+00   3.1276E+00   2.7856E-05  0.0309
   3.1276E+00   3.2037E+00   2.9334E-05  0.0297
   3.2037E+00   3.2817E+00   2.7288E-05  0.0305
   3.2817E+00   3.3615E+00   2.7816E-05  0.0298
   3.3615E+00   3.4433E+00   2.6550E-05  0.0302
   3.4433E+00   3.5271E+00   2.5176E-05  0.0307
   3.5271E+00   3.6129E+00   2.5318E-05  0.0302
   3.6129E+00   3.7008E+00   2.4244E-05  0.0305
   3.7008E+00   3.7908E+00   2.4495E-05  0.0300
   3.7908E+00   3.8831E+00   2.4539E-05  0.0296
   3.8831E+00   3.9776E+00   2.3081E-05  0.0302
   3.9776E+00   4.0743E+00   2.2782E-05  0.0300
   4.0743E+00   4.1735E+00   2.1773E-05  0.0303
   4.1735E+00   4.2750E+00   2.1404E-05  0.0302
   4.2750E+00   4.3790E+00   2.1777E-05  0.0296
   4.3790E+00   4.4856E+00   2.0731E-05  0.0299
   4.4856E+00   4.5947E+00   2.1765E-05  0.0289
   4.5947E+00   4.7065E+00   2.0136E-05  0.0297
   4.7065E+00   4.8210E+00   1.8995E-05  0.0302
   4.8210E+00   4.9383E+00   1.9127E-05  0.0297
   4.9383E+00   5.0585E+00   1.8127E-05  0.0302
   5.0585E+00   5.1815E+00   1.7751E-05  0.0301
   5.1815E+00   5.3076E+00   1.6821E-05  0.0306
   5.3076E+00   5.4368E+00   1.6755E-05  0.0303
   5.4368E+00   5.5690E+00   1.4961E-05  0.0317
   5.5690E+00   5.7045E+00   1.4566E-05  0.0318
   5.7045E+00   5.8433E+00   1.4201E-05  0.0317
   5.8433E+00   5.9855E+00   1.3359E-05  0.0324
   5.9855E+00   6.1311E+00   1.2110E-05  0.0336
   6.1311E+00   6.2803E+00   1.1704E-05  0.0338
   6.2803E+00   6.4331E+00   1.1321E-05  0.0339
   6.4331E+00   6.5896E+00   1.1176E-05  0.0337
   6.5896E+00   6.7500E+00   9.8669E-06  0.0355
   6.7500E+00   6.9142E+00   9.2256E-06  0.0363
   6.9142E+00   7.0824E+00   9.3505E-06  0.0356
   7.0824E+00   7.2548E+00   8.3082E-06  0.0373
   7.2548E+00   7.4313E+00   8.1574E-06  0.0372
   7.4313E+00   7.6121E+00   7.3345E-06  0.0388
   7.6121E+00   7.7973E+00   6.4057E-06  0.0410
   7.7973E+00   7.9870E+00   6.0765E-06  0.0416
   7.9870E+00   8.1813E+00   6.0963E-06  0.0411
   8.1813E+00   8.3804E+00   5.5537E-06  0.0425
   8.3804E+00   8.5843E+00   5.0112E-06  0.0442
   8.5843E+00   8.7931E+00   4.9739E-06  0.0439
   8.7931E+00   9.0071E+00   4.4820E-06  0.0457
   9.0071E+00   9.2262E+00   4.1524E-06  0.0469
   9.2262E+00   9.4507E+00   3.7355E-06  0.0488
   9.4507E+00   9.6807E+00   3.3486E-06  0.0510
   9.6807E+00   9.9162E+00   2.9230E-06  0.0539
   9.9162E+00   1.0157E+01   2.9035E-06  0.0534
   1.0157E+01   1.0405E+01   2.3630E-06  0.0585
   1.0405E+01   1.0658E+01   2.2753E-06  0.0589
   1.0658E+01   1.0917E+01   2.0842E-06  0.0608
   1.0917E+01   1.1183E+01   1.7845E-06  0.0650
   1.1183E+01   1.1455E+01   1.6980E-06  0.0658
   1.1455E+01   1.1733E+01   1.4926E-06  0.0693
   1.1733E+01   1.2019E+01   1.1431E-06  0.0782
   1.2019E+01   1.2311E+01   1.2037E-06  0.0754
   1.2311E+01   1.2611E+01   1.0816E-06  0.0786
   1.2611E+01   1.2918E+01   7.7091E-07  0.0919
   1.2918E+01   1.3232E+01   7.3179E-07  0.0933
   1.3232E+01   1.3554E+01   6.7713E-07  0.0958
   1.3554E+01   1.3884E+01   5.9434E-07  0.1010
   1.3884E+01   1.4222E+01   5.4469E-07  0.1043
   1.4222E+01   1.4568E+01   5.7800E-07  0.1000
   1.4568E+01   1.4922E+01   3.6830E-07  0.1236
   1.4922E+01   1.5285E+01   3.6357E-07  0.1231
   1.5285E+01   1.5657E+01   2.4738E-07  0.1474
   1.5657E+01   1.6038E+01   1.9425E-07  0.1644
   1.6038E+01   1.6428E+01   1.1788E-07  0.2085
   1.6428E+01   1.6828E+01   1.3510E-07  0.1925
   1.6828E+01   1.7237E+01   5.3732E-08  0.3015
   1.7237E+01   1.7657E+01   6.6762E-08  0.2673
   1.7657E+01   1.8086E+01   5.5866E-08  0.2887
   1.8086E+01   1.8526E+01   5.9083E-08  0.2774
   1.8526E+01   1.8977E+01   1.3311E-08  0.5774
   1.8977E+01   1.9439E+01   3.0321E-08  0.3780
   1.9439E+01   1.9912E+01   4.2287E-09  1.0000
   1.9912E+01   2.0396E+01   2.4769E-08  0.4082
   2.0396E+01   2.0893E+01   1.6121E-08  0.5000
   2.0893E+01   2.1401E+01   7.8688E-09  0.7071
   2.1401E+01   2.1922E+01   3.8410E-09  1.0000
   2.1922E+01   2.2455E+01   3.7497E-09  1.0000
   2.2455E+01   2.3001E+01   0.0000E+00  0.0000
   2.3001E+01   2.3561E+01   0.0000E+00  0.0000
   2.3561E+01   2.4134E+01   0.0000E+00  0.0000
   2.4134E+01   2.4721E+01   0.0000E+00  0.0000
   2.4721E+01   2.5323E+01   0.0000E+00  0.0000
   2.5323E+01   2.5939E+01   0.0000E+00  0.0000
   2.5939E+01   2.6570E+01   0.0000E+00  0.0000
   2.6570E+01   2.7217E+01   0.0000E+00  0.0000
   2.7217E+01   2.7879E+01   0.0000E+00  0.0000
   2.7879E+01   2.8557E+01   0.0000E+00  0.0000
   2.8557E+01   2.9252E+01   0.0000E+00  0.0000
   2.9252E+01   2.9964E+01   0.0000E+00  0.0000
   2.9964E+01   3.0693E+01   0.0000E+00  0.0000
   3.0693E+01   3.1440E+01   0.0000E+00  0.0000
   3.1440E+01   3.2205E+01   0.0000E+00  0.0000
   3.2205E+01   3.2988E+01   0.0000E+00  0.0000
   3.2988E+01   3.3791E+01   0.0000E+00  0.0000
   3.3791E+01   3.4613E+01   0.0000E+00  0.0000
   3.4613E+01   3.5455E+01   0.0000E+00  0.0000
   3.5455E+01   3.6318E+01   0.0000E+00  0.0000
   3.6318E+01   3.7201E+01   0.0000E+00  0.0000
   3.7201E+01   3.8106E+01   0.0000E+00  0.0000
   3.8106E+01   3.9034E+01   0.0000E+00  0.0000
   3.9034E+01   3.9983E+01   0.0000E+00  0.0000
   3.9983E+01   4.0956E+01   0.0000E+00  0.0000
   4.0956E+01   4.1953E+01   0.0000E+00  0.0000
   4.1953E+01   4.2973E+01   0.0000E+00  0.0000
   4.2973E+01   4.4019E+01   0.0000E+00  0.0000
   4.4019E+01   4.5090E+01   0.0000E+00  0.0000
   4.5090E+01   4.6187E+01   0.0000E+00  0.0000
   4.6187E+01   4.7311E+01   0.0000E+00  0.0000
   4.7311E+01   4.8462E+01   0.0000E+00  0.0000
   4.8462E+01   4.9641E+01   0.0000E+00  0.0000
   4.9641E+01   5.0849E+01   0.0000E+00  0.0000
   5.0849E+01   5.2086E+01   0.0000E+00  0.0000
   5.2086E+01   5.3353E+01   0.0000E+00  0.0000
   5.3353E+01   5.4651E+01   0.0000E+00  0.0000
   5.4651E+01   5.5981E+01   0.0000E+00  0.0000
   5.5981E+01   5.7343E+01   0.0000E+00  0.0000
   5.7343E+01   5.8738E+01   0.0000E+00  0.0000
   5.8738E+01   6.0168E+01   0.0000E+00  0.0000
   6.0168E+01   6.1632E+01   0.0000E+00  0.0000
   6.1632E+01   6.3131E+01   0.0000E+00  0.0000
   6.3131E+01   6.4667E+01   0.0000E+00  0.0000
   6.4667E+01   6.6240E+01   0.0000E+00  0.0000
   6.6240E+01   6.7852E+01   0.0000E+00  0.0000
   6.7852E+01   6.9503E+01   0.0000E+00  0.0000
   6.9503E+01   7.1194E+01   0.0000E+00  0.0000
   7.1194E+01   7.2926E+01   0.0000E+00  0.0000
   7.2926E+01   7.4701E+01   0.0000E+00  0.0000
   7.4701E+01   7.6518E+01   0.0000E+00  0.0000
   7.6518E+01   7.8380E+01   0.0000E+00  0.0000
   7.8380E+01   8.0287E+01   0.0000E+00  0.0000
   8.0287E+01   8.2240E+01   0.0000E+00  0.0000
   8.2240E+01   8.4241E+01   0.0000E+00  0.0000
   8.4241E+01   8.6291E+01   0.0000E+00  0.0000
   8.6291E+01   8.8391E+01   0.0000E+00  0.0000
   8.8391E+01   9.0541E+01   0.0000E+00  0.0000
   9.0541E+01   9.2744E+01   0.0000E+00  0.0000
   9.2744E+01   9.5001E+01   0.0000E+00  0.0000
   9.5001E+01   9.7312E+01   0.0000E+00  0.0000
   9.7312E+01   9.9680E+01   0.0000E+00  0.0000
   9.9680E+01   1.0211E+02   0.0000E+00  0.0000
   1.0211E+02   1.0459E+02   0.0000E+00  0.0000
   1.0459E+02   1.0713E+02   0.0000E+00  0.0000
   1.0713E+02   1.0974E+02   0.0000E+00  0.0000
   1.0974E+02   1.1241E+02   0.0000E+00  0.0000
   1.1241E+02   1.1515E+02   0.0000E+00  0.0000
   1.1515E+02   1.1795E+02   0.0000E+00  0.0000
   1.1795E+02   1.2082E+02   0.0000E+00  0.0000
   1.2082E+02   1.2376E+02   0.0000E+00  0.0000
   1.2376E+02   1.2677E+02   0.0000E+00  0.0000
   1.2677E+02   1.2985E+02   0.0000E+00  0.0000
   1.2985E+02   1.3301E+02   0.0000E+00  0.0000
   1.3301E+02   1.3625E+02   0.0000E+00  0.0000
   1.3625E+02   1.3956E+02   0.0000E+00  0.0000
   1.3956E+02   1.4296E+02   0.0000E+00  0.0000
   1.4296E+02   1.4644E+02   0.0000E+00  0.0000
   1.4644E+02   1.5000E+02   0.0000E+00  0.0000

#   sum over                 2.3548E-06
'no. =    1   reg = 121 - 221'
msuc: {\huge [t-cross] in region mesh}
msdr: {\it plotted by \ANGEL \version}
msdl: {\it calculated by \PHITS  3.26}
wt: s(0.7)
\vspace{-3}
  region surface crossing
  area  &=&   1.0000E+00 [cm^2]
e:
 
# Information for Restart Calculation
# This calculation was newly started
# istdev =  2 # 1:Batch variance, 2:History variance
# resc2  = 5.00000000000000000E+08 # Total source weight or Total source weight / maxcas
# resc3  = 5.00000000000000000E+08 # Total history number or Total batch number
# maxcas =   500000000 # History / Batch, only used for istdev=1
# bitrseed = 1101101111010011011000101101110001100110110010110001010100010001 # bit data of rseed
