[ T-Cross ]
    title = [t-cross] in region mesh
     mesh =  reg            # mesh type is region-wise
      reg =    1            # number of crossing regions
      non     r-from    r-to       area
      1       100       200        1.000000    
   e-type =    3            # e-mesh is log given by emin, emax and ne
     emin =  1.0000000E-02  # minimum value of e-mesh points
     emax =   150.0000      # maximum value of e-mesh points
#    edel =  2.4039514E-02  # mesh width of e-mesh points
       ne =    400          # number of e-mesh points
#    data = ( e(i), i = 1, ne + 1 )
#           1.00000E-02  1.02433E-02  1.04925E-02  1.07478E-02  1.10093E-02
#           1.12772E-02  1.15516E-02  1.18326E-02  1.21205E-02  1.24154E-02
#           1.27175E-02  1.30269E-02  1.33439E-02  1.36686E-02  1.40011E-02
#           1.43418E-02  1.46907E-02  1.50482E-02  1.54143E-02  1.57894E-02
#           1.61735E-02  1.65670E-02  1.69701E-02  1.73830E-02  1.78060E-02
#           1.82392E-02  1.86830E-02  1.91375E-02  1.96032E-02  2.00801E-02
#           2.05687E-02  2.10692E-02  2.15818E-02  2.21069E-02  2.26448E-02
#           2.31957E-02  2.37601E-02  2.43382E-02  2.49304E-02  2.55369E-02
#           2.61583E-02  2.67947E-02  2.74467E-02  2.81145E-02  2.87985E-02
#           2.94992E-02  3.02169E-02  3.09521E-02  3.17052E-02  3.24766E-02
#           3.32668E-02  3.40762E-02  3.49053E-02  3.57546E-02  3.66246E-02
#           3.75157E-02  3.84284E-02  3.93634E-02  4.03212E-02  4.13022E-02
#           4.23071E-02  4.33365E-02  4.43909E-02  4.54710E-02  4.65773E-02
#           4.77106E-02  4.88714E-02  5.00605E-02  5.12785E-02  5.25262E-02
#           5.38042E-02  5.51133E-02  5.64542E-02  5.78278E-02  5.92348E-02
#           6.06760E-02  6.21523E-02  6.36645E-02  6.52135E-02  6.68002E-02
#           6.84255E-02  7.00904E-02  7.17957E-02  7.35426E-02  7.53319E-02
#           7.71648E-02  7.90423E-02  8.09655E-02  8.29354E-02  8.49533E-02
#           8.70203E-02  8.91376E-02  9.13064E-02  9.35279E-02  9.58035E-02
#           9.81345E-02  1.00522E-01  1.02968E-01  1.05473E-01  1.08040E-01
#           1.10668E-01  1.13361E-01  1.16119E-01  1.18944E-01  1.21838E-01
#           1.24803E-01  1.27839E-01  1.30950E-01  1.34136E-01  1.37399E-01
#           1.40742E-01  1.44167E-01  1.47675E-01  1.51268E-01  1.54948E-01
#           1.58718E-01  1.62580E-01  1.66535E-01  1.70587E-01  1.74738E-01
#           1.78989E-01  1.83344E-01  1.87805E-01  1.92375E-01  1.97055E-01
#           2.01850E-01  2.06761E-01  2.11792E-01  2.16945E-01  2.22223E-01
#           2.27630E-01  2.33169E-01  2.38842E-01  2.44653E-01  2.50605E-01
#           2.56703E-01  2.62949E-01  2.69346E-01  2.75900E-01  2.82613E-01
#           2.89489E-01  2.96532E-01  3.03747E-01  3.11138E-01  3.18708E-01
#           3.26462E-01  3.34405E-01  3.42542E-01  3.50876E-01  3.59413E-01
#           3.68158E-01  3.77116E-01  3.86291E-01  3.95690E-01  4.05317E-01
#           4.15179E-01  4.25281E-01  4.35628E-01  4.46227E-01  4.57084E-01
#           4.68205E-01  4.79597E-01  4.91266E-01  5.03219E-01  5.15463E-01
#           5.28005E-01  5.40851E-01  5.54011E-01  5.67490E-01  5.81298E-01
#           5.95441E-01  6.09929E-01  6.24769E-01  6.39970E-01  6.55541E-01
#           6.71491E-01  6.87828E-01  7.04564E-01  7.21706E-01  7.39266E-01
#           7.57253E-01  7.75678E-01  7.94551E-01  8.13883E-01  8.33685E-01
#           8.53969E-01  8.74747E-01  8.96030E-01  9.17831E-01  9.40163E-01
#           9.63038E-01  9.86469E-01  1.01047E+00  1.03506E+00  1.06024E+00
#           1.08604E+00  1.11246E+00  1.13953E+00  1.16725E+00  1.19565E+00
#           1.22474E+00  1.25454E+00  1.28507E+00  1.31633E+00  1.34836E+00
#           1.38117E+00  1.41477E+00  1.44920E+00  1.48446E+00  1.52057E+00
#           1.55757E+00  1.59547E+00  1.63429E+00  1.67405E+00  1.71478E+00
#           1.75650E+00  1.79924E+00  1.84302E+00  1.88786E+00  1.93379E+00
#           1.98084E+00  2.02904E+00  2.07841E+00  2.12898E+00  2.18078E+00
#           2.23384E+00  2.28819E+00  2.34386E+00  2.40089E+00  2.45930E+00
#           2.51914E+00  2.58043E+00  2.64322E+00  2.70753E+00  2.77341E+00
#           2.84088E+00  2.91001E+00  2.98081E+00  3.05333E+00  3.12762E+00
#           3.20372E+00  3.28167E+00  3.36152E+00  3.44330E+00  3.52708E+00
#           3.61290E+00  3.70080E+00  3.79085E+00  3.88308E+00  3.97756E+00
#           4.07434E+00  4.17347E+00  4.27501E+00  4.37903E+00  4.48557E+00
#           4.59471E+00  4.70650E+00  4.82102E+00  4.93832E+00  5.05847E+00
#           5.18155E+00  5.30762E+00  5.43676E+00  5.56904E+00  5.70453E+00
#           5.84333E+00  5.98550E+00  6.13114E+00  6.28031E+00  6.43312E+00
#           6.58964E+00  6.74997E+00  6.91420E+00  7.08243E+00  7.25475E+00
#           7.43126E+00  7.61207E+00  7.79728E+00  7.98700E+00  8.18133E+00
#           8.38038E+00  8.58428E+00  8.79315E+00  9.00709E+00  9.22624E+00
#           9.45072E+00  9.68067E+00  9.91620E+00  1.01575E+01  1.04046E+01
#           1.06578E+01  1.09171E+01  1.11827E+01  1.14548E+01  1.17335E+01
#           1.20190E+01  1.23114E+01  1.26109E+01  1.29178E+01  1.32321E+01
#           1.35540E+01  1.38838E+01  1.42216E+01  1.45676E+01  1.49221E+01
#           1.52851E+01  1.56570E+01  1.60380E+01  1.64282E+01  1.68279E+01
#           1.72374E+01  1.76568E+01  1.80864E+01  1.85264E+01  1.89772E+01
#           1.94389E+01  1.99119E+01  2.03963E+01  2.08926E+01  2.14009E+01
#           2.19216E+01  2.24550E+01  2.30014E+01  2.35610E+01  2.41343E+01
#           2.47215E+01  2.53230E+01  2.59391E+01  2.65702E+01  2.72167E+01
#           2.78789E+01  2.85572E+01  2.92520E+01  2.99637E+01  3.06928E+01
#           3.14396E+01  3.22045E+01  3.29881E+01  3.37907E+01  3.46128E+01
#           3.54550E+01  3.63177E+01  3.72013E+01  3.81064E+01  3.90336E+01
#           3.99833E+01  4.09561E+01  4.19526E+01  4.29734E+01  4.40189E+01
#           4.50900E+01  4.61870E+01  4.73108E+01  4.84619E+01  4.96410E+01
#           5.08488E+01  5.20860E+01  5.33533E+01  5.46514E+01  5.59812E+01
#           5.73432E+01  5.87384E+01  6.01676E+01  6.16315E+01  6.31311E+01
#           6.46671E+01  6.62405E+01  6.78522E+01  6.95031E+01  7.11941E+01
#           7.29263E+01  7.47007E+01  7.65182E+01  7.83800E+01  8.02870E+01
#           8.22405E+01  8.42414E+01  8.62911E+01  8.83906E+01  9.05412E+01
#           9.27442E+01  9.50007E+01  9.73122E+01  9.96799E+01  1.02105E+02
#           1.04589E+02  1.07134E+02  1.09741E+02  1.12411E+02  1.15146E+02
#           1.17948E+02  1.20817E+02  1.23757E+02  1.26768E+02  1.29852E+02
#           1.33012E+02  1.36248E+02  1.39563E+02  1.42959E+02  1.46437E+02
#           1.50000E+02
     unit =    2            # unit is [1/cm^2/(MeV/n)/source]
     axis =  eng            # axis of output
     file = detector-01.out  # file name of output for the above axis
   output = f-curr          # surface crossing forward current spectrum
     part =  neutron  
# kf/name :  2112     
#    used :        main (  %)        temp (  %)       total (  %)
#  memory :         414 (  0)           0 (  0)         414 (  0)

#------------------------------------------------------------------------------
#newpage:
#   no. =    1   reg = 100 - 200

x: Energy [MeV/n]
y:  F-Curr [1/cm^2/(MeV/n)/source]         
p: xlog ylog afac(0.8) form(0.9)
h: n            x            y(neutron ),hh0l   n 
#  e-lower      e-upper      neutron     r.err 
   1.0000E-02   1.0243E-02   3.1721E-03  0.0215
   1.0243E-02   1.0493E-02   3.2156E-03  0.0211
   1.0493E-02   1.0748E-02   2.9084E-03  0.0219
   1.0748E-02   1.1009E-02   3.1152E-03  0.0209
   1.1009E-02   1.1277E-02   2.9466E-03  0.0213
   1.1277E-02   1.1552E-02   3.0185E-03  0.0208
   1.1552E-02   1.1833E-02   2.8731E-03  0.0210
   1.1833E-02   1.2121E-02   2.7341E-03  0.0213
   1.2121E-02   1.2415E-02   2.8230E-03  0.0207
   1.2415E-02   1.2718E-02   2.6649E-03  0.0211
   1.2718E-02   1.3027E-02   2.5773E-03  0.0212
   1.3027E-02   1.3344E-02   2.5736E-03  0.0209
   1.3344E-02   1.3669E-02   2.4102E-03  0.0214
   1.3669E-02   1.4001E-02   2.4721E-03  0.0208
   1.4001E-02   1.4342E-02   2.4758E-03  0.0206
   1.4342E-02   1.4691E-02   2.3254E-03  0.0210
   1.4691E-02   1.5048E-02   2.4100E-03  0.0204
   1.5048E-02   1.5414E-02   2.3206E-03  0.0205
   1.5414E-02   1.5789E-02   2.2883E-03  0.0204
   1.5789E-02   1.6174E-02   2.2312E-03  0.0204
   1.6174E-02   1.6567E-02   2.1473E-03  0.0206
   1.6567E-02   1.6970E-02   2.0937E-03  0.0206
   1.6970E-02   1.7383E-02   2.0915E-03  0.0203
   1.7383E-02   1.7806E-02   2.0663E-03  0.0202
   1.7806E-02   1.8239E-02   1.9785E-03  0.0204
   1.8239E-02   1.8683E-02   1.9918E-03  0.0201
   1.8683E-02   1.9138E-02   1.9296E-03  0.0202
   1.9138E-02   1.9603E-02   1.8324E-03  0.0205
   1.9603E-02   2.0080E-02   1.9147E-03  0.0198
   2.0080E-02   2.0569E-02   1.8414E-03  0.0199
   2.0569E-02   2.1069E-02   1.7727E-03  0.0201
   2.1069E-02   2.1582E-02   1.6693E-03  0.0204
   2.1582E-02   2.2107E-02   1.7065E-03  0.0200
   2.2107E-02   2.2645E-02   1.6799E-03  0.0199
   2.2645E-02   2.3196E-02   1.6056E-03  0.0201
   2.3196E-02   2.3760E-02   1.5966E-03  0.0199
   2.3760E-02   2.4338E-02   1.5537E-03  0.0199
   2.4338E-02   2.4930E-02   1.4469E-03  0.0204
   2.4930E-02   2.5537E-02   1.5208E-03  0.0197
   2.5537E-02   2.6158E-02   1.4853E-03  0.0197
   2.6158E-02   2.6795E-02   1.4601E-03  0.0196
   2.6795E-02   2.7447E-02   1.3575E-03  0.0201
   2.7447E-02   2.8114E-02   1.3718E-03  0.0197
   2.8114E-02   2.8799E-02   1.3073E-03  0.0200
   2.8799E-02   2.9499E-02   1.3023E-03  0.0198
   2.9499E-02   3.0217E-02   1.3353E-03  0.0193
   3.0217E-02   3.0952E-02   1.2674E-03  0.0196
   3.0952E-02   3.1705E-02   1.2183E-03  0.0197
   3.1705E-02   3.2477E-02   1.2389E-03  0.0193
   3.2477E-02   3.3267E-02   1.1846E-03  0.0195
   3.3267E-02   3.4076E-02   1.1402E-03  0.0197
   3.4076E-02   3.4905E-02   1.1768E-03  0.0191
   3.4905E-02   3.5755E-02   1.1043E-03  0.0195
   3.5755E-02   3.6625E-02   1.0998E-03  0.0193
   3.6625E-02   3.7516E-02   1.0609E-03  0.0194
   3.7516E-02   3.8428E-02   1.0020E-03  0.0198
   3.8428E-02   3.9363E-02   1.0203E-03  0.0193
   3.9363E-02   4.0321E-02   9.7849E-04  0.0195
   4.0321E-02   4.1302E-02   9.6107E-04  0.0195
   4.1302E-02   4.2307E-02   9.6241E-04  0.0192
   4.2307E-02   4.3337E-02   9.4094E-04  0.0192
   4.3337E-02   4.4391E-02   9.3180E-04  0.0191
   4.4391E-02   4.5471E-02   8.8387E-04  0.0193
   4.5471E-02   4.6577E-02   8.4932E-04  0.0195
   4.6577E-02   4.7711E-02   8.6035E-04  0.0191
   4.7711E-02   4.8871E-02   8.0638E-04  0.0195
   4.8871E-02   5.0061E-02   8.2747E-04  0.0191
   5.0061E-02   5.1279E-02   7.9110E-04  0.0193
   5.1279E-02   5.2526E-02   7.8662E-04  0.0191
   5.2526E-02   5.3804E-02   7.7353E-04  0.0190
   5.3804E-02   5.5113E-02   7.4342E-04  0.0192
   5.5113E-02   5.6454E-02   7.2683E-04  0.0191
   5.6454E-02   5.7828E-02   7.1087E-04  0.0191
   5.7828E-02   5.9235E-02   7.0490E-04  0.0190
   5.9235E-02   6.0676E-02   6.8828E-04  0.0190
   6.0676E-02   6.2152E-02   6.7834E-04  0.0189
   6.2152E-02   6.3665E-02   6.5986E-04  0.0189
   6.3665E-02   6.5214E-02   6.1929E-04  0.0193
   6.5214E-02   6.6800E-02   6.0953E-04  0.0192
   6.6800E-02   6.8426E-02   6.3285E-04  0.0186
   6.8426E-02   7.0090E-02   6.0731E-04  0.0188
   7.0090E-02   7.1796E-02   5.7990E-04  0.0190
   7.1796E-02   7.3543E-02   5.5467E-04  0.0192
   7.3543E-02   7.5332E-02   5.5208E-04  0.0190
   7.5332E-02   7.7165E-02   5.3331E-04  0.0191
   7.7165E-02   7.9042E-02   5.4651E-04  0.0187
   7.9042E-02   8.0965E-02   5.1923E-04  0.0189
   8.0965E-02   8.2935E-02   5.0019E-04  0.0190
   8.2935E-02   8.4953E-02   4.9309E-04  0.0189
   8.4953E-02   8.7020E-02   4.8639E-04  0.0188
   8.7020E-02   8.9138E-02   4.5965E-04  0.0192
   8.9138E-02   9.1306E-02   4.5483E-04  0.0190
   9.1306E-02   9.3528E-02   4.3936E-04  0.0191
   9.3528E-02   9.5804E-02   4.3128E-04  0.0191
   9.5804E-02   9.8134E-02   4.2763E-04  0.0189
   9.8134E-02   1.0052E-01   4.0191E-04  0.0193
   1.0052E-01   1.0297E-01   3.9748E-04  0.0192
   1.0297E-01   1.0547E-01   3.9174E-04  0.0191
   1.0547E-01   1.0804E-01   3.7527E-04  0.0193
   1.0804E-01   1.1067E-01   3.8381E-04  0.0188
   1.1067E-01   1.1336E-01   3.6409E-04  0.0191
   1.1336E-01   1.1612E-01   3.3485E-04  0.0197
   1.1612E-01   1.1894E-01   3.2778E-04  0.0196
   1.1894E-01   1.2184E-01   3.3715E-04  0.0191
   1.2184E-01   1.2480E-01   3.2637E-04  0.0192
   1.2480E-01   1.2784E-01   3.1238E-04  0.0194
   1.2784E-01   1.3095E-01   3.0186E-04  0.0195
   1.3095E-01   1.3414E-01   2.9851E-04  0.0194
   1.3414E-01   1.3740E-01   2.8288E-04  0.0197
   1.3740E-01   1.4074E-01   2.7798E-04  0.0196
   1.4074E-01   1.4417E-01   2.6918E-04  0.0197
   1.4417E-01   1.4767E-01   2.6971E-04  0.0194
   1.4767E-01   1.5127E-01   2.6306E-04  0.0194
   1.5127E-01   1.5495E-01   2.5278E-04  0.0196
   1.5495E-01   1.5872E-01   2.4181E-04  0.0198
   1.5872E-01   1.6258E-01   2.3398E-04  0.0199
   1.6258E-01   1.6654E-01   2.2589E-04  0.0200
   1.6654E-01   1.7059E-01   2.2370E-04  0.0198
   1.7059E-01   1.7474E-01   2.2226E-04  0.0197
   1.7474E-01   1.7899E-01   2.0598E-04  0.0202
   1.7899E-01   1.8334E-01   2.0896E-04  0.0198
   1.8334E-01   1.8781E-01   1.8974E-04  0.0205
   1.8781E-01   1.9237E-01   1.9051E-04  0.0203
   1.9237E-01   1.9706E-01   1.8973E-04  0.0201
   1.9706E-01   2.0185E-01   1.7937E-04  0.0204
   2.0185E-01   2.0676E-01   1.7700E-04  0.0203
   2.0676E-01   2.1179E-01   1.7163E-04  0.0203
   2.1179E-01   2.1694E-01   1.7029E-04  0.0202
   2.1694E-01   2.2222E-01   1.6320E-04  0.0204
   2.2222E-01   2.2763E-01   1.5404E-04  0.0207
   2.2763E-01   2.3317E-01   1.5077E-04  0.0207
   2.3317E-01   2.3884E-01   1.4781E-04  0.0206
   2.3884E-01   2.4465E-01   1.4326E-04  0.0207
   2.4465E-01   2.5061E-01   1.3674E-04  0.0209
   2.5061E-01   2.5670E-01   1.3712E-04  0.0207
   2.5670E-01   2.6295E-01   1.2969E-04  0.0210
   2.6295E-01   2.6935E-01   1.2264E-04  0.0213
   2.6935E-01   2.7590E-01   1.1559E-04  0.0217
   2.7590E-01   2.8261E-01   1.1327E-04  0.0217
   2.8261E-01   2.8949E-01   1.0819E-04  0.0219
   2.8949E-01   2.9653E-01   1.0719E-04  0.0217
   2.9653E-01   3.0375E-01   1.0435E-04  0.0218
   3.0375E-01   3.1114E-01   9.8632E-05  0.0221
   3.1114E-01   3.1871E-01   9.6855E-05  0.0221
   3.1871E-01   3.2646E-01   9.3403E-05  0.0222
   3.2646E-01   3.3441E-01   9.1139E-05  0.0222
   3.3441E-01   3.4254E-01   8.8975E-05  0.0222
   3.4254E-01   3.5088E-01   8.3733E-05  0.0226
   3.5088E-01   3.5941E-01   7.9590E-05  0.0229
   3.5941E-01   3.6816E-01   7.4779E-05  0.0234
   3.6816E-01   3.7712E-01   7.4797E-05  0.0231
   3.7712E-01   3.8629E-01   7.2398E-05  0.0232
   3.8629E-01   3.9569E-01   6.8360E-05  0.0236
   3.9569E-01   4.0532E-01   6.7107E-05  0.0235
   4.0532E-01   4.1518E-01   6.4608E-05  0.0237
   4.1518E-01   4.2528E-01   6.2048E-05  0.0239
   4.2528E-01   4.3563E-01   5.6916E-05  0.0246
   4.3563E-01   4.4623E-01   5.7585E-05  0.0242
   4.4623E-01   4.5708E-01   5.6974E-05  0.0240
   4.5708E-01   4.6821E-01   5.2779E-05  0.0247
   4.6821E-01   4.7960E-01   4.8845E-05  0.0253
   4.7960E-01   4.9127E-01   4.9674E-05  0.0248
   4.9127E-01   5.0322E-01   4.7433E-05  0.0251
   5.0322E-01   5.1546E-01   4.4308E-05  0.0257
   5.1546E-01   5.2800E-01   4.3327E-05  0.0256
   5.2800E-01   5.4085E-01   4.0755E-05  0.0261
   5.4085E-01   5.5401E-01   4.0140E-05  0.0260
   5.5401E-01   5.6749E-01   3.8604E-05  0.0262
   5.6749E-01   5.8130E-01   3.7195E-05  0.0264
   5.8130E-01   5.9544E-01   3.4847E-05  0.0269
   5.9544E-01   6.0993E-01   3.4759E-05  0.0266
   6.0993E-01   6.2477E-01   3.5209E-05  0.0261
   6.2477E-01   6.3997E-01   3.1013E-05  0.0275
   6.3997E-01   6.5554E-01   2.9221E-05  0.0280
   6.5554E-01   6.7149E-01   2.9400E-05  0.0276
   6.7149E-01   6.8783E-01   2.7019E-05  0.0284
   6.8783E-01   7.0456E-01   2.6046E-05  0.0286
   7.0456E-01   7.2171E-01   2.5334E-05  0.0287
   7.2171E-01   7.3927E-01   2.4203E-05  0.0290
   7.3927E-01   7.5725E-01   2.3450E-05  0.0291
   7.5725E-01   7.7568E-01   2.3086E-05  0.0290
   7.7568E-01   7.9455E-01   2.2065E-05  0.0293
   7.9455E-01   8.1388E-01   2.1633E-05  0.0292
   8.1388E-01   8.3368E-01   1.9965E-05  0.0301
   8.3368E-01   8.5397E-01   1.9350E-05  0.0302
   8.5397E-01   8.7475E-01   1.9045E-05  0.0300
   8.7475E-01   8.9603E-01   1.7502E-05  0.0310
   8.9603E-01   9.1783E-01   1.8036E-05  0.0301
   9.1783E-01   9.4016E-01   1.6840E-05  0.0308
   9.4016E-01   9.6304E-01   1.6643E-05  0.0306
   9.6304E-01   9.8647E-01   1.5577E-05  0.0313
   9.8647E-01   1.0105E+00   1.6145E-05  0.0304
   1.0105E+00   1.0351E+00   1.6255E-05  0.0299
   1.0351E+00   1.0602E+00   1.6805E-05  0.0290
   1.0602E+00   1.0860E+00   1.7154E-05  0.0284
   1.0860E+00   1.1125E+00   1.8381E-05  0.0271
   1.1125E+00   1.1395E+00   1.9482E-05  0.0260
   1.1395E+00   1.1673E+00   1.9567E-05  0.0257
   1.1673E+00   1.1957E+00   2.1237E-05  0.0243
   1.1957E+00   1.2247E+00   2.1312E-05  0.0240
   1.2247E+00   1.2545E+00   2.3527E-05  0.0226
   1.2545E+00   1.2851E+00   2.3799E-05  0.0222
   1.2851E+00   1.3163E+00   2.4353E-05  0.0217
   1.3163E+00   1.3484E+00   2.6272E-05  0.0206
   1.3484E+00   1.3812E+00   2.7281E-05  0.0200
   1.3812E+00   1.4148E+00   2.8599E-05  0.0193
   1.4148E+00   1.4492E+00   2.9486E-05  0.0188
   1.4492E+00   1.4845E+00   2.9764E-05  0.0184
   1.4845E+00   1.5206E+00   2.9615E-05  0.0183
   1.5206E+00   1.5576E+00   3.0128E-05  0.0179
   1.5576E+00   1.5955E+00   3.0982E-05  0.0174
   1.5955E+00   1.6343E+00   3.1934E-05  0.0170
   1.6343E+00   1.6741E+00   3.3645E-05  0.0163
   1.6741E+00   1.7148E+00   3.6660E-05  0.0155
   1.7148E+00   1.7565E+00   3.5610E-05  0.0155
   1.7565E+00   1.7992E+00   3.5633E-05  0.0153
   1.7992E+00   1.8430E+00   3.5941E-05  0.0151
   1.8430E+00   1.8879E+00   3.5784E-05  0.0149
   1.8879E+00   1.9338E+00   3.6629E-05  0.0146
   1.9338E+00   1.9808E+00   3.7535E-05  0.0142
   1.9808E+00   2.0290E+00   3.8074E-05  0.0140
   2.0290E+00   2.0784E+00   3.8038E-05  0.0138
   2.0784E+00   2.1290E+00   3.7456E-05  0.0137
   2.1290E+00   2.1808E+00   3.8341E-05  0.0134
   2.1808E+00   2.2338E+00   3.7060E-05  0.0135
   2.2338E+00   2.2882E+00   3.6857E-05  0.0134
   2.2882E+00   2.3439E+00   3.7637E-05  0.0131
   2.3439E+00   2.4009E+00   3.7457E-05  0.0129
   2.4009E+00   2.4593E+00   3.7215E-05  0.0128
   2.4593E+00   2.5191E+00   3.7170E-05  0.0127
   2.5191E+00   2.5804E+00   3.5346E-05  0.0128
   2.5804E+00   2.6432E+00   3.4483E-05  0.0128
   2.6432E+00   2.7075E+00   3.3139E-05  0.0129
   2.7075E+00   2.7734E+00   3.2762E-05  0.0129
   2.7734E+00   2.8409E+00   3.2846E-05  0.0127
   2.8409E+00   2.9100E+00   3.2893E-05  0.0125
   2.9100E+00   2.9808E+00   3.2490E-05  0.0125
   2.9808E+00   3.0533E+00   3.1211E-05  0.0126
   3.0533E+00   3.1276E+00   2.9643E-05  0.0127
   3.1276E+00   3.2037E+00   2.8788E-05  0.0128
   3.2037E+00   3.2817E+00   2.7211E-05  0.0130
   3.2817E+00   3.3615E+00   2.6551E-05  0.0130
   3.3615E+00   3.4433E+00   2.5785E-05  0.0130
   3.4433E+00   3.5271E+00   2.4584E-05  0.0132
   3.5271E+00   3.6129E+00   2.4554E-05  0.0130
   3.6129E+00   3.7008E+00   2.3333E-05  0.0132
   3.7008E+00   3.7908E+00   2.2426E-05  0.0133
   3.7908E+00   3.8831E+00   2.1785E-05  0.0133
   3.8831E+00   3.9776E+00   2.0201E-05  0.0137
   3.9776E+00   4.0743E+00   1.9862E-05  0.0136
   4.0743E+00   4.1735E+00   1.9109E-05  0.0137
   4.1735E+00   4.2750E+00   1.7969E-05  0.0140
   4.2750E+00   4.3790E+00   1.6838E-05  0.0143
   4.3790E+00   4.4856E+00   1.6006E-05  0.0145
   4.4856E+00   4.5947E+00   1.5973E-05  0.0143
   4.5947E+00   4.7065E+00   1.5130E-05  0.0145
   4.7065E+00   4.8210E+00   1.4306E-05  0.0148
   4.8210E+00   4.9383E+00   1.3564E-05  0.0150
   4.9383E+00   5.0585E+00   1.3022E-05  0.0151
   5.0585E+00   5.1815E+00   1.2022E-05  0.0155
   5.1815E+00   5.3076E+00   1.1316E-05  0.0158
   5.3076E+00   5.4368E+00   1.1173E-05  0.0157
   5.4368E+00   5.5690E+00   1.0426E-05  0.0161
   5.5690E+00   5.7045E+00   9.9078E-06  0.0163
   5.7045E+00   5.8433E+00   9.3763E-06  0.0166
   5.8433E+00   5.9855E+00   8.8851E-06  0.0168
   5.9855E+00   6.1311E+00   8.6712E-06  0.0168
   6.1311E+00   6.2803E+00   8.0789E-06  0.0172
   6.2803E+00   6.4331E+00   7.9946E-06  0.0171
   6.4331E+00   6.5896E+00   7.6608E-06  0.0173
   6.5896E+00   6.7500E+00   7.0880E-06  0.0177
   6.7500E+00   6.9142E+00   6.9869E-06  0.0176
   6.9142E+00   7.0824E+00   6.6228E-06  0.0179
   7.0824E+00   7.2548E+00   6.3699E-06  0.0180
   7.2548E+00   7.4313E+00   6.5028E-06  0.0176
   7.4313E+00   7.6121E+00   6.2691E-06  0.0177
   7.6121E+00   7.7973E+00   5.8012E-06  0.0182
   7.7973E+00   7.9870E+00   5.8459E-06  0.0179
   7.9870E+00   8.1813E+00   5.7504E-06  0.0179
   8.1813E+00   8.3804E+00   5.7282E-06  0.0177
   8.3804E+00   8.5843E+00   5.5771E-06  0.0177
   8.5843E+00   8.7931E+00   5.6202E-06  0.0174
   8.7931E+00   9.0071E+00   5.4153E-06  0.0176
   9.0071E+00   9.2262E+00   5.2696E-06  0.0176
   9.2262E+00   9.4507E+00   5.4379E-06  0.0171
   9.4507E+00   9.6807E+00   5.1736E-06  0.0173
   9.6807E+00   9.9162E+00   5.2289E-06  0.0170
   9.9162E+00   1.0157E+01   5.2187E-06  0.0168
   1.0157E+01   1.0405E+01   5.3686E-06  0.0164
   1.0405E+01   1.0658E+01   5.2502E-06  0.0164
   1.0658E+01   1.0917E+01   5.1964E-06  0.0163
   1.0917E+01   1.1183E+01   5.0939E-06  0.0162
   1.1183E+01   1.1455E+01   5.2065E-06  0.0159
   1.1455E+01   1.1733E+01   5.0816E-06  0.0159
   1.1733E+01   1.2019E+01   5.3537E-06  0.0153
   1.2019E+01   1.2311E+01   5.3883E-06  0.0151
   1.2311E+01   1.2611E+01   5.1232E-06  0.0153
   1.2611E+01   1.2918E+01   5.2145E-06  0.0149
   1.2918E+01   1.3232E+01   5.1060E-06  0.0149
   1.3232E+01   1.3554E+01   5.2094E-06  0.0146
   1.3554E+01   1.3884E+01   5.2649E-06  0.0143
   1.3884E+01   1.4222E+01   5.1377E-06  0.0143
   1.4222E+01   1.4568E+01   5.2350E-06  0.0140
   1.4568E+01   1.4922E+01   5.1419E-06  0.0140
   1.4922E+01   1.5285E+01   5.1678E-06  0.0138
   1.5285E+01   1.5657E+01   5.1372E-06  0.0137
   1.5657E+01   1.6038E+01   4.9777E-06  0.0137
   1.6038E+01   1.6428E+01   5.0627E-06  0.0134
   1.6428E+01   1.6828E+01   5.0505E-06  0.0133
   1.6828E+01   1.7237E+01   5.1133E-06  0.0131
   1.7237E+01   1.7657E+01   5.1025E-06  0.0129
   1.7657E+01   1.8086E+01   5.0894E-06  0.0128
   1.8086E+01   1.8526E+01   5.0842E-06  0.0126
   1.8526E+01   1.8977E+01   4.9844E-06  0.0126
   1.8977E+01   1.9439E+01   4.9507E-06  0.0125
   1.9439E+01   1.9912E+01   4.8014E-06  0.0125
   1.9912E+01   2.0396E+01   4.8794E-06  0.0123
   2.0396E+01   2.0893E+01   4.8405E-06  0.0122
   2.0893E+01   2.1401E+01   4.8843E-06  0.0120
   2.1401E+01   2.1922E+01   4.8033E-06  0.0119
   2.1922E+01   2.2455E+01   4.6731E-06  0.0120
   2.2455E+01   2.3001E+01   4.6608E-06  0.0118
   2.3001E+01   2.3561E+01   4.5756E-06  0.0118
   2.3561E+01   2.4134E+01   4.5212E-06  0.0117
   2.4134E+01   2.4721E+01   4.4454E-06  0.0117
   2.4721E+01   2.5323E+01   4.3071E-06  0.0117
   2.5323E+01   2.5939E+01   4.3654E-06  0.0115
   2.5939E+01   2.6570E+01   4.1383E-06  0.0117
   2.6570E+01   2.7217E+01   4.0329E-06  0.0117
   2.7217E+01   2.7879E+01   3.9079E-06  0.0117
   2.7879E+01   2.8557E+01   3.7767E-06  0.0118
   2.8557E+01   2.9252E+01   3.6772E-06  0.0118
   2.9252E+01   2.9964E+01   3.5989E-06  0.0118
   2.9964E+01   3.0693E+01   3.4404E-06  0.0119
   3.0693E+01   3.1440E+01   3.3817E-06  0.0119
   3.1440E+01   3.2205E+01   3.2589E-06  0.0120
   3.2205E+01   3.2988E+01   3.1372E-06  0.0121
   3.2988E+01   3.3791E+01   3.0316E-06  0.0121
   3.3791E+01   3.4613E+01   2.9035E-06  0.0122
   3.4613E+01   3.5455E+01   2.7820E-06  0.0123
   3.5455E+01   3.6318E+01   2.7068E-06  0.0124
   3.6318E+01   3.7201E+01   2.5172E-06  0.0127
   3.7201E+01   3.8106E+01   2.4925E-06  0.0126
   3.8106E+01   3.9034E+01   2.3258E-06  0.0129
   3.9034E+01   3.9983E+01   2.2988E-06  0.0128
   3.9983E+01   4.0956E+01   2.2152E-06  0.0129
   4.0956E+01   4.1953E+01   2.1719E-06  0.0128
   4.1953E+01   4.2973E+01   2.0454E-06  0.0131
   4.2973E+01   4.4019E+01   1.9811E-06  0.0131
   4.4019E+01   4.5090E+01   1.9154E-06  0.0132
   4.5090E+01   4.6187E+01   1.7511E-06  0.0136
   4.6187E+01   4.7311E+01   1.7057E-06  0.0137
   4.7311E+01   4.8462E+01   1.6307E-06  0.0138
   4.8462E+01   4.9641E+01   1.5251E-06  0.0141
   4.9641E+01   5.0849E+01   1.4187E-06  0.0144
   5.0849E+01   5.2086E+01   1.3683E-06  0.0145
   5.2086E+01   5.3353E+01   1.2484E-06  0.0150
   5.3353E+01   5.4651E+01   1.1687E-06  0.0153
   5.4651E+01   5.5981E+01   1.0778E-06  0.0158
   5.5981E+01   5.7343E+01   9.6335E-07  0.0165
   5.7343E+01   5.8738E+01   8.6214E-07  0.0172
   5.8738E+01   6.0168E+01   7.4994E-07  0.0183
   6.0168E+01   6.1632E+01   6.4577E-07  0.0194
   6.1632E+01   6.3131E+01   5.5255E-07  0.0208
   6.3131E+01   6.4667E+01   4.4898E-07  0.0228
   6.4667E+01   6.6240E+01   2.8419E-07  0.0283
   6.6240E+01   6.7852E+01   9.7945E-08  0.0476
   6.7852E+01   6.9503E+01   4.3267E-10  0.7071
   6.9503E+01   7.1194E+01   0.0000E+00  0.0000
   7.1194E+01   7.2926E+01   0.0000E+00  0.0000
   7.2926E+01   7.4701E+01   0.0000E+00  0.0000
   7.4701E+01   7.6518E+01   0.0000E+00  0.0000
   7.6518E+01   7.8380E+01   0.0000E+00  0.0000
   7.8380E+01   8.0287E+01   0.0000E+00  0.0000
   8.0287E+01   8.2240E+01   0.0000E+00  0.0000
   8.2240E+01   8.4241E+01   0.0000E+00  0.0000
   8.4241E+01   8.6291E+01   0.0000E+00  0.0000
   8.6291E+01   8.8391E+01   0.0000E+00  0.0000
   8.8391E+01   9.0541E+01   0.0000E+00  0.0000
   9.0541E+01   9.2744E+01   0.0000E+00  0.0000
   9.2744E+01   9.5001E+01   0.0000E+00  0.0000
   9.5001E+01   9.7312E+01   0.0000E+00  0.0000
   9.7312E+01   9.9680E+01   0.0000E+00  0.0000
   9.9680E+01   1.0211E+02   0.0000E+00  0.0000
   1.0211E+02   1.0459E+02   0.0000E+00  0.0000
   1.0459E+02   1.0713E+02   0.0000E+00  0.0000
   1.0713E+02   1.0974E+02   0.0000E+00  0.0000
   1.0974E+02   1.1241E+02   0.0000E+00  0.0000
   1.1241E+02   1.1515E+02   0.0000E+00  0.0000
   1.1515E+02   1.1795E+02   0.0000E+00  0.0000
   1.1795E+02   1.2082E+02   0.0000E+00  0.0000
   1.2082E+02   1.2376E+02   0.0000E+00  0.0000
   1.2376E+02   1.2677E+02   0.0000E+00  0.0000
   1.2677E+02   1.2985E+02   0.0000E+00  0.0000
   1.2985E+02   1.3301E+02   0.0000E+00  0.0000
   1.3301E+02   1.3625E+02   0.0000E+00  0.0000
   1.3625E+02   1.3956E+02   0.0000E+00  0.0000
   1.3956E+02   1.4296E+02   0.0000E+00  0.0000
   1.4296E+02   1.4644E+02   0.0000E+00  0.0000
   1.4644E+02   1.5000E+02   0.0000E+00  0.0000

#   sum over                 3.0066E-06
'no. =    1   reg = 100 - 200'
msuc: {\huge [t-cross] in region mesh}
msdr: {\it plotted by \ANGEL \version}
msdl: {\it calculated by \PHITS  3.26}
wt: s(0.7)
\vspace{-3}
  region surface crossing
  area  &=&   1.0000E+00 [cm^2]
e:
 
# Information for Restart Calculation
# This calculation was newly started
# istdev =  2 # 1:Batch variance, 2:History variance
# resc2  = 2.80000000000000000E+09 # Total source weight or Total source weight / maxcas
# resc3  = 2.80000000000000000E+09 # Total history number or Total batch number
# maxcas =   100000000 # History / Batch, only used for istdev=1
# bitrseed = 1000100001101110001110110110100101010001001101000100110100010110 # bit data of rseed
