[ T-Cross ]
    title = [t-cross] in region mesh
     mesh =  reg            # mesh type is region-wise
      reg =    1            # number of crossing regions
      non     r-from    r-to       area
      1       107       207        1.000000    
   e-type =    3            # e-mesh is log given by emin, emax and ne
     emin =  1.0000000E-02  # minimum value of e-mesh points
     emax =   150.0000      # maximum value of e-mesh points
#    edel =  2.4039514E-02  # mesh width of e-mesh points
       ne =    400          # number of e-mesh points
#    data = ( e(i), i = 1, ne + 1 )
#           1.00000E-02  1.02433E-02  1.04925E-02  1.07478E-02  1.10093E-02
#           1.12772E-02  1.15516E-02  1.18326E-02  1.21205E-02  1.24154E-02
#           1.27175E-02  1.30269E-02  1.33439E-02  1.36686E-02  1.40011E-02
#           1.43418E-02  1.46907E-02  1.50482E-02  1.54143E-02  1.57894E-02
#           1.61735E-02  1.65670E-02  1.69701E-02  1.73830E-02  1.78060E-02
#           1.82392E-02  1.86830E-02  1.91375E-02  1.96032E-02  2.00801E-02
#           2.05687E-02  2.10692E-02  2.15818E-02  2.21069E-02  2.26448E-02
#           2.31957E-02  2.37601E-02  2.43382E-02  2.49304E-02  2.55369E-02
#           2.61583E-02  2.67947E-02  2.74467E-02  2.81145E-02  2.87985E-02
#           2.94992E-02  3.02169E-02  3.09521E-02  3.17052E-02  3.24766E-02
#           3.32668E-02  3.40762E-02  3.49053E-02  3.57546E-02  3.66246E-02
#           3.75157E-02  3.84284E-02  3.93634E-02  4.03212E-02  4.13022E-02
#           4.23071E-02  4.33365E-02  4.43909E-02  4.54710E-02  4.65773E-02
#           4.77106E-02  4.88714E-02  5.00605E-02  5.12785E-02  5.25262E-02
#           5.38042E-02  5.51133E-02  5.64542E-02  5.78278E-02  5.92348E-02
#           6.06760E-02  6.21523E-02  6.36645E-02  6.52135E-02  6.68002E-02
#           6.84255E-02  7.00904E-02  7.17957E-02  7.35426E-02  7.53319E-02
#           7.71648E-02  7.90423E-02  8.09655E-02  8.29354E-02  8.49533E-02
#           8.70203E-02  8.91376E-02  9.13064E-02  9.35279E-02  9.58035E-02
#           9.81345E-02  1.00522E-01  1.02968E-01  1.05473E-01  1.08040E-01
#           1.10668E-01  1.13361E-01  1.16119E-01  1.18944E-01  1.21838E-01
#           1.24803E-01  1.27839E-01  1.30950E-01  1.34136E-01  1.37399E-01
#           1.40742E-01  1.44167E-01  1.47675E-01  1.51268E-01  1.54948E-01
#           1.58718E-01  1.62580E-01  1.66535E-01  1.70587E-01  1.74738E-01
#           1.78989E-01  1.83344E-01  1.87805E-01  1.92375E-01  1.97055E-01
#           2.01850E-01  2.06761E-01  2.11792E-01  2.16945E-01  2.22223E-01
#           2.27630E-01  2.33169E-01  2.38842E-01  2.44653E-01  2.50605E-01
#           2.56703E-01  2.62949E-01  2.69346E-01  2.75900E-01  2.82613E-01
#           2.89489E-01  2.96532E-01  3.03747E-01  3.11138E-01  3.18708E-01
#           3.26462E-01  3.34405E-01  3.42542E-01  3.50876E-01  3.59413E-01
#           3.68158E-01  3.77116E-01  3.86291E-01  3.95690E-01  4.05317E-01
#           4.15179E-01  4.25281E-01  4.35628E-01  4.46227E-01  4.57084E-01
#           4.68205E-01  4.79597E-01  4.91266E-01  5.03219E-01  5.15463E-01
#           5.28005E-01  5.40851E-01  5.54011E-01  5.67490E-01  5.81298E-01
#           5.95441E-01  6.09929E-01  6.24769E-01  6.39970E-01  6.55541E-01
#           6.71491E-01  6.87828E-01  7.04564E-01  7.21706E-01  7.39266E-01
#           7.57253E-01  7.75678E-01  7.94551E-01  8.13883E-01  8.33685E-01
#           8.53969E-01  8.74747E-01  8.96030E-01  9.17831E-01  9.40163E-01
#           9.63038E-01  9.86469E-01  1.01047E+00  1.03506E+00  1.06024E+00
#           1.08604E+00  1.11246E+00  1.13953E+00  1.16725E+00  1.19565E+00
#           1.22474E+00  1.25454E+00  1.28507E+00  1.31633E+00  1.34836E+00
#           1.38117E+00  1.41477E+00  1.44920E+00  1.48446E+00  1.52057E+00
#           1.55757E+00  1.59547E+00  1.63429E+00  1.67405E+00  1.71478E+00
#           1.75650E+00  1.79924E+00  1.84302E+00  1.88786E+00  1.93379E+00
#           1.98084E+00  2.02904E+00  2.07841E+00  2.12898E+00  2.18078E+00
#           2.23384E+00  2.28819E+00  2.34386E+00  2.40089E+00  2.45930E+00
#           2.51914E+00  2.58043E+00  2.64322E+00  2.70753E+00  2.77341E+00
#           2.84088E+00  2.91001E+00  2.98081E+00  3.05333E+00  3.12762E+00
#           3.20372E+00  3.28167E+00  3.36152E+00  3.44330E+00  3.52708E+00
#           3.61290E+00  3.70080E+00  3.79085E+00  3.88308E+00  3.97756E+00
#           4.07434E+00  4.17347E+00  4.27501E+00  4.37903E+00  4.48557E+00
#           4.59471E+00  4.70650E+00  4.82102E+00  4.93832E+00  5.05847E+00
#           5.18155E+00  5.30762E+00  5.43676E+00  5.56904E+00  5.70453E+00
#           5.84333E+00  5.98550E+00  6.13114E+00  6.28031E+00  6.43312E+00
#           6.58964E+00  6.74997E+00  6.91420E+00  7.08243E+00  7.25475E+00
#           7.43126E+00  7.61207E+00  7.79728E+00  7.98700E+00  8.18133E+00
#           8.38038E+00  8.58428E+00  8.79315E+00  9.00709E+00  9.22624E+00
#           9.45072E+00  9.68067E+00  9.91620E+00  1.01575E+01  1.04046E+01
#           1.06578E+01  1.09171E+01  1.11827E+01  1.14548E+01  1.17335E+01
#           1.20190E+01  1.23114E+01  1.26109E+01  1.29178E+01  1.32321E+01
#           1.35540E+01  1.38838E+01  1.42216E+01  1.45676E+01  1.49221E+01
#           1.52851E+01  1.56570E+01  1.60380E+01  1.64282E+01  1.68279E+01
#           1.72374E+01  1.76568E+01  1.80864E+01  1.85264E+01  1.89772E+01
#           1.94389E+01  1.99119E+01  2.03963E+01  2.08926E+01  2.14009E+01
#           2.19216E+01  2.24550E+01  2.30014E+01  2.35610E+01  2.41343E+01
#           2.47215E+01  2.53230E+01  2.59391E+01  2.65702E+01  2.72167E+01
#           2.78789E+01  2.85572E+01  2.92520E+01  2.99637E+01  3.06928E+01
#           3.14396E+01  3.22045E+01  3.29881E+01  3.37907E+01  3.46128E+01
#           3.54550E+01  3.63177E+01  3.72013E+01  3.81064E+01  3.90336E+01
#           3.99833E+01  4.09561E+01  4.19526E+01  4.29734E+01  4.40189E+01
#           4.50900E+01  4.61870E+01  4.73108E+01  4.84619E+01  4.96410E+01
#           5.08488E+01  5.20860E+01  5.33533E+01  5.46514E+01  5.59812E+01
#           5.73432E+01  5.87384E+01  6.01676E+01  6.16315E+01  6.31311E+01
#           6.46671E+01  6.62405E+01  6.78522E+01  6.95031E+01  7.11941E+01
#           7.29263E+01  7.47007E+01  7.65182E+01  7.83800E+01  8.02870E+01
#           8.22405E+01  8.42414E+01  8.62911E+01  8.83906E+01  9.05412E+01
#           9.27442E+01  9.50007E+01  9.73122E+01  9.96799E+01  1.02105E+02
#           1.04589E+02  1.07134E+02  1.09741E+02  1.12411E+02  1.15146E+02
#           1.17948E+02  1.20817E+02  1.23757E+02  1.26768E+02  1.29852E+02
#           1.33012E+02  1.36248E+02  1.39563E+02  1.42959E+02  1.46437E+02
#           1.50000E+02
     unit =    2            # unit is [1/cm^2/(MeV/n)/source]
     axis =  eng            # axis of output
     file = detector-08.out  # file name of output for the above axis
   output = f-curr          # surface crossing forward current spectrum
     part =  neutron  
# kf/name :  2112     
#    used :        main (  %)        temp (  %)       total (  %)
#  memory :         414 (  0)           0 (  0)         414 (  0)

#------------------------------------------------------------------------------
#newpage:
#   no. =    1   reg = 107 - 207

x: Energy [MeV/n]
y:  F-Curr [1/cm^2/(MeV/n)/source]         
p: xlog ylog afac(0.8) form(0.9)
h: n            x            y(neutron ),hh0l   n 
#  e-lower      e-upper      neutron     r.err 
   1.0000E-02   1.0243E-02   6.0828E-05  0.1162
   1.0243E-02   1.0493E-02   4.9754E-05  0.1270
   1.0493E-02   1.0748E-02   6.0323E-05  0.1140
   1.0748E-02   1.1009E-02   6.4366E-05  0.1089
   1.1009E-02   1.1277E-02   4.0319E-05  0.1361
   1.1277E-02   1.1552E-02   5.1752E-05  0.1187
   1.1552E-02   1.1833E-02   5.5504E-05  0.1132
   1.1833E-02   1.2121E-02   5.5575E-05  0.1118
   1.2121E-02   1.2415E-02   4.2726E-05  0.1260
   1.2415E-02   1.2718E-02   4.8994E-05  0.1162
   1.2718E-02   1.3027E-02   4.5891E-05  0.1187
   1.3027E-02   1.3344E-02   4.9849E-05  0.1125
   1.3344E-02   1.3669E-02   4.0657E-05  0.1231
   1.3669E-02   1.4001E-02   5.4124E-05  0.1054
   1.4001E-02   1.4342E-02   4.3445E-05  0.1162
   1.4342E-02   1.4691E-02   4.2986E-05  0.1155
   1.4691E-02   1.5048E-02   4.0916E-05  0.1169
   1.5048E-02   1.5414E-02   5.0255E-05  0.1043
   1.5414E-02   1.5789E-02   4.5328E-05  0.1085
   1.5789E-02   1.6174E-02   4.3731E-05  0.1091
   1.6174E-02   1.6567E-02   4.3200E-05  0.1085
   1.6567E-02   1.6970E-02   5.1105E-05  0.0985
   1.6970E-02   1.7383E-02   3.8266E-05  0.1125
   1.7383E-02   1.7806E-02   4.6815E-05  0.1005
   1.7806E-02   1.8239E-02   4.6165E-05  0.1000
   1.8239E-02   1.8683E-02   4.3265E-05  0.1021
   1.8683E-02   1.9138E-02   4.3558E-05  0.1005
   1.9138E-02   1.9603E-02   4.1664E-05  0.1015
   1.9603E-02   2.0080E-02   3.8578E-05  0.1043
   2.0080E-02   2.0569E-02   5.1170E-05  0.0894
   2.0569E-02   2.1069E-02   4.3561E-05  0.0958
   2.1069E-02   2.1582E-02   4.4477E-05  0.0937
   2.1582E-02   2.2107E-02   5.0276E-05  0.0870
   2.2107E-02   2.2645E-02   3.7980E-05  0.0989
   2.2645E-02   2.3196E-02   4.2471E-05  0.0925
   2.3196E-02   2.3760E-02   3.9690E-05  0.0945
   2.3760E-02   2.4338E-02   4.1515E-05  0.0913
   2.4338E-02   2.4930E-02   4.1373E-05  0.0903
   2.4930E-02   2.5537E-02   3.7918E-05  0.0933
   2.5537E-02   2.6158E-02   3.4442E-05  0.0967
   2.6158E-02   2.6795E-02   4.4360E-05  0.0841
   2.6795E-02   2.7447E-02   4.7244E-05  0.0806
   2.7447E-02   2.8114E-02   3.5639E-05  0.0917
   2.8114E-02   2.8799E-02   4.1278E-05  0.0841
   2.8799E-02   2.9499E-02   3.7143E-05  0.0876
   2.9499E-02   3.0217E-02   3.5993E-05  0.0879
   3.0217E-02   3.0952E-02   3.9445E-05  0.0830
   3.0952E-02   3.1705E-02   4.1695E-05  0.0798
   3.1705E-02   3.2477E-02   4.3427E-05  0.0772
   3.2477E-02   3.3267E-02   3.6447E-05  0.0833
   3.3267E-02   3.4076E-02   3.5372E-05  0.0835
   3.4076E-02   3.4905E-02   4.0807E-05  0.0769
   3.4905E-02   3.5755E-02   3.8425E-05  0.0783
   3.5755E-02   3.6625E-02   3.5903E-05  0.0800
   3.6625E-02   3.7516E-02   3.8379E-05  0.0765
   3.7516E-02   3.8428E-02   3.3414E-05  0.0809
   3.8428E-02   3.9363E-02   3.4011E-05  0.0793
   3.9363E-02   4.0321E-02   3.6753E-05  0.0754
   4.0321E-02   4.1302E-02   3.3434E-05  0.0781
   4.1302E-02   4.2307E-02   3.6919E-05  0.0734
   4.2307E-02   4.3337E-02   4.0608E-05  0.0692
   4.3337E-02   4.4391E-02   3.4363E-05  0.0743
   4.4391E-02   4.5471E-02   3.2868E-05  0.0750
   4.5471E-02   4.6577E-02   2.9856E-05  0.0778
   4.6577E-02   4.7711E-02   2.8943E-05  0.0781
   4.7711E-02   4.8871E-02   3.0065E-05  0.0756
   4.8871E-02   5.0061E-02   3.3724E-05  0.0706
   5.0061E-02   5.1279E-02   3.1609E-05  0.0720
   5.1279E-02   5.2526E-02   2.8238E-05  0.0753
   5.2526E-02   5.3804E-02   3.0829E-05  0.0712
   5.3804E-02   5.5113E-02   2.8111E-05  0.0737
   5.5113E-02   5.6454E-02   2.9412E-05  0.0711
   5.6454E-02   5.7828E-02   2.7374E-05  0.0729
   5.7828E-02   5.9235E-02   3.0154E-05  0.0686
   5.9235E-02   6.0676E-02   2.6247E-05  0.0727
   6.0676E-02   6.2152E-02   3.0685E-05  0.0664
   6.2152E-02   6.3665E-02   2.7400E-05  0.0695
   6.3665E-02   6.5214E-02   2.4467E-05  0.0726
   6.5214E-02   6.6800E-02   2.7794E-05  0.0672
   6.6800E-02   6.8426E-02   2.3380E-05  0.0725
   6.8426E-02   7.0090E-02   2.5365E-05  0.0688
   7.0090E-02   7.1796E-02   2.3976E-05  0.0699
   7.1796E-02   7.3543E-02   2.7557E-05  0.0644
   7.3543E-02   7.5332E-02   2.4163E-05  0.0680
   7.5332E-02   7.7165E-02   2.4914E-05  0.0661
   7.7165E-02   7.9042E-02   2.4075E-05  0.0665
   7.9042E-02   8.0965E-02   2.4335E-05  0.0654
   8.0965E-02   8.2935E-02   2.4485E-05  0.0644
   8.2935E-02   8.4953E-02   2.1114E-05  0.0684
   8.4953E-02   8.7020E-02   2.1058E-05  0.0677
   8.7020E-02   8.9138E-02   1.8244E-05  0.0718
   8.9138E-02   9.1306E-02   2.0914E-05  0.0663
   9.1306E-02   9.3528E-02   1.8996E-05  0.0688
   9.3528E-02   9.5804E-02   1.9595E-05  0.0669
   9.5804E-02   9.8134E-02   2.1001E-05  0.0639
   9.8134E-02   1.0052E-01   1.9852E-05  0.0650
   1.0052E-01   1.0297E-01   2.0866E-05  0.0626
   1.0297E-01   1.0547E-01   2.0689E-05  0.0620
   1.0547E-01   1.0804E-01   1.7220E-05  0.0672
   1.0804E-01   1.1067E-01   1.8907E-05  0.0633
   1.1067E-01   1.1336E-01   1.6935E-05  0.0662
   1.1336E-01   1.1612E-01   1.4549E-05  0.0705
   1.1612E-01   1.1894E-01   1.4622E-05  0.0695
   1.1894E-01   1.2184E-01   1.5075E-05  0.0677
   1.2184E-01   1.2480E-01   1.4348E-05  0.0684
   1.2480E-01   1.2784E-01   1.4995E-05  0.0662
   1.2784E-01   1.3095E-01   1.4242E-05  0.0672
   1.3095E-01   1.3414E-01   1.1999E-05  0.0723
   1.3414E-01   1.3740E-01   1.4401E-05  0.0652
   1.3740E-01   1.4074E-01   1.4577E-05  0.0640
   1.4074E-01   1.4417E-01   1.2946E-05  0.0671
   1.4417E-01   1.4767E-01   1.0443E-05  0.0739
   1.4767E-01   1.5127E-01   1.2830E-05  0.0658
   1.5127E-01   1.5495E-01   1.0986E-05  0.0703
   1.5495E-01   1.5872E-01   1.1141E-05  0.0688
   1.5872E-01   1.6258E-01   1.0477E-05  0.0703
   1.6258E-01   1.6654E-01   1.1502E-05  0.0663
   1.6654E-01   1.7059E-01   1.1920E-05  0.0643
   1.7059E-01   1.7474E-01   9.2583E-06  0.0721
   1.7474E-01   1.7899E-01   9.9494E-06  0.0687
   1.7899E-01   1.8334E-01   1.0202E-05  0.0671
   1.8334E-01   1.8781E-01   9.0116E-06  0.0705
   1.8781E-01   1.9237E-01   8.8603E-06  0.0701
   1.9237E-01   1.9706E-01   1.0127E-05  0.0648
   1.9706E-01   2.0185E-01   8.6469E-06  0.0694
   2.0185E-01   2.0676E-01   9.2499E-06  0.0663
   2.0676E-01   2.1179E-01   8.8777E-06  0.0669
   2.1179E-01   2.1694E-01   9.3917E-06  0.0642
   2.1694E-01   2.2222E-01   1.0773E-05  0.0592
   2.2222E-01   2.2763E-01   1.0209E-05  0.0602
   2.2763E-01   2.3317E-01   1.0175E-05  0.0595
   2.3317E-01   2.3884E-01   1.1645E-05  0.0550
   2.3884E-01   2.4465E-01   1.0709E-05  0.0567
   2.4465E-01   2.5061E-01   1.2062E-05  0.0527
   2.5061E-01   2.5670E-01   1.2103E-05  0.0520
   2.5670E-01   2.6295E-01   1.1116E-05  0.0537
   2.6295E-01   2.6935E-01   1.2534E-05  0.0499
   2.6935E-01   2.7590E-01   1.3690E-05  0.0472
   2.7590E-01   2.8261E-01   1.4071E-05  0.0460
   2.8261E-01   2.8949E-01   1.3661E-05  0.0461
   2.8949E-01   2.9653E-01   1.3620E-05  0.0456
   2.9653E-01   3.0375E-01   1.4257E-05  0.0441
   3.0375E-01   3.1114E-01   1.5993E-05  0.0411
   3.1114E-01   3.1871E-01   1.5780E-05  0.0409
   3.1871E-01   3.2646E-01   1.5608E-05  0.0406
   3.2646E-01   3.3441E-01   1.6265E-05  0.0393
   3.3441E-01   3.4254E-01   1.6537E-05  0.0385
   3.4254E-01   3.5088E-01   1.8736E-05  0.0358
   3.5088E-01   3.5941E-01   1.6835E-05  0.0373
   3.5941E-01   3.6816E-01   1.8092E-05  0.0355
   3.6816E-01   3.7712E-01   1.8523E-05  0.0347
   3.7712E-01   3.8629E-01   1.8535E-05  0.0343
   3.8629E-01   3.9569E-01   1.8633E-05  0.0338
   3.9569E-01   4.0532E-01   1.9531E-05  0.0326
   4.0532E-01   4.1518E-01   2.0490E-05  0.0314
   4.1518E-01   4.2528E-01   1.9485E-05  0.0319
   4.2528E-01   4.3563E-01   2.1615E-05  0.0299
   4.3563E-01   4.4623E-01   2.1542E-05  0.0296
   4.4623E-01   4.5708E-01   2.2200E-05  0.0288
   4.5708E-01   4.6821E-01   2.0845E-05  0.0294
   4.6821E-01   4.7960E-01   2.3065E-05  0.0276
   4.7960E-01   4.9127E-01   2.2766E-05  0.0274
   4.9127E-01   5.0322E-01   2.4011E-05  0.0264
   5.0322E-01   5.1546E-01   2.3454E-05  0.0264
   5.1546E-01   5.2800E-01   2.4040E-05  0.0257
   5.2800E-01   5.4085E-01   2.4730E-05  0.0251
   5.4085E-01   5.5401E-01   2.4879E-05  0.0247
   5.5401E-01   5.6749E-01   2.5221E-05  0.0242
   5.6749E-01   5.8130E-01   2.6425E-05  0.0234
   5.8130E-01   5.9544E-01   2.6089E-05  0.0233
   5.9544E-01   6.0993E-01   2.6813E-05  0.0227
   6.0993E-01   6.2477E-01   2.6957E-05  0.0223
   6.2477E-01   6.3997E-01   2.8180E-05  0.0216
   6.3997E-01   6.5554E-01   2.8179E-05  0.0213
   6.5554E-01   6.7149E-01   2.7776E-05  0.0212
   6.7149E-01   6.8783E-01   2.8834E-05  0.0206
   6.8783E-01   7.0456E-01   2.8775E-05  0.0204
   7.0456E-01   7.2171E-01   2.9810E-05  0.0198
   7.2171E-01   7.3927E-01   2.8889E-05  0.0198
   7.3927E-01   7.5725E-01   2.9697E-05  0.0193
   7.5725E-01   7.7568E-01   2.9178E-05  0.0193
   7.7568E-01   7.9455E-01   3.0127E-05  0.0187
   7.9455E-01   8.1388E-01   3.0586E-05  0.0184
   8.1388E-01   8.3368E-01   2.9759E-05  0.0184
   8.3368E-01   8.5397E-01   3.2061E-05  0.0175
   8.5397E-01   8.7475E-01   3.1933E-05  0.0174
   8.7475E-01   8.9603E-01   3.0377E-05  0.0176
   8.9603E-01   9.1783E-01   3.1522E-05  0.0171
   9.1783E-01   9.4016E-01   3.3185E-05  0.0164
   9.4016E-01   9.6304E-01   3.2238E-05  0.0165
   9.6304E-01   9.8647E-01   3.1877E-05  0.0164
   9.8647E-01   1.0105E+00   3.3293E-05  0.0158
   1.0105E+00   1.0351E+00   3.2577E-05  0.0158
   1.0351E+00   1.0602E+00   3.4431E-05  0.0152
   1.0602E+00   1.0860E+00   3.2866E-05  0.0153
   1.0860E+00   1.1125E+00   3.2719E-05  0.0152
   1.1125E+00   1.1395E+00   3.2978E-05  0.0150
   1.1395E+00   1.1673E+00   3.3770E-05  0.0146
   1.1673E+00   1.1957E+00   3.5000E-05  0.0142
   1.1957E+00   1.2247E+00   3.5126E-05  0.0140
   1.2247E+00   1.2545E+00   3.4853E-05  0.0139
   1.2545E+00   1.2851E+00   3.5201E-05  0.0136
   1.2851E+00   1.3163E+00   3.5974E-05  0.0133
   1.3163E+00   1.3484E+00   3.5119E-05  0.0133
   1.3484E+00   1.3812E+00   3.5928E-05  0.0130
   1.3812E+00   1.4148E+00   3.5828E-05  0.0129
   1.4148E+00   1.4492E+00   3.6852E-05  0.0125
   1.4492E+00   1.4845E+00   3.6181E-05  0.0125
   1.4845E+00   1.5206E+00   3.6267E-05  0.0124
   1.5206E+00   1.5576E+00   3.6907E-05  0.0121
   1.5576E+00   1.5955E+00   3.7087E-05  0.0119
   1.5955E+00   1.6343E+00   3.7061E-05  0.0118
   1.6343E+00   1.6741E+00   3.7057E-05  0.0116
   1.6741E+00   1.7148E+00   3.7759E-05  0.0114
   1.7148E+00   1.7565E+00   3.7280E-05  0.0113
   1.7565E+00   1.7992E+00   3.6954E-05  0.0112
   1.7992E+00   1.8430E+00   3.8328E-05  0.0109
   1.8430E+00   1.8879E+00   3.7658E-05  0.0109
   1.8879E+00   1.9338E+00   3.7370E-05  0.0108
   1.9338E+00   1.9808E+00   3.8130E-05  0.0106
   1.9808E+00   2.0290E+00   3.8321E-05  0.0104
   2.0290E+00   2.0784E+00   3.7943E-05  0.0103
   2.0784E+00   2.1290E+00   3.8244E-05  0.0102
   2.1290E+00   2.1808E+00   3.7866E-05  0.0101
   2.1808E+00   2.2338E+00   3.7902E-05  0.0100
   2.2338E+00   2.2882E+00   3.8090E-05  0.0098
   2.2882E+00   2.3439E+00   3.8576E-05  0.0096
   2.3439E+00   2.4009E+00   3.8288E-05  0.0096
   2.4009E+00   2.4593E+00   3.8131E-05  0.0095
   2.4593E+00   2.5191E+00   3.7964E-05  0.0094
   2.5191E+00   2.5804E+00   3.8141E-05  0.0092
   2.5804E+00   2.6432E+00   3.7378E-05  0.0092
   2.6432E+00   2.7075E+00   3.7452E-05  0.0091
   2.7075E+00   2.7734E+00   3.7748E-05  0.0090
   2.7734E+00   2.8409E+00   3.6229E-05  0.0090
   2.8409E+00   2.9100E+00   3.6293E-05  0.0089
   2.9100E+00   2.9808E+00   3.6712E-05  0.0088
   2.9808E+00   3.0533E+00   3.6322E-05  0.0087
   3.0533E+00   3.1276E+00   3.5375E-05  0.0087
   3.1276E+00   3.2037E+00   3.4610E-05  0.0087
   3.2037E+00   3.2817E+00   3.4126E-05  0.0087
   3.2817E+00   3.3615E+00   3.3985E-05  0.0086
   3.3615E+00   3.4433E+00   3.3577E-05  0.0085
   3.4433E+00   3.5271E+00   3.2874E-05  0.0085
   3.5271E+00   3.6129E+00   3.1449E-05  0.0086
   3.6129E+00   3.7008E+00   3.1277E-05  0.0085
   3.7008E+00   3.7908E+00   3.0413E-05  0.0085
   3.7908E+00   3.8831E+00   3.0163E-05  0.0085
   3.8831E+00   3.9776E+00   2.9483E-05  0.0085
   3.9776E+00   4.0743E+00   2.9035E-05  0.0084
   4.0743E+00   4.1735E+00   2.7680E-05  0.0085
   4.1735E+00   4.2750E+00   2.6754E-05  0.0086
   4.2750E+00   4.3790E+00   2.6535E-05  0.0085
   4.3790E+00   4.4856E+00   2.6116E-05  0.0085
   4.4856E+00   4.5947E+00   2.5267E-05  0.0085
   4.5947E+00   4.7065E+00   2.4911E-05  0.0085
   4.7065E+00   4.8210E+00   2.4408E-05  0.0085
   4.8210E+00   4.9383E+00   2.5119E-05  0.0082
   4.9383E+00   5.0585E+00   2.5027E-05  0.0082
   5.0585E+00   5.1815E+00   2.4478E-05  0.0081
   5.1815E+00   5.3076E+00   2.3218E-05  0.0083
   5.3076E+00   5.4368E+00   2.2364E-05  0.0083
   5.4368E+00   5.5690E+00   2.1039E-05  0.0085
   5.5690E+00   5.7045E+00   1.9748E-05  0.0086
   5.7045E+00   5.8433E+00   1.9306E-05  0.0086
   5.8433E+00   5.9855E+00   1.8529E-05  0.0087
   5.9855E+00   6.1311E+00   1.7759E-05  0.0088
   6.1311E+00   6.2803E+00   1.7048E-05  0.0089
   6.2803E+00   6.4331E+00   1.6137E-05  0.0090
   6.4331E+00   6.5896E+00   1.5750E-05  0.0090
   6.5896E+00   6.7500E+00   1.5009E-05  0.0091
   6.7500E+00   6.9142E+00   1.4695E-05  0.0091
   6.9142E+00   7.0824E+00   1.3815E-05  0.0093
   7.0824E+00   7.2548E+00   1.3393E-05  0.0093
   7.2548E+00   7.4313E+00   1.2808E-05  0.0094
   7.4313E+00   7.6121E+00   1.2322E-05  0.0095
   7.6121E+00   7.7973E+00   1.1826E-05  0.0096
   7.7973E+00   7.9870E+00   1.1089E-05  0.0097
   7.9870E+00   8.1813E+00   1.0641E-05  0.0098
   8.1813E+00   8.3804E+00   9.9869E-06  0.0100
   8.3804E+00   8.5843E+00   9.6741E-06  0.0101
   8.5843E+00   8.7931E+00   9.2222E-06  0.0102
   8.7931E+00   9.0071E+00   8.6515E-06  0.0104
   9.0071E+00   9.2262E+00   8.4285E-06  0.0104
   9.2262E+00   9.4507E+00   7.8835E-06  0.0106
   9.4507E+00   9.6807E+00   7.5983E-06  0.0107
   9.6807E+00   9.9162E+00   7.0974E-06  0.0109
   9.9162E+00   1.0157E+01   6.7937E-06  0.0110
   1.0157E+01   1.0405E+01   6.7139E-06  0.0110
   1.0405E+01   1.0658E+01   6.2610E-06  0.0112
   1.0658E+01   1.0917E+01   6.0163E-06  0.0113
   1.0917E+01   1.1183E+01   5.6981E-06  0.0115
   1.1183E+01   1.1455E+01   5.5301E-06  0.0115
   1.1455E+01   1.1733E+01   5.3257E-06  0.0116
   1.1733E+01   1.2019E+01   5.2479E-06  0.0116
   1.2019E+01   1.2311E+01   4.9392E-06  0.0118
   1.2311E+01   1.2611E+01   4.7794E-06  0.0118
   1.2611E+01   1.2918E+01   4.5762E-06  0.0119
   1.2918E+01   1.3232E+01   4.5583E-06  0.0118
   1.3232E+01   1.3554E+01   4.3939E-06  0.0119
   1.3554E+01   1.3884E+01   4.4278E-06  0.0117
   1.3884E+01   1.4222E+01   4.1940E-06  0.0119
   1.4222E+01   1.4568E+01   3.8895E-06  0.0122
   1.4568E+01   1.4922E+01   3.6343E-06  0.0125
   1.4922E+01   1.5285E+01   3.4008E-06  0.0127
   1.5285E+01   1.5657E+01   3.1102E-06  0.0131
   1.5657E+01   1.6038E+01   2.7999E-06  0.0137
   1.6038E+01   1.6428E+01   2.5002E-06  0.0143
   1.6428E+01   1.6828E+01   2.1646E-06  0.0152
   1.6828E+01   1.7237E+01   1.8591E-06  0.0162
   1.7237E+01   1.7657E+01   1.5680E-06  0.0174
   1.7657E+01   1.8086E+01   1.3289E-06  0.0187
   1.8086E+01   1.8526E+01   1.0212E-06  0.0211
   1.8526E+01   1.8977E+01   7.2366E-07  0.0248
   1.8977E+01   1.9439E+01   4.5871E-07  0.0307
   1.9439E+01   1.9912E+01   1.7972E-07  0.0485
   1.9912E+01   2.0396E+01   2.4769E-08  0.1291
   2.0396E+01   2.0893E+01   0.0000E+00  0.0000
   2.0893E+01   2.1401E+01   0.0000E+00  0.0000
   2.1401E+01   2.1922E+01   0.0000E+00  0.0000
   2.1922E+01   2.2455E+01   0.0000E+00  0.0000
   2.2455E+01   2.3001E+01   0.0000E+00  0.0000
   2.3001E+01   2.3561E+01   0.0000E+00  0.0000
   2.3561E+01   2.4134E+01   0.0000E+00  0.0000
   2.4134E+01   2.4721E+01   0.0000E+00  0.0000
   2.4721E+01   2.5323E+01   0.0000E+00  0.0000
   2.5323E+01   2.5939E+01   0.0000E+00  0.0000
   2.5939E+01   2.6570E+01   0.0000E+00  0.0000
   2.6570E+01   2.7217E+01   0.0000E+00  0.0000
   2.7217E+01   2.7879E+01   0.0000E+00  0.0000
   2.7879E+01   2.8557E+01   0.0000E+00  0.0000
   2.8557E+01   2.9252E+01   0.0000E+00  0.0000
   2.9252E+01   2.9964E+01   0.0000E+00  0.0000
   2.9964E+01   3.0693E+01   0.0000E+00  0.0000
   3.0693E+01   3.1440E+01   0.0000E+00  0.0000
   3.1440E+01   3.2205E+01   0.0000E+00  0.0000
   3.2205E+01   3.2988E+01   0.0000E+00  0.0000
   3.2988E+01   3.3791E+01   0.0000E+00  0.0000
   3.3791E+01   3.4613E+01   0.0000E+00  0.0000
   3.4613E+01   3.5455E+01   0.0000E+00  0.0000
   3.5455E+01   3.6318E+01   0.0000E+00  0.0000
   3.6318E+01   3.7201E+01   0.0000E+00  0.0000
   3.7201E+01   3.8106E+01   0.0000E+00  0.0000
   3.8106E+01   3.9034E+01   0.0000E+00  0.0000
   3.9034E+01   3.9983E+01   0.0000E+00  0.0000
   3.9983E+01   4.0956E+01   0.0000E+00  0.0000
   4.0956E+01   4.1953E+01   0.0000E+00  0.0000
   4.1953E+01   4.2973E+01   0.0000E+00  0.0000
   4.2973E+01   4.4019E+01   0.0000E+00  0.0000
   4.4019E+01   4.5090E+01   0.0000E+00  0.0000
   4.5090E+01   4.6187E+01   0.0000E+00  0.0000
   4.6187E+01   4.7311E+01   0.0000E+00  0.0000
   4.7311E+01   4.8462E+01   0.0000E+00  0.0000
   4.8462E+01   4.9641E+01   0.0000E+00  0.0000
   4.9641E+01   5.0849E+01   0.0000E+00  0.0000
   5.0849E+01   5.2086E+01   0.0000E+00  0.0000
   5.2086E+01   5.3353E+01   0.0000E+00  0.0000
   5.3353E+01   5.4651E+01   0.0000E+00  0.0000
   5.4651E+01   5.5981E+01   0.0000E+00  0.0000
   5.5981E+01   5.7343E+01   0.0000E+00  0.0000
   5.7343E+01   5.8738E+01   0.0000E+00  0.0000
   5.8738E+01   6.0168E+01   0.0000E+00  0.0000
   6.0168E+01   6.1632E+01   0.0000E+00  0.0000
   6.1632E+01   6.3131E+01   0.0000E+00  0.0000
   6.3131E+01   6.4667E+01   0.0000E+00  0.0000
   6.4667E+01   6.6240E+01   0.0000E+00  0.0000
   6.6240E+01   6.7852E+01   0.0000E+00  0.0000
   6.7852E+01   6.9503E+01   0.0000E+00  0.0000
   6.9503E+01   7.1194E+01   0.0000E+00  0.0000
   7.1194E+01   7.2926E+01   0.0000E+00  0.0000
   7.2926E+01   7.4701E+01   0.0000E+00  0.0000
   7.4701E+01   7.6518E+01   0.0000E+00  0.0000
   7.6518E+01   7.8380E+01   0.0000E+00  0.0000
   7.8380E+01   8.0287E+01   0.0000E+00  0.0000
   8.0287E+01   8.2240E+01   0.0000E+00  0.0000
   8.2240E+01   8.4241E+01   0.0000E+00  0.0000
   8.4241E+01   8.6291E+01   0.0000E+00  0.0000
   8.6291E+01   8.8391E+01   0.0000E+00  0.0000
   8.8391E+01   9.0541E+01   0.0000E+00  0.0000
   9.0541E+01   9.2744E+01   0.0000E+00  0.0000
   9.2744E+01   9.5001E+01   0.0000E+00  0.0000
   9.5001E+01   9.7312E+01   0.0000E+00  0.0000
   9.7312E+01   9.9680E+01   0.0000E+00  0.0000
   9.9680E+01   1.0211E+02   0.0000E+00  0.0000
   1.0211E+02   1.0459E+02   0.0000E+00  0.0000
   1.0459E+02   1.0713E+02   0.0000E+00  0.0000
   1.0713E+02   1.0974E+02   0.0000E+00  0.0000
   1.0974E+02   1.1241E+02   0.0000E+00  0.0000
   1.1241E+02   1.1515E+02   0.0000E+00  0.0000
   1.1515E+02   1.1795E+02   0.0000E+00  0.0000
   1.1795E+02   1.2082E+02   0.0000E+00  0.0000
   1.2082E+02   1.2376E+02   0.0000E+00  0.0000
   1.2376E+02   1.2677E+02   0.0000E+00  0.0000
   1.2677E+02   1.2985E+02   0.0000E+00  0.0000
   1.2985E+02   1.3301E+02   0.0000E+00  0.0000
   1.3301E+02   1.3625E+02   0.0000E+00  0.0000
   1.3625E+02   1.3956E+02   0.0000E+00  0.0000
   1.3956E+02   1.4296E+02   0.0000E+00  0.0000
   1.4296E+02   1.4644E+02   0.0000E+00  0.0000
   1.4644E+02   1.5000E+02   0.0000E+00  0.0000

#   sum over                 1.7043E-06
'no. =    1   reg = 107 - 207'
msuc: {\huge [t-cross] in region mesh}
msdr: {\it plotted by \ANGEL \version}
msdl: {\it calculated by \PHITS  3.26}
wt: s(0.7)
\vspace{-3}
  region surface crossing
  area  &=&   1.0000E+00 [cm^2]
e:
 
# Information for Restart Calculation
# This calculation was newly started
# istdev =  2 # 1:Batch variance, 2:History variance
# resc2  = 5.00000000000000000E+09 # Total source weight or Total source weight / maxcas
# resc3  = 5.00000000000000000E+09 # Total history number or Total batch number
# maxcas =   500000000 # History / Batch, only used for istdev=1
# bitrseed = 0110100000100010111000001110001111001110100100011111101000111001 # bit data of rseed
