[ T-Cross ]
    title = [t-cross] in region mesh
     mesh =  reg            # mesh type is region-wise
      reg =    1            # number of crossing regions
      non     r-from    r-to       area
      1       100       200        1.000000    
   e-type =    3            # e-mesh is log given by emin, emax and ne
     emin =  1.0000000E-02  # minimum value of e-mesh points
     emax =   150.0000      # maximum value of e-mesh points
#    edel =  2.4039514E-02  # mesh width of e-mesh points
       ne =    400          # number of e-mesh points
#    data = ( e(i), i = 1, ne + 1 )
#           1.00000E-02  1.02433E-02  1.04925E-02  1.07478E-02  1.10093E-02
#           1.12772E-02  1.15516E-02  1.18326E-02  1.21205E-02  1.24154E-02
#           1.27175E-02  1.30269E-02  1.33439E-02  1.36686E-02  1.40011E-02
#           1.43418E-02  1.46907E-02  1.50482E-02  1.54143E-02  1.57894E-02
#           1.61735E-02  1.65670E-02  1.69701E-02  1.73830E-02  1.78060E-02
#           1.82392E-02  1.86830E-02  1.91375E-02  1.96032E-02  2.00801E-02
#           2.05687E-02  2.10692E-02  2.15818E-02  2.21069E-02  2.26448E-02
#           2.31957E-02  2.37601E-02  2.43382E-02  2.49304E-02  2.55369E-02
#           2.61583E-02  2.67947E-02  2.74467E-02  2.81145E-02  2.87985E-02
#           2.94992E-02  3.02169E-02  3.09521E-02  3.17052E-02  3.24766E-02
#           3.32668E-02  3.40762E-02  3.49053E-02  3.57546E-02  3.66246E-02
#           3.75157E-02  3.84284E-02  3.93634E-02  4.03212E-02  4.13022E-02
#           4.23071E-02  4.33365E-02  4.43909E-02  4.54710E-02  4.65773E-02
#           4.77106E-02  4.88714E-02  5.00605E-02  5.12785E-02  5.25262E-02
#           5.38042E-02  5.51133E-02  5.64542E-02  5.78278E-02  5.92348E-02
#           6.06760E-02  6.21523E-02  6.36645E-02  6.52135E-02  6.68002E-02
#           6.84255E-02  7.00904E-02  7.17957E-02  7.35426E-02  7.53319E-02
#           7.71648E-02  7.90423E-02  8.09655E-02  8.29354E-02  8.49533E-02
#           8.70203E-02  8.91376E-02  9.13064E-02  9.35279E-02  9.58035E-02
#           9.81345E-02  1.00522E-01  1.02968E-01  1.05473E-01  1.08040E-01
#           1.10668E-01  1.13361E-01  1.16119E-01  1.18944E-01  1.21838E-01
#           1.24803E-01  1.27839E-01  1.30950E-01  1.34136E-01  1.37399E-01
#           1.40742E-01  1.44167E-01  1.47675E-01  1.51268E-01  1.54948E-01
#           1.58718E-01  1.62580E-01  1.66535E-01  1.70587E-01  1.74738E-01
#           1.78989E-01  1.83344E-01  1.87805E-01  1.92375E-01  1.97055E-01
#           2.01850E-01  2.06761E-01  2.11792E-01  2.16945E-01  2.22223E-01
#           2.27630E-01  2.33169E-01  2.38842E-01  2.44653E-01  2.50605E-01
#           2.56703E-01  2.62949E-01  2.69346E-01  2.75900E-01  2.82613E-01
#           2.89489E-01  2.96532E-01  3.03747E-01  3.11138E-01  3.18708E-01
#           3.26462E-01  3.34405E-01  3.42542E-01  3.50876E-01  3.59413E-01
#           3.68158E-01  3.77116E-01  3.86291E-01  3.95690E-01  4.05317E-01
#           4.15179E-01  4.25281E-01  4.35628E-01  4.46227E-01  4.57084E-01
#           4.68205E-01  4.79597E-01  4.91266E-01  5.03219E-01  5.15463E-01
#           5.28005E-01  5.40851E-01  5.54011E-01  5.67490E-01  5.81298E-01
#           5.95441E-01  6.09929E-01  6.24769E-01  6.39970E-01  6.55541E-01
#           6.71491E-01  6.87828E-01  7.04564E-01  7.21706E-01  7.39266E-01
#           7.57253E-01  7.75678E-01  7.94551E-01  8.13883E-01  8.33685E-01
#           8.53969E-01  8.74747E-01  8.96030E-01  9.17831E-01  9.40163E-01
#           9.63038E-01  9.86469E-01  1.01047E+00  1.03506E+00  1.06024E+00
#           1.08604E+00  1.11246E+00  1.13953E+00  1.16725E+00  1.19565E+00
#           1.22474E+00  1.25454E+00  1.28507E+00  1.31633E+00  1.34836E+00
#           1.38117E+00  1.41477E+00  1.44920E+00  1.48446E+00  1.52057E+00
#           1.55757E+00  1.59547E+00  1.63429E+00  1.67405E+00  1.71478E+00
#           1.75650E+00  1.79924E+00  1.84302E+00  1.88786E+00  1.93379E+00
#           1.98084E+00  2.02904E+00  2.07841E+00  2.12898E+00  2.18078E+00
#           2.23384E+00  2.28819E+00  2.34386E+00  2.40089E+00  2.45930E+00
#           2.51914E+00  2.58043E+00  2.64322E+00  2.70753E+00  2.77341E+00
#           2.84088E+00  2.91001E+00  2.98081E+00  3.05333E+00  3.12762E+00
#           3.20372E+00  3.28167E+00  3.36152E+00  3.44330E+00  3.52708E+00
#           3.61290E+00  3.70080E+00  3.79085E+00  3.88308E+00  3.97756E+00
#           4.07434E+00  4.17347E+00  4.27501E+00  4.37903E+00  4.48557E+00
#           4.59471E+00  4.70650E+00  4.82102E+00  4.93832E+00  5.05847E+00
#           5.18155E+00  5.30762E+00  5.43676E+00  5.56904E+00  5.70453E+00
#           5.84333E+00  5.98550E+00  6.13114E+00  6.28031E+00  6.43312E+00
#           6.58964E+00  6.74997E+00  6.91420E+00  7.08243E+00  7.25475E+00
#           7.43126E+00  7.61207E+00  7.79728E+00  7.98700E+00  8.18133E+00
#           8.38038E+00  8.58428E+00  8.79315E+00  9.00709E+00  9.22624E+00
#           9.45072E+00  9.68067E+00  9.91620E+00  1.01575E+01  1.04046E+01
#           1.06578E+01  1.09171E+01  1.11827E+01  1.14548E+01  1.17335E+01
#           1.20190E+01  1.23114E+01  1.26109E+01  1.29178E+01  1.32321E+01
#           1.35540E+01  1.38838E+01  1.42216E+01  1.45676E+01  1.49221E+01
#           1.52851E+01  1.56570E+01  1.60380E+01  1.64282E+01  1.68279E+01
#           1.72374E+01  1.76568E+01  1.80864E+01  1.85264E+01  1.89772E+01
#           1.94389E+01  1.99119E+01  2.03963E+01  2.08926E+01  2.14009E+01
#           2.19216E+01  2.24550E+01  2.30014E+01  2.35610E+01  2.41343E+01
#           2.47215E+01  2.53230E+01  2.59391E+01  2.65702E+01  2.72167E+01
#           2.78789E+01  2.85572E+01  2.92520E+01  2.99637E+01  3.06928E+01
#           3.14396E+01  3.22045E+01  3.29881E+01  3.37907E+01  3.46128E+01
#           3.54550E+01  3.63177E+01  3.72013E+01  3.81064E+01  3.90336E+01
#           3.99833E+01  4.09561E+01  4.19526E+01  4.29734E+01  4.40189E+01
#           4.50900E+01  4.61870E+01  4.73108E+01  4.84619E+01  4.96410E+01
#           5.08488E+01  5.20860E+01  5.33533E+01  5.46514E+01  5.59812E+01
#           5.73432E+01  5.87384E+01  6.01676E+01  6.16315E+01  6.31311E+01
#           6.46671E+01  6.62405E+01  6.78522E+01  6.95031E+01  7.11941E+01
#           7.29263E+01  7.47007E+01  7.65182E+01  7.83800E+01  8.02870E+01
#           8.22405E+01  8.42414E+01  8.62911E+01  8.83906E+01  9.05412E+01
#           9.27442E+01  9.50007E+01  9.73122E+01  9.96799E+01  1.02105E+02
#           1.04589E+02  1.07134E+02  1.09741E+02  1.12411E+02  1.15146E+02
#           1.17948E+02  1.20817E+02  1.23757E+02  1.26768E+02  1.29852E+02
#           1.33012E+02  1.36248E+02  1.39563E+02  1.42959E+02  1.46437E+02
#           1.50000E+02
     unit =    2            # unit is [1/cm^2/(MeV/n)/source]
     axis =  eng            # axis of output
     file = detector-01.out  # file name of output for the above axis
   output = f-curr          # surface crossing forward current spectrum
     part =  neutron  
# kf/name :  2112     
#    used :        main (  %)        temp (  %)       total (  %)
#  memory :         414 (  0)           0 (  0)         414 (  0)

#------------------------------------------------------------------------------
#newpage:
#   no. =    1   reg = 100 - 200

x: Energy [MeV/n]
y:  F-Curr [1/cm^2/(MeV/n)/source]         
p: xlog ylog afac(0.8) form(0.9)
h: n            x            y(neutron ),hh0l   n 
#  e-lower      e-upper      neutron     r.err 
   1.0000E-02   1.0243E-02   1.1508E-05  0.2673
   1.0243E-02   1.0493E-02   1.7651E-05  0.2132
   1.0493E-02   1.0748E-02   1.4875E-05  0.2294
   1.0748E-02   1.1009E-02   8.4117E-06  0.3015
   1.1009E-02   1.1277E-02   7.4659E-06  0.3162
   1.1277E-02   1.1552E-02   1.3116E-05  0.2357
   1.1552E-02   1.1833E-02   1.8496E-05  0.1961
   1.1833E-02   1.2121E-02   6.9448E-06  0.3162
   1.2121E-02   1.2415E-02   6.7663E-06  0.3162
   1.2415E-02   1.2718E-02   1.3897E-05  0.2182
   1.2718E-02   1.3027E-02   1.3562E-05  0.2182
   1.3027E-02   1.3344E-02   1.4450E-05  0.2085
   1.3344E-02   1.3669E-02   1.1703E-05  0.2294
   1.3669E-02   1.4001E-02   1.2625E-05  0.2182
   1.4001E-02   1.4342E-02   1.3498E-05  0.2085
   1.4342E-02   1.4691E-02   1.0887E-05  0.2294
   1.4691E-02   1.5048E-02   1.3978E-05  0.2000
   1.5048E-02   1.5414E-02   1.2558E-05  0.2085
   1.5414E-02   1.5789E-02   1.0618E-05  0.2236
   1.5789E-02   1.6174E-02   1.0929E-05  0.2182
   1.6174E-02   1.6567E-02   1.1177E-05  0.2132
   1.6567E-02   1.6970E-02   1.6865E-05  0.1715
   1.6970E-02   1.7383E-02   9.6801E-06  0.2236
   1.7383E-02   1.7806E-02   8.5085E-06  0.2357
   1.7806E-02   1.8239E-02   1.3373E-05  0.1857
   1.8239E-02   1.8683E-02   9.4586E-06  0.2182
   1.8683E-02   1.9138E-02   8.3509E-06  0.2294
   1.9138E-02   1.9603E-02   9.0138E-06  0.2182
   1.9603E-02   2.0080E-02   7.9633E-06  0.2294
   2.0080E-02   2.0569E-02   6.1374E-06  0.2582
   2.0569E-02   2.1069E-02   9.1063E-06  0.2087
   2.1069E-02   2.1582E-02   5.8506E-06  0.2582
   2.1582E-02   2.2107E-02   7.9953E-06  0.2182
   2.2107E-02   2.2645E-02   6.6910E-06  0.2357
   2.2645E-02   2.3196E-02   7.6180E-06  0.2182
   2.3196E-02   2.3760E-02   8.8572E-06  0.2000
   2.3760E-02   2.4338E-02   8.2983E-06  0.2041
   2.4338E-02   2.4930E-02   7.7638E-06  0.2085
   2.4930E-02   2.5537E-02   1.1141E-05  0.1716
   2.5537E-02   2.6158E-02   4.8278E-06  0.2582
   2.6158E-02   2.6795E-02   6.5974E-06  0.2182
   2.6795E-02   2.7447E-02   5.2138E-06  0.2425
   2.7447E-02   2.8114E-02   5.9892E-06  0.2236
   2.8114E-02   2.8799E-02   5.8443E-06  0.2236
   2.8799E-02   2.9499E-02   5.4215E-06  0.2294
   2.9499E-02   3.0217E-02   5.0135E-06  0.2357
   3.0217E-02   3.0952E-02   4.0785E-06  0.2582
   3.0952E-02   3.1705E-02   5.8390E-06  0.2132
   3.1705E-02   3.2477E-02   4.9213E-06  0.2294
   3.2477E-02   3.3267E-02   6.5776E-06  0.1961
   3.3267E-02   3.4076E-02   4.6908E-06  0.2294
   3.4076E-02   3.4905E-02   7.2310E-06  0.1826
   3.4905E-02   3.5755E-02   3.9983E-06  0.2425
   3.5755E-02   3.6625E-02   5.2842E-06  0.2085
   3.6625E-02   3.7516E-02   5.3854E-06  0.2041
   3.7516E-02   3.8428E-02   5.2344E-06  0.2042
   3.8428E-02   3.9363E-02   5.1316E-06  0.2041
   3.9363E-02   4.0321E-02   4.8589E-06  0.2063
   4.0321E-02   4.1302E-02   5.9102E-06  0.1857
   4.1302E-02   4.2307E-02   4.9709E-06  0.2000
   4.2307E-02   4.3337E-02   5.0478E-06  0.1961
   4.3337E-02   4.4391E-02   6.4461E-06  0.1715
   4.4391E-02   4.5471E-02   5.1428E-06  0.1891
   4.5471E-02   4.6577E-02   4.3370E-06  0.2041
   4.6577E-02   4.7711E-02   6.5278E-06  0.1644
   4.7711E-02   4.8871E-02   3.2721E-06  0.2294
   4.8871E-02   5.0061E-02   4.2036E-06  0.2000
   5.0061E-02   5.1279E-02   2.7908E-06  0.2425
   5.1279E-02   5.2526E-02   2.4029E-06  0.2582
   5.2526E-02   5.3804E-02   2.5981E-06  0.2436
   5.3804E-02   5.5113E-02   2.4437E-06  0.2500
   5.5113E-02   5.6454E-02   2.8291E-06  0.2294
   5.6454E-02   5.7828E-02   4.1978E-06  0.1858
   5.7828E-02   5.9235E-02   2.1315E-06  0.2582
   5.9235E-02   6.0676E-02   3.8820E-06  0.1890
   6.0676E-02   6.2152E-02   2.5711E-06  0.2294
   6.2152E-02   6.3665E-02   3.1730E-06  0.2041
   6.3665E-02   6.5214E-02   2.9675E-06  0.2085
   6.5214E-02   6.6800E-02   4.7881E-06  0.1622
   6.6800E-02   6.8426E-02   2.5830E-06  0.2182
   6.8426E-02   7.0090E-02   2.1618E-06  0.2357
   7.0090E-02   7.1796E-02   2.8120E-06  0.2041
   7.1796E-02   7.3543E-02   3.0876E-06  0.1925
   7.3543E-02   7.5332E-02   2.9037E-06  0.1961
   7.5332E-02   7.7165E-02   2.0553E-06  0.2296
   7.7165E-02   7.9042E-02   2.5797E-06  0.2023
   7.9042E-02   8.0965E-02   2.7907E-06  0.1925
   8.0965E-02   8.2935E-02   3.1446E-06  0.1796
   8.2935E-02   8.4953E-02   2.6737E-06  0.1925
   8.4953E-02   8.7020E-02   2.7066E-06  0.1890
   8.7020E-02   8.9138E-02   2.0681E-06  0.2132
   8.9138E-02   9.1306E-02   2.7046E-06  0.1839
   9.1306E-02   9.3528E-02   3.2393E-06  0.1667
   9.3528E-02   9.5804E-02   2.1963E-06  0.2000
   9.5804E-02   9.8134E-02   2.5727E-06  0.1826
   9.8134E-02   1.0052E-01   2.0935E-06  0.2000
   1.0052E-01   1.0297E-01   2.3696E-06  0.1857
   1.0297E-01   1.0547E-01   1.4366E-06  0.2357
   1.0547E-01   1.0804E-01   2.1807E-06  0.1890
   1.0804E-01   1.1067E-01   2.5827E-06  0.1715
   1.1067E-01   1.1336E-01   2.3015E-06  0.1796
   1.1336E-01   1.1612E-01   2.3845E-06  0.1741
   1.1612E-01   1.1894E-01   1.9737E-06  0.1890
   1.1894E-01   1.2184E-01   2.5561E-06  0.1644
   1.2184E-01   1.2480E-01   3.0194E-06  0.1491
   1.2480E-01   1.2784E-01   2.5483E-06  0.1602
   1.2784E-01   1.3095E-01   2.9781E-06  0.1464
   1.3095E-01   1.3414E-01   2.9489E-06  0.1459
   1.3414E-01   1.3740E-01   3.4208E-06  0.1337
   1.3740E-01   1.4074E-01   3.3465E-06  0.1336
   1.4074E-01   1.4417E-01   2.5210E-06  0.1519
   1.4417E-01   1.4767E-01   3.9305E-06  0.1204
   1.4767E-01   1.5127E-01   3.7886E-06  0.1210
   1.5127E-01   1.5495E-01   4.1720E-06  0.1140
   1.5495E-01   1.5872E-01   3.4979E-06  0.1231
   1.5872E-01   1.6258E-01   4.0788E-06  0.1125
   1.6258E-01   1.6654E-01   3.6800E-06  0.1171
   1.6654E-01   1.7059E-01   4.3062E-06  0.1067
   1.7059E-01   1.7474E-01   4.2757E-06  0.1060
   1.7474E-01   1.7899E-01   5.0749E-06  0.0962
   1.7899E-01   1.8334E-01   4.9504E-06  0.0962
   1.8334E-01   1.8781E-01   4.1729E-06  0.1034
   1.8781E-01   1.9237E-01   4.3710E-06  0.1000
   1.9237E-01   1.9706E-01   5.2870E-06  0.0898
   1.9706E-01   2.0185E-01   5.5283E-06  0.0867
   2.0185E-01   2.0676E-01   5.4504E-06  0.0864
   2.0676E-01   2.1179E-01   5.0197E-06  0.0888
   2.1179E-01   2.1694E-01   5.5049E-06  0.0839
   2.1694E-01   2.2222E-01   5.5232E-06  0.0828
   2.2222E-01   2.2763E-01   6.2794E-06  0.0767
   2.2763E-01   2.3317E-01   5.7694E-06  0.0791
   2.3317E-01   2.3884E-01   5.4252E-06  0.0805
   2.3884E-01   2.4465E-01   6.8788E-06  0.0706
   2.4465E-01   2.5061E-01   6.7378E-06  0.0705
   2.5061E-01   2.5670E-01   6.3223E-06  0.0720
   2.5670E-01   2.6295E-01   6.9918E-06  0.0676
   2.6295E-01   2.6935E-01   7.0946E-06  0.0662
   2.6935E-01   2.7590E-01   7.3022E-06  0.0645
   2.7590E-01   2.8261E-01   7.1414E-06  0.0644
   2.8261E-01   2.8949E-01   7.5239E-06  0.0621
   2.8949E-01   2.9653E-01   6.1515E-06  0.0678
   2.9653E-01   3.0375E-01   7.3477E-06  0.0613
   3.0375E-01   3.1114E-01   8.7991E-06  0.0554
   3.1114E-01   3.1871E-01   8.0463E-06  0.0572
   3.1871E-01   3.2646E-01   7.1183E-06  0.0601
   3.2646E-01   3.3441E-01   8.6505E-06  0.0539
   3.3441E-01   3.4254E-01   8.6423E-06  0.0532
   3.4254E-01   3.5088E-01   8.9917E-06  0.0516
   3.5088E-01   3.5941E-01   9.0120E-06  0.0509
   3.5941E-01   3.6816E-01   9.5629E-06  0.0488
   3.6816E-01   3.7712E-01   9.4719E-06  0.0485
   3.7712E-01   3.8629E-01   9.2226E-06  0.0485
   3.8629E-01   3.9569E-01   1.0295E-05  0.0454
   3.9569E-01   4.0532E-01   9.6712E-06  0.0463
   4.0532E-01   4.1518E-01   1.0357E-05  0.0442
   4.1518E-01   4.2528E-01   1.0588E-05  0.0432
   4.2528E-01   4.3563E-01   1.1345E-05  0.0412
   4.3563E-01   4.4623E-01   1.1662E-05  0.0401
   4.4623E-01   4.5708E-01   1.1331E-05  0.0402
   4.5708E-01   4.6821E-01   1.1600E-05  0.0393
   4.6821E-01   4.7960E-01   1.2114E-05  0.0380
   4.7960E-01   4.9127E-01   1.1467E-05  0.0386
   4.9127E-01   5.0322E-01   1.1972E-05  0.0373
   5.0322E-01   5.1546E-01   1.2900E-05  0.0355
   5.1546E-01   5.2800E-01   1.3842E-05  0.0339
   5.2800E-01   5.4085E-01   1.2900E-05  0.0346
   5.4085E-01   5.5401E-01   1.3907E-05  0.0330
   5.5401E-01   5.6749E-01   1.4132E-05  0.0323
   5.6749E-01   5.8130E-01   1.3960E-05  0.0321
   5.8130E-01   5.9544E-01   1.4233E-05  0.0314
   5.9544E-01   6.0993E-01   1.4423E-05  0.0308
   6.0993E-01   6.2477E-01   1.4368E-05  0.0305
   6.2477E-01   6.3997E-01   1.4416E-05  0.0301
   6.3997E-01   6.5554E-01   1.4779E-05  0.0294
   6.5554E-01   6.7149E-01   1.5610E-05  0.0283
   6.7149E-01   6.8783E-01   1.5982E-05  0.0276
   6.8783E-01   7.0456E-01   1.6188E-05  0.0271
   7.0456E-01   7.2171E-01   1.5493E-05  0.0273
   7.2171E-01   7.3927E-01   1.6717E-05  0.0260
   7.3927E-01   7.5725E-01   1.6701E-05  0.0257
   7.5725E-01   7.7568E-01   1.7624E-05  0.0247
   7.7568E-01   7.9455E-01   1.7178E-05  0.0248
   7.9455E-01   8.1388E-01   1.6971E-05  0.0246
   8.1388E-01   8.3368E-01   1.7565E-05  0.0239
   8.3368E-01   8.5397E-01   1.9012E-05  0.0227
   8.5397E-01   8.7475E-01   1.7583E-05  0.0233
   8.7475E-01   8.9603E-01   1.7992E-05  0.0228
   8.9603E-01   9.1783E-01   1.7868E-05  0.0226
   9.1783E-01   9.4016E-01   1.8743E-05  0.0218
   9.4016E-01   9.6304E-01   1.7816E-05  0.0221
   9.6304E-01   9.8647E-01   1.7728E-05  0.0218
   9.8647E-01   1.0105E+00   1.8075E-05  0.0214
   1.0105E+00   1.0351E+00   1.7146E-05  0.0217
   1.0351E+00   1.0602E+00   1.7080E-05  0.0215
   1.0602E+00   1.0860E+00   1.7358E-05  0.0210
   1.0860E+00   1.1125E+00   1.7793E-05  0.0205
   1.1125E+00   1.1395E+00   1.8057E-05  0.0201
   1.1395E+00   1.1673E+00   1.8009E-05  0.0199
   1.1673E+00   1.1957E+00   1.8250E-05  0.0195
   1.1957E+00   1.2247E+00   1.8102E-05  0.0194
   1.2247E+00   1.2545E+00   1.8178E-05  0.0191
   1.2545E+00   1.2851E+00   1.8417E-05  0.0187
   1.2851E+00   1.3163E+00   1.8676E-05  0.0184
   1.3163E+00   1.3484E+00   1.8596E-05  0.0182
   1.3484E+00   1.3812E+00   1.8843E-05  0.0178
   1.3812E+00   1.4148E+00   1.8104E-05  0.0180
   1.4148E+00   1.4492E+00   1.8377E-05  0.0176
   1.4492E+00   1.4845E+00   1.8426E-05  0.0174
   1.4845E+00   1.5206E+00   1.8238E-05  0.0173
   1.5206E+00   1.5576E+00   1.7908E-05  0.0172
   1.5576E+00   1.5955E+00   1.8038E-05  0.0169
   1.5955E+00   1.6343E+00   1.8496E-05  0.0165
   1.6343E+00   1.6741E+00   1.7796E-05  0.0166
   1.6741E+00   1.7148E+00   1.7301E-05  0.0167
   1.7148E+00   1.7565E+00   1.6977E-05  0.0166
   1.7565E+00   1.7992E+00   1.6370E-05  0.0167
   1.7992E+00   1.8430E+00   1.4901E-05  0.0173
   1.8430E+00   1.8879E+00   1.4611E-05  0.0171
   1.8879E+00   1.9338E+00   1.3790E-05  0.0174
   1.9338E+00   1.9808E+00   1.3441E-05  0.0174
   1.9808E+00   2.0290E+00   1.3786E-05  0.0169
   2.0290E+00   2.0784E+00   1.3513E-05  0.0169
   2.0784E+00   2.1290E+00   1.3609E-05  0.0166
   2.1290E+00   2.1808E+00   1.3670E-05  0.0163
   2.1808E+00   2.2338E+00   1.4147E-05  0.0158
   2.2338E+00   2.2882E+00   1.3722E-05  0.0159
   2.2882E+00   2.3439E+00   1.3570E-05  0.0158
   2.3439E+00   2.4009E+00   1.3054E-05  0.0160
   2.4009E+00   2.4593E+00   1.2503E-05  0.0161
   2.4593E+00   2.5191E+00   1.2500E-05  0.0159
   2.5191E+00   2.5804E+00   1.2079E-05  0.0160
   2.5804E+00   2.6432E+00   1.2240E-05  0.0157
   2.6432E+00   2.7075E+00   1.2323E-05  0.0155
   2.7075E+00   2.7734E+00   1.2104E-05  0.0154
   2.7734E+00   2.8409E+00   1.1732E-05  0.0155
   2.8409E+00   2.9100E+00   1.1717E-05  0.0153
   2.9100E+00   2.9808E+00   1.1443E-05  0.0153
   2.9808E+00   3.0533E+00   1.1661E-05  0.0150
   3.0533E+00   3.1276E+00   1.0950E-05  0.0153
   3.1276E+00   3.2037E+00   1.1308E-05  0.0149
   3.2037E+00   3.2817E+00   1.0901E-05  0.0150
   3.2817E+00   3.3615E+00   1.1167E-05  0.0147
   3.3615E+00   3.4433E+00   1.0784E-05  0.0148
   3.4433E+00   3.5271E+00   1.0831E-05  0.0146
   3.5271E+00   3.6129E+00   1.0187E-05  0.0148
   3.6129E+00   3.7008E+00   1.0253E-05  0.0146
   3.7008E+00   3.7908E+00   9.9219E-06  0.0147
   3.7908E+00   3.8831E+00   1.0058E-05  0.0144
   3.8831E+00   3.9776E+00   9.4617E-06  0.0147
   3.9776E+00   4.0743E+00   9.6345E-06  0.0144
   4.0743E+00   4.1735E+00   9.3703E-06  0.0144
   4.1735E+00   4.2750E+00   9.1148E-06  0.0144
   4.2750E+00   4.3790E+00   9.0100E-06  0.0144
   4.3790E+00   4.4856E+00   8.8398E-06  0.0143
   4.4856E+00   4.5947E+00   8.6695E-06  0.0143
   4.5947E+00   4.7065E+00   8.5297E-06  0.0142
   4.7065E+00   4.8210E+00   8.3866E-06  0.0142
   4.8210E+00   4.9383E+00   8.2824E-06  0.0141
   4.9383E+00   5.0585E+00   7.9454E-06  0.0142
   5.0585E+00   5.1815E+00   7.8110E-06  0.0142
   5.1815E+00   5.3076E+00   7.8157E-06  0.0140
   5.3076E+00   5.4368E+00   7.9090E-06  0.0137
   5.4368E+00   5.5690E+00   7.7652E-06  0.0137
   5.5690E+00   5.7045E+00   7.5079E-06  0.0138
   5.7045E+00   5.8433E+00   7.5741E-06  0.0136
   5.8433E+00   5.9855E+00   7.3851E-06  0.0136
   5.9855E+00   6.1311E+00   7.4017E-06  0.0134
   6.1311E+00   6.2803E+00   7.1620E-06  0.0135
   6.2803E+00   6.4331E+00   7.2553E-06  0.0132
   6.4331E+00   6.5896E+00   7.1479E-06  0.0132
   6.5896E+00   6.7500E+00   7.0432E-06  0.0131
   6.7500E+00   6.9142E+00   6.8379E-06  0.0131
   6.9142E+00   7.0824E+00   6.7556E-06  0.0131
   7.0824E+00   7.2548E+00   6.8799E-06  0.0128
   7.2548E+00   7.4313E+00   6.7670E-06  0.0127
   7.4313E+00   7.6121E+00   6.6206E-06  0.0127
   7.6121E+00   7.7973E+00   6.7241E-06  0.0125
   7.7973E+00   7.9870E+00   6.4934E-06  0.0126
   7.9870E+00   8.1813E+00   6.5250E-06  0.0124
   8.1813E+00   8.3804E+00   6.3779E-06  0.0124
   8.3804E+00   8.5843E+00   6.3679E-06  0.0122
   8.5843E+00   8.7931E+00   6.2148E-06  0.0122
   8.7931E+00   9.0071E+00   6.1116E-06  0.0122
   9.0071E+00   9.2262E+00   6.0376E-06  0.0121
   9.2262E+00   9.4507E+00   6.0200E-06  0.0120
   9.4507E+00   9.6807E+00   5.8980E-06  0.0120
   9.6807E+00   9.9162E+00   5.7636E-06  0.0121
   9.9162E+00   1.0157E+01   6.1302E-06  0.0116
   1.0157E+01   1.0405E+01   6.1709E-06  0.0114
   1.0405E+01   1.0658E+01   5.8771E-06  0.0116
   1.0658E+01   1.0917E+01   5.8753E-06  0.0114
   1.0917E+01   1.1183E+01   5.7848E-06  0.0114
   1.1183E+01   1.1455E+01   5.7225E-06  0.0113
   1.1455E+01   1.1733E+01   5.7179E-06  0.0112
   1.1733E+01   1.2019E+01   5.6172E-06  0.0111
   1.2019E+01   1.2311E+01   5.6810E-06  0.0109
   1.2311E+01   1.2611E+01   5.4961E-06  0.0110
   1.2611E+01   1.2918E+01   5.5455E-06  0.0108
   1.2918E+01   1.3232E+01   5.5595E-06  0.0107
   1.3232E+01   1.3554E+01   5.4302E-06  0.0107
   1.3554E+01   1.3884E+01   5.4333E-06  0.0105
   1.3884E+01   1.4222E+01   5.3210E-06  0.0105
   1.4222E+01   1.4568E+01   5.3806E-06  0.0104
   1.4568E+01   1.4922E+01   5.3240E-06  0.0103
   1.4922E+01   1.5285E+01   5.2853E-06  0.0102
   1.5285E+01   1.5657E+01   5.2060E-06  0.0102
   1.5657E+01   1.6038E+01   5.2119E-06  0.0100
   1.6038E+01   1.6428E+01   5.3053E-06  0.0098
   1.6428E+01   1.6828E+01   5.1658E-06  0.0098
   1.6828E+01   1.7237E+01   5.1205E-06  0.0098
   1.7237E+01   1.7657E+01   5.1628E-06  0.0096
   1.7657E+01   1.8086E+01   5.1450E-06  0.0095
   1.8086E+01   1.8526E+01   5.1214E-06  0.0094
   1.8526E+01   1.8977E+01   5.0448E-06  0.0094
   1.8977E+01   1.9439E+01   4.9660E-06  0.0093
   1.9439E+01   1.9912E+01   4.9725E-06  0.0092
   1.9912E+01   2.0396E+01   4.9340E-06  0.0091
   2.0396E+01   2.0893E+01   4.9990E-06  0.0090
   2.0893E+01   2.1401E+01   4.9259E-06  0.0089
   2.1401E+01   2.1922E+01   4.9180E-06  0.0088
   2.1922E+01   2.2455E+01   4.8319E-06  0.0088
   2.2455E+01   2.3001E+01   4.6941E-06  0.0088
   2.3001E+01   2.3561E+01   4.7227E-06  0.0087
   2.3561E+01   2.4134E+01   4.7204E-06  0.0086
   2.4134E+01   2.4721E+01   4.5871E-06  0.0086
   2.4721E+01   2.5323E+01   4.5264E-06  0.0086
   2.5323E+01   2.5939E+01   4.5322E-06  0.0085
   2.5939E+01   2.6570E+01   4.4863E-06  0.0084
   2.6570E+01   2.7217E+01   4.3829E-06  0.0084
   2.7217E+01   2.7879E+01   4.3986E-06  0.0083
   2.7879E+01   2.8557E+01   4.3328E-06  0.0082
   2.8557E+01   2.9252E+01   4.3545E-06  0.0081
   2.9252E+01   2.9964E+01   4.2564E-06  0.0081
   2.9964E+01   3.0693E+01   4.2843E-06  0.0080
   3.0693E+01   3.1440E+01   4.2371E-06  0.0080
   3.1440E+01   3.2205E+01   4.2534E-06  0.0078
   3.2205E+01   3.2988E+01   4.2248E-06  0.0078
   3.2988E+01   3.3791E+01   4.2010E-06  0.0077
   3.3791E+01   3.4613E+01   4.1693E-06  0.0076
   3.4613E+01   3.5455E+01   4.2173E-06  0.0075
   3.5455E+01   3.6318E+01   4.1495E-06  0.0075
   3.6318E+01   3.7201E+01   4.1972E-06  0.0073
   3.7201E+01   3.8106E+01   4.2095E-06  0.0072
   3.8106E+01   3.9034E+01   4.2282E-06  0.0071
   3.9034E+01   3.9983E+01   4.2354E-06  0.0071
   3.9983E+01   4.0956E+01   4.2211E-06  0.0070
   4.0956E+01   4.1953E+01   4.3380E-06  0.0068
   4.1953E+01   4.2973E+01   4.3753E-06  0.0067
   4.2973E+01   4.4019E+01   4.9291E-06  0.0062
   4.4019E+01   4.5090E+01   7.2105E-06  0.0051
   4.5090E+01   4.6187E+01   1.1126E-05  0.0040
   4.6187E+01   4.7311E+01   1.3073E-05  0.0037
   4.7311E+01   4.8462E+01   1.1572E-05  0.0039
   4.8462E+01   4.9641E+01   7.5423E-06  0.0047
   4.9641E+01   5.0849E+01   7.3914E-06  0.0047
   5.0849E+01   5.2086E+01   7.2052E-06  0.0047
   5.2086E+01   5.3353E+01   7.0980E-06  0.0047
   5.3353E+01   5.4651E+01   6.8902E-06  0.0047
   5.4651E+01   5.5981E+01   6.7545E-06  0.0047
   5.5981E+01   5.7343E+01   6.5768E-06  0.0047
   5.7343E+01   5.8738E+01   6.4122E-06  0.0047
   5.8738E+01   6.0168E+01   6.2820E-06  0.0047
   6.0168E+01   6.1632E+01   6.0533E-06  0.0048
   6.1632E+01   6.3131E+01   5.9211E-06  0.0047
   6.3131E+01   6.4667E+01   5.7465E-06  0.0048
   6.4667E+01   6.6240E+01   5.6028E-06  0.0048
   6.6240E+01   6.7852E+01   5.4460E-06  0.0048
   6.7852E+01   6.9503E+01   5.3009E-06  0.0048
   6.9503E+01   7.1194E+01   5.0931E-06  0.0048
   7.1194E+01   7.2926E+01   4.9763E-06  0.0048
   7.2926E+01   7.4701E+01   4.7235E-06  0.0049
   7.4701E+01   7.6518E+01   4.6122E-06  0.0049
   7.6518E+01   7.8380E+01   4.3982E-06  0.0049
   7.8380E+01   8.0287E+01   4.2097E-06  0.0050
   8.0287E+01   8.2240E+01   3.9799E-06  0.0051
   8.2240E+01   8.4241E+01   3.7175E-06  0.0052
   8.4241E+01   8.6291E+01   3.4506E-06  0.0053
   8.6291E+01   8.8391E+01   3.2355E-06  0.0054
   8.8391E+01   9.0541E+01   1.1250E-06  0.0091
   9.0541E+01   9.2744E+01   9.0788E-11  1.0000
   9.2744E+01   9.5001E+01   0.0000E+00  0.0000
   9.5001E+01   9.7312E+01   0.0000E+00  0.0000
   9.7312E+01   9.9680E+01   0.0000E+00  0.0000
   9.9680E+01   1.0211E+02   0.0000E+00  0.0000
   1.0211E+02   1.0459E+02   0.0000E+00  0.0000
   1.0459E+02   1.0713E+02   0.0000E+00  0.0000
   1.0713E+02   1.0974E+02   0.0000E+00  0.0000
   1.0974E+02   1.1241E+02   0.0000E+00  0.0000
   1.1241E+02   1.1515E+02   0.0000E+00  0.0000
   1.1515E+02   1.1795E+02   0.0000E+00  0.0000
   1.1795E+02   1.2082E+02   0.0000E+00  0.0000
   1.2082E+02   1.2376E+02   0.0000E+00  0.0000
   1.2376E+02   1.2677E+02   0.0000E+00  0.0000
   1.2677E+02   1.2985E+02   0.0000E+00  0.0000
   1.2985E+02   1.3301E+02   0.0000E+00  0.0000
   1.3301E+02   1.3625E+02   0.0000E+00  0.0000
   1.3625E+02   1.3956E+02   0.0000E+00  0.0000
   1.3956E+02   1.4296E+02   0.0000E+00  0.0000
   1.4296E+02   1.4644E+02   0.0000E+00  0.0000
   1.4644E+02   1.5000E+02   0.0000E+00  0.0000

#   sum over                 3.4491E-06
'no. =    1   reg = 100 - 200'
msuc: {\huge [t-cross] in region mesh}
msdr: {\it plotted by \ANGEL \version}
msdl: {\it calculated by \PHITS  3.26}
wt: s(0.7)
\vspace{-3}
  region surface crossing
  area  &=&   1.0000E+00 [cm^2]
e:
 
# Information for Restart Calculation
# This calculation was newly started
# istdev =  2 # 1:Batch variance, 2:History variance
# resc2  = 5.00000000000000000E+09 # Total source weight or Total source weight / maxcas
# resc3  = 5.00000000000000000E+09 # Total history number or Total batch number
# maxcas =   100000000 # History / Batch, only used for istdev=1
# bitrseed = 0110100000100010111000001110001111001110100100011111101000111001 # bit data of rseed
