[ T-Cross ]
    title = [t-cross] in region mesh
     mesh =  reg            # mesh type is region-wise
      reg =    1            # number of crossing regions
      non     r-from    r-to       area
      1       105       205        1.000000    
   e-type =    3            # e-mesh is log given by emin, emax and ne
     emin =  1.0000000E-02  # minimum value of e-mesh points
     emax =   150.0000      # maximum value of e-mesh points
#    edel =  2.4039514E-02  # mesh width of e-mesh points
       ne =    400          # number of e-mesh points
#    data = ( e(i), i = 1, ne + 1 )
#           1.00000E-02  1.02433E-02  1.04925E-02  1.07478E-02  1.10093E-02
#           1.12772E-02  1.15516E-02  1.18326E-02  1.21205E-02  1.24154E-02
#           1.27175E-02  1.30269E-02  1.33439E-02  1.36686E-02  1.40011E-02
#           1.43418E-02  1.46907E-02  1.50482E-02  1.54143E-02  1.57894E-02
#           1.61735E-02  1.65670E-02  1.69701E-02  1.73830E-02  1.78060E-02
#           1.82392E-02  1.86830E-02  1.91375E-02  1.96032E-02  2.00801E-02
#           2.05687E-02  2.10692E-02  2.15818E-02  2.21069E-02  2.26448E-02
#           2.31957E-02  2.37601E-02  2.43382E-02  2.49304E-02  2.55369E-02
#           2.61583E-02  2.67947E-02  2.74467E-02  2.81145E-02  2.87985E-02
#           2.94992E-02  3.02169E-02  3.09521E-02  3.17052E-02  3.24766E-02
#           3.32668E-02  3.40762E-02  3.49053E-02  3.57546E-02  3.66246E-02
#           3.75157E-02  3.84284E-02  3.93634E-02  4.03212E-02  4.13022E-02
#           4.23071E-02  4.33365E-02  4.43909E-02  4.54710E-02  4.65773E-02
#           4.77106E-02  4.88714E-02  5.00605E-02  5.12785E-02  5.25262E-02
#           5.38042E-02  5.51133E-02  5.64542E-02  5.78278E-02  5.92348E-02
#           6.06760E-02  6.21523E-02  6.36645E-02  6.52135E-02  6.68002E-02
#           6.84255E-02  7.00904E-02  7.17957E-02  7.35426E-02  7.53319E-02
#           7.71648E-02  7.90423E-02  8.09655E-02  8.29354E-02  8.49533E-02
#           8.70203E-02  8.91376E-02  9.13064E-02  9.35279E-02  9.58035E-02
#           9.81345E-02  1.00522E-01  1.02968E-01  1.05473E-01  1.08040E-01
#           1.10668E-01  1.13361E-01  1.16119E-01  1.18944E-01  1.21838E-01
#           1.24803E-01  1.27839E-01  1.30950E-01  1.34136E-01  1.37399E-01
#           1.40742E-01  1.44167E-01  1.47675E-01  1.51268E-01  1.54948E-01
#           1.58718E-01  1.62580E-01  1.66535E-01  1.70587E-01  1.74738E-01
#           1.78989E-01  1.83344E-01  1.87805E-01  1.92375E-01  1.97055E-01
#           2.01850E-01  2.06761E-01  2.11792E-01  2.16945E-01  2.22223E-01
#           2.27630E-01  2.33169E-01  2.38842E-01  2.44653E-01  2.50605E-01
#           2.56703E-01  2.62949E-01  2.69346E-01  2.75900E-01  2.82613E-01
#           2.89489E-01  2.96532E-01  3.03747E-01  3.11138E-01  3.18708E-01
#           3.26462E-01  3.34405E-01  3.42542E-01  3.50876E-01  3.59413E-01
#           3.68158E-01  3.77116E-01  3.86291E-01  3.95690E-01  4.05317E-01
#           4.15179E-01  4.25281E-01  4.35628E-01  4.46227E-01  4.57084E-01
#           4.68205E-01  4.79597E-01  4.91266E-01  5.03219E-01  5.15463E-01
#           5.28005E-01  5.40851E-01  5.54011E-01  5.67490E-01  5.81298E-01
#           5.95441E-01  6.09929E-01  6.24769E-01  6.39970E-01  6.55541E-01
#           6.71491E-01  6.87828E-01  7.04564E-01  7.21706E-01  7.39266E-01
#           7.57253E-01  7.75678E-01  7.94551E-01  8.13883E-01  8.33685E-01
#           8.53969E-01  8.74747E-01  8.96030E-01  9.17831E-01  9.40163E-01
#           9.63038E-01  9.86469E-01  1.01047E+00  1.03506E+00  1.06024E+00
#           1.08604E+00  1.11246E+00  1.13953E+00  1.16725E+00  1.19565E+00
#           1.22474E+00  1.25454E+00  1.28507E+00  1.31633E+00  1.34836E+00
#           1.38117E+00  1.41477E+00  1.44920E+00  1.48446E+00  1.52057E+00
#           1.55757E+00  1.59547E+00  1.63429E+00  1.67405E+00  1.71478E+00
#           1.75650E+00  1.79924E+00  1.84302E+00  1.88786E+00  1.93379E+00
#           1.98084E+00  2.02904E+00  2.07841E+00  2.12898E+00  2.18078E+00
#           2.23384E+00  2.28819E+00  2.34386E+00  2.40089E+00  2.45930E+00
#           2.51914E+00  2.58043E+00  2.64322E+00  2.70753E+00  2.77341E+00
#           2.84088E+00  2.91001E+00  2.98081E+00  3.05333E+00  3.12762E+00
#           3.20372E+00  3.28167E+00  3.36152E+00  3.44330E+00  3.52708E+00
#           3.61290E+00  3.70080E+00  3.79085E+00  3.88308E+00  3.97756E+00
#           4.07434E+00  4.17347E+00  4.27501E+00  4.37903E+00  4.48557E+00
#           4.59471E+00  4.70650E+00  4.82102E+00  4.93832E+00  5.05847E+00
#           5.18155E+00  5.30762E+00  5.43676E+00  5.56904E+00  5.70453E+00
#           5.84333E+00  5.98550E+00  6.13114E+00  6.28031E+00  6.43312E+00
#           6.58964E+00  6.74997E+00  6.91420E+00  7.08243E+00  7.25475E+00
#           7.43126E+00  7.61207E+00  7.79728E+00  7.98700E+00  8.18133E+00
#           8.38038E+00  8.58428E+00  8.79315E+00  9.00709E+00  9.22624E+00
#           9.45072E+00  9.68067E+00  9.91620E+00  1.01575E+01  1.04046E+01
#           1.06578E+01  1.09171E+01  1.11827E+01  1.14548E+01  1.17335E+01
#           1.20190E+01  1.23114E+01  1.26109E+01  1.29178E+01  1.32321E+01
#           1.35540E+01  1.38838E+01  1.42216E+01  1.45676E+01  1.49221E+01
#           1.52851E+01  1.56570E+01  1.60380E+01  1.64282E+01  1.68279E+01
#           1.72374E+01  1.76568E+01  1.80864E+01  1.85264E+01  1.89772E+01
#           1.94389E+01  1.99119E+01  2.03963E+01  2.08926E+01  2.14009E+01
#           2.19216E+01  2.24550E+01  2.30014E+01  2.35610E+01  2.41343E+01
#           2.47215E+01  2.53230E+01  2.59391E+01  2.65702E+01  2.72167E+01
#           2.78789E+01  2.85572E+01  2.92520E+01  2.99637E+01  3.06928E+01
#           3.14396E+01  3.22045E+01  3.29881E+01  3.37907E+01  3.46128E+01
#           3.54550E+01  3.63177E+01  3.72013E+01  3.81064E+01  3.90336E+01
#           3.99833E+01  4.09561E+01  4.19526E+01  4.29734E+01  4.40189E+01
#           4.50900E+01  4.61870E+01  4.73108E+01  4.84619E+01  4.96410E+01
#           5.08488E+01  5.20860E+01  5.33533E+01  5.46514E+01  5.59812E+01
#           5.73432E+01  5.87384E+01  6.01676E+01  6.16315E+01  6.31311E+01
#           6.46671E+01  6.62405E+01  6.78522E+01  6.95031E+01  7.11941E+01
#           7.29263E+01  7.47007E+01  7.65182E+01  7.83800E+01  8.02870E+01
#           8.22405E+01  8.42414E+01  8.62911E+01  8.83906E+01  9.05412E+01
#           9.27442E+01  9.50007E+01  9.73122E+01  9.96799E+01  1.02105E+02
#           1.04589E+02  1.07134E+02  1.09741E+02  1.12411E+02  1.15146E+02
#           1.17948E+02  1.20817E+02  1.23757E+02  1.26768E+02  1.29852E+02
#           1.33012E+02  1.36248E+02  1.39563E+02  1.42959E+02  1.46437E+02
#           1.50000E+02
     unit =    2            # unit is [1/cm^2/(MeV/n)/source]
     axis =  eng            # axis of output
     file = detector-06.out  # file name of output for the above axis
   output = f-curr          # surface crossing forward current spectrum
     part =  neutron  
# kf/name :  2112     
#    used :        main (  %)        temp (  %)       total (  %)
#  memory :         414 (  0)           0 (  0)         414 (  0)

#------------------------------------------------------------------------------
#newpage:
#   no. =    1   reg = 105 - 205

x: Energy [MeV/n]
y:  F-Curr [1/cm^2/(MeV/n)/source]         
p: xlog ylog afac(0.8) form(0.9)
h: n            x            y(neutron ),hh0l   n 
#  e-lower      e-upper      neutron     r.err 
   1.0000E-02   1.0243E-02   8.3690E-04  0.0698
   1.0243E-02   1.0493E-02   8.9288E-04  0.0669
   1.0493E-02   1.0748E-02   9.4716E-04  0.0642
   1.0748E-02   1.1009E-02   8.8206E-04  0.0656
   1.1009E-02   1.1277E-02   8.9404E-04  0.0644
   1.1277E-02   1.1552E-02   7.3557E-04  0.0701
   1.1552E-02   1.1833E-02   8.4584E-04  0.0646
   1.1833E-02   1.2121E-02   8.8706E-04  0.0624
   1.2121E-02   1.2415E-02   8.2172E-04  0.0640
   1.2415E-02   1.2718E-02   7.3216E-04  0.0670
   1.2718E-02   1.3027E-02   8.1595E-04  0.0628
   1.3027E-02   1.3344E-02   7.3752E-04  0.0652
   1.3344E-02   1.3669E-02   7.1867E-04  0.0653
   1.3669E-02   1.4001E-02   6.3069E-04  0.0688
   1.4001E-02   1.4342E-02   7.1976E-04  0.0638
   1.4342E-02   1.4691E-02   6.8013E-04  0.0647
   1.4691E-02   1.5048E-02   6.3912E-04  0.0659
   1.5048E-02   1.5414E-02   5.8530E-04  0.0681
   1.5414E-02   1.5789E-02   6.1895E-04  0.0655
   1.5789E-02   1.6174E-02   5.7475E-04  0.0671
   1.6174E-02   1.6567E-02   6.0742E-04  0.0645
   1.6567E-02   1.6970E-02   6.1265E-04  0.0635
   1.6970E-02   1.7383E-02   5.8523E-04  0.0643
   1.7383E-02   1.7806E-02   6.2519E-04  0.0614
   1.7806E-02   1.8239E-02   5.2122E-04  0.0664
   1.8239E-02   1.8683E-02   5.4660E-04  0.0641
   1.8683E-02   1.9138E-02   4.8984E-04  0.0670
   1.9138E-02   1.9603E-02   5.2247E-04  0.0639
   1.9603E-02   2.0080E-02   4.7676E-04  0.0661
   2.0080E-02   2.0569E-02   4.6235E-04  0.0664
   2.0569E-02   2.1069E-02   4.4918E-04  0.0665
   2.1069E-02   2.1582E-02   4.5913E-04  0.0648
   2.1582E-02   2.2107E-02   4.2695E-04  0.0666
   2.2107E-02   2.2645E-02   4.3391E-04  0.0652
   2.2645E-02   2.3196E-02   4.0846E-04  0.0665
   2.3196E-02   2.3760E-02   4.1506E-04  0.0651
   2.3760E-02   2.4338E-02   4.1024E-04  0.0648
   2.4338E-02   2.4930E-02   3.9475E-04  0.0653
   2.4930E-02   2.5537E-02   4.0677E-04  0.0634
   2.5537E-02   2.6158E-02   3.7705E-04  0.0650
   2.6158E-02   2.6795E-02   3.3677E-04  0.0682
   2.6795E-02   2.7447E-02   3.5597E-04  0.0653
   2.7447E-02   2.8114E-02   3.4843E-04  0.0652
   2.8114E-02   2.8799E-02   3.6627E-04  0.0629
   2.8799E-02   2.9499E-02   3.2243E-04  0.0663
   2.9499E-02   3.0217E-02   3.5848E-04  0.0621
   3.0217E-02   3.0952E-02   3.2491E-04  0.0645
   3.0952E-02   3.1705E-02   3.2923E-04  0.0632
   3.1705E-02   3.2477E-02   3.0306E-04  0.0652
   3.2477E-02   3.3267E-02   3.2171E-04  0.0624
   3.3267E-02   3.4076E-02   3.1248E-04  0.0625
   3.4076E-02   3.4905E-02   3.0126E-04  0.0630
   3.4905E-02   3.5755E-02   2.8401E-04  0.0641
   3.5755E-02   3.6625E-02   2.6965E-04  0.0651
   3.6625E-02   3.7516E-02   2.8237E-04  0.0626
   3.7516E-02   3.8428E-02   2.8059E-04  0.0623
   3.8428E-02   3.9363E-02   2.7932E-04  0.0616
   3.9363E-02   4.0321E-02   2.3913E-04  0.0659
   4.0321E-02   4.1302E-02   2.3626E-04  0.0654
   4.1302E-02   4.2307E-02   2.5584E-04  0.0622
   4.2307E-02   4.3337E-02   2.3222E-04  0.0644
   4.3337E-02   4.4391E-02   2.1766E-04  0.0658
   4.4391E-02   4.5471E-02   2.2830E-04  0.0633
   4.5471E-02   4.6577E-02   2.2823E-04  0.0627
   4.6577E-02   4.7711E-02   2.1604E-04  0.0635
   4.7711E-02   4.8871E-02   2.0812E-04  0.0643
   4.8871E-02   5.0061E-02   2.0113E-04  0.0643
   5.0061E-02   5.1279E-02   1.9982E-04  0.0638
   5.1279E-02   5.2526E-02   1.8766E-04  0.0652
   5.2526E-02   5.3804E-02   2.0117E-04  0.0622
   5.3804E-02   5.5113E-02   1.7914E-04  0.0651
   5.5113E-02   5.6454E-02   1.8296E-04  0.0636
   5.6454E-02   5.7828E-02   1.8321E-04  0.0628
   5.7828E-02   5.9235E-02   1.9812E-04  0.0597
   5.9235E-02   6.0676E-02   1.6123E-04  0.0653
   6.0676E-02   6.2152E-02   1.5698E-04  0.0654
   6.2152E-02   6.3665E-02   1.5306E-04  0.0655
   6.3665E-02   6.5214E-02   1.6172E-04  0.0630
   6.5214E-02   6.6800E-02   1.5948E-04  0.0625
   6.6800E-02   6.8426E-02   1.5515E-04  0.0628
   6.8426E-02   7.0090E-02   1.6280E-04  0.0606
   7.0090E-02   7.1796E-02   1.5350E-04  0.0615
   7.1796E-02   7.3543E-02   1.4836E-04  0.0619
   7.3543E-02   7.5332E-02   1.3204E-04  0.0648
   7.5332E-02   7.7165E-02   1.4699E-04  0.0607
   7.7165E-02   7.9042E-02   1.3476E-04  0.0624
   7.9042E-02   8.0965E-02   1.2104E-04  0.0654
   8.0965E-02   8.2935E-02   1.2652E-04  0.0628
   8.2935E-02   8.4953E-02   1.1925E-04  0.0643
   8.4953E-02   8.7020E-02   1.1967E-04  0.0634
   8.7020E-02   8.9138E-02   1.2305E-04  0.0616
   8.9138E-02   9.1306E-02   1.0765E-04  0.0651
   9.1306E-02   9.3528E-02   1.1199E-04  0.0631
   9.3528E-02   9.5804E-02   1.0658E-04  0.0638
   9.5804E-02   9.8134E-02   1.1095E-04  0.0619
   9.8134E-02   1.0052E-01   1.1640E-04  0.0598
   1.0052E-01   1.0297E-01   1.0656E-04  0.0618
   1.0297E-01   1.0547E-01   9.0406E-05  0.0662
   1.0547E-01   1.0804E-01   1.0367E-04  0.0611
   1.0804E-01   1.1067E-01   9.5008E-05  0.0630
   1.1067E-01   1.1336E-01   9.4975E-05  0.0623
   1.1336E-01   1.1612E-01   9.8421E-05  0.0605
   1.1612E-01   1.1894E-01   8.2675E-05  0.0650
   1.1894E-01   1.2184E-01   8.2390E-05  0.0644
   1.2184E-01   1.2480E-01   9.0619E-05  0.0608
   1.2480E-01   1.2784E-01   8.0549E-05  0.0637
   1.2784E-01   1.3095E-01   8.9234E-05  0.0598
   1.3095E-01   1.3414E-01   7.9403E-05  0.0626
   1.3414E-01   1.3740E-01   7.1707E-05  0.0650
   1.3740E-01   1.4074E-01   7.8396E-05  0.0616
   1.4074E-01   1.4417E-01   7.6076E-05  0.0617
   1.4417E-01   1.4767E-01   6.8583E-05  0.0641
   1.4767E-01   1.5127E-01   7.2536E-05  0.0617
   1.5127E-01   1.5495E-01   7.7155E-05  0.0592
   1.5495E-01   1.5872E-01   7.1083E-05  0.0608
   1.5872E-01   1.6258E-01   7.4741E-05  0.0586
   1.6258E-01   1.6654E-01   6.0189E-05  0.0646
   1.6654E-01   1.7059E-01   6.4772E-05  0.0615
   1.7059E-01   1.7474E-01   7.2159E-05  0.0575
   1.7474E-01   1.7899E-01   6.6375E-05  0.0592
   1.7899E-01   1.8334E-01   6.3507E-05  0.0599
   1.8334E-01   1.8781E-01   5.5283E-05  0.0635
   1.8781E-01   1.9237E-01   6.5444E-05  0.0575
   1.9237E-01   1.9706E-01   6.0469E-05  0.0592
   1.9706E-01   2.0185E-01   6.0601E-05  0.0583
   2.0185E-01   2.0676E-01   6.1969E-05  0.0571
   2.0676E-01   2.1179E-01   6.4366E-05  0.0553
   2.1179E-01   2.1694E-01   6.3152E-05  0.0552
   2.1694E-01   2.2222E-01   6.3058E-05  0.0546
   2.2222E-01   2.2763E-01   7.0003E-05  0.0511
   2.2763E-01   2.3317E-01   7.1923E-05  0.0499
   2.3317E-01   2.3884E-01   7.4073E-05  0.0486
   2.3884E-01   2.4465E-01   7.8285E-05  0.0467
   2.4465E-01   2.5061E-01   7.8041E-05  0.0462
   2.5061E-01   2.5670E-01   8.3708E-05  0.0441
   2.5670E-01   2.6295E-01   8.1494E-05  0.0441
   2.6295E-01   2.6935E-01   8.5718E-05  0.0425
   2.6935E-01   2.7590E-01   8.9434E-05  0.0411
   2.7590E-01   2.8261E-01   8.5304E-05  0.0416
   2.8261E-01   2.8949E-01   9.5182E-05  0.0389
   2.8949E-01   2.9653E-01   9.8810E-05  0.0378
   2.9653E-01   3.0375E-01   9.7776E-05  0.0375
   3.0375E-01   3.1114E-01   9.7255E-05  0.0371
   3.1114E-01   3.1871E-01   1.0041E-04  0.0361
   3.1871E-01   3.2646E-01   1.0332E-04  0.0352
   3.2646E-01   3.3441E-01   1.0837E-04  0.0339
   3.3441E-01   3.4254E-01   1.0807E-04  0.0336
   3.4254E-01   3.5088E-01   1.0981E-04  0.0329
   3.5088E-01   3.5941E-01   1.1104E-04  0.0324
   3.5941E-01   3.6816E-01   1.1511E-04  0.0314
   3.6816E-01   3.7712E-01   1.1777E-04  0.0307
   3.7712E-01   3.8629E-01   1.1691E-04  0.0304
   3.8629E-01   3.9569E-01   1.1767E-04  0.0299
   3.9569E-01   4.0532E-01   1.2278E-04  0.0290
   4.0532E-01   4.1518E-01   1.2912E-04  0.0279
   4.1518E-01   4.2528E-01   1.2534E-04  0.0280
   4.2528E-01   4.3563E-01   1.2654E-04  0.0275
   4.3563E-01   4.4623E-01   1.3200E-04  0.0266
   4.4623E-01   4.5708E-01   1.3897E-04  0.0256
   4.5708E-01   4.6821E-01   1.3177E-04  0.0260
   4.6821E-01   4.7960E-01   1.3830E-04  0.0251
   4.7960E-01   4.9127E-01   1.3214E-04  0.0254
   4.9127E-01   5.0322E-01   1.4413E-04  0.0240
   5.0322E-01   5.1546E-01   1.4037E-04  0.0240
   5.1546E-01   5.2800E-01   1.4315E-04  0.0235
   5.2800E-01   5.4085E-01   1.4075E-04  0.0234
   5.4085E-01   5.5401E-01   1.4662E-04  0.0227
   5.5401E-01   5.6749E-01   1.4654E-04  0.0224
   5.6749E-01   5.8130E-01   1.4396E-04  0.0223
   5.8130E-01   5.9544E-01   1.4579E-04  0.0219
   5.9544E-01   6.0993E-01   1.4880E-04  0.0214
   6.0993E-01   6.2477E-01   1.4258E-04  0.0217
   6.2477E-01   6.3997E-01   1.5072E-04  0.0208
   6.3997E-01   6.5554E-01   1.5313E-04  0.0204
   6.5554E-01   6.7149E-01   1.5690E-04  0.0199
   6.7149E-01   6.8783E-01   1.5262E-04  0.0199
   6.8783E-01   7.0456E-01   1.5194E-04  0.0198
   7.0456E-01   7.2171E-01   1.5435E-04  0.0194
   7.2171E-01   7.3927E-01   1.5122E-04  0.0193
   7.3927E-01   7.5725E-01   1.4713E-04  0.0194
   7.5725E-01   7.7568E-01   1.4455E-04  0.0193
   7.7568E-01   7.9455E-01   1.4397E-04  0.0191
   7.9455E-01   8.1388E-01   1.4008E-04  0.0191
   8.1388E-01   8.3368E-01   1.4001E-04  0.0189
   8.3368E-01   8.5397E-01   1.4077E-04  0.0186
   8.5397E-01   8.7475E-01   1.4033E-04  0.0184
   8.7475E-01   8.9603E-01   1.3082E-04  0.0189
   8.9603E-01   9.1783E-01   1.3187E-04  0.0185
   9.1783E-01   9.4016E-01   1.2764E-04  0.0186
   9.4016E-01   9.6304E-01   1.2641E-04  0.0185
   9.6304E-01   9.8647E-01   1.2007E-04  0.0188
   9.8647E-01   1.0105E+00   1.1910E-04  0.0186
   1.0105E+00   1.0351E+00   1.2240E-04  0.0181
   1.0351E+00   1.0602E+00   1.1950E-04  0.0181
   1.0602E+00   1.0860E+00   1.2191E-04  0.0178
   1.0860E+00   1.1125E+00   1.2791E-04  0.0171
   1.1125E+00   1.1395E+00   1.2670E-04  0.0170
   1.1395E+00   1.1673E+00   1.3566E-04  0.0162
   1.1673E+00   1.1957E+00   1.3790E-04  0.0159
   1.1957E+00   1.2247E+00   1.3766E-04  0.0157
   1.2247E+00   1.2545E+00   1.4096E-04  0.0154
   1.2545E+00   1.2851E+00   1.3977E-04  0.0152
   1.2851E+00   1.3163E+00   1.4427E-04  0.0148
   1.3163E+00   1.3484E+00   1.4360E-04  0.0147
   1.3484E+00   1.3812E+00   1.5107E-04  0.0141
   1.3812E+00   1.4148E+00   1.5375E-04  0.0139
   1.4148E+00   1.4492E+00   1.5353E-04  0.0137
   1.4492E+00   1.4845E+00   1.4960E-04  0.0137
   1.4845E+00   1.5206E+00   1.5537E-04  0.0133
   1.5206E+00   1.5576E+00   1.5218E-04  0.0133
   1.5576E+00   1.5955E+00   1.5576E-04  0.0130
   1.5955E+00   1.6343E+00   1.5755E-04  0.0127
   1.6343E+00   1.6741E+00   1.5853E-04  0.0125
   1.6741E+00   1.7148E+00   1.6373E-04  0.0122
   1.7148E+00   1.7565E+00   1.6754E-04  0.0119
   1.7565E+00   1.7992E+00   1.6341E-04  0.0119
   1.7992E+00   1.8430E+00   1.6661E-04  0.0117
   1.8430E+00   1.8879E+00   1.6525E-04  0.0116
   1.8879E+00   1.9338E+00   1.6607E-04  0.0114
   1.9338E+00   1.9808E+00   1.6589E-04  0.0113
   1.9808E+00   2.0290E+00   1.7020E-04  0.0110
   2.0290E+00   2.0784E+00   1.6861E-04  0.0109
   2.0784E+00   2.1290E+00   1.6828E-04  0.0108
   2.1290E+00   2.1808E+00   1.6731E-04  0.0107
   2.1808E+00   2.2338E+00   1.6876E-04  0.0105
   2.2338E+00   2.2882E+00   1.6550E-04  0.0105
   2.2882E+00   2.3439E+00   1.7126E-04  0.0102
   2.3439E+00   2.4009E+00   1.6915E-04  0.0101
   2.4009E+00   2.4593E+00   1.7019E-04  0.0100
   2.4593E+00   2.5191E+00   1.7031E-04  0.0099
   2.5191E+00   2.5804E+00   1.7189E-04  0.0097
   2.5804E+00   2.6432E+00   1.7187E-04  0.0096
   2.6432E+00   2.7075E+00   1.7042E-04  0.0095
   2.7075E+00   2.7734E+00   1.6946E-04  0.0094
   2.7734E+00   2.8409E+00   1.6920E-04  0.0093
   2.8409E+00   2.9100E+00   1.7519E-04  0.0091
   2.9100E+00   2.9808E+00   1.7478E-04  0.0090
   2.9808E+00   3.0533E+00   1.7569E-04  0.0088
   3.0533E+00   3.1276E+00   1.7381E-04  0.0088
   3.1276E+00   3.2037E+00   1.7388E-04  0.0087
   3.2037E+00   3.2817E+00   1.7244E-04  0.0086
   3.2817E+00   3.3615E+00   1.7324E-04  0.0085
   3.3615E+00   3.4433E+00   1.7486E-04  0.0083
   3.4433E+00   3.5271E+00   1.7532E-04  0.0082
   3.5271E+00   3.6129E+00   1.7659E-04  0.0081
   3.6129E+00   3.7008E+00   1.7726E-04  0.0080
   3.7008E+00   3.7908E+00   1.7561E-04  0.0079
   3.7908E+00   3.8831E+00   1.7492E-04  0.0079
   3.8831E+00   3.9776E+00   1.7462E-04  0.0078
   3.9776E+00   4.0743E+00   1.7312E-04  0.0077
   4.0743E+00   4.1735E+00   1.7572E-04  0.0076
   4.1735E+00   4.2750E+00   1.7658E-04  0.0074
   4.2750E+00   4.3790E+00   1.7764E-04  0.0073
   4.3790E+00   4.4856E+00   1.7548E-04  0.0073
   4.4856E+00   4.5947E+00   1.7746E-04  0.0072
   4.5947E+00   4.7065E+00   1.7517E-04  0.0071
   4.7065E+00   4.8210E+00   1.7802E-04  0.0070
   4.8210E+00   4.9383E+00   1.7704E-04  0.0069
   4.9383E+00   5.0585E+00   1.7827E-04  0.0068
   5.0585E+00   5.1815E+00   1.7725E-04  0.0068
   5.1815E+00   5.3076E+00   1.7627E-04  0.0067
   5.3076E+00   5.4368E+00   1.7681E-04  0.0066
   5.4368E+00   5.5690E+00   1.7546E-04  0.0066
   5.5690E+00   5.7045E+00   1.7706E-04  0.0064
   5.7045E+00   5.8433E+00   1.7768E-04  0.0064
   5.8433E+00   5.9855E+00   1.7597E-04  0.0063
   5.9855E+00   6.1311E+00   1.7566E-04  0.0062
   6.1311E+00   6.2803E+00   1.7863E-04  0.0061
   6.2803E+00   6.4331E+00   1.7734E-04  0.0061
   6.4331E+00   6.5896E+00   1.7697E-04  0.0060
   6.5896E+00   6.7500E+00   1.7873E-04  0.0059
   6.7500E+00   6.9142E+00   1.7768E-04  0.0058
   6.9142E+00   7.0824E+00   1.7933E-04  0.0058
   7.0824E+00   7.2548E+00   1.7669E-04  0.0057
   7.2548E+00   7.4313E+00   1.7754E-04  0.0056
   7.4313E+00   7.6121E+00   1.7651E-04  0.0056
   7.6121E+00   7.7973E+00   1.7498E-04  0.0055
   7.7973E+00   7.9870E+00   1.7672E-04  0.0055
   7.9870E+00   8.1813E+00   1.7618E-04  0.0054
   8.1813E+00   8.3804E+00   1.7466E-04  0.0054
   8.3804E+00   8.5843E+00   1.7593E-04  0.0053
   8.5843E+00   8.7931E+00   1.7430E-04  0.0052
   8.7931E+00   9.0071E+00   1.7293E-04  0.0052
   9.0071E+00   9.2262E+00   1.7436E-04  0.0051
   9.2262E+00   9.4507E+00   1.7314E-04  0.0051
   9.4507E+00   9.6807E+00   1.7283E-04  0.0050
   9.6807E+00   9.9162E+00   1.7135E-04  0.0050
   9.9162E+00   1.0157E+01   1.7385E-04  0.0049
   1.0157E+01   1.0405E+01   1.7170E-04  0.0049
   1.0405E+01   1.0658E+01   1.7339E-04  0.0048
   1.0658E+01   1.0917E+01   1.7341E-04  0.0047
   1.0917E+01   1.1183E+01   1.7343E-04  0.0047
   1.1183E+01   1.1455E+01   1.7218E-04  0.0046
   1.1455E+01   1.1733E+01   1.7261E-04  0.0046
   1.1733E+01   1.2019E+01   1.7004E-04  0.0045
   1.2019E+01   1.2311E+01   1.7089E-04  0.0045
   1.2311E+01   1.2611E+01   1.6972E-04  0.0044
   1.2611E+01   1.2918E+01   1.7021E-04  0.0044
   1.2918E+01   1.3232E+01   1.6917E-04  0.0043
   1.3232E+01   1.3554E+01   1.6896E-04  0.0043
   1.3554E+01   1.3884E+01   1.6801E-04  0.0042
   1.3884E+01   1.4222E+01   1.6714E-04  0.0042
   1.4222E+01   1.4568E+01   1.6601E-04  0.0042
   1.4568E+01   1.4922E+01   1.6513E-04  0.0041
   1.4922E+01   1.5285E+01   1.6392E-04  0.0041
   1.5285E+01   1.5657E+01   1.6268E-04  0.0041
   1.5657E+01   1.6038E+01   1.6044E-04  0.0040
   1.6038E+01   1.6428E+01   1.6091E-04  0.0040
   1.6428E+01   1.6828E+01   1.5775E-04  0.0040
   1.6828E+01   1.7237E+01   1.5741E-04  0.0039
   1.7237E+01   1.7657E+01   1.5514E-04  0.0039
   1.7657E+01   1.8086E+01   1.5268E-04  0.0039
   1.8086E+01   1.8526E+01   1.4893E-04  0.0039
   1.8526E+01   1.8977E+01   1.4755E-04  0.0039
   1.8977E+01   1.9439E+01   1.4424E-04  0.0039
   1.9439E+01   1.9912E+01   1.4378E-04  0.0038
   1.9912E+01   2.0396E+01   1.4153E-04  0.0038
   2.0396E+01   2.0893E+01   1.4105E-04  0.0038
   2.0893E+01   2.1401E+01   1.3662E-04  0.0038
   2.1401E+01   2.1922E+01   1.3355E-04  0.0038
   2.1922E+01   2.2455E+01   1.2866E-04  0.0038
   2.2455E+01   2.3001E+01   1.2481E-04  0.0038
   2.3001E+01   2.3561E+01   1.2051E-04  0.0039
   2.3561E+01   2.4134E+01   1.1457E-04  0.0039
   2.4134E+01   2.4721E+01   1.0993E-04  0.0039
   2.4721E+01   2.5323E+01   1.0614E-04  0.0040
   2.5323E+01   2.5939E+01   9.9934E-05  0.0040
   2.5939E+01   2.6570E+01   9.4767E-05  0.0041
   2.6570E+01   2.7217E+01   8.9558E-05  0.0042
   2.7217E+01   2.7879E+01   8.5054E-05  0.0042
   2.7879E+01   2.8557E+01   7.9616E-05  0.0043
   2.8557E+01   2.9252E+01   7.4635E-05  0.0044
   2.9252E+01   2.9964E+01   6.9871E-05  0.0045
   2.9964E+01   3.0693E+01   6.4456E-05  0.0046
   3.0693E+01   3.1440E+01   6.0525E-05  0.0047
   3.1440E+01   3.2205E+01   5.6529E-05  0.0048
   3.2205E+01   3.2988E+01   5.1750E-05  0.0050
   3.2988E+01   3.3791E+01   4.7899E-05  0.0051
   3.3791E+01   3.4613E+01   4.4070E-05  0.0053
   3.4613E+01   3.5455E+01   4.0985E-05  0.0054
   3.5455E+01   3.6318E+01   3.7064E-05  0.0056
   3.6318E+01   3.7201E+01   3.3827E-05  0.0058
   3.7201E+01   3.8106E+01   3.0843E-05  0.0060
   3.8106E+01   3.9034E+01   2.8643E-05  0.0061
   3.9034E+01   3.9983E+01   2.5938E-05  0.0064
   3.9983E+01   4.0956E+01   2.3843E-05  0.0066
   4.0956E+01   4.1953E+01   2.1958E-05  0.0068
   4.1953E+01   4.2973E+01   1.9862E-05  0.0070
   4.2973E+01   4.4019E+01   1.7882E-05  0.0073
   4.4019E+01   4.5090E+01   1.6754E-05  0.0075
   4.5090E+01   4.6187E+01   1.5395E-05  0.0077
   4.6187E+01   4.7311E+01   1.4130E-05  0.0079
   4.7311E+01   4.8462E+01   1.3322E-05  0.0081
   4.8462E+01   4.9641E+01   1.2516E-05  0.0082
   4.9641E+01   5.0849E+01   1.1071E-05  0.0086
   5.0849E+01   5.2086E+01   1.0046E-05  0.0090
   5.2086E+01   5.3353E+01   8.6775E-06  0.0095
   5.3353E+01   5.4651E+01   7.7604E-06  0.0100
   5.4651E+01   5.5981E+01   6.8323E-06  0.0105
   5.5981E+01   5.7343E+01   6.0335E-06  0.0110
   5.7343E+01   5.8738E+01   5.4852E-06  0.0114
   5.8738E+01   6.0168E+01   4.9561E-06  0.0119
   6.0168E+01   6.1632E+01   3.7611E-06  0.0135
   6.1632E+01   6.3131E+01   2.4281E-06  0.0166
   6.3131E+01   6.4667E+01   1.3418E-06  0.0220
   6.4667E+01   6.6240E+01   5.6057E-07  0.0337
   6.6240E+01   6.7852E+01   1.4891E-07  0.0645
   6.7852E+01   6.9503E+01   1.2115E-09  0.7071
   6.9503E+01   7.1194E+01   0.0000E+00  0.0000
   7.1194E+01   7.2926E+01   0.0000E+00  0.0000
   7.2926E+01   7.4701E+01   0.0000E+00  0.0000
   7.4701E+01   7.6518E+01   0.0000E+00  0.0000
   7.6518E+01   7.8380E+01   0.0000E+00  0.0000
   7.8380E+01   8.0287E+01   0.0000E+00  0.0000
   8.0287E+01   8.2240E+01   0.0000E+00  0.0000
   8.2240E+01   8.4241E+01   0.0000E+00  0.0000
   8.4241E+01   8.6291E+01   0.0000E+00  0.0000
   8.6291E+01   8.8391E+01   0.0000E+00  0.0000
   8.8391E+01   9.0541E+01   0.0000E+00  0.0000
   9.0541E+01   9.2744E+01   0.0000E+00  0.0000
   9.2744E+01   9.5001E+01   0.0000E+00  0.0000
   9.5001E+01   9.7312E+01   0.0000E+00  0.0000
   9.7312E+01   9.9680E+01   0.0000E+00  0.0000
   9.9680E+01   1.0211E+02   0.0000E+00  0.0000
   1.0211E+02   1.0459E+02   0.0000E+00  0.0000
   1.0459E+02   1.0713E+02   0.0000E+00  0.0000
   1.0713E+02   1.0974E+02   0.0000E+00  0.0000
   1.0974E+02   1.1241E+02   0.0000E+00  0.0000
   1.1241E+02   1.1515E+02   0.0000E+00  0.0000
   1.1515E+02   1.1795E+02   0.0000E+00  0.0000
   1.1795E+02   1.2082E+02   0.0000E+00  0.0000
   1.2082E+02   1.2376E+02   0.0000E+00  0.0000
   1.2376E+02   1.2677E+02   0.0000E+00  0.0000
   1.2677E+02   1.2985E+02   0.0000E+00  0.0000
   1.2985E+02   1.3301E+02   0.0000E+00  0.0000
   1.3301E+02   1.3625E+02   0.0000E+00  0.0000
   1.3625E+02   1.3956E+02   0.0000E+00  0.0000
   1.3956E+02   1.4296E+02   0.0000E+00  0.0000
   1.4296E+02   1.4644E+02   0.0000E+00  0.0000
   1.4644E+02   1.5000E+02   0.0000E+00  0.0000

#   sum over                 3.3599E-05
'no. =    1   reg = 105 - 205'
msuc: {\huge [t-cross] in region mesh}
msdr: {\it plotted by \ANGEL \version}
msdl: {\it calculated by \PHITS  3.26}
wt: s(0.7)
\vspace{-3}
  region surface crossing
  area  &=&   1.0000E+00 [cm^2]
e:
 
# Information for Restart Calculation
# This calculation was newly started
# istdev =  2 # 1:Batch variance, 2:History variance
# resc2  = 1.00000000000000000E+09 # Total source weight or Total source weight / maxcas
# resc3  = 1.00000000000000000E+09 # Total history number or Total batch number
# maxcas =   500000000 # History / Batch, only used for istdev=1
# bitrseed = 0001001110011001001001110000100100110111001111011100001000101100 # bit data of rseed
