[ T-Cross ]
    title = [t-cross] in region mesh
     mesh =  reg            # mesh type is region-wise
      reg =    1            # number of crossing regions
      non     r-from    r-to       area
      1       112       212        1.000000    
   e-type =    3            # e-mesh is log given by emin, emax and ne
     emin =  1.0000000E-02  # minimum value of e-mesh points
     emax =   150.0000      # maximum value of e-mesh points
#    edel =  2.4039514E-02  # mesh width of e-mesh points
       ne =    400          # number of e-mesh points
#    data = ( e(i), i = 1, ne + 1 )
#           1.00000E-02  1.02433E-02  1.04925E-02  1.07478E-02  1.10093E-02
#           1.12772E-02  1.15516E-02  1.18326E-02  1.21205E-02  1.24154E-02
#           1.27175E-02  1.30269E-02  1.33439E-02  1.36686E-02  1.40011E-02
#           1.43418E-02  1.46907E-02  1.50482E-02  1.54143E-02  1.57894E-02
#           1.61735E-02  1.65670E-02  1.69701E-02  1.73830E-02  1.78060E-02
#           1.82392E-02  1.86830E-02  1.91375E-02  1.96032E-02  2.00801E-02
#           2.05687E-02  2.10692E-02  2.15818E-02  2.21069E-02  2.26448E-02
#           2.31957E-02  2.37601E-02  2.43382E-02  2.49304E-02  2.55369E-02
#           2.61583E-02  2.67947E-02  2.74467E-02  2.81145E-02  2.87985E-02
#           2.94992E-02  3.02169E-02  3.09521E-02  3.17052E-02  3.24766E-02
#           3.32668E-02  3.40762E-02  3.49053E-02  3.57546E-02  3.66246E-02
#           3.75157E-02  3.84284E-02  3.93634E-02  4.03212E-02  4.13022E-02
#           4.23071E-02  4.33365E-02  4.43909E-02  4.54710E-02  4.65773E-02
#           4.77106E-02  4.88714E-02  5.00605E-02  5.12785E-02  5.25262E-02
#           5.38042E-02  5.51133E-02  5.64542E-02  5.78278E-02  5.92348E-02
#           6.06760E-02  6.21523E-02  6.36645E-02  6.52135E-02  6.68002E-02
#           6.84255E-02  7.00904E-02  7.17957E-02  7.35426E-02  7.53319E-02
#           7.71648E-02  7.90423E-02  8.09655E-02  8.29354E-02  8.49533E-02
#           8.70203E-02  8.91376E-02  9.13064E-02  9.35279E-02  9.58035E-02
#           9.81345E-02  1.00522E-01  1.02968E-01  1.05473E-01  1.08040E-01
#           1.10668E-01  1.13361E-01  1.16119E-01  1.18944E-01  1.21838E-01
#           1.24803E-01  1.27839E-01  1.30950E-01  1.34136E-01  1.37399E-01
#           1.40742E-01  1.44167E-01  1.47675E-01  1.51268E-01  1.54948E-01
#           1.58718E-01  1.62580E-01  1.66535E-01  1.70587E-01  1.74738E-01
#           1.78989E-01  1.83344E-01  1.87805E-01  1.92375E-01  1.97055E-01
#           2.01850E-01  2.06761E-01  2.11792E-01  2.16945E-01  2.22223E-01
#           2.27630E-01  2.33169E-01  2.38842E-01  2.44653E-01  2.50605E-01
#           2.56703E-01  2.62949E-01  2.69346E-01  2.75900E-01  2.82613E-01
#           2.89489E-01  2.96532E-01  3.03747E-01  3.11138E-01  3.18708E-01
#           3.26462E-01  3.34405E-01  3.42542E-01  3.50876E-01  3.59413E-01
#           3.68158E-01  3.77116E-01  3.86291E-01  3.95690E-01  4.05317E-01
#           4.15179E-01  4.25281E-01  4.35628E-01  4.46227E-01  4.57084E-01
#           4.68205E-01  4.79597E-01  4.91266E-01  5.03219E-01  5.15463E-01
#           5.28005E-01  5.40851E-01  5.54011E-01  5.67490E-01  5.81298E-01
#           5.95441E-01  6.09929E-01  6.24769E-01  6.39970E-01  6.55541E-01
#           6.71491E-01  6.87828E-01  7.04564E-01  7.21706E-01  7.39266E-01
#           7.57253E-01  7.75678E-01  7.94551E-01  8.13883E-01  8.33685E-01
#           8.53969E-01  8.74747E-01  8.96030E-01  9.17831E-01  9.40163E-01
#           9.63038E-01  9.86469E-01  1.01047E+00  1.03506E+00  1.06024E+00
#           1.08604E+00  1.11246E+00  1.13953E+00  1.16725E+00  1.19565E+00
#           1.22474E+00  1.25454E+00  1.28507E+00  1.31633E+00  1.34836E+00
#           1.38117E+00  1.41477E+00  1.44920E+00  1.48446E+00  1.52057E+00
#           1.55757E+00  1.59547E+00  1.63429E+00  1.67405E+00  1.71478E+00
#           1.75650E+00  1.79924E+00  1.84302E+00  1.88786E+00  1.93379E+00
#           1.98084E+00  2.02904E+00  2.07841E+00  2.12898E+00  2.18078E+00
#           2.23384E+00  2.28819E+00  2.34386E+00  2.40089E+00  2.45930E+00
#           2.51914E+00  2.58043E+00  2.64322E+00  2.70753E+00  2.77341E+00
#           2.84088E+00  2.91001E+00  2.98081E+00  3.05333E+00  3.12762E+00
#           3.20372E+00  3.28167E+00  3.36152E+00  3.44330E+00  3.52708E+00
#           3.61290E+00  3.70080E+00  3.79085E+00  3.88308E+00  3.97756E+00
#           4.07434E+00  4.17347E+00  4.27501E+00  4.37903E+00  4.48557E+00
#           4.59471E+00  4.70650E+00  4.82102E+00  4.93832E+00  5.05847E+00
#           5.18155E+00  5.30762E+00  5.43676E+00  5.56904E+00  5.70453E+00
#           5.84333E+00  5.98550E+00  6.13114E+00  6.28031E+00  6.43312E+00
#           6.58964E+00  6.74997E+00  6.91420E+00  7.08243E+00  7.25475E+00
#           7.43126E+00  7.61207E+00  7.79728E+00  7.98700E+00  8.18133E+00
#           8.38038E+00  8.58428E+00  8.79315E+00  9.00709E+00  9.22624E+00
#           9.45072E+00  9.68067E+00  9.91620E+00  1.01575E+01  1.04046E+01
#           1.06578E+01  1.09171E+01  1.11827E+01  1.14548E+01  1.17335E+01
#           1.20190E+01  1.23114E+01  1.26109E+01  1.29178E+01  1.32321E+01
#           1.35540E+01  1.38838E+01  1.42216E+01  1.45676E+01  1.49221E+01
#           1.52851E+01  1.56570E+01  1.60380E+01  1.64282E+01  1.68279E+01
#           1.72374E+01  1.76568E+01  1.80864E+01  1.85264E+01  1.89772E+01
#           1.94389E+01  1.99119E+01  2.03963E+01  2.08926E+01  2.14009E+01
#           2.19216E+01  2.24550E+01  2.30014E+01  2.35610E+01  2.41343E+01
#           2.47215E+01  2.53230E+01  2.59391E+01  2.65702E+01  2.72167E+01
#           2.78789E+01  2.85572E+01  2.92520E+01  2.99637E+01  3.06928E+01
#           3.14396E+01  3.22045E+01  3.29881E+01  3.37907E+01  3.46128E+01
#           3.54550E+01  3.63177E+01  3.72013E+01  3.81064E+01  3.90336E+01
#           3.99833E+01  4.09561E+01  4.19526E+01  4.29734E+01  4.40189E+01
#           4.50900E+01  4.61870E+01  4.73108E+01  4.84619E+01  4.96410E+01
#           5.08488E+01  5.20860E+01  5.33533E+01  5.46514E+01  5.59812E+01
#           5.73432E+01  5.87384E+01  6.01676E+01  6.16315E+01  6.31311E+01
#           6.46671E+01  6.62405E+01  6.78522E+01  6.95031E+01  7.11941E+01
#           7.29263E+01  7.47007E+01  7.65182E+01  7.83800E+01  8.02870E+01
#           8.22405E+01  8.42414E+01  8.62911E+01  8.83906E+01  9.05412E+01
#           9.27442E+01  9.50007E+01  9.73122E+01  9.96799E+01  1.02105E+02
#           1.04589E+02  1.07134E+02  1.09741E+02  1.12411E+02  1.15146E+02
#           1.17948E+02  1.20817E+02  1.23757E+02  1.26768E+02  1.29852E+02
#           1.33012E+02  1.36248E+02  1.39563E+02  1.42959E+02  1.46437E+02
#           1.50000E+02
     unit =    2            # unit is [1/cm^2/(MeV/n)/source]
     axis =  eng            # axis of output
     file = detector-13.out  # file name of output for the above axis
   output = f-curr          # surface crossing forward current spectrum
     part =  neutron  
# kf/name :  2112     
#    used :        main (  %)        temp (  %)       total (  %)
#  memory :         414 (  0)           0 (  0)         414 (  0)

#------------------------------------------------------------------------------
#newpage:
#   no. =    1   reg = 112 - 212

x: Energy [MeV/n]
y:  F-Curr [1/cm^2/(MeV/n)/source]         
p: xlog ylog afac(0.8) form(0.9)
h: n            x            y(neutron ),hh0l   n 
#  e-lower      e-upper      neutron     r.err 
   1.0000E-02   1.0243E-02   1.5207E-04  0.0735
   1.0243E-02   1.0493E-02   1.5729E-04  0.0714
   1.0493E-02   1.0748E-02   1.7000E-04  0.0679
   1.0748E-02   1.1009E-02   1.5832E-04  0.0695
   1.1009E-02   1.1277E-02   1.5605E-04  0.0692
   1.1277E-02   1.1552E-02   1.5161E-04  0.0693
   1.1552E-02   1.1833E-02   1.6011E-04  0.0667
   1.1833E-02   1.2121E-02   1.5005E-04  0.0680
   1.2121E-02   1.2415E-02   1.6277E-04  0.0645
   1.2415E-02   1.2718E-02   1.1851E-04  0.0747
   1.2718E-02   1.3027E-02   1.5189E-04  0.0652
   1.3027E-02   1.3344E-02   1.5523E-04  0.0638
   1.3344E-02   1.3669E-02   1.5400E-04  0.0632
   1.3669E-02   1.4001E-02   1.4132E-04  0.0652
   1.4001E-02   1.4342E-02   1.3856E-04  0.0651
   1.4342E-02   1.4691E-02   1.3183E-04  0.0659
   1.4691E-02   1.5048E-02   1.6003E-04  0.0591
   1.5048E-02   1.5414E-02   1.4421E-04  0.0615
   1.5414E-02   1.5789E-02   1.3438E-04  0.0630
   1.5789E-02   1.6174E-02   1.3432E-04  0.0623
   1.6174E-02   1.6567E-02   1.3570E-04  0.0612
   1.6567E-02   1.6970E-02   1.3000E-04  0.0618
   1.6970E-02   1.7383E-02   1.3321E-04  0.0603
   1.7383E-02   1.7806E-02   1.3288E-04  0.0597
   1.7806E-02   1.8239E-02   1.3480E-04  0.0585
   1.8239E-02   1.8683E-02   1.1763E-04  0.0619
   1.8683E-02   1.9138E-02   1.3331E-04  0.0574
   1.9138E-02   1.9603E-02   1.2757E-04  0.0580
   1.9603E-02   2.0080E-02   1.2412E-04  0.0581
   2.0080E-02   2.0569E-02   1.2199E-04  0.0579
   2.0569E-02   2.1069E-02   1.0510E-04  0.0617
   2.1069E-02   2.1582E-02   1.2251E-04  0.0564
   2.1582E-02   2.2107E-02   1.1998E-04  0.0563
   2.2107E-02   2.2645E-02   1.0486E-04  0.0595
   2.2645E-02   2.3196E-02   1.1689E-04  0.0557
   2.3196E-02   2.3760E-02   1.1482E-04  0.0556
   2.3760E-02   2.4338E-02   1.1486E-04  0.0549
   2.4338E-02   2.4930E-02   1.0301E-04  0.0573
   2.4930E-02   2.5537E-02   1.1013E-04  0.0547
   2.5537E-02   2.6158E-02   1.0204E-04  0.0562
   2.6158E-02   2.6795E-02   9.8672E-05  0.0564
   2.6795E-02   2.7447E-02   1.0891E-04  0.0531
   2.7447E-02   2.8114E-02   9.5538E-05  0.0560
   2.8114E-02   2.8799E-02   1.0438E-04  0.0529
   2.8799E-02   2.9499E-02   1.0218E-04  0.0529
   2.9499E-02   3.0217E-02   1.0143E-04  0.0524
   3.0217E-02   3.0952E-02   9.2492E-05  0.0542
   3.0952E-02   3.1705E-02   1.0729E-04  0.0498
   3.1705E-02   3.2477E-02   8.3742E-05  0.0556
   3.2477E-02   3.3267E-02   9.3396E-05  0.0521
   3.3267E-02   3.4076E-02   9.4637E-05  0.0511
   3.4076E-02   3.4905E-02   9.3595E-05  0.0508
   3.4905E-02   3.5755E-02   9.3963E-05  0.0501
   3.5755E-02   3.6625E-02   9.1271E-05  0.0502
   3.6625E-02   3.7516E-02   9.5163E-05  0.0486
   3.7516E-02   3.8428E-02   7.9975E-05  0.0523
   3.8428E-02   3.9363E-02   8.0428E-05  0.0516
   3.9363E-02   4.0321E-02   8.2486E-05  0.0503
   4.0321E-02   4.1302E-02   7.9303E-05  0.0507
   4.1302E-02   4.2307E-02   8.5579E-05  0.0482
   4.2307E-02   4.3337E-02   8.3547E-05  0.0482
   4.3337E-02   4.4391E-02   7.8717E-05  0.0491
   4.4391E-02   4.5471E-02   8.0365E-05  0.0480
   4.5471E-02   4.6577E-02   7.0322E-05  0.0507
   4.6577E-02   4.7711E-02   7.2004E-05  0.0495
   4.7711E-02   4.8871E-02   8.0287E-05  0.0463
   4.8871E-02   5.0061E-02   7.3839E-05  0.0477
   5.0061E-02   5.1279E-02   6.8144E-05  0.0491
   5.1279E-02   5.2526E-02   7.5342E-05  0.0461
   5.2526E-02   5.3804E-02   7.5587E-05  0.0455
   5.3804E-02   5.5113E-02   6.9361E-05  0.0469
   5.5113E-02   5.6454E-02   6.3985E-05  0.0483
   5.6454E-02   5.7828E-02   6.9308E-05  0.0458
   5.7828E-02   5.9235E-02   7.1926E-05  0.0445
   5.9235E-02   6.0676E-02   6.7581E-05  0.0453
   6.0676E-02   6.2152E-02   6.8144E-05  0.0446
   6.2152E-02   6.3665E-02   6.2293E-05  0.0461
   6.3665E-02   6.5214E-02   6.2750E-05  0.0454
   6.5214E-02   6.6800E-02   6.2394E-05  0.0449
   6.6800E-02   6.8426E-02   6.0666E-05  0.0450
   6.8426E-02   7.0090E-02   6.1147E-05  0.0443
   7.0090E-02   7.1796E-02   5.3009E-05  0.0470
   7.1796E-02   7.3543E-02   5.5300E-05  0.0455
   7.3543E-02   7.5332E-02   5.7227E-05  0.0442
   7.5332E-02   7.7165E-02   5.2267E-05  0.0457
   7.7165E-02   7.9042E-02   5.7204E-05  0.0432
   7.9042E-02   8.0965E-02   5.2414E-05  0.0445
   8.0965E-02   8.2935E-02   4.7717E-05  0.0461
   8.2935E-02   8.4953E-02   5.5900E-05  0.0421
   8.4953E-02   8.7020E-02   5.2057E-05  0.0431
   8.7020E-02   8.9138E-02   5.0442E-05  0.0433
   8.9138E-02   9.1306E-02   4.8875E-05  0.0434
   9.1306E-02   9.3528E-02   4.2763E-05  0.0459
   9.3528E-02   9.5804E-02   4.4735E-05  0.0443
   9.5804E-02   9.8134E-02   4.6247E-05  0.0431
   9.8134E-02   1.0052E-01   4.3892E-05  0.0437
   1.0052E-01   1.0297E-01   4.1868E-05  0.0442
   1.0297E-01   1.0547E-01   4.0394E-05  0.0445
   1.0547E-01   1.0804E-01   4.4579E-05  0.0418
   1.0804E-01   1.1067E-01   3.9259E-05  0.0440
   1.1067E-01   1.1336E-01   4.2189E-05  0.0420
   1.1336E-01   1.1612E-01   4.3145E-05  0.0410
   1.1612E-01   1.1894E-01   3.7165E-05  0.0436
   1.1894E-01   1.2184E-01   3.8701E-05  0.0423
   1.2184E-01   1.2480E-01   3.5218E-05  0.0438
   1.2480E-01   1.2784E-01   3.7016E-05  0.0422
   1.2784E-01   1.3095E-01   3.7230E-05  0.0416
   1.3095E-01   1.3414E-01   3.4588E-05  0.0426
   1.3414E-01   1.3740E-01   3.2357E-05  0.0435
   1.3740E-01   1.4074E-01   3.3921E-05  0.0420
   1.4074E-01   1.4417E-01   3.1013E-05  0.0434
   1.4417E-01   1.4767E-01   3.1873E-05  0.0423
   1.4767E-01   1.5127E-01   3.0559E-05  0.0427
   1.5127E-01   1.5495E-01   2.8312E-05  0.0438
   1.5495E-01   1.5872E-01   3.0026E-05  0.0420
   1.5872E-01   1.6258E-01   2.8485E-05  0.0426
   1.6258E-01   1.6654E-01   2.7050E-05  0.0432
   1.6654E-01   1.7059E-01   2.6901E-05  0.0428
   1.7059E-01   1.7474E-01   2.7900E-05  0.0416
   1.7474E-01   1.7899E-01   2.5450E-05  0.0430
   1.7899E-01   1.8334E-01   2.5350E-05  0.0426
   1.8334E-01   1.8781E-01   2.3538E-05  0.0436
   1.8781E-01   1.9237E-01   2.4642E-05  0.0421
   1.9237E-01   1.9706E-01   2.2262E-05  0.0438
   1.9706E-01   2.0185E-01   2.4027E-05  0.0417
   2.0185E-01   2.0676E-01   2.2887E-05  0.0422
   2.0676E-01   2.1179E-01   2.0156E-05  0.0444
   2.1179E-01   2.1694E-01   2.0066E-05  0.0440
   2.1694E-01   2.2222E-01   1.8907E-05  0.0448
   2.2222E-01   2.2763E-01   1.9827E-05  0.0432
   2.2763E-01   2.3317E-01   1.5528E-05  0.0482
   2.3317E-01   2.3884E-01   1.7803E-05  0.0445
   2.3884E-01   2.4465E-01   1.7311E-05  0.0446
   2.4465E-01   2.5061E-01   1.7102E-05  0.0443
   2.5061E-01   2.5670E-01   1.5810E-05  0.0455
   2.5670E-01   2.6295E-01   1.6267E-05  0.0444
   2.6295E-01   2.6935E-01   1.5849E-05  0.0444
   2.6935E-01   2.7590E-01   1.4008E-05  0.0467
   2.7590E-01   2.8261E-01   1.3884E-05  0.0463
   2.8261E-01   2.8949E-01   1.3525E-05  0.0464
   2.8949E-01   2.9653E-01   1.3175E-05  0.0464
   2.9653E-01   3.0375E-01   1.2252E-05  0.0476
   3.0375E-01   3.1114E-01   1.1664E-05  0.0482
   3.1114E-01   3.1871E-01   1.1202E-05  0.0486
   3.1871E-01   3.2646E-01   1.0330E-05  0.0500
   3.2646E-01   3.3441E-01   1.0751E-05  0.0484
   3.3441E-01   3.4254E-01   8.8983E-06  0.0526
   3.4254E-01   3.5088E-01   1.0367E-05  0.0481
   3.5088E-01   3.5941E-01   1.0003E-05  0.0484
   3.5941E-01   3.6816E-01   8.8052E-06  0.0510
   3.6816E-01   3.7712E-01   8.3058E-06  0.0518
   3.7712E-01   3.8629E-01   9.1548E-06  0.0488
   3.8629E-01   3.9569E-01   8.7458E-06  0.0493
   3.9569E-01   4.0532E-01   8.0395E-06  0.0508
   4.0532E-01   4.1518E-01   7.2604E-06  0.0529
   4.1518E-01   4.2528E-01   7.8997E-06  0.0501
   4.2528E-01   4.3563E-01   7.1515E-06  0.0520
   4.3563E-01   4.4623E-01   6.8685E-06  0.0524
   4.4623E-01   4.5708E-01   6.3369E-06  0.0539
   4.5708E-01   4.6821E-01   5.6828E-06  0.0563
   4.6821E-01   4.7960E-01   5.4074E-06  0.0570
   4.7960E-01   4.9127E-01   5.5703E-06  0.0555
   4.9127E-01   5.0322E-01   5.3209E-06  0.0561
   5.0322E-01   5.1546E-01   5.5702E-06  0.0542
   5.1546E-01   5.2800E-01   4.4332E-06  0.0600
   5.2800E-01   5.4085E-01   4.5926E-06  0.0582
   5.4085E-01   5.5401E-01   4.0276E-06  0.0614
   5.5401E-01   5.6749E-01   3.8577E-06  0.0620
   5.6749E-01   5.8130E-01   3.9254E-06  0.0607
   5.8130E-01   5.9544E-01   3.4928E-06  0.0636
   5.9544E-01   6.0993E-01   3.7964E-06  0.0603
   6.0993E-01   6.2477E-01   3.9353E-06  0.0585
   6.2477E-01   6.3997E-01   3.6905E-06  0.0597
   6.3997E-01   6.5554E-01   3.5322E-06  0.0603
   6.5554E-01   6.7149E-01   3.2351E-06  0.0623
   6.7149E-01   6.8783E-01   2.6564E-06  0.0679
   6.8783E-01   7.0456E-01   2.9279E-06  0.0639
   7.0456E-01   7.2171E-01   2.8000E-06  0.0645
   7.2171E-01   7.3927E-01   3.0638E-06  0.0610
   7.3927E-01   7.5725E-01   3.0244E-06  0.0606
   7.5725E-01   7.7568E-01   2.4967E-06  0.0659
   7.7568E-01   7.9455E-01   2.0453E-06  0.0720
   7.9455E-01   8.1388E-01   2.2553E-06  0.0677
   8.1388E-01   8.3368E-01   2.0907E-06  0.0695
   8.3368E-01   8.5397E-01   2.1297E-06  0.0680
   8.5397E-01   8.7475E-01   2.2043E-06  0.0661
   8.7475E-01   8.9603E-01   2.0767E-06  0.0673
   8.9603E-01   9.1783E-01   1.7981E-06  0.0714
   9.1783E-01   9.4016E-01   2.0420E-06  0.0662
   9.4016E-01   9.6304E-01   1.8973E-06  0.0679
   9.6304E-01   9.8647E-01   1.6986E-06  0.0709
   9.8647E-01   1.0105E+00   1.7999E-06  0.0680
   1.0105E+00   1.0351E+00   1.8954E-06  0.0655
   1.0351E+00   1.0602E+00   1.8028E-06  0.0664
   1.0602E+00   1.0860E+00   1.9693E-06  0.0627
   1.0860E+00   1.1125E+00   1.9906E-06  0.0617
   1.1125E+00   1.1395E+00   2.2832E-06  0.0569
   1.1395E+00   1.1673E+00   2.3444E-06  0.0555
   1.1673E+00   1.1957E+00   2.4014E-06  0.0542
   1.1957E+00   1.2247E+00   2.5368E-06  0.0521
   1.2247E+00   1.2545E+00   2.6981E-06  0.0499
   1.2545E+00   1.2851E+00   2.8699E-06  0.0478
   1.2851E+00   1.3163E+00   2.9296E-06  0.0467
   1.3163E+00   1.3484E+00   3.0287E-06  0.0454
   1.3484E+00   1.3812E+00   2.9201E-06  0.0457
   1.3812E+00   1.4148E+00   3.1960E-06  0.0432
   1.4148E+00   1.4492E+00   3.2885E-06  0.0420
   1.4492E+00   1.4845E+00   3.4203E-06  0.0407
   1.4845E+00   1.5206E+00   3.4110E-06  0.0403
   1.5206E+00   1.5576E+00   3.5300E-06  0.0391
   1.5576E+00   1.5955E+00   3.5570E-06  0.0385
   1.5955E+00   1.6343E+00   3.5498E-06  0.0381
   1.6343E+00   1.6741E+00   4.0389E-06  0.0353
   1.6741E+00   1.7148E+00   3.8619E-06  0.0357
   1.7148E+00   1.7565E+00   3.9787E-06  0.0347
   1.7565E+00   1.7992E+00   4.1463E-06  0.0336
   1.7992E+00   1.8430E+00   4.1209E-06  0.0333
   1.8430E+00   1.8879E+00   4.0631E-06  0.0331
   1.8879E+00   1.9338E+00   4.2148E-06  0.0321
   1.9338E+00   1.9808E+00   4.0467E-06  0.0324
   1.9808E+00   2.0290E+00   4.3656E-06  0.0308
   2.0290E+00   2.0784E+00   4.0593E-06  0.0316
   2.0784E+00   2.1290E+00   4.2160E-06  0.0306
   2.1290E+00   2.1808E+00   4.1352E-06  0.0306
   2.1808E+00   2.2338E+00   4.2405E-06  0.0298
   2.2338E+00   2.2882E+00   4.2134E-06  0.0296
   2.2882E+00   2.3439E+00   4.0935E-06  0.0296
   2.3439E+00   2.4009E+00   4.3067E-06  0.0285
   2.4009E+00   2.4593E+00   4.2009E-06  0.0285
   2.4593E+00   2.5191E+00   4.2816E-06  0.0279
   2.5191E+00   2.5804E+00   3.9287E-06  0.0288
   2.5804E+00   2.6432E+00   3.9851E-06  0.0283
   2.6432E+00   2.7075E+00   3.8220E-06  0.0285
   2.7075E+00   2.7734E+00   3.7616E-06  0.0284
   2.7734E+00   2.8409E+00   3.6070E-06  0.0287
   2.8409E+00   2.9100E+00   3.6689E-06  0.0281
   2.9100E+00   2.9808E+00   3.7442E-06  0.0275
   2.9808E+00   3.0533E+00   3.4443E-06  0.0283
   3.0533E+00   3.1276E+00   3.3302E-06  0.0284
   3.1276E+00   3.2037E+00   3.4587E-06  0.0276
   3.2037E+00   3.2817E+00   3.2483E-06  0.0281
   3.2817E+00   3.3615E+00   3.2262E-06  0.0279
   3.3615E+00   3.4433E+00   2.8928E-06  0.0291
   3.4433E+00   3.5271E+00   3.0724E-06  0.0279
   3.5271E+00   3.6129E+00   3.0064E-06  0.0278
   3.6129E+00   3.7008E+00   2.8463E-06  0.0283
   3.7008E+00   3.7908E+00   2.9164E-06  0.0276
   3.7908E+00   3.8831E+00   2.8211E-06  0.0277
   3.8831E+00   3.9776E+00   2.6906E-06  0.0280
   3.9776E+00   4.0743E+00   2.5543E-06  0.0284
   4.0743E+00   4.1735E+00   2.6571E-06  0.0276
   4.1735E+00   4.2750E+00   2.6353E-06  0.0273
   4.2750E+00   4.3790E+00   2.4131E-06  0.0282
   4.3790E+00   4.4856E+00   2.4365E-06  0.0278
   4.4856E+00   4.5947E+00   2.3841E-06  0.0277
   4.5947E+00   4.7065E+00   2.3973E-06  0.0273
   4.7065E+00   4.8210E+00   2.3438E-06  0.0273
   4.8210E+00   4.9383E+00   2.3530E-06  0.0269
   4.9383E+00   5.0585E+00   2.3686E-06  0.0265
   5.0585E+00   5.1815E+00   2.3270E-06  0.0264
   5.1815E+00   5.3076E+00   2.3320E-06  0.0261
   5.3076E+00   5.4368E+00   2.1605E-06  0.0268
   5.4368E+00   5.5690E+00   2.2770E-06  0.0258
   5.5690E+00   5.7045E+00   2.1653E-06  0.0261
   5.7045E+00   5.8433E+00   2.3027E-06  0.0250
   5.8433E+00   5.9855E+00   2.3056E-06  0.0247
   5.9855E+00   6.1311E+00   2.2893E-06  0.0245
   6.1311E+00   6.2803E+00   2.2028E-06  0.0247
   6.2803E+00   6.4331E+00   2.1858E-06  0.0245
   6.4331E+00   6.5896E+00   2.2371E-06  0.0239
   6.5896E+00   6.7500E+00   2.2542E-06  0.0235
   6.7500E+00   6.9142E+00   2.1664E-06  0.0237
   6.9142E+00   7.0824E+00   2.1516E-06  0.0235
   7.0824E+00   7.2548E+00   2.0977E-06  0.0235
   7.2548E+00   7.4313E+00   2.1680E-06  0.0229
   7.4313E+00   7.6121E+00   2.1071E-06  0.0229
   7.6121E+00   7.7973E+00   2.1468E-06  0.0224
   7.7973E+00   7.9870E+00   2.1331E-06  0.0222
   7.9870E+00   8.1813E+00   2.0398E-06  0.0225
   8.1813E+00   8.3804E+00   2.0588E-06  0.0221
   8.3804E+00   8.5843E+00   2.0652E-06  0.0218
   8.5843E+00   8.7931E+00   1.9773E-06  0.0220
   8.7931E+00   9.0071E+00   1.9711E-06  0.0218
   9.0071E+00   9.2262E+00   1.8572E-06  0.0222
   9.2262E+00   9.4507E+00   1.7681E-06  0.0224
   9.4507E+00   9.6807E+00   1.7648E-06  0.0222
   9.6807E+00   9.9162E+00   1.6698E-06  0.0225
   9.9162E+00   1.0157E+01   1.6397E-06  0.0225
   1.0157E+01   1.0405E+01   1.5453E-06  0.0229
   1.0405E+01   1.0658E+01   1.5339E-06  0.0227
   1.0658E+01   1.0917E+01   1.4573E-06  0.0230
   1.0917E+01   1.1183E+01   1.3651E-06  0.0235
   1.1183E+01   1.1455E+01   1.3312E-06  0.0235
   1.1455E+01   1.1733E+01   1.2124E-06  0.0243
   1.1733E+01   1.2019E+01   1.1794E-06  0.0244
   1.2019E+01   1.2311E+01   1.0977E-06  0.0249
   1.2311E+01   1.2611E+01   1.0192E-06  0.0256
   1.2611E+01   1.2918E+01   9.3242E-07  0.0264
   1.2918E+01   1.3232E+01   8.8291E-07  0.0268
   1.3232E+01   1.3554E+01   8.3119E-07  0.0273
   1.3554E+01   1.3884E+01   7.4049E-07  0.0286
   1.3884E+01   1.4222E+01   6.3114E-07  0.0306
   1.4222E+01   1.4568E+01   6.0372E-07  0.0309
   1.4568E+01   1.4922E+01   5.2420E-07  0.0328
   1.4922E+01   1.5285E+01   5.1946E-07  0.0325
   1.5285E+01   1.5657E+01   4.3211E-07  0.0352
   1.5657E+01   1.6038E+01   3.9664E-07  0.0363
   1.6038E+01   1.6428E+01   3.1649E-07  0.0402
   1.6428E+01   1.6828E+01   2.5869E-07  0.0439
   1.6828E+01   1.7237E+01   2.1444E-07  0.0476
   1.7237E+01   1.7657E+01   2.0172E-07  0.0486
   1.7657E+01   1.8086E+01   1.7295E-07  0.0518
   1.8086E+01   1.8526E+01   1.3726E-07  0.0575
   1.8526E+01   1.8977E+01   9.7834E-08  0.0672
   1.8977E+01   1.9439E+01   7.6235E-08  0.0753
   1.9439E+01   1.9912E+01   4.1229E-08  0.1009
   1.9912E+01   2.0396E+01   4.0456E-08  0.1010
   2.0396E+01   2.0893E+01   2.2569E-08  0.1336
   2.0893E+01   2.1401E+01   7.0820E-09  0.2357
   2.1401E+01   2.1922E+01   0.0000E+00  0.0000
   2.1922E+01   2.2455E+01   0.0000E+00  0.0000
   2.2455E+01   2.3001E+01   0.0000E+00  0.0000
   2.3001E+01   2.3561E+01   0.0000E+00  0.0000
   2.3561E+01   2.4134E+01   0.0000E+00  0.0000
   2.4134E+01   2.4721E+01   0.0000E+00  0.0000
   2.4721E+01   2.5323E+01   0.0000E+00  0.0000
   2.5323E+01   2.5939E+01   0.0000E+00  0.0000
   2.5939E+01   2.6570E+01   0.0000E+00  0.0000
   2.6570E+01   2.7217E+01   0.0000E+00  0.0000
   2.7217E+01   2.7879E+01   0.0000E+00  0.0000
   2.7879E+01   2.8557E+01   0.0000E+00  0.0000
   2.8557E+01   2.9252E+01   0.0000E+00  0.0000
   2.9252E+01   2.9964E+01   0.0000E+00  0.0000
   2.9964E+01   3.0693E+01   0.0000E+00  0.0000
   3.0693E+01   3.1440E+01   0.0000E+00  0.0000
   3.1440E+01   3.2205E+01   0.0000E+00  0.0000
   3.2205E+01   3.2988E+01   0.0000E+00  0.0000
   3.2988E+01   3.3791E+01   0.0000E+00  0.0000
   3.3791E+01   3.4613E+01   0.0000E+00  0.0000
   3.4613E+01   3.5455E+01   0.0000E+00  0.0000
   3.5455E+01   3.6318E+01   0.0000E+00  0.0000
   3.6318E+01   3.7201E+01   0.0000E+00  0.0000
   3.7201E+01   3.8106E+01   0.0000E+00  0.0000
   3.8106E+01   3.9034E+01   0.0000E+00  0.0000
   3.9034E+01   3.9983E+01   0.0000E+00  0.0000
   3.9983E+01   4.0956E+01   0.0000E+00  0.0000
   4.0956E+01   4.1953E+01   0.0000E+00  0.0000
   4.1953E+01   4.2973E+01   0.0000E+00  0.0000
   4.2973E+01   4.4019E+01   0.0000E+00  0.0000
   4.4019E+01   4.5090E+01   0.0000E+00  0.0000
   4.5090E+01   4.6187E+01   0.0000E+00  0.0000
   4.6187E+01   4.7311E+01   0.0000E+00  0.0000
   4.7311E+01   4.8462E+01   0.0000E+00  0.0000
   4.8462E+01   4.9641E+01   0.0000E+00  0.0000
   4.9641E+01   5.0849E+01   0.0000E+00  0.0000
   5.0849E+01   5.2086E+01   0.0000E+00  0.0000
   5.2086E+01   5.3353E+01   0.0000E+00  0.0000
   5.3353E+01   5.4651E+01   0.0000E+00  0.0000
   5.4651E+01   5.5981E+01   0.0000E+00  0.0000
   5.5981E+01   5.7343E+01   0.0000E+00  0.0000
   5.7343E+01   5.8738E+01   0.0000E+00  0.0000
   5.8738E+01   6.0168E+01   0.0000E+00  0.0000
   6.0168E+01   6.1632E+01   0.0000E+00  0.0000
   6.1632E+01   6.3131E+01   0.0000E+00  0.0000
   6.3131E+01   6.4667E+01   0.0000E+00  0.0000
   6.4667E+01   6.6240E+01   0.0000E+00  0.0000
   6.6240E+01   6.7852E+01   0.0000E+00  0.0000
   6.7852E+01   6.9503E+01   0.0000E+00  0.0000
   6.9503E+01   7.1194E+01   0.0000E+00  0.0000
   7.1194E+01   7.2926E+01   0.0000E+00  0.0000
   7.2926E+01   7.4701E+01   0.0000E+00  0.0000
   7.4701E+01   7.6518E+01   0.0000E+00  0.0000
   7.6518E+01   7.8380E+01   0.0000E+00  0.0000
   7.8380E+01   8.0287E+01   0.0000E+00  0.0000
   8.0287E+01   8.2240E+01   0.0000E+00  0.0000
   8.2240E+01   8.4241E+01   0.0000E+00  0.0000
   8.4241E+01   8.6291E+01   0.0000E+00  0.0000
   8.6291E+01   8.8391E+01   0.0000E+00  0.0000
   8.8391E+01   9.0541E+01   0.0000E+00  0.0000
   9.0541E+01   9.2744E+01   0.0000E+00  0.0000
   9.2744E+01   9.5001E+01   0.0000E+00  0.0000
   9.5001E+01   9.7312E+01   0.0000E+00  0.0000
   9.7312E+01   9.9680E+01   0.0000E+00  0.0000
   9.9680E+01   1.0211E+02   0.0000E+00  0.0000
   1.0211E+02   1.0459E+02   0.0000E+00  0.0000
   1.0459E+02   1.0713E+02   0.0000E+00  0.0000
   1.0713E+02   1.0974E+02   0.0000E+00  0.0000
   1.0974E+02   1.1241E+02   0.0000E+00  0.0000
   1.1241E+02   1.1515E+02   0.0000E+00  0.0000
   1.1515E+02   1.1795E+02   0.0000E+00  0.0000
   1.1795E+02   1.2082E+02   0.0000E+00  0.0000
   1.2082E+02   1.2376E+02   0.0000E+00  0.0000
   1.2376E+02   1.2677E+02   0.0000E+00  0.0000
   1.2677E+02   1.2985E+02   0.0000E+00  0.0000
   1.2985E+02   1.3301E+02   0.0000E+00  0.0000
   1.3301E+02   1.3625E+02   0.0000E+00  0.0000
   1.3625E+02   1.3956E+02   0.0000E+00  0.0000
   1.3956E+02   1.4296E+02   0.0000E+00  0.0000
   1.4296E+02   1.4644E+02   0.0000E+00  0.0000
   1.4644E+02   1.5000E+02   0.0000E+00  0.0000

#   sum over                 2.9582E-07
'no. =    1   reg = 112 - 212'
msuc: {\huge [t-cross] in region mesh}
msdr: {\it plotted by \ANGEL \version}
msdl: {\it calculated by \PHITS  3.26}
wt: s(0.7)
\vspace{-3}
  region surface crossing
  area  &=&   1.0000E+00 [cm^2]
e:
 
# Information for Restart Calculation
# This calculation was newly started
# istdev =  2 # 1:Batch variance, 2:History variance
# resc2  = 5.00000000000000000E+09 # Total source weight or Total source weight / maxcas
# resc3  = 5.00000000000000000E+09 # Total history number or Total batch number
# maxcas =   100000000 # History / Batch, only used for istdev=1
# bitrseed = 0110100000100010111000001110001111001110100100011111101000111001 # bit data of rseed
