[ T-Cross ]
    title = [t-cross] in region mesh
     mesh =  reg            # mesh type is region-wise
      reg =    1            # number of crossing regions
      non     r-from    r-to       area
      1       100       200        1.000000    
   e-type =    3            # e-mesh is log given by emin, emax and ne
     emin =  1.0000000E-02  # minimum value of e-mesh points
     emax =   150.0000      # maximum value of e-mesh points
#    edel =  2.4039514E-02  # mesh width of e-mesh points
       ne =    400          # number of e-mesh points
#    data = ( e(i), i = 1, ne + 1 )
#           1.00000E-02  1.02433E-02  1.04925E-02  1.07478E-02  1.10093E-02
#           1.12772E-02  1.15516E-02  1.18326E-02  1.21205E-02  1.24154E-02
#           1.27175E-02  1.30269E-02  1.33439E-02  1.36686E-02  1.40011E-02
#           1.43418E-02  1.46907E-02  1.50482E-02  1.54143E-02  1.57894E-02
#           1.61735E-02  1.65670E-02  1.69701E-02  1.73830E-02  1.78060E-02
#           1.82392E-02  1.86830E-02  1.91375E-02  1.96032E-02  2.00801E-02
#           2.05687E-02  2.10692E-02  2.15818E-02  2.21069E-02  2.26448E-02
#           2.31957E-02  2.37601E-02  2.43382E-02  2.49304E-02  2.55369E-02
#           2.61583E-02  2.67947E-02  2.74467E-02  2.81145E-02  2.87985E-02
#           2.94992E-02  3.02169E-02  3.09521E-02  3.17052E-02  3.24766E-02
#           3.32668E-02  3.40762E-02  3.49053E-02  3.57546E-02  3.66246E-02
#           3.75157E-02  3.84284E-02  3.93634E-02  4.03212E-02  4.13022E-02
#           4.23071E-02  4.33365E-02  4.43909E-02  4.54710E-02  4.65773E-02
#           4.77106E-02  4.88714E-02  5.00605E-02  5.12785E-02  5.25262E-02
#           5.38042E-02  5.51133E-02  5.64542E-02  5.78278E-02  5.92348E-02
#           6.06760E-02  6.21523E-02  6.36645E-02  6.52135E-02  6.68002E-02
#           6.84255E-02  7.00904E-02  7.17957E-02  7.35426E-02  7.53319E-02
#           7.71648E-02  7.90423E-02  8.09655E-02  8.29354E-02  8.49533E-02
#           8.70203E-02  8.91376E-02  9.13064E-02  9.35279E-02  9.58035E-02
#           9.81345E-02  1.00522E-01  1.02968E-01  1.05473E-01  1.08040E-01
#           1.10668E-01  1.13361E-01  1.16119E-01  1.18944E-01  1.21838E-01
#           1.24803E-01  1.27839E-01  1.30950E-01  1.34136E-01  1.37399E-01
#           1.40742E-01  1.44167E-01  1.47675E-01  1.51268E-01  1.54948E-01
#           1.58718E-01  1.62580E-01  1.66535E-01  1.70587E-01  1.74738E-01
#           1.78989E-01  1.83344E-01  1.87805E-01  1.92375E-01  1.97055E-01
#           2.01850E-01  2.06761E-01  2.11792E-01  2.16945E-01  2.22223E-01
#           2.27630E-01  2.33169E-01  2.38842E-01  2.44653E-01  2.50605E-01
#           2.56703E-01  2.62949E-01  2.69346E-01  2.75900E-01  2.82613E-01
#           2.89489E-01  2.96532E-01  3.03747E-01  3.11138E-01  3.18708E-01
#           3.26462E-01  3.34405E-01  3.42542E-01  3.50876E-01  3.59413E-01
#           3.68158E-01  3.77116E-01  3.86291E-01  3.95690E-01  4.05317E-01
#           4.15179E-01  4.25281E-01  4.35628E-01  4.46227E-01  4.57084E-01
#           4.68205E-01  4.79597E-01  4.91266E-01  5.03219E-01  5.15463E-01
#           5.28005E-01  5.40851E-01  5.54011E-01  5.67490E-01  5.81298E-01
#           5.95441E-01  6.09929E-01  6.24769E-01  6.39970E-01  6.55541E-01
#           6.71491E-01  6.87828E-01  7.04564E-01  7.21706E-01  7.39266E-01
#           7.57253E-01  7.75678E-01  7.94551E-01  8.13883E-01  8.33685E-01
#           8.53969E-01  8.74747E-01  8.96030E-01  9.17831E-01  9.40163E-01
#           9.63038E-01  9.86469E-01  1.01047E+00  1.03506E+00  1.06024E+00
#           1.08604E+00  1.11246E+00  1.13953E+00  1.16725E+00  1.19565E+00
#           1.22474E+00  1.25454E+00  1.28507E+00  1.31633E+00  1.34836E+00
#           1.38117E+00  1.41477E+00  1.44920E+00  1.48446E+00  1.52057E+00
#           1.55757E+00  1.59547E+00  1.63429E+00  1.67405E+00  1.71478E+00
#           1.75650E+00  1.79924E+00  1.84302E+00  1.88786E+00  1.93379E+00
#           1.98084E+00  2.02904E+00  2.07841E+00  2.12898E+00  2.18078E+00
#           2.23384E+00  2.28819E+00  2.34386E+00  2.40089E+00  2.45930E+00
#           2.51914E+00  2.58043E+00  2.64322E+00  2.70753E+00  2.77341E+00
#           2.84088E+00  2.91001E+00  2.98081E+00  3.05333E+00  3.12762E+00
#           3.20372E+00  3.28167E+00  3.36152E+00  3.44330E+00  3.52708E+00
#           3.61290E+00  3.70080E+00  3.79085E+00  3.88308E+00  3.97756E+00
#           4.07434E+00  4.17347E+00  4.27501E+00  4.37903E+00  4.48557E+00
#           4.59471E+00  4.70650E+00  4.82102E+00  4.93832E+00  5.05847E+00
#           5.18155E+00  5.30762E+00  5.43676E+00  5.56904E+00  5.70453E+00
#           5.84333E+00  5.98550E+00  6.13114E+00  6.28031E+00  6.43312E+00
#           6.58964E+00  6.74997E+00  6.91420E+00  7.08243E+00  7.25475E+00
#           7.43126E+00  7.61207E+00  7.79728E+00  7.98700E+00  8.18133E+00
#           8.38038E+00  8.58428E+00  8.79315E+00  9.00709E+00  9.22624E+00
#           9.45072E+00  9.68067E+00  9.91620E+00  1.01575E+01  1.04046E+01
#           1.06578E+01  1.09171E+01  1.11827E+01  1.14548E+01  1.17335E+01
#           1.20190E+01  1.23114E+01  1.26109E+01  1.29178E+01  1.32321E+01
#           1.35540E+01  1.38838E+01  1.42216E+01  1.45676E+01  1.49221E+01
#           1.52851E+01  1.56570E+01  1.60380E+01  1.64282E+01  1.68279E+01
#           1.72374E+01  1.76568E+01  1.80864E+01  1.85264E+01  1.89772E+01
#           1.94389E+01  1.99119E+01  2.03963E+01  2.08926E+01  2.14009E+01
#           2.19216E+01  2.24550E+01  2.30014E+01  2.35610E+01  2.41343E+01
#           2.47215E+01  2.53230E+01  2.59391E+01  2.65702E+01  2.72167E+01
#           2.78789E+01  2.85572E+01  2.92520E+01  2.99637E+01  3.06928E+01
#           3.14396E+01  3.22045E+01  3.29881E+01  3.37907E+01  3.46128E+01
#           3.54550E+01  3.63177E+01  3.72013E+01  3.81064E+01  3.90336E+01
#           3.99833E+01  4.09561E+01  4.19526E+01  4.29734E+01  4.40189E+01
#           4.50900E+01  4.61870E+01  4.73108E+01  4.84619E+01  4.96410E+01
#           5.08488E+01  5.20860E+01  5.33533E+01  5.46514E+01  5.59812E+01
#           5.73432E+01  5.87384E+01  6.01676E+01  6.16315E+01  6.31311E+01
#           6.46671E+01  6.62405E+01  6.78522E+01  6.95031E+01  7.11941E+01
#           7.29263E+01  7.47007E+01  7.65182E+01  7.83800E+01  8.02870E+01
#           8.22405E+01  8.42414E+01  8.62911E+01  8.83906E+01  9.05412E+01
#           9.27442E+01  9.50007E+01  9.73122E+01  9.96799E+01  1.02105E+02
#           1.04589E+02  1.07134E+02  1.09741E+02  1.12411E+02  1.15146E+02
#           1.17948E+02  1.20817E+02  1.23757E+02  1.26768E+02  1.29852E+02
#           1.33012E+02  1.36248E+02  1.39563E+02  1.42959E+02  1.46437E+02
#           1.50000E+02
     unit =    2            # unit is [1/cm^2/(MeV/n)/source]
     axis =  eng            # axis of output
     file = detector-01.out  # file name of output for the above axis
   output = f-curr          # surface crossing forward current spectrum
     part =  neutron  
# kf/name :  2112     
#    used :        main (  %)        temp (  %)       total (  %)
#  memory :         414 (  0)           0 (  0)         414 (  0)

#------------------------------------------------------------------------------
#newpage:
#   no. =    1   reg = 100 - 200

x: Energy [MeV/n]
y:  F-Curr [1/cm^2/(MeV/n)/source]         
p: xlog ylog afac(0.8) form(0.9)
h: n            x            y(neutron ),hh0l   n 
#  e-lower      e-upper      neutron     r.err 
   1.0000E-02   1.0243E-02   1.9365E-04  0.0649
   1.0243E-02   1.0493E-02   1.7328E-04  0.0677
   1.0493E-02   1.0748E-02   1.7718E-04  0.0661
   1.0748E-02   1.1009E-02   2.0553E-04  0.0607
   1.1009E-02   1.1277E-02   1.7016E-04  0.0659
   1.1277E-02   1.1552E-02   1.7431E-04  0.0643
   1.1552E-02   1.1833E-02   1.6336E-04  0.0657
   1.1833E-02   1.2121E-02   1.6426E-04  0.0647
   1.2121E-02   1.2415E-02   1.4739E-04  0.0676
   1.2415E-02   1.2718E-02   1.5181E-04  0.0658
   1.2718E-02   1.3027E-02   1.6054E-04  0.0632
   1.3027E-02   1.3344E-02   1.3031E-04  0.0693
   1.3344E-02   1.3669E-02   1.4958E-04  0.0638
   1.3669E-02   1.4001E-02   1.4371E-04  0.0643
   1.4001E-02   1.4342E-02   1.5021E-04  0.0623
   1.4342E-02   1.4691E-02   1.3173E-04  0.0655
   1.4691E-02   1.5048E-02   1.2850E-04  0.0655
   1.5048E-02   1.5414E-02   1.3383E-04  0.0636
   1.5414E-02   1.5789E-02   1.2328E-04  0.0655
   1.5789E-02   1.6174E-02   1.3066E-04  0.0630
   1.6174E-02   1.6567E-02   1.2560E-04  0.0632
   1.6567E-02   1.6970E-02   1.2789E-04  0.0619
   1.6970E-02   1.7383E-02   1.1483E-04  0.0647
   1.7383E-02   1.7806E-02   1.0408E-04  0.0671
   1.7806E-02   1.8239E-02   1.0713E-04  0.0652
   1.8239E-02   1.8683E-02   1.1152E-04  0.0634
   1.8683E-02   1.9138E-02   1.0973E-04  0.0629
   1.9138E-02   1.9603E-02   1.1693E-04  0.0602
   1.9603E-02   2.0080E-02   9.5834E-05  0.0657
   2.0080E-02   2.0569E-02   1.0943E-04  0.0610
   2.0569E-02   2.1069E-02   9.9890E-05  0.0627
   2.1069E-02   2.1582E-02   9.4018E-05  0.0640
   2.1582E-02   2.2107E-02   9.6555E-05  0.0625
   2.2107E-02   2.2645E-02   1.0097E-04  0.0603
   2.2645E-02   2.3196E-02   1.0031E-04  0.0598
   2.3196E-02   2.3760E-02   9.1350E-05  0.0620
   2.3760E-02   2.4338E-02   1.0135E-04  0.0581
   2.4338E-02   2.4930E-02   8.5778E-05  0.0625
   2.4930E-02   2.5537E-02   9.1335E-05  0.0599
   2.5537E-02   2.6158E-02   9.4853E-05  0.0581
   2.6158E-02   2.6795E-02   8.2325E-05  0.0615
   2.6795E-02   2.7447E-02   8.7178E-05  0.0589
   2.7447E-02   2.8114E-02   7.6676E-05  0.0623
   2.8114E-02   2.8799E-02   7.9991E-05  0.0601
   2.8799E-02   2.9499E-02   7.1779E-05  0.0627
   2.9499E-02   3.0217E-02   6.7055E-05  0.0642
   3.0217E-02   3.0952E-02   7.5880E-05  0.0596
   3.0952E-02   3.1705E-02   7.3606E-05  0.0598
   3.1705E-02   3.2477E-02   7.2541E-05  0.0596
   3.2477E-02   3.3267E-02   6.6777E-05  0.0612
   3.3267E-02   3.4076E-02   6.1722E-05  0.0630
   3.4076E-02   3.4905E-02   6.2812E-05  0.0617
   3.4905E-02   3.5755E-02   6.8538E-05  0.0583
   3.5755E-02   3.6625E-02   6.2202E-05  0.0605
   3.6625E-02   3.7516E-02   5.8979E-05  0.0613
   3.7516E-02   3.8428E-02   6.0732E-05  0.0598
   3.8428E-02   3.9363E-02   5.6868E-05  0.0608
   3.9363E-02   4.0321E-02   6.2227E-05  0.0577
   4.0321E-02   4.1302E-02   6.2238E-05  0.0570
   4.1302E-02   4.2307E-02   5.9026E-05  0.0578
   4.2307E-02   4.3337E-02   5.5866E-05  0.0586
   4.3337E-02   4.4391E-02   5.4244E-05  0.0588
   4.4391E-02   4.5471E-02   5.2790E-05  0.0590
   4.5471E-02   4.6577E-02   4.9300E-05  0.0602
   4.6577E-02   4.7711E-02   5.2269E-05  0.0580
   4.7711E-02   4.8871E-02   5.3113E-05  0.0567
   4.8871E-02   5.0061E-02   4.5629E-05  0.0605
   5.0061E-02   5.1279E-02   4.7304E-05  0.0586
   5.1279E-02   5.2526E-02   4.7144E-05  0.0580
   5.2526E-02   5.3804E-02   4.0283E-05  0.0619
   5.3804E-02   5.5113E-02   4.2921E-05  0.0594
   5.5113E-02   5.6454E-02   4.3038E-05  0.0585
   5.6454E-02   5.7828E-02   4.2943E-05  0.0580
   5.7828E-02   5.9235E-02   3.9809E-05  0.0594
   5.9235E-02   6.0676E-02   4.1362E-05  0.0577
   6.0676E-02   6.2152E-02   3.8512E-05  0.0591
   6.2152E-02   6.3665E-02   4.2308E-05  0.0556
   6.3665E-02   6.5214E-02   4.0106E-05  0.0565
   6.5214E-02   6.6800E-02   3.6236E-05  0.0588
   6.6800E-02   6.8426E-02   3.7408E-05  0.0570
   6.8426E-02   7.0090E-02   3.7608E-05  0.0562
   7.0090E-02   7.1796E-02   3.6671E-05  0.0563
   7.1796E-02   7.3543E-02   3.5928E-05  0.0563
   7.3543E-02   7.5332E-02   3.3648E-05  0.0572
   7.5332E-02   7.7165E-02   3.2291E-05  0.0578
   7.7165E-02   7.9042E-02   2.8426E-05  0.0610
   7.9042E-02   8.0965E-02   3.6576E-05  0.0531
   8.0965E-02   8.2935E-02   3.2417E-05  0.0557
   8.2935E-02   8.4953E-02   2.9726E-05  0.0575
   8.4953E-02   8.7020E-02   2.9444E-05  0.0570
   8.7020E-02   8.9138E-02   2.9365E-05  0.0565
   8.9138E-02   9.1306E-02   3.0799E-05  0.0544
   9.1306E-02   9.3528E-02   2.6622E-05  0.0579
   9.3528E-02   9.5804E-02   2.7558E-05  0.0562
   9.5804E-02   9.8134E-02   2.7174E-05  0.0558
   9.8134E-02   1.0052E-01   2.6347E-05  0.0561
   1.0052E-01   1.0297E-01   2.7970E-05  0.0538
   1.0297E-01   1.0547E-01   2.6557E-05  0.0546
   1.0547E-01   1.0804E-01   2.6491E-05  0.0540
   1.0804E-01   1.1067E-01   2.5930E-05  0.0540
   1.1067E-01   1.1336E-01   2.5194E-05  0.0541
   1.1336E-01   1.1612E-01   2.3541E-05  0.0552
   1.1612E-01   1.1894E-01   2.0932E-05  0.0577
   1.1894E-01   1.2184E-01   2.3509E-05  0.0539
   1.2184E-01   1.2480E-01   2.1083E-05  0.0563
   1.2480E-01   1.2784E-01   2.3629E-05  0.0526
   1.2784E-01   1.3095E-01   2.1404E-05  0.0545
   1.3095E-01   1.3414E-01   1.8452E-05  0.0580
   1.3414E-01   1.3740E-01   2.0608E-05  0.0543
   1.3740E-01   1.4074E-01   1.9697E-05  0.0549
   1.4074E-01   1.4417E-01   2.0655E-05  0.0529
   1.4417E-01   1.4767E-01   1.7504E-05  0.0568
   1.4767E-01   1.5127E-01   1.8811E-05  0.0542
   1.5127E-01   1.5495E-01   1.5509E-05  0.0589
   1.5495E-01   1.5872E-01   1.7089E-05  0.0555
   1.5872E-01   1.6258E-01   1.6927E-05  0.0551
   1.6258E-01   1.6654E-01   1.8438E-05  0.0522
   1.6654E-01   1.7059E-01   1.8724E-05  0.0512
   1.7059E-01   1.7474E-01   1.5058E-05  0.0563
   1.7474E-01   1.7899E-01   1.6178E-05  0.0537
   1.7899E-01   1.8334E-01   1.5519E-05  0.0541
   1.8334E-01   1.8781E-01   1.5154E-05  0.0542
   1.8781E-01   1.9237E-01   1.6214E-05  0.0517
   1.9237E-01   1.9706E-01   1.5383E-05  0.0525
   1.9706E-01   2.0185E-01   1.4926E-05  0.0526
   2.0185E-01   2.0676E-01   1.4110E-05  0.0534
   2.0676E-01   2.1179E-01   1.5636E-05  0.0502
   2.1179E-01   2.1694E-01   1.4967E-05  0.0506
   2.1694E-01   2.2222E-01   1.7507E-05  0.0462
   2.2222E-01   2.2763E-01   1.7847E-05  0.0453
   2.2763E-01   2.3317E-01   1.8156E-05  0.0445
   2.3317E-01   2.3884E-01   1.8487E-05  0.0435
   2.3884E-01   2.4465E-01   1.9297E-05  0.0421
   2.4465E-01   2.5061E-01   1.8421E-05  0.0425
   2.5061E-01   2.5670E-01   1.9568E-05  0.0407
   2.5670E-01   2.6295E-01   1.9655E-05  0.0401
   2.6295E-01   2.6935E-01   2.1004E-05  0.0384
   2.6935E-01   2.7590E-01   2.2725E-05  0.0365
   2.7590E-01   2.8261E-01   2.3413E-05  0.0355
   2.8261E-01   2.8949E-01   2.1632E-05  0.0364
   2.8949E-01   2.9653E-01   2.2205E-05  0.0356
   2.9653E-01   3.0375E-01   2.3501E-05  0.0341
   3.0375E-01   3.1114E-01   2.5063E-05  0.0327
   3.1114E-01   3.1871E-01   2.3670E-05  0.0332
   3.1871E-01   3.2646E-01   2.6969E-05  0.0308
   3.2646E-01   3.3441E-01   2.6804E-05  0.0305
   3.3441E-01   3.4254E-01   2.8062E-05  0.0294
   3.4254E-01   3.5088E-01   2.9290E-05  0.0285
   3.5088E-01   3.5941E-01   2.8100E-05  0.0287
   3.5941E-01   3.6816E-01   2.8455E-05  0.0282
   3.6816E-01   3.7712E-01   2.9455E-05  0.0274
   3.7712E-01   3.8629E-01   2.9053E-05  0.0273
   3.8629E-01   3.9569E-01   3.1338E-05  0.0259
   3.9569E-01   4.0532E-01   3.1737E-05  0.0255
   4.0532E-01   4.1518E-01   3.1791E-05  0.0251
   4.1518E-01   4.2528E-01   3.3243E-05  0.0243
   4.2528E-01   4.3563E-01   3.3929E-05  0.0237
   4.3563E-01   4.4623E-01   3.4609E-05  0.0232
   4.4623E-01   4.5708E-01   3.3445E-05  0.0233
   4.5708E-01   4.6821E-01   3.5012E-05  0.0226
   4.6821E-01   4.7960E-01   3.5698E-05  0.0220
   4.7960E-01   4.9127E-01   3.5059E-05  0.0220
   4.9127E-01   5.0322E-01   3.5818E-05  0.0215
   5.0322E-01   5.1546E-01   3.6122E-05  0.0212
   5.1546E-01   5.2800E-01   3.9129E-05  0.0201
   5.2800E-01   5.4085E-01   3.9246E-05  0.0198
   5.4085E-01   5.5401E-01   3.9231E-05  0.0196
   5.5401E-01   5.6749E-01   3.8169E-05  0.0196
   5.6749E-01   5.8130E-01   4.0299E-05  0.0189
   5.8130E-01   5.9544E-01   4.1389E-05  0.0184
   5.9544E-01   6.0993E-01   4.0435E-05  0.0184
   6.0993E-01   6.2477E-01   4.0682E-05  0.0181
   6.2477E-01   6.3997E-01   3.9828E-05  0.0181
   6.3997E-01   6.5554E-01   4.1195E-05  0.0176
   6.5554E-01   6.7149E-01   4.1308E-05  0.0173
   6.7149E-01   6.8783E-01   4.1452E-05  0.0171
   6.8783E-01   7.0456E-01   4.2293E-05  0.0167
   7.0456E-01   7.2171E-01   4.0722E-05  0.0168
   7.2171E-01   7.3927E-01   4.2296E-05  0.0163
   7.3927E-01   7.5725E-01   4.2391E-05  0.0161
   7.5725E-01   7.7568E-01   4.1928E-05  0.0160
   7.7568E-01   7.9455E-01   4.2326E-05  0.0157
   7.9455E-01   8.1388E-01   4.1660E-05  0.0157
   8.1388E-01   8.3368E-01   4.1405E-05  0.0155
   8.3368E-01   8.5397E-01   4.1867E-05  0.0153
   8.5397E-01   8.7475E-01   4.0922E-05  0.0153
   8.7475E-01   8.9603E-01   4.1632E-05  0.0149
   8.9603E-01   9.1783E-01   4.2297E-05  0.0146
   9.1783E-01   9.4016E-01   4.1317E-05  0.0146
   9.4016E-01   9.6304E-01   4.2421E-05  0.0143
   9.6304E-01   9.8647E-01   4.3472E-05  0.0139
   9.8647E-01   1.0105E+00   4.1356E-05  0.0141
   1.0105E+00   1.0351E+00   4.0872E-05  0.0140
   1.0351E+00   1.0602E+00   4.2211E-05  0.0136
   1.0602E+00   1.0860E+00   4.0249E-05  0.0138
   1.0860E+00   1.1125E+00   4.0843E-05  0.0135
   1.1125E+00   1.1395E+00   4.0393E-05  0.0134
   1.1395E+00   1.1673E+00   3.9471E-05  0.0134
   1.1673E+00   1.1957E+00   3.9680E-05  0.0132
   1.1957E+00   1.2247E+00   4.0590E-05  0.0129
   1.2247E+00   1.2545E+00   3.9261E-05  0.0130
   1.2545E+00   1.2851E+00   4.0046E-05  0.0127
   1.2851E+00   1.3163E+00   3.8322E-05  0.0128
   1.3163E+00   1.3484E+00   3.9522E-05  0.0125
   1.3484E+00   1.3812E+00   3.8377E-05  0.0125
   1.3812E+00   1.4148E+00   3.9680E-05  0.0122
   1.4148E+00   1.4492E+00   3.7747E-05  0.0123
   1.4492E+00   1.4845E+00   3.9023E-05  0.0120
   1.4845E+00   1.5206E+00   3.8959E-05  0.0118
   1.5206E+00   1.5576E+00   3.8961E-05  0.0117
   1.5576E+00   1.5955E+00   3.7157E-05  0.0118
   1.5955E+00   1.6343E+00   3.7868E-05  0.0116
   1.6343E+00   1.6741E+00   3.6978E-05  0.0116
   1.6741E+00   1.7148E+00   3.6859E-05  0.0115
   1.7148E+00   1.7565E+00   3.7095E-05  0.0113
   1.7565E+00   1.7992E+00   3.6340E-05  0.0113
   1.7992E+00   1.8430E+00   3.6439E-05  0.0111
   1.8430E+00   1.8879E+00   3.5475E-05  0.0111
   1.8879E+00   1.9338E+00   3.5671E-05  0.0110
   1.9338E+00   1.9808E+00   3.6242E-05  0.0108
   1.9808E+00   2.0290E+00   3.5895E-05  0.0107
   2.0290E+00   2.0784E+00   3.5235E-05  0.0107
   2.0784E+00   2.1290E+00   3.5022E-05  0.0106
   2.1290E+00   2.1808E+00   3.5011E-05  0.0104
   2.1808E+00   2.2338E+00   3.4179E-05  0.0104
   2.2338E+00   2.2882E+00   3.3589E-05  0.0104
   2.2882E+00   2.3439E+00   3.4077E-05  0.0102
   2.3439E+00   2.4009E+00   3.3634E-05  0.0102
   2.4009E+00   2.4593E+00   3.3089E-05  0.0101
   2.4593E+00   2.5191E+00   3.2886E-05  0.0100
   2.5191E+00   2.5804E+00   3.3093E-05  0.0099
   2.5804E+00   2.6432E+00   3.2093E-05  0.0099
   2.6432E+00   2.7075E+00   3.1856E-05  0.0098
   2.7075E+00   2.7734E+00   3.2030E-05  0.0097
   2.7734E+00   2.8409E+00   3.1856E-05  0.0096
   2.8409E+00   2.9100E+00   3.0830E-05  0.0096
   2.9100E+00   2.9808E+00   3.0992E-05  0.0095
   2.9808E+00   3.0533E+00   3.1160E-05  0.0094
   3.0533E+00   3.1276E+00   2.9908E-05  0.0094
   3.1276E+00   3.2037E+00   2.9602E-05  0.0094
   3.2037E+00   3.2817E+00   2.9469E-05  0.0093
   3.2817E+00   3.3615E+00   2.8852E-05  0.0093
   3.3615E+00   3.4433E+00   2.8783E-05  0.0092
   3.4433E+00   3.5271E+00   2.8640E-05  0.0091
   3.5271E+00   3.6129E+00   2.7628E-05  0.0091
   3.6129E+00   3.7008E+00   2.7152E-05  0.0091
   3.7008E+00   3.7908E+00   2.7070E-05  0.0090
   3.7908E+00   3.8831E+00   2.6084E-05  0.0091
   3.8831E+00   3.9776E+00   2.6568E-05  0.0089
   3.9776E+00   4.0743E+00   2.5832E-05  0.0089
   4.0743E+00   4.1735E+00   2.5563E-05  0.0088
   4.1735E+00   4.2750E+00   2.5356E-05  0.0088
   4.2750E+00   4.3790E+00   2.4819E-05  0.0088
   4.3790E+00   4.4856E+00   2.4272E-05  0.0088
   4.4856E+00   4.5947E+00   2.3861E-05  0.0087
   4.5947E+00   4.7065E+00   2.3130E-05  0.0088
   4.7065E+00   4.8210E+00   2.2916E-05  0.0087
   4.8210E+00   4.9383E+00   2.2944E-05  0.0086
   4.9383E+00   5.0585E+00   2.2260E-05  0.0086
   5.0585E+00   5.1815E+00   2.2338E-05  0.0085
   5.1815E+00   5.3076E+00   2.2185E-05  0.0084
   5.3076E+00   5.4368E+00   2.1493E-05  0.0085
   5.4368E+00   5.5690E+00   2.1395E-05  0.0084
   5.5690E+00   5.7045E+00   2.0670E-05  0.0084
   5.7045E+00   5.8433E+00   2.0490E-05  0.0084
   5.8433E+00   5.9855E+00   2.0024E-05  0.0084
   5.9855E+00   6.1311E+00   1.9650E-05  0.0083
   6.1311E+00   6.2803E+00   1.9117E-05  0.0083
   6.2803E+00   6.4331E+00   1.8695E-05  0.0083
   6.4331E+00   6.5896E+00   1.8420E-05  0.0083
   6.5896E+00   6.7500E+00   1.7606E-05  0.0084
   6.7500E+00   6.9142E+00   1.7645E-05  0.0083
   6.9142E+00   7.0824E+00   1.7160E-05  0.0083
   7.0824E+00   7.2548E+00   1.7000E-05  0.0082
   7.2548E+00   7.4313E+00   1.6734E-05  0.0082
   7.4313E+00   7.6121E+00   1.6260E-05  0.0082
   7.6121E+00   7.7973E+00   1.5832E-05  0.0082
   7.7973E+00   7.9870E+00   1.5724E-05  0.0082
   7.9870E+00   8.1813E+00   1.5301E-05  0.0082
   8.1813E+00   8.3804E+00   1.5141E-05  0.0081
   8.3804E+00   8.5843E+00   1.4630E-05  0.0082
   8.5843E+00   8.7931E+00   1.4602E-05  0.0081
   8.7931E+00   9.0071E+00   1.4336E-05  0.0081
   9.0071E+00   9.2262E+00   1.3827E-05  0.0081
   9.2262E+00   9.4507E+00   1.3868E-05  0.0080
   9.4507E+00   9.6807E+00   1.3646E-05  0.0080
   9.6807E+00   9.9162E+00   1.3595E-05  0.0079
   9.9162E+00   1.0157E+01   1.3270E-05  0.0079
   1.0157E+01   1.0405E+01   1.2813E-05  0.0079
   1.0405E+01   1.0658E+01   1.2880E-05  0.0078
   1.0658E+01   1.0917E+01   1.2805E-05  0.0078
   1.0917E+01   1.1183E+01   1.2694E-05  0.0077
   1.1183E+01   1.1455E+01   1.2371E-05  0.0077
   1.1455E+01   1.1733E+01   1.2168E-05  0.0077
   1.1733E+01   1.2019E+01   1.2279E-05  0.0075
   1.2019E+01   1.2311E+01   1.2025E-05  0.0075
   1.2311E+01   1.2611E+01   1.2104E-05  0.0074
   1.2611E+01   1.2918E+01   1.2107E-05  0.0073
   1.2918E+01   1.3232E+01   1.1979E-05  0.0073
   1.3232E+01   1.3554E+01   1.1920E-05  0.0072
   1.3554E+01   1.3884E+01   1.1961E-05  0.0071
   1.3884E+01   1.4222E+01   1.1813E-05  0.0071
   1.4222E+01   1.4568E+01   1.1707E-05  0.0070
   1.4568E+01   1.4922E+01   1.1695E-05  0.0069
   1.4922E+01   1.5285E+01   1.1784E-05  0.0068
   1.5285E+01   1.5657E+01   1.1732E-05  0.0068
   1.5657E+01   1.6038E+01   1.1650E-05  0.0067
   1.6038E+01   1.6428E+01   1.1810E-05  0.0066
   1.6428E+01   1.6828E+01   1.1728E-05  0.0065
   1.6828E+01   1.7237E+01   1.1926E-05  0.0064
   1.7237E+01   1.7657E+01   1.2017E-05  0.0063
   1.7657E+01   1.8086E+01   1.2088E-05  0.0062
   1.8086E+01   1.8526E+01   1.2201E-05  0.0061
   1.8526E+01   1.8977E+01   1.2441E-05  0.0060
   1.8977E+01   1.9439E+01   1.2498E-05  0.0059
   1.9439E+01   1.9912E+01   1.2949E-05  0.0057
   1.9912E+01   2.0396E+01   1.3274E-05  0.0056
   2.0396E+01   2.0893E+01   1.3665E-05  0.0054
   2.0893E+01   2.1401E+01   1.4004E-05  0.0053
   2.1401E+01   2.1922E+01   1.4380E-05  0.0052
   2.1922E+01   2.2455E+01   1.4564E-05  0.0051
   2.2455E+01   2.3001E+01   1.5285E-05  0.0049
   2.3001E+01   2.3561E+01   1.5844E-05  0.0047
   2.3561E+01   2.4134E+01   1.6438E-05  0.0046
   2.4134E+01   2.4721E+01   1.7180E-05  0.0045
   2.4721E+01   2.5323E+01   1.7869E-05  0.0043
   2.5323E+01   2.5939E+01   1.9005E-05  0.0041
   2.5939E+01   2.6570E+01   2.0100E-05  0.0040
   2.6570E+01   2.7217E+01   2.1333E-05  0.0038
   2.7217E+01   2.7879E+01   2.2808E-05  0.0036
   2.7879E+01   2.8557E+01   2.4246E-05  0.0035
   2.8557E+01   2.9252E+01   2.6277E-05  0.0033
   2.9252E+01   2.9964E+01   2.8315E-05  0.0032
   2.9964E+01   3.0693E+01   3.0752E-05  0.0030
   3.0693E+01   3.1440E+01   3.3689E-05  0.0028
   3.1440E+01   3.2205E+01   3.7079E-05  0.0027
   3.2205E+01   3.2988E+01   4.0856E-05  0.0025
   3.2988E+01   3.3791E+01   4.5035E-05  0.0024
   3.3791E+01   3.4613E+01   5.0013E-05  0.0022
   3.4613E+01   3.5455E+01   5.5690E-05  0.0021
   3.5455E+01   3.6318E+01   6.2003E-05  0.0019
   3.6318E+01   3.7201E+01   6.9242E-05  0.0018
   3.7201E+01   3.8106E+01   7.7273E-05  0.0017
   3.8106E+01   3.9034E+01   8.6627E-05  0.0016
   3.9034E+01   3.9983E+01   9.6982E-05  0.0015
   3.9983E+01   4.0956E+01   1.0792E-04  0.0014
   4.0956E+01   4.1953E+01   1.2074E-04  0.0013
   4.1953E+01   4.2973E+01   1.3379E-04  0.0012
   4.2973E+01   4.4019E+01   1.4791E-04  0.0011
   4.4019E+01   4.5090E+01   1.6250E-04  0.0011
   4.5090E+01   4.6187E+01   1.7693E-04  0.0010
   4.6187E+01   4.7311E+01   1.9189E-04  0.0010
   4.7311E+01   4.8462E+01   2.0562E-04  0.0009
   4.8462E+01   4.9641E+01   2.1835E-04  0.0009
   4.9641E+01   5.0849E+01   2.2891E-04  0.0009
   5.0849E+01   5.2086E+01   2.3731E-04  0.0008
   5.2086E+01   5.3353E+01   2.4205E-04  0.0008
   5.3353E+01   5.4651E+01   2.4370E-04  0.0008
   5.4651E+01   5.5981E+01   2.4189E-04  0.0008
   5.5981E+01   5.7343E+01   2.3571E-04  0.0008
   5.7343E+01   5.8738E+01   2.2707E-04  0.0008
   5.8738E+01   6.0168E+01   2.1462E-04  0.0008
   6.0168E+01   6.1632E+01   2.0005E-04  0.0008
   6.1632E+01   6.3131E+01   1.8362E-04  0.0009
   6.3131E+01   6.4667E+01   1.6590E-04  0.0009
   6.4667E+01   6.6240E+01   1.4837E-04  0.0009
   6.6240E+01   6.7852E+01   1.3073E-04  0.0010
   6.7852E+01   6.9503E+01   1.1390E-04  0.0010
   6.9503E+01   7.1194E+01   9.8422E-05  0.0011
   7.1194E+01   7.2926E+01   8.4079E-05  0.0012
   7.2926E+01   7.4701E+01   7.1642E-05  0.0013
   7.4701E+01   7.6518E+01   6.0555E-05  0.0013
   7.6518E+01   7.8380E+01   5.0858E-05  0.0015
   7.8380E+01   8.0287E+01   4.2701E-05  0.0016
   8.0287E+01   8.2240E+01   3.5489E-05  0.0017
   8.2240E+01   8.4241E+01   2.9405E-05  0.0018
   8.4241E+01   8.6291E+01   2.4395E-05  0.0020
   8.6291E+01   8.8391E+01   1.9948E-05  0.0022
   8.8391E+01   9.0541E+01   1.6383E-05  0.0024
   9.0541E+01   9.2744E+01   1.3281E-05  0.0026
   9.2744E+01   9.5001E+01   1.1077E-05  0.0028
   9.5001E+01   9.7312E+01   9.9490E-06  0.0029
   9.7312E+01   9.9680E+01   9.0328E-06  0.0031
   9.9680E+01   1.0211E+02   7.7572E-06  0.0033
   1.0211E+02   1.0459E+02   6.4194E-06  0.0035
   1.0459E+02   1.0713E+02   5.3016E-06  0.0039
   1.0713E+02   1.0974E+02   4.4363E-06  0.0042
   1.0974E+02   1.1241E+02   3.7609E-06  0.0045
   1.1241E+02   1.1515E+02   3.1684E-06  0.0048
   1.1515E+02   1.1795E+02   2.2513E-06  0.0056
   1.1795E+02   1.2082E+02   8.3554E-07  0.0091
   1.2082E+02   1.2376E+02   8.1576E-08  0.0289
   1.2376E+02   1.2677E+02   0.0000E+00  0.0000
   1.2677E+02   1.2985E+02   0.0000E+00  0.0000
   1.2985E+02   1.3301E+02   0.0000E+00  0.0000
   1.3301E+02   1.3625E+02   0.0000E+00  0.0000
   1.3625E+02   1.3956E+02   0.0000E+00  0.0000
   1.3956E+02   1.4296E+02   0.0000E+00  0.0000
   1.4296E+02   1.4644E+02   0.0000E+00  0.0000
   1.4644E+02   1.5000E+02   0.0000E+00  0.0000

#   sum over                 5.2140E-05
'no. =    1   reg = 100 - 200'
msuc: {\huge [t-cross] in region mesh}
msdr: {\it plotted by \ANGEL \version}
msdl: {\it calculated by \PHITS  3.28}
wt: s(0.7)
\vspace{-3}
  region surface crossing
  area  &=&   1.0000E+00 [cm^2]
e:
 
# Information for Restart Calculation
# This calculation was newly started
# istdev =  2 # 1:Batch variance, 2:History variance
# resc2  = 5.00000000000000000E+09 # Total source weight or Total source weight / maxcas
# resc3  = 5.00000000000000000E+09 # Total history number or Total batch number
# maxcas =   500000000 # History / Batch, only used for istdev=1
# bitrseed = 0110100000100010111000001110001111001110100100011111101000111001 # bit data of rseed
