[ T-Cross ]
    title = [t-cross] in region mesh
     mesh =  reg            # mesh type is region-wise
      reg =    1            # number of crossing regions
      non     r-from    r-to       area
      1       107       207        1.000000    
   e-type =    3            # e-mesh is log given by emin, emax and ne
     emin =  1.0000000E-02  # minimum value of e-mesh points
     emax =   150.0000      # maximum value of e-mesh points
#    edel =  2.4039514E-02  # mesh width of e-mesh points
       ne =    400          # number of e-mesh points
#    data = ( e(i), i = 1, ne + 1 )
#           1.00000E-02  1.02433E-02  1.04925E-02  1.07478E-02  1.10093E-02
#           1.12772E-02  1.15516E-02  1.18326E-02  1.21205E-02  1.24154E-02
#           1.27175E-02  1.30269E-02  1.33439E-02  1.36686E-02  1.40011E-02
#           1.43418E-02  1.46907E-02  1.50482E-02  1.54143E-02  1.57894E-02
#           1.61735E-02  1.65670E-02  1.69701E-02  1.73830E-02  1.78060E-02
#           1.82392E-02  1.86830E-02  1.91375E-02  1.96032E-02  2.00801E-02
#           2.05687E-02  2.10692E-02  2.15818E-02  2.21069E-02  2.26448E-02
#           2.31957E-02  2.37601E-02  2.43382E-02  2.49304E-02  2.55369E-02
#           2.61583E-02  2.67947E-02  2.74467E-02  2.81145E-02  2.87985E-02
#           2.94992E-02  3.02169E-02  3.09521E-02  3.17052E-02  3.24766E-02
#           3.32668E-02  3.40762E-02  3.49053E-02  3.57546E-02  3.66246E-02
#           3.75157E-02  3.84284E-02  3.93634E-02  4.03212E-02  4.13022E-02
#           4.23071E-02  4.33365E-02  4.43909E-02  4.54710E-02  4.65773E-02
#           4.77106E-02  4.88714E-02  5.00605E-02  5.12785E-02  5.25262E-02
#           5.38042E-02  5.51133E-02  5.64542E-02  5.78278E-02  5.92348E-02
#           6.06760E-02  6.21523E-02  6.36645E-02  6.52135E-02  6.68002E-02
#           6.84255E-02  7.00904E-02  7.17957E-02  7.35426E-02  7.53319E-02
#           7.71648E-02  7.90423E-02  8.09655E-02  8.29354E-02  8.49533E-02
#           8.70203E-02  8.91376E-02  9.13064E-02  9.35279E-02  9.58035E-02
#           9.81345E-02  1.00522E-01  1.02968E-01  1.05473E-01  1.08040E-01
#           1.10668E-01  1.13361E-01  1.16119E-01  1.18944E-01  1.21838E-01
#           1.24803E-01  1.27839E-01  1.30950E-01  1.34136E-01  1.37399E-01
#           1.40742E-01  1.44167E-01  1.47675E-01  1.51268E-01  1.54948E-01
#           1.58718E-01  1.62580E-01  1.66535E-01  1.70587E-01  1.74738E-01
#           1.78989E-01  1.83344E-01  1.87805E-01  1.92375E-01  1.97055E-01
#           2.01850E-01  2.06761E-01  2.11792E-01  2.16945E-01  2.22223E-01
#           2.27630E-01  2.33169E-01  2.38842E-01  2.44653E-01  2.50605E-01
#           2.56703E-01  2.62949E-01  2.69346E-01  2.75900E-01  2.82613E-01
#           2.89489E-01  2.96532E-01  3.03747E-01  3.11138E-01  3.18708E-01
#           3.26462E-01  3.34405E-01  3.42542E-01  3.50876E-01  3.59413E-01
#           3.68158E-01  3.77116E-01  3.86291E-01  3.95690E-01  4.05317E-01
#           4.15179E-01  4.25281E-01  4.35628E-01  4.46227E-01  4.57084E-01
#           4.68205E-01  4.79597E-01  4.91266E-01  5.03219E-01  5.15463E-01
#           5.28005E-01  5.40851E-01  5.54011E-01  5.67490E-01  5.81298E-01
#           5.95441E-01  6.09929E-01  6.24769E-01  6.39970E-01  6.55541E-01
#           6.71491E-01  6.87828E-01  7.04564E-01  7.21706E-01  7.39266E-01
#           7.57253E-01  7.75678E-01  7.94551E-01  8.13883E-01  8.33685E-01
#           8.53969E-01  8.74747E-01  8.96030E-01  9.17831E-01  9.40163E-01
#           9.63038E-01  9.86469E-01  1.01047E+00  1.03506E+00  1.06024E+00
#           1.08604E+00  1.11246E+00  1.13953E+00  1.16725E+00  1.19565E+00
#           1.22474E+00  1.25454E+00  1.28507E+00  1.31633E+00  1.34836E+00
#           1.38117E+00  1.41477E+00  1.44920E+00  1.48446E+00  1.52057E+00
#           1.55757E+00  1.59547E+00  1.63429E+00  1.67405E+00  1.71478E+00
#           1.75650E+00  1.79924E+00  1.84302E+00  1.88786E+00  1.93379E+00
#           1.98084E+00  2.02904E+00  2.07841E+00  2.12898E+00  2.18078E+00
#           2.23384E+00  2.28819E+00  2.34386E+00  2.40089E+00  2.45930E+00
#           2.51914E+00  2.58043E+00  2.64322E+00  2.70753E+00  2.77341E+00
#           2.84088E+00  2.91001E+00  2.98081E+00  3.05333E+00  3.12762E+00
#           3.20372E+00  3.28167E+00  3.36152E+00  3.44330E+00  3.52708E+00
#           3.61290E+00  3.70080E+00  3.79085E+00  3.88308E+00  3.97756E+00
#           4.07434E+00  4.17347E+00  4.27501E+00  4.37903E+00  4.48557E+00
#           4.59471E+00  4.70650E+00  4.82102E+00  4.93832E+00  5.05847E+00
#           5.18155E+00  5.30762E+00  5.43676E+00  5.56904E+00  5.70453E+00
#           5.84333E+00  5.98550E+00  6.13114E+00  6.28031E+00  6.43312E+00
#           6.58964E+00  6.74997E+00  6.91420E+00  7.08243E+00  7.25475E+00
#           7.43126E+00  7.61207E+00  7.79728E+00  7.98700E+00  8.18133E+00
#           8.38038E+00  8.58428E+00  8.79315E+00  9.00709E+00  9.22624E+00
#           9.45072E+00  9.68067E+00  9.91620E+00  1.01575E+01  1.04046E+01
#           1.06578E+01  1.09171E+01  1.11827E+01  1.14548E+01  1.17335E+01
#           1.20190E+01  1.23114E+01  1.26109E+01  1.29178E+01  1.32321E+01
#           1.35540E+01  1.38838E+01  1.42216E+01  1.45676E+01  1.49221E+01
#           1.52851E+01  1.56570E+01  1.60380E+01  1.64282E+01  1.68279E+01
#           1.72374E+01  1.76568E+01  1.80864E+01  1.85264E+01  1.89772E+01
#           1.94389E+01  1.99119E+01  2.03963E+01  2.08926E+01  2.14009E+01
#           2.19216E+01  2.24550E+01  2.30014E+01  2.35610E+01  2.41343E+01
#           2.47215E+01  2.53230E+01  2.59391E+01  2.65702E+01  2.72167E+01
#           2.78789E+01  2.85572E+01  2.92520E+01  2.99637E+01  3.06928E+01
#           3.14396E+01  3.22045E+01  3.29881E+01  3.37907E+01  3.46128E+01
#           3.54550E+01  3.63177E+01  3.72013E+01  3.81064E+01  3.90336E+01
#           3.99833E+01  4.09561E+01  4.19526E+01  4.29734E+01  4.40189E+01
#           4.50900E+01  4.61870E+01  4.73108E+01  4.84619E+01  4.96410E+01
#           5.08488E+01  5.20860E+01  5.33533E+01  5.46514E+01  5.59812E+01
#           5.73432E+01  5.87384E+01  6.01676E+01  6.16315E+01  6.31311E+01
#           6.46671E+01  6.62405E+01  6.78522E+01  6.95031E+01  7.11941E+01
#           7.29263E+01  7.47007E+01  7.65182E+01  7.83800E+01  8.02870E+01
#           8.22405E+01  8.42414E+01  8.62911E+01  8.83906E+01  9.05412E+01
#           9.27442E+01  9.50007E+01  9.73122E+01  9.96799E+01  1.02105E+02
#           1.04589E+02  1.07134E+02  1.09741E+02  1.12411E+02  1.15146E+02
#           1.17948E+02  1.20817E+02  1.23757E+02  1.26768E+02  1.29852E+02
#           1.33012E+02  1.36248E+02  1.39563E+02  1.42959E+02  1.46437E+02
#           1.50000E+02
     unit =    2            # unit is [1/cm^2/(MeV/n)/source]
     axis =  eng            # axis of output
     file = detector-08.out  # file name of output for the above axis
   output = f-curr          # surface crossing forward current spectrum
     part =  neutron  
# kf/name :  2112     
#    used :        main (  %)        temp (  %)       total (  %)
#  memory :         414 (  0)           0 (  0)         414 (  0)

#------------------------------------------------------------------------------
#newpage:
#   no. =    1   reg = 107 - 207

x: Energy [MeV/n]
y:  F-Curr [1/cm^2/(MeV/n)/source]         
p: xlog ylog afac(0.8) form(0.9)
h: n            x            y(neutron ),hh0l   n 
#  e-lower      e-upper      neutron     r.err 
   1.0000E-02   1.0243E-02   8.8244E-04  0.0964
   1.0243E-02   1.0493E-02   8.7871E-04  0.0952
   1.0493E-02   1.0748E-02   9.5185E-04  0.0906
   1.0748E-02   1.1009E-02   7.6863E-04  0.0996
   1.1009E-02   1.1277E-02   7.5411E-04  0.0995
   1.1277E-02   1.1552E-02   7.0102E-04  0.1019
   1.1552E-02   1.1833E-02   9.2507E-04  0.0877
   1.1833E-02   1.2121E-02   7.9291E-04  0.0936
   1.2121E-02   1.2415E-02   6.2054E-04  0.1044
   1.2415E-02   1.2718E-02   7.4815E-04  0.0941
   1.2718E-02   1.3027E-02   8.0480E-04  0.0895
   1.3027E-02   1.3344E-02   7.8875E-04  0.0894
   1.3344E-02   1.3669E-02   1.0103E-03  0.0781
   1.3669E-02   1.4001E-02   8.1869E-04  0.0857
   1.4001E-02   1.4342E-02   7.7589E-04  0.0869
   1.4342E-02   1.4691E-02   1.0155E-03  0.0751
   1.4691E-02   1.5048E-02   8.6633E-04  0.0802
   1.5048E-02   1.5414E-02   8.5215E-04  0.0801
   1.5414E-02   1.5789E-02   6.5172E-04  0.0904
   1.5789E-02   1.6174E-02   6.9501E-04  0.0865
   1.6174E-02   1.6567E-02   8.1827E-04  0.0788
   1.6567E-02   1.6970E-02   7.8305E-04  0.0795
   1.6970E-02   1.7383E-02   7.5263E-04  0.0801
   1.7383E-02   1.7806E-02   7.0932E-04  0.0816
   1.7806E-02   1.8239E-02   7.3863E-04  0.0791
   1.8239E-02   1.8683E-02   8.5779E-04  0.0724
   1.8683E-02   1.9138E-02   6.4676E-04  0.0825
   1.9138E-02   1.9603E-02   7.6026E-04  0.0752
   1.9603E-02   2.0080E-02   7.4639E-04  0.0750
   2.0080E-02   2.0569E-02   6.6585E-04  0.0783
   2.0569E-02   2.1069E-02   8.7374E-04  0.0676
   2.1069E-02   2.1582E-02   6.8797E-04  0.0752
   2.1582E-02   2.2107E-02   8.6602E-04  0.0662
   2.2107E-02   2.2645E-02   7.0648E-04  0.0725
   2.2645E-02   2.3196E-02   7.5867E-04  0.0692
   2.3196E-02   2.3760E-02   7.3414E-04  0.0695
   2.3760E-02   2.4338E-02   7.7841E-04  0.0667
   2.4338E-02   2.4930E-02   7.6424E-04  0.0664
   2.4930E-02   2.5537E-02   6.7575E-04  0.0697
   2.5537E-02   2.6158E-02   7.4129E-04  0.0659
   2.6158E-02   2.6795E-02   8.3085E-04  0.0615
   2.6795E-02   2.7447E-02   7.4087E-04  0.0643
   2.7447E-02   2.8114E-02   7.3076E-04  0.0640
   2.8114E-02   2.8799E-02   7.3768E-04  0.0629
   2.8799E-02   2.9499E-02   7.1215E-04  0.0633
   2.9499E-02   3.0217E-02   6.8076E-04  0.0639
   3.0217E-02   3.0952E-02   7.5625E-04  0.0600
   3.0952E-02   3.1705E-02   7.1351E-04  0.0610
   3.1705E-02   3.2477E-02   7.2803E-04  0.0596
   3.2477E-02   3.3267E-02   6.7441E-04  0.0612
   3.3267E-02   3.4076E-02   7.2518E-04  0.0583
   3.4076E-02   3.4905E-02   6.3515E-04  0.0616
   3.4905E-02   3.5755E-02   7.1354E-04  0.0574
   3.5755E-02   3.6625E-02   6.8948E-04  0.0577
   3.6625E-02   3.7516E-02   7.1179E-04  0.0561
   3.7516E-02   3.8428E-02   7.0219E-04  0.0558
   3.8428E-02   3.9363E-02   6.5277E-04  0.0572
   3.9363E-02   4.0321E-02   6.9848E-04  0.0546
   4.0321E-02   4.1302E-02   7.0295E-04  0.0538
   4.1302E-02   4.2307E-02   7.2842E-04  0.0523
   4.2307E-02   4.3337E-02   6.0695E-04  0.0566
   4.3337E-02   4.4391E-02   6.8952E-04  0.0523
   4.4391E-02   4.5471E-02   6.1726E-04  0.0547
   4.5471E-02   4.6577E-02   7.0477E-04  0.0506
   4.6577E-02   4.7711E-02   6.8591E-04  0.0507
   4.7711E-02   4.8871E-02   6.2830E-04  0.0523
   4.8871E-02   5.0061E-02   6.1863E-04  0.0521
   5.0061E-02   5.1279E-02   6.3356E-04  0.0509
   5.1279E-02   5.2526E-02   6.4433E-04  0.0498
   5.2526E-02   5.3804E-02   5.8838E-04  0.0515
   5.3804E-02   5.5113E-02   6.1603E-04  0.0497
   5.5113E-02   5.6454E-02   6.3343E-04  0.0485
   5.6454E-02   5.7828E-02   6.0716E-04  0.0489
   5.7828E-02   5.9235E-02   5.9537E-04  0.0488
   5.9235E-02   6.0676E-02   6.3883E-04  0.0466
   6.0676E-02   6.2152E-02   5.6453E-04  0.0490
   6.2152E-02   6.3665E-02   5.7646E-04  0.0478
   6.3665E-02   6.5214E-02   6.0913E-04  0.0460
   6.5214E-02   6.6800E-02   5.5713E-04  0.0475
   6.6800E-02   6.8426E-02   6.0885E-04  0.0449
   6.8426E-02   7.0090E-02   5.5423E-04  0.0465
   7.0090E-02   7.1796E-02   5.6280E-04  0.0456
   7.1796E-02   7.3543E-02   5.8436E-04  0.0442
   7.3543E-02   7.5332E-02   5.6166E-04  0.0446
   7.5332E-02   7.7165E-02   5.7451E-04  0.0436
   7.7165E-02   7.9042E-02   5.7965E-04  0.0428
   7.9042E-02   8.0965E-02   5.5393E-04  0.0433
   8.0965E-02   8.2935E-02   5.2322E-04  0.0440
   8.2935E-02   8.4953E-02   5.3801E-04  0.0429
   8.4953E-02   8.7020E-02   5.2231E-04  0.0430
   8.7020E-02   8.9138E-02   5.4541E-04  0.0416
   8.9138E-02   9.1306E-02   5.3943E-04  0.0413
   9.1306E-02   9.3528E-02   5.3467E-04  0.0410
   9.3528E-02   9.5804E-02   5.3789E-04  0.0404
   9.5804E-02   9.8134E-02   5.2114E-04  0.0405
   9.8134E-02   1.0052E-01   5.0645E-04  0.0406
   1.0052E-01   1.0297E-01   5.0126E-04  0.0404
   1.0297E-01   1.0547E-01   4.8406E-04  0.0406
   1.0547E-01   1.0804E-01   4.9029E-04  0.0398
   1.0804E-01   1.1067E-01   4.7790E-04  0.0399
   1.1067E-01   1.1336E-01   4.9657E-04  0.0386
   1.1336E-01   1.1612E-01   4.5586E-04  0.0398
   1.1612E-01   1.1894E-01   4.5302E-04  0.0395
   1.1894E-01   1.2184E-01   4.4182E-04  0.0395
   1.2184E-01   1.2480E-01   4.4197E-04  0.0390
   1.2480E-01   1.2784E-01   4.4031E-04  0.0386
   1.2784E-01   1.3095E-01   4.2876E-04  0.0387
   1.3095E-01   1.3414E-01   4.1930E-04  0.0387
   1.3414E-01   1.3740E-01   4.1294E-04  0.0385
   1.3740E-01   1.4074E-01   4.1131E-04  0.0381
   1.4074E-01   1.4417E-01   4.0220E-04  0.0381
   1.4417E-01   1.4767E-01   4.2377E-04  0.0366
   1.4767E-01   1.5127E-01   3.9586E-04  0.0375
   1.5127E-01   1.5495E-01   3.6967E-04  0.0383
   1.5495E-01   1.5872E-01   3.8241E-04  0.0372
   1.5872E-01   1.6258E-01   3.7146E-04  0.0373
   1.6258E-01   1.6654E-01   3.5303E-04  0.0378
   1.6654E-01   1.7059E-01   3.3400E-04  0.0384
   1.7059E-01   1.7474E-01   3.4730E-04  0.0372
   1.7474E-01   1.7899E-01   3.3857E-04  0.0372
   1.7899E-01   1.8334E-01   3.3375E-04  0.0371
   1.8334E-01   1.8781E-01   3.3342E-04  0.0366
   1.8781E-01   1.9237E-01   3.2554E-04  0.0366
   1.9237E-01   1.9706E-01   3.1563E-04  0.0368
   1.9706E-01   2.0185E-01   2.9401E-04  0.0376
   2.0185E-01   2.0676E-01   2.9629E-04  0.0371
   2.0676E-01   2.1179E-01   2.9945E-04  0.0364
   2.1179E-01   2.1694E-01   3.0239E-04  0.0358
   2.1694E-01   2.2222E-01   3.3821E-04  0.0334
   2.2222E-01   2.2763E-01   3.2977E-04  0.0335
   2.2763E-01   2.3317E-01   3.2543E-04  0.0333
   2.3317E-01   2.3884E-01   3.4494E-04  0.0319
   2.3884E-01   2.4465E-01   3.4152E-04  0.0317
   2.4465E-01   2.5061E-01   3.5245E-04  0.0308
   2.5061E-01   2.5670E-01   3.6451E-04  0.0300
   2.5670E-01   2.6295E-01   3.6811E-04  0.0295
   2.6295E-01   2.6935E-01   3.5115E-04  0.0298
   2.6935E-01   2.7590E-01   3.5834E-04  0.0292
   2.7590E-01   2.8261E-01   3.6685E-04  0.0285
   2.8261E-01   2.8949E-01   3.8115E-04  0.0276
   2.8949E-01   2.9653E-01   3.7700E-04  0.0274
   2.9653E-01   3.0375E-01   4.0700E-04  0.0261
   3.0375E-01   3.1114E-01   3.8480E-04  0.0265
   3.1114E-01   3.1871E-01   3.9968E-04  0.0257
   3.1871E-01   3.2646E-01   3.8499E-04  0.0259
   3.2646E-01   3.3441E-01   4.0026E-04  0.0251
   3.3441E-01   3.4254E-01   4.0868E-04  0.0245
   3.4254E-01   3.5088E-01   4.0149E-04  0.0244
   3.5088E-01   3.5941E-01   4.0607E-04  0.0240
   3.5941E-01   3.6816E-01   4.1494E-04  0.0235
   3.6816E-01   3.7712E-01   4.2768E-04  0.0228
   3.7712E-01   3.8629E-01   4.0276E-04  0.0232
   3.8629E-01   3.9569E-01   4.1526E-04  0.0226
   3.9569E-01   4.0532E-01   4.2496E-04  0.0221
   4.0532E-01   4.1518E-01   4.3143E-04  0.0217
   4.1518E-01   4.2528E-01   4.3817E-04  0.0212
   4.2528E-01   4.3563E-01   4.3926E-04  0.0210
   4.3563E-01   4.4623E-01   4.3021E-04  0.0209
   4.4623E-01   4.5708E-01   4.3865E-04  0.0205
   4.5708E-01   4.6821E-01   4.5221E-04  0.0199
   4.6821E-01   4.7960E-01   4.6524E-04  0.0194
   4.7960E-01   4.9127E-01   4.4584E-04  0.0196
   4.9127E-01   5.0322E-01   4.4646E-04  0.0193
   5.0322E-01   5.1546E-01   4.4590E-04  0.0191
   5.1546E-01   5.2800E-01   4.5596E-04  0.0187
   5.2800E-01   5.4085E-01   4.5142E-04  0.0186
   5.4085E-01   5.5401E-01   4.5803E-04  0.0182
   5.5401E-01   5.6749E-01   4.6709E-04  0.0178
   5.6749E-01   5.8130E-01   4.5940E-04  0.0177
   5.8130E-01   5.9544E-01   4.7263E-04  0.0173
   5.9544E-01   6.0993E-01   4.8243E-04  0.0169
   6.0993E-01   6.2477E-01   4.7866E-04  0.0168
   6.2477E-01   6.3997E-01   4.7483E-04  0.0166
   6.3997E-01   6.5554E-01   4.8416E-04  0.0163
   6.5554E-01   6.7149E-01   4.8098E-04  0.0161
   6.7149E-01   6.8783E-01   4.8403E-04  0.0159
   6.8783E-01   7.0456E-01   4.8367E-04  0.0157
   7.0456E-01   7.2171E-01   4.8444E-04  0.0155
   7.2171E-01   7.3927E-01   4.8980E-04  0.0152
   7.3927E-01   7.5725E-01   4.7959E-04  0.0152
   7.5725E-01   7.7568E-01   4.9526E-04  0.0148
   7.7568E-01   7.9455E-01   4.8784E-04  0.0147
   7.9455E-01   8.1388E-01   4.9109E-04  0.0145
   8.1388E-01   8.3368E-01   4.9908E-04  0.0142
   8.3368E-01   8.5397E-01   4.8121E-04  0.0143
   8.5397E-01   8.7475E-01   4.9266E-04  0.0140
   8.7475E-01   8.9603E-01   4.8820E-04  0.0139
   8.9603E-01   9.1783E-01   4.9336E-04  0.0136
   9.1783E-01   9.4016E-01   4.8538E-04  0.0136
   9.4016E-01   9.6304E-01   4.8105E-04  0.0135
   9.6304E-01   9.8647E-01   4.6880E-04  0.0135
   9.8647E-01   1.0105E+00   4.6791E-04  0.0133
   1.0105E+00   1.0351E+00   4.6426E-04  0.0132
   1.0351E+00   1.0602E+00   4.6917E-04  0.0130
   1.0602E+00   1.0860E+00   4.5429E-04  0.0130
   1.0860E+00   1.1125E+00   4.5991E-04  0.0128
   1.1125E+00   1.1395E+00   4.5292E-04  0.0128
   1.1395E+00   1.1673E+00   4.5693E-04  0.0126
   1.1673E+00   1.1957E+00   4.6347E-04  0.0123
   1.1957E+00   1.2247E+00   4.5960E-04  0.0122
   1.2247E+00   1.2545E+00   4.5848E-04  0.0121
   1.2545E+00   1.2851E+00   4.5545E-04  0.0120
   1.2851E+00   1.3163E+00   4.5696E-04  0.0118
   1.3163E+00   1.3484E+00   4.5647E-04  0.0117
   1.3484E+00   1.3812E+00   4.6507E-04  0.0114
   1.3812E+00   1.4148E+00   4.6112E-04  0.0113
   1.4148E+00   1.4492E+00   4.5594E-04  0.0113
   1.4492E+00   1.4845E+00   4.5079E-04  0.0112
   1.4845E+00   1.5206E+00   4.5416E-04  0.0110
   1.5206E+00   1.5576E+00   4.5403E-04  0.0109
   1.5576E+00   1.5955E+00   4.4625E-04  0.0109
   1.5955E+00   1.6343E+00   4.4919E-04  0.0107
   1.6343E+00   1.6741E+00   4.3748E-04  0.0107
   1.6741E+00   1.7148E+00   4.4459E-04  0.0105
   1.7148E+00   1.7565E+00   4.4724E-04  0.0103
   1.7565E+00   1.7992E+00   4.4635E-04  0.0102
   1.7992E+00   1.8430E+00   4.4186E-04  0.0102
   1.8430E+00   1.8879E+00   4.3904E-04  0.0101
   1.8879E+00   1.9338E+00   4.3597E-04  0.0100
   1.9338E+00   1.9808E+00   4.3790E-04  0.0098
   1.9808E+00   2.0290E+00   4.3696E-04  0.0097
   2.0290E+00   2.0784E+00   4.3483E-04  0.0096
   2.0784E+00   2.1290E+00   4.2888E-04  0.0096
   2.1290E+00   2.1808E+00   4.3328E-04  0.0094
   2.1808E+00   2.2338E+00   4.2811E-04  0.0094
   2.2338E+00   2.2882E+00   4.2952E-04  0.0092
   2.2882E+00   2.3439E+00   4.1923E-04  0.0092
   2.3439E+00   2.4009E+00   4.2112E-04  0.0091
   2.4009E+00   2.4593E+00   4.2643E-04  0.0089
   2.4593E+00   2.5191E+00   4.1900E-04  0.0089
   2.5191E+00   2.5804E+00   4.2005E-04  0.0088
   2.5804E+00   2.6432E+00   4.1517E-04  0.0088
   2.6432E+00   2.7075E+00   4.1395E-04  0.0087
   2.7075E+00   2.7734E+00   4.1434E-04  0.0085
   2.7734E+00   2.8409E+00   4.1042E-04  0.0085
   2.8409E+00   2.9100E+00   4.0163E-04  0.0085
   2.9100E+00   2.9808E+00   4.1165E-04  0.0083
   2.9808E+00   3.0533E+00   3.9959E-04  0.0083
   3.0533E+00   3.1276E+00   4.0123E-04  0.0082
   3.1276E+00   3.2037E+00   3.9927E-04  0.0081
   3.2037E+00   3.2817E+00   3.9249E-04  0.0081
   3.2817E+00   3.3615E+00   3.9389E-04  0.0080
   3.3615E+00   3.4433E+00   3.8696E-04  0.0079
   3.4433E+00   3.5271E+00   3.9426E-04  0.0078
   3.5271E+00   3.6129E+00   3.7943E-04  0.0078
   3.6129E+00   3.7008E+00   3.8016E-04  0.0077
   3.7008E+00   3.7908E+00   3.7883E-04  0.0076
   3.7908E+00   3.8831E+00   3.7496E-04  0.0076
   3.8831E+00   3.9776E+00   3.6919E-04  0.0076
   3.9776E+00   4.0743E+00   3.6795E-04  0.0075
   4.0743E+00   4.1735E+00   3.7195E-04  0.0074
   4.1735E+00   4.2750E+00   3.5989E-04  0.0074
   4.2750E+00   4.3790E+00   3.5803E-04  0.0073
   4.3790E+00   4.4856E+00   3.6216E-04  0.0072
   4.4856E+00   4.5947E+00   3.5135E-04  0.0072
   4.5947E+00   4.7065E+00   3.4647E-04  0.0072
   4.7065E+00   4.8210E+00   3.4673E-04  0.0071
   4.8210E+00   4.9383E+00   3.4518E-04  0.0070
   4.9383E+00   5.0585E+00   3.3960E-04  0.0070
   5.0585E+00   5.1815E+00   3.3919E-04  0.0069
   5.1815E+00   5.3076E+00   3.3222E-04  0.0069
   5.3076E+00   5.4368E+00   3.2753E-04  0.0069
   5.4368E+00   5.5690E+00   3.2437E-04  0.0068
   5.5690E+00   5.7045E+00   3.2112E-04  0.0068
   5.7045E+00   5.8433E+00   3.1810E-04  0.0067
   5.8433E+00   5.9855E+00   3.0883E-04  0.0067
   5.9855E+00   6.1311E+00   3.0673E-04  0.0067
   6.1311E+00   6.2803E+00   2.9783E-04  0.0067
   6.2803E+00   6.4331E+00   2.9971E-04  0.0066
   6.4331E+00   6.5896E+00   2.9193E-04  0.0066
   6.5896E+00   6.7500E+00   2.9369E-04  0.0065
   6.7500E+00   6.9142E+00   2.8394E-04  0.0065
   6.9142E+00   7.0824E+00   2.8051E-04  0.0065
   7.0824E+00   7.2548E+00   2.7596E-04  0.0065
   7.2548E+00   7.4313E+00   2.7391E-04  0.0064
   7.4313E+00   7.6121E+00   2.7131E-04  0.0064
   7.6121E+00   7.7973E+00   2.6481E-04  0.0064
   7.7973E+00   7.9870E+00   2.5695E-04  0.0064
   7.9870E+00   8.1813E+00   2.5654E-04  0.0063
   8.1813E+00   8.3804E+00   2.4897E-04  0.0064
   8.3804E+00   8.5843E+00   2.4831E-04  0.0063
   8.5843E+00   8.7931E+00   2.4461E-04  0.0063
   8.7931E+00   9.0071E+00   2.4016E-04  0.0062
   9.0071E+00   9.2262E+00   2.3460E-04  0.0062
   9.2262E+00   9.4507E+00   2.3445E-04  0.0062
   9.4507E+00   9.6807E+00   2.2799E-04  0.0062
   9.6807E+00   9.9162E+00   2.2315E-04  0.0062
   9.9162E+00   1.0157E+01   2.2159E-04  0.0061
   1.0157E+01   1.0405E+01   2.1735E-04  0.0061
   1.0405E+01   1.0658E+01   2.1448E-04  0.0061
   1.0658E+01   1.0917E+01   2.1234E-04  0.0060
   1.0917E+01   1.1183E+01   2.0906E-04  0.0060
   1.1183E+01   1.1455E+01   2.0448E-04  0.0060
   1.1455E+01   1.1733E+01   2.0243E-04  0.0060
   1.1733E+01   1.2019E+01   1.9698E-04  0.0060
   1.2019E+01   1.2311E+01   1.9633E-04  0.0059
   1.2311E+01   1.2611E+01   1.9129E-04  0.0059
   1.2611E+01   1.2918E+01   1.8534E-04  0.0059
   1.2918E+01   1.3232E+01   1.8359E-04  0.0059
   1.3232E+01   1.3554E+01   1.7985E-04  0.0059
   1.3554E+01   1.3884E+01   1.7713E-04  0.0059
   1.3884E+01   1.4222E+01   1.7220E-04  0.0059
   1.4222E+01   1.4568E+01   1.6913E-04  0.0058
   1.4568E+01   1.4922E+01   1.6554E-04  0.0058
   1.4922E+01   1.5285E+01   1.6121E-04  0.0058
   1.5285E+01   1.5657E+01   1.5685E-04  0.0059
   1.5657E+01   1.6038E+01   1.5431E-04  0.0058
   1.6038E+01   1.6428E+01   1.4915E-04  0.0059
   1.6428E+01   1.6828E+01   1.4711E-04  0.0058
   1.6828E+01   1.7237E+01   1.4034E-04  0.0059
   1.7237E+01   1.7657E+01   1.3570E-04  0.0059
   1.7657E+01   1.8086E+01   1.3346E-04  0.0059
   1.8086E+01   1.8526E+01   1.2726E-04  0.0060
   1.8526E+01   1.8977E+01   1.2447E-04  0.0060
   1.8977E+01   1.9439E+01   1.1972E-04  0.0060
   1.9439E+01   1.9912E+01   1.1514E-04  0.0061
   1.9912E+01   2.0396E+01   1.1315E-04  0.0060
   2.0396E+01   2.0893E+01   1.0827E-04  0.0061
   2.0893E+01   2.1401E+01   1.0359E-04  0.0062
   2.1401E+01   2.1922E+01   1.0000E-04  0.0062
   2.1922E+01   2.2455E+01   9.5423E-05  0.0063
   2.2455E+01   2.3001E+01   9.0031E-05  0.0064
   2.3001E+01   2.3561E+01   8.5666E-05  0.0065
   2.3561E+01   2.4134E+01   8.2483E-05  0.0065
   2.4134E+01   2.4721E+01   7.6600E-05  0.0067
   2.4721E+01   2.5323E+01   7.2350E-05  0.0068
   2.5323E+01   2.5939E+01   6.9012E-05  0.0069
   2.5939E+01   2.6570E+01   6.5173E-05  0.0070
   2.6570E+01   2.7217E+01   6.1812E-05  0.0071
   2.7217E+01   2.7879E+01   5.7943E-05  0.0072
   2.7879E+01   2.8557E+01   5.5184E-05  0.0073
   2.8557E+01   2.9252E+01   5.0891E-05  0.0075
   2.9252E+01   2.9964E+01   4.8589E-05  0.0076
   2.9964E+01   3.0693E+01   4.5205E-05  0.0078
   3.0693E+01   3.1440E+01   4.1983E-05  0.0080
   3.1440E+01   3.2205E+01   4.0337E-05  0.0081
   3.2205E+01   3.2988E+01   3.8003E-05  0.0082
   3.2988E+01   3.3791E+01   3.4940E-05  0.0084
   3.3791E+01   3.4613E+01   3.2495E-05  0.0087
   3.4613E+01   3.5455E+01   3.0175E-05  0.0089
   3.5455E+01   3.6318E+01   2.8137E-05  0.0091
   3.6318E+01   3.7201E+01   2.6377E-05  0.0093
   3.7201E+01   3.8106E+01   2.5311E-05  0.0093
   3.8106E+01   3.9034E+01   2.3111E-05  0.0097
   3.9034E+01   3.9983E+01   2.2506E-05  0.0097
   3.9983E+01   4.0956E+01   2.1200E-05  0.0098
   4.0956E+01   4.1953E+01   2.0133E-05  0.0100
   4.1953E+01   4.2973E+01   1.8438E-05  0.0103
   4.2973E+01   4.4019E+01   1.7301E-05  0.0105
   4.4019E+01   4.5090E+01   1.6607E-05  0.0106
   4.5090E+01   4.6187E+01   1.5831E-05  0.0107
   4.6187E+01   4.7311E+01   1.4250E-05  0.0112
   4.7311E+01   4.8462E+01   1.3512E-05  0.0113
   4.8462E+01   4.9641E+01   1.2270E-05  0.0118
   4.9641E+01   5.0849E+01   1.1099E-05  0.0122
   5.0849E+01   5.2086E+01   9.8562E-06  0.0128
   5.2086E+01   5.3353E+01   8.7557E-06  0.0134
   5.3353E+01   5.4651E+01   8.0300E-06  0.0139
   5.4651E+01   5.5981E+01   7.2617E-06  0.0144
   5.5981E+01   5.7343E+01   6.7970E-06  0.0147
   5.7343E+01   5.8738E+01   5.6436E-06  0.0159
   5.8738E+01   6.0168E+01   4.0024E-06  0.0187
   6.0168E+01   6.1632E+01   2.3758E-06  0.0240
   6.1632E+01   6.3131E+01   8.8427E-07  0.0388
   6.3131E+01   6.4667E+01   2.5781E-07  0.0711
   6.4667E+01   6.6240E+01   4.7032E-08  0.1644
   6.6240E+01   6.7852E+01   0.0000E+00  0.0000
   6.7852E+01   6.9503E+01   0.0000E+00  0.0000
   6.9503E+01   7.1194E+01   0.0000E+00  0.0000
   7.1194E+01   7.2926E+01   0.0000E+00  0.0000
   7.2926E+01   7.4701E+01   0.0000E+00  0.0000
   7.4701E+01   7.6518E+01   0.0000E+00  0.0000
   7.6518E+01   7.8380E+01   0.0000E+00  0.0000
   7.8380E+01   8.0287E+01   0.0000E+00  0.0000
   8.0287E+01   8.2240E+01   0.0000E+00  0.0000
   8.2240E+01   8.4241E+01   0.0000E+00  0.0000
   8.4241E+01   8.6291E+01   0.0000E+00  0.0000
   8.6291E+01   8.8391E+01   0.0000E+00  0.0000
   8.8391E+01   9.0541E+01   0.0000E+00  0.0000
   9.0541E+01   9.2744E+01   0.0000E+00  0.0000
   9.2744E+01   9.5001E+01   0.0000E+00  0.0000
   9.5001E+01   9.7312E+01   0.0000E+00  0.0000
   9.7312E+01   9.9680E+01   0.0000E+00  0.0000
   9.9680E+01   1.0211E+02   0.0000E+00  0.0000
   1.0211E+02   1.0459E+02   0.0000E+00  0.0000
   1.0459E+02   1.0713E+02   0.0000E+00  0.0000
   1.0713E+02   1.0974E+02   0.0000E+00  0.0000
   1.0974E+02   1.1241E+02   0.0000E+00  0.0000
   1.1241E+02   1.1515E+02   0.0000E+00  0.0000
   1.1515E+02   1.1795E+02   0.0000E+00  0.0000
   1.1795E+02   1.2082E+02   0.0000E+00  0.0000
   1.2082E+02   1.2376E+02   0.0000E+00  0.0000
   1.2376E+02   1.2677E+02   0.0000E+00  0.0000
   1.2677E+02   1.2985E+02   0.0000E+00  0.0000
   1.2985E+02   1.3301E+02   0.0000E+00  0.0000
   1.3301E+02   1.3625E+02   0.0000E+00  0.0000
   1.3625E+02   1.3956E+02   0.0000E+00  0.0000
   1.3956E+02   1.4296E+02   0.0000E+00  0.0000
   1.4296E+02   1.4644E+02   0.0000E+00  0.0000
   1.4644E+02   1.5000E+02   0.0000E+00  0.0000

#   sum over                 4.2602E-05
'no. =    1   reg = 107 - 207'
msuc: {\huge [t-cross] in region mesh}
msdr: {\it plotted by \ANGEL \version}
msdl: {\it calculated by \PHITS  3.26}
wt: s(0.7)
\vspace{-3}
  region surface crossing
  area  &=&   1.0000E+00 [cm^2]
e:
 
# Information for Restart Calculation
# This calculation was newly started
# istdev =  2 # 1:Batch variance, 2:History variance
# resc2  = 5.00000000000000000E+08 # Total source weight or Total source weight / maxcas
# resc3  = 5.00000000000000000E+08 # Total history number or Total batch number
# maxcas =   500000000 # History / Batch, only used for istdev=1
# bitrseed = 1101101111010011011000101101110001100110110010110001010100010001 # bit data of rseed
