[ T-Cross ]
    title = [t-cross] in region mesh
     mesh =  reg            # mesh type is region-wise
      reg =    1            # number of crossing regions
      non     r-from    r-to       area
      1       121       221        1.000000    
   e-type =    3            # e-mesh is log given by emin, emax and ne
     emin =  1.0000000E-02  # minimum value of e-mesh points
     emax =   150.0000      # maximum value of e-mesh points
#    edel =  2.4039514E-02  # mesh width of e-mesh points
       ne =    400          # number of e-mesh points
#    data = ( e(i), i = 1, ne + 1 )
#           1.00000E-02  1.02433E-02  1.04925E-02  1.07478E-02  1.10093E-02
#           1.12772E-02  1.15516E-02  1.18326E-02  1.21205E-02  1.24154E-02
#           1.27175E-02  1.30269E-02  1.33439E-02  1.36686E-02  1.40011E-02
#           1.43418E-02  1.46907E-02  1.50482E-02  1.54143E-02  1.57894E-02
#           1.61735E-02  1.65670E-02  1.69701E-02  1.73830E-02  1.78060E-02
#           1.82392E-02  1.86830E-02  1.91375E-02  1.96032E-02  2.00801E-02
#           2.05687E-02  2.10692E-02  2.15818E-02  2.21069E-02  2.26448E-02
#           2.31957E-02  2.37601E-02  2.43382E-02  2.49304E-02  2.55369E-02
#           2.61583E-02  2.67947E-02  2.74467E-02  2.81145E-02  2.87985E-02
#           2.94992E-02  3.02169E-02  3.09521E-02  3.17052E-02  3.24766E-02
#           3.32668E-02  3.40762E-02  3.49053E-02  3.57546E-02  3.66246E-02
#           3.75157E-02  3.84284E-02  3.93634E-02  4.03212E-02  4.13022E-02
#           4.23071E-02  4.33365E-02  4.43909E-02  4.54710E-02  4.65773E-02
#           4.77106E-02  4.88714E-02  5.00605E-02  5.12785E-02  5.25262E-02
#           5.38042E-02  5.51133E-02  5.64542E-02  5.78278E-02  5.92348E-02
#           6.06760E-02  6.21523E-02  6.36645E-02  6.52135E-02  6.68002E-02
#           6.84255E-02  7.00904E-02  7.17957E-02  7.35426E-02  7.53319E-02
#           7.71648E-02  7.90423E-02  8.09655E-02  8.29354E-02  8.49533E-02
#           8.70203E-02  8.91376E-02  9.13064E-02  9.35279E-02  9.58035E-02
#           9.81345E-02  1.00522E-01  1.02968E-01  1.05473E-01  1.08040E-01
#           1.10668E-01  1.13361E-01  1.16119E-01  1.18944E-01  1.21838E-01
#           1.24803E-01  1.27839E-01  1.30950E-01  1.34136E-01  1.37399E-01
#           1.40742E-01  1.44167E-01  1.47675E-01  1.51268E-01  1.54948E-01
#           1.58718E-01  1.62580E-01  1.66535E-01  1.70587E-01  1.74738E-01
#           1.78989E-01  1.83344E-01  1.87805E-01  1.92375E-01  1.97055E-01
#           2.01850E-01  2.06761E-01  2.11792E-01  2.16945E-01  2.22223E-01
#           2.27630E-01  2.33169E-01  2.38842E-01  2.44653E-01  2.50605E-01
#           2.56703E-01  2.62949E-01  2.69346E-01  2.75900E-01  2.82613E-01
#           2.89489E-01  2.96532E-01  3.03747E-01  3.11138E-01  3.18708E-01
#           3.26462E-01  3.34405E-01  3.42542E-01  3.50876E-01  3.59413E-01
#           3.68158E-01  3.77116E-01  3.86291E-01  3.95690E-01  4.05317E-01
#           4.15179E-01  4.25281E-01  4.35628E-01  4.46227E-01  4.57084E-01
#           4.68205E-01  4.79597E-01  4.91266E-01  5.03219E-01  5.15463E-01
#           5.28005E-01  5.40851E-01  5.54011E-01  5.67490E-01  5.81298E-01
#           5.95441E-01  6.09929E-01  6.24769E-01  6.39970E-01  6.55541E-01
#           6.71491E-01  6.87828E-01  7.04564E-01  7.21706E-01  7.39266E-01
#           7.57253E-01  7.75678E-01  7.94551E-01  8.13883E-01  8.33685E-01
#           8.53969E-01  8.74747E-01  8.96030E-01  9.17831E-01  9.40163E-01
#           9.63038E-01  9.86469E-01  1.01047E+00  1.03506E+00  1.06024E+00
#           1.08604E+00  1.11246E+00  1.13953E+00  1.16725E+00  1.19565E+00
#           1.22474E+00  1.25454E+00  1.28507E+00  1.31633E+00  1.34836E+00
#           1.38117E+00  1.41477E+00  1.44920E+00  1.48446E+00  1.52057E+00
#           1.55757E+00  1.59547E+00  1.63429E+00  1.67405E+00  1.71478E+00
#           1.75650E+00  1.79924E+00  1.84302E+00  1.88786E+00  1.93379E+00
#           1.98084E+00  2.02904E+00  2.07841E+00  2.12898E+00  2.18078E+00
#           2.23384E+00  2.28819E+00  2.34386E+00  2.40089E+00  2.45930E+00
#           2.51914E+00  2.58043E+00  2.64322E+00  2.70753E+00  2.77341E+00
#           2.84088E+00  2.91001E+00  2.98081E+00  3.05333E+00  3.12762E+00
#           3.20372E+00  3.28167E+00  3.36152E+00  3.44330E+00  3.52708E+00
#           3.61290E+00  3.70080E+00  3.79085E+00  3.88308E+00  3.97756E+00
#           4.07434E+00  4.17347E+00  4.27501E+00  4.37903E+00  4.48557E+00
#           4.59471E+00  4.70650E+00  4.82102E+00  4.93832E+00  5.05847E+00
#           5.18155E+00  5.30762E+00  5.43676E+00  5.56904E+00  5.70453E+00
#           5.84333E+00  5.98550E+00  6.13114E+00  6.28031E+00  6.43312E+00
#           6.58964E+00  6.74997E+00  6.91420E+00  7.08243E+00  7.25475E+00
#           7.43126E+00  7.61207E+00  7.79728E+00  7.98700E+00  8.18133E+00
#           8.38038E+00  8.58428E+00  8.79315E+00  9.00709E+00  9.22624E+00
#           9.45072E+00  9.68067E+00  9.91620E+00  1.01575E+01  1.04046E+01
#           1.06578E+01  1.09171E+01  1.11827E+01  1.14548E+01  1.17335E+01
#           1.20190E+01  1.23114E+01  1.26109E+01  1.29178E+01  1.32321E+01
#           1.35540E+01  1.38838E+01  1.42216E+01  1.45676E+01  1.49221E+01
#           1.52851E+01  1.56570E+01  1.60380E+01  1.64282E+01  1.68279E+01
#           1.72374E+01  1.76568E+01  1.80864E+01  1.85264E+01  1.89772E+01
#           1.94389E+01  1.99119E+01  2.03963E+01  2.08926E+01  2.14009E+01
#           2.19216E+01  2.24550E+01  2.30014E+01  2.35610E+01  2.41343E+01
#           2.47215E+01  2.53230E+01  2.59391E+01  2.65702E+01  2.72167E+01
#           2.78789E+01  2.85572E+01  2.92520E+01  2.99637E+01  3.06928E+01
#           3.14396E+01  3.22045E+01  3.29881E+01  3.37907E+01  3.46128E+01
#           3.54550E+01  3.63177E+01  3.72013E+01  3.81064E+01  3.90336E+01
#           3.99833E+01  4.09561E+01  4.19526E+01  4.29734E+01  4.40189E+01
#           4.50900E+01  4.61870E+01  4.73108E+01  4.84619E+01  4.96410E+01
#           5.08488E+01  5.20860E+01  5.33533E+01  5.46514E+01  5.59812E+01
#           5.73432E+01  5.87384E+01  6.01676E+01  6.16315E+01  6.31311E+01
#           6.46671E+01  6.62405E+01  6.78522E+01  6.95031E+01  7.11941E+01
#           7.29263E+01  7.47007E+01  7.65182E+01  7.83800E+01  8.02870E+01
#           8.22405E+01  8.42414E+01  8.62911E+01  8.83906E+01  9.05412E+01
#           9.27442E+01  9.50007E+01  9.73122E+01  9.96799E+01  1.02105E+02
#           1.04589E+02  1.07134E+02  1.09741E+02  1.12411E+02  1.15146E+02
#           1.17948E+02  1.20817E+02  1.23757E+02  1.26768E+02  1.29852E+02
#           1.33012E+02  1.36248E+02  1.39563E+02  1.42959E+02  1.46437E+02
#           1.50000E+02
     unit =    2            # unit is [1/cm^2/(MeV/n)/source]
     axis =  eng            # axis of output
     file = detector-22.out  # file name of output for the above axis
   output = f-curr          # surface crossing forward current spectrum
     part =  neutron  
# kf/name :  2112     
#    used :        main (  %)        temp (  %)       total (  %)
#  memory :         414 (  0)           0 (  0)         414 (  0)

#------------------------------------------------------------------------------
#newpage:
#   no. =    1   reg = 121 - 221

x: Energy [MeV/n]
y:  F-Curr [1/cm^2/(MeV/n)/source]         
p: xlog ylog afac(0.8) form(0.9)
h: n            x            y(neutron ),hh0l   n 
#  e-lower      e-upper      neutron     r.err 
   1.0000E-02   1.0243E-02   1.5859E-03  0.0227
   1.0243E-02   1.0493E-02   1.5124E-03  0.0230
   1.0493E-02   1.0748E-02   1.5142E-03  0.0227
   1.0748E-02   1.1009E-02   1.4307E-03  0.0231
   1.1009E-02   1.1277E-02   1.4709E-03  0.0225
   1.1277E-02   1.1552E-02   1.3454E-03  0.0232
   1.1552E-02   1.1833E-02   1.3816E-03  0.0227
   1.1833E-02   1.2121E-02   1.4026E-03  0.0222
   1.2121E-02   1.2415E-02   1.3433E-03  0.0224
   1.2415E-02   1.2718E-02   1.3207E-03  0.0223
   1.2718E-02   1.3027E-02   1.3243E-03  0.0221
   1.3027E-02   1.3344E-02   1.3068E-03  0.0219
   1.3344E-02   1.3669E-02   1.2722E-03  0.0220
   1.3669E-02   1.4001E-02   1.2478E-03  0.0219
   1.4001E-02   1.4342E-02   1.2141E-03  0.0220
   1.4342E-02   1.4691E-02   1.2048E-03  0.0218
   1.4691E-02   1.5048E-02   1.1574E-03  0.0220
   1.5048E-02   1.5414E-02   1.1050E-03  0.0222
   1.5414E-02   1.5789E-02   1.1183E-03  0.0218
   1.5789E-02   1.6174E-02   1.1134E-03  0.0216
   1.6174E-02   1.6567E-02   1.0466E-03  0.0220
   1.6567E-02   1.6970E-02   1.0825E-03  0.0214
   1.6970E-02   1.7383E-02   1.0136E-03  0.0218
   1.7383E-02   1.7806E-02   1.0130E-03  0.0216
   1.7806E-02   1.8239E-02   1.0294E-03  0.0211
   1.8239E-02   1.8683E-02   9.7175E-04  0.0215
   1.8683E-02   1.9138E-02   9.5647E-04  0.0214
   1.9138E-02   1.9603E-02   9.6552E-04  0.0211
   1.9603E-02   2.0080E-02   9.6036E-04  0.0209
   2.0080E-02   2.0569E-02   8.9857E-04  0.0213
   2.0569E-02   2.1069E-02   8.8986E-04  0.0212
   2.1069E-02   2.1582E-02   9.3629E-04  0.0204
   2.1582E-02   2.2107E-02   8.7541E-04  0.0208
   2.2107E-02   2.2645E-02   8.5292E-04  0.0208
   2.2645E-02   2.3196E-02   8.3466E-04  0.0208
   2.3196E-02   2.3760E-02   8.1249E-04  0.0208
   2.3760E-02   2.4338E-02   7.7826E-04  0.0210
   2.4338E-02   2.4930E-02   8.2272E-04  0.0202
   2.4930E-02   2.5537E-02   7.6679E-04  0.0207
   2.5537E-02   2.6158E-02   7.6141E-04  0.0205
   2.6158E-02   2.6795E-02   7.6859E-04  0.0202
   2.6795E-02   2.7447E-02   7.4087E-04  0.0203
   2.7447E-02   2.8114E-02   7.2119E-04  0.0203
   2.8114E-02   2.8799E-02   7.0766E-04  0.0203
   2.8799E-02   2.9499E-02   7.1485E-04  0.0200
   2.9499E-02   3.0217E-02   7.0265E-04  0.0199
   3.0217E-02   3.0952E-02   6.8700E-04  0.0199
   3.0952E-02   3.1705E-02   6.8064E-04  0.0197
   3.1705E-02   3.2477E-02   6.6209E-04  0.0198
   3.2477E-02   3.3267E-02   6.1725E-04  0.0202
   3.3267E-02   3.4076E-02   6.1936E-04  0.0199
   3.4076E-02   3.4905E-02   5.9006E-04  0.0202
   3.4905E-02   3.5755E-02   5.9981E-04  0.0198
   3.5755E-02   3.6625E-02   5.8238E-04  0.0198
   3.6625E-02   3.7516E-02   5.5954E-04  0.0200
   3.7516E-02   3.8428E-02   5.6072E-04  0.0197
   3.8428E-02   3.9363E-02   5.5199E-04  0.0196
   3.9363E-02   4.0321E-02   5.5586E-04  0.0193
   4.0321E-02   4.1302E-02   5.1805E-04  0.0198
   4.1302E-02   4.2307E-02   5.1606E-04  0.0196
   4.2307E-02   4.3337E-02   5.0819E-04  0.0195
   4.3337E-02   4.4391E-02   5.0026E-04  0.0194
   4.4391E-02   4.5471E-02   4.9805E-04  0.0192
   4.5471E-02   4.6577E-02   4.8049E-04  0.0194
   4.6577E-02   4.7711E-02   4.6487E-04  0.0195
   4.7711E-02   4.8871E-02   4.8040E-04  0.0189
   4.8871E-02   5.0061E-02   4.5567E-04  0.0192
   5.0061E-02   5.1279E-02   4.4394E-04  0.0192
   5.1279E-02   5.2526E-02   4.4214E-04  0.0190
   5.2526E-02   5.3804E-02   4.2490E-04  0.0192
   5.3804E-02   5.5113E-02   4.2217E-04  0.0190
   5.5113E-02   5.6454E-02   4.1066E-04  0.0190
   5.6454E-02   5.7828E-02   4.1232E-04  0.0188
   5.7828E-02   5.9235E-02   4.1241E-04  0.0185
   5.9235E-02   6.0676E-02   3.9718E-04  0.0187
   6.0676E-02   6.2152E-02   3.8405E-04  0.0187
   6.2152E-02   6.3665E-02   3.7394E-04  0.0188
   6.3665E-02   6.5214E-02   3.5432E-04  0.0191
   6.5214E-02   6.6800E-02   3.6115E-04  0.0186
   6.6800E-02   6.8426E-02   3.6813E-04  0.0182
   6.8426E-02   7.0090E-02   3.3533E-04  0.0189
   7.0090E-02   7.1796E-02   3.2990E-04  0.0188
   7.1796E-02   7.3543E-02   3.3988E-04  0.0183
   7.3543E-02   7.5332E-02   3.2433E-04  0.0185
   7.5332E-02   7.7165E-02   3.1368E-04  0.0186
   7.7165E-02   7.9042E-02   3.1270E-04  0.0184
   7.9042E-02   8.0965E-02   3.0394E-04  0.0185
   8.0965E-02   8.2935E-02   2.9283E-04  0.0186
   8.2935E-02   8.4953E-02   2.8130E-04  0.0187
   8.4953E-02   8.7020E-02   2.8083E-04  0.0185
   8.7020E-02   8.9138E-02   2.8243E-04  0.0183
   8.9138E-02   9.1306E-02   2.7370E-04  0.0183
   9.1306E-02   9.3528E-02   2.5476E-04  0.0188
   9.3528E-02   9.5804E-02   2.6298E-04  0.0182
   9.5804E-02   9.8134E-02   2.5074E-04  0.0185
   9.8134E-02   1.0052E-01   2.4751E-04  0.0184
   1.0052E-01   1.0297E-01   2.4607E-04  0.0182
   1.0297E-01   1.0547E-01   2.4292E-04  0.0181
   1.0547E-01   1.0804E-01   2.3764E-04  0.0181
   1.0804E-01   1.1067E-01   2.2313E-04  0.0184
   1.1067E-01   1.1336E-01   2.2590E-04  0.0181
   1.1336E-01   1.1612E-01   2.1586E-04  0.0183
   1.1612E-01   1.1894E-01   2.1988E-04  0.0179
   1.1894E-01   1.2184E-01   2.0292E-04  0.0184
   1.2184E-01   1.2480E-01   2.0533E-04  0.0181
   1.2480E-01   1.2784E-01   1.9612E-04  0.0183
   1.2784E-01   1.3095E-01   1.9673E-04  0.0180
   1.3095E-01   1.3414E-01   1.9005E-04  0.0181
   1.3414E-01   1.3740E-01   1.8012E-04  0.0184
   1.3740E-01   1.4074E-01   1.7805E-04  0.0183
   1.4074E-01   1.4417E-01   1.7951E-04  0.0180
   1.4417E-01   1.4767E-01   1.7587E-04  0.0180
   1.4767E-01   1.5127E-01   1.7077E-04  0.0180
   1.5127E-01   1.5495E-01   1.6506E-04  0.0181
   1.5495E-01   1.5872E-01   1.6249E-04  0.0180
   1.5872E-01   1.6258E-01   1.5850E-04  0.0180
   1.6258E-01   1.6654E-01   1.5374E-04  0.0181
   1.6654E-01   1.7059E-01   1.5372E-04  0.0179
   1.7059E-01   1.7474E-01   1.4996E-04  0.0179
   1.7474E-01   1.7899E-01   1.4784E-04  0.0178
   1.7899E-01   1.8334E-01   1.4449E-04  0.0178
   1.8334E-01   1.8781E-01   1.4086E-04  0.0178
   1.8781E-01   1.9237E-01   1.3900E-04  0.0177
   1.9237E-01   1.9706E-01   1.3204E-04  0.0180
   1.9706E-01   2.0185E-01   1.2736E-04  0.0181
   2.0185E-01   2.0676E-01   1.3147E-04  0.0176
   2.0676E-01   2.1179E-01   1.3455E-04  0.0172
   2.1179E-01   2.1694E-01   1.3926E-04  0.0167
   2.1694E-01   2.2222E-01   1.4221E-04  0.0163
   2.2222E-01   2.2763E-01   1.4726E-04  0.0158
   2.2763E-01   2.3317E-01   1.4851E-04  0.0156
   2.3317E-01   2.3884E-01   1.4961E-04  0.0153
   2.3884E-01   2.4465E-01   1.6202E-04  0.0145
   2.4465E-01   2.5061E-01   1.5651E-04  0.0146
   2.5061E-01   2.5670E-01   1.6012E-04  0.0143
   2.5670E-01   2.6295E-01   1.5896E-04  0.0142
   2.6295E-01   2.6935E-01   1.6837E-04  0.0136
   2.6935E-01   2.7590E-01   1.6543E-04  0.0135
   2.7590E-01   2.8261E-01   1.7047E-04  0.0132
   2.8261E-01   2.8949E-01   1.8038E-04  0.0127
   2.8949E-01   2.9653E-01   1.7786E-04  0.0126
   2.9653E-01   3.0375E-01   1.8212E-04  0.0123
   3.0375E-01   3.1114E-01   1.8309E-04  0.0121
   3.1114E-01   3.1871E-01   1.8883E-04  0.0118
   3.1871E-01   3.2646E-01   1.8820E-04  0.0117
   3.2646E-01   3.3441E-01   1.9456E-04  0.0113
   3.3441E-01   3.4254E-01   1.9162E-04  0.0113
   3.4254E-01   3.5088E-01   1.9567E-04  0.0110
   3.5088E-01   3.5941E-01   1.9967E-04  0.0108
   3.5941E-01   3.6816E-01   2.0368E-04  0.0106
   3.6816E-01   3.7712E-01   2.0412E-04  0.0104
   3.7712E-01   3.8629E-01   2.1117E-04  0.0101
   3.8629E-01   3.9569E-01   2.0909E-04  0.0101
   3.9569E-01   4.0532E-01   2.0980E-04  0.0099
   4.0532E-01   4.1518E-01   2.1368E-04  0.0097
   4.1518E-01   4.2528E-01   2.1049E-04  0.0097
   4.2528E-01   4.3563E-01   2.1505E-04  0.0095
   4.3563E-01   4.4623E-01   2.1832E-04  0.0093
   4.4623E-01   4.5708E-01   2.1790E-04  0.0092
   4.5708E-01   4.6821E-01   2.1796E-04  0.0091
   4.6821E-01   4.7960E-01   2.2203E-04  0.0089
   4.7960E-01   4.9127E-01   2.2007E-04  0.0088
   4.9127E-01   5.0322E-01   2.2268E-04  0.0086
   5.0322E-01   5.1546E-01   2.2554E-04  0.0085
   5.1546E-01   5.2800E-01   2.2318E-04  0.0084
   5.2800E-01   5.4085E-01   2.2499E-04  0.0083
   5.4085E-01   5.5401E-01   2.2146E-04  0.0083
   5.5401E-01   5.6749E-01   2.2442E-04  0.0081
   5.6749E-01   5.8130E-01   2.2246E-04  0.0080
   5.8130E-01   5.9544E-01   2.2784E-04  0.0079
   5.9544E-01   6.0993E-01   2.2370E-04  0.0078
   6.0993E-01   6.2477E-01   2.2132E-04  0.0078
   6.2477E-01   6.3997E-01   2.2117E-04  0.0077
   6.3997E-01   6.5554E-01   2.2351E-04  0.0076
   6.5554E-01   6.7149E-01   2.2282E-04  0.0075
   6.7149E-01   6.8783E-01   2.1937E-04  0.0074
   6.8783E-01   7.0456E-01   2.1856E-04  0.0074
   7.0456E-01   7.2171E-01   2.1820E-04  0.0073
   7.2171E-01   7.3927E-01   2.1295E-04  0.0073
   7.3927E-01   7.5725E-01   2.1259E-04  0.0072
   7.5725E-01   7.7568E-01   2.1063E-04  0.0072
   7.7568E-01   7.9455E-01   2.0750E-04  0.0071
   7.9455E-01   8.1388E-01   2.0452E-04  0.0071
   8.1388E-01   8.3368E-01   2.0070E-04  0.0071
   8.3368E-01   8.5397E-01   1.9769E-04  0.0070
   8.5397E-01   8.7475E-01   1.9236E-04  0.0070
   8.7475E-01   8.9603E-01   1.8807E-04  0.0070
   8.9603E-01   9.1783E-01   1.8345E-04  0.0070
   9.1783E-01   9.4016E-01   1.7600E-04  0.0071
   9.4016E-01   9.6304E-01   1.7195E-04  0.0071
   9.6304E-01   9.8647E-01   1.6625E-04  0.0071
   9.8647E-01   1.0105E+00   1.5983E-04  0.0072
   1.0105E+00   1.0351E+00   1.5539E-04  0.0072
   1.0351E+00   1.0602E+00   1.5318E-04  0.0072
   1.0602E+00   1.0860E+00   1.5141E-04  0.0071
   1.0860E+00   1.1125E+00   1.4922E-04  0.0071
   1.1125E+00   1.1395E+00   1.4677E-04  0.0071
   1.1395E+00   1.1673E+00   1.4524E-04  0.0070
   1.1673E+00   1.1957E+00   1.4493E-04  0.0069
   1.1957E+00   1.2247E+00   1.4472E-04  0.0069
   1.2247E+00   1.2545E+00   1.4093E-04  0.0069
   1.2545E+00   1.2851E+00   1.3878E-04  0.0068
   1.2851E+00   1.3163E+00   1.3422E-04  0.0069
   1.3163E+00   1.3484E+00   1.3155E-04  0.0069
   1.3484E+00   1.3812E+00   1.3081E-04  0.0068
   1.3812E+00   1.4148E+00   1.2868E-04  0.0068
   1.4148E+00   1.4492E+00   1.2527E-04  0.0068
   1.4492E+00   1.4845E+00   1.2337E-04  0.0067
   1.4845E+00   1.5206E+00   1.1966E-04  0.0068
   1.5206E+00   1.5576E+00   1.1648E-04  0.0068
   1.5576E+00   1.5955E+00   1.1283E-04  0.0068
   1.5955E+00   1.6343E+00   1.0992E-04  0.0068
   1.6343E+00   1.6741E+00   1.0935E-04  0.0067
   1.6741E+00   1.7148E+00   1.0614E-04  0.0068
   1.7148E+00   1.7565E+00   1.0342E-04  0.0068
   1.7565E+00   1.7992E+00   1.0135E-04  0.0068
   1.7992E+00   1.8430E+00   9.7843E-05  0.0068
   1.8430E+00   1.8879E+00   9.5227E-05  0.0068
   1.8879E+00   1.9338E+00   9.2773E-05  0.0068
   1.9338E+00   1.9808E+00   9.0754E-05  0.0068
   1.9808E+00   2.0290E+00   8.8883E-05  0.0068
   2.0290E+00   2.0784E+00   8.6486E-05  0.0068
   2.0784E+00   2.1290E+00   8.3725E-05  0.0068
   2.1290E+00   2.1808E+00   8.1641E-05  0.0068
   2.1808E+00   2.2338E+00   7.9729E-05  0.0068
   2.2338E+00   2.2882E+00   7.7643E-05  0.0068
   2.2882E+00   2.3439E+00   7.5790E-05  0.0068
   2.3439E+00   2.4009E+00   7.3608E-05  0.0069
   2.4009E+00   2.4593E+00   7.2009E-05  0.0068
   2.4593E+00   2.5191E+00   7.1328E-05  0.0068
   2.5191E+00   2.5804E+00   6.9484E-05  0.0068
   2.5804E+00   2.6432E+00   6.7225E-05  0.0068
   2.6432E+00   2.7075E+00   6.5219E-05  0.0069
   2.7075E+00   2.7734E+00   6.3903E-05  0.0068
   2.7734E+00   2.8409E+00   6.1913E-05  0.0069
   2.8409E+00   2.9100E+00   6.0517E-05  0.0069
   2.9100E+00   2.9808E+00   6.0165E-05  0.0068
   2.9808E+00   3.0533E+00   5.8402E-05  0.0068
   3.0533E+00   3.1276E+00   5.7502E-05  0.0068
   3.1276E+00   3.2037E+00   5.5429E-05  0.0068
   3.2037E+00   3.2817E+00   5.3986E-05  0.0068
   3.2817E+00   3.3615E+00   5.2709E-05  0.0069
   3.3615E+00   3.4433E+00   5.1686E-05  0.0068
   3.4433E+00   3.5271E+00   5.0001E-05  0.0069
   3.5271E+00   3.6129E+00   4.9527E-05  0.0068
   3.6129E+00   3.7008E+00   4.8028E-05  0.0068
   3.7008E+00   3.7908E+00   4.6835E-05  0.0068
   3.7908E+00   3.8831E+00   4.5324E-05  0.0069
   3.8831E+00   3.9776E+00   4.3987E-05  0.0069
   3.9776E+00   4.0743E+00   4.3108E-05  0.0069
   4.0743E+00   4.1735E+00   4.1448E-05  0.0069
   4.1735E+00   4.2750E+00   3.9989E-05  0.0070
   4.2750E+00   4.3790E+00   3.9402E-05  0.0069
   4.3790E+00   4.4856E+00   3.8204E-05  0.0070
   4.4856E+00   4.5947E+00   3.6565E-05  0.0070
   4.5947E+00   4.7065E+00   3.5417E-05  0.0071
   4.7065E+00   4.8210E+00   3.4172E-05  0.0071
   4.8210E+00   4.9383E+00   3.3219E-05  0.0071
   4.9383E+00   5.0585E+00   3.1642E-05  0.0072
   5.0585E+00   5.1815E+00   3.0368E-05  0.0073
   5.1815E+00   5.3076E+00   2.9323E-05  0.0073
   5.3076E+00   5.4368E+00   2.8118E-05  0.0074
   5.4368E+00   5.5690E+00   2.7121E-05  0.0074
   5.5690E+00   5.7045E+00   2.5833E-05  0.0075
   5.7045E+00   5.8433E+00   2.4663E-05  0.0076
   5.8433E+00   5.9855E+00   2.3831E-05  0.0077
   5.9855E+00   6.1311E+00   2.2877E-05  0.0077
   6.1311E+00   6.2803E+00   2.1793E-05  0.0078
   6.2803E+00   6.4331E+00   2.0831E-05  0.0079
   6.4331E+00   6.5896E+00   1.9580E-05  0.0080
   6.5896E+00   6.7500E+00   1.8724E-05  0.0081
   6.7500E+00   6.9142E+00   1.7938E-05  0.0082
   6.9142E+00   7.0824E+00   1.6689E-05  0.0084
   7.0824E+00   7.2548E+00   1.5785E-05  0.0085
   7.2548E+00   7.4313E+00   1.4919E-05  0.0087
   7.4313E+00   7.6121E+00   1.4096E-05  0.0088
   7.6121E+00   7.7973E+00   1.3353E-05  0.0090
   7.7973E+00   7.9870E+00   1.2567E-05  0.0091
   7.9870E+00   8.1813E+00   1.1987E-05  0.0092
   8.1813E+00   8.3804E+00   1.1392E-05  0.0094
   8.3804E+00   8.5843E+00   1.0636E-05  0.0096
   8.5843E+00   8.7931E+00   1.0082E-05  0.0097
   8.7931E+00   9.0071E+00   9.6261E-06  0.0098
   9.0071E+00   9.2262E+00   9.0080E-06  0.0100
   9.2262E+00   9.4507E+00   8.5020E-06  0.0102
   9.4507E+00   9.6807E+00   8.0179E-06  0.0104
   9.6807E+00   9.9162E+00   7.5651E-06  0.0106
   9.9162E+00   1.0157E+01   7.0167E-06  0.0108
   1.0157E+01   1.0405E+01   6.8169E-06  0.0109
   1.0405E+01   1.0658E+01   6.8853E-06  0.0107
   1.0658E+01   1.0917E+01   6.6238E-06  0.0108
   1.0917E+01   1.1183E+01   6.3045E-06  0.0109
   1.1183E+01   1.1455E+01   6.0207E-06  0.0110
   1.1455E+01   1.1733E+01   5.6728E-06  0.0112
   1.1733E+01   1.2019E+01   5.2941E-06  0.0115
   1.2019E+01   1.2311E+01   4.7121E-06  0.0120
   1.2311E+01   1.2611E+01   4.4786E-06  0.0122
   1.2611E+01   1.2918E+01   4.1183E-06  0.0126
   1.2918E+01   1.3232E+01   3.9688E-06  0.0126
   1.3232E+01   1.3554E+01   3.7154E-06  0.0129
   1.3554E+01   1.3884E+01   3.3485E-06  0.0134
   1.3884E+01   1.4222E+01   3.1735E-06  0.0136
   1.4222E+01   1.4568E+01   2.9176E-06  0.0141
   1.4568E+01   1.4922E+01   2.6749E-06  0.0145
   1.4922E+01   1.5285E+01   2.3800E-06  0.0152
   1.5285E+01   1.5657E+01   2.1484E-06  0.0158
   1.5657E+01   1.6038E+01   1.9577E-06  0.0164
   1.6038E+01   1.6428E+01   1.7430E-06  0.0171
   1.6428E+01   1.6828E+01   1.6110E-06  0.0176
   1.6828E+01   1.7237E+01   1.4758E-06  0.0182
   1.7237E+01   1.7657E+01   1.3182E-06  0.0190
   1.7657E+01   1.8086E+01   1.2361E-06  0.0194
   1.8086E+01   1.8526E+01   1.1035E-06  0.0203
   1.8526E+01   1.8977E+01   1.0000E-06  0.0211
   1.8977E+01   1.9439E+01   8.8962E-07  0.0221
   1.9439E+01   1.9912E+01   8.2014E-07  0.0227
   1.9912E+01   2.0396E+01   7.0881E-07  0.0241
   2.0396E+01   2.0893E+01   6.3475E-07  0.0252
   2.0893E+01   2.1401E+01   5.5948E-07  0.0265
   2.1401E+01   2.1922E+01   4.9817E-07  0.0278
   2.1922E+01   2.2455E+01   4.5334E-07  0.0288
   2.2455E+01   2.3001E+01   4.0597E-07  0.0300
   2.3001E+01   2.3561E+01   3.6166E-07  0.0314
   2.3561E+01   2.4134E+01   2.8922E-07  0.0347
   2.4134E+01   2.4721E+01   2.9700E-07  0.0339
   2.4721E+01   2.5323E+01   2.5636E-07  0.0360
   2.5323E+01   2.5939E+01   2.2236E-07  0.0382
   2.5939E+01   2.6570E+01   1.9774E-07  0.0400
   2.6570E+01   2.7217E+01   1.7201E-07  0.0424
   2.7217E+01   2.7879E+01   1.5162E-07  0.0446
   2.7879E+01   2.8557E+01   1.2737E-07  0.0481
   2.8557E+01   2.9252E+01   1.0362E-07  0.0527
   2.9252E+01   2.9964E+01   9.8915E-08  0.0533
   2.9964E+01   3.0693E+01   6.5566E-08  0.0647
   3.0693E+01   3.1440E+01   6.7758E-08  0.0629
   3.1440E+01   3.2205E+01   6.0919E-08  0.0655
   3.2205E+01   3.2988E+01   4.9518E-08  0.0718
   3.2988E+01   3.3791E+01   4.5850E-08  0.0737
   3.3791E+01   3.4613E+01   3.8679E-08  0.0793
   3.4613E+01   3.5455E+01   3.1823E-08  0.0864
   3.5455E+01   3.6318E+01   2.2257E-08  0.1021
   3.6318E+01   3.7201E+01   1.9691E-08  0.1072
   3.7201E+01   3.8106E+01   1.7677E-08  0.1118
   3.8106E+01   3.9034E+01   1.5747E-08  0.1170
   3.9034E+01   3.9983E+01   1.3478E-08  0.1250
   3.9983E+01   4.0956E+01   1.2130E-08  0.1302
   4.0956E+01   4.1953E+01   9.6338E-09  0.1443
   4.1953E+01   4.2973E+01   8.6212E-09  0.1508
   4.2973E+01   4.4019E+01   6.1210E-09  0.1768
   4.4019E+01   4.5090E+01   7.6563E-09  0.1562
   4.5090E+01   4.6187E+01   6.1983E-09  0.1715
   4.6187E+01   4.7311E+01   5.1612E-09  0.1857
   4.7311E+01   4.8462E+01   3.4749E-09  0.2236
   4.8462E+01   4.9641E+01   2.2050E-09  0.2774
   4.9641E+01   5.0849E+01   1.9871E-09  0.2887
   5.0849E+01   5.2086E+01   1.6166E-09  0.3162
   5.2086E+01   5.3353E+01   6.3127E-10  0.5000
   5.3353E+01   5.4651E+01   3.0814E-10  0.7071
   5.4651E+01   5.5981E+01   3.0082E-10  0.7071
   5.5981E+01   5.7343E+01   4.4051E-10  0.5774
   5.7343E+01   5.8738E+01   1.4335E-10  1.0000
   5.8738E+01   6.0168E+01   4.1983E-10  0.5774
   6.0168E+01   6.1632E+01   1.3662E-10  1.0000
   6.1632E+01   6.3131E+01   0.0000E+00  0.0000
   6.3131E+01   6.4667E+01   0.0000E+00  0.0000
   6.4667E+01   6.6240E+01   0.0000E+00  0.0000
   6.6240E+01   6.7852E+01   0.0000E+00  0.0000
   6.7852E+01   6.9503E+01   0.0000E+00  0.0000
   6.9503E+01   7.1194E+01   0.0000E+00  0.0000
   7.1194E+01   7.2926E+01   0.0000E+00  0.0000
   7.2926E+01   7.4701E+01   0.0000E+00  0.0000
   7.4701E+01   7.6518E+01   0.0000E+00  0.0000
   7.6518E+01   7.8380E+01   0.0000E+00  0.0000
   7.8380E+01   8.0287E+01   0.0000E+00  0.0000
   8.0287E+01   8.2240E+01   0.0000E+00  0.0000
   8.2240E+01   8.4241E+01   0.0000E+00  0.0000
   8.4241E+01   8.6291E+01   0.0000E+00  0.0000
   8.6291E+01   8.8391E+01   0.0000E+00  0.0000
   8.8391E+01   9.0541E+01   0.0000E+00  0.0000
   9.0541E+01   9.2744E+01   0.0000E+00  0.0000
   9.2744E+01   9.5001E+01   0.0000E+00  0.0000
   9.5001E+01   9.7312E+01   0.0000E+00  0.0000
   9.7312E+01   9.9680E+01   0.0000E+00  0.0000
   9.9680E+01   1.0211E+02   0.0000E+00  0.0000
   1.0211E+02   1.0459E+02   0.0000E+00  0.0000
   1.0459E+02   1.0713E+02   0.0000E+00  0.0000
   1.0713E+02   1.0974E+02   0.0000E+00  0.0000
   1.0974E+02   1.1241E+02   0.0000E+00  0.0000
   1.1241E+02   1.1515E+02   0.0000E+00  0.0000
   1.1515E+02   1.1795E+02   0.0000E+00  0.0000
   1.1795E+02   1.2082E+02   0.0000E+00  0.0000
   1.2082E+02   1.2376E+02   0.0000E+00  0.0000
   1.2376E+02   1.2677E+02   0.0000E+00  0.0000
   1.2677E+02   1.2985E+02   0.0000E+00  0.0000
   1.2985E+02   1.3301E+02   0.0000E+00  0.0000
   1.3301E+02   1.3625E+02   0.0000E+00  0.0000
   1.3625E+02   1.3956E+02   0.0000E+00  0.0000
   1.3956E+02   1.4296E+02   0.0000E+00  0.0000
   1.4296E+02   1.4644E+02   0.0000E+00  0.0000
   1.4644E+02   1.5000E+02   0.0000E+00  0.0000

#   sum over                 4.1245E-06
'no. =    1   reg = 121 - 221'
msuc: {\huge [t-cross] in region mesh}
msdr: {\it plotted by \ANGEL \version}
msdl: {\it calculated by \PHITS  3.28}
wt: s(0.7)
\vspace{-3}
  region surface crossing
  area  &=&   1.0000E+00 [cm^2]
e:
 
# Information for Restart Calculation
# This calculation was newly started
# istdev =  2 # 1:Batch variance, 2:History variance
# resc2  = 5.00000000000000000E+09 # Total source weight or Total source weight / maxcas
# resc3  = 5.00000000000000000E+09 # Total history number or Total batch number
# maxcas =   500000000 # History / Batch, only used for istdev=1
# bitrseed = 0110100000100010111000001110001111001110100100011111101000111001 # bit data of rseed
